{"header":{"xyz":{"source":[],"mosaic":false},"page":1000,"raw":{"soiltest_result":"0","bbox":"57.598333,109.544722,1.933333,163.806111","page":"1000"},"conditions":{"soiltest_result":0,"north":57.598333,"west":109.544722,"south":1.933333,"east":163.806111},"success":true,"message":""},"data":{"meta":{"total":212844,"page":1000,"pages":7095,"count":30},"values":[{"id":515418,"code":"B4KJ202201001-7954","latitude":"35.232278","longitude":"136.576333","source_code":"CB1685336520390024","project_name":"","survey_name":"\"\u5e73\u621028\u5e74\u5ea6 \u6771\u6d77\u74b0\u72b6(\u990a\u8001\u304b\u3089\u770c\u5883)\u6d77\u6d25\u5730\u533a\u5730\u8cea\u8abf\u67fb\"","client_name":"\"\u56fd\u571f\u4ea4\u901a\u7701 \u4e2d\u90e8\u5730\u65b9\u6574\u5099\u5c40 \u5c90\u961c\u56fd\u9053\u4e8b\u52d9\u6240\"","boring_xml_url":64,"boring_view_url":1,"soilmap_view_url":null,"soiltest_xml_url":0,"soiltest_view_url":0},{"id":515417,"code":"B4KJ202201001-7953","latitude":"35.233055","longitude":"136.57675","source_code":"CB1685336520390023","project_name":"","survey_name":"\"\u5e73\u621028\u5e74\u5ea6 \u6771\u6d77\u74b0\u72b6(\u990a\u8001\u304b\u3089\u770c\u5883)\u6d77\u6d25\u5730\u533a\u5730\u8cea\u8abf\u67fb\"","client_name":"\"\u56fd\u571f\u4ea4\u901a\u7701 \u4e2d\u90e8\u5730\u65b9\u6574\u5099\u5c40 \u5c90\u961c\u56fd\u9053\u4e8b\u52d9\u6240\"","boring_xml_url":64,"boring_view_url":1,"soilmap_view_url":null,"soiltest_xml_url":0,"soiltest_view_url":0},{"id":515416,"code":"B4KJ202201001-7952","latitude":"35.233611","longitude":"136.576889","source_code":"CB1685336520390022","project_name":"","survey_name":"\"\u5e73\u621028\u5e74\u5ea6 \u6771\u6d77\u74b0\u72b6(\u990a\u8001\u304b\u3089\u770c\u5883)\u6d77\u6d25\u5730\u533a\u5730\u8cea\u8abf\u67fb\"","client_name":"\"\u56fd\u571f\u4ea4\u901a\u7701 \u4e2d\u90e8\u5730\u65b9\u6574\u5099\u5c40 \u5c90\u961c\u56fd\u9053\u4e8b\u52d9\u6240\"","boring_xml_url":64,"boring_view_url":1,"soilmap_view_url":null,"soiltest_xml_url":0,"soiltest_view_url":0},{"id":515415,"code":"B4KJ202201001-7951","latitude":"35.234666","longitude":"136.576361","source_code":"CB1685336520390021","project_name":"","survey_name":"\"\u5e73\u621028\u5e74\u5ea6 \u6771\u6d77\u74b0\u72b6(\u990a\u8001\u304b\u3089\u770c\u5883)\u6d77\u6d25\u5730\u533a\u5730\u8cea\u8abf\u67fb\"","client_name":"\"\u56fd\u571f\u4ea4\u901a\u7701 \u4e2d\u90e8\u5730\u65b9\u6574\u5099\u5c40 \u5c90\u961c\u56fd\u9053\u4e8b\u52d9\u6240\"","boring_xml_url":64,"boring_view_url":1,"soilmap_view_url":null,"soiltest_xml_url":0,"soiltest_view_url":0},{"id":515414,"code":"B4KJ202201001-7950","latitude":"35.235111","longitude":"136.576639","source_code":"CB1685336520390020","project_name":"","survey_name":"\"\u5e73\u621028\u5e74\u5ea6 \u6771\u6d77\u74b0\u72b6(\u990a\u8001\u304b\u3089\u770c\u5883)\u6d77\u6d25\u5730\u533a\u5730\u8cea\u8abf\u67fb\"","client_name":"\"\u56fd\u571f\u4ea4\u901a\u7701 \u4e2d\u90e8\u5730\u65b9\u6574\u5099\u5c40 \u5c90\u961c\u56fd\u9053\u4e8b\u52d9\u6240\"","boring_xml_url":64,"boring_view_url":1,"soilmap_view_url":null,"soiltest_xml_url":0,"soiltest_view_url":0},{"id":515413,"code":"B4KJ202201001-7949","latitude":"35.233444","longitude":"136.573472","source_code":"CB1685336520390019","project_name":"","survey_name":"\"\u5e73\u621028\u5e74\u5ea6 \u6771\u6d77\u74b0\u72b6(\u990a\u8001\u304b\u3089\u770c\u5883)\u6d77\u6d25\u5730\u533a\u5730\u8cea\u8abf\u67fb\"","client_name":"\"\u56fd\u571f\u4ea4\u901a\u7701 \u4e2d\u90e8\u5730\u65b9\u6574\u5099\u5c40 \u5c90\u961c\u56fd\u9053\u4e8b\u52d9\u6240\"","boring_xml_url":64,"boring_view_url":1,"soilmap_view_url":null,"soiltest_xml_url":0,"soiltest_view_url":0},{"id":515412,"code":"B4KJ202201001-7948","latitude":"35.234055","longitude":"136.573889","source_code":"CB1685336520390018","project_name":"","survey_name":"\"\u5e73\u621028\u5e74\u5ea6 \u6771\u6d77\u74b0\u72b6(\u990a\u8001\u304b\u3089\u770c\u5883)\u6d77\u6d25\u5730\u533a\u5730\u8cea\u8abf\u67fb\"","client_name":"\"\u56fd\u571f\u4ea4\u901a\u7701 \u4e2d\u90e8\u5730\u65b9\u6574\u5099\u5c40 \u5c90\u961c\u56fd\u9053\u4e8b\u52d9\u6240\"","boring_xml_url":64,"boring_view_url":1,"soilmap_view_url":null,"soiltest_xml_url":0,"soiltest_view_url":0},{"id":515411,"code":"B4KJ202201001-7947","latitude":"35.234611","longitude":"136.574222","source_code":"CB1685336520390017","project_name":"","survey_name":"\"\u5e73\u621028\u5e74\u5ea6 \u6771\u6d77\u74b0\u72b6(\u990a\u8001\u304b\u3089\u770c\u5883)\u6d77\u6d25\u5730\u533a\u5730\u8cea\u8abf\u67fb\"","client_name":"\"\u56fd\u571f\u4ea4\u901a\u7701 \u4e2d\u90e8\u5730\u65b9\u6574\u5099\u5c40 \u5c90\u961c\u56fd\u9053\u4e8b\u52d9\u6240\"","boring_xml_url":64,"boring_view_url":1,"soilmap_view_url":null,"soiltest_xml_url":0,"soiltest_view_url":0},{"id":515410,"code":"B4KJ202201001-7946","latitude":"35.234639","longitude":"136.574972","source_code":"CB1685336520390016","project_name":"","survey_name":"\"\u5e73\u621028\u5e74\u5ea6 \u6771\u6d77\u74b0\u72b6(\u990a\u8001\u304b\u3089\u770c\u5883)\u6d77\u6d25\u5730\u533a\u5730\u8cea\u8abf\u67fb\"","client_name":"\"\u56fd\u571f\u4ea4\u901a\u7701 \u4e2d\u90e8\u5730\u65b9\u6574\u5099\u5c40 \u5c90\u961c\u56fd\u9053\u4e8b\u52d9\u6240\"","boring_xml_url":64,"boring_view_url":1,"soilmap_view_url":null,"soiltest_xml_url":0,"soiltest_view_url":0},{"id":515409,"code":"B4KJ202201001-7945","latitude":"35.235028","longitude":"136.574889","source_code":"CB1685336520390015","project_name":"","survey_name":"\"\u5e73\u621028\u5e74\u5ea6 \u6771\u6d77\u74b0\u72b6(\u990a\u8001\u304b\u3089\u770c\u5883)\u6d77\u6d25\u5730\u533a\u5730\u8cea\u8abf\u67fb\"","client_name":"\"\u56fd\u571f\u4ea4\u901a\u7701 \u4e2d\u90e8\u5730\u65b9\u6574\u5099\u5c40 \u5c90\u961c\u56fd\u9053\u4e8b\u52d9\u6240\"","boring_xml_url":64,"boring_view_url":1,"soilmap_view_url":null,"soiltest_xml_url":0,"soiltest_view_url":0},{"id":515408,"code":"B4KJ202201001-7944","latitude":"35.232083","longitude":"136.574194","source_code":"CB1685336520390014","project_name":"","survey_name":"\"\u5e73\u621028\u5e74\u5ea6 \u6771\u6d77\u74b0\u72b6(\u990a\u8001\u304b\u3089\u770c\u5883)\u6d77\u6d25\u5730\u533a\u5730\u8cea\u8abf\u67fb\"","client_name":"\"\u56fd\u571f\u4ea4\u901a\u7701 \u4e2d\u90e8\u5730\u65b9\u6574\u5099\u5c40 \u5c90\u961c\u56fd\u9053\u4e8b\u52d9\u6240\"","boring_xml_url":64,"boring_view_url":1,"soilmap_view_url":null,"soiltest_xml_url":0,"soiltest_view_url":0},{"id":515407,"code":"B4KJ202201001-7943","latitude":"35.232639","longitude":"136.574528","source_code":"CB1685336520390013","project_name":"","survey_name":"\"\u5e73\u621028\u5e74\u5ea6 \u6771\u6d77\u74b0\u72b6(\u990a\u8001\u304b\u3089\u770c\u5883)\u6d77\u6d25\u5730\u533a\u5730\u8cea\u8abf\u67fb\"","client_name":"\"\u56fd\u571f\u4ea4\u901a\u7701 \u4e2d\u90e8\u5730\u65b9\u6574\u5099\u5c40 \u5c90\u961c\u56fd\u9053\u4e8b\u52d9\u6240\"","boring_xml_url":64,"boring_view_url":1,"soilmap_view_url":null,"soiltest_xml_url":0,"soiltest_view_url":0},{"id":515406,"code":"B4KJ202201001-7942","latitude":"35.232944","longitude":"136.574805","source_code":"CB1685336520390012","project_name":"","survey_name":"\"\u5e73\u621028\u5e74\u5ea6 \u6771\u6d77\u74b0\u72b6(\u990a\u8001\u304b\u3089\u770c\u5883)\u6d77\u6d25\u5730\u533a\u5730\u8cea\u8abf\u67fb\"","client_name":"\"\u56fd\u571f\u4ea4\u901a\u7701 \u4e2d\u90e8\u5730\u65b9\u6574\u5099\u5c40 \u5c90\u961c\u56fd\u9053\u4e8b\u52d9\u6240\"","boring_xml_url":64,"boring_view_url":1,"soilmap_view_url":null,"soiltest_xml_url":0,"soiltest_view_url":0},{"id":515405,"code":"B4KJ202201001-7941","latitude":"35.233722","longitude":"136.575222","source_code":"CB1685336520390011","project_name":"","survey_name":"\"\u5e73\u621028\u5e74\u5ea6 \u6771\u6d77\u74b0\u72b6(\u990a\u8001\u304b\u3089\u770c\u5883)\u6d77\u6d25\u5730\u533a\u5730\u8cea\u8abf\u67fb\"","client_name":"\"\u56fd\u571f\u4ea4\u901a\u7701 \u4e2d\u90e8\u5730\u65b9\u6574\u5099\u5c40 \u5c90\u961c\u56fd\u9053\u4e8b\u52d9\u6240\"","boring_xml_url":64,"boring_view_url":1,"soilmap_view_url":null,"soiltest_xml_url":0,"soiltest_view_url":0},{"id":515404,"code":"B4KJ202201001-7940","latitude":"35.234055","longitude":"136.575416","source_code":"CB1685336520390010","project_name":"","survey_name":"\"\u5e73\u621028\u5e74\u5ea6 \u6771\u6d77\u74b0\u72b6(\u990a\u8001\u304b\u3089\u770c\u5883)\u6d77\u6d25\u5730\u533a\u5730\u8cea\u8abf\u67fb\"","client_name":"\"\u56fd\u571f\u4ea4\u901a\u7701 \u4e2d\u90e8\u5730\u65b9\u6574\u5099\u5c40 \u5c90\u961c\u56fd\u9053\u4e8b\u52d9\u6240\"","boring_xml_url":64,"boring_view_url":1,"soilmap_view_url":null,"soiltest_xml_url":0,"soiltest_view_url":0},{"id":515403,"code":"B4KJ202201001-7939","latitude":"35.234361","longitude":"136.575528","source_code":"CB1685336520390009","project_name":"","survey_name":"\"\u5e73\u621028\u5e74\u5ea6 \u6771\u6d77\u74b0\u72b6(\u990a\u8001\u304b\u3089\u770c\u5883)\u6d77\u6d25\u5730\u533a\u5730\u8cea\u8abf\u67fb\"","client_name":"\"\u56fd\u571f\u4ea4\u901a\u7701 \u4e2d\u90e8\u5730\u65b9\u6574\u5099\u5c40 \u5c90\u961c\u56fd\u9053\u4e8b\u52d9\u6240\"","boring_xml_url":64,"boring_view_url":1,"soilmap_view_url":null,"soiltest_xml_url":0,"soiltest_view_url":0},{"id":515402,"code":"B4KJ202201001-7938","latitude":"35.234916","longitude":"136.575694","source_code":"CB1685336520390008","project_name":"","survey_name":"\"\u5e73\u621028\u5e74\u5ea6 \u6771\u6d77\u74b0\u72b6(\u990a\u8001\u304b\u3089\u770c\u5883)\u6d77\u6d25\u5730\u533a\u5730\u8cea\u8abf\u67fb\"","client_name":"\"\u56fd\u571f\u4ea4\u901a\u7701 \u4e2d\u90e8\u5730\u65b9\u6574\u5099\u5c40 \u5c90\u961c\u56fd\u9053\u4e8b\u52d9\u6240\"","boring_xml_url":64,"boring_view_url":1,"soilmap_view_url":null,"soiltest_xml_url":0,"soiltest_view_url":0},{"id":515401,"code":"B4KJ202201001-7937","latitude":"35.23525","longitude":"136.576","source_code":"CB1685336520390007","project_name":"","survey_name":"\"\u5e73\u621028\u5e74\u5ea6 \u6771\u6d77\u74b0\u72b6(\u990a\u8001\u304b\u3089\u770c\u5883)\u6d77\u6d25\u5730\u533a\u5730\u8cea\u8abf\u67fb\"","client_name":"\"\u56fd\u571f\u4ea4\u901a\u7701 \u4e2d\u90e8\u5730\u65b9\u6574\u5099\u5c40 \u5c90\u961c\u56fd\u9053\u4e8b\u52d9\u6240\"","boring_xml_url":64,"boring_view_url":1,"soilmap_view_url":null,"soiltest_xml_url":0,"soiltest_view_url":0},{"id":515400,"code":"B4KJ202201001-7936","latitude":"35.235722","longitude":"136.57625","source_code":"CB1685336520390006","project_name":"","survey_name":"\"\u5e73\u621028\u5e74\u5ea6 \u6771\u6d77\u74b0\u72b6(\u990a\u8001\u304b\u3089\u770c\u5883)\u6d77\u6d25\u5730\u533a\u5730\u8cea\u8abf\u67fb\"","client_name":"\"\u56fd\u571f\u4ea4\u901a\u7701 \u4e2d\u90e8\u5730\u65b9\u6574\u5099\u5c40 \u5c90\u961c\u56fd\u9053\u4e8b\u52d9\u6240\"","boring_xml_url":64,"boring_view_url":1,"soilmap_view_url":null,"soiltest_xml_url":0,"soiltest_view_url":0},{"id":515399,"code":"B4KJ202201001-7935","latitude":"35.236472","longitude":"136.576666","source_code":"CB1685336520390005","project_name":"","survey_name":"\"\u5e73\u621028\u5e74\u5ea6 \u6771\u6d77\u74b0\u72b6(\u990a\u8001\u304b\u3089\u770c\u5883)\u6d77\u6d25\u5730\u533a\u5730\u8cea\u8abf\u67fb\"","client_name":"\"\u56fd\u571f\u4ea4\u901a\u7701 \u4e2d\u90e8\u5730\u65b9\u6574\u5099\u5c40 \u5c90\u961c\u56fd\u9053\u4e8b\u52d9\u6240\"","boring_xml_url":64,"boring_view_url":1,"soilmap_view_url":null,"soiltest_xml_url":0,"soiltest_view_url":0},{"id":515398,"code":"B4KJ202201001-7934","latitude":"35.236944","longitude":"136.576833","source_code":"CB1685336520390004","project_name":"","survey_name":"\"\u5e73\u621028\u5e74\u5ea6 \u6771\u6d77\u74b0\u72b6(\u990a\u8001\u304b\u3089\u770c\u5883)\u6d77\u6d25\u5730\u533a\u5730\u8cea\u8abf\u67fb\"","client_name":"\"\u56fd\u571f\u4ea4\u901a\u7701 \u4e2d\u90e8\u5730\u65b9\u6574\u5099\u5c40 \u5c90\u961c\u56fd\u9053\u4e8b\u52d9\u6240\"","boring_xml_url":64,"boring_view_url":1,"soilmap_view_url":null,"soiltest_xml_url":0,"soiltest_view_url":0},{"id":515397,"code":"B4KJ202201001-7933","latitude":"35.237222","longitude":"136.577222","source_code":"CB1685336520390003","project_name":"","survey_name":"\"\u5e73\u621028\u5e74\u5ea6 \u6771\u6d77\u74b0\u72b6(\u990a\u8001\u304b\u3089\u770c\u5883)\u6d77\u6d25\u5730\u533a\u5730\u8cea\u8abf\u67fb\"","client_name":"\"\u56fd\u571f\u4ea4\u901a\u7701 \u4e2d\u90e8\u5730\u65b9\u6574\u5099\u5c40 \u5c90\u961c\u56fd\u9053\u4e8b\u52d9\u6240\"","boring_xml_url":64,"boring_view_url":1,"soilmap_view_url":null,"soiltest_xml_url":0,"soiltest_view_url":0},{"id":515396,"code":"B4KJ202201001-7932","latitude":"35.238","longitude":"136.5775","source_code":"CB1685336520390002","project_name":"","survey_name":"\"\u5e73\u621028\u5e74\u5ea6 \u6771\u6d77\u74b0\u72b6(\u990a\u8001\u304b\u3089\u770c\u5883)\u6d77\u6d25\u5730\u533a\u5730\u8cea\u8abf\u67fb\"","client_name":"\"\u56fd\u571f\u4ea4\u901a\u7701 \u4e2d\u90e8\u5730\u65b9\u6574\u5099\u5c40 \u5c90\u961c\u56fd\u9053\u4e8b\u52d9\u6240\"","boring_xml_url":64,"boring_view_url":1,"soilmap_view_url":null,"soiltest_xml_url":0,"soiltest_view_url":0},{"id":515395,"code":"B4KJ202201001-7931","latitude":"35.238222","longitude":"136.577611","source_code":"CB1685336520390001","project_name":"","survey_name":"\"\u5e73\u621028\u5e74\u5ea6 \u6771\u6d77\u74b0\u72b6(\u990a\u8001\u304b\u3089\u770c\u5883)\u6d77\u6d25\u5730\u533a\u5730\u8cea\u8abf\u67fb\"","client_name":"\"\u56fd\u571f\u4ea4\u901a\u7701 \u4e2d\u90e8\u5730\u65b9\u6574\u5099\u5c40 \u5c90\u961c\u56fd\u9053\u4e8b\u52d9\u6240\"","boring_xml_url":64,"boring_view_url":1,"soilmap_view_url":null,"soiltest_xml_url":0,"soiltest_view_url":0},{"id":515394,"code":"B4KJ202201001-7930","latitude":"35.459076","longitude":"136.672262","source_code":"CB1685336520140006","project_name":"\u3010\u8239\u6765\u5c71\uff5e\u5927\u91ce\u795e\u6238IC\u9593\u89b3\u6e2c\u5b54\u8a2d\u7f6e\u4f5c\u696d\u3011","survey_name":"\u5e73\u621028\u5e74\u5ea6\u6771\u6d77\u74b0\u72b6\u5357\u90e8\u6c34\u6587\u8abf\u67fb","client_name":"\u56fd\u571f\u4ea4\u901a\u7701\u4e2d\u90e8\u5730\u65b9\u6574\u5099\u5c40\u5c90\u961c\u56fd\u9053\u4e8b\u52d9\u6240","boring_xml_url":64,"boring_view_url":1,"soilmap_view_url":null,"soiltest_xml_url":0,"soiltest_view_url":0},{"id":515393,"code":"B4KJ202201001-7929","latitude":"35.459082","longitude":"136.674633","source_code":"CB1685336520140005","project_name":"\u3010\u8239\u6765\u5c71\uff5e\u5927\u91ce\u795e\u6238IC\u9593\u89b3\u6e2c\u5b54\u8a2d\u7f6e\u4f5c\u696d\u3011","survey_name":"\u5e73\u621028\u5e74\u5ea6\u6771\u6d77\u74b0\u72b6\u5357\u90e8\u6c34\u6587\u8abf\u67fb","client_name":"\u56fd\u571f\u4ea4\u901a\u7701\u4e2d\u90e8\u5730\u65b9\u6574\u5099\u5c40\u5c90\u961c\u56fd\u9053\u4e8b\u52d9\u6240","boring_xml_url":64,"boring_view_url":1,"soilmap_view_url":null,"soiltest_xml_url":0,"soiltest_view_url":0},{"id":515392,"code":"B4KJ202201001-7928","latitude":"35.457673","longitude":"136.664349","source_code":"CB1685336520140004","project_name":"\u3010\u8239\u6765\u5c71\uff5e\u5927\u91ce\u795e\u6238IC\u9593\u89b3\u6e2c\u5b54\u8a2d\u7f6e\u4f5c\u696d\u3011","survey_name":"\u5e73\u621028\u5e74\u5ea6\u6771\u6d77\u74b0\u72b6\u5357\u90e8\u6c34\u6587\u8abf\u67fb","client_name":"\u56fd\u571f\u4ea4\u901a\u7701\u4e2d\u90e8\u5730\u65b9\u6574\u5099\u5c40\u5c90\u961c\u56fd\u9053\u4e8b\u52d9\u6240","boring_xml_url":64,"boring_view_url":1,"soilmap_view_url":null,"soiltest_xml_url":0,"soiltest_view_url":0},{"id":515391,"code":"B4KJ202201001-7927","latitude":"35.455734","longitude":"136.662257","source_code":"CB1685336520140003","project_name":"\u3010\u8239\u6765\u5c71\uff5e\u5927\u91ce\u795e\u6238IC\u9593\u89b3\u6e2c\u5b54\u8a2d\u7f6e\u4f5c\u696d\u3011","survey_name":"\u5e73\u621028\u5e74\u5ea6\u6771\u6d77\u74b0\u72b6\u5357\u90e8\u6c34\u6587\u8abf\u67fb","client_name":"\u56fd\u571f\u4ea4\u901a\u7701\u4e2d\u90e8\u5730\u65b9\u6574\u5099\u5c40\u5c90\u961c\u56fd\u9053\u4e8b\u52d9\u6240","boring_xml_url":64,"boring_view_url":1,"soilmap_view_url":null,"soiltest_xml_url":0,"soiltest_view_url":0},{"id":515390,"code":"B4KJ202201001-7926","latitude":"35.453664","longitude":"136.658884","source_code":"CB1685336520140002","project_name":"\u3010\u8239\u6765\u5c71\uff5e\u5927\u91ce\u795e\u6238IC\u9593\u89b3\u6e2c\u5b54\u8a2d\u7f6e\u4f5c\u696d\u3011","survey_name":"\u5e73\u621028\u5e74\u5ea6\u6771\u6d77\u74b0\u72b6\u5357\u90e8\u6c34\u6587\u8abf\u67fb","client_name":"\u56fd\u571f\u4ea4\u901a\u7701\u4e2d\u90e8\u5730\u65b9\u6574\u5099\u5c40\u5c90\u961c\u56fd\u9053\u4e8b\u52d9\u6240","boring_xml_url":64,"boring_view_url":1,"soilmap_view_url":null,"soiltest_xml_url":0,"soiltest_view_url":0},{"id":515389,"code":"B4KJ202201001-7925","latitude":"35.440768","longitude":"136.652618","source_code":"CB1685336520140001","project_name":"\u3010\u8239\u6765\u5c71\uff5e\u5927\u91ce\u795e\u6238IC\u9593\u89b3\u6e2c\u5b54\u8a2d\u7f6e\u4f5c\u696d\u3011","survey_name":"\u5e73\u621028\u5e74\u5ea6\u6771\u6d77\u74b0\u72b6\u5357\u90e8\u6c34\u6587\u8abf\u67fb","client_name":"\u56fd\u571f\u4ea4\u901a\u7701\u4e2d\u90e8\u5730\u65b9\u6574\u5099\u5c40\u5c90\u961c\u56fd\u9053\u4e8b\u52d9\u6240","boring_xml_url":64,"boring_view_url":1,"soilmap_view_url":null,"soiltest_xml_url":0,"soiltest_view_url":0}]}}