{"header":{"xyz":{"source":[],"mosaic":false},"page":1011,"raw":{"soiltest_result":"0","bbox":"57.598333,109.544722,1.933333,163.806111","page":"1011"},"conditions":{"soiltest_result":0,"north":57.598333,"west":109.544722,"south":1.933333,"east":163.806111},"success":true,"message":""},"data":{"meta":{"total":212844,"page":1011,"pages":7095,"count":30},"values":[{"id":515088,"code":"B4KJ202201001-7624","latitude":"35.062861","longitude":"137.177917","source_code":"CB1685514020210001","project_name":"","survey_name":"\u5e73\u621028\u5e74\u5ea6\u3000\u77e2\u4f5c\u5ddd\u9d5c\u306e\u9996\u5730\u8cea\u8abf\u67fb\u696d\u52d9","client_name":"\u56fd\u571f\u4ea4\u901a\u7701\u3000\u4e2d\u90e8\u5730\u65b9\u6574\u5099\u5c40\u3000\u8c4a\u6a4b\u6cb3\u5ddd\u4e8b\u52d9\u6240","boring_xml_url":64,"boring_view_url":1,"soilmap_view_url":null,"soiltest_xml_url":0,"soiltest_view_url":0},{"id":515087,"code":"B4KJ202201001-7623","latitude":"35.091486","longitude":"137.558431","source_code":"CB1685576120240003","project_name":"\u5e73\u621028\u5e74\u5ea6\u3000\u8a2d\u697d\u30c0\u30e0\u8ee2\u6d41\u5de5\u95a2\u9023\u5730\u8cea\u8abf\u67fb\u696d\u52d9","survey_name":"\u5e73\u621028\u5e74\u5ea6\u3000\u8a2d\u697d\u30c0\u30e0\u8ee2\u6d41\u5de5\u95a2\u9023\u5730\u8cea\u8abf\u67fb\u696d\u52d9","client_name":"\"\u56fd\u571f\u4ea4\u901a\u7701 \u4e2d\u90e8\u5730\u65b9\u6574\u5099\u5c40 \u8a2d\u697d\u30c0\u30e0\u5de5\u4e8b\u4e8b\u52d9\u6240\"","boring_xml_url":64,"boring_view_url":1,"soilmap_view_url":null,"soiltest_xml_url":0,"soiltest_view_url":0},{"id":515086,"code":"B4KJ202201001-7622","latitude":"35.090575","longitude":"137.553756","source_code":"CB1685576120240002","project_name":"\u5e73\u621028\u5e74\u5ea6\u3000\u8a2d\u697d\u30c0\u30e0\u8ee2\u6d41\u5de5\u95a2\u9023\u5730\u8cea\u8abf\u67fb\u696d\u52d9","survey_name":"\u5e73\u621028\u5e74\u5ea6\u3000\u8a2d\u697d\u30c0\u30e0\u8ee2\u6d41\u5de5\u95a2\u9023\u5730\u8cea\u8abf\u67fb\u696d\u52d9","client_name":"\"\u56fd\u571f\u4ea4\u901a\u7701 \u4e2d\u90e8\u5730\u65b9\u6574\u5099\u5c40 \u8a2d\u697d\u30c0\u30e0\u5de5\u4e8b\u4e8b\u52d9\u6240\"","boring_xml_url":64,"boring_view_url":1,"soilmap_view_url":null,"soiltest_xml_url":0,"soiltest_view_url":0},{"id":515085,"code":"B4KJ202201001-7621","latitude":"35.090617","longitude":"137.553447","source_code":"CB1685576120240001","project_name":"\u5e73\u621028\u5e74\u5ea6\u3000\u8a2d\u697d\u30c0\u30e0\u8ee2\u6d41\u5de5\u95a2\u9023\u5730\u8cea\u8abf\u67fb\u696d\u52d9","survey_name":"\u5e73\u621028\u5e74\u5ea6\u3000\u8a2d\u697d\u30c0\u30e0\u8ee2\u6d41\u5de5\u95a2\u9023\u5730\u8cea\u8abf\u67fb\u696d\u52d9","client_name":"\"\u56fd\u571f\u4ea4\u901a\u7701 \u4e2d\u90e8\u5730\u65b9\u6574\u5099\u5c40 \u8a2d\u697d\u30c0\u30e0\u5de5\u4e8b\u4e8b\u52d9\u6240\"","boring_xml_url":64,"boring_view_url":1,"soilmap_view_url":null,"soiltest_xml_url":0,"soiltest_view_url":0},{"id":515084,"code":"B4KJ202201001-7620","latitude":"35.100923","longitude":"137.551818","source_code":"CB1685574020130038","project_name":"","survey_name":"\u5e73\u621028\u5e74\u5ea6\u3000\u8a2d\u697d\u30c0\u30e0\u4ed8\u66ff\u9053\u8def\u95a2\u9023\u5730\u8cea\u8abf\u67fb\u696d\u52d9","client_name":"\u56fd\u571f\u4ea4\u901a\u7701\u4e2d\u90e8\u5730\u65b9\u6574\u5099\u5c40\u8a2d\u697d\u30c0\u30e0\u5de5\u4e8b\u4e8b\u52d9\u6240","boring_xml_url":64,"boring_view_url":1,"soilmap_view_url":null,"soiltest_xml_url":0,"soiltest_view_url":0},{"id":515083,"code":"B4KJ202201001-7619","latitude":"35.097806","longitude":"137.554444","source_code":"CB1685574020130037","project_name":"","survey_name":"\u5e73\u621028\u5e74\u5ea6\u3000\u8a2d\u697d\u30c0\u30e0\u4ed8\u66ff\u9053\u8def\u95a2\u9023\u5730\u8cea\u8abf\u67fb\u696d\u52d9","client_name":"\u56fd\u571f\u4ea4\u901a\u7701\u4e2d\u90e8\u5730\u65b9\u6574\u5099\u5c40\u8a2d\u697d\u30c0\u30e0\u5de5\u4e8b\u4e8b\u52d9\u6240","boring_xml_url":64,"boring_view_url":1,"soilmap_view_url":null,"soiltest_xml_url":0,"soiltest_view_url":0},{"id":515082,"code":"B4KJ202201001-7618","latitude":"35.097778","longitude":"137.539194","source_code":"CB1685574020130036","project_name":"","survey_name":"\u5e73\u621028\u5e74\u5ea6\u3000\u8a2d\u697d\u30c0\u30e0\u4ed8\u66ff\u9053\u8def\u95a2\u9023\u5730\u8cea\u8abf\u67fb\u696d\u52d9","client_name":"\u56fd\u571f\u4ea4\u901a\u7701\u4e2d\u90e8\u5730\u65b9\u6574\u5099\u5c40\u8a2d\u697d\u30c0\u30e0\u5de5\u4e8b\u4e8b\u52d9\u6240","boring_xml_url":64,"boring_view_url":1,"soilmap_view_url":null,"soiltest_xml_url":0,"soiltest_view_url":0},{"id":515081,"code":"B4KJ202201001-7617","latitude":"35.097361","longitude":"137.54025","source_code":"CB1685574020130035","project_name":"","survey_name":"\u5e73\u621028\u5e74\u5ea6\u3000\u8a2d\u697d\u30c0\u30e0\u4ed8\u66ff\u9053\u8def\u95a2\u9023\u5730\u8cea\u8abf\u67fb\u696d\u52d9","client_name":"\u56fd\u571f\u4ea4\u901a\u7701\u4e2d\u90e8\u5730\u65b9\u6574\u5099\u5c40\u8a2d\u697d\u30c0\u30e0\u5de5\u4e8b\u4e8b\u52d9\u6240","boring_xml_url":64,"boring_view_url":1,"soilmap_view_url":null,"soiltest_xml_url":0,"soiltest_view_url":0},{"id":515080,"code":"B4KJ202201001-7616","latitude":"35.097333","longitude":"137.54125","source_code":"CB1685574020130034","project_name":"","survey_name":"\u5e73\u621028\u5e74\u5ea6\u3000\u8a2d\u697d\u30c0\u30e0\u4ed8\u66ff\u9053\u8def\u95a2\u9023\u5730\u8cea\u8abf\u67fb\u696d\u52d9","client_name":"\u56fd\u571f\u4ea4\u901a\u7701\u4e2d\u90e8\u5730\u65b9\u6574\u5099\u5c40\u8a2d\u697d\u30c0\u30e0\u5de5\u4e8b\u4e8b\u52d9\u6240","boring_xml_url":64,"boring_view_url":1,"soilmap_view_url":null,"soiltest_xml_url":0,"soiltest_view_url":0},{"id":515079,"code":"B4KJ202201001-7615","latitude":"35.097722","longitude":"137.541667","source_code":"CB1685574020130033","project_name":"","survey_name":"\u5e73\u621028\u5e74\u5ea6\u3000\u8a2d\u697d\u30c0\u30e0\u4ed8\u66ff\u9053\u8def\u95a2\u9023\u5730\u8cea\u8abf\u67fb\u696d\u52d9","client_name":"\u56fd\u571f\u4ea4\u901a\u7701\u4e2d\u90e8\u5730\u65b9\u6574\u5099\u5c40\u8a2d\u697d\u30c0\u30e0\u5de5\u4e8b\u4e8b\u52d9\u6240","boring_xml_url":64,"boring_view_url":1,"soilmap_view_url":null,"soiltest_xml_url":0,"soiltest_view_url":0},{"id":515078,"code":"B4KJ202201001-7614","latitude":"35.098389","longitude":"137.541778","source_code":"CB1685574020130032","project_name":"","survey_name":"\u5e73\u621028\u5e74\u5ea6\u3000\u8a2d\u697d\u30c0\u30e0\u4ed8\u66ff\u9053\u8def\u95a2\u9023\u5730\u8cea\u8abf\u67fb\u696d\u52d9","client_name":"\u56fd\u571f\u4ea4\u901a\u7701\u4e2d\u90e8\u5730\u65b9\u6574\u5099\u5c40\u8a2d\u697d\u30c0\u30e0\u5de5\u4e8b\u4e8b\u52d9\u6240","boring_xml_url":64,"boring_view_url":1,"soilmap_view_url":null,"soiltest_xml_url":0,"soiltest_view_url":0},{"id":515077,"code":"B4KJ202201001-7613","latitude":"35.098861","longitude":"137.543333","source_code":"CB1685574020130031","project_name":"","survey_name":"\u5e73\u621028\u5e74\u5ea6\u3000\u8a2d\u697d\u30c0\u30e0\u4ed8\u66ff\u9053\u8def\u95a2\u9023\u5730\u8cea\u8abf\u67fb\u696d\u52d9","client_name":"\u56fd\u571f\u4ea4\u901a\u7701\u4e2d\u90e8\u5730\u65b9\u6574\u5099\u5c40\u8a2d\u697d\u30c0\u30e0\u5de5\u4e8b\u4e8b\u52d9\u6240","boring_xml_url":64,"boring_view_url":1,"soilmap_view_url":null,"soiltest_xml_url":0,"soiltest_view_url":0},{"id":515076,"code":"B4KJ202201001-7612","latitude":"35.099389","longitude":"137.544361","source_code":"CB1685574020130030","project_name":"","survey_name":"\u5e73\u621028\u5e74\u5ea6\u3000\u8a2d\u697d\u30c0\u30e0\u4ed8\u66ff\u9053\u8def\u95a2\u9023\u5730\u8cea\u8abf\u67fb\u696d\u52d9","client_name":"\u56fd\u571f\u4ea4\u901a\u7701\u4e2d\u90e8\u5730\u65b9\u6574\u5099\u5c40\u8a2d\u697d\u30c0\u30e0\u5de5\u4e8b\u4e8b\u52d9\u6240","boring_xml_url":64,"boring_view_url":1,"soilmap_view_url":null,"soiltest_xml_url":0,"soiltest_view_url":0},{"id":515075,"code":"B4KJ202201001-7611","latitude":"35.098944","longitude":"137.546","source_code":"CB1685574020130029","project_name":"","survey_name":"\u5e73\u621028\u5e74\u5ea6\u3000\u8a2d\u697d\u30c0\u30e0\u4ed8\u66ff\u9053\u8def\u95a2\u9023\u5730\u8cea\u8abf\u67fb\u696d\u52d9","client_name":"\u56fd\u571f\u4ea4\u901a\u7701\u4e2d\u90e8\u5730\u65b9\u6574\u5099\u5c40\u8a2d\u697d\u30c0\u30e0\u5de5\u4e8b\u4e8b\u52d9\u6240","boring_xml_url":64,"boring_view_url":1,"soilmap_view_url":null,"soiltest_xml_url":0,"soiltest_view_url":0},{"id":515074,"code":"B4KJ202201001-7610","latitude":"35.098611","longitude":"137.546389","source_code":"CB1685574020130028","project_name":"","survey_name":"\u5e73\u621028\u5e74\u5ea6\u3000\u8a2d\u697d\u30c0\u30e0\u4ed8\u66ff\u9053\u8def\u95a2\u9023\u5730\u8cea\u8abf\u67fb\u696d\u52d9","client_name":"\u56fd\u571f\u4ea4\u901a\u7701\u4e2d\u90e8\u5730\u65b9\u6574\u5099\u5c40\u8a2d\u697d\u30c0\u30e0\u5de5\u4e8b\u4e8b\u52d9\u6240","boring_xml_url":64,"boring_view_url":1,"soilmap_view_url":null,"soiltest_xml_url":0,"soiltest_view_url":0},{"id":515073,"code":"B4KJ202201001-7609","latitude":"35.098917","longitude":"137.547944","source_code":"CB1685574020130027","project_name":"","survey_name":"\u5e73\u621028\u5e74\u5ea6\u3000\u8a2d\u697d\u30c0\u30e0\u4ed8\u66ff\u9053\u8def\u95a2\u9023\u5730\u8cea\u8abf\u67fb\u696d\u52d9","client_name":"\u56fd\u571f\u4ea4\u901a\u7701\u4e2d\u90e8\u5730\u65b9\u6574\u5099\u5c40\u8a2d\u697d\u30c0\u30e0\u5de5\u4e8b\u4e8b\u52d9\u6240","boring_xml_url":64,"boring_view_url":1,"soilmap_view_url":null,"soiltest_xml_url":0,"soiltest_view_url":0},{"id":515072,"code":"B4KJ202201001-7608","latitude":"35.098278","longitude":"137.547944","source_code":"CB1685574020130026","project_name":"","survey_name":"\u5e73\u621028\u5e74\u5ea6\u3000\u8a2d\u697d\u30c0\u30e0\u4ed8\u66ff\u9053\u8def\u95a2\u9023\u5730\u8cea\u8abf\u67fb\u696d\u52d9","client_name":"\u56fd\u571f\u4ea4\u901a\u7701\u4e2d\u90e8\u5730\u65b9\u6574\u5099\u5c40\u8a2d\u697d\u30c0\u30e0\u5de5\u4e8b\u4e8b\u52d9\u6240","boring_xml_url":64,"boring_view_url":1,"soilmap_view_url":null,"soiltest_xml_url":0,"soiltest_view_url":0},{"id":515071,"code":"B4KJ202201001-7607","latitude":"35.098139","longitude":"137.548361","source_code":"CB1685574020130025","project_name":"","survey_name":"\u5e73\u621028\u5e74\u5ea6\u3000\u8a2d\u697d\u30c0\u30e0\u4ed8\u66ff\u9053\u8def\u95a2\u9023\u5730\u8cea\u8abf\u67fb\u696d\u52d9","client_name":"\u56fd\u571f\u4ea4\u901a\u7701\u4e2d\u90e8\u5730\u65b9\u6574\u5099\u5c40\u8a2d\u697d\u30c0\u30e0\u5de5\u4e8b\u4e8b\u52d9\u6240","boring_xml_url":64,"boring_view_url":1,"soilmap_view_url":null,"soiltest_xml_url":0,"soiltest_view_url":0},{"id":515070,"code":"B4KJ202201001-7606","latitude":"35.098083","longitude":"137.548861","source_code":"CB1685574020130024","project_name":"","survey_name":"\u5e73\u621028\u5e74\u5ea6\u3000\u8a2d\u697d\u30c0\u30e0\u4ed8\u66ff\u9053\u8def\u95a2\u9023\u5730\u8cea\u8abf\u67fb\u696d\u52d9","client_name":"\u56fd\u571f\u4ea4\u901a\u7701\u4e2d\u90e8\u5730\u65b9\u6574\u5099\u5c40\u8a2d\u697d\u30c0\u30e0\u5de5\u4e8b\u4e8b\u52d9\u6240","boring_xml_url":64,"boring_view_url":1,"soilmap_view_url":null,"soiltest_xml_url":0,"soiltest_view_url":0},{"id":515069,"code":"B4KJ202201001-7605","latitude":"35.097639","longitude":"137.5505","source_code":"CB1685574020130023","project_name":"","survey_name":"\u5e73\u621028\u5e74\u5ea6\u3000\u8a2d\u697d\u30c0\u30e0\u4ed8\u66ff\u9053\u8def\u95a2\u9023\u5730\u8cea\u8abf\u67fb\u696d\u52d9","client_name":"\u56fd\u571f\u4ea4\u901a\u7701\u4e2d\u90e8\u5730\u65b9\u6574\u5099\u5c40\u8a2d\u697d\u30c0\u30e0\u5de5\u4e8b\u4e8b\u52d9\u6240","boring_xml_url":64,"boring_view_url":1,"soilmap_view_url":null,"soiltest_xml_url":0,"soiltest_view_url":0},{"id":515068,"code":"B4KJ202201001-7604","latitude":"35.118028","longitude":"137.581972","source_code":"CB1685574020130022","project_name":"","survey_name":"\u5e73\u621028\u5e74\u5ea6\u3000\u8a2d\u697d\u30c0\u30e0\u4ed8\u66ff\u9053\u8def\u95a2\u9023\u5730\u8cea\u8abf\u67fb\u696d\u52d9","client_name":"\u56fd\u571f\u4ea4\u901a\u7701\u4e2d\u90e8\u5730\u65b9\u6574\u5099\u5c40\u8a2d\u697d\u30c0\u30e0\u5de5\u4e8b\u4e8b\u52d9\u6240","boring_xml_url":64,"boring_view_url":1,"soilmap_view_url":null,"soiltest_xml_url":0,"soiltest_view_url":0},{"id":515067,"code":"B4KJ202201001-7603","latitude":"35.118222","longitude":"137.582056","source_code":"CB1685574020130021","project_name":"","survey_name":"\u5e73\u621028\u5e74\u5ea6\u3000\u8a2d\u697d\u30c0\u30e0\u4ed8\u66ff\u9053\u8def\u95a2\u9023\u5730\u8cea\u8abf\u67fb\u696d\u52d9","client_name":"\u56fd\u571f\u4ea4\u901a\u7701\u4e2d\u90e8\u5730\u65b9\u6574\u5099\u5c40\u8a2d\u697d\u30c0\u30e0\u5de5\u4e8b\u4e8b\u52d9\u6240","boring_xml_url":64,"boring_view_url":1,"soilmap_view_url":null,"soiltest_xml_url":0,"soiltest_view_url":0},{"id":515066,"code":"B4KJ202201001-7602","latitude":"35.118417","longitude":"137.576306","source_code":"CB1685574020130020","project_name":"","survey_name":"\u5e73\u621028\u5e74\u5ea6\u3000\u8a2d\u697d\u30c0\u30e0\u4ed8\u66ff\u9053\u8def\u95a2\u9023\u5730\u8cea\u8abf\u67fb\u696d\u52d9","client_name":"\u56fd\u571f\u4ea4\u901a\u7701\u4e2d\u90e8\u5730\u65b9\u6574\u5099\u5c40\u8a2d\u697d\u30c0\u30e0\u5de5\u4e8b\u4e8b\u52d9\u6240","boring_xml_url":64,"boring_view_url":1,"soilmap_view_url":null,"soiltest_xml_url":0,"soiltest_view_url":0},{"id":515065,"code":"B4KJ202201001-7601","latitude":"35.118611","longitude":"137.581861","source_code":"CB1685574020130019","project_name":"","survey_name":"\u5e73\u621028\u5e74\u5ea6\u3000\u8a2d\u697d\u30c0\u30e0\u4ed8\u66ff\u9053\u8def\u95a2\u9023\u5730\u8cea\u8abf\u67fb\u696d\u52d9","client_name":"\u56fd\u571f\u4ea4\u901a\u7701\u4e2d\u90e8\u5730\u65b9\u6574\u5099\u5c40\u8a2d\u697d\u30c0\u30e0\u5de5\u4e8b\u4e8b\u52d9\u6240","boring_xml_url":64,"boring_view_url":1,"soilmap_view_url":null,"soiltest_xml_url":0,"soiltest_view_url":0},{"id":515064,"code":"B4KJ202201001-7600","latitude":"35.086583","longitude":"137.568222","source_code":"CB1685574020130018","project_name":"","survey_name":"\u5e73\u621028\u5e74\u5ea6\u3000\u8a2d\u697d\u30c0\u30e0\u4ed8\u66ff\u9053\u8def\u95a2\u9023\u5730\u8cea\u8abf\u67fb\u696d\u52d9","client_name":"\u56fd\u571f\u4ea4\u901a\u7701\u4e2d\u90e8\u5730\u65b9\u6574\u5099\u5c40\u8a2d\u697d\u30c0\u30e0\u5de5\u4e8b\u4e8b\u52d9\u6240","boring_xml_url":64,"boring_view_url":1,"soilmap_view_url":null,"soiltest_xml_url":0,"soiltest_view_url":0},{"id":515063,"code":"B4KJ202201001-7599","latitude":"35.086556","longitude":"137.568361","source_code":"CB1685574020130017","project_name":"","survey_name":"\u5e73\u621028\u5e74\u5ea6\u3000\u8a2d\u697d\u30c0\u30e0\u4ed8\u66ff\u9053\u8def\u95a2\u9023\u5730\u8cea\u8abf\u67fb\u696d\u52d9","client_name":"\u56fd\u571f\u4ea4\u901a\u7701\u4e2d\u90e8\u5730\u65b9\u6574\u5099\u5c40\u8a2d\u697d\u30c0\u30e0\u5de5\u4e8b\u4e8b\u52d9\u6240","boring_xml_url":64,"boring_view_url":1,"soilmap_view_url":null,"soiltest_xml_url":0,"soiltest_view_url":0},{"id":515062,"code":"B4KJ202201001-7598","latitude":"35.086722","longitude":"137.5685","source_code":"CB1685574020130016","project_name":"","survey_name":"\u5e73\u621028\u5e74\u5ea6\u3000\u8a2d\u697d\u30c0\u30e0\u4ed8\u66ff\u9053\u8def\u95a2\u9023\u5730\u8cea\u8abf\u67fb\u696d\u52d9","client_name":"\u56fd\u571f\u4ea4\u901a\u7701\u4e2d\u90e8\u5730\u65b9\u6574\u5099\u5c40\u8a2d\u697d\u30c0\u30e0\u5de5\u4e8b\u4e8b\u52d9\u6240","boring_xml_url":64,"boring_view_url":1,"soilmap_view_url":null,"soiltest_xml_url":0,"soiltest_view_url":0},{"id":515061,"code":"B4KJ202201001-7597","latitude":"35.086472","longitude":"137.568306","source_code":"CB1685574020130015","project_name":"","survey_name":"\u5e73\u621028\u5e74\u5ea6\u3000\u8a2d\u697d\u30c0\u30e0\u4ed8\u66ff\u9053\u8def\u95a2\u9023\u5730\u8cea\u8abf\u67fb\u696d\u52d9","client_name":"\u56fd\u571f\u4ea4\u901a\u7701\u4e2d\u90e8\u5730\u65b9\u6574\u5099\u5c40\u8a2d\u697d\u30c0\u30e0\u5de5\u4e8b\u4e8b\u52d9\u6240","boring_xml_url":64,"boring_view_url":1,"soilmap_view_url":null,"soiltest_xml_url":0,"soiltest_view_url":0},{"id":515060,"code":"B4KJ202201001-7596","latitude":"35.086611","longitude":"137.568194","source_code":"CB1685574020130014","project_name":"","survey_name":"\u5e73\u621028\u5e74\u5ea6\u3000\u8a2d\u697d\u30c0\u30e0\u4ed8\u66ff\u9053\u8def\u95a2\u9023\u5730\u8cea\u8abf\u67fb\u696d\u52d9","client_name":"\u56fd\u571f\u4ea4\u901a\u7701\u4e2d\u90e8\u5730\u65b9\u6574\u5099\u5c40\u8a2d\u697d\u30c0\u30e0\u5de5\u4e8b\u4e8b\u52d9\u6240","boring_xml_url":64,"boring_view_url":1,"soilmap_view_url":null,"soiltest_xml_url":0,"soiltest_view_url":0},{"id":515059,"code":"B4KJ202201001-7595","latitude":"35.089333","longitude":"137.565722","source_code":"CB1685574020130013","project_name":"","survey_name":"\u5e73\u621028\u5e74\u5ea6\u3000\u8a2d\u697d\u30c0\u30e0\u4ed8\u66ff\u9053\u8def\u95a2\u9023\u5730\u8cea\u8abf\u67fb\u696d\u52d9","client_name":"\u56fd\u571f\u4ea4\u901a\u7701\u4e2d\u90e8\u5730\u65b9\u6574\u5099\u5c40\u8a2d\u697d\u30c0\u30e0\u5de5\u4e8b\u4e8b\u52d9\u6240","boring_xml_url":64,"boring_view_url":1,"soilmap_view_url":null,"soiltest_xml_url":0,"soiltest_view_url":0}]}}