{"header":{"xyz":{"source":[],"mosaic":false},"page":1016,"raw":{"soiltest_result":"0","bbox":"57.598333,109.544722,1.933333,163.806111","page":"1016"},"conditions":{"soiltest_result":0,"north":57.598333,"west":109.544722,"south":1.933333,"east":163.806111},"success":true,"message":""},"data":{"meta":{"total":212844,"page":1016,"pages":7095,"count":30},"values":[{"id":514938,"code":"B4KJ202201001-7474","latitude":"34.580719","longitude":"136.585822","source_code":"CB1585606020180023","project_name":"\"\u5e73\u621027\u5e74\u5ea6 \u6adb\u7530\u5ddd\u30fb\u5bae\u5ddd\u5824\u9632\u5730\u76e4\u8abf\u67fb \u8cea\u7684\u6574\u5099\u691c\u8a0e\u696d\u52d9\"","survey_name":"\"\u5e73\u621027\u5e74\u5ea6 \u6adb\u7530\u5ddd\u30fb\u5bae\u5ddd\u5824\u9632\u5730\u76e4\u8abf\u67fb \u8cea\u7684\u6574\u5099\u691c\u8a0e\u696d\u52d9\"","client_name":"\u56fd\u571f\u4ea4\u901a\u7701\u4e2d\u90e8\u5730\u65b9\u6574\u5099\u5c40\u4e09\u91cd\u6cb3\u5ddd\u56fd\u9053\u4e8b\u52d9\u6240","boring_xml_url":64,"boring_view_url":1,"soilmap_view_url":null,"soiltest_xml_url":0,"soiltest_view_url":0},{"id":514937,"code":"B4KJ202201001-7473","latitude":"34.581297","longitude":"136.585244","source_code":"CB1585606020180022","project_name":"\"\u5e73\u621027\u5e74\u5ea6 \u6adb\u7530\u5ddd\u30fb\u5bae\u5ddd\u5824\u9632\u5730\u76e4\u8abf\u67fb \u8cea\u7684\u6574\u5099\u691c\u8a0e\u696d\u52d9\"","survey_name":"\"\u5e73\u621027\u5e74\u5ea6 \u6adb\u7530\u5ddd\u30fb\u5bae\u5ddd\u5824\u9632\u5730\u76e4\u8abf\u67fb \u8cea\u7684\u6574\u5099\u691c\u8a0e\u696d\u52d9\"","client_name":"\u56fd\u571f\u4ea4\u901a\u7701\u4e2d\u90e8\u5730\u65b9\u6574\u5099\u5c40\u4e09\u91cd\u6cb3\u5ddd\u56fd\u9053\u4e8b\u52d9\u6240","boring_xml_url":64,"boring_view_url":1,"soilmap_view_url":null,"soiltest_xml_url":0,"soiltest_view_url":0},{"id":514936,"code":"B4KJ202201001-7472","latitude":"34.582108","longitude":"136.584417","source_code":"CB1585606020180021","project_name":"\"\u5e73\u621027\u5e74\u5ea6 \u6adb\u7530\u5ddd\u30fb\u5bae\u5ddd\u5824\u9632\u5730\u76e4\u8abf\u67fb \u8cea\u7684\u6574\u5099\u691c\u8a0e\u696d\u52d9\"","survey_name":"\"\u5e73\u621027\u5e74\u5ea6 \u6adb\u7530\u5ddd\u30fb\u5bae\u5ddd\u5824\u9632\u5730\u76e4\u8abf\u67fb \u8cea\u7684\u6574\u5099\u691c\u8a0e\u696d\u52d9\"","client_name":"\u56fd\u571f\u4ea4\u901a\u7701\u4e2d\u90e8\u5730\u65b9\u6574\u5099\u5c40\u4e09\u91cd\u6cb3\u5ddd\u56fd\u9053\u4e8b\u52d9\u6240","boring_xml_url":64,"boring_view_url":1,"soilmap_view_url":null,"soiltest_xml_url":0,"soiltest_view_url":0},{"id":514935,"code":"B4KJ202201001-7471","latitude":"34.582883","longitude":"136.583803","source_code":"CB1585606020180020","project_name":"","survey_name":"\"\u5e73\u621027\u5e74\u5ea6 \u6adb\u7530\u5ddd\u30fb\u5bae\u5ddd\u5824\u9632\u5730\u76e4\u8abf\u67fb \u8cea\u7684\u6574\u5099\u691c\u8a0e\u696d\u52d9\"","client_name":"\u56fd\u571f\u4ea4\u901a\u7701\u4e2d\u90e8\u5730\u65b9\u6574\u5099\u5c40\u4e09\u91cd\u6cb3\u5ddd\u56fd\u9053\u4e8b\u52d9\u6240","boring_xml_url":64,"boring_view_url":1,"soilmap_view_url":null,"soiltest_xml_url":0,"soiltest_view_url":0},{"id":514934,"code":"B4KJ202201001-7470","latitude":"34.583964","longitude":"136.583047","source_code":"CB1585606020180019","project_name":"\"\u5e73\u621027\u5e74\u5ea6 \u6adb\u7530\u5ddd\u30fb\u5bae\u5ddd\u5824\u9632\u5730\u76e4\u8abf\u67fb \u8cea\u7684\u6574\u5099\u691c\u8a0e\u696d\u52d9\"","survey_name":"\"\u5e73\u621027\u5e74\u5ea6 \u6adb\u7530\u5ddd\u30fb\u5bae\u5ddd\u5824\u9632\u5730\u76e4\u8abf\u67fb \u8cea\u7684\u6574\u5099\u691c\u8a0e\u696d\u52d9\"","client_name":"\u56fd\u571f\u4ea4\u901a\u7701\u4e2d\u90e8\u5730\u65b9\u6574\u5099\u5c40\u4e09\u91cd\u6cb3\u5ddd\u56fd\u9053\u4e8b\u52d9\u6240","boring_xml_url":64,"boring_view_url":1,"soilmap_view_url":null,"soiltest_xml_url":0,"soiltest_view_url":0},{"id":514933,"code":"B4KJ202201001-7469","latitude":"34.509719","longitude":"136.547933","source_code":"CB1585606020180018","project_name":"\"\u5e73\u621027\u5e74\u5ea6 \u6adb\u7530\u5ddd\u30fb\u5bae\u5ddd\u5824\u9632\u5730\u76e4\u8abf\u67fb \u8cea\u7684\u6574\u5099\u691c\u8a0e\u696d\u52d9\"","survey_name":"\"\u5e73\u621027\u5e74\u5ea6 \u6adb\u7530\u5ddd\u30fb\u5bae\u5ddd\u5824\u9632\u5730\u76e4\u8abf\u67fb \u8cea\u7684\u6574\u5099\u691c\u8a0e\u696d\u52d9\"","client_name":"\u56fd\u571f\u4ea4\u901a\u7701\u4e2d\u90e8\u5730\u65b9\u6574\u5099\u5c40\u4e09\u91cd\u6cb3\u5ddd\u56fd\u9053\u4e8b\u52d9\u6240","boring_xml_url":64,"boring_view_url":1,"soilmap_view_url":null,"soiltest_xml_url":0,"soiltest_view_url":0},{"id":514932,"code":"B4KJ202201001-7468","latitude":"34.510081","longitude":"136.548375","source_code":"CB1585606020180017","project_name":"\"\u5e73\u621027\u5e74\u5ea6 \u6adb\u7530\u5ddd\u30fb\u5bae\u5ddd\u5824\u9632\u5730\u76e4\u8abf\u67fb \u8cea\u7684\u6574\u5099\u691c\u8a0e\u696d\u52d9\"","survey_name":"\"\u5e73\u621027\u5e74\u5ea6 \u6adb\u7530\u5ddd\u30fb\u5bae\u5ddd\u5824\u9632\u5730\u76e4\u8abf\u67fb \u8cea\u7684\u6574\u5099\u691c\u8a0e\u696d\u52d9\"","client_name":"\u56fd\u571f\u4ea4\u901a\u7701\u4e2d\u90e8\u5730\u65b9\u6574\u5099\u5c40\u4e09\u91cd\u6cb3\u5ddd\u56fd\u9053\u4e8b\u52d9\u6240","boring_xml_url":64,"boring_view_url":1,"soilmap_view_url":null,"soiltest_xml_url":0,"soiltest_view_url":0},{"id":514931,"code":"B4KJ202201001-7467","latitude":"34.510931","longitude":"136.54995","source_code":"CB1585606020180016","project_name":"\"\u5e73\u621027\u5e74\u5ea6 \u6adb\u7530\u5ddd\u30fb\u5bae\u5ddd\u5824\u9632\u5730\u76e4\u8abf\u67fb \u8cea\u7684\u6574\u5099\u691c\u8a0e\u696d\u52d9\"","survey_name":"\"\u5e73\u621027\u5e74\u5ea6 \u6adb\u7530\u5ddd\u30fb\u5bae\u5ddd\u5824\u9632\u5730\u76e4\u8abf\u67fb \u8cea\u7684\u6574\u5099\u691c\u8a0e\u696d\u52d9\"","client_name":"\u56fd\u571f\u4ea4\u901a\u7701\u4e2d\u90e8\u5730\u65b9\u6574\u5099\u5c40\u4e09\u91cd\u6cb3\u5ddd\u56fd\u9053\u4e8b\u52d9\u6240","boring_xml_url":64,"boring_view_url":1,"soilmap_view_url":null,"soiltest_xml_url":0,"soiltest_view_url":0},{"id":514930,"code":"B4KJ202201001-7466","latitude":"34.511347","longitude":"136.551978","source_code":"CB1585606020180015","project_name":"\"\u5e73\u621027\u5e74\u5ea6 \u6adb\u7530\u5ddd\u30fb\u5bae\u5ddd\u5824\u9632\u5730\u76e4\u8abf\u67fb \u8cea\u7684\u6574\u5099\u691c\u8a0e\u696d\u52d9\"","survey_name":"\"\u5e73\u621027\u5e74\u5ea6 \u6adb\u7530\u5ddd\u30fb\u5bae\u5ddd\u5824\u9632\u5730\u76e4\u8abf\u67fb \u8cea\u7684\u6574\u5099\u691c\u8a0e\u696d\u52d9\"","client_name":"\u56fd\u571f\u4ea4\u901a\u7701\u4e2d\u90e8\u5730\u65b9\u6574\u5099\u5c40\u4e09\u91cd\u6cb3\u5ddd\u56fd\u9053\u4e8b\u52d9\u6240","boring_xml_url":64,"boring_view_url":1,"soilmap_view_url":null,"soiltest_xml_url":0,"soiltest_view_url":0},{"id":514929,"code":"B4KJ202201001-7465","latitude":"34.511806","longitude":"136.5543","source_code":"CB1585606020180014","project_name":"\"\u5e73\u621027\u5e74\u5ea6 \u6adb\u7530\u5ddd\u30fb\u5bae\u5ddd\u5824\u9632\u5730\u76e4\u8abf\u67fb \u8cea\u7684\u6574\u5099\u691c\u8a0e\u696d\u52d9\"","survey_name":"\"\u5e73\u621027\u5e74\u5ea6 \u6adb\u7530\u5ddd\u30fb\u5bae\u5ddd\u5824\u9632\u5730\u76e4\u8abf\u67fb \u8cea\u7684\u6574\u5099\u691c\u8a0e\u696d\u52d9\"","client_name":"\u56fd\u571f\u4ea4\u901a\u7701\u4e2d\u90e8\u5730\u65b9\u6574\u5099\u5c40\u4e09\u91cd\u6cb3\u5ddd\u56fd\u9053\u4e8b\u52d9\u6240","boring_xml_url":64,"boring_view_url":1,"soilmap_view_url":null,"soiltest_xml_url":0,"soiltest_view_url":0},{"id":514928,"code":"B4KJ202201001-7464","latitude":"34.513089","longitude":"136.556583","source_code":"CB1585606020180013","project_name":"\"\u5e73\u621027\u5e74\u5ea6 \u6adb\u7530\u5ddd\u30fb\u5bae\u5ddd\u5824\u9632\u5730\u76e4\u8abf\u67fb \u8cea\u7684\u6574\u5099\u691c\u8a0e\u696d\u52d9\"","survey_name":"\"\u5e73\u621027\u5e74\u5ea6 \u6adb\u7530\u5ddd\u30fb\u5bae\u5ddd\u5824\u9632\u5730\u76e4\u8abf\u67fb \u8cea\u7684\u6574\u5099\u691c\u8a0e\u696d\u52d9\"","client_name":"\u56fd\u571f\u4ea4\u901a\u7701\u4e2d\u90e8\u5730\u65b9\u6574\u5099\u5c40\u4e09\u91cd\u6cb3\u5ddd\u56fd\u9053\u4e8b\u52d9\u6240","boring_xml_url":64,"boring_view_url":1,"soilmap_view_url":null,"soiltest_xml_url":0,"soiltest_view_url":0},{"id":514927,"code":"B4KJ202201001-7463","latitude":"34.513781","longitude":"136.557597","source_code":"CB1585606020180012","project_name":"\"\u5e73\u621027\u5e74\u5ea6 \u6adb\u7530\u5ddd\u30fb\u5bae\u5ddd\u5824\u9632\u5730\u76e4\u8abf\u67fb \u8cea\u7684\u6574\u5099\u691c\u8a0e\u696d\u52d9\"","survey_name":"\"\u5e73\u621027\u5e74\u5ea6 \u6adb\u7530\u5ddd\u30fb\u5bae\u5ddd\u5824\u9632\u5730\u76e4\u8abf\u67fb \u8cea\u7684\u6574\u5099\u691c\u8a0e\u696d\u52d9\"","client_name":"\u56fd\u571f\u4ea4\u901a\u7701\u4e2d\u90e8\u5730\u65b9\u6574\u5099\u5c40\u4e09\u91cd\u6cb3\u5ddd\u56fd\u9053\u4e8b\u52d9\u6240","boring_xml_url":64,"boring_view_url":1,"soilmap_view_url":null,"soiltest_xml_url":0,"soiltest_view_url":0},{"id":514926,"code":"B4KJ202201001-7462","latitude":"34.514844","longitude":"136.559372","source_code":"CB1585606020180011","project_name":"\"\u5e73\u621027\u5e74\u5ea6 \u6adb\u7530\u5ddd\u30fb\u5bae\u5ddd\u5824\u9632\u5730\u76e4\u8abf\u67fb \u8cea\u7684\u6574\u5099\u691c\u8a0e\u696d\u52d9\"","survey_name":"\"\u5e73\u621027\u5e74\u5ea6 \u6adb\u7530\u5ddd\u30fb\u5bae\u5ddd\u5824\u9632\u5730\u76e4\u8abf\u67fb \u8cea\u7684\u6574\u5099\u691c\u8a0e\u696d\u52d9\"","client_name":"\u56fd\u571f\u4ea4\u901a\u7701\u4e2d\u90e8\u5730\u65b9\u6574\u5099\u5c40\u4e09\u91cd\u6cb3\u5ddd\u56fd\u9053\u4e8b\u52d9\u6240","boring_xml_url":64,"boring_view_url":1,"soilmap_view_url":null,"soiltest_xml_url":0,"soiltest_view_url":0},{"id":514925,"code":"B4KJ202201001-7461","latitude":"34.515761","longitude":"136.560856","source_code":"CB1585606020180010","project_name":"\"\u5e73\u621027\u5e74\u5ea6 \u6adb\u7530\u5ddd\u30fb\u5bae\u5ddd\u5824\u9632\u5730\u76e4\u8abf\u67fb \u8cea\u7684\u6574\u5099\u691c\u8a0e\u696d\u52d9\"","survey_name":"\"\u5e73\u621027\u5e74\u5ea6 \u6adb\u7530\u5ddd\u30fb\u5bae\u5ddd\u5824\u9632\u5730\u76e4\u8abf\u67fb \u8cea\u7684\u6574\u5099\u691c\u8a0e\u696d\u52d9\"","client_name":"\u56fd\u571f\u4ea4\u901a\u7701\u4e2d\u90e8\u5730\u65b9\u6574\u5099\u5c40\u4e09\u91cd\u6cb3\u5ddd\u56fd\u9053\u4e8b\u52d9\u6240","boring_xml_url":64,"boring_view_url":1,"soilmap_view_url":null,"soiltest_xml_url":0,"soiltest_view_url":0},{"id":514924,"code":"B4KJ202201001-7460","latitude":"34.516931","longitude":"136.562467","source_code":"CB1585606020180009","project_name":"\"\u5e73\u621027\u5e74\u5ea6 \u6adb\u7530\u5ddd\u30fb\u5bae\u5ddd\u5824\u9632\u5730\u76e4\u8abf\u67fb \u8cea\u7684\u6574\u5099\u691c\u8a0e\u696d\u52d9\"","survey_name":"\"\u5e73\u621027\u5e74\u5ea6 \u6adb\u7530\u5ddd\u30fb\u5bae\u5ddd\u5824\u9632\u5730\u76e4\u8abf\u67fb \u8cea\u7684\u6574\u5099\u691c\u8a0e\u696d\u52d9\"","client_name":"\u56fd\u571f\u4ea4\u901a\u7701\u4e2d\u90e8\u5730\u65b9\u6574\u5099\u5c40\u4e09\u91cd\u6cb3\u5ddd\u56fd\u9053\u4e8b\u52d9\u6240","boring_xml_url":64,"boring_view_url":1,"soilmap_view_url":null,"soiltest_xml_url":0,"soiltest_view_url":0},{"id":514923,"code":"B4KJ202201001-7459","latitude":"34.518075","longitude":"136.56365","source_code":"CB1585606020180008","project_name":"\"\u5e73\u621027\u5e74\u5ea6 \u6adb\u7530\u5ddd\u30fb\u5bae\u5ddd\u5824\u9632\u5730\u76e4\u8abf\u67fb \u8cea\u7684\u6574\u5099\u691c\u8a0e\u696d\u52d9\"","survey_name":"\"\u5e73\u621027\u5e74\u5ea6 \u6adb\u7530\u5ddd\u30fb\u5bae\u5ddd\u5824\u9632\u5730\u76e4\u8abf\u67fb \u8cea\u7684\u6574\u5099\u691c\u8a0e\u696d\u52d9\"","client_name":"\u56fd\u571f\u4ea4\u901a\u7701\u4e2d\u90e8\u5730\u65b9\u6574\u5099\u5c40\u4e09\u91cd\u6cb3\u5ddd\u56fd\u9053\u4e8b\u52d9\u6240","boring_xml_url":64,"boring_view_url":1,"soilmap_view_url":null,"soiltest_xml_url":0,"soiltest_view_url":0},{"id":514922,"code":"B4KJ202201001-7458","latitude":"34.518953","longitude":"136.564531","source_code":"CB1585606020180007","project_name":"\"\u5e73\u621027\u5e74\u5ea6 \u6adb\u7530\u5ddd\u30fb\u5bae\u5ddd\u5824\u9632\u5730\u76e4\u8abf\u67fb \u8cea\u7684\u6574\u5099\u691c\u8a0e\u696d\u52d9\"","survey_name":"\"\u5e73\u621027\u5e74\u5ea6 \u6adb\u7530\u5ddd\u30fb\u5bae\u5ddd\u5824\u9632\u5730\u76e4\u8abf\u67fb \u8cea\u7684\u6574\u5099\u691c\u8a0e\u696d\u52d9\"","client_name":"\u56fd\u571f\u4ea4\u901a\u7701\u4e2d\u90e8\u5730\u65b9\u6574\u5099\u5c40\u4e09\u91cd\u6cb3\u5ddd\u56fd\u9053\u4e8b\u52d9\u6240","boring_xml_url":64,"boring_view_url":1,"soilmap_view_url":null,"soiltest_xml_url":0,"soiltest_view_url":0},{"id":514921,"code":"B4KJ202201001-7457","latitude":"34.579458","longitude":"136.592447","source_code":"CB1585606020180006","project_name":"\"\u5e73\u621027\u5e74\u5ea6 \u6adb\u7530\u5ddd\u30fb\u5bae\u5ddd\u5824\u9632\u5730\u76e4\u8abf\u67fb \u8cea\u7684\u6574\u5099\u691c\u8a0e\u696d\u52d9\"","survey_name":"\"\u5e73\u621027\u5e74\u5ea6 \u6adb\u7530\u5ddd\u30fb\u5bae\u5ddd\u5824\u9632\u5730\u76e4\u8abf\u67fb \u8cea\u7684\u6574\u5099\u691c\u8a0e\u696d\u52d9\"","client_name":"\u56fd\u571f\u4ea4\u901a\u7701\u4e2d\u90e8\u5730\u65b9\u6574\u5099\u5c40\u4e09\u91cd\u6cb3\u5ddd\u56fd\u9053\u4e8b\u52d9\u6240","boring_xml_url":64,"boring_view_url":1,"soilmap_view_url":null,"soiltest_xml_url":0,"soiltest_view_url":0},{"id":514920,"code":"B4KJ202201001-7456","latitude":"34.579967","longitude":"136.591822","source_code":"CB1585606020180005","project_name":"\"\u5e73\u621027\u5e74\u5ea6 \u6adb\u7530\u5ddd\u30fb\u5bae\u5ddd\u5824\u9632\u5730\u76e4\u8abf\u67fb \u8cea\u7684\u6574\u5099\u691c\u8a0e\u696d\u52d9\"","survey_name":"\"\u5e73\u621027\u5e74\u5ea6 \u6adb\u7530\u5ddd\u30fb\u5bae\u5ddd\u5824\u9632\u5730\u76e4\u8abf\u67fb \u8cea\u7684\u6574\u5099\u691c\u8a0e\u696d\u52d9\"","client_name":"\u56fd\u571f\u4ea4\u901a\u7701\u4e2d\u90e8\u5730\u65b9\u6574\u5099\u5c40\u4e09\u91cd\u6cb3\u5ddd\u56fd\u9053\u4e8b\u52d9\u6240","boring_xml_url":64,"boring_view_url":1,"soilmap_view_url":null,"soiltest_xml_url":0,"soiltest_view_url":0},{"id":514919,"code":"B4KJ202201001-7455","latitude":"34.580592","longitude":"136.590781","source_code":"CB1585606020180004","project_name":"\"\u5e73\u621027\u5e74\u5ea6 \u6adb\u7530\u5ddd\u30fb\u5bae\u5ddd\u5824\u9632\u5730\u76e4\u8abf\u67fb \u8cea\u7684\u6574\u5099\u691c\u8a0e\u696d\u52d9\"","survey_name":"\"\u5e73\u621027\u5e74\u5ea6 \u6adb\u7530\u5ddd\u30fb\u5bae\u5ddd\u5824\u9632\u5730\u76e4\u8abf\u67fb \u8cea\u7684\u6574\u5099\u691c\u8a0e\u696d\u52d9\"","client_name":"\u56fd\u571f\u4ea4\u901a\u7701\u4e2d\u90e8\u5730\u65b9\u6574\u5099\u5c40\u4e09\u91cd\u6cb3\u5ddd\u56fd\u9053\u4e8b\u52d9\u6240","boring_xml_url":64,"boring_view_url":1,"soilmap_view_url":null,"soiltest_xml_url":0,"soiltest_view_url":0},{"id":514918,"code":"B4KJ202201001-7454","latitude":"34.581167","longitude":"136.590153","source_code":"CB1585606020180003","project_name":"\"\u5e73\u621027\u5e74\u5ea6 \u6adb\u7530\u5ddd\u30fb\u5bae\u5ddd\u5824\u9632\u5730\u76e4\u8abf\u67fb \u8cea\u7684\u6574\u5099\u691c\u8a0e\u696d\u52d9\"","survey_name":"\"\u5e73\u621027\u5e74\u5ea6 \u6adb\u7530\u5ddd\u30fb\u5bae\u5ddd\u5824\u9632\u5730\u76e4\u8abf\u67fb \u8cea\u7684\u6574\u5099\u691c\u8a0e\u696d\u52d9\"","client_name":"\u56fd\u571f\u4ea4\u901a\u7701\u4e2d\u90e8\u5730\u65b9\u6574\u5099\u5c40\u4e09\u91cd\u6cb3\u5ddd\u56fd\u9053\u4e8b\u52d9\u6240","boring_xml_url":64,"boring_view_url":1,"soilmap_view_url":null,"soiltest_xml_url":0,"soiltest_view_url":0},{"id":514917,"code":"B4KJ202201001-7453","latitude":"34.582586","longitude":"136.58895","source_code":"CB1585606020180002","project_name":"\"\u5e73\u621027\u5e74\u5ea6 \u6adb\u7530\u5ddd\u30fb\u5bae\u5ddd\u5824\u9632\u5730\u76e4\u8abf\u67fb \u8cea\u7684\u6574\u5099\u691c\u8a0e\u696d\u52d9\"","survey_name":"\"\u5e73\u621027\u5e74\u5ea6 \u6adb\u7530\u5ddd\u30fb\u5bae\u5ddd\u5824\u9632\u5730\u76e4\u8abf\u67fb \u8cea\u7684\u6574\u5099\u691c\u8a0e\u696d\u52d9\"","client_name":"\u56fd\u571f\u4ea4\u901a\u7701\u4e2d\u90e8\u5730\u65b9\u6574\u5099\u5c40\u4e09\u91cd\u6cb3\u5ddd\u56fd\u9053\u4e8b\u52d9\u6240","boring_xml_url":64,"boring_view_url":1,"soilmap_view_url":null,"soiltest_xml_url":0,"soiltest_view_url":0},{"id":514916,"code":"B4KJ202201001-7452","latitude":"34.583303","longitude":"136.588375","source_code":"CB1585606020180001","project_name":"\"\u5e73\u621027\u5e74\u5ea6 \u6adb\u7530\u5ddd\u30fb\u5bae\u5ddd\u5824\u9632\u5730\u76e4\u8abf\u67fb \u8cea\u7684\u6574\u5099\u691c\u8a0e\u696d\u52d9\"","survey_name":"\"\u5e73\u621027\u5e74\u5ea6 \u6adb\u7530\u5ddd\u30fb\u5bae\u5ddd\u5824\u9632\u5730\u76e4\u8abf\u67fb \u8cea\u7684\u6574\u5099\u691c\u8a0e\u696d\u52d9\"","client_name":"\u56fd\u571f\u4ea4\u901a\u7701\u4e2d\u90e8\u5730\u65b9\u6574\u5099\u5c40\u4e09\u91cd\u6cb3\u5ddd\u56fd\u9053\u4e8b\u52d9\u6240","boring_xml_url":64,"boring_view_url":1,"soilmap_view_url":null,"soiltest_xml_url":0,"soiltest_view_url":0},{"id":514915,"code":"B4KJ202201001-7451","latitude":"35.17775","longitude":"137.871056","source_code":"CB1585446120950002","project_name":"\u5e73\u621027\u5e74\u5ea6\u3000\u4e09\u9060\u5730\u57df\u5730\u8cea\u8abf\u67fb\u696d\u52d9\u59d4\u8a17","survey_name":"\u5e73\u621027\u5e74\u5ea6\u3000\u4e09\u9060\u5730\u57df\u5730\u8cea\u8abf\u67fb\u696d\u52d9\u59d4\u8a17","client_name":"\u56fd\u571f\u4ea4\u901a\u7701\u4e2d\u90e8\u5730\u65b9\u6574\u5099\u5c40\u6d5c\u677e\u6cb3\u5ddd\u56fd\u9053\u4e8b\u52d9\u6240","boring_xml_url":64,"boring_view_url":1,"soilmap_view_url":null,"soiltest_xml_url":0,"soiltest_view_url":0},{"id":514914,"code":"B4KJ202201001-7450","latitude":"35.127736","longitude":"137.833219","source_code":"CB1585446120950001","project_name":"\u5e73\u621027\u5e74\u5ea6\u3000\u4e09\u9060\u5730\u57df\u5730\u8cea\u8abf\u67fb\u696d\u52d9\u59d4\u8a17","survey_name":"\u5e73\u621027\u5e74\u5ea6\u3000\u4e09\u9060\u5730\u57df\u5730\u8cea\u8abf\u67fb\u696d\u52d9\u59d4\u8a17","client_name":"\u56fd\u571f\u4ea4\u901a\u7701\u4e2d\u90e8\u5730\u65b9\u6574\u5099\u5c40\u6d5c\u677e\u6cb3\u5ddd\u56fd\u9053\u4e8b\u52d9\u6240","boring_xml_url":64,"boring_view_url":1,"soilmap_view_url":null,"soiltest_xml_url":0,"soiltest_view_url":0},{"id":514913,"code":"B4KJ202201001-7449","latitude":"35.005583","longitude":"137.671339","source_code":"CB1585446120780019","project_name":"","survey_name":"\u5e73\u621027\u5e74\u5ea6\u3000\u4f50\u4e45\u9593\u9053\u8def\u30fb\u4e09\u9060\u9053\u8def\u5730\u8cea\u8abf\u67fb\u696d\u52d9","client_name":"\"\u4e2d\u90e8\u5730\u65b9\u6574\u5099\u5c40 \u6d5c\u677e\u6cb3\u5ddd\u56fd\u9053\u4e8b\u52d9\u6240\"","boring_xml_url":64,"boring_view_url":1,"soilmap_view_url":null,"soiltest_xml_url":0,"soiltest_view_url":0},{"id":514912,"code":"B4KJ202201001-7448","latitude":"35.043586","longitude":"137.726319","source_code":"CB1585446120780018","project_name":"","survey_name":"\u5e73\u621027\u5e74\u5ea6\u3000\u4f50\u4e45\u9593\u9053\u8def\u30fb\u4e09\u9060\u9053\u8def\u5730\u8cea\u8abf\u67fb\u696d\u52d9","client_name":"\"\u4e2d\u90e8\u5730\u65b9\u6574\u5099\u5c40 \u6d5c\u677e\u6cb3\u5ddd\u56fd\u9053\u4e8b\u52d9\u6240\"","boring_xml_url":64,"boring_view_url":1,"soilmap_view_url":null,"soiltest_xml_url":0,"soiltest_view_url":0},{"id":514911,"code":"B4KJ202201001-7447","latitude":"35.035886","longitude":"137.712817","source_code":"CB1585446120780017","project_name":"","survey_name":"\u5e73\u621027\u5e74\u5ea6\u3000\u4f50\u4e45\u9593\u9053\u8def\u30fb\u4e09\u9060\u9053\u8def\u5730\u8cea\u8abf\u67fb\u696d\u52d9","client_name":"\"\u4e2d\u90e8\u5730\u65b9\u6574\u5099\u5c40 \u6d5c\u677e\u6cb3\u5ddd\u56fd\u9053\u4e8b\u52d9\u6240\"","boring_xml_url":64,"boring_view_url":1,"soilmap_view_url":null,"soiltest_xml_url":0,"soiltest_view_url":0},{"id":514910,"code":"B4KJ202201001-7446","latitude":"35.035894","longitude":"137.713056","source_code":"CB1585446120780016","project_name":"","survey_name":"\u5e73\u621027\u5e74\u5ea6\u3000\u4f50\u4e45\u9593\u9053\u8def\u30fb\u4e09\u9060\u9053\u8def\u5730\u8cea\u8abf\u67fb\u696d\u52d9","client_name":"\"\u4e2d\u90e8\u5730\u65b9\u6574\u5099\u5c40 \u6d5c\u677e\u6cb3\u5ddd\u56fd\u9053\u4e8b\u52d9\u6240\"","boring_xml_url":64,"boring_view_url":1,"soilmap_view_url":null,"soiltest_xml_url":0,"soiltest_view_url":0},{"id":514909,"code":"B4KJ202201001-7445","latitude":"35.035939","longitude":"137.713417","source_code":"CB1585446120780015","project_name":"","survey_name":"\u5e73\u621027\u5e74\u5ea6\u3000\u4f50\u4e45\u9593\u9053\u8def\u30fb\u4e09\u9060\u9053\u8def\u5730\u8cea\u8abf\u67fb\u696d\u52d9","client_name":"\"\u4e2d\u90e8\u5730\u65b9\u6574\u5099\u5c40 \u6d5c\u677e\u6cb3\u5ddd\u56fd\u9053\u4e8b\u52d9\u6240\"","boring_xml_url":64,"boring_view_url":1,"soilmap_view_url":null,"soiltest_xml_url":0,"soiltest_view_url":0}]}}