{"header":{"xyz":{"source":[],"mosaic":false},"page":1048,"raw":{"soiltest_result":"0","bbox":"57.598333,109.544722,1.933333,163.806111","page":"1048"},"conditions":{"soiltest_result":0,"north":57.598333,"west":109.544722,"south":1.933333,"east":163.806111},"success":true,"message":""},"data":{"meta":{"total":212844,"page":1048,"pages":7095,"count":30},"values":[{"id":513978,"code":"B4KJ202201001-6514","latitude":"35.4745","longitude":"136.730111","source_code":"CB1485336020650012","project_name":"","survey_name":"\u5e73\u621026\u5e74\u5ea6\u6771\u6d77\u74b0\u72b6(\u5c90\u961c\u304b\u3089\u7cf8\u8cab)\u5c90\u961cIC\u5927\u5b66\u5317\u5730\u533a\u6771\u90e8\u5730\u8cea\u8abf\u67fb","client_name":"\u56fd\u571f\u4ea4\u901a\u7701\u4e2d\u90e8\u5730\u65b9\u6574\u5099\u5c40\u5c90\u961c\u56fd\u9053\u4e8b\u52d9\u6240","boring_xml_url":64,"boring_view_url":1,"soilmap_view_url":null,"soiltest_xml_url":0,"soiltest_view_url":0},{"id":513977,"code":"B4KJ202201001-6513","latitude":"35.474083","longitude":"136.728889","source_code":"CB1485336020650011","project_name":"","survey_name":"\u5e73\u621026\u5e74\u5ea6\u6771\u6d77\u74b0\u72b6(\u5c90\u961c\u304b\u3089\u7cf8\u8cab)\u5c90\u961cIC\u5927\u5b66\u5317\u5730\u533a\u6771\u90e8\u5730\u8cea\u8abf\u67fb","client_name":"\u56fd\u571f\u4ea4\u901a\u7701\u4e2d\u90e8\u5730\u65b9\u6574\u5099\u5c40\u5c90\u961c\u56fd\u9053\u4e8b\u52d9\u6240","boring_xml_url":64,"boring_view_url":1,"soilmap_view_url":null,"soiltest_xml_url":0,"soiltest_view_url":0},{"id":513976,"code":"B4KJ202201001-6512","latitude":"35.474722","longitude":"136.728917","source_code":"CB1485336020650010","project_name":"","survey_name":"\u5e73\u621026\u5e74\u5ea6\u6771\u6d77\u74b0\u72b6(\u5c90\u961c\u304b\u3089\u7cf8\u8cab)\u5c90\u961cIC\u5927\u5b66\u5317\u5730\u533a\u6771\u90e8\u5730\u8cea\u8abf\u67fb","client_name":"\u56fd\u571f\u4ea4\u901a\u7701\u4e2d\u90e8\u5730\u65b9\u6574\u5099\u5c40\u5c90\u961c\u56fd\u9053\u4e8b\u52d9\u6240","boring_xml_url":64,"boring_view_url":1,"soilmap_view_url":null,"soiltest_xml_url":0,"soiltest_view_url":0},{"id":513975,"code":"B4KJ202201001-6511","latitude":"35.474722","longitude":"136.728917","source_code":"CB1485336020650009","project_name":"","survey_name":"\u5e73\u621026\u5e74\u5ea6\u6771\u6d77\u74b0\u72b6(\u5c90\u961c\u304b\u3089\u7cf8\u8cab)\u5c90\u961cIC\u5927\u5b66\u5317\u5730\u533a\u6771\u90e8\u5730\u8cea\u8abf\u67fb","client_name":"\u56fd\u571f\u4ea4\u901a\u7701\u4e2d\u90e8\u5730\u65b9\u6574\u5099\u5c40\u5c90\u961c\u56fd\u9053\u4e8b\u52d9\u6240","boring_xml_url":64,"boring_view_url":1,"soilmap_view_url":null,"soiltest_xml_url":0,"soiltest_view_url":0},{"id":513974,"code":"B4KJ202201001-6510","latitude":"35.474666","longitude":"136.729889","source_code":"CB1485336020650008","project_name":"","survey_name":"\u5e73\u621026\u5e74\u5ea6\u6771\u6d77\u74b0\u72b6(\u5c90\u961c\u304b\u3089\u7cf8\u8cab)\u5c90\u961cIC\u5927\u5b66\u5317\u5730\u533a\u6771\u90e8\u5730\u8cea\u8abf\u67fb","client_name":"\u56fd\u571f\u4ea4\u901a\u7701\u4e2d\u90e8\u5730\u65b9\u6574\u5099\u5c40\u5c90\u961c\u56fd\u9053\u4e8b\u52d9\u6240","boring_xml_url":64,"boring_view_url":1,"soilmap_view_url":null,"soiltest_xml_url":0,"soiltest_view_url":0},{"id":513973,"code":"B4KJ202201001-6509","latitude":"35.473639","longitude":"136.732","source_code":"CB1485336020650007","project_name":"","survey_name":"\u5e73\u621026\u5e74\u5ea6\u6771\u6d77\u74b0\u72b6(\u5c90\u961c\u304b\u3089\u7cf8\u8cab)\u5c90\u961cIC\u5927\u5b66\u5317\u5730\u533a\u6771\u90e8\u5730\u8cea\u8abf\u67fb","client_name":"\u56fd\u571f\u4ea4\u901a\u7701\u4e2d\u90e8\u5730\u65b9\u6574\u5099\u5c40\u5c90\u961c\u56fd\u9053\u4e8b\u52d9\u6240","boring_xml_url":64,"boring_view_url":1,"soilmap_view_url":null,"soiltest_xml_url":0,"soiltest_view_url":0},{"id":513972,"code":"B4KJ202201001-6508","latitude":"35.473805","longitude":"136.731695","source_code":"CB1485336020650006","project_name":"","survey_name":"\u5e73\u621026\u5e74\u5ea6\u6771\u6d77\u74b0\u72b6(\u5c90\u961c\u304b\u3089\u7cf8\u8cab)\u5c90\u961cIC\u5927\u5b66\u5317\u5730\u533a\u6771\u90e8\u5730\u8cea\u8abf\u67fb","client_name":"\u56fd\u571f\u4ea4\u901a\u7701\u4e2d\u90e8\u5730\u65b9\u6574\u5099\u5c40\u5c90\u961c\u56fd\u9053\u4e8b\u52d9\u6240","boring_xml_url":64,"boring_view_url":1,"soilmap_view_url":null,"soiltest_xml_url":0,"soiltest_view_url":0},{"id":513971,"code":"B4KJ202201001-6507","latitude":"35.474555","longitude":"136.728472","source_code":"CB1485336020650005","project_name":"","survey_name":"\u5e73\u621026\u5e74\u5ea6\u6771\u6d77\u74b0\u72b6(\u5c90\u961c\u304b\u3089\u7cf8\u8cab)\u5c90\u961cIC\u5927\u5b66\u5317\u5730\u533a\u6771\u90e8\u5730\u8cea\u8abf\u67fb","client_name":"\u56fd\u571f\u4ea4\u901a\u7701\u4e2d\u90e8\u5730\u65b9\u6574\u5099\u5c40\u5c90\u961c\u56fd\u9053\u4e8b\u52d9\u6240","boring_xml_url":64,"boring_view_url":1,"soilmap_view_url":null,"soiltest_xml_url":0,"soiltest_view_url":0},{"id":513970,"code":"B4KJ202201001-6506","latitude":"35.4745","longitude":"136.730334","source_code":"CB1485336020650004","project_name":"","survey_name":"\u5e73\u621026\u5e74\u5ea6\u6771\u6d77\u74b0\u72b6(\u5c90\u961c\u304b\u3089\u7cf8\u8cab)\u5c90\u961cIC\u5927\u5b66\u5317\u5730\u533a\u6771\u90e8\u5730\u8cea\u8abf\u67fb","client_name":"\u56fd\u571f\u4ea4\u901a\u7701\u4e2d\u90e8\u5730\u65b9\u6574\u5099\u5c40\u5c90\u961c\u56fd\u9053\u4e8b\u52d9\u6240","boring_xml_url":64,"boring_view_url":1,"soilmap_view_url":null,"soiltest_xml_url":0,"soiltest_view_url":0},{"id":513969,"code":"B4KJ202201001-6505","latitude":"35.474722","longitude":"136.730361","source_code":"CB1485336020650003","project_name":"","survey_name":"\u5e73\u621026\u5e74\u5ea6\u6771\u6d77\u74b0\u72b6(\u5c90\u961c\u304b\u3089\u7cf8\u8cab)\u5c90\u961cIC\u5927\u5b66\u5317\u5730\u533a\u6771\u90e8\u5730\u8cea\u8abf\u67fb","client_name":"\u56fd\u571f\u4ea4\u901a\u7701\u4e2d\u90e8\u5730\u65b9\u6574\u5099\u5c40\u5c90\u961c\u56fd\u9053\u4e8b\u52d9\u6240","boring_xml_url":64,"boring_view_url":1,"soilmap_view_url":null,"soiltest_xml_url":0,"soiltest_view_url":0},{"id":513968,"code":"B4KJ202201001-6504","latitude":"35.474666","longitude":"136.729611","source_code":"CB1485336020650002","project_name":"","survey_name":"\u5e73\u621026\u5e74\u5ea6\u6771\u6d77\u74b0\u72b6(\u5c90\u961c\u304b\u3089\u7cf8\u8cab)\u5c90\u961cIC\u5927\u5b66\u5317\u5730\u533a\u6771\u90e8\u5730\u8cea\u8abf\u67fb","client_name":"\u56fd\u571f\u4ea4\u901a\u7701\u4e2d\u90e8\u5730\u65b9\u6574\u5099\u5c40\u5c90\u961c\u56fd\u9053\u4e8b\u52d9\u6240","boring_xml_url":64,"boring_view_url":1,"soilmap_view_url":null,"soiltest_xml_url":0,"soiltest_view_url":0},{"id":513967,"code":"B4KJ202201001-6503","latitude":"35.474722","longitude":"136.728917","source_code":"CB1485336020650001","project_name":"","survey_name":"\u5e73\u621026\u5e74\u5ea6\u6771\u6d77\u74b0\u72b6(\u5c90\u961c\u304b\u3089\u7cf8\u8cab)\u5c90\u961cIC\u5927\u5b66\u5317\u5730\u533a\u6771\u90e8\u5730\u8cea\u8abf\u67fb","client_name":"\u56fd\u571f\u4ea4\u901a\u7701\u4e2d\u90e8\u5730\u65b9\u6574\u5099\u5c40\u5c90\u961c\u56fd\u9053\u4e8b\u52d9\u6240","boring_xml_url":64,"boring_view_url":1,"soilmap_view_url":null,"soiltest_xml_url":0,"soiltest_view_url":0},{"id":513966,"code":"B4KJ202201001-6502","latitude":"35.43063","longitude":"136.646247","source_code":"CB1485336020380021","project_name":"\u5e73\u621026\u5e74\u5ea6\u6771\u6d77\u74b0\u72b6(\u7cf8\u8cabIC\u304b\u3089\u5927\u91ce\u795e\u6238IC)\u653f\u7530\u5357\u5730\u533a\u5730\u8cea\u8abf\u67fb","survey_name":"\u5e73\u621026\u5e74\u5ea6\u6771\u6d77\u74b0\u72b6(\u7cf8\u8cabIC\u304b\u3089\u5927\u91ce\u795e\u6238IC)\u653f\u7530\u5357\u5730\u533a\u5730\u8cea\u8abf\u67fb","client_name":"\"\u56fd\u571f\u4ea4\u901a\u7701 \u4e2d\u90e8\u5730\u65b9\u6574\u5099\u5c40 \u5c90\u961c\u56fd\u9053\u4e8b\u52d9\u6240\"","boring_xml_url":64,"boring_view_url":1,"soilmap_view_url":null,"soiltest_xml_url":0,"soiltest_view_url":0},{"id":513965,"code":"B4KJ202201001-6501","latitude":"35.43028","longitude":"136.645636","source_code":"CB1485336020380020","project_name":"\u5e73\u621026\u5e74\u5ea6\u6771\u6d77\u74b0\u72b6(\u7cf8\u8cabIC\u304b\u3089\u5927\u91ce\u795e\u6238IC)\u653f\u7530\u5357\u5730\u533a\u5730\u8cea\u8abf\u67fb","survey_name":"\u5e73\u621026\u5e74\u5ea6\u6771\u6d77\u74b0\u72b6(\u7cf8\u8cabIC\u304b\u3089\u5927\u91ce\u795e\u6238IC)\u653f\u7530\u5357\u5730\u533a\u5730\u8cea\u8abf\u67fb","client_name":"\"\u56fd\u571f\u4ea4\u901a\u7701 \u4e2d\u90e8\u5730\u65b9\u6574\u5099\u5c40 \u5c90\u961c\u56fd\u9053\u4e8b\u52d9\u6240\"","boring_xml_url":64,"boring_view_url":1,"soilmap_view_url":null,"soiltest_xml_url":0,"soiltest_view_url":0},{"id":513964,"code":"B4KJ202201001-6500","latitude":"35.433728","longitude":"136.649895","source_code":"CB1485336020380019","project_name":"\u5e73\u621026\u5e74\u5ea6\u6771\u6d77\u74b0\u72b6(\u7cf8\u8cabIC\u304b\u3089\u5927\u91ce\u795e\u6238IC)\u653f\u7530\u5357\u5730\u533a\u5730\u8cea\u8abf\u67fb","survey_name":"\u5e73\u621026\u5e74\u5ea6\u6771\u6d77\u74b0\u72b6(\u7cf8\u8cabIC\u304b\u3089\u5927\u91ce\u795e\u6238IC)\u653f\u7530\u5357\u5730\u533a\u5730\u8cea\u8abf\u67fb","client_name":"\"\u56fd\u571f\u4ea4\u901a\u7701 \u4e2d\u90e8\u5730\u65b9\u6574\u5099\u5c40 \u5c90\u961c\u56fd\u9053\u4e8b\u52d9\u6240\"","boring_xml_url":64,"boring_view_url":1,"soilmap_view_url":null,"soiltest_xml_url":0,"soiltest_view_url":0},{"id":513963,"code":"B4KJ202201001-6499","latitude":"35.432214","longitude":"136.648483","source_code":"CB1485336020380018","project_name":"\u5e73\u621026\u5e74\u5ea6\u6771\u6d77\u74b0\u72b6(\u7cf8\u8cabIC\u304b\u3089\u5927\u91ce\u795e\u6238IC)\u653f\u7530\u5357\u5730\u533a\u5730\u8cea\u8abf\u67fb","survey_name":"\u5e73\u621026\u5e74\u5ea6\u6771\u6d77\u74b0\u72b6(\u7cf8\u8cabIC\u304b\u3089\u5927\u91ce\u795e\u6238IC)\u653f\u7530\u5357\u5730\u533a\u5730\u8cea\u8abf\u67fb","client_name":"\"\u56fd\u571f\u4ea4\u901a\u7701 \u4e2d\u90e8\u5730\u65b9\u6574\u5099\u5c40 \u5c90\u961c\u56fd\u9053\u4e8b\u52d9\u6240\"","boring_xml_url":64,"boring_view_url":1,"soilmap_view_url":null,"soiltest_xml_url":0,"soiltest_view_url":0},{"id":513962,"code":"B4KJ202201001-6498","latitude":"35.430072","longitude":"136.645197","source_code":"CB1485336020380017","project_name":"\u5e73\u621026\u5e74\u5ea6\u6771\u6d77\u74b0\u72b6(\u7cf8\u8cabIC\u304b\u3089\u5927\u91ce\u795e\u6238IC)\u653f\u7530\u5357\u5730\u533a\u5730\u8cea\u8abf\u67fb","survey_name":"\u5e73\u621026\u5e74\u5ea6\u6771\u6d77\u74b0\u72b6(\u7cf8\u8cabIC\u304b\u3089\u5927\u91ce\u795e\u6238IC)\u653f\u7530\u5357\u5730\u533a\u5730\u8cea\u8abf\u67fb","client_name":"\"\u56fd\u571f\u4ea4\u901a\u7701 \u4e2d\u90e8\u5730\u65b9\u6574\u5099\u5c40 \u5c90\u961c\u56fd\u9053\u4e8b\u52d9\u6240\"","boring_xml_url":64,"boring_view_url":1,"soilmap_view_url":null,"soiltest_xml_url":0,"soiltest_view_url":0},{"id":513961,"code":"B4KJ202201001-6497","latitude":"35.428916","longitude":"136.64117","source_code":"CB1485336020380016","project_name":"\u5e73\u621026\u5e74\u5ea6\u6771\u6d77\u74b0\u72b6(\u7cf8\u8cabIC\u304b\u3089\u5927\u91ce\u795e\u6238IC)\u653f\u7530\u5357\u5730\u533a\u5730\u8cea\u8abf\u67fb","survey_name":"\u5e73\u621026\u5e74\u5ea6\u6771\u6d77\u74b0\u72b6(\u7cf8\u8cabIC\u304b\u3089\u5927\u91ce\u795e\u6238IC)\u653f\u7530\u5357\u5730\u533a\u5730\u8cea\u8abf\u67fb","client_name":"\"\u56fd\u571f\u4ea4\u901a\u7701 \u4e2d\u90e8\u5730\u65b9\u6574\u5099\u5c40 \u5c90\u961c\u56fd\u9053\u4e8b\u52d9\u6240\"","boring_xml_url":64,"boring_view_url":1,"soilmap_view_url":null,"soiltest_xml_url":0,"soiltest_view_url":0},{"id":513960,"code":"B4KJ202201001-6496","latitude":"35.428861","longitude":"136.640803","source_code":"CB1485336020380015","project_name":"\u5e73\u621026\u5e74\u5ea6\u6771\u6d77\u74b0\u72b6(\u7cf8\u8cabIC\u304b\u3089\u5927\u91ce\u795e\u6238IC)\u653f\u7530\u5357\u5730\u533a\u5730\u8cea\u8abf\u67fb","survey_name":"\u5e73\u621026\u5e74\u5ea6\u6771\u6d77\u74b0\u72b6(\u7cf8\u8cabIC\u304b\u3089\u5927\u91ce\u795e\u6238IC)\u653f\u7530\u5357\u5730\u533a\u5730\u8cea\u8abf\u67fb","client_name":"\"\u56fd\u571f\u4ea4\u901a\u7701 \u4e2d\u90e8\u5730\u65b9\u6574\u5099\u5c40 \u5c90\u961c\u56fd\u9053\u4e8b\u52d9\u6240\"","boring_xml_url":64,"boring_view_url":1,"soilmap_view_url":null,"soiltest_xml_url":0,"soiltest_view_url":0},{"id":513959,"code":"B4KJ202201001-6495","latitude":"35.428764","longitude":"136.640025","source_code":"CB1485336020380014","project_name":"\u5e73\u621026\u5e74\u5ea6\u6771\u6d77\u74b0\u72b6(\u7cf8\u8cabIC\u304b\u3089\u5927\u91ce\u795e\u6238IC)\u653f\u7530\u5357\u5730\u533a\u5730\u8cea\u8abf\u67fb","survey_name":"\u5e73\u621026\u5e74\u5ea6\u6771\u6d77\u74b0\u72b6(\u7cf8\u8cabIC\u304b\u3089\u5927\u91ce\u795e\u6238IC)\u653f\u7530\u5357\u5730\u533a\u5730\u8cea\u8abf\u67fb","client_name":"\"\u56fd\u571f\u4ea4\u901a\u7701 \u4e2d\u90e8\u5730\u65b9\u6574\u5099\u5c40 \u5c90\u961c\u56fd\u9053\u4e8b\u52d9\u6240\"","boring_xml_url":64,"boring_view_url":1,"soilmap_view_url":null,"soiltest_xml_url":0,"soiltest_view_url":0},{"id":513958,"code":"B4KJ202201001-6494","latitude":"35.42878","longitude":"136.639247","source_code":"CB1485336020380013","project_name":"\u5e73\u621026\u5e74\u5ea6\u6771\u6d77\u74b0\u72b6(\u7cf8\u8cabIC\u304b\u3089\u5927\u91ce\u795e\u6238IC)\u653f\u7530\u5357\u5730\u533a\u5730\u8cea\u8abf\u67fb","survey_name":"\u5e73\u621026\u5e74\u5ea6\u6771\u6d77\u74b0\u72b6(\u7cf8\u8cabIC\u304b\u3089\u5927\u91ce\u795e\u6238IC)\u653f\u7530\u5357\u5730\u533a\u5730\u8cea\u8abf\u67fb","client_name":"\"\u56fd\u571f\u4ea4\u901a\u7701 \u4e2d\u90e8\u5730\u65b9\u6574\u5099\u5c40 \u5c90\u961c\u56fd\u9053\u4e8b\u52d9\u6240\"","boring_xml_url":64,"boring_view_url":1,"soilmap_view_url":null,"soiltest_xml_url":0,"soiltest_view_url":0},{"id":513957,"code":"B4KJ202201001-6493","latitude":"35.433794","longitude":"136.649945","source_code":"CB1485336020380012","project_name":"\u5e73\u621026\u5e74\u5ea6\u6771\u6d77\u74b0\u72b6(\u7cf8\u8cabIC\u304b\u3089\u5927\u91ce\u795e\u6238IC)\u653f\u7530\u5357\u5730\u533a\u5730\u8cea\u8abf\u67fb","survey_name":"\u5e73\u621026\u5e74\u5ea6\u6771\u6d77\u74b0\u72b6(\u7cf8\u8cabIC\u304b\u3089\u5927\u91ce\u795e\u6238IC)\u653f\u7530\u5357\u5730\u533a\u5730\u8cea\u8abf\u67fb","client_name":"\"\u56fd\u571f\u4ea4\u901a\u7701 \u4e2d\u90e8\u5730\u65b9\u6574\u5099\u5c40 \u5c90\u961c\u56fd\u9053\u4e8b\u52d9\u6240\"","boring_xml_url":64,"boring_view_url":1,"soilmap_view_url":null,"soiltest_xml_url":0,"soiltest_view_url":0},{"id":513956,"code":"B4KJ202201001-6492","latitude":"35.43355","longitude":"136.649753","source_code":"CB1485336020380011","project_name":"\u5e73\u621026\u5e74\u5ea6\u6771\u6d77\u74b0\u72b6(\u7cf8\u8cabIC\u304b\u3089\u5927\u91ce\u795e\u6238IC)\u653f\u7530\u5357\u5730\u533a\u5730\u8cea\u8abf\u67fb","survey_name":"\u5e73\u621026\u5e74\u5ea6\u6771\u6d77\u74b0\u72b6(\u7cf8\u8cabIC\u304b\u3089\u5927\u91ce\u795e\u6238IC)\u653f\u7530\u5357\u5730\u533a\u5730\u8cea\u8abf\u67fb","client_name":"\"\u56fd\u571f\u4ea4\u901a\u7701 \u4e2d\u90e8\u5730\u65b9\u6574\u5099\u5c40 \u5c90\u961c\u56fd\u9053\u4e8b\u52d9\u6240\"","boring_xml_url":64,"boring_view_url":1,"soilmap_view_url":null,"soiltest_xml_url":0,"soiltest_view_url":0},{"id":513955,"code":"B4KJ202201001-6491","latitude":"35.4333","longitude":"136.649458","source_code":"CB1485336020380010","project_name":"\u5e73\u621026\u5e74\u5ea6\u6771\u6d77\u74b0\u72b6(\u7cf8\u8cabIC\u304b\u3089\u5927\u91ce\u795e\u6238IC)\u653f\u7530\u5357\u5730\u533a\u5730\u8cea\u8abf\u67fb","survey_name":"\u5e73\u621026\u5e74\u5ea6\u6771\u6d77\u74b0\u72b6(\u7cf8\u8cabIC\u304b\u3089\u5927\u91ce\u795e\u6238IC)\u653f\u7530\u5357\u5730\u533a\u5730\u8cea\u8abf\u67fb","client_name":"\"\u56fd\u571f\u4ea4\u901a\u7701 \u4e2d\u90e8\u5730\u65b9\u6574\u5099\u5c40 \u5c90\u961c\u56fd\u9053\u4e8b\u52d9\u6240\"","boring_xml_url":64,"boring_view_url":1,"soilmap_view_url":null,"soiltest_xml_url":0,"soiltest_view_url":0},{"id":513954,"code":"B4KJ202201001-6490","latitude":"35.433044","longitude":"136.649231","source_code":"CB1485336020380009","project_name":"\u5e73\u621026\u5e74\u5ea6\u6771\u6d77\u74b0\u72b6(\u7cf8\u8cabIC\u304b\u3089\u5927\u91ce\u795e\u6238IC)\u653f\u7530\u5357\u5730\u533a\u5730\u8cea\u8abf\u67fb","survey_name":"\u5e73\u621026\u5e74\u5ea6\u6771\u6d77\u74b0\u72b6(\u7cf8\u8cabIC\u304b\u3089\u5927\u91ce\u795e\u6238IC)\u653f\u7530\u5357\u5730\u533a\u5730\u8cea\u8abf\u67fb","client_name":"\"\u56fd\u571f\u4ea4\u901a\u7701 \u4e2d\u90e8\u5730\u65b9\u6574\u5099\u5c40 \u5c90\u961c\u56fd\u9053\u4e8b\u52d9\u6240\"","boring_xml_url":64,"boring_view_url":1,"soilmap_view_url":null,"soiltest_xml_url":0,"soiltest_view_url":0},{"id":513953,"code":"B4KJ202201001-6489","latitude":"35.432794","longitude":"136.648995","source_code":"CB1485336020380008","project_name":"\u5e73\u621026\u5e74\u5ea6\u6771\u6d77\u74b0\u72b6(\u7cf8\u8cabIC\u304b\u3089\u5927\u91ce\u795e\u6238IC)\u653f\u7530\u5357\u5730\u533a\u5730\u8cea\u8abf\u67fb","survey_name":"\u5e73\u621026\u5e74\u5ea6\u6771\u6d77\u74b0\u72b6(\u7cf8\u8cabIC\u304b\u3089\u5927\u91ce\u795e\u6238IC)\u653f\u7530\u5357\u5730\u533a\u5730\u8cea\u8abf\u67fb","client_name":"\"\u56fd\u571f\u4ea4\u901a\u7701 \u4e2d\u90e8\u5730\u65b9\u6574\u5099\u5c40 \u5c90\u961c\u56fd\u9053\u4e8b\u52d9\u6240\"","boring_xml_url":64,"boring_view_url":1,"soilmap_view_url":null,"soiltest_xml_url":0,"soiltest_view_url":0},{"id":513952,"code":"B4KJ202201001-6488","latitude":"35.43255","longitude":"136.64875","source_code":"CB1485336020380007","project_name":"\u5e73\u621026\u5e74\u5ea6\u6771\u6d77\u74b0\u72b6(\u7cf8\u8cabIC\u304b\u3089\u5927\u91ce\u795e\u6238IC)\u653f\u7530\u5357\u5730\u533a\u5730\u8cea\u8abf\u67fb","survey_name":"\u5e73\u621026\u5e74\u5ea6\u6771\u6d77\u74b0\u72b6(\u7cf8\u8cabIC\u304b\u3089\u5927\u91ce\u795e\u6238IC)\u653f\u7530\u5357\u5730\u533a\u5730\u8cea\u8abf\u67fb","client_name":"\"\u56fd\u571f\u4ea4\u901a\u7701 \u4e2d\u90e8\u5730\u65b9\u6574\u5099\u5c40 \u5c90\u961c\u56fd\u9053\u4e8b\u52d9\u6240\"","boring_xml_url":64,"boring_view_url":1,"soilmap_view_url":null,"soiltest_xml_url":0,"soiltest_view_url":0},{"id":513951,"code":"B4KJ202201001-6487","latitude":"35.432316","longitude":"136.648603","source_code":"CB1485336020380006","project_name":"\u5e73\u621026\u5e74\u5ea6\u6771\u6d77\u74b0\u72b6(\u7cf8\u8cabIC\u304b\u3089\u5927\u91ce\u795e\u6238IC)\u653f\u7530\u5357\u5730\u533a\u5730\u8cea\u8abf\u67fb","survey_name":"\u5e73\u621026\u5e74\u5ea6\u6771\u6d77\u74b0\u72b6(\u7cf8\u8cabIC\u304b\u3089\u5927\u91ce\u795e\u6238IC)\u653f\u7530\u5357\u5730\u533a\u5730\u8cea\u8abf\u67fb","client_name":"\"\u56fd\u571f\u4ea4\u901a\u7701 \u4e2d\u90e8\u5730\u65b9\u6574\u5099\u5c40 \u5c90\u961c\u56fd\u9053\u4e8b\u52d9\u6240\"","boring_xml_url":64,"boring_view_url":1,"soilmap_view_url":null,"soiltest_xml_url":0,"soiltest_view_url":0},{"id":513950,"code":"B4KJ202201001-6486","latitude":"35.432147","longitude":"136.648311","source_code":"CB1485336020380005","project_name":"\u5e73\u621026\u5e74\u5ea6\u6771\u6d77\u74b0\u72b6(\u7cf8\u8cabIC\u304b\u3089\u5927\u91ce\u795e\u6238IC)\u653f\u7530\u5357\u5730\u533a\u5730\u8cea\u8abf\u67fb","survey_name":"\u5e73\u621026\u5e74\u5ea6\u6771\u6d77\u74b0\u72b6(\u7cf8\u8cabIC\u304b\u3089\u5927\u91ce\u795e\u6238IC)\u653f\u7530\u5357\u5730\u533a\u5730\u8cea\u8abf\u67fb","client_name":"\"\u56fd\u571f\u4ea4\u901a\u7701 \u4e2d\u90e8\u5730\u65b9\u6574\u5099\u5c40 \u5c90\u961c\u56fd\u9053\u4e8b\u52d9\u6240\"","boring_xml_url":64,"boring_view_url":1,"soilmap_view_url":null,"soiltest_xml_url":0,"soiltest_view_url":0},{"id":513949,"code":"B4KJ202201001-6485","latitude":"35.431953","longitude":"136.648081","source_code":"CB1485336020380004","project_name":"\u5e73\u621026\u5e74\u5ea6\u6771\u6d77\u74b0\u72b6(\u7cf8\u8cabIC\u304b\u3089\u5927\u91ce\u795e\u6238IC)\u653f\u7530\u5357\u5730\u533a\u5730\u8cea\u8abf\u67fb","survey_name":"\u5e73\u621026\u5e74\u5ea6\u6771\u6d77\u74b0\u72b6(\u7cf8\u8cabIC\u304b\u3089\u5927\u91ce\u795e\u6238IC)\u653f\u7530\u5357\u5730\u533a\u5730\u8cea\u8abf\u67fb","client_name":"\"\u56fd\u571f\u4ea4\u901a\u7701 \u4e2d\u90e8\u5730\u65b9\u6574\u5099\u5c40 \u5c90\u961c\u56fd\u9053\u4e8b\u52d9\u6240\"","boring_xml_url":64,"boring_view_url":1,"soilmap_view_url":null,"soiltest_xml_url":0,"soiltest_view_url":0}]}}