{"header":{"xyz":{"source":[],"mosaic":false},"page":105,"raw":{"soiltest_result":"0","bbox":"57.598333,109.544722,1.933333,163.806111","page":"105"},"conditions":{"soiltest_result":0,"north":57.598333,"west":109.544722,"south":1.933333,"east":163.806111},"success":true,"message":""},"data":{"meta":{"total":212844,"page":105,"pages":7095,"count":30},"values":[{"id":680922,"code":"NGIC202303441-0001","latitude":"44.357284","longitude":"142.46175519444","source_code":"","project_name":"","survey_name":"\u540d\u5bc4\u7a0e\u52d9\u7f72\u65b0\u55b623\u6577\u5730\u8abf\u67fb\u696d\u52d9","client_name":"\u56fd\u571f\u4ea4\u901a\u7701\u5317\u6d77\u9053\u958b\u767a\u5c40\u958b\u767a\u76e3\u7406\u90e8","boring_xml_url":47,"boring_view_url":1,"soilmap_view_url":null,"soiltest_xml_url":47,"soiltest_view_url":47},{"id":680903,"code":"NGIC202303517-0002","latitude":"43.692654388889","longitude":"142.52768516667","source_code":"","project_name":"\u56fd\u55b6\u7dca\u6025\u8fb2\u5730\u518d\u7de8\u6574\u5099\u4e8b\u696d","survey_name":"\u5927\u96ea\u6771\u5ddd\u7b2c\u4e00\u5730\u533a13\u8fb2\u533a\u533a\u753b\u6574\u7406\u8a2d\u8a08\u7b49\u696d\u52d9","client_name":"\u56fd\u571f\u4ea4\u901a\u7701\u5317\u6d77\u9053\u958b\u767a\u5c40\u65ed\u5ddd\u958b\u767a\u5efa\u8a2d\u90e8\u65ed\u5ddd\u8fb2\u696d\u4e8b\u52d9\u6240","boring_xml_url":47,"boring_view_url":1,"soilmap_view_url":null,"soiltest_xml_url":0,"soiltest_view_url":0},{"id":680902,"code":"NGIC202303517-0001","latitude":"43.6915735","longitude":"142.5196145","source_code":"","project_name":"\u56fd\u55b6\u7dca\u6025\u8fb2\u5730\u518d\u7de8\u6574\u5099\u4e8b\u696d","survey_name":"\u5927\u96ea\u6771\u5ddd\u7b2c\u4e00\u5730\u533a13\u8fb2\u533a\u533a\u753b\u6574\u7406\u8a2d\u8a08\u7b49\u696d\u52d9","client_name":"\u56fd\u571f\u4ea4\u901a\u7701\u5317\u6d77\u9053\u958b\u767a\u5c40\u65ed\u5ddd\u958b\u767a\u5efa\u8a2d\u90e8\u65ed\u5ddd\u8fb2\u696d\u4e8b\u52d9\u6240","boring_xml_url":47,"boring_view_url":1,"soilmap_view_url":null,"soiltest_xml_url":0,"soiltest_view_url":0},{"id":680895,"code":"NGIC202303465-0011","latitude":"32.973887388889","longitude":"131.366359","source_code":"","project_name":"","survey_name":"\u4ee4\u548c5\u5e74\u5ea6\u7af9\u7530\u963f\u8607\u9053\u8def\u5730\u8cea\u8abf\u67fb\u696d\u52d9","client_name":"\u56fd\u571f\u4ea4\u901a\u7701\u4e5d\u5dde\u5730\u65b9\u6574\u5099\u5c40\u4f50\u4f2f\u6cb3\u5ddd\u56fd\u9053\u4e8b\u52d9\u6240","boring_xml_url":47,"boring_view_url":1,"soilmap_view_url":null,"soiltest_xml_url":0,"soiltest_view_url":0},{"id":680894,"code":"NGIC202303465-0010","latitude":"32.973775916667","longitude":"131.36649897222","source_code":"","project_name":"","survey_name":"\u4ee4\u548c5\u5e74\u5ea6\u7af9\u7530\u963f\u8607\u9053\u8def\u5730\u8cea\u8abf\u67fb\u696d\u52d9","client_name":"\u56fd\u571f\u4ea4\u901a\u7701\u4e5d\u5dde\u5730\u65b9\u6574\u5099\u5c40\u4f50\u4f2f\u6cb3\u5ddd\u56fd\u9053\u4e8b\u52d9\u6240","boring_xml_url":47,"boring_view_url":1,"soilmap_view_url":null,"soiltest_xml_url":0,"soiltest_view_url":0},{"id":680893,"code":"NGIC202303465-0009","latitude":"32.974052138889","longitude":"131.36664372222","source_code":"","project_name":"","survey_name":"\u4ee4\u548c5\u5e74\u5ea6\u7af9\u7530\u963f\u8607\u9053\u8def\u5730\u8cea\u8abf\u67fb\u696d\u52d9","client_name":"\u56fd\u571f\u4ea4\u901a\u7701\u4e5d\u5dde\u5730\u65b9\u6574\u5099\u5c40\u4f50\u4f2f\u6cb3\u5ddd\u56fd\u9053\u4e8b\u52d9\u6240","boring_xml_url":47,"boring_view_url":1,"soilmap_view_url":null,"soiltest_xml_url":0,"soiltest_view_url":0},{"id":680892,"code":"NGIC202303465-0008","latitude":"32.967105333333","longitude":"131.36197933333","source_code":"","project_name":"","survey_name":"\u4ee4\u548c5\u5e74\u5ea6\u7af9\u7530\u963f\u8607\u9053\u8def\u5730\u8cea\u8abf\u67fb\u696d\u52d9","client_name":"\u56fd\u571f\u4ea4\u901a\u7701\u4e5d\u5dde\u5730\u65b9\u6574\u5099\u5c40\u4f50\u4f2f\u6cb3\u5ddd\u56fd\u9053\u4e8b\u52d9\u6240","boring_xml_url":47,"boring_view_url":1,"soilmap_view_url":null,"soiltest_xml_url":0,"soiltest_view_url":0},{"id":680891,"code":"NGIC202303465-0007","latitude":"32.967328111111","longitude":"131.36206525","source_code":"","project_name":"","survey_name":"\u4ee4\u548c5\u5e74\u5ea6\u7af9\u7530\u963f\u8607\u9053\u8def\u5730\u8cea\u8abf\u67fb\u696d\u52d9","client_name":"\u56fd\u571f\u4ea4\u901a\u7701\u4e5d\u5dde\u5730\u65b9\u6574\u5099\u5c40\u4f50\u4f2f\u6cb3\u5ddd\u56fd\u9053\u4e8b\u52d9\u6240","boring_xml_url":47,"boring_view_url":1,"soilmap_view_url":null,"soiltest_xml_url":0,"soiltest_view_url":0},{"id":680890,"code":"NGIC202303465-0006","latitude":"32.968241055556","longitude":"131.36267027778","source_code":"","project_name":"","survey_name":"\u4ee4\u548c5\u5e74\u5ea6\u7af9\u7530\u963f\u8607\u9053\u8def\u5730\u8cea\u8abf\u67fb\u696d\u52d9","client_name":"\u56fd\u571f\u4ea4\u901a\u7701\u4e5d\u5dde\u5730\u65b9\u6574\u5099\u5c40\u4f50\u4f2f\u6cb3\u5ddd\u56fd\u9053\u4e8b\u52d9\u6240","boring_xml_url":47,"boring_view_url":1,"soilmap_view_url":null,"soiltest_xml_url":0,"soiltest_view_url":0},{"id":680889,"code":"NGIC202303465-0005","latitude":"32.968870138889","longitude":"131.36279622222","source_code":"","project_name":"","survey_name":"\u4ee4\u548c5\u5e74\u5ea6\u7af9\u7530\u963f\u8607\u9053\u8def\u5730\u8cea\u8abf\u67fb\u696d\u52d9","client_name":"\u56fd\u571f\u4ea4\u901a\u7701\u4e5d\u5dde\u5730\u65b9\u6574\u5099\u5c40\u4f50\u4f2f\u6cb3\u5ddd\u56fd\u9053\u4e8b\u52d9\u6240","boring_xml_url":47,"boring_view_url":1,"soilmap_view_url":null,"soiltest_xml_url":47,"soiltest_view_url":47},{"id":680888,"code":"NGIC202303465-0004","latitude":"32.969033805556","longitude":"131.36301991667","source_code":"","project_name":"","survey_name":"\u4ee4\u548c5\u5e74\u5ea6\u7af9\u7530\u963f\u8607\u9053\u8def\u5730\u8cea\u8abf\u67fb\u696d\u52d9","client_name":"\u56fd\u571f\u4ea4\u901a\u7701\u4e5d\u5dde\u5730\u65b9\u6574\u5099\u5c40\u4f50\u4f2f\u6cb3\u5ddd\u56fd\u9053\u4e8b\u52d9\u6240","boring_xml_url":47,"boring_view_url":1,"soilmap_view_url":null,"soiltest_xml_url":0,"soiltest_view_url":0},{"id":680887,"code":"NGIC202303465-0003","latitude":"32.969141694444","longitude":"131.36293888889","source_code":"","project_name":"","survey_name":"\u4ee4\u548c5\u5e74\u5ea6\u7af9\u7530\u963f\u8607\u9053\u8def\u5730\u8cea\u8abf\u67fb\u696d\u52d9","client_name":"\u56fd\u571f\u4ea4\u901a\u7701\u4e5d\u5dde\u5730\u65b9\u6574\u5099\u5c40\u4f50\u4f2f\u6cb3\u5ddd\u56fd\u9053\u4e8b\u52d9\u6240","boring_xml_url":47,"boring_view_url":1,"soilmap_view_url":null,"soiltest_xml_url":47,"soiltest_view_url":47},{"id":680886,"code":"NGIC202303465-0002","latitude":"32.969305277778","longitude":"131.36317055556","source_code":"","project_name":"","survey_name":"\u4ee4\u548c5\u5e74\u5ea6\u7af9\u7530\u963f\u8607\u9053\u8def\u5730\u8cea\u8abf\u67fb\u696d\u52d9","client_name":"\u56fd\u571f\u4ea4\u901a\u7701\u4e5d\u5dde\u5730\u65b9\u6574\u5099\u5c40\u4f50\u4f2f\u6cb3\u5ddd\u56fd\u9053\u4e8b\u52d9\u6240","boring_xml_url":47,"boring_view_url":1,"soilmap_view_url":null,"soiltest_xml_url":0,"soiltest_view_url":0},{"id":680885,"code":"NGIC202303465-0001","latitude":"32.969647","longitude":"131.36316536111","source_code":"","project_name":"","survey_name":"\u4ee4\u548c5\u5e74\u5ea6\u7af9\u7530\u963f\u8607\u9053\u8def\u5730\u8cea\u8abf\u67fb\u696d\u52d9","client_name":"\u56fd\u571f\u4ea4\u901a\u7701\u4e5d\u5dde\u5730\u65b9\u6574\u5099\u5c40\u4f50\u4f2f\u6cb3\u5ddd\u56fd\u9053\u4e8b\u52d9\u6240","boring_xml_url":47,"boring_view_url":1,"soilmap_view_url":null,"soiltest_xml_url":47,"soiltest_view_url":47},{"id":680831,"code":"NGIC202303406-0005","latitude":"33.806583527778","longitude":"134.36267625","source_code":"","project_name":"\u4ee4\u548c5\u5e74\u5ea6 \u9577\u5b89\u53e3\u30c0\u30e0\u5730\u8cea\u8abf\u67fb(\u305d\u306e2)\u696d\u52d9","survey_name":"\u4ee4\u548c5\u5e74\u5ea6 \u9577\u5b89\u53e3\u30c0\u30e0\u5730\u8cea\u8abf\u67fb(\u305d\u306e2)\u696d\u52d9","client_name":"\u56fd\u571f\u4ea4\u901a\u7701\u56db\u56fd\u5730\u65b9\u6574\u5099\u5c40\u90a3\u8cc0\u5ddd\u6cb3\u5ddd\u4e8b\u52d9\u6240","boring_xml_url":47,"boring_view_url":1,"soilmap_view_url":null,"soiltest_xml_url":0,"soiltest_view_url":0},{"id":680830,"code":"NGIC202303406-0004","latitude":"33.805760833333","longitude":"134.36253638889","source_code":"","project_name":"\u4ee4\u548c5\u5e74\u5ea6 \u9577\u5b89\u53e3\u30c0\u30e0\u5730\u8cea\u8abf\u67fb(\u305d\u306e2)\u696d\u52d9","survey_name":"\u4ee4\u548c5\u5e74\u5ea6 \u9577\u5b89\u53e3\u30c0\u30e0\u5730\u8cea\u8abf\u67fb(\u305d\u306e2)\u696d\u52d9","client_name":"\u56fd\u571f\u4ea4\u901a\u7701\u56db\u56fd\u5730\u65b9\u6574\u5099\u5c40\u90a3\u8cc0\u5ddd\u6cb3\u5ddd\u4e8b\u52d9\u6240","boring_xml_url":47,"boring_view_url":1,"soilmap_view_url":null,"soiltest_xml_url":0,"soiltest_view_url":0},{"id":680829,"code":"NGIC202303406-0003","latitude":"33.814349916667","longitude":"134.32118230556","source_code":"","project_name":"\u4ee4\u548c5\u5e74\u5ea6 \u9577\u5b89\u53e3\u30c0\u30e0\u5730\u8cea\u8abf\u67fb(\u305d\u306e2)\u696d\u52d9","survey_name":"\u4ee4\u548c5\u5e74\u5ea6 \u9577\u5b89\u53e3\u30c0\u30e0\u5730\u8cea\u8abf\u67fb(\u305d\u306e2)\u696d\u52d9","client_name":"\u56fd\u571f\u4ea4\u901a\u7701\u56db\u56fd\u5730\u65b9\u6574\u5099\u5c40\u90a3\u8cc0\u5ddd\u6cb3\u5ddd\u4e8b\u52d9\u6240","boring_xml_url":47,"boring_view_url":1,"soilmap_view_url":null,"soiltest_xml_url":0,"soiltest_view_url":0},{"id":680828,"code":"NGIC202303406-0002","latitude":"33.814444777778","longitude":"134.32208388889","source_code":"","project_name":"\u4ee4\u548c5\u5e74\u5ea6 \u9577\u5b89\u53e3\u30c0\u30e0\u5730\u8cea\u8abf\u67fb(\u305d\u306e2)\u696d\u52d9","survey_name":"\u4ee4\u548c5\u5e74\u5ea6 \u9577\u5b89\u53e3\u30c0\u30e0\u5730\u8cea\u8abf\u67fb(\u305d\u306e2)\u696d\u52d9","client_name":"\u56fd\u571f\u4ea4\u901a\u7701\u56db\u56fd\u5730\u65b9\u6574\u5099\u5c40\u90a3\u8cc0\u5ddd\u6cb3\u5ddd\u4e8b\u52d9\u6240","boring_xml_url":47,"boring_view_url":1,"soilmap_view_url":null,"soiltest_xml_url":0,"soiltest_view_url":0},{"id":680827,"code":"NGIC202303406-0001","latitude":"33.814412","longitude":"134.32148469444","source_code":"","project_name":"\u4ee4\u548c5\u5e74\u5ea6 \u9577\u5b89\u53e3\u30c0\u30e0\u5730\u8cea\u8abf\u67fb(\u305d\u306e2)\u696d\u52d9","survey_name":"\u4ee4\u548c5\u5e74\u5ea6 \u9577\u5b89\u53e3\u30c0\u30e0\u5730\u8cea\u8abf\u67fb(\u305d\u306e2)\u696d\u52d9","client_name":"\u56fd\u571f\u4ea4\u901a\u7701\u56db\u56fd\u5730\u65b9\u6574\u5099\u5c40\u90a3\u8cc0\u5ddd\u6cb3\u5ddd\u4e8b\u52d9\u6240","boring_xml_url":47,"boring_view_url":1,"soilmap_view_url":null,"soiltest_xml_url":0,"soiltest_view_url":0},{"id":674434,"code":"NGIC202303050-0003","latitude":"35.363540861111","longitude":"132.76647958333","source_code":"","project_name":"","survey_name":"\u4ee4\u548c5\u5e74\u5ea6\u51fa\u96f2\u8077\u5b89\u6577\u5730\u8abf\u67fb\u696d\u52d9","client_name":"\u56fd\u571f\u4ea4\u901a\u7701\u4e2d\u56fd\u5730\u65b9\u6574\u5099\u5c40\u55b6\u7e55\u90e8\u3000\u4fdd\u5168\u6307\u5c0e\u30fb\u76e3\u7763\u5ba4","boring_xml_url":47,"boring_view_url":1,"soilmap_view_url":null,"soiltest_xml_url":47,"soiltest_view_url":47},{"id":674433,"code":"NGIC202303050-0002","latitude":"35.363540916667","longitude":"132.76646858333","source_code":"","project_name":"","survey_name":"\u4ee4\u548c5\u5e74\u5ea6\u51fa\u96f2\u8077\u5b89\u6577\u5730\u8abf\u67fb\u696d\u52d9","client_name":"\u56fd\u571f\u4ea4\u901a\u7701\u4e2d\u56fd\u5730\u65b9\u6574\u5099\u5c40\u55b6\u7e55\u90e8\u3000\u4fdd\u5168\u6307\u5c0e\u30fb\u76e3\u7763\u5ba4","boring_xml_url":47,"boring_view_url":1,"soilmap_view_url":null,"soiltest_xml_url":47,"soiltest_view_url":47},{"id":674432,"code":"NGIC202303050-0001","latitude":"35.363150583333","longitude":"132.76642980556","source_code":"","project_name":"","survey_name":"\u4ee4\u548c5\u5e74\u5ea6\u51fa\u96f2\u8077\u5b89\u6577\u5730\u8abf\u67fb\u696d\u52d9","client_name":"\u56fd\u571f\u4ea4\u901a\u7701\u4e2d\u56fd\u5730\u65b9\u6574\u5099\u5c40\u55b6\u7e55\u90e8\u3000\u4fdd\u5168\u6307\u5c0e\u30fb\u76e3\u7763\u5ba4","boring_xml_url":47,"boring_view_url":1,"soilmap_view_url":null,"soiltest_xml_url":0,"soiltest_view_url":0},{"id":674420,"code":"NGIC202303488-0004","latitude":"43.450119444444","longitude":"145.14479166667","source_code":"","project_name":"\u56fd\u55b6\u74b0\u5883\u4fdd\u5168\u578b\u304b\u3093\u304c\u3044\u6392\u6c34\u4e8b\u696d","survey_name":"\u5225\u6d77\u5317\u90e8\u5730\u533a\u5225\u914d12\u53f7\u7528\u6c34\u8def\u7f8e\u539f\u5de5\u533a\u5916\u4e00\u9023\u8a2d\u8a08\u7b49\u696d\u52d9","client_name":"\u56fd\u571f\u4ea4\u901a\u7701\u5317\u6d77\u9053\u958b\u767a\u5c40\u91e7\u8def\u958b\u767a\u5efa\u8a2d\u90e8\u6839\u5ba4\u8fb2\u696d\u4e8b\u52d9\u6240","boring_xml_url":47,"boring_view_url":1,"soilmap_view_url":null,"soiltest_xml_url":47,"soiltest_view_url":47},{"id":674419,"code":"NGIC202303488-0003","latitude":"43.445877777778","longitude":"145.14279166667","source_code":"","project_name":"\u56fd\u55b6\u74b0\u5883\u4fdd\u5168\u578b\u304b\u3093\u304c\u3044\u6392\u6c34\u4e8b\u696d","survey_name":"\u5225\u6d77\u5317\u90e8\u5730\u533a\u5225\u914d12\u53f7\u7528\u6c34\u8def\u7f8e\u539f\u5de5\u533a\u5916\u4e00\u9023\u8a2d\u8a08\u7b49\u696d\u52d9","client_name":"\u56fd\u571f\u4ea4\u901a\u7701\u5317\u6d77\u9053\u958b\u767a\u5c40\u91e7\u8def\u958b\u767a\u5efa\u8a2d\u90e8\u6839\u5ba4\u8fb2\u696d\u4e8b\u52d9\u6240","boring_xml_url":47,"boring_view_url":1,"soilmap_view_url":null,"soiltest_xml_url":47,"soiltest_view_url":47},{"id":674418,"code":"NGIC202303488-0002","latitude":"43.448433333333","longitude":"145.14090277778","source_code":"","project_name":"\u56fd\u55b6\u74b0\u5883\u4fdd\u5168\u578b\u304b\u3093\u304c\u3044\u6392\u6c34\u4e8b\u696d","survey_name":"\u5225\u6d77\u5317\u90e8\u5730\u533a\u5225\u914d12\u53f7\u7528\u6c34\u8def\u7f8e\u539f\u5de5\u533a\u5916\u4e00\u9023\u8a2d\u8a08\u7b49\u696d\u52d9","client_name":"\u56fd\u571f\u4ea4\u901a\u7701\u5317\u6d77\u9053\u958b\u767a\u5c40\u91e7\u8def\u958b\u767a\u5efa\u8a2d\u90e8\u6839\u5ba4\u8fb2\u696d\u4e8b\u52d9\u6240","boring_xml_url":47,"boring_view_url":1,"soilmap_view_url":null,"soiltest_xml_url":47,"soiltest_view_url":47},{"id":674417,"code":"NGIC202303488-0001","latitude":"43.449030555556","longitude":"145.14080277778","source_code":"","project_name":"\u56fd\u55b6\u74b0\u5883\u4fdd\u5168\u578b\u304b\u3093\u304c\u3044\u6392\u6c34\u4e8b\u696d","survey_name":"\u5225\u6d77\u5317\u90e8\u5730\u533a\u5225\u914d12\u53f7\u7528\u6c34\u8def\u7f8e\u539f\u5de5\u533a\u5916\u4e00\u9023\u8a2d\u8a08\u7b49\u696d\u52d9","client_name":"\u56fd\u571f\u4ea4\u901a\u7701\u5317\u6d77\u9053\u958b\u767a\u5c40\u91e7\u8def\u958b\u767a\u5efa\u8a2d\u90e8\u6839\u5ba4\u8fb2\u696d\u4e8b\u52d9\u6240","boring_xml_url":47,"boring_view_url":1,"soilmap_view_url":null,"soiltest_xml_url":47,"soiltest_view_url":47},{"id":674399,"code":"NGIC202303436-0012","latitude":"33.948311944444","longitude":"132.08616972222","source_code":"","project_name":"","survey_name":"\u4ee4\u548c5\u5e74\u5ea6\u67f3\u4e95\u30fb\u5e73\u751f\u30d0\u30a4\u30d1\u30b9\u5730\u8cea\u8abf\u67fb\u305d\u306e2\u696d\u52d9","client_name":"\u56fd\u571f\u4ea4\u901a\u7701\u4e2d\u56fd\u5730\u65b9\u6574\u5099\u5c40\u5c71\u53e3\u6cb3\u5ddd\u56fd\u9053\u4e8b\u52d9\u6240","boring_xml_url":47,"boring_view_url":1,"soilmap_view_url":null,"soiltest_xml_url":47,"soiltest_view_url":47},{"id":674398,"code":"NGIC202303436-0011","latitude":"33.948453611111","longitude":"132.08653722222","source_code":"","project_name":"","survey_name":"\u4ee4\u548c5\u5e74\u5ea6\u67f3\u4e95\u30fb\u5e73\u751f\u30d0\u30a4\u30d1\u30b9\u5730\u8cea\u8abf\u67fb\u305d\u306e2\u696d\u52d9","client_name":"\u56fd\u571f\u4ea4\u901a\u7701\u4e2d\u56fd\u5730\u65b9\u6574\u5099\u5c40\u5c71\u53e3\u6cb3\u5ddd\u56fd\u9053\u4e8b\u52d9\u6240","boring_xml_url":47,"boring_view_url":1,"soilmap_view_url":null,"soiltest_xml_url":47,"soiltest_view_url":47},{"id":674397,"code":"NGIC202303436-0010","latitude":"33.946598888889","longitude":"132.08399555556","source_code":"","project_name":"","survey_name":"\u4ee4\u548c5\u5e74\u5ea6\u67f3\u4e95\u30fb\u5e73\u751f\u30d0\u30a4\u30d1\u30b9\u5730\u8cea\u8abf\u67fb\u305d\u306e2\u696d\u52d9","client_name":"\u56fd\u571f\u4ea4\u901a\u7701\u4e2d\u56fd\u5730\u65b9\u6574\u5099\u5c40\u5c71\u53e3\u6cb3\u5ddd\u56fd\u9053\u4e8b\u52d9\u6240","boring_xml_url":47,"boring_view_url":1,"soilmap_view_url":null,"soiltest_xml_url":47,"soiltest_view_url":47},{"id":674396,"code":"NGIC202303436-0009","latitude":"33.946926388889","longitude":"132.08436638889","source_code":"","project_name":"","survey_name":"\u4ee4\u548c5\u5e74\u5ea6\u67f3\u4e95\u30fb\u5e73\u751f\u30d0\u30a4\u30d1\u30b9\u5730\u8cea\u8abf\u67fb\u305d\u306e2\u696d\u52d9","client_name":"\u56fd\u571f\u4ea4\u901a\u7701\u4e2d\u56fd\u5730\u65b9\u6574\u5099\u5c40\u5c71\u53e3\u6cb3\u5ddd\u56fd\u9053\u4e8b\u52d9\u6240","boring_xml_url":47,"boring_view_url":1,"soilmap_view_url":null,"soiltest_xml_url":47,"soiltest_view_url":47}]}}