{"header":{"xyz":{"source":[],"mosaic":false},"page":1058,"raw":{"soiltest_result":"0","bbox":"57.598333,109.544722,1.933333,163.806111","page":"1058"},"conditions":{"soiltest_result":0,"north":57.598333,"west":109.544722,"south":1.933333,"east":163.806111},"success":true,"message":""},"data":{"meta":{"total":212844,"page":1058,"pages":7095,"count":30},"values":[{"id":513678,"code":"B4KJ202201001-6214","latitude":"35.078184","longitude":"138.544129","source_code":"CB1485437920210005","project_name":"","survey_name":"\u5e73\u621026\u5e74\u5ea6\u7531\u6bd4\u5730\u533a\u5730\u8cea\u8abf\u67fb\u696d\u52d9","client_name":"\u56fd\u571f\u4ea4\u901a\u7701\u3000\u4e2d\u90e8\u5730\u65b9\u6574\u5099\u5c40\u3000\u5bcc\u58eb\u7802\u9632\u4e8b\u52d9\u6240","boring_xml_url":64,"boring_view_url":1,"soilmap_view_url":null,"soiltest_xml_url":0,"soiltest_view_url":0},{"id":513677,"code":"B4KJ202201001-6213","latitude":"35.073994","longitude":"138.541667","source_code":"CB1485437920210004","project_name":"","survey_name":"\u5e73\u621026\u5e74\u5ea6\u7531\u6bd4\u5730\u533a\u5730\u8cea\u8abf\u67fb\u696d\u52d9","client_name":"\u56fd\u571f\u4ea4\u901a\u7701\u3000\u4e2d\u90e8\u5730\u65b9\u6574\u5099\u5c40\u3000\u5bcc\u58eb\u7802\u9632\u4e8b\u52d9\u6240","boring_xml_url":64,"boring_view_url":1,"soilmap_view_url":null,"soiltest_xml_url":0,"soiltest_view_url":0},{"id":513676,"code":"B4KJ202201001-6212","latitude":"35.073745","longitude":"138.541579","source_code":"CB1485437920210003","project_name":"","survey_name":"\u5e73\u621026\u5e74\u5ea6\u7531\u6bd4\u5730\u533a\u5730\u8cea\u8abf\u67fb\u696d\u52d9","client_name":"\u56fd\u571f\u4ea4\u901a\u7701\u3000\u4e2d\u90e8\u5730\u65b9\u6574\u5099\u5c40\u3000\u5bcc\u58eb\u7802\u9632\u4e8b\u52d9\u6240","boring_xml_url":64,"boring_view_url":1,"soilmap_view_url":null,"soiltest_xml_url":0,"soiltest_view_url":0},{"id":513675,"code":"B4KJ202201001-6211","latitude":"35.073042","longitude":"138.541475","source_code":"CB1485437920210002","project_name":"","survey_name":"\u5e73\u621026\u5e74\u5ea6\u7531\u6bd4\u5730\u533a\u5730\u8cea\u8abf\u67fb\u696d\u52d9","client_name":"\u56fd\u571f\u4ea4\u901a\u7701\u4e2d\u90e8\u5730\u65b9\u6574\u5099\u5c40\u5bcc\u58eb\u7802\u9632\u4e8b\u52d9\u6240","boring_xml_url":64,"boring_view_url":1,"soilmap_view_url":null,"soiltest_xml_url":0,"soiltest_view_url":0},{"id":513674,"code":"B4KJ202201001-6210","latitude":"35.072761","longitude":"138.541539","source_code":"CB1485437920210001","project_name":"","survey_name":"\u5e73\u621026\u5e74\u5ea6\u7531\u6bd4\u5730\u533a\u5730\u8cea\u8abf\u67fb\u696d\u52d9","client_name":"\u56fd\u571f\u4ea4\u901a\u7701\u3000\u4e2d\u90e8\u5730\u65b9\u6574\u5099\u5c40\u3000\u5bcc\u58eb\u7802\u9632\u4e8b\u52d9\u6240","boring_xml_url":64,"boring_view_url":1,"soilmap_view_url":null,"soiltest_xml_url":0,"soiltest_view_url":0},{"id":513673,"code":"B4KJ202201001-6209","latitude":"35.255589","longitude":"138.716211","source_code":"CB1485436020310016","project_name":"","survey_name":"\"\u5e73\u621026\u5e74\u5ea6 \u5bcc\u58eb\u7802\u9632\u7ba1\u5185\u5730\u8cea\u8abf\u67fb\"","client_name":"\"\u56fd\u571f\u4ea4\u901a\u7701\u4e2d\u90e8\u5730\u65b9\u6574\u5099\u5c40 \u5bcc\u58eb\u7802\u9632\u4e8b\u52d9\u6240\"","boring_xml_url":64,"boring_view_url":1,"soilmap_view_url":null,"soiltest_xml_url":0,"soiltest_view_url":0},{"id":513672,"code":"B4KJ202201001-6208","latitude":"35.2558","longitude":"138.7158","source_code":"CB1485436020310015","project_name":"","survey_name":"\"\u5e73\u621026\u5e74\u5ea6 \u5bcc\u58eb\u7802\u9632\u7ba1\u5185\u5730\u8cea\u8abf\u67fb\"","client_name":"\"\u56fd\u571f\u4ea4\u901a\u7701\u4e2d\u90e8\u5730\u65b9\u6574\u5099\u5c40 \u5bcc\u58eb\u7802\u9632\u4e8b\u52d9\u6240\"","boring_xml_url":64,"boring_view_url":1,"soilmap_view_url":null,"soiltest_xml_url":0,"soiltest_view_url":0},{"id":513671,"code":"B4KJ202201001-6207","latitude":"35.255997","longitude":"138.715431","source_code":"CB1485436020310014","project_name":"","survey_name":"\"\u5e73\u621026\u5e74\u5ea6 \u5bcc\u58eb\u7802\u9632\u7ba1\u5185\u5730\u8cea\u8abf\u67fb\"","client_name":"\"\u56fd\u571f\u4ea4\u901a\u7701\u4e2d\u90e8\u5730\u65b9\u6574\u5099\u5c40 \u5bcc\u58eb\u7802\u9632\u4e8b\u52d9\u6240\"","boring_xml_url":64,"boring_view_url":1,"soilmap_view_url":null,"soiltest_xml_url":0,"soiltest_view_url":0},{"id":513670,"code":"B4KJ202201001-6206","latitude":"35.255628","longitude":"138.715683","source_code":"CB1485436020310013","project_name":"","survey_name":"\"\u5e73\u621026\u5e74\u5ea6 \u5bcc\u58eb\u7802\u9632\u7ba1\u5185\u5730\u8cea\u8abf\u67fb\"","client_name":"\"\u56fd\u571f\u4ea4\u901a\u7701\u4e2d\u90e8\u5730\u65b9\u6574\u5099\u5c40 \u5bcc\u58eb\u7802\u9632\u4e8b\u52d9\u6240\"","boring_xml_url":64,"boring_view_url":1,"soilmap_view_url":null,"soiltest_xml_url":0,"soiltest_view_url":0},{"id":513669,"code":"B4KJ202201001-6205","latitude":"35.284336","longitude":"138.666428","source_code":"CB1485436020310012","project_name":"","survey_name":"\"\u5e73\u621026\u5e74\u5ea6 \u5bcc\u58eb\u7802\u9632\u7ba1\u5185\u5730\u8cea\u8abf\u67fb\"","client_name":"\"\u56fd\u571f\u4ea4\u901a\u7701\u4e2d\u90e8\u5730\u65b9\u6574\u5099\u5c40 \u5bcc\u58eb\u7802\u9632\u4e8b\u52d9\u6240\"","boring_xml_url":64,"boring_view_url":1,"soilmap_view_url":null,"soiltest_xml_url":0,"soiltest_view_url":0},{"id":513668,"code":"B4KJ202201001-6204","latitude":"35.298889","longitude":"138.666503","source_code":"CB1485436020310011","project_name":"","survey_name":"\"\u5e73\u621026\u5e74\u5ea6 \u5bcc\u58eb\u7802\u9632\u7ba1\u5185\u5730\u8cea\u8abf\u67fb\"","client_name":"\"\u56fd\u571f\u4ea4\u901a\u7701\u4e2d\u90e8\u5730\u65b9\u6574\u5099\u5c40 \u5bcc\u58eb\u7802\u9632\u4e8b\u52d9\u6240\"","boring_xml_url":64,"boring_view_url":1,"soilmap_view_url":null,"soiltest_xml_url":0,"soiltest_view_url":0},{"id":513667,"code":"B4KJ202201001-6203","latitude":"35.284867","longitude":"138.666564","source_code":"CB1485436020310010","project_name":"","survey_name":"\"\u5e73\u621026\u5e74\u5ea6 \u5bcc\u58eb\u7802\u9632\u7ba1\u5185\u5730\u8cea\u8abf\u67fb\"","client_name":"\"\u56fd\u571f\u4ea4\u901a\u7701\u4e2d\u90e8\u5730\u65b9\u6574\u5099\u5c40 \u5bcc\u58eb\u7802\u9632\u4e8b\u52d9\u6240\"","boring_xml_url":64,"boring_view_url":1,"soilmap_view_url":null,"soiltest_xml_url":0,"soiltest_view_url":0},{"id":513666,"code":"B4KJ202201001-6202","latitude":"35.284664","longitude":"138.666286","source_code":"CB1485436020310009","project_name":"","survey_name":"\"\u5e73\u621026\u5e74\u5ea6 \u5bcc\u58eb\u7802\u9632\u7ba1\u5185\u5730\u8cea\u8abf\u67fb\"","client_name":"\"\u56fd\u571f\u4ea4\u901a\u7701\u4e2d\u90e8\u5730\u65b9\u6574\u5099\u5c40 \u5bcc\u58eb\u7802\u9632\u4e8b\u52d9\u6240\"","boring_xml_url":64,"boring_view_url":1,"soilmap_view_url":null,"soiltest_xml_url":0,"soiltest_view_url":0},{"id":513665,"code":"B4KJ202201001-6201","latitude":"35.300156","longitude":"138.661311","source_code":"CB1485436020310008","project_name":"","survey_name":"\"\u5e73\u621026\u5e74\u5ea6 \u5bcc\u58eb\u7802\u9632\u7ba1\u5185\u5730\u8cea\u8abf\u67fb\"","client_name":"\"\u56fd\u571f\u4ea4\u901a\u7701\u4e2d\u90e8\u5730\u65b9\u6574\u5099\u5c40 \u5bcc\u58eb\u7802\u9632\u4e8b\u52d9\u6240\"","boring_xml_url":64,"boring_view_url":1,"soilmap_view_url":null,"soiltest_xml_url":0,"soiltest_view_url":0},{"id":513664,"code":"B4KJ202201001-6200","latitude":"35.300225","longitude":"138.661156","source_code":"CB1485436020310007","project_name":"","survey_name":"\"\u5e73\u621026\u5e74\u5ea6 \u5bcc\u58eb\u7802\u9632\u7ba1\u5185\u5730\u8cea\u8abf\u67fb\"","client_name":"\"\u56fd\u571f\u4ea4\u901a\u7701\u4e2d\u90e8\u5730\u65b9\u6574\u5099\u5c40 \u5bcc\u58eb\u7802\u9632\u4e8b\u52d9\u6240\"","boring_xml_url":64,"boring_view_url":1,"soilmap_view_url":null,"soiltest_xml_url":0,"soiltest_view_url":0},{"id":513663,"code":"B4KJ202201001-6199","latitude":"35.300322","longitude":"138.660958","source_code":"CB1485436020310006","project_name":"","survey_name":"\"\u5e73\u621026\u5e74\u5ea6 \u5bcc\u58eb\u7802\u9632\u7ba1\u5185\u5730\u8cea\u8abf\u67fb\"","client_name":"\"\u56fd\u571f\u4ea4\u901a\u7701\u4e2d\u90e8\u5730\u65b9\u6574\u5099\u5c40 \u5bcc\u58eb\u7802\u9632\u4e8b\u52d9\u6240\"","boring_xml_url":64,"boring_view_url":1,"soilmap_view_url":null,"soiltest_xml_url":0,"soiltest_view_url":0},{"id":513662,"code":"B4KJ202201001-6198","latitude":"35.300078","longitude":"138.661061","source_code":"CB1485436020310005","project_name":"","survey_name":"\"\u5e73\u621026\u5e74\u5ea6 \u5bcc\u58eb\u7802\u9632\u7ba1\u5185\u5730\u8cea\u8abf\u67fb\"","client_name":"\"\u56fd\u571f\u4ea4\u901a\u7701\u4e2d\u90e8\u5730\u65b9\u6574\u5099\u5c40 \u5bcc\u58eb\u7802\u9632\u4e8b\u52d9\u6240\"","boring_xml_url":64,"boring_view_url":1,"soilmap_view_url":null,"soiltest_xml_url":0,"soiltest_view_url":0},{"id":513661,"code":"B4KJ202201001-6197","latitude":"35.336164","longitude":"138.643978","source_code":"CB1485436020310004","project_name":"","survey_name":"\"\u5e73\u621026\u5e74\u5ea6 \u5bcc\u58eb\u7802\u9632\u7ba1\u5185\u5730\u8cea\u8abf\u67fb\"","client_name":"\"\u56fd\u571f\u4ea4\u901a\u7701\u4e2d\u90e8\u5730\u65b9\u6574\u5099\u5c40 \u5bcc\u58eb\u7802\u9632\u4e8b\u52d9\u6240\"","boring_xml_url":64,"boring_view_url":1,"soilmap_view_url":null,"soiltest_xml_url":0,"soiltest_view_url":0},{"id":513660,"code":"B4KJ202201001-6196","latitude":"35.336547","longitude":"138.643617","source_code":"CB1485436020310003","project_name":"","survey_name":"\"\u5e73\u621026\u5e74\u5ea6 \u5bcc\u58eb\u7802\u9632\u7ba1\u5185\u5730\u8cea\u8abf\u67fb\"","client_name":"\"\u56fd\u571f\u4ea4\u901a\u7701\u4e2d\u90e8\u5730\u65b9\u6574\u5099\u5c40 \u5bcc\u58eb\u7802\u9632\u4e8b\u52d9\u6240\"","boring_xml_url":64,"boring_view_url":1,"soilmap_view_url":null,"soiltest_xml_url":0,"soiltest_view_url":0},{"id":513659,"code":"B4KJ202201001-6195","latitude":"35.336714","longitude":"138.643444","source_code":"CB1485436020310002","project_name":"","survey_name":"\"\u5e73\u621026\u5e74\u5ea6 \u5bcc\u58eb\u7802\u9632\u7ba1\u5185\u5730\u8cea\u8abf\u67fb\"","client_name":"\"\u56fd\u571f\u4ea4\u901a\u7701\u4e2d\u90e8\u5730\u65b9\u6574\u5099\u5c40 \u5bcc\u58eb\u7802\u9632\u4e8b\u52d9\u6240\"","boring_xml_url":64,"boring_view_url":1,"soilmap_view_url":null,"soiltest_xml_url":0,"soiltest_view_url":0},{"id":513658,"code":"B4KJ202201001-6194","latitude":"35.336425","longitude":"138.643411","source_code":"CB1485436020310001","project_name":"","survey_name":"\"\u5e73\u621026\u5e74\u5ea6 \u5bcc\u58eb\u7802\u9632\u7ba1\u5185\u5730\u8cea\u8abf\u67fb\"","client_name":"\"\u56fd\u571f\u4ea4\u901a\u7701\u4e2d\u90e8\u5730\u65b9\u6574\u5099\u5c40 \u5bcc\u58eb\u7802\u9632\u4e8b\u52d9\u6240\"","boring_xml_url":64,"boring_view_url":1,"soilmap_view_url":null,"soiltest_xml_url":0,"soiltest_view_url":0},{"id":513657,"code":"B4KJ202201001-6193","latitude":"34.939333","longitude":"138.390861","source_code":"CB1485404220400007","project_name":"","survey_name":"\u5e73\u621026\u5e74\u5ea6\u9759\u5ca1\u6cb3\u5ddd\u4e8b\u52d9\u6240\u7ba1\u5185\u5730\u8cea\u8abf\u67fb\u696d\u52d9","client_name":"\u56fd\u571f\u4ea4\u901a\u7701\u4e2d\u90e8\u5730\u65b9\u6574\u5099\u5c40\u9759\u5ca1\u6cb3\u5ddd\u4e8b\u52d9\u6240","boring_xml_url":64,"boring_view_url":1,"soilmap_view_url":null,"soiltest_xml_url":0,"soiltest_view_url":0},{"id":513656,"code":"B4KJ202201001-6192","latitude":"34.939278","longitude":"138.390778","source_code":"CB1485404220400006","project_name":"","survey_name":"\u5e73\u621026\u5e74\u5ea6\u9759\u5ca1\u6cb3\u5ddd\u4e8b\u52d9\u6240\u7ba1\u5185\u5730\u8cea\u8abf\u67fb\u696d\u52d9","client_name":"\u56fd\u571f\u4ea4\u901a\u7701\u4e2d\u90e8\u5730\u65b9\u6574\u5099\u5c40\u9759\u5ca1\u6cb3\u5ddd\u4e8b\u52d9\u6240","boring_xml_url":64,"boring_view_url":1,"soilmap_view_url":null,"soiltest_xml_url":0,"soiltest_view_url":0},{"id":513655,"code":"B4KJ202201001-6191","latitude":"34.93925","longitude":"138.390722","source_code":"CB1485404220400005","project_name":"","survey_name":"\u5e73\u621026\u5e74\u5ea6\u9759\u5ca1\u6cb3\u5ddd\u4e8b\u52d9\u6240\u7ba1\u5185\u5730\u8cea\u8abf\u67fb\u696d\u52d9","client_name":"\u56fd\u571f\u4ea4\u901a\u7701\u4e2d\u90e8\u5730\u65b9\u6574\u5099\u5c40\u9759\u5ca1\u6cb3\u5ddd\u4e8b\u52d9\u6240","boring_xml_url":64,"boring_view_url":1,"soilmap_view_url":null,"soiltest_xml_url":0,"soiltest_view_url":0},{"id":513654,"code":"B4KJ202201001-6190","latitude":"35.241583","longitude":"138.343639","source_code":"CB1485404220400004","project_name":"","survey_name":"\u5e73\u621026\u5e74\u5ea6\u9759\u5ca1\u6cb3\u5ddd\u4e8b\u52d9\u6240\u7ba1\u5185\u5730\u8cea\u8abf\u67fb\u696d\u52d9","client_name":"\u56fd\u571f\u4ea4\u901a\u7701\u4e2d\u90e8\u5730\u65b9\u6574\u5099\u5c40\u9759\u5ca1\u6cb3\u5ddd\u4e8b\u52d9\u6240","boring_xml_url":64,"boring_view_url":1,"soilmap_view_url":null,"soiltest_xml_url":0,"soiltest_view_url":0},{"id":513653,"code":"B4KJ202201001-6189","latitude":"35.241306","longitude":"138.342972","source_code":"CB1485404220400003","project_name":"","survey_name":"\u5e73\u621026\u5e74\u5ea6\u9759\u5ca1\u6cb3\u5ddd\u4e8b\u52d9\u6240\u7ba1\u5185\u5730\u8cea\u8abf\u67fb\u696d\u52d9","client_name":"\u56fd\u571f\u4ea4\u901a\u7701\u4e2d\u90e8\u5730\u65b9\u6574\u5099\u5c40\u9759\u5ca1\u6cb3\u5ddd\u4e8b\u52d9\u6240","boring_xml_url":64,"boring_view_url":1,"soilmap_view_url":null,"soiltest_xml_url":0,"soiltest_view_url":0},{"id":513652,"code":"B4KJ202201001-6188","latitude":"35.494002","longitude":"137.159589","source_code":"CB1485356120120006","project_name":"","survey_name":"\u65b0\u4e38\u5c71\u30c0\u30e0\u30c0\u30e0\u30b5\u30a4\u30c8\u5468\u8fba\u5730\u8cea\u8abf\u67fb\u696d\u52d9","client_name":"\u56fd\u571f\u4ea4\u901a\u7701\u3000\u4e2d\u90e8\u5730\u65b9\u6574\u5099\u5c40\u3000\u65b0\u4e38\u5c71\u30c0\u30e0\u5de5\u4e8b\u4e8b\u52d9\u6240","boring_xml_url":64,"boring_view_url":1,"soilmap_view_url":null,"soiltest_xml_url":0,"soiltest_view_url":0},{"id":513651,"code":"B4KJ202201001-6187","latitude":"35.493558","longitude":"137.159467","source_code":"CB1485356120120005","project_name":"","survey_name":"\u65b0\u4e38\u5c71\u30c0\u30e0\u30c0\u30e0\u30b5\u30a4\u30c8\u5468\u8fba\u5730\u8cea\u8abf\u67fb\u696d\u52d9","client_name":"\u56fd\u571f\u4ea4\u901a\u7701\u3000\u4e2d\u90e8\u5730\u65b9\u6574\u5099\u5c40\u3000\u65b0\u4e38\u5c71\u30c0\u30e0\u5de5\u4e8b\u4e8b\u52d9\u6240","boring_xml_url":64,"boring_view_url":1,"soilmap_view_url":null,"soiltest_xml_url":0,"soiltest_view_url":0},{"id":513650,"code":"B4KJ202201001-6186","latitude":"35.494127","longitude":"137.159822","source_code":"CB1485356120120004","project_name":"","survey_name":"\u65b0\u4e38\u5c71\u30c0\u30e0\u30c0\u30e0\u30b5\u30a4\u30c8\u5468\u8fba\u5730\u8cea\u8abf\u67fb\u696d\u52d9","client_name":"\u56fd\u571f\u4ea4\u901a\u7701\u3000\u4e2d\u90e8\u5730\u65b9\u6574\u5099\u5c40\u3000\u65b0\u4e38\u5c71\u30c0\u30e0\u5de5\u4e8b\u4e8b\u52d9\u6240","boring_xml_url":64,"boring_view_url":1,"soilmap_view_url":null,"soiltest_xml_url":0,"soiltest_view_url":0},{"id":513649,"code":"B4KJ202201001-6185","latitude":"35.493805","longitude":"137.159497","source_code":"CB1485356120120003","project_name":"","survey_name":"\u65b0\u4e38\u5c71\u30c0\u30e0\u30c0\u30e0\u30b5\u30a4\u30c8\u5468\u8fba\u5730\u8cea\u8abf\u67fb\u696d\u52d9","client_name":"\u56fd\u571f\u4ea4\u901a\u7701\u3000\u4e2d\u90e8\u5730\u65b9\u6574\u5099\u5c40\u3000\u65b0\u4e38\u5c71\u30c0\u30e0\u5de5\u4e8b\u4e8b\u52d9\u6240","boring_xml_url":64,"boring_view_url":1,"soilmap_view_url":null,"soiltest_xml_url":0,"soiltest_view_url":0}]}}