{"header":{"xyz":{"source":[],"mosaic":false},"page":1071,"raw":{"soiltest_result":"0","bbox":"57.598333,109.544722,1.933333,163.806111","page":"1071"},"conditions":{"soiltest_result":0,"north":57.598333,"west":109.544722,"south":1.933333,"east":163.806111},"success":true,"message":""},"data":{"meta":{"total":212844,"page":1071,"pages":7095,"count":30},"values":[{"id":513288,"code":"B4KJ202201001-5824","latitude":"35.090267","longitude":"137.122389","source_code":"CB1385546420590009","project_name":"","survey_name":"\u5e73\u621025\u5e74\u5ea6\u8c4a\u7530\u7ba1\u5185\u5730\u8cea\u8abf\u67fb","client_name":"\u56fd\u571f\u4ea4\u901a\u7701\u4e2d\u90e8\u5730\u65b9\u6574\u5099\u5c40\u540d\u56db\u56fd\u9053\u4e8b\u52d9\u6240","boring_xml_url":64,"boring_view_url":1,"soilmap_view_url":null,"soiltest_xml_url":0,"soiltest_view_url":0},{"id":513287,"code":"B4KJ202201001-5823","latitude":"35.089748","longitude":"137.121999","source_code":"CB1385546420590008","project_name":"","survey_name":"\u5e73\u621025\u5e74\u5ea6\u8c4a\u7530\u7ba1\u5185\u5730\u8cea\u8abf\u67fb","client_name":"\u56fd\u571f\u4ea4\u901a\u7701\u4e2d\u90e8\u5730\u65b9\u6574\u5099\u5c40\u540d\u56db\u56fd\u9053\u4e8b\u52d9\u6240","boring_xml_url":64,"boring_view_url":1,"soilmap_view_url":null,"soiltest_xml_url":0,"soiltest_view_url":0},{"id":513286,"code":"B4KJ202201001-5822","latitude":"35.115384","longitude":"137.192891","source_code":"CB1385546420590007","project_name":"","survey_name":"\u5e73\u621025\u5e74\u5ea6\u8c4a\u7530\u7ba1\u5185\u5730\u8cea\u8abf\u67fb","client_name":"\u56fd\u571f\u4ea4\u901a\u7701\u4e2d\u90e8\u5730\u65b9\u6574\u5099\u5c40\u540d\u56db\u56fd\u9053\u4e8b\u52d9\u6240","boring_xml_url":64,"boring_view_url":1,"soilmap_view_url":null,"soiltest_xml_url":0,"soiltest_view_url":0},{"id":513285,"code":"B4KJ202201001-5821","latitude":"35.114691","longitude":"137.190327","source_code":"CB1385546420590006","project_name":"","survey_name":"\u5e73\u621025\u5e74\u5ea6\u8c4a\u7530\u7ba1\u5185\u5730\u8cea\u8abf\u67fb","client_name":"\u56fd\u571f\u4ea4\u901a\u7701\u4e2d\u90e8\u5730\u65b9\u6574\u5099\u5c40\u540d\u56db\u56fd\u9053\u4e8b\u52d9\u6240","boring_xml_url":64,"boring_view_url":1,"soilmap_view_url":null,"soiltest_xml_url":0,"soiltest_view_url":0},{"id":513284,"code":"B4KJ202201001-5820","latitude":"35.115199","longitude":"137.192039","source_code":"CB1385546420590005","project_name":"","survey_name":"\u5e73\u621025\u5e74\u5ea6\u8c4a\u7530\u7ba1\u5185\u5730\u8cea\u8abf\u67fb","client_name":"\u56fd\u571f\u4ea4\u901a\u7701\u4e2d\u90e8\u5730\u65b9\u6574\u5099\u5c40\u540d\u56db\u56fd\u9053\u4e8b\u52d9\u6240","boring_xml_url":64,"boring_view_url":1,"soilmap_view_url":null,"soiltest_xml_url":0,"soiltest_view_url":0},{"id":513283,"code":"B4KJ202201001-5819","latitude":"35.114861","longitude":"137.190927","source_code":"CB1385546420590004","project_name":"","survey_name":"\u5e73\u621025\u5e74\u5ea6\u8c4a\u7530\u7ba1\u5185\u5730\u8cea\u8abf\u67fb","client_name":"\u56fd\u571f\u4ea4\u901a\u7701\u4e2d\u90e8\u5730\u65b9\u6574\u5099\u5c40\u540d\u56db\u56fd\u9053\u4e8b\u52d9\u6240","boring_xml_url":64,"boring_view_url":1,"soilmap_view_url":null,"soiltest_xml_url":0,"soiltest_view_url":0},{"id":513282,"code":"B4KJ202201001-5818","latitude":"35.115115","longitude":"137.192095","source_code":"CB1385546420590003","project_name":"","survey_name":"\u5e73\u621025\u5e74\u5ea6\u8c4a\u7530\u7ba1\u5185\u5730\u8cea\u8abf\u67fb","client_name":"\u56fd\u571f\u4ea4\u901a\u7701\u4e2d\u90e8\u5730\u65b9\u6574\u5099\u5c40\u540d\u56db\u56fd\u9053\u4e8b\u52d9\u6240","boring_xml_url":64,"boring_view_url":1,"soilmap_view_url":null,"soiltest_xml_url":0,"soiltest_view_url":0},{"id":513281,"code":"B4KJ202201001-5817","latitude":"35.114792","longitude":"137.190192","source_code":"CB1385546420590002","project_name":"","survey_name":"\u5e73\u621025\u5e74\u5ea6\u8c4a\u7530\u7ba1\u5185\u5730\u8cea\u8abf\u67fb","client_name":"\u56fd\u571f\u4ea4\u901a\u7701\u4e2d\u90e8\u5730\u65b9\u6574\u5099\u5c40\u540d\u56db\u56fd\u9053\u4e8b\u52d9\u6240","boring_xml_url":64,"boring_view_url":1,"soilmap_view_url":null,"soiltest_xml_url":0,"soiltest_view_url":0},{"id":513280,"code":"B4KJ202201001-5816","latitude":"35.114607","longitude":"137.19046","source_code":"CB1385546420590001","project_name":"","survey_name":"\u5e73\u621025\u5e74\u5ea6\u8c4a\u7530\u7ba1\u5185\u5730\u8cea\u8abf\u67fb","client_name":"\u56fd\u571f\u4ea4\u901a\u7701\u4e2d\u90e8\u5730\u65b9\u6574\u5099\u5c40\u540d\u56db\u56fd\u9053\u4e8b\u52d9\u6240","boring_xml_url":64,"boring_view_url":1,"soilmap_view_url":null,"soiltest_xml_url":0,"soiltest_view_url":0},{"id":513279,"code":"B4KJ202201001-5815","latitude":"34.819151","longitude":"137.327242","source_code":"CB1385546420360016","project_name":"\u5e73\u621025\u5e74\u5ea6\u300023\u53f7\u84b2\u90e1BP\u5e83\u77f3\u70ba\u5f53\u5730\u533a\u5730\u8cea\u8abf\u67fb","survey_name":"\u5e73\u621025\u5e74\u5ea6\u300023\u53f7\u84b2\u90e1BP\u5e83\u77f3\u70ba\u5f53\u5730\u533a\u5730\u8cea\u8abf\u67fb","client_name":"\u56fd\u571f\u4ea4\u901a\u7701\u4e2d\u90e8\u5730\u65b9\u6574\u5099\u5c40\u540d\u56db\u56fd\u9053\u4e8b\u52d9\u6240","boring_xml_url":64,"boring_view_url":1,"soilmap_view_url":null,"soiltest_xml_url":0,"soiltest_view_url":0},{"id":513278,"code":"B4KJ202201001-5814","latitude":"34.819368","longitude":"137.326795","source_code":"CB1385546420360015","project_name":"\u5e73\u621025\u5e74\u5ea6\u300023\u53f7\u84b2\u90e1BP\u5e83\u77f3\u70ba\u5f53\u5730\u533a\u5730\u8cea\u8abf\u67fb","survey_name":"\u5e73\u621025\u5e74\u5ea6\u300023\u53f7\u84b2\u90e1BP\u5e83\u77f3\u70ba\u5f53\u5730\u533a\u5730\u8cea\u8abf\u67fb","client_name":"\u56fd\u571f\u4ea4\u901a\u7701\u4e2d\u90e8\u5730\u65b9\u6574\u5099\u5c40\u540d\u56db\u56fd\u9053\u4e8b\u52d9\u6240","boring_xml_url":64,"boring_view_url":1,"soilmap_view_url":null,"soiltest_xml_url":0,"soiltest_view_url":0},{"id":513277,"code":"B4KJ202201001-5813","latitude":"34.820177","longitude":"137.326185","source_code":"CB1385546420360014","project_name":"\u5e73\u621025\u5e74\u5ea6\u300023\u53f7\u84b2\u90e1BP\u5e83\u77f3\u70ba\u5f53\u5730\u533a\u5730\u8cea\u8abf\u67fb","survey_name":"\u5e73\u621025\u5e74\u5ea6\u300023\u53f7\u84b2\u90e1BP\u5e83\u77f3\u70ba\u5f53\u5730\u533a\u5730\u8cea\u8abf\u67fb","client_name":"\u56fd\u571f\u4ea4\u901a\u7701\u4e2d\u90e8\u5730\u65b9\u6574\u5099\u5c40\u540d\u56db\u56fd\u9053\u4e8b\u52d9\u6240","boring_xml_url":64,"boring_view_url":1,"soilmap_view_url":null,"soiltest_xml_url":0,"soiltest_view_url":0},{"id":513276,"code":"B4KJ202201001-5812","latitude":"34.820492","longitude":"137.325851","source_code":"CB1385546420360013","project_name":"\u5e73\u621025\u5e74\u5ea6\u300023\u53f7\u84b2\u90e1BP\u5e83\u77f3\u70ba\u5f53\u5730\u533a\u5730\u8cea\u8abf\u67fb","survey_name":"\u5e73\u621025\u5e74\u5ea6\u300023\u53f7\u84b2\u90e1BP\u5e83\u77f3\u70ba\u5f53\u5730\u533a\u5730\u8cea\u8abf\u67fb","client_name":"\u56fd\u571f\u4ea4\u901a\u7701\u4e2d\u90e8\u5730\u65b9\u6574\u5099\u5c40\u540d\u56db\u56fd\u9053\u4e8b\u52d9\u6240","boring_xml_url":64,"boring_view_url":1,"soilmap_view_url":null,"soiltest_xml_url":0,"soiltest_view_url":0},{"id":513275,"code":"B4KJ202201001-5811","latitude":"34.825614","longitude":"137.320435","source_code":"CB1385546420360012","project_name":"\u5e73\u621025\u5e74\u5ea6\u300023\u53f7\u84b2\u90e1BP\u5e83\u77f3\u70ba\u5f53\u5730\u533a\u5730\u8cea\u8abf\u67fb","survey_name":"\u5e73\u621025\u5e74\u5ea6\u300023\u53f7\u84b2\u90e1BP\u5e83\u77f3\u70ba\u5f53\u5730\u533a\u5730\u8cea\u8abf\u67fb","client_name":"\u56fd\u571f\u4ea4\u901a\u7701\u4e2d\u90e8\u5730\u65b9\u6574\u5099\u5c40\u540d\u56db\u56fd\u9053\u4e8b\u52d9\u6240","boring_xml_url":64,"boring_view_url":1,"soilmap_view_url":null,"soiltest_xml_url":0,"soiltest_view_url":0},{"id":513274,"code":"B4KJ202201001-5810","latitude":"34.826182","longitude":"137.319764","source_code":"CB1385546420360011","project_name":"\u5e73\u621025\u5e74\u5ea6\u300023\u53f7\u84b2\u90e1BP\u5e83\u77f3\u70ba\u5f53\u5730\u533a\u5730\u8cea\u8abf\u67fb","survey_name":"\u5e73\u621025\u5e74\u5ea6\u300023\u53f7\u84b2\u90e1BP\u5e83\u77f3\u70ba\u5f53\u5730\u533a\u5730\u8cea\u8abf\u67fb","client_name":"\u56fd\u571f\u4ea4\u901a\u7701\u4e2d\u90e8\u5730\u65b9\u6574\u5099\u5c40\u540d\u56db\u56fd\u9053\u4e8b\u52d9\u6240","boring_xml_url":64,"boring_view_url":1,"soilmap_view_url":null,"soiltest_xml_url":0,"soiltest_view_url":0},{"id":513273,"code":"B4KJ202201001-5809","latitude":"34.823001","longitude":"137.323228","source_code":"CB1385546420360010","project_name":"\u5e73\u621025\u5e74\u5ea6\u300023\u53f7\u84b2\u90e1BP\u5e83\u77f3\u70ba\u5f53\u5730\u533a\u5730\u8cea\u8abf\u67fb","survey_name":"\u5e73\u621025\u5e74\u5ea6\u300023\u53f7\u84b2\u90e1BP\u5e83\u77f3\u70ba\u5f53\u5730\u533a\u5730\u8cea\u8abf\u67fb","client_name":"\u56fd\u571f\u4ea4\u901a\u7701\u4e2d\u90e8\u5730\u65b9\u6574\u5099\u5c40\u540d\u56db\u56fd\u9053\u4e8b\u52d9\u6240","boring_xml_url":64,"boring_view_url":1,"soilmap_view_url":null,"soiltest_xml_url":0,"soiltest_view_url":0},{"id":513272,"code":"B4KJ202201001-5808","latitude":"34.825015","longitude":"137.321095","source_code":"CB1385546420360009","project_name":"\u5e73\u621025\u5e74\u5ea6\u300023\u53f7\u84b2\u90e1BP\u5e83\u77f3\u70ba\u5f53\u5730\u533a\u5730\u8cea\u8abf\u67fb","survey_name":"\u5e73\u621025\u5e74\u5ea6\u300023\u53f7\u84b2\u90e1BP\u5e83\u77f3\u70ba\u5f53\u5730\u533a\u5730\u8cea\u8abf\u67fb","client_name":"\u56fd\u571f\u4ea4\u901a\u7701\u4e2d\u90e8\u5730\u65b9\u6574\u5099\u5c40\u540d\u56db\u56fd\u9053\u4e8b\u52d9\u6240","boring_xml_url":64,"boring_view_url":1,"soilmap_view_url":null,"soiltest_xml_url":0,"soiltest_view_url":0},{"id":513271,"code":"B4KJ202201001-5807","latitude":"34.82712","longitude":"137.318618","source_code":"CB1385546420360008","project_name":"\u5e73\u621025\u5e74\u5ea6\u300023\u53f7\u84b2\u90e1BP\u5e83\u77f3\u70ba\u5f53\u5730\u533a\u5730\u8cea\u8abf\u67fb","survey_name":"\u5e73\u621025\u5e74\u5ea6\u300023\u53f7\u84b2\u90e1BP\u5e83\u77f3\u70ba\u5f53\u5730\u533a\u5730\u8cea\u8abf\u67fb","client_name":"\u56fd\u571f\u4ea4\u901a\u7701\u4e2d\u90e8\u5730\u65b9\u6574\u5099\u5c40\u540d\u56db\u56fd\u9053\u4e8b\u52d9\u6240","boring_xml_url":64,"boring_view_url":1,"soilmap_view_url":null,"soiltest_xml_url":0,"soiltest_view_url":0},{"id":513270,"code":"B4KJ202201001-5806","latitude":"34.827733","longitude":"137.31778","source_code":"CB1385546420360007","project_name":"\u5e73\u621025\u5e74\u5ea6\u300023\u53f7\u84b2\u90e1BP\u5e83\u77f3\u70ba\u5f53\u5730\u533a\u5730\u8cea\u8abf\u67fb","survey_name":"\u5e73\u621025\u5e74\u5ea6\u300023\u53f7\u84b2\u90e1BP\u5e83\u77f3\u70ba\u5f53\u5730\u533a\u5730\u8cea\u8abf\u67fb","client_name":"\u56fd\u571f\u4ea4\u901a\u7701\u4e2d\u90e8\u5730\u65b9\u6574\u5099\u5c40\u540d\u56db\u56fd\u9053\u4e8b\u52d9\u6240","boring_xml_url":64,"boring_view_url":1,"soilmap_view_url":null,"soiltest_xml_url":0,"soiltest_view_url":0},{"id":513269,"code":"B4KJ202201001-5805","latitude":"34.818884","longitude":"137.327536","source_code":"CB1385546420360006","project_name":"\u5e73\u621025\u5e74\u5ea6\u300023\u53f7\u84b2\u90e1BP\u5e83\u77f3\u70ba\u5f53\u5730\u533a\u5730\u8cea\u8abf\u67fb","survey_name":"\u5e73\u621025\u5e74\u5ea6\u300023\u53f7\u84b2\u90e1BP\u5e83\u77f3\u70ba\u5f53\u5730\u533a\u5730\u8cea\u8abf\u67fb","client_name":"\u56fd\u571f\u4ea4\u901a\u7701\u4e2d\u90e8\u5730\u65b9\u6574\u5099\u5c40\u540d\u56db\u56fd\u9053\u4e8b\u52d9\u6240","boring_xml_url":64,"boring_view_url":1,"soilmap_view_url":null,"soiltest_xml_url":0,"soiltest_view_url":0},{"id":513268,"code":"B4KJ202201001-5804","latitude":"34.81904","longitude":"137.327086","source_code":"CB1385546420360005","project_name":"\u5e73\u621025\u5e74\u5ea6\u300023\u53f7\u84b2\u90e1BP\u5e83\u77f3\u70ba\u5f53\u5730\u533a\u5730\u8cea\u8abf\u67fb","survey_name":"\u5e73\u621025\u5e74\u5ea6\u300023\u53f7\u84b2\u90e1BP\u5e83\u77f3\u70ba\u5f53\u5730\u533a\u5730\u8cea\u8abf\u67fb","client_name":"\u56fd\u571f\u4ea4\u901a\u7701\u4e2d\u90e8\u5730\u65b9\u6574\u5099\u5c40\u540d\u56db\u56fd\u9053\u4e8b\u52d9\u6240","boring_xml_url":64,"boring_view_url":1,"soilmap_view_url":null,"soiltest_xml_url":0,"soiltest_view_url":0},{"id":513267,"code":"B4KJ202201001-5803","latitude":"34.819501","longitude":"137.326981","source_code":"CB1385546420360004","project_name":"\u5e73\u621025\u5e74\u5ea6\u300023\u53f7\u84b2\u90e1BP\u5e83\u77f3\u70ba\u5f53\u5730\u533a\u5730\u8cea\u8abf\u67fb","survey_name":"\u5e73\u621025\u5e74\u5ea6\u300023\u53f7\u84b2\u90e1BP\u5e83\u77f3\u70ba\u5f53\u5730\u533a\u5730\u8cea\u8abf\u67fb","client_name":"\u56fd\u571f\u4ea4\u901a\u7701\u4e2d\u90e8\u5730\u65b9\u6574\u5099\u5c40\u540d\u56db\u56fd\u9053\u4e8b\u52d9\u6240","boring_xml_url":64,"boring_view_url":1,"soilmap_view_url":null,"soiltest_xml_url":0,"soiltest_view_url":0},{"id":513266,"code":"B4KJ202201001-5802","latitude":"34.821905","longitude":"137.324656","source_code":"CB1385546420360003","project_name":"\u5e73\u621025\u5e74\u5ea6\u300023\u53f7\u84b2\u90e1BP\u5e83\u77f3\u70ba\u5f53\u5730\u533a\u5730\u8cea\u8abf\u67fb","survey_name":"\u5e73\u621025\u5e74\u5ea6\u300023\u53f7\u84b2\u90e1BP\u5e83\u77f3\u70ba\u5f53\u5730\u533a\u5730\u8cea\u8abf\u67fb","client_name":"\u56fd\u571f\u4ea4\u901a\u7701\u4e2d\u90e8\u5730\u65b9\u6574\u5099\u5c40\u540d\u56db\u56fd\u9053\u4e8b\u52d9\u6240","boring_xml_url":64,"boring_view_url":1,"soilmap_view_url":null,"soiltest_xml_url":0,"soiltest_view_url":0},{"id":513265,"code":"B4KJ202201001-5801","latitude":"34.821291","longitude":"137.325011","source_code":"CB1385546420360002","project_name":"\u5e73\u621025\u5e74\u5ea6\u300023\u53f7\u84b2\u90e1BP\u5e83\u77f3\u70ba\u5f53\u5730\u533a\u5730\u8cea\u8abf\u67fb","survey_name":"\u5e73\u621025\u5e74\u5ea6\u300023\u53f7\u84b2\u90e1BP\u5e83\u77f3\u70ba\u5f53\u5730\u533a\u5730\u8cea\u8abf\u67fb","client_name":"\u56fd\u571f\u4ea4\u901a\u7701\u4e2d\u90e8\u5730\u65b9\u6574\u5099\u5c40\u540d\u56db\u56fd\u9053\u4e8b\u52d9\u6240","boring_xml_url":64,"boring_view_url":1,"soilmap_view_url":null,"soiltest_xml_url":0,"soiltest_view_url":0},{"id":513264,"code":"B4KJ202201001-5800","latitude":"34.821099","longitude":"137.325366","source_code":"CB1385546420360001","project_name":"\u5e73\u621025\u5e74\u5ea6\u300023\u53f7\u84b2\u90e1BP\u5e83\u77f3\u70ba\u5f53\u5730\u533a\u5730\u8cea\u8abf\u67fb","survey_name":"\u5e73\u621025\u5e74\u5ea6\u300023\u53f7\u84b2\u90e1BP\u5e83\u77f3\u70ba\u5f53\u5730\u533a\u5730\u8cea\u8abf\u67fb","client_name":"\u56fd\u571f\u4ea4\u901a\u7701\u4e2d\u90e8\u5730\u65b9\u6574\u5099\u5c40\u540d\u56db\u56fd\u9053\u4e8b\u52d9\u6240","boring_xml_url":64,"boring_view_url":1,"soilmap_view_url":null,"soiltest_xml_url":0,"soiltest_view_url":0},{"id":513263,"code":"B4KJ202201001-5799","latitude":"34.830962","longitude":"137.313377","source_code":"CB1385546420350025","project_name":"","survey_name":"\u5e73\u621025\u5e74\u5ea6\u300023\u53f7\u84b2\u90e1BP\u91d1\u91ce\u30fb\u8c4a\u6ca2\u5730\u533a\u5730\u8cea\u8abf\u67fb","client_name":"\u56fd\u571f\u4ea4\u901a\u7701\u4e2d\u90e8\u5730\u65b9\u6574\u5099\u5c40\u540d\u56db\u56fd\u9053\u4e8b\u52d9\u6240","boring_xml_url":64,"boring_view_url":1,"soilmap_view_url":null,"soiltest_xml_url":0,"soiltest_view_url":0},{"id":513262,"code":"B4KJ202201001-5798","latitude":"34.831328","longitude":"137.312803","source_code":"CB1385546420350024","project_name":"","survey_name":"\u5e73\u621025\u5e74\u5ea6\u300023\u53f7\u84b2\u90e1BP\u91d1\u91ce\u30fb\u8c4a\u6ca2\u5730\u533a\u5730\u8cea\u8abf\u67fb","client_name":"\u56fd\u571f\u4ea4\u901a\u7701\u4e2d\u90e8\u5730\u65b9\u6574\u5099\u5c40\u540d\u56db\u56fd\u9053\u4e8b\u52d9\u6240","boring_xml_url":64,"boring_view_url":1,"soilmap_view_url":null,"soiltest_xml_url":0,"soiltest_view_url":0},{"id":513261,"code":"B4KJ202201001-5797","latitude":"34.831592","longitude":"137.312342","source_code":"CB1385546420350023","project_name":"","survey_name":"\u5e73\u621025\u5e74\u5ea6\u300023\u53f7\u84b2\u90e1BP\u91d1\u91ce\u30fb\u8c4a\u6ca2\u5730\u533a\u5730\u8cea\u8abf\u67fb","client_name":"\u56fd\u571f\u4ea4\u901a\u7701\u4e2d\u90e8\u5730\u65b9\u6574\u5099\u5c40\u540d\u56db\u56fd\u9053\u4e8b\u52d9\u6240","boring_xml_url":64,"boring_view_url":1,"soilmap_view_url":null,"soiltest_xml_url":0,"soiltest_view_url":0},{"id":513260,"code":"B4KJ202201001-5796","latitude":"34.832783","longitude":"137.308539","source_code":"CB1385546420350022","project_name":"","survey_name":"\u5e73\u621025\u5e74\u5ea6\u300023\u53f7\u84b2\u90e1BP\u91d1\u91ce\u30fb\u8c4a\u6ca2\u5730\u533a\u5730\u8cea\u8abf\u67fb","client_name":"\u56fd\u571f\u4ea4\u901a\u7701\u4e2d\u90e8\u5730\u65b9\u6574\u5099\u5c40\u540d\u56db\u56fd\u9053\u4e8b\u52d9\u6240","boring_xml_url":64,"boring_view_url":1,"soilmap_view_url":null,"soiltest_xml_url":0,"soiltest_view_url":0},{"id":513259,"code":"B4KJ202201001-5795","latitude":"34.830581","longitude":"137.31395","source_code":"CB1385546420350021","project_name":"","survey_name":"\u5e73\u621025\u5e74\u5ea6\u300023\u53f7\u84b2\u90e1BP\u91d1\u91ce\u30fb\u8c4a\u6ca2\u5730\u533a\u5730\u8cea\u8abf\u67fb","client_name":"\u56fd\u571f\u4ea4\u901a\u7701\u4e2d\u90e8\u5730\u65b9\u6574\u5099\u5c40\u540d\u56db\u56fd\u9053\u4e8b\u52d9\u6240","boring_xml_url":64,"boring_view_url":1,"soilmap_view_url":null,"soiltest_xml_url":0,"soiltest_view_url":0}]}}