{"header":{"xyz":{"source":[],"mosaic":false},"page":1075,"raw":{"soiltest_result":"0","bbox":"57.598333,109.544722,1.933333,163.806111","page":"1075"},"conditions":{"soiltest_result":0,"north":57.598333,"west":109.544722,"south":1.933333,"east":163.806111},"success":true,"message":""},"data":{"meta":{"total":212844,"page":1075,"pages":7095,"count":30},"values":[{"id":513168,"code":"B4KJ202201001-5704","latitude":"36.173202","longitude":"137.241763","source_code":"CB1385346620310025","project_name":"\"\u5e73\u621025\u5e74\u5ea6 \u9ad8\u5c71\u56fd\u9053\u7ba1\u5185\u5730\u8cea\u8abf\u67fb\"","survey_name":"\"\u5e73\u621025\u5e74\u5ea6 \u9ad8\u5c71\u56fd\u9053\u7ba1\u5185\u5730\u8cea\u8abf\u67fb\"","client_name":"\"\u56fd\u571f\u4ea4\u901a\u7701 \u4e2d\u90e8\u5730\u65b9\u6574\u5099\u5c40 \u9ad8\u5c71\u56fd\u9053\u4e8b\u52d9\u6240\"","boring_xml_url":64,"boring_view_url":1,"soilmap_view_url":null,"soiltest_xml_url":0,"soiltest_view_url":0},{"id":513167,"code":"B4KJ202201001-5703","latitude":"36.173157","longitude":"137.242355","source_code":"CB1385346620310024","project_name":"\"\u5e73\u621025\u5e74\u5ea6 \u9ad8\u5c71\u56fd\u9053\u7ba1\u5185\u5730\u8cea\u8abf\u67fb\"","survey_name":"\"\u5e73\u621025\u5e74\u5ea6 \u9ad8\u5c71\u56fd\u9053\u7ba1\u5185\u5730\u8cea\u8abf\u67fb\"","client_name":"\"\u56fd\u571f\u4ea4\u901a\u7701 \u4e2d\u90e8\u5730\u65b9\u6574\u5099\u5c40 \u9ad8\u5c71\u56fd\u9053\u4e8b\u52d9\u6240\"","boring_xml_url":64,"boring_view_url":1,"soilmap_view_url":null,"soiltest_xml_url":0,"soiltest_view_url":0},{"id":513166,"code":"B4KJ202201001-5702","latitude":"36.173157","longitude":"137.243002","source_code":"CB1385346620310023","project_name":"\"\u5e73\u621025\u5e74\u5ea6 \u9ad8\u5c71\u56fd\u9053\u7ba1\u5185\u5730\u8cea\u8abf\u67fb\"","survey_name":"\"\u5e73\u621025\u5e74\u5ea6 \u9ad8\u5c71\u56fd\u9053\u7ba1\u5185\u5730\u8cea\u8abf\u67fb\"","client_name":"\"\u56fd\u571f\u4ea4\u901a\u7701 \u4e2d\u90e8\u5730\u65b9\u6574\u5099\u5c40 \u9ad8\u5c71\u56fd\u9053\u4e8b\u52d9\u6240\"","boring_xml_url":64,"boring_view_url":1,"soilmap_view_url":null,"soiltest_xml_url":0,"soiltest_view_url":0},{"id":513165,"code":"B4KJ202201001-5701","latitude":"36.17311","longitude":"137.243669","source_code":"CB1385346620310022","project_name":"\"\u5e73\u621025\u5e74\u5ea6 \u9ad8\u5c71\u56fd\u9053\u7ba1\u5185\u5730\u8cea\u8abf\u67fb\"","survey_name":"\"\u5e73\u621025\u5e74\u5ea6 \u9ad8\u5c71\u56fd\u9053\u7ba1\u5185\u5730\u8cea\u8abf\u67fb\"","client_name":"\"\u56fd\u571f\u4ea4\u901a\u7701 \u4e2d\u90e8\u5730\u65b9\u6574\u5099\u5c40 \u9ad8\u5c71\u56fd\u9053\u4e8b\u52d9\u6240\"","boring_xml_url":64,"boring_view_url":1,"soilmap_view_url":null,"soiltest_xml_url":0,"soiltest_view_url":0},{"id":513164,"code":"B4KJ202201001-5700","latitude":"36.173005","longitude":"137.244219","source_code":"CB1385346620310021","project_name":"\"\u5e73\u621025\u5e74\u5ea6 \u9ad8\u5c71\u56fd\u9053\u7ba1\u5185\u5730\u8cea\u8abf\u67fb\"","survey_name":"\"\u5e73\u621025\u5e74\u5ea6 \u9ad8\u5c71\u56fd\u9053\u7ba1\u5185\u5730\u8cea\u8abf\u67fb\"","client_name":"\"\u56fd\u571f\u4ea4\u901a\u7701 \u4e2d\u90e8\u5730\u65b9\u6574\u5099\u5c40 \u9ad8\u5c71\u56fd\u9053\u4e8b\u52d9\u6240\"","boring_xml_url":64,"boring_view_url":1,"soilmap_view_url":null,"soiltest_xml_url":0,"soiltest_view_url":0},{"id":513163,"code":"B4KJ202201001-5699","latitude":"36.172924","longitude":"137.244705","source_code":"CB1385346620310020","project_name":"\"\u5e73\u621025\u5e74\u5ea6 \u9ad8\u5c71\u56fd\u9053\u7ba1\u5185\u5730\u8cea\u8abf\u67fb\"","survey_name":"\"\u5e73\u621025\u5e74\u5ea6 \u9ad8\u5c71\u56fd\u9053\u7ba1\u5185\u5730\u8cea\u8abf\u67fb\"","client_name":"\"\u56fd\u571f\u4ea4\u901a\u7701 \u4e2d\u90e8\u5730\u65b9\u6574\u5099\u5c40 \u9ad8\u5c71\u56fd\u9053\u4e8b\u52d9\u6240\"","boring_xml_url":64,"boring_view_url":1,"soilmap_view_url":null,"soiltest_xml_url":0,"soiltest_view_url":0},{"id":513162,"code":"B4KJ202201001-5698","latitude":"36.172796","longitude":"137.245533","source_code":"CB1385346620310019","project_name":"\u5e73\u621025\u5e74\u5ea6\u3000\u9ad8\u5c71\u56fd\u9053\u7ba1\u5185\u5730\u8cea\u8abf\u67fb","survey_name":"\u5e73\u621025\u5e74\u5ea6\u3000\u9ad8\u5c71\u56fd\u9053\u7ba1\u5185\u5730\u8cea\u8abf\u67fb","client_name":"\"\u56fd\u571f\u4ea4\u901a\u7701 \u4e2d\u90e8\u5730\u65b9\u6574\u5099\u5c40 \u9ad8\u5c71\u56fd\u9053\u4e8b\u52d9\u6240\"","boring_xml_url":64,"boring_view_url":1,"soilmap_view_url":null,"soiltest_xml_url":0,"soiltest_view_url":0},{"id":513161,"code":"B4KJ202201001-5697","latitude":"36.172646","longitude":"137.247727","source_code":"CB1385346620310018","project_name":"\"\u5e73\u621025\u5e74\u5ea6 \u9ad8\u5c71\u56fd\u9053\u7ba1\u5185\u5730\u8cea\u8abf\u67fb\"","survey_name":"\"\u5e73\u621025\u5e74\u5ea6 \u9ad8\u5c71\u56fd\u9053\u7ba1\u5185\u5730\u8cea\u8abf\u67fb\"","client_name":"\"\u56fd\u571f\u4ea4\u901a\u7701 \u4e2d\u90e8\u5730\u65b9\u6574\u5099\u5c40 \u9ad8\u5c71\u56fd\u9053\u4e8b\u52d9\u6240\"","boring_xml_url":64,"boring_view_url":1,"soilmap_view_url":null,"soiltest_xml_url":0,"soiltest_view_url":0},{"id":513160,"code":"B4KJ202201001-5696","latitude":"36.174335","longitude":"137.264127","source_code":"CB1385346620310017","project_name":"\"\u5e73\u621025\u5e74\u5ea6 \u9ad8\u5c71\u56fd\u9053\u7ba1\u5185\u5730\u8cea\u8abf\u67fb\"","survey_name":"\"\u5e73\u621025\u5e74\u5ea6 \u9ad8\u5c71\u56fd\u9053\u7ba1\u5185\u5730\u8cea\u8abf\u67fb\"","client_name":"\"\u56fd\u571f\u4ea4\u901a\u7701 \u4e2d\u90e8\u5730\u65b9\u6574\u5099\u5c40 \u9ad8\u5c71\u56fd\u9053\u4e8b\u52d9\u6240\"","boring_xml_url":64,"boring_view_url":1,"soilmap_view_url":null,"soiltest_xml_url":0,"soiltest_view_url":0},{"id":513159,"code":"B4KJ202201001-5695","latitude":"36.175207","longitude":"137.274186","source_code":"CB1385346620310016","project_name":"\"\u5e73\u621025\u5e74\u5ea6 \u9ad8\u5c71\u56fd\u9053\u7ba1\u5185\u5730\u8cea\u8abf\u67fb\"","survey_name":"\"\u5e73\u621025\u5e74\u5ea6 \u9ad8\u5c71\u56fd\u9053\u7ba1\u5185\u5730\u8cea\u8abf\u67fb\"","client_name":"\"\u56fd\u571f\u4ea4\u901a\u7701 \u4e2d\u90e8\u5730\u65b9\u6574\u5099\u5c40 \u9ad8\u5c71\u56fd\u9053\u4e8b\u52d9\u6240\"","boring_xml_url":64,"boring_view_url":1,"soilmap_view_url":null,"soiltest_xml_url":0,"soiltest_view_url":0},{"id":513158,"code":"B4KJ202201001-5694","latitude":"36.175191","longitude":"137.274552","source_code":"CB1385346620310015","project_name":"\"\u5e73\u621025\u5e74\u5ea6 \u9ad8\u5c71\u56fd\u9053\u7ba1\u5185\u5730\u8cea\u8abf\u67fb\"","survey_name":"\"\u5e73\u621025\u5e74\u5ea6 \u9ad8\u5c71\u56fd\u9053\u7ba1\u5185\u5730\u8cea\u8abf\u67fb\"","client_name":"\"\u56fd\u571f\u4ea4\u901a\u7701 \u4e2d\u90e8\u5730\u65b9\u6574\u5099\u5c40 \u9ad8\u5c71\u56fd\u9053\u4e8b\u52d9\u6240\"","boring_xml_url":64,"boring_view_url":1,"soilmap_view_url":null,"soiltest_xml_url":0,"soiltest_view_url":0},{"id":513157,"code":"B4KJ202201001-5693","latitude":"36.172171","longitude":"137.285436","source_code":"CB1385346620310014","project_name":"\"\u5e73\u621025\u5e74\u5ea6 \u9ad8\u5c71\u56fd\u9053\u7ba1\u5185\u5730\u8cea\u8abf\u67fb\"","survey_name":"\"\u5e73\u621025\u5e74\u5ea6 \u9ad8\u5c71\u56fd\u9053\u7ba1\u5185\u5730\u8cea\u8abf\u67fb\"","client_name":"\"\u56fd\u571f\u4ea4\u901a\u7701 \u4e2d\u90e8\u5730\u65b9\u6574\u5099\u5c40 \u9ad8\u5c71\u56fd\u9053\u4e8b\u52d9\u6240\"","boring_xml_url":64,"boring_view_url":1,"soilmap_view_url":null,"soiltest_xml_url":0,"soiltest_view_url":0},{"id":513156,"code":"B4KJ202201001-5692","latitude":"36.172496","longitude":"137.285383","source_code":"CB1385346620310013","project_name":"\"\u5e73\u621025\u5e74\u5ea6 \u9ad8\u5c71\u56fd\u9053\u7ba1\u5185\u5730\u8cea\u8abf\u67fb\"","survey_name":"\"\u5e73\u621025\u5e74\u5ea6 \u9ad8\u5c71\u56fd\u9053\u7ba1\u5185\u5730\u8cea\u8abf\u67fb\"","client_name":"\"\u56fd\u571f\u4ea4\u901a\u7701 \u4e2d\u90e8\u5730\u65b9\u6574\u5099\u5c40 \u9ad8\u5c71\u56fd\u9053\u4e8b\u52d9\u6240\"","boring_xml_url":64,"boring_view_url":1,"soilmap_view_url":null,"soiltest_xml_url":0,"soiltest_view_url":0},{"id":513155,"code":"B4KJ202201001-5691","latitude":"36.172799","longitude":"137.287744","source_code":"CB1385346620310012","project_name":"\"\u5e73\u621025\u5e74\u5ea6 \u9ad8\u5c71\u56fd\u9053\u7ba1\u5185\u5730\u8cea\u8abf\u67fb\"","survey_name":"\"\u5e73\u621025\u5e74\u5ea6 \u9ad8\u5c71\u56fd\u9053\u7ba1\u5185\u5730\u8cea\u8abf\u67fb\"","client_name":"\"\u56fd\u571f\u4ea4\u901a\u7701 \u4e2d\u90e8\u5730\u65b9\u6574\u5099\u5c40 \u9ad8\u5c71\u56fd\u9053\u4e8b\u52d9\u6240\"","boring_xml_url":64,"boring_view_url":1,"soilmap_view_url":null,"soiltest_xml_url":0,"soiltest_view_url":0},{"id":513154,"code":"B4KJ202201001-5690","latitude":"36.172763","longitude":"137.287713","source_code":"CB1385346620310011","project_name":"\"\u5e73\u621025\u5e74\u5ea6 \u9ad8\u5c71\u56fd\u9053\u7ba1\u5185\u5730\u8cea\u8abf\u67fb\"","survey_name":"\"\u5e73\u621025\u5e74\u5ea6 \u9ad8\u5c71\u56fd\u9053\u7ba1\u5185\u5730\u8cea\u8abf\u67fb\"","client_name":"\"\u56fd\u571f\u4ea4\u901a\u7701 \u4e2d\u90e8\u5730\u65b9\u6574\u5099\u5c40 \u9ad8\u5c71\u56fd\u9053\u4e8b\u52d9\u6240\"","boring_xml_url":64,"boring_view_url":1,"soilmap_view_url":null,"soiltest_xml_url":0,"soiltest_view_url":0},{"id":513153,"code":"B4KJ202201001-5689","latitude":"36.174605","longitude":"137.28008","source_code":"CB1385346620310010","project_name":"\u5e73\u621025\u5e74\u5ea6\u3000\u9ad8\u5c71\u56fd\u9053\u7ba1\u5185\u5730\u8cea\u8abf\u67fb","survey_name":"\u5e73\u621025\u5e74\u5ea6\u3000\u9ad8\u5c71\u56fd\u9053\u7ba1\u5185\u5730\u8cea\u8abf\u67fb","client_name":"\u56fd\u571f\u4ea4\u901a\u7701\u4e2d\u90e8\u5730\u65b9\u6574\u5099\u5c40\u3000\u9ad8\u5c71\u56fd\u9053\u4e8b\u52d9\u6240","boring_xml_url":64,"boring_view_url":1,"soilmap_view_url":null,"soiltest_xml_url":0,"soiltest_view_url":0},{"id":513152,"code":"B4KJ202201001-5688","latitude":"36.165696","longitude":"137.303438","source_code":"CB1385346620310009","project_name":"\u5e73\u621025\u5e74\u5ea6\u3000\u9ad8\u5c71\u56fd\u9053\u7ba1\u5185\u5730\u8cea\u8abf\u67fb","survey_name":"\u5e73\u621025\u5e74\u5ea6\u3000\u9ad8\u5c71\u56fd\u9053\u7ba1\u5185\u5730\u8cea\u8abf\u67fb","client_name":"\u56fd\u571f\u4ea4\u901a\u7701\u4e2d\u90e8\u5730\u65b9\u6574\u5099\u5c40\u9ad8\u5c71\u56fd\u9053\u4e8b\u52d9\u6240","boring_xml_url":64,"boring_view_url":1,"soilmap_view_url":null,"soiltest_xml_url":0,"soiltest_view_url":0},{"id":513151,"code":"B4KJ202201001-5687","latitude":"36.165541","longitude":"137.304474","source_code":"CB1385346620310008","project_name":"\"\u5e73\u621025\u5e74\u5ea6 \u9ad8\u5c71\u56fd\u9053\u7ba1\u5185\u5730\u8cea\u8abf\u67fb\"","survey_name":"\"\u5e73\u621025\u5e74\u5ea6 \u9ad8\u5c71\u56fd\u9053\u7ba1\u5185\u5730\u8cea\u8abf\u67fb\"","client_name":"\"\u56fd\u571f\u4ea4\u901a\u7701 \u4e2d\u90e8\u5730\u65b9\u6574\u5099\u5c40 \u9ad8\u5c71\u56fd\u9053\u4e8b\u52d9\u6240\"","boring_xml_url":64,"boring_view_url":1,"soilmap_view_url":null,"soiltest_xml_url":0,"soiltest_view_url":0},{"id":513150,"code":"B4KJ202201001-5686","latitude":"36.165763","longitude":"137.303072","source_code":"CB1385346620310007","project_name":"\u5e73\u621025\u5e74\u5ea6\u3000\u9ad8\u5c71\u56fd\u9053\u7ba1\u5185\u5730\u8cea\u8abf\u67fb","survey_name":"\u5e73\u621025\u5e74\u5ea6\u3000\u9ad8\u5c71\u56fd\u9053\u7ba1\u5185\u5730\u8cea\u8abf\u67fb","client_name":"\u56fd\u571f\u4ea4\u901a\u7701\u4e2d\u90e8\u5730\u65b9\u6574\u5099\u5c40\u9ad8\u5c71\u56fd\u9053\u4e8b\u52d9\u6240","boring_xml_url":64,"boring_view_url":1,"soilmap_view_url":null,"soiltest_xml_url":0,"soiltest_view_url":0},{"id":513149,"code":"B4KJ202201001-5685","latitude":"36.165563","longitude":"137.304177","source_code":"CB1385346620310006","project_name":"\u5e73\u621025\u5e74\u5ea6\u3000\u9ad8\u5c71\u56fd\u9053\u7ba1\u5185\u5730\u8cea\u8abf\u67fb","survey_name":"\u5e73\u621025\u5e74\u5ea6\u3000\u9ad8\u5c71\u56fd\u9053\u7ba1\u5185\u5730\u8cea\u8abf\u67fb","client_name":"\"\u56fd\u571f\u4ea4\u901a\u7701 \u4e2d\u90e8\u5730\u65b9\u6574\u5099\u5c40 \u9ad8\u5c71\u56fd\u9053\u4e8b\u52d9\u6240\"","boring_xml_url":64,"boring_view_url":1,"soilmap_view_url":null,"soiltest_xml_url":0,"soiltest_view_url":0},{"id":513148,"code":"B4KJ202201001-5684","latitude":"36.165841","longitude":"137.302708","source_code":"CB1385346620310005","project_name":"\u5e73\u621025\u5e74\u5ea6\u3000\u9ad8\u5c71\u56fd\u9053\u7ba1\u5185\u5730\u8cea\u8abf\u67fb","survey_name":"\u5e73\u621025\u5e74\u5ea6\u3000\u9ad8\u5c71\u56fd\u9053\u7ba1\u5185\u5730\u8cea\u8abf\u67fb","client_name":"\u56fd\u571f\u4ea4\u901a\u7701\u4e2d\u90e8\u5730\u65b9\u6574\u5099\u5c40\u9ad8\u5c71\u56fd\u9053\u4e8b\u52d9\u6240","boring_xml_url":64,"boring_view_url":1,"soilmap_view_url":null,"soiltest_xml_url":0,"soiltest_view_url":0},{"id":513147,"code":"B4KJ202201001-5683","latitude":"36.165644","longitude":"137.303808","source_code":"CB1385346620310004","project_name":"\u5e73\u621025\u5e74\u5ea6\u3000\u9ad8\u5c71\u56fd\u9053\u7ba1\u5185\u5730\u8cea\u8abf\u67fb","survey_name":"\u5e73\u621025\u5e74\u5ea6\u3000\u9ad8\u5c71\u56fd\u9053\u7ba1\u5185\u5730\u8cea\u8abf\u67fb","client_name":"\u56fd\u571f\u4ea4\u901a\u7701\u4e2d\u90e8\u5730\u65b9\u6574\u5099\u5c40\u9ad8\u5c71\u56fd\u9053\u4e8b\u52d9\u6240","boring_xml_url":64,"boring_view_url":1,"soilmap_view_url":null,"soiltest_xml_url":0,"soiltest_view_url":0},{"id":513146,"code":"B4KJ202201001-5682","latitude":"36.165519","longitude":"137.304819","source_code":"CB1385346620310003","project_name":"\u5e73\u621025\u5e74\u5ea6\u3000\u9ad8\u5c71\u56fd\u9053\u7ba1\u5185\u5730\u8cea\u8abf\u67fb","survey_name":"\u5e73\u621025\u5e74\u5ea6\u3000\u9ad8\u5c71\u56fd\u9053\u7ba1\u5185\u5730\u8cea\u8abf\u67fb","client_name":"\u56fd\u571f\u4ea4\u901a\u7701\u4e2d\u90e8\u5730\u65b9\u6574\u5099\u5c40\u9ad8\u5c71\u56fd\u9053\u4e8b\u52d9\u6240","boring_xml_url":64,"boring_view_url":1,"soilmap_view_url":null,"soiltest_xml_url":0,"soiltest_view_url":0},{"id":513145,"code":"B4KJ202201001-5681","latitude":"36.165513","longitude":"137.306019","source_code":"CB1385346620310002","project_name":"\u5e73\u621025\u5e74\u5ea6\u3000\u9ad8\u5c71\u56fd\u9053\u7ba1\u5185\u5730\u8cea\u8abf\u67fb","survey_name":"\u5e73\u621025\u5e74\u5ea6\u3000\u9ad8\u5c71\u56fd\u9053\u7ba1\u5185\u5730\u8cea\u8abf\u67fb","client_name":"\u56fd\u571f\u4ea4\u901a\u7701\u4e2d\u90e8\u5730\u65b9\u6574\u5099\u5c40\u9ad8\u5c71\u56fd\u9053\u4e8b\u52d9\u6240","boring_xml_url":64,"boring_view_url":1,"soilmap_view_url":null,"soiltest_xml_url":0,"soiltest_view_url":0},{"id":513144,"code":"B4KJ202201001-5680","latitude":"36.165583","longitude":"137.307288","source_code":"CB1385346620310001","project_name":"\u5e73\u621025\u5e74\u5ea6\u3000\u9ad8\u5c71\u56fd\u9053\u7ba1\u5185\u5730\u8cea\u8abf\u67fb","survey_name":"\u5e73\u621025\u5e74\u5ea6\u3000\u9ad8\u5c71\u56fd\u9053\u7ba1\u5185\u5730\u8cea\u8abf\u67fb","client_name":"\u56fd\u571f\u4ea4\u901a\u7701\u4e2d\u90e8\u5730\u65b9\u6574\u5099\u5c40\u9ad8\u5c71\u56fd\u9053\u4e8b\u52d9\u6240","boring_xml_url":64,"boring_view_url":1,"soilmap_view_url":null,"soiltest_xml_url":0,"soiltest_view_url":0},{"id":513143,"code":"B4KJ202201001-5679","latitude":"35.46863","longitude":"136.687697","source_code":"CB1385336021160014","project_name":"","survey_name":"\"\u5e73\u621025\u5e74\u5ea6 \u6771\u6d77\u74b0\u72b6(\u5c90\u961cIC\u304b\u3089\u7cf8\u8cabIC)\u8239\u6765\u5c71\u30c8\u30f3\u30cd\u30eb\u5730\u8cea\u8abf\u67fb\"","client_name":"\"\u56fd\u571f\u4ea4\u901a\u7701 \u4e2d\u90e8\u5730\u65b9\u6574\u5099\u5c40 \u5c90\u961c\u56fd\u9053\u4e8b\u52d9\u6240\"","boring_xml_url":64,"boring_view_url":1,"soilmap_view_url":null,"soiltest_xml_url":0,"soiltest_view_url":0},{"id":513142,"code":"B4KJ202201001-5678","latitude":"35.468355","longitude":"136.68742","source_code":"CB1385336021160013","project_name":"","survey_name":"\"\u5e73\u621025\u5e74\u5ea6 \u6771\u6d77\u74b0\u72b6(\u5c90\u961cIC\u304b\u3089\u7cf8\u8cabIC)\u8239\u6765\u5c71\u30c8\u30f3\u30cd\u30eb\u5730\u8cea\u8abf\u67fb\"","client_name":"\"\u56fd\u571f\u4ea4\u901a\u7701 \u4e2d\u90e8\u5730\u65b9\u6574\u5099\u5c40 \u5c90\u961c\u56fd\u9053\u4e8b\u52d9\u6240\"","boring_xml_url":64,"boring_view_url":1,"soilmap_view_url":null,"soiltest_xml_url":0,"soiltest_view_url":0},{"id":513141,"code":"B4KJ202201001-5677","latitude":"35.468458","longitude":"136.687314","source_code":"CB1385336021160012","project_name":"","survey_name":"\"\u5e73\u621025\u5e74\u5ea6 \u6771\u6d77\u74b0\u72b6(\u5c90\u961cIC\u304b\u3089\u7cf8\u8cabIC)\u8239\u6765\u5c71\u30c8\u30f3\u30cd\u30eb\u5730\u8cea\u8abf\u67fb\"","client_name":"\"\u56fd\u571f\u4ea4\u901a\u7701 \u4e2d\u90e8\u5730\u65b9\u6574\u5099\u5c40 \u5c90\u961c\u56fd\u9053\u4e8b\u52d9\u6240\"","boring_xml_url":64,"boring_view_url":1,"soilmap_view_url":null,"soiltest_xml_url":0,"soiltest_view_url":0},{"id":513140,"code":"B4KJ202201001-5676","latitude":"35.468305","longitude":"136.687095","source_code":"CB1385336021160011","project_name":"","survey_name":"\"\u5e73\u621025\u5e74\u5ea6 \u6771\u6d77\u74b0\u72b6(\u5c90\u961cIC\u304b\u3089\u7cf8\u8cabIC)\u8239\u6765\u5c71\u30c8\u30f3\u30cd\u30eb\u5730\u8cea\u8abf\u67fb\"","client_name":"\"\u56fd\u571f\u4ea4\u901a\u7701 \u4e2d\u90e8\u5730\u65b9\u6574\u5099\u5c40 \u5c90\u961c\u56fd\u9053\u4e8b\u52d9\u6240\"","boring_xml_url":64,"boring_view_url":1,"soilmap_view_url":null,"soiltest_xml_url":0,"soiltest_view_url":0},{"id":513139,"code":"B4KJ202201001-5675","latitude":"35.468261","longitude":"136.687284","source_code":"CB1385336021160010","project_name":"","survey_name":"\"\u5e73\u621025\u5e74\u5ea6 \u6771\u6d77\u74b0\u72b6(\u5c90\u961cIC\u304b\u3089\u7cf8\u8cabIC)\u8239\u6765\u5c71\u30c8\u30f3\u30cd\u30eb\u5730\u8cea\u8abf\u67fb\"","client_name":"\"\u56fd\u571f\u4ea4\u901a\u7701 \u4e2d\u90e8\u5730\u65b9\u6574\u5099\u5c40 \u5c90\u961c\u56fd\u9053\u4e8b\u52d9\u6240\"","boring_xml_url":64,"boring_view_url":1,"soilmap_view_url":null,"soiltest_xml_url":0,"soiltest_view_url":0}]}}