{"header":{"xyz":{"source":[],"mosaic":false},"page":1078,"raw":{"soiltest_result":"0","bbox":"57.598333,109.544722,1.933333,163.806111","page":"1078"},"conditions":{"soiltest_result":0,"north":57.598333,"west":109.544722,"south":1.933333,"east":163.806111},"success":true,"message":""},"data":{"meta":{"total":212844,"page":1078,"pages":7095,"count":30},"values":[{"id":513078,"code":"B4KJ202201001-5614","latitude":"35.457891","longitude":"136.666892","source_code":"CB1385336021010023","project_name":"\u5e73\u621025\u5e74\u5ea6\u3000\u6771\u6d77\u74b0\u72b6\uff08\u7cf8\u8cabIC\u304b\u3089\u5927\u91ce\u795e\u6238IC)\u65e9\u91ce\u898b\u5ef6\u5730\u533a\u5730\u8cea\u8abf\u67fb","survey_name":"\u5e73\u621025\u5e74\u5ea6\u3000\u6771\u6d77\u74b0\u72b6\uff08\u7cf8\u8cabIC\u304b\u3089\u5927\u91ce\u795e\u6238IC)\u65e9\u91ce\u898b\u5ef6\u5730\u533a\u5730\u8cea\u8abf\u67fb","client_name":"\u56fd\u571f\u4ea4\u901a\u7701\u4e2d\u90e8\u5730\u65b9\u6574\u5099\u5c40\u5c90\u961c\u56fd\u9053\u4e8b\u52d9\u6240","boring_xml_url":64,"boring_view_url":1,"soilmap_view_url":null,"soiltest_xml_url":0,"soiltest_view_url":0},{"id":513077,"code":"B4KJ202201001-5613","latitude":"35.458025","longitude":"136.667481","source_code":"CB1385336021010022","project_name":"\u5e73\u621025\u5e74\u5ea6\u3000\u6771\u6d77\u74b0\u72b6\uff08\u7cf8\u8cabIC\u304b\u3089\u5927\u91ce\u795e\u6238IC)\u65e9\u91ce\u898b\u5ef6\u5730\u533a\u5730\u8cea\u8abf\u67fb","survey_name":"\u5e73\u621025\u5e74\u5ea6\u3000\u6771\u6d77\u74b0\u72b6\uff08\u7cf8\u8cabIC\u304b\u3089\u5927\u91ce\u795e\u6238IC)\u65e9\u91ce\u898b\u5ef6\u5730\u533a\u5730\u8cea\u8abf\u67fb","client_name":"\u56fd\u571f\u4ea4\u901a\u7701\u4e2d\u90e8\u5730\u65b9\u6574\u5099\u5c40\u5c90\u961c\u56fd\u9053\u4e8b\u52d9\u6240","boring_xml_url":64,"boring_view_url":1,"soilmap_view_url":null,"soiltest_xml_url":0,"soiltest_view_url":0},{"id":513076,"code":"B4KJ202201001-5612","latitude":"35.457953","longitude":"136.667161","source_code":"CB1385336021010021","project_name":"\u5e73\u621025\u5e74\u5ea6\u3000\u6771\u6d77\u74b0\u72b6\uff08\u7cf8\u8cabIC\u304b\u3089\u5927\u91ce\u795e\u6238IC)\u65e9\u91ce\u898b\u5ef6\u5730\u533a\u5730\u8cea\u8abf\u67fb","survey_name":"\u5e73\u621025\u5e74\u5ea6\u3000\u6771\u6d77\u74b0\u72b6\uff08\u7cf8\u8cabIC\u304b\u3089\u5927\u91ce\u795e\u6238IC)\u65e9\u91ce\u898b\u5ef6\u5730\u533a\u5730\u8cea\u8abf\u67fb","client_name":"\u56fd\u571f\u4ea4\u901a\u7701\u4e2d\u90e8\u5730\u65b9\u6574\u5099\u5c40\u5c90\u961c\u56fd\u9053\u4e8b\u52d9\u6240","boring_xml_url":64,"boring_view_url":1,"soilmap_view_url":null,"soiltest_xml_url":0,"soiltest_view_url":0},{"id":513075,"code":"B4KJ202201001-5611","latitude":"35.456264","longitude":"136.661861","source_code":"CB1385336021010020","project_name":"\u5e73\u621025\u5e74\u5ea6\u3000\u6771\u6d77\u74b0\u72b6\uff08\u7cf8\u8cabIC\u304b\u3089\u5927\u91ce\u795e\u6238IC)\u65e9\u91ce\u898b\u5ef6\u5730\u533a\u5730\u8cea\u8abf\u67fb","survey_name":"\u5e73\u621025\u5e74\u5ea6\u3000\u6771\u6d77\u74b0\u72b6\uff08\u7cf8\u8cabIC\u304b\u3089\u5927\u91ce\u795e\u6238IC)\u65e9\u91ce\u898b\u5ef6\u5730\u533a\u5730\u8cea\u8abf\u67fb","client_name":"\u56fd\u571f\u4ea4\u901a\u7701\u4e2d\u90e8\u5730\u65b9\u6574\u5099\u5c40\u5c90\u961c\u56fd\u9053\u4e8b\u52d9\u6240","boring_xml_url":64,"boring_view_url":1,"soilmap_view_url":null,"soiltest_xml_url":0,"soiltest_view_url":0},{"id":513074,"code":"B4KJ202201001-5610","latitude":"35.45883","longitude":"136.671247","source_code":"CB1385336021010019","project_name":"\u5e73\u621025\u5e74\u5ea6\u3000\u6771\u6d77\u74b0\u72b6\uff08\u7cf8\u8cabIC\u304b\u3089\u5927\u91ce\u795e\u6238IC)\u65e9\u91ce\u898b\u5ef6\u5730\u533a\u5730\u8cea\u8abf\u67fb","survey_name":"\u5e73\u621025\u5e74\u5ea6\u3000\u6771\u6d77\u74b0\u72b6\uff08\u7cf8\u8cabIC\u304b\u3089\u5927\u91ce\u795e\u6238IC)\u65e9\u91ce\u898b\u5ef6\u5730\u533a\u5730\u8cea\u8abf\u67fb","client_name":"\u56fd\u571f\u4ea4\u901a\u7701\u4e2d\u90e8\u5730\u65b9\u6574\u5099\u5c40\u5c90\u961c\u56fd\u9053\u4e8b\u52d9\u6240","boring_xml_url":64,"boring_view_url":1,"soilmap_view_url":null,"soiltest_xml_url":0,"soiltest_view_url":0},{"id":513073,"code":"B4KJ202201001-5609","latitude":"35.458797","longitude":"136.670897","source_code":"CB1385336021010018","project_name":"\u5e73\u621025\u5e74\u5ea6\u3000\u6771\u6d77\u74b0\u72b6\uff08\u7cf8\u8cabIC\u304b\u3089\u5927\u91ce\u795e\u6238IC)\u65e9\u91ce\u898b\u5ef6\u5730\u533a\u5730\u8cea\u8abf\u67fb","survey_name":"\u5e73\u621025\u5e74\u5ea6\u3000\u6771\u6d77\u74b0\u72b6\uff08\u7cf8\u8cabIC\u304b\u3089\u5927\u91ce\u795e\u6238IC)\u65e9\u91ce\u898b\u5ef6\u5730\u533a\u5730\u8cea\u8abf\u67fb","client_name":"\u56fd\u571f\u4ea4\u901a\u7701\u4e2d\u90e8\u5730\u65b9\u6574\u5099\u5c40\u5c90\u961c\u56fd\u9053\u4e8b\u52d9\u6240","boring_xml_url":64,"boring_view_url":1,"soilmap_view_url":null,"soiltest_xml_url":0,"soiltest_view_url":0},{"id":513072,"code":"B4KJ202201001-5608","latitude":"35.458708","longitude":"136.670564","source_code":"CB1385336021010017","project_name":"\u5e73\u621025\u5e74\u5ea6\u3000\u6771\u6d77\u74b0\u72b6\uff08\u7cf8\u8cabIC\u304b\u3089\u5927\u91ce\u795e\u6238IC)\u65e9\u91ce\u898b\u5ef6\u5730\u533a\u5730\u8cea\u8abf\u67fb","survey_name":"\u5e73\u621025\u5e74\u5ea6\u3000\u6771\u6d77\u74b0\u72b6\uff08\u7cf8\u8cabIC\u304b\u3089\u5927\u91ce\u795e\u6238IC)\u65e9\u91ce\u898b\u5ef6\u5730\u533a\u5730\u8cea\u8abf\u67fb","client_name":"\u56fd\u571f\u4ea4\u901a\u7701\u4e2d\u90e8\u5730\u65b9\u6574\u5099\u5c40\u5c90\u961c\u56fd\u9053\u4e8b\u52d9\u6240","boring_xml_url":64,"boring_view_url":1,"soilmap_view_url":null,"soiltest_xml_url":0,"soiltest_view_url":0},{"id":513071,"code":"B4KJ202201001-5607","latitude":"35.458622","longitude":"136.670228","source_code":"CB1385336021010016","project_name":"\u5e73\u621025\u5e74\u5ea6\u3000\u6771\u6d77\u74b0\u72b6\uff08\u7cf8\u8cabIC\u304b\u3089\u5927\u91ce\u795e\u6238IC)\u65e9\u91ce\u898b\u5ef6\u5730\u533a\u5730\u8cea\u8abf\u67fb","survey_name":"\u5e73\u621025\u5e74\u5ea6\u3000\u6771\u6d77\u74b0\u72b6\uff08\u7cf8\u8cabIC\u304b\u3089\u5927\u91ce\u795e\u6238IC)\u65e9\u91ce\u898b\u5ef6\u5730\u533a\u5730\u8cea\u8abf\u67fb","client_name":"\u56fd\u571f\u4ea4\u901a\u7701\u4e2d\u90e8\u5730\u65b9\u6574\u5099\u5c40\u5c90\u961c\u56fd\u9053\u4e8b\u52d9\u6240","boring_xml_url":64,"boring_view_url":1,"soilmap_view_url":null,"soiltest_xml_url":0,"soiltest_view_url":0},{"id":513070,"code":"B4KJ202201001-5606","latitude":"35.458541","longitude":"136.669889","source_code":"CB1385336021010015","project_name":"\u5e73\u621025\u5e74\u5ea6\u3000\u6771\u6d77\u74b0\u72b6\uff08\u7cf8\u8cabIC\u304b\u3089\u5927\u91ce\u795e\u6238IC)\u65e9\u91ce\u898b\u5ef6\u5730\u533a\u5730\u8cea\u8abf\u67fb","survey_name":"\u5e73\u621025\u5e74\u5ea6\u3000\u6771\u6d77\u74b0\u72b6\uff08\u7cf8\u8cabIC\u304b\u3089\u5927\u91ce\u795e\u6238IC)\u65e9\u91ce\u898b\u5ef6\u5730\u533a\u5730\u8cea\u8abf\u67fb","client_name":"\u56fd\u571f\u4ea4\u901a\u7701\u4e2d\u90e8\u5730\u65b9\u6574\u5099\u5c40\u5c90\u961c\u56fd\u9053\u4e8b\u52d9\u6240","boring_xml_url":64,"boring_view_url":1,"soilmap_view_url":null,"soiltest_xml_url":0,"soiltest_view_url":0},{"id":513069,"code":"B4KJ202201001-5605","latitude":"35.458297","longitude":"136.668772","source_code":"CB1385336021010014","project_name":"\u5e73\u621025\u5e74\u5ea6\u3000\u6771\u6d77\u74b0\u72b6\uff08\u7cf8\u8cabIC\u304b\u3089\u5927\u91ce\u795e\u6238IC)\u65e9\u91ce\u898b\u5ef6\u5730\u533a\u5730\u8cea\u8abf\u67fb","survey_name":"\u5e73\u621025\u5e74\u5ea6\u3000\u6771\u6d77\u74b0\u72b6\uff08\u7cf8\u8cabIC\u304b\u3089\u5927\u91ce\u795e\u6238IC)\u65e9\u91ce\u898b\u5ef6\u5730\u533a\u5730\u8cea\u8abf\u67fb","client_name":"\u56fd\u571f\u4ea4\u901a\u7701\u4e2d\u90e8\u5730\u65b9\u6574\u5099\u5c40\u5c90\u961c\u56fd\u9053\u4e8b\u52d9\u6240","boring_xml_url":64,"boring_view_url":1,"soilmap_view_url":null,"soiltest_xml_url":0,"soiltest_view_url":0},{"id":513068,"code":"B4KJ202201001-5604","latitude":"35.45823","longitude":"136.66845","source_code":"CB1385336021010013","project_name":"\u5e73\u621025\u5e74\u5ea6\u3000\u6771\u6d77\u74b0\u72b6\uff08\u7cf8\u8cabIC\u304b\u3089\u5927\u91ce\u795e\u6238IC)\u65e9\u91ce\u898b\u5ef6\u5730\u533a\u5730\u8cea\u8abf\u67fb","survey_name":"\u5e73\u621025\u5e74\u5ea6\u3000\u6771\u6d77\u74b0\u72b6\uff08\u7cf8\u8cabIC\u304b\u3089\u5927\u91ce\u795e\u6238IC)\u65e9\u91ce\u898b\u5ef6\u5730\u533a\u5730\u8cea\u8abf\u67fb","client_name":"\u56fd\u571f\u4ea4\u901a\u7701\u4e2d\u90e8\u5730\u65b9\u6574\u5099\u5c40\u5c90\u961c\u56fd\u9053\u4e8b\u52d9\u6240","boring_xml_url":64,"boring_view_url":1,"soilmap_view_url":null,"soiltest_xml_url":0,"soiltest_view_url":0},{"id":513067,"code":"B4KJ202201001-5603","latitude":"35.458164","longitude":"136.668131","source_code":"CB1385336021010012","project_name":"\u5e73\u621025\u5e74\u5ea6\u3000\u6771\u6d77\u74b0\u72b6\uff08\u7cf8\u8cabIC\u304b\u3089\u5927\u91ce\u795e\u6238IC)\u65e9\u91ce\u898b\u5ef6\u5730\u533a\u5730\u8cea\u8abf\u67fb","survey_name":"\u5e73\u621025\u5e74\u5ea6\u3000\u6771\u6d77\u74b0\u72b6\uff08\u7cf8\u8cabIC\u304b\u3089\u5927\u91ce\u795e\u6238IC)\u65e9\u91ce\u898b\u5ef6\u5730\u533a\u5730\u8cea\u8abf\u67fb","client_name":"\u56fd\u571f\u4ea4\u901a\u7701\u4e2d\u90e8\u5730\u65b9\u6574\u5099\u5c40\u5c90\u961c\u56fd\u9053\u4e8b\u52d9\u6240","boring_xml_url":64,"boring_view_url":1,"soilmap_view_url":null,"soiltest_xml_url":0,"soiltest_view_url":0},{"id":513066,"code":"B4KJ202201001-5602","latitude":"35.457805","longitude":"136.666525","source_code":"CB1385336021010011","project_name":"\u5e73\u621025\u5e74\u5ea6\u3000\u6771\u6d77\u74b0\u72b6\uff08\u7cf8\u8cabIC\u304b\u3089\u5927\u91ce\u795e\u6238IC)\u65e9\u91ce\u898b\u5ef6\u5730\u533a\u5730\u8cea\u8abf\u67fb","survey_name":"\u5e73\u621025\u5e74\u5ea6\u3000\u6771\u6d77\u74b0\u72b6\uff08\u7cf8\u8cabIC\u304b\u3089\u5927\u91ce\u795e\u6238IC)\u65e9\u91ce\u898b\u5ef6\u5730\u533a\u5730\u8cea\u8abf\u67fb","client_name":"\u56fd\u571f\u4ea4\u901a\u7701\u4e2d\u90e8\u5730\u65b9\u6574\u5099\u5c40\u5c90\u961c\u56fd\u9053\u4e8b\u52d9\u6240","boring_xml_url":64,"boring_view_url":1,"soilmap_view_url":null,"soiltest_xml_url":0,"soiltest_view_url":0},{"id":513065,"code":"B4KJ202201001-5601","latitude":"35.457736","longitude":"136.666253","source_code":"CB1385336021010010","project_name":"\u5e73\u621025\u5e74\u5ea6\u3000\u6771\u6d77\u74b0\u72b6\uff08\u7cf8\u8cabIC\u304b\u3089\u5927\u91ce\u795e\u6238IC)\u65e9\u91ce\u898b\u5ef6\u5730\u533a\u5730\u8cea\u8abf\u67fb","survey_name":"\u5e73\u621025\u5e74\u5ea6\u3000\u6771\u6d77\u74b0\u72b6\uff08\u7cf8\u8cabIC\u304b\u3089\u5927\u91ce\u795e\u6238IC)\u65e9\u91ce\u898b\u5ef6\u5730\u533a\u5730\u8cea\u8abf\u67fb","client_name":"\u56fd\u571f\u4ea4\u901a\u7701\u4e2d\u90e8\u5730\u65b9\u6574\u5099\u5c40\u5c90\u961c\u56fd\u9053\u4e8b\u52d9\u6240","boring_xml_url":64,"boring_view_url":1,"soilmap_view_url":null,"soiltest_xml_url":0,"soiltest_view_url":0},{"id":513064,"code":"B4KJ202201001-5600","latitude":"35.457647","longitude":"136.66592","source_code":"CB1385336021010009","project_name":"\u5e73\u621025\u5e74\u5ea6\u3000\u6771\u6d77\u74b0\u72b6\uff08\u7cf8\u8cabIC\u304b\u3089\u5927\u91ce\u795e\u6238IC)\u65e9\u91ce\u898b\u5ef6\u5730\u533a\u5730\u8cea\u8abf\u67fb","survey_name":"\u5e73\u621025\u5e74\u5ea6\u3000\u6771\u6d77\u74b0\u72b6\uff08\u7cf8\u8cabIC\u304b\u3089\u5927\u91ce\u795e\u6238IC)\u65e9\u91ce\u898b\u5ef6\u5730\u533a\u5730\u8cea\u8abf\u67fb","client_name":"\u56fd\u571f\u4ea4\u901a\u7701\u4e2d\u90e8\u5730\u65b9\u6574\u5099\u5c40\u5c90\u961c\u56fd\u9053\u4e8b\u52d9\u6240","boring_xml_url":64,"boring_view_url":1,"soilmap_view_url":null,"soiltest_xml_url":0,"soiltest_view_url":0},{"id":513063,"code":"B4KJ202201001-5599","latitude":"35.457528","longitude":"136.665503","source_code":"CB1385336021010008","project_name":"\u5e73\u621025\u5e74\u5ea6\u3000\u6771\u6d77\u74b0\u72b6\uff08\u7cf8\u8cabIC\u304b\u3089\u5927\u91ce\u795e\u6238IC)\u65e9\u91ce\u898b\u5ef6\u5730\u533a\u5730\u8cea\u8abf\u67fb","survey_name":"\u5e73\u621025\u5e74\u5ea6\u3000\u6771\u6d77\u74b0\u72b6\uff08\u7cf8\u8cabIC\u304b\u3089\u5927\u91ce\u795e\u6238IC)\u65e9\u91ce\u898b\u5ef6\u5730\u533a\u5730\u8cea\u8abf\u67fb","client_name":"\u56fd\u571f\u4ea4\u901a\u7701\u4e2d\u90e8\u5730\u65b9\u6574\u5099\u5c40\u5c90\u961c\u56fd\u9053\u4e8b\u52d9\u6240","boring_xml_url":64,"boring_view_url":1,"soilmap_view_url":null,"soiltest_xml_url":0,"soiltest_view_url":0},{"id":513062,"code":"B4KJ202201001-5598","latitude":"35.457311","longitude":"136.664825","source_code":"CB1385336021010007","project_name":"\u5e73\u621025\u5e74\u5ea6\u3000\u6771\u6d77\u74b0\u72b6\uff08\u7cf8\u8cabIC\u304b\u3089\u5927\u91ce\u795e\u6238IC)\u65e9\u91ce\u898b\u5ef6\u5730\u533a\u5730\u8cea\u8abf\u67fb","survey_name":"\u5e73\u621025\u5e74\u5ea6\u3000\u6771\u6d77\u74b0\u72b6\uff08\u7cf8\u8cabIC\u304b\u3089\u5927\u91ce\u795e\u6238IC)\u65e9\u91ce\u898b\u5ef6\u5730\u533a\u5730\u8cea\u8abf\u67fb","client_name":"\u56fd\u571f\u4ea4\u901a\u7701\u4e2d\u90e8\u5730\u65b9\u6574\u5099\u5c40\u5c90\u961c\u56fd\u9053\u4e8b\u52d9\u6240","boring_xml_url":64,"boring_view_url":1,"soilmap_view_url":null,"soiltest_xml_url":0,"soiltest_view_url":0},{"id":513061,"code":"B4KJ202201001-5597","latitude":"35.455728","longitude":"136.661653","source_code":"CB1385336021010006","project_name":"\u5e73\u621025\u5e74\u5ea6\u3000\u6771\u6d77\u74b0\u72b6\uff08\u7cf8\u8cabIC\u304b\u3089\u5927\u91ce\u795e\u6238IC)\u65e9\u91ce\u898b\u5ef6\u5730\u533a\u5730\u8cea\u8abf\u67fb","survey_name":"\u5e73\u621025\u5e74\u5ea6\u3000\u6771\u6d77\u74b0\u72b6\uff08\u7cf8\u8cabIC\u304b\u3089\u5927\u91ce\u795e\u6238IC)\u65e9\u91ce\u898b\u5ef6\u5730\u533a\u5730\u8cea\u8abf\u67fb","client_name":"\u56fd\u571f\u4ea4\u901a\u7701\u4e2d\u90e8\u5730\u65b9\u6574\u5099\u5c40\u5c90\u961c\u56fd\u9053\u4e8b\u52d9\u6240","boring_xml_url":64,"boring_view_url":1,"soilmap_view_url":null,"soiltest_xml_url":0,"soiltest_view_url":0},{"id":513060,"code":"B4KJ202201001-5596","latitude":"35.453855","longitude":"136.658881","source_code":"CB1385336021010005","project_name":"\u5e73\u621025\u5e74\u5ea6\u3000\u6771\u6d77\u74b0\u72b6\uff08\u7cf8\u8cabIC\u304b\u3089\u5927\u91ce\u795e\u6238IC)\u65e9\u91ce\u898b\u5ef6\u5730\u533a\u5730\u8cea\u8abf\u67fb","survey_name":"\u5e73\u621025\u5e74\u5ea6\u3000\u6771\u6d77\u74b0\u72b6\uff08\u7cf8\u8cabIC\u304b\u3089\u5927\u91ce\u795e\u6238IC)\u65e9\u91ce\u898b\u5ef6\u5730\u533a\u5730\u8cea\u8abf\u67fb","client_name":"\u56fd\u571f\u4ea4\u901a\u7701\u4e2d\u90e8\u5730\u65b9\u6574\u5099\u5c40\u5c90\u961c\u56fd\u9053\u4e8b\u52d9\u6240","boring_xml_url":64,"boring_view_url":1,"soilmap_view_url":null,"soiltest_xml_url":0,"soiltest_view_url":0},{"id":513059,"code":"B4KJ202201001-5595","latitude":"35.453558","longitude":"136.658567","source_code":"CB1385336021010004","project_name":"\u5e73\u621025\u5e74\u5ea6\u3000\u6771\u6d77\u74b0\u72b6\uff08\u7cf8\u8cabIC\u304b\u3089\u5927\u91ce\u795e\u6238IC)\u65e9\u91ce\u898b\u5ef6\u5730\u533a\u5730\u8cea\u8abf\u67fb","survey_name":"\u5e73\u621025\u5e74\u5ea6\u3000\u6771\u6d77\u74b0\u72b6\uff08\u7cf8\u8cabIC\u304b\u3089\u5927\u91ce\u795e\u6238IC)\u65e9\u91ce\u898b\u5ef6\u5730\u533a\u5730\u8cea\u8abf\u67fb","client_name":"\u56fd\u571f\u4ea4\u901a\u7701\u4e2d\u90e8\u5730\u65b9\u6574\u5099\u5c40\u5c90\u961c\u56fd\u9053\u4e8b\u52d9\u6240","boring_xml_url":64,"boring_view_url":1,"soilmap_view_url":null,"soiltest_xml_url":0,"soiltest_view_url":0},{"id":513058,"code":"B4KJ202201001-5594","latitude":"35.453286","longitude":"136.658292","source_code":"CB1385336021010003","project_name":"\u5e73\u621025\u5e74\u5ea6\u3000\u6771\u6d77\u74b0\u72b6\uff08\u7cf8\u8cabIC\u304b\u3089\u5927\u91ce\u795e\u6238IC)\u65e9\u91ce\u898b\u5ef6\u5730\u533a\u5730\u8cea\u8abf\u67fb","survey_name":"\u5e73\u621025\u5e74\u5ea6\u3000\u6771\u6d77\u74b0\u72b6\uff08\u7cf8\u8cabIC\u304b\u3089\u5927\u91ce\u795e\u6238IC)\u65e9\u91ce\u898b\u5ef6\u5730\u533a\u5730\u8cea\u8abf\u67fb","client_name":"\u56fd\u571f\u4ea4\u901a\u7701\u4e2d\u90e8\u5730\u65b9\u6574\u5099\u5c40\u5c90\u961c\u56fd\u9053\u4e8b\u52d9\u6240","boring_xml_url":64,"boring_view_url":1,"soilmap_view_url":null,"soiltest_xml_url":0,"soiltest_view_url":0},{"id":513057,"code":"B4KJ202201001-5593","latitude":"35.453072","longitude":"136.658089","source_code":"CB1385336021010002","project_name":"\u5e73\u621025\u5e74\u5ea6\u3000\u6771\u6d77\u74b0\u72b6\uff08\u7cf8\u8cabIC\u304b\u3089\u5927\u91ce\u795e\u6238IC)\u65e9\u91ce\u898b\u5ef6\u5730\u533a\u5730\u8cea\u8abf\u67fb","survey_name":"\u5e73\u621025\u5e74\u5ea6\u3000\u6771\u6d77\u74b0\u72b6\uff08\u7cf8\u8cabIC\u304b\u3089\u5927\u91ce\u795e\u6238IC)\u65e9\u91ce\u898b\u5ef6\u5730\u533a\u5730\u8cea\u8abf\u67fb","client_name":"\u56fd\u571f\u4ea4\u901a\u7701\u4e2d\u90e8\u5730\u65b9\u6574\u5099\u5c40\u5c90\u961c\u56fd\u9053\u4e8b\u52d9\u6240","boring_xml_url":64,"boring_view_url":1,"soilmap_view_url":null,"soiltest_xml_url":0,"soiltest_view_url":0},{"id":513056,"code":"B4KJ202201001-5592","latitude":"35.452858","longitude":"136.657889","source_code":"CB1385336021010001","project_name":"\u5e73\u621025\u5e74\u5ea6\u3000\u6771\u6d77\u74b0\u72b6\uff08\u7cf8\u8cabIC\u304b\u3089\u5927\u91ce\u795e\u6238IC)\u65e9\u91ce\u898b\u5ef6\u5730\u533a\u5730\u8cea\u8abf\u67fb","survey_name":"\u5e73\u621025\u5e74\u5ea6\u3000\u6771\u6d77\u74b0\u72b6\uff08\u7cf8\u8cabIC\u304b\u3089\u5927\u91ce\u795e\u6238IC)\u65e9\u91ce\u898b\u5ef6\u5730\u533a\u5730\u8cea\u8abf\u67fb","client_name":"\u56fd\u571f\u4ea4\u901a\u7701\u4e2d\u90e8\u5730\u65b9\u6574\u5099\u5c40\u5c90\u961c\u56fd\u9053\u4e8b\u52d9\u6240","boring_xml_url":64,"boring_view_url":1,"soilmap_view_url":null,"soiltest_xml_url":0,"soiltest_view_url":0},{"id":513055,"code":"B4KJ202201001-5591","latitude":"35.452416","longitude":"136.6575","source_code":"CB1385336021000023","project_name":"\u5e73\u621025\u5e74\u5ea6\u6771\u6d77\u74b0\u72b6\uff08\u7cf8\u8cabIC\u304b\u3089\u5927\u91ce\u795e\u6238IC\uff09\u4e03\u4e94\u4e09\u5317\u5730\u533a\u5730\u8cea\u8abf\u67fb","survey_name":"\u5e73\u621025\u5e74\u5ea6\u6771\u6d77\u74b0\u72b6\uff08\u7cf8\u8cabIC\u304b\u3089\u5927\u91ce\u795e\u6238IC\uff09\u4e03\u4e94\u4e09\u5317\u5730\u533a\u5730\u8cea\u8abf\u67fb","client_name":"\"\u56fd\u571f\u4ea4\u901a\u7701 \u4e2d\u90e8\u5730\u65b9\u6574\u5099\u5c40 \u5c90\u961c\u56fd\u9053\u4e8b\u52d9\u6240\"","boring_xml_url":64,"boring_view_url":1,"soilmap_view_url":null,"soiltest_xml_url":0,"soiltest_view_url":0},{"id":513054,"code":"B4KJ202201001-5590","latitude":"35.4475","longitude":"136.654667","source_code":"CB1385336021000022","project_name":"\u5e73\u621025\u5e74\u5ea6\u6771\u6d77\u74b0\u72b6\uff08\u7cf8\u8cabIC\u304b\u3089\u5927\u91ce\u795e\u6238IC\uff09\u4e03\u4e94\u4e09\u5317\u5730\u533a\u5730\u8cea\u8abf\u67fb","survey_name":"\u5e73\u621025\u5e74\u5ea6\u6771\u6d77\u74b0\u72b6\uff08\u7cf8\u8cabIC\u304b\u3089\u5927\u91ce\u795e\u6238IC\uff09\u4e03\u4e94\u4e09\u5317\u5730\u533a\u5730\u8cea\u8abf\u67fb","client_name":"\"\u56fd\u571f\u4ea4\u901a\u7701 \u4e2d\u90e8\u5730\u65b9\u6574\u5099\u5c40 \u5c90\u961c\u56fd\u9053\u4e8b\u52d9\u6240\"","boring_xml_url":64,"boring_view_url":1,"soilmap_view_url":null,"soiltest_xml_url":0,"soiltest_view_url":0},{"id":513053,"code":"B4KJ202201001-5589","latitude":"35.447194","longitude":"136.654556","source_code":"CB1385336021000021","project_name":"\u5e73\u621025\u5e74\u5ea6\u6771\u6d77\u74b0\u72b6\uff08\u7cf8\u8cabIC\u304b\u3089\u5927\u91ce\u795e\u6238IC\uff09\u4e03\u4e94\u4e09\u5317\u5730\u533a\u5730\u8cea\u8abf\u67fb","survey_name":"\u5e73\u621025\u5e74\u5ea6\u6771\u6d77\u74b0\u72b6\uff08\u7cf8\u8cabIC\u304b\u3089\u5927\u91ce\u795e\u6238IC\uff09\u4e03\u4e94\u4e09\u5317\u5730\u533a\u5730\u8cea\u8abf\u67fb","client_name":"\"\u56fd\u571f\u4ea4\u901a\u7701 \u4e2d\u90e8\u5730\u65b9\u6574\u5099\u5c40 \u5c90\u961c\u56fd\u9053\u4e8b\u52d9\u6240\"","boring_xml_url":64,"boring_view_url":1,"soilmap_view_url":null,"soiltest_xml_url":0,"soiltest_view_url":0},{"id":513052,"code":"B4KJ202201001-5588","latitude":"35.446889","longitude":"136.654417","source_code":"CB1385336021000020","project_name":"\u5e73\u621025\u5e74\u5ea6\u6771\u6d77\u74b0\u72b6\uff08\u7cf8\u8cabIC\u304b\u3089\u5927\u91ce\u795e\u6238IC\uff09\u4e03\u4e94\u4e09\u5317\u5730\u533a\u5730\u8cea\u8abf\u67fb","survey_name":"\u5e73\u621025\u5e74\u5ea6\u6771\u6d77\u74b0\u72b6\uff08\u7cf8\u8cabIC\u304b\u3089\u5927\u91ce\u795e\u6238IC\uff09\u4e03\u4e94\u4e09\u5317\u5730\u533a\u5730\u8cea\u8abf\u67fb","client_name":"\"\u56fd\u571f\u4ea4\u901a\u7701 \u4e2d\u90e8\u5730\u65b9\u6574\u5099\u5c40 \u5c90\u961c\u56fd\u9053\u4e8b\u52d9\u6240\"","boring_xml_url":64,"boring_view_url":1,"soilmap_view_url":null,"soiltest_xml_url":0,"soiltest_view_url":0},{"id":513051,"code":"B4KJ202201001-5587","latitude":"35.452639","longitude":"136.657695","source_code":"CB1385336021000019","project_name":"\u5e73\u621025\u5e74\u5ea6\u6771\u6d77\u74b0\u72b6\uff08\u7cf8\u8cabIC\u304b\u3089\u5927\u91ce\u795e\u6238IC\uff09\u4e03\u4e94\u4e09\u5317\u5730\u533a\u5730\u8cea\u8abf\u67fb","survey_name":"\u5e73\u621025\u5e74\u5ea6\u6771\u6d77\u74b0\u72b6\uff08\u7cf8\u8cabIC\u304b\u3089\u5927\u91ce\u795e\u6238IC\uff09\u4e03\u4e94\u4e09\u5317\u5730\u533a\u5730\u8cea\u8abf\u67fb","client_name":"\"\u56fd\u571f\u4ea4\u901a\u7701 \u4e2d\u90e8\u5730\u65b9\u6574\u5099\u5c40 \u5c90\u961c\u56fd\u9053\u4e8b\u52d9\u6240\"","boring_xml_url":64,"boring_view_url":1,"soilmap_view_url":null,"soiltest_xml_url":0,"soiltest_view_url":0},{"id":513050,"code":"B4KJ202201001-5586","latitude":"35.452222","longitude":"136.657278","source_code":"CB1385336021000018","project_name":"\u5e73\u621025\u5e74\u5ea6\u6771\u6d77\u74b0\u72b6\uff08\u7cf8\u8cabIC\u304b\u3089\u5927\u91ce\u795e\u6238IC\uff09\u4e03\u4e94\u4e09\u5317\u5730\u533a\u5730\u8cea\u8abf\u67fb","survey_name":"\u5e73\u621025\u5e74\u5ea6\u6771\u6d77\u74b0\u72b6\uff08\u7cf8\u8cabIC\u304b\u3089\u5927\u91ce\u795e\u6238IC\uff09\u4e03\u4e94\u4e09\u5317\u5730\u533a\u5730\u8cea\u8abf\u67fb","client_name":"\"\u56fd\u571f\u4ea4\u901a\u7701 \u4e2d\u90e8\u5730\u65b9\u6574\u5099\u5c40 \u5c90\u961c\u56fd\u9053\u4e8b\u52d9\u6240\"","boring_xml_url":64,"boring_view_url":1,"soilmap_view_url":null,"soiltest_xml_url":0,"soiltest_view_url":0},{"id":513049,"code":"B4KJ202201001-5585","latitude":"35.451916","longitude":"136.657111","source_code":"CB1385336021000017","project_name":"\u5e73\u621025\u5e74\u5ea6\u6771\u6d77\u74b0\u72b6\uff08\u7cf8\u8cabIC\u304b\u3089\u5927\u91ce\u795e\u6238IC\uff09\u4e03\u4e94\u4e09\u5317\u5730\u533a\u5730\u8cea\u8abf\u67fb","survey_name":"\u5e73\u621025\u5e74\u5ea6\u6771\u6d77\u74b0\u72b6\uff08\u7cf8\u8cabIC\u304b\u3089\u5927\u91ce\u795e\u6238IC\uff09\u4e03\u4e94\u4e09\u5317\u5730\u533a\u5730\u8cea\u8abf\u67fb","client_name":"\"\u56fd\u571f\u4ea4\u901a\u7701 \u4e2d\u90e8\u5730\u65b9\u6574\u5099\u5c40 \u5c90\u961c\u56fd\u9053\u4e8b\u52d9\u6240\"","boring_xml_url":64,"boring_view_url":1,"soilmap_view_url":null,"soiltest_xml_url":0,"soiltest_view_url":0}]}}