{"header":{"xyz":{"source":[],"mosaic":false},"page":1084,"raw":{"soiltest_result":"0","bbox":"57.598333,109.544722,1.933333,163.806111","page":"1084"},"conditions":{"soiltest_result":0,"north":57.598333,"west":109.544722,"south":1.933333,"east":163.806111},"success":true,"message":""},"data":{"meta":{"total":212844,"page":1084,"pages":7095,"count":30},"values":[{"id":512898,"code":"B4KJ202201001-5434","latitude":"35.424889","longitude":"136.629278","source_code":"CB1285336021480010","project_name":"","survey_name":"\u5e73\u621024\u5e74\u5ea6\u3000\u6771\u6d77\u74b0\u72b6(\u7cf8\u8cab\uff5e\u5927\u91ce\u795e\u6238)\u5357\u90e8\u5730\u8cea\u8abf\u67fb","client_name":"\"\u56fd\u571f\u4ea4\u901a\u7701 \u5c90\u961c\u56fd\u9053\u4e8b\u52d9\u6240\"","boring_xml_url":64,"boring_view_url":1,"soilmap_view_url":null,"soiltest_xml_url":0,"soiltest_view_url":0},{"id":512897,"code":"B4KJ202201001-5433","latitude":"35.424778","longitude":"136.629278","source_code":"CB1285336021480009","project_name":"","survey_name":"\u5e73\u621024\u5e74\u5ea6\u3000\u6771\u6d77\u74b0\u72b6(\u7cf8\u8cab\uff5e\u5927\u91ce\u795e\u6238)\u5357\u90e8\u5730\u8cea\u8abf\u67fb","client_name":"\"\u56fd\u571f\u4ea4\u901a\u7701 \u5c90\u961c\u56fd\u9053\u4e8b\u52d9\u6240\"","boring_xml_url":64,"boring_view_url":1,"soilmap_view_url":null,"soiltest_xml_url":0,"soiltest_view_url":0},{"id":512896,"code":"B4KJ202201001-5432","latitude":"35.427139","longitude":"136.627611","source_code":"CB1285336021480008","project_name":"","survey_name":"\u5e73\u621024\u5e74\u5ea6\u3000\u6771\u6d77\u74b0\u72b6(\u7cf8\u8cab\uff5e\u5927\u91ce\u795e\u6238)\u5357\u90e8\u5730\u8cea\u8abf\u67fb","client_name":"\"\u56fd\u571f\u4ea4\u901a\u7701 \u5c90\u961c\u56fd\u9053\u4e8b\u52d9\u6240\"","boring_xml_url":64,"boring_view_url":1,"soilmap_view_url":null,"soiltest_xml_url":0,"soiltest_view_url":0},{"id":512895,"code":"B4KJ202201001-5431","latitude":"35.427083","longitude":"136.628111","source_code":"CB1285336021480007","project_name":"","survey_name":"\u5e73\u621024\u5e74\u5ea6\u3000\u6771\u6d77\u74b0\u72b6(\u7cf8\u8cab\uff5e\u5927\u91ce\u795e\u6238)\u5357\u90e8\u5730\u8cea\u8abf\u67fb","client_name":"\"\u56fd\u571f\u4ea4\u901a\u7701 \u5c90\u961c\u56fd\u9053\u4e8b\u52d9\u6240\"","boring_xml_url":64,"boring_view_url":1,"soilmap_view_url":null,"soiltest_xml_url":0,"soiltest_view_url":0},{"id":512894,"code":"B4KJ202201001-5430","latitude":"35.42725","longitude":"136.628556","source_code":"CB1285336021480006","project_name":"","survey_name":"\u5e73\u621024\u5e74\u5ea6\u3000\u6771\u6d77\u74b0\u72b6(\u7cf8\u8cab\uff5e\u5927\u91ce\u795e\u6238)\u5357\u90e8\u5730\u8cea\u8abf\u67fb","client_name":"\"\u56fd\u571f\u4ea4\u901a\u7701 \u5c90\u961c\u56fd\u9053\u4e8b\u52d9\u6240\"","boring_xml_url":64,"boring_view_url":1,"soilmap_view_url":null,"soiltest_xml_url":0,"soiltest_view_url":0},{"id":512893,"code":"B4KJ202201001-5429","latitude":"35.427389","longitude":"136.628972","source_code":"CB1285336021480005","project_name":"","survey_name":"\u5e73\u621024\u5e74\u5ea6\u3000\u6771\u6d77\u74b0\u72b6(\u7cf8\u8cab\uff5e\u5927\u91ce\u795e\u6238)\u5357\u90e8\u5730\u8cea\u8abf\u67fb","client_name":"\"\u56fd\u571f\u4ea4\u901a\u7701 \u5c90\u961c\u56fd\u9053\u4e8b\u52d9\u6240\"","boring_xml_url":64,"boring_view_url":1,"soilmap_view_url":null,"soiltest_xml_url":0,"soiltest_view_url":0},{"id":512892,"code":"B4KJ202201001-5428","latitude":"35.427528","longitude":"136.629445","source_code":"CB1285336021480004","project_name":"","survey_name":"\u5e73\u621024\u5e74\u5ea6\u3000\u6771\u6d77\u74b0\u72b6(\u7cf8\u8cab\uff5e\u5927\u91ce\u795e\u6238)\u5357\u90e8\u5730\u8cea\u8abf\u67fb","client_name":"\"\u56fd\u571f\u4ea4\u901a\u7701 \u5c90\u961c\u56fd\u9053\u4e8b\u52d9\u6240\"","boring_xml_url":64,"boring_view_url":1,"soilmap_view_url":null,"soiltest_xml_url":0,"soiltest_view_url":0},{"id":512891,"code":"B4KJ202201001-5427","latitude":"35.427694","longitude":"136.629361","source_code":"CB1285336021480003","project_name":"","survey_name":"\u5e73\u621024\u5e74\u5ea6\u3000\u6771\u6d77\u74b0\u72b6(\u7cf8\u8cab\uff5e\u5927\u91ce\u795e\u6238)\u5357\u90e8\u5730\u8cea\u8abf\u67fb","client_name":"\"\u56fd\u571f\u4ea4\u901a\u7701 \u5c90\u961c\u56fd\u9053\u4e8b\u52d9\u6240\"","boring_xml_url":64,"boring_view_url":1,"soilmap_view_url":null,"soiltest_xml_url":0,"soiltest_view_url":0},{"id":512890,"code":"B4KJ202201001-5426","latitude":"35.427666","longitude":"136.629889","source_code":"CB1285336021480002","project_name":"","survey_name":"\u5e73\u621024\u5e74\u5ea6\u3000\u6771\u6d77\u74b0\u72b6(\u7cf8\u8cab\uff5e\u5927\u91ce\u795e\u6238)\u5357\u90e8\u5730\u8cea\u8abf\u67fb","client_name":"\"\u56fd\u571f\u4ea4\u901a\u7701 \u5c90\u961c\u56fd\u9053\u4e8b\u52d9\u6240\"","boring_xml_url":64,"boring_view_url":1,"soilmap_view_url":null,"soiltest_xml_url":0,"soiltest_view_url":0},{"id":512889,"code":"B4KJ202201001-5425","latitude":"35.427805","longitude":"136.629833","source_code":"CB1285336021480001","project_name":"","survey_name":"\u5e73\u621024\u5e74\u5ea6\u3000\u6771\u6d77\u74b0\u72b6(\u7cf8\u8cab\uff5e\u5927\u91ce\u795e\u6238)\u5357\u90e8\u5730\u8cea\u8abf\u67fb","client_name":"\"\u56fd\u571f\u4ea4\u901a\u7701 \u5c90\u961c\u56fd\u9053\u4e8b\u52d9\u6240\"","boring_xml_url":64,"boring_view_url":1,"soilmap_view_url":null,"soiltest_xml_url":0,"soiltest_view_url":0},{"id":512888,"code":"B4KJ202201001-5424","latitude":"35.476694","longitude":"137.845807","source_code":"CB85704220490019","project_name":"\u5e73\u621025\u5e74\u5ea6\u3000\u5929\u7adc\u5ddd\u4e0a\u6d41\u7ba1\u5185\u5730\u8cea\u8abf\u67fb\u696d\u52d9","survey_name":"\u5e73\u621025\u5e74\u5ea6\u3000\u5929\u7adc\u5ddd\u4e0a\u6d41\u7ba1\u5185\u5730\u8cea\u8abf\u67fb\u696d\u52d9","client_name":"\u56fd\u571f\u4ea4\u901a\u7701\u3000\u4e2d\u90e8\u5730\u65b9\u6574\u5099\u5c40\u3000\u5929\u7adc\u5ddd\u4e0a\u6d41\u6cb3\u5ddd\u4e8b\u52d9\u6240","boring_xml_url":60,"boring_view_url":1,"soilmap_view_url":null,"soiltest_xml_url":0,"soiltest_view_url":0},{"id":512887,"code":"B4KJ202201001-5423","latitude":"35.475339","longitude":"137.843757","source_code":"CB85704220490018","project_name":"\u5e73\u621025\u5e74\u5ea6\u3000\u5929\u7adc\u5ddd\u4e0a\u6d41\u7ba1\u5185\u5730\u8cea\u8abf\u67fb\u696d\u52d9","survey_name":"\u5e73\u621025\u5e74\u5ea6\u3000\u5929\u7adc\u5ddd\u4e0a\u6d41\u7ba1\u5185\u5730\u8cea\u8abf\u67fb\u696d\u52d9","client_name":"\u56fd\u571f\u4ea4\u901a\u7701\u3000\u4e2d\u90e8\u5730\u65b9\u6574\u5099\u5c40\u3000\u5929\u7adc\u5ddd\u4e0a\u6d41\u6cb3\u5ddd\u4e8b\u52d9\u6240","boring_xml_url":60,"boring_view_url":1,"soilmap_view_url":null,"soiltest_xml_url":0,"soiltest_view_url":0},{"id":512886,"code":"B4KJ202201001-5422","latitude":"35.475286","longitude":"137.84387","source_code":"CB85704220490017","project_name":"\u5e73\u621025\u5e74\u5ea6\u3000\u5929\u7adc\u5ddd\u4e0a\u6d41\u7ba1\u5185\u5730\u8cea\u8abf\u67fb\u696d\u52d9","survey_name":"\u5e73\u621025\u5e74\u5ea6\u3000\u5929\u7adc\u5ddd\u4e0a\u6d41\u7ba1\u5185\u5730\u8cea\u8abf\u67fb\u696d\u52d9","client_name":"\u56fd\u571f\u4ea4\u901a\u7701\u3000\u4e2d\u90e8\u5730\u65b9\u6574\u5099\u5c40\u3000\u5929\u7adc\u5ddd\u4e0a\u6d41\u6cb3\u5ddd\u4e8b\u52d9\u6240","boring_xml_url":60,"boring_view_url":1,"soilmap_view_url":null,"soiltest_xml_url":0,"soiltest_view_url":0},{"id":512885,"code":"B4KJ202201001-5421","latitude":"35.753361","longitude":"137.960779","source_code":"CB85704220490016","project_name":"\u5e73\u621025\u5e74\u5ea6\u3000\u5929\u7adc\u5ddd\u4e0a\u6d41\u7ba1\u5185\u5730\u8cea\u8abf\u67fb\u696d\u52d9","survey_name":"\u5e73\u621025\u5e74\u5ea6\u3000\u5929\u7adc\u5ddd\u4e0a\u6d41\u7ba1\u5185\u5730\u8cea\u8abf\u67fb\u696d\u52d9","client_name":"\u56fd\u571f\u4ea4\u901a\u7701\u3000\u4e2d\u90e8\u5730\u65b9\u6574\u5099\u5c40\u3000\u5929\u7adc\u5ddd\u4e0a\u6d41\u6cb3\u5ddd\u4e8b\u52d9\u6240","boring_xml_url":60,"boring_view_url":1,"soilmap_view_url":null,"soiltest_xml_url":0,"soiltest_view_url":0},{"id":512884,"code":"B4KJ202201001-5420","latitude":"35.753555","longitude":"137.960529","source_code":"CB85704220490015","project_name":"\u5e73\u621025\u5e74\u5ea6\u3000\u5929\u7adc\u5ddd\u4e0a\u6d41\u7ba1\u5185\u5730\u8cea\u8abf\u67fb\u696d\u52d9","survey_name":"\u5e73\u621025\u5e74\u5ea6\u3000\u5929\u7adc\u5ddd\u4e0a\u6d41\u7ba1\u5185\u5730\u8cea\u8abf\u67fb\u696d\u52d9","client_name":"\u56fd\u571f\u4ea4\u901a\u7701\u3000\u4e2d\u90e8\u5730\u65b9\u6574\u5099\u5c40\u3000\u5929\u7adc\u5ddd\u4e0a\u6d41\u6cb3\u5ddd\u4e8b\u52d9\u6240","boring_xml_url":60,"boring_view_url":1,"soilmap_view_url":null,"soiltest_xml_url":0,"soiltest_view_url":0},{"id":512883,"code":"B4KJ202201001-5419","latitude":"35.753611","longitude":"137.960751","source_code":"CB85704220490014","project_name":"\u5e73\u621025\u5e74\u5ea6\u3000\u5929\u7adc\u5ddd\u4e0a\u6d41\u7ba1\u5185\u5730\u8cea\u8abf\u67fb\u696d\u52d9","survey_name":"\u5e73\u621025\u5e74\u5ea6\u3000\u5929\u7adc\u5ddd\u4e0a\u6d41\u7ba1\u5185\u5730\u8cea\u8abf\u67fb\u696d\u52d9","client_name":"\u56fd\u571f\u4ea4\u901a\u7701\u3000\u4e2d\u90e8\u5730\u65b9\u6574\u5099\u5c40\u3000\u5929\u7adc\u5ddd\u4e0a\u6d41\u6cb3\u5ddd\u4e8b\u52d9\u6240","boring_xml_url":60,"boring_view_url":1,"soilmap_view_url":null,"soiltest_xml_url":0,"soiltest_view_url":0},{"id":512882,"code":"B4KJ202201001-5418","latitude":"35.761139","longitude":"137.957807","source_code":"CB85704220490013","project_name":"\u5e73\u621025\u5e74\u5ea6\u3000\u5929\u7adc\u5ddd\u4e0a\u6d41\u7ba1\u5185\u5730\u8cea\u8abf\u67fb\u696d\u52d9","survey_name":"\u5e73\u621025\u5e74\u5ea6\u3000\u5929\u7adc\u5ddd\u4e0a\u6d41\u7ba1\u5185\u5730\u8cea\u8abf\u67fb\u696d\u52d9","client_name":"\u56fd\u571f\u4ea4\u901a\u7701\u3000\u4e2d\u90e8\u5730\u65b9\u6574\u5099\u5c40\u3000\u5929\u7adc\u5ddd\u4e0a\u6d41\u6cb3\u5ddd\u4e8b\u52d9\u6240","boring_xml_url":60,"boring_view_url":1,"soilmap_view_url":null,"soiltest_xml_url":0,"soiltest_view_url":0},{"id":512881,"code":"B4KJ202201001-5417","latitude":"35.761111","longitude":"137.957946","source_code":"CB85704220490012","project_name":"\u5e73\u621025\u5e74\u5ea6\u3000\u5929\u7adc\u5ddd\u4e0a\u6d41\u7ba1\u5185\u5730\u8cea\u8abf\u67fb\u696d\u52d9","survey_name":"\u5e73\u621025\u5e74\u5ea6\u3000\u5929\u7adc\u5ddd\u4e0a\u6d41\u7ba1\u5185\u5730\u8cea\u8abf\u67fb\u696d\u52d9","client_name":"\u56fd\u571f\u4ea4\u901a\u7701\u3000\u4e2d\u90e8\u5730\u65b9\u6574\u5099\u5c40\u3000\u5929\u7adc\u5ddd\u4e0a\u6d41\u6cb3\u5ddd\u4e8b\u52d9\u6240","boring_xml_url":60,"boring_view_url":1,"soilmap_view_url":null,"soiltest_xml_url":0,"soiltest_view_url":0},{"id":512880,"code":"B4KJ202201001-5416","latitude":"35.757305","longitude":"137.959918","source_code":"CB85704220490011","project_name":"\u5e73\u621025\u5e74\u5ea6\u3000\u5929\u7adc\u5ddd\u4e0a\u6d41\u7ba1\u5185\u5730\u8cea\u8abf\u67fb\u696d\u52d9","survey_name":"\u5e73\u621025\u5e74\u5ea6\u3000\u5929\u7adc\u5ddd\u4e0a\u6d41\u7ba1\u5185\u5730\u8cea\u8abf\u67fb\u696d\u52d9","client_name":"\u56fd\u571f\u4ea4\u901a\u7701\u3000\u4e2d\u90e8\u5730\u65b9\u6574\u5099\u5c40\u3000\u5929\u7adc\u5ddd\u4e0a\u6d41\u6cb3\u5ddd\u4e8b\u52d9\u6240","boring_xml_url":60,"boring_view_url":1,"soilmap_view_url":null,"soiltest_xml_url":0,"soiltest_view_url":0},{"id":512879,"code":"B4KJ202201001-5415","latitude":"35.757305","longitude":"137.959862","source_code":"CB85704220490010","project_name":"\u5e73\u621025\u5e74\u5ea6\u3000\u5929\u7adc\u5ddd\u4e0a\u6d41\u7ba1\u5185\u5730\u8cea\u8abf\u67fb\u696d\u52d9","survey_name":"\u5e73\u621025\u5e74\u5ea6\u3000\u5929\u7adc\u5ddd\u4e0a\u6d41\u7ba1\u5185\u5730\u8cea\u8abf\u67fb\u696d\u52d9","client_name":"\u56fd\u571f\u4ea4\u901a\u7701\u3000\u4e2d\u90e8\u5730\u65b9\u6574\u5099\u5c40\u3000\u5929\u7adc\u5ddd\u4e0a\u6d41\u6cb3\u5ddd\u4e8b\u52d9\u6240","boring_xml_url":60,"boring_view_url":1,"soilmap_view_url":null,"soiltest_xml_url":0,"soiltest_view_url":0},{"id":512878,"code":"B4KJ202201001-5414","latitude":"35.756194","longitude":"137.958418","source_code":"CB85704220490009","project_name":"\u5e73\u621025\u5e74\u5ea6\u3000\u5929\u7adc\u5ddd\u4e0a\u6d41\u7ba1\u5185\u5730\u8cea\u8abf\u67fb\u696d\u52d9","survey_name":"\u5e73\u621025\u5e74\u5ea6\u3000\u5929\u7adc\u5ddd\u4e0a\u6d41\u7ba1\u5185\u5730\u8cea\u8abf\u67fb\u696d\u52d9","client_name":"\u56fd\u571f\u4ea4\u901a\u7701\u3000\u4e2d\u90e8\u5730\u65b9\u6574\u5099\u5c40\u3000\u5929\u7adc\u5ddd\u4e0a\u6d41\u6cb3\u5ddd\u4e8b\u52d9\u6240","boring_xml_url":60,"boring_view_url":1,"soilmap_view_url":null,"soiltest_xml_url":0,"soiltest_view_url":0},{"id":512877,"code":"B4KJ202201001-5413","latitude":"35.723861","longitude":"137.968862","source_code":"CB85704220490008","project_name":"\u5e73\u621025\u5e74\u5ea6\u3000\u5929\u7adc\u5ddd\u4e0a\u6d41\u7ba1\u5185\u5730\u8cea\u8abf\u67fb\u696d\u52d9","survey_name":"\u5e73\u621025\u5e74\u5ea6\u3000\u5929\u7adc\u5ddd\u4e0a\u6d41\u7ba1\u5185\u5730\u8cea\u8abf\u67fb\u696d\u52d9","client_name":"\u56fd\u571f\u4ea4\u901a\u7701\u3000\u4e2d\u90e8\u5730\u65b9\u6574\u5099\u5c40\u3000\u5929\u7adc\u5ddd\u4e0a\u6d41\u6cb3\u5ddd\u4e8b\u52d9\u6240","boring_xml_url":60,"boring_view_url":1,"soilmap_view_url":null,"soiltest_xml_url":0,"soiltest_view_url":0},{"id":512876,"code":"B4KJ202201001-5412","latitude":"35.723861","longitude":"137.968696","source_code":"CB85704220490007","project_name":"\u5e73\u621025\u5e74\u5ea6\u3000\u5929\u7adc\u5ddd\u4e0a\u6d41\u7ba1\u5185\u5730\u8cea\u8abf\u67fb\u696d\u52d9","survey_name":"\u5e73\u621025\u5e74\u5ea6\u3000\u5929\u7adc\u5ddd\u4e0a\u6d41\u7ba1\u5185\u5730\u8cea\u8abf\u67fb\u696d\u52d9","client_name":"\u56fd\u571f\u4ea4\u901a\u7701\u3000\u4e2d\u90e8\u5730\u65b9\u6574\u5099\u5c40\u3000\u5929\u7adc\u5ddd\u4e0a\u6d41\u6cb3\u5ddd\u4e8b\u52d9\u6240","boring_xml_url":60,"boring_view_url":1,"soilmap_view_url":null,"soiltest_xml_url":0,"soiltest_view_url":0},{"id":512875,"code":"B4KJ202201001-5411","latitude":"35.479416","longitude":"137.842307","source_code":"CB85704220490006","project_name":"\u5e73\u621025\u5e74\u5ea6\u3000\u5929\u7adc\u5ddd\u4e0a\u6d41\u7ba1\u5185\u5730\u8cea\u8abf\u67fb\u696d\u52d9","survey_name":"\u5e73\u621025\u5e74\u5ea6\u3000\u5929\u7adc\u5ddd\u4e0a\u6d41\u7ba1\u5185\u5730\u8cea\u8abf\u67fb\u696d\u52d9","client_name":"\u56fd\u571f\u4ea4\u901a\u7701\u3000\u4e2d\u90e8\u5730\u65b9\u6574\u5099\u5c40\u3000\u5929\u7adc\u5ddd\u4e0a\u6d41\u6cb3\u5ddd\u4e8b\u52d9\u6240","boring_xml_url":60,"boring_view_url":1,"soilmap_view_url":null,"soiltest_xml_url":0,"soiltest_view_url":0},{"id":512874,"code":"B4KJ202201001-5410","latitude":"35.480639","longitude":"137.844112","source_code":"CB85704220490005","project_name":"\u5e73\u621025\u5e74\u5ea6\u3000\u5929\u7adc\u5ddd\u4e0a\u6d41\u7ba1\u5185\u5730\u8cea\u8abf\u67fb\u696d\u52d9","survey_name":"\u5e73\u621025\u5e74\u5ea6\u3000\u5929\u7adc\u5ddd\u4e0a\u6d41\u7ba1\u5185\u5730\u8cea\u8abf\u67fb\u696d\u52d9","client_name":"\u56fd\u571f\u4ea4\u901a\u7701\u3000\u4e2d\u90e8\u5730\u65b9\u6574\u5099\u5c40\u3000\u5929\u7adc\u5ddd\u4e0a\u6d41\u6cb3\u5ddd\u4e8b\u52d9\u6240","boring_xml_url":60,"boring_view_url":1,"soilmap_view_url":null,"soiltest_xml_url":0,"soiltest_view_url":0},{"id":512873,"code":"B4KJ202201001-5409","latitude":"35.480361","longitude":"137.840945","source_code":"CB85704220490004","project_name":"\u5e73\u621025\u5e74\u5ea6\u3000\u5929\u7adc\u5ddd\u4e0a\u6d41\u7ba1\u5185\u5730\u8cea\u8abf\u67fb\u696d\u52d9","survey_name":"\u5e73\u621025\u5e74\u5ea6\u3000\u5929\u7adc\u5ddd\u4e0a\u6d41\u7ba1\u5185\u5730\u8cea\u8abf\u67fb\u696d\u52d9","client_name":"\u56fd\u571f\u4ea4\u901a\u7701\u3000\u4e2d\u90e8\u5730\u65b9\u6574\u5099\u5c40\u3000\u5929\u7adc\u5ddd\u4e0a\u6d41\u6cb3\u5ddd\u4e8b\u52d9\u6240","boring_xml_url":60,"boring_view_url":1,"soilmap_view_url":null,"soiltest_xml_url":0,"soiltest_view_url":0},{"id":512872,"code":"B4KJ202201001-5408","latitude":"35.479389","longitude":"137.840834","source_code":"CB85704220490003","project_name":"\u5e73\u621025\u5e74\u5ea6\u3000\u5929\u7adc\u5ddd\u4e0a\u6d41\u7ba1\u5185\u5730\u8cea\u8abf\u67fb\u696d\u52d9","survey_name":"\u5e73\u621025\u5e74\u5ea6\u3000\u5929\u7adc\u5ddd\u4e0a\u6d41\u7ba1\u5185\u5730\u8cea\u8abf\u67fb\u696d\u52d9","client_name":"\u56fd\u571f\u4ea4\u901a\u7701\u3000\u4e2d\u90e8\u5730\u65b9\u6574\u5099\u5c40\u3000\u5929\u7adc\u5ddd\u4e0a\u6d41\u6cb3\u5ddd\u4e8b\u52d9\u6240","boring_xml_url":60,"boring_view_url":1,"soilmap_view_url":null,"soiltest_xml_url":0,"soiltest_view_url":0},{"id":512871,"code":"B4KJ202201001-5407","latitude":"35.481194","longitude":"137.844529","source_code":"CB85704220490002","project_name":"\u5e73\u621025\u5e74\u5ea6\u3000\u5929\u7adc\u5ddd\u4e0a\u6d41\u7ba1\u5185\u5730\u8cea\u8abf\u67fb\u696d\u52d9","survey_name":"\u5e73\u621025\u5e74\u5ea6\u3000\u5929\u7adc\u5ddd\u4e0a\u6d41\u7ba1\u5185\u5730\u8cea\u8abf\u67fb\u696d\u52d9","client_name":"\u56fd\u571f\u4ea4\u901a\u7701\u3000\u4e2d\u90e8\u5730\u65b9\u6574\u5099\u5c40\u3000\u5929\u7adc\u5ddd\u4e0a\u6d41\u6cb3\u5ddd\u4e8b\u52d9\u6240","boring_xml_url":60,"boring_view_url":1,"soilmap_view_url":null,"soiltest_xml_url":0,"soiltest_view_url":0},{"id":512870,"code":"B4KJ202201001-5406","latitude":"35.480222","longitude":"137.843695","source_code":"CB85704220490001","project_name":"\u5e73\u621025\u5e74\u5ea6\u3000\u5929\u7adc\u5ddd\u4e0a\u6d41\u7ba1\u5185\u5730\u8cea\u8abf\u67fb\u696d\u52d9","survey_name":"\u5e73\u621025\u5e74\u5ea6\u3000\u5929\u7adc\u5ddd\u4e0a\u6d41\u7ba1\u5185\u5730\u8cea\u8abf\u67fb\u696d\u52d9","client_name":"\u56fd\u571f\u4ea4\u901a\u7701\u3000\u4e2d\u90e8\u5730\u65b9\u6574\u5099\u5c40\u3000\u5929\u7adc\u5ddd\u4e0a\u6d41\u6cb3\u5ddd\u4e8b\u52d9\u6240","boring_xml_url":60,"boring_view_url":1,"soilmap_view_url":null,"soiltest_xml_url":0,"soiltest_view_url":0},{"id":512869,"code":"B4KJ202201001-5405","latitude":"35.296055","longitude":"137.93075","source_code":"CB1385704220950010","project_name":"\u5e73\u621025\u5e74\u5ea6\u3000\u5929\u7adc\u5ddd\u6c34\u7cfb\u7ba1\u5185\u5730\u8cea\u8abf\u67fb\u696d\u52d9","survey_name":"\u5e73\u621025\u5e74\u5ea6\u3000\u5929\u7adc\u5ddd\u6c34\u7cfb\u7ba1\u5185\u5730\u8cea\u8abf\u67fb\u696d\u52d9","client_name":"\u56fd\u571f\u4ea4\u901a\u7701\u4e2d\u90e8\u5730\u65b9\u6574\u5099\u5c40\u5929\u7adc\u5ddd\u4e0a\u6d41\u6cb3\u5ddd\u4e8b\u52d9\u6240","boring_xml_url":64,"boring_view_url":1,"soilmap_view_url":null,"soiltest_xml_url":0,"soiltest_view_url":0}]}}