{"header":{"xyz":{"source":[],"mosaic":false},"page":1086,"raw":{"soiltest_result":"0","bbox":"57.598333,109.544722,1.933333,163.806111","page":"1086"},"conditions":{"soiltest_result":0,"north":57.598333,"west":109.544722,"south":1.933333,"east":163.806111},"success":true,"message":""},"data":{"meta":{"total":212844,"page":1086,"pages":7095,"count":30},"values":[{"id":512838,"code":"B4KJ202201001-5374","latitude":"35.033042","longitude":"136.720458","source_code":"CB1385616220520001","project_name":"\"\u5e73\u621025\u5e74\u5ea6 \u6728\u66fd\u4e09\u5ddd\u4e0b\u6d41\u90e8\u9577\u5cf6\u5730\u533a\u5730\u8cea\u8abf\u67fb\"","survey_name":"\"\u5e73\u621025\u5e74\u5ea6 \u6728\u66fd\u4e09\u5ddd\u4e0b\u6d41\u90e8\u9577\u5cf6\u5730\u533a\u5730\u8cea\u8abf\u67fb\"","client_name":"\u56fd\u571f\u4ea4\u901a\u7701\u4e2d\u90e8\u5730\u65b9\u6574\u5099\u5c40\u6728\u66fd\u5ddd\u4e0b\u6d41\u6cb3\u5ddd\u4e8b\u52d9\u6240","boring_xml_url":64,"boring_view_url":1,"soilmap_view_url":null,"soiltest_xml_url":0,"soiltest_view_url":0},{"id":512837,"code":"B4KJ202201001-5373","latitude":"35.190361","longitude":"136.631805","source_code":"CB1385614020870011","project_name":"\"\u5e73\u621025\u5e74\u5ea6 \u6728\u66fd\u5ddd\u4e0b\u6d41\u6851\u540d\u7ba1\u5185\u5730\u8cea\u8abf\u67fb\u696d\u52d9\"","survey_name":"\"\u5e73\u621025\u5e74\u5ea6 \u6728\u66fd\u5ddd\u4e0b\u6d41\u6851\u540d\u7ba1\u5185\u5730\u8cea\u8abf\u67fb\u696d\u52d9\"","client_name":"\"\u56fd\u571f\u4ea4\u901a\u7701\u4e2d\u90e8\u5730\u65b9\u6574\u5099\u5c40 \u6728\u66fd\u5ddd\u4e0b\u6d41\u6cb3\u5ddd\u4e8b\u52d9\u6240\"","boring_xml_url":64,"boring_view_url":1,"soilmap_view_url":null,"soiltest_xml_url":0,"soiltest_view_url":0},{"id":512836,"code":"B4KJ202201001-5372","latitude":"35.190333","longitude":"136.631667","source_code":"CB1385614020870010","project_name":"\"\u5e73\u621025\u5e74\u5ea6 \u6728\u66fd\u5ddd\u4e0b\u6d41\u6851\u540d\u7ba1\u5185\u5730\u8cea\u8abf\u67fb\u696d\u52d9\"","survey_name":"\"\u5e73\u621025\u5e74\u5ea6 \u6728\u66fd\u5ddd\u4e0b\u6d41\u6851\u540d\u7ba1\u5185\u5730\u8cea\u8abf\u67fb\u696d\u52d9\"","client_name":"\"\u56fd\u571f\u4ea4\u901a\u7701\u4e2d\u90e8\u5730\u65b9\u6574\u5099\u5c40 \u6728\u66fd\u5ddd\u4e0b\u6d41\u6cb3\u5ddd\u4e8b\u52d9\u6240\"","boring_xml_url":64,"boring_view_url":1,"soilmap_view_url":null,"soiltest_xml_url":0,"soiltest_view_url":0},{"id":512835,"code":"B4KJ202201001-5371","latitude":"35.190305","longitude":"136.631444","source_code":"CB1385614020870009","project_name":"\"\u5e73\u621025\u5e74\u5ea6 \u6728\u66fd\u5ddd\u4e0b\u6d41\u6851\u540d\u7ba1\u5185\u5730\u8cea\u8abf\u67fb\u696d\u52d9\"","survey_name":"\"\u5e73\u621025\u5e74\u5ea6 \u6728\u66fd\u5ddd\u4e0b\u6d41\u6851\u540d\u7ba1\u5185\u5730\u8cea\u8abf\u67fb\u696d\u52d9\"","client_name":"\"\u56fd\u571f\u4ea4\u901a\u7701\u4e2d\u90e8\u5730\u65b9\u6574\u5099\u5c40 \u6728\u66fd\u5ddd\u4e0b\u6d41\u6cb3\u5ddd\u4e8b\u52d9\u6240\"","boring_xml_url":64,"boring_view_url":1,"soilmap_view_url":null,"soiltest_xml_url":0,"soiltest_view_url":0},{"id":512834,"code":"B4KJ202201001-5370","latitude":"35.171667","longitude":"136.64275","source_code":"CB1385614020870008","project_name":"\"\u5e73\u621025\u5e74\u5ea6 \u6728\u66fd\u5ddd\u4e0b\u6d41\u6851\u540d\u7ba1\u5185\u5730\u8cea\u8abf\u67fb\u696d\u52d9\"","survey_name":"\"\u5e73\u621025\u5e74\u5ea6 \u6728\u66fd\u5ddd\u4e0b\u6d41\u6851\u540d\u7ba1\u5185\u5730\u8cea\u8abf\u67fb\u696d\u52d9\"","client_name":"\"\u56fd\u571f\u4ea4\u901a\u7701\u4e2d\u90e8\u5730\u65b9\u6574\u5099\u5c40 \u6728\u66fd\u5ddd\u4e0b\u6d41\u6cb3\u5ddd\u4e8b\u52d9\u6240\"","boring_xml_url":64,"boring_view_url":1,"soilmap_view_url":null,"soiltest_xml_url":0,"soiltest_view_url":0},{"id":512833,"code":"B4KJ202201001-5369","latitude":"35.050222","longitude":"136.704306","source_code":"CB1385614020870007","project_name":"\"\u5e73\u621025\u5e74\u5ea6 \u6728\u66fd\u5ddd\u4e0b\u6d41\u6851\u540d\u7ba1\u5185\u5730\u8cea\u8abf\u67fb\u696d\u52d9\"","survey_name":"\"\u5e73\u621025\u5e74\u5ea6 \u6728\u66fd\u5ddd\u4e0b\u6d41\u6851\u540d\u7ba1\u5185\u5730\u8cea\u8abf\u67fb\u696d\u52d9\"","client_name":"\"\u56fd\u571f\u4ea4\u901a\u7701\u4e2d\u90e8\u5730\u65b9\u6574\u5099\u5c40 \u6728\u66fd\u5ddd\u4e0b\u6d41\u6cb3\u5ddd\u4e8b\u52d9\u6240\"","boring_xml_url":64,"boring_view_url":1,"soilmap_view_url":null,"soiltest_xml_url":0,"soiltest_view_url":0},{"id":512832,"code":"B4KJ202201001-5368","latitude":"35.05025","longitude":"136.704722","source_code":"CB1385614020870006","project_name":"\"\u5e73\u621025\u5e74\u5ea6 \u6728\u66fd\u5ddd\u4e0b\u6d41\u6851\u540d\u7ba1\u5185\u5730\u8cea\u8abf\u67fb\u696d\u52d9\"","survey_name":"\"\u5e73\u621025\u5e74\u5ea6 \u6728\u66fd\u5ddd\u4e0b\u6d41\u6851\u540d\u7ba1\u5185\u5730\u8cea\u8abf\u67fb\u696d\u52d9\"","client_name":"\"\u56fd\u571f\u4ea4\u901a\u7701\u4e2d\u90e8\u5730\u65b9\u6574\u5099\u5c40 \u6728\u66fd\u5ddd\u4e0b\u6d41\u6cb3\u5ddd\u4e8b\u52d9\u6240\"","boring_xml_url":64,"boring_view_url":1,"soilmap_view_url":null,"soiltest_xml_url":0,"soiltest_view_url":0},{"id":512831,"code":"B4KJ202201001-5367","latitude":"35.049278","longitude":"136.71775","source_code":"CB1385614020870005","project_name":"\"\u5e73\u621025\u5e74\u5ea6 \u6728\u66fd\u5ddd\u4e0b\u6d41\u6851\u540d\u7ba1\u5185\u5730\u8cea\u8abf\u67fb\u696d\u52d9\"","survey_name":"\"\u5e73\u621025\u5e74\u5ea6 \u6728\u66fd\u5ddd\u4e0b\u6d41\u6851\u540d\u7ba1\u5185\u5730\u8cea\u8abf\u67fb\u696d\u52d9\"","client_name":"\"\u56fd\u571f\u4ea4\u901a\u7701\u4e2d\u90e8\u5730\u65b9\u6574\u5099\u5c40 \u6728\u66fd\u5ddd\u4e0b\u6d41\u6cb3\u5ddd\u4e8b\u52d9\u6240\"","boring_xml_url":64,"boring_view_url":1,"soilmap_view_url":null,"soiltest_xml_url":0,"soiltest_view_url":0},{"id":512830,"code":"B4KJ202201001-5366","latitude":"35.049194","longitude":"136.717389","source_code":"CB1385614020870004","project_name":"\"\u5e73\u621025\u5e74\u5ea6 \u6728\u66fd\u5ddd\u4e0b\u6d41\u6851\u540d\u7ba1\u5185\u5730\u8cea\u8abf\u67fb\u696d\u52d9\"","survey_name":"\"\u5e73\u621025\u5e74\u5ea6 \u6728\u66fd\u5ddd\u4e0b\u6d41\u6851\u540d\u7ba1\u5185\u5730\u8cea\u8abf\u67fb\u696d\u52d9\"","client_name":"\"\u56fd\u571f\u4ea4\u901a\u7701\u4e2d\u90e8\u5730\u65b9\u6574\u5099\u5c40 \u6728\u66fd\u5ddd\u4e0b\u6d41\u6cb3\u5ddd\u4e8b\u52d9\u6240\"","boring_xml_url":64,"boring_view_url":1,"soilmap_view_url":null,"soiltest_xml_url":0,"soiltest_view_url":0},{"id":512829,"code":"B4KJ202201001-5365","latitude":"35.042972","longitude":"136.718083","source_code":"CB1385614020870003","project_name":"\"\u5e73\u621025\u5e74\u5ea6 \u6728\u66fd\u5ddd\u4e0b\u6d41\u6851\u540d\u7ba1\u5185\u5730\u8cea\u8abf\u67fb\u696d\u52d9\"","survey_name":"\"\u5e73\u621025\u5e74\u5ea6 \u6728\u66fd\u5ddd\u4e0b\u6d41\u6851\u540d\u7ba1\u5185\u5730\u8cea\u8abf\u67fb\u696d\u52d9\"","client_name":"\"\u56fd\u571f\u4ea4\u901a\u7701\u4e2d\u90e8\u5730\u65b9\u6574\u5099\u5c40 \u6728\u66fd\u5ddd\u4e0b\u6d41\u6cb3\u5ddd\u4e8b\u52d9\u6240\"","boring_xml_url":64,"boring_view_url":1,"soilmap_view_url":null,"soiltest_xml_url":0,"soiltest_view_url":0},{"id":512828,"code":"B4KJ202201001-5364","latitude":"35.042861","longitude":"136.717722","source_code":"CB1385614020870002","project_name":"\"\u5e73\u621025\u5e74\u5ea6 \u6728\u66fd\u5ddd\u4e0b\u6d41\u6851\u540d\u7ba1\u5185\u5730\u8cea\u8abf\u67fb\u696d\u52d9\"","survey_name":"\"\u5e73\u621025\u5e74\u5ea6 \u6728\u66fd\u5ddd\u4e0b\u6d41\u6851\u540d\u7ba1\u5185\u5730\u8cea\u8abf\u67fb\u696d\u52d9\"","client_name":"\"\u56fd\u571f\u4ea4\u901a\u7701\u4e2d\u90e8\u5730\u65b9\u6574\u5099\u5c40 \u6728\u66fd\u5ddd\u4e0b\u6d41\u6cb3\u5ddd\u4e8b\u52d9\u6240\"","boring_xml_url":64,"boring_view_url":1,"soilmap_view_url":null,"soiltest_xml_url":0,"soiltest_view_url":0},{"id":512827,"code":"B4KJ202201001-5363","latitude":"35.038444","longitude":"136.719139","source_code":"CB1385614020870001","project_name":"\"\u5e73\u621025\u5e74\u5ea6 \u6728\u66fd\u5ddd\u4e0b\u6d41\u6851\u540d\u7ba1\u5185\u5730\u8cea\u8abf\u67fb\u696d\u52d9\"","survey_name":"\"\u5e73\u621025\u5e74\u5ea6 \u6728\u66fd\u5ddd\u4e0b\u6d41\u6851\u540d\u7ba1\u5185\u5730\u8cea\u8abf\u67fb\u696d\u52d9\"","client_name":"\"\u56fd\u571f\u4ea4\u901a\u7701\u4e2d\u90e8\u5730\u65b9\u6574\u5099\u5c40 \u6728\u66fd\u5ddd\u4e0b\u6d41\u6cb3\u5ddd\u4e8b\u52d9\u6240\"","boring_xml_url":64,"boring_view_url":1,"soilmap_view_url":null,"soiltest_xml_url":0,"soiltest_view_url":0},{"id":512826,"code":"B4KJ202201001-5362","latitude":"35.092881","longitude":"137.561419","source_code":"CB1385574020550010","project_name":"\u5e73\u621025\u5e74\u5ea6\u3000\u8a2d\u697d\u30c0\u30e0\u702c\u6238\u8a2d\u697d\u7dda\u6a4b\u6881\u7530\u53e3\u5de5\u533a\u5730\u8cea\u8abf\u67fb\u696d\u52d9","survey_name":"\u5e73\u621025\u5e74\u5ea6\u3000\u8a2d\u697d\u30c0\u30e0\u702c\u6238\u8a2d\u697d\u7dda\u6a4b\u6881\u7530\u53e3\u5de5\u533a\u5730\u8cea\u8abf\u67fb\u696d\u52d9","client_name":"\u56fd\u571f\u4ea4\u901a\u7701\u3000\u4e2d\u90e8\u5730\u65b9\u6574\u5099\u5c40\u3000\u8a2d\u697d\u30c0\u30e0\u5de5\u4e8b\u4e8b\u52d9\u6240","boring_xml_url":64,"boring_view_url":1,"soilmap_view_url":null,"soiltest_xml_url":0,"soiltest_view_url":0},{"id":512825,"code":"B4KJ202201001-5361","latitude":"35.092983","longitude":"137.560942","source_code":"CB1385574020550009","project_name":"\u5e73\u621025\u5e74\u5ea6\u3000\u8a2d\u697d\u30c0\u30e0\u702c\u6238\u8a2d\u697d\u7dda\u6a4b\u6881\u7530\u53e3\u5de5\u533a\u5730\u8cea\u8abf\u67fb\u696d\u52d9","survey_name":"\u5e73\u621025\u5e74\u5ea6\u3000\u8a2d\u697d\u30c0\u30e0\u702c\u6238\u8a2d\u697d\u7dda\u6a4b\u6881\u7530\u53e3\u5de5\u533a\u5730\u8cea\u8abf\u67fb\u696d\u52d9","client_name":"\u56fd\u571f\u4ea4\u901a\u7701\u3000\u4e2d\u90e8\u5730\u65b9\u6574\u5099\u5c40\u3000\u8a2d\u697d\u30c0\u30e0\u5de5\u4e8b\u4e8b\u52d9\u6240","boring_xml_url":64,"boring_view_url":1,"soilmap_view_url":null,"soiltest_xml_url":0,"soiltest_view_url":0},{"id":512824,"code":"B4KJ202201001-5360","latitude":"35.093631","longitude":"137.560469","source_code":"CB1385574020550008","project_name":"\u5e73\u621025\u5e74\u5ea6\u3000\u8a2d\u697d\u30c0\u30e0\u702c\u6238\u8a2d\u697d\u7dda\u6a4b\u6881\u7530\u53e3\u5de5\u533a\u5730\u8cea\u8abf\u67fb\u696d\u52d9","survey_name":"\u5e73\u621025\u5e74\u5ea6\u3000\u8a2d\u697d\u30c0\u30e0\u702c\u6238\u8a2d\u697d\u7dda\u6a4b\u6881\u7530\u53e3\u5de5\u533a\u5730\u8cea\u8abf\u67fb\u696d\u52d9","client_name":"\u56fd\u571f\u4ea4\u901a\u7701\u3000\u4e2d\u90e8\u5730\u65b9\u6574\u5099\u5c40\u3000\u8a2d\u697d\u30c0\u30e0\u5de5\u4e8b\u4e8b\u52d9\u6240","boring_xml_url":64,"boring_view_url":1,"soilmap_view_url":null,"soiltest_xml_url":0,"soiltest_view_url":0},{"id":512823,"code":"B4KJ202201001-5359","latitude":"35.093856","longitude":"137.560183","source_code":"CB1385574020550007","project_name":"\u5e73\u621025\u5e74\u5ea6\u3000\u8a2d\u697d\u30c0\u30e0\u702c\u6238\u8a2d\u697d\u7dda\u6a4b\u6881\u7530\u53e3\u5de5\u533a\u5730\u8cea\u8abf\u67fb\u696d\u52d9","survey_name":"\u5e73\u621025\u5e74\u5ea6\u3000\u8a2d\u697d\u30c0\u30e0\u702c\u6238\u8a2d\u697d\u7dda\u6a4b\u6881\u7530\u53e3\u5de5\u533a\u5730\u8cea\u8abf\u67fb\u696d\u52d9","client_name":"\u56fd\u571f\u4ea4\u901a\u7701\u3000\u4e2d\u90e8\u5730\u65b9\u6574\u5099\u5c40\u3000\u8a2d\u697d\u30c0\u30e0\u5de5\u4e8b\u4e8b\u52d9\u6240","boring_xml_url":64,"boring_view_url":1,"soilmap_view_url":null,"soiltest_xml_url":0,"soiltest_view_url":0},{"id":512822,"code":"B4KJ202201001-5358","latitude":"35.092397","longitude":"137.561522","source_code":"CB1385574020550006","project_name":"\u5e73\u621025\u5e74\u5ea6\u3000\u8a2d\u697d\u30c0\u30e0\u702c\u6238\u8a2d\u697d\u7dda\u6a4b\u6881\u7530\u53e3\u5de5\u533a\u5730\u8cea\u8abf\u67fb\u696d\u52d9","survey_name":"\u5e73\u621025\u5e74\u5ea6\u3000\u8a2d\u697d\u30c0\u30e0\u702c\u6238\u8a2d\u697d\u7dda\u6a4b\u6881\u7530\u53e3\u5de5\u533a\u5730\u8cea\u8abf\u67fb\u696d\u52d9","client_name":"\u56fd\u571f\u4ea4\u901a\u7701\u3000\u4e2d\u90e8\u5730\u65b9\u6574\u5099\u5c40\u3000\u8a2d\u697d\u30c0\u30e0\u5de5\u4e8b\u4e8b\u52d9\u6240","boring_xml_url":64,"boring_view_url":1,"soilmap_view_url":null,"soiltest_xml_url":0,"soiltest_view_url":0},{"id":512821,"code":"B4KJ202201001-5357","latitude":"35.092722","longitude":"137.560925","source_code":"CB1385574020550005","project_name":"\u5e73\u621025\u5e74\u5ea6\u3000\u8a2d\u697d\u30c0\u30e0\u702c\u6238\u8a2d\u697d\u7dda\u6a4b\u6881\u7530\u53e3\u5de5\u533a\u5730\u8cea\u8abf\u67fb\u696d\u52d9","survey_name":"\u5e73\u621025\u5e74\u5ea6\u3000\u8a2d\u697d\u30c0\u30e0\u702c\u6238\u8a2d\u697d\u7dda\u6a4b\u6881\u7530\u53e3\u5de5\u533a\u5730\u8cea\u8abf\u67fb\u696d\u52d9","client_name":"\u56fd\u571f\u4ea4\u901a\u7701\u3000\u4e2d\u90e8\u5730\u65b9\u6574\u5099\u5c40\u3000\u8a2d\u697d\u30c0\u30e0\u5de5\u4e8b\u4e8b\u52d9\u6240","boring_xml_url":64,"boring_view_url":1,"soilmap_view_url":null,"soiltest_xml_url":0,"soiltest_view_url":0},{"id":512820,"code":"B4KJ202201001-5356","latitude":"35.092989","longitude":"137.560433","source_code":"CB1385574020550004","project_name":"\u5e73\u621025\u5e74\u5ea6\u3000\u8a2d\u697d\u30c0\u30e0\u702c\u6238\u8a2d\u697d\u7dda\u6a4b\u6881\u7530\u53e3\u5de5\u533a\u5730\u8cea\u8abf\u67fb\u696d\u52d9","survey_name":"\u5e73\u621025\u5e74\u5ea6\u3000\u8a2d\u697d\u30c0\u30e0\u702c\u6238\u8a2d\u697d\u7dda\u6a4b\u6881\u7530\u53e3\u5de5\u533a\u5730\u8cea\u8abf\u67fb\u696d\u52d9","client_name":"\u56fd\u571f\u4ea4\u901a\u7701\u3000\u4e2d\u90e8\u5730\u65b9\u6574\u5099\u5c40\u3000\u8a2d\u697d\u30c0\u30e0\u5de5\u4e8b\u4e8b\u52d9\u6240","boring_xml_url":64,"boring_view_url":1,"soilmap_view_url":null,"soiltest_xml_url":0,"soiltest_view_url":0},{"id":512819,"code":"B4KJ202201001-5355","latitude":"35.091919","longitude":"137.561369","source_code":"CB1385574020550003","project_name":"\u5e73\u621025\u5e74\u5ea6\u3000\u8a2d\u697d\u30c0\u30e0\u702c\u6238\u8a2d\u697d\u7dda\u6a4b\u6881\u7530\u53e3\u5de5\u533a\u5730\u8cea\u8abf\u67fb\u696d\u52d9","survey_name":"\u5e73\u621025\u5e74\u5ea6\u3000\u8a2d\u697d\u30c0\u30e0\u702c\u6238\u8a2d\u697d\u7dda\u6a4b\u6881\u7530\u53e3\u5de5\u533a\u5730\u8cea\u8abf\u67fb\u696d\u52d9","client_name":"\u56fd\u571f\u4ea4\u901a\u7701\u3000\u4e2d\u90e8\u5730\u65b9\u6574\u5099\u5c40\u3000\u8a2d\u697d\u30c0\u30e0\u5de5\u4e8b\u4e8b\u52d9\u6240","boring_xml_url":64,"boring_view_url":1,"soilmap_view_url":null,"soiltest_xml_url":0,"soiltest_view_url":0},{"id":512818,"code":"B4KJ202201001-5354","latitude":"35.092194","longitude":"137.560811","source_code":"CB1385574020550002","project_name":"\u5e73\u621025\u5e74\u5ea6\u3000\u8a2d\u697d\u30c0\u30e0\u702c\u6238\u8a2d\u697d\u7dda\u6a4b\u6881\u7530\u53e3\u5de5\u533a\u5730\u8cea\u8abf\u67fb\u696d\u52d9","survey_name":"\u5e73\u621025\u5e74\u5ea6\u3000\u8a2d\u697d\u30c0\u30e0\u702c\u6238\u8a2d\u697d\u7dda\u6a4b\u6881\u7530\u53e3\u5de5\u533a\u5730\u8cea\u8abf\u67fb\u696d\u52d9","client_name":"\u56fd\u571f\u4ea4\u901a\u7701\u3000\u4e2d\u90e8\u5730\u65b9\u6574\u5099\u5c40\u3000\u8a2d\u697d\u30c0\u30e0\u5de5\u4e8b\u4e8b\u52d9\u6240","boring_xml_url":64,"boring_view_url":1,"soilmap_view_url":null,"soiltest_xml_url":0,"soiltest_view_url":0},{"id":512817,"code":"B4KJ202201001-5353","latitude":"35.092433","longitude":"137.560328","source_code":"CB1385574020550001","project_name":"\u5e73\u621025\u5e74\u5ea6\u3000\u8a2d\u697d\u30c0\u30e0\u702c\u6238\u8a2d\u697d\u7dda\u6a4b\u6881\u7530\u53e3\u5de5\u533a\u5730\u8cea\u8abf\u67fb\u696d\u52d9","survey_name":"\u5e73\u621025\u5e74\u5ea6\u3000\u8a2d\u697d\u30c0\u30e0\u702c\u6238\u8a2d\u697d\u7dda\u6a4b\u6881\u7530\u53e3\u5de5\u533a\u5730\u8cea\u8abf\u67fb\u696d\u52d9","client_name":"\u56fd\u571f\u4ea4\u901a\u7701\u3000\u4e2d\u90e8\u5730\u65b9\u6574\u5099\u5c40\u3000\u8a2d\u697d\u30c0\u30e0\u5de5\u4e8b\u4e8b\u52d9\u6240","boring_xml_url":64,"boring_view_url":1,"soilmap_view_url":null,"soiltest_xml_url":0,"soiltest_view_url":0},{"id":512816,"code":"B4KJ202201001-5352","latitude":"35.091194","longitude":"137.563556","source_code":"CB1385574020540007","project_name":"\u5e73\u621025\u5e74\u5ea6\u3000\u8a2d\u697d\u30c0\u30e0\u702c\u6238\u8a2d\u697d\u7dda\u7530\u53e3\u5de5\u533a\u5730\u8cea\u8abf\u67fb\u696d\u52d9","survey_name":"\u5e73\u621025\u5e74\u5ea6\u3000\u8a2d\u697d\u30c0\u30e0\u702c\u6238\u8a2d\u697d\u7dda\u7530\u53e3\u5de5\u533a\u5730\u8cea\u8abf\u67fb\u696d\u52d9","client_name":"\"\u56fd\u571f\u4ea4\u901a\u7701 \u4e2d\u90e8\u5730\u65b9\u6574\u5099\u5c40 \u8a2d\u697d\u30c0\u30e0\u5de5\u4e8b\u4e8b\u52d9\u6240\"","boring_xml_url":64,"boring_view_url":1,"soilmap_view_url":null,"soiltest_xml_url":0,"soiltest_view_url":0},{"id":512815,"code":"B4KJ202201001-5351","latitude":"35.091361","longitude":"137.56325","source_code":"CB1385574020540006","project_name":"\u5e73\u621025\u5e74\u5ea6\u3000\u8a2d\u697d\u30c0\u30e0\u702c\u6238\u8a2d\u697d\u7dda\u7530\u53e3\u5de5\u533a\u5730\u8cea\u8abf\u67fb\u696d\u52d9","survey_name":"\u5e73\u621025\u5e74\u5ea6\u3000\u8a2d\u697d\u30c0\u30e0\u702c\u6238\u8a2d\u697d\u7dda\u7530\u53e3\u5de5\u533a\u5730\u8cea\u8abf\u67fb\u696d\u52d9","client_name":"\"\u56fd\u571f\u4ea4\u901a\u7701 \u4e2d\u90e8\u5730\u65b9\u6574\u5099\u5c40 \u8a2d\u697d\u30c0\u30e0\u5de5\u4e8b\u4e8b\u52d9\u6240\"","boring_xml_url":64,"boring_view_url":1,"soilmap_view_url":null,"soiltest_xml_url":0,"soiltest_view_url":0},{"id":512814,"code":"B4KJ202201001-5350","latitude":"35.091611","longitude":"137.563028","source_code":"CB1385574020540005","project_name":"\u5e73\u621025\u5e74\u5ea6\u3000\u8a2d\u697d\u30c0\u30e0\u702c\u6238\u8a2d\u697d\u7dda\u7530\u53e3\u5de5\u533a\u5730\u8cea\u8abf\u67fb\u696d\u52d9","survey_name":"\u5e73\u621025\u5e74\u5ea6\u3000\u8a2d\u697d\u30c0\u30e0\u702c\u6238\u8a2d\u697d\u7dda\u7530\u53e3\u5de5\u533a\u5730\u8cea\u8abf\u67fb\u696d\u52d9","client_name":"\"\u56fd\u571f\u4ea4\u901a\u7701 \u4e2d\u90e8\u5730\u65b9\u6574\u5099\u5c40 \u8a2d\u697d\u30c0\u30e0\u5de5\u4e8b\u4e8b\u52d9\u6240\"","boring_xml_url":64,"boring_view_url":1,"soilmap_view_url":null,"soiltest_xml_url":0,"soiltest_view_url":0},{"id":512813,"code":"B4KJ202201001-5349","latitude":"35.091389","longitude":"137.563361","source_code":"CB1385574020540004","project_name":"\u5e73\u621025\u5e74\u5ea6\u3000\u8a2d\u697d\u30c0\u30e0\u702c\u6238\u8a2d\u697d\u7dda\u7530\u53e3\u5de5\u533a\u5730\u8cea\u8abf\u67fb\u696d\u52d9","survey_name":"\u5e73\u621025\u5e74\u5ea6\u3000\u8a2d\u697d\u30c0\u30e0\u702c\u6238\u8a2d\u697d\u7dda\u7530\u53e3\u5de5\u533a\u5730\u8cea\u8abf\u67fb\u696d\u52d9","client_name":"\"\u56fd\u571f\u4ea4\u901a\u7701 \u4e2d\u90e8\u5730\u65b9\u6574\u5099\u5c40 \u8a2d\u697d\u30c0\u30e0\u5de5\u4e8b\u4e8b\u52d9\u6240\"","boring_xml_url":64,"boring_view_url":1,"soilmap_view_url":null,"soiltest_xml_url":0,"soiltest_view_url":0},{"id":512812,"code":"B4KJ202201001-5348","latitude":"35.092861","longitude":"137.561444","source_code":"CB1385574020540003","project_name":"\u5e73\u621025\u5e74\u5ea6\u3000\u8a2d\u697d\u30c0\u30e0\u702c\u6238\u8a2d\u697d\u7dda\u7530\u53e3\u5de5\u533a\u5730\u8cea\u8abf\u67fb\u696d\u52d9","survey_name":"\u5e73\u621025\u5e74\u5ea6\u3000\u8a2d\u697d\u30c0\u30e0\u702c\u6238\u8a2d\u697d\u7dda\u7530\u53e3\u5de5\u533a\u5730\u8cea\u8abf\u67fb\u696d\u52d9","client_name":"\"\u56fd\u571f\u4ea4\u901a\u7701 \u4e2d\u90e8\u5730\u65b9\u6574\u5099\u5c40 \u8a2d\u697d\u30c0\u30e0\u5de5\u4e8b\u4e8b\u52d9\u6240\"","boring_xml_url":64,"boring_view_url":1,"soilmap_view_url":null,"soiltest_xml_url":0,"soiltest_view_url":0},{"id":512811,"code":"B4KJ202201001-5347","latitude":"35.091722","longitude":"137.562889","source_code":"CB1385574020540002","project_name":"\u5e73\u621025\u5e74\u5ea6\u3000\u8a2d\u697d\u30c0\u30e0\u702c\u6238\u8a2d\u697d\u7dda\u7530\u53e3\u5de5\u533a\u5730\u8cea\u8abf\u67fb\u696d\u52d9","survey_name":"\u5e73\u621025\u5e74\u5ea6\u3000\u8a2d\u697d\u30c0\u30e0\u702c\u6238\u8a2d\u697d\u7dda\u7530\u53e3\u5de5\u533a\u5730\u8cea\u8abf\u67fb\u696d\u52d9","client_name":"\"\u56fd\u571f\u4ea4\u901a\u7701 \u4e2d\u90e8\u5730\u65b9\u6574\u5099\u5c40 \u8a2d\u697d\u30c0\u30e0\u5de5\u4e8b\u4e8b\u52d9\u6240\"","boring_xml_url":64,"boring_view_url":1,"soilmap_view_url":null,"soiltest_xml_url":0,"soiltest_view_url":0},{"id":512810,"code":"B4KJ202201001-5346","latitude":"35.092778","longitude":"137.561611","source_code":"CB1385574020540001","project_name":"\u5e73\u621025\u5e74\u5ea6\u3000\u8a2d\u697d\u30c0\u30e0\u702c\u6238\u8a2d\u697d\u7dda\u7530\u53e3\u5de5\u533a\u5730\u8cea\u8abf\u67fb\u696d\u52d9","survey_name":"\u5e73\u621025\u5e74\u5ea6\u3000\u8a2d\u697d\u30c0\u30e0\u702c\u6238\u8a2d\u697d\u7dda\u7530\u53e3\u5de5\u533a\u5730\u8cea\u8abf\u67fb\u696d\u52d9","client_name":"\"\u56fd\u571f\u4ea4\u901a\u7701 \u4e2d\u90e8\u5730\u65b9\u6574\u5099\u5c40 \u8a2d\u697d\u30c0\u30e0\u5de5\u4e8b\u4e8b\u52d9\u6240\"","boring_xml_url":64,"boring_view_url":1,"soilmap_view_url":null,"soiltest_xml_url":0,"soiltest_view_url":0},{"id":512809,"code":"B4KJ202201001-5345","latitude":"35.105775","longitude":"137.574178","source_code":"CB1385574020380025","project_name":"","survey_name":"\"\u5e73\u621025\u5e74\u5ea6 \u8a2d\u697d\u30c0\u30e0\u8a2d\u697d\u6839\u7fbd\u7dda\u5de5\u533a\u5730\u8cea\u8abf\u67fb\"","client_name":"\"\u56fd\u571f\u4ea4\u901a\u7701 \u4e2d\u90e8\u5730\u65b9\u6574\u5099\u5c40 \u8a2d\u697d\u30c0\u30e0\u5de5\u4e8b\u4e8b\u52d9\u6240\"","boring_xml_url":64,"boring_view_url":1,"soilmap_view_url":null,"soiltest_xml_url":0,"soiltest_view_url":0}]}}