{"header":{"xyz":{"source":[],"mosaic":false},"page":1088,"raw":{"soiltest_result":"0","bbox":"57.598333,109.544722,1.933333,163.806111","page":"1088"},"conditions":{"soiltest_result":0,"north":57.598333,"west":109.544722,"south":1.933333,"east":163.806111},"success":true,"message":""},"data":{"meta":{"total":212844,"page":1088,"pages":7095,"count":30},"values":[{"id":512778,"code":"B4KJ202201001-5314","latitude":"35.104156","longitude":"137.579066","source_code":"CB1385574020260009","project_name":"","survey_name":"\u5e73\u621025\u5e74\u5ea6\u3000\u8a2d\u697d\u30c0\u30e0\u8a2d\u697d\u6839\u7fbd\u7dda\u5730\u8cea\u8abf\u67fb","client_name":"\u56fd\u571f\u4ea4\u901a\u7701\u4e2d\u90e8\u5730\u65b9\u6574\u5099\u5c40\u8a2d\u697d\u30c0\u30e0\u5de5\u4e8b\u4e8b\u52d9\u6240","boring_xml_url":64,"boring_view_url":1,"soilmap_view_url":null,"soiltest_xml_url":0,"soiltest_view_url":0},{"id":512777,"code":"B4KJ202201001-5313","latitude":"35.10415","longitude":"137.578918","source_code":"CB1385574020260008","project_name":"","survey_name":"\u5e73\u621025\u5e74\u5ea6\u3000\u8a2d\u697d\u30c0\u30e0\u8a2d\u697d\u6839\u7fbd\u7dda\u5730\u8cea\u8abf\u67fb","client_name":"\u56fd\u571f\u4ea4\u901a\u7701\u4e2d\u90e8\u5730\u65b9\u6574\u5099\u5c40\u8a2d\u697d\u30c0\u30e0\u5de5\u4e8b\u4e8b\u52d9\u6240","boring_xml_url":64,"boring_view_url":1,"soilmap_view_url":null,"soiltest_xml_url":0,"soiltest_view_url":0},{"id":512776,"code":"B4KJ202201001-5312","latitude":"35.113904","longitude":"137.584576","source_code":"CB1385574020260007","project_name":"","survey_name":"\u5e73\u621025\u5e74\u5ea6\u3000\u8a2d\u697d\u30c0\u30e0\u8a2d\u697d\u6839\u7fbd\u7dda\u5730\u8cea\u8abf\u67fb","client_name":"\u56fd\u571f\u4ea4\u901a\u7701\u4e2d\u90e8\u5730\u65b9\u6574\u5099\u5c40\u8a2d\u697d\u30c0\u30e0\u5de5\u4e8b\u4e8b\u52d9\u6240","boring_xml_url":64,"boring_view_url":1,"soilmap_view_url":null,"soiltest_xml_url":0,"soiltest_view_url":0},{"id":512775,"code":"B4KJ202201001-5311","latitude":"35.113973","longitude":"137.584164","source_code":"CB1385574020260006","project_name":"","survey_name":"\u5e73\u621025\u5e74\u5ea6\u3000\u8a2d\u697d\u30c0\u30e0\u8a2d\u697d\u6839\u7fbd\u7dda\u5730\u8cea\u8abf\u67fb","client_name":"\u56fd\u571f\u4ea4\u901a\u7701\u4e2d\u90e8\u5730\u65b9\u6574\u5099\u5c40\u8a2d\u697d\u30c0\u30e0\u5de5\u4e8b\u4e8b\u52d9\u6240","boring_xml_url":64,"boring_view_url":1,"soilmap_view_url":null,"soiltest_xml_url":0,"soiltest_view_url":0},{"id":512774,"code":"B4KJ202201001-5310","latitude":"35.113516","longitude":"137.584031","source_code":"CB1385574020260005","project_name":"","survey_name":"\u5e73\u621025\u5e74\u5ea6\u3000\u8a2d\u697d\u30c0\u30e0\u8a2d\u697d\u6839\u7fbd\u7dda\u5730\u8cea\u8abf\u67fb","client_name":"\u56fd\u571f\u4ea4\u901a\u7701\u4e2d\u90e8\u5730\u65b9\u6574\u5099\u5c40\u8a2d\u697d\u30c0\u30e0\u5de5\u4e8b\u4e8b\u52d9\u6240","boring_xml_url":64,"boring_view_url":1,"soilmap_view_url":null,"soiltest_xml_url":0,"soiltest_view_url":0},{"id":512773,"code":"B4KJ202201001-5309","latitude":"35.113347","longitude":"137.584153","source_code":"CB1385574020260004","project_name":"","survey_name":"\u5e73\u621025\u5e74\u5ea6\u3000\u8a2d\u697d\u30c0\u30e0\u8a2d\u697d\u6839\u7fbd\u7dda\u5730\u8cea\u8abf\u67fb","client_name":"\u56fd\u571f\u4ea4\u901a\u7701\u4e2d\u90e8\u5730\u65b9\u6574\u5099\u5c40\u8a2d\u697d\u30c0\u30e0\u5de5\u4e8b\u4e8b\u52d9\u6240","boring_xml_url":64,"boring_view_url":1,"soilmap_view_url":null,"soiltest_xml_url":0,"soiltest_view_url":0},{"id":512772,"code":"B4KJ202201001-5308","latitude":"35.113143","longitude":"137.584056","source_code":"CB1385574020260003","project_name":"","survey_name":"\u5e73\u621025\u5e74\u5ea6\u3000\u8a2d\u697d\u30c0\u30e0\u8a2d\u697d\u6839\u7fbd\u7dda\u5730\u8cea\u8abf\u67fb","client_name":"\u56fd\u571f\u4ea4\u901a\u7701\u4e2d\u90e8\u5730\u65b9\u6574\u5099\u5c40\u8a2d\u697d\u30c0\u30e0\u5de5\u4e8b\u4e8b\u52d9\u6240","boring_xml_url":64,"boring_view_url":1,"soilmap_view_url":null,"soiltest_xml_url":0,"soiltest_view_url":0},{"id":512771,"code":"B4KJ202201001-5307","latitude":"35.108777","longitude":"137.58198","source_code":"CB1385574020260002","project_name":"","survey_name":"\u5e73\u621025\u5e74\u5ea6\u3000\u8a2d\u697d\u30c0\u30e0\u8a2d\u697d\u6839\u7fbd\u7dda\u5730\u8cea\u8abf\u67fb","client_name":"\u56fd\u571f\u4ea4\u901a\u7701\u4e2d\u90e8\u5730\u65b9\u6574\u5099\u5c40\u8a2d\u697d\u30c0\u30e0\u5de5\u4e8b\u4e8b\u52d9\u6240","boring_xml_url":64,"boring_view_url":1,"soilmap_view_url":null,"soiltest_xml_url":0,"soiltest_view_url":0},{"id":512770,"code":"B4KJ202201001-5306","latitude":"35.108306","longitude":"137.581803","source_code":"CB1385574020260001","project_name":"","survey_name":"\u5e73\u621025\u5e74\u5ea6\u3000\u8a2d\u697d\u30c0\u30e0\u8a2d\u697d\u6839\u7fbd\u7dda\u5730\u8cea\u8abf\u67fb","client_name":"\u56fd\u571f\u4ea4\u901a\u7701\u4e2d\u90e8\u5730\u65b9\u6574\u5099\u5c40\u8a2d\u697d\u30c0\u30e0\u5de5\u4e8b\u4e8b\u52d9\u6240","boring_xml_url":64,"boring_view_url":1,"soilmap_view_url":null,"soiltest_xml_url":0,"soiltest_view_url":0},{"id":512769,"code":"B4KJ202201001-5305","latitude":"35.150111","longitude":"136.828556","source_code":"CB1385504020260010","project_name":"\u5e73\u621025\u5e74\u5ea6\u3000\u5e84\u5185\u5ddd\u5730\u8cea\u8abf\u67fb","survey_name":"\u5e73\u621025\u5e74\u5ea6\u3000\u5e84\u5185\u5ddd\u5730\u8cea\u8abf\u67fb","client_name":"\u56fd\u571f\u4ea4\u901a\u7701\u3000\u4e2d\u90e8\u5730\u65b9\u6574\u5099\u5c40\u3000\u5e84\u5185\u5ddd\u6cb3\u5ddd\u4e8b\u52d9\u6240","boring_xml_url":64,"boring_view_url":1,"soilmap_view_url":null,"soiltest_xml_url":0,"soiltest_view_url":0},{"id":512768,"code":"B4KJ202201001-5304","latitude":"35.133639","longitude":"136.8385","source_code":"CB1385504020260009","project_name":"\u5e73\u621025\u5e74\u5ea6\u3000\u5e84\u5185\u5ddd\u5730\u8cea\u8abf\u67fb","survey_name":"\u5e73\u621025\u5e74\u5ea6\u3000\u5e84\u5185\u5ddd\u5730\u8cea\u8abf\u67fb","client_name":"\u56fd\u571f\u4ea4\u901a\u7701\u3000\u4e2d\u90e8\u5730\u65b9\u6574\u5099\u5c40\u3000\u5e84\u5185\u5ddd\u6cb3\u5ddd\u4e8b\u52d9\u6240","boring_xml_url":64,"boring_view_url":1,"soilmap_view_url":null,"soiltest_xml_url":0,"soiltest_view_url":0},{"id":512767,"code":"B4KJ202201001-5303","latitude":"35.132556","longitude":"136.838361","source_code":"CB1385504020260008","project_name":"\u5e73\u621025\u5e74\u5ea6\u3000\u5e84\u5185\u5ddd\u5730\u8cea\u8abf\u67fb","survey_name":"\u5e73\u621025\u5e74\u5ea6\u3000\u5e84\u5185\u5ddd\u5730\u8cea\u8abf\u67fb","client_name":"\u56fd\u571f\u4ea4\u901a\u7701\u3000\u4e2d\u90e8\u5730\u65b9\u6574\u5099\u5c40\u3000\u5e84\u5185\u5ddd\u6cb3\u5ddd\u4e8b\u52d9\u6240","boring_xml_url":64,"boring_view_url":1,"soilmap_view_url":null,"soiltest_xml_url":0,"soiltest_view_url":0},{"id":512766,"code":"B4KJ202201001-5302","latitude":"35.151778","longitude":"136.836917","source_code":"CB1385504020260007","project_name":"\u5e73\u621025\u5e74\u5ea6\u3000\u5e84\u5185\u5ddd\u5730\u8cea\u8abf\u67fb","survey_name":"\u5e73\u621025\u5e74\u5ea6\u3000\u5e84\u5185\u5ddd\u5730\u8cea\u8abf\u67fb","client_name":"\u56fd\u571f\u4ea4\u901a\u7701\u3000\u4e2d\u90e8\u5730\u65b9\u6574\u5099\u5c40\u3000\u5e84\u5185\u5ddd\u6cb3\u5ddd\u4e8b\u52d9\u6240","boring_xml_url":64,"boring_view_url":1,"soilmap_view_url":null,"soiltest_xml_url":0,"soiltest_view_url":0},{"id":512765,"code":"B4KJ202201001-5301","latitude":"35.112556","longitude":"136.835222","source_code":"CB1385504020260006","project_name":"\u5e73\u621025\u5e74\u5ea6\u3000\u5e84\u5185\u5ddd\u5730\u8cea\u8abf\u67fb","survey_name":"\u5e73\u621025\u5e74\u5ea6\u3000\u5e84\u5185\u5ddd\u5730\u8cea\u8abf\u67fb","client_name":"\u56fd\u571f\u4ea4\u901a\u7701\u3000\u4e2d\u90e8\u5730\u65b9\u6574\u5099\u5c40\u3000\u5e84\u5185\u5ddd\u6cb3\u5ddd\u4e8b\u52d9\u6240","boring_xml_url":64,"boring_view_url":1,"soilmap_view_url":null,"soiltest_xml_url":0,"soiltest_view_url":0},{"id":512764,"code":"B4KJ202201001-5300","latitude":"35.108278","longitude":"136.835944","source_code":"CB1385504020260005","project_name":"\u5e73\u621025\u5e74\u5ea6\u3000\u5e84\u5185\u5ddd\u5730\u8cea\u8abf\u67fb","survey_name":"\u5e73\u621025\u5e74\u5ea6\u3000\u5e84\u5185\u5ddd\u5730\u8cea\u8abf\u67fb","client_name":"\u56fd\u571f\u4ea4\u901a\u7701\u3000\u4e2d\u90e8\u5730\u65b9\u6574\u5099\u5c40\u3000\u5e84\u5185\u5ddd\u6cb3\u5ddd\u4e8b\u52d9\u6240","boring_xml_url":64,"boring_view_url":1,"soilmap_view_url":null,"soiltest_xml_url":0,"soiltest_view_url":0},{"id":512763,"code":"B4KJ202201001-5299","latitude":"35.151667","longitude":"136.837361","source_code":"CB1385504020260004","project_name":"\u5e73\u621025\u5e74\u5ea6\u3000\u5e84\u5185\u5ddd\u5730\u8cea\u8abf\u67fb","survey_name":"\u5e73\u621025\u5e74\u5ea6\u3000\u5e84\u5185\u5ddd\u5730\u8cea\u8abf\u67fb","client_name":"\u56fd\u571f\u4ea4\u901a\u7701\u3000\u4e2d\u90e8\u5730\u65b9\u6574\u5099\u5c40\u3000\u5e84\u5185\u5ddd\u6cb3\u5ddd\u4e8b\u52d9\u6240","boring_xml_url":64,"boring_view_url":1,"soilmap_view_url":null,"soiltest_xml_url":0,"soiltest_view_url":0},{"id":512762,"code":"B4KJ202201001-5298","latitude":"35.213","longitude":"136.90075","source_code":"CB1385504020260003","project_name":"\u5e73\u621025\u5e74\u5ea6\u3000\u5e84\u5185\u5ddd\u5730\u8cea\u8abf\u67fb","survey_name":"\u5e73\u621025\u5e74\u5ea6\u3000\u5e84\u5185\u5ddd\u5730\u8cea\u8abf\u67fb","client_name":"\u56fd\u571f\u4ea4\u901a\u7701\u3000\u4e2d\u90e8\u5730\u65b9\u6574\u5099\u5c40\u3000\u5e84\u5185\u5ddd\u6cb3\u5ddd\u4e8b\u52d9\u6240","boring_xml_url":64,"boring_view_url":1,"soilmap_view_url":null,"soiltest_xml_url":0,"soiltest_view_url":0},{"id":512761,"code":"B4KJ202201001-5297","latitude":"35.212944","longitude":"136.900972","source_code":"CB1385504020260002","project_name":"\u5e73\u621025\u5e74\u5ea6\u3000\u5e84\u5185\u5ddd\u5730\u8cea\u8abf\u67fb","survey_name":"\u5e73\u621025\u5e74\u5ea6\u3000\u5e84\u5185\u5ddd\u5730\u8cea\u8abf\u67fb","client_name":"\u56fd\u571f\u4ea4\u901a\u7701\u3000\u4e2d\u90e8\u5730\u65b9\u6574\u5099\u5c40\u3000\u5e84\u5185\u5ddd\u6cb3\u5ddd\u4e8b\u52d9\u6240","boring_xml_url":64,"boring_view_url":1,"soilmap_view_url":null,"soiltest_xml_url":0,"soiltest_view_url":0},{"id":512760,"code":"B4KJ202201001-5296","latitude":"35.212722","longitude":"136.901083","source_code":"CB1385504020260001","project_name":"\u5e73\u621025\u5e74\u5ea6\u3000\u5e84\u5185\u5ddd\u5730\u8cea\u8abf\u67fb","survey_name":"\u5e73\u621025\u5e74\u5ea6\u3000\u5e84\u5185\u5ddd\u5730\u8cea\u8abf\u67fb","client_name":"\u56fd\u571f\u4ea4\u901a\u7701\u3000\u4e2d\u90e8\u5730\u65b9\u6574\u5099\u5c40\u3000\u5e84\u5185\u5ddd\u6cb3\u5ddd\u4e8b\u52d9\u6240","boring_xml_url":64,"boring_view_url":1,"soilmap_view_url":null,"soiltest_xml_url":0,"soiltest_view_url":0},{"id":512759,"code":"B4KJ202201001-5295","latitude":"35.078661","longitude":"138.545839","source_code":"CB1385437920270011","project_name":"","survey_name":"\"\u5e73\u621025\u5e74\u5ea6 \u7531\u6bd4\u5730\u3059\u3079\u308a\u5730\u8cea\u8abf\u67fb\"","client_name":"\u56fd\u571f\u4ea4\u901a\u7701\u4e2d\u90e8\u5730\u65b9\u6574\u5099\u5c40\u5bcc\u58eb\u7802\u9632\u4e8b\u52d9\u6240","boring_xml_url":64,"boring_view_url":1,"soilmap_view_url":null,"soiltest_xml_url":0,"soiltest_view_url":0},{"id":512758,"code":"B4KJ202201001-5294","latitude":"35.079075","longitude":"138.543883","source_code":"CB1385437920270010","project_name":"","survey_name":"\"\u5e73\u621025\u5e74\u5ea6 \u7531\u6bd4\u5730\u3059\u3079\u308a\u5730\u8cea\u8abf\u67fb\"","client_name":"\u56fd\u571f\u4ea4\u901a\u7701\u4e2d\u90e8\u5730\u65b9\u6574\u5099\u5c40\u5bcc\u58eb\u7802\u9632\u4e8b\u52d9\u6240","boring_xml_url":64,"boring_view_url":1,"soilmap_view_url":null,"soiltest_xml_url":0,"soiltest_view_url":0},{"id":512757,"code":"B4KJ202201001-5293","latitude":"35.077722","longitude":"138.54275","source_code":"CB1385437920270009","project_name":"","survey_name":"\"\u5e73\u621025\u5e74\u5ea6 \u7531\u6bd4\u5730\u3059\u3079\u308a\u5730\u8cea\u8abf\u67fb\"","client_name":"\u56fd\u571f\u4ea4\u901a\u7701\u4e2d\u90e8\u5730\u65b9\u6574\u5099\u5c40\u5bcc\u58eb\u7802\u9632\u4e8b\u52d9\u6240","boring_xml_url":64,"boring_view_url":1,"soilmap_view_url":null,"soiltest_xml_url":0,"soiltest_view_url":0},{"id":512756,"code":"B4KJ202201001-5292","latitude":"35.075922","longitude":"138.5437","source_code":"CB1385437920270008","project_name":"","survey_name":"\"\u5e73\u621025\u5e74\u5ea6 \u7531\u6bd4\u5730\u3059\u3079\u308a\u5730\u8cea\u8abf\u67fb\"","client_name":"\u56fd\u571f\u4ea4\u901a\u7701\u4e2d\u90e8\u5730\u65b9\u6574\u5099\u5c40\u5bcc\u58eb\u7802\u9632\u4e8b\u52d9\u6240","boring_xml_url":64,"boring_view_url":1,"soilmap_view_url":null,"soiltest_xml_url":0,"soiltest_view_url":0},{"id":512755,"code":"B4KJ202201001-5291","latitude":"35.074583","longitude":"138.542128","source_code":"CB1385437920270007","project_name":"","survey_name":"\"\u5e73\u621025\u5e74\u5ea6 \u7531\u6bd4\u5730\u3059\u3079\u308a\u5730\u8cea\u8abf\u67fb\"","client_name":"\u56fd\u571f\u4ea4\u901a\u7701\u4e2d\u90e8\u5730\u65b9\u6574\u5099\u5c40\u5bcc\u58eb\u7802\u9632\u4e8b\u52d9\u6240","boring_xml_url":64,"boring_view_url":1,"soilmap_view_url":null,"soiltest_xml_url":0,"soiltest_view_url":0},{"id":512754,"code":"B4KJ202201001-5290","latitude":"35.071883","longitude":"138.542047","source_code":"CB1385437920270006","project_name":"","survey_name":"\"\u5e73\u621025\u5e74\u5ea6 \u7531\u6bd4\u5730\u3059\u3079\u308a\u5730\u8cea\u8abf\u67fb\"","client_name":"\u56fd\u571f\u4ea4\u901a\u7701\u4e2d\u90e8\u5730\u65b9\u6574\u5099\u5c40\u5bcc\u58eb\u7802\u9632\u4e8b\u52d9\u6240","boring_xml_url":64,"boring_view_url":1,"soilmap_view_url":null,"soiltest_xml_url":0,"soiltest_view_url":0},{"id":512753,"code":"B4KJ202201001-5289","latitude":"35.074192","longitude":"138.541989","source_code":"CB1385437920270005","project_name":"","survey_name":"\"\u5e73\u621025\u5e74\u5ea6 \u7531\u6bd4\u5730\u3059\u3079\u308a\u5730\u8cea\u8abf\u67fb\"","client_name":"\u56fd\u571f\u4ea4\u901a\u7701\u4e2d\u90e8\u5730\u65b9\u6574\u5099\u5c40\u5bcc\u58eb\u7802\u9632\u4e8b\u52d9\u6240","boring_xml_url":64,"boring_view_url":1,"soilmap_view_url":null,"soiltest_xml_url":0,"soiltest_view_url":0},{"id":512752,"code":"B4KJ202201001-5288","latitude":"35.072556","longitude":"138.541611","source_code":"CB1385437920270004","project_name":"","survey_name":"\"\u5e73\u621025\u5e74\u5ea6 \u7531\u6bd4\u5730\u3059\u3079\u308a\u5730\u8cea\u8abf\u67fb\"","client_name":"\u56fd\u571f\u4ea4\u901a\u7701\u4e2d\u90e8\u5730\u65b9\u6574\u5099\u5c40\u5bcc\u58eb\u7802\u9632\u4e8b\u52d9\u6240","boring_xml_url":64,"boring_view_url":1,"soilmap_view_url":null,"soiltest_xml_url":0,"soiltest_view_url":0},{"id":512751,"code":"B4KJ202201001-5287","latitude":"35.072631","longitude":"138.540425","source_code":"CB1385437920270003","project_name":"","survey_name":"\"\u5e73\u621025\u5e74\u5ea6 \u7531\u6bd4\u5730\u3059\u3079\u308a\u5730\u8cea\u8abf\u67fb\"","client_name":"\u56fd\u571f\u4ea4\u901a\u7701\u4e2d\u90e8\u5730\u65b9\u6574\u5099\u5c40\u5bcc\u58eb\u7802\u9632\u4e8b\u52d9\u6240","boring_xml_url":64,"boring_view_url":1,"soilmap_view_url":null,"soiltest_xml_url":0,"soiltest_view_url":0},{"id":512750,"code":"B4KJ202201001-5286","latitude":"35.072514","longitude":"138.540325","source_code":"CB1385437920270002","project_name":"","survey_name":"\"\u5e73\u621025\u5e74\u5ea6 \u7531\u6bd4\u5730\u3059\u3079\u308a\u5730\u8cea\u8abf\u67fb\"","client_name":"\u56fd\u571f\u4ea4\u901a\u7701\u4e2d\u90e8\u5730\u65b9\u6574\u5099\u5c40\u5bcc\u58eb\u7802\u9632\u4e8b\u52d9\u6240","boring_xml_url":64,"boring_view_url":1,"soilmap_view_url":null,"soiltest_xml_url":0,"soiltest_view_url":0},{"id":512749,"code":"B4KJ202201001-5285","latitude":"35.072389","longitude":"138.540269","source_code":"CB1385437920270001","project_name":"","survey_name":"\"\u5e73\u621025\u5e74\u5ea6 \u7531\u6bd4\u5730\u3059\u3079\u308a\u5730\u8cea\u8abf\u67fb\"","client_name":"\u56fd\u571f\u4ea4\u901a\u7701\u4e2d\u90e8\u5730\u65b9\u6574\u5099\u5c40\u5bcc\u58eb\u7802\u9632\u4e8b\u52d9\u6240","boring_xml_url":64,"boring_view_url":1,"soilmap_view_url":null,"soiltest_xml_url":0,"soiltest_view_url":0}]}}