{"header":{"xyz":{"source":[],"mosaic":false},"page":1090,"raw":{"soiltest_result":"0","bbox":"57.598333,109.544722,1.933333,163.806111","page":"1090"},"conditions":{"soiltest_result":0,"north":57.598333,"west":109.544722,"south":1.933333,"east":163.806111},"success":true,"message":""},"data":{"meta":{"total":212844,"page":1090,"pages":7095,"count":30},"values":[{"id":512718,"code":"B4KJ202201001-5254","latitude":"34.973658","longitude":"138.353317","source_code":"CB1385406020170001","project_name":"\u5e73\u621025\u5e74\u5ea6\u3000\u85c1\u79d1\u5ddd\u5730\u8cea\u8abf\u67fb\u696d\u52d9","survey_name":"\u5e73\u621025\u5e74\u5ea6\u3000\u85c1\u79d1\u5ddd\u5730\u8cea\u8abf\u67fb\u696d\u52d9","client_name":"\"\u56fd\u571f\u4ea4\u901a\u7701\u4e2d\u90e8\u5730\u65b9\u6574\u5099\u5c40 \u9759\u5ca1\u6cb3\u5ddd\u4e8b\u52d9\u6240 \u8abf\u67fb\u8ab2\"","boring_xml_url":64,"boring_view_url":1,"soilmap_view_url":null,"soiltest_xml_url":0,"soiltest_view_url":0},{"id":512717,"code":"B4KJ202201001-5253","latitude":"35.071917","longitude":"138.366028","source_code":"CB1385406020160015","project_name":"","survey_name":"\"\u5e73\u621025\u5e74\u5ea6 \u5b89\u500d\u5ddd\u5730\u8cea\u8abf\u67fb\u696d\u52d9\"","client_name":"\"\u56fd\u571f\u4ea4\u901a\u7701\u4e2d\u90e8\u5730\u65b9\u6574\u5099\u5c40 \u9759\u5ca1\u6cb3\u5ddd\u4e8b\u52d9\u6240\"","boring_xml_url":64,"boring_view_url":1,"soilmap_view_url":null,"soiltest_xml_url":0,"soiltest_view_url":0},{"id":512716,"code":"B4KJ202201001-5252","latitude":"35.031917","longitude":"138.369583","source_code":"CB1385406020160014","project_name":"","survey_name":"\"\u5e73\u621025\u5e74\u5ea6 \u5b89\u500d\u5ddd\u5730\u8cea\u8abf\u67fb\u696d\u52d9\"","client_name":"\"\u56fd\u571f\u4ea4\u901a\u7701\u4e2d\u90e8\u5730\u65b9\u6574\u5099\u5c40 \u9759\u5ca1\u6cb3\u5ddd\u4e8b\u52d9\u6240\"","boring_xml_url":64,"boring_view_url":1,"soilmap_view_url":null,"soiltest_xml_url":0,"soiltest_view_url":0},{"id":512715,"code":"B4KJ202201001-5251","latitude":"35.017833","longitude":"138.361778","source_code":"CB1385406020160013","project_name":"","survey_name":"\"\u5e73\u621025\u5e74\u5ea6 \u5b89\u500d\u5ddd\u5730\u8cea\u8abf\u67fb\u696d\u52d9\"","client_name":"\"\u56fd\u571f\u4ea4\u901a\u7701\u4e2d\u90e8\u5730\u65b9\u6574\u5099\u5c40 \u9759\u5ca1\u6cb3\u5ddd\u4e8b\u52d9\u6240\"","boring_xml_url":64,"boring_view_url":1,"soilmap_view_url":null,"soiltest_xml_url":0,"soiltest_view_url":0},{"id":512714,"code":"B4KJ202201001-5250","latitude":"34.979722","longitude":"138.354944","source_code":"CB1385406020160012","project_name":"","survey_name":"\"\u5e73\u621025\u5e74\u5ea6 \u5b89\u500d\u5ddd\u5730\u8cea\u8abf\u67fb\u696d\u52d9\"","client_name":"\"\u56fd\u571f\u4ea4\u901a\u7701\u4e2d\u90e8\u5730\u65b9\u6574\u5099\u5c40 \u9759\u5ca1\u6cb3\u5ddd\u4e8b\u52d9\u6240\"","boring_xml_url":64,"boring_view_url":1,"soilmap_view_url":null,"soiltest_xml_url":0,"soiltest_view_url":0},{"id":512713,"code":"B4KJ202201001-5249","latitude":"34.951111","longitude":"138.372111","source_code":"CB1385406020160011","project_name":"","survey_name":"\"\u5e73\u621025\u5e74\u5ea6 \u5b89\u500d\u5ddd\u5730\u8cea\u8abf\u67fb\u696d\u52d9\"","client_name":"\"\u56fd\u571f\u4ea4\u901a\u7701\u4e2d\u90e8\u5730\u65b9\u6574\u5099\u5c40 \u9759\u5ca1\u6cb3\u5ddd\u4e8b\u52d9\u6240\"","boring_xml_url":64,"boring_view_url":1,"soilmap_view_url":null,"soiltest_xml_url":0,"soiltest_view_url":0},{"id":512712,"code":"B4KJ202201001-5248","latitude":"34.942833","longitude":"138.380056","source_code":"CB1385406020160010","project_name":"","survey_name":"\"\u5e73\u621025\u5e74\u5ea6 \u5b89\u500d\u5ddd\u5730\u8cea\u8abf\u67fb\u696d\u52d9\"","client_name":"\"\u56fd\u571f\u4ea4\u901a\u7701\u4e2d\u90e8\u5730\u65b9\u6574\u5099\u5c40 \u9759\u5ca1\u6cb3\u5ddd\u4e8b\u52d9\u6240\"","boring_xml_url":64,"boring_view_url":1,"soilmap_view_url":null,"soiltest_xml_url":0,"soiltest_view_url":0},{"id":512711,"code":"B4KJ202201001-5247","latitude":"34.934028","longitude":"138.386389","source_code":"CB1385406020160009","project_name":"","survey_name":"\"\u5e73\u621025\u5e74\u5ea6 \u5b89\u500d\u5ddd\u5730\u8cea\u8abf\u67fb\u696d\u52d9\"","client_name":"\"\u56fd\u571f\u4ea4\u901a\u7701\u4e2d\u90e8\u5730\u65b9\u6574\u5099\u5c40 \u9759\u5ca1\u6cb3\u5ddd\u4e8b\u52d9\u6240\"","boring_xml_url":64,"boring_view_url":1,"soilmap_view_url":null,"soiltest_xml_url":0,"soiltest_view_url":0},{"id":512710,"code":"B4KJ202201001-5246","latitude":"34.930972","longitude":"138.388639","source_code":"CB1385406020160008","project_name":"","survey_name":"\"\u5e73\u621025\u5e74\u5ea6 \u5b89\u500d\u5ddd\u5730\u8cea\u8abf\u67fb\u696d\u52d9\"","client_name":"\"\u56fd\u571f\u4ea4\u901a\u7701\u4e2d\u90e8\u5730\u65b9\u6574\u5099\u5c40 \u9759\u5ca1\u6cb3\u5ddd\u4e8b\u52d9\u6240\"","boring_xml_url":64,"boring_view_url":1,"soilmap_view_url":null,"soiltest_xml_url":0,"soiltest_view_url":0},{"id":512709,"code":"B4KJ202201001-5245","latitude":"35.062222","longitude":"138.369","source_code":"CB1385406020160007","project_name":"","survey_name":"\"\u5e73\u621025\u5e74\u5ea6 \u5b89\u500d\u5ddd\u5730\u8cea\u8abf\u67fb\u696d\u52d9\"","client_name":"\"\u56fd\u571f\u4ea4\u901a\u7701\u4e2d\u90e8\u5730\u65b9\u6574\u5099\u5c40 \u9759\u5ca1\u6cb3\u5ddd\u4e8b\u52d9\u6240\"","boring_xml_url":64,"boring_view_url":1,"soilmap_view_url":null,"soiltest_xml_url":0,"soiltest_view_url":0},{"id":512708,"code":"B4KJ202201001-5244","latitude":"35.010361","longitude":"138.365306","source_code":"CB1385406020160006","project_name":"","survey_name":"\"\u5e73\u621025\u5e74\u5ea6 \u5b89\u500d\u5ddd\u5730\u8cea\u8abf\u67fb\u696d\u52d9\"","client_name":"\"\u56fd\u571f\u4ea4\u901a\u7701\u4e2d\u90e8\u5730\u65b9\u6574\u5099\u5c40 \u9759\u5ca1\u6cb3\u5ddd\u4e8b\u52d9\u6240\"","boring_xml_url":64,"boring_view_url":1,"soilmap_view_url":null,"soiltest_xml_url":0,"soiltest_view_url":0},{"id":512707,"code":"B4KJ202201001-5243","latitude":"34.978889","longitude":"138.362444","source_code":"CB1385406020160005","project_name":"","survey_name":"\"\u5e73\u621025\u5e74\u5ea6 \u5b89\u500d\u5ddd\u5730\u8cea\u8abf\u67fb\u696d\u52d9\"","client_name":"\"\u56fd\u571f\u4ea4\u901a\u7701\u4e2d\u90e8\u5730\u65b9\u6574\u5099\u5c40 \u9759\u5ca1\u6cb3\u5ddd\u4e8b\u52d9\u6240\"","boring_xml_url":64,"boring_view_url":1,"soilmap_view_url":null,"soiltest_xml_url":0,"soiltest_view_url":0},{"id":512706,"code":"B4KJ202201001-5242","latitude":"34.958667","longitude":"138.37475","source_code":"CB1385406020160004","project_name":"","survey_name":"\"\u5e73\u621025\u5e74\u5ea6 \u5b89\u500d\u5ddd\u5730\u8cea\u8abf\u67fb\u696d\u52d9\"","client_name":"\"\u56fd\u571f\u4ea4\u901a\u7701\u4e2d\u90e8\u5730\u65b9\u6574\u5099\u5c40 \u9759\u5ca1\u6cb3\u5ddd\u4e8b\u52d9\u6240\"","boring_xml_url":64,"boring_view_url":1,"soilmap_view_url":null,"soiltest_xml_url":0,"soiltest_view_url":0},{"id":512705,"code":"B4KJ202201001-5241","latitude":"34.947972","longitude":"138.385417","source_code":"CB1385406020160003","project_name":"","survey_name":"\"\u5e73\u621025\u5e74\u5ea6 \u5b89\u500d\u5ddd\u5730\u8cea\u8abf\u67fb\u696d\u52d9\"","client_name":"\"\u56fd\u571f\u4ea4\u901a\u7701\u4e2d\u90e8\u5730\u65b9\u6574\u5099\u5c40 \u9759\u5ca1\u6cb3\u5ddd\u4e8b\u52d9\u6240\"","boring_xml_url":64,"boring_view_url":1,"soilmap_view_url":null,"soiltest_xml_url":0,"soiltest_view_url":0},{"id":512704,"code":"B4KJ202201001-5240","latitude":"34.937194","longitude":"138.392583","source_code":"CB1385406020160002","project_name":"","survey_name":"\"\u5e73\u621025\u5e74\u5ea6 \u5b89\u500d\u5ddd\u5730\u8cea\u8abf\u67fb\u696d\u52d9\"","client_name":"\"\u56fd\u571f\u4ea4\u901a\u7701\u4e2d\u90e8\u5730\u65b9\u6574\u5099\u5c40 \u9759\u5ca1\u6cb3\u5ddd\u4e8b\u52d9\u6240\"","boring_xml_url":64,"boring_view_url":1,"soilmap_view_url":null,"soiltest_xml_url":0,"soiltest_view_url":0},{"id":512703,"code":"B4KJ202201001-5239","latitude":"34.932222","longitude":"138.396556","source_code":"CB1385406020160001","project_name":"","survey_name":"\"\u5e73\u621025\u5e74\u5ea6 \u5b89\u500d\u5ddd\u5730\u8cea\u8abf\u67fb\u696d\u52d9\"","client_name":"\"\u56fd\u571f\u4ea4\u901a\u7701\u4e2d\u90e8\u5730\u65b9\u6574\u5099\u5c40 \u9759\u5ca1\u6cb3\u5ddd\u4e8b\u52d9\u6240\"","boring_xml_url":64,"boring_view_url":1,"soilmap_view_url":null,"soiltest_xml_url":0,"soiltest_view_url":0},{"id":512702,"code":"B4KJ202201001-5238","latitude":"34.844969","longitude":"138.134133","source_code":"CB1385406020110017","project_name":"\u5e73\u621025\u5e74\u5ea6\u3000\u5927\u4e95\u5ddd\u5730\u8cea\u8abf\u67fb\u696d\u52d9","survey_name":"\u5e73\u621025\u5e74\u5ea6\u3000\u5927\u4e95\u5ddd\u5730\u8cea\u8abf\u67fb\u696d\u52d9","client_name":"\"\u56fd\u571f\u4ea4\u901a\u7701 \u4e2d\u90e8\u5730\u65b9\u6574\u5099\u5c40 \u9759\u5ca1\u6cb3\u5ddd\u4e8b\u52d9\u6240\"","boring_xml_url":64,"boring_view_url":1,"soilmap_view_url":null,"soiltest_xml_url":0,"soiltest_view_url":0},{"id":512701,"code":"B4KJ202201001-5237","latitude":"34.82185","longitude":"138.213978","source_code":"CB1385406020110016","project_name":"\u5e73\u621025\u5e74\u5ea6\u3000\u5927\u4e95\u5ddd\u5730\u8cea\u8abf\u67fb\u696d\u52d9","survey_name":"\u5e73\u621025\u5e74\u5ea6\u3000\u5927\u4e95\u5ddd\u5730\u8cea\u8abf\u67fb\u696d\u52d9","client_name":"\"\u56fd\u571f\u4ea4\u901a\u7701 \u4e2d\u90e8\u5730\u65b9\u6574\u5099\u5c40 \u9759\u5ca1\u6cb3\u5ddd\u4e8b\u52d9\u6240\"","boring_xml_url":64,"boring_view_url":1,"soilmap_view_url":null,"soiltest_xml_url":0,"soiltest_view_url":0},{"id":512700,"code":"B4KJ202201001-5236","latitude":"34.807414","longitude":"138.240653","source_code":"CB1385406020110015","project_name":"\u5e73\u621025\u5e74\u5ea6\u3000\u5927\u4e95\u5ddd\u5730\u8cea\u8abf\u67fb\u696d\u52d9","survey_name":"\u5e73\u621025\u5e74\u5ea6\u3000\u5927\u4e95\u5ddd\u5730\u8cea\u8abf\u67fb\u696d\u52d9","client_name":"\"\u56fd\u571f\u4ea4\u901a\u7701 \u4e2d\u90e8\u5730\u65b9\u6574\u5099\u5c40 \u9759\u5ca1\u6cb3\u5ddd\u4e8b\u52d9\u6240\"","boring_xml_url":64,"boring_view_url":1,"soilmap_view_url":null,"soiltest_xml_url":0,"soiltest_view_url":0},{"id":512699,"code":"B4KJ202201001-5235","latitude":"34.800328","longitude":"138.247308","source_code":"CB1385406020110014","project_name":"\u5e73\u621025\u5e74\u5ea6\u3000\u5927\u4e95\u5ddd\u5730\u8cea\u8abf\u67fb\u696d\u52d9","survey_name":"\u5e73\u621025\u5e74\u5ea6\u3000\u5927\u4e95\u5ddd\u5730\u8cea\u8abf\u67fb\u696d\u52d9","client_name":"\"\u56fd\u571f\u4ea4\u901a\u7701 \u4e2d\u90e8\u5730\u65b9\u6574\u5099\u5c40 \u9759\u5ca1\u6cb3\u5ddd\u4e8b\u52d9\u6240\"","boring_xml_url":64,"boring_view_url":1,"soilmap_view_url":null,"soiltest_xml_url":0,"soiltest_view_url":0},{"id":512698,"code":"B4KJ202201001-5234","latitude":"34.792492","longitude":"138.255406","source_code":"CB1385406020110013","project_name":"\u5e73\u621025\u5e74\u5ea6\u3000\u5927\u4e95\u5ddd\u5730\u8cea\u8abf\u67fb\u696d\u52d9","survey_name":"\u5e73\u621025\u5e74\u5ea6\u3000\u5927\u4e95\u5ddd\u5730\u8cea\u8abf\u67fb\u696d\u52d9","client_name":"\"\u56fd\u571f\u4ea4\u901a\u7701 \u4e2d\u90e8\u5730\u65b9\u6574\u5099\u5c40 \u9759\u5ca1\u6cb3\u5ddd\u4e8b\u52d9\u6240\"","boring_xml_url":64,"boring_view_url":1,"soilmap_view_url":null,"soiltest_xml_url":0,"soiltest_view_url":0},{"id":512697,"code":"B4KJ202201001-5233","latitude":"34.780278","longitude":"138.270364","source_code":"CB1385406020110012","project_name":"\u5e73\u621025\u5e74\u5ea6\u3000\u5927\u4e95\u5ddd\u5730\u8cea\u8abf\u67fb\u696d\u52d9","survey_name":"\u5e73\u621025\u5e74\u5ea6\u3000\u5927\u4e95\u5ddd\u5730\u8cea\u8abf\u67fb\u696d\u52d9","client_name":"\"\u56fd\u571f\u4ea4\u901a\u7701 \u4e2d\u90e8\u5730\u65b9\u6574\u5099\u5c40 \u9759\u5ca1\u6cb3\u5ddd\u4e8b\u52d9\u6240\"","boring_xml_url":64,"boring_view_url":1,"soilmap_view_url":null,"soiltest_xml_url":0,"soiltest_view_url":0},{"id":512696,"code":"B4KJ202201001-5232","latitude":"34.777072","longitude":"138.274208","source_code":"CB1385406020110011","project_name":"\u5e73\u621025\u5e74\u5ea6\u3000\u5927\u4e95\u5ddd\u5730\u8cea\u8abf\u67fb\u696d\u52d9","survey_name":"\u5e73\u621025\u5e74\u5ea6\u3000\u5927\u4e95\u5ddd\u5730\u8cea\u8abf\u67fb\u696d\u52d9","client_name":"\"\u56fd\u571f\u4ea4\u901a\u7701 \u4e2d\u90e8\u5730\u65b9\u6574\u5099\u5c40 \u9759\u5ca1\u6cb3\u5ddd\u4e8b\u52d9\u6240\"","boring_xml_url":64,"boring_view_url":1,"soilmap_view_url":null,"soiltest_xml_url":0,"soiltest_view_url":0},{"id":512695,"code":"B4KJ202201001-5231","latitude":"34.771","longitude":"138.2822","source_code":"CB1385406020110010","project_name":"\u5e73\u621025\u5e74\u5ea6\u3000\u5927\u4e95\u5ddd\u5730\u8cea\u8abf\u67fb\u696d\u52d9","survey_name":"\u5e73\u621025\u5e74\u5ea6\u3000\u5927\u4e95\u5ddd\u5730\u8cea\u8abf\u67fb\u696d\u52d9","client_name":"\"\u56fd\u571f\u4ea4\u901a\u7701 \u4e2d\u90e8\u5730\u65b9\u6574\u5099\u5c40 \u9759\u5ca1\u6cb3\u5ddd\u4e8b\u52d9\u6240\"","boring_xml_url":64,"boring_view_url":1,"soilmap_view_url":null,"soiltest_xml_url":0,"soiltest_view_url":0},{"id":512694,"code":"B4KJ202201001-5230","latitude":"34.767944","longitude":"138.2865","source_code":"CB1385406020110009","project_name":"\u5e73\u621025\u5e74\u5ea6\u3000\u5927\u4e95\u5ddd\u5730\u8cea\u8abf\u67fb\u696d\u52d9","survey_name":"\u5e73\u621025\u5e74\u5ea6\u3000\u5927\u4e95\u5ddd\u5730\u8cea\u8abf\u67fb\u696d\u52d9","client_name":"\"\u56fd\u571f\u4ea4\u901a\u7701 \u4e2d\u90e8\u5730\u65b9\u6574\u5099\u5c40 \u9759\u5ca1\u6cb3\u5ddd\u4e8b\u52d9\u6240\"","boring_xml_url":64,"boring_view_url":1,"soilmap_view_url":null,"soiltest_xml_url":0,"soiltest_view_url":0},{"id":512693,"code":"B4KJ202201001-5229","latitude":"34.834644","longitude":"138.149603","source_code":"CB1385406020110008","project_name":"\u5e73\u621025\u5e74\u5ea6\u3000\u5927\u4e95\u5ddd\u5730\u8cea\u8abf\u67fb\u696d\u52d9","survey_name":"\u5e73\u621025\u5e74\u5ea6\u3000\u5927\u4e95\u5ddd\u5730\u8cea\u8abf\u67fb\u696d\u52d9","client_name":"\"\u56fd\u571f\u4ea4\u901a\u7701 \u4e2d\u90e8\u5730\u65b9\u6574\u5099\u5c40 \u9759\u5ca1\u6cb3\u5ddd\u4e8b\u52d9\u6240\"","boring_xml_url":64,"boring_view_url":1,"soilmap_view_url":null,"soiltest_xml_url":0,"soiltest_view_url":0},{"id":512692,"code":"B4KJ202201001-5228","latitude":"34.828233","longitude":"138.21565","source_code":"CB1385406020110007","project_name":"\u5e73\u621025\u5e74\u5ea6\u3000\u5927\u4e95\u5ddd\u5730\u8cea\u8abf\u67fb\u696d\u52d9","survey_name":"\u5e73\u621025\u5e74\u5ea6\u3000\u5927\u4e95\u5ddd\u5730\u8cea\u8abf\u67fb\u696d\u52d9","client_name":"\"\u56fd\u571f\u4ea4\u901a\u7701 \u4e2d\u90e8\u5730\u65b9\u6574\u5099\u5c40 \u9759\u5ca1\u6cb3\u5ddd\u4e8b\u52d9\u6240\"","boring_xml_url":64,"boring_view_url":1,"soilmap_view_url":null,"soiltest_xml_url":0,"soiltest_view_url":0},{"id":512691,"code":"B4KJ202201001-5227","latitude":"34.818558","longitude":"138.239836","source_code":"CB1385406020110006","project_name":"\u5e73\u621025\u5e74\u5ea6\u3000\u5927\u4e95\u5ddd\u5730\u8cea\u8abf\u67fb\u696d\u52d9","survey_name":"\u5e73\u621025\u5e74\u5ea6\u3000\u5927\u4e95\u5ddd\u5730\u8cea\u8abf\u67fb\u696d\u52d9","client_name":"\"\u56fd\u571f\u4ea4\u901a\u7701 \u4e2d\u90e8\u5730\u65b9\u6574\u5099\u5c40 \u9759\u5ca1\u6cb3\u5ddd\u4e8b\u52d9\u6240\"","boring_xml_url":64,"boring_view_url":1,"soilmap_view_url":null,"soiltest_xml_url":0,"soiltest_view_url":0},{"id":512690,"code":"B4KJ202201001-5226","latitude":"34.812344","longitude":"138.247708","source_code":"CB1385406020110005","project_name":"\u5e73\u621025\u5e74\u5ea6\u3000\u5927\u4e95\u5ddd\u5730\u8cea\u8abf\u67fb\u696d\u52d9","survey_name":"\u5e73\u621025\u5e74\u5ea6\u3000\u5927\u4e95\u5ddd\u5730\u8cea\u8abf\u67fb\u696d\u52d9","client_name":"\"\u56fd\u571f\u4ea4\u901a\u7701 \u4e2d\u90e8\u5730\u65b9\u6574\u5099\u5c40 \u9759\u5ca1\u6cb3\u5ddd\u4e8b\u52d9\u6240\"","boring_xml_url":64,"boring_view_url":1,"soilmap_view_url":null,"soiltest_xml_url":0,"soiltest_view_url":0},{"id":512689,"code":"B4KJ202201001-5225","latitude":"34.786661","longitude":"138.278283","source_code":"CB1385406020110004","project_name":"\u5e73\u621025\u5e74\u5ea6\u3000\u5927\u4e95\u5ddd\u5730\u8cea\u8abf\u67fb\u696d\u52d9","survey_name":"\u5e73\u621025\u5e74\u5ea6\u3000\u5927\u4e95\u5ddd\u5730\u8cea\u8abf\u67fb\u696d\u52d9","client_name":"\"\u56fd\u571f\u4ea4\u901a\u7701 \u4e2d\u90e8\u5730\u65b9\u6574\u5099\u5c40 \u9759\u5ca1\u6cb3\u5ddd\u4e8b\u52d9\u6240\"","boring_xml_url":64,"boring_view_url":1,"soilmap_view_url":null,"soiltest_xml_url":0,"soiltest_view_url":0}]}}