{"header":{"xyz":{"source":[],"mosaic":false},"page":1096,"raw":{"soiltest_result":"0","bbox":"57.598333,109.544722,1.933333,163.806111","page":"1096"},"conditions":{"soiltest_result":0,"north":57.598333,"west":109.544722,"south":1.933333,"east":163.806111},"success":true,"message":""},"data":{"meta":{"total":212844,"page":1096,"pages":7095,"count":30},"values":[{"id":512538,"code":"B4KJ202201001-5074","latitude":"35.103667","longitude":"138.561083","source_code":"CB1285415120390001","project_name":"","survey_name":"\"\u5e73\u621024\u5e74\u5ea6 \u9759\u6e05\u7dad\u6301\u7ba1\u5185\u6a4b\u6881\u88dc\u5f37\u88dc\u4fee\u8a2d\u8a08\u696d\u52d9 \u5730\u8cea\u8abf\u67fb \uff08\u548c\u702c\u5ddd\u6a4b\u8fc2\u56de\u8def\u8a08\u753b\uff09\"","client_name":"\"\u56fd\u571f\u4ea4\u901a\u7701 \u4e2d\u90e8\u5730\u65b9\u6574\u5099\u5c40 \u9759\u5ca1\u56fd\u9053\u4e8b\u52d9\u6240\"","boring_xml_url":64,"boring_view_url":1,"soilmap_view_url":null,"soiltest_xml_url":0,"soiltest_view_url":0},{"id":512537,"code":"B4KJ202201001-5073","latitude":"35.666315","longitude":"137.167644","source_code":"CB85346620680002","project_name":"\u5e73\u621023\u5e74\u5ea6\u300041\u53f7\u4e0b\u539f\u6539\u826f\u5730\u8cea\u8abf\u67fb","survey_name":"\u5e73\u621023\u5e74\u5ea6\u300041\u53f7\u4e0b\u539f\u6539\u826f\u5730\u8cea\u8abf\u67fb","client_name":"\"\u56fd\u571f\u4ea4\u901a\u7701 \u4e2d\u90e8\u5730\u65b9\u6574\u5099\u5c40\u3000\u9ad8\u5c71\u56fd\u9053\u4e8b\u52d9\u6240\"","boring_xml_url":60,"boring_view_url":1,"soilmap_view_url":null,"soiltest_xml_url":0,"soiltest_view_url":0},{"id":512536,"code":"B4KJ202201001-5072","latitude":"35.666315","longitude":"137.167644","source_code":"CB85346620680001","project_name":"\u5e73\u621023\u5e74\u5ea6\u300041\u53f7\u4e0b\u539f\u6539\u826f\u5730\u8cea\u8abf\u67fb","survey_name":"\u5e73\u621023\u5e74\u5ea6\u300041\u53f7\u4e0b\u539f\u6539\u826f\u5730\u8cea\u8abf\u67fb","client_name":"\"\u56fd\u571f\u4ea4\u901a\u7701 \u4e2d\u90e8\u5730\u65b9\u6574\u5099\u5c40\u3000\u9ad8\u5c71\u56fd\u9053\u4e8b\u52d9\u6240\"","boring_xml_url":60,"boring_view_url":1,"soilmap_view_url":null,"soiltest_xml_url":0,"soiltest_view_url":0},{"id":512535,"code":"B4KJ202201001-5071","latitude":"36.168244","longitude":"137.297383","source_code":"CB1285346620570019","project_name":"\u5e73\u621024\u5e74\u5ea6\u3000\u9ad8\u5c71\u6e05\u898b\u9053\u8def\u5730\u8cea\u8abf\u67fb","survey_name":"\u5e73\u621024\u5e74\u5ea6\u3000\u9ad8\u5c71\u6e05\u898b\u9053\u8def\u5730\u8cea\u8abf\u67fb","client_name":"\u4e2d\u90e8\u5730\u65b9\u6574\u5099\u5c40\u3000\u9ad8\u5c71\u56fd\u9053\u4e8b\u52d9\u6240","boring_xml_url":64,"boring_view_url":1,"soilmap_view_url":null,"soiltest_xml_url":0,"soiltest_view_url":0},{"id":512534,"code":"B4KJ202201001-5070","latitude":"36.175419","longitude":"137.27418","source_code":"CB1285346620570018","project_name":"\u5e73\u621024\u5e74\u5ea6\u3000\u9ad8\u5c71\u6e05\u898b\u9053\u8def\u5730\u8cea\u8abf","survey_name":"\u5e73\u621024\u5e74\u5ea6\u3000\u9ad8\u5c71\u6e05\u898b\u9053\u8def\u5730\u8cea\u8abf\u67fb","client_name":"\u4e2d\u90e8\u5730\u65b9\u6574\u5099\u5c40\u3000\u9ad8\u5c71\u56fd\u9053\u4e8b\u52d9\u6240","boring_xml_url":64,"boring_view_url":1,"soilmap_view_url":null,"soiltest_xml_url":0,"soiltest_view_url":0},{"id":512533,"code":"B4KJ202201001-5069","latitude":"36.175307","longitude":"137.274161","source_code":"CB1285346620570017","project_name":"\u5e73\u621024\u5e74\u5ea6\u3000\u9ad8\u5c71\u6e05\u898b\u9053\u8def\u5730\u8cea\u8abf\u67fb","survey_name":"\u5e73\u621024\u5e74\u5ea6\u3000\u9ad8\u5c71\u6e05\u898b\u9053\u8def\u5730\u8cea\u8abf\u67fb","client_name":"\u4e2d\u90e8\u5730\u65b9\u6574\u5099\u5c40\u3000\u9ad8\u5c71\u56fd\u9053\u4e8b\u52d9\u6240","boring_xml_url":64,"boring_view_url":1,"soilmap_view_url":null,"soiltest_xml_url":0,"soiltest_view_url":0},{"id":512532,"code":"B4KJ202201001-5068","latitude":"36.175396","longitude":"137.274499","source_code":"CB1285346620570016","project_name":"\u5e73\u621024\u5e74\u5ea6\u3000\u9ad8\u5c71\u6e05\u898b\u9053\u8def\u5730\u8cea\u8abf\u67fb","survey_name":"\u5e73\u621024\u5e74\u5ea6\u3000\u9ad8\u5c71\u6e05\u898b\u9053\u8def\u5730\u8cea\u8abf\u67fb","client_name":"\u4e2d\u90e8\u5730\u65b9\u6574\u5099\u5c40\u3000\u9ad8\u5c71\u56fd\u9053\u4e8b\u52d9\u6240","boring_xml_url":64,"boring_view_url":1,"soilmap_view_url":null,"soiltest_xml_url":0,"soiltest_view_url":0},{"id":512531,"code":"B4KJ202201001-5067","latitude":"36.175307","longitude":"137.275094","source_code":"CB1285346620570015","project_name":"\u5e73\u621024\u5e74\u5ea6\u3000\u9ad8\u5c71\u6e05\u898b\u9053\u8def\u5730\u8cea\u8abf\u67fb","survey_name":"\u5e73\u621024\u5e74\u5ea6\u3000\u9ad8\u5c71\u6e05\u898b\u9053\u8def\u5730\u8cea\u8abf\u67fb","client_name":"\u4e2d\u90e8\u5730\u65b9\u6574\u5099\u5c40\u3000\u9ad8\u5c71\u56fd\u9053\u4e8b\u52d9\u6240","boring_xml_url":64,"boring_view_url":1,"soilmap_view_url":null,"soiltest_xml_url":0,"soiltest_view_url":0},{"id":512530,"code":"B4KJ202201001-5066","latitude":"36.175255","longitude":"137.275736","source_code":"CB1285346620570014","project_name":"\u5e73\u621024\u5e74\u5ea6\u3000\u9ad8\u5c71\u6e05\u898b\u9053\u8def\u5730\u8cea\u8abf\u67fb","survey_name":"\u5e73\u621024\u5e74\u5ea6\u3000\u9ad8\u5c71\u6e05\u898b\u9053\u8def\u5730\u8cea\u8abf\u67fb","client_name":"\u4e2d\u90e8\u5730\u65b9\u6574\u5099\u5c40\u3000\u9ad8\u5c71\u56fd\u9053\u4e8b\u52d9\u6240","boring_xml_url":64,"boring_view_url":1,"soilmap_view_url":null,"soiltest_xml_url":0,"soiltest_view_url":0},{"id":512529,"code":"B4KJ202201001-5065","latitude":"36.175144","longitude":"137.276305","source_code":"CB1285346620570013","project_name":"\u5e73\u621024\u5e74\u5ea6\u3000\u9ad8\u5c71\u6e05\u898b\u9053\u8def\u5730\u8cea\u8abf\u67fb","survey_name":"\u5e73\u621024\u5e74\u5ea6\u3000\u9ad8\u5c71\u6e05\u898b\u9053\u8def\u5730\u8cea\u8abf\u67fb","client_name":"\u4e2d\u90e8\u5730\u65b9\u6574\u5099\u5c40\u3000\u9ad8\u5c71\u56fd\u9053\u4e8b\u52d9\u6240","boring_xml_url":64,"boring_view_url":1,"soilmap_view_url":null,"soiltest_xml_url":0,"soiltest_view_url":0},{"id":512528,"code":"B4KJ202201001-5064","latitude":"36.17523","longitude":"137.276449","source_code":"CB1285346620570012","project_name":"\u5e73\u621024\u5e74\u5ea6\u3000\u9ad8\u5c71\u6e05\u898b\u9053\u8def\u5730\u8cea\u8abf\u67fb","survey_name":"\u5e73\u621024\u5e74\u5ea6\u3000\u9ad8\u5c71\u6e05\u898b\u9053\u8def\u5730\u8cea\u8abf\u67fb","client_name":"\u4e2d\u90e8\u5730\u65b9\u6574\u5099\u5c40\u3000\u9ad8\u5c71\u56fd\u9053\u4e8b\u52d9\u6240","boring_xml_url":64,"boring_view_url":1,"soilmap_view_url":null,"soiltest_xml_url":0,"soiltest_view_url":0},{"id":512527,"code":"B4KJ202201001-5063","latitude":"36.175063","longitude":"137.276852","source_code":"CB1285346620570011","project_name":"\u5e73\u621024\u5e74\u5ea6\u3000\u9ad8\u5c71\u6e05\u898b\u9053\u8def\u5730\u8cea\u8abf\u67fb","survey_name":"\u5e73\u621024\u5e74\u5ea6\u3000\u9ad8\u5c71\u6e05\u898b\u9053\u8def\u5730\u8cea\u8abf\u67fb","client_name":"\u4e2d\u90e8\u5730\u65b9\u6574\u5099\u5c40\u3000\u9ad8\u5c71\u56fd\u9053\u4e8b\u52d9\u6240","boring_xml_url":64,"boring_view_url":1,"soilmap_view_url":null,"soiltest_xml_url":0,"soiltest_view_url":0},{"id":512526,"code":"B4KJ202201001-5062","latitude":"36.175166","longitude":"137.276936","source_code":"CB1285346620570010","project_name":"\u5e73\u621024\u5e74\u5ea6\u3000\u9ad8\u5c71\u6e05\u898b\u9053\u8def\u5730\u8cea\u8abf\u67fb","survey_name":"\u5e73\u621024\u5e74\u5ea6\u3000\u9ad8\u5c71\u6e05\u898b\u9053\u8def\u5730\u8cea\u8abf\u67fb","client_name":"\u4e2d\u90e8\u5730\u65b9\u6574\u5099\u5c40\u3000\u9ad8\u5c71\u56fd\u9053\u4e8b\u52d9\u6240","boring_xml_url":64,"boring_view_url":1,"soilmap_view_url":null,"soiltest_xml_url":0,"soiltest_view_url":0},{"id":512525,"code":"B4KJ202201001-5061","latitude":"36.170955","longitude":"137.293377","source_code":"CB1285346620570009","project_name":"\u5e73\u621024\u5e74\u5ea6\u3000\u9ad8\u5c71\u6e05\u898b\u9053\u8def\u5730\u8cea\u8abf\u67fb","survey_name":"\u5e73\u621024\u5e74\u5ea6\u3000\u9ad8\u5c71\u6e05\u898b\u9053\u8def\u5730\u8cea\u8abf\u67fb","client_name":"\u4e2d\u90e8\u5730\u65b9\u6574\u5099\u5c40\u3000\u9ad8\u5c71\u56fd\u9053\u4e8b\u52d9\u6240","boring_xml_url":64,"boring_view_url":1,"soilmap_view_url":null,"soiltest_xml_url":0,"soiltest_view_url":0},{"id":512524,"code":"B4KJ202201001-5060","latitude":"36.170135","longitude":"137.295747","source_code":"CB1285346620570008","project_name":"\u5e73\u621024\u5e74\u5ea6\u3000\u9ad8\u5c71\u6e05\u898b\u9053\u8def\u5730\u8cea\u8abf\u67fb","survey_name":"\u5e73\u621024\u5e74\u5ea6\u3000\u9ad8\u5c71\u6e05\u898b\u9053\u8def\u5730\u8cea\u8abf\u67fb","client_name":"\u4e2d\u90e8\u5730\u65b9\u6574\u5099\u5c40\u3000\u9ad8\u5c71\u56fd\u9053\u4e8b\u52d9\u6240","boring_xml_url":64,"boring_view_url":1,"soilmap_view_url":null,"soiltest_xml_url":0,"soiltest_view_url":0},{"id":512523,"code":"B4KJ202201001-5059","latitude":"36.169505","longitude":"137.295244","source_code":"CB1285346620570007","project_name":"\u5e73\u621024\u5e74\u5ea6\u3000\u9ad8\u5c71\u6e05\u898b\u9053\u8def\u5730\u8cea\u8abf\u67fb","survey_name":"\u5e73\u621024\u5e74\u5ea6\u3000\u9ad8\u5c71\u6e05\u898b\u9053\u8def\u5730\u8cea\u8abf\u67fb","client_name":"\u4e2d\u90e8\u5730\u65b9\u6574\u5099\u5c40\u3000\u9ad8\u5c71\u56fd\u9053\u4e8b\u52d9\u6240","boring_xml_url":64,"boring_view_url":1,"soilmap_view_url":null,"soiltest_xml_url":0,"soiltest_view_url":0},{"id":512522,"code":"B4KJ202201001-5058","latitude":"36.169699","longitude":"137.296911","source_code":"CB1285346620570006","project_name":"\u5e73\u621024\u5e74\u5ea6\u3000\u9ad8\u5c71\u6e05\u898b\u9053\u8def\u5730\u8cea\u8abf\u67fb","survey_name":"\u5e73\u621024\u5e74\u5ea6\u3000\u9ad8\u5c71\u6e05\u898b\u9053\u8def\u5730\u8cea\u8abf\u67fb","client_name":"\u4e2d\u90e8\u5730\u65b9\u6574\u5099\u5c40\u3000\u9ad8\u5c71\u56fd\u9053\u4e8b\u52d9\u6240","boring_xml_url":64,"boring_view_url":1,"soilmap_view_url":null,"soiltest_xml_url":0,"soiltest_view_url":0},{"id":512521,"code":"B4KJ202201001-5057","latitude":"36.169402","longitude":"137.296366","source_code":"CB1285346620570005","project_name":"\u5e73\u621024\u5e74\u5ea6\u3000\u9ad8\u5c71\u6e05\u898b\u9053\u8def\u5730\u8cea\u8abf\u67fb","survey_name":"\u5e73\u621024\u5e74\u5ea6\u3000\u9ad8\u5c71\u6e05\u898b\u9053\u8def\u5730\u8cea\u8abf\u67fb","client_name":"\u4e2d\u90e8\u5730\u65b9\u6574\u5099\u5c40\u3000\u9ad8\u5c71\u56fd\u9053\u4e8b\u52d9\u6240","boring_xml_url":64,"boring_view_url":1,"soilmap_view_url":null,"soiltest_xml_url":0,"soiltest_view_url":0},{"id":512520,"code":"B4KJ202201001-5056","latitude":"36.169005","longitude":"137.296097","source_code":"CB1285346620570004","project_name":"\u5e73\u621024\u5e74\u5ea6\u3000\u9ad8\u5c71\u6e05\u898b\u9053\u8def\u5730\u8cea\u8abf\u67fb","survey_name":"\u5e73\u621024\u5e74\u5ea6\u3000\u9ad8\u5c71\u6e05\u898b\u9053\u8def\u5730\u8cea\u8abf\u67fb","client_name":"\u4e2d\u90e8\u5730\u65b9\u6574\u5099\u5c40\u3000\u9ad8\u5c71\u56fd\u9053\u4e8b\u52d9\u6240","boring_xml_url":64,"boring_view_url":1,"soilmap_view_url":null,"soiltest_xml_url":0,"soiltest_view_url":0},{"id":512519,"code":"B4KJ202201001-5055","latitude":"36.166955","longitude":"137.299197","source_code":"CB1285346620570003","project_name":"\u5e73\u621024\u5e74\u5ea6\u3000\u9ad8\u5c71\u6e05\u898b\u9053\u8def\u5730\u8cea\u8abf\u67fb","survey_name":"\u5e73\u621024\u5e74\u5ea6\u3000\u9ad8\u5c71\u6e05\u898b\u9053\u8def\u5730\u8cea\u8abf\u67fb","client_name":"\u4e2d\u90e8\u5730\u65b9\u6574\u5099\u5c40\u3000\u9ad8\u5c71\u56fd\u9053\u4e8b\u52d9\u6240","boring_xml_url":64,"boring_view_url":1,"soilmap_view_url":null,"soiltest_xml_url":0,"soiltest_view_url":0},{"id":512518,"code":"B4KJ202201001-5054","latitude":"36.165388","longitude":"137.302044","source_code":"CB1285346620570002","project_name":"\u5e73\u621024\u5e74\u5ea6\u3000\u9ad8\u5c71\u6e05\u898b\u9053\u8def\u5730\u8cea\u8abf\u67fb","survey_name":"\u5e73\u621024\u5e74\u5ea6\u3000\u9ad8\u5c71\u6e05\u898b\u9053\u8def\u5730\u8cea\u8abf\u67fb","client_name":"\u4e2d\u90e8\u5730\u65b9\u6574\u5099\u5c40\u3000\u9ad8\u5c71\u56fd\u9053\u4e8b\u52d9\u6240","boring_xml_url":64,"boring_view_url":1,"soilmap_view_url":null,"soiltest_xml_url":0,"soiltest_view_url":0},{"id":512517,"code":"B4KJ202201001-5053","latitude":"36.165663","longitude":"137.302355","source_code":"CB1285346620570001","project_name":"\u5e73\u621024\u5e74\u5ea6\u3000\u9ad8\u5c71\u6e05\u898b\u9053\u8def\u5730\u8cea\u8abf\u67fb","survey_name":"\u5e73\u621024\u5e74\u5ea6\u3000\u9ad8\u5c71\u6e05\u898b\u9053\u8def\u5730\u8cea\u8abf\u67fb","client_name":"\u4e2d\u90e8\u5730\u65b9\u6574\u5099\u5c40\u3000\u9ad8\u5c71\u56fd\u9053\u4e8b\u52d9\u6240","boring_xml_url":64,"boring_view_url":1,"soilmap_view_url":null,"soiltest_xml_url":0,"soiltest_view_url":0},{"id":512516,"code":"B4KJ202201001-5052","latitude":"36.172935","longitude":"137.253438","source_code":"CB1285346620270023","project_name":"\u5e73\u621024\u5e74\u5ea6\u3000\u9ad8\u5c71\u56fd\u9053\u7ba1\u5185\u5730\u8cea\u8abf\u67fb","survey_name":"\u5e73\u621024\u5e74\u5ea6\u3000\u9ad8\u5c71\u56fd\u9053\u7ba1\u5185\u5730\u8cea\u8abf\u67fb","client_name":"\"\u56fd\u571f\u4ea4\u901a\u7701 \u4e2d\u90e8\u5730\u65b9\u6574\u5099\u5c40 \u9ad8\u5c71\u56fd\u9053\u4e8b\u52d9\u6240\"","boring_xml_url":64,"boring_view_url":1,"soilmap_view_url":null,"soiltest_xml_url":0,"soiltest_view_url":0},{"id":512515,"code":"B4KJ202201001-5051","latitude":"36.172666","longitude":"137.251447","source_code":"CB1285346620270022","project_name":"\u5e73\u621024\u5e74\u5ea6\u3000\u9ad8\u5c71\u56fd\u9053\u7ba1\u5185\u5730\u8cea\u8abf\u67fb","survey_name":"\u5e73\u621024\u5e74\u5ea6\u3000\u9ad8\u5c71\u56fd\u9053\u7ba1\u5185\u5730\u8cea\u8abf\u67fb","client_name":"\"\u56fd\u571f\u4ea4\u901a\u7701 \u4e2d\u90e8\u5730\u65b9\u6574\u5099\u5c40 \u9ad8\u5c71\u56fd\u9053\u4e8b\u52d9\u6240\"","boring_xml_url":64,"boring_view_url":1,"soilmap_view_url":null,"soiltest_xml_url":0,"soiltest_view_url":0},{"id":512514,"code":"B4KJ202201001-5050","latitude":"36.17261","longitude":"137.251752","source_code":"CB1285346620270021","project_name":"\u5e73\u621024\u5e74\u5ea6\u3000\u9ad8\u5c71\u56fd\u9053\u7ba1\u5185\u5730\u8cea\u8abf\u67fb","survey_name":"\u5e73\u621024\u5e74\u5ea6\u3000\u9ad8\u5c71\u56fd\u9053\u7ba1\u5185\u5730\u8cea\u8abf\u67fb","client_name":"\"\u56fd\u571f\u4ea4\u901a\u7701 \u4e2d\u90e8\u5730\u65b9\u6574\u5099\u5c40 \u9ad8\u5c71\u56fd\u9053\u4e8b\u52d9\u6240\"","boring_xml_url":64,"boring_view_url":1,"soilmap_view_url":null,"soiltest_xml_url":0,"soiltest_view_url":0},{"id":512513,"code":"B4KJ202201001-5049","latitude":"36.173027","longitude":"137.255586","source_code":"CB1285346620270020","project_name":"\u5e73\u621024\u5e74\u5ea6\u3000\u9ad8\u5c71\u56fd\u9053\u7ba1\u5185\u5730\u8cea\u8abf\u67fb","survey_name":"\u5e73\u621024\u5e74\u5ea6\u3000\u9ad8\u5c71\u56fd\u9053\u7ba1\u5185\u5730\u8cea\u8abf\u67fb","client_name":"\"\u56fd\u571f\u4ea4\u901a\u7701 \u4e2d\u90e8\u5730\u65b9\u6574\u5099\u5c40 \u9ad8\u5c71\u56fd\u9053\u4e8b\u52d9\u6240\"","boring_xml_url":64,"boring_view_url":1,"soilmap_view_url":null,"soiltest_xml_url":0,"soiltest_view_url":0},{"id":512512,"code":"B4KJ202201001-5048","latitude":"36.173832","longitude":"137.257197","source_code":"CB1285346620270019","project_name":"\"\u5e73\u621024\u5e74\u5ea6 \u9ad8\u5c71\u56fd\u9053\u7ba1\u5185\u5730\u8cea\u8abf\u67fb\"","survey_name":"\"\u5e73\u621024\u5e74\u5ea6 \u9ad8\u5c71\u56fd\u9053\u7ba1\u5185\u5730\u8cea\u8abf\u67fb\"","client_name":"\"\u56fd\u571f\u4ea4\u901a\u7701 \u4e2d\u90e8\u5730\u65b9\u6574\u5099\u5c40 \u9ad8\u5c71\u56fd\u9053\u4e8b\u52d9\u6240\"","boring_xml_url":64,"boring_view_url":1,"soilmap_view_url":null,"soiltest_xml_url":0,"soiltest_view_url":0},{"id":512511,"code":"B4KJ202201001-5047","latitude":"36.173943","longitude":"137.257724","source_code":"CB1285346620270018","project_name":"\u5e73\u621024\u5e74\u5ea6\u3000\u9ad8\u5c71\u56fd\u9053\u7ba1\u5185\u5730\u8cea\u8abf\u67fb","survey_name":"\u5e73\u621024\u5e74\u5ea6\u3000\u9ad8\u5c71\u56fd\u9053\u7ba1\u5185\u5730\u8cea\u8abf\u67fb","client_name":"\u56fd\u571f\u4ea4\u901a\u7701\u4e2d\u90e8\u5730\u65b9\u6574\u5099\u5c40\u9ad8\u5c71\u56fd\u9053\u4e8b\u52d9\u6240","boring_xml_url":64,"boring_view_url":1,"soilmap_view_url":null,"soiltest_xml_url":0,"soiltest_view_url":0},{"id":512510,"code":"B4KJ202201001-5046","latitude":"36.174055","longitude":"137.258836","source_code":"CB1285346620270017","project_name":"\u5e73\u621024\u5e74\u5ea6\u3000\u9ad8\u5c71\u56fd\u9053\u7ba1\u5185\u5730\u8cea\u8abf\u67fb","survey_name":"\u5e73\u621024\u5e74\u5ea6\u3000\u9ad8\u5c71\u56fd\u9053\u7ba1\u5185\u5730\u8cea\u8abf\u67fb","client_name":"\u56fd\u571f\u4ea4\u901a\u7701\u4e2d\u90e8\u5730\u65b9\u6574\u5099\u5c40\u9ad8\u5c71\u56fd\u9053\u4e8b\u52d9\u6240","boring_xml_url":64,"boring_view_url":1,"soilmap_view_url":null,"soiltest_xml_url":0,"soiltest_view_url":0},{"id":512509,"code":"B4KJ202201001-5045","latitude":"36.173471","longitude":"137.258891","source_code":"CB1285346620270016","project_name":"\"\u5e73\u621024\u5e74\u5ea6 \u9ad8\u5c71\u56fd\u9053\u7ba1\u5185\u5730\u8cea\u8abf\u67fb\"","survey_name":"\"\u5e73\u621024\u5e74\u5ea6 \u9ad8\u5c71\u56fd\u9053\u7ba1\u5185\u5730\u8cea\u8abf\u67fb\"","client_name":"\"\u56fd\u571f\u4ea4\u901a\u7701 \u4e2d\u90e8\u5730\u65b9\u6574\u5099\u5c40 \u9ad8\u5c71\u56fd\u9053\u4e8b\u52d9\u6240\"","boring_xml_url":64,"boring_view_url":1,"soilmap_view_url":null,"soiltest_xml_url":0,"soiltest_view_url":0}]}}