{"header":{"xyz":{"source":[],"mosaic":false},"page":1099,"raw":{"soiltest_result":"0","bbox":"57.598333,109.544722,1.933333,163.806111","page":"1099"},"conditions":{"soiltest_result":0,"north":57.598333,"west":109.544722,"south":1.933333,"east":163.806111},"success":true,"message":""},"data":{"meta":{"total":212844,"page":1099,"pages":7095,"count":30},"values":[{"id":512448,"code":"B4KJ202201001-4984","latitude":"35.298972","longitude":"136.57775","source_code":"CB1285336021070010","project_name":"","survey_name":"\"\u5e73\u621024\u5e74\u5ea6 \u6771\u6d77\u74b0\u72b6\uff08\u990a\u8001JCT\uff5e\u990a\u8001IC\uff09\u5357\u90e8\u5730\u533a\u5730\u8cea\u8abf\u67fb\"","client_name":"\"\u56fd\u571f\u4ea4\u901a\u7701 \u4e2d\u90e8\u5730\u65b9\u6574\u5099\u5c40 \u5c90\u961c\u56fd\u9053\u4e8b\u52d9\u6240 \u8abf\u67fb\u8ab2\"","boring_xml_url":64,"boring_view_url":1,"soilmap_view_url":null,"soiltest_xml_url":0,"soiltest_view_url":0},{"id":512447,"code":"B4KJ202201001-4983","latitude":"35.2985","longitude":"136.57775","source_code":"CB1285336021070009","project_name":"","survey_name":"\"\u5e73\u621024\u5e74\u5ea6 \u6771\u6d77\u74b0\u72b6\uff08\u990a\u8001JCT\uff5e\u990a\u8001IC\uff09\u5357\u90e8\u5730\u533a\u5730\u8cea\u8abf\u67fb\"","client_name":"\"\u56fd\u571f\u4ea4\u901a\u7701 \u4e2d\u90e8\u5730\u65b9\u6574\u5099\u5c40 \u5c90\u961c\u56fd\u9053\u4e8b\u52d9\u6240 \u8abf\u67fb\u8ab2\"","boring_xml_url":64,"boring_view_url":1,"soilmap_view_url":null,"soiltest_xml_url":0,"soiltest_view_url":0},{"id":512446,"code":"B4KJ202201001-4982","latitude":"35.298055","longitude":"136.577722","source_code":"CB1285336021070008","project_name":"","survey_name":"\"\u5e73\u621024\u5e74\u5ea6 \u6771\u6d77\u74b0\u72b6\uff08\u990a\u8001JCT\uff5e\u990a\u8001IC\uff09\u5357\u90e8\u5730\u533a\u5730\u8cea\u8abf\u67fb\"","client_name":"\"\u56fd\u571f\u4ea4\u901a\u7701 \u4e2d\u90e8\u5730\u65b9\u6574\u5099\u5c40 \u5c90\u961c\u56fd\u9053\u4e8b\u52d9\u6240 \u8abf\u67fb\u8ab2\"","boring_xml_url":64,"boring_view_url":1,"soilmap_view_url":null,"soiltest_xml_url":0,"soiltest_view_url":0},{"id":512445,"code":"B4KJ202201001-4981","latitude":"35.297805","longitude":"136.577667","source_code":"CB1285336021070007","project_name":"","survey_name":"\"\u5e73\u621024\u5e74\u5ea6 \u6771\u6d77\u74b0\u72b6\uff08\u990a\u8001JCT\uff5e\u990a\u8001IC\uff09\u5357\u90e8\u5730\u533a\u5730\u8cea\u8abf\u67fb\"","client_name":"\"\u56fd\u571f\u4ea4\u901a\u7701 \u4e2d\u90e8\u5730\u65b9\u6574\u5099\u5c40 \u5c90\u961c\u56fd\u9053\u4e8b\u52d9\u6240 \u8abf\u67fb\u8ab2\"","boring_xml_url":64,"boring_view_url":1,"soilmap_view_url":null,"soiltest_xml_url":0,"soiltest_view_url":0},{"id":512444,"code":"B4KJ202201001-4980","latitude":"35.297333","longitude":"136.577694","source_code":"CB1285336021070006","project_name":"","survey_name":"\"\u5e73\u621024\u5e74\u5ea6 \u6771\u6d77\u74b0\u72b6\uff08\u990a\u8001JCT\uff5e\u990a\u8001IC\uff09\u5357\u90e8\u5730\u533a\u5730\u8cea\u8abf\u67fb\"","client_name":"\"\u56fd\u571f\u4ea4\u901a\u7701 \u4e2d\u90e8\u5730\u65b9\u6574\u5099\u5c40 \u5c90\u961c\u56fd\u9053\u4e8b\u52d9\u6240 \u8abf\u67fb\u8ab2\"","boring_xml_url":64,"boring_view_url":1,"soilmap_view_url":null,"soiltest_xml_url":0,"soiltest_view_url":0},{"id":512443,"code":"B4KJ202201001-4979","latitude":"35.297","longitude":"136.577722","source_code":"CB1285336021070005","project_name":"","survey_name":"\"\u5e73\u621024\u5e74\u5ea6 \u6771\u6d77\u74b0\u72b6\uff08\u990a\u8001JCT\uff5e\u990a\u8001IC\uff09\u5357\u90e8\u5730\u533a\u5730\u8cea\u8abf\u67fb\"","client_name":"\"\u56fd\u571f\u4ea4\u901a\u7701 \u4e2d\u90e8\u5730\u65b9\u6574\u5099\u5c40 \u5c90\u961c\u56fd\u9053\u4e8b\u52d9\u6240 \u8abf\u67fb\u8ab2\"","boring_xml_url":64,"boring_view_url":1,"soilmap_view_url":null,"soiltest_xml_url":0,"soiltest_view_url":0},{"id":512442,"code":"B4KJ202201001-4978","latitude":"35.296528","longitude":"136.57775","source_code":"CB1285336021070004","project_name":"","survey_name":"\"\u5e73\u621024\u5e74\u5ea6 \u6771\u6d77\u74b0\u72b6\uff08\u990a\u8001JCT\uff5e\u990a\u8001IC\uff09\u5357\u90e8\u5730\u533a\u5730\u8cea\u8abf\u67fb\"","client_name":"\"\u56fd\u571f\u4ea4\u901a\u7701 \u4e2d\u90e8\u5730\u65b9\u6574\u5099\u5c40 \u5c90\u961c\u56fd\u9053\u4e8b\u52d9\u6240 \u8abf\u67fb\u8ab2\"","boring_xml_url":64,"boring_view_url":1,"soilmap_view_url":null,"soiltest_xml_url":0,"soiltest_view_url":0},{"id":512441,"code":"B4KJ202201001-4977","latitude":"35.296139","longitude":"136.577805","source_code":"CB1285336021070003","project_name":"","survey_name":"\"\u5e73\u621024\u5e74\u5ea6 \u6771\u6d77\u74b0\u72b6\uff08\u990a\u8001JCT\uff5e\u990a\u8001IC\uff09\u5357\u90e8\u5730\u533a\u5730\u8cea\u8abf\u67fb\"","client_name":"\"\u56fd\u571f\u4ea4\u901a\u7701 \u4e2d\u90e8\u5730\u65b9\u6574\u5099\u5c40 \u5c90\u961c\u56fd\u9053\u4e8b\u52d9\u6240 \u8abf\u67fb\u8ab2\"","boring_xml_url":64,"boring_view_url":1,"soilmap_view_url":null,"soiltest_xml_url":0,"soiltest_view_url":0},{"id":512440,"code":"B4KJ202201001-4976","latitude":"35.292583","longitude":"136.577917","source_code":"CB1285336021070002","project_name":"","survey_name":"\"\u5e73\u621024\u5e74\u5ea6 \u6771\u6d77\u74b0\u72b6\uff08\u990a\u8001JCT\uff5e\u990a\u8001IC\uff09\u5357\u90e8\u5730\u533a\u5730\u8cea\u8abf\u67fb\"","client_name":"\"\u56fd\u571f\u4ea4\u901a\u7701 \u4e2d\u90e8\u5730\u65b9\u6574\u5099\u5c40 \u5c90\u961c\u56fd\u9053\u4e8b\u52d9\u6240 \u8abf\u67fb\u8ab2\"","boring_xml_url":64,"boring_view_url":1,"soilmap_view_url":null,"soiltest_xml_url":0,"soiltest_view_url":0},{"id":512439,"code":"B4KJ202201001-4975","latitude":"35.290722","longitude":"136.577611","source_code":"CB1285336021070001","project_name":"","survey_name":"\"\u5e73\u621024\u5e74\u5ea6 \u6771\u6d77\u74b0\u72b6\uff08\u990a\u8001JCT\uff5e\u990a\u8001IC\uff09\u5357\u90e8\u5730\u533a\u5730\u8cea\u8abf\u67fb\"","client_name":"\"\u56fd\u571f\u4ea4\u901a\u7701 \u4e2d\u90e8\u5730\u65b9\u6574\u5099\u5c40 \u5c90\u961c\u56fd\u9053\u4e8b\u52d9\u6240 \u8abf\u67fb\u8ab2\"","boring_xml_url":64,"boring_view_url":1,"soilmap_view_url":null,"soiltest_xml_url":0,"soiltest_view_url":0},{"id":512438,"code":"B4KJ202201001-4974","latitude":"35.504333","longitude":"136.865473","source_code":"CB1285336020970015","project_name":"\"\u6e2c\u70b9No.  +   m L\"","survey_name":"\u5e73\u621024\u5e74\u5ea6\u6771\u6d77\u74b0\u72b6(\u95a2\u5e83\u898b\uff5e\u9ad8\u5bcc)\u5e83\u898b\u5730\u533a\u5730\u8cea\u8abf\u67fb","client_name":"\"\u56fd\u571f\u4ea4\u901a\u7701 \u4e2d\u90e8\u5730\u65b9\u6574\u5099\u5c40 \u5c90\u961c\u56fd\u9053\u4e8b\u52d9\u6240\"","boring_xml_url":64,"boring_view_url":1,"soilmap_view_url":null,"soiltest_xml_url":0,"soiltest_view_url":0},{"id":512437,"code":"B4KJ202201001-4973","latitude":"35.505241","longitude":"136.866509","source_code":"CB1285336020970014","project_name":"","survey_name":"\"\u5e73\u621024\u5e74\u5ea6\u3000\u6771\u6d77\u74b0\u72b6(\u95a2\u5e83\u898b\uff5e\u9ad8\u5bcc)\u3000\u5e83\u898b\u5730\u533a\u5730\u8cea\u8abf\u67fb \u6e2c\u70b9No.  +   m L\"","client_name":"\"\u56fd\u571f\u4ea4\u901a\u7701 \u4e2d\u90e8\u5730\u65b9\u6574\u5099\u5c40 \u5c90\u961c\u56fd\u9053\u4e8b\u52d9\u6240\"","boring_xml_url":64,"boring_view_url":1,"soilmap_view_url":null,"soiltest_xml_url":0,"soiltest_view_url":0},{"id":512436,"code":"B4KJ202201001-4972","latitude":"35.503458","longitude":"136.859523","source_code":"CB1285336020970013","project_name":"\"\u6e2c\u70b9No.1991+0.0m CL\"","survey_name":"\u5e73\u621024\u5e74\u5ea6\u6771\u6d77\u74b0\u72b6(\u95a2\u5e83\u898b\uff5e\u9ad8\u5bcc)\u5e83\u898b\u5730\u533a\u5730\u8cea\u8abf\u67fb","client_name":"\"\u56fd\u571f\u4ea4\u901a\u7701 \u4e2d\u90e8\u5730\u65b9\u6574\u5099\u5c40 \u5c90\u961c\u56fd\u9053\u4e8b\u52d9\u6240\"","boring_xml_url":64,"boring_view_url":1,"soilmap_view_url":null,"soiltest_xml_url":0,"soiltest_view_url":0},{"id":512435,"code":"B4KJ202201001-4971","latitude":"35.504278","longitude":"136.862528","source_code":"CB1285336020970012","project_name":"\"\u6e2c\u70b9No.437+15.0m L32.0\"","survey_name":"\u5e73\u621024\u5e74\u5ea6\u6771\u6d77\u74b0\u72b6(\u95a2\u5e83\u898b\uff5e\u9ad8\u5bcc)\u5e83\u898b\u5730\u533a\u5730\u8cea\u8abf\u67fb","client_name":"\"\u56fd\u571f\u4ea4\u901a\u7701 \u4e2d\u90e8\u5730\u65b9\u6574\u5099\u5c40 \u5c90\u961c\u56fd\u9053\u4e8b\u52d9\u6240\"","boring_xml_url":64,"boring_view_url":1,"soilmap_view_url":null,"soiltest_xml_url":0,"soiltest_view_url":0},{"id":512434,"code":"B4KJ202201001-4970","latitude":"35.503972","longitude":"136.862417","source_code":"CB1285336020970011","project_name":"\"\u6e2c\u70b9No.437+0.0m CL\"","survey_name":"\u5e73\u621024\u5e74\u5ea6\u6771\u6d77\u74b0\u72b6(\u95a2\u5e83\u898b\uff5e\u9ad8\u5bcc)\u5e83\u898b\u5730\u533a\u5730\u8cea\u8abf\u67fb","client_name":"\"\u56fd\u571f\u4ea4\u901a\u7701 \u4e2d\u90e8\u5730\u65b9\u6574\u5099\u5c40 \u5c90\u961c\u56fd\u9053\u4e8b\u52d9\u6240\"","boring_xml_url":64,"boring_view_url":1,"soilmap_view_url":null,"soiltest_xml_url":0,"soiltest_view_url":0},{"id":512433,"code":"B4KJ202201001-4969","latitude":"35.505078","longitude":"136.866706","source_code":"CB1285336020970010","project_name":"\"\u6e2c\u70b9No.441+5.5 R=6.7\"","survey_name":"\u5e73\u621024\u5e74\u5ea6\u6771\u6d77\u74b0\u72b6(\u95a2\u5e83\u898b\uff5e\u9ad8\u5bcc)\u5e83\u898b\u5730\u533a\u5730\u8cea\u8abf\u67fb","client_name":"\"\u56fd\u571f\u4ea4\u901a\u7701 \u4e2d\u90e8\u5730\u65b9\u6574\u5099\u5c40 \u5c90\u961c\u56fd\u9053\u4e8b\u52d9\u6240\"","boring_xml_url":64,"boring_view_url":1,"soilmap_view_url":null,"soiltest_xml_url":0,"soiltest_view_url":0},{"id":512432,"code":"B4KJ202201001-4968","latitude":"35.507222","longitude":"136.870667","source_code":"CB1285336020970009","project_name":"\"\u6e2c\u70b9No.445+36.0 CL\"","survey_name":"\u5e73\u621024\u5e74\u5ea6\u6771\u6d77\u74b0\u72b6(\u95a2\u5e83\u898b\uff5e\u9ad8\u5bcc)\u5e83\u898b\u5730\u533a\u5730\u8cea\u8abf\u67fb","client_name":"\"\u56fd\u571f\u4ea4\u901a\u7701 \u4e2d\u90e8\u5730\u65b9\u6574\u5099\u5c40 \u5c90\u961c\u56fd\u9053\u4e8b\u52d9\u6240\"","boring_xml_url":64,"boring_view_url":1,"soilmap_view_url":null,"soiltest_xml_url":0,"soiltest_view_url":0},{"id":512431,"code":"B4KJ202201001-4967","latitude":"35.507055","longitude":"136.870334","source_code":"CB1285336020970008","project_name":"\"\u6e2c\u70b9No.445+0.0 CL\"","survey_name":"\u5e73\u621024\u5e74\u5ea6\u6771\u6d77\u74b0\u72b6(\u95a2\u5e83\u898b\uff5e\u9ad8\u5bcc)\u5e83\u898b\u5730\u533a\u5730\u8cea\u8abf\u67fb","client_name":"\"\u56fd\u571f\u4ea4\u901a\u7701 \u4e2d\u90e8\u5730\u65b9\u6574\u5099\u5c40 \u5c90\u961c\u56fd\u9053\u4e8b\u52d9\u6240\"","boring_xml_url":64,"boring_view_url":1,"soilmap_view_url":null,"soiltest_xml_url":0,"soiltest_view_url":0},{"id":512430,"code":"B4KJ202201001-4966","latitude":"35.506555","longitude":"136.869556","source_code":"CB1285336020970007","project_name":"\"\u6e2c\u70b9No.444+12.0 R=12.0\"","survey_name":"\u5e73\u621024\u5e74\u5ea6\u6771\u6d77\u74b0\u72b6(\u95a2\u5e83\u898b\uff5e\u9ad8\u5bcc)\u5e83\u898b\u5730\u533a\u5730\u8cea\u8abf\u67fb","client_name":"\"\u56fd\u571f\u4ea4\u901a\u7701 \u4e2d\u90e8\u5730\u65b9\u6574\u5099\u5c40 \u5c90\u961c\u56fd\u9053\u4e8b\u52d9\u6240\"","boring_xml_url":64,"boring_view_url":1,"soilmap_view_url":null,"soiltest_xml_url":0,"soiltest_view_url":0},{"id":512429,"code":"B4KJ202201001-4965","latitude":"35.506305","longitude":"136.869084","source_code":"CB1285336020970006","project_name":"\"\u6e2c\u70b9No.443+60.0 R=12.0\"","survey_name":"\u5e73\u621024\u5e74\u5ea6\u6771\u6d77\u74b0\u72b6(\u95a2\u5e83\u898b\uff5e\u9ad8\u5bcc)\u5e83\u898b\u5730\u533a\u5730\u8cea\u8abf\u67fb","client_name":"\"\u56fd\u571f\u4ea4\u901a\u7701 \u4e2d\u90e8\u5730\u65b9\u6574\u5099\u5c40 \u5c90\u961c\u56fd\u9053\u4e8b\u52d9\u6240\"","boring_xml_url":64,"boring_view_url":1,"soilmap_view_url":null,"soiltest_xml_url":0,"soiltest_view_url":0},{"id":512428,"code":"B4KJ202201001-4964","latitude":"35.506111","longitude":"136.868639","source_code":"CB1285336020970005","project_name":"\"\u6e2c\u70b9No.443+15.0 R=4.0\"","survey_name":"\u5e73\u621024\u5e74\u5ea6\u6771\u6d77\u74b0\u72b6(\u95a2\u5e83\u898b\uff5e\u9ad8\u5bcc)\u5e83\u898b\u5730\u533a\u5730\u8cea\u8abf\u67fb","client_name":"\"\u56fd\u571f\u4ea4\u901a\u7701 \u4e2d\u90e8\u5730\u65b9\u6574\u5099\u5c40 \u5c90\u961c\u56fd\u9053\u4e8b\u52d9\u6240\"","boring_xml_url":64,"boring_view_url":1,"soilmap_view_url":null,"soiltest_xml_url":0,"soiltest_view_url":0},{"id":512427,"code":"B4KJ202201001-4963","latitude":"35.505805","longitude":"136.868111","source_code":"CB1285336020970004","project_name":"\"\u6e2c\u70b9No.442+56.0 R=6.0\"","survey_name":"\u5e73\u621024\u5e74\u5ea6\u6771\u6d77\u74b0\u72b6(\u95a2\u5e83\u898b\uff5e\u9ad8\u5bcc)\u5e83\u898b\u5730\u533a\u5730\u8cea\u8abf\u67fb","client_name":"\"\u56fd\u571f\u4ea4\u901a\u7701 \u4e2d\u90e8\u5730\u65b9\u6574\u5099\u5c40 \u5c90\u961c\u56fd\u9053\u4e8b\u52d9\u6240\"","boring_xml_url":64,"boring_view_url":1,"soilmap_view_url":null,"soiltest_xml_url":0,"soiltest_view_url":0},{"id":512426,"code":"B4KJ202201001-4962","latitude":"35.505555","longitude":"136.867639","source_code":"CB1285336020970003","project_name":"\"\u6e2c\u70b9No.442+4.0 R=6.0\"","survey_name":"\u5e73\u621024\u5e74\u5ea6\u6771\u6d77\u74b0\u72b6(\u95a2\u5e83\u898b\uff5e\u9ad8\u5bcc)\u5e83\u898b\u5730\u533a\u5730\u8cea\u8abf\u67fb","client_name":"\"\u56fd\u571f\u4ea4\u901a\u7701 \u4e2d\u90e8\u5730\u65b9\u6574\u5099\u5c40 \u5c90\u961c\u56fd\u9053\u4e8b\u52d9\u6240\"","boring_xml_url":64,"boring_view_url":1,"soilmap_view_url":null,"soiltest_xml_url":0,"soiltest_view_url":0},{"id":512425,"code":"B4KJ202201001-4961","latitude":"35.505305","longitude":"136.867139","source_code":"CB1285336020970002","project_name":"\"\u6e2c\u70b9No.441+52.0 R=6.0\"","survey_name":"\u5e73\u621024\u5e74\u5ea6\u6771\u6d77\u74b0\u72b6(\u95a2\u5e83\u898b\uff5e\u9ad8\u5bcc)\u5e83\u898b\u5730\u533a\u5730\u8cea\u8abf\u67fb","client_name":"\"\u56fd\u571f\u4ea4\u901a\u7701 \u4e2d\u90e8\u5730\u65b9\u6574\u5099\u5c40 \u5c90\u961c\u56fd\u9053\u4e8b\u52d9\u6240\"","boring_xml_url":64,"boring_view_url":1,"soilmap_view_url":null,"soiltest_xml_url":0,"soiltest_view_url":0},{"id":512424,"code":"B4KJ202201001-4960","latitude":"35.505125","longitude":"136.866553","source_code":"CB1285336020970001","project_name":"\"\u6e2c\u70b9No.440+96.5 L=5.0\"","survey_name":"\u5e73\u621024\u5e74\u5ea6\u6771\u6d77\u74b0\u72b6(\u95a2\u5e83\u898b\uff5e\u9ad8\u5bcc)\u5e83\u898b\u5730\u533a\u5730\u8cea\u8abf\u67fb","client_name":"\"\u56fd\u571f\u4ea4\u901a\u7701 \u4e2d\u90e8\u5730\u65b9\u6574\u5099\u5c40 \u5c90\u961c\u56fd\u9053\u4e8b\u52d9\u6240\"","boring_xml_url":64,"boring_view_url":1,"soilmap_view_url":null,"soiltest_xml_url":0,"soiltest_view_url":0},{"id":512423,"code":"B4KJ202201001-4959","latitude":"35.513677","longitude":"136.833692","source_code":"CB1285336020960017","project_name":"\"\u5e73\u621024\u5e74\u5ea6 \u6771\u6d77\u74b0\u72b6\uff08\u95a2\u5e83\u898b\uff5e\u9ad8\u5bcc\uff09\u5c90\u961c\u5730\u533a\u5730\u8cea\u8abf\u67fb\"","survey_name":"\"\u5e73\u621024\u5e74\u5ea6 \u6771\u6d77\u74b0\u72b6\uff08\u95a2\u5e83\u898b\uff5e\u9ad8\u5bcc\uff09\u5c90\u961c\u5730\u533a\u5730\u8cea\u8abf\u67fb\"","client_name":"\"\u56fd\u571f\u4ea4\u901a\u7701 \u4e2d\u90e8\u5730\u65b9\u6574\u5099\u5c40 \u5c90\u961c\u56fd\u9053\u4e8b\u52d9\u6240 \u8abf\u67fb\u8ab2\"","boring_xml_url":64,"boring_view_url":1,"soilmap_view_url":null,"soiltest_xml_url":0,"soiltest_view_url":0},{"id":512422,"code":"B4KJ202201001-4958","latitude":"35.512832","longitude":"136.83812","source_code":"CB1285336020960016","project_name":"\"\u5e73\u621024\u5e74\u5ea6 \u6771\u6d77\u74b0\u72b6\uff08\u95a2\u5e83\u898b\uff5e\u9ad8\u5bcc\uff09\u5c90\u961c\u5730\u533a\u5730\u8cea\u8abf\u67fb\"","survey_name":"\"\u5e73\u621024\u5e74\u5ea6 \u6771\u6d77\u74b0\u72b6\uff08\u95a2\u5e83\u898b\uff5e\u9ad8\u5bcc\uff09\u5c90\u961c\u5730\u533a\u5730\u8cea\u8abf\u67fb\"","client_name":"\"\u56fd\u571f\u4ea4\u901a\u7701 \u4e2d\u90e8\u5730\u65b9\u6574\u5099\u5c40 \u5c90\u961c\u56fd\u9053\u4e8b\u52d9\u6240 \u8abf\u67fb\u8ab2\"","boring_xml_url":64,"boring_view_url":1,"soilmap_view_url":null,"soiltest_xml_url":0,"soiltest_view_url":0},{"id":512421,"code":"B4KJ202201001-4957","latitude":"35.51356","longitude":"136.833778","source_code":"CB1285336020960015","project_name":"\"\u5e73\u621024\u5e74\u5ea6 \u6771\u6d77\u74b0\u72b6\uff08\u95a2\u5e83\u898b\uff5e\u9ad8\u5bcc\uff09\u5c90\u961c\u5730\u533a\u5730\u8cea\u8abf\u67fb\"","survey_name":"\"\u5e73\u621024\u5e74\u5ea6 \u6771\u6d77\u74b0\u72b6\uff08\u95a2\u5e83\u898b\uff5e\u9ad8\u5bcc\uff09\u5c90\u961c\u5730\u533a\u5730\u8cea\u8abf\u67fb\"","client_name":"\"\u56fd\u571f\u4ea4\u901a\u7701 \u4e2d\u90e8\u5730\u65b9\u6574\u5099\u5c40 \u5c90\u961c\u56fd\u9053\u4e8b\u52d9\u6240 \u8abf\u67fb\u8ab2\"","boring_xml_url":64,"boring_view_url":1,"soilmap_view_url":null,"soiltest_xml_url":0,"soiltest_view_url":0},{"id":512420,"code":"B4KJ202201001-4956","latitude":"35.512382","longitude":"136.8317","source_code":"CB1285336020960014","project_name":"\"\u5e73\u621024\u5e74\u5ea6 \u6771\u6d77\u74b0\u72b6\uff08\u95a2\u5e83\u898b\uff5e\u9ad8\u5bcc\uff09\u5c90\u961c\u5730\u533a\u5730\u8cea\u8abf\u67fb\"","survey_name":"\"\u5e73\u621024\u5e74\u5ea6 \u6771\u6d77\u74b0\u72b6\uff08\u95a2\u5e83\u898b\uff5e\u9ad8\u5bcc\uff09\u5c90\u961c\u5730\u533a\u5730\u8cea\u8abf\u67fb\"","client_name":"\"\u56fd\u571f\u4ea4\u901a\u7701 \u4e2d\u90e8\u5730\u65b9\u6574\u5099\u5c40 \u5c90\u961c\u56fd\u9053\u4e8b\u52d9\u6240 \u8abf\u67fb\u8ab2\"","boring_xml_url":64,"boring_view_url":1,"soilmap_view_url":null,"soiltest_xml_url":0,"soiltest_view_url":0},{"id":512419,"code":"B4KJ202201001-4955","latitude":"35.507996","longitude":"136.847228","source_code":"CB1285336020960013","project_name":"\"\u5e73\u621024\u5e74\u5ea6 \u6771\u6d77\u74b0\u72b6\uff08\u95a2\u5e83\u898b\uff5e\u9ad8\u5bcc\uff09\u5c90\u961c\u5730\u533a\u5730\u8cea\u8abf\u67fb\"","survey_name":"\"\u5e73\u621024\u5e74\u5ea6 \u6771\u6d77\u74b0\u72b6\uff08\u95a2\u5e83\u898b\uff5e\u9ad8\u5bcc\uff09\u5c90\u961c\u5730\u533a\u5730\u8cea\u8abf\u67fb\"","client_name":"\"\u56fd\u571f\u4ea4\u901a\u7701 \u4e2d\u90e8\u5730\u65b9\u6574\u5099\u5c40 \u5c90\u961c\u56fd\u9053\u4e8b\u52d9\u6240 \u8abf\u67fb\u8ab2\"","boring_xml_url":64,"boring_view_url":1,"soilmap_view_url":null,"soiltest_xml_url":0,"soiltest_view_url":0}]}}