{"header":{"xyz":{"source":[],"mosaic":false},"page":1110,"raw":{"soiltest_result":"0","bbox":"57.598333,109.544722,1.933333,163.806111","page":"1110"},"conditions":{"soiltest_result":0,"north":57.598333,"west":109.544722,"south":1.933333,"east":163.806111},"success":true,"message":""},"data":{"meta":{"total":212844,"page":1110,"pages":7095,"count":30},"values":[{"id":512118,"code":"B4KJ202201001-4654","latitude":"36.165078","longitude":"137.317108","source_code":"CB85346620300001","project_name":"","survey_name":"\u5e73\u621023\u5e74\u5ea6\u9ad8\u5c71\u56fd\u9053\u7ba1\u5185\u5730\u8cea\u8abf\u67fb","client_name":"\u56fd\u571f\u4ea4\u901a\u7701\u4e2d\u90e8\u5730\u65b9\u6574\u5099\u5c40\u9ad8\u5c71\u56fd\u9053\u4e8b\u52d9\u6240","boring_xml_url":60,"boring_view_url":1,"soilmap_view_url":null,"soiltest_xml_url":0,"soiltest_view_url":0},{"id":512117,"code":"B4KJ202201001-4653","latitude":"35.400003","longitude":"137.973213","source_code":"CB85706320310032","project_name":"\u571f\u77f3\u6d41\u5bfe\u7b56\u4e8b\u696d\uff08\u7802\u9632\u5830\u5824\u5de5\uff09","survey_name":"\u5e73\u621023\u5e74\u5ea6\u3000\u5929\u7adc\u5ddd\u6c34\u7cfb\u5c0f\u6e0b\u5ddd\u30fb\u9060\u5c71\u5ddd\u5730\u533a\u5730\u8cea\u8abf\u67fb","client_name":"\"\u56fd\u571f\u4ea4\u901a\u7701 \u4e2d\u90e8\u5730\u65b9\u6574\u5099\u5c40\u3000\u5929\u7adc\u5ddd\u4e0a\u6d41\u6cb3\u5ddd\u4e8b\u52d9\u6240\"","boring_xml_url":60,"boring_view_url":1,"soilmap_view_url":null,"soiltest_xml_url":0,"soiltest_view_url":0},{"id":512116,"code":"B4KJ202201001-4652","latitude":"35.400381","longitude":"137.972111","source_code":"CB85706320310031","project_name":"\u571f\u77f3\u6d41\u5bfe\u7b56\u4e8b\u696d\uff08\u7802\u9632\u5830\u5824\u5de5\uff09","survey_name":"\u5e73\u621023\u5e74\u5ea6\u3000\u5929\u7adc\u5ddd\u6c34\u7cfb\u5c0f\u6e0b\u5ddd\u30fb\u9060\u5c71\u5ddd\u5730\u533a\u5730\u8cea\u8abf\u67fb","client_name":"\"\u56fd\u571f\u4ea4\u901a\u7701 \u4e2d\u90e8\u5730\u65b9\u6574\u5099\u5c40\u3000\u5929\u7adc\u5ddd\u4e0a\u6d41\u6cb3\u5ddd\u4e8b\u52d9\u6240\"","boring_xml_url":60,"boring_view_url":1,"soilmap_view_url":null,"soiltest_xml_url":0,"soiltest_view_url":0},{"id":512115,"code":"B4KJ202201001-4651","latitude":"35.400478","longitude":"137.972224","source_code":"CB85706320310030","project_name":"\u571f\u77f3\u6d41\u5bfe\u7b56\u4e8b\u696d\uff08\u7802\u9632\u5830\u5824\u5de5\uff09","survey_name":"\u5e73\u621023\u5e74\u5ea6\u3000\u5929\u7adc\u5ddd\u6c34\u7cfb\u5c0f\u6e0b\u5ddd\u30fb\u9060\u5c71\u5ddd\u5730\u533a\u5730\u8cea\u8abf\u67fb","client_name":"\"\u56fd\u571f\u4ea4\u901a\u7701 \u4e2d\u90e8\u5730\u65b9\u6574\u5099\u5c40\u3000\u5929\u7adc\u5ddd\u4e0a\u6d41\u6cb3\u5ddd\u4e8b\u52d9\u6240\"","boring_xml_url":60,"boring_view_url":1,"soilmap_view_url":null,"soiltest_xml_url":0,"soiltest_view_url":0},{"id":512114,"code":"B4KJ202201001-4650","latitude":"35.400622","longitude":"137.971869","source_code":"CB85706320310029","project_name":"\u571f\u77f3\u6d41\u5bfe\u7b56\u4e8b\u696d\uff08\u7802\u9632\u5830\u5824\u5de5\uff09","survey_name":"\u5e73\u621023\u5e74\u5ea6\u3000\u5929\u7adc\u5ddd\u6c34\u7cfb\u5c0f\u6e0b\u5ddd\u30fb\u9060\u5c71\u5ddd\u5730\u533a\u5730\u8cea\u8abf\u67fb","client_name":"\"\u56fd\u571f\u4ea4\u901a\u7701 \u4e2d\u90e8\u5730\u65b9\u6574\u5099\u5c40\u3000\u5929\u7adc\u5ddd\u4e0a\u6d41\u6cb3\u5ddd\u4e8b\u52d9\u6240\"","boring_xml_url":60,"boring_view_url":1,"soilmap_view_url":null,"soiltest_xml_url":0,"soiltest_view_url":0},{"id":512113,"code":"B4KJ202201001-4649","latitude":"35.400695","longitude":"137.971592","source_code":"CB85706320310028","project_name":"\u571f\u77f3\u6d41\u5bfe\u7b56\u4e8b\u696d\uff08\u7802\u9632\u5830\u5824\u5de5\uff09","survey_name":"\u5e73\u621023\u5e74\u5ea6\u3000\u5929\u7adc\u5ddd\u6c34\u7cfb\u5c0f\u6e0b\u5ddd\u30fb\u9060\u5c71\u5ddd\u5730\u533a\u5730\u8cea\u8abf\u67fb","client_name":"\"\u56fd\u571f\u4ea4\u901a\u7701 \u4e2d\u90e8\u5730\u65b9\u6574\u5099\u5c40\u3000\u5929\u7adc\u5ddd\u4e0a\u6d41\u6cb3\u5ddd\u4e8b\u52d9\u6240\"","boring_xml_url":60,"boring_view_url":1,"soilmap_view_url":null,"soiltest_xml_url":0,"soiltest_view_url":0},{"id":512112,"code":"B4KJ202201001-4648","latitude":"35.504441","longitude":"138.018376","source_code":"CB85706320310027","project_name":"\u571f\u77f3\u6d41\u5bfe\u7b56\u4e8b\u696d\uff08\u7802\u9632\u5830\u5824\u5de5\uff09","survey_name":"\u5e73\u621023\u5e74\u5ea6\u3000\u5929\u7adc\u5ddd\u6c34\u7cfb\u5c0f\u6e0b\u5ddd\u30fb\u9060\u5c71\u5ddd\u5730\u533a\u5730\u8cea\u8abf\u67fb","client_name":"\"\u56fd\u571f\u4ea4\u901a\u7701 \u4e2d\u90e8\u5730\u65b9\u6574\u5099\u5c40\u3000\u5929\u7adc\u5ddd\u4e0a\u6d41\u6cb3\u5ddd\u4e8b\u52d9\u6240\"","boring_xml_url":60,"boring_view_url":1,"soilmap_view_url":null,"soiltest_xml_url":0,"soiltest_view_url":0},{"id":512111,"code":"B4KJ202201001-4647","latitude":"35.504242","longitude":"138.018352","source_code":"CB85706320310026","project_name":"\u571f\u77f3\u6d41\u5bfe\u7b56\u4e8b\u696d\uff08\u7802\u9632\u5830\u5824\u5de5\uff09","survey_name":"\u5e73\u621023\u5e74\u5ea6\u3000\u5929\u7adc\u5ddd\u6c34\u7cfb\u5c0f\u6e0b\u5ddd\u30fb\u9060\u5c71\u5ddd\u5730\u533a\u5730\u8cea\u8abf\u67fb","client_name":"\"\u56fd\u571f\u4ea4\u901a\u7701 \u4e2d\u90e8\u5730\u65b9\u6574\u5099\u5c40\u3000\u5929\u7adc\u5ddd\u4e0a\u6d41\u6cb3\u5ddd\u4e8b\u52d9\u6240\"","boring_xml_url":60,"boring_view_url":1,"soilmap_view_url":null,"soiltest_xml_url":0,"soiltest_view_url":0},{"id":512110,"code":"B4KJ202201001-4646","latitude":"35.504238","longitude":"138.018474","source_code":"CB85706320310025","project_name":"\u571f\u77f3\u6d41\u5bfe\u7b56\u4e8b\u696d\uff08\u7802\u9632\u5830\u5824\u5de5\uff09","survey_name":"\u5e73\u621023\u5e74\u5ea6\u3000\u5929\u7adc\u5ddd\u6c34\u7cfb\u5c0f\u6e0b\u5ddd\u30fb\u9060\u5c71\u5ddd\u5730\u533a\u5730\u8cea\u8abf\u67fb","client_name":"\"\u56fd\u571f\u4ea4\u901a\u7701 \u4e2d\u90e8\u5730\u65b9\u6574\u5099\u5c40\u3000\u5929\u7adc\u5ddd\u4e0a\u6d41\u6cb3\u5ddd\u4e8b\u52d9\u6240\"","boring_xml_url":60,"boring_view_url":1,"soilmap_view_url":null,"soiltest_xml_url":0,"soiltest_view_url":0},{"id":512109,"code":"B4KJ202201001-4645","latitude":"35.534725","longitude":"138.069749","source_code":"CB85706320310024","project_name":"\u571f\u77f3\u6d41\u5bfe\u7b56\u4e8b\u696d\uff08\u7802\u9632\u5830\u5824\u5de5\uff09","survey_name":"\u5e73\u621023\u5e74\u5ea6\u3000\u5929\u7adc\u5ddd\u6c34\u7cfb\u5c0f\u6e0b\u5ddd\u30fb\u9060\u5c71\u5ddd\u5730\u533a\u5730\u8cea\u8abf\u67fb","client_name":"\"\u56fd\u571f\u4ea4\u901a\u7701 \u4e2d\u90e8\u5730\u65b9\u6574\u5099\u5c40\u3000\u5929\u7adc\u5ddd\u4e0a\u6d41\u6cb3\u5ddd\u4e8b\u52d9\u6240\"","boring_xml_url":60,"boring_view_url":1,"soilmap_view_url":null,"soiltest_xml_url":0,"soiltest_view_url":0},{"id":512108,"code":"B4KJ202201001-4644","latitude":"35.534885","longitude":"138.069761","source_code":"CB85706320310023","project_name":"\u571f\u77f3\u6d41\u5bfe\u7b56\u4e8b\u696d\uff08\u7802\u9632\u5830\u5824\u5de5\uff09","survey_name":"\u5e73\u621023\u5e74\u5ea6\u3000\u5929\u7adc\u5ddd\u6c34\u7cfb\u5c0f\u6e0b\u5ddd\u30fb\u9060\u5c71\u5ddd\u5730\u533a\u5730\u8cea\u8abf\u67fb","client_name":"\"\u56fd\u571f\u4ea4\u901a\u7701 \u4e2d\u90e8\u5730\u65b9\u6574\u5099\u5c40\u3000\u5929\u7adc\u5ddd\u4e0a\u6d41\u6cb3\u5ddd\u4e8b\u52d9\u6240\"","boring_xml_url":60,"boring_view_url":1,"soilmap_view_url":null,"soiltest_xml_url":0,"soiltest_view_url":0},{"id":512107,"code":"B4KJ202201001-4643","latitude":"35.372586","longitude":"137.960803","source_code":"CB85706320310020","project_name":"\u571f\u77f3\u6d41\u5bfe\u7b56\u4e8b\u696d\uff08\u7802\u9632\u5830\u5824\u5de5\uff09","survey_name":"\u5e73\u621023\u5e74\u5ea6\u3000\u5929\u7adc\u5ddd\u6c34\u7cfb\u5c0f\u6e0b\u5ddd\u30fb\u9060\u5c71\u5ddd\u5730\u533a\u5730\u8cea\u8abf\u67fb","client_name":"\"\u56fd\u571f\u4ea4\u901a\u7701 \u4e2d\u90e8\u5730\u65b9\u6574\u5099\u5c40\u3000\u5929\u7adc\u5ddd\u4e0a\u6d41\u6cb3\u5ddd\u4e8b\u52d9\u6240\"","boring_xml_url":60,"boring_view_url":1,"soilmap_view_url":null,"soiltest_xml_url":0,"soiltest_view_url":0},{"id":512106,"code":"B4KJ202201001-4642","latitude":"35.372692","longitude":"137.960561","source_code":"CB85706320310019","project_name":"\u571f\u77f3\u6d41\u5bfe\u7b56\u4e8b\u696d\uff08\u7802\u9632\u5830\u5824\u5de5\uff09","survey_name":"\u5e73\u621023\u5e74\u5ea6\u3000\u5929\u7adc\u5ddd\u6c34\u7cfb\u5c0f\u6e0b\u5ddd\u30fb\u9060\u5c71\u5ddd\u5730\u533a\u5730\u8cea\u8abf\u67fb","client_name":"\"\u56fd\u571f\u4ea4\u901a\u7701 \u4e2d\u90e8\u5730\u65b9\u6574\u5099\u5c40\u3000\u5929\u7adc\u5ddd\u4e0a\u6d41\u6cb3\u5ddd\u4e8b\u52d9\u6240\"","boring_xml_url":60,"boring_view_url":1,"soilmap_view_url":null,"soiltest_xml_url":0,"soiltest_view_url":0},{"id":512105,"code":"B4KJ202201001-4641","latitude":"35.360471","longitude":"137.955731","source_code":"CB85706320310018","project_name":"\u571f\u77f3\u6d41\u5bfe\u7b56\u4e8b\u696d\uff08\u7802\u9632\u5830\u5824\u5de5\uff09","survey_name":"\u5e73\u621023\u5e74\u5ea6\u3000\u5929\u7adc\u5ddd\u6c34\u7cfb\u5c0f\u6e0b\u5ddd\u30fb\u9060\u5c71\u5ddd\u5730\u533a\u5730\u8cea\u8abf\u67fb","client_name":"\"\u56fd\u571f\u4ea4\u901a\u7701 \u4e2d\u90e8\u5730\u65b9\u6574\u5099\u5c40\u3000\u5929\u7adc\u5ddd\u4e0a\u6d41\u6cb3\u5ddd\u4e8b\u52d9\u6240\"","boring_xml_url":60,"boring_view_url":1,"soilmap_view_url":null,"soiltest_xml_url":0,"soiltest_view_url":0},{"id":512104,"code":"B4KJ202201001-4640","latitude":"35.360408","longitude":"137.955735","source_code":"CB85706320310017","project_name":"\u571f\u77f3\u6d41\u5bfe\u7b56\u4e8b\u696d\uff08\u7802\u9632\u5830\u5824\u5de5\uff09","survey_name":"\u5e73\u621023\u5e74\u5ea6\u3000\u5929\u7adc\u5ddd\u6c34\u7cfb\u5c0f\u6e0b\u5ddd\u30fb\u9060\u5c71\u5ddd\u5730\u533a\u5730\u8cea\u8abf\u67fb","client_name":"\"\u56fd\u571f\u4ea4\u901a\u7701 \u4e2d\u90e8\u5730\u65b9\u6574\u5099\u5c40\u3000\u5929\u7adc\u5ddd\u4e0a\u6d41\u6cb3\u5ddd\u4e8b\u52d9\u6240\"","boring_xml_url":60,"boring_view_url":1,"soilmap_view_url":null,"soiltest_xml_url":0,"soiltest_view_url":0},{"id":512103,"code":"B4KJ202201001-4639","latitude":"35.360833","longitude":"137.955762","source_code":"CB85706320310016","project_name":"\u571f\u77f3\u6d41\u5bfe\u7b56\u4e8b\u696d\uff08\u7802\u9632\u5830\u5824\u5de5\uff09","survey_name":"\u5e73\u621023\u5e74\u5ea6\u3000\u5929\u7adc\u5ddd\u6c34\u7cfb\u5c0f\u6e0b\u5ddd\u30fb\u9060\u5c71\u5ddd\u5730\u533a\u5730\u8cea\u8abf\u67fb","client_name":"\"\u56fd\u571f\u4ea4\u901a\u7701 \u4e2d\u90e8\u5730\u65b9\u6574\u5099\u5c40\u3000\u5929\u7adc\u5ddd\u4e0a\u6d41\u6cb3\u5ddd\u4e8b\u52d9\u6240\"","boring_xml_url":60,"boring_view_url":1,"soilmap_view_url":null,"soiltest_xml_url":0,"soiltest_view_url":0},{"id":512102,"code":"B4KJ202201001-4638","latitude":"35.415928","longitude":"137.976435","source_code":"CB85706320310015","project_name":"\u571f\u77f3\u6d41\u5bfe\u7b56\u4e8b\u696d\uff08\u7802\u9632\u5830\u5824\u5de5\uff09","survey_name":"\u5e73\u621023\u5e74\u5ea6\u3000\u5929\u7adc\u5ddd\u6c34\u7cfb\u5c0f\u6e0b\u5ddd\u30fb\u9060\u5c71\u5ddd\u5730\u533a\u5730\u8cea\u8abf\u67fb","client_name":"\"\u56fd\u571f\u4ea4\u901a\u7701 \u4e2d\u90e8\u5730\u65b9\u6574\u5099\u5c40\u3000\u5929\u7adc\u5ddd\u4e0a\u6d41\u6cb3\u5ddd\u4e8b\u52d9\u6240\"","boring_xml_url":60,"boring_view_url":1,"soilmap_view_url":null,"soiltest_xml_url":0,"soiltest_view_url":0},{"id":512101,"code":"B4KJ202201001-4637","latitude":"35.415928","longitude":"137.976435","source_code":"CB85706320310013","project_name":"\u571f\u77f3\u6d41\u5bfe\u7b56\u4e8b\u696d\uff08\u7802\u9632\u5830\u5824\u5de5\uff09","survey_name":"\u5e73\u621023\u5e74\u5ea6\u3000\u5929\u7adc\u5ddd\u6c34\u7cfb\u5c0f\u6e0b\u5ddd\u30fb\u9060\u5c71\u5ddd\u5730\u533a\u5730\u8cea\u8abf\u67fb","client_name":"\"\u56fd\u571f\u4ea4\u901a\u7701 \u4e2d\u90e8\u5730\u65b9\u6574\u5099\u5c40\u3000\u5929\u7adc\u5ddd\u4e0a\u6d41\u6cb3\u5ddd\u4e8b\u52d9\u6240\u3000\u7802\u9632\u8abf\u67fb\u8ab2\"","boring_xml_url":60,"boring_view_url":1,"soilmap_view_url":null,"soiltest_xml_url":0,"soiltest_view_url":0},{"id":512100,"code":"B4KJ202201001-4636","latitude":"35.416006","longitude":"137.976781","source_code":"CB85706320310012","project_name":"\u571f\u77f3\u6d41\u5bfe\u7b56\u4e8b\u696d\uff08\u7802\u9632\u5830\u5824\u5de5\uff09","survey_name":"\u5e73\u621023\u5e74\u5ea6\u3000\u5929\u7adc\u5ddd\u6c34\u7cfb\u5c0f\u6e0b\u5ddd\u30fb\u9060\u5c71\u5ddd\u5730\u533a\u5730\u8cea\u8abf\u67fb","client_name":"\"\u56fd\u571f\u4ea4\u901a\u7701 \u4e2d\u90e8\u5730\u65b9\u6574\u5099\u5c40\u3000\u5929\u7adc\u5ddd\u4e0a\u6d41\u6cb3\u5ddd\u4e8b\u52d9\u6240\u3000\u7802\u9632\u8abf\u67fb\u8ab2\"","boring_xml_url":60,"boring_view_url":1,"soilmap_view_url":null,"soiltest_xml_url":0,"soiltest_view_url":0},{"id":512099,"code":"B4KJ202201001-4635","latitude":"35.355712","longitude":"137.952998","source_code":"CB85706320310011","project_name":"\u571f\u77f3\u6d41\u5bfe\u7b56\u4e8b\u696d\uff08\u7802\u9632\u5830\u5824\u5de5\uff09","survey_name":"\u5e73\u621023\u5e74\u5ea6\u3000\u5929\u7adc\u5ddd\u6c34\u7cfb\u5c0f\u6e0b\u5ddd\u30fb\u9060\u5c71\u5ddd\u5730\u533a\u5730\u8cea\u8abf\u67fb","client_name":"\"\u56fd\u571f\u4ea4\u901a\u7701 \u4e2d\u90e8\u5730\u65b9\u6574\u5099\u5c40\u3000\u5929\u7adc\u5ddd\u4e0a\u6d41\u6cb3\u5ddd\u4e8b\u52d9\u6240\"","boring_xml_url":60,"boring_view_url":1,"soilmap_view_url":null,"soiltest_xml_url":0,"soiltest_view_url":0},{"id":512098,"code":"B4KJ202201001-4634","latitude":"35.355499","longitude":"137.953017","source_code":"CB85706320310010","project_name":"\u571f\u77f3\u6d41\u5bfe\u7b56\u4e8b\u696d\uff08\u7802\u9632\u5830\u5824\u5de5\uff09","survey_name":"\u5e73\u621023\u5e74\u5ea6\u3000\u5929\u7adc\u5ddd\u6c34\u7cfb\u5c0f\u6e0b\u5ddd\u30fb\u9060\u5c71\u5ddd\u5730\u533a\u5730\u8cea\u8abf\u67fb","client_name":"\"\u56fd\u571f\u4ea4\u901a\u7701 \u4e2d\u90e8\u5730\u65b9\u6574\u5099\u5c40\u3000\u5929\u7adc\u5ddd\u4e0a\u6d41\u6cb3\u5ddd\u4e8b\u52d9\u6240\"","boring_xml_url":60,"boring_view_url":1,"soilmap_view_url":null,"soiltest_xml_url":0,"soiltest_view_url":0},{"id":512097,"code":"B4KJ202201001-4633","latitude":"35.372692","longitude":"137.960561","source_code":"CB85706320310009","project_name":"\u571f\u77f3\u6d41\u5bfe\u7b56\u4e8b\u696d\uff08\u7802\u9632\u5830\u5824\u5de5\uff09","survey_name":"\u5e73\u621023\u5e74\u5ea6\u3000\u5929\u7adc\u5ddd\u6c34\u7cfb\u5c0f\u6e0b\u5ddd\u30fb\u9060\u5c71\u5ddd\u5730\u533a\u5730\u8cea\u8abf\u67fb","client_name":"\"\u56fd\u571f\u4ea4\u901a\u7701 \u4e2d\u90e8\u5730\u65b9\u6574\u5099\u5c40\u3000\u5929\u7adc\u5ddd\u4e0a\u6d41\u6cb3\u5ddd\u4e8b\u52d9\u6240\"","boring_xml_url":60,"boring_view_url":1,"soilmap_view_url":null,"soiltest_xml_url":0,"soiltest_view_url":0},{"id":512096,"code":"B4KJ202201001-4632","latitude":"35.355524","longitude":"137.95281","source_code":"CB85706320310008","project_name":"\u571f\u77f3\u6d41\u5bfe\u7b56\u4e8b\u696d\uff08\u7802\u9632\u5830\u5824\u5de5\uff09","survey_name":"\u5e73\u621023\u5e74\u5ea6\u3000\u5929\u7adc\u5ddd\u6c34\u7cfb\u5c0f\u6e0b\u5ddd\u30fb\u9060\u5c71\u5ddd\u5730\u533a\u5730\u8cea\u8abf\u67fb","client_name":"\"\u56fd\u571f\u4ea4\u901a\u7701 \u4e2d\u90e8\u5730\u65b9\u6574\u5099\u5c40\u3000\u5929\u7adc\u5ddd\u4e0a\u6d41\u6cb3\u5ddd\u4e8b\u52d9\u6240\"","boring_xml_url":60,"boring_view_url":1,"soilmap_view_url":null,"soiltest_xml_url":0,"soiltest_view_url":0},{"id":512095,"code":"B4KJ202201001-4631","latitude":"35.355191","longitude":"137.952787","source_code":"CB85706320310007","project_name":"\u571f\u77f3\u6d41\u5bfe\u7b56\u4e8b\u696d\uff08\u7802\u9632\u5830\u5824\u5de5\uff09","survey_name":"\u5e73\u621023\u5e74\u5ea6\u3000\u5929\u7adc\u5ddd\u6c34\u7cfb\u5c0f\u6e0b\u5ddd\u30fb\u9060\u5c71\u5ddd\u5730\u533a\u5730\u8cea\u8abf\u67fb","client_name":"\"\u56fd\u571f\u4ea4\u901a\u7701 \u4e2d\u90e8\u5730\u65b9\u6574\u5099\u5c40\u3000\u5929\u7adc\u5ddd\u4e0a\u6d41\u6cb3\u5ddd\u4e8b\u52d9\u6240\"","boring_xml_url":60,"boring_view_url":1,"soilmap_view_url":null,"soiltest_xml_url":0,"soiltest_view_url":0},{"id":512094,"code":"B4KJ202201001-4630","latitude":"35.400035","longitude":"137.972827","source_code":"CB85706320310006","project_name":"\u571f\u77f3\u6d41\u5bfe\u7b56\u4e8b\u696d\uff08\u7802\u9632\u5830\u5824\u5de5\uff09","survey_name":"\u5e73\u621023\u5e74\u5ea6\u3000\u5929\u7adc\u5ddd\u6c34\u7cfb\u5c0f\u6e0b\u5ddd\u30fb\u9060\u5c71\u5ddd\u5730\u533a\u5730\u8cea\u8abf\u67fb","client_name":"\"\u56fd\u571f\u4ea4\u901a\u7701 \u4e2d\u90e8\u5730\u65b9\u6574\u5099\u5c40\u3000\u5929\u7adc\u5ddd\u4e0a\u6d41\u6cb3\u5ddd\u4e8b\u52d9\u6240\"","boring_xml_url":60,"boring_view_url":1,"soilmap_view_url":null,"soiltest_xml_url":0,"soiltest_view_url":0},{"id":512093,"code":"B4KJ202201001-4629","latitude":"35.400223","longitude":"137.97297","source_code":"CB85706320310005","project_name":"\u571f\u77f3\u6d41\u5bfe\u7b56\u4e8b\u696d\uff08\u7802\u9632\u5830\u5824\u5de5\uff09","survey_name":"\u5e73\u621023\u5e74\u5ea6\u3000\u5929\u7adc\u5ddd\u6c34\u7cfb\u5c0f\u6e0b\u5ddd\u30fb\u9060\u5c71\u5ddd\u5730\u533a\u5730\u8cea\u8abf\u67fb","client_name":"\"\u56fd\u571f\u4ea4\u901a\u7701 \u4e2d\u90e8\u5730\u65b9\u6574\u5099\u5c40\u3000\u5929\u7adc\u5ddd\u4e0a\u6d41\u6cb3\u5ddd\u4e8b\u52d9\u6240\"","boring_xml_url":60,"boring_view_url":1,"soilmap_view_url":null,"soiltest_xml_url":0,"soiltest_view_url":0},{"id":512092,"code":"B4KJ202201001-4628","latitude":"35.399752","longitude":"137.973059","source_code":"CB85706320310003","project_name":"\u571f\u77f3\u6d41\u5bfe\u7b56\u4e8b\u696d\uff08\u7802\u9632\u5830\u5824\u5de5\uff09","survey_name":"\u5e73\u621023\u5e74\u5ea6\u3000\u5929\u7adc\u5ddd\u6c34\u7cfb\u5c0f\u6e0b\u5ddd\u30fb\u9060\u5c71\u5ddd\u5730\u533a\u5730\u8cea\u8abf\u67fb","client_name":"\"\u56fd\u571f\u4ea4\u901a\u7701 \u4e2d\u90e8\u5730\u65b9\u6574\u5099\u5c40\u3000\u5929\u7adc\u5ddd\u4e0a\u6d41\u6cb3\u5ddd\u4e8b\u52d9\u6240\"","boring_xml_url":60,"boring_view_url":1,"soilmap_view_url":null,"soiltest_xml_url":0,"soiltest_view_url":0},{"id":512091,"code":"B4KJ202201001-4627","latitude":"35.39989","longitude":"137.973164","source_code":"CB85706320310002","project_name":"\u571f\u77f3\u6d41\u5bfe\u7b56\u4e8b\u696d\uff08\u7802\u9632\u5830\u5824\u5de5\uff09","survey_name":"\u5e73\u621023\u5e74\u5ea6\u3000\u5929\u7adc\u5ddd\u6c34\u7cfb\u5c0f\u6e0b\u5ddd\u30fb\u9060\u5c71\u5ddd\u5730\u533a\u5730\u8cea\u8abf\u67fb","client_name":"\"\u56fd\u571f\u4ea4\u901a\u7701 \u4e2d\u90e8\u5730\u65b9\u6574\u5099\u5c40\u3000\u5929\u7adc\u5ddd\u4e0a\u6d41\u6cb3\u5ddd\u4e8b\u52d9\u6240\"","boring_xml_url":60,"boring_view_url":1,"soilmap_view_url":null,"soiltest_xml_url":0,"soiltest_view_url":0},{"id":512090,"code":"B4KJ202201001-4626","latitude":"35.400195","longitude":"137.973398","source_code":"CB85706320310001","project_name":"\u571f\u77f3\u6d41\u5bfe\u7b56\u4e8b\u696d\uff08\u7802\u9632\u5830\u5824\u5de5\uff09","survey_name":"\u5e73\u621023\u5e74\u5ea6\u3000\u5929\u7adc\u5ddd\u6c34\u7cfb\u5c0f\u6e0b\u5ddd\u30fb\u9060\u5c71\u5ddd\u5730\u533a\u5730\u8cea\u8abf\u67fb","client_name":"\"\u56fd\u571f\u4ea4\u901a\u7701 \u4e2d\u90e8\u5730\u65b9\u6574\u5099\u5c40\u3000\u5929\u7adc\u5ddd\u4e0a\u6d41\u6cb3\u5ddd\u4e8b\u52d9\u6240\"","boring_xml_url":60,"boring_view_url":1,"soilmap_view_url":null,"soiltest_xml_url":0,"soiltest_view_url":0},{"id":512089,"code":"B4KJ202201001-4625","latitude":"35.541","longitude":"138.025751","source_code":"CB1185706320950006","project_name":"\u5e73\u621023\u5e74\u5ea6\u3000\u5929\u7adc\u5ddd\u6c34\u7cfb\u5c0f\u6e0b\u5ddd\u5730\u533a\u7802\u9632\u5830\u5824\u8001\u673d\u5316\u8abf\u67fb\u696d\u52d9","survey_name":"\u5e73\u621023\u5e74\u5ea6\u3000\u5929\u7adc\u5ddd\u6c34\u7cfb\u5c0f\u6e0b\u5ddd\u5730\u533a\u7802\u9632\u5830\u5824\u8001\u673d\u5316\u8abf\u67fb\u696d\u52d9","client_name":"\"\u56fd\u571f\u4ea4\u901a\u7701 \u4e2d\u90e8\u5730\u65b9\u6574\u5099\u5c40 \u5929\u7adc\u5ddd\u4e0a\u6d41\u6cb3\u5ddd\u4e8b\u52d9\u6240\"","boring_xml_url":64,"boring_view_url":1,"soilmap_view_url":null,"soiltest_xml_url":0,"soiltest_view_url":0}]}}