{"header":{"xyz":{"source":[],"mosaic":false},"page":1113,"raw":{"soiltest_result":"0","bbox":"57.598333,109.544722,1.933333,163.806111","page":"1113"},"conditions":{"soiltest_result":0,"north":57.598333,"west":109.544722,"south":1.933333,"east":163.806111},"success":true,"message":""},"data":{"meta":{"total":212844,"page":1113,"pages":7095,"count":30},"values":[{"id":512028,"code":"B4KJ202201001-4564","latitude":"35.219278","longitude":"138.739528","source_code":"CB1185436620420006","project_name":"-","survey_name":"\u5e73\u621023\u5e74\u5ea6\u3000\u5bcc\u58eb\u5c71\u5bcc\u58eb\u5730\u533a\u5730\u8cea\u8abf\u67fb","client_name":"\u56fd\u571f\u4ea4\u901a\u7701\u4e2d\u90e8\u5730\u65b9\u6574\u5099\u5c40\u5bcc\u58eb\u7802\u9632\u4e8b\u52d9\u6240","boring_xml_url":64,"boring_view_url":1,"soilmap_view_url":null,"soiltest_xml_url":0,"soiltest_view_url":0},{"id":512027,"code":"B4KJ202201001-4563","latitude":"35.219278","longitude":"138.739528","source_code":"CB1185436620420005","project_name":"-","survey_name":"\u5e73\u621023\u5e74\u5ea6\u3000\u5bcc\u58eb\u5c71\u5bcc\u58eb\u5730\u533a\u5730\u8cea\u8abf\u67fb","client_name":"\u56fd\u571f\u4ea4\u901a\u7701\u4e2d\u90e8\u5730\u65b9\u6574\u5099\u5c40\u5bcc\u58eb\u7802\u9632\u4e8b\u52d9\u6240","boring_xml_url":64,"boring_view_url":1,"soilmap_view_url":null,"soiltest_xml_url":0,"soiltest_view_url":0},{"id":512026,"code":"B4KJ202201001-4562","latitude":"35.21425","longitude":"138.738083","source_code":"CB1185436620420004","project_name":"-","survey_name":"\u5e73\u621023\u5e74\u5ea6\u3000\u5bcc\u58eb\u5c71\u5bcc\u58eb\u5730\u533a\u5730\u8cea\u8abf\u67fb","client_name":"\u56fd\u571f\u4ea4\u901a\u7701\u4e2d\u90e8\u5730\u65b9\u6574\u5099\u5c40\u5bcc\u58eb\u7802\u9632\u4e8b\u52d9\u6240","boring_xml_url":64,"boring_view_url":1,"soilmap_view_url":null,"soiltest_xml_url":0,"soiltest_view_url":0},{"id":512025,"code":"B4KJ202201001-4561","latitude":"35.21425","longitude":"138.738083","source_code":"CB1185436620420003","project_name":"-","survey_name":"\u5e73\u621023\u5e74\u5ea6\u3000\u5bcc\u58eb\u5c71\u5bcc\u58eb\u5730\u533a\u5730\u8cea\u8abf\u67fb","client_name":"\u56fd\u571f\u4ea4\u901a\u7701\u4e2d\u90e8\u5730\u65b9\u6574\u5099\u5c40\u5bcc\u58eb\u7802\u9632\u4e8b\u52d9\u6240","boring_xml_url":64,"boring_view_url":1,"soilmap_view_url":null,"soiltest_xml_url":0,"soiltest_view_url":0},{"id":512024,"code":"B4KJ202201001-4560","latitude":"35.21425","longitude":"138.738083","source_code":"CB1185436620420002","project_name":"-","survey_name":"\u5e73\u621023\u5e74\u5ea6\u3000\u5bcc\u58eb\u5c71\u5bcc\u58eb\u5730\u533a\u5730\u8cea\u8abf\u67fb","client_name":"\u56fd\u571f\u4ea4\u901a\u7701\u4e2d\u90e8\u5730\u65b9\u6574\u5099\u5c40\u5bcc\u58eb\u7802\u9632\u4e8b\u52d9\u6240","boring_xml_url":64,"boring_view_url":1,"soilmap_view_url":null,"soiltest_xml_url":0,"soiltest_view_url":0},{"id":512023,"code":"B4KJ202201001-4559","latitude":"35.21425","longitude":"138.738083","source_code":"CB1185436620420001","project_name":"-","survey_name":"\u5e73\u621023\u5e74\u5ea6\u3000\u5bcc\u58eb\u5c71\u5bcc\u58eb\u5730\u533a\u5730\u8cea\u8abf\u67fb","client_name":"\u56fd\u571f\u4ea4\u901a\u7701\u4e2d\u90e8\u5730\u65b9\u6574\u5099\u5c40\u5bcc\u58eb\u7802\u9632\u4e8b\u52d9\u6240","boring_xml_url":64,"boring_view_url":1,"soilmap_view_url":null,"soiltest_xml_url":0,"soiltest_view_url":0},{"id":512022,"code":"B4KJ202201001-4558","latitude":"35.313758","longitude":"138.637547","source_code":"CB1185436620350012","project_name":"X=-76124.044\u3000\u3001Y=12507.083","survey_name":"\u5e73\u621023\u5e74\u5ea6\u3000\u5bcc\u58eb\u5c71\u5bcc\u58eb\u5bae\u5730\u533a\u5730\u8cea\u8abf\u67fb","client_name":"\u56fd\u571f\u4ea4\u901a\u7701\u3000\u4e2d\u90e8\u5730\u65b9\u6574\u5099\u5c40\u3000\u5bcc\u58eb\u7802\u9632\u4e8b\u52d9\u6240","boring_xml_url":64,"boring_view_url":1,"soilmap_view_url":null,"soiltest_xml_url":0,"soiltest_view_url":0},{"id":512021,"code":"B4KJ202201001-4557","latitude":"35.314261","longitude":"138.636997","source_code":"CB1185436620350011","project_name":"X=-76068.274\u3000\u3001Y=12456.937","survey_name":"\u5e73\u621023\u5e74\u5ea6\u3000\u5bcc\u58eb\u5c71\u5bcc\u58eb\u5bae\u5730\u533a\u5730\u8cea\u8abf\u67fb","client_name":"\u56fd\u571f\u4ea4\u901a\u7701\u3000\u4e2d\u90e8\u5730\u65b9\u6574\u5099\u5c40\u3000\u5bcc\u58eb\u7802\u9632\u4e8b\u52d9\u6240","boring_xml_url":64,"boring_view_url":1,"soilmap_view_url":null,"soiltest_xml_url":0,"soiltest_view_url":0},{"id":512020,"code":"B4KJ202201001-4556","latitude":"35.313072","longitude":"138.636819","source_code":"CB1185436620350010","project_name":"X=-76200.201\u3000\u3001Y=12441.080","survey_name":"\u5e73\u621023\u5e74\u5ea6\u3000\u5bcc\u58eb\u5c71\u5bcc\u58eb\u5bae\u5730\u533a\u5730\u8cea\u8abf\u67fb","client_name":"\u56fd\u571f\u4ea4\u901a\u7701\u3000\u4e2d\u90e8\u5730\u65b9\u6574\u5099\u5c40\u3000\u5bcc\u58eb\u7802\u9632\u4e8b\u52d9\u6240","boring_xml_url":64,"boring_view_url":1,"soilmap_view_url":null,"soiltest_xml_url":0,"soiltest_view_url":0},{"id":512019,"code":"B4KJ202201001-4555","latitude":"35.313408","longitude":"138.636453","source_code":"CB1185436620350009","project_name":"X=-76163.021\u3000\u3001Y=12407.649","survey_name":"\u5e73\u621023\u5e74\u5ea6\u3000\u5bcc\u58eb\u5c71\u5bcc\u58eb\u5bae\u5730\u533a\u5730\u8cea\u8abf\u67fb","client_name":"\u56fd\u571f\u4ea4\u901a\u7701\u3000\u4e2d\u90e8\u5730\u65b9\u6574\u5099\u5c40\u3000\u5bcc\u58eb\u7802\u9632\u4e8b\u52d9\u6240","boring_xml_url":64,"boring_view_url":1,"soilmap_view_url":null,"soiltest_xml_url":0,"soiltest_view_url":0},{"id":512018,"code":"B4KJ202201001-4554","latitude":"35.313744","longitude":"138.636086","source_code":"CB1185436620350008","project_name":"X=-76125.841\u3000\u3001Y=12374.218","survey_name":"\u5e73\u621023\u5e74\u5ea6\u3000\u5bcc\u58eb\u5c71\u5bcc\u58eb\u5bae\u5730\u533a\u5730\u8cea\u8abf\u67fb","client_name":"\u56fd\u571f\u4ea4\u901a\u7701\u3000\u4e2d\u90e8\u5730\u65b9\u6574\u5099\u5c40\u3000\u5bcc\u58eb\u7802\u9632\u4e8b\u52d9\u6240","boring_xml_url":64,"boring_view_url":1,"soilmap_view_url":null,"soiltest_xml_url":0,"soiltest_view_url":0},{"id":512017,"code":"B4KJ202201001-4553","latitude":"35.323278","longitude":"138.643989","source_code":"CB1185436620350007","project_name":"X=-75067.235\u3000\u3001Y=13091.160","survey_name":"\u5e73\u621023\u5e74\u5ea6\u3000\u5bcc\u58eb\u5c71\u5bcc\u58eb\u5bae\u5730\u533a\u5730\u8cea\u8abf\u67fb","client_name":"\u56fd\u571f\u4ea4\u901a\u7701\u3000\u4e2d\u90e8\u5730\u65b9\u6574\u5099\u5c40\u3000\u5bcc\u58eb\u7802\u9632\u4e8b\u52d9\u6240","boring_xml_url":64,"boring_view_url":1,"soilmap_view_url":null,"soiltest_xml_url":0,"soiltest_view_url":0},{"id":512016,"code":"B4KJ202201001-4552","latitude":"35.323392","longitude":"138.643842","source_code":"CB1185436620350006","project_name":"X=-75054.523\u3000\u3001Y=13077.941","survey_name":"\u5e73\u621023\u5e74\u5ea6\u3000\u5bcc\u58eb\u5c71\u5bcc\u58eb\u5bae\u5730\u533a\u5730\u8cea\u8abf\u67fb","client_name":"\u56fd\u571f\u4ea4\u901a\u7701\u3000\u4e2d\u90e8\u5730\u65b9\u6574\u5099\u5c40\u3000\u5bcc\u58eb\u7802\u9632\u4e8b\u52d9\u6240","boring_xml_url":64,"boring_view_url":1,"soilmap_view_url":null,"soiltest_xml_url":0,"soiltest_view_url":0},{"id":512015,"code":"B4KJ202201001-4551","latitude":"35.323536","longitude":"138.643658","source_code":"CB1185436620350005","project_name":"X=-75038.421\u3000\u3001Y=13061.196","survey_name":"\u5e73\u621023\u5e74\u5ea6\u3000\u5bcc\u58eb\u5c71\u5bcc\u58eb\u5bae\u5730\u533a\u5730\u8cea\u8abf\u67fb","client_name":"\u56fd\u571f\u4ea4\u901a\u7701\u3000\u4e2d\u90e8\u5730\u65b9\u6574\u5099\u5c40\u3000\u5bcc\u58eb\u7802\u9632\u4e8b\u52d9\u6240","boring_xml_url":64,"boring_view_url":1,"soilmap_view_url":null,"soiltest_xml_url":0,"soiltest_view_url":0},{"id":512014,"code":"B4KJ202201001-4550","latitude":"35.321689","longitude":"138.641781","source_code":"CB1185436620350004","project_name":"X=-75243.796\u3000\u3001Y=12890.821","survey_name":"\u5e73\u621023\u5e74\u5ea6\u3000\u5bcc\u58eb\u5c71\u5bcc\u58eb\u5bae\u5730\u533a\u5730\u8cea\u8abf\u67fb","client_name":"\u56fd\u571f\u4ea4\u901a\u7701\u3000\u4e2d\u90e8\u5730\u65b9\u6574\u5099\u5c40\u3000\u5bcc\u58eb\u7802\u9632\u4e8b\u52d9\u6240","boring_xml_url":64,"boring_view_url":1,"soilmap_view_url":null,"soiltest_xml_url":0,"soiltest_view_url":0},{"id":512013,"code":"B4KJ202201001-4549","latitude":"35.321714","longitude":"138.642086","source_code":"CB1185436620350003","project_name":"X=-75240.926\u3000\u3001Y=12918.646","survey_name":"\u5e73\u621023\u5e74\u5ea6\u3000\u5bcc\u58eb\u5c71\u5bcc\u58eb\u5bae\u5730\u533a\u5730\u8cea\u8abf\u67fb","client_name":"\u56fd\u571f\u4ea4\u901a\u7701\u3000\u4e2d\u90e8\u5730\u65b9\u6574\u5099\u5c40\u3000\u5bcc\u58eb\u7802\u9632\u4e8b\u52d9\u6240","boring_xml_url":64,"boring_view_url":1,"soilmap_view_url":null,"soiltest_xml_url":0,"soiltest_view_url":0},{"id":512012,"code":"B4KJ202201001-4548","latitude":"35.321831","longitude":"138.641942","source_code":"CB1185436620350002","project_name":"X=-7228.130\u3000\u3001Y=12905.462","survey_name":"\u5e73\u621023\u5e74\u5ea6\u3000\u5bcc\u58eb\u5c71\u5bcc\u58eb\u5bae\u5730\u533a\u5730\u8cea\u8abf\u67fb","client_name":"\u56fd\u571f\u4ea4\u901a\u7701\u3000\u4e2d\u90e8\u5730\u65b9\u6574\u5099\u5c40\u3000\u5bcc\u58eb\u7802\u9632\u4e8b\u52d9\u6240","boring_xml_url":64,"boring_view_url":1,"soilmap_view_url":null,"soiltest_xml_url":0,"soiltest_view_url":0},{"id":512011,"code":"B4KJ202201001-4547","latitude":"35.321975","longitude":"138.641761","source_code":"CB1185436620350001","project_name":"X=-75212.069\u3000\u3001Y=12888.915","survey_name":"\u5e73\u621023\u5e74\u5ea6\u3000\u5bcc\u58eb\u5c71\u5bcc\u58eb\u5bae\u5730\u533a\u5730\u8cea\u8abf\u67fb","client_name":"\u56fd\u571f\u4ea4\u901a\u7701\u3000\u4e2d\u90e8\u5730\u65b9\u6574\u5099\u5c40\u3000\u5bcc\u58eb\u7802\u9632\u4e8b\u52d9\u6240","boring_xml_url":64,"boring_view_url":1,"soilmap_view_url":null,"soiltest_xml_url":0,"soiltest_view_url":0},{"id":512010,"code":"B4KJ202201001-4546","latitude":"34.798028","longitude":"136.519778","source_code":"CB1085606120510002","project_name":"\u5e73\u621022\u5e74\u5ea6\u4e2d\u52e2\u9053\u8def\u6c34\u6587\u8abf\u67fb\uff088\u5de5\u533a\uff09","survey_name":"\u5e73\u621022\u5e74\u5ea6\u4e2d\u52e2\u9053\u8def\u6c34\u6587\u8abf\u67fb\uff088\u5de5\u533a\uff09","client_name":"\u56fd\u571f\u4ea4\u901a\u7701\u4e09\u91cd\u6cb3\u5ddd\u56fd\u9053\u4e8b\u52d9\u6240","boring_xml_url":64,"boring_view_url":1,"soilmap_view_url":null,"soiltest_xml_url":0,"soiltest_view_url":0},{"id":512009,"code":"B4KJ202201001-4545","latitude":"34.798167","longitude":"136.5195","source_code":"CB1085606120510001","project_name":"\u5e73\u621022\u5e74\u5ea6\u4e2d\u52e2\u9053\u8def\u6c34\u6587\u8abf\u67fb\uff088\u5de5\u533a\uff09","survey_name":"\u5e73\u621022\u5e74\u5ea6\u4e2d\u52e2\u9053\u8def\u6c34\u6587\u8abf\u67fb\uff088\u5de5\u533a\uff09","client_name":"\u56fd\u571f\u4ea4\u901a\u7701\u4e09\u91cd\u6cb3\u5ddd\u56fd\u9053\u4e8b\u52d9\u6240","boring_xml_url":64,"boring_view_url":1,"soilmap_view_url":null,"soiltest_xml_url":0,"soiltest_view_url":0},{"id":512008,"code":"B4KJ202201001-4544","latitude":"34.815454","longitude":"138.087614","source_code":"CB1085445520930004","project_name":"\u5e73\u621022\u5e74\u5ea6\u3000\u6d5c\u677e\u7ba1\u5185\u9632\u707d\u5bfe\u7b56\u691c\u8a0e\u696d\u52d9","survey_name":"\u5e73\u621022\u5e74\u5ea6\u3000\u6d5c\u677e\u7ba1\u5185\u9632\u707d\u5bfe\u7b56\u691c\u8a0e\u696d\u52d9","client_name":"\u56fd\u571f\u4ea4\u901a\u7701\u3000\u4e2d\u90e8\u5730\u65b9\u6574\u5099\u5c40\u3000\u6d5c\u677e\u6cb3\u5ddd\u56fd\u9053\u4e8b\u52d9\u6240","boring_xml_url":64,"boring_view_url":1,"soilmap_view_url":null,"soiltest_xml_url":0,"soiltest_view_url":0},{"id":512007,"code":"B4KJ202201001-4543","latitude":"34.815399","longitude":"138.087663","source_code":"CB1085445520930003","project_name":"\u5e73\u621022\u5e74\u5ea6\u3000\u6d5c\u677e\u7ba1\u5185\u9632\u707d\u5bfe\u7b56\u691c\u8a0e\u696d\u52d9","survey_name":"\u5e73\u621022\u5e74\u5ea6\u3000\u6d5c\u677e\u7ba1\u5185\u9632\u707d\u5bfe\u7b56\u691c\u8a0e\u696d\u52d9","client_name":"\u56fd\u571f\u4ea4\u901a\u7701\u3000\u4e2d\u90e8\u5730\u65b9\u6574\u5099\u5c40\u3000\u6d5c\u677e\u6cb3\u5ddd\u56fd\u9053\u4e8b\u52d9\u6240","boring_xml_url":64,"boring_view_url":1,"soilmap_view_url":null,"soiltest_xml_url":0,"soiltest_view_url":0},{"id":512006,"code":"B4KJ202201001-4542","latitude":"34.808506","longitude":"138.081532","source_code":"CB1085445520930002","project_name":"\u5e73\u621022\u5e74\u5ea6\u3000\u6d5c\u677e\u7ba1\u5185\u9632\u707d\u5bfe\u7b56\u691c\u8a0e\u696d\u52d9","survey_name":"\u5e73\u621022\u5e74\u5ea6\u3000\u6d5c\u677e\u7ba1\u5185\u9632\u707d\u5bfe\u7b56\u691c\u8a0e\u696d\u52d9","client_name":"\u56fd\u571f\u4ea4\u901a\u7701\u3000\u4e2d\u90e8\u5730\u65b9\u6574\u5099\u5c40\u3000\u6d5c\u677e\u6cb3\u5ddd\u56fd\u9053\u4e8b\u52d9\u6240","boring_xml_url":64,"boring_view_url":1,"soilmap_view_url":null,"soiltest_xml_url":0,"soiltest_view_url":0},{"id":512005,"code":"B4KJ202201001-4541","latitude":"34.808451","longitude":"138.081677","source_code":"CB1085445520930001","project_name":"\u5e73\u621022\u5e74\u5ea6\u3000\u6d5c\u677e\u7ba1\u5185\u9632\u707d\u5bfe\u7b56\u691c\u8a0e\u696d\u52d9","survey_name":"\u5e73\u621022\u5e74\u5ea6\u3000\u6d5c\u677e\u7ba1\u5185\u9632\u707d\u5bfe\u7b56\u691c\u8a0e\u696d\u52d9","client_name":"\u56fd\u571f\u4ea4\u901a\u7701\u3000\u4e2d\u90e8\u5730\u65b9\u6574\u5099\u5c40\u3000\u6d5c\u677e\u6cb3\u5ddd\u56fd\u9053\u4e8b\u52d9\u6240","boring_xml_url":64,"boring_view_url":1,"soilmap_view_url":null,"soiltest_xml_url":0,"soiltest_view_url":0},{"id":512004,"code":"B4KJ202201001-4540","latitude":"35.103889","longitude":"137.143056","source_code":"CB1085546420410013","project_name":"","survey_name":"\u5e73\u621022\u5e74\u5ea6\u3000155\u53f7\u8c4a\u7530\u5357BP\u5730\u8cea\u8abf\u67fb","client_name":"\u56fd\u571f\u4ea4\u901a\u7701\u4e2d\u90e8\u5730\u65b9\u6574\u5099\u5c40\u540d\u56db\u56fd\u9053\u4e8b\u52d9\u6240","boring_xml_url":64,"boring_view_url":1,"soilmap_view_url":null,"soiltest_xml_url":0,"soiltest_view_url":0},{"id":512003,"code":"B4KJ202201001-4539","latitude":"35.103056","longitude":"137.141944","source_code":"CB1085546420410012","project_name":"","survey_name":"\u5e73\u621022\u5e74\u5ea6\u3000155\u53f7\u8c4a\u7530\u5357BP\u5730\u8cea\u8abf\u67fb","client_name":"\u56fd\u571f\u4ea4\u901a\u7701\u4e2d\u90e8\u5730\u65b9\u6574\u5099\u5c40\u540d\u56db\u56fd\u9053\u4e8b\u52d9\u6240","boring_xml_url":64,"boring_view_url":1,"soilmap_view_url":null,"soiltest_xml_url":0,"soiltest_view_url":0},{"id":512002,"code":"B4KJ202201001-4538","latitude":"35.1025","longitude":"137.14","source_code":"CB1085546420410011","project_name":"","survey_name":"\u5e73\u621022\u5e74\u5ea6\u3000155\u53f7\u8c4a\u7530\u5357BP\u5730\u8cea\u8abf\u67fb","client_name":"\u56fd\u571f\u4ea4\u901a\u7701\u4e2d\u90e8\u5730\u65b9\u6574\u5099\u5c40\u540d\u56db\u56fd\u9053\u4e8b\u52d9\u6240","boring_xml_url":64,"boring_view_url":1,"soilmap_view_url":null,"soiltest_xml_url":0,"soiltest_view_url":0},{"id":512001,"code":"B4KJ202201001-4537","latitude":"35.1025","longitude":"137.139444","source_code":"CB1085546420410010","project_name":"","survey_name":"\u5e73\u621022\u5e74\u5ea6\u3000155\u53f7\u8c4a\u7530\u5357BP\u5730\u8cea\u8abf\u67fb","client_name":"\u56fd\u571f\u4ea4\u901a\u7701\u4e2d\u90e8\u5730\u65b9\u6574\u5099\u5c40\u540d\u56db\u56fd\u9053\u4e8b\u52d9\u6240","boring_xml_url":64,"boring_view_url":1,"soilmap_view_url":null,"soiltest_xml_url":0,"soiltest_view_url":0},{"id":512000,"code":"B4KJ202201001-4536","latitude":"35.102222","longitude":"137.139444","source_code":"CB1085546420410009","project_name":"","survey_name":"\u5e73\u621022\u5e74\u5ea6\u3000155\u53f7\u8c4a\u7530\u5357BP\u5730\u8cea\u8abf\u67fb","client_name":"\u56fd\u571f\u4ea4\u901a\u7701\u4e2d\u90e8\u5730\u65b9\u6574\u5099\u5c40\u540d\u56db\u56fd\u9053\u4e8b\u52d9\u6240","boring_xml_url":64,"boring_view_url":1,"soilmap_view_url":null,"soiltest_xml_url":0,"soiltest_view_url":0},{"id":511999,"code":"B4KJ202201001-4535","latitude":"35.101944","longitude":"137.139444","source_code":"CB1085546420410008","project_name":"","survey_name":"\u5e73\u621022\u5e74\u5ea6\u3000155\u53f7\u8c4a\u7530\u5357BP\u5730\u8cea\u8abf\u67fb","client_name":"\u56fd\u571f\u4ea4\u901a\u7701\u4e2d\u90e8\u5730\u65b9\u6574\u5099\u5c40\u540d\u56db\u56fd\u9053\u4e8b\u52d9\u6240","boring_xml_url":64,"boring_view_url":1,"soilmap_view_url":null,"soiltest_xml_url":0,"soiltest_view_url":0}]}}