{"header":{"xyz":{"source":[],"mosaic":false},"page":112,"raw":{"soiltest_result":"0","bbox":"57.598333,109.544722,1.933333,163.806111","page":"112"},"conditions":{"soiltest_result":0,"north":57.598333,"west":109.544722,"south":1.933333,"east":163.806111},"success":true,"message":""},"data":{"meta":{"total":212844,"page":112,"pages":7095,"count":30},"values":[{"id":650028,"code":"NGIC202303243-0003","latitude":"42.887830555556","longitude":"143.42764166667","source_code":"","project_name":"\u56fd\u55b6\u304b\u3093\u304c\u3044\u6392\u6c34\u4e8b\u696d","survey_name":"\u65b0\u5ddd\u4e8c\u671f\u5730\u533a \u7b2c1\u96c6\u6c34\u8def\u4ed8\u5e2f\u65bd\u8a2d\u8a2d\u8a08\u7b49\u696d\u52d9","client_name":"\u56fd\u571f\u4ea4\u901a\u7701\u5317\u6d77\u9053\u958b\u767a\u5c40\u5e2f\u5e83\u958b\u767a\u5efa\u8a2d\u90e8\u5e2f\u5e83\u8fb2\u696d\u4e8b\u52d9\u6240","boring_xml_url":47,"boring_view_url":1,"soilmap_view_url":null,"soiltest_xml_url":47,"soiltest_view_url":47},{"id":650027,"code":"NGIC202303243-0002","latitude":"42.883019444444","longitude":"143.43081388889","source_code":"","project_name":"\u56fd\u55b6\u304b\u3093\u304c\u3044\u6392\u6c34\u4e8b\u696d","survey_name":"\u65b0\u5ddd\u4e8c\u671f\u5730\u533a \u7b2c1\u96c6\u6c34\u8def\u4ed8\u5e2f\u65bd\u8a2d\u8a2d\u8a08\u7b49\u696d\u52d9","client_name":"\u56fd\u571f\u4ea4\u901a\u7701\u5317\u6d77\u9053\u958b\u767a\u5c40\u5e2f\u5e83\u958b\u767a\u5efa\u8a2d\u90e8\u5e2f\u5e83\u8fb2\u696d\u4e8b\u52d9\u6240","boring_xml_url":47,"boring_view_url":1,"soilmap_view_url":null,"soiltest_xml_url":47,"soiltest_view_url":47},{"id":650026,"code":"NGIC202303243-0001","latitude":"42.878255555556","longitude":"143.43396666667","source_code":"","project_name":"\u56fd\u55b6\u304b\u3093\u304c\u3044\u6392\u6c34\u4e8b\u696d","survey_name":"\u65b0\u5ddd\u4e8c\u671f\u5730\u533a \u7b2c1\u96c6\u6c34\u8def\u4ed8\u5e2f\u65bd\u8a2d\u8a2d\u8a08\u7b49\u696d\u52d9","client_name":"\u56fd\u571f\u4ea4\u901a\u7701\u5317\u6d77\u9053\u958b\u767a\u5c40\u5e2f\u5e83\u958b\u767a\u5efa\u8a2d\u90e8\u5e2f\u5e83\u8fb2\u696d\u4e8b\u52d9\u6240","boring_xml_url":47,"boring_view_url":1,"soilmap_view_url":null,"soiltest_xml_url":47,"soiltest_view_url":47},{"id":650015,"code":"NGIC202302974-0006","latitude":"36.512661111111","longitude":"140.592475","source_code":"","project_name":"","survey_name":"R4\u5e38\u9678\u6cb3\u5ddd\u56fd\u9053\u7ba1\u5185\u5730\u76e4\u74b0\u5883\u8abf\u67fb\u696d\u52d9","client_name":"\u56fd\u571f\u4ea4\u901a\u7701\u95a2\u6771\u5730\u65b9\u6574\u5099\u5c40\u5e38\u9678\u6cb3\u5ddd\u56fd\u9053\u4e8b\u52d9\u6240","boring_xml_url":47,"boring_view_url":1,"soilmap_view_url":null,"soiltest_xml_url":47,"soiltest_view_url":47},{"id":650014,"code":"NGIC202302974-0005","latitude":"36.510055555556","longitude":"140.58804444444","source_code":"","project_name":"","survey_name":"R4\u5e38\u9678\u6cb3\u5ddd\u56fd\u9053\u7ba1\u5185\u5730\u76e4\u74b0\u5883\u8abf\u67fb\u696d\u52d9","client_name":"\u56fd\u571f\u4ea4\u901a\u7701\u95a2\u6771\u5730\u65b9\u6574\u5099\u5c40\u5e38\u9678\u6cb3\u5ddd\u56fd\u9053\u4e8b\u52d9\u6240","boring_xml_url":47,"boring_view_url":1,"soilmap_view_url":null,"soiltest_xml_url":47,"soiltest_view_url":47},{"id":650013,"code":"NGIC202302974-0004","latitude":"36.509491666667","longitude":"140.58689166667","source_code":"","project_name":"","survey_name":"R4\u5e38\u9678\u6cb3\u5ddd\u56fd\u9053\u7ba1\u5185\u5730\u76e4\u74b0\u5883\u8abf\u67fb\u696d\u52d9","client_name":"\u56fd\u571f\u4ea4\u901a\u7701\u95a2\u6771\u5730\u65b9\u6574\u5099\u5c40\u5e38\u9678\u6cb3\u5ddd\u56fd\u9053\u4e8b\u52d9\u6240","boring_xml_url":47,"boring_view_url":1,"soilmap_view_url":null,"soiltest_xml_url":47,"soiltest_view_url":47},{"id":650012,"code":"NGIC202302974-0003","latitude":"36.507233333333","longitude":"140.58259166667","source_code":"","project_name":"","survey_name":"R4\u5e38\u9678\u6cb3\u5ddd\u56fd\u9053\u7ba1\u5185\u5730\u76e4\u74b0\u5883\u8abf\u67fb\u696d\u52d9","client_name":"\u56fd\u571f\u4ea4\u901a\u7701\u95a2\u6771\u5730\u65b9\u6574\u5099\u5c40\u5e38\u9678\u6cb3\u5ddd\u56fd\u9053\u4e8b\u52d9\u6240","boring_xml_url":47,"boring_view_url":1,"soilmap_view_url":null,"soiltest_xml_url":47,"soiltest_view_url":47},{"id":650011,"code":"NGIC202302974-0002","latitude":"36.577658333333","longitude":"140.65675833333","source_code":"","project_name":"","survey_name":"R4\u5e38\u9678\u6cb3\u5ddd\u56fd\u9053\u7ba1\u5185\u5730\u76e4\u74b0\u5883\u8abf\u67fb\u696d\u52d9","client_name":"\u56fd\u571f\u4ea4\u901a\u7701\u95a2\u6771\u5730\u65b9\u6574\u5099\u5c40\u5e38\u9678\u6cb3\u5ddd\u56fd\u9053\u4e8b\u52d9\u6240","boring_xml_url":47,"boring_view_url":1,"soilmap_view_url":null,"soiltest_xml_url":0,"soiltest_view_url":0},{"id":650010,"code":"NGIC202302974-0001","latitude":"36.577886111111","longitude":"140.65638055556","source_code":"","project_name":"","survey_name":"R4\u5e38\u9678\u6cb3\u5ddd\u56fd\u9053\u7ba1\u5185\u5730\u76e4\u74b0\u5883\u8abf\u67fb\u696d\u52d9","client_name":"\u56fd\u571f\u4ea4\u901a\u7701\u95a2\u6771\u5730\u65b9\u6574\u5099\u5c40\u5e38\u9678\u6cb3\u5ddd\u56fd\u9053\u4e8b\u52d9\u6240","boring_xml_url":47,"boring_view_url":1,"soilmap_view_url":null,"soiltest_xml_url":0,"soiltest_view_url":0},{"id":650007,"code":"NGIC202303309-0003","latitude":"39.70325","longitude":"140.92219444444","source_code":"","project_name":"","survey_name":"\u4ee4\u548c5\u5e74\u5ea6\u516b\u5e61\u5e73\u5c71\u7cfb\u5730\u8cea\u8abf\u67fb\u696d\u52d9","client_name":"\u56fd\u571f\u4ea4\u901a\u7701\u6771\u5317\u5730\u65b9\u6574\u5099\u5c40\u5ca9\u624b\u6cb3\u5ddd\u56fd\u9053\u4e8b\u52d9\u6240","boring_xml_url":47,"boring_view_url":1,"soilmap_view_url":null,"soiltest_xml_url":0,"soiltest_view_url":0},{"id":650006,"code":"NGIC202303309-0002","latitude":"39.702972222222","longitude":"140.92427777778","source_code":"","project_name":"","survey_name":"\u4ee4\u548c5\u5e74\u5ea6\u516b\u5e61\u5e73\u5c71\u7cfb\u5730\u8cea\u8abf\u67fb\u696d\u52d9","client_name":"\u56fd\u571f\u4ea4\u901a\u7701\u6771\u5317\u5730\u65b9\u6574\u5099\u5c40\u5ca9\u624b\u6cb3\u5ddd\u56fd\u9053\u4e8b\u52d9\u6240","boring_xml_url":47,"boring_view_url":1,"soilmap_view_url":null,"soiltest_xml_url":0,"soiltest_view_url":0},{"id":650005,"code":"NGIC202303309-0001","latitude":"39.816944444444","longitude":"140.89763888889","source_code":"","project_name":"","survey_name":"\u4ee4\u548c5\u5e74\u5ea6\u516b\u5e61\u5e73\u5c71\u7cfb\u5730\u8cea\u8abf\u67fb\u696d\u52d9","client_name":"\u56fd\u571f\u4ea4\u901a\u7701\u6771\u5317\u5730\u65b9\u6574\u5099\u5c40\u5ca9\u624b\u6cb3\u5ddd\u56fd\u9053\u4e8b\u52d9\u6240","boring_xml_url":47,"boring_view_url":1,"soilmap_view_url":null,"soiltest_xml_url":0,"soiltest_view_url":0},{"id":650000,"code":"NGIC202303167-0002","latitude":"42.596933333333","longitude":"141.96149722222","source_code":"","project_name":"\u56fd\u55b6\u304b\u3093\u304c\u3044\u6392\u6c34\u4e8b\u696d\u65b0\u9d61\u5ddd\u5730\u533a","survey_name":"\u65b0\u9d61\u5ddd\u5730\u533a \u5ddd\u897f\u5e79\u7dda\u7528\u6c34\u8def\u8a2d\u8a08\u7b49\u696d\u52d9","client_name":"\u56fd\u571f\u4ea4\u901a\u7701\u5317\u6d77\u9053\u958b\u767a\u5c40\u5ba4\u862d\u958b\u767a\u5efa\u8a2d\u90e8\u80c6\u632f\u8fb2\u696d\u4e8b\u52d9\u6240","boring_xml_url":47,"boring_view_url":1,"soilmap_view_url":null,"soiltest_xml_url":47,"soiltest_view_url":47},{"id":649999,"code":"NGIC202303167-0001","latitude":"42.588080555556","longitude":"141.99429722222","source_code":"","project_name":"\u56fd\u55b6\u304b\u3093\u304c\u3044\u6392\u6c34\u4e8b\u696d\u65b0\u9d61\u5ddd\u5730\u533a","survey_name":"\u65b0\u9d61\u5ddd\u5730\u533a \u5ddd\u897f\u5e79\u7dda\u7528\u6c34\u8def\u8a2d\u8a08\u7b49\u696d\u52d9","client_name":"\u56fd\u571f\u4ea4\u901a\u7701\u5317\u6d77\u9053\u958b\u767a\u5c40\u5ba4\u862d\u958b\u767a\u5efa\u8a2d\u90e8\u80c6\u632f\u8fb2\u696d\u4e8b\u52d9\u6240","boring_xml_url":47,"boring_view_url":1,"soilmap_view_url":null,"soiltest_xml_url":47,"soiltest_view_url":47},{"id":649967,"code":"NGIC202303108-0010","latitude":"35.036830027778","longitude":"132.29216130556","source_code":"","project_name":"\u4e00\u822c\u56fd\u90539\u53f7\u798f\u5149\u30fb\u6d45\u5229\u9053\u8def","survey_name":"\u4ee4\u548c5\u5e74\u5ea6\u798f\u5149\u30fb\u6d45\u5229\u9053\u8def\u9ed2\u677e\u5730\u533a\u5916\u5730\u8cea\u8abf\u67fb\u696d\u52d9","client_name":"\u56fd\u571f\u4ea4\u901a\u7701\u4e2d\u56fd\u5730\u65b9\u6574\u5099\u5c40\u6d5c\u7530\u6cb3\u5ddd\u56fd\u9053\u4e8b\u52d9\u6240","boring_xml_url":47,"boring_view_url":1,"soilmap_view_url":null,"soiltest_xml_url":0,"soiltest_view_url":0},{"id":649966,"code":"NGIC202303108-0009","latitude":"35.045432666667","longitude":"132.30600091667","source_code":"","project_name":"\u4e00\u822c\u56fd\u90539\u53f7\u798f\u5149\u30fb\u6d45\u5229\u9053\u8def","survey_name":"\u4ee4\u548c5\u5e74\u5ea6\u798f\u5149\u30fb\u6d45\u5229\u9053\u8def\u9ed2\u677e\u5730\u533a\u5916\u5730\u8cea\u8abf\u67fb\u696d\u52d9","client_name":"\u56fd\u571f\u4ea4\u901a\u7701\u4e2d\u56fd\u5730\u65b9\u6574\u5099\u5c40\u6d5c\u7530\u6cb3\u5ddd\u56fd\u9053\u4e8b\u52d9\u6240","boring_xml_url":47,"boring_view_url":1,"soilmap_view_url":null,"soiltest_xml_url":0,"soiltest_view_url":0},{"id":649965,"code":"NGIC202303108-0008","latitude":"35.04537875","longitude":"132.30648411111","source_code":"","project_name":"\u4e00\u822c\u56fd\u90539\u53f7\u798f\u5149\u30fb\u6d45\u5229\u9053\u8def","survey_name":"\u4ee4\u548c5\u5e74\u5ea6\u798f\u5149\u30fb\u6d45\u5229\u9053\u8def\u9ed2\u677e\u5730\u533a\u5916\u5730\u8cea\u8abf\u67fb\u696d\u52d9","client_name":"\u56fd\u571f\u4ea4\u901a\u7701\u4e2d\u56fd\u5730\u65b9\u6574\u5099\u5c40\u6d5c\u7530\u6cb3\u5ddd\u56fd\u9053\u4e8b\u52d9\u6240","boring_xml_url":47,"boring_view_url":1,"soilmap_view_url":null,"soiltest_xml_url":0,"soiltest_view_url":0},{"id":649964,"code":"NGIC202303108-0007","latitude":"35.045874388889","longitude":"132.30686963889","source_code":"","project_name":"\u4e00\u822c\u56fd\u90539\u53f7\u798f\u5149\u30fb\u6d45\u5229\u9053\u8def","survey_name":"\u4ee4\u548c5\u5e74\u5ea6\u798f\u5149\u30fb\u6d45\u5229\u9053\u8def\u9ed2\u677e\u5730\u533a\u5916\u5730\u8cea\u8abf\u67fb\u696d\u52d9","client_name":"\u56fd\u571f\u4ea4\u901a\u7701\u4e2d\u56fd\u5730\u65b9\u6574\u5099\u5c40\u6d5c\u7530\u6cb3\u5ddd\u56fd\u9053\u4e8b\u52d9\u6240","boring_xml_url":47,"boring_view_url":1,"soilmap_view_url":null,"soiltest_xml_url":0,"soiltest_view_url":0},{"id":649963,"code":"NGIC202303108-0006","latitude":"35.053668083333","longitude":"132.31543738889","source_code":"","project_name":"\u4e00\u822c\u56fd\u90539\u53f7\u798f\u5149\u30fb\u6d45\u5229\u9053\u8def","survey_name":"\u4ee4\u548c5\u5e74\u5ea6\u798f\u5149\u30fb\u6d45\u5229\u9053\u8def\u9ed2\u677e\u5730\u533a\u5916\u5730\u8cea\u8abf\u67fb\u696d\u52d9","client_name":"\u56fd\u571f\u4ea4\u901a\u7701\u4e2d\u56fd\u5730\u65b9\u6574\u5099\u5c40\u6d5c\u7530\u6cb3\u5ddd\u56fd\u9053\u4e8b\u52d9\u6240","boring_xml_url":47,"boring_view_url":1,"soilmap_view_url":null,"soiltest_xml_url":0,"soiltest_view_url":0},{"id":649962,"code":"NGIC202303108-0005","latitude":"35.054484416667","longitude":"132.31515380556","source_code":"","project_name":"\u4e00\u822c\u56fd\u90539\u53f7\u798f\u5149\u30fb\u6d45\u5229\u9053\u8def","survey_name":"\u4ee4\u548c5\u5e74\u5ea6\u798f\u5149\u30fb\u6d45\u5229\u9053\u8def\u9ed2\u677e\u5730\u533a\u5916\u5730\u8cea\u8abf\u67fb\u696d\u52d9","client_name":"\u56fd\u571f\u4ea4\u901a\u7701\u4e2d\u56fd\u5730\u65b9\u6574\u5099\u5c40\u6d5c\u7530\u6cb3\u5ddd\u56fd\u9053\u4e8b\u52d9\u6240","boring_xml_url":47,"boring_view_url":1,"soilmap_view_url":null,"soiltest_xml_url":0,"soiltest_view_url":0},{"id":649961,"code":"NGIC202303108-0004","latitude":"35.054343166667","longitude":"132.31539497222","source_code":"","project_name":"\u4e00\u822c\u56fd\u90539\u53f7\u798f\u5149\u30fb\u6d45\u5229\u9053\u8def","survey_name":"\u4ee4\u548c5\u5e74\u5ea6\u798f\u5149\u30fb\u6d45\u5229\u9053\u8def\u9ed2\u677e\u5730\u533a\u5916\u5730\u8cea\u8abf\u67fb\u696d\u52d9","client_name":"\u56fd\u571f\u4ea4\u901a\u7701\u4e2d\u56fd\u5730\u65b9\u6574\u5099\u5c40\u6d5c\u7530\u6cb3\u5ddd\u56fd\u9053\u4e8b\u52d9\u6240","boring_xml_url":47,"boring_view_url":1,"soilmap_view_url":null,"soiltest_xml_url":0,"soiltest_view_url":0},{"id":649960,"code":"NGIC202303108-0003","latitude":"35.068416055556","longitude":"132.32725052778","source_code":"","project_name":"\u4e00\u822c\u56fd\u90539\u53f7\u798f\u5149\u30fb\u6d45\u5229\u9053\u8def","survey_name":"\u4ee4\u548c5\u5e74\u5ea6\u798f\u5149\u30fb\u6d45\u5229\u9053\u8def\u9ed2\u677e\u5730\u533a\u5916\u5730\u8cea\u8abf\u67fb\u696d\u52d9","client_name":"\u56fd\u571f\u4ea4\u901a\u7701\u4e2d\u56fd\u5730\u65b9\u6574\u5099\u5c40\u6d5c\u7530\u6cb3\u5ddd\u56fd\u9053\u4e8b\u52d9\u6240","boring_xml_url":47,"boring_view_url":1,"soilmap_view_url":null,"soiltest_xml_url":0,"soiltest_view_url":0},{"id":649959,"code":"NGIC202303108-0002","latitude":"35.068121138889","longitude":"132.32729794444","source_code":"","project_name":"\u4e00\u822c\u56fd\u90539\u53f7\u798f\u5149\u30fb\u6d45\u5229\u9053\u8def","survey_name":"\u4ee4\u548c5\u5e74\u5ea6\u798f\u5149\u30fb\u6d45\u5229\u9053\u8def\u9ed2\u677e\u5730\u533a\u5916\u5730\u8cea\u8abf\u67fb\u696d\u52d9","client_name":"\u56fd\u571f\u4ea4\u901a\u7701\u4e2d\u56fd\u5730\u65b9\u6574\u5099\u5c40\u6d5c\u7530\u6cb3\u5ddd\u56fd\u9053\u4e8b\u52d9\u6240","boring_xml_url":47,"boring_view_url":1,"soilmap_view_url":null,"soiltest_xml_url":0,"soiltest_view_url":0},{"id":649958,"code":"NGIC202303108-0001","latitude":"35.068307583333","longitude":"132.32782263889","source_code":"","project_name":"\u4e00\u822c\u56fd\u90539\u53f7\u798f\u5149\u30fb\u6d45\u5229\u9053\u8def","survey_name":"\u4ee4\u548c5\u5e74\u5ea6\u798f\u5149\u30fb\u6d45\u5229\u9053\u8def\u9ed2\u677e\u5730\u533a\u5916\u5730\u8cea\u8abf\u67fb\u696d\u52d9","client_name":"\u56fd\u571f\u4ea4\u901a\u7701\u4e2d\u56fd\u5730\u65b9\u6574\u5099\u5c40\u6d5c\u7530\u6cb3\u5ddd\u56fd\u9053\u4e8b\u52d9\u6240","boring_xml_url":47,"boring_view_url":1,"soilmap_view_url":null,"soiltest_xml_url":0,"soiltest_view_url":0},{"id":649929,"code":"NGIC202303275-0007","latitude":"43.055738888889","longitude":"144.84988611111","source_code":"","project_name":"\u539a\u5cb8\u6f01\u6e2f\u5730\u8cea\u8abf\u67fb\u696d\u52d9","survey_name":"\u539a\u5cb8\u6f01\u6e2f\u5730\u8cea\u8abf\u67fb\u696d\u52d9","client_name":"\u56fd\u571f\u4ea4\u901a\u7701\u5317\u6d77\u9053\u958b\u767a\u5c40\u91e7\u8def\u958b\u767a\u5efa\u8a2d\u90e8\u672c\u90e8","boring_xml_url":47,"boring_view_url":1,"soilmap_view_url":null,"soiltest_xml_url":47,"soiltest_view_url":47},{"id":649928,"code":"NGIC202303275-0006","latitude":"43.055083333333","longitude":"144.85073055556","source_code":"","project_name":"\u539a\u5cb8\u6f01\u6e2f\u5730\u8cea\u8abf\u67fb\u696d\u52d9","survey_name":"\u539a\u5cb8\u6f01\u6e2f\u5730\u8cea\u8abf\u67fb\u696d\u52d9","client_name":"\u56fd\u571f\u4ea4\u901a\u7701\u5317\u6d77\u9053\u958b\u767a\u5c40\u91e7\u8def\u958b\u767a\u5efa\u8a2d\u90e8\u672c\u90e8","boring_xml_url":47,"boring_view_url":1,"soilmap_view_url":null,"soiltest_xml_url":47,"soiltest_view_url":47},{"id":649927,"code":"NGIC202303275-0005","latitude":"43.054158333333","longitude":"144.85192222222","source_code":"","project_name":"\u539a\u5cb8\u6f01\u6e2f\u5730\u8cea\u8abf\u67fb\u696d\u52d9","survey_name":"\u539a\u5cb8\u6f01\u6e2f\u5730\u8cea\u8abf\u67fb\u696d\u52d9","client_name":"\u56fd\u571f\u4ea4\u901a\u7701\u5317\u6d77\u9053\u958b\u767a\u5c40\u91e7\u8def\u958b\u767a\u5efa\u8a2d\u90e8\u672c\u90e8","boring_xml_url":47,"boring_view_url":1,"soilmap_view_url":null,"soiltest_xml_url":47,"soiltest_view_url":47},{"id":649926,"code":"NGIC202303275-0004","latitude":"43.052908333333","longitude":"144.853525","source_code":"","project_name":"\u539a\u5cb8\u6f01\u6e2f\u5730\u8cea\u8abf\u67fb\u696d\u52d9","survey_name":"\u539a\u5cb8\u6f01\u6e2f\u5730\u8cea\u8abf\u67fb\u696d\u52d9","client_name":"\u56fd\u571f\u4ea4\u901a\u7701\u5317\u6d77\u9053\u958b\u767a\u5c40\u91e7\u8def\u958b\u767a\u5efa\u8a2d\u90e8\u672c\u90e8","boring_xml_url":47,"boring_view_url":1,"soilmap_view_url":null,"soiltest_xml_url":47,"soiltest_view_url":47},{"id":649925,"code":"NGIC202303275-0003","latitude":"43.05235","longitude":"144.85460555556","source_code":"","project_name":"\u539a\u5cb8\u6f01\u6e2f\u5730\u8cea\u8abf\u67fb\u696d\u52d9","survey_name":"\u539a\u5cb8\u6f01\u6e2f\u5730\u8cea\u8abf\u67fb\u696d\u52d9","client_name":"\u56fd\u571f\u4ea4\u901a\u7701\u5317\u6d77\u9053\u958b\u767a\u5c40\u91e7\u8def\u958b\u767a\u5efa\u8a2d\u90e8\u672c\u90e8","boring_xml_url":47,"boring_view_url":1,"soilmap_view_url":null,"soiltest_xml_url":47,"soiltest_view_url":47},{"id":649924,"code":"NGIC202303275-0002","latitude":"43.035033333333","longitude":"144.83218333333","source_code":"","project_name":"\u539a\u5cb8\u6f01\u6e2f\u5730\u8cea\u8abf\u67fb\u696d\u52d9","survey_name":"\u539a\u5cb8\u6f01\u6e2f\u5730\u8cea\u8abf\u67fb\u696d\u52d9","client_name":"\u56fd\u571f\u4ea4\u901a\u7701\u5317\u6d77\u9053\u958b\u767a\u5c40\u91e7\u8def\u958b\u767a\u5efa\u8a2d\u90e8\u672c\u90e8","boring_xml_url":47,"boring_view_url":1,"soilmap_view_url":null,"soiltest_xml_url":47,"soiltest_view_url":47}]}}