{"header":{"xyz":{"source":[],"mosaic":false},"page":1122,"raw":{"soiltest_result":"0","bbox":"57.598333,109.544722,1.933333,163.806111","page":"1122"},"conditions":{"soiltest_result":0,"north":57.598333,"west":109.544722,"south":1.933333,"east":163.806111},"success":true,"message":""},"data":{"meta":{"total":212844,"page":1122,"pages":7095,"count":30},"values":[{"id":511758,"code":"B4KJ202201001-4294","latitude":"35.113889","longitude":"137.186667","source_code":"CB0985546420270021","project_name":"","survey_name":"\u5e73\u621021\u5e74\u5ea6\u3000\u8c4a\u7530\u5317\u90e8\u5730\u57df\u5730\u8cea\u8abf\u67fb","client_name":"\u56fd\u571f\u4ea4\u901a\u7701\u4e2d\u90e8\u5730\u65b9\u6574\u5099\u5c40\u540d\u56db\u56fd\u9053\u4e8b\u52d9\u6240","boring_xml_url":64,"boring_view_url":1,"soilmap_view_url":null,"soiltest_xml_url":0,"soiltest_view_url":0},{"id":511757,"code":"B4KJ202201001-4293","latitude":"35.113611","longitude":"137.185556","source_code":"CB0985546420270020","project_name":"","survey_name":"\u5e73\u621021\u5e74\u5ea6\u3000\u8c4a\u7530\u5317\u90e8\u5730\u57df\u5730\u8cea\u8abf\u67fb","client_name":"\u56fd\u571f\u4ea4\u901a\u7701\u4e2d\u90e8\u5730\u65b9\u6574\u5099\u5c40\u540d\u56db\u56fd\u9053\u4e8b\u52d9\u6240","boring_xml_url":64,"boring_view_url":1,"soilmap_view_url":null,"soiltest_xml_url":0,"soiltest_view_url":0},{"id":511756,"code":"B4KJ202201001-4292","latitude":"35.113333","longitude":"137.185556","source_code":"CB0985546420270019","project_name":"","survey_name":"\u5e73\u621021\u5e74\u5ea6\u3000\u8c4a\u7530\u5317\u90e8\u5730\u57df\u5730\u8cea\u8abf\u67fb","client_name":"\u56fd\u571f\u4ea4\u901a\u7701\u4e2d\u90e8\u5730\u65b9\u6574\u5099\u5c40\u540d\u56db\u56fd\u9053\u4e8b\u52d9\u6240","boring_xml_url":64,"boring_view_url":1,"soilmap_view_url":null,"soiltest_xml_url":0,"soiltest_view_url":0},{"id":511755,"code":"B4KJ202201001-4291","latitude":"35.112778","longitude":"137.183611","source_code":"CB0985546420270018","project_name":"","survey_name":"\u5e73\u621021\u5e74\u5ea6\u3000\u8c4a\u7530\u5317\u90e8\u5730\u57df\u5730\u8cea\u8abf\u67fb","client_name":"\u56fd\u571f\u4ea4\u901a\u7701\u4e2d\u90e8\u5730\u65b9\u6574\u5099\u5c40\u540d\u56db\u56fd\u9053\u4e8b\u52d9\u6240","boring_xml_url":64,"boring_view_url":1,"soilmap_view_url":null,"soiltest_xml_url":0,"soiltest_view_url":0},{"id":511754,"code":"B4KJ202201001-4290","latitude":"35.115833","longitude":"137.165278","source_code":"CB0985546420270017","project_name":"","survey_name":"\u5e73\u621021\u5e74\u5ea6\u3000\u8c4a\u7530\u5317\u90e8\u5730\u57df\u5730\u8cea\u8abf\u67fb","client_name":"\u56fd\u571f\u4ea4\u901a\u7701\u4e2d\u90e8\u5730\u65b9\u6574\u5099\u5c40\u540d\u56db\u56fd\u9053\u4e8b\u52d9\u6240","boring_xml_url":64,"boring_view_url":1,"soilmap_view_url":null,"soiltest_xml_url":0,"soiltest_view_url":0},{"id":511753,"code":"B4KJ202201001-4289","latitude":"35.116111","longitude":"137.163333","source_code":"CB0985546420270016","project_name":"","survey_name":"\u5e73\u621021\u5e74\u5ea6\u3000\u8c4a\u7530\u5317\u90e8\u5730\u57df\u5730\u8cea\u8abf\u67fb","client_name":"\u56fd\u571f\u4ea4\u901a\u7701\u4e2d\u90e8\u5730\u65b9\u6574\u5099\u5c40\u540d\u56db\u56fd\u9053\u4e8b\u52d9\u6240","boring_xml_url":64,"boring_view_url":1,"soilmap_view_url":null,"soiltest_xml_url":0,"soiltest_view_url":0},{"id":511752,"code":"B4KJ202201001-4288","latitude":"35.116111","longitude":"137.162222","source_code":"CB0985546420270015","project_name":"","survey_name":"\u5e73\u621021\u5e74\u5ea6\u3000\u8c4a\u7530\u5317\u90e8\u5730\u57df\u5730\u8cea\u8abf\u67fb","client_name":"\u56fd\u571f\u4ea4\u901a\u7701\u4e2d\u90e8\u5730\u65b9\u6574\u5099\u5c40\u540d\u56db\u56fd\u9053\u4e8b\u52d9\u6240","boring_xml_url":64,"boring_view_url":1,"soilmap_view_url":null,"soiltest_xml_url":0,"soiltest_view_url":0},{"id":511751,"code":"B4KJ202201001-4287","latitude":"35.116389","longitude":"137.161111","source_code":"CB0985546420270014","project_name":"","survey_name":"\u5e73\u621021\u5e74\u5ea6\u3000\u8c4a\u7530\u5317\u90e8\u5730\u57df\u5730\u8cea\u8abf\u67fb","client_name":"\u56fd\u571f\u4ea4\u901a\u7701\u4e2d\u90e8\u5730\u65b9\u6574\u5099\u5c40\u540d\u56db\u56fd\u9053\u4e8b\u52d9\u6240","boring_xml_url":64,"boring_view_url":1,"soilmap_view_url":null,"soiltest_xml_url":0,"soiltest_view_url":0},{"id":511750,"code":"B4KJ202201001-4286","latitude":"35.115833","longitude":"137.160556","source_code":"CB0985546420270013","project_name":"","survey_name":"\u5e73\u621021\u5e74\u5ea6\u3000\u8c4a\u7530\u5317\u90e8\u5730\u57df\u5730\u8cea\u8abf\u67fb","client_name":"\u56fd\u571f\u4ea4\u901a\u7701\u4e2d\u90e8\u5730\u65b9\u6574\u5099\u5c40\u540d\u56db\u56fd\u9053\u4e8b\u52d9\u6240","boring_xml_url":64,"boring_view_url":1,"soilmap_view_url":null,"soiltest_xml_url":0,"soiltest_view_url":0},{"id":511749,"code":"B4KJ202201001-4285","latitude":"35.115556","longitude":"137.158333","source_code":"CB0985546420270012","project_name":"","survey_name":"\u5e73\u621021\u5e74\u5ea6\u3000\u8c4a\u7530\u5317\u90e8\u5730\u57df\u5730\u8cea\u8abf\u67fb","client_name":"\u56fd\u571f\u4ea4\u901a\u7701\u4e2d\u90e8\u5730\u65b9\u6574\u5099\u5c40\u540d\u56db\u56fd\u9053\u4e8b\u52d9\u6240","boring_xml_url":64,"boring_view_url":1,"soilmap_view_url":null,"soiltest_xml_url":0,"soiltest_view_url":0},{"id":511748,"code":"B4KJ202201001-4284","latitude":"35.114722","longitude":"137.156111","source_code":"CB0985546420270011","project_name":"","survey_name":"\u5e73\u621021\u5e74\u5ea6\u3000\u8c4a\u7530\u5317\u90e8\u5730\u57df\u5730\u8cea\u8abf\u67fb","client_name":"\u56fd\u571f\u4ea4\u901a\u7701\u4e2d\u90e8\u5730\u65b9\u6574\u5099\u5c40\u540d\u56db\u56fd\u9053\u4e8b\u52d9\u6240","boring_xml_url":64,"boring_view_url":1,"soilmap_view_url":null,"soiltest_xml_url":0,"soiltest_view_url":0},{"id":511747,"code":"B4KJ202201001-4283","latitude":"35.115278","longitude":"137.154444","source_code":"CB0985546420270010","project_name":"","survey_name":"\u5e73\u621021\u5e74\u5ea6\u3000\u8c4a\u7530\u5317\u90e8\u5730\u57df\u5730\u8cea\u8abf\u67fb","client_name":"\u56fd\u571f\u4ea4\u901a\u7701\u4e2d\u90e8\u5730\u65b9\u6574\u5099\u5c40\u540d\u56db\u56fd\u9053\u4e8b\u52d9\u6240","boring_xml_url":64,"boring_view_url":1,"soilmap_view_url":null,"soiltest_xml_url":0,"soiltest_view_url":0},{"id":511746,"code":"B4KJ202201001-4282","latitude":"35.111667","longitude":"137.152222","source_code":"CB0985546420270009","project_name":"","survey_name":"\u5e73\u621021\u5e74\u5ea6\u3000\u8c4a\u7530\u5317\u90e8\u5730\u57df\u5730\u8cea\u8abf\u67fb","client_name":"\u56fd\u571f\u4ea4\u901a\u7701\u4e2d\u90e8\u5730\u65b9\u6574\u5099\u5c40\u540d\u56db\u56fd\u9053\u4e8b\u52d9\u6240","boring_xml_url":64,"boring_view_url":1,"soilmap_view_url":null,"soiltest_xml_url":0,"soiltest_view_url":0},{"id":511745,"code":"B4KJ202201001-4281","latitude":"35.111944","longitude":"137.151944","source_code":"CB0985546420270008","project_name":"","survey_name":"\u5e73\u621021\u5e74\u5ea6\u3000\u8c4a\u7530\u5317\u90e8\u5730\u57df\u5730\u8cea\u8abf\u67fb","client_name":"\u56fd\u571f\u4ea4\u901a\u7701\u4e2d\u90e8\u5730\u65b9\u6574\u5099\u5c40\u540d\u56db\u56fd\u9053\u4e8b\u52d9\u6240","boring_xml_url":64,"boring_view_url":1,"soilmap_view_url":null,"soiltest_xml_url":0,"soiltest_view_url":0},{"id":511744,"code":"B4KJ202201001-4280","latitude":"35.11","longitude":"137.150278","source_code":"CB0985546420270007","project_name":"","survey_name":"\u5e73\u621021\u5e74\u5ea6\u3000\u8c4a\u7530\u5317\u90e8\u5730\u57df\u5730\u8cea\u8abf\u67fb","client_name":"\u56fd\u571f\u4ea4\u901a\u7701\u4e2d\u90e8\u5730\u65b9\u6574\u5099\u5c40\u540d\u56db\u56fd\u9053\u4e8b\u52d9\u6240","boring_xml_url":64,"boring_view_url":1,"soilmap_view_url":null,"soiltest_xml_url":0,"soiltest_view_url":0},{"id":511743,"code":"B4KJ202201001-4279","latitude":"35.105278","longitude":"137.145556","source_code":"CB0985546420270006","project_name":"","survey_name":"\u5e73\u621021\u5e74\u5ea6\u3000\u8c4a\u7530\u5317\u90e8\u5730\u57df\u5730\u8cea\u8abf\u67fb","client_name":"\u56fd\u571f\u4ea4\u901a\u7701\u4e2d\u90e8\u5730\u65b9\u6574\u5099\u5c40\u540d\u56db\u56fd\u9053\u4e8b\u52d9\u6240","boring_xml_url":64,"boring_view_url":1,"soilmap_view_url":null,"soiltest_xml_url":0,"soiltest_view_url":0},{"id":511742,"code":"B4KJ202201001-4278","latitude":"35.104167","longitude":"137.141944","source_code":"CB0985546420270005","project_name":"","survey_name":"\u5e73\u621021\u5e74\u5ea6\u3000\u8c4a\u7530\u5317\u90e8\u5730\u57df\u5730\u8cea\u8abf\u67fb","client_name":"\u56fd\u571f\u4ea4\u901a\u7701\u4e2d\u90e8\u5730\u65b9\u6574\u5099\u5c40\u540d\u56db\u56fd\u9053\u4e8b\u52d9\u6240","boring_xml_url":64,"boring_view_url":1,"soilmap_view_url":null,"soiltest_xml_url":0,"soiltest_view_url":0},{"id":511741,"code":"B4KJ202201001-4277","latitude":"35.104722","longitude":"137.141944","source_code":"CB0985546420270004","project_name":"","survey_name":"\u5e73\u621021\u5e74\u5ea6\u3000\u8c4a\u7530\u5317\u90e8\u5730\u57df\u5730\u8cea\u8abf\u67fb","client_name":"\u56fd\u571f\u4ea4\u901a\u7701\u4e2d\u90e8\u5730\u65b9\u6574\u5099\u5c40\u540d\u56db\u56fd\u9053\u4e8b\u52d9\u6240","boring_xml_url":64,"boring_view_url":1,"soilmap_view_url":null,"soiltest_xml_url":0,"soiltest_view_url":0},{"id":511740,"code":"B4KJ202201001-4276","latitude":"35.0925","longitude":"137.126944","source_code":"CB0985546420270003","project_name":"","survey_name":"\u5e73\u621021\u5e74\u5ea6\u3000\u8c4a\u7530\u5317\u90e8\u5730\u57df\u5730\u8cea\u8abf\u67fb","client_name":"\u56fd\u571f\u4ea4\u901a\u7701\u4e2d\u90e8\u5730\u65b9\u6574\u5099\u5c40\u540d\u56db\u56fd\u9053\u4e8b\u52d9\u6240","boring_xml_url":64,"boring_view_url":1,"soilmap_view_url":null,"soiltest_xml_url":0,"soiltest_view_url":0},{"id":511739,"code":"B4KJ202201001-4275","latitude":"35.069722","longitude":"137.121389","source_code":"CB0985546420270002","project_name":"","survey_name":"\u5e73\u621021\u5e74\u5ea6\u3000\u8c4a\u7530\u5317\u90e8\u5730\u57df\u5730\u8cea\u8abf\u67fb","client_name":"\u56fd\u571f\u4ea4\u901a\u7701\u4e2d\u90e8\u5730\u65b9\u6574\u5099\u5c40\u540d\u56db\u56fd\u9053\u4e8b\u52d9\u6240","boring_xml_url":64,"boring_view_url":1,"soilmap_view_url":null,"soiltest_xml_url":0,"soiltest_view_url":0},{"id":511738,"code":"B4KJ202201001-4274","latitude":"35.07","longitude":"137.121111","source_code":"CB0985546420270001","project_name":"","survey_name":"\u5e73\u621021\u5e74\u5ea6\u3000\u8c4a\u7530\u5317\u90e8\u5730\u57df\u5730\u8cea\u8abf\u67fb","client_name":"\u56fd\u571f\u4ea4\u901a\u7701\u4e2d\u90e8\u5730\u65b9\u6574\u5099\u5c40\u540d\u56db\u56fd\u9053\u4e8b\u52d9\u6240","boring_xml_url":64,"boring_view_url":1,"soilmap_view_url":null,"soiltest_xml_url":0,"soiltest_view_url":0},{"id":511737,"code":"B4KJ202201001-4273","latitude":"35.095944","longitude":"136.81325","source_code":"CB0985536020350005","project_name":"","survey_name":"\u5e73\u621021\u5e74\u5ea6\u3000\u540d\u53e4\u5c4b\u74b0\u72b62\u53f7\u7dda\u897f\u5357\u90e8\u5730\u8cea\u8abf\u67fb","client_name":"\u56fd\u571f\u4ea4\u901a\u7701\u3000\u4e2d\u90e8\u5730\u65b9\u6574\u5099\u5c40\u3000\u611b\u77e5\u56fd\u9053\u4e8b\u52d9\u6240","boring_xml_url":64,"boring_view_url":1,"soilmap_view_url":null,"soiltest_xml_url":0,"soiltest_view_url":0},{"id":511736,"code":"B4KJ202201001-4272","latitude":"35.096694","longitude":"136.813722","source_code":"CB0985536020350004","project_name":"","survey_name":"\u5e73\u621021\u5e74\u5ea6\u3000\u540d\u53e4\u5c4b\u74b0\u72b62\u53f7\u7dda\u897f\u5357\u90e8\u5730\u8cea\u8abf\u67fb","client_name":"\u56fd\u571f\u4ea4\u901a\u7701\u3000\u4e2d\u90e8\u5730\u65b9\u6574\u5099\u5c40\u3000\u611b\u77e5\u56fd\u9053\u4e8b\u52d9\u6240","boring_xml_url":64,"boring_view_url":1,"soilmap_view_url":null,"soiltest_xml_url":0,"soiltest_view_url":0},{"id":511735,"code":"B4KJ202201001-4271","latitude":"35.098639","longitude":"136.814806","source_code":"CB0985536020350003","project_name":"","survey_name":"\u5e73\u621021\u5e74\u5ea6\u3000\u540d\u53e4\u5c4b\u74b0\u72b62\u53f7\u7dda\u897f\u5357\u90e8\u5730\u8cea\u8abf\u67fb","client_name":"\u56fd\u571f\u4ea4\u901a\u7701\u3000\u4e2d\u90e8\u5730\u65b9\u6574\u5099\u5c40\u3000\u611b\u77e5\u56fd\u9053\u4e8b\u52d9\u6240","boring_xml_url":64,"boring_view_url":1,"soilmap_view_url":null,"soiltest_xml_url":0,"soiltest_view_url":0},{"id":511734,"code":"B4KJ202201001-4270","latitude":"35.099583","longitude":"136.815222","source_code":"CB0985536020350002","project_name":"","survey_name":"\u5e73\u621021\u5e74\u5ea6\u3000\u540d\u53e4\u5c4b\u74b0\u72b62\u53f7\u7dda\u897f\u5357\u90e8\u5730\u8cea\u8abf\u67fb","client_name":"\u56fd\u571f\u4ea4\u901a\u7701\u3000\u4e2d\u90e8\u5730\u65b9\u6574\u5099\u5c40\u3000\u611b\u77e5\u56fd\u9053\u4e8b\u52d9\u6240","boring_xml_url":64,"boring_view_url":1,"soilmap_view_url":null,"soiltest_xml_url":0,"soiltest_view_url":0},{"id":511733,"code":"B4KJ202201001-4269","latitude":"35.1","longitude":"136.815389","source_code":"CB0985536020350001","project_name":"","survey_name":"\u5e73\u621021\u5e74\u5ea6\u3000\u540d\u53e4\u5c4b\u74b0\u72b62\u53f7\u7dda\u897f\u5357\u90e8\u5730\u8cea\u8abf\u67fb","client_name":"\u56fd\u571f\u4ea4\u901a\u7701\u3000\u4e2d\u90e8\u5730\u65b9\u6574\u5099\u5c40\u3000\u611b\u77e5\u56fd\u9053\u4e8b\u52d9\u6240","boring_xml_url":64,"boring_view_url":1,"soilmap_view_url":null,"soiltest_xml_url":0,"soiltest_view_url":0},{"id":511732,"code":"B4KJ202201001-4268","latitude":"36.129278","longitude":"137.253035","source_code":"CB0985346620640003","project_name":"","survey_name":"\"\u5e73\u621021\u5e74\u5ea6 41\u53f7\u5bae\u9ad8\u5c71\u30d0\u30a4\u30d1\u30b9\u5730\u8cea\u8abf\u67fb\"","client_name":"\u56fd\u571f\u4ea4\u901a\u7701\u4e2d\u90e8\u5730\u65b9\u6574\u5099\u5c40\u9ad8\u5c71\u56fd\u9053\u4e8b\u52d9\u6240","boring_xml_url":64,"boring_view_url":1,"soilmap_view_url":null,"soiltest_xml_url":0,"soiltest_view_url":0},{"id":511731,"code":"B4KJ202201001-4267","latitude":"36.101426","longitude":"137.259433","source_code":"CB0985346620640002","project_name":"","survey_name":"\"\u5e73\u621021\u5e74\u5ea6 41\u53f7\u5bae\u9ad8\u5c71\u30d0\u30a4\u30d1\u30b9\u5730\u8cea\u8abf\u67fb\"","client_name":"\u56fd\u571f\u4ea4\u901a\u7701\u4e2d\u90e8\u5730\u65b9\u6574\u5099\u5c40\u9ad8\u5c71\u56fd\u9053\u4e8b\u52d9\u6240","boring_xml_url":64,"boring_view_url":1,"soilmap_view_url":null,"soiltest_xml_url":0,"soiltest_view_url":0},{"id":511730,"code":"B4KJ202201001-4266","latitude":"36.100622","longitude":"137.259095","source_code":"CB0985346620640001","project_name":"","survey_name":"\"\u5e73\u621021\u5e74\u5ea6 41\u53f7\u5bae\u9ad8\u5c71\u30d0\u30a4\u30d1\u30b9\u5730\u8cea\u8abf\u67fb\"","client_name":"\u56fd\u571f\u4ea4\u901a\u7701\u4e2d\u90e8\u5730\u65b9\u6574\u5099\u5c40\u9ad8\u5c71\u56fd\u9053\u4e8b\u52d9\u6240","boring_xml_url":64,"boring_view_url":1,"soilmap_view_url":null,"soiltest_xml_url":0,"soiltest_view_url":0},{"id":511729,"code":"B4KJ202201001-4265","latitude":"36.078055","longitude":"137.251391","source_code":"CB0985346620170004","project_name":"\u5e73\u621021\u5e74\u5ea6\u3000\u56fd\u905341\u53f7\u6c34\u6587\u8abf\u67fb\u696d\u52d9","survey_name":"\u5e73\u621021\u5e74\u5ea6\u3000\u56fd\u905341\u53f7\u6c34\u6587\u8abf\u67fb\u696d\u52d9","client_name":"\u56fd\u571f\u4ea4\u901a\u7701\u9ad8\u5c71\u5de5\u4e8b\u4e8b\u52d9\u6240","boring_xml_url":64,"boring_view_url":1,"soilmap_view_url":null,"soiltest_xml_url":0,"soiltest_view_url":0}]}}