{"header":{"xyz":{"source":[],"mosaic":false},"page":1130,"raw":{"soiltest_result":"0","bbox":"57.598333,109.544722,1.933333,163.806111","page":"1130"},"conditions":{"soiltest_result":0,"north":57.598333,"west":109.544722,"south":1.933333,"east":163.806111},"success":true,"message":""},"data":{"meta":{"total":212844,"page":1130,"pages":7095,"count":30},"values":[{"id":511518,"code":"B4KJ202201001-4054","latitude":"35.056278","longitude":"136.58375","source_code":"CB0885656020500008","project_name":"","survey_name":"\"\u5e73\u621020\u5e74\u5ea6 \u5317\u52e2\u7ba1\u5185\u5730\u8cea\u8abf\u67fb\"","client_name":"\"\u56fd\u571f\u4ea4\u901a\u7701 \u4e2d\u90e8\u5730\u65b9\u6574\u5099\u5c40 \u5317\u52e2\u56fd\u9053\u4e8b\u52d9\u6240\"","boring_xml_url":64,"boring_view_url":1,"soilmap_view_url":null,"soiltest_xml_url":0,"soiltest_view_url":0},{"id":511517,"code":"B4KJ202201001-4053","latitude":"34.982194","longitude":"136.579639","source_code":"CB0885656020500007","project_name":"","survey_name":"\u5e73\u621020\u5e74\u5ea6\u3000\u5317\u52e2\u7ba1\u5185\u5730\u8cea\u8abf\u67fb","client_name":"\u56fd\u571f\u4ea4\u901a\u7701\u3000\u4e2d\u90e8\u5730\u65b9\u6574\u5099\u5c40\u3000\u5317\u52e2\u56fd\u9053\u4e8b\u52d9\u6240","boring_xml_url":64,"boring_view_url":1,"soilmap_view_url":null,"soiltest_xml_url":0,"soiltest_view_url":0},{"id":511516,"code":"B4KJ202201001-4052","latitude":"34.981333","longitude":"136.579833","source_code":"CB0885656020500006","project_name":"","survey_name":"\u5e73\u621020\u5e74\u5ea6\u3000\u5317\u52e2\u7ba1\u5185\u5730\u8cea\u8abf\u67fb","client_name":"\u56fd\u571f\u4ea4\u901a\u7701\u3000\u4e2d\u90e8\u5730\u65b9\u6574\u5099\u5c40\u3000\u5317\u52e2\u56fd\u9053\u4e8b\u52d9\u6240","boring_xml_url":64,"boring_view_url":1,"soilmap_view_url":null,"soiltest_xml_url":0,"soiltest_view_url":0},{"id":511515,"code":"B4KJ202201001-4051","latitude":"34.982167","longitude":"136.579944","source_code":"CB0885656020500005","project_name":"","survey_name":"\u5e73\u621020\u5e74\u5ea6\u3000\u5317\u52e2\u7ba1\u5185\u5730\u8cea\u8abf\u67fb","client_name":"\u56fd\u571f\u4ea4\u901a\u7701\u3000\u4e2d\u90e8\u5730\u65b9\u6574\u5099\u5c40\u3000\u5317\u52e2\u56fd\u9053\u4e8b\u52d9\u6240","boring_xml_url":64,"boring_view_url":1,"soilmap_view_url":null,"soiltest_xml_url":0,"soiltest_view_url":0},{"id":511514,"code":"B4KJ202201001-4050","latitude":"34.982833","longitude":"136.580083","source_code":"CB0885656020500004","project_name":"","survey_name":"\u5e73\u621020\u5e74\u5ea6\u3000\u5317\u52e2\u7ba1\u5185\u5730\u8cea\u8abf\u67fb","client_name":"\u56fd\u571f\u4ea4\u901a\u7701\u3000\u4e2d\u90e8\u5730\u65b9\u6574\u5099\u5c40\u3000\u5317\u52e2\u56fd\u9053\u4e8b\u52d9\u6240","boring_xml_url":64,"boring_view_url":1,"soilmap_view_url":null,"soiltest_xml_url":0,"soiltest_view_url":0},{"id":511513,"code":"B4KJ202201001-4049","latitude":"34.983639","longitude":"136.579833","source_code":"CB0885656020500003","project_name":"","survey_name":"\u5e73\u621020\u5e74\u5ea6\u3000\u5317\u52e2\u7ba1\u5185\u5730\u8cea\u8abf\u67fb","client_name":"\u56fd\u571f\u4ea4\u901a\u7701\u3000\u4e2d\u90e8\u5730\u65b9\u6574\u5099\u5c40\u3000\u5317\u52e2\u56fd\u9053\u4e8b\u52d9\u6240","boring_xml_url":64,"boring_view_url":1,"soilmap_view_url":null,"soiltest_xml_url":0,"soiltest_view_url":0},{"id":511512,"code":"B4KJ202201001-4048","latitude":"34.985333","longitude":"136.580028","source_code":"CB0885656020500002","project_name":"","survey_name":"\u5e73\u621020\u5e74\u5ea6\u3000\u5317\u52e2\u7ba1\u5185\u5730\u8cea\u8abf\u67fb","client_name":"\u56fd\u571f\u4ea4\u901a\u7701\u3000\u4e2d\u90e8\u5730\u65b9\u6574\u5099\u5c40\u3000\u5317\u52e2\u56fd\u9053\u4e8b\u52d9\u6240","boring_xml_url":64,"boring_view_url":1,"soilmap_view_url":null,"soiltest_xml_url":0,"soiltest_view_url":0},{"id":511511,"code":"B4KJ202201001-4047","latitude":"34.986778","longitude":"136.580167","source_code":"CB0885656020500001","project_name":"","survey_name":"\u5e73\u621020\u5e74\u5ea6\u3000\u5317\u52e2\u7ba1\u5185\u5730\u8cea\u8abf\u67fb","client_name":"\u56fd\u571f\u4ea4\u901a\u7701\u3000\u4e2d\u90e8\u5730\u65b9\u6574\u5099\u5c40\u3000\u5317\u52e2\u56fd\u9053\u4e8b\u52d9\u6240","boring_xml_url":64,"boring_view_url":1,"soilmap_view_url":null,"soiltest_xml_url":0,"soiltest_view_url":0},{"id":511510,"code":"B4KJ202201001-4046","latitude":"35.062389","longitude":"136.733556","source_code":"CB0885616220510003","project_name":"","survey_name":"\u5e73\u621020\u5e74\u5ea6\u3000\u6728\u66fd\u5ddd\u6e90\u7dd1\u9632\u707d\u30b9\u30c6\u30fc\u30b7\u30e7\u30f3\u571f\u8cea\u8abf\u67fb","client_name":"\u56fd\u571f\u4ea4\u901a\u7701\u4e2d\u90e8\u5730\u65b9\u6574\u5099\u5c40\u6728\u66fd\u5ddd\u4e0b\u6d41\u6cb3\u5ddd\u4e8b\u52d9\u6240","boring_xml_url":64,"boring_view_url":1,"soilmap_view_url":null,"soiltest_xml_url":0,"soiltest_view_url":0},{"id":511509,"code":"B4KJ202201001-4045","latitude":"35.063","longitude":"136.734833","source_code":"CB0885616220510002","project_name":"","survey_name":"\u5e73\u621020\u5e74\u5ea6\u3000\u6728\u66fd\u5ddd\u6e90\u7dd1\u9632\u707d\u30b9\u30c6\u30fc\u30b7\u30e7\u30f3\u571f\u8cea\u8abf\u67fb","client_name":"\u56fd\u571f\u4ea4\u901a\u7701\u4e2d\u90e8\u5730\u65b9\u6574\u5099\u5c40\u6728\u66fd\u5ddd\u4e0b\u6d41\u6cb3\u5ddd\u4e8b\u52d9\u6240","boring_xml_url":64,"boring_view_url":1,"soilmap_view_url":null,"soiltest_xml_url":0,"soiltest_view_url":0},{"id":511508,"code":"B4KJ202201001-4044","latitude":"35.062611","longitude":"136.735833","source_code":"CB0885616220510001","project_name":"","survey_name":"\u5e73\u621020\u5e74\u5ea6\u3000\u6728\u66fd\u5ddd\u6e90\u7dd1\u9632\u707d\u30b9\u30c6\u30fc\u30b7\u30e7\u30f3\u571f\u8cea\u8abf\u67fb","client_name":"\u56fd\u571f\u4ea4\u901a\u7701\u4e2d\u90e8\u5730\u65b9\u6574\u5099\u5c40\u6728\u66fd\u5ddd\u4e0b\u6d41\u6cb3\u5ddd\u4e8b\u52d9\u6240","boring_xml_url":64,"boring_view_url":1,"soilmap_view_url":null,"soiltest_xml_url":0,"soiltest_view_url":0},{"id":511507,"code":"B4KJ202201001-4043","latitude":"35.176639","longitude":"136.632194","source_code":"CB0785616220570003","project_name":"\u5357\u90e8\u6392\u6c34\u6a5f\u3072\u7ba1\u70b9\u691c","survey_name":"\u5e73\u621019\u5e74\u5ea6\u6728\u66fd\u4e09\u5ddd\u4e0b\u6d41\u90e8\u5824\u9632\u8a73\u7d30\u70b9\u691c\u696d\u52d9","client_name":"\u56fd\u571f\u4ea4\u901a\u7701\u4e2d\u90e8\u5730\u65b9\u6574\u5099\u5c40\u6728\u66fd\u5ddd\u4e0b\u6d41\u6cb3\u5ddd\u4e8b\u52d9\u6240","boring_xml_url":64,"boring_view_url":1,"soilmap_view_url":null,"soiltest_xml_url":0,"soiltest_view_url":0},{"id":511506,"code":"B4KJ202201001-4042","latitude":"35.122222","longitude":"136.703889","source_code":"CB0785616220570002","project_name":"\u5357\u90e8\u6392\u6c34\u6a5f\u3072\u7ba1\u70b9\u691c","survey_name":"\u5e73\u621019\u5e74\u5ea6\u6728\u66fd\u4e09\u5ddd\u4e0b\u6d41\u90e8\u5824\u9632\u8a73\u7d30\u70b9\u691c\u696d\u52d9","client_name":"\u56fd\u571f\u4ea4\u901a\u7701\u4e2d\u90e8\u5730\u65b9\u6574\u5099\u5c40\u6728\u66fd\u5ddd\u4e0b\u6d41\u6cb3\u5ddd\u4e8b\u52d9\u6240","boring_xml_url":64,"boring_view_url":1,"soilmap_view_url":null,"soiltest_xml_url":0,"soiltest_view_url":0},{"id":511505,"code":"B4KJ202201001-4041","latitude":"35.176667","longitude":"136.632305","source_code":"CB0785616220570001","project_name":"\u5357\u90e8\u6392\u6c34\u6a5f\u3072\u7ba1\u70b9\u691c","survey_name":"\u5e73\u621019\u5e74\u5ea6\u6728\u66fd\u4e09\u5ddd\u4e0b\u6d41\u90e8\u5824\u9632\u8a73\u7d30\u70b9\u691c\u696d\u52d9","client_name":"\u56fd\u571f\u4ea4\u901a\u7701\u4e2d\u90e8\u5730\u65b9\u6574\u5099\u5c40\u6728\u66fd\u5ddd\u4e0b\u6d41\u6cb3\u5ddd\u4e8b\u52d9\u6240","boring_xml_url":64,"boring_view_url":1,"soilmap_view_url":null,"soiltest_xml_url":0,"soiltest_view_url":0},{"id":511504,"code":"B4KJ202201001-4040","latitude":"35.028717","longitude":"136.708844","source_code":"CB0785614020600002","project_name":"","survey_name":"\u5e73\u621019\u5e74\u5ea6\u3000\u9ad8\u6f6e\u533a\u9593\u6cb3\u5ddd\u69cb\u9020\u7269\u6982\u7565\u8a2d\u8a08\u696d\u52d9","client_name":"\u56fd\u571f\u4ea4\u901a\u7701\u3000\u4e2d\u90e8\u5730\u65b9\u6574\u5099\u5c40\u3000\u6728\u66fd\u5ddd\u4e0b\u6d41\u6cb3\u5ddd\u4e8b\u52d9\u6240","boring_xml_url":64,"boring_view_url":1,"soilmap_view_url":null,"soiltest_xml_url":0,"soiltest_view_url":0},{"id":511503,"code":"B4KJ202201001-4039","latitude":"35.028464","longitude":"136.709669","source_code":"CB0785614020600001","project_name":"","survey_name":"\u5e73\u621019\u5e74\u5ea6\u3000\u9ad8\u6f6e\u533a\u9593\u6cb3\u5ddd\u69cb\u9020\u7269\u6982\u7565\u8a2d\u8a08\u696d\u52d9","client_name":"\u56fd\u571f\u4ea4\u901a\u7701\u3000\u4e2d\u90e8\u5730\u65b9\u6574\u5099\u5c40\u3000\u6728\u66fd\u5ddd\u4e0b\u6d41\u6cb3\u5ddd\u4e8b\u52d9\u6240","boring_xml_url":64,"boring_view_url":1,"soilmap_view_url":null,"soiltest_xml_url":0,"soiltest_view_url":0},{"id":511502,"code":"B4KJ202201001-4038","latitude":"35.108639","longitude":"137.569861","source_code":"CB0785574020610027","project_name":"\"\u5e73\u621019\u5e74\u5ea6  \u8a2d\u697d\u30c0\u30e0\u702c\u6238\u8a2d\u697d\u7dda\u59162\u8def\u7dda\u95a2\u9023\u5730\u8cea\u8abf\u67fb\"","survey_name":"\"\u5e73\u621019\u5e74\u5ea6  \u8a2d\u697d\u30c0\u30e0\u702c\u6238\u8a2d\u697d\u7dda\u59162\u8def\u7dda\u95a2\u9023\u5730\u8cea\u8abf\u67fb\"","client_name":"\u56fd\u571f\u4ea4\u901a\u7701\u3000\u4e2d\u90e8\u5730\u65b9\u6574\u5099\u5c40\u3000\u8a2d\u697d\u30c0\u30e0\u5de5\u4e8b\u4e8b\u52d9\u6240","boring_xml_url":64,"boring_view_url":1,"soilmap_view_url":null,"soiltest_xml_url":0,"soiltest_view_url":0},{"id":511501,"code":"B4KJ202201001-4037","latitude":"35.113083","longitude":"137.557944","source_code":"CB0785574020610026","project_name":"\"\u5e73\u621019\u5e74\u5ea6  \u8a2d\u697d\u30c0\u30e0\u702c\u6238\u8a2d\u697d\u7dda\u59162\u8def\u7dda\u95a2\u9023\u5730\u8cea\u8abf\u67fb\"","survey_name":"\"\u5e73\u621019\u5e74\u5ea6  \u8a2d\u697d\u30c0\u30e0\u702c\u6238\u8a2d\u697d\u7dda\u59162\u8def\u7dda\u95a2\u9023\u5730\u8cea\u8abf\u67fb\"","client_name":"\u56fd\u571f\u4ea4\u901a\u7701\u3000\u4e2d\u90e8\u5730\u65b9\u6574\u5099\u5c40\u3000\u8a2d\u697d\u30c0\u30e0\u5de5\u4e8b\u4e8b\u52d9\u6240","boring_xml_url":64,"boring_view_url":1,"soilmap_view_url":null,"soiltest_xml_url":0,"soiltest_view_url":0},{"id":511500,"code":"B4KJ202201001-4036","latitude":"35.113139","longitude":"137.559611","source_code":"CB0785574020610025","project_name":"\"\u5e73\u621019\u5e74\u5ea6  \u8a2d\u697d\u30c0\u30e0\u702c\u6238\u8a2d\u697d\u7dda\u59162\u8def\u7dda\u95a2\u9023\u5730\u8cea\u8abf\u67fb\"","survey_name":"\"\u5e73\u621019\u5e74\u5ea6  \u8a2d\u697d\u30c0\u30e0\u702c\u6238\u8a2d\u697d\u7dda\u59162\u8def\u7dda\u95a2\u9023\u5730\u8cea\u8abf\u67fb\"","client_name":"\u56fd\u571f\u4ea4\u901a\u7701\u3000\u4e2d\u90e8\u5730\u65b9\u6574\u5099\u5c40\u3000\u8a2d\u697d\u30c0\u30e0\u5de5\u4e8b\u4e8b\u52d9\u6240","boring_xml_url":64,"boring_view_url":1,"soilmap_view_url":null,"soiltest_xml_url":0,"soiltest_view_url":0},{"id":511499,"code":"B4KJ202201001-4035","latitude":"35.112806","longitude":"137.560528","source_code":"CB0785574020610024","project_name":"\"\u5e73\u621019\u5e74\u5ea6  \u8a2d\u697d\u30c0\u30e0\u702c\u6238\u8a2d\u697d\u7dda\u59162\u8def\u7dda\u95a2\u9023\u5730\u8cea\u8abf\u67fb\"","survey_name":"\"\u5e73\u621019\u5e74\u5ea6  \u8a2d\u697d\u30c0\u30e0\u702c\u6238\u8a2d\u697d\u7dda\u59162\u8def\u7dda\u95a2\u9023\u5730\u8cea\u8abf\u67fb\"","client_name":"\u56fd\u571f\u4ea4\u901a\u7701\u3000\u4e2d\u90e8\u5730\u65b9\u6574\u5099\u5c40\u3000\u8a2d\u697d\u30c0\u30e0\u5de5\u4e8b\u4e8b\u52d9\u6240","boring_xml_url":64,"boring_view_url":1,"soilmap_view_url":null,"soiltest_xml_url":0,"soiltest_view_url":0},{"id":511498,"code":"B4KJ202201001-4034","latitude":"35.112667","longitude":"137.560722","source_code":"CB0785574020610023","project_name":"\"\u5e73\u621019\u5e74\u5ea6  \u8a2d\u697d\u30c0\u30e0\u702c\u6238\u8a2d\u697d\u7dda\u59162\u8def\u7dda\u95a2\u9023\u5730\u8cea\u8abf\u67fb\"","survey_name":"\"\u5e73\u621019\u5e74\u5ea6  \u8a2d\u697d\u30c0\u30e0\u702c\u6238\u8a2d\u697d\u7dda\u59162\u8def\u7dda\u95a2\u9023\u5730\u8cea\u8abf\u67fb\"","client_name":"\u56fd\u571f\u4ea4\u901a\u7701\u3000\u4e2d\u90e8\u5730\u65b9\u6574\u5099\u5c40\u3000\u8a2d\u697d\u30c0\u30e0\u5de5\u4e8b\u4e8b\u52d9\u6240","boring_xml_url":64,"boring_view_url":1,"soilmap_view_url":null,"soiltest_xml_url":0,"soiltest_view_url":0},{"id":511497,"code":"B4KJ202201001-4033","latitude":"35.112167","longitude":"137.562917","source_code":"CB0785574020610022","project_name":"\"\u5e73\u621019\u5e74\u5ea6  \u8a2d\u697d\u30c0\u30e0\u702c\u6238\u8a2d\u697d\u7dda\u59162\u8def\u7dda\u95a2\u9023\u5730\u8cea\u8abf\u67fb\"","survey_name":"\"\u5e73\u621019\u5e74\u5ea6  \u8a2d\u697d\u30c0\u30e0\u702c\u6238\u8a2d\u697d\u7dda\u59162\u8def\u7dda\u95a2\u9023\u5730\u8cea\u8abf\u67fb\"","client_name":"\u56fd\u571f\u4ea4\u901a\u7701\u3000\u4e2d\u90e8\u5730\u65b9\u6574\u5099\u5c40\u3000\u8a2d\u697d\u30c0\u30e0\u5de5\u4e8b\u4e8b\u52d9\u6240","boring_xml_url":64,"boring_view_url":1,"soilmap_view_url":null,"soiltest_xml_url":0,"soiltest_view_url":0},{"id":511496,"code":"B4KJ202201001-4032","latitude":"35.112222","longitude":"137.564944","source_code":"CB0785574020610021","project_name":"\"\u5e73\u621019\u5e74\u5ea6  \u8a2d\u697d\u30c0\u30e0\u702c\u6238\u8a2d\u697d\u7dda\u59162\u8def\u7dda\u95a2\u9023\u5730\u8cea\u8abf\u67fb\"","survey_name":"\"\u5e73\u621019\u5e74\u5ea6  \u8a2d\u697d\u30c0\u30e0\u702c\u6238\u8a2d\u697d\u7dda\u59162\u8def\u7dda\u95a2\u9023\u5730\u8cea\u8abf\u67fb\"","client_name":"\u56fd\u571f\u4ea4\u901a\u7701\u3000\u4e2d\u90e8\u5730\u65b9\u6574\u5099\u5c40\u3000\u8a2d\u697d\u30c0\u30e0\u5de5\u4e8b\u4e8b\u52d9\u6240","boring_xml_url":64,"boring_view_url":1,"soilmap_view_url":null,"soiltest_xml_url":0,"soiltest_view_url":0},{"id":511495,"code":"B4KJ202201001-4031","latitude":"35.111944","longitude":"137.567167","source_code":"CB0785574020610020","project_name":"\"\u5e73\u621019\u5e74\u5ea6  \u8a2d\u697d\u30c0\u30e0\u702c\u6238\u8a2d\u697d\u7dda\u4ed6\u5916\u8def\u7dda\u95a2\u9023\u5730\u8cea\u8abf\u67fb\"","survey_name":"\"\u5e73\u621019\u5e74\u5ea6  \u8a2d\u697d\u30c0\u30e0\u702c\u6238\u8a2d\u697d\u7dda\u4ed6\u5916\u8def\u7dda\u95a2\u9023\u5730\u8cea\u8abf\u67fb\"","client_name":"\u56fd\u571f\u4ea4\u901a\u7701\u3000\u4e2d\u90e8\u5730\u65b9\u6574\u5099\u5c40\u3000\u8a2d\u697d\u30c0\u30e0\u5de5\u4e8b\u4e8b\u52d9\u6240","boring_xml_url":64,"boring_view_url":1,"soilmap_view_url":null,"soiltest_xml_url":0,"soiltest_view_url":0},{"id":511494,"code":"B4KJ202201001-4030","latitude":"35.111056","longitude":"137.5685","source_code":"CB0785574020610019","project_name":"\"\u5e73\u621019\u5e74\u5ea6  \u8a2d\u697d\u30c0\u30e0\u702c\u6238\u8a2d\u697d\u7dda\u59162\u8def\u7dda\u95a2\u9023\u5730\u8cea\u8abf\u67fb\"","survey_name":"\"\u5e73\u621019\u5e74\u5ea6  \u8a2d\u697d\u30c0\u30e0\u702c\u6238\u8a2d\u697d\u7dda\u59162\u8def\u7dda\u95a2\u9023\u5730\u8cea\u8abf\u67fb\"","client_name":"\u56fd\u571f\u4ea4\u901a\u7701\u3000\u4e2d\u90e8\u5730\u65b9\u6574\u5099\u5c40\u3000\u8a2d\u697d\u30c0\u30e0\u5de5\u4e8b\u4e8b\u52d9\u6240","boring_xml_url":64,"boring_view_url":1,"soilmap_view_url":null,"soiltest_xml_url":0,"soiltest_view_url":0},{"id":511493,"code":"B4KJ202201001-4029","latitude":"35.110806","longitude":"137.568722","source_code":"CB0785574020610018","project_name":"\"\u5e73\u621019\u5e74\u5ea6  \u8a2d\u697d\u30c0\u30e0\u702c\u6238\u8a2d\u697d\u7dda\u59162\u8def\u7dda\u95a2\u9023\u5730\u8cea\u8abf\u67fb\"","survey_name":"\"\u5e73\u621019\u5e74\u5ea6  \u8a2d\u697d\u30c0\u30e0\u702c\u6238\u8a2d\u697d\u7dda\u59162\u8def\u7dda\u95a2\u9023\u5730\u8cea\u8abf\u67fb\"","client_name":"\u56fd\u571f\u4ea4\u901a\u7701\u3000\u4e2d\u90e8\u5730\u65b9\u6574\u5099\u5c40\u3000\u8a2d\u697d\u30c0\u30e0\u5de5\u4e8b\u4e8b\u52d9\u6240","boring_xml_url":64,"boring_view_url":1,"soilmap_view_url":null,"soiltest_xml_url":0,"soiltest_view_url":0},{"id":511492,"code":"B4KJ202201001-4028","latitude":"35.110528","longitude":"137.569","source_code":"CB0785574020610017","project_name":"\"\u5e73\u621019\u5e74\u5ea6  \u8a2d\u697d\u30c0\u30e0\u702c\u6238\u8a2d\u697d\u7dda\u59162\u8def\u7dda\u95a2\u9023\u5730\u8cea\u8abf\u67fb\"","survey_name":"\"\u5e73\u621019\u5e74\u5ea6  \u8a2d\u697d\u30c0\u30e0\u702c\u6238\u8a2d\u697d\u7dda\u59162\u8def\u7dda\u95a2\u9023\u5730\u8cea\u8abf\u67fb\"","client_name":"\u56fd\u571f\u4ea4\u901a\u7701\u3000\u4e2d\u90e8\u5730\u65b9\u6574\u5099\u5c40\u3000\u8a2d\u697d\u30c0\u30e0\u5de5\u4e8b\u4e8b\u52d9\u6240","boring_xml_url":64,"boring_view_url":1,"soilmap_view_url":null,"soiltest_xml_url":0,"soiltest_view_url":0},{"id":511491,"code":"B4KJ202201001-4027","latitude":"35.110083","longitude":"137.56925","source_code":"CB0785574020610016","project_name":"\"\u5e73\u621019\u5e74\u5ea6  \u8a2d\u697d\u30c0\u30e0\u702c\u6238\u8a2d\u697d\u7dda\u59162\u8def\u7dda\u95a2\u9023\u5730\u8cea\u8abf\u67fb\"","survey_name":"\"\u5e73\u621019\u5e74\u5ea6  \u8a2d\u697d\u30c0\u30e0\u702c\u6238\u8a2d\u697d\u7dda\u59162\u8def\u7dda\u95a2\u9023\u5730\u8cea\u8abf\u67fb\"","client_name":"\u56fd\u571f\u4ea4\u901a\u7701\u3000\u4e2d\u90e8\u5730\u65b9\u6574\u5099\u5c40\u3000\u8a2d\u697d\u30c0\u30e0\u5de5\u4e8b\u4e8b\u52d9\u6240","boring_xml_url":64,"boring_view_url":1,"soilmap_view_url":null,"soiltest_xml_url":0,"soiltest_view_url":0},{"id":511490,"code":"B4KJ202201001-4026","latitude":"35.108806","longitude":"137.570083","source_code":"CB0785574020610015","project_name":"\"\u5e73\u621019\u5e74\u5ea6  \u8a2d\u697d\u30c0\u30e0\u702c\u6238\u8a2d\u697d\u7dda\u59162\u8def\u7dda\u95a2\u9023\u5730\u8cea\u8abf\u67fb\"","survey_name":"\"\u5e73\u621019\u5e74\u5ea6  \u8a2d\u697d\u30c0\u30e0\u702c\u6238\u8a2d\u697d\u7dda\u59162\u8def\u7dda\u95a2\u9023\u5730\u8cea\u8abf\u67fb\"","client_name":"\u56fd\u571f\u4ea4\u901a\u7701\u3000\u4e2d\u90e8\u5730\u65b9\u6574\u5099\u5c40\u3000\u8a2d\u697d\u30c0\u30e0\u5de5\u4e8b\u4e8b\u52d9\u6240","boring_xml_url":64,"boring_view_url":1,"soilmap_view_url":null,"soiltest_xml_url":0,"soiltest_view_url":0},{"id":511489,"code":"B4KJ202201001-4025","latitude":"35.108056","longitude":"137.572028","source_code":"CB0785574020610014","project_name":"\"\u5e73\u621019\u5e74\u5ea6  \u8a2d\u697d\u30c0\u30e0\u702c\u6238\u8a2d\u697d\u7dda\u59162\u8def\u7dda\u95a2\u9023\u5730\u8cea\u8abf\u67fb\"","survey_name":"\"\u5e73\u621019\u5e74\u5ea6  \u8a2d\u697d\u30c0\u30e0\u702c\u6238\u8a2d\u697d\u7dda\u59162\u8def\u7dda\u95a2\u9023\u5730\u8cea\u8abf\u67fb\"","client_name":"\u56fd\u571f\u4ea4\u901a\u7701\u3000\u4e2d\u90e8\u5730\u65b9\u6574\u5099\u5c40\u3000\u8a2d\u697d\u30c0\u30e0\u5de5\u4e8b\u4e8b\u52d9\u6240","boring_xml_url":64,"boring_view_url":1,"soilmap_view_url":null,"soiltest_xml_url":0,"soiltest_view_url":0}]}}