{"header":{"xyz":{"source":[],"mosaic":false},"page":1132,"raw":{"soiltest_result":"0","bbox":"57.598333,109.544722,1.933333,163.806111","page":"1132"},"conditions":{"soiltest_result":0,"north":57.598333,"west":109.544722,"south":1.933333,"east":163.806111},"success":true,"message":""},"data":{"meta":{"total":212844,"page":1132,"pages":7095,"count":30},"values":[{"id":511430,"code":"B4KJ202201001-3966","latitude":"35.580389","longitude":"136.626306","source_code":"CB0885324020150004","project_name":"\"\u5e73\u621020\u5e74\u5ea6 \u5b87\u6d25\u5fd7\u8c37\u7b2c1\u7802\u9632\u3048\u3093\u5824\u8a73\u7d30\u8a2d\u8a08\u696d\u52d9\"","survey_name":"\"\u5e73\u621020\u5e74\u5ea6 \u5b87\u6d25\u5fd7\u8c37\u7b2c1\u7802\u9632\u3048\u3093\u5824\u8a73\u7d30\u8a2d\u8a08\u696d\u52d9\"","client_name":"\u56fd\u571f\u4ea4\u901a\u7701\u4e2d\u90e8\u5730\u65b9\u6574\u5099\u5c40\u8d8a\u7f8e\u5c71\u7cfb\u7802\u9632\u4e8b\u52d9\u6240","boring_xml_url":64,"boring_view_url":1,"soilmap_view_url":null,"soiltest_xml_url":0,"soiltest_view_url":0},{"id":511429,"code":"B4KJ202201001-3965","latitude":"35.580361","longitude":"136.626167","source_code":"CB0885324020150003","project_name":"\"\u5e73\u621020\u5e74\u5ea6 \u5b87\u6d25\u5fd7\u8c37\u7b2c1\u7802\u9632\u3048\u3093\u5824\u8a73\u7d30\u8a2d\u8a08\u696d\u52d9\"","survey_name":"\"\u5e73\u621020\u5e74\u5ea6 \u5b87\u6d25\u5fd7\u8c37\u7b2c1\u7802\u9632\u3048\u3093\u5824\u8a73\u7d30\u8a2d\u8a08\u696d\u52d9\"","client_name":"\u56fd\u571f\u4ea4\u901a\u7701\u4e2d\u90e8\u5730\u65b9\u6574\u5099\u5c40\u8d8a\u7f8e\u5c71\u7cfb\u7802\u9632\u4e8b\u52d9\u6240","boring_xml_url":64,"boring_view_url":1,"soilmap_view_url":null,"soiltest_xml_url":0,"soiltest_view_url":0},{"id":511428,"code":"B4KJ202201001-3964","latitude":"35.580333","longitude":"136.626417","source_code":"CB0885324020150002","project_name":"\"\u5e73\u621020\u5e74\u5ea6 \u5b87\u6d25\u5fd7\u8c37\u7b2c1\u7802\u9632\u3048\u3093\u5824\u8a73\u7d30\u8a2d\u8a08\u696d\u52d9\"","survey_name":"\"\u5e73\u621020\u5e74\u5ea6 \u5b87\u6d25\u5fd7\u8c37\u7b2c1\u7802\u9632\u3048\u3093\u5824\u8a73\u7d30\u8a2d\u8a08\u696d\u52d9\"","client_name":"\u56fd\u571f\u4ea4\u901a\u7701\u4e2d\u90e8\u5730\u65b9\u6574\u5099\u5c40\u8d8a\u7f8e\u5c71\u7cfb\u7802\u9632\u4e8b\u52d9\u6240","boring_xml_url":64,"boring_view_url":1,"soilmap_view_url":null,"soiltest_xml_url":0,"soiltest_view_url":0},{"id":511427,"code":"B4KJ202201001-3963","latitude":"35.580333","longitude":"136.626306","source_code":"CB0885324020150001","project_name":"\"\u5e73\u621020\u5e74\u5ea6 \u5b87\u6d25\u5fd7\u8c37\u7b2c1\u7802\u9632\u3048\u3093\u5824\u8a73\u7d30\u8a2d\u8a08\u696d\u52d9\"","survey_name":"\"\u5e73\u621020\u5e74\u5ea6 \u5b87\u6d25\u5fd7\u8c37\u7b2c1\u7802\u9632\u3048\u3093\u5824\u8a73\u7d30\u8a2d\u8a08\u696d\u52d9\"","client_name":"\u56fd\u571f\u4ea4\u901a\u7701\u4e2d\u90e8\u5730\u65b9\u6574\u5099\u5c40\u8d8a\u7f8e\u5c71\u7cfb\u7802\u9632\u4e8b\u52d9\u6240","boring_xml_url":64,"boring_view_url":1,"soilmap_view_url":null,"soiltest_xml_url":0,"soiltest_view_url":0},{"id":511426,"code":"B4KJ202201001-3962","latitude":"35.664722","longitude":"136.580834","source_code":"CB0885324020130004","project_name":"\"\u5e73\u621020\u5e74\u5ea6 \u65e5\u6d1e\u8c37\u7b2c1\u7802\u9632\u3048\u3093\u5824\u8a73\u7d30\u8a2d\u8a08\u696d\u52d9\"","survey_name":"\"\u5e73\u621020\u5e74\u5ea6 \u65e5\u6d1e\u8c37\u7b2c1\u7802\u9632\u3048\u3093\u5824\u8a73\u7d30\u8a2d\u8a08\u696d\u52d9\"","client_name":"\u56fd\u571f\u4ea4\u901a\u7701\u4e2d\u90e8\u5730\u65b9\u6574\u5099\u5c40\u8d8a\u7f8e\u5c71\u7cfb\u7802\u9632\u4e8b\u52d9\u6240","boring_xml_url":64,"boring_view_url":1,"soilmap_view_url":null,"soiltest_xml_url":0,"soiltest_view_url":0},{"id":511425,"code":"B4KJ202201001-3961","latitude":"35.664444","longitude":"136.580001","source_code":"CB0885324020130003","project_name":"\"\u5e73\u621020\u5e74\u5ea6 \u65e5\u6d1e\u8c37\u7b2c1\u7802\u9632\u3048\u3093\u5824\u8a73\u7d30\u8a2d\u8a08\u696d\u52d9\"","survey_name":"\"\u5e73\u621020\u5e74\u5ea6 \u65e5\u6d1e\u8c37\u7b2c1\u7802\u9632\u3048\u3093\u5824\u8a73\u7d30\u8a2d\u8a08\u696d\u52d9\"","client_name":"\u56fd\u571f\u4ea4\u901a\u7701\u4e2d\u90e8\u5730\u65b9\u6574\u5099\u5c40\u8d8a\u7f8e\u5c71\u7cfb\u7802\u9632\u4e8b\u52d9\u6240","boring_xml_url":64,"boring_view_url":1,"soilmap_view_url":null,"soiltest_xml_url":0,"soiltest_view_url":0},{"id":511424,"code":"B4KJ202201001-3960","latitude":"35.665","longitude":"136.580556","source_code":"CB0885324020130002","project_name":"\"\u5e73\u621020\u5e74\u5ea6 \u65e5\u6d1e\u8c37\u7b2c1\u7802\u9632\u3048\u3093\u5824\u8a73\u7d30\u8a2d\u8a08\u696d\u52d9\"","survey_name":"\"\u5e73\u621020\u5e74\u5ea6 \u65e5\u6d1e\u8c37\u7b2c1\u7802\u9632\u3048\u3093\u5824\u8a73\u7d30\u8a2d\u8a08\u696d\u52d9\"","client_name":"\u56fd\u571f\u4ea4\u901a\u7701\u4e2d\u90e8\u5730\u65b9\u6574\u5099\u5c40\u8d8a\u7f8e\u5c71\u7cfb\u7802\u9632\u4e8b\u52d9\u6240","boring_xml_url":64,"boring_view_url":1,"soilmap_view_url":null,"soiltest_xml_url":0,"soiltest_view_url":0},{"id":511423,"code":"B4KJ202201001-3959","latitude":"35.664722","longitude":"136.580278","source_code":"CB0885324020130001","project_name":"\"\u5e73\u621020\u5e74\u5ea6 \u65e5\u6d1e\u8c37\u7b2c1\u7802\u9632\u3048\u3093\u5824\u8a73\u7d30\u8a2d\u8a08\u696d\u52d9\"","survey_name":"\"\u5e73\u621020\u5e74\u5ea6 \u65e5\u6d1e\u8c37\u7b2c1\u7802\u9632\u3048\u3093\u5824\u8a73\u7d30\u8a2d\u8a08\u696d\u52d9\"","client_name":"\u56fd\u571f\u4ea4\u901a\u7701\u4e2d\u90e8\u5730\u65b9\u6574\u5099\u5c40\u8d8a\u7f8e\u5c71\u7cfb\u7802\u9632\u4e8b\u52d9\u6240","boring_xml_url":64,"boring_view_url":1,"soilmap_view_url":null,"soiltest_xml_url":0,"soiltest_view_url":0},{"id":511422,"code":"B4KJ202201001-3958","latitude":"35.314167","longitude":"137.215834","source_code":"CB0785306320240003","project_name":"\u5e73\u621019\u5e74\u5ea6\u571f\u5c90\u5e02\u4e0b\u77f3\u5730\u533a\u5730\u3059\u3079\u308a\u7dca\u6025\u5730\u8cea\u8abf\u67fb","survey_name":"\u5e73\u621019\u5e74\u5ea6\u571f\u5c90\u5e02\u4e0b\u77f3\u5730\u533a\u5730\u3059\u3079\u308a\u7dca\u6025\u5730\u8cea\u8abf\u67fb","client_name":"\u56fd\u571f\u4ea4\u901a\u7701\u3000\u591a\u6cbb\u898b\u7802\u9632\u56fd\u9053\u4e8b\u52d9\u6240","boring_xml_url":64,"boring_view_url":1,"soilmap_view_url":null,"soiltest_xml_url":0,"soiltest_view_url":0},{"id":511421,"code":"B4KJ202201001-3957","latitude":"35.314167","longitude":"137.215556","source_code":"CB0785306320240002","project_name":"\u5e73\u621019\u5e74\u5ea6\u571f\u5c90\u5e02\u4e0b\u77f3\u5730\u533a\u5730\u3059\u3079\u308a\u7dca\u6025\u5730\u8cea\u8abf\u67fb","survey_name":"\u5e73\u621019\u5e74\u5ea6\u571f\u5c90\u5e02\u4e0b\u77f3\u5730\u533a\u5730\u3059\u3079\u308a\u7dca\u6025\u5730\u8cea\u8abf\u67fb","client_name":"\u56fd\u571f\u4ea4\u901a\u7701\u3000\u591a\u6cbb\u898b\u7802\u9632\u56fd\u9053\u4e8b\u52d9\u6240","boring_xml_url":64,"boring_view_url":1,"soilmap_view_url":null,"soiltest_xml_url":0,"soiltest_view_url":0},{"id":511420,"code":"B4KJ202201001-3956","latitude":"35.313889","longitude":"137.215","source_code":"CB0785306320240001","project_name":"\u5e73\u621019\u5e74\u5ea6\u571f\u5c90\u5e02\u4e0b\u77f3\u5730\u533a\u5730\u3059\u3079\u308a\u7dca\u6025\u5730\u8cea\u8abf\u67fb","survey_name":"\u5e73\u621019\u5e74\u5ea6\u571f\u5c90\u5e02\u4e0b\u77f3\u5730\u533a\u5730\u3059\u3079\u308a\u7dca\u6025\u5730\u8cea\u8abf\u67fb","client_name":"\u56fd\u571f\u4ea4\u901a\u7701\u3000\u591a\u6cbb\u898b\u7802\u9632\u56fd\u9053\u4e8b\u52d9\u6240","boring_xml_url":64,"boring_view_url":1,"soilmap_view_url":null,"soiltest_xml_url":0,"soiltest_view_url":0},{"id":511419,"code":"B4KJ202201001-3955","latitude":"35.431028","longitude":"137.544195","source_code":"CB0785306320230026","project_name":"\u5e73\u621019\u5e74\u5ea6\u3000\u6728\u66fd\u5ddd\u7802\u9632\u6d41\u57df\u5730\u8cea\u8abf\u67fb","survey_name":"\u5e73\u621019\u5e74\u5ea6\u3000\u6728\u66fd\u5ddd\u7802\u9632\u6d41\u57df\u5730\u8cea\u8abf\u67fb","client_name":"\u56fd\u571f\u4ea4\u901a\u7701\u3000\u4e2d\u90e8\u5730\u65b9\u6574\u5099\u5c40\u3000\u591a\u6cbb\u898b\u7802\u9632\u56fd\u9053\u4e8b\u52d9\u6240","boring_xml_url":64,"boring_view_url":1,"soilmap_view_url":null,"soiltest_xml_url":0,"soiltest_view_url":0},{"id":511418,"code":"B4KJ202201001-3954","latitude":"35.430972","longitude":"137.544223","source_code":"CB0785306320230025","project_name":"\u5e73\u621019\u5e74\u5ea6\u3000\u6728\u66fd\u5ddd\u7802\u9632\u6d41\u57df\u5730\u8cea\u8abf\u67fb","survey_name":"\u5e73\u621019\u5e74\u5ea6\u3000\u6728\u66fd\u5ddd\u7802\u9632\u6d41\u57df\u5730\u8cea\u8abf\u67fb","client_name":"\u56fd\u571f\u4ea4\u901a\u7701\u3000\u4e2d\u90e8\u5730\u65b9\u6574\u5099\u5c40\u3000\u591a\u6cbb\u898b\u7802\u9632\u56fd\u9053\u4e8b\u52d9\u6240","boring_xml_url":64,"boring_view_url":1,"soilmap_view_url":null,"soiltest_xml_url":0,"soiltest_view_url":0},{"id":511417,"code":"B4KJ202201001-3953","latitude":"35.430916","longitude":"137.544251","source_code":"CB0785306320230024","project_name":"\u5e73\u621019\u5e74\u5ea6\u3000\u6728\u66fd\u5ddd\u7802\u9632\u6d41\u57df\u5730\u8cea\u8abf\u67fb","survey_name":"\u5e73\u621019\u5e74\u5ea6\u3000\u6728\u66fd\u5ddd\u7802\u9632\u6d41\u57df\u5730\u8cea\u8abf\u67fb","client_name":"\u56fd\u571f\u4ea4\u901a\u7701\u3000\u4e2d\u90e8\u5730\u65b9\u6574\u5099\u5c40\u3000\u591a\u6cbb\u898b\u7802\u9632\u56fd\u9053\u4e8b\u52d9\u6240","boring_xml_url":64,"boring_view_url":1,"soilmap_view_url":null,"soiltest_xml_url":0,"soiltest_view_url":0},{"id":511416,"code":"B4KJ202201001-3952","latitude":"35.4805","longitude":"137.570501","source_code":"CB0785306320230023","project_name":"\u5e73\u621019\u5e74\u5ea6\u3000\u6728\u66fd\u5ddd\u7802\u9632\u6d41\u57df\u5730\u8cea\u8abf\u67fb","survey_name":"\u5e73\u621019\u5e74\u5ea6\u3000\u6728\u66fd\u5ddd\u7802\u9632\u6d41\u57df\u5730\u8cea\u8abf\u67fb","client_name":"\u56fd\u571f\u4ea4\u901a\u7701\u3000\u4e2d\u90e8\u5730\u65b9\u6574\u5099\u5c40\u3000\u591a\u6cbb\u898b\u7802\u9632\u56fd\u9053\u4e8b\u52d9\u6240","boring_xml_url":64,"boring_view_url":1,"soilmap_view_url":null,"soiltest_xml_url":0,"soiltest_view_url":0},{"id":511415,"code":"B4KJ202201001-3951","latitude":"35.480555","longitude":"137.570278","source_code":"CB0785306320230022","project_name":"\u5e73\u621019\u5e74\u5ea6\u3000\u6728\u66fd\u5ddd\u7802\u9632\u6d41\u57df\u5730\u8cea\u8abf\u67fb","survey_name":"\u5e73\u621019\u5e74\u5ea6\u3000\u6728\u66fd\u5ddd\u7802\u9632\u6d41\u57df\u5730\u8cea\u8abf\u67fb","client_name":"\u56fd\u571f\u4ea4\u901a\u7701\u3000\u4e2d\u90e8\u5730\u65b9\u6574\u5099\u5c40\u3000\u591a\u6cbb\u898b\u7802\u9632\u56fd\u9053\u4e8b\u52d9\u6240","boring_xml_url":64,"boring_view_url":1,"soilmap_view_url":null,"soiltest_xml_url":0,"soiltest_view_url":0},{"id":511414,"code":"B4KJ202201001-3950","latitude":"35.480472","longitude":"137.57014","source_code":"CB0785306320230021","project_name":"\u5e73\u621019\u5e74\u5ea6\u3000\u6728\u66fd\u5ddd\u7802\u9632\u6d41\u57df\u5730\u8cea\u8abf\u67fb","survey_name":"\u5e73\u621019\u5e74\u5ea6\u3000\u6728\u66fd\u5ddd\u7802\u9632\u6d41\u57df\u5730\u8cea\u8abf\u67fb","client_name":"\u56fd\u571f\u4ea4\u901a\u7701\u3000\u4e2d\u90e8\u5730\u65b9\u6574\u5099\u5c40\u3000\u591a\u6cbb\u898b\u7802\u9632\u56fd\u9053\u4e8b\u52d9\u6240","boring_xml_url":64,"boring_view_url":1,"soilmap_view_url":null,"soiltest_xml_url":0,"soiltest_view_url":0},{"id":511413,"code":"B4KJ202201001-3949","latitude":"35.424303","longitude":"137.541184","source_code":"CB0785306320230020","project_name":"\u5e73\u621019\u5e74\u5ea6\u3000\u6728\u66fd\u5ddd\u7802\u9632\u6d41\u57df\u5730\u8cea\u8abf\u67fb","survey_name":"\u5e73\u621019\u5e74\u5ea6\u3000\u6728\u66fd\u5ddd\u7802\u9632\u6d41\u57df\u5730\u8cea\u8abf\u67fb","client_name":"\u56fd\u571f\u4ea4\u901a\u7701\u3000\u4e2d\u90e8\u5730\u65b9\u6574\u5099\u5c40\u3000\u591a\u6cbb\u898b\u7802\u9632\u56fd\u9053\u4e8b\u52d9\u6240","boring_xml_url":64,"boring_view_url":1,"soilmap_view_url":null,"soiltest_xml_url":0,"soiltest_view_url":0},{"id":511412,"code":"B4KJ202201001-3948","latitude":"35.591283","longitude":"137.541276","source_code":"CB0785306320230019","project_name":"\u5e73\u621019\u5e74\u5ea6\u3000\u6728\u66fd\u5ddd\u7802\u9632\u6d41\u57df\u5730\u8cea\u8abf\u67fb","survey_name":"\u5e73\u621019\u5e74\u5ea6\u3000\u6728\u66fd\u5ddd\u7802\u9632\u6d41\u57df\u5730\u8cea\u8abf\u67fb","client_name":"\u56fd\u571f\u4ea4\u901a\u7701\u3000\u4e2d\u90e8\u5730\u65b9\u6574\u5099\u5c40\u3000\u591a\u6cbb\u898b\u7802\u9632\u56fd\u9053\u4e8b\u52d9\u6240","boring_xml_url":64,"boring_view_url":1,"soilmap_view_url":null,"soiltest_xml_url":0,"soiltest_view_url":0},{"id":511411,"code":"B4KJ202201001-3947","latitude":"35.500389","longitude":"137.593167","source_code":"CB0785306320230018","project_name":"\u5e73\u621019\u5e74\u5ea6\u3000\u6728\u66fd\u5ddd\u7802\u9632\u6d41\u57df\u5730\u8cea\u8abf\u67fb","survey_name":"\u5e73\u621019\u5e74\u5ea6\u3000\u6728\u66fd\u5ddd\u7802\u9632\u6d41\u57df\u5730\u8cea\u8abf\u67fb","client_name":"\u56fd\u571f\u4ea4\u901a\u7701\u3000\u4e2d\u90e8\u5730\u65b9\u6574\u5099\u5c40\u3000\u591a\u6cbb\u898b\u7802\u9632\u56fd\u9053\u4e8b\u52d9\u6240","boring_xml_url":64,"boring_view_url":1,"soilmap_view_url":null,"soiltest_xml_url":0,"soiltest_view_url":0},{"id":511410,"code":"B4KJ202201001-3946","latitude":"35.500139","longitude":"137.593001","source_code":"CB0785306320230017","project_name":"\u5e73\u621019\u5e74\u5ea6\u3000\u6728\u66fd\u5ddd\u7802\u9632\u6d41\u57df\u5730\u8cea\u8abf\u67fb","survey_name":"\u5e73\u621019\u5e74\u5ea6\u3000\u6728\u66fd\u5ddd\u7802\u9632\u6d41\u57df\u5730\u8cea\u8abf\u67fb","client_name":"\u56fd\u571f\u4ea4\u901a\u7701\u3000\u4e2d\u90e8\u5730\u65b9\u6574\u5099\u5c40\u3000\u591a\u6cbb\u898b\u7802\u9632\u56fd\u9053\u4e8b\u52d9\u6240","boring_xml_url":64,"boring_view_url":1,"soilmap_view_url":null,"soiltest_xml_url":0,"soiltest_view_url":0},{"id":511409,"code":"B4KJ202201001-3945","latitude":"35.500361","longitude":"137.593279","source_code":"CB0785306320230016","project_name":"\u5e73\u621019\u5e74\u5ea6\u3000\u6728\u66fd\u5ddd\u7802\u9632\u6d41\u57df\u5730\u8cea\u8abf\u67fb","survey_name":"\u5e73\u621019\u5e74\u5ea6\u3000\u6728\u66fd\u5ddd\u7802\u9632\u6d41\u57df\u5730\u8cea\u8abf\u67fb","client_name":"\u56fd\u571f\u4ea4\u901a\u7701\u3000\u4e2d\u90e8\u5730\u65b9\u6574\u5099\u5c40\u3000\u591a\u6cbb\u898b\u7802\u9632\u56fd\u9053\u4e8b\u52d9\u6240","boring_xml_url":64,"boring_view_url":1,"soilmap_view_url":null,"soiltest_xml_url":0,"soiltest_view_url":0},{"id":511408,"code":"B4KJ202201001-3944","latitude":"35.500139","longitude":"137.59314","source_code":"CB0785306320230015","project_name":"\u5e73\u621019\u5e74\u5ea6\u3000\u6728\u66fd\u5ddd\u7802\u9632\u6d41\u57df\u5730\u8cea\u8abf\u67fb","survey_name":"\u5e73\u621019\u5e74\u5ea6\u3000\u6728\u66fd\u5ddd\u7802\u9632\u6d41\u57df\u5730\u8cea\u8abf\u67fb","client_name":"\u56fd\u571f\u4ea4\u901a\u7701\u3000\u4e2d\u90e8\u5730\u65b9\u6574\u5099\u5c40\u3000\u591a\u6cbb\u898b\u7802\u9632\u56fd\u9053\u4e8b\u52d9\u6240","boring_xml_url":64,"boring_view_url":1,"soilmap_view_url":null,"soiltest_xml_url":0,"soiltest_view_url":0},{"id":511407,"code":"B4KJ202201001-3943","latitude":"35.44025","longitude":"137.535528","source_code":"CB0785306320230014","project_name":"\u5e73\u621019\u5e74\u5ea6\u3000\u6728\u66fd\u5ddd\u7802\u9632\u6d41\u57df\u5730\u8cea\u8abf\u67fb","survey_name":"\u5e73\u621019\u5e74\u5ea6\u3000\u6728\u66fd\u5ddd\u7802\u9632\u6d41\u57df\u5730\u8cea\u8abf\u67fb","client_name":"\u56fd\u571f\u4ea4\u901a\u7701\u3000\u4e2d\u90e8\u5730\u65b9\u6574\u5099\u5c40\u3000\u591a\u6cbb\u898b\u7802\u9632\u56fd\u9053\u4e8b\u52d9\u6240","boring_xml_url":64,"boring_view_url":1,"soilmap_view_url":null,"soiltest_xml_url":0,"soiltest_view_url":0},{"id":511406,"code":"B4KJ202201001-3942","latitude":"35.440333","longitude":"137.535417","source_code":"CB0785306320230013","project_name":"\u5e73\u621019\u5e74\u5ea6\u3000\u6728\u66fd\u5ddd\u7802\u9632\u6d41\u57df\u5730\u8cea\u8abf\u67fb","survey_name":"\u5e73\u621019\u5e74\u5ea6\u3000\u6728\u66fd\u5ddd\u7802\u9632\u6d41\u57df\u5730\u8cea\u8abf\u67fb","client_name":"\u56fd\u571f\u4ea4\u901a\u7701\u3000\u4e2d\u90e8\u5730\u65b9\u6574\u5099\u5c40\u3000\u591a\u6cbb\u898b\u7802\u9632\u56fd\u9053\u4e8b\u52d9\u6240","boring_xml_url":64,"boring_view_url":1,"soilmap_view_url":null,"soiltest_xml_url":0,"soiltest_view_url":0},{"id":511405,"code":"B4KJ202201001-3941","latitude":"35.440278","longitude":"137.535473","source_code":"CB0785306320230012","project_name":"\u5e73\u621019\u5e74\u5ea6\u3000\u6728\u66fd\u5ddd\u7802\u9632\u6d41\u57df\u5730\u8cea\u8abf\u67fb","survey_name":"\u5e73\u621019\u5e74\u5ea6\u3000\u6728\u66fd\u5ddd\u7802\u9632\u6d41\u57df\u5730\u8cea\u8abf\u67fb","client_name":"\u56fd\u571f\u4ea4\u901a\u7701\u3000\u4e2d\u90e8\u5730\u65b9\u6574\u5099\u5c40\u3000\u591a\u6cbb\u898b\u7802\u9632\u56fd\u9053\u4e8b\u52d9\u6240","boring_xml_url":64,"boring_view_url":1,"soilmap_view_url":null,"soiltest_xml_url":0,"soiltest_view_url":0},{"id":511404,"code":"B4KJ202201001-3940","latitude":"35.440278","longitude":"137.535473","source_code":"CB0785306320230011","project_name":"\u5e73\u621019\u5e74\u5ea6\u3000\u6728\u66fd\u5ddd\u7802\u9632\u6d41\u57df\u5730\u8cea\u8abf\u67fb","survey_name":"\u5e73\u621019\u5e74\u5ea6\u3000\u6728\u66fd\u5ddd\u7802\u9632\u6d41\u57df\u5730\u8cea\u8abf\u67fb","client_name":"\u56fd\u571f\u4ea4\u901a\u7701\u3000\u4e2d\u90e8\u5730\u65b9\u6574\u5099\u5c40\u3000\u591a\u6cbb\u898b\u7802\u9632\u56fd\u9053\u4e8b\u52d9\u6240","boring_xml_url":64,"boring_view_url":1,"soilmap_view_url":null,"soiltest_xml_url":0,"soiltest_view_url":0},{"id":511403,"code":"B4KJ202201001-3939","latitude":"35.465125","longitude":"137.509445","source_code":"CB0785306320230010","project_name":"\u5e73\u621019\u5e74\u5ea6\u3000\u6728\u66fd\u5ddd\u7802\u9632\u6d41\u57df\u5730\u8cea\u8abf\u67fb","survey_name":"\u5e73\u621019\u5e74\u5ea6\u3000\u6728\u66fd\u5ddd\u7802\u9632\u6d41\u57df\u5730\u8cea\u8abf\u67fb","client_name":"\u56fd\u571f\u4ea4\u901a\u7701\u3000\u4e2d\u90e8\u5730\u65b9\u6574\u5099\u5c40\u3000\u591a\u6cbb\u898b\u7802\u9632\u56fd\u9053\u4e8b\u52d9\u6240","boring_xml_url":64,"boring_view_url":1,"soilmap_view_url":null,"soiltest_xml_url":0,"soiltest_view_url":0},{"id":511402,"code":"B4KJ202201001-3938","latitude":"35.464705","longitude":"137.508901","source_code":"CB0785306320230009","project_name":"\u5e73\u621019\u5e74\u5ea6\u3000\u6728\u66fd\u5ddd\u7802\u9632\u6d41\u57df\u5730\u8cea\u8abf\u67fb","survey_name":"\u5e73\u621019\u5e74\u5ea6\u3000\u6728\u66fd\u5ddd\u7802\u9632\u6d41\u57df\u5730\u8cea\u8abf\u67fb","client_name":"\u56fd\u571f\u4ea4\u901a\u7701\u3000\u4e2d\u90e8\u5730\u65b9\u6574\u5099\u5c40\u3000\u591a\u6cbb\u898b\u7802\u9632\u56fd\u9053\u4e8b\u52d9\u6240","boring_xml_url":64,"boring_view_url":1,"soilmap_view_url":null,"soiltest_xml_url":0,"soiltest_view_url":0},{"id":511401,"code":"B4KJ202201001-3937","latitude":"35.464536","longitude":"137.508701","source_code":"CB0785306320230008","project_name":"\u5e73\u621019\u5e74\u5ea6\u3000\u6728\u66fd\u5ddd\u7802\u9632\u6d41\u57df\u5730\u8cea\u8abf\u67fb","survey_name":"\u5e73\u621019\u5e74\u5ea6\u3000\u6728\u66fd\u5ddd\u7802\u9632\u6d41\u57df\u5730\u8cea\u8abf\u67fb","client_name":"\u56fd\u571f\u4ea4\u901a\u7701\u3000\u4e2d\u90e8\u5730\u65b9\u6574\u5099\u5c40\u3000\u591a\u6cbb\u898b\u7802\u9632\u56fd\u9053\u4e8b\u52d9\u6240","boring_xml_url":64,"boring_view_url":1,"soilmap_view_url":null,"soiltest_xml_url":0,"soiltest_view_url":0}]}}