{"header":{"xyz":{"source":[],"mosaic":false},"page":1136,"raw":{"soiltest_result":"0","bbox":"57.598333,109.544722,1.933333,163.806111","page":"1136"},"conditions":{"soiltest_result":0,"north":57.598333,"west":109.544722,"south":1.933333,"east":163.806111},"success":true,"message":""},"data":{"meta":{"total":212844,"page":1136,"pages":7095,"count":30},"values":[{"id":511310,"code":"B4KJ202201001-3846","latitude":"35.105508","longitude":"136.666378","source_code":"CB0685614020400003","project_name":"","survey_name":"\u5e73\u621018\u5e74\u5ea6\u3000\u63d6\u6590\u5ddd\u7dca\u6025\u5bfe\u7b56\u7279\u5b9a\u533a\u9593\u5824\u9632\u88dc\u5f37\u691c\u8a0e\u696d\u52d9","client_name":"\"\u56fd\u571f\u4ea4\u901a\u7701 \u4e2d\u90e8\u5730\u65b9\u6574\u5099\u5c40 \u6728\u66fd\u5ddd\u4e0b\u6d41\u6cb3\u5ddd\u4e8b\u52d9\u6240\"","boring_xml_url":64,"boring_view_url":1,"soilmap_view_url":null,"soiltest_xml_url":0,"soiltest_view_url":0},{"id":511309,"code":"B4KJ202201001-3845","latitude":"35.105536","longitude":"136.666489","source_code":"CB0685614020400002","project_name":"","survey_name":"\u5e73\u621018\u5e74\u5ea6\u3000\u63d6\u6590\u5ddd\u7dca\u6025\u5bfe\u7b56\u7279\u5b9a\u533a\u9593\u5824\u9632\u88dc\u5f37\u691c\u8a0e\u696d\u52d9","client_name":"\"\u56fd\u571f\u4ea4\u901a\u7701 \u4e2d\u90e8\u5730\u65b9\u6574\u5099\u5c40 \u6728\u66fd\u5ddd\u4e0b\u6d41\u6cb3\u5ddd\u4e8b\u52d9\u6240\"","boring_xml_url":64,"boring_view_url":1,"soilmap_view_url":null,"soiltest_xml_url":0,"soiltest_view_url":0},{"id":511308,"code":"B4KJ202201001-3844","latitude":"35.105591","longitude":"136.666683","source_code":"CB0685614020400001","project_name":"","survey_name":"\u5e73\u621018\u5e74\u5ea6\u3000\u63d6\u6590\u5ddd\u7dca\u6025\u5bfe\u7b56\u7279\u5b9a\u533a\u9593\u5824\u9632\u88dc\u5f37\u691c\u8a0e\u696d\u52d9","client_name":"\"\u56fd\u571f\u4ea4\u901a\u7701 \u4e2d\u90e8\u5730\u65b9\u6574\u5099\u5c40 \u6728\u66fd\u5ddd\u4e0b\u6d41\u6cb3\u5ddd\u4e8b\u52d9\u6240\"","boring_xml_url":64,"boring_view_url":1,"soilmap_view_url":null,"soiltest_xml_url":0,"soiltest_view_url":0},{"id":511307,"code":"B4KJ202201001-3843","latitude":"35.415555","longitude":"136.635278","source_code":"CB0685314020270001","project_name":"\"\u5e73\u621018\u5e74\u5ea6 \u6839\u5c3e\u5ddd\u82b1\u7530\u5ddd\u6392\u6c34\u6a5f\u5834\u8a73\u7d30\u8a2d\u8a08\u696d\u52d9\"","survey_name":"\"\u5e73\u621018\u5e74\u5ea6 \u6839\u5c3e\u5ddd\u82b1\u7530\u5ddd\u6392\u6c34\u6a5f\u5834\u8a73\u7d30\u8a2d\u8a08\u696d\u52d9\"","client_name":"\u56fd\u571f\u4ea4\u901a\u7701\u6728\u66fd\u5ddd\u4e0a\u6d41\u6cb3\u5ddd\u4e8b\u52d9\u6240","boring_xml_url":64,"boring_view_url":1,"soilmap_view_url":null,"soiltest_xml_url":0,"soiltest_view_url":0},{"id":511306,"code":"B4KJ202201001-3842","latitude":"35.068056","longitude":"138.543889","source_code":"CB0585437920530011","project_name":"","survey_name":"\u5e73\u621017\u5e74\u5ea6\u3000\u7531\u6bd4\u5730\u3059\u3079\u308a\u5de5\u4e8b\u7528\u9053\u8def\u5730\u8cea\u8abf\u67fb","client_name":"\u56fd\u571f\u4ea4\u901a\u7701\u3000\u4e2d\u90e8\u5730\u65b9\u6574\u5099\u5c40\u3000\u5bcc\u58eb\u7802\u9632\u4e8b\u52d9\u6240","boring_xml_url":64,"boring_view_url":1,"soilmap_view_url":null,"soiltest_xml_url":0,"soiltest_view_url":0},{"id":511305,"code":"B4KJ202201001-3841","latitude":"35.068194","longitude":"138.543611","source_code":"CB0585437920530010","project_name":"","survey_name":"\u5e73\u621017\u5e74\u5ea6\u3000\u7531\u6bd4\u5730\u3059\u3079\u308a\u5de5\u4e8b\u7528\u9053\u8def\u5730\u8cea\u8abf\u67fb","client_name":"\u56fd\u571f\u4ea4\u901a\u7701\u3000\u4e2d\u90e8\u5730\u65b9\u6574\u5099\u5c40\u3000\u5bcc\u58eb\u7802\u9632\u4e8b\u52d9\u6240","boring_xml_url":64,"boring_view_url":1,"soilmap_view_url":null,"soiltest_xml_url":0,"soiltest_view_url":0},{"id":511304,"code":"B4KJ202201001-3840","latitude":"35.068194","longitude":"138.543611","source_code":"CB0585437920530009","project_name":"","survey_name":"\u5e73\u621017\u5e74\u5ea6\u3000\u7531\u6bd4\u5730\u3059\u3079\u308a\u5de5\u4e8b\u7528\u9053\u8def\u5730\u8cea\u8abf\u67fb","client_name":"\u56fd\u571f\u4ea4\u901a\u7701\u3000\u4e2d\u90e8\u5730\u65b9\u6574\u5099\u5c40\u3000\u5bcc\u58eb\u7802\u9632\u4e8b\u52d9\u6240","boring_xml_url":64,"boring_view_url":1,"soilmap_view_url":null,"soiltest_xml_url":0,"soiltest_view_url":0},{"id":511303,"code":"B4KJ202201001-3839","latitude":"35.068194","longitude":"138.543056","source_code":"CB0585437920530008","project_name":"","survey_name":"\u5e73\u621017\u5e74\u5ea6\u3000\u7531\u6bd4\u5730\u3059\u3079\u308a\u5de5\u4e8b\u7528\u9053\u8def\u5730\u8cea\u8abf\u67fb","client_name":"\u56fd\u571f\u4ea4\u901a\u7701\u3000\u4e2d\u90e8\u5730\u65b9\u6574\u5099\u5c40\u3000\u5bcc\u58eb\u7802\u9632\u4e8b\u52d9\u6240","boring_xml_url":64,"boring_view_url":1,"soilmap_view_url":null,"soiltest_xml_url":0,"soiltest_view_url":0},{"id":511302,"code":"B4KJ202201001-3838","latitude":"35.067778","longitude":"138.543333","source_code":"CB0585437920530007","project_name":"","survey_name":"\u5e73\u621017\u5e74\u5ea6\u3000\u7531\u6bd4\u5730\u3059\u3079\u308a\u5de5\u4e8b\u7528\u9053\u8def\u5730\u8cea\u8abf\u67fb","client_name":"\u56fd\u571f\u4ea4\u901a\u7701\u3000\u4e2d\u90e8\u5730\u65b9\u6574\u5099\u5c40\u3000\u5bcc\u58eb\u7802\u9632\u4e8b\u52d9\u6240","boring_xml_url":64,"boring_view_url":1,"soilmap_view_url":null,"soiltest_xml_url":0,"soiltest_view_url":0},{"id":511301,"code":"B4KJ202201001-3837","latitude":"35.067917","longitude":"138.543194","source_code":"CB0585437920530006","project_name":"","survey_name":"\u5e73\u621017\u5e74\u5ea6\u3000\u7531\u6bd4\u5730\u3059\u3079\u308a\u5de5\u4e8b\u7528\u9053\u8def\u5730\u8cea\u8abf\u67fb","client_name":"\u56fd\u571f\u4ea4\u901a\u7701\u3000\u4e2d\u90e8\u5730\u65b9\u6574\u5099\u5c40\u3000\u5bcc\u58eb\u7802\u9632\u4e8b\u52d9\u6240","boring_xml_url":64,"boring_view_url":1,"soilmap_view_url":null,"soiltest_xml_url":0,"soiltest_view_url":0},{"id":511300,"code":"B4KJ202201001-3836","latitude":"35.067917","longitude":"138.541944","source_code":"CB0585437920530005","project_name":"","survey_name":"\u5e73\u621017\u5e74\u5ea6\u3000\u7531\u6bd4\u5730\u3059\u3079\u308a\u5de5\u4e8b\u7528\u9053\u8def\u5730\u8cea\u8abf\u67fb","client_name":"\u56fd\u571f\u4ea4\u901a\u7701\u3000\u4e2d\u90e8\u5730\u65b9\u6574\u5099\u5c40\u3000\u5bcc\u58eb\u7802\u9632\u4e8b\u52d9\u6240","boring_xml_url":64,"boring_view_url":1,"soilmap_view_url":null,"soiltest_xml_url":0,"soiltest_view_url":0},{"id":511299,"code":"B4KJ202201001-3835","latitude":"35.067778","longitude":"138.542083","source_code":"CB0585437920530004","project_name":"","survey_name":"\u5e73\u621017\u5e74\u5ea6\u3000\u7531\u6bd4\u5730\u3059\u3079\u308a\u5de5\u4e8b\u7528\u9053\u8def\u5730\u8cea\u8abf\u67fb","client_name":"\u56fd\u571f\u4ea4\u901a\u7701\u3000\u4e2d\u90e8\u5730\u65b9\u6574\u5099\u5c40\u3000\u5bcc\u58eb\u7802\u9632\u4e8b\u52d9\u6240","boring_xml_url":64,"boring_view_url":1,"soilmap_view_url":null,"soiltest_xml_url":0,"soiltest_view_url":0},{"id":511298,"code":"B4KJ202201001-3834","latitude":"35.067083","longitude":"138.542083","source_code":"CB0585437920530003","project_name":"","survey_name":"\u5e73\u621017\u5e74\u5ea6\u3000\u7531\u6bd4\u5730\u3059\u3079\u308a\u5de5\u4e8b\u7528\u9053\u8def\u5730\u8cea\u8abf\u67fb","client_name":"\u56fd\u571f\u4ea4\u901a\u7701\u3000\u4e2d\u90e8\u5730\u65b9\u6574\u5099\u5c40\u3000\u5bcc\u58eb\u7802\u9632\u4e8b\u52d9\u6240","boring_xml_url":64,"boring_view_url":1,"soilmap_view_url":null,"soiltest_xml_url":0,"soiltest_view_url":0},{"id":511297,"code":"B4KJ202201001-3833","latitude":"35.066944","longitude":"138.542222","source_code":"CB0585437920530002","project_name":"","survey_name":"\u5e73\u621017\u5e74\u5ea6\u3000\u7531\u6bd4\u5730\u3059\u3079\u308a\u5de5\u4e8b\u7528\u9053\u8def\u5730\u8cea\u8abf\u67fb","client_name":"\u56fd\u571f\u4ea4\u901a\u7701\u3000\u4e2d\u90e8\u5730\u65b9\u6574\u5099\u5c40\u3000\u5bcc\u58eb\u7802\u9632\u4e8b\u52d9\u6240","boring_xml_url":64,"boring_view_url":1,"soilmap_view_url":null,"soiltest_xml_url":0,"soiltest_view_url":0},{"id":511296,"code":"B4KJ202201001-3832","latitude":"35.066667","longitude":"138.541806","source_code":"CB0585437920530001","project_name":"","survey_name":"\u5e73\u621017\u5e74\u5ea6\u3000\u7531\u6bd4\u5730\u3059\u3079\u308a\u5de5\u4e8b\u7528\u9053\u8def\u5730\u8cea\u8abf\u67fb","client_name":"\u56fd\u571f\u4ea4\u901a\u7701\u3000\u4e2d\u90e8\u5730\u65b9\u6574\u5099\u5c40\u3000\u5bcc\u58eb\u7802\u9632\u4e8b\u52d9\u6240","boring_xml_url":64,"boring_view_url":1,"soilmap_view_url":null,"soiltest_xml_url":0,"soiltest_view_url":0},{"id":511295,"code":"B4KJ202201001-3831","latitude":"35.276305","longitude":"138.339362","source_code":"CB0585404220590004","project_name":"\u30a6\u30e9\u306e\u6ca2\u571f\u77f3\u6d41\u5bfe\u7b56\u4e8b\u696d","survey_name":"\u5e73\u621017\u5e74\u5ea6\u3000\u30a6\u30e9\u306e\u6ca2\u5730\u8cea\u8abf\u67fb","client_name":"\u56fd\u571f\u4ea4\u901a\u7701\u4e2d\u90e8\u5730\u65b9\u6574\u5099\u5c40\u9759\u5ca1\u6cb3\u5ddd\u4e8b\u52d9\u6240","boring_xml_url":64,"boring_view_url":1,"soilmap_view_url":null,"soiltest_xml_url":0,"soiltest_view_url":0},{"id":511294,"code":"B4KJ202201001-3830","latitude":"35.276389","longitude":"138.339389","source_code":"CB0585404220590003","project_name":"\u30a6\u30e9\u306e\u6ca2\u571f\u77f3\u6d41\u5bfe\u7b56\u4e8b\u696d","survey_name":"\u5e73\u621017\u5e74\u5ea6\u3000\u30a6\u30e9\u306e\u6ca2\u5730\u8cea\u8abf\u67fb","client_name":"\u56fd\u571f\u4ea4\u901a\u7701\u4e2d\u90e8\u5730\u65b9\u6574\u5099\u5c40\u9759\u5ca1\u6cb3\u5ddd\u4e8b\u52d9\u6240","boring_xml_url":64,"boring_view_url":1,"soilmap_view_url":null,"soiltest_xml_url":0,"soiltest_view_url":0},{"id":511293,"code":"B4KJ202201001-3829","latitude":"35.277611","longitude":"138.336528","source_code":"CB0585404220590002","project_name":"\u30a6\u30e9\u306e\u6ca2\u571f\u77f3\u6d41\u5bfe\u7b56\u4e8b\u696d","survey_name":"\u5e73\u621017\u5e74\u5ea6\u3000\u30a6\u30e9\u306e\u6ca2\u5730\u8cea\u8abf\u67fb","client_name":"\u56fd\u571f\u4ea4\u901a\u7701\u4e2d\u90e8\u5730\u65b9\u6574\u5099\u5c40\u9759\u5ca1\u6cb3\u5ddd\u4e8b\u52d9\u6240","boring_xml_url":64,"boring_view_url":1,"soilmap_view_url":null,"soiltest_xml_url":0,"soiltest_view_url":0},{"id":511292,"code":"B4KJ202201001-3828","latitude":"35.278222","longitude":"138.336361","source_code":"CB0585404220590001","project_name":"\u30a6\u30e9\u306e\u6ca2\u571f\u77f3\u6d41\u5bfe\u7b56\u4e8b\u696d","survey_name":"\u5e73\u621017\u5e74\u5ea6\u3000\u30a6\u30e9\u306e\u6ca2\u5730\u8cea\u8abf\u67fb","client_name":"\u56fd\u571f\u4ea4\u901a\u7701\u4e2d\u90e8\u5730\u65b9\u6574\u5099\u5c40\u9759\u5ca1\u6cb3\u5ddd\u4e8b\u52d9\u6240","boring_xml_url":64,"boring_view_url":1,"soilmap_view_url":null,"soiltest_xml_url":0,"soiltest_view_url":0},{"id":511291,"code":"B4KJ202201001-3827","latitude":"35.309166","longitude":"136.586389","source_code":"CB0585316020310023","project_name":"","survey_name":"\"\u5e73\u621017\u5e74\u5ea6 \u63d6\u6590\u5ddd\u6cb3\u5e8a\u6750\u6599\u8abf\u67fb\"","client_name":"\u56fd\u571f\u4ea4\u901a\u7701\u4e2d\u90e8\u5730\u65b9\u6574\u5099\u5c40\u6728\u66fd\u5ddd\u4e0a\u6d41\u6cb3\u5ddd\u4e8b\u52d9\u6240","boring_xml_url":64,"boring_view_url":1,"soilmap_view_url":null,"soiltest_xml_url":0,"soiltest_view_url":0},{"id":511290,"code":"B4KJ202201001-3826","latitude":"35.303611","longitude":"136.593889","source_code":"CB0585316020310022","project_name":"","survey_name":"\"\u5e73\u621017\u5e74\u5ea6 \u63d6\u6590\u5ddd\u6cb3\u5e8a\u6750\u6599\u8abf\u67fb\"","client_name":"\u56fd\u571f\u4ea4\u901a\u7701\u4e2d\u90e8\u5730\u65b9\u6574\u5099\u5c40\u6728\u66fd\u5ddd\u4e0a\u6d41\u6cb3\u5ddd\u4e8b\u52d9\u6240","boring_xml_url":64,"boring_view_url":1,"soilmap_view_url":null,"soiltest_xml_url":0,"soiltest_view_url":0},{"id":511289,"code":"B4KJ202201001-3825","latitude":"35.298611","longitude":"136.602778","source_code":"CB0585316020310021","project_name":"","survey_name":"\"\u5e73\u621017\u5e74\u5ea6 \u63d6\u6590\u5ddd\u6cb3\u5e8a\u6750\u6599\u8abf\u67fb\"","client_name":"\u56fd\u571f\u4ea4\u901a\u7701\u4e2d\u90e8\u5730\u65b9\u6574\u5099\u5c40\u6728\u66fd\u5ddd\u4e0a\u6d41\u6cb3\u5ddd\u4e8b\u52d9\u6240","boring_xml_url":64,"boring_view_url":1,"soilmap_view_url":null,"soiltest_xml_url":0,"soiltest_view_url":0},{"id":511288,"code":"B4KJ202201001-3824","latitude":"35.292222","longitude":"136.610278","source_code":"CB0585316020310020","project_name":"","survey_name":"\"\u5e73\u621017\u5e74\u5ea6 \u63d6\u6590\u5ddd\u6cb3\u5e8a\u6750\u6599\u8abf\u67fb\"","client_name":"\u56fd\u571f\u4ea4\u901a\u7701\u4e2d\u90e8\u5730\u65b9\u6574\u5099\u5c40\u6728\u66fd\u5ddd\u4e0a\u6d41\u6cb3\u5ddd\u4e8b\u52d9\u6240","boring_xml_url":64,"boring_view_url":1,"soilmap_view_url":null,"soiltest_xml_url":0,"soiltest_view_url":0},{"id":511287,"code":"B4KJ202201001-3823","latitude":"35.283333","longitude":"136.609722","source_code":"CB0585316020310019","project_name":"","survey_name":"\"\u5e73\u621017\u5e74\u5ea6 \u63d6\u6590\u5ddd\u6cb3\u5e8a\u6750\u6599\u8abf\u67fb\"","client_name":"\u56fd\u571f\u4ea4\u901a\u7701\u4e2d\u90e8\u5730\u65b9\u6574\u5099\u5c40\u6728\u66fd\u5ddd\u4e0a\u6d41\u6cb3\u5ddd\u4e8b\u52d9\u6240","boring_xml_url":64,"boring_view_url":1,"soilmap_view_url":null,"soiltest_xml_url":0,"soiltest_view_url":0},{"id":511286,"code":"B4KJ202201001-3822","latitude":"35.275","longitude":"136.606389","source_code":"CB0585316020310018","project_name":"","survey_name":"\"\u5e73\u621017\u5e74\u5ea6 \u63d6\u6590\u5ddd\u6cb3\u5e8a\u6750\u6599\u8abf\u67fb\"","client_name":"\u56fd\u571f\u4ea4\u901a\u7701\u4e2d\u90e8\u5730\u65b9\u6574\u5099\u5c40\u6728\u66fd\u5ddd\u4e0a\u6d41\u6cb3\u5ddd\u4e8b\u52d9\u6240","boring_xml_url":64,"boring_view_url":1,"soilmap_view_url":null,"soiltest_xml_url":0,"soiltest_view_url":0},{"id":511285,"code":"B4KJ202201001-3821","latitude":"35.266666","longitude":"136.6075","source_code":"CB0585316020310017","project_name":"","survey_name":"\"\u5e73\u621017\u5e74\u5ea6 \u63d6\u6590\u5ddd\u6cb3\u5e8a\u6750\u6599\u8abf\u67fb\"","client_name":"\u56fd\u571f\u4ea4\u901a\u7701\u4e2d\u90e8\u5730\u65b9\u6574\u5099\u5c40\u6728\u66fd\u5ddd\u4e0a\u6d41\u6cb3\u5ddd\u4e8b\u52d9\u6240","boring_xml_url":64,"boring_view_url":1,"soilmap_view_url":null,"soiltest_xml_url":0,"soiltest_view_url":0},{"id":511284,"code":"B4KJ202201001-3820","latitude":"35.26","longitude":"136.611667","source_code":"CB0585316020310016","project_name":"","survey_name":"\"\u5e73\u621017\u5e74\u5ea6 \u63d6\u6590\u5ddd\u6cb3\u5e8a\u6750\u6599\u8abf\u67fb\"","client_name":"\u56fd\u571f\u4ea4\u901a\u7701\u4e2d\u90e8\u5730\u65b9\u6574\u5099\u5c40\u6728\u66fd\u5ddd\u4e0a\u6d41\u6cb3\u5ddd\u4e8b\u52d9\u6240","boring_xml_url":64,"boring_view_url":1,"soilmap_view_url":null,"soiltest_xml_url":0,"soiltest_view_url":0},{"id":511283,"code":"B4KJ202201001-3819","latitude":"35.255833","longitude":"136.618611","source_code":"CB0585316020310015","project_name":"","survey_name":"\"\u5e73\u621017\u5e74\u5ea6 \u63d6\u6590\u5ddd\u6cb3\u5e8a\u6750\u6599\u8abf\u67fb\"","client_name":"\u56fd\u571f\u4ea4\u901a\u7701\u4e2d\u90e8\u5730\u65b9\u6574\u5099\u5c40\u6728\u66fd\u5ddd\u4e0a\u6d41\u6cb3\u5ddd\u4e8b\u52d9\u6240","boring_xml_url":64,"boring_view_url":1,"soilmap_view_url":null,"soiltest_xml_url":0,"soiltest_view_url":0},{"id":511282,"code":"B4KJ202201001-3818","latitude":"35.355","longitude":"136.656944","source_code":"CB0585316020310014","project_name":"","survey_name":"\"\u5e73\u621017\u5e74\u5ea6 \u63d6\u6590\u5ddd\u6cb3\u5e8a\u6750\u6599\u8abf\u67fb\"","client_name":"\u56fd\u571f\u4ea4\u901a\u7701\u4e2d\u90e8\u5730\u65b9\u6574\u5099\u5c40\u6728\u66fd\u5ddd\u4e0a\u6d41\u6cb3\u5ddd\u4e8b\u52d9\u6240","boring_xml_url":64,"boring_view_url":1,"soilmap_view_url":null,"soiltest_xml_url":0,"soiltest_view_url":0},{"id":511281,"code":"B4KJ202201001-3817","latitude":"35.346667","longitude":"136.655","source_code":"CB0585316020310013","project_name":"","survey_name":"\"\u5e73\u621017\u5e74\u5ea6 \u63d6\u6590\u5ddd\u6cb3\u5e8a\u6750\u6599\u8abf\u67fb\"","client_name":"\u56fd\u571f\u4ea4\u901a\u7701\u4e2d\u90e8\u5730\u65b9\u6574\u5099\u5c40\u6728\u66fd\u5ddd\u4e0a\u6d41\u6cb3\u5ddd\u4e8b\u52d9\u6240","boring_xml_url":64,"boring_view_url":1,"soilmap_view_url":null,"soiltest_xml_url":0,"soiltest_view_url":0}]}}