{"header":{"xyz":{"source":[],"mosaic":false},"page":1145,"raw":{"soiltest_result":"0","bbox":"57.598333,109.544722,1.933333,163.806111","page":"1145"},"conditions":{"soiltest_result":0,"north":57.598333,"west":109.544722,"south":1.933333,"east":163.806111},"success":true,"message":""},"data":{"meta":{"total":212844,"page":1145,"pages":7095,"count":30},"values":[{"id":511040,"code":"B4KJ202201001-3576","latitude":"37.657157","longitude":"138.796527","source_code":"HR1784334620040006","project_name":"","survey_name":"\"\u5e73\u621029\u5e74\u5ea6 \u4fe1\u6fc3\u5ddd\u6cb3\u5ddd\u4e8b\u52d9\u6240\u7ba1\u5185\u5730\u8cea\u8abf\u67fb\u696d\u52d9\"","client_name":"\u56fd\u571f\u4ea4\u901a\u7701\u5317\u9678\u5730\u65b9\u6574\u5099\u5c40\u4fe1\u6fc3\u5ddd\u6cb3\u5ddd\u4e8b\u52d9\u6240","boring_xml_url":64,"boring_view_url":1,"soilmap_view_url":null,"soiltest_xml_url":0,"soiltest_view_url":0},{"id":511039,"code":"B4KJ202201001-3575","latitude":"37.657057","longitude":"138.796427","source_code":"HR1784334620040005","project_name":"","survey_name":"\"\u5e73\u621029\u5e74\u5ea6 \u4fe1\u6fc3\u5ddd\u6cb3\u5ddd\u4e8b\u52d9\u6240\u7ba1\u5185\u5730\u8cea\u8abf\u67fb\u696d\u52d9\"","client_name":"\u56fd\u571f\u4ea4\u901a\u7701\u5317\u9678\u5730\u65b9\u6574\u5099\u5c40\u4fe1\u6fc3\u5ddd\u6cb3\u5ddd\u4e8b\u52d9\u6240","boring_xml_url":64,"boring_view_url":1,"soilmap_view_url":null,"soiltest_xml_url":0,"soiltest_view_url":0},{"id":511038,"code":"B4KJ202201001-3574","latitude":"37.656718","longitude":"138.797396","source_code":"HR1784334620040004","project_name":"","survey_name":"\"\u5e73\u621029\u5e74\u5ea6 \u4fe1\u6fc3\u5ddd\u6cb3\u5ddd\u4e8b\u52d9\u6240\u7ba1\u5185\u5730\u8cea\u8abf\u67fb\u696d\u52d9\"","client_name":"\u56fd\u571f\u4ea4\u901a\u7701\u5317\u9678\u5730\u65b9\u6574\u5099\u5c40\u4fe1\u6fc3\u5ddd\u6cb3\u5ddd\u4e8b\u52d9\u6240","boring_xml_url":64,"boring_view_url":1,"soilmap_view_url":null,"soiltest_xml_url":0,"soiltest_view_url":0},{"id":511037,"code":"B4KJ202201001-3573","latitude":"37.65954","longitude":"138.797913","source_code":"HR1784334620040003","project_name":"","survey_name":"\"\u5e73\u621029\u5e74\u5ea6 \u4fe1\u6fc3\u5ddd\u6cb3\u5ddd\u4e8b\u52d9\u6240\u7ba1\u5185\u5730\u8cea\u8abf\u67fb\u696d\u52d9\"","client_name":"\u56fd\u571f\u4ea4\u901a\u7701\u5317\u9678\u5730\u65b9\u6574\u5099\u5c40\u4fe1\u6fc3\u5ddd\u6cb3\u5ddd\u4e8b\u52d9\u6240","boring_xml_url":64,"boring_view_url":1,"soilmap_view_url":null,"soiltest_xml_url":0,"soiltest_view_url":0},{"id":511036,"code":"B4KJ202201001-3572","latitude":"37.664601","longitude":"138.785588","source_code":"HR1784334620040002","project_name":"","survey_name":"\u5e73\u621029\u5e74\u5ea6\u3000\u4fe1\u6fc3\u5ddd\u6cb3\u5ddd\u4e8b\u52d9\u6240\u7ba1\u5185\u5730\u8cea\u8abf\u67fb\u696d\u52d9","client_name":"\u56fd\u571f\u4ea4\u901a\u7701\u5317\u9678\u5730\u65b9\u6574\u5099\u5c40\u4fe1\u6fc3\u5ddd\u6cb3\u5ddd\u4e8b\u52d9\u6240","boring_xml_url":64,"boring_view_url":1,"soilmap_view_url":null,"soiltest_xml_url":0,"soiltest_view_url":0},{"id":511035,"code":"B4KJ202201001-3571","latitude":"37.664759","longitude":"138.785029","source_code":"HR1784334620040001","project_name":"","survey_name":"\u5e73\u621029\u5e74\u5ea6\u3000\u4fe1\u6fc3\u5ddd\u6cb3\u5ddd\u4e8b\u52d9\u6240\u7ba1\u5185\u5730\u8cea\u8abf\u67fb\u696d\u52d9","client_name":"\u56fd\u571f\u4ea4\u901a\u7701\u5317\u9678\u5730\u65b9\u6574\u5099\u5c40\u4fe1\u6fc3\u5ddd\u6cb3\u5ddd\u4e8b\u52d9\u6240","boring_xml_url":64,"boring_view_url":1,"soilmap_view_url":null,"soiltest_xml_url":0,"soiltest_view_url":0},{"id":511034,"code":"B4KJ202201001-3570","latitude":"37.888304","longitude":"139.153123","source_code":"HR1784316020160006","project_name":"\u5e73\u621029\u5e74\u5ea6\u3000\u963f\u8cc0\u91ce\u5ddd\u7ba1\u5185\u6cb3\u5e8a\u6750\u6599\u8abf\u67fb\u53ca\u3073\u5730\u8cea\u8abf\u67fb\u696d\u52d9","survey_name":"\u963f\u8cc0\u91ce\u5ddd\u6cb3\u5e8a\u6750\u6599\u8abf\u67fb","client_name":"\"\u56fd\u571f\u4ea4\u901a\u7701\u3000\u5317\u9678\u5730\u65b9\u6574\u5099\u5c40 \u963f\u8cc0\u91ce\u5ddd\u6cb3\u5ddd\u4e8b\u52d9\u6240\"","boring_xml_url":64,"boring_view_url":1,"soilmap_view_url":null,"soiltest_xml_url":0,"soiltest_view_url":0},{"id":511033,"code":"B4KJ202201001-3569","latitude":"37.888387","longitude":"139.153262","source_code":"HR1784316020160005","project_name":"\u5e73\u621029\u5e74\u5ea6\u3000\u963f\u8cc0\u91ce\u5ddd\u7ba1\u5185\u6cb3\u5e8a\u6750\u6599\u8abf\u67fb\u53ca\u3073\u5730\u8cea\u8abf\u67fb\u696d\u52d9","survey_name":"\u963f\u8cc0\u91ce\u5ddd\u6cb3\u5e8a\u6750\u6599\u8abf\u67fb","client_name":"\"\u56fd\u571f\u4ea4\u901a\u7701\u3000\u5317\u9678\u5730\u65b9\u6574\u5099\u5c40 \u963f\u8cc0\u91ce\u5ddd\u6cb3\u5ddd\u4e8b\u52d9\u6240\"","boring_xml_url":64,"boring_view_url":1,"soilmap_view_url":null,"soiltest_xml_url":0,"soiltest_view_url":0},{"id":511032,"code":"B4KJ202201001-3568","latitude":"37.888081","longitude":"139.153678","source_code":"HR1784316020160004","project_name":"\u5e73\u621029\u5e74\u5ea6\u3000\u963f\u8cc0\u91ce\u5ddd\u7ba1\u5185\u6cb3\u5e8a\u6750\u6599\u8abf\u67fb\u53ca\u3073\u5730\u8cea\u8abf\u67fb\u696d\u52d9","survey_name":"\u963f\u8cc0\u91ce\u5ddd\u6cb3\u5e8a\u6750\u6599\u8abf\u67fb","client_name":"\"\u56fd\u571f\u4ea4\u901a\u7701\u3000\u5317\u9678\u5730\u65b9\u6574\u5099\u5c40 \u963f\u8cc0\u91ce\u5ddd\u6cb3\u5ddd\u4e8b\u52d9\u6240\"","boring_xml_url":64,"boring_view_url":1,"soilmap_view_url":null,"soiltest_xml_url":0,"soiltest_view_url":0},{"id":511031,"code":"B4KJ202201001-3567","latitude":"37.888081","longitude":"139.153678","source_code":"HR1784316020160003","project_name":"\u5e73\u621029\u5e74\u5ea6\u3000\u963f\u8cc0\u91ce\u5ddd\u7ba1\u5185\u6cb3\u5e8a\u6750\u6599\u8abf\u67fb\u53ca\u3073\u5730\u8cea\u8abf\u67fb\u696d\u52d9","survey_name":"\u963f\u8cc0\u91ce\u5ddd\u6cb3\u5e8a\u6750\u6599\u8abf\u67fb","client_name":"\"\u56fd\u571f\u4ea4\u901a\u7701\u3000\u5317\u9678\u5730\u65b9\u6574\u5099\u5c40 \u963f\u8cc0\u91ce\u5ddd\u6cb3\u5ddd\u4e8b\u52d9\u6240\"","boring_xml_url":64,"boring_view_url":1,"soilmap_view_url":null,"soiltest_xml_url":0,"soiltest_view_url":0},{"id":511030,"code":"B4KJ202201001-3566","latitude":"37.84347","longitude":"139.147623","source_code":"HR1784316020160002","project_name":"\u5e73\u621029\u5e74\u5ea6\u3000\u963f\u8cc0\u91ce\u5ddd\u7ba1\u5185\u6cb3\u5e8a\u6750\u6599\u8abf\u67fb\u53ca\u3073\u5730\u8cea\u8abf\u67fb\u696d\u52d9","survey_name":"\u963f\u8cc0\u91ce\u5ddd\u6cb3\u5e8a\u6750\u6599\u8abf\u67fb","client_name":"\"\u56fd\u571f\u4ea4\u901a\u7701\u3000\u5317\u9678\u5730\u65b9\u6574\u5099\u5c40 \u963f\u8cc0\u91ce\u5ddd\u6cb3\u5ddd\u4e8b\u52d9\u6240\"","boring_xml_url":64,"boring_view_url":1,"soilmap_view_url":null,"soiltest_xml_url":0,"soiltest_view_url":0},{"id":511029,"code":"B4KJ202201001-3565","latitude":"37.879442","longitude":"139.170956","source_code":"HR1784316020160001","project_name":"\u5e73\u621029\u5e74\u5ea6\u3000\u963f\u8cc0\u91ce\u5ddd\u7ba1\u5185\u6cb3\u5e8a\u6750\u6599\u8abf\u67fb\u53ca\u3073\u5730\u8cea\u8abf\u67fb\u696d\u52d9","survey_name":"\u963f\u8cc0\u91ce\u5ddd\u6cb3\u5e8a\u6750\u6599\u8abf\u67fb","client_name":"\"\u56fd\u571f\u4ea4\u901a\u7701\u3000\u5317\u9678\u5730\u65b9\u6574\u5099\u5c40 \u963f\u8cc0\u91ce\u5ddd\u6cb3\u5ddd\u4e8b\u52d9\u6240\"","boring_xml_url":64,"boring_view_url":1,"soilmap_view_url":null,"soiltest_xml_url":0,"soiltest_view_url":0},{"id":511028,"code":"B4KJ202201001-3564","latitude":"37.747931","longitude":"139.070722","source_code":"HR1784306020070032","project_name":"\"H29 \u4fe1\u6fc3\u5ddd\u4e0b\u6d41\u5730\u8cea\u8abf\u67fb\u696d\u52d9\"","survey_name":"\"H29 \u4fe1\u6fc3\u5ddd\u4e0b\u6d41\u5730\u8cea\u8abf\u67fb\u696d\u52d9\"","client_name":"\u56fd\u571f\u4ea4\u901a\u7701\u3000\u5317\u9678\u5730\u65b9\u6574\u5099\u5c40\u3000\u4fe1\u6fc3\u5ddd\u4e0b\u6d41\u6cb3\u5ddd\u4e8b\u52d9\u6240","boring_xml_url":64,"boring_view_url":1,"soilmap_view_url":null,"soiltest_xml_url":0,"soiltest_view_url":0},{"id":511027,"code":"B4KJ202201001-3563","latitude":"37.747931","longitude":"139.070722","source_code":"HR1784306020070031","project_name":"\"H29 \u4fe1\u6fc3\u5ddd\u4e0b\u6d41\u5730\u8cea\u8abf\u67fb\u696d\u52d9\"","survey_name":"\"H29 \u4fe1\u6fc3\u5ddd\u4e0b\u6d41\u5730\u8cea\u8abf\u67fb\u696d\u52d9\"","client_name":"\u56fd\u571f\u4ea4\u901a\u7701\u3000\u5317\u9678\u5730\u65b9\u6574\u5099\u5c40\u3000\u4fe1\u6fc3\u5ddd\u4e0b\u6d41\u6cb3\u5ddd\u4e8b\u52d9\u6240","boring_xml_url":64,"boring_view_url":1,"soilmap_view_url":null,"soiltest_xml_url":0,"soiltest_view_url":0},{"id":511026,"code":"B4KJ202201001-3562","latitude":"37.747906","longitude":"139.071444","source_code":"HR1784306020070030","project_name":"\"H29 \u4fe1\u6fc3\u5ddd\u4e0b\u6d41\u5730\u8cea\u8abf\u67fb\u696d\u52d9\"","survey_name":"\"H29 \u4fe1\u6fc3\u5ddd\u4e0b\u6d41\u5730\u8cea\u8abf\u67fb\u696d\u52d9\"","client_name":"\u56fd\u571f\u4ea4\u901a\u7701\u3000\u5317\u9678\u5730\u65b9\u6574\u5099\u5c40\u3000\u4fe1\u6fc3\u5ddd\u4e0b\u6d41\u6cb3\u5ddd\u4e8b\u52d9\u6240","boring_xml_url":64,"boring_view_url":1,"soilmap_view_url":null,"soiltest_xml_url":0,"soiltest_view_url":0},{"id":511025,"code":"B4KJ202201001-3561","latitude":"37.747906","longitude":"139.071444","source_code":"HR1784306020070029","project_name":"\"H29 \u4fe1\u6fc3\u5ddd\u4e0b\u6d41\u5730\u8cea\u8abf\u67fb\u696d\u52d9\"","survey_name":"\"H29 \u4fe1\u6fc3\u5ddd\u4e0b\u6d41\u5730\u8cea\u8abf\u67fb\u696d\u52d9\"","client_name":"\u56fd\u571f\u4ea4\u901a\u7701\u3000\u5317\u9678\u5730\u65b9\u6574\u5099\u5c40\u3000\u4fe1\u6fc3\u5ddd\u4e0b\u6d41\u6cb3\u5ddd\u4e8b\u52d9\u6240","boring_xml_url":64,"boring_view_url":1,"soilmap_view_url":null,"soiltest_xml_url":0,"soiltest_view_url":0},{"id":511024,"code":"B4KJ202201001-3560","latitude":"37.749597","longitude":"139.070709","source_code":"HR1784306020070028","project_name":"\"H29 \u4fe1\u6fc3\u5ddd\u4e0b\u6d41\u5730\u8cea\u8abf\u67fb\u696d\u52d9\"","survey_name":"\"H29 \u4fe1\u6fc3\u5ddd\u4e0b\u6d41\u5730\u8cea\u8abf\u67fb\u696d\u52d9\"","client_name":"\u56fd\u571f\u4ea4\u901a\u7701\u3000\u5317\u9678\u5730\u65b9\u6574\u5099\u5c40\u3000\u4fe1\u6fc3\u5ddd\u4e0b\u6d41\u6cb3\u5ddd\u4e8b\u52d9\u6240","boring_xml_url":64,"boring_view_url":1,"soilmap_view_url":null,"soiltest_xml_url":0,"soiltest_view_url":0},{"id":511023,"code":"B4KJ202201001-3559","latitude":"37.749597","longitude":"139.070709","source_code":"HR1784306020070027","project_name":"\"H29 \u4fe1\u6fc3\u5ddd\u4e0b\u6d41\u5730\u8cea\u8abf\u67fb\u696d\u52d9\"","survey_name":"\"H29 \u4fe1\u6fc3\u5ddd\u4e0b\u6d41\u5730\u8cea\u8abf\u67fb\u696d\u52d9\"","client_name":"\u56fd\u571f\u4ea4\u901a\u7701\u3000\u5317\u9678\u5730\u65b9\u6574\u5099\u5c40\u3000\u4fe1\u6fc3\u5ddd\u4e0b\u6d41\u6cb3\u5ddd\u4e8b\u52d9\u6240","boring_xml_url":64,"boring_view_url":1,"soilmap_view_url":null,"soiltest_xml_url":0,"soiltest_view_url":0},{"id":511022,"code":"B4KJ202201001-3558","latitude":"37.74958","longitude":"139.071293","source_code":"HR1784306020070026","project_name":"\"H29 \u4fe1\u6fc3\u5ddd\u4e0b\u6d41\u5730\u8cea\u8abf\u67fb\u696d\u52d9\"","survey_name":"\"H29 \u4fe1\u6fc3\u5ddd\u4e0b\u6d41\u5730\u8cea\u8abf\u67fb\u696d\u52d9\"","client_name":"\u56fd\u571f\u4ea4\u901a\u7701\u3000\u5317\u9678\u5730\u65b9\u6574\u5099\u5c40\u3000\u4fe1\u6fc3\u5ddd\u4e0b\u6d41\u6cb3\u5ddd\u4e8b\u52d9\u6240","boring_xml_url":64,"boring_view_url":1,"soilmap_view_url":null,"soiltest_xml_url":0,"soiltest_view_url":0},{"id":511021,"code":"B4KJ202201001-3557","latitude":"37.74958","longitude":"139.071293","source_code":"HR1784306020070025","project_name":"\"H29 \u4fe1\u6fc3\u5ddd\u4e0b\u6d41\u5730\u8cea\u8abf\u67fb\u696d\u52d9\"","survey_name":"\"H29 \u4fe1\u6fc3\u5ddd\u4e0b\u6d41\u5730\u8cea\u8abf\u67fb\u696d\u52d9\"","client_name":"\u56fd\u571f\u4ea4\u901a\u7701\u3000\u5317\u9678\u5730\u65b9\u6574\u5099\u5c40\u3000\u4fe1\u6fc3\u5ddd\u4e0b\u6d41\u6cb3\u5ddd\u4e8b\u52d9\u6240","boring_xml_url":64,"boring_view_url":1,"soilmap_view_url":null,"soiltest_xml_url":0,"soiltest_view_url":0},{"id":511020,"code":"B4KJ202201001-3556","latitude":"37.748772","longitude":"139.071131","source_code":"HR1784306020070024","project_name":"\"H29 \u4fe1\u6fc3\u5ddd\u4e0b\u6d41\u5730\u8cea\u8abf\u67fb\u696d\u52d9\"","survey_name":"\"H29 \u4fe1\u6fc3\u5ddd\u4e0b\u6d41\u5730\u8cea\u8abf\u67fb\u696d\u52d9\"","client_name":"\u56fd\u571f\u4ea4\u901a\u7701\u3000\u5317\u9678\u5730\u65b9\u6574\u5099\u5c40\u3000\u4fe1\u6fc3\u5ddd\u4e0b\u6d41\u6cb3\u5ddd\u4e8b\u52d9\u6240","boring_xml_url":64,"boring_view_url":1,"soilmap_view_url":null,"soiltest_xml_url":0,"soiltest_view_url":0},{"id":511019,"code":"B4KJ202201001-3555","latitude":"37.748772","longitude":"139.071131","source_code":"HR1784306020070023","project_name":"\"H29 \u4fe1\u6fc3\u5ddd\u4e0b\u6d41\u5730\u8cea\u8abf\u67fb\u696d\u52d9\"","survey_name":"\"H29 \u4fe1\u6fc3\u5ddd\u4e0b\u6d41\u5730\u8cea\u8abf\u67fb\u696d\u52d9\"","client_name":"\u56fd\u571f\u4ea4\u901a\u7701\u3000\u5317\u9678\u5730\u65b9\u6574\u5099\u5c40\u3000\u4fe1\u6fc3\u5ddd\u4e0b\u6d41\u6cb3\u5ddd\u4e8b\u52d9\u6240","boring_xml_url":64,"boring_view_url":1,"soilmap_view_url":null,"soiltest_xml_url":0,"soiltest_view_url":0},{"id":511018,"code":"B4KJ202201001-3554","latitude":"37.749056","longitude":"139.072406","source_code":"HR1784306020070022","project_name":"\"H29 \u4fe1\u6fc3\u5ddd\u4e0b\u6d41\u5730\u8cea\u8abf\u67fb\u696d\u52d9\"","survey_name":"\"H29 \u4fe1\u6fc3\u5ddd\u4e0b\u6d41\u5730\u8cea\u8abf\u67fb\u696d\u52d9\"","client_name":"\u56fd\u571f\u4ea4\u901a\u7701\u3000\u5317\u9678\u5730\u65b9\u6574\u5099\u5c40\u3000\u4fe1\u6fc3\u5ddd\u4e0b\u6d41\u6cb3\u5ddd\u4e8b\u52d9\u6240","boring_xml_url":64,"boring_view_url":1,"soilmap_view_url":null,"soiltest_xml_url":0,"soiltest_view_url":0},{"id":511017,"code":"B4KJ202201001-3553","latitude":"37.749056","longitude":"139.072406","source_code":"HR1784306020070021","project_name":"\"H29 \u4fe1\u6fc3\u5ddd\u4e0b\u6d41\u5730\u8cea\u8abf\u67fb\u696d\u52d9\"","survey_name":"\"H29 \u4fe1\u6fc3\u5ddd\u4e0b\u6d41\u5730\u8cea\u8abf\u67fb\u696d\u52d9\"","client_name":"\u56fd\u571f\u4ea4\u901a\u7701\u3000\u5317\u9678\u5730\u65b9\u6574\u5099\u5c40\u3000\u4fe1\u6fc3\u5ddd\u4e0b\u6d41\u6cb3\u5ddd\u4e8b\u52d9\u6240","boring_xml_url":64,"boring_view_url":1,"soilmap_view_url":null,"soiltest_xml_url":0,"soiltest_view_url":0},{"id":511016,"code":"B4KJ202201001-3552","latitude":"37.74868","longitude":"139.073386","source_code":"HR1784306020070020","project_name":"\"H29 \u4fe1\u6fc3\u5ddd\u4e0b\u6d41\u5730\u8cea\u8abf\u67fb\u696d\u52d9\"","survey_name":"\"H29 \u4fe1\u6fc3\u5ddd\u4e0b\u6d41\u5730\u8cea\u8abf\u67fb\u696d\u52d9\"","client_name":"\u56fd\u571f\u4ea4\u901a\u7701\u3000\u5317\u9678\u5730\u65b9\u6574\u5099\u5c40\u3000\u4fe1\u6fc3\u5ddd\u4e0b\u6d41\u6cb3\u5ddd\u4e8b\u52d9\u6240","boring_xml_url":64,"boring_view_url":1,"soilmap_view_url":null,"soiltest_xml_url":0,"soiltest_view_url":0},{"id":511015,"code":"B4KJ202201001-3551","latitude":"37.74868","longitude":"139.073386","source_code":"HR1784306020070019","project_name":"\"H29 \u4fe1\u6fc3\u5ddd\u4e0b\u6d41\u5730\u8cea\u8abf\u67fb\u696d\u52d9\"","survey_name":"\"H29 \u4fe1\u6fc3\u5ddd\u4e0b\u6d41\u5730\u8cea\u8abf\u67fb\u696d\u52d9\"","client_name":"\u56fd\u571f\u4ea4\u901a\u7701\u3000\u5317\u9678\u5730\u65b9\u6574\u5099\u5c40\u3000\u4fe1\u6fc3\u5ddd\u4e0b\u6d41\u6cb3\u5ddd\u4e8b\u52d9\u6240","boring_xml_url":64,"boring_view_url":1,"soilmap_view_url":null,"soiltest_xml_url":0,"soiltest_view_url":0},{"id":511014,"code":"B4KJ202201001-3550","latitude":"37.747325","longitude":"139.063758","source_code":"HR1784306020070018","project_name":"\"H29 \u4fe1\u6fc3\u5ddd\u4e0b\u6d41\u5730\u8cea\u8abf\u67fb\u696d\u52d9\"","survey_name":"\"H29 \u4fe1\u6fc3\u5ddd\u4e0b\u6d41\u5730\u8cea\u8abf\u67fb\u696d\u52d9\"","client_name":"\u56fd\u571f\u4ea4\u901a\u7701\u3000\u5317\u9678\u5730\u65b9\u6574\u5099\u5c40\u3000\u4fe1\u6fc3\u5ddd\u4e0b\u6d41\u6cb3\u5ddd\u4e8b\u52d9\u6240","boring_xml_url":64,"boring_view_url":1,"soilmap_view_url":null,"soiltest_xml_url":0,"soiltest_view_url":0},{"id":511013,"code":"B4KJ202201001-3549","latitude":"37.747325","longitude":"139.063758","source_code":"HR1784306020070017","project_name":"\"H29 \u4fe1\u6fc3\u5ddd\u4e0b\u6d41\u5730\u8cea\u8abf\u67fb\u696d\u52d9\"","survey_name":"\"H29 \u4fe1\u6fc3\u5ddd\u4e0b\u6d41\u5730\u8cea\u8abf\u67fb\u696d\u52d9\"","client_name":"\u56fd\u571f\u4ea4\u901a\u7701\u3000\u5317\u9678\u5730\u65b9\u6574\u5099\u5c40\u3000\u4fe1\u6fc3\u5ddd\u4e0b\u6d41\u6cb3\u5ddd\u4e8b\u52d9\u6240","boring_xml_url":64,"boring_view_url":1,"soilmap_view_url":null,"soiltest_xml_url":0,"soiltest_view_url":0},{"id":511012,"code":"B4KJ202201001-3548","latitude":"37.747372","longitude":"139.063442","source_code":"HR1784306020070016","project_name":"\"H29 \u4fe1\u6fc3\u5ddd\u4e0b\u6d41\u5730\u8cea\u8abf\u67fb\u696d\u52d9\"","survey_name":"\"H29 \u4fe1\u6fc3\u5ddd\u4e0b\u6d41\u5730\u8cea\u8abf\u67fb\u696d\u52d9\"","client_name":"\u56fd\u571f\u4ea4\u901a\u7701\u3000\u5317\u9678\u5730\u65b9\u6574\u5099\u5c40\u3000\u4fe1\u6fc3\u5ddd\u4e0b\u6d41\u6cb3\u5ddd\u4e8b\u52d9\u6240","boring_xml_url":64,"boring_view_url":1,"soilmap_view_url":null,"soiltest_xml_url":0,"soiltest_view_url":0},{"id":511011,"code":"B4KJ202201001-3547","latitude":"37.747372","longitude":"139.063442","source_code":"HR1784306020070015","project_name":"\"H29 \u4fe1\u6fc3\u5ddd\u4e0b\u6d41\u5730\u8cea\u8abf\u67fb\u696d\u52d9\"","survey_name":"\"H29 \u4fe1\u6fc3\u5ddd\u4e0b\u6d41\u5730\u8cea\u8abf\u67fb\u696d\u52d9\"","client_name":"\u56fd\u571f\u4ea4\u901a\u7701\u3000\u5317\u9678\u5730\u65b9\u6574\u5099\u5c40\u3000\u4fe1\u6fc3\u5ddd\u4e0b\u6d41\u6cb3\u5ddd\u4e8b\u52d9\u6240","boring_xml_url":64,"boring_view_url":1,"soilmap_view_url":null,"soiltest_xml_url":0,"soiltest_view_url":0}]}}