{"header":{"xyz":{"source":[],"mosaic":false},"page":1147,"raw":{"soiltest_result":"0","bbox":"57.598333,109.544722,1.933333,163.806111","page":"1147"},"conditions":{"soiltest_result":0,"north":57.598333,"west":109.544722,"south":1.933333,"east":163.806111},"success":true,"message":""},"data":{"meta":{"total":212844,"page":1147,"pages":7095,"count":30},"values":[{"id":510980,"code":"B4KJ202201001-3516","latitude":"36.945424","longitude":"137.024362","source_code":"HR118445000300960003","project_name":"","survey_name":"\u80fd\u8d8a\u9053\u3000\u6c37\u898b\u7b2c15\u30c8\u30f3\u30cd\u30eb\u5751\u53e3\u5730\u3059\u3079\u308a\u5bfe\u7b56\u5de5\u4e8b","client_name":"\"\u56fd\u571f\u4ea4\u901a\u7701 \u5317\u9678\u5730\u65b9\u6574\u5099\u5c40 \u5bcc\u5c71\u6cb3\u5ddd\u56fd\u9053\u4e8b\u52d9\u6240\"","boring_xml_url":68,"boring_view_url":1,"soilmap_view_url":null,"soiltest_xml_url":0,"soiltest_view_url":0},{"id":510979,"code":"B4KJ202201001-3515","latitude":"36.945319","longitude":"137.024606","source_code":"HR118445000300960002","project_name":"","survey_name":"\u80fd\u8d8a\u9053\u3000\u6c37\u898b\u7b2c15\u30c8\u30f3\u30cd\u30eb\u5751\u53e3\u5730\u3059\u3079\u308a\u5bfe\u7b56\u5de5\u4e8b","client_name":"\"\u56fd\u571f\u4ea4\u901a\u7701 \u5317\u9678\u5730\u65b9\u6574\u5099\u5c40 \u5bcc\u5c71\u6cb3\u5ddd\u56fd\u9053\u4e8b\u52d9\u6240\"","boring_xml_url":68,"boring_view_url":1,"soilmap_view_url":null,"soiltest_xml_url":0,"soiltest_view_url":0},{"id":510978,"code":"B4KJ202201001-3514","latitude":"36.945094","longitude":"137.023982","source_code":"HR118445000300960001","project_name":"","survey_name":"\u80fd\u8d8a\u9053\u3000\u6c37\u898b\u7b2c15\u30c8\u30f3\u30cd\u30eb\u5751\u53e3\u5730\u3059\u3079\u308a\u5bfe\u7b56\u5de5\u4e8b","client_name":"\"\u56fd\u571f\u4ea4\u901a\u7701 \u5317\u9678\u5730\u65b9\u6574\u5099\u5c40 \u5bcc\u5c71\u6cb3\u5ddd\u56fd\u9053\u4e8b\u52d9\u6240\"","boring_xml_url":68,"boring_view_url":1,"soilmap_view_url":null,"soiltest_xml_url":0,"soiltest_view_url":0},{"id":510977,"code":"B4KJ202201001-3513","latitude":"38.142055","longitude":"139.42648","source_code":"HR118437000103180003","project_name":"\u65e5\u6771\u9053\u5730\u5439\u96ea\u9632\u6b62\u67f5\u65b0\u8a2d\u5de5\u4e8b","survey_name":"\u65e5\u6771\u9053\u5730\u5439\u96ea\u9632\u6b62\u67f5\u65b0\u8a2d\u5de5\u4e8b(\u5730\u8cea\u8abf\u67fb)","client_name":"\u56fd\u571f\u4ea4\u901a\u7701\u5317\u9678\u5730\u65b9\u6574\u5099\u5c40\u7fbd\u8d8a\u6cb3\u5ddd\u56fd\u9053\u4e8b\u52d9\u6240","boring_xml_url":68,"boring_view_url":1,"soilmap_view_url":null,"soiltest_xml_url":0,"soiltest_view_url":0},{"id":510976,"code":"B4KJ202201001-3512","latitude":"38.140894","longitude":"139.42541","source_code":"HR118437000103180002","project_name":"\u65e5\u6771\u9053\u5730\u5439\u96ea\u9632\u6b62\u67f5\u65b0\u8a2d\u5de5\u4e8b","survey_name":"\u65e5\u6771\u9053\u5730\u5439\u96ea\u9632\u6b62\u67f5\u65b0\u8a2d\u5de5\u4e8b(\u5730\u8cea\u8abf\u67fb)","client_name":"\u56fd\u571f\u4ea4\u901a\u7701\u5317\u9678\u5730\u65b9\u6574\u5099\u5c40\u7fbd\u8d8a\u6cb3\u5ddd\u56fd\u9053\u4e8b\u52d9\u6240","boring_xml_url":68,"boring_view_url":1,"soilmap_view_url":null,"soiltest_xml_url":0,"soiltest_view_url":0},{"id":510975,"code":"B4KJ202201001-3511","latitude":"38.139794","longitude":"139.424377","source_code":"HR118437000103180001","project_name":"\u65e5\u6771\u9053\u5730\u5439\u96ea\u9632\u6b62\u67f5\u65b0\u8a2d\u5de5\u4e8b","survey_name":"\u65e5\u6771\u9053\u5730\u5439\u96ea\u9632\u6b62\u67f5\u65b0\u8a2d\u5de5\u4e8b(\u5730\u8cea\u8abf\u67fb)","client_name":"\u56fd\u571f\u4ea4\u901a\u7701\u5317\u9678\u5730\u65b9\u6574\u5099\u5c40\u7fbd\u8d8a\u6cb3\u5ddd\u56fd\u9053\u4e8b\u52d9\u6240","boring_xml_url":68,"boring_view_url":1,"soilmap_view_url":null,"soiltest_xml_url":0,"soiltest_view_url":0},{"id":510974,"code":"B4KJ202201001-3510","latitude":"36.778055","longitude":"138.32945","source_code":"HR108465000301410002","project_name":"\u7b20\u5009\u7bc9\u5824\u8b77\u5cb8\u5de5\u4e8b","survey_name":"\u7b20\u5009\u7bc9\u5824\u8b77\u5cb8\u5de5\u4e8b","client_name":"\u56fd\u571f\u4ea4\u901a\u7701\u5317\u9678\u5730\u65b9\u6574\u5099\u5c40\u5343\u66f2\u5ddd\u6cb3\u5ddd\u4e8b\u52d9\u6240","boring_xml_url":68,"boring_view_url":1,"soilmap_view_url":null,"soiltest_xml_url":0,"soiltest_view_url":0},{"id":510973,"code":"B4KJ202201001-3509","latitude":"36.778055","longitude":"138.32945","source_code":"HR108465000301410001","project_name":"\u7b20\u5009\u7bc9\u5824\u8b77\u5cb8\u305d\u306e\u4ed6\u5de5\u4e8b","survey_name":"\u7b20\u5009\u7bc9\u5824\u8b77\u5cb8\u305d\u306e\u4ed6\u5de5\u4e8b","client_name":"\u56fd\u571f\u4ea4\u901a\u7701\u5317\u9678\u5730\u65b9\u6574\u5099\u5c40\u5343\u66f2\u5ddd\u6cb3\u5ddd\u4e8b\u52d9\u6240","boring_xml_url":68,"boring_view_url":1,"soilmap_view_url":null,"soiltest_xml_url":0,"soiltest_view_url":0},{"id":510972,"code":"B4KJ202201001-3508","latitude":"36.859546","longitude":"137.430073","source_code":"HR108445000105730001","project_name":"\u5165\u5584\u9ed2\u90e8\u30d0\u30a4\u30d1\u30b9\u72ac\u5c71\u9053\u8def\u305d\u306e6\u5de5\u4e8b","survey_name":"\u5165\u5584\u9ed2\u90e8\u30d0\u30a4\u30d1\u30b9\u72ac\u5c71\u9053\u8def\u305d\u306e6\u5de5\u4e8b","client_name":"\u5bcc\u5c71\u6cb3\u5ddd\u56fd\u9053\u4e8b\u52d9\u6240","boring_xml_url":68,"boring_view_url":1,"soilmap_view_url":null,"soiltest_xml_url":0,"soiltest_view_url":0},{"id":510971,"code":"B4KJ202201001-3507","latitude":"38.394997","longitude":"139.556681","source_code":"HR108437000301010005","project_name":"\u6751\u4e0a\u9632\u96ea\u305d\u306e3\u5de5\u4e8b(\u30c1\u30a7\u30c3\u30af\u30dc\u30fc\u30ea\u30f3\u30b0\u4f5c\u696d)","survey_name":"\u4e00\u822c\u56fd\u90537\u53f7\u8461\u84043\u5730\u533a\u5730\u8cea\u8abf\u67fb","client_name":"\u56fd\u571f\u4ea4\u901a\u7701\u5317\u9678\u5730\u65b9\u6574\u5099\u5c40\u7fbd\u8d8a\u6cb3\u5ddd\u56fd\u9053\u4e8b\u52d9\u6240","boring_xml_url":68,"boring_view_url":1,"soilmap_view_url":null,"soiltest_xml_url":0,"soiltest_view_url":0},{"id":510970,"code":"B4KJ202201001-3506","latitude":"38.394997","longitude":"139.556681","source_code":"HR108437000301010004","project_name":"\u6751\u4e0a\u9632\u96ea\u305d\u306e3\u5de5\u4e8b(\u30c1\u30a7\u30c3\u30af\u30dc\u30fc\u30ea\u30f3\u30b0\u4f5c\u696d)","survey_name":"\u4e00\u822c\u56fd\u90537\u53f7\u8461\u84043\u5730\u533a\u5730\u8cea\u8abf\u67fb","client_name":"\u56fd\u571f\u4ea4\u901a\u7701\u5317\u9678\u5730\u65b9\u6574\u5099\u5c40\u7fbd\u8d8a\u6cb3\u5ddd\u56fd\u9053\u4e8b\u52d9\u6240","boring_xml_url":68,"boring_view_url":1,"soilmap_view_url":null,"soiltest_xml_url":0,"soiltest_view_url":0},{"id":510969,"code":"B4KJ202201001-3505","latitude":"38.394997","longitude":"139.556681","source_code":"HR108437000301010003","project_name":"\u6751\u4e0a\u9632\u96ea\u305d\u306e3\u5de5\u4e8b(\u30c1\u30a7\u30c3\u30af\u30dc\u30fc\u30ea\u30f3\u30b0\u4f5c\u696d)","survey_name":"\u4e00\u822c\u56fd\u90537\u53f7\u8461\u84043\u5730\u533a\u5730\u8cea\u8abf\u67fb","client_name":"\u56fd\u571f\u4ea4\u901a\u7701\u5317\u9678\u5730\u65b9\u6574\u5099\u5c40\u7fbd\u8d8a\u6cb3\u5ddd\u56fd\u9053\u4e8b\u52d9\u6240","boring_xml_url":68,"boring_view_url":1,"soilmap_view_url":null,"soiltest_xml_url":0,"soiltest_view_url":0},{"id":510968,"code":"B4KJ202201001-3504","latitude":"38.394997","longitude":"139.556681","source_code":"HR108437000301010002","project_name":"\u6751\u4e0a\u9632\u96ea\u305d\u306e3\u5de5\u4e8b(\u30c1\u30a7\u30c3\u30af\u30dc\u30fc\u30ea\u30f3\u30b0\u4f5c\u696d)","survey_name":"\u4e00\u822c\u56fd\u90537\u53f7\u8461\u84043\u5730\u533a\u5730\u8cea\u8abf\u67fb","client_name":"\u56fd\u571f\u4ea4\u901a\u7701\u5317\u9678\u5730\u65b9\u6574\u5099\u5c40\u7fbd\u8d8a\u6cb3\u5ddd\u56fd\u9053\u4e8b\u52d9\u6240","boring_xml_url":68,"boring_view_url":1,"soilmap_view_url":null,"soiltest_xml_url":0,"soiltest_view_url":0},{"id":510967,"code":"B4KJ202201001-3503","latitude":"38.394997","longitude":"139.556681","source_code":"HR108437000301010001","project_name":"\u6751\u4e0a\u9632\u96ea\u305d\u306e3\u5de5\u4e8b(\u30c1\u30a7\u30c3\u30af\u30dc\u30fc\u30ea\u30f3\u30b0\u4f5c\u696d)","survey_name":"\u4e00\u822c\u56fd\u90537\u53f7\u8461\u84043\u5730\u533a\u5730\u8cea\u8abf\u67fb","client_name":"\u56fd\u571f\u4ea4\u901a\u7701\u5317\u9678\u5730\u65b9\u6574\u5099\u5c40\u7fbd\u8d8a\u6cb3\u5ddd\u56fd\u9053\u4e8b\u52d9\u6240","boring_xml_url":68,"boring_view_url":1,"soilmap_view_url":null,"soiltest_xml_url":0,"soiltest_view_url":0},{"id":510966,"code":"B4KJ202201001-3502","latitude":"36.533888","longitude":"137.226671","source_code":"HR098445000107600002","project_name":"\u4e00\u822c\u56fd\u905341\u53f7\u6961\u539f\u9053\u8def\u305d\u306e5\u5de5\u4e8b","survey_name":"\u4e00\u822c\u56fd\u905341\u53f7\u6961\u539f\u9053\u8def\u305d\u306e5\u5de5\u4e8b\u306e\u5185\u3001\u8abf\u67fb\u30dc\u30fc\u30ea\u30f3\u30b0\u5de5","client_name":"\u5317\u9678\u5730\u65b9\u6574\u5099\u5c40\u3000\u5bcc\u5c71\u6cb3\u5ddd\u56fd\u9053\u4e8b\u52d9\u6240","boring_xml_url":68,"boring_view_url":1,"soilmap_view_url":null,"soiltest_xml_url":0,"soiltest_view_url":0},{"id":510965,"code":"B4KJ202201001-3501","latitude":"36.524166","longitude":"137.226671","source_code":"HR098445000107600001","project_name":"\u4e00\u822c\u56fd\u905341\u53f7\u6961\u539f\u9053\u8def\u305d\u306e5\u5de5\u4e8b","survey_name":"\u4e00\u822c\u56fd\u905341\u53f7\u6961\u539f\u9053\u8def\u305d\u306e5\u5de5\u4e8b\u306e\u5185\u3001\u8abf\u67fb\u30dc\u30fc\u30ea\u30f3\u30b0\u5de5","client_name":"\u5317\u9678\u5730\u65b9\u6574\u5099\u5c40\u3000\u5bcc\u5c71\u6cb3\u5ddd\u56fd\u9053\u4e8b\u52d9\u6240","boring_xml_url":68,"boring_view_url":1,"soilmap_view_url":null,"soiltest_xml_url":0,"soiltest_view_url":0},{"id":510964,"code":"B4KJ202201001-3500","latitude":"36.475469","longitude":"137.67929","source_code":"HR1684656020180009","project_name":"","survey_name":"\u9ad8\u702c\u5ddd\u4e0a\u6d41\u90e8\u571f\u7802\u5bfe\u7b56\u65bd\u8a2d\u5730\u8cea\u8abf\u67fb\u696d\u52d9","client_name":"\u5317\u9678\u5730\u65b9\u6574\u5099\u5c40\u3000\u5343\u66f2\u5ddd\u6cb3\u5ddd\u4e8b\u52d9\u6240","boring_xml_url":64,"boring_view_url":1,"soilmap_view_url":null,"soiltest_xml_url":0,"soiltest_view_url":0},{"id":510963,"code":"B4KJ202201001-3499","latitude":"36.476044","longitude":"137.679913","source_code":"HR1684656020180008","project_name":"","survey_name":"\u9ad8\u702c\u5ddd\u4e0a\u6d41\u90e8\u571f\u7802\u5bfe\u7b56\u65bd\u8a2d\u5730\u8cea\u8abf\u67fb\u696d\u52d9","client_name":"\u5317\u9678\u5730\u65b9\u6574\u5099\u5c40\u3000\u5343\u66f2\u5ddd\u6cb3\u5ddd\u4e8b\u52d9\u6240","boring_xml_url":64,"boring_view_url":1,"soilmap_view_url":null,"soiltest_xml_url":0,"soiltest_view_url":0},{"id":510962,"code":"B4KJ202201001-3498","latitude":"36.476846","longitude":"137.68056","source_code":"HR1684656020180007","project_name":"","survey_name":"\u9ad8\u702c\u5ddd\u4e0a\u6d41\u90e8\u571f\u7802\u5bfe\u7b56\u65bd\u8a2d\u5730\u8cea\u8abf\u67fb\u696d\u52d9","client_name":"\u5317\u9678\u5730\u65b9\u6574\u5099\u5c40\u3000\u5343\u66f2\u5ddd\u6cb3\u5ddd\u4e8b\u52d9\u6240","boring_xml_url":64,"boring_view_url":1,"soilmap_view_url":null,"soiltest_xml_url":0,"soiltest_view_url":0},{"id":510961,"code":"B4KJ202201001-3497","latitude":"36.477741","longitude":"137.682654","source_code":"HR1684656020180006","project_name":"","survey_name":"\u9ad8\u702c\u5ddd\u4e0a\u6d41\u90e8\u571f\u7802\u5bfe\u7b56\u65bd\u8a2d\u5730\u8cea\u8abf\u67fb\u696d\u52d9","client_name":"\u5317\u9678\u5730\u65b9\u6574\u5099\u5c40\u3000\u5343\u66f2\u5ddd\u6cb3\u5ddd\u4e8b\u52d9\u6240","boring_xml_url":64,"boring_view_url":1,"soilmap_view_url":null,"soiltest_xml_url":0,"soiltest_view_url":0},{"id":510960,"code":"B4KJ202201001-3496","latitude":"36.477583","longitude":"137.684107","source_code":"HR1684656020180005","project_name":"","survey_name":"\u9ad8\u702c\u5ddd\u4e0a\u6d41\u90e8\u571f\u7802\u5bfe\u7b56\u65bd\u8a2d\u5730\u8cea\u8abf\u67fb\u696d\u52d9","client_name":"\u5317\u9678\u5730\u65b9\u6574\u5099\u5c40\u3000\u5343\u66f2\u5ddd\u6cb3\u5ddd\u4e8b\u52d9\u6240","boring_xml_url":64,"boring_view_url":1,"soilmap_view_url":null,"soiltest_xml_url":0,"soiltest_view_url":0},{"id":510959,"code":"B4KJ202201001-3495","latitude":"36.477555","longitude":"137.684843","source_code":"HR1684656020180004","project_name":"","survey_name":"\u9ad8\u702c\u5ddd\u4e0a\u6d41\u90e8\u571f\u7802\u5bfe\u7b56\u65bd\u8a2d\u5730\u8cea\u8abf\u67fb\u696d\u52d9","client_name":"\u5317\u9678\u5730\u65b9\u6574\u5099\u5c40\u3000\u5343\u66f2\u5ddd\u6cb3\u5ddd\u4e8b\u52d9\u6240","boring_xml_url":64,"boring_view_url":1,"soilmap_view_url":null,"soiltest_xml_url":0,"soiltest_view_url":0},{"id":510958,"code":"B4KJ202201001-3494","latitude":"36.435375","longitude":"137.684488","source_code":"HR1684656020180003","project_name":"","survey_name":"\u9ad8\u702c\u5ddd\u4e0a\u6d41\u90e8\u571f\u7802\u5bfe\u7b56\u65bd\u8a2d\u5730\u8cea\u8abf\u67fb\u696d\u52d9","client_name":"\u5317\u9678\u5730\u65b9\u6574\u5099\u5c40\u3000\u5343\u66f2\u5ddd\u6cb3\u5ddd\u4e8b\u52d9\u6240","boring_xml_url":64,"boring_view_url":1,"soilmap_view_url":null,"soiltest_xml_url":0,"soiltest_view_url":0},{"id":510957,"code":"B4KJ202201001-3493","latitude":"36.435208","longitude":"137.683607","source_code":"HR1684656020180002","project_name":"","survey_name":"\u9ad8\u702c\u5ddd\u4e0a\u6d41\u90e8\u571f\u7802\u5bfe\u7b56\u65bd\u8a2d\u5730\u8cea\u8abf\u67fb\u696d\u52d9","client_name":"\u5317\u9678\u5730\u65b9\u6574\u5099\u5c40\u3000\u5343\u66f2\u5ddd\u6cb3\u5ddd\u4e8b\u52d9\u6240","boring_xml_url":64,"boring_view_url":1,"soilmap_view_url":null,"soiltest_xml_url":0,"soiltest_view_url":0},{"id":510956,"code":"B4KJ202201001-3492","latitude":"36.435277","longitude":"137.682338","source_code":"HR1684656020180001","project_name":"","survey_name":"\u9ad8\u702c\u5ddd\u4e0a\u6d41\u90e8\u571f\u7802\u5bfe\u7b56\u65bd\u8a2d\u5730\u8cea\u8abf\u67fb\u696d\u52d9","client_name":"\u5317\u9678\u5730\u65b9\u6574\u5099\u5c40\u3000\u5343\u66f2\u5ddd\u6cb3\u5ddd\u4e8b\u52d9\u6240","boring_xml_url":64,"boring_view_url":1,"soilmap_view_url":null,"soiltest_xml_url":0,"soiltest_view_url":0},{"id":510955,"code":"B4KJ202201001-3491","latitude":"37.582892","longitude":"139.90656","source_code":"HR1684604020170031","project_name":"","survey_name":"\u5e73\u621028\u5e74\u5ea6\u65e5\u6a4b\u5ddd\u7ba1\u5185\u5730\u8cea\u8abf\u67fb\u53ca\u3073\u6d78\u900f\u5bfe\u7b56\u691c\u8a0e\u696d\u52d9","client_name":"\"\u56fd\u571f\u4ea4\u901a\u7701\u3000\u5317\u9678\u5730\u65b9\u6574\u5099\u5c40 \u963f\u8cc0\u5ddd\u6cb3\u5ddd\u4e8b\u52d9\u6240\"","boring_xml_url":64,"boring_view_url":1,"soilmap_view_url":null,"soiltest_xml_url":0,"soiltest_view_url":0},{"id":510954,"code":"B4KJ202201001-3490","latitude":"37.583259","longitude":"139.906377","source_code":"HR1684604020170030","project_name":"","survey_name":"\u5e73\u621028\u5e74\u5ea6\u65e5\u6a4b\u5ddd\u7ba1\u5185\u5730\u8cea\u8abf\u67fb\u53ca\u3073\u6d78\u900f\u5bfe\u7b56\u691c\u8a0e\u696d\u52d9","client_name":"\"\u56fd\u571f\u4ea4\u901a\u7701\u3000\u5317\u9678\u5730\u65b9\u6574\u5099\u5c40 \u963f\u8cc0\u5ddd\u6cb3\u5ddd\u4e8b\u52d9\u6240\"","boring_xml_url":64,"boring_view_url":1,"soilmap_view_url":null,"soiltest_xml_url":0,"soiltest_view_url":0},{"id":510953,"code":"B4KJ202201001-3489","latitude":"37.583751","longitude":"139.906043","source_code":"HR1684604020170029","project_name":"","survey_name":"\u5e73\u621028\u5e74\u5ea6\u65e5\u6a4b\u5ddd\u7ba1\u5185\u5730\u8cea\u8abf\u67fb\u53ca\u3073\u6d78\u900f\u5bfe\u7b56\u691c\u8a0e\u696d\u52d9","client_name":"\"\u56fd\u571f\u4ea4\u901a\u7701\u3000\u5317\u9678\u5730\u65b9\u6574\u5099\u5c40 \u963f\u8cc0\u5ddd\u6cb3\u5ddd\u4e8b\u52d9\u6240\"","boring_xml_url":64,"boring_view_url":1,"soilmap_view_url":null,"soiltest_xml_url":0,"soiltest_view_url":0},{"id":510952,"code":"B4KJ202201001-3488","latitude":"37.584498","longitude":"139.905507","source_code":"HR1684604020170028","project_name":"","survey_name":"\u5e73\u621028\u5e74\u5ea6\u65e5\u6a4b\u5ddd\u7ba1\u5185\u5730\u8cea\u8abf\u67fb\u53ca\u3073\u6d78\u900f\u5bfe\u7b56\u691c\u8a0e\u696d\u52d9","client_name":"\"\u56fd\u571f\u4ea4\u901a\u7701\u3000\u5317\u9678\u5730\u65b9\u6574\u5099\u5c40 \u963f\u8cc0\u5ddd\u6cb3\u5ddd\u4e8b\u52d9\u6240\"","boring_xml_url":64,"boring_view_url":1,"soilmap_view_url":null,"soiltest_xml_url":0,"soiltest_view_url":0},{"id":510951,"code":"B4KJ202201001-3487","latitude":"37.585042","longitude":"139.905185","source_code":"HR1684604020170027","project_name":"","survey_name":"\u5e73\u621028\u5e74\u5ea6\u65e5\u6a4b\u5ddd\u7ba1\u5185\u5730\u8cea\u8abf\u67fb\u53ca\u3073\u6d78\u900f\u5bfe\u7b56\u691c\u8a0e\u696d\u52d9","client_name":"\"\u56fd\u571f\u4ea4\u901a\u7701\u3000\u5317\u9678\u5730\u65b9\u6574\u5099\u5c40 \u963f\u8cc0\u5ddd\u6cb3\u5ddd\u4e8b\u52d9\u6240\"","boring_xml_url":64,"boring_view_url":1,"soilmap_view_url":null,"soiltest_xml_url":0,"soiltest_view_url":0}]}}