{"header":{"xyz":{"source":[],"mosaic":false},"page":1155,"raw":{"soiltest_result":"0","bbox":"57.598333,109.544722,1.933333,163.806111","page":"1155"},"conditions":{"soiltest_result":0,"north":57.598333,"west":109.544722,"south":1.933333,"east":163.806111},"success":true,"message":""},"data":{"meta":{"total":212844,"page":1155,"pages":7095,"count":30},"values":[{"id":510740,"code":"B4KJ202201001-3276","latitude":"36.582904","longitude":"137.446354","source_code":"HR1684476020100005","project_name":"","survey_name":"\"\u5e73\u621028\u5e74\u5ea6 \u7acb\u5c71\u7802\u9632\u4e8b\u52d9\u6240\u7ba1\u5185\u7802\u9632\u65bd\u8a2d\u5730\u8cea\u8abf\u67fb\u696d\u52d9\"","client_name":"\"\u56fd\u571f\u4ea4\u901a\u7701 \u5317\u9678\u5730\u65b9\u6574\u5099\u5c40 \u7acb\u5c71\u7802\u9632\u4e8b\u52d9\u6240 \u8abf\u67fb\u8ab2\"","boring_xml_url":64,"boring_view_url":1,"soilmap_view_url":null,"soiltest_xml_url":0,"soiltest_view_url":0},{"id":510739,"code":"B4KJ202201001-3275","latitude":"36.544527","longitude":"137.534579","source_code":"HR1684476020100004","project_name":"","survey_name":"\"\u5e73\u621028\u5e74\u5ea6 \u7acb\u5c71\u7802\u9632\u4e8b\u52d9\u6240\u7ba1\u5185\u7802\u9632\u65bd\u8a2d\u5730\u8cea\u8abf\u67fb\u696d\u52d9\"","client_name":"\"\u56fd\u571f\u4ea4\u901a\u7701 \u5317\u9678\u5730\u65b9\u6574\u5099\u5c40 \u7acb\u5c71\u7802\u9632\u4e8b\u52d9\u6240 \u8abf\u67fb\u8ab2\"","boring_xml_url":64,"boring_view_url":1,"soilmap_view_url":null,"soiltest_xml_url":0,"soiltest_view_url":0},{"id":510738,"code":"B4KJ202201001-3274","latitude":"36.548054","longitude":"137.534171","source_code":"HR1684476020100003","project_name":"","survey_name":"\"\u5e73\u621028\u5e74\u5ea6 \u7acb\u5c71\u7802\u9632\u4e8b\u52d9\u6240\u7ba1\u5185\u7802\u9632\u65bd\u8a2d\u5730\u8cea\u8abf\u67fb\u696d\u52d9\"","client_name":"\"\u56fd\u571f\u4ea4\u901a\u7701 \u5317\u9678\u5730\u65b9\u6574\u5099\u5c40 \u7acb\u5c71\u7802\u9632\u4e8b\u52d9\u6240 \u8abf\u67fb\u8ab2\"","boring_xml_url":64,"boring_view_url":1,"soilmap_view_url":null,"soiltest_xml_url":0,"soiltest_view_url":0},{"id":510737,"code":"B4KJ202201001-3273","latitude":"36.546138","longitude":"137.517813","source_code":"HR1684476020100002","project_name":"","survey_name":"\"\u5e73\u621028\u5e74\u5ea6 \u7acb\u5c71\u7802\u9632\u4e8b\u52d9\u6240\u7ba1\u5185\u7802\u9632\u65bd\u8a2d\u5730\u8cea\u8abf\u67fb\u696d\u52d9\"","client_name":"\"\u56fd\u571f\u4ea4\u901a\u7701 \u5317\u9678\u5730\u65b9\u6574\u5099\u5c40 \u7acb\u5c71\u7802\u9632\u4e8b\u52d9\u6240 \u8abf\u67fb\u8ab2\"","boring_xml_url":64,"boring_view_url":1,"soilmap_view_url":null,"soiltest_xml_url":0,"soiltest_view_url":0},{"id":510736,"code":"B4KJ202201001-3272","latitude":"36.546227","longitude":"137.517826","source_code":"HR1684476020100001","project_name":"","survey_name":"\"\u5e73\u621028\u5e74\u5ea6 \u7acb\u5c71\u7802\u9632\u4e8b\u52d9\u6240\u7ba1\u5185\u7802\u9632\u65bd\u8a2d\u5730\u8cea\u8abf\u67fb\u696d\u52d9\"","client_name":"\"\u56fd\u571f\u4ea4\u901a\u7701 \u5317\u9678\u5730\u65b9\u6574\u5099\u5c40 \u7acb\u5c71\u7802\u9632\u4e8b\u52d9\u6240 \u8abf\u67fb\u8ab2\"","boring_xml_url":64,"boring_view_url":1,"soilmap_view_url":null,"soiltest_xml_url":0,"soiltest_view_url":0},{"id":510735,"code":"B4KJ202201001-3271","latitude":"36.698721","longitude":"137.257699","source_code":"HR1684456120130022","project_name":"\u65b0\u5e84\u5730\u533a","survey_name":"\u5e73\u621028\u5e74\u5ea6\u3000\u5bcc\u5c71\u7ba1\u5185\u5730\u8cea\u8abf\u67fb\u696d\u52d9","client_name":"\u56fd\u4ea4\u7701\u5317\u9678\u5730\u65b9\u6574\u5099\u5c40\u5bcc\u5c71\u6cb3\u5ddd\u56fd\u9053\u4e8b\u52d9\u6240\u8abf\u67fb\u7b2c\u4e8c\u8ab2","boring_xml_url":64,"boring_view_url":1,"soilmap_view_url":null,"soiltest_xml_url":0,"soiltest_view_url":0},{"id":510734,"code":"B4KJ202201001-3270","latitude":"36.698027","longitude":"137.256977","source_code":"HR1684456120130021","project_name":"\u65b0\u5e84\u5730\u533a","survey_name":"\u5e73\u621028\u5e74\u5ea6\u3000\u5bcc\u5c71\u7ba1\u5185\u5730\u8cea\u8abf\u67fb\u696d\u52d9","client_name":"\u56fd\u4ea4\u7701\u5317\u9678\u5730\u65b9\u6574\u5099\u5c40\u5bcc\u5c71\u6cb3\u5ddd\u56fd\u9053\u4e8b\u52d9\u6240\u8abf\u67fb\u7b2c\u4e8c\u8ab2","boring_xml_url":64,"boring_view_url":1,"soilmap_view_url":null,"soiltest_xml_url":0,"soiltest_view_url":0},{"id":510733,"code":"B4KJ202201001-3269","latitude":"36.70836","longitude":"136.923532","source_code":"HR1684456120130020","project_name":"\u9ad8\u5ca1\u56fd\u9053\u7dad\u6301\u51fa\u5f35\u6240\u79fb\u8ee2","survey_name":"\u5e73\u621028\u5e74\u5ea6\u3000\u5bcc\u5c71\u7ba1\u5185\u5730\u8cea\u8abf\u67fb\u696d\u52d9","client_name":"\u56fd\u4ea4\u7701\u5317\u9678\u5730\u65b9\u6574\u5099\u5c40\u5bcc\u5c71\u6cb3\u5ddd\u56fd\u9053\u4e8b\u52d9\u6240\u8abf\u67fb\u7b2c\u4e8c\u8ab2","boring_xml_url":64,"boring_view_url":1,"soilmap_view_url":null,"soiltest_xml_url":0,"soiltest_view_url":0},{"id":510732,"code":"B4KJ202201001-3268","latitude":"36.726499","longitude":"137.228643","source_code":"HR1684456120130019","project_name":"\u8c4a\u7530\u65b0\u5c4b\u7acb\u4f53\u4e8b\u696d\u3000\u8c4a\u7530\u5730\u533a\u9053\u8def","survey_name":"\u5e73\u621028\u5e74\u5ea6\u3000\u5bcc\u5c71\u7ba1\u5185\u5730\u8cea\u8abf\u67fb\u696d\u52d9","client_name":"\u56fd\u4ea4\u7701\u5317\u9678\u5730\u65b9\u6574\u5099\u5c40\u5bcc\u5c71\u6cb3\u5ddd\u56fd\u9053\u4e8b\u52d9\u6240\u8abf\u67fb\u7b2c\u4e8c\u8ab2","boring_xml_url":64,"boring_view_url":1,"soilmap_view_url":null,"soiltest_xml_url":0,"soiltest_view_url":0},{"id":510731,"code":"B4KJ202201001-3267","latitude":"36.725721","longitude":"137.229227","source_code":"HR1684456120130018","project_name":"\u8c4a\u7530\u65b0\u5c4b\u7acb\u4f53\u4e8b\u696d\u3000\u8c4a\u7530\u5730\u533a\u9053\u8def","survey_name":"\u5e73\u621028\u5e74\u5ea6\u3000\u5bcc\u5c71\u7ba1\u5185\u5730\u8cea\u8abf\u67fb\u696d\u52d9","client_name":"\u56fd\u4ea4\u7701\u5317\u9678\u5730\u65b9\u6574\u5099\u5c40\u5bcc\u5c71\u6cb3\u5ddd\u56fd\u9053\u4e8b\u52d9\u6240\u8abf\u67fb\u7b2c\u4e8c\u8ab2","boring_xml_url":64,"boring_view_url":1,"soilmap_view_url":null,"soiltest_xml_url":0,"soiltest_view_url":0},{"id":510730,"code":"B4KJ202201001-3266","latitude":"36.725305","longitude":"137.230727","source_code":"HR1684456120130017","project_name":"\u8c4a\u7530\u65b0\u5c4b\u7acb\u4f53\u4e8b\u696d\u3000\u8c4a\u7530\u5730\u533a\u9053\u8def","survey_name":"\u5e73\u621028\u5e74\u5ea6\u3000\u5bcc\u5c71\u7ba1\u5185\u5730\u8cea\u8abf\u67fb\u696d\u52d9","client_name":"\u56fd\u4ea4\u7701\u5317\u9678\u5730\u65b9\u6574\u5099\u5c40\u5bcc\u5c71\u6cb3\u5ddd\u56fd\u9053\u4e8b\u52d9\u6240\u8abf\u67fb\u7b2c\u4e8c\u8ab2","boring_xml_url":64,"boring_view_url":1,"soilmap_view_url":null,"soiltest_xml_url":0,"soiltest_view_url":0},{"id":510729,"code":"B4KJ202201001-3265","latitude":"36.724749","longitude":"137.231782","source_code":"HR1684456120130016","project_name":"\u8c4a\u7530\u65b0\u5c4b\u7acb\u4f53\u4e8b\u696d\u3000\u8c4a\u7530\u5730\u533a\u9053\u8def","survey_name":"\u5e73\u621028\u5e74\u5ea6\u3000\u5bcc\u5c71\u7ba1\u5185\u5730\u8cea\u8abf\u67fb\u696d\u52d9","client_name":"\u56fd\u4ea4\u7701\u5317\u9678\u5730\u65b9\u6574\u5099\u5c40\u5bcc\u5c71\u6cb3\u5ddd\u56fd\u9053\u4e8b\u52d9\u6240\u8abf\u67fb\u7b2c\u4e8c\u8ab2","boring_xml_url":64,"boring_view_url":1,"soilmap_view_url":null,"soiltest_xml_url":0,"soiltest_view_url":0},{"id":510728,"code":"B4KJ202201001-3264","latitude":"36.724694","longitude":"137.233421","source_code":"HR1684456120130015","project_name":"\u8c4a\u7530\u65b0\u5c4b\u7acb\u4f53\u4e8b\u696d\u3000\u8c4a\u7530\u9ad8\u67b6\u6a4b","survey_name":"\u5e73\u621028\u5e74\u5ea6\u3000\u5bcc\u5c71\u7ba1\u5185\u5730\u8cea\u8abf\u67fb\u696d\u52d9","client_name":"\u56fd\u4ea4\u7701\u5317\u9678\u5730\u65b9\u6574\u5099\u5c40\u5bcc\u5c71\u6cb3\u5ddd\u56fd\u9053\u4e8b\u52d9\u6240\u8abf\u67fb\u7b2c\u4e8c\u8ab2","boring_xml_url":64,"boring_view_url":1,"soilmap_view_url":null,"soiltest_xml_url":0,"soiltest_view_url":0},{"id":510727,"code":"B4KJ202201001-3263","latitude":"36.724666","longitude":"137.234671","source_code":"HR1684456120130014","project_name":"\u8c4a\u7530\u65b0\u5c4b\u7acb\u4f53\u4e8b\u696d\u3000\u8c4a\u7530\u9ad8\u67b6\u6a4b","survey_name":"\u5e73\u621028\u5e74\u5ea6\u3000\u5bcc\u5c71\u7ba1\u5185\u5730\u8cea\u8abf\u67fb\u696d\u52d9","client_name":"\u56fd\u4ea4\u7701\u5317\u9678\u5730\u65b9\u6574\u5099\u5c40\u5bcc\u5c71\u6cb3\u5ddd\u56fd\u9053\u4e8b\u52d9\u6240\u8abf\u67fb\u7b2c\u4e8c\u8ab2","boring_xml_url":64,"boring_view_url":1,"soilmap_view_url":null,"soiltest_xml_url":0,"soiltest_view_url":0},{"id":510726,"code":"B4KJ202201001-3262","latitude":"36.723888","longitude":"137.23856","source_code":"HR1684456120130013","project_name":"\u8c4a\u7530\u65b0\u5c4b\u7acb\u4f53\u4e8b\u696d\u3000\u8c4a\u7530\u5730\u533a\u9053\u8def","survey_name":"\u5e73\u621028\u5e74\u5ea6\u3000\u5bcc\u5c71\u7ba1\u5185\u5730\u8cea\u8abf\u67fb\u696d\u52d9","client_name":"\u56fd\u4ea4\u7701\u5317\u9678\u5730\u65b9\u6574\u5099\u5c40\u5bcc\u5c71\u6cb3\u5ddd\u56fd\u9053\u4e8b\u52d9\u6240\u8abf\u67fb\u7b2c\u4e8c\u8ab2","boring_xml_url":64,"boring_view_url":1,"soilmap_view_url":null,"soiltest_xml_url":0,"soiltest_view_url":0},{"id":510725,"code":"B4KJ202201001-3261","latitude":"36.724027","longitude":"137.239616","source_code":"HR1684456120130012","project_name":"\u8c4a\u7530\u65b0\u5c4b\u7acb\u4f53\u4e8b\u696d\u3000\u5bcc\u5c71\u8de8\u7dda\u6a4b","survey_name":"\u5e73\u621028\u5e74\u5ea6\u3000\u5bcc\u5c71\u7ba1\u5185\u5730\u8cea\u8abf\u67fb\u696d\u52d9","client_name":"\u56fd\u4ea4\u7701\u5317\u9678\u5730\u65b9\u6574\u5099\u5c40\u5bcc\u5c71\u6cb3\u5ddd\u56fd\u9053\u4e8b\u52d9\u6240\u8abf\u67fb\u7b2c\u4e8c\u8ab2","boring_xml_url":64,"boring_view_url":1,"soilmap_view_url":null,"soiltest_xml_url":0,"soiltest_view_url":0},{"id":510724,"code":"B4KJ202201001-3260","latitude":"36.723666","longitude":"137.240671","source_code":"HR1684456120130011","project_name":"\u8c4a\u7530\u65b0\u5c4b\u7acb\u4f53\u4e8b\u696d\u3000\u5bcc\u5c71\u8de8\u7dda\u6a4b","survey_name":"\u5e73\u621028\u5e74\u5ea6\u3000\u5bcc\u5c71\u7ba1\u5185\u5730\u8cea\u8abf\u67fb\u696d\u52d9","client_name":"\u56fd\u4ea4\u7701\u5317\u9678\u5730\u65b9\u6574\u5099\u5c40\u5bcc\u5c71\u6cb3\u5ddd\u56fd\u9053\u4e8b\u52d9\u6240\u8abf\u67fb\u7b2c\u4e8c\u8ab2","boring_xml_url":64,"boring_view_url":1,"soilmap_view_url":null,"soiltest_xml_url":0,"soiltest_view_url":0},{"id":510723,"code":"B4KJ202201001-3259","latitude":"36.723638","longitude":"137.241393","source_code":"HR1684456120130010","project_name":"\u8c4a\u7530\u65b0\u5c4b\u7acb\u4f53\u4e8b\u696d\u3000\u5bcc\u5c71\u8de8\u7dda\u6a4b","survey_name":"\u5e73\u621028\u5e74\u5ea6\u3000\u5bcc\u5c71\u7ba1\u5185\u5730\u8cea\u8abf\u67fb\u696d\u52d9","client_name":"\u56fd\u4ea4\u7701\u5317\u9678\u5730\u65b9\u6574\u5099\u5c40\u5bcc\u5c71\u6cb3\u5ddd\u56fd\u9053\u4e8b\u52d9\u6240\u8abf\u67fb\u7b2c\u4e8c\u8ab2","boring_xml_url":64,"boring_view_url":1,"soilmap_view_url":null,"soiltest_xml_url":0,"soiltest_view_url":0},{"id":510722,"code":"B4KJ202201001-3258","latitude":"36.722805","longitude":"137.244671","source_code":"HR1684456120130009","project_name":"\u8c4a\u7530\u65b0\u5c4b\u7acb\u4f53\u4e8b\u696d\u3000\u5bcc\u5c71\u8de8\u7dda\u6a4b","survey_name":"\u5e73\u621028\u5e74\u5ea6\u3000\u5bcc\u5c71\u7ba1\u5185\u5730\u8cea\u8abf\u67fb\u696d\u52d9","client_name":"\u56fd\u4ea4\u7701\u5317\u9678\u5730\u65b9\u6574\u5099\u5c40\u5bcc\u5c71\u6cb3\u5ddd\u56fd\u9053\u4e8b\u52d9\u6240\u8abf\u67fb\u7b2c\u4e8c\u8ab2","boring_xml_url":64,"boring_view_url":1,"soilmap_view_url":null,"soiltest_xml_url":0,"soiltest_view_url":0},{"id":510721,"code":"B4KJ202201001-3257","latitude":"36.722749","longitude":"137.245616","source_code":"HR1684456120130008","project_name":"\u8c4a\u7530\u65b0\u5c4b\u7acb\u4f53\u4e8b\u696d\u3000\u5bcc\u5c71\u8de8\u7dda\u6a4b","survey_name":"\u5e73\u621028\u5e74\u5ea6\u3000\u5bcc\u5c71\u7ba1\u5185\u5730\u8cea\u8abf\u67fb\u696d\u52d9","client_name":"\u56fd\u4ea4\u7701\u5317\u9678\u5730\u65b9\u6574\u5099\u5c40\u5bcc\u5c71\u6cb3\u5ddd\u56fd\u9053\u4e8b\u52d9\u6240\u8abf\u67fb\u7b2c\u4e8c\u8ab2","boring_xml_url":64,"boring_view_url":1,"soilmap_view_url":null,"soiltest_xml_url":0,"soiltest_view_url":0},{"id":510720,"code":"B4KJ202201001-3256","latitude":"36.722582","longitude":"137.246366","source_code":"HR1684456120130007","project_name":"\u8c4a\u7530\u65b0\u5c4b\u7acb\u4f53\u4e8b\u696d\u3000\u65b0\u5c4b\u5730\u533a\u9053\u8def","survey_name":"\u5e73\u621028\u5e74\u5ea6\u3000\u5bcc\u5c71\u7ba1\u5185\u5730\u8cea\u8abf\u67fb\u696d\u52d9","client_name":"\u56fd\u4ea4\u7701\u5317\u9678\u5730\u65b9\u6574\u5099\u5c40\u5bcc\u5c71\u6cb3\u5ddd\u56fd\u9053\u4e8b\u52d9\u6240\u8abf\u67fb\u7b2c\u4e8c\u8ab2","boring_xml_url":64,"boring_view_url":1,"soilmap_view_url":null,"soiltest_xml_url":0,"soiltest_view_url":0},{"id":510719,"code":"B4KJ202201001-3255","latitude":"36.722138","longitude":"137.248005","source_code":"HR1684456120130006","project_name":"\u8c4a\u7530\u65b0\u5c4b\u7acb\u4f53\u4e8b\u696d\u3000\u65b0\u5c4b\u5730\u533a\u9053\u8def","survey_name":"\u5e73\u621028\u5e74\u5ea6\u3000\u5bcc\u5c71\u7ba1\u5185\u5730\u8cea\u8abf\u67fb\u696d\u52d9","client_name":"\u56fd\u4ea4\u7701\u5317\u9678\u5730\u65b9\u6574\u5099\u5c40\u5bcc\u5c71\u6cb3\u5ddd\u56fd\u9053\u4e8b\u52d9\u6240\u8abf\u67fb\u7b2c\u4e8c\u8ab2","boring_xml_url":64,"boring_view_url":1,"soilmap_view_url":null,"soiltest_xml_url":0,"soiltest_view_url":0},{"id":510718,"code":"B4KJ202201001-3254","latitude":"36.721055","longitude":"137.251421","source_code":"HR1684456120130005","project_name":"\u8c4a\u7530\u65b0\u5c4b\u7acb\u4f53\u4e8b\u696d\u3000\u65b0\u5c4b\u5730\u533a\u9053\u8def","survey_name":"\u5e73\u621028\u5e74\u5ea6\u3000\u5bcc\u5c71\u7ba1\u5185\u5730\u8cea\u8abf\u67fb\u696d\u52d9","client_name":"\u56fd\u4ea4\u7701\u5317\u9678\u5730\u65b9\u6574\u5099\u5c40\u5bcc\u5c71\u6cb3\u5ddd\u56fd\u9053\u4e8b\u52d9\u6240\u8abf\u67fb\u7b2c\u4e8c\u8ab2","boring_xml_url":64,"boring_view_url":1,"soilmap_view_url":null,"soiltest_xml_url":0,"soiltest_view_url":0},{"id":510717,"code":"B4KJ202201001-3253","latitude":"36.720832","longitude":"137.25531","source_code":"HR1684456120130004","project_name":"\u8c4a\u7530\u65b0\u5c4b\u7acb\u4f53\u4e8b\u696d\u3000\u65b0\u5c4b\u5730\u533a\u9053\u8def","survey_name":"\u5e73\u621028\u5e74\u5ea6\u3000\u5bcc\u5c71\u7ba1\u5185\u5730\u8cea\u8abf\u67fb\u696d\u52d9","client_name":"\u56fd\u4ea4\u7701\u5317\u9678\u5730\u65b9\u6574\u5099\u5c40\u5bcc\u5c71\u6cb3\u5ddd\u56fd\u9053\u4e8b\u52d9\u6240\u8abf\u67fb\u7b2c\u4e8c\u8ab2","boring_xml_url":64,"boring_view_url":1,"soilmap_view_url":null,"soiltest_xml_url":0,"soiltest_view_url":0},{"id":510716,"code":"B4KJ202201001-3252","latitude":"36.679304","longitude":"136.82631","source_code":"HR1684456120130003","project_name":"\u5036\u5229\u4f3d\u7f85\u9632\u707d\u4e8b\u696d\uff08\u5bcc\u5c71\u770c\u5074\uff09\u3000\u4e57\u8d8a\u5730\u3059\u3079\u308a","survey_name":"\u5e73\u621028\u5e74\u5ea6\u3000\u5bcc\u5c71\u7ba1\u5185\u5730\u8cea\u8abf\u67fb\u696d\u52d9","client_name":"\u56fd\u4ea4\u7701\u5317\u9678\u5730\u65b9\u6574\u5099\u5c40\u5bcc\u5c71\u6cb3\u5ddd\u56fd\u9053\u4e8b\u52d9\u6240\u8abf\u67fb\u7b2c\u4e8c\u8ab2","boring_xml_url":64,"boring_view_url":1,"soilmap_view_url":null,"soiltest_xml_url":0,"soiltest_view_url":0},{"id":510715,"code":"B4KJ202201001-3251","latitude":"36.678027","longitude":"136.826838","source_code":"HR1684456120130002","project_name":"\u5036\u5229\u4f3d\u7f85\u9632\u707d\u4e8b\u696d\uff08\u5bcc\u5c71\u770c\u5074\uff09\u3000\u4e57\u8d8a\u5730\u3059\u3079\u308a","survey_name":"\u5e73\u621028\u5e74\u5ea6\u3000\u5bcc\u5c71\u7ba1\u5185\u5730\u8cea\u8abf\u67fb\u696d\u52d9","client_name":"\u56fd\u4ea4\u7701\u5317\u9678\u5730\u65b9\u6574\u5099\u5c40\u5bcc\u5c71\u6cb3\u5ddd\u56fd\u9053\u4e8b\u52d9\u6240\u8abf\u67fb\u7b2c\u4e8c\u8ab2","boring_xml_url":64,"boring_view_url":1,"soilmap_view_url":null,"soiltest_xml_url":0,"soiltest_view_url":0},{"id":510714,"code":"B4KJ202201001-3250","latitude":"36.678165","longitude":"136.829171","source_code":"HR1684456120130001","project_name":"\u5036\u5229\u4f3d\u7f85\u9632\u707d\u4e8b\u696d\uff08\u5bcc\u5c71\u770c\u5074\uff09\u3000\u5c0f\u795e\u574a\u8c37","survey_name":"\u5e73\u621028\u5e74\u5ea6\u3000\u5bcc\u5c71\u7ba1\u5185\u5730\u8cea\u8abf\u67fb\u696d\u52d9","client_name":"\u56fd\u4ea4\u7701\u5317\u9678\u5730\u65b9\u6574\u5099\u5c40\u5bcc\u5c71\u6cb3\u5ddd\u56fd\u9053\u4e8b\u52d9\u6240\u8abf\u67fb\u7b2c\u4e8c\u8ab2","boring_xml_url":64,"boring_view_url":1,"soilmap_view_url":null,"soiltest_xml_url":0,"soiltest_view_url":0},{"id":510713,"code":"B4KJ202201001-3249","latitude":"36.858394","longitude":"138.627653","source_code":"HR1584356020160003","project_name":"","survey_name":"\u4e2d\u6d25\u5ddd\u6d41\u57df\u5927\u898f\u6a21\u571f\u7802\u707d\u5bb3\u767a\u751f\u5371\u967a\u5ea6\u8abf\u67fb\u691c\u8a0e\u696d\u52d9","client_name":"\u56fd\u571f\u4ea4\u901a\u7701\u5317\u9678\u5730\u65b9\u6574\u5099\u5c40\u6e6f\u6ca2\u7802\u9632\u4e8b\u52d9\u6240","boring_xml_url":64,"boring_view_url":1,"soilmap_view_url":null,"soiltest_xml_url":0,"soiltest_view_url":0},{"id":510712,"code":"B4KJ202201001-3248","latitude":"36.861783","longitude":"138.634023","source_code":"HR1584356020160002","project_name":"","survey_name":"\u4e2d\u6d25\u5ddd\u6d41\u57df\u5927\u898f\u6a21\u571f\u7802\u707d\u5bb3\u767a\u751f\u5371\u967a\u5ea6\u8abf\u67fb\u691c\u8a0e\u696d\u52d9","client_name":"\u56fd\u571f\u4ea4\u901a\u7701\u5317\u9678\u5730\u65b9\u6574\u5099\u5c40\u6e6f\u6ca2\u7802\u9632\u4e8b\u52d9\u6240","boring_xml_url":64,"boring_view_url":1,"soilmap_view_url":null,"soiltest_xml_url":0,"soiltest_view_url":0},{"id":510711,"code":"B4KJ202201001-3247","latitude":"36.855511","longitude":"138.642914","source_code":"HR1584356020160001","project_name":"","survey_name":"\u4e2d\u6d25\u5ddd\u6d41\u57df\u5927\u898f\u6a21\u571f\u7802\u707d\u5bb3\u767a\u751f\u5371\u967a\u5ea6\u8abf\u67fb\u691c\u8a0e\u696d\u52d9","client_name":"\u56fd\u571f\u4ea4\u901a\u7701\u5317\u9678\u5730\u65b9\u6574\u5099\u5c40\u6e6f\u6ca2\u7802\u9632\u4e8b\u52d9\u6240","boring_xml_url":64,"boring_view_url":1,"soilmap_view_url":null,"soiltest_xml_url":0,"soiltest_view_url":0}]}}