{"header":{"xyz":{"source":[],"mosaic":false},"page":1157,"raw":{"soiltest_result":"0","bbox":"57.598333,109.544722,1.933333,163.806111","page":"1157"},"conditions":{"soiltest_result":0,"north":57.598333,"west":109.544722,"south":1.933333,"east":163.806111},"success":true,"message":""},"data":{"meta":{"total":212844,"page":1157,"pages":7095,"count":30},"values":[{"id":510680,"code":"B4KJ202201001-3216","latitude":"37.663346","longitude":"138.784025","source_code":"HR1584334620190005","project_name":"\u5de6\u5cb8\u5074\u4e0b\u90e8\u5730\u8cea\u8abf\u67fb","survey_name":"\u5927\u6cb3\u6d25\u5206\u6c34\u8def\u6cb3\u53e3\u90e8\u5730\u8cea\u8abf\u67fb\u696d\u52d9","client_name":"\u56fd\u571f\u4ea4\u901a\u7701\u5317\u9678\u5730\u65b9\u6574\u5099\u5c40\u4fe1\u6fc3\u5ddd\u6cb3\u5ddd\u4e8b\u52d9\u6240\u8a08\u753b\u8ab2","boring_xml_url":64,"boring_view_url":1,"soilmap_view_url":null,"soiltest_xml_url":0,"soiltest_view_url":0},{"id":510679,"code":"B4KJ202201001-3215","latitude":"37.664582","longitude":"138.784808","source_code":"HR1584334620190004","project_name":"\u7b2c\u4e8c\u5e8a\u56fa\u526f\u5830\u5824\u8ef8\u4e0a\u90e8\u5730\u8cea\u8abf\u67fb","survey_name":"\u5927\u6cb3\u6d25\u5206\u6c34\u8def\u6cb3\u53e3\u90e8\u5730\u8cea\u8abf\u67fb\u696d\u52d9","client_name":"\u56fd\u571f\u4ea4\u901a\u7701\u5317\u9678\u5730\u65b9\u6574\u5099\u5c40\u4fe1\u6fc3\u5ddd\u6cb3\u5ddd\u4e8b\u52d9\u6240\u8a08\u753b\u8ab2","boring_xml_url":64,"boring_view_url":1,"soilmap_view_url":null,"soiltest_xml_url":0,"soiltest_view_url":0},{"id":510678,"code":"B4KJ202201001-3214","latitude":"37.664585","longitude":"138.78468","source_code":"HR1584334620190003","project_name":"\u7b2c\u4e8c\u5e8a\u56fa\u526f\u5830\u5824\u4e0b\u6d41\u5074\u5730\u8cea\u8abf\u67fb(\u6c34\u4e0a)","survey_name":"\u5927\u6cb3\u6d25\u5206\u6c34\u8def\u6cb3\u53e3\u90e8\u5730\u8cea\u8abf\u67fb\u696d\u52d9","client_name":"\u56fd\u571f\u4ea4\u901a\u7701\u5317\u9678\u5730\u65b9\u6574\u5099\u5c40\u4fe1\u6fc3\u5ddd\u6cb3\u5ddd\u4e8b\u52d9\u6240\u8a08\u753b\u8ab2","boring_xml_url":64,"boring_view_url":1,"soilmap_view_url":null,"soiltest_xml_url":0,"soiltest_view_url":0},{"id":510677,"code":"B4KJ202201001-3213","latitude":"37.664432","longitude":"138.7848","source_code":"HR1584334620190002","project_name":"\u7b2c\u4e8c\u5e8a\u56fa\u526f\u5830\u5824\u8ef8\u4e0a\u90e8\u5730\u8cea\u8abf\u67fb","survey_name":"\u5927\u6cb3\u6d25\u5206\u6c34\u8def\u6cb3\u53e3\u90e8\u5730\u8cea\u8abf\u67fb\u696d\u52d9","client_name":"\u56fd\u571f\u4ea4\u901a\u7701\u5317\u9678\u5730\u65b9\u6574\u5099\u5c40\u4fe1\u6fc3\u5ddd\u6cb3\u5ddd\u4e8b\u52d9\u6240\u8a08\u753b\u8ab2","boring_xml_url":64,"boring_view_url":1,"soilmap_view_url":null,"soiltest_xml_url":0,"soiltest_view_url":0},{"id":510676,"code":"B4KJ202201001-3212","latitude":"37.664576","longitude":"138.784405","source_code":"HR1584334620190001","project_name":"\u7b2c\u4e8c\u5e8a\u56fa\u526f\u5830\u5824\u4e0b\u6d41\u5074\u5730\u8cea\u8abf\u67fb(\u6c34\u4e0a)","survey_name":"\u5927\u6cb3\u6d25\u5206\u6c34\u8def\u6cb3\u53e3\u90e8\u5730\u8cea\u8abf\u67fb\u696d\u52d9","client_name":"\u56fd\u571f\u4ea4\u901a\u7701\u5317\u9678\u5730\u65b9\u6574\u5099\u5c40\u4fe1\u6fc3\u5ddd\u6cb3\u5ddd\u4e8b\u52d9\u6240\u8a08\u753b\u8ab2","boring_xml_url":64,"boring_view_url":1,"soilmap_view_url":null,"soiltest_xml_url":0,"soiltest_view_url":0},{"id":510675,"code":"B4KJ202201001-3211","latitude":"36.223317","longitude":"137.562798","source_code":"HR1584706020120001","project_name":"","survey_name":"\u5e73\u621027\u5e74\u5ea6\u713c\u5cb3\u706b\u5c71\u5c71\u4f53\u69cb\u9020\u7b49\u8abf\u67fb\u696d\u52d9","client_name":"\u56fd\u571f\u4ea4\u901a\u7701\u5317\u9678\u5730\u65b9\u6574\u5099\u5c40\u795e\u901a\u5ddd\u6c34\u7cfb\u7802\u9632\u4e8b\u52d9\u6240","boring_xml_url":64,"boring_view_url":1,"soilmap_view_url":null,"soiltest_xml_url":0,"soiltest_view_url":0},{"id":510674,"code":"B4KJ202201001-3210","latitude":"36.247435","longitude":"137.578938","source_code":"HR1584706020080003","project_name":"","survey_name":"\u5e73\u621027\u5e74\u5ea6\u9ed2\u8c37\u6d41\u57df\u5730\u8cea\u8abf\u67fb\u696d\u52d9","client_name":"\u56fd\u571f\u4ea4\u901a\u7701\u5317\u9678\u5730\u65b9\u6574\u5099\u5c40\u795e\u901a\u5ddd\u6c34\u7cfb\u7802\u9632\u4e8b\u52d9\u6240","boring_xml_url":64,"boring_view_url":1,"soilmap_view_url":null,"soiltest_xml_url":0,"soiltest_view_url":0},{"id":510673,"code":"B4KJ202201001-3209","latitude":"36.246891","longitude":"137.578924","source_code":"HR1584706020080002","project_name":"","survey_name":"\u5e73\u621027\u5e74\u5ea6\u9ed2\u8c37\u6d41\u57df\u5730\u8cea\u8abf\u67fb\u696d\u52d9","client_name":"\u56fd\u571f\u4ea4\u901a\u7701\u5317\u9678\u5730\u65b9\u6574\u5099\u5c40\u795e\u901a\u5ddd\u6c34\u7cfb\u7802\u9632\u4e8b\u52d9\u6240","boring_xml_url":64,"boring_view_url":1,"soilmap_view_url":null,"soiltest_xml_url":0,"soiltest_view_url":0},{"id":510672,"code":"B4KJ202201001-3208","latitude":"36.247518","longitude":"137.579717","source_code":"HR1584706020080001","project_name":"","survey_name":"\u5e73\u621027\u5e74\u5ea6\u9ed2\u8c37\u6d41\u57df\u5730\u8cea\u8abf\u67fb\u696d\u52d9","client_name":"\u56fd\u571f\u4ea4\u901a\u7701\u5317\u9678\u5730\u65b9\u6574\u5099\u5c40\u795e\u901a\u5ddd\u6c34\u7cfb\u7802\u9632\u4e8b\u52d9\u6240","boring_xml_url":64,"boring_view_url":1,"soilmap_view_url":null,"soiltest_xml_url":0,"soiltest_view_url":0},{"id":510671,"code":"B4KJ202201001-3207","latitude":"36.335221","longitude":"137.304756","source_code":"HR1584706020050015","project_name":"","survey_name":"\"\u5e73\u621027\u5e74\u5ea6 \u9ad8\u539f\u5ddd\u6d41\u57df\u5730\u8cea\u8abf\u67fb\u696d\u52d9\"","client_name":"\u56fd\u571f\u4ea4\u901a\u7701\u5317\u9678\u5730\u65b9\u6574\u5099\u5c40\u795e\u901a\u5ddd\u6c34\u7cfb\u7802\u9632\u4e8b\u52d9\u6240","boring_xml_url":64,"boring_view_url":1,"soilmap_view_url":null,"soiltest_xml_url":0,"soiltest_view_url":0},{"id":510670,"code":"B4KJ202201001-3206","latitude":"36.252321","longitude":"137.578861","source_code":"HR1584706020050014","project_name":"","survey_name":"\u5e73\u621027\u5e74\u5ea6\u3000\u9ad8\u539f\u5ddd\u6d41\u57df\u5730\u8cea\u8abf\u67fb\u696d\u52d9","client_name":"\u56fd\u571f\u4ea4\u901a\u7701\u5317\u9678\u5730\u65b9\u6574\u5099\u5c40\u795e\u901a\u5ddd\u6c34\u7cfb\u7802\u9632\u4e8b\u52d9\u6240","boring_xml_url":64,"boring_view_url":1,"soilmap_view_url":null,"soiltest_xml_url":0,"soiltest_view_url":0},{"id":510669,"code":"B4KJ202201001-3205","latitude":"36.25291","longitude":"137.578478","source_code":"HR1584706020050013","project_name":"","survey_name":"\"\u5e73\u621027\u5e74\u5ea6 \u9ad8\u539f\u5ddd\u6d41\u57df\u5730\u8cea\u8abf\u67fb\u696d\u52d9\"","client_name":"\u56fd\u571f\u4ea4\u901a\u7701\u5317\u9678\u5730\u65b9\u6574\u5099\u5c40\u795e\u901a\u5ddd\u6c34\u7cfb\u7802\u9632\u4e8b\u52d9\u6240","boring_xml_url":64,"boring_view_url":1,"soilmap_view_url":null,"soiltest_xml_url":0,"soiltest_view_url":0},{"id":510668,"code":"B4KJ202201001-3204","latitude":"36.252616","longitude":"137.578753","source_code":"HR1584706020050012","project_name":"","survey_name":"\"\u5e73\u621027\u5e74\u5ea6 \u9ad8\u539f\u5ddd\u6d41\u57df\u5730\u8cea\u8abf\u67fb\u696d\u52d9\"","client_name":"\u56fd\u571f\u4ea4\u901a\u7701\u5317\u9678\u5730\u65b9\u6574\u5099\u5c40\u795e\u901a\u5ddd\u6c34\u7cfb\u7802\u9632\u4e8b\u52d9\u6240","boring_xml_url":64,"boring_view_url":1,"soilmap_view_url":null,"soiltest_xml_url":0,"soiltest_view_url":0},{"id":510667,"code":"B4KJ202201001-3203","latitude":"36.268221","longitude":"137.576712","source_code":"HR1584706020050011","project_name":"","survey_name":"\u5e73\u621027\u5e74\u5ea6\u3000\u9ad8\u539f\u5ddd\u6d41\u57df\u5730\u8cea\u8abf\u67fb\u696d\u52d9","client_name":"\u56fd\u571f\u4ea4\u901a\u7701\u5317\u9678\u5730\u65b9\u6574\u5099\u5c40\u795e\u901a\u5ddd\u6c34\u7cfb\u7802\u9632\u4e8b\u52d9\u6240","boring_xml_url":64,"boring_view_url":1,"soilmap_view_url":null,"soiltest_xml_url":0,"soiltest_view_url":0},{"id":510666,"code":"B4KJ202201001-3202","latitude":"36.26806","longitude":"137.57657","source_code":"HR1584706020050010","project_name":"","survey_name":"\u5e73\u621027\u5e74\u5ea6\u3000\u9ad8\u539f\u5ddd\u6d41\u57df\u5730\u8cea\u8abf\u67fb\u696d\u52d9","client_name":"\u56fd\u571f\u4ea4\u901a\u7701\u5317\u9678\u5730\u65b9\u6574\u5099\u5c40\u795e\u901a\u5ddd\u6c34\u7cfb\u7802\u9632\u4e8b\u52d9\u6240","boring_xml_url":64,"boring_view_url":1,"soilmap_view_url":null,"soiltest_xml_url":0,"soiltest_view_url":0},{"id":510665,"code":"B4KJ202201001-3201","latitude":"36.268133","longitude":"137.57722","source_code":"HR1584706020050009","project_name":"","survey_name":"\u5e73\u621027\u5e74\u5ea6\u3000\u9ad8\u539f\u5ddd\u6d41\u57df\u5730\u8cea\u8abf\u67fb\u696d\u52d9","client_name":"\u56fd\u571f\u4ea4\u901a\u7701\u5317\u9678\u5730\u65b9\u6574\u5099\u5c40\u795e\u901a\u5ddd\u6c34\u7cfb\u7802\u9632\u4e8b\u52d9\u6240","boring_xml_url":64,"boring_view_url":1,"soilmap_view_url":null,"soiltest_xml_url":0,"soiltest_view_url":0},{"id":510664,"code":"B4KJ202201001-3200","latitude":"36.267969","longitude":"137.577089","source_code":"HR1584706020050008","project_name":"","survey_name":"\u5e73\u621027\u5e74\u5ea6\u3000\u9ad8\u539f\u5ddd\u6d41\u57df\u5730\u8cea\u8abf\u67fb\u696d\u52d9","client_name":"\u56fd\u571f\u4ea4\u901a\u7701\u5317\u9678\u5730\u65b9\u6574\u5099\u5c40\u795e\u901a\u5ddd\u6c34\u7cfb\u7802\u9632\u4e8b\u52d9\u6240","boring_xml_url":64,"boring_view_url":1,"soilmap_view_url":null,"soiltest_xml_url":0,"soiltest_view_url":0},{"id":510663,"code":"B4KJ202201001-3199","latitude":"36.259835","longitude":"137.560984","source_code":"HR1584706020050007","project_name":"","survey_name":"\u5e73\u621027\u5e74\u5ea6\u3000\u9ad8\u539f\u5ddd\u6d41\u57df\u5730\u8cea\u8abf\u67fb\u696d\u52d9","client_name":"\u56fd\u571f\u4ea4\u901a\u7701\u5317\u9678\u5730\u65b9\u6574\u5099\u5c40\u795e\u901a\u5ddd\u6c34\u7cfb\u7802\u9632\u4e8b\u52d9\u6240","boring_xml_url":64,"boring_view_url":1,"soilmap_view_url":null,"soiltest_xml_url":0,"soiltest_view_url":0},{"id":510662,"code":"B4KJ202201001-3198","latitude":"36.259699","longitude":"137.560975","source_code":"HR1584706020050006","project_name":"","survey_name":"\u5e73\u621027\u5e74\u5ea6\u3000\u9ad8\u539f\u5ddd\u6d41\u57df\u5730\u8cea\u8abf\u67fb\u696d\u52d9","client_name":"\u56fd\u571f\u4ea4\u901a\u7701\u5317\u9678\u5730\u65b9\u6574\u5099\u5c40\u795e\u901a\u5ddd\u6c34\u7cfb\u7802\u9632\u4e8b\u52d9\u6240","boring_xml_url":64,"boring_view_url":1,"soilmap_view_url":null,"soiltest_xml_url":0,"soiltest_view_url":0},{"id":510661,"code":"B4KJ202201001-3197","latitude":"36.259605","longitude":"137.560973","source_code":"HR1584706020050005","project_name":"","survey_name":"\u5e73\u621027\u5e74\u5ea6\u3000\u9ad8\u539f\u5ddd\u6d41\u57df\u5730\u8cea\u8abf\u67fb\u696d\u52d9","client_name":"\u56fd\u571f\u4ea4\u901a\u7701\u5317\u9678\u5730\u65b9\u6574\u5099\u5c40\u795e\u901a\u5ddd\u6c34\u7cfb\u7802\u9632\u4e8b\u52d9\u6240","boring_xml_url":64,"boring_view_url":1,"soilmap_view_url":null,"soiltest_xml_url":0,"soiltest_view_url":0},{"id":510660,"code":"B4KJ202201001-3196","latitude":"36.290719","longitude":"137.589162","source_code":"HR1584706020050004","project_name":"","survey_name":"\u5e73\u621027\u5e74\u5ea6\u3000\u9ad8\u539f\u5ddd\u6d41\u57df\u5730\u8cea\u8abf\u67fb\u696d\u52d9","client_name":"\u56fd\u571f\u4ea4\u901a\u7701\u5317\u9678\u5730\u65b9\u6574\u5099\u5c40\u795e\u901a\u5ddd\u6c34\u7cfb\u7802\u9632\u4e8b\u52d9\u6240","boring_xml_url":64,"boring_view_url":1,"soilmap_view_url":null,"soiltest_xml_url":0,"soiltest_view_url":0},{"id":510659,"code":"B4KJ202201001-3195","latitude":"36.290905","longitude":"137.589573","source_code":"HR1584706020050003","project_name":"","survey_name":"\"\u5e73\u621027\u5e74\u5ea6 \u9ad8\u539f\u5ddd\u6d41\u57df\u5730\u8cea\u8abf\u67fb\u696d\u52d9\"","client_name":"\u56fd\u571f\u4ea4\u901a\u7701\u5317\u9678\u5730\u65b9\u6574\u5099\u5c40\u795e\u901a\u5ddd\u6c34\u7cfb\u7802\u9632\u4e8b\u52d9\u6240","boring_xml_url":64,"boring_view_url":1,"soilmap_view_url":null,"soiltest_xml_url":0,"soiltest_view_url":0},{"id":510658,"code":"B4KJ202201001-3194","latitude":"36.290116","longitude":"137.589445","source_code":"HR1584706020050002","project_name":"","survey_name":"\u5e73\u621027\u5e74\u5ea6\u3000\u9ad8\u539f\u5ddd\u6d41\u57df\u5730\u8cea\u8abf\u67fb\u696d\u52d9","client_name":"\u56fd\u571f\u4ea4\u901a\u7701\u5317\u9678\u5730\u65b9\u6574\u5099\u5c40\u795e\u901a\u5ddd\u6c34\u7cfb\u7802\u9632\u4e8b\u52d9\u6240","boring_xml_url":64,"boring_view_url":1,"soilmap_view_url":null,"soiltest_xml_url":0,"soiltest_view_url":0},{"id":510657,"code":"B4KJ202201001-3193","latitude":"36.291233","longitude":"137.588931","source_code":"HR1584706020050001","project_name":"","survey_name":"\u5e73\u621027\u5e74\u5ea6\u3000\u9ad8\u539f\u5ddd\u6d41\u57df\u5730\u8cea\u8abf\u67fb\u696d\u52d9","client_name":"\u56fd\u571f\u4ea4\u901a\u7701\u5317\u9678\u5730\u65b9\u6574\u5099\u5c40\u795e\u901a\u5ddd\u6c34\u7cfb\u7802\u9632\u4e8b\u52d9\u6240","boring_xml_url":64,"boring_view_url":1,"soilmap_view_url":null,"soiltest_xml_url":0,"soiltest_view_url":0},{"id":510656,"code":"B4KJ202201001-3192","latitude":"36.474999","longitude":"137.680282","source_code":"HR1584656020150003","project_name":"\u5e73\u621027\u5e74\u5ea6\u9ad8\u702c\u5ddd\u4e0a\u6d41\u90e8\u5730\u8cea\u8abf\u67fb\u696d\u52d9","survey_name":"\u5e73\u621027\u5e74\u5ea6\u9ad8\u702c\u5ddd\u4e0a\u6d41\u90e8\u5730\u8cea\u8abf\u67fb\u696d\u52d9","client_name":"\"\u56fd\u571f\u4ea4\u901a\u7701 \u5317\u9678\u5730\u65b9\u6574\u5099\u5c40 \u5343\u66f2\u5ddd\u6cb3\u5ddd\u4e8b\u52d9\u6240 \u8abf\u67fb\u8ab2\"","boring_xml_url":64,"boring_view_url":1,"soilmap_view_url":null,"soiltest_xml_url":0,"soiltest_view_url":0},{"id":510655,"code":"B4KJ202201001-3191","latitude":"36.449249","longitude":"137.683643","source_code":"HR1584656020150002","project_name":"\u5e73\u621027\u5e74\u5ea6\u9ad8\u702c\u5ddd\u4e0a\u6d41\u90e8\u5730\u8cea\u8abf\u67fb\u696d\u52d9","survey_name":"\u5e73\u621027\u5e74\u5ea6\u9ad8\u702c\u5ddd\u4e0a\u6d41\u90e8\u5730\u8cea\u8abf\u67fb\u696d\u52d9","client_name":"\"\u56fd\u571f\u4ea4\u901a\u7701 \u5317\u9678\u5730\u65b9\u6574\u5099\u5c40 \u5343\u66f2\u5ddd\u6cb3\u5ddd\u4e8b\u52d9\u6240 \u8abf\u67fb\u8ab2\"","boring_xml_url":64,"boring_view_url":1,"soilmap_view_url":null,"soiltest_xml_url":0,"soiltest_view_url":0},{"id":510654,"code":"B4KJ202201001-3190","latitude":"36.459083","longitude":"137.683282","source_code":"HR1584656020150001","project_name":"\u5e73\u621027\u5e74\u5ea6\u9ad8\u702c\u5ddd\u4e0a\u6d41\u90e8\u5730\u8cea\u8abf\u67fb\u696d\u52d9","survey_name":"\u5e73\u621027\u5e74\u5ea6\u9ad8\u702c\u5ddd\u4e0a\u6d41\u90e8\u5730\u8cea\u8abf\u67fb\u696d\u52d9","client_name":"\"\u56fd\u571f\u4ea4\u901a\u7701 \u5317\u9678\u5730\u65b9\u6574\u5099\u5c40 \u5343\u66f2\u5ddd\u6cb3\u5ddd\u4e8b\u52d9\u6240 \u8abf\u67fb\u8ab2\"","boring_xml_url":64,"boring_view_url":1,"soilmap_view_url":null,"soiltest_xml_url":0,"soiltest_view_url":0},{"id":510653,"code":"B4KJ202201001-3189","latitude":"38.018253","longitude":"139.913709","source_code":"HR1584556020160011","project_name":"\u6749\u7acb\u6ca2\u5730\u533a","survey_name":"\u98ef\u8c4a\u7ba1\u5185\u5730\u8cea\u8abf\u67fb\u305d\u306e2\u696d\u52d9","client_name":"\u56fd\u571f\u4ea4\u901a\u7701\u3000\u5317\u9678\u5730\u65b9\u6574\u5099\u5c40\u3000\u98ef\u8c4a\u5c71\u7cfb\u7802\u9632\u4e8b\u52d9\u6240","boring_xml_url":64,"boring_view_url":1,"soilmap_view_url":null,"soiltest_xml_url":0,"soiltest_view_url":0},{"id":510652,"code":"B4KJ202201001-3188","latitude":"38.018672","longitude":"139.914084","source_code":"HR1584556020160010","project_name":"\u6749\u7acb\u6ca2\u5730\u533a","survey_name":"\u98ef\u8c4a\u7ba1\u5185\u5730\u8cea\u8abf\u67fb\u305d\u306e2\u696d\u52d9","client_name":"\u56fd\u571f\u4ea4\u901a\u7701\u3000\u5317\u9678\u5730\u65b9\u6574\u5099\u5c40\u3000\u98ef\u8c4a\u5c71\u7cfb\u7802\u9632\u4e8b\u52d9\u6240","boring_xml_url":64,"boring_view_url":1,"soilmap_view_url":null,"soiltest_xml_url":0,"soiltest_view_url":0},{"id":510651,"code":"B4KJ202201001-3187","latitude":"38.018305","longitude":"139.913909","source_code":"HR1584556020160009","project_name":"\u6749\u7acb\u6ca2\u5730\u533a","survey_name":"\u98ef\u8c4a\u7ba1\u5185\u5730\u8cea\u8abf\u67fb\u305d\u306e2\u696d\u52d9","client_name":"\u56fd\u571f\u4ea4\u901a\u7701\u3000\u5317\u9678\u5730\u65b9\u6574\u5099\u5c40\u3000\u98ef\u8c4a\u5c71\u7cfb\u7802\u9632\u4e8b\u52d9\u6240","boring_xml_url":64,"boring_view_url":1,"soilmap_view_url":null,"soiltest_xml_url":0,"soiltest_view_url":0}]}}