{"header":{"xyz":{"source":[],"mosaic":false},"page":1170,"raw":{"soiltest_result":"0","bbox":"57.598333,109.544722,1.933333,163.806111","page":"1170"},"conditions":{"soiltest_result":0,"north":57.598333,"west":109.544722,"south":1.933333,"east":163.806111},"success":true,"message":""},"data":{"meta":{"total":212844,"page":1170,"pages":7095,"count":30},"values":[{"id":510290,"code":"B4KJ202201001-2826","latitude":"37.666285","longitude":"138.780755","source_code":"HR1484334620230001","project_name":"\u91ce\u7a4d\u6a4b\u4e0b\u6d41\u90e8\u53f3\u5cb8\u5074\u5730\u8cea\u8abf\u67fb","survey_name":"\u5927\u6cb3\u6d25\u5206\u6c34\u8def\u6cb3\u53e3\u90e8\u5730\u8cea\u8abf\u67fb(\u305d\u306e4)\u696d\u52d9","client_name":"\u56fd\u571f\u4ea4\u901a\u7701\u5317\u9678\u5730\u65b9\u6574\u5099\u5c40\u4fe1\u6fc3\u5ddd\u6cb3\u5ddd\u4e8b\u52d9\u6240","boring_xml_url":64,"boring_view_url":1,"soilmap_view_url":null,"soiltest_xml_url":0,"soiltest_view_url":0},{"id":510289,"code":"B4KJ202201001-2825","latitude":"37.640915","longitude":"138.826038","source_code":"HR1484334620190011","project_name":"\u5927\u6cb3\u6d25\u5206\u6c34\u8def\u53f3\u5cb8\u5730\u8cea\u8abf\u67fb\u696d\u52d9","survey_name":"\u5927\u6cb3\u6d25\u5206\u6c34\u8def\u53f3\u5cb8\u5730\u8cea\u8abf\u67fb\u696d\u52d9","client_name":"\u56fd\u571f\u4ea4\u901a\u7701\u5317\u9678\u5730\u65b9\u6574\u5099\u5c40\u4fe1\u6fc3\u5ddd\u6cb3\u5ddd\u4e8b\u52d9\u6240","boring_xml_url":64,"boring_view_url":1,"soilmap_view_url":null,"soiltest_xml_url":0,"soiltest_view_url":0},{"id":510288,"code":"B4KJ202201001-2824","latitude":"37.642748","longitude":"138.824482","source_code":"HR1484334620190010","project_name":"\u5927\u6cb3\u6d25\u5206\u6c34\u8def\u53f3\u5cb8\u5730\u8cea\u8abf\u67fb\u696d\u52d9","survey_name":"\u5927\u6cb3\u6d25\u5206\u6c34\u8def\u53f3\u5cb8\u5730\u8cea\u8abf\u67fb\u696d\u52d9","client_name":"\u56fd\u571f\u4ea4\u901a\u7701\u5317\u9678\u5730\u65b9\u6574\u5099\u5c40\u4fe1\u6fc3\u5ddd\u6cb3\u5ddd\u4e8b\u52d9\u6240","boring_xml_url":64,"boring_view_url":1,"soilmap_view_url":null,"soiltest_xml_url":0,"soiltest_view_url":0},{"id":510287,"code":"B4KJ202201001-2823","latitude":"37.644609","longitude":"138.824649","source_code":"HR1484334620190009","project_name":"\u5927\u6cb3\u6d25\u5206\u6c34\u8def\u53f3\u5cb8\u5730\u8cea\u8abf\u67fb\u696d\u52d9","survey_name":"\u5927\u6cb3\u6d25\u5206\u6c34\u8def\u53f3\u5cb8\u5730\u8cea\u8abf\u67fb\u696d\u52d9","client_name":"\u56fd\u571f\u4ea4\u901a\u7701\u5317\u9678\u5730\u65b9\u6574\u5099\u5c40\u4fe1\u6fc3\u5ddd\u6cb3\u5ddd\u4e8b\u52d9\u6240","boring_xml_url":64,"boring_view_url":1,"soilmap_view_url":null,"soiltest_xml_url":0,"soiltest_view_url":0},{"id":510286,"code":"B4KJ202201001-2822","latitude":"37.636832","longitude":"138.826176","source_code":"HR1484334620190008","project_name":"\u5927\u6cb3\u6d25\u5206\u6c34\u8def\u53f3\u5cb8\u5730\u8cea\u8abf\u67fb\u696d\u52d9","survey_name":"\u5927\u6cb3\u6d25\u5206\u6c34\u8def\u53f3\u5cb8\u5730\u8cea\u8abf\u67fb\u696d\u52d9","client_name":"\u56fd\u571f\u4ea4\u901a\u7701\u5317\u9678\u5730\u65b9\u6574\u5099\u5c40\u4fe1\u6fc3\u5ddd\u6cb3\u5ddd\u4e8b\u52d9\u6240","boring_xml_url":64,"boring_view_url":1,"soilmap_view_url":null,"soiltest_xml_url":0,"soiltest_view_url":0},{"id":510285,"code":"B4KJ202201001-2821","latitude":"37.644748","longitude":"138.81976","source_code":"HR1484334620190007","project_name":"\u5927\u6cb3\u6d25\u5206\u6c34\u8def\u53f3\u5cb8\u5730\u8cea\u8abf\u67fb\u696d\u52d9","survey_name":"\u5927\u6cb3\u6d25\u5206\u6c34\u8def\u53f3\u5cb8\u5730\u8cea\u8abf\u67fb\u696d\u52d9","client_name":"\u56fd\u571f\u4ea4\u901a\u7701\u5317\u9678\u5730\u65b9\u6574\u5099\u5c40\u4fe1\u6fc3\u5ddd\u6cb3\u5ddd\u4e8b\u52d9\u6240","boring_xml_url":64,"boring_view_url":1,"soilmap_view_url":null,"soiltest_xml_url":0,"soiltest_view_url":0},{"id":510284,"code":"B4KJ202201001-2820","latitude":"37.630887","longitude":"138.832065","source_code":"HR1484334620190006","project_name":"\u5927\u6cb3\u6d25\u5206\u6c34\u8def\u53f3\u5cb8\u5730\u8cea\u8abf\u67fb\u696d\u52d9","survey_name":"\u5927\u6cb3\u6d25\u5206\u6c34\u8def\u53f3\u5cb8\u5730\u8cea\u8abf\u67fb\u696d\u52d9","client_name":"\u56fd\u571f\u4ea4\u901a\u7701\u5317\u9678\u5730\u65b9\u6574\u5099\u5c40\u4fe1\u6fc3\u5ddd\u6cb3\u5ddd\u4e8b\u52d9\u6240","boring_xml_url":64,"boring_view_url":1,"soilmap_view_url":null,"soiltest_xml_url":0,"soiltest_view_url":0},{"id":510283,"code":"B4KJ202201001-2819","latitude":"37.632387","longitude":"138.830843","source_code":"HR1484334620190005","project_name":"\u5927\u6cb3\u6d25\u5206\u6c34\u8def\u53f3\u5cb8\u5730\u8cea\u8abf\u67fb\u696d\u52d9","survey_name":"\u5927\u6cb3\u6d25\u5206\u6c34\u8def\u53f3\u5cb8\u5730\u8cea\u8abf\u67fb\u696d\u52d9","client_name":"\u56fd\u571f\u4ea4\u901a\u7701\u5317\u9678\u5730\u65b9\u6574\u5099\u5c40\u4fe1\u6fc3\u5ddd\u6cb3\u5ddd\u4e8b\u52d9\u6240","boring_xml_url":64,"boring_view_url":1,"soilmap_view_url":null,"soiltest_xml_url":0,"soiltest_view_url":0},{"id":510282,"code":"B4KJ202201001-2818","latitude":"37.633832","longitude":"138.829649","source_code":"HR1484334620190004","project_name":"\u5927\u6cb3\u6d25\u5206\u6c34\u8def\u53f3\u5cb8\u5730\u8cea\u8abf\u67fb\u696d\u52d9","survey_name":"\u5927\u6cb3\u6d25\u5206\u6c34\u8def\u53f3\u5cb8\u5730\u8cea\u8abf\u67fb\u696d\u52d9","client_name":"\u56fd\u571f\u4ea4\u901a\u7701\u5317\u9678\u5730\u65b9\u6574\u5099\u5c40\u4fe1\u6fc3\u5ddd\u6cb3\u5ddd\u4e8b\u52d9\u6240","boring_xml_url":64,"boring_view_url":1,"soilmap_view_url":null,"soiltest_xml_url":0,"soiltest_view_url":0},{"id":510281,"code":"B4KJ202201001-2817","latitude":"37.637082","longitude":"138.827315","source_code":"HR1484334620190003","project_name":"\u5927\u6cb3\u6d25\u5206\u6c34\u8def\u53f3\u5cb8\u5730\u8cea\u8abf\u67fb\u696d\u52d9","survey_name":"\u5927\u6cb3\u6d25\u5206\u6c34\u8def\u53f3\u5cb8\u5730\u8cea\u8abf\u67fb\u696d\u52d9","client_name":"\u56fd\u571f\u4ea4\u901a\u7701\u5317\u9678\u5730\u65b9\u6574\u5099\u5c40\u4fe1\u6fc3\u5ddd\u6cb3\u5ddd\u4e8b\u52d9\u6240","boring_xml_url":64,"boring_view_url":1,"soilmap_view_url":null,"soiltest_xml_url":0,"soiltest_view_url":0},{"id":510280,"code":"B4KJ202201001-2816","latitude":"37.640554","longitude":"138.824204","source_code":"HR1484334620190002","project_name":"\u5927\u6cb3\u6d25\u5206\u6c34\u8def\u53f3\u5cb8\u5730\u8cea\u8abf\u67fb\u696d\u52d9","survey_name":"\u5927\u6cb3\u6d25\u5206\u6c34\u8def\u53f3\u5cb8\u5730\u8cea\u8abf\u67fb\u696d\u52d9","client_name":"\u56fd\u571f\u4ea4\u901a\u7701\u5317\u9678\u5730\u65b9\u6574\u5099\u5c40\u4fe1\u6fc3\u5ddd\u6cb3\u5ddd\u4e8b\u52d9\u6240","boring_xml_url":64,"boring_view_url":1,"soilmap_view_url":null,"soiltest_xml_url":0,"soiltest_view_url":0},{"id":510279,"code":"B4KJ202201001-2815","latitude":"37.643998","longitude":"138.821399","source_code":"HR1484334620190001","project_name":"\u5927\u6cb3\u6d25\u5206\u6c34\u8def\u53f3\u5cb8\u5730\u8cea\u8abf\u67fb\u696d\u52d9","survey_name":"\u5927\u6cb3\u6d25\u5206\u6c34\u8def\u53f3\u5cb8\u5730\u8cea\u8abf\u67fb\u696d\u52d9","client_name":"\u56fd\u571f\u4ea4\u901a\u7701\u5317\u9678\u5730\u65b9\u6574\u5099\u5c40\u4fe1\u6fc3\u5ddd\u6cb3\u5ddd\u4e8b\u52d9\u6240","boring_xml_url":64,"boring_view_url":1,"soilmap_view_url":null,"soiltest_xml_url":0,"soiltest_view_url":0},{"id":510278,"code":"B4KJ202201001-2814","latitude":"37.665764","longitude":"138.78597","source_code":"HR1484334620120002","project_name":"\u5e73\u621026\u5e74\u5ea6\u53f3\u5cb8\u5074\u659c\u9762\u4e0a\u65b9\u5730\u8cea\u8abf\u67fb","survey_name":"\u5927\u6cb3\u6d25\u5206\u6c34\u8def\u5824\u9632\u6d78\u900f\u5bfe\u7b56\u8a2d\u8a08\u696d\u52d9","client_name":"\u5317\u9678\u5730\u65b9\u6574\u5099\u5c40\u4fe1\u6fc3\u5ddd\u6cb3\u5ddd\u4e8b\u52d9\u6240","boring_xml_url":64,"boring_view_url":1,"soilmap_view_url":null,"soiltest_xml_url":0,"soiltest_view_url":0},{"id":510277,"code":"B4KJ202201001-2813","latitude":"37.664854","longitude":"138.785401","source_code":"HR1484334620120001","project_name":"\u5e73\u621026\u5e74\u5ea6\u53f3\u5cb8\u5074\u659c\u9762\u4e0b\u65b9\u5730\u8cea\u8abf\u67fb","survey_name":"\u5927\u6cb3\u6d25\u5206\u6c34\u8def\u5824\u9632\u6d78\u900f\u5bfe\u7b56\u8a2d\u8a08\u696d\u52d9","client_name":"\u5317\u9678\u5730\u65b9\u6574\u5099\u5c40\u4fe1\u6fc3\u5ddd\u6cb3\u5ddd\u4e8b\u52d9\u6240","boring_xml_url":64,"boring_view_url":1,"soilmap_view_url":null,"soiltest_xml_url":0,"soiltest_view_url":0},{"id":510276,"code":"B4KJ202201001-2812","latitude":"37.665165","longitude":"138.785815","source_code":"HR1484334620100010","project_name":"\u5927\u6cb3\u6d25\u5206\u6c34\u8def\u6cb3\u53e3\u90e8\u5730\u8cea\u8abf\u67fb\u696d\u52d9","survey_name":"\u5927\u6cb3\u6d25\u5206\u6c34\u8def\u6cb3\u53e3\u90e8\u5730\u8cea\u8abf\u67fb\u696d\u52d9","client_name":"\u56fd\u571f\u4ea4\u901a\u7701\u5317\u9678\u5730\u65b9\u6574\u5099\u5c40\u3000\u4fe1\u6fc3\u5ddd\u6cb3\u5ddd\u4e8b\u52d9\u6240","boring_xml_url":64,"boring_view_url":1,"soilmap_view_url":null,"soiltest_xml_url":0,"soiltest_view_url":0},{"id":510275,"code":"B4KJ202201001-2811","latitude":"37.665109","longitude":"138.786149","source_code":"HR1484334620100009","project_name":"\u5927\u6cb3\u6d25\u5206\u6c34\u8def\u6cb3\u53e3\u90e8\u5730\u8cea\u8abf\u67fb\u696d\u52d9","survey_name":"\u5927\u6cb3\u6d25\u5206\u6c34\u8def\u6cb3\u53e3\u90e8\u5730\u8cea\u8abf\u67fb\u696d\u52d9","client_name":"\u56fd\u571f\u4ea4\u901a\u7701\u5317\u9678\u5730\u65b9\u6574\u5099\u5c40\u3000\u4fe1\u6fc3\u5ddd\u6cb3\u5ddd\u4e8b\u52d9\u6240","boring_xml_url":64,"boring_view_url":1,"soilmap_view_url":null,"soiltest_xml_url":0,"soiltest_view_url":0},{"id":510274,"code":"B4KJ202201001-2810","latitude":"37.665748","longitude":"138.784204","source_code":"HR1484334620100008","project_name":"\u5927\u6cb3\u6d25\u5206\u6c34\u8def\u6cb3\u53e3\u90e8\u5730\u8cea\u8abf\u67fb\u696d\u52d9","survey_name":"\u5927\u6cb3\u6d25\u5206\u6c34\u8def\u6cb3\u53e3\u90e8\u5730\u8cea\u8abf\u67fb\u696d\u52d9","client_name":"\u56fd\u571f\u4ea4\u901a\u7701\u5317\u9678\u5730\u65b9\u6574\u5099\u5c40\u3000\u4fe1\u6fc3\u5ddd\u6cb3\u5ddd\u4e8b\u52d9\u6240","boring_xml_url":64,"boring_view_url":1,"soilmap_view_url":null,"soiltest_xml_url":0,"soiltest_view_url":0},{"id":510273,"code":"B4KJ202201001-2809","latitude":"37.665804","longitude":"138.783815","source_code":"HR1484334620100007","project_name":"\u5927\u6cb3\u6d25\u5206\u6c34\u8def\u6cb3\u53e3\u90e8\u5730\u8cea\u8abf\u67fb\u696d\u52d9","survey_name":"\u5927\u6cb3\u6d25\u5206\u6c34\u8def\u6cb3\u53e3\u90e8\u5730\u8cea\u8abf\u67fb\u696d\u52d9","client_name":"\u56fd\u571f\u4ea4\u901a\u7701\u5317\u9678\u5730\u65b9\u6574\u5099\u5c40\u3000\u4fe1\u6fc3\u5ddd\u6cb3\u5ddd\u4e8b\u52d9\u6240","boring_xml_url":64,"boring_view_url":1,"soilmap_view_url":null,"soiltest_xml_url":0,"soiltest_view_url":0},{"id":510272,"code":"B4KJ202201001-2808","latitude":"37.665387","longitude":"138.784038","source_code":"HR1484334620100006","project_name":"\u5927\u6cb3\u6d25\u5206\u6c34\u8def\u6cb3\u53e3\u90e8\u5730\u8cea\u8abf\u67fb\u696d\u52d9","survey_name":"\u5927\u6cb3\u6d25\u5206\u6c34\u8def\u6cb3\u53e3\u90e8\u5730\u8cea\u8abf\u67fb\u696d\u52d9","client_name":"\u56fd\u571f\u4ea4\u901a\u7701\u5317\u9678\u5730\u65b9\u6574\u5099\u5c40\u3000\u4fe1\u6fc3\u5ddd\u6cb3\u5ddd\u4e8b\u52d9\u6240","boring_xml_url":64,"boring_view_url":1,"soilmap_view_url":null,"soiltest_xml_url":0,"soiltest_view_url":0},{"id":510271,"code":"B4KJ202201001-2807","latitude":"37.666165","longitude":"138.783982","source_code":"HR1484334620100005","project_name":"\u5927\u6cb3\u6d25\u5206\u6c34\u8def\u6cb3\u53e3\u90e8\u5730\u8cea\u8abf\u67fb\u696d\u52d9","survey_name":"\u5927\u6cb3\u6d25\u5206\u6c34\u8def\u6cb3\u53e3\u90e8\u5730\u8cea\u8abf\u67fb\u696d\u52d9","client_name":"\u56fd\u571f\u4ea4\u901a\u7701\u5317\u9678\u5730\u65b9\u6574\u5099\u5c40\u3000\u4fe1\u6fc3\u5ddd\u6cb3\u5ddd\u4e8b\u52d9\u6240","boring_xml_url":64,"boring_view_url":1,"soilmap_view_url":null,"soiltest_xml_url":0,"soiltest_view_url":0},{"id":510270,"code":"B4KJ202201001-2806","latitude":"37.665748","longitude":"138.784204","source_code":"HR1484334620100004","project_name":"\u5927\u6cb3\u6d25\u5206\u6c34\u8def\u6cb3\u53e3\u90e8\u5730\u8cea\u8abf\u67fb\u696d\u52d9","survey_name":"\u5927\u6cb3\u6d25\u5206\u6c34\u8def\u6cb3\u53e3\u90e8\u5730\u8cea\u8abf\u67fb\u696d\u52d9","client_name":"\u56fd\u571f\u4ea4\u901a\u7701\u5317\u9678\u5730\u65b9\u6574\u5099\u5c40\u3000\u4fe1\u6fc3\u5ddd\u6cb3\u5ddd\u4e8b\u52d9\u6240","boring_xml_url":64,"boring_view_url":1,"soilmap_view_url":null,"soiltest_xml_url":0,"soiltest_view_url":0},{"id":510269,"code":"B4KJ202201001-2805","latitude":"37.661693","longitude":"138.783315","source_code":"HR1484334620100003","project_name":"\u5927\u6cb3\u6d25\u5206\u6c34\u8def\u6cb3\u53e3\u90e8\u5730\u8cea\u8abf\u67fb\u696d\u52d9","survey_name":"\u5927\u6cb3\u6d25\u5206\u6c34\u8def\u6cb3\u53e3\u90e8\u5730\u8cea\u8abf\u67fb\u696d\u52d9","client_name":"\u56fd\u571f\u4ea4\u901a\u7701\u5317\u9678\u5730\u65b9\u6574\u5099\u5c40\u3000\u4fe1\u6fc3\u5ddd\u6cb3\u5ddd\u4e8b\u52d9\u6240","boring_xml_url":64,"boring_view_url":1,"soilmap_view_url":null,"soiltest_xml_url":0,"soiltest_view_url":0},{"id":510268,"code":"B4KJ202201001-2804","latitude":"37.663304","longitude":"138.782927","source_code":"HR1484334620100002","project_name":"\u5927\u6cb3\u6d25\u5206\u6c34\u8def\u6cb3\u53e3\u90e8\u5730\u8cea\u8abf\u67fb\u696d\u52d9","survey_name":"\u5927\u6cb3\u6d25\u5206\u6c34\u8def\u6cb3\u53e3\u90e8\u5730\u8cea\u8abf\u67fb\u696d\u52d9","client_name":"\u56fd\u571f\u4ea4\u901a\u7701\u5317\u9678\u5730\u65b9\u6574\u5099\u5c40\u3000\u4fe1\u6fc3\u5ddd\u6cb3\u5ddd\u4e8b\u52d9\u6240","boring_xml_url":64,"boring_view_url":1,"soilmap_view_url":null,"soiltest_xml_url":0,"soiltest_view_url":0},{"id":510267,"code":"B4KJ202201001-2803","latitude":"37.662665","longitude":"138.783149","source_code":"HR1484334620100001","project_name":"\u5927\u6cb3\u6d25\u5206\u6c34\u8def\u6cb3\u53e3\u90e8\u5730\u8cea\u8abf\u67fb\u696d\u52d9","survey_name":"\u5927\u6cb3\u6d25\u5206\u6c34\u8def\u6cb3\u53e3\u90e8\u5730\u8cea\u8abf\u67fb\u696d\u52d9","client_name":"\u56fd\u571f\u4ea4\u901a\u7701\u5317\u9678\u5730\u65b9\u6574\u5099\u5c40\u3000\u4fe1\u6fc3\u5ddd\u6cb3\u5ddd\u4e8b\u52d9\u6240","boring_xml_url":64,"boring_view_url":1,"soilmap_view_url":null,"soiltest_xml_url":0,"soiltest_view_url":0},{"id":510266,"code":"B4KJ202201001-2802","latitude":"37.682693","longitude":"139.595596","source_code":"HR1484316020210003","project_name":"","survey_name":"\u5e73\u621026\u5e74\u5ea6\u99ac\u53d6\u6ca2\u5730\u533a\u5916\u5730\u8cea\u8abf\u67fb\u696d\u52d9","client_name":"\u5317\u9678\u5730\u65b9\u6574\u5099\u5c40\u963f\u8cc0\u91ce\u5ddd\u6cb3\u5ddd\u4e8b\u52d9\u6240","boring_xml_url":64,"boring_view_url":1,"soilmap_view_url":null,"soiltest_xml_url":0,"soiltest_view_url":0},{"id":510265,"code":"B4KJ202201001-2801","latitude":"37.683026","longitude":"139.595763","source_code":"HR1484316020210002","project_name":"","survey_name":"\u5e73\u621026\u5e74\u5ea6\u99ac\u53d6\u6ca2\u5730\u533a\u5916\u5730\u8cea\u8abf\u67fb\u696d\u52d9","client_name":"\u5317\u9678\u5730\u65b9\u6574\u5099\u5c40\u963f\u8cc0\u91ce\u5ddd\u6cb3\u5ddd\u4e8b\u52d9\u6240","boring_xml_url":64,"boring_view_url":1,"soilmap_view_url":null,"soiltest_xml_url":0,"soiltest_view_url":0},{"id":510264,"code":"B4KJ202201001-2800","latitude":"37.682804","longitude":"139.59568","source_code":"HR1484316020210001","project_name":"","survey_name":"\u5e73\u621026\u5e74\u5ea6\u99ac\u53d6\u6ca2\u5730\u533a\u5916\u5730\u8cea\u8abf\u67fb\u696d\u52d9","client_name":"\u5317\u9678\u5730\u65b9\u6574\u5099\u5c40\u963f\u8cc0\u91ce\u5ddd\u6cb3\u5ddd\u4e8b\u52d9\u6240","boring_xml_url":64,"boring_view_url":1,"soilmap_view_url":null,"soiltest_xml_url":0,"soiltest_view_url":0},{"id":510263,"code":"B4KJ202201001-2799","latitude":"37.791609","longitude":"139.184095","source_code":"HR1484316020110042","project_name":"","survey_name":"\u5e73\u621026\u5e74\u5ea6\u963f\u8cc0\u91ce\u5ddd\u7ba1\u5185\u5730\u8cea\u8abf\u67fb\u696d\u52d9","client_name":"\u5317\u9678\u5730\u65b9\u6574\u5099\u5c40\u963f\u8cc0\u91ce\u5ddd\u6cb3\u5ddd\u4e8b\u52d9\u6240","boring_xml_url":64,"boring_view_url":1,"soilmap_view_url":null,"soiltest_xml_url":0,"soiltest_view_url":0},{"id":510262,"code":"B4KJ202201001-2798","latitude":"37.791609","longitude":"139.184095","source_code":"HR1484316020110041","project_name":"","survey_name":"\u5e73\u621026\u5e74\u5ea6\u963f\u8cc0\u91ce\u5ddd\u7ba1\u5185\u5730\u8cea\u8abf\u67fb\u696d\u52d9","client_name":"\u5317\u9678\u5730\u65b9\u6574\u5099\u5c40\u963f\u8cc0\u91ce\u5ddd\u6cb3\u5ddd\u4e8b\u52d9\u6240","boring_xml_url":64,"boring_view_url":1,"soilmap_view_url":null,"soiltest_xml_url":0,"soiltest_view_url":0},{"id":510261,"code":"B4KJ202201001-2797","latitude":"37.792637","longitude":"139.184206","source_code":"HR1484316020110040","project_name":"","survey_name":"\u5e73\u621026\u5e74\u5ea6\u963f\u8cc0\u91ce\u5ddd\u7ba1\u5185\u5730\u8cea\u8abf\u67fb\u696d\u52d9","client_name":"\u5317\u9678\u5730\u65b9\u6574\u5099\u5c40\u963f\u8cc0\u91ce\u5ddd\u6cb3\u5ddd\u4e8b\u52d9\u6240","boring_xml_url":64,"boring_view_url":1,"soilmap_view_url":null,"soiltest_xml_url":0,"soiltest_view_url":0}]}}