{"header":{"xyz":{"source":[],"mosaic":false},"page":1178,"raw":{"soiltest_result":"0","bbox":"57.598333,109.544722,1.933333,163.806111","page":"1178"},"conditions":{"soiltest_result":0,"north":57.598333,"west":109.544722,"south":1.933333,"east":163.806111},"success":true,"message":""},"data":{"meta":{"total":212844,"page":1178,"pages":7095,"count":30},"values":[{"id":510050,"code":"B4KJ202201001-2586","latitude":"37.601527","longitude":"139.218177","source_code":"HR1384356020210001","project_name":"","survey_name":"\u4e0b\u795d\u6ca2\u7802\u9632\u5830\u5824\u707d\u5bb3\u8abf\u67fb\u8a2d\u8a08\u696d\u52d9","client_name":"\u56fd\u571f\u4ea4\u901a\u7701\u5317\u9678\u5730\u65b9\u6574\u5099\u5c40\u6e6f\u6ca2\u7802\u9632\u4e8b\u52d9\u6240","boring_xml_url":64,"boring_view_url":1,"soilmap_view_url":null,"soiltest_xml_url":0,"soiltest_view_url":0},{"id":510049,"code":"B4KJ202201001-2585","latitude":"36.858778","longitude":"138.628062","source_code":"HR1384356020190011","project_name":"","survey_name":"\u4e2d\u6d25\u5ddd\u6d41\u57df\u7802\u9632\u5830\u5824\u7b49\u5730\u8cea\u8abf\u67fb\u696d\u52d9","client_name":"\u56fd\u571f\u4ea4\u901a\u7701\u5317\u9678\u5730\u65b9\u6574\u5099\u5c40\u6e6f\u6ca2\u7802\u9632\u4e8b\u52d9\u6240","boring_xml_url":64,"boring_view_url":1,"soilmap_view_url":null,"soiltest_xml_url":0,"soiltest_view_url":0},{"id":510048,"code":"B4KJ202201001-2584","latitude":"36.858778","longitude":"138.628062","source_code":"HR1384356020190010","project_name":"","survey_name":"\u4e2d\u6d25\u5ddd\u6d41\u57df\u7802\u9632\u5830\u5824\u7b49\u5730\u8cea\u8abf\u67fb\u696d\u52d9","client_name":"\u56fd\u571f\u4ea4\u901a\u7701\u5317\u9678\u5730\u65b9\u6574\u5099\u5c40\u6e6f\u6ca2\u7802\u9632\u4e8b\u52d9\u6240","boring_xml_url":64,"boring_view_url":1,"soilmap_view_url":null,"soiltest_xml_url":0,"soiltest_view_url":0},{"id":510047,"code":"B4KJ202201001-2583","latitude":"36.858806","longitude":"138.660589","source_code":"HR1384356020190009","project_name":"","survey_name":"\u4e2d\u6d25\u5ddd\u6d41\u57df\u7802\u9632\u5830\u5824\u7b49\u5730\u8cea\u8abf\u67fb\u696d\u52d9","client_name":"\u56fd\u571f\u4ea4\u901a\u7701\u5317\u9678\u5730\u65b9\u6574\u5099\u5c40\u6e6f\u6ca2\u7802\u9632\u4e8b\u52d9\u6240","boring_xml_url":64,"boring_view_url":1,"soilmap_view_url":null,"soiltest_xml_url":0,"soiltest_view_url":0},{"id":510046,"code":"B4KJ202201001-2582","latitude":"36.858472","longitude":"138.660923","source_code":"HR1384356020190008","project_name":"","survey_name":"\u4e2d\u6d25\u5ddd\u6d41\u57df\u7802\u9632\u5830\u5824\u7b49\u5730\u8cea\u8abf\u67fb\u696d\u52d9","client_name":"\u56fd\u571f\u4ea4\u901a\u7701\u5317\u9678\u5730\u65b9\u6574\u5099\u5c40\u6e6f\u6ca2\u7802\u9632\u4e8b\u52d9\u6240","boring_xml_url":64,"boring_view_url":1,"soilmap_view_url":null,"soiltest_xml_url":0,"soiltest_view_url":0},{"id":510045,"code":"B4KJ202201001-2581","latitude":"36.858861","longitude":"138.660812","source_code":"HR1384356020190007","project_name":"","survey_name":"\u4e2d\u6d25\u5ddd\u6d41\u57df\u7802\u9632\u5830\u5824\u7b49\u5730\u8cea\u8abf\u67fb\u696d\u52d9","client_name":"\u56fd\u571f\u4ea4\u901a\u7701\u5317\u9678\u5730\u65b9\u6574\u5099\u5c40\u6e6f\u6ca2\u7802\u9632\u4e8b\u52d9\u6240","boring_xml_url":64,"boring_view_url":1,"soilmap_view_url":null,"soiltest_xml_url":0,"soiltest_view_url":0},{"id":510044,"code":"B4KJ202201001-2580","latitude":"36.859278","longitude":"138.660617","source_code":"HR1384356020190006","project_name":"","survey_name":"\u4e2d\u6d25\u5ddd\u6d41\u57df\u7802\u9632\u5830\u5824\u7b49\u5730\u8cea\u8abf\u67fb\u696d\u52d9","client_name":"\u56fd\u571f\u4ea4\u901a\u7701\u5317\u9678\u5730\u65b9\u6574\u5099\u5c40\u6e6f\u6ca2\u7802\u9632\u4e8b\u52d9\u6240","boring_xml_url":64,"boring_view_url":1,"soilmap_view_url":null,"soiltest_xml_url":0,"soiltest_view_url":0},{"id":510043,"code":"B4KJ202201001-2579","latitude":"36.874833","longitude":"138.647534","source_code":"HR1384356020190005","project_name":"","survey_name":"\u4e2d\u6d25\u5ddd\u6d41\u57df\u7802\u9632\u5830\u5824\u7b49\u5730\u8cea\u8abf\u67fb\u696d\u52d9","client_name":"\u56fd\u571f\u4ea4\u901a\u7701\u5317\u9678\u5730\u65b9\u6574\u5099\u5c40\u6e6f\u6ca2\u7802\u9632\u4e8b\u52d9\u6240","boring_xml_url":64,"boring_view_url":1,"soilmap_view_url":null,"soiltest_xml_url":0,"soiltest_view_url":0},{"id":510042,"code":"B4KJ202201001-2578","latitude":"36.874528","longitude":"138.647756","source_code":"HR1384356020190004","project_name":"","survey_name":"\u4e2d\u6d25\u5ddd\u6d41\u57df\u7802\u9632\u5830\u5824\u7b49\u5730\u8cea\u8abf\u67fb\u696d\u52d9","client_name":"\u56fd\u571f\u4ea4\u901a\u7701\u5317\u9678\u5730\u65b9\u6574\u5099\u5c40\u6e6f\u6ca2\u7802\u9632\u4e8b\u52d9\u6240","boring_xml_url":64,"boring_view_url":1,"soilmap_view_url":null,"soiltest_xml_url":0,"soiltest_view_url":0},{"id":510041,"code":"B4KJ202201001-2577","latitude":"36.874694","longitude":"138.647756","source_code":"HR1384356020190003","project_name":"","survey_name":"\u4e2d\u6d25\u5ddd\u6d41\u57df\u7802\u9632\u5830\u5824\u7b49\u5730\u8cea\u8abf\u67fb\u696d\u52d9","client_name":"\u56fd\u571f\u4ea4\u901a\u7701\u5317\u9678\u5730\u65b9\u6574\u5099\u5c40\u6e6f\u6ca2\u7802\u9632\u4e8b\u52d9\u6240","boring_xml_url":64,"boring_view_url":1,"soilmap_view_url":null,"soiltest_xml_url":0,"soiltest_view_url":0},{"id":510040,"code":"B4KJ202201001-2576","latitude":"36.875028","longitude":"138.647756","source_code":"HR1384356020190002","project_name":"","survey_name":"\u4e2d\u6d25\u5ddd\u6d41\u57df\u7802\u9632\u5830\u5824\u7b49\u5730\u8cea\u8abf\u67fb\u696d\u52d9","client_name":"\u56fd\u571f\u4ea4\u901a\u7701\u5317\u9678\u5730\u65b9\u6574\u5099\u5c40\u6e6f\u6ca2\u7802\u9632\u4e8b\u52d9\u6240","boring_xml_url":64,"boring_view_url":1,"soilmap_view_url":null,"soiltest_xml_url":0,"soiltest_view_url":0},{"id":510039,"code":"B4KJ202201001-2575","latitude":"36.875306","longitude":"138.647812","source_code":"HR1384356020190001","project_name":"","survey_name":"\u4e2d\u6d25\u5ddd\u6d41\u57df\u7802\u9632\u5830\u5824\u7b49\u5730\u8cea\u8abf\u67fb\u696d\u52d9","client_name":"\u56fd\u571f\u4ea4\u901a\u7701\u5317\u9678\u5730\u65b9\u6574\u5099\u5c40\u6e6f\u6ca2\u7802\u9632\u4e8b\u52d9\u6240","boring_xml_url":64,"boring_view_url":1,"soilmap_view_url":null,"soiltest_xml_url":0,"soiltest_view_url":0},{"id":510038,"code":"B4KJ202201001-2574","latitude":"36.958746","longitude":"138.935024","source_code":"HR1384356020180014","project_name":"\"\u5e73\u621025\u5e74\u5ea6 \u5272\u5f15\u6ca2\u6d41\u57df\u7802\u9632\u5830\u5824\u7b49\u5730\u8cea\u8abf\u67fb\u696d\u52d9\"","survey_name":"\"\u5e73\u621025\u5e74\u5ea6 \u5272\u5f15\u6ca2\u6d41\u57df\u7802\u9632\u5830\u5824\u7b49\u5730\u8cea\u8abf\u67fb\u696d\u52d9\"","client_name":"\"\u56fd\u571f\u4ea4\u901a\u7701 \u5317\u9678\u5730\u65b9\u6574\u5099\u5c40 \u6e6f\u6ca2\u7802\u9632\u4e8b\u52d9\u6240\"","boring_xml_url":64,"boring_view_url":1,"soilmap_view_url":null,"soiltest_xml_url":0,"soiltest_view_url":0},{"id":510037,"code":"B4KJ202201001-2573","latitude":"36.95878","longitude":"138.935643","source_code":"HR1384356020180013","project_name":"\"\u5e73\u621025\u5e74\u5ea6 \u5272\u5f15\u6ca2\u6d41\u57df\u7802\u9632\u5830\u5824\u7b49\u5730\u8cea\u8abf\u67fb\u696d\u52d9\"","survey_name":"\"\u5e73\u621025\u5e74\u5ea6 \u5272\u5f15\u6ca2\u6d41\u57df\u7802\u9632\u5830\u5824\u7b49\u5730\u8cea\u8abf\u67fb\u696d\u52d9\"","client_name":"\"\u56fd\u571f\u4ea4\u901a\u7701 \u5317\u9678\u5730\u65b9\u6574\u5099\u5c40 \u6e6f\u6ca2\u7802\u9632\u4e8b\u52d9\u6240\"","boring_xml_url":64,"boring_view_url":1,"soilmap_view_url":null,"soiltest_xml_url":0,"soiltest_view_url":0},{"id":510036,"code":"B4KJ202201001-2572","latitude":"36.958869","longitude":"138.935368","source_code":"HR1384356020180012","project_name":"\"\u5e73\u621025\u5e74\u5ea6 \u5272\u5f15\u6ca2\u6d41\u57df\u7802\u9632\u5830\u5824\u7b49\u5730\u8cea\u8abf\u67fb\u696d\u52d9\"","survey_name":"\"\u5e73\u621025\u5e74\u5ea6 \u5272\u5f15\u6ca2\u6d41\u57df\u7802\u9632\u5830\u5824\u7b49\u5730\u8cea\u8abf\u67fb\u696d\u52d9\"","client_name":"\"\u56fd\u571f\u4ea4\u901a\u7701 \u5317\u9678\u5730\u65b9\u6574\u5099\u5c40 \u6e6f\u6ca2\u7802\u9632\u4e8b\u52d9\u6240\"","boring_xml_url":64,"boring_view_url":1,"soilmap_view_url":null,"soiltest_xml_url":0,"soiltest_view_url":0},{"id":510035,"code":"B4KJ202201001-2571","latitude":"36.958994","longitude":"138.934977","source_code":"HR1384356020180011","project_name":"\"\u5e73\u621025\u5e74\u5ea6 \u5272\u5f15\u6ca2\u6d41\u57df\u7802\u9632\u5830\u5824\u7b49\u5730\u8cea\u8abf\u67fb\u696d\u52d9\"","survey_name":"\"\u5e73\u621025\u5e74\u5ea6 \u5272\u5f15\u6ca2\u6d41\u57df\u7802\u9632\u5830\u5824\u7b49\u5730\u8cea\u8abf\u67fb\u696d\u52d9\"","client_name":"\"\u56fd\u571f\u4ea4\u901a\u7701 \u5317\u9678\u5730\u65b9\u6574\u5099\u5c40 \u6e6f\u6ca2\u7802\u9632\u4e8b\u52d9\u6240\"","boring_xml_url":64,"boring_view_url":1,"soilmap_view_url":null,"soiltest_xml_url":0,"soiltest_view_url":0},{"id":510034,"code":"B4KJ202201001-2570","latitude":"36.959083","longitude":"138.934699","source_code":"HR1384356020180010","project_name":"\"\u5e73\u621025\u5e74\u5ea6 \u5272\u5f15\u6ca2\u6d41\u57df\u7802\u9632\u5830\u5824\u7b49\u5730\u8cea\u8abf\u67fb\u696d\u52d9\"","survey_name":"\"\u5e73\u621025\u5e74\u5ea6 \u5272\u5f15\u6ca2\u6d41\u57df\u7802\u9632\u5830\u5824\u7b49\u5730\u8cea\u8abf\u67fb\u696d\u52d9\"","client_name":"\"\u56fd\u571f\u4ea4\u901a\u7701 \u5317\u9678\u5730\u65b9\u6574\u5099\u5c40 \u6e6f\u6ca2\u7802\u9632\u4e8b\u52d9\u6240\"","boring_xml_url":64,"boring_view_url":1,"soilmap_view_url":null,"soiltest_xml_url":0,"soiltest_view_url":0},{"id":510033,"code":"B4KJ202201001-2569","latitude":"36.957177","longitude":"138.934243","source_code":"HR1384356020180009","project_name":"\"\u5e73\u621025\u5e74\u5ea6 \u5272\u5f15\u6ca2\u6d41\u57df\u7802\u9632\u5830\u5824\u7b49\u5730\u8cea\u8abf\u67fb\u696d\u52d9\"","survey_name":"\"\u5e73\u621025\u5e74\u5ea6 \u5272\u5f15\u6ca2\u6d41\u57df\u7802\u9632\u5830\u5824\u7b49\u5730\u8cea\u8abf\u67fb\u696d\u52d9\"","client_name":"\"\u56fd\u571f\u4ea4\u901a\u7701 \u5317\u9678\u5730\u65b9\u6574\u5099\u5c40 \u6e6f\u6ca2\u7802\u9632\u4e8b\u52d9\u6240\"","boring_xml_url":64,"boring_view_url":1,"soilmap_view_url":null,"soiltest_xml_url":0,"soiltest_view_url":0},{"id":510032,"code":"B4KJ202201001-2568","latitude":"36.957227","longitude":"138.93478","source_code":"HR1384356020180008","project_name":"\"\u5e73\u621025\u5e74\u5ea6 \u5272\u5f15\u6ca2\u6d41\u57df\u7802\u9632\u5830\u5824\u7b49\u5730\u8cea\u8abf\u67fb\u696d\u52d9\"","survey_name":"\"\u5e73\u621025\u5e74\u5ea6 \u5272\u5f15\u6ca2\u6d41\u57df\u7802\u9632\u5830\u5824\u7b49\u5730\u8cea\u8abf\u67fb\u696d\u52d9\"","client_name":"\"\u56fd\u571f\u4ea4\u901a\u7701 \u5317\u9678\u5730\u65b9\u6574\u5099\u5c40 \u6e6f\u6ca2\u7802\u9632\u4e8b\u52d9\u6240\"","boring_xml_url":64,"boring_view_url":1,"soilmap_view_url":null,"soiltest_xml_url":0,"soiltest_view_url":0},{"id":510031,"code":"B4KJ202201001-2567","latitude":"36.957371","longitude":"138.934343","source_code":"HR1384356020180006","project_name":"\"\u5e73\u621025\u5e74\u5ea6 \u5272\u5f15\u6ca2\u6d41\u57df\u7802\u9632\u5830\u5824\u7b49\u5730\u8cea\u8abf\u67fb\u696d\u52d9\"","survey_name":"\"\u5e73\u621025\u5e74\u5ea6 \u5272\u5f15\u6ca2\u6d41\u57df\u7802\u9632\u5830\u5824\u7b49\u5730\u8cea\u8abf\u67fb\u696d\u52d9\"","client_name":"\"\u56fd\u571f\u4ea4\u901a\u7701 \u5317\u9678\u5730\u65b9\u6574\u5099\u5c40 \u6e6f\u6ca2\u7802\u9632\u4e8b\u52d9\u6240\"","boring_xml_url":64,"boring_view_url":1,"soilmap_view_url":null,"soiltest_xml_url":0,"soiltest_view_url":0},{"id":510030,"code":"B4KJ202201001-2566","latitude":"36.956255","longitude":"138.933096","source_code":"HR1384356020180005","project_name":"\"\u5e73\u621025\u5e74\u5ea6 \u5272\u5f15\u6ca2\u6d41\u57df\u7802\u9632\u5830\u5824\u7b49\u5730\u8cea\u8abf\u67fb\u696d\u52d9\"","survey_name":"\"\u5e73\u621025\u5e74\u5ea6 \u5272\u5f15\u6ca2\u6d41\u57df\u7802\u9632\u5830\u5824\u7b49\u5730\u8cea\u8abf\u67fb\u696d\u52d9\"","client_name":"\"\u56fd\u571f\u4ea4\u901a\u7701 \u5317\u9678\u5730\u65b9\u6574\u5099\u5c40 \u6e6f\u6ca2\u7802\u9632\u4e8b\u52d9\u6240\"","boring_xml_url":64,"boring_view_url":1,"soilmap_view_url":null,"soiltest_xml_url":0,"soiltest_view_url":0},{"id":510029,"code":"B4KJ202201001-2565","latitude":"36.956588","longitude":"138.933002","source_code":"HR1384356020180004","project_name":"\"\u5e73\u621025\u5e74\u5ea6 \u5272\u5f15\u6ca2\u6d41\u57df\u7802\u9632\u5830\u5824\u7b49\u5730\u8cea\u8abf\u67fb\u696d\u52d9\"","survey_name":"\"\u5e73\u621025\u5e74\u5ea6 \u5272\u5f15\u6ca2\u6d41\u57df\u7802\u9632\u5830\u5824\u7b49\u5730\u8cea\u8abf\u67fb\u696d\u52d9\"","client_name":"\"\u56fd\u571f\u4ea4\u901a\u7701 \u5317\u9678\u5730\u65b9\u6574\u5099\u5c40 \u6e6f\u6ca2\u7802\u9632\u4e8b\u52d9\u6240\"","boring_xml_url":64,"boring_view_url":1,"soilmap_view_url":null,"soiltest_xml_url":0,"soiltest_view_url":0},{"id":510028,"code":"B4KJ202201001-2564","latitude":"36.956244","longitude":"138.933385","source_code":"HR1384356020180003","project_name":"\"\u5e73\u621025\u5e74\u5ea6 \u5272\u5f15\u6ca2\u6d41\u57df\u7802\u9632\u5830\u5824\u7b49\u5730\u8cea\u8abf\u67fb\u696d\u52d9\"","survey_name":"\"\u5e73\u621025\u5e74\u5ea6 \u5272\u5f15\u6ca2\u6d41\u57df\u7802\u9632\u5830\u5824\u7b49\u5730\u8cea\u8abf\u67fb\u696d\u52d9\"","client_name":"\"\u56fd\u571f\u4ea4\u901a\u7701 \u5317\u9678\u5730\u65b9\u6574\u5099\u5c40 \u6e6f\u6ca2\u7802\u9632\u4e8b\u52d9\u6240\"","boring_xml_url":64,"boring_view_url":1,"soilmap_view_url":null,"soiltest_xml_url":0,"soiltest_view_url":0},{"id":510027,"code":"B4KJ202201001-2563","latitude":"36.956441","longitude":"138.933166","source_code":"HR1384356020180002","project_name":"\"\u5e73\u621025\u5e74\u5ea6 \u5272\u5f15\u6ca2\u6d41\u57df\u7802\u9632\u5830\u5824\u7b49\u5730\u8cea\u8abf\u67fb\u696d\u52d9\"","survey_name":"\"\u5e73\u621025\u5e74\u5ea6 \u5272\u5f15\u6ca2\u6d41\u57df\u7802\u9632\u5830\u5824\u7b49\u5730\u8cea\u8abf\u67fb\u696d\u52d9\"","client_name":"\"\u56fd\u571f\u4ea4\u901a\u7701 \u5317\u9678\u5730\u65b9\u6574\u5099\u5c40 \u6e6f\u6ca2\u7802\u9632\u4e8b\u52d9\u6240\"","boring_xml_url":64,"boring_view_url":1,"soilmap_view_url":null,"soiltest_xml_url":0,"soiltest_view_url":0},{"id":510026,"code":"B4KJ202201001-2562","latitude":"36.956588","longitude":"138.933002","source_code":"HR1384356020180001","project_name":"\"\u5e73\u621025\u5e74\u5ea6 \u5272\u5f15\u6ca2\u6d41\u57df\u7802\u9632\u5830\u5824\u7b49\u5730\u8cea\u8abf\u67fb\u696d\u52d9\"","survey_name":"\"\u5e73\u621025\u5e74\u5ea6 \u5272\u5f15\u6ca2\u6d41\u57df\u7802\u9632\u5830\u5824\u7b49\u5730\u8cea\u8abf\u67fb\u696d\u52d9\"","client_name":"\"\u56fd\u571f\u4ea4\u901a\u7701 \u5317\u9678\u5730\u65b9\u6574\u5099\u5c40 \u6e6f\u6ca2\u7802\u9632\u4e8b\u52d9\u6240\"","boring_xml_url":64,"boring_view_url":1,"soilmap_view_url":null,"soiltest_xml_url":0,"soiltest_view_url":0},{"id":510025,"code":"B4KJ202201001-2561","latitude":"36.989045","longitude":"138.909873","source_code":"HR1384356020170014","project_name":"","survey_name":"\u767b\u5ddd\u6d41\u57df\u7802\u9632\u5830\u5824\u7b49\u5730\u8cea\u8abf\u67fb\u696d\u52d9","client_name":"\u56fd\u571f\u4ea4\u901a\u7701\u5317\u9678\u5730\u65b9\u6574\u5099\u5c40\u6e6f\u6ca2\u7802\u9632\u4e8b\u52d9\u6240","boring_xml_url":64,"boring_view_url":1,"soilmap_view_url":null,"soiltest_xml_url":0,"soiltest_view_url":0},{"id":510024,"code":"B4KJ202201001-2560","latitude":"36.988752","longitude":"138.910286","source_code":"HR1384356020170013","project_name":"","survey_name":"\u767b\u5ddd\u6d41\u57df\u7802\u9632\u5830\u5824\u7b49\u5730\u8cea\u8abf\u67fb\u696d\u52d9","client_name":"\u56fd\u571f\u4ea4\u901a\u7701\u5317\u9678\u5730\u65b9\u6574\u5099\u5c40\u6e6f\u6ca2\u7802\u9632\u4e8b\u52d9\u6240","boring_xml_url":64,"boring_view_url":1,"soilmap_view_url":null,"soiltest_xml_url":0,"soiltest_view_url":0},{"id":510023,"code":"B4KJ202201001-2559","latitude":"36.989115","longitude":"138.91018","source_code":"HR1384356020170012","project_name":"","survey_name":"\u767b\u5ddd\u6d41\u57df\u7802\u9632\u5830\u5824\u7b49\u5730\u8cea\u8abf\u67fb\u696d\u52d9","client_name":"\u56fd\u571f\u4ea4\u901a\u7701\u5317\u9678\u5730\u65b9\u6574\u5099\u5c40\u6e6f\u6ca2\u7802\u9632\u4e8b\u52d9\u6240","boring_xml_url":64,"boring_view_url":1,"soilmap_view_url":null,"soiltest_xml_url":0,"soiltest_view_url":0},{"id":510022,"code":"B4KJ202201001-2558","latitude":"36.989437","longitude":"138.910066","source_code":"HR1384356020170011","project_name":"","survey_name":"\u767b\u5ddd\u6d41\u57df\u7802\u9632\u5830\u5824\u7b49\u5730\u8cea\u8abf\u67fb\u696d\u52d9","client_name":"\u56fd\u571f\u4ea4\u901a\u7701\u5317\u9678\u5730\u65b9\u6574\u5099\u5c40\u6e6f\u6ca2\u7802\u9632\u4e8b\u52d9\u6240","boring_xml_url":64,"boring_view_url":1,"soilmap_view_url":null,"soiltest_xml_url":0,"soiltest_view_url":0},{"id":510021,"code":"B4KJ202201001-2557","latitude":"36.989871","longitude":"138.909959","source_code":"HR1384356020170010","project_name":"","survey_name":"\u767b\u5ddd\u6d41\u57df\u7802\u9632\u5830\u5824\u7b49\u5730\u8cea\u8abf\u67fb\u696d\u52d9","client_name":"\u56fd\u571f\u4ea4\u901a\u7701\u5317\u9678\u5730\u65b9\u6574\u5099\u5c40\u6e6f\u6ca2\u7802\u9632\u4e8b\u52d9\u6240","boring_xml_url":64,"boring_view_url":1,"soilmap_view_url":null,"soiltest_xml_url":0,"soiltest_view_url":0}]}}