{"header":{"xyz":{"source":[],"mosaic":false},"page":1179,"raw":{"soiltest_result":"0","bbox":"57.598333,109.544722,1.933333,163.806111","page":"1179"},"conditions":{"soiltest_result":0,"north":57.598333,"west":109.544722,"south":1.933333,"east":163.806111},"success":true,"message":""},"data":{"meta":{"total":212844,"page":1179,"pages":7095,"count":30},"values":[{"id":510020,"code":"B4KJ202201001-2556","latitude":"36.989607","longitude":"138.908615","source_code":"HR1384356020170009","project_name":"","survey_name":"\u767b\u5ddd\u6d41\u57df\u7802\u9632\u5830\u5824\u7b49\u5730\u8cea\u8abf\u67fb\u696d\u52d9","client_name":"\u56fd\u571f\u4ea4\u901a\u7701\u5317\u9678\u5730\u65b9\u6574\u5099\u5c40\u6e6f\u6ca2\u7802\u9632\u4e8b\u52d9\u6240","boring_xml_url":64,"boring_view_url":1,"soilmap_view_url":null,"soiltest_xml_url":0,"soiltest_view_url":0},{"id":510019,"code":"B4KJ202201001-2555","latitude":"36.922962","longitude":"138.937149","source_code":"HR1384356020170008","project_name":"","survey_name":"\u767b\u5ddd\u6d41\u57df\u7802\u9632\u5830\u5824\u7b49\u5730\u8cea\u8abf\u67fb\u696d\u52d9","client_name":"\u56fd\u571f\u4ea4\u901a\u7701\u5317\u9678\u5730\u65b9\u6574\u5099\u5c40\u6e6f\u6ca2\u7802\u9632\u4e8b\u52d9\u6240","boring_xml_url":64,"boring_view_url":1,"soilmap_view_url":null,"soiltest_xml_url":0,"soiltest_view_url":0},{"id":510018,"code":"B4KJ202201001-2554","latitude":"36.922805","longitude":"138.937417","source_code":"HR1384356020170007","project_name":"","survey_name":"\u767b\u5ddd\u6d41\u57df\u7802\u9632\u5830\u5824\u7b49\u5730\u8cea\u8abf\u67fb\u696d\u52d9","client_name":"\u56fd\u571f\u4ea4\u901a\u7701\u5317\u9678\u5730\u65b9\u6574\u5099\u5c40\u6e6f\u6ca2\u7802\u9632\u4e8b\u52d9\u6240","boring_xml_url":64,"boring_view_url":1,"soilmap_view_url":null,"soiltest_xml_url":0,"soiltest_view_url":0},{"id":510017,"code":"B4KJ202201001-2553","latitude":"36.922842","longitude":"138.93762","source_code":"HR1384356020170006","project_name":"","survey_name":"\u767b\u5ddd\u6d41\u57df\u7802\u9632\u5830\u5824\u7b49\u5730\u8cea\u8abf\u67fb\u696d\u52d9","client_name":"\u56fd\u571f\u4ea4\u901a\u7701\u5317\u9678\u5730\u65b9\u6574\u5099\u5c40\u6e6f\u6ca2\u7802\u9632\u4e8b\u52d9\u6240","boring_xml_url":64,"boring_view_url":1,"soilmap_view_url":null,"soiltest_xml_url":0,"soiltest_view_url":0},{"id":510016,"code":"B4KJ202201001-2552","latitude":"36.923123","longitude":"138.937486","source_code":"HR1384356020170005","project_name":"","survey_name":"\u767b\u5ddd\u6d41\u57df\u7802\u9632\u5830\u5824\u7b49\u5730\u8cea\u8abf\u67fb\u696d\u52d9","client_name":"\u56fd\u571f\u4ea4\u901a\u7701\u5317\u9678\u5730\u65b9\u6574\u5099\u5c40\u6e6f\u6ca2\u7802\u9632\u4e8b\u52d9\u6240","boring_xml_url":64,"boring_view_url":1,"soilmap_view_url":null,"soiltest_xml_url":0,"soiltest_view_url":0},{"id":510015,"code":"B4KJ202201001-2551","latitude":"36.923312","longitude":"138.937337","source_code":"HR1384356020170004","project_name":"","survey_name":"\u767b\u5ddd\u6d41\u57df\u7802\u9632\u5830\u5824\u7b49\u5730\u8cea\u8abf\u67fb\u696d\u52d9","client_name":"\u56fd\u571f\u4ea4\u901a\u7701\u5317\u9678\u5730\u65b9\u6574\u5099\u5c40\u6e6f\u6ca2\u7802\u9632\u4e8b\u52d9\u6240","boring_xml_url":64,"boring_view_url":1,"soilmap_view_url":null,"soiltest_xml_url":0,"soiltest_view_url":0},{"id":510014,"code":"B4KJ202201001-2550","latitude":"36.917184","longitude":"138.947139","source_code":"HR1384356020170003","project_name":"","survey_name":"\u767b\u5ddd\u6d41\u57df\u7802\u9632\u5830\u5824\u7b49\u5730\u8cea\u8abf\u67fb\u696d\u52d9","client_name":"\u56fd\u571f\u4ea4\u901a\u7701\u5317\u9678\u5730\u65b9\u6574\u5099\u5c40\u6e6f\u6ca2\u7802\u9632\u4e8b\u52d9\u6240","boring_xml_url":64,"boring_view_url":1,"soilmap_view_url":null,"soiltest_xml_url":0,"soiltest_view_url":0},{"id":510013,"code":"B4KJ202201001-2549","latitude":"36.917354","longitude":"138.947878","source_code":"HR1384356020170002","project_name":"","survey_name":"\u767b\u5ddd\u6d41\u57df\u7802\u9632\u5830\u5824\u7b49\u5730\u8cea\u8abf\u67fb\u696d\u52d9","client_name":"\u56fd\u571f\u4ea4\u901a\u7701\u5317\u9678\u5730\u65b9\u6574\u5099\u5c40\u6e6f\u6ca2\u7802\u9632\u4e8b\u52d9\u6240","boring_xml_url":64,"boring_view_url":1,"soilmap_view_url":null,"soiltest_xml_url":0,"soiltest_view_url":0},{"id":510012,"code":"B4KJ202201001-2548","latitude":"36.917771","longitude":"138.94868","source_code":"HR1384356020170001","project_name":"","survey_name":"\u767b\u5ddd\u6d41\u57df\u7802\u9632\u5830\u5824\u7b49\u5730\u8cea\u8abf\u67fb\u696d\u52d9","client_name":"\u56fd\u571f\u4ea4\u901a\u7701\u5317\u9678\u5730\u65b9\u6574\u5099\u5c40\u6e6f\u6ca2\u7802\u9632\u4e8b\u52d9\u6240","boring_xml_url":64,"boring_view_url":1,"soilmap_view_url":null,"soiltest_xml_url":0,"soiltest_view_url":0},{"id":510011,"code":"B4KJ202201001-2547","latitude":"36.907416","longitude":"138.777507","source_code":"HR1384356020040018","project_name":"\u5e73\u621025\u5e74\u5ea6\u3000\u5730\u8cea\u8abf\u67fb\u696d\u52d9\u3000\u8abf\u67fb-04","survey_name":"\u516b\u6728\u6ca2\u5730\u533a\u5730\u8cea\u8abf\u67fb","client_name":"\u56fd\u571f\u4ea4\u901a\u7701\u5317\u9678\u5730\u65b9\u6574\u5099\u5c40\u3000\u6e6f\u6ca2\u7802\u9632\u4e8b\u52d9\u6240","boring_xml_url":64,"boring_view_url":1,"soilmap_view_url":null,"soiltest_xml_url":0,"soiltest_view_url":0},{"id":510010,"code":"B4KJ202201001-2546","latitude":"36.955721","longitude":"138.931646","source_code":"HR1384356020040017","project_name":"\u5e73\u621025\u5e74\u5ea6\u3000\u5730\u8cea\u8abf\u67fb\u696d\u52d9\u3000\u6307\u793a\u756a\u53f7\u3000\u8abf\u67fb-02","survey_name":"\u5dfb\u6a5f\u7802\u9632\u5830\u5824\u5730\u8cea\u8abf\u67fb","client_name":"\u56fd\u571f\u4ea4\u901a\u7701\u5317\u9678\u5730\u65b9\u6574\u5099\u5c40\u6e6f\u6ca2\u7802\u9632\u4e8b\u52d9\u6240","boring_xml_url":64,"boring_view_url":1,"soilmap_view_url":null,"soiltest_xml_url":0,"soiltest_view_url":0},{"id":510009,"code":"B4KJ202201001-2545","latitude":"36.955638","longitude":"138.931868","source_code":"HR1384356020040016","project_name":"\u5e73\u621025\u5e74\u5ea6\u3000\u5730\u8cea\u8abf\u67fb\u696d\u52d9\u3000\u6307\u793a\u756a\u53f7\u3000\u8abf\u67fb-02","survey_name":"\u5dfb\u6a5f\u7802\u9632\u5830\u5824\u5730\u8cea\u8abf\u67fb","client_name":"\u56fd\u571f\u4ea4\u901a\u7701\u5317\u9678\u5730\u65b9\u6574\u5099\u5c40\u6e6f\u6ca2\u7802\u9632\u4e8b\u52d9\u6240","boring_xml_url":64,"boring_view_url":1,"soilmap_view_url":null,"soiltest_xml_url":0,"soiltest_view_url":0},{"id":510008,"code":"B4KJ202201001-2544","latitude":"36.955694","longitude":"138.932035","source_code":"HR1384356020040015","project_name":"\u5e73\u621025\u5e74\u5ea6\u3000\u5730\u8cea\u8abf\u67fb\u696d\u52d9\u3000\u6307\u793a\u756a\u53f7\u3000\u8abf\u67fb-02","survey_name":"\u5dfb\u6a5f\u7802\u9632\u5830\u5824\u5730\u8cea\u8abf\u67fb","client_name":"\u56fd\u571f\u4ea4\u901a\u7701\u5317\u9678\u5730\u65b9\u6574\u5099\u5c40\u6e6f\u6ca2\u7802\u9632\u4e8b\u52d9\u6240","boring_xml_url":64,"boring_view_url":1,"soilmap_view_url":null,"soiltest_xml_url":0,"soiltest_view_url":0},{"id":510007,"code":"B4KJ202201001-2543","latitude":"37.049277","longitude":"138.960702","source_code":"HR1384356020040014","project_name":"\u5e73\u621025\u5e74\u5ea6\u3000\u5730\u8cea\u8abf\u67fb\u696d\u52d9\u3000\u6307\u793a\u756a\u53f7\u3000\u8abf\u67fb\u8ab2-01","survey_name":"\u821f\u7aaa\u6ca2\u7802\u9632\u5830\u5824\u5730\u8cea\u8abf\u67fb","client_name":"\u56fd\u571f\u4ea4\u901a\u7701\u5317\u9678\u5730\u65b9\u6574\u5099\u5c40\u6e6f\u6ca2\u7802\u9632\u4e8b\u52d9\u6240","boring_xml_url":64,"boring_view_url":1,"soilmap_view_url":null,"soiltest_xml_url":0,"soiltest_view_url":0},{"id":510006,"code":"B4KJ202201001-2542","latitude":"37.049138","longitude":"138.960564","source_code":"HR1384356020040013","project_name":"\u5e73\u621025\u5e74\u5ea6\u3000\u5730\u8cea\u8abf\u67fb\u696d\u52d9\u3000\u6307\u793a\u756a\u53f7\u3000\u8abf\u67fb\u8ab2-01","survey_name":"\u821f\u7aaa\u6ca2\u7802\u9632\u5830\u5824\u5730\u8cea\u8abf\u67fb","client_name":"\u56fd\u571f\u4ea4\u901a\u7701\u5317\u9678\u5730\u65b9\u6574\u5099\u5c40\u6e6f\u6ca2\u7802\u9632\u4e8b\u52d9\u6240","boring_xml_url":64,"boring_view_url":1,"soilmap_view_url":null,"soiltest_xml_url":0,"soiltest_view_url":0},{"id":510005,"code":"B4KJ202201001-2541","latitude":"37.049277","longitude":"138.961036","source_code":"HR1384356020040012","project_name":"\u5e73\u621025\u5e74\u5ea6\u3000\u5730\u8cea\u8abf\u67fb\u696d\u52d9\u3000\u6307\u793a\u756a\u53f7\u3000\u8abf\u67fb\u8ab2-01","survey_name":"\u821f\u7aaa\u6ca2\u7802\u9632\u5830\u5824\u5730\u8cea\u8abf\u67fb","client_name":"\u56fd\u571f\u4ea4\u901a\u7701\u5317\u9678\u5730\u65b9\u6574\u5099\u5c40\u6e6f\u6ca2\u7802\u9632\u4e8b\u52d9\u6240","boring_xml_url":64,"boring_view_url":1,"soilmap_view_url":null,"soiltest_xml_url":0,"soiltest_view_url":0},{"id":510004,"code":"B4KJ202201001-2540","latitude":"37.312943","longitude":"138.907203","source_code":"HR1384356020040011","project_name":"\u5e73\u621025\u5e74\u5ea6\u3000\u5730\u8cea\u8abf\u67fb\u696d\u52d9\u3000\u6307\u793a\u756a\u53f7\u3000\u6d41\u57df\u5bfe\u7b56-04","survey_name":"\u6728\u7c60\u5730\u533a\u5730\u3059\u3079\u308a\u8abf\u67fb","client_name":"\u56fd\u571f\u4ea4\u901a\u7701\u5317\u9678\u5730\u65b9\u6574\u5099\u5c40\u6e6f\u6ca2\u7802\u9632\u4e8b\u52d9\u6240","boring_xml_url":64,"boring_view_url":1,"soilmap_view_url":null,"soiltest_xml_url":0,"soiltest_view_url":0},{"id":510003,"code":"B4KJ202201001-2539","latitude":"37.317082","longitude":"138.899703","source_code":"HR1384356020040010","project_name":"\u5e73\u621025\u5e74\u5ea6\u3000\u5730\u8cea\u8abf\u67fb\u696d\u52d9\u3000\u6307\u793a\u756a\u53f7\u3000\u6d41\u57df\u5bfe\u7b56-03","survey_name":"\u68b6\u91d1\u5317\u5730\u533a\u5730\u3059\u3079\u308a\u8abf\u67fb","client_name":"\u56fd\u571f\u4ea4\u901a\u7701\u5317\u9678\u5730\u65b9\u6574\u5099\u5c40\u6e6f\u6ca2\u7802\u9632\u4e8b\u52d9\u6240","boring_xml_url":64,"boring_view_url":1,"soilmap_view_url":null,"soiltest_xml_url":0,"soiltest_view_url":0},{"id":510002,"code":"B4KJ202201001-2538","latitude":"37.211916","longitude":"138.841953","source_code":"HR1384356020040009","project_name":"\u5e73\u621025\u5e74\u5ea6\u3000\u5730\u8cea\u8abf\u67fb\u696d\u52d9\u3000\u6307\u793a\u756a\u53f7\u3000\u6d41\u57df\u5bfe\u7b56-02","survey_name":"\u677e\u8449\u5ddd\u6d41\u57df\u7802\u9632\u5830\u5824\u5730\u8cea\u8abf\u67fb","client_name":"\u56fd\u571f\u4ea4\u901a\u7701\u5317\u9678\u5730\u65b9\u6574\u5099\u5c40\u6e6f\u6ca2\u7802\u9632\u4e8b\u52d9\u6240","boring_xml_url":64,"boring_view_url":1,"soilmap_view_url":null,"soiltest_xml_url":0,"soiltest_view_url":0},{"id":510001,"code":"B4KJ202201001-2537","latitude":"37.21186","longitude":"138.842481","source_code":"HR1384356020040008","project_name":"\u5e73\u621025\u5e74\u5ea6\u3000\u5730\u8cea\u8abf\u67fb\u696d\u52d9\u3000\u6307\u793a\u756a\u53f7\u3000\u6d41\u57df\u5bfe\u7b56-02","survey_name":"\u677e\u8449\u5ddd\u6d41\u57df\u7802\u9632\u5830\u5824\u5730\u8cea\u8abf\u67fb","client_name":"\u56fd\u571f\u4ea4\u901a\u7701\u5317\u9678\u5730\u65b9\u6574\u5099\u5c40\u6e6f\u6ca2\u7802\u9632\u4e8b\u52d9\u6240","boring_xml_url":64,"boring_view_url":1,"soilmap_view_url":null,"soiltest_xml_url":0,"soiltest_view_url":0},{"id":510000,"code":"B4KJ202201001-2536","latitude":"37.211999","longitude":"138.841342","source_code":"HR1384356020040007","project_name":"\u5e73\u621025\u5e74\u5ea6\u3000\u5730\u8cea\u8abf\u67fb\u696d\u52d9\u3000\u6307\u793a\u756a\u53f7\u3000\u6d41\u57df\u5bfe\u7b56-02","survey_name":"\u677e\u8449\u5ddd\u6d41\u57df\u7802\u9632\u5830\u5824\u5730\u8cea\u8abf\u67fb","client_name":"\u56fd\u571f\u4ea4\u901a\u7701\u5317\u9678\u5730\u65b9\u6574\u5099\u5c40\u6e6f\u6ca2\u7802\u9632\u4e8b\u52d9\u6240","boring_xml_url":64,"boring_view_url":1,"soilmap_view_url":null,"soiltest_xml_url":0,"soiltest_view_url":0},{"id":509999,"code":"B4KJ202201001-2535","latitude":"37.21186","longitude":"138.841397","source_code":"HR1384356020040006","project_name":"\u5e73\u621025\u5e74\u5ea6\u3000\u5730\u8cea\u8abf\u67fb\u696d\u52d9\u3000\u6307\u793a\u756a\u53f7\u3000\u6d41\u57df\u5bfe\u7b56-02","survey_name":"\u677e\u8449\u5ddd\u6d41\u57df\u7802\u9632\u5830\u5824\u5730\u8cea\u8abf\u67fb","client_name":"\u56fd\u571f\u4ea4\u901a\u7701\u5317\u9678\u5730\u65b9\u6574\u5099\u5c40\u6e6f\u6ca2\u7802\u9632\u4e8b\u52d9\u6240","boring_xml_url":64,"boring_view_url":1,"soilmap_view_url":null,"soiltest_xml_url":0,"soiltest_view_url":0},{"id":509998,"code":"B4KJ202201001-2534","latitude":"37.211916","longitude":"138.841231","source_code":"HR1384356020040005","project_name":"\u5e73\u621025\u5e74\u5ea6\u3000\u5730\u8cea\u8abf\u67fb\u696d\u52d9\u3000\u6307\u793a\u756a\u53f7\u3000\u6d41\u57df\u5bfe\u7b56-02","survey_name":"\u677e\u8449\u5ddd\u6d41\u57df\u7802\u9632\u5830\u5824\u5730\u8cea\u8abf\u67fb","client_name":"\u56fd\u571f\u4ea4\u901a\u7701\u5317\u9678\u5730\u65b9\u6574\u5099\u5c40\u6e6f\u6ca2\u7802\u9632\u4e8b\u52d9\u6240","boring_xml_url":64,"boring_view_url":1,"soilmap_view_url":null,"soiltest_xml_url":0,"soiltest_view_url":0},{"id":509997,"code":"B4KJ202201001-2533","latitude":"37.211999","longitude":"138.841175","source_code":"HR1384356020040004","project_name":"\u5e73\u621025\u5e74\u5ea6\u3000\u5730\u8cea\u8abf\u67fb\u696d\u52d9\u3000\u6307\u793a\u756a\u53f7\u3000\u6d41\u57df\u5bfe\u7b56-02","survey_name":"\u677e\u8449\u5ddd\u6d41\u57df\u7802\u9632\u5830\u5824\u5730\u8cea\u8abf\u67fb","client_name":"\u56fd\u571f\u4ea4\u901a\u7701\u5317\u9678\u5730\u65b9\u6574\u5099\u5c40\u6e6f\u6ca2\u7802\u9632\u4e8b\u52d9\u6240","boring_xml_url":64,"boring_view_url":1,"soilmap_view_url":null,"soiltest_xml_url":0,"soiltest_view_url":0},{"id":509996,"code":"B4KJ202201001-2532","latitude":"37.201999","longitude":"138.844592","source_code":"HR1384356020040003","project_name":"\u5e73\u621025\u5e74\u5ea6\u5730\u8cea\u8abf\u67fb\u696d\u52d9\u3000\u6307\u793a\u756a\u53f7\u3000\u6d41\u57df\u5bfe\u7b56-01","survey_name":"\u76f8\u5ddd\u5ddd\u4e0a\u6d412\u53f7\u5830\u5824\u53f3\u5cb8\u659c\u9762\u5730\u3059\u3079\u308a\u8abf\u67fb","client_name":"\u56fd\u571f\u4ea4\u901a\u7701\u5317\u9678\u5730\u65b9\u6574\u5099\u5c40\u6e6f\u6ca2\u7802\u9632\u4e8b\u52d9\u6240","boring_xml_url":64,"boring_view_url":1,"soilmap_view_url":null,"soiltest_xml_url":0,"soiltest_view_url":0},{"id":509995,"code":"B4KJ202201001-2531","latitude":"37.202082","longitude":"138.844397","source_code":"HR1384356020040002","project_name":"\u5e73\u621025\u5e74\u5ea6\u5730\u8cea\u8abf\u67fb\u696d\u52d9\u3000\u6307\u793a\u756a\u53f7\u3000\u6d41\u57df\u5bfe\u7b56-01","survey_name":"\u76f8\u5ddd\u5ddd\u4e0a\u6d412\u53f7\u5830\u5824\u53f3\u5cb8\u659c\u9762\u5730\u3059\u3079\u308a\u8abf\u67fb","client_name":"\u56fd\u571f\u4ea4\u901a\u7701\u5317\u9678\u5730\u65b9\u6574\u5099\u5c40\u6e6f\u6ca2\u7802\u9632\u4e8b\u52d9\u6240","boring_xml_url":64,"boring_view_url":1,"soilmap_view_url":null,"soiltest_xml_url":0,"soiltest_view_url":0},{"id":509994,"code":"B4KJ202201001-2530","latitude":"37.202166","longitude":"138.844231","source_code":"HR1384356020040001","project_name":"\u5e73\u621025\u5e74\u5ea6\u5730\u8cea\u8abf\u67fb\u696d\u52d9\u3000\u6307\u793a\u756a\u53f7\u3000\u6d41\u57df\u5bfe\u7b56-01","survey_name":"\u76f8\u5ddd\u5ddd\u4e0a\u6d412\u53f7\u5830\u5824\u53f3\u5cb8\u659c\u9762\u5730\u3059\u3079\u308a\u8abf\u67fb","client_name":"\u56fd\u571f\u4ea4\u901a\u7701\u5317\u9678\u5730\u65b9\u6574\u5099\u5c40\u6e6f\u6ca2\u7802\u9632\u4e8b\u52d9\u6240","boring_xml_url":64,"boring_view_url":1,"soilmap_view_url":null,"soiltest_xml_url":0,"soiltest_view_url":0},{"id":509993,"code":"B4KJ202201001-2529","latitude":"37.197416","longitude":"138.95273","source_code":"HR1384346020150004","project_name":"\u6d66\u4f50\u30d0\u30a4\u30d1\u30b9","survey_name":"\u5e73\u621025\u5e74\u5ea6\u6d66\u4f50\u30d0\u30a4\u30d1\u30b9\u4ed6\u5730\u8cea\u8abf\u67fb\u696d\u52d9","client_name":"\"\u5317\u9678\u5730\u65b9\u6574\u5099\u5c40 \u9577\u5ca1\u56fd\u9053\u4e8b\u52d9\u6240\"","boring_xml_url":64,"boring_view_url":1,"soilmap_view_url":null,"soiltest_xml_url":0,"soiltest_view_url":0},{"id":509992,"code":"B4KJ202201001-2528","latitude":"37.196194","longitude":"138.952203","source_code":"HR1384346020150002","project_name":"\u6d66\u4f50\u30d0\u30a4\u30d1\u30b9","survey_name":"\u5e73\u621025\u5e74\u5ea6\u6d66\u4f50\u30d0\u30a4\u30d1\u30b9\u4ed6\u5730\u8cea\u8abf\u67fb\u696d\u52d9","client_name":"\"\u5317\u9678\u5730\u65b9\u6574\u5099\u5c40 \u9577\u5ca1\u56fd\u9053\u4e8b\u52d9\u6240\"","boring_xml_url":64,"boring_view_url":1,"soilmap_view_url":null,"soiltest_xml_url":0,"soiltest_view_url":0},{"id":509991,"code":"B4KJ202201001-2527","latitude":"37.193471","longitude":"138.95098","source_code":"HR1384346020150001","project_name":"\u6d66\u4f50\u30d0\u30a4\u30d1\u30b9","survey_name":"\u5e73\u621025\u5e74\u5ea6\u6d66\u4f50\u30d0\u30a4\u30d1\u30b9\u4ed6\u5730\u8cea\u8abf\u67fb\u696d\u52d9","client_name":"\"\u5317\u9678\u5730\u65b9\u6574\u5099\u5c40 \u9577\u5ca1\u56fd\u9053\u4e8b\u52d9\u6240\"","boring_xml_url":64,"boring_view_url":1,"soilmap_view_url":null,"soiltest_xml_url":0,"soiltest_view_url":0}]}}