{"header":{"xyz":{"source":[],"mosaic":false},"page":119,"raw":{"soiltest_result":"0","bbox":"57.598333,109.544722,1.933333,163.806111","page":"119"},"conditions":{"soiltest_result":0,"north":57.598333,"west":109.544722,"south":1.933333,"east":163.806111},"success":true,"message":""},"data":{"meta":{"total":212844,"page":119,"pages":7095,"count":30},"values":[{"id":649302,"code":"NGIC202303064-0001","latitude":"40.827213888889","longitude":"141.120925","source_code":"","project_name":"","survey_name":"\u4ee4\u548c4\u5e74\u5ea6\u5bb6\u30ce\u4e0b\u5730\u533a\u5730\u8cea\u8abf\u67fb","client_name":"\u56fd\u571f\u4ea4\u901a\u7701\u6771\u5317\u5730\u65b9\u6574\u5099\u5c40\u9752\u68ee\u6cb3\u5ddd\u56fd\u9053\u4e8b\u52d9\u6240","boring_xml_url":47,"boring_view_url":1,"soilmap_view_url":null,"soiltest_xml_url":47,"soiltest_view_url":47},{"id":649290,"code":"NGIC202302831-0002","latitude":"33.168568583333","longitude":"130.02807127778","source_code":"","project_name":"","survey_name":"\u4ee4\u548c4\u5e74\u5ea6\u725b\u6d25\u5ddd\u904a\u6c34\u5730\u69cb\u9020\u7269\u8a2d\u8a08\u5916\u696d\u52d9","client_name":"\u56fd\u571f\u4ea4\u901a\u7701\u4e5d\u5dde\u5730\u65b9\u6574\u5099\u5c40\u6b66\u96c4\u6cb3\u5ddd\u4e8b\u52d9\u6240\u5de5\u52d9\u8ab2","boring_xml_url":47,"boring_view_url":1,"soilmap_view_url":null,"soiltest_xml_url":47,"soiltest_view_url":47},{"id":649289,"code":"NGIC202302831-0001","latitude":"33.168743277778","longitude":"130.02803022222","source_code":"","project_name":"","survey_name":"\u4ee4\u548c4\u5e74\u5ea6\u725b\u6d25\u5ddd\u904a\u6c34\u5730\u69cb\u9020\u7269\u8a2d\u8a08\u5916\u696d\u52d9","client_name":"\u56fd\u571f\u4ea4\u901a\u7701\u4e5d\u5dde\u5730\u65b9\u6574\u5099\u5c40\u6b66\u96c4\u6cb3\u5ddd\u4e8b\u52d9\u6240\u5de5\u52d9\u8ab2","boring_xml_url":47,"boring_view_url":1,"soilmap_view_url":null,"soiltest_xml_url":0,"soiltest_view_url":0},{"id":649281,"code":"NGIC202303134-0002","latitude":"43.097654444444","longitude":"141.62308111111","source_code":"","project_name":"","survey_name":"\u4ee4\u548c5\u5e74\u5ea6\u65bd\u884c\u6c5f\u5225\u5357\u5e4c\u5730\u533a \u53575\u7dda\u96c6\u6c34\u8def\u53576\u7dda\u4e0a\u6d41\u5de5\u533a\u8a2d\u8a08\u7b49\u696d\u52d9","client_name":"\u56fd\u571f\u4ea4\u901a\u7701\u5317\u6d77\u9053\u958b\u767a\u5c40\u672d\u5e4c\u958b\u767a\u5efa\u8a2d\u90e8 \u672d\u5e4c\u5357\u8fb2\u696d\u4e8b\u52d9\u6240","boring_xml_url":47,"boring_view_url":1,"soilmap_view_url":null,"soiltest_xml_url":47,"soiltest_view_url":47},{"id":649280,"code":"NGIC202303134-0001","latitude":"43.097054444444","longitude":"141.621825","source_code":"","project_name":"","survey_name":"\u4ee4\u548c5\u5e74\u5ea6\u65bd\u884c\u6c5f\u5225\u5357\u5e4c\u5730\u533a \u53575\u7dda\u96c6\u6c34\u8def\u53576\u7dda\u4e0a\u6d41\u5de5\u533a\u8a2d\u8a08\u7b49\u696d\u52d9","client_name":"\u56fd\u571f\u4ea4\u901a\u7701\u5317\u6d77\u9053\u958b\u767a\u5c40\u672d\u5e4c\u958b\u767a\u5efa\u8a2d\u90e8 \u672d\u5e4c\u5357\u8fb2\u696d\u4e8b\u52d9\u6240","boring_xml_url":47,"boring_view_url":1,"soilmap_view_url":null,"soiltest_xml_url":47,"soiltest_view_url":47},{"id":649258,"code":"NGIC202303114-0010","latitude":"35.176322777778","longitude":"137.86903138889","source_code":"","project_name":"","survey_name":"\u4ee4\u548c5\u5e74\u5ea6\u6c34\u7aaa\u4f50\u4e45\u9593\u5730\u8cea\u8abf\u67fb\u696d\u52d9","client_name":"\u56fd\u571f\u4ea4\u901a\u7701\u4e2d\u90e8\u5730\u65b9\u6574\u5099\u5c40\u6d5c\u677e\u6cb3\u5ddd\u56fd\u9053\u4e8b\u52d9\u6240","boring_xml_url":47,"boring_view_url":1,"soilmap_view_url":null,"soiltest_xml_url":0,"soiltest_view_url":0},{"id":649257,"code":"NGIC202303114-0009","latitude":"35.176778055556","longitude":"137.86953972222","source_code":"","project_name":"","survey_name":"\u4ee4\u548c5\u5e74\u5ea6\u6c34\u7aaa\u4f50\u4e45\u9593\u5730\u8cea\u8abf\u67fb\u696d\u52d9","client_name":"\u56fd\u571f\u4ea4\u901a\u7701\u4e2d\u90e8\u5730\u65b9\u6574\u5099\u5c40\u6d5c\u677e\u6cb3\u5ddd\u56fd\u9053\u4e8b\u52d9\u6240","boring_xml_url":47,"boring_view_url":1,"soilmap_view_url":null,"soiltest_xml_url":0,"soiltest_view_url":0},{"id":649256,"code":"NGIC202303114-0008","latitude":"35.178266666667","longitude":"137.87065833333","source_code":"","project_name":"","survey_name":"\u4ee4\u548c5\u5e74\u5ea6\u6c34\u7aaa\u4f50\u4e45\u9593\u5730\u8cea\u8abf\u67fb\u696d\u52d9","client_name":"\u56fd\u571f\u4ea4\u901a\u7701\u4e2d\u90e8\u5730\u65b9\u6574\u5099\u5c40\u6d5c\u677e\u6cb3\u5ddd\u56fd\u9053\u4e8b\u52d9\u6240","boring_xml_url":47,"boring_view_url":1,"soilmap_view_url":null,"soiltest_xml_url":0,"soiltest_view_url":0},{"id":649255,"code":"NGIC202303114-0007","latitude":"35.176284722222","longitude":"137.86888527778","source_code":"","project_name":"","survey_name":"\u4ee4\u548c5\u5e74\u5ea6\u6c34\u7aaa\u4f50\u4e45\u9593\u5730\u8cea\u8abf\u67fb\u696d\u52d9","client_name":"\u56fd\u571f\u4ea4\u901a\u7701\u4e2d\u90e8\u5730\u65b9\u6574\u5099\u5c40\u6d5c\u677e\u6cb3\u5ddd\u56fd\u9053\u4e8b\u52d9\u6240","boring_xml_url":47,"boring_view_url":1,"soilmap_view_url":null,"soiltest_xml_url":0,"soiltest_view_url":0},{"id":649254,"code":"NGIC202303114-0006","latitude":"35.176346666667","longitude":"137.86913555556","source_code":"","project_name":"","survey_name":"\u4ee4\u548c5\u5e74\u5ea6\u6c34\u7aaa\u4f50\u4e45\u9593\u5730\u8cea\u8abf\u67fb\u696d\u52d9","client_name":"\u56fd\u571f\u4ea4\u901a\u7701\u4e2d\u90e8\u5730\u65b9\u6574\u5099\u5c40\u6d5c\u677e\u6cb3\u5ddd\u56fd\u9053\u4e8b\u52d9\u6240","boring_xml_url":47,"boring_view_url":1,"soilmap_view_url":null,"soiltest_xml_url":0,"soiltest_view_url":0},{"id":649253,"code":"NGIC202303114-0005","latitude":"35.176472777778","longitude":"137.86926361111","source_code":"","project_name":"","survey_name":"\u4ee4\u548c5\u5e74\u5ea6\u6c34\u7aaa\u4f50\u4e45\u9593\u5730\u8cea\u8abf\u67fb\u696d\u52d9","client_name":"\u56fd\u571f\u4ea4\u901a\u7701\u4e2d\u90e8\u5730\u65b9\u6574\u5099\u5c40\u6d5c\u677e\u6cb3\u5ddd\u56fd\u9053\u4e8b\u52d9\u6240","boring_xml_url":47,"boring_view_url":1,"soilmap_view_url":null,"soiltest_xml_url":47,"soiltest_view_url":47},{"id":649252,"code":"NGIC202303114-0004","latitude":"35.176877222222","longitude":"137.86954972222","source_code":"","project_name":"","survey_name":"\u4ee4\u548c5\u5e74\u5ea6\u6c34\u7aaa\u4f50\u4e45\u9593\u5730\u8cea\u8abf\u67fb\u696d\u52d9","client_name":"\u56fd\u571f\u4ea4\u901a\u7701\u4e2d\u90e8\u5730\u65b9\u6574\u5099\u5c40\u6d5c\u677e\u6cb3\u5ddd\u56fd\u9053\u4e8b\u52d9\u6240","boring_xml_url":47,"boring_view_url":1,"soilmap_view_url":null,"soiltest_xml_url":0,"soiltest_view_url":0},{"id":649251,"code":"NGIC202303114-0003","latitude":"35.178174444444","longitude":"137.87055444444","source_code":"","project_name":"","survey_name":"\u4ee4\u548c5\u5e74\u5ea6\u6c34\u7aaa\u4f50\u4e45\u9593\u5730\u8cea\u8abf\u67fb\u696d\u52d9","client_name":"\u56fd\u571f\u4ea4\u901a\u7701\u4e2d\u90e8\u5730\u65b9\u6574\u5099\u5c40\u6d5c\u677e\u6cb3\u5ddd\u56fd\u9053\u4e8b\u52d9\u6240","boring_xml_url":47,"boring_view_url":1,"soilmap_view_url":null,"soiltest_xml_url":0,"soiltest_view_url":0},{"id":649250,"code":"NGIC202303114-0002","latitude":"35.180510555556","longitude":"137.87149416667","source_code":"","project_name":"","survey_name":"\u4ee4\u548c5\u5e74\u5ea6\u6c34\u7aaa\u4f50\u4e45\u9593\u5730\u8cea\u8abf\u67fb\u696d\u52d9","client_name":"\u56fd\u571f\u4ea4\u901a\u7701\u4e2d\u90e8\u5730\u65b9\u6574\u5099\u5c40\u6d5c\u677e\u6cb3\u5ddd\u56fd\u9053\u4e8b\u52d9\u6240","boring_xml_url":47,"boring_view_url":1,"soilmap_view_url":null,"soiltest_xml_url":0,"soiltest_view_url":0},{"id":649249,"code":"NGIC202303114-0001","latitude":"35.180884444444","longitude":"137.87168416667","source_code":"","project_name":"","survey_name":"\u4ee4\u548c5\u5e74\u5ea6\u6c34\u7aaa\u4f50\u4e45\u9593\u5730\u8cea\u8abf\u67fb\u696d\u52d9","client_name":"\u56fd\u571f\u4ea4\u901a\u7701\u4e2d\u90e8\u5730\u65b9\u6574\u5099\u5c40\u6d5c\u677e\u6cb3\u5ddd\u56fd\u9053\u4e8b\u52d9\u6240","boring_xml_url":47,"boring_view_url":1,"soilmap_view_url":null,"soiltest_xml_url":0,"soiltest_view_url":0},{"id":649238,"code":"NGIC202303129-0009","latitude":"41.878777777778","longitude":"141.09269444444","source_code":"","project_name":"\u4e00\u822c\u56fd\u9053227\u53f7\u5317\u6597\u5e02\u4e2d\u5c71\u5730\u8cea\u8abf\u67fb\u5916\u4e00\u9023\u696d\u52d9","survey_name":"\u4e00\u822c\u56fd\u9053227\u53f7\u5317\u6597\u5e02\u4e2d\u5c71\u5730\u8cea\u8abf\u67fb\u5916\u4e00\u9023\u696d\u52d9","client_name":"\u56fd\u571f\u4ea4\u901a\u7701\u5317\u6d77\u9053\u958b\u767a\u5c40\u51fd\u9928\u958b\u767a\u5efa\u8a2d\u90e8\u672c\u90e8","boring_xml_url":47,"boring_view_url":1,"soilmap_view_url":null,"soiltest_xml_url":0,"soiltest_view_url":0},{"id":649237,"code":"NGIC202303129-0008","latitude":"41.918772222222","longitude":"140.27498611111","source_code":"","project_name":"\u4e00\u822c\u56fd\u9053227\u53f7\u5317\u6597\u5e02\u4e2d\u5c71\u5730\u8cea\u8abf\u67fb\u5916\u4e00\u9023\u696d\u52d9","survey_name":"\u4e00\u822c\u56fd\u9053227\u53f7\u5317\u6597\u5e02\u4e2d\u5c71\u5730\u8cea\u8abf\u67fb\u5916\u4e00\u9023\u696d\u52d9","client_name":"\u56fd\u571f\u4ea4\u901a\u7701\u5317\u6d77\u9053\u958b\u767a\u5c40\u51fd\u9928\u958b\u767a\u5efa\u8a2d\u90e8\u672c\u90e8","boring_xml_url":47,"boring_view_url":1,"soilmap_view_url":null,"soiltest_xml_url":0,"soiltest_view_url":0},{"id":649236,"code":"NGIC202303129-0007","latitude":"41.918891666667","longitude":"140.27515555556","source_code":"","project_name":"\u4e00\u822c\u56fd\u9053227\u53f7\u5317\u6597\u5e02\u4e2d\u5c71\u5730\u8cea\u8abf\u67fb\u5916\u4e00\u9023\u696d\u52d9","survey_name":"\u4e00\u822c\u56fd\u9053227\u53f7\u5317\u6597\u5e02\u4e2d\u5c71\u5730\u8cea\u8abf\u67fb\u5916\u4e00\u9023\u696d\u52d9","client_name":"\u56fd\u571f\u4ea4\u901a\u7701\u5317\u6d77\u9053\u958b\u767a\u5c40\u51fd\u9928\u958b\u767a\u5efa\u8a2d\u90e8\u672c\u90e8","boring_xml_url":47,"boring_view_url":1,"soilmap_view_url":null,"soiltest_xml_url":0,"soiltest_view_url":0},{"id":649235,"code":"NGIC202303129-0006","latitude":"41.759533333333","longitude":"140.60466944444","source_code":"","project_name":"\u4e00\u822c\u56fd\u9053227\u53f7\u5317\u6597\u5e02\u4e2d\u5c71\u5730\u8cea\u8abf\u67fb\u5916\u4e00\u9023\u696d\u52d9","survey_name":"\u4e00\u822c\u56fd\u9053227\u53f7\u5317\u6597\u5e02\u4e2d\u5c71\u5730\u8cea\u8abf\u67fb\u5916\u4e00\u9023\u696d\u52d9","client_name":"\u56fd\u571f\u4ea4\u901a\u7701\u5317\u6d77\u9053\u958b\u767a\u5c40\u51fd\u9928\u958b\u767a\u5efa\u8a2d\u90e8\u672c\u90e8","boring_xml_url":47,"boring_view_url":1,"soilmap_view_url":null,"soiltest_xml_url":0,"soiltest_view_url":0},{"id":649234,"code":"NGIC202303129-0005","latitude":"41.955211111111","longitude":"140.50307777778","source_code":"","project_name":"\u4e00\u822c\u56fd\u9053227\u53f7\u5317\u6597\u5e02\u4e2d\u5c71\u5730\u8cea\u8abf\u67fb\u5916\u4e00\u9023\u696d\u52d9","survey_name":"\u4e00\u822c\u56fd\u9053227\u53f7\u5317\u6597\u5e02\u4e2d\u5c71\u5730\u8cea\u8abf\u67fb\u5916\u4e00\u9023\u696d\u52d9","client_name":"\u56fd\u571f\u4ea4\u901a\u7701\u5317\u6d77\u9053\u958b\u767a\u5c40\u51fd\u9928\u958b\u767a\u5efa\u8a2d\u90e8\u672c\u90e8","boring_xml_url":47,"boring_view_url":1,"soilmap_view_url":null,"soiltest_xml_url":0,"soiltest_view_url":0},{"id":649233,"code":"NGIC202303129-0004","latitude":"41.942808333333","longitude":"140.55083611111","source_code":"","project_name":"\u4e00\u822c\u56fd\u9053227\u53f7\u5317\u6597\u5e02\u4e2d\u5c71\u5730\u8cea\u8abf\u67fb\u5916\u4e00\u9023\u696d\u52d9","survey_name":"\u4e00\u822c\u56fd\u9053227\u53f7\u5317\u6597\u5e02\u4e2d\u5c71\u5730\u8cea\u8abf\u67fb\u5916\u4e00\u9023\u696d\u52d9","client_name":"\u56fd\u571f\u4ea4\u901a\u7701\u5317\u6d77\u9053\u958b\u767a\u5c40\u51fd\u9928\u958b\u767a\u5efa\u8a2d\u90e8\u672c\u90e8","boring_xml_url":47,"boring_view_url":1,"soilmap_view_url":null,"soiltest_xml_url":0,"soiltest_view_url":0},{"id":649232,"code":"NGIC202303129-0003","latitude":"41.942447222222","longitude":"140.55069722222","source_code":"","project_name":"\u4e00\u822c\u56fd\u9053227\u53f7\u5317\u6597\u5e02\u4e2d\u5c71\u5730\u8cea\u8abf\u67fb\u5916\u4e00\u9023\u696d\u52d9","survey_name":"\u4e00\u822c\u56fd\u9053227\u53f7\u5317\u6597\u5e02\u4e2d\u5c71\u5730\u8cea\u8abf\u67fb\u5916\u4e00\u9023\u696d\u52d9","client_name":"\u56fd\u571f\u4ea4\u901a\u7701\u5317\u6d77\u9053\u958b\u767a\u5c40\u51fd\u9928\u958b\u767a\u5efa\u8a2d\u90e8\u672c\u90e8","boring_xml_url":47,"boring_view_url":1,"soilmap_view_url":null,"soiltest_xml_url":0,"soiltest_view_url":0},{"id":649231,"code":"NGIC202303129-0002","latitude":"41.925975","longitude":"140.57398333333","source_code":"","project_name":"\u4e00\u822c\u56fd\u9053227\u53f7\u5317\u6597\u5e02\u4e2d\u5c71\u5730\u8cea\u8abf\u67fb\u5916\u4e00\u9023\u696d\u52d9","survey_name":"\u4e00\u822c\u56fd\u9053227\u53f7\u5317\u6597\u5e02\u4e2d\u5c71\u5730\u8cea\u8abf\u67fb\u5916\u4e00\u9023\u696d\u52d9","client_name":"\u56fd\u571f\u4ea4\u901a\u7701\u5317\u6d77\u9053\u958b\u767a\u5c40\u51fd\u9928\u958b\u767a\u5efa\u8a2d\u90e8\u672c\u90e8","boring_xml_url":47,"boring_view_url":1,"soilmap_view_url":null,"soiltest_xml_url":0,"soiltest_view_url":0},{"id":649230,"code":"NGIC202303129-0001","latitude":"41.925944444444","longitude":"140.57395555556","source_code":"","project_name":"\u4e00\u822c\u56fd\u9053227\u53f7\u5317\u6597\u5e02\u4e2d\u5c71\u5730\u8cea\u8abf\u67fb\u5916\u4e00\u9023\u696d\u52d9","survey_name":"\u4e00\u822c\u56fd\u9053227\u53f7\u5317\u6597\u5e02\u4e2d\u5c71\u5730\u8cea\u8abf\u67fb\u5916\u4e00\u9023\u696d\u52d9","client_name":"\u56fd\u571f\u4ea4\u901a\u7701\u5317\u6d77\u9053\u958b\u767a\u5c40\u51fd\u9928\u958b\u767a\u5efa\u8a2d\u90e8\u672c\u90e8","boring_xml_url":47,"boring_view_url":1,"soilmap_view_url":null,"soiltest_xml_url":0,"soiltest_view_url":0},{"id":649171,"code":"NGIC202302939-0003","latitude":"42.994339166667","longitude":"140.60670777778","source_code":"","project_name":"\u56fd\u55b6\u304b\u3093\u304c\u3044\u6392\u6c34\u4e8b\u696d","survey_name":"\u4ee4\u548c5\u5e74\u5ea6 \u4e2d\u5f8c\u5fd7\u5730\u533a \u524d\u7530\u5e79\u7dda\u7528\u6c34\u8def\u5916\u4e00\u9023\u8a2d\u8a08\u7b49\u696d\u52d9","client_name":"\u56fd\u571f\u4ea4\u901a\u7701\u5317\u6d77\u9053\u958b\u767a\u5c40\u5c0f\u6a3d\u958b\u767a\u5efa\u8a2d\u90e8\u5f8c\u5fd7\u4e2d\u90e8\u8fb2\u696d\u958b\u767a\u4e8b\u696d\u6240","boring_xml_url":47,"boring_view_url":1,"soilmap_view_url":null,"soiltest_xml_url":0,"soiltest_view_url":0},{"id":649170,"code":"NGIC202302939-0002","latitude":"42.984675555556","longitude":"140.59690777778","source_code":"","project_name":"\u56fd\u55b6\u304b\u3093\u304c\u3044\u6392\u6c34\u4e8b\u696d","survey_name":"\u4ee4\u548c5\u5e74\u5ea6 \u4e2d\u5f8c\u5fd7\u5730\u533a \u524d\u7530\u5e79\u7dda\u7528\u6c34\u8def\u5916\u4e00\u9023\u8a2d\u8a08\u7b49\u696d\u52d9","client_name":"\u56fd\u571f\u4ea4\u901a\u7701\u5317\u6d77\u9053\u958b\u767a\u5c40\u5c0f\u6a3d\u958b\u767a\u5efa\u8a2d\u90e8\u5f8c\u5fd7\u4e2d\u90e8\u8fb2\u696d\u958b\u767a\u4e8b\u696d\u6240","boring_xml_url":47,"boring_view_url":1,"soilmap_view_url":null,"soiltest_xml_url":0,"soiltest_view_url":0},{"id":649169,"code":"NGIC202302939-0001","latitude":"42.980833611111","longitude":"140.60466722222","source_code":"","project_name":"\u56fd\u55b6\u304b\u3093\u304c\u3044\u6392\u6c34\u4e8b\u696d","survey_name":"\u4ee4\u548c5\u5e74\u5ea6 \u4e2d\u5f8c\u5fd7\u5730\u533a \u524d\u7530\u5e79\u7dda\u7528\u6c34\u8def\u5916\u4e00\u9023\u8a2d\u8a08\u7b49\u696d\u52d9","client_name":"\u56fd\u571f\u4ea4\u901a\u7701\u5317\u6d77\u9053\u958b\u767a\u5c40\u5c0f\u6a3d\u958b\u767a\u5efa\u8a2d\u90e8\u5f8c\u5fd7\u4e2d\u90e8\u8fb2\u696d\u958b\u767a\u4e8b\u696d\u6240","boring_xml_url":47,"boring_view_url":1,"soilmap_view_url":null,"soiltest_xml_url":0,"soiltest_view_url":0},{"id":649168,"code":"NGIC202302930-0002","latitude":"43.671686944444","longitude":"142.40852222222","source_code":"","project_name":"\u56fd\u55b6\u7dca\u6025\u8fb2\u5730\u518d\u7de8\u6574\u5099\u4e8b\u696d\u65ed\u6771\u5730\u533a","survey_name":"\u4ee4\u548c5\u5e74\u5ea6 \u65ed\u6771\u5730\u533a 63\u8fb2\u533a\u897f\u5de5\u533a\u533a\u753b\u6574\u7406\u8a2d\u8a08\u7b49\u696d\u52d9","client_name":"\u56fd\u571f\u4ea4\u901a\u7701\u5317\u6d77\u9053\u958b\u767a\u5c40\u65ed\u5ddd\u958b\u767a\u5efa\u8a2d\u90e8\u65ed\u5ddd\u8fb2\u696d\u4e8b\u52d9\u6240","boring_xml_url":47,"boring_view_url":1,"soilmap_view_url":null,"soiltest_xml_url":47,"soiltest_view_url":47},{"id":649167,"code":"NGIC202302930-0001","latitude":"43.671709166667","longitude":"142.41431388889","source_code":"","project_name":"\u56fd\u55b6\u7dca\u6025\u8fb2\u5730\u518d\u7de8\u6574\u5099\u4e8b\u696d\u65ed\u6771\u5730\u533a","survey_name":"\u4ee4\u548c5\u5e74\u5ea6 \u65ed\u6771\u5730\u533a 63\u8fb2\u533a\u897f\u5de5\u533a\u533a\u753b\u6574\u7406\u8a2d\u8a08\u7b49\u696d\u52d9","client_name":"\u56fd\u571f\u4ea4\u901a\u7701\u5317\u6d77\u9053\u958b\u767a\u5c40\u65ed\u5ddd\u958b\u767a\u5efa\u8a2d\u90e8\u65ed\u5ddd\u8fb2\u696d\u4e8b\u52d9\u6240","boring_xml_url":47,"boring_view_url":1,"soilmap_view_url":null,"soiltest_xml_url":47,"soiltest_view_url":47},{"id":649143,"code":"NGIC202303084-0007","latitude":"38.575736111111","longitude":"139.94331666667","source_code":"","project_name":"","survey_name":"\u4ee4\u548c5\u5e74\u5ea6\u6708\u5c71\u5730\u3059\u3079\u308a\u7530\u9ea6\u4fe3\u5730\u533a\u5730\u8cea\u8abf\u67fb","client_name":"\u56fd\u571f\u4ea4\u901a\u7701\u6771\u5317\u5730\u65b9\u6574\u5099\u5c40\u65b0\u5e84\u6cb3\u5ddd\u4e8b\u52d9\u6240","boring_xml_url":47,"boring_view_url":1,"soilmap_view_url":null,"soiltest_xml_url":0,"soiltest_view_url":0}]}}