{"header":{"xyz":{"source":[],"mosaic":false},"page":1191,"raw":{"soiltest_result":"0","bbox":"57.598333,109.544722,1.933333,163.806111","page":"1191"},"conditions":{"soiltest_result":0,"north":57.598333,"west":109.544722,"south":1.933333,"east":163.806111},"success":true,"message":""},"data":{"meta":{"total":212844,"page":1191,"pages":7095,"count":30},"values":[{"id":509660,"code":"B4KJ202201001-2196","latitude":"38.462961","longitude":"139.558079","source_code":"HR1484325720230018","project_name":"6\u53f7\u30c8\u30f3\u30cd\u30eb\u90e8\u5730\u8cea\u8abf\u67fb","survey_name":"\u671d\u65e5\u6e29\u6d77\u9053\u8def\u5730\u8cea\u8abf\u67fb\u305d\u306e7\u696d\u52d9","client_name":"\u56fd\u571f\u4ea4\u901a\u7701\u3000\u5317\u9678\u5730\u65b9\u6574\u5099\u5c40\u65b0\u6f5f\u56fd\u9053\u4e8b\u52d9\u6240\u8a08\u753b\u8ab2","boring_xml_url":64,"boring_view_url":1,"soilmap_view_url":null,"soiltest_xml_url":0,"soiltest_view_url":0},{"id":509659,"code":"B4KJ202201001-2195","latitude":"38.467588","longitude":"139.549595","source_code":"HR1484325720230017","project_name":"6\u53f7\u30c8\u30f3\u30cd\u30eb\u90e8\u5730\u8cea\u8abf\u67fb","survey_name":"\u671d\u65e5\u6e29\u6d77\u9053\u8def\u5730\u8cea\u8abf\u67fb\u305d\u306e7\u696d\u52d9","client_name":"\u56fd\u571f\u4ea4\u901a\u7701\u3000\u5317\u9678\u5730\u65b9\u6574\u5099\u5c40\u65b0\u6f5f\u56fd\u9053\u4e8b\u52d9\u6240\u8a08\u753b\u8ab2","boring_xml_url":64,"boring_view_url":1,"soilmap_view_url":null,"soiltest_xml_url":0,"soiltest_view_url":0},{"id":509658,"code":"B4KJ202201001-2194","latitude":"38.467481","longitude":"139.549796","source_code":"HR1484325720230016","project_name":"6\u53f7\u30c8\u30f3\u30cd\u30eb\u90e8\u5730\u8cea\u8abf\u67fb","survey_name":"\u671d\u65e5\u6e29\u6d77\u9053\u8def\u5730\u8cea\u8abf\u67fb\u305d\u306e7\u696d\u52d9","client_name":"\u56fd\u571f\u4ea4\u901a\u7701\u3000\u5317\u9678\u5730\u65b9\u6574\u5099\u5c40\u65b0\u6f5f\u56fd\u9053\u4e8b\u52d9\u6240\u8a08\u753b\u8ab2","boring_xml_url":64,"boring_view_url":1,"soilmap_view_url":null,"soiltest_xml_url":0,"soiltest_view_url":0},{"id":509657,"code":"B4KJ202201001-2193","latitude":"38.463568","longitude":"139.557079","source_code":"HR1484325720230015","project_name":"6\u53f7\u30c8\u30f3\u30cd\u30eb\u90e8\u5730\u8cea\u8abf\u67fb","survey_name":"\u671d\u65e5\u6e29\u6d77\u9053\u8def\u5730\u8cea\u8abf\u67fb\u305d\u306e7\u696d\u52d9","client_name":"\u56fd\u571f\u4ea4\u901a\u7701\u3000\u5317\u9678\u5730\u65b9\u6574\u5099\u5c40\u65b0\u6f5f\u56fd\u9053\u4e8b\u52d9\u6240\u8a08\u753b\u8ab2","boring_xml_url":64,"boring_view_url":1,"soilmap_view_url":null,"soiltest_xml_url":0,"soiltest_view_url":0},{"id":509656,"code":"B4KJ202201001-2192","latitude":"38.462712","longitude":"139.558431","source_code":"HR1484325720230014","project_name":"6\u53f7\u30c8\u30f3\u30cd\u30eb\u90e8\u5730\u8cea\u8abf\u67fb","survey_name":"\u671d\u65e5\u6e29\u6d77\u9053\u8def\u5730\u8cea\u8abf\u67fb\u305d\u306e7\u696d\u52d9","client_name":"\u56fd\u571f\u4ea4\u901a\u7701\u3000\u5317\u9678\u5730\u65b9\u6574\u5099\u5c40\u65b0\u6f5f\u56fd\u9053\u4e8b\u52d9\u6240\u8a08\u753b\u8ab2","boring_xml_url":64,"boring_view_url":1,"soilmap_view_url":null,"soiltest_xml_url":0,"soiltest_view_url":0},{"id":509655,"code":"B4KJ202201001-2191","latitude":"38.462559","longitude":"139.558327","source_code":"HR1484325720230013","project_name":"6\u53f7\u30c8\u30f3\u30cd\u30eb\u90e8\u5730\u8cea\u8abf\u67fb","survey_name":"\u671d\u65e5\u6e29\u6d77\u9053\u8def\u5730\u8cea\u8abf\u67fb\u305d\u306e7\u696d\u52d9","client_name":"\u56fd\u571f\u4ea4\u901a\u7701\u3000\u5317\u9678\u5730\u65b9\u6574\u5099\u5c40\u65b0\u6f5f\u56fd\u9053\u4e8b\u52d9\u6240\u8a08\u753b\u8ab2","boring_xml_url":64,"boring_view_url":1,"soilmap_view_url":null,"soiltest_xml_url":0,"soiltest_view_url":0},{"id":509654,"code":"B4KJ202201001-2190","latitude":"38.461613","longitude":"139.559834","source_code":"HR1484325720230012","project_name":"5\u53f7\u30c8\u30f3\u30cd\u30eb\u90e8\u5730\u8cea\u8abf\u67fb","survey_name":"\u671d\u65e5\u6e29\u6d77\u9053\u8def\u5730\u8cea\u8abf\u67fb\u305d\u306e7\u696d\u52d9","client_name":"\u56fd\u571f\u4ea4\u901a\u7701\u3000\u5317\u9678\u5730\u65b9\u6574\u5099\u5c40\u65b0\u6f5f\u56fd\u9053\u4e8b\u52d9\u6240\u8a08\u753b\u8ab2","boring_xml_url":64,"boring_view_url":1,"soilmap_view_url":null,"soiltest_xml_url":0,"soiltest_view_url":0},{"id":509653,"code":"B4KJ202201001-2189","latitude":"38.462183","longitude":"139.559434","source_code":"HR1484325720230011","project_name":"5\u53f7\u30c8\u30f3\u30cd\u30eb\u90e8\u5730\u8cea\u8abf\u67fb","survey_name":"\u671d\u65e5\u6e29\u6d77\u9053\u8def\u5730\u8cea\u8abf\u67fb\u305d\u306e7\u696d\u52d9","client_name":"\u56fd\u571f\u4ea4\u901a\u7701\u3000\u5317\u9678\u5730\u65b9\u6574\u5099\u5c40\u65b0\u6f5f\u56fd\u9053\u4e8b\u52d9\u6240\u8a08\u753b\u8ab2","boring_xml_url":64,"boring_view_url":1,"soilmap_view_url":null,"soiltest_xml_url":0,"soiltest_view_url":0},{"id":509652,"code":"B4KJ202201001-2188","latitude":"38.461999","longitude":"139.55924","source_code":"HR1484325720230010","project_name":"5\u53f7\u30c8\u30f3\u30cd\u30eb\u90e8\u5730\u8cea\u8abf\u67fb","survey_name":"\u671d\u65e5\u6e29\u6d77\u9053\u8def\u5730\u8cea\u8abf\u67fb\u305d\u306e7\u696d\u52d9","client_name":"\u56fd\u571f\u4ea4\u901a\u7701\u3000\u5317\u9678\u5730\u65b9\u6574\u5099\u5c40\u65b0\u6f5f\u56fd\u9053\u4e8b\u52d9\u6240\u8a08\u753b\u8ab2","boring_xml_url":64,"boring_view_url":1,"soilmap_view_url":null,"soiltest_xml_url":0,"soiltest_view_url":0},{"id":509651,"code":"B4KJ202201001-2187","latitude":"38.453138","longitude":"139.560686","source_code":"HR1484325720230009","project_name":"5\u53f7\u30c8\u30f3\u30cd\u30eb\u90e8\u5730\u8cea\u8abf\u67fb","survey_name":"\u671d\u65e5\u6e29\u6d77\u9053\u8def\u5730\u8cea\u8abf\u67fb\u305d\u306e7\u696d\u52d9","client_name":"\u56fd\u571f\u4ea4\u901a\u7701\u3000\u5317\u9678\u5730\u65b9\u6574\u5099\u5c40\u65b0\u6f5f\u56fd\u9053\u4e8b\u52d9\u6240\u8a08\u753b\u8ab2","boring_xml_url":64,"boring_view_url":1,"soilmap_view_url":null,"soiltest_xml_url":0,"soiltest_view_url":0},{"id":509650,"code":"B4KJ202201001-2186","latitude":"38.452354","longitude":"139.574016","source_code":"HR1484325720230008","project_name":"5\u53f7\u30c8\u30f3\u30cd\u30eb\u90e8\u5730\u8cea\u8abf\u67fb","survey_name":"\u671d\u65e5\u6e29\u6d77\u9053\u8def\u5730\u8cea\u8abf\u67fb\u305d\u306e7\u696d\u52d9","client_name":"\u56fd\u571f\u4ea4\u901a\u7701\u3000\u5317\u9678\u5730\u65b9\u6574\u5099\u5c40\u65b0\u6f5f\u56fd\u9053\u4e8b\u52d9\u6240\u8a08\u753b\u8ab2","boring_xml_url":64,"boring_view_url":1,"soilmap_view_url":null,"soiltest_xml_url":0,"soiltest_view_url":0},{"id":509649,"code":"B4KJ202201001-2185","latitude":"38.452205","longitude":"139.573827","source_code":"HR1484325720230007","project_name":"5\u53f7\u30c8\u30f3\u30cd\u30eb\u90e8\u5730\u8cea\u8abf\u67fb","survey_name":"\u671d\u65e5\u6e29\u6d77\u9053\u8def\u5730\u8cea\u8abf\u67fb\u305d\u306e7\u696d\u52d9","client_name":"\u56fd\u571f\u4ea4\u901a\u7701\u3000\u5317\u9678\u5730\u65b9\u6574\u5099\u5c40\u65b0\u6f5f\u56fd\u9053\u4e8b\u52d9\u6240\u8a08\u753b\u8ab2","boring_xml_url":64,"boring_view_url":1,"soilmap_view_url":null,"soiltest_xml_url":0,"soiltest_view_url":0},{"id":509648,"code":"B4KJ202201001-2184","latitude":"38.421411","longitude":"139.580042","source_code":"HR1484325720230006","project_name":"4\u53f7\u30c8\u30f3\u30cd\u30eb\u90e8\u5730\u8cea\u8abf\u67fb","survey_name":"\u671d\u65e5\u6e29\u6d77\u9053\u8def\u5730\u8cea\u8abf\u67fb\u305d\u306e7\u696d\u52d9","client_name":"\u56fd\u571f\u4ea4\u901a\u7701\u3000\u5317\u9678\u5730\u65b9\u6574\u5099\u5c40\u65b0\u6f5f\u56fd\u9053\u4e8b\u52d9\u6240\u8a08\u753b\u8ab2","boring_xml_url":64,"boring_view_url":1,"soilmap_view_url":null,"soiltest_xml_url":0,"soiltest_view_url":0},{"id":509647,"code":"B4KJ202201001-2183","latitude":"38.421048","longitude":"139.57938","source_code":"HR1484325720230005","project_name":"4\u53f7\u30c8\u30f3\u30cd\u30eb\u90e8\u5730\u8cea\u8abf\u67fb","survey_name":"\u671d\u65e5\u6e29\u6d77\u9053\u8def\u5730\u8cea\u8abf\u67fb\u305d\u306e7\u696d\u52d9","client_name":"\u56fd\u571f\u4ea4\u901a\u7701\u3000\u5317\u9678\u5730\u65b9\u6574\u5099\u5c40\u65b0\u6f5f\u56fd\u9053\u4e8b\u52d9\u6240\u8a08\u753b\u8ab2","boring_xml_url":64,"boring_view_url":1,"soilmap_view_url":null,"soiltest_xml_url":0,"soiltest_view_url":0},{"id":509646,"code":"B4KJ202201001-2182","latitude":"38.417949","longitude":"139.577","source_code":"HR1484325720230004","project_name":"4\u53f7\u30c8\u30f3\u30cd\u30eb\u90e8\u5730\u8cea\u8abf\u67fb","survey_name":"\u671d\u65e5\u6e29\u6d77\u9053\u8def\u5730\u8cea\u8abf\u67fb\u305d\u306e7\u696d\u52d9","client_name":"\u56fd\u571f\u4ea4\u901a\u7701\u3000\u5317\u9678\u5730\u65b9\u6574\u5099\u5c40\u65b0\u6f5f\u56fd\u9053\u4e8b\u52d9\u6240\u8a08\u753b\u8ab2","boring_xml_url":64,"boring_view_url":1,"soilmap_view_url":null,"soiltest_xml_url":0,"soiltest_view_url":0},{"id":509645,"code":"B4KJ202201001-2181","latitude":"38.415953","longitude":"139.575569","source_code":"HR1484325720230003","project_name":"4\u53f7\u30c8\u30f3\u30cd\u30eb\u90e8\u5730\u8cea\u8abf\u67fb","survey_name":"\u671d\u65e5\u6e29\u6d77\u9053\u8def\u5730\u8cea\u8abf\u67fb\u305d\u306e7\u696d\u52d9","client_name":"\u56fd\u571f\u4ea4\u901a\u7701\u3000\u5317\u9678\u5730\u65b9\u6574\u5099\u5c40\u65b0\u6f5f\u56fd\u9053\u4e8b\u52d9\u6240\u8a08\u753b\u8ab2","boring_xml_url":64,"boring_view_url":1,"soilmap_view_url":null,"soiltest_xml_url":0,"soiltest_view_url":0},{"id":509644,"code":"B4KJ202201001-2180","latitude":"38.4125","longitude":"139.573314","source_code":"HR1484325720230002","project_name":"4\u53f7\u30c8\u30f3\u30cd\u30eb\u90e8\u5730\u8cea\u8abf\u67fb","survey_name":"\u671d\u65e5\u6e29\u6d77\u9053\u8def\u5730\u8cea\u8abf\u67fb\u305d\u306e7\u696d\u52d9","client_name":"\u56fd\u571f\u4ea4\u901a\u7701\u3000\u5317\u9678\u5730\u65b9\u6574\u5099\u5c40\u65b0\u6f5f\u56fd\u9053\u4e8b\u52d9\u6240\u8a08\u753b\u8ab2","boring_xml_url":64,"boring_view_url":1,"soilmap_view_url":null,"soiltest_xml_url":0,"soiltest_view_url":0},{"id":509643,"code":"B4KJ202201001-2179","latitude":"38.412249","longitude":"139.57324","source_code":"HR1484325720230001","project_name":"4\u53f7\u30c8\u30f3\u30cd\u30eb\u90e8\u5730\u8cea\u8abf\u67fb","survey_name":"\u671d\u65e5\u6e29\u6d77\u9053\u8def\u5730\u8cea\u8abf\u67fb\u305d\u306e7\u696d\u52d9","client_name":"\u56fd\u571f\u4ea4\u901a\u7701\u3000\u5317\u9678\u5730\u65b9\u6574\u5099\u5c40\u65b0\u6f5f\u56fd\u9053\u4e8b\u52d9\u6240\u8a08\u753b\u8ab2","boring_xml_url":64,"boring_view_url":1,"soilmap_view_url":null,"soiltest_xml_url":0,"soiltest_view_url":0},{"id":509642,"code":"B4KJ202201001-2178","latitude":"38.542781","longitude":"139.552884","source_code":"HR1484325720170056","project_name":"32\u53f7\u6a4b\u6881\u90e8\u5730\u8cea\u8abf\u67fb","survey_name":"\u671d\u65e5\u6e29\u6d77\u9053\u8def\u5730\u8cea\u8abf\u67fb\u305d\u306e5\u696d\u52d9","client_name":"\u56fd\u571f\u4ea4\u901a\u7701\u3000\u5317\u9678\u5730\u65b9\u6574\u5099\u5c40\u3000\u65b0\u6f5f\u56fd\u9053\u4e8b\u52d9\u6240","boring_xml_url":64,"boring_view_url":1,"soilmap_view_url":null,"soiltest_xml_url":0,"soiltest_view_url":0},{"id":509641,"code":"B4KJ202201001-2177","latitude":"38.542352","longitude":"139.55282","source_code":"HR1484325720170055","project_name":"32\u53f7\u6a4b\u6881\u90e8\u5730\u8cea\u8abf\u67fb","survey_name":"\u671d\u65e5\u6e29\u6d77\u9053\u8def\u5730\u8cea\u8abf\u67fb\u305d\u306e5\u696d\u52d9","client_name":"\u56fd\u571f\u4ea4\u901a\u7701\u3000\u5317\u9678\u5730\u65b9\u6574\u5099\u5c40\u3000\u65b0\u6f5f\u56fd\u9053\u4e8b\u52d9\u6240","boring_xml_url":64,"boring_view_url":1,"soilmap_view_url":null,"soiltest_xml_url":0,"soiltest_view_url":0},{"id":509640,"code":"B4KJ202201001-2176","latitude":"38.537265","longitude":"139.553383","source_code":"HR1484325720170054","project_name":"31\u53f7\u6a4b\u6881\u90e8\u5730\u8cea\u8abf\u67fb","survey_name":"\u671d\u65e5\u6e29\u6d77\u9053\u8def\u5730\u8cea\u8abf\u67fb\u305d\u306e5\u696d\u52d9","client_name":"\u56fd\u571f\u4ea4\u901a\u7701\u3000\u5317\u9678\u5730\u65b9\u6574\u5099\u5c40\u3000\u65b0\u6f5f\u56fd\u9053\u4e8b\u52d9\u6240","boring_xml_url":64,"boring_view_url":1,"soilmap_view_url":null,"soiltest_xml_url":0,"soiltest_view_url":0},{"id":509639,"code":"B4KJ202201001-2175","latitude":"38.536889","longitude":"139.553505","source_code":"HR1484325720170053","project_name":"31\u53f7\u6a4b\u6881\u90e8\u5730\u8cea\u8abf\u67fb","survey_name":"\u671d\u65e5\u6e29\u6d77\u9053\u8def\u5730\u8cea\u8abf\u67fb\u305d\u306e5\u696d\u52d9","client_name":"\u56fd\u571f\u4ea4\u901a\u7701\u3000\u5317\u9678\u5730\u65b9\u6574\u5099\u5c40\u3000\u65b0\u6f5f\u56fd\u9053\u4e8b\u52d9\u6240","boring_xml_url":64,"boring_view_url":1,"soilmap_view_url":null,"soiltest_xml_url":0,"soiltest_view_url":0},{"id":509638,"code":"B4KJ202201001-2174","latitude":"38.51574","longitude":"139.544548","source_code":"HR1484325720170052","project_name":"30\u53f7\u6a4b\u6881\u90e8\u5730\u8cea\u8abf\u67fb","survey_name":"\u671d\u65e5\u6e29\u6d77\u9053\u8def\u5730\u8cea\u8abf\u67fb\u305d\u306e5\u696d\u52d9","client_name":"\u56fd\u571f\u4ea4\u901a\u7701\u3000\u5317\u9678\u5730\u65b9\u6574\u5099\u5c40\u3000\u65b0\u6f5f\u56fd\u9053\u4e8b\u52d9\u6240","boring_xml_url":64,"boring_view_url":1,"soilmap_view_url":null,"soiltest_xml_url":0,"soiltest_view_url":0},{"id":509637,"code":"B4KJ202201001-2173","latitude":"38.515156","longitude":"139.543918","source_code":"HR1484325720170051","project_name":"30\u53f7\u6a4b\u6881\u90e8\u5730\u8cea\u8abf\u67fb","survey_name":"\u671d\u65e5\u6e29\u6d77\u9053\u8def\u5730\u8cea\u8abf\u67fb\u305d\u306e5\u696d\u52d9","client_name":"\u56fd\u571f\u4ea4\u901a\u7701\u3000\u5317\u9678\u5730\u65b9\u6574\u5099\u5c40\u3000\u65b0\u6f5f\u56fd\u9053\u4e8b\u52d9\u6240","boring_xml_url":64,"boring_view_url":1,"soilmap_view_url":null,"soiltest_xml_url":0,"soiltest_view_url":0},{"id":509636,"code":"B4KJ202201001-2172","latitude":"38.514331","longitude":"139.542909","source_code":"HR1484325720170050","project_name":"30\u53f7\u6a4b\u6881\u90e8\u5730\u8cea\u8abf\u67fb","survey_name":"\u671d\u65e5\u6e29\u6d77\u9053\u8def\u5730\u8cea\u8abf\u67fb\u305d\u306e5\u696d\u52d9","client_name":"\u56fd\u571f\u4ea4\u901a\u7701\u3000\u5317\u9678\u5730\u65b9\u6574\u5099\u5c40\u3000\u65b0\u6f5f\u56fd\u9053\u4e8b\u52d9\u6240","boring_xml_url":64,"boring_view_url":1,"soilmap_view_url":null,"soiltest_xml_url":0,"soiltest_view_url":0},{"id":509635,"code":"B4KJ202201001-2171","latitude":"38.513946","longitude":"139.542395","source_code":"HR1484325720170049","project_name":"30\u53f7\u6a4b\u6881\u90e8\u5730\u8cea\u8abf\u67fb","survey_name":"\u671d\u65e5\u6e29\u6d77\u9053\u8def\u5730\u8cea\u8abf\u67fb\u305d\u306e5\u696d\u52d9","client_name":"\u56fd\u571f\u4ea4\u901a\u7701\u3000\u5317\u9678\u5730\u65b9\u6574\u5099\u5c40\u3000\u65b0\u6f5f\u56fd\u9053\u4e8b\u52d9\u6240","boring_xml_url":64,"boring_view_url":1,"soilmap_view_url":null,"soiltest_xml_url":0,"soiltest_view_url":0},{"id":509634,"code":"B4KJ202201001-2170","latitude":"38.508623","longitude":"139.536671","source_code":"HR1484325720170048","project_name":"28\u53f7\u6a4b\u6881\u90e8\u5730\u8cea\u8abf\u67fb","survey_name":"\u671d\u65e5\u6e29\u6d77\u9053\u8def\u5730\u8cea\u8abf\u67fb\u305d\u306e5\u696d\u52d9","client_name":"\u56fd\u571f\u4ea4\u901a\u7701\u3000\u5317\u9678\u5730\u65b9\u6574\u5099\u5c40\u3000\u65b0\u6f5f\u56fd\u9053\u4e8b\u52d9\u6240","boring_xml_url":64,"boring_view_url":1,"soilmap_view_url":null,"soiltest_xml_url":0,"soiltest_view_url":0},{"id":509633,"code":"B4KJ202201001-2169","latitude":"38.503896","longitude":"139.532588","source_code":"HR1484325720170047","project_name":"27\u53f7\u6a4b\u6881\u90e8\u5730\u8cea\u8abf\u67fb","survey_name":"\u671d\u65e5\u6e29\u6d77\u9053\u8def\u5730\u8cea\u8abf\u67fb\u305d\u306e5\u696d\u52d9","client_name":"\u56fd\u571f\u4ea4\u901a\u7701\u3000\u5317\u9678\u5730\u65b9\u6574\u5099\u5c40\u3000\u65b0\u6f5f\u56fd\u9053\u4e8b\u52d9\u6240","boring_xml_url":64,"boring_view_url":1,"soilmap_view_url":null,"soiltest_xml_url":0,"soiltest_view_url":0},{"id":509632,"code":"B4KJ202201001-2168","latitude":"38.502191","longitude":"139.530914","source_code":"HR1484325720170046","project_name":"27\u53f7\u6a4b\u6881\u90e8\u5730\u8cea\u8abf\u67fb","survey_name":"\u671d\u65e5\u6e29\u6d77\u9053\u8def\u5730\u8cea\u8abf\u67fb\u305d\u306e5\u696d\u52d9","client_name":"\u56fd\u571f\u4ea4\u901a\u7701\u3000\u5317\u9678\u5730\u65b9\u6574\u5099\u5c40\u3000\u65b0\u6f5f\u56fd\u9053\u4e8b\u52d9\u6240","boring_xml_url":64,"boring_view_url":1,"soilmap_view_url":null,"soiltest_xml_url":0,"soiltest_view_url":0},{"id":509631,"code":"B4KJ202201001-2167","latitude":"38.494873","longitude":"139.526405","source_code":"HR1484325720170045","project_name":"26\u53f7\u6a4b\u6881\u90e8\u5730\u8cea\u8abf\u67fb","survey_name":"\u671d\u65e5\u6e29\u6d77\u9053\u8def\u5730\u8cea\u8abf\u67fb\u305d\u306e5\u696d\u52d9","client_name":"\u56fd\u571f\u4ea4\u901a\u7701\u3000\u5317\u9678\u5730\u65b9\u6574\u5099\u5c40\u3000\u65b0\u6f5f\u56fd\u9053\u4e8b\u52d9\u6240","boring_xml_url":64,"boring_view_url":1,"soilmap_view_url":null,"soiltest_xml_url":0,"soiltest_view_url":0}]}}