{"header":{"xyz":{"source":[],"mosaic":false},"page":1196,"raw":{"soiltest_result":"0","bbox":"57.598333,109.544722,1.933333,163.806111","page":"1196"},"conditions":{"soiltest_result":0,"north":57.598333,"west":109.544722,"south":1.933333,"east":163.806111},"success":true,"message":""},"data":{"meta":{"total":212844,"page":1196,"pages":7095,"count":30},"values":[{"id":509510,"code":"B4KJ202201001-2046","latitude":"38.274502","longitude":"139.522697","source_code":"HR1484325720140001","project_name":"1\u53f7\u76db\u571f\u90e8\u5730\u8cea\u8abf\u67fb","survey_name":"\u671d\u65e5\u6e29\u6d77\u9053\u8def\u5730\u8cea\u8abf\u67fb\u696d\u52d9","client_name":"\u56fd\u571f\u4ea4\u901a\u7701\u5317\u9678\u5730\u65b9\u6574\u5099\u5c40\u65b0\u6f5f\u56fd\u9053\u4e8b\u52d9\u6240","boring_xml_url":64,"boring_view_url":1,"soilmap_view_url":null,"soiltest_xml_url":0,"soiltest_view_url":0},{"id":509509,"code":"B4KJ202201001-2045","latitude":"36.255444","longitude":"136.74217","source_code":"HR1284506520110003","project_name":"\u4e2d\u30ce\u5ddd\u6d41\u57df\u5730\u8cea\u8abf\u67fb\u696d\u52d9","survey_name":"\u4e2d\u30ce\u5ddd\u6d41\u57df\u5730\u8cea\u8abf\u67fb\u696d\u52d9","client_name":"\u56fd\u571f\u4ea4\u901a\u7701\u5317\u9678\u5730\u65b9\u6574\u5099\u5c40\u91d1\u6ca2\u6cb3\u5ddd\u56fd\u9053\u4e8b\u52d9\u6240","boring_xml_url":64,"boring_view_url":1,"soilmap_view_url":null,"soiltest_xml_url":0,"soiltest_view_url":0},{"id":509508,"code":"B4KJ202201001-2044","latitude":"36.255888","longitude":"136.742809","source_code":"HR1284506520110002","project_name":"\u4e2d\u30ce\u5ddd\u6d41\u57df\u5730\u8cea\u8abf\u67fb\u696d\u52d9","survey_name":"\u4e2d\u30ce\u5ddd\u6d41\u57df\u5730\u8cea\u8abf\u67fb\u696d\u52d9","client_name":"\u56fd\u571f\u4ea4\u901a\u7701\u5317\u9678\u5730\u65b9\u6574\u5099\u5c40\u91d1\u6ca2\u6cb3\u5ddd\u56fd\u9053\u4e8b\u52d9\u6240","boring_xml_url":64,"boring_view_url":1,"soilmap_view_url":null,"soiltest_xml_url":0,"soiltest_view_url":0},{"id":509507,"code":"B4KJ202201001-2043","latitude":"36.243721","longitude":"136.751809","source_code":"HR1284506520110001","project_name":"\u4e2d\u30ce\u5ddd\u6d41\u57df\u5730\u8cea\u8abf\u67fb\u696d\u52d9","survey_name":"\u4e2d\u30ce\u5ddd\u6d41\u57df\u5730\u8cea\u8abf\u67fb\u696d\u52d9","client_name":"\u56fd\u571f\u4ea4\u901a\u7701\u5317\u9678\u5730\u65b9\u6574\u5099\u5c40\u91d1\u6ca2\u6cb3\u5ddd\u56fd\u9053\u4e8b\u52d9\u6240","boring_xml_url":64,"boring_view_url":1,"soilmap_view_url":null,"soiltest_xml_url":0,"soiltest_view_url":0},{"id":509506,"code":"B4KJ202201001-2042","latitude":"36.115388","longitude":"136.706947","source_code":"HR1184506520280001","project_name":"","survey_name":"\u5e73\u621023\u5e74\u5ea6\u5e02\u30ce\u702c\u7802\u9632\u5830\u5824\u88dc\u5f37\u5bfe\u7b56\u4fee\u6b63\u8a2d\u8a08\u696d\u52d9","client_name":"\u56fd\u571f\u4ea4\u901a\u7701\u5317\u9678\u5730\u65b9\u6574\u5099\u5c40\u91d1\u6ca2\u6cb3\u5ddd\u56fd\u9053\u4e8b\u52d9\u6240","boring_xml_url":64,"boring_view_url":1,"soilmap_view_url":null,"soiltest_xml_url":0,"soiltest_view_url":0},{"id":509505,"code":"B4KJ202201001-2041","latitude":"36.545024","longitude":"137.552888","source_code":"HR1484476020180003","project_name":"\u30dc\u30fc\u30ea\u30f3\u30b0\u8abf\u67fb","survey_name":"\u5e73\u621026\u5e74\u5ea6\u91d1\u5c71\u8c37\u4e0a\u6d41\u7802\u9632\u5830\u5824\u8a73\u7d30\u8a2d\u8a08\u696d\u52d9","client_name":"\u56fd\u571f\u4ea4\u901a\u7701\u5317\u9678\u5730\u65b9\u6574\u5099\u5c40\u7acb\u5c71\u7802\u9632\u4e8b\u52d9\u6240","boring_xml_url":64,"boring_view_url":1,"soilmap_view_url":null,"soiltest_xml_url":0,"soiltest_view_url":0},{"id":509504,"code":"B4KJ202201001-2040","latitude":"36.545416","longitude":"137.553135","source_code":"HR1484476020180002","project_name":"\u30dc\u30fc\u30ea\u30f3\u30b0\u8abf\u67fb","survey_name":"\u5e73\u621026\u5e74\u5ea6\u91d1\u5c71\u8c37\u4e0a\u6d41\u7802\u9632\u5830\u5824\u8a73\u7d30\u8a2d\u8a08\u696d\u52d9","client_name":"\u56fd\u571f\u4ea4\u901a\u7701\u5317\u9678\u5730\u65b9\u6574\u5099\u5c40\u7acb\u5c71\u7802\u9632\u4e8b\u52d9\u6240","boring_xml_url":64,"boring_view_url":1,"soilmap_view_url":null,"soiltest_xml_url":0,"soiltest_view_url":0},{"id":509503,"code":"B4KJ202201001-2039","latitude":"36.5458","longitude":"137.553505","source_code":"HR1484476020180001","project_name":"\u30dc\u30fc\u30ea\u30f3\u30b0\u8abf\u67fb","survey_name":"\u5e73\u621026\u5e74\u5ea6\u91d1\u5c71\u8c37\u4e0a\u6d41\u7802\u9632\u5830\u5824\u8a73\u7d30\u8a2d\u8a08\u696d\u52d9","client_name":"\u56fd\u571f\u4ea4\u901a\u7701\u5317\u9678\u5730\u65b9\u6574\u5099\u5c40\u7acb\u5c71\u7802\u9632\u4e8b\u52d9\u6240","boring_xml_url":64,"boring_view_url":1,"soilmap_view_url":null,"soiltest_xml_url":0,"soiltest_view_url":0},{"id":509502,"code":"B4KJ202201001-2038","latitude":"37.821831","longitude":"139.001761","source_code":"HR1484306020150036","project_name":"\u5e73\u621026\u5e74\u5ea6\u3000\u4fe1\u6fc3\u5ddd\u4e0b\u6d41\u7ba1\u5185\u5730\u8cea\u8abf\u67fb\u696d\u52d9","survey_name":"\u7ba1\u7406-01\u3000\u677f\u4e95\u89b3\u6e2c\u6240\u5730\u8cea\u8abf\u67fb","client_name":"\u56fd\u571f\u4ea4\u901a\u7701\u3000\u5317\u9678\u5730\u65b9\u6574\u5099\u5c40\u3000\u4fe1\u6fc3\u5ddd\u4e0b\u6d41\u6cb3\u5ddd\u4e8b\u52d9\u6240","boring_xml_url":64,"boring_view_url":1,"soilmap_view_url":null,"soiltest_xml_url":0,"soiltest_view_url":0},{"id":509501,"code":"B4KJ202201001-2037","latitude":"37.906404","longitude":"139.021841","source_code":"HR1484306020150035","project_name":"\u5de5\u52d9-05\u4e2d\u592e\u533a\u95a2\u65b0\u5730\u533a\u5730\u8cea\u8abf\u67fb","survey_name":"\u5e73\u621026\u5e74\u5ea6\u4fe1\u6fc3\u5ddd\u4e0b\u6d41\u7ba1\u5185\u5730\u8cea\u8abf\u67fb\u696d\u52d9","client_name":"\u56fd\u571f\u4ea4\u901a\u7701\u5317\u9678\u5730\u65b9\u6574\u5099\u5c40\u4fe1\u6fc3\u5ddd\u4e0b\u6d41\u6cb3\u5ddd\u4e8b\u52d9\u6240","boring_xml_url":64,"boring_view_url":1,"soilmap_view_url":null,"soiltest_xml_url":0,"soiltest_view_url":0},{"id":509500,"code":"B4KJ202201001-2036","latitude":"37.906429","longitude":"139.021816","source_code":"HR1484306020150034","project_name":"\u5de5\u52d9-05\u3000\u4e2d\u592e\u533a\u95a2\u65b0\u5730\u533a\u5730\u8cea\u8abf\u67fb","survey_name":"\"\u5e73\u621026\u5e74\u5ea6 \u4fe1\u6fc3\u5ddd\u4e0b\u6d41\u7ba1\u5185\u5730\u8cea\u8abf\u67fb\u696d\u52d9\"","client_name":"\u56fd\u571f\u4ea4\u901a\u7701\u5317\u9678\u5730\u65b9\u6574\u5099\u5c40\u4fe1\u6fc3\u5ddd\u4e0b\u6d41\u6cb3\u5ddd\u4e8b\u52d9\u6240","boring_xml_url":64,"boring_view_url":1,"soilmap_view_url":null,"soiltest_xml_url":0,"soiltest_view_url":0},{"id":509499,"code":"B4KJ202201001-2035","latitude":"37.906454","longitude":"139.021791","source_code":"HR1484306020150033","project_name":"\u5de5\u52d9-05\u3000\u4e2d\u592e\u533a\u95a2\u65b0\u5730\u533a\u5730\u8cea\u8abf\u67fb","survey_name":"\"\u5e73\u621026\u5e74\u5ea6 \u4fe1\u6fc3\u5ddd\u4e0b\u6d41\u7ba1\u5185\u5730\u8cea\u8abf\u67fb\u696d\u52d9\"","client_name":"\u56fd\u571f\u4ea4\u901a\u7701\u5317\u9678\u5730\u65b9\u6574\u5099\u5c40\u4fe1\u6fc3\u5ddd\u4e0b\u6d41\u6cb3\u5ddd\u4e8b\u52d9\u6240","boring_xml_url":64,"boring_view_url":1,"soilmap_view_url":null,"soiltest_xml_url":0,"soiltest_view_url":0},{"id":509498,"code":"B4KJ202201001-2034","latitude":"37.906385","longitude":"139.02181","source_code":"HR1484306020150032","project_name":"\u5de5\u52d9-05\u3000\u4e2d\u592e\u533a\u95a2\u65b0\u5730\u533a\u5730\u8cea\u8abf\u67fb","survey_name":"\"\u5e73\u621026\u5e74\u5ea6 \u4fe1\u6fc3\u5ddd\u4e0b\u6d41\u7ba1\u5185\u5730\u8cea\u8abf\u67fb\u696d\u52d9\"","client_name":"\u56fd\u571f\u4ea4\u901a\u7701\u5317\u9678\u5730\u65b9\u6574\u5099\u5c40\u4fe1\u6fc3\u5ddd\u4e0b\u6d41\u6cb3\u5ddd\u4e8b\u52d9\u6240","boring_xml_url":64,"boring_view_url":1,"soilmap_view_url":null,"soiltest_xml_url":0,"soiltest_view_url":0},{"id":509497,"code":"B4KJ202201001-2033","latitude":"37.906409","longitude":"139.021785","source_code":"HR1484306020150031","project_name":"\u5de5\u52d9-05\u3000\u4e2d\u592e\u533a\u95a2\u65b0\u5730\u533a\u5730\u8cea\u8abf\u67fb","survey_name":"\"\u5e73\u621026\u5e74\u5ea6 \u4fe1\u6fc3\u5ddd\u4e0b\u6d41\u7ba1\u5185\u5730\u8cea\u8abf\u67fb\u696d\u52d9\"","client_name":"\u56fd\u571f\u4ea4\u901a\u7701\u5317\u9678\u5730\u65b9\u6574\u5099\u5c40\u4fe1\u6fc3\u5ddd\u4e0b\u6d41\u6cb3\u5ddd\u4e8b\u52d9\u6240","boring_xml_url":64,"boring_view_url":1,"soilmap_view_url":null,"soiltest_xml_url":0,"soiltest_view_url":0},{"id":509496,"code":"B4KJ202201001-2032","latitude":"37.906434","longitude":"139.02176","source_code":"HR1484306020150030","project_name":"\u5de5\u52d9-05\u3000\u4e2d\u592e\u533a\u95a2\u65b0\u5730\u533a\u5730\u8cea\u8abf\u67fb","survey_name":"\"\u5e73\u621026\u5e74\u5ea6 \u4fe1\u6fc3\u5ddd\u4e0b\u6d41\u7ba1\u5185\u5730\u8cea\u8abf\u67fb\u696d\u52d9\"","client_name":"\u56fd\u571f\u4ea4\u901a\u7701\u5317\u9678\u5730\u65b9\u6574\u5099\u5c40\u4fe1\u6fc3\u5ddd\u4e0b\u6d41\u6cb3\u5ddd\u4e8b\u52d9\u6240","boring_xml_url":64,"boring_view_url":1,"soilmap_view_url":null,"soiltest_xml_url":0,"soiltest_view_url":0},{"id":509495,"code":"B4KJ202201001-2031","latitude":"37.906365","longitude":"139.021779","source_code":"HR1484306020150029","project_name":"\u5de5\u52d9-05\u3000\u4e2d\u592e\u533a\u95a2\u65b0\u5730\u533a\u5730\u8cea\u8abf\u67fb","survey_name":"\"\u5e73\u621026\u5e74\u5ea6 \u4fe1\u6fc3\u5ddd\u4e0b\u6d41\u7ba1\u5185\u5730\u8cea\u8abf\u67fb\u696d\u52d9\"","client_name":"\u56fd\u571f\u4ea4\u901a\u7701\u5317\u9678\u5730\u65b9\u6574\u5099\u5c40\u4fe1\u6fc3\u5ddd\u4e0b\u6d41\u6cb3\u5ddd\u4e8b\u52d9\u6240","boring_xml_url":64,"boring_view_url":1,"soilmap_view_url":null,"soiltest_xml_url":0,"soiltest_view_url":0},{"id":509494,"code":"B4KJ202201001-2030","latitude":"37.90639","longitude":"139.021754","source_code":"HR1484306020150028","project_name":"\u5de5\u52d9-05\u3000\u4e2d\u592e\u533a\u95a2\u65b0\u5730\u533a\u5730\u8cea\u8abf\u67fb","survey_name":"\"\u5e73\u621026\u5e74\u5ea6 \u4fe1\u6fc3\u5ddd\u4e0b\u6d41\u7ba1\u5185\u5730\u8cea\u8abf\u67fb\u696d\u52d9\"","client_name":"\u56fd\u571f\u4ea4\u901a\u7701\u5317\u9678\u5730\u65b9\u6574\u5099\u5c40\u4fe1\u6fc3\u5ddd\u4e0b\u6d41\u6cb3\u5ddd\u4e8b\u52d9\u6240","boring_xml_url":64,"boring_view_url":1,"soilmap_view_url":null,"soiltest_xml_url":0,"soiltest_view_url":0},{"id":509493,"code":"B4KJ202201001-2029","latitude":"37.906414","longitude":"139.021729","source_code":"HR1484306020150027","project_name":"\u5de5\u52d9-05\u3000\u4e2d\u592e\u533a\u95a2\u65b0\u5730\u533a\u5730\u8cea\u8abf\u67fb","survey_name":"\"\u5e73\u621026\u5e74\u5ea6 \u4fe1\u6fc3\u5ddd\u4e0b\u6d41\u7ba1\u5185\u5730\u8cea\u8abf\u67fb\u696d\u52d9\"","client_name":"\u56fd\u571f\u4ea4\u901a\u7701\u5317\u9678\u5730\u65b9\u6574\u5099\u5c40\u4fe1\u6fc3\u5ddd\u4e0b\u6d41\u6cb3\u5ddd\u4e8b\u52d9\u6240","boring_xml_url":64,"boring_view_url":1,"soilmap_view_url":null,"soiltest_xml_url":0,"soiltest_view_url":0},{"id":509492,"code":"B4KJ202201001-2028","latitude":"37.648609","longitude":"138.950955","source_code":"HR1484306020150026","project_name":"\u5e73\u621026\u5e74\u5ea6\u4fe1\u6fc3\u5ddd\u4e0b\u6d41\u7ba1\u5185\u5730\u8cea\u8abf\u67fb\u696d\u52d9","survey_name":"\u5de5\u52d9-04\u4e09\u6761\u5e02\u6817\u6797\u30fb\u5927\u5cf6\u5730\u533a\u5730\u8cea\u8abf\u67fb","client_name":"\u56fd\u571f\u4ea4\u901a\u7701\u5317\u9678\u5730\u65b9\u6574\u5099\u5c40\u4fe1\u6fc3\u5ddd\u4e0b\u6d41\u6cb3\u5ddd\u4e8b\u52d9\u6240","boring_xml_url":64,"boring_view_url":1,"soilmap_view_url":null,"soiltest_xml_url":0,"soiltest_view_url":0},{"id":509491,"code":"B4KJ202201001-2027","latitude":"37.649443","longitude":"138.952899","source_code":"HR1484306020150025","project_name":"\u5e73\u621026\u5e74\u5ea6\u4fe1\u6fc3\u5ddd\u4e0b\u6d41\u7ba1\u5185\u5730\u8cea\u8abf\u67fb\u696d\u52d9","survey_name":"\u5de5\u52d9-04\u4e09\u6761\u5e02\u6817\u6797\u30fb\u5927\u5cf6\u5730\u533a\u5730\u8cea\u8abf\u67fb","client_name":"\u56fd\u571f\u4ea4\u901a\u7701\u5317\u9678\u5730\u65b9\u6574\u5099\u5c40\u4fe1\u6fc3\u5ddd\u4e0b\u6d41\u6cb3\u5ddd\u4e8b\u52d9\u6240","boring_xml_url":64,"boring_view_url":1,"soilmap_view_url":null,"soiltest_xml_url":0,"soiltest_view_url":0},{"id":509490,"code":"B4KJ202201001-2026","latitude":"37.650943","longitude":"138.954816","source_code":"HR1484306020150024","project_name":"\u5e73\u621026\u5e74\u5ea6\u4fe1\u6fc3\u5ddd\u4e0b\u6d41\u7ba1\u5185\u5730\u8cea\u8abf\u67fb\u696d\u52d9","survey_name":"\u5de5\u52d9-04\u4e09\u6761\u5e02\u6817\u6797\u30fb\u5927\u5cf6\u5730\u533a\u5730\u8cea\u8abf\u67fb","client_name":"\u56fd\u571f\u4ea4\u901a\u7701\u5317\u9678\u5730\u65b9\u6574\u5099\u5c40\u4fe1\u6fc3\u5ddd\u4e0b\u6d41\u6cb3\u5ddd\u4e8b\u52d9\u6240","boring_xml_url":64,"boring_view_url":1,"soilmap_view_url":null,"soiltest_xml_url":0,"soiltest_view_url":0},{"id":509489,"code":"B4KJ202201001-2025","latitude":"37.652276","longitude":"138.95576","source_code":"HR1484306020150023","project_name":"\u5e73\u621026\u5e74\u5ea6\u4fe1\u6fc3\u5ddd\u4e0b\u6d41\u7ba1\u5185\u5730\u8cea\u8abf\u67fb\u696d\u52d9","survey_name":"\u5de5\u52d9-04\u4e09\u6761\u5e02\u6817\u6797\u30fb\u5927\u5cf6\u5730\u533a\u5730\u8cea\u8abf\u67fb","client_name":"\u56fd\u571f\u4ea4\u901a\u7701\u5317\u9678\u5730\u65b9\u6574\u5099\u5c40\u4fe1\u6fc3\u5ddd\u4e0b\u6d41\u6cb3\u5ddd\u4e8b\u52d9\u6240","boring_xml_url":64,"boring_view_url":1,"soilmap_view_url":null,"soiltest_xml_url":0,"soiltest_view_url":0},{"id":509488,"code":"B4KJ202201001-2024","latitude":"37.654415","longitude":"138.955899","source_code":"HR1484306020150022","project_name":"\u5e73\u621026\u5e74\u5ea6\u4fe1\u6fc3\u5ddd\u4e0b\u6d41\u7ba1\u5185\u5730\u8cea\u8abf\u67fb\u696d\u52d9","survey_name":"\u5de5\u52d9-04\u4e09\u6761\u5e02\u6817\u6797\u30fb\u5927\u5cf6\u5730\u533a\u5730\u8cea\u8abf\u67fb","client_name":"\u56fd\u571f\u4ea4\u901a\u7701\u5317\u9678\u5730\u65b9\u6574\u5099\u5c40\u4fe1\u6fc3\u5ddd\u4e0b\u6d41\u6cb3\u5ddd\u4e8b\u52d9\u6240","boring_xml_url":64,"boring_view_url":1,"soilmap_view_url":null,"soiltest_xml_url":0,"soiltest_view_url":0},{"id":509487,"code":"B4KJ202201001-2023","latitude":"37.654304","longitude":"138.956955","source_code":"HR1484306020150021","project_name":"\u5e73\u621026\u5e74\u5ea6\u4fe1\u6fc3\u5ddd\u4e0b\u6d41\u7ba1\u5185\u5730\u8cea\u8abf\u67fb\u696d\u52d9","survey_name":"\u5de5\u52d9-04\u4e09\u6761\u5e02\u6817\u6797\u30fb\u5927\u5cf6\u5730\u533a\u5730\u8cea\u8abf\u67fb","client_name":"\u56fd\u571f\u4ea4\u901a\u7701\u5317\u9678\u5730\u65b9\u6574\u5099\u5c40\u4fe1\u6fc3\u5ddd\u4e0b\u6d41\u6cb3\u5ddd\u4e8b\u52d9\u6240","boring_xml_url":64,"boring_view_url":1,"soilmap_view_url":null,"soiltest_xml_url":0,"soiltest_view_url":0},{"id":509486,"code":"B4KJ202201001-2022","latitude":"37.655526","longitude":"138.957121","source_code":"HR1484306020150020","project_name":"\u5e73\u621026\u5e74\u5ea6\u4fe1\u6fc3\u5ddd\u4e0b\u6d41\u7ba1\u5185\u5730\u8cea\u8abf\u67fb\u696d\u52d9","survey_name":"\u5de5\u52d9-04\u4e09\u6761\u5e02\u6817\u6797\u30fb\u5927\u5cf6\u5730\u533a\u5730\u8cea\u8abf\u67fb","client_name":"\u56fd\u571f\u4ea4\u901a\u7701\u5317\u9678\u5730\u65b9\u6574\u5099\u5c40\u4fe1\u6fc3\u5ddd\u4e0b\u6d41\u6cb3\u5ddd\u4e8b\u52d9\u6240","boring_xml_url":64,"boring_view_url":1,"soilmap_view_url":null,"soiltest_xml_url":0,"soiltest_view_url":0},{"id":509485,"code":"B4KJ202201001-2021","latitude":"37.657387","longitude":"138.957677","source_code":"HR1484306020150019","project_name":"\u5e73\u621026\u5e74\u5ea6\u4fe1\u6fc3\u5ddd\u4e0b\u6d41\u7ba1\u5185\u5730\u8cea\u8abf\u67fb\u696d\u52d9","survey_name":"\u5de5\u52d9-04\u4e09\u6761\u5e02\u6817\u6797\u30fb\u5927\u5cf6\u5730\u533a\u5730\u8cea\u8abf\u67fb","client_name":"\u56fd\u571f\u4ea4\u901a\u7701\u5317\u9678\u5730\u65b9\u6574\u5099\u5c40\u4fe1\u6fc3\u5ddd\u4e0b\u6d41\u6cb3\u5ddd\u4e8b\u52d9\u6240","boring_xml_url":64,"boring_view_url":1,"soilmap_view_url":null,"soiltest_xml_url":0,"soiltest_view_url":0},{"id":509484,"code":"B4KJ202201001-2020","latitude":"37.659471","longitude":"138.958649","source_code":"HR1484306020150018","project_name":"\u5e73\u621026\u5e74\u5ea6\u4fe1\u6fc3\u5ddd\u4e0b\u6d41\u7ba1\u5185\u5730\u8cea\u8abf\u67fb\u696d\u52d9","survey_name":"\u5de5\u52d9-04\u4e09\u6761\u5e02\u6817\u6797\u30fb\u5927\u5cf6\u5730\u533a\u5730\u8cea\u8abf\u67fb","client_name":"\u56fd\u571f\u4ea4\u901a\u7701\u5317\u9678\u5730\u65b9\u6574\u5099\u5c40\u4fe1\u6fc3\u5ddd\u4e0b\u6d41\u6cb3\u5ddd\u4e8b\u52d9\u6240","boring_xml_url":64,"boring_view_url":1,"soilmap_view_url":null,"soiltest_xml_url":0,"soiltest_view_url":0},{"id":509483,"code":"B4KJ202201001-2019","latitude":"37.660859","longitude":"138.960649","source_code":"HR1484306020150017","project_name":"\u5e73\u621026\u5e74\u5ea6\u4fe1\u6fc3\u5ddd\u4e0b\u6d41\u7ba1\u5185\u5730\u8cea\u8abf\u67fb\u696d\u52d9","survey_name":"\u5de5\u52d9-04\u4e09\u6761\u5e02\u6817\u6797\u30fb\u5927\u5cf6\u5730\u533a\u5730\u8cea\u8abf\u67fb","client_name":"\u56fd\u571f\u4ea4\u901a\u7701\u5317\u9678\u5730\u65b9\u6574\u5099\u5c40\u4fe1\u6fc3\u5ddd\u4e0b\u6d41\u6cb3\u5ddd\u4e8b\u52d9\u6240","boring_xml_url":64,"boring_view_url":1,"soilmap_view_url":null,"soiltest_xml_url":0,"soiltest_view_url":0},{"id":509482,"code":"B4KJ202201001-2018","latitude":"37.661471","longitude":"138.963094","source_code":"HR1484306020150016","project_name":"\u5e73\u621026\u5e74\u5ea6\u4fe1\u6fc3\u5ddd\u4e0b\u6d41\u7ba1\u5185\u5730\u8cea\u8abf\u67fb\u696d\u52d9","survey_name":"\u5de5\u52d9-04\u4e09\u6761\u5e02\u6817\u6797\u30fb\u5927\u5cf6\u5730\u533a\u5730\u8cea\u8abf\u67fb","client_name":"\u56fd\u571f\u4ea4\u901a\u7701\u5317\u9678\u5730\u65b9\u6574\u5099\u5c40\u4fe1\u6fc3\u5ddd\u4e0b\u6d41\u6cb3\u5ddd\u4e8b\u52d9\u6240","boring_xml_url":64,"boring_view_url":1,"soilmap_view_url":null,"soiltest_xml_url":0,"soiltest_view_url":0},{"id":509481,"code":"B4KJ202201001-2017","latitude":"37.661804","longitude":"138.965288","source_code":"HR1484306020150015","project_name":"\u5e73\u621026\u5e74\u5ea6\u4fe1\u6fc3\u5ddd\u4e0b\u6d41\u7ba1\u5185\u5730\u8cea\u8abf\u67fb\u696d\u52d9","survey_name":"\u5de5\u52d9-04\u4e09\u6761\u5e02\u6817\u6797\u30fb\u5927\u5cf6\u5730\u533a\u5730\u8cea\u8abf\u67fb","client_name":"\u56fd\u571f\u4ea4\u901a\u7701\u5317\u9678\u5730\u65b9\u6574\u5099\u5c40\u4fe1\u6fc3\u5ddd\u4e0b\u6d41\u6cb3\u5ddd\u4e8b\u52d9\u6240","boring_xml_url":64,"boring_view_url":1,"soilmap_view_url":null,"soiltest_xml_url":0,"soiltest_view_url":0}]}}