{"header":{"xyz":{"source":[],"mosaic":false},"page":1199,"raw":{"soiltest_result":"0","bbox":"57.598333,109.544722,1.933333,163.806111","page":"1199"},"conditions":{"soiltest_result":0,"north":57.598333,"west":109.544722,"south":1.933333,"east":163.806111},"success":true,"message":""},"data":{"meta":{"total":212844,"page":1199,"pages":7095,"count":30},"values":[{"id":509420,"code":"B4KJ202201001-1956","latitude":"36.300663","longitude":"137.580828","source_code":"HR1384706020200002","project_name":"","survey_name":"\u9ad8\u539f\u5ddd\u6d41\u57df\u5730\u8cea\u8abf\u67fb\u696d\u52d9","client_name":"\u56fd\u571f\u4ea4\u901a\u7701\u5317\u9678\u5730\u65b9\u6574\u5099\u5c40\u795e\u901a\u5ddd\u6c34\u7cfb\u7802\u9632\u4e8b\u52d9\u6240\u8abf\u67fb\u8ab2","boring_xml_url":64,"boring_view_url":1,"soilmap_view_url":null,"soiltest_xml_url":0,"soiltest_view_url":0},{"id":509419,"code":"B4KJ202201001-1955","latitude":"36.30076","longitude":"137.580767","source_code":"HR1384706020200001","project_name":"","survey_name":"\u9ad8\u539f\u5ddd\u6d41\u57df\u5730\u8cea\u8abf\u67fb\u696d\u52d9","client_name":"\u56fd\u571f\u4ea4\u901a\u7701\u5317\u9678\u5730\u65b9\u6574\u5099\u5c40\u795e\u901a\u5ddd\u6c34\u7cfb\u7802\u9632\u4e8b\u52d9\u6240\u8abf\u67fb\u8ab2","boring_xml_url":64,"boring_view_url":1,"soilmap_view_url":null,"soiltest_xml_url":0,"soiltest_view_url":0},{"id":509418,"code":"B4KJ202201001-1954","latitude":"36.246746","longitude":"137.579577","source_code":"HR1284706220320002","project_name":"","survey_name":"\u5e73\u6e6f\u5ddd\u6d41\u57df\u7802\u9632\u65bd\u8a2d\u88dc\u5f37\u8a2d\u8a08\u696d\u52d9","client_name":"\u56fd\u571f\u4ea4\u901a\u7701\u5317\u9678\u5730\u65b9\u6574\u5099\u5c40\u795e\u901a\u5ddd\u6c34\u7cfb\u7802\u9632\u4e8b\u52d9\u6240","boring_xml_url":64,"boring_view_url":1,"soilmap_view_url":null,"soiltest_xml_url":0,"soiltest_view_url":0},{"id":509417,"code":"B4KJ202201001-1953","latitude":"36.247059","longitude":"137.579774","source_code":"HR1284706220320001","project_name":"","survey_name":"\u5e73\u6e6f\u5ddd\u6d41\u57df\u7802\u9632\u65bd\u8a2d\u88dc\u5f37\u8a2d\u8a08\u696d\u52d9","client_name":"\u56fd\u571f\u4ea4\u901a\u7701\u5317\u9678\u5730\u65b9\u6574\u5099\u5c40\u795e\u901a\u5ddd\u6c34\u7cfb\u7802\u9632\u4e8b\u52d9\u6240","boring_xml_url":64,"boring_view_url":1,"soilmap_view_url":null,"soiltest_xml_url":0,"soiltest_view_url":0},{"id":509416,"code":"B4KJ202201001-1952","latitude":"38.195747","longitude":"139.805044","source_code":"HR1384556220090012","project_name":"","survey_name":"\u98ef\u8c4a\u5c71\u7cfb\u7802\u9632\u4e8b\u52d9\u6240\u7ba1\u5185\u5730\u8cea\u8abf\u67fb\u696d\u52d9\uff08\u5fb3\u7db2\u7802\u9632\u5830\u5824\uff09","client_name":"\u56fd\u571f\u4ea4\u901a\u7701\u5317\u9678\u5730\u65b9\u6574\u5099\u5c40\u98ef\u8c4a\u5c71\u7cfb\u7802\u9632\u4e8b\u52d9\u6240","boring_xml_url":64,"boring_view_url":1,"soilmap_view_url":null,"soiltest_xml_url":0,"soiltest_view_url":0},{"id":509415,"code":"B4KJ202201001-1951","latitude":"38.195997","longitude":"139.804655","source_code":"HR1384556220090011","project_name":"","survey_name":"\u98ef\u8c4a\u5c71\u7cfb\u7802\u9632\u4e8b\u52d9\u6240\u7ba1\u5185\u5730\u8cea\u8abf\u67fb\u696d\u52d9\uff08\u5fb3\u7db2\u7802\u9632\u5830\u5824\uff09","client_name":"\u56fd\u571f\u4ea4\u901a\u7701\u5317\u9678\u5730\u65b9\u6574\u5099\u5c40\u98ef\u8c4a\u5c71\u7cfb\u7802\u9632\u4e8b\u52d9\u6240","boring_xml_url":64,"boring_view_url":1,"soilmap_view_url":null,"soiltest_xml_url":0,"soiltest_view_url":0},{"id":509414,"code":"B4KJ202201001-1950","latitude":"38.155164","longitude":"139.792822","source_code":"HR1384556220090010","project_name":"","survey_name":"\u98ef\u8c4a\u5c71\u7cfb\u7802\u9632\u4e8b\u52d9\u6240\u7ba1\u5185\u5730\u8cea\u8abf\u67fb\u696d\u52d9\uff08\u30b8\u30f3\u30bf\u30b1\u6ca2\u7802\u9632\u5830\u5824\uff09","client_name":"\u56fd\u571f\u4ea4\u901a\u7701\u5317\u9678\u5730\u65b9\u6574\u5099\u5c40\u98ef\u8c4a\u5c71\u7cfb\u7802\u9632\u4e8b\u52d9\u6240","boring_xml_url":64,"boring_view_url":1,"soilmap_view_url":null,"soiltest_xml_url":0,"soiltest_view_url":0},{"id":509413,"code":"B4KJ202201001-1949","latitude":"38.155302","longitude":"139.792989","source_code":"HR1384556220090009","project_name":"","survey_name":"\u98ef\u8c4a\u5c71\u7cfb\u7802\u9632\u4e8b\u52d9\u6240\u7ba1\u5185\u5730\u8cea\u8abf\u67fb\u696d\u52d9\uff08\u30b8\u30f3\u30bf\u30b1\u6ca2\u7802\u9632\u5830\u5824\uff09","client_name":"\u56fd\u571f\u4ea4\u901a\u7701\u5317\u9678\u5730\u65b9\u6574\u5099\u5c40\u98ef\u8c4a\u5c71\u7cfb\u7802\u9632\u4e8b\u52d9\u6240","boring_xml_url":64,"boring_view_url":1,"soilmap_view_url":null,"soiltest_xml_url":0,"soiltest_view_url":0},{"id":509412,"code":"B4KJ202201001-1948","latitude":"38.155441","longitude":"139.793183","source_code":"HR1384556220090008","project_name":"","survey_name":"\u98ef\u8c4a\u5c71\u7cfb\u7802\u9632\u4e8b\u52d9\u6240\u7ba1\u5185\u5730\u8cea\u8abf\u67fb\u696d\u52d9\uff08\u30b8\u30f3\u30bf\u30b1\u6ca2\u7802\u9632\u5830\u5824\uff09","client_name":"\u56fd\u571f\u4ea4\u901a\u7701\u5317\u9678\u5730\u65b9\u6574\u5099\u5c40\u98ef\u8c4a\u5c71\u7cfb\u7802\u9632\u4e8b\u52d9\u6240","boring_xml_url":64,"boring_view_url":1,"soilmap_view_url":null,"soiltest_xml_url":0,"soiltest_view_url":0},{"id":509411,"code":"B4KJ202201001-1947","latitude":"38.119742","longitude":"139.73198","source_code":"HR1384556220090007","project_name":"","survey_name":"\u98ef\u8c4a\u5c71\u7cfb\u7802\u9632\u4e8b\u52d9\u6240\u7ba1\u5185\u5730\u8cea\u8abf\u67fb\u696d\u52d9\uff08\u6238\u6ca2\u5ddd\u7802\u9632\u5830\u5824\uff09","client_name":"\u56fd\u571f\u4ea4\u901a\u7701\u5317\u9678\u5730\u65b9\u6574\u5099\u5c40\u98ef\u8c4a\u5c71\u7cfb\u7802\u9632\u4e8b\u52d9\u6240","boring_xml_url":64,"boring_view_url":1,"soilmap_view_url":null,"soiltest_xml_url":0,"soiltest_view_url":0},{"id":509410,"code":"B4KJ202201001-1946","latitude":"38.119503","longitude":"139.732052","source_code":"HR1384556220090006","project_name":"","survey_name":"\u98ef\u8c4a\u5c71\u7cfb\u7802\u9632\u4e8b\u52d9\u6240\u7ba1\u5185\u5730\u8cea\u8abf\u67fb\u696d\u52d9\uff08\u6238\u6ca2\u5ddd\u7802\u9632\u5830\u5824\uff09","client_name":"\u56fd\u571f\u4ea4\u901a\u7701\u5317\u9678\u5730\u65b9\u6574\u5099\u5c40\u98ef\u8c4a\u5c71\u7cfb\u7802\u9632\u4e8b\u52d9\u6240","boring_xml_url":64,"boring_view_url":1,"soilmap_view_url":null,"soiltest_xml_url":0,"soiltest_view_url":0},{"id":509409,"code":"B4KJ202201001-1945","latitude":"38.1192","longitude":"139.73191","source_code":"HR1384556220090005","project_name":"","survey_name":"\u98ef\u8c4a\u5c71\u7cfb\u7802\u9632\u4e8b\u52d9\u6240\u7ba1\u5185\u5730\u8cea\u8abf\u67fb\u696d\u52d9\uff08\u6238\u6ca2\u5ddd\u7802\u9632\u5830\u5824\uff09","client_name":"\u56fd\u571f\u4ea4\u901a\u7701\u5317\u9678\u5730\u65b9\u6574\u5099\u5c40\u98ef\u8c4a\u5c71\u7cfb\u7802\u9632\u4e8b\u52d9\u6240","boring_xml_url":64,"boring_view_url":1,"soilmap_view_url":null,"soiltest_xml_url":0,"soiltest_view_url":0},{"id":509408,"code":"B4KJ202201001-1944","latitude":"37.937509","longitude":"139.701673","source_code":"HR1384556220090004","project_name":"","survey_name":"\u98ef\u8c4a\u5c71\u7cfb\u7802\u9632\u4e8b\u52d9\u6240\u7ba1\u5185\u5730\u8cea\u8abf\u67fb\u696d\u52d9\uff08\u4e2d\u30ce\u4fe3\u7802\u9632\u5830\u5824\uff09","client_name":"\u56fd\u571f\u4ea4\u901a\u7701\u5317\u9678\u5730\u65b9\u6574\u5099\u5c40\u98ef\u8c4a\u5c71\u7cfb\u7802\u9632\u4e8b\u52d9\u6240","boring_xml_url":64,"boring_view_url":1,"soilmap_view_url":null,"soiltest_xml_url":0,"soiltest_view_url":0},{"id":509407,"code":"B4KJ202201001-1943","latitude":"37.937934","longitude":"139.701682","source_code":"HR1384556220090003","project_name":"","survey_name":"\u98ef\u8c4a\u5c71\u7cfb\u7802\u9632\u4e8b\u52d9\u6240\u7ba1\u5185\u5730\u8cea\u8abf\u67fb\u696d\u52d9\uff08\u4e2d\u30ce\u4fe3\u7802\u9632\u5830\u5824\uff09","client_name":"\u56fd\u571f\u4ea4\u901a\u7701\u5317\u9678\u5730\u65b9\u6574\u5099\u5c40\u98ef\u8c4a\u5c71\u7cfb\u7802\u9632\u4e8b\u52d9\u6240","boring_xml_url":64,"boring_view_url":1,"soilmap_view_url":null,"soiltest_xml_url":0,"soiltest_view_url":0},{"id":509406,"code":"B4KJ202201001-1942","latitude":"37.93772","longitude":"139.701404","source_code":"HR1384556220090002","project_name":"","survey_name":"\u98ef\u8c4a\u5c71\u7cfb\u7802\u9632\u4e8b\u52d9\u6240\u7ba1\u5185\u5730\u8cea\u8abf\u67fb\u696d\u52d9\uff08\u4e2d\u30ce\u4fe3\u7802\u9632\u5830\u5824\uff09","client_name":"\u56fd\u571f\u4ea4\u901a\u7701\u5317\u9678\u5730\u65b9\u6574\u5099\u5c40\u98ef\u8c4a\u5c71\u7cfb\u7802\u9632\u4e8b\u52d9\u6240","boring_xml_url":64,"boring_view_url":1,"soilmap_view_url":null,"soiltest_xml_url":0,"soiltest_view_url":0},{"id":509405,"code":"B4KJ202201001-1941","latitude":"37.937736","longitude":"139.701604","source_code":"HR1384556220090001","project_name":"","survey_name":"\u98ef\u8c4a\u5c71\u7cfb\u7802\u9632\u4e8b\u52d9\u6240\u7ba1\u5185\u5730\u8cea\u8abf\u67fb\u696d\u52d9\uff08\u4e2d\u30ce\u4fe3\u7802\u9632\u5830\u5824\uff09","client_name":"\u56fd\u571f\u4ea4\u901a\u7701\u5317\u9678\u5730\u65b9\u6574\u5099\u5c40\u98ef\u8c4a\u5c71\u7cfb\u7802\u9632\u4e8b\u52d9\u6240","boring_xml_url":64,"boring_view_url":1,"soilmap_view_url":null,"soiltest_xml_url":0,"soiltest_view_url":0},{"id":509404,"code":"B4KJ202201001-1940","latitude":"36.549583","longitude":"137.508931","source_code":"HR1384476220070008","project_name":"\u5e73\u621025\u5e74\u5ea6\u5e38\u9858\u5bfa\u5ddd\u4e2d\u6d41\u57df\u5830\u5824\u88dc\u5f37\u5bfe\u7b56\u691c\u8a0e\u696d\u52d9","survey_name":"\u5e73\u621025\u5e74\u5ea6\u5e38\u9858\u5bfa\u5ddd\u4e2d\u6d41\u57df\u5830\u5824\u88dc\u5f37\u5bfe\u7b56\u691c\u8a0e\u696d\u52d9","client_name":"\u56fd\u571f\u4ea4\u901a\u7701\u3000\u5317\u9678\u5730\u65b9\u6574\u5099\u5c40\u3000\u7acb\u5c71\u7802\u9632\u4e8b\u52d9\u6240","boring_xml_url":64,"boring_view_url":1,"soilmap_view_url":null,"soiltest_xml_url":0,"soiltest_view_url":0},{"id":509403,"code":"B4KJ202201001-1939","latitude":"36.549173","longitude":"137.50921","source_code":"HR1384476220070007","project_name":"\u5e73\u621025\u5e74\u5ea6\u5e38\u9858\u5bfa\u5ddd\u4e2d\u6d41\u57df\u5830\u5824\u88dc\u5f37\u5bfe\u7b56\u691c\u8a0e\u696d\u52d9","survey_name":"\u5e73\u621025\u5e74\u5ea6\u5e38\u9858\u5bfa\u5ddd\u4e2d\u6d41\u57df\u5830\u5824\u88dc\u5f37\u5bfe\u7b56\u691c\u8a0e\u696d\u52d9","client_name":"\u56fd\u571f\u4ea4\u901a\u7701\u3000\u5317\u9678\u5730\u65b9\u6574\u5099\u5c40\u3000\u7acb\u5c71\u7802\u9632\u4e8b\u52d9\u6240","boring_xml_url":64,"boring_view_url":1,"soilmap_view_url":null,"soiltest_xml_url":0,"soiltest_view_url":0},{"id":509402,"code":"B4KJ202201001-1938","latitude":"36.549169","longitude":"137.508871","source_code":"HR1384476220070006","project_name":"\u5e73\u621025\u5e74\u5ea6\u5e38\u9858\u5bfa\u5ddd\u4e2d\u6d41\u57df\u5830\u5824\u88dc\u5f37\u5bfe\u7b56\u691c\u8a0e\u696d\u52d9","survey_name":"\u5e73\u621025\u5e74\u5ea6\u5e38\u9858\u5bfa\u5ddd\u4e2d\u6d41\u57df\u5830\u5824\u88dc\u5f37\u5bfe\u7b56\u691c\u8a0e\u696d\u52d9","client_name":"\u56fd\u571f\u4ea4\u901a\u7701\u3000\u5317\u9678\u5730\u65b9\u6574\u5099\u5c40\u3000\u7acb\u5c71\u7802\u9632\u4e8b\u52d9\u6240","boring_xml_url":64,"boring_view_url":1,"soilmap_view_url":null,"soiltest_xml_url":0,"soiltest_view_url":0},{"id":509401,"code":"B4KJ202201001-1937","latitude":"36.548889","longitude":"137.508849","source_code":"HR1384476220070005","project_name":"\u5e73\u621025\u5e74\u5ea6\u5e38\u9858\u5bfa\u5ddd\u4e2d\u6d41\u57df\u5830\u5824\u88dc\u5f37\u5bfe\u7b56\u691c\u8a0e\u696d\u52d9","survey_name":"\u5e73\u621025\u5e74\u5ea6\u5e38\u9858\u5bfa\u5ddd\u4e2d\u6d41\u57df\u5830\u5824\u88dc\u5f37\u5bfe\u7b56\u691c\u8a0e\u696d\u52d9","client_name":"\u56fd\u571f\u4ea4\u901a\u7701\u3000\u5317\u9678\u5730\u65b9\u6574\u5099\u5c40\u3000\u7acb\u5c71\u7802\u9632\u4e8b\u52d9\u6240","boring_xml_url":64,"boring_view_url":1,"soilmap_view_url":null,"soiltest_xml_url":0,"soiltest_view_url":0},{"id":509400,"code":"B4KJ202201001-1936","latitude":"36.548888","longitude":"137.508749","source_code":"HR1384476220070004","project_name":"\u5e73\u621025\u5e74\u5ea6\u5e38\u9858\u5bfa\u5ddd\u4e2d\u6d41\u57df\u5830\u5824\u88dc\u5f37\u5bfe\u7b56\u691c\u8a0e\u696d\u52d9","survey_name":"\u5e73\u621025\u5e74\u5ea6\u5e38\u9858\u5bfa\u5ddd\u4e2d\u6d41\u57df\u5830\u5824\u88dc\u5f37\u5bfe\u7b56\u691c\u8a0e\u696d\u52d9","client_name":"\u56fd\u571f\u4ea4\u901a\u7701\u3000\u5317\u9678\u5730\u65b9\u6574\u5099\u5c40\u3000\u7acb\u5c71\u7802\u9632\u4e8b\u52d9\u6240","boring_xml_url":64,"boring_view_url":1,"soilmap_view_url":null,"soiltest_xml_url":0,"soiltest_view_url":0},{"id":509399,"code":"B4KJ202201001-1935","latitude":"36.548887","longitude":"137.508648","source_code":"HR1384476220070003","project_name":"\u5e73\u621025\u5e74\u5ea6\u5e38\u9858\u5bfa\u5ddd\u4e2d\u6d41\u57df\u5830\u5824\u88dc\u5f37\u5bfe\u7b56\u691c\u8a0e\u696d\u52d9","survey_name":"\u5e73\u621025\u5e74\u5ea6\u5e38\u9858\u5bfa\u5ddd\u4e2d\u6d41\u57df\u5830\u5824\u88dc\u5f37\u5bfe\u7b56\u691c\u8a0e\u696d\u52d9","client_name":"\u56fd\u571f\u4ea4\u901a\u7701\u3000\u5317\u9678\u5730\u65b9\u6574\u5099\u5c40\u3000\u7acb\u5c71\u7802\u9632\u4e8b\u52d9\u6240","boring_xml_url":64,"boring_view_url":1,"soilmap_view_url":null,"soiltest_xml_url":0,"soiltest_view_url":0},{"id":509398,"code":"B4KJ202201001-1934","latitude":"36.548858","longitude":"137.508488","source_code":"HR1384476220070002","project_name":"\u5e73\u621025\u5e74\u5e38\u9858\u5bfa\u5ddd\u4e2d\u6d41\u57df\u5830\u5824\u88dc\u5f37\u5bfe\u7b56\u691c\u8a0e\u696d\u52d9","survey_name":"\u5e73\u621025\u5e74\u5e38\u9858\u5bfa\u5ddd\u4e2d\u6d41\u57df\u5830\u5824\u88dc\u5f37\u5bfe\u7b56\u691c\u8a0e\u696d\u52d9","client_name":"\u56fd\u571f\u4ea4\u901a\u7701\u3000\u5317\u9678\u5730\u65b9\u6574\u5099\u5c40\u3000\u7acb\u5c71\u7802\u9632\u4e8b\u52d9\u6240","boring_xml_url":64,"boring_view_url":1,"soilmap_view_url":null,"soiltest_xml_url":0,"soiltest_view_url":0},{"id":509397,"code":"B4KJ202201001-1933","latitude":"36.548811","longitude":"137.50827","source_code":"HR1384476220070001","project_name":"\u5e73\u621025\u5e74\u5ea6\u5e38\u9858\u5bfa\u5ddd\u4e2d\u6d41\u57df\u5830\u5824\u88dc\u5f37\u5bfe\u7b56\u691c\u8a0e\u696d\u52d9","survey_name":"\u5e73\u621025\u5e74\u5ea6\u5e38\u9858\u5bfa\u5ddd\u4e2d\u6d41\u57df\u5830\u5824\u88dc\u5f37\u5bfe\u7b56\u691c\u8a0e\u696d\u52d9","client_name":"\u56fd\u571f\u4ea4\u901a\u7701\u3000\u5317\u9678\u5730\u65b9\u6574\u5099\u5c40\u3000\u7acb\u5c71\u7802\u9632\u4e8b\u52d9\u6240","boring_xml_url":64,"boring_view_url":1,"soilmap_view_url":null,"soiltest_xml_url":0,"soiltest_view_url":0},{"id":509396,"code":"B4KJ202201001-1932","latitude":"36.565277","longitude":"137.487227","source_code":"HR1284476220360006","project_name":"","survey_name":"\u5e73\u621025\u5e74\u5ea6\u3000\u7acb\u5c71\u7802\u9632\u4e8b\u52d9\u6240\u7ba1\u5185\u5730\u8cea\u8abf\u67fb\u696d\u52d9","client_name":"\u56fd\u571f\u4ea4\u901a\u7701\u3000\u5317\u9678\u5730\u65b9\u6574\u5099\u5c40\u3000\u7acb\u5c71\u7802\u9632\u4e8b\u52d9\u6240","boring_xml_url":64,"boring_view_url":1,"soilmap_view_url":null,"soiltest_xml_url":0,"soiltest_view_url":0},{"id":509395,"code":"B4KJ202201001-1931","latitude":"36.564443","longitude":"137.486671","source_code":"HR1284476220360005","project_name":"","survey_name":"\u5e73\u621025\u5e74\u5ea6\u3000\u7acb\u5c71\u7802\u9632\u4e8b\u52d9\u6240\u7ba1\u5185\u5730\u8cea\u8abf\u67fb\u696d\u52d9","client_name":"\u56fd\u571f\u4ea4\u901a\u7701\u3000\u5317\u9678\u5730\u65b9\u6574\u5099\u5c40\u3000\u7acb\u5c71\u7802\u9632\u4e8b\u52d9\u6240","boring_xml_url":64,"boring_view_url":1,"soilmap_view_url":null,"soiltest_xml_url":0,"soiltest_view_url":0},{"id":509394,"code":"B4KJ202201001-1930","latitude":"36.579999","longitude":"137.451393","source_code":"HR1284476220360004","project_name":"","survey_name":"\u5e73\u621025\u5e74\u5ea6\u3000\u7acb\u5c71\u7802\u9632\u4e8b\u52d9\u6240\u7ba1\u5185\u5730\u8cea\u8abf\u67fb\u696d\u52d9","client_name":"\u56fd\u571f\u4ea4\u901a\u7701\u3000\u5317\u9678\u5730\u65b9\u6574\u5099\u5c40\u3000\u7acb\u5c71\u7802\u9632\u4e8b\u52d9\u6240","boring_xml_url":64,"boring_view_url":1,"soilmap_view_url":null,"soiltest_xml_url":0,"soiltest_view_url":0},{"id":509393,"code":"B4KJ202201001-1929","latitude":"36.577499","longitude":"137.454449","source_code":"HR1284476220360003","project_name":"","survey_name":"\u5e73\u621025\u5e74\u5ea6\u3000\u7acb\u5c71\u7802\u9632\u4e8b\u52d9\u6240\u7ba1\u5185\u5730\u8cea\u8abf\u67fb\u696d\u52d9","client_name":"\u56fd\u571f\u4ea4\u901a\u7701\u3000\u5317\u9678\u5730\u65b9\u6574\u5099\u5c40\u3000\u7acb\u5c71\u7802\u9632\u4e8b\u52d9\u6240","boring_xml_url":64,"boring_view_url":1,"soilmap_view_url":null,"soiltest_xml_url":0,"soiltest_view_url":0},{"id":509392,"code":"B4KJ202201001-1928","latitude":"36.575832","longitude":"137.454727","source_code":"HR1284476220360002","project_name":"","survey_name":"\u5e73\u621025\u5e74\u5ea6\u3000\u7acb\u5c71\u7802\u9632\u4e8b\u52d9\u6240\u7ba1\u5185\u5730\u8cea\u8abf\u67fb\u696d\u52d9","client_name":"\u56fd\u571f\u4ea4\u901a\u7701\u3000\u5317\u9678\u5730\u65b9\u6574\u5099\u5c40\u3000\u7acb\u5c71\u7802\u9632\u4e8b\u52d9\u6240","boring_xml_url":64,"boring_view_url":1,"soilmap_view_url":null,"soiltest_xml_url":0,"soiltest_view_url":0},{"id":509391,"code":"B4KJ202201001-1927","latitude":"36.57611","longitude":"137.455004","source_code":"HR1284476220360001","project_name":"","survey_name":"\u5e73\u621025\u5e74\u5ea6\u3000\u7acb\u5c71\u7802\u9632\u4e8b\u52d9\u6240\u7ba1\u5185\u5730\u8cea\u8abf\u67fb\u696d\u52d9","client_name":"\u56fd\u571f\u4ea4\u901a\u7701\u3000\u5317\u9678\u5730\u65b9\u6574\u5099\u5c40\u3000\u7acb\u5c71\u7802\u9632\u4e8b\u52d9\u6240","boring_xml_url":64,"boring_view_url":1,"soilmap_view_url":null,"soiltest_xml_url":0,"soiltest_view_url":0}]}}