{"header":{"xyz":{"source":[],"mosaic":false},"page":1202,"raw":{"soiltest_result":"0","bbox":"57.598333,109.544722,1.933333,163.806111","page":"1202"},"conditions":{"soiltest_result":0,"north":57.598333,"west":109.544722,"south":1.933333,"east":163.806111},"success":true,"message":""},"data":{"meta":{"total":212844,"page":1202,"pages":7095,"count":30},"values":[{"id":509330,"code":"B4KJ202201001-1866","latitude":"37.866048","longitude":"139.025747","source_code":"HR050005","project_name":"\u4fe1\u6fc3\u5ddd\u4e0b\u6d41\u7ba1\u5185\u5730\u8cea\u8abf\u67fb\u696d\u52d9\uff08\u6f0f\u6c34\u5bfe\u7b56\u7b49\u8a73\u7d30\u691c\u8a0e\u696d\u52d9\u5730\u8cea\u8abf\u67fb\uff09","survey_name":"\u4fe1\u6fc3\u5ddd\u4e0b\u6d41\u7ba1\u5185\u5730\u8cea\u8abf\u67fb\u696d\u52d9\uff08\u6f0f\u6c34\u5bfe\u7b56\u7b49\u8a73\u7d30\u691c\u8a0e\u696d\u52d9\u5730\u8cea\u8abf\u67fb\uff09","client_name":"\u56fd\u571f\u4ea4\u901a\u7701\u5317\u9678\u5730\u65b9\u6574\u5099\u5c40\u4fe1\u6fc3\u5ddd\u4e0b\u6d41\u6cb3\u5ddd\u4e8b\u52d9\u6240","boring_xml_url":44,"boring_view_url":1,"soilmap_view_url":null,"soiltest_xml_url":0,"soiltest_view_url":0},{"id":509329,"code":"B4KJ202201001-1865","latitude":"37.877054","longitude":"139.023533","source_code":"HR050004","project_name":"\u4fe1\u6fc3\u5ddd\u4e0b\u6d41\u7ba1\u5185\u5730\u8cea\u8abf\u67fb\u696d\u52d9\uff08\u6f0f\u6c34\u5bfe\u7b56\u7b49\u8a73\u7d30\u691c\u8a0e\u696d\u52d9\u5730\u8cea\u8abf\u67fb\uff09","survey_name":"\u4fe1\u6fc3\u5ddd\u4e0b\u6d41\u7ba1\u5185\u5730\u8cea\u8abf\u67fb\u696d\u52d9\uff08\u6f0f\u6c34\u5bfe\u7b56\u7b49\u8a73\u7d30\u691c\u8a0e\u696d\u52d9\u5730\u8cea\u8abf\u67fb\uff09","client_name":"\u56fd\u571f\u4ea4\u901a\u7701\u5317\u9678\u5730\u65b9\u6574\u5099\u5c40\u4fe1\u6fc3\u5ddd\u4e0b\u6d41\u6cb3\u5ddd\u4e8b\u52d9\u6240","boring_xml_url":44,"boring_view_url":1,"soilmap_view_url":null,"soiltest_xml_url":0,"soiltest_view_url":0},{"id":509328,"code":"B4KJ202201001-1864","latitude":"37.876998","longitude":"139.023383","source_code":"HR050003","project_name":"\u4fe1\u6fc3\u5ddd\u4e0b\u6d41\u7ba1\u5185\u5730\u8cea\u8abf\u67fb\u696d\u52d9\uff08\u6f0f\u6c34\u5bfe\u7b56\u7b49\u8a73\u7d30\u691c\u8a0e\u696d\u52d9\u5730\u8cea\u8abf\u67fb\uff09","survey_name":"\u4fe1\u6fc3\u5ddd\u4e0b\u6d41\u7ba1\u5185\u5730\u8cea\u8abf\u67fb\u696d\u52d9\uff08\u6f0f\u6c34\u5bfe\u7b56\u7b49\u8a73\u7d30\u691c\u8a0e\u696d\u52d9\u5730\u8cea\u8abf\u67fb\uff09","client_name":"\u56fd\u571f\u4ea4\u901a\u7701\u5317\u9678\u5730\u65b9\u6574\u5099\u5c40\u4fe1\u6fc3\u5ddd\u4e0b\u6d41\u6cb3\u5ddd\u4e8b\u52d9\u6240","boring_xml_url":44,"boring_view_url":1,"soilmap_view_url":null,"soiltest_xml_url":0,"soiltest_view_url":0},{"id":509327,"code":"B4KJ202201001-1863","latitude":"37.876998","longitude":"139.02335","source_code":"HR050002","project_name":"\u4fe1\u6fc3\u5ddd\u4e0b\u6d41\u7ba1\u5185\u5730\u8cea\u8abf\u67fb\u696d\u52d9\uff08\u6f0f\u6c34\u5bfe\u7b56\u7b49\u8a73\u7d30\u691c\u8a0e\u696d\u52d9\u5730\u8cea\u8abf\u67fb\uff09","survey_name":"\u4fe1\u6fc3\u5ddd\u4e0b\u6d41\u7ba1\u5185\u5730\u8cea\u8abf\u67fb\u696d\u52d9\uff08\u6f0f\u6c34\u5bfe\u7b56\u7b49\u8a73\u7d30\u691c\u8a0e\u696d\u52d9\u5730\u8cea\u8abf\u67fb\uff09","client_name":"\u56fd\u571f\u4ea4\u901a\u7701\u5317\u9678\u5730\u65b9\u6574\u5099\u5c40\u4fe1\u6fc3\u5ddd\u4e0b\u6d41\u6cb3\u5ddd\u4e8b\u52d9\u6240","boring_xml_url":44,"boring_view_url":1,"soilmap_view_url":null,"soiltest_xml_url":0,"soiltest_view_url":0},{"id":509326,"code":"B4KJ202201001-1862","latitude":"37.88447","longitude":"139.016716","source_code":"HR050001","project_name":"\u4fe1\u6fc3\u5ddd\u4e0b\u6d41\u7ba1\u5185\u5730\u8cea\u8abf\u67fb\u696d\u52d9\uff08\u6f0f\u6c34\u5bfe\u7b56\u7b49\u8a73\u7d30\u691c\u8a0e\u696d\u52d9\u5730\u8cea\u8abf\u67fb\uff09","survey_name":"\u4fe1\u6fc3\u5ddd\u4e0b\u6d41\u7ba1\u5185\u5730\u8cea\u8abf\u67fb\u696d\u52d9\uff08\u6f0f\u6c34\u5bfe\u7b56\u7b49\u8a73\u7d30\u691c\u8a0e\u696d\u52d9\u5730\u8cea\u8abf\u67fb\uff09","client_name":"\u56fd\u571f\u4ea4\u901a\u7701\u5317\u9678\u5730\u65b9\u6574\u5099\u5c40\u4fe1\u6fc3\u5ddd\u4e0b\u6d41\u6cb3\u5ddd\u4e8b\u52d9\u6240","boring_xml_url":47,"boring_view_url":1,"soilmap_view_url":null,"soiltest_xml_url":0,"soiltest_view_url":0},{"id":509325,"code":"B4KJ202201001-1861","latitude":"37.912748","longitude":"139.042039","source_code":"HR020002","project_name":"\u4fe1\u6fc3\u5ddd\u4e0b\u6d41\u7ba1\u5185\u5730\u8cea\u8abf\u67fb\u696d\u52d9","survey_name":"\u662d\u548c\u5927\u6a4b\u5de6\u5cb8\u5730\u8cea\u8abf\u67fb","client_name":"\"\u56fd\u571f\u4ea4\u901a\u7701 \u5317\u9678\u5730\u65b9\u6574\u5099\u5c40 \u4fe1\u6fc3\u5ddd\u4e0b\u6d41\u6cb3\u5ddd\u4e8b\u52d9\u6240\"","boring_xml_url":44,"boring_view_url":1,"soilmap_view_url":null,"soiltest_xml_url":0,"soiltest_view_url":0},{"id":509324,"code":"B4KJ202201001-1860","latitude":"37.912887","longitude":"139.042289","source_code":"HR020001","project_name":"\u4fe1\u6fc3\u5ddd\u4e0b\u6d41\u7ba1\u5185\u5730\u8cea\u8abf\u67fb\u696d\u52d9","survey_name":"\u662d\u548c\u5927\u6a4b\u5de6\u5cb8\u5730\u8cea\u8abf\u67fb","client_name":"\"\u56fd\u571f\u4ea4\u901a\u7701 \u5317\u9678\u5730\u65b9\u6574\u5099\u5c40 \u4fe1\u6fc3\u5ddd\u4e0b\u6d41\u6cb3\u5ddd\u4e8b\u52d9\u6240\"","boring_xml_url":47,"boring_view_url":1,"soilmap_view_url":null,"soiltest_xml_url":0,"soiltest_view_url":0},{"id":509323,"code":"B4KJ202201001-1859","latitude":"36.616138","longitude":"137.299421","source_code":"HR1284456020340004","project_name":"\u5e38\u9858\u5bfa\u5ddd\u4f50\u3005\u5824\u7b49\u8abf\u67fb\u89e3\u6790\u696d\u52d9","survey_name":"\u5e38\u9858\u5bfa\u5ddd\u4f50\u3005\u5824\u7b49\u8abf\u67fb\u89e3\u6790\u696d\u52d9","client_name":"\"\u56fd\u4ea4\u7701 \u5317\u9678\u5730\u65b9\u6574\u5099\u5c40 \u5bcc\u5c71\u6cb3\u5ddd\u56fd\u9053\u4e8b\u52d9\u6240\"","boring_xml_url":64,"boring_view_url":1,"soilmap_view_url":null,"soiltest_xml_url":0,"soiltest_view_url":0},{"id":509322,"code":"B4KJ202201001-1858","latitude":"36.616082","longitude":"137.298504","source_code":"HR1284456020340003","project_name":"\u5e38\u9858\u5bfa\u5ddd\u4f50\u3005\u5824\u7b49\u8abf\u67fb\u89e3\u6790\u696d\u52d9","survey_name":"\u5e38\u9858\u5bfa\u5ddd\u4f50\u3005\u5824\u7b49\u8abf\u67fb\u89e3\u6790\u696d\u52d9","client_name":"\"\u56fd\u4ea4\u7701 \u5317\u9678\u5730\u65b9\u6574\u5099\u5c40 \u5bcc\u5c71\u6cb3\u5ddd\u56fd\u9053\u4e8b\u52d9\u6240\"","boring_xml_url":64,"boring_view_url":1,"soilmap_view_url":null,"soiltest_xml_url":0,"soiltest_view_url":0},{"id":509321,"code":"B4KJ202201001-1857","latitude":"36.616082","longitude":"137.298504","source_code":"HR1284456020340002","project_name":"\u5e38\u9858\u5bfa\u5ddd\u4f50\u3005\u5824\u7b49\u8abf\u67fb\u89e3\u6790\u696d\u52d9","survey_name":"\u5e38\u9858\u5bfa\u5ddd\u4f50\u3005\u5824\u7b49\u8abf\u67fb\u89e3\u6790\u696d\u52d9","client_name":"\"\u56fd\u4ea4\u7701 \u5317\u9678\u5730\u65b9\u6574\u5099\u5c40 \u5bcc\u5c71\u6cb3\u5ddd\u56fd\u9053\u4e8b\u52d9\u6240\"","boring_xml_url":64,"boring_view_url":1,"soilmap_view_url":null,"soiltest_xml_url":0,"soiltest_view_url":0},{"id":509320,"code":"B4KJ202201001-1856","latitude":"36.616082","longitude":"137.298504","source_code":"HR1284456020340001","project_name":"\u5e38\u9858\u5bfa\u5ddd\u4f50\u3005\u5824\u7b49\u8abf\u67fb\u89e3\u6790\u696d\u52d9","survey_name":"\u5e38\u9858\u5bfa\u5ddd\u4f50\u3005\u5824\u7b49\u8abf\u67fb\u89e3\u6790\u696d\u52d9","client_name":"\"\u56fd\u4ea4\u7701 \u5317\u9678\u5730\u65b9\u6574\u5099\u5c40 \u5bcc\u5c71\u6cb3\u5ddd\u56fd\u9053\u4e8b\u52d9\u6240\"","boring_xml_url":64,"boring_view_url":1,"soilmap_view_url":null,"soiltest_xml_url":0,"soiltest_view_url":0},{"id":509319,"code":"B4KJ202201001-1855","latitude":"38.02808","longitude":"139.915851","source_code":"HR1284556220130007","project_name":"\u6749\u7acb\u6ca2\u5730\u533a\u7802\u9632\u4e8b\u696d","survey_name":"\u6749\u7acb\u6ca2\u5730\u533a\u7802\u9632\u65bd\u8a2d\u691c\u8a0e\u696d\u52d9","client_name":"\u56fd\u571f\u4ea4\u901a\u7701\u3000\u5317\u9678\u5730\u65b9\u6574\u5099\u5c40\u3000\u98ef\u8c4a\u5c71\u7cfb\u7802\u9632\u4e8b\u52d9\u6240","boring_xml_url":64,"boring_view_url":1,"soilmap_view_url":null,"soiltest_xml_url":0,"soiltest_view_url":0},{"id":509318,"code":"B4KJ202201001-1854","latitude":"38.029108","longitude":"139.91809","source_code":"HR1284556220130006","project_name":"\u6749\u7acb\u6ca2\u5730\u533a\u7802\u9632\u4e8b\u696d","survey_name":"\u6749\u7acb\u6ca2\u5730\u533a\u7802\u9632\u65bd\u8a2d\u691c\u8a0e\u696d\u52d9","client_name":"\u56fd\u571f\u4ea4\u901a\u7701\u3000\u5317\u9678\u5730\u65b9\u6574\u5099\u5c40\u3000\u98ef\u8c4a\u5c71\u7cfb\u7802\u9632\u4e8b\u52d9\u6240","boring_xml_url":64,"boring_view_url":1,"soilmap_view_url":null,"soiltest_xml_url":0,"soiltest_view_url":0},{"id":509317,"code":"B4KJ202201001-1853","latitude":"38.028883","longitude":"139.917104","source_code":"HR1284556220130005","project_name":"\u6749\u7acb\u6ca2\u5730\u533a\u7802\u9632\u4e8b\u696d","survey_name":"\u6749\u7acb\u6ca2\u5730\u533a\u7802\u9632\u65bd\u8a2d\u691c\u8a0e\u696d\u52d9","client_name":"\u56fd\u571f\u4ea4\u901a\u7701\u3000\u5317\u9678\u5730\u65b9\u6574\u5099\u5c40\u3000\u98ef\u8c4a\u5c71\u7cfb\u7802\u9632\u4e8b\u52d9\u6240","boring_xml_url":64,"boring_view_url":1,"soilmap_view_url":null,"soiltest_xml_url":0,"soiltest_view_url":0},{"id":509316,"code":"B4KJ202201001-1852","latitude":"38.028969","longitude":"139.916384","source_code":"HR1284556220130004","project_name":"\u6749\u7acb\u6ca2\u5730\u533a\u7802\u9632\u4e8b\u696d","survey_name":"\u6749\u7acb\u6ca2\u5730\u533a\u7802\u9632\u65bd\u8a2d\u691c\u8a0e\u696d\u52d9","client_name":"\u56fd\u571f\u4ea4\u901a\u7701\u3000\u5317\u9678\u5730\u65b9\u6574\u5099\u5c40\u3000\u98ef\u8c4a\u5c71\u7cfb\u7802\u9632\u4e8b\u52d9\u6240","boring_xml_url":64,"boring_view_url":1,"soilmap_view_url":null,"soiltest_xml_url":0,"soiltest_view_url":0},{"id":509315,"code":"B4KJ202201001-1851","latitude":"38.028114","longitude":"139.917073","source_code":"HR1284556220130003","project_name":"\u6749\u7acb\u6ca2\u5730\u533a\u7802\u9632\u4e8b\u696d","survey_name":"\u6749\u7acb\u6ca2\u5730\u533a\u7802\u9632\u65bd\u8a2d\u691c\u8a0e\u696d\u52d9","client_name":"\u56fd\u571f\u4ea4\u901a\u7701\u3000\u5317\u9678\u5730\u65b9\u6574\u5099\u5c40\u3000\u98ef\u8c4a\u5c71\u7cfb\u7802\u9632\u4e8b\u52d9\u6240","boring_xml_url":64,"boring_view_url":1,"soilmap_view_url":null,"soiltest_xml_url":0,"soiltest_view_url":0},{"id":509314,"code":"B4KJ202201001-1850","latitude":"38.028511","longitude":"139.916606","source_code":"HR1284556220130002","project_name":"\u6749\u7acb\u6ca2\u5730\u533a\u7802\u9632\u4e8b\u696d","survey_name":"\u6749\u7acb\u6ca2\u5730\u533a\u7802\u9632\u65bd\u8a2d\u691c\u8a0e\u696d\u52d9","client_name":"\u56fd\u571f\u4ea4\u901a\u7701\u3000\u5317\u9678\u5730\u65b9\u6574\u5099\u5c40\u3000\u98ef\u8c4a\u5c71\u7cfb\u7802\u9632\u4e8b\u52d9\u6240","boring_xml_url":64,"boring_view_url":1,"soilmap_view_url":null,"soiltest_xml_url":0,"soiltest_view_url":0},{"id":509313,"code":"B4KJ202201001-1849","latitude":"38.027622","longitude":"139.916076","source_code":"HR1284556220130001","project_name":"\u6749\u7acb\u6ca2\u5730\u533a\u7802\u9632\u4e8b\u696d","survey_name":"\u6749\u7acb\u6ca2\u5730\u533a\u7802\u9632\u65bd\u8a2d\u691c\u8a0e\u696d\u52d9","client_name":"\u56fd\u571f\u4ea4\u901a\u7701\u3000\u5317\u9678\u5730\u65b9\u6574\u5099\u5c40\u3000\u98ef\u8c4a\u5c71\u7cfb\u7802\u9632\u4e8b\u52d9\u6240","boring_xml_url":64,"boring_view_url":1,"soilmap_view_url":null,"soiltest_xml_url":0,"soiltest_view_url":0},{"id":509312,"code":"B4KJ202201001-1848","latitude":"37.995525","longitude":"139.441097","source_code":"HR1284556220080010","project_name":"","survey_name":"\u98ef\u8c4a\u5c71\u7cfb\u7802\u9632\u4e8b\u52d9\u6240\u7ba1\u5185\u5730\u8cea\u8abf\u67fb\u696d\u52d9\uff08\u65e5\u5149\u6ca2\uff09","client_name":"\u56fd\u571f\u4ea4\u901a\u7701\u3000\u5317\u9678\u5730\u65b9\u6574\u5099\u5c40\u3000\u98ef\u8c4a\u5c71\u7cfb\u7802\u9632\u4e8b\u52d9\u6240","boring_xml_url":64,"boring_view_url":1,"soilmap_view_url":null,"soiltest_xml_url":0,"soiltest_view_url":0},{"id":509311,"code":"B4KJ202201001-1847","latitude":"37.99533","longitude":"139.440958","source_code":"HR1284556220080009","project_name":"","survey_name":"\u98ef\u8c4a\u5c71\u7cfb\u7802\u9632\u4e8b\u52d9\u6240\u7ba1\u5185\u5730\u8cea\u8abf\u67fb\u696d\u52d9\uff08\u65e5\u5149\u6ca2\uff09","client_name":"\u56fd\u571f\u4ea4\u901a\u7701\u3000\u5317\u9678\u5730\u65b9\u6574\u5099\u5c40\u3000\u98ef\u8c4a\u5c71\u7cfb\u7802\u9632\u4e8b\u52d9\u6240","boring_xml_url":64,"boring_view_url":1,"soilmap_view_url":null,"soiltest_xml_url":0,"soiltest_view_url":0},{"id":509310,"code":"B4KJ202201001-1846","latitude":"38.091525","longitude":"139.516708","source_code":"HR1284556220080008","project_name":"","survey_name":"\u98ef\u8c4a\u5c71\u7cfb\u7802\u9632\u4e8b\u52d9\u6240\u7ba1\u5185\u5730\u8cea\u8abf\u67fb\u696d\u52d9\uff08\u6df1\u6ca2\u7802\u9632\u5830\u5824\u5730\u8cea\u8abf\u67fb\uff09","client_name":"\u56fd\u571f\u4ea4\u901a\u7701\u3000\u5317\u9678\u5730\u65b9\u6574\u5099\u5c40\u3000\u98ef\u8c4a\u5c71\u7cfb\u7802\u9632\u4e8b\u52d9\u6240","boring_xml_url":64,"boring_view_url":1,"soilmap_view_url":null,"soiltest_xml_url":0,"soiltest_view_url":0},{"id":509309,"code":"B4KJ202201001-1845","latitude":"38.091442","longitude":"139.516875","source_code":"HR1284556220080007","project_name":"","survey_name":"\u98ef\u8c4a\u5c71\u7cfb\u7802\u9632\u4e8b\u52d9\u6240\u7ba1\u5185\u5730\u8cea\u8abf\u67fb\u696d\u52d9\uff08\u6df1\u6ca2\u7802\u9632\u5830\u5824\u5730\u8cea\u8abf\u67fb\uff09","client_name":"\u56fd\u571f\u4ea4\u901a\u7701\u3000\u5317\u9678\u5730\u65b9\u6574\u5099\u5c40\u3000\u98ef\u8c4a\u5c71\u7cfb\u7802\u9632\u4e8b\u52d9\u6240","boring_xml_url":64,"boring_view_url":1,"soilmap_view_url":null,"soiltest_xml_url":0,"soiltest_view_url":0},{"id":509308,"code":"B4KJ202201001-1844","latitude":"38.091358","longitude":"139.517069","source_code":"HR1284556220080006","project_name":"","survey_name":"\u98ef\u8c4a\u5c71\u7cfb\u7802\u9632\u4e8b\u52d9\u6240\u7ba1\u5185\u5730\u8cea\u8abf\u67fb\u696d\u52d9\uff08\u6df1\u6ca2\u7802\u9632\u5830\u5824\u5730\u8cea\u8abf\u67fb\uff09","client_name":"\u56fd\u571f\u4ea4\u901a\u7701\u3000\u5317\u9678\u5730\u65b9\u6574\u5099\u5c40\u3000\u98ef\u8c4a\u5c71\u7cfb\u7802\u9632\u4e8b\u52d9\u6240","boring_xml_url":64,"boring_view_url":1,"soilmap_view_url":null,"soiltest_xml_url":0,"soiltest_view_url":0},{"id":509307,"code":"B4KJ202201001-1843","latitude":"38.091803","longitude":"139.516181","source_code":"HR1284556220080005","project_name":"","survey_name":"\u98ef\u8c4a\u5c71\u7cfb\u7802\u9632\u4e8b\u52d9\u6240\u7ba1\u5185\u5730\u8cea\u8abf\u67fb\u696d\u52d9\uff08\u6df1\u6ca2\u7802\u9632\u5830\u5824\u5730\u8cea\u8abf\u67fb\uff09","client_name":"\u56fd\u571f\u4ea4\u901a\u7701\u3000\u5317\u9678\u5730\u65b9\u6574\u5099\u5c40\u3000\u98ef\u8c4a\u5c71\u7cfb\u7802\u9632\u4e8b\u52d9\u6240","boring_xml_url":64,"boring_view_url":1,"soilmap_view_url":null,"soiltest_xml_url":0,"soiltest_view_url":0},{"id":509306,"code":"B4KJ202201001-1842","latitude":"38.091886","longitude":"139.516125","source_code":"HR1284556220080004","project_name":"","survey_name":"\u98ef\u8c4a\u5c71\u7cfb\u7802\u9632\u4e8b\u52d9\u6240\u7ba1\u5185\u5730\u8cea\u8abf\u67fb\u696d\u52d9\uff08\u6df1\u6ca2\u7802\u9632\u5830\u5824\u5730\u8cea\u8abf\u67fb\uff09","client_name":"\u56fd\u571f\u4ea4\u901a\u7701\u3000\u5317\u9678\u5730\u65b9\u6574\u5099\u5c40\u3000\u98ef\u8c4a\u5c71\u7cfb\u7802\u9632\u4e8b\u52d9\u6240","boring_xml_url":64,"boring_view_url":1,"soilmap_view_url":null,"soiltest_xml_url":0,"soiltest_view_url":0},{"id":509305,"code":"B4KJ202201001-1841","latitude":"38.091692","longitude":"139.516125","source_code":"HR1284556220080003","project_name":"","survey_name":"\u98ef\u8c4a\u5c71\u7cfb\u7802\u9632\u4e8b\u52d9\u6240\u7ba1\u5185\u5730\u8cea\u8abf\u67fb\u696d\u52d9\uff08\u6df1\u6ca2\u7802\u9632\u5830\u5824\u5730\u8cea\u8abf\u67fb\uff09","client_name":"\u56fd\u571f\u4ea4\u901a\u7701\u3000\u5317\u9678\u5730\u65b9\u6574\u5099\u5c40\u3000\u98ef\u8c4a\u5c71\u7cfb\u7802\u9632\u4e8b\u52d9\u6240","boring_xml_url":64,"boring_view_url":1,"soilmap_view_url":null,"soiltest_xml_url":0,"soiltest_view_url":0},{"id":509304,"code":"B4KJ202201001-1840","latitude":"37.990719","longitude":"139.431041","source_code":"HR1284556220080002","project_name":"","survey_name":"\u98ef\u8c4a\u5c71\u7cfb\u7802\u9632\u4e8b\u52d9\u6240\u7ba1\u5185\u5730\u8cea\u8abf\u67fb\u696d\u52d9\uff08\u67ff\u30ce\u6728\u6ca2\u7802\u9632\u5830\u5824\uff09","client_name":"\u56fd\u571f\u4ea4\u901a\u7701\u3000\u5317\u9678\u5730\u65b9\u6574\u5099\u5c40\u3000\u98ef\u8c4a\u5c71\u7cfb\u7802\u9632\u4e8b\u52d9\u6240","boring_xml_url":64,"boring_view_url":1,"soilmap_view_url":null,"soiltest_xml_url":0,"soiltest_view_url":0},{"id":509303,"code":"B4KJ202201001-1839","latitude":"37.990636","longitude":"139.430986","source_code":"HR1284556220080001","project_name":"","survey_name":"\u98ef\u8c4a\u5c71\u7cfb\u7802\u9632\u4e8b\u52d9\u6240\u7ba1\u5185\u5730\u8cea\u8abf\u67fb\u696d\u52d9\uff08\u67ff\u30ce\u6728\u6ca2\u7802\u9632\u5830\u5824\uff09","client_name":"\u56fd\u571f\u4ea4\u901a\u7701\u3000\u5317\u9678\u5730\u65b9\u6574\u5099\u5c40\u3000\u98ef\u8c4a\u5c71\u7cfb\u7802\u9632\u4e8b\u52d9\u6240","boring_xml_url":64,"boring_view_url":1,"soilmap_view_url":null,"soiltest_xml_url":0,"soiltest_view_url":0},{"id":509302,"code":"B4KJ202201001-1838","latitude":"36.549838","longitude":"137.508907","source_code":"HR1284476220090014","project_name":"\u5e73\u621024\u5e74\u5ea6\u7acb\u5c71\u7802\u9632\u4e8b\u52d9\u6240\u7ba1\u5185\u5730\u8cea\u8abf\u67fb\u696d\u52d9","survey_name":"\u30b5\u30d6\u8c37\u7802\u9632\u3048\u3093\u5824\u30dc\u30fc\u30ea\u30f3\u30b0\u8abf\u67fb","client_name":"\u5317\u9678\u5730\u65b9\u6574\u5099\u5c40\u7acb\u5c71\u7802\u9632\u4e8b\u52d9\u6240","boring_xml_url":64,"boring_view_url":1,"soilmap_view_url":null,"soiltest_xml_url":0,"soiltest_view_url":0},{"id":509301,"code":"B4KJ202201001-1837","latitude":"36.54971","longitude":"137.508799","source_code":"HR1284476220090013","project_name":"\u5e73\u621024\u5e74\u5ea6\u7acb\u5c71\u7802\u9632\u4e8b\u52d9\u6240\u7ba1\u5185\u5730\u8cea\u8abf\u67fb\u696d\u52d9","survey_name":"\u30b5\u30d6\u8c37\u7802\u9632\u3048\u3093\u5824\u30dc\u30fc\u30ea\u30f3\u30b0\u8abf\u67fb","client_name":"\u5317\u9678\u5730\u65b9\u6574\u5099\u5c40\u7acb\u5c71\u7802\u9632\u4e8b\u52d9\u6240","boring_xml_url":64,"boring_view_url":1,"soilmap_view_url":null,"soiltest_xml_url":0,"soiltest_view_url":0}]}}