{"header":{"xyz":{"source":[],"mosaic":false},"page":122,"raw":{"soiltest_result":"0","bbox":"57.598333,109.544722,1.933333,163.806111","page":"122"},"conditions":{"soiltest_result":0,"north":57.598333,"west":109.544722,"south":1.933333,"east":163.806111},"success":true,"message":""},"data":{"meta":{"total":212844,"page":122,"pages":7095,"count":30},"values":[{"id":648893,"code":"NGIC202303046-0009","latitude":"43.740319444444","longitude":"142.39428055556","source_code":"","project_name":"\u5fe0\u5225\u5ddd \u5730\u4e0b\u6c34\u89b3\u6e2c\u5b54","survey_name":"\u77f3\u72e9\u5ddd\u4e0a\u6d41\u5de5\u4e8b\u7b87\u6240\u5730\u8cea\u8abf\u67fb\u696d\u52d9","client_name":"\u56fd\u571f\u4ea4\u901a\u7701\u5317\u6d77\u9053\u958b\u767a\u5c40\u65ed\u5ddd\u958b\u767a\u5efa\u8a2d\u90e8\u65ed\u5ddd\u6cb3\u5ddd\u4e8b\u52d9\u6240","boring_xml_url":47,"boring_view_url":1,"soilmap_view_url":null,"soiltest_xml_url":0,"soiltest_view_url":0},{"id":648892,"code":"NGIC202303046-0008","latitude":"43.741880555556","longitude":"142.38993888889","source_code":"","project_name":"\u5fe0\u5225\u5ddd \u5730\u4e0b\u6c34\u89b3\u6e2c\u5b54","survey_name":"\u77f3\u72e9\u5ddd\u4e0a\u6d41\u5de5\u4e8b\u7b87\u6240\u5730\u8cea\u8abf\u67fb\u696d\u52d9","client_name":"\u56fd\u571f\u4ea4\u901a\u7701\u5317\u6d77\u9053\u958b\u767a\u5c40\u65ed\u5ddd\u958b\u767a\u5efa\u8a2d\u90e8\u65ed\u5ddd\u6cb3\u5ddd\u4e8b\u52d9\u6240","boring_xml_url":47,"boring_view_url":1,"soilmap_view_url":null,"soiltest_xml_url":0,"soiltest_view_url":0},{"id":648891,"code":"NGIC202303046-0007","latitude":"43.740369444444","longitude":"142.3869","source_code":"","project_name":"\u5fe0\u5225\u5ddd \u5730\u4e0b\u6c34\u89b3\u6e2c\u5b54","survey_name":"\u77f3\u72e9\u5ddd\u4e0a\u6d41\u5de5\u4e8b\u7b87\u6240\u5730\u8cea\u8abf\u67fb\u696d\u52d9","client_name":"\u56fd\u571f\u4ea4\u901a\u7701\u5317\u6d77\u9053\u958b\u767a\u5c40\u65ed\u5ddd\u958b\u767a\u5efa\u8a2d\u90e8\u65ed\u5ddd\u6cb3\u5ddd\u4e8b\u52d9\u6240","boring_xml_url":47,"boring_view_url":1,"soilmap_view_url":null,"soiltest_xml_url":0,"soiltest_view_url":0},{"id":648890,"code":"NGIC202303046-0006","latitude":"43.73805","longitude":"142.39276944444","source_code":"","project_name":"\u5fe0\u5225\u5ddd \u5730\u4e0b\u6c34\u89b3\u6e2c\u5b54","survey_name":"\u77f3\u72e9\u5ddd\u4e0a\u6d41\u5de5\u4e8b\u7b87\u6240\u5730\u8cea\u8abf\u67fb\u696d\u52d9","client_name":"\u56fd\u571f\u4ea4\u901a\u7701\u5317\u6d77\u9053\u958b\u767a\u5c40\u65ed\u5ddd\u958b\u767a\u5efa\u8a2d\u90e8\u65ed\u5ddd\u6cb3\u5ddd\u4e8b\u52d9\u6240","boring_xml_url":47,"boring_view_url":1,"soilmap_view_url":null,"soiltest_xml_url":0,"soiltest_view_url":0},{"id":648889,"code":"NGIC202303046-0005","latitude":"43.730588888889","longitude":"142.40213055556","source_code":"","project_name":"\u5fe0\u5225\u5ddd \u5730\u4e0b\u6c34\u89b3\u6e2c\u5b54","survey_name":"\u77f3\u72e9\u5ddd\u4e0a\u6d41\u5de5\u4e8b\u7b87\u6240\u5730\u8cea\u8abf\u67fb\u696d\u52d9","client_name":"\u56fd\u571f\u4ea4\u901a\u7701\u5317\u6d77\u9053\u958b\u767a\u5c40\u65ed\u5ddd\u958b\u767a\u5efa\u8a2d\u90e8\u65ed\u5ddd\u6cb3\u5ddd\u4e8b\u52d9\u6240","boring_xml_url":47,"boring_view_url":1,"soilmap_view_url":null,"soiltest_xml_url":0,"soiltest_view_url":0},{"id":648888,"code":"NGIC202303046-0004","latitude":"43.645844444444","longitude":"142.44681111111","source_code":"","project_name":"\u8fba\u5225\u5dddKP4.9\u301c5.2\u53f3\u5cb8\u5de5\u4e8b\u533a\u9593(\u5824\u5185)SP5200\u4ed8\u8fd1","survey_name":"\u77f3\u72e9\u5ddd\u4e0a\u6d41\u5de5\u4e8b\u7b87\u6240\u5730\u8cea\u8abf\u67fb\u696d\u52d9","client_name":"\u56fd\u571f\u4ea4\u901a\u7701\u5317\u6d77\u9053\u958b\u767a\u5c40\u65ed\u5ddd\u958b\u767a\u5efa\u8a2d\u90e8\u65ed\u5ddd\u6cb3\u5ddd\u4e8b\u52d9\u6240","boring_xml_url":47,"boring_view_url":1,"soilmap_view_url":null,"soiltest_xml_url":0,"soiltest_view_url":0},{"id":648887,"code":"NGIC202303046-0003","latitude":"43.659758333333","longitude":"142.43076944444","source_code":"","project_name":"\u8fba\u5225\u5dddKP3.1\u301c3.4\u53f3\u5cb8\u5de5\u4e8b\u533a\u9593(\u5824\u5185)","survey_name":"\u77f3\u72e9\u5ddd\u4e0a\u6d41\u5de5\u4e8b\u7b87\u6240\u5730\u8cea\u8abf\u67fb\u696d\u52d9","client_name":"\u56fd\u571f\u4ea4\u901a\u7701\u5317\u6d77\u9053\u958b\u767a\u5c40\u65ed\u5ddd\u958b\u767a\u5efa\u8a2d\u90e8\u65ed\u5ddd\u6cb3\u5ddd\u4e8b\u52d9\u6240","boring_xml_url":47,"boring_view_url":1,"soilmap_view_url":null,"soiltest_xml_url":0,"soiltest_view_url":0},{"id":648886,"code":"NGIC202303046-0002","latitude":"43.647888888889","longitude":"142.44573055556","source_code":"","project_name":"\u8fba\u5225\u5dddKP4.9\u301c5.2\u53f3\u5cb8\u5de5\u4e8b\u533a\u9593(\u5824\u5185)SP4960\u4ed8\u8fd1","survey_name":"\u77f3\u72e9\u5ddd\u4e0a\u6d41\u5de5\u4e8b\u7b87\u6240\u5730\u8cea\u8abf\u67fb\u696d\u52d9","client_name":"\u56fd\u571f\u4ea4\u901a\u7701\u5317\u6d77\u9053\u958b\u767a\u5c40\u65ed\u5ddd\u958b\u767a\u5efa\u8a2d\u90e8\u65ed\u5ddd\u6cb3\u5ddd\u4e8b\u52d9\u6240","boring_xml_url":47,"boring_view_url":1,"soilmap_view_url":null,"soiltest_xml_url":0,"soiltest_view_url":0},{"id":648885,"code":"NGIC202303046-0001","latitude":"43.659683333333","longitude":"142.43063333333","source_code":"","project_name":"\u8fba\u5225\u5dddKP3.1\u301c3.4\u53f3\u5cb8\u5de5\u4e8b\u533a\u9593(\u5824\u5916)","survey_name":"\u77f3\u72e9\u5ddd\u4e0a\u6d41\u5de5\u4e8b\u7b87\u6240\u5730\u8cea\u8abf\u67fb\u696d\u52d9","client_name":"\u56fd\u571f\u4ea4\u901a\u7701\u5317\u6d77\u9053\u958b\u767a\u5c40\u65ed\u5ddd\u958b\u767a\u5efa\u8a2d\u90e8\u65ed\u5ddd\u6cb3\u5ddd\u4e8b\u52d9\u6240","boring_xml_url":47,"boring_view_url":1,"soilmap_view_url":null,"soiltest_xml_url":0,"soiltest_view_url":0},{"id":648884,"code":"NGIC202303000-0009","latitude":"36.895683333333","longitude":"139.70048055556","source_code":"","project_name":"","survey_name":"R4\u5b87\u90fd\u5bae\u56fd\u9053\u7ba1\u5185\u5730\u8cea\u8abf\u67fb(\u305d\u306e2)\u696d\u52d9","client_name":"\u56fd\u571f\u4ea4\u901a\u7701\u95a2\u6771\u5730\u65b9\u6574\u5099\u5c40\u5b87\u90fd\u5bae\u56fd\u9053\u4e8b\u52d9\u6240","boring_xml_url":47,"boring_view_url":1,"soilmap_view_url":null,"soiltest_xml_url":47,"soiltest_view_url":47},{"id":648883,"code":"NGIC202303000-0008","latitude":"36.895513888889","longitude":"139.70123888889","source_code":"","project_name":"","survey_name":"R4\u5b87\u90fd\u5bae\u56fd\u9053\u7ba1\u5185\u5730\u8cea\u8abf\u67fb(\u305d\u306e2)\u696d\u52d9","client_name":"\u56fd\u571f\u4ea4\u901a\u7701\u95a2\u6771\u5730\u65b9\u6574\u5099\u5c40\u5b87\u90fd\u5bae\u56fd\u9053\u4e8b\u52d9\u6240","boring_xml_url":47,"boring_view_url":1,"soilmap_view_url":null,"soiltest_xml_url":47,"soiltest_view_url":47},{"id":648882,"code":"NGIC202303000-0007","latitude":"36.895625","longitude":"139.70096944444","source_code":"","project_name":"","survey_name":"R4\u5b87\u90fd\u5bae\u56fd\u9053\u7ba1\u5185\u5730\u8cea\u8abf\u67fb(\u305d\u306e2)\u696d\u52d9","client_name":"\u56fd\u571f\u4ea4\u901a\u7701\u95a2\u6771\u5730\u65b9\u6574\u5099\u5c40\u5b87\u90fd\u5bae\u56fd\u9053\u4e8b\u52d9\u6240","boring_xml_url":47,"boring_view_url":1,"soilmap_view_url":null,"soiltest_xml_url":47,"soiltest_view_url":47},{"id":648881,"code":"NGIC202303000-0006","latitude":"36.895577777778","longitude":"139.70068888889","source_code":"","project_name":"","survey_name":"R4\u5b87\u90fd\u5bae\u56fd\u9053\u7ba1\u5185\u5730\u8cea\u8abf\u67fb(\u305d\u306e2)\u696d\u52d9","client_name":"\u56fd\u571f\u4ea4\u901a\u7701\u95a2\u6771\u5730\u65b9\u6574\u5099\u5c40\u5b87\u90fd\u5bae\u56fd\u9053\u4e8b\u52d9\u6240","boring_xml_url":47,"boring_view_url":1,"soilmap_view_url":null,"soiltest_xml_url":47,"soiltest_view_url":47},{"id":648880,"code":"NGIC202303000-0005","latitude":"36.920686111111","longitude":"139.68823611111","source_code":"","project_name":"","survey_name":"R4\u5b87\u90fd\u5bae\u56fd\u9053\u7ba1\u5185\u5730\u8cea\u8abf\u67fb(\u305d\u306e2)\u696d\u52d9","client_name":"\u56fd\u571f\u4ea4\u901a\u7701\u95a2\u6771\u5730\u65b9\u6574\u5099\u5c40\u5b87\u90fd\u5bae\u56fd\u9053\u4e8b\u52d9\u6240","boring_xml_url":47,"boring_view_url":1,"soilmap_view_url":null,"soiltest_xml_url":0,"soiltest_view_url":0},{"id":648879,"code":"NGIC202303000-0004","latitude":"36.920533333333","longitude":"139.68871111111","source_code":"","project_name":"","survey_name":"R4\u5b87\u90fd\u5bae\u56fd\u9053\u7ba1\u5185\u5730\u8cea\u8abf\u67fb(\u305d\u306e2)\u696d\u52d9","client_name":"\u56fd\u571f\u4ea4\u901a\u7701\u95a2\u6771\u5730\u65b9\u6574\u5099\u5c40\u5b87\u90fd\u5bae\u56fd\u9053\u4e8b\u52d9\u6240","boring_xml_url":47,"boring_view_url":1,"soilmap_view_url":null,"soiltest_xml_url":0,"soiltest_view_url":0},{"id":648878,"code":"NGIC202303000-0003","latitude":"36.874988888889","longitude":"139.95787222222","source_code":"","project_name":"","survey_name":"R4\u5b87\u90fd\u5bae\u56fd\u9053\u7ba1\u5185\u5730\u8cea\u8abf\u67fb(\u305d\u306e2)\u696d\u52d9","client_name":"\u56fd\u571f\u4ea4\u901a\u7701\u95a2\u6771\u5730\u65b9\u6574\u5099\u5c40\u5b87\u90fd\u5bae\u56fd\u9053\u4e8b\u52d9\u6240","boring_xml_url":47,"boring_view_url":1,"soilmap_view_url":null,"soiltest_xml_url":0,"soiltest_view_url":0},{"id":648877,"code":"NGIC202303000-0002","latitude":"36.845852777778","longitude":"139.93280277778","source_code":"","project_name":"","survey_name":"R4\u5b87\u90fd\u5bae\u56fd\u9053\u7ba1\u5185\u5730\u8cea\u8abf\u67fb(\u305d\u306e2)\u696d\u52d9","client_name":"\u56fd\u571f\u4ea4\u901a\u7701\u95a2\u6771\u5730\u65b9\u6574\u5099\u5c40\u5b87\u90fd\u5bae\u56fd\u9053\u4e8b\u52d9\u6240","boring_xml_url":47,"boring_view_url":1,"soilmap_view_url":null,"soiltest_xml_url":47,"soiltest_view_url":47},{"id":648876,"code":"NGIC202303000-0001","latitude":"36.816680555556","longitude":"139.94664722222","source_code":"","project_name":"","survey_name":"R4\u5b87\u90fd\u5bae\u56fd\u9053\u7ba1\u5185\u5730\u8cea\u8abf\u67fb(\u305d\u306e2)\u696d\u52d9","client_name":"\u56fd\u571f\u4ea4\u901a\u7701\u95a2\u6771\u5730\u65b9\u6574\u5099\u5c40\u5b87\u90fd\u5bae\u56fd\u9053\u4e8b\u52d9\u6240","boring_xml_url":47,"boring_view_url":1,"soilmap_view_url":null,"soiltest_xml_url":47,"soiltest_view_url":47},{"id":648834,"code":"NGIC202303032-0007","latitude":"42.730639861111","longitude":"142.33848591667","source_code":"","project_name":"","survey_name":"\u4e00\u822c\u56fd\u9053235\u53f7\u65b0\u3072\u3060\u304b\u753a\u9ce7\u821e\u5730\u8cea\u8abf\u67fb\u5916\u4e00\u9023\u696d\u52d9","client_name":"\u56fd\u571f\u4ea4\u901a\u7701\u5317\u6d77\u9053\u958b\u767a\u5c40\u5ba4\u862d\u958b\u767a\u5efa\u8a2d\u90e8\u672c\u90e8","boring_xml_url":47,"boring_view_url":1,"soilmap_view_url":null,"soiltest_xml_url":0,"soiltest_view_url":0},{"id":648833,"code":"NGIC202303032-0006","latitude":"42.873567222222","longitude":"142.13074783333","source_code":"","project_name":"","survey_name":"\u4e00\u822c\u56fd\u9053235\u53f7\u65b0\u3072\u3060\u304b\u753a\u9ce7\u821e\u5730\u8cea\u8abf\u67fb\u5916\u4e00\u9023\u696d\u52d9","client_name":"\u56fd\u571f\u4ea4\u901a\u7701\u5317\u6d77\u9053\u958b\u767a\u5c40\u5ba4\u862d\u958b\u767a\u5efa\u8a2d\u90e8\u672c\u90e8","boring_xml_url":47,"boring_view_url":1,"soilmap_view_url":null,"soiltest_xml_url":0,"soiltest_view_url":0},{"id":648832,"code":"NGIC202303032-0005","latitude":"42.873793805556","longitude":"142.130771","source_code":"","project_name":"","survey_name":"\u4e00\u822c\u56fd\u9053235\u53f7\u65b0\u3072\u3060\u304b\u753a\u9ce7\u821e\u5730\u8cea\u8abf\u67fb\u5916\u4e00\u9023\u696d\u52d9","client_name":"\u56fd\u571f\u4ea4\u901a\u7701\u5317\u6d77\u9053\u958b\u767a\u5c40\u5ba4\u862d\u958b\u767a\u5efa\u8a2d\u90e8\u672c\u90e8","boring_xml_url":47,"boring_view_url":1,"soilmap_view_url":null,"soiltest_xml_url":0,"soiltest_view_url":0},{"id":648831,"code":"NGIC202303032-0004","latitude":"42.910055833333","longitude":"142.12199827778","source_code":"","project_name":"","survey_name":"\u4e00\u822c\u56fd\u9053235\u53f7\u65b0\u3072\u3060\u304b\u753a\u9ce7\u821e\u5730\u8cea\u8abf\u67fb\u5916\u4e00\u9023\u696d\u52d9","client_name":"\u56fd\u571f\u4ea4\u901a\u7701\u5317\u6d77\u9053\u958b\u767a\u5c40\u5ba4\u862d\u958b\u767a\u5efa\u8a2d\u90e8\u672c\u90e8","boring_xml_url":47,"boring_view_url":1,"soilmap_view_url":null,"soiltest_xml_url":0,"soiltest_view_url":0},{"id":648830,"code":"NGIC202303032-0003","latitude":"42.730642027778","longitude":"142.3384785","source_code":"","project_name":"","survey_name":"\u4e00\u822c\u56fd\u9053235\u53f7\u65b0\u3072\u3060\u304b\u753a\u9ce7\u821e\u5730\u8cea\u8abf\u67fb\u5916\u4e00\u9023\u696d\u52d9","client_name":"\u56fd\u571f\u4ea4\u901a\u7701\u5317\u6d77\u9053\u958b\u767a\u5c40\u5ba4\u862d\u958b\u767a\u5efa\u8a2d\u90e8\u672c\u90e8","boring_xml_url":47,"boring_view_url":1,"soilmap_view_url":null,"soiltest_xml_url":0,"soiltest_view_url":0},{"id":648829,"code":"NGIC202303032-0002","latitude":"42.212008277778","longitude":"142.64391422222","source_code":"","project_name":"","survey_name":"\u4e00\u822c\u56fd\u9053235\u53f7\u65b0\u3072\u3060\u304b\u753a\u9ce7\u821e\u5730\u8cea\u8abf\u67fb\u5916\u4e00\u9023\u696d\u52d9","client_name":"\u56fd\u571f\u4ea4\u901a\u7701\u5317\u6d77\u9053\u958b\u767a\u5c40\u5ba4\u862d\u958b\u767a\u5efa\u8a2d\u90e8\u672c\u90e8","boring_xml_url":47,"boring_view_url":1,"soilmap_view_url":null,"soiltest_xml_url":0,"soiltest_view_url":0},{"id":648828,"code":"NGIC202303032-0001","latitude":"42.212014361111","longitude":"142.64389741667","source_code":"","project_name":"","survey_name":"\u4e00\u822c\u56fd\u9053235\u53f7\u65b0\u3072\u3060\u304b\u753a\u9ce7\u821e\u5730\u8cea\u8abf\u67fb\u5916\u4e00\u9023\u696d\u52d9","client_name":"\u56fd\u571f\u4ea4\u901a\u7701\u5317\u6d77\u9053\u958b\u767a\u5c40\u5ba4\u862d\u958b\u767a\u5efa\u8a2d\u90e8\u672c\u90e8","boring_xml_url":47,"boring_view_url":1,"soilmap_view_url":null,"soiltest_xml_url":0,"soiltest_view_url":0},{"id":648808,"code":"NGIC202303003-0013","latitude":"35.944538888889","longitude":"139.54301944444","source_code":"","project_name":"","survey_name":"R5\u8352\u5ddd\u4e0a\u6d41\u7ba1\u5185\u5730\u8cea\u8abf\u67fb\u305d\u306e3\u696d\u52d9","client_name":"\u56fd\u571f\u4ea4\u901a\u7701\u95a2\u6771\u5730\u65b9\u6574\u5099\u5c40\u8352\u5ddd\u4e0a\u6d41\u6cb3\u5ddd\u4e8b\u52d9\u6240","boring_xml_url":47,"boring_view_url":1,"soilmap_view_url":null,"soiltest_xml_url":47,"soiltest_view_url":47},{"id":648807,"code":"NGIC202303003-0012","latitude":"35.947163888889","longitude":"139.54326944444","source_code":"","project_name":"","survey_name":"R5\u8352\u5ddd\u4e0a\u6d41\u7ba1\u5185\u5730\u8cea\u8abf\u67fb\u305d\u306e3\u696d\u52d9","client_name":"\u56fd\u571f\u4ea4\u901a\u7701\u95a2\u6771\u5730\u65b9\u6574\u5099\u5c40\u8352\u5ddd\u4e0a\u6d41\u6cb3\u5ddd\u4e8b\u52d9\u6240","boring_xml_url":47,"boring_view_url":1,"soilmap_view_url":null,"soiltest_xml_url":47,"soiltest_view_url":47},{"id":648806,"code":"NGIC202303003-0011","latitude":"35.944769444444","longitude":"139.54485833333","source_code":"","project_name":"","survey_name":"R5\u8352\u5ddd\u4e0a\u6d41\u7ba1\u5185\u5730\u8cea\u8abf\u67fb\u305d\u306e3\u696d\u52d9","client_name":"\u56fd\u571f\u4ea4\u901a\u7701\u95a2\u6771\u5730\u65b9\u6574\u5099\u5c40\u8352\u5ddd\u4e0a\u6d41\u6cb3\u5ddd\u4e8b\u52d9\u6240","boring_xml_url":47,"boring_view_url":1,"soilmap_view_url":null,"soiltest_xml_url":0,"soiltest_view_url":0},{"id":648805,"code":"NGIC202303003-0010","latitude":"35.946547222222","longitude":"139.54458888889","source_code":"","project_name":"","survey_name":"R5\u8352\u5ddd\u4e0a\u6d41\u7ba1\u5185\u5730\u8cea\u8abf\u67fb\u305d\u306e3\u696d\u52d9","client_name":"\u56fd\u571f\u4ea4\u901a\u7701\u95a2\u6771\u5730\u65b9\u6574\u5099\u5c40\u8352\u5ddd\u4e0a\u6d41\u6cb3\u5ddd\u4e8b\u52d9\u6240","boring_xml_url":47,"boring_view_url":1,"soilmap_view_url":null,"soiltest_xml_url":47,"soiltest_view_url":47},{"id":648804,"code":"NGIC202303003-0009","latitude":"35.949363888889","longitude":"139.54440277778","source_code":"","project_name":"","survey_name":"R5\u8352\u5ddd\u4e0a\u6d41\u7ba1\u5185\u5730\u8cea\u8abf\u67fb\u305d\u306e3\u696d\u52d9","client_name":"\u56fd\u571f\u4ea4\u901a\u7701\u95a2\u6771\u5730\u65b9\u6574\u5099\u5c40\u8352\u5ddd\u4e0a\u6d41\u6cb3\u5ddd\u4e8b\u52d9\u6240","boring_xml_url":47,"boring_view_url":1,"soilmap_view_url":null,"soiltest_xml_url":47,"soiltest_view_url":47}]}}