{"header":{"xyz":{"source":[],"mosaic":false},"page":1227,"raw":{"soiltest_result":"0","bbox":"57.598333,109.544722,1.933333,163.806111","page":"1227"},"conditions":{"soiltest_result":0,"north":57.598333,"west":109.544722,"south":1.933333,"east":163.806111},"success":true,"message":""},"data":{"meta":{"total":212844,"page":1227,"pages":7095,"count":30},"values":[{"id":508580,"code":"B4KJ202201001-1116","latitude":"36.250053","longitude":"139.734971","source_code":"201883457320080015","project_name":"","survey_name":"H30\u5229\u6839\u5ddd\u4e0a\u6d41\u7ba1\u5185\u5730\u8cea\u8abf\u67fb\u696d\u52d9","client_name":"\u56fd\u571f\u4ea4\u901a\u7701\u95a2\u6771\u5730\u65b9\u6574\u5099\u5c40\u5229\u6839\u5ddd\u4e0a\u6d41\u6cb3\u5ddd\u4e8b\u52d9\u6240","boring_xml_url":64,"boring_view_url":1,"soilmap_view_url":null,"soiltest_xml_url":0,"soiltest_view_url":0},{"id":508579,"code":"B4KJ202201001-1115","latitude":"36.250243","longitude":"139.733835","source_code":"201883457320080014","project_name":"","survey_name":"H30\u5229\u6839\u5ddd\u4e0a\u6d41\u7ba1\u5185\u5730\u8cea\u8abf\u67fb\u696d\u52d9","client_name":"\u56fd\u571f\u4ea4\u901a\u7701\u95a2\u6771\u5730\u65b9\u6574\u5099\u5c40\u5229\u6839\u5ddd\u4e0a\u6d41\u6cb3\u5ddd\u4e8b\u52d9\u6240","boring_xml_url":64,"boring_view_url":1,"soilmap_view_url":null,"soiltest_xml_url":0,"soiltest_view_url":0},{"id":508578,"code":"B4KJ202201001-1114","latitude":"36.249852","longitude":"139.734222","source_code":"201883457320080013","project_name":"","survey_name":"H30\u5229\u6839\u5ddd\u4e0a\u6d41\u7ba1\u5185\u5730\u8cea\u8abf\u67fb\u696d\u52d9","client_name":"\u56fd\u571f\u4ea4\u901a\u7701\u95a2\u6771\u5730\u65b9\u6574\u5099\u5c40\u5229\u6839\u5ddd\u4e0a\u6d41\u6cb3\u5ddd\u4e8b\u52d9\u6240","boring_xml_url":64,"boring_view_url":1,"soilmap_view_url":null,"soiltest_xml_url":0,"soiltest_view_url":0},{"id":508577,"code":"B4KJ202201001-1113","latitude":"36.124289","longitude":"139.76815","source_code":"201883457320080012","project_name":"","survey_name":"H30\u5229\u6839\u5ddd\u4e0a\u6d41\u7ba1\u5185\u5730\u8cea\u8abf\u67fb\u696d\u52d9","client_name":"\u56fd\u571f\u4ea4\u901a\u7701\u95a2\u6771\u5730\u65b9\u6574\u5099\u5c40\u5229\u6839\u5ddd\u4e0a\u6d41\u6cb3\u5ddd\u4e8b\u52d9\u6240","boring_xml_url":64,"boring_view_url":1,"soilmap_view_url":null,"soiltest_xml_url":0,"soiltest_view_url":0},{"id":508576,"code":"B4KJ202201001-1112","latitude":"36.123848","longitude":"139.7675","source_code":"201883457320080011","project_name":"","survey_name":"H30\u5229\u6839\u5ddd\u4e0a\u6d41\u7ba1\u5185\u5730\u8cea\u8abf\u67fb\u696d\u52d9","client_name":"\u56fd\u571f\u4ea4\u901a\u7701\u95a2\u6771\u5730\u65b9\u6574\u5099\u5c40\u5229\u6839\u5ddd\u4e0a\u6d41\u6cb3\u5ddd\u4e8b\u52d9\u6240","boring_xml_url":64,"boring_view_url":1,"soilmap_view_url":null,"soiltest_xml_url":0,"soiltest_view_url":0},{"id":508575,"code":"B4KJ202201001-1111","latitude":"36.123433","longitude":"139.766842","source_code":"201883457320080010","project_name":"","survey_name":"H30\u5229\u6839\u5ddd\u4e0a\u6d41\u7ba1\u5185\u5730\u8cea\u8abf\u67fb\u696d\u52d9","client_name":"\u56fd\u571f\u4ea4\u901a\u7701\u95a2\u6771\u5730\u65b9\u6574\u5099\u5c40\u5229\u6839\u5ddd\u4e0a\u6d41\u6cb3\u5ddd\u4e8b\u52d9\u6240","boring_xml_url":64,"boring_view_url":1,"soilmap_view_url":null,"soiltest_xml_url":0,"soiltest_view_url":0},{"id":508574,"code":"B4KJ202201001-1110","latitude":"36.122786","longitude":"139.766283","source_code":"201883457320080009","project_name":"","survey_name":"H30\u5229\u6839\u5ddd\u4e0a\u6d41\u7ba1\u5185\u5730\u8cea\u8abf\u67fb\u696d\u52d9","client_name":"\u56fd\u571f\u4ea4\u901a\u7701\u95a2\u6771\u5730\u65b9\u6574\u5099\u5c40\u5229\u6839\u5ddd\u4e0a\u6d41\u6cb3\u5ddd\u4e8b\u52d9\u6240","boring_xml_url":64,"boring_view_url":1,"soilmap_view_url":null,"soiltest_xml_url":0,"soiltest_view_url":0},{"id":508573,"code":"B4KJ202201001-1109","latitude":"36.122437","longitude":"139.770315","source_code":"201883457320080008","project_name":"","survey_name":"H30\u5229\u6839\u5ddd\u4e0a\u6d41\u7ba1\u5185\u5730\u8cea\u8abf\u67fb\u696d\u52d9","client_name":"\u56fd\u571f\u4ea4\u901a\u7701\u95a2\u6771\u5730\u65b9\u6574\u5099\u5c40\u5229\u6839\u5ddd\u4e0a\u6d41\u6cb3\u5ddd\u4e8b\u52d9\u6240","boring_xml_url":64,"boring_view_url":1,"soilmap_view_url":null,"soiltest_xml_url":0,"soiltest_view_url":0},{"id":508572,"code":"B4KJ202201001-1108","latitude":"36.121774","longitude":"139.769346","source_code":"201883457320080007","project_name":"","survey_name":"H30\u5229\u6839\u5ddd\u4e0a\u6d41\u7ba1\u5185\u5730\u8cea\u8abf\u67fb\u696d\u52d9","client_name":"\u56fd\u571f\u4ea4\u901a\u7701\u95a2\u6771\u5730\u65b9\u6574\u5099\u5c40\u5229\u6839\u5ddd\u4e0a\u6d41\u6cb3\u5ddd\u4e8b\u52d9\u6240","boring_xml_url":64,"boring_view_url":1,"soilmap_view_url":null,"soiltest_xml_url":0,"soiltest_view_url":0},{"id":508571,"code":"B4KJ202201001-1107","latitude":"36.121241","longitude":"139.76853","source_code":"201883457320080006","project_name":"","survey_name":"H30\u5229\u6839\u5ddd\u4e0a\u6d41\u7ba1\u5185\u5730\u8cea\u8abf\u67fb\u696d\u52d9","client_name":"\u56fd\u571f\u4ea4\u901a\u7701\u95a2\u6771\u5730\u65b9\u6574\u5099\u5c40\u5229\u6839\u5ddd\u4e0a\u6d41\u6cb3\u5ddd\u4e8b\u52d9\u6240","boring_xml_url":64,"boring_view_url":1,"soilmap_view_url":null,"soiltest_xml_url":0,"soiltest_view_url":0},{"id":508570,"code":"B4KJ202201001-1106","latitude":"36.120281","longitude":"139.769485","source_code":"201883457320080005","project_name":"","survey_name":"H30\u5229\u6839\u5ddd\u4e0a\u6d41\u7ba1\u5185\u5730\u8cea\u8abf\u67fb\u696d\u52d9","client_name":"\u56fd\u571f\u4ea4\u901a\u7701\u95a2\u6771\u5730\u65b9\u6574\u5099\u5c40\u5229\u6839\u5ddd\u4e0a\u6d41\u6cb3\u5ddd\u4e8b\u52d9\u6240","boring_xml_url":64,"boring_view_url":1,"soilmap_view_url":null,"soiltest_xml_url":0,"soiltest_view_url":0},{"id":508569,"code":"B4KJ202201001-1105","latitude":"36.120381","longitude":"139.772215","source_code":"201883457320080004","project_name":"","survey_name":"H30\u5229\u6839\u5ddd\u4e0a\u6d41\u7ba1\u5185\u5730\u8cea\u8abf\u67fb\u696d\u52d9","client_name":"\u56fd\u571f\u4ea4\u901a\u7701\u95a2\u6771\u5730\u65b9\u6574\u5099\u5c40\u5229\u6839\u5ddd\u4e0a\u6d41\u6cb3\u5ddd\u4e8b\u52d9\u6240","boring_xml_url":64,"boring_view_url":1,"soilmap_view_url":null,"soiltest_xml_url":0,"soiltest_view_url":0},{"id":508568,"code":"B4KJ202201001-1104","latitude":"36.119838","longitude":"139.771352","source_code":"201883457320080003","project_name":"","survey_name":"H30\u5229\u6839\u5ddd\u4e0a\u6d41\u7ba1\u5185\u5730\u8cea\u8abf\u67fb\u696d\u52d9","client_name":"\u56fd\u571f\u4ea4\u901a\u7701\u95a2\u6771\u5730\u65b9\u6574\u5099\u5c40\u5229\u6839\u5ddd\u4e0a\u6d41\u6cb3\u5ddd\u4e8b\u52d9\u6240","boring_xml_url":64,"boring_view_url":1,"soilmap_view_url":null,"soiltest_xml_url":0,"soiltest_view_url":0},{"id":508567,"code":"B4KJ202201001-1103","latitude":"36.119473","longitude":"139.770737","source_code":"201883457320080002","project_name":"","survey_name":"H30\u5229\u6839\u5ddd\u4e0a\u6d41\u7ba1\u5185\u5730\u8cea\u8abf\u67fb\u696d\u52d9","client_name":"\u56fd\u571f\u4ea4\u901a\u7701\u95a2\u6771\u5730\u65b9\u6574\u5099\u5c40\u5229\u6839\u5ddd\u4e0a\u6d41\u6cb3\u5ddd\u4e8b\u52d9\u6240","boring_xml_url":64,"boring_view_url":1,"soilmap_view_url":null,"soiltest_xml_url":0,"soiltest_view_url":0},{"id":508566,"code":"B4KJ202201001-1102","latitude":"36.118935","longitude":"139.770018","source_code":"201883457320080001","project_name":"","survey_name":"H30\u5229\u6839\u5ddd\u4e0a\u6d41\u7ba1\u5185\u5730\u8cea\u8abf\u67fb\u696d\u52d9","client_name":"\u56fd\u571f\u4ea4\u901a\u7701\u95a2\u6771\u5730\u65b9\u6574\u5099\u5c40\u5229\u6839\u5ddd\u4e0a\u6d41\u6cb3\u5ddd\u4e8b\u52d9\u6240","boring_xml_url":64,"boring_view_url":1,"soilmap_view_url":null,"soiltest_xml_url":0,"soiltest_view_url":0},{"id":508565,"code":"B4KJ202201001-1101","latitude":"36.546614","longitude":"138.700708","source_code":"201783426020130019","project_name":"","survey_name":"H29\u516b\u30c3\u5834\u30c0\u30e0\u4e0b\u6d41\u5730\u533a\u7ba1\u5185\u5730\u8cea\u8abf\u67fb","client_name":"\u56fd\u571f\u4ea4\u901a\u7701\u95a2\u6771\u5730\u65b9\u6574\u5099\u5c40\u516b\u30c3\u5834\u30c0\u30e0\u5de5\u4e8b\u4e8b\u52d9\u6240","boring_xml_url":64,"boring_view_url":1,"soilmap_view_url":null,"soiltest_xml_url":0,"soiltest_view_url":0},{"id":508564,"code":"B4KJ202201001-1100","latitude":"36.547316","longitude":"138.700664","source_code":"201783426020130018","project_name":"","survey_name":"H29\u516b\u30c3\u5834\u30c0\u30e0\u4e0b\u6d41\u5730\u533a\u7ba1\u5185\u5730\u8cea\u8abf\u67fb","client_name":"\u56fd\u571f\u4ea4\u901a\u7701\u95a2\u6771\u5730\u65b9\u6574\u5099\u5c40\u516b\u30c3\u5834\u30c0\u30e0\u5de5\u4e8b\u4e8b\u52d9\u6240","boring_xml_url":64,"boring_view_url":1,"soilmap_view_url":null,"soiltest_xml_url":0,"soiltest_view_url":0},{"id":508563,"code":"B4KJ202201001-1099","latitude":"36.546836","longitude":"138.701035","source_code":"201783426020130017","project_name":"","survey_name":"H29\u516b\u30c3\u5834\u30c0\u30e0\u4e0b\u6d41\u5730\u533a\u7ba1\u5185\u5730\u8cea\u8abf\u67fb","client_name":"\u56fd\u571f\u4ea4\u901a\u7701\u95a2\u6771\u5730\u65b9\u6574\u5099\u5c40\u516b\u30c3\u5834\u30c0\u30e0\u5de5\u4e8b\u4e8b\u52d9\u6240","boring_xml_url":64,"boring_view_url":1,"soilmap_view_url":null,"soiltest_xml_url":0,"soiltest_view_url":0},{"id":508562,"code":"B4KJ202201001-1098","latitude":"36.546806","longitude":"138.700442","source_code":"201783426020130016","project_name":"","survey_name":"H29\u516b\u30c3\u5834\u30c0\u30e0\u4e0b\u6d41\u5730\u533a\u7ba1\u5185\u5730\u8cea\u8abf\u67fb","client_name":"\u56fd\u571f\u4ea4\u901a\u7701\u95a2\u6771\u5730\u65b9\u6574\u5099\u5c40\u516b\u30c3\u5834\u30c0\u30e0\u5de5\u4e8b\u4e8b\u52d9\u6240","boring_xml_url":64,"boring_view_url":1,"soilmap_view_url":null,"soiltest_xml_url":0,"soiltest_view_url":0},{"id":508561,"code":"B4KJ202201001-1097","latitude":"36.554288","longitude":"138.712268","source_code":"201783426020130015","project_name":"","survey_name":"H29\u516b\u30c3\u5834\u30c0\u30e0\u4e0b\u6d41\u5730\u533a\u7ba1\u5185\u5730\u8cea\u8abf\u67fb","client_name":"\u56fd\u571f\u4ea4\u901a\u7701\u95a2\u6771\u5730\u65b9\u6574\u5099\u5c40\u516b\u30c3\u5834\u30c0\u30e0\u5de5\u4e8b\u4e8b\u52d9\u6240","boring_xml_url":64,"boring_view_url":1,"soilmap_view_url":null,"soiltest_xml_url":0,"soiltest_view_url":0},{"id":508560,"code":"B4KJ202201001-1096","latitude":"36.553953","longitude":"138.712382","source_code":"201783426020130014","project_name":"","survey_name":"H29\u516b\u30c3\u5834\u30c0\u30e0\u4e0b\u6d41\u5730\u533a\u7ba1\u5185\u5730\u8cea\u8abf\u67fb","client_name":"\u56fd\u571f\u4ea4\u901a\u7701\u95a2\u6771\u5730\u65b9\u6574\u5099\u5c40\u516b\u30c3\u5834\u30c0\u30e0\u5de5\u4e8b\u4e8b\u52d9\u6240","boring_xml_url":64,"boring_view_url":1,"soilmap_view_url":null,"soiltest_xml_url":0,"soiltest_view_url":0},{"id":508559,"code":"B4KJ202201001-1095","latitude":"36.553949","longitude":"138.71236","source_code":"201783426020130013","project_name":"","survey_name":"H29\u516b\u30c3\u5834\u30c0\u30e0\u4e0b\u6d41\u5730\u533a\u7ba1\u5185\u5730\u8cea\u8abf\u67fb","client_name":"\u56fd\u571f\u4ea4\u901a\u7701\u95a2\u6771\u5730\u65b9\u6574\u5099\u5c40\u516b\u30c3\u5834\u30c0\u30e0\u5de5\u4e8b\u4e8b\u52d9\u6240","boring_xml_url":64,"boring_view_url":1,"soilmap_view_url":null,"soiltest_xml_url":0,"soiltest_view_url":0},{"id":508558,"code":"B4KJ202201001-1094","latitude":"36.553537","longitude":"138.712579","source_code":"201783426020130012","project_name":"","survey_name":"H29\u516b\u30c3\u5834\u30c0\u30e0\u4e0b\u6d41\u5730\u533a\u7ba1\u5185\u5730\u8cea\u8abf\u67fb","client_name":"\u56fd\u571f\u4ea4\u901a\u7701\u95a2\u6771\u5730\u65b9\u6574\u5099\u5c40\u516b\u30c3\u5834\u30c0\u30e0\u5de5\u4e8b\u4e8b\u52d9\u6240","boring_xml_url":64,"boring_view_url":1,"soilmap_view_url":null,"soiltest_xml_url":0,"soiltest_view_url":0},{"id":508557,"code":"B4KJ202201001-1093","latitude":"36.553122","longitude":"138.712579","source_code":"201783426020130011","project_name":"","survey_name":"H29\u516b\u30c3\u5834\u30c0\u30e0\u4e0b\u6d41\u5730\u533a\u7ba1\u5185\u5730\u8cea\u8abf\u67fb","client_name":"\u56fd\u571f\u4ea4\u901a\u7701\u95a2\u6771\u5730\u65b9\u6574\u5099\u5c40\u516b\u30c3\u5834\u30c0\u30e0\u5de5\u4e8b\u4e8b\u52d9\u6240","boring_xml_url":64,"boring_view_url":1,"soilmap_view_url":null,"soiltest_xml_url":0,"soiltest_view_url":0},{"id":508556,"code":"B4KJ202201001-1092","latitude":"36.553129","longitude":"138.712614","source_code":"201783426020130010","project_name":"","survey_name":"H29\u516b\u30c3\u5834\u30c0\u30e0\u4e0b\u6d41\u5730\u533a\u7ba1\u5185\u5730\u8cea\u8abf\u67fb","client_name":"\u56fd\u571f\u4ea4\u901a\u7701\u95a2\u6771\u5730\u65b9\u6574\u5099\u5c40\u516b\u30c3\u5834\u30c0\u30e0\u5de5\u4e8b\u4e8b\u52d9\u6240","boring_xml_url":64,"boring_view_url":1,"soilmap_view_url":null,"soiltest_xml_url":0,"soiltest_view_url":0},{"id":508555,"code":"B4KJ202201001-1091","latitude":"36.555976","longitude":"138.704386","source_code":"201783426020130009","project_name":"","survey_name":"H29\u516b\u30c3\u5834\u30c0\u30e0\u4e0b\u6d41\u5730\u533a\u7ba1\u5185\u5730\u8cea\u8abf\u67fb","client_name":"\u56fd\u571f\u4ea4\u901a\u7701\u95a2\u6771\u5730\u65b9\u6574\u5099\u5c40\u516b\u30c3\u5834\u30c0\u30e0\u5de5\u4e8b\u4e8b\u52d9\u6240","boring_xml_url":64,"boring_view_url":1,"soilmap_view_url":null,"soiltest_xml_url":0,"soiltest_view_url":0},{"id":508554,"code":"B4KJ202201001-1090","latitude":"36.555972","longitude":"138.704364","source_code":"201783426020130008","project_name":"","survey_name":"H29\u516b\u30c3\u5834\u30c0\u30e0\u4e0b\u6d41\u5730\u533a\u7ba1\u5185\u5730\u8cea\u8abf\u67fb","client_name":"\u56fd\u571f\u4ea4\u901a\u7701\u95a2\u6771\u5730\u65b9\u6574\u5099\u5c40\u516b\u30c3\u5834\u30c0\u30e0\u5de5\u4e8b\u4e8b\u52d9\u6240","boring_xml_url":64,"boring_view_url":1,"soilmap_view_url":null,"soiltest_xml_url":0,"soiltest_view_url":0},{"id":508553,"code":"B4KJ202201001-1089","latitude":"36.556302","longitude":"138.704017","source_code":"201783426020130007","project_name":"","survey_name":"H29\u516b\u30c3\u5834\u30c0\u30e0\u4e0b\u6d41\u5730\u533a\u7ba1\u5185\u5730\u8cea\u8abf\u67fb","client_name":"\u56fd\u571f\u4ea4\u901a\u7701\u95a2\u6771\u5730\u65b9\u6574\u5099\u5c40\u516b\u30c3\u5834\u30c0\u30e0\u5de5\u4e8b\u4e8b\u52d9\u6240","boring_xml_url":64,"boring_view_url":1,"soilmap_view_url":null,"soiltest_xml_url":0,"soiltest_view_url":0},{"id":508552,"code":"B4KJ202201001-1088","latitude":"36.556294","longitude":"138.703996","source_code":"201783426020130006","project_name":"","survey_name":"H29\u516b\u30c3\u5834\u30c0\u30e0\u4e0b\u6d41\u5730\u533a\u7ba1\u5185\u5730\u8cea\u8abf\u67fb","client_name":"\u56fd\u571f\u4ea4\u901a\u7701\u95a2\u6771\u5730\u65b9\u6574\u5099\u5c40\u516b\u30c3\u5834\u30c0\u30e0\u5de5\u4e8b\u4e8b\u52d9\u6240","boring_xml_url":64,"boring_view_url":1,"soilmap_view_url":null,"soiltest_xml_url":0,"soiltest_view_url":0},{"id":508551,"code":"B4KJ202201001-1087","latitude":"36.547274","longitude":"138.686343","source_code":"201783426020130005","project_name":"","survey_name":"H29\u516b\u30c3\u5834\u30c0\u30e0\u4e0b\u6d41\u5730\u533a\u7ba1\u5185\u5730\u8cea\u8abf\u67fb","client_name":"\u56fd\u571f\u4ea4\u901a\u7701\u95a2\u6771\u5730\u65b9\u6574\u5099\u5c40\u516b\u30c3\u5834\u30c0\u30e0\u5de5\u4e8b\u4e8b\u52d9\u6240","boring_xml_url":64,"boring_view_url":1,"soilmap_view_url":null,"soiltest_xml_url":0,"soiltest_view_url":0}]}}