{"header":{"xyz":{"source":[],"mosaic":false},"page":1234,"raw":{"soiltest_result":"0","bbox":"57.598333,109.544722,1.933333,163.806111","page":"1234"},"conditions":{"soiltest_result":0,"north":57.598333,"west":109.544722,"south":1.933333,"east":163.806111},"success":true,"message":""},"data":{"meta":{"total":212844,"page":1234,"pages":7095,"count":30},"values":[{"id":508370,"code":"B4KJ202201001-0906","latitude":"36.138888","longitude":"139.950368","source_code":"201783314820030020","project_name":"H29\u4e0b\u9928\u9928\u5185\u5730\u8cea\u8abf\u67fb\u696d\u52d9","survey_name":"H29\u4e0b\u9928\u9928\u5185\u5730\u8cea\u8abf\u67fb\u696d\u52d9","client_name":"\u56fd\u4ea4\u7701\u95a2\u6771\u5730\u65b9\u6574\u5099\u5c40\u4e0b\u9928\u6cb3\u5ddd\u4e8b\u52d9\u6240","boring_xml_url":64,"boring_view_url":1,"soilmap_view_url":null,"soiltest_xml_url":0,"soiltest_view_url":0},{"id":508369,"code":"B4KJ202201001-0905","latitude":"36.138888","longitude":"139.950368","source_code":"201783314820030019","project_name":"H29\u4e0b\u9928\u9928\u5185\u5730\u8cea\u8abf\u67fb\u696d\u52d9","survey_name":"H29\u4e0b\u9928\u9928\u5185\u5730\u8cea\u8abf\u67fb\u696d\u52d9","client_name":"\u56fd\u4ea4\u7701\u95a2\u6771\u5730\u65b9\u6574\u5099\u5c40\u4e0b\u9928\u6cb3\u5ddd\u4e8b\u52d9\u6240","boring_xml_url":64,"boring_view_url":1,"soilmap_view_url":null,"soiltest_xml_url":0,"soiltest_view_url":0},{"id":508368,"code":"B4KJ202201001-0904","latitude":"36.138888","longitude":"139.950368","source_code":"201783314820030018","project_name":"H29\u4e0b\u9928\u9928\u5185\u5730\u8cea\u8abf\u67fb\u696d\u52d9","survey_name":"H29\u4e0b\u9928\u9928\u5185\u5730\u8cea\u8abf\u67fb\u696d\u52d9","client_name":"\u56fd\u571f\u4ea4\u901a\u7701\u3000\u95a2\u6771\u5730\u65b9\u6574\u5099\u5c40\u3000\u4e0b\u9928\u6cb3\u5ddd\u4e8b\u52d9\u6240","boring_xml_url":64,"boring_view_url":1,"soilmap_view_url":null,"soiltest_xml_url":0,"soiltest_view_url":0},{"id":508367,"code":"B4KJ202201001-0903","latitude":"36.138861","longitude":"139.95098","source_code":"201783314820030017","project_name":"H29\u4e0b\u9928\u7ba1\u5185\u5730\u8cea\u8abf\u67fb\u696d\u52d9","survey_name":"H29\u4e0b\u9928\u7ba1\u5185\u5730\u8cea\u8abf\u67fb\u696d\u52d9","client_name":"\u56fd\u571f\u4ea4\u901a\u7701\u3000\u95a2\u6771\u5730\u65b9\u6574\u5099\u5c40\u3000\u4e0b\u9928\u6cb3\u5ddd\u4e8b\u52d9\u6240","boring_xml_url":64,"boring_view_url":1,"soilmap_view_url":null,"soiltest_xml_url":0,"soiltest_view_url":0},{"id":508366,"code":"B4KJ202201001-0902","latitude":"36.138861","longitude":"139.95098","source_code":"201783314820030016","project_name":"H29\u4e0b\u9928\u7ba1\u5185\u5730\u8cea\u8abf\u67fb\u696d\u52d9","survey_name":"H29\u4e0b\u9928\u7ba1\u5185\u5730\u8cea\u8abf\u67fb\u696d\u52d9","client_name":"\u56fd\u571f\u4ea4\u901a\u7701\u3000\u95a2\u6771\u5730\u65b9\u6574\u5099\u5c40\u3000\u4e0b\u9928\u6cb3\u5ddd\u4e8b\u52d9\u6240","boring_xml_url":64,"boring_view_url":1,"soilmap_view_url":null,"soiltest_xml_url":0,"soiltest_view_url":0},{"id":508365,"code":"B4KJ202201001-0901","latitude":"36.138861","longitude":"139.95098","source_code":"201783314820030015","project_name":"H29\u4e0b\u9928\u7ba1\u5185\u5730\u8cea\u8abf\u67fb\u696d\u52d9","survey_name":"H29\u4e0b\u9928\u7ba1\u5185\u5730\u8cea\u8abf\u67fb\u696d\u52d9","client_name":"\u56fd\u571f\u4ea4\u901a\u7701\u3000\u95a2\u6771\u5730\u65b9\u6574\u5099\u5c40\u3000\u4e0b\u9928\u6cb3\u5ddd\u4e8b\u52d9\u6240","boring_xml_url":64,"boring_view_url":1,"soilmap_view_url":null,"soiltest_xml_url":0,"soiltest_view_url":0},{"id":508364,"code":"B4KJ202201001-0900","latitude":"36.049499","longitude":"139.983646","source_code":"201783314820030014","project_name":"H29\u4e0b\u9928\u9928\u5185\u5730\u8cea\u8abf\u67fb\u696d\u52d9","survey_name":"H29\u4e0b\u9928\u9928\u5185\u5730\u8cea\u8abf\u67fb\u696d\u52d9","client_name":"\u56fd\u571f\u4ea4\u901a\u7701\u3000\u95a2\u6771\u5730\u65b9\u6574\u5099\u5c40\u3000\u4e0b\u9928\u6cb3\u5ddd\u4e8b\u52d9\u6240","boring_xml_url":64,"boring_view_url":1,"soilmap_view_url":null,"soiltest_xml_url":0,"soiltest_view_url":0},{"id":508363,"code":"B4KJ202201001-0899","latitude":"36.049499","longitude":"139.983646","source_code":"201783314820030013","project_name":"H29\u4e0b\u9928\u9928\u5185\u5730\u8cea\u8abf\u67fb\u696d\u52d9","survey_name":"H29\u4e0b\u9928\u9928\u5185\u5730\u8cea\u8abf\u67fb\u696d\u52d9","client_name":"\u56fd\u571f\u4ea4\u901a\u7701\u3000\u95a2\u6771\u5730\u65b9\u6574\u5099\u5c40\u3000\u4e0b\u9928\u6cb3\u5ddd\u4e8b\u52d9\u6240","boring_xml_url":64,"boring_view_url":1,"soilmap_view_url":null,"soiltest_xml_url":0,"soiltest_view_url":0},{"id":508362,"code":"B4KJ202201001-0898","latitude":"36.042277","longitude":"139.985507","source_code":"201783314820030012","project_name":"H29\u4e0b\u9928\u7ba1\u5185\u5730\u8cea\u8abf\u67fb\u696d\u52d9","survey_name":"H29\u4e0b\u9928\u7ba1\u5185\u5730\u8cea\u8abf\u67fb\u696d\u52d9","client_name":"\u56fd\u571f\u4ea4\u901a\u7701\u3000\u95a2\u6771\u5730\u65b9\u6574\u5099\u5c40\u3000\u4e0b\u9928\u6cb3\u5ddd\u4e8b\u52d9\u6240","boring_xml_url":64,"boring_view_url":1,"soilmap_view_url":null,"soiltest_xml_url":0,"soiltest_view_url":0},{"id":508361,"code":"B4KJ202201001-0897","latitude":"36.042277","longitude":"139.985507","source_code":"201783314820030011","project_name":"H29\u4e0b\u9928\u7ba1\u5185\u5730\u8cea\u8abf\u67fb\u696d\u52d9","survey_name":"H29\u4e0b\u9928\u7ba1\u5185\u5730\u8cea\u8abf\u67fb\u696d\u52d9","client_name":"\u56fd\u571f\u4ea4\u901a\u7701\u3000\u95a2\u6771\u5730\u65b9\u6574\u5099\u5c40\u3000\u4e0b\u9928\u6cb3\u5ddd\u4e8b\u52d9\u6240","boring_xml_url":64,"boring_view_url":1,"soilmap_view_url":null,"soiltest_xml_url":0,"soiltest_view_url":0},{"id":508360,"code":"B4KJ202201001-0896","latitude":"36.042277","longitude":"139.985507","source_code":"201783314820030010","project_name":"H29\u4e0b\u9928\u7ba1\u5185\u5730\u8cea\u8abf\u67fb\u696d\u52d9","survey_name":"H29\u4e0b\u9928\u7ba1\u5185\u5730\u8cea\u8abf\u67fb\u696d\u52d9","client_name":"\u56fd\u571f\u4ea4\u901a\u7701\u3000\u95a2\u6771\u5730\u65b9\u6574\u5099\u5c40\u3000\u4e0b\u9928\u6cb3\u5ddd\u4e8b\u52d9\u6240","boring_xml_url":64,"boring_view_url":1,"soilmap_view_url":null,"soiltest_xml_url":0,"soiltest_view_url":0},{"id":508359,"code":"B4KJ202201001-0895","latitude":"36.042333","longitude":"139.985507","source_code":"201783314820030009","project_name":"H29\u4e0b\u9928\u7ba1\u5185\u5730\u8cea\u8abf\u67fb\u696d\u52d9","survey_name":"H29\u4e0b\u9928\u7ba1\u5185\u5730\u8cea\u8abf\u67fb\u696d\u52d9","client_name":"\u56fd\u571f\u4ea4\u901a\u7701\u3000\u95a2\u6771\u5730\u65b9\u6574\u5099\u5c40\u3000\u4e0b\u9928\u6cb3\u5ddd\u4e8b\u52d9\u6240","boring_xml_url":64,"boring_view_url":1,"soilmap_view_url":null,"soiltest_xml_url":0,"soiltest_view_url":0},{"id":508358,"code":"B4KJ202201001-0894","latitude":"36.042277","longitude":"139.985507","source_code":"201783314820030008","project_name":"H29\u4e0b\u9928\u7ba1\u5185\u5730\u8cea\u8abf\u67fb\u696d\u52d9","survey_name":"H29\u4e0b\u9928\u7ba1\u5185\u5730\u8cea\u8abf\u67fb\u696d\u52d9","client_name":"\u56fd\u571f\u4ea4\u901a\u7701\u3000\u95a2\u6771\u5730\u65b9\u6574\u5099\u5c40\u3000\u4e0b\u9928\u6cb3\u5ddd\u4e8b\u52d9\u6240","boring_xml_url":64,"boring_view_url":1,"soilmap_view_url":null,"soiltest_xml_url":0,"soiltest_view_url":0},{"id":508357,"code":"B4KJ202201001-0893","latitude":"36.042277","longitude":"139.985507","source_code":"201783314820030007","project_name":"H29\u4e0b\u9928\u7ba1\u5185\u5730\u8cea\u8abf\u67fb\u696d\u52d9","survey_name":"H29\u4e0b\u9928\u7ba1\u5185\u5730\u8cea\u8abf\u67fb\u696d\u52d9","client_name":"\u56fd\u571f\u4ea4\u901a\u7701\u3000\u95a2\u6771\u5730\u65b9\u6574\u5099\u5c40\u3000\u4e0b\u9928\u6cb3\u5ddd\u4e8b\u52d9\u6240","boring_xml_url":64,"boring_view_url":1,"soilmap_view_url":null,"soiltest_xml_url":0,"soiltest_view_url":0},{"id":508356,"code":"B4KJ202201001-0892","latitude":"36.035","longitude":"139.979645","source_code":"201783314820030006","project_name":"H29\u4e0b\u9928\u9928\u5185\u5730\u8cea\u8abf\u67fb\u696d\u52d9","survey_name":"H29\u4e0b\u9928\u9928\u5185\u5730\u8cea\u8abf\u67fb\u696d\u52d9","client_name":"\u56fd\u571f\u4ea4\u901a\u7701\u3000\u95a2\u6771\u5730\u65b9\u6574\u5099\u5c40\u3000\u4e0b\u9928\u6cb3\u5ddd\u4e8b\u52d9\u6240","boring_xml_url":64,"boring_view_url":1,"soilmap_view_url":null,"soiltest_xml_url":0,"soiltest_view_url":0},{"id":508355,"code":"B4KJ202201001-0891","latitude":"36.035","longitude":"139.979645","source_code":"201783314820030005","project_name":"H29\u4e0b\u9928\u9928\u5185\u5730\u8cea\u8abf\u67fb\u696d\u52d9","survey_name":"H29\u4e0b\u9928\u9928\u5185\u5730\u8cea\u8abf\u67fb\u696d\u52d9","client_name":"\u56fd\u571f\u4ea4\u901a\u7701\u3000\u95a2\u6771\u5730\u65b9\u6574\u5099\u5c40\u3000\u4e0b\u9928\u6cb3\u5ddd\u4e8b\u52d9\u6240","boring_xml_url":64,"boring_view_url":1,"soilmap_view_url":null,"soiltest_xml_url":0,"soiltest_view_url":0},{"id":508354,"code":"B4KJ202201001-0890","latitude":"36.035","longitude":"139.979645","source_code":"201783314820030004","project_name":"H29\u4e0b\u9928\u9928\u5185\u5730\u8cea\u8abf\u67fb\u696d\u52d9","survey_name":"H29\u4e0b\u9928\u9928\u5185\u5730\u8cea\u8abf\u67fb\u696d\u52d9","client_name":"\u56fd\u571f\u4ea4\u901a\u7701\u3000\u95a2\u6771\u5730\u65b9\u6574\u5099\u5c40\u3000\u4e0b\u9928\u6cb3\u5ddd\u4e8b\u52d9\u6240","boring_xml_url":64,"boring_view_url":1,"soilmap_view_url":null,"soiltest_xml_url":0,"soiltest_view_url":0},{"id":508353,"code":"B4KJ202201001-0889","latitude":"36.011916","longitude":"139.97284","source_code":"201783314820030003","project_name":"H29\u4e0b\u9928\u9928\u5185\u5730\u8cea\u8abf\u67fb\u696d\u52d9","survey_name":"H29\u4e0b\u9928\u9928\u5185\u5730\u8cea\u8abf\u67fb\u696d\u52d9","client_name":"\u56fd\u4ea4\u7701\u95a2\u6771\u5730\u65b9\u6574\u5099\u5c40\u4e0b\u9928\u6cb3\u5ddd\u4e8b\u52d9\u6240","boring_xml_url":64,"boring_view_url":1,"soilmap_view_url":null,"soiltest_xml_url":0,"soiltest_view_url":0},{"id":508352,"code":"B4KJ202201001-0888","latitude":"35.975055","longitude":"139.965006","source_code":"201783314820030002","project_name":"H29\u4e0b\u9928\u7ba1\u5185\u5730\u8cea\u8abf\u67fb\u696d\u52d9","survey_name":"H29\u4e0b\u9928\u7ba1\u5185\u5730\u8cea\u8abf\u67fb\u696d\u52d9","client_name":"\u56fd\u571f\u4ea4\u901a\u7701\u3000\u95a2\u6771\u5730\u65b9\u6574\u5099\u5c40\u3000\u4e0b\u9928\u6cb3\u5ddd\u4e8b\u52d9\u6240","boring_xml_url":64,"boring_view_url":1,"soilmap_view_url":null,"soiltest_xml_url":0,"soiltest_view_url":0},{"id":508351,"code":"B4KJ202201001-0887","latitude":"35.975055","longitude":"139.965006","source_code":"201783314820030001","project_name":"H29\u4e0b\u9928\u7ba1\u5185\u5730\u8cea\u8abf\u67fb\u696d\u52d9","survey_name":"H29\u4e0b\u9928\u7ba1\u5185\u5730\u8cea\u8abf\u67fb\u696d\u52d9","client_name":"\u56fd\u571f\u4ea4\u901a\u7701\u3000\u95a2\u6771\u5730\u65b9\u6574\u5099\u5c40\u3000\u4e0b\u9928\u6cb3\u5ddd\u4e8b\u52d9\u6240","boring_xml_url":64,"boring_view_url":1,"soilmap_view_url":null,"soiltest_xml_url":0,"soiltest_view_url":0},{"id":508350,"code":"B4KJ202201001-0886","latitude":"35.662305","longitude":"138.616696","source_code":"201783656120140012","project_name":"H29\u65b0\u5c71\u68a8\u74b0\u72b6\u9053\u8def\u5730\u8cea\u8abf\u67fb\u696d\u52d9","survey_name":"H29\u65b0\u5c71\u68a8\u74b0\u72b6\u9053\u8def\u5730\u8cea\u8abf\u67fb\u696d\u52d9","client_name":"\u56fd\u571f\u4ea4\u901a\u7701\u95a2\u6771\u5730\u65b9\u6574\u5099\u5c40\u3000\u7532\u5e9c\u6cb3\u5ddd\u56fd\u9053\u4e8b\u52d9\u6240","boring_xml_url":64,"boring_view_url":1,"soilmap_view_url":null,"soiltest_xml_url":0,"soiltest_view_url":0},{"id":508349,"code":"B4KJ202201001-0885","latitude":"35.662305","longitude":"138.616696","source_code":"201783656120140011","project_name":"H29\u65b0\u5c71\u68a8\u74b0\u72b6\u9053\u8def\u5730\u8cea\u8abf\u67fb\u696d\u52d9","survey_name":"H29\u65b0\u5c71\u68a8\u74b0\u72b6\u9053\u8def\u5730\u8cea\u8abf\u67fb\u696d\u52d9","client_name":"\u56fd\u571f\u4ea4\u901a\u7701\u95a2\u6771\u5730\u65b9\u6574\u5099\u5c40\u3000\u7532\u5e9c\u6cb3\u5ddd\u56fd\u9053\u4e8b\u52d9\u6240","boring_xml_url":64,"boring_view_url":1,"soilmap_view_url":null,"soiltest_xml_url":0,"soiltest_view_url":0},{"id":508348,"code":"B4KJ202201001-0884","latitude":"35.66","longitude":"138.61814","source_code":"201783656120140010","project_name":"H29\u65b0\u5c71\u68a8\u74b0\u72b6\u9053\u8def\u5730\u8cea\u8abf\u67fb\u696d\u52d9","survey_name":"H29\u65b0\u5c71\u68a8\u74b0\u72b6\u9053\u8def\u5730\u8cea\u8abf\u67fb\u696d\u52d9","client_name":"\u56fd\u571f\u4ea4\u901a\u7701\u95a2\u6771\u5730\u65b9\u6574\u5099\u5c40\u3000\u7532\u5e9c\u6cb3\u5ddd\u56fd\u9053\u4e8b\u52d9\u6240","boring_xml_url":64,"boring_view_url":1,"soilmap_view_url":null,"soiltest_xml_url":0,"soiltest_view_url":0},{"id":508347,"code":"B4KJ202201001-0883","latitude":"35.66","longitude":"138.61814","source_code":"201783656120140009","project_name":"H29\u65b0\u5c71\u68a8\u74b0\u72b6\u9053\u8def\u5730\u8cea\u8abf\u67fb\u696d\u52d9","survey_name":"H29\u65b0\u5c71\u68a8\u74b0\u72b6\u9053\u8def\u5730\u8cea\u8abf\u67fb\u696d\u52d9","client_name":"\u56fd\u571f\u4ea4\u901a\u7701\u95a2\u6771\u5730\u65b9\u6574\u5099\u5c40\u3000\u7532\u5e9c\u6cb3\u5ddd\u56fd\u9053\u4e8b\u52d9\u6240","boring_xml_url":64,"boring_view_url":1,"soilmap_view_url":null,"soiltest_xml_url":0,"soiltest_view_url":0},{"id":508346,"code":"B4KJ202201001-0882","latitude":"35.657944","longitude":"138.619112","source_code":"201783656120140008","project_name":"H29\u65b0\u5c71\u68a8\u74b0\u72b6\u9053\u8def\u5730\u8cea\u8abf\u67fb\u696d\u52d9","survey_name":"H29\u65b0\u5c71\u68a8\u74b0\u72b6\u9053\u8def\u5730\u8cea\u8abf\u67fb\u696d\u52d9","client_name":"\u56fd\u571f\u4ea4\u901a\u7701\u95a2\u6771\u5730\u65b9\u6574\u5099\u5c40\u3000\u7532\u5e9c\u6cb3\u5ddd\u56fd\u9053\u4e8b\u52d9\u6240","boring_xml_url":64,"boring_view_url":1,"soilmap_view_url":null,"soiltest_xml_url":0,"soiltest_view_url":0},{"id":508345,"code":"B4KJ202201001-0881","latitude":"35.656139","longitude":"138.619307","source_code":"201783656120140007","project_name":"H29\u65b0\u5c71\u68a8\u74b0\u72b6\u9053\u8def\u5730\u8cea\u8abf\u67fb\u696d\u52d9","survey_name":"H29\u65b0\u5c71\u68a8\u74b0\u72b6\u9053\u8def\u5730\u8cea\u8abf\u67fb\u696d\u52d9","client_name":"\u56fd\u571f\u4ea4\u901a\u7701\u95a2\u6771\u5730\u65b9\u6574\u5099\u5c40\u3000\u7532\u5e9c\u6cb3\u5ddd\u56fd\u9053\u4e8b\u52d9\u6240","boring_xml_url":64,"boring_view_url":1,"soilmap_view_url":null,"soiltest_xml_url":0,"soiltest_view_url":0},{"id":508344,"code":"B4KJ202201001-0880","latitude":"35.652278","longitude":"138.619335","source_code":"201783656120140006","project_name":"H29\u65b0\u5c71\u68a8\u74b0\u72b6\u9053\u8def\u5730\u8cea\u8abf\u67fb\u696d\u52d9","survey_name":"H29\u65b0\u5c71\u68a8\u74b0\u72b6\u9053\u8def\u5730\u8cea\u8abf\u67fb\u696d\u52d9","client_name":"\u56fd\u571f\u4ea4\u901a\u7701\u95a2\u6771\u5730\u65b9\u6574\u5099\u5c40\u3000\u7532\u5e9c\u6cb3\u5ddd\u56fd\u9053\u4e8b\u52d9\u6240","boring_xml_url":64,"boring_view_url":1,"soilmap_view_url":null,"soiltest_xml_url":0,"soiltest_view_url":0},{"id":508343,"code":"B4KJ202201001-0879","latitude":"35.652278","longitude":"138.619335","source_code":"201783656120140005","project_name":"H29\u65b0\u5c71\u68a8\u74b0\u72b6\u9053\u8def\u5730\u8cea\u8abf\u67fb\u696d\u52d9","survey_name":"H29\u65b0\u5c71\u68a8\u74b0\u72b6\u9053\u8def\u5730\u8cea\u8abf\u67fb\u696d\u52d9","client_name":"\u56fd\u571f\u4ea4\u901a\u7701\u95a2\u6771\u5730\u65b9\u6574\u5099\u5c40\u3000\u7532\u5e9c\u6cb3\u5ddd\u56fd\u9053\u4e8b\u52d9\u6240","boring_xml_url":64,"boring_view_url":1,"soilmap_view_url":null,"soiltest_xml_url":0,"soiltest_view_url":0},{"id":508342,"code":"B4KJ202201001-0878","latitude":"35.651139","longitude":"138.619279","source_code":"201783656120140004","project_name":"H29\u65b0\u5c71\u68a8\u74b0\u72b6\u9053\u8def\u5730\u8cea\u8abf\u67fb\u696d\u52d9","survey_name":"H29\u65b0\u5c71\u68a8\u74b0\u72b6\u9053\u8def\u5730\u8cea\u8abf\u67fb\u696d\u52d9","client_name":"\u56fd\u571f\u4ea4\u901a\u7701\u95a2\u6771\u5730\u65b9\u6574\u5099\u5c40\u3000\u7532\u5e9c\u6cb3\u5ddd\u56fd\u9053\u4e8b\u52d9\u6240","boring_xml_url":64,"boring_view_url":1,"soilmap_view_url":null,"soiltest_xml_url":0,"soiltest_view_url":0},{"id":508341,"code":"B4KJ202201001-0877","latitude":"35.651139","longitude":"138.619279","source_code":"201783656120140003","project_name":"H29\u65b0\u5c71\u68a8\u74b0\u72b6\u9053\u8def\u5730\u8cea\u8abf\u67fb\u696d\u52d9","survey_name":"H29\u65b0\u5c71\u68a8\u74b0\u72b6\u9053\u8def\u5730\u8cea\u8abf\u67fb\u696d\u52d9","client_name":"\u56fd\u571f\u4ea4\u901a\u7701\u95a2\u6771\u5730\u65b9\u6574\u5099\u5c40\u3000\u7532\u5e9c\u6cb3\u5ddd\u56fd\u9053\u4e8b\u52d9\u6240","boring_xml_url":64,"boring_view_url":1,"soilmap_view_url":null,"soiltest_xml_url":0,"soiltest_view_url":0}]}}