{"header":{"xyz":{"source":[],"mosaic":false},"page":1262,"raw":{"soiltest_result":"0","bbox":"57.598333,109.544722,1.933333,163.806111","page":"1262"},"conditions":{"soiltest_result":0,"north":57.598333,"west":109.544722,"south":1.933333,"east":163.806111},"success":true,"message":""},"data":{"meta":{"total":212844,"page":1262,"pages":7095,"count":30},"values":[{"id":507530,"code":"B4KJ202201001-0066","latitude":"35.955512","longitude":"140.57301","source_code":"201483346020150009","project_name":"","survey_name":"\u6771\u95a2\u9053\u6c34\u6238\u7dda\u5730\u8cea\u8abf\u67fb\u696d\u52d926C15","client_name":"\u56fd\u571f\u4ea4\u901a\u7701\u95a2\u6771\u5730\u65b9\u6574\u5099\u5c40\u5e38\u7dcf\u56fd\u9053\u4e8b\u52d9\u6240","boring_xml_url":64,"boring_view_url":1,"soilmap_view_url":null,"soiltest_xml_url":0,"soiltest_view_url":0},{"id":507529,"code":"B4KJ202201001-0065","latitude":"35.955376","longitude":"140.573284","source_code":"201483346020150008","project_name":"","survey_name":"\u6771\u95a2\u9053\u6c34\u6238\u7dda\u5730\u8cea\u8abf\u67fb\u696d\u52d926C15","client_name":"\u56fd\u571f\u4ea4\u901a\u7701\u95a2\u6771\u5730\u65b9\u6574\u5099\u5c40\u5e38\u7dcf\u56fd\u9053\u4e8b\u52d9\u6240","boring_xml_url":64,"boring_view_url":1,"soilmap_view_url":null,"soiltest_xml_url":0,"soiltest_view_url":0},{"id":507528,"code":"B4KJ202201001-0064","latitude":"35.954855","longitude":"140.573887","source_code":"201483346020150007","project_name":"","survey_name":"\u6771\u95a2\u9053\u6c34\u6238\u7dda\u5730\u8cea\u8abf\u67fb\u696d\u52d926C15","client_name":"\u56fd\u571f\u4ea4\u901a\u7701\u95a2\u6771\u5730\u65b9\u6574\u5099\u5c40\u5e38\u7dcf\u56fd\u9053\u4e8b\u52d9\u6240","boring_xml_url":64,"boring_view_url":1,"soilmap_view_url":null,"soiltest_xml_url":0,"soiltest_view_url":0},{"id":507527,"code":"B4KJ202201001-0063","latitude":"35.954642","longitude":"140.57417","source_code":"201483346020150006","project_name":"","survey_name":"\u6771\u95a2\u9053\u6c34\u6238\u7dda\u5730\u8cea\u8abf\u67fb\u696d\u52d926C15","client_name":"\"\u56fd\u571f\u4ea4\u901a\u7701 \u95a2\u6771\u5730\u65b9\u6574\u5099\u5c40 \u5e38\u7dcf\u56fd\u9053\u4e8b\u52d9\u6240\"","boring_xml_url":64,"boring_view_url":1,"soilmap_view_url":null,"soiltest_xml_url":0,"soiltest_view_url":0},{"id":507526,"code":"B4KJ202201001-0062","latitude":"35.954264","longitude":"140.574818","source_code":"201483346020150005","project_name":"","survey_name":"\u6771\u95a2\u9053\u6c34\u6238\u7dda\u5730\u8cea\u8abf\u67fb\u696d\u52d926C15","client_name":"\u56fd\u571f\u4ea4\u901a\u7701\u95a2\u6771\u5730\u65b9\u6574\u5099\u5c40\u5e38\u7dcf\u56fd\u9053\u4e8b\u52d9\u6240","boring_xml_url":64,"boring_view_url":1,"soilmap_view_url":null,"soiltest_xml_url":0,"soiltest_view_url":0},{"id":507525,"code":"B4KJ202201001-0061","latitude":"35.954082","longitude":"140.575162","source_code":"201483346020150004","project_name":"","survey_name":"\u6771\u95a2\u9053\u6c34\u6238\u7dda\u5730\u8cea\u8abf\u67fb\u696d\u52d926C15","client_name":"\u56fd\u571f\u4ea4\u901a\u7701\u3000\u95a2\u6771\u5730\u65b9\u6574\u5099\u5c40\u3000\u5e38\u7dcf\u56fd\u9053\u4e8b\u52d9\u6240","boring_xml_url":64,"boring_view_url":1,"soilmap_view_url":null,"soiltest_xml_url":0,"soiltest_view_url":0},{"id":507524,"code":"B4KJ202201001-0060","latitude":"35.953663","longitude":"140.576055","source_code":"201483346020150003","project_name":"","survey_name":"\u6771\u95a2\u9053\u6c34\u6238\u7dda\u5730\u8cea\u8abf\u67fb\u696d\u52d926C15","client_name":"\u56fd\u571f\u4ea4\u901a\u7701\u3000\u95a2\u6771\u5730\u65b9\u6574\u5099\u5c40\u3000\u5e38\u7dcf\u56fd\u9053\u4e8b\u52d9\u6240","boring_xml_url":64,"boring_view_url":1,"soilmap_view_url":null,"soiltest_xml_url":0,"soiltest_view_url":0},{"id":507523,"code":"B4KJ202201001-0059","latitude":"35.950845","longitude":"140.590122","source_code":"201483346020150002","project_name":"","survey_name":"\u6771\u95a2\u9053\u6c34\u6238\u7dda\u5730\u8cea\u8abf\u67fb\u696d\u52d926C15","client_name":"\u56fd\u571f\u4ea4\u901a\u7701\u3000\u95a2\u6771\u5730\u65b9\u6574\u5099\u5c40\u3000\u5e38\u7dcf\u56fd\u9053\u4e8b\u52d9\u6240","boring_xml_url":64,"boring_view_url":1,"soilmap_view_url":null,"soiltest_xml_url":0,"soiltest_view_url":0},{"id":507522,"code":"B4KJ202201001-0058","latitude":"35.95041","longitude":"140.591419","source_code":"201483346020150001","project_name":"","survey_name":"\u6771\u95a2\u9053\u6c34\u6238\u7dda\u5730\u8cea\u8abf\u67fb\u696d\u52d926C15","client_name":"\u56fd\u571f\u4ea4\u901a\u7701\u95a2\u6771\u5730\u65b9\u6574\u5099\u5c40\u5e38\u7dcf\u56fd\u9053\u4e8b\u52d9\u6240","boring_xml_url":64,"boring_view_url":1,"soilmap_view_url":null,"soiltest_xml_url":0,"soiltest_view_url":0},{"id":507521,"code":"B4KJ202201001-0057","latitude":"36.631111","longitude":"138.63206","source_code":"201583772020080003","project_name":"","survey_name":"H27\u54c1\u6728\u30c0\u30e0\u6e56\u5cb8\u4f5c\u696d\u30e4\u30fc\u30c9\u691c\u8a0e\u53ca\u3073\u4e88\u5099\u30fb\u8a73\u7d30\u8a2d\u8a08\u696d\u52d9","client_name":"\u56fd\u571f\u4ea4\u901a\u7701\u95a2\u6771\u5730\u65b9\u6574\u5099\u5c40\u3000\u54c1\u6728\u30c0\u30e0\u6c34\u8cea\u7ba1\u7406\u6240","boring_xml_url":64,"boring_view_url":1,"soilmap_view_url":null,"soiltest_xml_url":0,"soiltest_view_url":0},{"id":507520,"code":"B4KJ202201001-0056","latitude":"36.630999","longitude":"138.632477","source_code":"201583772020080002","project_name":"","survey_name":"H27\u54c1\u6728\u30c0\u30e0\u6e56\u5cb8\u4f5c\u696d\u30e4\u30fc\u30c9\u691c\u8a0e\u53ca\u3073\u4e88\u5099\u30fb\u8a73\u7d30\u8a2d\u8a08\u696d\u52d9","client_name":"\u56fd\u571f\u4ea4\u901a\u7701\u95a2\u6771\u5730\u65b9\u6574\u5099\u5c40\u3000\u54c1\u6728\u30c0\u30e0\u6c34\u8cea\u7ba1\u7406\u6240","boring_xml_url":64,"boring_view_url":1,"soilmap_view_url":null,"soiltest_xml_url":0,"soiltest_view_url":0},{"id":507519,"code":"B4KJ202201001-0055","latitude":"36.630999","longitude":"138.632671","source_code":"201583772020080001","project_name":"","survey_name":"H27\u54c1\u6728\u30c0\u30e0\u6e56\u5cb8\u4f5c\u696d\u30e4\u30fc\u30c9\u691c\u8a0e\u53ca\u3073\u4e88\u5099\u30fb\u8a73\u7d30\u8a2d\u8a08\u696d\u52d9","client_name":"\u56fd\u571f\u4ea4\u901a\u7701\u95a2\u6771\u5730\u65b9\u6574\u5099\u5c40\u3000\u54c1\u6728\u30c0\u30e0\u6c34\u8cea\u7ba1\u7406\u6240","boring_xml_url":64,"boring_view_url":1,"soilmap_view_url":null,"soiltest_xml_url":0,"soiltest_view_url":0},{"id":507518,"code":"B4KJ202201001-0054","latitude":"35.783889","longitude":"139.743338","source_code":"201583566620040008","project_name":"","survey_name":"H27\u65b0\u829d\u5ddd\u6392\u6c34\u6a5f\u5834\u4ed6\u5730\u8cea\u8abf\u67fb\u696d\u52d9","client_name":"\u56fd\u571f\u4ea4\u901a\u7701\u95a2\u6771\u5730\u65b9\u6574\u5099\u5c40\u3000\u8352\u5ddd\u4e0b\u6d41\u6cb3\u5ddd\u4e8b\u52d9\u6240","boring_xml_url":64,"boring_view_url":1,"soilmap_view_url":null,"soiltest_xml_url":0,"soiltest_view_url":0},{"id":507517,"code":"B4KJ202201001-0053","latitude":"35.783889","longitude":"139.743338","source_code":"201583566620040007","project_name":"","survey_name":"H27\u65b0\u829d\u5ddd\u6392\u6c34\u6a5f\u5834\u4ed6\u5730\u8cea\u8abf\u67fb\u696d\u52d9","client_name":"\u56fd\u571f\u4ea4\u901a\u7701\u95a2\u6771\u5730\u65b9\u6574\u5099\u5c40\u3000\u8352\u5ddd\u4e0b\u6d41\u6cb3\u5ddd\u4e8b\u52d9\u6240","boring_xml_url":64,"boring_view_url":1,"soilmap_view_url":null,"soiltest_xml_url":0,"soiltest_view_url":0},{"id":507516,"code":"B4KJ202201001-0052","latitude":"35.783611","longitude":"139.743893","source_code":"201583566620040006","project_name":"","survey_name":"H27\u65b0\u829d\u5ddd\u6392\u6c34\u6a5f\u5834\u4ed6\u5730\u8cea\u8abf\u67fb\u696d\u52d9","client_name":"\u56fd\u571f\u4ea4\u901a\u7701\u95a2\u6771\u5730\u65b9\u6574\u5099\u5c40\u3000\u8352\u5ddd\u4e0b\u6d41\u6cb3\u5ddd\u4e8b\u52d9\u6240","boring_xml_url":64,"boring_view_url":1,"soilmap_view_url":null,"soiltest_xml_url":0,"soiltest_view_url":0},{"id":507515,"code":"B4KJ202201001-0051","latitude":"35.783611","longitude":"139.743893","source_code":"201583566620040005","project_name":"","survey_name":"H27\u65b0\u829d\u5ddd\u6392\u6c34\u6a5f\u5834\u4ed6\u5730\u8cea\u8abf\u67fb\u696d\u52d9","client_name":"\u56fd\u571f\u4ea4\u901a\u7701\u95a2\u6771\u5730\u65b9\u6574\u5099\u5c40\u3000\u8352\u5ddd\u4e0b\u6d41\u6cb3\u5ddd\u4e8b\u52d9\u6240","boring_xml_url":64,"boring_view_url":1,"soilmap_view_url":null,"soiltest_xml_url":0,"soiltest_view_url":0},{"id":507514,"code":"B4KJ202201001-0050","latitude":"35.783333","longitude":"139.743893","source_code":"201583566620040004","project_name":"","survey_name":"H27\u65b0\u829d\u5ddd\u6392\u6c34\u6a5f\u5834\u4ed6\u5730\u8cea\u8abf\u67fb\u696d\u52d9","client_name":"\u56fd\u571f\u4ea4\u901a\u7701\u95a2\u6771\u5730\u65b9\u6574\u5099\u5c40\u3000\u8352\u5ddd\u4e0b\u6d41\u6cb3\u5ddd\u4e8b\u52d9\u6240","boring_xml_url":64,"boring_view_url":1,"soilmap_view_url":null,"soiltest_xml_url":0,"soiltest_view_url":0},{"id":507513,"code":"B4KJ202201001-0049","latitude":"35.783333","longitude":"139.743893","source_code":"201583566620040003","project_name":"","survey_name":"H27\u65b0\u829d\u5ddd\u6392\u6c34\u6a5f\u5834\u4ed6\u5730\u8cea\u8abf\u67fb\u696d\u52d9","client_name":"\u56fd\u571f\u4ea4\u901a\u7701\u95a2\u6771\u5730\u65b9\u6574\u5099\u5c40\u3000\u8352\u5ddd\u4e0b\u6d41\u6cb3\u5ddd\u4e8b\u52d9\u6240","boring_xml_url":64,"boring_view_url":1,"soilmap_view_url":null,"soiltest_xml_url":0,"soiltest_view_url":0},{"id":507512,"code":"B4KJ202201001-0048","latitude":"35.783333","longitude":"139.74306","source_code":"201583566620040002","project_name":"","survey_name":"H27\u65b0\u829d\u5ddd\u6392\u6c34\u6a5f\u5834\u4ed6\u5730\u8cea\u8abf\u67fb\u696d\u52d9","client_name":"\u56fd\u571f\u4ea4\u901a\u7701\u95a2\u6771\u5730\u65b9\u6574\u5099\u5c40\u3000\u8352\u5ddd\u4e0b\u6d41\u6cb3\u5ddd\u4e8b\u52d9\u6240","boring_xml_url":64,"boring_view_url":1,"soilmap_view_url":null,"soiltest_xml_url":0,"soiltest_view_url":0},{"id":507511,"code":"B4KJ202201001-0047","latitude":"35.783333","longitude":"139.74306","source_code":"201583566620040001","project_name":"","survey_name":"H27\u65b0\u829d\u5ddd\u6392\u6c34\u6a5f\u5834\u4ed6\u5730\u8cea\u8abf\u67fb\u696d\u52d9","client_name":"\u56fd\u571f\u4ea4\u901a\u7701\u95a2\u6771\u5730\u65b9\u6574\u5099\u5c40\u3000\u8352\u5ddd\u4e0b\u6d41\u6cb3\u5ddd\u4e8b\u52d9\u6240","boring_xml_url":64,"boring_view_url":1,"soilmap_view_url":null,"soiltest_xml_url":0,"soiltest_view_url":0},{"id":507510,"code":"B4KJ202201001-0046","latitude":"35.669961","longitude":"139.843368","source_code":"201583566020120015","project_name":"H27\u8352\u5ddd\u4e0b\u6d41\u90e8\u5730\u8cea\u8abf\u67fb\u696d\u52d9","survey_name":"H27\u8352\u5ddd\u4e0b\u6d41\u90e8\u5730\u8cea\u8abf\u67fb\u696d\u52d9","client_name":"\u56fd\u571f\u4ea4\u901a\u7701\u95a2\u6771\u5730\u65b9\u6574\u5099\u5c40\u8352\u5ddd\u4e0b\u6d41\u6cb3\u5ddd\u4e8b\u52d9\u6240","boring_xml_url":64,"boring_view_url":1,"soilmap_view_url":null,"soiltest_xml_url":0,"soiltest_view_url":0},{"id":507509,"code":"B4KJ202201001-0045","latitude":"35.677244","longitude":"139.850901","source_code":"201583566020120014","project_name":"H27\u8352\u5ddd\u4e0b\u6d41\u90e8\u5730\u8cea\u8abf\u67fb\u696d\u52d9","survey_name":"H27\u8352\u5ddd\u4e0b\u6d41\u90e8\u5730\u8cea\u8abf\u67fb\u696d\u52d9","client_name":"\u56fd\u571f\u4ea4\u901a\u7701\u95a2\u6771\u5730\u65b9\u6574\u5099\u5c40\u8352\u5ddd\u4e0b\u6d41\u6cb3\u5ddd\u4e8b\u52d9\u6240","boring_xml_url":64,"boring_view_url":1,"soilmap_view_url":null,"soiltest_xml_url":0,"soiltest_view_url":0},{"id":507508,"code":"B4KJ202201001-0044","latitude":"35.677228","longitude":"139.85094","source_code":"201583566020120013","project_name":"H27\u8352\u5ddd\u4e0b\u6d41\u90e8\u5730\u8cea\u8abf\u67fb\u696d\u52d9","survey_name":"H27\u8352\u5ddd\u4e0b\u6d41\u90e8\u5730\u8cea\u8abf\u67fb\u696d\u52d9","client_name":"\u56fd\u571f\u4ea4\u901a\u7701\u95a2\u6771\u5730\u65b9\u6574\u5099\u5c40\u8352\u5ddd\u4e0b\u6d41\u6cb3\u5ddd\u4e8b\u52d9\u6240","boring_xml_url":64,"boring_view_url":1,"soilmap_view_url":null,"soiltest_xml_url":0,"soiltest_view_url":0},{"id":507507,"code":"B4KJ202201001-0043","latitude":"35.673083","longitude":"139.850073","source_code":"201583566020120012","project_name":"H27\u8352\u5ddd\u4e0b\u6d41\u90e8\u5730\u8cea\u8abf\u67fb\u696d\u52d9","survey_name":"H27\u8352\u5ddd\u4e0b\u6d41\u90e8\u5730\u8cea\u8abf\u67fb\u696d\u52d9","client_name":"\u56fd\u571f\u4ea4\u901a\u7701\u95a2\u6771\u5730\u65b9\u6574\u5099\u5c40\u8352\u5ddd\u4e0b\u6d41\u6cb3\u5ddd\u4e8b\u52d9\u6240","boring_xml_url":64,"boring_view_url":1,"soilmap_view_url":null,"soiltest_xml_url":0,"soiltest_view_url":0},{"id":507506,"code":"B4KJ202201001-0042","latitude":"35.673086","longitude":"139.850112","source_code":"201583566020120011","project_name":"H27\u8352\u5ddd\u4e0b\u6d41\u90e8\u5730\u8cea\u8abf\u67fb\u696d\u52d9","survey_name":"H27\u8352\u5ddd\u4e0b\u6d41\u90e8\u5730\u8cea\u8abf\u67fb\u696d\u52d9","client_name":"\u56fd\u571f\u4ea4\u901a\u7701\u95a2\u6771\u5730\u65b9\u6574\u5099\u5c40\u8352\u5ddd\u4e0b\u6d41\u6cb3\u5ddd\u4e8b\u52d9\u6240","boring_xml_url":64,"boring_view_url":1,"soilmap_view_url":null,"soiltest_xml_url":0,"soiltest_view_url":0},{"id":507505,"code":"B4KJ202201001-0041","latitude":"35.674066","longitude":"139.850148","source_code":"201583566020120010","project_name":"H27\u8352\u5ddd\u4e0b\u6d41\u90e8\u5730\u8cea\u8abf\u67fb\u696d\u52d9","survey_name":"H27\u8352\u5ddd\u4e0b\u6d41\u90e8\u5730\u8cea\u8abf\u67fb\u696d\u52d9","client_name":"\u56fd\u571f\u4ea4\u901a\u7701\u95a2\u6771\u5730\u65b9\u6574\u5099\u5c40\u8352\u5ddd\u4e0b\u6d41\u6cb3\u5ddd\u4e8b\u52d9\u6240","boring_xml_url":64,"boring_view_url":1,"soilmap_view_url":null,"soiltest_xml_url":0,"soiltest_view_url":0},{"id":507504,"code":"B4KJ202201001-0040","latitude":"35.674066","longitude":"139.850179","source_code":"201583566020120009","project_name":"H27\u8352\u5ddd\u4e0b\u6d41\u90e8\u5730\u8cea\u8abf\u67fb\u696d\u52d9","survey_name":"H27\u8352\u5ddd\u4e0b\u6d41\u90e8\u5730\u8cea\u8abf\u67fb\u696d\u52d9","client_name":"\u56fd\u571f\u4ea4\u901a\u7701\u95a2\u6771\u5730\u65b9\u6574\u5099\u5c40\u8352\u5ddd\u4e0b\u6d41\u6cb3\u5ddd\u4e8b\u52d9\u6240","boring_xml_url":64,"boring_view_url":1,"soilmap_view_url":null,"soiltest_xml_url":0,"soiltest_view_url":0},{"id":507503,"code":"B4KJ202201001-0039","latitude":"35.670922","longitude":"139.849946","source_code":"201583566020120008","project_name":"H27\u8352\u5ddd\u4e0b\u6d41\u90e8\u5730\u8cea\u8abf\u67fb\u696d\u52d9","survey_name":"H27\u8352\u5ddd\u4e0b\u6d41\u90e8\u5730\u8cea\u8abf\u67fb\u696d\u52d9","client_name":"\u56fd\u571f\u4ea4\u901a\u7701\u95a2\u6771\u5730\u65b9\u6574\u5099\u5c40\u8352\u5ddd\u4e0b\u6d41\u6cb3\u5ddd\u4e8b\u52d9\u6240","boring_xml_url":64,"boring_view_url":1,"soilmap_view_url":null,"soiltest_xml_url":0,"soiltest_view_url":0},{"id":507502,"code":"B4KJ202201001-0038","latitude":"35.669378","longitude":"139.849832","source_code":"201583566020120007","project_name":"H27\u8352\u5ddd\u4e0b\u6d41\u90e8\u5730\u8cea\u8abf\u67fb\u696d\u52d9","survey_name":"H27\u8352\u5ddd\u4e0b\u6d41\u90e8\u5730\u8cea\u8abf\u67fb\u696d\u52d9","client_name":"\u56fd\u571f\u4ea4\u901a\u7701\u95a2\u6771\u5730\u65b9\u6574\u5099\u5c40\u8352\u5ddd\u4e0b\u6d41\u6cb3\u5ddd\u4e8b\u52d9\u6240","boring_xml_url":64,"boring_view_url":1,"soilmap_view_url":null,"soiltest_xml_url":0,"soiltest_view_url":0},{"id":507501,"code":"B4KJ202201001-0037","latitude":"35.668136","longitude":"139.849765","source_code":"201583566020120006","project_name":"H27\u8352\u5ddd\u4e0b\u6d41\u90e8\u5730\u8cea\u8abf\u67fb\u696d\u52d9","survey_name":"H27\u8352\u5ddd\u4e0b\u6d41\u90e8\u5730\u8cea\u8abf\u67fb\u696d\u52d9","client_name":"\u56fd\u571f\u4ea4\u901a\u7701\u95a2\u6771\u5730\u65b9\u6574\u5099\u5c40\u8352\u5ddd\u4e0b\u6d41\u6cb3\u5ddd\u4e8b\u52d9\u6240","boring_xml_url":64,"boring_view_url":1,"soilmap_view_url":null,"soiltest_xml_url":0,"soiltest_view_url":0}]}}