{"header":{"xyz":{"source":[],"mosaic":false},"page":1270,"raw":{"soiltest_result":"0","bbox":"57.598333,109.544722,1.933333,163.806111","page":"1270"},"conditions":{"soiltest_result":0,"north":57.598333,"west":109.544722,"south":1.933333,"east":163.806111},"success":true,"message":""},"data":{"meta":{"total":212844,"page":1270,"pages":7095,"count":30},"values":[{"id":507290,"code":"B4KJ202201000-9826","latitude":"35.690489","longitude":"140.452833","source_code":"201483536120110011","project_name":"","survey_name":"\u570f\u592e\u9053\u5927\u6804\u6a2a\u829d\u5730\u8cea\u8abf\u67fb\u696d\u52d926G10","client_name":"\u56fd\u571f\u4ea4\u901a\u7701\u95a2\u6771\u5730\u65b9\u6574\u5099\u5c40\u5343\u8449\u56fd\u9053\u4e8b\u52d9\u6240","boring_xml_url":64,"boring_view_url":1,"soilmap_view_url":null,"soiltest_xml_url":0,"soiltest_view_url":0},{"id":507289,"code":"B4KJ202201000-9825","latitude":"35.696484","longitude":"140.453182","source_code":"201483536120110010","project_name":"","survey_name":"\u570f\u592e\u9053\u5927\u6804\u6a2a\u829d\u5730\u8cea\u8abf\u67fb\u696d\u52d926G10","client_name":"\u56fd\u571f\u4ea4\u901a\u7701\u95a2\u6771\u5730\u65b9\u6574\u5099\u5c40\u5343\u8449\u56fd\u9053\u4e8b\u52d9\u6240","boring_xml_url":64,"boring_view_url":1,"soilmap_view_url":null,"soiltest_xml_url":0,"soiltest_view_url":0},{"id":507288,"code":"B4KJ202201000-9824","latitude":"35.698057","longitude":"140.452944","source_code":"201483536120110009","project_name":"","survey_name":"\u570f\u592e\u9053\u5927\u6804\u6a2a\u829d\u5730\u8cea\u8abf\u67fb\u696d\u52d926G10","client_name":"\u56fd\u571f\u4ea4\u901a\u7701\u95a2\u6771\u5730\u65b9\u6574\u5099\u5c40\u5343\u8449\u56fd\u9053\u4e8b\u52d9\u6240","boring_xml_url":64,"boring_view_url":1,"soilmap_view_url":null,"soiltest_xml_url":0,"soiltest_view_url":0},{"id":507287,"code":"B4KJ202201000-9823","latitude":"35.79736","longitude":"140.40499","source_code":"201483536120110008","project_name":"","survey_name":"\u570f\u592e\u9053\u5927\u6804\u6a2a\u829d\u5730\u8cea\u8abf\u67fb\u696d\u52d926G10","client_name":"\u56fd\u571f\u4ea4\u901a\u7701\u95a2\u6771\u5730\u65b9\u6574\u5099\u5c40\u5343\u8449\u56fd\u9053\u4e8b\u52d9\u6240","boring_xml_url":64,"boring_view_url":1,"soilmap_view_url":null,"soiltest_xml_url":0,"soiltest_view_url":0},{"id":507286,"code":"B4KJ202201000-9822","latitude":"35.738583","longitude":"140.436147","source_code":"201483536120110007","project_name":"","survey_name":"\u570f\u592e\u9053\u5927\u6804\u6a2a\u829d\u5730\u8cea\u8abf\u67fb\u696d\u52d926G10","client_name":"\u56fd\u571f\u4ea4\u901a\u7701\u95a2\u6771\u5730\u65b9\u6574\u5099\u5c40\u5343\u8449\u56fd\u9053\u4e8b\u52d9\u6240","boring_xml_url":64,"boring_view_url":1,"soilmap_view_url":null,"soiltest_xml_url":0,"soiltest_view_url":0},{"id":507285,"code":"B4KJ202201000-9821","latitude":"35.743461","longitude":"140.433065","source_code":"201483536120110006","project_name":"","survey_name":"\u570f\u592e\u9053\u5927\u6804\u6a2a\u829d\u5730\u8cea\u8abf\u67fb\u696d\u52d926G10","client_name":"\u56fd\u571f\u4ea4\u901a\u7701\u95a2\u6771\u5730\u65b9\u6574\u5099\u5c40\u5343\u8449\u56fd\u9053\u4e8b\u52d9\u6240","boring_xml_url":64,"boring_view_url":1,"soilmap_view_url":null,"soiltest_xml_url":0,"soiltest_view_url":0},{"id":507284,"code":"B4KJ202201000-9820","latitude":"35.747166","longitude":"140.430874","source_code":"201483536120110005","project_name":"","survey_name":"\u570f\u592e\u9053\u5927\u6804\u6a2a\u829d\u5730\u8cea\u8abf\u67fb\u696d\u52d926G10","client_name":"\u56fd\u571f\u4ea4\u901a\u7701\u95a2\u6771\u5730\u65b9\u6574\u5099\u5c40\u5343\u8449\u56fd\u9053\u4e8b\u52d9\u6240","boring_xml_url":64,"boring_view_url":1,"soilmap_view_url":null,"soiltest_xml_url":0,"soiltest_view_url":0},{"id":507283,"code":"B4KJ202201000-9819","latitude":"35.747341","longitude":"140.431052","source_code":"201483536120110004","project_name":"","survey_name":"\u570f\u592e\u9053\u5927\u6804\u6a2a\u829d\u5730\u8cea\u8abf\u67fb\u696d\u52d926G10","client_name":"\u56fd\u571f\u4ea4\u901a\u7701\u95a2\u6771\u5730\u65b9\u6574\u5099\u5c40\u5343\u8449\u56fd\u9053\u4e8b\u52d9\u6240","boring_xml_url":64,"boring_view_url":1,"soilmap_view_url":null,"soiltest_xml_url":0,"soiltest_view_url":0},{"id":507282,"code":"B4KJ202201000-9818","latitude":"35.770418","longitude":"140.423747","source_code":"201483536120110003","project_name":"","survey_name":"\u570f\u592e\u9053\u5927\u6804\u6a2a\u829d\u5730\u8cea\u8abf\u67fb\u696d\u52d926G10","client_name":"\u56fd\u571f\u4ea4\u901a\u7701\u95a2\u6771\u5730\u65b9\u6574\u5099\u5c40\u5343\u8449\u56fd\u9053\u4e8b\u52d9\u6240","boring_xml_url":64,"boring_view_url":1,"soilmap_view_url":null,"soiltest_xml_url":0,"soiltest_view_url":0},{"id":507281,"code":"B4KJ202201000-9817","latitude":"35.770553","longitude":"140.423632","source_code":"201483536120110002","project_name":"","survey_name":"\u570f\u592e\u9053\u5927\u6804\u6a2a\u829d\u5730\u8cea\u8abf\u67fb\u696d\u52d926G10","client_name":"\u56fd\u571f\u4ea4\u901a\u7701\u95a2\u6771\u5730\u65b9\u6574\u5099\u5c40\u5343\u8449\u56fd\u9053\u4e8b\u52d9\u6240","boring_xml_url":64,"boring_view_url":1,"soilmap_view_url":null,"soiltest_xml_url":0,"soiltest_view_url":0},{"id":507280,"code":"B4KJ202201000-9816","latitude":"35.786247","longitude":"140.412153","source_code":"201483536120110001","project_name":"","survey_name":"\u570f\u592e\u9053\u5927\u6804\u6a2a\u829d\u5730\u8cea\u8abf\u67fb\u696d\u52d926G10","client_name":"\u56fd\u571f\u4ea4\u901a\u7701\u95a2\u6771\u5730\u65b9\u6574\u5099\u5c40\u5343\u8449\u56fd\u9053\u4e8b\u52d9\u6240","boring_xml_url":64,"boring_view_url":1,"soilmap_view_url":null,"soiltest_xml_url":0,"soiltest_view_url":0},{"id":507279,"code":"B4KJ202201000-9815","latitude":"35.738693","longitude":"140.437473","source_code":"201483536120040003","project_name":"2\u5de5\u533a\u89b3\u6e2c\u4e95\u8a2d\u7f6e","survey_name":"\u570f\u592e\u9053\u6c34\u6587\u4ed6\u8abf\u67fb\u691c\u8a0e\u696d\u52d926G4","client_name":"\"\u56fd\u9053\u4ea4\u901a\u7701 \u95a2\u6771\u5730\u65b9\u6574\u5099\u5c40 \u5343\u8449\u56fd\u9053\u4e8b\u52d9\u6240\"","boring_xml_url":64,"boring_view_url":1,"soilmap_view_url":null,"soiltest_xml_url":0,"soiltest_view_url":0},{"id":507278,"code":"B4KJ202201000-9814","latitude":"35.743299","longitude":"140.432164","source_code":"201483536120040002","project_name":"2\u5de5\u533a\u89b3\u6e2c\u4e95\u8a2d\u7f6e","survey_name":"\u570f\u592e\u9053\u6c34\u6587\u4ed6\u8abf\u67fb\u691c\u8a0e\u696d\u52d926G4","client_name":"\"\u56fd\u9053\u4ea4\u901a\u7701 \u95a2\u6771\u5730\u65b9\u6574\u5099\u5c40 \u5343\u8449\u56fd\u9053\u4e8b\u52d9\u6240\"","boring_xml_url":64,"boring_view_url":1,"soilmap_view_url":null,"soiltest_xml_url":0,"soiltest_view_url":0},{"id":507277,"code":"B4KJ202201000-9813","latitude":"35.21592","longitude":"140.122318","source_code":"201483536120040001","project_name":"\u7b20\u68ee\u30c8\u30f3\u30cd\u30ebC\u30d6\u30ed\u30c3\u30af\u89b3\u6e2c\u4e95\u8a2d\u7f6e","survey_name":"\u570f\u592e\u9053\u6c34\u6587\u4ed6\u8abf\u67fb\u691c\u8a0e\u696d\u52d926G4","client_name":"\"\u56fd\u9053\u4ea4\u901a\u7701 \u95a2\u6771\u5730\u65b9\u6574\u5099\u5c40 \u5343\u8449\u56fd\u9053\u4e8b\u52d9\u6240\"","boring_xml_url":64,"boring_view_url":1,"soilmap_view_url":null,"soiltest_xml_url":0,"soiltest_view_url":0},{"id":507276,"code":"B4KJ202201000-9812","latitude":"35.254173","longitude":"139.88444","source_code":"201483535120110007","project_name":"","survey_name":"\u7ba1\u5185\u9053\u8def\u9632\u707d\u70b9\u691c\u30fb\u8a2d\u8a08\u696d\u52d926M9","client_name":"\u56fd\u571f\u4ea4\u901a\u7701\u3000\u95a2\u6771\u5730\u65b9\u6574\u5099\u5c40\u3000\u5343\u8449\u56fd\u9053\u4e8b\u52d9\u6240","boring_xml_url":64,"boring_view_url":1,"soilmap_view_url":null,"soiltest_xml_url":0,"soiltest_view_url":0},{"id":507275,"code":"B4KJ202201000-9811","latitude":"35.254129","longitude":"139.884512","source_code":"201483535120110006","project_name":"","survey_name":"\u7ba1\u5185\u9053\u8def\u9632\u707d\u70b9\u691c\u30fb\u8a2d\u8a08\u696d\u52d926M9","client_name":"\u56fd\u571f\u4ea4\u901a\u7701\u3000\u95a2\u6771\u5730\u65b9\u6574\u5099\u5c40\u3000\u5343\u8449\u56fd\u9053\u4e8b\u52d9\u6240","boring_xml_url":64,"boring_view_url":1,"soilmap_view_url":null,"soiltest_xml_url":0,"soiltest_view_url":0},{"id":507274,"code":"B4KJ202201000-9810","latitude":"35.197659","longitude":"139.826736","source_code":"201483535120110005","project_name":"","survey_name":"\u7ba1\u5185\u9053\u8def\u9632\u707d\u70b9\u691c\u30fb\u8a2d\u8a08\u696d\u52d926M9","client_name":"\u56fd\u571f\u4ea4\u901a\u7701\u3000\u95a2\u6771\u5730\u65b9\u6574\u5099\u5c40\u3000\u5343\u8449\u56fd\u9053\u4e8b\u52d9\u6240","boring_xml_url":64,"boring_view_url":1,"soilmap_view_url":null,"soiltest_xml_url":0,"soiltest_view_url":0},{"id":507273,"code":"B4KJ202201000-9809","latitude":"35.776305","longitude":"139.905474","source_code":"201483535120110004","project_name":"","survey_name":"\u7ba1\u5185\u9053\u8def\u9632\u707d\u70b9\u691c\u30fb\u8a2d\u8a08\u696d\u52d926M9","client_name":"\u56fd\u571f\u4ea4\u901a\u7701\u3000\u95a2\u6771\u5730\u65b9\u6574\u5099\u5c40\u3000\u5343\u8449\u56fd\u9053\u4e8b\u52d9\u6240","boring_xml_url":64,"boring_view_url":1,"soilmap_view_url":null,"soiltest_xml_url":0,"soiltest_view_url":0},{"id":507272,"code":"B4KJ202201000-9808","latitude":"35.776194","longitude":"139.905216","source_code":"201483535120110003","project_name":"","survey_name":"\u7ba1\u5185\u9053\u8def\u9632\u707d\u70b9\u691c\u30fb\u8a2d\u8a08\u696d\u52d926M9","client_name":"\u56fd\u571f\u4ea4\u901a\u7701\u3000\u95a2\u6771\u5730\u65b9\u6574\u5099\u5c40\u3000\u5343\u8449\u56fd\u9053\u4e8b\u52d9\u6240","boring_xml_url":64,"boring_view_url":1,"soilmap_view_url":null,"soiltest_xml_url":0,"soiltest_view_url":0},{"id":507271,"code":"B4KJ202201000-9807","latitude":"35.776052","longitude":"139.904905","source_code":"201483535120110002","project_name":"","survey_name":"\u7ba1\u5185\u9053\u8def\u9632\u707d\u70b9\u691c\u30fb\u8a2d\u8a08\u696d\u52d926M9","client_name":"\u56fd\u571f\u4ea4\u901a\u7701\u3000\u95a2\u6771\u5730\u65b9\u6574\u5099\u5c40\u3000\u5343\u8449\u56fd\u9053\u4e8b\u52d9\u6240","boring_xml_url":64,"boring_view_url":1,"soilmap_view_url":null,"soiltest_xml_url":0,"soiltest_view_url":0},{"id":507270,"code":"B4KJ202201000-9806","latitude":"35.872149","longitude":"139.972947","source_code":"201483535120110001","project_name":"","survey_name":"\u7ba1\u5185\u9053\u8def\u9632\u707d\u70b9\u691c\u30fb\u8a2d\u8a08\u696d\u52d926M9","client_name":"\u56fd\u571f\u4ea4\u901a\u7701\u3000\u95a2\u6771\u5730\u65b9\u6574\u5099\u5c40\u3000\u5343\u8449\u56fd\u9053\u4e8b\u52d9\u6240","boring_xml_url":64,"boring_view_url":1,"soilmap_view_url":null,"soiltest_xml_url":0,"soiltest_view_url":0},{"id":507269,"code":"B4KJ202201000-9805","latitude":"36.050527","longitude":"140.169474","source_code":"201483344820120005","project_name":"","survey_name":"\u725b\u4e45\u571f\u6d66BP\u5730\u8cea\u8abf\u67fb\u696d\u52d926K9","client_name":"\"\u56fd\u571f\u4ea4\u901a\u7701 \u95a2\u6771\u5730\u65b9\u6574\u5099\u5c40\u3000\u5e38\u7dcf\u56fd\u9053\u4e8b\u52d9\u6240\"","boring_xml_url":64,"boring_view_url":1,"soilmap_view_url":null,"soiltest_xml_url":0,"soiltest_view_url":0},{"id":507268,"code":"B4KJ202201000-9804","latitude":"36.049099","longitude":"140.163491","source_code":"201483344820120004","project_name":"","survey_name":"\u725b\u4e45\u571f\u6d66BP\u5730\u8cea\u8abf\u67fb\u696d\u52d926K9","client_name":"\"\u56fd\u571f\u4ea4\u901a\u7701 \u95a2\u6771\u5730\u65b9\u6574\u5099\u5c40\u3000\u5e38\u7dcf\u56fd\u9053\u4e8b\u52d9\u6240\"","boring_xml_url":64,"boring_view_url":1,"soilmap_view_url":null,"soiltest_xml_url":0,"soiltest_view_url":0},{"id":507267,"code":"B4KJ202201000-9803","latitude":"36.044288","longitude":"140.154946","source_code":"201483344820120003","project_name":"","survey_name":"\u725b\u4e45\u571f\u6d66BP\u5730\u8cea\u8abf\u67fb\u696d\u52d926K9","client_name":"\"\u56fd\u571f\u4ea4\u901a\u7701 \u95a2\u6771\u5730\u65b9\u6574\u5099\u5c40\u3000\u5e38\u7dcf\u56fd\u9053\u4e8b\u52d9\u6240\"","boring_xml_url":64,"boring_view_url":1,"soilmap_view_url":null,"soiltest_xml_url":0,"soiltest_view_url":0},{"id":507266,"code":"B4KJ202201000-9802","latitude":"36.015969","longitude":"140.126393","source_code":"201483344820120002","project_name":"","survey_name":"\u725b\u4e45\u571f\u6d66BP\u5730\u8cea\u8abf\u67fb\u696d\u52d926K9","client_name":"\"\u56fd\u571f\u4ea4\u901a\u7701 \u95a2\u6771\u5730\u65b9\u6574\u5099\u5c40\u3000\u5e38\u7dcf\u56fd\u9053\u4e8b\u52d9\u6240\"","boring_xml_url":64,"boring_view_url":1,"soilmap_view_url":null,"soiltest_xml_url":0,"soiltest_view_url":0},{"id":507265,"code":"B4KJ202201000-9801","latitude":"36.011055","longitude":"140.121107","source_code":"201483344820120001","project_name":"","survey_name":"\u725b\u4e45\u571f\u6d66BP\u5730\u8cea\u8abf\u67fb\u696d\u52d926K9","client_name":"\"\u56fd\u571f\u4ea4\u901a\u7701 \u95a2\u6771\u5730\u65b9\u6574\u5099\u5c40\u3000\u5e38\u7dcf\u56fd\u9053\u4e8b\u52d9\u6240\"","boring_xml_url":64,"boring_view_url":1,"soilmap_view_url":null,"soiltest_xml_url":0,"soiltest_view_url":0},{"id":507264,"code":"B4KJ202201000-9800","latitude":"36.082777","longitude":"139.907784","source_code":"201483344820030003","project_name":"","survey_name":"\u570f\u592e\u9053(\u5742\u6771\uff5e\u5e38\u7dcf)\u9053\u8def\u4fee\u6b63\u8a2d\u8a08\u4ed6\u696d\u52d926K3","client_name":"\u56fd\u571f\u4ea4\u901a\u7701\u3000\u95a2\u6771\u5730\u65b9\u6574\u5099\u5c40\u3000\u5e38\u7dcf\u56fd\u9053\u4e8b\u52d9\u6240","boring_xml_url":64,"boring_view_url":1,"soilmap_view_url":null,"soiltest_xml_url":0,"soiltest_view_url":0},{"id":507263,"code":"B4KJ202201000-9799","latitude":"36.083333","longitude":"139.907229","source_code":"201483344820030002","project_name":"","survey_name":"\u570f\u592e\u9053(\u5742\u6771\uff5e\u5e38\u7dcf)\u9053\u8def\u4fee\u6b63\u8a2d\u8a08\u4ed6\u696d\u52d926K3","client_name":"\u56fd\u571f\u4ea4\u901a\u7701\u3000\u95a2\u6771\u5730\u65b9\u6574\u5099\u5c40\u3000\u5e38\u7dcf\u56fd\u9053\u4e8b\u52d9\u6240","boring_xml_url":64,"boring_view_url":1,"soilmap_view_url":null,"soiltest_xml_url":0,"soiltest_view_url":0},{"id":507262,"code":"B4KJ202201000-9798","latitude":"36.08361","longitude":"139.905562","source_code":"201483344820030001","project_name":"","survey_name":"\u570f\u592e\u9053(\u5742\u6771\uff5e\u5e38\u7dcf)\u9053\u8def\u4fee\u6b63\u8a2d\u8a08\u4ed6\u696d\u52d926K3","client_name":"\u56fd\u571f\u4ea4\u901a\u7701\u3000\u95a2\u6771\u5730\u65b9\u6574\u5099\u5c40\u3000\u5e38\u7dcf\u56fd\u9053\u4e8b\u52d9\u6240","boring_xml_url":64,"boring_view_url":1,"soilmap_view_url":null,"soiltest_xml_url":0,"soiltest_view_url":0},{"id":507261,"code":"B4KJ202201000-9797","latitude":"36.629671","longitude":"138.634455","source_code":"201483772020150008","project_name":"","survey_name":"H26\u54c1\u6728\u30c0\u30e0\u5165\u5c71\u5730\u533a\u5730\u8cea\u8abf\u67fb\u696d\u52d9","client_name":"\u56fd\u571f\u4ea4\u901a\u7701\u95a2\u6771\u5730\u65b9\u6574\u5099\u5c40\u54c1\u6728\u30c0\u30e0\u6c34\u8cea\u7ba1\u7406\u6240","boring_xml_url":64,"boring_view_url":1,"soilmap_view_url":null,"soiltest_xml_url":0,"soiltest_view_url":0}]}}