{"header":{"xyz":{"source":[],"mosaic":false},"page":1283,"raw":{"soiltest_result":"0","bbox":"57.598333,109.544722,1.933333,163.806111","page":"1283"},"conditions":{"soiltest_result":0,"north":57.598333,"west":109.544722,"south":1.933333,"east":163.806111},"success":true,"message":""},"data":{"meta":{"total":212844,"page":1283,"pages":7095,"count":30},"values":[{"id":506900,"code":"B4KJ202201000-9436","latitude":"35.794857","longitude":"140.407707","source_code":"201383536120070023","project_name":"-","survey_name":"\u570f\u592e\u9053\u5927\u6804\u6a2a\u829d\u5730\u8cea\u8abf\u67fb\u696d\u52d925G6","client_name":"\u56fd\u571f\u4ea4\u901a\u7701\u3000\u95a2\u6771\u5730\u65b9\u6574\u5099\u5c40\u3000\u5343\u8449\u56fd\u9053\u4e8b\u52d9\u6240","boring_xml_url":64,"boring_view_url":1,"soilmap_view_url":null,"soiltest_xml_url":0,"soiltest_view_url":0},{"id":506899,"code":"B4KJ202201000-9435","latitude":"35.799307","longitude":"140.402932","source_code":"201383536120070022","project_name":"-","survey_name":"\u570f\u592e\u9053\u5927\u6804\u6a2a\u829d\u5730\u8cea\u8abf\u67fb\u696d\u52d925G6","client_name":"\u56fd\u571f\u4ea4\u901a\u7701\u3000\u95a2\u6771\u5730\u65b9\u6574\u5099\u5c40\u3000\u5343\u8449\u56fd\u9053\u4e8b\u52d9\u6240","boring_xml_url":64,"boring_view_url":1,"soilmap_view_url":null,"soiltest_xml_url":0,"soiltest_view_url":0},{"id":506898,"code":"B4KJ202201000-9434","latitude":"35.804602","longitude":"140.39934","source_code":"201383536120070021","project_name":"-","survey_name":"\u570f\u592e\u9053\u5927\u6804\u6a2a\u829d\u5730\u8cea\u8abf\u67fb\u696d\u52d925G6","client_name":"\u56fd\u571f\u4ea4\u901a\u7701\u3000\u95a2\u6771\u5730\u65b9\u6574\u5099\u5c40\u3000\u5343\u8449\u56fd\u9053\u4e8b\u52d9\u6240","boring_xml_url":64,"boring_view_url":1,"soilmap_view_url":null,"soiltest_xml_url":0,"soiltest_view_url":0},{"id":506897,"code":"B4KJ202201000-9433","latitude":"35.807732","longitude":"140.39459","source_code":"201383536120070020","project_name":"-","survey_name":"\u570f\u592e\u9053\u5927\u6804\u6a2a\u829d\u5730\u8cea\u8abf\u67fb\u696d\u52d925G6","client_name":"\u56fd\u571f\u4ea4\u901a\u7701\u3000\u95a2\u6771\u5730\u65b9\u6574\u5099\u5c40\u3000\u5343\u8449\u56fd\u9053\u4e8b\u52d9\u6240","boring_xml_url":64,"boring_view_url":1,"soilmap_view_url":null,"soiltest_xml_url":0,"soiltest_view_url":0},{"id":506896,"code":"B4KJ202201000-9432","latitude":"35.662863","longitude":"140.43555","source_code":"201383536120070019","project_name":"-","survey_name":"\u570f\u592e\u9053\u5927\u6804\u6a2a\u829d\u5730\u8cea\u8abf\u67fb\u696d\u52d925G6","client_name":"\u56fd\u571f\u4ea4\u901a\u7701\u3000\u95a2\u6771\u5730\u65b9\u6574\u5099\u5c40\u3000\u5343\u8449\u56fd\u9053\u4e8b\u52d9\u6240","boring_xml_url":64,"boring_view_url":1,"soilmap_view_url":null,"soiltest_xml_url":0,"soiltest_view_url":0},{"id":506895,"code":"B4KJ202201000-9431","latitude":"35.663196","longitude":"140.435208","source_code":"201383536120070018","project_name":"-","survey_name":"\u570f\u592e\u9053\u5927\u6804\u6a2a\u829d\u5730\u8cea\u8abf\u67fb\u696d\u52d925G6","client_name":"\u56fd\u571f\u4ea4\u901a\u7701\u3000\u95a2\u6771\u5730\u65b9\u6574\u5099\u5c40\u3000\u5343\u8449\u56fd\u9053\u4e8b\u52d9\u6240","boring_xml_url":64,"boring_view_url":1,"soilmap_view_url":null,"soiltest_xml_url":0,"soiltest_view_url":0},{"id":506894,"code":"B4KJ202201000-9430","latitude":"35.663068","longitude":"140.435647","source_code":"201383536120070017","project_name":"-","survey_name":"\u570f\u592e\u9053\u5927\u6804\u6a2a\u829d\u5730\u8cea\u8abf\u67fb\u696d\u52d925G6","client_name":"\u56fd\u571f\u4ea4\u901a\u7701\u3000\u95a2\u6771\u5730\u65b9\u6574\u5099\u5c40\u3000\u5343\u8449\u56fd\u9053\u4e8b\u52d9\u6240","boring_xml_url":64,"boring_view_url":1,"soilmap_view_url":null,"soiltest_xml_url":0,"soiltest_view_url":0},{"id":506893,"code":"B4KJ202201000-9429","latitude":"35.663366","longitude":"140.435408","source_code":"201383536120070016","project_name":"-","survey_name":"\u570f\u592e\u9053\u5927\u6804\u6a2a\u829d\u5730\u8cea\u8abf\u67fb\u696d\u52d925G6","client_name":"\u56fd\u571f\u4ea4\u901a\u7701\u3000\u95a2\u6771\u5730\u65b9\u6574\u5099\u5c40\u3000\u5343\u8449\u56fd\u9053\u4e8b\u52d9\u6240","boring_xml_url":64,"boring_view_url":1,"soilmap_view_url":null,"soiltest_xml_url":0,"soiltest_view_url":0},{"id":506892,"code":"B4KJ202201000-9428","latitude":"35.664849","longitude":"140.437514","source_code":"201383536120070015","project_name":"-","survey_name":"\u570f\u592e\u9053\u5927\u6804\u6a2a\u829d\u5730\u8cea\u8abf\u67fb\u696d\u52d925G6","client_name":"\u56fd\u571f\u4ea4\u901a\u7701\u3000\u95a2\u6771\u5730\u65b9\u6574\u5099\u5c40\u3000\u5343\u8449\u56fd\u9053\u4e8b\u52d9\u6240","boring_xml_url":64,"boring_view_url":1,"soilmap_view_url":null,"soiltest_xml_url":0,"soiltest_view_url":0},{"id":506891,"code":"B4KJ202201000-9427","latitude":"35.664599","longitude":"140.438822","source_code":"201383536120070014","project_name":"-","survey_name":"\u570f\u592e\u9053\u5927\u6804\u6a2a\u829d\u5730\u8cea\u8abf\u67fb\u696d\u52d925G6","client_name":"\u56fd\u571f\u4ea4\u901a\u7701\u3000\u95a2\u6771\u5730\u65b9\u6574\u5099\u5c40\u3000\u5343\u8449\u56fd\u9053\u4e8b\u52d9\u6240","boring_xml_url":64,"boring_view_url":1,"soilmap_view_url":null,"soiltest_xml_url":0,"soiltest_view_url":0},{"id":506890,"code":"B4KJ202201000-9426","latitude":"35.665702","longitude":"140.438822","source_code":"201383536120070013","project_name":"-","survey_name":"\u570f\u592e\u9053\u5927\u6804\u6a2a\u829d\u5730\u8cea\u8abf\u67fb\u696d\u52d925G6","client_name":"\u56fd\u571f\u4ea4\u901a\u7701\u3000\u95a2\u6771\u5730\u65b9\u6574\u5099\u5c40\u3000\u5343\u8449\u56fd\u9053\u4e8b\u52d9\u6240","boring_xml_url":64,"boring_view_url":1,"soilmap_view_url":null,"soiltest_xml_url":0,"soiltest_view_url":0},{"id":506889,"code":"B4KJ202201000-9425","latitude":"35.666646","longitude":"140.440036","source_code":"201383536120070012","project_name":"-","survey_name":"\u570f\u592e\u9053\u5927\u6804\u6a2a\u829d\u5730\u8cea\u8abf\u67fb\u696d\u52d925G6","client_name":"\u56fd\u571f\u4ea4\u901a\u7701\u3000\u95a2\u6771\u5730\u65b9\u6574\u5099\u5c40\u3000\u5343\u8449\u56fd\u9053\u4e8b\u52d9\u6240","boring_xml_url":64,"boring_view_url":1,"soilmap_view_url":null,"soiltest_xml_url":0,"soiltest_view_url":0},{"id":506888,"code":"B4KJ202201000-9424","latitude":"35.668868","longitude":"140.44243","source_code":"201383536120070011","project_name":"-","survey_name":"\u570f\u592e\u9053\u5927\u6804\u6a2a\u829d\u5730\u8cea\u8abf\u67fb\u696d\u52d925G6","client_name":"\u56fd\u571f\u4ea4\u901a\u7701\u3000\u95a2\u6771\u5730\u65b9\u6574\u5099\u5c40\u3000\u5343\u8449\u56fd\u9053\u4e8b\u52d9\u6240","boring_xml_url":64,"boring_view_url":1,"soilmap_view_url":null,"soiltest_xml_url":0,"soiltest_view_url":0},{"id":506887,"code":"B4KJ202201000-9423","latitude":"35.676468","longitude":"140.449005","source_code":"201383536120070010","project_name":"-","survey_name":"\u570f\u592e\u9053\u5927\u6804\u6a2a\u829d\u5730\u8cea\u8abf\u67fb\u696d\u52d925G6","client_name":"\u56fd\u571f\u4ea4\u901a\u7701\u3000\u95a2\u6771\u5730\u65b9\u6574\u5099\u5c40\u3000\u5343\u8449\u56fd\u9053\u4e8b\u52d9\u6240","boring_xml_url":64,"boring_view_url":1,"soilmap_view_url":null,"soiltest_xml_url":0,"soiltest_view_url":0},{"id":506886,"code":"B4KJ202201000-9422","latitude":"35.677127","longitude":"140.449494","source_code":"201383536120070009","project_name":"-","survey_name":"\u570f\u592e\u9053\u5927\u6804\u6a2a\u829d\u5730\u8cea\u8abf\u67fb\u696d\u52d925G6","client_name":"\u56fd\u571f\u4ea4\u901a\u7701\u3000\u95a2\u6771\u5730\u65b9\u6574\u5099\u5c40\u3000\u5343\u8449\u56fd\u9053\u4e8b\u52d9\u6240","boring_xml_url":64,"boring_view_url":1,"soilmap_view_url":null,"soiltest_xml_url":0,"soiltest_view_url":0},{"id":506885,"code":"B4KJ202201000-9421","latitude":"35.683282","longitude":"140.451266","source_code":"201383536120070008","project_name":"-","survey_name":"\u570f\u592e\u9053\u5927\u6804\u6a2a\u829d\u5730\u8cea\u8abf\u67fb\u696d\u52d925G6","client_name":"\u56fd\u571f\u4ea4\u901a\u7701\u3000\u95a2\u6771\u5730\u65b9\u6574\u5099\u5c40\u3000\u5343\u8449\u56fd\u9053\u4e8b\u52d9\u6240","boring_xml_url":64,"boring_view_url":1,"soilmap_view_url":null,"soiltest_xml_url":0,"soiltest_view_url":0},{"id":506884,"code":"B4KJ202201000-9420","latitude":"35.683463","longitude":"140.450789","source_code":"201383536120070007","project_name":"-","survey_name":"\u570f\u592e\u9053\u5927\u6804\u6a2a\u829d\u5730\u8cea\u8abf\u67fb\u696d\u52d925G6","client_name":"\u56fd\u571f\u4ea4\u901a\u7701\u3000\u95a2\u6771\u5730\u65b9\u6574\u5099\u5c40\u3000\u5343\u8449\u56fd\u9053\u4e8b\u52d9\u6240","boring_xml_url":64,"boring_view_url":1,"soilmap_view_url":null,"soiltest_xml_url":0,"soiltest_view_url":0},{"id":506883,"code":"B4KJ202201000-9419","latitude":"35.790238","longitude":"140.410245","source_code":"201383536120070006","project_name":"-","survey_name":"\u570f\u592e\u9053\u5927\u6804\u6a2a\u829d\u5730\u8cea\u8abf\u67fb\u696d\u52d925G6","client_name":"\u56fd\u571f\u4ea4\u901a\u7701\u3000\u95a2\u6771\u5730\u65b9\u6574\u5099\u5c40\u3000\u5343\u8449\u56fd\u9053\u4e8b\u52d9\u6240","boring_xml_url":64,"boring_view_url":1,"soilmap_view_url":null,"soiltest_xml_url":0,"soiltest_view_url":0},{"id":506882,"code":"B4KJ202201000-9418","latitude":"35.793721","longitude":"140.407962","source_code":"201383536120070005","project_name":"-","survey_name":"\u570f\u592e\u9053\u5927\u6804\u6a2a\u829d\u5730\u8cea\u8abf\u67fb\u696d\u52d925G6","client_name":"\u56fd\u571f\u4ea4\u901a\u7701\u3000\u95a2\u6771\u5730\u65b9\u6574\u5099\u5c40\u3000\u5343\u8449\u56fd\u9053\u4e8b\u52d9\u6240","boring_xml_url":64,"boring_view_url":1,"soilmap_view_url":null,"soiltest_xml_url":0,"soiltest_view_url":0},{"id":506881,"code":"B4KJ202201000-9417","latitude":"35.797441","longitude":"140.404562","source_code":"201383536120070004","project_name":"-","survey_name":"\u570f\u592e\u9053\u5927\u6804\u6a2a\u829d\u5730\u8cea\u8abf\u67fb\u696d\u52d925G6","client_name":"\u56fd\u571f\u4ea4\u901a\u7701\u3000\u95a2\u6771\u5730\u65b9\u6574\u5099\u5c40\u3000\u5343\u8449\u56fd\u9053\u4e8b\u52d9\u6240","boring_xml_url":64,"boring_view_url":1,"soilmap_view_url":null,"soiltest_xml_url":0,"soiltest_view_url":0},{"id":506880,"code":"B4KJ202201000-9416","latitude":"35.801654","longitude":"140.402482","source_code":"201383536120070003","project_name":"-","survey_name":"\u570f\u592e\u9053\u5927\u6804\u6a2a\u829d\u5730\u8cea\u8abf\u67fb\u696d\u52d925G6","client_name":"\u56fd\u571f\u4ea4\u901a\u7701\u3000\u95a2\u6771\u5730\u65b9\u6574\u5099\u5c40\u3000\u5343\u8449\u56fd\u9053\u4e8b\u52d9\u6240","boring_xml_url":64,"boring_view_url":1,"soilmap_view_url":null,"soiltest_xml_url":0,"soiltest_view_url":0},{"id":506879,"code":"B4KJ202201000-9415","latitude":"35.801771","longitude":"140.402857","source_code":"201383536120070002","project_name":"-","survey_name":"\u570f\u592e\u9053\u5927\u6804\u6a2a\u829d\u5730\u8cea\u8abf\u67fb\u696d\u52d925G6","client_name":"\u56fd\u571f\u4ea4\u901a\u7701\u3000\u95a2\u6771\u5730\u65b9\u6574\u5099\u5c40\u3000\u5343\u8449\u56fd\u9053\u4e8b\u52d9\u6240","boring_xml_url":64,"boring_view_url":1,"soilmap_view_url":null,"soiltest_xml_url":0,"soiltest_view_url":0},{"id":506878,"code":"B4KJ202201000-9414","latitude":"35.808954","longitude":"140.393696","source_code":"201383536120070001","project_name":"-","survey_name":"\u570f\u592e\u9053\u5927\u6804\u6a2a\u829d\u5730\u8cea\u8abf\u67fb\u696d\u52d925G6","client_name":"\u56fd\u571f\u4ea4\u901a\u7701\u3000\u95a2\u6771\u5730\u65b9\u6574\u5099\u5c40\u3000\u5343\u8449\u56fd\u9053\u4e8b\u52d9\u6240","boring_xml_url":64,"boring_view_url":1,"soilmap_view_url":null,"soiltest_xml_url":0,"soiltest_view_url":0},{"id":506877,"code":"B4KJ202201000-9413","latitude":"35.842093","longitude":"140.439832","source_code":"201283535120270010","project_name":"","survey_name":"\u5343\u8449\u56fd\u9053\u4e8b\u52d9\u6240\u7ba1\u5185\u9632\u707d\u65bd\u8a2d\u8abf\u67fb\u30fb\u8a2d\u8a08\u696d\u52d924M20","client_name":"\u56fd\u571f\u4ea4\u901a\u7701\u3000\u95a2\u6771\u5730\u65b9\u6574\u5099\u5c40\u3000\u5343\u8449\u56fd\u9053\u4e8b\u52d9\u6240","boring_xml_url":64,"boring_view_url":1,"soilmap_view_url":null,"soiltest_xml_url":0,"soiltest_view_url":0},{"id":506876,"code":"B4KJ202201000-9412","latitude":"35.800141","longitude":"140.370365","source_code":"201283535120270009","project_name":"","survey_name":"\u5343\u8449\u56fd\u9053\u4e8b\u52d9\u6240\u7ba1\u5185\u9632\u707d\u65bd\u8a2d\u8abf\u67fb\u30fb\u8a2d\u8a08\u696d\u52d924M20","client_name":"\u56fd\u571f\u4ea4\u901a\u7701\u3000\u95a2\u6771\u5730\u65b9\u6574\u5099\u5c40\u3000\u5343\u8449\u56fd\u9053\u4e8b\u52d9\u6240","boring_xml_url":64,"boring_view_url":1,"soilmap_view_url":null,"soiltest_xml_url":0,"soiltest_view_url":0},{"id":506875,"code":"B4KJ202201000-9411","latitude":"35.889515","longitude":"140.484733","source_code":"201283535120270008","project_name":"","survey_name":"\u5343\u8449\u56fd\u9053\u4e8b\u52d9\u6240\u7ba1\u5185\u9632\u707d\u65bd\u8a2d\u8abf\u67fb\u30fb\u8a2d\u8a08\u696d\u52d924M20","client_name":"\u56fd\u571f\u4ea4\u901a\u7701\u3000\u95a2\u6771\u5730\u65b9\u6574\u5099\u5c40\u3000\u5343\u8449\u56fd\u9053\u4e8b\u52d9\u6240","boring_xml_url":64,"boring_view_url":1,"soilmap_view_url":null,"soiltest_xml_url":0,"soiltest_view_url":0},{"id":506874,"code":"B4KJ202201000-9410","latitude":"35.889665","longitude":"140.484638","source_code":"201283535120270007","project_name":"","survey_name":"\u5343\u8449\u56fd\u9053\u4e8b\u52d9\u6240\u7ba1\u5185\u9632\u707d\u65bd\u8a2d\u8abf\u67fb\u30fb\u8a2d\u8a08\u696d\u52d924M20","client_name":"\u56fd\u571f\u4ea4\u901a\u7701\u3000\u95a2\u6771\u5730\u65b9\u6574\u5099\u5c40\u3000\u5343\u8449\u56fd\u9053\u4e8b\u52d9\u6240","boring_xml_url":64,"boring_view_url":1,"soilmap_view_url":null,"soiltest_xml_url":0,"soiltest_view_url":0},{"id":506873,"code":"B4KJ202201000-9409","latitude":"35.889735","longitude":"140.484611","source_code":"201283535120270006","project_name":"","survey_name":"\u5343\u8449\u56fd\u9053\u4e8b\u52d9\u6240\u7ba1\u5185\u9632\u707d\u65bd\u8a2d\u8abf\u67fb\u30fb\u8a2d\u8a08\u696d\u52d924M20","client_name":"\u56fd\u571f\u4ea4\u901a\u7701\u3000\u95a2\u6771\u5730\u65b9\u6574\u5099\u5c40\u3000\u5343\u8449\u56fd\u9053\u4e8b\u52d9\u6240","boring_xml_url":64,"boring_view_url":1,"soilmap_view_url":null,"soiltest_xml_url":0,"soiltest_view_url":0},{"id":506872,"code":"B4KJ202201000-9408","latitude":"35.056428","longitude":"139.828981","source_code":"201283535120270005","project_name":"","survey_name":"\u5343\u8449\u56fd\u9053\u4e8b\u52d9\u6240\u7ba1\u5185\u9632\u707d\u65bd\u8a2d\u8abf\u67fb\u30fb\u8a2d\u8a08\u696d\u52d924M20","client_name":"\u56fd\u571f\u4ea4\u901a\u7701\u3000\u95a2\u6771\u5730\u65b9\u6574\u5099\u5c40\u3000\u5343\u8449\u56fd\u9053\u4e8b\u52d9\u6240","boring_xml_url":64,"boring_view_url":1,"soilmap_view_url":null,"soiltest_xml_url":0,"soiltest_view_url":0},{"id":506871,"code":"B4KJ202201000-9407","latitude":"35.056492","longitude":"139.828875","source_code":"201283535120270004","project_name":"","survey_name":"\u5343\u8449\u56fd\u9053\u4e8b\u52d9\u6240\u7ba1\u5185\u9632\u707d\u65bd\u8a2d\u8abf\u67fb\u30fb\u8a2d\u8a08\u696d\u52d924M20","client_name":"\u56fd\u571f\u4ea4\u901a\u7701\u3000\u95a2\u6771\u5730\u65b9\u6574\u5099\u5c40\u3000\u5343\u8449\u56fd\u9053\u4e8b\u52d9\u6240","boring_xml_url":64,"boring_view_url":1,"soilmap_view_url":null,"soiltest_xml_url":0,"soiltest_view_url":0}]}}