{"header":{"xyz":{"source":[],"mosaic":false},"page":1291,"raw":{"soiltest_result":"0","bbox":"57.598333,109.544722,1.933333,163.806111","page":"1291"},"conditions":{"soiltest_result":0,"north":57.598333,"west":109.544722,"south":1.933333,"east":163.806111},"success":true,"message":""},"data":{"meta":{"total":212844,"page":1291,"pages":7095,"count":30},"values":[{"id":506660,"code":"B4KJ202201000-9196","latitude":"36.001638","longitude":"140.372036","source_code":"201383326020010004","project_name":"\u5e73\u621025\u5e74\u5ea6\u971e\u30f6\u6d66\u9632\u707d\u65bd\u8a2d\u7b49\u691c\u8a0e\u696d\u52d9\uff08\u5730\u8cea\u8abf\u67fb\uff09","survey_name":"\u5e73\u621025\u5e74\u5ea6\u971e\u30f6\u6d66\u9632\u707d\u65bd\u8a2d\u7b49\u691c\u8a0e\u696d\u52d9\uff08\u5730\u8cea\u8abf\u67fb\uff09","client_name":"\"\u56fd\u571f\u4ea4\u901a\u7701 \u95a2\u6771\u5730\u65b9\u6574\u5099\u5c40 \u971e\u30f6\u6d66\u6cb3\u5ddd\u4e8b\u52d9\u6240 \u8abf\u67fb\u8ab2\"","boring_xml_url":64,"boring_view_url":1,"soilmap_view_url":null,"soiltest_xml_url":0,"soiltest_view_url":0},{"id":506659,"code":"B4KJ202201000-9195","latitude":"36.005138","longitude":"140.375731","source_code":"201383326020010003","project_name":"\u5e73\u621025\u5e74\u5ea6\u971e\u30f6\u6d66\u9632\u707d\u65bd\u8a2d\u7b49\u691c\u8a0e\u696d\u52d9\uff08\u5730\u8cea\u8abf\u67fb\uff09","survey_name":"\u5e73\u621025\u5e74\u5ea6\u971e\u30f6\u6d66\u9632\u707d\u65bd\u8a2d\u7b49\u691c\u8a0e\u696d\u52d9\uff08\u5730\u8cea\u8abf\u67fb\uff09","client_name":"\"\u56fd\u571f\u4ea4\u901a\u7701 \u95a2\u6771\u5730\u65b9\u6574\u5099\u5c40 \u971e\u30f6\u6d66\u6cb3\u5ddd\u4e8b\u52d9\u6240\u3000\u8abf\u67fb\u8ab2\"","boring_xml_url":64,"boring_view_url":1,"soilmap_view_url":null,"soiltest_xml_url":0,"soiltest_view_url":0},{"id":506658,"code":"B4KJ202201000-9194","latitude":"36.005415","longitude":"140.37562","source_code":"201383326020010002","project_name":"\u5e73\u621025\u5e74\u5ea6\u971e\u30f6\u6d66\u9632\u707d\u65bd\u8a2d\u7b49\u691c\u8a0e\u696d\u52d9\uff08\u5730\u8cea\u8abf\u67fb\uff09","survey_name":"\u5e73\u621025\u5e74\u5ea6\u971e\u30f6\u6d66\u9632\u707d\u65bd\u8a2d\u7b49\u691c\u8a0e\u696d\u52d9\uff08\u5730\u8cea\u8abf\u67fb\uff09","client_name":"\"\u56fd\u571f\u4ea4\u901a\u7701 \u95a2\u6771\u5730\u65b9\u6574\u5099\u5c40 \u971e\u30f6\u6d66\u6cb3\u5ddd\u4e8b\u52d9\u6240 \u8abf\u67fb\u8ab2\"","boring_xml_url":64,"boring_view_url":1,"soilmap_view_url":null,"soiltest_xml_url":0,"soiltest_view_url":0},{"id":506657,"code":"B4KJ202201000-9193","latitude":"36.005415","longitude":"140.375675","source_code":"201383326020010001","project_name":"\u5e73\u621025\u5e74\u5ea6\u971e\u30f6\u6d66\u9632\u707d\u65bd\u8a2d\u7b49\u691c\u8a0e\u696d\u52d9(\u5730\u8cea\u8abf\u67fb\uff09","survey_name":"\u5e73\u621025\u5e74\u5ea6\u971e\u30f6\u6d66\u9632\u707d\u65bd\u8a2d\u7b49\u691c\u8a0e\u696d\u52d9(\u5730\u8cea\u8abf\u67fb\uff09","client_name":"\"\u56fd\u571f\u4ea4\u901a\u7701 \u95a2\u6771\u5730\u65b9\u6574\u5099\u5c40 \u971e\u30f6\u6d66\u6cb3\u5ddd\u4e8b\u52d9\u6240 \u8abf\u67fb\u8ab2\"","boring_xml_url":64,"boring_view_url":1,"soilmap_view_url":null,"soiltest_xml_url":0,"soiltest_view_url":0},{"id":506656,"code":"B4KJ202201000-9192","latitude":"35.392056","longitude":"138.455362","source_code":"201283656120460028","project_name":"H24\u4e2d\u90e8\u6a2a\u65ad\u9053\u5730\u8cea\u8abf\u67fb\u305d\u306e3","survey_name":"H24\u4e2d\u90e8\u6a2a\u65ad\u9053\u5730\u8cea\u8abf\u67fb\u305d\u306e3","client_name":"\"\u56fd\u571f\u4ea4\u901a\u7701 \u95a2\u6771\u5730\u65b9\u6574\u5099\u5c40 \u7532\u5e9c\u6cb3\u5ddd\u56fd\u9053\u4e8b\u52d9\u6240\"","boring_xml_url":64,"boring_view_url":1,"soilmap_view_url":null,"soiltest_xml_url":0,"soiltest_view_url":0},{"id":506655,"code":"B4KJ202201000-9191","latitude":"35.271667","longitude":"138.450028","source_code":"201283656120460027","project_name":"H24\u4e2d\u90e8\u6a2a\u65ad\u9053\u5730\u8cea\u8abf\u67fb\u305d\u306e3","survey_name":"H24\u4e2d\u90e8\u6a2a\u65ad\u9053\u5730\u8cea\u8abf\u67fb\u305d\u306e3","client_name":"\"\u56fd\u571f\u4ea4\u901a\u7701 \u95a2\u6771\u5730\u65b9\u6574\u5099\u5c40 \u7532\u5e9c\u6cb3\u5ddd\u56fd\u9053\u4e8b\u52d9\u6240\"","boring_xml_url":64,"boring_view_url":1,"soilmap_view_url":null,"soiltest_xml_url":0,"soiltest_view_url":0},{"id":506654,"code":"B4KJ202201000-9190","latitude":"35.262139","longitude":"138.459584","source_code":"201283656120460026","project_name":"H24\u4e2d\u90e8\u6a2a\u65ad\u9053\u5730\u8cea\u8abf\u67fb\u305d\u306e3","survey_name":"H24\u4e2d\u90e8\u6a2a\u65ad\u9053\u5730\u8cea\u8abf\u67fb\u305d\u306e3","client_name":"\"\u56fd\u571f\u4ea4\u901a\u7701 \u95a2\u6771\u5730\u65b9\u6574\u5099\u5c40 \u7532\u5e9c\u6cb3\u5ddd\u56fd\u9053\u4e8b\u52d9\u6240\"","boring_xml_url":64,"boring_view_url":1,"soilmap_view_url":null,"soiltest_xml_url":0,"soiltest_view_url":0},{"id":506653,"code":"B4KJ202201000-9189","latitude":"35.290083","longitude":"138.442028","source_code":"201283656120460025","project_name":"H24\u4e2d\u90e8\u6a2a\u65ad\u9053\u5730\u8cea\u8abf\u67fb\u305d\u306e3","survey_name":"H24\u4e2d\u90e8\u6a2a\u65ad\u9053\u5730\u8cea\u8abf\u67fb\u305d\u306e3","client_name":"\"\u56fd\u571f\u4ea4\u901a\u7701 \u95a2\u6771\u5730\u65b9\u6574\u5099\u5c40 \u7532\u5e9c\u6cb3\u5ddd\u56fd\u9053\u4e8b\u52d9\u6240\"","boring_xml_url":64,"boring_view_url":1,"soilmap_view_url":null,"soiltest_xml_url":0,"soiltest_view_url":0},{"id":506652,"code":"B4KJ202201000-9188","latitude":"35.289917","longitude":"138.442139","source_code":"201283656120460024","project_name":"H24\u4e2d\u90e8\u6a2a\u65ad\u9053\u5730\u8cea\u8abf\u67fb\u305d\u306e3","survey_name":"H24\u4e2d\u90e8\u6a2a\u65ad\u9053\u5730\u8cea\u8abf\u67fb\u305d\u306e3","client_name":"\"\u56fd\u571f\u4ea4\u901a\u7701 \u95a2\u6771\u5730\u65b9\u6574\u5099\u5c40 \u7532\u5e9c\u6cb3\u5ddd\u56fd\u9053\u4e8b\u52d9\u6240\"","boring_xml_url":64,"boring_view_url":1,"soilmap_view_url":null,"soiltest_xml_url":0,"soiltest_view_url":0},{"id":506651,"code":"B4KJ202201000-9187","latitude":"35.408278","longitude":"138.457195","source_code":"201283656120460023","project_name":"H24\u4e2d\u90e8\u6a2a\u65ad\u9053\u5730\u8cea\u8abf\u67fb\u305d\u306e3","survey_name":"H24\u4e2d\u90e8\u6a2a\u65ad\u9053\u5730\u8cea\u8abf\u67fb\u305d\u306e3","client_name":"\"\u56fd\u571f\u4ea4\u901a\u7701 \u95a2\u6771\u5730\u65b9\u6574\u5099\u5c40 \u7532\u5e9c\u6cb3\u5ddd\u56fd\u9053\u4e8b\u52d9\u6240\"","boring_xml_url":64,"boring_view_url":1,"soilmap_view_url":null,"soiltest_xml_url":0,"soiltest_view_url":0},{"id":506650,"code":"B4KJ202201000-9186","latitude":"35.405083","longitude":"138.460334","source_code":"201283656120460022","project_name":"H24\u4e2d\u90e8\u6a2a\u65ad\u9053\u5730\u8cea\u8abf\u67fb\u305d\u306e3","survey_name":"H24\u4e2d\u90e8\u6a2a\u65ad\u9053\u5730\u8cea\u8abf\u67fb\u305d\u306e3","client_name":"\"\u56fd\u571f\u4ea4\u901a\u7701 \u95a2\u6771\u5730\u65b9\u6574\u5099\u5c40 \u7532\u5e9c\u6cb3\u5ddd\u56fd\u9053\u4e8b\u52d9\u6240\"","boring_xml_url":64,"boring_view_url":1,"soilmap_view_url":null,"soiltest_xml_url":0,"soiltest_view_url":0},{"id":506649,"code":"B4KJ202201000-9185","latitude":"35.405167","longitude":"138.459945","source_code":"201283656120460021","project_name":"H24\u4e2d\u90e8\u6a2a\u65ad\u9053\u5730\u8cea\u8abf\u67fb\u305d\u306e3","survey_name":"H24\u4e2d\u90e8\u6a2a\u65ad\u9053\u5730\u8cea\u8abf\u67fb\u305d\u306e3","client_name":"\"\u56fd\u571f\u4ea4\u901a\u7701 \u95a2\u6771\u5730\u65b9\u6574\u5099\u5c40 \u7532\u5e9c\u6cb3\u5ddd\u56fd\u9053\u4e8b\u52d9\u6240\"","boring_xml_url":64,"boring_view_url":1,"soilmap_view_url":null,"soiltest_xml_url":0,"soiltest_view_url":0},{"id":506648,"code":"B4KJ202201000-9184","latitude":"35.40525","longitude":"138.459612","source_code":"201283656120460020","project_name":"H24\u4e2d\u90e8\u6a2a\u65ad\u9053\u5730\u8cea\u8abf\u67fb\u305d\u306e3","survey_name":"H24\u4e2d\u90e8\u6a2a\u65ad\u9053\u5730\u8cea\u8abf\u67fb\u305d\u306e3","client_name":"\"\u56fd\u571f\u4ea4\u901a\u7701 \u95a2\u6771\u5730\u65b9\u6574\u5099\u5c40 \u7532\u5e9c\u6cb3\u5ddd\u56fd\u9053\u4e8b\u52d9\u6240\"","boring_xml_url":64,"boring_view_url":1,"soilmap_view_url":null,"soiltest_xml_url":0,"soiltest_view_url":0},{"id":506647,"code":"B4KJ202201000-9183","latitude":"35.405861","longitude":"138.459862","source_code":"201283656120460019","project_name":"H24\u4e2d\u90e8\u6a2a\u65ad\u9053\u5730\u8cea\u8abf\u67fb\u305d\u306e3","survey_name":"H24\u4e2d\u90e8\u6a2a\u65ad\u9053\u5730\u8cea\u8abf\u67fb\u305d\u306e3","client_name":"\"\u56fd\u571f\u4ea4\u901a\u7701 \u95a2\u6771\u5730\u65b9\u6574\u5099\u5c40 \u7532\u5e9c\u6cb3\u5ddd\u56fd\u9053\u4e8b\u52d9\u6240\"","boring_xml_url":64,"boring_view_url":1,"soilmap_view_url":null,"soiltest_xml_url":0,"soiltest_view_url":0},{"id":506646,"code":"B4KJ202201000-9182","latitude":"35.405639","longitude":"138.459001","source_code":"201283656120460018","project_name":"H24\u4e2d\u90e8\u6a2a\u65ad\u9053\u5730\u8cea\u8abf\u67fb\u305d\u306e3","survey_name":"H24\u4e2d\u90e8\u6a2a\u65ad\u9053\u5730\u8cea\u8abf\u67fb\u305d\u306e3","client_name":"\"\u56fd\u571f\u4ea4\u901a\u7701 \u95a2\u6771\u5730\u65b9\u6574\u5099\u5c40 \u7532\u5e9c\u6cb3\u5ddd\u56fd\u9053\u4e8b\u52d9\u6240\"","boring_xml_url":64,"boring_view_url":1,"soilmap_view_url":null,"soiltest_xml_url":0,"soiltest_view_url":0},{"id":506645,"code":"B4KJ202201000-9181","latitude":"35.404861","longitude":"138.459251","source_code":"201283656120460017","project_name":"H24\u4e2d\u90e8\u6a2a\u65ad\u9053\u5730\u8cea\u8abf\u67fb\u305d\u306e3","survey_name":"H24\u4e2d\u90e8\u6a2a\u65ad\u9053\u5730\u8cea\u8abf\u67fb\u305d\u306e3","client_name":"\"\u56fd\u571f\u4ea4\u901a\u7701 \u95a2\u6771\u5730\u65b9\u6574\u5099\u5c40 \u7532\u5e9c\u6cb3\u5ddd\u56fd\u9053\u4e8b\u52d9\u6240\"","boring_xml_url":64,"boring_view_url":1,"soilmap_view_url":null,"soiltest_xml_url":0,"soiltest_view_url":0},{"id":506644,"code":"B4KJ202201000-9180","latitude":"35.404556","longitude":"138.457834","source_code":"201283656120460016","project_name":"H24\u4e2d\u90e8\u6a2a\u65ad\u9053\u5730\u8cea\u8abf\u67fb\u305d\u306e3","survey_name":"H24\u4e2d\u90e8\u6a2a\u65ad\u9053\u5730\u8cea\u8abf\u67fb\u305d\u306e3","client_name":"\"\u56fd\u571f\u4ea4\u901a\u7701 \u95a2\u6771\u5730\u65b9\u6574\u5099\u5c40 \u7532\u5e9c\u6cb3\u5ddd\u56fd\u9053\u4e8b\u52d9\u6240\"","boring_xml_url":64,"boring_view_url":1,"soilmap_view_url":null,"soiltest_xml_url":0,"soiltest_view_url":0},{"id":506643,"code":"B4KJ202201000-9179","latitude":"35.405417","longitude":"138.457723","source_code":"201283656120460015","project_name":"H24\u4e2d\u90e8\u6a2a\u65ad\u9053\u5730\u8cea\u8abf\u67fb\u305d\u306e3","survey_name":"H24\u4e2d\u90e8\u6a2a\u65ad\u9053\u5730\u8cea\u8abf\u67fb\u305d\u306e3","client_name":"\"\u56fd\u571f\u4ea4\u901a\u7701 \u95a2\u6771\u5730\u65b9\u6574\u5099\u5c40 \u7532\u5e9c\u6cb3\u5ddd\u56fd\u9053\u4e8b\u52d9\u6240\"","boring_xml_url":64,"boring_view_url":1,"soilmap_view_url":null,"soiltest_xml_url":0,"soiltest_view_url":0},{"id":506642,"code":"B4KJ202201000-9178","latitude":"35.405333","longitude":"138.458389","source_code":"201283656120460014","project_name":"H24\u4e2d\u90e8\u6a2a\u65ad\u9053\u5730\u8cea\u8abf\u67fb\u305d\u306e3","survey_name":"H24\u4e2d\u90e8\u6a2a\u65ad\u9053\u5730\u8cea\u8abf\u67fb\u305d\u306e3","client_name":"\"\u56fd\u571f\u4ea4\u901a\u7701 \u95a2\u6771\u5730\u65b9\u6574\u5099\u5c40 \u7532\u5e9c\u6cb3\u5ddd\u56fd\u9053\u4e8b\u52d9\u6240\"","boring_xml_url":64,"boring_view_url":1,"soilmap_view_url":null,"soiltest_xml_url":0,"soiltest_view_url":0},{"id":506641,"code":"B4KJ202201000-9177","latitude":"35.406583","longitude":"138.458001","source_code":"201283656120460013","project_name":"H24\u4e2d\u90e8\u6a2a\u65ad\u9053\u5730\u8cea\u8abf\u67fb\u305d\u306e3","survey_name":"H24\u4e2d\u90e8\u6a2a\u65ad\u9053\u5730\u8cea\u8abf\u67fb\u305d\u306e3","client_name":"\"\u56fd\u571f\u4ea4\u901a\u7701 \u95a2\u6771\u5730\u65b9\u6574\u5099\u5c40 \u7532\u5e9c\u6cb3\u5ddd\u56fd\u9053\u4e8b\u52d9\u6240\"","boring_xml_url":64,"boring_view_url":1,"soilmap_view_url":null,"soiltest_xml_url":0,"soiltest_view_url":0},{"id":506640,"code":"B4KJ202201000-9176","latitude":"35.40775","longitude":"138.457417","source_code":"201283656120460012","project_name":"H24\u4e2d\u90e8\u6a2a\u65ad\u9053\u5730\u8cea\u8abf\u67fb\u305d\u306e3","survey_name":"H24\u4e2d\u90e8\u6a2a\u65ad\u9053\u5730\u8cea\u8abf\u67fb\u305d\u306e3","client_name":"\"\u56fd\u571f\u4ea4\u901a\u7701 \u95a2\u6771\u5730\u65b9\u6574\u5099\u5c40 \u7532\u5e9c\u6cb3\u5ddd\u56fd\u9053\u4e8b\u52d9\u6240\"","boring_xml_url":64,"boring_view_url":1,"soilmap_view_url":null,"soiltest_xml_url":0,"soiltest_view_url":0},{"id":506639,"code":"B4KJ202201000-9175","latitude":"35.396278","longitude":"138.454639","source_code":"201283656120460011","project_name":"H24\u4e2d\u90e8\u6a2a\u65ad\u9053\u5730\u8cea\u8abf\u67fb\u305d\u306e3","survey_name":"H24\u4e2d\u90e8\u6a2a\u65ad\u9053\u5730\u8cea\u8abf\u67fb\u305d\u306e3","client_name":"\"\u56fd\u571f\u4ea4\u901a\u7701 \u95a2\u6771\u5730\u65b9\u6574\u5099\u5c40 \u7532\u5e9c\u6cb3\u5ddd\u56fd\u9053\u4e8b\u52d9\u6240\"","boring_xml_url":64,"boring_view_url":1,"soilmap_view_url":null,"soiltest_xml_url":0,"soiltest_view_url":0},{"id":506638,"code":"B4KJ202201000-9174","latitude":"35.396861","longitude":"138.453667","source_code":"201283656120460010","project_name":"H24\u4e2d\u90e8\u6a2a\u65ad\u9053\u5730\u8cea\u8abf\u67fb\u305d\u306e3","survey_name":"H24\u4e2d\u90e8\u6a2a\u65ad\u9053\u5730\u8cea\u8abf\u67fb\u305d\u306e3","client_name":"\"\u56fd\u571f\u4ea4\u901a\u7701 \u95a2\u6771\u5730\u65b9\u6574\u5099\u5c40 \u7532\u5e9c\u6cb3\u5ddd\u56fd\u9053\u4e8b\u52d9\u6240\"","boring_xml_url":64,"boring_view_url":1,"soilmap_view_url":null,"soiltest_xml_url":0,"soiltest_view_url":0},{"id":506637,"code":"B4KJ202201000-9173","latitude":"35.396722","longitude":"138.452973","source_code":"201283656120460009","project_name":"H24\u4e2d\u90e8\u6a2a\u65ad\u9053\u5730\u8cea\u8abf\u67fb\u305d\u306e3","survey_name":"H24\u4e2d\u90e8\u6a2a\u65ad\u9053\u5730\u8cea\u8abf\u67fb\u305d\u306e3","client_name":"\"\u56fd\u571f\u4ea4\u901a\u7701 \u95a2\u6771\u5730\u65b9\u6574\u5099\u5c40 \u7532\u5e9c\u6cb3\u5ddd\u56fd\u9053\u4e8b\u52d9\u6240\"","boring_xml_url":64,"boring_view_url":1,"soilmap_view_url":null,"soiltest_xml_url":0,"soiltest_view_url":0},{"id":506636,"code":"B4KJ202201000-9172","latitude":"35.397444","longitude":"138.452834","source_code":"201283656120460008","project_name":"H24\u4e2d\u90e8\u6a2a\u65ad\u9053\u5730\u8cea\u8abf\u67fb\u305d\u306e3","survey_name":"H24\u4e2d\u90e8\u6a2a\u65ad\u9053\u5730\u8cea\u8abf\u67fb\u305d\u306e3","client_name":"\"\u56fd\u571f\u4ea4\u901a\u7701 \u95a2\u6771\u5730\u65b9\u6574\u5099\u5c40 \u7532\u5e9c\u6cb3\u5ddd\u56fd\u9053\u4e8b\u52d9\u6240\"","boring_xml_url":64,"boring_view_url":1,"soilmap_view_url":null,"soiltest_xml_url":0,"soiltest_view_url":0},{"id":506635,"code":"B4KJ202201000-9171","latitude":"35.397528","longitude":"138.452278","source_code":"201283656120460007","project_name":"H24\u4e2d\u90e8\u6a2a\u65ad\u9053\u5730\u8cea\u8abf\u67fb\u305d\u306e3","survey_name":"H24\u4e2d\u90e8\u6a2a\u65ad\u9053\u5730\u8cea\u8abf\u67fb\u305d\u306e3","client_name":"\"\u56fd\u571f\u4ea4\u901a\u7701 \u95a2\u6771\u5730\u65b9\u6574\u5099\u5c40 \u7532\u5e9c\u6cb3\u5ddd\u56fd\u9053\u4e8b\u52d9\u6240\"","boring_xml_url":64,"boring_view_url":1,"soilmap_view_url":null,"soiltest_xml_url":0,"soiltest_view_url":0},{"id":506634,"code":"B4KJ202201000-9170","latitude":"35.397722","longitude":"138.451917","source_code":"201283656120460006","project_name":"H24\u4e2d\u90e8\u6a2a\u65ad\u9053\u5730\u8cea\u8abf\u67fb\u305d\u306e3","survey_name":"H24\u4e2d\u90e8\u6a2a\u65ad\u9053\u5730\u8cea\u8abf\u67fb\u305d\u306e3","client_name":"\"\u56fd\u571f\u4ea4\u901a\u7701 \u95a2\u6771\u5730\u65b9\u6574\u5099\u5c40 \u7532\u5e9c\u6cb3\u5ddd\u56fd\u9053\u4e8b\u52d9\u6240\"","boring_xml_url":64,"boring_view_url":1,"soilmap_view_url":null,"soiltest_xml_url":0,"soiltest_view_url":0},{"id":506633,"code":"B4KJ202201000-9169","latitude":"35.398583","longitude":"138.450751","source_code":"201283656120460005","project_name":"H24\u4e2d\u90e8\u6a2a\u65ad\u9053\u5730\u8cea\u8abf\u67fb\u305d\u306e3","survey_name":"H24\u4e2d\u90e8\u6a2a\u65ad\u9053\u5730\u8cea\u8abf\u67fb\u305d\u306e3","client_name":"\"\u56fd\u571f\u4ea4\u901a\u7701 \u95a2\u6771\u5730\u65b9\u6574\u5099\u5c40 \u7532\u5e9c\u6cb3\u5ddd\u56fd\u9053\u4e8b\u52d9\u6240\"","boring_xml_url":64,"boring_view_url":1,"soilmap_view_url":null,"soiltest_xml_url":0,"soiltest_view_url":0},{"id":506632,"code":"B4KJ202201000-9168","latitude":"35.318889","longitude":"138.457528","source_code":"201283656120460004","project_name":"H24\u4e2d\u90e8\u6a2a\u65ad\u9053\u5730\u8cea\u8abf\u67fb\u305d\u306e3","survey_name":"H24\u4e2d\u90e8\u6a2a\u65ad\u9053\u5730\u8cea\u8abf\u67fb\u305d\u306e3","client_name":"\"\u56fd\u571f\u4ea4\u901a\u7701 \u95a2\u6771\u5730\u65b9\u6574\u5099\u5c40 \u7532\u5e9c\u6cb3\u5ddd\u56fd\u9053\u4e8b\u52d9\u6240\"","boring_xml_url":64,"boring_view_url":1,"soilmap_view_url":null,"soiltest_xml_url":0,"soiltest_view_url":0},{"id":506631,"code":"B4KJ202201000-9167","latitude":"35.319222","longitude":"138.457056","source_code":"201283656120460003","project_name":"H24\u4e2d\u90e8\u6a2a\u65ad\u9053\u5730\u8cea\u8abf\u67fb\u305d\u306e3","survey_name":"H24\u4e2d\u90e8\u6a2a\u65ad\u9053\u5730\u8cea\u8abf\u67fb\u305d\u306e3","client_name":"\"\u56fd\u571f\u4ea4\u901a\u7701 \u95a2\u6771\u5730\u65b9\u6574\u5099\u5c40 \u7532\u5e9c\u6cb3\u5ddd\u56fd\u9053\u4e8b\u52d9\u6240\"","boring_xml_url":64,"boring_view_url":1,"soilmap_view_url":null,"soiltest_xml_url":0,"soiltest_view_url":0}]}}