{"header":{"xyz":{"source":[],"mosaic":false},"page":1294,"raw":{"soiltest_result":"0","bbox":"57.598333,109.544722,1.933333,163.806111","page":"1294"},"conditions":{"soiltest_result":0,"north":57.598333,"west":109.544722,"south":1.933333,"east":163.806111},"success":true,"message":""},"data":{"meta":{"total":212844,"page":1294,"pages":7095,"count":30},"values":[{"id":506570,"code":"B4KJ202201000-9106","latitude":"36.096082","longitude":"140.184702","source_code":"201283306120040004","project_name":"","survey_name":"H24\u5e38\u9678\u7ba1\u5185\u5730\u8cea\u8abf\u67fb\u696d\u52d9","client_name":"\u56fd\u571f\u4ea4\u901a\u7701\u3000\u5e38\u9678\u6cb3\u5ddd\u56fd\u9053\u4e8b\u52d9\u6240","boring_xml_url":64,"boring_view_url":1,"soilmap_view_url":null,"soiltest_xml_url":0,"soiltest_view_url":0},{"id":506569,"code":"B4KJ202201000-9105","latitude":"36.095832","longitude":"140.184452","source_code":"201283306120040003","project_name":"","survey_name":"H24\u5e38\u9678\u7ba1\u5185\u5730\u8cea\u8abf\u67fb\u696d\u52d9","client_name":"\u56fd\u571f\u4ea4\u901a\u7701\u3000\u5e38\u9678\u6cb3\u5ddd\u56fd\u9053\u4e8b\u52d9\u6240","boring_xml_url":64,"boring_view_url":1,"soilmap_view_url":null,"soiltest_xml_url":0,"soiltest_view_url":0},{"id":506568,"code":"B4KJ202201000-9104","latitude":"36.095499","longitude":"140.184147","source_code":"201283306120040002","project_name":"","survey_name":"H24\u5e38\u9678\u7ba1\u5185\u5730\u8cea\u8abf\u67fb\u696d\u52d9","client_name":"\u56fd\u571f\u4ea4\u901a\u7701\u3000\u5e38\u9678\u6cb3\u5ddd\u56fd\u9053\u4e8b\u52d9\u6240","boring_xml_url":64,"boring_view_url":1,"soilmap_view_url":null,"soiltest_xml_url":0,"soiltest_view_url":0},{"id":506567,"code":"B4KJ202201000-9103","latitude":"36.095277","longitude":"140.18398","source_code":"201283306120040001","project_name":"","survey_name":"H24\u5e38\u9678\u7ba1\u5185\u5730\u8cea\u8abf\u67fb\u696d\u52d9","client_name":"\u56fd\u571f\u4ea4\u901a\u7701\u3000\u5e38\u9678\u6cb3\u5ddd\u56fd\u9053\u4e8b\u52d9\u6240","boring_xml_url":64,"boring_view_url":1,"soilmap_view_url":null,"soiltest_xml_url":0,"soiltest_view_url":0},{"id":506566,"code":"B4KJ202201000-9102","latitude":"35.508667","longitude":"139.760669","source_code":"201283624820100010","project_name":"","survey_name":"\u5e73\u621024\u5e74\u5ea6\u3000\u56fd\u9053357\u53f7\uff08\u6771\u6247\u5cf6\uff5e\u6247\u5cf6\uff09\u5730\u8cea\u8abf\u67fb\u696d\u52d9","client_name":"\u56fd\u571f\u4ea4\u901a\u7701\u3000\u95a2\u6771\u5730\u65b9\u6574\u5099\u5c40\u3000\u5ddd\u5d0e\u56fd\u9053\u4e8b\u52d9\u6240","boring_xml_url":64,"boring_view_url":1,"soilmap_view_url":null,"soiltest_xml_url":0,"soiltest_view_url":0},{"id":506565,"code":"B4KJ202201000-9101","latitude":"35.491","longitude":"139.759669","source_code":"201283624820100009","project_name":"","survey_name":"\u5e73\u621024\u5e74\u5ea6\u3000\u56fd\u9053357\u53f7\uff08\u6771\u6247\u5cf6\uff5e\u6247\u5cf6\uff09\u5730\u8cea\u8abf\u67fb\u696d\u52d9","client_name":"\u56fd\u571f\u4ea4\u901a\u7701\u3000\u95a2\u6771\u5730\u65b9\u6574\u5099\u5c40\u3000\u5ddd\u5d0e\u56fd\u9053\u4e8b\u52d9\u6240","boring_xml_url":64,"boring_view_url":1,"soilmap_view_url":null,"soiltest_xml_url":0,"soiltest_view_url":0},{"id":506564,"code":"B4KJ202201000-9100","latitude":"35.491","longitude":"139.758669","source_code":"201283624820100008","project_name":"","survey_name":"\u5e73\u621024\u5e74\u5ea6\u3000\u56fd\u9053357\u53f7\uff08\u6771\u6247\u5cf6\uff5e\u6247\u5cf6\uff09\u5730\u8cea\u8abf\u67fb\u696d\u52d9","client_name":"\u56fd\u571f\u4ea4\u901a\u7701\u3000\u95a2\u6771\u5730\u65b9\u6574\u5099\u5c40\u3000\u5ddd\u5d0e\u56fd\u9053\u4e8b\u52d9\u6240","boring_xml_url":64,"boring_view_url":1,"soilmap_view_url":null,"soiltest_xml_url":0,"soiltest_view_url":0},{"id":506563,"code":"B4KJ202201000-9099","latitude":"35.49","longitude":"139.741002","source_code":"201283624820100007","project_name":"","survey_name":"\u5e73\u621024\u5e74\u5ea6\u3000\u56fd\u9053357\u53f7\uff08\u6771\u6247\u5cf6\uff5e\u6247\u5cf6\uff09\u5730\u8cea\u8abf\u67fb\u696d\u52d9","client_name":"\u56fd\u571f\u4ea4\u901a\u7701\u3000\u95a2\u6771\u5730\u65b9\u6574\u5099\u5c40\u3000\u5ddd\u5d0e\u56fd\u9053\u4e8b\u52d9\u6240","boring_xml_url":64,"boring_view_url":1,"soilmap_view_url":null,"soiltest_xml_url":0,"soiltest_view_url":0},{"id":506562,"code":"B4KJ202201000-9098","latitude":"35.489","longitude":"139.740002","source_code":"201283624820100006","project_name":"","survey_name":"\u5e73\u621024\u5e74\u5ea6\u3000\u56fd\u9053357\u53f7\uff08\u6771\u6247\u5cf6\uff5e\u6247\u5cf6\uff09\u5730\u8cea\u8abf\u67fb\u696d\u52d9","client_name":"\u56fd\u571f\u4ea4\u901a\u7701\u3000\u95a2\u6771\u5730\u65b9\u6574\u5099\u5c40\u3000\u5ddd\u5d0e\u56fd\u9053\u4e8b\u52d9\u6240","boring_xml_url":64,"boring_view_url":1,"soilmap_view_url":null,"soiltest_xml_url":0,"soiltest_view_url":0},{"id":506561,"code":"B4KJ202201000-9097","latitude":"35.489","longitude":"139.738002","source_code":"201283624820100005","project_name":"","survey_name":"\u5e73\u621024\u5e74\u5ea6\u3000\u56fd\u9053357\u53f7\uff08\u6771\u6247\u5cf6\uff5e\u6247\u5cf6\uff09\u5730\u8cea\u8abf\u67fb\u696d\u52d9","client_name":"\u5ddd\u5d0e\u5730\u8cea\u682a\u5f0f\u4f1a\u793e","boring_xml_url":64,"boring_view_url":1,"soilmap_view_url":null,"soiltest_xml_url":0,"soiltest_view_url":0},{"id":506560,"code":"B4KJ202201000-9096","latitude":"35.488","longitude":"139.737002","source_code":"201283624820100004","project_name":"","survey_name":"\u5e73\u621024\u5e74\u5ea6\u3000\u56fd\u9053357\u53f7\uff08\u6771\u6247\u5cf6\uff5e\u6247\u5cf6\uff09\u5730\u8cea\u8abf\u67fb\u696d\u52d9","client_name":"\u56fd\u571f\u4ea4\u901a\u7701\u3000\u95a2\u6771\u5730\u65b9\u6574\u5099\u5c40\u3000\u5ddd\u5d0e\u56fd\u9053\u4e8b\u52d9\u6240","boring_xml_url":64,"boring_view_url":1,"soilmap_view_url":null,"soiltest_xml_url":0,"soiltest_view_url":0},{"id":506559,"code":"B4KJ202201000-9095","latitude":"35.489","longitude":"139.735002","source_code":"201283624820100003","project_name":"","survey_name":"\u5e73\u621024\u5e74\u5ea6\u3000\u56fd\u9053357\u53f7\uff08\u6771\u6247\u5cf6\uff5e\u6247\u5cf6\uff09\u5730\u8cea\u8abf\u67fb\u696d\u52d9","client_name":"\u56fd\u571f\u4ea4\u901a\u7701\u3000\u95a2\u6771\u5730\u65b9\u6574\u5099\u5c40\u3000\u5ddd\u5d0e\u56fd\u9053\u4e8b\u52d9\u6240","boring_xml_url":64,"boring_view_url":1,"soilmap_view_url":null,"soiltest_xml_url":0,"soiltest_view_url":0},{"id":506558,"code":"B4KJ202201000-9094","latitude":"35.488","longitude":"139.735002","source_code":"201283624820100002","project_name":"","survey_name":"\u5e73\u621024\u5e74\u5ea6\u3000\u56fd\u9053357\u53f7\uff08\u6771\u6247\u5cf6\uff5e\u6247\u5cf6\uff09\u5730\u8cea\u8abf\u67fb\u696d\u52d9","client_name":"\u56fd\u571f\u4ea4\u901a\u7701\u3000\u95a2\u6771\u5730\u65b9\u6574\u5099\u5c40\u3000\u5ddd\u5d0e\u56fd\u9053\u4e8b\u52d9\u6240","boring_xml_url":64,"boring_view_url":1,"soilmap_view_url":null,"soiltest_xml_url":0,"soiltest_view_url":0},{"id":506557,"code":"B4KJ202201000-9093","latitude":"35.487","longitude":"139.749669","source_code":"201283624820100001","project_name":"","survey_name":"\u5e73\u621024\u5e74\u5ea6\u3000\u56fd\u9053357\u53f7\uff08\u6771\u6247\u5cf6\uff5e\u6247\u5cf6\uff09\u5730\u8cea\u8abf\u67fb\u696d\u52d9","client_name":"\u56fd\u571f\u4ea4\u901a\u7701\u3000\u95a2\u6771\u5730\u65b9\u6574\u5099\u5c40\u3000\u5ddd\u5d0e\u56fd\u9053\u4e8b\u52d9\u6240","boring_xml_url":64,"boring_view_url":1,"soilmap_view_url":null,"soiltest_xml_url":0,"soiltest_view_url":0},{"id":506556,"code":"B4KJ202201000-9092","latitude":"35.619436","longitude":"139.237178","source_code":"201283585120070004","project_name":"","survey_name":"24J\u96e8\u91cf\u898f\u5236\u533a\u9593\uff08\u76f8\u6a21\u6e56\uff09\u306e\u898f\u5236\u89e3\u9664\u306b\u95a2\u308f\u308b\u8abf\u67fb\u4ed6","client_name":"\"\u56fd\u571f\u4ea4\u901a\u7701 \u95a2\u6771\u5730\u65b9\u6574\u5099\u5c40 \u76f8\u6b66\u56fd\u9053\u4e8b\u52d9\u6240\"","boring_xml_url":64,"boring_view_url":1,"soilmap_view_url":null,"soiltest_xml_url":0,"soiltest_view_url":0},{"id":506555,"code":"B4KJ202201000-9091","latitude":"35.616583","longitude":"139.25078","source_code":"201283585120070003","project_name":"","survey_name":"24J\u96e8\u91cf\u898f\u5236\u533a\u9593\uff08\u76f8\u6a21\u6e56\uff09\u306e\u898f\u5236\u89e3\u9664\u306b\u95a2\u308f\u308b\u8abf\u67fb\u4ed6","client_name":"\"\u56fd\u571f\u4ea4\u901a\u7701 \u95a2\u6771\u5730\u65b9\u6574\u5099\u5c40 \u76f8\u6b66\u56fd\u9053\u4e8b\u52d9\u6240\"","boring_xml_url":64,"boring_view_url":1,"soilmap_view_url":null,"soiltest_xml_url":0,"soiltest_view_url":0},{"id":506554,"code":"B4KJ202201000-9090","latitude":"35.61662","longitude":"139.250764","source_code":"201283585120070002","project_name":"","survey_name":"24J\u96e8\u91cf\u898f\u5236\u533a\u9593\uff08\u76f8\u6a21\u6e56\uff09\u306e\u898f\u5236\u89e3\u9664\u306b\u95a2\u308f\u308b\u8abf\u67fb\u4ed6","client_name":"\"\u56fd\u571f\u4ea4\u901a\u7701 \u95a2\u6771\u5730\u65b9\u6574\u5099\u5c40 \u76f8\u6b66\u56fd\u9053\u4e8b\u52d9\u6240\"","boring_xml_url":64,"boring_view_url":1,"soilmap_view_url":null,"soiltest_xml_url":0,"soiltest_view_url":0},{"id":506553,"code":"B4KJ202201000-9089","latitude":"35.62787","longitude":"139.268611","source_code":"201283585120070001","project_name":"","survey_name":"24J\u96e8\u91cf\u898f\u5236\u533a\u9593\uff08\u76f8\u6a21\u6e56\uff09\u306e\u898f\u5236\u89e3\u9664\u306b\u95a2\u308f\u308b\u8abf\u67fb\u4ed6","client_name":"\"\u56fd\u571f\u4ea4\u901a\u7701 \u95a2\u6771\u5730\u65b9\u6574\u5099\u5c40 \u76f8\u6b66\u56fd\u9053\u4e8b\u52d9\u6240\"","boring_xml_url":64,"boring_view_url":1,"soilmap_view_url":null,"soiltest_xml_url":0,"soiltest_view_url":0},{"id":506552,"code":"B4KJ202201000-9088","latitude":"35.62019","longitude":"139.267304","source_code":"201283584820080001","project_name":"","survey_name":"24G\u570f\u592e\u9053\u69cb\u9020\u691c\u8a0e\u30fb\u8a73\u7d30\u8a2d\u8a08\u4ed6\uff08\u305d\u306e2\uff09","client_name":"\u56fd\u571f\u4ea4\u901a\u7701\u95a2\u6771\u5730\u65b9\u6574\u5099\u5c40\u76f8\u6b66\u56fd\u9053\u4e8b\u52d9\u6240","boring_xml_url":64,"boring_view_url":1,"soilmap_view_url":null,"soiltest_xml_url":0,"soiltest_view_url":0},{"id":506551,"code":"B4KJ202201000-9087","latitude":"35.688083","longitude":"139.977476","source_code":"201183536120070020","project_name":"\u6e7e\u5cb8\u8239\u6a4b\u5730\u533a\u5730\u8cea\u8abf\u67fb\u696d\u52d923G7","survey_name":"\u6e7e\u5cb8\u8239\u6a4b\u5730\u533a\u5730\u8cea\u8abf\u67fb\u696d\u52d923G7","client_name":"\u56fd\u571f\u4ea4\u901a\u7701\u95a2\u6771\u5730\u65b9\u6574\u5099\u5c40\u5343\u8449\u56fd\u9053\u4e8b\u52d9\u6240","boring_xml_url":64,"boring_view_url":1,"soilmap_view_url":null,"soiltest_xml_url":0,"soiltest_view_url":0},{"id":506550,"code":"B4KJ202201000-9086","latitude":"35.687416","longitude":"139.979837","source_code":"201183536120070019","project_name":"\u6e7e\u5cb8\u8239\u6a4b\u5730\u533a\u5730\u8cea\u8abf\u67fb\u696d\u52d923G7","survey_name":"\u6e7e\u5cb8\u8239\u6a4b\u5730\u533a\u5730\u8cea\u8abf\u67fb\u696d\u52d923G7","client_name":"\u56fd\u571f\u4ea4\u901a\u7701\u95a2\u6771\u5730\u65b9\u6574\u5099\u5c40\u5343\u8449\u56fd\u9053\u4e8b\u52d9\u6240","boring_xml_url":64,"boring_view_url":1,"soilmap_view_url":null,"soiltest_xml_url":0,"soiltest_view_url":0},{"id":506549,"code":"B4KJ202201000-9085","latitude":"35.687583","longitude":"139.979198","source_code":"201183536120070018","project_name":"\u6e7e\u5cb8\u8239\u6a4b\u5730\u533a\u5730\u8cea\u8abf\u67fb\u696d\u52d923G7","survey_name":"\u6e7e\u5cb8\u8239\u6a4b\u5730\u533a\u5730\u8cea\u8abf\u67fb\u696d\u52d923G7","client_name":"\u56fd\u571f\u4ea4\u901a\u7701\u95a2\u6771\u5730\u65b9\u6574\u5099\u5c40\u5343\u8449\u56fd\u9053\u4e8b\u52d9\u6240","boring_xml_url":64,"boring_view_url":1,"soilmap_view_url":null,"soiltest_xml_url":0,"soiltest_view_url":0},{"id":506548,"code":"B4KJ202201000-9084","latitude":"35.687861","longitude":"139.978171","source_code":"201183536120070017","project_name":"\u6e7e\u5cb8\u8239\u6a4b\u5730\u533a\u5730\u8cea\u8abf\u67fb\u696d\u52d923G7","survey_name":"\u6e7e\u5cb8\u8239\u6a4b\u5730\u533a\u5730\u8cea\u8abf\u67fb\u696d\u52d923G7","client_name":"\u56fd\u571f\u4ea4\u901a\u7701\u95a2\u6771\u5730\u65b9\u6574\u5099\u5c40\u5343\u8449\u56fd\u9053\u4e8b\u52d9\u6240","boring_xml_url":64,"boring_view_url":1,"soilmap_view_url":null,"soiltest_xml_url":0,"soiltest_view_url":0},{"id":506547,"code":"B4KJ202201000-9083","latitude":"35.688583","longitude":"139.975532","source_code":"201183536120070016","project_name":"\u6e7e\u5cb8\u8239\u6a4b\u5730\u533a\u5730\u8cea\u8abf\u67fb\u696d\u52d923G7","survey_name":"\u6e7e\u5cb8\u8239\u6a4b\u5730\u533a\u5730\u8cea\u8abf\u67fb\u696d\u52d923G7","client_name":"\u56fd\u571f\u4ea4\u901a\u7701\u95a2\u6771\u5730\u65b9\u6574\u5099\u5c40\u5343\u8449\u56fd\u9053\u4e8b\u52d9\u6240","boring_xml_url":64,"boring_view_url":1,"soilmap_view_url":null,"soiltest_xml_url":0,"soiltest_view_url":0},{"id":506546,"code":"B4KJ202201000-9082","latitude":"35.688194","longitude":"139.974865","source_code":"201183536120070015","project_name":"\u6e7e\u5cb8\u8239\u6a4b\u5730\u533a\u5730\u8cea\u8abf\u67fb\u696d\u52d923G7","survey_name":"\u6e7e\u5cb8\u8239\u6a4b\u5730\u533a\u5730\u8cea\u8abf\u67fb\u696d\u52d923G7","client_name":"\u56fd\u571f\u4ea4\u901a\u7701\u95a2\u6771\u5730\u65b9\u6574\u5099\u5c40\u5343\u8449\u56fd\u9053\u4e8b\u52d9\u6240","boring_xml_url":64,"boring_view_url":1,"soilmap_view_url":null,"soiltest_xml_url":0,"soiltest_view_url":0},{"id":506545,"code":"B4KJ202201000-9081","latitude":"35.689","longitude":"139.973837","source_code":"201183536120070014","project_name":"\u6e7e\u5cb8\u8239\u6a4b\u5730\u533a\u5730\u8cea\u8abf\u67fb\u696d\u52d923G7","survey_name":"\u6e7e\u5cb8\u8239\u6a4b\u5730\u533a\u5730\u8cea\u8abf\u67fb\u696d\u52d923G7","client_name":"\u56fd\u571f\u4ea4\u901a\u7701\u95a2\u6771\u5730\u65b9\u6574\u5099\u5c40\u5343\u8449\u56fd\u9053\u4e8b\u52d9\u6240","boring_xml_url":64,"boring_view_url":1,"soilmap_view_url":null,"soiltest_xml_url":0,"soiltest_view_url":0},{"id":506544,"code":"B4KJ202201000-9080","latitude":"35.685666","longitude":"139.986671","source_code":"201183536120070013","project_name":"\u6e7e\u5cb8\u8239\u6a4b\u5730\u533a\u5730\u8cea\u8abf\u67fb\u696d\u52d923G7","survey_name":"\u6e7e\u5cb8\u8239\u6a4b\u5730\u533a\u5730\u8cea\u8abf\u67fb\u696d\u52d923G7","client_name":"\u56fd\u571f\u4ea4\u901a\u7701\u95a2\u6771\u5730\u65b9\u6574\u5099\u5c40\u5343\u8449\u56fd\u9053\u4e8b\u52d9\u6240","boring_xml_url":64,"boring_view_url":1,"soilmap_view_url":null,"soiltest_xml_url":0,"soiltest_view_url":0},{"id":506543,"code":"B4KJ202201000-9079","latitude":"35.685777","longitude":"139.986143","source_code":"201183536120070012","project_name":"\u6e7e\u5cb8\u8239\u6a4b\u5730\u533a\u5730\u8cea\u8abf\u67fb\u696d\u52d923G7","survey_name":"\u6e7e\u5cb8\u8239\u6a4b\u5730\u533a\u5730\u8cea\u8abf\u67fb\u696d\u52d923G7","client_name":"\u56fd\u571f\u4ea4\u901a\u7701\u95a2\u6771\u5730\u65b9\u6574\u5099\u5c40\u5343\u8449\u56fd\u9053\u4e8b\u52d9\u6240","boring_xml_url":64,"boring_view_url":1,"soilmap_view_url":null,"soiltest_xml_url":0,"soiltest_view_url":0},{"id":506542,"code":"B4KJ202201000-9078","latitude":"35.685944","longitude":"139.985448","source_code":"201183536120070011","project_name":"\u6e7e\u5cb8\u8239\u6a4b\u5730\u533a\u5730\u8cea\u8abf\u67fb\u696d\u52d923G7","survey_name":"\u6e7e\u5cb8\u8239\u6a4b\u5730\u533a\u5730\u8cea\u8abf\u67fb\u696d\u52d923G7","client_name":"\u56fd\u571f\u4ea4\u901a\u7701\u95a2\u6771\u5730\u65b9\u6574\u5099\u5c40\u5343\u8449\u56fd\u9053\u4e8b\u52d9\u6240","boring_xml_url":64,"boring_view_url":1,"soilmap_view_url":null,"soiltest_xml_url":0,"soiltest_view_url":0},{"id":506541,"code":"B4KJ202201000-9077","latitude":"35.686138","longitude":"139.984921","source_code":"201183536120070010","project_name":"\u6e7e\u5cb8\u8239\u6a4b\u5730\u533a\u5730\u8cea\u8abf\u67fb\u696d\u52d923G7","survey_name":"\u6e7e\u5cb8\u8239\u6a4b\u5730\u533a\u5730\u8cea\u8abf\u67fb\u696d\u52d923G7","client_name":"\u56fd\u571f\u4ea4\u901a\u7701\u95a2\u6771\u5730\u65b9\u6574\u5099\u5c40\u5343\u8449\u56fd\u9053\u4e8b\u52d9\u6240","boring_xml_url":64,"boring_view_url":1,"soilmap_view_url":null,"soiltest_xml_url":0,"soiltest_view_url":0}]}}