{"header":{"xyz":{"source":[],"mosaic":false},"page":1301,"raw":{"soiltest_result":"0","bbox":"57.598333,109.544722,1.933333,163.806111","page":"1301"},"conditions":{"soiltest_result":0,"north":57.598333,"west":109.544722,"south":1.933333,"east":163.806111},"success":true,"message":""},"data":{"meta":{"total":212844,"page":1301,"pages":7095,"count":30},"values":[{"id":506360,"code":"B4KJ202201000-8896","latitude":"35.317611","longitude":"138.453028","source_code":"201183656120070005","project_name":"","survey_name":"H23\u4e2d\u90e8\u6a2a\u65ad\u9053\u6c34\u6587\u8abf\u67fb","client_name":"\u56fd\u571f\u4ea4\u901a\u7701\u95a2\u6771\u5730\u65b9\u6574\u5099\u5c40\u7532\u5e9c\u6cb3\u5ddd\u56fd\u9053\u4e8b\u52d9\u6240","boring_xml_url":64,"boring_view_url":1,"soilmap_view_url":null,"soiltest_xml_url":0,"soiltest_view_url":0},{"id":506359,"code":"B4KJ202201000-8895","latitude":"35.318055","longitude":"138.453361","source_code":"201183656120070004","project_name":"","survey_name":"\u4e2d\u90e8\u6a2a\u65ad\u9053\u6c34\u6587\u8abf\u67fb\u696d\u52d9","client_name":"\u56fd\u571f\u4ea4\u901a\u7701\u95a2\u6771\u5730\u65b9\u6574\u5099\u5c40\u7532\u5e9c\u6cb3\u5ddd\u56fd\u9053\u4e8b\u52d9\u6240","boring_xml_url":64,"boring_view_url":1,"soilmap_view_url":null,"soiltest_xml_url":0,"soiltest_view_url":0},{"id":506358,"code":"B4KJ202201000-8894","latitude":"35.318417","longitude":"138.453167","source_code":"201183656120070003","project_name":"","survey_name":"H23\u4e2d\u90e8\u6a2a\u65ad\u9053\u6c34\u6587\u8abf\u67fb","client_name":"\u56fd\u571f\u4ea4\u901a\u7701\u95a2\u6771\u5730\u65b9\u6574\u5099\u5c40\u7532\u5e9c\u6cb3\u5ddd\u56fd\u9053\u4e8b\u52d9\u6240","boring_xml_url":64,"boring_view_url":1,"soilmap_view_url":null,"soiltest_xml_url":0,"soiltest_view_url":0},{"id":506357,"code":"B4KJ202201000-8893","latitude":"35.249158","longitude":"138.476361","source_code":"201183656120070002","project_name":"","survey_name":"H23\u4e2d\u90e8\u6a2a\u65ad\u9053\u6c34\u6587\u8abf\u67fb","client_name":"\u56fd\u571f\u4ea4\u901a\u7701\u95a2\u6771\u5730\u65b9\u6574\u5099\u5c40\u7532\u5e9c\u6cb3\u5ddd\u56fd\u9053\u4e8b\u52d9\u6240","boring_xml_url":64,"boring_view_url":1,"soilmap_view_url":null,"soiltest_xml_url":0,"soiltest_view_url":0},{"id":506356,"code":"B4KJ202201000-8892","latitude":"35.249358","longitude":"138.476378","source_code":"201183656120070001","project_name":"","survey_name":"H23\u4e2d\u90e8\u6a2a\u65ad\u9053\u6c34\u6587\u8abf\u67fb","client_name":"\u56fd\u571f\u4ea4\u901a\u7701\u95a2\u6771\u5730\u65b9\u6574\u5099\u5c40\u7532\u5e9c\u6cb3\u5ddd\u56fd\u9053\u4e8b\u52d9\u6240","boring_xml_url":64,"boring_view_url":1,"soilmap_view_url":null,"soiltest_xml_url":0,"soiltest_view_url":0},{"id":506355,"code":"B4KJ202201000-8891","latitude":"35.271944","longitude":"138.452778","source_code":"201183655420050003","project_name":"(\u5927\u548c\u5ce0\u5730\u533a\u5730\u3059\u3079\u308a\u8abf\u67fb)","survey_name":"H23\u7ba1\u5185\u9632\u707d\u70b9\u691c\u30fb\u8a73\u7d30\u8a2d\u8a08\u696d\u52d9","client_name":"\u56fd\u571f\u4ea4\u901a\u7701\u95a2\u6771\u5730\u65b9\u6574\u5099\u5c40\u7532\u5e9c\u6cb3\u5ddd\u56fd\u9053\u4e8b\u52d9\u6240","boring_xml_url":64,"boring_view_url":1,"soilmap_view_url":null,"soiltest_xml_url":0,"soiltest_view_url":0},{"id":506354,"code":"B4KJ202201000-8890","latitude":"35.271944","longitude":"138.453334","source_code":"201183655420050002","project_name":"(\u5927\u548c\u5ce0\u5730\u533a\u5730\u3059\u3079\u308a\u8abf\u67fb)","survey_name":"H23\u7ba1\u5185\u9632\u707d\u70b9\u691c\u30fb\u8a73\u7d30\u8a2d\u8a08\u696d\u52d9","client_name":"\u56fd\u571f\u4ea4\u901a\u7701\u95a2\u6771\u5730\u65b9\u6574\u5099\u5c40\u7532\u5e9c\u6cb3\u5ddd\u56fd\u9053\u4e8b\u52d9\u6240","boring_xml_url":64,"boring_view_url":1,"soilmap_view_url":null,"soiltest_xml_url":0,"soiltest_view_url":0},{"id":506353,"code":"B4KJ202201000-8889","latitude":"35.271667","longitude":"138.453056","source_code":"201183655420050001","project_name":"(\u5927\u548c\u5ce0\u5730\u533a\u5730\u3059\u3079\u308a\u8abf\u67fb)","survey_name":"H23\u7ba1\u5185\u9632\u707d\u70b9\u691c\u30fb\u8a73\u7d30\u8a2d\u8a08\u696d\u52d9","client_name":"\u56fd\u571f\u4ea4\u901a\u7701\u95a2\u6771\u5730\u65b9\u6574\u5099\u5c40\u7532\u5e9c\u6cb3\u5ddd\u56fd\u9053\u4e8b\u52d9\u6240","boring_xml_url":64,"boring_view_url":1,"soilmap_view_url":null,"soiltest_xml_url":0,"soiltest_view_url":0},{"id":506352,"code":"B4KJ202201000-8888","latitude":"36.172387","longitude":"140.29387","source_code":"201183306120100005","project_name":"","survey_name":"H23\u5e38\u9678\u7ba1\u5185\u5730\u8cea\u8abf\u67fb\u696d\u52d9","client_name":"\u56fd\u571f\u4ea4\u901a\u7701\u95a2\u6771\u5730\u65b9\u6574\u5099\u5c40\u5e38\u9678\u6cb3\u5ddd\u56fd\u9053\u4e8b\u52d9\u6240","boring_xml_url":64,"boring_view_url":1,"soilmap_view_url":null,"soiltest_xml_url":0,"soiltest_view_url":0},{"id":506351,"code":"B4KJ202201000-8887","latitude":"36.172276","longitude":"140.293981","source_code":"201183306120100004","project_name":"","survey_name":"H23\u5e38\u9678\u7ba1\u5185\u5730\u8cea\u8abf\u67fb\u696d\u52d9","client_name":"\u56fd\u571f\u4ea4\u901a\u7701\u95a2\u6771\u5730\u65b9\u6574\u5099\u5c40\u5e38\u9678\u6cb3\u5ddd\u56fd\u9053\u4e8b\u52d9\u6240","boring_xml_url":64,"boring_view_url":1,"soilmap_view_url":null,"soiltest_xml_url":0,"soiltest_view_url":0},{"id":506350,"code":"B4KJ202201000-8886","latitude":"36.173332","longitude":"140.284231","source_code":"201183306120100003","project_name":"","survey_name":"H23\u5e38\u9678\u7ba1\u5185\u5730\u8cea\u8abf\u67fb\u696d\u52d9","client_name":"\u56fd\u571f\u4ea4\u901a\u7701\u95a2\u6771\u5730\u65b9\u6574\u5099\u5c40\u5e38\u9678\u6cb3\u5ddd\u56fd\u9053\u4e8b\u52d9\u6240","boring_xml_url":64,"boring_view_url":1,"soilmap_view_url":null,"soiltest_xml_url":0,"soiltest_view_url":0},{"id":506349,"code":"B4KJ202201000-8885","latitude":"36.173443","longitude":"140.284259","source_code":"201183306120100002","project_name":"","survey_name":"H23\u5e38\u9678\u7ba1\u5185\u5730\u8cea\u8abf\u67fb\u696d\u52d9","client_name":"\u56fd\u571f\u4ea4\u901a\u7701\u95a2\u6771\u5730\u65b9\u6574\u5099\u5c40\u5e38\u9678\u6cb3\u5ddd\u56fd\u9053\u4e8b\u52d9\u6240","boring_xml_url":64,"boring_view_url":1,"soilmap_view_url":null,"soiltest_xml_url":0,"soiltest_view_url":0},{"id":506348,"code":"B4KJ202201000-8884","latitude":"36.174249","longitude":"140.283204","source_code":"201183306120100001","project_name":"","survey_name":"H23\u5e38\u9678\u7ba1\u5185\u5730\u8cea\u8abf\u67fb\u696d\u52d9","client_name":"\u56fd\u571f\u4ea4\u901a\u7701\u95a2\u6771\u5730\u65b9\u6574\u5099\u5c40\u5e38\u9678\u6cb3\u5ddd\u56fd\u9053\u4e8b\u52d9\u6240","boring_xml_url":64,"boring_view_url":1,"soilmap_view_url":null,"soiltest_xml_url":0,"soiltest_view_url":0},{"id":506347,"code":"B4KJ202201000-8883","latitude":"36.484386","longitude":"140.608959","source_code":"201183306020200024","project_name":"H23\u90a3\u73c2\u5ddd\u5730\u8cea\u8abf\u67fb\u696d\u52d9","survey_name":"H23\u90a3\u73c2\u5ddd\u5730\u8cea\u8abf\u67fb\u696d\u52d9","client_name":"\u56fd\u571f\u4ea4\u901a\u7701\u95a2\u6771\u5730\u65b9\u6574\u5099\u5c40\u5e38\u9678\u6cb3\u5ddd\u56fd\u9053\u4e8b\u52d9\u6240","boring_xml_url":64,"boring_view_url":1,"soilmap_view_url":null,"soiltest_xml_url":0,"soiltest_view_url":0},{"id":506346,"code":"B4KJ202201000-8882","latitude":"36.48458","longitude":"140.608931","source_code":"201183306020200023","project_name":"H23\u90a3\u73c2\u5ddd\u5730\u8cea\u8abf\u67fb\u696d\u52d9","survey_name":"H23\u90a3\u73c2\u5ddd\u5730\u8cea\u8abf\u67fb\u696d\u52d9","client_name":"\u56fd\u571f\u4ea4\u901a\u7701\u95a2\u6771\u5730\u65b9\u6574\u5099\u5c40\u5e38\u9678\u6cb3\u5ddd\u56fd\u9053\u4e8b\u52d9\u6240","boring_xml_url":64,"boring_view_url":1,"soilmap_view_url":null,"soiltest_xml_url":0,"soiltest_view_url":0},{"id":506345,"code":"B4KJ202201000-8881","latitude":"36.48458","longitude":"140.604292","source_code":"201183306020200022","project_name":"H23\u90a3\u73c2\u5ddd\u5730\u8cea\u8abf\u67fb\u696d\u52d9","survey_name":"H23\u90a3\u73c2\u5ddd\u5730\u8cea\u8abf\u67fb\u696d\u52d9","client_name":"\u56fd\u571f\u4ea4\u901a\u7701\u95a2\u6771\u5730\u65b9\u6574\u5099\u5c40\u5e38\u9678\u6cb3\u5ddd\u56fd\u9053\u4e8b\u52d9\u6240","boring_xml_url":64,"boring_view_url":1,"soilmap_view_url":null,"soiltest_xml_url":0,"soiltest_view_url":0},{"id":506344,"code":"B4KJ202201000-8880","latitude":"36.484525","longitude":"140.604403","source_code":"201183306020200021","project_name":"H23\u90a3\u73c2\u5ddd\u5730\u8cea\u8abf\u67fb\u696d\u52d9","survey_name":"H23\u90a3\u73c2\u5ddd\u5730\u8cea\u8abf\u67fb\u696d\u52d9","client_name":"\u56fd\u571f\u4ea4\u901a\u7701\u95a2\u6771\u5730\u65b9\u6574\u5099\u5c40\u5e38\u9678\u6cb3\u5ddd\u56fd\u9053\u4e8b\u52d9\u6240","boring_xml_url":64,"boring_view_url":1,"soilmap_view_url":null,"soiltest_xml_url":0,"soiltest_view_url":0},{"id":506343,"code":"B4KJ202201000-8879","latitude":"36.484692","longitude":"140.604181","source_code":"201183306020200020","project_name":"H23\u90a3\u73c2\u5ddd\u5730\u8cea\u8abf\u67fb\u696d\u52d9","survey_name":"H23\u90a3\u73c2\u5ddd\u5730\u8cea\u8abf\u67fb\u696d\u52d9","client_name":"\u56fd\u571f\u4ea4\u901a\u7701\u95a2\u6771\u5730\u65b9\u6574\u5099\u5c40\u5e38\u9678\u6cb3\u5ddd\u56fd\u9053\u4e8b\u52d9\u6240","boring_xml_url":64,"boring_view_url":1,"soilmap_view_url":null,"soiltest_xml_url":0,"soiltest_view_url":0},{"id":506342,"code":"B4KJ202201000-8878","latitude":"36.484525","longitude":"140.605514","source_code":"201183306020200019","project_name":"H23\u90a3\u73c2\u5ddd\u5730\u8cea\u8abf\u67fb\u696d\u52d9","survey_name":"H23\u90a3\u73c2\u5ddd\u5730\u8cea\u8abf\u67fb\u696d\u52d9","client_name":"\u56fd\u571f\u4ea4\u901a\u7701\u95a2\u6771\u5730\u65b9\u6574\u5099\u5c40\u5e38\u9678\u6cb3\u5ddd\u56fd\u9053\u4e8b\u52d9\u6240","boring_xml_url":64,"boring_view_url":1,"soilmap_view_url":null,"soiltest_xml_url":0,"soiltest_view_url":0},{"id":506341,"code":"B4KJ202201000-8877","latitude":"36.48483","longitude":"140.605514","source_code":"201183306020200018","project_name":"H23\u90a3\u73c2\u5ddd\u5730\u8cea\u8abf\u67fb\u696d\u52d9","survey_name":"H23\u90a3\u73c2\u5ddd\u5730\u8cea\u8abf\u67fb\u696d\u52d9","client_name":"\u56fd\u571f\u4ea4\u901a\u7701\u95a2\u6771\u5730\u65b9\u6574\u5099\u5c40\u5e38\u9678\u6cb3\u5ddd\u56fd\u9053\u4e8b\u52d9\u6240","boring_xml_url":64,"boring_view_url":1,"soilmap_view_url":null,"soiltest_xml_url":0,"soiltest_view_url":0},{"id":506340,"code":"B4KJ202201000-8876","latitude":"36.484636","longitude":"140.608986","source_code":"201183306020200017","project_name":"H23\u90a3\u73c2\u5ddd\u5730\u8cea\u8abf\u67fb\u696d\u52d9","survey_name":"H23\u90a3\u73c2\u5ddd\u5730\u8cea\u8abf\u67fb\u696d\u52d9","client_name":"\u56fd\u571f\u4ea4\u901a\u7701\u95a2\u6771\u5730\u65b9\u6574\u5099\u5c40\u5e38\u9678\u6cb3\u5ddd\u56fd\u9053\u4e8b\u52d9\u6240","boring_xml_url":64,"boring_view_url":1,"soilmap_view_url":null,"soiltest_xml_url":0,"soiltest_view_url":0},{"id":506339,"code":"B4KJ202201000-8875","latitude":"36.484358","longitude":"140.610486","source_code":"201183306020200016","project_name":"H23\u90a3\u73c2\u5ddd\u5730\u8cea\u8abf\u67fb\u696d\u52d9","survey_name":"H23\u90a3\u73c2\u5ddd\u5730\u8cea\u8abf\u67fb\u696d\u52d9","client_name":"\u56fd\u571f\u4ea4\u901a\u7701\u95a2\u6771\u5730\u65b9\u6574\u5099\u5c40\u5e38\u9678\u6cb3\u5ddd\u56fd\u9053\u4e8b\u52d9\u6240","boring_xml_url":64,"boring_view_url":1,"soilmap_view_url":null,"soiltest_xml_url":0,"soiltest_view_url":0},{"id":506338,"code":"B4KJ202201000-8874","latitude":"36.44022","longitude":"140.415651","source_code":"201183306020200015","project_name":"H23\u90a3\u73c2\u5ddd\u5730\u8cea\u8abf\u67fb\u696d\u52d9","survey_name":"H23\u90a3\u73c2\u5ddd\u5730\u8cea\u8abf\u67fb\u696d\u52d9","client_name":"\u56fd\u571f\u4ea4\u901a\u7701\u95a2\u6771\u5730\u65b9\u6574\u5099\u5c40\u5e38\u9678\u6cb3\u5ddd\u56fd\u9053\u4e8b\u52d9\u6240","boring_xml_url":64,"boring_view_url":1,"soilmap_view_url":null,"soiltest_xml_url":0,"soiltest_view_url":0},{"id":506337,"code":"B4KJ202201000-8873","latitude":"36.440081","longitude":"140.415429","source_code":"201183306020200014","project_name":"H23\u90a3\u73c2\u5ddd\u5730\u8cea\u8abf\u67fb\u696d\u52d9","survey_name":"H23\u90a3\u73c2\u5ddd\u5730\u8cea\u8abf\u67fb\u696d\u52d9","client_name":"\u56fd\u571f\u4ea4\u901a\u7701\u95a2\u6771\u5730\u65b9\u6574\u5099\u5c40\u5e38\u9678\u6cb3\u5ddd\u56fd\u9053\u4e8b\u52d9\u6240","boring_xml_url":64,"boring_view_url":1,"soilmap_view_url":null,"soiltest_xml_url":0,"soiltest_view_url":0},{"id":506336,"code":"B4KJ202201000-8872","latitude":"36.437859","longitude":"140.417956","source_code":"201183306020200013","project_name":"H23\u90a3\u73c2\u5ddd\u5730\u8cea\u8abf\u67fb\u696d\u52d9","survey_name":"H23\u90a3\u73c2\u5ddd\u5730\u8cea\u8abf\u67fb\u696d\u52d9","client_name":"\u56fd\u571f\u4ea4\u901a\u7701\u95a2\u6771\u5730\u65b9\u6574\u5099\u5c40\u5e38\u9678\u6cb3\u5ddd\u56fd\u9053\u4e8b\u52d9\u6240","boring_xml_url":64,"boring_view_url":1,"soilmap_view_url":null,"soiltest_xml_url":0,"soiltest_view_url":0},{"id":506335,"code":"B4KJ202201000-8871","latitude":"36.43772","longitude":"140.417706","source_code":"201183306020200012","project_name":"H23\u90a3\u73c2\u5ddd\u5730\u8cea\u8abf\u67fb\u696d\u52d9","survey_name":"H23\u90a3\u73c2\u5ddd\u5730\u8cea\u8abf\u67fb\u696d\u52d9","client_name":"\u56fd\u571f\u4ea4\u901a\u7701\u95a2\u6771\u5730\u65b9\u6574\u5099\u5c40\u5e38\u9678\u6cb3\u5ddd\u56fd\u9053\u4e8b\u52d9\u6240","boring_xml_url":64,"boring_view_url":1,"soilmap_view_url":null,"soiltest_xml_url":0,"soiltest_view_url":0},{"id":506334,"code":"B4KJ202201000-8870","latitude":"36.358553","longitude":"140.549179","source_code":"201183306020200011","project_name":"H23\u90a3\u73c2\u5ddd\u5730\u8cea\u8abf\u67fb\u696d\u52d9","survey_name":"H23\u90a3\u73c2\u5ddd\u5730\u8cea\u8abf\u67fb\u696d\u52d9","client_name":"\u56fd\u571f\u4ea4\u901a\u7701\u95a2\u6771\u5730\u65b9\u6574\u5099\u5c40\u5e38\u9678\u6cb3\u5ddd\u56fd\u9053\u4e8b\u52d9\u6240","boring_xml_url":64,"boring_view_url":1,"soilmap_view_url":null,"soiltest_xml_url":0,"soiltest_view_url":0},{"id":506333,"code":"B4KJ202201000-8869","latitude":"36.359275","longitude":"140.54804","source_code":"201183306020200010","project_name":"H23\u90a3\u73c2\u5ddd\u5730\u8cea\u8abf\u67fb\u696d\u52d9","survey_name":"H23\u90a3\u73c2\u5ddd\u5730\u8cea\u8abf\u67fb\u696d\u52d9","client_name":"\u56fd\u571f\u4ea4\u901a\u7701\u95a2\u6771\u5730\u65b9\u6574\u5099\u5c40\u5e38\u9678\u6cb3\u5ddd\u56fd\u9053\u4e8b\u52d9\u6240","boring_xml_url":64,"boring_view_url":1,"soilmap_view_url":null,"soiltest_xml_url":0,"soiltest_view_url":0},{"id":506332,"code":"B4KJ202201000-8868","latitude":"36.360331","longitude":"140.54554","source_code":"201183306020200009","project_name":"H23\u90a3\u73c2\u5ddd\u5730\u8cea\u8abf\u67fb\u696d\u52d9","survey_name":"H23\u90a3\u73c2\u5ddd\u5730\u8cea\u8abf\u67fb\u696d\u52d9","client_name":"\u56fd\u571f\u4ea4\u901a\u7701\u95a2\u6771\u5730\u65b9\u6574\u5099\u5c40\u5e38\u9678\u6cb3\u5ddd\u56fd\u9053\u4e8b\u52d9\u6240","boring_xml_url":64,"boring_view_url":1,"soilmap_view_url":null,"soiltest_xml_url":0,"soiltest_view_url":0},{"id":506331,"code":"B4KJ202201000-8867","latitude":"36.361303","longitude":"140.543707","source_code":"201183306020200008","project_name":"H23\u90a3\u73c2\u5ddd\u5730\u8cea\u8abf\u67fb\u696d\u52d9","survey_name":"H23\u90a3\u73c2\u5ddd\u5730\u8cea\u8abf\u67fb\u696d\u52d9","client_name":"\u56fd\u571f\u4ea4\u901a\u7701\u95a2\u6771\u5730\u65b9\u6574\u5099\u5c40\u5e38\u9678\u6cb3\u5ddd\u56fd\u9053\u4e8b\u52d9\u6240","boring_xml_url":64,"boring_view_url":1,"soilmap_view_url":null,"soiltest_xml_url":0,"soiltest_view_url":0}]}}