{"header":{"xyz":{"source":[],"mosaic":false},"page":1311,"raw":{"soiltest_result":"0","bbox":"57.598333,109.544722,1.933333,163.806111","page":"1311"},"conditions":{"soiltest_result":0,"north":57.598333,"west":109.544722,"south":1.933333,"east":163.806111},"success":true,"message":""},"data":{"meta":{"total":212844,"page":1311,"pages":7095,"count":30},"values":[{"id":506060,"code":"B4KJ202201000-8596","latitude":"35.679694","longitude":"138.594529","source_code":"201083656120080002","project_name":"\u65b0\u5c71\u68a8\u74b0\u72b6\u9053\u8def\u5317\u90e8\u533a\u9593","survey_name":"\u5e73\u621022\u5e74\u5ea6\u65b0\u5c71\u68a8\u74b0\u72b6\u9053\u8def\u6c34\u6587\u8abf\u67fb\u696d\u52d9","client_name":"\u56fd\u571f\u4ea4\u901a\u7701\u7532\u5e9c\u6cb3\u5ddd\u56fd\u9053\u4e8b\u52d9\u6240","boring_xml_url":64,"boring_view_url":1,"soilmap_view_url":null,"soiltest_xml_url":0,"soiltest_view_url":0},{"id":506059,"code":"B4KJ202201000-8595","latitude":"35.6955","longitude":"138.555863","source_code":"201083656120080001","project_name":"\u65b0\u5c71\u68a8\u74b0\u72b6\u9053\u8def\u5317\u90e8\u533a\u9593","survey_name":"\u5e73\u621022\u5e74\u5ea6\u65b0\u5c71\u68a8\u74b0\u72b6\u9053\u8def\u6c34\u6587\u8abf\u67fb\u696d\u52d9","client_name":"\u56fd\u571f\u4ea4\u901a\u7701\u7532\u5e9c\u6cb3\u5ddd\u56fd\u9053\u4e8b\u52d9\u6240","boring_xml_url":64,"boring_view_url":1,"soilmap_view_url":null,"soiltest_xml_url":0,"soiltest_view_url":0},{"id":506058,"code":"B4KJ202201000-8594","latitude":"35.397268","longitude":"138.441417","source_code":"201083655420040015","project_name":"","survey_name":"H22\u7ba1\u5185\u9632\u707d\u70b9\u691c\u30fb\u8a73\u7d30\u8a2d\u8a08\u696d\u52d9\uff08\u5730\u8cea\u8abf\u67fb\uff09NO52A432\u3014\u5357\u5de8\u6469\u90e1\u8eab\u5ef6\u753a\u53e4\u5c4b\u6577\u5730\u5148\u3015","client_name":"\u56fd\u571f\u4ea4\u901a\u7701\u3000\u7532\u5e9c\u6cb3\u5ddd\u56fd\u9053\u4e8b\u52d9\u6240","boring_xml_url":64,"boring_view_url":1,"soilmap_view_url":null,"soiltest_xml_url":0,"soiltest_view_url":0},{"id":506057,"code":"B4KJ202201000-8593","latitude":"35.39731","longitude":"138.44119","source_code":"201083655420040014","project_name":"","survey_name":"H22\u7ba1\u5185\u9632\u707d\u70b9\u691c\u30fb\u8a73\u7d30\u8a2d\u8a08\u696d\u52d9\uff08\u5730\u8cea\u8abf\u67fb\uff09NO52A432\u3014\u5357\u5de8\u6469\u90e1\u8eab\u5ef6\u753a\u53e4\u5c4b\u6577\u5730\u5148\u3015","client_name":"\u56fd\u571f\u4ea4\u901a\u7701\u3000\u7532\u5e9c\u6cb3\u5ddd\u56fd\u9053\u4e8b\u52d9\u6240","boring_xml_url":64,"boring_view_url":1,"soilmap_view_url":null,"soiltest_xml_url":0,"soiltest_view_url":0},{"id":506056,"code":"B4KJ202201000-8592","latitude":"35.386081","longitude":"138.4471","source_code":"201083655420040013","project_name":"","survey_name":"H22\u7ba1\u5185\u9632\u707d\u70b9\u691c\u30fb\u8a73\u7d30\u8a2d\u8a08\u696d\u52d9\uff08\u5730\u8cea\u8abf\u67fb\uff09\u6ce2\u6728\u4e95\u9632\u707d\u3014\u5357\u5de8\u6469\u90e1\u8eab\u5ef6\u753a\u6ce2\u6728\u4e95\u5730\u5148\u3015","client_name":"\u56fd\u571f\u4ea4\u901a\u7701\u3000\u7532\u5e9c\u6cb3\u5ddd\u56fd\u9053\u4e8b\u52d9\u6240","boring_xml_url":64,"boring_view_url":1,"soilmap_view_url":null,"soiltest_xml_url":0,"soiltest_view_url":0},{"id":506055,"code":"B4KJ202201000-8591","latitude":"35.386129","longitude":"138.446791","source_code":"201083655420040012","project_name":"","survey_name":"H22\u7ba1\u5185\u9632\u707d\u70b9\u691c\u30fb\u8a73\u7d30\u8a2d\u8a08\u696d\u52d9\uff08\u5730\u8cea\u8abf\u67fb\uff09\u6ce2\u6728\u4e95\u9632\u707d\u3014\u5357\u5de8\u6469\u90e1\u8eab\u5ef6\u753a\u6ce2\u6728\u4e95\u5730\u5148\u3015","client_name":"\u56fd\u571f\u4ea4\u901a\u7701\u3000\u7532\u5e9c\u6cb3\u5ddd\u56fd\u9053\u4e8b\u52d9\u6240","boring_xml_url":64,"boring_view_url":1,"soilmap_view_url":null,"soiltest_xml_url":0,"soiltest_view_url":0},{"id":506054,"code":"B4KJ202201000-8590","latitude":"35.225769","longitude":"138.515075","source_code":"201083655420040011","project_name":"","survey_name":"H22\u7ba1\u5185\u9632\u707d\u70b9\u691c\u30fb\u8a73\u7d30\u8a2d\u8a08\u696d\u52d9\uff08\u5730\u8cea\u8abf\u67fb\uff09NO52A114\u3014\u5357\u5de8\u6469\u90e1\u5357\u90e8\u753a\u4e07\u6ca2\u5730\u5148\u3015","client_name":"\u56fd\u571f\u4ea4\u901a\u7701\u3000\u7532\u5e9c\u6cb3\u5ddd\u56fd\u9053\u4e8b\u52d9\u6240","boring_xml_url":64,"boring_view_url":1,"soilmap_view_url":null,"soiltest_xml_url":0,"soiltest_view_url":0},{"id":506053,"code":"B4KJ202201000-8589","latitude":"35.225876","longitude":"138.514922","source_code":"201083655420040010","project_name":"","survey_name":"H22\u7ba1\u5185\u9632\u707d\u70b9\u691c\u30fb\u8a73\u7d30\u8a2d\u8a08\u696d\u52d9\uff08\u5730\u8cea\u8abf\u67fb\uff09NO52A114\u3014\u5357\u5de8\u6469\u90e1\u5357\u90e8\u753a\u4e07\u6ca2\u5730\u5148\u3015","client_name":"\u56fd\u571f\u4ea4\u901a\u7701\u3000\u7532\u5e9c\u6cb3\u5ddd\u56fd\u9053\u4e8b\u52d9\u6240","boring_xml_url":64,"boring_view_url":1,"soilmap_view_url":null,"soiltest_xml_url":0,"soiltest_view_url":0},{"id":506052,"code":"B4KJ202201000-8588","latitude":"35.217455","longitude":"138.519461","source_code":"201083655420040009","project_name":"","survey_name":"H22\u7ba1\u5185\u9632\u707d\u70b9\u691c\u30fb\u8a73\u7d30\u8a2d\u8a08\u696d\u52d9\uff08\u5730\u8cea\u8abf\u67fb\uff09NO52F130,G131\u3014\u5357\u5de8\u6469\u90e1\u5357\u90e8\u753a\u4e07\u6ca2\u5730\u5148\u3015","client_name":"\u56fd\u571f\u4ea4\u901a\u7701\u3000\u7532\u5e9c\u6cb3\u5ddd\u56fd\u9053\u4e8b\u52d9\u6240","boring_xml_url":64,"boring_view_url":1,"soilmap_view_url":null,"soiltest_xml_url":0,"soiltest_view_url":0},{"id":506051,"code":"B4KJ202201000-8587","latitude":"35.217277","longitude":"138.519315","source_code":"201083655420040008","project_name":"","survey_name":"H22\u7ba1\u5185\u9632\u707d\u70b9\u691c\u30fb\u8a73\u7d30\u8a2d\u8a08\u696d\u52d9\uff08\u5730\u8cea\u8abf\u67fb\uff09NO52F130,G131\u3014\u5357\u5de8\u6469\u90e1\u5357\u90e8\u753a\u4e07\u6ca2\u5730\u5148\u3015","client_name":"\u56fd\u571f\u4ea4\u901a\u7701\u3000\u7532\u5e9c\u6cb3\u5ddd\u56fd\u9053\u4e8b\u52d9\u6240","boring_xml_url":64,"boring_view_url":1,"soilmap_view_url":null,"soiltest_xml_url":0,"soiltest_view_url":0},{"id":506050,"code":"B4KJ202201000-8586","latitude":"35.217149","longitude":"138.519077","source_code":"201083655420040007","project_name":"","survey_name":"H22\u7ba1\u5185\u9632\u707d\u70b9\u691c\u30fb\u8a73\u7d30\u8a2d\u8a08\u696d\u52d9\uff08\u5730\u8cea\u8abf\u67fb\uff09NO52F130,G131\u3014\u5357\u5de8\u6469\u90e1\u5357\u90e8\u753a\u4e07\u6ca2\u5730\u5148\u3015","client_name":"\u56fd\u571f\u4ea4\u901a\u7701\u3000\u7532\u5e9c\u6cb3\u5ddd\u56fd\u9053\u4e8b\u52d9\u6240","boring_xml_url":64,"boring_view_url":1,"soilmap_view_url":null,"soiltest_xml_url":0,"soiltest_view_url":0},{"id":506049,"code":"B4KJ202201000-8585","latitude":"35.217315","longitude":"138.518832","source_code":"201083655420040006","project_name":"","survey_name":"H22\u7ba1\u5185\u9632\u707d\u70b9\u691c\u30fb\u8a73\u7d30\u8a2d\u8a08\u696d\u52d9\uff08\u5730\u8cea\u8abf\u67fb\uff09NO52F130,G131\u3014\u5357\u5de8\u6469\u90e1\u5357\u90e8\u753a\u4e07\u6ca2\u5730\u5148\u3015","client_name":"\u56fd\u571f\u4ea4\u901a\u7701\u3000\u7532\u5e9c\u6cb3\u5ddd\u56fd\u9053\u4e8b\u52d9\u6240","boring_xml_url":64,"boring_view_url":1,"soilmap_view_url":null,"soiltest_xml_url":0,"soiltest_view_url":0},{"id":506048,"code":"B4KJ202201000-8584","latitude":"35.217078","longitude":"138.51874","source_code":"201083655420040005","project_name":"","survey_name":"H22\u7ba1\u5185\u9632\u707d\u70b9\u691c\u30fb\u8a73\u7d30\u8a2d\u8a08\u696d\u52d9\uff08\u5730\u8cea\u8abf\u67fb\uff09NO52F130,G131\u3014\u5357\u5de8\u6469\u90e1\u5357\u90e8\u753a\u4e07\u6ca2\u5730\u5148\u3015","client_name":"\u56fd\u571f\u4ea4\u901a\u7701\u3000\u7532\u5e9c\u6cb3\u5ddd\u56fd\u9053\u4e8b\u52d9\u6240","boring_xml_url":64,"boring_view_url":1,"soilmap_view_url":null,"soiltest_xml_url":0,"soiltest_view_url":0},{"id":506047,"code":"B4KJ202201000-8583","latitude":"35.217201","longitude":"138.5186","source_code":"201083655420040004","project_name":"","survey_name":"H22\u7ba1\u5185\u9632\u707d\u70b9\u691c\u30fb\u8a73\u7d30\u8a2d\u8a08\u696d\u52d9\uff08\u5730\u8cea\u8abf\u67fb\uff09NO52F130,G131\u3014\u5357\u5de8\u6469\u90e1\u5357\u90e8\u753a\u4e07\u6ca2\u5730\u5148\u3015","client_name":"\u56fd\u571f\u4ea4\u901a\u7701\u3000\u7532\u5e9c\u6cb3\u5ddd\u56fd\u9053\u4e8b\u52d9\u6240","boring_xml_url":64,"boring_view_url":1,"soilmap_view_url":null,"soiltest_xml_url":0,"soiltest_view_url":0},{"id":506046,"code":"B4KJ202201000-8582","latitude":"35.216595","longitude":"138.518452","source_code":"201083655420040003","project_name":"","survey_name":"H22\u7ba1\u5185\u9632\u707d\u70b9\u691c\u30fb\u8a73\u7d30\u8a2d\u8a08\u696d\u52d9\uff08\u5730\u8cea\u8abf\u67fb\uff09NO52F130,G131\u3014\u5357\u5de8\u6469\u90e1\u5357\u90e8\u753a\u4e07\u6ca2\u5730\u5148\u3015","client_name":"\u56fd\u571f\u4ea4\u901a\u7701\u3000\u7532\u5e9c\u6cb3\u5ddd\u56fd\u9053\u4e8b\u52d9\u6240","boring_xml_url":64,"boring_view_url":1,"soilmap_view_url":null,"soiltest_xml_url":0,"soiltest_view_url":0},{"id":506045,"code":"B4KJ202201000-8581","latitude":"35.21673","longitude":"138.518288","source_code":"201083655420040002","project_name":"","survey_name":"H22\u7ba1\u5185\u9632\u707d\u70b9\u691c\u30fb\u8a73\u7d30\u8a2d\u8a08\u696d\u52d9\uff08\u5730\u8cea\u8abf\u67fb\uff09NO52F130,G131\u3014\u5357\u5de8\u6469\u90e1\u5357\u90e8\u753a\u4e07\u6ca2\u5730\u5148\u3015","client_name":"\u56fd\u571f\u4ea4\u901a\u7701\u3000\u7532\u5e9c\u6cb3\u5ddd\u56fd\u9053\u4e8b\u52d9\u6240","boring_xml_url":64,"boring_view_url":1,"soilmap_view_url":null,"soiltest_xml_url":0,"soiltest_view_url":0},{"id":506044,"code":"B4KJ202201000-8580","latitude":"35.21679","longitude":"138.518216","source_code":"201083655420040001","project_name":"","survey_name":"H22\u7ba1\u5185\u9632\u707d\u70b9\u691c\u30fb\u8a73\u7d30\u8a2d\u8a08\u696d\u52d9\uff08\u5730\u8cea\u8abf\u67fb\uff09NO52F130,G131\u3014\u5357\u5de8\u6469\u90e1\u5357\u90e8\u753a\u4e07\u6ca2\u5730\u5148\u3015","client_name":"\u56fd\u571f\u4ea4\u901a\u7701\u3000\u7532\u5e9c\u6cb3\u5ddd\u56fd\u9053\u4e8b\u52d9\u6240","boring_xml_url":64,"boring_view_url":1,"soilmap_view_url":null,"soiltest_xml_url":0,"soiltest_view_url":0},{"id":506043,"code":"B4KJ202201000-8579","latitude":"35.674839","longitude":"138.499372","source_code":"200983654110260002","project_name":"H21\u56fd\u905320\u53f7\u6539\u826f\u8217\u88c5\u5de5\u4e8b","survey_name":"H21\u56fd\u905320\u53f7\u6539\u826f\u8217\u88c5\u5de5\u4e8b","client_name":"\u56fd\u571f\u4ea4\u901a\u7701\u3000\u95a2\u6771\u5730\u65b9\u6574\u5099\u5c40\u3000\u7532\u5e9c\u6cb3\u5ddd\u56fd\u9053\u4e8b\u52d9\u6240","boring_xml_url":64,"boring_view_url":1,"soilmap_view_url":null,"soiltest_xml_url":0,"soiltest_view_url":0},{"id":506042,"code":"B4KJ202201000-8578","latitude":"35.67445","longitude":"138.499289","source_code":"200983654110260001","project_name":"H21\u56fd\u905320\u53f7\u6539\u826f\u8217\u88c5\u5de5\u4e8b","survey_name":"H21\u56fd\u905320\u53f7\u6539\u826f\u8217\u88c5\u5de5\u4e8b","client_name":"\u56fd\u571f\u4ea4\u901a\u7701\u3000\u95a2\u6771\u5730\u65b9\u6574\u5099\u5c40\u3000\u7532\u5e9c\u6cb3\u5ddd\u56fd\u9053\u4e8b\u52d9\u6240","boring_xml_url":64,"boring_view_url":1,"soilmap_view_url":null,"soiltest_xml_url":0,"soiltest_view_url":0},{"id":506041,"code":"B4KJ202201000-8577","latitude":"36.153887","longitude":"140.493622","source_code":"201083306120080034","project_name":"","survey_name":"H22\u6771\u95a2\u6771\u81ea\u52d5\u8eca\u9053\u6c34\u6238\u7dda\u5730\u8cea\u8abf\u67fb\u696d\u52d9\uff08\u305d\u306e5\uff09","client_name":"\u56fd\u571f\u4ea4\u901a\u7701\u95a2\u6771\u5730\u65b9\u6574\u5099\u5c40\u3000\u5e38\u9678\u6cb3\u5ddd\u56fd\u9053\u4e8b\u52d9\u6240","boring_xml_url":64,"boring_view_url":1,"soilmap_view_url":null,"soiltest_xml_url":0,"soiltest_view_url":0},{"id":506040,"code":"B4KJ202201000-8576","latitude":"36.153331","longitude":"140.493344","source_code":"201083306120080033","project_name":"","survey_name":"H22\u6771\u95a2\u6771\u81ea\u52d5\u8eca\u9053\u6c34\u6238\u7dda\u5730\u8cea\u8abf\u67fb\u696d\u52d9\uff08\u305d\u306e5\uff09","client_name":"\u56fd\u571f\u4ea4\u901a\u7701\u95a2\u6771\u5730\u65b9\u6574\u5099\u5c40\u3000\u5e38\u9678\u6cb3\u5ddd\u56fd\u9053\u4e8b\u52d9\u6240","boring_xml_url":64,"boring_view_url":1,"soilmap_view_url":null,"soiltest_xml_url":0,"soiltest_view_url":0},{"id":506039,"code":"B4KJ202201000-8575","latitude":"36.15222","longitude":"140.493344","source_code":"201083306120080032","project_name":"","survey_name":"H22\u6771\u95a2\u6771\u81ea\u52d5\u8eca\u9053\u6c34\u6238\u7dda\u5730\u8cea\u8abf\u67fb\u696d\u52d9\uff08\u305d\u306e5\uff09","client_name":"\u56fd\u571f\u4ea4\u901a\u7701\u95a2\u6771\u5730\u65b9\u6574\u5099\u5c40\u3000\u5e38\u9678\u6cb3\u5ddd\u56fd\u9053\u4e8b\u52d9\u6240","boring_xml_url":64,"boring_view_url":1,"soilmap_view_url":null,"soiltest_xml_url":0,"soiltest_view_url":0},{"id":506038,"code":"B4KJ202201000-8574","latitude":"36.150831","longitude":"140.492788","source_code":"201083306120080031","project_name":"","survey_name":"H22\u6771\u95a2\u6771\u81ea\u52d5\u8eca\u9053\u6c34\u6238\u7dda\u5730\u8cea\u8abf\u67fb\u696d\u52d9\uff08\u305d\u306e5\uff09","client_name":"\u56fd\u571f\u4ea4\u901a\u7701\u95a2\u6771\u5730\u65b9\u6574\u5099\u5c40\u3000\u5e38\u9678\u6cb3\u5ddd\u56fd\u9053\u4e8b\u52d9\u6240","boring_xml_url":64,"boring_view_url":1,"soilmap_view_url":null,"soiltest_xml_url":0,"soiltest_view_url":0},{"id":506037,"code":"B4KJ202201000-8573","latitude":"36.168054","longitude":"140.492511","source_code":"201083306120080030","project_name":"","survey_name":"H22\u6771\u95a2\u6771\u81ea\u52d5\u8eca\u9053\u6c34\u6238\u7dda\u5730\u8cea\u8abf\u67fb\u696d\u52d9\uff08\u305d\u306e5\uff09","client_name":"\u56fd\u571f\u4ea4\u901a\u7701\u95a2\u6771\u5730\u65b9\u6574\u5099\u5c40\u3000\u5e38\u9678\u6cb3\u5ddd\u56fd\u9053\u4e8b\u52d9\u6240","boring_xml_url":64,"boring_view_url":1,"soilmap_view_url":null,"soiltest_xml_url":0,"soiltest_view_url":0},{"id":506036,"code":"B4KJ202201000-8572","latitude":"36.150554","longitude":"140.49251","source_code":"201083306120080029","project_name":"","survey_name":"H22\u6771\u95a2\u6771\u81ea\u52d5\u8eca\u9053\u6c34\u6238\u7dda\u5730\u8cea\u8abf\u67fb\u696d\u52d9\uff08\u305d\u306e5\uff09","client_name":"\u56fd\u571f\u4ea4\u901a\u7701\u95a2\u6771\u5730\u65b9\u6574\u5099\u5c40\u3000\u5e38\u9678\u6cb3\u5ddd\u56fd\u9053\u4e8b\u52d9\u6240","boring_xml_url":64,"boring_view_url":1,"soilmap_view_url":null,"soiltest_xml_url":0,"soiltest_view_url":0},{"id":506035,"code":"B4KJ202201000-8571","latitude":"36.143609","longitude":"140.491677","source_code":"201083306120080028","project_name":"","survey_name":"H22\u6771\u95a2\u6771\u81ea\u52d5\u8eca\u9053\u6c34\u6238\u7dda\u5730\u8cea\u8abf\u67fb\u696d\u52d9\uff08\u305d\u306e5\uff09","client_name":"\u56fd\u571f\u4ea4\u901a\u7701\u95a2\u6771\u5730\u65b9\u6574\u5099\u5c40\u3000\u5e38\u9678\u6cb3\u5ddd\u56fd\u9053\u4e8b\u52d9\u6240","boring_xml_url":64,"boring_view_url":1,"soilmap_view_url":null,"soiltest_xml_url":0,"soiltest_view_url":0},{"id":506034,"code":"B4KJ202201000-8570","latitude":"36.132498","longitude":"140.491121","source_code":"201083306120080027","project_name":"","survey_name":"H22\u6771\u95a2\u6771\u81ea\u52d5\u8eca\u9053\u6c34\u6238\u7dda\u5730\u8cea\u8abf\u67fb\u696d\u52d9\uff08\u305d\u306e5\uff09","client_name":"\u56fd\u571f\u4ea4\u901a\u7701\u95a2\u6771\u5730\u65b9\u6574\u5099\u5c40\u3000\u5e38\u9678\u6cb3\u5ddd\u56fd\u9053\u4e8b\u52d9\u6240","boring_xml_url":64,"boring_view_url":1,"soilmap_view_url":null,"soiltest_xml_url":0,"soiltest_view_url":0},{"id":506033,"code":"B4KJ202201000-8569","latitude":"36.122776","longitude":"140.493344","source_code":"201083306120080026","project_name":"","survey_name":"H22\u6771\u95a2\u6771\u81ea\u52d5\u8eca\u9053\u6c34\u6238\u7dda\u5730\u8cea\u8abf\u67fb\u696d\u52d9\uff08\u305d\u306e5\uff09","client_name":"\u56fd\u571f\u4ea4\u901a\u7701\u95a2\u6771\u5730\u65b9\u6574\u5099\u5c40\u3000\u5e38\u9678\u6cb3\u5ddd\u56fd\u9053\u4e8b\u52d9\u6240","boring_xml_url":64,"boring_view_url":1,"soilmap_view_url":null,"soiltest_xml_url":0,"soiltest_view_url":0},{"id":506032,"code":"B4KJ202201000-8568","latitude":"36.116665","longitude":"140.494732","source_code":"201083306120080025","project_name":"","survey_name":"H22\u6771\u95a2\u6771\u81ea\u52d5\u8eca\u9053\u6c34\u6238\u7dda\u5730\u8cea\u8abf\u67fb\u696d\u52d9\uff08\u305d\u306e5\uff09","client_name":"\"\u56fd\u571f\u4ea4\u901a\u7701\u95a2\u6771\u5730\u65b9\u6574\u5099\u5c40 \u5e38\u9678\u6cb3\u5ddd\u56fd\u9053\u4e8b\u52d9\u6240\"","boring_xml_url":64,"boring_view_url":1,"soilmap_view_url":null,"soiltest_xml_url":0,"soiltest_view_url":0},{"id":506031,"code":"B4KJ202201000-8567","latitude":"36.170831","longitude":"140.490844","source_code":"201083306120080024","project_name":"","survey_name":"H22\u6771\u95a2\u6771\u81ea\u52d5\u8eca\u9053\u6c34\u6238\u7dda\u5730\u8cea\u8abf\u67fb\u696d\u52d9\uff08\u305d\u306e5\uff09","client_name":"\u56fd\u571f\u4ea4\u901a\u7701\u95a2\u6771\u5730\u65b9\u6574\u5099\u5c40\u3000\u5e38\u9678\u6cb3\u5ddd\u56fd\u9053\u4e8b\u52d9\u6240","boring_xml_url":64,"boring_view_url":1,"soilmap_view_url":null,"soiltest_xml_url":0,"soiltest_view_url":0}]}}