{"header":{"xyz":{"source":[],"mosaic":false},"page":1315,"raw":{"soiltest_result":"0","bbox":"57.598333,109.544722,1.933333,163.806111","page":"1315"},"conditions":{"soiltest_result":0,"north":57.598333,"west":109.544722,"south":1.933333,"east":163.806111},"success":true,"message":""},"data":{"meta":{"total":212844,"page":1315,"pages":7095,"count":30},"values":[{"id":505940,"code":"B4KJ202201000-8476","latitude":"35.936997","longitude":"140.590441","source_code":"201083306120040001","project_name":"","survey_name":"H22\u6771\u95a2\u6771\u81ea\u52d5\u8eca\u9053\u3000\u6c34\u6238\u7dda\u5730\u8cea\u8abf\u67fb\u696d\u52d9(\u305d\u306e1)","client_name":"\u56fd\u571f\u4ea4\u901a\u7701\u95a2\u6771\u5730\u65b9\u6574\u5099\u5c40\u5e38\u9678\u6cb3\u5ddd\u56fd\u9053\u4e8b\u52d9\u6240","boring_xml_url":64,"boring_view_url":1,"soilmap_view_url":null,"soiltest_xml_url":0,"soiltest_view_url":0},{"id":505939,"code":"B4KJ202201000-8475","latitude":"35.644722","longitude":"139.815087","source_code":"200983624820200014","project_name":"","survey_name":"\u56fd\u9053357\u53f7\u8fb0\u5df3\u5730\u533a\u5730\u8cea\u8abf\u67fb\u696d\u52d9","client_name":"\"\u56fd\u571f\u4ea4\u901a\u7701 \u95a2\u6771\u5730\u65b9\u6574\u5099\u5c40 \u5ddd\u5d0e\u56fd\u9053\u4e8b\u52d9\u6240\"","boring_xml_url":64,"boring_view_url":1,"soilmap_view_url":null,"soiltest_xml_url":0,"soiltest_view_url":0},{"id":505938,"code":"B4KJ202201000-8474","latitude":"35.645028","longitude":"139.814281","source_code":"200983624820200013","project_name":"","survey_name":"\u56fd\u9053357\u53f7\u8fb0\u5df3\u5730\u533a\u5730\u8cea\u8abf\u67fb\u696d\u52d9","client_name":"\"\u56fd\u571f\u4ea4\u901a\u7701 \u95a2\u6771\u5730\u65b9\u6574\u5099\u5c40 \u5ddd\u5d0e\u56fd\u9053\u4e8b\u52d9\u6240\"","boring_xml_url":64,"boring_view_url":1,"soilmap_view_url":null,"soiltest_xml_url":0,"soiltest_view_url":0},{"id":505937,"code":"B4KJ202201000-8473","latitude":"35.644083","longitude":"139.813031","source_code":"200983624820200012","project_name":"","survey_name":"\u56fd\u9053357\u53f7\u8fb0\u5df3\u5730\u533a\u5730\u8cea\u8abf\u67fb\u696d\u52d9","client_name":"\"\u56fd\u571f\u4ea4\u901a\u7701 \u95a2\u6771\u5730\u65b9\u6574\u5099\u5c40 \u5ddd\u5d0e\u56fd\u9053\u4e8b\u52d9\u6240\"","boring_xml_url":64,"boring_view_url":1,"soilmap_view_url":null,"soiltest_xml_url":0,"soiltest_view_url":0},{"id":505936,"code":"B4KJ202201000-8472","latitude":"35.644417","longitude":"139.812281","source_code":"200983624820200011","project_name":"","survey_name":"\u56fd\u9053357\u53f7\u8fb0\u5df3\u5730\u533a\u5730\u8cea\u8abf\u67fb\u696d\u52d9","client_name":"\"\u56fd\u571f\u4ea4\u901a\u7701 \u95a2\u6771\u5730\u65b9\u6574\u5099\u5c40 \u5ddd\u5d0e\u56fd\u9053\u4e8b\u52d9\u6240\"","boring_xml_url":64,"boring_view_url":1,"soilmap_view_url":null,"soiltest_xml_url":0,"soiltest_view_url":0},{"id":505935,"code":"B4KJ202201000-8471","latitude":"35.643611","longitude":"139.811615","source_code":"200983624820200010","project_name":"","survey_name":"\u56fd\u9053357\u53f7\u8fb0\u5df3\u5730\u533a\u5730\u8cea\u8abf\u67fb\u696d\u52d9","client_name":"\"\u56fd\u571f\u4ea4\u901a\u7701 \u95a2\u6771\u5730\u65b9\u6574\u5099\u5c40 \u5ddd\u5d0e\u56fd\u9053\u4e8b\u52d9\u6240\"","boring_xml_url":64,"boring_view_url":1,"soilmap_view_url":null,"soiltest_xml_url":0,"soiltest_view_url":0},{"id":505934,"code":"B4KJ202201000-8470","latitude":"35.64375","longitude":"139.810281","source_code":"200983624820200009","project_name":"","survey_name":"\u56fd\u9053357\u53f7\u8fb0\u5df3\u5730\u533a\u5730\u8cea\u8abf\u67fb\u696d\u52d9","client_name":"\"\u56fd\u571f\u4ea4\u901a\u7701 \u95a2\u6771\u5730\u65b9\u6574\u5099\u5c40 \u5ddd\u5d0e\u56fd\u9053\u4e8b\u52d9\u6240\"","boring_xml_url":64,"boring_view_url":1,"soilmap_view_url":null,"soiltest_xml_url":0,"soiltest_view_url":0},{"id":505933,"code":"B4KJ202201000-8469","latitude":"35.643472","longitude":"139.809476","source_code":"200983624820200008","project_name":"","survey_name":"\u56fd\u9053357\u53f7\u8fb0\u5df3\u5730\u533a\u5730\u8cea\u8abf\u67fb\u696d\u52d9","client_name":"\"\u56fd\u571f\u4ea4\u901a\u7701 \u95a2\u6771\u5730\u65b9\u6574\u5099\u5c40 \u5ddd\u5d0e\u56fd\u9053\u4e8b\u52d9\u6240\"","boring_xml_url":64,"boring_view_url":1,"soilmap_view_url":null,"soiltest_xml_url":0,"soiltest_view_url":0},{"id":505932,"code":"B4KJ202201000-8468","latitude":"35.641778","longitude":"139.804365","source_code":"200983624820200007","project_name":"","survey_name":"\u56fd\u9053357\u53f7\u8fb0\u5df3\u5730\u533a\u5730\u8cea\u8abf\u67fb\u696d\u52d9","client_name":"\"\u56fd\u571f\u4ea4\u901a\u7701 \u95a2\u6771\u5730\u65b9\u6574\u5099\u5c40 \u5ddd\u5d0e\u56fd\u9053\u4e8b\u52d9\u6240\"","boring_xml_url":64,"boring_view_url":1,"soilmap_view_url":null,"soiltest_xml_url":0,"soiltest_view_url":0},{"id":505931,"code":"B4KJ202201000-8467","latitude":"35.641583","longitude":"139.80367","source_code":"200983624820200006","project_name":"","survey_name":"\u56fd\u9053357\u53f7\u8fb0\u5df3\u5730\u533a\u5730\u8cea\u8abf\u67fb\u696d\u52d9","client_name":"\"\u56fd\u571f\u4ea4\u901a\u7701 \u95a2\u6771\u5730\u65b9\u6574\u5099\u5c40 \u5ddd\u5d0e\u56fd\u9053\u4e8b\u52d9\u6240\"","boring_xml_url":64,"boring_view_url":1,"soilmap_view_url":null,"soiltest_xml_url":0,"soiltest_view_url":0},{"id":505930,"code":"B4KJ202201000-8466","latitude":"35.640805","longitude":"139.80292","source_code":"200983624820200005","project_name":"","survey_name":"\u56fd\u9053357\u53f7\u8fb0\u5df3\u5730\u533a\u5730\u8cea\u8abf\u67fb\u696d\u52d9","client_name":"\"\u56fd\u571f\u4ea4\u901a\u7701 \u95a2\u6771\u5730\u65b9\u6574\u5099\u5c40 \u5ddd\u5d0e\u56fd\u9053\u4e8b\u52d9\u6240\"","boring_xml_url":64,"boring_view_url":1,"soilmap_view_url":null,"soiltest_xml_url":0,"soiltest_view_url":0},{"id":505929,"code":"B4KJ202201000-8465","latitude":"35.640833","longitude":"139.801754","source_code":"200983624820200004","project_name":"","survey_name":"\u56fd\u9053357\u53f7\u8fb0\u5df3\u5730\u533a\u5730\u8cea\u8abf\u67fb\u696d\u52d9","client_name":"\"\u56fd\u571f\u4ea4\u901a\u7701 \u95a2\u6771\u5730\u65b9\u6574\u5099\u5c40 \u5ddd\u5d0e\u56fd\u9053\u4e8b\u52d9\u6240\"","boring_xml_url":64,"boring_view_url":1,"soilmap_view_url":null,"soiltest_xml_url":0,"soiltest_view_url":0},{"id":505928,"code":"B4KJ202201000-8464","latitude":"35.640111","longitude":"139.801337","source_code":"200983624820200003","project_name":"","survey_name":"\u56fd\u9053357\u53f7\u8fb0\u5df3\u5730\u533a\u5730\u8cea\u8abf\u67fb\u696d\u52d9","client_name":"\"\u56fd\u571f\u4ea4\u901a\u7701 \u95a2\u6771\u5730\u65b9\u6574\u5099\u5c40 \u5ddd\u5d0e\u56fd\u9053\u4e8b\u52d9\u6240\"","boring_xml_url":64,"boring_view_url":1,"soilmap_view_url":null,"soiltest_xml_url":0,"soiltest_view_url":0},{"id":505927,"code":"B4KJ202201000-8463","latitude":"35.640389","longitude":"139.800698","source_code":"200983624820200002","project_name":"","survey_name":"\u56fd\u9053357\u53f7\u8fb0\u5df3\u5730\u533a\u5730\u8cea\u8abf\u67fb\u696d\u52d9","client_name":"\"\u56fd\u571f\u4ea4\u901a\u7701 \u95a2\u6771\u5730\u65b9\u6574\u5099\u5c40 \u5ddd\u5d0e\u56fd\u9053\u4e8b\u52d9\u6240\"","boring_xml_url":64,"boring_view_url":1,"soilmap_view_url":null,"soiltest_xml_url":0,"soiltest_view_url":0},{"id":505926,"code":"B4KJ202201000-8462","latitude":"35.639722","longitude":"139.800587","source_code":"200983624820200001","project_name":"","survey_name":"\u56fd\u9053357\u53f7\u8fb0\u5df3\u5730\u533a\u5730\u8cea\u8abf\u67fb\u696d\u52d9","client_name":"\"\u56fd\u571f\u4ea4\u901a\u7701 \u95a2\u6771\u5730\u65b9\u6574\u5099\u5c40 \u5ddd\u5d0e\u56fd\u9053\u4e8b\u52d9\u6240\"","boring_xml_url":64,"boring_view_url":1,"soilmap_view_url":null,"soiltest_xml_url":0,"soiltest_view_url":0},{"id":505925,"code":"B4KJ202201000-8461","latitude":"35.691666","longitude":"139.966948","source_code":"201083535520050006","project_name":"","survey_name":"\u56fd\u9053357\u53f7\u5730\u8cea\u8abf\u67fb\u696d\u52d922J6","client_name":"\u56fd\u9053\u4ea4\u901a\u7701\u95a2\u6771\u5730\u65b9\u6574\u5099\u5c40\u5343\u8449\u56fd\u9053\u4e8b\u52d9\u6240","boring_xml_url":64,"boring_view_url":1,"soilmap_view_url":null,"soiltest_xml_url":0,"soiltest_view_url":0},{"id":505924,"code":"B4KJ202201000-8460","latitude":"35.690555","longitude":"139.966115","source_code":"201083535520050005","project_name":"","survey_name":"\u56fd\u9053357\u53f7\u5730\u8cea\u8abf\u67fb\u696d\u52d922J6","client_name":"\u56fd\u9053\u4ea4\u901a\u7701\u95a2\u6771\u5730\u65b9\u6574\u5099\u5c40\u5343\u8449\u56fd\u9053\u4e8b\u52d9\u6240","boring_xml_url":64,"boring_view_url":1,"soilmap_view_url":null,"soiltest_xml_url":0,"soiltest_view_url":0},{"id":505923,"code":"B4KJ202201000-8459","latitude":"35.689722","longitude":"139.969171","source_code":"201083535520050004","project_name":"","survey_name":"\u56fd\u9053357\u53f7\u5730\u8cea\u8abf\u67fb\u696d\u52d922J6","client_name":"\u56fd\u9053\u4ea4\u901a\u7701\u95a2\u6771\u5730\u65b9\u6574\u5099\u5c40\u5343\u8449\u56fd\u9053\u4e8b\u52d9\u6240","boring_xml_url":64,"boring_view_url":1,"soilmap_view_url":null,"soiltest_xml_url":0,"soiltest_view_url":0},{"id":505922,"code":"B4KJ202201000-8458","latitude":"35.689444","longitude":"139.97056","source_code":"201083535520050003","project_name":"","survey_name":"\u56fd\u9053357\u53f7\u5730\u8cea\u8abf\u67fb\u696d\u52d922J6","client_name":"\u56fd\u9053\u4ea4\u901a\u7701\u95a2\u6771\u5730\u65b9\u6574\u5099\u5c40\u5343\u8449\u56fd\u9053\u4e8b\u52d9\u6240","boring_xml_url":64,"boring_view_url":1,"soilmap_view_url":null,"soiltest_xml_url":0,"soiltest_view_url":0},{"id":505921,"code":"B4KJ202201000-8457","latitude":"35.687777","longitude":"139.977782","source_code":"201083535520050002","project_name":"","survey_name":"\u56fd\u9053357\u53f7\u5730\u8cea\u8abf\u67fb\u696d\u52d922J6","client_name":"\u56fd\u9053\u4ea4\u901a\u7701\u95a2\u6771\u5730\u65b9\u6574\u5099\u5c40\u5343\u8449\u56fd\u9053\u4e8b\u52d9\u6240","boring_xml_url":64,"boring_view_url":1,"soilmap_view_url":null,"soiltest_xml_url":0,"soiltest_view_url":0},{"id":505920,"code":"B4KJ202201000-8456","latitude":"35.637777","longitude":"140.078059","source_code":"201083535520050001","project_name":"","survey_name":"\u56fd\u9053357\u53f7\u5730\u8cea\u8abf\u67fb\u696d\u52d922J6","client_name":"\u56fd\u9053\u4ea4\u901a\u7701\u95a2\u6771\u5730\u65b9\u6574\u5099\u5c40\u5343\u8449\u56fd\u9053\u4e8b\u52d9\u6240","boring_xml_url":64,"boring_view_url":1,"soilmap_view_url":null,"soiltest_xml_url":0,"soiltest_view_url":0},{"id":505919,"code":"B4KJ202201000-8455","latitude":"35.802805","longitude":"139.654449","source_code":"201083566620010012","project_name":"","survey_name":"\u5e73\u621022\u5e74\u5ea6\u6238\u7530\u516c\u5712\u5730\u533a\u4ed6\u9ad8\u898f\u683c\u5824\u9632\u8a2d\u8a08\u691c\u8a0e\u696d\u52d9","client_name":"\u56fd\u571f\u4ea4\u901a\u7701\u8352\u5ddd\u4e0b\u6d41\u6cb3\u5ddd\u4e8b\u52d9\u6240","boring_xml_url":64,"boring_view_url":1,"soilmap_view_url":null,"soiltest_xml_url":0,"soiltest_view_url":0},{"id":505918,"code":"B4KJ202201000-8454","latitude":"35.80225","longitude":"139.655449","source_code":"201083566620010011","project_name":"","survey_name":"\u5e73\u621022\u5e74\u5ea6\u6238\u7530\u516c\u5712\u5730\u533a\u4ed6\u9ad8\u898f\u683c\u5824\u9632\u8a2d\u8a08\u691c\u8a0e\u696d\u52d9","client_name":"\u56fd\u571f\u4ea4\u901a\u7701\u8352\u5ddd\u4e0b\u6d41\u6cb3\u5ddd\u4e8b\u52d9\u6240","boring_xml_url":64,"boring_view_url":1,"soilmap_view_url":null,"soiltest_xml_url":0,"soiltest_view_url":0},{"id":505917,"code":"B4KJ202201000-8453","latitude":"35.802583","longitude":"139.654615","source_code":"201083566620010010","project_name":"","survey_name":"\u5e73\u621022\u5e74\u5ea6\u6238\u7530\u516c\u5712\u5730\u533a\u4ed6\u9ad8\u898f\u683c\u5824\u9632\u8a2d\u8a08\u691c\u8a0e\u696d\u52d9","client_name":"\u56fd\u571f\u4ea4\u901a\u7701\u8352\u5ddd\u4e0b\u6d41\u6cb3\u5ddd\u4e8b\u52d9\u6240","boring_xml_url":64,"boring_view_url":1,"soilmap_view_url":null,"soiltest_xml_url":0,"soiltest_view_url":0},{"id":505916,"code":"B4KJ202201000-8452","latitude":"35.802389","longitude":"139.65456","source_code":"201083566620010009","project_name":"","survey_name":"\u5e73\u621022\u5e74\u5ea6\u6238\u7530\u516c\u5712\u5730\u533a\u4ed6\u9ad8\u898f\u683c\u5824\u9632\u8a2d\u8a08\u691c\u8a0e\u696d\u52d9","client_name":"\u56fd\u571f\u4ea4\u901a\u7701\u8352\u5ddd\u4e0b\u6d41\u6cb3\u5ddd\u4e8b\u52d9\u6240","boring_xml_url":64,"boring_view_url":1,"soilmap_view_url":null,"soiltest_xml_url":0,"soiltest_view_url":0},{"id":505915,"code":"B4KJ202201000-8451","latitude":"35.802416","longitude":"139.654865","source_code":"201083566620010008","project_name":"","survey_name":"\u5e73\u621022\u5e74\u5ea6\u6238\u7530\u516c\u5712\u5730\u533a\u4ed6\u9ad8\u898f\u683c\u5824\u9632\u8a2d\u8a08\u691c\u8a0e\u696d\u52d9","client_name":"\u56fd\u571f\u4ea4\u901a\u7701\u8352\u5ddd\u4e0b\u6d41\u6cb3\u5ddd\u4e8b\u52d9\u6240","boring_xml_url":64,"boring_view_url":1,"soilmap_view_url":null,"soiltest_xml_url":0,"soiltest_view_url":0},{"id":505914,"code":"B4KJ202201000-8450","latitude":"35.802389","longitude":"139.654838","source_code":"201083566620010007","project_name":"","survey_name":"\u5e73\u621022\u5e74\u5ea6\u6238\u7530\u516c\u5712\u5730\u533a\u4ed6\u9ad8\u898f\u683c\u5824\u9632\u8a2d\u8a08\u691c\u8a0e\u696d\u52d9","client_name":"\u56fd\u571f\u4ea4\u901a\u7701\u8352\u5ddd\u4e0b\u6d41\u6cb3\u5ddd\u4e8b\u52d9\u6240","boring_xml_url":64,"boring_view_url":1,"soilmap_view_url":null,"soiltest_xml_url":0,"soiltest_view_url":0},{"id":505913,"code":"B4KJ202201000-8449","latitude":"35.802278","longitude":"139.654754","source_code":"201083566620010006","project_name":"","survey_name":"\u5e73\u621022\u5e74\u5ea6\u6238\u7530\u516c\u5712\u5730\u533a\u4ed6\u9ad8\u898f\u683c\u5824\u9632\u8a2d\u8a08\u691c\u8a0e\u696d\u52d9","client_name":"\u56fd\u571f\u4ea4\u901a\u7701\u8352\u5ddd\u4e0b\u6d41\u6cb3\u5ddd\u4e8b\u52d9\u6240","boring_xml_url":64,"boring_view_url":1,"soilmap_view_url":null,"soiltest_xml_url":0,"soiltest_view_url":0},{"id":505912,"code":"B4KJ202201000-8448","latitude":"35.802611","longitude":"139.655227","source_code":"201083566620010005","project_name":"","survey_name":"\u5e73\u621022\u5e74\u5ea6\u6238\u7530\u516c\u5712\u5730\u533a\u4ed6\u9ad8\u898f\u683c\u5824\u9632\u8a2d\u8a08\u691c\u8a0e\u696d\u52d9","client_name":"\u56fd\u571f\u4ea4\u901a\u7701\u8352\u5ddd\u4e0b\u6d41\u6cb3\u5ddd\u4e8b\u52d9\u6240","boring_xml_url":64,"boring_view_url":1,"soilmap_view_url":null,"soiltest_xml_url":0,"soiltest_view_url":0},{"id":505911,"code":"B4KJ202201000-8447","latitude":"35.80225","longitude":"139.655227","source_code":"201083566620010004","project_name":"","survey_name":"\u5e73\u621022\u5e74\u5ea6\u6238\u7530\u516c\u5712\u5730\u533a\u4ed6\u9ad8\u898f\u683c\u5824\u9632\u8a2d\u8a08\u691c\u8a0e\u696d\u52d9","client_name":"\u56fd\u571f\u4ea4\u901a\u7701\u8352\u5ddd\u4e0b\u6d41\u6cb3\u5ddd\u4e8b\u52d9\u6240","boring_xml_url":64,"boring_view_url":1,"soilmap_view_url":null,"soiltest_xml_url":0,"soiltest_view_url":0}]}}