{"header":{"xyz":{"source":[],"mosaic":false},"page":1320,"raw":{"soiltest_result":"0","bbox":"57.598333,109.544722,1.933333,163.806111","page":"1320"},"conditions":{"soiltest_result":0,"north":57.598333,"west":109.544722,"south":1.933333,"east":163.806111},"success":true,"message":""},"data":{"meta":{"total":212844,"page":1320,"pages":7095,"count":30},"values":[{"id":505790,"code":"B4KJ202201000-8326","latitude":"35.564242","longitude":"139.311875","source_code":"200983584820140001","project_name":"","survey_name":"21G\u3055\u304c\u307f\u7e26\u8cab\u9053\u8def\u88dc\u8db3\u5730\u8cea\u8abf\u67fb","client_name":"\u56fd\u571f\u4ea4\u901a\u7701\u95a2\u6771\u5730\u65b9\u6574\u5099\u5c40\u76f8\u6b66\u56fd\u9053\u4e8b\u52d9\u6240","boring_xml_url":64,"boring_view_url":1,"soilmap_view_url":null,"soiltest_xml_url":0,"soiltest_view_url":0},{"id":505789,"code":"B4KJ202201000-8325","latitude":"35.776305","longitude":"139.740477","source_code":"200983566620090006","project_name":"","survey_name":"\u5e73\u621021\u5e74\u5ea6\u3000\u65b0\u7530\u5730\u533a\u5730\u8cea\u8abf\u67fb\u696d\u52d9","client_name":"\u56fd\u571f\u4ea4\u901a\u7701\u3000\u95a2\u6771\u5730\u65b9\u6574\u5099\u5c40\u3000\u8352\u5ddd\u4e0b\u6d41\u6cb3\u5ddd\u4e8b\u52d9\u6240","boring_xml_url":64,"boring_view_url":1,"soilmap_view_url":null,"soiltest_xml_url":0,"soiltest_view_url":0},{"id":505788,"code":"B4KJ202201000-8324","latitude":"35.776667","longitude":"139.741004","source_code":"200983566620090005","project_name":"","survey_name":"\u5e73\u621021\u5e74\u5ea6\u3000\u65b0\u7530\u5730\u533a\u5730\u8cea\u8abf\u67fb\u696d\u52d9","client_name":"\u56fd\u571f\u4ea4\u901a\u7701\u3000\u95a2\u6771\u5730\u65b9\u6574\u5099\u5c40\u3000\u8352\u5ddd\u4e0b\u6d41\u6cb3\u5ddd\u4e8b\u52d9\u6240","boring_xml_url":64,"boring_view_url":1,"soilmap_view_url":null,"soiltest_xml_url":0,"soiltest_view_url":0},{"id":505787,"code":"B4KJ202201000-8323","latitude":"35.776917","longitude":"139.74156","source_code":"200983566620090004","project_name":"","survey_name":"\u5e73\u621021\u5e74\u5ea6\u3000\u65b0\u7530\u5730\u533a\u5730\u8cea\u8abf\u67fb\u696d\u52d9","client_name":"\u56fd\u571f\u4ea4\u901a\u7701\u3000\u95a2\u6771\u5730\u65b9\u6574\u5099\u5c40\u3000\u8352\u5ddd\u4e0b\u6d41\u6cb3\u5ddd\u4e8b\u52d9\u6240","boring_xml_url":64,"boring_view_url":1,"soilmap_view_url":null,"soiltest_xml_url":0,"soiltest_view_url":0},{"id":505786,"code":"B4KJ202201000-8322","latitude":"35.777111","longitude":"139.740032","source_code":"200983566620090003","project_name":"","survey_name":"\u5e73\u621021\u5e74\u5ea6\u3000\u65b0\u7530\u5730\u533a\u5730\u8cea\u8abf\u67fb\u696d\u52d9","client_name":"\u56fd\u571f\u4ea4\u901a\u7701\u3000\u95a2\u6771\u5730\u65b9\u6574\u5099\u5c40\u3000\u8352\u5ddd\u4e0b\u6d41\u6cb3\u5ddd\u4e8b\u52d9\u6240","boring_xml_url":64,"boring_view_url":1,"soilmap_view_url":null,"soiltest_xml_url":0,"soiltest_view_url":0},{"id":505785,"code":"B4KJ202201000-8321","latitude":"35.777305","longitude":"139.740477","source_code":"200983566620090002","project_name":"","survey_name":"\u5e73\u621021\u5e74\u5ea6\u3000\u65b0\u7530\u5730\u533a\u5730\u8cea\u8abf\u67fb\u696d\u52d9","client_name":"\u56fd\u571f\u4ea4\u901a\u7701\u3000\u95a2\u6771\u5730\u65b9\u6574\u5099\u5c40\u3000\u8352\u5ddd\u4e0b\u6d41\u6cb3\u5ddd\u4e8b\u52d9\u6240","boring_xml_url":64,"boring_view_url":1,"soilmap_view_url":null,"soiltest_xml_url":0,"soiltest_view_url":0},{"id":505784,"code":"B4KJ202201000-8320","latitude":"35.777528","longitude":"139.741115","source_code":"200983566620090001","project_name":"","survey_name":"\u5e73\u621021\u5e74\u5ea6\u3000\u65b0\u7530\u5730\u533a\u5730\u8cea\u8abf\u67fb\u696d\u52d9","client_name":"\u56fd\u571f\u4ea4\u901a\u7701\u3000\u95a2\u6771\u5730\u65b9\u6574\u5099\u5c40\u3000\u8352\u5ddd\u4e0b\u6d41\u6cb3\u5ddd\u4e8b\u52d9\u6240","boring_xml_url":64,"boring_view_url":1,"soilmap_view_url":null,"soiltest_xml_url":0,"soiltest_view_url":0},{"id":505783,"code":"B4KJ202201000-8319","latitude":"35.738389","longitude":"139.824615","source_code":"200983565820130001","project_name":"\u5e73\u621021\u5e74\u5ea6\u3000\u5800\u5207\u5730\u533a\u5730\u8cea\u8abf\u67fb\u696d\u52d9","survey_name":"\u5e73\u621021\u5e74\u5ea6\u3000\u5800\u5207\u5730\u533a\u5730\u8cea\u8abf\u67fb\u696d\u52d9","client_name":"\u56fd\u571f\u4ea4\u901a\u7701\u3000\u95a2\u6771\u5730\u65b9\u6574\u5099\u5c40\u3000\u8352\u5ddd\u4e0b\u6d41\u6cb3\u5ddd\u4e8b\u52d9\u6240","boring_xml_url":64,"boring_view_url":1,"soilmap_view_url":null,"soiltest_xml_url":0,"soiltest_view_url":0},{"id":505782,"code":"B4KJ202201000-8318","latitude":"35.873527","longitude":"140.116978","source_code":"200983506020150005","project_name":"","survey_name":"H21\u5229\u6839\u5ddd\u4e0b\u6d41\u7ba1\u5185\u8239\u7740\u5834\u8a2d\u8a08\u696d\u52d9","client_name":"\u56fd\u571f\u4ea4\u901a\u7701\u3000\u5229\u6839\u5ddd\u4e0b\u6d41\u6cb3\u5ddd\u4e8b\u52d9\u6240","boring_xml_url":64,"boring_view_url":1,"soilmap_view_url":null,"soiltest_xml_url":0,"soiltest_view_url":0},{"id":505781,"code":"B4KJ202201000-8317","latitude":"35.876971","longitude":"140.34309","source_code":"200983506020150004","project_name":"","survey_name":"H21\u5229\u6839\u5ddd\u4e0b\u6d41\u7ba1\u5185\u8239\u7740\u5834\u8a2d\u8a08\u696d\u52d9","client_name":"\u56fd\u571f\u4ea4\u901a\u7701\u3000\u5229\u6839\u5ddd\u4e0b\u6d41\u6cb3\u5ddd\u4e8b\u52d9\u6240","boring_xml_url":64,"boring_view_url":1,"soilmap_view_url":null,"soiltest_xml_url":0,"soiltest_view_url":0},{"id":505780,"code":"B4KJ202201000-8316","latitude":"35.908277","longitude":"140.403174","source_code":"200983506020150003","project_name":"","survey_name":"H21\u5229\u6839\u5ddd\u4e0b\u6d41\u7ba1\u5185\u8239\u7740\u5834\u8a2d\u8a08\u696d\u52d9","client_name":"\u56fd\u571f\u4ea4\u901a\u7701\u3000\u5229\u6839\u5ddd\u4e0b\u6d41\u6cb3\u5ddd\u4e8b\u52d9\u6240","boring_xml_url":64,"boring_view_url":1,"soilmap_view_url":null,"soiltest_xml_url":0,"soiltest_view_url":0},{"id":505779,"code":"B4KJ202201000-8315","latitude":"35.850359","longitude":"140.66287","source_code":"200983506020150002","project_name":"","survey_name":"H21\u5229\u6839\u5ddd\u4e0b\u6d41\u7ba1\u5185\u8239\u7740\u5834\u8a2d\u8a08\u696d\u52d9","client_name":"\u56fd\u571f\u4ea4\u901a\u7701\u3000\u5229\u6839\u5ddd\u4e0b\u6d41\u6cb3\u5ddd\u4e8b\u52d9\u6240","boring_xml_url":64,"boring_view_url":1,"soilmap_view_url":null,"soiltest_xml_url":0,"soiltest_view_url":0},{"id":505778,"code":"B4KJ202201000-8314","latitude":"35.735914","longitude":"140.82898","source_code":"200983506020150001","project_name":"","survey_name":"H21\u5229\u6839\u5ddd\u4e0b\u6d41\u7ba1\u5185\u8239\u7740\u5834\u8a2d\u8a08\u696d\u52d9","client_name":"\u56fd\u571f\u4ea4\u901a\u7701\u3000\u5229\u6839\u5ddd\u4e0b\u6d41\u6cb3\u5ddd\u4e8b\u52d9\u6240","boring_xml_url":64,"boring_view_url":1,"soilmap_view_url":null,"soiltest_xml_url":0,"soiltest_view_url":0},{"id":505777,"code":"B4KJ202201000-8313","latitude":"36.071666","longitude":"140.219175","source_code":"200983326020050002","project_name":"","survey_name":"\u5e73\u621021\u5e74\u5ea6\u6ce2\u6d6a\u5bfe\u7b56\u53ca\u3073\u690d\u751f\u7b49\u6e2c\u91cf\u8a2d\u8a08\u696d\u52d9","client_name":"\u56fd\u571f\u4ea4\u901a\u7701\u95a2\u6771\u5730\u65b9\u6574\u5099\u5c40\u971e\u30f6\u6d66\u6cb3\u5ddd\u4e8b\u52d9\u6240","boring_xml_url":64,"boring_view_url":1,"soilmap_view_url":null,"soiltest_xml_url":0,"soiltest_view_url":0},{"id":505776,"code":"B4KJ202201000-8312","latitude":"36.07361","longitude":"140.219452","source_code":"200983326020050001","project_name":"","survey_name":"\u5e73\u621021\u5e74\u5ea6\u6ce2\u6d6a\u5bfe\u7b56\u53ca\u3073\u690d\u751f\u7b49\u6e2c\u91cf\u8a2d\u8a08\u696d\u52d9","client_name":"\u56fd\u571f\u4ea4\u901a\u7701\u95a2\u6771\u5730\u65b9\u6574\u5099\u5c40\u971e\u30f6\u6d66\u6cb3\u5ddd\u4e8b\u52d9\u6240","boring_xml_url":64,"boring_view_url":1,"soilmap_view_url":null,"soiltest_xml_url":0,"soiltest_view_url":0},{"id":505775,"code":"B4KJ202201000-8311","latitude":"35.684444","longitude":"138.58889","source_code":"200883656120330006","project_name":"","survey_name":"\"\u5e73\u621020\u5e74\u5ea6 \u65b0\u5c71\u68a8\u74b0\u72b6\u9053\u8def\u6c34\u6587\u8abf\u67fb\"","client_name":"\"\u56fd\u571f\u4ea4\u901a\u7701 \u95a2\u6771\u5730\u65b9\u6574\u5099\u5c40 \u7532\u5e9c\u6cb3\u5ddd\u56fd\u9053\u4e8b\u52d9\u6240 \u8abf\u67fb\u7b2c2\u8ab2\"","boring_xml_url":64,"boring_view_url":1,"soilmap_view_url":null,"soiltest_xml_url":0,"soiltest_view_url":0},{"id":505774,"code":"B4KJ202201000-8310","latitude":"35.693611","longitude":"138.561946","source_code":"200883656120330005","project_name":"","survey_name":"\"\u5e73\u621020\u5e74\u5ea6 \u65b0\u5c71\u68a8\u74b0\u72b6\u9053\u8def\u6c34\u6587\u8abf\u67fb\"","client_name":"\"\u56fd\u571f\u4ea4\u901a\u7701 \u95a2\u6771\u5730\u65b9\u6574\u5099\u5c40 \u7532\u5e9c\u6cb3\u5ddd\u56fd\u9053\u4e8b\u52d9\u6240 \u8abf\u67fb\u7b2c2\u8ab2\"","boring_xml_url":64,"boring_view_url":1,"soilmap_view_url":null,"soiltest_xml_url":0,"soiltest_view_url":0},{"id":505773,"code":"B4KJ202201000-8309","latitude":"35.696389","longitude":"138.54639","source_code":"200883656120330004","project_name":"","survey_name":"\"\u5e73\u621020\u5e74\u5ea6 \u65b0\u5c71\u68a8\u74b0\u72b6\u9053\u8def\u6c34\u6587\u8abf\u67fb\"","client_name":"\"\u56fd\u571f\u4ea4\u901a\u7701 \u95a2\u6771\u5730\u65b9\u6574\u5099\u5c40 \u7532\u5e9c\u6cb3\u5ddd\u56fd\u9053\u4e8b\u52d9\u6240 \u8abf\u67fb\u7b2c2\u8ab2\"","boring_xml_url":64,"boring_view_url":1,"soilmap_view_url":null,"soiltest_xml_url":0,"soiltest_view_url":0},{"id":505772,"code":"B4KJ202201000-8308","latitude":"35.689722","longitude":"138.576946","source_code":"200883656120330003","project_name":"","survey_name":"\"\u5e73\u621020\u5e74\u5ea6 \u65b0\u5c71\u68a8\u74b0\u72b6\u9053\u8def\u6c34\u6587\u8abf\u67fb\"","client_name":"\"\u56fd\u571f\u4ea4\u901a\u7701 \u95a2\u6771\u5730\u65b9\u6574\u5099\u5c40 \u7532\u5e9c\u6cb3\u5ddd\u56fd\u9053\u4e8b\u52d9\u6240 \u8abf\u67fb\u7b2c2\u8ab2\"","boring_xml_url":64,"boring_view_url":1,"soilmap_view_url":null,"soiltest_xml_url":0,"soiltest_view_url":0},{"id":505771,"code":"B4KJ202201000-8307","latitude":"35.69","longitude":"138.571946","source_code":"200883656120330002","project_name":"","survey_name":"\"\u5e73\u621020\u5e74\u5ea6 \u65b0\u5c71\u68a8\u74b0\u72b6\u9053\u8def\u6c34\u6587\u8abf\u67fb\"","client_name":"\"\u56fd\u571f\u4ea4\u901a\u7701 \u95a2\u6771\u5730\u65b9\u6574\u5099\u5c40 \u7532\u5e9c\u6cb3\u5ddd\u56fd\u9053\u4e8b\u52d9\u6240 \u8abf\u67fb\u7b2c2\u8ab2\"","boring_xml_url":64,"boring_view_url":1,"soilmap_view_url":null,"soiltest_xml_url":0,"soiltest_view_url":0},{"id":505770,"code":"B4KJ202201000-8306","latitude":"35.699444","longitude":"138.524446","source_code":"200883656120330001","project_name":"","survey_name":"\"\u5e73\u621020\u5e74\u5ea6 \u65b0\u5c71\u68a8\u74b0\u72b6\u9053\u8def\u6c34\u6587\u8abf\u67fb\"","client_name":"\"\u56fd\u571f\u4ea4\u901a\u7701 \u95a2\u6771\u5730\u65b9\u6574\u5099\u5c40 \u7532\u5e9c\u6cb3\u5ddd\u56fd\u9053\u4e8b\u52d9\u6240 \u8abf\u67fb\u7b2c2\u8ab2\"","boring_xml_url":64,"boring_view_url":1,"soilmap_view_url":null,"soiltest_xml_url":0,"soiltest_view_url":0},{"id":505769,"code":"B4KJ202201000-8305","latitude":"35.659444","longitude":"138.557223","source_code":"200883656120140002","project_name":"\u5e73\u621020\u5e74\u5ea6\u3000\u8352\u5ddd\u6a4b\u4ed6\u9053\u8def\u8a2d\u8a08\u696d\u52d9","survey_name":"\u5e73\u621020\u5e74\u5ea6\u3000\u8352\u5ddd\u6a4b\u4ed6\u9053\u8def\u8a2d\u8a08\u696d\u52d9","client_name":"\u56fd\u571f\u4ea4\u901a\u7701\u95a2\u6771\u5730\u65b9\u6574\u5099\u5c40\u7532\u5e9c\u6cb3\u5ddd\u56fd\u9053\u4e8b\u52d9\u6240","boring_xml_url":64,"boring_view_url":1,"soilmap_view_url":null,"soiltest_xml_url":0,"soiltest_view_url":0},{"id":505768,"code":"B4KJ202201000-8304","latitude":"35.658611","longitude":"138.55639","source_code":"200883656120140001","project_name":"\u5e73\u621020\u5e74\u5ea6\u3000\u8352\u5ddd\u6a4b\u4ed6\u9053\u8def\u8a2d\u8a08\u696d\u52d9","survey_name":"\u5e73\u621020\u5e74\u5ea6\u3000\u8352\u5ddd\u6a4b\u4ed6\u9053\u8def\u8a2d\u8a08\u696d\u52d9","client_name":"\u56fd\u571f\u4ea4\u901a\u7701\u95a2\u6771\u5730\u65b9\u6574\u5099\u5c40\u7532\u5e9c\u6cb3\u5ddd\u56fd\u9053\u4e8b\u52d9\u6240","boring_xml_url":64,"boring_view_url":1,"soilmap_view_url":null,"soiltest_xml_url":0,"soiltest_view_url":0},{"id":505767,"code":"B4KJ202201000-8303","latitude":"36.507438","longitude":"140.460482","source_code":"200983306020160003","project_name":"H21\u8abf\u67fb\u8cc7\u6599\u4f5c\u6210\u696d\u52d9(\u74dc\u9023\u5730\u533a\u5730\u8cea\u8abf\u67fb)","survey_name":"H21\u8abf\u67fb\u8cc7\u6599\u4f5c\u6210\u696d\u52d9(\u74dc\u9023\u5730\u533a\u5730\u8cea\u8abf\u67fb)","client_name":"\u56fd\u571f\u4ea4\u901a\u7701\u95a2\u6771\u6574\u5099\u5c40\u5e38\u9678\u6cb3\u5ddd\u56fd\u9053\u4e8b\u52d9\u6240","boring_xml_url":64,"boring_view_url":1,"soilmap_view_url":null,"soiltest_xml_url":0,"soiltest_view_url":0},{"id":505766,"code":"B4KJ202201000-8302","latitude":"36.50732","longitude":"140.460271","source_code":"200983306020160002","project_name":"H21\u8abf\u67fb\u8cc7\u6599\u4f5c\u6210\u696d\u52d9(\u74dc\u9023\u5730\u533a\u5730\u8cea\u8abf\u67fb)","survey_name":"H21\u8abf\u67fb\u8cc7\u6599\u4f5c\u6210\u696d\u52d9(\u74dc\u9023\u5730\u533a\u5730\u8cea\u8abf\u67fb)","client_name":"\u56fd\u571f\u4ea4\u901a\u7701\u95a2\u6771\u5730\u65b9\u6574\u5099\u5c40\u5e38\u9678\u6cb3\u5ddd\u56fd\u9053\u4e8b\u52d9\u6240","boring_xml_url":64,"boring_view_url":1,"soilmap_view_url":null,"soiltest_xml_url":0,"soiltest_view_url":0},{"id":505765,"code":"B4KJ202201000-8301","latitude":"36.507401","longitude":"140.46042","source_code":"200983306020160001","project_name":"H21\u8abf\u67fb\u8cc7\u6599\u4f5c\u6210\u696d\u52d9(\u74dc\u9023\u5730\u533a\u5730\u8cea\u8abf\u67fb)","survey_name":"H21\u8abf\u67fb\u8cc7\u6599\u4f5c\u6210\u696d\u52d9(\u74dc\u9023\u5730\u533a\u5730\u8cea\u8abf\u67fb)","client_name":"\u56fd\u571f\u4ea4\u901a\u7701\u95a2\u6771\u5730\u65b9\u6574\u5099\u5c40\u5e38\u9678\u6cb3\u5ddd\u56fd\u9053\u4e8b\u52d9\u6240","boring_xml_url":64,"boring_view_url":1,"soilmap_view_url":null,"soiltest_xml_url":0,"soiltest_view_url":0},{"id":505764,"code":"B4KJ202201000-8300","latitude":"35.580556","longitude":"139.294447","source_code":"200983584820060005","project_name":"21G\u3055\u304c\u307f\u7e26\u8cab\u9053\u8def\u6c34\u6587\u8abf\u67fb","survey_name":"21G\u3055\u304c\u307f\u7e26\u8cab\u9053\u8def\u6c34\u6587\u8abf\u67fb","client_name":"\u56fd\u571f\u4ea4\u901a\u7701\u95a2\u6771\u5730\u65b9\u6574\u5099\u5c40\u76f8\u6b66\u56fd\u9053\u4e8b\u52d9\u6240","boring_xml_url":64,"boring_view_url":1,"soilmap_view_url":null,"soiltest_xml_url":0,"soiltest_view_url":0},{"id":505763,"code":"B4KJ202201000-8299","latitude":"35.579722","longitude":"139.294447","source_code":"200983584820060004","project_name":"21G\u3055\u304c\u307f\u7e26\u8cab\u9053\u8def\u6c34\u6587\u8abf\u67fb","survey_name":"21G\u3055\u304c\u307f\u7e26\u8cab\u9053\u8def\u6c34\u6587\u8abf\u67fb","client_name":"\u56fd\u571f\u4ea4\u901a\u7701\u95a2\u6771\u5730\u65b9\u6574\u5099\u5c40\u76f8\u6b66\u56fd\u9053\u4e8b\u52d9\u6240","boring_xml_url":64,"boring_view_url":1,"soilmap_view_url":null,"soiltest_xml_url":0,"soiltest_view_url":0},{"id":505762,"code":"B4KJ202201000-8298","latitude":"35.581667","longitude":"139.29528","source_code":"200983584820060003","project_name":"21G\u3055\u304c\u307f\u7e26\u8cab\u9053\u8def\u6c34\u6587\u8abf\u67fb","survey_name":"21G\u3055\u304c\u307f\u7e26\u8cab\u9053\u8def\u6c34\u6587\u8abf\u67fb","client_name":"\u56fd\u571f\u4ea4\u901a\u7701\u95a2\u6771\u5730\u65b9\u6574\u5099\u5c40\u76f8\u6b66\u56fd\u9053\u4e8b\u52d9\u6240","boring_xml_url":64,"boring_view_url":1,"soilmap_view_url":null,"soiltest_xml_url":0,"soiltest_view_url":0},{"id":505761,"code":"B4KJ202201000-8297","latitude":"35.579722","longitude":"139.294447","source_code":"200983584820060002","project_name":"21G\u3055\u304c\u307f\u7e26\u8cab\u9053\u8def\u6c34\u6587\u8abf\u67fb","survey_name":"21G\u3055\u304c\u307f\u7e26\u8cab\u9053\u8def\u6c34\u6587\u8abf\u67fb","client_name":"\u56fd\u571f\u4ea4\u901a\u7701\u95a2\u6771\u5730\u65b9\u6574\u5099\u5c40\u76f8\u6b66\u56fd\u9053\u4e8b\u52d9\u6240","boring_xml_url":64,"boring_view_url":1,"soilmap_view_url":null,"soiltest_xml_url":0,"soiltest_view_url":0}]}}