{"header":{"xyz":{"source":[],"mosaic":false},"page":1324,"raw":{"soiltest_result":"0","bbox":"57.598333,109.544722,1.933333,163.806111","page":"1324"},"conditions":{"soiltest_result":0,"north":57.598333,"west":109.544722,"south":1.933333,"east":163.806111},"success":true,"message":""},"data":{"meta":{"total":212844,"page":1324,"pages":7095,"count":30},"values":[{"id":505670,"code":"B4KJ202201000-8206","latitude":"35.796639","longitude":"139.683782","source_code":"200883566020290010","project_name":"","survey_name":"\u5e73\u621020\u5e74\u5ea6\u3000\u5ca9\u6df5\u7ba1\u5185\u5730\u8cea\u8abf\u67fb\u696d\u52d9","client_name":"\u56fd\u571f\u4ea4\u901a\u7701\u3000\u95a2\u6771\u5730\u65b9\u6574\u5099\u5c40\u3000\u8352\u5ddd\u4e0b\u6d41\u6cb3\u5ddd\u4e8b\u52d9\u6240","boring_xml_url":64,"boring_view_url":1,"soilmap_view_url":null,"soiltest_xml_url":0,"soiltest_view_url":0},{"id":505669,"code":"B4KJ202201000-8205","latitude":"35.798722","longitude":"139.683588","source_code":"200883566020290009","project_name":"","survey_name":"\u5e73\u621020\u5e74\u5ea6\u3000\u5ca9\u6df5\u7ba1\u5185\u5730\u8cea\u8abf\u67fb\u696d\u52d9","client_name":"\u56fd\u571f\u4ea4\u901a\u7701\u3000\u95a2\u6771\u5730\u65b9\u6574\u5099\u5c40\u3000\u8352\u5ddd\u4e0b\u6d41\u6cb3\u5ddd\u4e8b\u52d9\u6240","boring_xml_url":64,"boring_view_url":1,"soilmap_view_url":null,"soiltest_xml_url":0,"soiltest_view_url":0},{"id":505668,"code":"B4KJ202201000-8204","latitude":"35.796","longitude":"139.681643","source_code":"200883566020290008","project_name":"","survey_name":"\u5e73\u621020\u5e74\u5ea6\u3000\u5ca9\u6df5\u7ba1\u5185\u5730\u8cea\u8abf\u67fb\u696d\u52d9","client_name":"\u56fd\u571f\u4ea4\u901a\u7701\u3000\u95a2\u6771\u5730\u65b9\u6574\u5099\u5c40\u3000\u8352\u5ddd\u4e0b\u6d41\u6cb3\u5ddd\u4e8b\u52d9\u6240","boring_xml_url":64,"boring_view_url":1,"soilmap_view_url":null,"soiltest_xml_url":0,"soiltest_view_url":0},{"id":505667,"code":"B4KJ202201000-8203","latitude":"35.796444","longitude":"139.681615","source_code":"200883566020290007","project_name":"","survey_name":"\u5e73\u621020\u5e74\u5ea6\u3000\u5ca9\u6df5\u7ba1\u5185\u5730\u8cea\u8abf\u67fb\u696d\u52d9","client_name":"\u56fd\u571f\u4ea4\u901a\u7701\u3000\u95a2\u6771\u5730\u65b9\u6574\u5099\u5c40\u3000\u8352\u5ddd\u4e0b\u6d41\u6cb3\u5ddd\u4e8b\u52d9\u6240","boring_xml_url":64,"boring_view_url":1,"soilmap_view_url":null,"soiltest_xml_url":0,"soiltest_view_url":0},{"id":505666,"code":"B4KJ202201000-8202","latitude":"35.798222","longitude":"139.681477","source_code":"200883566020290006","project_name":"","survey_name":"\u5e73\u621020\u5e74\u5ea6\u3000\u5ca9\u6df5\u7ba1\u5185\u5730\u8cea\u8abf\u67fb\u696d\u52d9","client_name":"\u56fd\u571f\u4ea4\u901a\u7701\u3000\u95a2\u6771\u5730\u65b9\u6574\u5099\u5c40\u3000\u8352\u5ddd\u4e0b\u6d41\u6cb3\u5ddd\u4e8b\u52d9\u6240","boring_xml_url":64,"boring_view_url":1,"soilmap_view_url":null,"soiltest_xml_url":0,"soiltest_view_url":0},{"id":505665,"code":"B4KJ202201000-8201","latitude":"35.796","longitude":"139.680754","source_code":"200883566020290005","project_name":"","survey_name":"\u5e73\u621020\u5e74\u5ea6\u3000\u5ca9\u6df5\u7ba1\u5185\u5730\u8cea\u8abf\u67fb\u696d\u52d9","client_name":"\u56fd\u571f\u4ea4\u901a\u7701\u3000\u95a2\u6771\u5730\u65b9\u6574\u5099\u5c40\u3000\u8352\u5ddd\u4e0b\u6d41\u6cb3\u5ddd\u4e8b\u52d9\u6240","boring_xml_url":64,"boring_view_url":1,"soilmap_view_url":null,"soiltest_xml_url":0,"soiltest_view_url":0},{"id":505664,"code":"B4KJ202201000-8200","latitude":"35.796416","longitude":"139.680699","source_code":"200883566020290004","project_name":"","survey_name":"\u5e73\u621020\u5e74\u5ea6\u3000\u5ca9\u6df5\u7ba1\u5185\u5730\u8cea\u8abf\u67fb\u696d\u52d9","client_name":"\u56fd\u571f\u4ea4\u901a\u7701\u3000\u95a2\u6771\u5730\u65b9\u6574\u5099\u5c40\u3000\u8352\u5ddd\u4e0b\u6d41\u6cb3\u5ddd\u4e8b\u52d9\u6240","boring_xml_url":64,"boring_view_url":1,"soilmap_view_url":null,"soiltest_xml_url":0,"soiltest_view_url":0},{"id":505663,"code":"B4KJ202201000-8199","latitude":"35.797944","longitude":"139.680699","source_code":"200883566020290003","project_name":"","survey_name":"\u5e73\u621020\u5e74\u5ea6\u3000\u5ca9\u6df5\u7ba1\u5185\u5730\u8cea\u8abf\u67fb\u696d\u52d9","client_name":"\u56fd\u571f\u4ea4\u901a\u7701\u3000\u95a2\u6771\u5730\u65b9\u6574\u5099\u5c40\u3000\u8352\u5ddd\u4e0b\u6d41\u6cb3\u5ddd\u4e8b\u52d9\u6240","boring_xml_url":64,"boring_view_url":1,"soilmap_view_url":null,"soiltest_xml_url":0,"soiltest_view_url":0},{"id":505662,"code":"B4KJ202201000-8198","latitude":"35.80125","longitude":"139.650088","source_code":"200883566020290002","project_name":"","survey_name":"\u5e73\u621020\u5e74\u5ea6\u3000\u5ca9\u6df5\u7ba1\u5185\u5730\u8cea\u8abf\u67fb\u696d\u52d9","client_name":"\u56fd\u571f\u4ea4\u901a\u7701\u3000\u95a2\u6771\u5730\u65b9\u6574\u5099\u5c40\u3000\u8352\u5ddd\u4e0b\u6d41\u6cb3\u5ddd\u4e8b\u52d9\u6240","boring_xml_url":64,"boring_view_url":1,"soilmap_view_url":null,"soiltest_xml_url":0,"soiltest_view_url":0},{"id":505661,"code":"B4KJ202201000-8197","latitude":"35.800666","longitude":"139.650004","source_code":"200883566020290001","project_name":"","survey_name":"\u5e73\u621020\u5e74\u5ea6\u3000\u5ca9\u6df5\u7ba1\u5185\u5730\u8cea\u8abf\u67fb\u696d\u52d9","client_name":"\u56fd\u571f\u4ea4\u901a\u7701\u3000\u95a2\u6771\u5730\u65b9\u6574\u5099\u5c40\u3000\u8352\u5ddd\u4e0b\u6d41\u6cb3\u5ddd\u4e8b\u52d9\u6240","boring_xml_url":64,"boring_view_url":1,"soilmap_view_url":null,"soiltest_xml_url":0,"soiltest_view_url":0},{"id":505660,"code":"B4KJ202201000-8196","latitude":"35.666906","longitude":"139.31743","source_code":"200583606020630026","project_name":"","survey_name":"\u6d45\u5ddd\u5824\u9632\u5730\u8cea\u8abf\u67fb\u696d\u52d9","client_name":"\u56fd\u571f\u4ea4\u901a\u7701\u3000\u95a2\u6771\u5730\u65b9\u6574\u5099\u5c40\u3000\u4eac\u6d5c\u6cb3\u5ddd\u4e8b\u52d9\u6240","boring_xml_url":64,"boring_view_url":1,"soilmap_view_url":null,"soiltest_xml_url":0,"soiltest_view_url":0},{"id":505659,"code":"B4KJ202201000-8195","latitude":"35.666975","longitude":"139.317444","source_code":"200583606020630025","project_name":"","survey_name":"\u6d45\u5ddd\u5824\u9632\u5730\u8cea\u8abf\u67fb\u696d\u52d9","client_name":"\u56fd\u571f\u4ea4\u901a\u7701\u3000\u95a2\u6771\u5730\u65b9\u6574\u5099\u5c40\u3000\u4eac\u6d5c\u6cb3\u5ddd\u4e8b\u52d9\u6240","boring_xml_url":64,"boring_view_url":1,"soilmap_view_url":null,"soiltest_xml_url":0,"soiltest_view_url":0},{"id":505658,"code":"B4KJ202201000-8194","latitude":"35.666439","longitude":"139.334472","source_code":"200583606020630024","project_name":"","survey_name":"\u6d45\u5ddd\u5824\u9632\u5730\u8cea\u8abf\u67fb\u696d\u52d9","client_name":"\u56fd\u571f\u4ea4\u901a\u7701\u3000\u95a2\u6771\u5730\u65b9\u6574\u5099\u5c40\u3000\u4eac\u6d5c\u6cb3\u5ddd\u4e8b\u52d9\u6240","boring_xml_url":64,"boring_view_url":1,"soilmap_view_url":null,"soiltest_xml_url":0,"soiltest_view_url":0},{"id":505657,"code":"B4KJ202201000-8193","latitude":"35.666511","longitude":"139.334467","source_code":"200583606020630023","project_name":"","survey_name":"\u6d45\u5ddd\u5824\u9632\u5730\u8cea\u8abf\u67fb\u696d\u52d9","client_name":"\u56fd\u571f\u4ea4\u901a\u7701\u3000\u95a2\u6771\u5730\u65b9\u6574\u5099\u5c40\u3000\u4eac\u6d5c\u6cb3\u5ddd\u4e8b\u52d9\u6240","boring_xml_url":64,"boring_view_url":1,"soilmap_view_url":null,"soiltest_xml_url":0,"soiltest_view_url":0},{"id":505656,"code":"B4KJ202201000-8192","latitude":"35.654178","longitude":"139.355869","source_code":"200583606020630022","project_name":"","survey_name":"\u6d45\u5ddd\u5824\u9632\u5730\u8cea\u8abf\u67fb\u696d\u52d9","client_name":"\u56fd\u571f\u4ea4\u901a\u7701\u3000\u95a2\u6771\u5730\u65b9\u6574\u5099\u5c40\u3000\u4eac\u6d5c\u6cb3\u5ddd\u4e8b\u52d9\u6240","boring_xml_url":64,"boring_view_url":1,"soilmap_view_url":null,"soiltest_xml_url":0,"soiltest_view_url":0},{"id":505655,"code":"B4KJ202201000-8191","latitude":"35.654219","longitude":"139.355911","source_code":"200583606020630021","project_name":"","survey_name":"\u6d45\u5ddd\u5824\u9632\u5730\u8cea\u8abf\u67fb\u696d\u52d9","client_name":"\u56fd\u571f\u4ea4\u901a\u7701\u3000\u95a2\u6771\u5730\u65b9\u6574\u5099\u5c40\u3000\u4eac\u6d5c\u6cb3\u5ddd\u4e8b\u52d9\u6240","boring_xml_url":64,"boring_view_url":1,"soilmap_view_url":null,"soiltest_xml_url":0,"soiltest_view_url":0},{"id":505654,"code":"B4KJ202201000-8190","latitude":"35.650097","longitude":"139.36035","source_code":"200583606020630020","project_name":"","survey_name":"\u6d45\u5ddd\u5824\u9632\u5730\u8cea\u8abf\u67fb\u696d\u52d9","client_name":"\u682a\u5f0f\u4f1a\u793e\u3000\u56fd\u571f\u4ea4\u901a\u7701\u3000\u95a2\u6771\u5730\u65b9\u6574\u5099\u5c40\u3000\u4eac\u6d5c\u6cb3\u5ddd\u4e8b\u52d9","boring_xml_url":64,"boring_view_url":1,"soilmap_view_url":null,"soiltest_xml_url":0,"soiltest_view_url":0},{"id":505653,"code":"B4KJ202201000-8189","latitude":"35.650142","longitude":"139.360403","source_code":"200583606020630019","project_name":"","survey_name":"\u6d45\u5ddd\u5824\u9632\u5730\u8cea\u8abf\u67fb\u696d\u52d9","client_name":"\u56fd\u571f\u4ea4\u901a\u7701\u3000\u95a2\u6771\u5730\u65b9\u6574\u5099\u5c40\u3000\u4eac\u6d5c\u6cb3\u5ddd\u4e8b\u52d9\u6240","boring_xml_url":64,"boring_view_url":1,"soilmap_view_url":null,"soiltest_xml_url":0,"soiltest_view_url":0},{"id":505652,"code":"B4KJ202201000-8188","latitude":"35.643553","longitude":"139.369866","source_code":"200583606020630018","project_name":"","survey_name":"\u6d45\u5ddd\u5824\u9632\u5730\u8cea\u8abf\u67fb\u696d\u52d9","client_name":"\u56fd\u571f\u4ea4\u901a\u7701\u3000\u95a2\u6771\u5730\u65b9\u6574\u5099\u5c40\u3000\u4eac\u6d5c\u6cb3\u5ddd\u4e8b\u52d9\u6240","boring_xml_url":64,"boring_view_url":1,"soilmap_view_url":null,"soiltest_xml_url":0,"soiltest_view_url":0},{"id":505651,"code":"B4KJ202201000-8187","latitude":"35.643608","longitude":"139.369875","source_code":"200583606020630017","project_name":"","survey_name":"\u6d45\u5ddd\u5824\u9632\u5730\u8cea\u8abf\u67fb\u696d\u52d9","client_name":"\u56fd\u571f\u4ea4\u901a\u7701\u3000\u95a2\u6771\u5730\u65b9\u6574\u5099\u5c40\u3000\u4eac\u6d5c\u6cb3\u5ddd\u4e8b\u52d9\u6240","boring_xml_url":64,"boring_view_url":1,"soilmap_view_url":null,"soiltest_xml_url":0,"soiltest_view_url":0},{"id":505650,"code":"B4KJ202201000-8186","latitude":"35.648903","longitude":"139.380361","source_code":"200583606020630016","project_name":"","survey_name":"\u6d45\u5ddd\u5824\u9632\u5730\u8cea\u8abf\u67fb\u696d\u52d9","client_name":"\u56fd\u571f\u4ea4\u901a\u7701\u3000\u95a2\u6771\u5730\u65b9\u6574\u5099\u5c40\u3000\u4eac\u6d5c\u6cb3\u5ddd\u4e8b\u52d9\u6240","boring_xml_url":64,"boring_view_url":1,"soilmap_view_url":null,"soiltest_xml_url":0,"soiltest_view_url":0},{"id":505649,"code":"B4KJ202201000-8185","latitude":"35.64895","longitude":"139.380289","source_code":"200583606020630015","project_name":"","survey_name":"\u6d45\u5ddd\u5824\u9632\u5730\u8cea\u8abf\u67fb\u696d\u52d9","client_name":"\u56fd\u571f\u4ea4\u901a\u7701\u3000\u95a2\u6771\u5730\u65b9\u6574\u5099\u5c40\u3000\u4eac\u6d5c\u6cb3\u5ddd\u4e8b\u52d9\u6240","boring_xml_url":64,"boring_view_url":1,"soilmap_view_url":null,"soiltest_xml_url":0,"soiltest_view_url":0},{"id":505648,"code":"B4KJ202201000-8184","latitude":"35.655136","longitude":"139.390305","source_code":"200583606020630014","project_name":"","survey_name":"\u6d45\u5ddd\u5824\u9632\u5730\u8cea\u8abf\u67fb\u696d\u52d9","client_name":"\u56fd\u571f\u4ea4\u901a\u7701\u3000\u95a2\u6771\u5730\u65b9\u6574\u5099\u5c40\u3000\u4eac\u6d5c\u6cb3\u5ddd\u4e8b\u52d9\u6240","boring_xml_url":64,"boring_view_url":1,"soilmap_view_url":null,"soiltest_xml_url":0,"soiltest_view_url":0},{"id":505647,"code":"B4KJ202201000-8183","latitude":"35.655172","longitude":"139.390236","source_code":"200583606020630013","project_name":"","survey_name":"\u6d45\u5ddd\u5824\u9632\u5730\u8cea\u8abf\u67fb\u696d\u52d9","client_name":"\u56fd\u571f\u4ea4\u901a\u7701\u3000\u95a2\u6771\u5730\u65b9\u6574\u5099\u5c40\u3000\u4eac\u6d5c\u6cb3\u5ddd\u4e8b\u52d9\u6240","boring_xml_url":64,"boring_view_url":1,"soilmap_view_url":null,"soiltest_xml_url":0,"soiltest_view_url":0},{"id":505646,"code":"B4KJ202201000-8182","latitude":"35.666592","longitude":"139.324905","source_code":"200583606020630012","project_name":"","survey_name":"\u6d45\u5ddd\u5824\u9632\u5730\u8cea\u8abf\u67fb\u696d\u52d9","client_name":"\u56fd\u571f\u4ea4\u901a\u7701\u3000\u95a2\u6771\u5730\u65b9\u6574\u5099\u5c40\u3000\u4eac\u6d5c\u6cb3\u5ddd\u4e8b\u52d9\u6240","boring_xml_url":64,"boring_view_url":1,"soilmap_view_url":null,"soiltest_xml_url":0,"soiltest_view_url":0},{"id":505645,"code":"B4KJ202201000-8181","latitude":"35.666528","longitude":"139.324886","source_code":"200583606020630011","project_name":"","survey_name":"\u6d45\u5ddd\u5824\u9632\u5730\u8cea\u8abf\u67fb\u696d\u52d9","client_name":"\u56fd\u571f\u4ea4\u901a\u7701\u3000\u95a2\u6771\u5730\u65b9\u6574\u5099\u5c40\u3000\u4eac\u6d5c\u6cb3\u5ddd\u4e8b\u52d9\u6240","boring_xml_url":64,"boring_view_url":1,"soilmap_view_url":null,"soiltest_xml_url":0,"soiltest_view_url":0},{"id":505644,"code":"B4KJ202201000-8180","latitude":"35.665747","longitude":"139.341661","source_code":"200583606020630010","project_name":"","survey_name":"\u6d45\u5ddd\u5824\u9632\u5730\u8cea\u8abf\u67fb\u696d\u52d9","client_name":"\u56fd\u571f\u4ea4\u901a\u7701\u3000\u95a2\u6771\u5730\u65b9\u6574\u5099\u5c40\u3000\u4eac\u6d5c\u6cb3\u5ddd\u4e8b\u52d9\u6240","boring_xml_url":64,"boring_view_url":1,"soilmap_view_url":null,"soiltest_xml_url":0,"soiltest_view_url":0},{"id":505643,"code":"B4KJ202201000-8179","latitude":"35.665717","longitude":"139.341633","source_code":"200583606020630009","project_name":"","survey_name":"\u6d45\u5ddd\u5824\u9632\u5730\u8cea\u8abf\u67fb\u696d\u52d9","client_name":"\u56fd\u571f\u4ea4\u901a\u7701\u3000\u95a2\u6771\u5730\u65b9\u6574\u5099\u5c40\u3000\u4eac\u6d5c\u6cb3\u5ddd\u4e8b\u52d9\u6240","boring_xml_url":64,"boring_view_url":1,"soilmap_view_url":null,"soiltest_xml_url":0,"soiltest_view_url":0},{"id":505642,"code":"B4KJ202201000-8178","latitude":"35.656636","longitude":"139.356258","source_code":"200583606020630008","project_name":"","survey_name":"\u6d45\u5ddd\u5824\u9632\u5730\u8cea\u8abf\u67fb\u696d\u52d9","client_name":"\u56fd\u571f\u4ea4\u901a\u7701\u3000\u95a2\u6771\u5730\u65b9\u6574\u5099\u5c40\u3000\u4eac\u6d5c\u6cb3\u5ddd\u4e8b\u52d9\u6240","boring_xml_url":64,"boring_view_url":1,"soilmap_view_url":null,"soiltest_xml_url":0,"soiltest_view_url":0},{"id":505641,"code":"B4KJ202201000-8177","latitude":"35.656614","longitude":"139.3562","source_code":"200583606020630007","project_name":"","survey_name":"\u6d45\u5ddd\u5824\u9632\u5730\u8cea\u8abf\u67fb\u696d\u52d9","client_name":"\u56fd\u571f\u4ea4\u901a\u7701\u3000\u95a2\u6771\u5730\u65b9\u6574\u5099\u5c40\u3000\u4eac\u6d5c\u6cb3\u5ddd\u4e8b\u52d9\u6240","boring_xml_url":64,"boring_view_url":1,"soilmap_view_url":null,"soiltest_xml_url":0,"soiltest_view_url":0}]}}