{"header":{"xyz":{"source":[],"mosaic":false},"page":1333,"raw":{"soiltest_result":"0","bbox":"57.598333,109.544722,1.933333,163.806111","page":"1333"},"conditions":{"soiltest_result":0,"north":57.598333,"west":109.544722,"south":1.933333,"east":163.806111},"success":true,"message":""},"data":{"meta":{"total":212844,"page":1333,"pages":7095,"count":30},"values":[{"id":505400,"code":"B4KJ202201000-7936","latitude":"39.268502","longitude":"141.838721","source_code":"TH20168239700200090015","project_name":"\u91dc\u77f3\u5927\u69cc\u5730\u533a\u5730\u8cea\u8abf\u67fb","survey_name":"\u91dc\u77f3\u5927\u69cc\u5730\u533a\u5730\u8cea\u8abf\u67fb","client_name":"\u6771\u5317\u5730\u65b9\u6574\u5099\u5c40\u3000\u5357\u4e09\u9678\u56fd\u9053\u4e8b\u52d9\u6240\u3000\u8abf\u67fb\u30fb\u54c1\u8cea\u78ba\u4fdd\u8ab2","boring_xml_url":72,"boring_view_url":1,"soilmap_view_url":null,"soiltest_xml_url":0,"soiltest_view_url":0},{"id":505399,"code":"B4KJ202201000-7935","latitude":"39.268086","longitude":"141.83886","source_code":"TH20168239700200090014","project_name":"\u91dc\u77f3\u5927\u69cc\u5730\u533a\u5730\u8cea\u8abf\u67fb","survey_name":"\u91dc\u77f3\u5927\u69cc\u5730\u533a\u5730\u8cea\u8abf\u67fb","client_name":"\u6771\u5317\u5730\u65b9\u6574\u5099\u5c40\u3000\u5357\u4e09\u9678\u56fd\u9053\u4e8b\u52d9\u6240\u3000\u8abf\u67fb\u30fb\u54c1\u8cea\u78ba\u4fdd\u8ab2","boring_xml_url":72,"boring_view_url":1,"soilmap_view_url":null,"soiltest_xml_url":0,"soiltest_view_url":0},{"id":505398,"code":"B4KJ202201000-7934","latitude":"39.359427","longitude":"141.883589","source_code":"TH20168239700200090013","project_name":"\u91dc\u77f3\u5927\u69cc\u5730\u533a\u5730\u8cea\u8abf\u67fb","survey_name":"\u91dc\u77f3\u5927\u69cc\u5730\u533a\u5730\u8cea\u8abf\u67fb","client_name":"\"\u6771\u5317\u5730\u65b9\u6574\u5099\u5c40 \u5357\u4e09\u9678\u56fd\u9053\u4e8b\u52d9\u6240 \u8abf\u67fb\u30fb\u54c1\u8cea\u78ba\u4fdd\u8ab2\"","boring_xml_url":72,"boring_view_url":1,"soilmap_view_url":null,"soiltest_xml_url":0,"soiltest_view_url":0},{"id":505397,"code":"B4KJ202201000-7933","latitude":"39.359316","longitude":"141.883866","source_code":"TH20168239700200090012","project_name":"\u91dc\u77f3\u5927\u69cc\u5730\u533a\u5730\u8cea\u8abf\u67fb","survey_name":"\u91dc\u77f3\u5927\u69cc\u5730\u533a\u5730\u8cea\u8abf\u67fb","client_name":"\"\u6771\u5317\u5730\u65b9\u6574\u5099\u5c40 \u5357\u4e09\u9678\u56fd\u9053\u4e8b\u52d9\u6240 \u8abf\u67fb\u30fb\u54c1\u8cea\u78ba\u4fdd\u8ab2\"","boring_xml_url":72,"boring_view_url":1,"soilmap_view_url":null,"soiltest_xml_url":0,"soiltest_view_url":0},{"id":505396,"code":"B4KJ202201000-7932","latitude":"39.35926","longitude":"141.883727","source_code":"TH20168239700200090011","project_name":"\u91dc\u77f3\u5927\u69cc\u5730\u533a\u5730\u8cea\u8abf\u67fb","survey_name":"\u91dc\u77f3\u5927\u69cc\u5730\u533a\u5730\u8cea\u8abf\u67fb","client_name":"\u6771\u5317\u5730\u65b9\u6574\u5099\u5c40\u3000\u5357\u4e09\u9678\u56fd\u9053\u4e8b\u52d9\u6240\u3000\u8abf\u67fb\u30fb\u54c1\u8cea\u78ba\u4fdd\u8ab2","boring_xml_url":72,"boring_view_url":1,"soilmap_view_url":null,"soiltest_xml_url":0,"soiltest_view_url":0},{"id":505395,"code":"B4KJ202201000-7931","latitude":"39.359566","longitude":"141.883561","source_code":"TH20168239700200090010","project_name":"\u91dc\u77f3\u5927\u69cc\u5730\u533a\u5730\u8cea\u8abf\u67fb","survey_name":"\u91dc\u77f3\u5927\u69cc\u5730\u533a\u5730\u8cea\u8abf\u67fb","client_name":"\u6771\u5317\u5730\u65b9\u6574\u5099\u5c40\u3000\u5357\u4e09\u9678\u56fd\u9053\u4e8b\u52d9\u6240\u3000\u8abf\u67fb\u30fb\u54c1\u8cea\u78ba\u4fdd\u8ab2","boring_xml_url":72,"boring_view_url":1,"soilmap_view_url":null,"soiltest_xml_url":0,"soiltest_view_url":0},{"id":505394,"code":"B4KJ202201000-7930","latitude":"39.359399","longitude":"141.883394","source_code":"TH20168239700200090009","project_name":"\u91dc\u77f3\u5927\u69cc\u5730\u533a\u5730\u8cea\u8abf\u67fb","survey_name":"\u91dc\u77f3\u5927\u69cc\u5730\u533a\u5730\u8cea\u8abf\u67fb","client_name":"\u6771\u5317\u5730\u65b9\u6574\u5099\u5c40\u3000\u5357\u4e09\u9678\u56fd\u9053\u4e8b\u52d9\u6240\u3000\u8abf\u67fb\u30fb\u54c1\u8cea\u78ba\u4fdd\u8ab2","boring_xml_url":72,"boring_view_url":1,"soilmap_view_url":null,"soiltest_xml_url":0,"soiltest_view_url":0},{"id":505393,"code":"B4KJ202201000-7929","latitude":"39.359038","longitude":"141.883839","source_code":"TH20168239700200090008","project_name":"\u91dc\u77f3\u5927\u69cc\u5730\u533a\u5730\u8cea\u8abf\u67fb","survey_name":"\u91dc\u77f3\u5927\u69cc\u5730\u533a\u5730\u8cea\u8abf\u67fb","client_name":"\u6771\u5317\u5730\u65b9\u6574\u5099\u5c40\u3000\u5357\u4e09\u9678\u56fd\u9053\u4e8b\u52d9\u6240\u3000\u8abf\u67fb\u30fb\u54c1\u8cea\u78ba\u4fdd\u8ab2","boring_xml_url":72,"boring_view_url":1,"soilmap_view_url":null,"soiltest_xml_url":0,"soiltest_view_url":0},{"id":505392,"code":"B4KJ202201000-7928","latitude":"39.25262","longitude":"141.813092","source_code":"TH20168239700200090007","project_name":"\u91dc\u77f3\u5927\u69cc\u5730\u533a\u5730\u8cea\u8abf\u67fb","survey_name":"\u91dc\u77f3\u5927\u69cc\u5730\u533a\u5730\u8cea\u8abf\u67fb","client_name":"\u6771\u5317\u5730\u65b9\u6574\u5099\u5c40\u3000\u5357\u4e09\u9678\u56fd\u9053\u4e8b\u52d9\u6240\u3000\u8abf\u67fb\u30fb\u54c1\u8cea\u78ba\u4fdd\u8ab2","boring_xml_url":72,"boring_view_url":1,"soilmap_view_url":null,"soiltest_xml_url":0,"soiltest_view_url":0},{"id":505391,"code":"B4KJ202201000-7927","latitude":"39.252926","longitude":"141.814953","source_code":"TH20168239700200090006","project_name":"\u91dc\u77f3\u5927\u69cc\u5730\u533a\u5730\u8cea\u8abf\u67fb","survey_name":"\u91dc\u77f3\u5927\u69cc\u5730\u533a\u5730\u8cea\u8abf\u67fb","client_name":"\u6771\u5317\u5730\u65b9\u6574\u5099\u5c40\u3000\u5357\u4e09\u9678\u56fd\u9053\u4e8b\u52d9\u6240\u3000\u8abf\u67fb\u30fb\u54c1\u8cea\u78ba\u4fdd\u8ab2","boring_xml_url":72,"boring_view_url":1,"soilmap_view_url":null,"soiltest_xml_url":0,"soiltest_view_url":0},{"id":505390,"code":"B4KJ202201000-7926","latitude":"39.253509","longitude":"141.81662","source_code":"TH20168239700200090005","project_name":"\u91dc\u77f3\u5927\u69cc\u5730\u533a\u5730\u8cea\u8abf\u67fb","survey_name":"\u91dc\u77f3\u5927\u69cc\u5730\u533a\u5730\u8cea\u8abf\u67fb","client_name":"\u6771\u5317\u5730\u65b9\u6574\u5099\u5c40\u3000\u5357\u4e09\u9678\u56fd\u9053\u4e8b\u52d9\u6240\u3000\u8abf\u67fb\u30fb\u54c1\u8cea\u78ba\u4fdd\u8ab2","boring_xml_url":72,"boring_view_url":1,"soilmap_view_url":null,"soiltest_xml_url":0,"soiltest_view_url":0},{"id":505389,"code":"B4KJ202201000-7925","latitude":"39.25412","longitude":"141.818064","source_code":"TH20168239700200090004","project_name":"\u91dc\u77f3\u5927\u69cc\u5730\u533a\u5730\u8cea\u8abf\u67fb","survey_name":"\u91dc\u77f3\u5927\u69cc\u5730\u533a\u5730\u8cea\u8abf\u67fb","client_name":"\u6771\u5317\u5730\u65b9\u6574\u5099\u5c40\u3000\u5357\u4e09\u9678\u56fd\u9053\u4e8b\u52d9\u6240\u3000\u8abf\u67fb\u30fb\u54c1\u8cea\u78ba\u4fdd\u8ab2","boring_xml_url":72,"boring_view_url":1,"soilmap_view_url":null,"soiltest_xml_url":0,"soiltest_view_url":0},{"id":505388,"code":"B4KJ202201000-7924","latitude":"39.254426","longitude":"141.819731","source_code":"TH20168239700200090003","project_name":"\u91dc\u77f3\u5927\u69cc\u5730\u533a\u5730\u8cea\u8abf\u67fb","survey_name":"\u91dc\u77f3\u5927\u69cc\u5730\u533a\u5730\u8cea\u8abf\u67fb","client_name":"\u6771\u5317\u5730\u65b9\u6574\u5099\u5c40\u3000\u5357\u4e09\u9678\u56fd\u9053\u4e8b\u52d9\u6240\u3000\u8abf\u67fb\u30fb\u54c1\u8cea\u78ba\u4fdd\u8ab2","boring_xml_url":72,"boring_view_url":1,"soilmap_view_url":null,"soiltest_xml_url":0,"soiltest_view_url":0},{"id":505387,"code":"B4KJ202201000-7923","latitude":"39.254509","longitude":"141.820648","source_code":"TH20168239700200090002","project_name":"\u91dc\u77f3\u5927\u69cc\u5730\u533a\u5730\u8cea\u8abf\u67fb","survey_name":"\u91dc\u77f3\u5927\u69cc\u5730\u533a\u5730\u8cea\u8abf\u67fb","client_name":"\u6771\u5317\u5730\u65b9\u6574\u5099\u5c40\u3000\u5357\u4e09\u9678\u56fd\u9053\u4e8b\u52d9\u6240\u3000\u8abf\u67fb\u30fb\u54c1\u8cea\u78ba\u4fdd\u8ab2","boring_xml_url":72,"boring_view_url":1,"soilmap_view_url":null,"soiltest_xml_url":0,"soiltest_view_url":0},{"id":505386,"code":"B4KJ202201000-7922","latitude":"39.254509","longitude":"141.821314","source_code":"TH20168239700200090001","project_name":"\u91dc\u77f3\u5927\u69cc\u5730\u533a\u5730\u8cea\u8abf\u67fb","survey_name":"\u91dc\u77f3\u5927\u69cc\u5730\u533a\u5730\u8cea\u8abf\u67fb","client_name":"\u6771\u5317\u5730\u65b9\u6574\u5099\u5c40\u3000\u5357\u4e09\u9678\u56fd\u9053\u4e8b\u52d9\u6240\u3000\u8abf\u67fb\u30fb\u54c1\u8cea\u78ba\u4fdd\u8ab2","boring_xml_url":72,"boring_view_url":1,"soilmap_view_url":null,"soiltest_xml_url":0,"soiltest_view_url":0},{"id":505385,"code":"B4KJ202201000-7921","latitude":"39.150258","longitude":"141.833098","source_code":"TH20168239700200050001","project_name":"","survey_name":"\u5e73\u621028\u5e74\u5ea6\u3000\u5357\u4e09\u9678\u6c34\u6587\u8abf\u67fb","client_name":"\u56fd\u571f\u4ea4\u901a\u7701\u6771\u5317\u5730\u65b9\u6574\u5099\u5c40\u5357\u4e09\u9678\u56fd\u9053\u4e8b\u52d9\u6240","boring_xml_url":72,"boring_view_url":1,"soilmap_view_url":null,"soiltest_xml_url":0,"soiltest_view_url":0},{"id":505384,"code":"B4KJ202201000-7920","latitude":"39.358343","longitude":"141.909089","source_code":"TH20118235600200090003","project_name":"","survey_name":"\u6d77\u5cb8\u4fdd\u5168\u65bd\u8a2d\u5468\u8fba\u6d25\u6ce2\u6d17\u6398\u7b49\u8abf\u67fb\u696d\u52d9","client_name":"\"\u56fd\u571f\u4ea4\u901a\u7701 \u6771\u5317\u5730\u65b9\u6574\u5099\u5c40 \u5ca9\u624b\u6cb3\u5ddd\u56fd\u9053\u4e8b\u52d9\u6240\"","boring_xml_url":72,"boring_view_url":1,"soilmap_view_url":null,"soiltest_xml_url":0,"soiltest_view_url":0},{"id":505383,"code":"B4KJ202201000-7919","latitude":"39.592985","longitude":"141.946274","source_code":"TH20118235600200090002","project_name":"","survey_name":"\u6d77\u5cb8\u4fdd\u5168\u65bd\u8a2d\u5468\u8fba\u6d25\u6ce2\u6d17\u6398\u7b49\u8abf\u67fb\u696d\u52d9","client_name":"\"\u56fd\u571f\u4ea4\u901a\u7701 \u6771\u5317\u5730\u65b9\u6574\u5099\u5c40 \u5ca9\u624b\u6cb3\u5ddd\u56fd\u9053\u4e8b\u52d9\u6240\"","boring_xml_url":72,"boring_view_url":1,"soilmap_view_url":null,"soiltest_xml_url":0,"soiltest_view_url":0},{"id":505382,"code":"B4KJ202201000-7918","latitude":"39.593402","longitude":"141.946608","source_code":"TH20118235600200090001","project_name":"","survey_name":"\u6d77\u5cb8\u4fdd\u5168\u65bd\u8a2d\u5468\u8fba\u6d25\u6ce2\u6d17\u6398\u7b49\u8abf\u67fb\u696d\u52d9","client_name":"\"\u56fd\u571f\u4ea4\u901a\u7701 \u6771\u5317\u5730\u65b9\u6574\u5099\u5c40 \u5ca9\u624b\u6cb3\u5ddd\u56fd\u9053\u4e8b\u52d9\u6240\"","boring_xml_url":72,"boring_view_url":1,"soilmap_view_url":null,"soiltest_xml_url":0,"soiltest_view_url":0},{"id":505381,"code":"B4KJ202201000-7917","latitude":"39.721186","longitude":"140.831737","source_code":"TH20138235540500060002","project_name":"","survey_name":"(\u4eee\u79f0\uff09\u56fd\u905346\u53f7\u707d\u5bb3\u5fa9\u65e7\u7dca\u6025\u8abf\u67fb","client_name":"\u56fd\u571f\u4ea4\u901a\u7701\u6771\u5317\u5730\u65b9\u6574\u5099\u5c40\u5ca9\u624b\u6cb3\u5ddd\u56fd\u9053\u4e8b\u52d9\u6240","boring_xml_url":72,"boring_view_url":1,"soilmap_view_url":null,"soiltest_xml_url":0,"soiltest_view_url":0},{"id":505380,"code":"B4KJ202201000-7916","latitude":"39.721241","longitude":"140.832904","source_code":"TH20138235540500060001","project_name":"","survey_name":"(\u4eee\u79f0\uff09\u56fd\u905346\u53f7\u707d\u5bb3\u5fa9\u65e7\u7dca\u6025\u8abf\u67fb","client_name":"\u56fd\u571f\u4ea4\u901a\u7701\u6771\u5317\u5730\u65b9\u6574\u5099\u5c40\u5ca9\u624b\u6cb3\u5ddd\u56fd\u9053\u4e8b\u52d9\u6240","boring_xml_url":72,"boring_view_url":1,"soilmap_view_url":null,"soiltest_xml_url":0,"soiltest_view_url":0},{"id":505379,"code":"B4KJ202201000-7915","latitude":"40.330826","longitude":"141.302507","source_code":"TH20138235540200010005","project_name":"","survey_name":"\u5ca9\u624b\u6cb3\u5ddd\u56fd\u9053\u4e8b\u52d9\u6240\u7ba1\u5185\u9632\u707d\u70b9\u691c\u88dc\u4fee\u8a2d\u8a08\u696d\u52d9","client_name":"\u56fd\u571f\u4ea4\u901a\u7701\u6771\u5317\u5730\u65b9\u6574\u5099\u5c40\u5ca9\u624b\u6cb3\u5ddd\u56fd\u9053\u4e8b\u52d9\u6240","boring_xml_url":72,"boring_view_url":1,"soilmap_view_url":null,"soiltest_xml_url":0,"soiltest_view_url":0},{"id":505378,"code":"B4KJ202201000-7914","latitude":"38.944154","longitude":"141.115311","source_code":"TH20138235540200010004","project_name":"","survey_name":"\u5ca9\u624b\u6cb3\u5ddd\u56fd\u9053\u4e8b\u52d9\u6240\u7ba1\u5185\u9632\u707d\u70b9\u691c\u88dc\u4fee\u8a2d\u8a08\u696d\u52d9","client_name":"\u56fd\u571f\u4ea4\u901a\u7701\u6771\u5317\u5730\u65b9\u6574\u5099\u5c40\u5ca9\u624b\u6cb3\u5ddd\u56fd\u9053\u4e8b\u52d9\u6240","boring_xml_url":72,"boring_view_url":1,"soilmap_view_url":null,"soiltest_xml_url":0,"soiltest_view_url":0},{"id":505377,"code":"B4KJ202201000-7913","latitude":"39.44721","longitude":"141.136688","source_code":"TH20138235540200010003","project_name":"","survey_name":"\u5ca9\u624b\u6cb3\u5ddd\u56fd\u9053\u4e8b\u52d9\u6240\u7ba1\u5185\u9632\u707d\u70b9\u691c\u88dc\u4fee\u8a2d\u8a08\u696d\u52d9","client_name":"\u56fd\u571f\u4ea4\u901a\u7701\u6771\u5317\u5730\u65b9\u6574\u5099\u5c40\u5ca9\u624b\u6cb3\u5ddd\u56fd\u9053\u4e8b\u52d9\u6240","boring_xml_url":72,"boring_view_url":1,"soilmap_view_url":null,"soiltest_xml_url":0,"soiltest_view_url":0},{"id":505376,"code":"B4KJ202201000-7912","latitude":"39.44721","longitude":"141.136688","source_code":"TH20138235540200010002","project_name":"","survey_name":"\u5ca9\u624b\u6cb3\u5ddd\u56fd\u9053\u4e8b\u52d9\u6240\u7ba1\u5185\u9632\u707d\u70b9\u691c\u88dc\u4fee\u8a2d\u8a08\u696d\u52d9","client_name":"\u56fd\u571f\u4ea4\u901a\u7701\u6771\u5317\u5730\u65b9\u6574\u5099\u5c40\u5ca9\u624b\u6cb3\u5ddd\u56fd\u9053\u4e8b\u52d9\u6240","boring_xml_url":72,"boring_view_url":1,"soilmap_view_url":null,"soiltest_xml_url":0,"soiltest_view_url":0},{"id":505375,"code":"B4KJ202201000-7911","latitude":"39.724436","longitude":"140.840015","source_code":"TH20138235540200010001","project_name":"","survey_name":"\u5ca9\u624b\u6cb3\u5ddd\u56fd\u9053\u4e8b\u52d9\u6240\u7ba1\u5185\u9632\u707d\u70b9\u691c\u88dc\u4fee\u8a2d\u8a08\u696d\u52d9","client_name":"\u56fd\u571f\u4ea4\u901a\u7701\u6771\u5317\u5730\u65b9\u6574\u5099\u5c40\u5ca9\u624b\u6cb3\u5ddd\u56fd\u9053\u4e8b\u52d9\u6240","boring_xml_url":72,"boring_view_url":1,"soilmap_view_url":null,"soiltest_xml_url":0,"soiltest_view_url":0},{"id":505374,"code":"B4KJ202201000-7910","latitude":"39.705962","longitude":"141.078461","source_code":"TH00002","project_name":"","survey_name":"\u5e73\u621024\u5e74\u5ea6\u3000\u7ba1\u5185\u69cb\u9020\u7269\u7b49\u70b9\u691c\u30fb\u88dc\u4fee\u8a2d\u8a08\u696d\u52d9","client_name":"\u6771\u5317\u5730\u65b9\u6574\u5099\u5c40\u3000\u5ca9\u624b\u6cb3\u5ddd\u56fd\u9053\u4e8b\u52d9\u6240","boring_xml_url":45,"boring_view_url":1,"soilmap_view_url":null,"soiltest_xml_url":0,"soiltest_view_url":0},{"id":505373,"code":"B4KJ202201000-7909","latitude":"38.887257","longitude":"141.11834","source_code":"TH00001","project_name":"","survey_name":"\u5e73\u621024\u5e74\u5ea6\u3000\u7ba1\u5185\u69cb\u9020\u7269\u7b49\u70b9\u691c\u30fb\u88dc\u4fee\u8a2d\u8a08\u696d\u52d9","client_name":"\u5ca9\u624b\u6cb3\u5ddd\u56fd\u9053\u4e8b\u52d9\u6240","boring_xml_url":45,"boring_view_url":1,"soilmap_view_url":null,"soiltest_xml_url":0,"soiltest_view_url":0},{"id":505372,"code":"B4KJ202201000-7908","latitude":"38.944393","longitude":"141.166818","source_code":"TH20128235420200090011","project_name":"\u4e00\u95a2\u904a\u6c34\u5730\u5c0f\u5824\u95a2\u9023\u65bd\u8a2d\u8a2d\u8a08\u696d\u52d9","survey_name":"\u4e00\u95a2\u904a\u6c34\u5730\u5c0f\u5824\u95a2\u9023\u65bd\u8a2d\u8a2d\u8a08\u696d\u52d9","client_name":"\u5ca9\u624b\u6cb3\u5ddd\u56fd\u9053\u4e8b\u52d9\u6240","boring_xml_url":72,"boring_view_url":1,"soilmap_view_url":null,"soiltest_xml_url":0,"soiltest_view_url":0},{"id":505371,"code":"B4KJ202201000-7907","latitude":"38.967529","longitude":"141.10391","source_code":"TH20128235420200090010","project_name":"\u4e00\u95a2\u904a\u6c34\u5730\u5c0f\u5824\u95a2\u9023\u65bd\u8a2d\u8a2d\u8a08\u696d\u52d9","survey_name":"\u4e00\u95a2\u904a\u6c34\u5730\u5c0f\u5824\u95a2\u9023\u65bd\u8a2d\u8a2d\u8a08\u696d\u52d9","client_name":"\u5ca9\u624b\u6cb3\u5ddd\u56fd\u9053\u4e8b\u52d9\u6240","boring_xml_url":72,"boring_view_url":1,"soilmap_view_url":null,"soiltest_xml_url":0,"soiltest_view_url":0}]}}