{"header":{"xyz":{"source":[],"mosaic":false},"page":1335,"raw":{"soiltest_result":"0","bbox":"57.598333,109.544722,1.933333,163.806111","page":"1335"},"conditions":{"soiltest_result":0,"north":57.598333,"west":109.544722,"south":1.933333,"east":163.806111},"success":true,"message":""},"data":{"meta":{"total":212844,"page":1335,"pages":7095,"count":30},"values":[{"id":505340,"code":"B4KJ202201000-7876","latitude":"38.82293","longitude":"141.254429","source_code":"TH20118235400200080002","project_name":"\"\u5e73\u621023\u5e74\u5ea6 \u5c0f\u65e5\u5f62\u5730\u533a\u6392\u6c34\u6a0b\u9580\u7b49\u8a73\u7d30\u8a2d\u8a08\u696d\u52d9\"","survey_name":"\"\u5e73\u621023\u5e74\u5ea6 \u5c0f\u65e5\u5f62\u5730\u533a\u6392\u6c34\u6a0b\u9580\u7b49\u8a73\u7d30\u8a2d\u8a08\u696d\u52d9\"","client_name":"\"\u56fd\u571f\u4ea4\u901a\u7701 \u6771\u5317\u5730\u65b9\u6574\u5099\u5c40 \u5ca9\u624b\u6cb3\u5ddd\u56fd\u9053\u4e8b\u52d9\u6240\"","boring_xml_url":72,"boring_view_url":1,"soilmap_view_url":null,"soiltest_xml_url":0,"soiltest_view_url":0},{"id":505339,"code":"B4KJ202201000-7875","latitude":"38.822624","longitude":"141.254401","source_code":"TH20118235400200080001","project_name":"\"\u5e73\u621023\u5e74\u5ea6 \u5c0f\u65e5\u5f62\u5730\u533a\u6392\u6c34\u6a0b\u9580\u7b49\u8a73\u7d30\u8a2d\u8a08\u696d\u52d9\"","survey_name":"\"\u5e73\u621023\u5e74\u5ea6 \u5c0f\u65e5\u5f62\u5730\u533a\u6392\u6c34\u6a0b\u9580\u7b49\u8a73\u7d30\u8a2d\u8a08\u696d\u52d9\"","client_name":"\"\u56fd\u571f\u4ea4\u901a\u7701 \u6771\u5317\u5730\u65b9\u6574\u5099\u5c40 \u5ca9\u624b\u6cb3\u5ddd\u56fd\u9053\u4e8b\u52d9\u6240\"","boring_xml_url":72,"boring_view_url":1,"soilmap_view_url":null,"soiltest_xml_url":0,"soiltest_view_url":0},{"id":505338,"code":"B4KJ202201000-7874","latitude":"38.791535","longitude":"141.259105","source_code":"TH20148235400200050004","project_name":"","survey_name":"\u5e73\u621026\u5e74\u5ea6\u3000\u72ed\u9698\u5730\u533a\u6392\u6c34\u6a0b\u9580\u7b49\u8a73\u7d30\u8a2d\u8a08\u696d\u52d9","client_name":"\u56fd\u571f\u4ea4\u901a\u7701\u3000\u6771\u5317\u5730\u65b9\u6574\u5099\u5c40\u3000\u5ca9\u624b\u6cb3\u5ddd\u56fd\u9053\u4e8b\u52d9\u6240","boring_xml_url":72,"boring_view_url":1,"soilmap_view_url":null,"soiltest_xml_url":0,"soiltest_view_url":0},{"id":505337,"code":"B4KJ202201000-7873","latitude":"38.888519","longitude":"141.266847","source_code":"TH20148235400200050003","project_name":"","survey_name":"\u5e73\u621026\u5e74\u5ea6\u3000\u72ed\u9698\u5730\u533a\u6392\u6c34\u6a0b\u9580\u7b49\u8a73\u7d30\u8a2d\u8a08\u696d\u52d9","client_name":"\u56fd\u571f\u4ea4\u901a\u7701\u3000\u6771\u5317\u5730\u65b9\u6574\u5099\u5c40\u3000\u5ca9\u624b\u6cb3\u5ddd\u56fd\u9053\u4e8b\u52d9\u6240","boring_xml_url":72,"boring_view_url":1,"soilmap_view_url":null,"soiltest_xml_url":0,"soiltest_view_url":0},{"id":505336,"code":"B4KJ202201000-7872","latitude":"38.88853","longitude":"141.266441","source_code":"TH20148235400200050002","project_name":"","survey_name":"\u5e73\u621026\u5e74\u5ea6\u3000\u72ed\u9698\u5730\u533a\u6392\u6c34\u6a0b\u9580\u7b49\u8a73\u7d30\u8a2d\u8a08\u696d\u52d9","client_name":"\u56fd\u571f\u4ea4\u901a\u7701\u3000\u6771\u5317\u5730\u65b9\u6574\u5099\u5c40\u3000\u5ca9\u624b\u6cb3\u5ddd\u56fd\u9053\u4e8b\u52d9\u6240","boring_xml_url":72,"boring_view_url":1,"soilmap_view_url":null,"soiltest_xml_url":0,"soiltest_view_url":0},{"id":505335,"code":"B4KJ202201000-7871","latitude":"38.888616","longitude":"141.266236","source_code":"TH20148235400200050001","project_name":"","survey_name":"\u5e73\u621026\u5e74\u5ea6\u3000\u72ed\u9698\u5730\u533a\u6392\u6c34\u6a0b\u9580\u7b49\u8a73\u7d30\u8a2d\u8a08\u696d\u52d9","client_name":"\u56fd\u571f\u4ea4\u901a\u7701\u3000\u6771\u5317\u5730\u65b9\u6574\u5099\u5c40\u3000\u5ca9\u624b\u6cb3\u5ddd\u56fd\u9053\u4e8b\u52d9\u6240","boring_xml_url":72,"boring_view_url":1,"soilmap_view_url":null,"soiltest_xml_url":0,"soiltest_view_url":0},{"id":505334,"code":"B4KJ202201000-7870","latitude":"38.791372","longitude":"141.258908","source_code":"TH20138235400200090038","project_name":"\u5e73\u621025\u5e74\u5ea6\u3000\u5965\u5dde\u5730\u533a\u5730\u8cea\u8abf\u67fb\u696d\u52d9","survey_name":"\u5e73\u621025\u5e74\u5ea6\u3000\u5965\u5dde\u5730\u533a\u5730\u8cea\u8abf\u67fb\u696d\u52d9","client_name":"\"\u6771\u5317\u5730\u65b9\u6574\u5099\u5c40 \u5ca9\u624b\u6cb3\u5ddd\u56fd\u9053\u4e8b\u52d9\u6240\"","boring_xml_url":72,"boring_view_url":1,"soilmap_view_url":null,"soiltest_xml_url":0,"soiltest_view_url":0},{"id":505333,"code":"B4KJ202201000-7869","latitude":"38.790935","longitude":"141.258725","source_code":"TH20138235400200090037","project_name":"\u5e73\u621025\u5e74\u5ea6\u3000\u5965\u5dde\u5730\u533a\u5730\u8cea\u8abf\u67fb\u696d\u52d9","survey_name":"\u5e73\u621025\u5e74\u5ea6\u3000\u5965\u5dde\u5730\u533a\u5730\u8cea\u8abf\u67fb\u696d\u52d9","client_name":"\"\u6771\u5317\u5730\u65b9\u6574\u5099\u5c40 \u5ca9\u624b\u6cb3\u5ddd\u56fd\u9053\u4e8b\u52d9\u6240\"","boring_xml_url":72,"boring_view_url":1,"soilmap_view_url":null,"soiltest_xml_url":0,"soiltest_view_url":0},{"id":505332,"code":"B4KJ202201000-7868","latitude":"38.79165","longitude":"141.256681","source_code":"TH20138235400200090036","project_name":"\u5e73\u621025\u5e74\u5ea6\u3000\u5965\u5dde\u5730\u533a\u5730\u8cea\u8abf\u67fb\u696d\u52d9","survey_name":"\u5e73\u621025\u5e74\u5ea6\u3000\u5965\u5dde\u5730\u533a\u5730\u8cea\u8abf\u67fb\u696d\u52d9","client_name":"\"\u6771\u5317\u5730\u65b9\u6574\u5099\u5c40 \u5ca9\u624b\u6cb3\u5ddd\u56fd\u9053\u4e8b\u52d9\u6240\"","boring_xml_url":72,"boring_view_url":1,"soilmap_view_url":null,"soiltest_xml_url":0,"soiltest_view_url":0},{"id":505331,"code":"B4KJ202201000-7867","latitude":"38.791964","longitude":"141.254026","source_code":"TH20138235400200090035","project_name":"\u5e73\u621025\u5e74\u5ea6\u3000\u5965\u5dde\u5730\u533a\u5730\u8cea\u8abf\u67fb\u696d\u52d9","survey_name":"\u5e73\u621025\u5e74\u5ea6\u3000\u5965\u5dde\u5730\u533a\u5730\u8cea\u8abf\u67fb\u696d\u52d9","client_name":"\"\u6771\u5317\u5730\u65b9\u6574\u5099\u5c40 \u5ca9\u624b\u6cb3\u5ddd\u56fd\u9053\u4e8b\u52d9\u6240\"","boring_xml_url":72,"boring_view_url":1,"soilmap_view_url":null,"soiltest_xml_url":0,"soiltest_view_url":0},{"id":505330,"code":"B4KJ202201000-7866","latitude":"38.792622","longitude":"141.251","source_code":"TH20138235400200090034","project_name":"\u5e73\u621025\u5e74\u5ea6\u3000\u5965\u5dde\u5730\u533a\u5730\u8cea\u8abf\u67fb\u696d\u52d9","survey_name":"\u5e73\u621025\u5e74\u5ea6\u3000\u5965\u5dde\u5730\u533a\u5730\u8cea\u8abf\u67fb\u696d\u52d9","client_name":"\"\u6771\u5317\u5730\u65b9\u6574\u5099\u5c40 \u5ca9\u624b\u6cb3\u5ddd\u56fd\u9053\u4e8b\u52d9\u6240\"","boring_xml_url":72,"boring_view_url":1,"soilmap_view_url":null,"soiltest_xml_url":0,"soiltest_view_url":0},{"id":505329,"code":"B4KJ202201000-7865","latitude":"39.061965","longitude":"141.158597","source_code":"TH20138235400200090033","project_name":"\u5e73\u621025\u5e74\u5ea6\u3000\u5965\u5dde\u5730\u533a\u5730\u8cea\u8abf\u67fb\u696d\u52d9","survey_name":"\u5e73\u621025\u5e74\u5ea6\u3000\u5965\u5dde\u5730\u533a\u5730\u8cea\u8abf\u67fb\u696d\u52d9","client_name":"\u56fd\u571f\u4ea4\u901a\u7701\u3000\u6771\u5317\u5730\u65b9\u6574\u5099\u5c40\u3000\u5ca9\u624b\u6cb3\u5ddd\u56fd\u9053\u4e8b\u52d9\u6240","boring_xml_url":72,"boring_view_url":1,"soilmap_view_url":null,"soiltest_xml_url":0,"soiltest_view_url":0},{"id":505328,"code":"B4KJ202201000-7864","latitude":"39.044867","longitude":"141.146095","source_code":"TH20138235400200090032","project_name":"\u5e73\u621025\u5e74\u5ea6\u3000\u5965\u5dde\u5730\u533a\u5730\u8cea\u8abf\u67fb\u696d\u52d9","survey_name":"\u5e73\u621025\u5e74\u5ea6\u3000\u5965\u5dde\u5730\u533a\u5730\u8cea\u8abf\u67fb\u696d\u52d9","client_name":"\u56fd\u571f\u4ea4\u901a\u7701\u3000\u6771\u5317\u5730\u65b9\u6574\u5099\u5c40\u3000\u5ca9\u624b\u6cb3\u5ddd\u56fd\u9053\u4e8b\u52d9\u6240","boring_xml_url":72,"boring_view_url":1,"soilmap_view_url":null,"soiltest_xml_url":0,"soiltest_view_url":0},{"id":505327,"code":"B4KJ202201000-7863","latitude":"39.044767","longitude":"141.146337","source_code":"TH20138235400200090031","project_name":"\u5e73\u621025\u5e74\u5ea6\u3000\u5965\u5dde\u5730\u533a\u5730\u8cea\u8abf\u67fb\u696d\u52d9","survey_name":"\u5e73\u621025\u5e74\u5ea6\u3000\u5965\u5dde\u5730\u533a\u5730\u8cea\u8abf\u67fb\u696d\u52d9","client_name":"\u56fd\u571f\u4ea4\u901a\u7701\u3000\u6771\u5317\u5730\u65b9\u6574\u5099\u5c40\u3000\u5ca9\u624b\u6cb3\u5ddd\u56fd\u9053\u4e8b\u52d9\u6240","boring_xml_url":72,"boring_view_url":1,"soilmap_view_url":null,"soiltest_xml_url":0,"soiltest_view_url":0},{"id":505326,"code":"B4KJ202201000-7862","latitude":"39.044138","longitude":"141.145594","source_code":"TH20138235400200090030","project_name":"\u5e73\u621025\u5e74\u5ea6\u3000\u5965\u5dde\u5730\u533a\u5730\u8cea\u8abf\u67fb\u696d\u52d9","survey_name":"\u5e73\u621025\u5e74\u5ea6\u3000\u5965\u5dde\u5730\u533a\u5730\u8cea\u8abf\u67fb\u696d\u52d9","client_name":"\u56fd\u571f\u4ea4\u901a\u7701\u3000\u6771\u5317\u5730\u65b9\u6574\u5099\u5c40\u3000\u5ca9\u624b\u6cb3\u5ddd\u56fd\u9053\u4e8b\u52d9\u6240","boring_xml_url":72,"boring_view_url":1,"soilmap_view_url":null,"soiltest_xml_url":0,"soiltest_view_url":0},{"id":505325,"code":"B4KJ202201000-7861","latitude":"39.039665","longitude":"141.140448","source_code":"TH20138235400200090029","project_name":"\u5e73\u621025\u5e74\u5ea6\u3000\u5965\u5dde\u5730\u533a\u5730\u8cea\u8abf\u67fb\u696d\u52d9","survey_name":"\u5e73\u621025\u5e74\u5ea6\u3000\u5965\u5dde\u5730\u533a\u5730\u8cea\u8abf\u67fb\u696d\u52d9","client_name":"\u56fd\u571f\u4ea4\u901a\u7701\u3000\u6771\u5317\u5730\u65b9\u6574\u5099\u5c40\u3000\u5ca9\u624b\u6cb3\u5ddd\u56fd\u9053\u4e8b\u52d9\u6240","boring_xml_url":72,"boring_view_url":1,"soilmap_view_url":null,"soiltest_xml_url":0,"soiltest_view_url":0},{"id":505324,"code":"B4KJ202201000-7860","latitude":"39.128675","longitude":"141.174869","source_code":"TH20138235400200090028","project_name":"\u5e73\u621025\u5e74\u5ea6\u3000\u5965\u5dde\u5730\u533a\u5730\u8cea\u8abf\u67fb\u696d\u52d9","survey_name":"\u5e73\u621025\u5e74\u5ea6\u3000\u5965\u5dde\u5730\u533a\u5730\u8cea\u8abf\u67fb\u696d\u52d9","client_name":"\u56fd\u571f\u4ea4\u901a\u7701\u3000\u6771\u5317\u5730\u65b9\u6574\u5099\u5c40\u3000\u5ca9\u624b\u6cb3\u5ddd\u56fd\u9053\u4e8b\u52d9\u6240","boring_xml_url":72,"boring_view_url":1,"soilmap_view_url":null,"soiltest_xml_url":0,"soiltest_view_url":0},{"id":505323,"code":"B4KJ202201000-7859","latitude":"39.114224","longitude":"141.179167","source_code":"TH20138235400200090027","project_name":"\u5e73\u621025\u5e74\u5ea6\u3000\u5965\u5dde\u5730\u533a\u5730\u8cea\u8abf\u67fb\u696d\u52d9","survey_name":"\u5e73\u621025\u5e74\u5ea6\u3000\u5965\u5dde\u5730\u533a\u5730\u8cea\u8abf\u67fb\u696d\u52d9","client_name":"\u56fd\u571f\u4ea4\u901a\u7701\u3000\u6771\u5317\u5730\u65b9\u6574\u5099\u5c40\u3000\u5ca9\u624b\u6cb3\u5ddd\u56fd\u9053\u4e8b\u52d9\u6240","boring_xml_url":72,"boring_view_url":1,"soilmap_view_url":null,"soiltest_xml_url":0,"soiltest_view_url":0},{"id":505322,"code":"B4KJ202201000-7858","latitude":"39.131912","longitude":"141.171953","source_code":"TH20138235400200090026","project_name":"\u5e73\u621025\u5e74\u5ea6\u3000\u5965\u5dde\u5730\u533a\u5730\u8cea\u8abf\u67fb\u696d\u52d9","survey_name":"\u5e73\u621025\u5e74\u5ea6\u3000\u5965\u5dde\u5730\u533a\u5730\u8cea\u8abf\u67fb\u696d\u52d9","client_name":"\u56fd\u571f\u4ea4\u901a\u7701\u3000\u6771\u5317\u5730\u65b9\u6574\u5099\u5c40\u3000\u5ca9\u624b\u6cb3\u5ddd\u56fd\u9053\u4e8b\u52d9\u6240","boring_xml_url":72,"boring_view_url":1,"soilmap_view_url":null,"soiltest_xml_url":0,"soiltest_view_url":0},{"id":505321,"code":"B4KJ202201000-7857","latitude":"39.131985","longitude":"141.172088","source_code":"TH20138235400200090025","project_name":"\u5e73\u621025\u5e74\u5ea6\u3000\u5965\u5dde\u5730\u533a\u5730\u8cea\u8abf\u67fb\u696d\u52d9","survey_name":"\u5e73\u621025\u5e74\u5ea6\u3000\u5965\u5dde\u5730\u533a\u5730\u8cea\u8abf\u67fb\u696d\u52d9","client_name":"\u56fd\u571f\u4ea4\u901a\u7701\u3000\u6771\u5317\u5730\u65b9\u6574\u5099\u5c40\u3000\u5ca9\u624b\u6cb3\u5ddd\u56fd\u9053\u4e8b\u52d9\u6240","boring_xml_url":72,"boring_view_url":1,"soilmap_view_url":null,"soiltest_xml_url":0,"soiltest_view_url":0},{"id":505320,"code":"B4KJ202201000-7856","latitude":"39.127616","longitude":"141.17579","source_code":"TH20138235400200090024","project_name":"\u5e73\u621025\u5e74\u5ea6\u3000\u5965\u5dde\u5730\u533a\u5730\u8cea\u8abf\u67fb\u696d\u52d9","survey_name":"\u5e73\u621025\u5e74\u5ea6\u3000\u5965\u5dde\u5730\u533a\u5730\u8cea\u8abf\u67fb\u696d\u52d9","client_name":"\u56fd\u571f\u4ea4\u901a\u7701\u3000\u6771\u5317\u5730\u65b9\u6574\u5099\u5c40\u3000\u5ca9\u624b\u6cb3\u5ddd\u56fd\u9053\u4e8b\u52d9\u6240","boring_xml_url":72,"boring_view_url":1,"soilmap_view_url":null,"soiltest_xml_url":0,"soiltest_view_url":0},{"id":505319,"code":"B4KJ202201000-7855","latitude":"39.127685","longitude":"141.175925","source_code":"TH20138235400200090023","project_name":"\u5e73\u621025\u5e74\u5ea6\u3000\u5965\u5dde\u5730\u533a\u5730\u8cea\u8abf\u67fb\u696d\u52d9","survey_name":"\u5e73\u621025\u5e74\u5ea6\u3000\u5965\u5dde\u5730\u533a\u5730\u8cea\u8abf\u67fb\u696d\u52d9","client_name":"\u56fd\u571f\u4ea4\u901a\u7701\u3000\u6771\u5317\u5730\u65b9\u6574\u5099\u5c40\u3000\u5ca9\u624b\u6cb3\u5ddd\u56fd\u9053\u4e8b\u52d9\u6240","boring_xml_url":72,"boring_view_url":1,"soilmap_view_url":null,"soiltest_xml_url":0,"soiltest_view_url":0},{"id":505318,"code":"B4KJ202201000-7854","latitude":"39.126405","longitude":"141.176733","source_code":"TH20138235400200090022","project_name":"\u5e73\u621025\u5e74\u5ea6\u3000\u5965\u5dde\u5730\u533a\u5730\u8cea\u8abf\u67fb\u696d\u52d9","survey_name":"\u5e73\u621025\u5e74\u5ea6\u3000\u5965\u5dde\u5730\u533a\u5730\u8cea\u8abf\u67fb\u696d\u52d9","client_name":"\u56fd\u571f\u4ea4\u901a\u7701\u3000\u6771\u5317\u5730\u65b9\u6574\u5099\u5c40\u3000\u5ca9\u624b\u6cb3\u5ddd\u56fd\u9053\u4e8b\u52d9\u6240","boring_xml_url":72,"boring_view_url":1,"soilmap_view_url":null,"soiltest_xml_url":0,"soiltest_view_url":0},{"id":505317,"code":"B4KJ202201000-7853","latitude":"39.121237","longitude":"141.178445","source_code":"TH20138235400200090021","project_name":"\u5e73\u621025\u5e74\u5ea6\u3000\u5965\u5dde\u5730\u533a\u5730\u8cea\u8abf\u67fb\u696d\u52d9","survey_name":"\u5e73\u621025\u5e74\u5ea6\u3000\u5965\u5dde\u5730\u533a\u5730\u8cea\u8abf\u67fb\u696d\u52d9","client_name":"\u56fd\u571f\u4ea4\u901a\u7701\u3000\u6771\u5317\u5730\u65b9\u6574\u5099\u5c40\u3000\u5ca9\u624b\u6cb3\u5ddd\u56fd\u9053\u4e8b\u52d9\u6240","boring_xml_url":72,"boring_view_url":1,"soilmap_view_url":null,"soiltest_xml_url":0,"soiltest_view_url":0},{"id":505316,"code":"B4KJ202201000-7852","latitude":"39.121251","longitude":"141.17855","source_code":"TH20138235400200090020","project_name":"\u5e73\u621025\u5e74\u5ea6\u3000\u5965\u5dde\u5730\u533a\u5730\u8cea\u8abf\u67fb\u696d\u52d9","survey_name":"\u5e73\u621025\u5e74\u5ea6\u3000\u5965\u5dde\u5730\u533a\u5730\u8cea\u8abf\u67fb\u696d\u52d9","client_name":"\u56fd\u571f\u4ea4\u901a\u7701\u3000\u6771\u5317\u5730\u65b9\u6574\u5099\u5c40\u3000\u5ca9\u624b\u6cb3\u5ddd\u56fd\u9053\u4e8b\u52d9\u6240","boring_xml_url":72,"boring_view_url":1,"soilmap_view_url":null,"soiltest_xml_url":0,"soiltest_view_url":0},{"id":505315,"code":"B4KJ202201000-7851","latitude":"39.114237","longitude":"141.17929","source_code":"TH20138235400200090019","project_name":"\u5e73\u621025\u5e74\u5ea6\u3000\u5965\u5dde\u5730\u533a\u5730\u8cea\u8abf\u67fb\u696d\u52d9","survey_name":"\u5e73\u621025\u5e74\u5ea6\u3000\u5965\u5dde\u5730\u533a\u5730\u8cea\u8abf\u67fb\u696d\u52d9","client_name":"\u56fd\u571f\u4ea4\u901a\u7701\u3000\u6771\u5317\u5730\u65b9\u6574\u5099\u5c40\u3000\u5ca9\u624b\u6cb3\u5ddd\u56fd\u9053\u4e8b\u52d9\u6240","boring_xml_url":72,"boring_view_url":1,"soilmap_view_url":null,"soiltest_xml_url":0,"soiltest_view_url":0},{"id":505314,"code":"B4KJ202201000-7850","latitude":"39.114242","longitude":"141.179411","source_code":"TH20138235400200090018","project_name":"\u5e73\u621025\u5e74\u5ea6\u3000\u5965\u5dde\u5730\u533a\u5730\u8cea\u8abf\u67fb\u696d\u52d9","survey_name":"\u5e73\u621025\u5e74\u5ea6\u3000\u5965\u5dde\u5730\u533a\u5730\u8cea\u8abf\u67fb\u696d\u52d9","client_name":"\u56fd\u571f\u4ea4\u901a\u7701\u3000\u6771\u5317\u5730\u65b9\u6574\u5099\u5c40\u3000\u5ca9\u624b\u6cb3\u5ddd\u56fd\u9053\u4e8b\u52d9\u6240","boring_xml_url":72,"boring_view_url":1,"soilmap_view_url":null,"soiltest_xml_url":0,"soiltest_view_url":0},{"id":505313,"code":"B4KJ202201000-7849","latitude":"39.133745","longitude":"141.179275","source_code":"TH20138235400200090017","project_name":"\u5e73\u621025\u5e74\u5ea6\u3000\u5965\u5dde\u5730\u533a\u5730\u8cea\u8abf\u67fb\u696d\u52d9","survey_name":"\u5e73\u621025\u5e74\u5ea6\u3000\u5965\u5dde\u5730\u533a\u5730\u8cea\u8abf\u67fb\u696d\u52d9","client_name":"\u56fd\u571f\u4ea4\u901a\u7701\u3000\u6771\u5317\u5730\u65b9\u6574\u5099\u5c40\u3000\u5ca9\u624b\u6cb3\u5ddd\u56fd\u9053\u4e8b\u52d9\u6240","boring_xml_url":72,"boring_view_url":1,"soilmap_view_url":null,"soiltest_xml_url":0,"soiltest_view_url":0},{"id":505312,"code":"B4KJ202201000-7848","latitude":"39.13367","longitude":"141.179148","source_code":"TH20138235400200090016","project_name":"\u5e73\u621025\u5e74\u5ea6\u3000\u5965\u5dde\u5730\u533a\u5730\u8cea\u8abf\u67fb\u696d\u52d9","survey_name":"\u5e73\u621025\u5e74\u5ea6\u3000\u5965\u5dde\u5730\u533a\u5730\u8cea\u8abf\u67fb\u696d\u52d9","client_name":"\u56fd\u571f\u4ea4\u901a\u7701\u3000\u6771\u5317\u5730\u65b9\u6574\u5099\u5c40\u3000\u5ca9\u624b\u6cb3\u5ddd\u56fd\u9053\u4e8b\u52d9\u6240","boring_xml_url":72,"boring_view_url":1,"soilmap_view_url":null,"soiltest_xml_url":0,"soiltest_view_url":0},{"id":505311,"code":"B4KJ202201000-7847","latitude":"39.135053","longitude":"141.178055","source_code":"TH20138235400200090015","project_name":"\u5e73\u621025\u5e74\u5ea6\u3000\u5965\u5dde\u5730\u533a\u5730\u8cea\u8abf\u67fb\u696d\u52d9","survey_name":"\u5e73\u621025\u5e74\u5ea6\u3000\u5965\u5dde\u5730\u533a\u5730\u8cea\u8abf\u67fb\u696d\u52d9","client_name":"\u56fd\u571f\u4ea4\u901a\u7701\u3000\u6771\u5317\u5730\u65b9\u6574\u5099\u5c40\u3000\u5ca9\u624b\u6cb3\u5ddd\u56fd\u9053\u4e8b\u52d9\u6240","boring_xml_url":72,"boring_view_url":1,"soilmap_view_url":null,"soiltest_xml_url":0,"soiltest_view_url":0}]}}