{"header":{"xyz":{"source":[],"mosaic":false},"page":1337,"raw":{"soiltest_result":"0","bbox":"57.598333,109.544722,1.933333,163.806111","page":"1337"},"conditions":{"soiltest_result":0,"north":57.598333,"west":109.544722,"south":1.933333,"east":163.806111},"success":true,"message":""},"data":{"meta":{"total":212844,"page":1337,"pages":7095,"count":30},"values":[{"id":505280,"code":"B4KJ202201000-7816","latitude":"39.606516","longitude":"141.187922","source_code":"TH20138235400200080012","project_name":".","survey_name":"\u76db\u5ca1\u30fb\u82b1\u5317\u5730\u533a\u5730\u8cea\u8abf\u67fb\u696d\u52d9","client_name":"\"\u56fd\u571f\u4ea4\u901a\u7701 \u6771\u5317\u5730\u65b9\u6574\u5099\u5c40 \u5ca9\u624b\u6cb3\u5ddd\u56fd\u9053\u4e8b\u52d9\u6240\"","boring_xml_url":72,"boring_view_url":1,"soilmap_view_url":null,"soiltest_xml_url":0,"soiltest_view_url":0},{"id":505279,"code":"B4KJ202201000-7815","latitude":"39.606589","longitude":"141.188047","source_code":"TH20138235400200080011","project_name":".","survey_name":"\u76db\u5ca1\u30fb\u82b1\u5317\u5730\u533a\u5730\u8cea\u8abf\u67fb\u696d\u52d9","client_name":"\"\u56fd\u571f\u4ea4\u901a\u7701 \u6771\u5317\u5730\u65b9\u6574\u5099\u5c40 \u5ca9\u624b\u6cb3\u5ddd\u56fd\u9053\u4e8b\u52d9\u6240\"","boring_xml_url":72,"boring_view_url":1,"soilmap_view_url":null,"soiltest_xml_url":0,"soiltest_view_url":0},{"id":505278,"code":"B4KJ202201000-7814","latitude":"39.603872","longitude":"141.190463","source_code":"TH20138235400200080010","project_name":".","survey_name":"\u76db\u5ca1\u30fb\u82b1\u5317\u5730\u533a\u5730\u8cea\u8abf\u67fb\u696d\u52d9","client_name":"\"\u56fd\u571f\u4ea4\u901a\u7701 \u6771\u5317\u5730\u65b9\u6574\u5099\u5c40 \u5ca9\u624b\u6cb3\u5ddd\u56fd\u9053\u4e8b\u52d9\u6240\"","boring_xml_url":72,"boring_view_url":1,"soilmap_view_url":null,"soiltest_xml_url":0,"soiltest_view_url":0},{"id":505277,"code":"B4KJ202201000-7813","latitude":"39.603927","longitude":"141.190558","source_code":"TH20138235400200080009","project_name":".","survey_name":"\u76db\u5ca1\u30fb\u82b1\u5317\u5730\u533a\u5730\u8cea\u8abf\u67fb\u696d\u52d9","client_name":"\"\u56fd\u571f\u4ea4\u901a\u7701 \u6771\u5317\u5730\u65b9\u6574\u5099\u5c40 \u5ca9\u624b\u6cb3\u5ddd\u56fd\u9053\u4e8b\u52d9\u6240\"","boring_xml_url":72,"boring_view_url":1,"soilmap_view_url":null,"soiltest_xml_url":0,"soiltest_view_url":0},{"id":505276,"code":"B4KJ202201000-7812","latitude":"39.598325","longitude":"141.194247","source_code":"TH20138235400200080008","project_name":".","survey_name":"\u76db\u5ca1\u30fb\u82b1\u5317\u5730\u533a\u5730\u8cea\u8abf\u67fb\u696d\u52d9","client_name":"\"\u56fd\u571f\u4ea4\u901a\u7701 \u6771\u5317\u5730\u65b9\u6574\u5099\u5c40 \u5ca9\u624b\u6cb3\u5ddd\u56fd\u9053\u4e8b\u52d9\u6240\"","boring_xml_url":72,"boring_view_url":1,"soilmap_view_url":null,"soiltest_xml_url":0,"soiltest_view_url":0},{"id":505275,"code":"B4KJ202201000-7811","latitude":"39.598366","longitude":"141.194464","source_code":"TH20138235400200080007","project_name":".","survey_name":"\u76db\u5ca1\u30fb\u82b1\u5317\u5730\u533a\u5730\u8cea\u8abf\u67fb\u696d\u52d9","client_name":"\"\u56fd\u571f\u4ea4\u901a\u7701 \u6771\u5317\u5730\u65b9\u6574\u5099\u5c40 \u5ca9\u624b\u6cb3\u5ddd\u56fd\u9053\u4e8b\u52d9\u6240\"","boring_xml_url":72,"boring_view_url":1,"soilmap_view_url":null,"soiltest_xml_url":0,"soiltest_view_url":0},{"id":505274,"code":"B4KJ202201000-7810","latitude":"39.362379","longitude":"141.139298","source_code":"TH20138235400200080006","project_name":".","survey_name":"\u76db\u5ca1\u30fb\u82b1\u5317\u5730\u533a\u5730\u8cea\u8abf\u67fb\u696d\u52d9","client_name":"\"\u56fd\u571f\u4ea4\u901a\u7701 \u6771\u5317\u5730\u65b9\u6574\u5099\u5c40 \u5ca9\u624b\u6cb3\u5ddd\u56fd\u9053\u4e8b\u52d9\u6240\"","boring_xml_url":72,"boring_view_url":1,"soilmap_view_url":null,"soiltest_xml_url":0,"soiltest_view_url":0},{"id":505273,"code":"B4KJ202201000-7809","latitude":"39.362271","longitude":"141.13919","source_code":"TH20138235400200080005","project_name":".","survey_name":"\u76db\u5ca1\u30fb\u82b1\u5317\u5730\u533a\u5730\u8cea\u8abf\u67fb\u696d\u52d9","client_name":"\"\u56fd\u571f\u4ea4\u901a\u7701 \u6771\u5317\u5730\u65b9\u6574\u5099\u5c40 \u5ca9\u624b\u6cb3\u5ddd\u56fd\u9053\u4e8b\u52d9\u6240\"","boring_xml_url":72,"boring_view_url":1,"soilmap_view_url":null,"soiltest_xml_url":0,"soiltest_view_url":0},{"id":505272,"code":"B4KJ202201000-7808","latitude":"39.359885","longitude":"141.142932","source_code":"TH20138235400200080004","project_name":".","survey_name":"\u76db\u5ca1\u30fb\u82b1\u5317\u5730\u533a\u5730\u8cea\u8abf\u67fb\u696d\u52d9","client_name":"\"\u56fd\u571f\u4ea4\u901a\u7701 \u6771\u5317\u5730\u65b9\u6574\u5099\u5c40 \u5ca9\u624b\u6cb3\u5ddd\u56fd\u9053\u4e8b\u52d9\u6240\"","boring_xml_url":72,"boring_view_url":1,"soilmap_view_url":null,"soiltest_xml_url":0,"soiltest_view_url":0},{"id":505271,"code":"B4KJ202201000-7807","latitude":"39.35976","longitude":"141.142696","source_code":"TH20138235400200080003","project_name":".","survey_name":"\u76db\u5ca1\u30fb\u82b1\u5317\u5730\u533a\u5730\u8cea\u8abf\u67fb\u696d\u52d9","client_name":"\"\u56fd\u571f\u4ea4\u901a\u7701 \u6771\u5317\u5730\u65b9\u6574\u5099\u5c40 \u5ca9\u624b\u6cb3\u5ddd\u56fd\u9053\u4e8b\u52d9\u6240\"","boring_xml_url":72,"boring_view_url":1,"soilmap_view_url":null,"soiltest_xml_url":0,"soiltest_view_url":0},{"id":505270,"code":"B4KJ202201000-7806","latitude":"39.354804","longitude":"141.14506","source_code":"TH20138235400200080002","project_name":".","survey_name":"\u76db\u5ca1\u30fb\u82b1\u5317\u5730\u533a\u5730\u8cea\u8abf\u67fb\u696d\u52d9","client_name":"\"\u56fd\u571f\u4ea4\u901a\u7701 \u6771\u5317\u5730\u65b9\u6574\u5099\u5c40 \u5ca9\u624b\u6cb3\u5ddd\u56fd\u9053\u4e8b\u52d9\u6240\"","boring_xml_url":72,"boring_view_url":1,"soilmap_view_url":null,"soiltest_xml_url":0,"soiltest_view_url":0},{"id":505269,"code":"B4KJ202201000-7805","latitude":"39.354768","longitude":"141.144896","source_code":"TH20138235400200080001","project_name":".","survey_name":"\u76db\u5ca1\u30fb\u82b1\u5317\u5730\u533a\u5730\u8cea\u8abf\u67fb\u696d\u52d9","client_name":"\"\u56fd\u571f\u4ea4\u901a\u7701 \u6771\u5317\u5730\u65b9\u6574\u5099\u5c40 \u5ca9\u624b\u6cb3\u5ddd\u56fd\u9053\u4e8b\u52d9\u6240\"","boring_xml_url":72,"boring_view_url":1,"soilmap_view_url":null,"soiltest_xml_url":0,"soiltest_view_url":0},{"id":505268,"code":"B4KJ202201000-7804","latitude":"39.124444","longitude":"140.154226","source_code":"TH20148250600200260003","project_name":"","survey_name":"\u5e73\u621026\u5e74\u5ea6\u3000\u9ce5\u6d77\u30c0\u30e0\u5de6\u5cb8\u5730\u8cea\u8abf\u67fb","client_name":"\u56fd\u571f\u4ea4\u901a\u7701\u6771\u5317\u5730\u65b9\u6574\u5099\u5c40\u9ce5\u6d77\u30c0\u30e0\u5de5\u4e8b\u4e8b\u52d9\u6240","boring_xml_url":72,"boring_view_url":1,"soilmap_view_url":null,"soiltest_xml_url":0,"soiltest_view_url":0},{"id":505267,"code":"B4KJ202201000-7803","latitude":"39.125167","longitude":"140.154683","source_code":"TH20148250600200260002","project_name":"","survey_name":"\u5e73\u621026\u5e74\u5ea6\u3000\u9ce5\u6d77\u30c0\u30e0\u5de6\u5cb8\u5730\u8cea\u8abf\u67fb","client_name":"\u56fd\u571f\u4ea4\u901a\u7701\u6771\u5317\u5730\u65b9\u6574\u5099\u5c40\u9ce5\u6d77\u30c0\u30e0\u5de5\u4e8b\u4e8b\u52d9\u6240","boring_xml_url":72,"boring_view_url":1,"soilmap_view_url":null,"soiltest_xml_url":0,"soiltest_view_url":0},{"id":505266,"code":"B4KJ202201000-7802","latitude":"39.12488","longitude":"140.154963","source_code":"TH20148250600200260001","project_name":"","survey_name":"\u5e73\u621026\u5e74\u5ea6\u3000\u9ce5\u6d77\u30c0\u30e0\u5de6\u5cb8\u5730\u8cea\u8abf\u67fb","client_name":"\u56fd\u571f\u4ea4\u901a\u7701\u6771\u5317\u5730\u65b9\u6574\u5099\u5c40\u9ce5\u6d77\u30c0\u30e0\u5de5\u4e8b\u4e8b\u52d9\u6240","boring_xml_url":72,"boring_view_url":1,"soilmap_view_url":null,"soiltest_xml_url":0,"soiltest_view_url":0},{"id":505265,"code":"B4KJ202201000-7801","latitude":"39.126188","longitude":"140.157906","source_code":"TH20148250600200140001","project_name":"\u5e73\u621026\u5e74\u5ea6\u3000\u9ce5\u6d77\u30c0\u30e0\u5730\u8cea\u8abf\u67fb","survey_name":"\u5e73\u621026\u5e74\u5ea6\u3000\u9ce5\u6d77\u30c0\u30e0\u5730\u8cea\u8abf\u67fb","client_name":"\u56fd\u571f\u4ea4\u901a\u7701\u6771\u5317\u5730\u65b9\u6574\u5099\u5c40\u9ce5\u6d77\u30c0\u30e0\u8abf\u67fb\u4e8b\u52d9\u6240","boring_xml_url":72,"boring_view_url":1,"soilmap_view_url":null,"soiltest_xml_url":0,"soiltest_view_url":0},{"id":505264,"code":"B4KJ202201000-7800","latitude":"39.60845","longitude":"141.63238","source_code":"TH20148237410100230006","project_name":"","survey_name":"\u56fd\u9053106\u53f7\u3000\u7bb1\u77f3\u5730\u533a\u9053\u8def\u5de5\u4e8b","client_name":"\u56fd\u571f\u4ea4\u901a\u7701\u6771\u5317\u5730\u65b9\u6574\u5099\u5c40\u4e09\u9678\u56fd\u9053\u4e8b\u52d9\u6240","boring_xml_url":72,"boring_view_url":1,"soilmap_view_url":null,"soiltest_xml_url":0,"soiltest_view_url":0},{"id":505263,"code":"B4KJ202201000-7799","latitude":"39.608287","longitude":"141.63255","source_code":"TH20148237410100230005","project_name":"","survey_name":"\u56fd\u9053106\u53f7\u3000\u7bb1\u77f3\u5730\u533a\u9053\u8def\u5de5\u4e8b","client_name":"\u56fd\u571f\u4ea4\u901a\u7701\u6771\u5317\u5730\u65b9\u6574\u5099\u5c40\u4e09\u9678\u56fd\u9053\u4e8b\u52d9\u6240","boring_xml_url":72,"boring_view_url":1,"soilmap_view_url":null,"soiltest_xml_url":0,"soiltest_view_url":0},{"id":505262,"code":"B4KJ202201000-7798","latitude":"39.608478","longitude":"141.632489","source_code":"TH20148237410100230004","project_name":"","survey_name":"\u56fd\u9053106\u53f7\u3000\u7bb1\u77f3\u5730\u533a\u9053\u8def\u5de5\u4e8b","client_name":"\u56fd\u571f\u4ea4\u901a\u7701\u6771\u5317\u5730\u65b9\u6574\u5099\u5c40\u4e09\u9678\u56fd\u9053\u4e8b\u52d9\u6240","boring_xml_url":72,"boring_view_url":1,"soilmap_view_url":null,"soiltest_xml_url":0,"soiltest_view_url":0},{"id":505261,"code":"B4KJ202201000-7797","latitude":"39.608459","longitude":"141.632811","source_code":"TH20148237410100230003","project_name":"","survey_name":"\u56fd\u9053106\u53f7\u3000\u7bb1\u77f3\u5730\u533a\u9053\u8def\u5de5\u4e8b","client_name":"\u56fd\u571f\u4ea4\u901a\u7701\u6771\u5317\u5730\u65b9\u6574\u5099\u5c40\u4e09\u9678\u56fd\u9053\u4e8b\u52d9\u6240","boring_xml_url":72,"boring_view_url":1,"soilmap_view_url":null,"soiltest_xml_url":0,"soiltest_view_url":0},{"id":505260,"code":"B4KJ202201000-7796","latitude":"39.608548","longitude":"141.632755","source_code":"TH20148237410100230002","project_name":"","survey_name":"\u56fd\u9053106\u53f7\u3000\u7bb1\u77f3\u5730\u533a\u9053\u8def\u5de5\u4e8b","client_name":"\u56fd\u571f\u4ea4\u901a\u7701\u6771\u5317\u5730\u65b9\u6574\u5099\u5c40\u4e09\u9678\u56fd\u9053\u4e8b\u52d9\u6240","boring_xml_url":72,"boring_view_url":1,"soilmap_view_url":null,"soiltest_xml_url":0,"soiltest_view_url":0},{"id":505259,"code":"B4KJ202201000-7795","latitude":"39.608548","longitude":"141.632755","source_code":"TH20148237410100230001","project_name":"","survey_name":"\u56fd\u9053106\u53f7\u3000\u7bb1\u77f3\u5730\u533a\u9053\u8def\u5de5\u4e8b","client_name":"\u56fd\u571f\u4ea4\u901a\u7701\u6771\u5317\u5730\u65b9\u6574\u5099\u5c40\u4e09\u9678\u56fd\u9053\u4e8b\u52d9\u6240","boring_xml_url":72,"boring_view_url":1,"soilmap_view_url":null,"soiltest_xml_url":0,"soiltest_view_url":0},{"id":505258,"code":"B4KJ202201000-7794","latitude":"36.888102","longitude":"140.784591","source_code":"TH20188268600200080003","project_name":"","survey_name":"\"\u5e73\u621030\u5e74\u5ea6 \u52ff\u6765\u5730\u533a\u6a4b\u6881\u4e88\u5099\u8a2d\u8a08\u696d\u52d9\"","client_name":"\"\u56fd\u571f\u4ea4\u901a\u7701 \u6771\u5317\u5730\u65b9\u6574\u5099\u5c40 \u78d0\u57ce\u56fd\u9053\u4e8b\u52d9\u6240\"","boring_xml_url":72,"boring_view_url":1,"soilmap_view_url":null,"soiltest_xml_url":0,"soiltest_view_url":0},{"id":505257,"code":"B4KJ202201000-7793","latitude":"36.887222","longitude":"140.784103","source_code":"TH20188268600200080002","project_name":"","survey_name":"\"\u5e73\u621030\u5e74\u5ea6 \u52ff\u6765\u5730\u533a\u6a4b\u6881\u4e88\u5099\u8a2d\u8a08\u696d\u52d9\"","client_name":"\"\u56fd\u571f\u4ea4\u901a\u7701 \u6771\u5317\u5730\u65b9\u6574\u5099\u5c40 \u78d0\u57ce\u56fd\u9053\u4e8b\u52d9\u6240\"","boring_xml_url":72,"boring_view_url":1,"soilmap_view_url":null,"soiltest_xml_url":0,"soiltest_view_url":0},{"id":505256,"code":"B4KJ202201000-7792","latitude":"36.886102","longitude":"140.783273","source_code":"TH20188268600200080001","project_name":"","survey_name":"\"\u5e73\u621030\u5e74\u5ea6 \u52ff\u6765\u5730\u533a\u6a4b\u6881\u4e88\u5099\u8a2d\u8a08\u696d\u52d9\"","client_name":"\"\u56fd\u571f\u4ea4\u901a\u7701 \u6771\u5317\u5730\u65b9\u6574\u5099\u5c40 \u78d0\u57ce\u56fd\u9053\u4e8b\u52d9\u6240\"","boring_xml_url":72,"boring_view_url":1,"soilmap_view_url":null,"soiltest_xml_url":0,"soiltest_view_url":0},{"id":505255,"code":"B4KJ202201000-7791","latitude":"38.889537","longitude":"141.589983","source_code":"TH20148240480100200005","project_name":"\u56fd\u905345\u53f7\u3000\u6c17\u4ed9\u6cbc\u6e7e\u6a2a\u65ad\u6a4b\u677e\u5d0e\u5730\u533a\u4e0b\u90e8\u5de5\u5de5\u4e8b","survey_name":"\u56fd\u905345\u53f7\u3000\u6c17\u4ed9\u6cbc\u6e7e\u6a2a\u65ad\u6a4b\u677e\u5d0e\u5730\u533a\u4e0b\u90e8\u5de5\u5de5\u4e8b(P9,P10)<\u5730\u8cea\u8abf\u67fb>","client_name":"\u56fd\u571f\u4ea4\u901a\u7701\u3000\u6771\u5317\u5730\u65b9\u6574\u5099\u5c40\u3000\u4ed9\u53f0\u6cb3\u5ddd\u56fd\u9053\u4e8b\u52d9\u6240","boring_xml_url":72,"boring_view_url":1,"soilmap_view_url":null,"soiltest_xml_url":0,"soiltest_view_url":0},{"id":505254,"code":"B4KJ202201000-7790","latitude":"38.889509","longitude":"141.589694","source_code":"TH20148240480100200004","project_name":"\u56fd\u905345\u53f7\u3000\u6c17\u4ed9\u6cbc\u6e7e\u6a2a\u65ad\u6a4b\u677e\u5d0e\u5730\u533a\u4e0b\u90e8\u5de5\u5de5\u4e8b","survey_name":"\u56fd\u905345\u53f7\u3000\u6c17\u4ed9\u6cbc\u6e7e\u6a2a\u65ad\u6a4b\u677e\u5d0e\u5730\u533a\u4e0b\u90e8\u5de5\u5de5\u4e8b(P9,P10)<\u5730\u8cea\u8abf\u67fb>","client_name":"\u56fd\u571f\u4ea4\u901a\u7701\u3000\u6771\u5317\u5730\u65b9\u6574\u5099\u5c40\u3000\u4ed9\u53f0\u6cb3\u5ddd\u56fd\u9053\u4e8b\u52d9\u6240","boring_xml_url":72,"boring_view_url":1,"soilmap_view_url":null,"soiltest_xml_url":0,"soiltest_view_url":0},{"id":505253,"code":"B4KJ202201000-7789","latitude":"38.889079","longitude":"141.589597","source_code":"TH20148240480100200003","project_name":"\u56fd\u905345\u53f7\u3000\u6c17\u4ed9\u6cbc\u6e7e\u6a2a\u65ad\u6a4b\u677e\u5d0e\u5730\u533a\u4e0b\u90e8\u5de5\u5de5\u4e8b","survey_name":"\u56fd\u905345\u53f7\u3000\u6c17\u4ed9\u6cbc\u6e7e\u6a2a\u65ad\u6a4b\u677e\u5d0e\u5730\u533a\u4e0b\u90e8\u5de5\u5de5\u4e8b(P9,P10)<\u5730\u8cea\u8abf\u67fb>","client_name":"\u56fd\u571f\u4ea4\u901a\u7701\u3000\u6771\u5317\u5730\u65b9\u6574\u5099\u5c40\u3000\u4ed9\u53f0\u6cb3\u5ddd\u56fd\u9053\u4e8b\u52d9\u6240","boring_xml_url":72,"boring_view_url":1,"soilmap_view_url":null,"soiltest_xml_url":0,"soiltest_view_url":0},{"id":505252,"code":"B4KJ202201000-7788","latitude":"38.889182","longitude":"141.589675","source_code":"TH20148240480100200002","project_name":"\u56fd\u905345\u53f7\u3000\u6c17\u4ed9\u6cbc\u6e7e\u6a2a\u65ad\u6a4b\u677e\u5d0e\u5730\u533a\u4e0b\u90e8\u5de5\u5de5\u4e8b","survey_name":"\u56fd\u905345\u53f7\u3000\u6c17\u4ed9\u6cbc\u6e7e\u6a2a\u65ad\u6a4b\u677e\u5d0e\u5730\u533a\u4e0b\u90e8\u5de5\u5de5\u4e8b(P9,P10)<\u5730\u8cea\u8abf\u67fb>","client_name":"\u56fd\u571f\u4ea4\u901a\u7701\u3000\u6771\u5317\u5730\u65b9\u6574\u5099\u5c40\u3000\u4ed9\u53f0\u6cb3\u5ddd\u56fd\u9053\u4e8b\u52d9\u6240","boring_xml_url":72,"boring_view_url":1,"soilmap_view_url":null,"soiltest_xml_url":0,"soiltest_view_url":0},{"id":505251,"code":"B4KJ202201000-7787","latitude":"38.889229","longitude":"141.589539","source_code":"TH20148240480100200001","project_name":"\u56fd\u905345\u53f7\u3000\u6c17\u4ed9\u6cbc\u6e7e\u6a2a\u65ad\u677e\u5d0e\u6a4b\u5730\u533a\u4e0b\u90e8\u5de5\u5de5\u4e8b","survey_name":"\u56fd\u905345\u53f7\u3000\u6c17\u4ed9\u6cbc\u6e7e\u6a2a\u65ad\u6a4b\u677e\u5d0e\u5730\u533a\u4e0b\u90e8\u5de5\u5de5\u4e8b(P9,P10)<\u5730\u8cea\u8abf\u67fb>","client_name":"\u56fd\u571f\u4ea4\u901a\u7701\u3000\u6771\u5317\u5730\u65b9\u6574\u5099\u5c40\u3000\u4ed9\u53f0\u6cb3\u5ddd\u56fd\u9053\u4e8b\u52d9\u6240","boring_xml_url":72,"boring_view_url":1,"soilmap_view_url":null,"soiltest_xml_url":0,"soiltest_view_url":0}]}}