{"header":{"xyz":{"source":[],"mosaic":false},"page":1341,"raw":{"soiltest_result":"0","bbox":"57.598333,109.544722,1.933333,163.806111","page":"1341"},"conditions":{"soiltest_result":0,"north":57.598333,"west":109.544722,"south":1.933333,"east":163.806111},"success":true,"message":""},"data":{"meta":{"total":212844,"page":1341,"pages":7095,"count":30},"values":[{"id":505160,"code":"B4KJ202201000-7696","latitude":"40.191186","longitude":"141.786786","source_code":"TH20128237620200160025","project_name":"\u5e73\u621024\u5e74\u5ea6\u3000\u91ce\u7530\u4e45\u6148\u5730\u533a\u5730\u8cea\u8abf\u67fb","survey_name":"\u5e73\u621024\u5e74\u5ea6\u3000\u91ce\u7530\u4e45\u6148\u5730\u533a\u5730\u8cea\u8abf\u67fb","client_name":"\u56fd\u571f\u4ea4\u901a\u7701\u3000\u6771\u5317\u5730\u65b9\u6574\u5099\u5c40\u3000\u4e09\u9678\u56fd\u9053\u4e8b\u52d9\u6240","boring_xml_url":72,"boring_view_url":1,"soilmap_view_url":null,"soiltest_xml_url":0,"soiltest_view_url":0},{"id":505159,"code":"B4KJ202201000-7695","latitude":"40.189964","longitude":"141.78737","source_code":"TH20128237620200160024","project_name":"\u5e73\u621024\u5e74\u5ea6\u3000\u91ce\u7530\u4e45\u6148\u5730\u533a\u5730\u8cea\u8abf\u67fb","survey_name":"\u5e73\u621024\u5e74\u5ea6\u3000\u91ce\u7530\u4e45\u6148\u5730\u533a\u5730\u8cea\u8abf\u67fb","client_name":"\u56fd\u571f\u4ea4\u901a\u7701\u3000\u6771\u5317\u5730\u65b9\u6574\u5099\u5c40\u3000\u4e09\u9678\u56fd\u9053\u4e8b\u52d9\u6240","boring_xml_url":72,"boring_view_url":1,"soilmap_view_url":null,"soiltest_xml_url":0,"soiltest_view_url":0},{"id":505158,"code":"B4KJ202201000-7694","latitude":"40.188325","longitude":"141.788842","source_code":"TH20128237620200160023","project_name":"\u5e73\u621024\u5e74\u5ea6\u3000\u91ce\u7530\u4e45\u6148\u5730\u533a\u5730\u8cea\u8abf\u67fb","survey_name":"\u5e73\u621024\u5e74\u5ea6\u3000\u91ce\u7530\u4e45\u6148\u5730\u533a\u5730\u8cea\u8abf\u67fb","client_name":"\u56fd\u571f\u4ea4\u901a\u7701\u3000\u6771\u5317\u5730\u65b9\u6574\u5099\u5c40\u3000\u4e09\u9678\u56fd\u9053\u4e8b\u52d9\u6240","boring_xml_url":72,"boring_view_url":1,"soilmap_view_url":null,"soiltest_xml_url":0,"soiltest_view_url":0},{"id":505157,"code":"B4KJ202201000-7693","latitude":"40.187908","longitude":"141.788147","source_code":"TH20128237620200160022","project_name":"\u5e73\u621024\u5e74\u5ea6\u3000\u91ce\u7530\u4e45\u6148\u5730\u533a\u5730\u8cea\u8abf\u67fb","survey_name":"\u5e73\u621024\u5e74\u5ea6\u3000\u91ce\u7530\u4e45\u6148\u5730\u533a\u5730\u8cea\u8abf\u67fb","client_name":"\u56fd\u571f\u4ea4\u901a\u7701\u3000\u6771\u5317\u5730\u65b9\u6574\u5099\u5c40\u3000\u4e09\u9678\u56fd\u9053\u4e8b\u52d9\u6240","boring_xml_url":72,"boring_view_url":1,"soilmap_view_url":null,"soiltest_xml_url":0,"soiltest_view_url":0},{"id":505156,"code":"B4KJ202201000-7692","latitude":"40.18765","longitude":"141.788814","source_code":"TH20128237620200160021","project_name":"\u5e73\u621024\u5e74\u5ea6\u3000\u91ce\u7530\u4e45\u6148\u5730\u533a\u5730\u8cea\u8abf\u67fb","survey_name":"\u5e73\u621024\u5e74\u5ea6\u3000\u91ce\u7530\u4e45\u6148\u5730\u533a\u5730\u8cea\u8abf\u67fb","client_name":"\u56fd\u571f\u4ea4\u901a\u7701\u3000\u6771\u5317\u5730\u65b9\u6574\u5099\u5c40\u3000\u4e09\u9678\u56fd\u9053\u4e8b\u52d9\u6240","boring_xml_url":72,"boring_view_url":1,"soilmap_view_url":null,"soiltest_xml_url":0,"soiltest_view_url":0},{"id":505155,"code":"B4KJ202201000-7691","latitude":"40.186075","longitude":"141.789731","source_code":"TH20128237620200160020","project_name":"\u5e73\u621024\u5e74\u5ea6\u3000\u91ce\u7530\u4e45\u6148\u5730\u533a\u5730\u8cea\u8abf\u67fb","survey_name":"\u5e73\u621024\u5e74\u5ea6\u3000\u91ce\u7530\u4e45\u6148\u5730\u533a\u5730\u8cea\u8abf\u67fb","client_name":"\u56fd\u571f\u4ea4\u901a\u7701\u3000\u6771\u5317\u5730\u65b9\u6574\u5099\u5c40\u3000\u4e09\u9678\u56fd\u9053\u4e8b\u52d9\u6240","boring_xml_url":72,"boring_view_url":1,"soilmap_view_url":null,"soiltest_xml_url":0,"soiltest_view_url":0},{"id":505154,"code":"B4KJ202201000-7690","latitude":"40.164964","longitude":"141.777592","source_code":"TH20128237620200160019","project_name":"\u5e73\u621024\u5e74\u5ea6\u3000\u91ce\u7530\u4e45\u6148\u5730\u533a\u5730\u8cea\u8abf\u67fb","survey_name":"\u5e73\u621024\u5e74\u5ea6\u3000\u91ce\u7530\u4e45\u6148\u5730\u533a\u5730\u8cea\u8abf\u67fb","client_name":"\u56fd\u571f\u4ea4\u901a\u7701\u3000\u6771\u5317\u5730\u65b9\u6574\u5099\u5c40\u3000\u4e09\u9678\u56fd\u9053\u4e8b\u52d9\u6240","boring_xml_url":72,"boring_view_url":1,"soilmap_view_url":null,"soiltest_xml_url":0,"soiltest_view_url":0},{"id":505153,"code":"B4KJ202201000-7689","latitude":"40.165269","longitude":"141.777259","source_code":"TH20128237620200160018","project_name":"\u5e73\u621024\u5e74\u5ea6\u3000\u91ce\u7530\u4e45\u6148\u5730\u533a\u5730\u8cea\u8abf\u67fb","survey_name":"\u5e73\u621024\u5e74\u5ea6\u3000\u91ce\u7530\u4e45\u6148\u5730\u533a\u5730\u8cea\u8abf\u67fb","client_name":"\u56fd\u571f\u4ea4\u901a\u7701\u3000\u6771\u5317\u5730\u65b9\u6574\u5099\u5c40\u3000\u4e09\u9678\u56fd\u9053\u4e8b\u52d9\u6240","boring_xml_url":72,"boring_view_url":1,"soilmap_view_url":null,"soiltest_xml_url":0,"soiltest_view_url":0},{"id":505152,"code":"B4KJ202201000-7688","latitude":"40.164825","longitude":"141.77687","source_code":"TH20128237620200160017","project_name":"\u5e73\u621024\u5e74\u5ea6\u3000\u91ce\u7530\u4e45\u6148\u5730\u533a\u5730\u8cea\u8abf\u67fb","survey_name":"\u5e73\u621024\u5e74\u5ea6\u3000\u91ce\u7530\u4e45\u6148\u5730\u533a\u5730\u8cea\u8abf\u67fb","client_name":"\u56fd\u571f\u4ea4\u901a\u7701\u3000\u6771\u5317\u5730\u65b9\u6574\u5099\u5c40\u3000\u4e09\u9678\u56fd\u9053\u4e8b\u52d9\u6240","boring_xml_url":72,"boring_view_url":1,"soilmap_view_url":null,"soiltest_xml_url":0,"soiltest_view_url":0},{"id":505151,"code":"B4KJ202201000-7687","latitude":"40.164964","longitude":"141.776481","source_code":"TH20128237620200160016","project_name":"\u5e73\u621024\u5e74\u5ea6\u3000\u91ce\u7530\u4e45\u6148\u5730\u533a\u5730\u8cea\u8abf\u67fb","survey_name":"\u5e73\u621024\u5e74\u5ea6\u3000\u91ce\u7530\u4e45\u6148\u5730\u533a\u5730\u8cea\u8abf\u67fb","client_name":"\u56fd\u571f\u4ea4\u901a\u7701\u3000\u6771\u5317\u5730\u65b9\u6574\u5099\u5c40\u3000\u4e09\u9678\u56fd\u9053\u4e8b\u52d9\u6240","boring_xml_url":72,"boring_view_url":1,"soilmap_view_url":null,"soiltest_xml_url":0,"soiltest_view_url":0},{"id":505150,"code":"B4KJ202201000-7686","latitude":"40.164714","longitude":"141.776231","source_code":"TH20128237620200160015","project_name":"\u5e73\u621024\u5e74\u5ea6\u3000\u91ce\u7530\u4e45\u6148\u5730\u533a\u5730\u8cea\u8abf\u67fb","survey_name":"\u5e73\u621024\u5e74\u5ea6\u3000\u91ce\u7530\u4e45\u6148\u5730\u533a\u5730\u8cea\u8abf\u67fb","client_name":"\u56fd\u571f\u4ea4\u901a\u7701\u3000\u6771\u5317\u5730\u65b9\u6574\u5099\u5c40\u3000\u4e09\u9678\u56fd\u9053\u4e8b\u52d9\u6240","boring_xml_url":72,"boring_view_url":1,"soilmap_view_url":null,"soiltest_xml_url":0,"soiltest_view_url":0},{"id":505149,"code":"B4KJ202201000-7685","latitude":"40.164853","longitude":"141.776009","source_code":"TH20128237620200160014","project_name":"\u5e73\u621024\u5e74\u5ea6\u3000\u91ce\u7530\u4e45\u6148\u5730\u533a\u5730\u8cea\u8abf\u67fb","survey_name":"\u5e73\u621024\u5e74\u5ea6\u3000\u91ce\u7530\u4e45\u6148\u5730\u533a\u5730\u8cea\u8abf\u67fb","client_name":"\u56fd\u571f\u4ea4\u901a\u7701\u3000\u6771\u5317\u5730\u65b9\u6574\u5099\u5c40\u3000\u4e09\u9678\u56fd\u9053\u4e8b\u52d9\u6240","boring_xml_url":72,"boring_view_url":1,"soilmap_view_url":null,"soiltest_xml_url":0,"soiltest_view_url":0},{"id":505148,"code":"B4KJ202201000-7684","latitude":"40.164825","longitude":"141.773592","source_code":"TH20128237620200160013","project_name":"\u5e73\u621024\u5e74\u5ea6\u3000\u91ce\u7530\u4e45\u6148\u5730\u533a\u5730\u8cea\u8abf\u67fb","survey_name":"\u5e73\u621024\u5e74\u5ea6\u3000\u91ce\u7530\u4e45\u6148\u5730\u533a\u5730\u8cea\u8abf\u67fb","client_name":"\u56fd\u571f\u4ea4\u901a\u7701\u3000\u6771\u5317\u5730\u65b9\u6574\u5099\u5c40\u3000\u4e09\u9678\u56fd\u9053\u4e8b\u52d9\u6240","boring_xml_url":72,"boring_view_url":1,"soilmap_view_url":null,"soiltest_xml_url":0,"soiltest_view_url":0},{"id":505147,"code":"B4KJ202201000-7683","latitude":"40.163408","longitude":"141.772148","source_code":"TH20128237620200160012","project_name":"\u5e73\u621024\u5e74\u5ea6\u3000\u91ce\u7530\u4e45\u6148\u5730\u533a\u5730\u8cea\u8abf\u67fb","survey_name":"\u5e73\u621024\u5e74\u5ea6\u3000\u91ce\u7530\u4e45\u6148\u5730\u533a\u5730\u8cea\u8abf\u67fb","client_name":"\u56fd\u571f\u4ea4\u901a\u7701\u3000\u6771\u5317\u5730\u65b9\u6574\u5099\u5c40\u3000\u4e09\u9678\u56fd\u9053\u4e8b\u52d9\u6240","boring_xml_url":72,"boring_view_url":1,"soilmap_view_url":null,"soiltest_xml_url":0,"soiltest_view_url":0},{"id":505146,"code":"B4KJ202201000-7682","latitude":"40.134741","longitude":"141.773898","source_code":"TH20128237620200160011","project_name":"\u5e73\u621024\u5e74\u5ea6\u3000\u91ce\u7530\u4e45\u6148\u5730\u533a\u5730\u8cea\u8abf\u67fb","survey_name":"\u5e73\u621024\u5e74\u5ea6\u3000\u91ce\u7530\u4e45\u6148\u5730\u533a\u5730\u8cea\u8abf\u67fb","client_name":"\u56fd\u571f\u4ea4\u901a\u7701\u3000\u6771\u5317\u5730\u65b9\u6574\u5099\u5c40\u3000\u4e09\u9678\u56fd\u9053\u4e8b\u52d9\u6240","boring_xml_url":72,"boring_view_url":1,"soilmap_view_url":null,"soiltest_xml_url":0,"soiltest_view_url":0},{"id":505145,"code":"B4KJ202201000-7681","latitude":"40.13388","longitude":"141.776648","source_code":"TH20128237620200160010","project_name":"\u5e73\u621024\u5e74\u5ea6\u3000\u91ce\u7530\u4e45\u6148\u5730\u533a\u5730\u8cea\u8abf\u67fb","survey_name":"\u5e73\u621024\u5e74\u5ea6\u3000\u91ce\u7530\u4e45\u6148\u5730\u533a\u5730\u8cea\u8abf\u67fb","client_name":"\u56fd\u571f\u4ea4\u901a\u7701\u3000\u6771\u5317\u5730\u65b9\u6574\u5099\u5c40\u3000\u4e09\u9678\u56fd\u9053\u4e8b\u52d9\u6240","boring_xml_url":72,"boring_view_url":1,"soilmap_view_url":null,"soiltest_xml_url":0,"soiltest_view_url":0},{"id":505144,"code":"B4KJ202201000-7680","latitude":"40.130436","longitude":"141.780648","source_code":"TH20128237620200160009","project_name":"\u5e73\u621024\u5e74\u5ea6\u3000\u91ce\u7530\u4e45\u6148\u5730\u533a\u5730\u8cea\u8abf\u67fb","survey_name":"\u5e73\u621024\u5e74\u5ea6\u3000\u91ce\u7530\u4e45\u6148\u5730\u533a\u5730\u8cea\u8abf\u67fb","client_name":"\u56fd\u571f\u4ea4\u901a\u7701\u3000\u6771\u5317\u5730\u65b9\u6574\u5099\u5c40\u3000\u4e09\u9678\u56fd\u9053\u4e8b\u52d9\u6240","boring_xml_url":72,"boring_view_url":1,"soilmap_view_url":null,"soiltest_xml_url":0,"soiltest_view_url":0},{"id":505143,"code":"B4KJ202201000-7679","latitude":"40.130158","longitude":"141.781232","source_code":"TH20128237620200160008","project_name":"\u5e73\u621024\u5e74\u5ea6\u3000\u91ce\u7530\u4e45\u6148\u5730\u533a\u5730\u8cea\u8abf\u67fb","survey_name":"\u5e73\u621024\u5e74\u5ea6\u3000\u91ce\u7530\u4e45\u6148\u5730\u533a\u5730\u8cea\u8abf\u67fb","client_name":"\u56fd\u571f\u4ea4\u901a\u7701\u3000\u6771\u5317\u5730\u65b9\u6574\u5099\u5c40\u3000\u4e09\u9678\u56fd\u9053\u4e8b\u52d9\u6240","boring_xml_url":72,"boring_view_url":1,"soilmap_view_url":null,"soiltest_xml_url":0,"soiltest_view_url":0},{"id":505142,"code":"B4KJ202201000-7678","latitude":"40.129825","longitude":"141.782926","source_code":"TH20128237620200160007","project_name":"\u5e73\u621024\u5e74\u5ea6\u3000\u91ce\u7530\u4e45\u6148\u5730\u533a\u5730\u8cea\u8abf\u67fb","survey_name":"\u5e73\u621024\u5e74\u5ea6\u3000\u91ce\u7530\u4e45\u6148\u5730\u533a\u5730\u8cea\u8abf\u67fb","client_name":"\u56fd\u571f\u4ea4\u901a\u7701\u3000\u6771\u5317\u5730\u65b9\u6574\u5099\u5c40\u3000\u4e09\u9678\u56fd\u9053\u4e8b\u52d9\u6240","boring_xml_url":72,"boring_view_url":1,"soilmap_view_url":null,"soiltest_xml_url":0,"soiltest_view_url":0},{"id":505141,"code":"B4KJ202201000-7677","latitude":"40.128352","longitude":"141.786954","source_code":"TH20128237620200160006","project_name":"\u5e73\u621024\u5e74\u5ea6\u3000\u91ce\u7530\u4e45\u6148\u5730\u533a\u5730\u8cea\u8abf\u67fb","survey_name":"\u5e73\u621024\u5e74\u5ea6\u3000\u91ce\u7530\u4e45\u6148\u5730\u533a\u5730\u8cea\u8abf\u67fb","client_name":"\u56fd\u571f\u4ea4\u901a\u7701\u3000\u6771\u5317\u5730\u65b9\u6574\u5099\u5c40\u3000\u4e09\u9678\u56fd\u9053\u4e8b\u52d9\u6240","boring_xml_url":72,"boring_view_url":1,"soilmap_view_url":null,"soiltest_xml_url":0,"soiltest_view_url":0},{"id":505140,"code":"B4KJ202201000-7676","latitude":"40.126269","longitude":"141.791121","source_code":"TH20128237620200160005","project_name":"\u5e73\u621024\u5e74\u5ea6\u3000\u91ce\u7530\u4e45\u6148\u5730\u533a\u5730\u8cea\u8abf\u67fb","survey_name":"\u5e73\u621024\u5e74\u5ea6\u3000\u91ce\u7530\u4e45\u6148\u5730\u533a\u5730\u8cea\u8abf\u67fb","client_name":"\u56fd\u571f\u4ea4\u901a\u7701\u3000\u6771\u5317\u5730\u65b9\u6574\u5099\u5c40\u3000\u4e09\u9678\u56fd\u9053\u4e8b\u52d9\u6240","boring_xml_url":72,"boring_view_url":1,"soilmap_view_url":null,"soiltest_xml_url":0,"soiltest_view_url":0},{"id":505139,"code":"B4KJ202201000-7675","latitude":"40.123019","longitude":"141.795399","source_code":"TH20128237620200160004","project_name":"\u5e73\u621024\u5e74\u5ea6\u3000\u91ce\u7530\u4e45\u6148\u5730\u533a\u5730\u8cea\u8abf\u67fb","survey_name":"\u5e73\u621024\u5e74\u5ea6\u3000\u91ce\u7530\u4e45\u6148\u5730\u533a\u5730\u8cea\u8abf\u67fb","client_name":"\u56fd\u571f\u4ea4\u901a\u7701\u3000\u6771\u5317\u5730\u65b9\u6574\u5099\u5c40\u3000\u4e09\u9678\u56fd\u9053\u4e8b\u52d9\u6240","boring_xml_url":72,"boring_view_url":1,"soilmap_view_url":null,"soiltest_xml_url":0,"soiltest_view_url":0},{"id":505138,"code":"B4KJ202201000-7674","latitude":"40.120019","longitude":"141.797454","source_code":"TH20128237620200160003","project_name":"\u5e73\u621024\u5e74\u5ea6\u3000\u91ce\u7530\u4e45\u6148\u5730\u533a\u5730\u8cea\u8abf\u67fb","survey_name":"\u5e73\u621024\u5e74\u5ea6\u3000\u91ce\u7530\u4e45\u6148\u5730\u533a\u5730\u8cea\u8abf\u67fb","client_name":"\u56fd\u571f\u4ea4\u901a\u7701\u3000\u6771\u5317\u5730\u65b9\u6574\u5099\u5c40\u3000\u4e09\u9678\u56fd\u9053\u4e8b\u52d9\u6240","boring_xml_url":72,"boring_view_url":1,"soilmap_view_url":null,"soiltest_xml_url":0,"soiltest_view_url":0},{"id":505137,"code":"B4KJ202201000-7673","latitude":"40.039712","longitude":"141.868512","source_code":"TH20128237620200150025","project_name":"\u5e73\u621024\u5e74\u5ea6\u3000\u666e\u4ee3\u91ce\u7530\u5730\u533a\u5730\u8cea\u8abf\u67fb","survey_name":"\u5e73\u621024\u5e74\u5ea6\u3000\u666e\u4ee3\u91ce\u7530\u5730\u533a\u5730\u8cea\u8abf\u67fb","client_name":"\u56fd\u571f\u4ea4\u901a\u7701\u3000\u6771\u5317\u5730\u65b9\u6574\u5099\u5c40\u3000\u4e09\u9678\u56fd\u9053\u4e8b\u52d9\u6240","boring_xml_url":72,"boring_view_url":1,"soilmap_view_url":null,"soiltest_xml_url":0,"soiltest_view_url":0},{"id":505136,"code":"B4KJ202201000-7672","latitude":"40.104797","longitude":"141.810232","source_code":"TH20128237620200150019","project_name":"\u5e73\u621024\u5e74\u5ea6\u3000\u666e\u4ee3\u91ce\u7530\u5730\u533a\u5730\u8cea\u8abf\u67fb","survey_name":"\u5e73\u621024\u5e74\u5ea6\u3000\u666e\u4ee3\u91ce\u7530\u5730\u533a\u5730\u8cea\u8abf\u67fb","client_name":"\u56fd\u571f\u4ea4\u901a\u7701\u3000\u6771\u5317\u5730\u65b9\u6574\u5099\u5c40\u3000\u4e09\u9678\u56fd\u9053\u4e8b\u52d9\u6240","boring_xml_url":72,"boring_view_url":1,"soilmap_view_url":null,"soiltest_xml_url":0,"soiltest_view_url":0},{"id":505135,"code":"B4KJ202201000-7671","latitude":"40.104574","longitude":"141.81001","source_code":"TH20128237620200150018","project_name":"\u5e73\u621024\u5e74\u5ea6\u3000\u666e\u4ee3\u91ce\u7530\u5730\u533a\u5730\u8cea\u8abf\u67fb","survey_name":"\u5e73\u621024\u5e74\u5ea6\u3000\u666e\u4ee3\u91ce\u7530\u5730\u533a\u5730\u8cea\u8abf\u67fb","client_name":"\u56fd\u571f\u4ea4\u901a\u7701\u3000\u6771\u5317\u5730\u65b9\u6574\u5099\u5c40\u3000\u4e09\u9678\u56fd\u9053\u4e8b\u52d9\u6240","boring_xml_url":72,"boring_view_url":1,"soilmap_view_url":null,"soiltest_xml_url":0,"soiltest_view_url":0},{"id":505134,"code":"B4KJ202201000-7670","latitude":"40.068213","longitude":"141.810344","source_code":"TH20128237620200150017","project_name":"\u5e73\u621024\u5e74\u5ea6\u3000\u666e\u4ee3\u91ce\u7530\u5730\u533a\u5730\u8cea\u8abf\u67fb","survey_name":"\u5e73\u621024\u5e74\u5ea6\u3000\u666e\u4ee3\u91ce\u7530\u5730\u533a\u5730\u8cea\u8abf\u67fb","client_name":"\u56fd\u571f\u4ea4\u901a\u7701\u3000\u6771\u5317\u5730\u65b9\u6574\u5099\u5c40\u3000\u4e09\u9678\u56fd\u9053\u4e8b\u52d9\u6240","boring_xml_url":72,"boring_view_url":1,"soilmap_view_url":null,"soiltest_xml_url":0,"soiltest_view_url":0},{"id":505133,"code":"B4KJ202201000-7669","latitude":"40.088074","longitude":"141.821955","source_code":"TH20128237620200150016","project_name":"\u5e73\u621024\u5e74\u5ea6\u3000\u666e\u4ee3\u91ce\u7530\u5730\u533a\u5730\u8cea\u8abf\u67fb","survey_name":"\u5e73\u621024\u5e74\u5ea6\u3000\u666e\u4ee3\u91ce\u7530\u5730\u533a\u5730\u8cea\u8abf\u67fb","client_name":"\u56fd\u571f\u4ea4\u901a\u7701\u3000\u6771\u5317\u5730\u65b9\u6574\u5099\u5c40\u3000\u4e09\u9678\u56fd\u9053\u4e8b\u52d9\u6240","boring_xml_url":72,"boring_view_url":1,"soilmap_view_url":null,"soiltest_xml_url":0,"soiltest_view_url":0},{"id":505132,"code":"B4KJ202201000-7668","latitude":"40.087157","longitude":"141.821955","source_code":"TH20128237620200150015","project_name":"\u5e73\u621024\u5e74\u5ea6\u3000\u666e\u4ee3\u91ce\u7530\u5730\u533a\u5730\u8cea\u8abf\u67fb","survey_name":"\u5e73\u621024\u5e74\u5ea6\u3000\u666e\u4ee3\u91ce\u7530\u5730\u533a\u5730\u8cea\u8abf\u67fb","client_name":"\u56fd\u571f\u4ea4\u901a\u7701\u3000\u6771\u5317\u5730\u65b9\u6574\u5099\u5c40\u3000\u4e09\u9678\u56fd\u9053\u4e8b\u52d9\u6240","boring_xml_url":72,"boring_view_url":1,"soilmap_view_url":null,"soiltest_xml_url":0,"soiltest_view_url":0},{"id":505131,"code":"B4KJ202201000-7667","latitude":"40.08138","longitude":"141.823622","source_code":"TH20128237620200150014","project_name":"\u5e73\u621024\u5e74\u5ea6\u3000\u666e\u4ee3\u91ce\u7530\u5730\u533a\u5730\u8cea\u8abf\u67fb","survey_name":"\u5e73\u621024\u5e74\u5ea6\u3000\u666e\u4ee3\u91ce\u7530\u5730\u533a\u5730\u8cea\u8abf\u67fb","client_name":"\u56fd\u571f\u4ea4\u901a\u7701\u3000\u6771\u5317\u5730\u65b9\u6574\u5099\u5c40\u3000\u4e09\u9678\u56fd\u9053\u4e8b\u52d9\u6240","boring_xml_url":72,"boring_view_url":1,"soilmap_view_url":null,"soiltest_xml_url":0,"soiltest_view_url":0}]}}