{"header":{"xyz":{"source":[],"mosaic":false},"page":1352,"raw":{"soiltest_result":"0","bbox":"57.598333,109.544722,1.933333,163.806111","page":"1352"},"conditions":{"soiltest_result":0,"north":57.598333,"west":109.544722,"south":1.933333,"east":163.806111},"success":true,"message":""},"data":{"meta":{"total":212844,"page":1352,"pages":7095,"count":30},"values":[{"id":504830,"code":"B4KJ202201000-7366","latitude":"39.763321","longitude":"141.968908","source_code":"TH20118237600201190018","project_name":"\u8def\u7dda\u3000\u9ad8\u898f\u683c\u5e79\u7dda\u9053\u8def\u3000\u4e09\u9678\u81ea\u52d5\u8eca\u9053","survey_name":"\"\u5e73\u621023\u5e74\u5ea6 \u7530\u8001\u5730\u533a\u5730\u76e4\u8abf\u67fb\"","client_name":"\"\u56fd\u571f\u4ea4\u901a\u7701 \u6771\u5317\u5730\u65b9\u6574\u5099\u5c40 \u4e09\u9678\u56fd\u9053\u4e8b\u52d9\u6240\"","boring_xml_url":72,"boring_view_url":1,"soilmap_view_url":null,"soiltest_xml_url":0,"soiltest_view_url":0},{"id":504829,"code":"B4KJ202201000-7365","latitude":"39.761654","longitude":"141.969741","source_code":"TH20118237600201190017","project_name":"\u8def\u7dda\u3000\u9ad8\u898f\u683c\u5e79\u7dda\u9053\u8def\u3000\u4e09\u9678\u7e26\u8cab\u81ea\u52d5\u8eca\u9053","survey_name":"\"\u5e73\u621023\u5e74\u5ea6 \u7530\u8001\u5730\u533a\u5730\u76e4\u8abf\u67fb\"","client_name":"\"\u56fd\u571f\u4ea4\u901a\u7701 \u6771\u5317\u5730\u65b9\u6574\u5099\u5c40 \u4e09\u9678\u56fd\u9053\u4e8b\u52d9\u6240\"","boring_xml_url":72,"boring_view_url":1,"soilmap_view_url":null,"soiltest_xml_url":0,"soiltest_view_url":0},{"id":504828,"code":"B4KJ202201000-7364","latitude":"39.760265","longitude":"141.970296","source_code":"TH20118237600201190016","project_name":"\u8def\u7dda\u3000\u9ad8\u898f\u683c\u5e79\u7dda\u9053\u8def\u3000\u4e09\u9678\u7e26\u8cab\u81ea\u52d5\u8eca\u9053","survey_name":"\"\u5e73\u621023\u5e74\u5ea6 \u7530\u8001\u5730\u533a\u5730\u76e4\u8abf\u67fb\"","client_name":"\"\u56fd\u571f\u4ea4\u901a\u7701 \u6771\u5317\u5730\u65b9\u6574\u5099\u5c40 \u4e09\u9678\u56fd\u9053\u4e8b\u52d9\u6240\"","boring_xml_url":72,"boring_view_url":1,"soilmap_view_url":null,"soiltest_xml_url":0,"soiltest_view_url":0},{"id":504827,"code":"B4KJ202201000-7363","latitude":"39.757765","longitude":"141.969741","source_code":"TH20118237600201190015","project_name":"\u8def\u7dda\u3000\u9ad8\u898f\u683c\u5e79\u7dda\u9053\u8def\u3000\u4e09\u9678\u81ea\u52d5\u8eca\u9053","survey_name":"\"\u5e73\u621023\u5e74\u5ea6 \u7530\u8001\u5730\u533a\u5730\u76e4\u8abf\u67fb\"","client_name":"\"\u56fd\u571f\u4ea4\u901a\u7701 \u6771\u5317\u5730\u65b9\u6574\u5099\u5c40 \u4e09\u9678\u56fd\u9053\u4e8b\u52d9\u6240\"","boring_xml_url":72,"boring_view_url":1,"soilmap_view_url":null,"soiltest_xml_url":0,"soiltest_view_url":0},{"id":504826,"code":"B4KJ202201000-7362","latitude":"39.757765","longitude":"141.96863","source_code":"TH20118237600201190014","project_name":"\u8def\u7dda\u3000\u9ad8\u898f\u683c\u5e79\u7dda\u9053\u8def\u3000\u4e09\u9678\u81ea\u52d5\u8eca\u9053","survey_name":"\"\u5e73\u621023\u5e74\u5ea6 \u7530\u8001\u5730\u533a\u5730\u76e4\u8abf\u67fb\"","client_name":"\"\u56fd\u571f\u4ea4\u901a\u7701 \u6771\u5317\u5730\u65b9\u6574\u5099\u5c40 \u4e09\u9678\u56fd\u9053\u4e8b\u52d9\u6240\"","boring_xml_url":72,"boring_view_url":1,"soilmap_view_url":null,"soiltest_xml_url":0,"soiltest_view_url":0},{"id":504825,"code":"B4KJ202201000-7361","latitude":"39.752765","longitude":"141.965852","source_code":"TH20118237600201190013","project_name":"\u8def\u7dda\u3000\u9ad8\u898f\u683c\u5e79\u7dda\u9053\u8def\u3000\u4e09\u9678\u81ea\u52d5\u8eca\u9053","survey_name":"\"\u5e73\u621023\u5e74\u5ea6 \u7530\u8001\u5730\u533a\u5730\u76e4\u8abf\u67fb\"","client_name":"\"\u56fd\u571f\u4ea4\u901a\u7701 \u6771\u5317\u5730\u65b9\u6574\u5099\u5c40 \u4e09\u9678\u56fd\u9053\u4e8b\u52d9\u6240\"","boring_xml_url":72,"boring_view_url":1,"soilmap_view_url":null,"soiltest_xml_url":0,"soiltest_view_url":0},{"id":504824,"code":"B4KJ202201000-7360","latitude":"39.751932","longitude":"141.965574","source_code":"TH20118237600201190012","project_name":"\u8def\u7dda\u3000\u9ad8\u898f\u683c\u5e79\u7dda\u9053\u8def\u3000\u4e09\u9678\u81ea\u52d5\u8eca\u9053","survey_name":"\"\u5e73\u621023\u5e74\u5ea6 \u7530\u8001\u5730\u533a\u5730\u76e4\u8abf\u67fb\"","client_name":"\"\u56fd\u571f\u4ea4\u901a\u7701 \u6771\u5317\u5730\u65b9\u6574\u5099\u5c40 \u4e09\u9678\u56fd\u9053\u4e8b\u52d9\u6240\"","boring_xml_url":72,"boring_view_url":1,"soilmap_view_url":null,"soiltest_xml_url":0,"soiltest_view_url":0},{"id":504823,"code":"B4KJ202201000-7359","latitude":"39.751654","longitude":"141.965852","source_code":"TH20118237600201190011","project_name":"\u8def\u7dda\u3000\u9ad8\u898f\u683c\u5e79\u7dda\u9053\u8def\u3000\u4e09\u9678\u81ea\u52d5\u8eca\u9053","survey_name":"\"\u5e73\u621023\u5e74\u5ea6 \u7530\u8001\u5730\u533a\u5730\u76e4\u8abf\u67fb\"","client_name":"\"\u56fd\u571f\u4ea4\u901a\u7701 \u6771\u5317\u5730\u65b9\u6574\u5099\u5c40 \u4e09\u9678\u56fd\u9053\u4e8b\u52d9\u6240\"","boring_xml_url":72,"boring_view_url":1,"soilmap_view_url":null,"soiltest_xml_url":0,"soiltest_view_url":0},{"id":504822,"code":"B4KJ202201000-7358","latitude":"39.749154","longitude":"141.964186","source_code":"TH20118237600201190010","project_name":"\u8def\u7dda\u3000\u9ad8\u898f\u683c\u5e79\u7dda\u9053\u8def\u3000\u4e09\u9678\u81ea\u52d5\u8eca\u9053","survey_name":"\"\u5e73\u621023\u5e74\u5ea6 \u7530\u8001\u5730\u533a\u5730\u76e4\u8abf\u67fb\"","client_name":"\"\u56fd\u571f\u4ea4\u901a\u7701 \u6771\u5317\u5730\u65b9\u6574\u5099\u5c40 \u4e09\u9678\u56fd\u9053\u4e8b\u52d9\u6240\"","boring_xml_url":72,"boring_view_url":1,"soilmap_view_url":null,"soiltest_xml_url":0,"soiltest_view_url":0},{"id":504821,"code":"B4KJ202201000-7357","latitude":"39.748876","longitude":"141.963908","source_code":"TH20118237600201190009","project_name":"\u8def\u7dda\u3000\u9ad8\u898f\u683c\u5e79\u7dda\u9053\u8def\u3000\u4e09\u9678\u81ea\u52d5\u8eca\u9053","survey_name":"\"\u5e73\u621023\u5e74\u5ea6 \u7530\u8001\u5730\u533a\u5730\u76e4\u8abf\u67fb\"","client_name":"\"\u56fd\u571f\u4ea4\u901a\u7701 \u6771\u5317\u5730\u65b9\u6574\u5099\u5c40 \u4e09\u9678\u56fd\u9053\u4e8b\u52d9\u6240\"","boring_xml_url":72,"boring_view_url":1,"soilmap_view_url":null,"soiltest_xml_url":0,"soiltest_view_url":0},{"id":504820,"code":"B4KJ202201000-7356","latitude":"39.748598","longitude":"141.963908","source_code":"TH20118237600201190008","project_name":"\u8def\u7dda\u3000\u9ad8\u898f\u683c\u5e79\u7dda\u9053\u8def\u3000\u4e09\u9678\u81ea\u52d5\u8eca\u9053","survey_name":"\"\u5e73\u621023\u5e74\u5ea6 \u7530\u8001\u5730\u533a\u5730\u76e4\u8abf\u67fb\"","client_name":"\"\u56fd\u571f\u4ea4\u901a\u7701 \u6771\u5317\u5730\u65b9\u6574\u5099\u5c40 \u4e09\u9678\u56fd\u9053\u4e8b\u52d9\u6240\"","boring_xml_url":72,"boring_view_url":1,"soilmap_view_url":null,"soiltest_xml_url":0,"soiltest_view_url":0},{"id":504819,"code":"B4KJ202201000-7355","latitude":"39.748321","longitude":"141.96363","source_code":"TH20118237600201190007","project_name":"\u8def\u7dda\u3000\u9ad8\u898f\u683c\u5e79\u7dda\u9053\u8def\u3000\u4e09\u9678\u81ea\u52d5\u8eca\u9053","survey_name":"\"\u5e73\u621023\u5e74\u5ea6 \u7530\u8001\u5730\u533a\u5730\u76e4\u8abf\u67fb\"","client_name":"\"\u56fd\u571f\u4ea4\u901a\u7701 \u6771\u5317\u5730\u65b9\u6574\u5099\u5c40 \u4e09\u9678\u56fd\u9053\u4e8b\u52d9\u6240\"","boring_xml_url":72,"boring_view_url":1,"soilmap_view_url":null,"soiltest_xml_url":0,"soiltest_view_url":0},{"id":504818,"code":"B4KJ202201000-7354","latitude":"39.743598","longitude":"141.961408","source_code":"TH20118237600201190006","project_name":"\u8def\u7dda\u3000\u9ad8\u898f\u683c\u5e79\u7dda\u9053\u8def\u3000\u4e09\u9678\u81ea\u52d5\u8eca\u9053","survey_name":"\"\u5e73\u621023\u5e74\u5ea6 \u7530\u8001\u5730\u533a\u5730\u76e4\u8abf\u67fb\"","client_name":"\"\u56fd\u571f\u4ea4\u901a\u7701 \u6771\u5317\u5730\u65b9\u6574\u5099\u5c40 \u4e09\u9678\u56fd\u9053\u4e8b\u52d9\u6240\"","boring_xml_url":72,"boring_view_url":1,"soilmap_view_url":null,"soiltest_xml_url":0,"soiltest_view_url":0},{"id":504817,"code":"B4KJ202201000-7353","latitude":"39.74332","longitude":"141.961686","source_code":"TH20118237600201190005","project_name":"\u8def\u7dda\u3000\u9ad8\u898f\u683c\u5e79\u7dda\u9053\u8def\u3000\u4e09\u9678\u81ea\u52d5\u8eca\u9053","survey_name":"\"\u5e73\u621023\u5e74\u5ea6 \u7530\u8001\u5730\u533a\u5730\u76e4\u8abf\u67fb\"","client_name":"\"\u56fd\u571f\u4ea4\u901a\u7701 \u6771\u5317\u5730\u65b9\u6574\u5099\u5c40 \u4e09\u9678\u56fd\u9053\u4e8b\u52d9\u6240\"","boring_xml_url":72,"boring_view_url":1,"soilmap_view_url":null,"soiltest_xml_url":0,"soiltest_view_url":0},{"id":504816,"code":"B4KJ202201000-7352","latitude":"39.737765","longitude":"141.961686","source_code":"TH20118237600201190004","project_name":"\u8def\u7dda\u3000\u9ad8\u898f\u683c\u5e79\u7dda\u9053\u8def\u3000\u4e09\u9678\u81ea\u52d5\u8eca\u9053","survey_name":"\"\u5e73\u621023\u5e74\u5ea6 \u7530\u8001\u5730\u533a\u5730\u76e4\u8abf\u67fb\"","client_name":"\"\u56fd\u571f\u4ea4\u901a\u7701 \u6771\u5317\u5730\u65b9\u6574\u5099\u5c40 \u4e09\u9678\u56fd\u9053\u4e8b\u52d9\u6240\"","boring_xml_url":72,"boring_view_url":1,"soilmap_view_url":null,"soiltest_xml_url":0,"soiltest_view_url":0},{"id":504815,"code":"B4KJ202201000-7351","latitude":"39.737209","longitude":"141.961686","source_code":"TH20118237600201190003","project_name":"\u8def\u7dda\u3000\u9ad8\u898f\u683c\u5e79\u7dda\u9053\u8def\u3000\u4e09\u9678\u81ea\u52d5\u8eca\u9053","survey_name":"\"\u5e73\u621023\u5e74\u5ea6 \u7530\u8001\u5730\u533a\u5730\u76e4\u8abf\u67fb\"","client_name":"\"\u56fd\u571f\u4ea4\u901a\u7701 \u6771\u5317\u5730\u65b9\u6574\u5099\u5c40 \u4e09\u9678\u56fd\u9053\u4e8b\u52d9\u6240\"","boring_xml_url":72,"boring_view_url":1,"soilmap_view_url":null,"soiltest_xml_url":0,"soiltest_view_url":0},{"id":504814,"code":"B4KJ202201000-7350","latitude":"39.73082","longitude":"141.960297","source_code":"TH20118237600201190002","project_name":"\u8def\u7dda\u3000\u9ad8\u898f\u683c\u5e79\u7dda\u9053\u8def\u3000\u4e09\u9678\u7e26\u8cab\u81ea\u52d5\u8eca\u9053","survey_name":"\"\u5e73\u621023\u5e74\u5ea6 \u7530\u8001\u5730\u533a\u5730\u76e4\u8abf\u67fb\"","client_name":"\"\u56fd\u571f\u4ea4\u901a\u7701 \u6771\u5317\u5730\u65b9\u6574\u5099\u5c40 \u4e09\u9678\u56fd\u9053\u4e8b\u52d9\u6240\"","boring_xml_url":72,"boring_view_url":1,"soilmap_view_url":null,"soiltest_xml_url":0,"soiltest_view_url":0},{"id":504813,"code":"B4KJ202201000-7349","latitude":"39.729709","longitude":"141.960019","source_code":"TH20118237600201190001","project_name":"\u8def\u7dda\u3000\u9ad8\u898f\u683c\u5e79\u7dda\u9053\u8def\u3000\u4e09\u9678\u7e26\u8cab\u81ea\u52d5\u8eca\u9053","survey_name":"\"\u5e73\u621023\u5e74\u5ea6 \u7530\u8001\u5730\u533a\u5730\u76e4\u8abf\u67fb\"","client_name":"\"\u56fd\u571f\u4ea4\u901a\u7701 \u6771\u5317\u5730\u65b9\u6574\u5099\u5c40 \u4e09\u9678\u56fd\u9053\u4e8b\u52d9\u6240\"","boring_xml_url":72,"boring_view_url":1,"soilmap_view_url":null,"soiltest_xml_url":0,"soiltest_view_url":0},{"id":504812,"code":"B4KJ202201000-7348","latitude":"39.769951","longitude":"141.965181","source_code":"TH20118237600200750014","project_name":"","survey_name":"\u7530\u8001\u5357\u5730\u533a\u5730\u8cea\u8abf\u67fb","client_name":"\"\u56fd\u571f\u4ea4\u901a\u7701 \u6771\u5317\u5730\u65b9\u6574\u5099\u5c40 \u4e09\u9678\u56fd\u9053\u4e8b\u52d9\u6240\"","boring_xml_url":72,"boring_view_url":1,"soilmap_view_url":null,"soiltest_xml_url":0,"soiltest_view_url":0},{"id":504811,"code":"B4KJ202201000-7347","latitude":"39.767597","longitude":"141.967089","source_code":"TH20118237600200750013","project_name":"","survey_name":"\u7530\u8001\u5357\u5730\u533a\u5730\u8cea\u8abf\u67fb","client_name":"\"\u56fd\u571f\u4ea4\u901a\u7701 \u6771\u5317\u5730\u65b9\u6574\u5099\u5c40 \u4e09\u9678\u56fd\u9053\u4e8b\u52d9\u6240\"","boring_xml_url":72,"boring_view_url":1,"soilmap_view_url":null,"soiltest_xml_url":0,"soiltest_view_url":0},{"id":504810,"code":"B4KJ202201000-7346","latitude":"39.7635","longitude":"141.970058","source_code":"TH20118237600200750012","project_name":"","survey_name":"\u7530\u8001\u5357\u5730\u533a\u5730\u8cea\u8abf\u67fb","client_name":"\u56fd\u571f\u4ea4\u901a\u7701\u3000\u6771\u5317\u5730\u65b9\u6574\u5099\u5c40\u3000\u4e09\u9678\u56fd\u9053\u4e8b\u52d9\u6240","boring_xml_url":72,"boring_view_url":1,"soilmap_view_url":null,"soiltest_xml_url":0,"soiltest_view_url":0},{"id":504809,"code":"B4KJ202201000-7345","latitude":"39.75218","longitude":"141.966684","source_code":"TH20118237600200750011","project_name":"","survey_name":"\u7530\u8001\u5357\u5730\u533a\u5730\u8cea\u8abf\u67fb","client_name":"\"\u56fd\u571f\u4ea4\u901a\u7701 \u6771\u5317\u5730\u65b9\u6574\u5099\u5c40 \u4e09\u9678\u56fd\u9053\u4e8b\u52d9\u6240\"","boring_xml_url":72,"boring_view_url":1,"soilmap_view_url":null,"soiltest_xml_url":0,"soiltest_view_url":0},{"id":504808,"code":"B4KJ202201000-7344","latitude":"39.751117","longitude":"141.965316","source_code":"TH20118237600200750010","project_name":"","survey_name":"\u7530\u8001\u5357\u5730\u533a\u5730\u8cea\u8abf\u67fb","client_name":"\"\u56fd\u571f\u4ea4\u901a\u7701 \u6771\u5317\u5730\u65b9\u6574\u5099\u5c40 \u4e09\u9678\u56fd\u9053\u4e8b\u52d9\u6240\"","boring_xml_url":72,"boring_view_url":1,"soilmap_view_url":null,"soiltest_xml_url":0,"soiltest_view_url":0},{"id":504807,"code":"B4KJ202201000-7343","latitude":"39.749343","longitude":"141.964305","source_code":"TH20118237600200750009","project_name":"","survey_name":"\u7530\u8001\u5357\u5730\u533a\u5730\u8cea\u8abf\u67fb","client_name":"\"\u56fd\u571f\u4ea4\u901a\u7701 \u6771\u5317\u5730\u65b9\u6574\u5099\u5c40 \u4e09\u9678\u56fd\u9053\u4e8b\u52d9\u6240\"","boring_xml_url":72,"boring_view_url":1,"soilmap_view_url":null,"soiltest_xml_url":0,"soiltest_view_url":0},{"id":504806,"code":"B4KJ202201000-7342","latitude":"39.74711","longitude":"141.962946","source_code":"TH20118237600200750008","project_name":"","survey_name":"\u7530\u8001\u5357\u5730\u533a\u5730\u8cea\u8abf\u67fb","client_name":"\"\u56fd\u571f\u4ea4\u901a\u7701 \u6771\u5317\u5730\u65b9\u6574\u5099\u5c40 \u4e09\u9678\u56fd\u9053\u4e8b\u52d9\u6240\"","boring_xml_url":72,"boring_view_url":1,"soilmap_view_url":null,"soiltest_xml_url":0,"soiltest_view_url":0},{"id":504805,"code":"B4KJ202201000-7341","latitude":"39.737299","longitude":"141.96202","source_code":"TH20118237600200750007","project_name":"","survey_name":"\u7530\u8001\u5357\u5730\u533a\u5730\u8cea\u8abf\u67fb","client_name":"\u56fd\u571f\u4ea4\u901a\u7701\u3000\u6771\u5317\u5730\u65b9\u6574\u5099\u5c40\u3000\u4e09\u9678\u56fd\u9053\u4e8b\u52d9\u6240","boring_xml_url":72,"boring_view_url":1,"soilmap_view_url":null,"soiltest_xml_url":0,"soiltest_view_url":0},{"id":504804,"code":"B4KJ202201000-7340","latitude":"39.736881","longitude":"141.961719","source_code":"TH20118237600200750006","project_name":"","survey_name":"\u7530\u8001\u5357\u5730\u533a\u5730\u8cea\u8abf\u67fb","client_name":"\"\u56fd\u571f\u4ea4\u901a\u7701 \u6771\u5317\u5730\u65b9\u6574\u5099\u5c40 \u4e09\u9678\u56fd\u9053\u4e8b\u52d9\u6240\"","boring_xml_url":72,"boring_view_url":1,"soilmap_view_url":null,"soiltest_xml_url":0,"soiltest_view_url":0},{"id":504803,"code":"B4KJ202201000-7339","latitude":"39.728879","longitude":"141.959532","source_code":"TH20118237600200750005","project_name":"","survey_name":"\u7530\u8001\u5357\u5730\u533a\u5730\u8cea\u8abf\u67fb","client_name":"\"\u56fd\u571f\u4ea4\u901a\u7701 \u6771\u5317\u5730\u65b9\u6574\u5099\u5c40 \u4e09\u9678\u56fd\u9053\u4e8b\u52d9\u6240\"","boring_xml_url":72,"boring_view_url":1,"soilmap_view_url":null,"soiltest_xml_url":0,"soiltest_view_url":0},{"id":504802,"code":"B4KJ202201000-7338","latitude":"39.728879","longitude":"141.959532","source_code":"TH20118237600200750004","project_name":"","survey_name":"\u7530\u8001\u5357\u5730\u533a\u5730\u8cea\u8abf\u67fb","client_name":"\"\u56fd\u571f\u4ea4\u901a\u7701 \u6771\u5317\u5730\u65b9\u6574\u5099\u5c40 \u4e09\u9678\u56fd\u9053\u4e8b\u52d9\u6240\"","boring_xml_url":72,"boring_view_url":1,"soilmap_view_url":null,"soiltest_xml_url":0,"soiltest_view_url":0},{"id":504801,"code":"B4KJ202201000-7337","latitude":"39.724085","longitude":"141.958327","source_code":"TH20118237600200750003","project_name":"","survey_name":"\u7530\u8001\u5357\u5730\u533a\u5730\u8cea\u8abf\u67fb","client_name":"\"\u56fd\u571f\u4ea4\u901a\u7701 \u6771\u5317\u5730\u65b9\u6574\u5099\u5c40 \u4e09\u9678\u56fd\u9053\u4e8b\u52d9\u6240\"","boring_xml_url":72,"boring_view_url":1,"soilmap_view_url":null,"soiltest_xml_url":0,"soiltest_view_url":0}]}}