{"header":{"xyz":{"source":[],"mosaic":false},"page":1365,"raw":{"soiltest_result":"0","bbox":"57.598333,109.544722,1.933333,163.806111","page":"1365"},"conditions":{"soiltest_result":0,"north":57.598333,"west":109.544722,"south":1.933333,"east":163.806111},"success":true,"message":""},"data":{"meta":{"total":212844,"page":1365,"pages":7095,"count":30},"values":[{"id":504440,"code":"B4KJ202201000-6976","latitude":"39.145924","longitude":"141.824403","source_code":"TH2012823900200070022","project_name":"\u5409\u6d5c\uff5e\u91dc\u77f3\u5730\u533a","survey_name":"\u5e73\u621024\u5e74\u5ea6\u3000\u9ad8\u7530\u5730\u533a\u5916\u5730\u8cea\u8abf\u67fb\u696d\u52d9","client_name":"\u56fd\u571f\u4ea4\u901a\u7701\u6771\u5317\u5730\u65b9\u6574\u5099\u5c40\u3000\u5357\u4e09\u9678\u56fd\u4e8b\u52d9\u6240","boring_xml_url":70,"boring_view_url":1,"soilmap_view_url":null,"soiltest_xml_url":0,"soiltest_view_url":0},{"id":504439,"code":"B4KJ202201000-6975","latitude":"39.029843","longitude":"141.62307","source_code":"TH2012823900200070021","project_name":"\u770c\u5883\uff5e\u9ad8\u7530\u5730\u533a","survey_name":"\u5e73\u621024\u5e74\u5ea6\u3000\u9ad8\u7530\u5730\u533a\u5916\u5730\u8cea\u8abf\u67fb\u696d\u52d9","client_name":"\u56fd\u571f\u4ea4\u901a\u7701\u6771\u5317\u5730\u65b9\u6574\u5099\u5c40\u3000\u5357\u4e09\u9678\u56fd\u4e8b\u52d9\u6240","boring_xml_url":70,"boring_view_url":1,"soilmap_view_url":null,"soiltest_xml_url":0,"soiltest_view_url":0},{"id":504438,"code":"B4KJ202201000-6974","latitude":"39.029287","longitude":"141.621098","source_code":"TH2012823900200070020","project_name":"\u770c\u5883\uff5e\u9ad8\u7530\u5730\u533a","survey_name":"\u5e73\u621024\u5e74\u5ea6\u3000\u9ad8\u7530\u5730\u533a\u5916\u5730\u8cea\u8abf\u67fb\u696d\u52d9","client_name":"\u56fd\u571f\u4ea4\u901a\u7701\u6771\u5317\u5730\u65b9\u6574\u5099\u5c40\u3000\u5357\u4e09\u9678\u56fd\u4e8b\u52d9\u6240","boring_xml_url":70,"boring_view_url":1,"soilmap_view_url":null,"soiltest_xml_url":0,"soiltest_view_url":0},{"id":504437,"code":"B4KJ202201000-6973","latitude":"39.025037","longitude":"141.611903","source_code":"TH2012823900200070019","project_name":"\u770c\u5883\uff5e\u9ad8\u7530\u5730\u533a","survey_name":"\u5e73\u621024\u5e74\u5ea6\u3000\u9ad8\u7530\u5730\u533a\u5916\u5730\u8cea\u8abf\u67fb\u696d\u52d9","client_name":"\u56fd\u571f\u4ea4\u901a\u7701\u6771\u5317\u5730\u65b9\u6574\u5099\u5c40\u3000\u5357\u4e09\u9678\u56fd\u4e8b\u52d9\u6240","boring_xml_url":70,"boring_view_url":1,"soilmap_view_url":null,"soiltest_xml_url":0,"soiltest_view_url":0},{"id":504436,"code":"B4KJ202201000-6972","latitude":"39.025037","longitude":"141.611903","source_code":"TH2012823900200070018","project_name":"\u770c\u5883\uff5e\u9ad8\u7530\u5730\u533a","survey_name":"\u5e73\u621024\u5e74\u5ea6\u3000\u9ad8\u7530\u5730\u533a\u5916\u5730\u8cea\u8abf\u67fb\u696d\u52d9","client_name":"\u56fd\u571f\u4ea4\u901a\u7701\u6771\u5317\u5730\u65b9\u6574\u5099\u5c40\u3000\u5357\u4e09\u9678\u56fd\u4e8b\u52d9\u6240","boring_xml_url":70,"boring_view_url":1,"soilmap_view_url":null,"soiltest_xml_url":0,"soiltest_view_url":0},{"id":504435,"code":"B4KJ202201000-6971","latitude":"39.017815","longitude":"141.607848","source_code":"TH2012823900200070017","project_name":"\u770c\u5883\uff5e\u9ad8\u7530\u5730\u533a","survey_name":"\u5e73\u621024\u5e74\u5ea6\u3000\u9ad8\u7530\u5730\u533a\u5916\u5730\u8cea\u8abf\u67fb\u696d\u52d9","client_name":"\u56fd\u571f\u4ea4\u901a\u7701\u6771\u5317\u5730\u65b9\u6574\u5099\u5c40\u3000\u5357\u4e09\u9678\u56fd\u4e8b\u52d9\u6240","boring_xml_url":70,"boring_view_url":1,"soilmap_view_url":null,"soiltest_xml_url":0,"soiltest_view_url":0},{"id":504434,"code":"B4KJ202201000-6970","latitude":"39.01551","longitude":"141.608987","source_code":"TH2012823900200070016","project_name":"\u770c\u5883\uff5e\u9ad8\u7530\u5730\u533a","survey_name":"\u5e73\u621024\u5e74\u5ea6\u3000\u9ad8\u7530\u5730\u533a\u5916\u5730\u8cea\u8abf\u67fb\u696d\u52d9","client_name":"\u56fd\u571f\u4ea4\u901a\u7701\u6771\u5317\u5730\u65b9\u6574\u5099\u5c40\u3000\u5357\u4e09\u9678\u56fd\u4e8b\u52d9\u6240","boring_xml_url":70,"boring_view_url":1,"soilmap_view_url":null,"soiltest_xml_url":0,"soiltest_view_url":0},{"id":504433,"code":"B4KJ202201000-6969","latitude":"39.010232","longitude":"141.610487","source_code":"TH2012823900200070015","project_name":"\u770c\u5883\uff5e\u9ad8\u7530\u5730\u533a","survey_name":"\u5e73\u621024\u5e74\u5ea6\u3000\u9ad8\u7530\u5730\u533a\u5916\u5730\u8cea\u8abf\u67fb\u696d\u52d9","client_name":"\u56fd\u571f\u4ea4\u901a\u7701\u6771\u5317\u5730\u65b9\u6574\u5099\u5c40\u3000\u5357\u4e09\u9678\u56fd\u4e8b\u52d9\u6240","boring_xml_url":70,"boring_view_url":1,"soilmap_view_url":null,"soiltest_xml_url":0,"soiltest_view_url":0},{"id":504432,"code":"B4KJ202201000-6968","latitude":"39.008871","longitude":"141.610265","source_code":"TH2012823900200070014","project_name":"\u770c\u5883\uff5e\u9ad8\u7530\u5730\u533a","survey_name":"\u5e73\u621024\u5e74\u5ea6\u3000\u9ad8\u7530\u5730\u533a\u5916\u5730\u8cea\u8abf\u67fb\u696d\u52d9","client_name":"\u56fd\u571f\u4ea4\u901a\u7701\u6771\u5317\u5730\u65b9\u6574\u5099\u5c40\u3000\u5357\u4e09\u9678\u56fd\u4e8b\u52d9\u6240","boring_xml_url":70,"boring_view_url":1,"soilmap_view_url":null,"soiltest_xml_url":0,"soiltest_view_url":0},{"id":504431,"code":"B4KJ202201000-6967","latitude":"39.008093","longitude":"141.610293","source_code":"TH2012823900200070013","project_name":"\u770c\u5883\uff5e\u9ad8\u7530\u5730\u533a","survey_name":"\u5e73\u621024\u5e74\u5ea6\u3000\u9ad8\u7530\u5730\u533a\u5916\u5730\u8cea\u8abf\u67fb\u696d\u52d9","client_name":"\u56fd\u571f\u4ea4\u901a\u7701\u6771\u5317\u5730\u65b9\u6574\u5099\u5c40\u3000\u5357\u4e09\u9678\u56fd\u4e8b\u52d9\u6240","boring_xml_url":70,"boring_view_url":1,"soilmap_view_url":null,"soiltest_xml_url":0,"soiltest_view_url":0},{"id":504430,"code":"B4KJ202201000-6966","latitude":"39.005509","longitude":"141.612015","source_code":"TH2012823900200070012","project_name":"\u770c\u5883\uff5e\u9ad8\u7530\u5730\u533a","survey_name":"\u5e73\u621024\u5e74\u5ea6\u3000\u9ad8\u7530\u5730\u533a\u5916\u5730\u8cea\u8abf\u67fb\u696d\u52d9","client_name":"\u56fd\u571f\u4ea4\u901a\u7701\u6771\u5317\u5730\u65b9\u6574\u5099\u5c40\u3000\u5357\u4e09\u9678\u56fd\u4e8b\u52d9\u6240","boring_xml_url":70,"boring_view_url":1,"soilmap_view_url":null,"soiltest_xml_url":0,"soiltest_view_url":0},{"id":504429,"code":"B4KJ202201000-6965","latitude":"39.004565","longitude":"141.613099","source_code":"TH2012823900200070011","project_name":"\u770c\u5883\uff5e\u9ad8\u7530\u5730\u533a","survey_name":"\u5e73\u621024\u5e74\u5ea6\u3000\u9ad8\u7530\u5730\u533a\u5916\u5730\u8cea\u8abf\u67fb\u696d\u52d9","client_name":"\u56fd\u571f\u4ea4\u901a\u7701\u6771\u5317\u5730\u65b9\u6574\u5099\u5c40\u3000\u5357\u4e09\u9678\u56fd\u4e8b\u52d9\u6240","boring_xml_url":70,"boring_view_url":1,"soilmap_view_url":null,"soiltest_xml_url":0,"soiltest_view_url":0},{"id":504428,"code":"B4KJ202201000-6964","latitude":"38.998093","longitude":"141.615238","source_code":"TH2012823900200070010","project_name":"\u770c\u5883\uff5e\u9ad8\u7530\u5730\u533a","survey_name":"\u5e73\u621024\u5e74\u5ea6\u3000\u9ad8\u7530\u5730\u533a\u5916\u5730\u8cea\u8abf\u67fb\u696d\u52d9","client_name":"\u56fd\u571f\u4ea4\u901a\u7701\u6771\u5317\u5730\u65b9\u6574\u5099\u5c40\u3000\u5357\u4e09\u9678\u56fd\u4e8b\u52d9\u6240","boring_xml_url":70,"boring_view_url":1,"soilmap_view_url":null,"soiltest_xml_url":0,"soiltest_view_url":0},{"id":504427,"code":"B4KJ202201000-6963","latitude":"38.987982","longitude":"141.612516","source_code":"TH2012823900200070009","project_name":"\u770c\u5883\uff5e\u9ad8\u7530\u5730\u533a","survey_name":"\u5e73\u621024\u5e74\u5ea6\u3000\u9ad8\u7530\u5730\u533a\u5916\u5730\u8cea\u8abf\u67fb\u696d\u52d9","client_name":"\u56fd\u571f\u4ea4\u901a\u7701\u6771\u5317\u5730\u65b9\u6574\u5099\u5c40\u3000\u5357\u4e09\u9678\u56fd\u4e8b\u52d9\u6240","boring_xml_url":70,"boring_view_url":1,"soilmap_view_url":null,"soiltest_xml_url":0,"soiltest_view_url":0},{"id":504426,"code":"B4KJ202201000-6962","latitude":"38.987843","longitude":"141.612599","source_code":"TH2012823900200070008","project_name":"\u770c\u5883\uff5e\u9ad8\u7530\u5730\u533a","survey_name":"\u5e73\u621024\u5e74\u5ea6\u3000\u9ad8\u7530\u5730\u533a\u5916\u5730\u8cea\u8abf\u67fb\u696d\u52d9","client_name":"\u56fd\u571f\u4ea4\u901a\u7701\u6771\u5317\u5730\u65b9\u6574\u5099\u5c40\u3000\u5357\u4e09\u9678\u56fd\u4e8b\u52d9\u6240","boring_xml_url":70,"boring_view_url":1,"soilmap_view_url":null,"soiltest_xml_url":0,"soiltest_view_url":0},{"id":504425,"code":"B4KJ202201000-6961","latitude":"38.987843","longitude":"141.612322","source_code":"TH2012823900200070007","project_name":"\u770c\u5883\uff5e\u9ad8\u7530\u5730\u533a","survey_name":"\u5e73\u621024\u5e74\u5ea6\u3000\u9ad8\u7530\u5730\u533a\u5916\u5730\u8cea\u8abf\u67fb\u696d\u52d9","client_name":"\u56fd\u571f\u4ea4\u901a\u7701\u6771\u5317\u5730\u65b9\u6574\u5099\u5c40\u3000\u5357\u4e09\u9678\u56fd\u4e8b\u52d9\u6240","boring_xml_url":70,"boring_view_url":1,"soilmap_view_url":null,"soiltest_xml_url":0,"soiltest_view_url":0},{"id":504424,"code":"B4KJ202201000-6960","latitude":"38.986093","longitude":"141.613433","source_code":"TH2012823900200070006","project_name":"\u770c\u5883\uff5e\u9ad8\u7530\u5730\u533a","survey_name":"\u5e73\u621024\u5e74\u5ea6\u3000\u9ad8\u7530\u5730\u533a\u5916\u5730\u8cea\u8abf\u67fb\u696d\u52d9","client_name":"\u56fd\u571f\u4ea4\u901a\u7701\u6771\u5317\u5730\u65b9\u6574\u5099\u5c40\u3000\u5357\u4e09\u9678\u56fd\u4e8b\u52d9\u6240","boring_xml_url":70,"boring_view_url":1,"soilmap_view_url":null,"soiltest_xml_url":0,"soiltest_view_url":0},{"id":504423,"code":"B4KJ202201000-6959","latitude":"38.983426","longitude":"141.614516","source_code":"TH2012823900200070005","project_name":"\u770c\u5883\uff5e\u9ad8\u7530\u5730\u533a","survey_name":"\u5e73\u621024\u5e74\u5ea6\u3000\u9ad8\u7530\u5730\u533a\u5916\u5730\u8cea\u8abf\u67fb\u696d\u52d9","client_name":"\u56fd\u571f\u4ea4\u901a\u7701\u6771\u5317\u5730\u65b9\u6574\u5099\u5c40\u3000\u5357\u4e09\u9678\u56fd\u4e8b\u52d9\u6240","boring_xml_url":70,"boring_view_url":1,"soilmap_view_url":null,"soiltest_xml_url":0,"soiltest_view_url":0},{"id":504422,"code":"B4KJ202201000-6958","latitude":"38.983287","longitude":"141.614155","source_code":"TH2012823900200070004","project_name":"\u770c\u5883\uff5e\u9ad8\u7530\u5730\u533a","survey_name":"\u5e73\u621024\u5e74\u5ea6\u3000\u9ad8\u7530\u5730\u533a\u5916\u5730\u8cea\u8abf\u67fb\u696d\u52d9","client_name":"\u56fd\u571f\u4ea4\u901a\u7701\u6771\u5317\u5730\u65b9\u6574\u5099\u5c40\u3000\u5357\u4e09\u9678\u56fd\u4e8b\u52d9\u6240","boring_xml_url":70,"boring_view_url":1,"soilmap_view_url":null,"soiltest_xml_url":0,"soiltest_view_url":0},{"id":504421,"code":"B4KJ202201000-6957","latitude":"38.983148","longitude":"141.614127","source_code":"TH2012823900200070003","project_name":"\u770c\u5883\uff5e\u9ad8\u7530\u5730\u533a","survey_name":"\u5e73\u621024\u5e74\u5ea6\u3000\u9ad8\u7530\u5730\u533a\u5916\u5730\u8cea\u8abf\u67fb\u696d\u52d9","client_name":"\u56fd\u571f\u4ea4\u901a\u7701\u6771\u5317\u5730\u65b9\u6574\u5099\u5c40\u3000\u5357\u4e09\u9678\u56fd\u4e8b\u52d9\u6240","boring_xml_url":70,"boring_view_url":1,"soilmap_view_url":null,"soiltest_xml_url":0,"soiltest_view_url":0},{"id":504420,"code":"B4KJ202201000-6956","latitude":"38.982537","longitude":"141.614794","source_code":"TH2012823900200070002","project_name":"\u770c\u5883\uff5e\u9ad8\u7530\u5730\u533a","survey_name":"\u5e73\u621024\u5e74\u5ea6\u3000\u9ad8\u7530\u5730\u533a\u5916\u5730\u8cea\u8abf\u67fb\u696d\u52d9","client_name":"\u56fd\u571f\u4ea4\u901a\u7701\u6771\u5317\u5730\u65b9\u6574\u5099\u5c40\u3000\u5357\u4e09\u9678\u56fd\u4e8b\u52d9\u6240","boring_xml_url":70,"boring_view_url":1,"soilmap_view_url":null,"soiltest_xml_url":0,"soiltest_view_url":0},{"id":504419,"code":"B4KJ202201000-6955","latitude":"38.982509","longitude":"141.618239","source_code":"TH2012823900200070001","project_name":"\u770c\u5883\uff5e\u9ad8\u7530\u5730\u533a","survey_name":"\u5e73\u621024\u5e74\u5ea6\u3000\u9ad8\u7530\u5730\u533a\u5916\u5730\u8cea\u8abf\u67fb\u696d\u52d9","client_name":"\u56fd\u571f\u4ea4\u901a\u7701\u6771\u5317\u5730\u65b9\u6574\u5099\u5c40\u3000\u5357\u4e09\u9678\u56fd\u4e8b\u52d9\u6240","boring_xml_url":70,"boring_view_url":1,"soilmap_view_url":null,"soiltest_xml_url":0,"soiltest_view_url":0},{"id":504418,"code":"B4KJ202201000-6954","latitude":"40.526385","longitude":"140.215438","source_code":"TH20108233600200100037","project_name":"","survey_name":"\u6d25\u8efd\u30c0\u30e0\u5de6\u5cb8\u8caf\u6c34\u6c60\u5730\u3059\u3079\u308a\u5730\u8cea\u8abf\u67fb","client_name":"\u56fd\u571f\u4ea4\u901a\u7701\u6771\u5317\u5730\u65b9\u6574\u5099\u5c40\u6d25\u8efd\u30c0\u30e0\u5de5\u4e8b\u4e8b\u52d9\u6240","boring_xml_url":72,"boring_view_url":1,"soilmap_view_url":null,"soiltest_xml_url":0,"soiltest_view_url":0},{"id":504417,"code":"B4KJ202201000-6953","latitude":"40.526385","longitude":"140.215438","source_code":"TH20108233600200100036","project_name":"","survey_name":"\u6d25\u8efd\u30c0\u30e0\u5de6\u5cb8\u8caf\u6c34\u6c60\u5730\u3059\u3079\u308a\u5730\u8cea\u8abf\u67fb","client_name":"\u56fd\u571f\u4ea4\u901a\u7701\u6771\u5317\u5730\u65b9\u6574\u5099\u5c40\u6d25\u8efd\u30c0\u30e0\u5de5\u4e8b\u4e8b\u52d9\u6240","boring_xml_url":72,"boring_view_url":1,"soilmap_view_url":null,"soiltest_xml_url":0,"soiltest_view_url":0},{"id":504416,"code":"B4KJ202201000-6952","latitude":"40.525696","longitude":"140.215721","source_code":"TH20108233600200100035","project_name":"","survey_name":"\u6d25\u8efd\u30c0\u30e0\u5de6\u5cb8\u8caf\u6c34\u6c60\u5730\u3059\u3079\u308a\u5730\u8cea\u8abf\u67fb","client_name":"\u56fd\u571f\u4ea4\u901a\u7701\u6771\u5317\u5730\u65b9\u6574\u5099\u5c40\u6d25\u8efd\u30c0\u30e0\u5de5\u4e8b\u4e8b\u52d9\u6240","boring_xml_url":72,"boring_view_url":1,"soilmap_view_url":null,"soiltest_xml_url":0,"soiltest_view_url":0},{"id":504415,"code":"B4KJ202201000-6951","latitude":"40.525696","longitude":"140.215721","source_code":"TH20108233600200100034","project_name":"","survey_name":"\u6d25\u8efd\u30c0\u30e0\u5de6\u5cb8\u8caf\u6c34\u6c60\u5730\u3059\u3079\u308a\u5730\u8cea\u8abf\u67fb","client_name":"\u56fd\u571f\u4ea4\u901a\u7701\u6771\u5317\u5730\u65b9\u6574\u5099\u5c40\u6d25\u8efd\u30c0\u30e0\u5de5\u4e8b\u4e8b\u52d9\u6240","boring_xml_url":72,"boring_view_url":1,"soilmap_view_url":null,"soiltest_xml_url":0,"soiltest_view_url":0},{"id":504414,"code":"B4KJ202201000-6950","latitude":"40.526658","longitude":"140.212661","source_code":"TH20108233600200100033","project_name":"","survey_name":"\u6d25\u8efd\u30c0\u30e0\u5de6\u5cb8\u8caf\u6c34\u6c60\u5730\u3059\u3079\u308a\u5730\u8cea\u8abf\u67fb","client_name":"\u56fd\u571f\u4ea4\u901a\u7701\u6771\u5317\u5730\u65b9\u6574\u5099\u5c40\u6d25\u8efd\u30c0\u30e0\u5de5\u4e8b\u4e8b\u52d9\u6240","boring_xml_url":72,"boring_view_url":1,"soilmap_view_url":null,"soiltest_xml_url":0,"soiltest_view_url":0},{"id":504413,"code":"B4KJ202201000-6949","latitude":"40.52698","longitude":"140.212609","source_code":"TH20108233600200100032","project_name":"","survey_name":"\u6d25\u8efd\u30c0\u30e0\u5de6\u5cb8\u8caf\u6c34\u6c60\u5730\u3059\u3079\u308a\u5730\u8cea\u8abf\u67fb","client_name":"\u56fd\u571f\u4ea4\u901a\u7701\u6771\u5317\u5730\u65b9\u6574\u5099\u5c40\u6d25\u8efd\u30c0\u30e0\u5de5\u4e8b\u4e8b\u52d9\u6240","boring_xml_url":72,"boring_view_url":1,"soilmap_view_url":null,"soiltest_xml_url":0,"soiltest_view_url":0},{"id":504412,"code":"B4KJ202201000-6948","latitude":"40.52698","longitude":"140.212609","source_code":"TH20108233600200100031","project_name":"","survey_name":"\u6d25\u8efd\u30c0\u30e0\u5de6\u5cb8\u8caf\u6c34\u6c60\u5730\u3059\u3079\u308a\u5730\u8cea\u8abf\u67fb","client_name":"\u56fd\u571f\u4ea4\u901a\u7701\u6771\u5317\u5730\u65b9\u6574\u5099\u5c40\u6d25\u8efd\u30c0\u30e0\u5de5\u4e8b\u4e8b\u52d9\u6240","boring_xml_url":72,"boring_view_url":1,"soilmap_view_url":null,"soiltest_xml_url":0,"soiltest_view_url":0},{"id":504411,"code":"B4KJ202201000-6947","latitude":"40.52698","longitude":"140.212609","source_code":"TH20108233600200100030","project_name":"","survey_name":"\u6d25\u8efd\u30c0\u30e0\u5de6\u5cb8\u8caf\u6c34\u6c60\u5730\u3059\u3079\u308a\u5730\u8cea\u8abf\u67fb","client_name":"\u56fd\u571f\u4ea4\u901a\u7701\u6771\u5317\u5730\u65b9\u6574\u5099\u5c40\u6d25\u8efd\u30c0\u30e0\u5de5\u4e8b\u4e8b\u52d9\u6240","boring_xml_url":72,"boring_view_url":1,"soilmap_view_url":null,"soiltest_xml_url":0,"soiltest_view_url":0}]}}