{"header":{"xyz":{"source":[],"mosaic":false},"page":1367,"raw":{"soiltest_result":"0","bbox":"57.598333,109.544722,1.933333,163.806111","page":"1367"},"conditions":{"soiltest_result":0,"north":57.598333,"west":109.544722,"south":1.933333,"east":163.806111},"success":true,"message":""},"data":{"meta":{"total":212844,"page":1367,"pages":7095,"count":30},"values":[{"id":504380,"code":"B4KJ202201000-6916","latitude":"40.519162","longitude":"140.208117","source_code":"TH20108233600200090020","project_name":"","survey_name":"\u5e73\u621022\u5e74\u5ea6\u3000\u6d25\u8efd\u30c0\u30e0\u53f3\u5cb8\u8caf\u6c34\u6c60\u5730\u3059\u3079\u308a\u5730\u8cea\u8abf\u67fb","client_name":"\u56fd\u571f\u4ea4\u901a\u7701\u6771\u5317\u5730\u65b9\u6574\u5099\u5c40\u6d25\u8efd\u30c0\u30e0\u5de5\u4e8b\u4e8b\u52d9\u6240","boring_xml_url":72,"boring_view_url":1,"soilmap_view_url":null,"soiltest_xml_url":0,"soiltest_view_url":0},{"id":504379,"code":"B4KJ202201000-6915","latitude":"40.519467","longitude":"140.207617","source_code":"TH20108233600200090019","project_name":"","survey_name":"\u5e73\u621022\u5e74\u5ea6\u3000\u6d25\u8efd\u30c0\u30e0\u53f3\u5cb8\u8caf\u6c34\u6c60\u5730\u3059\u3079\u308a\u5730\u8cea\u8abf\u67fb","client_name":"\u56fd\u571f\u4ea4\u901a\u7701\u6771\u5317\u5730\u65b9\u6574\u5099\u5c40\u6d25\u8efd\u30c0\u30e0\u5de5\u4e8b\u4e8b\u52d9\u6240","boring_xml_url":72,"boring_view_url":1,"soilmap_view_url":null,"soiltest_xml_url":0,"soiltest_view_url":0},{"id":504378,"code":"B4KJ202201000-6914","latitude":"40.519523","longitude":"140.207534","source_code":"TH20108233600200090018","project_name":"","survey_name":"\u6d25\u8efd\u30c0\u30e0\u53f3\u5cb8\u8caf\u6c34\u6c60\u5730\u3059\u3079\u308a\u5730\u8cea\u8abf\u67fb","client_name":"\u56fd\u571f\u4ea4\u901a\u7701\u6771\u5317\u5730\u65b9\u6574\u5099\u5c40\u6d25\u8efd\u30c0\u30e0\u5de5\u4e8b\u4e8b\u52d9\u6240","boring_xml_url":72,"boring_view_url":1,"soilmap_view_url":null,"soiltest_xml_url":0,"soiltest_view_url":0},{"id":504377,"code":"B4KJ202201000-6913","latitude":"40.519551","longitude":"140.208256","source_code":"TH20108233600200090017","project_name":"","survey_name":"\u5e73\u621022\u5e74\u5ea6\u3000\u6d25\u8efd\u30c0\u30e0\u53f3\u5cb8\u8caf\u6c34\u6c60\u5730\u8cea\u8abf\u67fb","client_name":"\u56fd\u571f\u4ea4\u901a\u7701\u6771\u5317\u5730\u65b9\u6574\u5099\u5c40\u6d25\u8efd\u30c0\u30e0\u5de5\u4e8b\u4e8b\u52d9\u6240","boring_xml_url":72,"boring_view_url":1,"soilmap_view_url":null,"soiltest_xml_url":0,"soiltest_view_url":0},{"id":504376,"code":"B4KJ202201000-6912","latitude":"40.520301","longitude":"140.208478","source_code":"TH20108233600200090016","project_name":"","survey_name":"\u6d25\u8efd\u30c0\u30e0\u53f3\u5cb8\u8caf\u6c34\u6c60\u5730\u3059\u3079\u308a\u5730\u8cea\u8abf\u67fb","client_name":"\u56fd\u571f\u4ea4\u901a\u7701\u6771\u5317\u6574\u5099\u5c40\u6d25\u8efd\u30c0\u30e0\u5de5\u4e8b\u4e8b\u52d9\u6240","boring_xml_url":72,"boring_view_url":1,"soilmap_view_url":null,"soiltest_xml_url":0,"soiltest_view_url":0},{"id":504375,"code":"B4KJ202201000-6911","latitude":"40.521245","longitude":"140.210117","source_code":"TH20108233600200090015","project_name":"","survey_name":"\u5e73\u621022\u5e74\u5ea6\u3000\u6d25\u8efd\u30c0\u30e0\u53f3\u5cb8\u8caf\u6c34\u6c60\u5730\u3059\u3079\u308a\u5730\u8cea\u8abf\u67fb","client_name":"\u56fd\u571f\u4ea4\u901a\u7701\u6771\u5317\u5730\u65b9\u6574\u5099\u5c40\u6d25\u8efd\u30c0\u30e0\u5de5\u4e8b\u4e8b\u52d9\u6240","boring_xml_url":72,"boring_view_url":1,"soilmap_view_url":null,"soiltest_xml_url":0,"soiltest_view_url":0},{"id":504374,"code":"B4KJ202201000-6910","latitude":"40.518801","longitude":"140.212367","source_code":"TH20108233600200090014","project_name":"","survey_name":"\u5e73\u621022\u5e74\u5ea6\u3000\u6d25\u8efd\u30c0\u30e0\u53f3\u5cb8\u8caf\u6c34\u6c60\u5730\u3059\u3079\u308a\u5730\u8cea\u8abf\u67fb","client_name":"\u56fd\u571f\u4ea4\u901a\u7701\u6771\u5317\u5730\u65b9\u6574\u5099\u5c40\u6d25\u8efd\u30c0\u30e0\u5de5\u4e8b\u4e8b\u52d9\u6240","boring_xml_url":72,"boring_view_url":1,"soilmap_view_url":null,"soiltest_xml_url":0,"soiltest_view_url":0},{"id":504373,"code":"B4KJ202201000-6909","latitude":"40.519467","longitude":"140.211951","source_code":"TH20108233600200090013","project_name":"","survey_name":"\u5e73\u621022\u5e74\u5ea6\u3000\u6d25\u8efd\u30c0\u30e0\u53f3\u5cb8\u8caf\u6c34\u6c60\u5730\u3059\u3079\u308a\u5730\u8cea\u8abf\u67fb","client_name":"\u56fd\u571f\u4ea4\u901a\u7701\u6771\u5317\u5730\u65b9\u6574\u5099\u5c40\u6d25\u8efd\u30c0\u30e0\u5de5\u4e8b\u4e8b\u52d9\u6240","boring_xml_url":72,"boring_view_url":1,"soilmap_view_url":null,"soiltest_xml_url":0,"soiltest_view_url":0},{"id":504372,"code":"B4KJ202201000-6908","latitude":"40.520162","longitude":"140.211534","source_code":"TH20108233600200090012","project_name":"","survey_name":"\u5e73\u621022\u5e74\u5ea6\u3000\u6d25\u8efd\u30c0\u30e0\u53f3\u5cb8\u8caf\u6c34\u6c60\u5730\u3059\u3079\u308a\u5730\u8cea\u8abf\u67fb","client_name":"\u56fd\u571f\u4ea4\u901a\u7701\u6771\u5317\u5730\u65b9\u6574\u5099\u5c40\u6d25\u8efd\u30c0\u30e0\u5de5\u4e8b\u4e8b\u52d9\u6240","boring_xml_url":72,"boring_view_url":1,"soilmap_view_url":null,"soiltest_xml_url":0,"soiltest_view_url":0},{"id":504371,"code":"B4KJ202201000-6907","latitude":"40.520773","longitude":"140.211145","source_code":"TH20108233600200090011","project_name":"","survey_name":"\u5e73\u621022\u5e74\u5ea6\u3000\u6d25\u8efd\u30c0\u30e0\u53f3\u5cb8\u8caf\u6c34\u6c60\u5730\u3059\u3079\u308a\u5730\u8cea\u8abf\u67fb","client_name":"\u56fd\u571f\u4ea4\u901a\u7701\u6771\u5317\u5730\u65b9\u6574\u5099\u5c40\u6d25\u8efd\u30c0\u30e0\u5de5\u4e8b\u4e8b\u52d9\u6240","boring_xml_url":72,"boring_view_url":1,"soilmap_view_url":null,"soiltest_xml_url":0,"soiltest_view_url":0},{"id":504370,"code":"B4KJ202201000-6906","latitude":"40.521467","longitude":"140.210395","source_code":"TH20108233600200090010","project_name":"","survey_name":"\u5e73\u621022\u5e74\u5ea6\u3000\u6d25\u8efd\u30c0\u30e0\u53f3\u5cb8\u8caf\u6c34\u6c60\u5730\u3059\u3079\u308a\u5730\u8cea\u8abf\u67fb","client_name":"\u56fd\u571f\u4ea4\u901a\u7701\u6771\u5317\u5730\u65b9\u6574\u5099\u5c40\u6d25\u8efd\u30c0\u30e0\u5de5\u4e8b\u4e8b\u52d9\u6240","boring_xml_url":72,"boring_view_url":1,"soilmap_view_url":null,"soiltest_xml_url":0,"soiltest_view_url":0},{"id":504369,"code":"B4KJ202201000-6905","latitude":"40.520162","longitude":"140.22409","source_code":"TH20108233600200090009","project_name":"","survey_name":"\u5e73\u621022\u5e74\u5ea6\u3000\u6d25\u8efd\u30c0\u30e0\u53f3\u5cb8\u8caf\u6c34\u6c60\u5730\u3059\u3079\u308a\u5730\u8cea\u8abf\u67fb","client_name":"\u56fd\u571f\u4ea4\u901a\u7701\u6771\u5317\u5730\u65b9\u6574\u5099\u5c40\u6d25\u8efd\u30c0\u30e0\u5de5\u4e8b\u4e8b\u52d9\u6240","boring_xml_url":72,"boring_view_url":1,"soilmap_view_url":null,"soiltest_xml_url":0,"soiltest_view_url":0},{"id":504368,"code":"B4KJ202201000-6904","latitude":"40.520912","longitude":"140.223673","source_code":"TH20108233600200090008","project_name":"","survey_name":"\u5e73\u621022\u5e74\u5ea6\u3000\u6d25\u8efd\u30c0\u30e0\u53f3\u5cb8\u8caf\u6c34\u6c60\u5730\u3059\u3079\u308a\u5730\u8cea\u8abf\u67fb","client_name":"\u56fd\u571f\u4ea4\u901a\u7701\u6771\u5317\u5730\u65b9\u6574\u5099\u5c40\u6d25\u8efd\u30c0\u30e0\u5de5\u4e8b\u4e8b\u52d9\u6240","boring_xml_url":72,"boring_view_url":1,"soilmap_view_url":null,"soiltest_xml_url":0,"soiltest_view_url":0},{"id":504367,"code":"B4KJ202201000-6903","latitude":"40.521412","longitude":"140.223367","source_code":"TH20108233600200090007","project_name":"","survey_name":"\u5e73\u621022\u5e74\u5ea6\u3000\u6d25\u8efd\u30c0\u30e0\u53f3\u5cb8\u8caf\u6c34\u6c60\u5730\u3059\u3079\u308a\u5730\u8cea\u8abf\u67fb","client_name":"\u56fd\u571f\u4ea4\u901a\u7701\u6771\u5317\u5730\u65b9\u6574\u5099\u5c40\u6d25\u8efd\u30c0\u30e0\u5de5\u4e8b\u4e8b\u52d9\u6240","boring_xml_url":72,"boring_view_url":1,"soilmap_view_url":null,"soiltest_xml_url":0,"soiltest_view_url":0},{"id":504366,"code":"B4KJ202201000-6902","latitude":"40.521606","longitude":"140.222784","source_code":"TH20108233600200090006","project_name":"","survey_name":"\u5e73\u621022\u5e74\u5ea6\u3000\u6d25\u8efd\u30c0\u30e0\u53f3\u5cb8\u8caf\u6c34\u6c60\u5730\u3059\u3079\u308a\u5730\u8cea\u8abf\u67fb","client_name":"\u56fd\u571f\u4ea4\u901a\u7701\u6771\u5317\u5730\u65b9\u6574\u5099\u5c40\u6d25\u8efd\u30c0\u30e0\u5de5\u4e8b\u4e8b\u52d9\u6240","boring_xml_url":72,"boring_view_url":1,"soilmap_view_url":null,"soiltest_xml_url":0,"soiltest_view_url":0},{"id":504365,"code":"B4KJ202201000-6901","latitude":"40.52194","longitude":"140.222451","source_code":"TH20108233600200090005","project_name":"","survey_name":"\u5e73\u621022\u5e74\u5ea6\u3000\u6d25\u8efd\u30c0\u30e0\u53f3\u5cb8\u8caf\u6c34\u6c60\u5730\u3059\u3079\u308a\u5730\u8cea\u8abf\u67fb","client_name":"\u56fd\u571f\u4ea4\u901a\u7701\u6771\u5317\u5730\u65b9\u6574\u5099\u5c40\u6d25\u8efd\u30c0\u30e0\u5de5\u4e8b\u4e8b\u52d9\u6240","boring_xml_url":72,"boring_view_url":1,"soilmap_view_url":null,"soiltest_xml_url":0,"soiltest_view_url":0},{"id":504364,"code":"B4KJ202201000-6900","latitude":"40.525634","longitude":"140.236534","source_code":"TH20108233600200090004","project_name":"","survey_name":"\u5e73\u621022\u5e74\u5ea6\u3000\u6d25\u8efd\u30c0\u30e0\u53f3\u5cb8\u8caf\u6c34\u6c60\u5730\u3059\u3079\u308a\u5730\u8cea\u8abf\u67fb","client_name":"\u56fd\u571f\u4ea4\u901a\u7701\u6771\u5317\u5730\u65b9\u6574\u5099\u5c40\u6d25\u8efd\u30c0\u30e0\u5de5\u4e8b\u4e8b\u52d9\u6240","boring_xml_url":72,"boring_view_url":1,"soilmap_view_url":null,"soiltest_xml_url":0,"soiltest_view_url":0},{"id":504363,"code":"B4KJ202201000-6899","latitude":"40.527634","longitude":"140.24109","source_code":"TH20108233600200090003","project_name":"","survey_name":"\u5e73\u621022\u5e74\u5ea6\u3000\u6d25\u8efd\u30c0\u30e0\u53f3\u5cb8\u8caf\u6c34\u6c60\u5730\u3059\u3079\u308a\u5730\u8cea\u8abf\u67fb","client_name":"\u56fd\u9053\u4ea4\u901a\u7701\u6771\u5317\u5730\u65b9\u6574\u5099\u5c40\u6d25\u8efd\u30c0\u30e0\u5de5\u4e8b\u4e8b\u52d9\u6240","boring_xml_url":72,"boring_view_url":1,"soilmap_view_url":null,"soiltest_xml_url":0,"soiltest_view_url":0},{"id":504362,"code":"B4KJ202201000-6898","latitude":"40.527801","longitude":"140.240617","source_code":"TH20108233600200090002","project_name":"","survey_name":"\u5e73\u621022\u5e74\u5ea6\u3000\u6d25\u8efd\u30c0\u30e0\u53f3\u5cb8\u8caf\u6c34\u6c60\u5730\u3059\u3079\u308a\u5730\u8cea\u8abf\u67fb","client_name":"\u56fd\u571f\u4ea4\u901a\u7701\u6771\u5317\u5730\u65b9\u6574\u5099\u5c40\u6d25\u8efd\u30c0\u30e0\u5de5\u4e8b\u4e8b\u52d9\u6240","boring_xml_url":72,"boring_view_url":1,"soilmap_view_url":null,"soiltest_xml_url":0,"soiltest_view_url":0},{"id":504361,"code":"B4KJ202201000-6897","latitude":"40.528217","longitude":"140.240117","source_code":"TH20108233600200090001","project_name":"","survey_name":"\u5e73\u621022\u5e74\u5ea6\u3000\u6d25\u8efd\u30c0\u30e0\u53f3\u5cb8\u8caf\u6c34\u6c60\u5730\u3059\u3079\u308a\u5730\u8cea\u8abf\u67fb","client_name":"\u56fd\u571f\u4ea4\u901a\u7701\u6771\u5317\u5730\u65b9\u6574\u5099\u5c40\u6d25\u8efd\u30c0\u30e0\u5de5\u4e8b\u4e8b\u52d9\u6240","boring_xml_url":72,"boring_view_url":1,"soilmap_view_url":null,"soiltest_xml_url":0,"soiltest_view_url":0},{"id":504360,"code":"B4KJ202201000-6896","latitude":"40.537217","longitude":"140.26084","source_code":"TH2009823360020020010","project_name":"","survey_name":"\u5e73\u621021\u5e74\u5ea6\u3000\u6d25\u8efd\u30c0\u30e0\u6c34\u8cea\u4fdd\u5168\u5bfe\u7b56\u8a2d\u8a08\u696d\u52d9","client_name":"\u56fd\u571f\u4ea4\u901a\u7701\u3000\u6771\u5317\u5730\u65b9\u6574\u5099\u5c40\u3000\u6d25\u8efd\u30c0\u30e0\u5de5\u4e8b\u4e8b\u52d9\u6240","boring_xml_url":70,"boring_view_url":1,"soilmap_view_url":null,"soiltest_xml_url":0,"soiltest_view_url":0},{"id":504359,"code":"B4KJ202201000-6895","latitude":"40.537217","longitude":"140.260562","source_code":"TH2009823360020020009","project_name":"","survey_name":"\u5e73\u621021\u5e74\u5ea6\u3000\u6d25\u8efd\u30c0\u30e0\u6c34\u8cea\u4fdd\u5168\u5bfe\u7b56\u8a2d\u8a08\u696d\u52d9","client_name":"\u56fd\u571f\u4ea4\u901a\u7701\u3000\u6771\u5317\u5730\u65b9\u6574\u5099\u5c40\u3000\u6d25\u8efd\u30c0\u30e0\u5de5\u4e8b\u4e8b\u52d9\u6240","boring_xml_url":70,"boring_view_url":1,"soilmap_view_url":null,"soiltest_xml_url":0,"soiltest_view_url":0},{"id":504358,"code":"B4KJ202201000-6894","latitude":"40.536662","longitude":"140.26334","source_code":"TH2009823360020020008","project_name":"","survey_name":"\u5e73\u621021\u5e74\u5ea6\u3000\u6728\u6238\u30f6\u6ca2\u74b0\u5883\u4fdd\u5168\u30c0\u30e0\u7d30\u90e8\u8a2d\u8a08\u696d\u52d9","client_name":"\u6d25\u8efd\u30c0\u30e0\u5de5\u4e8b\u4e8b\u52d9\u6240","boring_xml_url":70,"boring_view_url":1,"soilmap_view_url":null,"soiltest_xml_url":0,"soiltest_view_url":0},{"id":504357,"code":"B4KJ202201000-6893","latitude":"40.536662","longitude":"140.26334","source_code":"TH2009823360020020007","project_name":"","survey_name":"\u5e73\u621021\u5e74\u5ea6\u3000\u6728\u6238\u30f6\u6ca2\u74b0\u5883\u4fdd\u5168\u30c0\u30e0\u7d30\u90e8\u8a2d\u8a08\u696d\u52d9","client_name":"\u6d25\u8efd\u30c0\u30e0\u5de5\u4e8b\u4e8b\u52d9\u6240","boring_xml_url":70,"boring_view_url":1,"soilmap_view_url":null,"soiltest_xml_url":0,"soiltest_view_url":0},{"id":504356,"code":"B4KJ202201000-6892","latitude":"40.536662","longitude":"140.263062","source_code":"TH2009823360020020006","project_name":"","survey_name":"\u5e73\u621021\u5e74\u5ea6\u3000\u6728\u6238\u30f6\u6ca2\u74b0\u5883\u4fdd\u5168\u30c0\u30e0\u7d30\u90e8\u8a2d\u8a08\u696d\u52d9","client_name":"\u6d25\u8efd\u30c0\u30e0\u5de5\u4e8b\u4e8b\u52d9\u6240","boring_xml_url":70,"boring_view_url":1,"soilmap_view_url":null,"soiltest_xml_url":0,"soiltest_view_url":0},{"id":504355,"code":"B4KJ202201000-6891","latitude":"40.521078","longitude":"140.207562","source_code":"TH2009823360020020005","project_name":"","survey_name":"\u5e73\u621021\u5e74\u5ea6\u3000\u6d25\u8efd\u30c0\u30e0\u6c34\u8cea\u4fdd\u5168\u5bfe\u7b56\u8a2d\u8a08\u696d\u52d9","client_name":"\"\u56fd\u571f\u4ea4\u901a\u7701 \u6771\u5317\u5730\u65b9\u6574\u5099\u5c40\u3000\u6d25\u8efd\u30c0\u30e0\u5de5\u4e8b\u4e8b\u52d9\u6240\"","boring_xml_url":70,"boring_view_url":1,"soilmap_view_url":null,"soiltest_xml_url":0,"soiltest_view_url":0},{"id":504354,"code":"B4KJ202201000-6890","latitude":"40.521578","longitude":"140.207895","source_code":"TH2009823360020020004","project_name":"","survey_name":"\u5e73\u621021\u5e74\u5ea6\u3000\u6d25\u8efd\u30c0\u30e0\u6c34\u8cea\u4fdd\u5168\u5bfe\u7b56\u8a2d\u8a08\u696d\u52d9","client_name":"\u56fd\u571f\u4ea4\u901a\u7701\u3000\u6771\u5317\u5730\u65b9\u6574\u5099\u5c40\u3000\u6d25\u8efd\u30c0\u30e0\u5de5\u4e8b\u4e8b\u52d9\u6240","boring_xml_url":70,"boring_view_url":1,"soilmap_view_url":null,"soiltest_xml_url":0,"soiltest_view_url":0},{"id":504353,"code":"B4KJ202201000-6889","latitude":"40.521384","longitude":"140.207673","source_code":"TH2009823360020020003","project_name":"","survey_name":"\u5e73\u621021\u5e74\u5ea6\u3000\u6d25\u8efd\u30c0\u30e0\u6c34\u8cea\u4fdd\u5168\u5bfe\u7b56\u8a2d\u8a08\u696d\u52d9","client_name":"\u56fd\u571f\u4ea4\u901a\u7701\u3000\u6771\u5317\u5730\u65b9\u6574\u5099\u5c40\u3000\u6d25\u8efd\u30c0\u30e0\u5de5\u4e8b\u4e8b\u52d9\u6240","boring_xml_url":70,"boring_view_url":1,"soilmap_view_url":null,"soiltest_xml_url":0,"soiltest_view_url":0},{"id":504352,"code":"B4KJ202201000-6888","latitude":"40.522051","longitude":"140.207923","source_code":"TH2009823360020020002","project_name":"","survey_name":"\u5e73\u621021\u5e74\u5ea6\u3000\u6d25\u8efd\u30c0\u30e0\u6c34\u8cea\u4fdd\u5168\u5bfe\u7b56\u8a2d\u8a08\u696d\u52d9","client_name":"\u56fd\u571f\u4ea4\u901a\u7701\u3000\u6771\u5317\u5730\u65b9\u6574\u5099\u5c40\u3000\u6d25\u8efd\u30c0\u30e0\u5de5\u4e8b\u4e8b\u52d9\u6240","boring_xml_url":70,"boring_view_url":1,"soilmap_view_url":null,"soiltest_xml_url":0,"soiltest_view_url":0},{"id":504351,"code":"B4KJ202201000-6887","latitude":"40.521606","longitude":"140.207756","source_code":"TH2009823360020020001","project_name":"","survey_name":"\u5e73\u621021\u5e74\u5ea6\u3000\u6d25\u8efd\u30c0\u30e0\u6c34\u8cea\u4fdd\u5168\u5bfe\u7b56\u8a2d\u8a08\u696d\u52d9","client_name":"\u56fd\u571f\u4ea4\u901a\u7701\u3000\u6771\u5317\u5730\u65b9\u6574\u5099\u5c40\u3000\u6d25\u8efd\u30c0\u30e0\u5de5\u4e8b\u4e8b\u52d9\u6240","boring_xml_url":70,"boring_view_url":1,"soilmap_view_url":null,"soiltest_xml_url":0,"soiltest_view_url":0}]}}