{"header":{"xyz":{"source":[],"mosaic":false},"page":1372,"raw":{"soiltest_result":"0","bbox":"57.598333,109.544722,1.933333,163.806111","page":"1372"},"conditions":{"soiltest_result":0,"north":57.598333,"west":109.544722,"south":1.933333,"east":163.806111},"success":true,"message":""},"data":{"meta":{"total":212844,"page":1372,"pages":7095,"count":30},"values":[{"id":504230,"code":"B4KJ202201000-6766","latitude":"40.852107","longitude":"141.37915","source_code":"TH20118231690200120002","project_name":"\"\u5e73\u621024\u5e74\u5ea6 \u5c0f\u5ddd\u539f\u6e56\u5869\u6c34\u5bfe\u7b56\u691c\u8a0e\u696d\u52d9\"","survey_name":"\"\u5e73\u621024\u5e74\u5ea6 \u5c0f\u5ddd\u539f\u6e56\u5869\u6c34\u5bfe\u7b56\u691c\u8a0e\u696d\u52d9\"","client_name":"\u56fd\u9053\u4ea4\u901a\u7701\u3000\u6771\u5317\u5730\u65b9\u6574\u5099\u5c40\u3000\u9ad8\u702c\u5ddd\u6cb3\u5ddd\u4e8b\u52d9\u6240","boring_xml_url":72,"boring_view_url":1,"soilmap_view_url":null,"soiltest_xml_url":0,"soiltest_view_url":0},{"id":504229,"code":"B4KJ202201000-6765","latitude":"40.853518","longitude":"141.379545","source_code":"TH20118231690200120001","project_name":"\"\u5e73\u621024\u5e74\u5ea6 \u5c0f\u5ddd\u539f\u6e56\u5869\u6c34\u5bfe\u7b56\u691c\u8a0e\u696d\u52d9\"","survey_name":"\"\u5e73\u621024\u5e74\u5ea6 \u5c0f\u5ddd\u539f\u6e56\u5869\u6c34\u5bfe\u7b56\u691c\u8a0e\u696d\u52d9\"","client_name":"\u56fd\u9053\u4ea4\u901a\u7701\u3000\u6771\u5317\u5730\u65b9\u6574\u5099\u5c40\u3000\u9ad8\u702c\u5ddd\u6cb3\u5ddd\u4e8b\u52d9\u6240","boring_xml_url":72,"boring_view_url":1,"soilmap_view_url":null,"soiltest_xml_url":0,"soiltest_view_url":0},{"id":504228,"code":"B4KJ202201000-6764","latitude":"40.222495","longitude":"140.023063","source_code":"TH20118247610200140006","project_name":"\u6cb3\u5ddd\u6539\u4fee\u4e8b\u696d","survey_name":"\u5e73\u621023\u5e74\u5ea6\u3000\u7c73\u4ee3\u5ddd\u843d\u5408\u5730\u533a\u5730\u8cea\u8abf\u67fb","client_name":"\u6771\u5317\u5730\u65b9\u6574\u5099\u5c40\u80fd\u4ee3\u6cb3\u5ddd\u56fd\u9053\u4e8b\u52d9\u6240","boring_xml_url":72,"boring_view_url":1,"soilmap_view_url":null,"soiltest_xml_url":0,"soiltest_view_url":0},{"id":504227,"code":"B4KJ202201000-6763","latitude":"40.222773","longitude":"140.023341","source_code":"TH20118247610200140005","project_name":"\u6cb3\u5ddd\u6539\u4fee\u4e8b\u696d","survey_name":"\u5e73\u621023\u5e74\u5ea6\u3000\u7c73\u4ee3\u5ddd\u843d\u5408\u5730\u533a\u5730\u8cea\u8abf\u67fb","client_name":"\u6771\u5317\u5730\u65b9\u6574\u5099\u5c40\u80fd\u4ee3\u6cb3\u5ddd\u56fd\u9053\u4e8b\u52d9\u6240","boring_xml_url":72,"boring_view_url":1,"soilmap_view_url":null,"soiltest_xml_url":0,"soiltest_view_url":0},{"id":504226,"code":"B4KJ202201000-6762","latitude":"40.222495","longitude":"140.023341","source_code":"TH20118247610200140004","project_name":"\u6cb3\u5ddd\u6539\u4fee\u4e8b\u696d","survey_name":"\u5e73\u621023\u5e74\u5ea6\u3000\u7c73\u4ee3\u5ddd\u843d\u5408\u5730\u533a\u5730\u8cea\u8abf\u67fb","client_name":"\u6771\u5317\u5730\u65b9\u6574\u5099\u5c40\u80fd\u4ee3\u6cb3\u5ddd\u56fd\u9053\u4e8b\u52d9\u6240","boring_xml_url":72,"boring_view_url":1,"soilmap_view_url":null,"soiltest_xml_url":0,"soiltest_view_url":0},{"id":504225,"code":"B4KJ202201000-6761","latitude":"40.224717","longitude":"140.015563","source_code":"TH20118247610200140003","project_name":"\u6cb3\u5ddd\u6539\u4fee\u4e8b\u696d","survey_name":"\u5e73\u621023\u5e74\u5ea6\u3000\u7c73\u4ee3\u5ddd\u843d\u5408\u5730\u533a\u5730\u8cea\u8abf\u67fb","client_name":"\u6771\u5317\u5730\u65b9\u6574\u5099\u5c40\u80fd\u4ee3\u6cb3\u5ddd\u56fd\u9053\u4e8b\u52d9\u6240","boring_xml_url":72,"boring_view_url":1,"soilmap_view_url":null,"soiltest_xml_url":0,"soiltest_view_url":0},{"id":504224,"code":"B4KJ202201000-6760","latitude":"40.224717","longitude":"140.015563","source_code":"TH20118247610200140002","project_name":"\u6cb3\u5ddd\u6539\u4fee\u4e8b\u696d","survey_name":"\u5e73\u621023\u5e74\u5ea6\u3000\u7c73\u4ee3\u5ddd\u843d\u5408\u5730\u533a\u5730\u8cea\u8abf\u67fb","client_name":"\u6771\u5317\u5730\u65b9\u6574\u5099\u5c40\u80fd\u4ee3\u6cb3\u5ddd\u56fd\u9053\u4e8b\u52d9\u6240","boring_xml_url":72,"boring_view_url":1,"soilmap_view_url":null,"soiltest_xml_url":0,"soiltest_view_url":0},{"id":504223,"code":"B4KJ202201000-6759","latitude":"40.22444","longitude":"140.015563","source_code":"TH20118247610200140001","project_name":"\u6cb3\u5ddd\u6539\u4fee\u4e8b\u696d","survey_name":"\u5e73\u621023\u5e74\u5ea6\u3000\u7c73\u4ee3\u5ddd\u843d\u5408\u5730\u533a\u5730\u8cea\u8abf\u67fb","client_name":"\u6771\u5317\u5730\u65b9\u6574\u5099\u5c40\u80fd\u4ee3\u6cb3\u5ddd\u56fd\u9053\u4e8b\u52d9\u6240","boring_xml_url":72,"boring_view_url":1,"soilmap_view_url":null,"soiltest_xml_url":0,"soiltest_view_url":0},{"id":504222,"code":"B4KJ202201000-6758","latitude":"40.218328","longitude":"140.021952","source_code":"TH20118247610200120003","project_name":"","survey_name":"\u5e73\u621023\u5e74\u5ea6\u3000\u7c73\u4ee3\u5ddd\u4e2d\u5cf6\u5730\u533a\u5730\u8cea\u8abf\u67fb","client_name":"\u56fd\u571f\u4ea4\u901a\u7701\u3000\u6771\u5317\u5730\u65b9\u6574\u5099\u5c40\u3000\u80fd\u4ee3\u6cb3\u5ddd\u56fd\u9053\u4e8b\u52d9\u6240","boring_xml_url":72,"boring_view_url":1,"soilmap_view_url":null,"soiltest_xml_url":0,"soiltest_view_url":0},{"id":504221,"code":"B4KJ202201000-6757","latitude":"40.218051","longitude":"140.021952","source_code":"TH20118247610200120002","project_name":"","survey_name":"\u5e73\u621023\u5e74\u5ea6\u3000\u7c73\u4ee3\u5ddd\u4e2d\u5cf6\u5730\u533a\u5730\u8cea\u8abf\u67fb","client_name":"\u56fd\u571f\u4ea4\u901a\u7701\u3000\u6771\u5317\u5730\u65b9\u6574\u5099\u5c40\u3000\u80fd\u4ee3\u6cb3\u5ddd\u56fd\u9053\u4e8b\u52d9\u6240","boring_xml_url":72,"boring_view_url":1,"soilmap_view_url":null,"soiltest_xml_url":0,"soiltest_view_url":0},{"id":504220,"code":"B4KJ202201000-6756","latitude":"40.218606","longitude":"140.021952","source_code":"TH20118247610200120001","project_name":"","survey_name":"\u5e73\u621023\u5e74\u5ea6\u3000\u7c73\u4ee3\u5ddd\u4e2d\u5cf6\u5730\u533a\u5730\u8cea\u8abf\u67fb","client_name":"\u56fd\u571f\u4ea4\u901a\u7701\u3000\u6771\u5317\u5730\u65b9\u6574\u5099\u5c40\u3000\u80fd\u4ee3\u6cb3\u5ddd\u56fd\u9053\u4e8b\u52d9\u6240","boring_xml_url":72,"boring_view_url":1,"soilmap_view_url":null,"soiltest_xml_url":0,"soiltest_view_url":0},{"id":504219,"code":"B4KJ202201000-6755","latitude":"40.206214","longitude":"141.243953","source_code":"TH20118247610200070007","project_name":"\u5e73\u621023\u5e74\u5ea6\u7c73\u4ee3\u5ddd\u4e8c\u30c4\u4e95\u5de6\u5cb8\u5730\u533a\u5730\u8cea\u8abf\u67fb","survey_name":"\u5e73\u621023\u5e74\u5ea6\u7c73\u4ee3\u5ddd\u4e8c\u30c4\u4e95\u5de6\u5cb8\u5730\u533a\u5730\u8cea\u8abf\u67fb","client_name":"\u56fd\u571f\u4ea4\u901a\u7701\u6771\u5317\u5730\u65b9\u6574\u5099\u5c40\u80fd\u4ee3\u6cb3\u5ddd\u56fd\u9053\u4e8b\u52d9\u6240","boring_xml_url":72,"boring_view_url":1,"soilmap_view_url":null,"soiltest_xml_url":0,"soiltest_view_url":0},{"id":504218,"code":"B4KJ202201000-6754","latitude":"40.207772","longitude":"140.245925","source_code":"TH20118247610200070006","project_name":"\u5e73\u621023\u5e74\u5ea6\u7c73\u4ee3\u5ddd\u4e8c\u30c4\u4e95\u5de6\u5cb8\u5730\u533a\u5730\u8cea\u8abf\u67fb","survey_name":"\u5e73\u621023\u5e74\u5ea6\u7c73\u4ee3\u5ddd\u4e8c\u30c4\u4e95\u5de6\u5cb8\u5730\u533a\u5730\u8cea\u8abf\u67fb","client_name":"\u56fd\u571f\u4ea4\u901a\u7701\u6771\u5317\u5730\u65b9\u6574\u5099\u5c40\u80fd\u4ee3\u6cb3\u5ddd\u56fd\u9053\u4e8b\u52d9\u6240\u8abf\u67fb\u7b2c\u4e00\u8ab2","boring_xml_url":72,"boring_view_url":1,"soilmap_view_url":null,"soiltest_xml_url":0,"soiltest_view_url":0},{"id":504217,"code":"B4KJ202201000-6753","latitude":"40.206106","longitude":"140.244564","source_code":"TH20118247610200070005","project_name":"\u5e73\u621023\u5e74\u5ea6\u7c73\u4ee3\u5ddd\u4e8c\u30c4\u4e95\u5de6\u5cb8\u5730\u533a\u5730\u8cea\u8abf\u67fb","survey_name":"\u5e73\u621023\u5e74\u5ea6\u7c73\u4ee3\u5ddd\u4e8c\u30c4\u4e95\u5de6\u5cb8\u5730\u533a\u5730\u8cea\u8abf\u67fb","client_name":"\u56fd\u571f\u4ea4\u901a\u7701\u6771\u5317\u5730\u65b9\u6574\u5099\u5c40\u80fd\u4ee3\u6cb3\u5ddd\u56fd\u9053\u4e8b\u52d9\u6240\u8abf\u67fb\u7b2c\u4e00\u8ab2","boring_xml_url":72,"boring_view_url":1,"soilmap_view_url":null,"soiltest_xml_url":0,"soiltest_view_url":0},{"id":504216,"code":"B4KJ202201000-6752","latitude":"40.205717","longitude":"140.247175","source_code":"TH20118247610200070004","project_name":"\u5e73\u621023\u5e74\u5ea6\u7c73\u4ee3\u5ddd\u4e8c\u30c4\u4e95\u5de6\u5cb8\u5730\u533a\u5730\u8cea\u8abf\u67fb","survey_name":"\u5e73\u621023\u5e74\u5ea6\u7c73\u4ee3\u5ddd\u4e8c\u30c4\u4e95\u5de6\u5cb8\u5730\u533a\u5730\u8cea\u8abf\u67fb","client_name":"\u56fd\u571f\u4ea4\u901a\u7701\u6771\u5317\u5730\u65b9\u6574\u5099\u5c40\u80fd\u4ee3\u6cb3\u5ddd\u56fd\u9053\u4e8b\u52d9\u6240\u8abf\u67fb\u7b2c\u4e00\u8ab2","boring_xml_url":72,"boring_view_url":1,"soilmap_view_url":null,"soiltest_xml_url":0,"soiltest_view_url":0},{"id":504215,"code":"B4KJ202201000-6751","latitude":"40.207772","longitude":"140.246008","source_code":"TH20118247610200070003","project_name":"\u5e73\u621023\u5e74\u5ea6\u7c73\u4ee3\u5ddd\u4e8c\u30c4\u4e95\u5de6\u5cb8\u5730\u533a\u5730\u8cea\u8abf\u67fb","survey_name":"\u5e73\u621023\u5e74\u5ea6\u7c73\u4ee3\u5ddd\u4e8c\u30c4\u4e95\u5de6\u5cb8\u5730\u533a\u5730\u8cea\u8abf\u67fb","client_name":"\u56fd\u571f\u4ea4\u901a\u7701\u6771\u5317\u5730\u65b9\u6574\u5099\u5c40\u80fd\u4ee3\u6cb3\u5ddd\u56fd\u9053\u4e8b\u52d9\u6240","boring_xml_url":72,"boring_view_url":1,"soilmap_view_url":null,"soiltest_xml_url":0,"soiltest_view_url":0},{"id":504214,"code":"B4KJ202201000-6750","latitude":"40.207495","longitude":"140.247064","source_code":"TH20118247610200070002","project_name":"\u5e73\u621023\u5e74\u5ea6\u7c73\u4ee3\u5ddd\u4e8c\u30c4\u4e95\u5de6\u5cb8\u5730\u533a\u5730\u8cea\u8abf\u67fb","survey_name":"\u5e73\u621023\u5e74\u5ea6\u7c73\u4ee3\u5ddd\u4e8c\u30c4\u4e95\u5de6\u5cb8\u5730\u533a\u5730\u8cea\u8abf\u67fb","client_name":"\u56fd\u571f\u4ea4\u901a\u7701\u6771\u5317\u5730\u65b9\u6574\u5099\u5c40\u80fd\u4ee3\u6cb3\u5ddd\u56fd\u9053\u4e8b\u52d9\u6240\u8abf\u67fb\u7b2c\u4e00\u8ab2","boring_xml_url":72,"boring_view_url":1,"soilmap_view_url":null,"soiltest_xml_url":0,"soiltest_view_url":0},{"id":504213,"code":"B4KJ202201000-6749","latitude":"40.207495","longitude":"140.247064","source_code":"TH20118247610200070001","project_name":"\u5e73\u621023\u5e74\u5ea6\u7c73\u4ee3\u5ddd\u4e8c\u30c4\u4e95\u5de6\u5cb8\u5730\u533a\u5730\u8cea\u8abf\u67fb","survey_name":"\u5e73\u621023\u5e74\u5ea6\u7c73\u4ee3\u5ddd\u4e8c\u30c4\u4e95\u5de6\u5cb8\u5730\u533a\u5730\u8cea\u8abf\u67fb","client_name":"\u56fd\u571f\u4ea4\u901a\u7701\u6771\u5317\u5730\u65b9\u6574\u5099\u5c40\u80fd\u4ee3\u6cb3\u5ddd\u56fd\u9053\u4e8b\u52d9\u6240\u8abf\u67fb\u7b2c\u4e00\u8ab2","boring_xml_url":72,"boring_view_url":1,"soilmap_view_url":null,"soiltest_xml_url":0,"soiltest_view_url":0},{"id":504212,"code":"B4KJ202201000-6748","latitude":"40.211203","longitude":"140.366908","source_code":"TH20098247610200050005","project_name":"","survey_name":"\u7c73\u4ee3\u5ddd\u5824\u9632\u6d78\u900f\u8abf\u67fb\u696d\u52d9","client_name":"\u56fd\u571f\u4ea4\u901a\u7701\u6771\u5317\u5730\u65b9\u6574\u5099\u5c40\u80fd\u4ee3\u6cb3\u5ddd\u56fd\u9053\u4e8b\u52d9\u6240","boring_xml_url":72,"boring_view_url":1,"soilmap_view_url":null,"soiltest_xml_url":0,"soiltest_view_url":0},{"id":504211,"code":"B4KJ202201000-6747","latitude":"40.209856","longitude":"140.367506","source_code":"TH20098247610200050004","project_name":"","survey_name":"\u7c73\u4ee3\u5ddd\u5824\u9632\u6d78\u900f\u8abf\u67fb\u696d\u52d9","client_name":"\u56fd\u571f\u4ea4\u901a\u7701\u6771\u5317\u5730\u65b9\u6574\u5099\u5c40\u80fd\u4ee3\u6cb3\u5ddd\u56fd\u9053\u4e8b\u52d9\u6240","boring_xml_url":72,"boring_view_url":1,"soilmap_view_url":null,"soiltest_xml_url":0,"soiltest_view_url":0},{"id":504210,"code":"B4KJ202201000-6746","latitude":"40.231061","longitude":"140.192047","source_code":"TH20098247610200050003","project_name":"","survey_name":"\u7c73\u4ee3\u5ddd\u5824\u9632\u6d78\u900f\u8abf\u67fb\u696d\u52d9","client_name":"\u56fd\u571f\u4ea4\u901a\u7701\u6771\u5317\u5730\u65b9\u6574\u5099\u5c40\u80fd\u4ee3\u6cb3\u5ddd\u56fd\u9053\u4e8b\u52d9\u6240","boring_xml_url":72,"boring_view_url":1,"soilmap_view_url":null,"soiltest_xml_url":0,"soiltest_view_url":0},{"id":504209,"code":"B4KJ202201000-6745","latitude":"40.204825","longitude":"140.212442","source_code":"TH20098247610200050002","project_name":"","survey_name":"\u7c73\u4ee3\u5ddd\u5824\u9632\u6d78\u900f\u8abf\u67fb\u696d\u52d9","client_name":"\u56fd\u571f\u4ea4\u901a\u7701\u6771\u5317\u5730\u65b9\u6574\u5099\u5c40\u80fd\u4ee3\u6cb3\u5ddd\u56fd\u9053\u4e8b\u52d9\u6240","boring_xml_url":72,"boring_view_url":1,"soilmap_view_url":null,"soiltest_xml_url":0,"soiltest_view_url":0},{"id":504208,"code":"B4KJ202201000-6744","latitude":"40.201053","longitude":"140.04095","source_code":"TH20098247610200050001","project_name":"","survey_name":"\u7c73\u4ee3\u5ddd\u5824\u9632\u6d78\u900f\u8abf\u67fb\u696d\u52d9","client_name":"\u56fd\u571f\u4ea4\u901a\u7701\u6771\u5317\u5730\u65b9\u6574\u5099\u5c40\u80fd\u4ee3\u6cb3\u5ddd\u56fd\u9053\u4e8b\u52d9\u6240","boring_xml_url":72,"boring_view_url":1,"soilmap_view_url":null,"soiltest_xml_url":0,"soiltest_view_url":0},{"id":504207,"code":"B4KJ202201000-6743","latitude":"40.261085","longitude":"140.541266","source_code":"TH20138247520200100006","project_name":"","survey_name":"\u5e73\u621025\u5e74\u5ea6\u3000\u7c73\u4ee3\u5ddd\u7ba1\u5185\u6cb3\u5ddd\u7ba1\u7406\u6a4b\u8a2d\u8a08\u696d\u52d9\u59d4\u8a17","client_name":"\u56fd\u571f\u4ea4\u901a\u7701\u6771\u5317\u5730\u65b9\u6574\u5099\u5c40\u3000\u80fd\u4ee3\u6cb3\u5ddd\u56fd\u9053\u4e8b\u52d9\u6240","boring_xml_url":72,"boring_view_url":1,"soilmap_view_url":null,"soiltest_xml_url":0,"soiltest_view_url":0},{"id":504206,"code":"B4KJ202201000-6742","latitude":"40.261598","longitude":"140.541099","source_code":"TH20138247520200100005","project_name":"","survey_name":"\u5e73\u621025\u5e74\u5ea6\u3000\u7c73\u4ee3\u5ddd\u7ba1\u5185\u6cb3\u5ddd\u7ba1\u7406\u6a4b\u8a2d\u8a08\u696d\u52d9\u59d4\u8a17","client_name":"\u56fd\u571f\u4ea4\u901a\u7701\u6771\u5317\u5730\u65b9\u6574\u5099\u5c40\u3000\u80fd\u4ee3\u6cb3\u5ddd\u56fd\u9053\u4e8b\u52d9\u6240","boring_xml_url":72,"boring_view_url":1,"soilmap_view_url":null,"soiltest_xml_url":0,"soiltest_view_url":0},{"id":504205,"code":"B4KJ202201000-6741","latitude":"40.268467","longitude":"140.521183","source_code":"TH20138247520200100004","project_name":"","survey_name":"\u5e73\u621025\u5e74\u5ea6\u3000\u7c73\u4ee3\u5ddd\u7ba1\u5185\u6cb3\u5ddd\u7ba1\u7406\u6a4b\u8a2d\u8a08\u696d\u52d9","client_name":"\u56fd\u571f\u4ea4\u901a\u7701\u6771\u5317\u5730\u65b9\u6574\u5099\u5c40\u3000\u80fd\u4ee3\u6cb3\u5ddd\u56fd\u9053\u4e8b\u52d9\u6240","boring_xml_url":72,"boring_view_url":1,"soilmap_view_url":null,"soiltest_xml_url":0,"soiltest_view_url":0},{"id":504204,"code":"B4KJ202201000-6740","latitude":"40.268968","longitude":"140.520961","source_code":"TH20138247520200100003","project_name":"","survey_name":"\u5e73\u621025\u5e74\u5ea6\u3000\u7c73\u4ee3\u5ddd\u7ba1\u5185\u6cb3\u5ddd\u7ba1\u7406\u6a4b\u8a2d\u8a08\u696d\u52d9","client_name":"\u56fd\u571f\u4ea4\u901a\u7701\u6771\u5317\u5730\u65b9\u6574\u5099\u5c40\u3000\u80fd\u4ee3\u6cb3\u5ddd\u56fd\u9053\u4e8b\u52d9\u6240","boring_xml_url":72,"boring_view_url":1,"soilmap_view_url":null,"soiltest_xml_url":0,"soiltest_view_url":0},{"id":504203,"code":"B4KJ202201000-6739","latitude":"40.269143","longitude":"140.516152","source_code":"TH20138247520200100002","project_name":"","survey_name":"\u5e73\u621025\u5e74\u5ea6\u3000\u7c73\u4ee3\u5ddd\u7ba1\u5185\u6cb3\u5ddd\u7ba1\u7406\u6a4b\u8a2d\u8a08\u696d\u52d9\u59d4\u8a17","client_name":"\u56fd\u571f\u4ea4\u901a\u7701\u6771\u5317\u5730\u65b9\u6574\u5099\u5c40\u3000\u80fd\u4ee3\u6cb3\u5ddd\u56fd\u9053\u4e8b\u52d9\u6240","boring_xml_url":72,"boring_view_url":1,"soilmap_view_url":null,"soiltest_xml_url":0,"soiltest_view_url":0},{"id":504202,"code":"B4KJ202201000-6738","latitude":"40.269519","longitude":"140.515853","source_code":"TH20138247520200100001","project_name":"","survey_name":"\u5e73\u621025\u5e74\u5ea6\u3000\u7c73\u4ee3\u5ddd\u7ba1\u5185\u6cb3\u5ddd\u7ba1\u7406\u6a4b\u8a2d\u8a08\u696d\u52d9\u59d4\u8a17","client_name":"\u56fd\u571f\u4ea4\u901a\u7701\u6771\u5317\u5730\u65b9\u6574\u5099\u5c40\u3000\u80fd\u4ee3\u6cb3\u5ddd\u56fd\u9053\u4e8b\u52d9\u6240","boring_xml_url":72,"boring_view_url":1,"soilmap_view_url":null,"soiltest_xml_url":0,"soiltest_view_url":0},{"id":504201,"code":"B4KJ202201000-6737","latitude":"39.086939","longitude":"139.879182","source_code":"TH20098256530200190002","project_name":"","survey_name":"\u9152\u7530\u6cb3\u5ddd\u56fd\u9053\u7ba1\u5185\u9053\u8def\u9632\u707d\u70b9\u691c\u8a2d\u8a08\u696d\u52d9","client_name":"\u56fd\u571f\u4ea4\u901a\u7701\u6771\u5317\u5730\u65b9\u6574\u5099\u5c40\u9152\u7530\u6cb3\u5ddd\u56fd\u9053\u4e8b\u52d9\u6240","boring_xml_url":72,"boring_view_url":1,"soilmap_view_url":null,"soiltest_xml_url":0,"soiltest_view_url":0}]}}