{"header":{"xyz":{"source":[],"mosaic":false},"page":1376,"raw":{"soiltest_result":"0","bbox":"57.598333,109.544722,1.933333,163.806111","page":"1376"},"conditions":{"soiltest_result":0,"north":57.598333,"west":109.544722,"south":1.933333,"east":163.806111},"success":true,"message":""},"data":{"meta":{"total":212844,"page":1376,"pages":7095,"count":30},"values":[{"id":504110,"code":"B4KJ202201000-6646","latitude":"40.261106","longitude":"140.423675","source_code":"TH20138247400200090008","project_name":"","survey_name":"\u5e73\u621025\u5e74\u5ea6\u3000\u7c73\u4ee3\u5ddd\u571f\u8cea\u8abf\u67fb\u30fb\u571f\u58cc\u5206\u6790\u696d\u52d9","client_name":"\u6771\u5317\u5730\u65b9\u6574\u5099\u5c40\u80fd\u4ee3\u6cb3\u5ddd\u56fd\u9053\u4e8b\u52d9\u6240","boring_xml_url":72,"boring_view_url":1,"soilmap_view_url":null,"soiltest_xml_url":0,"soiltest_view_url":0},{"id":504109,"code":"B4KJ202201000-6645","latitude":"40.2623","longitude":"140.414564","source_code":"TH20138247400200090007","project_name":"","survey_name":"\u5e73\u621025\u5e74\u5ea6\u3000\u7c73\u4ee3\u5ddd\u571f\u8cea\u8abf\u67fb\u30fb\u571f\u58cc\u5206\u6790\u696d\u52d9","client_name":"\u6771\u5317\u5730\u65b9\u6574\u5099\u5c40\u80fd\u4ee3\u6cb3\u5ddd\u56fd\u9053\u4e8b\u52d9\u6240","boring_xml_url":72,"boring_view_url":1,"soilmap_view_url":null,"soiltest_xml_url":0,"soiltest_view_url":0},{"id":504108,"code":"B4KJ202201000-6644","latitude":"40.261245","longitude":"140.410008","source_code":"TH20138247400200090006","project_name":"","survey_name":"\u5e73\u621025\u5e74\u5ea6\u3000\u7c73\u4ee3\u5ddd\u571f\u8cea\u8abf\u67fb\u30fb\u571f\u58cc\u5206\u6790\u696d\u52d9","client_name":"\u6771\u5317\u5730\u65b9\u6574\u5099\u5c40\u80fd\u4ee3\u6cb3\u5ddd\u56fd\u9053\u4e8b\u52d9\u6240","boring_xml_url":72,"boring_view_url":1,"soilmap_view_url":null,"soiltest_xml_url":0,"soiltest_view_url":0},{"id":504107,"code":"B4KJ202201000-6643","latitude":"40.218217","longitude":"140.249647","source_code":"TH20138247400200090005","project_name":"","survey_name":"\u5e73\u621025\u5e74\u5ea6\u3000\u7c73\u4ee3\u5ddd\u571f\u8cea\u8abf\u67fb\u30fb\u571f\u58cc\u5206\u6790\u696d\u52d9","client_name":"\u6771\u5317\u5730\u65b9\u6574\u5099\u5c40\u80fd\u4ee3\u6cb3\u5ddd\u56fd\u9053\u4e8b\u52d9\u6240","boring_xml_url":72,"boring_view_url":1,"soilmap_view_url":null,"soiltest_xml_url":0,"soiltest_view_url":0},{"id":504106,"code":"B4KJ202201000-6642","latitude":"40.217772","longitude":"140.24973","source_code":"TH20138247400200090004","project_name":"","survey_name":"\u5e73\u621025\u5e74\u5ea6\u3000\u7c73\u4ee3\u5ddd\u571f\u8cea\u8abf\u67fb\u30fb\u571f\u58cc\u5206\u6790\u696d\u52d9","client_name":"\u6771\u5317\u5730\u65b9\u6574\u5099\u5c40\u80fd\u4ee3\u6cb3\u5ddd\u56fd\u9053\u4e8b\u52d9\u6240","boring_xml_url":72,"boring_view_url":1,"soilmap_view_url":null,"soiltest_xml_url":0,"soiltest_view_url":0},{"id":504105,"code":"B4KJ202201000-6641","latitude":"40.217328","longitude":"140.249814","source_code":"TH20138247400200090003","project_name":"","survey_name":"\u5e73\u621025\u5e74\u5ea6\u3000\u7c73\u4ee3\u5ddd\u571f\u8cea\u8abf\u67fb\u30fb\u571f\u58cc\u5206\u6790\u696d\u52d9","client_name":"\u6771\u5317\u5730\u65b9\u6574\u5099\u5c40\u80fd\u4ee3\u6cb3\u5ddd\u56fd\u9053\u4e8b\u52d9\u6240","boring_xml_url":72,"boring_view_url":1,"soilmap_view_url":null,"soiltest_xml_url":0,"soiltest_view_url":0},{"id":504104,"code":"B4KJ202201000-6640","latitude":"40.216439","longitude":"140.249508","source_code":"TH20138247400200090002","project_name":"","survey_name":"\u5e73\u621025\u5e74\u5ea6\u3000\u7c73\u4ee3\u5ddd\u571f\u8cea\u8abf\u67fb\u30fb\u571f\u58cc\u5206\u6790\u696d\u52d9","client_name":"\u6771\u5317\u5730\u65b9\u6574\u5099\u5c40\u80fd\u4ee3\u6cb3\u5ddd\u56fd\u9053\u4e8b\u52d9\u6240","boring_xml_url":72,"boring_view_url":1,"soilmap_view_url":null,"soiltest_xml_url":0,"soiltest_view_url":0},{"id":504103,"code":"B4KJ202201000-6639","latitude":"40.209106","longitude":"140.244008","source_code":"TH20138247400200090001","project_name":"","survey_name":"\u5e73\u621025\u5e74\u5ea6\u3000\u7c73\u4ee3\u5ddd\u571f\u8cea\u8abf\u67fb\u30fb\u571f\u58cc\u5206\u6790\u696d\u52d9","client_name":"\u6771\u5317\u5730\u65b9\u6574\u5099\u5c40\u80fd\u4ee3\u6cb3\u5ddd\u56fd\u9053\u4e8b\u52d9\u6240","boring_xml_url":72,"boring_view_url":1,"soilmap_view_url":null,"soiltest_xml_url":0,"soiltest_view_url":0},{"id":504102,"code":"B4KJ202201000-6638","latitude":"40.209917","longitude":"140.101783","source_code":"TH20138247400200080001","project_name":"","survey_name":"\u7c73\u4ee3\u5ddd\u9db4\u5f62\u5730\u533a\u5824\u9632\u5f37\u5316\u8a2d\u8a08\u696d\u52d9\u59d4\u8a17","client_name":"\u56fd\u571f\u4ea4\u901a\u7701\u6771\u5317\u5730\u65b9\u6574\u5099\u5c40\u80fd\u4ee3\u6cb3\u5ddd\u56fd\u9053\u4e8b\u52d9\u6240","boring_xml_url":72,"boring_view_url":1,"soilmap_view_url":null,"soiltest_xml_url":0,"soiltest_view_url":0},{"id":504101,"code":"B4KJ202201000-6637","latitude":"40.269786","longitude":"140.510967","source_code":"TH20138247400200070003","project_name":"","survey_name":"\u7c73\u4ee3\u5ddd\u5c71\u7530\u6e21\u5730\u533a\u5824\u9632\u30fb\u6a0b\u7ba1\u8a2d\u8a08\u696d\u52d9","client_name":"\u6771\u5317\u5730\u65b9\u6574\u5099\u5c40\u80fd\u4ee3\u6cb3\u5ddd\u56fd\u9053\u4e8b\u52d9\u6240","boring_xml_url":72,"boring_view_url":1,"soilmap_view_url":null,"soiltest_xml_url":0,"soiltest_view_url":0},{"id":504100,"code":"B4KJ202201000-6636","latitude":"40.269572","longitude":"140.510911","source_code":"TH20138247400200070002","project_name":"","survey_name":"\u7c73\u4ee3\u5ddd\u5c71\u7530\u6e21\u5730\u533a\u5824\u9632\u30fb\u6a0b\u7ba1\u8a2d\u8a08\u696d\u52d9","client_name":"\u6771\u5317\u5730\u65b9\u6574\u5099\u5c40\u80fd\u4ee3\u6cb3\u5ddd\u56fd\u9053\u4e8b\u52d9\u6240","boring_xml_url":72,"boring_view_url":1,"soilmap_view_url":null,"soiltest_xml_url":0,"soiltest_view_url":0},{"id":504099,"code":"B4KJ202201000-6635","latitude":"40.269403","longitude":"140.510883","source_code":"TH20138247400200070001","project_name":"","survey_name":"\u7c73\u4ee3\u5ddd\u5c71\u7530\u6e21\u5730\u533a\u5824\u9632\u30fb\u6a0b\u7ba1\u8a2d\u8a08\u696d\u52d9","client_name":"\u6771\u5317\u5730\u65b9\u6574\u5099\u5c40\u80fd\u4ee3\u6cb3\u5ddd\u56fd\u9053\u4e8b\u52d9\u6240","boring_xml_url":72,"boring_view_url":1,"soilmap_view_url":null,"soiltest_xml_url":0,"soiltest_view_url":0},{"id":504098,"code":"B4KJ202201000-6634","latitude":"40.371105","longitude":"140.710841","source_code":"TH20118247410200030004","project_name":"","survey_name":"\u5317\u79cb\u7530\u5927\u9928\u5c0f\u5742\u5730\u533a\u5730\u8cea\u8abf\u67fb\u89e3\u6790\u696d\u52d9","client_name":"\u56fd\u571f\u4ea4\u901a\u7701\u6771\u5317\u5730\u65b9\u6574\u5099\u5c40\u80fd\u4ee3\u6cb3\u5ddd\u56fd\u9053\u4e8b\u52d9\u6240","boring_xml_url":72,"boring_view_url":1,"soilmap_view_url":null,"soiltest_xml_url":0,"soiltest_view_url":0},{"id":504097,"code":"B4KJ202201000-6633","latitude":"40.371383","longitude":"140.710563","source_code":"TH20118247410200030003","project_name":"","survey_name":"\u5317\u79cb\u7530\u5927\u9928\u5c0f\u5742\u5730\u533a\u5730\u8cea\u8abf\u67fb\u89e3\u6790\u696d\u52d9","client_name":"\u56fd\u571f\u4ea4\u901a\u7701\u6771\u5317\u5730\u65b9\u6574\u5099\u5c40\u80fd\u4ee3\u6cb3\u5ddd\u56fd\u9053\u4e8b\u52d9\u6240","boring_xml_url":72,"boring_view_url":1,"soilmap_view_url":null,"soiltest_xml_url":0,"soiltest_view_url":0},{"id":504096,"code":"B4KJ202201000-6632","latitude":"40.371105","longitude":"140.710563","source_code":"TH20118247410200030002","project_name":"","survey_name":"\u5317\u79cb\u7530\u5927\u9928\u5c0f\u5742\u5730\u533a\u5730\u8cea\u8abf\u67fb\u89e3\u6790\u696d\u52d9","client_name":"\u56fd\u571f\u4ea4\u901a\u7701\u6771\u5317\u5730\u65b9\u6574\u5099\u5c40\u80fd\u4ee3\u6cb3\u5ddd\u56fd\u9053\u4e8b\u52d9\u6240","boring_xml_url":72,"boring_view_url":1,"soilmap_view_url":null,"soiltest_xml_url":0,"soiltest_view_url":0},{"id":504095,"code":"B4KJ202201000-6631","latitude":"40.370827","longitude":"140.706396","source_code":"TH20118247410200030001","project_name":"","survey_name":"\u5317\u79cb\u7530\u5927\u9928\u5c0f\u5742\u5730\u533a\u5730\u8cea\u8abf\u67fb\u89e3\u6790\u696d\u52d9","client_name":"\u56fd\u571f\u4ea4\u901a\u7701\u6771\u5317\u5730\u65b9\u6574\u5099\u5c40\u80fd\u4ee3\u6cb3\u5ddd\u56fd\u9053\u4e8b\u52d9\u6240","boring_xml_url":72,"boring_view_url":1,"soilmap_view_url":null,"soiltest_xml_url":0,"soiltest_view_url":0},{"id":504094,"code":"B4KJ202201000-6630","latitude":"40.200847","longitude":"140.392559","source_code":"TH00009","project_name":"","survey_name":"\u5e73\u621023\u5e74\u5ea6\u3000\u9df9\u5de3\u5927\u9928\u9053\u8def\u5730\u8cea\u8abf\u67fb\u696d\u52d9","client_name":"\u56fd\u571f\u4ea4\u901a\u7701\u6771\u5317\u5730\u65b9\u6574\u5099\u5c40\u80fd\u4ee3\u6cb3\u5ddd\u56fd\u9053\u4e8b\u52d9\u6240","boring_xml_url":42,"boring_view_url":1,"soilmap_view_url":null,"soiltest_xml_url":0,"soiltest_view_url":0},{"id":504093,"code":"B4KJ202201000-6629","latitude":"40.200353","longitude":"140.391622","source_code":"TH00008","project_name":"","survey_name":"\u5e73\u621023\u5e74\u5ea6\u3000\u9df9\u5de3\u5927\u9928\u9053\u8def\u5730\u8cea\u8abf\u67fb\u696d\u52d9","client_name":"\u56fd\u571f\u4ea4\u901a\u7701\u6771\u5317\u5730\u65b9\u6574\u5099\u5c40\u80fd\u4ee3\u6cb3\u5ddd\u56fd\u9053\u4e8b\u52d9\u6240","boring_xml_url":42,"boring_view_url":1,"soilmap_view_url":null,"soiltest_xml_url":0,"soiltest_view_url":0},{"id":504092,"code":"B4KJ202201000-6628","latitude":"40.27125","longitude":"140.528967","source_code":"TH00007","project_name":"","survey_name":"\u5e73\u621023\u5e74\u5ea6\u3000\u9df9\u5de3\u5927\u9928\u9053\u8def\u5730\u8cea\u8abf\u67fb\u696d\u52d9","client_name":"\u56fd\u571f\u4ea4\u901a\u7701\u6771\u5317\u5730\u65b9\u6574\u5099\u5c40\u80fd\u4ee3\u6cb3\u5ddd\u56fd\u9053\u4e8b\u52d9\u6240","boring_xml_url":42,"boring_view_url":1,"soilmap_view_url":null,"soiltest_xml_url":0,"soiltest_view_url":0},{"id":504091,"code":"B4KJ202201000-6627","latitude":"40.199017","longitude":"140.374608","source_code":"TH00006","project_name":"","survey_name":"\u5e73\u621023\u5e74\u5ea6\u3000\u9df9\u5de3\u5927\u9928\u9053\u8def\u5730\u8cea\u8abf\u67fb\u696d\u52d9","client_name":"\u56fd\u571f\u4ea4\u901a\u7701\u6771\u5317\u5730\u65b9\u6574\u5099\u5c40\u80fd\u4ee3\u6cb3\u5ddd\u56fd\u9053\u4e8b\u52d9\u6240","boring_xml_url":42,"boring_view_url":1,"soilmap_view_url":null,"soiltest_xml_url":0,"soiltest_view_url":0},{"id":504090,"code":"B4KJ202201000-6626","latitude":"40.198511","longitude":"140.374408","source_code":"TH00005","project_name":"","survey_name":"\u5e73\u621023\u5e74\u5ea6\u3000\u9df9\u5de3\u5927\u9928\u9053\u8def\u5730\u8cea\u8abf\u67fb\u696d\u52d9","client_name":"\u56fd\u571f\u4ea4\u901a\u7701\u6771\u5317\u5730\u65b9\u6574\u5099\u5c40\u80fd\u4ee3\u6cb3\u5ddd\u56fd\u9053\u4e8b\u52d9\u6240","boring_xml_url":42,"boring_view_url":1,"soilmap_view_url":null,"soiltest_xml_url":0,"soiltest_view_url":0},{"id":504089,"code":"B4KJ202201000-6625","latitude":"40.198403","longitude":"140.374239","source_code":"TH00004","project_name":"","survey_name":"\u5e73\u621023\u5e74\u5ea6\u3000\u9df9\u5de3\u5927\u9928\u9053\u8def\u5730\u8cea\u8abf\u67fb\u696d\u52d9","client_name":"\u56fd\u571f\u4ea4\u901a\u7701\u6771\u5317\u5730\u65b9\u6574\u5099\u5c40\u80fd\u4ee3\u6cb3\u5ddd\u56fd\u9053\u4e8b\u52d9\u6240","boring_xml_url":45,"boring_view_url":1,"soilmap_view_url":null,"soiltest_xml_url":0,"soiltest_view_url":0},{"id":504088,"code":"B4KJ202201000-6624","latitude":"40.301486","longitude":"140.568819","source_code":"TH00003","project_name":"","survey_name":"\u5e73\u621023\u5e74\u5ea6\u3000\u9df9\u5de3\u5927\u9928\u9053\u8def\u5730\u8cea\u8abf\u67fb\u696d\u52d9","client_name":"\u56fd\u571f\u4ea4\u901a\u7701\u6771\u5317\u5730\u65b9\u6574\u5099\u5c40\u80fd\u4ee3\u6cb3\u5ddd\u56fd\u9053\u4e8b\u52d9\u6240","boring_xml_url":45,"boring_view_url":1,"soilmap_view_url":null,"soiltest_xml_url":0,"soiltest_view_url":0},{"id":504087,"code":"B4KJ202201000-6623","latitude":"40.301258","longitude":"140.568544","source_code":"TH00002","project_name":"","survey_name":"\u5e73\u621023\u5e74\u5ea6\u3000\u9df9\u5de3\u5927\u9928\u9053\u8def\u5730\u8cea\u8abf\u67fb\u696d\u52d9","client_name":"\u56fd\u571f\u4ea4\u901a\u7701\u6771\u5317\u5730\u65b9\u6574\u5099\u5c40\u80fd\u4ee3\u6cb3\u5ddd\u56fd\u9053\u4e8b\u52d9\u6240","boring_xml_url":45,"boring_view_url":1,"soilmap_view_url":null,"soiltest_xml_url":0,"soiltest_view_url":0},{"id":504086,"code":"B4KJ202201000-6622","latitude":"40.30098","longitude":"140.568369","source_code":"TH00001","project_name":"","survey_name":"\u5e73\u621023\u5e74\u5ea6\u3000\u9df9\u5de3\u5927\u9928\u9053\u8def\u5730\u8cea\u8abf\u67fb\u696d\u52d9","client_name":"\u56fd\u571f\u4ea4\u901a\u7701\u6771\u5317\u5730\u65b9\u6574\u5099\u5c40\u80fd\u4ee3\u6cb3\u5ddd\u56fd\u9053\u4e8b\u52d9\u6240","boring_xml_url":45,"boring_view_url":1,"soilmap_view_url":null,"soiltest_xml_url":0,"soiltest_view_url":0},{"id":504085,"code":"B4KJ202201000-6621","latitude":"40.357494","longitude":"140.690285","source_code":"TH20108247410200100009","project_name":"","survey_name":"\u9df9\u5de3\u5927\u9928\u9053\u8def\u5730\u8cea\u8abf\u67fb(\u5c0f\u5742\u526f\u96fb\u6c17\u5ba4\u9020\u6210\u7b87\u6240)","client_name":"\"\u56fd\u4ea4\u7701 \u6771\u5317\u5730\u65b9\u6574\u5099\u5c40 \u80fd\u4ee3\u6cb3\u5ddd\u56fd\u9053\u4e8b\u52d9\u6240\"","boring_xml_url":72,"boring_view_url":1,"soilmap_view_url":null,"soiltest_xml_url":0,"soiltest_view_url":0},{"id":504084,"code":"B4KJ202201000-6620","latitude":"40.312494","longitude":"140.576119","source_code":"TH20108247410200100008","project_name":"","survey_name":"\u9df9\u5de3\u5927\u9928\u9053\u8def\u5730\u8cea\u8abf\u67fb\u696d\u52d9(\u65e7\u5927\u9928\u5317IC\u9632\u707dST\u9020\u6210\u7b87\u6240\u5730\u8cea\u8abf\u67fb)","client_name":"\"\u56fd\u4ea4\u7701 \u6771\u5317\u5730\u65b9\u6574\u5099\u5c40 \u80fd\u4ee3\u6cb3\u5ddd\u56fd\u9053\u4e8b\u52d9\u6240\"","boring_xml_url":72,"boring_view_url":1,"soilmap_view_url":null,"soiltest_xml_url":0,"soiltest_view_url":0},{"id":504083,"code":"B4KJ202201000-6619","latitude":"40.311383","longitude":"140.576397","source_code":"TH20108247410200100007","project_name":"","survey_name":"\u9df9\u5de3\u5927\u9928\u9053\u8def\u5730\u8cea\u8abf\u67fb\u696d\u52d9(\u65e7\u5927\u9928\u5317IC\u9632\u707dST\u9020\u6210\u7b87\u6240\u5730\u8cea\u8abf\u67fb)","client_name":"\"\u56fd\u4ea4\u7701 \u6771\u5317\u5730\u65b9\u6574\u5099\u5c40 \u80fd\u4ee3\u6cb3\u5ddd\u56fd\u9053\u4e8b\u52d9\u6240\"","boring_xml_url":72,"boring_view_url":1,"soilmap_view_url":null,"soiltest_xml_url":0,"soiltest_view_url":0},{"id":504082,"code":"B4KJ202201000-6618","latitude":"40.312494","longitude":"140.575841","source_code":"TH20108247410200100006","project_name":"","survey_name":"\u9df9\u5de3\u5927\u9928\u9053\u8def\u5730\u8cea\u8abf\u67fb\u696d\u52d9(\u65e7\u5927\u9928\u5317IC\u9632\u707dST\u9020\u6210\u7b87\u6240\u5730\u8cea\u8abf\u67fb)","client_name":"\"\u56fd\u4ea4\u7701 \u6771\u5317\u5730\u65b9\u6574\u5099\u5c40 \u80fd\u4ee3\u6cb3\u5ddd\u56fd\u9053\u4e8b\u52d9\u6240\"","boring_xml_url":72,"boring_view_url":1,"soilmap_view_url":null,"soiltest_xml_url":0,"soiltest_view_url":0},{"id":504081,"code":"B4KJ202201000-6617","latitude":"40.312217","longitude":"140.576675","source_code":"TH20108247410200100005","project_name":"","survey_name":"\u9df9\u5de3\u5927\u9928\u9053\u8def\u5730\u8cea\u8abf\u67fb\u696d\u52d9(\u65e7\u5927\u9928\u5317IC\u9632\u707dST\u9020\u6210\u7b87\u6240\u5730\u8cea\u8abf\u67fb)","client_name":"\"\u56fd\u4ea4\u7701 \u6771\u5317\u5730\u65b9\u6574\u5099\u5c40 \u80fd\u4ee3\u6cb3\u5ddd\u56fd\u9053\u4e8b\u52d9\u6240\"","boring_xml_url":72,"boring_view_url":1,"soilmap_view_url":null,"soiltest_xml_url":0,"soiltest_view_url":0}]}}