{"header":{"xyz":{"source":[],"mosaic":false},"page":1381,"raw":{"soiltest_result":"0","bbox":"57.598333,109.544722,1.933333,163.806111","page":"1381"},"conditions":{"soiltest_result":0,"north":57.598333,"west":109.544722,"south":1.933333,"east":163.806111},"success":true,"message":""},"data":{"meta":{"total":212844,"page":1381,"pages":7095,"count":30},"values":[{"id":503960,"code":"B4KJ202201000-6496","latitude":"40.324509","longitude":"141.762693","source_code":"TH20138237420200160007","project_name":"","survey_name":"\u5e73\u621025\u5e74\u5ea6\u3000\u4e09\u9678\u6cbf\u5cb8\u9053\u8def\u3000\u4e45\u6148\u6d0b\u91ce\u9053\u8def\u88dc\u8db3\u8a2d\u8a08\u696d\u52d9","client_name":"\u56fd\u571f\u4ea4\u901a\u7701\u6771\u5317\u5730\u65b9\u6574\u5099\u5c40\u3000\u4e09\u9678\u56fd\u9053\u4e8b\u52d9\u6240","boring_xml_url":72,"boring_view_url":1,"soilmap_view_url":null,"soiltest_xml_url":0,"soiltest_view_url":0},{"id":503959,"code":"B4KJ202201000-6495","latitude":"40.323984","longitude":"141.762654","source_code":"TH20138237420200160006","project_name":"","survey_name":"\u5e73\u621025\u5e74\u5ea6\u3000\u4e09\u9678\u6cbf\u5cb8\u9053\u8def\u3000\u4e45\u6148\u6d0b\u91ce\u9053\u8def\u88dc\u8db3\u8a2d\u8a08\u696d\u52d9","client_name":"\u56fd\u571f\u4ea4\u901a\u7701\u6771\u5317\u5730\u65b9\u6574\u5099\u5c40\u3000\u4e09\u9678\u56fd\u9053\u4e8b\u52d9\u6240","boring_xml_url":72,"boring_view_url":1,"soilmap_view_url":null,"soiltest_xml_url":0,"soiltest_view_url":0},{"id":503958,"code":"B4KJ202201000-6494","latitude":"40.358784","longitude":"141.75109","source_code":"TH20138237420200160005","project_name":"","survey_name":"\u5e73\u621025\u5e74\u5ea6\u3000\u4e09\u9678\u6cbf\u5cb8\u9053\u8def\u3000\u4e45\u6148\u6d0b\u91ce\u9053\u8def\u88dc\u8db3\u8a2d\u8a08\u696d\u52d9","client_name":"\u56fd\u571f\u4ea4\u901a\u7701\u6771\u5317\u5730\u65b9\u6574\u5099\u5c40\u3000\u4e09\u9678\u56fd\u9053\u4e8b\u52d9\u6240","boring_xml_url":72,"boring_view_url":1,"soilmap_view_url":null,"soiltest_xml_url":0,"soiltest_view_url":0},{"id":503957,"code":"B4KJ202201000-6493","latitude":"40.360698","longitude":"141.749509","source_code":"TH20138237420200160004","project_name":"","survey_name":"\u5e73\u621025\u5e74\u5ea6\u3000\u4e09\u9678\u6cbf\u5cb8\u9053\u8def\u3000\u4e45\u6148\u6d0b\u91ce\u9053\u8def\u88dc\u8db3\u8a2d\u8a08\u696d\u52d9","client_name":"\u56fd\u571f\u4ea4\u901a\u7701\u6771\u5317\u5730\u65b9\u6574\u5099\u5c40\u3000\u4e09\u9678\u56fd\u9053\u4e8b\u52d9\u6240","boring_xml_url":72,"boring_view_url":1,"soilmap_view_url":null,"soiltest_xml_url":0,"soiltest_view_url":0},{"id":503956,"code":"B4KJ202201000-6492","latitude":"40.359662","longitude":"141.750476","source_code":"TH20138237420200160003","project_name":"","survey_name":"\u5e73\u621025\u5e74\u5ea6\u3000\u4e09\u9678\u6cbf\u5cb8\u9053\u8def\u3000\u4e45\u6148\u6d0b\u91ce\u9053\u8def\u88dc\u8db3\u8a2d\u8a08\u696d\u52d9","client_name":"\u56fd\u571f\u4ea4\u901a\u7701\u6771\u5317\u5730\u65b9\u6574\u5099\u5c40\u3000\u4e09\u9678\u56fd\u9053\u4e8b\u52d9\u6240","boring_xml_url":72,"boring_view_url":1,"soilmap_view_url":null,"soiltest_xml_url":0,"soiltest_view_url":0},{"id":503955,"code":"B4KJ202201000-6491","latitude":"40.358857","longitude":"141.75007","source_code":"TH20138237420200160002","project_name":"","survey_name":"\u5e73\u621025\u5e74\u5ea6\u3000\u4e09\u9678\u6cbf\u5cb8\u9053\u8def\u3000\u4e45\u6148\u6d0b\u91ce\u9053\u8def\u88dc\u8db3\u8a2d\u8a08\u696d\u52d9","client_name":"\u56fd\u571f\u4ea4\u901a\u7701\u6771\u5317\u5730\u65b9\u6574\u5099\u5c40\u3000\u4e09\u9678\u56fd\u9053\u4e8b\u52d9\u6240","boring_xml_url":72,"boring_view_url":1,"soilmap_view_url":null,"soiltest_xml_url":0,"soiltest_view_url":0},{"id":503954,"code":"B4KJ202201000-6490","latitude":"40.358073","longitude":"141.749281","source_code":"TH20138237420200160001","project_name":"","survey_name":"\u5e73\u621025\u5e74\u5ea6\u3000\u4e09\u9678\u6cbf\u5cb8\u9053\u8def\u3000\u4e45\u6148\u6d0b\u91ce\u9053\u8def\u88dc\u8db3\u8a2d\u8a08\u696d\u52d9","client_name":"\u56fd\u571f\u4ea4\u901a\u7701\u6771\u5317\u5730\u65b9\u6574\u5099\u5c40\u3000\u4e09\u9678\u56fd\u9053\u4e8b\u52d9\u6240","boring_xml_url":72,"boring_view_url":1,"soilmap_view_url":null,"soiltest_xml_url":0,"soiltest_view_url":0},{"id":503953,"code":"B4KJ202201000-6489","latitude":"39.251092","longitude":"141.888371","source_code":"TH20148237500200080007","project_name":"","survey_name":"\u4e09\u9678\u56fd\u9053\u7ba1\u5185\u9053\u8def\u8a73\u7d30\u8a2d\u8a08\u696d\u52d9","client_name":"\u56fd\u571f\u4ea4\u901a\u7701\u6771\u5317\u5730\u65b9\u6574\u5099\u5c40\u3000\u4e09\u9678\u56fd\u9053\u4e8b\u52d9\u6240","boring_xml_url":72,"boring_view_url":1,"soilmap_view_url":null,"soiltest_xml_url":0,"soiltest_view_url":0},{"id":503952,"code":"B4KJ202201000-6488","latitude":"39.251092","longitude":"141.888093","source_code":"TH20148237500200080006","project_name":"","survey_name":"\u4e09\u9678\u56fd\u9053\u7ba1\u5185\u9053\u8def\u8a73\u7d30\u8a2d\u8a08\u696d\u52d9","client_name":"\u56fd\u571f\u4ea4\u901a\u7701\u6771\u5317\u5730\u65b9\u6574\u5099\u5c40\u3000\u4e09\u9678\u56fd\u9053\u4e8b\u52d9\u6240","boring_xml_url":72,"boring_view_url":1,"soilmap_view_url":null,"soiltest_xml_url":0,"soiltest_view_url":0},{"id":503951,"code":"B4KJ202201000-6487","latitude":"40.073046","longitude":"141.832511","source_code":"TH20148237500200080005","project_name":"","survey_name":"\u4e09\u9678\u56fd\u9053\u7ba1\u5185\u9053\u8def\u8a73\u7d30\u8a2d\u8a08\u696d\u52d9","client_name":"\u56fd\u571f\u4ea4\u901a\u7701\u6771\u5317\u5730\u65b9\u6574\u5099\u5c40\u3000\u4e09\u9678\u56fd\u9053\u4e8b\u52d9\u6240","boring_xml_url":72,"boring_view_url":1,"soilmap_view_url":null,"soiltest_xml_url":0,"soiltest_view_url":0},{"id":503950,"code":"B4KJ202201000-6486","latitude":"40.073046","longitude":"141.832511","source_code":"TH20148237500200080004","project_name":"","survey_name":"\u4e09\u9678\u56fd\u9053\u7ba1\u5185\u9053\u8def\u8a73\u7d30\u8a2d\u8a08\u696d\u52d9","client_name":"\u56fd\u571f\u4ea4\u901a\u7701\u6771\u5317\u5730\u65b9\u6574\u5099\u5c40\u3000\u4e09\u9678\u56fd\u9053\u4e8b\u52d9\u6240","boring_xml_url":72,"boring_view_url":1,"soilmap_view_url":null,"soiltest_xml_url":0,"soiltest_view_url":0},{"id":503949,"code":"B4KJ202201000-6485","latitude":"40.057213","longitude":"141.849456","source_code":"TH20148237500200080003","project_name":"","survey_name":"\u4e09\u9678\u56fd\u9053\u7ba1\u5185\u9053\u8def\u8a73\u7d30\u8a2d\u8a08\u696d\u52d9","client_name":"\u56fd\u571f\u4ea4\u901a\u7701\u6771\u5317\u5730\u65b9\u6574\u5099\u5c40\u3000\u4e09\u9678\u56fd\u9053\u4e8b\u52d9\u6240","boring_xml_url":72,"boring_view_url":1,"soilmap_view_url":null,"soiltest_xml_url":0,"soiltest_view_url":0},{"id":503948,"code":"B4KJ202201000-6484","latitude":"40.010546","longitude":"141.880846","source_code":"TH20148237500200080002","project_name":"","survey_name":"\u4e09\u9678\u56fd\u9053\u7ba1\u5185\u9053\u8def\u8a73\u7d30\u8a2d\u8a08\u696d\u52d9","client_name":"\u56fd\u571f\u4ea4\u901a\u7701\u6771\u5317\u5730\u65b9\u6574\u5099\u5c40\u3000\u4e09\u9678\u56fd\u9053\u4e8b\u52d9\u6240","boring_xml_url":72,"boring_view_url":1,"soilmap_view_url":null,"soiltest_xml_url":0,"soiltest_view_url":0},{"id":503947,"code":"B4KJ202201000-6483","latitude":"40.010823","longitude":"141.880846","source_code":"TH20148237500200080001","project_name":"","survey_name":"\u4e09\u9678\u56fd\u9053\u7ba1\u5185\u9053\u8def\u8a73\u7d30\u8a2d\u8a08\u696d\u52d9","client_name":"\u56fd\u571f\u4ea4\u901a\u7701\u6771\u5317\u5730\u65b9\u6574\u5099\u5c40\u3000\u4e09\u9678\u56fd\u9053\u4e8b\u52d9\u6240","boring_xml_url":72,"boring_view_url":1,"soilmap_view_url":null,"soiltest_xml_url":0,"soiltest_view_url":0},{"id":503946,"code":"B4KJ202201000-6482","latitude":"39.004545","longitude":"141.620752","source_code":"TH20148237500100010002","project_name":"\u56fd\u905345\u53f7\u6c17\u4ed9\u5927\u6a4b\u4e0b\u90e8\u5de5\u4e8b\u5fa9\u65e7\u5de5\u4e8b","survey_name":"\u56fd\u905345\u53f7\u6c17\u4ed9\u5927\u6a4b\u4e0b\u90e8\u5de5\u4e8b\u5fa9\u65e7\u5de5\u4e8b","client_name":"\u56fd\u571f\u4ea4\u901a\u7701\u6771\u5317\u5730\u65b9\u6574\u5099\u5c40\u4e09\u9678\u56fd\u9053\u4e8b\u52d9\u6240","boring_xml_url":72,"boring_view_url":1,"soilmap_view_url":null,"soiltest_xml_url":0,"soiltest_view_url":0},{"id":503945,"code":"B4KJ202201000-6481","latitude":"39.004526","longitude":"141.620674","source_code":"TH20148237500100010001","project_name":"\u56fd\u905345\u53f7\u6c17\u4ed9\u5927\u6a4b\u4e0b\u90e8\u5de5\u4e8b\u5fa9\u65e7\u5de5\u4e8b","survey_name":"\u56fd\u905345\u53f7\u6c17\u4ed9\u5927\u6a4b\u4e0b\u90e8\u5de5\u4e8b\u5fa9\u65e7\u5de5\u4e8b","client_name":"\u56fd\u571f\u4ea4\u901a\u7701\u6771\u5317\u5730\u65b9\u6574\u5099\u5c40\u4e09\u9678\u56fd\u9053\u4e8b\u52d9\u6240","boring_xml_url":72,"boring_view_url":1,"soilmap_view_url":null,"soiltest_xml_url":0,"soiltest_view_url":0},{"id":503944,"code":"B4KJ202201000-6480","latitude":"39.365293","longitude":"140.064131","source_code":"TH20168245600200110022","project_name":"","survey_name":"\u5b50\u5409\u5ddd\u5824\u9632\u8abf\u67fb\u89e3\u6790\u696d\u52d9","client_name":"\"\u56fd\u571f\u4ea4\u901a\u7701 \u6771\u5317\u5730\u65b9\u6574\u5099\u5c40 \u79cb\u7530\u6cb3\u5ddd\u56fd\u9053\u4e8b\u52d9\u6240\"","boring_xml_url":72,"boring_view_url":1,"soilmap_view_url":null,"soiltest_xml_url":0,"soiltest_view_url":0},{"id":503943,"code":"B4KJ202201000-6479","latitude":"39.36584","longitude":"140.062962","source_code":"TH20168245600200110021","project_name":"","survey_name":"\u5b50\u5409\u5ddd\u5824\u9632\u8abf\u67fb\u89e3\u6790\u696d\u52d9","client_name":"\"\u56fd\u571f\u4ea4\u901a\u7701 \u6771\u5317\u5730\u65b9\u6574\u5099\u5c40 \u79cb\u7530\u6cb3\u5ddd\u56fd\u9053\u4e8b\u52d9\u6240\"","boring_xml_url":72,"boring_view_url":1,"soilmap_view_url":null,"soiltest_xml_url":0,"soiltest_view_url":0},{"id":503942,"code":"B4KJ202201000-6478","latitude":"39.366288","longitude":"140.062218","source_code":"TH20168245600200110020","project_name":"","survey_name":"\u5b50\u5409\u5ddd\u5824\u9632\u8abf\u67fb\u89e3\u6790\u696d\u52d9","client_name":"\"\u56fd\u571f\u4ea4\u901a\u7701 \u6771\u5317\u5730\u65b9\u6574\u5099\u5c40 \u79cb\u7530\u6cb3\u5ddd\u56fd\u9053\u4e8b\u52d9\u6240\"","boring_xml_url":72,"boring_view_url":1,"soilmap_view_url":null,"soiltest_xml_url":0,"soiltest_view_url":0},{"id":503941,"code":"B4KJ202201000-6477","latitude":"39.36654","longitude":"140.062115","source_code":"TH20168245600200110019","project_name":"","survey_name":"\u5b50\u5409\u5ddd\u5824\u9632\u8abf\u67fb\u89e3\u6790\u696d\u52d9","client_name":"\"\u56fd\u571f\u4ea4\u901a\u7701 \u6771\u5317\u5730\u65b9\u6574\u5099\u5c40 \u79cb\u7530\u6cb3\u5ddd\u56fd\u9053\u4e8b\u52d9\u6240\"","boring_xml_url":72,"boring_view_url":1,"soilmap_view_url":null,"soiltest_xml_url":0,"soiltest_view_url":0},{"id":503940,"code":"B4KJ202201000-6476","latitude":"39.367021","longitude":"140.062216","source_code":"TH20168245600200110018","project_name":"","survey_name":"\u5b50\u5409\u5ddd\u5824\u9632\u8abf\u67fb\u89e3\u6790\u696d\u52d9","client_name":"\"\u56fd\u571f\u4ea4\u901a\u7701 \u6771\u5317\u5730\u65b9\u6574\u5099\u5c40 \u79cb\u7530\u6cb3\u5ddd\u56fd\u9053\u4e8b\u52d9\u6240\"","boring_xml_url":72,"boring_view_url":1,"soilmap_view_url":null,"soiltest_xml_url":0,"soiltest_view_url":0},{"id":503939,"code":"B4KJ202201000-6475","latitude":"39.367497","longitude":"140.063192","source_code":"TH20168245600200110017","project_name":"","survey_name":"\u5b50\u5409\u5ddd\u5824\u9632\u8abf\u67fb\u89e3\u6790\u696d\u52d9","client_name":"\"\u56fd\u571f\u4ea4\u901a\u7701 \u6771\u5317\u5730\u65b9\u6574\u5099\u5c40 \u79cb\u7530\u6cb3\u5ddd\u56fd\u9053\u4e8b\u52d9\u6240\"","boring_xml_url":72,"boring_view_url":1,"soilmap_view_url":null,"soiltest_xml_url":0,"soiltest_view_url":0},{"id":503938,"code":"B4KJ202201000-6474","latitude":"39.367987","longitude":"140.065444","source_code":"TH20168245600200110016","project_name":"","survey_name":"\u5b50\u5409\u5ddd\u5824\u9632\u8abf\u67fb\u89e3\u6790\u696d\u52d9","client_name":"\"\u56fd\u571f\u4ea4\u901a\u7701 \u6771\u5317\u5730\u65b9\u6574\u5099\u5c40 \u79cb\u7530\u6cb3\u5ddd\u56fd\u9053\u4e8b\u52d9\u6240\"","boring_xml_url":72,"boring_view_url":1,"soilmap_view_url":null,"soiltest_xml_url":0,"soiltest_view_url":0},{"id":503937,"code":"B4KJ202201000-6473","latitude":"39.368086","longitude":"140.065406","source_code":"TH20168245600200110015","project_name":"","survey_name":"\u5b50\u5409\u5ddd\u5824\u9632\u8abf\u67fb\u89e3\u6790\u696d\u52d9","client_name":"\"\u56fd\u571f\u4ea4\u901a\u7701 \u6771\u5317\u5730\u65b9\u6574\u5099\u5c40 \u79cb\u7530\u6cb3\u5ddd\u56fd\u9053\u4e8b\u52d9\u6240\"","boring_xml_url":72,"boring_view_url":1,"soilmap_view_url":null,"soiltest_xml_url":0,"soiltest_view_url":0},{"id":503936,"code":"B4KJ202201000-6472","latitude":"39.365425","longitude":"140.064177","source_code":"TH20168245600200110014","project_name":"","survey_name":"\u5b50\u5409\u5ddd\u5824\u9632\u8abf\u67fb\u89e3\u6790\u696d\u52d9","client_name":"\"\u56fd\u571f\u4ea4\u901a\u7701 \u6771\u5317\u5730\u65b9\u6574\u5099\u5c40 \u79cb\u7530\u6cb3\u5ddd\u56fd\u9053\u4e8b\u52d9\u6240\"","boring_xml_url":72,"boring_view_url":1,"soilmap_view_url":null,"soiltest_xml_url":0,"soiltest_view_url":0},{"id":503935,"code":"B4KJ202201000-6471","latitude":"39.366003","longitude":"140.062513","source_code":"TH20168245600200110013","project_name":"","survey_name":"\u5b50\u5409\u5ddd\u5824\u9632\u8abf\u67fb\u89e3\u6790\u696d\u52d9","client_name":"\"\u56fd\u571f\u4ea4\u901a\u7701 \u6771\u5317\u5730\u65b9\u6574\u5099\u5c40 \u79cb\u7530\u6cb3\u5ddd\u56fd\u9053\u4e8b\u52d9\u6240\"","boring_xml_url":72,"boring_view_url":1,"soilmap_view_url":null,"soiltest_xml_url":0,"soiltest_view_url":0},{"id":503934,"code":"B4KJ202201000-6470","latitude":"39.367373","longitude":"140.062606","source_code":"TH20168245600200110012","project_name":"","survey_name":"\u5b50\u5409\u5ddd\u5824\u9632\u8abf\u67fb\u89e3\u6790\u696d\u52d9","client_name":"\"\u56fd\u571f\u4ea4\u901a\u7701 \u6771\u5317\u5730\u65b9\u6574\u5099\u5c40 \u79cb\u7530\u6cb3\u5ddd\u56fd\u9053\u4e8b\u52d9\u6240\"","boring_xml_url":72,"boring_view_url":1,"soilmap_view_url":null,"soiltest_xml_url":0,"soiltest_view_url":0},{"id":503933,"code":"B4KJ202201000-6469","latitude":"39.367736","longitude":"140.064311","source_code":"TH20168245600200110011","project_name":"","survey_name":"\u5b50\u5409\u5ddd\u5824\u9632\u8abf\u67fb\u89e3\u6790\u696d\u52d9","client_name":"\"\u56fd\u571f\u4ea4\u901a\u7701 \u6771\u5317\u5730\u65b9\u6574\u5099\u5c40 \u79cb\u7530\u6cb3\u5ddd\u56fd\u9053\u4e8b\u52d9\u6240\"","boring_xml_url":72,"boring_view_url":1,"soilmap_view_url":null,"soiltest_xml_url":0,"soiltest_view_url":0},{"id":503932,"code":"B4KJ202201000-6468","latitude":"39.368204","longitude":"140.064647","source_code":"TH20168245600200110010","project_name":"","survey_name":"\u5b50\u5409\u5ddd\u5824\u9632\u8abf\u67fb\u89e3\u6790\u696d\u52d9","client_name":"\"\u56fd\u571f\u4ea4\u901a\u7701 \u6771\u5317\u5730\u65b9\u6574\u5099\u5c40 \u79cb\u7530\u6cb3\u5ddd\u56fd\u9053\u4e8b\u52d9\u6240\"","boring_xml_url":72,"boring_view_url":1,"soilmap_view_url":null,"soiltest_xml_url":0,"soiltest_view_url":0},{"id":503931,"code":"B4KJ202201000-6467","latitude":"39.36808","longitude":"140.064696","source_code":"TH20168245600200110009","project_name":"","survey_name":"\u5b50\u5409\u5ddd\u5824\u9632\u8abf\u67fb\u89e3\u6790\u696d\u52d9","client_name":"\"\u56fd\u571f\u4ea4\u901a\u7701 \u6771\u5317\u5730\u65b9\u6574\u5099\u5c40 \u79cb\u7530\u6cb3\u5ddd\u56fd\u9053\u4e8b\u52d9\u6240\"","boring_xml_url":72,"boring_view_url":1,"soilmap_view_url":null,"soiltest_xml_url":0,"soiltest_view_url":0}]}}