{"header":{"xyz":{"source":[],"mosaic":false},"page":1388,"raw":{"soiltest_result":"0","bbox":"57.598333,109.544722,1.933333,163.806111","page":"1388"},"conditions":{"soiltest_result":0,"north":57.598333,"west":109.544722,"south":1.933333,"east":163.806111},"success":true,"message":""},"data":{"meta":{"total":212844,"page":1388,"pages":7095,"count":30},"values":[{"id":503750,"code":"B4KJ202201000-6286","latitude":"40.239087","longitude":"140.568062","source_code":"TH20158247400200020004","project_name":"\"\u5e73\u621027\u5e74\u5ea6 \u7c73\u4ee3\u5ddd\u5916\u5ddd\u539f\u5730\u533a\u6e2c\u91cf\u8a2d\u8a08\u696d\u52d9\"","survey_name":"\"\u5e73\u621027\u5e74\u5ea6 \u7c73\u4ee3\u5ddd\u5916\u5ddd\u539f\u5730\u533a\u6e2c\u91cf\u8a2d\u8a08\u696d\u52d9\"","client_name":"\"\u56fd\u571f\u4ea4\u901a\u7701\u6771\u5317\u5730\u65b9\u6574\u5099\u5c40 \u80fd\u4ee3\u6cb3\u5ddd\u56fd\u9053\u4e8b\u52d9\u6240\"","boring_xml_url":72,"boring_view_url":1,"soilmap_view_url":null,"soiltest_xml_url":0,"soiltest_view_url":0},{"id":503749,"code":"B4KJ202201000-6285","latitude":"40.238975","longitude":"140.567944","source_code":"TH20158247400200020003","project_name":"\"\u5e73\u621027\u5e74\u5ea6 \u7c73\u4ee3\u5ddd\u5916\u5ddd\u539f\u5730\u533a\u6e2c\u91cf\u8a2d\u8a08\u696d\u52d9\"","survey_name":"\"\u5e73\u621027\u5e74\u5ea6 \u7c73\u4ee3\u5ddd\u5916\u5ddd\u539f\u5730\u533a\u6e2c\u91cf\u8a2d\u8a08\u696d\u52d9\"","client_name":"\"\u56fd\u571f\u4ea4\u901a\u7701\u6771\u5317\u5730\u65b9\u6574\u5099\u5c40 \u80fd\u4ee3\u6cb3\u5ddd\u56fd\u9053\u4e8b\u52d9\u6240\"","boring_xml_url":72,"boring_view_url":1,"soilmap_view_url":null,"soiltest_xml_url":0,"soiltest_view_url":0},{"id":503748,"code":"B4KJ202201000-6284","latitude":"40.271177","longitude":"140.517093","source_code":"TH20158247400200020002","project_name":"\"\u5e73\u621027\u5e74\u5ea6 \u7c73\u4ee3\u5ddd\u5916\u5ddd\u539f\u5730\u533a\u6e2c\u91cf\u8a2d\u8a08\u696d\u52d9\"","survey_name":"\"\u5e73\u621027\u5e74\u5ea6 \u7c73\u4ee3\u5ddd\u5916\u5ddd\u539f\u5730\u533a\u6e2c\u91cf\u8a2d\u8a08\u696d\u52d9\"","client_name":"\"\u56fd\u571f\u4ea4\u901a\u7701\u6771\u5317\u5730\u65b9\u6574\u5099\u5c40 \u80fd\u4ee3\u6cb3\u5ddd\u56fd\u9053\u4e8b\u52d9\u6240\"","boring_xml_url":72,"boring_view_url":1,"soilmap_view_url":null,"soiltest_xml_url":0,"soiltest_view_url":0},{"id":503747,"code":"B4KJ202201000-6283","latitude":"40.271809","longitude":"140.511926","source_code":"TH20158247400200020001","project_name":"\"\u5e73\u621027\u5e74\u5ea6 \u7c73\u4ee3\u5ddd\u5916\u5ddd\u539f\u5730\u533a\u6e2c\u91cf\u8a2d\u8a08\u696d\u52d9\"","survey_name":"\"\u5e73\u621027\u5e74\u5ea6 \u7c73\u4ee3\u5ddd\u5916\u5ddd\u539f\u5730\u533a\u6e2c\u91cf\u8a2d\u8a08\u696d\u52d9\"","client_name":"\"\u56fd\u571f\u4ea4\u901a\u7701\u6771\u5317\u5730\u65b9\u6574\u5099\u5c40 \u80fd\u4ee3\u6cb3\u5ddd\u56fd\u9053\u4e8b\u52d9\u6240\"","boring_xml_url":72,"boring_view_url":1,"soilmap_view_url":null,"soiltest_xml_url":0,"soiltest_view_url":0},{"id":503746,"code":"B4KJ202201000-6282","latitude":"39.968907","longitude":"141.214123","source_code":"TH20148235550200030001","project_name":"\"\u9053\u306e\u99c5\u77f3\u795e\u306e\u4e18 \u5730\u8cea\u8abf\u67fb\"","survey_name":"\"\u5e73\u621026\u5e74\u5ea6 \u5ca9\u624b\u6cb3\u5ddd\u56fd\u9053\u4e8b\u52d9\u6240\u7ba1\u5185\u9053\u8def\u8a2d\u8a08\u4ed6\u696d\u52d9\"","client_name":"\"\u56fd\u571f\u4ea4\u901a\u7701\u6771\u5317\u5730\u65b9\u6574\u5099\u5c40 \u5ca9\u624b\u6cb3\u5ddd\u56fd\u9053\u4e8b\u52d9\u6240\"","boring_xml_url":72,"boring_view_url":1,"soilmap_view_url":null,"soiltest_xml_url":0,"soiltest_view_url":0},{"id":503745,"code":"B4KJ202201000-6281","latitude":"38.977131","longitude":"141.138391","source_code":"TH20148235420200050025","project_name":"\"\u5e73\u621026\u5e74\u5ea6 \u4e00\u95a2\u904a\u6c34\u5730\u5730\u8cea\u8abf\u67fb\u696d\u52d9\"","survey_name":"\"\u5e73\u621026\u5e74\u5ea6 \u4e00\u95a2\u904a\u6c34\u5730\u5730\u8cea\u8abf\u67fb\u696d\u52d9\"","client_name":"\"\u56fd\u571f\u4ea4\u901a\u7701 \u6771\u5317\u5730\u65b9\u6574\u5099\u5c40 \u5ca9\u624b\u6cb3\u5ddd\u56fd\u9053\u4e8b\u52d9\u6240\"","boring_xml_url":72,"boring_view_url":1,"soilmap_view_url":null,"soiltest_xml_url":0,"soiltest_view_url":0},{"id":503744,"code":"B4KJ202201000-6280","latitude":"38.977098","longitude":"141.138638","source_code":"TH20148235420200050024","project_name":"\"\u5e73\u621026\u5e74\u5ea6 \u4e00\u95a2\u904a\u6c34\u5730\u5730\u8cea\u8abf\u67fb\u696d\u52d9\"","survey_name":"\"\u5e73\u621026\u5e74\u5ea6 \u4e00\u95a2\u904a\u6c34\u5730\u5730\u8cea\u8abf\u67fb\u696d\u52d9\"","client_name":"\"\u56fd\u571f\u4ea4\u901a\u7701 \u6771\u5317\u5730\u65b9\u6574\u5099\u5c40 \u5ca9\u624b\u6cb3\u5ddd\u56fd\u9053\u4e8b\u52d9\u6240\"","boring_xml_url":72,"boring_view_url":1,"soilmap_view_url":null,"soiltest_xml_url":0,"soiltest_view_url":0},{"id":503743,"code":"B4KJ202201000-6279","latitude":"38.977081","longitude":"141.138813","source_code":"TH20148235420200050023","project_name":"\"\u5e73\u621026\u5e74\u5ea6 \u4e00\u95a2\u904a\u6c34\u5730\u5730\u8cea\u8abf\u67fb\u696d\u52d9\"","survey_name":"\"\u5e73\u621026\u5e74\u5ea6 \u4e00\u95a2\u904a\u6c34\u5730\u5730\u8cea\u8abf\u67fb\u696d\u52d9\"","client_name":"\"\u56fd\u571f\u4ea4\u901a\u7701 \u6771\u5317\u5730\u65b9\u6574\u5099\u5c40 \u5ca9\u624b\u6cb3\u5ddd\u56fd\u9053\u4e8b\u52d9\u6240\"","boring_xml_url":72,"boring_view_url":1,"soilmap_view_url":null,"soiltest_xml_url":0,"soiltest_view_url":0},{"id":503742,"code":"B4KJ202201000-6278","latitude":"38.977059","longitude":"141.138985","source_code":"TH20148235420200050022","project_name":"\"\u5e73\u621026\u5e74\u5ea6 \u4e00\u95a2\u904a\u6c34\u5730\u5730\u8cea\u8abf\u67fb\u696d\u52d9\"","survey_name":"\"\u5e73\u621026\u5e74\u5ea6 \u4e00\u95a2\u904a\u6c34\u5730\u5730\u8cea\u8abf\u67fb\u696d\u52d9\"","client_name":"\"\u56fd\u571f\u4ea4\u901a\u7701 \u6771\u5317\u5730\u65b9\u6574\u5099\u5c40 \u5ca9\u624b\u6cb3\u5ddd\u56fd\u9053\u4e8b\u52d9\u6240\"","boring_xml_url":72,"boring_view_url":1,"soilmap_view_url":null,"soiltest_xml_url":0,"soiltest_view_url":0},{"id":503741,"code":"B4KJ202201000-6277","latitude":"38.977043","longitude":"141.139152","source_code":"TH20148235420200050021","project_name":"\"\u5e73\u621026\u5e74\u5ea6 \u4e00\u95a2\u904a\u6c34\u5730\u5730\u8cea\u8abf\u67fb\u696d\u52d9\"","survey_name":"\"\u5e73\u621026\u5e74\u5ea6 \u4e00\u95a2\u904a\u6c34\u5730\u5730\u8cea\u8abf\u67fb\u696d\u52d9\"","client_name":"\"\u56fd\u571f\u4ea4\u901a\u7701 \u6771\u5317\u5730\u65b9\u6574\u5099\u5c40 \u5ca9\u624b\u6cb3\u5ddd\u56fd\u9053\u4e8b\u52d9\u6240\"","boring_xml_url":72,"boring_view_url":1,"soilmap_view_url":null,"soiltest_xml_url":0,"soiltest_view_url":0},{"id":503740,"code":"B4KJ202201000-6276","latitude":"38.977037","longitude":"141.139335","source_code":"TH20148235420200050020","project_name":"\"\u5e73\u621026\u5e74\u5ea6 \u4e00\u95a2\u904a\u6c34\u5730\u5730\u8cea\u8abf\u67fb\u696d\u52d9\"","survey_name":"\"\u5e73\u621026\u5e74\u5ea6 \u4e00\u95a2\u904a\u6c34\u5730\u5730\u8cea\u8abf\u67fb\u696d\u52d9\"","client_name":"\"\u56fd\u571f\u4ea4\u901a\u7701 \u6771\u5317\u5730\u65b9\u6574\u5099\u5c40 \u5ca9\u624b\u6cb3\u5ddd\u56fd\u9053\u4e8b\u52d9\u6240\"","boring_xml_url":72,"boring_view_url":1,"soilmap_view_url":null,"soiltest_xml_url":0,"soiltest_view_url":0},{"id":503739,"code":"B4KJ202201000-6275","latitude":"38.977023","longitude":"141.139505","source_code":"TH20148235420200050019","project_name":"\"\u5e73\u621026\u5e74\u5ea6 \u4e00\u95a2\u904a\u6c34\u5730\u5730\u8cea\u8abf\u67fb\u696d\u52d9\"","survey_name":"\"\u5e73\u621026\u5e74\u5ea6 \u4e00\u95a2\u904a\u6c34\u5730\u5730\u8cea\u8abf\u67fb\u696d\u52d9\"","client_name":"\"\u56fd\u571f\u4ea4\u901a\u7701 \u6771\u5317\u5730\u65b9\u6574\u5099\u5c40 \u5ca9\u624b\u6cb3\u5ddd\u56fd\u9053\u4e8b\u52d9\u6240\"","boring_xml_url":72,"boring_view_url":1,"soilmap_view_url":null,"soiltest_xml_url":0,"soiltest_view_url":0},{"id":503738,"code":"B4KJ202201000-6274","latitude":"38.977023","longitude":"141.139674","source_code":"TH20148235420200050018","project_name":"\"\u5e73\u621026\u5e74\u5ea6 \u4e00\u95a2\u904a\u6c34\u5730\u5730\u8cea\u8abf\u67fb\u696d\u52d9\"","survey_name":"\"\u5e73\u621026\u5e74\u5ea6 \u4e00\u95a2\u904a\u6c34\u5730\u5730\u8cea\u8abf\u67fb\u696d\u52d9\"","client_name":"\"\u56fd\u571f\u4ea4\u901a\u7701 \u6771\u5317\u5730\u65b9\u6574\u5099\u5c40 \u5ca9\u624b\u6cb3\u5ddd\u56fd\u9053\u4e8b\u52d9\u6240\"","boring_xml_url":72,"boring_view_url":1,"soilmap_view_url":null,"soiltest_xml_url":0,"soiltest_view_url":0},{"id":503737,"code":"B4KJ202201000-6273","latitude":"38.977006","longitude":"141.139844","source_code":"TH20148235420200050017","project_name":"\"\u5e73\u621026\u5e74\u5ea6 \u4e00\u95a2\u904a\u6c34\u5730\u5730\u8cea\u8abf\u67fb\u696d\u52d9\"","survey_name":"\"\u5e73\u621026\u5e74\u5ea6 \u4e00\u95a2\u904a\u6c34\u5730\u5730\u8cea\u8abf\u67fb\u696d\u52d9\"","client_name":"\"\u56fd\u571f\u4ea4\u901a\u7701 \u6771\u5317\u5730\u65b9\u6574\u5099\u5c40 \u5ca9\u624b\u6cb3\u5ddd\u56fd\u9053\u4e8b\u52d9\u6240\"","boring_xml_url":72,"boring_view_url":1,"soilmap_view_url":null,"soiltest_xml_url":0,"soiltest_view_url":0},{"id":503736,"code":"B4KJ202201000-6272","latitude":"38.977006","longitude":"141.140069","source_code":"TH20148235420200050016","project_name":"\"\u5e73\u621026\u5e74\u5ea6 \u4e00\u95a2\u904a\u6c34\u5730\u5730\u8cea\u8abf\u67fb\u696d\u52d9\"","survey_name":"\"\u5e73\u621026\u5e74\u5ea6 \u4e00\u95a2\u904a\u6c34\u5730\u5730\u8cea\u8abf\u67fb\u696d\u52d9\"","client_name":"\"\u56fd\u571f\u4ea4\u901a\u7701 \u6771\u5317\u5730\u65b9\u6574\u5099\u5c40 \u5ca9\u624b\u6cb3\u5ddd\u56fd\u9053\u4e8b\u52d9\u6240\"","boring_xml_url":72,"boring_view_url":1,"soilmap_view_url":null,"soiltest_xml_url":0,"soiltest_view_url":0},{"id":503735,"code":"B4KJ202201000-6271","latitude":"38.977137","longitude":"141.138441","source_code":"TH20148235420200050015","project_name":"\"\u5e73\u621026\u5e74\u5ea6 \u4e00\u95a2\u904a\u6c34\u5730\u5730\u8cea\u8abf\u67fb\u696d\u52d9\"","survey_name":"\"\u5e73\u621026\u5e74\u5ea6 \u4e00\u95a2\u904a\u6c34\u5730\u5730\u8cea\u8abf\u67fb\u696d\u52d9\"","client_name":"\"\u56fd\u571f\u4ea4\u901a\u7701 \u6771\u5317\u5730\u65b9\u6574\u5099\u5c40 \u5ca9\u624b\u6cb3\u5ddd\u56fd\u9053\u4e8b\u52d9\u6240\"","boring_xml_url":72,"boring_view_url":1,"soilmap_view_url":null,"soiltest_xml_url":0,"soiltest_view_url":0},{"id":503734,"code":"B4KJ202201000-6270","latitude":"38.97707","longitude":"141.139891","source_code":"TH20148235420200050014","project_name":"\"\u5e73\u621026\u5e74\u5ea6 \u4e00\u95a2\u904a\u6c34\u5730\u5730\u8cea\u8abf\u67fb\u696d\u52d9\"","survey_name":"\"\u5e73\u621026\u5e74\u5ea6 \u4e00\u95a2\u904a\u6c34\u5730\u5730\u8cea\u8abf\u67fb\u696d\u52d9\"","client_name":"\"\u56fd\u571f\u4ea4\u901a\u7701 \u6771\u5317\u5730\u65b9\u6574\u5099\u5c40 \u5ca9\u624b\u6cb3\u5ddd\u56fd\u9053\u4e8b\u52d9\u6240\"","boring_xml_url":72,"boring_view_url":1,"soilmap_view_url":null,"soiltest_xml_url":0,"soiltest_view_url":0},{"id":503733,"code":"B4KJ202201000-6269","latitude":"38.942737","longitude":"141.144242","source_code":"TH20148235420200050013","project_name":"\u5e73\u621026\u5e74\u5ea6\u4e00\u95a2\u904a\u6c34\u5730\u5730\u8cea\u8abf\u67fb\u696d\u52d9","survey_name":"\u5e73\u621026\u5e74\u5ea6\u4e00\u95a2\u904a\u6c34\u5730\u5730\u8cea\u8abf\u67fb\u696d\u52d9","client_name":"\"\u56fd\u571f\u4ea4\u901a\u7701 \u6771\u5317\u5730\u65b9\u6574\u5099\u5c40 \u5ca9\u624b\u6cb3\u5ddd\u56fd\u9053\u4e8b\u52d9\u6240\"","boring_xml_url":72,"boring_view_url":1,"soilmap_view_url":null,"soiltest_xml_url":0,"soiltest_view_url":0},{"id":503732,"code":"B4KJ202201000-6268","latitude":"38.942831","longitude":"141.144237","source_code":"TH20148235420200050012","project_name":"","survey_name":"\u5e73\u621026\u5e74\u5ea6\u4e00\u95a2\u904a\u6c34\u5730\u5730\u8cea\u8abf\u67fb\u696d\u52d9","client_name":"\"\u56fd\u571f\u4ea4\u901a\u7701 \u6771\u5317\u5730\u65b9\u6574\u5099\u5c40 \u5ca9\u624b\u6cb3\u5ddd\u56fd\u9053\u4e8b\u52d9\u6240\"","boring_xml_url":72,"boring_view_url":1,"soilmap_view_url":null,"soiltest_xml_url":0,"soiltest_view_url":0},{"id":503731,"code":"B4KJ202201000-6267","latitude":"38.942809","longitude":"141.144662","source_code":"TH20148235420200050011","project_name":"\u5e73\u621026\u5e74\u5ea6\u4e00\u95a2\u904a\u6c34\u5730\u5730\u8cea\u8abf\u67fb\u696d\u52d9","survey_name":"\u5e73\u621026\u5e74\u5ea6\u4e00\u95a2\u904a\u6c34\u5730\u5730\u8cea\u8abf\u67fb\u696d\u52d9","client_name":"\"\u56fd\u571f\u4ea4\u901a\u7701 \u6771\u5317\u5730\u65b9\u6574\u5099\u5c40 \u5ca9\u624b\u6cb3\u5ddd\u56fd\u9053\u4e8b\u52d9\u6240\"","boring_xml_url":72,"boring_view_url":1,"soilmap_view_url":null,"soiltest_xml_url":0,"soiltest_view_url":0},{"id":503730,"code":"B4KJ202201000-6266","latitude":"38.942887","longitude":"141.14465","source_code":"TH20148235420200050010","project_name":"\u5e73\u621026\u5e74\u5ea6\u4e00\u95a2\u904a\u6c34\u5730\u5730\u8cea\u8abf\u67fb\u696d\u52d9","survey_name":"\u5e73\u621026\u5e74\u5ea6\u4e00\u95a2\u904a\u6c34\u5730\u5730\u8cea\u8abf\u67fb\u696d\u52d9","client_name":"\"\u56fd\u571f\u4ea4\u901a\u7701 \u6771\u5317\u5730\u65b9\u6574\u5099\u5c40 \u5ca9\u624b\u6cb3\u5ddd\u56fd\u9053\u4e8b\u52d9\u6240\"","boring_xml_url":72,"boring_view_url":1,"soilmap_view_url":null,"soiltest_xml_url":0,"soiltest_view_url":0},{"id":503729,"code":"B4KJ202201000-6265","latitude":"38.986437","longitude":"141.140665","source_code":"TH20148235420200050009","project_name":"\"\u5e73\u621026\u5e74\u5ea6 \u4e00\u95a2\u904a\u6c34\u5730\u5730\u8cea\u8abf\u67fb\u696d\u52d9\"","survey_name":"\"\u5e73\u621026\u5e74\u5ea6 \u4e00\u95a2\u904a\u6c34\u5730\u5730\u8cea\u8abf\u67fb\u696d\u52d9\"","client_name":"\"\u56fd\u571f\u4ea4\u901a\u7701 \u6771\u5317\u5730\u65b9\u6574\u5099\u5c40 \u5ca9\u624b\u6cb3\u5ddd\u56fd\u9053\u4e8b\u52d9\u6240\"","boring_xml_url":72,"boring_view_url":1,"soilmap_view_url":null,"soiltest_xml_url":0,"soiltest_view_url":0},{"id":503728,"code":"B4KJ202201000-6264","latitude":"38.986857","longitude":"141.140524","source_code":"TH20148235420200050008","project_name":"\"\u5e73\u621026\u5e74\u5ea6 \u4e00\u95a2\u904a\u6c34\u5730\u5730\u8cea\u8abf\u67fb\u696d\u52d9\"","survey_name":"\"\u5e73\u621026\u5e74\u5ea6 \u4e00\u95a2\u904a\u6c34\u5730\u5730\u8cea\u8abf\u67fb\u696d\u52d9\"","client_name":"\"\u56fd\u571f\u4ea4\u901a\u7701 \u6771\u5317\u5730\u65b9\u6574\u5099\u5c40 \u5ca9\u624b\u6cb3\u5ddd\u56fd\u9053\u4e8b\u52d9\u6240\"","boring_xml_url":72,"boring_view_url":1,"soilmap_view_url":null,"soiltest_xml_url":0,"soiltest_view_url":0},{"id":503727,"code":"B4KJ202201000-6263","latitude":"38.957236","longitude":"141.172484","source_code":"TH20148235420200050007","project_name":"\"\u5e73\u621026\u5e74\u5ea6 \u4e00\u95a2\u904a\u6c34\u5730\u5730\u8cea\u8abf\u67fb\u696d\u52d9\"","survey_name":"\"\u5e73\u621026\u5e74\u5ea6 \u4e00\u95a2\u904a\u6c34\u5730\u5730\u8cea\u8abf\u67fb\u696d\u52d9\"","client_name":"\"\u56fd\u571f\u4ea4\u901a\u7701 \u6771\u5317\u5730\u65b9\u6574\u5099\u5c40 \u5ca9\u624b\u6cb3\u5ddd\u56fd\u9053\u4e8b\u52d9\u6240\"","boring_xml_url":72,"boring_view_url":1,"soilmap_view_url":null,"soiltest_xml_url":0,"soiltest_view_url":0},{"id":503726,"code":"B4KJ202201000-6262","latitude":"38.958495","longitude":"141.17144","source_code":"TH20148235420200050006","project_name":"\"\u5e73\u621026\u5e74\u5ea6 \u4e00\u95a2\u904a\u6c34\u5730\u5730\u8cea\u8abf\u67fb\u696d\u52d9\"","survey_name":"\"\u5e73\u621026\u5e74\u5ea6 \u4e00\u95a2\u904a\u6c34\u5730\u5730\u8cea\u8abf\u67fb\u696d\u52d9\"","client_name":"\"\u56fd\u571f\u4ea4\u901a\u7701 \u6771\u5317\u5730\u65b9\u6574\u5099\u5c40 \u5ca9\u624b\u6cb3\u5ddd\u56fd\u9053\u4e8b\u52d9\u6240\"","boring_xml_url":72,"boring_view_url":1,"soilmap_view_url":null,"soiltest_xml_url":0,"soiltest_view_url":0},{"id":503725,"code":"B4KJ202201000-6261","latitude":"38.956745","longitude":"141.154348","source_code":"TH20148235420200050005","project_name":"\"\u5e73\u621026\u5e74\u5ea6 \u4e00\u95a2\u904a\u6c34\u5730\u5730\u8cea\u8abf\u67fb\u696d\u52d9\"","survey_name":"\"\u5e73\u621026\u5e74\u5ea6 \u4e00\u95a2\u904a\u6c34\u5730\u5730\u8cea\u8abf\u67fb\u696d\u52d9\"","client_name":"\"\u56fd\u571f\u4ea4\u901a\u7701 \u6771\u5317\u5730\u65b9\u6574\u5099\u5c40 \u5ca9\u624b\u6cb3\u5ddd\u56fd\u9053\u4e8b\u52d9\u6240\"","boring_xml_url":72,"boring_view_url":1,"soilmap_view_url":null,"soiltest_xml_url":0,"soiltest_view_url":0},{"id":503724,"code":"B4KJ202201000-6260","latitude":"38.982059","longitude":"141.110721","source_code":"TH20148235420200050004","project_name":"\"\u5e73\u621026\u5e74\u5ea6 \u4e00\u95a2\u904a\u6c34\u5730\u5730\u8cea\u8abf\u67fb\u696d\u52d9\"","survey_name":"\"\u5e73\u621026\u5e74\u5ea6 \u4e00\u95a2\u904a\u6c34\u5730\u5730\u8cea\u8abf\u67fb\u696d\u52d9\"","client_name":"\"\u56fd\u571f\u4ea4\u901a\u7701 \u6771\u5317\u5730\u65b9\u6574\u5099\u5c40 \u5ca9\u624b\u6cb3\u5ddd\u56fd\u9053\u4e8b\u52d9\u6240\"","boring_xml_url":72,"boring_view_url":1,"soilmap_view_url":null,"soiltest_xml_url":0,"soiltest_view_url":0},{"id":503723,"code":"B4KJ202201000-6259","latitude":"38.952317","longitude":"141.172312","source_code":"TH20148235420200050003","project_name":"\"\u5e73\u621026\u5e74\u5ea6 \u4e00\u95a2\u904a\u6c34\u5730\u5730\u8cea\u8abf\u67fb\u696d\u52d9\"","survey_name":"\"\u5e73\u621026\u5e74\u5ea6 \u4e00\u95a2\u904a\u6c34\u5730\u5730\u8cea\u8abf\u67fb\u696d\u52d9\"","client_name":"\"\u56fd\u571f\u4ea4\u901a\u7701 \u6771\u5317\u5730\u65b9\u6574\u5099\u5c40 \u5ca9\u624b\u6cb3\u5ddd\u56fd\u9053\u4e8b\u52d9\u6240\"","boring_xml_url":72,"boring_view_url":1,"soilmap_view_url":null,"soiltest_xml_url":0,"soiltest_view_url":0},{"id":503722,"code":"B4KJ202201000-6258","latitude":"38.979634","longitude":"141.148574","source_code":"TH20148235420200050002","project_name":"\"\u5e73\u621026\u5e74\u5ea6 \u4e00\u95a2\u904a\u6c34\u5730\u5730\u8cea\u8abf\u67fb\u696d\u52d9\"","survey_name":"\"\u5e73\u621026\u5e74\u5ea6 \u4e00\u95a2\u904a\u6c34\u5730\u5730\u8cea\u8abf\u67fb\u696d\u52d9\"","client_name":"\"\u56fd\u571f\u4ea4\u901a\u7701 \u6771\u5317\u5730\u65b9\u6574\u5099\u5c40 \u5ca9\u624b\u6cb3\u5ddd\u56fd\u9053\u4e8b\u52d9\u6240\"","boring_xml_url":72,"boring_view_url":1,"soilmap_view_url":null,"soiltest_xml_url":0,"soiltest_view_url":0},{"id":503721,"code":"B4KJ202201000-6257","latitude":"38.948234","longitude":"141.16087","source_code":"TH20148235420200050001","project_name":"\"\u5e73\u621026\u5e74\u5ea6 \u4e00\u95a2\u904a\u6c34\u5730\u5730\u8cea\u8abf\u67fb\u696d\u52d9\"","survey_name":"\"\u5e73\u621026\u5e74\u5ea6 \u4e00\u95a2\u904a\u6c34\u5730\u5730\u8cea\u8abf\u67fb\u696d\u52d9\"","client_name":"\"\u56fd\u571f\u4ea4\u901a\u7701 \u6771\u5317\u5730\u65b9\u6574\u5099\u5c40 \u5ca9\u624b\u6cb3\u5ddd\u56fd\u9053\u4e8b\u52d9\u6240\"","boring_xml_url":72,"boring_view_url":1,"soilmap_view_url":null,"soiltest_xml_url":0,"soiltest_view_url":0}]}}