{"header":{"xyz":{"source":[],"mosaic":false},"page":139,"raw":{"soiltest_result":"0","bbox":"57.598333,109.544722,1.933333,163.806111","page":"139"},"conditions":{"soiltest_result":0,"north":57.598333,"west":109.544722,"south":1.933333,"east":163.806111},"success":true,"message":""},"data":{"meta":{"total":212844,"page":139,"pages":7095,"count":30},"values":[{"id":646754,"code":"NGIC202302394-0015","latitude":"42.412855555556","longitude":"139.89181111111","source_code":"","project_name":"\u4eca\u91d1\u6cb3\u5ddd\u4e8b\u52d9\u6240\u7ba1\u5185\u5730\u8cea\u8abf\u67fb","survey_name":"\u4eca\u91d1\u6cb3\u5ddd\u4e8b\u52d9\u6240\u7ba1\u5185\u5730\u8cea\u8abf\u67fb\u696d\u52d9","client_name":"\u56fd\u571f\u4ea4\u901a\u7701\u5317\u6d77\u9053\u958b\u767a\u5c40\u51fd\u9928\u958b\u767a\u5efa\u8a2d\u90e8\u672c\u90e8","boring_xml_url":47,"boring_view_url":1,"soilmap_view_url":null,"soiltest_xml_url":47,"soiltest_view_url":47},{"id":646753,"code":"NGIC202302394-0014","latitude":"42.409375","longitude":"139.88980833333","source_code":"","project_name":"\u4eca\u91d1\u6cb3\u5ddd\u4e8b\u52d9\u6240\u7ba1\u5185\u5730\u8cea\u8abf\u67fb","survey_name":"\u4eca\u91d1\u6cb3\u5ddd\u4e8b\u52d9\u6240\u7ba1\u5185\u5730\u8cea\u8abf\u67fb\u696d\u52d9","client_name":"\u56fd\u571f\u4ea4\u901a\u7701\u5317\u6d77\u9053\u958b\u767a\u5c40\u51fd\u9928\u958b\u767a\u5efa\u8a2d\u90e8\u672c\u90e8","boring_xml_url":47,"boring_view_url":1,"soilmap_view_url":null,"soiltest_xml_url":47,"soiltest_view_url":47},{"id":646752,"code":"NGIC202302394-0013","latitude":"42.409644444444","longitude":"139.8874","source_code":"","project_name":"\u4eca\u91d1\u6cb3\u5ddd\u4e8b\u52d9\u6240\u7ba1\u5185\u5730\u8cea\u8abf\u67fb","survey_name":"\u4eca\u91d1\u6cb3\u5ddd\u4e8b\u52d9\u6240\u7ba1\u5185\u5730\u8cea\u8abf\u67fb\u696d\u52d9","client_name":"\u56fd\u571f\u4ea4\u901a\u7701\u5317\u6d77\u9053\u958b\u767a\u5c40\u51fd\u9928\u958b\u767a\u5efa\u8a2d\u90e8\u672c\u90e8","boring_xml_url":47,"boring_view_url":1,"soilmap_view_url":null,"soiltest_xml_url":47,"soiltest_view_url":47},{"id":646751,"code":"NGIC202302394-0012","latitude":"42.406769444444","longitude":"139.89989166667","source_code":"","project_name":"\u4eca\u91d1\u6cb3\u5ddd\u4e8b\u52d9\u6240\u7ba1\u5185\u5730\u8cea\u8abf\u67fb","survey_name":"\u4eca\u91d1\u6cb3\u5ddd\u4e8b\u52d9\u6240\u7ba1\u5185\u5730\u8cea\u8abf\u67fb\u696d\u52d9","client_name":"\u56fd\u571f\u4ea4\u901a\u7701\u5317\u6d77\u9053\u958b\u767a\u5c40\u51fd\u9928\u958b\u767a\u5efa\u8a2d\u90e8\u672c\u90e8","boring_xml_url":47,"boring_view_url":1,"soilmap_view_url":null,"soiltest_xml_url":47,"soiltest_view_url":47},{"id":646750,"code":"NGIC202302394-0011","latitude":"42.408127777778","longitude":"139.88273333333","source_code":"","project_name":"\u4eca\u91d1\u6cb3\u5ddd\u4e8b\u52d9\u6240\u7ba1\u5185\u5730\u8cea\u8abf\u67fb","survey_name":"\u4eca\u91d1\u6cb3\u5ddd\u4e8b\u52d9\u6240\u7ba1\u5185\u5730\u8cea\u8abf\u67fb\u696d\u52d9","client_name":"\u56fd\u571f\u4ea4\u901a\u7701\u5317\u6d77\u9053\u958b\u767a\u5c40\u51fd\u9928\u958b\u767a\u5efa\u8a2d\u90e8\u672c\u90e8","boring_xml_url":47,"boring_view_url":1,"soilmap_view_url":null,"soiltest_xml_url":47,"soiltest_view_url":47},{"id":646749,"code":"NGIC202302394-0010","latitude":"42.406605555556","longitude":"139.87575277778","source_code":"","project_name":"\u4eca\u91d1\u6cb3\u5ddd\u4e8b\u52d9\u6240\u7ba1\u5185\u5730\u8cea\u8abf\u67fb","survey_name":"\u4eca\u91d1\u6cb3\u5ddd\u4e8b\u52d9\u6240\u7ba1\u5185\u5730\u8cea\u8abf\u67fb\u696d\u52d9","client_name":"\u56fd\u571f\u4ea4\u901a\u7701\u5317\u6d77\u9053\u958b\u767a\u5c40\u51fd\u9928\u958b\u767a\u5efa\u8a2d\u90e8\u672c\u90e8","boring_xml_url":47,"boring_view_url":1,"soilmap_view_url":null,"soiltest_xml_url":47,"soiltest_view_url":47},{"id":646748,"code":"NGIC202302394-0009","latitude":"42.407688888889","longitude":"139.87610277778","source_code":"","project_name":"\u4eca\u91d1\u6cb3\u5ddd\u4e8b\u52d9\u6240\u7ba1\u5185\u5730\u8cea\u8abf\u67fb","survey_name":"\u4eca\u91d1\u6cb3\u5ddd\u4e8b\u52d9\u6240\u7ba1\u5185\u5730\u8cea\u8abf\u67fb\u696d\u52d9","client_name":"\u56fd\u571f\u4ea4\u901a\u7701\u5317\u6d77\u9053\u958b\u767a\u5c40\u51fd\u9928\u958b\u767a\u5efa\u8a2d\u90e8\u672c\u90e8","boring_xml_url":47,"boring_view_url":1,"soilmap_view_url":null,"soiltest_xml_url":47,"soiltest_view_url":47},{"id":646747,"code":"NGIC202302394-0008","latitude":"42.408791666667","longitude":"139.87168333333","source_code":"","project_name":"\u4eca\u91d1\u6cb3\u5ddd\u4e8b\u52d9\u6240\u7ba1\u5185\u5730\u8cea\u8abf\u67fb","survey_name":"\u4eca\u91d1\u6cb3\u5ddd\u4e8b\u52d9\u6240\u7ba1\u5185\u5730\u8cea\u8abf\u67fb\u696d\u52d9","client_name":"\u56fd\u571f\u4ea4\u901a\u7701\u5317\u6d77\u9053\u958b\u767a\u5c40\u51fd\u9928\u958b\u767a\u5efa\u8a2d\u90e8\u672c\u90e8","boring_xml_url":47,"boring_view_url":1,"soilmap_view_url":null,"soiltest_xml_url":47,"soiltest_view_url":47},{"id":646746,"code":"NGIC202302394-0007","latitude":"42.408808333333","longitude":"139.86876944444","source_code":"","project_name":"\u4eca\u91d1\u6cb3\u5ddd\u4e8b\u52d9\u6240\u7ba1\u5185\u5730\u8cea\u8abf\u67fb","survey_name":"\u4eca\u91d1\u6cb3\u5ddd\u4e8b\u52d9\u6240\u7ba1\u5185\u5730\u8cea\u8abf\u67fb\u696d\u52d9","client_name":"\u56fd\u571f\u4ea4\u901a\u7701\u5317\u6d77\u9053\u958b\u767a\u5c40\u51fd\u9928\u958b\u767a\u5efa\u8a2d\u90e8\u672c\u90e8","boring_xml_url":47,"boring_view_url":1,"soilmap_view_url":null,"soiltest_xml_url":47,"soiltest_view_url":47},{"id":646745,"code":"NGIC202302394-0006","latitude":"42.411711111111","longitude":"139.86571111111","source_code":"","project_name":"\u4eca\u91d1\u6cb3\u5ddd\u4e8b\u52d9\u6240\u7ba1\u5185\u5730\u8cea\u8abf\u67fb","survey_name":"\u4eca\u91d1\u6cb3\u5ddd\u4e8b\u52d9\u6240\u7ba1\u5185\u5730\u8cea\u8abf\u67fb\u696d\u52d9","client_name":"\u56fd\u571f\u4ea4\u901a\u7701\u5317\u6d77\u9053\u958b\u767a\u5c40\u51fd\u9928\u958b\u767a\u5efa\u8a2d\u90e8\u672c\u90e8","boring_xml_url":47,"boring_view_url":1,"soilmap_view_url":null,"soiltest_xml_url":47,"soiltest_view_url":47},{"id":646744,"code":"NGIC202302394-0005","latitude":"42.417294444444","longitude":"139.85894444444","source_code":"","project_name":"\u4eca\u91d1\u6cb3\u5ddd\u4e8b\u52d9\u6240\u7ba1\u5185\u5730\u8cea\u8abf\u67fb","survey_name":"\u4eca\u91d1\u6cb3\u5ddd\u4e8b\u52d9\u6240\u7ba1\u5185\u5730\u8cea\u8abf\u67fb\u696d\u52d9","client_name":"\u56fd\u571f\u4ea4\u901a\u7701\u5317\u6d77\u9053\u958b\u767a\u5c40\u51fd\u9928\u958b\u767a\u5efa\u8a2d\u90e8\u672c\u90e8","boring_xml_url":47,"boring_view_url":1,"soilmap_view_url":null,"soiltest_xml_url":0,"soiltest_view_url":0},{"id":646743,"code":"NGIC202302394-0004","latitude":"42.389061111111","longitude":"140.10003888889","source_code":"","project_name":"\u4eca\u91d1\u6cb3\u5ddd\u4e8b\u52d9\u6240\u7ba1\u5185\u5730\u8cea\u8abf\u67fb","survey_name":"\u4eca\u91d1\u6cb3\u5ddd\u4e8b\u52d9\u6240\u7ba1\u5185\u5730\u8cea\u8abf\u67fb\u696d\u52d9","client_name":"\u56fd\u571f\u4ea4\u901a\u7701\u5317\u6d77\u9053\u958b\u767a\u5c40\u51fd\u9928\u958b\u767a\u5efa\u8a2d\u90e8\u672c\u90e8","boring_xml_url":47,"boring_view_url":1,"soilmap_view_url":null,"soiltest_xml_url":47,"soiltest_view_url":47},{"id":646742,"code":"NGIC202302394-0003","latitude":"42.392897222222","longitude":"140.102975","source_code":"","project_name":"\u4eca\u91d1\u6cb3\u5ddd\u4e8b\u52d9\u6240\u7ba1\u5185\u5730\u8cea\u8abf\u67fb","survey_name":"\u4eca\u91d1\u6cb3\u5ddd\u4e8b\u52d9\u6240\u7ba1\u5185\u5730\u8cea\u8abf\u67fb\u696d\u52d9","client_name":"\u56fd\u571f\u4ea4\u901a\u7701\u5317\u6d77\u9053\u958b\u767a\u5c40\u51fd\u9928\u958b\u767a\u5efa\u8a2d\u90e8\u672c\u90e8","boring_xml_url":47,"boring_view_url":1,"soilmap_view_url":null,"soiltest_xml_url":47,"soiltest_view_url":47},{"id":646741,"code":"NGIC202302394-0001","latitude":"42.415416666667","longitude":"139.97020555556","source_code":"","project_name":"\u4eca\u91d1\u6cb3\u5ddd\u4e8b\u52d9\u6240\u7ba1\u5185\u5730\u8cea\u8abf\u67fb","survey_name":"\u4eca\u91d1\u6cb3\u5ddd\u4e8b\u52d9\u6240\u7ba1\u5185\u5730\u8cea\u8abf\u67fb\u696d\u52d9","client_name":"\u56fd\u571f\u4ea4\u901a\u7701\u5317\u6d77\u9053\u958b\u767a\u5c40\u51fd\u9928\u958b\u767a\u5efa\u8a2d\u90e8\u672c\u90e8","boring_xml_url":47,"boring_view_url":1,"soilmap_view_url":null,"soiltest_xml_url":47,"soiltest_view_url":47},{"id":646708,"code":"NGIC202302427-0002","latitude":"36.159326111111","longitude":"139.68042833333","source_code":"","project_name":"","survey_name":"R4\u9996\u90fd\u570f\u6c3e\u6feb\u533a\u57df\u5824\u9632\u5f37\u5316\u5bfe\u7b56\u691c\u8a0e\u696d\u52d9","client_name":"\u56fd\u571f\u4ea4\u901a\u7701\u95a2\u6771\u5730\u65b9\u6574\u5099\u5c40\u5229\u6839\u5ddd\u4e0a\u6d41\u6cb3\u5ddd\u4e8b\u52d9\u6240","boring_xml_url":47,"boring_view_url":1,"soilmap_view_url":null,"soiltest_xml_url":47,"soiltest_view_url":47},{"id":646707,"code":"NGIC202302427-0001","latitude":"36.159122777778","longitude":"139.68032777778","source_code":"","project_name":"","survey_name":"R4\u9996\u90fd\u570f\u6c3e\u6feb\u533a\u57df\u5824\u9632\u5f37\u5316\u5bfe\u7b56\u691c\u8a0e\u696d\u52d9","client_name":"\u56fd\u571f\u4ea4\u901a\u7701\u95a2\u6771\u5730\u65b9\u6574\u5099\u5c40\u5229\u6839\u5ddd\u4e0a\u6d41\u6cb3\u5ddd\u4e8b\u52d9\u6240","boring_xml_url":47,"boring_view_url":1,"soilmap_view_url":null,"soiltest_xml_url":47,"soiltest_view_url":47},{"id":646700,"code":"NGIC202302438-0022","latitude":"33.515724","longitude":"134.17070769444","source_code":"","project_name":"","survey_name":"\u4ee4\u548c4-5\u5e74\u5ea6\u963f\u5357\u5b89\u82b8\u81ea\u52d5\u8eca\u9053\uff08\u571f\u4f50\u7ba1\u5185\uff09\u5730\u8cea\u8abf\u67fb\u696d\u52d9","client_name":"\u56fd\u571f\u4ea4\u901a\u7701\u56db\u56fd\u5730\u65b9\u6574\u5099\u5c40\u571f\u4f50\u56fd\u9053\u4e8b\u52d9\u6240","boring_xml_url":47,"boring_view_url":1,"soilmap_view_url":null,"soiltest_xml_url":47,"soiltest_view_url":47},{"id":646699,"code":"NGIC202302438-0021","latitude":"33.515875916667","longitude":"134.17302408333","source_code":"","project_name":"","survey_name":"\u4ee4\u548c4-5\u5e74\u5ea6\u963f\u5357\u5b89\u82b8\u81ea\u52d5\u8eca\u9053\uff08\u571f\u4f50\u7ba1\u5185\uff09\u5730\u8cea\u8abf\u67fb\u696d\u52d9","client_name":"\u56fd\u571f\u4ea4\u901a\u7701\u56db\u56fd\u5730\u65b9\u6574\u5099\u5c40\u571f\u4f50\u56fd\u9053\u4e8b\u52d9\u6240","boring_xml_url":47,"boring_view_url":1,"soilmap_view_url":null,"soiltest_xml_url":47,"soiltest_view_url":47},{"id":646698,"code":"NGIC202302438-0020","latitude":"33.515377527778","longitude":"134.17535863889","source_code":"","project_name":"","survey_name":"\u4ee4\u548c4-5\u5e74\u5ea6\u963f\u5357\u5b89\u82b8\u81ea\u52d5\u8eca\u9053\uff08\u571f\u4f50\u7ba1\u5185\uff09\u5730\u8cea\u8abf\u67fb\u696d\u52d9","client_name":"\u56fd\u571f\u4ea4\u901a\u7701\u56db\u56fd\u5730\u65b9\u6574\u5099\u5c40\u571f\u4f50\u56fd\u9053\u4e8b\u52d9\u6240","boring_xml_url":47,"boring_view_url":1,"soilmap_view_url":null,"soiltest_xml_url":47,"soiltest_view_url":47},{"id":646697,"code":"NGIC202302438-0019","latitude":"33.448312694444","longitude":"133.96664977778","source_code":"","project_name":"","survey_name":"\u4ee4\u548c4-5\u5e74\u5ea6\u963f\u5357\u5b89\u82b8\u81ea\u52d5\u8eca\u9053\uff08\u571f\u4f50\u7ba1\u5185\uff09\u5730\u8cea\u8abf\u67fb\u696d\u52d9","client_name":"\u56fd\u571f\u4ea4\u901a\u7701\u56db\u56fd\u5730\u65b9\u6574\u5099\u5c40\u571f\u4f50\u56fd\u9053\u4e8b\u52d9\u6240","boring_xml_url":47,"boring_view_url":1,"soilmap_view_url":null,"soiltest_xml_url":47,"soiltest_view_url":47},{"id":646696,"code":"NGIC202302438-0018","latitude":"33.444100833333","longitude":"133.9884505","source_code":"","project_name":"","survey_name":"\u4ee4\u548c4-5\u5e74\u5ea6\u963f\u5357\u5b89\u82b8\u81ea\u52d5\u8eca\u9053\uff08\u571f\u4f50\u7ba1\u5185\uff09\u5730\u8cea\u8abf\u67fb\u696d\u52d9","client_name":"\u56fd\u571f\u4ea4\u901a\u7701\u56db\u56fd\u5730\u65b9\u6574\u5099\u5c40\u571f\u4f50\u56fd\u9053\u4e8b\u52d9\u6240","boring_xml_url":47,"boring_view_url":1,"soilmap_view_url":null,"soiltest_xml_url":47,"soiltest_view_url":47},{"id":646695,"code":"NGIC202302438-0017","latitude":"33.490637944444","longitude":"133.93886838889","source_code":"","project_name":"","survey_name":"\u4ee4\u548c4-5\u5e74\u5ea6\u963f\u5357\u5b89\u82b8\u81ea\u52d5\u8eca\u9053\uff08\u571f\u4f50\u7ba1\u5185\uff09\u5730\u8cea\u8abf\u67fb\u696d\u52d9","client_name":"\u56fd\u571f\u4ea4\u901a\u7701\u56db\u56fd\u5730\u65b9\u6574\u5099\u5c40\u571f\u4f50\u56fd\u9053\u4e8b\u52d9\u6240","boring_xml_url":47,"boring_view_url":1,"soilmap_view_url":null,"soiltest_xml_url":0,"soiltest_view_url":0},{"id":646694,"code":"NGIC202302438-0016","latitude":"33.49045075","longitude":"133.9384755","source_code":"","project_name":"","survey_name":"\u4ee4\u548c4-5\u5e74\u5ea6\u963f\u5357\u5b89\u82b8\u81ea\u52d5\u8eca\u9053\uff08\u571f\u4f50\u7ba1\u5185\uff09\u5730\u8cea\u8abf\u67fb\u696d\u52d9","client_name":"\u56fd\u571f\u4ea4\u901a\u7701\u56db\u56fd\u5730\u65b9\u6574\u5099\u5c40\u571f\u4f50\u56fd\u9053\u4e8b\u52d9\u6240","boring_xml_url":47,"boring_view_url":1,"soilmap_view_url":null,"soiltest_xml_url":0,"soiltest_view_url":0},{"id":646693,"code":"NGIC202302438-0015","latitude":"33.489969583333","longitude":"133.93877022222","source_code":"","project_name":"","survey_name":"\u4ee4\u548c4-5\u5e74\u5ea6\u963f\u5357\u5b89\u82b8\u81ea\u52d5\u8eca\u9053\uff08\u571f\u4f50\u7ba1\u5185\uff09\u5730\u8cea\u8abf\u67fb\u696d\u52d9","client_name":"\u56fd\u571f\u4ea4\u901a\u7701\u56db\u56fd\u5730\u65b9\u6574\u5099\u5c40\u571f\u4f50\u56fd\u9053\u4e8b\u52d9\u6240","boring_xml_url":47,"boring_view_url":1,"soilmap_view_url":null,"soiltest_xml_url":0,"soiltest_view_url":0},{"id":646692,"code":"NGIC202302438-0014","latitude":"33.488686416667","longitude":"133.93963055556","source_code":"","project_name":"","survey_name":"\u4ee4\u548c4-5\u5e74\u5ea6\u963f\u5357\u5b89\u82b8\u81ea\u52d5\u8eca\u9053\uff08\u571f\u4f50\u7ba1\u5185\uff09\u5730\u8cea\u8abf\u67fb\u696d\u52d9","client_name":"\u56fd\u571f\u4ea4\u901a\u7701\u56db\u56fd\u5730\u65b9\u6574\u5099\u5c40\u571f\u4f50\u56fd\u9053\u4e8b\u52d9\u6240","boring_xml_url":47,"boring_view_url":1,"soilmap_view_url":null,"soiltest_xml_url":0,"soiltest_view_url":0},{"id":646691,"code":"NGIC202302438-0013","latitude":"33.488603444444","longitude":"133.93931405556","source_code":"","project_name":"","survey_name":"\u4ee4\u548c4-5\u5e74\u5ea6\u963f\u5357\u5b89\u82b8\u81ea\u52d5\u8eca\u9053\uff08\u571f\u4f50\u7ba1\u5185\uff09\u5730\u8cea\u8abf\u67fb\u696d\u52d9","client_name":"\u56fd\u571f\u4ea4\u901a\u7701\u56db\u56fd\u5730\u65b9\u6574\u5099\u5c40\u571f\u4f50\u56fd\u9053\u4e8b\u52d9\u6240","boring_xml_url":47,"boring_view_url":1,"soilmap_view_url":null,"soiltest_xml_url":0,"soiltest_view_url":0},{"id":646690,"code":"NGIC202302438-0012","latitude":"33.487005888889","longitude":"133.94027152778","source_code":"","project_name":"","survey_name":"\u4ee4\u548c4-5\u5e74\u5ea6\u963f\u5357\u5b89\u82b8\u81ea\u52d5\u8eca\u9053\uff08\u571f\u4f50\u7ba1\u5185\uff09\u5730\u8cea\u8abf\u67fb\u696d\u52d9","client_name":"\u56fd\u571f\u4ea4\u901a\u7701\u56db\u56fd\u5730\u65b9\u6574\u5099\u5c40\u571f\u4f50\u56fd\u9053\u4e8b\u52d9\u6240","boring_xml_url":47,"boring_view_url":1,"soilmap_view_url":null,"soiltest_xml_url":0,"soiltest_view_url":0},{"id":646689,"code":"NGIC202302438-0011","latitude":"33.486883583333","longitude":"133.93994786111","source_code":"","project_name":"","survey_name":"\u4ee4\u548c4-5\u5e74\u5ea6\u963f\u5357\u5b89\u82b8\u81ea\u52d5\u8eca\u9053\uff08\u571f\u4f50\u7ba1\u5185\uff09\u5730\u8cea\u8abf\u67fb\u696d\u52d9","client_name":"\u56fd\u571f\u4ea4\u901a\u7701\u56db\u56fd\u5730\u65b9\u6574\u5099\u5c40\u571f\u4f50\u56fd\u9053\u4e8b\u52d9\u6240","boring_xml_url":47,"boring_view_url":1,"soilmap_view_url":null,"soiltest_xml_url":0,"soiltest_view_url":0},{"id":646688,"code":"NGIC202302438-0010","latitude":"33.47831675","longitude":"133.94569366667","source_code":"","project_name":"","survey_name":"\u4ee4\u548c4-5\u5e74\u5ea6\u963f\u5357\u5b89\u82b8\u81ea\u52d5\u8eca\u9053\uff08\u571f\u4f50\u7ba1\u5185\uff09\u5730\u8cea\u8abf\u67fb\u696d\u52d9","client_name":"\u56fd\u571f\u4ea4\u901a\u7701\u56db\u56fd\u5730\u65b9\u6574\u5099\u5c40\u571f\u4f50\u56fd\u9053\u4e8b\u52d9\u6240","boring_xml_url":47,"boring_view_url":1,"soilmap_view_url":null,"soiltest_xml_url":0,"soiltest_view_url":0},{"id":646687,"code":"NGIC202302438-0009","latitude":"33.478139166667","longitude":"133.94535663889","source_code":"","project_name":"","survey_name":"\u4ee4\u548c4-5\u5e74\u5ea6\u963f\u5357\u5b89\u82b8\u81ea\u52d5\u8eca\u9053\uff08\u571f\u4f50\u7ba1\u5185\uff09\u5730\u8cea\u8abf\u67fb\u696d\u52d9","client_name":"\u56fd\u571f\u4ea4\u901a\u7701\u56db\u56fd\u5730\u65b9\u6574\u5099\u5c40\u571f\u4f50\u56fd\u9053\u4e8b\u52d9\u6240","boring_xml_url":47,"boring_view_url":1,"soilmap_view_url":null,"soiltest_xml_url":0,"soiltest_view_url":0}]}}