{"header":{"xyz":{"source":[],"mosaic":false},"page":1396,"raw":{"soiltest_result":"0","bbox":"57.598333,109.544722,1.933333,163.806111","page":"1396"},"conditions":{"soiltest_result":0,"north":57.598333,"west":109.544722,"south":1.933333,"east":163.806111},"success":true,"message":""},"data":{"meta":{"total":212844,"page":1396,"pages":7095,"count":30},"values":[{"id":503510,"code":"B4KJ202201000-6046","latitude":"39.039157","longitude":"140.731413","source_code":"TH20168248600200050003","project_name":"","survey_name":"\u6210\u702c\u30c0\u30e0\u693f\u5ddd\u5730\u533a\u5730\u8cea\u8abf\u67fb","client_name":"\u56fd\u571f\u4ea4\u901a\u7701\u3000\u6771\u5317\u5730\u65b9\u6574\u5099\u5c40\u3000\u6210\u702c\u30c0\u30e0\u5de5\u4e8b\u4e8b\u52d9\u6240","boring_xml_url":72,"boring_view_url":1,"soilmap_view_url":null,"soiltest_xml_url":0,"soiltest_view_url":0},{"id":503509,"code":"B4KJ202201000-6045","latitude":"39.038879","longitude":"140.731135","source_code":"TH20168248600200050002","project_name":"","survey_name":"\u6210\u702c\u30c0\u30e0\u693f\u5ddd\u5730\u533a\u5730\u8cea\u8abf\u67fb","client_name":"\u56fd\u571f\u4ea4\u901a\u7701\u3000\u6771\u5317\u5730\u65b9\u6574\u5099\u5c40\u3000\u6210\u702c\u30c0\u30e0\u5de5\u4e8b\u4e8b\u52d9\u6240","boring_xml_url":72,"boring_view_url":1,"soilmap_view_url":null,"soiltest_xml_url":0,"soiltest_view_url":0},{"id":503508,"code":"B4KJ202201000-6044","latitude":"39.038323","longitude":"140.730858","source_code":"TH20168248600200050001","project_name":"","survey_name":"\u6210\u702c\u30c0\u30e0\u693f\u5ddd\u5730\u533a\u5730\u8cea\u8abf\u67fb","client_name":"\u56fd\u571f\u4ea4\u901a\u7701\u3000\u6771\u5317\u5730\u65b9\u6574\u5099\u5c40\u3000\u6210\u702c\u30c0\u30e0\u5de5\u4e8b\u4e8b\u52d9\u6240","boring_xml_url":72,"boring_view_url":1,"soilmap_view_url":null,"soiltest_xml_url":0,"soiltest_view_url":0},{"id":503507,"code":"B4KJ202201000-6043","latitude":"39.831104","longitude":"140.641125","source_code":"TH20158280200200080012","project_name":"","survey_name":"\u5e73\u621027\u5e74\u7389\u5ddd\u30c0\u30e0\u5824\u4f53\u57fa\u790e\u8a66\u9a13\u304a\u3088\u3073\u89e3\u6790\u696d\u52d9","client_name":"\"\u56fd\u571f\u4ea4\u901a\u7701 \u6771\u5317\u5730\u65b9\u6574\u5099\u5c40 \u7389\u5ddd\u30c0\u30e0\u7ba1\u7406\u6240\"","boring_xml_url":72,"boring_view_url":1,"soilmap_view_url":null,"soiltest_xml_url":0,"soiltest_view_url":0},{"id":503506,"code":"B4KJ202201000-6042","latitude":"39.831104","longitude":"140.641125","source_code":"TH20158280200200080011","project_name":"","survey_name":"\u7389\u5ddd\u30c0\u30e0\u5824\u4f53\u57fa\u790e\u8a66\u9a13\u304a\u3088\u3073\u89e3\u6790\u696d\u52d9","client_name":"\"\u56fd\u571f\u4ea4\u901a\u7701 \u6771\u5317\u5730\u65b9\u6574\u5099\u5c40 \u7389\u5ddd\u30c0\u30e0\u7ba1\u7406\u6240\"","boring_xml_url":72,"boring_view_url":1,"soilmap_view_url":null,"soiltest_xml_url":0,"soiltest_view_url":0},{"id":503505,"code":"B4KJ202201000-6041","latitude":"39.831104","longitude":"140.641125","source_code":"TH20158280200200080010","project_name":"","survey_name":"\u7389\u5ddd\u30c0\u30e0\u5824\u4f53\u57fa\u790e\u8a66\u9a13\u304a\u3088\u3073\u89e3\u6790\u696d\u52d9","client_name":"\"\u56fd\u571f\u4ea4\u901a\u7701 \u6771\u5317\u5730\u65b9\u6574\u5099\u5c40 \u7389\u5ddd\u30c0\u30e0\u7ba1\u7406\u6240\"","boring_xml_url":72,"boring_view_url":1,"soilmap_view_url":null,"soiltest_xml_url":0,"soiltest_view_url":0},{"id":503504,"code":"B4KJ202201000-6040","latitude":"39.831104","longitude":"140.641125","source_code":"TH20158280200200080009","project_name":"","survey_name":"\u5e73\u621027\u5e74\u7389\u5ddd\u30c0\u30e0\u5824\u4f53\u57fa\u790e\u8a66\u9a13\u304a\u3088\u3073\u89e3\u6790\u696d\u52d9","client_name":"\"\u56fd\u571f\u4ea4\u901a\u7701 \u6771\u5317\u5730\u65b9\u6574\u5099\u5c40 \u7389\u5ddd\u30c0\u30e0\u7ba1\u7406\u6240\"","boring_xml_url":72,"boring_view_url":1,"soilmap_view_url":null,"soiltest_xml_url":0,"soiltest_view_url":0},{"id":503503,"code":"B4KJ202201000-6039","latitude":"39.831104","longitude":"140.641125","source_code":"TH20158280200200080008","project_name":"","survey_name":"\u7389\u5ddd\u30c0\u30e0\u5824\u4f53\u57fa\u790e\u8a66\u9a13\u304a\u3088\u3073\u89e3\u6790\u696d\u52d9","client_name":"\"\u56fd\u571f\u4ea4\u901a\u7701 \u6771\u5317\u5730\u65b9\u6574\u5099\u5c40 \u7389\u5ddd\u30c0\u30e0\u7ba1\u7406\u6240\"","boring_xml_url":72,"boring_view_url":1,"soilmap_view_url":null,"soiltest_xml_url":0,"soiltest_view_url":0},{"id":503502,"code":"B4KJ202201000-6038","latitude":"39.831104","longitude":"140.641125","source_code":"TH20158280200200080007","project_name":"","survey_name":"\u7389\u5ddd\u30c0\u30e0\u5824\u4f53\u57fa\u790e\u8a66\u9a13\u304a\u3088\u3073\u89e3\u6790\u696d\u52d9","client_name":"\"\u56fd\u571f\u4ea4\u901a\u7701 \u6771\u5317\u5730\u65b9\u6574\u5099\u5c40 \u7389\u5ddd\u30c0\u30e0\u7ba1\u7406\u6240\"","boring_xml_url":72,"boring_view_url":1,"soilmap_view_url":null,"soiltest_xml_url":0,"soiltest_view_url":0},{"id":503501,"code":"B4KJ202201000-6037","latitude":"39.831104","longitude":"140.641125","source_code":"TH20158280200200080006","project_name":"","survey_name":"\u7389\u5ddd\u30c0\u30e0\u5824\u4f53\u57fa\u790e\u8a66\u9a13\u304a\u3088\u3073\u89e3\u6790\u696d\u52d9","client_name":"\"\u56fd\u571f\u4ea4\u901a\u7701 \u6771\u5317\u5730\u65b9\u6574\u5099\u5c40 \u7389\u5ddd\u30c0\u30e0\u7ba1\u7406\u6240\"","boring_xml_url":72,"boring_view_url":1,"soilmap_view_url":null,"soiltest_xml_url":0,"soiltest_view_url":0},{"id":503500,"code":"B4KJ202201000-6036","latitude":"39.831104","longitude":"140.641125","source_code":"TH20158280200200080005","project_name":"","survey_name":"\u7389\u5ddd\u30c0\u30e0\u5824\u4f53\u57fa\u790e\u8a66\u9a13\u304a\u3088\u3073\u89e3\u6790\u696d\u52d9","client_name":"\"\u56fd\u571f\u4ea4\u901a\u7701 \u6771\u5317\u5730\u65b9\u6574\u5099\u5c40 \u7389\u5ddd\u30c0\u30e0\u7ba1\u7406\u6240\"","boring_xml_url":72,"boring_view_url":1,"soilmap_view_url":null,"soiltest_xml_url":0,"soiltest_view_url":0},{"id":503499,"code":"B4KJ202201000-6035","latitude":"39.831104","longitude":"140.641125","source_code":"TH20158280200200080004","project_name":"","survey_name":"\u5e73\u621027\u5e74\u5ea6\u7389\u5ddd\u30c0\u30e0\u5824\u4f53\u57fa\u790e\u8a66\u9a13","client_name":"\"\u56fd\u571f\u4ea4\u901a\u7701 \u6771\u5317\u5730\u65b9\u6574\u5099\u5c40 \u7389\u5ddd\u30c0\u30e0\u7ba1\u7406\u6240\"","boring_xml_url":72,"boring_view_url":1,"soilmap_view_url":null,"soiltest_xml_url":0,"soiltest_view_url":0},{"id":503498,"code":"B4KJ202201000-6034","latitude":"39.831104","longitude":"140.641125","source_code":"TH20158280200200080003","project_name":"","survey_name":"\u5e73\u621027\u5e74\u5ea6\u7389\u5ddd\u30c0\u30e0\u5824\u4f53\u57fa\u790e\u8a66\u9a13","client_name":"\"\u56fd\u571f\u4ea4\u901a\u7701 \u6771\u5317\u5730\u65b9\u6574\u5099\u5c40 \u7389\u5ddd\u30c0\u30e0\u7ba1\u7406\u6240\"","boring_xml_url":72,"boring_view_url":1,"soilmap_view_url":null,"soiltest_xml_url":0,"soiltest_view_url":0},{"id":503497,"code":"B4KJ202201000-6033","latitude":"39.831104","longitude":"140.641125","source_code":"TH20158280200200080002","project_name":"","survey_name":"\u7389\u5ddd\u30c0\u30e0\u5824\u4f53\u57fa\u790e\u8a66\u9a13","client_name":"\"\u56fd\u571f\u4ea4\u901a\u7701 \u6771\u5317\u5730\u65b9\u6574\u5099\u5c40 \u7389\u5ddd\u30c0\u30e0\u7ba1\u7406\u6240\"","boring_xml_url":72,"boring_view_url":1,"soilmap_view_url":null,"soiltest_xml_url":0,"soiltest_view_url":0},{"id":503496,"code":"B4KJ202201000-6032","latitude":"39.831104","longitude":"140.641125","source_code":"TH20158280200200080001","project_name":"","survey_name":"\u5e73\u621027\u5e74\u7389\u5ddd\u30c0\u30e0\u5824\u4f53\u57fa\u790e\u8a66\u9a13","client_name":"\"\u56fd\u571f\u4ea4\u901a\u7701 \u6771\u5317\u5730\u65b9\u6574\u5099\u5c40 \u7389\u5ddd\u30c0\u30e0\u7ba1\u7406\u6240\"","boring_xml_url":72,"boring_view_url":1,"soilmap_view_url":null,"soiltest_xml_url":0,"soiltest_view_url":0},{"id":503495,"code":"B4KJ202201000-6031","latitude":"39.859591","longitude":"140.665398","source_code":"TH20168280200200030001","project_name":"","survey_name":"\u7389\u5ddd\u30c0\u30e0\u5468\u8fba\u5730\u3059\u3079\u308a\u8abf\u67fb\u89e3\u6790\u696d\u52d9","client_name":"\"\u56fd\u571f\u4ea4\u901a\u7701\u3000\u6771\u5317\u5730\u65b9\u6574\u5099\u5c40 \u7389\u5ddd\u30c0\u30e0\u7ba1\u7406\u6240\"","boring_xml_url":72,"boring_view_url":1,"soilmap_view_url":null,"soiltest_xml_url":0,"soiltest_view_url":0},{"id":503494,"code":"B4KJ202201000-6030","latitude":"40.219328","longitude":"140.295786","source_code":"TH20168247410200010002","project_name":"","survey_name":"\u4e8c\u30c4\u4e95\u5c0f\u5742\u9593\u6c34\u8cea\u30e2\u30cb\u30bf\u30ea\u30f3\u30b0\u8abf\u67fb\u696d\u52d9","client_name":"\"\u56fd\u571f\u4ea4\u901a\u7701\u3000\u6771\u5317\u5730\u65b9\u6574\u5099\u5c40 \u80fd\u4ee3\u6cb3\u5ddd\u56fd\u9053\u4e8b\u52d9\u6240\"","boring_xml_url":72,"boring_view_url":1,"soilmap_view_url":null,"soiltest_xml_url":0,"soiltest_view_url":0},{"id":503493,"code":"B4KJ202201000-6029","latitude":"40.21924","longitude":"140.295725","source_code":"TH20168247410200010001","project_name":"","survey_name":"\u4e8c\u30c4\u4e95\u5c0f\u5742\u9593\u6c34\u8cea\u30e2\u30cb\u30bf\u30ea\u30f3\u30b0\u8abf\u67fb\u696d\u52d9","client_name":"\"\u56fd\u571f\u4ea4\u901a\u7701\u3000\u6771\u5317\u5730\u65b9\u6574\u5099\u5c40 \u80fd\u4ee3\u6cb3\u5ddd\u56fd\u9053\u4e8b\u52d9\u6240\"","boring_xml_url":72,"boring_view_url":1,"soilmap_view_url":null,"soiltest_xml_url":0,"soiltest_view_url":0},{"id":503492,"code":"B4KJ202201000-6028","latitude":"39.864967","longitude":"140.66833","source_code":"TH20148280200200030002","project_name":"","survey_name":"\u7389\u5ddd\u30c0\u30e0\u5468\u8fba\u5730\u3059\u3079\u308a\u8abf\u67fb\u696d\u52d9","client_name":"\u56fd\u571f\u4ea4\u901a\u7701\u6771\u5317\u5730\u65b9\u6574\u5099\u5c40\u7389\u5ddd\u30c0\u30e0\u7ba1\u7406\u6240","boring_xml_url":72,"boring_view_url":1,"soilmap_view_url":null,"soiltest_xml_url":0,"soiltest_view_url":0},{"id":503491,"code":"B4KJ202201000-6027","latitude":"39.865045","longitude":"140.666046","source_code":"TH20148280200200030001","project_name":"","survey_name":"\u7389\u5ddd\u30c0\u30e0\u5468\u8fba\u5730\u3059\u3079\u308a\u8abf\u67fb\u696d\u52d9","client_name":"\u56fd\u571f\u4ea4\u901a\u7701\u6771\u5317\u5730\u65b9\u6574\u5099\u5c40\u7389\u5ddd\u30c0\u30e0\u7ba1\u7406\u6240","boring_xml_url":72,"boring_view_url":1,"soilmap_view_url":null,"soiltest_xml_url":0,"soiltest_view_url":0},{"id":503490,"code":"B4KJ202201000-6026","latitude":"38.63187","longitude":"140.001974","source_code":"TH201688257410200090001","project_name":"","survey_name":"\u5e73\u621028\u5e74\u5ea6\u6700\u4e0a\u5ddd\u30fb\u8d64\u5ddd\u7802\u9632\u65bd\u8a2d\u7b49\u8a2d\u8a08\u696d\u52d9","client_name":"\u56fd\u571f\u4ea4\u901a\u7701\u6771\u5317\u5730\u65b9\u6574\u5099\u5c40\u65b0\u5e84\u6cb3\u5ddd\u4e8b\u52d9\u6240","boring_xml_url":74,"boring_view_url":1,"soilmap_view_url":null,"soiltest_xml_url":0,"soiltest_view_url":0},{"id":503489,"code":"B4KJ202201000-6025","latitude":"38.443284","longitude":"140.048172","source_code":"TH20168257410200080005","project_name":"","survey_name":"\u5e73\u621028\u5e74\u5ea6\u3000\u65b0\u5e84\u7ba1\u5185\u7802\u9632\u5830\u5824\u7b49\u8a73\u7d30\u8a2d\u8a08\u696d\u52d9","client_name":"\u56fd\u571f\u4ea4\u901a\u7701\u3000\u6771\u5317\u5730\u65b9\u6574\u5099\u5c40\u3000\u65b0\u5e84\u6cb3\u5ddd\u4e8b\u52d9\u6240","boring_xml_url":72,"boring_view_url":1,"soilmap_view_url":null,"soiltest_xml_url":0,"soiltest_view_url":0},{"id":503488,"code":"B4KJ202201000-6024","latitude":"38.443604","longitude":"140.048455","source_code":"TH20168257410200080004","project_name":"","survey_name":"\u5e73\u621028\u5e74\u5ea6\u3000\u65b0\u5e84\u7ba1\u5185\u7802\u9632\u5830\u5824\u7b49\u8a73\u7d30\u8a2d\u8a08\u696d\u52d9","client_name":"\u56fd\u571f\u4ea4\u901a\u7701\u3000\u6771\u5317\u5730\u65b9\u6574\u5099\u5c40\u3000\u65b0\u5e84\u6cb3\u5ddd\u4e8b\u52d9\u6240","boring_xml_url":72,"boring_view_url":1,"soilmap_view_url":null,"soiltest_xml_url":0,"soiltest_view_url":0},{"id":503487,"code":"B4KJ202201000-6023","latitude":"38.443831","longitude":"140.048169","source_code":"TH20168257410200080003","project_name":"","survey_name":"\u5e73\u621028\u5e74\u5ea6\u3000\u65b0\u5e84\u7ba1\u5185\u7802\u9632\u5830\u5824\u7b49\u8a73\u7d30\u8a2d\u8a08\u696d\u52d9","client_name":"\u56fd\u571f\u4ea4\u901a\u7701\u3000\u6771\u5317\u5730\u65b9\u6574\u5099\u5c40\u3000\u65b0\u5e84\u6cb3\u5ddd\u4e8b\u52d9\u6240","boring_xml_url":72,"boring_view_url":1,"soilmap_view_url":null,"soiltest_xml_url":0,"soiltest_view_url":0},{"id":503486,"code":"B4KJ202201000-6022","latitude":"38.443604","longitude":"140.048169","source_code":"TH20168257410200080002","project_name":"","survey_name":"\u5e73\u621028\u5e74\u5ea6\u3000\u65b0\u5e84\u7ba1\u5185\u7802\u9632\u5830\u5824\u7b49\u8a73\u7d30\u8a2d\u8a08\u696d\u52d9","client_name":"\u56fd\u571f\u4ea4\u901a\u7701\u3000\u6771\u5317\u5730\u65b9\u6574\u5099\u5c40\u3000\u65b0\u5e84\u6cb3\u5ddd\u4e8b\u52d9\u6240","boring_xml_url":72,"boring_view_url":1,"soilmap_view_url":null,"soiltest_xml_url":0,"soiltest_view_url":0},{"id":503485,"code":"B4KJ202201000-6021","latitude":"38.443398","longitude":"140.048169","source_code":"TH20168257410200080001","project_name":"","survey_name":"\u5e73\u621028\u5e74\u5ea6\u3000\u65b0\u5e84\u7ba1\u5185\u7802\u9632\u5830\u5824\u7b49\u8a73\u7d30\u8a2d\u8a08\u696d\u52d9","client_name":"\u56fd\u571f\u4ea4\u901a\u7701\u3000\u6771\u5317\u5730\u65b9\u6574\u5099\u5c40\u3000\u65b0\u5e84\u6cb3\u5ddd\u4e8b\u52d9\u6240","boring_xml_url":72,"boring_view_url":1,"soilmap_view_url":null,"soiltest_xml_url":0,"soiltest_view_url":0},{"id":503484,"code":"B4KJ202201000-6020","latitude":"38.708045","longitude":"140.832559","source_code":"TH20004","project_name":"\"\u5e73\u621028\u5e74\u5ea6 \u5927\u5d0e\u5730\u533a\u5916\u9053\u8def\u8a2d\u8a08\u696d\u52d9 \u3042\u3089\u4f0a\u9054\u306a\u9053\u306e\u99c5\"","survey_name":"\"\u5e73\u621028\u5e74\u5ea6 \u5927\u5d0e\u5730\u533a\u5916\u9053\u8def\u8a2d\u8a08\u696d\u52d9 \u3042\u3089\u4f0a\u9054\u306a\u9053\u306e\u99c5\"","client_name":"\"\u56fd\u571f\u4ea4\u901a\u7701 \u6771\u5317\u5730\u65b9\u6574\u5099\u5c40 \u4ed9\u53f0\u6cb3\u5ddd\u56fd\u9053\u4e8b\u52d9\u6240\"","boring_xml_url":45,"boring_view_url":1,"soilmap_view_url":null,"soiltest_xml_url":0,"soiltest_view_url":0},{"id":503483,"code":"B4KJ202201000-6019","latitude":"38.707768","longitude":"140.832281","source_code":"TH20003","project_name":"\"\u5e73\u621028\u5e74\u5ea6 \u5927\u5d0e\u5730\u533a\u5916\u9053\u8def\u8a2d\u8a08\u696d\u52d9 \uff08\u3042\u3089\u4f0a\u9054\u306a\u9053\u306e\u99c5\uff09\"","survey_name":"\"\u5e73\u621028\u5e74\u5ea6 \u5927\u5d0e\u5730\u533a\u5916\u9053\u8def\u8a2d\u8a08\u696d\u52d9 \uff08\u3042\u3089\u4f0a\u9054\u306a\u9053\u306e\u99c5\uff09\"","client_name":"\"\u56fd\u571f\u4ea4\u901a\u7701 \u6771\u5317\u5730\u65b9\u6574\u5099\u5c40 \u4ed9\u53f0\u6cb3\u5ddd\u56fd\u9053\u4e8b\u52d9\u6240\"","boring_xml_url":45,"boring_view_url":1,"soilmap_view_url":null,"soiltest_xml_url":0,"soiltest_view_url":0},{"id":503482,"code":"B4KJ202201000-6018","latitude":"38.561434","longitude":"140.97587","source_code":"TH20002","project_name":"\"\u5e73\u621028\u5e74\u5ea6 \u5927\u5d0e\u5730\u533a\u5916\u9053\u8def\u8a2d\u8a08\u696d\u52d9\"","survey_name":"\"\u5e73\u621028\u5e74\u5ea6 \u5927\u5d0e\u5730\u533a\u5916\u9053\u8def\u8a2d\u8a08\u696d\u52d9\"","client_name":"\"\u56fd\u571f\u4ea4\u901a\u7701 \u6771\u5317\u5730\u65b9\u6574\u5099\u5c40 \u4ed9\u53f0\u6cb3\u5ddd\u56fd\u9053\u4e8b\u52d9\u6240\"","boring_xml_url":45,"boring_view_url":1,"soilmap_view_url":null,"soiltest_xml_url":0,"soiltest_view_url":0},{"id":503481,"code":"B4KJ202201000-6017","latitude":"38.564434","longitude":"140.976981","source_code":"TH20001","project_name":"\"\u5e73\u621028\u5e74\u5ea6 \u5927\u5d0e\u5730\u533a\u5916\u9053\u8def\u8a2d\u8a08\u696d\u52d9\"","survey_name":"\"\u5e73\u621028\u5e74\u5ea6 \u5927\u5d0e\u5730\u533a\u5916\u9053\u8def\u8a2d\u8a08\u696d\u52d9\"","client_name":"\"\u56fd\u571f\u4ea4\u901a\u7701 \u6771\u5317\u5730\u65b9\u6574\u5099\u5c40 \u4ed9\u53f0\u6cb3\u5ddd\u56fd\u9053\u4e8b\u52d9\u6240\"","boring_xml_url":45,"boring_view_url":1,"soilmap_view_url":null,"soiltest_xml_url":0,"soiltest_view_url":0}]}}