{"header":{"xyz":{"source":[],"mosaic":false},"page":1408,"raw":{"soiltest_result":"0","bbox":"57.598333,109.544722,1.933333,163.806111","page":"1408"},"conditions":{"soiltest_result":0,"north":57.598333,"west":109.544722,"south":1.933333,"east":163.806111},"success":true,"message":""},"data":{"meta":{"total":212844,"page":1408,"pages":7095,"count":30},"values":[{"id":503150,"code":"B4KJ202201000-5686","latitude":"38.890893","longitude":"141.590678","source_code":"TH20138240610200130016","project_name":"","survey_name":"\u6c17\u4ed9\u6cbc\u5730\u8cea\u8abf\u67fb\u696d\u52d9","client_name":"\u56fd\u571f\u4ea4\u901a\u7701\u6771\u5317\u5730\u65b9\u6574\u5099\u5c40\u4ed9\u53f0\u6cb3\u5ddd\u56fd\u9053\u4e8b\u52d9\u6240","boring_xml_url":72,"boring_view_url":1,"soilmap_view_url":null,"soiltest_xml_url":0,"soiltest_view_url":0},{"id":503149,"code":"B4KJ202201000-5685","latitude":"38.894851","longitude":"141.59378","source_code":"TH20138240610200130015","project_name":"","survey_name":"\u6c17\u4ed9\u6cbc\u5730\u8cea\u8abf\u67fb\u696d\u52d9","client_name":"\u56fd\u571f\u4ea4\u901a\u7701\u6771\u5317\u5730\u65b9\u6574\u5099\u5c40\u4ed9\u53f0\u6cb3\u5ddd\u56fd\u9053\u4e8b\u52d9\u6240","boring_xml_url":72,"boring_view_url":1,"soilmap_view_url":null,"soiltest_xml_url":0,"soiltest_view_url":0},{"id":503148,"code":"B4KJ202201000-5684","latitude":"38.893365","longitude":"141.592944","source_code":"TH20138240610200130014","project_name":"","survey_name":"\u6c17\u4ed9\u6cbc\u5730\u8cea\u8abf\u67fb\u696d\u52d9","client_name":"\u56fd\u571f\u4ea4\u901a\u7701\u6771\u5317\u5730\u65b9\u6574\u5099\u5c40\u4ed9\u53f0\u6cb3\u5ddd\u56fd\u9053\u4e8b\u52d9\u6240","boring_xml_url":72,"boring_view_url":1,"soilmap_view_url":null,"soiltest_xml_url":0,"soiltest_view_url":0},{"id":503147,"code":"B4KJ202201000-5683","latitude":"38.890637","longitude":"141.590814","source_code":"TH20138240610200130013","project_name":"","survey_name":"\u6c17\u4ed9\u6cbc\u5730\u8cea\u8abf\u67fb\u696d\u52d9","client_name":"\u56fd\u571f\u4ea4\u901a\u7701\u6771\u5317\u5730\u65b9\u6574\u5099\u5c40\u4ed9\u53f0\u6cb3\u5ddd\u56fd\u9053\u4e8b\u52d9\u6240","boring_xml_url":72,"boring_view_url":1,"soilmap_view_url":null,"soiltest_xml_url":0,"soiltest_view_url":0},{"id":503146,"code":"B4KJ202201000-5682","latitude":"38.889495","longitude":"141.589847","source_code":"TH20138240610200130012","project_name":"","survey_name":"\u6c17\u4ed9\u6cbc\u5730\u8cea\u8abf\u67fb\u696d\u52d9","client_name":"\u56fd\u571f\u4ea4\u901a\u7701\u6771\u5317\u5730\u65b9\u6574\u5099\u5c40\u4ed9\u53f0\u6cb3\u5ddd\u56fd\u9053\u4e8b\u52d9\u6240","boring_xml_url":72,"boring_view_url":1,"soilmap_view_url":null,"soiltest_xml_url":0,"soiltest_view_url":0},{"id":503145,"code":"B4KJ202201000-5681","latitude":"38.888943","longitude":"141.589392","source_code":"TH20138240610200130011","project_name":"","survey_name":"\u6c17\u4ed9\u6cbc\u5730\u8cea\u8abf\u67fb\u696d\u52d9","client_name":"\u56fd\u571f\u4ea4\u901a\u7701\u6771\u5317\u5730\u65b9\u6574\u5099\u5c40\u4ed9\u53f0\u6cb3\u5ddd\u56fd\u9053\u4e8b\u52d9\u6240","boring_xml_url":72,"boring_view_url":1,"soilmap_view_url":null,"soiltest_xml_url":0,"soiltest_view_url":0},{"id":503144,"code":"B4KJ202201000-5680","latitude":"38.888379","longitude":"141.588972","source_code":"TH20138240610200130010","project_name":"","survey_name":"\u6c17\u4ed9\u6cbc\u5730\u8cea\u8abf\u67fb\u696d\u52d9","client_name":"\u56fd\u571f\u4ea4\u901a\u7701\u6771\u5317\u5730\u65b9\u6574\u5099\u5c40\u4ed9\u53f0\u6cb3\u5ddd\u56fd\u9053\u4e8b\u52d9\u6240","boring_xml_url":72,"boring_view_url":1,"soilmap_view_url":null,"soiltest_xml_url":0,"soiltest_view_url":0},{"id":503143,"code":"B4KJ202201000-5679","latitude":"38.887815","longitude":"141.588553","source_code":"TH20138240610200130009","project_name":"","survey_name":"\u6c17\u4ed9\u6cbc\u5730\u8cea\u8abf\u67fb\u696d\u52d9","client_name":"\u56fd\u571f\u4ea4\u901a\u7701\u6771\u5317\u5730\u65b9\u6574\u5099\u5c40\u4ed9\u53f0\u6cb3\u5ddd\u56fd\u9053\u4e8b\u52d9\u6240","boring_xml_url":72,"boring_view_url":1,"soilmap_view_url":null,"soiltest_xml_url":0,"soiltest_view_url":0},{"id":503142,"code":"B4KJ202201000-5678","latitude":"38.886595","longitude":"141.587756","source_code":"TH20138240610200130008","project_name":"","survey_name":"\u6c17\u4ed9\u6cbc\u5730\u8cea\u8abf\u67fb\u696d\u52d9","client_name":"\u56fd\u571f\u4ea4\u901a\u7701\u6771\u5317\u5730\u65b9\u6574\u5099\u5c40\u4ed9\u53f0\u6cb3\u5ddd\u56fd\u9053\u4e8b\u52d9\u6240","boring_xml_url":72,"boring_view_url":1,"soilmap_view_url":null,"soiltest_xml_url":0,"soiltest_view_url":0},{"id":503141,"code":"B4KJ202201000-5677","latitude":"38.886509","longitude":"141.587522","source_code":"TH20138240610200130007","project_name":"","survey_name":"\u6c17\u4ed9\u6cbc\u5730\u8cea\u8abf\u67fb\u696d\u52d9","client_name":"\u56fd\u571f\u4ea4\u901a\u7701\u6771\u5317\u5730\u65b9\u6574\u5099\u5c40\u4ed9\u53f0\u6cb3\u5ddd\u56fd\u9053\u4e8b\u52d9\u6240","boring_xml_url":72,"boring_view_url":1,"soilmap_view_url":null,"soiltest_xml_url":0,"soiltest_view_url":0},{"id":503140,"code":"B4KJ202201000-5676","latitude":"38.885893","longitude":"141.587122","source_code":"TH20138240610200130006","project_name":"","survey_name":"\u6c17\u4ed9\u6cbc\u5730\u8cea\u8abf\u67fb\u696d\u52d9","client_name":"\u56fd\u571f\u4ea4\u901a\u7701\u6771\u5317\u5730\u65b9\u6574\u5099\u5c40\u4ed9\u53f0\u6cb3\u5ddd\u56fd\u9053\u4e8b\u52d9\u6240","boring_xml_url":72,"boring_view_url":1,"soilmap_view_url":null,"soiltest_xml_url":0,"soiltest_view_url":0},{"id":503139,"code":"B4KJ202201000-5675","latitude":"38.885776","longitude":"141.587067","source_code":"TH20138240610200130005","project_name":"","survey_name":"\u6c17\u4ed9\u6cbc\u5730\u8cea\u8abf\u67fb\u696d\u52d9","client_name":"\u56fd\u571f\u4ea4\u901a\u7701\u6771\u5317\u5730\u65b9\u6574\u5099\u5c40\u4ed9\u53f0\u6cb3\u5ddd\u56fd\u9053\u4e8b\u52d9\u6240","boring_xml_url":72,"boring_view_url":1,"soilmap_view_url":null,"soiltest_xml_url":0,"soiltest_view_url":0},{"id":503138,"code":"B4KJ202201000-5674","latitude":"38.885345","longitude":"141.586911","source_code":"TH20138240610200130004","project_name":"","survey_name":"\u6c17\u4ed9\u6cbc\u5730\u8cea\u8abf\u67fb\u696d\u52d9","client_name":"\u56fd\u571f\u4ea4\u901a\u7701\u6771\u5317\u5730\u65b9\u6574\u5099\u5c40\u4ed9\u53f0\u6cb3\u5ddd\u56fd\u9053\u4e8b\u52d9\u6240","boring_xml_url":72,"boring_view_url":1,"soilmap_view_url":null,"soiltest_xml_url":0,"soiltest_view_url":0},{"id":503137,"code":"B4KJ202201000-5673","latitude":"38.884776","longitude":"141.586647","source_code":"TH20138240610200130003","project_name":"","survey_name":"\u6c17\u4ed9\u6cbc\u5730\u8cea\u8abf\u67fb\u696d\u52d9","client_name":"\u56fd\u571f\u4ea4\u901a\u7701\u6771\u5317\u5730\u65b9\u6574\u5099\u5c40\u4ed9\u53f0\u6cb3\u5ddd\u56fd\u9053\u4e8b\u52d9\u6240","boring_xml_url":72,"boring_view_url":1,"soilmap_view_url":null,"soiltest_xml_url":0,"soiltest_view_url":0},{"id":503136,"code":"B4KJ202201000-5672","latitude":"38.884198","longitude":"141.586528","source_code":"TH20138240610200130002","project_name":"","survey_name":"\u6c17\u4ed9\u6cbc\u5730\u8cea\u8abf\u67fb\u696d\u52d9","client_name":"\u56fd\u571f\u4ea4\u901a\u7701\u6771\u5317\u5730\u65b9\u6574\u5099\u5c40\u4ed9\u53f0\u6cb3\u5ddd\u56fd\u9053\u4e8b\u52d9\u6240","boring_xml_url":72,"boring_view_url":1,"soilmap_view_url":null,"soiltest_xml_url":0,"soiltest_view_url":0},{"id":503135,"code":"B4KJ202201000-5671","latitude":"38.884165","longitude":"141.586333","source_code":"TH20138240610200130001","project_name":"","survey_name":"\u6c17\u4ed9\u6cbc\u5730\u8cea\u8abf\u67fb\u696d\u52d9","client_name":"\u56fd\u571f\u4ea4\u901a\u7701\u6771\u5317\u5730\u65b9\u6574\u5099\u5c40\u4ed9\u53f0\u6cb3\u5ddd\u56fd\u9053\u4e8b\u52d9\u6240","boring_xml_url":72,"boring_view_url":1,"soilmap_view_url":null,"soiltest_xml_url":0,"soiltest_view_url":0},{"id":503134,"code":"B4KJ202201000-5670","latitude":"38.817673","longitude":"141.558136","source_code":"TH20128240480200220020","project_name":"","survey_name":"\u5e73\u621024\u5e74\u5ea6\u3000\u672c\u5409\u6c17\u4ed9\u6cbc\u5730\u533a\u5730\u8cea\u8abf\u67fb","client_name":"\u56fd\u571f\u4ea4\u901a\u7701\u3000\u6771\u5317\u5730\u65b9\u6574\u5099\u5c40\u3000\u4ed9\u53f0\u6cb3\u5ddd\u56fd\u9053\u4e8b\u52d9\u6240","boring_xml_url":72,"boring_view_url":1,"soilmap_view_url":null,"soiltest_xml_url":0,"soiltest_view_url":0},{"id":503133,"code":"B4KJ202201000-5669","latitude":"38.801183","longitude":"141.535695","source_code":"TH20128240480200220019","project_name":"","survey_name":"\u5e73\u621024\u5e74\u5ea6\u3000\u672c\u5409\u6c17\u4ed9\u6cbc\u5730\u533a\u5730\u8cea\u8abf\u67fb","client_name":"\u56fd\u571f\u4ea4\u901a\u7701\u3000\u6771\u5317\u5730\u65b9\u6574\u5099\u5c40\u3000\u4ed9\u53f0\u6cb3\u5ddd\u56fd\u9053\u4e8b\u52d9\u6240","boring_xml_url":72,"boring_view_url":1,"soilmap_view_url":null,"soiltest_xml_url":0,"soiltest_view_url":0},{"id":503132,"code":"B4KJ202201000-5668","latitude":"38.795639","longitude":"141.525873","source_code":"TH20128240480200220018","project_name":"","survey_name":"\u5e73\u621024\u5e74\u5ea6\u3000\u672c\u5409\u6c17\u4ed9\u6cbc\u5730\u533a\u5730\u8cea\u8abf\u67fb","client_name":"\u56fd\u571f\u4ea4\u901a\u7701\u3000\u6771\u5317\u5730\u65b9\u6574\u5099\u5c40\u3000\u4ed9\u53f0\u6cb3\u5ddd\u56fd\u9053\u4e8b\u52d9\u6240","boring_xml_url":72,"boring_view_url":1,"soilmap_view_url":null,"soiltest_xml_url":0,"soiltest_view_url":0},{"id":503131,"code":"B4KJ202201000-5667","latitude":"38.79548","longitude":"141.525624","source_code":"TH20128240480200220017","project_name":"","survey_name":"\u5e73\u621024\u5e74\u5ea6\u3000\u672c\u5409\u6c17\u4ed9\u6cbc\u5730\u533a\u5730\u8cea\u8abf\u67fb","client_name":"\u56fd\u571f\u4ea4\u901a\u7701\u3000\u6771\u5317\u5730\u65b9\u6574\u5099\u5c40\u3000\u4ed9\u53f0\u6cb3\u5ddd\u56fd\u9053\u4e8b\u52d9\u6240","boring_xml_url":72,"boring_view_url":1,"soilmap_view_url":null,"soiltest_xml_url":0,"soiltest_view_url":0},{"id":503130,"code":"B4KJ202201000-5666","latitude":"38.795318","longitude":"141.525421","source_code":"TH20128240480200220016","project_name":"","survey_name":"\u5e73\u621024\u5e74\u5ea6\u3000\u672c\u5409\u6c17\u4ed9\u6cbc\u5730\u533a\u5730\u8cea\u8abf\u67fb","client_name":"\u56fd\u571f\u4ea4\u901a\u7701\u3000\u6771\u5317\u5730\u65b9\u6574\u5099\u5c40\u3000\u4ed9\u53f0\u6cb3\u5ddd\u56fd\u9053\u4e8b\u52d9\u6240","boring_xml_url":72,"boring_view_url":1,"soilmap_view_url":null,"soiltest_xml_url":0,"soiltest_view_url":0},{"id":503129,"code":"B4KJ202201000-5665","latitude":"38.813742","longitude":"141.558132","source_code":"TH20128240480200220015","project_name":"","survey_name":"\u5e73\u621024\u5e74\u5ea6\u3000\u672c\u5409\u6c17\u4ed9\u6cbc\u5730\u533a\u5730\u8cea\u8abf\u67fb","client_name":"\u56fd\u571f\u4ea4\u901a\u7701\u3000\u6771\u5317\u5730\u65b9\u6574\u5099\u5c40\u3000\u4ed9\u53f0\u6cb3\u5ddd\u56fd\u9053\u4e8b\u52d9\u6240","boring_xml_url":72,"boring_view_url":1,"soilmap_view_url":null,"soiltest_xml_url":0,"soiltest_view_url":0},{"id":503128,"code":"B4KJ202201000-5664","latitude":"38.812428","longitude":"141.552582","source_code":"TH20128240480200220014","project_name":"","survey_name":"\u5e73\u621024\u5e74\u5ea6\u3000\u672c\u5409\u6c17\u4ed9\u6cbc\u5730\u533a\u5730\u8cea\u8abf\u67fb","client_name":"\u56fd\u571f\u4ea4\u901a\u7701\u3000\u6771\u5317\u5730\u65b9\u6574\u5099\u5c40\u3000\u4ed9\u53f0\u6cb3\u5ddd\u56fd\u9053\u4e8b\u52d9\u6240","boring_xml_url":72,"boring_view_url":1,"soilmap_view_url":null,"soiltest_xml_url":0,"soiltest_view_url":0},{"id":503127,"code":"B4KJ202201000-5663","latitude":"38.812791","longitude":"141.552169","source_code":"TH20128240480200220013","project_name":"","survey_name":"\u5e73\u621024\u5e74\u5ea6\u3000\u672c\u5409\u6c17\u4ed9\u6cbc\u5730\u533a\u5730\u8cea\u8abf\u67fb","client_name":"\u56fd\u571f\u4ea4\u901a\u7701\u3000\u6771\u5317\u5730\u65b9\u6574\u5099\u5c40\u3000\u4ed9\u53f0\u6cb3\u5ddd\u56fd\u9053\u4e8b\u52d9\u6240","boring_xml_url":72,"boring_view_url":1,"soilmap_view_url":null,"soiltest_xml_url":0,"soiltest_view_url":0},{"id":503126,"code":"B4KJ202201000-5662","latitude":"38.811354","longitude":"141.550588","source_code":"TH20128240480200220012","project_name":"","survey_name":"\u5e73\u621024\u5e74\u5ea6\u3000\u672c\u5409\u6c17\u4ed9\u6cbc\u5730\u533a\u5730\u8cea\u8abf\u67fb","client_name":"\u56fd\u571f\u4ea4\u901a\u7701\u3000\u6771\u5317\u5730\u65b9\u6574\u5099\u5c40\u3000\u4ed9\u53f0\u6cb3\u5ddd\u56fd\u9053\u4e8b\u52d9\u6240","boring_xml_url":72,"boring_view_url":1,"soilmap_view_url":null,"soiltest_xml_url":0,"soiltest_view_url":0},{"id":503125,"code":"B4KJ202201000-5661","latitude":"38.811683","longitude":"141.550148","source_code":"TH20128240480200220011","project_name":"","survey_name":"\u5e73\u621024\u5e74\u5ea6\u3000\u672c\u5409\u6c17\u4ed9\u6cbc\u5730\u533a\u5730\u8cea\u8abf\u67fb","client_name":"\u56fd\u571f\u4ea4\u901a\u7701\u3000\u6771\u5317\u5730\u65b9\u6574\u5099\u5c40\u3000\u4ed9\u53f0\u6cb3\u5ddd\u56fd\u9053\u4e8b\u52d9\u6240","boring_xml_url":72,"boring_view_url":1,"soilmap_view_url":null,"soiltest_xml_url":0,"soiltest_view_url":0},{"id":503124,"code":"B4KJ202201000-5660","latitude":"38.810926","longitude":"141.549397","source_code":"TH20128240480200220010","project_name":"","survey_name":"\u5e73\u621024\u5e74\u5ea6\u3000\u672c\u5409\u6c17\u4ed9\u6cbc\u5730\u533a\u5730\u8cea\u8abf\u67fb","client_name":"\u56fd\u571f\u4ea4\u901a\u7701\u3000\u6771\u5317\u5730\u65b9\u6574\u5099\u5c40\u3000\u4ed9\u53f0\u6cb3\u5ddd\u56fd\u9053\u4e8b\u52d9\u6240","boring_xml_url":72,"boring_view_url":1,"soilmap_view_url":null,"soiltest_xml_url":0,"soiltest_view_url":0},{"id":503123,"code":"B4KJ202201000-5659","latitude":"38.807545","longitude":"141.54347","source_code":"TH20128240480200220009","project_name":"","survey_name":"\u5e73\u621024\u5e74\u5ea6\u3000\u672c\u5409\u6c17\u4ed9\u6cbc\u5730\u533a\u5730\u8cea\u8abf\u67fb","client_name":"\u56fd\u571f\u4ea4\u901a\u7701\u3000\u6771\u5317\u5730\u65b9\u6574\u5099\u5c40\u3000\u4ed9\u53f0\u6cb3\u5ddd\u56fd\u9053\u4e8b\u52d9\u6240","boring_xml_url":72,"boring_view_url":1,"soilmap_view_url":null,"soiltest_xml_url":0,"soiltest_view_url":0},{"id":503122,"code":"B4KJ202201000-5658","latitude":"38.807455","longitude":"141.543631","source_code":"TH20128240480200220008","project_name":"","survey_name":"\u5e73\u621024\u5e74\u5ea6\u3000\u672c\u5409\u6c17\u4ed9\u6cbc\u5730\u533a\u5730\u8cea\u8abf\u67fb","client_name":"\u56fd\u571f\u4ea4\u901a\u7701\u3000\u6771\u5317\u5730\u65b9\u6574\u5099\u5c40\u3000\u4ed9\u53f0\u6cb3\u5ddd\u56fd\u9053\u4e8b\u52d9\u6240","boring_xml_url":72,"boring_view_url":1,"soilmap_view_url":null,"soiltest_xml_url":0,"soiltest_view_url":0},{"id":503121,"code":"B4KJ202201000-5657","latitude":"38.806905","longitude":"141.542554","source_code":"TH20128240480200220007","project_name":"","survey_name":"\u5e73\u621024\u5e74\u5ea6\u3000\u672c\u5409\u6c17\u4ed9\u6cbc\u5730\u533a\u5730\u8cea\u8abf\u67fb","client_name":"\u56fd\u571f\u4ea4\u901a\u7701\u3000\u6771\u5317\u5730\u65b9\u6574\u5099\u5c40\u3000\u4ed9\u53f0\u6cb3\u5ddd\u56fd\u9053\u4e8b\u52d9\u6240","boring_xml_url":72,"boring_view_url":1,"soilmap_view_url":null,"soiltest_xml_url":0,"soiltest_view_url":0}]}}