{"header":{"xyz":{"source":[],"mosaic":false},"page":1427,"raw":{"soiltest_result":"0","bbox":"57.598333,109.544722,1.933333,163.806111","page":"1427"},"conditions":{"soiltest_result":0,"north":57.598333,"west":109.544722,"south":1.933333,"east":163.806111},"success":true,"message":""},"data":{"meta":{"total":212844,"page":1427,"pages":7095,"count":30},"values":[{"id":502580,"code":"B4KJ202201000-5116","latitude":"38.70571","longitude":"141.306089","source_code":"TH20058240480200030004","project_name":"\u4e00\u822c\u56fd\u905345\u53f7\u6539\u7bc9\u5de5\u4e8b","survey_name":"\u5e73\u621017\u5e74\u5ea6\u3000\u767b\u7c73\u5fd7\u6d25\u5ddd\u9053\u8def\u7c73\u8c37\u5730\u533a\u5730\u8cea\u8abf\u67fb","client_name":"\u4ed9\u53f0\u6cb3\u5ddd\u56fd\u9053\u4e8b\u52d9\u6240\u3000\u8a2d\u8a08\u8ab2","boring_xml_url":72,"boring_view_url":1,"soilmap_view_url":null,"soiltest_xml_url":0,"soiltest_view_url":0},{"id":502579,"code":"B4KJ202201000-5115","latitude":"38.70571","longitude":"141.301189","source_code":"TH20058240480200030003","project_name":"\u4e00\u822c\u56fd\u905345\u53f7\u6539\u7bc9\u5de5\u4e8b","survey_name":"\u5e73\u621017\u5e74\u5ea6\u3000\u767b\u7c73\u5fd7\u6d25\u5ddd\u9053\u8def\u7c73\u8c37\u5730\u533a\u5730\u8cea\u8abf\u67fb","client_name":"\u4ed9\u53f0\u6cb3\u5ddd\u56fd\u9053\u4e8b\u52d9\u6240\u3000\u8a2d\u8a08\u8ab2","boring_xml_url":72,"boring_view_url":1,"soilmap_view_url":null,"soiltest_xml_url":0,"soiltest_view_url":0},{"id":502578,"code":"B4KJ202201000-5114","latitude":"38.703829","longitude":"141.298684","source_code":"TH20058240480200030002","project_name":"\u4e00\u822c\u56fd\u905345\u53f7\u6539\u7bc9\u5de5\u4e8b","survey_name":"\"\u5e73\u621017\u5e74\u5ea6 \u767b\u7c73\u5fd7\u6d25\u5ddd\u7c73\u8c37\u5730\u533a\u5730\u8cea\u8abf\u67fb\"","client_name":"\u4ed9\u53f0\u6cb3\u5ddd\u56fd\u9053\u4e8b\u52d9\u6240\u3000\u8a2d\u8a08\u8ab2","boring_xml_url":72,"boring_view_url":1,"soilmap_view_url":null,"soiltest_xml_url":0,"soiltest_view_url":0},{"id":502577,"code":"B4KJ202201000-5113","latitude":"38.701207","longitude":"141.294517","source_code":"TH20058240480200030001","project_name":"\u4e00\u822c\u56fd\u905345\u53f7\u6539\u7bc9\u5de5\u4e8b","survey_name":"\"\u5e73\u621017\u5e74\u5ea6 \u767b\u7c73\u5fd7\u6d25\u5ddd\u9053\u8def\u7c73\u8c37\u5730\u533a\u5730\u8cea\u8abf\u67fb\"","client_name":"\u4ed9\u53f0\u6cb3\u5ddd\u56fd\u9053\u4e8b\u52d9\u6240\u3000\u8a2d\u8a08\u8ab2","boring_xml_url":72,"boring_view_url":1,"soilmap_view_url":null,"soiltest_xml_url":0,"soiltest_view_url":0},{"id":502576,"code":"B4KJ202201000-5112","latitude":"38.078327","longitude":"140.863924","source_code":"TH20068240600200120002","project_name":"","survey_name":"\u963f\u6b66\u9688\u5ddd\u4e0b\u6d41\u5824\u9632\u8a73\u7d30\u8abf\u67fb\u696d\u52d9","client_name":"\u56fd\u571f\u4ea4\u901a\u7701\u6771\u5317\u5730\u65b9\u6574\u5099\u5c40\u4ed9\u53f0\u6cb3\u5ddd\u56fd\u9053\u4e8b\u52d9\u6240","boring_xml_url":72,"boring_view_url":1,"soilmap_view_url":null,"soiltest_xml_url":0,"soiltest_view_url":0},{"id":502575,"code":"B4KJ202201000-5111","latitude":"38.078327","longitude":"140.863924","source_code":"TH20068240600200120001","project_name":"","survey_name":"\u963f\u6b66\u9688\u5ddd\u4e0b\u6d41\u5824\u9632\u8a73\u7d30\u8abf\u67fb\u696d\u52d9","client_name":"\u56fd\u571f\u4ea4\u901a\u7701\u6771\u5317\u5730\u65b9\u6574\u5099\u5c40\u4ed9\u53f0\u6cb3\u5ddd\u56fd\u9053\u4e8b\u52d9\u6240","boring_xml_url":72,"boring_view_url":1,"soilmap_view_url":null,"soiltest_xml_url":0,"soiltest_view_url":0},{"id":502574,"code":"B4KJ202201000-5110","latitude":"38.267215","longitude":"140.75531","source_code":"TH20078240550200160002","project_name":"\"\u5e73\u621019\u5e74\u5ea6 \u9326\u30f6\u4e18\u6a2a\u65ad\u6b69\u9053\u6a4b\u8a73\u7d30\u8a2d\u8a08\u696d\u52d9\"","survey_name":"\"\u5e73\u621019\u5e74\u5ea6 \u9326\u30f6\u4e18\u6a2a\u65ad\u6b69\u9053\u6a4b\u8a73\u7d30\u8a2d\u8a08\u696d\u52d9\"","client_name":"\"\u56fd\u571f\u4ea4\u901a\u7701\u6771\u5317\u5730\u65b9\u6574\u5099\u5c40 \u4ed9\u53f0\u6cb3\u5ddd\u56fd\u9053\u4e8b\u52d9\u6240\"","boring_xml_url":72,"boring_view_url":1,"soilmap_view_url":null,"soiltest_xml_url":0,"soiltest_view_url":0},{"id":502573,"code":"B4KJ202201000-5109","latitude":"38.266937","longitude":"140.760866","source_code":"TH20078240550200160001","project_name":"\"\u5e73\u621019\u5e74\u5ea6 \u9326\u30f6\u4e18\u6a2a\u65ad\u6b69\u9053\u6a4b\u8a73\u7d30\u8a2d\u8a08\u696d\u52d9\"","survey_name":"\"\u5e73\u621019\u5e74\u5ea6 \u9326\u30f6\u4e18\u6a2a\u65ad\u6b69\u9053\u6a4b\u8a73\u7d30\u8a2d\u8a08\u696d\u52d9\"","client_name":"\"\u56fd\u571f\u4ea4\u901a\u7701\u6771\u5317\u5730\u65b9\u6574\u5099\u5c40 \u4ed9\u53f0\u6cb3\u5ddd\u56fd\u9053\u4e8b\u52d9\u6240\"","boring_xml_url":72,"boring_view_url":1,"soilmap_view_url":null,"soiltest_xml_url":0,"soiltest_view_url":0},{"id":502572,"code":"B4KJ202201000-5108","latitude":"38.468088","longitude":"140.875705","source_code":"TH20088240550200020003","project_name":"\u5e73\u621020\u5e74\u5ea6\u3000\u5927\u8861\u5730\u533a\u69cb\u9020\u7269\u8a2d\u8a08\u696d\u52d9","survey_name":"\u5e73\u621020\u5e74\u5ea6\u3000\u5927\u8861\u5730\u533a\u69cb\u9020\u7269\u8a2d\u8a08\u696d\u52d9","client_name":"\u56fd\u571f\u4ea4\u901a\u7701\u3000\u6771\u5317\u5730\u65b9\u6574\u5099\u5c40\u3000\u4ed9\u53f0\u6cb3\u5ddd\u56fd\u9053\u4e8b\u52d9\u6240","boring_xml_url":72,"boring_view_url":1,"soilmap_view_url":null,"soiltest_xml_url":0,"soiltest_view_url":0},{"id":502571,"code":"B4KJ202201000-5107","latitude":"38.462224","longitude":"140.878033","source_code":"TH20088240550200020002","project_name":"\u5e73\u621020\u5e74\u5ea6\u3000\u5927\u8861\u5730\u533a\u69cb\u9020\u7269\u8a2d\u8a08\u696d\u52d9","survey_name":"\u5e73\u621020\u5e74\u5ea6\u3000\u5927\u8861\u5730\u533a\u69cb\u9020\u7269\u8a2d\u8a08\u696d\u52d9","client_name":"\u56fd\u571f\u4ea4\u901a\u7701\u3000\u6771\u5317\u5730\u65b9\u6574\u5099\u5c40\u3000\u4ed9\u53f0\u6cb3\u5ddd\u56fd\u9053\u4e8b\u52d9\u6240","boring_xml_url":72,"boring_view_url":1,"soilmap_view_url":null,"soiltest_xml_url":0,"soiltest_view_url":0},{"id":502570,"code":"B4KJ202201000-5106","latitude":"38.461785","longitude":"140.878094","source_code":"TH20088240550200020001","project_name":"\u5e73\u621020\u5e74\u5ea6\u3000\u5927\u8861\u5730\u533a\u69cb\u9020\u7269\u8a2d\u8a08\u696d\u52d9","survey_name":"\u5e73\u621020\u5e74\u5ea6\u3000\u5927\u8861\u5730\u533a\u69cb\u9020\u7269\u8a2d\u8a08\u696d\u52d9","client_name":"\u56fd\u571f\u4ea4\u901a\u7701\u3000\u6771\u5317\u5730\u65b9\u6574\u5099\u5c40\u3000\u4ed9\u53f0\u6cb3\u5ddd\u56fd\u9053\u4e8b\u52d9\u6240","boring_xml_url":72,"boring_view_url":1,"soilmap_view_url":null,"soiltest_xml_url":0,"soiltest_view_url":0},{"id":502569,"code":"B4KJ202201000-5105","latitude":"37.929356","longitude":"140.734976","source_code":"TH20048240400200020012","project_name":"\"\u5e73\u621016\u5e74 \u8218\u77e2\u9593\u5c71\u7530\u5730\u533a\u69cb\u9020\u7269\u7b49\u8a2d\u8a08\u696d\u52d9\"","survey_name":"\"\u5e73\u621016\u5e74 \u8218\u77e2\u9593\u5c71\u7530\u5730\u533a\u69cb\u9020\u7269\u7b49\u8a2d\u8a08\u696d\u52d9\"","client_name":"\"\u56fd\u571f\u4ea4\u901a\u7701 \u6771\u5317\u5730\u65b9\u6574\u5099\u5c40 \u4ed9\u53f0\u6cb3\u5ddd\u56fd\u9053\u4e8b\u52d9\u6240\"","boring_xml_url":72,"boring_view_url":1,"soilmap_view_url":null,"soiltest_xml_url":0,"soiltest_view_url":0},{"id":502568,"code":"B4KJ202201000-5104","latitude":"37.924023","longitude":"140.751365","source_code":"TH20048240400200020011","project_name":"\"\u5e73\u621016\u5e74 \u8218\u77e2\u9593\u5c71\u7530\u5730\u533a\u69cb\u9020\u7269\u7b49\u8a2d\u8a08\u696d\u52d9\"","survey_name":"\"\u5e73\u621016\u5e74 \u8218\u77e2\u9593\u5c71\u7530\u5730\u533a\u69cb\u9020\u7269\u7b49\u8a2d\u8a08\u696d\u52d9\"","client_name":"\"\u56fd\u571f\u4ea4\u901a\u7701 \u6771\u5317\u5730\u65b9\u6574\u5099\u5c40 \u4ed9\u53f0\u6cb3\u5ddd\u56fd\u9053\u4e8b\u52d9\u6240\"","boring_xml_url":72,"boring_view_url":1,"soilmap_view_url":null,"soiltest_xml_url":0,"soiltest_view_url":0},{"id":502567,"code":"B4KJ202201000-5103","latitude":"37.914384","longitude":"140.668029","source_code":"TH20048240400200020010","project_name":"\"\u5e73\u621016\u5e74 \u8218\u77e2\u9593\u5c71\u7530\u5730\u533a\u69cb\u9020\u7269\u7b49\u8a2d\u8a08\u696d\u52d9\"","survey_name":"\"\u5e73\u621016\u5e74 \u8218\u77e2\u9593\u5c71\u7530\u5730\u533a\u69cb\u9020\u7269\u7b49\u8a2d\u8a08\u696d\u52d9\"","client_name":"\"\u56fd\u571f\u4ea4\u901a\u7701 \u6771\u5317\u5730\u65b9\u6574\u5099\u5c40 \u4ed9\u53f0\u6cb3\u5ddd\u56fd\u9053\u4e8b\u52d9\u6240\"","boring_xml_url":72,"boring_view_url":1,"soilmap_view_url":null,"soiltest_xml_url":0,"soiltest_view_url":0},{"id":502566,"code":"B4KJ202201000-5102","latitude":"37.92755","longitude":"140.692225","source_code":"TH20048240400200020009","project_name":"\"\u5e73\u621016\u5e74 \u8218\u77e2\u9593\u5c71\u7530\u5730\u533a\u69cb\u9020\u7269\u7b49\u8a2d\u8a08\u696d\u52d9\"","survey_name":"\"\u5e73\u621016\u5e74 \u8218\u77e2\u9593\u5c71\u7530\u5730\u533a\u69cb\u9020\u7269\u7b49\u8a2d\u8a08\u696d\u52d9\"","client_name":"\"\u56fd\u571f\u4ea4\u901a\u7701 \u6771\u5317\u5730\u65b9\u6574\u5099\u5c40 \u4ed9\u53f0\u6cb3\u5ddd\u56fd\u9053\u4e8b\u52d9\u6240\"","boring_xml_url":72,"boring_view_url":1,"soilmap_view_url":null,"soiltest_xml_url":0,"soiltest_view_url":0},{"id":502565,"code":"B4KJ202201000-5101","latitude":"37.9368","longitude":"140.704086","source_code":"TH20048240400200020008","project_name":"\"\u5e73\u621016\u5e74 \u8218\u77e2\u9593\u5c71\u7530\u5730\u533a\u69cb\u9020\u7269\u7b49\u8a2d\u8a08\u696d\u52d9\"","survey_name":"\"\u5e73\u621016\u5e74 \u8218\u77e2\u9593\u5c71\u7530\u5730\u533a\u69cb\u9020\u7269\u7b49\u8a2d\u8a08\u696d\u52d9\"","client_name":"\"\u56fd\u571f\u4ea4\u901a\u7701 \u6771\u5317\u5730\u65b9\u6574\u5099\u5c40 \u4ed9\u53f0\u6cb3\u5ddd\u56fd\u9053\u4e8b\u52d9\u6240\"","boring_xml_url":72,"boring_view_url":1,"soilmap_view_url":null,"soiltest_xml_url":0,"soiltest_view_url":0},{"id":502564,"code":"B4KJ202201000-5100","latitude":"37.936273","longitude":"140.706142","source_code":"TH20048240400200020007","project_name":"\"\u5e73\u621016\u5e74 \u8218\u77e2\u9593\u5c71\u7530\u5730\u533a\u69cb\u9020\u7269\u7b49\u8a2d\u8a08\u696d\u52d9\"","survey_name":"\"\u5e73\u621016\u5e74 \u8218\u77e2\u9593\u5c71\u7530\u5730\u533a\u69cb\u9020\u7269\u7b49\u8a2d\u8a08\u696d\u52d9\"","client_name":"\"\u56fd\u571f\u4ea4\u901a\u7701 \u6771\u5317\u5730\u65b9\u6574\u5099\u5c40 \u4ed9\u53f0\u6cb3\u5ddd\u56fd\u9053\u4e8b\u52d9\u6240\"","boring_xml_url":72,"boring_view_url":1,"soilmap_view_url":null,"soiltest_xml_url":0,"soiltest_view_url":0},{"id":502563,"code":"B4KJ202201000-5099","latitude":"37.934856","longitude":"140.715614","source_code":"TH20048240400200020006","project_name":"\"\u5e73\u621016\u5e74 \u8218\u77e2\u9593\u5c71\u7530\u5730\u533a\u69cb\u9020\u7269\u7b49\u8a2d\u8a08\u696d\u52d9\"","survey_name":"\"\u5e73\u621016\u5e74 \u8218\u77e2\u9593\u5c71\u7530\u5730\u533a\u69cb\u9020\u7269\u7b49\u8a2d\u8a08\u696d\u52d9\"","client_name":"\"\u56fd\u571f\u4ea4\u901a\u7701 \u6771\u5317\u5730\u65b9\u6574\u5099\u5c40 \u4ed9\u53f0\u6cb3\u5ddd\u56fd\u9053\u4e8b\u52d9\u6240\"","boring_xml_url":72,"boring_view_url":1,"soilmap_view_url":null,"soiltest_xml_url":0,"soiltest_view_url":0},{"id":502562,"code":"B4KJ202201000-5098","latitude":"37.930598","longitude":"140.736995","source_code":"TH20048240400200020005","project_name":"\"\u5e73\u621016\u5e74\u5ea6 \u8218\u77e2\u9593\u5c71\u7530\u5730\u533a\u69cb\u9020\u7269\u7b49\u8a2d\u8a08\u696d\u52d9\"","survey_name":"\"\u5e73\u621016\u5e74\u5ea6 \u8218\u77e2\u9593\u5c71\u7530\u5730\u533a\u69cb\u9020\u7269\u7b49\u8a2d\u8a08\u696d\u52d9\"","client_name":"\"\u56fd\u571f\u4ea4\u901a\u7701 \u6771\u5317\u5730\u65b9\u6574\u5099\u5c40 \u4ed9\u53f0\u6cb3\u5ddd\u56fd\u9053\u4e8b\u52d9\u6240\"","boring_xml_url":72,"boring_view_url":1,"soilmap_view_url":null,"soiltest_xml_url":0,"soiltest_view_url":0},{"id":502561,"code":"B4KJ202201000-5097","latitude":"37.930653","longitude":"140.720164","source_code":"TH20048240400200020004","project_name":"\"\u5e73\u621016\u5e74\u5ea6 \u8218\u77e2\u9593\u5c71\u7530\u5730\u533a\u69cb\u9020\u7269\u7b49\u8a2d\u8a08\u696d\u52d9\"","survey_name":"\"\u5e73\u621016\u5e74\u5ea6 \u8218\u77e2\u9593\u5c71\u7530\u5730\u533a\u69cb\u9020\u7269\u7b49\u8a2d\u8a08\u696d\u52d9\"","client_name":"\"\u56fd\u571f\u4ea4\u901a\u7701 \u6771\u5317\u5730\u65b9\u6574\u5099\u5c40 \u4ed9\u53f0\u6cb3\u5ddd\u56fd\u9053\u4e8b\u52d9\u6240\"","boring_xml_url":72,"boring_view_url":1,"soilmap_view_url":null,"soiltest_xml_url":0,"soiltest_view_url":0},{"id":502560,"code":"B4KJ202201000-5096","latitude":"37.931475","longitude":"140.727739","source_code":"TH20048240400200020003","project_name":"\"\u5e73\u621016\u5e74\u5ea6 \u8218\u77e2\u9593\u5c71\u7530\u5730\u533a\u69cb\u9020\u7269\u7b49\u8a2d\u8a08\u696d\u52d9\"","survey_name":"\"\u5e73\u621016\u5e74\u5ea6 \u8218\u77e2\u9593\u5c71\u7530\u5730\u533a\u69cb\u9020\u7269\u7b49\u8a2d\u8a08\u696d\u52d9\"","client_name":"\"\u56fd\u571f\u4ea4\u901a\u7701 \u6771\u5317\u5730\u65b9\u6574\u5099\u5c40 \u4ed9\u53f0\u6cb3\u5ddd\u56fd\u9053\u4e8b\u52d9\u6240\"","boring_xml_url":72,"boring_view_url":1,"soilmap_view_url":null,"soiltest_xml_url":0,"soiltest_view_url":0},{"id":502559,"code":"B4KJ202201000-5095","latitude":"37.930648","longitude":"140.736859","source_code":"TH20048240400200020002","project_name":"\"\u5e73\u621016\u5e74\u5ea6 \u8218\u77e2\u9593\u5c71\u7530\u5730\u533a\u69cb\u9020\u7269\u7b49\u8a2d\u8a08\u696d\u52d9\"","survey_name":"\"\u5e73\u621016\u5e74\u5ea6 \u8218\u77e2\u9593\u5c71\u7530\u5730\u533a\u69cb\u9020\u7269\u7b49\u8a2d\u8a08\u696d\u52d9\"","client_name":"\"\u56fd\u571f\u4ea4\u901a\u7701 \u6771\u5317\u5730\u65b9\u6574\u5099\u5c40 \u4ed9\u53f0\u6cb3\u5ddd\u56fd\u9053\u4e8b\u52d9\u6240\"","boring_xml_url":72,"boring_view_url":1,"soilmap_view_url":null,"soiltest_xml_url":0,"soiltest_view_url":0},{"id":502558,"code":"B4KJ202201000-5094","latitude":"37.930556","longitude":"140.737065","source_code":"TH20048240400200020001","project_name":"\"\u5e73\u621016\u5e74\u5ea6 \u8218\u77e2\u9593\u5c71\u7530\u5730\u533a\u69cb\u9020\u7269\u7b49\u8a2d\u8a08\u696d\u52d9\"","survey_name":"\"\u5e73\u621016\u5e74\u5ea6 \u8218\u77e2\u9593\u5c71\u7530\u5730\u533a\u69cb\u9020\u7269\u7b49\u8a2d\u8a08\u696d\u52d9\"","client_name":"\"\u56fd\u571f\u4ea4\u901a\u7701 \u6771\u5317\u5730\u65b9\u6574\u5099\u5c40 \u4ed9\u53f0\u6cb3\u5ddd\u56fd\u9053\u4e8b\u52d9\u6240\"","boring_xml_url":72,"boring_view_url":1,"soilmap_view_url":null,"soiltest_xml_url":0,"soiltest_view_url":0},{"id":502557,"code":"B4KJ202201000-5093","latitude":"39.039811","longitude":"140.716849","source_code":"TH20048200000000000015","project_name":"\u591a\u76ee\u7684\u30c0\u30e0\u4e8b\u696d","survey_name":"\"\u5e73\u621016\u5e74\u5ea6 \u6210\u702c\u30c0\u30e0\u8d64\u6edd\u5730\u533a\u5468\u8fba\u8abf\u67fb\"","client_name":"\"\u56fd\u571f\u4ea4\u901a\u7701\u6771\u5317\u5730\u65b9\u6574\u5099\u5c40 \u6e6f\u6ca2\u6cb3\u5ddd\u56fd\u9053\u4e8b\u52d9\u6240\"","boring_xml_url":72,"boring_view_url":1,"soilmap_view_url":null,"soiltest_xml_url":0,"soiltest_view_url":0},{"id":502556,"code":"B4KJ202201000-5092","latitude":"39.039811","longitude":"140.71796","source_code":"TH20048200000000000014","project_name":"\u591a\u76ee\u7684\u30c0\u30e0\u4e8b\u696d","survey_name":"\"\u5e73\u621016\u5e74\u5ea6 \u6210\u702c\u30c0\u30e0\u8d64\u6edd\u5730\u533a\u5468\u8fba\u8abf\u67fb\"","client_name":"\"\u56fd\u571f\u4ea4\u901a\u7701\u6771\u5317\u5730\u65b9\u6574\u5099\u5c40 \u6e6f\u6ca2\u6cb3\u5ddd\u56fd\u9053\u4e8b\u52d9\u6240\"","boring_xml_url":72,"boring_view_url":1,"soilmap_view_url":null,"soiltest_xml_url":0,"soiltest_view_url":0},{"id":502555,"code":"B4KJ202201000-5091","latitude":"39.038978","longitude":"140.719627","source_code":"TH20048200000000000013","project_name":"\u591a\u76ee\u7684\u30c0\u30e0\u4e8b\u696d","survey_name":"\"\u5e73\u621016\u5e74\u5ea6 \u6210\u702c\u30c0\u30e0\u8d64\u6edd\u5730\u533a\u5468\u8fba\u8abf\u67fb\"","client_name":"\"\u56fd\u571f\u4ea4\u901a\u7701\u6771\u5317\u5730\u65b9\u6574\u5099\u5c40 \u6e6f\u6ca2\u6cb3\u5ddd\u56fd\u9053\u4e8b\u52d9\u6240\"","boring_xml_url":72,"boring_view_url":1,"soilmap_view_url":null,"soiltest_xml_url":0,"soiltest_view_url":0},{"id":502554,"code":"B4KJ202201000-5090","latitude":"39.037867","longitude":"140.719071","source_code":"TH20048200000000000012","project_name":"\u591a\u76ee\u7684\u30c0\u30e0\u4e8b\u696d","survey_name":"\"\u5e73\u621016\u5e74\u5ea6 \u6210\u702c\u30c0\u30e0\u8d64\u6edd\u5730\u533a\u5468\u8fba\u8abf\u67fb\"","client_name":"\"\u56fd\u571f\u4ea4\u901a\u7701\u6771\u5317\u5730\u65b9\u6574\u5099\u5c40 \u6e6f\u6ca2\u6cb3\u5ddd\u56fd\u9053\u4e8b\u52d9\u6240\"","boring_xml_url":72,"boring_view_url":1,"soilmap_view_url":null,"soiltest_xml_url":0,"soiltest_view_url":0},{"id":502553,"code":"B4KJ202201000-5089","latitude":"39.038144","longitude":"140.719905","source_code":"TH20048200000000000011","project_name":"\u591a\u76ee\u7684\u30c0\u30e0\u4e8b\u696d","survey_name":"\"\u5e73\u621016\u5e74\u5ea6 \u6210\u702c\u30c0\u30e0\u8d64\u6edd\u5730\u533a\u5468\u8fba\u8abf\u67fb\"","client_name":"\"\u56fd\u571f\u4ea4\u901a\u7701\u6771\u5317\u5730\u65b9\u6574\u5099\u5c40 \u6e6f\u6ca2\u6cb3\u5ddd\u56fd\u9053\u4e8b\u52d9\u6240\"","boring_xml_url":72,"boring_view_url":1,"soilmap_view_url":null,"soiltest_xml_url":0,"soiltest_view_url":0},{"id":502552,"code":"B4KJ202201000-5088","latitude":"39.038422","longitude":"140.716572","source_code":"TH20048200000000000010","project_name":"\u591a\u76ee\u7684\u30c0\u30e0\u4e8b\u696d","survey_name":"\"\u5e73\u621016\u5e74\u5ea6 \u6210\u702c\u30c0\u30e0\u8d64\u6edd\u5730\u533a\u5468\u8fba\u8abf\u67fb\"","client_name":"\"\u56fd\u571f\u4ea4\u901a\u7701\u6771\u5317\u5730\u65b9\u6574\u5099\u5c40 \u6e6f\u6ca2\u6cb3\u5ddd\u56fd\u9053\u4e8b\u52d9\u6240\"","boring_xml_url":72,"boring_view_url":1,"soilmap_view_url":null,"soiltest_xml_url":0,"soiltest_view_url":0},{"id":502551,"code":"B4KJ202201000-5087","latitude":"39.039255","longitude":"140.716294","source_code":"TH20048200000000000009","project_name":"\u591a\u76ee\u7684\u30c0\u30e0\u4e8b\u696d","survey_name":"\"\u5e73\u621016\u5e74\u5ea6 \u6210\u702c\u30c0\u30e0\u8d64\u6edd\u5730\u533a\u5468\u8fba\u8abf\u67fb\"","client_name":"\"\u56fd\u571f\u4ea4\u901a\u7701\u6771\u5317\u5730\u65b9\u6574\u5099\u5c40 \u6e6f\u6ca2\u6cb3\u5ddd\u56fd\u9053\u4e8b\u52d9\u6240\"","boring_xml_url":72,"boring_view_url":1,"soilmap_view_url":null,"soiltest_xml_url":0,"soiltest_view_url":0}]}}