{"header":{"xyz":{"source":[],"mosaic":false},"page":1435,"raw":{"soiltest_result":"0","bbox":"57.598333,109.544722,1.933333,163.806111","page":"1435"},"conditions":{"soiltest_result":0,"north":57.598333,"west":109.544722,"south":1.933333,"east":163.806111},"success":true,"message":""},"data":{"meta":{"total":212844,"page":1435,"pages":7095,"count":30},"values":[{"id":502340,"code":"B4KJ202201000-4876","latitude":"42.374411","longitude":"142.307917","source_code":"HK20182611060008","project_name":"","survey_name":"\"\u65e5\u9ad8\u81ea\u52d5\u8eca\u9053 \u65b0\u51a0\u753a \u5927\u72e9\u90e8\u5730\u8cea\u8abf\u67fb\u696d\u52d9\"","client_name":"\u56fd\u571f\u4ea4\u901a\u7701\u5317\u6d77\u9053\u958b\u767a\u5c40\u5ba4\u862d\u958b\u767a\u5efa\u8a2d\u90e8\u82eb\u5c0f\u7267\u9053\u8def\u4e8b\u52d9\u6240","boring_xml_url":61,"boring_view_url":1,"soilmap_view_url":null,"soiltest_xml_url":0,"soiltest_view_url":0},{"id":502339,"code":"B4KJ202201000-4875","latitude":"42.374411","longitude":"142.307203","source_code":"HK20182611060007","project_name":"","survey_name":"\"\u65e5\u9ad8\u81ea\u52d5\u8eca\u9053 \u65b0\u51a0\u753a \u5927\u72e9\u90e8\u5730\u8cea\u8abf\u67fb\u696d\u52d9\"","client_name":"\u56fd\u571f\u4ea4\u901a\u7701\u5317\u6d77\u9053\u958b\u767a\u5c40\u5ba4\u862d\u958b\u767a\u5efa\u8a2d\u90e8\u82eb\u5c0f\u7267\u9053\u8def\u4e8b\u52d9\u6240","boring_xml_url":61,"boring_view_url":1,"soilmap_view_url":null,"soiltest_xml_url":0,"soiltest_view_url":0},{"id":502338,"code":"B4KJ202201000-4874","latitude":"42.375014","longitude":"142.307203","source_code":"HK20182611060006","project_name":"","survey_name":"\"\u65e5\u9ad8\u81ea\u52d5\u8eca\u9053 \u65b0\u51a0\u753a \u5927\u72e9\u90e8\u5730\u8cea\u8abf\u67fb\u696d\u52d9\"","client_name":"\u56fd\u571f\u4ea4\u901a\u7701\u5317\u6d77\u9053\u958b\u767a\u5c40\u5ba4\u862d\u958b\u767a\u5efa\u8a2d\u90e8\u82eb\u5c0f\u7267\u9053\u8def\u4e8b\u52d9\u6240","boring_xml_url":61,"boring_view_url":1,"soilmap_view_url":null,"soiltest_xml_url":0,"soiltest_view_url":0},{"id":502337,"code":"B4KJ202201000-4873","latitude":"42.374744","longitude":"142.306672","source_code":"HK20182611060005","project_name":"","survey_name":"\"\u65e5\u9ad8\u81ea\u52d5\u8eca\u9053 \u65b0\u51a0\u753a \u5927\u72e9\u90e8\u5730\u8cea\u8abf\u67fb\u696d\u52d9\"","client_name":"\u56fd\u571f\u4ea4\u901a\u7701\u5317\u6d77\u9053\u958b\u767a\u5c40\u5ba4\u862d\u958b\u767a\u5efa\u8a2d\u90e8\u82eb\u5c0f\u7267\u9053\u8def\u4e8b\u52d9\u6240","boring_xml_url":61,"boring_view_url":1,"soilmap_view_url":null,"soiltest_xml_url":0,"soiltest_view_url":0},{"id":502336,"code":"B4KJ202201000-4872","latitude":"42.374503","longitude":"142.306064","source_code":"HK20182611060004","project_name":"","survey_name":"\"\u65e5\u9ad8\u81ea\u52d5\u8eca\u9053 \u65b0\u51a0\u753a \u5927\u72e9\u90e8\u5730\u8cea\u8abf\u67fb\u696d\u52d9\"","client_name":"\u56fd\u571f\u4ea4\u901a\u7701\u5317\u6d77\u9053\u958b\u767a\u5c40\u5ba4\u862d\u958b\u767a\u5efa\u8a2d\u90e8\u82eb\u5c0f\u7267\u9053\u8def\u4e8b\u52d9\u6240","boring_xml_url":61,"boring_view_url":1,"soilmap_view_url":null,"soiltest_xml_url":0,"soiltest_view_url":0},{"id":502335,"code":"B4KJ202201000-4871","latitude":"42.375339","longitude":"142.305897","source_code":"HK20182611060003","project_name":"","survey_name":"\"\u65e5\u9ad8\u81ea\u52d5\u8eca\u9053 \u65b0\u51a0\u753a \u5927\u72e9\u90e8\u5730\u8cea\u8abf\u67fb\u696d\u52d9\"","client_name":"\u56fd\u571f\u4ea4\u901a\u7701\u5317\u6d77\u9053\u958b\u767a\u5c40\u5ba4\u862d\u958b\u767a\u5efa\u8a2d\u90e8\u82eb\u5c0f\u7267\u9053\u8def\u4e8b\u52d9\u6240","boring_xml_url":61,"boring_view_url":1,"soilmap_view_url":null,"soiltest_xml_url":0,"soiltest_view_url":0},{"id":502334,"code":"B4KJ202201000-4870","latitude":"42.37495","longitude":"142.305033","source_code":"HK20182611060002","project_name":"","survey_name":"\"\u65e5\u9ad8\u81ea\u52d5\u8eca\u9053 \u65b0\u51a0\u753a \u5927\u72e9\u90e8\u5730\u8cea\u8abf\u67fb\u696d\u52d9\"","client_name":"\u56fd\u571f\u4ea4\u901a\u7701\u5317\u6d77\u9053\u958b\u767a\u5c40\u5ba4\u862d\u958b\u767a\u5efa\u8a2d\u90e8\u82eb\u5c0f\u7267\u9053\u8def\u4e8b\u52d9\u6240","boring_xml_url":61,"boring_view_url":1,"soilmap_view_url":null,"soiltest_xml_url":0,"soiltest_view_url":0},{"id":502333,"code":"B4KJ202201000-4869","latitude":"42.374808","longitude":"142.303803","source_code":"HK20182611060001","project_name":"","survey_name":"\"\u65e5\u9ad8\u81ea\u52d5\u8eca\u9053 \u65b0\u51a0\u753a \u5927\u72e9\u90e8\u5730\u8cea\u8abf\u67fb\u696d\u52d9\"","client_name":"\u56fd\u571f\u4ea4\u901a\u7701\u5317\u6d77\u9053\u958b\u767a\u5c40\u5ba4\u862d\u958b\u767a\u5efa\u8a2d\u90e8\u82eb\u5c0f\u7267\u9053\u8def\u4e8b\u52d9\u6240","boring_xml_url":61,"boring_view_url":1,"soilmap_view_url":null,"soiltest_xml_url":0,"soiltest_view_url":0},{"id":502332,"code":"B4KJ202201000-4868","latitude":"42.183386","longitude":"140.090739","source_code":"HK20182317090004","project_name":"\"\u516b\u96f2\u9053\u8def\u4e8b\u52d9\u6240\u7ba1\u5185 \u5730\u8cea\u8abf\u67fb\u696d\u52d9\"","survey_name":"\"\u516b\u96f2\u9053\u8def\u4e8b\u52d9\u6240\u7ba1\u5185 \u5730\u8cea\u8abf\u67fb\u696d\u52d9\"","client_name":"\u51fd\u9928\u958b\u767a\u5efa\u8a2d\u90e8\u3000\u516b\u96f2\u9053\u8def\u4e8b\u52d9\u6240","boring_xml_url":61,"boring_view_url":1,"soilmap_view_url":null,"soiltest_xml_url":0,"soiltest_view_url":0},{"id":502331,"code":"B4KJ202201000-4867","latitude":"42.182672","longitude":"140.091172","source_code":"HK20182317090003","project_name":"\"\u516b\u96f2\u9053\u8def\u4e8b\u52d9\u6240\u7ba1\u5185 \u5730\u8cea\u8abf\u67fb\u696d\u52d9\"","survey_name":"\"\u516b\u96f2\u9053\u8def\u4e8b\u52d9\u6240\u7ba1\u5185 \u5730\u8cea\u8abf\u67fb\u696d\u52d9\"","client_name":"\u51fd\u9928\u958b\u767a\u5efa\u8a2d\u90e8\u3000\u516b\u96f2\u9053\u8def\u4e8b\u52d9\u6240","boring_xml_url":61,"boring_view_url":1,"soilmap_view_url":null,"soiltest_xml_url":0,"soiltest_view_url":0},{"id":502330,"code":"B4KJ202201000-4866","latitude":"42.181997","longitude":"140.091233","source_code":"HK20182317090002","project_name":"\"\u516b\u96f2\u9053\u8def\u4e8b\u52d9\u6240\u7ba1\u5185 \u5730\u8cea\u8abf\u67fb\u696d\u52d9\"","survey_name":"\"\u516b\u96f2\u9053\u8def\u4e8b\u52d9\u6240\u7ba1\u5185 \u5730\u8cea\u8abf\u67fb\u696d\u52d9\"","client_name":"\u51fd\u9928\u958b\u767a\u5efa\u8a2d\u90e8\u3000\u516b\u96f2\u9053\u8def\u4e8b\u52d9\u6240","boring_xml_url":61,"boring_view_url":1,"soilmap_view_url":null,"soiltest_xml_url":0,"soiltest_view_url":0},{"id":502329,"code":"B4KJ202201000-4865","latitude":"42.201497","longitude":"139.881308","source_code":"HK20182317090001","project_name":"\"\u516b\u96f2\u9053\u8def\u4e8b\u52d9\u6240\u7ba1\u5185 \u5730\u8cea\u8abf\u67fb\u696d\u52d9\"","survey_name":"\"\u516b\u96f2\u9053\u8def\u4e8b\u52d9\u6240\u7ba1\u5185 \u5730\u8cea\u8abf\u67fb\u696d\u52d9\"","client_name":"\u51fd\u9928\u958b\u767a\u5efa\u8a2d\u90e8\u3000\u516b\u96f2\u9053\u8def\u4e8b\u52d9\u6240","boring_xml_url":61,"boring_view_url":1,"soilmap_view_url":null,"soiltest_xml_url":0,"soiltest_view_url":0},{"id":502328,"code":"B4KJ202201000-4864","latitude":"41.947854","longitude":"140.45955","source_code":"HK20182312110002","project_name":"\u4e00\u822c\u56fd\u9053227\u53f7\u3000\u5317\u6597\u5e02\u3000\u6e21\u5cf6\u4e2d\u5c71\u9632\u707d\u5730\u8cea\u8abf\u67fb\u696d\u52d9","survey_name":"\u4e00\u822c\u56fd\u9053227\u53f7\u3000\u5317\u6597\u5e02\u3000\u6e21\u5cf6\u4e2d\u5c71\u9632\u707d\u5730\u8cea\u8abf\u67fb\u696d\u52d9","client_name":"\u56fd\u571f\u4ea4\u901a\u7701\u5317\u6d77\u9053\u958b\u767a\u5c40\u51fd\u9928\u958b\u767a\u5efa\u8a2d\u90e8\u6c5f\u5dee\u9053\u8def\u4e8b\u52d9\u6240","boring_xml_url":61,"boring_view_url":1,"soilmap_view_url":null,"soiltest_xml_url":0,"soiltest_view_url":0},{"id":502327,"code":"B4KJ202201000-4863","latitude":"41.945055","longitude":"140.464609","source_code":"HK20182312110001","project_name":"\u4e00\u822c\u56fd\u9053227\u53f7\u3000\u5317\u6597\u5e02\u3000\u6e21\u5cf6\u4e2d\u5c71\u9632\u707d\u5730\u8cea\u8abf\u67fb\u696d\u52d9","survey_name":"\u4e00\u822c\u56fd\u9053227\u53f7\u3000\u5317\u6597\u5e02\u3000\u6e21\u5cf6\u4e2d\u5c71\u9632\u707d\u5730\u8cea\u8abf\u67fb\u696d\u52d9","client_name":"\u56fd\u571f\u4ea4\u901a\u7701\u5317\u6d77\u9053\u958b\u767a\u5c40\u51fd\u9928\u958b\u767a\u5efa\u8a2d\u90e8\u6c5f\u5dee\u9053\u8def\u4e8b\u52d9\u6240","boring_xml_url":61,"boring_view_url":1,"soilmap_view_url":null,"soiltest_xml_url":0,"soiltest_view_url":0},{"id":502326,"code":"B4KJ202201000-4862","latitude":"42.142722","longitude":"140.030333","source_code":"HK20182312090002","project_name":"","survey_name":"\u5e73\u621030\u5e74\u5ea6\u3000\u6c5f\u5dee\u9053\u8def\u4e8b\u52d9\u6240\u7ba1\u5185\u3000\u5730\u8cea\u8abf\u67fb\u696d\u52d9","client_name":"\u56fd\u571f\u4ea4\u901a\u7701\u3000\u5317\u6d77\u9053\u958b\u767a\u5c40\u51fd\u9928\u958b\u767a\u5efa\u8a2d\u90e8\u3000\u6c5f\u5dee\u9053\u8def\u4e8b\u52d9\u6240","boring_xml_url":61,"boring_view_url":1,"soilmap_view_url":null,"soiltest_xml_url":0,"soiltest_view_url":0},{"id":502325,"code":"B4KJ202201000-4861","latitude":"41.767611","longitude":"140.071361","source_code":"HK20182312090001","project_name":"","survey_name":"\u5e73\u621030\u5e74\u5ea6\u3000\u6c5f\u5dee\u9053\u8def\u4e8b\u52d9\u6240\u7ba1\u5185\u3000\u5730\u8cea\u8abf\u67fb\u696d\u52d9","client_name":"\u56fd\u571f\u4ea4\u901a\u7701\u3000\u5317\u6d77\u9053\u958b\u767a\u5c40\u51fd\u9928\u958b\u767a\u5efa\u8a2d\u90e8\u3000\u6c5f\u5dee\u9053\u8def\u4e8b\u52d9\u6240","boring_xml_url":61,"boring_view_url":1,"soilmap_view_url":null,"soiltest_xml_url":0,"soiltest_view_url":0},{"id":502324,"code":"B4KJ202201000-4860","latitude":"41.805022","longitude":"140.798747","source_code":"HK20182310190002","project_name":"","survey_name":"\"\u51fd\u9928\u65b0\u5916\u74b0\u72b6\u9053\u8def \u51fd\u9928\u5e02 \u7a7a\u6e2f\u9053\u8def\u5730\u8cea\u8abf\u67fb\u696d\u52d9\"","client_name":"\u56fd\u571f\u4ea4\u901a\u7701\u5317\u6d77\u9053\u958b\u767a\u5c40\u51fd\u9928\u958b\u767a\u5efa\u8a2d\u90e8\u51fd\u9928\u9053\u8def\u4e8b\u52d9\u6240","boring_xml_url":61,"boring_view_url":1,"soilmap_view_url":null,"soiltest_xml_url":0,"soiltest_view_url":0},{"id":502323,"code":"B4KJ202201000-4859","latitude":"41.804894","longitude":"140.798289","source_code":"HK20182310190001","project_name":"","survey_name":"\"\u51fd\u9928\u65b0\u5916\u74b0\u72b6\u9053\u8def \u51fd\u9928\u5e02 \u7a7a\u6e2f\u9053\u8def\u5730\u8cea\u8abf\u67fb\u696d\u52d9\"","client_name":"\u56fd\u571f\u4ea4\u901a\u7701\u5317\u6d77\u9053\u958b\u767a\u5c40\u51fd\u9928\u958b\u767a\u5efa\u8a2d\u90e8\u51fd\u9928\u9053\u8def\u4e8b\u52d9\u6240","boring_xml_url":61,"boring_view_url":1,"soilmap_view_url":null,"soiltest_xml_url":0,"soiltest_view_url":0},{"id":502322,"code":"B4KJ202201000-4858","latitude":"41.414412","longitude":"140.216423","source_code":"HK20182301750001","project_name":"\u4e00\u822c\u56fd\u9053228\u53f7\u3000\u798f\u5cf6\u753a\u3000\u677e\u6d66\u5730\u8cea\u8abf\u67fb\u696d\u52d9","survey_name":"\u4e00\u822c\u56fd\u9053228\u53f7\u3000\u798f\u5cf6\u753a\u3000\u677e\u6d66\u5730\u8cea\u8abf\u67fb\u696d\u52d9","client_name":"\u56fd\u571f\u4ea4\u901a\u7701\u5317\u6d77\u9053\u958b\u767a\u5c40\u51fd\u9928\u958b\u767a\u5efa\u8a2d\u90e8\u672c\u90e8","boring_xml_url":61,"boring_view_url":1,"soilmap_view_url":null,"soiltest_xml_url":0,"soiltest_view_url":0},{"id":502321,"code":"B4KJ202201000-4857","latitude":"42.903717","longitude":"140.724786","source_code":"HK20182430060008","project_name":"","survey_name":"\"\u5e73\u621030\u5e74\u5ea6 \u4e00\u822c\u56fd\u90535\u53f7 \u5036\u77e5\u5b89\u753a \u5ce0\u4e0b\u5730\u8cea\u8abf\u67fb\u696d\u52d9\"","client_name":"\u5317\u6d77\u9053\u958b\u767a\u5c40\u3000\u5c0f\u6a3d\u958b\u767a\u5efa\u8a2d\u90e8\u3000\u5036\u77e5\u5b89\u958b\u767a\u4e8b\u52d9\u6240","boring_xml_url":61,"boring_view_url":1,"soilmap_view_url":null,"soiltest_xml_url":0,"soiltest_view_url":0},{"id":502320,"code":"B4KJ202201000-4856","latitude":"42.895647","longitude":"140.730286","source_code":"HK20182430060007","project_name":"","survey_name":"\"\u5e73\u621030\u5e74\u5ea6 \u4e00\u822c\u56fd\u90535\u53f7 \u5036\u77e5\u5b89\u753a \u5ce0\u4e0b\u5730\u8cea\u8abf\u67fb\u696d\u52d9\"","client_name":"\u5317\u6d77\u9053\u958b\u767a\u5c40\u3000\u5c0f\u6a3d\u958b\u767a\u5efa\u8a2d\u90e8\u3000\u5036\u77e5\u5b89\u958b\u767a\u4e8b\u52d9\u6240","boring_xml_url":61,"boring_view_url":1,"soilmap_view_url":null,"soiltest_xml_url":0,"soiltest_view_url":0},{"id":502319,"code":"B4KJ202201000-4855","latitude":"42.895936","longitude":"140.729767","source_code":"HK20182430060006","project_name":"","survey_name":"\"\u5e73\u621030\u5e74\u5ea6 \u4e00\u822c\u56fd\u90535\u53f7 \u5036\u77e5\u5b89\u753a \u5ce0\u4e0b\u5730\u8cea\u8abf\u67fb\u696d\u52d9\"","client_name":"\u5317\u6d77\u9053\u958b\u767a\u5c40\u3000\u5c0f\u6a3d\u958b\u767a\u5efa\u8a2d\u90e8\u3000\u5036\u77e5\u5b89\u958b\u767a\u4e8b\u52d9\u6240","boring_xml_url":61,"boring_view_url":1,"soilmap_view_url":null,"soiltest_xml_url":0,"soiltest_view_url":0},{"id":502318,"code":"B4KJ202201000-4854","latitude":"42.8958","longitude":"140.734222","source_code":"HK20182430060005","project_name":"","survey_name":"\"\u5e73\u621030\u5e74\u5ea6 \u4e00\u822c\u56fd\u90535\u53f7 \u5036\u77e5\u5b89\u753a \u5ce0\u4e0b\u5730\u8cea\u8abf\u67fb\u696d\u52d9\"","client_name":"\u5317\u6d77\u9053\u958b\u767a\u5c40\u3000\u5c0f\u6a3d\u958b\u767a\u5efa\u8a2d\u90e8\u3000\u5036\u77e5\u5b89\u958b\u767a\u4e8b\u52d9\u6240","boring_xml_url":61,"boring_view_url":1,"soilmap_view_url":null,"soiltest_xml_url":0,"soiltest_view_url":0},{"id":502317,"code":"B4KJ202201000-4853","latitude":"42.895575","longitude":"140.73425","source_code":"HK20182430060004","project_name":"","survey_name":"\"\u5e73\u621030\u5e74\u5ea6 \u4e00\u822c\u56fd\u90535\u53f7 \u5036\u77e5\u5b89\u753a \u5ce0\u4e0b\u5730\u8cea\u8abf\u67fb\u696d\u52d9\"","client_name":"\u5317\u6d77\u9053\u958b\u767a\u5c40\u3000\u5c0f\u6a3d\u958b\u767a\u5efa\u8a2d\u90e8\u3000\u5036\u77e5\u5b89\u958b\u767a\u4e8b\u52d9\u6240","boring_xml_url":61,"boring_view_url":1,"soilmap_view_url":null,"soiltest_xml_url":0,"soiltest_view_url":0},{"id":502316,"code":"B4KJ202201000-4852","latitude":"42.911756","longitude":"140.721814","source_code":"HK20182430060003","project_name":"","survey_name":"\"\u5e73\u621030\u5e74\u5ea6 \u4e00\u822c\u56fd\u90535\u53f7 \u5036\u77e5\u5b89\u753a \u5ce0\u4e0b\u5730\u8cea\u8abf\u67fb\u696d\u52d9\"","client_name":"\u5317\u6d77\u9053\u958b\u767a\u5c40\u3000\u5c0f\u6a3d\u958b\u767a\u5efa\u8a2d\u90e8\u3000\u5036\u77e5\u5b89\u958b\u767a\u4e8b\u52d9\u6240","boring_xml_url":61,"boring_view_url":1,"soilmap_view_url":null,"soiltest_xml_url":0,"soiltest_view_url":0},{"id":502315,"code":"B4KJ202201000-4851","latitude":"42.910458","longitude":"140.722622","source_code":"HK20182430060002","project_name":"","survey_name":"\"\u5e73\u621030\u5e74\u5ea6 \u4e00\u822c\u56fd\u90535\u53f7 \u5036\u77e5\u5b89\u753a \u5ce0\u4e0b\u5730\u8cea\u8abf\u67fb\u696d\u52d9\"","client_name":"\u5317\u6d77\u9053\u958b\u767a\u5c40\u3000\u5c0f\u6a3d\u958b\u767a\u5efa\u8a2d\u90e8\u3000\u5036\u77e5\u5b89\u958b\u767a\u4e8b\u52d9\u6240","boring_xml_url":61,"boring_view_url":1,"soilmap_view_url":null,"soiltest_xml_url":0,"soiltest_view_url":0},{"id":502314,"code":"B4KJ202201000-4850","latitude":"42.899608","longitude":"140.726953","source_code":"HK20182430060001","project_name":"","survey_name":"\"\u5e73\u621030\u5e74\u5ea6 \u4e00\u822c\u56fd\u90535\u53f7 \u5036\u77e5\u5b89\u753a \u5ce0\u4e0b\u5730\u8cea\u8abf\u67fb\u696d\u52d9\"","client_name":"\u5317\u6d77\u9053\u958b\u767a\u5c40\u3000\u5c0f\u6a3d\u958b\u767a\u5efa\u8a2d\u90e8\u3000\u5036\u77e5\u5b89\u958b\u767a\u4e8b\u52d9\u6240","boring_xml_url":61,"boring_view_url":1,"soilmap_view_url":null,"soiltest_xml_url":0,"soiltest_view_url":0},{"id":502313,"code":"B4KJ202201000-4849","latitude":"42.902981","longitude":"140.725383","source_code":"HK20182430040006","project_name":"","survey_name":"\"\u4e00\u822c\u56fd\u90535\u53f7 \u5036\u77e5\u5b89\u753a \u65ed\u5730\u8cea\u8abf\u67fb\u696d\u52d9\"","client_name":"\"\u5317\u6d77\u9053\u958b\u767a\u5c40 \u5c0f\u6a3d\u958b\u767a\u5efa\u8a2d\u90e8 \u5036\u77e5\u5b89\u958b\u767a\u4e8b\u52d9\u6240\"","boring_xml_url":61,"boring_view_url":1,"soilmap_view_url":null,"soiltest_xml_url":0,"soiltest_view_url":0},{"id":502312,"code":"B4KJ202201000-4848","latitude":"42.902519","longitude":"140.725498","source_code":"HK20182430040005","project_name":"","survey_name":"\"\u4e00\u822c\u56fd\u90535\u53f7 \u5036\u77e5\u5b89\u753a \u65ed\u5730\u8cea\u8abf\u67fb\u696d\u52d9\"","client_name":"\"\u5317\u6d77\u9053\u958b\u767a\u5c40 \u5c0f\u6a3d\u958b\u767a\u5efa\u8a2d\u90e8 \u5036\u77e5\u5b89\u958b\u767a\u4e8b\u52d9\u6240\"","boring_xml_url":61,"boring_view_url":1,"soilmap_view_url":null,"soiltest_xml_url":0,"soiltest_view_url":0},{"id":502311,"code":"B4KJ202201000-4847","latitude":"42.901913","longitude":"140.725735","source_code":"HK20182430040004","project_name":"","survey_name":"\"\u4e00\u822c\u56fd\u90535\u53f7 \u5036\u77e5\u5b89\u753a \u65ed\u5730\u8cea\u8abf\u67fb\u696d\u52d9\"","client_name":"\"\u5317\u6d77\u9053\u958b\u767a\u5c40 \u5c0f\u6a3d\u958b\u767a\u5efa\u8a2d\u90e8 \u5036\u77e5\u5b89\u958b\u767a\u4e8b\u52d9\u6240\"","boring_xml_url":61,"boring_view_url":1,"soilmap_view_url":null,"soiltest_xml_url":0,"soiltest_view_url":0}]}}