{"header":{"xyz":{"source":[],"mosaic":false},"page":1439,"raw":{"soiltest_result":"0","bbox":"57.598333,109.544722,1.933333,163.806111","page":"1439"},"conditions":{"soiltest_result":0,"north":57.598333,"west":109.544722,"south":1.933333,"east":163.806111},"success":true,"message":""},"data":{"meta":{"total":212844,"page":1439,"pages":7095,"count":30},"values":[{"id":502220,"code":"B4KJ202201000-4756","latitude":"43.430889","longitude":"144.096556","source_code":"HK20172740240005","project_name":"","survey_name":"\"\u4e00\u822c\u56fd\u9053240\u53f7 \u91e7\u8def\u5e02 \u963f\u5bd2\u6e56\u6e29\u6cc9\u5730\u533a\u5730\u8cea\u8abf\u67fb\u696d\u52d9\"","client_name":"\u5317\u6d77\u9053\u958b\u767a\u5c40\u3000\u91e7\u8def\u958b\u767a\u5efa\u8a2d\u90e8","boring_xml_url":61,"boring_view_url":1,"soilmap_view_url":null,"soiltest_xml_url":0,"soiltest_view_url":0},{"id":502219,"code":"B4KJ202201000-4755","latitude":"43.430806","longitude":"144.096194","source_code":"HK20172740240004","project_name":"","survey_name":"\"\u4e00\u822c\u56fd\u9053240\u53f7 \u91e7\u8def\u5e02 \u963f\u5bd2\u6e56\u6e29\u6cc9\u5730\u533a\u5730\u8cea\u8abf\u67fb\u696d\u52d9\"","client_name":"\u5317\u6d77\u9053\u958b\u767a\u5c40\u3000\u91e7\u8def\u958b\u767a\u5efa\u8a2d\u90e8","boring_xml_url":61,"boring_view_url":1,"soilmap_view_url":null,"soiltest_xml_url":0,"soiltest_view_url":0},{"id":502218,"code":"B4KJ202201000-4754","latitude":"43.430889","longitude":"144.095833","source_code":"HK20172740240003","project_name":"","survey_name":"\"\u4e00\u822c\u56fd\u9053240\u53f7 \u91e7\u8def\u5e02 \u963f\u5bd2\u6e56\u6e29\u6cc9\u5730\u533a\u5730\u8cea\u8abf\u67fb\u696d\u52d9\"","client_name":"\"\u5317\u6d77\u9053\u958b\u767a\u5c40 \u91e7\u8def\u958b\u767a\u5efa\u8a2d\u90e8\"","boring_xml_url":61,"boring_view_url":1,"soilmap_view_url":null,"soiltest_xml_url":0,"soiltest_view_url":0},{"id":502217,"code":"B4KJ202201000-4753","latitude":"43.430722","longitude":"144.096611","source_code":"HK20172740240002","project_name":"","survey_name":"\"\u4e00\u822c\u56fd\u9053240\u53f7 \u91e7\u8def\u5e02 \u963f\u5bd2\u6e56\u6e29\u6cc9\u5730\u533a\u5730\u8cea\u8abf\u67fb\u696d\u52d9\"","client_name":"\"\u5317\u6d77\u9053 \u958b\u767a\u5c40\u91e7\u8def\u958b\u767a\u5efa\u8a2d\u90e8\"","boring_xml_url":61,"boring_view_url":1,"soilmap_view_url":null,"soiltest_xml_url":0,"soiltest_view_url":0},{"id":502216,"code":"B4KJ202201000-4752","latitude":"43.344528","longitude":"144.127528","source_code":"HK20172740240001","project_name":"","survey_name":"\"\u4e00\u822c\u56fd\u9053240\u53f7 \u91e7\u8def\u5e02 \u963f\u5bd2\u6e56\u6e29\u6cc9\u5730\u533a\u5730\u8cea\u8abf\u67fb\u696d\u52d9\"","client_name":"\u5317\u6d77\u9053\u958b\u767a\u5c40\u3000\u91e7\u8def\u958b\u767a\u5efa\u8a2d\u90e8","boring_xml_url":61,"boring_view_url":1,"soilmap_view_url":null,"soiltest_xml_url":0,"soiltest_view_url":0},{"id":502215,"code":"B4KJ202201000-4751","latitude":"43.644594","longitude":"145.125408","source_code":"HK20172740350003","project_name":"","survey_name":"\u4e00\u822c\u56fd\u9053243\u53f7\u3000\u5225\u6d77\u753a\u3000\u4e2d\u897f\u5225\u5730\u8cea\u8abf\u67fb\u696d\u52d9","client_name":"\u56fd\u571f\u4ea4\u901a\u7701\u91e7\u8def\u958b\u767a\u5efa\u8a2d\u90e8\u4e2d\u6a19\u6d25\u9053\u8def\u4e8b\u52d9\u6240","boring_xml_url":61,"boring_view_url":1,"soilmap_view_url":null,"soiltest_xml_url":0,"soiltest_view_url":0},{"id":502214,"code":"B4KJ202201000-4750","latitude":"43.386053","longitude":"145.097378","source_code":"HK20172740350002","project_name":"","survey_name":"\u4e00\u822c\u56fd\u9053243\u53f7\u3000\u5225\u6d77\u753a\u3000\u4e2d\u897f\u5225\u5730\u8cea\u8abf\u67fb\u696d\u52d9","client_name":"\u56fd\u571f\u4ea4\u901a\u7701\u91e7\u8def\u958b\u767a\u5efa\u8a2d\u90e8\u4e2d\u6a19\u6d25\u9053\u8def\u4e8b\u52d9\u6240","boring_xml_url":61,"boring_view_url":1,"soilmap_view_url":null,"soiltest_xml_url":0,"soiltest_view_url":0},{"id":502213,"code":"B4KJ202201000-4749","latitude":"43.386006","longitude":"145.097178","source_code":"HK20172740350001","project_name":"","survey_name":"\u4e00\u822c\u56fd\u9053243\u53f7\u3000\u5225\u6d77\u753a\u3000\u4e2d\u897f\u5225\u5730\u8cea\u8abf\u67fb\u696d\u52d9","client_name":"\u56fd\u571f\u4ea4\u901a\u7701\u91e7\u8def\u958b\u767a\u5efa\u8a2d\u90e8\u4e2d\u6a19\u6d25\u9053\u8def\u4e8b\u52d9\u6240","boring_xml_url":61,"boring_view_url":1,"soilmap_view_url":null,"soiltest_xml_url":0,"soiltest_view_url":0},{"id":502212,"code":"B4KJ202201000-4748","latitude":"43.296339","longitude":"144.598917","source_code":"HK20172730420004","project_name":"\u91e7\u8def\u5ddd\u5824\u9632\u8cea\u7684\u5f37\u5316\u5916\u691c\u8a0e\u696d\u52d9","survey_name":"\u91e7\u8def\u5ddd\u5824\u9632\u8cea\u7684\u5f37\u5316\u5916\u691c\u8a0e\u696d\u52d9","client_name":"\u91e7\u8def\u5ddd\u958b\u767a\u5efa\u8a2d\u90e8\u3000\u6cbb\u6c34\u8ab2","boring_xml_url":61,"boring_view_url":1,"soilmap_view_url":null,"soiltest_xml_url":0,"soiltest_view_url":0},{"id":502211,"code":"B4KJ202201000-4747","latitude":"43.296261","longitude":"144.598975","source_code":"HK20172730420003","project_name":"\u91e7\u8def\u5ddd\u5824\u9632\u8cea\u7684\u5f37\u5316\u5916\u691c\u8a0e\u696d\u52d9","survey_name":"\u91e7\u8def\u5ddd\u5824\u9632\u8cea\u7684\u5f37\u5316\u5916\u691c\u8a0e\u696d\u52d9","client_name":"\u91e7\u8def\u5ddd\u958b\u767a\u5efa\u8a2d\u90e8\u3000\u6cbb\u6c34\u8ab2","boring_xml_url":61,"boring_view_url":1,"soilmap_view_url":null,"soiltest_xml_url":0,"soiltest_view_url":0},{"id":502210,"code":"B4KJ202201000-4746","latitude":"43.296547","longitude":"144.602364","source_code":"HK20172730420002","project_name":"\u91e7\u8def\u5ddd\u5824\u9632\u8cea\u7684\u5f37\u5316\u5916\u691c\u8a0e\u696d\u52d9","survey_name":"\u91e7\u8def\u5ddd\u5824\u9632\u8cea\u7684\u5f37\u5316\u5916\u691c\u8a0e\u696d\u52d9","client_name":"\u56fd\u571f\u4ea4\u901a\u7701\u5317\u6d77\u9053\u958b\u767a\u5c40\u91e7\u8def\u958b\u767a\u5efa\u8a2d\u90e8\u672c\u90e8","boring_xml_url":61,"boring_view_url":1,"soilmap_view_url":null,"soiltest_xml_url":0,"soiltest_view_url":0},{"id":502209,"code":"B4KJ202201000-4745","latitude":"43.296508","longitude":"144.602514","source_code":"HK20172730420001","project_name":"\u91e7\u8def\u5ddd\u5824\u9632\u8cea\u7684\u5f37\u5316\u5916\u691c\u8a0e\u696d\u52d9","survey_name":"\u91e7\u8def\u5ddd\u5824\u9632\u8cea\u7684\u5f37\u5316\u5916\u691c\u8a0e\u696d\u52d9","client_name":"\u56fd\u571f\u4ea4\u901a\u7701\u5317\u6d77\u9053\u958b\u767a\u5c40\u91e7\u8def\u958b\u767a\u5efa\u8a2d\u90e8\u672c\u90e8","boring_xml_url":61,"boring_view_url":1,"soilmap_view_url":null,"soiltest_xml_url":0,"soiltest_view_url":0},{"id":502208,"code":"B4KJ202201000-4744","latitude":"43.536611","longitude":"143.665972","source_code":"HK20172814140024","project_name":"","survey_name":"\u5317\u6d77\u9053\u6a2a\u65ad\u81ea\u52d5\u8eca\u9053\u3000\u9678\u5225\u753a\u3000\u4e0a\u5229\u5225\u5730\u8cea\u8abf\u67fb","client_name":"\"\u5317\u6d77\u9053\u958b\u767a\u5c40 \u5e2f\u5e83\u958b\u767a\u5efa\u8a2d\u90e8 \u8db3\u5bc4\u9053\u8def\u4e8b\u52d9\u6240\"","boring_xml_url":61,"boring_view_url":1,"soilmap_view_url":null,"soiltest_xml_url":0,"soiltest_view_url":0},{"id":502207,"code":"B4KJ202201000-4743","latitude":"43.536389","longitude":"143.666389","source_code":"HK20172814140023","project_name":"","survey_name":"\u5317\u6d77\u9053\u6a2a\u65ad\u81ea\u52d5\u8eca\u9053\u3000\u9678\u5225\u753a\u3000\u4e0a\u5229\u5225\u5730\u8cea\u8abf\u67fb","client_name":"\"\u5317\u6d77\u9053\u958b\u767a\u5c40 \u5e2f\u5e83\u958b\u767a\u5efa\u8a2d\u90e8 \u8db3\u5bc4\u9053\u8def\u4e8b\u52d9\u6240\"","boring_xml_url":61,"boring_view_url":1,"soilmap_view_url":null,"soiltest_xml_url":0,"soiltest_view_url":0},{"id":502206,"code":"B4KJ202201000-4742","latitude":"43.439806","longitude":"143.736611","source_code":"HK20172814140022","project_name":"","survey_name":"\u5317\u6d77\u9053\u6a2a\u65ad\u81ea\u52d5\u8eca\u9053\u3000\u9678\u5225\u753a\u3000\u4e0a\u5229\u5225\u5730\u8cea\u8abf\u67fb\u696d\u52d9","client_name":"\"\u5317\u6d77\u9053\u958b\u767a\u5c40 \u5e2f\u5e83\u958b\u767a\u5efa\u8a2d\u90e8 \u8db3\u5bc4\u9053\u8def\u4e8b\u52d9\u6240\"","boring_xml_url":61,"boring_view_url":1,"soilmap_view_url":null,"soiltest_xml_url":0,"soiltest_view_url":0},{"id":502205,"code":"B4KJ202201000-4741","latitude":"43.445583","longitude":"143.738833","source_code":"HK20172814140021","project_name":"","survey_name":"\u5317\u6d77\u9053\u6a2a\u65ad\u81ea\u52d5\u8eca\u9053\u3000\u9678\u5225\u753a\u3000\u4e0a\u5229\u5225\u5730\u8cea\u8abf\u67fb\u696d\u52d9","client_name":"\"\u5317\u6d77\u9053\u958b\u767a\u5c40 \u5e2f\u5e83\u958b\u767a\u5efa\u8a2d\u90e8 \u8db3\u5bc4\u9053\u8def\u4e8b\u52d9\u6240\"","boring_xml_url":61,"boring_view_url":1,"soilmap_view_url":null,"soiltest_xml_url":0,"soiltest_view_url":0},{"id":502204,"code":"B4KJ202201000-4740","latitude":"43.444861","longitude":"143.738944","source_code":"HK20172814140020","project_name":"","survey_name":"\u5317\u6d77\u9053\u6a2a\u65ad\u81ea\u52d5\u8eca\u9053\u3000\u9678\u5225\u753a\u3000\u4e0a\u5229\u5225\u5730\u8cea\u8abf\u67fb\u696d\u52d9","client_name":"\"\u5317\u6d77\u9053\u958b\u767a\u5c40 \u5e2f\u5e83\u958b\u767a\u5efa\u8a2d\u90e8 \u8db3\u5bc4\u9053\u8def\u4e8b\u52d9\u6240\"","boring_xml_url":61,"boring_view_url":1,"soilmap_view_url":null,"soiltest_xml_url":0,"soiltest_view_url":0},{"id":502203,"code":"B4KJ202201000-4739","latitude":"43.444889","longitude":"143.738778","source_code":"HK20172814140019","project_name":"","survey_name":"\u5317\u6d77\u9053\u6a2a\u65ad\u81ea\u52d5\u8eca\u9053\u3000\u9678\u5225\u753a\u3000\u4e0a\u5229\u5225\u5730\u8cea\u8abf\u67fb\u696d\u52d9","client_name":"\"\u5317\u6d77\u9053\u958b\u767a\u5c40 \u5e2f\u5e83\u958b\u767a\u5efa\u8a2d\u90e8 \u8db3\u5bc4\u9053\u8def\u4e8b\u52d9\u6240\"","boring_xml_url":61,"boring_view_url":1,"soilmap_view_url":null,"soiltest_xml_url":0,"soiltest_view_url":0},{"id":502202,"code":"B4KJ202201000-4738","latitude":"43.444278","longitude":"143.738861","source_code":"HK20172814140018","project_name":"","survey_name":"\u5317\u6d77\u9053\u6a2a\u65ad\u81ea\u52d5\u8eca\u9053\u3000\u9678\u5225\u753a\u3000\u4e0a\u5229\u5225\u5730\u8cea\u8abf\u67fb\u696d\u52d9","client_name":"\"\u5317\u6d77\u9053\u958b\u767a\u5c40 \u5e2f\u5e83\u958b\u767a\u5efa\u8a2d\u90e8 \u8db3\u5bc4\u9053\u8def\u4e8b\u52d9\u6240\"","boring_xml_url":61,"boring_view_url":1,"soilmap_view_url":null,"soiltest_xml_url":0,"soiltest_view_url":0},{"id":502201,"code":"B4KJ202201000-4737","latitude":"43.443028","longitude":"143.738","source_code":"HK20172814140017","project_name":"","survey_name":"\u5317\u6d77\u9053\u6a2a\u65ad\u81ea\u52d5\u8eca\u9053\u3000\u9678\u5225\u753a\u3000\u4e0a\u5229\u5225\u5730\u8cea\u8abf\u67fb","client_name":"\"\u5317\u6d77\u9053\u958b\u767a\u5c40 \u5e2f\u5e83\u958b\u767a\u5efa\u8a2d\u90e8 \u8db3\u5bc4\u9053\u8def\u4e8b\u52d9\u6240\"","boring_xml_url":61,"boring_view_url":1,"soilmap_view_url":null,"soiltest_xml_url":0,"soiltest_view_url":0},{"id":502200,"code":"B4KJ202201000-4736","latitude":"43.441806","longitude":"143.738528","source_code":"HK20172814140016","project_name":"","survey_name":"\u5317\u6d77\u9053\u6a2a\u65ad\u81ea\u52d5\u8eca\u9053\u3000\u9678\u5225\u753a\u3000\u4e0a\u5229\u5225\u5730\u8cea\u8abf\u67fb","client_name":"\"\u5317\u6d77\u9053\u958b\u767a\u5c40 \u5e2f\u5e83\u958b\u767a\u5efa\u8a2d\u90e8 \u8db3\u5bc4\u9053\u8def\u4e8b\u52d9\u6240\"","boring_xml_url":61,"boring_view_url":1,"soilmap_view_url":null,"soiltest_xml_url":0,"soiltest_view_url":0},{"id":502199,"code":"B4KJ202201000-4735","latitude":"43.442056","longitude":"143.737444","source_code":"HK20172814140015","project_name":"","survey_name":"\u5317\u6d77\u9053\u6a2a\u65ad\u81ea\u52d5\u8eca\u9053\u3000\u9678\u5225\u753a\u3000\u4e0a\u5229\u5225\u5730\u8cea\u8abf\u67fb","client_name":"\"\u5317\u6d77\u9053\u958b\u767a\u5c40 \u5e2f\u5e83\u958b\u767a\u5efa\u8a2d\u90e8 \u8db3\u5bc4\u9053\u8def\u4e8b\u52d9\u6240\"","boring_xml_url":61,"boring_view_url":1,"soilmap_view_url":null,"soiltest_xml_url":0,"soiltest_view_url":0},{"id":502198,"code":"B4KJ202201000-4734","latitude":"43.440861","longitude":"143.738139","source_code":"HK20172814140014","project_name":"","survey_name":"\u5317\u6d77\u9053\u6a2a\u65ad\u81ea\u52d5\u8eca\u9053\u3000\u9678\u5225\u753a\u3000\u4e0a\u5229\u5225\u5730\u8cea\u8abf\u67fb","client_name":"\"\u5317\u6d77\u9053\u958b\u767a\u5c40 \u5e2f\u5e83\u958b\u767a\u5efa\u8a2d\u90e8 \u8db3\u5bc4\u9053\u8def\u4e8b\u52d9\u6240\"","boring_xml_url":61,"boring_view_url":1,"soilmap_view_url":null,"soiltest_xml_url":0,"soiltest_view_url":0},{"id":502197,"code":"B4KJ202201000-4733","latitude":"43.441083","longitude":"143.737139","source_code":"HK20172814140013","project_name":"","survey_name":"\u5317\u6d77\u9053\u6a2a\u65ad\u81ea\u52d5\u8eca\u9053\u3000\u9678\u5225\u753a\u3000\u4e0a\u5229\u5225\u5730\u8cea\u8abf\u67fb","client_name":"\"\u5317\u6d77\u9053\u958b\u767a\u5c40 \u5e2f\u5e83\u958b\u767a\u5efa\u8a2d\u90e8 \u8db3\u5bc4\u9053\u8def\u4e8b\u52d9\u6240\"","boring_xml_url":61,"boring_view_url":1,"soilmap_view_url":null,"soiltest_xml_url":0,"soiltest_view_url":0},{"id":502196,"code":"B4KJ202201000-4732","latitude":"43.440111","longitude":"143.736833","source_code":"HK20172814140012","project_name":"","survey_name":"\u5317\u6d77\u9053\u6a2a\u65ad\u81ea\u52d5\u8eca\u9053\u3000\u9678\u5225\u753a\u3000\u4e0a\u5229\u5225\u5730\u8cea\u8abf\u67fb\u696d\u52d9","client_name":"\"\u5317\u6d77\u9053\u958b\u767a\u5c40 \u5e2f\u5e83\u958b\u767a\u5efa\u8a2d\u90e8 \u8db3\u5bc4\u9053\u8def\u4e8b\u52d9\u6240\"","boring_xml_url":61,"boring_view_url":1,"soilmap_view_url":null,"soiltest_xml_url":0,"soiltest_view_url":0},{"id":502195,"code":"B4KJ202201000-4731","latitude":"43.439528","longitude":"143.737417","source_code":"HK20172814140011","project_name":"","survey_name":"\u5317\u6d77\u9053\u6a2a\u65ad\u81ea\u52d5\u8eca\u9053\u3000\u9678\u5225\u753a\u3000\u4e0a\u5229\u5225\u5730\u8cea\u8abf\u67fb","client_name":"\"\u5317\u6d77\u9053\u958b\u767a\u5c40 \u5e2f\u5e83\u958b\u767a\u5efa\u8a2d\u90e8 \u8db3\u5bc4\u9053\u8def\u4e8b\u52d9\u6240\"","boring_xml_url":61,"boring_view_url":1,"soilmap_view_url":null,"soiltest_xml_url":0,"soiltest_view_url":0},{"id":502194,"code":"B4KJ202201000-4730","latitude":"43.435667","longitude":"143.733889","source_code":"HK20172814140010","project_name":"","survey_name":"\u5317\u6d77\u9053\u6a2a\u65ad\u81ea\u52d5\u8eca\u9053\u3000\u9678\u5225\u753a\u3000\u4e0a\u5229\u5225\u5730\u8cea\u8abf\u67fb","client_name":"\"\u5317\u6d77\u9053\u958b\u767a\u5c40 \u5e2f\u5e83\u958b\u767a\u5efa\u8a2d\u90e8 \u8db3\u5bc4\u9053\u8def\u4e8b\u52d9\u6240\"","boring_xml_url":61,"boring_view_url":1,"soilmap_view_url":null,"soiltest_xml_url":0,"soiltest_view_url":0},{"id":502193,"code":"B4KJ202201000-4729","latitude":"43.4335","longitude":"143.732083","source_code":"HK20172814140009","project_name":"","survey_name":"\u5317\u6d77\u9053\u6a2a\u65ad\u81ea\u52d5\u8eca\u9053\u3000\u9678\u5225\u753a\u3000\u4e0a\u5229\u5225\u5730\u8cea\u8abf\u67fb","client_name":"\"\u5317\u6d77\u9053\u958b\u767a\u5c40 \u5e2f\u5e83\u958b\u767a\u5efa\u8a2d\u90e8 \u8db3\u5bc4\u9053\u8def\u4e8b\u52d9\u6240\"","boring_xml_url":61,"boring_view_url":1,"soilmap_view_url":null,"soiltest_xml_url":0,"soiltest_view_url":0},{"id":502192,"code":"B4KJ202201000-4728","latitude":"43.426389","longitude":"143.726861","source_code":"HK20172814140008","project_name":"","survey_name":"\u5317\u6d77\u9053\u6a2a\u65ad\u81ea\u52d5\u8eca\u9053\u3000\u9678\u5225\u753a\u3000\u4e0a\u5229\u5225\u5730\u8cea\u8abf\u67fb","client_name":"\"\u5317\u6d77\u9053\u958b\u767a\u5c40 \u5e2f\u5e83\u958b\u767a\u5efa\u8a2d\u90e8 \u8db3\u5bc4\u9053\u8def\u4e8b\u52d9\u6240\"","boring_xml_url":61,"boring_view_url":1,"soilmap_view_url":null,"soiltest_xml_url":0,"soiltest_view_url":0},{"id":502191,"code":"B4KJ202201000-4727","latitude":"43.424583","longitude":"143.725444","source_code":"HK20172814140007","project_name":"","survey_name":"\u5317\u6d77\u9053\u6a2a\u65ad\u81ea\u52d5\u8eca\u9053\u3000\u9678\u5225\u753a\u3000\u4e0a\u5229\u5225\u5730\u8cea\u8abf\u67fb\u696d\u52d9","client_name":"\"\u5317\u6d77\u9053\u958b\u767a\u5c40 \u5e2f\u5e83\u958b\u767a\u5efa\u8a2d\u90e8 \u8db3\u5bc4\u9053\u8def\u4e8b\u52d9\u6240\"","boring_xml_url":61,"boring_view_url":1,"soilmap_view_url":null,"soiltest_xml_url":0,"soiltest_view_url":0}]}}