{"header":{"xyz":{"source":[],"mosaic":false},"page":1441,"raw":{"soiltest_result":"0","bbox":"57.598333,109.544722,1.933333,163.806111","page":"1441"},"conditions":{"soiltest_result":0,"north":57.598333,"west":109.544722,"south":1.933333,"east":163.806111},"success":true,"message":""},"data":{"meta":{"total":212844,"page":1441,"pages":7095,"count":30},"values":[{"id":502160,"code":"B4KJ202201000-4696","latitude":"43.477617","longitude":"143.736106","source_code":"HK20172814050016","project_name":"","survey_name":"\u5317\u6d77\u9053\u6a2a\u65ad\u81ea\u52d5\u8eca\u9053\u3000\u9678\u5225\u753a\u3000\u9678\u5225\u5730\u8cea\u8abf\u67fb\u696d\u52d9","client_name":"\u5e2f\u5e83\u958b\u767a\u5efa\u8a2d\u90e8\u3000\u8db3\u5bc4\u9053\u8def\u4e8b\u52d9\u6240","boring_xml_url":61,"boring_view_url":1,"soilmap_view_url":null,"soiltest_xml_url":0,"soiltest_view_url":0},{"id":502159,"code":"B4KJ202201000-4695","latitude":"43.477608","longitude":"143.736686","source_code":"HK20172814050015","project_name":"","survey_name":"\u5317\u6d77\u9053\u6a2a\u65ad\u81ea\u52d5\u8eca\u9053\u3000\u9678\u5225\u753a\u3000\u9678\u5225\u5730\u8cea\u8abf\u67fb\u696d\u52d9","client_name":"\u5e2f\u5e83\u958b\u767a\u5efa\u8a2d\u90e8\u3000\u8db3\u5bc4\u9053\u8def\u4e8b\u52d9\u6240","boring_xml_url":61,"boring_view_url":1,"soilmap_view_url":null,"soiltest_xml_url":0,"soiltest_view_url":0},{"id":502158,"code":"B4KJ202201000-4694","latitude":"43.477475","longitude":"143.737619","source_code":"HK20172814050014","project_name":"","survey_name":"\u5317\u6d77\u9053\u6a2a\u65ad\u81ea\u52d5\u8eca\u9053\u3000\u9678\u5225\u753a\u3000\u9678\u5225\u5730\u8cea\u8abf\u67fb\u696d\u52d9","client_name":"\u5e2f\u5e83\u958b\u767a\u5efa\u8a2d\u90e8\u3000\u8db3\u5bc4\u9053\u8def\u4e8b\u52d9\u6240","boring_xml_url":61,"boring_view_url":1,"soilmap_view_url":null,"soiltest_xml_url":0,"soiltest_view_url":0},{"id":502157,"code":"B4KJ202201000-4693","latitude":"43.477328","longitude":"143.737817","source_code":"HK20172814050013","project_name":"","survey_name":"\u5317\u6d77\u9053\u6a2a\u65ad\u81ea\u52d5\u8eca\u9053\u3000\u9678\u5225\u753a\u3000\u9678\u5225\u5730\u8cea\u8abf\u67fb\u696d\u52d9","client_name":"\u5e2f\u5e83\u958b\u767a\u5efa\u8a2d\u90e8\u3000\u8db3\u5bc4\u9053\u8def\u4e8b\u52d9\u6240","boring_xml_url":61,"boring_view_url":1,"soilmap_view_url":null,"soiltest_xml_url":0,"soiltest_view_url":0},{"id":502156,"code":"B4KJ202201000-4692","latitude":"43.477578","longitude":"143.737278","source_code":"HK20172814050012","project_name":"","survey_name":"\u5317\u6d77\u9053\u6a2a\u65ad\u81ea\u52d5\u8eca\u9053\u3000\u9678\u5225\u753a\u3000\u9678\u5225\u5730\u8cea\u8abf\u67fb\u696d\u52d9","client_name":"\u5e2f\u5e83\u958b\u767a\u5efa\u8a2d\u90e8\u3000\u8db3\u5bc4\u9053\u8def\u4e8b\u52d9\u6240","boring_xml_url":61,"boring_view_url":1,"soilmap_view_url":null,"soiltest_xml_url":0,"soiltest_view_url":0},{"id":502155,"code":"B4KJ202201000-4691","latitude":"43.477297","longitude":"143.737167","source_code":"HK20172814050011","project_name":"","survey_name":"\u5317\u6d77\u9053\u6a2a\u65ad\u81ea\u52d5\u8eca\u9053\u3000\u9678\u5225\u753a\u3000\u9678\u5225\u5730\u8cea\u8abf\u67fb\u696d\u52d9","client_name":"\u5e2f\u5e83\u958b\u767a\u5efa\u8a2d\u90e8\u3000\u8db3\u5bc4\u9053\u8def\u4e8b\u52d9\u6240","boring_xml_url":61,"boring_view_url":1,"soilmap_view_url":null,"soiltest_xml_url":0,"soiltest_view_url":0},{"id":502154,"code":"B4KJ202201000-4690","latitude":"43.474739","longitude":"143.734519","source_code":"HK20172814050010","project_name":"","survey_name":"\u5317\u6d77\u9053\u6a2a\u65ad\u81ea\u52d5\u8eca\u9053\u3000\u9678\u5225\u753a\u3000\u9678\u5225\u5730\u8cea\u8abf\u67fb\u696d\u52d9","client_name":"\u5e2f\u5e83\u958b\u767a\u5efa\u8a2d\u90e8\u3000\u8db3\u5bc4\u9053\u8def\u4e8b\u52d9\u6240","boring_xml_url":61,"boring_view_url":1,"soilmap_view_url":null,"soiltest_xml_url":0,"soiltest_view_url":0},{"id":502153,"code":"B4KJ202201000-4689","latitude":"43.474797","longitude":"143.733314","source_code":"HK20172814050009","project_name":"","survey_name":"\u5317\u6d77\u9053\u6a2a\u65ad\u81ea\u52d5\u8eca\u9053\u3000\u9678\u5225\u753a\u3000\u9678\u5225\u5730\u8cea\u8abf\u67fb\u696d\u52d9","client_name":"\u5e2f\u5e83\u958b\u767a\u5efa\u8a2d\u90e8\u3000\u8db3\u5bc4\u9053\u8def\u4e8b\u52d9\u6240","boring_xml_url":61,"boring_view_url":1,"soilmap_view_url":null,"soiltest_xml_url":0,"soiltest_view_url":0},{"id":502152,"code":"B4KJ202201000-4688","latitude":"43.473464","longitude":"143.7347","source_code":"HK20172814050008","project_name":"","survey_name":"\u5317\u6d77\u9053\u6a2a\u65ad\u81ea\u52d5\u8eca\u9053\u3000\u9678\u5225\u753a\u3000\u9678\u5225\u5730\u8cea\u8abf\u67fb\u696d\u52d9","client_name":"\u5e2f\u5e83\u958b\u767a\u5efa\u8a2d\u90e8\u3000\u8db3\u5bc4\u9053\u8def\u4e8b\u52d9\u6240","boring_xml_url":61,"boring_view_url":1,"soilmap_view_url":null,"soiltest_xml_url":0,"soiltest_view_url":0},{"id":502151,"code":"B4KJ202201000-4687","latitude":"43.473269","longitude":"143.733481","source_code":"HK20172814050007","project_name":"","survey_name":"\u5317\u6d77\u9053\u6a2a\u65ad\u81ea\u52d5\u8eca\u9053\u3000\u9678\u5225\u753a\u3000\u9678\u5225\u5730\u8cea\u8abf\u67fb\u696d\u52d9","client_name":"\u5e2f\u5e83\u958b\u767a\u5efa\u8a2d\u90e8\u3000\u8db3\u5bc4\u9053\u8def\u4e8b\u52d9\u6240","boring_xml_url":61,"boring_view_url":1,"soilmap_view_url":null,"soiltest_xml_url":0,"soiltest_view_url":0},{"id":502150,"code":"B4KJ202201000-4686","latitude":"43.468658","longitude":"143.73385","source_code":"HK20172814050006","project_name":"","survey_name":"\u5317\u6d77\u9053\u6a2a\u65ad\u81ea\u52d5\u8eca\u9053\u3000\u9678\u5225\u753a\u3000\u9678\u5225\u5730\u8cea\u8abf\u67fb\u696d\u52d9","client_name":"\u5e2f\u5e83\u958b\u767a\u5efa\u8a2d\u90e8\u3000\u8db3\u5bc4\u9053\u8def\u4e8b\u52d9\u6240","boring_xml_url":61,"boring_view_url":1,"soilmap_view_url":null,"soiltest_xml_url":0,"soiltest_view_url":0},{"id":502149,"code":"B4KJ202201000-4685","latitude":"43.469014","longitude":"143.733097","source_code":"HK20172814050005","project_name":"","survey_name":"\u5317\u6d77\u9053\u6a2a\u65ad\u81ea\u52d5\u8eca\u9053\u3000\u9678\u5225\u753a\u3000\u9678\u5225\u5730\u8cea\u8abf\u67fb\u696d\u52d9","client_name":"\u5e2f\u5e83\u958b\u767a\u5efa\u8a2d\u90e8\u3000\u8db3\u5bc4\u9053\u8def\u4e8b\u52d9\u6240","boring_xml_url":61,"boring_view_url":1,"soilmap_view_url":null,"soiltest_xml_url":0,"soiltest_view_url":0},{"id":502148,"code":"B4KJ202201000-4684","latitude":"43.454506","longitude":"143.737336","source_code":"HK20172814050004","project_name":"","survey_name":"\u5317\u6d77\u9053\u6a2a\u65ad\u81ea\u52d5\u8eca\u9053\u3000\u9678\u5225\u753a\u3000\u9678\u5225\u5730\u8cea\u8abf\u67fb\u696d\u52d9","client_name":"\u5e2f\u5e83\u958b\u767a\u5efa\u8a2d\u90e8\u3000\u8db3\u5bc4\u9053\u8def\u4e8b\u52d9\u6240","boring_xml_url":61,"boring_view_url":1,"soilmap_view_url":null,"soiltest_xml_url":0,"soiltest_view_url":0},{"id":502147,"code":"B4KJ202201000-4683","latitude":"43.454167","longitude":"143.737494","source_code":"HK20172814050003","project_name":"","survey_name":"\u5317\u6d77\u9053\u6a2a\u65ad\u81ea\u52d5\u8eca\u9053\u3000\u9678\u5225\u753a\u3000\u9678\u5225\u5730\u8cea\u8abf\u67fb\u696d\u52d9","client_name":"\u5e2f\u5e83\u958b\u767a\u5efa\u8a2d\u90e8\u3000\u8db3\u5bc4\u9053\u8def\u4e8b\u52d9\u6240","boring_xml_url":61,"boring_view_url":1,"soilmap_view_url":null,"soiltest_xml_url":0,"soiltest_view_url":0},{"id":502146,"code":"B4KJ202201000-4682","latitude":"43.453653","longitude":"143.737722","source_code":"HK20172814050002","project_name":"","survey_name":"\u5317\u6d77\u9053\u6a2a\u65ad\u81ea\u52d5\u8eca\u9053\u3000\u9678\u5225\u753a\u3000\u9678\u5225\u5730\u8cea\u8abf\u67fb\u696d\u52d9","client_name":"\u5e2f\u5e83\u958b\u767a\u5efa\u8a2d\u90e8\u3000\u8db3\u5bc4\u9053\u8def\u4e8b\u52d9\u6240","boring_xml_url":61,"boring_view_url":1,"soilmap_view_url":null,"soiltest_xml_url":0,"soiltest_view_url":0},{"id":502145,"code":"B4KJ202201000-4681","latitude":"43.453131","longitude":"143.737939","source_code":"HK20172814050001","project_name":"","survey_name":"\u5317\u6d77\u9053\u6a2a\u65ad\u81ea\u52d5\u8eca\u9053\u3000\u9678\u5225\u753a\u3000\u9678\u5225\u5730\u8cea\u8abf\u67fb\u696d\u52d9","client_name":"\u5e2f\u5e83\u958b\u767a\u5efa\u8a2d\u90e8\u3000\u8db3\u5bc4\u9053\u8def\u4e8b\u52d9\u6240","boring_xml_url":61,"boring_view_url":1,"soilmap_view_url":null,"soiltest_xml_url":0,"soiltest_view_url":0},{"id":502144,"code":"B4KJ202201000-4680","latitude":"42.908297","longitude":"143.271024","source_code":"HK20172810620017","project_name":"\u5e2f\u5e83\u6cb3\u5ddd\u4e8b\u52d9\u6240\u7ba1\u5185\u571f\u8cea\u8abf\u67fb","survey_name":"\u5e2f\u5e83\u6cb3\u5ddd\u4e8b\u52d9\u6240\u7ba1\u5185\u571f\u8cea\u8abf\u67fb\u696d\u52d9","client_name":"\u56fd\u571f\u4ea4\u901a\u7701\u5317\u6d77\u9053\u958b\u767a\u5c40\u5e2f\u5e83\u958b\u767a\u5efa\u8a2d\u90e8\u5e2f\u5e83\u6cb3\u5ddd\u4e8b\u52d9\u6240","boring_xml_url":61,"boring_view_url":1,"soilmap_view_url":null,"soiltest_xml_url":0,"soiltest_view_url":0},{"id":502143,"code":"B4KJ202201000-4679","latitude":"42.90868","longitude":"143.27059","source_code":"HK20172810620016","project_name":"\u5e2f\u5e83\u6cb3\u5ddd\u4e8b\u52d9\u6240\u7ba1\u5185\u571f\u8cea\u8abf\u67fb","survey_name":"\u5e2f\u5e83\u6cb3\u5ddd\u4e8b\u52d9\u6240\u7ba1\u5185\u571f\u8cea\u8abf\u67fb\u696d\u52d9","client_name":"\u56fd\u571f\u4ea4\u901a\u7701\u5317\u6d77\u9053\u958b\u767a\u5c40\u5e2f\u5e83\u958b\u767a\u5efa\u8a2d\u90e8\u5e2f\u5e83\u6cb3\u5ddd\u4e8b\u52d9\u6240","boring_xml_url":61,"boring_view_url":1,"soilmap_view_url":null,"soiltest_xml_url":0,"soiltest_view_url":0},{"id":502142,"code":"B4KJ202201000-4678","latitude":"42.911554","longitude":"143.279354","source_code":"HK20172810620015","project_name":"\u5e2f\u5e83\u6cb3\u5ddd\u4e8b\u52d9\u6240\u7ba1\u5185\u571f\u8cea\u8abf\u67fb","survey_name":"\u5e2f\u5e83\u6cb3\u5ddd\u4e8b\u52d9\u6240\u7ba1\u5185\u571f\u8cea\u8abf\u67fb\u696d\u52d9","client_name":"\u56fd\u571f\u4ea4\u901a\u7701\u5317\u6d77\u9053\u958b\u767a\u5c40\u5e2f\u5e83\u958b\u767a\u5efa\u8a2d\u90e8\u5e2f\u5e83\u6cb3\u5ddd\u4e8b\u52d9\u6240","boring_xml_url":61,"boring_view_url":1,"soilmap_view_url":null,"soiltest_xml_url":0,"soiltest_view_url":0},{"id":502141,"code":"B4KJ202201000-4677","latitude":"42.913967","longitude":"143.28582","source_code":"HK20172810620014","project_name":"\u5e2f\u5e83\u6cb3\u5ddd\u4e8b\u52d9\u6240\u7ba1\u5185\u571f\u8cea\u8abf\u67fb","survey_name":"\u5e2f\u5e83\u6cb3\u5ddd\u4e8b\u52d9\u6240\u7ba1\u5185\u571f\u8cea\u8abf\u67fb\u696d\u52d9","client_name":"\u56fd\u571f\u4ea4\u901a\u7701\u5317\u6d77\u9053\u958b\u767a\u5c40\u5e2f\u5e83\u958b\u767a\u5efa\u8a2d\u90e8\u5e2f\u5e83\u6cb3\u5ddd\u4e8b\u52d9\u6240","boring_xml_url":61,"boring_view_url":1,"soilmap_view_url":null,"soiltest_xml_url":0,"soiltest_view_url":0},{"id":502140,"code":"B4KJ202201000-4676","latitude":"42.917249","longitude":"143.294494","source_code":"HK20172810620013","project_name":"\u5e2f\u5e83\u6cb3\u5ddd\u4e8b\u52d9\u6240\u7ba1\u5185\u571f\u8cea\u8abf\u67fb","survey_name":"\u5e2f\u5e83\u6cb3\u5ddd\u4e8b\u52d9\u6240\u7ba1\u5185\u571f\u8cea\u8abf\u67fb\u696d\u52d9","client_name":"\u56fd\u571f\u4ea4\u901a\u7701\u5317\u6d77\u9053\u958b\u767a\u5c40\u5e2f\u5e83\u958b\u767a\u5efa\u8a2d\u90e8\u5e2f\u5e83\u6cb3\u5ddd\u4e8b\u52d9\u6240","boring_xml_url":61,"boring_view_url":1,"soilmap_view_url":null,"soiltest_xml_url":0,"soiltest_view_url":0},{"id":502139,"code":"B4KJ202201000-4675","latitude":"42.917661","longitude":"143.294266","source_code":"HK20172810620012","project_name":"\u5e2f\u5e83\u6cb3\u5ddd\u4e8b\u52d9\u6240\u7ba1\u5185\u571f\u8cea\u8abf\u67fb","survey_name":"\u5e2f\u5e83\u6cb3\u5ddd\u4e8b\u52d9\u6240\u7ba1\u5185\u571f\u8cea\u8abf\u67fb\u696d\u52d9","client_name":"\u56fd\u571f\u4ea4\u901a\u7701\u5317\u6d77\u9053\u958b\u767a\u5c40\u5e2f\u5e83\u958b\u767a\u5efa\u8a2d\u90e8\u5e2f\u5e83\u6cb3\u5ddd\u4e8b\u52d9\u6240","boring_xml_url":61,"boring_view_url":1,"soilmap_view_url":null,"soiltest_xml_url":0,"soiltest_view_url":0},{"id":502138,"code":"B4KJ202201000-4674","latitude":"42.920416","longitude":"143.30332","source_code":"HK20172810620011","project_name":"\u5e2f\u5e83\u6cb3\u5ddd\u4e8b\u52d9\u6240\u7ba1\u5185\u571f\u8cea\u8abf\u67fb","survey_name":"\u5e2f\u5e83\u6cb3\u5ddd\u4e8b\u52d9\u6240\u7ba1\u5185\u571f\u8cea\u8abf\u67fb\u696d\u52d9","client_name":"\u56fd\u571f\u4ea4\u901a\u7701\u5317\u6d77\u9053\u958b\u767a\u5c40\u5e2f\u5e83\u958b\u767a\u5efa\u8a2d\u90e8\u5e2f\u5e83\u6cb3\u5ddd\u4e8b\u52d9\u6240","boring_xml_url":61,"boring_view_url":1,"soilmap_view_url":null,"soiltest_xml_url":0,"soiltest_view_url":0},{"id":502137,"code":"B4KJ202201000-4673","latitude":"42.954272","longitude":"143.209533","source_code":"HK20172810620010","project_name":"\u5e2f\u5e83\u6cb3\u5ddd\u4e8b\u52d9\u6240\u7ba1\u5185\u571f\u8cea\u8abf\u67fb","survey_name":"\u5e2f\u5e83\u6cb3\u5ddd\u4e8b\u52d9\u6240\u7ba1\u5185\u571f\u8cea\u8abf\u67fb\u696d\u52d9","client_name":"\u56fd\u571f\u4ea4\u901a\u7701\u5317\u6d77\u9053\u958b\u767a\u5c40\u5e2f\u5e83\u958b\u767a\u5efa\u8a2d\u90e8\u5e2f\u5e83\u6cb3\u5ddd\u4e8b\u52d9\u6240","boring_xml_url":61,"boring_view_url":1,"soilmap_view_url":null,"soiltest_xml_url":0,"soiltest_view_url":0},{"id":502136,"code":"B4KJ202201000-4672","latitude":"42.952301","longitude":"143.20707","source_code":"HK20172810620009","project_name":"\u5e2f\u5e83\u6cb3\u5ddd\u4e8b\u52d9\u6240\u7ba1\u5185\u571f\u8cea\u8abf\u67fb","survey_name":"\u5e2f\u5e83\u6cb3\u5ddd\u4e8b\u52d9\u6240\u7ba1\u5185\u571f\u8cea\u8abf\u67fb\u696d\u52d9","client_name":"\u56fd\u571f\u4ea4\u901a\u7701\u5317\u6d77\u9053\u958b\u767a\u5c40\u5e2f\u5e83\u958b\u767a\u5efa\u8a2d\u90e8\u5e2f\u5e83\u6cb3\u5ddd\u4e8b\u52d9\u6240","boring_xml_url":61,"boring_view_url":1,"soilmap_view_url":null,"soiltest_xml_url":0,"soiltest_view_url":0},{"id":502135,"code":"B4KJ202201000-4671","latitude":"42.952494","longitude":"143.207875","source_code":"HK20172810620008","project_name":"\u5e2f\u5e83\u6cb3\u5ddd\u4e8b\u52d9\u6240\u7ba1\u5185\u571f\u8cea\u8abf\u67fb","survey_name":"\u5e2f\u5e83\u6cb3\u5ddd\u4e8b\u52d9\u6240\u7ba1\u5185\u571f\u8cea\u8abf\u67fb\u696d\u52d9","client_name":"\u56fd\u571f\u4ea4\u901a\u7701\u5317\u6d77\u9053\u958b\u767a\u5c40\u5e2f\u5e83\u958b\u767a\u5efa\u8a2d\u90e8\u5e2f\u5e83\u6cb3\u5ddd\u4e8b\u52d9\u6240","boring_xml_url":61,"boring_view_url":1,"soilmap_view_url":null,"soiltest_xml_url":0,"soiltest_view_url":0},{"id":502134,"code":"B4KJ202201000-4670","latitude":"42.952182","longitude":"143.209087","source_code":"HK20172810620007","project_name":"\u5e2f\u5e83\u6cb3\u5ddd\u4e8b\u52d9\u6240\u7ba1\u5185\u571f\u8cea\u8abf\u67fb","survey_name":"\u5e2f\u5e83\u6cb3\u5ddd\u4e8b\u52d9\u6240\u7ba1\u5185\u571f\u8cea\u8abf\u67fb\u696d\u52d9","client_name":"\u56fd\u571f\u4ea4\u901a\u7701\u5317\u6d77\u9053\u958b\u767a\u5c40\u5e2f\u5e83\u958b\u767a\u5efa\u8a2d\u90e8\u5e2f\u5e83\u6cb3\u5ddd\u4e8b\u52d9\u6240","boring_xml_url":61,"boring_view_url":1,"soilmap_view_url":null,"soiltest_xml_url":0,"soiltest_view_url":0},{"id":502133,"code":"B4KJ202201000-4669","latitude":"42.95225","longitude":"143.20964","source_code":"HK20172810620006","project_name":"\u5e2f\u5e83\u6cb3\u5ddd\u4e8b\u52d9\u6240\u7ba1\u5185\u571f\u8cea\u8abf\u67fb","survey_name":"\u5e2f\u5e83\u6cb3\u5ddd\u4e8b\u52d9\u6240\u7ba1\u5185\u571f\u8cea\u8abf\u67fb\u696d\u52d9","client_name":"\u56fd\u571f\u4ea4\u901a\u7701\u5317\u6d77\u9053\u958b\u767a\u5c40\u5e2f\u5e83\u958b\u767a\u5efa\u8a2d\u90e8\u5e2f\u5e83\u6cb3\u5ddd\u4e8b\u52d9\u6240","boring_xml_url":61,"boring_view_url":1,"soilmap_view_url":null,"soiltest_xml_url":0,"soiltest_view_url":0},{"id":502132,"code":"B4KJ202201000-4668","latitude":"42.950894","longitude":"143.207821","source_code":"HK20172810620005","project_name":"\u5e2f\u5e83\u6cb3\u5ddd\u4e8b\u52d9\u6240\u7ba1\u5185\u571f\u8cea\u8abf\u67fb","survey_name":"\u5e2f\u5e83\u6cb3\u5ddd\u4e8b\u52d9\u6240\u7ba1\u5185\u571f\u8cea\u8abf\u67fb\u696d\u52d9","client_name":"\u56fd\u571f\u4ea4\u901a\u7701\u5317\u6d77\u9053\u958b\u767a\u5c40\u5e2f\u5e83\u958b\u767a\u5efa\u8a2d\u90e8\u5e2f\u5e83\u6cb3\u5ddd\u4e8b\u52d9\u6240","boring_xml_url":61,"boring_view_url":1,"soilmap_view_url":null,"soiltest_xml_url":0,"soiltest_view_url":0},{"id":502131,"code":"B4KJ202201000-4667","latitude":"42.950637","longitude":"143.208949","source_code":"HK20172810620004","project_name":"\u5e2f\u5e83\u6cb3\u5ddd\u4e8b\u52d9\u6240\u7ba1\u5185\u571f\u8cea\u8abf\u67fb","survey_name":"\u5e2f\u5e83\u6cb3\u5ddd\u4e8b\u52d9\u6240\u7ba1\u5185\u571f\u8cea\u8abf\u67fb\u696d\u52d9","client_name":"\u56fd\u571f\u4ea4\u901a\u7701\u5317\u6d77\u9053\u958b\u767a\u5c40\u5e2f\u5e83\u958b\u767a\u5efa\u8a2d\u90e8\u5e2f\u5e83\u6cb3\u5ddd\u4e8b\u52d9\u6240","boring_xml_url":61,"boring_view_url":1,"soilmap_view_url":null,"soiltest_xml_url":0,"soiltest_view_url":0}]}}