{"header":{"xyz":{"source":[],"mosaic":false},"page":1457,"raw":{"soiltest_result":"0","bbox":"57.598333,109.544722,1.933333,163.806111","page":"1457"},"conditions":{"soiltest_result":0,"north":57.598333,"west":109.544722,"south":1.933333,"east":163.806111},"success":true,"message":""},"data":{"meta":{"total":212844,"page":1457,"pages":7095,"count":30},"values":[{"id":501680,"code":"B4KJ202201000-4216","latitude":"43.521881","longitude":"142.223242","source_code":"HK20172156570005","project_name":"","survey_name":"\u4e00\u822c\u56fd\u9053452\u53f7\u82a6\u5225\u5e02\u5916\u5730\u8cea\u8abf\u67fb\u696d\u52d9","client_name":"\u5317\u6d77\u9053\u958b\u767a\u5c40\u3000\u672d\u5e4c\u958b\u767a\u5efa\u8a2d\u90e8","boring_xml_url":61,"boring_view_url":1,"soilmap_view_url":null,"soiltest_xml_url":0,"soiltest_view_url":0},{"id":501679,"code":"B4KJ202201000-4215","latitude":"43.521919","longitude":"142.223347","source_code":"HK20172156570004","project_name":"","survey_name":"\u4e00\u822c\u56fd\u9053452\u53f7\u82a6\u5225\u5e02\u5916\u5730\u8cea\u8abf\u67fb\u696d\u52d9","client_name":"\u5317\u6d77\u9053\u958b\u767a\u5c40\u3000\u672d\u5e4c\u958b\u767a\u5efa\u8a2d\u90e8","boring_xml_url":61,"boring_view_url":1,"soilmap_view_url":null,"soiltest_xml_url":0,"soiltest_view_url":0},{"id":501678,"code":"B4KJ202201000-4214","latitude":"43.609381","longitude":"141.378131","source_code":"HK20172156570003","project_name":"","survey_name":"\u4e00\u822c\u56fd\u9053452\u53f7\u82a6\u5225\u5e02\u5916\u5730\u8cea\u8abf\u67fb\u696d\u52d9","client_name":"\u5317\u6d77\u9053\u958b\u767a\u5c40\u3000\u672d\u5e4c\u958b\u767a\u5efa\u8a2d\u90e8","boring_xml_url":61,"boring_view_url":1,"soilmap_view_url":null,"soiltest_xml_url":0,"soiltest_view_url":0},{"id":501677,"code":"B4KJ202201000-4213","latitude":"43.568742","longitude":"141.381167","source_code":"HK20172156570002","project_name":"","survey_name":"\u4e00\u822c\u56fd\u9053452\u53f7\u82a6\u5225\u5e02\u5916\u5730\u8cea\u8abf\u67fb\u696d\u52d9","client_name":"\u5317\u6d77\u9053\u958b\u767a\u5c40\u3000\u672d\u5e4c\u958b\u767a\u5efa\u8a2d\u90e8","boring_xml_url":61,"boring_view_url":1,"soilmap_view_url":null,"soiltest_xml_url":0,"soiltest_view_url":0},{"id":501676,"code":"B4KJ202201000-4212","latitude":"43.567825","longitude":"141.380925","source_code":"HK20172156570001","project_name":"","survey_name":"\u4e00\u822c\u56fd\u9053452\u53f7\u82a6\u5225\u5e02\u5916\u5730\u8cea\u8abf\u67fb\u696d\u52d9","client_name":"\u5317\u6d77\u9053\u958b\u767a\u5c40\u3000\u672d\u5e4c\u958b\u767a\u5efa\u8a2d\u90e8","boring_xml_url":61,"boring_view_url":1,"soilmap_view_url":null,"soiltest_xml_url":0,"soiltest_view_url":0},{"id":501675,"code":"B4KJ202201000-4211","latitude":"43.556205","longitude":"142.289437","source_code":"HK20172156530004","project_name":"","survey_name":"\u4e00\u822c\u56fd\u9053452\u53f7\u3000\u82a6\u5225\u5e02\u3000\u76e4\u306e\u6ca2\u9053\u8def\u5730\u8cea\u8abf\u67fb\u696d\u52d9","client_name":"\u56fd\u571f\u4ea4\u901a\u7701\u5317\u6d77\u9053\u958b\u767a\u5c40\u672d\u5e4c\u958b\u767a\u5efa\u8a2d\u90e8\u6edd\u5ddd\u9053\u8def\u4e8b\u52d9\u6240","boring_xml_url":61,"boring_view_url":1,"soilmap_view_url":null,"soiltest_xml_url":0,"soiltest_view_url":0},{"id":501674,"code":"B4KJ202201000-4210","latitude":"43.556859","longitude":"142.287484","source_code":"HK20172156530003","project_name":"","survey_name":"\u4e00\u822c\u56fd\u9053452\u53f7\u3000\u82a6\u5225\u5e02\u3000\u76e4\u306e\u6ca2\u9053\u8def\u5730\u8cea\u8abf\u67fb\u696d\u52d9","client_name":"\u56fd\u571f\u4ea4\u901a\u7701\u5317\u6d77\u9053\u958b\u767a\u5c40\u672d\u5e4c\u958b\u767a\u5efa\u8a2d\u90e8\u6edd\u5ddd\u9053\u8def\u4e8b\u52d9\u6240","boring_xml_url":61,"boring_view_url":1,"soilmap_view_url":null,"soiltest_xml_url":0,"soiltest_view_url":0},{"id":501673,"code":"B4KJ202201000-4209","latitude":"43.556854","longitude":"142.287276","source_code":"HK20172156530002","project_name":"","survey_name":"\u4e00\u822c\u56fd\u9053452\u53f7\u3000\u82a6\u5225\u5e02\u3000\u76e4\u306e\u6ca2\u9053\u8def\u5730\u8cea\u8abf\u67fb\u696d\u52d9","client_name":"\u56fd\u571f\u4ea4\u901a\u7701\u5317\u6d77\u9053\u958b\u767a\u5c40\u672d\u5e4c\u958b\u767a\u5efa\u8a2d\u90e8\u6edd\u5ddd\u9053\u8def\u4e8b\u52d9\u6240","boring_xml_url":61,"boring_view_url":1,"soilmap_view_url":null,"soiltest_xml_url":0,"soiltest_view_url":0},{"id":501672,"code":"B4KJ202201000-4208","latitude":"43.556686","longitude":"142.287186","source_code":"HK20172156530001","project_name":"","survey_name":"\u4e00\u822c\u56fd\u9053452\u53f7\u3000\u82a6\u5225\u5e02\u3000\u76e4\u306e\u6ca2\u9053\u8def\u5730\u8cea\u8abf\u67fb\u696d\u52d9","client_name":"\u56fd\u571f\u4ea4\u901a\u7701\u5317\u6d77\u9053\u958b\u767a\u5c40\u672d\u5e4c\u958b\u767a\u5efa\u8a2d\u90e8\u6edd\u5ddd\u9053\u8def\u4e8b\u52d9\u6240","boring_xml_url":61,"boring_view_url":1,"soilmap_view_url":null,"soiltest_xml_url":0,"soiltest_view_url":0},{"id":501671,"code":"B4KJ202201000-4207","latitude":"43.570753","longitude":"142.248316","source_code":"HK20172156520003","project_name":"\u4e00\u822c\u56fd\u9053452\u53f7\u3000\u82a6\u5225\u5e02\u3000\u93e1\u30c8\u30f3\u30cd\u30eb\u5730\u8cea\u8abf\u67fb\u696d\u52d9","survey_name":"\u4e00\u822c\u56fd\u9053452\u53f7\u3000\u82a6\u5225\u5e02\u3000\u93e1\u30c8\u30f3\u30cd\u30eb\u5730\u8cea\u8abf\u67fb\u696d\u52d9","client_name":"\u56fd\u571f\u4ea4\u901a\u7701\u5317\u6d77\u9053\u958b\u767a\u5c40\u672d\u5e4c\u958b\u767a\u5efa\u8a2d\u90e8\u6edd\u5ddd\u9053\u8def\u4e8b\u52d9\u6240","boring_xml_url":61,"boring_view_url":1,"soilmap_view_url":null,"soiltest_xml_url":0,"soiltest_view_url":0},{"id":501670,"code":"B4KJ202201000-4206","latitude":"43.561123","longitude":"142.262009","source_code":"HK20172156520002","project_name":"\u4e00\u822c\u56fd\u9053452\u53f7\u3000\u82a6\u5225\u5e02\u3000\u93e1\u30c8\u30f3\u30cd\u30eb\u5730\u8cea\u8abf\u67fb\u696d\u52d9","survey_name":"\u4e00\u822c\u56fd\u9053452\u53f7\u3000\u82a6\u5225\u5e02\u3000\u93e1\u30c8\u30f3\u30cd\u30eb\u5730\u8cea\u8abf\u67fb\u696d\u52d9","client_name":"\u56fd\u571f\u4ea4\u901a\u7701\u5317\u6d77\u9053\u958b\u767a\u5c40\u672d\u5e4c\u958b\u767a\u5efa\u8a2d\u90e8\u6edd\u5ddd\u9053\u8def\u4e8b\u52d9\u6240","boring_xml_url":61,"boring_view_url":1,"soilmap_view_url":null,"soiltest_xml_url":0,"soiltest_view_url":0},{"id":501669,"code":"B4KJ202201000-4205","latitude":"43.562959","longitude":"142.261","source_code":"HK20172156520001","project_name":"\u4e00\u822c\u56fd\u9053452\u53f7\u3000\u82a6\u5225\u5e02\u3000\u93e1\u30c8\u30f3\u30cd\u30eb\u5730\u8cea\u8abf\u67fb\u696d\u52d9","survey_name":"\u4e00\u822c\u56fd\u9053452\u53f7\u3000\u82a6\u5225\u5e02\u3000\u93e1\u30c8\u30f3\u30cd\u30eb\u5730\u8cea\u8abf\u67fb\u696d\u52d9","client_name":"\u56fd\u571f\u4ea4\u901a\u7701\u5317\u6d77\u9053\u958b\u767a\u5c40\u672d\u5e4c\u958b\u767a\u5efa\u8a2d\u90e8\u6edd\u5ddd\u9053\u8def\u4e8b\u52d9\u6240","boring_xml_url":61,"boring_view_url":1,"soilmap_view_url":null,"soiltest_xml_url":0,"soiltest_view_url":0},{"id":501668,"code":"B4KJ202201000-4204","latitude":"43.108539","longitude":"141.226475","source_code":"HK20172100100004","project_name":"\u5927\u898f\u6a21\u571f\u7802\u79fb\u52d5","survey_name":"\u5927\u898f\u6a21\u571f\u7802\u79fb\u52d5\u5730\u8cea\u8abf\u67fb\u696d\u52d9","client_name":"\u56fd\u571f\u4ea4\u901a\u7701\u3000\u5317\u6d77\u9053\u958b\u767a\u5c40\u3000\u672d\u5e4c\u958b\u767a\u5efa\u8a2d\u90e8","boring_xml_url":61,"boring_view_url":1,"soilmap_view_url":null,"soiltest_xml_url":0,"soiltest_view_url":0},{"id":501667,"code":"B4KJ202201000-4203","latitude":"43.108539","longitude":"141.226475","source_code":"HK20172100100003","project_name":"\u5927\u898f\u6a21\u571f\u7802\u79fb\u52d5","survey_name":"\u5927\u898f\u6a21\u571f\u7802\u79fb\u52d5\u5730\u8cea\u8abf\u67fb\u696d\u52d9","client_name":"\u56fd\u571f\u4ea4\u901a\u7701\u3000\u5317\u6d77\u9053\u958b\u767a\u5c40\u3000\u672d\u5e4c\u958b\u767a\u5efa\u8a2d\u90e8","boring_xml_url":61,"boring_view_url":1,"soilmap_view_url":null,"soiltest_xml_url":0,"soiltest_view_url":0},{"id":501666,"code":"B4KJ202201000-4202","latitude":"43.111317","longitude":"141.230108","source_code":"HK20172100100002","project_name":"\u5927\u898f\u6a21\u571f\u7802\u79fb\u52d5","survey_name":"\u5927\u898f\u6a21\u571f\u7802\u79fb\u52d5\u5730\u8cea\u8abf\u67fb\u696d\u52d9","client_name":"\u56fd\u571f\u4ea4\u901a\u7701\u3000\u5317\u6d77\u9053\u958b\u767a\u5c40\u3000\u672d\u5e4c\u958b\u767a\u5efa\u8a2d\u90e8","boring_xml_url":61,"boring_view_url":1,"soilmap_view_url":null,"soiltest_xml_url":0,"soiltest_view_url":0},{"id":501665,"code":"B4KJ202201000-4201","latitude":"43.111317","longitude":"141.230108","source_code":"HK20172100100001","project_name":"\u5927\u898f\u6a21\u571f\u7802\u79fb\u52d5","survey_name":"\u5927\u898f\u6a21\u571f\u7802\u79fb\u52d5\u5730\u8cea\u8abf\u67fb\u696d\u52d9","client_name":"\u56fd\u571f\u4ea4\u901a\u7701\u3000\u5317\u6d77\u9053\u958b\u767a\u5c40\u3000\u672d\u5e4c\u958b\u767a\u5efa\u8a2d\u90e8","boring_xml_url":61,"boring_view_url":1,"soilmap_view_url":null,"soiltest_xml_url":0,"soiltest_view_url":0},{"id":501664,"code":"B4KJ202201000-4200","latitude":"44.31653","longitude":"142.158654","source_code":"HK20172100040005","project_name":"\uff3f","survey_name":"\u5e73\u621029\u5e74\u5ea6\u3000\u96e8\u7adc\u5ddd\u4e0a\u6d41\u5730\u8cea\u8abf\u67fb\u696d\u52d9","client_name":"\u56fd\u571f\u4ea4\u901a\u7701\u5317\u6d77\u9053\u958b\u767a\u5c40\u672d\u5e4c\u958b\u767a\u5efa\u8a2d\u90e8\u672c\u90e8","boring_xml_url":61,"boring_view_url":1,"soilmap_view_url":null,"soiltest_xml_url":0,"soiltest_view_url":0},{"id":501663,"code":"B4KJ202201000-4199","latitude":"44.316439","longitude":"142.157597","source_code":"HK20172100040004","project_name":"\uff3f","survey_name":"\u5e73\u621029\u5e74\u5ea6\u3000\u96e8\u7adc\u5ddd\u4e0a\u6d41\u5730\u8cea\u8abf\u67fb\u696d\u52d9","client_name":"\u56fd\u571f\u4ea4\u901a\u7701\u5317\u6d77\u9053\u958b\u767a\u5c40\u672d\u5e4c\u958b\u767a\u5efa\u8a2d\u90e8\u672c\u90e8","boring_xml_url":61,"boring_view_url":1,"soilmap_view_url":null,"soiltest_xml_url":0,"soiltest_view_url":0},{"id":501662,"code":"B4KJ202201000-4198","latitude":"44.317464","longitude":"142.155322","source_code":"HK20172100040003","project_name":"\uff3f","survey_name":"\u5e73\u621029\u5e74\u5ea6\u3000\u96e8\u7adc\u5ddd\u4e0a\u6d41\u5730\u8cea\u8abf\u67fb\u696d\u52d9","client_name":"\u56fd\u571f\u4ea4\u901a\u7701\u5317\u6d77\u9053\u958b\u767a\u5c40\u672d\u5e4c\u958b\u767a\u5efa\u8a2d\u90e8\u672c\u90e8","boring_xml_url":61,"boring_view_url":1,"soilmap_view_url":null,"soiltest_xml_url":0,"soiltest_view_url":0},{"id":501661,"code":"B4KJ202201000-4197","latitude":"44.316545","longitude":"142.15798","source_code":"HK20172100040002","project_name":"\uff3f","survey_name":"\u5e73\u621029\u5e74\u5ea6\u3000\u96e8\u7adc\u5ddd\u4e0a\u6d41\u5730\u8cea\u8abf\u67fb\u696d\u52d9","client_name":"\u56fd\u571f\u4ea4\u901a\u7701\u5317\u6d77\u9053\u958b\u767a\u5c40\u672d\u5e4c\u958b\u767a\u5efa\u8a2d\u90e8\u672c\u90e8","boring_xml_url":61,"boring_view_url":1,"soilmap_view_url":null,"soiltest_xml_url":0,"soiltest_view_url":0},{"id":501660,"code":"B4KJ202201000-4196","latitude":"44.316636","longitude":"142.156897","source_code":"HK20172100040001","project_name":"\uff3f","survey_name":"\u5e73\u621029\u5e74\u5ea6\u3000\u96e8\u7adc\u5ddd\u4e0a\u6d41\u5730\u8cea\u8abf\u67fb\u696d\u52d9","client_name":"\u56fd\u571f\u4ea4\u901a\u7701\u5317\u6d77\u9053\u958b\u767a\u5c40\u672d\u5e4c\u958b\u767a\u5efa\u8a2d\u90e8\u672c\u90e8","boring_xml_url":61,"boring_view_url":1,"soilmap_view_url":null,"soiltest_xml_url":0,"soiltest_view_url":0},{"id":501659,"code":"B4KJ202201000-4195","latitude":"43.959083","longitude":"144.837139","source_code":"HK20182923060009","project_name":"\"\u4e00\u822c\u56fd\u9053244\u53f7 \u5c0f\u6e05\u6c34\u753a\u4e2d\u5cf6\u6a4b \u5730\u8cea\u8abf\u67fb\"","survey_name":"\"\u4e00\u822c\u56fd\u9053244\u53f7 \u5c0f\u6e05\u6c34\u753a\u4e2d\u5cf6\u6a4b \u5730\u8cea\u8abf\u67fb\u5916\u4e00\u9023\u696d\u52d9\"","client_name":"\"\u5317\u6d77\u9053\u958b\u767a\u5c40 \u7db2\u8d70\u958b\u767a\u5efa\u8a2d\u90e8\"","boring_xml_url":61,"boring_view_url":1,"soilmap_view_url":null,"soiltest_xml_url":0,"soiltest_view_url":0},{"id":501658,"code":"B4KJ202201000-4194","latitude":"43.958356","longitude":"144.837022","source_code":"HK20182923060008","project_name":"\"\u4e00\u822c\u56fd\u9053244\u53f7 \u5c0f\u6e05\u6c34\u753a\u4e2d\u5cf6\u6a4b \u5730\u8cea\u8abf\u67fb\"","survey_name":"\"\u4e00\u822c\u56fd\u9053244\u53f7 \u5c0f\u6e05\u6c34\u753a\u4e2d\u5cf6\u6a4b \u5730\u8cea\u8abf\u67fb\u5916\u4e00\u9023\u696d\u52d9\"","client_name":"\"\u5317\u6d77\u9053\u958b\u767a\u5c40 \u7db2\u8d70\u958b\u767a\u5efa\u8a2d\u90e8\"","boring_xml_url":61,"boring_view_url":1,"soilmap_view_url":null,"soiltest_xml_url":0,"soiltest_view_url":0},{"id":501657,"code":"B4KJ202201000-4193","latitude":"43.830619","longitude":"144.232658","source_code":"HK20182923060007","project_name":"\"\u4e00\u822c\u56fd\u9053244\u53f7 \u5c0f\u6e05\u6c34\u753a\u4e2d\u5cf6\u6a4b \u5730\u8cea\u8abf\u67fb\"","survey_name":"\"\u4e00\u822c\u56fd\u9053244\u53f7 \u5c0f\u6e05\u6c34\u753a\u4e2d\u5cf6\u6a4b \u5730\u8cea\u8abf\u67fb\u5916\u4e00\u9023\u696d\u52d9\"","client_name":"\"\u5317\u6d77\u9053\u958b\u767a\u5c40 \u7db2\u8d70\u958b\u767a\u5efa\u8a2d\u90e8\"","boring_xml_url":61,"boring_view_url":1,"soilmap_view_url":null,"soiltest_xml_url":0,"soiltest_view_url":0},{"id":501656,"code":"B4KJ202201000-4192","latitude":"43.832236","longitude":"144.236744","source_code":"HK20182923060006","project_name":"\"\u4e00\u822c\u56fd\u9053244\u53f7 \u5c0f\u6e05\u6c34\u753a\u4e2d\u5cf6\u6a4b \u5730\u8cea\u8abf\u67fb\"","survey_name":"\"\u4e00\u822c\u56fd\u9053244\u53f7 \u5c0f\u6e05\u6c34\u753a\u4e2d\u5cf6\u6a4b \u5730\u8cea\u8abf\u67fb\u5916\u4e00\u9023\u696d\u52d9\"","client_name":"\"\u5317\u6d77\u9053\u958b\u767a\u5c40 \u7db2\u8d70\u958b\u767a\u5efa\u8a2d\u90e8\"","boring_xml_url":61,"boring_view_url":1,"soilmap_view_url":null,"soiltest_xml_url":0,"soiltest_view_url":0},{"id":501655,"code":"B4KJ202201000-4191","latitude":"43.833853","longitude":"144.241981","source_code":"HK20182923060005","project_name":"\"\u4e00\u822c\u56fd\u9053244\u53f7 \u5c0f\u6e05\u6c34\u753a\u4e2d\u5cf6\u6a4b \u5730\u8cea\u8abf\u67fb\"","survey_name":"\"\u4e00\u822c\u56fd\u9053244\u53f7 \u5c0f\u6e05\u6c34\u753a\u4e2d\u5cf6\u6a4b \u5730\u8cea\u8abf\u67fb\u5916\u4e00\u9023\u696d\u52d9\"","client_name":"\"\u5317\u6d77\u9053\u958b\u767a\u5c40 \u7db2\u8d70\u958b\u767a\u5efa\u8a2d\u90e8\"","boring_xml_url":61,"boring_view_url":1,"soilmap_view_url":null,"soiltest_xml_url":0,"soiltest_view_url":0},{"id":501654,"code":"B4KJ202201000-4190","latitude":"43.866983","longitude":"144.408331","source_code":"HK20182923060004","project_name":"\"\u4e00\u822c\u56fd\u9053244\u53f7 \u5c0f\u6e05\u6c34\u753a\u4e2d\u5cf6\u6a4b \u5730\u8cea\u8abf\u67fb\"","survey_name":"\"\u4e00\u822c\u56fd\u9053244\u53f7 \u5c0f\u6e05\u6c34\u753a\u4e2d\u5cf6\u6a4b \u5730\u8cea\u8abf\u67fb\u5916\u4e00\u9023\u696d\u52d9\"","client_name":"\"\u5317\u6d77\u9053\u958b\u767a\u5c40 \u7db2\u8d70\u958b\u767a\u5efa\u8a2d\u90e8\"","boring_xml_url":61,"boring_view_url":1,"soilmap_view_url":null,"soiltest_xml_url":0,"soiltest_view_url":0},{"id":501653,"code":"B4KJ202201000-4189","latitude":"43.867078","longitude":"144.40875","source_code":"HK20182923060003","project_name":"\"\u4e00\u822c\u56fd\u9053244\u53f7 \u5c0f\u6e05\u6c34\u753a\u4e2d\u5cf6\u6a4b \u5730\u8cea\u8abf\u67fb\"","survey_name":"\"\u4e00\u822c\u56fd\u9053244\u53f7 \u5c0f\u6e05\u6c34\u753a\u4e2d\u5cf6\u6a4b \u5730\u8cea\u8abf\u67fb\u5916\u4e00\u9023\u696d\u52d9\"","client_name":"\"\u5317\u6d77\u9053\u958b\u767a\u5c40 \u7db2\u8d70\u958b\u767a\u5efa\u8a2d\u90e8\"","boring_xml_url":61,"boring_view_url":1,"soilmap_view_url":null,"soiltest_xml_url":0,"soiltest_view_url":0},{"id":501652,"code":"B4KJ202201000-4188","latitude":"43.912033","longitude":"144.473594","source_code":"HK20182923060002","project_name":"\"\u4e00\u822c\u56fd\u9053244\u53f7 \u5c0f\u6e05\u6c34\u753a\u4e2d\u5cf6\u6a4b \u5730\u8cea\u8abf\u67fb\"","survey_name":"\"\u4e00\u822c\u56fd\u9053244\u53f7 \u5c0f\u6e05\u6c34\u753a\u4e2d\u5cf6\u6a4b \u5730\u8cea\u8abf\u67fb\u5916\u4e00\u9023\u696d\u52d9\"","client_name":"\"\u5317\u6d77\u9053\u958b\u767a\u5c40 \u7db2\u8d70\u958b\u767a\u5efa\u8a2d\u90e8\"","boring_xml_url":61,"boring_view_url":1,"soilmap_view_url":null,"soiltest_xml_url":0,"soiltest_view_url":0},{"id":501651,"code":"B4KJ202201000-4187","latitude":"43.912014","longitude":"144.473058","source_code":"HK20182923060001","project_name":"\"\u4e00\u822c\u56fd\u9053244\u53f7 \u5c0f\u6e05\u6c34\u753a\u4e2d\u5cf6\u6a4b \u5730\u8cea\u8abf\u67fb\"","survey_name":"\"\u4e00\u822c\u56fd\u9053244\u53f7 \u5c0f\u6e05\u6c34\u753a\u4e2d\u5cf6\u6a4b \u5730\u8cea\u8abf\u67fb\u5916\u4e00\u9023\u696d\u52d9\"","client_name":"\"\u5317\u6d77\u9053\u958b\u767a\u5c40 \u7db2\u8d70\u958b\u767a\u5efa\u8a2d\u90e8\"","boring_xml_url":61,"boring_view_url":1,"soilmap_view_url":null,"soiltest_xml_url":0,"soiltest_view_url":0}]}}