{"header":{"xyz":{"source":[],"mosaic":false},"page":1473,"raw":{"soiltest_result":"0","bbox":"57.598333,109.544722,1.933333,163.806111","page":"1473"},"conditions":{"soiltest_result":0,"north":57.598333,"west":109.544722,"south":1.933333,"east":163.806111},"success":true,"message":""},"data":{"meta":{"total":212844,"page":1473,"pages":7095,"count":30},"values":[{"id":501200,"code":"B4KJ202201000-3736","latitude":"41.798047","longitude":"140.806506","source_code":"HK20152310240003","project_name":"","survey_name":"\u51fd\u9928\u65b0\u5916\u74b0\u72b6\u9053\u8def\u3000\u51fd\u9928\u5e02\u3000\u4e0a\u6e6f\u5ddd\u5730\u533a\u5916\u5730\u8cea\u8abf\u67fb\u696d\u52d9","client_name":"\u51fd\u9928\u958b\u767a\u5efa\u8a2d\u90e8\u3000\u51fd\u9928\u9053\u8def\u4e8b\u52d9\u6240","boring_xml_url":61,"boring_view_url":1,"soilmap_view_url":null,"soiltest_xml_url":0,"soiltest_view_url":0},{"id":501199,"code":"B4KJ202201000-3735","latitude":"41.805519","longitude":"140.798161","source_code":"HK20152310240002","project_name":"","survey_name":"\u51fd\u9928\u65b0\u5916\u74b0\u72b6\u9053\u8def\u3000\u51fd\u9928\u5e02\u3000\u4e0a\u6e6f\u5ddd\u5730\u533a\u5916\u5730\u8cea\u8abf\u67fb\u696d\u52d9","client_name":"\u51fd\u9928\u958b\u767a\u5efa\u8a2d\u90e8\u3000\u51fd\u9928\u9053\u8def\u4e8b\u52d9\u6240","boring_xml_url":61,"boring_view_url":1,"soilmap_view_url":null,"soiltest_xml_url":0,"soiltest_view_url":0},{"id":501198,"code":"B4KJ202201000-3734","latitude":"41.804969","longitude":"140.798436","source_code":"HK20152310240001","project_name":"","survey_name":"\u51fd\u9928\u65b0\u5916\u74b0\u72b6\u9053\u8def\u3000\u51fd\u9928\u5e02\u3000\u4e0a\u6e6f\u5ddd\u5730\u533a\u5916\u5730\u8cea\u8abf\u67fb\u696d\u52d9","client_name":"\u51fd\u9928\u958b\u767a\u5efa\u8a2d\u90e8\u3000\u51fd\u9928\u9053\u8def\u4e8b\u52d9\u6240","boring_xml_url":61,"boring_view_url":1,"soilmap_view_url":null,"soiltest_xml_url":0,"soiltest_view_url":0},{"id":501197,"code":"B4KJ202201000-3733","latitude":"43.210797","longitude":"140.911567","source_code":"HK20152410130013","project_name":"","survey_name":"\u5e73\u621027\u5e74\u5ea6\u3000\u4e00\u822c\u56fd\u90535\u53f7\u4ec1\u6728\u753a\u3000\u9280\u5c71\u5730\u8cea\u8abf\u67fb\u696d\u52d9","client_name":"\u5317\u6d77\u9053\u958b\u767a\u5c40\u3000\u5c0f\u6a3d\u9053\u8def\u4e8b\u52d9\u6240","boring_xml_url":61,"boring_view_url":1,"soilmap_view_url":null,"soiltest_xml_url":0,"soiltest_view_url":0},{"id":501196,"code":"B4KJ202201000-3732","latitude":"43.047393","longitude":"140.709952","source_code":"HK20152410130012","project_name":"","survey_name":"\u5e73\u621027\u5e74\u5ea6\u3000\u4e00\u822c\u56fd\u90535\u53f7\u4ec1\u6728\u753a\u3000\u9280\u5c71\u5730\u8cea\u8abf\u67fb\u696d\u52d9","client_name":"\u5317\u6d77\u9053\u958b\u767a\u5c40\u3000\u5c0f\u6a3d\u9053\u8def\u4e8b\u52d9\u6240","boring_xml_url":61,"boring_view_url":1,"soilmap_view_url":null,"soiltest_xml_url":0,"soiltest_view_url":0},{"id":501195,"code":"B4KJ202201000-3731","latitude":"43.047291","longitude":"140.709598","source_code":"HK20152410130011","project_name":"","survey_name":"\u5e73\u621027\u5e74\u5ea6\u3000\u4e00\u822c\u56fd\u90535\u53f7\u4ec1\u6728\u753a\u3000\u9280\u5c71\u5730\u8cea\u8abf\u67fb\u696d\u52d9","client_name":"\u5317\u6d77\u9053\u958b\u767a\u5c40\u3000\u5c0f\u6a3d\u9053\u8def\u4e8b\u52d9\u6240","boring_xml_url":61,"boring_view_url":1,"soilmap_view_url":null,"soiltest_xml_url":0,"soiltest_view_url":0},{"id":501194,"code":"B4KJ202201000-3730","latitude":"43.079902","longitude":"140.719128","source_code":"HK20152410130010","project_name":"","survey_name":"\u5e73\u621027\u5e74\u5ea6\u3000\u4e00\u822c\u56fd\u90535\u53f7\u4ec1\u6728\u753a\u3000\u9280\u5c71\u5730\u8cea\u8abf\u67fb\u696d\u52d9","client_name":"\u5317\u6d77\u9053\u958b\u767a\u5c40\u3000\u5c0f\u6a3d\u9053\u8def\u4e8b\u52d9\u6240","boring_xml_url":61,"boring_view_url":1,"soilmap_view_url":null,"soiltest_xml_url":0,"soiltest_view_url":0},{"id":501193,"code":"B4KJ202201000-3729","latitude":"43.078989","longitude":"140.717389","source_code":"HK20152410130009","project_name":"","survey_name":"\u5e73\u621027\u5e74\u5ea6\u3000\u4e00\u822c\u56fd\u90535\u53f7\u4ec1\u6728\u753a\u3000\u9280\u5c71\u5730\u8cea\u8abf\u67fb\u696d\u52d9","client_name":"\u5317\u6d77\u9053\u958b\u767a\u5c40\u3000\u5c0f\u6a3d\u9053\u8def\u4e8b\u52d9\u6240","boring_xml_url":61,"boring_view_url":1,"soilmap_view_url":null,"soiltest_xml_url":0,"soiltest_view_url":0},{"id":501192,"code":"B4KJ202201000-3728","latitude":"43.062924","longitude":"140.710536","source_code":"HK20152410130008","project_name":"","survey_name":"\u5e73\u621027\u5e74\u5ea6\u3000\u4e00\u822c\u56fd\u90535\u53f7\u4ec1\u6728\u753a\u3000\u9280\u5c71\u5730\u8cea\u8abf\u67fb\u696d\u52d9","client_name":"\u5317\u6d77\u9053\u958b\u767a\u5c40\u3000\u5c0f\u6a3d\u9053\u8def\u4e8b\u52d9\u6240","boring_xml_url":61,"boring_view_url":1,"soilmap_view_url":null,"soiltest_xml_url":0,"soiltest_view_url":0},{"id":501191,"code":"B4KJ202201000-3727","latitude":"43.062994","longitude":"140.709825","source_code":"HK20152410130007","project_name":"","survey_name":"\u5e73\u621027\u5e74\u5ea6\u3000\u4e00\u822c\u56fd\u90535\u53f7\u4ec1\u6728\u753a\u3000\u9280\u5c71\u5730\u8cea\u8abf\u67fb\u696d\u52d9","client_name":"\u5317\u6d77\u9053\u958b\u767a\u5c40\u3000\u5c0f\u6a3d\u9053\u8def\u4e8b\u52d9\u6240","boring_xml_url":61,"boring_view_url":1,"soilmap_view_url":null,"soiltest_xml_url":0,"soiltest_view_url":0},{"id":501190,"code":"B4KJ202201000-3726","latitude":"43.057047","longitude":"140.709534","source_code":"HK20152410130006","project_name":"","survey_name":"\u5e73\u621027\u5e74\u5ea6\u3000\u4e00\u822c\u56fd\u90535\u53f7\u4ec1\u6728\u753a\u3000\u9280\u5c71\u5730\u8cea\u8abf\u67fb\u696d\u52d9","client_name":"\u5317\u6d77\u9053\u958b\u767a\u5c40\u3000\u5c0f\u6a3d\u9053\u8def\u4e8b\u52d9\u6240","boring_xml_url":61,"boring_view_url":1,"soilmap_view_url":null,"soiltest_xml_url":0,"soiltest_view_url":0},{"id":501189,"code":"B4KJ202201000-3725","latitude":"43.054561","longitude":"140.708994","source_code":"HK20152410130005","project_name":"","survey_name":"\u5e73\u621027\u5e74\u5ea6\u3000\u4e00\u822c\u56fd\u90535\u53f7\u4ec1\u6728\u753a\u3000\u9280\u5c71\u5730\u8cea\u8abf\u67fb\u696d\u52d9","client_name":"\u5317\u6d77\u9053\u958b\u767a\u5c40\u3000\u5c0f\u6a3d\u9053\u8def\u4e8b\u52d9\u6240","boring_xml_url":61,"boring_view_url":1,"soilmap_view_url":null,"soiltest_xml_url":0,"soiltest_view_url":0},{"id":501188,"code":"B4KJ202201000-3724","latitude":"43.048949","longitude":"140.709015","source_code":"HK20152410130004","project_name":"","survey_name":"\u5e73\u621027\u5e74\u5ea6\u3000\u4e00\u822c\u56fd\u90535\u53f7\u4ec1\u6728\u753a\u3000\u9280\u5c71\u5730\u8cea\u8abf\u67fb\u696d\u52d9","client_name":"\u5317\u6d77\u9053\u958b\u767a\u5c40\u3000\u5c0f\u6a3d\u9053\u8def\u4e8b\u52d9\u6240","boring_xml_url":61,"boring_view_url":1,"soilmap_view_url":null,"soiltest_xml_url":0,"soiltest_view_url":0},{"id":501187,"code":"B4KJ202201000-3723","latitude":"43.048487","longitude":"140.708915","source_code":"HK20152410130003","project_name":"","survey_name":"\u5e73\u621027\u5e74\u5ea6\u3000\u4e00\u822c\u56fd\u90535\u53f7\u4ec1\u6728\u753a\u3000\u9280\u5c71\u5730\u8cea\u8abf\u67fb\u696d\u52d9","client_name":"\u5317\u6d77\u9053\u958b\u767a\u5c40\u3000\u5c0f\u6a3d\u9053\u8def\u4e8b\u52d9\u6240","boring_xml_url":61,"boring_view_url":1,"soilmap_view_url":null,"soiltest_xml_url":0,"soiltest_view_url":0},{"id":501186,"code":"B4KJ202201000-3722","latitude":"43.048257","longitude":"140.709085","source_code":"HK20152410130002","project_name":"","survey_name":"\u5e73\u621027\u5e74\u5ea6\u3000\u4e00\u822c\u56fd\u90535\u53f7\u4ec1\u6728\u753a\u3000\u9280\u5c71\u5730\u8cea\u8abf\u67fb\u696d\u52d9","client_name":"\u5317\u6d77\u9053\u958b\u767a\u5c40\u3000\u5c0f\u6a3d\u9053\u8def\u4e8b\u52d9\u6240","boring_xml_url":61,"boring_view_url":1,"soilmap_view_url":null,"soiltest_xml_url":0,"soiltest_view_url":0},{"id":501185,"code":"B4KJ202201000-3721","latitude":"43.04796","longitude":"140.708306","source_code":"HK20152410130001","project_name":"","survey_name":"\u5e73\u621027\u5e74\u5ea6\u3000\u4e00\u822c\u56fd\u90535\u53f7\u4ec1\u6728\u753a\u3000\u9280\u5c71\u5730\u8cea\u8abf\u67fb\u696d\u52d9","client_name":"\u5317\u6d77\u9053\u958b\u767a\u5c40\u3000\u5c0f\u6a3d\u9053\u8def\u4e8b\u52d9\u6240","boring_xml_url":61,"boring_view_url":1,"soilmap_view_url":null,"soiltest_xml_url":0,"soiltest_view_url":0},{"id":501184,"code":"B4KJ202201000-3720","latitude":"43.102767","longitude":"140.731422","source_code":"HK20152410090013","project_name":"\u4e00\u822c\u56fd\u90535\u53f7\u3000\u4ec1\u6728\u753a\u3000\u5927\u6c5f\u5730\u8cea\u8abf\u67fb\u696d\u52d9","survey_name":"\u4e00\u822c\u56fd\u90535\u53f7\u3000\u4ec1\u6728\u753a\u3000\u5927\u6c5f\u5730\u8cea\u8abf\u67fb\u696d\u52d9","client_name":"\u56fd\u571f\u4ea4\u901a\u7701\u3000\u5317\u6d77\u9053\u958b\u767a\u5c40\u3000\u5c0f\u6a3d\u958b\u767a\u5efa\u8a2d\u90e8","boring_xml_url":61,"boring_view_url":1,"soilmap_view_url":null,"soiltest_xml_url":0,"soiltest_view_url":0},{"id":501183,"code":"B4KJ202201000-3719","latitude":"43.102911","longitude":"140.730936","source_code":"HK20152410090012","project_name":"\u4e00\u822c\u56fd\u90535\u53f7\u3000\u4ec1\u6728\u753a\u3000\u5927\u6c5f\u5730\u8cea\u8abf\u67fb\u696d\u52d9","survey_name":"\u4e00\u822c\u56fd\u90535\u53f7\u3000\u4ec1\u6728\u753a\u3000\u5927\u6c5f\u5730\u8cea\u8abf\u67fb\u696d\u52d9","client_name":"\u56fd\u571f\u4ea4\u901a\u7701\u3000\u5317\u6d77\u9053\u958b\u767a\u5c40\u3000\u5c0f\u6a3d\u958b\u767a\u5efa\u8a2d\u90e8","boring_xml_url":61,"boring_view_url":1,"soilmap_view_url":null,"soiltest_xml_url":0,"soiltest_view_url":0},{"id":501182,"code":"B4KJ202201000-3718","latitude":"43.112294","longitude":"140.734639","source_code":"HK20152410090011","project_name":"\u4e00\u822c\u56fd\u90535\u53f7\u3000\u4ec1\u6728\u753a\u3000\u5927\u6c5f\u5730\u8cea\u8abf\u67fb\u696d\u52d9","survey_name":"\u4e00\u822c\u56fd\u90535\u53f7\u3000\u4ec1\u6728\u753a\u3000\u5927\u6c5f\u5730\u8cea\u8abf\u67fb\u696d\u52d9","client_name":"\u56fd\u571f\u4ea4\u901a\u7701\u3000\u5317\u6d77\u9053\u958b\u767a\u5c40\u3000\u5c0f\u6a3d\u958b\u767a\u5efa\u8a2d\u90e8","boring_xml_url":61,"boring_view_url":1,"soilmap_view_url":null,"soiltest_xml_url":0,"soiltest_view_url":0},{"id":501181,"code":"B4KJ202201000-3717","latitude":"43.111586","longitude":"140.733064","source_code":"HK20152410090010","project_name":"\u4e00\u822c\u56fd\u90535\u53f7\u3000\u4ec1\u6728\u753a\u3000\u5927\u6c5f\u5730\u8cea\u8abf\u67fb\u696d\u52d9","survey_name":"\u4e00\u822c\u56fd\u90535\u53f7\u3000\u4ec1\u6728\u753a\u3000\u5927\u6c5f\u5730\u8cea\u8abf\u67fb\u696d\u52d9","client_name":"\u56fd\u571f\u4ea4\u901a\u7701\u3000\u5317\u6d77\u9053\u958b\u767a\u5c40\u3000\u5c0f\u6a3d\u958b\u767a\u5efa\u8a2d\u90e8","boring_xml_url":61,"boring_view_url":1,"soilmap_view_url":null,"soiltest_xml_url":0,"soiltest_view_url":0},{"id":501180,"code":"B4KJ202201000-3716","latitude":"43.111861","longitude":"140.735983","source_code":"HK20152410090009","project_name":"\u4e00\u822c\u56fd\u90535\u53f7\u3000\u4ec1\u6728\u753a\u3000\u5927\u6c5f\u5730\u8cea\u8abf\u67fb\u696d\u52d9","survey_name":"\u4e00\u822c\u56fd\u90535\u53f7\u3000\u4ec1\u6728\u753a\u3000\u5927\u6c5f\u5730\u8cea\u8abf\u67fb\u696d\u52d9","client_name":"\u56fd\u571f\u4ea4\u901a\u7701\u3000\u5317\u6d77\u9053\u958b\u767a\u5c40\u3000\u5c0f\u6a3d\u958b\u767a\u5efa\u8a2d\u90e8","boring_xml_url":61,"boring_view_url":1,"soilmap_view_url":null,"soiltest_xml_url":0,"soiltest_view_url":0},{"id":501179,"code":"B4KJ202201000-3715","latitude":"43.110978","longitude":"140.73515","source_code":"HK20152410090008","project_name":"\u4e00\u822c\u56fd\u90535\u53f7\u3000\u4ec1\u6728\u753a\u3000\u5927\u6c5f\u5730\u8cea\u8abf\u67fb\u696d\u52d9","survey_name":"\u4e00\u822c\u56fd\u90535\u53f7\u3000\u4ec1\u6728\u753a\u3000\u5927\u6c5f\u5730\u8cea\u8abf\u67fb\u696d\u52d9","client_name":"\u56fd\u571f\u4ea4\u901a\u7701\u3000\u5317\u6d77\u9053\u958b\u767a\u5c40\u3000\u5c0f\u6a3d\u958b\u767a\u5efa\u8a2d\u90e8","boring_xml_url":61,"boring_view_url":1,"soilmap_view_url":null,"soiltest_xml_url":0,"soiltest_view_url":0},{"id":501178,"code":"B4KJ202201000-3714","latitude":"43.108869","longitude":"140.733417","source_code":"HK20152410090007","project_name":"\u4e00\u822c\u56fd\u90535\u53f7\u3000\u4ec1\u6728\u753a\u3000\u5927\u6c5f\u5730\u8cea\u8abf\u67fb\u696d\u52d9","survey_name":"\u4e00\u822c\u56fd\u90535\u53f7\u3000\u4ec1\u6728\u753a\u3000\u5927\u6c5f\u5730\u8cea\u8abf\u67fb\u696d\u52d9","client_name":"\u56fd\u571f\u4ea4\u901a\u7701\u3000\u5317\u6d77\u9053\u958b\u767a\u5c40\u3000\u5c0f\u6a3d\u958b\u767a\u5efa\u8a2d\u90e8","boring_xml_url":61,"boring_view_url":1,"soilmap_view_url":null,"soiltest_xml_url":0,"soiltest_view_url":0},{"id":501177,"code":"B4KJ202201000-3713","latitude":"43.106508","longitude":"140.731592","source_code":"HK20152410090006","project_name":"\u4e00\u822c\u56fd\u90535\u53f7\u3000\u4ec1\u6728\u753a\u3000\u5927\u6c5f\u5730\u8cea\u8abf\u67fb\u696d\u52d9","survey_name":"\u4e00\u822c\u56fd\u90535\u53f7\u3000\u4ec1\u6728\u753a\u3000\u5927\u6c5f\u5730\u8cea\u8abf\u67fb\u696d\u52d9","client_name":"\u56fd\u571f\u4ea4\u901a\u7701\u3000\u5317\u6d77\u9053\u958b\u767a\u5c40\u3000\u5c0f\u6a3d\u958b\u767a\u5efa\u8a2d\u90e8","boring_xml_url":61,"boring_view_url":1,"soilmap_view_url":null,"soiltest_xml_url":0,"soiltest_view_url":0},{"id":501176,"code":"B4KJ202201000-3712","latitude":"43.104453","longitude":"140.731664","source_code":"HK20152410090005","project_name":"\u4e00\u822c\u56fd\u90535\u53f7\u3000\u4ec1\u6728\u753a\u3000\u5927\u6c5f\u5730\u8cea\u8abf\u67fb\u696d\u52d9","survey_name":"\u4e00\u822c\u56fd\u90535\u53f7\u3000\u4ec1\u6728\u753a\u3000\u5927\u6c5f\u5730\u8cea\u8abf\u67fb\u696d\u52d9","client_name":"\u56fd\u571f\u4ea4\u901a\u7701\u3000\u5317\u6d77\u9053\u958b\u767a\u5c40\u3000\u5c0f\u6a3d\u958b\u767a\u5efa\u8a2d\u90e8","boring_xml_url":61,"boring_view_url":1,"soilmap_view_url":null,"soiltest_xml_url":0,"soiltest_view_url":0},{"id":501175,"code":"B4KJ202201000-3711","latitude":"43.104514","longitude":"140.731228","source_code":"HK20152410090004","project_name":"\u4e00\u822c\u56fd\u90535\u53f7\u3000\u4ec1\u6728\u753a\u3000\u5927\u6c5f\u5730\u8cea\u8abf\u67fb\u696d\u52d9","survey_name":"\u4e00\u822c\u56fd\u90535\u53f7\u3000\u4ec1\u6728\u753a\u3000\u5927\u6c5f\u5730\u8cea\u8abf\u67fb\u696d\u52d9","client_name":"\u56fd\u571f\u4ea4\u901a\u7701\u3000\u5317\u6d77\u9053\u958b\u767a\u5c40\u3000\u5c0f\u6a3d\u958b\u767a\u5efa\u8a2d\u90e8","boring_xml_url":61,"boring_view_url":1,"soilmap_view_url":null,"soiltest_xml_url":0,"soiltest_view_url":0},{"id":501174,"code":"B4KJ202201000-3710","latitude":"43.103256","longitude":"140.730319","source_code":"HK20152410090003","project_name":"\u4e00\u822c\u56fd\u90535\u53f7\u3000\u4ec1\u6728\u753a\u3000\u5927\u6c5f\u5730\u8cea\u8abf\u67fb\u696d\u52d9","survey_name":"\u4e00\u822c\u56fd\u90535\u53f7\u3000\u4ec1\u6728\u753a\u3000\u5927\u6c5f\u5730\u8cea\u8abf\u67fb\u696d\u52d9","client_name":"\u56fd\u571f\u4ea4\u901a\u7701\u3000\u5317\u6d77\u9053\u958b\u767a\u5c40\u3000\u5c0f\u6a3d\u958b\u767a\u5efa\u8a2d\u90e8","boring_xml_url":61,"boring_view_url":1,"soilmap_view_url":null,"soiltest_xml_url":0,"soiltest_view_url":0},{"id":501173,"code":"B4KJ202201000-3709","latitude":"43.101194","longitude":"140.730811","source_code":"HK20152410090002","project_name":"\u4e00\u822c\u56fd\u90535\u53f7\u3000\u4ec1\u6728\u753a\u3000\u5927\u6c5f\u5730\u8cea\u8abf\u67fb\u696d\u52d9","survey_name":"\u4e00\u822c\u56fd\u90535\u53f7\u3000\u4ec1\u6728\u753a\u3000\u5927\u6c5f\u5730\u8cea\u8abf\u67fb\u696d\u52d9","client_name":"\u56fd\u571f\u4ea4\u901a\u7701\u3000\u5317\u6d77\u9053\u958b\u767a\u5c40\u3000\u5c0f\u6a3d\u958b\u767a\u5efa\u8a2d\u90e8","boring_xml_url":61,"boring_view_url":1,"soilmap_view_url":null,"soiltest_xml_url":0,"soiltest_view_url":0},{"id":501172,"code":"B4KJ202201000-3708","latitude":"43.101261","longitude":"140.730039","source_code":"HK20152410090001","project_name":"\u4e00\u822c\u56fd\u90535\u53f7\u3000\u4ec1\u6728\u753a\u3000\u5927\u6c5f\u5730\u8cea\u8abf\u67fb\u696d\u52d9","survey_name":"\u4e00\u822c\u56fd\u90535\u53f7\u3000\u4ec1\u6728\u753a\u3000\u5927\u6c5f\u5730\u8cea\u8abf\u67fb\u696d\u52d9","client_name":"\u56fd\u571f\u4ea4\u901a\u7701\u3000\u5317\u6d77\u9053\u958b\u767a\u5c40\u3000\u5c0f\u6a3d\u958b\u767a\u5efa\u8a2d\u90e8","boring_xml_url":61,"boring_view_url":1,"soilmap_view_url":null,"soiltest_xml_url":0,"soiltest_view_url":0},{"id":501171,"code":"B4KJ202201000-3707","latitude":"43.151284","longitude":"140.781829","source_code":"HK20152410050003","project_name":"\u4e00\u822c\u56fd\u90535\u53f7","survey_name":"\"\u4e00\u822c\u56fd\u90535\u53f7 \u4ec1\u6728\u753a \u4ec1\u6728\u5317\u5730\u8cea\u8abf\u67fb\u696d\u52d9\"","client_name":"\"\u5317\u6d77\u9053\u958b\u767a\u5c40 \u5c0f\u6a3d\u958b\u767a\u5efa\u8a2d\u90e8 \u5c0f\u6a3d\u9053\u8def\u4e8b\u52d9\u6240\"","boring_xml_url":61,"boring_view_url":1,"soilmap_view_url":null,"soiltest_xml_url":0,"soiltest_view_url":0}]}}