{"header":{"xyz":{"source":[],"mosaic":false},"page":1480,"raw":{"soiltest_result":"0","bbox":"57.598333,109.544722,1.933333,163.806111","page":"1480"},"conditions":{"soiltest_result":0,"north":57.598333,"west":109.544722,"south":1.933333,"east":163.806111},"success":true,"message":""},"data":{"meta":{"total":212844,"page":1480,"pages":7095,"count":30},"values":[{"id":500990,"code":"B4KJ202201000-3526","latitude":"43.462667","longitude":"143.733444","source_code":"HK20142814160003","project_name":"\u5317\u6d77\u9053\u6a2a\u65ad\u81ea\u52d5\u8eca\u9053\u3000\u9678\u5225\u753a\u3000\u5206\u7dda\u5730\u8cea\u8abf\u67fb\u696d\u52d9","survey_name":"\u5317\u6d77\u9053\u6a2a\u65ad\u81ea\u52d5\u8eca\u9053\u3000\u9678\u5225\u753a\u3000\u5206\u7dda\u5730\u8cea\u8abf\u67fb\u696d\u52d9","client_name":"\u5317\u6d77\u9053\u958b\u767a\u5c40\u5e2f\u5e83\u958b\u767a\u5efa\u8a2d\u90e8\u3000\u8db3\u5bc4\u9053\u8def\u4e8b\u52d9\u6240","boring_xml_url":61,"boring_view_url":1,"soilmap_view_url":null,"soiltest_xml_url":0,"soiltest_view_url":0},{"id":500989,"code":"B4KJ202201000-3525","latitude":"43.461472","longitude":"143.735111","source_code":"HK20142814160002","project_name":"\u5317\u6d77\u9053\u6a2a\u65ad\u81ea\u52d5\u8eca\u9053\u3000\u9678\u5225\u753a\u3000\u5206\u7dda\u5730\u8cea\u8abf\u67fb\u696d\u52d9","survey_name":"\u5317\u6d77\u9053\u6a2a\u65ad\u81ea\u52d5\u8eca\u9053\u3000\u9678\u5225\u753a\u3000\u5206\u7dda\u5730\u8cea\u8abf\u67fb\u696d\u52d9","client_name":"\u5317\u6d77\u9053\u958b\u767a\u5c40\u5e2f\u5e83\u958b\u767a\u5efa\u8a2d\u90e8\u3000\u8db3\u5bc4\u9053\u8def\u4e8b\u52d9\u6240","boring_xml_url":61,"boring_view_url":1,"soilmap_view_url":null,"soiltest_xml_url":0,"soiltest_view_url":0},{"id":500988,"code":"B4KJ202201000-3524","latitude":"43.461278","longitude":"143.734972","source_code":"HK20142814160001","project_name":"\u5317\u6d77\u9053\u6a2a\u65ad\u81ea\u52d5\u8eca\u9053\u3000\u9678\u5225\u753a\u3000\u5206\u7dda\u5730\u8cea\u8abf\u67fb\u696d\u52d9","survey_name":"\u5317\u6d77\u9053\u6a2a\u65ad\u81ea\u52d5\u8eca\u9053\u3000\u9678\u5225\u753a\u3000\u5206\u7dda\u5730\u8cea\u8abf\u67fb\u696d\u52d9","client_name":"\u5317\u6d77\u9053\u958b\u767a\u5c40\u5e2f\u5e83\u958b\u767a\u5efa\u8a2d\u90e8\u3000\u8db3\u5bc4\u9053\u8def\u4e8b\u52d9\u6240","boring_xml_url":61,"boring_view_url":1,"soilmap_view_url":null,"soiltest_xml_url":0,"soiltest_view_url":0},{"id":500987,"code":"B4KJ202201000-3523","latitude":"43.040629","longitude":"142.865739","source_code":"HK20142803480001","project_name":"\u4e00\u822c\u56fd\u905338\u53f7\u3000\u65b0\u5f97\u753a\u3000\u5357\u65b0\u5f97\u6a4b\u62e1\u5e45\u8a2d\u8a08\u5916\u4e00\u9023\u696d\u52d9","survey_name":"\u4e00\u822c\u56fd\u905338\u53f7\u3000\u65b0\u5f97\u753a\u3000\u5357\u65b0\u5f97\u6a4b\u62e1\u5e45\u8a2d\u8a08\u5916\u4e00\u9023\u696d\u52d9","client_name":"\u5e2f\u5e83\u958b\u767a\u5efa\u8a2d\u90e8\u3000\u5e2f\u5e83\u9053\u8def\u4e8b\u52d9\u6240","boring_xml_url":61,"boring_view_url":1,"soilmap_view_url":null,"soiltest_xml_url":0,"soiltest_view_url":0},{"id":500986,"code":"B4KJ202201000-3522","latitude":"42.5674","longitude":"140.735654","source_code":"HK20142613060004","project_name":"\u6709\u73e0\u5fa9\u65e7\u4e8b\u52d9\u6240\u7ba1\u5185\u9053\u8def\u9644\u5c5e\u7269\u88dc\u4fee\u8a2d\u8a08\u5916\u4e00\u9023\u696d\u52d9","survey_name":"\u6709\u73e0\u5fa9\u65e7\u4e8b\u52d9\u6240\u7ba1\u5185\u9053\u8def\u9644\u5c5e\u7269\u88dc\u4fee\u8a2d\u8a08\u5916\u4e00\u9023\u696d\u52d9","client_name":"\u5ba4\u862d\u958b\u767a\u5efa\u8a2d\u90e8\u6709\u73e0\u5fa9\u65e7\u4e8b\u52d9\u6240","boring_xml_url":61,"boring_view_url":1,"soilmap_view_url":null,"soiltest_xml_url":0,"soiltest_view_url":0},{"id":500985,"code":"B4KJ202201000-3521","latitude":"42.567388","longitude":"140.736168","source_code":"HK20142613060003","project_name":"\u6709\u73e0\u5fa9\u65e7\u4e8b\u52d9\u6240\u7ba1\u5185\u9053\u8def\u9644\u5c5e\u7269\u88dc\u4fee\u8a2d\u8a08\u5916\u4e00\u9023\u696d\u52d9","survey_name":"\u6709\u73e0\u5fa9\u65e7\u4e8b\u52d9\u6240\u7ba1\u5185\u9053\u8def\u9644\u5c5e\u7269\u88dc\u4fee\u8a2d\u8a08\u5916\u4e00\u9023\u696d\u52d9","client_name":"\u5ba4\u862d\u958b\u767a\u5efa\u8a2d\u90e8\u6709\u73e0\u5fa9\u65e7\u4e8b\u52d9\u6240","boring_xml_url":61,"boring_view_url":1,"soilmap_view_url":null,"soiltest_xml_url":0,"soiltest_view_url":0},{"id":500984,"code":"B4KJ202201000-3520","latitude":"42.57388","longitude":"140.730178","source_code":"HK20142613060002","project_name":"\u6709\u73e0\u5fa9\u65e7\u4e8b\u52d9\u6240\u7ba1\u5185\u9053\u8def\u9644\u5c5e\u7269\u88dc\u4fee\u8a2d\u8a08\u5916\u4e00\u9023\u696d\u52d9","survey_name":"\u6709\u73e0\u5fa9\u65e7\u4e8b\u52d9\u6240\u7ba1\u5185\u9053\u8def\u9644\u5c5e\u7269\u88dc\u4fee\u8a2d\u8a08\u5916\u4e00\u9023\u696d\u52d9","client_name":"\u5ba4\u862d\u958b\u767a\u5efa\u8a2d\u90e8\u6709\u73e0\u5fa9\u65e7\u4e8b\u52d9\u6240","boring_xml_url":61,"boring_view_url":1,"soilmap_view_url":null,"soiltest_xml_url":0,"soiltest_view_url":0},{"id":500983,"code":"B4KJ202201000-3519","latitude":"42.574016","longitude":"140.730312","source_code":"HK20142613060001","project_name":"\u6709\u73e0\u5fa9\u65e7\u4e8b\u52d9\u6240\u7ba1\u5185\u9053\u8def\u9644\u5c5e\u7269\u88dc\u4fee\u8a2d\u8a08\u5916\u4e00\u9023\u696d\u52d9","survey_name":"\u6709\u73e0\u5fa9\u65e7\u4e8b\u52d9\u6240\u7ba1\u5185\u9053\u8def\u9644\u5c5e\u7269\u88dc\u4fee\u8a2d\u8a08\u5916\u4e00\u9023\u696d\u52d9","client_name":"\u5ba4\u862d\u958b\u767a\u5efa\u8a2d\u90e8\u6709\u73e0\u5fa9\u65e7\u4e8b\u52d9\u6240","boring_xml_url":61,"boring_view_url":1,"soilmap_view_url":null,"soiltest_xml_url":0,"soiltest_view_url":0},{"id":500982,"code":"B4KJ202201000-3518","latitude":"42.591111","longitude":"140.783889","source_code":"HK20142613030012","project_name":"\u6709\u73e0\u5fa9\u65e7\u4e8b\u52d9\u6240\u7ba1\u5185\u5730\u8cea\u8abf\u67fb\u5916\u4e00\u9023\u696d\u52d9","survey_name":"\u6709\u73e0\u5fa9\u65e7\u4e8b\u52d9\u6240\u7ba1\u5185\u5730\u8cea\u8abf\u67fb\u5916\u4e00\u9023\u696d\u52d9","client_name":"\u5317\u6d77\u9053\u958b\u767a\u5c40\u3000\u5ba4\u862d\u958b\u767a\u5efa\u8a2d\u90e8\u3000\u6709\u73e0\u5fa9\u65e7\u4e8b\u52d9\u6240","boring_xml_url":61,"boring_view_url":1,"soilmap_view_url":null,"soiltest_xml_url":0,"soiltest_view_url":0},{"id":500981,"code":"B4KJ202201000-3517","latitude":"42.591667","longitude":"140.783056","source_code":"HK20142613030011","project_name":"\u6709\u73e0\u5fa9\u65e7\u4e8b\u52d9\u6240\u7ba1\u5185\u5730\u8cea\u8abf\u67fb\u5916\u4e00\u9023\u696d\u52d9","survey_name":"\u6709\u73e0\u5fa9\u65e7\u4e8b\u52d9\u6240\u7ba1\u5185\u5730\u8cea\u8abf\u67fb\u5916\u4e00\u9023\u696d\u52d9","client_name":"\u5317\u6d77\u9053\u958b\u767a\u5c40\u3000\u5ba4\u862d\u958b\u767a\u5efa\u8a2d\u90e8\u3000\u6709\u73e0\u5fa9\u65e7\u4e8b\u52d9\u6240","boring_xml_url":61,"boring_view_url":1,"soilmap_view_url":null,"soiltest_xml_url":0,"soiltest_view_url":0},{"id":500980,"code":"B4KJ202201000-3516","latitude":"42.593889","longitude":"140.782222","source_code":"HK20142613030010","project_name":"\u6709\u73e0\u5fa9\u65e7\u4e8b\u52d9\u6240\u7ba1\u5185\u5730\u8cea\u8abf\u67fb\u5916\u4e00\u9023\u696d\u52d9","survey_name":"\u6709\u73e0\u5fa9\u65e7\u4e8b\u52d9\u6240\u7ba1\u5185\u5730\u8cea\u8abf\u67fb\u5916\u4e00\u9023\u696d\u52d9","client_name":"\u5317\u6d77\u9053\u958b\u767a\u5c40\u3000\u5ba4\u862d\u958b\u767a\u5efa\u8a2d\u90e8\u3000\u6709\u73e0\u5fa9\u65e7\u4e8b\u52d9\u6240","boring_xml_url":61,"boring_view_url":1,"soilmap_view_url":null,"soiltest_xml_url":0,"soiltest_view_url":0},{"id":500979,"code":"B4KJ202201000-3515","latitude":"42.595","longitude":"140.7825","source_code":"HK20142613030009","project_name":"\u6709\u73e0\u5fa9\u65e7\u4e8b\u52d9\u6240\u7ba1\u5185\u5730\u8cea\u8abf\u67fb\u5916\u4e00\u9023\u696d\u52d9","survey_name":"\u6709\u73e0\u5fa9\u65e7\u4e8b\u52d9\u6240\u7ba1\u5185\u5730\u8cea\u8abf\u67fb\u5916\u4e00\u9023\u696d\u52d9","client_name":"\u5317\u6d77\u9053\u958b\u767a\u5c40\u3000\u5ba4\u862d\u958b\u767a\u5efa\u8a2d\u90e8\u3000\u6709\u73e0\u5fa9\u65e7\u4e8b\u52d9\u6240","boring_xml_url":61,"boring_view_url":1,"soilmap_view_url":null,"soiltest_xml_url":0,"soiltest_view_url":0},{"id":500978,"code":"B4KJ202201000-3514","latitude":"42.597222","longitude":"140.782222","source_code":"HK20142613030008","project_name":"\u6709\u73e0\u5fa9\u65e7\u4e8b\u52d9\u6240\u7ba1\u5185\u5730\u8cea\u8abf\u67fb\u5916\u4e00\u9023\u696d\u52d9","survey_name":"\u6709\u73e0\u5fa9\u65e7\u4e8b\u52d9\u6240\u7ba1\u5185\u5730\u8cea\u8abf\u67fb\u5916\u4e00\u9023\u696d\u52d9","client_name":"\u5317\u6d77\u9053\u958b\u767a\u5c40\u3000\u5ba4\u862d\u958b\u767a\u5efa\u8a2d\u90e8\u3000\u6709\u73e0\u5fa9\u65e7\u4e8b\u52d9\u6240","boring_xml_url":61,"boring_view_url":1,"soilmap_view_url":null,"soiltest_xml_url":0,"soiltest_view_url":0},{"id":500977,"code":"B4KJ202201000-3513","latitude":"42.607222","longitude":"140.773889","source_code":"HK20142613030007","project_name":"\u6709\u73e0\u5fa9\u65e7\u4e8b\u52d9\u6240\u7ba1\u5185\u5730\u8cea\u8abf\u67fb\u5916\u4e00\u9023\u696d\u52d9","survey_name":"\u6709\u73e0\u5fa9\u65e7\u4e8b\u52d9\u6240\u7ba1\u5185\u5730\u8cea\u8abf\u67fb\u5916\u4e00\u9023\u696d\u52d9","client_name":"\u5317\u6d77\u9053\u958b\u767a\u5c40\u3000\u5ba4\u862d\u958b\u767a\u5efa\u8a2d\u90e8\u3000\u6709\u73e0\u5fa9\u65e7\u4e8b\u52d9\u6240","boring_xml_url":61,"boring_view_url":1,"soilmap_view_url":null,"soiltest_xml_url":0,"soiltest_view_url":0},{"id":500976,"code":"B4KJ202201000-3512","latitude":"42.608056","longitude":"140.775278","source_code":"HK20142613030006","project_name":"\u6709\u73e0\u5fa9\u65e7\u4e8b\u52d9\u6240\u7ba1\u5185\u5730\u8cea\u8abf\u67fb\u5916\u4e00\u9023\u696d\u52d9","survey_name":"\u6709\u73e0\u5fa9\u65e7\u4e8b\u52d9\u6240\u7ba1\u5185\u5730\u8cea\u8abf\u67fb\u5916\u4e00\u9023\u696d\u52d9","client_name":"\u5317\u6d77\u9053\u958b\u767a\u5c40\u3000\u5ba4\u862d\u958b\u767a\u5efa\u8a2d\u90e8\u3000\u6709\u73e0\u5fa9\u65e7\u4e8b\u52d9\u6240","boring_xml_url":61,"boring_view_url":1,"soilmap_view_url":null,"soiltest_xml_url":0,"soiltest_view_url":0},{"id":500975,"code":"B4KJ202201000-3511","latitude":"42.608889","longitude":"140.776944","source_code":"HK20142613030005","project_name":"\u6709\u73e0\u5fa9\u65e7\u4e8b\u52d9\u6240\u7ba1\u5185\u5730\u8cea\u8abf\u67fb\u5916\u4e00\u9023\u696d\u52d9","survey_name":"\u6709\u73e0\u5fa9\u65e7\u4e8b\u52d9\u6240\u7ba1\u5185\u5730\u8cea\u8abf\u67fb\u5916\u4e00\u9023\u696d\u52d9","client_name":"\u5317\u6d77\u9053\u958b\u767a\u5c40\u3000\u5ba4\u862d\u958b\u767a\u5efa\u8a2d\u90e8\u3000\u6709\u73e0\u5fa9\u65e7\u4e8b\u52d9\u6240","boring_xml_url":61,"boring_view_url":1,"soilmap_view_url":null,"soiltest_xml_url":0,"soiltest_view_url":0},{"id":500974,"code":"B4KJ202201000-3510","latitude":"42.608611","longitude":"140.776389","source_code":"HK20142613030004","project_name":"\u6709\u73e0\u5fa9\u65e7\u4e8b\u52d9\u6240\u7ba1\u5185\u5730\u8cea\u8abf\u67fb\u5916\u4e00\u9023\u696d\u52d9","survey_name":"\u6709\u73e0\u5fa9\u65e7\u4e8b\u52d9\u6240\u7ba1\u5185\u5730\u8cea\u8abf\u67fb\u5916\u4e00\u9023\u696d\u52d9","client_name":"\u5317\u6d77\u9053\u958b\u767a\u5c40\u3000\u5ba4\u862d\u958b\u767a\u5efa\u8a2d\u90e8\u3000\u6709\u73e0\u5fa9\u65e7\u4e8b\u52d9\u6240","boring_xml_url":61,"boring_view_url":1,"soilmap_view_url":null,"soiltest_xml_url":0,"soiltest_view_url":0},{"id":500973,"code":"B4KJ202201000-3509","latitude":"42.61","longitude":"140.7775","source_code":"HK20142613030003","project_name":"\u6709\u73e0\u5fa9\u65e7\u4e8b\u52d9\u6240\u7ba1\u5185\u5730\u8cea\u8abf\u67fb\u5916\u4e00\u9023\u696d\u52d9","survey_name":"\u6709\u73e0\u5fa9\u65e7\u4e8b\u52d9\u6240\u7ba1\u5185\u5730\u8cea\u8abf\u67fb\u5916\u4e00\u9023\u696d\u52d9","client_name":"\u5317\u6d77\u9053\u958b\u767a\u5c40\u3000\u5ba4\u862d\u958b\u767a\u5efa\u8a2d\u90e8\u3000\u6709\u73e0\u5fa9\u65e7\u4e8b\u52d9\u6240","boring_xml_url":61,"boring_view_url":1,"soilmap_view_url":null,"soiltest_xml_url":0,"soiltest_view_url":0},{"id":500972,"code":"B4KJ202201000-3508","latitude":"42.610833","longitude":"140.7775","source_code":"HK20142613030002","project_name":"\u6709\u73e0\u5fa9\u65e7\u4e8b\u52d9\u6240\u7ba1\u5185\u5730\u8cea\u8abf\u67fb\u5916\u4e00\u9023\u696d\u52d9","survey_name":"\u6709\u73e0\u5fa9\u65e7\u4e8b\u52d9\u6240\u7ba1\u5185\u5730\u8cea\u8abf\u67fb\u5916\u4e00\u9023\u696d\u52d9","client_name":"\u5317\u6d77\u9053\u958b\u767a\u5c40\u3000\u5ba4\u862d\u958b\u767a\u5efa\u8a2d\u90e8\u3000\u6709\u73e0\u5fa9\u65e7\u4e8b\u52d9\u6240","boring_xml_url":61,"boring_view_url":1,"soilmap_view_url":null,"soiltest_xml_url":0,"soiltest_view_url":0},{"id":500971,"code":"B4KJ202201000-3507","latitude":"42.611667","longitude":"140.780833","source_code":"HK20142613030001","project_name":"\u6709\u73e0\u5fa9\u65e7\u4e8b\u52d9\u6240\u7ba1\u5185\u5730\u8cea\u8abf\u67fb\u5916\u4e00\u9023\u696d\u52d9","survey_name":"\u6709\u73e0\u5fa9\u65e7\u4e8b\u52d9\u6240\u7ba1\u5185\u5730\u8cea\u8abf\u67fb\u5916\u4e00\u9023\u696d\u52d9","client_name":"\u5317\u6d77\u9053\u958b\u767a\u5c40\u3000\u5ba4\u862d\u958b\u767a\u5efa\u8a2d\u90e8\u3000\u6709\u73e0\u5fa9\u65e7\u4e8b\u52d9\u6240","boring_xml_url":61,"boring_view_url":1,"soilmap_view_url":null,"soiltest_xml_url":0,"soiltest_view_url":0},{"id":500970,"code":"B4KJ202201000-3506","latitude":"42.592167","longitude":"140.675222","source_code":"HK20132613070025","project_name":"\u6709\u73e0\u5fa9\u65e7\u4e8b\u52d9\u6240\u7ba1\u5185\u5730\u8cea\u8abf\u67fb\u5916\u4e00\u9023\u696d\u52d9","survey_name":"\u8c4a\u6cc9\u30c8\u30f3\u30cd\u30eb\u5de5\u533a","client_name":"\"\u5ba4\u862d\u958b\u767a\u5efa\u8a2d\u90e8 \u6709\u73e0\u5fa9\u65e7\u4e8b\u52d9\u6240 \u5fa9\u65e7\u5de5\u4e8b\u8ab2\u8a08\u753b\u8abf\u6574\u4fc2\"","boring_xml_url":61,"boring_view_url":1,"soilmap_view_url":null,"soiltest_xml_url":0,"soiltest_view_url":0},{"id":500969,"code":"B4KJ202201000-3505","latitude":"42.59225","longitude":"140.675083","source_code":"HK20132613070024","project_name":"\u6709\u73e0\u5fa9\u65e7\u4e8b\u52d9\u6240\u7ba1\u5185\u5730\u8cea\u8abf\u67fb\u5916\u4e00\u9023\u696d\u52d9","survey_name":"\u8c4a\u6cc9\u30c8\u30f3\u30cd\u30eb\u5de5\u533a(SP24.5\u3000R12.0)","client_name":"\u5ba4\u862d\u958b\u767a\u5efa\u8a2d\u90e8\u3000\u6709\u73e0\u5fa9\u65e7\u4e8b\u52d9\u6240\u3000\u5fa9\u65e7\u5de5\u4e8b\u8ab2","boring_xml_url":61,"boring_view_url":1,"soilmap_view_url":null,"soiltest_xml_url":0,"soiltest_view_url":0},{"id":500968,"code":"B4KJ202201000-3504","latitude":"42.594167","longitude":"140.782222","source_code":"HK20132613070023","project_name":"\u6709\u73e0\u5fa9\u65e7\u4e8b\u52d9\u6240\u7ba1\u5185\u5730\u8cea\u8abf\u67fb\u5916\u4e00\u9023\u696d\u52d9","survey_name":"\u6709\u73e0\u5fa9\u65e7\u4e8b\u52d9\u6240\u7ba1\u5185\u5730\u8cea\u8abf\u67fb\u5916\u4e00\u9023\u696d\u52d9","client_name":"\u5317\u6d77\u9053\u958b\u767a\u5c40\u3000\u5ba4\u862d\u958b\u767a\u5efa\u8a2d\u90e8\u3000\u6709\u73e0\u5fa9\u65e7\u4e8b\u52d9\u6240","boring_xml_url":61,"boring_view_url":1,"soilmap_view_url":null,"soiltest_xml_url":0,"soiltest_view_url":0},{"id":500967,"code":"B4KJ202201000-3503","latitude":"42.595833","longitude":"140.783056","source_code":"HK20132613070022","project_name":"\u6709\u73e0\u5fa9\u65e7\u4e8b\u52d9\u6240\u7ba1\u5185\u5730\u8cea\u8abf\u67fb\u5916\u4e00\u9023\u696d\u52d9","survey_name":"\u6709\u73e0\u5fa9\u65e7\u4e8b\u52d9\u6240\u7ba1\u5185\u5730\u8cea\u8abf\u67fb\u5916\u4e00\u9023\u696d\u52d9","client_name":"\u5317\u6d77\u9053\u958b\u767a\u5c40\u3000\u5ba4\u862d\u958b\u767a\u5efa\u8a2d\u90e8\u3000\u6709\u73e0\u5fa9\u65e7\u4e8b\u52d9\u6240","boring_xml_url":61,"boring_view_url":1,"soilmap_view_url":null,"soiltest_xml_url":0,"soiltest_view_url":0},{"id":500966,"code":"B4KJ202201000-3502","latitude":"42.597222","longitude":"140.781667","source_code":"HK20132613070021","project_name":"\u6709\u73e0\u5fa9\u65e7\u4e8b\u52d9\u6240\u7ba1\u5185\u5730\u8cea\u8abf\u67fb\u5916\u4e00\u9023\u696d\u52d9","survey_name":"\u6709\u73e0\u5fa9\u65e7\u4e8b\u52d9\u6240\u7ba1\u5185\u5730\u8cea\u8abf\u67fb\u5916\u4e00\u9023\u696d\u52d9","client_name":"\u5317\u6d77\u9053\u958b\u767a\u5c40\u3000\u5ba4\u862d\u958b\u767a\u5efa\u8a2d\u90e8\u3000\u6709\u73e0\u5fa9\u65e7\u4e8b\u52d9\u6240","boring_xml_url":61,"boring_view_url":1,"soilmap_view_url":null,"soiltest_xml_url":0,"soiltest_view_url":0},{"id":500965,"code":"B4KJ202201000-3501","latitude":"42.608333","longitude":"140.776111","source_code":"HK20132613070020","project_name":"\u6709\u73e0\u5fa9\u65e7\u4e8b\u52d9\u6240\u7ba1\u5185\u5730\u8cea\u8abf\u67fb\u5916\u4e00\u9023\u696d\u52d9","survey_name":"\u6709\u73e0\u5fa9\u65e7\u4e8b\u52d9\u6240\u7ba1\u5185\u5730\u8cea\u8abf\u67fb\u5916\u4e00\u9023\u696d\u52d9","client_name":"\"\u5317\u6d77\u9053\u958b\u767a\u5c40 \u5ba4\u862d\u958b\u767a\u5efa\u8a2d\u90e8 \u6709\u73e0\u5fa9\u65e7\u4e8b\u52d9\u6240\"","boring_xml_url":61,"boring_view_url":1,"soilmap_view_url":null,"soiltest_xml_url":0,"soiltest_view_url":0},{"id":500964,"code":"B4KJ202201000-3500","latitude":"42.609444","longitude":"140.7775","source_code":"HK20132613070019","project_name":"\u6709\u73e0\u5fa9\u65e7\u4e8b\u52d9\u6240\u7ba1\u5185\u5730\u8cea\u8abf\u67fb\u5916\u4e00\u9023\u696d\u52d9","survey_name":"\u6709\u73e0\u5fa9\u65e7\u4e8b\u52d9\u6240\u7ba1\u5185\u5730\u8cea\u8abf\u67fb\u5916\u4e00\u9023\u696d\u52d9","client_name":"\u5317\u6d77\u9053\u958b\u767a\u5c40\u3000\u5ba4\u862d\u958b\u767a\u5efa\u8a2d\u90e8\u3000\u6709\u73e0\u5fa9\u65e7\u4e8b\u52d9\u6240","boring_xml_url":61,"boring_view_url":1,"soilmap_view_url":null,"soiltest_xml_url":0,"soiltest_view_url":0},{"id":500963,"code":"B4KJ202201000-3499","latitude":"42.610556","longitude":"140.777222","source_code":"HK20132613070018","project_name":"\u6709\u73e0\u5fa9\u65e7\u4e8b\u52d9\u6240\u7ba1\u5185\u5730\u8cea\u8abf\u67fb\u5916\u4e00\u9023\u696d\u52d9","survey_name":"\u6709\u73e0\u5fa9\u65e7\u4e8b\u52d9\u6240\u7ba1\u5185\u5730\u8cea\u8abf\u67fb\u5916\u4e00\u9023\u696d\u52d9","client_name":"\u5317\u6d77\u9053\u958b\u767a\u5c40\u3000\u5ba4\u862d\u958b\u767a\u5efa\u8a2d\u90e8\u3000\u6709\u73e0\u5fa9\u65e7\u4e8b\u52d9\u6240","boring_xml_url":61,"boring_view_url":1,"soilmap_view_url":null,"soiltest_xml_url":0,"soiltest_view_url":0},{"id":500962,"code":"B4KJ202201000-3498","latitude":"42.611389","longitude":"140.7775","source_code":"HK20132613070017","project_name":"\u6709\u73e0\u5fa9\u65e7\u4e8b\u52d9\u6240\u7ba1\u5185\u5730\u8cea\u8abf\u67fb\u5916\u4e00\u9023\u696d\u52d9","survey_name":"\u6709\u73e0\u5fa9\u65e7\u4e8b\u52d9\u6240\u7ba1\u5185\u5730\u8cea\u8abf\u67fb\u5916\u4e00\u9023\u696d\u52d9","client_name":"\u5317\u6d77\u9053\u958b\u767a\u5c40\u3000\u5ba4\u862d\u958b\u767a\u5efa\u8a2d\u90e8\u3000\u6709\u73e0\u5fa9\u65e7\u4e8b\u52d9\u6240","boring_xml_url":61,"boring_view_url":1,"soilmap_view_url":null,"soiltest_xml_url":0,"soiltest_view_url":0},{"id":500961,"code":"B4KJ202201000-3497","latitude":"42.602222","longitude":"140.482778","source_code":"HK20132613070016","project_name":"\u6709\u73e0\u5fa9\u65e7\u4e8b\u52d9\u6240\u7ba1\u5185\u5730\u8cea\u8abf\u67fb\u5916\u4e00\u9023\u696d\u52d9","survey_name":"\u6709\u73e0\u5fa9\u65e7\u4e8b\u52d9\u6240\u7ba1\u5185\u5730\u8cea\u8abf\u67fb\u5916\u4e00\u9023\u696d\u52d9","client_name":"\u5317\u6d77\u9053\u958b\u767a\u5c40\u3000\u5ba4\u862d\u958b\u767a\u5efa\u8a2d\u90e8\u3000\u6709\u73e0\u5fa9\u65e7\u4e8b\u52d9\u6240","boring_xml_url":61,"boring_view_url":1,"soilmap_view_url":null,"soiltest_xml_url":0,"soiltest_view_url":0}]}}