{"header":{"xyz":{"source":[],"mosaic":false},"page":1496,"raw":{"soiltest_result":"0","bbox":"57.598333,109.544722,1.933333,163.806111","page":"1496"},"conditions":{"soiltest_result":0,"north":57.598333,"west":109.544722,"south":1.933333,"east":163.806111},"success":true,"message":""},"data":{"meta":{"total":212844,"page":1496,"pages":7095,"count":30},"values":[{"id":500510,"code":"B4KJ202201000-3046","latitude":"42.774742","longitude":"143.454767","source_code":"HK20162811050006","project_name":"","survey_name":"\u5341\u52dd\u5ddd\u4e0b\u6d41\u571f\u8cea\u8abf\u67fb\u696d\u52d9","client_name":"\u56fd\u571f\u4ea4\u901a\u7701\u5317\u6d77\u9053\u958b\u767a\u5c40\u5e2f\u5e83\u958b\u767a\u5efa\u8a2d\u90e8\u6c60\u7530\u6cb3\u5ddd\u4e8b\u52d9\u6240","boring_xml_url":61,"boring_view_url":1,"soilmap_view_url":null,"soiltest_xml_url":0,"soiltest_view_url":0},{"id":500509,"code":"B4KJ202201000-3045","latitude":"42.774697","longitude":"143.454989","source_code":"HK20162811050005","project_name":"","survey_name":"\u5341\u52dd\u5ddd\u4e0b\u6d41\u571f\u8cea\u8abf\u67fb\u696d\u52d9","client_name":"\u56fd\u571f\u4ea4\u901a\u7701\u5317\u6d77\u9053\u958b\u767a\u5c40\u5e2f\u5e83\u958b\u767a\u5efa\u8a2d\u90e8\u6c60\u7530\u6cb3\u5ddd\u4e8b\u52d9\u6240","boring_xml_url":61,"boring_view_url":1,"soilmap_view_url":null,"soiltest_xml_url":0,"soiltest_view_url":0},{"id":500508,"code":"B4KJ202201000-3044","latitude":"42.929039","longitude":"143.438303","source_code":"HK20162811050004","project_name":"","survey_name":"\u5341\u52dd\u5ddd\u4e0b\u6d41\u571f\u8cea\u8abf\u67fb\u696d\u52d9","client_name":"\u56fd\u571f\u4ea4\u901a\u7701\u5317\u6d77\u9053\u958b\u767a\u5c40\u5e2f\u5e83\u958b\u767a\u5efa\u8a2d\u90e8\u6c60\u7530\u6cb3\u5ddd\u4e8b\u52d9\u6240","boring_xml_url":61,"boring_view_url":1,"soilmap_view_url":null,"soiltest_xml_url":0,"soiltest_view_url":0},{"id":500507,"code":"B4KJ202201000-3043","latitude":"42.929058","longitude":"143.438517","source_code":"HK20162811050003","project_name":"","survey_name":"\u5341\u52dd\u5ddd\u4e0b\u6d41\u571f\u8cea\u8abf\u67fb\u696d\u52d9","client_name":"\u56fd\u571f\u4ea4\u901a\u7701\u5317\u6d77\u9053\u958b\u767a\u5c40\u5e2f\u5e83\u958b\u767a\u5efa\u8a2d\u90e8\u6c60\u7530\u6cb3\u5ddd\u4e8b\u52d9\u6240","boring_xml_url":61,"boring_view_url":1,"soilmap_view_url":null,"soiltest_xml_url":0,"soiltest_view_url":0},{"id":500506,"code":"B4KJ202201000-3042","latitude":"42.770369","longitude":"143.444494","source_code":"HK20162811050002","project_name":"","survey_name":"\u5341\u52dd\u5ddd\u4e0b\u6d41\u571f\u8cea\u8abf\u67fb\u696d\u52d9","client_name":"\u56fd\u571f\u4ea4\u901a\u7701\u5317\u6d77\u9053\u958b\u767a\u5c40\u5e2f\u5e83\u958b\u767a\u5efa\u8a2d\u90e8\u6c60\u7530\u6cb3\u5ddd\u4e8b\u52d9\u6240","boring_xml_url":61,"boring_view_url":1,"soilmap_view_url":null,"soiltest_xml_url":0,"soiltest_view_url":0},{"id":500505,"code":"B4KJ202201000-3041","latitude":"42.770339","longitude":"143.444561","source_code":"HK20162811050001","project_name":"","survey_name":"\u5341\u52dd\u5ddd\u4e0b\u6d41\u571f\u8cea\u8abf\u67fb\u696d\u52d9","client_name":"\u56fd\u571f\u4ea4\u901a\u7701\u5317\u6d77\u9053\u958b\u767a\u5c40\u5e2f\u5e83\u958b\u767a\u5efa\u8a2d\u90e8\u6c60\u7530\u6cb3\u5ddd\u4e8b\u52d9\u6240","boring_xml_url":61,"boring_view_url":1,"soilmap_view_url":null,"soiltest_xml_url":0,"soiltest_view_url":0},{"id":500504,"code":"B4KJ202201000-3040","latitude":"42.977556","longitude":"140.655381","source_code":"HK20162410400006","project_name":"\u4e00\u822c\u56fd\u90535\u53f7\u3000\u4ec1\u6728\u753a\u3000\u9280\u5c71\u897f\u5730\u8cea\u8abf\u67fb\u696d\u52d9","survey_name":"\u4e00\u822c\u56fd\u90535\u53f7\u3000\u4ec1\u6728\u753a\u3000\u9280\u5c71\u897f\u5730\u8cea\u8abf\u67fb\u696d\u52d9","client_name":"\u5317\u6d77\u9053\u958b\u767a\u5c40\u3000\u5c0f\u6a3d\u958b\u767a\u5efa\u8a2d\u90e8","boring_xml_url":61,"boring_view_url":1,"soilmap_view_url":null,"soiltest_xml_url":0,"soiltest_view_url":0},{"id":500503,"code":"B4KJ202201000-3039","latitude":"42.979803","longitude":"140.654408","source_code":"HK20162410400005","project_name":"\u4e00\u822c\u56fd\u90535\u53f7\u3000\u4ec1\u6728\u753a\u3000\u9280\u5c71\u897f\u5730\u8cea\u8abf\u67fb\u696d\u52d9","survey_name":"\u4e00\u822c\u56fd\u90535\u53f7\u3000\u4ec1\u6728\u753a\u3000\u9280\u5c71\u897f\u5730\u8cea\u8abf\u67fb\u696d\u52d9","client_name":"\u5317\u6d77\u9053\u958b\u767a\u5c40\u3000\u5c0f\u6a3d\u958b\u767a\u5efa\u8a2d\u90e8","boring_xml_url":61,"boring_view_url":1,"soilmap_view_url":null,"soiltest_xml_url":0,"soiltest_view_url":0},{"id":500502,"code":"B4KJ202201000-3038","latitude":"42.979803","longitude":"140.654408","source_code":"HK20162410400004","project_name":"\u4e00\u822c\u56fd\u90535\u53f7\u3000\u4ec1\u6728\u753a\u3000\u9280\u5c71\u897f\u5730\u8cea\u8abf\u67fb\u696d\u52d9","survey_name":"\u4e00\u822c\u56fd\u90535\u53f7\u3000\u4ec1\u6728\u753a\u3000\u9280\u5c71\u897f\u5730\u8cea\u8abf\u67fb\u696d\u52d9","client_name":"\u5317\u6d77\u9053\u958b\u767a\u5c40\u3000\u5c0f\u6a3d\u958b\u767a\u5efa\u8a2d\u90e8","boring_xml_url":61,"boring_view_url":1,"soilmap_view_url":null,"soiltest_xml_url":0,"soiltest_view_url":0},{"id":500501,"code":"B4KJ202201000-3037","latitude":"43.046186","longitude":"140.707797","source_code":"HK20162410400003","project_name":"\u4e00\u822c\u56fd\u90535\u53f7\u3000\u4ec1\u6728\u753a\u3000\u9280\u5c71\u897f\u5730\u8cea\u8abf\u67fb\u696d\u52d9","survey_name":"\u4e00\u822c\u56fd\u90535\u53f7\u3000\u4ec1\u6728\u753a\u3000\u9280\u5c71\u897f\u5730\u8cea\u8abf\u67fb\u696d\u52d9","client_name":"\u5317\u6d77\u9053\u958b\u767a\u5c40\u3000\u5c0f\u6a3d\u9053\u8def\u4e8b\u52d9\u6240","boring_xml_url":61,"boring_view_url":1,"soilmap_view_url":null,"soiltest_xml_url":0,"soiltest_view_url":0},{"id":500500,"code":"B4KJ202201000-3036","latitude":"43.045153","longitude":"140.70675","source_code":"HK20162410400002","project_name":"\u4e00\u822c\u56fd\u90535\u53f7\u3000\u4ec1\u6728\u753a\u3000\u9280\u5c71\u897f\u5730\u8cea\u8abf\u67fb\u696d\u52d9","survey_name":"\u4e00\u822c\u56fd\u90535\u53f7\u3000\u4ec1\u6728\u753a\u3000\u9280\u5c71\u897f\u5730\u8cea\u8abf\u67fb\u696d\u52d9","client_name":"\u5317\u6d77\u9053\u958b\u767a\u5c40\u3000\u5c0f\u6a3d\u958b\u767a\u5efa\u8a2d\u90e8","boring_xml_url":61,"boring_view_url":1,"soilmap_view_url":null,"soiltest_xml_url":0,"soiltest_view_url":0},{"id":500499,"code":"B4KJ202201000-3035","latitude":"43.044506","longitude":"140.706411","source_code":"HK20162410400001","project_name":"\u4e00\u822c\u56fd\u90535\u53f7\u3000\u4ec1\u6728\u753a\u3000\u9280\u5c71\u897f\u5730\u8cea\u8abf\u67fb\u696d\u52d9","survey_name":"\u4e00\u822c\u56fd\u90535\u53f7\u3000\u4ec1\u6728\u753a\u3000\u9280\u5c71\u897f\u5730\u8cea\u8abf\u67fb\u696d\u52d9","client_name":"\u5317\u6d77\u9053\u958b\u767a\u5c40\u3000\u5c0f\u6a3d\u958b\u767a\u5efa\u8a2d\u90e8","boring_xml_url":61,"boring_view_url":1,"soilmap_view_url":null,"soiltest_xml_url":0,"soiltest_view_url":0},{"id":500498,"code":"B4KJ202201000-3034","latitude":"45.425917","longitude":"142.028389","source_code":"HK20163104180003","project_name":"","survey_name":"\u4e00\u822c\u56fd\u9053238\u53f7\u7a1a\u5185\u5e02\u6771\u6d66\u5730\u8cea\u8abf\u67fb\u696d\u52d9","client_name":"\"\u7a1a\u5185\u958b\u767a\u5efa\u8a2d\u90e8 \u7a1a\u5185\u9053\u8def\u4e8b\u52d9\u6240\"","boring_xml_url":61,"boring_view_url":1,"soilmap_view_url":null,"soiltest_xml_url":0,"soiltest_view_url":0},{"id":500497,"code":"B4KJ202201000-3033","latitude":"45.4265","longitude":"142.019389","source_code":"HK20163104180002","project_name":"","survey_name":"\u4e00\u822c\u56fd\u9053238\u53f7\u7a1a\u5185\u5e02\u6771\u6d66\u5730\u8cea\u8abf\u67fb\u696d\u52d9","client_name":"\"\u7a1a\u5185\u958b\u767a\u5efa\u8a2d\u90e8 \u7a1a\u5185\u9053\u8def\u4e8b\u52d9\u6240\"","boring_xml_url":61,"boring_view_url":1,"soilmap_view_url":null,"soiltest_xml_url":0,"soiltest_view_url":0},{"id":500496,"code":"B4KJ202201000-3032","latitude":"45.425889","longitude":"142.026083","source_code":"HK20163104180001","project_name":"","survey_name":"\u4e00\u822c\u56fd\u9053238\u53f7\u7a1a\u5185\u5e02\u6771\u6d66\u5730\u8cea\u8abf\u67fb\u696d\u52d9","client_name":"\"\u7a1a\u5185\u958b\u767a\u5efa\u8a2d\u90e8 \u7a1a\u5185\u9053\u8def\u4e8b\u52d9\u6240\"","boring_xml_url":61,"boring_view_url":1,"soilmap_view_url":null,"soiltest_xml_url":0,"soiltest_view_url":0},{"id":500495,"code":"B4KJ202201000-3031","latitude":"43.416306","longitude":"141.801139","source_code":"HK20162156600005","project_name":"","survey_name":"\u4e00\u822c\u56fd\u905312\u53f7\u6edd\u5ddd\u5e02\u6c5f\u90e8\u4e59\u5730\u8cea\u8abf\u67fb\u5916\u4e00\u9023\u696d\u52d9","client_name":"\"\u672d\u5e4c\u958b\u767a\u5efa\u8a2d\u90e8 \u6edd\u5ddd\u9053\u8def\u4e8b\u52d9\u6240\"","boring_xml_url":61,"boring_view_url":1,"soilmap_view_url":null,"soiltest_xml_url":0,"soiltest_view_url":0},{"id":500494,"code":"B4KJ202201000-3030","latitude":"43.598639","longitude":"141.928083","source_code":"HK20162156600004","project_name":"","survey_name":"\u4e00\u822c\u56fd\u905312\u53f7\u6edd\u5ddd\u5e02\u6c5f\u90e8\u4e59\u5730\u8cea\u8abf\u67fb\u5916\u4e00\u9023\u696d\u52d9","client_name":"\"\u672d\u5e4c\u958b\u767a\u5efa\u8a2d\u90e8 \u6edd\u5ddd\u9053\u8def\u4e8b\u52d9\u6240\"","boring_xml_url":61,"boring_view_url":1,"soilmap_view_url":null,"soiltest_xml_url":0,"soiltest_view_url":0},{"id":500493,"code":"B4KJ202201000-3029","latitude":"43.598361","longitude":"141.928306","source_code":"HK20162156600003","project_name":"","survey_name":"\u4e00\u822c\u56fd\u905312\u53f7\u6edd\u5ddd\u5e02\u6c5f\u90e8\u4e59\u5730\u8cea\u8abf\u67fb\u5916\u4e00\u9023\u696d\u52d9","client_name":"\"\u672d\u5e4c\u958b\u767a\u5efa\u8a2d\u90e8 \u6edd\u5ddd\u9053\u8def\u4e8b\u52d9\u6240\"","boring_xml_url":61,"boring_view_url":1,"soilmap_view_url":null,"soiltest_xml_url":0,"soiltest_view_url":0},{"id":500492,"code":"B4KJ202201000-3028","latitude":"43.609889","longitude":"141.933389","source_code":"HK20162156600002","project_name":"","survey_name":"\u4e00\u822c\u56fd\u905312\u53f7\u6edd\u5ddd\u5e02\u6c5f\u90e8\u4e59\u5730\u8cea\u8abf\u67fb\u5916\u4e00\u9023\u696d\u52d9","client_name":"\"\u672d\u5e4c\u958b\u767a\u5efa\u8a2d\u90e8 \u6edd\u5ddd\u9053\u8def\u4e8b\u52d9\u6240\"","boring_xml_url":61,"boring_view_url":1,"soilmap_view_url":null,"soiltest_xml_url":0,"soiltest_view_url":0},{"id":500491,"code":"B4KJ202201000-3027","latitude":"43.60975","longitude":"141.933472","source_code":"HK20162156600001","project_name":"","survey_name":"\u4e00\u822c\u56fd\u905312\u53f7\u6edd\u5ddd\u5e02\u6c5f\u90e8\u4e59\u5730\u8cea\u8abf\u67fb\u5916\u4e00\u9023\u696d\u52d9","client_name":"\"\u672d\u5e4c\u958b\u767a\u5efa\u8a2d\u90e8 \u6edd\u5ddd\u9053\u8def\u4e8b\u52d9\u6240\"","boring_xml_url":61,"boring_view_url":1,"soilmap_view_url":null,"soiltest_xml_url":0,"soiltest_view_url":0},{"id":500490,"code":"B4KJ202201000-3026","latitude":"44.19965","longitude":"142.041735","source_code":"HK20163020020009","project_name":"\u4e00\u822c\u56fd\u9053239\u53f7\u3000\u82eb\u524d\u753a\u3000\u9727\u7acb\u9632\u707d\u5730\u8cea\u8abf\u67fb\u696d\u52d9","survey_name":"\u4e00\u822c\u56fd\u9053239\u53f7\u3000\u82eb\u524d\u753a\u3000\u9727\u7acb\u9632\u707d\u5730\u8cea\u8abf\u67fb\u696d\u52d9","client_name":"\u7559\u840c\u958b\u767a\u5efa\u8a2d\u90e8\u3000\u7fbd\u5e4c\u9053\u8def\u4e8b\u52d9\u6240","boring_xml_url":61,"boring_view_url":1,"soilmap_view_url":null,"soiltest_xml_url":0,"soiltest_view_url":0},{"id":500489,"code":"B4KJ202201000-3025","latitude":"44.196213","longitude":"141.927188","source_code":"HK20163020020008","project_name":"\u4e00\u822c\u56fd\u9053239\u53f7\u3000\u82eb\u524d\u753a\u3000\u9727\u7acb\u9632\u707d\u5730\u8cea\u8abf\u67fb\u696d\u52d9","survey_name":"\u4e00\u822c\u56fd\u9053239\u53f7\u3000\u82eb\u524d\u753a\u3000\u9727\u7acb\u9632\u707d\u5730\u8cea\u8abf\u67fb\u696d\u52d9","client_name":"\u7559\u840c\u958b\u767a\u5efa\u8a2d\u90e8\u3000\u7fbd\u5e4c\u9053\u8def\u4e8b\u52d9\u6240","boring_xml_url":61,"boring_view_url":1,"soilmap_view_url":null,"soiltest_xml_url":0,"soiltest_view_url":0},{"id":500488,"code":"B4KJ202201000-3024","latitude":"44.196156","longitude":"141.927155","source_code":"HK20163020020007","project_name":"\u4e00\u822c\u56fd\u9053239\u53f7\u3000\u82eb\u524d\u753a\u3000\u9727\u7acb\u9632\u707d\u5730\u8cea\u8abf\u67fb\u696d\u52d9","survey_name":"\u4e00\u822c\u56fd\u9053239\u53f7\u3000\u82eb\u524d\u753a\u3000\u9727\u7acb\u9632\u707d\u5730\u8cea\u8abf\u67fb\u696d\u52d9","client_name":"\u7559\u840c\u958b\u767a\u5efa\u8a2d\u90e8\u3000\u7fbd\u5e4c\u9053\u8def\u4e8b\u52d9\u6240","boring_xml_url":61,"boring_view_url":1,"soilmap_view_url":null,"soiltest_xml_url":0,"soiltest_view_url":0},{"id":500487,"code":"B4KJ202201000-3023","latitude":"44.192987","longitude":"141.916857","source_code":"HK20163020020006","project_name":"\u4e00\u822c\u56fd\u9053239\u53f7\u3000\u82eb\u524d\u753a\u3000\u9727\u7acb\u9632\u707d\u5730\u8cea\u8abf\u67fb\u696d\u52d9","survey_name":"\u4e00\u822c\u56fd\u9053239\u53f7\u3000\u82eb\u524d\u753a\u3000\u9727\u7acb\u9632\u707d\u5730\u8cea\u8abf\u67fb\u696d\u52d9","client_name":"\u7559\u840c\u958b\u767a\u5efa\u8a2d\u90e8\u3000\u7fbd\u5e4c\u9053\u8def\u4e8b\u52d9\u6240","boring_xml_url":61,"boring_view_url":1,"soilmap_view_url":null,"soiltest_xml_url":0,"soiltest_view_url":0},{"id":500486,"code":"B4KJ202201000-3022","latitude":"44.192731","longitude":"141.916704","source_code":"HK20163020020005","project_name":"\u4e00\u822c\u56fd\u9053239\u53f7\u3000\u82eb\u524d\u753a\u3000\u9727\u7acb\u9632\u707d\u5730\u8cea\u8abf\u67fb\u696d\u52d9","survey_name":"\u4e00\u822c\u56fd\u9053239\u53f7\u3000\u82eb\u524d\u753a\u3000\u9727\u7acb\u9632\u707d\u5730\u8cea\u8abf\u67fb\u696d\u52d9","client_name":"\u7559\u840c\u958b\u767a\u5efa\u8a2d\u90e8\u3000\u7fbd\u5e4c\u9053\u8def\u4e8b\u52d9\u6240","boring_xml_url":61,"boring_view_url":1,"soilmap_view_url":null,"soiltest_xml_url":0,"soiltest_view_url":0},{"id":500485,"code":"B4KJ202201000-3021","latitude":"44.190585","longitude":"141.928501","source_code":"HK20163020020004","project_name":"\u4e00\u822c\u56fd\u9053239\u53f7\u3000\u82eb\u524d\u753a\u3000\u9727\u7acb\u9632\u707d\u5730\u8cea\u8abf\u67fb\u696d\u52d9","survey_name":"\u4e00\u822c\u56fd\u9053239\u53f7\u3000\u82eb\u524d\u753a\u3000\u9727\u7acb\u9632\u707d\u5730\u8cea\u8abf\u67fb\u696d\u52d9","client_name":"\u7559\u840c\u958b\u767a\u5efa\u8a2d\u90e8\u3000\u7fbd\u5e4c\u9053\u8def\u4e8b\u52d9\u6240","boring_xml_url":61,"boring_view_url":1,"soilmap_view_url":null,"soiltest_xml_url":0,"soiltest_view_url":0},{"id":500484,"code":"B4KJ202201000-3020","latitude":"44.190233","longitude":"141.928291","source_code":"HK20163020020003","project_name":"\u4e00\u822c\u56fd\u9053239\u53f7\u3000\u82eb\u524d\u753a\u3000\u9727\u7acb\u9632\u707d\u5730\u8cea\u8abf\u67fb\u696d\u52d9","survey_name":"\u4e00\u822c\u56fd\u9053239\u53f7\u3000\u82eb\u524d\u753a\u3000\u9727\u7acb\u9632\u707d\u5730\u8cea\u8abf\u67fb\u696d\u52d9","client_name":"\u7559\u840c\u958b\u767a\u5efa\u8a2d\u90e8\u3000\u7fbd\u5e4c\u9053\u8def\u4e8b\u52d9\u6240","boring_xml_url":61,"boring_view_url":1,"soilmap_view_url":null,"soiltest_xml_url":0,"soiltest_view_url":0},{"id":500483,"code":"B4KJ202201000-3019","latitude":"44.190117","longitude":"141.929681","source_code":"HK20163020020002","project_name":"\u4e00\u822c\u56fd\u9053239\u53f7\u3000\u82eb\u524d\u753a\u3000\u9727\u7acb\u9632\u707d\u5730\u8cea\u8abf\u67fb\u696d\u52d9","survey_name":"\u4e00\u822c\u56fd\u9053239\u53f7\u3000\u82eb\u524d\u753a\u3000\u9727\u7acb\u9632\u707d\u5730\u8cea\u8abf\u67fb\u696d\u52d9","client_name":"\u7559\u840c\u958b\u767a\u5efa\u8a2d\u90e8\u3000\u7fbd\u5e4c\u9053\u8def\u4e8b\u52d9\u6240","boring_xml_url":61,"boring_view_url":1,"soilmap_view_url":null,"soiltest_xml_url":0,"soiltest_view_url":0},{"id":500482,"code":"B4KJ202201000-3018","latitude":"44.189995","longitude":"141.929377","source_code":"HK20163020020001","project_name":"\u4e00\u822c\u56fd\u9053239\u53f7\u3000\u82eb\u524d\u753a\u3000\u9727\u7acb\u9632\u707d\u5730\u8cea\u8abf\u67fb\u696d\u52d9","survey_name":"\u4e00\u822c\u56fd\u9053239\u53f7\u3000\u82eb\u524d\u753a\u3000\u9727\u7acb\u9632\u707d\u5730\u8cea\u8abf\u67fb\u696d\u52d9","client_name":"\u7559\u840c\u958b\u767a\u5efa\u8a2d\u90e8\u3000\u7fbd\u5e4c\u9053\u8def\u4e8b\u52d9\u6240","boring_xml_url":61,"boring_view_url":1,"soilmap_view_url":null,"soiltest_xml_url":0,"soiltest_view_url":0},{"id":500481,"code":"B4KJ202201000-3017","latitude":"44.33985","longitude":"142.260811","source_code":"HK20162517200008","project_name":"","survey_name":"\"\u58eb\u5225\u9053\u8def\u4e8b\u52d9\u6240\u7ba1\u5185 \u5730\u8cea\u8abf\u67fb\u696d\u52d9\"","client_name":"\u65ed\u5ddd\u958b\u767a\u5efa\u8a2d\u90e8\u3000\u58eb\u5225\u9053\u8def\u4e8b\u52d9\u6240","boring_xml_url":61,"boring_view_url":1,"soilmap_view_url":null,"soiltest_xml_url":0,"soiltest_view_url":0}]}}