{"header":{"xyz":{"source":[],"mosaic":false},"page":1500,"raw":{"soiltest_result":"0","bbox":"57.598333,109.544722,1.933333,163.806111","page":"1500"},"conditions":{"soiltest_result":0,"north":57.598333,"west":109.544722,"south":1.933333,"east":163.806111},"success":true,"message":""},"data":{"meta":{"total":212844,"page":1500,"pages":7095,"count":30},"values":[{"id":500390,"code":"B4KJ202201000-2926","latitude":"43.126611","longitude":"140.749378","source_code":"HK20162410550003","project_name":"\"\u4e00\u822c\u56fd\u90535\u53f7  \u4ec1\u6728\u753a\u5357\u753a\u5317\u5730\u8cea\u8abf\u67fb\u696d\u52d9\"","survey_name":"\u4e00\u822c\u56fd\u90535\u53f7\u3000\u4ec1\u6728\u753a\u5357\u753a\u5317\u5730\u8cea\u8abf\u67fb\u696d\u52d9","client_name":"\u5c0f\u6a3d\u958b\u767a\u5efa\u8a2d\u90e8\u5c0f\u6a3d\u9053\u8def\u4e8b\u52d9\u6240\u3000\u8a08\u753b\u8ab2\u8a08\u753b\u4fc2","boring_xml_url":61,"boring_view_url":1,"soilmap_view_url":null,"soiltest_xml_url":0,"soiltest_view_url":0},{"id":500389,"code":"B4KJ202201000-2925","latitude":"43.125203","longitude":"140.7456","source_code":"HK20162410550002","project_name":"\"\u4e00\u822c\u56fd\u90535\u53f7  \u4ec1\u6728\u753a\u5357\u753a\u5317\u5730\u8cea\u8abf\u67fb\u696d\u52d9\"","survey_name":"\u4e00\u822c\u56fd\u90535\u53f7\u3000\u4ec1\u6728\u753a\u5357\u753a\u5317\u5730\u8cea\u8abf\u67fb\u696d\u52d9","client_name":"\u5c0f\u6a3d\u958b\u767a\u5efa\u8a2d\u90e8\u5c0f\u6a3d\u9053\u8def\u4e8b\u52d9\u6240\u3000\u8a08\u753b\u8ab2\u8a08\u753b\u4fc2","boring_xml_url":61,"boring_view_url":1,"soilmap_view_url":null,"soiltest_xml_url":0,"soiltest_view_url":0},{"id":500388,"code":"B4KJ202201000-2924","latitude":"43.124225","longitude":"140.747236","source_code":"HK20162410550001","project_name":"\"\u4e00\u822c\u56fd\u90535\u53f7  \u4ec1\u6728\u753a\u5357\u753a\u5317\u5730\u8cea\u8abf\u67fb\u696d\u52d9\"","survey_name":"\"\u4e00\u822c\u56fd\u90535\u53f7  \u4ec1\u6728\u753a\u5357\u753a\u5317\u5730\u8cea\u8abf\u67fb\u696d\u52d9\"","client_name":"\u5c0f\u6a3d\u958b\u767a\u5efa\u8a2d\u90e8\u5c0f\u6a3d\u9053\u8def\u4e8b\u52d9\u6240\u3000\u8a08\u753b\u8ab2\u8a08\u753b\u4fc2","boring_xml_url":61,"boring_view_url":1,"soilmap_view_url":null,"soiltest_xml_url":0,"soiltest_view_url":0},{"id":500387,"code":"B4KJ202201000-2923","latitude":"42.978616","longitude":"140.646875","source_code":"HK20162410260010","project_name":"","survey_name":"\u4e00\u822c\u56fd\u90535\u53f7\u5171\u548c\u753a\u56fd\u5bcc\u5357\u5730\u8cea\u8abf\u67fb\u696d\u52d9","client_name":"\u5c0f\u6a3d\u958b\u767a\u5efa\u8a2d\u90e8\u3000\u5c0f\u6a3d\u9053\u8def\u4e8b\u52d9\u6240","boring_xml_url":61,"boring_view_url":1,"soilmap_view_url":null,"soiltest_xml_url":0,"soiltest_view_url":0},{"id":500386,"code":"B4KJ202201000-2922","latitude":"42.978393","longitude":"140.647448","source_code":"HK20162410260009","project_name":"","survey_name":"\u4e00\u822c\u56fd\u90535\u53f7\u5171\u548c\u753a\u56fd\u5bcc\u5357\u5730\u8cea\u8abf\u67fb\u696d\u52d9","client_name":"\u5c0f\u6a3d\u958b\u767a\u5efa\u8a2d\u90e8\u3000\u5c0f\u6a3d\u9053\u8def\u4e8b\u52d9\u6240","boring_xml_url":61,"boring_view_url":1,"soilmap_view_url":null,"soiltest_xml_url":0,"soiltest_view_url":0},{"id":500385,"code":"B4KJ202201000-2921","latitude":"42.978268","longitude":"140.648048","source_code":"HK20162410260008","project_name":"","survey_name":"\u4e00\u822c\u56fd\u90535\u53f7\u5171\u548c\u753a\u56fd\u5bcc\u5357\u5730\u8cea\u8abf\u67fb\u696d\u52d9","client_name":"\u5c0f\u6a3d\u958b\u767a\u5efa\u8a2d\u90e8\u3000\u5c0f\u6a3d\u9053\u8def\u4e8b\u52d9\u6240","boring_xml_url":61,"boring_view_url":1,"soilmap_view_url":null,"soiltest_xml_url":0,"soiltest_view_url":0},{"id":500384,"code":"B4KJ202201000-2920","latitude":"42.978081","longitude":"140.649343","source_code":"HK20162410260007","project_name":"","survey_name":"\u4e00\u822c\u56fd\u90535\u53f7\u5171\u548c\u753a\u56fd\u5bcc\u5357\u5730\u8cea\u8abf\u67fb\u696d\u52d9","client_name":"\u5c0f\u6a3d\u958b\u767a\u5efa\u8a2d\u90e8\u3000\u5c0f\u6a3d\u9053\u8def\u4e8b\u52d9\u6240","boring_xml_url":61,"boring_view_url":1,"soilmap_view_url":null,"soiltest_xml_url":0,"soiltest_view_url":0},{"id":500383,"code":"B4KJ202201000-2919","latitude":"42.977283","longitude":"140.650991","source_code":"HK20162410260006","project_name":"","survey_name":"\u4e00\u822c\u56fd\u90535\u53f7\u5171\u548c\u753a\u56fd\u5bcc\u5357\u5730\u8cea\u8abf\u67fb\u696d\u52d9","client_name":"\u5c0f\u6a3d\u958b\u767a\u5efa\u8a2d\u90e8\u3000\u5c0f\u6a3d\u9053\u8def\u4e8b\u52d9\u6240","boring_xml_url":61,"boring_view_url":1,"soilmap_view_url":null,"soiltest_xml_url":0,"soiltest_view_url":0},{"id":500382,"code":"B4KJ202201000-2918","latitude":"42.977247","longitude":"140.651059","source_code":"HK20162410260005","project_name":"","survey_name":"\u4e00\u822c\u56fd\u90535\u53f7\u5171\u548c\u753a\u56fd\u5bcc\u5357\u5730\u8cea\u8abf\u67fb\u696d\u52d9","client_name":"\u5c0f\u6a3d\u958b\u767a\u5efa\u8a2d\u90e8\u3000\u5c0f\u6a3d\u9053\u8def\u4e8b\u52d9\u6240","boring_xml_url":61,"boring_view_url":1,"soilmap_view_url":null,"soiltest_xml_url":0,"soiltest_view_url":0},{"id":500381,"code":"B4KJ202201000-2917","latitude":"42.97713","longitude":"140.651324","source_code":"HK20162410260004","project_name":"","survey_name":"\u4e00\u822c\u56fd\u90535\u53f7\u5171\u548c\u753a\u56fd\u5bcc\u5357\u5730\u8cea\u8abf\u67fb\u696d\u52d9","client_name":"\u5c0f\u6a3d\u958b\u767a\u5efa\u8a2d\u90e8\u3000\u5c0f\u6a3d\u9053\u8def\u4e8b\u52d9\u6240","boring_xml_url":61,"boring_view_url":1,"soilmap_view_url":null,"soiltest_xml_url":0,"soiltest_view_url":0},{"id":500380,"code":"B4KJ202201000-2916","latitude":"42.976498","longitude":"140.65854","source_code":"HK20162410260003","project_name":"","survey_name":"\u4e00\u822c\u56fd\u90535\u53f7\u5171\u548c\u753a\u56fd\u5bcc\u5357\u5730\u8cea\u8abf\u67fb\u696d\u52d9","client_name":"\u5c0f\u6a3d\u958b\u767a\u5efa\u8a2d\u90e8\u3000\u5c0f\u6a3d\u9053\u8def\u4e8b\u52d9\u6240","boring_xml_url":61,"boring_view_url":1,"soilmap_view_url":null,"soiltest_xml_url":0,"soiltest_view_url":0},{"id":500379,"code":"B4KJ202201000-2915","latitude":"42.976437","longitude":"140.659271","source_code":"HK20162410260002","project_name":"","survey_name":"\u4e00\u822c\u56fd\u90535\u53f7\u5171\u548c\u753a\u56fd\u5bcc\u5357\u5730\u8cea\u8abf\u67fb\u696d\u52d9","client_name":"\u5c0f\u6a3d\u958b\u767a\u5efa\u8a2d\u90e8\u3000\u5c0f\u6a3d\u9053\u8def\u4e8b\u52d9\u6240","boring_xml_url":61,"boring_view_url":1,"soilmap_view_url":null,"soiltest_xml_url":0,"soiltest_view_url":0},{"id":500378,"code":"B4KJ202201000-2914","latitude":"42.976411","longitude":"140.659575","source_code":"HK20162410260001","project_name":"","survey_name":"\u4e00\u822c\u56fd\u90535\u53f7\u5171\u548c\u753a\u56fd\u5bcc\u5357\u5730\u8cea\u8abf\u67fb\u696d\u52d9","client_name":"\u5c0f\u6a3d\u958b\u767a\u5efa\u8a2d\u90e8\u3000\u5c0f\u6a3d\u9053\u8def\u4e8b\u52d9\u6240","boring_xml_url":61,"boring_view_url":1,"soilmap_view_url":null,"soiltest_xml_url":0,"soiltest_view_url":0},{"id":500377,"code":"B4KJ202201000-2913","latitude":"42.629361","longitude":"141.027353","source_code":"HK20162613010015","project_name":"\"\u6709\u73e0\u5fa9\u65e7\u4e8b\u52d9\u6240\u7ba1\u5185 \u5730\u8cea\u8abf\u67fb\u696d\u52d9\"","survey_name":"\"\u6709\u73e0\u5fa9\u65e7\u4e8b\u52d9\u6240\u7ba1\u5185 \u5730\u8cea\u8abf\u67fb\u696d\u52d9\"","client_name":"\"\u5317\u6d77\u9053\u958b\u767a\u5c40 \u5ba4\u862d\u958b\u767a\u5efa\u8a2d\u90e8 \u6709\u73e0\u5fa9\u65e7\u4e8b\u52d9\u6240\"","boring_xml_url":61,"boring_view_url":1,"soilmap_view_url":null,"soiltest_xml_url":0,"soiltest_view_url":0},{"id":500376,"code":"B4KJ202201000-2912","latitude":"42.697581","longitude":"141.095439","source_code":"HK20162613010014","project_name":"\"\u6709\u73e0\u5fa9\u65e7\u4e8b\u52d9\u6240\u7ba1\u5185 \u5730\u8cea\u8abf\u67fb\u696d\u52d9\"","survey_name":"\"\u6709\u73e0\u5fa9\u65e7\u4e8b\u52d9\u6240\u7ba1\u5185 \u5730\u8cea\u8abf\u67fb\u696d\u52d9\"","client_name":"\"\u5317\u6d77\u9053\u958b\u767a\u5c40 \u5ba4\u862d\u958b\u767a\u5efa\u8a2d\u90e8 \u6709\u73e0\u5fa9\u65e7\u4e8b\u52d9\u6240\"","boring_xml_url":61,"boring_view_url":1,"soilmap_view_url":null,"soiltest_xml_url":0,"soiltest_view_url":0},{"id":500375,"code":"B4KJ202201000-2911","latitude":"42.709983","longitude":"141.077311","source_code":"HK20162613010013","project_name":"\"\u6709\u73e0\u5fa9\u65e7\u4e8b\u52d9\u6240\u7ba1\u5185 \u5730\u8cea\u8abf\u67fb\u696d\u52d9\"","survey_name":"\"\u6709\u73e0\u5fa9\u65e7\u4e8b\u52d9\u6240\u7ba1\u5185 \u5730\u8cea\u8abf\u67fb\u696d\u52d9\"","client_name":"\"\u5317\u6d77\u9053\u958b\u767a\u5c40 \u5ba4\u862d\u958b\u767a\u5efa\u8a2d\u90e8 \u6709\u73e0\u5fa9\u65e7\u4e8b\u52d9\u6240\"","boring_xml_url":61,"boring_view_url":1,"soilmap_view_url":null,"soiltest_xml_url":0,"soiltest_view_url":0},{"id":500374,"code":"B4KJ202201000-2910","latitude":"42.7101","longitude":"141.077483","source_code":"HK20162613010012","project_name":"\"\u6709\u73e0\u5fa9\u65e7\u4e8b\u52d9\u6240\u7ba1\u5185 \u5730\u8cea\u8abf\u67fb\u696d\u52d9\"","survey_name":"\"\u6709\u73e0\u5fa9\u65e7\u4e8b\u52d9\u6240\u7ba1\u5185 \u5730\u8cea\u8abf\u67fb\u696d\u52d9\"","client_name":"\"\u5317\u6d77\u9053\u958b\u767a\u5c40 \u5ba4\u862d\u958b\u767a\u5efa\u8a2d\u90e8 \u6709\u73e0\u5fa9\u65e7\u4e8b\u52d9\u6240\"","boring_xml_url":61,"boring_view_url":1,"soilmap_view_url":null,"soiltest_xml_url":0,"soiltest_view_url":0},{"id":500373,"code":"B4KJ202201000-2909","latitude":"42.729128","longitude":"141.067436","source_code":"HK20162613010011","project_name":"\"\u6709\u73e0\u5fa9\u65e7\u4e8b\u52d9\u6240\u7ba1\u5185 \u5730\u8cea\u8abf\u67fb\u696d\u52d9\"","survey_name":"\"\u6709\u73e0\u5fa9\u65e7\u4e8b\u52d9\u6240\u7ba1\u5185 \u5730\u8cea\u8abf\u67fb\u696d\u52d9\"","client_name":"\"\u5317\u6d77\u9053\u958b\u767a\u5c40 \u5ba4\u862d\u958b\u767a\u5efa\u8a2d\u90e8 \u6709\u73e0\u5fa9\u65e7\u4e8b\u52d9\u6240\"","boring_xml_url":61,"boring_view_url":1,"soilmap_view_url":null,"soiltest_xml_url":0,"soiltest_view_url":0},{"id":500372,"code":"B4KJ202201000-2908","latitude":"42.591206","longitude":"140.783419","source_code":"HK20162613010010","project_name":"\"\u6709\u73e0\u5fa9\u65e7\u4e8b\u52d9\u6240\u7ba1\u5185 \u5730\u8cea\u8abf\u67fb\u696d\u52d9\"","survey_name":"\"\u6709\u73e0\u5fa9\u65e7\u4e8b\u52d9\u6240\u7ba1\u5185 \u5730\u8cea\u8abf\u67fb\u696d\u52d9\"","client_name":"\"\u5317\u6d77\u9053\u958b\u767a\u5c40 \u5ba4\u862d\u958b\u767a\u5efa\u8a2d\u90e8 \u6709\u73e0\u5fa9\u65e7\u4e8b\u52d9\u6240\"","boring_xml_url":61,"boring_view_url":1,"soilmap_view_url":null,"soiltest_xml_url":0,"soiltest_view_url":0},{"id":500371,"code":"B4KJ202201000-2907","latitude":"42.591144","longitude":"140.783386","source_code":"HK20162613010009","project_name":"\"\u6709\u73e0\u5fa9\u65e7\u4e8b\u52d9\u6240\u7ba1\u5185 \u5730\u8cea\u8abf\u67fb\u696d\u52d9\"","survey_name":"\"\u6709\u73e0\u5fa9\u65e7\u4e8b\u52d9\u6240\u7ba1\u5185 \u5730\u8cea\u8abf\u67fb\u696d\u52d9\"","client_name":"\"\u5317\u6d77\u9053\u958b\u767a\u5c40 \u5ba4\u862d\u958b\u767a\u5efa\u8a2d\u90e8 \u6709\u73e0\u5fa9\u65e7\u4e8b\u52d9\u6240\"","boring_xml_url":61,"boring_view_url":1,"soilmap_view_url":null,"soiltest_xml_url":0,"soiltest_view_url":0},{"id":500370,"code":"B4KJ202201000-2906","latitude":"42.664289","longitude":"140.829275","source_code":"HK20162613010008","project_name":"\"\u6709\u73e0\u5fa9\u65e7\u4e8b\u52d9\u6240\u7ba1\u5185 \u5730\u8cea\u8abf\u67fb\u696d\u52d9\"","survey_name":"\"\u6709\u73e0\u5fa9\u65e7\u4e8b\u52d9\u6240\u7ba1\u5185 \u5730\u8cea\u8abf\u67fb\u696d\u52d9\"","client_name":"\"\u5317\u6d77\u9053\u958b\u767a\u5c40 \u5ba4\u862d\u958b\u767a\u5efa\u8a2d\u90e8 \u6709\u73e0\u5fa9\u65e7\u4e8b\u52d9\u6240\"","boring_xml_url":61,"boring_view_url":1,"soilmap_view_url":null,"soiltest_xml_url":0,"soiltest_view_url":0},{"id":500369,"code":"B4KJ202201000-2905","latitude":"42.594572","longitude":"140.593042","source_code":"HK20162613010007","project_name":"\"\u6709\u73e0\u5fa9\u65e7\u4e8b\u52d9\u6240\u7ba1\u5185 \u5730\u8cea\u8abf\u67fb\u696d\u52d9\"","survey_name":"\"\u6709\u73e0\u5fa9\u65e7\u4e8b\u52d9\u6240\u7ba1\u5185 \u5730\u8cea\u8abf\u67fb\u696d\u52d9\"","client_name":"\"\u5317\u6d77\u9053\u958b\u767a\u5c40 \u5ba4\u862d\u958b\u767a\u5efa\u8a2d\u90e8 \u6709\u73e0\u5fa9\u65e7\u4e8b\u52d9\u6240\"","boring_xml_url":61,"boring_view_url":1,"soilmap_view_url":null,"soiltest_xml_url":0,"soiltest_view_url":0},{"id":500368,"code":"B4KJ202201000-2904","latitude":"42.594589","longitude":"140.593136","source_code":"HK20162613010006","project_name":"\"\u6709\u73e0\u5fa9\u65e7\u4e8b\u52d9\u6240\u7ba1\u5185 \u5730\u8cea\u8abf\u67fb\u696d\u52d9\"","survey_name":"\"\u6709\u73e0\u5fa9\u65e7\u4e8b\u52d9\u6240\u7ba1\u5185 \u5730\u8cea\u8abf\u67fb\u696d\u52d9\"","client_name":"\"\u5317\u6d77\u9053\u958b\u767a\u5c40 \u5ba4\u862d\u958b\u767a\u5efa\u8a2d\u90e8 \u6709\u73e0\u5fa9\u65e7\u4e8b\u52d9\u6240\"","boring_xml_url":61,"boring_view_url":1,"soilmap_view_url":null,"soiltest_xml_url":0,"soiltest_view_url":0},{"id":500367,"code":"B4KJ202201000-2903","latitude":"42.595903","longitude":"140.588708","source_code":"HK20162613010005","project_name":"\"\u6709\u73e0\u5fa9\u65e7\u4e8b\u52d9\u6240\u7ba1\u5185 \u5730\u8cea\u8abf\u67fb\u696d\u52d9\"","survey_name":"\"\u6709\u73e0\u5fa9\u65e7\u4e8b\u52d9\u6240\u7ba1\u5185 \u5730\u8cea\u8abf\u67fb\u696d\u52d9\"","client_name":"\"\u5317\u6d77\u9053\u958b\u767a\u5c40 \u5ba4\u862d\u958b\u767a\u5efa\u8a2d\u90e8 \u6709\u73e0\u5fa9\u65e7\u4e8b\u52d9\u6240\"","boring_xml_url":61,"boring_view_url":1,"soilmap_view_url":null,"soiltest_xml_url":0,"soiltest_view_url":0},{"id":500366,"code":"B4KJ202201000-2902","latitude":"42.59725","longitude":"140.577675","source_code":"HK20162613010004","project_name":"\"\u6709\u73e0\u5fa9\u65e7\u4e8b\u52d9\u6240\u7ba1\u5185 \u5730\u8cea\u8abf\u67fb\u696d\u52d9\"","survey_name":"\"\u6709\u73e0\u5fa9\u65e7\u4e8b\u52d9\u6240\u7ba1\u5185 \u5730\u8cea\u8abf\u67fb\u696d\u52d9\"","client_name":"\"\u5317\u6d77\u9053\u958b\u767a\u5c40 \u5ba4\u862d\u958b\u767a\u5efa\u8a2d\u90e8 \u6709\u73e0\u5fa9\u65e7\u4e8b\u52d9\u6240\"","boring_xml_url":61,"boring_view_url":1,"soilmap_view_url":null,"soiltest_xml_url":0,"soiltest_view_url":0},{"id":500365,"code":"B4KJ202201000-2901","latitude":"42.597367","longitude":"140.5777","source_code":"HK20162613010003","project_name":"\"\u6709\u73e0\u5fa9\u65e7\u4e8b\u52d9\u6240\u7ba1\u5185 \u5730\u8cea\u8abf\u67fb\u696d\u52d9\"","survey_name":"\"\u6709\u73e0\u5fa9\u65e7\u4e8b\u52d9\u6240\u7ba1\u5185 \u5730\u8cea\u8abf\u67fb\u696d\u52d9\"","client_name":"\"\u5317\u6d77\u9053\u958b\u767a\u5c40 \u5ba4\u862d\u958b\u767a\u5efa\u8a2d\u90e8 \u6709\u73e0\u5fa9\u65e7\u4e8b\u52d9\u6240\"","boring_xml_url":61,"boring_view_url":1,"soilmap_view_url":null,"soiltest_xml_url":0,"soiltest_view_url":0},{"id":500364,"code":"B4KJ202201000-2900","latitude":"42.602058","longitude":"140.570264","source_code":"HK20162613010002","project_name":"\"\u6709\u73e0\u5fa9\u65e7\u4e8b\u52d9\u6240\u7ba1\u5185 \u5730\u8cea\u8abf\u67fb\u696d\u52d9\"","survey_name":"\"\u6709\u73e0\u5fa9\u65e7\u4e8b\u52d9\u6240\u7ba1\u5185 \u5730\u8cea\u8abf\u67fb\u696d\u52d9\"","client_name":"\"\u5317\u6d77\u9053\u958b\u767a\u5c40 \u5ba4\u862d\u958b\u767a\u5efa\u8a2d\u90e8 \u6709\u73e0\u5fa9\u65e7\u4e8b\u52d9\u6240\"","boring_xml_url":61,"boring_view_url":1,"soilmap_view_url":null,"soiltest_xml_url":0,"soiltest_view_url":0},{"id":500363,"code":"B4KJ202201000-2899","latitude":"42.602161","longitude":"140.570428","source_code":"HK20162613010001","project_name":"\"\u6709\u73e0\u5fa9\u65e7\u4e8b\u52d9\u6240\u7ba1\u5185 \u5730\u8cea\u8abf\u67fb\u696d\u52d9\"","survey_name":"\"\u6709\u73e0\u5fa9\u65e7\u4e8b\u52d9\u6240\u7ba1\u5185 \u5730\u8cea\u8abf\u67fb\u696d\u52d9\"","client_name":"\"\u5317\u6d77\u9053\u958b\u767a\u5c40 \u5ba4\u862d\u958b\u767a\u5efa\u8a2d\u90e8 \u6709\u73e0\u5fa9\u65e7\u4e8b\u52d9\u6240\"","boring_xml_url":61,"boring_view_url":1,"soilmap_view_url":null,"soiltest_xml_url":0,"soiltest_view_url":0},{"id":500362,"code":"B4KJ202201000-2898","latitude":"42.977822","longitude":"140.629506","source_code":"HK20162430070011","project_name":"\u5ca9\u5185\u9053\u8def\u4e8b\u52d9\u6240\u7ba1\u5185\u3000\u5730\u8cea\u8abf\u67fb\u696d\u52d9","survey_name":"\u5ca9\u5185\u9053\u8def\u4e8b\u52d9\u6240\u7ba1\u5185\u3000\u5730\u8cea\u8abf\u67fb\u696d\u52d9","client_name":"\u5c0f\u6a3d\u958b\u767a\u5efa\u8a2d\u90e8\u3000\u5ca9\u5185\u9053\u8def\u4e8b\u52d9\u6240\u3000\u8a08\u753b\u8ab2\u3000\u8a08\u753b\u4fc2","boring_xml_url":61,"boring_view_url":1,"soilmap_view_url":null,"soiltest_xml_url":0,"soiltest_view_url":0},{"id":500361,"code":"B4KJ202201000-2897","latitude":"42.977936","longitude":"140.629033","source_code":"HK20162430070010","project_name":"\u5ca9\u5185\u9053\u8def\u4e8b\u52d9\u6240\u7ba1\u5185\u3000\u5730\u8cea\u8abf\u67fb\u696d\u52d9","survey_name":"\u5ca9\u5185\u9053\u8def\u4e8b\u52d9\u6240\u7ba1\u5185\u3000\u5730\u8cea\u8abf\u67fb\u696d\u52d9","client_name":"\u5c0f\u6a3d\u958b\u767a\u5efa\u8a2d\u90e8\u3000\u5ca9\u5185\u9053\u8def\u4e8b\u52d9\u6240\u3000\u8a08\u753b\u8ab2\u3000\u8a08\u753b\u4fc2","boring_xml_url":61,"boring_view_url":1,"soilmap_view_url":null,"soiltest_xml_url":0,"soiltest_view_url":0}]}}