{"header":{"xyz":{"source":[],"mosaic":false},"page":1502,"raw":{"soiltest_result":"0","bbox":"57.598333,109.544722,1.933333,163.806111","page":"1502"},"conditions":{"soiltest_result":0,"north":57.598333,"west":109.544722,"south":1.933333,"east":163.806111},"success":true,"message":""},"data":{"meta":{"total":212844,"page":1502,"pages":7095,"count":30},"values":[{"id":500330,"code":"B4KJ202201000-2866","latitude":"42.379217","longitude":"143.087179","source_code":"HK20162813050005","project_name":"\u4e00\u822c\u56fd\u9053236\u53f7","survey_name":"\u4e00\u822c\u56fd\u9053236\u53f7\u3000\u5e83\u5c3e\u753a\u3000\u91ce\u585a\u5ce0\u5730\u8cea\u8abf\u67fb\u696d\u52d9","client_name":"\u5317\u6d77\u9053\u958b\u767a\u5c40\u5e2f\u5e83\u958b\u767a\u5efa\u8a2d\u90e8\u5e83\u5c3e\u9053\u8def\u4e8b\u52d9\u6240","boring_xml_url":61,"boring_view_url":1,"soilmap_view_url":null,"soiltest_xml_url":0,"soiltest_view_url":0},{"id":500329,"code":"B4KJ202201000-2865","latitude":"42.379019","longitude":"143.087403","source_code":"HK20162813050004","project_name":"\u4e00\u822c\u56fd\u9053236\u53f7","survey_name":"\u4e00\u822c\u56fd\u9053236\u53f7\u3000\u5e83\u5c3e\u753a\u3000\u91ce\u585a\u5ce0\u5730\u8cea\u8abf\u67fb\u696d\u52d9","client_name":"\u5317\u6d77\u9053\u958b\u767a\u5c40\u5e2f\u5e83\u958b\u767a\u5efa\u8a2d\u90e8\u5e83\u5c3e\u9053\u8def\u4e8b\u52d9\u6240","boring_xml_url":61,"boring_view_url":1,"soilmap_view_url":null,"soiltest_xml_url":0,"soiltest_view_url":0},{"id":500328,"code":"B4KJ202201000-2864","latitude":"42.379079","longitude":"143.088961","source_code":"HK20162813050003","project_name":"\u4e00\u822c\u56fd\u9053236\u53f7","survey_name":"\u4e00\u822c\u56fd\u9053236\u53f7\u3000\u5e83\u5c3e\u753a\u3000\u91ce\u585a\u5ce0\u5730\u8cea\u8abf\u67fb\u696d\u52d9","client_name":"\u5317\u6d77\u9053\u958b\u767a\u5c40\u5e2f\u5e83\u958b\u767a\u5efa\u8a2d\u90e8\u5e83\u5c3e\u9053\u8def\u4e8b\u52d9\u6240","boring_xml_url":61,"boring_view_url":1,"soilmap_view_url":null,"soiltest_xml_url":0,"soiltest_view_url":0},{"id":500327,"code":"B4KJ202201000-2863","latitude":"42.378068","longitude":"140.087037","source_code":"HK20162813050002","project_name":"\u4e00\u822c\u56fd\u9053236\u53f7","survey_name":"\u4e00\u822c\u56fd\u9053236\u53f7\u3000\u5e83\u5c3e\u753a\u3000\u91ce\u585a\u5ce0\u5730\u8cea\u8abf\u67fb\u696d\u52d9","client_name":"\u5317\u6d77\u9053\u958b\u767a\u5c40\u5e2f\u5e83\u958b\u767a\u5efa\u8a2d\u90e8\u5e83\u5c3e\u9053\u8def\u4e8b\u52d9\u6240","boring_xml_url":61,"boring_view_url":1,"soilmap_view_url":null,"soiltest_xml_url":0,"soiltest_view_url":0},{"id":500326,"code":"B4KJ202201000-2862","latitude":"42.378731","longitude":"143.087017","source_code":"HK20162813050001","project_name":"\u4e00\u822c\u56fd\u9053236\u53f7","survey_name":"\u4e00\u822c\u56fd\u9053236\u53f7\u3000\u5e83\u5c3e\u753a\u3000\u91ce\u585a\u5ce0\u5730\u8cea\u8abf\u67fb\u696d\u52d9","client_name":"\u5317\u6d77\u9053\u958b\u767a\u5c40\u5e2f\u5e83\u958b\u767a\u5efa\u8a2d\u90e8\u5e83\u5c3e\u9053\u8def\u4e8b\u52d9\u6240","boring_xml_url":61,"boring_view_url":1,"soilmap_view_url":null,"soiltest_xml_url":0,"soiltest_view_url":0},{"id":500325,"code":"B4KJ202201000-2861","latitude":"42.4855","longitude":"143.246333","source_code":"HK20162812100022","project_name":"","survey_name":"\"\u5e2f\u5e83\u5e83\u5c3e\u81ea\u52d5\u8eca\u9053 \u5927\u6a39\u753a \u5730\u8cea\u8abf\u67fb\u696d\u52d9\"","client_name":"\u5317\u6d77\u9053\u958b\u767a\u5c40\u3000\u5e2f\u5e83\u958b\u767a\u5efa\u8a2d\u90e8\u3000\u5e2f\u5e83\u9053\u8def\u4e8b\u52d9\u6240","boring_xml_url":61,"boring_view_url":1,"soilmap_view_url":null,"soiltest_xml_url":0,"soiltest_view_url":0},{"id":500324,"code":"B4KJ202201000-2860","latitude":"42.485778","longitude":"143.2465","source_code":"HK20162812100021","project_name":"","survey_name":"\"\u5e2f\u5e83\u5e83\u5c3e\u81ea\u52d5\u8eca\u9053 \u5927\u6a39\u753a \u5730\u8cea\u8abf\u67fb\u696d\u52d9\"","client_name":"\u5317\u6d77\u9053\u958b\u767a\u5c40\u3000\u5e2f\u5e83\u958b\u767a\u5efa\u8a2d\u90e8\u3000\u5e2f\u5e83\u9053\u8def\u4e8b\u52d9\u6240","boring_xml_url":61,"boring_view_url":1,"soilmap_view_url":null,"soiltest_xml_url":0,"soiltest_view_url":0},{"id":500323,"code":"B4KJ202201000-2859","latitude":"42.486528","longitude":"143.246833","source_code":"HK20162812100020","project_name":"","survey_name":"\"\u5e2f\u5e83\u5e83\u5c3e\u81ea\u52d5\u8eca\u9053 \u5927\u6a39\u753a \u5730\u8cea\u8abf\u67fb\u696d\u52d9\"","client_name":"\u5317\u6d77\u9053\u958b\u767a\u5c40\u3000\u5e2f\u5e83\u958b\u767a\u5efa\u8a2d\u90e8\u3000\u5e2f\u5e83\u9053\u8def\u4e8b\u52d9\u6240","boring_xml_url":61,"boring_view_url":1,"soilmap_view_url":null,"soiltest_xml_url":0,"soiltest_view_url":0},{"id":500322,"code":"B4KJ202201000-2858","latitude":"42.489417","longitude":"143.248639","source_code":"HK20162812100019","project_name":"","survey_name":"\"\u5e2f\u5e83\u5e83\u5c3e\u81ea\u52d5\u8eca\u9053 \u5927\u6a39\u753a \u5730\u8cea\u8abf\u67fb\u696d\u52d9\"","client_name":"\u5317\u6d77\u9053\u958b\u767a\u5c40\u3000\u5e2f\u5e83\u958b\u767a\u5efa\u8a2d\u90e8\u3000\u5e2f\u5e83\u9053\u8def\u4e8b\u52d9\u6240","boring_xml_url":61,"boring_view_url":1,"soilmap_view_url":null,"soiltest_xml_url":0,"soiltest_view_url":0},{"id":500321,"code":"B4KJ202201000-2857","latitude":"42.489667","longitude":"143.248722","source_code":"HK20162812100018","project_name":"","survey_name":"\"\u5e2f\u5e83\u5e83\u5c3e\u81ea\u52d5\u8eca\u9053 \u5927\u6a39\u753a \u5730\u8cea\u8abf\u67fb\u696d\u52d9\"","client_name":"\u5317\u6d77\u9053\u958b\u767a\u5c40\u3000\u5e2f\u5e83\u958b\u767a\u5efa\u8a2d\u90e8\u3000\u5e2f\u5e83\u9053\u8def\u4e8b\u52d9\u6240","boring_xml_url":61,"boring_view_url":1,"soilmap_view_url":null,"soiltest_xml_url":0,"soiltest_view_url":0},{"id":500320,"code":"B4KJ202201000-2856","latitude":"42.491056","longitude":"143.249778","source_code":"HK20162812100017","project_name":"","survey_name":"\"\u5e2f\u5e83\u5e83\u5c3e\u81ea\u52d5\u8eca\u9053 \u5927\u6a39\u753a \u5730\u8cea\u8abf\u67fb\u696d\u52d9\"","client_name":"\u5317\u6d77\u9053\u958b\u767a\u5c40\u3000\u5e2f\u5e83\u958b\u767a\u5efa\u8a2d\u90e8\u3000\u5e2f\u5e83\u9053\u8def\u4e8b\u52d9\u6240","boring_xml_url":61,"boring_view_url":1,"soilmap_view_url":null,"soiltest_xml_url":0,"soiltest_view_url":0},{"id":500319,"code":"B4KJ202201000-2855","latitude":"42.493917","longitude":"143.251167","source_code":"HK20162812100016","project_name":"","survey_name":"\"\u5e2f\u5e83\u5e83\u5c3e\u81ea\u52d5\u8eca\u9053 \u5927\u6a39\u753a \u5730\u8cea\u8abf\u67fb\u696d\u52d9\"","client_name":"\u5317\u6d77\u9053\u958b\u767a\u5c40\u3000\u5e2f\u5e83\u958b\u767a\u5efa\u8a2d\u90e8\u3000\u5e2f\u5e83\u9053\u8def\u4e8b\u52d9\u6240","boring_xml_url":61,"boring_view_url":1,"soilmap_view_url":null,"soiltest_xml_url":0,"soiltest_view_url":0},{"id":500318,"code":"B4KJ202201000-2854","latitude":"42.502639","longitude":"143.252194","source_code":"HK20162812100015","project_name":"","survey_name":"\"\u5e2f\u5e83\u5e83\u5c3e\u81ea\u52d5\u8eca\u9053 \u5927\u6a39\u753a \u5730\u8cea\u8abf\u67fb\u696d\u52d9\"","client_name":"\u5317\u6d77\u9053\u958b\u767a\u5c40\u3000\u5e2f\u5e83\u958b\u767a\u5efa\u8a2d\u90e8\u3000\u5e2f\u5e83\u9053\u8def\u4e8b\u52d9\u6240","boring_xml_url":61,"boring_view_url":1,"soilmap_view_url":null,"soiltest_xml_url":0,"soiltest_view_url":0},{"id":500317,"code":"B4KJ202201000-2853","latitude":"42.50625","longitude":"143.253389","source_code":"HK20162812100014","project_name":"","survey_name":"\"\u5e2f\u5e83\u5e83\u5c3e\u81ea\u52d5\u8eca\u9053 \u5927\u6a39\u753a \u5730\u8cea\u8abf\u67fb\u696d\u52d9\"","client_name":"\u5317\u6d77\u9053\u958b\u767a\u5c40\u3000\u5e2f\u5e83\u958b\u767a\u5efa\u8a2d\u90e8\u3000\u5e2f\u5e83\u9053\u8def\u4e8b\u52d9\u6240","boring_xml_url":61,"boring_view_url":1,"soilmap_view_url":null,"soiltest_xml_url":0,"soiltest_view_url":0},{"id":500316,"code":"B4KJ202201000-2852","latitude":"42.508361","longitude":"143.254111","source_code":"HK20162812100013","project_name":"","survey_name":"\"\u5e2f\u5e83\u5e83\u5c3e\u81ea\u52d5\u8eca\u9053 \u5927\u6a39\u753a \u5730\u8cea\u8abf\u67fb\u696d\u52d9\"","client_name":"\u5317\u6d77\u9053\u958b\u767a\u5c40\u3000\u5e2f\u5e83\u958b\u767a\u5efa\u8a2d\u90e8\u3000\u5e2f\u5e83\u9053\u8def\u4e8b\u52d9\u6240","boring_xml_url":61,"boring_view_url":1,"soilmap_view_url":null,"soiltest_xml_url":0,"soiltest_view_url":0},{"id":500315,"code":"B4KJ202201000-2851","latitude":"42.511056","longitude":"143.256667","source_code":"HK20162812100012","project_name":"","survey_name":"\"\u5e2f\u5e83\u5e83\u5c3e\u81ea\u52d5\u8eca\u9053 \u5927\u6a39\u753a \u5730\u8cea\u8abf\u67fb\u696d\u52d9\"","client_name":"\u5317\u6d77\u9053\u958b\u767a\u5c40\u3000\u5e2f\u5e83\u958b\u767a\u5efa\u8a2d\u90e8\u3000\u5e2f\u5e83\u9053\u8def\u4e8b\u52d9\u6240","boring_xml_url":61,"boring_view_url":1,"soilmap_view_url":null,"soiltest_xml_url":0,"soiltest_view_url":0},{"id":500314,"code":"B4KJ202201000-2850","latitude":"42.51325","longitude":"143.258222","source_code":"HK20162812100011","project_name":"","survey_name":"\"\u5e2f\u5e83\u5e83\u5c3e\u81ea\u52d5\u8eca\u9053 \u5927\u6a39\u753a \u5730\u8cea\u8abf\u67fb\u696d\u52d9\"","client_name":"\u5317\u6d77\u9053\u958b\u767a\u5c40\u3000\u5e2f\u5e83\u958b\u767a\u5efa\u8a2d\u90e8\u3000\u5e2f\u5e83\u9053\u8def\u4e8b\u52d9\u6240","boring_xml_url":61,"boring_view_url":1,"soilmap_view_url":null,"soiltest_xml_url":0,"soiltest_view_url":0},{"id":500313,"code":"B4KJ202201000-2849","latitude":"42.5155","longitude":"143.259861","source_code":"HK20162812100010","project_name":"","survey_name":"\"\u5e2f\u5e83\u5e83\u5c3e\u81ea\u52d5\u8eca\u9053 \u5927\u6a39\u753a \u5730\u8cea\u8abf\u67fb\u696d\u52d9\"","client_name":"\u5317\u6d77\u9053\u958b\u767a\u5c40\u3000\u5e2f\u5e83\u958b\u767a\u5efa\u8a2d\u90e8\u3000\u5e2f\u5e83\u9053\u8def\u4e8b\u52d9\u6240","boring_xml_url":61,"boring_view_url":1,"soilmap_view_url":null,"soiltest_xml_url":0,"soiltest_view_url":0},{"id":500312,"code":"B4KJ202201000-2848","latitude":"42.517722","longitude":"143.261417","source_code":"HK20162812100009","project_name":"","survey_name":"\"\u5e2f\u5e83\u5e83\u5c3e\u81ea\u52d5\u8eca\u9053 \u5927\u6a39\u753a \u5730\u8cea\u8abf\u67fb\u696d\u52d9\"","client_name":"\u5317\u6d77\u9053\u958b\u767a\u5c40\u3000\u5e2f\u5e83\u958b\u767a\u5efa\u8a2d\u90e8\u3000\u5e2f\u5e83\u9053\u8def\u4e8b\u52d9\u6240","boring_xml_url":61,"boring_view_url":1,"soilmap_view_url":null,"soiltest_xml_url":0,"soiltest_view_url":0},{"id":500311,"code":"B4KJ202201000-2847","latitude":"42.519944","longitude":"143.263","source_code":"HK20162812100008","project_name":"","survey_name":"\"\u5e2f\u5e83\u5e83\u5c3e\u81ea\u52d5\u8eca\u9053 \u5927\u6a39\u753a \u5730\u8cea\u8abf\u67fb\u696d\u52d9\"","client_name":"\u5317\u6d77\u9053\u958b\u767a\u5c40\u3000\u5e2f\u5e83\u958b\u767a\u5efa\u8a2d\u90e8\u3000\u5e2f\u5e83\u9053\u8def\u4e8b\u52d9\u6240","boring_xml_url":61,"boring_view_url":1,"soilmap_view_url":null,"soiltest_xml_url":0,"soiltest_view_url":0},{"id":500310,"code":"B4KJ202201000-2846","latitude":"42.521667","longitude":"143.264222","source_code":"HK20162812100007","project_name":"","survey_name":"\"\u5e2f\u5e83\u5e83\u5c3e\u81ea\u52d5\u8eca\u9053 \u5927\u6a39\u753a \u5730\u8cea\u8abf\u67fb\u696d\u52d9\"","client_name":"\u5317\u6d77\u9053\u958b\u767a\u5c40\u3000\u5e2f\u5e83\u958b\u767a\u5efa\u8a2d\u90e8\u3000\u5e2f\u5e83\u9053\u8def\u4e8b\u52d9\u6240","boring_xml_url":61,"boring_view_url":1,"soilmap_view_url":null,"soiltest_xml_url":0,"soiltest_view_url":0},{"id":500309,"code":"B4KJ202201000-2845","latitude":"42.521806","longitude":"143.264361","source_code":"HK20162812100006","project_name":"","survey_name":"\"\u5e2f\u5e83\u5e83\u5c3e\u81ea\u52d5\u8eca\u9053 \u5927\u6a39\u753a \u5730\u8cea\u8abf\u67fb\u696d\u52d9\"","client_name":"\u5317\u6d77\u9053\u958b\u767a\u5c40\u3000\u5e2f\u5e83\u958b\u767a\u5efa\u8a2d\u90e8\u3000\u5e2f\u5e83\u9053\u8def\u4e8b\u52d9\u6240","boring_xml_url":61,"boring_view_url":1,"soilmap_view_url":null,"soiltest_xml_url":0,"soiltest_view_url":0},{"id":500308,"code":"B4KJ202201000-2844","latitude":"42.523028","longitude":"143.265222","source_code":"HK20162812100005","project_name":"","survey_name":"\"\u5e2f\u5e83\u5e83\u5c3e\u81ea\u52d5\u8eca\u9053 \u5927\u6a39\u753a \u5730\u8cea\u8abf\u67fb\u696d\u52d9\"","client_name":"\u5317\u6d77\u9053\u958b\u767a\u5c40\u3000\u5e2f\u5e83\u958b\u767a\u5efa\u8a2d\u90e8\u3000\u5e2f\u5e83\u9053\u8def\u4e8b\u52d9\u6240","boring_xml_url":61,"boring_view_url":1,"soilmap_view_url":null,"soiltest_xml_url":0,"soiltest_view_url":0},{"id":500307,"code":"B4KJ202201000-2843","latitude":"42.524361","longitude":"143.266222","source_code":"HK20162812100004","project_name":"","survey_name":"\"\u5e2f\u5e83\u5e83\u5c3e\u81ea\u52d5\u8eca\u9053 \u5927\u6a39\u753a \u5730\u8cea\u8abf\u67fb\u696d\u52d9\"","client_name":"\u5317\u6d77\u9053\u958b\u767a\u5c40\u3000\u5e2f\u5e83\u958b\u767a\u5efa\u8a2d\u90e8\u3000\u5e2f\u5e83\u9053\u8def\u4e8b\u52d9\u6240","boring_xml_url":61,"boring_view_url":1,"soilmap_view_url":null,"soiltest_xml_url":0,"soiltest_view_url":0},{"id":500306,"code":"B4KJ202201000-2842","latitude":"42.528778","longitude":"143.269389","source_code":"HK20162812100003","project_name":"","survey_name":"\"\u5e2f\u5e83\u5e83\u5c3e\u81ea\u52d5\u8eca\u9053 \u5927\u6a39\u753a \u5730\u8cea\u8abf\u67fb\u696d\u52d9\"","client_name":"\u5317\u6d77\u9053\u958b\u767a\u5c40\u3000\u5e2f\u5e83\u958b\u767a\u5efa\u8a2d\u90e8\u3000\u5e2f\u5e83\u9053\u8def\u4e8b\u52d9\u6240","boring_xml_url":61,"boring_view_url":1,"soilmap_view_url":null,"soiltest_xml_url":0,"soiltest_view_url":0},{"id":500305,"code":"B4KJ202201000-2841","latitude":"42.533083","longitude":"143.272694","source_code":"HK20162812100002","project_name":"","survey_name":"\"\u5e2f\u5e83\u5e83\u5c3e\u81ea\u52d5\u8eca\u9053 \u5927\u6a39\u753a \u5730\u8cea\u8abf\u67fb\u696d\u52d9\"","client_name":"\u5317\u6d77\u9053\u958b\u767a\u5c40\u3000\u5e2f\u5e83\u958b\u767a\u5efa\u8a2d\u90e8\u3000\u5e2f\u5e83\u9053\u8def\u4e8b\u52d9\u6240","boring_xml_url":61,"boring_view_url":1,"soilmap_view_url":null,"soiltest_xml_url":0,"soiltest_view_url":0},{"id":500304,"code":"B4KJ202201000-2840","latitude":"42.537444","longitude":"143.2765","source_code":"HK20162812100001","project_name":"","survey_name":"\"\u5e2f\u5e83\u5e83\u5c3e\u81ea\u52d5\u8eca\u9053 \u5927\u6a39\u753a \u5730\u8cea\u8abf\u67fb\u696d\u52d9\"","client_name":"\u5317\u6d77\u9053\u958b\u767a\u5c40\u3000\u5e2f\u5e83\u958b\u767a\u5efa\u8a2d\u90e8\u3000\u5e2f\u5e83\u9053\u8def\u4e8b\u52d9\u6240","boring_xml_url":61,"boring_view_url":1,"soilmap_view_url":null,"soiltest_xml_url":0,"soiltest_view_url":0},{"id":500303,"code":"B4KJ202201000-2839","latitude":"44.019864","longitude":"143.478139","source_code":"HK20162920040006","project_name":"\"\u65ed\u5ddd\u7d0b\u5225\u81ea\u52d5\u8eca\u9053 \u9060\u8efd\u753a \u4e38\u702c\u5e03\u5916\u5730\u8cea\u8abf\u67fb\u696d\u52d9\"","survey_name":"\"\u65ed\u5ddd\u7d0b\u5225\u81ea\u52d5\u8eca\u9053 \u9060\u8efd\u753a \u4e38\u702c\u5e03\u5916\u5730\u8cea\u8abf\u67fb\u696d\u52d9\"","client_name":"\"\u5317\u6d77\u9053\u958b\u767a\u5c40 \u7db2\u8d70\u958b\u767a\u5efa\u8a2d\u90e8 \u9060\u8efd\u958b\u767a\u4e8b\u52d9\u6240\"","boring_xml_url":61,"boring_view_url":1,"soilmap_view_url":null,"soiltest_xml_url":0,"soiltest_view_url":0},{"id":500302,"code":"B4KJ202201000-2838","latitude":"44.024703","longitude":"143.49875","source_code":"HK20162920040005","project_name":"\"\u65ed\u5ddd\u7d0b\u5225\u81ea\u52d5\u8eca\u9053 \u9060\u8efd\u753a \u4e38\u702c\u5e03\u5916\u5730\u8cea\u8abf\u67fb\u696d\u52d9\"","survey_name":"\"\u65ed\u5ddd\u7d0b\u5225\u81ea\u52d5\u8eca\u9053 \u9060\u8efd\u753a \u4e38\u702c\u5e03\u5916\u5730\u8cea\u8abf\u67fb\u696d\u52d9\"","client_name":"\"\u5317\u6d77\u9053\u958b\u767a\u5c40 \u7db2\u8d70\u958b\u767a\u5efa\u8a2d\u90e8 \u9060\u8efd\u958b\u767a\u4e8b\u52d9\u6240\"","boring_xml_url":61,"boring_view_url":1,"soilmap_view_url":null,"soiltest_xml_url":0,"soiltest_view_url":0},{"id":500301,"code":"B4KJ202201000-2837","latitude":"44.007039","longitude":"143.441878","source_code":"HK20162920040004","project_name":"\"\u65ed\u5ddd\u7d0b\u5225\u81ea\u52d5\u8eca\u9053 \u9060\u8efd\u753a \u4e38\u702c\u5e03\u5916\u5730\u8cea\u8abf\u67fb\u696d\u52d9\"","survey_name":"\"\u65ed\u5ddd\u7d0b\u5225\u81ea\u52d5\u8eca\u9053 \u9060\u8efd\u753a \u4e38\u702c\u5e03\u5916\u5730\u8cea\u8abf\u67fb\u696d\u52d9\"","client_name":"\"\u5317\u6d77\u9053\u958b\u767a\u5c40 \u7db2\u8d70\u958b\u767a\u5efa\u8a2d\u90e8 \u9060\u8efd\u958b\u767a\u4e8b\u52d9\u6240\"","boring_xml_url":61,"boring_view_url":1,"soilmap_view_url":null,"soiltest_xml_url":0,"soiltest_view_url":0}]}}