{"header":{"xyz":{"source":[],"mosaic":false},"page":1510,"raw":{"soiltest_result":"0","bbox":"57.598333,109.544722,1.933333,163.806111","page":"1510"},"conditions":{"soiltest_result":0,"north":57.598333,"west":109.544722,"south":1.933333,"east":163.806111},"success":true,"message":""},"data":{"meta":{"total":212844,"page":1510,"pages":7095,"count":30},"values":[{"id":500090,"code":"B4KJ202201000-2626","latitude":"43.254722","longitude":"143.547171","source_code":"HK20152814170003","project_name":"\u8db3\u5bc4\u9053\u8def\u4e8b\u52d9\u6240\u7ba1\u5185","survey_name":"\u8db3\u5bc4\u9053\u8def\u4e8b\u52d9\u6240\u7ba1\u5185\u3000\u5730\u8cea\u8abf\u67fb\u696d\u52d9","client_name":"\u56fd\u571f\u4ea4\u901a\u7701\u5317\u6d77\u9053\u958b\u767a\u5c40\u5e2f\u5e83\u958b\u767a\u5efa\u8a2d\u90e8\u8db3\u5bc4\u9053\u8def\u4e8b\u52d9\u6240","boring_xml_url":61,"boring_view_url":1,"soilmap_view_url":null,"soiltest_xml_url":0,"soiltest_view_url":0},{"id":500089,"code":"B4KJ202201000-2625","latitude":"43.254967","longitude":"143.547319","source_code":"HK20152814170002","project_name":"\u8db3\u5bc4\u9053\u8def\u4e8b\u52d9\u6240\u7ba1\u5185","survey_name":"\u8db3\u5bc4\u9053\u8def\u4e8b\u52d9\u6240\u7ba1\u5185\u3000\u5730\u8cea\u8abf\u67fb\u696d\u52d9","client_name":"\u56fd\u571f\u4ea4\u901a\u7701\u5317\u6d77\u9053\u958b\u767a\u5c40\u5e2f\u5e83\u958b\u767a\u5efa\u8a2d\u90e8\u8db3\u5bc4\u9053\u8def\u4e8b\u52d9\u6240","boring_xml_url":61,"boring_view_url":1,"soilmap_view_url":null,"soiltest_xml_url":0,"soiltest_view_url":0},{"id":500088,"code":"B4KJ202201000-2624","latitude":"43.255199","longitude":"143.547458","source_code":"HK20152814170001","project_name":"\u8db3\u5bc4\u9053\u8def\u4e8b\u52d9\u6240\u7ba1\u5185","survey_name":"\u8db3\u5bc4\u9053\u8def\u4e8b\u52d9\u6240\u7ba1\u5185\u3000\u5730\u8cea\u8abf\u67fb\u696d\u52d9","client_name":"\u56fd\u571f\u4ea4\u901a\u7701\u5317\u6d77\u9053\u958b\u767a\u5c40\u5e2f\u5e83\u958b\u767a\u5efa\u8a2d\u90e8\u8db3\u5bc4\u9053\u8def\u4e8b\u52d9\u6240","boring_xml_url":61,"boring_view_url":1,"soilmap_view_url":null,"soiltest_xml_url":0,"soiltest_view_url":0},{"id":500087,"code":"B4KJ202201000-2623","latitude":"43.519944","longitude":"143.678","source_code":"HK20152814120028","project_name":"\u5317\u6d77\u9053\u6a2a\u65ad\u81ea\u52d5\u8eca\u9053\u3000\u9678\u5225\u753a\u3000\u52f2\u7962\u5225\u64c1\u58c1\u5730\u8cea\u8abf\u67fb\u696d\u52d9","survey_name":"\u5317\u6d77\u9053\u6a2a\u65ad\u81ea\u52d5\u8eca\u9053\u3000\u9678\u5225\u753a\u3000\u52f2\u7962\u5225\u64c1\u58c1\u5730\u8cea\u8abf\u67fb\u696d\u52d9","client_name":"\"\u5317\u6d77\u9053\u958b\u767a\u5c40 \u5e2f\u5e83\u958b\u767a\u5efa\u8a2d\u90e8 \u8db3\u5bc4\u9053\u8def\u4e8b\u52d9\u6240\"","boring_xml_url":61,"boring_view_url":1,"soilmap_view_url":null,"soiltest_xml_url":0,"soiltest_view_url":0},{"id":500086,"code":"B4KJ202201000-2622","latitude":"43.519778","longitude":"143.678472","source_code":"HK20152814120027","project_name":"\u5317\u6d77\u9053\u6a2a\u65ad\u81ea\u52d5\u8eca\u9053\u3000\u9678\u5225\u753a\u3000\u52f2\u7962\u5225\u64c1\u58c1\u5730\u8cea\u8abf\u67fb\u696d\u52d9","survey_name":"\u5317\u6d77\u9053\u6a2a\u65ad\u81ea\u52d5\u8eca\u9053\u3000\u9678\u5225\u753a\u3000\u52f2\u7962\u5225\u64c1\u58c1\u5730\u8cea\u8abf\u67fb\u696d\u52d9","client_name":"\"\u5317\u6d77\u9053\u958b\u767a\u5c40 \u5e2f\u5e83\u958b\u767a\u5efa\u8a2d\u90e8 \u8db3\u5bc4\u9053\u8def\u4e8b\u52d9\u6240\"","boring_xml_url":61,"boring_view_url":1,"soilmap_view_url":null,"soiltest_xml_url":0,"soiltest_view_url":0},{"id":500085,"code":"B4KJ202201000-2621","latitude":"43.519333","longitude":"143.678806","source_code":"HK20152814120026","project_name":"\u5317\u6d77\u9053\u6a2a\u65ad\u81ea\u52d5\u8eca\u9053\u3000\u9678\u5225\u753a\u3000\u52f2\u7962\u5225\u64c1\u58c1\u5730\u8cea\u8abf\u67fb\u696d\u52d9","survey_name":"\u5317\u6d77\u9053\u6a2a\u65ad\u81ea\u52d5\u8eca\u9053\u3000\u9678\u5225\u753a\u3000\u52f2\u7962\u5225\u64c1\u58c1\u5730\u8cea\u8abf\u67fb\u696d\u52d9","client_name":"\"\u5317\u6d77\u9053\u958b\u767a\u5c40 \u5e2f\u5e83\u958b\u767a\u5efa\u8a2d\u90e8 \u8db3\u5bc4\u9053\u8def\u4e8b\u52d9\u6240\"","boring_xml_url":61,"boring_view_url":1,"soilmap_view_url":null,"soiltest_xml_url":0,"soiltest_view_url":0},{"id":500084,"code":"B4KJ202201000-2620","latitude":"43.518194","longitude":"143.679611","source_code":"HK20152814120025","project_name":"\u5317\u6d77\u9053\u6a2a\u65ad\u81ea\u52d5\u8eca\u9053\u3000\u9678\u5225\u753a\u3000\u52f2\u7962\u5225\u64c1\u58c1\u5730\u8cea\u8abf\u67fb\u696d\u52d9","survey_name":"\u5317\u6d77\u9053\u6a2a\u65ad\u81ea\u52d5\u8eca\u9053\u3000\u9678\u5225\u753a\u3000\u52f2\u7962\u5225\u64c1\u58c1\u5730\u8cea\u8abf\u67fb\u696d\u52d9","client_name":"\"\u5317\u6d77\u9053\u958b\u767a\u5c40 \u5e2f\u5e83\u958b\u767a\u5efa\u8a2d\u90e8 \u8db3\u5bc4\u9053\u8def\u4e8b\u52d9\u6240\"","boring_xml_url":61,"boring_view_url":1,"soilmap_view_url":null,"soiltest_xml_url":0,"soiltest_view_url":0},{"id":500083,"code":"B4KJ202201000-2619","latitude":"43.517583","longitude":"143.679639","source_code":"HK20152814120024","project_name":"\u5317\u6d77\u9053\u6a2a\u65ad\u81ea\u52d5\u8eca\u9053\u3000\u9678\u5225\u753a\u3000\u52f2\u7962\u5225\u64c1\u58c1\u5730\u8cea\u8abf\u67fb\u696d\u52d9","survey_name":"\u5317\u6d77\u9053\u6a2a\u65ad\u81ea\u52d5\u8eca\u9053\u3000\u9678\u5225\u753a\u3000\u52f2\u7962\u5225\u64c1\u58c1\u5730\u8cea\u8abf\u67fb\u696d\u52d9","client_name":"\"\u5317\u6d77\u9053\u958b\u767a\u5c40 \u5e2f\u5e83\u958b\u767a\u5efa\u8a2d\u90e8 \u8db3\u5bc4\u9053\u8def\u4e8b\u52d9\u6240\"","boring_xml_url":61,"boring_view_url":1,"soilmap_view_url":null,"soiltest_xml_url":0,"soiltest_view_url":0},{"id":500082,"code":"B4KJ202201000-2618","latitude":"43.517611","longitude":"143.68","source_code":"HK20152814120023","project_name":"\u5317\u6d77\u9053\u6a2a\u65ad\u81ea\u52d5\u8eca\u9053\u3000\u9678\u5225\u753a\u3000\u52f2\u7962\u5225\u64c1\u58c1\u5730\u8cea\u8abf\u67fb\u696d\u52d9","survey_name":"\u5317\u6d77\u9053\u6a2a\u65ad\u81ea\u52d5\u8eca\u9053\u3000\u9678\u5225\u753a\u3000\u52f2\u7962\u5225\u64c1\u58c1\u5730\u8cea\u8abf\u67fb\u696d\u52d9","client_name":"\"\u5317\u6d77\u9053\u958b\u767a\u5c40 \u5e2f\u5e83\u958b\u767a\u5efa\u8a2d\u90e8 \u8db3\u5bc4\u9053\u8def\u4e8b\u52d9\u6240\"","boring_xml_url":61,"boring_view_url":1,"soilmap_view_url":null,"soiltest_xml_url":0,"soiltest_view_url":0},{"id":500081,"code":"B4KJ202201000-2617","latitude":"43.517417","longitude":"143.680528","source_code":"HK20152814120022","project_name":"\u5317\u6d77\u9053\u6a2a\u65ad\u81ea\u52d5\u8eca\u9053\u3000\u9678\u5225\u753a\u3000\u52f2\u7962\u5225\u64c1\u58c1\u5730\u8cea\u8abf\u67fb\u696d\u52d9","survey_name":"\u5317\u6d77\u9053\u6a2a\u65ad\u81ea\u52d5\u8eca\u9053\u3000\u9678\u5225\u753a\u3000\u52f2\u7962\u5225\u64c1\u58c1\u5730\u8cea\u8abf\u67fb\u696d\u52d9","client_name":"\"\u5317\u6d77\u9053\u958b\u767a\u5c40 \u5e2f\u5e83\u958b\u767a\u5efa\u8a2d\u90e8 \u8db3\u5bc4\u9053\u8def\u4e8b\u52d9\u6240\"","boring_xml_url":61,"boring_view_url":1,"soilmap_view_url":null,"soiltest_xml_url":0,"soiltest_view_url":0},{"id":500080,"code":"B4KJ202201000-2616","latitude":"43.516528","longitude":"143.681111","source_code":"HK20152814120021","project_name":"\u5317\u6d77\u9053\u6a2a\u65ad\u81ea\u52d5\u8eca\u9053\u3000\u9678\u5225\u753a\u3000\u52f2\u7962\u5225\u64c1\u58c1\u5730\u8cea\u8abf\u67fb\u696d\u52d9","survey_name":"\u5317\u6d77\u9053\u6a2a\u65ad\u81ea\u52d5\u8eca\u9053\u3000\u9678\u5225\u753a\u3000\u52f2\u7962\u5225\u64c1\u58c1\u5730\u8cea\u8abf\u67fb\u696d\u52d9","client_name":"\"\u5317\u6d77\u9053\u958b\u767a\u5c40 \u5e2f\u5e83\u958b\u767a\u5efa\u8a2d\u90e8 \u8db3\u5bc4\u9053\u8def\u4e8b\u52d9\u6240\"","boring_xml_url":61,"boring_view_url":1,"soilmap_view_url":null,"soiltest_xml_url":0,"soiltest_view_url":0},{"id":500079,"code":"B4KJ202201000-2615","latitude":"43.513861","longitude":"143.682944","source_code":"HK20152814120020","project_name":"\u5317\u6d77\u9053\u6a2a\u65ad\u81ea\u52d5\u8eca\u9053\u3000\u9678\u5225\u753a\u3000\u52f2\u7962\u5225\u64c1\u58c1\u5730\u8cea\u8abf\u67fb\u696d\u52d9","survey_name":"\u5317\u6d77\u9053\u6a2a\u65ad\u81ea\u52d5\u8eca\u9053\u3000\u9678\u5225\u753a\u3000\u52f2\u7962\u5225\u64c1\u58c1\u5730\u8cea\u8abf\u67fb\u696d\u52d9","client_name":"\"\u5317\u6d77\u9053\u958b\u767a\u5c40 \u5e2f\u5e83\u958b\u767a\u5efa\u8a2d\u90e8 \u8db3\u5bc4\u9053\u8def\u4e8b\u52d9\u6240\"","boring_xml_url":61,"boring_view_url":1,"soilmap_view_url":null,"soiltest_xml_url":0,"soiltest_view_url":0},{"id":500078,"code":"B4KJ202201000-2614","latitude":"43.513194","longitude":"143.682472","source_code":"HK20152814120019","project_name":"\u5317\u6d77\u9053\u6a2a\u65ad\u81ea\u52d5\u8eca\u9053\u3000\u9678\u5225\u753a\u3000\u52f2\u7962\u5225\u64c1\u58c1\u5730\u8cea\u8abf\u67fb\u696d\u52d9","survey_name":"\u5317\u6d77\u9053\u6a2a\u65ad\u81ea\u52d5\u8eca\u9053\u3000\u9678\u5225\u753a\u3000\u52f2\u7962\u5225\u64c1\u58c1\u5730\u8cea\u8abf\u67fb\u696d\u52d9","client_name":"\"\u5317\u6d77\u9053\u958b\u767a\u5c40 \u5e2f\u5e83\u958b\u767a\u5efa\u8a2d\u90e8 \u8db3\u5bc4\u9053\u8def\u4e8b\u52d9\u6240\"","boring_xml_url":61,"boring_view_url":1,"soilmap_view_url":null,"soiltest_xml_url":0,"soiltest_view_url":0},{"id":500077,"code":"B4KJ202201000-2613","latitude":"43.513306","longitude":"143.683","source_code":"HK20152814120018","project_name":"\u5317\u6d77\u9053\u6a2a\u65ad\u81ea\u52d5\u8eca\u9053\u3000\u9678\u5225\u753a\u3000\u52f2\u7962\u5225\u64c1\u58c1\u5730\u8cea\u8abf\u67fb\u696d\u52d9","survey_name":"\u5317\u6d77\u9053\u6a2a\u65ad\u81ea\u52d5\u8eca\u9053\u3000\u9678\u5225\u753a\u3000\u52f2\u7962\u5225\u64c1\u58c1\u5730\u8cea\u8abf\u67fb\u696d\u52d9","client_name":"\"\u5317\u6d77\u9053\u958b\u767a\u5c40 \u5e2f\u5e83\u958b\u767a\u5efa\u8a2d\u90e8 \u8db3\u5bc4\u9053\u8def\u4e8b\u52d9\u6240\"","boring_xml_url":61,"boring_view_url":1,"soilmap_view_url":null,"soiltest_xml_url":0,"soiltest_view_url":0},{"id":500076,"code":"B4KJ202201000-2612","latitude":"43.513139","longitude":"143.682639","source_code":"HK20152814120017","project_name":"\u5317\u6d77\u9053\u6a2a\u65ad\u81ea\u52d5\u8eca\u9053\u3000\u9678\u5225\u753a\u3000\u52f2\u7962\u5225\u64c1\u58c1\u5730\u8cea\u8abf\u67fb\u696d\u52d9","survey_name":"\u5317\u6d77\u9053\u6a2a\u65ad\u81ea\u52d5\u8eca\u9053\u3000\u9678\u5225\u753a\u3000\u52f2\u7962\u5225\u64c1\u58c1\u5730\u8cea\u8abf\u67fb\u696d\u52d9","client_name":"\"\u5317\u6d77\u9053\u958b\u767a\u5c40 \u5e2f\u5e83\u958b\u767a\u5efa\u8a2d\u90e8 \u8db3\u5bc4\u9053\u8def\u4e8b\u52d9\u6240\"","boring_xml_url":61,"boring_view_url":1,"soilmap_view_url":null,"soiltest_xml_url":0,"soiltest_view_url":0},{"id":500075,"code":"B4KJ202201000-2611","latitude":"43.504889","longitude":"143.698556","source_code":"HK20152814120016","project_name":"\u5317\u6d77\u9053\u6a2a\u65ad\u81ea\u52d5\u8eca\u9053\u3000\u9678\u5225\u753a\u3000\u52f2\u7962\u5225\u64c1\u58c1\u5730\u8cea\u8abf\u67fb\u696d\u52d9","survey_name":"\u5317\u6d77\u9053\u6a2a\u65ad\u81ea\u52d5\u8eca\u9053\u3000\u9678\u5225\u753a\u3000\u52f2\u7962\u5225\u64c1\u58c1\u5730\u8cea\u8abf\u67fb\u696d\u52d9","client_name":"\"\u5317\u6d77\u9053\u958b\u767a\u5c40 \u5e2f\u5e83\u958b\u767a\u5efa\u8a2d\u90e8 \u8db3\u5bc4\u9053\u8def\u4e8b\u52d9\u6240\"","boring_xml_url":61,"boring_view_url":1,"soilmap_view_url":null,"soiltest_xml_url":0,"soiltest_view_url":0},{"id":500074,"code":"B4KJ202201000-2610","latitude":"43.504194","longitude":"143.698389","source_code":"HK20152814120015","project_name":"\u5317\u6d77\u9053\u6a2a\u65ad\u81ea\u52d5\u8eca\u9053\u3000\u9678\u5225\u753a\u3000\u52f2\u7962\u5225\u64c1\u58c1\u5730\u8cea\u8abf\u67fb\u696d\u52d9","survey_name":"\u5317\u6d77\u9053\u6a2a\u65ad\u81ea\u52d5\u8eca\u9053\u3000\u9678\u5225\u753a\u3000\u52f2\u7962\u5225\u64c1\u58c1\u5730\u8cea\u8abf\u67fb\u696d\u52d9","client_name":"\"\u5317\u6d77\u9053\u958b\u767a\u5c40 \u5e2f\u5e83\u958b\u767a\u5efa\u8a2d\u90e8 \u8db3\u5bc4\u9053\u8def\u4e8b\u52d9\u6240\"","boring_xml_url":61,"boring_view_url":1,"soilmap_view_url":null,"soiltest_xml_url":0,"soiltest_view_url":0},{"id":500073,"code":"B4KJ202201000-2609","latitude":"43.504583","longitude":"143.707944","source_code":"HK20152814120014","project_name":"\u5317\u6d77\u9053\u6a2a\u65ad\u81ea\u52d5\u8eca\u9053\u3000\u9678\u5225\u753a\u3000\u52f2\u7962\u5225\u64c1\u58c1\u5730\u8cea\u8abf\u67fb\u696d\u52d9","survey_name":"\u5317\u6d77\u9053\u6a2a\u65ad\u81ea\u52d5\u8eca\u9053\u3000\u9678\u5225\u753a\u3000\u52f2\u7962\u5225\u64c1\u58c1\u5730\u8cea\u8abf\u67fb\u696d\u52d9","client_name":"\"\u5317\u6d77\u9053\u958b\u767a\u5c40 \u5e2f\u5e83\u958b\u767a\u5efa\u8a2d\u90e8 \u8db3\u5bc4\u9053\u8def\u4e8b\u52d9\u6240\"","boring_xml_url":61,"boring_view_url":1,"soilmap_view_url":null,"soiltest_xml_url":0,"soiltest_view_url":0},{"id":500072,"code":"B4KJ202201000-2608","latitude":"43.504306","longitude":"143.707944","source_code":"HK20152814120013","project_name":"\u5317\u6d77\u9053\u6a2a\u65ad\u81ea\u52d5\u8eca\u9053\u3000\u9678\u5225\u753a\u3000\u52f2\u7962\u5225\u64c1\u58c1\u5730\u8cea\u8abf\u67fb\u696d\u52d9","survey_name":"\u5317\u6d77\u9053\u6a2a\u65ad\u81ea\u52d5\u8eca\u9053\u3000\u9678\u5225\u753a\u3000\u52f2\u7962\u5225\u64c1\u58c1\u5730\u8cea\u8abf\u67fb\u696d\u52d9","client_name":"\"\u5317\u6d77\u9053\u958b\u767a\u5c40 \u5e2f\u5e83\u958b\u767a\u5efa\u8a2d\u90e8 \u8db3\u5bc4\u9053\u8def\u4e8b\u52d9\u6240\"","boring_xml_url":61,"boring_view_url":1,"soilmap_view_url":null,"soiltest_xml_url":0,"soiltest_view_url":0},{"id":500071,"code":"B4KJ202201000-2607","latitude":"43.503306","longitude":"143.715222","source_code":"HK20152814120012","project_name":"\u5317\u6d77\u9053\u6a2a\u65ad\u81ea\u52d5\u8eca\u9053\u3000\u9678\u5225\u753a\u3000\u52f2\u7962\u5225\u64c1\u58c1\u5730\u8cea\u8abf\u67fb\u696d\u52d9","survey_name":"\u5317\u6d77\u9053\u6a2a\u65ad\u81ea\u52d5\u8eca\u9053\u3000\u9678\u5225\u753a\u3000\u52f2\u7962\u5225\u64c1\u58c1\u5730\u8cea\u8abf\u67fb\u696d\u52d9","client_name":"\"\u5317\u6d77\u9053\u958b\u767a\u5c40 \u5e2f\u5e83\u958b\u767a\u5efa\u8a2d\u90e8 \u8db3\u5bc4\u9053\u8def\u4e8b\u52d9\u6240\"","boring_xml_url":61,"boring_view_url":1,"soilmap_view_url":null,"soiltest_xml_url":0,"soiltest_view_url":0},{"id":500070,"code":"B4KJ202201000-2606","latitude":"43.502667","longitude":"143.715222","source_code":"HK20152814120011","project_name":"\u5317\u6d77\u9053\u6a2a\u65ad\u81ea\u52d5\u8eca\u9053\u3000\u9678\u5225\u753a\u3000\u52f2\u7962\u5225\u64c1\u58c1\u5730\u8cea\u8abf\u67fb\u696d\u52d9","survey_name":"\u5317\u6d77\u9053\u6a2a\u65ad\u81ea\u52d5\u8eca\u9053\u3000\u9678\u5225\u753a\u3000\u52f2\u7962\u5225\u64c1\u58c1\u5730\u8cea\u8abf\u67fb\u696d\u52d9","client_name":"\"\u5317\u6d77\u9053\u958b\u767a\u5c40 \u5e2f\u5e83\u958b\u767a\u5efa\u8a2d\u90e8 \u8db3\u5bc4\u9053\u8def\u4e8b\u52d9\u6240\"","boring_xml_url":61,"boring_view_url":1,"soilmap_view_url":null,"soiltest_xml_url":0,"soiltest_view_url":0},{"id":500069,"code":"B4KJ202201000-2605","latitude":"43.477722","longitude":"143.735861","source_code":"HK20152814120010","project_name":"\u5317\u6d77\u9053\u6a2a\u65ad\u81ea\u52d5\u8eca\u9053\u3000\u9678\u5225\u753a\u3000\u52f2\u7962\u5225\u64c1\u58c1\u5730\u8cea\u8abf\u67fb\u696d\u52d9","survey_name":"\u5317\u6d77\u9053\u6a2a\u65ad\u81ea\u52d5\u8eca\u9053\u3000\u9678\u5225\u753a\u3000\u52f2\u7962\u5225\u64c1\u58c1\u5730\u8cea\u8abf\u67fb\u696d\u52d9","client_name":"\"\u5317\u6d77\u9053\u958b\u767a\u5c40 \u5e2f\u5e83\u958b\u767a\u5efa\u8a2d\u90e8 \u8db3\u5bc4\u9053\u8def\u4e8b\u52d9\u6240\"","boring_xml_url":61,"boring_view_url":1,"soilmap_view_url":null,"soiltest_xml_url":0,"soiltest_view_url":0},{"id":500068,"code":"B4KJ202201000-2604","latitude":"43.477361","longitude":"143.736806","source_code":"HK20152814120009","project_name":"\u5317\u6d77\u9053\u6a2a\u65ad\u81ea\u52d5\u8eca\u9053\u3000\u9678\u5225\u753a\u3000\u52f2\u7962\u5225\u64c1\u58c1\u5730\u8cea\u8abf\u67fb\u696d\u52d9","survey_name":"\u5317\u6d77\u9053\u6a2a\u65ad\u81ea\u52d5\u8eca\u9053\u3000\u9678\u5225\u753a\u3000\u52f2\u7962\u5225\u64c1\u58c1\u5730\u8cea\u8abf\u67fb\u696d\u52d9","client_name":"\"\u5317\u6d77\u9053\u958b\u767a\u5c40 \u5e2f\u5e83\u958b\u767a\u5efa\u8a2d\u90e8 \u8db3\u5bc4\u9053\u8def\u4e8b\u52d9\u6240\"","boring_xml_url":61,"boring_view_url":1,"soilmap_view_url":null,"soiltest_xml_url":0,"soiltest_view_url":0},{"id":500067,"code":"B4KJ202201000-2603","latitude":"43.477333","longitude":"143.737556","source_code":"HK20152814120008","project_name":"\u5317\u6d77\u9053\u6a2a\u65ad\u81ea\u52d5\u8eca\u9053\u3000\u9678\u5225\u753a\u3000\u52f2\u7962\u5225\u64c1\u58c1\u5730\u8cea\u8abf\u67fb\u696d\u52d9","survey_name":"\u5317\u6d77\u9053\u6a2a\u65ad\u81ea\u52d5\u8eca\u9053\u3000\u9678\u5225\u753a\u3000\u52f2\u7962\u5225\u64c1\u58c1\u5730\u8cea\u8abf\u67fb\u696d\u52d9","client_name":"\"\u5317\u6d77\u9053\u958b\u767a\u5c40 \u5e2f\u5e83\u958b\u767a\u5efa\u8a2d\u90e8 \u8db3\u5bc4\u9053\u8def\u4e8b\u52d9\u6240\"","boring_xml_url":61,"boring_view_url":1,"soilmap_view_url":null,"soiltest_xml_url":0,"soiltest_view_url":0},{"id":500066,"code":"B4KJ202201000-2602","latitude":"43.477472","longitude":"143.738111","source_code":"HK20152814120007","project_name":"\u5317\u6d77\u9053\u6a2a\u65ad\u81ea\u52d5\u8eca\u9053\u3000\u9678\u5225\u753a\u3000\u52f2\u7962\u5225\u64c1\u58c1\u5730\u8cea\u8abf\u67fb\u696d\u52d9","survey_name":"\u5317\u6d77\u9053\u6a2a\u65ad\u81ea\u52d5\u8eca\u9053\u3000\u9678\u5225\u753a\u3000\u52f2\u7962\u5225\u64c1\u58c1\u5730\u8cea\u8abf\u67fb\u696d\u52d9","client_name":"\"\u5317\u6d77\u9053\u958b\u767a\u5c40 \u5e2f\u5e83\u958b\u767a\u5efa\u8a2d\u90e8 \u8db3\u5bc4\u9053\u8def\u4e8b\u52d9\u6240\"","boring_xml_url":61,"boring_view_url":1,"soilmap_view_url":null,"soiltest_xml_url":0,"soiltest_view_url":0},{"id":500065,"code":"B4KJ202201000-2601","latitude":"43.4725","longitude":"143.733917","source_code":"HK20152814120006","project_name":"\u5317\u6d77\u9053\u6a2a\u65ad\u81ea\u52d5\u8eca\u9053\u3000\u9678\u5225\u753a\u3000\u52f2\u7962\u5225\u64c1\u58c1\u5730\u8cea\u8abf\u67fb\u696d\u52d9","survey_name":"\u5317\u6d77\u9053\u6a2a\u65ad\u81ea\u52d5\u8eca\u9053\u3000\u9678\u5225\u753a\u3000\u52f2\u7962\u5225\u64c1\u58c1\u5730\u8cea\u8abf\u67fb\u696d\u52d9","client_name":"\"\u5317\u6d77\u9053\u958b\u767a\u5c40 \u5e2f\u5e83\u958b\u767a\u5efa\u8a2d\u90e8 \u8db3\u5bc4\u9053\u8def\u4e8b\u52d9\u6240\"","boring_xml_url":61,"boring_view_url":1,"soilmap_view_url":null,"soiltest_xml_url":0,"soiltest_view_url":0},{"id":500064,"code":"B4KJ202201000-2600","latitude":"43.472444","longitude":"143.733667","source_code":"HK20152814120005","project_name":"\u5317\u6d77\u9053\u6a2a\u65ad\u81ea\u52d5\u8eca\u9053\u3000\u9678\u5225\u753a\u3000\u52f2\u7962\u5225\u64c1\u58c1\u5730\u8cea\u8abf\u67fb\u696d\u52d9","survey_name":"\u5317\u6d77\u9053\u6a2a\u65ad\u81ea\u52d5\u8eca\u9053\u3000\u9678\u5225\u753a\u3000\u52f2\u7962\u5225\u64c1\u58c1\u5730\u8cea\u8abf\u67fb\u696d\u52d9","client_name":"\"\u5317\u6d77\u9053\u958b\u767a\u5c40 \u5e2f\u5e83\u958b\u767a\u5efa\u8a2d\u90e8 \u8db3\u5bc4\u9053\u8def\u4e8b\u52d9\u6240\"","boring_xml_url":61,"boring_view_url":1,"soilmap_view_url":null,"soiltest_xml_url":0,"soiltest_view_url":0},{"id":500063,"code":"B4KJ202201000-2599","latitude":"43.467556","longitude":"143.733056","source_code":"HK20152814120004","project_name":"\u5317\u6d77\u9053\u6a2a\u65ad\u81ea\u52d5\u8eca\u9053\u3000\u9678\u5225\u753a\u3000\u52f2\u7962\u5225\u64c1\u58c1\u5730\u8cea\u8abf\u67fb\u696d\u52d9","survey_name":"\u5317\u6d77\u9053\u6a2a\u65ad\u81ea\u52d5\u8eca\u9053\u3000\u9678\u5225\u753a\u3000\u52f2\u7962\u5225\u64c1\u58c1\u5730\u8cea\u8abf\u67fb\u696d\u52d9","client_name":"\"\u5317\u6d77\u9053\u958b\u767a\u5c40 \u5e2f\u5e83\u958b\u767a\u5efa\u8a2d\u90e8 \u8db3\u5bc4\u9053\u8def\u4e8b\u52d9\u6240\"","boring_xml_url":61,"boring_view_url":1,"soilmap_view_url":null,"soiltest_xml_url":0,"soiltest_view_url":0},{"id":500062,"code":"B4KJ202201000-2598","latitude":"43.467528","longitude":"143.732833","source_code":"HK20152814120003","project_name":"\u5317\u6d77\u9053\u6a2a\u65ad\u81ea\u52d5\u8eca\u9053\u3000\u9678\u5225\u753a\u3000\u52f2\u7962\u5225\u64c1\u58c1\u5730\u8cea\u8abf\u67fb\u696d\u52d9","survey_name":"\u5317\u6d77\u9053\u6a2a\u65ad\u81ea\u52d5\u8eca\u9053\u3000\u9678\u5225\u753a\u3000\u52f2\u7962\u5225\u64c1\u58c1\u5730\u8cea\u8abf\u67fb\u696d\u52d9","client_name":"\"\u5317\u6d77\u9053\u958b\u767a\u5c40 \u5e2f\u5e83\u958b\u767a\u5efa\u8a2d\u90e8 \u8db3\u5bc4\u9053\u8def\u4e8b\u52d9\u6240\"","boring_xml_url":61,"boring_view_url":1,"soilmap_view_url":null,"soiltest_xml_url":0,"soiltest_view_url":0},{"id":500061,"code":"B4KJ202201000-2597","latitude":"43.464139","longitude":"143.732889","source_code":"HK20152814120002","project_name":"\u5317\u6d77\u9053\u6a2a\u65ad\u81ea\u52d5\u8eca\u9053\u3000\u9678\u5225\u753a\u3000\u52f2\u7962\u5225\u64c1\u58c1\u5730\u8cea\u8abf\u67fb\u696d\u52d9","survey_name":"\u5317\u6d77\u9053\u6a2a\u65ad\u81ea\u52d5\u8eca\u9053\u3000\u9678\u5225\u753a\u3000\u52f2\u7962\u5225\u64c1\u58c1\u5730\u8cea\u8abf\u67fb\u696d\u52d9","client_name":"\"\u5317\u6d77\u9053\u958b\u767a\u5c40 \u5e2f\u5e83\u958b\u767a\u5efa\u8a2d\u90e8 \u8db3\u5bc4\u9053\u8def\u4e8b\u52d9\u6240\"","boring_xml_url":61,"boring_view_url":1,"soilmap_view_url":null,"soiltest_xml_url":0,"soiltest_view_url":0}]}}