{"header":{"xyz":{"source":[],"mosaic":false},"page":1516,"raw":{"soiltest_result":"0","bbox":"57.598333,109.544722,1.933333,163.806111","page":"1516"},"conditions":{"soiltest_result":0,"north":57.598333,"west":109.544722,"south":1.933333,"east":163.806111},"success":true,"message":""},"data":{"meta":{"total":212844,"page":1516,"pages":7095,"count":30},"values":[{"id":499910,"code":"B4KJ202201000-2446","latitude":"43.563139","longitude":"141.879833","source_code":"HK20142114090019","project_name":"","survey_name":"\"\u5e73\u621026\u5e74\u5ea6 \u77f3\u72e9\u5ddd\u5730\u8cea\u8abf\u67fb\u696d\u52d9\"","client_name":"\"\u5317\u6d77\u9053\u958b\u767a\u5c40 \u672d\u5e4c\u958b\u767a\u5efa\u8a2d\u90e8 \u6edd\u5ddd\u6cb3\u5ddd\u4e8b\u52d9\u6240\"","boring_xml_url":61,"boring_view_url":1,"soilmap_view_url":null,"soiltest_xml_url":0,"soiltest_view_url":0},{"id":499909,"code":"B4KJ202201000-2445","latitude":"43.562306","longitude":"141.880611","source_code":"HK20142114090018","project_name":"","survey_name":"\"\u5e73\u621026\u5e74\u5ea6 \u77f3\u72e9\u5ddd\u5730\u8cea\u8abf\u67fb\u696d\u52d9\"","client_name":"\"\u5317\u6d77\u9053\u958b\u767a\u5c40 \u672d\u5e4c\u958b\u767a\u5efa\u8a2d\u90e8 \u6edd\u5ddd\u6cb3\u5ddd\u4e8b\u52d9\u6240\"","boring_xml_url":61,"boring_view_url":1,"soilmap_view_url":null,"soiltest_xml_url":0,"soiltest_view_url":0},{"id":499908,"code":"B4KJ202201000-2444","latitude":"43.561472","longitude":"141.881306","source_code":"HK20142114090017","project_name":"","survey_name":"\"\u5e73\u621026\u5e74\u5ea6 \u77f3\u72e9\u5ddd\u5730\u8cea\u8abf\u67fb\u696d\u52d9\"","client_name":"\"\u5317\u6d77\u9053\u958b\u767a\u5c40 \u672d\u5e4c\u958b\u767a\u5efa\u8a2d\u90e8 \u6edd\u5ddd\u6cb3\u5ddd\u4e8b\u52d9\u6240\"","boring_xml_url":61,"boring_view_url":1,"soilmap_view_url":null,"soiltest_xml_url":0,"soiltest_view_url":0},{"id":499907,"code":"B4KJ202201000-2443","latitude":"43.56075","longitude":"141.881944","source_code":"HK20142114090016","project_name":"","survey_name":"\"\u5e73\u621026\u5e74\u5ea6 \u77f3\u72e9\u5ddd\u5730\u8cea\u8abf\u67fb\u696d\u52d9\"","client_name":"\"\u5317\u6d77\u9053\u958b\u767a\u5c40 \u672d\u5e4c\u958b\u767a\u5efa\u8a2d\u90e8 \u6edd\u5ddd\u6cb3\u5ddd\u4e8b\u52d9\u6240\"","boring_xml_url":61,"boring_view_url":1,"soilmap_view_url":null,"soiltest_xml_url":0,"soiltest_view_url":0},{"id":499906,"code":"B4KJ202201000-2442","latitude":"43.389975","longitude":"141.822225","source_code":"HK20142114090015","project_name":"","survey_name":"\"\u5e73\u621026\u5e74\u5ea6 \u77f3\u72e9\u5ddd\u5730\u8cea\u8abf\u67fb\u696d\u52d9\"","client_name":"\"\u5317\u6d77\u9053\u958b\u767a\u5c40 \u672d\u5e4c\u958b\u767a\u5efa\u8a2d\u90e8 \u6edd\u5ddd\u6cb3\u5ddd\u4e8b\u52d9\u6240\"","boring_xml_url":61,"boring_view_url":1,"soilmap_view_url":null,"soiltest_xml_url":0,"soiltest_view_url":0},{"id":499905,"code":"B4KJ202201000-2441","latitude":"43.390044","longitude":"141.824519","source_code":"HK20142114090014","project_name":"","survey_name":"\"\u5e73\u621026\u5e74\u5ea6 \u77f3\u72e9\u5ddd\u5730\u8cea\u8abf\u67fb\u696d\u52d9\"","client_name":"\"\u5317\u6d77\u9053\u958b\u767a\u5c40 \u672d\u5e4c\u958b\u767a\u5efa\u8a2d\u90e8 \u6edd\u5ddd\u6cb3\u5ddd\u4e8b\u52d9\u6240\"","boring_xml_url":61,"boring_view_url":1,"soilmap_view_url":null,"soiltest_xml_url":0,"soiltest_view_url":0},{"id":499904,"code":"B4KJ202201000-2440","latitude":"43.390144","longitude":"141.824228","source_code":"HK20142114090013","project_name":"","survey_name":"\"\u5e73\u621026\u5e74\u5ea6 \u77f3\u72e9\u5ddd\u5730\u8cea\u8abf\u67fb\u696d\u52d9\"","client_name":"\"\u5317\u6d77\u9053\u958b\u767a\u5c40 \u672d\u5e4c\u958b\u767a\u5efa\u8a2d\u90e8 \u6edd\u5ddd\u6cb3\u5ddd\u4e8b\u52d9\u6240\"","boring_xml_url":61,"boring_view_url":1,"soilmap_view_url":null,"soiltest_xml_url":0,"soiltest_view_url":0},{"id":499903,"code":"B4KJ202201000-2439","latitude":"43.384908","longitude":"141.820144","source_code":"HK20142114090012","project_name":"","survey_name":"\"\u5e73\u621026\u5e74\u5ea6 \u77f3\u72e9\u5ddd\u5730\u8cea\u8abf\u67fb\u696d\u52d9\"","client_name":"\"\u5317\u6d77\u9053\u958b\u767a\u5c40 \u672d\u5e4c\u958b\u767a\u5efa\u8a2d\u90e8 \u6edd\u5ddd\u6cb3\u5ddd\u4e8b\u52d9\u6240\"","boring_xml_url":61,"boring_view_url":1,"soilmap_view_url":null,"soiltest_xml_url":0,"soiltest_view_url":0},{"id":499902,"code":"B4KJ202201000-2438","latitude":"43.385017","longitude":"141.819981","source_code":"HK20142114090011","project_name":"","survey_name":"\"\u5e73\u621026\u5e74\u5ea6 \u77f3\u72e9\u5ddd\u5730\u8cea\u8abf\u67fb\u696d\u52d9\"","client_name":"\"\u5317\u6d77\u9053\u958b\u767a\u5c40 \u672d\u5e4c\u958b\u767a\u5efa\u8a2d\u90e8 \u6edd\u5ddd\u6cb3\u5ddd\u4e8b\u52d9\u6240\"","boring_xml_url":61,"boring_view_url":1,"soilmap_view_url":null,"soiltest_xml_url":0,"soiltest_view_url":0},{"id":499901,"code":"B4KJ202201000-2437","latitude":"43.385214","longitude":"141.819678","source_code":"HK20142114090010","project_name":"","survey_name":"\"\u5e73\u621026\u5e74\u5ea6 \u77f3\u72e9\u5ddd\u5730\u8cea\u8abf\u67fb\u696d\u52d9\"","client_name":"\"\u5317\u6d77\u9053\u958b\u767a\u5c40 \u672d\u5e4c\u958b\u767a\u5efa\u8a2d\u90e8 \u6edd\u5ddd\u6cb3\u5ddd\u4e8b\u52d9\u6240\"","boring_xml_url":61,"boring_view_url":1,"soilmap_view_url":null,"soiltest_xml_url":0,"soiltest_view_url":0},{"id":499900,"code":"B4KJ202201000-2436","latitude":"43.3793","longitude":"141.810425","source_code":"HK20142114090009","project_name":"","survey_name":"\"\u5e73\u621026\u5e74\u5ea6 \u77f3\u72e9\u5ddd\u5730\u8cea\u8abf\u67fb\u696d\u52d9\"","client_name":"\"\u5317\u6d77\u9053\u958b\u767a\u5c40 \u672d\u5e4c\u958b\u767a\u5efa\u8a2d\u90e8 \u6edd\u5ddd\u6cb3\u5ddd\u4e8b\u52d9\u6240\"","boring_xml_url":61,"boring_view_url":1,"soilmap_view_url":null,"soiltest_xml_url":0,"soiltest_view_url":0},{"id":499899,"code":"B4KJ202201000-2435","latitude":"43.379456","longitude":"141.810303","source_code":"HK20142114090008","project_name":"","survey_name":"\"\u5e73\u621026\u5e74\u5ea6 \u77f3\u72e9\u5ddd\u5730\u8cea\u8abf\u67fb\u696d\u52d9\"","client_name":"\"\u5317\u6d77\u9053\u958b\u767a\u5c40 \u672d\u5e4c\u958b\u767a\u5efa\u8a2d\u90e8 \u6edd\u5ddd\u6cb3\u5ddd\u4e8b\u52d9\u6240\"","boring_xml_url":61,"boring_view_url":1,"soilmap_view_url":null,"soiltest_xml_url":0,"soiltest_view_url":0},{"id":499898,"code":"B4KJ202201000-2434","latitude":"43.379675","longitude":"141.810131","source_code":"HK20142114090007","project_name":"","survey_name":"\"\u5e73\u621026\u5e74\u5ea6 \u77f3\u72e9\u5ddd\u5730\u8cea\u8abf\u67fb\u696d\u52d9\"","client_name":"\"\u5317\u6d77\u9053\u958b\u767a\u5c40 \u672d\u5e4c\u958b\u767a\u5efa\u8a2d\u90e8 \u6edd\u5ddd\u6cb3\u5ddd\u4e8b\u52d9\u6240\"","boring_xml_url":61,"boring_view_url":1,"soilmap_view_url":null,"soiltest_xml_url":0,"soiltest_view_url":0},{"id":499897,"code":"B4KJ202201000-2433","latitude":"43.376389","longitude":"141.798769","source_code":"HK20142114090006","project_name":"","survey_name":"\"\u5e73\u621026\u5e74\u5ea6 \u77f3\u72e9\u5ddd\u5730\u8cea\u8abf\u67fb\u696d\u52d9\"","client_name":"\"\u5317\u6d77\u9053\u958b\u767a\u5c40 \u672d\u5e4c\u958b\u767a\u5efa\u8a2d\u90e8 \u6edd\u5ddd\u6cb3\u5ddd\u4e8b\u52d9\u6240\"","boring_xml_url":61,"boring_view_url":1,"soilmap_view_url":null,"soiltest_xml_url":0,"soiltest_view_url":0},{"id":499896,"code":"B4KJ202201000-2432","latitude":"43.376436","longitude":"141.798733","source_code":"HK20142114090005","project_name":"","survey_name":"\"\u5e73\u621026\u5e74\u5ea6 \u77f3\u72e9\u5ddd\u5730\u8cea\u8abf\u67fb\u696d\u52d9\"","client_name":"\"\u5317\u6d77\u9053\u958b\u767a\u5c40 \u672d\u5e4c\u958b\u767a\u5efa\u8a2d\u90e8 \u6edd\u5ddd\u6cb3\u5ddd\u4e8b\u52d9\u6240\"","boring_xml_url":61,"boring_view_url":1,"soilmap_view_url":null,"soiltest_xml_url":0,"soiltest_view_url":0},{"id":499895,"code":"B4KJ202201000-2431","latitude":"43.376675","longitude":"141.798678","source_code":"HK20142114090004","project_name":"","survey_name":"\"\u5e73\u621026\u5e74\u5ea6 \u77f3\u72e9\u5ddd\u5730\u8cea\u8abf\u67fb\u696d\u52d9\"","client_name":"\"\u5317\u6d77\u9053\u958b\u767a\u5c40 \u672d\u5e4c\u958b\u767a\u5efa\u8a2d\u90e8 \u6edd\u5ddd\u6cb3\u5ddd\u4e8b\u52d9\u6240\"","boring_xml_url":61,"boring_view_url":1,"soilmap_view_url":null,"soiltest_xml_url":0,"soiltest_view_url":0},{"id":499894,"code":"B4KJ202201000-2430","latitude":"43.374936","longitude":"141.786606","source_code":"HK20142114090003","project_name":"","survey_name":"\"\u5e73\u621026\u5e74\u5ea6 \u77f3\u72e9\u5ddd\u5730\u8cea\u8abf\u67fb\u696d\u52d9\"","client_name":"\"\u5317\u6d77\u9053\u958b\u767a\u5c40 \u672d\u5e4c\u958b\u767a\u5efa\u8a2d\u90e8 \u6edd\u5ddd\u6cb3\u5ddd\u4e8b\u52d9\u6240\"","boring_xml_url":61,"boring_view_url":1,"soilmap_view_url":null,"soiltest_xml_url":0,"soiltest_view_url":0},{"id":499893,"code":"B4KJ202201000-2429","latitude":"43.375153","longitude":"141.786531","source_code":"HK20142114090002","project_name":"","survey_name":"\"\u5e73\u621026\u5e74\u5ea6 \u77f3\u72e9\u5ddd\u5730\u8cea\u8abf\u67fb\u696d\u52d9\"","client_name":"\"\u5317\u6d77\u9053\u958b\u767a\u5c40 \u672d\u5e4c\u958b\u767a\u5efa\u8a2d\u90e8 \u6edd\u5ddd\u6cb3\u5ddd\u4e8b\u52d9\u6240\"","boring_xml_url":61,"boring_view_url":1,"soilmap_view_url":null,"soiltest_xml_url":0,"soiltest_view_url":0},{"id":499892,"code":"B4KJ202201000-2428","latitude":"43.375406","longitude":"141.786442","source_code":"HK20142114090001","project_name":"","survey_name":"\"\u5e73\u621026\u5e74\u5ea6 \u77f3\u72e9\u5ddd\u5730\u8cea\u8abf\u67fb\u696d\u52d9\"","client_name":"\"\u5317\u6d77\u9053\u958b\u767a\u5c40 \u672d\u5e4c\u958b\u767a\u5efa\u8a2d\u90e8 \u6edd\u5ddd\u6cb3\u5ddd\u4e8b\u52d9\u6240\"","boring_xml_url":61,"boring_view_url":1,"soilmap_view_url":null,"soiltest_xml_url":0,"soiltest_view_url":0},{"id":499891,"code":"B4KJ202201000-2427","latitude":"43.215367","longitude":"142.010839","source_code":"HK20142100250008","project_name":"","survey_name":"\u65b0\u6842\u6ca2\u30c0\u30e0\u76e4\u306e\u6ca2\u5730\u533a\u4e0a\u6d41\u5730\u8cea\u8abf\u67fb\u5916\u696d\u52d9","client_name":"\u56fd\u571f\u4ea4\u901a\u7701\u5317\u6d77\u9053\u958b\u767a\u5c40\u672d\u5e4c\u958b\u767a\u5efa\u8a2d\u90e8","boring_xml_url":61,"boring_view_url":1,"soilmap_view_url":null,"soiltest_xml_url":0,"soiltest_view_url":0},{"id":499890,"code":"B4KJ202201000-2426","latitude":"43.215549","longitude":"142.011416","source_code":"HK20142100250007","project_name":"","survey_name":"\u65b0\u6842\u6ca2\u30c0\u30e0\u76e4\u306e\u6ca2\u5730\u533a\u4e0a\u6d41\u5730\u8cea\u8abf\u67fb\u5916\u696d\u52d9","client_name":"\u56fd\u571f\u4ea4\u901a\u7701\u5317\u6d77\u9053\u958b\u767a\u5c40\u672d\u5e4c\u958b\u767a\u5efa\u8a2d\u90e8","boring_xml_url":61,"boring_view_url":1,"soilmap_view_url":null,"soiltest_xml_url":0,"soiltest_view_url":0},{"id":499889,"code":"B4KJ202201000-2425","latitude":"43.215844","longitude":"142.012361","source_code":"HK20142100250006","project_name":"","survey_name":"\u65b0\u6842\u6ca2\u30c0\u30e0\u76e4\u306e\u6ca2\u5730\u533a\u4e0a\u6d41\u5730\u8cea\u8abf\u67fb\u5916\u696d\u52d9","client_name":"\u56fd\u571f\u4ea4\u901a\u7701\u5317\u6d77\u9053\u958b\u767a\u5c40\u672d\u5e4c\u958b\u767a\u5efa\u8a2d\u90e8","boring_xml_url":61,"boring_view_url":1,"soilmap_view_url":null,"soiltest_xml_url":0,"soiltest_view_url":0},{"id":499888,"code":"B4KJ202201000-2424","latitude":"43.218708","longitude":"142.010435","source_code":"HK20142100250005","project_name":"","survey_name":"\u65b0\u6842\u6ca2\u30c0\u30e0\u76e4\u306e\u6ca2\u5730\u533a\u4e0a\u6d41\u5730\u8cea\u8abf\u67fb\u5916\u696d\u52d9","client_name":"\u56fd\u571f\u4ea4\u901a\u7701\u5317\u6d77\u9053\u958b\u767a\u5c40\u672d\u5e4c\u958b\u767a\u5efa\u8a2d\u90e8","boring_xml_url":61,"boring_view_url":1,"soilmap_view_url":null,"soiltest_xml_url":0,"soiltest_view_url":0},{"id":499887,"code":"B4KJ202201000-2423","latitude":"43.220169","longitude":"142.008038","source_code":"HK20142100250004","project_name":"","survey_name":"\u65b0\u6842\u6ca2\u30c0\u30e0\u76e4\u306e\u6ca2\u5730\u533a\u4e0a\u6d41\u5730\u8cea\u8abf\u67fb\u5916\u696d\u52d9","client_name":"\u56fd\u571f\u4ea4\u901a\u7701\u5317\u6d77\u9053\u958b\u767a\u5c40\u672d\u5e4c\u958b\u767a\u5efa\u8a2d\u90e8","boring_xml_url":61,"boring_view_url":1,"soilmap_view_url":null,"soiltest_xml_url":0,"soiltest_view_url":0},{"id":499886,"code":"B4KJ202201000-2422","latitude":"43.220347","longitude":"142.010563","source_code":"HK20142100250003","project_name":"","survey_name":"\u65b0\u6842\u6ca2\u30c0\u30e0\u76e4\u306e\u6ca2\u5730\u533a\u4e0a\u6d41\u5730\u8cea\u8abf\u67fb\u5916\u696d\u52d9","client_name":"\u56fd\u571f\u4ea4\u901a\u7701\u5317\u6d77\u9053\u958b\u767a\u5c40\u672d\u5e4c\u958b\u767a\u5efa\u8a2d\u90e8","boring_xml_url":61,"boring_view_url":1,"soilmap_view_url":null,"soiltest_xml_url":0,"soiltest_view_url":0},{"id":499885,"code":"B4KJ202201000-2421","latitude":"43.215711","longitude":"141.99075","source_code":"HK20142100250002","project_name":"","survey_name":"\u65b0\u6842\u6ca2\u30c0\u30e0\u76e4\u306e\u6ca2\u5730\u533a\u4e0a\u6d41\u5730\u8cea\u8abf\u67fb\u5916\u696d\u52d9","client_name":"\u56fd\u571f\u4ea4\u901a\u7701\u5317\u6d77\u9053\u958b\u767a\u5c40\u672d\u5e4c\u958b\u767a\u5efa\u8a2d\u90e8","boring_xml_url":61,"boring_view_url":1,"soilmap_view_url":null,"soiltest_xml_url":0,"soiltest_view_url":0},{"id":499884,"code":"B4KJ202201000-2420","latitude":"43.229671","longitude":"141.991664","source_code":"HK20142100250001","project_name":"","survey_name":"\u65b0\u6842\u6ca2\u30c0\u30e0\u76e4\u306e\u6ca2\u5730\u533a\u4e0a\u6d41\u5730\u8cea\u8abf\u67fb\u5916\u696d\u52d9","client_name":"\u56fd\u571f\u4ea4\u901a\u7701\u5317\u6d77\u9053\u958b\u767a\u5c40\u672d\u5e4c\u958b\u767a\u5efa\u8a2d\u90e8","boring_xml_url":61,"boring_view_url":1,"soilmap_view_url":null,"soiltest_xml_url":0,"soiltest_view_url":0},{"id":499883,"code":"B4KJ202201000-2419","latitude":"43.337914","longitude":"142.381614","source_code":"HK20142100110014","project_name":"","survey_name":"\u7a7a\u77e5\u5ddd\u4e94\u533a\u7bc9\u5824\u8cea\u7684\u6574\u5099\u8abf\u67fb\u696d\u52d9","client_name":"\u5317\u6d77\u9053\u958b\u767a\u5c40\u3000\u672d\u5e4c\u958b\u767a\u5efa\u8a2d\u90e8","boring_xml_url":61,"boring_view_url":1,"soilmap_view_url":null,"soiltest_xml_url":0,"soiltest_view_url":0},{"id":499882,"code":"B4KJ202201000-2418","latitude":"43.337736","longitude":"142.383625","source_code":"HK20142100110013","project_name":"","survey_name":"\u7a7a\u77e5\u5ddd\u4e94\u533a\u7bc9\u5824\u8cea\u7684\u6574\u5099\u8abf\u67fb\u696d\u52d9","client_name":"\u5317\u6d77\u9053\u958b\u767a\u5c40\u3000\u672d\u5e4c\u958b\u767a\u5efa\u8a2d\u90e8","boring_xml_url":61,"boring_view_url":1,"soilmap_view_url":null,"soiltest_xml_url":0,"soiltest_view_url":0},{"id":499881,"code":"B4KJ202201000-2417","latitude":"43.327072","longitude":"142.389333","source_code":"HK20142100110012","project_name":"","survey_name":"\u7a7a\u77e5\u5ddd\u4e94\u533a\u7bc9\u5824\u8cea\u7684\u6574\u5099\u8abf\u67fb\u696d\u52d9","client_name":"\u5317\u6d77\u9053\u958b\u767a\u5c40\u3000\u672d\u5e4c\u958b\u767a\u5efa\u8a2d\u90e8","boring_xml_url":61,"boring_view_url":1,"soilmap_view_url":null,"soiltest_xml_url":0,"soiltest_view_url":0}]}}