{"header":{"xyz":{"source":[],"mosaic":false},"page":1533,"raw":{"soiltest_result":"0","bbox":"57.598333,109.544722,1.933333,163.806111","page":"1533"},"conditions":{"soiltest_result":0,"north":57.598333,"west":109.544722,"south":1.933333,"east":163.806111},"success":true,"message":""},"data":{"meta":{"total":212844,"page":1533,"pages":7095,"count":30},"values":[{"id":499400,"code":"B4KJ202201000-1936","latitude":"43.069736","longitude":"141.590722","source_code":"HK20162113050015","project_name":"\u5e73\u621028\u5e74\u5ea6\u3000\u5317\u5cf6\u904a\u6c34\u5730\u5916\u5730\u8cea\u8abf\u67fb\u696d\u52d9","survey_name":"\u5e73\u621028\u5e74\u5ea6\u3000\u5317\u5cf6\u904a\u6c34\u5730\u5916\u5730\u8cea\u8abf\u67fb\u696d\u52d9","client_name":"\u5317\u6d77\u9053\u958b\u767a\u5c40\u3000\u672d\u5e4c\u958b\u767a\u5efa\u8a2d\u90e8\u3000\u5343\u6b73\u5ddd\u6cb3\u5ddd\u4e8b\u52d9\u6240","boring_xml_url":61,"boring_view_url":1,"soilmap_view_url":null,"soiltest_xml_url":0,"soiltest_view_url":0},{"id":499399,"code":"B4KJ202201000-1935","latitude":"43.069736","longitude":"141.590722","source_code":"HK20162113050014","project_name":"\u5e73\u621028\u5e74\u5ea6\u3000\u5317\u5cf6\u904a\u6c34\u5730\u5916\u5730\u8cea\u8abf\u67fb\u696d\u52d9","survey_name":"\u5e73\u621028\u5e74\u5ea6\u3000\u5317\u5cf6\u904a\u6c34\u5730\u5916\u5730\u8cea\u8abf\u67fb\u696d\u52d9","client_name":"\u5317\u6d77\u9053\u958b\u767a\u5c40\u3000\u672d\u5e4c\u958b\u767a\u5efa\u8a2d\u90e8\u3000\u5343\u6b73\u5ddd\u6cb3\u5ddd\u4e8b\u52d9\u6240","boring_xml_url":61,"boring_view_url":1,"soilmap_view_url":null,"soiltest_xml_url":0,"soiltest_view_url":0},{"id":499398,"code":"B4KJ202201000-1934","latitude":"43.069736","longitude":"141.590722","source_code":"HK20162113050013","project_name":"\u5e73\u621028\u5e74\u5ea6\u3000\u5317\u5cf6\u904a\u6c34\u5730\u5916\u5730\u8cea\u8abf\u67fb\u696d\u52d9","survey_name":"\u5e73\u621028\u5e74\u5ea6\u3000\u5317\u5cf6\u904a\u6c34\u5730\u5916\u5730\u8cea\u8abf\u67fb\u696d\u52d9","client_name":"\u5317\u6d77\u9053\u958b\u767a\u5c40\u3000\u672d\u5e4c\u958b\u767a\u5efa\u8a2d\u90e8\u3000\u5343\u6b73\u5ddd\u6cb3\u5ddd\u4e8b\u52d9\u6240","boring_xml_url":61,"boring_view_url":1,"soilmap_view_url":null,"soiltest_xml_url":0,"soiltest_view_url":0},{"id":499397,"code":"B4KJ202201000-1933","latitude":"43.069736","longitude":"141.590722","source_code":"HK20162113050012","project_name":"\u5e73\u621028\u5e74\u5ea6\u3000\u5317\u5cf6\u904a\u6c34\u5730\u5916\u5730\u8cea\u8abf\u67fb\u696d\u52d9","survey_name":"\u5e73\u621028\u5e74\u5ea6\u3000\u5317\u5cf6\u904a\u6c34\u5730\u5916\u5730\u8cea\u8abf\u67fb\u696d\u52d9","client_name":"\u5317\u6d77\u9053\u958b\u767a\u5c40\u3000\u672d\u5e4c\u958b\u767a\u5efa\u8a2d\u90e8\u3000\u5343\u6b73\u5ddd\u6cb3\u5ddd\u4e8b\u52d9\u6240","boring_xml_url":61,"boring_view_url":1,"soilmap_view_url":null,"soiltest_xml_url":0,"soiltest_view_url":0},{"id":499396,"code":"B4KJ202201000-1932","latitude":"42.980375","longitude":"141.617828","source_code":"HK20162113050009","project_name":"\u5e73\u621028\u5e74\u5ea6\u3000\u5317\u5cf6\u904a\u6c34\u5730\u5916\u5730\u8cea\u8abf\u67fb\u696d\u52d9","survey_name":"\u5e73\u621028\u5e74\u5ea6\u3000\u5317\u5cf6\u904a\u6c34\u5730\u5916\u5730\u8cea\u8abf\u67fb\u696d\u52d9","client_name":"\u5317\u6d77\u9053\u958b\u767a\u5c40\u3000\u672d\u5e4c\u958b\u767a\u5efa\u8a2d\u90e8\u3000\u5343\u6b73\u5ddd\u6cb3\u5ddd\u4e8b\u52d9\u6240","boring_xml_url":61,"boring_view_url":1,"soilmap_view_url":null,"soiltest_xml_url":0,"soiltest_view_url":0},{"id":499395,"code":"B4KJ202201000-1931","latitude":"42.980375","longitude":"141.617828","source_code":"HK20162113050008","project_name":"\u5e73\u621028\u5e74\u5ea6\u3000\u5317\u5cf6\u904a\u6c34\u5730\u5916\u5730\u8cea\u8abf\u67fb\u696d\u52d9","survey_name":"\u5e73\u621028\u5e74\u5ea6\u3000\u5317\u5cf6\u904a\u6c34\u5730\u5916\u5730\u8cea\u8abf\u67fb\u696d\u52d9","client_name":"\u5317\u6d77\u9053\u958b\u767a\u5c40\u3000\u672d\u5e4c\u958b\u767a\u5efa\u8a2d\u90e8\u3000\u5343\u6b73\u5ddd\u6cb3\u5ddd\u4e8b\u52d9\u6240","boring_xml_url":61,"boring_view_url":1,"soilmap_view_url":null,"soiltest_xml_url":0,"soiltest_view_url":0},{"id":499394,"code":"B4KJ202201000-1930","latitude":"42.980375","longitude":"141.617828","source_code":"HK20162113050007","project_name":"\u5e73\u621028\u5e74\u5ea6\u3000\u5317\u5cf6\u904a\u6c34\u5730\u5916\u5730\u8cea\u8abf\u67fb\u696d\u52d9","survey_name":"\u5e73\u621028\u5e74\u5ea6\u3000\u5317\u5cf6\u904a\u6c34\u5730\u5916\u5730\u8cea\u8abf\u67fb\u696d\u52d9","client_name":"\u5317\u6d77\u9053\u958b\u767a\u5c40\u3000\u672d\u5e4c\u958b\u767a\u5efa\u8a2d\u90e8\u3000\u5343\u6b73\u5ddd\u6cb3\u5ddd\u4e8b\u52d9\u6240","boring_xml_url":61,"boring_view_url":1,"soilmap_view_url":null,"soiltest_xml_url":0,"soiltest_view_url":0},{"id":499393,"code":"B4KJ202201000-1929","latitude":"42.980375","longitude":"141.617828","source_code":"HK20162113050006","project_name":"\u5e73\u621028\u5e74\u5ea6\u3000\u5317\u5cf6\u904a\u6c34\u5730\u5916\u5730\u8cea\u8abf\u67fb\u696d\u52d9","survey_name":"\u5e73\u621028\u5e74\u5ea6\u3000\u5317\u5cf6\u904a\u6c34\u5730\u5916\u5730\u8cea\u8abf\u67fb\u696d\u52d9","client_name":"\u5317\u6d77\u9053\u958b\u767a\u5c40\u3000\u672d\u5e4c\u958b\u767a\u5efa\u8a2d\u90e8\u3000\u5343\u6b73\u5ddd\u6cb3\u5ddd\u4e8b\u52d9\u6240","boring_xml_url":61,"boring_view_url":1,"soilmap_view_url":null,"soiltest_xml_url":0,"soiltest_view_url":0},{"id":499392,"code":"B4KJ202201000-1928","latitude":"42.983161","longitude":"141.597139","source_code":"HK20162113050005","project_name":"\u5e73\u621028\u5e74\u5ea6\u3000\u5317\u5cf6\u904a\u6c34\u5730\u5916\u5730\u8cea\u8abf\u67fb\u696d\u52d9","survey_name":"\u5e73\u621028\u5e74\u5ea6\u3000\u5317\u5cf6\u904a\u6c34\u5730\u5916\u5730\u8cea\u8abf\u67fb\u696d\u52d9","client_name":"\u5317\u6d77\u9053\u958b\u767a\u5c40\u3000\u672d\u5e4c\u958b\u767a\u5efa\u8a2d\u90e8\u3000\u5343\u6b73\u5ddd\u6cb3\u5ddd\u4e8b\u52d9\u6240","boring_xml_url":61,"boring_view_url":1,"soilmap_view_url":null,"soiltest_xml_url":0,"soiltest_view_url":0},{"id":499391,"code":"B4KJ202201000-1927","latitude":"42.979822","longitude":"141.581736","source_code":"HK20162113050004","project_name":"\u5e73\u621028\u5e74\u5ea6\u3000\u5317\u5cf6\u904a\u6c34\u5730\u5916\u5730\u8cea\u8abf\u67fb\u696d\u52d9","survey_name":"\u5e73\u621028\u5e74\u5ea6\u3000\u5317\u5cf6\u904a\u6c34\u5730\u5916\u5730\u8cea\u8abf\u67fb\u696d\u52d9","client_name":"\u5317\u6d77\u9053\u958b\u767a\u5c40\u3000\u672d\u5e4c\u958b\u767a\u5efa\u8a2d\u90e8\u3000\u5343\u6b73\u5ddd\u6cb3\u5ddd\u4e8b\u52d9\u6240","boring_xml_url":61,"boring_view_url":1,"soilmap_view_url":null,"soiltest_xml_url":0,"soiltest_view_url":0},{"id":499390,"code":"B4KJ202201000-1926","latitude":"42.991814","longitude":"141.586344","source_code":"HK20162113050003","project_name":"\u5e73\u621028\u5e74\u5ea6\u3000\u5317\u5cf6\u904a\u6c34\u6c60\u5916\u5730\u8cea\u8abf\u67fb\u696d\u52d9","survey_name":"\u5e73\u621028\u5e74\u5ea6\u3000\u5317\u5cf6\u904a\u6c34\u6c60\u5916\u5730\u8cea\u8abf\u67fb\u696d\u52d9","client_name":"\u5317\u6d77\u9053\u958b\u767a\u5c40\u3000\u672d\u5e4c\u958b\u767a\u5efa\u8a2d\u90e8\u3000\u5343\u6b73\u5ddd\u6cb3\u5ddd\u4e8b\u52d9\u6240","boring_xml_url":61,"boring_view_url":1,"soilmap_view_url":null,"soiltest_xml_url":0,"soiltest_view_url":0},{"id":499389,"code":"B4KJ202201000-1925","latitude":"42.991814","longitude":"141.586344","source_code":"HK20162113050002","project_name":"\u5e73\u621028\u5e74\u5ea6\u3000\u5317\u5cf6\u904a\u6c34\u6c60\u5916\u5730\u8cea\u8abf\u67fb\u696d\u52d9","survey_name":"\u5e73\u621028\u5e74\u5ea6\u3000\u5317\u5cf6\u904a\u6c34\u6c60\u5916\u5730\u8cea\u8abf\u67fb\u696d\u52d9","client_name":"\u5317\u6d77\u9053\u958b\u767a\u5c40\u3000\u672d\u5e4c\u958b\u767a\u5efa\u8a2d\u90e8\u3000\u5343\u6b73\u5ddd\u6cb3\u5ddd\u4e8b\u52d9\u6240","boring_xml_url":61,"boring_view_url":1,"soilmap_view_url":null,"soiltest_xml_url":0,"soiltest_view_url":0},{"id":499388,"code":"B4KJ202201000-1924","latitude":"42.993631","longitude":"141.588672","source_code":"HK20162113050001","project_name":"\u5e73\u621028\u5e74\u5ea6\u3000\u5317\u5cf6\u904a\u6c34\u5730\u5916\u5730\u8cea\u8abf\u67fb\u696d\u52d9","survey_name":"\u5e73\u621028\u5e74\u5ea6\u3000\u5317\u5cf6\u904a\u6c34\u5730\u5916\u5730\u8cea\u8abf\u67fb\u696d\u52d9","client_name":"\u5317\u6d77\u9053\u958b\u767a\u5c40\u3000\u672d\u5e4c\u958b\u767a\u5efa\u8a2d\u90e8\u3000\u5343\u6b73\u5ddd\u6cb3\u5ddd\u4e8b\u52d9\u6240","boring_xml_url":61,"boring_view_url":1,"soilmap_view_url":null,"soiltest_xml_url":0,"soiltest_view_url":0},{"id":499387,"code":"B4KJ202201000-1923","latitude":"43.279368","longitude":"141.990508","source_code":"HK20162100220004","project_name":"","survey_name":"\u5e7e\u6625\u5225\u5ddd\u4e0a\u6d41\u659c\u9762\u5730\u8cea\u8abf\u67fb\u5916\u696d\u52d9","client_name":"\u56fd\u571f\u4ea4\u901a\u7701\u5317\u6d77\u9053\u958b\u767a\u5c40\u672d\u5e4c\u958b\u767a\u5efa\u8a2d\u90e8","boring_xml_url":61,"boring_view_url":1,"soilmap_view_url":null,"soiltest_xml_url":0,"soiltest_view_url":0},{"id":499386,"code":"B4KJ202201000-1922","latitude":"43.279116","longitude":"141.991129","source_code":"HK20162100220003","project_name":"","survey_name":"\u5e7e\u6625\u5225\u5ddd\u4e0a\u6d41\u659c\u9762\u5730\u8cea\u8abf\u67fb\u5916\u696d\u52d9","client_name":"\u56fd\u571f\u4ea4\u901a\u7701\u5317\u6d77\u9053\u958b\u767a\u5c40\u672d\u5e4c\u958b\u767a\u5efa\u8a2d\u90e8","boring_xml_url":61,"boring_view_url":1,"soilmap_view_url":null,"soiltest_xml_url":0,"soiltest_view_url":0},{"id":499385,"code":"B4KJ202201000-1921","latitude":"43.279122","longitude":"141.99113","source_code":"HK20162100220002","project_name":"","survey_name":"\u5e7e\u6625\u5225\u5ddd\u4e0a\u6d41\u659c\u9762\u5730\u8cea\u8abf\u67fb\u5916\u696d\u52d9","client_name":"\u56fd\u571f\u4ea4\u901a\u7701\u5317\u6d77\u9053\u958b\u767a\u5c40\u672d\u5e4c\u958b\u767a\u5efa\u8a2d\u90e8","boring_xml_url":61,"boring_view_url":1,"soilmap_view_url":null,"soiltest_xml_url":0,"soiltest_view_url":0},{"id":499384,"code":"B4KJ202201000-1920","latitude":"43.278921","longitude":"141.990369","source_code":"HK20162100220001","project_name":"","survey_name":"\u5e7e\u6625\u5225\u5ddd\u4e0a\u6d41\u659c\u9762\u5730\u8cea\u8abf\u67fb\u5916\u696d\u52d9","client_name":"\u56fd\u571f\u4ea4\u901a\u7701\u5317\u6d77\u9053\u958b\u767a\u5c40\u672d\u5e4c\u958b\u767a\u5efa\u8a2d\u90e8","boring_xml_url":61,"boring_view_url":1,"soilmap_view_url":null,"soiltest_xml_url":0,"soiltest_view_url":0},{"id":499383,"code":"B4KJ202201000-1919","latitude":"42.838867","longitude":"141.011542","source_code":"HK20162435050007","project_name":"\uff3f","survey_name":"\u4e00\u822c\u56fd\u9053230\u53f7\u3000\u559c\u8302\u5225\u753a\u5ddd\u4e0a\u5730\u8cea\u8abf\u67fb\u696d\u52d9","client_name":"\"\u5c0f\u6a3d\u958b\u767a\u5efa\u8a2d\u90e8 \u5036\u77e5\u5b89\u958b\u767a\u4e8b\u52d9\u6240\"","boring_xml_url":61,"boring_view_url":1,"soilmap_view_url":null,"soiltest_xml_url":0,"soiltest_view_url":0},{"id":499382,"code":"B4KJ202201000-1918","latitude":"42.838292","longitude":"141.011353","source_code":"HK20162435050006","project_name":"\uff3f","survey_name":"\u4e00\u822c\u56fd\u9053230\u53f7\u3000\u559c\u8302\u5225\u753a\u5ddd\u4e0a\u5730\u8cea\u8abf\u67fb\u696d\u52d9","client_name":"\"\u5c0f\u6a3d\u958b\u767a\u5efa\u8a2d\u90e8 \u5036\u77e5\u5b89\u958b\u767a\u4e8b\u52d9\u6240\"","boring_xml_url":61,"boring_view_url":1,"soilmap_view_url":null,"soiltest_xml_url":0,"soiltest_view_url":0},{"id":499381,"code":"B4KJ202201000-1917","latitude":"42.838864","longitude":"141.011808","source_code":"HK20162435050005","project_name":"\uff3f","survey_name":"\u4e00\u822c\u56fd\u9053230\u53f7\u3000\u559c\u8302\u5225\u753a\u5ddd\u4e0a\u5730\u8cea\u8abf\u67fb\u696d\u52d9","client_name":"\"\u5c0f\u6a3d\u958b\u767a\u5efa\u8a2d\u90e8 \u5036\u77e5\u5b89\u958b\u767a\u4e8b\u52d9\u6240\"","boring_xml_url":61,"boring_view_url":1,"soilmap_view_url":null,"soiltest_xml_url":0,"soiltest_view_url":0},{"id":499380,"code":"B4KJ202201000-1916","latitude":"42.840956","longitude":"141.01365","source_code":"HK20162435050004","project_name":"","survey_name":"\u4e00\u822c\u56fd\u9053230\u53f7\u3000\u559c\u8302\u5225\u753a\u5ddd\u4e0a\u5730\u8cea\u8abf\u67fb\u696d\u52d9","client_name":"\"\u5c0f\u6a3d\u958b\u767a\u5efa\u8a2d\u90e8 \u5036\u77e5\u5b89\u958b\u767a\u4e8b\u52d9\u6240\"","boring_xml_url":61,"boring_view_url":1,"soilmap_view_url":null,"soiltest_xml_url":0,"soiltest_view_url":0},{"id":499379,"code":"B4KJ202201000-1915","latitude":"42.841019","longitude":"141.013517","source_code":"HK20162435050003","project_name":"\uff3f","survey_name":"\u4e00\u822c\u56fd\u9053230\u53f7\u3000\u559c\u8302\u5225\u753a\u5ddd\u4e0a\u5730\u8cea\u8abf\u67fb\u696d\u52d9","client_name":"\"\u5c0f\u6a3d\u958b\u767a\u5efa\u8a2d\u90e8 \u5036\u77e5\u5b89\u958b\u767a\u4e8b\u52d9\u6240\"","boring_xml_url":61,"boring_view_url":1,"soilmap_view_url":null,"soiltest_xml_url":0,"soiltest_view_url":0},{"id":499378,"code":"B4KJ202201000-1914","latitude":"42.849533","longitude":"141.033789","source_code":"HK20162435050002","project_name":"\uff3f","survey_name":"\u4e00\u822c\u56fd\u9053230\u53f7\u3000\u559c\u8302\u5225\u753a\u5ddd\u4e0a\u5730\u8cea\u8abf\u67fb\u696d\u52d9","client_name":"\"\u5c0f\u6a3d\u958b\u767a\u5efa\u8a2d\u90e8 \u5036\u77e5\u5b89\u958b\u767a\u4e8b\u52d9\u6240\"","boring_xml_url":61,"boring_view_url":1,"soilmap_view_url":null,"soiltest_xml_url":0,"soiltest_view_url":0},{"id":499377,"code":"B4KJ202201000-1913","latitude":"42.849106","longitude":"141.0345","source_code":"HK20162435050001","project_name":"\uff3f","survey_name":"\u4e00\u822c\u56fd\u9053230\u53f7\u3000\u559c\u8302\u5225\u753a\u5ddd\u4e0a\u5730\u8cea\u8abf\u67fb\u696d\u52d9","client_name":"\"\u5c0f\u6a3d\u958b\u767a\u5efa\u8a2d\u90e8 \u5036\u77e5\u5b89\u958b\u767a\u4e8b\u52d9\u6240\"","boring_xml_url":61,"boring_view_url":1,"soilmap_view_url":null,"soiltest_xml_url":0,"soiltest_view_url":0},{"id":499376,"code":"B4KJ202201000-1912","latitude":"43.324957","longitude":"141.686716","source_code":"HK20162111150005","project_name":"\u77f3\u72e9\u5ddd(\u4e0b\u6d41)\u6cb3\u5ddd\u6574\u5099\u8a08\u753b","survey_name":"\u5ca9\u898b\u6ca2\u6cb3\u5ddd\u4e8b\u52d9\u6240\u7ba1\u5185\u4eee\u8a2d\u9053\u8def\u5730\u8cea\u8abf\u67fb\u696d\u52d9","client_name":"\u56fd\u571f\u4ea4\u901a\u7701\u5317\u6d77\u9053\u958b\u767a\u5c40\u672d\u5e4c\u958b\u767a\u5efa\u8a2d\u90e8\u5ca9\u898b\u6ca2\u6cb3\u5ddd\u4e8b\u52d9\u6240","boring_xml_url":61,"boring_view_url":1,"soilmap_view_url":null,"soiltest_xml_url":0,"soiltest_view_url":0},{"id":499375,"code":"B4KJ202201000-1911","latitude":"43.325154","longitude":"141.68709","source_code":"HK20162111150004","project_name":"\u77f3\u72e9\u5ddd(\u4e0b\u6d41)\u6cb3\u5ddd\u6574\u5099\u8a08\u753b","survey_name":"\u5ca9\u898b\u6ca2\u6cb3\u5ddd\u4e8b\u52d9\u6240\u7ba1\u5185\u4eee\u8a2d\u9053\u8def\u5730\u8cea\u8abf\u67fb\u696d\u52d9","client_name":"\u56fd\u571f\u4ea4\u901a\u7701\u5317\u6d77\u9053\u958b\u767a\u5c40\u672d\u5e4c\u958b\u767a\u5efa\u8a2d\u90e8\u5ca9\u898b\u6ca2\u6cb3\u5ddd\u4e8b\u52d9\u6240","boring_xml_url":61,"boring_view_url":1,"soilmap_view_url":null,"soiltest_xml_url":0,"soiltest_view_url":0},{"id":499374,"code":"B4KJ202201000-1910","latitude":"43.320469","longitude":"141.679426","source_code":"HK20162111150003","project_name":"\u77f3\u72e9\u5ddd(\u4e0b\u6d41)\u6cb3\u5ddd\u6574\u5099\u8a08\u753b","survey_name":"\u5ca9\u898b\u6ca2\u6cb3\u5ddd\u4e8b\u52d9\u6240\u7ba1\u5185\u4eee\u8a2d\u9053\u8def\u5730\u8cea\u8abf\u67fb\u696d\u52d9","client_name":"\u56fd\u571f\u4ea4\u901a\u7701\u5317\u6d77\u9053\u958b\u767a\u5c40\u672d\u5e4c\u958b\u767a\u5efa\u8a2d\u90e8\u5ca9\u898b\u6ca2\u6cb3\u5ddd\u4e8b\u52d9\u6240","boring_xml_url":61,"boring_view_url":1,"soilmap_view_url":null,"soiltest_xml_url":0,"soiltest_view_url":0},{"id":499373,"code":"B4KJ202201000-1909","latitude":"43.296254","longitude":"141.65273","source_code":"HK20162111150002","project_name":"\u77f3\u72e9\u5ddd\u4e0b\u6d41\u6cb3\u5ddd\u6574\u5099\u8a08\u753b","survey_name":"\u5ca9\u898b\u6ca2\u6cb3\u5ddd\u4e8b\u52d9\u6240\u7ba1\u5185\u4eee\u8a2d\u9053\u8def\u5730\u8cea\u8abf\u67fb\u696d\u52d9","client_name":"\u56fd\u571f\u4ea4\u901a\u7701\u5317\u6d77\u9053\u958b\u767a\u5c40\u672d\u5e4c\u958b\u767a\u5efa\u8a2d\u90e8\u5ca9\u898b\u6ca2\u6cb3\u5ddd\u4e8b\u52d9\u6240","boring_xml_url":61,"boring_view_url":1,"soilmap_view_url":null,"soiltest_xml_url":0,"soiltest_view_url":0},{"id":499372,"code":"B4KJ202201000-1908","latitude":"43.266927","longitude":"141.652398","source_code":"HK20162111150001","project_name":"\u77f3\u72e9\u5ddd(\u4e0b\u6d41)\u6cb3\u5ddd\u6574\u5099\u8a08\u753b","survey_name":"\u5ca9\u898b\u6ca2\u6cb3\u5ddd\u4e8b\u52d9\u6240\u7ba1\u5185\u4eee\u8a2d\u9053\u8def\u5730\u8cea\u8abf\u67fb\u696d\u52d9","client_name":"\u56fd\u571f\u4ea4\u901a\u7701\u5317\u6d77\u9053\u958b\u767a\u5c40\u672d\u5e4c\u958b\u767a\u5efa\u8a2d\u90e8\u5ca9\u898b\u6ca2\u6cb3\u5ddd\u4e8b\u52d9\u6240","boring_xml_url":61,"boring_view_url":1,"soilmap_view_url":null,"soiltest_xml_url":0,"soiltest_view_url":0},{"id":499371,"code":"B4KJ202201000-1907","latitude":"43.270917","longitude":"142.124806","source_code":"HK20162111100006","project_name":"\u5830\u5824\u7dad\u6301\u306e\u5185\u3000\u6842\u6ca2\u30c0\u30e0\u9023\u7d61\u9053\u8def\u5730\u8cea\u8abf\u67fb\u696d\u52d9","survey_name":"\u5830\u5824\u7dad\u6301\u306e\u5185\u3000\u6842\u6ca2\u30c0\u30e0\u9023\u7d61\u9053\u8def\u5730\u8cea\u8abf\u67fb\u696d\u52d9","client_name":"\u5317\u6d77\u9053\u958b\u767a\u5c40\u3000\u672d\u5e4c\u958b\u767a\u5efa\u8a2d\u90e8\u3000\u5ca9\u898b\u6ca2\u6cb3\u5ddd\u4e8b\u52d9\u6240","boring_xml_url":61,"boring_view_url":1,"soilmap_view_url":null,"soiltest_xml_url":0,"soiltest_view_url":0}]}}