{"header":{"xyz":{"source":[],"mosaic":false},"page":1548,"raw":{"soiltest_result":"0","bbox":"57.598333,109.544722,1.933333,163.806111","page":"1548"},"conditions":{"soiltest_result":0,"north":57.598333,"west":109.544722,"south":1.933333,"east":163.806111},"success":true,"message":""},"data":{"meta":{"total":212844,"page":1548,"pages":7095,"count":30},"values":[{"id":498950,"code":"B4KJ202201000-1486","latitude":"44.024511","longitude":"143.498619","source_code":"HK20152920190001","project_name":"","survey_name":"\"\u65ed\u5ddd\u7d0b\u5225\u81ea\u52d5\u8eca\u9053 \u9060\u8efd\u753a \u8c4a\u91cc\u5730\u8cea\u8abf\u67fb\u696d\u52d9\"","client_name":"\"\u7db2\u8d70\u958b\u767a\u5efa\u8a2d\u90e8 \u9060\u8efd\u958b\u767a\u4e8b\u52d9\u6240\"","boring_xml_url":61,"boring_view_url":1,"soilmap_view_url":null,"soiltest_xml_url":0,"soiltest_view_url":0},{"id":498949,"code":"B4KJ202201000-1485","latitude":"44.010983","longitude":"143.350303","source_code":"HK20152920050001","project_name":"\u65ed\u5ddd\u7d0b\u5225\u81ea\u52d5\u8eca\u9053\u3000\u9060\u8efd\u753a\u3000\u702c\u6238\u702c\u8c4a\u91cc\u9593\u5730\u4e0b\u6c34\u8abf\u67fb\u696d\u52d9","survey_name":"\u65ed\u5ddd\u7d0b\u5225\u81ea\u52d5\u8eca\u9053\u3000\u9060\u8efd\u753a\u3000\u702c\u6238\u702c\u8c4a\u91cc\u9593\u5730\u4e0b\u6c34\u8abf\u67fb\u696d\u52d9","client_name":"\u7db2\u8d70\u958b\u767a\u5efa\u90e8\u8a2d\u9060\u8efd\u958b\u767a\u4e8b\u52d9\u6240","boring_xml_url":61,"boring_view_url":1,"soilmap_view_url":null,"soiltest_xml_url":0,"soiltest_view_url":0},{"id":498948,"code":"B4KJ202201000-1484","latitude":"43.697009","longitude":"143.731797","source_code":"HK20152922170004","project_name":"\"\u5e73\u621027\u5e74\u5ea6\u65bd\u884c \u5317\u6d77\u9053\u6a2a\u65ad\u81ea\u52d5\u8eca\u9053\"","survey_name":"\"\u8a13\u5b50\u5e9c\u753a \u5354\u6210\u5730\u8cea\u8abf\u67fb\u696d\u52d9\"","client_name":"\"\u7db2\u8d70\u958b\u767a\u5efa\u8a2d\u90e8 \u5317\u898b\u9053\u8def\u4e8b\u52d9\u6240\"","boring_xml_url":61,"boring_view_url":1,"soilmap_view_url":null,"soiltest_xml_url":0,"soiltest_view_url":0},{"id":498947,"code":"B4KJ202201000-1483","latitude":"43.69734","longitude":"143.731853","source_code":"HK20152922170003","project_name":"\"\u5e73\u621027\u5e74\u5ea6\u65bd\u884c \u5317\u6d77\u9053\u6a2a\u65ad\u81ea\u52d5\u8eca\u9053\"","survey_name":"\"\u8a13\u5b50\u5e9c\u753a \u5354\u6210\u5730\u8cea\u8abf\u67fb\u696d\u52d9\"","client_name":"\"\u7db2\u8d70\u958b\u767a\u5efa\u8a2d\u90e8 \u5317\u898b\u9053\u8def\u4e8b\u52d9\u6240\"","boring_xml_url":61,"boring_view_url":1,"soilmap_view_url":null,"soiltest_xml_url":0,"soiltest_view_url":0},{"id":498946,"code":"B4KJ202201000-1482","latitude":"43.697116","longitude":"143.73165","source_code":"HK20152922170002","project_name":"\"\u5e73\u621027\u5e74\u5ea6\u65bd\u884c \u5317\u6d77\u9053\u6a2a\u65ad\u81ea\u52d5\u8eca\u9053\"","survey_name":"\"\u8a13\u5b50\u5e9c\u753a \u5354\u6210\u5730\u8cea\u8abf\u67fb\u696d\u52d9\"","client_name":"\"\u7db2\u8d70\u958b\u767a\u5efa\u8a2d\u90e8 \u5317\u898b\u9053\u8def\u4e8b\u52d9\u6240\"","boring_xml_url":61,"boring_view_url":1,"soilmap_view_url":null,"soiltest_xml_url":0,"soiltest_view_url":0},{"id":498945,"code":"B4KJ202201000-1481","latitude":"43.696964","longitude":"143.732214","source_code":"HK20152922170001","project_name":"\"\u5e73\u621027\u5e74\u5ea6\u65bd\u884c \u5317\u6d77\u9053\u6a2a\u65ad\u81ea\u52d5\u8eca\u9053\"","survey_name":"\"\u8a13\u5b50\u5e9c\u753a \u5354\u6210\u5730\u8cea\u8abf\u67fb\u696d\u52d9\"","client_name":"\"\u7db2\u8d70\u958b\u767a\u5efa\u8a2d\u90e8 \u5317\u898b\u9053\u8def\u4e8b\u52d9\u6240\"","boring_xml_url":61,"boring_view_url":1,"soilmap_view_url":null,"soiltest_xml_url":0,"soiltest_view_url":0},{"id":498944,"code":"B4KJ202201000-1480","latitude":"43.785318","longitude":"143.902168","source_code":"HK20152922100003","project_name":"\u5317\u898b\u9053\u8def\u4e8b\u52d9\u6240\u7ba1\u5185\u3000\u4ea4\u901a\u4e8b\u6545\u5bfe\u7b56\u5730\u8cea\u8abf\u67fb\u696d\u52d9","survey_name":"\u5317\u898b\u9053\u8def\u4e8b\u52d9\u6240\u7ba1\u5185\u3000\u4ea4\u901a\u4e8b\u6545\u5bfe\u7b56\u5730\u8cea\u8abf\u67fb\u696d\u52d9","client_name":"\u5317\u6d77\u9053\u958b\u767a\u5c40\u7db2\u8d70\u958b\u767a\u5efa\u8a2d\u90e8\u5317\u898b\u9053\u8def\u4e8b\u52d9\u6240","boring_xml_url":61,"boring_view_url":1,"soilmap_view_url":null,"soiltest_xml_url":0,"soiltest_view_url":0},{"id":498943,"code":"B4KJ202201000-1479","latitude":"43.87435","longitude":"144.061028","source_code":"HK20152922100002","project_name":"\u5317\u898b\u9053\u8def\u4e8b\u52d9\u6240\u7ba1\u5185\u3000\u4ea4\u901a\u4e8b\u6545\u5bfe\u7b56\u5730\u8cea\u8abf\u67fb\u696d\u52d9","survey_name":"\u5317\u898b\u9053\u8def\u4e8b\u52d9\u6240\u7ba1\u5185\u3000\u4ea4\u901a\u4e8b\u6545\u5bfe\u7b56\u5730\u8cea\u8abf\u67fb\u696d\u52d9","client_name":"\u5317\u6d77\u9053\u958b\u767a\u5c40\u7db2\u8d70\u958b\u767a\u5efa\u8a2d\u90e8\u5317\u898b\u9053\u8def\u4e8b\u52d9\u6240","boring_xml_url":61,"boring_view_url":1,"soilmap_view_url":null,"soiltest_xml_url":0,"soiltest_view_url":0},{"id":498942,"code":"B4KJ202201000-1478","latitude":"43.887566","longitude":"143.986881","source_code":"HK20152922100001","project_name":"\u5317\u898b\u9053\u8def\u4e8b\u52d9\u6240\u7ba1\u5185\u3000\u4ea4\u901a\u4e8b\u6545\u5bfe\u7b56\u5730\u8cea\u8abf\u67fb\u696d\u52d9","survey_name":"\u5317\u898b\u9053\u8def\u4e8b\u52d9\u6240\u7ba1\u5185\u3000\u4ea4\u901a\u4e8b\u6545\u5bfe\u7b56\u5730\u8cea\u8abf\u67fb\u696d\u52d9","client_name":"\u5317\u6d77\u9053\u958b\u767a\u5c40\u7db2\u8d70\u958b\u767a\u5efa\u8a2d\u90e8\u5317\u898b\u9053\u8def\u4e8b\u52d9\u6240","boring_xml_url":61,"boring_view_url":1,"soilmap_view_url":null,"soiltest_xml_url":0,"soiltest_view_url":0},{"id":498941,"code":"B4KJ202201000-1477","latitude":"43.909778","longitude":"144.4785","source_code":"HK20152923110009","project_name":"","survey_name":"\u7db2\u8d70\u9053\u8def\u4e8b\u52d9\u6240\u7ba1\u5185\u5730\u8cea\u8abf\u67fb\u696d\u52d9","client_name":"\"\u5317\u6d77\u9053\u958b\u767a\u5c40 \u7db2\u8d70\u958b\u767a\u5efa\u8a2d\u90e8 \u7db2\u8d70\u9053\u8def\u4e8b\u52d9\u6240\"","boring_xml_url":61,"boring_view_url":1,"soilmap_view_url":null,"soiltest_xml_url":0,"soiltest_view_url":0},{"id":498940,"code":"B4KJ202201000-1476","latitude":"43.906417","longitude":"144.478778","source_code":"HK20152923110008","project_name":"","survey_name":"\u7db2\u8d70\u9053\u8def\u4e8b\u52d9\u6240\u7ba1\u5185\u5730\u8cea\u8abf\u67fb\u696d\u52d9","client_name":"\"\u5317\u6d77\u9053\u958b\u767a\u5c40 \u7db2\u8d70\u958b\u767a\u5efa\u8a2d\u90e8 \u7db2\u8d70\u9053\u8def\u4e8b\u52d9\u6240\"","boring_xml_url":61,"boring_view_url":1,"soilmap_view_url":null,"soiltest_xml_url":0,"soiltest_view_url":0},{"id":498939,"code":"B4KJ202201000-1475","latitude":"43.912972","longitude":"144.457361","source_code":"HK20152923110007","project_name":"","survey_name":"\u7db2\u8d70\u9053\u8def\u4e8b\u52d9\u6240\u7ba1\u5185\u5730\u8cea\u8abf\u67fb\u696d\u52d9","client_name":"\"\u5317\u6d77\u9053\u958b\u767a\u5c40 \u7db2\u8d70\u958b\u767a\u5efa\u8a2d\u90e8 \u7db2\u8d70\u9053\u8def\u4e8b\u52d9\u6240\"","boring_xml_url":61,"boring_view_url":1,"soilmap_view_url":null,"soiltest_xml_url":0,"soiltest_view_url":0},{"id":498938,"code":"B4KJ202201000-1474","latitude":"43.912972","longitude":"144.457361","source_code":"HK20152923110006","project_name":"","survey_name":"\u7db2\u8d70\u9053\u8def\u4e8b\u52d9\u6240\u7ba1\u5185\u5730\u8cea\u8abf\u67fb\u696d\u52d9","client_name":"\"\u5317\u6d77\u9053\u958b\u767a\u5c40 \u7db2\u8d70\u958b\u767a\u5efa\u8a2d\u90e8 \u7db2\u8d70\u9053\u8def\u4e8b\u52d9\u6240\"","boring_xml_url":61,"boring_view_url":1,"soilmap_view_url":null,"soiltest_xml_url":0,"soiltest_view_url":0},{"id":498937,"code":"B4KJ202201000-1473","latitude":"43.921444","longitude":"144.456611","source_code":"HK20152923110005","project_name":"","survey_name":"\u7db2\u8d70\u9053\u8def\u4e8b\u52d9\u6240\u7ba1\u5185\u5730\u8cea\u8abf\u67fb\u696d\u52d9","client_name":"\"\u5317\u6d77\u9053\u958b\u767a\u5c40 \u7db2\u8d70\u958b\u767a\u5efa\u8a2d\u90e8 \u7db2\u8d70\u9053\u8def\u4e8b\u52d9\u6240\"","boring_xml_url":61,"boring_view_url":1,"soilmap_view_url":null,"soiltest_xml_url":0,"soiltest_view_url":0},{"id":498936,"code":"B4KJ202201000-1472","latitude":"43.925111","longitude":"144.456278","source_code":"HK20152923110004","project_name":"","survey_name":"\u7db2\u8d70\u9053\u8def\u4e8b\u52d9\u6240\u7ba1\u5185\u5730\u8cea\u8abf\u67fb\u696d\u52d9","client_name":"\"\u5317\u6d77\u9053\u958b\u767a\u5c40 \u7db2\u8d70\u958b\u767a\u5efa\u8a2d\u90e8 \u7db2\u8d70\u9053\u8def\u4e8b\u52d9\u6240\"","boring_xml_url":61,"boring_view_url":1,"soilmap_view_url":null,"soiltest_xml_url":0,"soiltest_view_url":0},{"id":498935,"code":"B4KJ202201000-1471","latitude":"43.940361","longitude":"144.809028","source_code":"HK20152923110003","project_name":"","survey_name":"\"\u7db2\u8d70\u9053\u8def\u4e8b\u52d9\u6240\u7ba1\u5185 \u5730\u8cea\u8abf\u67fb\u696d\u52d9\"","client_name":"\"\u7db2\u8d70\u958b\u767a\u5efa\u8a2d\u90e8 \u7db2\u8d70\u9053\u8def\u4e8b\u52d9\u6240\"","boring_xml_url":61,"boring_view_url":1,"soilmap_view_url":null,"soiltest_xml_url":0,"soiltest_view_url":0},{"id":498934,"code":"B4KJ202201000-1470","latitude":"43.940444","longitude":"144.809222","source_code":"HK20152923110002","project_name":"","survey_name":"\"\u7db2\u8d70\u9053\u8def\u4e8b\u52d9\u6240\u7ba1\u5185 \u5730\u8cea\u8abf\u67fb\u696d\u52d9\"","client_name":"\"\u7db2\u8d70\u958b\u767a\u5efa\u8a2d\u90e8 \u7db2\u8d70\u9053\u8def\u4e8b\u52d9\u6240\"","boring_xml_url":61,"boring_view_url":1,"soilmap_view_url":null,"soiltest_xml_url":0,"soiltest_view_url":0},{"id":498933,"code":"B4KJ202201000-1469","latitude":"43.940556","longitude":"144.809722","source_code":"HK20152923110001","project_name":"","survey_name":"\"\u7db2\u8d70\u9053\u8def\u4e8b\u52d9\u6240\u7ba1\u5185 \u5730\u8cea\u8abf\u67fb\u696d\u52d9\"","client_name":"\"\u7db2\u8d70\u958b\u767a\u5efa\u8a2d\u90e8 \u7db2\u8d70\u9053\u8def\u4e8b\u52d9\u6240\"","boring_xml_url":61,"boring_view_url":1,"soilmap_view_url":null,"soiltest_xml_url":0,"soiltest_view_url":0},{"id":498932,"code":"B4KJ202201000-1468","latitude":"43.952439","longitude":"144.836386","source_code":"HK20152923050003","project_name":"\"\u5e73\u621027\u5e74\u5ea6 \u4e00\u822c\u56fd\u9053334\u53f7 \u659c\u91cc\u753a\"","survey_name":"\u771f\u9bc9\u5730\u8cea\u8abf\u67fb\u696d\u52d9","client_name":"\u5317\u6d77\u9053\u958b\u767a\u5c40\u3000\u7db2\u8d70\u958b\u767a\u5efa\u8a2d\u90e8","boring_xml_url":61,"boring_view_url":1,"soilmap_view_url":null,"soiltest_xml_url":0,"soiltest_view_url":0},{"id":498931,"code":"B4KJ202201000-1467","latitude":"43.952492","longitude":"144.836378","source_code":"HK20152923050002","project_name":"\"\u5e73\u621027\u5e74\u5ea6 \u4e00\u822c\u56fd\u9053334\u53f7 \u659c\u91cc\u753a\"","survey_name":"\u771f\u9bc9\u5730\u8cea\u8abf\u67fb\u696d\u52d9","client_name":"\u5317\u6d77\u9053\u958b\u767a\u5c40\u3000\u7db2\u8d70\u958b\u767a\u5efa\u8a2d\u90e8","boring_xml_url":61,"boring_view_url":1,"soilmap_view_url":null,"soiltest_xml_url":0,"soiltest_view_url":0},{"id":498930,"code":"B4KJ202201000-1466","latitude":"43.952439","longitude":"144.836292","source_code":"HK20152923050001","project_name":"\"\u5e73\u621027\u5e74\u5ea6 \u4e00\u822c\u56fd\u9053334\u53f7 \u659c\u91cc\u753a\"","survey_name":"\u771f\u9bc9\u5730\u8cea\u8abf\u67fb\u696d\u52d9","client_name":"\u5317\u6d77\u9053\u958b\u767a\u5c40\u3000\u7db2\u8d70\u958b\u767a\u5efa\u8a2d\u90e8","boring_xml_url":61,"boring_view_url":1,"soilmap_view_url":null,"soiltest_xml_url":0,"soiltest_view_url":0},{"id":498929,"code":"B4KJ202201000-1465","latitude":"45.01075","longitude":"142.29705","source_code":"HK20153105120005","project_name":"","survey_name":"\u4e00\u822c\u56fd\u9053275\u53f7\u3000\u4e2d\u9813\u5225\u753a\u5f25\u751f\u5730\u8cea\u8abf\u67fb\u5916\u4e00\u9023\u696d\u52d9","client_name":"\"\u5317\u6d77\u9053\u958b\u767a\u5c40\u7a1a\u5185\u958b\u767a\u5efa\u8a2d\u90e8 \u6d5c\u9813\u5225\u9053\u8def\u4e8b\u52d9\u6240\"","boring_xml_url":61,"boring_view_url":1,"soilmap_view_url":null,"soiltest_xml_url":0,"soiltest_view_url":0},{"id":498928,"code":"B4KJ202201000-1464","latitude":"45.011656","longitude":"142.296744","source_code":"HK20153105120004","project_name":"","survey_name":"\u4e00\u822c\u56fd\u9053275\u53f7\u3000\u4e2d\u9813\u5225\u753a\u5f25\u751f\u5730\u8cea\u8abf\u67fb\u5916\u4e00\u9023\u696d\u52d9","client_name":"\"\u5317\u6d77\u9053\u958b\u767a\u5c40\u7a1a\u5185\u958b\u767a\u5efa\u8a2d\u90e8 \u6d5c\u9813\u5225\u9053\u8def\u4e8b\u52d9\u6240\"","boring_xml_url":61,"boring_view_url":1,"soilmap_view_url":null,"soiltest_xml_url":0,"soiltest_view_url":0},{"id":498927,"code":"B4KJ202201000-1463","latitude":"45.005553","longitude":"142.296306","source_code":"HK20153105120003","project_name":"","survey_name":"\"\u4e00\u822c\u56fd\u9053275\u53f7\u4e2d\u9813\u5225\u753a\u5f25\u751f\u5730\u8cea\u8abf\u67fb\u5916\u4e00\u9023 \u696d\u52d9\"","client_name":"\u5317\u6d77\u9053\u958b\u767a\u5c40\u3000\u7a1a\u5185\u958b\u767a\u5efa\u8a2d\u90e8\u3000\u6d5c\u9813\u5225\u9053\u8def\u4e8b\u52d9\u6240","boring_xml_url":61,"boring_view_url":1,"soilmap_view_url":null,"soiltest_xml_url":0,"soiltest_view_url":0},{"id":498926,"code":"B4KJ202201000-1462","latitude":"45.005519","longitude":"142.295731","source_code":"HK20153105120002","project_name":"","survey_name":"\"\u4e00\u822c\u56fd\u9053275\u53f7\u4e2d\u9813\u5225\u753a\u5f25\u751f\u5730\u8cea\u8abf\u67fb\u5916\u4e00\u9023 \u696d\u52d9\"","client_name":"\u5317\u6d77\u9053\u958b\u767a\u5c40\u3000\u7a1a\u5185\u958b\u767a\u5efa\u8a2d\u90e8\u3000\u6d5c\u9813\u5225\u9053\u8def\u4e8b\u52d9\u6240","boring_xml_url":61,"boring_view_url":1,"soilmap_view_url":null,"soiltest_xml_url":0,"soiltest_view_url":0},{"id":498925,"code":"B4KJ202201000-1461","latitude":"45.005467","longitude":"142.294808","source_code":"HK20153105120001","project_name":"","survey_name":"\"\u4e00\u822c\u56fd\u9053275\u53f7\u4e2d\u9813\u5225\u753a\u5f25\u751f\u5730\u8cea\u8abf\u67fb\u5916\u4e00\u9023 \u696d\u52d9\"","client_name":"\u5317\u6d77\u9053\u958b\u767a\u5c40\u3000\u7a1a\u5185\u958b\u767a\u5efa\u8a2d\u90e8\u3000\u6d5c\u9813\u5225\u9053\u8def\u4e8b\u52d9\u6240","boring_xml_url":61,"boring_view_url":1,"soilmap_view_url":null,"soiltest_xml_url":0,"soiltest_view_url":0},{"id":498924,"code":"B4KJ202201000-1460","latitude":"45.271117","longitude":"142.231356","source_code":"HK20153105100014","project_name":"\u4e00\u822c\u56fd\u9053238\u53f7\u733f\u6255\u6751\u6d45\u8305\u91ce\u5730\u8cea\u8abf\u67fb\u5916\u4e00\u9023\u696d\u52d9","survey_name":"\u4e00\u822c\u56fd\u9053238\u53f7\u733f\u6255\u6751\u6d45\u8305\u91ce\u5730\u8cea\u8abf\u67fb\u5916\u4e00\u9023\u696d\u52d9","client_name":"\u7a1a\u5185\u958b\u767a\u5efa\u8a2d\u90e8\u6d5c\u9813\u5225\u9053\u8def\u4e8b\u52d9\u6240","boring_xml_url":61,"boring_view_url":1,"soilmap_view_url":null,"soiltest_xml_url":0,"soiltest_view_url":0},{"id":498923,"code":"B4KJ202201000-1459","latitude":"45.098933","longitude":"142.434936","source_code":"HK20153105100013","project_name":"\u4e00\u822c\u56fd\u9053238\u53f7\u733f\u6255\u6751\u6d45\u8305\u91ce\u5730\u8cea\u8abf\u67fb\u5916\u4e00\u9023\u696d\u52d9","survey_name":"\u4e00\u822c\u56fd\u9053238\u53f7\u733f\u6255\u6751\u6d45\u8305\u91ce\u5730\u8cea\u8abf\u67fb\u5916\u4e00\u9023\u696d\u52d9","client_name":"\u7a1a\u5185\u958b\u767a\u5efa\u8a2d\u90e8\u6d5c\u9813\u5225\u9053\u8def\u4e8b\u52d9\u6240","boring_xml_url":61,"boring_view_url":1,"soilmap_view_url":null,"soiltest_xml_url":0,"soiltest_view_url":0},{"id":498922,"code":"B4KJ202201000-1458","latitude":"45.095844","longitude":"142.439872","source_code":"HK20153105100012","project_name":"\u4e00\u822c\u56fd\u9053238\u53f7\u733f\u6255\u6751\u6d45\u8305\u91ce\u5730\u8cea\u8abf\u67fb\u5916\u4e00\u9023\u696d\u52d9","survey_name":"\u4e00\u822c\u56fd\u9053238\u53f7\u733f\u6255\u6751\u6d45\u8305\u91ce\u5730\u8cea\u8abf\u67fb\u5916\u4e00\u9023\u696d\u52d9","client_name":"\u7a1a\u5185\u958b\u767a\u5efa\u8a2d\u90e8\u6d5c\u9813\u5225\u9053\u8def\u4e8b\u52d9\u6240","boring_xml_url":61,"boring_view_url":1,"soilmap_view_url":null,"soiltest_xml_url":0,"soiltest_view_url":0},{"id":498921,"code":"B4KJ202201000-1457","latitude":"45.093953","longitude":"142.442278","source_code":"HK20153105100011","project_name":"\u4e00\u822c\u56fd\u9053238\u53f7\u733f\u6255\u6751\u6d45\u8305\u91ce\u5730\u8cea\u8abf\u67fb\u5916\u4e00\u9023\u696d\u52d9","survey_name":"\u4e00\u822c\u56fd\u9053238\u53f7\u733f\u6255\u6751\u6d45\u8305\u91ce\u5730\u8cea\u8abf\u67fb\u5916\u4e00\u9023\u696d\u52d9","client_name":"\u7a1a\u5185\u958b\u767a\u5efa\u8a2d\u90e8\u6d5c\u9813\u5225\u9053\u8def\u4e8b\u52d9\u6240","boring_xml_url":61,"boring_view_url":1,"soilmap_view_url":null,"soiltest_xml_url":0,"soiltest_view_url":0}]}}