{"header":{"xyz":{"source":[],"mosaic":false},"page":1569,"raw":{"soiltest_result":"0","bbox":"57.598333,109.544722,1.933333,163.806111","page":"1569"},"conditions":{"soiltest_result":0,"north":57.598333,"west":109.544722,"south":1.933333,"east":163.806111},"success":true,"message":""},"data":{"meta":{"total":212844,"page":1569,"pages":7095,"count":30},"values":[{"id":498320,"code":"B4KJ202201000-0856","latitude":"42.006844","longitude":"140.624358","source_code":"HK20142310340006","project_name":"\u5317\u6d77\u9053\u7e26\u8cab\u81ea\u52d5\u8eca\u9053","survey_name":"\"\u5317\u6d77\u9053\u7e26\u8cab\u81ea\u52d5\u8eca\u9053 \u4e03\u98ef\u753a\u5916 \u8d64\u4e95\u5ddd\u5730\u8cea\u8abf\u67fb\u696d\u52d9\"","client_name":"\u5317\u6d77\u9053\u958b\u767a\u5c40\u51fd\u9928\u958b\u767a\u5efa\u8a2d\u90e8\u51fd\u9928\u9053\u8def\u4e8b\u52d9\u6240","boring_xml_url":61,"boring_view_url":1,"soilmap_view_url":null,"soiltest_xml_url":0,"soiltest_view_url":0},{"id":498319,"code":"B4KJ202201000-0855","latitude":"42.007047","longitude":"140.622192","source_code":"HK20142310340005","project_name":"\u5317\u6d77\u9053\u7e26\u8cab\u81ea\u52d5\u8eca\u9053","survey_name":"\"\u5317\u6d77\u9053\u7e26\u8cab\u81ea\u52d5\u8eca\u9053 \u4e03\u98ef\u753a\u5916 \u8d64\u4e95\u5ddd\u5730\u8cea\u8abf\u67fb\u696d\u52d9\"","client_name":"\u5317\u6d77\u9053\u958b\u767a\u5c40\u51fd\u9928\u958b\u767a\u5efa\u8a2d\u90e8\u51fd\u9928\u9053\u8def\u4e8b\u52d9\u6240","boring_xml_url":61,"boring_view_url":1,"soilmap_view_url":null,"soiltest_xml_url":0,"soiltest_view_url":0},{"id":498318,"code":"B4KJ202201000-0854","latitude":"42.001136","longitude":"140.622578","source_code":"HK20142310340004","project_name":"\u5317\u6d77\u9053\u7e26\u8cab\u81ea\u52d5\u8eca\u9053","survey_name":"\"\u5317\u6d77\u9053\u7e26\u8cab\u81ea\u52d5\u8eca\u9053 \u4e03\u98ef\u753a\u5916 \u8d64\u4e95\u5ddd\u5730\u8cea\u8abf\u67fb\u696d\u52d9\"","client_name":"\u5317\u6d77\u9053\u958b\u767a\u5c40\u51fd\u9928\u958b\u767a\u5efa\u8a2d\u90e8\u51fd\u9928\u9053\u8def\u4e8b\u52d9\u6240","boring_xml_url":61,"boring_view_url":1,"soilmap_view_url":null,"soiltest_xml_url":0,"soiltest_view_url":0},{"id":498317,"code":"B4KJ202201000-0853","latitude":"42.001136","longitude":"140.626728","source_code":"HK20142310340003","project_name":"\u5317\u6d77\u9053\u7e26\u8cab\u81ea\u52d5\u8eca\u9053","survey_name":"\"\u5317\u6d77\u9053\u7e26\u8cab\u81ea\u52d5\u8eca\u9053 \u4e03\u98ef\u753a\u5916 \u8d64\u4e95\u5ddd\u5730\u8cea\u8abf\u67fb\u696d\u52d9\"","client_name":"\u5317\u6d77\u9053\u958b\u767a\u5c40\u51fd\u9928\u958b\u767a\u5efa\u8a2d\u90e8\u51fd\u9928\u9053\u8def\u4e8b\u52d9\u6240","boring_xml_url":61,"boring_view_url":1,"soilmap_view_url":null,"soiltest_xml_url":0,"soiltest_view_url":0},{"id":498316,"code":"B4KJ202201000-0852","latitude":"42.005272","longitude":"140.625119","source_code":"HK20142310340002","project_name":"\u5317\u6d77\u9053\u7e26\u8cab\u81ea\u52d5\u8eca\u9053","survey_name":"\"\u5317\u6d77\u9053\u7e26\u8cab\u81ea\u52d5\u8eca\u9053 \u4e03\u98ef\u753a\u5916 \u8d64\u4e95\u5ddd\u5730\u8cea\u8abf\u67fb\u696d\u52d9\"","client_name":"\u5317\u6d77\u9053\u958b\u767a\u5c40\u51fd\u9928\u958b\u767a\u5efa\u8a2d\u90e8\u51fd\u9928\u9053\u8def\u4e8b\u52d9\u6240","boring_xml_url":61,"boring_view_url":1,"soilmap_view_url":null,"soiltest_xml_url":0,"soiltest_view_url":0},{"id":498315,"code":"B4KJ202201000-0851","latitude":"42.004928","longitude":"140.624461","source_code":"HK20142310340001","project_name":"\u5317\u6d77\u9053\u7e26\u8cab\u81ea\u52d5\u8eca\u9053","survey_name":"\"\u5317\u6d77\u9053\u7e26\u8cab\u81ea\u52d5\u8eca\u9053 \u4e03\u98ef\u753a\u4ed6 \u8d64\u4e95\u5ddd\u5730\u8cea\u8abf\u67fb\u696d\u52d9\"","client_name":"\u5317\u6d77\u9053\u958b\u767a\u5c40\u51fd\u9928\u958b\u767a\u5efa\u8a2d\u90e8\u51fd\u9928\u9053\u8def\u4e8b\u52d9\u6240","boring_xml_url":61,"boring_view_url":1,"soilmap_view_url":null,"soiltest_xml_url":0,"soiltest_view_url":0},{"id":498314,"code":"B4KJ202201000-0850","latitude":"41.997944","longitude":"140.626722","source_code":"HK20142310330009","project_name":"\"\u5317\u6d77\u9053\u7e26\u8cab\u81ea\u52d5\u8eca\u9053 \u4e03\u98ef\u753a\u5916 \u6a2a\u5ddd\u6a4b\"","survey_name":"\"\u5317\u6d77\u9053\u7e26\u8cab\u81ea\u52d5\u8eca\u9053 \u4e03\u98ef\u753a\u5916 \u6a2a\u5ddd\u6a4b\u5730\u8cea\u8abf\u67fb\u5916\u4e00\u9023\u696d\u52d9\"","client_name":"\"\u5317\u6d77\u9053\u958b\u767a\u5c40 \u51fd\u9928\u958b\u767a\u5efa\u8a2d\u90e8 \u51fd\u9928\u9053\u8def\u4e8b\u52d9\"","boring_xml_url":61,"boring_view_url":1,"soilmap_view_url":null,"soiltest_xml_url":0,"soiltest_view_url":0},{"id":498313,"code":"B4KJ202201000-0849","latitude":"41.997417","longitude":"140.626556","source_code":"HK20142310330008","project_name":"\"\u5317\u6d77\u9053\u7e26\u8cab\u81ea\u52d5\u8eca\u9053 \u4e03\u98ef\u753a\u5916 \u6a2a\u5ddd\u6a4b\"","survey_name":"\"\u5317\u6d77\u9053\u7e26\u8cab\u81ea\u52d5\u8eca\u9053 \u4e03\u98ef\u753a\u5916 \u6a2a\u5ddd\u6a4b\u5730\u8cea\u8abf\u67fb\u5916\u4e00\u9023\u696d\u52d9\"","client_name":"\"\u5317\u6d77\u9053\u958b\u767a\u5c40 \u51fd\u9928\u958b\u767a\u5efa\u8a2d\u90e8 \u51fd\u9928\u9053\u8def\u4e8b\u52d9\"","boring_xml_url":61,"boring_view_url":1,"soilmap_view_url":null,"soiltest_xml_url":0,"soiltest_view_url":0},{"id":498312,"code":"B4KJ202201000-0848","latitude":"41.997","longitude":"140.626361","source_code":"HK20142310330007","project_name":"\"\u5317\u6d77\u9053\u7e26\u8cab\u81ea\u52d5\u8eca\u9053 \u4e03\u98ef\u753a\u5916 \u6a2a\u5ddd\u6a4b\"","survey_name":"\"\u5317\u6d77\u9053\u7e26\u8cab\u81ea\u52d5\u8eca\u9053 \u4e03\u98ef\u753a\u5916 \u6a2a\u5ddd\u6a4b\u5730\u8cea\u8abf\u67fb\u5916\u4e00\u9023\u696d\u52d9\"","client_name":"\"\u5317\u6d77\u9053\u958b\u767a\u5c40 \u51fd\u9928\u958b\u767a\u5efa\u8a2d\u90e8 \u51fd\u9928\u9053\u8def\u4e8b\u52d9\"","boring_xml_url":61,"boring_view_url":1,"soilmap_view_url":null,"soiltest_xml_url":0,"soiltest_view_url":0},{"id":498311,"code":"B4KJ202201000-0847","latitude":"41.996778","longitude":"140.626361","source_code":"HK20142310330006","project_name":"\"\u5317\u6d77\u9053\u7e26\u8cab\u81ea\u52d5\u8eca\u9053 \u4e03\u98ef\u753a\u5916 \u6a2a\u5ddd\u6a4b\"","survey_name":"\"\u5317\u6d77\u9053\u7e26\u8cab\u81ea\u52d5\u8eca\u9053 \u4e03\u98ef\u753a\u5916 \u6a2a\u5ddd\u6a4b\u5730\u8cea\u8abf\u67fb\u5916\u4e00\u9023\u696d\u52d9\"","client_name":"\"\u5317\u6d77\u9053\u958b\u767a\u5c40 \u51fd\u9928\u958b\u767a\u5efa\u8a2d\u90e8 \u51fd\u9928\u9053\u8def\u4e8b\u52d9\"","boring_xml_url":61,"boring_view_url":1,"soilmap_view_url":null,"soiltest_xml_url":0,"soiltest_view_url":0},{"id":498310,"code":"B4KJ202201000-0846","latitude":"41.9965","longitude":"140.626111","source_code":"HK20142310330005","project_name":"\"\u5317\u6d77\u9053\u7e26\u8cab\u81ea\u52d5\u8eca\u9053 \u4e03\u98ef\u753a\u5916 \u6a2a\u5ddd\u6a4b\"","survey_name":"\"\u5317\u6d77\u9053\u7e26\u8cab\u81ea\u52d5\u8eca\u9053 \u4e03\u98ef\u753a\u5916 \u6a2a\u5ddd\u6a4b\u5730\u8cea\u8abf\u67fb\u5916\u4e00\u9023\u696d\u52d9\"","client_name":"\"\u5317\u6d77\u9053\u958b\u767a\u5c40 \u51fd\u9928\u958b\u767a\u5efa\u8a2d\u90e8 \u51fd\u9928\u9053\u8def\u4e8b\u52d9\"","boring_xml_url":61,"boring_view_url":1,"soilmap_view_url":null,"soiltest_xml_url":0,"soiltest_view_url":0},{"id":498309,"code":"B4KJ202201000-0845","latitude":"41.99625","longitude":"140.625972","source_code":"HK20142310330004","project_name":"\"\u5317\u6d77\u9053\u7e26\u8cab\u81ea\u52d5\u8eca\u9053 \u4e03\u98ef\u753a\u5916 \u6a2a\u5ddd\u6a4b\"","survey_name":"\"\u5317\u6d77\u9053\u7e26\u8cab\u81ea\u52d5\u8eca\u9053 \u4e03\u98ef\u753a\u5916 \u6a2a\u5ddd\u6a4b\u5730\u8cea\u8abf\u67fb\u5916\u4e00\u9023\u696d\u52d9\"","client_name":"\"\u5317\u6d77\u9053\u958b\u767a\u5c40 \u51fd\u9928\u958b\u767a\u5efa\u8a2d\u90e8 \u51fd\u9928\u9053\u8def\u4e8b\u52d9\"","boring_xml_url":61,"boring_view_url":1,"soilmap_view_url":null,"soiltest_xml_url":0,"soiltest_view_url":0},{"id":498308,"code":"B4KJ202201000-0844","latitude":"41.998361","longitude":"140.627222","source_code":"HK20142310330003","project_name":"\"\u5317\u6d77\u9053\u7e26\u8cab\u81ea\u52d5\u8eca\u9053 \u4e03\u98ef\u753a\u5916 \u6a2a\u5ddd\u6a4b\"","survey_name":"\"\u5317\u6d77\u9053\u7e26\u8cab\u81ea\u52d5\u8eca\u9053 \u4e03\u98ef\u753a\u5916 \u6a2a\u5ddd\u6a4b\u5730\u8cea\u8abf\u67fb\u5916\u4e00\u9023\u696d\u52d9\"","client_name":"\"\u5317\u6d77\u9053\u958b\u767a\u5c40 \u51fd\u9928\u958b\u767a\u5efa\u8a2d\u90e8 \u51fd\u9928\u9053\u8def\u4e8b\u52d9\"","boring_xml_url":61,"boring_view_url":1,"soilmap_view_url":null,"soiltest_xml_url":0,"soiltest_view_url":0},{"id":498307,"code":"B4KJ202201000-0843","latitude":"41.998472","longitude":"140.626333","source_code":"HK20142310330002","project_name":"\"\u5317\u6d77\u9053\u7e26\u8cab\u81ea\u52d5\u8eca\u9053 \u4e03\u98ef\u753a\u5916 \u6a2a\u5ddd\u6a4b\"","survey_name":"\"\u5317\u6d77\u9053\u7e26\u8cab\u81ea\u52d5\u8eca\u9053 \u4e03\u98ef\u753a\u5916 \u6a2a\u5ddd\u6a4b\u5730\u8cea\u8abf\u67fb\u5916\u4e00\u9023\u696d\u52d9\"","client_name":"\"\u5317\u6d77\u9053\u958b\u767a\u5c40 \u51fd\u9928\u958b\u767a\u5efa\u8a2d\u90e8 \u51fd\u9928\u9053\u8def\u4e8b\u52d9\"","boring_xml_url":61,"boring_view_url":1,"soilmap_view_url":null,"soiltest_xml_url":0,"soiltest_view_url":0},{"id":498306,"code":"B4KJ202201000-0842","latitude":"41.994694","longitude":"140.624194","source_code":"HK20142310330001","project_name":"\"\u5317\u6d77\u9053\u7e26\u8cab\u81ea\u52d5\u8eca\u9053 \u4e03\u98ef\u753a\u5916 \u6a2a\u5ddd\u6a4b\"","survey_name":"\"\u5317\u6d77\u9053\u7e26\u8cab\u81ea\u52d5\u8eca\u9053 \u4e03\u98ef\u753a\u5916 \u6a2a\u5ddd\u6a4b\u5730\u8cea\u8abf\u67fb\u5916\u4e00\u9023\u696d\u52d9\"","client_name":"\"\u5317\u6d77\u9053\u958b\u767a\u5c40 \u51fd\u9928\u958b\u767a\u5efa\u8a2d\u90e8 \u51fd\u9928\u9053\u8def\u4e8b\u52d9\"","boring_xml_url":61,"boring_view_url":1,"soilmap_view_url":null,"soiltest_xml_url":0,"soiltest_view_url":0},{"id":498305,"code":"B4KJ202201000-0841","latitude":"41.697533","longitude":"140.449603","source_code":"HK20142310160004","project_name":"\u51fd\u9928\u6c5f\u5dee\u81ea\u52d5\u8eca\u9053\u3000\u5317\u6597\u5e02\u5916\u3000\u5730\u8cea\u8abf\u67fb\u696d\u52d9","survey_name":"\u51fd\u9928\u6c5f\u5dee\u81ea\u52d5\u8eca\u9053\u3000\u5317\u6597\u5e02\u5916\u3000\u5730\u8cea\u8abf\u67fb\u696d\u52d9","client_name":"\u51fd\u9928\u958b\u767a\u5efa\u8a2d\u90e8\u3000\u51fd\u9928\u9053\u8def\u4e8b\u52d9\u6240","boring_xml_url":61,"boring_view_url":1,"soilmap_view_url":null,"soiltest_xml_url":0,"soiltest_view_url":0},{"id":498304,"code":"B4KJ202201000-0840","latitude":"41.70425","longitude":"140.473333","source_code":"HK20142310160003","project_name":"\u51fd\u9928\u6c5f\u5dee\u81ea\u52d5\u8eca\u9053\u3000\u5317\u6597\u5e02\u5916\u3000\u5730\u8cea\u8abf\u67fb\u696d\u52d9","survey_name":"\u51fd\u9928\u6c5f\u5dee\u81ea\u52d5\u8eca\u9053\u3000\u5317\u6597\u5e02\u5916\u3000\u5730\u8cea\u8abf\u67fb\u696d\u52d9","client_name":"\u51fd\u9928\u958b\u767a\u5efa\u8a2d\u90e8\u3000\u51fd\u9928\u9053\u8def\u4e8b\u52d9\u6240","boring_xml_url":61,"boring_view_url":1,"soilmap_view_url":null,"soiltest_xml_url":0,"soiltest_view_url":0},{"id":498303,"code":"B4KJ202201000-0839","latitude":"41.724778","longitude":"140.532611","source_code":"HK20142310160002","project_name":"\u51fd\u9928\u6c5f\u5dee\u81ea\u52d5\u8eca\u9053\u3000\u5317\u6597\u5e02\u5916\u3000\u5730\u8cea\u8abf\u67fb\u696d\u52d9","survey_name":"\u51fd\u9928\u6c5f\u5dee\u81ea\u52d5\u8eca\u9053\u3000\u5317\u6597\u5e02\u5916\u3000\u5730\u8cea\u8abf\u67fb\u696d\u52d9","client_name":"\u51fd\u9928\u958b\u767a\u5efa\u8a2d\u90e8\u3000\u51fd\u9928\u9053\u8def\u4e8b\u52d9\u6240","boring_xml_url":61,"boring_view_url":1,"soilmap_view_url":null,"soiltest_xml_url":0,"soiltest_view_url":0},{"id":498302,"code":"B4KJ202201000-0838","latitude":"41.748022","longitude":"140.555111","source_code":"HK20142310160001","project_name":"\u51fd\u9928\u6c5f\u5dee\u81ea\u52d5\u8eca\u9053\u3000\u5317\u6597\u5e02\u5916\u3000\u5730\u8cea\u8abf\u67fb\u696d\u52d9","survey_name":"\u51fd\u9928\u6c5f\u5dee\u81ea\u52d5\u8eca\u9053\u3000\u5317\u6597\u5e02\u5916\u3000\u5730\u8cea\u8abf\u67fb\u696d\u52d9","client_name":"\u51fd\u9928\u958b\u767a\u5efa\u8a2d\u90e8\u3000\u51fd\u9928\u9053\u8def\u4e8b\u52d9\u6240","boring_xml_url":61,"boring_view_url":1,"soilmap_view_url":null,"soiltest_xml_url":0,"soiltest_view_url":0},{"id":498301,"code":"B4KJ202201000-0837","latitude":"41.786535","longitude":"140.813667","source_code":"HK20142310150009","project_name":"\u51fd\u9928\u65b0\u5916\u74b0\u72b6\u9053\u8def","survey_name":"\"\u51fd\u9928\u65b0\u5916\u74b0\u72b6\u9053\u8def \u51fd\u9928\u5e02 \u4e0a\u6e6f\u5ddd\u7a7a\u6e2f\u9593\u5730\u8cea\u8abf\u67fb\u696d\u52d9\"","client_name":"\u56fd\u571f\u4ea4\u901a\u7701\u5317\u6d77\u9053\u958b\u767a\u5c40\u51fd\u9928\u958b\u767a\u5efa\u8a2d\u90e8\u51fd\u9928\u9053\u8def\u4e8b\u52d9\u6240","boring_xml_url":61,"boring_view_url":1,"soilmap_view_url":null,"soiltest_xml_url":0,"soiltest_view_url":0},{"id":498300,"code":"B4KJ202201000-0836","latitude":"41.78954","longitude":"140.811839","source_code":"HK20142310150008","project_name":"\u51fd\u9928\u65b0\u5916\u74b0\u72b6\u9053\u8def","survey_name":"\"\u51fd\u9928\u65b0\u5916\u74b0\u72b6\u9053\u8def \u51fd\u9928\u5e02 \u4e0a\u6e6f\u5ddd\u7a7a\u6e2f\u9593\u5730\u8cea\u8abf\u67fb\u696d\u52d9\"","client_name":"\u56fd\u571f\u4ea4\u901a\u7701\u5317\u6d77\u9053\u958b\u767a\u5c40\u51fd\u9928\u958b\u767a\u5efa\u8a2d\u90e8\u51fd\u9928\u9053\u8def\u4e8b\u52d9\u6240","boring_xml_url":61,"boring_view_url":1,"soilmap_view_url":null,"soiltest_xml_url":0,"soiltest_view_url":0},{"id":498299,"code":"B4KJ202201000-0835","latitude":"41.789625","longitude":"140.81181","source_code":"HK20142310150007","project_name":"\u51fd\u9928\u65b0\u5916\u74b0\u72b6\u9053\u8def","survey_name":"\"\u51fd\u9928\u65b0\u5916\u74b0\u72b6\u9053\u8def \u51fd\u9928\u5e02 \u4e0a\u6e6f\u5ddd\u7a7a\u6e2f\u9593\u5730\u8cea\u8abf\u67fb\u696d\u52d9\"","client_name":"\u56fd\u571f\u4ea4\u901a\u7701\u5317\u6d77\u9053\u958b\u767a\u5c40\u51fd\u9928\u958b\u767a\u5efa\u8a2d\u90e8\u51fd\u9928\u9053\u8def\u4e8b\u52d9\u6240","boring_xml_url":61,"boring_view_url":1,"soilmap_view_url":null,"soiltest_xml_url":0,"soiltest_view_url":0},{"id":498298,"code":"B4KJ202201000-0834","latitude":"41.785864","longitude":"140.814727","source_code":"HK20142310150006","project_name":"\u51fd\u9928\u65b0\u5916\u74b0\u72b6\u9053\u8def","survey_name":"\"\u51fd\u9928\u65b0\u5916\u74b0\u72b6\u9053\u8def \u51fd\u9928\u5e02 \u4e0a\u6e6f\u5ddd\u7a7a\u6e2f\u9593\u5730\u8cea\u8abf\u67fb\u696d\u52d9\"","client_name":"\u56fd\u571f\u4ea4\u901a\u7701\u5317\u6d77\u9053\u958b\u767a\u5c40\u51fd\u9928\u958b\u767a\u5efa\u8a2d\u90e8\u51fd\u9928\u9053\u8def\u4e8b\u52d9\u6240","boring_xml_url":61,"boring_view_url":1,"soilmap_view_url":null,"soiltest_xml_url":0,"soiltest_view_url":0},{"id":498297,"code":"B4KJ202201000-0833","latitude":"41.786008","longitude":"140.814028","source_code":"HK20142310150005","project_name":"\u51fd\u9928\u65b0\u5916\u74b0\u72b6\u9053\u8def","survey_name":"\"\u51fd\u9928\u65b0\u5916\u74b0\u72b6\u9053\u8def \u51fd\u9928\u5e02 \u4e0a\u6e6f\u5ddd\u7a7a\u6e2f\u9593\u5730\u8cea\u8abf\u67fb\u696d\u52d9\"","client_name":"\u56fd\u571f\u4ea4\u901a\u7701\u5317\u6d77\u9053\u958b\u767a\u5c40\u51fd\u9928\u958b\u767a\u5efa\u8a2d\u90e8\u51fd\u9928\u9053\u8def\u4e8b\u52d9\u6240","boring_xml_url":61,"boring_view_url":1,"soilmap_view_url":null,"soiltest_xml_url":0,"soiltest_view_url":0},{"id":498296,"code":"B4KJ202201000-0832","latitude":"41.786496","longitude":"140.814242","source_code":"HK20142310150004","project_name":"\u51fd\u9928\u65b0\u5916\u74b0\u72b6\u9053\u8def","survey_name":"\"\u51fd\u9928\u65b0\u5916\u74b0\u72b6\u9053\u8def \u51fd\u9928\u5e02 \u4e0a\u6e6f\u5ddd\u7a7a\u6e2f\u9593\u5730\u8cea\u8abf\u67fb\u696d\u52d9\"","client_name":"\u56fd\u571f\u4ea4\u901a\u7701\u5317\u6d77\u9053\u958b\u767a\u5c40\u51fd\u9928\u958b\u767a\u5efa\u8a2d\u90e8\u51fd\u9928\u9053\u8def\u4e8b\u52d9\u6240","boring_xml_url":61,"boring_view_url":1,"soilmap_view_url":null,"soiltest_xml_url":0,"soiltest_view_url":0},{"id":498295,"code":"B4KJ202201000-0831","latitude":"41.78773","longitude":"140.812653","source_code":"HK20142310150003","project_name":"\u51fd\u9928\u65b0\u5916\u74b0\u72b6\u9053\u8def","survey_name":"\"\u51fd\u9928\u65b0\u5916\u74b0\u72b6\u9053\u8def \u51fd\u9928\u5e02 \u4e0a\u6e6f\u5ddd\u7a7a\u6e2f\u9593\u5730\u8cea\u8abf\u67fb\u696d\u52d9\"","client_name":"\u56fd\u571f\u4ea4\u901a\u7701\u5317\u6d77\u9053\u958b\u767a\u5c40\u51fd\u9928\u958b\u767a\u5efa\u8a2d\u90e8\u51fd\u9928\u9053\u8def\u4e8b\u52d9\u6240","boring_xml_url":61,"boring_view_url":1,"soilmap_view_url":null,"soiltest_xml_url":0,"soiltest_view_url":0},{"id":498294,"code":"B4KJ202201000-0830","latitude":"41.78816","longitude":"140.812233","source_code":"HK20142310150002","project_name":"\u51fd\u9928\u65b0\u5916\u74b0\u72b6\u9053\u8def","survey_name":"\"\u51fd\u9928\u65b0\u5916\u74b0\u72b6\u9053\u8def \u51fd\u9928\u5e02 \u4e0a\u6e6f\u5ddd\u7a7a\u6e2f\u9593\u5730\u8cea\u8abf\u67fb\u696d\u52d9\"","client_name":"\u56fd\u571f\u4ea4\u901a\u7701\u5317\u6d77\u9053\u958b\u767a\u5c40\u51fd\u9928\u958b\u767a\u5efa\u8a2d\u90e8\u51fd\u9928\u9053\u8def\u4e8b\u52d9\u6240","boring_xml_url":61,"boring_view_url":1,"soilmap_view_url":null,"soiltest_xml_url":0,"soiltest_view_url":0},{"id":498293,"code":"B4KJ202201000-0829","latitude":"41.788598","longitude":"140.81287","source_code":"HK20142310150001","project_name":"\u51fd\u9928\u65b0\u5916\u74b0\u72b6\u9053\u8def","survey_name":"\"\u51fd\u9928\u65b0\u5916\u74b0\u72b6\u9053\u8def \u51fd\u9928\u5e02 \u4e0a\u6e6f\u5ddd\u7a7a\u6e2f\u9593\u5730\u8cea\u8abf\u67fb\u696d\u52d9\"","client_name":"\u56fd\u571f\u4ea4\u901a\u7701\u5317\u6d77\u9053\u958b\u767a\u5c40\u51fd\u9928\u958b\u767a\u5efa\u8a2d\u90e8\u51fd\u9928\u9053\u8def\u4e8b\u52d9\u6240","boring_xml_url":61,"boring_view_url":1,"soilmap_view_url":null,"soiltest_xml_url":0,"soiltest_view_url":0},{"id":498292,"code":"B4KJ202201000-0828","latitude":"41.736101","longitude":"140.540954","source_code":"HK20142310140011","project_name":"\"\u51fd\u9928\u6c5f\u5dee\u81ea\u52d5\u8eca\u9053 \u6728\u53e4\u5185\u753a\u5916 \u5730\u8cea\u8abf\u67fb\u696d\u52d9\"","survey_name":"\"\u51fd\u9928\u6c5f\u5dee\u81ea\u52d5\u8eca\u9053 \u6728\u53e4\u5185\u753a\u5916 \u5730\u8cea\u8abf\u67fb\u696d\u52d9\"","client_name":"\u51fd\u9928\u958b\u767a\u5efa\u8a2d\u90e8\u3000\u51fd\u9928\u9053\u8def\u4e8b\u52d9\u6240","boring_xml_url":61,"boring_view_url":1,"soilmap_view_url":null,"soiltest_xml_url":0,"soiltest_view_url":0},{"id":498291,"code":"B4KJ202201000-0827","latitude":"41.739228","longitude":"140.542687","source_code":"HK20142310140010","project_name":"\"\u51fd\u9928\u6c5f\u5dee\u81ea\u52d5\u8eca\u9053 \u6728\u53e4\u5185\u753a\u5916 \u5730\u8cea\u8abf\u67fb\u696d\u52d9\"","survey_name":"\"\u51fd\u9928\u6c5f\u5dee\u81ea\u52d5\u8eca\u9053 \u6728\u53e4\u5185\u753a\u5916 \u5730\u8cea\u8abf\u67fb\u696d\u52d9\"","client_name":"\u51fd\u9928\u958b\u767a\u5efa\u8a2d\u90e8\u3000\u51fd\u9928\u9053\u8def\u4e8b\u52d9\u6240","boring_xml_url":61,"boring_view_url":1,"soilmap_view_url":null,"soiltest_xml_url":0,"soiltest_view_url":0}]}}