{"header":{"xyz":{"source":[],"mosaic":false},"page":1577,"raw":{"soiltest_result":"0","bbox":"57.598333,109.544722,1.933333,163.806111","page":"1577"},"conditions":{"soiltest_result":0,"north":57.598333,"west":109.544722,"south":1.933333,"east":163.806111},"success":true,"message":""},"data":{"meta":{"total":212844,"page":1577,"pages":7095,"count":30},"values":[{"id":498080,"code":"B4KJ202201000-0616","latitude":"43.777586","longitude":"142.361436","source_code":"HK20132522070042","project_name":"","survey_name":"\u77f3\u72e9\u5ddd\u4e0a\u6d41\u3000\u65ed\u5ddd\u6cb3\u5ddd\u4e8b\u52d9\u6240\u7ba1\u5185\u5730\u8cea\u8abf\u67fb\u696d\u52d9","client_name":"\u5317\u6d77\u9053\u958b\u767a\u5c40\u3000\u65ed\u5ddd\u958b\u767a\u5efa\u8a2d\u90e8\u3000\u65ed\u5ddd\u6cb3\u5ddd\u4e8b\u52d9\u6240","boring_xml_url":61,"boring_view_url":1,"soilmap_view_url":null,"soiltest_xml_url":0,"soiltest_view_url":0},{"id":498079,"code":"B4KJ202201000-0615","latitude":"43.777603","longitude":"142.361189","source_code":"HK20132522070041","project_name":"","survey_name":"\u77f3\u72e9\u5ddd\u4e0a\u6d41\u3000\u65ed\u5ddd\u6cb3\u5ddd\u4e8b\u52d9\u6240\u7ba1\u5185\u5730\u8cea\u8abf\u67fb\u696d\u52d9","client_name":"\u5317\u6d77\u9053\u958b\u767a\u5c40\u3000\u65ed\u5ddd\u958b\u767a\u5efa\u8a2d\u90e8\u3000\u65ed\u5ddd\u6cb3\u5ddd\u4e8b\u52d9\u6240","boring_xml_url":61,"boring_view_url":1,"soilmap_view_url":null,"soiltest_xml_url":0,"soiltest_view_url":0},{"id":498078,"code":"B4KJ202201000-0614","latitude":"43.777611","longitude":"142.360942","source_code":"HK20132522070040","project_name":"","survey_name":"\u77f3\u72e9\u5ddd\u4e0a\u6d41\u3000\u65ed\u5ddd\u6cb3\u5ddd\u4e8b\u52d9\u6240\u7ba1\u5185\u5730\u8cea\u8abf\u67fb\u696d\u52d9","client_name":"\u5317\u6d77\u9053\u958b\u767a\u5c40\u3000\u65ed\u5ddd\u958b\u767a\u5efa\u8a2d\u90e8\u3000\u65ed\u5ddd\u6cb3\u5ddd\u4e8b\u52d9\u6240","boring_xml_url":61,"boring_view_url":1,"soilmap_view_url":null,"soiltest_xml_url":0,"soiltest_view_url":0},{"id":498077,"code":"B4KJ202201000-0613","latitude":"43.777614","longitude":"142.360817","source_code":"HK20132522070039","project_name":"","survey_name":"\u77f3\u72e9\u5ddd\u4e0a\u6d41\u3000\u65ed\u5ddd\u6cb3\u5ddd\u4e8b\u52d9\u6240\u7ba1\u5185\u5730\u8cea\u8abf\u67fb\u696d\u52d9","client_name":"\u5317\u6d77\u9053\u958b\u767a\u5c40\u3000\u65ed\u5ddd\u958b\u767a\u5efa\u8a2d\u90e8\u3000\u65ed\u5ddd\u6cb3\u5ddd\u4e8b\u52d9\u6240","boring_xml_url":61,"boring_view_url":1,"soilmap_view_url":null,"soiltest_xml_url":0,"soiltest_view_url":0},{"id":498076,"code":"B4KJ202201000-0612","latitude":"43.777611","longitude":"142.360694","source_code":"HK20132522070038","project_name":"","survey_name":"\u77f3\u72e9\u5ddd\u4e0a\u6d41\u3000\u65ed\u5ddd\u6cb3\u5ddd\u4e8b\u52d9\u6240\u7ba1\u5185\u5730\u8cea\u8abf\u67fb\u696d\u52d9","client_name":"\u5317\u6d77\u9053\u958b\u767a\u5c40\u3000\u65ed\u5ddd\u958b\u767a\u5efa\u8a2d\u90e8\u3000\u65ed\u5ddd\u6cb3\u5ddd\u4e8b\u52d9\u6240","boring_xml_url":61,"boring_view_url":1,"soilmap_view_url":null,"soiltest_xml_url":0,"soiltest_view_url":0},{"id":498075,"code":"B4KJ202201000-0611","latitude":"43.777606","longitude":"142.360569","source_code":"HK20132522070037","project_name":"","survey_name":"\u77f3\u72e9\u5ddd\u4e0a\u6d41\u3000\u65ed\u5ddd\u6cb3\u5ddd\u4e8b\u52d9\u6240\u7ba1\u5185\u5730\u8cea\u8abf\u67fb\u696d\u52d9","client_name":"\u5317\u6d77\u9053\u958b\u767a\u5c40\u3000\u65ed\u5ddd\u958b\u767a\u5efa\u8a2d\u90e8\u3000\u65ed\u5ddd\u6cb3\u5ddd\u4e8b\u52d9\u6240","boring_xml_url":61,"boring_view_url":1,"soilmap_view_url":null,"soiltest_xml_url":0,"soiltest_view_url":0},{"id":498074,"code":"B4KJ202201000-0610","latitude":"43.777603","longitude":"142.360444","source_code":"HK20132522070036","project_name":"","survey_name":"\u77f3\u72e9\u5ddd\u4e0a\u6d41\u3000\u65ed\u5ddd\u6cb3\u5ddd\u4e8b\u52d9\u6240\u7ba1\u5185\u5730\u8cea\u8abf\u67fb\u696d\u52d9","client_name":"\u5317\u6d77\u9053\u958b\u767a\u5c40\u3000\u65ed\u5ddd\u958b\u767a\u5efa\u8a2d\u90e8\u3000\u65ed\u5ddd\u6cb3\u5ddd\u4e8b\u52d9\u6240","boring_xml_url":61,"boring_view_url":1,"soilmap_view_url":null,"soiltest_xml_url":0,"soiltest_view_url":0},{"id":498073,"code":"B4KJ202201000-0609","latitude":"43.778242","longitude":"142.33715","source_code":"HK20132522070035","project_name":"","survey_name":"\u77f3\u72e9\u5ddd\u4e0a\u6d41\u3000\u65ed\u5ddd\u6cb3\u5ddd\u4e8b\u52d9\u6240\u7ba1\u5185\u5730\u8cea\u8abf\u67fb\u696d\u52d9","client_name":"\u5317\u6d77\u9053\u958b\u767a\u5c40\u3000\u65ed\u5ddd\u958b\u767a\u5efa\u8a2d\u90e8\u3000\u65ed\u5ddd\u6cb3\u5ddd\u4e8b\u52d9\u6240","boring_xml_url":61,"boring_view_url":1,"soilmap_view_url":null,"soiltest_xml_url":0,"soiltest_view_url":0},{"id":498072,"code":"B4KJ202201000-0608","latitude":"43.778242","longitude":"142.337028","source_code":"HK20132522070034","project_name":"","survey_name":"\u77f3\u72e9\u5ddd\u4e0a\u6d41\u3000\u65ed\u5ddd\u6cb3\u5ddd\u4e8b\u52d9\u6240\u7ba1\u5185\u5730\u8cea\u8abf\u67fb\u696d\u52d9","client_name":"\u5317\u6d77\u9053\u958b\u767a\u5c40\u3000\u65ed\u5ddd\u958b\u767a\u5efa\u8a2d\u90e8\u3000\u65ed\u5ddd\u6cb3\u5ddd\u4e8b\u52d9\u6240","boring_xml_url":61,"boring_view_url":1,"soilmap_view_url":null,"soiltest_xml_url":0,"soiltest_view_url":0},{"id":498071,"code":"B4KJ202201000-0607","latitude":"43.778239","longitude":"142.336903","source_code":"HK20132522070033","project_name":"","survey_name":"\u77f3\u72e9\u5ddd\u4e0a\u6d41\u3000\u65ed\u5ddd\u6cb3\u5ddd\u4e8b\u52d9\u6240\u7ba1\u5185\u5730\u8cea\u8abf\u67fb\u696d\u52d9","client_name":"\u5317\u6d77\u9053\u958b\u767a\u5c40\u3000\u65ed\u5ddd\u958b\u767a\u5efa\u8a2d\u90e8\u3000\u65ed\u5ddd\u6cb3\u5ddd\u4e8b\u52d9\u6240","boring_xml_url":61,"boring_view_url":1,"soilmap_view_url":null,"soiltest_xml_url":0,"soiltest_view_url":0},{"id":498070,"code":"B4KJ202201000-0606","latitude":"43.778239","longitude":"142.336778","source_code":"HK20132522070032","project_name":"","survey_name":"\u77f3\u72e9\u5ddd\u4e0a\u6d41\u3000\u65ed\u5ddd\u6cb3\u5ddd\u4e8b\u52d9\u6240\u7ba1\u5185\u5730\u8cea\u8abf\u67fb\u696d\u52d9","client_name":"\u5317\u6d77\u9053\u958b\u767a\u5c40\u3000\u65ed\u5ddd\u958b\u767a\u5efa\u8a2d\u90e8\u3000\u65ed\u5ddd\u6cb3\u5ddd\u4e8b\u52d9\u6240","boring_xml_url":61,"boring_view_url":1,"soilmap_view_url":null,"soiltest_xml_url":0,"soiltest_view_url":0},{"id":498069,"code":"B4KJ202201000-0605","latitude":"43.778236","longitude":"142.336653","source_code":"HK20132522070031","project_name":"","survey_name":"\u77f3\u72e9\u5ddd\u4e0a\u6d41\u3000\u65ed\u5ddd\u6cb3\u5ddd\u4e8b\u52d9\u6240\u7ba1\u5185\u5730\u8cea\u8abf\u67fb\u696d\u52d9","client_name":"\u5317\u6d77\u9053\u958b\u767a\u5c40\u3000\u65ed\u5ddd\u958b\u767a\u5efa\u8a2d\u90e8\u3000\u65ed\u5ddd\u6cb3\u5ddd\u4e8b\u52d9\u6240","boring_xml_url":61,"boring_view_url":1,"soilmap_view_url":null,"soiltest_xml_url":0,"soiltest_view_url":0},{"id":498068,"code":"B4KJ202201000-0604","latitude":"43.673261","longitude":"142.386553","source_code":"HK20132522070029","project_name":"","survey_name":"\u77f3\u72e9\u5ddd\u4e0a\u6d41\u3000\u65ed\u5ddd\u6cb3\u5ddd\u4e8b\u52d9\u6240\u7ba1\u5185\u5730\u8cea\u8abf\u67fb\u696d\u52d9","client_name":"\u5317\u6d77\u9053\u958b\u767a\u5c40\u3000\u65ed\u5ddd\u958b\u767a\u5efa\u8a2d\u90e8\u3000\u65ed\u5ddd\u6cb3\u5ddd\u4e8b\u52d9\u6240","boring_xml_url":61,"boring_view_url":1,"soilmap_view_url":null,"soiltest_xml_url":0,"soiltest_view_url":0},{"id":498067,"code":"B4KJ202201000-0603","latitude":"43.673283","longitude":"142.386553","source_code":"HK20132522070028","project_name":"","survey_name":"\u77f3\u72e9\u5ddd\u4e0a\u6d41\u3000\u65ed\u5ddd\u6cb3\u5ddd\u4e8b\u52d9\u6240\u7ba1\u5185\u5730\u8cea\u8abf\u67fb\u696d\u52d9","client_name":"\u5317\u6d77\u9053\u958b\u767a\u5c40\u3000\u65ed\u5ddd\u958b\u767a\u5efa\u8a2d\u90e8\u3000\u65ed\u5ddd\u6cb3\u5ddd\u4e8b\u52d9\u6240","boring_xml_url":61,"boring_view_url":1,"soilmap_view_url":null,"soiltest_xml_url":0,"soiltest_view_url":0},{"id":498066,"code":"B4KJ202201000-0602","latitude":"43.678306","longitude":"142.380858","source_code":"HK20132522070027","project_name":"","survey_name":"\u77f3\u72e9\u5ddd\u4e0a\u6d41\u3000\u65ed\u5ddd\u6cb3\u5ddd\u4e8b\u52d9\u6240\u7ba1\u5185\u5730\u8cea\u8abf\u67fb\u696d\u52d9","client_name":"\u5317\u6d77\u9053\u958b\u767a\u5c40\u3000\u65ed\u5ddd\u958b\u767a\u5efa\u8a2d\u90e8\u3000\u65ed\u5ddd\u6cb3\u5ddd\u4e8b\u52d9\u6240","boring_xml_url":61,"boring_view_url":1,"soilmap_view_url":null,"soiltest_xml_url":0,"soiltest_view_url":0},{"id":498065,"code":"B4KJ202201000-0601","latitude":"43.678336","longitude":"142.380936","source_code":"HK20132522070026","project_name":"","survey_name":"\u77f3\u72e9\u5ddd\u4e0a\u6d41\u3000\u65ed\u5ddd\u6cb3\u5ddd\u4e8b\u52d9\u6240\u7ba1\u5185\u5730\u8cea\u8abf\u67fb\u696d\u52d9","client_name":"\u5317\u6d77\u9053\u958b\u767a\u5c40\u3000\u65ed\u5ddd\u958b\u767a\u5efa\u8a2d\u90e8\u3000\u65ed\u5ddd\u6cb3\u5ddd\u4e8b\u52d9\u6240","boring_xml_url":61,"boring_view_url":1,"soilmap_view_url":null,"soiltest_xml_url":0,"soiltest_view_url":0},{"id":498064,"code":"B4KJ202201000-0600","latitude":"43.678353","longitude":"142.380972","source_code":"HK20132522070025","project_name":"","survey_name":"\u77f3\u72e9\u5ddd\u4e0a\u6d41\u3000\u65ed\u5ddd\u6cb3\u5ddd\u4e8b\u52d9\u6240\u7ba1\u5185\u5730\u8cea\u8abf\u67fb\u696d\u52d9","client_name":"\u5317\u6d77\u9053\u958b\u767a\u5c40\u3000\u65ed\u5ddd\u958b\u767a\u5efa\u8a2d\u90e8\u3000\u65ed\u5ddd\u6cb3\u5ddd\u4e8b\u52d9\u6240","boring_xml_url":61,"boring_view_url":1,"soilmap_view_url":null,"soiltest_xml_url":0,"soiltest_view_url":0},{"id":498063,"code":"B4KJ202201000-0599","latitude":"43.724483","longitude":"142.364292","source_code":"HK20132522070024","project_name":"","survey_name":"\u77f3\u72e9\u5ddd\u4e0a\u6d41\u3000\u65ed\u5ddd\u6cb3\u5ddd\u4e8b\u52d9\u6240\u7ba1\u5185\u5730\u8cea\u8abf\u67fb\u696d\u52d9","client_name":"\u5317\u6d77\u9053\u958b\u767a\u5c40\u3000\u65ed\u5ddd\u958b\u767a\u5efa\u8a2d\u90e8\u3000\u65ed\u5ddd\u6cb3\u5ddd\u4e8b\u52d9\u6240","boring_xml_url":61,"boring_view_url":1,"soilmap_view_url":null,"soiltest_xml_url":0,"soiltest_view_url":0},{"id":498062,"code":"B4KJ202201000-0598","latitude":"43.724489","longitude":"142.364383","source_code":"HK20132522070023","project_name":"","survey_name":"\u77f3\u72e9\u5ddd\u4e0a\u6d41\u3000\u65ed\u5ddd\u6cb3\u5ddd\u4e8b\u52d9\u6240\u7ba1\u5185\u5730\u8cea\u8abf\u67fb\u696d\u52d9","client_name":"\u5317\u6d77\u9053\u958b\u767a\u5c40\u3000\u65ed\u5ddd\u958b\u767a\u5efa\u8a2d\u90e8\u3000\u65ed\u5ddd\u6cb3\u5ddd\u4e8b\u52d9\u6240","boring_xml_url":61,"boring_view_url":1,"soilmap_view_url":null,"soiltest_xml_url":0,"soiltest_view_url":0},{"id":498061,"code":"B4KJ202201000-0597","latitude":"43.724492","longitude":"142.364419","source_code":"HK20132522070022","project_name":"","survey_name":"\u77f3\u72e9\u5ddd\u4e0a\u6d41\u3000\u65ed\u5ddd\u6cb3\u5ddd\u4e8b\u52d9\u6240\u7ba1\u5185\u5730\u8cea\u8abf\u67fb\u696d\u52d9","client_name":"\u5317\u6d77\u9053\u958b\u767a\u5c40\u3000\u65ed\u5ddd\u958b\u767a\u5efa\u8a2d\u90e8\u3000\u65ed\u5ddd\u6cb3\u5ddd\u4e8b\u52d9\u6240","boring_xml_url":61,"boring_view_url":1,"soilmap_view_url":null,"soiltest_xml_url":0,"soiltest_view_url":0},{"id":498060,"code":"B4KJ202201000-0596","latitude":"43.749606","longitude":"142.350389","source_code":"HK20132522070021","project_name":"","survey_name":"\u77f3\u72e9\u5ddd\u4e0a\u6d41\u3000\u65ed\u5ddd\u6cb3\u5ddd\u4e8b\u52d9\u6240\u7ba1\u5185\u5730\u8cea\u8abf\u67fb\u696d\u52d9","client_name":"\u5317\u6d77\u9053\u958b\u767a\u5c40\u3000\u65ed\u5ddd\u958b\u767a\u5efa\u8a2d\u90e8\u3000\u65ed\u5ddd\u6cb3\u5ddd\u4e8b\u52d9\u6240","boring_xml_url":61,"boring_view_url":1,"soilmap_view_url":null,"soiltest_xml_url":0,"soiltest_view_url":0},{"id":498059,"code":"B4KJ202201000-0595","latitude":"43.749653","longitude":"142.350483","source_code":"HK20132522070020","project_name":"","survey_name":"\u77f3\u72e9\u5ddd\u4e0a\u6d41\u3000\u65ed\u5ddd\u6cb3\u5ddd\u4e8b\u52d9\u6240\u7ba1\u5185\u5730\u8cea\u8abf\u67fb\u696d\u52d9","client_name":"\u5317\u6d77\u9053\u958b\u767a\u5c40\u3000\u65ed\u5ddd\u958b\u767a\u5efa\u8a2d\u90e8\u3000\u65ed\u5ddd\u6cb3\u5ddd\u4e8b\u52d9\u6240","boring_xml_url":61,"boring_view_url":1,"soilmap_view_url":null,"soiltest_xml_url":0,"soiltest_view_url":0},{"id":498058,"code":"B4KJ202201000-0594","latitude":"43.749669","longitude":"142.350528","source_code":"HK20132522070019","project_name":"","survey_name":"\u77f3\u72e9\u5ddd\u4e0a\u6d41\u3000\u65ed\u5ddd\u6cb3\u5ddd\u4e8b\u52d9\u6240\u7ba1\u5185\u5730\u8cea\u8abf\u67fb\u696d\u52d9","client_name":"\u5317\u6d77\u9053\u958b\u767a\u5c40\u3000\u65ed\u5ddd\u958b\u767a\u5efa\u8a2d\u90e8\u3000\u65ed\u5ddd\u6cb3\u5ddd\u4e8b\u52d9\u6240","boring_xml_url":61,"boring_view_url":1,"soilmap_view_url":null,"soiltest_xml_url":0,"soiltest_view_url":0},{"id":498057,"code":"B4KJ202201000-0593","latitude":"43.753953","longitude":"142.346658","source_code":"HK20132522070018","project_name":"","survey_name":"\u77f3\u72e9\u5ddd\u4e0a\u6d41\u3000\u65ed\u5ddd\u6cb3\u5ddd\u4e8b\u52d9\u6240\u7ba1\u5185\u5730\u8cea\u8abf\u67fb\u696d\u52d9","client_name":"\u5317\u6d77\u9053\u958b\u767a\u5c40\u3000\u65ed\u5ddd\u958b\u767a\u5efa\u8a2d\u90e8\u3000\u65ed\u5ddd\u6cb3\u5ddd\u4e8b\u52d9\u6240","boring_xml_url":61,"boring_view_url":1,"soilmap_view_url":null,"soiltest_xml_url":0,"soiltest_view_url":0},{"id":498056,"code":"B4KJ202201000-0592","latitude":"43.753978","longitude":"142.346747","source_code":"HK20132522070017","project_name":"","survey_name":"\u77f3\u72e9\u5ddd\u4e0a\u6d41\u3000\u65ed\u5ddd\u6cb3\u5ddd\u4e8b\u52d9\u6240\u7ba1\u5185\u5730\u8cea\u8abf\u67fb\u696d\u52d9","client_name":"\u5317\u6d77\u9053\u958b\u767a\u5c40\u3000\u65ed\u5ddd\u958b\u767a\u5efa\u8a2d\u90e8\u3000\u65ed\u5ddd\u6cb3\u5ddd\u4e8b\u52d9\u6240","boring_xml_url":61,"boring_view_url":1,"soilmap_view_url":null,"soiltest_xml_url":0,"soiltest_view_url":0},{"id":498055,"code":"B4KJ202201000-0591","latitude":"43.753989","longitude":"142.34595","source_code":"HK20132522070016","project_name":"","survey_name":"\u77f3\u72e9\u5ddd\u4e0a\u6d41\u3000\u65ed\u5ddd\u6cb3\u5ddd\u4e8b\u52d9\u6240\u7ba1\u5185\u5730\u8cea\u8abf\u67fb\u696d\u52d9","client_name":"\u5317\u6d77\u9053\u958b\u767a\u5c40\u3000\u65ed\u5ddd\u958b\u767a\u5efa\u8a2d\u90e8\u3000\u65ed\u5ddd\u6cb3\u5ddd\u4e8b\u52d9\u6240","boring_xml_url":61,"boring_view_url":1,"soilmap_view_url":null,"soiltest_xml_url":0,"soiltest_view_url":0},{"id":498054,"code":"B4KJ202201000-0590","latitude":"43.763303","longitude":"142.340369","source_code":"HK20132522070015","project_name":"","survey_name":"\u77f3\u72e9\u5ddd\u4e0a\u6d41\u3000\u65ed\u5ddd\u6cb3\u5ddd\u4e8b\u52d9\u6240\u7ba1\u5185\u5730\u8cea\u8abf\u67fb\u696d\u52d9","client_name":"\u5317\u6d77\u9053\u958b\u767a\u5c40\u3000\u65ed\u5ddd\u958b\u767a\u5efa\u8a2d\u90e8\u3000\u65ed\u5ddd\u6cb3\u5ddd\u4e8b\u52d9\u6240","boring_xml_url":61,"boring_view_url":1,"soilmap_view_url":null,"soiltest_xml_url":0,"soiltest_view_url":0},{"id":498053,"code":"B4KJ202201000-0589","latitude":"43.76335","longitude":"142.340494","source_code":"HK20132522070014","project_name":"","survey_name":"\u77f3\u72e9\u5ddd\u4e0a\u6d41\u3000\u65ed\u5ddd\u6cb3\u5ddd\u4e8b\u52d9\u6240\u7ba1\u5185\u5730\u8cea\u8abf\u67fb\u696d\u52d9","client_name":"\u5317\u6d77\u9053\u958b\u767a\u5c40\u3000\u65ed\u5ddd\u958b\u767a\u5efa\u8a2d\u90e8\u3000\u65ed\u5ddd\u6cb3\u5ddd\u4e8b\u52d9\u6240","boring_xml_url":61,"boring_view_url":1,"soilmap_view_url":null,"soiltest_xml_url":0,"soiltest_view_url":0},{"id":498052,"code":"B4KJ202201000-0588","latitude":"43.763369","longitude":"142.340556","source_code":"HK20132522070013","project_name":"","survey_name":"\u77f3\u72e9\u5ddd\u4e0a\u6d41\u3000\u65ed\u5ddd\u6cb3\u5ddd\u4e8b\u52d9\u6240\u7ba1\u5185\u5730\u8cea\u8abf\u67fb\u696d\u52d9","client_name":"\u5317\u6d77\u9053\u958b\u767a\u5c40\u3000\u65ed\u5ddd\u958b\u767a\u5efa\u8a2d\u90e8\u3000\u65ed\u5ddd\u6cb3\u5ddd\u4e8b\u52d9\u6240","boring_xml_url":61,"boring_view_url":1,"soilmap_view_url":null,"soiltest_xml_url":0,"soiltest_view_url":0},{"id":498051,"code":"B4KJ202201000-0587","latitude":"43.765469","longitude":"142.342281","source_code":"HK20132522070012","project_name":"","survey_name":"\u77f3\u72e9\u5ddd\u4e0a\u6d41\u3000\u65ed\u5ddd\u6cb3\u5ddd\u4e8b\u52d9\u6240\u7ba1\u5185\u5730\u8cea\u8abf\u67fb\u696d\u52d9","client_name":"\u5317\u6d77\u9053\u958b\u767a\u5c40\u3000\u65ed\u5ddd\u958b\u767a\u5efa\u8a2d\u90e8\u3000\u65ed\u5ddd\u6cb3\u5ddd\u4e8b\u52d9\u6240","boring_xml_url":61,"boring_view_url":1,"soilmap_view_url":null,"soiltest_xml_url":0,"soiltest_view_url":0}]}}