{"header":{"xyz":{"source":[],"mosaic":false},"page":1584,"raw":{"soiltest_result":"0","bbox":"57.598333,109.544722,1.933333,163.806111","page":"1584"},"conditions":{"soiltest_result":0,"north":57.598333,"west":109.544722,"south":1.933333,"east":163.806111},"success":true,"message":""},"data":{"meta":{"total":212844,"page":1584,"pages":7095,"count":30},"values":[{"id":497870,"code":"B4KJ202201000-0406","latitude":"43.381269","longitude":"141.780558","source_code":"HK20092214040008","project_name":"\u86f8\u306e\u9996\u6a0b\u9580\u5916\u5730\u8cea\u8abf\u67fb\u696d\u52d9","survey_name":"\u86f8\u306e\u9996\u6a0b\u9580\u5916\u5730\u8cea\u8abf\u67fb\u696d\u52d9","client_name":"\u5317\u6d77\u9053\u958b\u767a\u5c40\u3000\u77f3\u72e9\u5ddd\u958b\u767a\u5efa\u8a2d\u90e8","boring_xml_url":61,"boring_view_url":1,"soilmap_view_url":null,"soiltest_xml_url":0,"soiltest_view_url":0},{"id":497869,"code":"B4KJ202201000-0405","latitude":"43.381617","longitude":"141.780233","source_code":"HK20092214040007","project_name":"\u86f8\u306e\u9996\u6a0b\u9580\u5916\u5730\u8cea\u8abf\u67fb\u696d\u52d9","survey_name":"\u86f8\u306e\u9996\u6a0b\u9580\u5916\u5730\u8cea\u8abf\u67fb\u696d\u52d9","client_name":"\u5317\u6d77\u9053\u958b\u767a\u5c40\u3000\u77f3\u72e9\u5ddd\u958b\u767a\u5efa\u8a2d\u90e8","boring_xml_url":61,"boring_view_url":1,"soilmap_view_url":null,"soiltest_xml_url":0,"soiltest_view_url":0},{"id":497868,"code":"B4KJ202201000-0404","latitude":"43.381856","longitude":"141.780233","source_code":"HK20092214040006","project_name":"\u86f8\u306e\u9996\u6a0b\u9580\u5916\u5730\u8cea\u8abf\u67fb\u696d\u52d9","survey_name":"\u86f8\u306e\u9996\u6a0b\u9580\u5916\u5730\u8cea\u8abf\u67fb\u696d\u52d9","client_name":"\u5317\u6d77\u9053\u958b\u767a\u5c40\u3000\u77f3\u72e9\u5ddd\u958b\u767a\u5efa\u8a2d\u90e8","boring_xml_url":61,"boring_view_url":1,"soilmap_view_url":null,"soiltest_xml_url":0,"soiltest_view_url":0},{"id":497867,"code":"B4KJ202201000-0403","latitude":"43.489611","longitude":"141.871767","source_code":"HK20092214040005","project_name":"\u86f8\u306e\u9996\u6a0b\u9580\u5916\u5730\u8cea\u8abf\u67fb\u696d\u52d9","survey_name":"\u86f8\u306e\u9996\u6a0b\u9580\u5916\u5730\u8cea\u8abf\u67fb\u696d\u52d9","client_name":"\u5317\u6d77\u9053\u958b\u767a\u5c40\u3000\u77f3\u72e9\u5ddd\u958b\u767a\u5efa\u8a2d\u90e8","boring_xml_url":61,"boring_view_url":1,"soilmap_view_url":null,"soiltest_xml_url":0,"soiltest_view_url":0},{"id":497866,"code":"B4KJ202201000-0402","latitude":"43.6024","longitude":"141.887069","source_code":"HK20092214040004","project_name":"\u86f8\u306e\u9996\u6a0b\u9580\u5916\u5730\u8cea\u8abf\u67fb\u696d\u52d9","survey_name":"\u86f8\u306e\u9996\u6a0b\u9580\u5916\u5730\u8cea\u8abf\u67fb\u696d\u52d9","client_name":"\u5317\u6d77\u9053\u958b\u767a\u5c40\u3000\u77f3\u72e9\u5ddd\u958b\u767a\u5efa\u8a2d\u90e8","boring_xml_url":61,"boring_view_url":1,"soilmap_view_url":null,"soiltest_xml_url":0,"soiltest_view_url":0},{"id":497865,"code":"B4KJ202201000-0401","latitude":"43.602272","longitude":"141.887514","source_code":"HK20092214040003","project_name":"\u86f8\u306e\u9996\u6a0b\u9580\u5916\u5730\u8cea\u8abf\u67fb\u696d\u52d9","survey_name":"\u86f8\u306e\u9996\u6a0b\u9580\u5916\u5730\u8cea\u8abf\u67fb\u696d\u52d9","client_name":"\u5317\u6d77\u9053\u958b\u767a\u5c40\u3000\u77f3\u72e9\u5ddd\u958b\u767a\u5efa\u8a2d\u90e8","boring_xml_url":61,"boring_view_url":1,"soilmap_view_url":null,"soiltest_xml_url":0,"soiltest_view_url":0},{"id":497864,"code":"B4KJ202201000-0400","latitude":"43.602153","longitude":"141.888281","source_code":"HK20092214040002","project_name":"\u86f8\u306e\u9996\u6a0b\u9580\u5916\u5730\u8cea\u8abf\u67fb\u696d\u52d9","survey_name":"\u86f8\u306e\u9996\u6a0b\u9580\u5916\u5730\u8cea\u8abf\u67fb\u696d\u52d9","client_name":"\u5317\u6d77\u9053\u958b\u767a\u5c40\u3000\u77f3\u72e9\u5ddd\u958b\u767a\u5efa\u8a2d\u90e8","boring_xml_url":61,"boring_view_url":1,"soilmap_view_url":null,"soiltest_xml_url":0,"soiltest_view_url":0},{"id":497863,"code":"B4KJ202201000-0399","latitude":"43.602056","longitude":"141.888281","source_code":"HK20092214040001","project_name":"\u86f8\u306e\u9996\u6a0b\u9580\u5916\u5730\u8cea\u8abf\u67fb\u696d\u52d9","survey_name":"\u86f8\u306e\u9996\u6a0b\u9580\u5916\u5730\u8cea\u8abf\u67fb\u696d\u52d9","client_name":"\u5317\u6d77\u9053\u958b\u767a\u5c40\u3000\u77f3\u72e9\u5ddd\u958b\u767a\u5efa\u8a2d\u90e8","boring_xml_url":61,"boring_view_url":1,"soilmap_view_url":null,"soiltest_xml_url":0,"soiltest_view_url":0},{"id":497862,"code":"B4KJ202201000-0398","latitude":"42.939614","longitude":"141.653281","source_code":"HK20092200590002","project_name":"\u821e\u9db4\u5c0f\u6a4b\u5b9f\u65bd\u8a2d\u8a08\u5916\u696d\u52d9","survey_name":"\u821e\u9db4\u5c0f\u6a4b\u5b9f\u65bd\u8a2d\u8a08\u5916\u696d\u52d9","client_name":"\u5317\u6d77\u9053\u958b\u767a\u5c40\u77f3\u72e9\u5ddd\u958b\u767a\u5efa\u8a2d\u90e8","boring_xml_url":61,"boring_view_url":1,"soilmap_view_url":null,"soiltest_xml_url":0,"soiltest_view_url":0},{"id":497861,"code":"B4KJ202201000-0397","latitude":"42.939839","longitude":"141.653953","source_code":"HK20092200590001","project_name":"\u821e\u9db4\u5c0f\u6a4b\u5b9f\u65bd\u8a2d\u8a08\u5916\u696d\u52d9","survey_name":"\u821e\u9db4\u5c0f\u6a4b\u5b9f\u65bd\u8a2d\u8a08\u5916\u696d\u52d9","client_name":"\u5317\u6d77\u9053\u958b\u767a\u5c40\u77f3\u72e9\u5ddd\u958b\u767a\u5efa\u8a2d\u90e8","boring_xml_url":61,"boring_view_url":1,"soilmap_view_url":null,"soiltest_xml_url":0,"soiltest_view_url":0},{"id":497860,"code":"B4KJ202201000-0396","latitude":"43.134944","longitude":"141.616","source_code":"HK20092200500003","project_name":"\uff3f","survey_name":"\u5e73\u621021\u5e74\u5ea6\u3000\u8c4a\u5e4c\u7bc9\u5824\u4ed8\u66ff\u5e02\u9053\u5730\u8cea\u8abf\u67fb\u696d\u52d9","client_name":"\u5317\u6d77\u9053\u958b\u767a\u5c40\u77f3\u72e9\u5ddd\u958b\u767a\u5efa\u8a2d\u90e8\u6c5f\u5225\u6cb3\u5ddd\u4e8b\u52d9\u6240","boring_xml_url":61,"boring_view_url":1,"soilmap_view_url":null,"soiltest_xml_url":0,"soiltest_view_url":0},{"id":497859,"code":"B4KJ202201000-0395","latitude":"43.133417","longitude":"141.615306","source_code":"HK20092200500002","project_name":"\uff3f","survey_name":"\u5e73\u621021\u5e74\u5ea6\u3000\u8c4a\u5e4c\u7bc9\u5824\u4ed8\u66ff\u5e02\u9053\u5730\u8cea\u8abf\u67fb\u696d\u52d9","client_name":"\u5317\u6d77\u9053\u958b\u767a\u5c40\u77f3\u72e9\u5ddd\u958b\u767a\u5efa\u8a2d\u90e8\u6c5f\u5225\u6cb3\u5ddd\u4e8b\u52d9\u6240","boring_xml_url":61,"boring_view_url":1,"soilmap_view_url":null,"soiltest_xml_url":0,"soiltest_view_url":0},{"id":497858,"code":"B4KJ202201000-0394","latitude":"43.133361","longitude":"141.614444","source_code":"HK20092200500001","project_name":"\uff3f","survey_name":"\u5e73\u621021\u5e74\u5ea6\u3000\u8c4a\u5e4c\u7bc9\u5824\u4ed8\u66ff\u5e02\u9053\u5730\u8cea\u8abf\u67fb\u696d\u52d9","client_name":"\u5317\u6d77\u9053\u958b\u767a\u5c40\u77f3\u72e9\u5ddd\u958b\u767a\u5efa\u8a2d\u90e8\u6c5f\u5225\u6cb3\u5ddd\u4e8b\u52d9\u6240","boring_xml_url":61,"boring_view_url":1,"soilmap_view_url":null,"soiltest_xml_url":0,"soiltest_view_url":0},{"id":497857,"code":"B4KJ202201000-0393","latitude":"43.36805","longitude":"141.834844","source_code":"HK20092211180018","project_name":"\u7f8e\u5504\u5ddd\u5916\u5730\u8cea\u8abf\u67fb","survey_name":"\u7f8e\u5504\u5ddd\u5916\u5730\u8cea\u8abf\u67fb\u696d\u52d9","client_name":"\u56fd\u571f\u4ea4\u901a\u7701\u3000\u5317\u6d77\u9053\u958b\u767a\u5c40\u3000\u77f3\u72e9\u5ddd\u958b\u767a\u5efa\u8a2d\u90e8\u3000\u5ca9\u898b\u6ca2\u6cb3\u5ddd\u4e8b\u52d9\u6240","boring_xml_url":61,"boring_view_url":1,"soilmap_view_url":null,"soiltest_xml_url":0,"soiltest_view_url":0},{"id":497856,"code":"B4KJ202201000-0392","latitude":"43.369142","longitude":"141.834433","source_code":"HK20092211180017","project_name":"\u7f8e\u5504\u5ddd\u5916\u5730\u8cea\u8abf\u67fb","survey_name":"\u7f8e\u5504\u5ddd\u5916\u5730\u8cea\u8abf\u67fb\u696d\u52d9","client_name":"\u56fd\u571f\u4ea4\u901a\u7701\u3000\u5317\u6d77\u9053\u958b\u767a\u5c40\u3000\u77f3\u72e9\u5ddd\u958b\u767a\u5efa\u8a2d\u90e8\u3000\u5ca9\u898b\u6ca2\u6cb3\u5ddd\u4e8b\u52d9\u6240","boring_xml_url":61,"boring_view_url":1,"soilmap_view_url":null,"soiltest_xml_url":0,"soiltest_view_url":0},{"id":497855,"code":"B4KJ202201000-0391","latitude":"43.370267","longitude":"141.833281","source_code":"HK20092211180016","project_name":"\u7f8e\u5504\u5ddd\u5916\u5730\u8cea\u8abf\u67fb","survey_name":"\u7f8e\u5504\u5ddd\u5916\u5730\u8cea\u8abf\u67fb\u696d\u52d9","client_name":"\u56fd\u571f\u4ea4\u901a\u7701\u3000\u5317\u6d77\u9053\u958b\u767a\u5c40\u3000\u77f3\u72e9\u5ddd\u958b\u767a\u5efa\u8a2d\u90e8\u3000\u5ca9\u898b\u6ca2\u6cb3\u5ddd\u4e8b\u52d9\u6240","boring_xml_url":61,"boring_view_url":1,"soilmap_view_url":null,"soiltest_xml_url":0,"soiltest_view_url":0},{"id":497854,"code":"B4KJ202201000-0390","latitude":"43.369828","longitude":"141.834306","source_code":"HK20092211180015","project_name":"\u7f8e\u5504\u5ddd\u5916\u5730\u8cea\u8abf\u67fb","survey_name":"\u7f8e\u5504\u5ddd\u5916\u5730\u8cea\u8abf\u67fb\u696d\u52d9","client_name":"\u56fd\u571f\u4ea4\u901a\u7701\u3000\u5317\u6d77\u9053\u958b\u767a\u5c40\u3000\u77f3\u72e9\u5ddd\u958b\u767a\u5efa\u8a2d\u90e8\u3000\u5ca9\u898b\u6ca2\u6cb3\u5ddd\u4e8b\u52d9\u6240","boring_xml_url":61,"boring_view_url":1,"soilmap_view_url":null,"soiltest_xml_url":0,"soiltest_view_url":0},{"id":497853,"code":"B4KJ202201000-0389","latitude":"43.370497","longitude":"141.832897","source_code":"HK20092211180014","project_name":"\u7f8e\u5504\u5ddd\u5916\u5730\u8cea\u8abf\u67fb","survey_name":"\u7f8e\u5504\u5ddd\u5916\u5730\u8cea\u8abf\u67fb\u696d\u52d9","client_name":"\u56fd\u571f\u4ea4\u901a\u7701\u3000\u5317\u6d77\u9053\u958b\u767a\u5c40\u3000\u77f3\u72e9\u5ddd\u958b\u767a\u5efa\u8a2d\u90e8\u3000\u5ca9\u898b\u6ca2\u6cb3\u5ddd\u4e8b\u52d9\u6240","boring_xml_url":61,"boring_view_url":1,"soilmap_view_url":null,"soiltest_xml_url":0,"soiltest_view_url":0},{"id":497852,"code":"B4KJ202201000-0388","latitude":"43.370761","longitude":"141.833158","source_code":"HK20092211180013","project_name":"\u7f8e\u5504\u5ddd\u5916\u5730\u8cea\u8abf\u67fb","survey_name":"\u7f8e\u5504\u5ddd\u5916\u5730\u8cea\u8abf\u67fb\u696d\u52d9","client_name":"\u56fd\u571f\u4ea4\u901a\u7701\u3000\u5317\u6d77\u9053\u958b\u767a\u5c40\u3000\u77f3\u72e9\u5ddd\u958b\u767a\u5efa\u8a2d\u90e8\u3000\u5ca9\u898b\u6ca2\u6cb3\u5ddd\u4e8b\u52d9\u6240","boring_xml_url":61,"boring_view_url":1,"soilmap_view_url":null,"soiltest_xml_url":0,"soiltest_view_url":0},{"id":497851,"code":"B4KJ202201000-0387","latitude":"43.367144","longitude":"141.856194","source_code":"HK20092211180012","project_name":"\u7f8e\u5504\u5ddd\u5916\u5730\u8cea\u8abf\u67fb","survey_name":"\u7f8e\u5504\u5ddd\u5916\u5730\u8cea\u8abf\u67fb\u696d\u52d9","client_name":"\u56fd\u571f\u4ea4\u901a\u7701\u3000\u5317\u6d77\u9053\u958b\u767a\u5c40\u3000\u77f3\u72e9\u5ddd\u958b\u767a\u5efa\u8a2d\u90e8\u3000\u5ca9\u898b\u6ca2\u6cb3\u5ddd\u4e8b\u52d9\u6240","boring_xml_url":61,"boring_view_url":1,"soilmap_view_url":null,"soiltest_xml_url":0,"soiltest_view_url":0},{"id":497850,"code":"B4KJ202201000-0386","latitude":"43.367258","longitude":"141.856236","source_code":"HK20092211180011","project_name":"\u7f8e\u5504\u5ddd\u5916\u5730\u8cea\u8abf\u67fb","survey_name":"\u7f8e\u5504\u5ddd\u5916\u5730\u8cea\u8abf\u67fb\u696d\u52d9","client_name":"\u56fd\u571f\u4ea4\u901a\u7701\u3000\u5317\u6d77\u9053\u958b\u767a\u5c40\u3000\u77f3\u72e9\u5ddd\u958b\u767a\u5efa\u8a2d\u90e8\u3000\u5ca9\u898b\u6ca2\u6cb3\u5ddd\u4e8b\u52d9\u6240","boring_xml_url":61,"boring_view_url":1,"soilmap_view_url":null,"soiltest_xml_url":0,"soiltest_view_url":0},{"id":497849,"code":"B4KJ202201000-0385","latitude":"43.367639","longitude":"141.853814","source_code":"HK20092211180010","project_name":"\u7f8e\u5504\u5ddd\u5916\u5730\u8cea\u8abf\u67fb","survey_name":"\u7f8e\u5504\u5ddd\u5916\u5730\u8cea\u8abf\u67fb\u696d\u52d9","client_name":"\u56fd\u571f\u4ea4\u901a\u7701\u3000\u5317\u6d77\u9053\u958b\u767a\u5c40\u3000\u77f3\u72e9\u5ddd\u958b\u767a\u5efa\u8a2d\u90e8\u3000\u5ca9\u898b\u6ca2\u6cb3\u5ddd\u4e8b\u52d9\u6240","boring_xml_url":61,"boring_view_url":1,"soilmap_view_url":null,"soiltest_xml_url":0,"soiltest_view_url":0},{"id":497848,"code":"B4KJ202201000-0384","latitude":"43.368625","longitude":"141.846478","source_code":"HK20092211180009","project_name":"\u7f8e\u5504\u5ddd\u5916\u5730\u8cea\u8abf\u67fb","survey_name":"\u7f8e\u5504\u5ddd\u5916\u5730\u8cea\u8abf\u67fb\u696d\u52d9","client_name":"\u56fd\u571f\u4ea4\u901a\u7701\u3000\u5317\u6d77\u9053\u958b\u767a\u5c40\u3000\u77f3\u72e9\u5ddd\u958b\u767a\u5efa\u8a2d\u90e8\u3000\u5ca9\u898b\u6ca2\u6cb3\u5ddd\u4e8b\u52d9\u6240","boring_xml_url":61,"boring_view_url":1,"soilmap_view_url":null,"soiltest_xml_url":0,"soiltest_view_url":0},{"id":497847,"code":"B4KJ202201000-0383","latitude":"43.369372","longitude":"141.841636","source_code":"HK20092211180008","project_name":"\u7f8e\u5504\u5ddd\u5916\u5730\u8cea\u8abf\u67fb","survey_name":"\u7f8e\u5504\u5ddd\u5916\u5730\u8cea\u8abf\u67fb\u696d\u52d9","client_name":"\u56fd\u571f\u4ea4\u901a\u7701\u3000\u5317\u6d77\u9053\u958b\u767a\u5c40\u3000\u77f3\u72e9\u5ddd\u958b\u767a\u5efa\u8a2d\u90e8\u3000\u5ca9\u898b\u6ca2\u6cb3\u5ddd\u4e8b\u52d9\u6240","boring_xml_url":61,"boring_view_url":1,"soilmap_view_url":null,"soiltest_xml_url":0,"soiltest_view_url":0},{"id":497846,"code":"B4KJ202201000-0382","latitude":"43.369511","longitude":"141.841678","source_code":"HK20092211180007","project_name":"\u7f8e\u5504\u5ddd\u5916\u5730\u8cea\u8abf","survey_name":"\u7f8e\u5504\u5ddd\u5916\u5730\u8cea\u8abf\u67fb\u696d\u52d9","client_name":"\u56fd\u571f\u4ea4\u901a\u7701\u3000\u5317\u6d77\u9053\u958b\u767a\u5c40\u3000\u77f3\u72e9\u5ddd\u958b\u767a\u5efa\u8a2d\u90e8\u3000\u5ca9\u898b\u6ca2\u6cb3\u5ddd\u4e8b\u52d9\u6240","boring_xml_url":61,"boring_view_url":1,"soilmap_view_url":null,"soiltest_xml_url":0,"soiltest_view_url":0},{"id":497845,"code":"B4KJ202201000-0381","latitude":"43.338092","longitude":"141.822011","source_code":"HK20092211180006","project_name":"\u7f8e\u5504\u5ddd\u5916\u5730\u8cea\u8abf\u67fb","survey_name":"\u7f8e\u5504\u5ddd\u5916\u5730\u8cea\u8abf\u67fb\u696d\u52d9","client_name":"\u56fd\u571f\u4ea4\u901a\u7701\u3000\u5317\u6d77\u9053\u958b\u767a\u5c40\u3000\u77f3\u72e9\u5ddd\u958b\u767a\u5efa\u8a2d\u90e8\u3000\u5ca9\u898b\u6ca2\u6cb3\u5ddd\u4e8b\u52d9\u6240","boring_xml_url":61,"boring_view_url":1,"soilmap_view_url":null,"soiltest_xml_url":0,"soiltest_view_url":0},{"id":497844,"code":"B4KJ202201000-0380","latitude":"43.339881","longitude":"141.821625","source_code":"HK20092211180005","project_name":"\u7f8e\u5504\u5ddd\u5916\u5730\u8cea\u8abf\u67fb","survey_name":"\u7f8e\u5504\u5ddd\u5916\u5730\u8cea\u8abf\u67fb\u696d\u52d9","client_name":"\u56fd\u571f\u4ea4\u901a\u7701\u3000\u5317\u6d77\u9053\u958b\u767a\u5c40\u3000\u77f3\u72e9\u5ddd\u958b\u767a\u5efa\u8a2d\u90e8\u3000\u5ca9\u898b\u6ca2\u6cb3\u5ddd\u4e8b\u52d9\u6240","boring_xml_url":61,"boring_view_url":1,"soilmap_view_url":null,"soiltest_xml_url":0,"soiltest_view_url":0},{"id":497843,"code":"B4KJ202201000-0379","latitude":"43.342847","longitude":"141.818878","source_code":"HK20092211180004","project_name":"\u7f8e\u5504\u5ddd\u5916\u5730\u8cea\u8abf\u67fb","survey_name":"\u7f8e\u5504\u5ddd\u5916\u5730\u8cea\u8abf\u67fb\u696d\u52d9","client_name":"\u56fd\u571f\u4ea4\u901a\u7701\u3000\u5317\u6d77\u9053\u958b\u767a\u5c40\u3000\u77f3\u72e9\u5ddd\u958b\u767a\u5efa\u8a2d\u90e8\u3000\u5ca9\u898b\u6ca2\u6cb3\u5ddd\u4e8b\u52d9\u6240","boring_xml_url":61,"boring_view_url":1,"soilmap_view_url":null,"soiltest_xml_url":0,"soiltest_view_url":0},{"id":497842,"code":"B4KJ202201000-0378","latitude":"43.345114","longitude":"141.816111","source_code":"HK20092211180003","project_name":"\u7f8e\u5504\u5ddd\u5916\u5730\u8cea\u8abf\u67fb","survey_name":"\u7f8e\u5504\u5ddd\u5916\u5730\u8cea\u8abf\u67fb\u696d\u52d9","client_name":"\u56fd\u571f\u4ea4\u901a\u7701\u3000\u5317\u6d77\u9053\u958b\u767a\u5c40\u3000\u77f3\u72e9\u5ddd\u958b\u767a\u5efa\u8a2d\u90e8\u3000\u5ca9\u898b\u6ca2\u6cb3\u5ddd\u4e8b\u52d9\u6240","boring_xml_url":61,"boring_view_url":1,"soilmap_view_url":null,"soiltest_xml_url":0,"soiltest_view_url":0},{"id":497841,"code":"B4KJ202201000-0377","latitude":"43.347219","longitude":"141.811347","source_code":"HK20092211180002","project_name":"\u7f8e\u5504\u5ddd\u5916\u5730\u8cea\u8abf\u67fb","survey_name":"\u7f8e\u5504\u5ddd\u5916\u5730\u8cea\u8abf\u67fb\u696d\u52d9","client_name":"\u56fd\u571f\u4ea4\u901a\u7701\u3000\u5317\u6d77\u9053\u958b\u767a\u5c40\u3000\u77f3\u72e9\u5ddd\u958b\u767a\u5efa\u8a2d\u90e8\u3000\u5ca9\u898b\u6ca2\u6cb3\u5ddd\u4e8b\u52d9\u6240","boring_xml_url":61,"boring_view_url":1,"soilmap_view_url":null,"soiltest_xml_url":0,"soiltest_view_url":0}]}}