{"header":{"xyz":{"source":[],"mosaic":false},"page":1585,"raw":{"soiltest_result":"0","bbox":"57.598333,109.544722,1.933333,163.806111","page":"1585"},"conditions":{"soiltest_result":0,"north":57.598333,"west":109.544722,"south":1.933333,"east":163.806111},"success":true,"message":""},"data":{"meta":{"total":212844,"page":1585,"pages":7095,"count":30},"values":[{"id":497840,"code":"B4KJ202201000-0376","latitude":"43.348717","longitude":"141.806867","source_code":"HK20092211180001","project_name":"\u7f8e\u5504\u5ddd\u5916\u5730\u8cea\u8abf\u67fb","survey_name":"\u7f8e\u5504\u5ddd\u5916\u5730\u8cea\u8abf\u67fb\u696d\u52d9","client_name":"\u56fd\u571f\u4ea4\u901a\u7701\u3000\u5317\u6d77\u9053\u958b\u767a\u5c40\u3000\u77f3\u72e9\u5ddd\u958b\u767a\u5efa\u8a2d\u90e8\u3000\u5ca9\u898b\u6ca2\u6cb3\u5ddd\u4e8b\u52d9\u6240","boring_xml_url":61,"boring_view_url":1,"soilmap_view_url":null,"soiltest_xml_url":0,"soiltest_view_url":0},{"id":497839,"code":"B4KJ202201000-0375","latitude":"43.374444","longitude":"141.824944","source_code":"HK20092211140003","project_name":"\u77f3\u72e9\u5ddd\u6539\u4fee\u5de5\u4e8b","survey_name":"\u7523\u5316\u7f8e\u5504\u5ddd\u5916\u5824\u9632\u5f37\u5316\u5bfe\u7b56\u691c\u8a0e\u696d\u52d9","client_name":"\u77f3\u72e9\u958b\u767a\u5efa\u8a2d\u90e8\u5ca9\u898b\u6ca2\u6cb3\u5ddd\u4e8b\u52d9\u6240","boring_xml_url":61,"boring_view_url":1,"soilmap_view_url":null,"soiltest_xml_url":0,"soiltest_view_url":0},{"id":497838,"code":"B4KJ202201000-0374","latitude":"43.374361","longitude":"141.824917","source_code":"HK20092211140002","project_name":"\u77f3\u72e9\u5ddd\u6539\u4fee\u5de5\u4e8b","survey_name":"\u7523\u5316\u7f8e\u5504\u5ddd\u5916\u5824\u9632\u5f37\u5316\u5bfe\u7b56\u691c\u8a0e\u696d\u52d9","client_name":"\u77f3\u72e9\u958b\u767a\u5efa\u8a2d\u90e8\u5ca9\u898b\u6ca2\u6cb3\u5ddd\u4e8b\u52d9\u6240","boring_xml_url":61,"boring_view_url":1,"soilmap_view_url":null,"soiltest_xml_url":0,"soiltest_view_url":0},{"id":497837,"code":"B4KJ202201000-0373","latitude":"43.374306","longitude":"141.824889","source_code":"HK20092211140001","project_name":"\u77f3\u72e9\u5ddd\u6539\u4fee\u5de5\u4e8b","survey_name":"\u7523\u5316\u7f8e\u5504\u5ddd\u5916\u5824\u9632\u5f37\u5316\u5bfe\u7b56\u691c\u8a0e\u696d\u52d9","client_name":"\u77f3\u72e9\u958b\u767a\u5efa\u8a2d\u90e8\u5ca9\u898b\u6ca2\u6cb3\u5ddd\u4e8b\u52d9\u6240","boring_xml_url":61,"boring_view_url":1,"soilmap_view_url":null,"soiltest_xml_url":0,"soiltest_view_url":0},{"id":497836,"code":"B4KJ202201000-0372","latitude":"43.2875","longitude":"141.72425","source_code":"HK20092211080005","project_name":"","survey_name":"\u5e7e\u6625\u5225\u5ddd\u4e0a\u6d41\u8b77\u5cb8\u8a2d\u8a08\u5916\u696d\u52d9","client_name":"\"\u5317\u6d77\u9053\u958b\u767a\u5c40 \u77f3\u72e9\u5ddd\u958b\u767a\u5efa\u8a2d\u90e8 \u5ca9\u898b\u6ca2\u6cb3\u5ddd\u4e8b\u52d9\u6240\"","boring_xml_url":61,"boring_view_url":1,"soilmap_view_url":null,"soiltest_xml_url":0,"soiltest_view_url":0},{"id":497835,"code":"B4KJ202201000-0371","latitude":"43.287472","longitude":"141.724833","source_code":"HK20092211080004","project_name":"","survey_name":"\u5e7e\u6625\u5225\u5ddd\u4e0a\u6d41\u8b77\u5cb8\u8a2d\u8a08\u5916\u696d\u52d9","client_name":"\"\u5317\u6d77\u9053\u958b\u767a\u5c40 \u77f3\u72e9\u5ddd\u958b\u767a\u5efa\u8a2d\u90e8 \u5ca9\u898b\u6ca2\u6cb3\u5ddd\u4e8b\u52d9\u6240\"","boring_xml_url":61,"boring_view_url":1,"soilmap_view_url":null,"soiltest_xml_url":0,"soiltest_view_url":0},{"id":497834,"code":"B4KJ202201000-0370","latitude":"43.256194","longitude":"141.935083","source_code":"HK20092211080003","project_name":"","survey_name":"\u5e7e\u6625\u5225\u5ddd\u4e0a\u6d41\u8b77\u5cb8\u8a2d\u8a08\u5916\u696d\u52d9","client_name":"\"\u5317\u6d77\u9053\u958b\u767a\u5c40 \u77f3\u72e9\u5ddd\u958b\u767a\u5efa\u8a2d\u90e8 \u5ca9\u898b\u6ca2\u6cb3\u5ddd\u4e8b\u52d9\u6240\"","boring_xml_url":61,"boring_view_url":1,"soilmap_view_url":null,"soiltest_xml_url":0,"soiltest_view_url":0},{"id":497833,"code":"B4KJ202201000-0369","latitude":"43.256222","longitude":"141.935139","source_code":"HK20092211080002","project_name":"","survey_name":"\u5e7e\u6625\u5225\u5ddd\u4e0a\u6d41\u8b77\u5cb8\u8a2d\u8a08\u5916\u696d\u52d9","client_name":"\"\u5317\u6d77\u9053\u958b\u767a\u5c40 \u77f3\u72e9\u5ddd\u958b\u767a\u5efa\u8a2d\u90e8 \u5ca9\u898b\u6ca2\u6cb3\u5ddd\u4e8b\u52d9\u6240\"","boring_xml_url":61,"boring_view_url":1,"soilmap_view_url":null,"soiltest_xml_url":0,"soiltest_view_url":0},{"id":497832,"code":"B4KJ202201000-0368","latitude":"43.241583","longitude":"141.875611","source_code":"HK20092211080001","project_name":"","survey_name":"\u5e7e\u6625\u5225\u5ddd\u4e0a\u6d41\u8b77\u5cb8\u8a2d\u8a08\u5916\u696d\u52d9","client_name":"\"\u5317\u6d77\u9053\u958b\u767a\u5c40 \u77f3\u72e9\u5ddd\u958b\u767a\u5efa\u8a2d\u90e8 \u5ca9\u898b\u6ca2\u6cb3\u5ddd\u4e8b\u52d9\u6240\"","boring_xml_url":61,"boring_view_url":1,"soilmap_view_url":null,"soiltest_xml_url":0,"soiltest_view_url":0},{"id":497831,"code":"B4KJ202201000-0367","latitude":"43.294289","longitude":"141.74853","source_code":"HK20092200690018","project_name":"","survey_name":"\u5e73\u621021\u5e74\u5ea6\u65bd\u884c\u3000\u7b2c\u4e00\u5e79\u5ddd\u5916\u5730\u8cea\u8abf\u67fb\u696d\u52d9","client_name":"\u56fd\u571f\u4ea4\u901a\u7701\u5317\u6d77\u9053\u958b\u767a\u5c40\u77f3\u72e9\u5ddd\u958b\u767a\u5efa\u8a2d\u90e8","boring_xml_url":61,"boring_view_url":1,"soilmap_view_url":null,"soiltest_xml_url":0,"soiltest_view_url":0},{"id":497830,"code":"B4KJ202201000-0366","latitude":"43.293461","longitude":"141.748555","source_code":"HK20092200690017","project_name":"","survey_name":"\u5e73\u621021\u5e74\u5ea6\u65bd\u884c\u3000\u7b2c\u4e00\u5e79\u5ddd\u5916\u5730\u8cea\u8abf\u67fb\u696d\u52d9","client_name":"\u56fd\u571f\u4ea4\u901a\u7701\u5317\u6d77\u9053\u958b\u767a\u5c40\u77f3\u72e9\u5ddd\u958b\u767a\u5efa\u8a2d\u90e8","boring_xml_url":61,"boring_view_url":1,"soilmap_view_url":null,"soiltest_xml_url":0,"soiltest_view_url":0},{"id":497829,"code":"B4KJ202201000-0365","latitude":"43.294512","longitude":"141.736404","source_code":"HK20092200690016","project_name":"","survey_name":"\u5e73\u621021\u5e74\u5ea6\u65bd\u884c\u3000\u7b2c\u4e00\u5e79\u5ddd\u5916\u5730\u8cea\u8abf\u67fb\u696d\u52d9","client_name":"\u56fd\u571f\u4ea4\u901a\u7701\u5317\u6d77\u9053\u958b\u767a\u5c40\u77f3\u72e9\u5ddd\u958b\u767a\u5efa\u8a2d\u90e8","boring_xml_url":61,"boring_view_url":1,"soilmap_view_url":null,"soiltest_xml_url":0,"soiltest_view_url":0},{"id":497828,"code":"B4KJ202201000-0364","latitude":"43.295174","longitude":"141.736139","source_code":"HK20092200690015","project_name":"","survey_name":"\u5e73\u621021\u5e74\u5ea6\u65bd\u884c\u3000\u7b2c\u4e00\u5e79\u5ddd\u5916\u5730\u8cea\u8abf\u67fb\u696d\u52d9","client_name":"\u56fd\u571f\u4ea4\u901a\u7701\u5317\u6d77\u9053\u958b\u767a\u5c40\u77f3\u72e9\u5ddd\u958b\u767a\u5efa\u8a2d\u90e8","boring_xml_url":61,"boring_view_url":1,"soilmap_view_url":null,"soiltest_xml_url":0,"soiltest_view_url":0},{"id":497827,"code":"B4KJ202201000-0363","latitude":"43.300327","longitude":"141.82765","source_code":"HK20092200690014","project_name":"","survey_name":"\u5e73\u621021\u5e74\u5ea6\u65bd\u884c\u3000\u7b2c\u4e00\u5e79\u5ddd\u5916\u5730\u8cea\u8abf\u67fb\u696d\u52d9","client_name":"\u56fd\u571f\u4ea4\u901a\u7701\u5317\u6d77\u9053\u958b\u767a\u5c40\u77f3\u72e9\u5ddd\u958b\u767a\u5efa\u8a2d\u90e8","boring_xml_url":61,"boring_view_url":1,"soilmap_view_url":null,"soiltest_xml_url":0,"soiltest_view_url":0},{"id":497826,"code":"B4KJ202201000-0362","latitude":"43.302783","longitude":"141.821311","source_code":"HK20092200690013","project_name":"","survey_name":"\u5e73\u621021\u5e74\u5ea6\u65bd\u884c\u3000\u7b2c\u4e00\u5e79\u5ddd\u5916\u5730\u8cea\u8abf\u67fb\u696d\u52d9","client_name":"\u56fd\u571f\u4ea4\u901a\u7701\u5317\u6d77\u9053\u958b\u767a\u5c40\u77f3\u72e9\u5ddd\u958b\u767a\u5efa\u8a2d\u90e8","boring_xml_url":61,"boring_view_url":1,"soilmap_view_url":null,"soiltest_xml_url":0,"soiltest_view_url":0},{"id":497825,"code":"B4KJ202201000-0361","latitude":"43.308679","longitude":"141.809045","source_code":"HK20092200690012","project_name":"","survey_name":"\u5e73\u621021\u5e74\u5ea6\u65bd\u884c\u3000\u7b2c\u4e00\u5e79\u5ddd\u5916\u5730\u8cea\u8abf\u67fb\u696d\u52d9","client_name":"\u56fd\u571f\u4ea4\u901a\u7701\u5317\u6d77\u9053\u958b\u767a\u5c40\u77f3\u72e9\u5ddd\u958b\u767a\u5efa\u8a2d\u90e8","boring_xml_url":61,"boring_view_url":1,"soilmap_view_url":null,"soiltest_xml_url":0,"soiltest_view_url":0},{"id":497824,"code":"B4KJ202201000-0360","latitude":"43.311411","longitude":"141.794677","source_code":"HK20092200690011","project_name":"","survey_name":"\u5e73\u621021\u5e74\u5ea6\u65bd\u884c\u3000\u7b2c\u4e00\u5e79\u5ddd\u5916\u5730\u8cea\u8abf\u67fb\u696d\u52d9","client_name":"\u56fd\u571f\u4ea4\u901a\u7701\u5317\u6d77\u9053\u958b\u767a\u5c40\u77f3\u72e9\u5ddd\u958b\u767a\u5efa\u8a2d\u90e8","boring_xml_url":61,"boring_view_url":1,"soilmap_view_url":null,"soiltest_xml_url":0,"soiltest_view_url":0},{"id":497823,"code":"B4KJ202201000-0359","latitude":"43.295292","longitude":"141.754402","source_code":"HK20092200690010","project_name":"","survey_name":"\u5e73\u621021\u5e74\u5ea6\u65bd\u884c\u3000\u7b2c\u4e00\u5e79\u5ddd\u5916\u5730\u8cea\u8abf\u67fb\u696d\u52d9","client_name":"\u56fd\u571f\u4ea4\u901a\u7701\u5317\u6d77\u9053\u958b\u767a\u5c40\u77f3\u72e9\u5ddd\u958b\u767a\u5efa\u8a2d\u90e8","boring_xml_url":61,"boring_view_url":1,"soilmap_view_url":null,"soiltest_xml_url":0,"soiltest_view_url":0},{"id":497822,"code":"B4KJ202201000-0358","latitude":"43.293899","longitude":"141.745984","source_code":"HK20092200690009","project_name":"","survey_name":"\u5e73\u621021\u5e74\u5ea6\u65bd\u884c\u3000\u7b2c\u4e00\u5e79\u5ddd\u5916\u5730\u8cea\u8abf\u67fb\u696d\u52d9","client_name":"\u56fd\u571f\u4ea4\u901a\u7701\u5317\u6d77\u9053\u958b\u767a\u5c40\u77f3\u72e9\u5ddd\u958b\u767a\u5efa\u8a2d\u90e8","boring_xml_url":61,"boring_view_url":1,"soilmap_view_url":null,"soiltest_xml_url":0,"soiltest_view_url":0},{"id":497821,"code":"B4KJ202201000-0357","latitude":"43.293198","longitude":"141.742265","source_code":"HK20092200690008","project_name":"","survey_name":"\u5e73\u621021\u5e74\u5ea6\u65bd\u884c\u3000\u7b2c\u4e00\u5e79\u5ddd\u5916\u5730\u8cea\u8abf\u67fb\u696d\u52d9","client_name":"\u56fd\u571f\u4ea4\u901a\u7701\u5317\u6d77\u9053\u958b\u767a\u5c40\u77f3\u72e9\u5ddd\u958b\u767a\u5efa\u8a2d\u90e8","boring_xml_url":61,"boring_view_url":1,"soilmap_view_url":null,"soiltest_xml_url":0,"soiltest_view_url":0},{"id":497820,"code":"B4KJ202201000-0356","latitude":"43.292716","longitude":"141.737857","source_code":"HK20092200690007","project_name":"","survey_name":"\u5e73\u621021\u5e74\u5ea6\u65bd\u884c\u3000\u7b2c\u4e00\u5e79\u5ddd\u5916\u5730\u8cea\u8abf\u67fb\u696d\u52d9","client_name":"\u56fd\u571f\u4ea4\u901a\u7701\u5317\u6d77\u9053\u958b\u767a\u5c40\u77f3\u72e9\u5ddd\u958b\u767a\u5efa\u8a2d\u90e8","boring_xml_url":61,"boring_view_url":1,"soilmap_view_url":null,"soiltest_xml_url":0,"soiltest_view_url":0},{"id":497819,"code":"B4KJ202201000-0355","latitude":"43.294437","longitude":"141.754622","source_code":"HK20092200690006","project_name":"","survey_name":"\u5e73\u621021\u5e74\u5ea6\u65bd\u884c\u3000\u7b2c\u4e00\u5e79\u5ddd\u5916\u5730\u8cea\u8abf\u67fb\u696d\u52d9","client_name":"\u56fd\u571f\u4ea4\u901a\u7701\u5317\u6d77\u9053\u958b\u767a\u5c40\u77f3\u72e9\u5ddd\u958b\u767a\u5efa\u8a2d\u90e8","boring_xml_url":61,"boring_view_url":1,"soilmap_view_url":null,"soiltest_xml_url":0,"soiltest_view_url":0},{"id":497818,"code":"B4KJ202201000-0354","latitude":"43.293065","longitude":"141.74631","source_code":"HK20092200690005","project_name":"","survey_name":"\u5e73\u621021\u5e74\u5ea6\u65bd\u884c\u3000\u7b2c\u4e00\u5e79\u5ddd\u5916\u5730\u8cea\u8abf\u67fb\u696d\u52d9","client_name":"\u56fd\u571f\u4ea4\u901a\u7701\u5317\u6d77\u9053\u958b\u767a\u5c40\u77f3\u72e9\u5ddd\u958b\u767a\u5efa\u8a2d\u90e8","boring_xml_url":61,"boring_view_url":1,"soilmap_view_url":null,"soiltest_xml_url":0,"soiltest_view_url":0},{"id":497817,"code":"B4KJ202201000-0353","latitude":"43.292792","longitude":"141.739798","source_code":"HK20092200690004","project_name":"","survey_name":"\u5e73\u621021\u5e74\u5ea6\u65bd\u884c\u3000\u7b2c\u4e00\u5e79\u5ddd\u5916\u5730\u8cea\u8abf\u67fb\u696d\u52d9","client_name":"\u56fd\u571f\u4ea4\u901a\u7701\u5317\u6d77\u9053\u958b\u767a\u5c40\u77f3\u72e9\u5ddd\u958b\u767a\u5efa\u8a2d\u90e8","boring_xml_url":61,"boring_view_url":1,"soilmap_view_url":null,"soiltest_xml_url":0,"soiltest_view_url":0},{"id":497816,"code":"B4KJ202201000-0352","latitude":"43.293527","longitude":"141.749247","source_code":"HK20092200690003","project_name":"","survey_name":"\u5e73\u621021\u5e74\u5ea6\u65bd\u884c\u3000\u7b2c\u4e00\u5e79\u5ddd\u5916\u5730\u8cea\u8abf\u67fb\u696d\u52d9","client_name":"\u56fd\u571f\u4ea4\u901a\u7701\u5317\u6d77\u9053\u958b\u767a\u5c40\u77f3\u72e9\u5ddd\u958b\u767a\u5efa\u8a2d\u90e8","boring_xml_url":61,"boring_view_url":1,"soilmap_view_url":null,"soiltest_xml_url":0,"soiltest_view_url":0},{"id":497815,"code":"B4KJ202201000-0351","latitude":"43.292196","longitude":"141.740781","source_code":"HK20092200690002","project_name":"","survey_name":"\u5e73\u621021\u5e74\u5ea6\u65bd\u884c\u3000\u7b2c\u4e00\u5e79\u5ddd\u5916\u5730\u8cea\u8abf\u67fb\u696d\u52d9","client_name":"\u56fd\u571f\u4ea4\u901a\u7701\u5317\u6d77\u9053\u958b\u767a\u5c40\u77f3\u72e9\u5ddd\u958b\u767a\u5efa\u8a2d\u90e8","boring_xml_url":61,"boring_view_url":1,"soilmap_view_url":null,"soiltest_xml_url":0,"soiltest_view_url":0},{"id":497814,"code":"B4KJ202201000-0350","latitude":"43.292023","longitude":"141.736825","source_code":"HK20092200690001","project_name":"","survey_name":"\u5e73\u621021\u5e74\u5ea6\u65bd\u884c\u3000\u7b2c\u4e00\u5e79\u5ddd\u5916\u5730\u8cea\u8abf\u67fb\u696d\u52d9","client_name":"\u56fd\u571f\u4ea4\u901a\u7701\u5317\u6d77\u9053\u958b\u767a\u5c40\u77f3\u72e9\u5ddd\u958b\u767a\u5efa\u8a2d\u90e8","boring_xml_url":61,"boring_view_url":1,"soilmap_view_url":null,"soiltest_xml_url":0,"soiltest_view_url":0},{"id":497813,"code":"B4KJ202201000-0349","latitude":"43.242219","longitude":"141.360344","source_code":"HK20092210150029","project_name":"\u5317\u751f\u632f10\u53f7\u6a0b\u9580","survey_name":"\u672d\u5e4c\u6cb3\u5ddd\u4e8b\u52d9\u6240\u7ba1\u5185\u5730\u8cea\u8abf\u67fb\u696d\u52d9","client_name":"\"\u77f3\u72e9\u5ddd\u958b\u767a\u5efa\u8a2d\u90e8 \u672d\u5e4c\u6cb3\u5ddd\u4e8b\u52d9\u6240\"","boring_xml_url":61,"boring_view_url":1,"soilmap_view_url":null,"soiltest_xml_url":0,"soiltest_view_url":0},{"id":497812,"code":"B4KJ202201000-0348","latitude":"43.242186","longitude":"141.360383","source_code":"HK20092210150028","project_name":"\u5317\u751f\u632f10\u53f7\u6a0b\u9580","survey_name":"\u672d\u5e4c\u6cb3\u5ddd\u4e8b\u52d9\u6240\u7ba1\u5185\u5730\u8cea\u8abf\u67fb\u696d\u52d9","client_name":"\"\u77f3\u72e9\u5ddd\u958b\u767a\u5efa\u8a2d\u90e8 \u672d\u5e4c\u6cb3\u5ddd\u4e8b\u52d9\u6240\"","boring_xml_url":61,"boring_view_url":1,"soilmap_view_url":null,"soiltest_xml_url":0,"soiltest_view_url":0},{"id":497811,"code":"B4KJ202201000-0347","latitude":"43.237408","longitude":"141.3605","source_code":"HK20092210150027","project_name":"\u5317\u751f\u632f9\u53f7\u6a0b\u9580","survey_name":"\u672d\u5e4c\u6cb3\u5ddd\u4e8b\u52d9\u6240\u7ba1\u5185\u5730\u8cea\u8abf\u67fb\u696d\u52d9","client_name":"\"\u77f3\u72e9\u5ddd\u958b\u767a\u5efa\u8a2d\u90e8 \u672d\u5e4c\u6cb3\u5ddd\u4e8b\u52d9\u6240\"","boring_xml_url":61,"boring_view_url":1,"soilmap_view_url":null,"soiltest_xml_url":0,"soiltest_view_url":0}]}}