{"header":{"xyz":{"source":[],"mosaic":false},"page":1591,"raw":{"soiltest_result":"0","bbox":"57.598333,109.544722,1.933333,163.806111","page":"1591"},"conditions":{"soiltest_result":0,"north":57.598333,"west":109.544722,"south":1.933333,"east":163.806111},"success":true,"message":""},"data":{"meta":{"total":212844,"page":1591,"pages":7095,"count":30},"values":[{"id":497660,"code":"B4KJ202201000-0196","latitude":"44.4815","longitude":"142.365778","source_code":"HK20092522890002","project_name":"","survey_name":"\"\u4e00\u822c\u56fd\u905340\u53f7 \u4e2d\u5ddd\u753a \u7434\u5e73\u5730\u533a\u5730\u8cea\u8abf\u67fb\u5916\u4e00\u9023\u696d\u52d9\"","client_name":"\"\u65ed\u5ddd\u958b\u767a\u5efa\u8a2d\u90e8 \u58eb\u5225\u9053\u8def\u4e8b\u52d9\u6240 \u7f8e\u6df1\u5206\u5e81\u820e\"","boring_xml_url":61,"boring_view_url":1,"soilmap_view_url":null,"soiltest_xml_url":0,"soiltest_view_url":0},{"id":497659,"code":"B4KJ202201000-0195","latitude":"44.481472","longitude":"142.366583","source_code":"HK20092522890001","project_name":"","survey_name":"\"\u4e00\u822c\u56fd\u905340\u53f7 \u4e2d\u5ddd\u753a \u7434\u5e73\u5730\u533a\u5730\u8cea\u8abf\u67fb\u5916\u4e00\u9023\u696d\u52d9\"","client_name":"\"\u65ed\u5ddd\u958b\u767a\u5efa\u8a2d\u90e8 \u58eb\u5225\u9053\u8def\u4e8b\u52d9\u6240 \u7f8e\u6df1\u5206\u5e81\u820e\"","boring_xml_url":61,"boring_view_url":1,"soilmap_view_url":null,"soiltest_xml_url":0,"soiltest_view_url":0},{"id":497658,"code":"B4KJ202201000-0194","latitude":"44.229111","longitude":"142.434833","source_code":"HK20092521930027","project_name":"","survey_name":"\"\u5317\u6d77\u9053\u7e26\u8cab\u81ea\u52d5\u8eca\u9053 \u58eb\u5225\u5263\u6df5\u540d\u5bc4\u9593 \u5730\u8cea\u8abf\u67fb\u696d\u52d9\"","client_name":"\"\u5317\u6d77\u9053\u958b\u767a\u5c40 \u65ed\u5ddd\u958b\u767a\u5efa\u8a2d\u90e8\"","boring_xml_url":61,"boring_view_url":1,"soilmap_view_url":null,"soiltest_xml_url":0,"soiltest_view_url":0},{"id":497657,"code":"B4KJ202201000-0193","latitude":"44.228028","longitude":"142.434556","source_code":"HK20092521930026","project_name":"","survey_name":"\"\u5317\u6d77\u9053\u7e26\u8cab\u81ea\u52d5\u8eca\u9053 \u58eb\u5225\u5263\u6df5\u540d\u5bc4\u9593 \u5730\u8cea\u8abf\u67fb\u696d\u52d9\"","client_name":"\"\u5317\u6d77\u9053\u958b\u767a\u5c40 \u65ed\u5ddd\u958b\u767a\u5efa\u8a2d\u90e8\"","boring_xml_url":61,"boring_view_url":1,"soilmap_view_url":null,"soiltest_xml_url":0,"soiltest_view_url":0},{"id":497656,"code":"B4KJ202201000-0192","latitude":"44.220417","longitude":"142.434611","source_code":"HK20092521930025","project_name":"","survey_name":"\u5317\u6d77\u9053\u7e26\u8cab\u81ea\u52d5\u8eca\u9053\u58eb\u5225\u5263\u6df5\u540d\u5bc4\u9593\u5730\u8cea\u8abf\u67fb\u696d\u52d9","client_name":"\u5317\u6d77\u9053\u958b\u767a\u5c40\u3000\u65ed\u5ddd\u958b\u767a\u5efa\u8a2d\u90e8","boring_xml_url":61,"boring_view_url":1,"soilmap_view_url":null,"soiltest_xml_url":0,"soiltest_view_url":0},{"id":497655,"code":"B4KJ202201000-0191","latitude":"44.212167","longitude":"142.434417","source_code":"HK20092521930024","project_name":"","survey_name":"\u5317\u6d77\u9053\u7e26\u8cab\u81ea\u52d5\u8eca\u9053\u58eb\u5225\u5263\u6df5\u540d\u5bc4\u9593\u5730\u8cea\u8abf\u67fb\u696d\u52d9","client_name":"\u5317\u6d77\u9053\u958b\u767a\u5c40\u3000\u65ed\u5ddd\u958b\u767a\u5efa\u8a2d\u90e8","boring_xml_url":61,"boring_view_url":1,"soilmap_view_url":null,"soiltest_xml_url":0,"soiltest_view_url":0},{"id":497654,"code":"B4KJ202201000-0190","latitude":"44.209611","longitude":"142.434222","source_code":"HK20092521930023","project_name":"","survey_name":"\u5317\u6d77\u9053\u7e26\u8cab\u81ea\u52d5\u8eca\u9053\u58eb\u5225\u5263\u6df5\u540d\u5bc4\u9593\u5730\u8cea\u8abf\u67fb\u696d\u52d9","client_name":"\u5317\u6d77\u9053\u958b\u767a\u5c40\u3000\u65ed\u5ddd\u958b\u767a\u5efa\u8a2d\u90e8","boring_xml_url":61,"boring_view_url":1,"soilmap_view_url":null,"soiltest_xml_url":0,"soiltest_view_url":0},{"id":497653,"code":"B4KJ202201000-0189","latitude":"44.208333","longitude":"142.434056","source_code":"HK20092521930022","project_name":"","survey_name":"\u5317\u6d77\u9053\u7e26\u8cab\u81ea\u52d5\u8eca\u9053\u58eb\u5225\u5263\u6df5\u540d\u5bc4\u9593\u5730\u8cea\u8abf\u67fb\u696d\u52d9","client_name":"\u5317\u6d77\u9053\u958b\u767a\u5c40\u3000\u65ed\u5ddd\u958b\u767a\u5efa\u8a2d\u90e8","boring_xml_url":61,"boring_view_url":1,"soilmap_view_url":null,"soiltest_xml_url":0,"soiltest_view_url":0},{"id":497652,"code":"B4KJ202201000-0188","latitude":"44.207111","longitude":"142.433917","source_code":"HK20092521930021","project_name":"","survey_name":"\u5317\u6d77\u9053\u7e26\u8cab\u81ea\u52d5\u8eca\u9053\u58eb\u5225\u5263\u6df5\u540d\u5bc4\u9593\u5730\u8cea\u8abf\u67fb\u696d\u52d9","client_name":"\u5317\u6d77\u9053\u958b\u767a\u5c40\u3000\u65ed\u5ddd\u958b\u767a\u5efa\u8a2d\u90e8","boring_xml_url":61,"boring_view_url":1,"soilmap_view_url":null,"soiltest_xml_url":0,"soiltest_view_url":0},{"id":497651,"code":"B4KJ202201000-0187","latitude":"44.202139","longitude":"142.433861","source_code":"HK20092521930020","project_name":"","survey_name":"\u5317\u6d77\u9053\u7e26\u8cab\u81ea\u52d5\u8eca\u9053\u58eb\u5225\u5263\u6df5\u540d\u5bc4\u9593\u5730\u8cea\u8abf\u67fb\u696d\u52d9","client_name":"\u5317\u6d77\u9053\u958b\u767a\u5c40\u3000\u65ed\u5ddd\u958b\u767a\u5efa\u8a2d\u90e8","boring_xml_url":61,"boring_view_url":1,"soilmap_view_url":null,"soiltest_xml_url":0,"soiltest_view_url":0},{"id":497650,"code":"B4KJ202201000-0186","latitude":"44.199528","longitude":"142.433861","source_code":"HK20092521930019","project_name":"","survey_name":"\"\u5317\u6d77\u9053\u7e26\u8cab\u81ea\u52d5\u8eca\u9053 \u58eb\u5225\u5263\u6df5\u540d\u5bc4\u9593 \u5730\u8cea\u8abf\u67fb\u696d\u52d9\"","client_name":"\"\u5317\u6d77\u9053\u958b\u767a\u5c40 \u65ed\u5ddd\u958b\u767a\u5efa\u8a2d\u90e8\"","boring_xml_url":61,"boring_view_url":1,"soilmap_view_url":null,"soiltest_xml_url":0,"soiltest_view_url":0},{"id":497649,"code":"B4KJ202201000-0185","latitude":"44.197111","longitude":"142.433833","source_code":"HK20092521930018","project_name":"","survey_name":"\"\u5317\u6d77\u9053\u7e26\u8cab\u81ea\u52d5\u8eca\u9053 \u58eb\u5225\u5263\u6df5\u540d\u5bc4\u9593 \u5730\u8cea\u8abf\u67fb\u696d\u52d9\"","client_name":"\"\u5317\u6d77\u9053\u958b\u767a\u5c40 \u65ed\u5ddd\u958b\u767a\u5efa\u8a2d\u90e8\"","boring_xml_url":61,"boring_view_url":1,"soilmap_view_url":null,"soiltest_xml_url":0,"soiltest_view_url":0},{"id":497648,"code":"B4KJ202201000-0184","latitude":"44.194111","longitude":"142.433833","source_code":"HK20092521930017","project_name":"","survey_name":"\u5317\u6d77\u9053\u7e26\u8cab\u81ea\u52d5\u8eca\u9053\u58eb\u5225\u5263\u6df5\u540d\u5bc4\u9593\u5730\u8cea\u8abf\u67fb\u696d\u52d9","client_name":"\u5317\u6d77\u9053\u958b\u767a\u5c40\u3000\u65ed\u5ddd\u958b\u767a\u5efa\u8a2d\u90e8","boring_xml_url":61,"boring_view_url":1,"soilmap_view_url":null,"soiltest_xml_url":0,"soiltest_view_url":0},{"id":497647,"code":"B4KJ202201000-0183","latitude":"44.192472","longitude":"142.433833","source_code":"HK20092521930016","project_name":"","survey_name":"\"\u5317\u6d77\u9053\u7e26\u8cab\u81ea\u52d5\u8eca\u9053 \u58eb\u5225\u5263\u6df5\u540d\u5bc4\u9593 \u5730\u8cea\u8abf\u67fb\u696d\u52d9\"","client_name":"\"\u5317\u6d77\u9053\u958b\u767a\u5c40 \u65ed\u5ddd\u958b\u767a\u5efa\u8a2d\u90e8\"","boring_xml_url":61,"boring_view_url":1,"soilmap_view_url":null,"soiltest_xml_url":0,"soiltest_view_url":0},{"id":497646,"code":"B4KJ202201000-0182","latitude":"44.189778","longitude":"142.433806","source_code":"HK20092521930015","project_name":"","survey_name":"\"\u5317\u6d77\u9053\u7e26\u8cab\u81ea\u52d5\u8eca\u9053 \u58eb\u5225\u5263\u6df5\u540d\u5bc4\u9593 \u5730\u8cea\u8abf\u67fb\u696d\u52d9\"","client_name":"\"\u5317\u6d77\u9053\u958b\u767a\u5c40 \u65ed\u5ddd\u958b\u767a\u5efa\u8a2d\u90e8\"","boring_xml_url":61,"boring_view_url":1,"soilmap_view_url":null,"soiltest_xml_url":0,"soiltest_view_url":0},{"id":497645,"code":"B4KJ202201000-0181","latitude":"44.188778","longitude":"142.433806","source_code":"HK20092521930014","project_name":"","survey_name":"\u5317\u6d77\u9053\u7e26\u8cab\u81ea\u52d5\u8eca\u9053\u58eb\u5225\u5263\u6df5\u540d\u5bc4\u9593\u5730\u8cea\u8abf\u67fb\u696d\u52d9","client_name":"\u5317\u6d77\u9053\u958b\u767a\u5c40\u3000\u65ed\u5ddd\u958b\u767a\u5efa\u8a2d\u90e8","boring_xml_url":61,"boring_view_url":1,"soilmap_view_url":null,"soiltest_xml_url":0,"soiltest_view_url":0},{"id":497644,"code":"B4KJ202201000-0180","latitude":"44.187722","longitude":"142.433806","source_code":"HK20092521930013","project_name":"","survey_name":"\"\u5317\u6d77\u9053\u7e26\u8cab\u81ea\u52d5\u8eca\u9053 \u58eb\u5225\u5263\u6df5\u540d\u5bc4\u9593 \u5730\u8cea\u8abf\u67fb\u696d\u52d9\"","client_name":"\"\u5317\u6d77\u9053\u958b\u767a\u5c40 \u65ed\u5ddd\u958b\u767a\u5efa\u8a2d\u90e8\"","boring_xml_url":61,"boring_view_url":1,"soilmap_view_url":null,"soiltest_xml_url":0,"soiltest_view_url":0},{"id":497643,"code":"B4KJ202201000-0179","latitude":"44.186167","longitude":"142.433778","source_code":"HK20092521930012","project_name":"","survey_name":"\"\u5317\u6d77\u9053\u7e26\u8cab\u81ea\u52d5\u8eca\u9053 \u58eb\u5225\u5263\u6df5\u540d\u5bc4\u9593 \u5730\u8cea\u8abf\u67fb\u696d\u52d9\"","client_name":"\"\u5317\u6d77\u9053\u958b\u767a\u5c40 \u65ed\u5ddd\u958b\u767a\u5efa\u8a2d\u90e8\"","boring_xml_url":61,"boring_view_url":1,"soilmap_view_url":null,"soiltest_xml_url":0,"soiltest_view_url":0},{"id":497642,"code":"B4KJ202201000-0178","latitude":"44.184222","longitude":"142.433694","source_code":"HK20092521930011","project_name":"","survey_name":"\"\u5317\u6d77\u9053\u7e26\u8cab\u81ea\u52d5\u8eca\u9053 \u58eb\u5225\u5263\u6df5\u540d\u5bc4\u9593 \u5730\u8cea\u8abf\u67fb\u696d\u52d9\"","client_name":"\"\u5317\u6d77\u9053\u958b\u767a\u5c40 \u65ed\u5ddd\u958b\u767a\u5efa\u8a2d\u90e8\"","boring_xml_url":61,"boring_view_url":1,"soilmap_view_url":null,"soiltest_xml_url":0,"soiltest_view_url":0},{"id":497641,"code":"B4KJ202201000-0177","latitude":"44.182667","longitude":"142.433472","source_code":"HK20092521930010","project_name":"","survey_name":"\"\u5317\u6d77\u9053\u7e26\u8cab\u81ea\u52d5\u8eca\u9053 \u58eb\u5225\u5263\u6df5\u540d\u5bc4\u9593 \u5730\u8cea\u8abf\u67fb\u696d\u52d9\"","client_name":"\"\u5317\u6d77\u9053\u958b\u767a\u5c40 \u65ed\u5ddd\u958b\u767a\u5efa\u8a2d\u90e8\"","boring_xml_url":61,"boring_view_url":1,"soilmap_view_url":null,"soiltest_xml_url":0,"soiltest_view_url":0},{"id":497640,"code":"B4KJ202201000-0176","latitude":"44.178889","longitude":"142.432889","source_code":"HK20092521930009","project_name":"","survey_name":"\"\u5317\u6d77\u9053\u7e26\u8cab\u81ea\u52d5\u8eca\u9053 \u58eb\u5225\u5263\u6df5\u540d\u5bc4\u9593 \u5730\u8cea\u8abf\u67fb\u696d\u52d9\"","client_name":"\"\u5317\u6d77\u9053\u958b\u767a\u5c40 \u65ed\u5ddd\u958b\u767a\u5efa\u8a2d\u90e8\"","boring_xml_url":61,"boring_view_url":1,"soilmap_view_url":null,"soiltest_xml_url":0,"soiltest_view_url":0},{"id":497639,"code":"B4KJ202201000-0175","latitude":"44.168556","longitude":"142.428222","source_code":"HK20092521930008","project_name":"","survey_name":"\"\u5317\u6d77\u9053\u7e26\u8cab\u81ea\u52d5\u8eca\u9053 \u58eb\u5225\u5263\u6df5\u540d\u5bc4\u9593 \u5730\u8cea\u8abf\u67fb\u696d\u52d9\"","client_name":"\"\u5317\u6d77\u9053\u958b\u767a\u5c40 \u65ed\u5ddd\u958b\u767a\u5efa\u8a2d\u90e8\"","boring_xml_url":61,"boring_view_url":1,"soilmap_view_url":null,"soiltest_xml_url":0,"soiltest_view_url":0},{"id":497638,"code":"B4KJ202201000-0174","latitude":"44.158","longitude":"142.418472","source_code":"HK20092521930007","project_name":"","survey_name":"\"\u5317\u6d77\u9053\u7e26\u8cab\u81ea\u52d5\u8eca\u9053 \u58eb\u5225\u5263\u6df5\u540d\u5bc4\u9593 \u5730\u8cea\u8abf\u67fb\u696d\u52d9\"","client_name":"\"\u5317\u6d77\u9053\u958b\u767a\u5c40 \u65ed\u5ddd\u958b\u767a\u5efa\u8a2d\u90e8\"","boring_xml_url":61,"boring_view_url":1,"soilmap_view_url":null,"soiltest_xml_url":0,"soiltest_view_url":0},{"id":497637,"code":"B4KJ202201000-0173","latitude":"44.158306","longitude":"142.417917","source_code":"HK20092521930006","project_name":"","survey_name":"\"\u5317\u6d77\u9053\u7e26\u8cab\u81ea\u52d5\u8eca\u9053 \u58eb\u5225\u5263\u6df5\u540d\u5bc4\u9593 \u5730\u8cea\u8abf\u67fb\u696d\u52d9\"","client_name":"\"\u5317\u6d77\u9053\u958b\u767a\u5c40 \u65ed\u5ddd\u958b\u767a\u5efa\u8a2d\u90e8\"","boring_xml_url":61,"boring_view_url":1,"soilmap_view_url":null,"soiltest_xml_url":0,"soiltest_view_url":0},{"id":497636,"code":"B4KJ202201000-0172","latitude":"44.158611","longitude":"142.417361","source_code":"HK20092521930005","project_name":"","survey_name":"\"\u5317\u6d77\u9053\u7e26\u8cab\u81ea\u52d5\u8eca\u9053 \u58eb\u5225\u5263\u6df5\u540d\u5bc4\u9593 \u5730\u8cea\u8abf\u67fb\u696d\u52d9\"","client_name":"\"\u5317\u6d77\u9053\u958b\u767a\u5c40 \u65ed\u5ddd\u958b\u767a\u5efa\u8a2d\u90e8\"","boring_xml_url":61,"boring_view_url":1,"soilmap_view_url":null,"soiltest_xml_url":0,"soiltest_view_url":0},{"id":497635,"code":"B4KJ202201000-0171","latitude":"44.156694","longitude":"142.417083","source_code":"HK20092521930004","project_name":"","survey_name":"\"\u5317\u6d77\u9053\u7e26\u8cab\u81ea\u52d5\u8eca\u9053 \u58eb\u5225\u5263\u6df5\u540d\u5bc4\u9593 \u5730\u8cea\u8abf\u67fb\u696d\u52d9\"","client_name":"\"\u5317\u6d77\u9053\u958b\u767a\u5c40 \u65ed\u5ddd\u958b\u767a\u5efa\u8a2d\u90e8\"","boring_xml_url":61,"boring_view_url":1,"soilmap_view_url":null,"soiltest_xml_url":0,"soiltest_view_url":0},{"id":497634,"code":"B4KJ202201000-0170","latitude":"44.157028","longitude":"142.416528","source_code":"HK20092521930003","project_name":"","survey_name":"\"\u5317\u6d77\u9053\u7e26\u8cab\u81ea\u52d5\u8eca\u9053 \u58eb\u5225\u5263\u6df5\u540d\u5bc4\u9593 \u5730\u8cea\u8abf\u67fb\u696d\u52d9\"","client_name":"\"\u5317\u6d77\u9053\u958b\u767a\u5c40 \u65ed\u5ddd\u958b\u767a\u5efa\u8a2d\u90e8\"","boring_xml_url":61,"boring_view_url":1,"soilmap_view_url":null,"soiltest_xml_url":0,"soiltest_view_url":0},{"id":497633,"code":"B4KJ202201000-0169","latitude":"44.15725","longitude":"142.416139","source_code":"HK20092521930002","project_name":"","survey_name":"\"\u5317\u6d77\u9053\u7e26\u8cab\u81ea\u52d5\u8eca\u9053 \u58eb\u5225\u5263\u6df5\u540d\u5bc4\u9593 \u5730\u8cea\u8abf\u67fb\u696d\u52d9\"","client_name":"\"\u5317\u6d77\u9053\u958b\u767a\u5c40 \u65ed\u5ddd\u958b\u767a\u5efa\u8a2d\u90e8\"","boring_xml_url":61,"boring_view_url":1,"soilmap_view_url":null,"soiltest_xml_url":0,"soiltest_view_url":0},{"id":497632,"code":"B4KJ202201000-0168","latitude":"44.154528","longitude":"142.414083","source_code":"HK20092521930001","project_name":"","survey_name":"\"\u5317\u6d77\u9053\u7e26\u8cab\u81ea\u52d5\u8eca\u9053 \u58eb\u5225\u5263\u6df5\u540d\u5bc4\u9593 \u5730\u8cea\u8abf\u67fb\u696d\u52d9\"","client_name":"\"\u5317\u6d77\u9053\u958b\u767a\u5c40 \u65ed\u5ddd\u958b\u767a\u5efa\u8a2d\u90e8\"","boring_xml_url":61,"boring_view_url":1,"soilmap_view_url":null,"soiltest_xml_url":0,"soiltest_view_url":0},{"id":497631,"code":"B4KJ202201000-0167","latitude":"44.736706","longitude":"142.229881","source_code":"HK20092520540001","project_name":"\"\u4e00\u822c\u56fd\u905340\u53f7 \u97f3\u5a01\u5b50\u5e9c\u6751 \u97f3\u5a01\u5b50\u5e9c\u30c8\u30f3\u30cd\u30eb\u5730\u8cea\u8abf\u67fb\u696d\u52d9\"","survey_name":"\"\u4e00\u822c\u56fd\u905340\u53f7 \u97f3\u5a01\u5b50\u5e9c\u6751 \u97f3\u5a01\u5b50\u5e9c\u30c8\u30f3\u30cd\u30eb\u5730\u8cea\u8abf\u67fb\u696d\u52d9\"","client_name":"\u5317\u6d77\u9053\u958b\u767a\u5c40\u3000\u65ed\u5ddd\u958b\u767a\u5efa\u8a2d\u90e8","boring_xml_url":61,"boring_view_url":1,"soilmap_view_url":null,"soiltest_xml_url":0,"soiltest_view_url":0}]}}