{"header":{"xyz":{"source":[],"mosaic":false},"page":1602,"raw":{"soiltest_result":"0","bbox":"57.598333,109.544722,1.933333,163.806111","page":"1602"},"conditions":{"soiltest_result":0,"north":57.598333,"west":109.544722,"south":1.933333,"east":163.806111},"success":true,"message":""},"data":{"meta":{"total":212844,"page":1602,"pages":7095,"count":30},"values":[{"id":496462,"code":"NGIC202200174-0002","latitude":"36.756196777778","longitude":"137.01263180556","source_code":"","project_name":"\u56fd\u9053156\u53f7\u5fd7\u8cb4\u91ce\u6a4b\u5730\u8cea\u8abf\u67fb","survey_name":"\u4ee4\u548c3\u5e74\u5ea6\u5bcc\u5c71\u7ba1\u5185\u9053\u8def\u5730\u8cea\u8abf\u67fb\u696d\u52d9","client_name":"\u56fd\u571f\u4ea4\u901a\u7701\u5317\u9678\u5730\u65b9\u6574\u5099\u5c40\u5bcc\u5c71\u6cb3\u5ddd\u56fd\u9053\u4e8b\u52d9\u6240","boring_xml_url":47,"boring_view_url":1,"soilmap_view_url":null,"soiltest_xml_url":47,"soiltest_view_url":47},{"id":496461,"code":"NGIC202200174-0001","latitude":"36.756398972222","longitude":"137.01206338889","source_code":"","project_name":"\u56fd\u9053156\u53f7\u5fd7\u8cb4\u91ce\u6a4b\u5730\u8cea\u8abf\u67fb","survey_name":"\u4ee4\u548c3\u5e74\u5ea6\u5bcc\u5c71\u7ba1\u5185\u9053\u8def\u5730\u8cea\u8abf\u67fb\u696d\u52d9","client_name":"\u56fd\u571f\u4ea4\u901a\u7701\u5317\u9678\u5730\u65b9\u6574\u5099\u5c40\u5bcc\u5c71\u6cb3\u5ddd\u56fd\u9053\u4e8b\u52d9\u6240","boring_xml_url":47,"boring_view_url":1,"soilmap_view_url":null,"soiltest_xml_url":47,"soiltest_view_url":47},{"id":496460,"code":"NGIC202200170-0002","latitude":"36.692037055556","longitude":"137.22036533333","source_code":"","project_name":"\u56fd\u905341\u53f7\u6708\u898b\u6a4b\u5730\u8cea\u8abf\u67fb","survey_name":"\u4ee4\u548c3\u5e74\u5ea6\u5bcc\u5c71\u7ba1\u5185\u9053\u8def\u5730\u8cea\u8abf\u67fb\u696d\u52d9","client_name":"\u56fd\u571f\u4ea4\u901a\u7701\u5317\u9678\u5730\u65b9\u6574\u5099\u5c40\u5bcc\u5c71\u6cb3\u5ddd\u56fd\u9053\u4e8b\u52d9\u6240","boring_xml_url":47,"boring_view_url":1,"soilmap_view_url":null,"soiltest_xml_url":47,"soiltest_view_url":47},{"id":496459,"code":"NGIC202200170-0001","latitude":"36.692284861111","longitude":"137.21989475","source_code":"","project_name":"\u56fd\u905341\u53f7\u6708\u898b\u6a4b\u5730\u8cea\u8abf\u67fb","survey_name":"\u4ee4\u548c3\u5e74\u5ea6\u5bcc\u5c71\u7ba1\u5185\u9053\u8def\u5730\u8cea\u8abf\u67fb\u696d\u52d9","client_name":"\u56fd\u571f\u4ea4\u901a\u7701\u5317\u9678\u5730\u65b9\u6574\u5099\u5c40\u5bcc\u5c71\u6cb3\u5ddd\u56fd\u9053\u4e8b\u52d9\u6240","boring_xml_url":47,"boring_view_url":1,"soilmap_view_url":null,"soiltest_xml_url":47,"soiltest_view_url":47},{"id":496453,"code":"NGIC202106281-0002","latitude":"37.262933333333","longitude":"139.89527777778","source_code":"","project_name":"","survey_name":"\u6e6f\u91ce\u4e0a\u4e2d\u59bb\u5730\u533a\u6539\u826f\u5de5\u4e8b","client_name":"\u56fd\u571f\u4ea4\u901a\u7701\u6771\u5317\u5730\u65b9\u6574\u5099\u5c40\u90e1\u5c71\u56fd\u9053\u4e8b\u52d9\u6240","boring_xml_url":47,"boring_view_url":1,"soilmap_view_url":null,"soiltest_xml_url":0,"soiltest_view_url":0},{"id":496452,"code":"NGIC202106281-0001","latitude":"37.262758333333","longitude":"139.89490833333","source_code":"","project_name":"","survey_name":"\u6e6f\u91ce\u4e0a\u4e2d\u59bb\u5730\u533a\u6539\u826f\u5de5\u4e8b","client_name":"\u56fd\u571f\u4ea4\u901a\u7701\u6771\u5317\u5730\u65b9\u6574\u5099\u5c40\u90e1\u5c71\u56fd\u9053\u4e8b\u52d9\u6240","boring_xml_url":47,"boring_view_url":1,"soilmap_view_url":null,"soiltest_xml_url":0,"soiltest_view_url":0},{"id":496379,"code":"NGIC202200121-0004","latitude":"32.910542555556","longitude":"130.02520716667","source_code":"","project_name":"","survey_name":"\u672c\u660e\u5ddd\u30c0\u30e0\u6cb3\u5e8a\u90e8\u5730\u8cea\u8abf\u67fb\u696d\u52d9","client_name":"\u56fd\u571f\u4ea4\u901a\u7701\u4e5d\u5dde\u5730\u65b9\u6574\u5099\u5c40\u9577\u5d0e\u6cb3\u5ddd\u56fd\u9053\u4e8b\u52d9\u6240","boring_xml_url":47,"boring_view_url":1,"soilmap_view_url":null,"soiltest_xml_url":0,"soiltest_view_url":0},{"id":496378,"code":"NGIC202200121-0003","latitude":"32.910580583333","longitude":"130.02553483333","source_code":"","project_name":"","survey_name":"\u672c\u660e\u5ddd\u30c0\u30e0\u6cb3\u5e8a\u90e8\u5730\u8cea\u8abf\u67fb\u696d\u52d9","client_name":"\u56fd\u571f\u4ea4\u901a\u7701\u4e5d\u5dde\u5730\u65b9\u6574\u5099\u5c40\u9577\u5d0e\u6cb3\u5ddd\u56fd\u9053\u4e8b\u52d9\u6240","boring_xml_url":47,"boring_view_url":1,"soilmap_view_url":null,"soiltest_xml_url":0,"soiltest_view_url":0},{"id":496377,"code":"NGIC202200121-0002","latitude":"32.910455777778","longitude":"130.02636586111","source_code":"","project_name":"","survey_name":"\u672c\u660e\u5ddd\u30c0\u30e0\u6cb3\u5e8a\u90e8\u5730\u8cea\u8abf\u67fb\u696d\u52d9","client_name":"\u56fd\u571f\u4ea4\u901a\u7701\u4e5d\u5dde\u5730\u65b9\u6574\u5099\u5c40\u9577\u5d0e\u6cb3\u5ddd\u56fd\u9053\u4e8b\u52d9\u6240","boring_xml_url":47,"boring_view_url":1,"soilmap_view_url":null,"soiltest_xml_url":0,"soiltest_view_url":0},{"id":496376,"code":"NGIC202200121-0001","latitude":"32.910364","longitude":"130.02655363889","source_code":"","project_name":"","survey_name":"\u672c\u660e\u5ddd\u30c0\u30e0\u6cb3\u5e8a\u90e8\u5730\u8cea\u8abf\u67fb\u696d\u52d9","client_name":"\u56fd\u571f\u4ea4\u901a\u7701\u4e5d\u5dde\u5730\u65b9\u6574\u5099\u5c40\u9577\u5d0e\u6cb3\u5ddd\u56fd\u9053\u4e8b\u52d9\u6240","boring_xml_url":47,"boring_view_url":1,"soilmap_view_url":null,"soiltest_xml_url":0,"soiltest_view_url":0},{"id":496374,"code":"NGIC202200115-0027","latitude":"33.254021111111","longitude":"130.1802275","source_code":"","project_name":"","survey_name":"\u4ee4\u548c3\u5e74\u5ea6\u516d\u89d2\u5ddd\u6c34\u7cfb\u5730\u8cea\u8abf\u67fb\uff08\u305d\u306e6\uff09\u696d\u52d9","client_name":"\u56fd\u571f\u4ea4\u901a\u7701\u4e5d\u5dde\u5730\u65b9\u6574\u5099\u5c40\u6b66\u96c4\u6cb3\u5ddd\u4e8b\u52d9\u6240","boring_xml_url":47,"boring_view_url":1,"soilmap_view_url":null,"soiltest_xml_url":47,"soiltest_view_url":47},{"id":496373,"code":"NGIC202200115-0026","latitude":"33.254041944444","longitude":"130.180335","source_code":"","project_name":"","survey_name":"\u4ee4\u548c3\u5e74\u5ea6\u516d\u89d2\u5ddd\u6c34\u7cfb\u5730\u8cea\u8abf\u67fb\uff08\u305d\u306e6\uff09\u696d\u52d9","client_name":"\u56fd\u571f\u4ea4\u901a\u7701\u4e5d\u5dde\u5730\u65b9\u6574\u5099\u5c40\u6b66\u96c4\u6cb3\u5ddd\u4e8b\u52d9\u6240","boring_xml_url":47,"boring_view_url":1,"soilmap_view_url":null,"soiltest_xml_url":47,"soiltest_view_url":47},{"id":496372,"code":"NGIC202200115-0025","latitude":"33.254046944444","longitude":"130.18047527778","source_code":"","project_name":"","survey_name":"\u4ee4\u548c3\u5e74\u5ea6\u516d\u89d2\u5ddd\u6c34\u7cfb\u5730\u8cea\u8abf\u67fb\uff08\u305d\u306e6\uff09\u696d\u52d9","client_name":"\u56fd\u571f\u4ea4\u901a\u7701\u4e5d\u5dde\u5730\u65b9\u6574\u5099\u5c40\u6b66\u96c4\u6cb3\u5ddd\u4e8b\u52d9\u6240","boring_xml_url":47,"boring_view_url":1,"soilmap_view_url":null,"soiltest_xml_url":47,"soiltest_view_url":47},{"id":496371,"code":"NGIC202200115-0024","latitude":"33.254054444444","longitude":"130.18055666667","source_code":"","project_name":"","survey_name":"\u4ee4\u548c3\u5e74\u5ea6\u516d\u89d2\u5ddd\u6c34\u7cfb\u5730\u8cea\u8abf\u67fb\uff08\u305d\u306e6\uff09\u696d\u52d9","client_name":"\u56fd\u571f\u4ea4\u901a\u7701\u4e5d\u5dde\u5730\u65b9\u6574\u5099\u5c40\u6b66\u96c4\u6cb3\u5ddd\u4e8b\u52d9\u6240","boring_xml_url":47,"boring_view_url":1,"soilmap_view_url":null,"soiltest_xml_url":47,"soiltest_view_url":47},{"id":496370,"code":"NGIC202200115-0023","latitude":"33.254075833333","longitude":"130.18076111111","source_code":"","project_name":"","survey_name":"\u4ee4\u548c3\u5e74\u5ea6\u516d\u89d2\u5ddd\u6c34\u7cfb\u5730\u8cea\u8abf\u67fb\uff08\u305d\u306e6\uff09\u696d\u52d9","client_name":"\u56fd\u571f\u4ea4\u901a\u7701\u4e5d\u5dde\u5730\u65b9\u6574\u5099\u5c40\u6b66\u96c4\u6cb3\u5ddd\u4e8b\u52d9\u6240","boring_xml_url":47,"boring_view_url":1,"soilmap_view_url":null,"soiltest_xml_url":47,"soiltest_view_url":47},{"id":496369,"code":"NGIC202200115-0022","latitude":"33.236856666667","longitude":"130.19320416667","source_code":"","project_name":"","survey_name":"\u4ee4\u548c3\u5e74\u5ea6\u516d\u89d2\u5ddd\u6c34\u7cfb\u5730\u8cea\u8abf\u67fb\uff08\u305d\u306e6\uff09\u696d\u52d9","client_name":"\u56fd\u571f\u4ea4\u901a\u7701\u4e5d\u5dde\u5730\u65b9\u6574\u5099\u5c40\u6b66\u96c4\u6cb3\u5ddd\u4e8b\u52d9\u6240","boring_xml_url":47,"boring_view_url":1,"soilmap_view_url":null,"soiltest_xml_url":47,"soiltest_view_url":47},{"id":496368,"code":"NGIC202200115-0021","latitude":"33.236907222222","longitude":"130.19314333333","source_code":"","project_name":"","survey_name":"\u4ee4\u548c3\u5e74\u5ea6\u516d\u89d2\u5ddd\u6c34\u7cfb\u5730\u8cea\u8abf\u67fb\uff08\u305d\u306e6\uff09\u696d\u52d9","client_name":"\u56fd\u571f\u4ea4\u901a\u7701\u4e5d\u5dde\u5730\u65b9\u6574\u5099\u5c40\u6b66\u96c4\u6cb3\u5ddd\u4e8b\u52d9\u6240","boring_xml_url":47,"boring_view_url":1,"soilmap_view_url":null,"soiltest_xml_url":47,"soiltest_view_url":47},{"id":496367,"code":"NGIC202200115-0020","latitude":"33.237011944444","longitude":"130.19298777778","source_code":"","project_name":"","survey_name":"\u4ee4\u548c3\u5e74\u5ea6\u516d\u89d2\u5ddd\u6c34\u7cfb\u5730\u8cea\u8abf\u67fb\uff08\u305d\u306e6\uff09\u696d\u52d9","client_name":"\u56fd\u571f\u4ea4\u901a\u7701\u4e5d\u5dde\u5730\u65b9\u6574\u5099\u5c40\u6b66\u96c4\u6cb3\u5ddd\u4e8b\u52d9\u6240","boring_xml_url":47,"boring_view_url":1,"soilmap_view_url":null,"soiltest_xml_url":47,"soiltest_view_url":47},{"id":496366,"code":"NGIC202200115-0019","latitude":"33.237073611111","longitude":"130.19291666667","source_code":"","project_name":"","survey_name":"\u4ee4\u548c3\u5e74\u5ea6\u516d\u89d2\u5ddd\u6c34\u7cfb\u5730\u8cea\u8abf\u67fb\uff08\u305d\u306e6\uff09\u696d\u52d9","client_name":"\u56fd\u571f\u4ea4\u901a\u7701\u4e5d\u5dde\u5730\u65b9\u6574\u5099\u5c40\u6b66\u96c4\u6cb3\u5ddd\u4e8b\u52d9\u6240","boring_xml_url":47,"boring_view_url":1,"soilmap_view_url":null,"soiltest_xml_url":47,"soiltest_view_url":47},{"id":496365,"code":"NGIC202200115-0018","latitude":"33.237193888889","longitude":"130.19275472222","source_code":"","project_name":"","survey_name":"\u4ee4\u548c3\u5e74\u5ea6\u516d\u89d2\u5ddd\u6c34\u7cfb\u5730\u8cea\u8abf\u67fb\uff08\u305d\u306e6\uff09\u696d\u52d9","client_name":"\u56fd\u571f\u4ea4\u901a\u7701\u4e5d\u5dde\u5730\u65b9\u6574\u5099\u5c40\u6b66\u96c4\u6cb3\u5ddd\u4e8b\u52d9\u6240","boring_xml_url":47,"boring_view_url":1,"soilmap_view_url":null,"soiltest_xml_url":47,"soiltest_view_url":47},{"id":496364,"code":"NGIC202200115-0017","latitude":"33.255906666667","longitude":"130.18171861111","source_code":"","project_name":"","survey_name":"\u4ee4\u548c3\u5e74\u5ea6\u516d\u89d2\u5ddd\u6c34\u7cfb\u5730\u8cea\u8abf\u67fb\uff08\u305d\u306e6\uff09\u696d\u52d9","client_name":"\u56fd\u571f\u4ea4\u901a\u7701\u4e5d\u5dde\u5730\u65b9\u6574\u5099\u5c40\u6b66\u96c4\u6cb3\u5ddd\u4e8b\u52d9\u6240","boring_xml_url":47,"boring_view_url":1,"soilmap_view_url":null,"soiltest_xml_url":47,"soiltest_view_url":47},{"id":496363,"code":"NGIC202200115-0016","latitude":"33.255895555556","longitude":"130.18152777778","source_code":"","project_name":"","survey_name":"\u4ee4\u548c3\u5e74\u5ea6\u516d\u89d2\u5ddd\u6c34\u7cfb\u5730\u8cea\u8abf\u67fb\uff08\u305d\u306e6\uff09\u696d\u52d9","client_name":"\u56fd\u571f\u4ea4\u901a\u7701\u4e5d\u5dde\u5730\u65b9\u6574\u5099\u5c40\u6b66\u96c4\u6cb3\u5ddd\u4e8b\u52d9\u6240","boring_xml_url":47,"boring_view_url":1,"soilmap_view_url":null,"soiltest_xml_url":47,"soiltest_view_url":47},{"id":496362,"code":"NGIC202200115-0015","latitude":"33.255873055556","longitude":"130.18139055556","source_code":"","project_name":"","survey_name":"\u4ee4\u548c3\u5e74\u5ea6\u516d\u89d2\u5ddd\u6c34\u7cfb\u5730\u8cea\u8abf\u67fb\uff08\u305d\u306e6\uff09\u696d\u52d9","client_name":"\u56fd\u571f\u4ea4\u901a\u7701\u4e5d\u5dde\u5730\u65b9\u6574\u5099\u5c40\u6b66\u96c4\u6cb3\u5ddd\u4e8b\u52d9\u6240","boring_xml_url":47,"boring_view_url":1,"soilmap_view_url":null,"soiltest_xml_url":47,"soiltest_view_url":47},{"id":496361,"code":"NGIC202200115-0014","latitude":"33.254508333333","longitude":"130.181975","source_code":"","project_name":"","survey_name":"\u4ee4\u548c3\u5e74\u5ea6\u516d\u89d2\u5ddd\u6c34\u7cfb\u5730\u8cea\u8abf\u67fb\uff08\u305d\u306e6\uff09\u696d\u52d9","client_name":"\u56fd\u571f\u4ea4\u901a\u7701\u4e5d\u5dde\u5730\u65b9\u6574\u5099\u5c40\u6b66\u96c4\u6cb3\u5ddd\u4e8b\u52d9\u6240","boring_xml_url":47,"boring_view_url":1,"soilmap_view_url":null,"soiltest_xml_url":47,"soiltest_view_url":47},{"id":496360,"code":"NGIC202200115-0013","latitude":"33.2544975","longitude":"130.18181555556","source_code":"","project_name":"","survey_name":"\u4ee4\u548c3\u5e74\u5ea6\u516d\u89d2\u5ddd\u6c34\u7cfb\u5730\u8cea\u8abf\u67fb\uff08\u305d\u306e6\uff09\u696d\u52d9","client_name":"\u56fd\u571f\u4ea4\u901a\u7701\u4e5d\u5dde\u5730\u65b9\u6574\u5099\u5c40\u6b66\u96c4\u6cb3\u5ddd\u4e8b\u52d9\u6240","boring_xml_url":47,"boring_view_url":1,"soilmap_view_url":null,"soiltest_xml_url":47,"soiltest_view_url":47},{"id":496359,"code":"NGIC202200115-0012","latitude":"33.254482222222","longitude":"130.18172527778","source_code":"","project_name":"","survey_name":"\u4ee4\u548c3\u5e74\u5ea6\u516d\u89d2\u5ddd\u6c34\u7cfb\u5730\u8cea\u8abf\u67fb\uff08\u305d\u306e6\uff09\u696d\u52d9","client_name":"\u56fd\u571f\u4ea4\u901a\u7701\u4e5d\u5dde\u5730\u65b9\u6574\u5099\u5c40\u6b66\u96c4\u6cb3\u5ddd\u4e8b\u52d9\u6240","boring_xml_url":47,"boring_view_url":1,"soilmap_view_url":null,"soiltest_xml_url":47,"soiltest_view_url":47},{"id":496358,"code":"NGIC202200115-0011","latitude":"33.254456388889","longitude":"130.18154333333","source_code":"","project_name":"","survey_name":"\u4ee4\u548c3\u5e74\u5ea6\u516d\u89d2\u5ddd\u6c34\u7cfb\u5730\u8cea\u8abf\u67fb\uff08\u305d\u306e6\uff09\u696d\u52d9","client_name":"\u56fd\u571f\u4ea4\u901a\u7701\u4e5d\u5dde\u5730\u65b9\u6574\u5099\u5c40\u6b66\u96c4\u6cb3\u5ddd\u4e8b\u52d9\u6240","boring_xml_url":47,"boring_view_url":1,"soilmap_view_url":null,"soiltest_xml_url":47,"soiltest_view_url":47},{"id":496357,"code":"NGIC202200115-0010","latitude":"33.254359166667","longitude":"130.18106583333","source_code":"","project_name":"","survey_name":"\u4ee4\u548c3\u5e74\u5ea6\u516d\u89d2\u5ddd\u6c34\u7cfb\u5730\u8cea\u8abf\u67fb\uff08\u305d\u306e6\uff09\u696d\u52d9","client_name":"\u56fd\u571f\u4ea4\u901a\u7701\u4e5d\u5dde\u5730\u65b9\u6574\u5099\u5c40\u6b66\u96c4\u6cb3\u5ddd\u4e8b\u52d9\u6240","boring_xml_url":47,"boring_view_url":1,"soilmap_view_url":null,"soiltest_xml_url":47,"soiltest_view_url":47},{"id":496356,"code":"NGIC202200115-0009","latitude":"33.251228611111","longitude":"130.18367694444","source_code":"","project_name":"","survey_name":"\u4ee4\u548c3\u5e74\u5ea6\u516d\u89d2\u5ddd\u6c34\u7cfb\u5730\u8cea\u8abf\u67fb\uff08\u305d\u306e6\uff09\u696d\u52d9","client_name":"\u56fd\u571f\u4ea4\u901a\u7701\u4e5d\u5dde\u5730\u65b9\u6574\u5099\u5c40\u6b66\u96c4\u6cb3\u5ddd\u4e8b\u52d9\u6240","boring_xml_url":47,"boring_view_url":1,"soilmap_view_url":null,"soiltest_xml_url":47,"soiltest_view_url":47},{"id":496355,"code":"NGIC202200115-0008","latitude":"33.251153888889","longitude":"130.18359055556","source_code":"","project_name":"","survey_name":"\u4ee4\u548c3\u5e74\u5ea6\u516d\u89d2\u5ddd\u6c34\u7cfb\u5730\u8cea\u8abf\u67fb\uff08\u305d\u306e6\uff09\u696d\u52d9","client_name":"\u56fd\u571f\u4ea4\u901a\u7701\u4e5d\u5dde\u5730\u65b9\u6574\u5099\u5c40\u6b66\u96c4\u6cb3\u5ddd\u4e8b\u52d9\u6240","boring_xml_url":47,"boring_view_url":1,"soilmap_view_url":null,"soiltest_xml_url":47,"soiltest_view_url":47}]}}