{"header":{"xyz":{"source":[],"mosaic":false},"page":1607,"raw":{"soiltest_result":"0","bbox":"57.598333,109.544722,1.933333,163.806111","page":"1607"},"conditions":{"soiltest_result":0,"north":57.598333,"west":109.544722,"south":1.933333,"east":163.806111},"success":true,"message":""},"data":{"meta":{"total":212844,"page":1607,"pages":7095,"count":30},"values":[{"id":495955,"code":"NGIC202106299-0004","latitude":"32.997325","longitude":"130.42741944444","source_code":"","project_name":"\u4ee4\u548c3\u5e74\u5ea6  \u6709\u660e\u6d77\u6cbf\u5cb8\u9053\u8def\u5927\u5cf6\u9ad8\u67b6\u6a4b\u5730\u8cea\u8abf\u67fb\uff08\u305d\u306e1\uff09\u696d\u52d9","survey_name":"\u4ee4\u548c3\u5e74\u5ea6  \u6709\u660e\u6d77\u6cbf\u5cb8\u9053\u8def\u5927\u5cf6\u9ad8\u67b6\u6a4b\u5730\u8cea\u8abf\u67fb\uff08\u305d\u306e1\uff09\u696d\u52d9","client_name":"\u56fd\u571f\u4ea4\u901a\u7701\u4e5d\u5dde\u5730\u65b9\u6574\u5099\u5c40\u6709\u660e\u6d77\u6cbf\u5cb8\u56fd\u9053\u4e8b\u52d9\u6240","boring_xml_url":47,"boring_view_url":1,"soilmap_view_url":null,"soiltest_xml_url":47,"soiltest_view_url":47},{"id":495954,"code":"NGIC202106299-0003","latitude":"32.99745","longitude":"130.42722777778","source_code":"","project_name":"\u4ee4\u548c3\u5e74\u5ea6  \u6709\u660e\u6d77\u6cbf\u5cb8\u9053\u8def\u5927\u5cf6\u9ad8\u67b6\u6a4b\u5730\u8cea\u8abf\u67fb\uff08\u305d\u306e1\uff09\u696d\u52d9","survey_name":"\u4ee4\u548c3\u5e74\u5ea6  \u6709\u660e\u6d77\u6cbf\u5cb8\u9053\u8def\u5927\u5cf6\u9ad8\u67b6\u6a4b\u5730\u8cea\u8abf\u67fb\uff08\u305d\u306e1\uff09\u696d\u52d9","client_name":"\u56fd\u571f\u4ea4\u901a\u7701\u4e5d\u5dde\u5730\u65b9\u6574\u5099\u5c40\u6709\u660e\u6d77\u6cbf\u5cb8\u56fd\u9053\u4e8b\u52d9\u6240","boring_xml_url":47,"boring_view_url":1,"soilmap_view_url":null,"soiltest_xml_url":47,"soiltest_view_url":47},{"id":495953,"code":"NGIC202106299-0002","latitude":"32.998183333333","longitude":"130.42676111111","source_code":"","project_name":"\u4ee4\u548c3\u5e74\u5ea6  \u6709\u660e\u6d77\u6cbf\u5cb8\u9053\u8def\u5927\u5cf6\u9ad8\u67b6\u6a4b\u5730\u8cea\u8abf\u67fb\uff08\u305d\u306e1\uff09\u696d\u52d9","survey_name":"\u4ee4\u548c3\u5e74\u5ea6  \u6709\u660e\u6d77\u6cbf\u5cb8\u9053\u8def\u5927\u5cf6\u9ad8\u67b6\u6a4b\u5730\u8cea\u8abf\u67fb\uff08\u305d\u306e1\uff09\u696d\u52d9","client_name":"\u56fd\u571f\u4ea4\u901a\u7701\u4e5d\u5dde\u5730\u65b9\u6574\u5099\u5c40\u6709\u660e\u6d77\u6cbf\u5cb8\u56fd\u9053\u4e8b\u52d9\u6240","boring_xml_url":47,"boring_view_url":1,"soilmap_view_url":null,"soiltest_xml_url":47,"soiltest_view_url":47},{"id":495952,"code":"NGIC202106299-0001","latitude":"32.999936111111","longitude":"130.42541944444","source_code":"","project_name":"\u4ee4\u548c3\u5e74\u5ea6  \u6709\u660e\u6d77\u6cbf\u5cb8\u9053\u8def\u5927\u5cf6\u9ad8\u67b6\u6a4b\u5730\u8cea\u8abf\u67fb\uff08\u305d\u306e1\uff09\u696d\u52d9","survey_name":"\u4ee4\u548c3\u5e74\u5ea6  \u6709\u660e\u6d77\u6cbf\u5cb8\u9053\u8def\u5927\u5cf6\u9ad8\u67b6\u6a4b\u5730\u8cea\u8abf\u67fb\uff08\u305d\u306e1\uff09\u696d\u52d9","client_name":"\u56fd\u571f\u4ea4\u901a\u7701\u4e5d\u5dde\u5730\u65b9\u6574\u5099\u5c40\u6709\u660e\u6d77\u6cbf\u5cb8\u56fd\u9053\u4e8b\u52d9\u6240","boring_xml_url":47,"boring_view_url":1,"soilmap_view_url":null,"soiltest_xml_url":47,"soiltest_view_url":47},{"id":495942,"code":"NGIC202200103-0004","latitude":"36.562941638889","longitude":"137.00279944444","source_code":"","project_name":"\u56fd\u9053156\u53f7\u5c0f\u7267\u5730\u533a\u5730\u8cea\u8abf\u67fb","survey_name":"\u4ee4\u548c3\u5e74\u5ea6\u5bcc\u5c71\u7ba1\u5185\u9053\u8def\u5730\u8cea\u8abf\u67fb\u696d\u52d9","client_name":"\u56fd\u571f\u4ea4\u901a\u7701\u5317\u9678\u5730\u65b9\u6574\u5099\u5c40\u5bcc\u5c71\u6cb3\u5ddd\u56fd\u9053\u4e8b\u52d9\u6240","boring_xml_url":47,"boring_view_url":1,"soilmap_view_url":null,"soiltest_xml_url":0,"soiltest_view_url":0},{"id":495941,"code":"NGIC202200103-0003","latitude":"36.562628583333","longitude":"137.00271894444","source_code":"","project_name":"\u56fd\u9053156\u53f7\u5c0f\u7267\u5730\u533a\u5730\u8cea\u8abf\u67fb","survey_name":"\u4ee4\u548c3\u5e74\u5ea6\u5bcc\u5c71\u7ba1\u5185\u9053\u8def\u5730\u8cea\u8abf\u67fb\u696d\u52d9","client_name":"\u56fd\u571f\u4ea4\u901a\u7701\u5317\u9678\u5730\u65b9\u6574\u5099\u5c40\u5bcc\u5c71\u6cb3\u5ddd\u56fd\u9053\u4e8b\u52d9\u6240","boring_xml_url":47,"boring_view_url":1,"soilmap_view_url":null,"soiltest_xml_url":0,"soiltest_view_url":0},{"id":495940,"code":"NGIC202200103-0002","latitude":"36.562871777778","longitude":"137.00297797222","source_code":"","project_name":"\u56fd\u9053156\u53f7\u5c0f\u7267\u5730\u533a\u5730\u8cea\u8abf\u67fb","survey_name":"\u4ee4\u548c3\u5e74\u5ea6\u5bcc\u5c71\u7ba1\u5185\u9053\u8def\u5730\u8cea\u8abf\u67fb\u696d\u52d9","client_name":"\u56fd\u571f\u4ea4\u901a\u7701\u5317\u9678\u5730\u65b9\u6574\u5099\u5c40\u5bcc\u5c71\u6cb3\u5ddd\u56fd\u9053\u4e8b\u52d9\u6240","boring_xml_url":47,"boring_view_url":1,"soilmap_view_url":null,"soiltest_xml_url":0,"soiltest_view_url":0},{"id":495939,"code":"NGIC202200103-0001","latitude":"36.562594527778","longitude":"137.00286463889","source_code":"","project_name":"\u56fd\u9053156\u53f7\u5c0f\u7267\u5730\u533a\u5730\u8cea\u8abf\u67fb","survey_name":"\u4ee4\u548c3\u5e74\u5ea6\u5bcc\u5c71\u7ba1\u5185\u9053\u8def\u5730\u8cea\u8abf\u67fb\u696d\u52d9","client_name":"\u56fd\u571f\u4ea4\u901a\u7701\u5317\u9678\u5730\u65b9\u6574\u5099\u5c40\u5bcc\u5c71\u6cb3\u5ddd\u56fd\u9053\u4e8b\u52d9\u6240","boring_xml_url":47,"boring_view_url":1,"soilmap_view_url":null,"soiltest_xml_url":0,"soiltest_view_url":0},{"id":495938,"code":"NGIC202106450-0001","latitude":"34.131147222222","longitude":"133.69255833333","source_code":"","project_name":"","survey_name":"\u4ee4\u548c3\u5e74\u5ea6\u9999\u5ddd\u7ba1\u5185\u5730\u4e0b\u6c34\u8abf\u67fb\u696d\u52d9","client_name":"\u56fd\u571f\u4ea4\u901a\u7701\u56db\u56fd\u5730\u65b9\u6574\u5099\u5c40\u9999\u5ddd\u6cb3\u5ddd\u56fd\u9053\u4e8b\u52d9\u6240","boring_xml_url":47,"boring_view_url":1,"soilmap_view_url":null,"soiltest_xml_url":47,"soiltest_view_url":47},{"id":495932,"code":"NGIC202106416-0011","latitude":"32.265615166667","longitude":"130.62064483333","source_code":"","project_name":"","survey_name":"\u4ee4\u548c3\u5e74\u5ea6 \u56fd\u9053219\u53f7\u5916\u707d\u5bb3\u5fa9\u65e7\u677e\u672c\u6a4b\u5916\u5730\u8cea\u8abf\u67fb\u696d\u52d9","client_name":"\u56fd\u571f\u4ea4\u901a\u7701\u4e5d\u5dde\u5730\u65b9\u6574\u5099\u5c40\u516b\u4ee3\u5fa9\u8208\u4e8b\u52d9\u6240","boring_xml_url":47,"boring_view_url":1,"soilmap_view_url":null,"soiltest_xml_url":47,"soiltest_view_url":47},{"id":495931,"code":"NGIC202106416-0010","latitude":"32.225538222222","longitude":"130.71337663889","source_code":"","project_name":"","survey_name":"\u4ee4\u548c3\u5e74\u5ea6 \u56fd\u9053219\u53f7\u5916\u707d\u5bb3\u5fa9\u65e7\u677e\u672c\u6a4b\u5916\u5730\u8cea\u8abf\u67fb\u696d\u52d9","client_name":"\u56fd\u571f\u4ea4\u901a\u7701\u4e5d\u5dde\u5730\u65b9\u6574\u5099\u5c40\u516b\u4ee3\u5fa9\u8208\u4e8b\u52d9\u6240","boring_xml_url":47,"boring_view_url":1,"soilmap_view_url":null,"soiltest_xml_url":0,"soiltest_view_url":0},{"id":495930,"code":"NGIC202106416-0009","latitude":"32.225313694444","longitude":"130.71286719444","source_code":"","project_name":"","survey_name":"\u4ee4\u548c3\u5e74\u5ea6 \u56fd\u9053219\u53f7\u5916\u707d\u5bb3\u5fa9\u65e7\u677e\u672c\u6a4b\u5916\u5730\u8cea\u8abf\u67fb\u696d\u52d9","client_name":"\u56fd\u571f\u4ea4\u901a\u7701\u4e5d\u5dde\u5730\u65b9\u6574\u5099\u5c40\u516b\u4ee3\u5fa9\u8208\u4e8b\u52d9\u6240","boring_xml_url":47,"boring_view_url":1,"soilmap_view_url":null,"soiltest_xml_url":47,"soiltest_view_url":47},{"id":495929,"code":"NGIC202106416-0008","latitude":"32.229425444444","longitude":"130.70117008333","source_code":"","project_name":"","survey_name":"\u4ee4\u548c3\u5e74\u5ea6 \u56fd\u9053219\u53f7\u5916\u707d\u5bb3\u5fa9\u65e7\u677e\u672c\u6a4b\u5916\u5730\u8cea\u8abf\u67fb\u696d\u52d9","client_name":"\u56fd\u571f\u4ea4\u901a\u7701\u4e5d\u5dde\u5730\u65b9\u6574\u5099\u5c40\u516b\u4ee3\u5fa9\u8208\u4e8b\u52d9\u6240","boring_xml_url":47,"boring_view_url":1,"soilmap_view_url":null,"soiltest_xml_url":47,"soiltest_view_url":47},{"id":495928,"code":"NGIC202106416-0007","latitude":"32.266253138889","longitude":"130.62087627778","source_code":"","project_name":"","survey_name":"\u4ee4\u548c3\u5e74\u5ea6 \u56fd\u9053219\u53f7\u5916\u707d\u5bb3\u5fa9\u65e7\u677e\u672c\u6a4b\u5916\u5730\u8cea\u8abf\u67fb\u696d\u52d9","client_name":"\u56fd\u571f\u4ea4\u901a\u7701\u4e5d\u5dde\u5730\u65b9\u6574\u5099\u5c40\u516b\u4ee3\u5fa9\u8208\u4e8b\u52d9\u6240","boring_xml_url":47,"boring_view_url":1,"soilmap_view_url":null,"soiltest_xml_url":0,"soiltest_view_url":0},{"id":495927,"code":"NGIC202106416-0006","latitude":"32.266191722222","longitude":"130.620899","source_code":"","project_name":"","survey_name":"\u4ee4\u548c3\u5e74\u5ea6 \u56fd\u9053219\u53f7\u5916\u707d\u5bb3\u5fa9\u65e7\u677e\u672c\u6a4b\u5916\u5730\u8cea\u8abf\u67fb\u696d\u52d9","client_name":"\u56fd\u571f\u4ea4\u901a\u7701\u4e5d\u5dde\u5730\u65b9\u6574\u5099\u5c40\u516b\u4ee3\u5fa9\u8208\u4e8b\u52d9\u6240","boring_xml_url":47,"boring_view_url":1,"soilmap_view_url":null,"soiltest_xml_url":47,"soiltest_view_url":47},{"id":495926,"code":"NGIC202106416-0005","latitude":"32.265610305556","longitude":"130.62054858333","source_code":"","project_name":"","survey_name":"\u4ee4\u548c3\u5e74\u5ea6 \u56fd\u9053219\u53f7\u5916\u707d\u5bb3\u5fa9\u65e7\u677e\u672c\u6a4b\u5916\u5730\u8cea\u8abf\u67fb\u696d\u52d9","client_name":"\u56fd\u571f\u4ea4\u901a\u7701\u4e5d\u5dde\u5730\u65b9\u6574\u5099\u5c40\u516b\u4ee3\u5fa9\u8208\u4e8b\u52d9\u6240","boring_xml_url":47,"boring_view_url":1,"soilmap_view_url":null,"soiltest_xml_url":0,"soiltest_view_url":0},{"id":495925,"code":"NGIC202106416-0004","latitude":"32.265104166667","longitude":"130.62019386111","source_code":"","project_name":"","survey_name":"\u4ee4\u548c3\u5e74\u5ea6 \u56fd\u9053219\u53f7\u5916\u707d\u5bb3\u5fa9\u65e7\u677e\u672c\u6a4b\u5916\u5730\u8cea\u8abf\u67fb\u696d\u52d9","client_name":"\u56fd\u571f\u4ea4\u901a\u7701\u4e5d\u5dde\u5730\u65b9\u6574\u5099\u5c40\u516b\u4ee3\u5fa9\u8208\u4e8b\u52d9\u6240","boring_xml_url":47,"boring_view_url":1,"soilmap_view_url":null,"soiltest_xml_url":47,"soiltest_view_url":47},{"id":495924,"code":"NGIC202106416-0003","latitude":"32.26497375","longitude":"130.62023863889","source_code":"","project_name":"","survey_name":"\u4ee4\u548c3\u5e74\u5ea6 \u56fd\u9053219\u53f7\u5916\u707d\u5bb3\u5fa9\u65e7\u677e\u672c\u6a4b\u5916\u5730\u8cea\u8abf\u67fb\u696d\u52d9","client_name":"\u56fd\u571f\u4ea4\u901a\u7701\u4e5d\u5dde\u5730\u65b9\u6574\u5099\u5c40\u516b\u4ee3\u5fa9\u8208\u4e8b\u52d9\u6240","boring_xml_url":47,"boring_view_url":1,"soilmap_view_url":null,"soiltest_xml_url":47,"soiltest_view_url":47},{"id":495923,"code":"NGIC202106416-0002","latitude":"32.283450111111","longitude":"130.60444680556","source_code":"","project_name":"","survey_name":"\u4ee4\u548c3\u5e74\u5ea6 \u56fd\u9053219\u53f7\u5916\u707d\u5bb3\u5fa9\u65e7\u677e\u672c\u6a4b\u5916\u5730\u8cea\u8abf\u67fb\u696d\u52d9","client_name":"\u56fd\u571f\u4ea4\u901a\u7701\u4e5d\u5dde\u5730\u65b9\u6574\u5099\u5c40\u516b\u4ee3\u5fa9\u8208\u4e8b\u52d9\u6240","boring_xml_url":47,"boring_view_url":1,"soilmap_view_url":null,"soiltest_xml_url":47,"soiltest_view_url":47},{"id":495922,"code":"NGIC202106416-0001","latitude":"32.283968611111","longitude":"130.60330736111","source_code":"","project_name":"","survey_name":"\u4ee4\u548c3\u5e74\u5ea6 \u56fd\u9053219\u53f7\u5916\u707d\u5bb3\u5fa9\u65e7\u677e\u672c\u6a4b\u5916\u5730\u8cea\u8abf\u67fb\u696d\u52d9","client_name":"\u56fd\u571f\u4ea4\u901a\u7701\u4e5d\u5dde\u5730\u65b9\u6574\u5099\u5c40\u516b\u4ee3\u5fa9\u8208\u4e8b\u52d9\u6240","boring_xml_url":47,"boring_view_url":1,"soilmap_view_url":null,"soiltest_xml_url":47,"soiltest_view_url":47},{"id":495902,"code":"NGIC202200051-0009","latitude":"34.679650138889","longitude":"135.81097097222","source_code":"","project_name":"\u5927\u548c\u5317\u9053\u8def","survey_name":"\u5927\u548c\u5317\u9053\u8def\u5948\u826f\u5e02\u5317\u90e8\u5730\u57df\u5730\u8cea\u8abf\u67fb\u696d\u52d9","client_name":"\u56fd\u571f\u4ea4\u901a\u7701\u8fd1\u757f\u5730\u65b9\u6574\u5099\u5c40\u5948\u826f\u56fd\u9053\u4e8b\u52d9\u6240","boring_xml_url":47,"boring_view_url":1,"soilmap_view_url":null,"soiltest_xml_url":0,"soiltest_view_url":0},{"id":495901,"code":"NGIC202200051-0008","latitude":"34.679661777778","longitude":"135.81097452778","source_code":"","project_name":"\u5927\u548c\u5317\u9053\u8def","survey_name":"\u5927\u548c\u5317\u9053\u8def\u5948\u826f\u5e02\u5317\u90e8\u5730\u57df\u5730\u8cea\u8abf\u67fb\u696d\u52d9","client_name":"\u56fd\u571f\u4ea4\u901a\u7701\u8fd1\u757f\u5730\u65b9\u6574\u5099\u5c40\u5948\u826f\u56fd\u9053\u4e8b\u52d9\u6240","boring_xml_url":47,"boring_view_url":1,"soilmap_view_url":null,"soiltest_xml_url":0,"soiltest_view_url":0},{"id":495900,"code":"NGIC202200051-0007","latitude":"34.679661777778","longitude":"135.81097794444","source_code":"","project_name":"\u5927\u548c\u5317\u9053\u8def","survey_name":"\u5927\u548c\u5317\u9053\u8def\u5948\u826f\u5e02\u5317\u90e8\u5730\u57df\u5730\u8cea\u8abf\u67fb\u696d\u52d9","client_name":"\u56fd\u571f\u4ea4\u901a\u7701\u8fd1\u757f\u5730\u65b9\u6574\u5099\u5c40\u5948\u826f\u56fd\u9053\u4e8b\u52d9\u6240","boring_xml_url":47,"boring_view_url":1,"soilmap_view_url":null,"soiltest_xml_url":47,"soiltest_view_url":47},{"id":495899,"code":"NGIC202200051-0006","latitude":"34.688635555556","longitude":"135.81059122222","source_code":"","project_name":"\u5927\u548c\u5317\u9053\u8def","survey_name":"\u5927\u548c\u5317\u9053\u8def\u5948\u826f\u5e02\u5317\u90e8\u5730\u57df\u5730\u8cea\u8abf\u67fb\u696d\u52d9","client_name":"\u56fd\u571f\u4ea4\u901a\u7701\u8fd1\u757f\u5730\u65b9\u6574\u5099\u5c40\u5948\u826f\u56fd\u9053\u4e8b\u52d9\u6240","boring_xml_url":47,"boring_view_url":1,"soilmap_view_url":null,"soiltest_xml_url":0,"soiltest_view_url":0},{"id":495898,"code":"NGIC202200051-0005","latitude":"34.688640666667","longitude":"135.81059672222","source_code":"","project_name":"\u5927\u548c\u5317\u9053\u8def","survey_name":"\u5927\u548c\u5317\u9053\u8def\u5948\u826f\u5e02\u5317\u90e8\u5730\u57df\u5730\u8cea\u8abf\u67fb\u696d\u52d9","client_name":"\u56fd\u571f\u4ea4\u901a\u7701\u8fd1\u757f\u5730\u65b9\u6574\u5099\u5c40\u5948\u826f\u56fd\u9053\u4e8b\u52d9\u6240","boring_xml_url":47,"boring_view_url":1,"soilmap_view_url":null,"soiltest_xml_url":0,"soiltest_view_url":0},{"id":495897,"code":"NGIC202200051-0004","latitude":"34.688644222222","longitude":"135.81060327778","source_code":"","project_name":"\u5927\u548c\u5317\u9053\u8def","survey_name":"\u5927\u548c\u5317\u9053\u8def\u5948\u826f\u5e02\u5317\u90e8\u5730\u57df\u5730\u8cea\u8abf\u67fb\u696d\u52d9","client_name":"\u56fd\u571f\u4ea4\u901a\u7701\u8fd1\u757f\u5730\u65b9\u6574\u5099\u5c40\u5948\u826f\u56fd\u9053\u4e8b\u52d9\u6240","boring_xml_url":47,"boring_view_url":1,"soilmap_view_url":null,"soiltest_xml_url":47,"soiltest_view_url":47},{"id":495896,"code":"NGIC202200051-0003","latitude":"34.691814555556","longitude":"135.80996436111","source_code":"","project_name":"\u5927\u548c\u5317\u9053\u8def","survey_name":"\u5927\u548c\u5317\u9053\u8def\u5948\u826f\u5e02\u5317\u90e8\u5730\u57df\u5730\u8cea\u8abf\u67fb\u696d\u52d9","client_name":"\u56fd\u571f\u4ea4\u901a\u7701\u8fd1\u757f\u5730\u65b9\u6574\u5099\u5c40\u5948\u826f\u56fd\u9053\u4e8b\u52d9\u6240","boring_xml_url":47,"boring_view_url":1,"soilmap_view_url":null,"soiltest_xml_url":0,"soiltest_view_url":0},{"id":495895,"code":"NGIC202200051-0002","latitude":"34.69182075","longitude":"135.80996394444","source_code":"","project_name":"\u5927\u548c\u5317\u9053\u8def","survey_name":"\u5927\u548c\u5317\u9053\u8def\u5948\u826f\u5e02\u5317\u90e8\u5730\u57df\u5730\u8cea\u8abf\u67fb\u696d\u52d9","client_name":"\u56fd\u571f\u4ea4\u901a\u7701\u8fd1\u757f\u5730\u65b9\u6574\u5099\u5c40\u5948\u826f\u56fd\u9053\u4e8b\u52d9\u6240","boring_xml_url":47,"boring_view_url":1,"soilmap_view_url":null,"soiltest_xml_url":0,"soiltest_view_url":0},{"id":495894,"code":"NGIC202200051-0001","latitude":"34.691828583333","longitude":"135.80996288889","source_code":"","project_name":"\u5927\u548c\u5317\u9053\u8def","survey_name":"\u5927\u548c\u5317\u9053\u8def\u5948\u826f\u5e02\u5317\u90e8\u5730\u57df\u5730\u8cea\u8abf\u67fb\u696d\u52d9","client_name":"\u56fd\u571f\u4ea4\u901a\u7701\u8fd1\u757f\u5730\u65b9\u6574\u5099\u5c40\u5948\u826f\u56fd\u9053\u4e8b\u52d9\u6240","boring_xml_url":47,"boring_view_url":1,"soilmap_view_url":null,"soiltest_xml_url":47,"soiltest_view_url":47},{"id":495890,"code":"NGIC202200048-0006","latitude":"33.722459","longitude":"136.00564430556","source_code":"","project_name":"","survey_name":"\u65b0\u5bae\u9053\u8def\u738b\u5b50\u5730\u533a\u4ed6\u5730\u8cea\u8abf\u67fb\u696d\u52d9","client_name":"\u56fd\u571f\u4ea4\u901a\u7701\u8fd1\u757f\u5730\u65b9\u6574\u5099\u5c40\u7d00\u5357\u6cb3\u5ddd\u56fd\u9053\u4e8b\u52d9\u6240","boring_xml_url":47,"boring_view_url":1,"soilmap_view_url":null,"soiltest_xml_url":47,"soiltest_view_url":47}]}}