{"header":{"xyz":{"source":[],"mosaic":false},"page":1615,"raw":{"soiltest_result":"0","bbox":"57.598333,109.544722,1.933333,163.806111","page":"1615"},"conditions":{"soiltest_result":0,"north":57.598333,"west":109.544722,"south":1.933333,"east":163.806111},"success":true,"message":""},"data":{"meta":{"total":212844,"page":1615,"pages":7095,"count":30},"values":[{"id":495195,"code":"NGIC202106330-0014","latitude":"33.208900166667","longitude":"130.09899208333","source_code":"","project_name":"","survey_name":"\u4ee4\u548c3\u5e74\u5ea6 \u516d\u89d2\u5ddd\u6c34\u7cfb\u5730\u8cea\u8abf\u67fb\uff08\u305d\u306e2\uff09\u696d\u52d9","client_name":"\u56fd\u571f\u4ea4\u901a\u7701\u4e5d\u5dde\u5730\u65b9\u6574\u5099\u5c40\u6b66\u96c4\u6cb3\u5ddd\u4e8b\u52d9\u6240","boring_xml_url":47,"boring_view_url":1,"soilmap_view_url":null,"soiltest_xml_url":47,"soiltest_view_url":47},{"id":495194,"code":"NGIC202106330-0013","latitude":"33.192206805556","longitude":"130.16855691667","source_code":"","project_name":"","survey_name":"\u4ee4\u548c3\u5e74\u5ea6 \u516d\u89d2\u5ddd\u6c34\u7cfb\u5730\u8cea\u8abf\u67fb\uff08\u305d\u306e2\uff09\u696d\u52d9","client_name":"\u56fd\u571f\u4ea4\u901a\u7701\u4e5d\u5dde\u5730\u65b9\u6574\u5099\u5c40\u6b66\u96c4\u6cb3\u5ddd\u4e8b\u52d9\u6240","boring_xml_url":47,"boring_view_url":1,"soilmap_view_url":null,"soiltest_xml_url":47,"soiltest_view_url":47},{"id":495193,"code":"NGIC202106330-0012","latitude":"33.192224722222","longitude":"130.16849377778","source_code":"","project_name":"","survey_name":"\u4ee4\u548c3\u5e74\u5ea6 \u516d\u89d2\u5ddd\u6c34\u7cfb\u5730\u8cea\u8abf\u67fb\uff08\u305d\u306e2\uff09\u696d\u52d9","client_name":"\u56fd\u571f\u4ea4\u901a\u7701\u4e5d\u5dde\u5730\u65b9\u6574\u5099\u5c40\u6b66\u96c4\u6cb3\u5ddd\u4e8b\u52d9\u6240","boring_xml_url":47,"boring_view_url":1,"soilmap_view_url":null,"soiltest_xml_url":47,"soiltest_view_url":47},{"id":495192,"code":"NGIC202106330-0011","latitude":"33.192258638889","longitude":"130.16832044444","source_code":"","project_name":"","survey_name":"\u4ee4\u548c3\u5e74\u5ea6 \u516d\u89d2\u5ddd\u6c34\u7cfb\u5730\u8cea\u8abf\u67fb\uff08\u305d\u306e2\uff09\u696d\u52d9","client_name":"\u56fd\u571f\u4ea4\u901a\u7701\u4e5d\u5dde\u5730\u65b9\u6574\u5099\u5c40\u6b66\u96c4\u6cb3\u5ddd\u4e8b\u52d9\u6240","boring_xml_url":47,"boring_view_url":1,"soilmap_view_url":null,"soiltest_xml_url":47,"soiltest_view_url":47},{"id":495191,"code":"NGIC202106330-0010","latitude":"33.192299638889","longitude":"130.16822427778","source_code":"","project_name":"","survey_name":"\u4ee4\u548c3\u5e74\u5ea6 \u516d\u89d2\u5ddd\u6c34\u7cfb\u5730\u8cea\u8abf\u67fb\uff08\u305d\u306e2\uff09\u696d\u52d9","client_name":"\u56fd\u571f\u4ea4\u901a\u7701\u4e5d\u5dde\u5730\u65b9\u6574\u5099\u5c40\u6b66\u96c4\u6cb3\u5ddd\u4e8b\u52d9\u6240","boring_xml_url":47,"boring_view_url":1,"soilmap_view_url":null,"soiltest_xml_url":47,"soiltest_view_url":47},{"id":495190,"code":"NGIC202106330-0009","latitude":"33.192390138889","longitude":"130.16792708333","source_code":"","project_name":"","survey_name":"\u4ee4\u548c3\u5e74\u5ea6 \u516d\u89d2\u5ddd\u6c34\u7cfb\u5730\u8cea\u8abf\u67fb\uff08\u305d\u306e2\uff09\u696d\u52d9","client_name":"\u56fd\u571f\u4ea4\u901a\u7701\u4e5d\u5dde\u5730\u65b9\u6574\u5099\u5c40\u6b66\u96c4\u6cb3\u5ddd\u4e8b\u52d9\u6240","boring_xml_url":47,"boring_view_url":1,"soilmap_view_url":null,"soiltest_xml_url":47,"soiltest_view_url":47},{"id":495189,"code":"NGIC202106330-0008","latitude":"33.19432925","longitude":"130.16896666667","source_code":"","project_name":"","survey_name":"\u4ee4\u548c3\u5e74\u5ea6 \u516d\u89d2\u5ddd\u6c34\u7cfb\u5730\u8cea\u8abf\u67fb\uff08\u305d\u306e2\uff09\u696d\u52d9","client_name":"\u56fd\u571f\u4ea4\u901a\u7701\u4e5d\u5dde\u5730\u65b9\u6574\u5099\u5c40\u6b66\u96c4\u6cb3\u5ddd\u4e8b\u52d9\u6240","boring_xml_url":47,"boring_view_url":1,"soilmap_view_url":null,"soiltest_xml_url":47,"soiltest_view_url":47},{"id":495188,"code":"NGIC202106330-0007","latitude":"33.194339055556","longitude":"130.16890138889","source_code":"","project_name":"","survey_name":"\u4ee4\u548c3\u5e74\u5ea6 \u516d\u89d2\u5ddd\u6c34\u7cfb\u5730\u8cea\u8abf\u67fb\uff08\u305d\u306e2\uff09\u696d\u52d9","client_name":"\u56fd\u571f\u4ea4\u901a\u7701\u4e5d\u5dde\u5730\u65b9\u6574\u5099\u5c40\u6b66\u96c4\u6cb3\u5ddd\u4e8b\u52d9\u6240","boring_xml_url":47,"boring_view_url":1,"soilmap_view_url":null,"soiltest_xml_url":47,"soiltest_view_url":47},{"id":495187,"code":"NGIC202106330-0006","latitude":"33.194337194444","longitude":"130.16872594444","source_code":"","project_name":"","survey_name":"\u4ee4\u548c3\u5e74\u5ea6 \u516d\u89d2\u5ddd\u6c34\u7cfb\u5730\u8cea\u8abf\u67fb\uff08\u305d\u306e2\uff09\u696d\u52d9","client_name":"\u56fd\u571f\u4ea4\u901a\u7701\u4e5d\u5dde\u5730\u65b9\u6574\u5099\u5c40\u6b66\u96c4\u6cb3\u5ddd\u4e8b\u52d9\u6240","boring_xml_url":47,"boring_view_url":1,"soilmap_view_url":null,"soiltest_xml_url":47,"soiltest_view_url":47},{"id":495186,"code":"NGIC202106330-0005","latitude":"33.19436375","longitude":"130.16860886111","source_code":"","project_name":"","survey_name":"\u4ee4\u548c3\u5e74\u5ea6 \u516d\u89d2\u5ddd\u6c34\u7cfb\u5730\u8cea\u8abf\u67fb\uff08\u305d\u306e2\uff09\u696d\u52d9","client_name":"\u56fd\u571f\u4ea4\u901a\u7701\u4e5d\u5dde\u5730\u65b9\u6574\u5099\u5c40\u6b66\u96c4\u6cb3\u5ddd\u4e8b\u52d9\u6240","boring_xml_url":47,"boring_view_url":1,"soilmap_view_url":null,"soiltest_xml_url":47,"soiltest_view_url":47},{"id":495185,"code":"NGIC202106330-0004","latitude":"33.194378416667","longitude":"130.16847866667","source_code":"","project_name":"","survey_name":"\u4ee4\u548c3\u5e74\u5ea6 \u516d\u89d2\u5ddd\u6c34\u7cfb\u5730\u8cea\u8abf\u67fb\uff08\u305d\u306e2\uff09\u696d\u52d9","client_name":"\u56fd\u571f\u4ea4\u901a\u7701\u4e5d\u5dde\u5730\u65b9\u6574\u5099\u5c40\u6b66\u96c4\u6cb3\u5ddd\u4e8b\u52d9\u6240","boring_xml_url":47,"boring_view_url":1,"soilmap_view_url":null,"soiltest_xml_url":47,"soiltest_view_url":47},{"id":495184,"code":"NGIC202106330-0003","latitude":"33.201699166667","longitude":"130.18622569444","source_code":"","project_name":"","survey_name":"\u4ee4\u548c3\u5e74\u5ea6 \u516d\u89d2\u5ddd\u6c34\u7cfb\u5730\u8cea\u8abf\u67fb\uff08\u305d\u306e2\uff09\u696d\u52d9","client_name":"\u56fd\u571f\u4ea4\u901a\u7701\u4e5d\u5dde\u5730\u65b9\u6574\u5099\u5c40\u6b66\u96c4\u6cb3\u5ddd\u4e8b\u52d9\u6240","boring_xml_url":47,"boring_view_url":1,"soilmap_view_url":null,"soiltest_xml_url":47,"soiltest_view_url":47},{"id":495183,"code":"NGIC202106330-0002","latitude":"33.201772277778","longitude":"130.18605280556","source_code":"","project_name":"","survey_name":"\u4ee4\u548c3\u5e74\u5ea6 \u516d\u89d2\u5ddd\u6c34\u7cfb\u5730\u8cea\u8abf\u67fb\uff08\u305d\u306e2\uff09\u696d\u52d9","client_name":"\u56fd\u571f\u4ea4\u901a\u7701\u4e5d\u5dde\u5730\u65b9\u6574\u5099\u5c40\u6b66\u96c4\u6cb3\u5ddd\u4e8b\u52d9\u6240","boring_xml_url":47,"boring_view_url":1,"soilmap_view_url":null,"soiltest_xml_url":47,"soiltest_view_url":47},{"id":495182,"code":"NGIC202106330-0001","latitude":"33.201945111111","longitude":"130.18580194444","source_code":"","project_name":"","survey_name":"\u4ee4\u548c3\u5e74\u5ea6 \u516d\u89d2\u5ddd\u6c34\u7cfb\u5730\u8cea\u8abf\u67fb\uff08\u305d\u306e2\uff09\u696d\u52d9","client_name":"\u56fd\u571f\u4ea4\u901a\u7701\u4e5d\u5dde\u5730\u65b9\u6574\u5099\u5c40\u6b66\u96c4\u6cb3\u5ddd\u4e8b\u52d9\u6240","boring_xml_url":47,"boring_view_url":1,"soilmap_view_url":null,"soiltest_xml_url":47,"soiltest_view_url":47},{"id":495156,"code":"NGIC202200004-0002","latitude":"36.726526388889","longitude":"137.22771441667","source_code":"","project_name":"\u56fd\u90538\u53f7\u8c4a\u7530\u65b0\u5c4b\u7acb\u4f53\u5730\u8cea\u8abf\u67fb","survey_name":"\u4ee4\u548c3\u5e74\u5ea6\u5bcc\u5c71\u7ba1\u5185\u9053\u8def\u5730\u8cea\u8abf\u67fb\u696d\u52d9","client_name":"\u56fd\u571f\u4ea4\u901a\u7701\u5317\u9678\u5730\u65b9\u6574\u5099\u5c40\u5bcc\u5c71\u6cb3\u5ddd\u56fd\u9053\u4e8b\u52d9\u6240","boring_xml_url":47,"boring_view_url":1,"soilmap_view_url":null,"soiltest_xml_url":0,"soiltest_view_url":0},{"id":495155,"code":"NGIC202200004-0001","latitude":"36.722316722222","longitude":"137.24606616667","source_code":"","project_name":"\u56fd\u90538\u53f7\u8c4a\u7530\u65b0\u5c4b\u7acb\u4f53\u5730\u8cea\u8abf\u67fb","survey_name":"\u4ee4\u548c3\u5e74\u5ea6\u5bcc\u5c71\u7ba1\u5185\u9053\u8def\u5730\u8cea\u8abf\u67fb\u696d\u52d9","client_name":"\u56fd\u571f\u4ea4\u901a\u7701\u5317\u9678\u5730\u65b9\u6574\u5099\u5c40\u5bcc\u5c71\u6cb3\u5ddd\u56fd\u9053\u4e8b\u52d9\u6240","boring_xml_url":47,"boring_view_url":1,"soilmap_view_url":null,"soiltest_xml_url":0,"soiltest_view_url":0},{"id":495154,"code":"NGIC202106390-0012","latitude":"32.308855555556","longitude":"130.61277777778","source_code":"","project_name":"","survey_name":"\u4ee4\u548c3\u5e74\u5ea6\u56fd\u9053219\u53f7\u5916\u707d\u5bb3\u5fa9\u65e7\u795e\u702c\u6a4b\u5916\u5730\u8cea\u8abf\u67fb\u696d\u52d9","client_name":"\u56fd\u571f\u4ea4\u901a\u7701\u4e5d\u5dde\u5730\u65b9\u6574\u5099\u5c40\u516b\u4ee3\u5fa9\u8208\u4e8b\u52d9\u6240\u5de5\u52d9\u7b2c\u4e09\u8ab2","boring_xml_url":47,"boring_view_url":1,"soilmap_view_url":null,"soiltest_xml_url":47,"soiltest_view_url":47},{"id":495153,"code":"NGIC202106390-0011","latitude":"32.308913888889","longitude":"130.61261111111","source_code":"","project_name":"","survey_name":"\u4ee4\u548c3\u5e74\u5ea6\u56fd\u9053219\u53f7\u5916\u707d\u5bb3\u5fa9\u65e7\u795e\u702c\u6a4b\u5916\u5730\u8cea\u8abf\u67fb\u696d\u52d9","client_name":"\u56fd\u571f\u4ea4\u901a\u7701\u4e5d\u5dde\u5730\u65b9\u6574\u5099\u5c40\u516b\u4ee3\u5fa9\u8208\u4e8b\u52d9\u6240\u5de5\u52d9\u7b2c\u4e09\u8ab2","boring_xml_url":47,"boring_view_url":1,"soilmap_view_url":null,"soiltest_xml_url":47,"soiltest_view_url":47},{"id":495152,"code":"NGIC202106390-0010","latitude":"32.309336111111","longitude":"130.61139166667","source_code":"","project_name":"","survey_name":"\u4ee4\u548c3\u5e74\u5ea6\u56fd\u9053219\u53f7\u5916\u707d\u5bb3\u5fa9\u65e7\u795e\u702c\u6a4b\u5916\u5730\u8cea\u8abf\u67fb\u696d\u52d9","client_name":"\u56fd\u571f\u4ea4\u901a\u7701\u4e5d\u5dde\u5730\u65b9\u6574\u5099\u5c40\u516b\u4ee3\u5fa9\u8208\u4e8b\u52d9\u6240\u5de5\u52d9\u7b2c\u4e09\u8ab2","boring_xml_url":47,"boring_view_url":1,"soilmap_view_url":null,"soiltest_xml_url":47,"soiltest_view_url":47},{"id":495151,"code":"NGIC202106390-0009","latitude":"32.309327777778","longitude":"130.61125555556","source_code":"","project_name":"","survey_name":"\u4ee4\u548c3\u5e74\u5ea6\u56fd\u9053219\u53f7\u5916\u707d\u5bb3\u5fa9\u65e7\u795e\u702c\u6a4b\u5916\u5730\u8cea\u8abf\u67fb\u696d\u52d9","client_name":"\u56fd\u571f\u4ea4\u901a\u7701\u4e5d\u5dde\u5730\u65b9\u6574\u5099\u5c40\u516b\u4ee3\u5fa9\u8208\u4e8b\u52d9\u6240\u5de5\u52d9\u7b2c\u4e09\u8ab2","boring_xml_url":47,"boring_view_url":1,"soilmap_view_url":null,"soiltest_xml_url":47,"soiltest_view_url":47},{"id":495150,"code":"NGIC202106390-0008","latitude":"32.3836","longitude":"130.6552","source_code":"","project_name":"","survey_name":"\u4ee4\u548c3\u5e74\u5ea6\u56fd\u9053219\u53f7\u5916\u707d\u5bb3\u5fa9\u65e7\u795e\u702c\u6a4b\u5916\u5730\u8cea\u8abf\u67fb\u696d\u52d9","client_name":"\u56fd\u571f\u4ea4\u901a\u7701\u4e5d\u5dde\u5730\u65b9\u6574\u5099\u5c40\u516b\u4ee3\u5fa9\u8208\u4e8b\u52d9\u6240\u5de5\u52d9\u7b2c\u4e09\u8ab2","boring_xml_url":47,"boring_view_url":1,"soilmap_view_url":null,"soiltest_xml_url":47,"soiltest_view_url":47},{"id":495149,"code":"NGIC202106390-0007","latitude":"32.385075","longitude":"130.656475","source_code":"","project_name":"","survey_name":"\u4ee4\u548c3\u5e74\u5ea6\u56fd\u9053219\u53f7\u5916\u707d\u5bb3\u5fa9\u65e7\u795e\u702c\u6a4b\u5916\u5730\u8cea\u8abf\u67fb\u696d\u52d9","client_name":"\u56fd\u571f\u4ea4\u901a\u7701\u4e5d\u5dde\u5730\u65b9\u6574\u5099\u5c40\u516b\u4ee3\u5fa9\u8208\u4e8b\u52d9\u6240\u5de5\u52d9\u7b2c\u4e09\u8ab2","boring_xml_url":47,"boring_view_url":1,"soilmap_view_url":null,"soiltest_xml_url":47,"soiltest_view_url":47},{"id":495148,"code":"NGIC202106390-0006","latitude":"32.438088888889","longitude":"130.65581944444","source_code":"","project_name":"","survey_name":"\u4ee4\u548c3\u5e74\u5ea6\u56fd\u9053219\u53f7\u5916\u707d\u5bb3\u5fa9\u65e7\u795e\u702c\u6a4b\u5916\u5730\u8cea\u8abf\u67fb\u696d\u52d9","client_name":"\u56fd\u571f\u4ea4\u901a\u7701\u4e5d\u5dde\u5730\u65b9\u6574\u5099\u5c40\u516b\u4ee3\u5fa9\u8208\u4e8b\u52d9\u6240\u5de5\u52d9\u7b2c\u4e09\u8ab2","boring_xml_url":47,"boring_view_url":1,"soilmap_view_url":null,"soiltest_xml_url":0,"soiltest_view_url":0},{"id":495147,"code":"NGIC202106390-0005","latitude":"32.436702777778","longitude":"130.657","source_code":"","project_name":"","survey_name":"\u4ee4\u548c3\u5e74\u5ea6\u56fd\u9053219\u53f7\u5916\u707d\u5bb3\u5fa9\u65e7\u795e\u702c\u6a4b\u5916\u5730\u8cea\u8abf\u67fb\u696d\u52d9","client_name":"\u56fd\u571f\u4ea4\u901a\u7701\u4e5d\u5dde\u5730\u65b9\u6574\u5099\u5c40\u516b\u4ee3\u5fa9\u8208\u4e8b\u52d9\u6240\u5de5\u52d9\u7b2c\u4e09\u8ab2","boring_xml_url":47,"boring_view_url":1,"soilmap_view_url":null,"soiltest_xml_url":47,"soiltest_view_url":47},{"id":495146,"code":"NGIC202106390-0004","latitude":"32.436875","longitude":"130.65621944444","source_code":"","project_name":"","survey_name":"\u4ee4\u548c3\u5e74\u5ea6\u56fd\u9053219\u53f7\u5916\u707d\u5bb3\u5fa9\u65e7\u795e\u702c\u6a4b\u5916\u5730\u8cea\u8abf\u67fb\u696d\u52d9","client_name":"\u56fd\u571f\u4ea4\u901a\u7701\u4e5d\u5dde\u5730\u65b9\u6574\u5099\u5c40\u516b\u4ee3\u5fa9\u8208\u4e8b\u52d9\u6240\u5de5\u52d9\u7b2c\u4e09\u8ab2","boring_xml_url":47,"boring_view_url":1,"soilmap_view_url":null,"soiltest_xml_url":47,"soiltest_view_url":47},{"id":495145,"code":"NGIC202106390-0003","latitude":"32.436986111111","longitude":"130.65628055556","source_code":"","project_name":"","survey_name":"\u4ee4\u548c3\u5e74\u5ea6\u56fd\u9053219\u53f7\u5916\u707d\u5bb3\u5fa9\u65e7\u795e\u702c\u6a4b\u5916\u5730\u8cea\u8abf\u67fb\u696d\u52d9","client_name":"\u56fd\u571f\u4ea4\u901a\u7701\u4e5d\u5dde\u5730\u65b9\u6574\u5099\u5c40\u516b\u4ee3\u5fa9\u8208\u4e8b\u52d9\u6240\u5de5\u52d9\u7b2c\u4e09\u8ab2","boring_xml_url":47,"boring_view_url":1,"soilmap_view_url":null,"soiltest_xml_url":47,"soiltest_view_url":47},{"id":495144,"code":"NGIC202106390-0002","latitude":"32.461441666667","longitude":"130.65924166667","source_code":"","project_name":"","survey_name":"\u4ee4\u548c3\u5e74\u5ea6\u56fd\u9053219\u53f7\u5916\u707d\u5bb3\u5fa9\u65e7\u795e\u702c\u6a4b\u5916\u5730\u8cea\u8abf\u67fb\u696d\u52d9","client_name":"\u56fd\u571f\u4ea4\u901a\u7701\u4e5d\u5dde\u5730\u65b9\u6574\u5099\u5c40\u516b\u4ee3\u5fa9\u8208\u4e8b\u52d9\u6240\u5de5\u52d9\u7b2c\u4e09\u8ab2","boring_xml_url":47,"boring_view_url":1,"soilmap_view_url":null,"soiltest_xml_url":0,"soiltest_view_url":0},{"id":495143,"code":"NGIC202106390-0001","latitude":"32.461305555556","longitude":"130.65961666667","source_code":"","project_name":"","survey_name":"\u4ee4\u548c3\u5e74\u5ea6\u56fd\u9053219\u53f7\u5916\u707d\u5bb3\u5fa9\u65e7\u795e\u702c\u6a4b\u5916\u5730\u8cea\u8abf\u67fb\u696d\u52d9","client_name":"\u56fd\u571f\u4ea4\u901a\u7701\u4e5d\u5dde\u5730\u65b9\u6574\u5099\u5c40\u516b\u4ee3\u5fa9\u8208\u4e8b\u52d9\u6240\u5de5\u52d9\u7b2c\u4e09\u8ab2","boring_xml_url":47,"boring_view_url":1,"soilmap_view_url":null,"soiltest_xml_url":0,"soiltest_view_url":0},{"id":495128,"code":"NGIC202106399-0001","latitude":"38.543","longitude":"140.95441666667","source_code":"","project_name":"","survey_name":"\u4ee4\u548c3\u5e74\u5ea6\u5317\u4e0a\u5ddd\u4e0b\u6d41\u7ba1\u5185\u76e3\u7406\u691c\u8a0e\u696d\u52d9","client_name":"\u56fd\u571f\u4ea4\u901a\u7701\u6771\u5317\u5730\u65b9\u6574\u5099\u5c40\u5317\u4e0a\u5ddd\u4e0b\u6d41\u6cb3\u5ddd\u4e8b\u52d9\u6240","boring_xml_url":47,"boring_view_url":1,"soilmap_view_url":null,"soiltest_xml_url":47,"soiltest_view_url":47},{"id":495111,"code":"NGIC202106382-0005","latitude":"33.796366666667","longitude":"134.23615277778","source_code":"","project_name":"","survey_name":"\u4ee4\u548c3\u5e74\u5ea6\u5c0f\u898b\u91ce\u3005\u30c0\u30e0\u5468\u8fba\u5730\u8cea\u8abf\u67fb\uff08\u305d\u306e6\uff09\u696d\u52d9","client_name":"\u56fd\u571f\u4ea4\u901a\u7701\u56db\u56fd\u5730\u65b9\u6574\u5099\u5c40\u90a3\u8cc0\u5ddd\u6cb3\u5ddd\u4e8b\u52d9\u6240","boring_xml_url":47,"boring_view_url":1,"soilmap_view_url":null,"soiltest_xml_url":0,"soiltest_view_url":0}]}}