{"header":{"xyz":{"source":[],"mosaic":false},"page":1625,"raw":{"soiltest_result":"0","bbox":"57.598333,109.544722,1.933333,163.806111","page":"1625"},"conditions":{"soiltest_result":0,"north":57.598333,"west":109.544722,"south":1.933333,"east":163.806111},"success":true,"message":""},"data":{"meta":{"total":212844,"page":1625,"pages":7095,"count":30},"values":[{"id":494172,"code":"NGIC202106193-0010","latitude":"32.390275","longitude":"130.653325","source_code":"","project_name":"","survey_name":"\u4ee4\u548c3\u5e74\u5ea6\u516b\u4ee3\u5fa9\u8208\u4e8b\u52d9\u6240\u7ba1\u5185\u5730\u8cea\u8abf\u67fb\uff08\u305d\u306e3\uff09\u696d\u52d9","client_name":"\u56fd\u571f\u4ea4\u901a\u7701\u4e5d\u5dde\u5730\u65b9\u6574\u5099\u5c40\u516b\u4ee3\u5fa9\u8208\u4e8b\u52d9\u6240\u3000\u5de5\u52d9\u7b2c\u4e8c\u8ab2","boring_xml_url":47,"boring_view_url":1,"soilmap_view_url":null,"soiltest_xml_url":0,"soiltest_view_url":0},{"id":494171,"code":"NGIC202106193-0009","latitude":"32.390897222222","longitude":"130.65255","source_code":"","project_name":"","survey_name":"\u4ee4\u548c3\u5e74\u5ea6\u516b\u4ee3\u5fa9\u8208\u4e8b\u52d9\u6240\u7ba1\u5185\u5730\u8cea\u8abf\u67fb\uff08\u305d\u306e3\uff09\u696d\u52d9","client_name":"\u56fd\u571f\u4ea4\u901a\u7701\u4e5d\u5dde\u5730\u65b9\u6574\u5099\u5c40\u516b\u4ee3\u5fa9\u8208\u4e8b\u52d9\u6240\u3000\u5de5\u52d9\u7b2c\u4e8c\u8ab2","boring_xml_url":47,"boring_view_url":1,"soilmap_view_url":null,"soiltest_xml_url":0,"soiltest_view_url":0},{"id":494170,"code":"NGIC202106193-0008","latitude":"32.403116666667","longitude":"130.64923888889","source_code":"","project_name":"","survey_name":"\u4ee4\u548c3\u5e74\u5ea6\u516b\u4ee3\u5fa9\u8208\u4e8b\u52d9\u6240\u7ba1\u5185\u5730\u8cea\u8abf\u67fb\uff08\u305d\u306e3\uff09\u696d\u52d9","client_name":"\u56fd\u571f\u4ea4\u901a\u7701\u4e5d\u5dde\u5730\u65b9\u6574\u5099\u5c40\u516b\u4ee3\u5fa9\u8208\u4e8b\u52d9\u6240\u3000\u5de5\u52d9\u7b2c\u4e8c\u8ab2","boring_xml_url":47,"boring_view_url":1,"soilmap_view_url":null,"soiltest_xml_url":0,"soiltest_view_url":0},{"id":494169,"code":"NGIC202106193-0007","latitude":"32.403458333333","longitude":"130.6491","source_code":"","project_name":"","survey_name":"\u4ee4\u548c3\u5e74\u5ea6\u516b\u4ee3\u5fa9\u8208\u4e8b\u52d9\u6240\u7ba1\u5185\u5730\u8cea\u8abf\u67fb\uff08\u305d\u306e3\uff09\u696d\u52d9","client_name":"\u56fd\u571f\u4ea4\u901a\u7701\u4e5d\u5dde\u5730\u65b9\u6574\u5099\u5c40\u516b\u4ee3\u5fa9\u8208\u4e8b\u52d9\u6240\u3000\u5de5\u52d9\u7b2c\u4e8c\u8ab2","boring_xml_url":47,"boring_view_url":1,"soilmap_view_url":null,"soiltest_xml_url":0,"soiltest_view_url":0},{"id":494168,"code":"NGIC202106193-0006","latitude":"32.403958333333","longitude":"130.64883333333","source_code":"","project_name":"","survey_name":"\u4ee4\u548c3\u5e74\u5ea6\u516b\u4ee3\u5fa9\u8208\u4e8b\u52d9\u6240\u7ba1\u5185\u5730\u8cea\u8abf\u67fb\uff08\u305d\u306e3\uff09\u696d\u52d9","client_name":"\u56fd\u571f\u4ea4\u901a\u7701\u4e5d\u5dde\u5730\u65b9\u6574\u5099\u5c40\u516b\u4ee3\u5fa9\u8208\u4e8b\u52d9\u6240\u3000\u5de5\u52d9\u7b2c\u4e8c\u8ab2","boring_xml_url":47,"boring_view_url":1,"soilmap_view_url":null,"soiltest_xml_url":0,"soiltest_view_url":0},{"id":494167,"code":"NGIC202106193-0005","latitude":"32.3972","longitude":"130.65155277778","source_code":"","project_name":"","survey_name":"\u4ee4\u548c3\u5e74\u5ea6\u516b\u4ee3\u5fa9\u8208\u4e8b\u52d9\u6240\u7ba1\u5185\u5730\u8cea\u8abf\u67fb\uff08\u305d\u306e3\uff09\u696d\u52d9","client_name":"\u56fd\u571f\u4ea4\u901a\u7701\u4e5d\u5dde\u5730\u65b9\u6574\u5099\u5c40\u516b\u4ee3\u5fa9\u8208\u4e8b\u52d9\u6240\u3000\u5de5\u52d9\u7b2c\u4e8c\u8ab2","boring_xml_url":47,"boring_view_url":1,"soilmap_view_url":null,"soiltest_xml_url":0,"soiltest_view_url":0},{"id":494166,"code":"NGIC202106193-0004","latitude":"32.397741666667","longitude":"130.65156111111","source_code":"","project_name":"","survey_name":"\u4ee4\u548c3\u5e74\u5ea6\u516b\u4ee3\u5fa9\u8208\u4e8b\u52d9\u6240\u7ba1\u5185\u5730\u8cea\u8abf\u67fb\uff08\u305d\u306e3\uff09\u696d\u52d9","client_name":"\u56fd\u571f\u4ea4\u901a\u7701\u4e5d\u5dde\u5730\u65b9\u6574\u5099\u5c40\u516b\u4ee3\u5fa9\u8208\u4e8b\u52d9\u6240\u3000\u5de5\u52d9\u7b2c\u4e8c\u8ab2","boring_xml_url":47,"boring_view_url":1,"soilmap_view_url":null,"soiltest_xml_url":0,"soiltest_view_url":0},{"id":494165,"code":"NGIC202106193-0003","latitude":"32.398636111111","longitude":"130.65140833333","source_code":"","project_name":"","survey_name":"\u4ee4\u548c3\u5e74\u5ea6\u516b\u4ee3\u5fa9\u8208\u4e8b\u52d9\u6240\u7ba1\u5185\u5730\u8cea\u8abf\u67fb\uff08\u305d\u306e3\uff09\u696d\u52d9","client_name":"\u56fd\u571f\u4ea4\u901a\u7701\u4e5d\u5dde\u5730\u65b9\u6574\u5099\u5c40\u516b\u4ee3\u5fa9\u8208\u4e8b\u52d9\u6240\u3000\u5de5\u52d9\u7b2c\u4e8c\u8ab2","boring_xml_url":47,"boring_view_url":1,"soilmap_view_url":null,"soiltest_xml_url":0,"soiltest_view_url":0},{"id":494164,"code":"NGIC202106193-0002","latitude":"32.398991666667","longitude":"130.651325","source_code":"","project_name":"","survey_name":"\u4ee4\u548c3\u5e74\u5ea6\u516b\u4ee3\u5fa9\u8208\u4e8b\u52d9\u6240\u7ba1\u5185\u5730\u8cea\u8abf\u67fb\uff08\u305d\u306e3\uff09\u696d\u52d9","client_name":"\u56fd\u571f\u4ea4\u901a\u7701\u4e5d\u5dde\u5730\u65b9\u6574\u5099\u5c40\u516b\u4ee3\u5fa9\u8208\u4e8b\u52d9\u6240\u3000\u5de5\u52d9\u7b2c\u4e8c\u8ab2","boring_xml_url":47,"boring_view_url":1,"soilmap_view_url":null,"soiltest_xml_url":0,"soiltest_view_url":0},{"id":494163,"code":"NGIC202106193-0001","latitude":"32.238875","longitude":"130.68661111111","source_code":"","project_name":"","survey_name":"\u4ee4\u548c3\u5e74\u5ea6\u516b\u4ee3\u5fa9\u8208\u4e8b\u52d9\u6240\u7ba1\u5185\u5730\u8cea\u8abf\u67fb\uff08\u305d\u306e3\uff09\u696d\u52d9","client_name":"\u56fd\u571f\u4ea4\u901a\u7701\u4e5d\u5dde\u5730\u65b9\u6574\u5099\u5c40\u516b\u4ee3\u5fa9\u8208\u4e8b\u52d9\u6240\u3000\u5de5\u52d9\u7b2c\u4e8c\u8ab2","boring_xml_url":47,"boring_view_url":1,"soilmap_view_url":null,"soiltest_xml_url":0,"soiltest_view_url":0},{"id":494162,"code":"NGIC202106269-0024","latitude":"42.688868166667","longitude":"139.97928194444","source_code":"","project_name":"\u4e00\u822c\u56fd\u9053229\u53f7 \u795e\u6075\u5185\u6751 \u5ddd\u767d\u5730\u8cea\u8abf\u67fb\u5916\u4e00\u9023\u696d\u52d9","survey_name":"\u4e00\u822c\u56fd\u9053229\u53f7 \u795e\u6075\u5185\u6751 \u5ddd\u767d\u5730\u8cea\u8abf\u67fb\u5916\u4e00\u9023\u696d\u52d9","client_name":"\u56fd\u571f\u4ea4\u901a\u7701\u5317\u6d77\u9053\u958b\u767a\u5c40\u5c0f\u6a3d\u958b\u767a\u5efa\u8a2d\u90e8\u672c\u90e8","boring_xml_url":47,"boring_view_url":1,"soilmap_view_url":null,"soiltest_xml_url":0,"soiltest_view_url":0},{"id":494161,"code":"NGIC202106269-0023","latitude":"42.688660833333","longitude":"139.97908388889","source_code":"","project_name":"\u4e00\u822c\u56fd\u9053229\u53f7 \u795e\u6075\u5185\u6751 \u5ddd\u767d\u5730\u8cea\u8abf\u67fb\u5916\u4e00\u9023\u696d\u52d9","survey_name":"\u4e00\u822c\u56fd\u9053229\u53f7 \u795e\u6075\u5185\u6751 \u5ddd\u767d\u5730\u8cea\u8abf\u67fb\u5916\u4e00\u9023\u696d\u52d9","client_name":"\u56fd\u571f\u4ea4\u901a\u7701\u5317\u6d77\u9053\u958b\u767a\u5c40\u5c0f\u6a3d\u958b\u767a\u5efa\u8a2d\u90e8\u672c\u90e8","boring_xml_url":47,"boring_view_url":1,"soilmap_view_url":null,"soiltest_xml_url":0,"soiltest_view_url":0},{"id":494160,"code":"NGIC202106269-0022","latitude":"42.690272777778","longitude":"140.04133888889","source_code":"","project_name":"\u4e00\u822c\u56fd\u9053229\u53f7 \u795e\u6075\u5185\u6751 \u5ddd\u767d\u5730\u8cea\u8abf\u67fb\u5916\u4e00\u9023\u696d\u52d9","survey_name":"\u4e00\u822c\u56fd\u9053229\u53f7 \u795e\u6075\u5185\u6751 \u5ddd\u767d\u5730\u8cea\u8abf\u67fb\u5916\u4e00\u9023\u696d\u52d9","client_name":"\u56fd\u571f\u4ea4\u901a\u7701\u5317\u6d77\u9053\u958b\u767a\u5c40\u5c0f\u6a3d\u958b\u767a\u5efa\u8a2d\u90e8\u672c\u90e8","boring_xml_url":47,"boring_view_url":1,"soilmap_view_url":null,"soiltest_xml_url":0,"soiltest_view_url":0},{"id":494159,"code":"NGIC202106269-0021","latitude":"42.794996666667","longitude":"140.31016555556","source_code":"","project_name":"\u4e00\u822c\u56fd\u9053229\u53f7 \u795e\u6075\u5185\u6751 \u5ddd\u767d\u5730\u8cea\u8abf\u67fb\u5916\u4e00\u9023\u696d\u52d9","survey_name":"\u4e00\u822c\u56fd\u9053229\u53f7 \u795e\u6075\u5185\u6751 \u5ddd\u767d\u5730\u8cea\u8abf\u67fb\u5916\u4e00\u9023\u696d\u52d9","client_name":"\u56fd\u571f\u4ea4\u901a\u7701\u5317\u6d77\u9053\u958b\u767a\u5c40\u5c0f\u6a3d\u958b\u767a\u5efa\u8a2d\u90e8\u672c\u90e8","boring_xml_url":47,"boring_view_url":1,"soilmap_view_url":null,"soiltest_xml_url":0,"soiltest_view_url":0},{"id":494158,"code":"NGIC202106269-0020","latitude":"42.972502222222","longitude":"140.48380722222","source_code":"","project_name":"\u4e00\u822c\u56fd\u9053229\u53f7 \u795e\u6075\u5185\u6751 \u5ddd\u767d\u5730\u8cea\u8abf\u67fb\u5916\u4e00\u9023\u696d\u52d9","survey_name":"\u4e00\u822c\u56fd\u9053229\u53f7 \u795e\u6075\u5185\u6751 \u5ddd\u767d\u5730\u8cea\u8abf\u67fb\u5916\u4e00\u9023\u696d\u52d9","client_name":"\u56fd\u571f\u4ea4\u901a\u7701\u5317\u6d77\u9053\u958b\u767a\u5c40\u5c0f\u6a3d\u958b\u767a\u5efa\u8a2d\u90e8\u672c\u90e8","boring_xml_url":47,"boring_view_url":1,"soilmap_view_url":null,"soiltest_xml_url":0,"soiltest_view_url":0},{"id":494157,"code":"NGIC202106269-0019","latitude":"42.973086666667","longitude":"140.48610444444","source_code":"","project_name":"\u4e00\u822c\u56fd\u9053229\u53f7 \u795e\u6075\u5185\u6751 \u5ddd\u767d\u5730\u8cea\u8abf\u67fb\u5916\u4e00\u9023\u696d\u52d9","survey_name":"\u4e00\u822c\u56fd\u9053229\u53f7 \u795e\u6075\u5185\u6751 \u5ddd\u767d\u5730\u8cea\u8abf\u67fb\u5916\u4e00\u9023\u696d\u52d9","client_name":"\u56fd\u571f\u4ea4\u901a\u7701\u5317\u6d77\u9053\u958b\u767a\u5c40\u5c0f\u6a3d\u958b\u767a\u5efa\u8a2d\u90e8\u672c\u90e8","boring_xml_url":47,"boring_view_url":1,"soilmap_view_url":null,"soiltest_xml_url":0,"soiltest_view_url":0},{"id":494156,"code":"NGIC202106269-0018","latitude":"42.681774722222","longitude":"139.91121444444","source_code":"","project_name":"\u4e00\u822c\u56fd\u9053229\u53f7 \u795e\u6075\u5185\u6751 \u5ddd\u767d\u5730\u8cea\u8abf\u67fb\u5916\u4e00\u9023\u696d\u52d9","survey_name":"\u4e00\u822c\u56fd\u9053229\u53f7 \u795e\u6075\u5185\u6751 \u5ddd\u767d\u5730\u8cea\u8abf\u67fb\u5916\u4e00\u9023\u696d\u52d9","client_name":"\u56fd\u571f\u4ea4\u901a\u7701\u5317\u6d77\u9053\u958b\u767a\u5c40\u5c0f\u6a3d\u958b\u767a\u5efa\u8a2d\u90e8\u672c\u90e8","boring_xml_url":47,"boring_view_url":1,"soilmap_view_url":null,"soiltest_xml_url":0,"soiltest_view_url":0},{"id":494155,"code":"NGIC202106269-0017","latitude":"42.681841666667","longitude":"139.91122","source_code":"","project_name":"\u4e00\u822c\u56fd\u9053229\u53f7 \u795e\u6075\u5185\u6751 \u5ddd\u767d\u5730\u8cea\u8abf\u67fb\u5916\u4e00\u9023\u696d\u52d9","survey_name":"\u4e00\u822c\u56fd\u9053229\u53f7 \u795e\u6075\u5185\u6751 \u5ddd\u767d\u5730\u8cea\u8abf\u67fb\u5916\u4e00\u9023\u696d\u52d9","client_name":"\u56fd\u571f\u4ea4\u901a\u7701\u5317\u6d77\u9053\u958b\u767a\u5c40\u5c0f\u6a3d\u958b\u767a\u5efa\u8a2d\u90e8\u672c\u90e8","boring_xml_url":47,"boring_view_url":1,"soilmap_view_url":null,"soiltest_xml_url":0,"soiltest_view_url":0},{"id":494154,"code":"NGIC202106269-0016","latitude":"42.682023055556","longitude":"139.91115111111","source_code":"","project_name":"\u4e00\u822c\u56fd\u9053229\u53f7 \u795e\u6075\u5185\u6751 \u5ddd\u767d\u5730\u8cea\u8abf\u67fb\u5916\u4e00\u9023\u696d\u52d9","survey_name":"\u4e00\u822c\u56fd\u9053229\u53f7 \u795e\u6075\u5185\u6751 \u5ddd\u767d\u5730\u8cea\u8abf\u67fb\u5916\u4e00\u9023\u696d\u52d9","client_name":"\u56fd\u571f\u4ea4\u901a\u7701\u5317\u6d77\u9053\u958b\u767a\u5c40\u5c0f\u6a3d\u958b\u767a\u5efa\u8a2d\u90e8\u672c\u90e8","boring_xml_url":47,"boring_view_url":1,"soilmap_view_url":null,"soiltest_xml_url":0,"soiltest_view_url":0},{"id":494153,"code":"NGIC202106269-0015","latitude":"42.683811388889","longitude":"139.918335","source_code":"","project_name":"\u4e00\u822c\u56fd\u9053229\u53f7 \u795e\u6075\u5185\u6751 \u5ddd\u767d\u5730\u8cea\u8abf\u67fb\u5916\u4e00\u9023\u696d\u52d9","survey_name":"\u4e00\u822c\u56fd\u9053229\u53f7 \u795e\u6075\u5185\u6751 \u5ddd\u767d\u5730\u8cea\u8abf\u67fb\u5916\u4e00\u9023\u696d\u52d9","client_name":"\u56fd\u571f\u4ea4\u901a\u7701\u5317\u6d77\u9053\u958b\u767a\u5c40\u5c0f\u6a3d\u958b\u767a\u5efa\u8a2d\u90e8\u672c\u90e8","boring_xml_url":47,"boring_view_url":1,"soilmap_view_url":null,"soiltest_xml_url":0,"soiltest_view_url":0},{"id":494152,"code":"NGIC202106269-0014","latitude":"42.683893333333","longitude":"139.91837944444","source_code":"","project_name":"\u4e00\u822c\u56fd\u9053229\u53f7 \u795e\u6075\u5185\u6751 \u5ddd\u767d\u5730\u8cea\u8abf\u67fb\u5916\u4e00\u9023\u696d\u52d9","survey_name":"\u4e00\u822c\u56fd\u9053229\u53f7 \u795e\u6075\u5185\u6751 \u5ddd\u767d\u5730\u8cea\u8abf\u67fb\u5916\u4e00\u9023\u696d\u52d9","client_name":"\u56fd\u571f\u4ea4\u901a\u7701\u5317\u6d77\u9053\u958b\u767a\u5c40\u5c0f\u6a3d\u958b\u767a\u5efa\u8a2d\u90e8\u672c\u90e8","boring_xml_url":47,"boring_view_url":1,"soilmap_view_url":null,"soiltest_xml_url":0,"soiltest_view_url":0},{"id":494151,"code":"NGIC202106269-0013","latitude":"42.683958611111","longitude":"139.91822916667","source_code":"","project_name":"\u4e00\u822c\u56fd\u9053229\u53f7 \u795e\u6075\u5185\u6751 \u5ddd\u767d\u5730\u8cea\u8abf\u67fb\u5916\u4e00\u9023\u696d\u52d9","survey_name":"\u4e00\u822c\u56fd\u9053229\u53f7 \u795e\u6075\u5185\u6751 \u5ddd\u767d\u5730\u8cea\u8abf\u67fb\u5916\u4e00\u9023\u696d\u52d9","client_name":"\u56fd\u571f\u4ea4\u901a\u7701\u5317\u6d77\u9053\u958b\u767a\u5c40\u5c0f\u6a3d\u958b\u767a\u5efa\u8a2d\u90e8\u672c\u90e8","boring_xml_url":47,"boring_view_url":1,"soilmap_view_url":null,"soiltest_xml_url":0,"soiltest_view_url":0},{"id":494150,"code":"NGIC202106269-0012","latitude":"42.689455555556","longitude":"139.96384111111","source_code":"","project_name":"\u4e00\u822c\u56fd\u9053229\u53f7 \u795e\u6075\u5185\u6751 \u5ddd\u767d\u5730\u8cea\u8abf\u67fb\u5916\u4e00\u9023\u696d\u52d9","survey_name":"\u4e00\u822c\u56fd\u9053229\u53f7 \u795e\u6075\u5185\u6751 \u5ddd\u767d\u5730\u8cea\u8abf\u67fb\u5916\u4e00\u9023\u696d\u52d9","client_name":"\u56fd\u571f\u4ea4\u901a\u7701\u5317\u6d77\u9053\u958b\u767a\u5c40\u5c0f\u6a3d\u958b\u767a\u5efa\u8a2d\u90e8\u672c\u90e8","boring_xml_url":47,"boring_view_url":1,"soilmap_view_url":null,"soiltest_xml_url":0,"soiltest_view_url":0},{"id":494149,"code":"NGIC202106269-0011","latitude":"42.690143888889","longitude":"139.96911444444","source_code":"","project_name":"\u4e00\u822c\u56fd\u9053229\u53f7 \u795e\u6075\u5185\u6751 \u5ddd\u767d\u5730\u8cea\u8abf\u67fb\u5916\u4e00\u9023\u696d\u52d9","survey_name":"\u4e00\u822c\u56fd\u9053229\u53f7 \u795e\u6075\u5185\u6751 \u5ddd\u767d\u5730\u8cea\u8abf\u67fb\u5916\u4e00\u9023\u696d\u52d9","client_name":"\u56fd\u571f\u4ea4\u901a\u7701\u5317\u6d77\u9053\u958b\u767a\u5c40\u5c0f\u6a3d\u958b\u767a\u5efa\u8a2d\u90e8\u672c\u90e8","boring_xml_url":47,"boring_view_url":1,"soilmap_view_url":null,"soiltest_xml_url":0,"soiltest_view_url":0},{"id":494148,"code":"NGIC202106269-0010","latitude":"42.690486944444","longitude":"139.97028388889","source_code":"","project_name":"\u4e00\u822c\u56fd\u9053229\u53f7 \u795e\u6075\u5185\u6751 \u5ddd\u767d\u5730\u8cea\u8abf\u67fb\u5916\u4e00\u9023\u696d\u52d9","survey_name":"\u4e00\u822c\u56fd\u9053229\u53f7 \u795e\u6075\u5185\u6751 \u5ddd\u767d\u5730\u8cea\u8abf\u67fb\u5916\u4e00\u9023\u696d\u52d9","client_name":"\u56fd\u571f\u4ea4\u901a\u7701\u5317\u6d77\u9053\u958b\u767a\u5c40\u5c0f\u6a3d\u958b\u767a\u5efa\u8a2d\u90e8\u672c\u90e8","boring_xml_url":47,"boring_view_url":1,"soilmap_view_url":null,"soiltest_xml_url":0,"soiltest_view_url":0},{"id":494147,"code":"NGIC202106269-0009","latitude":"42.690528611111","longitude":"139.97225305556","source_code":"","project_name":"\u4e00\u822c\u56fd\u9053229\u53f7 \u795e\u6075\u5185\u6751 \u5ddd\u767d\u5730\u8cea\u8abf\u67fb\u5916\u4e00\u9023\u696d\u52d9","survey_name":"\u4e00\u822c\u56fd\u9053229\u53f7 \u795e\u6075\u5185\u6751 \u5ddd\u767d\u5730\u8cea\u8abf\u67fb\u5916\u4e00\u9023\u696d\u52d9","client_name":"\u56fd\u571f\u4ea4\u901a\u7701\u5317\u6d77\u9053\u958b\u767a\u5c40\u5c0f\u6a3d\u958b\u767a\u5efa\u8a2d\u90e8\u672c\u90e8","boring_xml_url":47,"boring_view_url":1,"soilmap_view_url":null,"soiltest_xml_url":0,"soiltest_view_url":0},{"id":494146,"code":"NGIC202106269-0008","latitude":"42.732261666667","longitude":"140.09014916667","source_code":"","project_name":"\u4e00\u822c\u56fd\u9053229\u53f7 \u795e\u6075\u5185\u6751 \u5ddd\u767d\u5730\u8cea\u8abf\u67fb\u5916\u4e00\u9023\u696d\u52d9","survey_name":"\u4e00\u822c\u56fd\u9053229\u53f7 \u795e\u6075\u5185\u6751 \u5ddd\u767d\u5730\u8cea\u8abf\u67fb\u5916\u4e00\u9023\u696d\u52d9","client_name":"\u56fd\u571f\u4ea4\u901a\u7701\u5317\u6d77\u9053\u958b\u767a\u5c40\u5c0f\u6a3d\u958b\u767a\u5efa\u8a2d\u90e8\u672c\u90e8","boring_xml_url":47,"boring_view_url":1,"soilmap_view_url":null,"soiltest_xml_url":0,"soiltest_view_url":0},{"id":494145,"code":"NGIC202106269-0007","latitude":"42.732344722222","longitude":"140.0899575","source_code":"","project_name":"\u4e00\u822c\u56fd\u9053229\u53f7 \u795e\u6075\u5185\u6751 \u5ddd\u767d\u5730\u8cea\u8abf\u67fb\u5916\u4e00\u9023\u696d\u52d9","survey_name":"\u4e00\u822c\u56fd\u9053229\u53f7 \u795e\u6075\u5185\u6751 \u5ddd\u767d\u5730\u8cea\u8abf\u67fb\u5916\u4e00\u9023\u696d\u52d9","client_name":"\u56fd\u571f\u4ea4\u901a\u7701\u5317\u6d77\u9053\u958b\u767a\u5c40\u5c0f\u6a3d\u958b\u767a\u5efa\u8a2d\u90e8\u672c\u90e8","boring_xml_url":47,"boring_view_url":1,"soilmap_view_url":null,"soiltest_xml_url":0,"soiltest_view_url":0},{"id":494144,"code":"NGIC202106269-0006","latitude":"43.162411666667","longitude":"140.39102861111","source_code":"","project_name":"\u4e00\u822c\u56fd\u9053229\u53f7 \u795e\u6075\u5185\u6751 \u5ddd\u767d\u5730\u8cea\u8abf\u67fb\u5916\u4e00\u9023\u696d\u52d9","survey_name":"\u4e00\u822c\u56fd\u9053229\u53f7 \u795e\u6075\u5185\u6751 \u5ddd\u767d\u5730\u8cea\u8abf\u67fb\u5916\u4e00\u9023\u696d\u52d9","client_name":"\u56fd\u571f\u4ea4\u901a\u7701\u5317\u6d77\u9053\u958b\u767a\u5c40\u5c0f\u6a3d\u958b\u767a\u5efa\u8a2d\u90e8\u672c\u90e8","boring_xml_url":47,"boring_view_url":1,"soilmap_view_url":null,"soiltest_xml_url":0,"soiltest_view_url":0},{"id":494143,"code":"NGIC202106269-0005","latitude":"43.16274","longitude":"140.39029111111","source_code":"","project_name":"\u4e00\u822c\u56fd\u9053229\u53f7 \u795e\u6075\u5185\u6751 \u5ddd\u767d\u5730\u8cea\u8abf\u67fb\u5916\u4e00\u9023\u696d\u52d9","survey_name":"\u4e00\u822c\u56fd\u9053229\u53f7 \u795e\u6075\u5185\u6751 \u5ddd\u767d\u5730\u8cea\u8abf\u67fb\u5916\u4e00\u9023\u696d\u52d9","client_name":"\u56fd\u571f\u4ea4\u901a\u7701\u5317\u6d77\u9053\u958b\u767a\u5c40\u5c0f\u6a3d\u958b\u767a\u5efa\u8a2d\u90e8\u672c\u90e8","boring_xml_url":47,"boring_view_url":1,"soilmap_view_url":null,"soiltest_xml_url":0,"soiltest_view_url":0}]}}