{"header":{"xyz":{"source":[],"mosaic":false},"page":1643,"raw":{"soiltest_result":"0","bbox":"57.598333,109.544722,1.933333,163.806111","page":"1643"},"conditions":{"soiltest_result":0,"north":57.598333,"west":109.544722,"south":1.933333,"east":163.806111},"success":true,"message":""},"data":{"meta":{"total":212844,"page":1643,"pages":7095,"count":30},"values":[{"id":492966,"code":"NGIC202105935-0001","latitude":"36.558333333333","longitude":"137.19805555556","source_code":"","project_name":"","survey_name":"\u4ee4\u548c3\u5e74\u5ea6\u5927\u6ca2\u91ce\u5bcc\u5c71\u5357\u9053\u8def\u5730\u8cea\u8abf\u67fb\u696d\u52d9","client_name":"\u56fd\u571f\u4ea4\u901a\u7701\u5317\u9678\u5730\u65b9\u6574\u5099\u5c40\u5bcc\u5c71\u6cb3\u5ddd\u56fd\u9053\u4e8b\u52d9\u6240","boring_xml_url":47,"boring_view_url":1,"soilmap_view_url":null,"soiltest_xml_url":0,"soiltest_view_url":0},{"id":492941,"code":"NGIC202106035-0003","latitude":"26.267131666667","longitude":"127.79068008333","source_code":"","project_name":"\u3010\u56fd\u9053329\u53f7\u65e7\u4e2d\u57ce\u6751\u5f79\u5834\u524d\u64c1\u58c1\u8a2d\u8a08\u3011","survey_name":"\u4ee4\u548c3\u5e74\u5ea6\u5357\u90e8\u56fd\u9053\u7ba1\u5185\u7ba1\u7406\u95a2\u4fc2\u6e2c\u91cf\u8abf\u67fb\u8a2d\u8a08\u696d\u52d9","client_name":"\u5185\u95a3\u5e9c\u6c96\u7e04\u7dcf\u5408\u4e8b\u52d9\u5c40\u958b\u767a\u5efa\u8a2d\u90e8\u5357\u90e8\u56fd\u9053\u4e8b\u52d9\u6240","boring_xml_url":47,"boring_view_url":1,"soilmap_view_url":null,"soiltest_xml_url":0,"soiltest_view_url":0},{"id":492940,"code":"NGIC202106035-0002","latitude":"26.267325722222","longitude":"127.79074127778","source_code":"","project_name":"\u3010\u56fd\u9053329\u53f7\u65e7\u4e2d\u57ce\u6751\u5f79\u5834\u524d\u64c1\u58c1\u8a2d\u8a08\u3011","survey_name":"\u4ee4\u548c3\u5e74\u5ea6\u5357\u90e8\u56fd\u9053\u7ba1\u5185\u7ba1\u7406\u95a2\u4fc2\u6e2c\u91cf\u8abf\u67fb\u8a2d\u8a08\u696d\u52d9","client_name":"\u5185\u95a3\u5e9c\u6c96\u7e04\u7dcf\u5408\u4e8b\u52d9\u5c40\u958b\u767a\u5efa\u8a2d\u90e8\u5357\u90e8\u56fd\u9053\u4e8b\u52d9\u6240","boring_xml_url":47,"boring_view_url":1,"soilmap_view_url":null,"soiltest_xml_url":0,"soiltest_view_url":0},{"id":492939,"code":"NGIC202106035-0001","latitude":"26.271977666667","longitude":"127.79394666667","source_code":"","project_name":"\u3010\u56fd\u9053329\u53f7\u4e2d\u57ce\u6751\u5c4b\u5b9c\u5730\u533a\u6392\u6c34\u691c\u8a0e\u3011","survey_name":"\u4ee4\u548c3\u5e74\u5ea6\u5357\u90e8\u56fd\u9053\u7ba1\u5185\u7ba1\u7406\u95a2\u4fc2\u6e2c\u91cf\u8abf\u67fb\u8a2d\u8a08\u696d\u52d9","client_name":"\u5185\u95a3\u5e9c\u6c96\u7e04\u7dcf\u5408\u4e8b\u52d9\u5c40\u958b\u767a\u5efa\u8a2d\u90e8\u5357\u90e8\u56fd\u9053\u4e8b\u52d9\u6240","boring_xml_url":47,"boring_view_url":1,"soilmap_view_url":null,"soiltest_xml_url":0,"soiltest_view_url":0},{"id":492938,"code":"NGIC202105921-0020","latitude":"35.355438833333","longitude":"139.486849","source_code":"","project_name":"","survey_name":"R3\u6a2a\u6d5c\u6e58\u5357\u9053\u8def\u6c34\u6587\u8abf\u67fb\u696d\u52d9","client_name":"\u56fd\u571f\u4ea4\u901a\u7701\u95a2\u6771\u5730\u65b9\u6574\u5099\u5c40\u6a2a\u6d5c\u56fd\u9053\u4e8b\u52d9\u6240","boring_xml_url":47,"boring_view_url":1,"soilmap_view_url":null,"soiltest_xml_url":47,"soiltest_view_url":47},{"id":492937,"code":"NGIC202105921-0019","latitude":"35.355438833333","longitude":"139.486849","source_code":"","project_name":"","survey_name":"R3\u6a2a\u6d5c\u6e58\u5357\u9053\u8def\u6c34\u6587\u8abf\u67fb\u696d\u52d9","client_name":"\u56fd\u571f\u4ea4\u901a\u7701\u95a2\u6771\u5730\u65b9\u6574\u5099\u5c40\u6a2a\u6d5c\u56fd\u9053\u4e8b\u52d9\u6240","boring_xml_url":47,"boring_view_url":1,"soilmap_view_url":null,"soiltest_xml_url":47,"soiltest_view_url":47},{"id":492936,"code":"NGIC202105921-0018","latitude":"35.355167833333","longitude":"139.486891","source_code":"","project_name":"","survey_name":"R3\u6a2a\u6d5c\u6e58\u5357\u9053\u8def\u6c34\u6587\u8abf\u67fb\u696d\u52d9","client_name":"\u56fd\u571f\u4ea4\u901a\u7701\u95a2\u6771\u5730\u65b9\u6574\u5099\u5c40\u6a2a\u6d5c\u56fd\u9053\u4e8b\u52d9\u6240","boring_xml_url":47,"boring_view_url":1,"soilmap_view_url":null,"soiltest_xml_url":47,"soiltest_view_url":47},{"id":492935,"code":"NGIC202105921-0017","latitude":"35.355167833333","longitude":"139.486891","source_code":"","project_name":"","survey_name":"R3\u6a2a\u6d5c\u6e58\u5357\u9053\u8def\u6c34\u6587\u8abf\u67fb\u696d\u52d9","client_name":"\u56fd\u571f\u4ea4\u901a\u7701\u95a2\u6771\u5730\u65b9\u6574\u5099\u5c40\u6a2a\u6d5c\u56fd\u9053\u4e8b\u52d9\u6240","boring_xml_url":47,"boring_view_url":1,"soilmap_view_url":null,"soiltest_xml_url":47,"soiltest_view_url":47},{"id":492934,"code":"NGIC202105921-0016","latitude":"35.360875","longitude":"139.49285683333","source_code":"","project_name":"","survey_name":"R3\u6a2a\u6d5c\u6e58\u5357\u9053\u8def\u6c34\u6587\u8abf\u67fb\u696d\u52d9","client_name":"\u56fd\u571f\u4ea4\u901a\u7701\u95a2\u6771\u5730\u65b9\u6574\u5099\u5c40\u6a2a\u6d5c\u56fd\u9053\u4e8b\u52d9\u6240","boring_xml_url":47,"boring_view_url":1,"soilmap_view_url":null,"soiltest_xml_url":0,"soiltest_view_url":0},{"id":492933,"code":"NGIC202105921-0015","latitude":"35.361514833333","longitude":"139.497241","source_code":"","project_name":"","survey_name":"R3\u6a2a\u6d5c\u6e58\u5357\u9053\u8def\u6c34\u6587\u8abf\u67fb\u696d\u52d9","client_name":"\u56fd\u571f\u4ea4\u901a\u7701\u95a2\u6771\u5730\u65b9\u6574\u5099\u5c40\u6a2a\u6d5c\u56fd\u9053\u4e8b\u52d9\u6240","boring_xml_url":47,"boring_view_url":1,"soilmap_view_url":null,"soiltest_xml_url":0,"soiltest_view_url":0},{"id":492932,"code":"NGIC202105921-0014","latitude":"35.361445","longitude":"139.5012","source_code":"","project_name":"","survey_name":"R3\u6a2a\u6d5c\u6e58\u5357\u9053\u8def\u6c34\u6587\u8abf\u67fb\u696d\u52d9","client_name":"\u56fd\u571f\u4ea4\u901a\u7701\u95a2\u6771\u5730\u65b9\u6574\u5099\u5c40\u6a2a\u6d5c\u56fd\u9053\u4e8b\u52d9\u6240","boring_xml_url":47,"boring_view_url":1,"soilmap_view_url":null,"soiltest_xml_url":0,"soiltest_view_url":0},{"id":492931,"code":"NGIC202105921-0013","latitude":"35.363446","longitude":"139.50174783333","source_code":"","project_name":"","survey_name":"R3\u6a2a\u6d5c\u6e58\u5357\u9053\u8def\u6c34\u6587\u8abf\u67fb\u696d\u52d9","client_name":"\u56fd\u571f\u4ea4\u901a\u7701\u95a2\u6771\u5730\u65b9\u6574\u5099\u5c40\u6a2a\u6d5c\u56fd\u9053\u4e8b\u52d9\u6240","boring_xml_url":47,"boring_view_url":1,"soilmap_view_url":null,"soiltest_xml_url":0,"soiltest_view_url":0},{"id":492930,"code":"NGIC202105921-0012","latitude":"35.348196833333","longitude":"139.457748","source_code":"","project_name":"","survey_name":"R3\u6a2a\u6d5c\u6e58\u5357\u9053\u8def\u6c34\u6587\u8abf\u67fb\u696d\u52d9","client_name":"\u56fd\u571f\u4ea4\u901a\u7701\u95a2\u6771\u5730\u65b9\u6574\u5099\u5c40\u6a2a\u6d5c\u56fd\u9053\u4e8b\u52d9\u6240","boring_xml_url":47,"boring_view_url":1,"soilmap_view_url":null,"soiltest_xml_url":47,"soiltest_view_url":47},{"id":492929,"code":"NGIC202105921-0011","latitude":"35.348196833333","longitude":"139.457748","source_code":"","project_name":"","survey_name":"R3\u6a2a\u6d5c\u6e58\u5357\u9053\u8def\u6c34\u6587\u8abf\u67fb\u696d\u52d9","client_name":"\u56fd\u571f\u4ea4\u901a\u7701\u95a2\u6771\u5730\u65b9\u6574\u5099\u5c40\u6a2a\u6d5c\u56fd\u9053\u4e8b\u52d9\u6240","boring_xml_url":47,"boring_view_url":1,"soilmap_view_url":null,"soiltest_xml_url":0,"soiltest_view_url":0},{"id":492928,"code":"NGIC202105921-0010","latitude":"35.350346833333","longitude":"139.45670683333","source_code":"","project_name":"","survey_name":"R3\u6a2a\u6d5c\u6e58\u5357\u9053\u8def\u6c34\u6587\u8abf\u67fb\u696d\u52d9","client_name":"\u56fd\u571f\u4ea4\u901a\u7701\u95a2\u6771\u5730\u65b9\u6574\u5099\u5c40\u6a2a\u6d5c\u56fd\u9053\u4e8b\u52d9\u6240","boring_xml_url":47,"boring_view_url":1,"soilmap_view_url":null,"soiltest_xml_url":47,"soiltest_view_url":47},{"id":492927,"code":"NGIC202105921-0009","latitude":"35.350346833333","longitude":"139.45670683333","source_code":"","project_name":"","survey_name":"R3\u6a2a\u6d5c\u6e58\u5357\u9053\u8def\u6c34\u6587\u8abf\u67fb\u696d\u52d9","client_name":"\u56fd\u571f\u4ea4\u901a\u7701\u95a2\u6771\u5730\u65b9\u6574\u5099\u5c40\u6a2a\u6d5c\u56fd\u9053\u4e8b\u52d9\u6240","boring_xml_url":47,"boring_view_url":1,"soilmap_view_url":null,"soiltest_xml_url":0,"soiltest_view_url":0},{"id":492926,"code":"NGIC202105921-0008","latitude":"35.34969","longitude":"139.46285483333","source_code":"","project_name":"","survey_name":"R3\u6a2a\u6d5c\u6e58\u5357\u9053\u8def\u6c34\u6587\u8abf\u67fb\u696d\u52d9","client_name":"\u56fd\u571f\u4ea4\u901a\u7701\u95a2\u6771\u5730\u65b9\u6574\u5099\u5c40\u6a2a\u6d5c\u56fd\u9053\u4e8b\u52d9\u6240","boring_xml_url":47,"boring_view_url":1,"soilmap_view_url":null,"soiltest_xml_url":47,"soiltest_view_url":47},{"id":492925,"code":"NGIC202105921-0007","latitude":"35.34969","longitude":"139.46285483333","source_code":"","project_name":"","survey_name":"R3\u6a2a\u6d5c\u6e58\u5357\u9053\u8def\u6c34\u6587\u8abf\u67fb\u696d\u52d9","client_name":"\u56fd\u571f\u4ea4\u901a\u7701\u95a2\u6771\u5730\u65b9\u6574\u5099\u5c40\u6a2a\u6d5c\u56fd\u9053\u4e8b\u52d9\u6240","boring_xml_url":47,"boring_view_url":1,"soilmap_view_url":null,"soiltest_xml_url":0,"soiltest_view_url":0},{"id":492924,"code":"NGIC202105921-0006","latitude":"35.348779833333","longitude":"139.474296","source_code":"","project_name":"","survey_name":"R3\u6a2a\u6d5c\u6e58\u5357\u9053\u8def\u6c34\u6587\u8abf\u67fb\u696d\u52d9","client_name":"\u56fd\u571f\u4ea4\u901a\u7701\u95a2\u6771\u5730\u65b9\u6574\u5099\u5c40\u6a2a\u6d5c\u56fd\u9053\u4e8b\u52d9\u6240","boring_xml_url":47,"boring_view_url":1,"soilmap_view_url":null,"soiltest_xml_url":0,"soiltest_view_url":0},{"id":492923,"code":"NGIC202105921-0005","latitude":"35.350726833333","longitude":"139.47128683333","source_code":"","project_name":"","survey_name":"R3\u6a2a\u6d5c\u6e58\u5357\u9053\u8def\u6c34\u6587\u8abf\u67fb\u696d\u52d9","client_name":"\u56fd\u571f\u4ea4\u901a\u7701\u95a2\u6771\u5730\u65b9\u6574\u5099\u5c40\u6a2a\u6d5c\u56fd\u9053\u4e8b\u52d9\u6240","boring_xml_url":47,"boring_view_url":1,"soilmap_view_url":null,"soiltest_xml_url":0,"soiltest_view_url":0},{"id":492922,"code":"NGIC202105921-0004","latitude":"35.351022","longitude":"139.48095383333","source_code":"","project_name":"","survey_name":"R3\u6a2a\u6d5c\u6e58\u5357\u9053\u8def\u6c34\u6587\u8abf\u67fb\u696d\u52d9","client_name":"\u56fd\u571f\u4ea4\u901a\u7701\u95a2\u6771\u5730\u65b9\u6574\u5099\u5c40\u6a2a\u6d5c\u56fd\u9053\u4e8b\u52d9\u6240","boring_xml_url":47,"boring_view_url":1,"soilmap_view_url":null,"soiltest_xml_url":0,"soiltest_view_url":0},{"id":492921,"code":"NGIC202105921-0003","latitude":"35.35211","longitude":"139.48151583333","source_code":"","project_name":"","survey_name":"R3\u6a2a\u6d5c\u6e58\u5357\u9053\u8def\u6c34\u6587\u8abf\u67fb\u696d\u52d9","client_name":"\u56fd\u571f\u4ea4\u901a\u7701\u95a2\u6771\u5730\u65b9\u6574\u5099\u5c40\u6a2a\u6d5c\u56fd\u9053\u4e8b\u52d9\u6240","boring_xml_url":47,"boring_view_url":1,"soilmap_view_url":null,"soiltest_xml_url":0,"soiltest_view_url":0},{"id":492920,"code":"NGIC202105921-0002","latitude":"35.355677","longitude":"139.48739","source_code":"","project_name":"","survey_name":"R3\u6a2a\u6d5c\u6e58\u5357\u9053\u8def\u6c34\u6587\u8abf\u67fb\u696d\u52d9","client_name":"\u56fd\u571f\u4ea4\u901a\u7701\u95a2\u6771\u5730\u65b9\u6574\u5099\u5c40\u6a2a\u6d5c\u56fd\u9053\u4e8b\u52d9\u6240","boring_xml_url":47,"boring_view_url":1,"soilmap_view_url":null,"soiltest_xml_url":0,"soiltest_view_url":0},{"id":492919,"code":"NGIC202105921-0001","latitude":"35.355781","longitude":"139.48861983333","source_code":"","project_name":"","survey_name":"R3\u6a2a\u6d5c\u6e58\u5357\u9053\u8def\u6c34\u6587\u8abf\u67fb\u696d\u52d9","client_name":"\u56fd\u571f\u4ea4\u901a\u7701\u95a2\u6771\u5730\u65b9\u6574\u5099\u5c40\u6a2a\u6d5c\u56fd\u9053\u4e8b\u52d9\u6240","boring_xml_url":47,"boring_view_url":1,"soilmap_view_url":null,"soiltest_xml_url":0,"soiltest_view_url":0},{"id":492909,"code":"NGIC202106048-0008","latitude":"35.364472222222","longitude":"139.51527777778","source_code":"","project_name":"","survey_name":"R2\u6a2a\u6d5c\u6e58\u5357\u9053\u8def\u5730\u4e0b\u57cb\u8a2d\u7269\u8abf\u67fb\u8abf\u67fb","client_name":"\u56fd\u571f\u4ea4\u901a\u7701\u95a2\u6771\u5730\u65b9\u6574\u5099\u5c40\u6a2a\u6d5c\u56fd\u9053\u4e8b\u52d9\u6240","boring_xml_url":47,"boring_view_url":1,"soilmap_view_url":null,"soiltest_xml_url":0,"soiltest_view_url":0},{"id":492908,"code":"NGIC202106048-0007","latitude":"35.363972222222","longitude":"139.51552777778","source_code":"","project_name":"","survey_name":"R2\u6a2a\u6d5c\u6e58\u5357\u9053\u8def\u5730\u4e0b\u57cb\u8a2d\u7269\u8abf\u67fb\u8abf\u67fb","client_name":"\u56fd\u571f\u4ea4\u901a\u7701\u95a2\u6771\u5730\u65b9\u6574\u5099\u5c40\u6a2a\u6d5c\u56fd\u9053\u4e8b\u52d9\u6240","boring_xml_url":47,"boring_view_url":1,"soilmap_view_url":null,"soiltest_xml_url":47,"soiltest_view_url":47},{"id":492907,"code":"NGIC202106048-0006","latitude":"35.364055555556","longitude":"139.51555555556","source_code":"","project_name":"","survey_name":"R2\u6a2a\u6d5c\u6e58\u5357\u9053\u8def\u5730\u4e0b\u57cb\u8a2d\u7269\u8abf\u67fb\u8abf\u67fb","client_name":"\u56fd\u571f\u4ea4\u901a\u7701\u95a2\u6771\u5730\u65b9\u6574\u5099\u5c40\u6a2a\u6d5c\u56fd\u9053\u4e8b\u52d9\u6240","boring_xml_url":47,"boring_view_url":1,"soilmap_view_url":null,"soiltest_xml_url":47,"soiltest_view_url":47},{"id":492906,"code":"NGIC202106048-0005","latitude":"35.33575","longitude":"139.5155","source_code":"","project_name":"","survey_name":"R2\u6a2a\u6d5c\u6e58\u5357\u9053\u8def\u5730\u4e0b\u57cb\u8a2d\u7269\u8abf\u67fb\u8abf\u67fb","client_name":"\u56fd\u571f\u4ea4\u901a\u7701\u95a2\u6771\u5730\u65b9\u6574\u5099\u5c40\u6a2a\u6d5c\u56fd\u9053\u4e8b\u52d9\u6240","boring_xml_url":47,"boring_view_url":1,"soilmap_view_url":null,"soiltest_xml_url":47,"soiltest_view_url":47},{"id":492905,"code":"NGIC202106048-0004","latitude":"35.335472222222","longitude":"139.51427777778","source_code":"","project_name":"","survey_name":"R2\u6a2a\u6d5c\u6e58\u5357\u9053\u8def\u5730\u4e0b\u57cb\u8a2d\u7269\u8abf\u67fb\u8abf\u67fb","client_name":"\u56fd\u571f\u4ea4\u901a\u7701\u95a2\u6771\u5730\u65b9\u6574\u5099\u5c40\u6a2a\u6d5c\u56fd\u9053\u4e8b\u52d9\u6240","boring_xml_url":47,"boring_view_url":1,"soilmap_view_url":null,"soiltest_xml_url":0,"soiltest_view_url":0},{"id":492904,"code":"NGIC202106048-0003","latitude":"35.334833333333","longitude":"139.51602777778","source_code":"","project_name":"","survey_name":"R2\u6a2a\u6d5c\u6e58\u5357\u9053\u8def\u5730\u4e0b\u57cb\u8a2d\u7269\u8abf\u67fb\u8abf\u67fb","client_name":"\u56fd\u571f\u4ea4\u901a\u7701\u95a2\u6771\u5730\u65b9\u6574\u5099\u5c40\u6a2a\u6d5c\u56fd\u9053\u4e8b\u52d9\u6240","boring_xml_url":47,"boring_view_url":1,"soilmap_view_url":null,"soiltest_xml_url":0,"soiltest_view_url":0}]}}