{"header":{"xyz":{"source":[],"mosaic":false},"page":1647,"raw":{"soiltest_result":"0","bbox":"57.598333,109.544722,1.933333,163.806111","page":"1647"},"conditions":{"soiltest_result":0,"north":57.598333,"west":109.544722,"south":1.933333,"east":163.806111},"success":true,"message":""},"data":{"meta":{"total":212844,"page":1647,"pages":7095,"count":30},"values":[{"id":492711,"code":"NGIC202106070-0011","latitude":"39.546676944444","longitude":"140.20911613889","source_code":"","project_name":"","survey_name":"\u96c4\u7269\u5ddd\u4e0b\u6d41\u96c4\u548c\u5730\u533a\u5730\u8cea\u8abf\u67fb\u696d\u52d9","client_name":"\u56fd\u571f\u4ea4\u901a\u7701\u6771\u5317\u5730\u65b9\u6574\u5099\u5c40\u79cb\u7530\u6cb3\u5ddd\u56fd\u9053\u4e8b\u52d9\u6240","boring_xml_url":47,"boring_view_url":1,"soilmap_view_url":null,"soiltest_xml_url":47,"soiltest_view_url":47},{"id":492710,"code":"NGIC202106070-0010","latitude":"39.545782277778","longitude":"140.20826930556","source_code":"","project_name":"","survey_name":"\u96c4\u7269\u5ddd\u4e0b\u6d41\u96c4\u548c\u5730\u533a\u5730\u8cea\u8abf\u67fb\u696d\u52d9","client_name":"\u56fd\u571f\u4ea4\u901a\u7701\u6771\u5317\u5730\u65b9\u6574\u5099\u5c40\u79cb\u7530\u6cb3\u5ddd\u56fd\u9053\u4e8b\u52d9\u6240","boring_xml_url":47,"boring_view_url":1,"soilmap_view_url":null,"soiltest_xml_url":0,"soiltest_view_url":0},{"id":492709,"code":"NGIC202106070-0009","latitude":"39.545782277778","longitude":"140.20839277778","source_code":"","project_name":"","survey_name":"\u96c4\u7269\u5ddd\u4e0b\u6d41\u96c4\u548c\u5730\u533a\u5730\u8cea\u8abf\u67fb\u696d\u52d9","client_name":"\u56fd\u571f\u4ea4\u901a\u7701\u6771\u5317\u5730\u65b9\u6574\u5099\u5c40\u79cb\u7530\u6cb3\u5ddd\u56fd\u9053\u4e8b\u52d9\u6240","boring_xml_url":47,"boring_view_url":1,"soilmap_view_url":null,"soiltest_xml_url":0,"soiltest_view_url":0},{"id":492708,"code":"NGIC202106070-0008","latitude":"39.600353972222","longitude":"140.2196425","source_code":"","project_name":"","survey_name":"\u96c4\u7269\u5ddd\u4e0b\u6d41\u96c4\u548c\u5730\u533a\u5730\u8cea\u8abf\u67fb\u696d\u52d9","client_name":"\u56fd\u571f\u4ea4\u901a\u7701\u6771\u5317\u5730\u65b9\u6574\u5099\u5c40\u79cb\u7530\u6cb3\u5ddd\u56fd\u9053\u4e8b\u52d9\u6240","boring_xml_url":47,"boring_view_url":1,"soilmap_view_url":null,"soiltest_xml_url":47,"soiltest_view_url":47},{"id":492707,"code":"NGIC202106070-0007","latitude":"39.6006245","longitude":"140.21824625","source_code":"","project_name":"","survey_name":"\u96c4\u7269\u5ddd\u4e0b\u6d41\u96c4\u548c\u5730\u533a\u5730\u8cea\u8abf\u67fb\u696d\u52d9","client_name":"\u56fd\u571f\u4ea4\u901a\u7701\u6771\u5317\u5730\u65b9\u6574\u5099\u5c40\u79cb\u7530\u6cb3\u5ddd\u56fd\u9053\u4e8b\u52d9\u6240","boring_xml_url":47,"boring_view_url":1,"soilmap_view_url":null,"soiltest_xml_url":47,"soiltest_view_url":47},{"id":492706,"code":"NGIC202106070-0006","latitude":"39.597884305556","longitude":"140.21474325","source_code":"","project_name":"","survey_name":"\u96c4\u7269\u5ddd\u4e0b\u6d41\u96c4\u548c\u5730\u533a\u5730\u8cea\u8abf\u67fb\u696d\u52d9","client_name":"\u56fd\u571f\u4ea4\u901a\u7701\u6771\u5317\u5730\u65b9\u6574\u5099\u5c40\u79cb\u7530\u6cb3\u5ddd\u56fd\u9053\u4e8b\u52d9\u6240","boring_xml_url":47,"boring_view_url":1,"soilmap_view_url":null,"soiltest_xml_url":47,"soiltest_view_url":47},{"id":492705,"code":"NGIC202106070-0005","latitude":"39.600626472222","longitude":"140.21323669444","source_code":"","project_name":"","survey_name":"\u96c4\u7269\u5ddd\u4e0b\u6d41\u96c4\u548c\u5730\u533a\u5730\u8cea\u8abf\u67fb\u696d\u52d9","client_name":"\u56fd\u571f\u4ea4\u901a\u7701\u6771\u5317\u5730\u65b9\u6574\u5099\u5c40\u79cb\u7530\u6cb3\u5ddd\u56fd\u9053\u4e8b\u52d9\u6240","boring_xml_url":47,"boring_view_url":1,"soilmap_view_url":null,"soiltest_xml_url":47,"soiltest_view_url":47},{"id":492704,"code":"NGIC202106070-0004","latitude":"39.599877861111","longitude":"140.2148095","source_code":"","project_name":"","survey_name":"\u96c4\u7269\u5ddd\u4e0b\u6d41\u96c4\u548c\u5730\u533a\u5730\u8cea\u8abf\u67fb\u696d\u52d9","client_name":"\u56fd\u571f\u4ea4\u901a\u7701\u6771\u5317\u5730\u65b9\u6574\u5099\u5c40\u79cb\u7530\u6cb3\u5ddd\u56fd\u9053\u4e8b\u52d9\u6240","boring_xml_url":47,"boring_view_url":1,"soilmap_view_url":null,"soiltest_xml_url":47,"soiltest_view_url":47},{"id":492703,"code":"NGIC202106070-0003","latitude":"39.663643583333","longitude":"140.12501305556","source_code":"","project_name":"","survey_name":"\u96c4\u7269\u5ddd\u4e0b\u6d41\u96c4\u548c\u5730\u533a\u5730\u8cea\u8abf\u67fb\u696d\u52d9","client_name":"\u56fd\u571f\u4ea4\u901a\u7701\u6771\u5317\u5730\u65b9\u6574\u5099\u5c40\u79cb\u7530\u6cb3\u5ddd\u56fd\u9053\u4e8b\u52d9\u6240","boring_xml_url":47,"boring_view_url":1,"soilmap_view_url":null,"soiltest_xml_url":47,"soiltest_view_url":47},{"id":492702,"code":"NGIC202106070-0002","latitude":"39.663339416667","longitude":"140.12429352778","source_code":"","project_name":"","survey_name":"\u96c4\u7269\u5ddd\u4e0b\u6d41\u96c4\u548c\u5730\u533a\u5730\u8cea\u8abf\u67fb\u696d\u52d9","client_name":"\u56fd\u571f\u4ea4\u901a\u7701\u6771\u5317\u5730\u65b9\u6574\u5099\u5c40\u79cb\u7530\u6cb3\u5ddd\u56fd\u9053\u4e8b\u52d9\u6240","boring_xml_url":47,"boring_view_url":1,"soilmap_view_url":null,"soiltest_xml_url":47,"soiltest_view_url":47},{"id":492701,"code":"NGIC202106070-0001","latitude":"39.664888416667","longitude":"140.12405558333","source_code":"","project_name":"","survey_name":"\u96c4\u7269\u5ddd\u4e0b\u6d41\u96c4\u548c\u5730\u533a\u5730\u8cea\u8abf\u67fb\u696d\u52d9","client_name":"\u56fd\u571f\u4ea4\u901a\u7701\u6771\u5317\u5730\u65b9\u6574\u5099\u5c40\u79cb\u7530\u6cb3\u5ddd\u56fd\u9053\u4e8b\u52d9\u6240","boring_xml_url":47,"boring_view_url":1,"soilmap_view_url":null,"soiltest_xml_url":47,"soiltest_view_url":47},{"id":492685,"code":"NGIC202105842-0010","latitude":"39.619205555556","longitude":"141.84776388889","source_code":"","project_name":"\u5bae\u53e4\u76db\u5ca1\u6a2a\u65ad\u9053\u8def","survey_name":"\u5bae\u53e4\u5730\u533a\u5730\u8cea\u8abf\u67fb","client_name":"\u56fd\u571f\u4ea4\u901a\u7701\u6771\u5317\u5730\u65b9\u6574\u5099\u5c40\u4e09\u9678\u56fd\u9053\u4e8b\u52d9\u6240","boring_xml_url":47,"boring_view_url":1,"soilmap_view_url":null,"soiltest_xml_url":47,"soiltest_view_url":47},{"id":492684,"code":"NGIC202105842-0009","latitude":"39.618883333333","longitude":"141.84862222222","source_code":"","project_name":"\u5bae\u53e4\u76db\u5ca1\u6a2a\u65ad\u9053\u8def","survey_name":"\u5bae\u53e4\u5730\u533a\u5730\u8cea\u8abf\u67fb","client_name":"\u56fd\u571f\u4ea4\u901a\u7701\u6771\u5317\u5730\u65b9\u6574\u5099\u5c40\u4e09\u9678\u56fd\u9053\u4e8b\u52d9\u6240","boring_xml_url":47,"boring_view_url":1,"soilmap_view_url":null,"soiltest_xml_url":0,"soiltest_view_url":0},{"id":492683,"code":"NGIC202105842-0008","latitude":"39.626816666667","longitude":"141.88345833333","source_code":"","project_name":"\u5bae\u53e4\u76db\u5ca1\u6a2a\u65ad\u9053\u8def","survey_name":"\u5bae\u53e4\u5730\u533a\u5730\u8cea\u8abf\u67fb","client_name":"\u56fd\u571f\u4ea4\u901a\u7701\u6771\u5317\u5730\u65b9\u6574\u5099\u5c40\u4e09\u9678\u56fd\u9053\u4e8b\u52d9\u6240","boring_xml_url":47,"boring_view_url":1,"soilmap_view_url":null,"soiltest_xml_url":47,"soiltest_view_url":47},{"id":492682,"code":"NGIC202105842-0007","latitude":"39.622791666667","longitude":"141.826575","source_code":"","project_name":"\u5bae\u53e4\u76db\u5ca1\u6a2a\u65ad\u9053\u8def","survey_name":"\u5bae\u53e4\u5730\u533a\u5730\u8cea\u8abf\u67fb","client_name":"\u56fd\u571f\u4ea4\u901a\u7701\u6771\u5317\u5730\u65b9\u6574\u5099\u5c40\u4e09\u9678\u56fd\u9053\u4e8b\u52d9\u6240","boring_xml_url":47,"boring_view_url":1,"soilmap_view_url":null,"soiltest_xml_url":47,"soiltest_view_url":47},{"id":492681,"code":"NGIC202105842-0006","latitude":"39.622327777778","longitude":"141.82706388889","source_code":"","project_name":"\u5bae\u53e4\u76db\u5ca1\u6a2a\u65ad\u9053\u8def","survey_name":"\u5bae\u53e4\u5730\u533a\u5730\u8cea\u8abf\u67fb","client_name":"\u56fd\u571f\u4ea4\u901a\u7701\u6771\u5317\u5730\u65b9\u6574\u5099\u5c40\u4e09\u9678\u56fd\u9053\u4e8b\u52d9\u6240","boring_xml_url":47,"boring_view_url":1,"soilmap_view_url":null,"soiltest_xml_url":47,"soiltest_view_url":47},{"id":492680,"code":"NGIC202105842-0005","latitude":"39.62185","longitude":"141.827775","source_code":"","project_name":"\u5bae\u53e4\u76db\u5ca1\u6a2a\u65ad\u9053\u8def","survey_name":"\u5bae\u53e4\u5730\u533a\u5730\u8cea\u8abf\u67fb","client_name":"\u56fd\u571f\u4ea4\u901a\u7701\u6771\u5317\u5730\u65b9\u6574\u5099\u5c40\u4e09\u9678\u56fd\u9053\u4e8b\u52d9\u6240","boring_xml_url":47,"boring_view_url":1,"soilmap_view_url":null,"soiltest_xml_url":47,"soiltest_view_url":47},{"id":492679,"code":"NGIC202105842-0004","latitude":"39.621377777778","longitude":"141.82838055556","source_code":"","project_name":"\u5bae\u53e4\u76db\u5ca1\u6a2a\u65ad\u9053\u8def","survey_name":"\u5bae\u53e4\u5730\u533a\u5730\u8cea\u8abf\u67fb","client_name":"\u56fd\u571f\u4ea4\u901a\u7701\u6771\u5317\u5730\u65b9\u6574\u5099\u5c40\u4e09\u9678\u56fd\u9053\u4e8b\u52d9\u6240","boring_xml_url":47,"boring_view_url":1,"soilmap_view_url":null,"soiltest_xml_url":47,"soiltest_view_url":47},{"id":492678,"code":"NGIC202105842-0003","latitude":"39.620908333333","longitude":"141.82897777778","source_code":"","project_name":"\u5bae\u53e4\u76db\u5ca1\u6a2a\u65ad\u9053\u8def","survey_name":"\u5bae\u53e4\u5730\u533a\u5730\u8cea\u8abf\u67fb","client_name":"\u56fd\u571f\u4ea4\u901a\u7701\u6771\u5317\u5730\u65b9\u6574\u5099\u5c40\u4e09\u9678\u56fd\u9053\u4e8b\u52d9\u6240","boring_xml_url":47,"boring_view_url":1,"soilmap_view_url":null,"soiltest_xml_url":47,"soiltest_view_url":47},{"id":492677,"code":"NGIC202105842-0002","latitude":"39.620761111111","longitude":"141.82901388889","source_code":"","project_name":"\u5bae\u53e4\u76db\u5ca1\u6a2a\u65ad\u9053\u8def","survey_name":"\u5bae\u53e4\u5730\u533a\u5730\u8cea\u8abf\u67fb","client_name":"\u56fd\u571f\u4ea4\u901a\u7701\u6771\u5317\u5730\u65b9\u6574\u5099\u5c40\u4e09\u9678\u56fd\u9053\u4e8b\u52d9\u6240","boring_xml_url":47,"boring_view_url":1,"soilmap_view_url":null,"soiltest_xml_url":47,"soiltest_view_url":47},{"id":492676,"code":"NGIC202105842-0001","latitude":"39.62065","longitude":"141.82903611111","source_code":"","project_name":"\u5bae\u53e4\u76db\u5ca1\u6a2a\u65ad\u9053\u8def","survey_name":"\u5bae\u53e4\u5730\u533a\u5730\u8cea\u8abf\u67fb","client_name":"\u56fd\u571f\u4ea4\u901a\u7701\u6771\u5317\u5730\u65b9\u6574\u5099\u5c40\u4e09\u9678\u56fd\u9053\u4e8b\u52d9\u6240","boring_xml_url":47,"boring_view_url":1,"soilmap_view_url":null,"soiltest_xml_url":0,"soiltest_view_url":0},{"id":492671,"code":"NGIC202106159-0003","latitude":"44.092951638889","longitude":"144.04675902778","source_code":"","project_name":"\u4ee4\u548c3\u5e74\u5ea6\u65bd\u884c \u5e38\u5442\u5ddd\u4e0b\u6d41\u5730\u533a \u5171\u7acb\u6392\u6c34\u6a5f\u5834\u6a0b\u9580\u8a2d\u8a08\u7b49\u696d\u52d9","survey_name":"\u4ee4\u548c3\u5e74\u5ea6\u65bd\u884c \u5e38\u5442\u5ddd\u4e0b\u6d41\u5730\u533a \u5171\u7acb\u6392\u6c34\u6a5f\u5834\u6a0b\u9580\u8a2d\u8a08\u7b49\u696d\u52d9","client_name":"\u56fd\u571f\u4ea4\u901a\u7701\u5317\u6d77\u9053\u958b\u767a\u5c40\u7db2\u8d70\u958b\u767a\u5efa\u8a2d\u90e8\u5317\u898b\u8fb2\u696d\u4e8b\u52d9\u6240","boring_xml_url":47,"boring_view_url":1,"soilmap_view_url":null,"soiltest_xml_url":47,"soiltest_view_url":47},{"id":492670,"code":"NGIC202106159-0002","latitude":"44.09238375","longitude":"144.04739269444","source_code":"","project_name":"\u4ee4\u548c3\u5e74\u5ea6\u65bd\u884c \u5e38\u5442\u5ddd\u4e0b\u6d41\u5730\u533a \u5171\u7acb\u6392\u6c34\u6a5f\u5834\u6a0b\u9580\u8a2d\u8a08\u7b49\u696d\u52d9","survey_name":"\u4ee4\u548c3\u5e74\u5ea6\u65bd\u884c \u5e38\u5442\u5ddd\u4e0b\u6d41\u5730\u533a \u5171\u7acb\u6392\u6c34\u6a5f\u5834\u6a0b\u9580\u8a2d\u8a08\u7b49\u696d\u52d9","client_name":"\u56fd\u571f\u4ea4\u901a\u7701\u5317\u6d77\u9053\u958b\u767a\u5c40\u7db2\u8d70\u958b\u767a\u5efa\u8a2d\u90e8\u5317\u898b\u8fb2\u696d\u4e8b\u52d9\u6240","boring_xml_url":47,"boring_view_url":1,"soilmap_view_url":null,"soiltest_xml_url":47,"soiltest_view_url":47},{"id":492669,"code":"NGIC202106159-0001","latitude":"44.09238375","longitude":"144.04739269444","source_code":"","project_name":"\u4ee4\u548c3\u5e74\u5ea6\u65bd\u884c \u5e38\u5442\u5ddd\u4e0b\u6d41\u5730\u533a \u5171\u7acb\u6392\u6c34\u6a5f\u5834\u6a0b\u9580\u8a2d\u8a08\u7b49\u696d\u52d9","survey_name":"\u4ee4\u548c3\u5e74\u5ea6\u65bd\u884c \u5e38\u5442\u5ddd\u4e0b\u6d41\u5730\u533a \u5171\u7acb\u6392\u6c34\u6a5f\u5834\u6a0b\u9580\u8a2d\u8a08\u7b49\u696d\u52d9","client_name":"\u56fd\u571f\u4ea4\u901a\u7701\u5317\u6d77\u9053\u958b\u767a\u5c40\u7db2\u8d70\u958b\u767a\u5efa\u8a2d\u90e8\u5317\u898b\u8fb2\u696d\u4e8b\u52d9\u6240","boring_xml_url":47,"boring_view_url":1,"soilmap_view_url":null,"soiltest_xml_url":47,"soiltest_view_url":47},{"id":492663,"code":"NGIC202105788-0034","latitude":"35.117562444444","longitude":"137.58346441667","source_code":"","project_name":"\u4ee4\u548c2\u5e74\u5ea6\u8a2d\u697d\u30c0\u30e0\u4ed8\u66ff\u6797\u9053\u5730\u8cea\u8abf\u67fb\u696d\u52d9","survey_name":"\u4ee4\u548c2\u5e74\u5ea6\u8a2d\u697d\u30c0\u30e0\u4ed8\u66ff\u6797\u9053\u5730\u8cea\u8abf\u67fb\u696d\u52d9","client_name":"\u56fd\u571f\u4ea4\u901a\u7701\u4e2d\u90e8\u5730\u65b9\u6574\u5099\u5c40\u8a2d\u697d\u30c0\u30e0\u5de5\u4e8b\u4e8b\u52d9\u6240","boring_xml_url":47,"boring_view_url":1,"soilmap_view_url":null,"soiltest_xml_url":0,"soiltest_view_url":0},{"id":492662,"code":"NGIC202105788-0033","latitude":"35.117530305556","longitude":"137.58354022222","source_code":"","project_name":"\u4ee4\u548c2\u5e74\u5ea6\u8a2d\u697d\u30c0\u30e0\u4ed8\u66ff\u6797\u9053\u5730\u8cea\u8abf\u67fb\u696d\u52d9","survey_name":"\u4ee4\u548c2\u5e74\u5ea6\u8a2d\u697d\u30c0\u30e0\u4ed8\u66ff\u6797\u9053\u5730\u8cea\u8abf\u67fb\u696d\u52d9","client_name":"\u56fd\u571f\u4ea4\u901a\u7701\u4e2d\u90e8\u5730\u65b9\u6574\u5099\u5c40\u8a2d\u697d\u30c0\u30e0\u5de5\u4e8b\u4e8b\u52d9\u6240","boring_xml_url":47,"boring_view_url":1,"soilmap_view_url":null,"soiltest_xml_url":0,"soiltest_view_url":0},{"id":492661,"code":"NGIC202105788-0032","latitude":"35.117524083333","longitude":"137.58347941667","source_code":"","project_name":"\u4ee4\u548c2\u5e74\u5ea6\u8a2d\u697d\u30c0\u30e0\u4ed8\u66ff\u6797\u9053\u5730\u8cea\u8abf\u67fb\u696d\u52d9","survey_name":"\u4ee4\u548c2\u5e74\u5ea6\u8a2d\u697d\u30c0\u30e0\u4ed8\u66ff\u6797\u9053\u5730\u8cea\u8abf\u67fb\u696d\u52d9","client_name":"\u56fd\u571f\u4ea4\u901a\u7701\u4e2d\u90e8\u5730\u65b9\u6574\u5099\u5c40\u8a2d\u697d\u30c0\u30e0\u5de5\u4e8b\u4e8b\u52d9\u6240","boring_xml_url":47,"boring_view_url":1,"soilmap_view_url":null,"soiltest_xml_url":0,"soiltest_view_url":0},{"id":492660,"code":"NGIC202105788-0031","latitude":"35.11720275","longitude":"137.58365827778","source_code":"","project_name":"\u4ee4\u548c2\u5e74\u5ea6\u8a2d\u697d\u30c0\u30e0\u4ed8\u66ff\u6797\u9053\u5730\u8cea\u8abf\u67fb\u696d\u52d9","survey_name":"\u4ee4\u548c2\u5e74\u5ea6\u8a2d\u697d\u30c0\u30e0\u4ed8\u66ff\u6797\u9053\u5730\u8cea\u8abf\u67fb\u696d\u52d9","client_name":"\u56fd\u571f\u4ea4\u901a\u7701\u4e2d\u90e8\u5730\u65b9\u6574\u5099\u5c40\u8a2d\u697d\u30c0\u30e0\u5de5\u4e8b\u4e8b\u52d9\u6240","boring_xml_url":47,"boring_view_url":1,"soilmap_view_url":null,"soiltest_xml_url":0,"soiltest_view_url":0},{"id":492659,"code":"NGIC202105788-0030","latitude":"35.117150666667","longitude":"137.58367530556","source_code":"","project_name":"\u4ee4\u548c2\u5e74\u5ea6\u8a2d\u697d\u30c0\u30e0\u4ed8\u66ff\u6797\u9053\u5730\u8cea\u8abf\u67fb\u696d\u52d9","survey_name":"\u4ee4\u548c2\u5e74\u5ea6\u8a2d\u697d\u30c0\u30e0\u4ed8\u66ff\u6797\u9053\u5730\u8cea\u8abf\u67fb\u696d\u52d9","client_name":"\u56fd\u571f\u4ea4\u901a\u7701\u4e2d\u90e8\u5730\u65b9\u6574\u5099\u5c40\u8a2d\u697d\u30c0\u30e0\u5de5\u4e8b\u4e8b\u52d9\u6240","boring_xml_url":47,"boring_view_url":1,"soilmap_view_url":null,"soiltest_xml_url":0,"soiltest_view_url":0},{"id":492658,"code":"NGIC202105788-0029","latitude":"35.117142361111","longitude":"137.58361197222","source_code":"","project_name":"\u4ee4\u548c2\u5e74\u5ea6\u8a2d\u697d\u30c0\u30e0\u4ed8\u66ff\u6797\u9053\u5730\u8cea\u8abf\u67fb\u696d\u52d9","survey_name":"\u4ee4\u548c2\u5e74\u5ea6\u8a2d\u697d\u30c0\u30e0\u4ed8\u66ff\u6797\u9053\u5730\u8cea\u8abf\u67fb\u696d\u52d9","client_name":"\u56fd\u571f\u4ea4\u901a\u7701\u4e2d\u90e8\u5730\u65b9\u6574\u5099\u5c40\u8a2d\u697d\u30c0\u30e0\u5de5\u4e8b\u4e8b\u52d9\u6240","boring_xml_url":47,"boring_view_url":1,"soilmap_view_url":null,"soiltest_xml_url":0,"soiltest_view_url":0}]}}