{"header":{"xyz":{"source":[],"mosaic":false},"page":1649,"raw":{"soiltest_result":"0","bbox":"57.598333,109.544722,1.933333,163.806111","page":"1649"},"conditions":{"soiltest_result":0,"north":57.598333,"west":109.544722,"south":1.933333,"east":163.806111},"success":true,"message":""},"data":{"meta":{"total":212844,"page":1649,"pages":7095,"count":30},"values":[{"id":492627,"code":"NGIC202105985-0008","latitude":"38.443347222222","longitude":"141.28730277778","source_code":"","project_name":"","survey_name":"\u65e7\u5317\u4e0a\u5ddd\u77f3\u5dfb\u53f3\u5cb8\u5730\u533a\u5730\u8cea\u8abf\u67fb\u696d\u52d9","client_name":"\u56fd\u571f\u4ea4\u901a\u7701\u6771\u5317\u5730\u65b9\u6574\u5099\u5c40\u5317\u4e0a\u5ddd\u4e0b\u6d41\u6cb3\u5ddd\u4e8b\u52d9\u6240","boring_xml_url":47,"boring_view_url":1,"soilmap_view_url":null,"soiltest_xml_url":47,"soiltest_view_url":47},{"id":492626,"code":"NGIC202105985-0007","latitude":"38.529194444444","longitude":"141.37341666667","source_code":"","project_name":"","survey_name":"\u65e7\u5317\u4e0a\u5ddd\u77f3\u5dfb\u53f3\u5cb8\u5730\u533a\u5730\u8cea\u8abf\u67fb\u696d\u52d9","client_name":"\u56fd\u571f\u4ea4\u901a\u7701\u6771\u5317\u5730\u65b9\u6574\u5099\u5c40\u5317\u4e0a\u5ddd\u4e0b\u6d41\u6cb3\u5ddd\u4e8b\u52d9\u6240","boring_xml_url":47,"boring_view_url":1,"soilmap_view_url":null,"soiltest_xml_url":0,"soiltest_view_url":0},{"id":492625,"code":"NGIC202105985-0006","latitude":"38.525944444444","longitude":"141.36666666667","source_code":"","project_name":"","survey_name":"\u65e7\u5317\u4e0a\u5ddd\u77f3\u5dfb\u53f3\u5cb8\u5730\u533a\u5730\u8cea\u8abf\u67fb\u696d\u52d9","client_name":"\u56fd\u571f\u4ea4\u901a\u7701\u6771\u5317\u5730\u65b9\u6574\u5099\u5c40\u5317\u4e0a\u5ddd\u4e0b\u6d41\u6cb3\u5ddd\u4e8b\u52d9\u6240","boring_xml_url":47,"boring_view_url":1,"soilmap_view_url":null,"soiltest_xml_url":0,"soiltest_view_url":0},{"id":492624,"code":"NGIC202105985-0005","latitude":"38.44585","longitude":"141.31060555556","source_code":"","project_name":"","survey_name":"\u65e7\u5317\u4e0a\u5ddd\u77f3\u5dfb\u53f3\u5cb8\u5730\u533a\u5730\u8cea\u8abf\u67fb\u696d\u52d9","client_name":"\u56fd\u571f\u4ea4\u901a\u7701\u6771\u5317\u5730\u65b9\u6574\u5099\u5c40\u5317\u4e0a\u5ddd\u4e0b\u6d41\u6cb3\u5ddd\u4e8b\u52d9\u6240","boring_xml_url":47,"boring_view_url":1,"soilmap_view_url":null,"soiltest_xml_url":0,"soiltest_view_url":0},{"id":492623,"code":"NGIC202105985-0004","latitude":"38.44595","longitude":"141.31069166667","source_code":"","project_name":"","survey_name":"\u65e7\u5317\u4e0a\u5ddd\u77f3\u5dfb\u53f3\u5cb8\u5730\u533a\u5730\u8cea\u8abf\u67fb\u696d\u52d9","client_name":"\u56fd\u571f\u4ea4\u901a\u7701\u6771\u5317\u5730\u65b9\u6574\u5099\u5c40\u5317\u4e0a\u5ddd\u4e0b\u6d41\u6cb3\u5ddd\u4e8b\u52d9\u6240","boring_xml_url":47,"boring_view_url":1,"soilmap_view_url":null,"soiltest_xml_url":47,"soiltest_view_url":47},{"id":492622,"code":"NGIC202105985-0003","latitude":"38.446027777778","longitude":"141.31075555556","source_code":"","project_name":"","survey_name":"\u65e7\u5317\u4e0a\u5ddd\u77f3\u5dfb\u53f3\u5cb8\u5730\u533a\u5730\u8cea\u8abf\u67fb\u696d\u52d9","client_name":"\u56fd\u571f\u4ea4\u901a\u7701\u6771\u5317\u5730\u65b9\u6574\u5099\u5c40\u5317\u4e0a\u5ddd\u4e0b\u6d41\u6cb3\u5ddd\u4e8b\u52d9\u6240","boring_xml_url":47,"boring_view_url":1,"soilmap_view_url":null,"soiltest_xml_url":0,"soiltest_view_url":0},{"id":492621,"code":"NGIC202105985-0002","latitude":"38.441111111111","longitude":"141.31981111111","source_code":"","project_name":"","survey_name":"\u65e7\u5317\u4e0a\u5ddd\u77f3\u5dfb\u53f3\u5cb8\u5730\u533a\u5730\u8cea\u8abf\u67fb\u696d\u52d9","client_name":"\u56fd\u571f\u4ea4\u901a\u7701\u6771\u5317\u5730\u65b9\u6574\u5099\u5c40\u5317\u4e0a\u5ddd\u4e0b\u6d41\u6cb3\u5ddd\u4e8b\u52d9\u6240","boring_xml_url":47,"boring_view_url":1,"soilmap_view_url":null,"soiltest_xml_url":0,"soiltest_view_url":0},{"id":492620,"code":"NGIC202105985-0001","latitude":"38.440938888889","longitude":"141.31988611111","source_code":"","project_name":"","survey_name":"\u65e7\u5317\u4e0a\u5ddd\u77f3\u5dfb\u53f3\u5cb8\u5730\u533a\u5730\u8cea\u8abf\u67fb\u696d\u52d9","client_name":"\u56fd\u571f\u4ea4\u901a\u7701\u6771\u5317\u5730\u65b9\u6574\u5099\u5c40\u5317\u4e0a\u5ddd\u4e0b\u6d41\u6cb3\u5ddd\u4e8b\u52d9\u6240","boring_xml_url":47,"boring_view_url":1,"soilmap_view_url":null,"soiltest_xml_url":47,"soiltest_view_url":47},{"id":492619,"code":"NGIC202105973-0011","latitude":"36.633722222222","longitude":"140.39819444444","source_code":"","project_name":"","survey_name":"R2\u4e45\u6148\u5ddd\u5e38\u9678\u5927\u5bae\u5de5\u533a\u5730\u8cea\u8abf\u67fb\u696d\u52d9","client_name":"\u56fd\u571f\u4ea4\u901a\u7701\u95a2\u6771\u5730\u65b9\u6574\u5099\u5c40\u4e45\u6148\u5ddd\u7dca\u6025\u6cbb\u6c34\u5bfe\u7b56\u6cb3\u5ddd\u4e8b\u52d9\u6240","boring_xml_url":47,"boring_view_url":1,"soilmap_view_url":null,"soiltest_xml_url":47,"soiltest_view_url":47},{"id":492618,"code":"NGIC202105973-0010","latitude":"36.633811111111","longitude":"140.39827222222","source_code":"","project_name":"","survey_name":"R2\u4e45\u6148\u5ddd\u5e38\u9678\u5927\u5bae\u5de5\u533a\u5730\u8cea\u8abf\u67fb\u696d\u52d9","client_name":"\u56fd\u571f\u4ea4\u901a\u7701\u95a2\u6771\u5730\u65b9\u6574\u5099\u5c40\u4e45\u6148\u5ddd\u7dca\u6025\u6cbb\u6c34\u5bfe\u7b56\u6cb3\u5ddd\u4e8b\u52d9\u6240","boring_xml_url":47,"boring_view_url":1,"soilmap_view_url":null,"soiltest_xml_url":47,"soiltest_view_url":47},{"id":492617,"code":"NGIC202105973-0009","latitude":"36.626419444444","longitude":"140.40425277778","source_code":"","project_name":"","survey_name":"R2\u4e45\u6148\u5ddd\u5e38\u9678\u5927\u5bae\u5de5\u533a\u5730\u8cea\u8abf\u67fb\u696d\u52d9","client_name":"\u56fd\u571f\u4ea4\u901a\u7701\u95a2\u6771\u5730\u65b9\u6574\u5099\u5c40\u4e45\u6148\u5ddd\u7dca\u6025\u6cbb\u6c34\u5bfe\u7b56\u6cb3\u5ddd\u4e8b\u52d9\u6240","boring_xml_url":47,"boring_view_url":1,"soilmap_view_url":null,"soiltest_xml_url":47,"soiltest_view_url":47},{"id":492616,"code":"NGIC202105973-0008","latitude":"36.626438888889","longitude":"140.40451111111","source_code":"","project_name":"","survey_name":"R2\u4e45\u6148\u5ddd\u5e38\u9678\u5927\u5bae\u5de5\u533a\u5730\u8cea\u8abf\u67fb\u696d\u52d9","client_name":"\u56fd\u571f\u4ea4\u901a\u7701\u95a2\u6771\u5730\u65b9\u6574\u5099\u5c40\u4e45\u6148\u5ddd\u7dca\u6025\u6cbb\u6c34\u5bfe\u7b56\u6cb3\u5ddd\u4e8b\u52d9\u6240","boring_xml_url":47,"boring_view_url":1,"soilmap_view_url":null,"soiltest_xml_url":47,"soiltest_view_url":47},{"id":492615,"code":"NGIC202105973-0007","latitude":"36.624611111111","longitude":"140.40430555556","source_code":"","project_name":"","survey_name":"R2\u4e45\u6148\u5ddd\u5e38\u9678\u5927\u5bae\u5de5\u533a\u5730\u8cea\u8abf\u67fb\u696d\u52d9","client_name":"\u56fd\u571f\u4ea4\u901a\u7701\u95a2\u6771\u5730\u65b9\u6574\u5099\u5c40\u4e45\u6148\u5ddd\u7dca\u6025\u6cbb\u6c34\u5bfe\u7b56\u6cb3\u5ddd\u4e8b\u52d9\u6240","boring_xml_url":47,"boring_view_url":1,"soilmap_view_url":null,"soiltest_xml_url":47,"soiltest_view_url":47},{"id":492614,"code":"NGIC202105973-0006","latitude":"36.6246","longitude":"140.404525","source_code":"","project_name":"","survey_name":"R2\u4e45\u6148\u5ddd\u5e38\u9678\u5927\u5bae\u5de5\u533a\u5730\u8cea\u8abf\u67fb\u696d\u52d9","client_name":"\u56fd\u571f\u4ea4\u901a\u7701\u95a2\u6771\u5730\u65b9\u6574\u5099\u5c40\u4e45\u6148\u5ddd\u7dca\u6025\u6cbb\u6c34\u5bfe\u7b56\u6cb3\u5ddd\u4e8b\u52d9\u6240","boring_xml_url":47,"boring_view_url":1,"soilmap_view_url":null,"soiltest_xml_url":47,"soiltest_view_url":47},{"id":492613,"code":"NGIC202105973-0005","latitude":"36.622394444444","longitude":"140.40319444444","source_code":"","project_name":"","survey_name":"R2\u4e45\u6148\u5ddd\u5e38\u9678\u5927\u5bae\u5de5\u533a\u5730\u8cea\u8abf\u67fb\u696d\u52d9","client_name":"\u56fd\u571f\u4ea4\u901a\u7701\u95a2\u6771\u5730\u65b9\u6574\u5099\u5c40\u4e45\u6148\u5ddd\u7dca\u6025\u6cbb\u6c34\u5bfe\u7b56\u6cb3\u5ddd\u4e8b\u52d9\u6240","boring_xml_url":47,"boring_view_url":1,"soilmap_view_url":null,"soiltest_xml_url":47,"soiltest_view_url":47},{"id":492612,"code":"NGIC202105973-0004","latitude":"36.622263888889","longitude":"140.40319166667","source_code":"","project_name":"","survey_name":"R2\u4e45\u6148\u5ddd\u5e38\u9678\u5927\u5bae\u5de5\u533a\u5730\u8cea\u8abf\u67fb\u696d\u52d9","client_name":"\u56fd\u571f\u4ea4\u901a\u7701\u95a2\u6771\u5730\u65b9\u6574\u5099\u5c40\u4e45\u6148\u5ddd\u7dca\u6025\u6cbb\u6c34\u5bfe\u7b56\u6cb3\u5ddd\u4e8b\u52d9\u6240","boring_xml_url":47,"boring_view_url":1,"soilmap_view_url":null,"soiltest_xml_url":47,"soiltest_view_url":47},{"id":492611,"code":"NGIC202105973-0003","latitude":"36.609138888889","longitude":"140.40414166667","source_code":"","project_name":"","survey_name":"R2\u4e45\u6148\u5ddd\u5e38\u9678\u5927\u5bae\u5de5\u533a\u5730\u8cea\u8abf\u67fb\u696d\u52d9","client_name":"\u56fd\u571f\u4ea4\u901a\u7701\u95a2\u6771\u5730\u65b9\u6574\u5099\u5c40\u4e45\u6148\u5ddd\u7dca\u6025\u6cbb\u6c34\u5bfe\u7b56\u6cb3\u5ddd\u4e8b\u52d9\u6240","boring_xml_url":47,"boring_view_url":1,"soilmap_view_url":null,"soiltest_xml_url":47,"soiltest_view_url":47},{"id":492610,"code":"NGIC202105973-0002","latitude":"36.606933333333","longitude":"140.41220833333","source_code":"","project_name":"","survey_name":"R2\u4e45\u6148\u5ddd\u5e38\u9678\u5927\u5bae\u5de5\u533a\u5730\u8cea\u8abf\u67fb\u696d\u52d9","client_name":"\u56fd\u571f\u4ea4\u901a\u7701\u95a2\u6771\u5730\u65b9\u6574\u5099\u5c40\u4e45\u6148\u5ddd\u7dca\u6025\u6cbb\u6c34\u5bfe\u7b56\u6cb3\u5ddd\u4e8b\u52d9\u6240","boring_xml_url":47,"boring_view_url":1,"soilmap_view_url":null,"soiltest_xml_url":47,"soiltest_view_url":47},{"id":492609,"code":"NGIC202105973-0001","latitude":"36.606908333333","longitude":"140.41203055556","source_code":"","project_name":"","survey_name":"R2\u4e45\u6148\u5ddd\u5e38\u9678\u5927\u5bae\u5de5\u533a\u5730\u8cea\u8abf\u67fb\u696d\u52d9","client_name":"\u56fd\u571f\u4ea4\u901a\u7701\u95a2\u6771\u5730\u65b9\u6574\u5099\u5c40\u4e45\u6148\u5ddd\u7dca\u6025\u6cbb\u6c34\u5bfe\u7b56\u6cb3\u5ddd\u4e8b\u52d9\u6240","boring_xml_url":47,"boring_view_url":1,"soilmap_view_url":null,"soiltest_xml_url":47,"soiltest_view_url":47},{"id":492592,"code":"NGIC202105972-0007","latitude":"35.114149222222","longitude":"137.15493941667","source_code":"","project_name":"","survey_name":"\u4ee4\u548c3\u5e74\u5ea6\u540d\u56db\u56fd\u9053\u7ba1\u5185\u5730\u8cea\u8abf\u67fb\u696d\u52d9","client_name":"\u56fd\u571f\u4ea4\u901a\u7701\u4e2d\u90e8\u5730\u65b9\u6574\u5099\u5c40\u540d\u56db\u56fd\u9053\u4e8b\u52d9\u6240","boring_xml_url":47,"boring_view_url":1,"soilmap_view_url":null,"soiltest_xml_url":0,"soiltest_view_url":0},{"id":492591,"code":"NGIC202105972-0006","latitude":"34.969857361111","longitude":"136.84379638889","source_code":"","project_name":"","survey_name":"\u4ee4\u548c3\u5e74\u5ea6\u540d\u56db\u56fd\u9053\u7ba1\u5185\u5730\u8cea\u8abf\u67fb\u696d\u52d9","client_name":"\u56fd\u571f\u4ea4\u901a\u7701\u4e2d\u90e8\u5730\u65b9\u6574\u5099\u5c40\u540d\u56db\u56fd\u9053\u4e8b\u52d9\u6240","boring_xml_url":47,"boring_view_url":1,"soilmap_view_url":null,"soiltest_xml_url":0,"soiltest_view_url":0},{"id":492590,"code":"NGIC202105972-0005","latitude":"34.971315027778","longitude":"136.84407258333","source_code":"","project_name":"","survey_name":"\u4ee4\u548c3\u5e74\u5ea6\u540d\u56db\u56fd\u9053\u7ba1\u5185\u5730\u8cea\u8abf\u67fb\u696d\u52d9","client_name":"\u56fd\u571f\u4ea4\u901a\u7701\u4e2d\u90e8\u5730\u65b9\u6574\u5099\u5c40\u540d\u56db\u56fd\u9053\u4e8b\u52d9\u6240","boring_xml_url":47,"boring_view_url":1,"soilmap_view_url":null,"soiltest_xml_url":0,"soiltest_view_url":0},{"id":492589,"code":"NGIC202105972-0004","latitude":"34.973012166667","longitude":"136.84369811111","source_code":"","project_name":"","survey_name":"\u4ee4\u548c3\u5e74\u5ea6\u540d\u56db\u56fd\u9053\u7ba1\u5185\u5730\u8cea\u8abf\u67fb\u696d\u52d9","client_name":"\u56fd\u571f\u4ea4\u901a\u7701\u4e2d\u90e8\u5730\u65b9\u6574\u5099\u5c40\u540d\u56db\u56fd\u9053\u4e8b\u52d9\u6240","boring_xml_url":47,"boring_view_url":1,"soilmap_view_url":null,"soiltest_xml_url":0,"soiltest_view_url":0},{"id":492588,"code":"NGIC202105972-0003","latitude":"34.9736165","longitude":"136.84356005556","source_code":"","project_name":"","survey_name":"\u4ee4\u548c3\u5e74\u5ea6\u540d\u56db\u56fd\u9053\u7ba1\u5185\u5730\u8cea\u8abf\u67fb\u696d\u52d9","client_name":"\u56fd\u571f\u4ea4\u901a\u7701\u4e2d\u90e8\u5730\u65b9\u6574\u5099\u5c40\u540d\u56db\u56fd\u9053\u4e8b\u52d9\u6240","boring_xml_url":47,"boring_view_url":1,"soilmap_view_url":null,"soiltest_xml_url":47,"soiltest_view_url":47},{"id":492587,"code":"NGIC202105972-0002","latitude":"34.973749972222","longitude":"136.84419402778","source_code":"","project_name":"","survey_name":"\u4ee4\u548c3\u5e74\u5ea6\u540d\u56db\u56fd\u9053\u7ba1\u5185\u5730\u8cea\u8abf\u67fb\u696d\u52d9","client_name":"\u56fd\u571f\u4ea4\u901a\u7701\u4e2d\u90e8\u5730\u65b9\u6574\u5099\u5c40\u540d\u56db\u56fd\u9053\u4e8b\u52d9\u6240","boring_xml_url":47,"boring_view_url":1,"soilmap_view_url":null,"soiltest_xml_url":0,"soiltest_view_url":0},{"id":492586,"code":"NGIC202105972-0001","latitude":"34.975516472222","longitude":"136.8448665","source_code":"","project_name":"","survey_name":"\u4ee4\u548c3\u5e74\u5ea6\u540d\u56db\u56fd\u9053\u7ba1\u5185\u5730\u8cea\u8abf\u67fb\u696d\u52d9","client_name":"\u56fd\u571f\u4ea4\u901a\u7701\u4e2d\u90e8\u5730\u65b9\u6574\u5099\u5c40\u540d\u56db\u56fd\u9053\u4e8b\u52d9\u6240","boring_xml_url":47,"boring_view_url":1,"soilmap_view_url":null,"soiltest_xml_url":0,"soiltest_view_url":0},{"id":492585,"code":"NGIC202105952-0019","latitude":"35.945761388889","longitude":"139.54511833333","source_code":"","project_name":"","survey_name":"R2\u8352\u5ddd\u4e0a\u6d41\u7ba1\u5185\u5730\u8cea\u8abf\u67fb(\u305d\u306e2)\u696d\u52d9","client_name":"\u56fd\u571f\u4ea4\u901a\u7701\u95a2\u6771\u5730\u65b9\u6574\u5099\u5c40\u8352\u5ddd\u4e0a\u6d41\u6cb3\u5ddd\u4e8b\u52d9\u6240","boring_xml_url":47,"boring_view_url":1,"soilmap_view_url":null,"soiltest_xml_url":47,"soiltest_view_url":47},{"id":492584,"code":"NGIC202105952-0018","latitude":"35.945741388889","longitude":"139.54520694444","source_code":"","project_name":"","survey_name":"R2\u8352\u5ddd\u4e0a\u6d41\u7ba1\u5185\u5730\u8cea\u8abf\u67fb(\u305d\u306e2)\u696d\u52d9","client_name":"\u56fd\u571f\u4ea4\u901a\u7701\u95a2\u6771\u5730\u65b9\u6574\u5099\u5c40\u8352\u5ddd\u4e0a\u6d41\u6cb3\u5ddd\u4e8b\u52d9\u6240","boring_xml_url":47,"boring_view_url":1,"soilmap_view_url":null,"soiltest_xml_url":47,"soiltest_view_url":47},{"id":492583,"code":"NGIC202105952-0017","latitude":"35.945769722222","longitude":"139.54539527778","source_code":"","project_name":"","survey_name":"R2\u8352\u5ddd\u4e0a\u6d41\u7ba1\u5185\u5730\u8cea\u8abf\u67fb(\u305d\u306e2)\u696d\u52d9","client_name":"\u56fd\u571f\u4ea4\u901a\u7701\u95a2\u6771\u5730\u65b9\u6574\u5099\u5c40\u8352\u5ddd\u4e0a\u6d41\u6cb3\u5ddd\u4e8b\u52d9\u6240","boring_xml_url":47,"boring_view_url":1,"soilmap_view_url":null,"soiltest_xml_url":47,"soiltest_view_url":47},{"id":492582,"code":"NGIC202105952-0016","latitude":"35.945788333333","longitude":"139.5456525","source_code":"","project_name":"","survey_name":"R2\u8352\u5ddd\u4e0a\u6d41\u7ba1\u5185\u5730\u8cea\u8abf\u67fb(\u305d\u306e2)\u696d\u52d9","client_name":"\u56fd\u571f\u4ea4\u901a\u7701\u95a2\u6771\u5730\u65b9\u6574\u5099\u5c40\u8352\u5ddd\u4e0a\u6d41\u6cb3\u5ddd\u4e8b\u52d9\u6240","boring_xml_url":47,"boring_view_url":1,"soilmap_view_url":null,"soiltest_xml_url":47,"soiltest_view_url":47}]}}