{"header":{"xyz":{"source":[],"mosaic":false},"page":1669,"raw":{"soiltest_result":"0","bbox":"57.598333,109.544722,1.933333,163.806111","page":"1669"},"conditions":{"soiltest_result":0,"north":57.598333,"west":109.544722,"south":1.933333,"east":163.806111},"success":true,"message":""},"data":{"meta":{"total":212844,"page":1669,"pages":7095,"count":30},"values":[{"id":491077,"code":"NGIC202105569-0029","latitude":"35.790833333333","longitude":"140.33686111111","source_code":"","project_name":"\u56fd\u905351\u53f7\u5317\u5343\u8449\u62e1\u5e45\u4ed6\u5730\u8cea\u8abf\u67fb\u696d\u52d93G15","survey_name":"\u56fd\u905351\u53f7\u5317\u5343\u8449\u62e1\u5e45\u4ed6\u5730\u8cea\u8abf\u67fb\u696d\u52d93G15","client_name":"\u56fd\u571f\u4ea4\u901a\u7701\u95a2\u6771\u5730\u65b9\u6574\u5099\u5c40\u5343\u8449\u56fd\u9053\u4e8b\u52d9\u6240","boring_xml_url":47,"boring_view_url":1,"soilmap_view_url":null,"soiltest_xml_url":0,"soiltest_view_url":0},{"id":491076,"code":"NGIC202105569-0028","latitude":"35.653388888889","longitude":"140.201","source_code":"","project_name":"\u56fd\u905351\u53f7\u5317\u5343\u8449\u62e1\u5e45\u4ed6\u5730\u8cea\u8abf\u67fb\u696d\u52d93G15","survey_name":"\u56fd\u905351\u53f7\u5317\u5343\u8449\u62e1\u5e45\u4ed6\u5730\u8cea\u8abf\u67fb\u696d\u52d93G15","client_name":"\u56fd\u571f\u4ea4\u901a\u7701\u95a2\u6771\u5730\u65b9\u6574\u5099\u5c40\u5343\u8449\u56fd\u9053\u4e8b\u52d9\u6240","boring_xml_url":47,"boring_view_url":1,"soilmap_view_url":null,"soiltest_xml_url":0,"soiltest_view_url":0},{"id":491075,"code":"NGIC202105569-0027","latitude":"35.653388888889","longitude":"140.201","source_code":"","project_name":"\u56fd\u905351\u53f7\u5317\u5343\u8449\u62e1\u5e45\u4ed6\u5730\u8cea\u8abf\u67fb\u696d\u52d93G15","survey_name":"\u56fd\u905351\u53f7\u5317\u5343\u8449\u62e1\u5e45\u4ed6\u5730\u8cea\u8abf\u67fb\u696d\u52d93G15","client_name":"\u56fd\u571f\u4ea4\u901a\u7701\u95a2\u6771\u5730\u65b9\u6574\u5099\u5c40\u5343\u8449\u56fd\u9053\u4e8b\u52d9\u6240","boring_xml_url":47,"boring_view_url":1,"soilmap_view_url":null,"soiltest_xml_url":47,"soiltest_view_url":47},{"id":491074,"code":"NGIC202105569-0026","latitude":"35.653388888889","longitude":"140.201","source_code":"","project_name":"\u56fd\u905351\u53f7\u5317\u5343\u8449\u62e1\u5e45\u4ed6\u5730\u8cea\u8abf\u67fb\u696d\u52d93G15","survey_name":"\u56fd\u905351\u53f7\u5317\u5343\u8449\u62e1\u5e45\u4ed6\u5730\u8cea\u8abf\u67fb\u696d\u52d93G15","client_name":"\u56fd\u571f\u4ea4\u901a\u7701\u95a2\u6771\u5730\u65b9\u6574\u5099\u5c40\u5343\u8449\u56fd\u9053\u4e8b\u52d9\u6240","boring_xml_url":47,"boring_view_url":1,"soilmap_view_url":null,"soiltest_xml_url":0,"soiltest_view_url":0},{"id":491073,"code":"NGIC202105569-0025","latitude":"35.648611111111","longitude":"140.18838888889","source_code":"","project_name":"\u56fd\u905351\u53f7\u5317\u5343\u8449\u62e1\u5e45\u4ed6\u5730\u8cea\u8abf\u67fb\u696d\u52d93G15","survey_name":"\u56fd\u905351\u53f7\u5317\u5343\u8449\u62e1\u5e45\u4ed6\u5730\u8cea\u8abf\u67fb\u696d\u52d93G15","client_name":"\u56fd\u571f\u4ea4\u901a\u7701\u95a2\u6771\u5730\u65b9\u6574\u5099\u5c40\u5343\u8449\u56fd\u9053\u4e8b\u52d9\u6240","boring_xml_url":47,"boring_view_url":1,"soilmap_view_url":null,"soiltest_xml_url":47,"soiltest_view_url":47},{"id":491072,"code":"NGIC202105569-0024","latitude":"35.648611111111","longitude":"140.18838888889","source_code":"","project_name":"\u56fd\u905351\u53f7\u5317\u5343\u8449\u62e1\u5e45\u4ed6\u5730\u8cea\u8abf\u67fb\u696d\u52d93G15","survey_name":"\u56fd\u905351\u53f7\u5317\u5343\u8449\u62e1\u5e45\u4ed6\u5730\u8cea\u8abf\u67fb\u696d\u52d93G15","client_name":"\u56fd\u571f\u4ea4\u901a\u7701\u95a2\u6771\u5730\u65b9\u6574\u5099\u5c40\u5343\u8449\u56fd\u9053\u4e8b\u52d9\u6240","boring_xml_url":47,"boring_view_url":1,"soilmap_view_url":null,"soiltest_xml_url":0,"soiltest_view_url":0},{"id":491071,"code":"NGIC202105569-0023","latitude":"35.648888888889","longitude":"140.18897222222","source_code":"","project_name":"\u56fd\u905351\u53f7\u5317\u5343\u8449\u62e1\u5e45\u4ed6\u5730\u8cea\u8abf\u67fb\u696d\u52d93G15","survey_name":"\u56fd\u905351\u53f7\u5317\u5343\u8449\u62e1\u5e45\u4ed6\u5730\u8cea\u8abf\u67fb\u696d\u52d93G15","client_name":"\u56fd\u571f\u4ea4\u901a\u7701\u95a2\u6771\u5730\u65b9\u6574\u5099\u5c40\u5343\u8449\u56fd\u9053\u4e8b\u52d9\u6240","boring_xml_url":47,"boring_view_url":1,"soilmap_view_url":null,"soiltest_xml_url":0,"soiltest_view_url":0},{"id":491070,"code":"NGIC202105569-0022","latitude":"35.649277777778","longitude":"140.18966666667","source_code":"","project_name":"\u56fd\u905351\u53f7\u5317\u5343\u8449\u62e1\u5e45\u4ed6\u5730\u8cea\u8abf\u67fb\u696d\u52d93G15","survey_name":"\u56fd\u905351\u53f7\u5317\u5343\u8449\u62e1\u5e45\u4ed6\u5730\u8cea\u8abf\u67fb\u696d\u52d93G15","client_name":"\u56fd\u571f\u4ea4\u901a\u7701\u95a2\u6771\u5730\u65b9\u6574\u5099\u5c40\u5343\u8449\u56fd\u9053\u4e8b\u52d9\u6240","boring_xml_url":47,"boring_view_url":1,"soilmap_view_url":null,"soiltest_xml_url":47,"soiltest_view_url":47},{"id":491069,"code":"NGIC202105569-0021","latitude":"35.649277777778","longitude":"140.18966666667","source_code":"","project_name":"\u56fd\u905351\u53f7\u5317\u5343\u8449\u62e1\u5e45\u4ed6\u5730\u8cea\u8abf\u67fb\u696d\u52d93G15","survey_name":"\u56fd\u905351\u53f7\u5317\u5343\u8449\u62e1\u5e45\u4ed6\u5730\u8cea\u8abf\u67fb\u696d\u52d93G15","client_name":"\u56fd\u571f\u4ea4\u901a\u7701\u95a2\u6771\u5730\u65b9\u6574\u5099\u5c40\u5343\u8449\u56fd\u9053\u4e8b\u52d9\u6240","boring_xml_url":47,"boring_view_url":1,"soilmap_view_url":null,"soiltest_xml_url":0,"soiltest_view_url":0},{"id":491068,"code":"NGIC202105569-0020","latitude":"35.649638888889","longitude":"140.19044444444","source_code":"","project_name":"\u56fd\u905351\u53f7\u5317\u5343\u8449\u62e1\u5e45\u4ed6\u5730\u8cea\u8abf\u67fb\u696d\u52d93G15","survey_name":"\u56fd\u905351\u53f7\u5317\u5343\u8449\u62e1\u5e45\u4ed6\u5730\u8cea\u8abf\u67fb\u696d\u52d93G15","client_name":"\u56fd\u571f\u4ea4\u901a\u7701\u95a2\u6771\u5730\u65b9\u6574\u5099\u5c40\u5343\u8449\u56fd\u9053\u4e8b\u52d9\u6240","boring_xml_url":47,"boring_view_url":1,"soilmap_view_url":null,"soiltest_xml_url":0,"soiltest_view_url":0},{"id":491067,"code":"NGIC202105569-0019","latitude":"35.649833333333","longitude":"140.19075","source_code":"","project_name":"\u56fd\u905351\u53f7\u5317\u5343\u8449\u62e1\u5e45\u4ed6\u5730\u8cea\u8abf\u67fb\u696d\u52d93G15","survey_name":"\u56fd\u905351\u53f7\u5317\u5343\u8449\u62e1\u5e45\u4ed6\u5730\u8cea\u8abf\u67fb\u696d\u52d93G15","client_name":"\u56fd\u571f\u4ea4\u901a\u7701\u95a2\u6771\u5730\u65b9\u6574\u5099\u5c40\u5343\u8449\u56fd\u9053\u4e8b\u52d9\u6240","boring_xml_url":47,"boring_view_url":1,"soilmap_view_url":null,"soiltest_xml_url":47,"soiltest_view_url":47},{"id":491066,"code":"NGIC202105569-0018","latitude":"35.649833333333","longitude":"140.19075","source_code":"","project_name":"\u56fd\u905351\u53f7\u5317\u5343\u8449\u62e1\u5e45\u4ed6\u5730\u8cea\u8abf\u67fb\u696d\u52d93G15","survey_name":"\u56fd\u905351\u53f7\u5317\u5343\u8449\u62e1\u5e45\u4ed6\u5730\u8cea\u8abf\u67fb\u696d\u52d93G15","client_name":"\u56fd\u571f\u4ea4\u901a\u7701\u95a2\u6771\u5730\u65b9\u6574\u5099\u5c40\u5343\u8449\u56fd\u9053\u4e8b\u52d9\u6240","boring_xml_url":47,"boring_view_url":1,"soilmap_view_url":null,"soiltest_xml_url":0,"soiltest_view_url":0},{"id":491065,"code":"NGIC202105569-0017","latitude":"35.65025","longitude":"140.1915","source_code":"","project_name":"\u56fd\u905351\u53f7\u5317\u5343\u8449\u62e1\u5e45\u4ed6\u5730\u8cea\u8abf\u67fb\u696d\u52d93G15","survey_name":"\u56fd\u905351\u53f7\u5317\u5343\u8449\u62e1\u5e45\u4ed6\u5730\u8cea\u8abf\u67fb\u696d\u52d93G15","client_name":"\u56fd\u571f\u4ea4\u901a\u7701\u95a2\u6771\u5730\u65b9\u6574\u5099\u5c40\u5343\u8449\u56fd\u9053\u4e8b\u52d9\u6240","boring_xml_url":47,"boring_view_url":1,"soilmap_view_url":null,"soiltest_xml_url":0,"soiltest_view_url":0},{"id":491064,"code":"NGIC202105569-0016","latitude":"35.650611111111","longitude":"140.19211111111","source_code":"","project_name":"\u56fd\u905351\u53f7\u5317\u5343\u8449\u62e1\u5e45\u4ed6\u5730\u8cea\u8abf\u67fb\u696d\u52d93G15","survey_name":"\u56fd\u905351\u53f7\u5317\u5343\u8449\u62e1\u5e45\u4ed6\u5730\u8cea\u8abf\u67fb\u696d\u52d93G15","client_name":"\u56fd\u571f\u4ea4\u901a\u7701\u95a2\u6771\u5730\u65b9\u6574\u5099\u5c40\u5343\u8449\u56fd\u9053\u4e8b\u52d9\u6240","boring_xml_url":47,"boring_view_url":1,"soilmap_view_url":null,"soiltest_xml_url":47,"soiltest_view_url":47},{"id":491063,"code":"NGIC202105569-0015","latitude":"35.650611111111","longitude":"140.19211111111","source_code":"","project_name":"\u56fd\u905351\u53f7\u5317\u5343\u8449\u62e1\u5e45\u4ed6\u5730\u8cea\u8abf\u67fb\u696d\u52d93G15","survey_name":"\u56fd\u905351\u53f7\u5317\u5343\u8449\u62e1\u5e45\u4ed6\u5730\u8cea\u8abf\u67fb\u696d\u52d93G15","client_name":"\u56fd\u571f\u4ea4\u901a\u7701\u95a2\u6771\u5730\u65b9\u6574\u5099\u5c40\u5343\u8449\u56fd\u9053\u4e8b\u52d9\u6240","boring_xml_url":47,"boring_view_url":1,"soilmap_view_url":null,"soiltest_xml_url":0,"soiltest_view_url":0},{"id":491062,"code":"NGIC202105569-0014","latitude":"35.650944444444","longitude":"140.19266666667","source_code":"","project_name":"\u56fd\u905351\u53f7\u5317\u5343\u8449\u62e1\u5e45\u4ed6\u5730\u8cea\u8abf\u67fb\u696d\u52d93G15","survey_name":"\u56fd\u905351\u53f7\u5317\u5343\u8449\u62e1\u5e45\u4ed6\u5730\u8cea\u8abf\u67fb\u696d\u52d93G15","client_name":"\u56fd\u571f\u4ea4\u901a\u7701\u95a2\u6771\u5730\u65b9\u6574\u5099\u5c40\u5343\u8449\u56fd\u9053\u4e8b\u52d9\u6240","boring_xml_url":47,"boring_view_url":1,"soilmap_view_url":null,"soiltest_xml_url":0,"soiltest_view_url":0},{"id":491061,"code":"NGIC202105569-0013","latitude":"35.651361111111","longitude":"140.19336111111","source_code":"","project_name":"\u56fd\u905351\u53f7\u5317\u5343\u8449\u62e1\u5e45\u4ed6\u5730\u8cea\u8abf\u67fb\u696d\u52d93G15","survey_name":"\u56fd\u905351\u53f7\u5317\u5343\u8449\u62e1\u5e45\u4ed6\u5730\u8cea\u8abf\u67fb\u696d\u52d93G15","client_name":"\u56fd\u571f\u4ea4\u901a\u7701\u95a2\u6771\u5730\u65b9\u6574\u5099\u5c40\u5343\u8449\u56fd\u9053\u4e8b\u52d9\u6240","boring_xml_url":47,"boring_view_url":1,"soilmap_view_url":null,"soiltest_xml_url":47,"soiltest_view_url":47},{"id":491060,"code":"NGIC202105569-0012","latitude":"35.651361111111","longitude":"140.19336111111","source_code":"","project_name":"\u56fd\u905351\u53f7\u5317\u5343\u8449\u62e1\u5e45\u4ed6\u5730\u8cea\u8abf\u67fb\u696d\u52d93G15","survey_name":"\u56fd\u905351\u53f7\u5317\u5343\u8449\u62e1\u5e45\u4ed6\u5730\u8cea\u8abf\u67fb\u696d\u52d93G15","client_name":"\u56fd\u571f\u4ea4\u901a\u7701\u95a2\u6771\u5730\u65b9\u6574\u5099\u5c40\u5343\u8449\u56fd\u9053\u4e8b\u52d9\u6240","boring_xml_url":47,"boring_view_url":1,"soilmap_view_url":null,"soiltest_xml_url":0,"soiltest_view_url":0},{"id":491059,"code":"NGIC202105569-0011","latitude":"35.651777777778","longitude":"140.19433333333","source_code":"","project_name":"\u56fd\u905351\u53f7\u5317\u5343\u8449\u62e1\u5e45\u4ed6\u5730\u8cea\u8abf\u67fb\u696d\u52d93G15","survey_name":"\u56fd\u905351\u53f7\u5317\u5343\u8449\u62e1\u5e45\u4ed6\u5730\u8cea\u8abf\u67fb\u696d\u52d93G15","client_name":"\u56fd\u571f\u4ea4\u901a\u7701\u95a2\u6771\u5730\u65b9\u6574\u5099\u5c40\u5343\u8449\u56fd\u9053\u4e8b\u52d9\u6240","boring_xml_url":47,"boring_view_url":1,"soilmap_view_url":null,"soiltest_xml_url":0,"soiltest_view_url":0},{"id":491058,"code":"NGIC202105569-0010","latitude":"35.652","longitude":"140.19491666667","source_code":"","project_name":"\u56fd\u905351\u53f7\u5317\u5343\u8449\u62e1\u5e45\u4ed6\u5730\u8cea\u8abf\u67fb\u696d\u52d93G15","survey_name":"\u56fd\u905351\u53f7\u5317\u5343\u8449\u62e1\u5e45\u4ed6\u5730\u8cea\u8abf\u67fb\u696d\u52d93G15","client_name":"\u56fd\u571f\u4ea4\u901a\u7701\u95a2\u6771\u5730\u65b9\u6574\u5099\u5c40\u5343\u8449\u56fd\u9053\u4e8b\u52d9\u6240","boring_xml_url":47,"boring_view_url":1,"soilmap_view_url":null,"soiltest_xml_url":47,"soiltest_view_url":47},{"id":491057,"code":"NGIC202105569-0009","latitude":"35.652","longitude":"140.19491666667","source_code":"","project_name":"\u56fd\u905351\u53f7\u5317\u5343\u8449\u62e1\u5e45\u4ed6\u5730\u8cea\u8abf\u67fb\u696d\u52d93G15","survey_name":"\u56fd\u905351\u53f7\u5317\u5343\u8449\u62e1\u5e45\u4ed6\u5730\u8cea\u8abf\u67fb\u696d\u52d93G15","client_name":"\u56fd\u571f\u4ea4\u901a\u7701\u95a2\u6771\u5730\u65b9\u6574\u5099\u5c40\u5343\u8449\u56fd\u9053\u4e8b\u52d9\u6240","boring_xml_url":47,"boring_view_url":1,"soilmap_view_url":null,"soiltest_xml_url":0,"soiltest_view_url":0},{"id":491056,"code":"NGIC202105569-0008","latitude":"35.652444444444","longitude":"140.19605555556","source_code":"","project_name":"\u56fd\u905351\u53f7\u5317\u5343\u8449\u62e1\u5e45\u4ed6\u5730\u8cea\u8abf\u67fb\u696d\u52d93G15","survey_name":"\u56fd\u905351\u53f7\u5317\u5343\u8449\u62e1\u5e45\u4ed6\u5730\u8cea\u8abf\u67fb\u696d\u52d93G15","client_name":"\u56fd\u571f\u4ea4\u901a\u7701\u95a2\u6771\u5730\u65b9\u6574\u5099\u5c40\u5343\u8449\u56fd\u9053\u4e8b\u52d9\u6240","boring_xml_url":47,"boring_view_url":1,"soilmap_view_url":null,"soiltest_xml_url":47,"soiltest_view_url":47},{"id":491055,"code":"NGIC202105569-0007","latitude":"35.652444444444","longitude":"140.19605555556","source_code":"","project_name":"\u56fd\u905351\u53f7\u5317\u5343\u8449\u62e1\u5e45\u4ed6\u5730\u8cea\u8abf\u67fb\u696d\u52d93G15","survey_name":"\u56fd\u905351\u53f7\u5317\u5343\u8449\u62e1\u5e45\u4ed6\u5730\u8cea\u8abf\u67fb\u696d\u52d93G15","client_name":"\u56fd\u571f\u4ea4\u901a\u7701\u95a2\u6771\u5730\u65b9\u6574\u5099\u5c40\u5343\u8449\u56fd\u9053\u4e8b\u52d9\u6240","boring_xml_url":47,"boring_view_url":1,"soilmap_view_url":null,"soiltest_xml_url":0,"soiltest_view_url":0},{"id":491054,"code":"NGIC202105569-0006","latitude":"35.652805555556","longitude":"140.19725","source_code":"","project_name":"\u56fd\u905351\u53f7\u5317\u5343\u8449\u62e1\u5e45\u4ed6\u5730\u8cea\u8abf\u67fb\u696d\u52d93G15","survey_name":"\u56fd\u905351\u53f7\u5317\u5343\u8449\u62e1\u5e45\u4ed6\u5730\u8cea\u8abf\u67fb\u696d\u52d93G15","client_name":"\u56fd\u571f\u4ea4\u901a\u7701\u95a2\u6771\u5730\u65b9\u6574\u5099\u5c40\u5343\u8449\u56fd\u9053\u4e8b\u52d9\u6240","boring_xml_url":47,"boring_view_url":1,"soilmap_view_url":null,"soiltest_xml_url":0,"soiltest_view_url":0},{"id":491053,"code":"NGIC202105569-0005","latitude":"35.652972222222","longitude":"140.19808333333","source_code":"","project_name":"\u56fd\u905351\u53f7\u5317\u5343\u8449\u62e1\u5e45\u4ed6\u5730\u8cea\u8abf\u67fb\u696d\u52d93G15","survey_name":"\u56fd\u905351\u53f7\u5317\u5343\u8449\u62e1\u5e45\u4ed6\u5730\u8cea\u8abf\u67fb\u696d\u52d93G15","client_name":"\u56fd\u571f\u4ea4\u901a\u7701\u95a2\u6771\u5730\u65b9\u6574\u5099\u5c40\u5343\u8449\u56fd\u9053\u4e8b\u52d9\u6240","boring_xml_url":47,"boring_view_url":1,"soilmap_view_url":null,"soiltest_xml_url":47,"soiltest_view_url":47},{"id":491052,"code":"NGIC202105569-0004","latitude":"35.652972222222","longitude":"140.19808333333","source_code":"","project_name":"\u56fd\u905351\u53f7\u5317\u5343\u8449\u62e1\u5e45\u4ed6\u5730\u8cea\u8abf\u67fb\u696d\u52d93G15","survey_name":"\u56fd\u905351\u53f7\u5317\u5343\u8449\u62e1\u5e45\u4ed6\u5730\u8cea\u8abf\u67fb\u696d\u52d93G15","client_name":"\u56fd\u571f\u4ea4\u901a\u7701\u95a2\u6771\u5730\u65b9\u6574\u5099\u5c40\u5343\u8449\u56fd\u9053\u4e8b\u52d9\u6240","boring_xml_url":47,"boring_view_url":1,"soilmap_view_url":null,"soiltest_xml_url":0,"soiltest_view_url":0},{"id":491051,"code":"NGIC202105569-0003","latitude":"35.653638888889","longitude":"140.19938888889","source_code":"","project_name":"\u56fd\u905351\u53f7\u5317\u5343\u8449\u62e1\u5e45\u4ed6\u5730\u8cea\u8abf\u67fb\u696d\u52d93G15","survey_name":"\u56fd\u905351\u53f7\u5317\u5343\u8449\u62e1\u5e45\u4ed6\u5730\u8cea\u8abf\u67fb\u696d\u52d93G15","client_name":"\u56fd\u571f\u4ea4\u901a\u7701\u95a2\u6771\u5730\u65b9\u6574\u5099\u5c40\u5343\u8449\u56fd\u9053\u4e8b\u52d9\u6240","boring_xml_url":47,"boring_view_url":1,"soilmap_view_url":null,"soiltest_xml_url":47,"soiltest_view_url":47},{"id":491050,"code":"NGIC202105569-0002","latitude":"35.653638888889","longitude":"140.19938888889","source_code":"","project_name":"\u56fd\u905351\u53f7\u5317\u5343\u8449\u62e1\u5e45\u4ed6\u5730\u8cea\u8abf\u67fb\u696d\u52d93G15","survey_name":"\u56fd\u905351\u53f7\u5317\u5343\u8449\u62e1\u5e45\u4ed6\u5730\u8cea\u8abf\u67fb\u696d\u52d93G15","client_name":"\u56fd\u571f\u4ea4\u901a\u7701\u95a2\u6771\u5730\u65b9\u6574\u5099\u5c40\u5343\u8449\u56fd\u9053\u4e8b\u52d9\u6240","boring_xml_url":47,"boring_view_url":1,"soilmap_view_url":null,"soiltest_xml_url":0,"soiltest_view_url":0},{"id":491049,"code":"NGIC202105569-0001","latitude":"35.653805555556","longitude":"140.19963888889","source_code":"","project_name":"\u56fd\u905351\u53f7\u5317\u5343\u8449\u62e1\u5e45\u4ed6\u5730\u8cea\u8abf\u67fb\u696d\u52d93G15","survey_name":"\u56fd\u905351\u53f7\u5317\u5343\u8449\u62e1\u5e45\u4ed6\u5730\u8cea\u8abf\u67fb\u696d\u52d93G15","client_name":"\u56fd\u571f\u4ea4\u901a\u7701\u95a2\u6771\u5730\u65b9\u6574\u5099\u5c40\u5343\u8449\u56fd\u9053\u4e8b\u52d9\u6240","boring_xml_url":47,"boring_view_url":1,"soilmap_view_url":null,"soiltest_xml_url":0,"soiltest_view_url":0},{"id":490995,"code":"NGIC202105680-0003","latitude":"34.978186194444","longitude":"135.90544097222","source_code":"","project_name":"","survey_name":"\u56fd\u90531\u53f7\u5c71\u7530\u8c37\u6c60\u6a4b\u4ed6\u6a4b\u6881\u8010\u9707\u88dc\u5f37\u8a2d\u8a08\u696d\u52d9","client_name":"\u56fd\u571f\u4ea4\u901a\u7701\u8fd1\u757f\u5730\u65b9\u6574\u5099\u5c40\u6ecb\u8cc0\u56fd\u9053\u4e8b\u52d9\u6240","boring_xml_url":47,"boring_view_url":1,"soilmap_view_url":null,"soiltest_xml_url":47,"soiltest_view_url":47}]}}