{"header":{"xyz":{"source":[],"mosaic":false},"page":1674,"raw":{"soiltest_result":"0","bbox":"57.598333,109.544722,1.933333,163.806111","page":"1674"},"conditions":{"soiltest_result":0,"north":57.598333,"west":109.544722,"south":1.933333,"east":163.806111},"success":true,"message":""},"data":{"meta":{"total":212844,"page":1674,"pages":7095,"count":30},"values":[{"id":490694,"code":"NGIC202105518-0003","latitude":"35.954973666667","longitude":"140.13755169444","source_code":"","project_name":"","survey_name":"\u725b\u4e45\u571f\u6d66BP\u5730\u8cea\u8abf\u67fb\u696d\u52d93K9","client_name":"\u56fd\u571f\u4ea4\u901a\u7701\u95a2\u6771\u5730\u65b9\u6574\u5099\u5c40\u5e38\u7dcf\u56fd\u9053\u4e8b\u52d9\u6240","boring_xml_url":47,"boring_view_url":1,"soilmap_view_url":null,"soiltest_xml_url":47,"soiltest_view_url":47},{"id":490693,"code":"NGIC202105518-0002","latitude":"35.952411361111","longitude":"140.13819055556","source_code":"","project_name":"","survey_name":"\u725b\u4e45\u571f\u6d66BP\u5730\u8cea\u8abf\u67fb\u696d\u52d93K9","client_name":"\u56fd\u571f\u4ea4\u901a\u7701\u95a2\u6771\u5730\u65b9\u6574\u5099\u5c40\u5e38\u7dcf\u56fd\u9053\u4e8b\u52d9\u6240","boring_xml_url":47,"boring_view_url":1,"soilmap_view_url":null,"soiltest_xml_url":47,"soiltest_view_url":47},{"id":490692,"code":"NGIC202105518-0001","latitude":"35.95138725","longitude":"140.13776877778","source_code":"","project_name":"","survey_name":"\u725b\u4e45\u571f\u6d66BP\u5730\u8cea\u8abf\u67fb\u696d\u52d93K9","client_name":"\u56fd\u571f\u4ea4\u901a\u7701\u95a2\u6771\u5730\u65b9\u6574\u5099\u5c40\u5e38\u7dcf\u56fd\u9053\u4e8b\u52d9\u6240","boring_xml_url":47,"boring_view_url":1,"soilmap_view_url":null,"soiltest_xml_url":47,"soiltest_view_url":47},{"id":490669,"code":"NGIC202105624-0003","latitude":"34.740896527778","longitude":"132.7868035","source_code":"","project_name":"","survey_name":"\u4ee4\u548c3\u5e74\u5ea6\u4e09\u6b21\u7ba1\u5185\u707d\u5bb3\u5bfe\u7b56\u8a2d\u8a08\u5916\u305d\u306e1\u696d\u52d9","client_name":"\u56fd\u571f\u4ea4\u901a\u7701\u4e2d\u56fd\u5730\u65b9\u6574\u5099\u5c40\u4e09\u6b21\u6cb3\u5ddd\u56fd\u9053\u4e8b\u52d9\u6240","boring_xml_url":47,"boring_view_url":1,"soilmap_view_url":null,"soiltest_xml_url":0,"soiltest_view_url":0},{"id":490668,"code":"NGIC202105624-0002","latitude":"34.740650888889","longitude":"132.78574116667","source_code":"","project_name":"","survey_name":"\u4ee4\u548c3\u5e74\u5ea6\u4e09\u6b21\u7ba1\u5185\u707d\u5bb3\u5bfe\u7b56\u8a2d\u8a08\u5916\u305d\u306e1\u696d\u52d9","client_name":"\u56fd\u571f\u4ea4\u901a\u7701\u4e2d\u56fd\u5730\u65b9\u6574\u5099\u5c40\u4e09\u6b21\u6cb3\u5ddd\u56fd\u9053\u4e8b\u52d9\u6240","boring_xml_url":47,"boring_view_url":1,"soilmap_view_url":null,"soiltest_xml_url":0,"soiltest_view_url":0},{"id":490667,"code":"NGIC202105624-0001","latitude":"35.063833861111","longitude":"132.90479588889","source_code":"","project_name":"","survey_name":"\u4ee4\u548c3\u5e74\u5ea6\u4e09\u6b21\u7ba1\u5185\u707d\u5bb3\u5bfe\u7b56\u8a2d\u8a08\u5916\u305d\u306e1\u696d\u52d9","client_name":"\u56fd\u571f\u4ea4\u901a\u7701\u4e2d\u56fd\u5730\u65b9\u6574\u5099\u5c40\u4e09\u6b21\u6cb3\u5ddd\u56fd\u9053\u4e8b\u52d9\u6240","boring_xml_url":47,"boring_view_url":1,"soilmap_view_url":null,"soiltest_xml_url":0,"soiltest_view_url":0},{"id":490666,"code":"NGIC202105282-0007","latitude":"36.131101194444","longitude":"136.75729508333","source_code":"","project_name":"","survey_name":"\u4ee4\u548c2\u5e74\u5ea6\u751a\u4e4b\u52a9\u8c37\u5730\u3059\u3079\u308a\u5730\u8cea\u8abf\u67fb\u696d\u52d9","client_name":"\u56fd\u571f\u4ea4\u901a\u7701\u5317\u9678\u5730\u65b9\u6574\u5099\u5c40\u91d1\u6ca2\u6cb3\u5ddd\u56fd\u9053\u4e8b\u52d9\u6240","boring_xml_url":47,"boring_view_url":1,"soilmap_view_url":null,"soiltest_xml_url":0,"soiltest_view_url":0},{"id":490665,"code":"NGIC202105282-0006","latitude":"36.129747222222","longitude":"136.75895833333","source_code":"","project_name":"","survey_name":"\u4ee4\u548c2\u5e74\u5ea6\u751a\u4e4b\u52a9\u8c37\u5730\u3059\u3079\u308a\u5730\u8cea\u8abf\u67fb\u696d\u52d9","client_name":"\u56fd\u571f\u4ea4\u901a\u7701\u5317\u9678\u5730\u65b9\u6574\u5099\u5c40\u91d1\u6ca2\u6cb3\u5ddd\u56fd\u9053\u4e8b\u52d9\u6240","boring_xml_url":47,"boring_view_url":1,"soilmap_view_url":null,"soiltest_xml_url":0,"soiltest_view_url":0},{"id":490664,"code":"NGIC202105282-0005","latitude":"36.129609694444","longitude":"136.75750627778","source_code":"","project_name":"","survey_name":"\u4ee4\u548c2\u5e74\u5ea6\u751a\u4e4b\u52a9\u8c37\u5730\u3059\u3079\u308a\u5730\u8cea\u8abf\u67fb\u696d\u52d9","client_name":"\u56fd\u571f\u4ea4\u901a\u7701\u5317\u9678\u5730\u65b9\u6574\u5099\u5c40\u91d1\u6ca2\u6cb3\u5ddd\u56fd\u9053\u4e8b\u52d9\u6240","boring_xml_url":47,"boring_view_url":1,"soilmap_view_url":null,"soiltest_xml_url":0,"soiltest_view_url":0},{"id":490663,"code":"NGIC202105282-0004","latitude":"36.242638888889","longitude":"136.752175","source_code":"","project_name":"","survey_name":"\u4ee4\u548c2\u5e74\u5ea6\u751a\u4e4b\u52a9\u8c37\u5730\u3059\u3079\u308a\u5730\u8cea\u8abf\u67fb\u696d\u52d9","client_name":"\u56fd\u571f\u4ea4\u901a\u7701\u5317\u9678\u5730\u65b9\u6574\u5099\u5c40\u91d1\u6ca2\u6cb3\u5ddd\u56fd\u9053\u4e8b\u52d9\u6240","boring_xml_url":47,"boring_view_url":1,"soilmap_view_url":null,"soiltest_xml_url":0,"soiltest_view_url":0},{"id":490662,"code":"NGIC202105282-0003","latitude":"36.244244444444","longitude":"136.75127222222","source_code":"","project_name":"","survey_name":"\u4ee4\u548c2\u5e74\u5ea6\u751a\u4e4b\u52a9\u8c37\u5730\u3059\u3079\u308a\u5730\u8cea\u8abf\u67fb\u696d\u52d9","client_name":"\u56fd\u571f\u4ea4\u901a\u7701\u5317\u9678\u5730\u65b9\u6574\u5099\u5c40\u91d1\u6ca2\u6cb3\u5ddd\u56fd\u9053\u4e8b\u52d9\u6240","boring_xml_url":47,"boring_view_url":1,"soilmap_view_url":null,"soiltest_xml_url":0,"soiltest_view_url":0},{"id":490661,"code":"NGIC202105282-0002","latitude":"36.243205555556","longitude":"136.75131666667","source_code":"","project_name":"","survey_name":"\u4ee4\u548c2\u5e74\u5ea6\u751a\u4e4b\u52a9\u8c37\u5730\u3059\u3079\u308a\u5730\u8cea\u8abf\u67fb\u696d\u52d9","client_name":"\u56fd\u571f\u4ea4\u901a\u7701\u5317\u9678\u5730\u65b9\u6574\u5099\u5c40\u91d1\u6ca2\u6cb3\u5ddd\u56fd\u9053\u4e8b\u52d9\u6240","boring_xml_url":47,"boring_view_url":1,"soilmap_view_url":null,"soiltest_xml_url":0,"soiltest_view_url":0},{"id":490660,"code":"NGIC202105282-0001","latitude":"36.243008333333","longitude":"136.75159444444","source_code":"","project_name":"","survey_name":"\u4ee4\u548c2\u5e74\u5ea6\u751a\u4e4b\u52a9\u8c37\u5730\u3059\u3079\u308a\u5730\u8cea\u8abf\u67fb\u696d\u52d9","client_name":"\u56fd\u571f\u4ea4\u901a\u7701\u5317\u9678\u5730\u65b9\u6574\u5099\u5c40\u91d1\u6ca2\u6cb3\u5ddd\u56fd\u9053\u4e8b\u52d9\u6240","boring_xml_url":47,"boring_view_url":1,"soilmap_view_url":null,"soiltest_xml_url":0,"soiltest_view_url":0},{"id":490635,"code":"NGIC202105401-0004","latitude":"42.392493222222","longitude":"142.26523155556","source_code":"","project_name":"","survey_name":"\u4e00\u822c\u56fd\u9053235\u53f7\u65b0\u51a0\u753a\u65b0\u51a0\u6cd5\u9762\u5730\u8cea\u8abf\u67fb\u5916\u4e00\u9023\u696d\u52d9","client_name":"\u56fd\u571f\u4ea4\u901a\u7701\u5317\u6d77\u9053\u958b\u767a\u5c40\u5ba4\u862d\u958b\u767a\u5efa\u8a2d\u90e8\u672c\u90e8","boring_xml_url":47,"boring_view_url":1,"soilmap_view_url":null,"soiltest_xml_url":0,"soiltest_view_url":0},{"id":490634,"code":"NGIC202105401-0003","latitude":"42.3927205","longitude":"142.26474952778","source_code":"","project_name":"","survey_name":"\u4e00\u822c\u56fd\u9053235\u53f7\u65b0\u51a0\u753a\u65b0\u51a0\u6cd5\u9762\u5730\u8cea\u8abf\u67fb\u5916\u4e00\u9023\u696d\u52d9","client_name":"\u56fd\u571f\u4ea4\u901a\u7701\u5317\u6d77\u9053\u958b\u767a\u5c40\u5ba4\u862d\u958b\u767a\u5efa\u8a2d\u90e8\u672c\u90e8","boring_xml_url":47,"boring_view_url":1,"soilmap_view_url":null,"soiltest_xml_url":0,"soiltest_view_url":0},{"id":490633,"code":"NGIC202105401-0002","latitude":"42.392056277778","longitude":"142.26475194444","source_code":"","project_name":"","survey_name":"\u4e00\u822c\u56fd\u9053235\u53f7\u65b0\u51a0\u753a\u65b0\u51a0\u6cd5\u9762\u5730\u8cea\u8abf\u67fb\u5916\u4e00\u9023\u696d\u52d9","client_name":"\u56fd\u571f\u4ea4\u901a\u7701\u5317\u6d77\u9053\u958b\u767a\u5c40\u5ba4\u862d\u958b\u767a\u5efa\u8a2d\u90e8\u672c\u90e8","boring_xml_url":47,"boring_view_url":1,"soilmap_view_url":null,"soiltest_xml_url":0,"soiltest_view_url":0},{"id":490632,"code":"NGIC202105401-0001","latitude":"42.3923135","longitude":"142.26430619444","source_code":"","project_name":"","survey_name":"\u4e00\u822c\u56fd\u9053235\u53f7\u65b0\u51a0\u753a\u65b0\u51a0\u6cd5\u9762\u5730\u8cea\u8abf\u67fb\u5916\u4e00\u9023\u696d\u52d9","client_name":"\u56fd\u571f\u4ea4\u901a\u7701\u5317\u6d77\u9053\u958b\u767a\u5c40\u5ba4\u862d\u958b\u767a\u5efa\u8a2d\u90e8\u672c\u90e8","boring_xml_url":47,"boring_view_url":1,"soilmap_view_url":null,"soiltest_xml_url":0,"soiltest_view_url":0},{"id":490582,"code":"NGIC202105433-0001","latitude":"35.455161111111","longitude":"136.83920277778","source_code":"","project_name":"","survey_name":"\u4ee4\u548c3\u5e74\u5ea6156\u53f7\u5c90\u961c\u6771BP\u6c34\u6587\u8abf\u67fb\u696d\u52d9","client_name":"\u56fd\u571f\u4ea4\u901a\u7701\u4e2d\u90e8\u5730\u65b9\u6574\u5099\u5c40\u5c90\u961c\u56fd\u9053\u4e8b\u52d9\u6240","boring_xml_url":47,"boring_view_url":1,"soilmap_view_url":null,"soiltest_xml_url":0,"soiltest_view_url":0},{"id":490577,"code":"NGIC202105457-0004","latitude":"34.644972222222","longitude":"135.80239722222","source_code":"","project_name":"\u5927\u548c\u5317\u9053\u8def  \u4e0b\u4e09\u6a4b\u5730\u533a\u4ed6\u69cb\u9020\u7269\u8a73\u7d30\u4fee\u6b63\u8a2d\u8a08\u696d\u52d9","survey_name":"\u5927\u548c\u5317\u9053\u8def  \u4e0b\u4e09\u6a4b\u5730\u533a\u4ed6\u69cb\u9020\u7269\u8a73\u7d30\u4fee\u6b63\u8a2d\u8a08\u696d\u52d9","client_name":"\u56fd\u571f\u4ea4\u901a\u7701\u8fd1\u757f\u5730\u65b9\u6574\u5099\u5c40\u5948\u826f\u56fd\u9053\u4e8b\u52d9\u6240","boring_xml_url":47,"boring_view_url":1,"soilmap_view_url":null,"soiltest_xml_url":47,"soiltest_view_url":47},{"id":490576,"code":"NGIC202105457-0003","latitude":"34.645061111111","longitude":"135.80106666667","source_code":"","project_name":"\u5927\u548c\u5317\u9053\u8def  \u4e0b\u4e09\u6a4b\u5730\u533a\u4ed6\u69cb\u9020\u7269\u8a73\u7d30\u4fee\u6b63\u8a2d\u8a08\u696d\u52d9","survey_name":"\u5927\u548c\u5317\u9053\u8def  \u4e0b\u4e09\u6a4b\u5730\u533a\u4ed6\u69cb\u9020\u7269\u8a73\u7d30\u4fee\u6b63\u8a2d\u8a08\u696d\u52d9","client_name":"\u56fd\u571f\u4ea4\u901a\u7701\u8fd1\u757f\u5730\u65b9\u6574\u5099\u5c40\u5948\u826f\u56fd\u9053\u4e8b\u52d9\u6240","boring_xml_url":47,"boring_view_url":1,"soilmap_view_url":null,"soiltest_xml_url":47,"soiltest_view_url":47},{"id":490575,"code":"NGIC202105457-0002","latitude":"34.645025","longitude":"135.80165555556","source_code":"","project_name":"\u5927\u548c\u5317\u9053\u8def  \u4e0b\u4e09\u6a4b\u5730\u533a\u4ed6\u69cb\u9020\u7269\u8a73\u7d30\u4fee\u6b63\u8a2d\u8a08\u696d\u52d9","survey_name":"\u5927\u548c\u5317\u9053\u8def  \u4e0b\u4e09\u6a4b\u5730\u533a\u4ed6\u69cb\u9020\u7269\u8a73\u7d30\u4fee\u6b63\u8a2d\u8a08\u696d\u52d9","client_name":"\u56fd\u571f\u4ea4\u901a\u7701\u8fd1\u757f\u5730\u65b9\u6574\u5099\u5c40\u5948\u826f\u56fd\u9053\u4e8b\u52d9\u6240","boring_xml_url":47,"boring_view_url":1,"soilmap_view_url":null,"soiltest_xml_url":47,"soiltest_view_url":47},{"id":490574,"code":"NGIC202105457-0001","latitude":"34.645033333333","longitude":"135.80274444444","source_code":"","project_name":"\u5927\u548c\u5317\u9053\u8def  \u4e0b\u4e09\u6a4b\u5730\u533a\u4ed6\u69cb\u9020\u7269\u8a73\u7d30\u4fee\u6b63\u8a2d\u8a08\u696d\u52d9","survey_name":"\u5927\u548c\u5317\u9053\u8def  \u4e0b\u4e09\u6a4b\u5730\u533a\u4ed6\u69cb\u9020\u7269\u8a73\u7d30\u4fee\u6b63\u8a2d\u8a08\u696d\u52d9","client_name":"\u56fd\u571f\u4ea4\u901a\u7701\u8fd1\u757f\u5730\u65b9\u6574\u5099\u5c40\u5948\u826f\u56fd\u9053\u4e8b\u52d9\u6240","boring_xml_url":47,"boring_view_url":1,"soilmap_view_url":null,"soiltest_xml_url":47,"soiltest_view_url":47},{"id":490560,"code":"NGIC202105679-0014","latitude":"37.304176111111","longitude":"138.89923888889","source_code":"","project_name":"","survey_name":"\u4ee4\u548c3\u5e74\u5ea6\u9b5a\u91ce\u5ddd\u6d41\u57df\u5730\u8cea\u8abf\u67fb\u696d\u52d9","client_name":"\u56fd\u571f\u4ea4\u901a\u7701\u5317\u9678\u5730\u65b9\u6574\u5099\u5c40\u6e6f\u6ca2\u7802\u9632\u4e8b\u52d9\u6240","boring_xml_url":47,"boring_view_url":1,"soilmap_view_url":null,"soiltest_xml_url":47,"soiltest_view_url":47},{"id":490559,"code":"NGIC202105679-0013","latitude":"37.304131388889","longitude":"138.89930833333","source_code":"","project_name":"","survey_name":"\u4ee4\u548c3\u5e74\u5ea6\u9b5a\u91ce\u5ddd\u6d41\u57df\u5730\u8cea\u8abf\u67fb\u696d\u52d9","client_name":"\u56fd\u571f\u4ea4\u901a\u7701\u5317\u9678\u5730\u65b9\u6574\u5099\u5c40\u6e6f\u6ca2\u7802\u9632\u4e8b\u52d9\u6240","boring_xml_url":47,"boring_view_url":1,"soilmap_view_url":null,"soiltest_xml_url":47,"soiltest_view_url":47},{"id":490558,"code":"NGIC202105679-0012","latitude":"37.3032725","longitude":"138.904095","source_code":"","project_name":"","survey_name":"\u4ee4\u548c3\u5e74\u5ea6\u9b5a\u91ce\u5ddd\u6d41\u57df\u5730\u8cea\u8abf\u67fb\u696d\u52d9","client_name":"\u56fd\u571f\u4ea4\u901a\u7701\u5317\u9678\u5730\u65b9\u6574\u5099\u5c40\u6e6f\u6ca2\u7802\u9632\u4e8b\u52d9\u6240","boring_xml_url":47,"boring_view_url":1,"soilmap_view_url":null,"soiltest_xml_url":0,"soiltest_view_url":0},{"id":490557,"code":"NGIC202105679-0011","latitude":"37.312669722222","longitude":"138.91763555556","source_code":"","project_name":"","survey_name":"\u4ee4\u548c3\u5e74\u5ea6\u9b5a\u91ce\u5ddd\u6d41\u57df\u5730\u8cea\u8abf\u67fb\u696d\u52d9","client_name":"\u56fd\u571f\u4ea4\u901a\u7701\u5317\u9678\u5730\u65b9\u6574\u5099\u5c40\u6e6f\u6ca2\u7802\u9632\u4e8b\u52d9\u6240","boring_xml_url":47,"boring_view_url":1,"soilmap_view_url":null,"soiltest_xml_url":0,"soiltest_view_url":0},{"id":490556,"code":"NGIC202105679-0010","latitude":"37.326000833333","longitude":"138.92195055556","source_code":"","project_name":"","survey_name":"\u4ee4\u548c3\u5e74\u5ea6\u9b5a\u91ce\u5ddd\u6d41\u57df\u5730\u8cea\u8abf\u67fb\u696d\u52d9","client_name":"\u56fd\u571f\u4ea4\u901a\u7701\u5317\u9678\u5730\u65b9\u6574\u5099\u5c40\u6e6f\u6ca2\u7802\u9632\u4e8b\u52d9\u6240","boring_xml_url":47,"boring_view_url":1,"soilmap_view_url":null,"soiltest_xml_url":0,"soiltest_view_url":0},{"id":490555,"code":"NGIC202105679-0009","latitude":"37.328155833333","longitude":"138.914645","source_code":"","project_name":"","survey_name":"\u4ee4\u548c3\u5e74\u5ea6\u9b5a\u91ce\u5ddd\u6d41\u57df\u5730\u8cea\u8abf\u67fb\u696d\u52d9","client_name":"\u56fd\u571f\u4ea4\u901a\u7701\u5317\u9678\u5730\u65b9\u6574\u5099\u5c40\u6e6f\u6ca2\u7802\u9632\u4e8b\u52d9\u6240","boring_xml_url":47,"boring_view_url":1,"soilmap_view_url":null,"soiltest_xml_url":47,"soiltest_view_url":47},{"id":490554,"code":"NGIC202105679-0008","latitude":"37.328108055556","longitude":"138.91456416667","source_code":"","project_name":"","survey_name":"\u4ee4\u548c3\u5e74\u5ea6\u9b5a\u91ce\u5ddd\u6d41\u57df\u5730\u8cea\u8abf\u67fb\u696d\u52d9","client_name":"\u56fd\u571f\u4ea4\u901a\u7701\u5317\u9678\u5730\u65b9\u6574\u5099\u5c40\u6e6f\u6ca2\u7802\u9632\u4e8b\u52d9\u6240","boring_xml_url":47,"boring_view_url":1,"soilmap_view_url":null,"soiltest_xml_url":47,"soiltest_view_url":47},{"id":490553,"code":"NGIC202105679-0007","latitude":"37.194630833333","longitude":"139.08847638889","source_code":"","project_name":"","survey_name":"\u4ee4\u548c3\u5e74\u5ea6\u9b5a\u91ce\u5ddd\u6d41\u57df\u5730\u8cea\u8abf\u67fb\u696d\u52d9","client_name":"\u56fd\u571f\u4ea4\u901a\u7701\u5317\u9678\u5730\u65b9\u6574\u5099\u5c40\u6e6f\u6ca2\u7802\u9632\u4e8b\u52d9\u6240","boring_xml_url":47,"boring_view_url":1,"soilmap_view_url":null,"soiltest_xml_url":0,"soiltest_view_url":0}]}}