{"header":{"xyz":{"source":[],"mosaic":false},"page":17,"raw":{"soiltest_result":"0","bbox":"57.598333,109.544722,1.933333,163.806111","page":"17"},"conditions":{"soiltest_result":0,"north":57.598333,"west":109.544722,"south":1.933333,"east":163.806111},"success":true,"message":""},"data":{"meta":{"total":212844,"page":17,"pages":7095,"count":30},"values":[{"id":703697,"code":"NGIC202306007-0003","latitude":"31.47285","longitude":"131.13977777778","source_code":"","project_name":"\u6cb9\u6d25\u30fb\u590f\u4e95\u9053\u8def\u677f\u5ddd\u5185\u5730\u533a\uff08\u7b2c1\u5de5\u533a\uff09\u5916\u6539\u826f\u305d\u306e\u4ed6\u5de5\u4e8b","survey_name":"\u6cb9\u6d25\u30fb\u590f\u4e95\u9053\u8def\u677f\u5ddd\u5185\u5730\u533a\uff08\u7b2c1\u5de5\u533a\uff09\u5916\u6539\u826f\u305d\u306e\u4ed6\u5de5\u4e8b\u00a5n","client_name":"\u56fd\u571f\u4ea4\u901a\u7701\u4e5d\u5dde\u5730\u65b9\u6574\u5099\u5c40\u5927\u9685\u6cb3\u5ddd\u56fd\u9053\u4e8b\u52d9\u6240","boring_xml_url":47,"boring_view_url":1,"soilmap_view_url":null,"soiltest_xml_url":0,"soiltest_view_url":0},{"id":703696,"code":"NGIC202306007-0002","latitude":"31.473055555556","longitude":"131.14027777778","source_code":"","project_name":"\u6cb9\u6d25\u30fb\u590f\u4e95\u9053\u8def\u677f\u5ddd\u5185\u5730\u533a\uff08\u7b2c1\u5de5\u533a\uff09\u5916\u6539\u826f\u305d\u306e\u4ed6\u5de5\u4e8b","survey_name":"\u6cb9\u6d25\u30fb\u590f\u4e95\u9053\u8def\u677f\u5ddd\u5185\u5730\u533a\uff08\u7b2c1\u5de5\u533a\uff09\u5916\u6539\u826f\u305d\u306e\u4ed6\u5de5\u4e8b\u00a5n","client_name":"\u56fd\u571f\u4ea4\u901a\u7701\u4e5d\u5dde\u5730\u65b9\u6574\u5099\u5c40\u5927\u9685\u6cb3\u5ddd\u56fd\u9053\u4e8b\u52d9\u6240","boring_xml_url":47,"boring_view_url":1,"soilmap_view_url":null,"soiltest_xml_url":0,"soiltest_view_url":0},{"id":703695,"code":"NGIC202306007-0001","latitude":"31.472777777778","longitude":"131.14027777778","source_code":"","project_name":"\u6cb9\u6d25\u30fb\u590f\u4e95\u9053\u8def\u677f\u5ddd\u5185\u5730\u533a\uff08\u7b2c1\u5de5\u533a\uff09\u5916\u6539\u826f\u305d\u306e\u4ed6\u5de5\u4e8b","survey_name":"\u6cb9\u6d25\u30fb\u590f\u4e95\u9053\u8def\u677f\u5ddd\u5185\u5730\u533a\uff08\u7b2c1\u5de5\u533a\uff09\u5916\u6539\u826f\u305d\u306e\u4ed6\u5de5\u4e8b\u00a5n","client_name":"\u56fd\u571f\u4ea4\u901a\u7701\u4e5d\u5dde\u5730\u65b9\u6574\u5099\u5c40\u5927\u9685\u6cb3\u5ddd\u56fd\u9053\u4e8b\u52d9\u6240","boring_xml_url":47,"boring_view_url":1,"soilmap_view_url":null,"soiltest_xml_url":0,"soiltest_view_url":0},{"id":703357,"code":"NGIC202306331-0002","latitude":"40.253619972222","longitude":"140.55471280556","source_code":"","project_name":"","survey_name":"\u7c73\u4ee3\u5ddd\u5c0f\u9928\u82b1\u5730\u533a\u707d\u5bb3\u5fa9\u65e7\u5de5\u4e8b","client_name":"\u56fd\u571f\u4ea4\u901a\u7701\u6771\u5317\u5730\u65b9\u6574\u5099\u5c40\u80fd\u4ee3\u6cb3\u5ddd\u56fd\u9053\u4e8b\u52d9\u6240","boring_xml_url":47,"boring_view_url":1,"soilmap_view_url":null,"soiltest_xml_url":0,"soiltest_view_url":0},{"id":703356,"code":"NGIC202306331-0001","latitude":"40.253959138889","longitude":"140.55376425","source_code":"","project_name":"","survey_name":"\u7c73\u4ee3\u5ddd\u5c0f\u9928\u82b1\u5730\u533a\u707d\u5bb3\u5fa9\u65e7\u5de5\u4e8b","client_name":"\u56fd\u571f\u4ea4\u901a\u7701\u6771\u5317\u5730\u65b9\u6574\u5099\u5c40\u80fd\u4ee3\u6cb3\u5ddd\u56fd\u9053\u4e8b\u52d9\u6240","boring_xml_url":47,"boring_view_url":1,"soilmap_view_url":null,"soiltest_xml_url":0,"soiltest_view_url":0},{"id":703351,"code":"NGIC202306145-0004","latitude":"34.384545555556","longitude":"132.45925394444","source_code":"","project_name":"","survey_name":"\u4ee4\u548c5\u5e74\u5ea6\u897f\u5e83\u5cf6\u30d0\u30a4\u30d1\u30b9\u56fd\u6cf0\u5bfa\u5730\u533a\u5730\u8cea\u8abf\u67fb\u696d\u52d9","client_name":"\u56fd\u571f\u4ea4\u901a\u7701\u4e2d\u56fd\u5730\u65b9\u6574\u5099\u5c40\u5e83\u5cf6\u56fd\u9053\u4e8b\u52d9\u6240","boring_xml_url":47,"boring_view_url":1,"soilmap_view_url":null,"soiltest_xml_url":47,"soiltest_view_url":47},{"id":703350,"code":"NGIC202306145-0003","latitude":"34.384233361111","longitude":"132.45952880556","source_code":"","project_name":"","survey_name":"\u4ee4\u548c5\u5e74\u5ea6\u897f\u5e83\u5cf6\u30d0\u30a4\u30d1\u30b9\u56fd\u6cf0\u5bfa\u5730\u533a\u5730\u8cea\u8abf\u67fb\u696d\u52d9","client_name":"\u56fd\u571f\u4ea4\u901a\u7701\u4e2d\u56fd\u5730\u65b9\u6574\u5099\u5c40\u5e83\u5cf6\u56fd\u9053\u4e8b\u52d9\u6240","boring_xml_url":47,"boring_view_url":1,"soilmap_view_url":null,"soiltest_xml_url":47,"soiltest_view_url":47},{"id":703349,"code":"NGIC202306145-0002","latitude":"34.384636527778","longitude":"132.45981633333","source_code":"","project_name":"","survey_name":"\u4ee4\u548c5\u5e74\u5ea6\u897f\u5e83\u5cf6\u30d0\u30a4\u30d1\u30b9\u56fd\u6cf0\u5bfa\u5730\u533a\u5730\u8cea\u8abf\u67fb\u696d\u52d9","client_name":"\u56fd\u571f\u4ea4\u901a\u7701\u4e2d\u56fd\u5730\u65b9\u6574\u5099\u5c40\u5e83\u5cf6\u56fd\u9053\u4e8b\u52d9\u6240","boring_xml_url":47,"boring_view_url":1,"soilmap_view_url":null,"soiltest_xml_url":47,"soiltest_view_url":47},{"id":703348,"code":"NGIC202306145-0001","latitude":"34.384853666667","longitude":"132.46022488889","source_code":"","project_name":"","survey_name":"\u4ee4\u548c5\u5e74\u5ea6\u897f\u5e83\u5cf6\u30d0\u30a4\u30d1\u30b9\u56fd\u6cf0\u5bfa\u5730\u533a\u5730\u8cea\u8abf\u67fb\u696d\u52d9","client_name":"\u56fd\u571f\u4ea4\u901a\u7701\u4e2d\u56fd\u5730\u65b9\u6574\u5099\u5c40\u5e83\u5cf6\u56fd\u9053\u4e8b\u52d9\u6240","boring_xml_url":47,"boring_view_url":1,"soilmap_view_url":null,"soiltest_xml_url":47,"soiltest_view_url":47},{"id":703286,"code":"NGIC202306111-0010","latitude":"26.220380916667","longitude":"127.77435613889","source_code":"","project_name":"\u300c\u897f\u539f\u30d0\u30a4\u30d1\u30b9\u5730\u8cea\u8abf\u67fb\u300d","survey_name":"\u4ee4\u548c5\u5e74\u5ea6\u5357\u90e8\u56fd\u9053\u6e0b\u6ede\u5bfe\u7b56\u5916\u8a2d\u8a08\u696d\u52d9","client_name":"\u5185\u95a3\u5e9c\u6c96\u7e04\u7dcf\u5408\u4e8b\u52d9\u5c40\u958b\u767a\u5efa\u8a2d\u90e8\u5357\u90e8\u56fd\u9053\u4e8b\u52d9\u6240","boring_xml_url":47,"boring_view_url":1,"soilmap_view_url":null,"soiltest_xml_url":47,"soiltest_view_url":47},{"id":703285,"code":"NGIC202306111-0009","latitude":"26.23331875","longitude":"127.78208566667","source_code":"","project_name":"\u300c\u897f\u539f\u30d0\u30a4\u30d1\u30b9\u5730\u8cea\u8abf\u67fb\u300d","survey_name":"\u4ee4\u548c5\u5e74\u5ea6\u5357\u90e8\u56fd\u9053\u6e0b\u6ede\u5bfe\u7b56\u5916\u8a2d\u8a08\u696d\u52d9","client_name":"\u5185\u95a3\u5e9c\u6c96\u7e04\u7dcf\u5408\u4e8b\u52d9\u5c40\u958b\u767a\u5efa\u8a2d\u90e8\u5357\u90e8\u56fd\u9053\u4e8b\u52d9\u6240","boring_xml_url":47,"boring_view_url":1,"soilmap_view_url":null,"soiltest_xml_url":47,"soiltest_view_url":47},{"id":703284,"code":"NGIC202306111-0008","latitude":"26.219075472222","longitude":"127.77374252778","source_code":"","project_name":"\u300c\u897f\u539f\u30d0\u30a4\u30d1\u30b9\u5730\u8cea\u8abf\u67fb\u300d","survey_name":"\u4ee4\u548c5\u5e74\u5ea6\u5357\u90e8\u56fd\u9053\u6e0b\u6ede\u5bfe\u7b56\u5916\u8a2d\u8a08\u696d\u52d9","client_name":"\u5185\u95a3\u5e9c\u6c96\u7e04\u7dcf\u5408\u4e8b\u52d9\u5c40\u958b\u767a\u5efa\u8a2d\u90e8\u5357\u90e8\u56fd\u9053\u4e8b\u52d9\u6240","boring_xml_url":47,"boring_view_url":1,"soilmap_view_url":null,"soiltest_xml_url":47,"soiltest_view_url":47},{"id":703283,"code":"NGIC202306111-0007","latitude":"26.222616888889","longitude":"127.77480825","source_code":"","project_name":"\u300c\u897f\u539f\u30d0\u30a4\u30d1\u30b9\u5730\u8cea\u8abf\u67fb\u300d","survey_name":"\u4ee4\u548c5\u5e74\u5ea6\u5357\u90e8\u56fd\u9053\u6e0b\u6ede\u5bfe\u7b56\u5916\u8a2d\u8a08\u696d\u52d9","client_name":"\u5185\u95a3\u5e9c\u6c96\u7e04\u7dcf\u5408\u4e8b\u52d9\u5c40\u958b\u767a\u5efa\u8a2d\u90e8\u5357\u90e8\u56fd\u9053\u4e8b\u52d9\u6240","boring_xml_url":47,"boring_view_url":1,"soilmap_view_url":null,"soiltest_xml_url":47,"soiltest_view_url":47},{"id":703282,"code":"NGIC202306111-0006","latitude":"26.2242195","longitude":"127.77504005556","source_code":"","project_name":"\u300c\u897f\u539f\u30d0\u30a4\u30d1\u30b9\u5730\u8cea\u8abf\u67fb\u300d","survey_name":"\u4ee4\u548c5\u5e74\u5ea6\u5357\u90e8\u56fd\u9053\u6e0b\u6ede\u5bfe\u7b56\u5916\u8a2d\u8a08\u696d\u52d9","client_name":"\u5185\u95a3\u5e9c\u6c96\u7e04\u7dcf\u5408\u4e8b\u52d9\u5c40\u958b\u767a\u5efa\u8a2d\u90e8\u5357\u90e8\u56fd\u9053\u4e8b\u52d9\u6240","boring_xml_url":47,"boring_view_url":1,"soilmap_view_url":null,"soiltest_xml_url":47,"soiltest_view_url":47},{"id":703281,"code":"NGIC202306111-0005","latitude":"26.226317388889","longitude":"127.77622255556","source_code":"","project_name":"\u300c\u897f\u539f\u30d0\u30a4\u30d1\u30b9\u5730\u8cea\u8abf\u67fb\u300d","survey_name":"\u4ee4\u548c5\u5e74\u5ea6\u5357\u90e8\u56fd\u9053\u6e0b\u6ede\u5bfe\u7b56\u5916\u8a2d\u8a08\u696d\u52d9","client_name":"\u5185\u95a3\u5e9c\u6c96\u7e04\u7dcf\u5408\u4e8b\u52d9\u5c40\u958b\u767a\u5efa\u8a2d\u90e8\u5357\u90e8\u56fd\u9053\u4e8b\u52d9\u6240","boring_xml_url":47,"boring_view_url":1,"soilmap_view_url":null,"soiltest_xml_url":47,"soiltest_view_url":47},{"id":703280,"code":"NGIC202306111-0004","latitude":"26.228250916667","longitude":"127.77805105556","source_code":"","project_name":"\u300c\u897f\u539f\u30d0\u30a4\u30d1\u30b9\u5730\u8cea\u8abf\u67fb\u300d","survey_name":"\u4ee4\u548c5\u5e74\u5ea6\u5357\u90e8\u56fd\u9053\u6e0b\u6ede\u5bfe\u7b56\u5916\u8a2d\u8a08\u696d\u52d9","client_name":"\u5185\u95a3\u5e9c\u6c96\u7e04\u7dcf\u5408\u4e8b\u52d9\u5c40\u958b\u767a\u5efa\u8a2d\u90e8\u5357\u90e8\u56fd\u9053\u4e8b\u52d9\u6240","boring_xml_url":47,"boring_view_url":1,"soilmap_view_url":null,"soiltest_xml_url":47,"soiltest_view_url":47},{"id":703279,"code":"NGIC202306111-0003","latitude":"26.229618861111","longitude":"127.77941041667","source_code":"","project_name":"\u300c\u897f\u539f\u30d0\u30a4\u30d1\u30b9\u5730\u8cea\u8abf\u67fb\u300d","survey_name":"\u4ee4\u548c5\u5e74\u5ea6\u5357\u90e8\u56fd\u9053\u6e0b\u6ede\u5bfe\u7b56\u5916\u8a2d\u8a08\u696d\u52d9","client_name":"\u5185\u95a3\u5e9c\u6c96\u7e04\u7dcf\u5408\u4e8b\u52d9\u5c40\u958b\u767a\u5efa\u8a2d\u90e8\u5357\u90e8\u56fd\u9053\u4e8b\u52d9\u6240","boring_xml_url":47,"boring_view_url":1,"soilmap_view_url":null,"soiltest_xml_url":47,"soiltest_view_url":47},{"id":703278,"code":"NGIC202306111-0002","latitude":"26.234363416667","longitude":"127.78261247222","source_code":"","project_name":"\u300c\u897f\u539f\u30d0\u30a4\u30d1\u30b9\u5730\u8cea\u8abf\u67fb\u300d","survey_name":"\u4ee4\u548c5\u5e74\u5ea6\u5357\u90e8\u56fd\u9053\u6e0b\u6ede\u5bfe\u7b56\u5916\u8a2d\u8a08\u696d\u52d9","client_name":"\u5185\u95a3\u5e9c\u6c96\u7e04\u7dcf\u5408\u4e8b\u52d9\u5c40\u958b\u767a\u5efa\u8a2d\u90e8\u5357\u90e8\u56fd\u9053\u4e8b\u52d9\u6240","boring_xml_url":47,"boring_view_url":1,"soilmap_view_url":null,"soiltest_xml_url":47,"soiltest_view_url":47},{"id":703277,"code":"NGIC202306111-0001","latitude":"26.245296888889","longitude":"127.78185469444","source_code":"","project_name":"\u300c\u897f\u539f\u30d0\u30a4\u30d1\u30b9\u5730\u8cea\u8abf\u67fb\u300d","survey_name":"\u4ee4\u548c5\u5e74\u5ea6\u5357\u90e8\u56fd\u9053\u6e0b\u6ede\u5bfe\u7b56\u5916\u8a2d\u8a08\u696d\u52d9","client_name":"\u5185\u95a3\u5e9c\u6c96\u7e04\u7dcf\u5408\u4e8b\u52d9\u5c40\u958b\u767a\u5efa\u8a2d\u90e8\u5357\u90e8\u56fd\u9053\u4e8b\u52d9\u6240","boring_xml_url":47,"boring_view_url":1,"soilmap_view_url":null,"soiltest_xml_url":47,"soiltest_view_url":47},{"id":703244,"code":"NGIC202306104-0005","latitude":"32.752768611111","longitude":"130.73869833333","source_code":"","project_name":"","survey_name":"\u4ee4\u548c5\u5e74\u5ea6\u7dd1\u5ddd\u7ba1\u5185\u5730\u8cea\u8abf\u67fb\u696d\u52d9","client_name":"\u56fd\u571f\u4ea4\u901a\u7701\u4e5d\u5dde\u5730\u65b9\u6574\u5099\u5c40\u718a\u672c\u6cb3\u5ddd\u56fd\u9053\u4e8b\u52d9\u6240","boring_xml_url":47,"boring_view_url":1,"soilmap_view_url":null,"soiltest_xml_url":47,"soiltest_view_url":47},{"id":703243,"code":"NGIC202306104-0004","latitude":"32.750815277778","longitude":"130.73260638889","source_code":"","project_name":"","survey_name":"\u4ee4\u548c5\u5e74\u5ea6\u7dd1\u5ddd\u7ba1\u5185\u5730\u8cea\u8abf\u67fb\u696d\u52d9","client_name":"\u56fd\u571f\u4ea4\u901a\u7701\u4e5d\u5dde\u5730\u65b9\u6574\u5099\u5c40\u718a\u672c\u6cb3\u5ddd\u56fd\u9053\u4e8b\u52d9\u6240","boring_xml_url":47,"boring_view_url":1,"soilmap_view_url":null,"soiltest_xml_url":47,"soiltest_view_url":47},{"id":703242,"code":"NGIC202306104-0003","latitude":"32.717889166667","longitude":"130.64588611111","source_code":"","project_name":"","survey_name":"\u4ee4\u548c5\u5e74\u5ea6\u7dd1\u5ddd\u7ba1\u5185\u5730\u8cea\u8abf\u67fb\u696d\u52d9","client_name":"\u56fd\u571f\u4ea4\u901a\u7701\u4e5d\u5dde\u5730\u65b9\u6574\u5099\u5c40\u718a\u672c\u6cb3\u5ddd\u56fd\u9053\u4e8b\u52d9\u6240","boring_xml_url":47,"boring_view_url":1,"soilmap_view_url":null,"soiltest_xml_url":47,"soiltest_view_url":47},{"id":703241,"code":"NGIC202306104-0002","latitude":"32.7179475","longitude":"130.64573944444","source_code":"","project_name":"","survey_name":"\u4ee4\u548c5\u5e74\u5ea6\u7dd1\u5ddd\u7ba1\u5185\u5730\u8cea\u8abf\u67fb\u696d\u52d9","client_name":"\u56fd\u571f\u4ea4\u901a\u7701\u4e5d\u5dde\u5730\u65b9\u6574\u5099\u5c40\u718a\u672c\u6cb3\u5ddd\u56fd\u9053\u4e8b\u52d9\u6240","boring_xml_url":47,"boring_view_url":1,"soilmap_view_url":null,"soiltest_xml_url":47,"soiltest_view_url":47},{"id":703240,"code":"NGIC202306104-0001","latitude":"32.7180325","longitude":"130.64552916667","source_code":"","project_name":"","survey_name":"\u4ee4\u548c5\u5e74\u5ea6\u7dd1\u5ddd\u7ba1\u5185\u5730\u8cea\u8abf\u67fb\u696d\u52d9","client_name":"\u56fd\u571f\u4ea4\u901a\u7701\u4e5d\u5dde\u5730\u65b9\u6574\u5099\u5c40\u718a\u672c\u6cb3\u5ddd\u56fd\u9053\u4e8b\u52d9\u6240","boring_xml_url":47,"boring_view_url":1,"soilmap_view_url":null,"soiltest_xml_url":47,"soiltest_view_url":47},{"id":703239,"code":"NGIC202306156-0001","latitude":"34.680277777778","longitude":"135.27722222222","source_code":"","project_name":"","survey_name":"\u795e\u6238\u6e2f\u516d\u7532\u30a2\u30a4\u30e9\u30f3\u30c9\u5730\u533a\u571f\u8cea\u8abf\u67fb","client_name":"\u56fd\u571f\u4ea4\u901a\u7701\u8fd1\u757f\u5730\u65b9\u6574\u5099\u5c40\u795e\u6238\u6e2f\u6e7e\u4e8b\u52d9\u6240","boring_xml_url":47,"boring_view_url":1,"soilmap_view_url":null,"soiltest_xml_url":47,"soiltest_view_url":47},{"id":703231,"code":"NGIC202306105-0031","latitude":"33.507430555556","longitude":"134.25101388889","source_code":"","project_name":"\u963f\u5357\u5b89\u82b8\u81ea\u52d5\u8eca\u9053","survey_name":"\u4ee4\u548c5\u5e74\u5ea6\u963f\u5357\u5b89\u82b8\u81ea\u52d5\u8eca\u9053\uff08\u571f\u4f50\u7ba1\u5185\u305d\u306e1\uff09\u5730\u8cea\u8abf\u67fb\u696d\u52d9","client_name":"\u56fd\u571f\u4ea4\u901a\u7701\u56db\u56fd\u5730\u65b9\u6574\u5099\u5c40\u571f\u4f50\u56fd\u9053\u4e8b\u52d9\u6240","boring_xml_url":47,"boring_view_url":1,"soilmap_view_url":null,"soiltest_xml_url":47,"soiltest_view_url":47},{"id":703230,"code":"NGIC202306105-0030","latitude":"33.510308333333","longitude":"134.23828888889","source_code":"","project_name":"\u963f\u5357\u5b89\u82b8\u81ea\u52d5\u8eca\u9053","survey_name":"\u4ee4\u548c5\u5e74\u5ea6\u963f\u5357\u5b89\u82b8\u81ea\u52d5\u8eca\u9053\uff08\u571f\u4f50\u7ba1\u5185\u305d\u306e1\uff09\u5730\u8cea\u8abf\u67fb\u696d\u52d9","client_name":"\u56fd\u571f\u4ea4\u901a\u7701\u56db\u56fd\u5730\u65b9\u6574\u5099\u5c40\u571f\u4f50\u56fd\u9053\u4e8b\u52d9\u6240","boring_xml_url":47,"boring_view_url":1,"soilmap_view_url":null,"soiltest_xml_url":0,"soiltest_view_url":0},{"id":703229,"code":"NGIC202306105-0029","latitude":"33.510172222222","longitude":"134.23888055556","source_code":"","project_name":"\u963f\u5357\u5b89\u82b8\u81ea\u52d5\u8eca\u9053","survey_name":"\u4ee4\u548c5\u5e74\u5ea6\u963f\u5357\u5b89\u82b8\u81ea\u52d5\u8eca\u9053\uff08\u571f\u4f50\u7ba1\u5185\u305d\u306e1\uff09\u5730\u8cea\u8abf\u67fb\u696d\u52d9","client_name":"\u56fd\u571f\u4ea4\u901a\u7701\u56db\u56fd\u5730\u65b9\u6574\u5099\u5c40\u571f\u4f50\u56fd\u9053\u4e8b\u52d9\u6240","boring_xml_url":47,"boring_view_url":1,"soilmap_view_url":null,"soiltest_xml_url":0,"soiltest_view_url":0},{"id":703228,"code":"NGIC202306105-0028","latitude":"33.510422222222","longitude":"134.23888333333","source_code":"","project_name":"\u963f\u5357\u5b89\u82b8\u81ea\u52d5\u8eca\u9053","survey_name":"\u4ee4\u548c5\u5e74\u5ea6\u963f\u5357\u5b89\u82b8\u81ea\u52d5\u8eca\u9053\uff08\u571f\u4f50\u7ba1\u5185\u305d\u306e1\uff09\u5730\u8cea\u8abf\u67fb\u696d\u52d9","client_name":"\u56fd\u571f\u4ea4\u901a\u7701\u56db\u56fd\u5730\u65b9\u6574\u5099\u5c40\u571f\u4f50\u56fd\u9053\u4e8b\u52d9\u6240","boring_xml_url":47,"boring_view_url":1,"soilmap_view_url":null,"soiltest_xml_url":0,"soiltest_view_url":0},{"id":703227,"code":"NGIC202306105-0027","latitude":"33.549025","longitude":"134.28639444444","source_code":"","project_name":"\u963f\u5357\u5b89\u82b8\u81ea\u52d5\u8eca\u9053","survey_name":"\u4ee4\u548c5\u5e74\u5ea6\u963f\u5357\u5b89\u82b8\u81ea\u52d5\u8eca\u9053\uff08\u571f\u4f50\u7ba1\u5185\u305d\u306e1\uff09\u5730\u8cea\u8abf\u67fb\u696d\u52d9","client_name":"\u56fd\u571f\u4ea4\u901a\u7701\u56db\u56fd\u5730\u65b9\u6574\u5099\u5c40\u571f\u4f50\u56fd\u9053\u4e8b\u52d9\u6240","boring_xml_url":47,"boring_view_url":1,"soilmap_view_url":null,"soiltest_xml_url":0,"soiltest_view_url":0}]}}