{"header":{"xyz":{"source":[],"mosaic":false},"page":1703,"raw":{"soiltest_result":"0","bbox":"57.598333,109.544722,1.933333,163.806111","page":"1703"},"conditions":{"soiltest_result":0,"north":57.598333,"west":109.544722,"south":1.933333,"east":163.806111},"success":true,"message":""},"data":{"meta":{"total":212844,"page":1703,"pages":7095,"count":30},"values":[{"id":488391,"code":"NGIC202105151-0001","latitude":"42.770390444444","longitude":"140.6531375","source_code":"","project_name":"\u56fd\u55b6\u7dca\u6025\u8fb2\u5730\u518d\u7de8\u6574\u5099\u4e8b\u696d","survey_name":"\u30cb\u30bb\u30b3\u5730\u533a\u8fd1\u85e4\u5de5\u533a\u533a\u753b\u6574\u7406\u8a2d\u8a08\u7b49\u696d\u52d9","client_name":"\u56fd\u571f\u4ea4\u901a\u7701\u5317\u6d77\u9053\u958b\u767a\u5c40\u5c0f\u6a3d\u958b\u767a\u5efa\u8a2d\u90e8\u3000\u5f8c\u5fd7\u4e2d\u90e8\u8fb2\u696d\u958b\u767a\u4e8b\u696d\u6240","boring_xml_url":47,"boring_view_url":1,"soilmap_view_url":null,"soiltest_xml_url":0,"soiltest_view_url":0},{"id":488390,"code":"NGIC202105116-0003","latitude":"42.895236111111","longitude":"142.50321388889","source_code":"","project_name":"","survey_name":"\u4e00\u822c\u56fd\u9053274\u53f7\u65e5\u9ad8\u753a\u5343\u6804\u5317\u6cd5\u9762\u5730\u8cea\u8abf\u67fb\u5916\u4e00\u9023\u696d\u52d9","client_name":"\u56fd\u571f\u4ea4\u901a\u7701\u5317\u6d77\u9053\u958b\u767a\u5c40\u5ba4\u862d\u958b\u767a\u5efa\u8a2d\u90e8\u672c\u90e8","boring_xml_url":47,"boring_view_url":1,"soilmap_view_url":null,"soiltest_xml_url":0,"soiltest_view_url":0},{"id":488389,"code":"NGIC202105116-0002","latitude":"42.894986111111","longitude":"142.50343333333","source_code":"","project_name":"","survey_name":"\u4e00\u822c\u56fd\u9053274\u53f7\u65e5\u9ad8\u753a\u5343\u6804\u5317\u6cd5\u9762\u5730\u8cea\u8abf\u67fb\u5916\u4e00\u9023\u696d\u52d9","client_name":"\u56fd\u571f\u4ea4\u901a\u7701\u5317\u6d77\u9053\u958b\u767a\u5c40\u5ba4\u862d\u958b\u767a\u5efa\u8a2d\u90e8\u672c\u90e8","boring_xml_url":47,"boring_view_url":1,"soilmap_view_url":null,"soiltest_xml_url":0,"soiltest_view_url":0},{"id":488388,"code":"NGIC202105116-0001","latitude":"42.895169444444","longitude":"142.5035","source_code":"","project_name":"","survey_name":"\u4e00\u822c\u56fd\u9053274\u53f7\u65e5\u9ad8\u753a\u5343\u6804\u5317\u6cd5\u9762\u5730\u8cea\u8abf\u67fb\u5916\u4e00\u9023\u696d\u52d9","client_name":"\u56fd\u571f\u4ea4\u901a\u7701\u5317\u6d77\u9053\u958b\u767a\u5c40\u5ba4\u862d\u958b\u767a\u5efa\u8a2d\u90e8\u672c\u90e8","boring_xml_url":47,"boring_view_url":1,"soilmap_view_url":null,"soiltest_xml_url":0,"soiltest_view_url":0},{"id":488386,"code":"NGIC202105193-0003","latitude":"33.291016583333","longitude":"129.88672086111","source_code":"","project_name":"","survey_name":"\u4ee4\u548c3\u5e74\u5ea6\u4f50\u8cc0\u56fd\u9053\u6539\u7bc9\u4e8b\u696d\u5730\u3059\u3079\u308a\u5bfe\u7b56\u5de5\u691c\u8a0e\u696d\u52d9","client_name":"\u56fd\u571f\u4ea4\u901a\u7701\u4e5d\u5dde\u5730\u65b9\u6574\u5099\u5c40\u4f50\u8cc0\u56fd\u9053\u4e8b\u52d9\u6240","boring_xml_url":47,"boring_view_url":1,"soilmap_view_url":null,"soiltest_xml_url":0,"soiltest_view_url":0},{"id":488385,"code":"NGIC202105193-0002","latitude":"33.290389111111","longitude":"129.88735822222","source_code":"","project_name":"","survey_name":"\u4ee4\u548c3\u5e74\u5ea6\u4f50\u8cc0\u56fd\u9053\u6539\u7bc9\u4e8b\u696d\u5730\u3059\u3079\u308a\u5bfe\u7b56\u5de5\u691c\u8a0e\u696d\u52d9","client_name":"\u56fd\u571f\u4ea4\u901a\u7701\u4e5d\u5dde\u5730\u65b9\u6574\u5099\u5c40\u4f50\u8cc0\u56fd\u9053\u4e8b\u52d9\u6240","boring_xml_url":47,"boring_view_url":1,"soilmap_view_url":null,"soiltest_xml_url":0,"soiltest_view_url":0},{"id":488384,"code":"NGIC202105193-0001","latitude":"33.290206527778","longitude":"129.90291952778","source_code":"","project_name":"","survey_name":"\u4ee4\u548c3\u5e74\u5ea6\u4f50\u8cc0\u56fd\u9053\u6539\u7bc9\u4e8b\u696d\u5730\u3059\u3079\u308a\u5bfe\u7b56\u5de5\u691c\u8a0e\u696d\u52d9","client_name":"\u56fd\u571f\u4ea4\u901a\u7701\u4e5d\u5dde\u5730\u65b9\u6574\u5099\u5c40\u4f50\u8cc0\u56fd\u9053\u4e8b\u52d9\u6240","boring_xml_url":47,"boring_view_url":1,"soilmap_view_url":null,"soiltest_xml_url":0,"soiltest_view_url":0},{"id":488372,"code":"NGIC202105149-0017","latitude":"34.659333777778","longitude":"136.45842313889","source_code":"","project_name":"","survey_name":"\u4ee4\u548c3\u5e74\u5ea6\u96f2\u51fa\u5ddd\u5730\u8cea\u8abf\u67fb\u696d\u52d9","client_name":"\u56fd\u571f\u4ea4\u901a\u7701\u4e2d\u90e8\u5730\u65b9\u6574\u5099\u5c40\u4e09\u91cd\u6cb3\u5ddd\u56fd\u9053\u4e8b\u52d9\u6240\u5de5\u52d9\u7b2c\u4e00\u8ab2","boring_xml_url":47,"boring_view_url":1,"soilmap_view_url":null,"soiltest_xml_url":47,"soiltest_view_url":47},{"id":488371,"code":"NGIC202105149-0016","latitude":"34.659365722222","longitude":"136.45847727778","source_code":"","project_name":"","survey_name":"\u4ee4\u548c3\u5e74\u5ea6\u96f2\u51fa\u5ddd\u5730\u8cea\u8abf\u67fb\u696d\u52d9","client_name":"\u56fd\u571f\u4ea4\u901a\u7701\u4e2d\u90e8\u5730\u65b9\u6574\u5099\u5c40\u4e09\u91cd\u6cb3\u5ddd\u56fd\u9053\u4e8b\u52d9\u6240\u5de5\u52d9\u7b2c\u4e00\u8ab2","boring_xml_url":47,"boring_view_url":1,"soilmap_view_url":null,"soiltest_xml_url":47,"soiltest_view_url":47},{"id":488370,"code":"NGIC202105149-0015","latitude":"34.658021777778","longitude":"136.45978861111","source_code":"","project_name":"","survey_name":"\u4ee4\u548c3\u5e74\u5ea6\u96f2\u51fa\u5ddd\u5730\u8cea\u8abf\u67fb\u696d\u52d9","client_name":"\u56fd\u571f\u4ea4\u901a\u7701\u4e2d\u90e8\u5730\u65b9\u6574\u5099\u5c40\u4e09\u91cd\u6cb3\u5ddd\u56fd\u9053\u4e8b\u52d9\u6240\u5de5\u52d9\u7b2c\u4e00\u8ab2","boring_xml_url":47,"boring_view_url":1,"soilmap_view_url":null,"soiltest_xml_url":47,"soiltest_view_url":47},{"id":488369,"code":"NGIC202105149-0014","latitude":"34.658168638889","longitude":"136.45993911111","source_code":"","project_name":"","survey_name":"\u4ee4\u548c3\u5e74\u5ea6\u96f2\u51fa\u5ddd\u5730\u8cea\u8abf\u67fb\u696d\u52d9","client_name":"\u56fd\u571f\u4ea4\u901a\u7701\u4e2d\u90e8\u5730\u65b9\u6574\u5099\u5c40\u4e09\u91cd\u6cb3\u5ddd\u56fd\u9053\u4e8b\u52d9\u6240\u5de5\u52d9\u7b2c\u4e00\u8ab2","boring_xml_url":47,"boring_view_url":1,"soilmap_view_url":null,"soiltest_xml_url":47,"soiltest_view_url":47},{"id":488368,"code":"NGIC202105149-0013","latitude":"34.652914611111","longitude":"136.47430333333","source_code":"","project_name":"","survey_name":"\u4ee4\u548c3\u5e74\u5ea6\u96f2\u51fa\u5ddd\u5730\u8cea\u8abf\u67fb\u696d\u52d9","client_name":"\u56fd\u571f\u4ea4\u901a\u7701\u4e2d\u90e8\u5730\u65b9\u6574\u5099\u5c40\u4e09\u91cd\u6cb3\u5ddd\u56fd\u9053\u4e8b\u52d9\u6240\u5de5\u52d9\u7b2c\u4e00\u8ab2","boring_xml_url":47,"boring_view_url":1,"soilmap_view_url":null,"soiltest_xml_url":47,"soiltest_view_url":47},{"id":488367,"code":"NGIC202105149-0012","latitude":"34.652861638889","longitude":"136.4742","source_code":"","project_name":"","survey_name":"\u4ee4\u548c3\u5e74\u5ea6\u96f2\u51fa\u5ddd\u5730\u8cea\u8abf\u67fb\u696d\u52d9","client_name":"\u56fd\u571f\u4ea4\u901a\u7701\u4e2d\u90e8\u5730\u65b9\u6574\u5099\u5c40\u4e09\u91cd\u6cb3\u5ddd\u56fd\u9053\u4e8b\u52d9\u6240\u5de5\u52d9\u7b2c\u4e00\u8ab2","boring_xml_url":47,"boring_view_url":1,"soilmap_view_url":null,"soiltest_xml_url":47,"soiltest_view_url":47},{"id":488366,"code":"NGIC202105149-0011","latitude":"34.652807805556","longitude":"136.47409666667","source_code":"","project_name":"","survey_name":"\u4ee4\u548c3\u5e74\u5ea6\u96f2\u51fa\u5ddd\u5730\u8cea\u8abf\u67fb\u696d\u52d9","client_name":"\u56fd\u571f\u4ea4\u901a\u7701\u4e2d\u90e8\u5730\u65b9\u6574\u5099\u5c40\u4e09\u91cd\u6cb3\u5ddd\u56fd\u9053\u4e8b\u52d9\u6240\u5de5\u52d9\u7b2c\u4e00\u8ab2","boring_xml_url":47,"boring_view_url":1,"soilmap_view_url":null,"soiltest_xml_url":47,"soiltest_view_url":47},{"id":488365,"code":"NGIC202105149-0010","latitude":"34.648280611111","longitude":"136.47634166667","source_code":"","project_name":"","survey_name":"\u4ee4\u548c3\u5e74\u5ea6\u96f2\u51fa\u5ddd\u5730\u8cea\u8abf\u67fb\u696d\u52d9","client_name":"\u56fd\u571f\u4ea4\u901a\u7701\u4e2d\u90e8\u5730\u65b9\u6574\u5099\u5c40\u4e09\u91cd\u6cb3\u5ddd\u56fd\u9053\u4e8b\u52d9\u6240\u5de5\u52d9\u7b2c\u4e00\u8ab2","boring_xml_url":47,"boring_view_url":1,"soilmap_view_url":null,"soiltest_xml_url":47,"soiltest_view_url":47},{"id":488364,"code":"NGIC202105149-0009","latitude":"34.648404277778","longitude":"136.47662391667","source_code":"","project_name":"","survey_name":"\u4ee4\u548c3\u5e74\u5ea6\u96f2\u51fa\u5ddd\u5730\u8cea\u8abf\u67fb\u696d\u52d9","client_name":"\u56fd\u571f\u4ea4\u901a\u7701\u4e2d\u90e8\u5730\u65b9\u6574\u5099\u5c40\u4e09\u91cd\u6cb3\u5ddd\u56fd\u9053\u4e8b\u52d9\u6240\u5de5\u52d9\u7b2c\u4e00\u8ab2","boring_xml_url":47,"boring_view_url":1,"soilmap_view_url":null,"soiltest_xml_url":47,"soiltest_view_url":47},{"id":488363,"code":"NGIC202105149-0008","latitude":"34.666741583333","longitude":"136.45685886111","source_code":"","project_name":"","survey_name":"\u4ee4\u548c3\u5e74\u5ea6\u96f2\u51fa\u5ddd\u5730\u8cea\u8abf\u67fb\u696d\u52d9","client_name":"\u56fd\u571f\u4ea4\u901a\u7701\u4e2d\u90e8\u5730\u65b9\u6574\u5099\u5c40\u4e09\u91cd\u6cb3\u5ddd\u56fd\u9053\u4e8b\u52d9\u6240\u5de5\u52d9\u7b2c\u4e00\u8ab2","boring_xml_url":47,"boring_view_url":1,"soilmap_view_url":null,"soiltest_xml_url":47,"soiltest_view_url":47},{"id":488362,"code":"NGIC202105149-0007","latitude":"34.666497527778","longitude":"136.45657969444","source_code":"","project_name":"","survey_name":"\u4ee4\u548c3\u5e74\u5ea6\u96f2\u51fa\u5ddd\u5730\u8cea\u8abf\u67fb\u696d\u52d9","client_name":"\u56fd\u571f\u4ea4\u901a\u7701\u4e2d\u90e8\u5730\u65b9\u6574\u5099\u5c40\u4e09\u91cd\u6cb3\u5ddd\u56fd\u9053\u4e8b\u52d9\u6240\u5de5\u52d9\u7b2c\u4e00\u8ab2","boring_xml_url":47,"boring_view_url":1,"soilmap_view_url":null,"soiltest_xml_url":47,"soiltest_view_url":47},{"id":488361,"code":"NGIC202105149-0006","latitude":"34.66456775","longitude":"136.45933297222","source_code":"","project_name":"","survey_name":"\u4ee4\u548c3\u5e74\u5ea6\u96f2\u51fa\u5ddd\u5730\u8cea\u8abf\u67fb\u696d\u52d9","client_name":"\u56fd\u571f\u4ea4\u901a\u7701\u4e2d\u90e8\u5730\u65b9\u6574\u5099\u5c40\u4e09\u91cd\u6cb3\u5ddd\u56fd\u9053\u4e8b\u52d9\u6240\u5de5\u52d9\u7b2c\u4e00\u8ab2","boring_xml_url":47,"boring_view_url":1,"soilmap_view_url":null,"soiltest_xml_url":47,"soiltest_view_url":47},{"id":488360,"code":"NGIC202105149-0005","latitude":"34.664451611111","longitude":"136.45916944444","source_code":"","project_name":"","survey_name":"\u4ee4\u548c3\u5e74\u5ea6\u96f2\u51fa\u5ddd\u5730\u8cea\u8abf\u67fb\u696d\u52d9","client_name":"\u56fd\u571f\u4ea4\u901a\u7701\u4e2d\u90e8\u5730\u65b9\u6574\u5099\u5c40\u4e09\u91cd\u6cb3\u5ddd\u56fd\u9053\u4e8b\u52d9\u6240\u5de5\u52d9\u7b2c\u4e00\u8ab2","boring_xml_url":47,"boring_view_url":1,"soilmap_view_url":null,"soiltest_xml_url":47,"soiltest_view_url":47},{"id":488359,"code":"NGIC202105149-0004","latitude":"34.658142555556","longitude":"136.47600163889","source_code":"","project_name":"","survey_name":"\u4ee4\u548c3\u5e74\u5ea6\u96f2\u51fa\u5ddd\u5730\u8cea\u8abf\u67fb\u696d\u52d9","client_name":"\u56fd\u571f\u4ea4\u901a\u7701\u4e2d\u90e8\u5730\u65b9\u6574\u5099\u5c40\u4e09\u91cd\u6cb3\u5ddd\u56fd\u9053\u4e8b\u52d9\u6240\u5de5\u52d9\u7b2c\u4e00\u8ab2","boring_xml_url":47,"boring_view_url":1,"soilmap_view_url":null,"soiltest_xml_url":47,"soiltest_view_url":47},{"id":488358,"code":"NGIC202105149-0003","latitude":"34.657968444444","longitude":"136.47586522222","source_code":"","project_name":"","survey_name":"\u4ee4\u548c3\u5e74\u5ea6\u96f2\u51fa\u5ddd\u5730\u8cea\u8abf\u67fb\u696d\u52d9","client_name":"\u56fd\u571f\u4ea4\u901a\u7701\u4e2d\u90e8\u5730\u65b9\u6574\u5099\u5c40\u4e09\u91cd\u6cb3\u5ddd\u56fd\u9053\u4e8b\u52d9\u6240\u5de5\u52d9\u7b2c\u4e00\u8ab2","boring_xml_url":47,"boring_view_url":1,"soilmap_view_url":null,"soiltest_xml_url":47,"soiltest_view_url":47},{"id":488357,"code":"NGIC202105149-0002","latitude":"34.656351833333","longitude":"136.47666541667","source_code":"","project_name":"","survey_name":"\u4ee4\u548c3\u5e74\u5ea6\u96f2\u51fa\u5ddd\u5730\u8cea\u8abf\u67fb\u696d\u52d9","client_name":"\u56fd\u571f\u4ea4\u901a\u7701\u4e2d\u90e8\u5730\u65b9\u6574\u5099\u5c40\u4e09\u91cd\u6cb3\u5ddd\u56fd\u9053\u4e8b\u52d9\u6240\u5de5\u52d9\u7b2c\u4e00\u8ab2","boring_xml_url":47,"boring_view_url":1,"soilmap_view_url":null,"soiltest_xml_url":47,"soiltest_view_url":47},{"id":488356,"code":"NGIC202105149-0001","latitude":"34.656142388889","longitude":"136.47636491667","source_code":"","project_name":"","survey_name":"\u4ee4\u548c3\u5e74\u5ea6\u96f2\u51fa\u5ddd\u5730\u8cea\u8abf\u67fb\u696d\u52d9","client_name":"\u56fd\u571f\u4ea4\u901a\u7701\u4e2d\u90e8\u5730\u65b9\u6574\u5099\u5c40\u4e09\u91cd\u6cb3\u5ddd\u56fd\u9053\u4e8b\u52d9\u6240\u5de5\u52d9\u7b2c\u4e00\u8ab2","boring_xml_url":47,"boring_view_url":1,"soilmap_view_url":null,"soiltest_xml_url":47,"soiltest_view_url":47},{"id":488344,"code":"NGIC202105135-0007","latitude":"43.220444444444","longitude":"141.29325","source_code":"","project_name":"\u5c0f\u6a3d\u6e2f\u59161\u6e2f\u5730\u8cea\u8abf\u67fb\u696d\u52d9","survey_name":"\u5c0f\u6a3d\u6e2f\u59161\u6e2f\u5730\u8cea\u8abf\u67fb\u696d\u52d9","client_name":"\u56fd\u571f\u4ea4\u901a\u7701\u5317\u6d77\u9053\u958b\u767a\u5c40\u5c0f\u6a3d\u958b\u767a\u5efa\u8a2d\u90e8\u672c\u90e8","boring_xml_url":47,"boring_view_url":1,"soilmap_view_url":null,"soiltest_xml_url":47,"soiltest_view_url":47},{"id":488343,"code":"NGIC202105135-0006","latitude":"43.218277777778","longitude":"141.29486111111","source_code":"","project_name":"\u5c0f\u6a3d\u6e2f\u59161\u6e2f\u5730\u8cea\u8abf\u67fb\u696d\u52d9","survey_name":"\u5c0f\u6a3d\u6e2f\u59161\u6e2f\u5730\u8cea\u8abf\u67fb\u696d\u52d9","client_name":"\u56fd\u571f\u4ea4\u901a\u7701\u5317\u6d77\u9053\u958b\u767a\u5c40\u5c0f\u6a3d\u958b\u767a\u5efa\u8a2d\u90e8\u672c\u90e8","boring_xml_url":47,"boring_view_url":1,"soilmap_view_url":null,"soiltest_xml_url":47,"soiltest_view_url":47},{"id":488342,"code":"NGIC202105135-0005","latitude":"43.219416666667","longitude":"141.29197222222","source_code":"","project_name":"\u5c0f\u6a3d\u6e2f\u59161\u6e2f\u5730\u8cea\u8abf\u67fb\u696d\u52d9","survey_name":"\u5c0f\u6a3d\u6e2f\u59161\u6e2f\u5730\u8cea\u8abf\u67fb\u696d\u52d9","client_name":"\u56fd\u571f\u4ea4\u901a\u7701\u5317\u6d77\u9053\u958b\u767a\u5c40\u5c0f\u6a3d\u958b\u767a\u5efa\u8a2d\u90e8\u672c\u90e8","boring_xml_url":47,"boring_view_url":1,"soilmap_view_url":null,"soiltest_xml_url":47,"soiltest_view_url":47},{"id":488341,"code":"NGIC202105135-0004","latitude":"43.215777777778","longitude":"141.29175","source_code":"","project_name":"\u5c0f\u6a3d\u6e2f\u59161\u6e2f\u5730\u8cea\u8abf\u67fb\u696d\u52d9","survey_name":"\u5c0f\u6a3d\u6e2f\u59161\u6e2f\u5730\u8cea\u8abf\u67fb\u696d\u52d9","client_name":"\u56fd\u571f\u4ea4\u901a\u7701\u5317\u6d77\u9053\u958b\u767a\u5c40\u5c0f\u6a3d\u958b\u767a\u5efa\u8a2d\u90e8\u672c\u90e8","boring_xml_url":47,"boring_view_url":1,"soilmap_view_url":null,"soiltest_xml_url":47,"soiltest_view_url":47},{"id":488340,"code":"NGIC202105135-0003","latitude":"43.213527777778","longitude":"141.29452777778","source_code":"","project_name":"\u5c0f\u6a3d\u6e2f\u59161\u6e2f\u5730\u8cea\u8abf\u67fb\u696d\u52d9","survey_name":"\u5c0f\u6a3d\u6e2f\u59161\u6e2f\u5730\u8cea\u8abf\u67fb\u696d\u52d9","client_name":"\u56fd\u571f\u4ea4\u901a\u7701\u5317\u6d77\u9053\u958b\u767a\u5c40\u5c0f\u6a3d\u958b\u767a\u5efa\u8a2d\u90e8\u672c\u90e8","boring_xml_url":47,"boring_view_url":1,"soilmap_view_url":null,"soiltest_xml_url":47,"soiltest_view_url":47},{"id":488339,"code":"NGIC202105135-0002","latitude":"43.203344444444","longitude":"141.00768333333","source_code":"","project_name":"\u5c0f\u6a3d\u6e2f\u59161\u6e2f\u5730\u8cea\u8abf\u67fb\u696d\u52d9","survey_name":"\u5c0f\u6a3d\u6e2f\u59161\u6e2f\u5730\u8cea\u8abf\u67fb\u696d\u52d9","client_name":"\u56fd\u571f\u4ea4\u901a\u7701\u5317\u6d77\u9053\u958b\u767a\u5c40\u5c0f\u6a3d\u958b\u767a\u5efa\u8a2d\u90e8\u672c\u90e8","boring_xml_url":47,"boring_view_url":1,"soilmap_view_url":null,"soiltest_xml_url":47,"soiltest_view_url":47}]}}