{"header":{"xyz":{"source":[],"mosaic":false},"page":1711,"raw":{"soiltest_result":"0","bbox":"57.598333,109.544722,1.933333,163.806111","page":"1711"},"conditions":{"soiltest_result":0,"north":57.598333,"west":109.544722,"south":1.933333,"east":163.806111},"success":true,"message":""},"data":{"meta":{"total":212844,"page":1711,"pages":7095,"count":30},"values":[{"id":487009,"code":"NGIC202105000-0005","latitude":"36.281144444444","longitude":"139.90632777778","source_code":"","project_name":"R3\u4e0b\u9928\u7ba1\u5185\u5730\u8cea\u8abf\u67fb\u4ed6\u696d\u52d9","survey_name":"R3\u4e0b\u9928\u7ba1\u5185\u5730\u8cea\u8abf\u67fb\u4ed6\u696d\u52d9","client_name":"\u56fd\u571f\u4ea4\u901a\u7701\u95a2\u6771\u5730\u65b9\u6574\u5099\u5c40\u4e0b\u9928\u6cb3\u5ddd\u4e8b\u52d9\u6240","boring_xml_url":47,"boring_view_url":1,"soilmap_view_url":null,"soiltest_xml_url":0,"soiltest_view_url":0},{"id":487008,"code":"NGIC202105000-0004","latitude":"36.281063888889","longitude":"139.90659444444","source_code":"","project_name":"R3\u4e0b\u9928\u7ba1\u5185\u5730\u8cea\u8abf\u67fb\u4ed6\u696d\u52d9","survey_name":"R3\u4e0b\u9928\u7ba1\u5185\u5730\u8cea\u8abf\u67fb\u4ed6\u696d\u52d9","client_name":"\u56fd\u571f\u4ea4\u901a\u7701\u95a2\u6771\u5730\u65b9\u6574\u5099\u5c40\u4e0b\u9928\u6cb3\u5ddd\u4e8b\u52d9\u6240","boring_xml_url":47,"boring_view_url":1,"soilmap_view_url":null,"soiltest_xml_url":0,"soiltest_view_url":0},{"id":487007,"code":"NGIC202105000-0003","latitude":"36.281358333333","longitude":"139.90630555556","source_code":"","project_name":"R3\u4e0b\u9928\u7ba1\u5185\u5730\u8cea\u8abf\u67fb\u4ed6\u696d\u52d9","survey_name":"R3\u4e0b\u9928\u7ba1\u5185\u5730\u8cea\u8abf\u67fb\u4ed6\u696d\u52d9","client_name":"\u56fd\u571f\u4ea4\u901a\u7701\u95a2\u6771\u5730\u65b9\u6574\u5099\u5c40\u4e0b\u9928\u6cb3\u5ddd\u4e8b\u52d9\u6240","boring_xml_url":47,"boring_view_url":1,"soilmap_view_url":null,"soiltest_xml_url":0,"soiltest_view_url":0},{"id":487006,"code":"NGIC202105000-0002","latitude":"36.281166666667","longitude":"139.90623055556","source_code":"","project_name":"R3\u4e0b\u9928\u7ba1\u5185\u5730\u8cea\u8abf\u67fb\u4ed6\u696d\u52d9","survey_name":"R3\u4e0b\u9928\u7ba1\u5185\u5730\u8cea\u8abf\u67fb\u4ed6\u696d\u52d9","client_name":"\u56fd\u571f\u4ea4\u901a\u7701\u95a2\u6771\u5730\u65b9\u6574\u5099\u5c40\u4e0b\u9928\u6cb3\u5ddd\u4e8b\u52d9\u6240","boring_xml_url":47,"boring_view_url":1,"soilmap_view_url":null,"soiltest_xml_url":0,"soiltest_view_url":0},{"id":487005,"code":"NGIC202105000-0001","latitude":"36.280958333333","longitude":"139.906125","source_code":"","project_name":"R3\u4e0b\u9928\u7ba1\u5185\u5730\u8cea\u8abf\u67fb\u4ed6\u696d\u52d9","survey_name":"R3\u4e0b\u9928\u7ba1\u5185\u5730\u8cea\u8abf\u67fb\u4ed6\u696d\u52d9","client_name":"\u56fd\u571f\u4ea4\u901a\u7701\u95a2\u6771\u5730\u65b9\u6574\u5099\u5c40\u4e0b\u9928\u6cb3\u5ddd\u4e8b\u52d9\u6240","boring_xml_url":47,"boring_view_url":1,"soilmap_view_url":null,"soiltest_xml_url":0,"soiltest_view_url":0},{"id":486979,"code":"NGIC202105097-0024","latitude":"31.888249194444","longitude":"130.23060238889","source_code":"","project_name":"","survey_name":"\u4ee4\u548c2\u5e74\u5ea6\u963f\u4e45\u6839\u5ddd\u5185\u9053\u8def\u5730\u8cea\u8abf\u67fb\uff08\u305d\u306e1\uff09\u696d\u52d9","client_name":"\u56fd\u571f\u4ea4\u901a\u7701\u4e5d\u5dde\u5730\u65b9\u6574\u5099\u5c40\u9e7f\u5150\u5cf6\u56fd\u9053\u4e8b\u52d9\u6240","boring_xml_url":47,"boring_view_url":1,"soilmap_view_url":null,"soiltest_xml_url":47,"soiltest_view_url":47},{"id":486978,"code":"NGIC202105097-0023","latitude":"31.888766277778","longitude":"130.23066961111","source_code":"","project_name":"","survey_name":"\u4ee4\u548c2\u5e74\u5ea6\u963f\u4e45\u6839\u5ddd\u5185\u9053\u8def\u5730\u8cea\u8abf\u67fb\uff08\u305d\u306e1\uff09\u696d\u52d9","client_name":"\u56fd\u571f\u4ea4\u901a\u7701\u4e5d\u5dde\u5730\u65b9\u6574\u5099\u5c40\u9e7f\u5150\u5cf6\u56fd\u9053\u4e8b\u52d9\u6240","boring_xml_url":47,"boring_view_url":1,"soilmap_view_url":null,"soiltest_xml_url":47,"soiltest_view_url":47},{"id":486977,"code":"NGIC202105097-0022","latitude":"31.887164944444","longitude":"130.23076466667","source_code":"","project_name":"","survey_name":"\u4ee4\u548c2\u5e74\u5ea6\u963f\u4e45\u6839\u5ddd\u5185\u9053\u8def\u5730\u8cea\u8abf\u67fb\uff08\u305d\u306e1\uff09\u696d\u52d9","client_name":"\u56fd\u571f\u4ea4\u901a\u7701\u4e5d\u5dde\u5730\u65b9\u6574\u5099\u5c40\u9e7f\u5150\u5cf6\u56fd\u9053\u4e8b\u52d9\u6240","boring_xml_url":47,"boring_view_url":1,"soilmap_view_url":null,"soiltest_xml_url":47,"soiltest_view_url":47},{"id":486976,"code":"NGIC202105097-0021","latitude":"31.887274833333","longitude":"130.23090994444","source_code":"","project_name":"","survey_name":"\u4ee4\u548c2\u5e74\u5ea6\u963f\u4e45\u6839\u5ddd\u5185\u9053\u8def\u5730\u8cea\u8abf\u67fb\uff08\u305d\u306e1\uff09\u696d\u52d9","client_name":"\u56fd\u571f\u4ea4\u901a\u7701\u4e5d\u5dde\u5730\u65b9\u6574\u5099\u5c40\u9e7f\u5150\u5cf6\u56fd\u9053\u4e8b\u52d9\u6240","boring_xml_url":47,"boring_view_url":1,"soilmap_view_url":null,"soiltest_xml_url":47,"soiltest_view_url":47},{"id":486975,"code":"NGIC202105097-0020","latitude":"31.8880615","longitude":"130.23042827778","source_code":"","project_name":"","survey_name":"\u4ee4\u548c2\u5e74\u5ea6\u963f\u4e45\u6839\u5ddd\u5185\u9053\u8def\u5730\u8cea\u8abf\u67fb\uff08\u305d\u306e1\uff09\u696d\u52d9","client_name":"\u56fd\u571f\u4ea4\u901a\u7701\u4e5d\u5dde\u5730\u65b9\u6574\u5099\u5c40\u9e7f\u5150\u5cf6\u56fd\u9053\u4e8b\u52d9\u6240","boring_xml_url":47,"boring_view_url":1,"soilmap_view_url":null,"soiltest_xml_url":47,"soiltest_view_url":47},{"id":486974,"code":"NGIC202105097-0019","latitude":"31.888007083333","longitude":"130.23087880556","source_code":"","project_name":"","survey_name":"\u4ee4\u548c2\u5e74\u5ea6\u963f\u4e45\u6839\u5ddd\u5185\u9053\u8def\u5730\u8cea\u8abf\u67fb\uff08\u305d\u306e1\uff09\u696d\u52d9","client_name":"\u56fd\u571f\u4ea4\u901a\u7701\u4e5d\u5dde\u5730\u65b9\u6574\u5099\u5c40\u9e7f\u5150\u5cf6\u56fd\u9053\u4e8b\u52d9\u6240","boring_xml_url":47,"boring_view_url":1,"soilmap_view_url":null,"soiltest_xml_url":47,"soiltest_view_url":47},{"id":486973,"code":"NGIC202105097-0018","latitude":"31.884456333333","longitude":"130.230725","source_code":"","project_name":"","survey_name":"\u4ee4\u548c2\u5e74\u5ea6\u963f\u4e45\u6839\u5ddd\u5185\u9053\u8def\u5730\u8cea\u8abf\u67fb\uff08\u305d\u306e1\uff09\u696d\u52d9","client_name":"\u56fd\u571f\u4ea4\u901a\u7701\u4e5d\u5dde\u5730\u65b9\u6574\u5099\u5c40\u9e7f\u5150\u5cf6\u56fd\u9053\u4e8b\u52d9\u6240","boring_xml_url":47,"boring_view_url":1,"soilmap_view_url":null,"soiltest_xml_url":0,"soiltest_view_url":0},{"id":486972,"code":"NGIC202105097-0017","latitude":"31.88778625","longitude":"130.23020675","source_code":"","project_name":"","survey_name":"\u4ee4\u548c2\u5e74\u5ea6\u963f\u4e45\u6839\u5ddd\u5185\u9053\u8def\u5730\u8cea\u8abf\u67fb\uff08\u305d\u306e1\uff09\u696d\u52d9","client_name":"\u56fd\u571f\u4ea4\u901a\u7701\u4e5d\u5dde\u5730\u65b9\u6574\u5099\u5c40\u9e7f\u5150\u5cf6\u56fd\u9053\u4e8b\u52d9\u6240","boring_xml_url":47,"boring_view_url":1,"soilmap_view_url":null,"soiltest_xml_url":47,"soiltest_view_url":47},{"id":486971,"code":"NGIC202105097-0016","latitude":"31.887996722222","longitude":"130.23026369444","source_code":"","project_name":"","survey_name":"\u4ee4\u548c2\u5e74\u5ea6\u963f\u4e45\u6839\u5ddd\u5185\u9053\u8def\u5730\u8cea\u8abf\u67fb\uff08\u305d\u306e1\uff09\u696d\u52d9","client_name":"\u56fd\u571f\u4ea4\u901a\u7701\u4e5d\u5dde\u5730\u65b9\u6574\u5099\u5c40\u9e7f\u5150\u5cf6\u56fd\u9053\u4e8b\u52d9\u6240","boring_xml_url":47,"boring_view_url":1,"soilmap_view_url":null,"soiltest_xml_url":47,"soiltest_view_url":47},{"id":486970,"code":"NGIC202105097-0015","latitude":"31.887603527778","longitude":"130.23034641667","source_code":"","project_name":"","survey_name":"\u4ee4\u548c2\u5e74\u5ea6\u963f\u4e45\u6839\u5ddd\u5185\u9053\u8def\u5730\u8cea\u8abf\u67fb\uff08\u305d\u306e1\uff09\u696d\u52d9","client_name":"\u56fd\u571f\u4ea4\u901a\u7701\u4e5d\u5dde\u5730\u65b9\u6574\u5099\u5c40\u9e7f\u5150\u5cf6\u56fd\u9053\u4e8b\u52d9\u6240","boring_xml_url":47,"boring_view_url":1,"soilmap_view_url":null,"soiltest_xml_url":47,"soiltest_view_url":47},{"id":486969,"code":"NGIC202105097-0014","latitude":"31.887960638889","longitude":"130.23046036111","source_code":"","project_name":"","survey_name":"\u4ee4\u548c2\u5e74\u5ea6\u963f\u4e45\u6839\u5ddd\u5185\u9053\u8def\u5730\u8cea\u8abf\u67fb\uff08\u305d\u306e1\uff09\u696d\u52d9","client_name":"\u56fd\u571f\u4ea4\u901a\u7701\u4e5d\u5dde\u5730\u65b9\u6574\u5099\u5c40\u9e7f\u5150\u5cf6\u56fd\u9053\u4e8b\u52d9\u6240","boring_xml_url":47,"boring_view_url":1,"soilmap_view_url":null,"soiltest_xml_url":47,"soiltest_view_url":47},{"id":486968,"code":"NGIC202105097-0013","latitude":"32.010292638889","longitude":"130.21157933333","source_code":"","project_name":"","survey_name":"\u4ee4\u548c2\u5e74\u5ea6\u963f\u4e45\u6839\u5ddd\u5185\u9053\u8def\u5730\u8cea\u8abf\u67fb\uff08\u305d\u306e1\uff09\u696d\u52d9","client_name":"\u56fd\u571f\u4ea4\u901a\u7701\u4e5d\u5dde\u5730\u65b9\u6574\u5099\u5c40\u9e7f\u5150\u5cf6\u56fd\u9053\u4e8b\u52d9\u6240","boring_xml_url":47,"boring_view_url":1,"soilmap_view_url":null,"soiltest_xml_url":0,"soiltest_view_url":0},{"id":486967,"code":"NGIC202105097-0012","latitude":"32.010760527778","longitude":"130.21219386111","source_code":"","project_name":"","survey_name":"\u4ee4\u548c2\u5e74\u5ea6\u963f\u4e45\u6839\u5ddd\u5185\u9053\u8def\u5730\u8cea\u8abf\u67fb\uff08\u305d\u306e1\uff09\u696d\u52d9","client_name":"\u56fd\u571f\u4ea4\u901a\u7701\u4e5d\u5dde\u5730\u65b9\u6574\u5099\u5c40\u9e7f\u5150\u5cf6\u56fd\u9053\u4e8b\u52d9\u6240","boring_xml_url":47,"boring_view_url":1,"soilmap_view_url":null,"soiltest_xml_url":0,"soiltest_view_url":0},{"id":486966,"code":"NGIC202105097-0011","latitude":"31.884495361111","longitude":"130.23152058333","source_code":"","project_name":"","survey_name":"\u4ee4\u548c2\u5e74\u5ea6\u963f\u4e45\u6839\u5ddd\u5185\u9053\u8def\u5730\u8cea\u8abf\u67fb\uff08\u305d\u306e1\uff09\u696d\u52d9","client_name":"\u56fd\u571f\u4ea4\u901a\u7701\u4e5d\u5dde\u5730\u65b9\u6574\u5099\u5c40\u9e7f\u5150\u5cf6\u56fd\u9053\u4e8b\u52d9\u6240","boring_xml_url":47,"boring_view_url":1,"soilmap_view_url":null,"soiltest_xml_url":0,"soiltest_view_url":0},{"id":486965,"code":"NGIC202105097-0010","latitude":"31.884745638889","longitude":"130.23119730556","source_code":"","project_name":"","survey_name":"\u4ee4\u548c2\u5e74\u5ea6\u963f\u4e45\u6839\u5ddd\u5185\u9053\u8def\u5730\u8cea\u8abf\u67fb\uff08\u305d\u306e1\uff09\u696d\u52d9","client_name":"\u56fd\u571f\u4ea4\u901a\u7701\u4e5d\u5dde\u5730\u65b9\u6574\u5099\u5c40\u9e7f\u5150\u5cf6\u56fd\u9053\u4e8b\u52d9\u6240","boring_xml_url":47,"boring_view_url":1,"soilmap_view_url":null,"soiltest_xml_url":47,"soiltest_view_url":47},{"id":486964,"code":"NGIC202105097-0009","latitude":"31.884897111111","longitude":"130.23098308333","source_code":"","project_name":"","survey_name":"\u4ee4\u548c2\u5e74\u5ea6\u963f\u4e45\u6839\u5ddd\u5185\u9053\u8def\u5730\u8cea\u8abf\u67fb\uff08\u305d\u306e1\uff09\u696d\u52d9","client_name":"\u56fd\u571f\u4ea4\u901a\u7701\u4e5d\u5dde\u5730\u65b9\u6574\u5099\u5c40\u9e7f\u5150\u5cf6\u56fd\u9053\u4e8b\u52d9\u6240","boring_xml_url":47,"boring_view_url":1,"soilmap_view_url":null,"soiltest_xml_url":47,"soiltest_view_url":47},{"id":486963,"code":"NGIC202105097-0008","latitude":"31.885244472222","longitude":"130.2309195","source_code":"","project_name":"","survey_name":"\u4ee4\u548c2\u5e74\u5ea6\u963f\u4e45\u6839\u5ddd\u5185\u9053\u8def\u5730\u8cea\u8abf\u67fb\uff08\u305d\u306e1\uff09\u696d\u52d9","client_name":"\u56fd\u571f\u4ea4\u901a\u7701\u4e5d\u5dde\u5730\u65b9\u6574\u5099\u5c40\u9e7f\u5150\u5cf6\u56fd\u9053\u4e8b\u52d9\u6240","boring_xml_url":47,"boring_view_url":1,"soilmap_view_url":null,"soiltest_xml_url":47,"soiltest_view_url":47},{"id":486962,"code":"NGIC202105097-0007","latitude":"31.885088805556","longitude":"130.23115844444","source_code":"","project_name":"","survey_name":"\u4ee4\u548c2\u5e74\u5ea6\u963f\u4e45\u6839\u5ddd\u5185\u9053\u8def\u5730\u8cea\u8abf\u67fb\uff08\u305d\u306e1\uff09\u696d\u52d9","client_name":"\u56fd\u571f\u4ea4\u901a\u7701\u4e5d\u5dde\u5730\u65b9\u6574\u5099\u5c40\u9e7f\u5150\u5cf6\u56fd\u9053\u4e8b\u52d9\u6240","boring_xml_url":47,"boring_view_url":1,"soilmap_view_url":null,"soiltest_xml_url":47,"soiltest_view_url":47},{"id":486961,"code":"NGIC202105097-0006","latitude":"31.887579","longitude":"130.22988933333","source_code":"","project_name":"","survey_name":"\u4ee4\u548c2\u5e74\u5ea6\u963f\u4e45\u6839\u5ddd\u5185\u9053\u8def\u5730\u8cea\u8abf\u67fb\uff08\u305d\u306e1\uff09\u696d\u52d9","client_name":"\u56fd\u571f\u4ea4\u901a\u7701\u4e5d\u5dde\u5730\u65b9\u6574\u5099\u5c40\u9e7f\u5150\u5cf6\u56fd\u9053\u4e8b\u52d9\u6240","boring_xml_url":47,"boring_view_url":1,"soilmap_view_url":null,"soiltest_xml_url":47,"soiltest_view_url":47},{"id":486960,"code":"NGIC202105097-0005","latitude":"31.997040972222","longitude":"130.20097613889","source_code":"","project_name":"","survey_name":"\u4ee4\u548c2\u5e74\u5ea6\u963f\u4e45\u6839\u5ddd\u5185\u9053\u8def\u5730\u8cea\u8abf\u67fb\uff08\u305d\u306e1\uff09\u696d\u52d9","client_name":"\u56fd\u571f\u4ea4\u901a\u7701\u4e5d\u5dde\u5730\u65b9\u6574\u5099\u5c40\u9e7f\u5150\u5cf6\u56fd\u9053\u4e8b\u52d9\u6240","boring_xml_url":47,"boring_view_url":1,"soilmap_view_url":null,"soiltest_xml_url":0,"soiltest_view_url":0},{"id":486959,"code":"NGIC202105097-0004","latitude":"31.99701325","longitude":"130.20073491667","source_code":"","project_name":"","survey_name":"\u4ee4\u548c2\u5e74\u5ea6\u963f\u4e45\u6839\u5ddd\u5185\u9053\u8def\u5730\u8cea\u8abf\u67fb\uff08\u305d\u306e1\uff09\u696d\u52d9","client_name":"\u56fd\u571f\u4ea4\u901a\u7701\u4e5d\u5dde\u5730\u65b9\u6574\u5099\u5c40\u9e7f\u5150\u5cf6\u56fd\u9053\u4e8b\u52d9\u6240","boring_xml_url":47,"boring_view_url":1,"soilmap_view_url":null,"soiltest_xml_url":0,"soiltest_view_url":0},{"id":486958,"code":"NGIC202105097-0003","latitude":"31.998439305556","longitude":"130.20083441667","source_code":"","project_name":"","survey_name":"\u4ee4\u548c2\u5e74\u5ea6\u963f\u4e45\u6839\u5ddd\u5185\u9053\u8def\u5730\u8cea\u8abf\u67fb\uff08\u305d\u306e1\uff09\u696d\u52d9","client_name":"\u56fd\u571f\u4ea4\u901a\u7701\u4e5d\u5dde\u5730\u65b9\u6574\u5099\u5c40\u9e7f\u5150\u5cf6\u56fd\u9053\u4e8b\u52d9\u6240","boring_xml_url":47,"boring_view_url":1,"soilmap_view_url":null,"soiltest_xml_url":0,"soiltest_view_url":0},{"id":486957,"code":"NGIC202105097-0002","latitude":"31.998432444444","longitude":"130.20059113889","source_code":"","project_name":"","survey_name":"\u4ee4\u548c2\u5e74\u5ea6\u963f\u4e45\u6839\u5ddd\u5185\u9053\u8def\u5730\u8cea\u8abf\u67fb\uff08\u305d\u306e1\uff09\u696d\u52d9","client_name":"\u56fd\u571f\u4ea4\u901a\u7701\u4e5d\u5dde\u5730\u65b9\u6574\u5099\u5c40\u9e7f\u5150\u5cf6\u56fd\u9053\u4e8b\u52d9\u6240","boring_xml_url":47,"boring_view_url":1,"soilmap_view_url":null,"soiltest_xml_url":0,"soiltest_view_url":0},{"id":486956,"code":"NGIC202105097-0001","latitude":"31.998886527778","longitude":"130.20046180556","source_code":"","project_name":"","survey_name":"\u4ee4\u548c2\u5e74\u5ea6\u963f\u4e45\u6839\u5ddd\u5185\u9053\u8def\u5730\u8cea\u8abf\u67fb\uff08\u305d\u306e1\uff09\u696d\u52d9","client_name":"\u56fd\u571f\u4ea4\u901a\u7701\u4e5d\u5dde\u5730\u65b9\u6574\u5099\u5c40\u9e7f\u5150\u5cf6\u56fd\u9053\u4e8b\u52d9\u6240","boring_xml_url":47,"boring_view_url":1,"soilmap_view_url":null,"soiltest_xml_url":0,"soiltest_view_url":0},{"id":486931,"code":"NGIC202104951-0051","latitude":"33.524935638889","longitude":"130.17318558333","source_code":"","project_name":"\u4ee4\u548c2\u5e74\u5ea6\u6771\u2212\u677e\u56fd\u9ad8\u67b6\u6a4b(\u677e\u56fd\u5730\u533a)\u5730\u8cea\u8abf\u67fb\u696d\u52d9","survey_name":"\u4ee4\u548c2\u5e74\u5ea6\u6771\u2212\u677e\u56fd\u9ad8\u67b6\u6a4b(\u677e\u56fd\u5730\u533a)\u5730\u8cea\u8abf\u67fb\u696d\u52d9","client_name":"\u56fd\u571f\u4ea4\u901a\u7701\u4e5d\u5dde\u5730\u65b9\u6574\u5099\u5c40\u798f\u5ca1\u56fd\u9053\u4e8b\u52d9\u6240","boring_xml_url":47,"boring_view_url":1,"soilmap_view_url":null,"soiltest_xml_url":47,"soiltest_view_url":47}]}}