{"header":{"xyz":{"source":[],"mosaic":false},"page":1713,"raw":{"soiltest_result":"0","bbox":"57.598333,109.544722,1.933333,163.806111","page":"1713"},"conditions":{"soiltest_result":0,"north":57.598333,"west":109.544722,"south":1.933333,"east":163.806111},"success":true,"message":""},"data":{"meta":{"total":212844,"page":1713,"pages":7095,"count":30},"values":[{"id":486900,"code":"NGIC202104951-0020","latitude":"33.5266335","longitude":"130.17557986111","source_code":"","project_name":"\u4ee4\u548c2\u5e74\u5ea6\u6771\u2212\u677e\u56fd\u9ad8\u67b6\u6a4b(\u677e\u56fd\u5730\u533a)\u5730\u8cea\u8abf\u67fb\u696d\u52d9","survey_name":"\u4ee4\u548c2\u5e74\u5ea6\u6771\u2212\u677e\u56fd\u9ad8\u67b6\u6a4b(\u677e\u56fd\u5730\u533a)\u5730\u8cea\u8abf\u67fb\u696d\u52d9","client_name":"\u56fd\u571f\u4ea4\u901a\u7701\u4e5d\u5dde\u5730\u65b9\u6574\u5099\u5c40\u798f\u5ca1\u56fd\u9053\u4e8b\u52d9\u6240","boring_xml_url":47,"boring_view_url":1,"soilmap_view_url":null,"soiltest_xml_url":47,"soiltest_view_url":47},{"id":486899,"code":"NGIC202104951-0019","latitude":"33.526778944444","longitude":"130.17598638889","source_code":"","project_name":"\u4ee4\u548c2\u5e74\u5ea6\u6771\u2212\u677e\u56fd\u9ad8\u67b6\u6a4b(\u677e\u56fd\u5730\u533a)\u5730\u8cea\u8abf\u67fb\u696d\u52d9","survey_name":"\u4ee4\u548c2\u5e74\u5ea6\u6771\u2212\u677e\u56fd\u9ad8\u67b6\u6a4b(\u677e\u56fd\u5730\u533a)\u5730\u8cea\u8abf\u67fb\u696d\u52d9","client_name":"\u56fd\u571f\u4ea4\u901a\u7701\u4e5d\u5dde\u5730\u65b9\u6574\u5099\u5c40\u798f\u5ca1\u56fd\u9053\u4e8b\u52d9\u6240","boring_xml_url":47,"boring_view_url":1,"soilmap_view_url":null,"soiltest_xml_url":0,"soiltest_view_url":0},{"id":486898,"code":"NGIC202104951-0018","latitude":"33.523884638889","longitude":"130.17099061111","source_code":"","project_name":"\u4ee4\u548c2\u5e74\u5ea6\u6771\u2212\u677e\u56fd\u9ad8\u67b6\u6a4b(\u677e\u56fd\u5730\u533a)\u5730\u8cea\u8abf\u67fb\u696d\u52d9","survey_name":"\u4ee4\u548c2\u5e74\u5ea6\u6771\u2212\u677e\u56fd\u9ad8\u67b6\u6a4b(\u677e\u56fd\u5730\u533a)\u5730\u8cea\u8abf\u67fb\u696d\u52d9","client_name":"\u56fd\u571f\u4ea4\u901a\u7701\u4e5d\u5dde\u5730\u65b9\u6574\u5099\u5c40\u798f\u5ca1\u56fd\u9053\u4e8b\u52d9\u6240","boring_xml_url":47,"boring_view_url":1,"soilmap_view_url":null,"soiltest_xml_url":0,"soiltest_view_url":0},{"id":486897,"code":"NGIC202104951-0017","latitude":"33.524004805556","longitude":"130.17122483333","source_code":"","project_name":"\u4ee4\u548c2\u5e74\u5ea6\u6771\u2212\u677e\u56fd\u9ad8\u67b6\u6a4b(\u677e\u56fd\u5730\u533a)\u5730\u8cea\u8abf\u67fb\u696d\u52d9","survey_name":"\u4ee4\u548c2\u5e74\u5ea6\u6771\u2212\u677e\u56fd\u9ad8\u67b6\u6a4b(\u677e\u56fd\u5730\u533a)\u5730\u8cea\u8abf\u67fb\u696d\u52d9","client_name":"\u56fd\u571f\u4ea4\u901a\u7701\u4e5d\u5dde\u5730\u65b9\u6574\u5099\u5c40\u798f\u5ca1\u56fd\u9053\u4e8b\u52d9\u6240","boring_xml_url":47,"boring_view_url":1,"soilmap_view_url":null,"soiltest_xml_url":0,"soiltest_view_url":0},{"id":486896,"code":"NGIC202104951-0016","latitude":"33.524105305556","longitude":"130.17143883333","source_code":"","project_name":"\u4ee4\u548c2\u5e74\u5ea6\u6771\u2212\u677e\u56fd\u9ad8\u67b6\u6a4b(\u677e\u56fd\u5730\u533a)\u5730\u8cea\u8abf\u67fb\u696d\u52d9","survey_name":"\u4ee4\u548c2\u5e74\u5ea6\u6771\u2212\u677e\u56fd\u9ad8\u67b6\u6a4b(\u677e\u56fd\u5730\u533a)\u5730\u8cea\u8abf\u67fb\u696d\u52d9","client_name":"\u56fd\u571f\u4ea4\u901a\u7701\u4e5d\u5dde\u5730\u65b9\u6574\u5099\u5c40\u798f\u5ca1\u56fd\u9053\u4e8b\u52d9\u6240","boring_xml_url":47,"boring_view_url":1,"soilmap_view_url":null,"soiltest_xml_url":47,"soiltest_view_url":47},{"id":486895,"code":"NGIC202104951-0015","latitude":"33.524220166667","longitude":"130.17169705556","source_code":"","project_name":"\u4ee4\u548c2\u5e74\u5ea6\u6771\u2212\u677e\u56fd\u9ad8\u67b6\u6a4b(\u677e\u56fd\u5730\u533a)\u5730\u8cea\u8abf\u67fb\u696d\u52d9","survey_name":"\u4ee4\u548c2\u5e74\u5ea6\u6771\u2212\u677e\u56fd\u9ad8\u67b6\u6a4b(\u677e\u56fd\u5730\u533a)\u5730\u8cea\u8abf\u67fb\u696d\u52d9","client_name":"\u56fd\u571f\u4ea4\u901a\u7701\u4e5d\u5dde\u5730\u65b9\u6574\u5099\u5c40\u798f\u5ca1\u56fd\u9053\u4e8b\u52d9\u6240","boring_xml_url":47,"boring_view_url":1,"soilmap_view_url":null,"soiltest_xml_url":0,"soiltest_view_url":0},{"id":486894,"code":"NGIC202104951-0014","latitude":"33.524319527778","longitude":"130.17194080556","source_code":"","project_name":"\u4ee4\u548c2\u5e74\u5ea6\u6771\u2212\u677e\u56fd\u9ad8\u67b6\u6a4b(\u677e\u56fd\u5730\u533a)\u5730\u8cea\u8abf\u67fb\u696d\u52d9","survey_name":"\u4ee4\u548c2\u5e74\u5ea6\u6771\u2212\u677e\u56fd\u9ad8\u67b6\u6a4b(\u677e\u56fd\u5730\u533a)\u5730\u8cea\u8abf\u67fb\u696d\u52d9","client_name":"\u56fd\u571f\u4ea4\u901a\u7701\u4e5d\u5dde\u5730\u65b9\u6574\u5099\u5c40\u798f\u5ca1\u56fd\u9053\u4e8b\u52d9\u6240","boring_xml_url":47,"boring_view_url":1,"soilmap_view_url":null,"soiltest_xml_url":47,"soiltest_view_url":47},{"id":486893,"code":"NGIC202104951-0013","latitude":"33.524439666667","longitude":"130.17214177778","source_code":"","project_name":"\u4ee4\u548c2\u5e74\u5ea6\u6771\u2212\u677e\u56fd\u9ad8\u67b6\u6a4b(\u677e\u56fd\u5730\u533a)\u5730\u8cea\u8abf\u67fb\u696d\u52d9","survey_name":"\u4ee4\u548c2\u5e74\u5ea6\u6771\u2212\u677e\u56fd\u9ad8\u67b6\u6a4b(\u677e\u56fd\u5730\u533a)\u5730\u8cea\u8abf\u67fb\u696d\u52d9","client_name":"\u56fd\u571f\u4ea4\u901a\u7701\u4e5d\u5dde\u5730\u65b9\u6574\u5099\u5c40\u798f\u5ca1\u56fd\u9053\u4e8b\u52d9\u6240","boring_xml_url":47,"boring_view_url":1,"soilmap_view_url":null,"soiltest_xml_url":0,"soiltest_view_url":0},{"id":486892,"code":"NGIC202104951-0012","latitude":"33.524447138889","longitude":"130.17277677778","source_code":"","project_name":"\u4ee4\u548c2\u5e74\u5ea6\u6771\u2212\u677e\u56fd\u9ad8\u67b6\u6a4b(\u677e\u56fd\u5730\u533a)\u5730\u8cea\u8abf\u67fb\u696d\u52d9","survey_name":"\u4ee4\u548c2\u5e74\u5ea6\u6771\u2212\u677e\u56fd\u9ad8\u67b6\u6a4b(\u677e\u56fd\u5730\u533a)\u5730\u8cea\u8abf\u67fb\u696d\u52d9","client_name":"\u56fd\u571f\u4ea4\u901a\u7701\u4e5d\u5dde\u5730\u65b9\u6574\u5099\u5c40\u798f\u5ca1\u56fd\u9053\u4e8b\u52d9\u6240","boring_xml_url":47,"boring_view_url":1,"soilmap_view_url":null,"soiltest_xml_url":47,"soiltest_view_url":47},{"id":486891,"code":"NGIC202104951-0011","latitude":"33.524763944444","longitude":"130.17287027778","source_code":"","project_name":"\u4ee4\u548c2\u5e74\u5ea6\u6771\u2212\u677e\u56fd\u9ad8\u67b6\u6a4b(\u677e\u56fd\u5730\u533a)\u5730\u8cea\u8abf\u67fb\u696d\u52d9","survey_name":"\u4ee4\u548c2\u5e74\u5ea6\u6771\u2212\u677e\u56fd\u9ad8\u67b6\u6a4b(\u677e\u56fd\u5730\u533a)\u5730\u8cea\u8abf\u67fb\u696d\u52d9","client_name":"\u56fd\u571f\u4ea4\u901a\u7701\u4e5d\u5dde\u5730\u65b9\u6574\u5099\u5c40\u798f\u5ca1\u56fd\u9053\u4e8b\u52d9\u6240","boring_xml_url":47,"boring_view_url":1,"soilmap_view_url":null,"soiltest_xml_url":47,"soiltest_view_url":47},{"id":486890,"code":"NGIC202104951-0010","latitude":"33.524737166667","longitude":"130.17336913889","source_code":"","project_name":"\u4ee4\u548c2\u5e74\u5ea6\u6771\u2212\u677e\u56fd\u9ad8\u67b6\u6a4b(\u677e\u56fd\u5730\u533a)\u5730\u8cea\u8abf\u67fb\u696d\u52d9","survey_name":"\u4ee4\u548c2\u5e74\u5ea6\u6771\u2212\u677e\u56fd\u9ad8\u67b6\u6a4b(\u677e\u56fd\u5730\u533a)\u5730\u8cea\u8abf\u67fb\u696d\u52d9","client_name":"\u56fd\u571f\u4ea4\u901a\u7701\u4e5d\u5dde\u5730\u65b9\u6574\u5099\u5c40\u798f\u5ca1\u56fd\u9053\u4e8b\u52d9\u6240","boring_xml_url":47,"boring_view_url":1,"soilmap_view_url":null,"soiltest_xml_url":47,"soiltest_view_url":47},{"id":486889,"code":"NGIC202104951-0009","latitude":"33.525077388889","longitude":"130.17382088889","source_code":"","project_name":"\u4ee4\u548c2\u5e74\u5ea6\u6771\u2212\u677e\u56fd\u9ad8\u67b6\u6a4b(\u677e\u56fd\u5730\u533a)\u5730\u8cea\u8abf\u67fb\u696d\u52d9","survey_name":"\u4ee4\u548c2\u5e74\u5ea6\u6771\u2212\u677e\u56fd\u9ad8\u67b6\u6a4b(\u677e\u56fd\u5730\u533a)\u5730\u8cea\u8abf\u67fb\u696d\u52d9","client_name":"\u56fd\u571f\u4ea4\u901a\u7701\u4e5d\u5dde\u5730\u65b9\u6574\u5099\u5c40\u798f\u5ca1\u56fd\u9053\u4e8b\u52d9\u6240","boring_xml_url":47,"boring_view_url":1,"soilmap_view_url":null,"soiltest_xml_url":47,"soiltest_view_url":47},{"id":486888,"code":"NGIC202104951-0008","latitude":"33.525527833333","longitude":"130.17400597222","source_code":"","project_name":"\u4ee4\u548c2\u5e74\u5ea6\u6771\u2212\u677e\u56fd\u9ad8\u67b6\u6a4b(\u677e\u56fd\u5730\u533a)\u5730\u8cea\u8abf\u67fb\u696d\u52d9","survey_name":"\u4ee4\u548c2\u5e74\u5ea6\u6771\u2212\u677e\u56fd\u9ad8\u67b6\u6a4b(\u677e\u56fd\u5730\u533a)\u5730\u8cea\u8abf\u67fb\u696d\u52d9","client_name":"\u56fd\u571f\u4ea4\u901a\u7701\u4e5d\u5dde\u5730\u65b9\u6574\u5099\u5c40\u798f\u5ca1\u56fd\u9053\u4e8b\u52d9\u6240","boring_xml_url":47,"boring_view_url":1,"soilmap_view_url":null,"soiltest_xml_url":47,"soiltest_view_url":47},{"id":486887,"code":"NGIC202104951-0007","latitude":"33.525477277778","longitude":"130.17439797222","source_code":"","project_name":"\u4ee4\u548c2\u5e74\u5ea6\u6771\u2212\u677e\u56fd\u9ad8\u67b6\u6a4b(\u677e\u56fd\u5730\u533a)\u5730\u8cea\u8abf\u67fb\u696d\u52d9","survey_name":"\u4ee4\u548c2\u5e74\u5ea6\u6771\u2212\u677e\u56fd\u9ad8\u67b6\u6a4b(\u677e\u56fd\u5730\u533a)\u5730\u8cea\u8abf\u67fb\u696d\u52d9","client_name":"\u56fd\u571f\u4ea4\u901a\u7701\u4e5d\u5dde\u5730\u65b9\u6574\u5099\u5c40\u798f\u5ca1\u56fd\u9053\u4e8b\u52d9\u6240","boring_xml_url":47,"boring_view_url":1,"soilmap_view_url":null,"soiltest_xml_url":47,"soiltest_view_url":47},{"id":486886,"code":"NGIC202104951-0006","latitude":"33.525668888889","longitude":"130.17453927778","source_code":"","project_name":"\u4ee4\u548c2\u5e74\u5ea6\u6771\u2212\u677e\u56fd\u9ad8\u67b6\u6a4b(\u677e\u56fd\u5730\u533a)\u5730\u8cea\u8abf\u67fb\u696d\u52d9","survey_name":"\u4ee4\u548c2\u5e74\u5ea6\u6771\u2212\u677e\u56fd\u9ad8\u67b6\u6a4b(\u677e\u56fd\u5730\u533a)\u5730\u8cea\u8abf\u67fb\u696d\u52d9","client_name":"\u56fd\u571f\u4ea4\u901a\u7701\u4e5d\u5dde\u5730\u65b9\u6574\u5099\u5c40\u798f\u5ca1\u56fd\u9053\u4e8b\u52d9\u6240","boring_xml_url":47,"boring_view_url":1,"soilmap_view_url":null,"soiltest_xml_url":47,"soiltest_view_url":47},{"id":486885,"code":"NGIC202104951-0005","latitude":"33.525789444444","longitude":"130.17477919444","source_code":"","project_name":"\u4ee4\u548c2\u5e74\u5ea6\u6771\u2212\u677e\u56fd\u9ad8\u67b6\u6a4b(\u677e\u56fd\u5730\u533a)\u5730\u8cea\u8abf\u67fb\u696d\u52d9","survey_name":"\u4ee4\u548c2\u5e74\u5ea6\u6771\u2212\u677e\u56fd\u9ad8\u67b6\u6a4b(\u677e\u56fd\u5730\u533a)\u5730\u8cea\u8abf\u67fb\u696d\u52d9","client_name":"\u56fd\u571f\u4ea4\u901a\u7701\u4e5d\u5dde\u5730\u65b9\u6574\u5099\u5c40\u798f\u5ca1\u56fd\u9053\u4e8b\u52d9\u6240","boring_xml_url":47,"boring_view_url":1,"soilmap_view_url":null,"soiltest_xml_url":47,"soiltest_view_url":47},{"id":486884,"code":"NGIC202104951-0004","latitude":"33.526115388889","longitude":"130.17510641667","source_code":"","project_name":"\u4ee4\u548c2\u5e74\u5ea6\u6771\u2212\u677e\u56fd\u9ad8\u67b6\u6a4b(\u677e\u56fd\u5730\u533a)\u5730\u8cea\u8abf\u67fb\u696d\u52d9","survey_name":"\u4ee4\u548c2\u5e74\u5ea6\u6771\u2212\u677e\u56fd\u9ad8\u67b6\u6a4b(\u677e\u56fd\u5730\u533a)\u5730\u8cea\u8abf\u67fb\u696d\u52d9","client_name":"\u56fd\u571f\u4ea4\u901a\u7701\u4e5d\u5dde\u5730\u65b9\u6574\u5099\u5c40\u798f\u5ca1\u56fd\u9053\u4e8b\u52d9\u6240","boring_xml_url":47,"boring_view_url":1,"soilmap_view_url":null,"soiltest_xml_url":47,"soiltest_view_url":47},{"id":486883,"code":"NGIC202104951-0003","latitude":"33.5263085","longitude":"130.17524427778","source_code":"","project_name":"\u4ee4\u548c2\u5e74\u5ea6\u6771\u2212\u677e\u56fd\u9ad8\u67b6\u6a4b(\u677e\u56fd\u5730\u533a)\u5730\u8cea\u8abf\u67fb\u696d\u52d9","survey_name":"\u4ee4\u548c2\u5e74\u5ea6\u6771\u2212\u677e\u56fd\u9ad8\u67b6\u6a4b(\u677e\u56fd\u5730\u533a)\u5730\u8cea\u8abf\u67fb\u696d\u52d9","client_name":"\u56fd\u571f\u4ea4\u901a\u7701\u4e5d\u5dde\u5730\u65b9\u6574\u5099\u5c40\u798f\u5ca1\u56fd\u9053\u4e8b\u52d9\u6240","boring_xml_url":47,"boring_view_url":1,"soilmap_view_url":null,"soiltest_xml_url":47,"soiltest_view_url":47},{"id":486882,"code":"NGIC202104951-0002","latitude":"33.526545138889","longitude":"130.17568688889","source_code":"","project_name":"\u4ee4\u548c2\u5e74\u5ea6\u6771\u2212\u677e\u56fd\u9ad8\u67b6\u6a4b(\u677e\u56fd\u5730\u533a)\u5730\u8cea\u8abf\u67fb\u696d\u52d9","survey_name":"\u4ee4\u548c2\u5e74\u5ea6\u6771\u2212\u677e\u56fd\u9ad8\u67b6\u6a4b(\u677e\u56fd\u5730\u533a)\u5730\u8cea\u8abf\u67fb\u696d\u52d9","client_name":"\u56fd\u571f\u4ea4\u901a\u7701\u4e5d\u5dde\u5730\u65b9\u6574\u5099\u5c40\u798f\u5ca1\u56fd\u9053\u4e8b\u52d9\u6240","boring_xml_url":47,"boring_view_url":1,"soilmap_view_url":null,"soiltest_xml_url":0,"soiltest_view_url":0},{"id":486881,"code":"NGIC202104951-0001","latitude":"33.52684975","longitude":"130.17581786111","source_code":"","project_name":"\u4ee4\u548c2\u5e74\u5ea6\u6771\u2212\u677e\u56fd\u9ad8\u67b6\u6a4b(\u677e\u56fd\u5730\u533a)\u5730\u8cea\u8abf\u67fb\u696d\u52d9","survey_name":"\u4ee4\u548c2\u5e74\u5ea6\u6771\u2212\u677e\u56fd\u9ad8\u67b6\u6a4b(\u677e\u56fd\u5730\u533a)\u5730\u8cea\u8abf\u67fb\u696d\u52d9","client_name":"\u56fd\u571f\u4ea4\u901a\u7701\u4e5d\u5dde\u5730\u65b9\u6574\u5099\u5c40\u798f\u5ca1\u56fd\u9053\u4e8b\u52d9\u6240","boring_xml_url":47,"boring_view_url":1,"soilmap_view_url":null,"soiltest_xml_url":47,"soiltest_view_url":47},{"id":486848,"code":"NGIC202104972-0003","latitude":"35.274041666667","longitude":"136.28163888889","source_code":"","project_name":"\u6ecb\u8cc0\u770c\u6771\u90e8\u5730\u57df\u9053\u8def\u4e88\u5099\u8a2d\u8a08\u696d\u52d9","survey_name":"\u6ecb\u8cc0\u770c\u6771\u90e8\u5730\u57df\u9053\u8def\u4e88\u5099\u8a2d\u8a08\u696d\u52d9","client_name":"\u56fd\u571f\u4ea4\u901a\u7701\u8fd1\u757f\u5730\u65b9\u6574\u5099\u5c40\u6ecb\u8cc0\u56fd\u9053\u4e8b\u52d9\u6240","boring_xml_url":47,"boring_view_url":1,"soilmap_view_url":null,"soiltest_xml_url":47,"soiltest_view_url":47},{"id":486847,"code":"NGIC202104972-0002","latitude":"35.275691666667","longitude":"136.27993333333","source_code":"","project_name":"\u6ecb\u8cc0\u770c\u6771\u90e8\u5730\u57df\u9053\u8def\u4e88\u5099\u8a2d\u8a08\u696d\u52d9","survey_name":"\u6ecb\u8cc0\u770c\u6771\u90e8\u5730\u57df\u9053\u8def\u4e88\u5099\u8a2d\u8a08\u696d\u52d9","client_name":"\u56fd\u571f\u4ea4\u901a\u7701\u8fd1\u757f\u5730\u65b9\u6574\u5099\u5c40\u6ecb\u8cc0\u56fd\u9053\u4e8b\u52d9\u6240","boring_xml_url":47,"boring_view_url":1,"soilmap_view_url":null,"soiltest_xml_url":47,"soiltest_view_url":47},{"id":486846,"code":"NGIC202104972-0001","latitude":"35.279408333333","longitude":"136.28025","source_code":"","project_name":"\u6ecb\u8cc0\u770c\u6771\u90e8\u5730\u57df\u9053\u8def\u4e88\u5099\u8a2d\u8a08\u696d\u52d9","survey_name":"\u6ecb\u8cc0\u770c\u6771\u90e8\u5730\u57df\u9053\u8def\u4e88\u5099\u8a2d\u8a08\u696d\u52d9","client_name":"\u56fd\u571f\u4ea4\u901a\u7701\u8fd1\u757f\u5730\u65b9\u6574\u5099\u5c40\u6ecb\u8cc0\u56fd\u9053\u4e8b\u52d9\u6240","boring_xml_url":47,"boring_view_url":1,"soilmap_view_url":null,"soiltest_xml_url":0,"soiltest_view_url":0},{"id":486803,"code":"NGIC202105099-0004","latitude":"34.734700138889","longitude":"135.27450397222","source_code":"","project_name":"\u672c\u5c71\u753a\u7530\u8fba\u5730\u533a","survey_name":"\u516d\u7532\u5c71\u7cfb\u6771\u5730\u533a\u659c\u9762\u8a2d\u8a08\u696d\u52d9","client_name":"\u56fd\u571f\u4ea4\u901a\u7701\u8fd1\u757f\u5730\u65b9\u6574\u5099\u5c40\u516d\u7532\u7802\u9632\u4e8b\u52d9\u6240","boring_xml_url":47,"boring_view_url":1,"soilmap_view_url":null,"soiltest_xml_url":0,"soiltest_view_url":0},{"id":486802,"code":"NGIC202105099-0003","latitude":"34.734546722222","longitude":"135.27459225","source_code":"","project_name":"\u672c\u5c71\u753a\u7530\u8fba\u5730\u533a","survey_name":"\u516d\u7532\u5c71\u7cfb\u6771\u5730\u533a\u659c\u9762\u8a2d\u8a08\u696d\u52d9","client_name":"\u56fd\u571f\u4ea4\u901a\u7701\u8fd1\u757f\u5730\u65b9\u6574\u5099\u5c40\u516d\u7532\u7802\u9632\u4e8b\u52d9\u6240","boring_xml_url":47,"boring_view_url":1,"soilmap_view_url":null,"soiltest_xml_url":0,"soiltest_view_url":0},{"id":486801,"code":"NGIC202105099-0002","latitude":"34.755857694444","longitude":"135.30522580556","source_code":"","project_name":"\u516d\u9e93\u8358\u5730\u533a","survey_name":"\u516d\u7532\u5c71\u7cfb\u6771\u5730\u533a\u659c\u9762\u8a2d\u8a08\u696d\u52d9","client_name":"\u56fd\u571f\u4ea4\u901a\u7701\u8fd1\u757f\u5730\u65b9\u6574\u5099\u5c40\u516d\u7532\u7802\u9632\u4e8b\u52d9\u6240","boring_xml_url":47,"boring_view_url":1,"soilmap_view_url":null,"soiltest_xml_url":0,"soiltest_view_url":0},{"id":486800,"code":"NGIC202105099-0001","latitude":"34.755276666667","longitude":"135.30544705556","source_code":"","project_name":"\u516d\u9e93\u8358\u5730\u533a","survey_name":"\u516d\u7532\u5c71\u7cfb\u6771\u5730\u533a\u659c\u9762\u8a2d\u8a08\u696d\u52d9","client_name":"\u56fd\u571f\u4ea4\u901a\u7701\u8fd1\u757f\u5730\u65b9\u6574\u5099\u5c40\u516d\u7532\u7802\u9632\u4e8b\u52d9\u6240","boring_xml_url":47,"boring_view_url":1,"soilmap_view_url":null,"soiltest_xml_url":0,"soiltest_view_url":0},{"id":486799,"code":"NGIC202104755-0017","latitude":"33.543570583333","longitude":"135.86739683333","source_code":"","project_name":"\u4e32\u672c\u592a\u5730\u9053\u8def \u5802\u9053\u30c8\u30f3\u30cd\u30eb\u4ed6\u5730\u8cea\u8abf\u67fb\u696d\u52d9","survey_name":"\u4e32\u672c\u592a\u5730\u9053\u8def \u5802\u9053\u30c8\u30f3\u30cd\u30eb\u4ed6\u5730\u8cea\u8abf\u67fb\u696d\u52d9","client_name":"\u56fd\u571f\u4ea4\u901a\u7701\u8fd1\u757f\u5730\u65b9\u6574\u5099\u5c40\u7d00\u5357\u6cb3\u5ddd\u56fd\u9053\u4e8b\u52d9\u6240","boring_xml_url":47,"boring_view_url":1,"soilmap_view_url":null,"soiltest_xml_url":0,"soiltest_view_url":0},{"id":486798,"code":"NGIC202104755-0016","latitude":"33.543546861111","longitude":"135.86738291667","source_code":"","project_name":"\u4e32\u672c\u592a\u5730\u9053\u8def \u5802\u9053\u30c8\u30f3\u30cd\u30eb\u4ed6\u5730\u8cea\u8abf\u67fb\u696d\u52d9","survey_name":"\u4e32\u672c\u592a\u5730\u9053\u8def \u5802\u9053\u30c8\u30f3\u30cd\u30eb\u4ed6\u5730\u8cea\u8abf\u67fb\u696d\u52d9","client_name":"\u56fd\u571f\u4ea4\u901a\u7701\u8fd1\u757f\u5730\u65b9\u6574\u5099\u5c40\u7d00\u5357\u6cb3\u5ddd\u56fd\u9053\u4e8b\u52d9\u6240","boring_xml_url":47,"boring_view_url":1,"soilmap_view_url":null,"soiltest_xml_url":0,"soiltest_view_url":0},{"id":486797,"code":"NGIC202104755-0015","latitude":"33.543338305556","longitude":"135.86724466667","source_code":"","project_name":"\u4e32\u672c\u592a\u5730\u9053\u8def \u5802\u9053\u30c8\u30f3\u30cd\u30eb\u4ed6\u5730\u8cea\u8abf\u67fb\u696d\u52d9","survey_name":"\u4e32\u672c\u592a\u5730\u9053\u8def \u5802\u9053\u30c8\u30f3\u30cd\u30eb\u4ed6\u5730\u8cea\u8abf\u67fb\u696d\u52d9","client_name":"\u56fd\u571f\u4ea4\u901a\u7701\u8fd1\u757f\u5730\u65b9\u6574\u5099\u5c40\u7d00\u5357\u6cb3\u5ddd\u56fd\u9053\u4e8b\u52d9\u6240","boring_xml_url":47,"boring_view_url":1,"soilmap_view_url":null,"soiltest_xml_url":0,"soiltest_view_url":0}]}}