{"header":{"xyz":{"source":[],"mosaic":false},"page":1730,"raw":{"soiltest_result":"0","bbox":"57.598333,109.544722,1.933333,163.806111","page":"1730"},"conditions":{"soiltest_result":0,"north":57.598333,"west":109.544722,"south":1.933333,"east":163.806111},"success":true,"message":""},"data":{"meta":{"total":212844,"page":1730,"pages":7095,"count":30},"values":[{"id":482942,"code":"NGIC202104737-0008","latitude":"34.685151138889","longitude":"138.93716211111","source_code":"","project_name":"","survey_name":"\u4ee4\u548c2\u5e74\u5ea6\u6cb3\u6d25\u4e0b\u7530\u9053\u8def1\u671f\u5317\u90e8\u5730\u8cea\u8abf\u67fb\u696d\u52d9","client_name":"\u56fd\u571f\u4ea4\u901a\u7701\u4e2d\u90e8\u5730\u65b9\u6574\u5099\u5c40\u6cbc\u6d25\u6cb3\u5ddd\u56fd\u9053\u4e8b\u52d9\u6240","boring_xml_url":47,"boring_view_url":1,"soilmap_view_url":null,"soiltest_xml_url":0,"soiltest_view_url":0},{"id":482941,"code":"NGIC202104737-0007","latitude":"34.685301083333","longitude":"138.93677616667","source_code":"","project_name":"","survey_name":"\u4ee4\u548c2\u5e74\u5ea6\u6cb3\u6d25\u4e0b\u7530\u9053\u8def1\u671f\u5317\u90e8\u5730\u8cea\u8abf\u67fb\u696d\u52d9","client_name":"\u56fd\u571f\u4ea4\u901a\u7701\u4e2d\u90e8\u5730\u65b9\u6574\u5099\u5c40\u6cbc\u6d25\u6cb3\u5ddd\u56fd\u9053\u4e8b\u52d9\u6240","boring_xml_url":47,"boring_view_url":1,"soilmap_view_url":null,"soiltest_xml_url":0,"soiltest_view_url":0},{"id":482940,"code":"NGIC202104737-0006","latitude":"34.695230333333","longitude":"138.93636913889","source_code":"","project_name":"","survey_name":"\u4ee4\u548c2\u5e74\u5ea6\u6cb3\u6d25\u4e0b\u7530\u9053\u8def1\u671f\u5317\u90e8\u5730\u8cea\u8abf\u67fb\u696d\u52d9","client_name":"\u56fd\u571f\u4ea4\u901a\u7701\u4e2d\u90e8\u5730\u65b9\u6574\u5099\u5c40\u6cbc\u6d25\u6cb3\u5ddd\u56fd\u9053\u4e8b\u52d9\u6240","boring_xml_url":47,"boring_view_url":1,"soilmap_view_url":null,"soiltest_xml_url":0,"soiltest_view_url":0},{"id":482939,"code":"NGIC202104737-0005","latitude":"34.696542472222","longitude":"138.93611802778","source_code":"","project_name":"","survey_name":"\u4ee4\u548c2\u5e74\u5ea6\u6cb3\u6d25\u4e0b\u7530\u9053\u8def1\u671f\u5317\u90e8\u5730\u8cea\u8abf\u67fb\u696d\u52d9","client_name":"\u56fd\u571f\u4ea4\u901a\u7701\u4e2d\u90e8\u5730\u65b9\u6574\u5099\u5c40\u6cbc\u6d25\u6cb3\u5ddd\u56fd\u9053\u4e8b\u52d9\u6240","boring_xml_url":47,"boring_view_url":1,"soilmap_view_url":null,"soiltest_xml_url":0,"soiltest_view_url":0},{"id":482938,"code":"NGIC202104737-0004","latitude":"34.705846777778","longitude":"138.93702630556","source_code":"","project_name":"","survey_name":"\u4ee4\u548c2\u5e74\u5ea6\u6cb3\u6d25\u4e0b\u7530\u9053\u8def1\u671f\u5317\u90e8\u5730\u8cea\u8abf\u67fb\u696d\u52d9","client_name":"\u56fd\u571f\u4ea4\u901a\u7701\u4e2d\u90e8\u5730\u65b9\u6574\u5099\u5c40\u6cbc\u6d25\u6cb3\u5ddd\u56fd\u9053\u4e8b\u52d9\u6240","boring_xml_url":47,"boring_view_url":1,"soilmap_view_url":null,"soiltest_xml_url":0,"soiltest_view_url":0},{"id":482937,"code":"NGIC202104737-0003","latitude":"34.706385","longitude":"138.93687608333","source_code":"","project_name":"","survey_name":"\u4ee4\u548c2\u5e74\u5ea6\u6cb3\u6d25\u4e0b\u7530\u9053\u8def1\u671f\u5317\u90e8\u5730\u8cea\u8abf\u67fb\u696d\u52d9","client_name":"\u56fd\u571f\u4ea4\u901a\u7701\u4e2d\u90e8\u5730\u65b9\u6574\u5099\u5c40\u6cbc\u6d25\u6cb3\u5ddd\u56fd\u9053\u4e8b\u52d9\u6240","boring_xml_url":47,"boring_view_url":1,"soilmap_view_url":null,"soiltest_xml_url":0,"soiltest_view_url":0},{"id":482936,"code":"NGIC202104737-0002","latitude":"34.721216138889","longitude":"138.93345436111","source_code":"","project_name":"","survey_name":"\u4ee4\u548c2\u5e74\u5ea6\u6cb3\u6d25\u4e0b\u7530\u9053\u8def1\u671f\u5317\u90e8\u5730\u8cea\u8abf\u67fb\u696d\u52d9","client_name":"\u56fd\u571f\u4ea4\u901a\u7701\u4e2d\u90e8\u5730\u65b9\u6574\u5099\u5c40\u6cbc\u6d25\u6cb3\u5ddd\u56fd\u9053\u4e8b\u52d9\u6240","boring_xml_url":47,"boring_view_url":1,"soilmap_view_url":null,"soiltest_xml_url":0,"soiltest_view_url":0},{"id":482935,"code":"NGIC202104737-0001","latitude":"34.722079416667","longitude":"138.93388241667","source_code":"","project_name":"","survey_name":"\u4ee4\u548c2\u5e74\u5ea6\u6cb3\u6d25\u4e0b\u7530\u9053\u8def1\u671f\u5317\u90e8\u5730\u8cea\u8abf\u67fb\u696d\u52d9","client_name":"\u56fd\u571f\u4ea4\u901a\u7701\u4e2d\u90e8\u5730\u65b9\u6574\u5099\u5c40\u6cbc\u6d25\u6cb3\u5ddd\u56fd\u9053\u4e8b\u52d9\u6240","boring_xml_url":47,"boring_view_url":1,"soilmap_view_url":null,"soiltest_xml_url":0,"soiltest_view_url":0},{"id":482930,"code":"NGIC202104380-0020","latitude":"34.503830555556","longitude":"136.68209722222","source_code":"","project_name":"\u5c0f\u4fe3\u5730\u533a","survey_name":"\u4ee4\u548c2\u5e74\u5ea6 \u4e09\u91cd\u6cb3\u5ddd\u5730\u8cea\u8abf\u67fb\u696d\u52d9","client_name":"\u56fd\u571f\u4ea4\u901a\u7701\u4e2d\u90e8\u5730\u65b9\u6574\u5099\u5c40\u4e09\u91cd\u6cb3\u5ddd\u56fd\u9053\u4e8b\u52d9\u6240","boring_xml_url":47,"boring_view_url":1,"soilmap_view_url":null,"soiltest_xml_url":47,"soiltest_view_url":47},{"id":482929,"code":"NGIC202104380-0019","latitude":"34.505947222222","longitude":"136.68298055556","source_code":"","project_name":"\u5c0f\u4fe3\u5730\u533a","survey_name":"\u4ee4\u548c2\u5e74\u5ea6 \u4e09\u91cd\u6cb3\u5ddd\u5730\u8cea\u8abf\u67fb\u696d\u52d9","client_name":"\u56fd\u571f\u4ea4\u901a\u7701\u4e2d\u90e8\u5730\u65b9\u6574\u5099\u5c40\u4e09\u91cd\u6cb3\u5ddd\u56fd\u9053\u4e8b\u52d9\u6240","boring_xml_url":47,"boring_view_url":1,"soilmap_view_url":null,"soiltest_xml_url":47,"soiltest_view_url":47},{"id":482928,"code":"NGIC202104380-0018","latitude":"34.560813888889","longitude":"136.59778055556","source_code":"","project_name":"\u9ad8\u6728\u5730\u533a","survey_name":"\u4ee4\u548c2\u5e74\u5ea6 \u4e09\u91cd\u6cb3\u5ddd\u5730\u8cea\u8abf\u67fb\u696d\u52d9","client_name":"\u56fd\u571f\u4ea4\u901a\u7701\u4e2d\u90e8\u5730\u65b9\u6574\u5099\u5c40\u4e09\u91cd\u6cb3\u5ddd\u56fd\u9053\u4e8b\u52d9\u6240","boring_xml_url":47,"boring_view_url":1,"soilmap_view_url":null,"soiltest_xml_url":0,"soiltest_view_url":0},{"id":482927,"code":"NGIC202104380-0017","latitude":"34.560794444444","longitude":"136.59768611111","source_code":"","project_name":"\u9ad8\u6728\u5730\u533a","survey_name":"\u4ee4\u548c2\u5e74\u5ea6 \u4e09\u91cd\u6cb3\u5ddd\u5730\u8cea\u8abf\u67fb\u696d\u52d9","client_name":"\u56fd\u571f\u4ea4\u901a\u7701\u4e2d\u90e8\u5730\u65b9\u6574\u5099\u5c40\u4e09\u91cd\u6cb3\u5ddd\u56fd\u9053\u4e8b\u52d9\u6240","boring_xml_url":47,"boring_view_url":1,"soilmap_view_url":null,"soiltest_xml_url":47,"soiltest_view_url":47},{"id":482926,"code":"NGIC202104380-0016","latitude":"34.560763888889","longitude":"136.59753055556","source_code":"","project_name":"\u9ad8\u6728\u5730\u533a","survey_name":"\u4ee4\u548c2\u5e74\u5ea6 \u4e09\u91cd\u6cb3\u5ddd\u5730\u8cea\u8abf\u67fb\u696d\u52d9","client_name":"\u56fd\u571f\u4ea4\u901a\u7701\u4e2d\u90e8\u5730\u65b9\u6574\u5099\u5c40\u4e09\u91cd\u6cb3\u5ddd\u56fd\u9053\u4e8b\u52d9\u6240","boring_xml_url":47,"boring_view_url":1,"soilmap_view_url":null,"soiltest_xml_url":0,"soiltest_view_url":0},{"id":482925,"code":"NGIC202104380-0015","latitude":"34.637244444444","longitude":"136.47008611111","source_code":"","project_name":"\u4e2d\u5ddd\u5730\u533a","survey_name":"\u4ee4\u548c2\u5e74\u5ea6 \u4e09\u91cd\u6cb3\u5ddd\u5730\u8cea\u8abf\u67fb\u696d\u52d9","client_name":"\u56fd\u571f\u4ea4\u901a\u7701\u4e2d\u90e8\u5730\u65b9\u6574\u5099\u5c40\u4e09\u91cd\u6cb3\u5ddd\u56fd\u9053\u4e8b\u52d9\u6240","boring_xml_url":47,"boring_view_url":1,"soilmap_view_url":null,"soiltest_xml_url":47,"soiltest_view_url":47},{"id":482924,"code":"NGIC202104380-0014","latitude":"34.634919444444","longitude":"136.47028333333","source_code":"","project_name":"\u4e2d\u5ddd\u5730\u533a","survey_name":"\u4ee4\u548c2\u5e74\u5ea6 \u4e09\u91cd\u6cb3\u5ddd\u5730\u8cea\u8abf\u67fb\u696d\u52d9","client_name":"\u56fd\u571f\u4ea4\u901a\u7701\u4e2d\u90e8\u5730\u65b9\u6574\u5099\u5c40\u4e09\u91cd\u6cb3\u5ddd\u56fd\u9053\u4e8b\u52d9\u6240","boring_xml_url":47,"boring_view_url":1,"soilmap_view_url":null,"soiltest_xml_url":47,"soiltest_view_url":47},{"id":482923,"code":"NGIC202104380-0013","latitude":"34.63655","longitude":"136.47111944444","source_code":"","project_name":"\u4e2d\u5ddd\u5730\u533a","survey_name":"\u4ee4\u548c2\u5e74\u5ea6 \u4e09\u91cd\u6cb3\u5ddd\u5730\u8cea\u8abf\u67fb\u696d\u52d9","client_name":"\u56fd\u571f\u4ea4\u901a\u7701\u4e2d\u90e8\u5730\u65b9\u6574\u5099\u5c40\u4e09\u91cd\u6cb3\u5ddd\u56fd\u9053\u4e8b\u52d9\u6240","boring_xml_url":47,"boring_view_url":1,"soilmap_view_url":null,"soiltest_xml_url":47,"soiltest_view_url":47},{"id":482922,"code":"NGIC202104380-0012","latitude":"34.639947222222","longitude":"136.47600833333","source_code":"","project_name":"\u4e2d\u5ddd\u5730\u533a","survey_name":"\u4ee4\u548c2\u5e74\u5ea6 \u4e09\u91cd\u6cb3\u5ddd\u5730\u8cea\u8abf\u67fb\u696d\u52d9","client_name":"\u56fd\u571f\u4ea4\u901a\u7701\u4e2d\u90e8\u5730\u65b9\u6574\u5099\u5c40\u4e09\u91cd\u6cb3\u5ddd\u56fd\u9053\u4e8b\u52d9\u6240","boring_xml_url":47,"boring_view_url":1,"soilmap_view_url":null,"soiltest_xml_url":47,"soiltest_view_url":47},{"id":482921,"code":"NGIC202104380-0011","latitude":"34.926038888889","longitude":"136.61855277778","source_code":"","project_name":"\u5927\u91cc\u5730\u533a","survey_name":"\u4ee4\u548c2\u5e74\u5ea6 \u4e09\u91cd\u6cb3\u5ddd\u5730\u8cea\u8abf\u67fb\u696d\u52d9","client_name":"\u56fd\u571f\u4ea4\u901a\u7701\u4e2d\u90e8\u5730\u65b9\u6574\u5099\u5c40\u4e09\u91cd\u6cb3\u5ddd\u56fd\u9053\u4e8b\u52d9\u6240","boring_xml_url":47,"boring_view_url":1,"soilmap_view_url":null,"soiltest_xml_url":47,"soiltest_view_url":47},{"id":482920,"code":"NGIC202104380-0010","latitude":"34.925922222222","longitude":"136.618575","source_code":"","project_name":"\u5927\u91cc\u5730\u533a","survey_name":"\u4ee4\u548c2\u5e74\u5ea6 \u4e09\u91cd\u6cb3\u5ddd\u5730\u8cea\u8abf\u67fb\u696d\u52d9","client_name":"\u56fd\u571f\u4ea4\u901a\u7701\u4e2d\u90e8\u5730\u65b9\u6574\u5099\u5c40\u4e09\u91cd\u6cb3\u5ddd\u56fd\u9053\u4e8b\u52d9\u6240","boring_xml_url":47,"boring_view_url":1,"soilmap_view_url":null,"soiltest_xml_url":47,"soiltest_view_url":47},{"id":482919,"code":"NGIC202104380-0009","latitude":"34.926316666667","longitude":"136.62086944444","source_code":"","project_name":"\u5927\u91cc\u5730\u533a","survey_name":"\u4ee4\u548c2\u5e74\u5ea6 \u4e09\u91cd\u6cb3\u5ddd\u5730\u8cea\u8abf\u67fb\u696d\u52d9","client_name":"\u56fd\u571f\u4ea4\u901a\u7701\u4e2d\u90e8\u5730\u65b9\u6574\u5099\u5c40\u4e09\u91cd\u6cb3\u5ddd\u56fd\u9053\u4e8b\u52d9\u6240","boring_xml_url":47,"boring_view_url":1,"soilmap_view_url":null,"soiltest_xml_url":47,"soiltest_view_url":47},{"id":482918,"code":"NGIC202104380-0008","latitude":"34.926233333333","longitude":"136.62087777778","source_code":"","project_name":"\u5927\u91cc\u5730\u533a","survey_name":"\u4ee4\u548c2\u5e74\u5ea6 \u4e09\u91cd\u6cb3\u5ddd\u5730\u8cea\u8abf\u67fb\u696d\u52d9","client_name":"\u56fd\u571f\u4ea4\u901a\u7701\u4e2d\u90e8\u5730\u65b9\u6574\u5099\u5c40\u4e09\u91cd\u6cb3\u5ddd\u56fd\u9053\u4e8b\u52d9\u6240","boring_xml_url":47,"boring_view_url":1,"soilmap_view_url":null,"soiltest_xml_url":47,"soiltest_view_url":47},{"id":482917,"code":"NGIC202104380-0007","latitude":"34.876505555556","longitude":"136.52701944444","source_code":"","project_name":"\u5e84\u91ce\u5730\u533a","survey_name":"\u4ee4\u548c2\u5e74\u5ea6 \u4e09\u91cd\u6cb3\u5ddd\u5730\u8cea\u8abf\u67fb\u696d\u52d9","client_name":"\u56fd\u571f\u4ea4\u901a\u7701\u4e2d\u90e8\u5730\u65b9\u6574\u5099\u5c40\u4e09\u91cd\u6cb3\u5ddd\u56fd\u9053\u4e8b\u52d9\u6240","boring_xml_url":47,"boring_view_url":1,"soilmap_view_url":null,"soiltest_xml_url":0,"soiltest_view_url":0},{"id":482916,"code":"NGIC202104380-0006","latitude":"34.876577777778","longitude":"136.52689722222","source_code":"","project_name":"\u5e84\u91ce\u5730\u533a","survey_name":"\u4ee4\u548c2\u5e74\u5ea6 \u4e09\u91cd\u6cb3\u5ddd\u5730\u8cea\u8abf\u67fb\u696d\u52d9","client_name":"\u56fd\u571f\u4ea4\u901a\u7701\u4e2d\u90e8\u5730\u65b9\u6574\u5099\u5c40\u4e09\u91cd\u6cb3\u5ddd\u56fd\u9053\u4e8b\u52d9\u6240","boring_xml_url":47,"boring_view_url":1,"soilmap_view_url":null,"soiltest_xml_url":47,"soiltest_view_url":47},{"id":482915,"code":"NGIC202104380-0005","latitude":"34.873230555556","longitude":"136.50585833333","source_code":"","project_name":"\u4e2d\u5bcc\u7530\u5730\u533a","survey_name":"\u4ee4\u548c2\u5e74\u5ea6 \u4e09\u91cd\u6cb3\u5ddd\u5730\u8cea\u8abf\u67fb\u696d\u52d9","client_name":"\u56fd\u571f\u4ea4\u901a\u7701\u4e2d\u90e8\u5730\u65b9\u6574\u5099\u5c40\u4e09\u91cd\u6cb3\u5ddd\u56fd\u9053\u4e8b\u52d9\u6240","boring_xml_url":47,"boring_view_url":1,"soilmap_view_url":null,"soiltest_xml_url":47,"soiltest_view_url":47},{"id":482914,"code":"NGIC202104380-0004","latitude":"34.874305555556","longitude":"136.50992222222","source_code":"","project_name":"\u6c72\u5ddd\u539f\u5730\u533a","survey_name":"\u4ee4\u548c2\u5e74\u5ea6 \u4e09\u91cd\u6cb3\u5ddd\u5730\u8cea\u8abf\u67fb\u696d\u52d9","client_name":"\u56fd\u571f\u4ea4\u901a\u7701\u4e2d\u90e8\u5730\u65b9\u6574\u5099\u5c40\u4e09\u91cd\u6cb3\u5ddd\u56fd\u9053\u4e8b\u52d9\u6240","boring_xml_url":47,"boring_view_url":1,"soilmap_view_url":null,"soiltest_xml_url":47,"soiltest_view_url":47},{"id":482913,"code":"NGIC202104380-0003","latitude":"34.874188888889","longitude":"136.50996111111","source_code":"","project_name":"\u6c72\u5ddd\u539f\u5730\u533a","survey_name":"\u4ee4\u548c2\u5e74\u5ea6 \u4e09\u91cd\u6cb3\u5ddd\u5730\u8cea\u8abf\u67fb\u696d\u52d9","client_name":"\u56fd\u571f\u4ea4\u901a\u7701\u4e2d\u90e8\u5730\u65b9\u6574\u5099\u5c40\u4e09\u91cd\u6cb3\u5ddd\u56fd\u9053\u4e8b\u52d9\u6240","boring_xml_url":47,"boring_view_url":1,"soilmap_view_url":null,"soiltest_xml_url":47,"soiltest_view_url":47},{"id":482912,"code":"NGIC202104380-0002","latitude":"34.874127777778","longitude":"136.50998055556","source_code":"","project_name":"\u6c72\u5ddd\u539f\u5730\u533a","survey_name":"\u4ee4\u548c2\u5e74\u5ea6 \u4e09\u91cd\u6cb3\u5ddd\u5730\u8cea\u8abf\u67fb\u696d\u52d9","client_name":"\u56fd\u571f\u4ea4\u901a\u7701\u4e2d\u90e8\u5730\u65b9\u6574\u5099\u5c40\u4e09\u91cd\u6cb3\u5ddd\u56fd\u9053\u4e8b\u52d9\u6240","boring_xml_url":47,"boring_view_url":1,"soilmap_view_url":null,"soiltest_xml_url":47,"soiltest_view_url":47},{"id":482911,"code":"NGIC202104380-0001","latitude":"34.874013888889","longitude":"136.50998055556","source_code":"","project_name":"\u6c72\u5ddd\u539f\u5730\u533a","survey_name":"\u4ee4\u548c2\u5e74\u5ea6 \u4e09\u91cd\u6cb3\u5ddd\u5730\u8cea\u8abf\u67fb\u696d\u52d9","client_name":"\u56fd\u571f\u4ea4\u901a\u7701\u4e2d\u90e8\u5730\u65b9\u6574\u5099\u5c40\u4e09\u91cd\u6cb3\u5ddd\u56fd\u9053\u4e8b\u52d9\u6240","boring_xml_url":47,"boring_view_url":1,"soilmap_view_url":null,"soiltest_xml_url":47,"soiltest_view_url":47},{"id":482899,"code":"NGIC202104844-0010","latitude":"36.736646111111","longitude":"136.97149305556","source_code":"","project_name":"","survey_name":"\u4ee4\u548c3\u5e74\u5ea6\u4e2d\u5cf6\u672c\u90f7\u7acb\u4f53\u5730\u8cea\u8abf\u67fb\u696d\u52d9","client_name":"\u56fd\u571f\u4ea4\u901a\u7701\u5317\u9678\u5730\u65b9\u6574\u5099\u5c40\u5bcc\u5c71\u6cb3\u5ddd\u56fd\u9053\u4e8b\u52d9\u6240","boring_xml_url":47,"boring_view_url":1,"soilmap_view_url":null,"soiltest_xml_url":47,"soiltest_view_url":47},{"id":482898,"code":"NGIC202104844-0009","latitude":"36.736153611111","longitude":"136.97232583333","source_code":"","project_name":"","survey_name":"\u4ee4\u548c3\u5e74\u5ea6\u4e2d\u5cf6\u672c\u90f7\u7acb\u4f53\u5730\u8cea\u8abf\u67fb\u696d\u52d9","client_name":"\u56fd\u571f\u4ea4\u901a\u7701\u5317\u9678\u5730\u65b9\u6574\u5099\u5c40\u5bcc\u5c71\u6cb3\u5ddd\u56fd\u9053\u4e8b\u52d9\u6240","boring_xml_url":47,"boring_view_url":1,"soilmap_view_url":null,"soiltest_xml_url":47,"soiltest_view_url":47}]}}