{"header":{"xyz":{"source":[],"mosaic":false},"page":1739,"raw":{"soiltest_result":"0","bbox":"57.598333,109.544722,1.933333,163.806111","page":"1739"},"conditions":{"soiltest_result":0,"north":57.598333,"west":109.544722,"south":1.933333,"east":163.806111},"success":true,"message":""},"data":{"meta":{"total":212844,"page":1739,"pages":7095,"count":30},"values":[{"id":477027,"code":"NGIC202104633-0015","latitude":"42.972844444444","longitude":"140.66384166667","source_code":"","project_name":"\u4e00\u822c\u56fd\u90535\u53f7 \u5171\u548c\u753a \u30d0\u30f3\u30ce\u6ca2\u5730\u8cea\u8abf\u67fb\u696d\u52d9","survey_name":"\u4e00\u822c\u56fd\u90535\u53f7 \u5171\u548c\u753a \u30d0\u30f3\u30ce\u6ca2\u5730\u8cea\u8abf\u67fb\u696d\u52d9","client_name":"\u56fd\u571f\u4ea4\u901a\u7701\u5317\u6d77\u9053\u958b\u767a\u5c40\u5c0f\u6a3d\u958b\u767a\u5efa\u8a2d\u90e8 \u672c\u90e8","boring_xml_url":47,"boring_view_url":1,"soilmap_view_url":null,"soiltest_xml_url":0,"soiltest_view_url":0},{"id":477026,"code":"NGIC202104633-0014","latitude":"42.973016666667","longitude":"140.66536111111","source_code":"","project_name":"\u4e00\u822c\u56fd\u90535\u53f7 \u5171\u548c\u753a \u30d0\u30f3\u30ce\u6ca2\u5730\u8cea\u8abf\u67fb\u696d\u52d9","survey_name":"\u4e00\u822c\u56fd\u90535\u53f7 \u5171\u548c\u753a \u30d0\u30f3\u30ce\u6ca2\u5730\u8cea\u8abf\u67fb\u696d\u52d9","client_name":"\u56fd\u571f\u4ea4\u901a\u7701\u5317\u6d77\u9053\u958b\u767a\u5c40\u5c0f\u6a3d\u958b\u767a\u5efa\u8a2d\u90e8 \u672c\u90e8","boring_xml_url":47,"boring_view_url":1,"soilmap_view_url":null,"soiltest_xml_url":0,"soiltest_view_url":0},{"id":477025,"code":"NGIC202104633-0013","latitude":"42.972825","longitude":"140.66538611111","source_code":"","project_name":"\u4e00\u822c\u56fd\u90535\u53f7 \u5171\u548c\u753a \u30d0\u30f3\u30ce\u6ca2\u5730\u8cea\u8abf\u67fb\u696d\u52d9","survey_name":"\u4e00\u822c\u56fd\u90535\u53f7 \u5171\u548c\u753a \u30d0\u30f3\u30ce\u6ca2\u5730\u8cea\u8abf\u67fb\u696d\u52d9","client_name":"\u56fd\u571f\u4ea4\u901a\u7701\u5317\u6d77\u9053\u958b\u767a\u5c40\u5c0f\u6a3d\u958b\u767a\u5efa\u8a2d\u90e8 \u672c\u90e8","boring_xml_url":47,"boring_view_url":1,"soilmap_view_url":null,"soiltest_xml_url":0,"soiltest_view_url":0},{"id":477024,"code":"NGIC202104633-0012","latitude":"42.972783333333","longitude":"140.66561111111","source_code":"","project_name":"\u4e00\u822c\u56fd\u90535\u53f7 \u5171\u548c\u753a \u30d0\u30f3\u30ce\u6ca2\u5730\u8cea\u8abf\u67fb\u696d\u52d9","survey_name":"\u4e00\u822c\u56fd\u90535\u53f7 \u5171\u548c\u753a \u30d0\u30f3\u30ce\u6ca2\u5730\u8cea\u8abf\u67fb\u696d\u52d9","client_name":"\u56fd\u571f\u4ea4\u901a\u7701\u5317\u6d77\u9053\u958b\u767a\u5c40\u5c0f\u6a3d\u958b\u767a\u5efa\u8a2d\u90e8 \u672c\u90e8","boring_xml_url":47,"boring_view_url":1,"soilmap_view_url":null,"soiltest_xml_url":0,"soiltest_view_url":0},{"id":477023,"code":"NGIC202104633-0011","latitude":"42.972941666667","longitude":"140.66587222222","source_code":"","project_name":"\u4e00\u822c\u56fd\u90535\u53f7 \u5171\u548c\u753a \u30d0\u30f3\u30ce\u6ca2\u5730\u8cea\u8abf\u67fb\u696d\u52d9","survey_name":"\u4e00\u822c\u56fd\u90535\u53f7 \u5171\u548c\u753a \u30d0\u30f3\u30ce\u6ca2\u5730\u8cea\u8abf\u67fb\u696d\u52d9","client_name":"\u56fd\u571f\u4ea4\u901a\u7701\u5317\u6d77\u9053\u958b\u767a\u5c40\u5c0f\u6a3d\u958b\u767a\u5efa\u8a2d\u90e8 \u672c\u90e8","boring_xml_url":47,"boring_view_url":1,"soilmap_view_url":null,"soiltest_xml_url":0,"soiltest_view_url":0},{"id":477022,"code":"NGIC202104633-0010","latitude":"42.972013888889","longitude":"140.67098333333","source_code":"","project_name":"\u4e00\u822c\u56fd\u90535\u53f7 \u5171\u548c\u753a \u30d0\u30f3\u30ce\u6ca2\u5730\u8cea\u8abf\u67fb\u696d\u52d9","survey_name":"\u4e00\u822c\u56fd\u90535\u53f7 \u5171\u548c\u753a \u30d0\u30f3\u30ce\u6ca2\u5730\u8cea\u8abf\u67fb\u696d\u52d9","client_name":"\u56fd\u571f\u4ea4\u901a\u7701\u5317\u6d77\u9053\u958b\u767a\u5c40\u5c0f\u6a3d\u958b\u767a\u5efa\u8a2d\u90e8 \u672c\u90e8","boring_xml_url":47,"boring_view_url":1,"soilmap_view_url":null,"soiltest_xml_url":0,"soiltest_view_url":0},{"id":477021,"code":"NGIC202104633-0009","latitude":"42.967219444444","longitude":"140.67696666667","source_code":"","project_name":"\u4e00\u822c\u56fd\u90535\u53f7 \u5171\u548c\u753a \u30d0\u30f3\u30ce\u6ca2\u5730\u8cea\u8abf\u67fb\u696d\u52d9","survey_name":"\u4e00\u822c\u56fd\u90535\u53f7 \u5171\u548c\u753a \u30d0\u30f3\u30ce\u6ca2\u5730\u8cea\u8abf\u67fb\u696d\u52d9","client_name":"\u56fd\u571f\u4ea4\u901a\u7701\u5317\u6d77\u9053\u958b\u767a\u5c40\u5c0f\u6a3d\u958b\u767a\u5efa\u8a2d\u90e8 \u672c\u90e8","boring_xml_url":47,"boring_view_url":1,"soilmap_view_url":null,"soiltest_xml_url":0,"soiltest_view_url":0},{"id":477020,"code":"NGIC202104633-0008","latitude":"42.966866666667","longitude":"140.67692777778","source_code":"","project_name":"\u4e00\u822c\u56fd\u90535\u53f7 \u5171\u548c\u753a \u30d0\u30f3\u30ce\u6ca2\u5730\u8cea\u8abf\u67fb\u696d\u52d9","survey_name":"\u4e00\u822c\u56fd\u90535\u53f7 \u5171\u548c\u753a \u30d0\u30f3\u30ce\u6ca2\u5730\u8cea\u8abf\u67fb\u696d\u52d9","client_name":"\u56fd\u571f\u4ea4\u901a\u7701\u5317\u6d77\u9053\u958b\u767a\u5c40\u5c0f\u6a3d\u958b\u767a\u5efa\u8a2d\u90e8 \u672c\u90e8","boring_xml_url":47,"boring_view_url":1,"soilmap_view_url":null,"soiltest_xml_url":0,"soiltest_view_url":0},{"id":477019,"code":"NGIC202104633-0007","latitude":"42.942863888889","longitude":"140.69349444444","source_code":"","project_name":"\u4e00\u822c\u56fd\u90535\u53f7 \u5171\u548c\u753a \u30d0\u30f3\u30ce\u6ca2\u5730\u8cea\u8abf\u67fb\u696d\u52d9","survey_name":"\u4e00\u822c\u56fd\u90535\u53f7 \u5171\u548c\u753a \u30d0\u30f3\u30ce\u6ca2\u5730\u8cea\u8abf\u67fb\u696d\u52d9","client_name":"\u56fd\u571f\u4ea4\u901a\u7701\u5317\u6d77\u9053\u958b\u767a\u5c40\u5c0f\u6a3d\u958b\u767a\u5efa\u8a2d\u90e8 \u672c\u90e8","boring_xml_url":47,"boring_view_url":1,"soilmap_view_url":null,"soiltest_xml_url":47,"soiltest_view_url":47},{"id":477018,"code":"NGIC202104633-0006","latitude":"42.942688888889","longitude":"140.69358055556","source_code":"","project_name":"\u4e00\u822c\u56fd\u90535\u53f7 \u5171\u548c\u753a \u30d0\u30f3\u30ce\u6ca2\u5730\u8cea\u8abf\u67fb\u696d\u52d9","survey_name":"\u4e00\u822c\u56fd\u90535\u53f7 \u5171\u548c\u753a \u30d0\u30f3\u30ce\u6ca2\u5730\u8cea\u8abf\u67fb\u696d\u52d9","client_name":"\u56fd\u571f\u4ea4\u901a\u7701\u5317\u6d77\u9053\u958b\u767a\u5c40\u5c0f\u6a3d\u958b\u767a\u5efa\u8a2d\u90e8 \u672c\u90e8","boring_xml_url":47,"boring_view_url":1,"soilmap_view_url":null,"soiltest_xml_url":47,"soiltest_view_url":47},{"id":477017,"code":"NGIC202104633-0005","latitude":"42.942538888889","longitude":"140.69357222222","source_code":"","project_name":"\u4e00\u822c\u56fd\u90535\u53f7 \u5171\u548c\u753a \u30d0\u30f3\u30ce\u6ca2\u5730\u8cea\u8abf\u67fb\u696d\u52d9","survey_name":"\u4e00\u822c\u56fd\u90535\u53f7 \u5171\u548c\u753a \u30d0\u30f3\u30ce\u6ca2\u5730\u8cea\u8abf\u67fb\u696d\u52d9","client_name":"\u56fd\u571f\u4ea4\u901a\u7701\u5317\u6d77\u9053\u958b\u767a\u5c40\u5c0f\u6a3d\u958b\u767a\u5efa\u8a2d\u90e8 \u672c\u90e8","boring_xml_url":47,"boring_view_url":1,"soilmap_view_url":null,"soiltest_xml_url":0,"soiltest_view_url":0},{"id":477016,"code":"NGIC202104633-0004","latitude":"42.942472222222","longitude":"140.69371944444","source_code":"","project_name":"\u4e00\u822c\u56fd\u90535\u53f7 \u5171\u548c\u753a \u30d0\u30f3\u30ce\u6ca2\u5730\u8cea\u8abf\u67fb\u696d\u52d9","survey_name":"\u4e00\u822c\u56fd\u90535\u53f7 \u5171\u548c\u753a \u30d0\u30f3\u30ce\u6ca2\u5730\u8cea\u8abf\u67fb\u696d\u52d9","client_name":"\u56fd\u571f\u4ea4\u901a\u7701\u5317\u6d77\u9053\u958b\u767a\u5c40\u5c0f\u6a3d\u958b\u767a\u5efa\u8a2d\u90e8 \u672c\u90e8","boring_xml_url":47,"boring_view_url":1,"soilmap_view_url":null,"soiltest_xml_url":47,"soiltest_view_url":47},{"id":477015,"code":"NGIC202104633-0003","latitude":"42.940427777778","longitude":"140.69526111111","source_code":"","project_name":"\u4e00\u822c\u56fd\u90535\u53f7 \u5171\u548c\u753a \u30d0\u30f3\u30ce\u6ca2\u5730\u8cea\u8abf\u67fb\u696d\u52d9","survey_name":"\u4e00\u822c\u56fd\u90535\u53f7 \u5171\u548c\u753a \u30d0\u30f3\u30ce\u6ca2\u5730\u8cea\u8abf\u67fb\u696d\u52d9","client_name":"\u56fd\u571f\u4ea4\u901a\u7701\u5317\u6d77\u9053\u958b\u767a\u5c40\u5c0f\u6a3d\u958b\u767a\u5efa\u8a2d\u90e8 \u672c\u90e8","boring_xml_url":47,"boring_view_url":1,"soilmap_view_url":null,"soiltest_xml_url":47,"soiltest_view_url":47},{"id":477014,"code":"NGIC202104633-0002","latitude":"42.940413888889","longitude":"140.69539722222","source_code":"","project_name":"\u4e00\u822c\u56fd\u90535\u53f7 \u5171\u548c\u753a \u30d0\u30f3\u30ce\u6ca2\u5730\u8cea\u8abf\u67fb\u696d\u52d9","survey_name":"\u4e00\u822c\u56fd\u90535\u53f7 \u5171\u548c\u753a \u30d0\u30f3\u30ce\u6ca2\u5730\u8cea\u8abf\u67fb\u696d\u52d9","client_name":"\u56fd\u571f\u4ea4\u901a\u7701\u5317\u6d77\u9053\u958b\u767a\u5c40\u5c0f\u6a3d\u958b\u767a\u5efa\u8a2d\u90e8 \u672c\u90e8","boring_xml_url":47,"boring_view_url":1,"soilmap_view_url":null,"soiltest_xml_url":47,"soiltest_view_url":47},{"id":477013,"code":"NGIC202104633-0001","latitude":"42.940316666667","longitude":"140.695375","source_code":"","project_name":"\u4e00\u822c\u56fd\u90535\u53f7 \u5171\u548c\u753a \u30d0\u30f3\u30ce\u6ca2\u5730\u8cea\u8abf\u67fb\u696d\u52d9","survey_name":"\u4e00\u822c\u56fd\u90535\u53f7 \u5171\u548c\u753a \u30d0\u30f3\u30ce\u6ca2\u5730\u8cea\u8abf\u67fb\u696d\u52d9","client_name":"\u56fd\u571f\u4ea4\u901a\u7701\u5317\u6d77\u9053\u958b\u767a\u5c40\u5c0f\u6a3d\u958b\u767a\u5efa\u8a2d\u90e8 \u672c\u90e8","boring_xml_url":47,"boring_view_url":1,"soilmap_view_url":null,"soiltest_xml_url":47,"soiltest_view_url":47},{"id":477012,"code":"NGIC202104745-0001","latitude":"26.243791833333","longitude":"127.76966083333","source_code":"","project_name":"","survey_name":"\u4ee4\u548c3\u5e74\u5ea6\u6e96\u521d\u751f\u5730\u3059\u3079\u308a\u767a\u751f\u5371\u967a\u5ea6\u8a55\u4fa1\u306b\u95a2\u3059\u308b\u8abf\u67fb\u691c\u8a0e\u696d\u52d9","client_name":"\u5185\u95a3\u5e9c\u6c96\u7e04\u7dcf\u5408\u4e8b\u52d9\u5c40\u958b\u767a\u5efa\u8a2d\u90e8\u672c\u90e8","boring_xml_url":47,"boring_view_url":1,"soilmap_view_url":null,"soiltest_xml_url":0,"soiltest_view_url":0},{"id":476975,"code":"NGIC202104570-0002","latitude":"37.262919444444","longitude":"138.83324722222","source_code":"","project_name":"","survey_name":"\u4ee4\u548c3\u5e74\u5ea6\u4fe1\u6fc3\u5ddd\u6cb3\u5ddd\u4e8b\u52d9\u6240\u7ba1\u5185\u5730\u8cea\u8abf\u67fb\u696d\u52d9\u5c0f\u5343\u8c37\u5e02\u771f\u4eba\u5730\u533a\u30fb\u5869\u6bbf\u5730\u533a\u5730\u8cea\u8abf\u67fb","client_name":"\u56fd\u571f\u4ea4\u901a\u7701\u5317\u9678\u5730\u65b9\u6574\u5099\u5c40\u4fe1\u6fc3\u5ddd\u6cb3\u5ddd\u4e8b\u52d9\u6240","boring_xml_url":47,"boring_view_url":1,"soilmap_view_url":null,"soiltest_xml_url":47,"soiltest_view_url":47},{"id":476974,"code":"NGIC202104570-0001","latitude":"37.231558333333","longitude":"138.77735555556","source_code":"","project_name":"","survey_name":"\u4ee4\u548c3\u5e74\u5ea6\u4fe1\u6fc3\u5ddd\u6cb3\u5ddd\u4e8b\u52d9\u6240\u7ba1\u5185\u5730\u8cea\u8abf\u67fb\u696d\u52d9\u5c0f\u5343\u8c37\u5e02\u771f\u4eba\u5730\u533a\u30fb\u5869\u6bbf\u5730\u533a\u5730\u8cea\u8abf\u67fb","client_name":"\u56fd\u571f\u4ea4\u901a\u7701\u5317\u9678\u5730\u65b9\u6574\u5099\u5c40\u4fe1\u6fc3\u5ddd\u6cb3\u5ddd\u4e8b\u52d9\u6240","boring_xml_url":47,"boring_view_url":1,"soilmap_view_url":null,"soiltest_xml_url":47,"soiltest_view_url":47},{"id":476972,"code":"NGIC202104723-0010","latitude":"33.706412222222","longitude":"135.99350972222","source_code":"","project_name":"","survey_name":"\u65b0\u5bae\u9053\u8def\u5e83\u89d2\u5730\u533a\u897f\u4ed6\u5730\u8cea\u8abf\u67fb\u696d\u52d9","client_name":"\u56fd\u571f\u4ea4\u901a\u7701\u8fd1\u757f\u5730\u65b9\u6574\u5099\u5c40\u7d00\u5357\u6cb3\u5ddd\u56fd\u9053\u4e8b\u52d9\u6240","boring_xml_url":47,"boring_view_url":1,"soilmap_view_url":null,"soiltest_xml_url":47,"soiltest_view_url":47},{"id":476971,"code":"NGIC202104723-0009","latitude":"33.705844722222","longitude":"135.9930475","source_code":"","project_name":"","survey_name":"\u65b0\u5bae\u9053\u8def\u5e83\u89d2\u5730\u533a\u897f\u4ed6\u5730\u8cea\u8abf\u67fb\u696d\u52d9","client_name":"\u56fd\u571f\u4ea4\u901a\u7701\u8fd1\u757f\u5730\u65b9\u6574\u5099\u5c40\u7d00\u5357\u6cb3\u5ddd\u56fd\u9053\u4e8b\u52d9\u6240","boring_xml_url":47,"boring_view_url":1,"soilmap_view_url":null,"soiltest_xml_url":47,"soiltest_view_url":47},{"id":476970,"code":"NGIC202104723-0008","latitude":"33.705159444444","longitude":"135.99252777778","source_code":"","project_name":"","survey_name":"\u65b0\u5bae\u9053\u8def\u5e83\u89d2\u5730\u533a\u897f\u4ed6\u5730\u8cea\u8abf\u67fb\u696d\u52d9","client_name":"\u56fd\u571f\u4ea4\u901a\u7701\u8fd1\u757f\u5730\u65b9\u6574\u5099\u5c40\u7d00\u5357\u6cb3\u5ddd\u56fd\u9053\u4e8b\u52d9\u6240","boring_xml_url":47,"boring_view_url":1,"soilmap_view_url":null,"soiltest_xml_url":47,"soiltest_view_url":47},{"id":476969,"code":"NGIC202104723-0007","latitude":"33.704543055556","longitude":"135.99207944444","source_code":"","project_name":"","survey_name":"\u65b0\u5bae\u9053\u8def\u5e83\u89d2\u5730\u533a\u897f\u4ed6\u5730\u8cea\u8abf\u67fb\u696d\u52d9","client_name":"\u56fd\u571f\u4ea4\u901a\u7701\u8fd1\u757f\u5730\u65b9\u6574\u5099\u5c40\u7d00\u5357\u6cb3\u5ddd\u56fd\u9053\u4e8b\u52d9\u6240","boring_xml_url":47,"boring_view_url":1,"soilmap_view_url":null,"soiltest_xml_url":47,"soiltest_view_url":47},{"id":476968,"code":"NGIC202104723-0006","latitude":"33.704012222222","longitude":"135.99167277778","source_code":"","project_name":"","survey_name":"\u65b0\u5bae\u9053\u8def\u5e83\u89d2\u5730\u533a\u897f\u4ed6\u5730\u8cea\u8abf\u67fb\u696d\u52d9","client_name":"\u56fd\u571f\u4ea4\u901a\u7701\u8fd1\u757f\u5730\u65b9\u6574\u5099\u5c40\u7d00\u5357\u6cb3\u5ddd\u56fd\u9053\u4e8b\u52d9\u6240","boring_xml_url":47,"boring_view_url":1,"soilmap_view_url":null,"soiltest_xml_url":47,"soiltest_view_url":47},{"id":476967,"code":"NGIC202104723-0005","latitude":"33.703501944444","longitude":"135.99113166667","source_code":"","project_name":"","survey_name":"\u65b0\u5bae\u9053\u8def\u5e83\u89d2\u5730\u533a\u897f\u4ed6\u5730\u8cea\u8abf\u67fb\u696d\u52d9","client_name":"\u56fd\u571f\u4ea4\u901a\u7701\u8fd1\u757f\u5730\u65b9\u6574\u5099\u5c40\u7d00\u5357\u6cb3\u5ddd\u56fd\u9053\u4e8b\u52d9\u6240","boring_xml_url":47,"boring_view_url":1,"soilmap_view_url":null,"soiltest_xml_url":47,"soiltest_view_url":47},{"id":476966,"code":"NGIC202104723-0004","latitude":"33.702994444444","longitude":"135.990635","source_code":"","project_name":"","survey_name":"\u65b0\u5bae\u9053\u8def\u5e83\u89d2\u5730\u533a\u897f\u4ed6\u5730\u8cea\u8abf\u67fb\u696d\u52d9","client_name":"\u56fd\u571f\u4ea4\u901a\u7701\u8fd1\u757f\u5730\u65b9\u6574\u5099\u5c40\u7d00\u5357\u6cb3\u5ddd\u56fd\u9053\u4e8b\u52d9\u6240","boring_xml_url":47,"boring_view_url":1,"soilmap_view_url":null,"soiltest_xml_url":47,"soiltest_view_url":47},{"id":476965,"code":"NGIC202104723-0003","latitude":"33.702516666667","longitude":"135.98996861111","source_code":"","project_name":"","survey_name":"\u65b0\u5bae\u9053\u8def\u5e83\u89d2\u5730\u533a\u897f\u4ed6\u5730\u8cea\u8abf\u67fb\u696d\u52d9","client_name":"\u56fd\u571f\u4ea4\u901a\u7701\u8fd1\u757f\u5730\u65b9\u6574\u5099\u5c40\u7d00\u5357\u6cb3\u5ddd\u56fd\u9053\u4e8b\u52d9\u6240","boring_xml_url":47,"boring_view_url":1,"soilmap_view_url":null,"soiltest_xml_url":47,"soiltest_view_url":47},{"id":476964,"code":"NGIC202104723-0002","latitude":"33.702241666667","longitude":"135.9893175","source_code":"","project_name":"","survey_name":"\u65b0\u5bae\u9053\u8def\u5e83\u89d2\u5730\u533a\u897f\u4ed6\u5730\u8cea\u8abf\u67fb\u696d\u52d9","client_name":"\u56fd\u571f\u4ea4\u901a\u7701\u8fd1\u757f\u5730\u65b9\u6574\u5099\u5c40\u7d00\u5357\u6cb3\u5ddd\u56fd\u9053\u4e8b\u52d9\u6240","boring_xml_url":47,"boring_view_url":1,"soilmap_view_url":null,"soiltest_xml_url":0,"soiltest_view_url":0},{"id":476963,"code":"NGIC202104723-0001","latitude":"33.702265555556","longitude":"135.98912777778","source_code":"","project_name":"","survey_name":"\u65b0\u5bae\u9053\u8def\u5e83\u89d2\u5730\u533a\u897f\u4ed6\u5730\u8cea\u8abf\u67fb\u696d\u52d9","client_name":"\u56fd\u571f\u4ea4\u901a\u7701\u8fd1\u757f\u5730\u65b9\u6574\u5099\u5c40\u7d00\u5357\u6cb3\u5ddd\u56fd\u9053\u4e8b\u52d9\u6240","boring_xml_url":47,"boring_view_url":1,"soilmap_view_url":null,"soiltest_xml_url":0,"soiltest_view_url":0},{"id":476942,"code":"NGIC202104605-0016","latitude":"43.007197222222","longitude":"140.6673","source_code":"","project_name":"\u4e00\u822c\u56fd\u90535\u53f7\u5171\u548c\u753a\u5171\u548c\u5730\u8cea\u8abf\u67fb","survey_name":"\u4e00\u822c\u56fd\u90535\u53f7\u5171\u548c\u753a\u5171\u548c\u5730\u8cea\u8abf\u67fb\u696d\u52d9","client_name":"\u56fd\u571f\u4ea4\u901a\u7701\u5317\u6d77\u9053\u958b\u767a\u5c40\u5c0f\u6a3d\u958b\u767a\u5efa\u8a2d\u90e8\u672c\u90e8","boring_xml_url":47,"boring_view_url":1,"soilmap_view_url":null,"soiltest_xml_url":47,"soiltest_view_url":47},{"id":476941,"code":"NGIC202104605-0015","latitude":"43.006622222222","longitude":"140.66693333333","source_code":"","project_name":"\u4e00\u822c\u56fd\u90535\u53f7\u5171\u548c\u753a\u5171\u548c\u5730\u8cea\u8abf\u67fb","survey_name":"\u4e00\u822c\u56fd\u90535\u53f7\u5171\u548c\u753a\u5171\u548c\u5730\u8cea\u8abf\u67fb\u696d\u52d9","client_name":"\u56fd\u571f\u4ea4\u901a\u7701\u5317\u6d77\u9053\u958b\u767a\u5c40\u5c0f\u6a3d\u958b\u767a\u5efa\u8a2d\u90e8\u672c\u90e8","boring_xml_url":47,"boring_view_url":1,"soilmap_view_url":null,"soiltest_xml_url":47,"soiltest_view_url":47}]}}