{"header":{"xyz":{"source":[],"mosaic":false},"page":1740,"raw":{"soiltest_result":"0","bbox":"57.598333,109.544722,1.933333,163.806111","page":"1740"},"conditions":{"soiltest_result":0,"north":57.598333,"west":109.544722,"south":1.933333,"east":163.806111},"success":true,"message":""},"data":{"meta":{"total":212844,"page":1740,"pages":7095,"count":30},"values":[{"id":476940,"code":"NGIC202104605-0014","latitude":"43.006497222222","longitude":"140.66754166667","source_code":"","project_name":"\u4e00\u822c\u56fd\u90535\u53f7\u5171\u548c\u753a\u5171\u548c\u5730\u8cea\u8abf\u67fb","survey_name":"\u4e00\u822c\u56fd\u90535\u53f7\u5171\u548c\u753a\u5171\u548c\u5730\u8cea\u8abf\u67fb\u696d\u52d9","client_name":"\u56fd\u571f\u4ea4\u901a\u7701\u5317\u6d77\u9053\u958b\u767a\u5c40\u5c0f\u6a3d\u958b\u767a\u5efa\u8a2d\u90e8\u672c\u90e8","boring_xml_url":47,"boring_view_url":1,"soilmap_view_url":null,"soiltest_xml_url":47,"soiltest_view_url":47},{"id":476939,"code":"NGIC202104605-0013","latitude":"42.988341666667","longitude":"140.65935555556","source_code":"","project_name":"\u4e00\u822c\u56fd\u90535\u53f7\u5171\u548c\u753a\u5171\u548c\u5730\u8cea\u8abf\u67fb","survey_name":"\u4e00\u822c\u56fd\u90535\u53f7\u5171\u548c\u753a\u5171\u548c\u5730\u8cea\u8abf\u67fb\u696d\u52d9","client_name":"\u56fd\u571f\u4ea4\u901a\u7701\u5317\u6d77\u9053\u958b\u767a\u5c40\u5c0f\u6a3d\u958b\u767a\u5efa\u8a2d\u90e8\u672c\u90e8","boring_xml_url":47,"boring_view_url":1,"soilmap_view_url":null,"soiltest_xml_url":47,"soiltest_view_url":47},{"id":476938,"code":"NGIC202104605-0012","latitude":"42.987169444444","longitude":"140.658175","source_code":"","project_name":"\u4e00\u822c\u56fd\u90535\u53f7\u5171\u548c\u753a\u5171\u548c\u5730\u8cea\u8abf\u67fb","survey_name":"\u4e00\u822c\u56fd\u90535\u53f7\u5171\u548c\u753a\u5171\u548c\u5730\u8cea\u8abf\u67fb\u696d\u52d9","client_name":"\u56fd\u571f\u4ea4\u901a\u7701\u5317\u6d77\u9053\u958b\u767a\u5c40\u5c0f\u6a3d\u958b\u767a\u5efa\u8a2d\u90e8\u672c\u90e8","boring_xml_url":47,"boring_view_url":1,"soilmap_view_url":null,"soiltest_xml_url":47,"soiltest_view_url":47},{"id":476937,"code":"NGIC202104605-0011","latitude":"42.986502777778","longitude":"140.65735555556","source_code":"","project_name":"\u4e00\u822c\u56fd\u90535\u53f7\u5171\u548c\u753a\u5171\u548c\u5730\u8cea\u8abf\u67fb","survey_name":"\u4e00\u822c\u56fd\u90535\u53f7\u5171\u548c\u753a\u5171\u548c\u5730\u8cea\u8abf\u67fb\u696d\u52d9","client_name":"\u56fd\u571f\u4ea4\u901a\u7701\u5317\u6d77\u9053\u958b\u767a\u5c40\u5c0f\u6a3d\u958b\u767a\u5efa\u8a2d\u90e8\u672c\u90e8","boring_xml_url":47,"boring_view_url":1,"soilmap_view_url":null,"soiltest_xml_url":47,"soiltest_view_url":47},{"id":476936,"code":"NGIC202104605-0007","latitude":"42.979419444444","longitude":"140.65447222222","source_code":"","project_name":"\u4e00\u822c\u56fd\u90535\u53f7\u5171\u548c\u753a\u5171\u548c\u5730\u8cea\u8abf\u67fb","survey_name":"\u4e00\u822c\u56fd\u90535\u53f7\u5171\u548c\u753a\u5171\u548c\u5730\u8cea\u8abf\u67fb\u696d\u52d9","client_name":"\u56fd\u571f\u4ea4\u901a\u7701\u5317\u6d77\u9053\u958b\u767a\u5c40\u5c0f\u6a3d\u958b\u767a\u5efa\u8a2d\u90e8\u672c\u90e8","boring_xml_url":47,"boring_view_url":1,"soilmap_view_url":null,"soiltest_xml_url":0,"soiltest_view_url":0},{"id":476935,"code":"NGIC202104605-0006","latitude":"42.979086111111","longitude":"140.65448611111","source_code":"","project_name":"\u4e00\u822c\u56fd\u90535\u53f7\u5171\u548c\u753a\u5171\u548c\u5730\u8cea\u8abf\u67fb","survey_name":"\u4e00\u822c\u56fd\u90535\u53f7\u5171\u548c\u753a\u5171\u548c\u5730\u8cea\u8abf\u67fb\u696d\u52d9","client_name":"\u56fd\u571f\u4ea4\u901a\u7701\u5317\u6d77\u9053\u958b\u767a\u5c40\u5c0f\u6a3d\u958b\u767a\u5efa\u8a2d\u90e8\u672c\u90e8","boring_xml_url":47,"boring_view_url":1,"soilmap_view_url":null,"soiltest_xml_url":47,"soiltest_view_url":47},{"id":476934,"code":"NGIC202104605-0005","latitude":"42.978311111111","longitude":"140.65485833333","source_code":"","project_name":"\u4e00\u822c\u56fd\u90535\u53f7\u5171\u548c\u753a\u5171\u548c\u5730\u8cea\u8abf\u67fb","survey_name":"\u4e00\u822c\u56fd\u90535\u53f7\u5171\u548c\u753a\u5171\u548c\u5730\u8cea\u8abf\u67fb\u696d\u52d9","client_name":"\u56fd\u571f\u4ea4\u901a\u7701\u5317\u6d77\u9053\u958b\u767a\u5c40\u5c0f\u6a3d\u958b\u767a\u5efa\u8a2d\u90e8\u672c\u90e8","boring_xml_url":47,"boring_view_url":1,"soilmap_view_url":null,"soiltest_xml_url":47,"soiltest_view_url":47},{"id":476933,"code":"NGIC202104605-0004","latitude":"42.977394444444","longitude":"140.65549166667","source_code":"","project_name":"\u4e00\u822c\u56fd\u90535\u53f7\u5171\u548c\u753a\u5171\u548c\u5730\u8cea\u8abf\u67fb","survey_name":"\u4e00\u822c\u56fd\u90535\u53f7\u5171\u548c\u753a\u5171\u548c\u5730\u8cea\u8abf\u67fb\u696d\u52d9","client_name":"\u56fd\u571f\u4ea4\u901a\u7701\u5317\u6d77\u9053\u958b\u767a\u5c40\u5c0f\u6a3d\u958b\u767a\u5efa\u8a2d\u90e8\u672c\u90e8","boring_xml_url":47,"boring_view_url":1,"soilmap_view_url":null,"soiltest_xml_url":47,"soiltest_view_url":47},{"id":476932,"code":"NGIC202104605-0003","latitude":"42.976755555556","longitude":"140.65599166667","source_code":"","project_name":"\u4e00\u822c\u56fd\u90535\u53f7\u5171\u548c\u753a\u5171\u548c\u5730\u8cea\u8abf\u67fb","survey_name":"\u4e00\u822c\u56fd\u90535\u53f7\u5171\u548c\u753a\u5171\u548c\u5730\u8cea\u8abf\u67fb\u696d\u52d9","client_name":"\u56fd\u571f\u4ea4\u901a\u7701\u5317\u6d77\u9053\u958b\u767a\u5c40\u5c0f\u6a3d\u958b\u767a\u5efa\u8a2d\u90e8\u672c\u90e8","boring_xml_url":47,"boring_view_url":1,"soilmap_view_url":null,"soiltest_xml_url":0,"soiltest_view_url":0},{"id":476931,"code":"NGIC202104605-0002","latitude":"42.976583333333","longitude":"140.65614722222","source_code":"","project_name":"\u4e00\u822c\u56fd\u90535\u53f7\u5171\u548c\u753a\u5171\u548c\u5730\u8cea\u8abf\u67fb","survey_name":"\u4e00\u822c\u56fd\u90535\u53f7\u5171\u548c\u753a\u5171\u548c\u5730\u8cea\u8abf\u67fb\u696d\u52d9","client_name":"\u56fd\u571f\u4ea4\u901a\u7701\u5317\u6d77\u9053\u958b\u767a\u5c40\u5c0f\u6a3d\u958b\u767a\u5efa\u8a2d\u90e8\u672c\u90e8","boring_xml_url":47,"boring_view_url":1,"soilmap_view_url":null,"soiltest_xml_url":0,"soiltest_view_url":0},{"id":476930,"code":"NGIC202104605-0001","latitude":"42.976194444444","longitude":"140.656525","source_code":"","project_name":"\u4e00\u822c\u56fd\u90535\u53f7\u5171\u548c\u753a\u5171\u548c\u5730\u8cea\u8abf\u67fb","survey_name":"\u4e00\u822c\u56fd\u90535\u53f7\u5171\u548c\u753a\u5171\u548c\u5730\u8cea\u8abf\u67fb\u696d\u52d9","client_name":"\u56fd\u571f\u4ea4\u901a\u7701\u5317\u6d77\u9053\u958b\u767a\u5c40\u5c0f\u6a3d\u958b\u767a\u5efa\u8a2d\u90e8\u672c\u90e8","boring_xml_url":47,"boring_view_url":1,"soilmap_view_url":null,"soiltest_xml_url":47,"soiltest_view_url":47},{"id":476929,"code":"NGIC202104706-0003","latitude":"35.279248444444","longitude":"132.612835","source_code":"","project_name":"","survey_name":"\u4ee4\u548c3\u5e74\u5ea6\u591a\u4f0e\u753a\u707d\u5bb3\u5fa9\u65e7\u8abf\u67fb\u305d\u306e1(8\u670818\u65e5)","client_name":"\u56fd\u571f\u4ea4\u901a\u7701\u4e2d\u56fd\u5730\u65b9\u6574\u5099\u5c40\u677e\u6c5f\u56fd\u9053\u4e8b\u52d9\u6240","boring_xml_url":47,"boring_view_url":1,"soilmap_view_url":null,"soiltest_xml_url":0,"soiltest_view_url":0},{"id":476928,"code":"NGIC202104706-0002","latitude":"35.279804333333","longitude":"132.6130685","source_code":"","project_name":"","survey_name":"\u4ee4\u548c3\u5e74\u5ea6\u591a\u4f0e\u753a\u707d\u5bb3\u5fa9\u65e7\u8abf\u67fb\u305d\u306e1(8\u670818\u65e5)","client_name":"\u56fd\u571f\u4ea4\u901a\u7701\u4e2d\u56fd\u5730\u65b9\u6574\u5099\u5c40\u677e\u6c5f\u56fd\u9053\u4e8b\u52d9\u6240","boring_xml_url":47,"boring_view_url":1,"soilmap_view_url":null,"soiltest_xml_url":0,"soiltest_view_url":0},{"id":476927,"code":"NGIC202104706-0001","latitude":"35.279626638889","longitude":"132.61307011111","source_code":"","project_name":"","survey_name":"\u4ee4\u548c3\u5e74\u5ea6\u591a\u4f0e\u753a\u707d\u5bb3\u5fa9\u65e7\u8abf\u67fb\u305d\u306e1(8\u670818\u65e5)","client_name":"\u56fd\u571f\u4ea4\u901a\u7701\u4e2d\u56fd\u5730\u65b9\u6574\u5099\u5c40\u677e\u6c5f\u56fd\u9053\u4e8b\u52d9\u6240","boring_xml_url":47,"boring_view_url":1,"soilmap_view_url":null,"soiltest_xml_url":0,"soiltest_view_url":0},{"id":476871,"code":"NGIC202104724-0002","latitude":"34.578761166667","longitude":"132.21123675","source_code":"","project_name":"","survey_name":"\u4ee4\u548c3\u5e74\u5ea6\u592a\u7530\u5ddd\u4e0a\u6d41\u5730\u8cea\u8abf\u67fb\u305d\u306e2\u696d\u52d9","client_name":"\u56fd\u571f\u4ea4\u901a\u7701\u4e2d\u56fd\u5730\u65b9\u6574\u5099\u5c40\u592a\u7530\u5ddd\u6cb3\u5ddd\u4e8b\u52d9\u6240","boring_xml_url":47,"boring_view_url":1,"soilmap_view_url":null,"soiltest_xml_url":0,"soiltest_view_url":0},{"id":476869,"code":"NGIC202104704-0012","latitude":"34.716794444444","longitude":"133.68122777778","source_code":"","project_name":"","survey_name":"\u4ee4\u548c3\u5e74\u5ea6\u5ca1\u5c71\u56fd\u9053\u7ba1\u5185\u5730\u8cea\u8abf\u67fb\u696d\u52d9","client_name":"\u56fd\u571f\u4ea4\u901a\u7701\u4e2d\u56fd\u5730\u65b9\u6574\u5099\u5c40\u5ca1\u5c71\u56fd\u9053\u4e8b\u52d9\u6240","boring_xml_url":47,"boring_view_url":1,"soilmap_view_url":null,"soiltest_xml_url":0,"soiltest_view_url":0},{"id":476868,"code":"NGIC202104704-0011","latitude":"34.713469444444","longitude":"133.69730555556","source_code":"","project_name":"","survey_name":"\u4ee4\u548c3\u5e74\u5ea6\u5ca1\u5c71\u56fd\u9053\u7ba1\u5185\u5730\u8cea\u8abf\u67fb\u696d\u52d9","client_name":"\u56fd\u571f\u4ea4\u901a\u7701\u4e2d\u56fd\u5730\u65b9\u6574\u5099\u5c40\u5ca1\u5c71\u56fd\u9053\u4e8b\u52d9\u6240","boring_xml_url":47,"boring_view_url":1,"soilmap_view_url":null,"soiltest_xml_url":0,"soiltest_view_url":0},{"id":476867,"code":"NGIC202104704-0010","latitude":"34.713413888889","longitude":"133.69939722222","source_code":"","project_name":"","survey_name":"\u4ee4\u548c3\u5e74\u5ea6\u5ca1\u5c71\u56fd\u9053\u7ba1\u5185\u5730\u8cea\u8abf\u67fb\u696d\u52d9","client_name":"\u56fd\u571f\u4ea4\u901a\u7701\u4e2d\u56fd\u5730\u65b9\u6574\u5099\u5c40\u5ca1\u5c71\u56fd\u9053\u4e8b\u52d9\u6240","boring_xml_url":47,"boring_view_url":1,"soilmap_view_url":null,"soiltest_xml_url":0,"soiltest_view_url":0},{"id":476866,"code":"NGIC202104704-0009","latitude":"34.713116666667","longitude":"133.70096944444","source_code":"","project_name":"","survey_name":"\u4ee4\u548c3\u5e74\u5ea6\u5ca1\u5c71\u56fd\u9053\u7ba1\u5185\u5730\u8cea\u8abf\u67fb\u696d\u52d9","client_name":"\u56fd\u571f\u4ea4\u901a\u7701\u4e2d\u56fd\u5730\u65b9\u6574\u5099\u5c40\u5ca1\u5c71\u56fd\u9053\u4e8b\u52d9\u6240","boring_xml_url":47,"boring_view_url":1,"soilmap_view_url":null,"soiltest_xml_url":0,"soiltest_view_url":0},{"id":476865,"code":"NGIC202104704-0008","latitude":"34.712822222222","longitude":"133.70297777778","source_code":"","project_name":"","survey_name":"\u4ee4\u548c3\u5e74\u5ea6\u5ca1\u5c71\u56fd\u9053\u7ba1\u5185\u5730\u8cea\u8abf\u67fb\u696d\u52d9","client_name":"\u56fd\u571f\u4ea4\u901a\u7701\u4e2d\u56fd\u5730\u65b9\u6574\u5099\u5c40\u5ca1\u5c71\u56fd\u9053\u4e8b\u52d9\u6240","boring_xml_url":47,"boring_view_url":1,"soilmap_view_url":null,"soiltest_xml_url":0,"soiltest_view_url":0},{"id":476864,"code":"NGIC202104704-0007","latitude":"34.712233333333","longitude":"133.70415555556","source_code":"","project_name":"","survey_name":"\u4ee4\u548c3\u5e74\u5ea6\u5ca1\u5c71\u56fd\u9053\u7ba1\u5185\u5730\u8cea\u8abf\u67fb\u696d\u52d9","client_name":"\u56fd\u571f\u4ea4\u901a\u7701\u4e2d\u56fd\u5730\u65b9\u6574\u5099\u5c40\u5ca1\u5c71\u56fd\u9053\u4e8b\u52d9\u6240","boring_xml_url":47,"boring_view_url":1,"soilmap_view_url":null,"soiltest_xml_url":0,"soiltest_view_url":0},{"id":476863,"code":"NGIC202104704-0006","latitude":"34.712213888889","longitude":"133.70413055556","source_code":"","project_name":"","survey_name":"\u4ee4\u548c3\u5e74\u5ea6\u5ca1\u5c71\u56fd\u9053\u7ba1\u5185\u5730\u8cea\u8abf\u67fb\u696d\u52d9","client_name":"\u56fd\u571f\u4ea4\u901a\u7701\u4e2d\u56fd\u5730\u65b9\u6574\u5099\u5c40\u5ca1\u5c71\u56fd\u9053\u4e8b\u52d9\u6240","boring_xml_url":47,"boring_view_url":1,"soilmap_view_url":null,"soiltest_xml_url":0,"soiltest_view_url":0},{"id":476862,"code":"NGIC202104704-0005","latitude":"34.710366666667","longitude":"133.7064","source_code":"","project_name":"","survey_name":"\u4ee4\u548c3\u5e74\u5ea6\u5ca1\u5c71\u56fd\u9053\u7ba1\u5185\u5730\u8cea\u8abf\u67fb\u696d\u52d9","client_name":"\u56fd\u571f\u4ea4\u901a\u7701\u4e2d\u56fd\u5730\u65b9\u6574\u5099\u5c40\u5ca1\u5c71\u56fd\u9053\u4e8b\u52d9\u6240","boring_xml_url":47,"boring_view_url":1,"soilmap_view_url":null,"soiltest_xml_url":0,"soiltest_view_url":0},{"id":476861,"code":"NGIC202104704-0004","latitude":"34.709052777778","longitude":"133.70805","source_code":"","project_name":"","survey_name":"\u4ee4\u548c3\u5e74\u5ea6\u5ca1\u5c71\u56fd\u9053\u7ba1\u5185\u5730\u8cea\u8abf\u67fb\u696d\u52d9","client_name":"\u56fd\u571f\u4ea4\u901a\u7701\u4e2d\u56fd\u5730\u65b9\u6574\u5099\u5c40\u5ca1\u5c71\u56fd\u9053\u4e8b\u52d9\u6240","boring_xml_url":47,"boring_view_url":1,"soilmap_view_url":null,"soiltest_xml_url":0,"soiltest_view_url":0},{"id":476860,"code":"NGIC202104704-0003","latitude":"34.707886111111","longitude":"133.70955","source_code":"","project_name":"","survey_name":"\u4ee4\u548c3\u5e74\u5ea6\u5ca1\u5c71\u56fd\u9053\u7ba1\u5185\u5730\u8cea\u8abf\u67fb\u696d\u52d9","client_name":"\u56fd\u571f\u4ea4\u901a\u7701\u4e2d\u56fd\u5730\u65b9\u6574\u5099\u5c40\u5ca1\u5c71\u56fd\u9053\u4e8b\u52d9\u6240","boring_xml_url":47,"boring_view_url":1,"soilmap_view_url":null,"soiltest_xml_url":0,"soiltest_view_url":0},{"id":476859,"code":"NGIC202104704-0002","latitude":"34.886844444444","longitude":"133.91550555556","source_code":"","project_name":"","survey_name":"\u4ee4\u548c3\u5e74\u5ea6\u5ca1\u5c71\u56fd\u9053\u7ba1\u5185\u5730\u8cea\u8abf\u67fb\u696d\u52d9","client_name":"\u56fd\u571f\u4ea4\u901a\u7701\u4e2d\u56fd\u5730\u65b9\u6574\u5099\u5c40\u5ca1\u5c71\u56fd\u9053\u4e8b\u52d9\u6240","boring_xml_url":47,"boring_view_url":1,"soilmap_view_url":null,"soiltest_xml_url":0,"soiltest_view_url":0},{"id":476858,"code":"NGIC202104704-0001","latitude":"34.887086111111","longitude":"133.91548888889","source_code":"","project_name":"","survey_name":"\u4ee4\u548c3\u5e74\u5ea6\u5ca1\u5c71\u56fd\u9053\u7ba1\u5185\u5730\u8cea\u8abf\u67fb\u696d\u52d9","client_name":"\u56fd\u571f\u4ea4\u901a\u7701\u4e2d\u56fd\u5730\u65b9\u6574\u5099\u5c40\u5ca1\u5c71\u56fd\u9053\u4e8b\u52d9\u6240","boring_xml_url":47,"boring_view_url":1,"soilmap_view_url":null,"soiltest_xml_url":0,"soiltest_view_url":0},{"id":476830,"code":"NGIC202104578-0013","latitude":"34.436222222222","longitude":"131.42633333333","source_code":"","project_name":"\u4ee4\u548c3\u5e74\u5ea6\u5927\u4e95\u30fb\u8429\u9053\u8def\u693f\u5730\u533a\u5916\u5730\u8cea\u8abf\u67fb\u696d\u52d9","survey_name":"\u4ee4\u548c3\u5e74\u5ea6\u5927\u4e95\u30fb\u8429\u9053\u8def\u693f\u5730\u533a\u5916\u5730\u8cea\u8abf\u67fb\u696d\u52d9","client_name":"\u56fd\u571f\u4ea4\u901a\u7701\u4e2d\u56fd\u5730\u65b9\u6574\u5099\u5c40\u5c71\u9670\u897f\u90e8\u56fd\u9053\u4e8b\u52d9\u6240","boring_xml_url":47,"boring_view_url":1,"soilmap_view_url":null,"soiltest_xml_url":0,"soiltest_view_url":0},{"id":476829,"code":"NGIC202104578-0012","latitude":"34.436111111111","longitude":"131.42652777778","source_code":"","project_name":"\u4ee4\u548c3\u5e74\u5ea6\u5927\u4e95\u30fb\u8429\u9053\u8def\u693f\u5730\u533a\u5916\u5730\u8cea\u8abf\u67fb\u696d\u52d9","survey_name":"\u4ee4\u548c3\u5e74\u5ea6\u5927\u4e95\u30fb\u8429\u9053\u8def\u693f\u5730\u533a\u5916\u5730\u8cea\u8abf\u67fb\u696d\u52d9","client_name":"\u56fd\u571f\u4ea4\u901a\u7701\u4e2d\u56fd\u5730\u65b9\u6574\u5099\u5c40\u5c71\u9670\u897f\u90e8\u56fd\u9053\u4e8b\u52d9\u6240","boring_xml_url":47,"boring_view_url":1,"soilmap_view_url":null,"soiltest_xml_url":0,"soiltest_view_url":0},{"id":476828,"code":"NGIC202104578-0011","latitude":"34.432361111111","longitude":"131.42677777778","source_code":"","project_name":"\u4ee4\u548c3\u5e74\u5ea6\u5927\u4e95\u30fb\u8429\u9053\u8def\u693f\u5730\u533a\u5916\u5730\u8cea\u8abf\u67fb\u696d\u52d9","survey_name":"\u4ee4\u548c3\u5e74\u5ea6\u5927\u4e95\u30fb\u8429\u9053\u8def\u693f\u5730\u533a\u5916\u5730\u8cea\u8abf\u67fb\u696d\u52d9","client_name":"\u56fd\u571f\u4ea4\u901a\u7701\u4e2d\u56fd\u5730\u65b9\u6574\u5099\u5c40\u5c71\u9670\u897f\u90e8\u56fd\u9053\u4e8b\u52d9\u6240","boring_xml_url":47,"boring_view_url":1,"soilmap_view_url":null,"soiltest_xml_url":0,"soiltest_view_url":0}]}}