{"header":{"xyz":{"source":[],"mosaic":false},"page":1746,"raw":{"soiltest_result":"0","bbox":"57.598333,109.544722,1.933333,163.806111","page":"1746"},"conditions":{"soiltest_result":0,"north":57.598333,"west":109.544722,"south":1.933333,"east":163.806111},"success":true,"message":""},"data":{"meta":{"total":212844,"page":1746,"pages":7095,"count":30},"values":[{"id":475645,"code":"NGIC202104596-0005","latitude":"44.033786944444","longitude":"141.66987802778","source_code":"","project_name":"","survey_name":"\u4e00\u822c\u56fd\u9053232\u53f7 \u5c0f\u5e73\u753a \u5c0f\u5e73\u9632\u707d\u5730\u8cea\u8abf\u67fb\u696d\u52d9","client_name":"\u56fd\u571f\u4ea4\u901a\u7701\u5317\u6d77\u9053\u958b\u767a\u5c40\u7559\u840c\u958b\u767a\u5efa\u8a2d\u90e8\u672c\u90e8","boring_xml_url":47,"boring_view_url":1,"soilmap_view_url":null,"soiltest_xml_url":0,"soiltest_view_url":0},{"id":475644,"code":"NGIC202104596-0004","latitude":"44.034648277778","longitude":"141.67007511111","source_code":"","project_name":"","survey_name":"\u4e00\u822c\u56fd\u9053232\u53f7 \u5c0f\u5e73\u753a \u5c0f\u5e73\u9632\u707d\u5730\u8cea\u8abf\u67fb\u696d\u52d9","client_name":"\u56fd\u571f\u4ea4\u901a\u7701\u5317\u6d77\u9053\u958b\u767a\u5c40\u7559\u840c\u958b\u767a\u5efa\u8a2d\u90e8\u672c\u90e8","boring_xml_url":47,"boring_view_url":1,"soilmap_view_url":null,"soiltest_xml_url":0,"soiltest_view_url":0},{"id":475643,"code":"NGIC202104596-0003","latitude":"44.03596875","longitude":"141.67152322222","source_code":"","project_name":"","survey_name":"\u4e00\u822c\u56fd\u9053232\u53f7 \u5c0f\u5e73\u753a \u5c0f\u5e73\u9632\u707d\u5730\u8cea\u8abf\u67fb\u696d\u52d9","client_name":"\u56fd\u571f\u4ea4\u901a\u7701\u5317\u6d77\u9053\u958b\u767a\u5c40\u7559\u840c\u958b\u767a\u5efa\u8a2d\u90e8\u672c\u90e8","boring_xml_url":47,"boring_view_url":1,"soilmap_view_url":null,"soiltest_xml_url":0,"soiltest_view_url":0},{"id":475642,"code":"NGIC202104596-0002","latitude":"44.040690027778","longitude":"141.66330125","source_code":"","project_name":"","survey_name":"\u4e00\u822c\u56fd\u9053232\u53f7\u5c0f\u5e73\u753a\u5c0f\u5e73\u9632\u707d\u5730\u8cea\u8abf\u67fb\u696d\u52d9","client_name":"\u56fd\u571f\u4ea4\u901a\u7701\u5317\u6d77\u9053\u958b\u767a\u5c40\u7559\u840c\u958b\u767a\u5efa\u8a2d\u90e8\u672c\u90e8","boring_xml_url":47,"boring_view_url":1,"soilmap_view_url":null,"soiltest_xml_url":0,"soiltest_view_url":0},{"id":475641,"code":"NGIC202104596-0001","latitude":"44.045515138889","longitude":"141.66365561111","source_code":"","project_name":"","survey_name":"\u4e00\u822c\u56fd\u9053232\u53f7\u5c0f\u5e73\u753a\u5c0f\u5e73\u9632\u707d\u5730\u8cea\u8abf\u67fb\u696d\u52d9","client_name":"\u56fd\u571f\u4ea4\u901a\u7701\u5317\u6d77\u9053\u958b\u767a\u5c40\u7559\u840c\u958b\u767a\u5efa\u8a2d\u90e8\u672c\u90e8","boring_xml_url":47,"boring_view_url":1,"soilmap_view_url":null,"soiltest_xml_url":0,"soiltest_view_url":0},{"id":475640,"code":"NGIC202104608-0005","latitude":"44.254975","longitude":"142.42323888889","source_code":"","project_name":"\u56fd\u55b6\u304b\u3093\u304c\u3044\u6392\u6c34\u4e8b\u696d","survey_name":"\u4ee4\u548c3\u5e74\u5ea6\u65bd\u884c\u98a8\u9023\u591a\u5bc4\u5730\u533a\u4e8b\u696d\u8a08\u753b\u7b49\u7b56\u5b9a\u696d\u52d9","client_name":"\u56fd\u571f\u4ea4\u901a\u7701\u5317\u6d77\u9053\u958b\u767a\u5c40\u65ed\u5ddd\u958b\u767a\u5efa\u8a2d\u90e8\u3000\u8fb2\u696d\u8a08\u753b\u8ab2","boring_xml_url":47,"boring_view_url":1,"soilmap_view_url":null,"soiltest_xml_url":47,"soiltest_view_url":47},{"id":475639,"code":"NGIC202104608-0004","latitude":"44.283027777778","longitude":"142.41564722222","source_code":"","project_name":"\u56fd\u55b6\u304b\u3093\u304c\u3044\u6392\u6c34\u4e8b\u696d","survey_name":"\u4ee4\u548c3\u5e74\u5ea6\u65bd\u884c\u98a8\u9023\u591a\u5bc4\u5730\u533a\u4e8b\u696d\u8a08\u753b\u7b49\u7b56\u5b9a\u696d\u52d9","client_name":"\u56fd\u571f\u4ea4\u901a\u7701\u5317\u6d77\u9053\u958b\u767a\u5c40\u65ed\u5ddd\u958b\u767a\u5efa\u8a2d\u90e8\u3000\u8fb2\u696d\u8a08\u753b\u8ab2","boring_xml_url":47,"boring_view_url":1,"soilmap_view_url":null,"soiltest_xml_url":47,"soiltest_view_url":47},{"id":475638,"code":"NGIC202104608-0003","latitude":"44.283558333333","longitude":"142.41189166667","source_code":"","project_name":"\u56fd\u55b6\u304b\u3093\u304c\u3044\u6392\u6c34\u4e8b\u696d","survey_name":"\u4ee4\u548c3\u5e74\u5ea6\u65bd\u884c\u98a8\u9023\u591a\u5bc4\u5730\u533a\u4e8b\u696d\u8a08\u753b\u7b49\u7b56\u5b9a\u696d\u52d9","client_name":"\u56fd\u571f\u4ea4\u901a\u7701\u5317\u6d77\u9053\u958b\u767a\u5c40\u65ed\u5ddd\u958b\u767a\u5efa\u8a2d\u90e8\u3000\u8fb2\u696d\u8a08\u753b\u8ab2","boring_xml_url":47,"boring_view_url":1,"soilmap_view_url":null,"soiltest_xml_url":47,"soiltest_view_url":47},{"id":475637,"code":"NGIC202104608-0002","latitude":"44.283527777778","longitude":"142.41073888889","source_code":"","project_name":"\u56fd\u55b6\u304b\u3093\u304c\u3044\u6392\u6c34\u4e8b\u696d","survey_name":"\u4ee4\u548c3\u5e74\u5ea6\u65bd\u884c\u98a8\u9023\u591a\u5bc4\u5730\u533a\u4e8b\u696d\u8a08\u753b\u7b49\u7b56\u5b9a\u696d\u52d9","client_name":"\u56fd\u571f\u4ea4\u901a\u7701\u5317\u6d77\u9053\u958b\u767a\u5c40\u65ed\u5ddd\u958b\u767a\u5efa\u8a2d\u90e8\u3000\u8fb2\u696d\u8a08\u753b\u8ab2","boring_xml_url":47,"boring_view_url":1,"soilmap_view_url":null,"soiltest_xml_url":47,"soiltest_view_url":47},{"id":475636,"code":"NGIC202104608-0001","latitude":"44.283441666667","longitude":"142.40590555556","source_code":"","project_name":"\u56fd\u55b6\u304b\u3093\u304c\u3044\u6392\u6c34\u4e8b\u696d","survey_name":"\u4ee4\u548c3\u5e74\u5ea6\u65bd\u884c\u98a8\u9023\u591a\u5bc4\u5730\u533a\u4e8b\u696d\u8a08\u753b\u7b49\u7b56\u5b9a\u696d\u52d9","client_name":"\u56fd\u571f\u4ea4\u901a\u7701\u5317\u6d77\u9053\u958b\u767a\u5c40\u65ed\u5ddd\u958b\u767a\u5efa\u8a2d\u90e8\u3000\u8fb2\u696d\u8a08\u753b\u8ab2","boring_xml_url":47,"boring_view_url":1,"soilmap_view_url":null,"soiltest_xml_url":47,"soiltest_view_url":47},{"id":475628,"code":"NGIC202104599-0009","latitude":"36.573816666667","longitude":"140.41053333333","source_code":"","project_name":"R2\u4e45\u6148\u5ddd\u4e0a\u5927\u8cc0\u5730\u533a\u5916\u5730\u8cea\u8abf\u67fb\u696d\u52d9","survey_name":"R2\u4e45\u6148\u5ddd\u4e0a\u5927\u8cc0\u5730\u533a\u5916\u5730\u8cea\u8abf\u67fb\u696d\u52d9","client_name":"\u56fd\u571f\u4ea4\u901a\u7701\u95a2\u6771\u5730\u65b9\u6574\u5099\u5c40\u4e45\u6148\u5ddd\u7dca\u6025\u6cbb\u6c34\u5bfe\u7b56\u6cb3\u5ddd\u4e8b\u52d9\u6240","boring_xml_url":47,"boring_view_url":1,"soilmap_view_url":null,"soiltest_xml_url":47,"soiltest_view_url":47},{"id":475627,"code":"NGIC202104599-0008","latitude":"36.573994444444","longitude":"140.41004166667","source_code":"","project_name":"R2\u4e45\u6148\u5ddd\u4e0a\u5927\u8cc0\u5730\u533a\u5916\u5730\u8cea\u8abf\u67fb\u696d\u52d9","survey_name":"R2\u4e45\u6148\u5ddd\u4e0a\u5927\u8cc0\u5730\u533a\u5916\u5730\u8cea\u8abf\u67fb\u696d\u52d9","client_name":"\u56fd\u571f\u4ea4\u901a\u7701\u95a2\u6771\u5730\u65b9\u6574\u5099\u5c40\u4e45\u6148\u5ddd\u7dca\u6025\u6cbb\u6c34\u5bfe\u7b56\u6cb3\u5ddd\u4e8b\u52d9\u6240","boring_xml_url":47,"boring_view_url":1,"soilmap_view_url":null,"soiltest_xml_url":0,"soiltest_view_url":0},{"id":475626,"code":"NGIC202104599-0007","latitude":"36.498636111111","longitude":"140.55957222222","source_code":"","project_name":"R2\u4e45\u6148\u5ddd\u4e0a\u5927\u8cc0\u5730\u533a\u5916\u5730\u8cea\u8abf\u67fb\u696d\u52d9","survey_name":"R2\u4e45\u6148\u5ddd\u4e0a\u5927\u8cc0\u5730\u533a\u5916\u5730\u8cea\u8abf\u67fb\u696d\u52d9","client_name":"\u56fd\u571f\u4ea4\u901a\u7701\u95a2\u6771\u5730\u65b9\u6574\u5099\u5c40\u4e45\u6148\u5ddd\u7dca\u6025\u6cbb\u6c34\u5bfe\u7b56\u6cb3\u5ddd\u4e8b\u52d9\u6240","boring_xml_url":47,"boring_view_url":1,"soilmap_view_url":null,"soiltest_xml_url":47,"soiltest_view_url":47},{"id":475625,"code":"NGIC202104599-0006","latitude":"36.497458333333","longitude":"140.56146388889","source_code":"","project_name":"R2\u4e45\u6148\u5ddd\u4e0a\u5927\u8cc0\u5730\u533a\u5916\u5730\u8cea\u8abf\u67fb\u696d\u52d9","survey_name":"R2\u4e45\u6148\u5ddd\u4e0a\u5927\u8cc0\u5730\u533a\u5916\u5730\u8cea\u8abf\u67fb\u696d\u52d9","client_name":"\u56fd\u571f\u4ea4\u901a\u7701\u95a2\u6771\u5730\u65b9\u6574\u5099\u5c40\u4e45\u6148\u5ddd\u7dca\u6025\u6cbb\u6c34\u5bfe\u7b56\u6cb3\u5ddd\u4e8b\u52d9\u6240","boring_xml_url":47,"boring_view_url":1,"soilmap_view_url":null,"soiltest_xml_url":47,"soiltest_view_url":47},{"id":475624,"code":"NGIC202104599-0005","latitude":"36.501744444444","longitude":"140.55673888889","source_code":"","project_name":"R2\u4e45\u6148\u5ddd\u4e0a\u5927\u8cc0\u5730\u533a\u5916\u5730\u8cea\u8abf\u67fb\u696d\u52d9","survey_name":"R2\u4e45\u6148\u5ddd\u4e0a\u5927\u8cc0\u5730\u533a\u5916\u5730\u8cea\u8abf\u67fb\u696d\u52d9","client_name":"\u56fd\u571f\u4ea4\u901a\u7701\u95a2\u6771\u5730\u65b9\u6574\u5099\u5c40\u4e45\u6148\u5ddd\u7dca\u6025\u6cbb\u6c34\u5bfe\u7b56\u6cb3\u5ddd\u4e8b\u52d9\u6240","boring_xml_url":47,"boring_view_url":1,"soilmap_view_url":null,"soiltest_xml_url":47,"soiltest_view_url":47},{"id":475623,"code":"NGIC202104599-0004","latitude":"36.503063888889","longitude":"140.55608888889","source_code":"","project_name":"R2\u4e45\u6148\u5ddd\u4e0a\u5927\u8cc0\u5730\u533a\u5916\u5730\u8cea\u8abf\u67fb\u696d\u52d9","survey_name":"R2\u4e45\u6148\u5ddd\u4e0a\u5927\u8cc0\u5730\u533a\u5916\u5730\u8cea\u8abf\u67fb\u696d\u52d9","client_name":"\u56fd\u571f\u4ea4\u901a\u7701\u95a2\u6771\u5730\u65b9\u6574\u5099\u5c40\u4e45\u6148\u5ddd\u7dca\u6025\u6cbb\u6c34\u5bfe\u7b56\u6cb3\u5ddd\u4e8b\u52d9\u6240","boring_xml_url":47,"boring_view_url":1,"soilmap_view_url":null,"soiltest_xml_url":47,"soiltest_view_url":47},{"id":475622,"code":"NGIC202104599-0003","latitude":"36.502177777778","longitude":"140.52305","source_code":"","project_name":"R2\u4e45\u6148\u5ddd\u4e0a\u5927\u8cc0\u5730\u533a\u5916\u5730\u8cea\u8abf\u67fb\u696d\u52d9","survey_name":"R2\u4e45\u6148\u5ddd\u4e0a\u5927\u8cc0\u5730\u533a\u5916\u5730\u8cea\u8abf\u67fb\u696d\u52d9","client_name":"\u56fd\u571f\u4ea4\u901a\u7701\u95a2\u6771\u5730\u65b9\u6574\u5099\u5c40\u4e45\u6148\u5ddd\u7dca\u6025\u6cbb\u6c34\u5bfe\u7b56\u6cb3\u5ddd\u4e8b\u52d9\u6240","boring_xml_url":47,"boring_view_url":1,"soilmap_view_url":null,"soiltest_xml_url":47,"soiltest_view_url":47},{"id":475621,"code":"NGIC202104599-0002","latitude":"36.560775","longitude":"140.41608333333","source_code":"","project_name":"R2\u4e45\u6148\u5ddd\u4e0a\u5927\u8cc0\u5730\u533a\u5916\u5730\u8cea\u8abf\u67fb\u696d\u52d9","survey_name":"R2\u4e45\u6148\u5ddd\u4e0a\u5927\u8cc0\u5730\u533a\u5916\u5730\u8cea\u8abf\u67fb\u696d\u52d9","client_name":"\u56fd\u571f\u4ea4\u901a\u7701\u95a2\u6771\u5730\u65b9\u6574\u5099\u5c40\u4e45\u6148\u5ddd\u7dca\u6025\u6cbb\u6c34\u5bfe\u7b56\u6cb3\u5ddd\u4e8b\u52d9\u6240","boring_xml_url":47,"boring_view_url":1,"soilmap_view_url":null,"soiltest_xml_url":47,"soiltest_view_url":47},{"id":475620,"code":"NGIC202104599-0001","latitude":"36.574186111111","longitude":"140.41025833333","source_code":"","project_name":"R2\u4e45\u6148\u5ddd\u4e0a\u5927\u8cc0\u5730\u533a\u5916\u5730\u8cea\u8abf\u67fb\u696d\u52d9","survey_name":"R2\u4e45\u6148\u5ddd\u4e0a\u5927\u8cc0\u5730\u533a\u5916\u5730\u8cea\u8abf\u67fb\u696d\u52d9","client_name":"\u56fd\u571f\u4ea4\u901a\u7701\u95a2\u6771\u5730\u65b9\u6574\u5099\u5c40\u4e45\u6148\u5ddd\u7dca\u6025\u6cbb\u6c34\u5bfe\u7b56\u6cb3\u5ddd\u4e8b\u52d9\u6240","boring_xml_url":47,"boring_view_url":1,"soilmap_view_url":null,"soiltest_xml_url":0,"soiltest_view_url":0},{"id":475611,"code":"NGIC202104672-0016","latitude":"34.387649638889","longitude":"132.38504422222","source_code":"","project_name":"","survey_name":"\u4ee4\u548c3\u5e74\u5ea6\u5e83\u5cf6\u897f\u90e8\u5c71\u7cfb\u5730\u8cea\u8abf\u67fb\u305d\u306e2\u696d\u52d9","client_name":"\u56fd\u571f\u4ea4\u901a\u7701\u4e2d\u56fd\u5730\u65b9\u6574\u5099\u5c40\u5e83\u5cf6\u897f\u90e8\u5c71\u7cfb\u7802\u9632\u4e8b\u52d9\u6240","boring_xml_url":47,"boring_view_url":1,"soilmap_view_url":null,"soiltest_xml_url":0,"soiltest_view_url":0},{"id":475610,"code":"NGIC202104672-0015","latitude":"34.388601444444","longitude":"132.38569230556","source_code":"","project_name":"","survey_name":"\u4ee4\u548c3\u5e74\u5ea6\u5e83\u5cf6\u897f\u90e8\u5c71\u7cfb\u5730\u8cea\u8abf\u67fb\u305d\u306e2\u696d\u52d9","client_name":"\u56fd\u571f\u4ea4\u901a\u7701\u4e2d\u56fd\u5730\u65b9\u6574\u5099\u5c40\u5e83\u5cf6\u897f\u90e8\u5c71\u7cfb\u7802\u9632\u4e8b\u52d9\u6240","boring_xml_url":47,"boring_view_url":1,"soilmap_view_url":null,"soiltest_xml_url":0,"soiltest_view_url":0},{"id":475609,"code":"NGIC202104672-0014","latitude":"34.479927444444","longitude":"132.41431777778","source_code":"","project_name":"","survey_name":"\u4ee4\u548c3\u5e74\u5ea6\u5e83\u5cf6\u897f\u90e8\u5c71\u7cfb\u5730\u8cea\u8abf\u67fb\u305d\u306e2\u696d\u52d9","client_name":"\u56fd\u571f\u4ea4\u901a\u7701\u4e2d\u56fd\u5730\u65b9\u6574\u5099\u5c40\u5e83\u5cf6\u897f\u90e8\u5c71\u7cfb\u7802\u9632\u4e8b\u52d9\u6240","boring_xml_url":47,"boring_view_url":1,"soilmap_view_url":null,"soiltest_xml_url":0,"soiltest_view_url":0},{"id":475608,"code":"NGIC202104672-0013","latitude":"34.479958083333","longitude":"132.41404669444","source_code":"","project_name":"","survey_name":"\u4ee4\u548c3\u5e74\u5ea6\u5e83\u5cf6\u897f\u90e8\u5c71\u7cfb\u5730\u8cea\u8abf\u67fb\u305d\u306e2\u696d\u52d9","client_name":"\u56fd\u571f\u4ea4\u901a\u7701\u4e2d\u56fd\u5730\u65b9\u6574\u5099\u5c40\u5e83\u5cf6\u897f\u90e8\u5c71\u7cfb\u7802\u9632\u4e8b\u52d9\u6240","boring_xml_url":47,"boring_view_url":1,"soilmap_view_url":null,"soiltest_xml_url":0,"soiltest_view_url":0},{"id":475607,"code":"NGIC202104672-0012","latitude":"34.480135777778","longitude":"132.41440425","source_code":"","project_name":"","survey_name":"\u4ee4\u548c3\u5e74\u5ea6\u5e83\u5cf6\u897f\u90e8\u5c71\u7cfb\u5730\u8cea\u8abf\u67fb\u305d\u306e2\u696d\u52d9","client_name":"\u56fd\u571f\u4ea4\u901a\u7701\u4e2d\u56fd\u5730\u65b9\u6574\u5099\u5c40\u5e83\u5cf6\u897f\u90e8\u5c71\u7cfb\u7802\u9632\u4e8b\u52d9\u6240","boring_xml_url":47,"boring_view_url":1,"soilmap_view_url":null,"soiltest_xml_url":0,"soiltest_view_url":0},{"id":475606,"code":"NGIC202104672-0011","latitude":"34.480050916667","longitude":"132.41422775","source_code":"","project_name":"","survey_name":"\u4ee4\u548c3\u5e74\u5ea6\u5e83\u5cf6\u897f\u90e8\u5c71\u7cfb\u5730\u8cea\u8abf\u67fb\u305d\u306e2\u696d\u52d9","client_name":"\u56fd\u571f\u4ea4\u901a\u7701\u4e2d\u56fd\u5730\u65b9\u6574\u5099\u5c40\u5e83\u5cf6\u897f\u90e8\u5c71\u7cfb\u7802\u9632\u4e8b\u52d9\u6240","boring_xml_url":47,"boring_view_url":1,"soilmap_view_url":null,"soiltest_xml_url":0,"soiltest_view_url":0},{"id":475605,"code":"NGIC202104672-0010","latitude":"34.476737972222","longitude":"132.41625719444","source_code":"","project_name":"","survey_name":"\u4ee4\u548c3\u5e74\u5ea6\u5e83\u5cf6\u897f\u90e8\u5c71\u7cfb\u5730\u8cea\u8abf\u67fb\u305d\u306e2\u696d\u52d9","client_name":"\u56fd\u571f\u4ea4\u901a\u7701\u4e2d\u56fd\u5730\u65b9\u6574\u5099\u5c40\u5e83\u5cf6\u897f\u90e8\u5c71\u7cfb\u7802\u9632\u4e8b\u52d9\u6240","boring_xml_url":47,"boring_view_url":1,"soilmap_view_url":null,"soiltest_xml_url":0,"soiltest_view_url":0},{"id":475604,"code":"NGIC202104672-0009","latitude":"34.476911527778","longitude":"132.416101","source_code":"","project_name":"","survey_name":"\u4ee4\u548c3\u5e74\u5ea6\u5e83\u5cf6\u897f\u90e8\u5c71\u7cfb\u5730\u8cea\u8abf\u67fb\u305d\u306e2\u696d\u52d9","client_name":"\u56fd\u571f\u4ea4\u901a\u7701\u4e2d\u56fd\u5730\u65b9\u6574\u5099\u5c40\u5e83\u5cf6\u897f\u90e8\u5c71\u7cfb\u7802\u9632\u4e8b\u52d9\u6240","boring_xml_url":47,"boring_view_url":1,"soilmap_view_url":null,"soiltest_xml_url":0,"soiltest_view_url":0},{"id":475603,"code":"NGIC202104672-0008","latitude":"34.476793666667","longitude":"132.41645444444","source_code":"","project_name":"","survey_name":"\u4ee4\u548c3\u5e74\u5ea6\u5e83\u5cf6\u897f\u90e8\u5c71\u7cfb\u5730\u8cea\u8abf\u67fb\u305d\u306e2\u696d\u52d9","client_name":"\u56fd\u571f\u4ea4\u901a\u7701\u4e2d\u56fd\u5730\u65b9\u6574\u5099\u5c40\u5e83\u5cf6\u897f\u90e8\u5c71\u7cfb\u7802\u9632\u4e8b\u52d9\u6240","boring_xml_url":47,"boring_view_url":1,"soilmap_view_url":null,"soiltest_xml_url":0,"soiltest_view_url":0},{"id":475602,"code":"NGIC202104672-0007","latitude":"34.476847527778","longitude":"132.41629286111","source_code":"","project_name":"","survey_name":"\u4ee4\u548c3\u5e74\u5ea6\u5e83\u5cf6\u897f\u90e8\u5c71\u7cfb\u5730\u8cea\u8abf\u67fb\u305d\u306e2\u696d\u52d9","client_name":"\u56fd\u571f\u4ea4\u901a\u7701\u4e2d\u56fd\u5730\u65b9\u6574\u5099\u5c40\u5e83\u5cf6\u897f\u90e8\u5c71\u7cfb\u7802\u9632\u4e8b\u52d9\u6240","boring_xml_url":47,"boring_view_url":1,"soilmap_view_url":null,"soiltest_xml_url":0,"soiltest_view_url":0},{"id":475601,"code":"NGIC202104672-0006","latitude":"34.39385275","longitude":"132.39548702778","source_code":"","project_name":"","survey_name":"\u4ee4\u548c3\u5e74\u5ea6\u5e83\u5cf6\u897f\u90e8\u5c71\u7cfb\u5730\u8cea\u8abf\u67fb\u305d\u306e2\u696d\u52d9","client_name":"\u56fd\u571f\u4ea4\u901a\u7701\u4e2d\u56fd\u5730\u65b9\u6574\u5099\u5c40\u5e83\u5cf6\u897f\u90e8\u5c71\u7cfb\u7802\u9632\u4e8b\u52d9\u6240","boring_xml_url":47,"boring_view_url":1,"soilmap_view_url":null,"soiltest_xml_url":0,"soiltest_view_url":0}]}}