{"header":{"xyz":{"source":[],"mosaic":false},"page":175,"raw":{"soiltest_result":"0","bbox":"57.598333,109.544722,1.933333,163.806111","page":"175"},"conditions":{"soiltest_result":0,"north":57.598333,"west":109.544722,"south":1.933333,"east":163.806111},"success":true,"message":""},"data":{"meta":{"total":212844,"page":175,"pages":7095,"count":30},"values":[{"id":583957,"code":"NGIC202300622-0010","latitude":"38.767617777778","longitude":"140.04194225","source_code":"","project_name":"","survey_name":"\u6e05\u5ddd\u5730\u533a\u5730\u8cea\u8abf\u67fb\u696d\u52d9","client_name":"\u56fd\u571f\u4ea4\u901a\u7701\u6771\u5317\u5730\u65b9\u6574\u5099\u5c40\u9152\u7530\u6cb3\u5ddd\u56fd\u9053\u4e8b\u52d9\u6240","boring_xml_url":47,"boring_view_url":1,"soilmap_view_url":null,"soiltest_xml_url":47,"soiltest_view_url":47},{"id":583956,"code":"NGIC202300622-0009","latitude":"38.767987388889","longitude":"140.04223419444","source_code":"","project_name":"","survey_name":"\u6e05\u5ddd\u5730\u533a\u5730\u8cea\u8abf\u67fb\u696d\u52d9","client_name":"\u56fd\u571f\u4ea4\u901a\u7701\u6771\u5317\u5730\u65b9\u6574\u5099\u5c40\u9152\u7530\u6cb3\u5ddd\u56fd\u9053\u4e8b\u52d9\u6240","boring_xml_url":47,"boring_view_url":1,"soilmap_view_url":null,"soiltest_xml_url":0,"soiltest_view_url":0},{"id":583955,"code":"NGIC202300622-0008","latitude":"38.768084138889","longitude":"140.04280583333","source_code":"","project_name":"","survey_name":"\u6e05\u5ddd\u5730\u533a\u5730\u8cea\u8abf\u67fb\u696d\u52d9","client_name":"\u56fd\u571f\u4ea4\u901a\u7701\u6771\u5317\u5730\u65b9\u6574\u5099\u5c40\u9152\u7530\u6cb3\u5ddd\u56fd\u9053\u4e8b\u52d9\u6240","boring_xml_url":47,"boring_view_url":1,"soilmap_view_url":null,"soiltest_xml_url":47,"soiltest_view_url":47},{"id":583954,"code":"NGIC202300622-0007","latitude":"38.767869666667","longitude":"140.04277086111","source_code":"","project_name":"","survey_name":"\u6e05\u5ddd\u5730\u533a\u5730\u8cea\u8abf\u67fb\u696d\u52d9","client_name":"\u56fd\u571f\u4ea4\u901a\u7701\u6771\u5317\u5730\u65b9\u6574\u5099\u5c40\u9152\u7530\u6cb3\u5ddd\u56fd\u9053\u4e8b\u52d9\u6240","boring_xml_url":47,"boring_view_url":1,"soilmap_view_url":null,"soiltest_xml_url":0,"soiltest_view_url":0},{"id":583953,"code":"NGIC202300622-0006","latitude":"38.768071388889","longitude":"140.04334180556","source_code":"","project_name":"","survey_name":"\u6e05\u5ddd\u5730\u533a\u5730\u8cea\u8abf\u67fb\u696d\u52d9","client_name":"\u56fd\u571f\u4ea4\u901a\u7701\u6771\u5317\u5730\u65b9\u6574\u5099\u5c40\u9152\u7530\u6cb3\u5ddd\u56fd\u9053\u4e8b\u52d9\u6240","boring_xml_url":47,"boring_view_url":1,"soilmap_view_url":null,"soiltest_xml_url":0,"soiltest_view_url":0},{"id":583952,"code":"NGIC202300622-0005","latitude":"38.767872333333","longitude":"140.04344280556","source_code":"","project_name":"","survey_name":"\u6e05\u5ddd\u5730\u533a\u5730\u8cea\u8abf\u67fb\u696d\u52d9","client_name":"\u56fd\u571f\u4ea4\u901a\u7701\u6771\u5317\u5730\u65b9\u6574\u5099\u5c40\u9152\u7530\u6cb3\u5ddd\u56fd\u9053\u4e8b\u52d9\u6240","boring_xml_url":47,"boring_view_url":1,"soilmap_view_url":null,"soiltest_xml_url":0,"soiltest_view_url":0},{"id":583951,"code":"NGIC202300622-0004","latitude":"38.767747","longitude":"140.04386861111","source_code":"","project_name":"","survey_name":"\u6e05\u5ddd\u5730\u533a\u5730\u8cea\u8abf\u67fb\u696d\u52d9","client_name":"\u56fd\u571f\u4ea4\u901a\u7701\u6771\u5317\u5730\u65b9\u6574\u5099\u5c40\u9152\u7530\u6cb3\u5ddd\u56fd\u9053\u4e8b\u52d9\u6240","boring_xml_url":47,"boring_view_url":1,"soilmap_view_url":null,"soiltest_xml_url":0,"soiltest_view_url":0},{"id":583950,"code":"NGIC202300622-0003","latitude":"38.768465944444","longitude":"140.03758858333","source_code":"","project_name":"","survey_name":"\u6e05\u5ddd\u5730\u533a\u5730\u8cea\u8abf\u67fb\u696d\u52d9","client_name":"\u56fd\u571f\u4ea4\u901a\u7701\u6771\u5317\u5730\u65b9\u6574\u5099\u5c40\u9152\u7530\u6cb3\u5ddd\u56fd\u9053\u4e8b\u52d9\u6240","boring_xml_url":47,"boring_view_url":1,"soilmap_view_url":null,"soiltest_xml_url":0,"soiltest_view_url":0},{"id":583949,"code":"NGIC202300622-0002","latitude":"38.768440638889","longitude":"140.03793227778","source_code":"","project_name":"","survey_name":"\u6e05\u5ddd\u5730\u533a\u5730\u8cea\u8abf\u67fb\u696d\u52d9","client_name":"\u56fd\u571f\u4ea4\u901a\u7701\u6771\u5317\u5730\u65b9\u6574\u5099\u5c40\u9152\u7530\u6cb3\u5ddd\u56fd\u9053\u4e8b\u52d9\u6240","boring_xml_url":47,"boring_view_url":1,"soilmap_view_url":null,"soiltest_xml_url":0,"soiltest_view_url":0},{"id":583948,"code":"NGIC202300622-0001","latitude":"38.768350944444","longitude":"140.0379215","source_code":"","project_name":"","survey_name":"\u6e05\u5ddd\u5730\u533a\u5730\u8cea\u8abf\u67fb\u696d\u52d9","client_name":"\u56fd\u571f\u4ea4\u901a\u7701\u6771\u5317\u5730\u65b9\u6574\u5099\u5c40\u9152\u7530\u6cb3\u5ddd\u56fd\u9053\u4e8b\u52d9\u6240","boring_xml_url":47,"boring_view_url":1,"soilmap_view_url":null,"soiltest_xml_url":0,"soiltest_view_url":0},{"id":583932,"code":"NGIC202300580-0002","latitude":"38.506218027778","longitude":"141.11420813889","source_code":"","project_name":"","survey_name":"\u9cf4\u702c\u5ddd\u7df4\u725b\u5730\u533a\u4e0a\u6d41\u7bc9\u5824\u5de5\u4e8b","client_name":"\u56fd\u571f\u4ea4\u901a\u7701\u6771\u5317\u5730\u65b9\u6574\u5099\u5c40\u5317\u4e0a\u5ddd\u4e0b\u6d41\u6cb3\u5ddd\u4e8b\u52d9\u6240","boring_xml_url":47,"boring_view_url":1,"soilmap_view_url":null,"soiltest_xml_url":0,"soiltest_view_url":0},{"id":583931,"code":"NGIC202300580-0001","latitude":"38.505907638889","longitude":"141.11455161111","source_code":"","project_name":"","survey_name":"\u9cf4\u702c\u5ddd\u7df4\u725b\u5730\u533a\u4e0a\u6d41\u7bc9\u5824\u5de5\u4e8b","client_name":"\u56fd\u571f\u4ea4\u901a\u7701\u6771\u5317\u5730\u65b9\u6574\u5099\u5c40\u5317\u4e0a\u5ddd\u4e0b\u6d41\u6cb3\u5ddd\u4e8b\u52d9\u6240","boring_xml_url":47,"boring_view_url":1,"soilmap_view_url":null,"soiltest_xml_url":0,"soiltest_view_url":0},{"id":583902,"code":"NGIC202300600-0002","latitude":"37.349621666667","longitude":"138.49301663889","source_code":"","project_name":"R5\u9577\u5ca1\u56fd\u9053\u7ba1\u5185\u5730\u8cea\u8abf\u67fb\u696d\u52d9","survey_name":"\u9632\u7b2c1\u53f7\u56fd\u90538\u53f7\u67cf\u5d0e\u5e02\u6d88\u96ea\u7528\u4e95\u6238\u5730\u8cea\u8abf\u67fb","client_name":"\u56fd\u571f\u4ea4\u901a\u7701\u5317\u9678\u5730\u65b9\u6574\u5099\u5c40\u9577\u5ca1\u56fd\u9053\u4e8b\u52d9\u6240","boring_xml_url":47,"boring_view_url":1,"soilmap_view_url":null,"soiltest_xml_url":0,"soiltest_view_url":0},{"id":583901,"code":"NGIC202300600-0001","latitude":"37.352927777778","longitude":"138.51462777778","source_code":"","project_name":"R5\u9577\u5ca1\u56fd\u9053\u7ba1\u5185\u5730\u8cea\u8abf\u67fb\u696d\u52d9","survey_name":"\u9632\u7b2c1\u53f7\u56fd\u90538\u53f7\u67cf\u5d0e\u5e02\u6d88\u96ea\u7528\u4e95\u6238\u5730\u8cea\u8abf\u67fb","client_name":"\u56fd\u571f\u4ea4\u901a\u7701\u5317\u9678\u5730\u65b9\u6574\u5099\u5c40\u9577\u5ca1\u56fd\u9053\u4e8b\u52d9\u6240","boring_xml_url":47,"boring_view_url":1,"soilmap_view_url":null,"soiltest_xml_url":0,"soiltest_view_url":0},{"id":583735,"code":"NGIC202300538-0006","latitude":"32.336270444444","longitude":"130.84187113889","source_code":"","project_name":"\u4ee4\u548c4\u5e74\u5ea6\u30c0\u30e0\u30b5\u30a4\u30c8\u5468\u8fba\u5730\u8cea\u8abf\u67fb\uff08\u305d\u306e2\uff09\u696d\u52d9","survey_name":"\u4ee4\u548c4\u5e74\u5ea6\u30c0\u30e0\u30b5\u30a4\u30c8\u5468\u8fba\u5730\u8cea\u8abf\u67fb\uff08\u305d\u306e2\uff09\u696d\u52d9","client_name":"\u56fd\u571f\u4ea4\u901a\u7701\u4e5d\u5dde\u5730\u65b9\u6574\u5099\u5c40\u5ddd\u8fba\u5ddd\u30c0\u30e0\u7802\u9632\u4e8b\u52d9\u6240","boring_xml_url":47,"boring_view_url":1,"soilmap_view_url":null,"soiltest_xml_url":0,"soiltest_view_url":0},{"id":583734,"code":"NGIC202300538-0005","latitude":"32.336451","longitude":"130.84215238889","source_code":"","project_name":"\u4ee4\u548c4\u5e74\u5ea6\u30c0\u30e0\u30b5\u30a4\u30c8\u5468\u8fba\u5730\u8cea\u8abf\u67fb\uff08\u305d\u306e2\uff09\u696d\u52d9","survey_name":"\u4ee4\u548c4\u5e74\u5ea6\u30c0\u30e0\u30b5\u30a4\u30c8\u5468\u8fba\u5730\u8cea\u8abf\u67fb\uff08\u305d\u306e2\uff09\u696d\u52d9","client_name":"\u56fd\u571f\u4ea4\u901a\u7701\u4e5d\u5dde\u5730\u65b9\u6574\u5099\u5c40\u5ddd\u8fba\u5ddd\u30c0\u30e0\u7802\u9632\u4e8b\u52d9\u6240","boring_xml_url":47,"boring_view_url":1,"soilmap_view_url":null,"soiltest_xml_url":0,"soiltest_view_url":0},{"id":583733,"code":"NGIC202300538-0004","latitude":"32.335909888889","longitude":"130.84216394444","source_code":"","project_name":"\u4ee4\u548c4\u5e74\u5ea6\u30c0\u30e0\u30b5\u30a4\u30c8\u5468\u8fba\u5730\u8cea\u8abf\u67fb\uff08\u305d\u306e2\uff09\u696d\u52d9","survey_name":"\u4ee4\u548c4\u5e74\u5ea6\u30c0\u30e0\u30b5\u30a4\u30c8\u5468\u8fba\u5730\u8cea\u8abf\u67fb\uff08\u305d\u306e2\uff09\u696d\u52d9","client_name":"\u56fd\u571f\u4ea4\u901a\u7701\u4e5d\u5dde\u5730\u65b9\u6574\u5099\u5c40\u5ddd\u8fba\u5ddd\u30c0\u30e0\u7802\u9632\u4e8b\u52d9\u6240","boring_xml_url":47,"boring_view_url":1,"soilmap_view_url":null,"soiltest_xml_url":0,"soiltest_view_url":0},{"id":583732,"code":"NGIC202300538-0003","latitude":"32.336089722222","longitude":"130.84171747222","source_code":"","project_name":"\u4ee4\u548c4\u5e74\u5ea6\u30c0\u30e0\u30b5\u30a4\u30c8\u5468\u8fba\u5730\u8cea\u8abf\u67fb\uff08\u305d\u306e2\uff09\u696d\u52d9","survey_name":"\u4ee4\u548c4\u5e74\u5ea6\u30c0\u30e0\u30b5\u30a4\u30c8\u5468\u8fba\u5730\u8cea\u8abf\u67fb\uff08\u305d\u306e2\uff09\u696d\u52d9","client_name":"\u56fd\u571f\u4ea4\u901a\u7701\u4e5d\u5dde\u5730\u65b9\u6574\u5099\u5c40\u5ddd\u8fba\u5ddd\u30c0\u30e0\u7802\u9632\u4e8b\u52d9\u6240","boring_xml_url":47,"boring_view_url":1,"soilmap_view_url":null,"soiltest_xml_url":0,"soiltest_view_url":0},{"id":583731,"code":"NGIC202300538-0002","latitude":"32.336269833333","longitude":"130.84150469444","source_code":"","project_name":"\u4ee4\u548c4\u5e74\u5ea6\u30c0\u30e0\u30b5\u30a4\u30c8\u5468\u8fba\u5730\u8cea\u8abf\u67fb\uff08\u305d\u306e2\uff09\u696d\u52d9","survey_name":"\u4ee4\u548c4\u5e74\u5ea6\u30c0\u30e0\u30b5\u30a4\u30c8\u5468\u8fba\u5730\u8cea\u8abf\u67fb\uff08\u305d\u306e2\uff09\u696d\u52d9","client_name":"\u56fd\u571f\u4ea4\u901a\u7701\u4e5d\u5dde\u5730\u65b9\u6574\u5099\u5c40\u5ddd\u8fba\u5ddd\u30c0\u30e0\u7802\u9632\u4e8b\u52d9\u6240","boring_xml_url":47,"boring_view_url":1,"soilmap_view_url":null,"soiltest_xml_url":0,"soiltest_view_url":0},{"id":583730,"code":"NGIC202300538-0001","latitude":"32.336297916667","longitude":"130.84235447222","source_code":"","project_name":"\u4ee4\u548c4\u5e74\u5ea6\u30c0\u30e0\u30b5\u30a4\u30c8\u5468\u8fba\u5730\u8cea\u8abf\u67fb\uff08\u305d\u306e2\uff09\u696d\u52d9","survey_name":"\u4ee4\u548c4\u5e74\u5ea6\u30c0\u30e0\u30b5\u30a4\u30c8\u5468\u8fba\u5730\u8cea\u8abf\u67fb\uff08\u305d\u306e2\uff09\u696d\u52d9","client_name":"\u56fd\u571f\u4ea4\u901a\u7701\u4e5d\u5dde\u5730\u65b9\u6574\u5099\u5c40\u5ddd\u8fba\u5ddd\u30c0\u30e0\u7802\u9632\u4e8b\u52d9\u6240","boring_xml_url":47,"boring_view_url":1,"soilmap_view_url":null,"soiltest_xml_url":0,"soiltest_view_url":0},{"id":583698,"code":"NGIC202300566-0013","latitude":"35.234544277778","longitude":"137.40898580556","source_code":"","project_name":"","survey_name":"\u4ee4\u548c4\u5e74\u5ea6\u77e2\u4f5c\u30c0\u30e0\u518d\u751f\u4e8b\u696d\u9591\u7f85\u702c\u5730\u533a\u5730\u8cea\u8abf\u67fb\u696d\u52d9","client_name":"\u56fd\u571f\u4ea4\u901a\u7701\u4e2d\u90e8\u5730\u65b9\u6574\u5099\u5c40\u8c4a\u6a4b\u6cb3\u5ddd\u4e8b\u52d9\u6240","boring_xml_url":47,"boring_view_url":1,"soilmap_view_url":null,"soiltest_xml_url":0,"soiltest_view_url":0},{"id":583697,"code":"NGIC202300566-0012","latitude":"35.234509666667","longitude":"137.40826969444","source_code":"","project_name":"","survey_name":"\u4ee4\u548c4\u5e74\u5ea6\u77e2\u4f5c\u30c0\u30e0\u518d\u751f\u4e8b\u696d\u9591\u7f85\u702c\u5730\u533a\u5730\u8cea\u8abf\u67fb\u696d\u52d9","client_name":"\u56fd\u571f\u4ea4\u901a\u7701\u4e2d\u90e8\u5730\u65b9\u6574\u5099\u5c40\u8c4a\u6a4b\u6cb3\u5ddd\u4e8b\u52d9\u6240","boring_xml_url":47,"boring_view_url":1,"soilmap_view_url":null,"soiltest_xml_url":0,"soiltest_view_url":0},{"id":583696,"code":"NGIC202300566-0011","latitude":"35.236111222222","longitude":"137.41357025","source_code":"","project_name":"","survey_name":"\u4ee4\u548c4\u5e74\u5ea6\u77e2\u4f5c\u30c0\u30e0\u518d\u751f\u4e8b\u696d\u9591\u7f85\u702c\u5730\u533a\u5730\u8cea\u8abf\u67fb\u696d\u52d9","client_name":"\u56fd\u571f\u4ea4\u901a\u7701\u4e2d\u90e8\u5730\u65b9\u6574\u5099\u5c40\u8c4a\u6a4b\u6cb3\u5ddd\u4e8b\u52d9\u6240","boring_xml_url":47,"boring_view_url":1,"soilmap_view_url":null,"soiltest_xml_url":0,"soiltest_view_url":0},{"id":583695,"code":"NGIC202300566-0010","latitude":"35.236175944444","longitude":"137.41378411111","source_code":"","project_name":"","survey_name":"\u4ee4\u548c4\u5e74\u5ea6\u77e2\u4f5c\u30c0\u30e0\u518d\u751f\u4e8b\u696d\u9591\u7f85\u702c\u5730\u533a\u5730\u8cea\u8abf\u67fb\u696d\u52d9","client_name":"\u56fd\u571f\u4ea4\u901a\u7701\u4e2d\u90e8\u5730\u65b9\u6574\u5099\u5c40\u8c4a\u6a4b\u6cb3\u5ddd\u4e8b\u52d9\u6240","boring_xml_url":47,"boring_view_url":1,"soilmap_view_url":null,"soiltest_xml_url":0,"soiltest_view_url":0},{"id":583694,"code":"NGIC202300566-0009","latitude":"35.235507166667","longitude":"137.413807","source_code":"","project_name":"","survey_name":"\u4ee4\u548c4\u5e74\u5ea6\u77e2\u4f5c\u30c0\u30e0\u518d\u751f\u4e8b\u696d\u9591\u7f85\u702c\u5730\u533a\u5730\u8cea\u8abf\u67fb\u696d\u52d9","client_name":"\u56fd\u571f\u4ea4\u901a\u7701\u4e2d\u90e8\u5730\u65b9\u6574\u5099\u5c40\u8c4a\u6a4b\u6cb3\u5ddd\u4e8b\u52d9\u6240","boring_xml_url":47,"boring_view_url":1,"soilmap_view_url":null,"soiltest_xml_url":0,"soiltest_view_url":0},{"id":583693,"code":"NGIC202300566-0008","latitude":"35.236090027778","longitude":"137.41294988889","source_code":"","project_name":"","survey_name":"\u4ee4\u548c4\u5e74\u5ea6\u77e2\u4f5c\u30c0\u30e0\u518d\u751f\u4e8b\u696d\u9591\u7f85\u702c\u5730\u533a\u5730\u8cea\u8abf\u67fb\u696d\u52d9","client_name":"\u56fd\u571f\u4ea4\u901a\u7701\u4e2d\u90e8\u5730\u65b9\u6574\u5099\u5c40\u8c4a\u6a4b\u6cb3\u5ddd\u4e8b\u52d9\u6240","boring_xml_url":47,"boring_view_url":1,"soilmap_view_url":null,"soiltest_xml_url":0,"soiltest_view_url":0},{"id":583692,"code":"NGIC202300566-0007","latitude":"35.236375722222","longitude":"137.41342247222","source_code":"","project_name":"","survey_name":"\u4ee4\u548c4\u5e74\u5ea6\u77e2\u4f5c\u30c0\u30e0\u518d\u751f\u4e8b\u696d\u9591\u7f85\u702c\u5730\u533a\u5730\u8cea\u8abf\u67fb\u696d\u52d9","client_name":"\u56fd\u571f\u4ea4\u901a\u7701\u4e2d\u90e8\u5730\u65b9\u6574\u5099\u5c40\u8c4a\u6a4b\u6cb3\u5ddd\u4e8b\u52d9\u6240","boring_xml_url":47,"boring_view_url":1,"soilmap_view_url":null,"soiltest_xml_url":0,"soiltest_view_url":0},{"id":583691,"code":"NGIC202300566-0006","latitude":"35.235703277778","longitude":"137.41364991667","source_code":"","project_name":"","survey_name":"\u4ee4\u548c4\u5e74\u5ea6\u77e2\u4f5c\u30c0\u30e0\u518d\u751f\u4e8b\u696d\u9591\u7f85\u702c\u5730\u533a\u5730\u8cea\u8abf\u67fb\u696d\u52d9","client_name":"\u56fd\u571f\u4ea4\u901a\u7701\u4e2d\u90e8\u5730\u65b9\u6574\u5099\u5c40\u8c4a\u6a4b\u6cb3\u5ddd\u4e8b\u52d9\u6240","boring_xml_url":47,"boring_view_url":1,"soilmap_view_url":null,"soiltest_xml_url":0,"soiltest_view_url":0},{"id":583690,"code":"NGIC202300566-0005","latitude":"35.236316638889","longitude":"137.41304183333","source_code":"","project_name":"","survey_name":"\u4ee4\u548c4\u5e74\u5ea6\u77e2\u4f5c\u30c0\u30e0\u518d\u751f\u4e8b\u696d\u9591\u7f85\u702c\u5730\u533a\u5730\u8cea\u8abf\u67fb\u696d\u52d9","client_name":"\u56fd\u571f\u4ea4\u901a\u7701\u4e2d\u90e8\u5730\u65b9\u6574\u5099\u5c40\u8c4a\u6a4b\u6cb3\u5ddd\u4e8b\u52d9\u6240","boring_xml_url":47,"boring_view_url":1,"soilmap_view_url":null,"soiltest_xml_url":0,"soiltest_view_url":0},{"id":583689,"code":"NGIC202300566-0004","latitude":"35.236780055556","longitude":"137.41248252778","source_code":"","project_name":"","survey_name":"\u4ee4\u548c4\u5e74\u5ea6\u77e2\u4f5c\u30c0\u30e0\u518d\u751f\u4e8b\u696d\u9591\u7f85\u702c\u5730\u533a\u5730\u8cea\u8abf\u67fb\u696d\u52d9","client_name":"\u56fd\u571f\u4ea4\u901a\u7701\u4e2d\u90e8\u5730\u65b9\u6574\u5099\u5c40\u8c4a\u6a4b\u6cb3\u5ddd\u4e8b\u52d9\u6240","boring_xml_url":47,"boring_view_url":1,"soilmap_view_url":null,"soiltest_xml_url":0,"soiltest_view_url":0}]}}