{"header":{"xyz":{"source":[],"mosaic":false},"page":1753,"raw":{"soiltest_result":"0","bbox":"57.598333,109.544722,1.933333,163.806111","page":"1753"},"conditions":{"soiltest_result":0,"north":57.598333,"west":109.544722,"south":1.933333,"east":163.806111},"success":true,"message":""},"data":{"meta":{"total":212844,"page":1753,"pages":7095,"count":30},"values":[{"id":475334,"code":"NGIC202104443-0014","latitude":"36.715270444444","longitude":"137.809222","source_code":"","project_name":"","survey_name":"\u4ee4\u548c2\u5e74\u5ea6\u59eb\u5ddd\u6d41\u57df\u5730\u8cea\u8abf\u67fb\u696d\u52d9","client_name":"\u56fd\u571f\u4ea4\u901a\u7701\u5317\u9678\u5730\u65b9\u6574\u5099\u5c40\u677e\u672c\u7802\u9632\u4e8b\u52d9\u6240","boring_xml_url":47,"boring_view_url":1,"soilmap_view_url":null,"soiltest_xml_url":0,"soiltest_view_url":0},{"id":475333,"code":"NGIC202104443-0013","latitude":"36.715466138889","longitude":"137.80910952778","source_code":"","project_name":"","survey_name":"\u4ee4\u548c2\u5e74\u5ea6\u59eb\u5ddd\u6d41\u57df\u5730\u8cea\u8abf\u67fb\u696d\u52d9","client_name":"\u56fd\u571f\u4ea4\u901a\u7701\u5317\u9678\u5730\u65b9\u6574\u5099\u5c40\u677e\u672c\u7802\u9632\u4e8b\u52d9\u6240","boring_xml_url":47,"boring_view_url":1,"soilmap_view_url":null,"soiltest_xml_url":0,"soiltest_view_url":0},{"id":475332,"code":"NGIC202104443-0012","latitude":"36.715158416667","longitude":"137.80887877778","source_code":"","project_name":"","survey_name":"\u4ee4\u548c2\u5e74\u5ea6\u59eb\u5ddd\u6d41\u57df\u5730\u8cea\u8abf\u67fb\u696d\u52d9","client_name":"\u56fd\u571f\u4ea4\u901a\u7701\u5317\u9678\u5730\u65b9\u6574\u5099\u5c40\u677e\u672c\u7802\u9632\u4e8b\u52d9\u6240","boring_xml_url":47,"boring_view_url":1,"soilmap_view_url":null,"soiltest_xml_url":0,"soiltest_view_url":0},{"id":475331,"code":"NGIC202104443-0011","latitude":"36.715305277778","longitude":"137.80900858333","source_code":"","project_name":"","survey_name":"\u4ee4\u548c2\u5e74\u5ea6\u59eb\u5ddd\u6d41\u57df\u5730\u8cea\u8abf\u67fb\u696d\u52d9","client_name":"\u56fd\u571f\u4ea4\u901a\u7701\u5317\u9678\u5730\u65b9\u6574\u5099\u5c40\u677e\u672c\u7802\u9632\u4e8b\u52d9\u6240","boring_xml_url":47,"boring_view_url":1,"soilmap_view_url":null,"soiltest_xml_url":0,"soiltest_view_url":0},{"id":475330,"code":"NGIC202104443-0010","latitude":"36.798343194444","longitude":"137.88116983333","source_code":"","project_name":"","survey_name":"\u4ee4\u548c2\u5e74\u5ea6\u59eb\u5ddd\u6d41\u57df\u5730\u8cea\u8abf\u67fb\u696d\u52d9","client_name":"\u56fd\u571f\u4ea4\u901a\u7701\u5317\u9678\u5730\u65b9\u6574\u5099\u5c40\u677e\u672c\u7802\u9632\u4e8b\u52d9\u6240","boring_xml_url":47,"boring_view_url":1,"soilmap_view_url":null,"soiltest_xml_url":0,"soiltest_view_url":0},{"id":475329,"code":"NGIC202104443-0009","latitude":"36.798141694444","longitude":"137.88039216667","source_code":"","project_name":"","survey_name":"\u4ee4\u548c2\u5e74\u5ea6\u59eb\u5ddd\u6d41\u57df\u5730\u8cea\u8abf\u67fb\u696d\u52d9","client_name":"\u56fd\u571f\u4ea4\u901a\u7701\u5317\u9678\u5730\u65b9\u6574\u5099\u5c40\u677e\u672c\u7802\u9632\u4e8b\u52d9\u6240","boring_xml_url":47,"boring_view_url":1,"soilmap_view_url":null,"soiltest_xml_url":0,"soiltest_view_url":0},{"id":475328,"code":"NGIC202104443-0008","latitude":"36.798175527778","longitude":"137.88108580556","source_code":"","project_name":"","survey_name":"\u4ee4\u548c2\u5e74\u5ea6\u59eb\u5ddd\u6d41\u57df\u5730\u8cea\u8abf\u67fb\u696d\u52d9","client_name":"\u56fd\u571f\u4ea4\u901a\u7701\u5317\u9678\u5730\u65b9\u6574\u5099\u5c40\u677e\u672c\u7802\u9632\u4e8b\u52d9\u6240","boring_xml_url":47,"boring_view_url":1,"soilmap_view_url":null,"soiltest_xml_url":0,"soiltest_view_url":0},{"id":475327,"code":"NGIC202104443-0007","latitude":"36.79799675","longitude":"137.88158966667","source_code":"","project_name":"","survey_name":"\u4ee4\u548c2\u5e74\u5ea6\u59eb\u5ddd\u6d41\u57df\u5730\u8cea\u8abf\u67fb\u696d\u52d9","client_name":"\u56fd\u571f\u4ea4\u901a\u7701\u5317\u9678\u5730\u65b9\u6574\u5099\u5c40\u677e\u672c\u7802\u9632\u4e8b\u52d9\u6240","boring_xml_url":47,"boring_view_url":1,"soilmap_view_url":null,"soiltest_xml_url":0,"soiltest_view_url":0},{"id":475326,"code":"NGIC202104443-0006","latitude":"36.745777777778","longitude":"137.80580555556","source_code":"","project_name":"","survey_name":"\u4ee4\u548c2\u5e74\u5ea6\u59eb\u5ddd\u6d41\u57df\u5730\u8cea\u8abf\u67fb\u696d\u52d9","client_name":"\u56fd\u571f\u4ea4\u901a\u7701\u5317\u9678\u5730\u65b9\u6574\u5099\u5c40\u677e\u672c\u7802\u9632\u4e8b\u52d9\u6240","boring_xml_url":47,"boring_view_url":1,"soilmap_view_url":null,"soiltest_xml_url":0,"soiltest_view_url":0},{"id":475325,"code":"NGIC202104443-0005","latitude":"36.745666666667","longitude":"137.80569444444","source_code":"","project_name":"","survey_name":"\u4ee4\u548c2\u5e74\u5ea6\u59eb\u5ddd\u6d41\u57df\u5730\u8cea\u8abf\u67fb\u696d\u52d9","client_name":"\u56fd\u571f\u4ea4\u901a\u7701\u5317\u9678\u5730\u65b9\u6574\u5099\u5c40\u677e\u672c\u7802\u9632\u4e8b\u52d9\u6240","boring_xml_url":47,"boring_view_url":1,"soilmap_view_url":null,"soiltest_xml_url":0,"soiltest_view_url":0},{"id":475324,"code":"NGIC202104443-0004","latitude":"36.744707222222","longitude":"137.80530172222","source_code":"","project_name":"","survey_name":"\u4ee4\u548c2\u5e74\u5ea6\u59eb\u5ddd\u6d41\u57df\u5730\u8cea\u8abf\u67fb\u696d\u52d9","client_name":"\u56fd\u571f\u4ea4\u901a\u7701\u5317\u9678\u5730\u65b9\u6574\u5099\u5c40\u677e\u672c\u7802\u9632\u4e8b\u52d9\u6240","boring_xml_url":47,"boring_view_url":1,"soilmap_view_url":null,"soiltest_xml_url":0,"soiltest_view_url":0},{"id":475323,"code":"NGIC202104443-0003","latitude":"36.745361111111","longitude":"137.80558333333","source_code":"","project_name":"","survey_name":"\u4ee4\u548c2\u5e74\u5ea6\u59eb\u5ddd\u6d41\u57df\u5730\u8cea\u8abf\u67fb\u696d\u52d9","client_name":"\u56fd\u571f\u4ea4\u901a\u7701\u5317\u9678\u5730\u65b9\u6574\u5099\u5c40\u677e\u672c\u7802\u9632\u4e8b\u52d9\u6240","boring_xml_url":47,"boring_view_url":1,"soilmap_view_url":null,"soiltest_xml_url":0,"soiltest_view_url":0},{"id":475322,"code":"NGIC202104443-0002","latitude":"36.74490075","longitude":"137.805098","source_code":"","project_name":"","survey_name":"\u4ee4\u548c2\u5e74\u5ea6\u59eb\u5ddd\u6d41\u57df\u5730\u8cea\u8abf\u67fb\u696d\u52d9","client_name":"\u56fd\u571f\u4ea4\u901a\u7701\u5317\u9678\u5730\u65b9\u6574\u5099\u5c40\u677e\u672c\u7802\u9632\u4e8b\u52d9\u6240","boring_xml_url":47,"boring_view_url":1,"soilmap_view_url":null,"soiltest_xml_url":0,"soiltest_view_url":0},{"id":475321,"code":"NGIC202104443-0001","latitude":"36.744690722222","longitude":"137.80482033333","source_code":"","project_name":"","survey_name":"\u4ee4\u548c2\u5e74\u5ea6\u59eb\u5ddd\u6d41\u57df\u5730\u8cea\u8abf\u67fb\u696d\u52d9","client_name":"\u56fd\u571f\u4ea4\u901a\u7701\u5317\u9678\u5730\u65b9\u6574\u5099\u5c40\u677e\u672c\u7802\u9632\u4e8b\u52d9\u6240","boring_xml_url":47,"boring_view_url":1,"soilmap_view_url":null,"soiltest_xml_url":0,"soiltest_view_url":0},{"id":475320,"code":"NGIC202104442-0011","latitude":"35.53452","longitude":"137.11413436111","source_code":"","project_name":"","survey_name":"\u4ee4\u548c3\u5e74\u5ea6\u5c90\u961c\u56fd\u9053\u7ba1\u5185\u7ba1\u7406\u5730\u8cea\u8abf\u67fb\u696d\u52d9","client_name":"\u56fd\u571f\u4ea4\u901a\u7701\u4e2d\u90e8\u5730\u65b9\u6574\u5099\u5c40\u5c90\u961c\u56fd\u9053\u4e8b\u52d9\u6240","boring_xml_url":47,"boring_view_url":1,"soilmap_view_url":null,"soiltest_xml_url":0,"soiltest_view_url":0},{"id":475319,"code":"NGIC202104442-0010","latitude":"35.53489725","longitude":"137.11410538889","source_code":"","project_name":"","survey_name":"\u4ee4\u548c3\u5e74\u5ea6\u5c90\u961c\u56fd\u9053\u7ba1\u5185\u7ba1\u7406\u5730\u8cea\u8abf\u67fb\u696d\u52d9","client_name":"\u56fd\u571f\u4ea4\u901a\u7701\u4e2d\u90e8\u5730\u65b9\u6574\u5099\u5c40\u5c90\u961c\u56fd\u9053\u4e8b\u52d9\u6240","boring_xml_url":47,"boring_view_url":1,"soilmap_view_url":null,"soiltest_xml_url":47,"soiltest_view_url":47},{"id":475318,"code":"NGIC202104442-0009","latitude":"35.705358444444","longitude":"136.95170241667","source_code":"","project_name":"","survey_name":"\u4ee4\u548c3\u5e74\u5ea6\u5c90\u961c\u56fd\u9053\u7ba1\u5185\u7ba1\u7406\u5730\u8cea\u8abf\u67fb\u696d\u52d9","client_name":"\u56fd\u571f\u4ea4\u901a\u7701\u4e2d\u90e8\u5730\u65b9\u6574\u5099\u5c40\u5c90\u961c\u56fd\u9053\u4e8b\u52d9\u6240","boring_xml_url":47,"boring_view_url":1,"soilmap_view_url":null,"soiltest_xml_url":0,"soiltest_view_url":0},{"id":475317,"code":"NGIC202104442-0008","latitude":"35.705375333333","longitude":"136.9516735","source_code":"","project_name":"","survey_name":"\u4ee4\u548c3\u5e74\u5ea6\u5c90\u961c\u56fd\u9053\u7ba1\u5185\u7ba1\u7406\u5730\u8cea\u8abf\u67fb\u696d\u52d9","client_name":"\u56fd\u571f\u4ea4\u901a\u7701\u4e2d\u90e8\u5730\u65b9\u6574\u5099\u5c40\u5c90\u961c\u56fd\u9053\u4e8b\u52d9\u6240","boring_xml_url":47,"boring_view_url":1,"soilmap_view_url":null,"soiltest_xml_url":0,"soiltest_view_url":0},{"id":475316,"code":"NGIC202104442-0007","latitude":"35.705274944444","longitude":"136.95115177778","source_code":"","project_name":"","survey_name":"\u4ee4\u548c3\u5e74\u5ea6\u5c90\u961c\u56fd\u9053\u7ba1\u5185\u7ba1\u7406\u5730\u8cea\u8abf\u67fb\u696d\u52d9","client_name":"\u56fd\u571f\u4ea4\u901a\u7701\u4e2d\u90e8\u5730\u65b9\u6574\u5099\u5c40\u5c90\u961c\u56fd\u9053\u4e8b\u52d9\u6240","boring_xml_url":47,"boring_view_url":1,"soilmap_view_url":null,"soiltest_xml_url":0,"soiltest_view_url":0},{"id":475315,"code":"NGIC202104442-0006","latitude":"35.705129666667","longitude":"136.95100230556","source_code":"","project_name":"","survey_name":"\u4ee4\u548c3\u5e74\u5ea6\u5c90\u961c\u56fd\u9053\u7ba1\u5185\u7ba1\u7406\u5730\u8cea\u8abf\u67fb\u696d\u52d9","client_name":"\u56fd\u571f\u4ea4\u901a\u7701\u4e2d\u90e8\u5730\u65b9\u6574\u5099\u5c40\u5c90\u961c\u56fd\u9053\u4e8b\u52d9\u6240","boring_xml_url":47,"boring_view_url":1,"soilmap_view_url":null,"soiltest_xml_url":0,"soiltest_view_url":0},{"id":475314,"code":"NGIC202104442-0005","latitude":"35.705991555556","longitude":"136.95196155556","source_code":"","project_name":"","survey_name":"\u4ee4\u548c3\u5e74\u5ea6\u5c90\u961c\u56fd\u9053\u7ba1\u5185\u7ba1\u7406\u5730\u8cea\u8abf\u67fb\u696d\u52d9","client_name":"\u56fd\u571f\u4ea4\u901a\u7701\u4e2d\u90e8\u5730\u65b9\u6574\u5099\u5c40\u5c90\u961c\u56fd\u9053\u4e8b\u52d9\u6240","boring_xml_url":47,"boring_view_url":1,"soilmap_view_url":null,"soiltest_xml_url":0,"soiltest_view_url":0},{"id":475313,"code":"NGIC202104442-0004","latitude":"35.705928166667","longitude":"136.95189094444","source_code":"","project_name":"","survey_name":"\u4ee4\u548c3\u5e74\u5ea6\u5c90\u961c\u56fd\u9053\u7ba1\u5185\u7ba1\u7406\u5730\u8cea\u8abf\u67fb\u696d\u52d9","client_name":"\u56fd\u571f\u4ea4\u901a\u7701\u4e2d\u90e8\u5730\u65b9\u6574\u5099\u5c40\u5c90\u961c\u56fd\u9053\u4e8b\u52d9\u6240","boring_xml_url":47,"boring_view_url":1,"soilmap_view_url":null,"soiltest_xml_url":0,"soiltest_view_url":0},{"id":475312,"code":"NGIC202104442-0003","latitude":"35.705776083333","longitude":"136.95150488889","source_code":"","project_name":"","survey_name":"\u4ee4\u548c3\u5e74\u5ea6\u5c90\u961c\u56fd\u9053\u7ba1\u5185\u7ba1\u7406\u5730\u8cea\u8abf\u67fb\u696d\u52d9","client_name":"\u56fd\u571f\u4ea4\u901a\u7701\u4e2d\u90e8\u5730\u65b9\u6574\u5099\u5c40\u5c90\u961c\u56fd\u9053\u4e8b\u52d9\u6240","boring_xml_url":47,"boring_view_url":1,"soilmap_view_url":null,"soiltest_xml_url":0,"soiltest_view_url":0},{"id":475311,"code":"NGIC202104442-0002","latitude":"35.705725194444","longitude":"136.95140308333","source_code":"","project_name":"","survey_name":"\u4ee4\u548c3\u5e74\u5ea6\u5c90\u961c\u56fd\u9053\u7ba1\u5185\u7ba1\u7406\u5730\u8cea\u8abf\u67fb\u696d\u52d9","client_name":"\u56fd\u571f\u4ea4\u901a\u7701\u4e2d\u90e8\u5730\u65b9\u6574\u5099\u5c40\u5c90\u961c\u56fd\u9053\u4e8b\u52d9\u6240","boring_xml_url":47,"boring_view_url":1,"soilmap_view_url":null,"soiltest_xml_url":0,"soiltest_view_url":0},{"id":475310,"code":"NGIC202104442-0001","latitude":"35.705383277778","longitude":"136.95105033333","source_code":"","project_name":"","survey_name":"\u4ee4\u548c3\u5e74\u5ea6\u5c90\u961c\u56fd\u9053\u7ba1\u5185\u7ba1\u7406\u5730\u8cea\u8abf\u67fb\u696d\u52d9","client_name":"\u56fd\u571f\u4ea4\u901a\u7701\u4e2d\u90e8\u5730\u65b9\u6574\u5099\u5c40\u5c90\u961c\u56fd\u9053\u4e8b\u52d9\u6240","boring_xml_url":47,"boring_view_url":1,"soilmap_view_url":null,"soiltest_xml_url":0,"soiltest_view_url":0},{"id":475304,"code":"NGIC202104622-0011","latitude":"43.095330555556","longitude":"144.85713944444","source_code":"","project_name":"","survey_name":"\u4e00\u822c\u56fd\u905344\u53f7\u539a\u5cb8\u753a\u5927\u5225\u5730\u8cea\u8abf\u67fb\u696d\u52d9","client_name":"\u56fd\u571f\u4ea4\u901a\u7701\u5317\u6d77\u9053\u958b\u767a\u5c40\u91e7\u8def\u958b\u767a\u5efa\u8a2d\u90e8","boring_xml_url":47,"boring_view_url":1,"soilmap_view_url":null,"soiltest_xml_url":47,"soiltest_view_url":47},{"id":475303,"code":"NGIC202104622-0010","latitude":"43.09134375","longitude":"144.85282522222","source_code":"","project_name":"","survey_name":"\u4e00\u822c\u56fd\u905344\u53f7\u539a\u5cb8\u753a\u5927\u5225\u5730\u8cea\u8abf\u67fb\u696d\u52d9","client_name":"\u56fd\u571f\u4ea4\u901a\u7701\u5317\u6d77\u9053\u958b\u767a\u5c40\u91e7\u8def\u958b\u767a\u5efa\u8a2d\u90e8","boring_xml_url":47,"boring_view_url":1,"soilmap_view_url":null,"soiltest_xml_url":0,"soiltest_view_url":0},{"id":475302,"code":"NGIC202104622-0009","latitude":"43.091587444444","longitude":"144.852534","source_code":"","project_name":"","survey_name":"\u4e00\u822c\u56fd\u905344\u53f7\u539a\u5cb8\u753a\u5927\u5225\u5730\u8cea\u8abf\u67fb\u696d\u52d9","client_name":"\u56fd\u571f\u4ea4\u901a\u7701\u5317\u6d77\u9053\u958b\u767a\u5c40\u91e7\u8def\u958b\u767a\u5efa\u8a2d\u90e8","boring_xml_url":47,"boring_view_url":1,"soilmap_view_url":null,"soiltest_xml_url":0,"soiltest_view_url":0},{"id":475301,"code":"NGIC202104622-0008","latitude":"43.090730555556","longitude":"144.85270833333","source_code":"","project_name":"","survey_name":"\u4e00\u822c\u56fd\u905344\u53f7\u539a\u5cb8\u753a\u5927\u5225\u5730\u8cea\u8abf\u67fb\u696d\u52d9","client_name":"\u56fd\u571f\u4ea4\u901a\u7701\u5317\u6d77\u9053\u958b\u767a\u5c40\u91e7\u8def\u958b\u767a\u5efa\u8a2d\u90e8","boring_xml_url":47,"boring_view_url":1,"soilmap_view_url":null,"soiltest_xml_url":47,"soiltest_view_url":47},{"id":475300,"code":"NGIC202104622-0007","latitude":"43.090750305556","longitude":"144.85159655556","source_code":"","project_name":"","survey_name":"\u4e00\u822c\u56fd\u905344\u53f7\u539a\u5cb8\u753a\u5927\u5225\u5730\u8cea\u8abf\u67fb\u696d\u52d9","client_name":"\u56fd\u571f\u4ea4\u901a\u7701\u5317\u6d77\u9053\u958b\u767a\u5c40\u91e7\u8def\u958b\u767a\u5efa\u8a2d\u90e8","boring_xml_url":47,"boring_view_url":1,"soilmap_view_url":null,"soiltest_xml_url":0,"soiltest_view_url":0}]}}