{"header":{"xyz":{"source":[],"mosaic":false},"page":1762,"raw":{"soiltest_result":"0","bbox":"57.598333,109.544722,1.933333,163.806111","page":"1762"},"conditions":{"soiltest_result":0,"north":57.598333,"west":109.544722,"south":1.933333,"east":163.806111},"success":true,"message":""},"data":{"meta":{"total":212844,"page":1762,"pages":7095,"count":30},"values":[{"id":473834,"code":"NGIC202104302-0026","latitude":"36.002528611111","longitude":"140.11716111111","source_code":"","project_name":"\u725b\u4e45\u571f\u6d66BP\u5730\u8cea\u8abf\u67fb\u696d\u52d93K8","survey_name":"\u725b\u4e45\u571f\u6d66BP\u5730\u8cea\u8abf\u67fb\u696d\u52d93K8","client_name":"\u56fd\u571f\u4ea4\u901a\u7701\u95a2\u6771\u5730\u65b9\u6574\u5099\u5c40\u5e38\u7dcf\u56fd\u9053\u4e8b\u52d9\u6240","boring_xml_url":47,"boring_view_url":1,"soilmap_view_url":null,"soiltest_xml_url":47,"soiltest_view_url":47},{"id":473833,"code":"NGIC202104302-0025","latitude":"35.9958425","longitude":"140.11704111111","source_code":"","project_name":"\u725b\u4e45\u571f\u6d66BP\u5730\u8cea\u8abf\u67fb\u696d\u52d93K8","survey_name":"\u725b\u4e45\u571f\u6d66BP\u5730\u8cea\u8abf\u67fb\u696d\u52d93K8","client_name":"\u56fd\u571f\u4ea4\u901a\u7701\u95a2\u6771\u5730\u65b9\u6574\u5099\u5c40\u5e38\u7dcf\u56fd\u9053\u4e8b\u52d9\u6240","boring_xml_url":47,"boring_view_url":1,"soilmap_view_url":null,"soiltest_xml_url":47,"soiltest_view_url":47},{"id":473832,"code":"NGIC202104302-0024","latitude":"35.9958425","longitude":"140.11704111111","source_code":"","project_name":"\u725b\u4e45\u571f\u6d66BP\u5730\u8cea\u8abf\u67fb\u696d\u52d93K8","survey_name":"\u725b\u4e45\u571f\u6d66BP\u5730\u8cea\u8abf\u67fb\u696d\u52d93K8","client_name":"\u56fd\u571f\u4ea4\u901a\u7701\u95a2\u6771\u5730\u65b9\u6574\u5099\u5c40\u5e38\u7dcf\u56fd\u9053\u4e8b\u52d9\u6240","boring_xml_url":47,"boring_view_url":1,"soilmap_view_url":null,"soiltest_xml_url":47,"soiltest_view_url":47},{"id":473831,"code":"NGIC202104302-0023","latitude":"35.994733888889","longitude":"140.11733555556","source_code":"","project_name":"\u725b\u4e45\u571f\u6d66BP\u5730\u8cea\u8abf\u67fb\u696d\u52d93K8","survey_name":"\u725b\u4e45\u571f\u6d66BP\u5730\u8cea\u8abf\u67fb\u696d\u52d93K8","client_name":"\u56fd\u571f\u4ea4\u901a\u7701\u95a2\u6771\u5730\u65b9\u6574\u5099\u5c40\u5e38\u7dcf\u56fd\u9053\u4e8b\u52d9\u6240","boring_xml_url":47,"boring_view_url":1,"soilmap_view_url":null,"soiltest_xml_url":47,"soiltest_view_url":47},{"id":473830,"code":"NGIC202104302-0022","latitude":"35.994733888889","longitude":"140.11733555556","source_code":"","project_name":"\u725b\u4e45\u571f\u6d66BP\u5730\u8cea\u8abf\u67fb\u696d\u52d93K8","survey_name":"\u725b\u4e45\u571f\u6d66BP\u5730\u8cea\u8abf\u67fb\u696d\u52d93K8","client_name":"\u56fd\u571f\u4ea4\u901a\u7701\u95a2\u6771\u5730\u65b9\u6574\u5099\u5c40\u5e38\u7dcf\u56fd\u9053\u4e8b\u52d9\u6240","boring_xml_url":47,"boring_view_url":1,"soilmap_view_url":null,"soiltest_xml_url":47,"soiltest_view_url":47},{"id":473829,"code":"NGIC202104302-0021","latitude":"35.993585","longitude":"140.117625","source_code":"","project_name":"\u725b\u4e45\u571f\u6d66BP\u5730\u8cea\u8abf\u67fb\u696d\u52d93K8","survey_name":"\u725b\u4e45\u571f\u6d66BP\u5730\u8cea\u8abf\u67fb\u696d\u52d93K8","client_name":"\u56fd\u571f\u4ea4\u901a\u7701\u95a2\u6771\u5730\u65b9\u6574\u5099\u5c40\u5e38\u7dcf\u56fd\u9053\u4e8b\u52d9\u6240","boring_xml_url":47,"boring_view_url":1,"soilmap_view_url":null,"soiltest_xml_url":47,"soiltest_view_url":47},{"id":473828,"code":"NGIC202104302-0020","latitude":"35.993585","longitude":"140.117625","source_code":"","project_name":"\u725b\u4e45\u571f\u6d66BP\u5730\u8cea\u8abf\u67fb\u696d\u52d93K8","survey_name":"\u725b\u4e45\u571f\u6d66BP\u5730\u8cea\u8abf\u67fb\u696d\u52d93K8","client_name":"\u56fd\u571f\u4ea4\u901a\u7701\u95a2\u6771\u5730\u65b9\u6574\u5099\u5c40\u5e38\u7dcf\u56fd\u9053\u4e8b\u52d9\u6240","boring_xml_url":47,"boring_view_url":1,"soilmap_view_url":null,"soiltest_xml_url":47,"soiltest_view_url":47},{"id":473827,"code":"NGIC202104302-0019","latitude":"35.997005972222","longitude":"140.11588258333","source_code":"","project_name":"\u725b\u4e45\u571f\u6d66BP\u5730\u8cea\u8abf\u67fb\u696d\u52d93K8","survey_name":"\u725b\u4e45\u571f\u6d66BP\u5730\u8cea\u8abf\u67fb\u696d\u52d93K8","client_name":"\u56fd\u571f\u4ea4\u901a\u7701\u95a2\u6771\u5730\u65b9\u6574\u5099\u5c40\u5e38\u7dcf\u56fd\u9053\u4e8b\u52d9\u6240","boring_xml_url":47,"boring_view_url":1,"soilmap_view_url":null,"soiltest_xml_url":47,"soiltest_view_url":47},{"id":473826,"code":"NGIC202104302-0018","latitude":"35.997005972222","longitude":"140.11588258333","source_code":"","project_name":"\u725b\u4e45\u571f\u6d66BP\u5730\u8cea\u8abf\u67fb\u696d\u52d93K8","survey_name":"\u725b\u4e45\u571f\u6d66BP\u5730\u8cea\u8abf\u67fb\u696d\u52d93K8","client_name":"\u56fd\u571f\u4ea4\u901a\u7701\u95a2\u6771\u5730\u65b9\u6574\u5099\u5c40\u5e38\u7dcf\u56fd\u9053\u4e8b\u52d9\u6240","boring_xml_url":47,"boring_view_url":1,"soilmap_view_url":null,"soiltest_xml_url":47,"soiltest_view_url":47},{"id":473825,"code":"NGIC202104302-0017","latitude":"35.994457777778","longitude":"140.11678938889","source_code":"","project_name":"\u725b\u4e45\u571f\u6d66BP\u5730\u8cea\u8abf\u67fb\u696d\u52d93K8","survey_name":"\u725b\u4e45\u571f\u6d66BP\u5730\u8cea\u8abf\u67fb\u696d\u52d93K8","client_name":"\u56fd\u571f\u4ea4\u901a\u7701\u95a2\u6771\u5730\u65b9\u6574\u5099\u5c40\u5e38\u7dcf\u56fd\u9053\u4e8b\u52d9\u6240","boring_xml_url":47,"boring_view_url":1,"soilmap_view_url":null,"soiltest_xml_url":47,"soiltest_view_url":47},{"id":473824,"code":"NGIC202104302-0016","latitude":"35.994457777778","longitude":"140.11678938889","source_code":"","project_name":"\u725b\u4e45\u571f\u6d66BP\u5730\u8cea\u8abf\u67fb\u696d\u52d93K8","survey_name":"\u725b\u4e45\u571f\u6d66BP\u5730\u8cea\u8abf\u67fb\u696d\u52d93K8","client_name":"\u56fd\u571f\u4ea4\u901a\u7701\u95a2\u6771\u5730\u65b9\u6574\u5099\u5c40\u5e38\u7dcf\u56fd\u9053\u4e8b\u52d9\u6240","boring_xml_url":47,"boring_view_url":1,"soilmap_view_url":null,"soiltest_xml_url":47,"soiltest_view_url":47},{"id":473823,"code":"NGIC202104302-0015","latitude":"35.990139722222","longitude":"140.1189775","source_code":"","project_name":"\u725b\u4e45\u571f\u6d66BP\u5730\u8cea\u8abf\u67fb\u696d\u52d93K8","survey_name":"\u725b\u4e45\u571f\u6d66BP\u5730\u8cea\u8abf\u67fb\u696d\u52d93K8","client_name":"\u56fd\u571f\u4ea4\u901a\u7701\u95a2\u6771\u5730\u65b9\u6574\u5099\u5c40\u5e38\u7dcf\u56fd\u9053\u4e8b\u52d9\u6240","boring_xml_url":47,"boring_view_url":1,"soilmap_view_url":null,"soiltest_xml_url":47,"soiltest_view_url":47},{"id":473822,"code":"NGIC202104302-0014","latitude":"35.990139722222","longitude":"140.1189775","source_code":"","project_name":"\u725b\u4e45\u571f\u6d66BP\u5730\u8cea\u8abf\u67fb\u696d\u52d93K8","survey_name":"\u725b\u4e45\u571f\u6d66BP\u5730\u8cea\u8abf\u67fb\u696d\u52d93K8","client_name":"\u56fd\u571f\u4ea4\u901a\u7701\u95a2\u6771\u5730\u65b9\u6574\u5099\u5c40\u5e38\u7dcf\u56fd\u9053\u4e8b\u52d9\u6240","boring_xml_url":47,"boring_view_url":1,"soilmap_view_url":null,"soiltest_xml_url":0,"soiltest_view_url":0},{"id":473821,"code":"NGIC202104302-0013","latitude":"35.990148611111","longitude":"140.11846916667","source_code":"","project_name":"\u725b\u4e45\u571f\u6d66BP\u5730\u8cea\u8abf\u67fb\u696d\u52d93K8","survey_name":"\u725b\u4e45\u571f\u6d66BP\u5730\u8cea\u8abf\u67fb\u696d\u52d93K8","client_name":"\u56fd\u571f\u4ea4\u901a\u7701\u95a2\u6771\u5730\u65b9\u6574\u5099\u5c40\u5e38\u7dcf\u56fd\u9053\u4e8b\u52d9\u6240","boring_xml_url":47,"boring_view_url":1,"soilmap_view_url":null,"soiltest_xml_url":0,"soiltest_view_url":0},{"id":473820,"code":"NGIC202104302-0012","latitude":"35.989405277778","longitude":"140.11910444444","source_code":"","project_name":"\u725b\u4e45\u571f\u6d66BP\u5730\u8cea\u8abf\u67fb\u696d\u52d93K8","survey_name":"\u725b\u4e45\u571f\u6d66BP\u5730\u8cea\u8abf\u67fb\u696d\u52d93K8","client_name":"\u56fd\u571f\u4ea4\u901a\u7701\u95a2\u6771\u5730\u65b9\u6574\u5099\u5c40\u5e38\u7dcf\u56fd\u9053\u4e8b\u52d9\u6240","boring_xml_url":47,"boring_view_url":1,"soilmap_view_url":null,"soiltest_xml_url":47,"soiltest_view_url":47},{"id":473819,"code":"NGIC202104302-0011","latitude":"35.989405277778","longitude":"140.11910444444","source_code":"","project_name":"\u725b\u4e45\u571f\u6d66BP\u5730\u8cea\u8abf\u67fb\u696d\u52d93K8","survey_name":"\u725b\u4e45\u571f\u6d66BP\u5730\u8cea\u8abf\u67fb\u696d\u52d93K8","client_name":"\u56fd\u571f\u4ea4\u901a\u7701\u95a2\u6771\u5730\u65b9\u6574\u5099\u5c40\u5e38\u7dcf\u56fd\u9053\u4e8b\u52d9\u6240","boring_xml_url":47,"boring_view_url":1,"soilmap_view_url":null,"soiltest_xml_url":0,"soiltest_view_url":0},{"id":473818,"code":"NGIC202104302-0010","latitude":"35.985382222222","longitude":"140.119505","source_code":"","project_name":"\u725b\u4e45\u571f\u6d66BP\u5730\u8cea\u8abf\u67fb\u696d\u52d93K8","survey_name":"\u725b\u4e45\u571f\u6d66BP\u5730\u8cea\u8abf\u67fb\u696d\u52d93K8","client_name":"\u56fd\u571f\u4ea4\u901a\u7701\u95a2\u6771\u5730\u65b9\u6574\u5099\u5c40\u5e38\u7dcf\u56fd\u9053\u4e8b\u52d9\u6240","boring_xml_url":47,"boring_view_url":1,"soilmap_view_url":null,"soiltest_xml_url":47,"soiltest_view_url":47},{"id":473817,"code":"NGIC202104302-0009","latitude":"35.985382222222","longitude":"140.119505","source_code":"","project_name":"\u725b\u4e45\u571f\u6d66BP\u5730\u8cea\u8abf\u67fb\u696d\u52d93K8","survey_name":"\u725b\u4e45\u571f\u6d66BP\u5730\u8cea\u8abf\u67fb\u696d\u52d93K8","client_name":"\u56fd\u571f\u4ea4\u901a\u7701\u95a2\u6771\u5730\u65b9\u6574\u5099\u5c40\u5e38\u7dcf\u56fd\u9053\u4e8b\u52d9\u6240","boring_xml_url":47,"boring_view_url":1,"soilmap_view_url":null,"soiltest_xml_url":0,"soiltest_view_url":0},{"id":473816,"code":"NGIC202104302-0008","latitude":"35.983419722222","longitude":"140.1189325","source_code":"","project_name":"\u725b\u4e45\u571f\u6d66BP\u5730\u8cea\u8abf\u67fb\u696d\u52d93K8","survey_name":"\u725b\u4e45\u571f\u6d66BP\u5730\u8cea\u8abf\u67fb\u696d\u52d93K8","client_name":"\u56fd\u571f\u4ea4\u901a\u7701\u95a2\u6771\u5730\u65b9\u6574\u5099\u5c40\u5e38\u7dcf\u56fd\u9053\u4e8b\u52d9\u6240","boring_xml_url":47,"boring_view_url":1,"soilmap_view_url":null,"soiltest_xml_url":47,"soiltest_view_url":47},{"id":473815,"code":"NGIC202104302-0007","latitude":"35.98341975","longitude":"140.1189325","source_code":"","project_name":"\u725b\u4e45\u571f\u6d66BP\u5730\u8cea\u8abf\u67fb\u696d\u52d93K8","survey_name":"\u725b\u4e45\u571f\u6d66BP\u5730\u8cea\u8abf\u67fb\u696d\u52d93K8","client_name":"\u56fd\u571f\u4ea4\u901a\u7701\u95a2\u6771\u5730\u65b9\u6574\u5099\u5c40\u5e38\u7dcf\u56fd\u9053\u4e8b\u52d9\u6240","boring_xml_url":47,"boring_view_url":1,"soilmap_view_url":null,"soiltest_xml_url":0,"soiltest_view_url":0},{"id":473814,"code":"NGIC202104302-0006","latitude":"35.983386111111","longitude":"140.11941027778","source_code":"","project_name":"\u725b\u4e45\u571f\u6d66BP\u5730\u8cea\u8abf\u67fb\u696d\u52d93K8","survey_name":"\u725b\u4e45\u571f\u6d66BP\u5730\u8cea\u8abf\u67fb\u696d\u52d93K8","client_name":"\u56fd\u571f\u4ea4\u901a\u7701\u95a2\u6771\u5730\u65b9\u6574\u5099\u5c40\u5e38\u7dcf\u56fd\u9053\u4e8b\u52d9\u6240","boring_xml_url":47,"boring_view_url":1,"soilmap_view_url":null,"soiltest_xml_url":47,"soiltest_view_url":47},{"id":473813,"code":"NGIC202104302-0005","latitude":"35.983386111111","longitude":"140.11941027778","source_code":"","project_name":"\u725b\u4e45\u571f\u6d66BP\u5730\u8cea\u8abf\u67fb\u696d\u52d93K8","survey_name":"\u725b\u4e45\u571f\u6d66BP\u5730\u8cea\u8abf\u67fb\u696d\u52d93K8","client_name":"\u56fd\u571f\u4ea4\u901a\u7701\u95a2\u6771\u5730\u65b9\u6574\u5099\u5c40\u5e38\u7dcf\u56fd\u9053\u4e8b\u52d9\u6240","boring_xml_url":47,"boring_view_url":1,"soilmap_view_url":null,"soiltest_xml_url":0,"soiltest_view_url":0},{"id":473812,"code":"NGIC202104302-0004","latitude":"35.980533333333","longitude":"140.11973472222","source_code":"","project_name":"\u725b\u4e45\u571f\u6d66BP\u5730\u8cea\u8abf\u67fb\u696d\u52d93K8","survey_name":"\u725b\u4e45\u571f\u6d66BP\u5730\u8cea\u8abf\u67fb\u696d\u52d93K8","client_name":"\u56fd\u571f\u4ea4\u901a\u7701\u95a2\u6771\u5730\u65b9\u6574\u5099\u5c40\u5e38\u7dcf\u56fd\u9053\u4e8b\u52d9\u6240","boring_xml_url":47,"boring_view_url":1,"soilmap_view_url":null,"soiltest_xml_url":47,"soiltest_view_url":47},{"id":473811,"code":"NGIC202104302-0003","latitude":"35.980533333333","longitude":"140.11973472222","source_code":"","project_name":"\u725b\u4e45\u571f\u6d66BP\u5730\u8cea\u8abf\u67fb\u696d\u52d93K8","survey_name":"\u725b\u4e45\u571f\u6d66BP\u5730\u8cea\u8abf\u67fb\u696d\u52d93K8","client_name":"\u56fd\u571f\u4ea4\u901a\u7701\u95a2\u6771\u5730\u65b9\u6574\u5099\u5c40\u5e38\u7dcf\u56fd\u9053\u4e8b\u52d9\u6240","boring_xml_url":47,"boring_view_url":1,"soilmap_view_url":null,"soiltest_xml_url":0,"soiltest_view_url":0},{"id":473810,"code":"NGIC202104302-0002","latitude":"35.980456944444","longitude":"140.11944916667","source_code":"","project_name":"\u725b\u4e45\u571f\u6d66BP\u5730\u8cea\u8abf\u67fb\u696d\u52d93K8","survey_name":"\u725b\u4e45\u571f\u6d66BP\u5730\u8cea\u8abf\u67fb\u696d\u52d93K8","client_name":"\u56fd\u571f\u4ea4\u901a\u7701\u95a2\u6771\u5730\u65b9\u6574\u5099\u5c40\u5e38\u7dcf\u56fd\u9053\u4e8b\u52d9\u6240","boring_xml_url":47,"boring_view_url":1,"soilmap_view_url":null,"soiltest_xml_url":47,"soiltest_view_url":47},{"id":473809,"code":"NGIC202104302-0001","latitude":"35.980456944444","longitude":"140.11944916667","source_code":"","project_name":"\u725b\u4e45\u571f\u6d66BP\u5730\u8cea\u8abf\u67fb\u696d\u52d93K8","survey_name":"\u725b\u4e45\u571f\u6d66BP\u5730\u8cea\u8abf\u67fb\u696d\u52d93K8","client_name":"\u56fd\u571f\u4ea4\u901a\u7701\u95a2\u6771\u5730\u65b9\u6574\u5099\u5c40\u5e38\u7dcf\u56fd\u9053\u4e8b\u52d9\u6240","boring_xml_url":47,"boring_view_url":1,"soilmap_view_url":null,"soiltest_xml_url":0,"soiltest_view_url":0},{"id":473795,"code":"NGIC202104210-0035","latitude":"34.797333333333","longitude":"137.33225","source_code":"","project_name":"","survey_name":"\u4ee4\u548c3\u5e74\u5ea623\u53f7\u5730\u8cea\u8abf\u67fb\u696d\u52d9","client_name":"\u56fd\u571f\u4ea4\u901a\u7701\u4e2d\u90e8\u5730\u65b9\u6574\u5099\u5c40\u540d\u56db\u56fd\u9053\u4e8b\u52d9\u6240","boring_xml_url":47,"boring_view_url":1,"soilmap_view_url":null,"soiltest_xml_url":0,"soiltest_view_url":0},{"id":473794,"code":"NGIC202104210-0034","latitude":"34.838583333333","longitude":"137.28725","source_code":"","project_name":"","survey_name":"\u4ee4\u548c3\u5e74\u5ea623\u53f7\u5730\u8cea\u8abf\u67fb\u696d\u52d9","client_name":"\u56fd\u571f\u4ea4\u901a\u7701\u4e2d\u90e8\u5730\u65b9\u6574\u5099\u5c40\u540d\u56db\u56fd\u9053\u4e8b\u52d9\u6240","boring_xml_url":47,"boring_view_url":1,"soilmap_view_url":null,"soiltest_xml_url":0,"soiltest_view_url":0},{"id":473793,"code":"NGIC202104210-0033","latitude":"34.843055555556","longitude":"137.26775","source_code":"","project_name":"","survey_name":"\u4ee4\u548c3\u5e74\u5ea623\u53f7\u5730\u8cea\u8abf\u67fb\u696d\u52d9","client_name":"\u56fd\u571f\u4ea4\u901a\u7701\u4e2d\u90e8\u5730\u65b9\u6574\u5099\u5c40\u540d\u56db\u56fd\u9053\u4e8b\u52d9\u6240","boring_xml_url":47,"boring_view_url":1,"soilmap_view_url":null,"soiltest_xml_url":0,"soiltest_view_url":0},{"id":473792,"code":"NGIC202104210-0032","latitude":"34.810833333333","longitude":"137.33538888889","source_code":"","project_name":"","survey_name":"\u4ee4\u548c3\u5e74\u5ea623\u53f7\u5730\u8cea\u8abf\u67fb\u696d\u52d9","client_name":"\u56fd\u571f\u4ea4\u901a\u7701\u4e2d\u90e8\u5730\u65b9\u6574\u5099\u5c40\u540d\u56db\u56fd\u9053\u4e8b\u52d9\u6240","boring_xml_url":47,"boring_view_url":1,"soilmap_view_url":null,"soiltest_xml_url":0,"soiltest_view_url":0}]}}