{"header":{"xyz":{"source":[],"mosaic":false},"page":1766,"raw":{"soiltest_result":"0","bbox":"57.598333,109.544722,1.933333,163.806111","page":"1766"},"conditions":{"soiltest_result":0,"north":57.598333,"west":109.544722,"south":1.933333,"east":163.806111},"success":true,"message":""},"data":{"meta":{"total":212844,"page":1766,"pages":7095,"count":30},"values":[{"id":473578,"code":"NGIC202104299-0009","latitude":"35.518747222222","longitude":"134.05764722222","source_code":"","project_name":"\u4ee4\u548c3\u5e74\u5ea6\u9ce5\u53d6\u6cb3\u5ddd\u56fd\u9053\u4e8b\u52d9\u6240\u7ba1\u5185\u5730\u8cea\u8abf\u67fb\u696d\u52d9","survey_name":"\u4ee4\u548c3\u5e74\u5ea6\u9ce5\u53d6\u6cb3\u5ddd\u56fd\u9053\u4e8b\u52d9\u6240\u7ba1\u5185\u5730\u8cea\u8abf\u67fb\u696d\u52d9","client_name":"\u56fd\u571f\u4ea4\u901a\u7701\u4e2d\u56fd\u5730\u65b9\u6574\u5099\u5c40\u9ce5\u53d6\u6cb3\u5ddd\u56fd\u9053\u4e8b\u52d9\u6240","boring_xml_url":47,"boring_view_url":1,"soilmap_view_url":null,"soiltest_xml_url":47,"soiltest_view_url":47},{"id":473577,"code":"NGIC202104299-0008","latitude":"35.518852777778","longitude":"134.05829166667","source_code":"","project_name":"\u4ee4\u548c3\u5e74\u5ea6\u9ce5\u53d6\u6cb3\u5ddd\u56fd\u9053\u4e8b\u52d9\u6240\u7ba1\u5185\u5730\u8cea\u8abf\u67fb\u696d\u52d9","survey_name":"\u4ee4\u548c3\u5e74\u5ea6\u9ce5\u53d6\u6cb3\u5ddd\u56fd\u9053\u4e8b\u52d9\u6240\u7ba1\u5185\u5730\u8cea\u8abf\u67fb\u696d\u52d9","client_name":"\u56fd\u571f\u4ea4\u901a\u7701\u4e2d\u56fd\u5730\u65b9\u6574\u5099\u5c40\u9ce5\u53d6\u6cb3\u5ddd\u56fd\u9053\u4e8b\u52d9\u6240","boring_xml_url":47,"boring_view_url":1,"soilmap_view_url":null,"soiltest_xml_url":47,"soiltest_view_url":47},{"id":473576,"code":"NGIC202104299-0007","latitude":"35.518933333333","longitude":"134.05894444444","source_code":"","project_name":"\u4ee4\u548c3\u5e74\u5ea6\u9ce5\u53d6\u6cb3\u5ddd\u56fd\u9053\u4e8b\u52d9\u6240\u7ba1\u5185\u5730\u8cea\u8abf\u67fb\u696d\u52d9","survey_name":"\u4ee4\u548c3\u5e74\u5ea6\u9ce5\u53d6\u6cb3\u5ddd\u56fd\u9053\u4e8b\u52d9\u6240\u7ba1\u5185\u5730\u8cea\u8abf\u67fb\u696d\u52d9","client_name":"\u56fd\u571f\u4ea4\u901a\u7701\u4e2d\u56fd\u5730\u65b9\u6574\u5099\u5c40\u9ce5\u53d6\u6cb3\u5ddd\u56fd\u9053\u4e8b\u52d9\u6240","boring_xml_url":47,"boring_view_url":1,"soilmap_view_url":null,"soiltest_xml_url":47,"soiltest_view_url":47},{"id":473575,"code":"NGIC202104299-0006","latitude":"35.267544444444","longitude":"134.22992222222","source_code":"","project_name":"\u4ee4\u548c3\u5e74\u5ea6\u9ce5\u53d6\u6cb3\u5ddd\u56fd\u9053\u4e8b\u52d9\u6240\u7ba1\u5185\u5730\u8cea\u8abf\u67fb\u696d\u52d9","survey_name":"\u4ee4\u548c3\u5e74\u5ea6\u9ce5\u53d6\u6cb3\u5ddd\u56fd\u9053\u4e8b\u52d9\u6240\u7ba1\u5185\u5730\u8cea\u8abf\u67fb\u696d\u52d9","client_name":"\u56fd\u571f\u4ea4\u901a\u7701\u4e2d\u56fd\u5730\u65b9\u6574\u5099\u5c40\u9ce5\u53d6\u6cb3\u5ddd\u56fd\u9053\u4e8b\u52d9\u6240","boring_xml_url":47,"boring_view_url":1,"soilmap_view_url":null,"soiltest_xml_url":47,"soiltest_view_url":47},{"id":473574,"code":"NGIC202104299-0005","latitude":"35.518563888889","longitude":"134.05659722222","source_code":"","project_name":"\u4ee4\u548c3\u5e74\u5ea6\u9ce5\u53d6\u6cb3\u5ddd\u56fd\u9053\u4e8b\u52d9\u6240\u7ba1\u5185\u5730\u8cea\u8abf\u67fb\u696d\u52d9","survey_name":"\u4ee4\u548c3\u5e74\u5ea6\u9ce5\u53d6\u6cb3\u5ddd\u56fd\u9053\u4e8b\u52d9\u6240\u7ba1\u5185\u5730\u8cea\u8abf\u67fb\u696d\u52d9","client_name":"\u56fd\u571f\u4ea4\u901a\u7701\u4e2d\u56fd\u5730\u65b9\u6574\u5099\u5c40\u9ce5\u53d6\u6cb3\u5ddd\u56fd\u9053\u4e8b\u52d9\u6240","boring_xml_url":47,"boring_view_url":1,"soilmap_view_url":null,"soiltest_xml_url":47,"soiltest_view_url":47},{"id":473573,"code":"NGIC202104299-0004","latitude":"35.516402777778","longitude":"134.07350555556","source_code":"","project_name":"\u4ee4\u548c3\u5e74\u5ea6\u9ce5\u53d6\u6cb3\u5ddd\u56fd\u9053\u4e8b\u52d9\u6240\u7ba1\u5185\u5730\u8cea\u8abf\u67fb\u696d\u52d9","survey_name":"\u4ee4\u548c3\u5e74\u5ea6\u9ce5\u53d6\u6cb3\u5ddd\u56fd\u9053\u4e8b\u52d9\u6240\u7ba1\u5185\u5730\u8cea\u8abf\u67fb\u696d\u52d9","client_name":"\u56fd\u571f\u4ea4\u901a\u7701\u4e2d\u56fd\u5730\u65b9\u6574\u5099\u5c40\u9ce5\u53d6\u6cb3\u5ddd\u56fd\u9053\u4e8b\u52d9\u6240","boring_xml_url":47,"boring_view_url":1,"soilmap_view_url":null,"soiltest_xml_url":47,"soiltest_view_url":47},{"id":473572,"code":"NGIC202104299-0003","latitude":"35.517319444444","longitude":"134.07761944444","source_code":"","project_name":"\u4ee4\u548c3\u5e74\u5ea6\u9ce5\u53d6\u6cb3\u5ddd\u56fd\u9053\u4e8b\u52d9\u6240\u7ba1\u5185\u5730\u8cea\u8abf\u67fb\u696d\u52d9","survey_name":"\u4ee4\u548c3\u5e74\u5ea6\u9ce5\u53d6\u6cb3\u5ddd\u56fd\u9053\u4e8b\u52d9\u6240\u7ba1\u5185\u5730\u8cea\u8abf\u67fb\u696d\u52d9","client_name":"\u56fd\u571f\u4ea4\u901a\u7701\u4e2d\u56fd\u5730\u65b9\u6574\u5099\u5c40\u9ce5\u53d6\u6cb3\u5ddd\u56fd\u9053\u4e8b\u52d9\u6240","boring_xml_url":47,"boring_view_url":1,"soilmap_view_url":null,"soiltest_xml_url":47,"soiltest_view_url":47},{"id":473571,"code":"NGIC202104299-0002","latitude":"35.522780555556","longitude":"134.187675","source_code":"","project_name":"\u4ee4\u548c3\u5e74\u5ea6\u9ce5\u53d6\u6cb3\u5ddd\u56fd\u9053\u4e8b\u52d9\u6240\u7ba1\u5185\u5730\u8cea\u8abf\u67fb\u696d\u52d9","survey_name":"\u4ee4\u548c3\u5e74\u5ea6\u9ce5\u53d6\u6cb3\u5ddd\u56fd\u9053\u4e8b\u52d9\u6240\u7ba1\u5185\u5730\u8cea\u8abf\u67fb\u696d\u52d9","client_name":"\u56fd\u571f\u4ea4\u901a\u7701\u4e2d\u56fd\u5730\u65b9\u6574\u5099\u5c40\u9ce5\u53d6\u6cb3\u5ddd\u56fd\u9053\u4e8b\u52d9\u6240","boring_xml_url":47,"boring_view_url":1,"soilmap_view_url":null,"soiltest_xml_url":47,"soiltest_view_url":47},{"id":473570,"code":"NGIC202104299-0001","latitude":"35.523338888889","longitude":"134.22137222222","source_code":"","project_name":"\u4ee4\u548c3\u5e74\u5ea6\u9ce5\u53d6\u6cb3\u5ddd\u56fd\u9053\u4e8b\u52d9\u6240\u7ba1\u5185\u5730\u8cea\u8abf\u67fb\u696d\u52d9","survey_name":"\u4ee4\u548c3\u5e74\u5ea6\u9ce5\u53d6\u6cb3\u5ddd\u56fd\u9053\u4e8b\u52d9\u6240\u7ba1\u5185\u5730\u8cea\u8abf\u67fb\u696d\u52d9","client_name":"\u56fd\u571f\u4ea4\u901a\u7701\u4e2d\u56fd\u5730\u65b9\u6574\u5099\u5c40\u9ce5\u53d6\u6cb3\u5ddd\u56fd\u9053\u4e8b\u52d9\u6240","boring_xml_url":47,"boring_view_url":1,"soilmap_view_url":null,"soiltest_xml_url":47,"soiltest_view_url":47},{"id":473550,"code":"NGIC202104129-0002","latitude":"33.991218583333","longitude":"130.95210855556","source_code":"","project_name":"","survey_name":"\u4ee4\u548c3\u5e74\u5ea6\u5b87\u90e8\u30fb\u4e0b\u95a2\u5730\u533a\u4fee\u7e55\u8a2d\u8a08\u5916\u696d\u52d9","client_name":"\u56fd\u571f\u4ea4\u901a\u7701\u4e2d\u56fd\u5730\u65b9\u6574\u5099\u5c40\u5c71\u53e3\u6cb3\u5ddd\u56fd\u9053\u4e8b\u52d9\u6240","boring_xml_url":47,"boring_view_url":1,"soilmap_view_url":null,"soiltest_xml_url":0,"soiltest_view_url":0},{"id":473549,"code":"NGIC202104129-0001","latitude":"33.973892388889","longitude":"130.97128316667","source_code":"","project_name":"","survey_name":"\u4ee4\u548c3\u5e74\u5ea6\u5b87\u90e8\u30fb\u4e0b\u95a2\u5730\u533a\u4fee\u7e55\u8a2d\u8a08\u5916\u696d\u52d9","client_name":"\u56fd\u571f\u4ea4\u901a\u7701\u4e2d\u56fd\u5730\u65b9\u6574\u5099\u5c40\u5c71\u53e3\u6cb3\u5ddd\u56fd\u9053\u4e8b\u52d9\u6240","boring_xml_url":47,"boring_view_url":1,"soilmap_view_url":null,"soiltest_xml_url":0,"soiltest_view_url":0},{"id":473526,"code":"NGIC202104432-0002","latitude":"31.568877777778","longitude":"131.39535","source_code":"","project_name":"\u56fd\u9053220\u53f7","survey_name":"\u4ee4\u548c2\u30fb3\u5e74\u5ea6\u56fd\u9053220\u53f7\u659c\u9762\u52d5\u614b\u89b3\u6e2c\u5916\u696d\u52d9","client_name":"\u56fd\u571f\u4ea4\u901a\u7701\u4e5d\u5dde\u5730\u65b9\u6574\u5099\u5c40\u5bae\u5d0e\u6cb3\u5ddd\u56fd\u9053\u4e8b\u52d9\u6240","boring_xml_url":47,"boring_view_url":1,"soilmap_view_url":null,"soiltest_xml_url":0,"soiltest_view_url":0},{"id":473512,"code":"NGIC202104452-0014","latitude":"35.284008611111","longitude":"136.27535577778","source_code":"","project_name":"","survey_name":"\u7c73\u539f\u30d0\u30a4\u30d1\u30b9\u4f50\u548c\u5c71\u5730\u533a\u4ed6\u5730\u8cea\u8abf\u67fb\u696d\u52d9","client_name":"\u56fd\u571f\u4ea4\u901a\u7701\u8fd1\u757f\u5730\u65b9\u6574\u5099\u5c40\u6ecb\u8cc0\u56fd\u9053\u4e8b\u52d9\u6240","boring_xml_url":47,"boring_view_url":1,"soilmap_view_url":null,"soiltest_xml_url":0,"soiltest_view_url":0},{"id":473511,"code":"NGIC202104452-0013","latitude":"35.284017722222","longitude":"136.27515438889","source_code":"","project_name":"","survey_name":"\u7c73\u539f\u30d0\u30a4\u30d1\u30b9\u4f50\u548c\u5c71\u5730\u533a\u4ed6\u5730\u8cea\u8abf\u67fb\u696d\u52d9","client_name":"\u56fd\u571f\u4ea4\u901a\u7701\u8fd1\u757f\u5730\u65b9\u6574\u5099\u5c40\u6ecb\u8cc0\u56fd\u9053\u4e8b\u52d9\u6240","boring_xml_url":47,"boring_view_url":1,"soilmap_view_url":null,"soiltest_xml_url":0,"soiltest_view_url":0},{"id":473510,"code":"NGIC202104452-0012","latitude":"35.284124194444","longitude":"136.27522044444","source_code":"","project_name":"","survey_name":"\u7c73\u539f\u30d0\u30a4\u30d1\u30b9\u4f50\u548c\u5c71\u5730\u533a\u4ed6\u5730\u8cea\u8abf\u67fb\u696d\u52d9","client_name":"\u56fd\u571f\u4ea4\u901a\u7701\u8fd1\u757f\u5730\u65b9\u6574\u5099\u5c40\u6ecb\u8cc0\u56fd\u9053\u4e8b\u52d9\u6240","boring_xml_url":47,"boring_view_url":1,"soilmap_view_url":null,"soiltest_xml_url":0,"soiltest_view_url":0},{"id":473508,"code":"NGIC202104452-0010","latitude":"35.054417416667","longitude":"136.01707875","source_code":"","project_name":"","survey_name":"\u7c73\u539f\u30d0\u30a4\u30d1\u30b9\u4f50\u548c\u5c71\u5730\u533a\u4ed6\u5730\u8cea\u8abf\u67fb\u696d\u52d9","client_name":"\u56fd\u571f\u4ea4\u901a\u7701\u8fd1\u757f\u5730\u65b9\u6574\u5099\u5c40\u6ecb\u8cc0\u56fd\u9053\u4e8b\u52d9\u6240","boring_xml_url":47,"boring_view_url":1,"soilmap_view_url":null,"soiltest_xml_url":0,"soiltest_view_url":0},{"id":473507,"code":"NGIC202104452-0009","latitude":"35.296609055556","longitude":"136.26570269444","source_code":"","project_name":"","survey_name":"\u7c73\u539f\u30d0\u30a4\u30d1\u30b9\u4f50\u548c\u5c71\u5730\u533a\u4ed6\u5730\u8cea\u8abf\u67fb\u696d\u52d9","client_name":"\u56fd\u571f\u4ea4\u901a\u7701\u8fd1\u757f\u5730\u65b9\u6574\u5099\u5c40\u6ecb\u8cc0\u56fd\u9053\u4e8b\u52d9\u6240","boring_xml_url":47,"boring_view_url":1,"soilmap_view_url":null,"soiltest_xml_url":47,"soiltest_view_url":47},{"id":473506,"code":"NGIC202104452-0008","latitude":"35.297121833333","longitude":"136.26599911111","source_code":"","project_name":"","survey_name":"\u7c73\u539f\u30d0\u30a4\u30d1\u30b9\u4f50\u548c\u5c71\u5730\u533a\u4ed6\u5730\u8cea\u8abf\u67fb\u696d\u52d9","client_name":"\u56fd\u571f\u4ea4\u901a\u7701\u8fd1\u757f\u5730\u65b9\u6574\u5099\u5c40\u6ecb\u8cc0\u56fd\u9053\u4e8b\u52d9\u6240","boring_xml_url":47,"boring_view_url":1,"soilmap_view_url":null,"soiltest_xml_url":0,"soiltest_view_url":0},{"id":473505,"code":"NGIC202104452-0007","latitude":"35.296538027778","longitude":"136.26589480556","source_code":"","project_name":"","survey_name":"\u7c73\u539f\u30d0\u30a4\u30d1\u30b9\u4f50\u548c\u5c71\u5730\u533a\u4ed6\u5730\u8cea\u8abf\u67fb\u696d\u52d9","client_name":"\u56fd\u571f\u4ea4\u901a\u7701\u8fd1\u757f\u5730\u65b9\u6574\u5099\u5c40\u6ecb\u8cc0\u56fd\u9053\u4e8b\u52d9\u6240","boring_xml_url":47,"boring_view_url":1,"soilmap_view_url":null,"soiltest_xml_url":0,"soiltest_view_url":0},{"id":473504,"code":"NGIC202104452-0006","latitude":"35.297063638889","longitude":"136.26615066667","source_code":"","project_name":"","survey_name":"\u7c73\u539f\u30d0\u30a4\u30d1\u30b9\u4f50\u548c\u5c71\u5730\u533a\u4ed6\u5730\u8cea\u8abf\u67fb\u696d\u52d9","client_name":"\u56fd\u571f\u4ea4\u901a\u7701\u8fd1\u757f\u5730\u65b9\u6574\u5099\u5c40\u6ecb\u8cc0\u56fd\u9053\u4e8b\u52d9\u6240","boring_xml_url":47,"boring_view_url":1,"soilmap_view_url":null,"soiltest_xml_url":47,"soiltest_view_url":47},{"id":473503,"code":"NGIC202104452-0005","latitude":"35.281933638889","longitude":"136.27736405556","source_code":"","project_name":"","survey_name":"\u7c73\u539f\u30d0\u30a4\u30d1\u30b9\u4f50\u548c\u5c71\u5730\u533a\u4ed6\u5730\u8cea\u8abf\u67fb\u696d\u52d9","client_name":"\u56fd\u571f\u4ea4\u901a\u7701\u8fd1\u757f\u5730\u65b9\u6574\u5099\u5c40\u6ecb\u8cc0\u56fd\u9053\u4e8b\u52d9\u6240","boring_xml_url":47,"boring_view_url":1,"soilmap_view_url":null,"soiltest_xml_url":47,"soiltest_view_url":47},{"id":473502,"code":"NGIC202104452-0004","latitude":"35.281972972222","longitude":"136.27717380556","source_code":"","project_name":"","survey_name":"\u7c73\u539f\u30d0\u30a4\u30d1\u30b9\u4f50\u548c\u5c71\u5730\u533a\u4ed6\u5730\u8cea\u8abf\u67fb\u696d\u52d9","client_name":"\u56fd\u571f\u4ea4\u901a\u7701\u8fd1\u757f\u5730\u65b9\u6574\u5099\u5c40\u6ecb\u8cc0\u56fd\u9053\u4e8b\u52d9\u6240","boring_xml_url":47,"boring_view_url":1,"soilmap_view_url":null,"soiltest_xml_url":0,"soiltest_view_url":0},{"id":473501,"code":"NGIC202104452-0003","latitude":"35.282172583333","longitude":"136.27718436111","source_code":"","project_name":"","survey_name":"\u7c73\u539f\u30d0\u30a4\u30d1\u30b9\u4f50\u548c\u5c71\u5730\u533a\u4ed6\u5730\u8cea\u8abf\u67fb\u696d\u52d9","client_name":"\u56fd\u571f\u4ea4\u901a\u7701\u8fd1\u757f\u5730\u65b9\u6574\u5099\u5c40\u6ecb\u8cc0\u56fd\u9053\u4e8b\u52d9\u6240","boring_xml_url":47,"boring_view_url":1,"soilmap_view_url":null,"soiltest_xml_url":47,"soiltest_view_url":47},{"id":473500,"code":"NGIC202104452-0002","latitude":"35.282557777778","longitude":"136.27684894444","source_code":"","project_name":"","survey_name":"\u7c73\u539f\u30d0\u30a4\u30d1\u30b9\u4f50\u548c\u5c71\u5730\u533a\u4ed6\u5730\u8cea\u8abf\u67fb\u696d\u52d9","client_name":"\u56fd\u571f\u4ea4\u901a\u7701\u8fd1\u757f\u5730\u65b9\u6574\u5099\u5c40\u6ecb\u8cc0\u56fd\u9053\u4e8b\u52d9\u6240","boring_xml_url":47,"boring_view_url":1,"soilmap_view_url":null,"soiltest_xml_url":47,"soiltest_view_url":47},{"id":473499,"code":"NGIC202104452-0001","latitude":"35.282949277778","longitude":"136.27649541667","source_code":"","project_name":"","survey_name":"\u7c73\u539f\u30d0\u30a4\u30d1\u30b9\u4f50\u548c\u5c71\u5730\u533a\u4ed6\u5730\u8cea\u8abf\u67fb\u696d\u52d9","client_name":"\u56fd\u571f\u4ea4\u901a\u7701\u8fd1\u757f\u5730\u65b9\u6574\u5099\u5c40\u6ecb\u8cc0\u56fd\u9053\u4e8b\u52d9\u6240","boring_xml_url":47,"boring_view_url":1,"soilmap_view_url":null,"soiltest_xml_url":47,"soiltest_view_url":47},{"id":473485,"code":"NGIC202104420-0007","latitude":"33.458210972222","longitude":"132.70355069444","source_code":"","project_name":"","survey_name":"\u4ee4\u548c3\u5e74\u5ea6\u5c71\u9ce5\u5742\u30c0\u30e0\u7ba1\u5185\u5730\u8cea\u8abf\u67fb\uff08\u305d\u306e5\uff09\u696d\u52d9","client_name":"\u56fd\u571f\u4ea4\u901a\u7701\u56db\u56fd\u5730\u65b9\u6574\u5099\u5c40\u5c71\u9ce5\u5742\u30c0\u30e0\u5de5\u4e8b\u4e8b\u52d9\u6240","boring_xml_url":47,"boring_view_url":1,"soilmap_view_url":null,"soiltest_xml_url":0,"soiltest_view_url":0},{"id":473484,"code":"NGIC202104420-0006","latitude":"33.458200277778","longitude":"132.70311527778","source_code":"","project_name":"","survey_name":"\u4ee4\u548c3\u5e74\u5ea6\u5c71\u9ce5\u5742\u30c0\u30e0\u7ba1\u5185\u5730\u8cea\u8abf\u67fb\uff08\u305d\u306e5\uff09\u696d\u52d9","client_name":"\u56fd\u571f\u4ea4\u901a\u7701\u56db\u56fd\u5730\u65b9\u6574\u5099\u5c40\u5c71\u9ce5\u5742\u30c0\u30e0\u5de5\u4e8b\u4e8b\u52d9\u6240","boring_xml_url":47,"boring_view_url":1,"soilmap_view_url":null,"soiltest_xml_url":0,"soiltest_view_url":0},{"id":473483,"code":"NGIC202104420-0005","latitude":"33.458195444444","longitude":"132.70269825","source_code":"","project_name":"","survey_name":"\u4ee4\u548c3\u5e74\u5ea6\u5c71\u9ce5\u5742\u30c0\u30e0\u7ba1\u5185\u5730\u8cea\u8abf\u67fb\uff08\u305d\u306e5\uff09\u696d\u52d9","client_name":"\u56fd\u571f\u4ea4\u901a\u7701\u56db\u56fd\u5730\u65b9\u6574\u5099\u5c40\u5c71\u9ce5\u5742\u30c0\u30e0\u5de5\u4e8b\u4e8b\u52d9\u6240","boring_xml_url":47,"boring_view_url":1,"soilmap_view_url":null,"soiltest_xml_url":0,"soiltest_view_url":0},{"id":473482,"code":"NGIC202104420-0004","latitude":"33.457839638889","longitude":"132.70311858333","source_code":"","project_name":"","survey_name":"\u4ee4\u548c3\u5e74\u5ea6\u5c71\u9ce5\u5742\u30c0\u30e0\u7ba1\u5185\u5730\u8cea\u8abf\u67fb\uff08\u305d\u306e5\uff09\u696d\u52d9","client_name":"\u56fd\u571f\u4ea4\u901a\u7701\u56db\u56fd\u5730\u65b9\u6574\u5099\u5c40\u5c71\u9ce5\u5742\u30c0\u30e0\u5de5\u4e8b\u4e8b\u52d9\u6240","boring_xml_url":47,"boring_view_url":1,"soilmap_view_url":null,"soiltest_xml_url":0,"soiltest_view_url":0},{"id":473481,"code":"NGIC202104420-0003","latitude":"33.461308777778","longitude":"132.70443569444","source_code":"","project_name":"","survey_name":"\u4ee4\u548c3\u5e74\u5ea6\u5c71\u9ce5\u5742\u30c0\u30e0\u7ba1\u5185\u5730\u8cea\u8abf\u67fb\uff08\u305d\u306e5\uff09\u696d\u52d9","client_name":"\u56fd\u571f\u4ea4\u901a\u7701\u56db\u56fd\u5730\u65b9\u6574\u5099\u5c40\u5c71\u9ce5\u5742\u30c0\u30e0\u5de5\u4e8b\u4e8b\u52d9\u6240","boring_xml_url":47,"boring_view_url":1,"soilmap_view_url":null,"soiltest_xml_url":0,"soiltest_view_url":0}]}}