{"header":{"xyz":{"source":[],"mosaic":false},"page":1781,"raw":{"soiltest_result":"0","bbox":"57.598333,109.544722,1.933333,163.806111","page":"1781"},"conditions":{"soiltest_result":0,"north":57.598333,"west":109.544722,"south":1.933333,"east":163.806111},"success":true,"message":""},"data":{"meta":{"total":212844,"page":1781,"pages":7095,"count":30},"values":[{"id":472204,"code":"NGIC202104202-0002","latitude":"37.653805555556","longitude":"138.80630555556","source_code":"","project_name":"","survey_name":"\u4ee4\u548c3\u5e74\u5ea6\u4fe1\u6fc3\u5ddd\u6cb3\u5ddd\u4e8b\u52d9\u6240\u7ba1\u5185\u5730\u8cea\u8abf\u67fb\u696d\u52d9 \u6e21\u90e8\u6a4b\u4e0b\u6d41\uff08\u53f3\u5cb8\uff09\u5730\u533a\u5730\u8cea\u8abf\u67fb","client_name":"\u56fd\u571f\u4ea4\u901a\u7701\u5317\u9678\u5730\u65b9\u6574\u5099\u5c40\u4fe1\u6fc3\u5ddd\u6cb3\u5ddd\u4e8b\u52d9\u6240","boring_xml_url":47,"boring_view_url":1,"soilmap_view_url":null,"soiltest_xml_url":0,"soiltest_view_url":0},{"id":472203,"code":"NGIC202104202-0001","latitude":"37.654277777778","longitude":"138.80666666667","source_code":"","project_name":"","survey_name":"\u4ee4\u548c3\u5e74\u5ea6\u4fe1\u6fc3\u5ddd\u6cb3\u5ddd\u4e8b\u52d9\u6240\u7ba1\u5185\u5730\u8cea\u8abf\u67fb\u696d\u52d9 \u6e21\u90e8\u6a4b\u4e0b\u6d41\uff08\u53f3\u5cb8\uff09\u5730\u533a\u5730\u8cea\u8abf\u67fb","client_name":"\u56fd\u571f\u4ea4\u901a\u7701\u5317\u9678\u5730\u65b9\u6574\u5099\u5c40\u4fe1\u6fc3\u5ddd\u6cb3\u5ddd\u4e8b\u52d9\u6240","boring_xml_url":47,"boring_view_url":1,"soilmap_view_url":null,"soiltest_xml_url":0,"soiltest_view_url":0},{"id":472177,"code":"NGIC202103992-0030","latitude":"35.459808333333","longitude":"136.84253055556","source_code":"","project_name":"\u5c90\u961c\u6771BP\u4e8b\u696d","survey_name":"\u4ee4\u548c2\u5e74\u5ea6156\u53f7\u5c90\u961c\u6771BP\u82a5\u898b\u5730\u533a\u5730\u8cea\u8abf\u67fb\u696d\u52d9","client_name":"\u56fd\u571f\u4ea4\u901a\u7701\u4e2d\u90e8\u5730\u65b9\u6574\u5099\u5c40\u5c90\u961c\u56fd\u9053\u4e8b\u52d9\u6240","boring_xml_url":47,"boring_view_url":1,"soilmap_view_url":null,"soiltest_xml_url":0,"soiltest_view_url":0},{"id":472176,"code":"NGIC202103992-0029","latitude":"35.45935","longitude":"136.84215","source_code":"","project_name":"\u5c90\u961c\u6771BP\u4e8b\u696d","survey_name":"\u4ee4\u548c2\u5e74\u5ea6156\u53f7\u5c90\u961c\u6771BP\u82a5\u898b\u5730\u533a\u5730\u8cea\u8abf\u67fb\u696d\u52d9","client_name":"\u56fd\u571f\u4ea4\u901a\u7701\u4e2d\u90e8\u5730\u65b9\u6574\u5099\u5c40\u5c90\u961c\u56fd\u9053\u4e8b\u52d9\u6240","boring_xml_url":47,"boring_view_url":1,"soilmap_view_url":null,"soiltest_xml_url":0,"soiltest_view_url":0},{"id":472175,"code":"NGIC202103992-0028","latitude":"35.455522222222","longitude":"136.84006111111","source_code":"","project_name":"\u5c90\u961c\u6771BP\u4e8b\u696d","survey_name":"\u4ee4\u548c2\u5e74\u5ea6156\u53f7\u5c90\u961c\u6771BP\u82a5\u898b\u5730\u533a\u5730\u8cea\u8abf\u67fb\u696d\u52d9","client_name":"\u56fd\u571f\u4ea4\u901a\u7701\u4e2d\u90e8\u5730\u65b9\u6574\u5099\u5c40\u5c90\u961c\u56fd\u9053\u4e8b\u52d9\u6240","boring_xml_url":47,"boring_view_url":1,"soilmap_view_url":null,"soiltest_xml_url":0,"soiltest_view_url":0},{"id":472174,"code":"NGIC202103992-0027","latitude":"35.443822222222","longitude":"136.83387222222","source_code":"","project_name":"\u5c90\u961c\u6771BP\u4e8b\u696d","survey_name":"\u4ee4\u548c2\u5e74\u5ea6156\u53f7\u5c90\u961c\u6771BP\u82a5\u898b\u5730\u533a\u5730\u8cea\u8abf\u67fb\u696d\u52d9","client_name":"\u56fd\u571f\u4ea4\u901a\u7701\u4e2d\u90e8\u5730\u65b9\u6574\u5099\u5c40\u5c90\u961c\u56fd\u9053\u4e8b\u52d9\u6240","boring_xml_url":47,"boring_view_url":1,"soilmap_view_url":null,"soiltest_xml_url":0,"soiltest_view_url":0},{"id":472173,"code":"NGIC202103992-0026","latitude":"35.452802777778","longitude":"136.83821666667","source_code":"","project_name":"\u5c90\u961c\u6771BP\u4e8b\u696d","survey_name":"\u4ee4\u548c2\u5e74\u5ea6156\u53f7\u5c90\u961c\u6771BP\u82a5\u898b\u5730\u533a\u5730\u8cea\u8abf\u67fb\u696d\u52d9","client_name":"\u56fd\u571f\u4ea4\u901a\u7701\u4e2d\u90e8\u5730\u65b9\u6574\u5099\u5c40\u5c90\u961c\u56fd\u9053\u4e8b\u52d9\u6240","boring_xml_url":47,"boring_view_url":1,"soilmap_view_url":null,"soiltest_xml_url":47,"soiltest_view_url":47},{"id":472172,"code":"NGIC202103992-0025","latitude":"35.451719444444","longitude":"136.83812222222","source_code":"","project_name":"\u5c90\u961c\u6771BP\u4e8b\u696d","survey_name":"\u4ee4\u548c2\u5e74\u5ea6156\u53f7\u5c90\u961c\u6771BP\u82a5\u898b\u5730\u533a\u5730\u8cea\u8abf\u67fb\u696d\u52d9","client_name":"\u56fd\u571f\u4ea4\u901a\u7701\u4e2d\u90e8\u5730\u65b9\u6574\u5099\u5c40\u5c90\u961c\u56fd\u9053\u4e8b\u52d9\u6240","boring_xml_url":47,"boring_view_url":1,"soilmap_view_url":null,"soiltest_xml_url":47,"soiltest_view_url":47},{"id":472171,"code":"NGIC202103992-0024","latitude":"35.450927777778","longitude":"136.83781388889","source_code":"","project_name":"\u5c90\u961c\u6771BP\u4e8b\u696d","survey_name":"\u4ee4\u548c2\u5e74\u5ea6156\u53f7\u5c90\u961c\u6771BP\u82a5\u898b\u5730\u533a\u5730\u8cea\u8abf\u67fb\u696d\u52d9","client_name":"\u56fd\u571f\u4ea4\u901a\u7701\u4e2d\u90e8\u5730\u65b9\u6574\u5099\u5c40\u5c90\u961c\u56fd\u9053\u4e8b\u52d9\u6240","boring_xml_url":47,"boring_view_url":1,"soilmap_view_url":null,"soiltest_xml_url":0,"soiltest_view_url":0},{"id":472170,"code":"NGIC202103992-0023","latitude":"35.460883333333","longitude":"136.84316666667","source_code":"","project_name":"\u5c90\u961c\u6771BP\u4e8b\u696d","survey_name":"\u4ee4\u548c2\u5e74\u5ea6156\u53f7\u5c90\u961c\u6771BP\u82a5\u898b\u5730\u533a\u5730\u8cea\u8abf\u67fb\u696d\u52d9","client_name":"\u56fd\u571f\u4ea4\u901a\u7701\u4e2d\u90e8\u5730\u65b9\u6574\u5099\u5c40\u5c90\u961c\u56fd\u9053\u4e8b\u52d9\u6240","boring_xml_url":47,"boring_view_url":1,"soilmap_view_url":null,"soiltest_xml_url":0,"soiltest_view_url":0},{"id":472169,"code":"NGIC202103992-0022","latitude":"35.46075","longitude":"136.84360833333","source_code":"","project_name":"\u5c90\u961c\u6771BP\u4e8b\u696d","survey_name":"\u4ee4\u548c2\u5e74\u5ea6156\u53f7\u5c90\u961c\u6771BP\u82a5\u898b\u5730\u533a\u5730\u8cea\u8abf\u67fb\u696d\u52d9","client_name":"\u56fd\u571f\u4ea4\u901a\u7701\u4e2d\u90e8\u5730\u65b9\u6574\u5099\u5c40\u5c90\u961c\u56fd\u9053\u4e8b\u52d9\u6240","boring_xml_url":47,"boring_view_url":1,"soilmap_view_url":null,"soiltest_xml_url":47,"soiltest_view_url":47},{"id":472168,"code":"NGIC202103992-0021","latitude":"35.460363888889","longitude":"136.84318611111","source_code":"","project_name":"\u5c90\u961c\u6771BP\u4e8b\u696d","survey_name":"\u4ee4\u548c2\u5e74\u5ea6156\u53f7\u5c90\u961c\u6771BP\u82a5\u898b\u5730\u533a\u5730\u8cea\u8abf\u67fb\u696d\u52d9","client_name":"\u56fd\u571f\u4ea4\u901a\u7701\u4e2d\u90e8\u5730\u65b9\u6574\u5099\u5c40\u5c90\u961c\u56fd\u9053\u4e8b\u52d9\u6240","boring_xml_url":47,"boring_view_url":1,"soilmap_view_url":null,"soiltest_xml_url":47,"soiltest_view_url":47},{"id":472167,"code":"NGIC202103992-0020","latitude":"35.460313888889","longitude":"136.84275","source_code":"","project_name":"\u5c90\u961c\u6771BP\u4e8b\u696d","survey_name":"\u4ee4\u548c2\u5e74\u5ea6156\u53f7\u5c90\u961c\u6771BP\u82a5\u898b\u5730\u533a\u5730\u8cea\u8abf\u67fb\u696d\u52d9","client_name":"\u56fd\u571f\u4ea4\u901a\u7701\u4e2d\u90e8\u5730\u65b9\u6574\u5099\u5c40\u5c90\u961c\u56fd\u9053\u4e8b\u52d9\u6240","boring_xml_url":47,"boring_view_url":1,"soilmap_view_url":null,"soiltest_xml_url":47,"soiltest_view_url":47},{"id":472166,"code":"NGIC202103992-0019","latitude":"35.460158333333","longitude":"136.84306944444","source_code":"","project_name":"\u5c90\u961c\u6771BP\u4e8b\u696d","survey_name":"\u4ee4\u548c2\u5e74\u5ea6156\u53f7\u5c90\u961c\u6771BP\u82a5\u898b\u5730\u533a\u5730\u8cea\u8abf\u67fb\u696d\u52d9","client_name":"\u56fd\u571f\u4ea4\u901a\u7701\u4e2d\u90e8\u5730\u65b9\u6574\u5099\u5c40\u5c90\u961c\u56fd\u9053\u4e8b\u52d9\u6240","boring_xml_url":47,"boring_view_url":1,"soilmap_view_url":null,"soiltest_xml_url":47,"soiltest_view_url":47},{"id":472165,"code":"NGIC202103992-0018","latitude":"35.459930555556","longitude":"136.84296666667","source_code":"","project_name":"\u5c90\u961c\u6771BP\u4e8b\u696d","survey_name":"\u4ee4\u548c2\u5e74\u5ea6156\u53f7\u5c90\u961c\u6771BP\u82a5\u898b\u5730\u533a\u5730\u8cea\u8abf\u67fb\u696d\u52d9","client_name":"\u56fd\u571f\u4ea4\u901a\u7701\u4e2d\u90e8\u5730\u65b9\u6574\u5099\u5c40\u5c90\u961c\u56fd\u9053\u4e8b\u52d9\u6240","boring_xml_url":47,"boring_view_url":1,"soilmap_view_url":null,"soiltest_xml_url":0,"soiltest_view_url":0},{"id":472164,"code":"NGIC202103992-0017","latitude":"35.459647222222","longitude":"136.84276111111","source_code":"","project_name":"\u5c90\u961c\u6771BP\u4e8b\u696d","survey_name":"\u4ee4\u548c2\u5e74\u5ea6156\u53f7\u5c90\u961c\u6771BP\u82a5\u898b\u5730\u533a\u5730\u8cea\u8abf\u67fb\u696d\u52d9","client_name":"\u56fd\u571f\u4ea4\u901a\u7701\u4e2d\u90e8\u5730\u65b9\u6574\u5099\u5c40\u5c90\u961c\u56fd\u9053\u4e8b\u52d9\u6240","boring_xml_url":47,"boring_view_url":1,"soilmap_view_url":null,"soiltest_xml_url":0,"soiltest_view_url":0},{"id":472163,"code":"NGIC202103992-0016","latitude":"35.459430555556","longitude":"136.84259444444","source_code":"","project_name":"\u5c90\u961c\u6771BP\u4e8b\u696d","survey_name":"\u4ee4\u548c2\u5e74\u5ea6156\u53f7\u5c90\u961c\u6771BP\u82a5\u898b\u5730\u533a\u5730\u8cea\u8abf\u67fb\u696d\u52d9","client_name":"\u56fd\u571f\u4ea4\u901a\u7701\u4e2d\u90e8\u5730\u65b9\u6574\u5099\u5c40\u5c90\u961c\u56fd\u9053\u4e8b\u52d9\u6240","boring_xml_url":47,"boring_view_url":1,"soilmap_view_url":null,"soiltest_xml_url":0,"soiltest_view_url":0},{"id":472162,"code":"NGIC202103992-0015","latitude":"35.459225","longitude":"136.84243333333","source_code":"","project_name":"\u5c90\u961c\u6771BP\u4e8b\u696d","survey_name":"\u4ee4\u548c2\u5e74\u5ea6156\u53f7\u5c90\u961c\u6771BP\u82a5\u898b\u5730\u533a\u5730\u8cea\u8abf\u67fb\u696d\u52d9","client_name":"\u56fd\u571f\u4ea4\u901a\u7701\u4e2d\u90e8\u5730\u65b9\u6574\u5099\u5c40\u5c90\u961c\u56fd\u9053\u4e8b\u52d9\u6240","boring_xml_url":47,"boring_view_url":1,"soilmap_view_url":null,"soiltest_xml_url":47,"soiltest_view_url":47},{"id":472161,"code":"NGIC202103992-0014","latitude":"35.458952777778","longitude":"136.842125","source_code":"","project_name":"\u5c90\u961c\u6771BP\u4e8b\u696d","survey_name":"\u4ee4\u548c2\u5e74\u5ea6156\u53f7\u5c90\u961c\u6771BP\u82a5\u898b\u5730\u533a\u5730\u8cea\u8abf\u67fb\u696d\u52d9","client_name":"\u56fd\u571f\u4ea4\u901a\u7701\u4e2d\u90e8\u5730\u65b9\u6574\u5099\u5c40\u5c90\u961c\u56fd\u9053\u4e8b\u52d9\u6240","boring_xml_url":47,"boring_view_url":1,"soilmap_view_url":null,"soiltest_xml_url":0,"soiltest_view_url":0},{"id":472160,"code":"NGIC202103992-0013","latitude":"35.458575","longitude":"136.84187777778","source_code":"","project_name":"\u5c90\u961c\u6771BP\u4e8b\u696d","survey_name":"\u4ee4\u548c2\u5e74\u5ea6156\u53f7\u5c90\u961c\u6771BP\u82a5\u898b\u5730\u533a\u5730\u8cea\u8abf\u67fb\u696d\u52d9","client_name":"\u56fd\u571f\u4ea4\u901a\u7701\u4e2d\u90e8\u5730\u65b9\u6574\u5099\u5c40\u5c90\u961c\u56fd\u9053\u4e8b\u52d9\u6240","boring_xml_url":47,"boring_view_url":1,"soilmap_view_url":null,"soiltest_xml_url":0,"soiltest_view_url":0},{"id":472159,"code":"NGIC202103992-0012","latitude":"35.458191666667","longitude":"136.84162777778","source_code":"","project_name":"\u5c90\u961c\u6771BP\u4e8b\u696d","survey_name":"\u4ee4\u548c2\u5e74\u5ea6156\u53f7\u5c90\u961c\u6771BP\u82a5\u898b\u5730\u533a\u5730\u8cea\u8abf\u67fb\u696d\u52d9","client_name":"\u56fd\u571f\u4ea4\u901a\u7701\u4e2d\u90e8\u5730\u65b9\u6574\u5099\u5c40\u5c90\u961c\u56fd\u9053\u4e8b\u52d9\u6240","boring_xml_url":47,"boring_view_url":1,"soilmap_view_url":null,"soiltest_xml_url":0,"soiltest_view_url":0},{"id":472158,"code":"NGIC202103992-0011","latitude":"35.457875","longitude":"136.84143333333","source_code":"","project_name":"\u5c90\u961c\u6771BP\u4e8b\u696d","survey_name":"\u4ee4\u548c2\u5e74\u5ea6156\u53f7\u5c90\u961c\u6771BP\u82a5\u898b\u5730\u533a\u5730\u8cea\u8abf\u67fb\u696d\u52d9","client_name":"\u56fd\u571f\u4ea4\u901a\u7701\u4e2d\u90e8\u5730\u65b9\u6574\u5099\u5c40\u5c90\u961c\u56fd\u9053\u4e8b\u52d9\u6240","boring_xml_url":47,"boring_view_url":1,"soilmap_view_url":null,"soiltest_xml_url":0,"soiltest_view_url":0},{"id":472157,"code":"NGIC202103992-0010","latitude":"35.457480555556","longitude":"136.84119166667","source_code":"","project_name":"\u5c90\u961c\u6771BP\u4e8b\u696d","survey_name":"\u4ee4\u548c2\u5e74\u5ea6156\u53f7\u5c90\u961c\u6771BP\u82a5\u898b\u5730\u533a\u5730\u8cea\u8abf\u67fb\u696d\u52d9","client_name":"\u56fd\u571f\u4ea4\u901a\u7701\u4e2d\u90e8\u5730\u65b9\u6574\u5099\u5c40\u5c90\u961c\u56fd\u9053\u4e8b\u52d9\u6240","boring_xml_url":47,"boring_view_url":1,"soilmap_view_url":null,"soiltest_xml_url":47,"soiltest_view_url":47},{"id":472156,"code":"NGIC202103992-0009","latitude":"35.456986111111","longitude":"136.84089444444","source_code":"","project_name":"\u5c90\u961c\u6771BP\u4e8b\u696d","survey_name":"\u4ee4\u548c2\u5e74\u5ea6156\u53f7\u5c90\u961c\u6771BP\u82a5\u898b\u5730\u533a\u5730\u8cea\u8abf\u67fb\u696d\u52d9","client_name":"\u56fd\u571f\u4ea4\u901a\u7701\u4e2d\u90e8\u5730\u65b9\u6574\u5099\u5c40\u5c90\u961c\u56fd\u9053\u4e8b\u52d9\u6240","boring_xml_url":47,"boring_view_url":1,"soilmap_view_url":null,"soiltest_xml_url":47,"soiltest_view_url":47},{"id":472155,"code":"NGIC202103992-0008","latitude":"35.45675","longitude":"136.84075833333","source_code":"","project_name":"\u5c90\u961c\u6771BP\u4e8b\u696d","survey_name":"\u4ee4\u548c2\u5e74\u5ea6156\u53f7\u5c90\u961c\u6771BP\u82a5\u898b\u5730\u533a\u5730\u8cea\u8abf\u67fb\u696d\u52d9","client_name":"\u56fd\u571f\u4ea4\u901a\u7701\u4e2d\u90e8\u5730\u65b9\u6574\u5099\u5c40\u5c90\u961c\u56fd\u9053\u4e8b\u52d9\u6240","boring_xml_url":47,"boring_view_url":1,"soilmap_view_url":null,"soiltest_xml_url":0,"soiltest_view_url":0},{"id":472154,"code":"NGIC202103992-0007","latitude":"35.456227777778","longitude":"136.84045833333","source_code":"","project_name":"\u5c90\u961c\u6771BP\u4e8b\u696d","survey_name":"\u4ee4\u548c2\u5e74\u5ea6156\u53f7\u5c90\u961c\u6771BP\u82a5\u898b\u5730\u533a\u5730\u8cea\u8abf\u67fb\u696d\u52d9","client_name":"\u56fd\u571f\u4ea4\u901a\u7701\u4e2d\u90e8\u5730\u65b9\u6574\u5099\u5c40\u5c90\u961c\u56fd\u9053\u4e8b\u52d9\u6240","boring_xml_url":47,"boring_view_url":1,"soilmap_view_url":null,"soiltest_xml_url":47,"soiltest_view_url":47},{"id":472153,"code":"NGIC202103992-0006","latitude":"35.455875","longitude":"136.84026111111","source_code":"","project_name":"\u5c90\u961c\u6771BP\u4e8b\u696d","survey_name":"\u4ee4\u548c2\u5e74\u5ea6156\u53f7\u5c90\u961c\u6771BP\u82a5\u898b\u5730\u533a\u5730\u8cea\u8abf\u67fb\u696d\u52d9","client_name":"\u56fd\u571f\u4ea4\u901a\u7701\u4e2d\u90e8\u5730\u65b9\u6574\u5099\u5c40\u5c90\u961c\u56fd\u9053\u4e8b\u52d9\u6240","boring_xml_url":47,"boring_view_url":1,"soilmap_view_url":null,"soiltest_xml_url":47,"soiltest_view_url":47},{"id":472152,"code":"NGIC202103992-0005","latitude":"35.455552777778","longitude":"136.83998333333","source_code":"","project_name":"\u5c90\u961c\u6771BP\u4e8b\u696d","survey_name":"\u4ee4\u548c2\u5e74\u5ea6156\u53f7\u5c90\u961c\u6771BP\u82a5\u898b\u5730\u533a\u5730\u8cea\u8abf\u67fb\u696d\u52d9","client_name":"\u56fd\u571f\u4ea4\u901a\u7701\u4e2d\u90e8\u5730\u65b9\u6574\u5099\u5c40\u5c90\u961c\u56fd\u9053\u4e8b\u52d9\u6240","boring_xml_url":47,"boring_view_url":1,"soilmap_view_url":null,"soiltest_xml_url":47,"soiltest_view_url":47},{"id":472151,"code":"NGIC202103992-0004","latitude":"35.455505555556","longitude":"136.84011111111","source_code":"","project_name":"\u5c90\u961c\u6771BP\u4e8b\u696d","survey_name":"\u4ee4\u548c2\u5e74\u5ea6156\u53f7\u5c90\u961c\u6771BP\u82a5\u898b\u5730\u533a\u5730\u8cea\u8abf\u67fb\u696d\u52d9","client_name":"\u56fd\u571f\u4ea4\u901a\u7701\u4e2d\u90e8\u5730\u65b9\u6574\u5099\u5c40\u5c90\u961c\u56fd\u9053\u4e8b\u52d9\u6240","boring_xml_url":47,"boring_view_url":1,"soilmap_view_url":null,"soiltest_xml_url":47,"soiltest_view_url":47},{"id":472150,"code":"NGIC202103992-0003","latitude":"35.454516666667","longitude":"136.83931388889","source_code":"","project_name":"\u5c90\u961c\u6771BP\u4e8b\u696d","survey_name":"\u4ee4\u548c2\u5e74\u5ea6156\u53f7\u5c90\u961c\u6771BP\u82a5\u898b\u5730\u533a\u5730\u8cea\u8abf\u67fb\u696d\u52d9","client_name":"\u56fd\u571f\u4ea4\u901a\u7701\u4e2d\u90e8\u5730\u65b9\u6574\u5099\u5c40\u5c90\u961c\u56fd\u9053\u4e8b\u52d9\u6240","boring_xml_url":47,"boring_view_url":1,"soilmap_view_url":null,"soiltest_xml_url":0,"soiltest_view_url":0}]}}