{"header":{"xyz":{"source":[],"mosaic":false},"page":1783,"raw":{"soiltest_result":"0","bbox":"57.598333,109.544722,1.933333,163.806111","page":"1783"},"conditions":{"soiltest_result":0,"north":57.598333,"west":109.544722,"south":1.933333,"east":163.806111},"success":true,"message":""},"data":{"meta":{"total":212844,"page":1783,"pages":7095,"count":30},"values":[{"id":471995,"code":"NGIC202104026-0021","latitude":"31.629743305556","longitude":"130.80405758333","source_code":"","project_name":"","survey_name":"\u4ee4\u548c2\u5e74\u5ea6\u725b\u6839\u5883\u9632\u707d(2\u5de5\u533a)\u5730\u8cea\u8abf\u67fb\u696d\u52d9","client_name":"\u56fd\u571f\u4ea4\u901a\u7701\u4e5d\u5dde\u5730\u65b9\u6574\u5099\u5c40\u5927\u9685\u6cb3\u5ddd\u56fd\u9053\u4e8b\u52d9\u6240","boring_xml_url":47,"boring_view_url":1,"soilmap_view_url":null,"soiltest_xml_url":0,"soiltest_view_url":0},{"id":471994,"code":"NGIC202104026-0020","latitude":"31.630846916667","longitude":"130.80381372222","source_code":"","project_name":"","survey_name":"\u4ee4\u548c2\u5e74\u5ea6\u725b\u6839\u5883\u9632\u707d(2\u5de5\u533a)\u5730\u8cea\u8abf\u67fb\u696d\u52d9","client_name":"\u56fd\u571f\u4ea4\u901a\u7701\u4e5d\u5dde\u5730\u65b9\u6574\u5099\u5c40\u5927\u9685\u6cb3\u5ddd\u56fd\u9053\u4e8b\u52d9\u6240","boring_xml_url":47,"boring_view_url":1,"soilmap_view_url":null,"soiltest_xml_url":0,"soiltest_view_url":0},{"id":471993,"code":"NGIC202104026-0019","latitude":"31.628768","longitude":"130.80372066667","source_code":"","project_name":"","survey_name":"\u4ee4\u548c2\u5e74\u5ea6\u725b\u6839\u5883\u9632\u707d(2\u5de5\u533a)\u5730\u8cea\u8abf\u67fb\u696d\u52d9","client_name":"\u56fd\u571f\u4ea4\u901a\u7701\u4e5d\u5dde\u5730\u65b9\u6574\u5099\u5c40\u5927\u9685\u6cb3\u5ddd\u56fd\u9053\u4e8b\u52d9\u6240","boring_xml_url":47,"boring_view_url":1,"soilmap_view_url":null,"soiltest_xml_url":0,"soiltest_view_url":0},{"id":471992,"code":"NGIC202104026-0018","latitude":"31.628161166667","longitude":"130.80325366667","source_code":"","project_name":"","survey_name":"\u4ee4\u548c2\u5e74\u5ea6\u725b\u6839\u5883\u9632\u707d(2\u5de5\u533a)\u5730\u8cea\u8abf\u67fb\u696d\u52d9","client_name":"\u56fd\u571f\u4ea4\u901a\u7701\u4e5d\u5dde\u5730\u65b9\u6574\u5099\u5c40\u5927\u9685\u6cb3\u5ddd\u56fd\u9053\u4e8b\u52d9\u6240","boring_xml_url":47,"boring_view_url":1,"soilmap_view_url":null,"soiltest_xml_url":0,"soiltest_view_url":0},{"id":471991,"code":"NGIC202104026-0017","latitude":"31.630915444444","longitude":"130.80236516667","source_code":"","project_name":"","survey_name":"\u4ee4\u548c2\u5e74\u5ea6\u725b\u6839\u5883\u9632\u707d(2\u5de5\u533a)\u5730\u8cea\u8abf\u67fb\u696d\u52d9","client_name":"\u56fd\u571f\u4ea4\u901a\u7701\u4e5d\u5dde\u5730\u65b9\u6574\u5099\u5c40\u5927\u9685\u6cb3\u5ddd\u56fd\u9053\u4e8b\u52d9\u6240","boring_xml_url":47,"boring_view_url":1,"soilmap_view_url":null,"soiltest_xml_url":0,"soiltest_view_url":0},{"id":471990,"code":"NGIC202104026-0016","latitude":"31.628801083333","longitude":"130.80315275","source_code":"","project_name":"","survey_name":"\u4ee4\u548c2\u5e74\u5ea6\u725b\u6839\u5883\u9632\u707d(2\u5de5\u533a)\u5730\u8cea\u8abf\u67fb\u696d\u52d9","client_name":"\u56fd\u571f\u4ea4\u901a\u7701\u4e5d\u5dde\u5730\u65b9\u6574\u5099\u5c40\u5927\u9685\u6cb3\u5ddd\u56fd\u9053\u4e8b\u52d9\u6240","boring_xml_url":47,"boring_view_url":1,"soilmap_view_url":null,"soiltest_xml_url":0,"soiltest_view_url":0},{"id":471989,"code":"NGIC202104026-0015","latitude":"31.628849277778","longitude":"130.80245722222","source_code":"","project_name":"","survey_name":"\u4ee4\u548c2\u5e74\u5ea6\u725b\u6839\u5883\u9632\u707d(2\u5de5\u533a)\u5730\u8cea\u8abf\u67fb\u696d\u52d9","client_name":"\u56fd\u571f\u4ea4\u901a\u7701\u4e5d\u5dde\u5730\u65b9\u6574\u5099\u5c40\u5927\u9685\u6cb3\u5ddd\u56fd\u9053\u4e8b\u52d9\u6240","boring_xml_url":47,"boring_view_url":1,"soilmap_view_url":null,"soiltest_xml_url":0,"soiltest_view_url":0},{"id":471988,"code":"NGIC202104026-0014","latitude":"31.628787388889","longitude":"130.80212144444","source_code":"","project_name":"","survey_name":"\u4ee4\u548c2\u5e74\u5ea6\u725b\u6839\u5883\u9632\u707d(2\u5de5\u533a)\u5730\u8cea\u8abf\u67fb\u696d\u52d9","client_name":"\u56fd\u571f\u4ea4\u901a\u7701\u4e5d\u5dde\u5730\u65b9\u6574\u5099\u5c40\u5927\u9685\u6cb3\u5ddd\u56fd\u9053\u4e8b\u52d9\u6240","boring_xml_url":47,"boring_view_url":1,"soilmap_view_url":null,"soiltest_xml_url":0,"soiltest_view_url":0},{"id":471987,"code":"NGIC202104026-0013","latitude":"31.629181333333","longitude":"130.80148786111","source_code":"","project_name":"","survey_name":"\u4ee4\u548c2\u5e74\u5ea6\u725b\u6839\u5883\u9632\u707d(2\u5de5\u533a)\u5730\u8cea\u8abf\u67fb\u696d\u52d9","client_name":"\u56fd\u571f\u4ea4\u901a\u7701\u4e5d\u5dde\u5730\u65b9\u6574\u5099\u5c40\u5927\u9685\u6cb3\u5ddd\u56fd\u9053\u4e8b\u52d9\u6240","boring_xml_url":47,"boring_view_url":1,"soilmap_view_url":null,"soiltest_xml_url":0,"soiltest_view_url":0},{"id":471986,"code":"NGIC202104026-0012","latitude":"31.628227944444","longitude":"130.80258844444","source_code":"","project_name":"","survey_name":"\u4ee4\u548c2\u5e74\u5ea6\u725b\u6839\u5883\u9632\u707d(2\u5de5\u533a)\u5730\u8cea\u8abf\u67fb\u696d\u52d9","client_name":"\u56fd\u571f\u4ea4\u901a\u7701\u4e5d\u5dde\u5730\u65b9\u6574\u5099\u5c40\u5927\u9685\u6cb3\u5ddd\u56fd\u9053\u4e8b\u52d9\u6240","boring_xml_url":47,"boring_view_url":1,"soilmap_view_url":null,"soiltest_xml_url":0,"soiltest_view_url":0},{"id":471985,"code":"NGIC202104026-0011","latitude":"31.628180027778","longitude":"130.80210930556","source_code":"","project_name":"","survey_name":"\u4ee4\u548c2\u5e74\u5ea6\u725b\u6839\u5883\u9632\u707d(2\u5de5\u533a)\u5730\u8cea\u8abf\u67fb\u696d\u52d9","client_name":"\u56fd\u571f\u4ea4\u901a\u7701\u4e5d\u5dde\u5730\u65b9\u6574\u5099\u5c40\u5927\u9685\u6cb3\u5ddd\u56fd\u9053\u4e8b\u52d9\u6240","boring_xml_url":47,"boring_view_url":1,"soilmap_view_url":null,"soiltest_xml_url":0,"soiltest_view_url":0},{"id":471984,"code":"NGIC202104026-0010","latitude":"31.627318805556","longitude":"130.80201358333","source_code":"","project_name":"","survey_name":"\u4ee4\u548c2\u5e74\u5ea6\u725b\u6839\u5883\u9632\u707d(2\u5de5\u533a)\u5730\u8cea\u8abf\u67fb\u696d\u52d9","client_name":"\u56fd\u571f\u4ea4\u901a\u7701\u4e5d\u5dde\u5730\u65b9\u6574\u5099\u5c40\u5927\u9685\u6cb3\u5ddd\u56fd\u9053\u4e8b\u52d9\u6240","boring_xml_url":47,"boring_view_url":1,"soilmap_view_url":null,"soiltest_xml_url":0,"soiltest_view_url":0},{"id":471983,"code":"NGIC202104026-0009","latitude":"31.627746166667","longitude":"130.80085855556","source_code":"","project_name":"","survey_name":"\u4ee4\u548c2\u5e74\u5ea6\u725b\u6839\u5883\u9632\u707d(2\u5de5\u533a)\u5730\u8cea\u8abf\u67fb\u696d\u52d9","client_name":"\u56fd\u571f\u4ea4\u901a\u7701\u4e5d\u5dde\u5730\u65b9\u6574\u5099\u5c40\u5927\u9685\u6cb3\u5ddd\u56fd\u9053\u4e8b\u52d9\u6240","boring_xml_url":47,"boring_view_url":1,"soilmap_view_url":null,"soiltest_xml_url":0,"soiltest_view_url":0},{"id":471982,"code":"NGIC202104026-0008","latitude":"31.626011361111","longitude":"130.80225669444","source_code":"","project_name":"","survey_name":"\u4ee4\u548c2\u5e74\u5ea6\u725b\u6839\u5883\u9632\u707d(2\u5de5\u533a)\u5730\u8cea\u8abf\u67fb\u696d\u52d9","client_name":"\u56fd\u571f\u4ea4\u901a\u7701\u4e5d\u5dde\u5730\u65b9\u6574\u5099\u5c40\u5927\u9685\u6cb3\u5ddd\u56fd\u9053\u4e8b\u52d9\u6240","boring_xml_url":47,"boring_view_url":1,"soilmap_view_url":null,"soiltest_xml_url":0,"soiltest_view_url":0},{"id":471981,"code":"NGIC202104026-0007","latitude":"31.626170333333","longitude":"130.80158169444","source_code":"","project_name":"","survey_name":"\u4ee4\u548c2\u5e74\u5ea6\u725b\u6839\u5883\u9632\u707d(2\u5de5\u533a)\u5730\u8cea\u8abf\u67fb\u696d\u52d9","client_name":"\u56fd\u571f\u4ea4\u901a\u7701\u4e5d\u5dde\u5730\u65b9\u6574\u5099\u5c40\u5927\u9685\u6cb3\u5ddd\u56fd\u9053\u4e8b\u52d9\u6240","boring_xml_url":47,"boring_view_url":1,"soilmap_view_url":null,"soiltest_xml_url":0,"soiltest_view_url":0},{"id":471980,"code":"NGIC202104026-0006","latitude":"31.626854611111","longitude":"130.80192061111","source_code":"","project_name":"","survey_name":"\u4ee4\u548c2\u5e74\u5ea6\u725b\u6839\u5883\u9632\u707d(2\u5de5\u533a)\u5730\u8cea\u8abf\u67fb\u696d\u52d9","client_name":"\u56fd\u571f\u4ea4\u901a\u7701\u4e5d\u5dde\u5730\u65b9\u6574\u5099\u5c40\u5927\u9685\u6cb3\u5ddd\u56fd\u9053\u4e8b\u52d9\u6240","boring_xml_url":47,"boring_view_url":1,"soilmap_view_url":null,"soiltest_xml_url":0,"soiltest_view_url":0},{"id":471979,"code":"NGIC202104026-0005","latitude":"31.627234444444","longitude":"130.80005813889","source_code":"","project_name":"","survey_name":"\u4ee4\u548c2\u5e74\u5ea6\u725b\u6839\u5883\u9632\u707d(2\u5de5\u533a)\u5730\u8cea\u8abf\u67fb\u696d\u52d9","client_name":"\u56fd\u571f\u4ea4\u901a\u7701\u4e5d\u5dde\u5730\u65b9\u6574\u5099\u5c40\u5927\u9685\u6cb3\u5ddd\u56fd\u9053\u4e8b\u52d9\u6240","boring_xml_url":47,"boring_view_url":1,"soilmap_view_url":null,"soiltest_xml_url":0,"soiltest_view_url":0},{"id":471978,"code":"NGIC202104026-0004","latitude":"31.625308444444","longitude":"130.80072163889","source_code":"","project_name":"","survey_name":"\u4ee4\u548c2\u5e74\u5ea6\u725b\u6839\u5883\u9632\u707d(2\u5de5\u533a)\u5730\u8cea\u8abf\u67fb\u696d\u52d9","client_name":"\u56fd\u571f\u4ea4\u901a\u7701\u4e5d\u5dde\u5730\u65b9\u6574\u5099\u5c40\u5927\u9685\u6cb3\u5ddd\u56fd\u9053\u4e8b\u52d9\u6240","boring_xml_url":47,"boring_view_url":1,"soilmap_view_url":null,"soiltest_xml_url":0,"soiltest_view_url":0},{"id":471977,"code":"NGIC202104026-0003","latitude":"31.625773166667","longitude":"130.79967330556","source_code":"","project_name":"","survey_name":"\u4ee4\u548c2\u5e74\u5ea6\u725b\u6839\u5883\u9632\u707d(2\u5de5\u533a)\u5730\u8cea\u8abf\u67fb\u696d\u52d9","client_name":"\u56fd\u571f\u4ea4\u901a\u7701\u4e5d\u5dde\u5730\u65b9\u6574\u5099\u5c40\u5927\u9685\u6cb3\u5ddd\u56fd\u9053\u4e8b\u52d9\u6240","boring_xml_url":47,"boring_view_url":1,"soilmap_view_url":null,"soiltest_xml_url":0,"soiltest_view_url":0},{"id":471976,"code":"NGIC202104026-0002","latitude":"31.624961138889","longitude":"130.79921361111","source_code":"","project_name":"","survey_name":"\u4ee4\u548c2\u5e74\u5ea6\u725b\u6839\u5883\u9632\u707d(2\u5de5\u533a)\u5730\u8cea\u8abf\u67fb\u696d\u52d9","client_name":"\u56fd\u571f\u4ea4\u901a\u7701\u4e5d\u5dde\u5730\u65b9\u6574\u5099\u5c40\u5927\u9685\u6cb3\u5ddd\u56fd\u9053\u4e8b\u52d9\u6240","boring_xml_url":47,"boring_view_url":1,"soilmap_view_url":null,"soiltest_xml_url":0,"soiltest_view_url":0},{"id":471975,"code":"NGIC202104026-0001","latitude":"31.625177638889","longitude":"130.79865222222","source_code":"","project_name":"","survey_name":"\u4ee4\u548c2\u5e74\u5ea6\u725b\u6839\u5883\u9632\u707d(2\u5de5\u533a)\u5730\u8cea\u8abf\u67fb\u696d\u52d9","client_name":"\u56fd\u571f\u4ea4\u901a\u7701\u4e5d\u5dde\u5730\u65b9\u6574\u5099\u5c40\u5927\u9685\u6cb3\u5ddd\u56fd\u9053\u4e8b\u52d9\u6240","boring_xml_url":47,"boring_view_url":1,"soilmap_view_url":null,"soiltest_xml_url":0,"soiltest_view_url":0},{"id":471959,"code":"NGIC202104084-0002","latitude":"35.279559944444","longitude":"132.61246938889","source_code":"","project_name":"","survey_name":"\u4ee4\u548c3\u5e74\u5ea6\u591a\u4f0e\u753a\u707d\u5bb3\u5fa9\u65e7\u8abf\u67fb\u305d\u306e6(8\u670818\u65e5)","client_name":"\u56fd\u571f\u4ea4\u901a\u7701\u4e2d\u56fd\u5730\u65b9\u6574\u5099\u5c40\u677e\u6c5f\u56fd\u9053\u4e8b\u52d9\u6240","boring_xml_url":47,"boring_view_url":1,"soilmap_view_url":null,"soiltest_xml_url":0,"soiltest_view_url":0},{"id":471958,"code":"NGIC202104084-0001","latitude":"35.279507694444","longitude":"132.61282872222","source_code":"","project_name":"","survey_name":"\u4ee4\u548c3\u5e74\u5ea6\u591a\u4f0e\u753a\u707d\u5bb3\u5fa9\u65e7\u8abf\u67fb\u305d\u306e6(8\u670818\u65e5)","client_name":"\u56fd\u571f\u4ea4\u901a\u7701\u4e2d\u56fd\u5730\u65b9\u6574\u5099\u5c40\u677e\u6c5f\u56fd\u9053\u4e8b\u52d9\u6240","boring_xml_url":47,"boring_view_url":1,"soilmap_view_url":null,"soiltest_xml_url":0,"soiltest_view_url":0},{"id":471957,"code":"NGIC202104074-0014","latitude":"33.538986111111","longitude":"135.86649444444","source_code":"","project_name":"","survey_name":"\u4e32\u672c\u592a\u5730\u9053\u8def\u4e2d\u6e4a\u7b2c2\u30c8\u30f3\u30cd\u30eb\u4ed6\u5730\u8cea\u8abf\u67fb\u696d\u52d9","client_name":"\u56fd\u571f\u4ea4\u901a\u7701\u8fd1\u757f\u5730\u65b9\u6574\u5099\u5c40\u7d00\u5357\u6cb3\u5ddd\u56fd\u9053\u4e8b\u52d9\u6240","boring_xml_url":47,"boring_view_url":1,"soilmap_view_url":null,"soiltest_xml_url":47,"soiltest_view_url":47},{"id":471956,"code":"NGIC202104074-0013","latitude":"33.526405555556","longitude":"135.82946666667","source_code":"","project_name":"","survey_name":"\u4e32\u672c\u592a\u5730\u9053\u8def\u4e2d\u6e4a\u7b2c2\u30c8\u30f3\u30cd\u30eb\u4ed6\u5730\u8cea\u8abf\u67fb\u696d\u52d9","client_name":"\u56fd\u571f\u4ea4\u901a\u7701\u8fd1\u757f\u5730\u65b9\u6574\u5099\u5c40\u7d00\u5357\u6cb3\u5ddd\u56fd\u9053\u4e8b\u52d9\u6240","boring_xml_url":47,"boring_view_url":1,"soilmap_view_url":null,"soiltest_xml_url":0,"soiltest_view_url":0},{"id":471955,"code":"NGIC202104074-0012","latitude":"33.526486111111","longitude":"135.82943333333","source_code":"","project_name":"","survey_name":"\u4e32\u672c\u592a\u5730\u9053\u8def\u4e2d\u6e4a\u7b2c2\u30c8\u30f3\u30cd\u30eb\u4ed6\u5730\u8cea\u8abf\u67fb\u696d\u52d9","client_name":"\u56fd\u571f\u4ea4\u901a\u7701\u8fd1\u757f\u5730\u65b9\u6574\u5099\u5c40\u7d00\u5357\u6cb3\u5ddd\u56fd\u9053\u4e8b\u52d9\u6240","boring_xml_url":47,"boring_view_url":1,"soilmap_view_url":null,"soiltest_xml_url":0,"soiltest_view_url":0},{"id":471954,"code":"NGIC202104074-0011","latitude":"33.526411111111","longitude":"135.82913055556","source_code":"","project_name":"","survey_name":"\u4e32\u672c\u592a\u5730\u9053\u8def\u4e2d\u6e4a\u7b2c2\u30c8\u30f3\u30cd\u30eb\u4ed6\u5730\u8cea\u8abf\u67fb\u696d\u52d9","client_name":"\u56fd\u571f\u4ea4\u901a\u7701\u8fd1\u757f\u5730\u65b9\u6574\u5099\u5c40\u7d00\u5357\u6cb3\u5ddd\u56fd\u9053\u4e8b\u52d9\u6240","boring_xml_url":47,"boring_view_url":1,"soilmap_view_url":null,"soiltest_xml_url":0,"soiltest_view_url":0},{"id":471953,"code":"NGIC202104074-0010","latitude":"33.526316666667","longitude":"135.82878333333","source_code":"","project_name":"","survey_name":"\u4e32\u672c\u592a\u5730\u9053\u8def\u4e2d\u6e4a\u7b2c2\u30c8\u30f3\u30cd\u30eb\u4ed6\u5730\u8cea\u8abf\u67fb\u696d\u52d9","client_name":"\u56fd\u571f\u4ea4\u901a\u7701\u8fd1\u757f\u5730\u65b9\u6574\u5099\u5c40\u7d00\u5357\u6cb3\u5ddd\u56fd\u9053\u4e8b\u52d9\u6240","boring_xml_url":47,"boring_view_url":1,"soilmap_view_url":null,"soiltest_xml_url":0,"soiltest_view_url":0},{"id":471952,"code":"NGIC202104074-0009","latitude":"33.526175","longitude":"135.82858055556","source_code":"","project_name":"","survey_name":"\u4e32\u672c\u592a\u5730\u9053\u8def\u4e2d\u6e4a\u7b2c2\u30c8\u30f3\u30cd\u30eb\u4ed6\u5730\u8cea\u8abf\u67fb\u696d\u52d9","client_name":"\u56fd\u571f\u4ea4\u901a\u7701\u8fd1\u757f\u5730\u65b9\u6574\u5099\u5c40\u7d00\u5357\u6cb3\u5ddd\u56fd\u9053\u4e8b\u52d9\u6240","boring_xml_url":47,"boring_view_url":1,"soilmap_view_url":null,"soiltest_xml_url":0,"soiltest_view_url":0},{"id":471951,"code":"NGIC202104074-0008","latitude":"33.526088888889","longitude":"135.82840555556","source_code":"","project_name":"","survey_name":"\u4e32\u672c\u592a\u5730\u9053\u8def\u4e2d\u6e4a\u7b2c2\u30c8\u30f3\u30cd\u30eb\u4ed6\u5730\u8cea\u8abf\u67fb\u696d\u52d9","client_name":"\u56fd\u571f\u4ea4\u901a\u7701\u8fd1\u757f\u5730\u65b9\u6574\u5099\u5c40\u7d00\u5357\u6cb3\u5ddd\u56fd\u9053\u4e8b\u52d9\u6240","boring_xml_url":47,"boring_view_url":1,"soilmap_view_url":null,"soiltest_xml_url":0,"soiltest_view_url":0}]}}