{"header":{"xyz":{"source":[],"mosaic":false},"page":1796,"raw":{"soiltest_result":"0","bbox":"57.598333,109.544722,1.933333,163.806111","page":"1796"},"conditions":{"soiltest_result":0,"north":57.598333,"west":109.544722,"south":1.933333,"east":163.806111},"success":true,"message":""},"data":{"meta":{"total":212844,"page":1796,"pages":7095,"count":30},"values":[{"id":471087,"code":"NGIC202103628-0009","latitude":"31.641623333333","longitude":"130.813075","source_code":"","project_name":"","survey_name":"\u4ee4\u548c2\u5e74\u5ea6\u725b\u6839\u5883\u9632\u707d\uff084\u5de5\u533a\uff09\u5730\u8cea\u8abf\u67fb\u696d\u52d9","client_name":"\u56fd\u571f\u4ea4\u901a\u7701\u4e5d\u5dde\u5730\u65b9\u6574\u5099\u5c40\u5927\u9685\u6cb3\u5ddd\u56fd\u9053\u4e8b\u52d9\u6240","boring_xml_url":47,"boring_view_url":1,"soilmap_view_url":null,"soiltest_xml_url":0,"soiltest_view_url":0},{"id":471086,"code":"NGIC202103628-0008","latitude":"31.641788333333","longitude":"130.81294305556","source_code":"","project_name":"","survey_name":"\u4ee4\u548c2\u5e74\u5ea6\u725b\u6839\u5883\u9632\u707d\uff084\u5de5\u533a\uff09\u5730\u8cea\u8abf\u67fb\u696d\u52d9","client_name":"\u56fd\u571f\u4ea4\u901a\u7701\u4e5d\u5dde\u5730\u65b9\u6574\u5099\u5c40\u5927\u9685\u6cb3\u5ddd\u56fd\u9053\u4e8b\u52d9\u6240","boring_xml_url":47,"boring_view_url":1,"soilmap_view_url":null,"soiltest_xml_url":0,"soiltest_view_url":0},{"id":471085,"code":"NGIC202103628-0007","latitude":"31.639533055556","longitude":"130.81363055556","source_code":"","project_name":"","survey_name":"\u4ee4\u548c2\u5e74\u5ea6\u725b\u6839\u5883\u9632\u707d\uff084\u5de5\u533a\uff09\u5730\u8cea\u8abf\u67fb\u696d\u52d9","client_name":"\u56fd\u571f\u4ea4\u901a\u7701\u4e5d\u5dde\u5730\u65b9\u6574\u5099\u5c40\u5927\u9685\u6cb3\u5ddd\u56fd\u9053\u4e8b\u52d9\u6240","boring_xml_url":47,"boring_view_url":1,"soilmap_view_url":null,"soiltest_xml_url":0,"soiltest_view_url":0},{"id":471084,"code":"NGIC202103628-0006","latitude":"31.639553611111","longitude":"130.81328638889","source_code":"","project_name":"","survey_name":"\u4ee4\u548c2\u5e74\u5ea6\u725b\u6839\u5883\u9632\u707d\uff084\u5de5\u533a\uff09\u5730\u8cea\u8abf\u67fb\u696d\u52d9","client_name":"\u56fd\u571f\u4ea4\u901a\u7701\u4e5d\u5dde\u5730\u65b9\u6574\u5099\u5c40\u5927\u9685\u6cb3\u5ddd\u56fd\u9053\u4e8b\u52d9\u6240","boring_xml_url":47,"boring_view_url":1,"soilmap_view_url":null,"soiltest_xml_url":0,"soiltest_view_url":0},{"id":471083,"code":"NGIC202103628-0005","latitude":"31.640393611111","longitude":"130.81330305556","source_code":"","project_name":"","survey_name":"\u4ee4\u548c2\u5e74\u5ea6\u725b\u6839\u5883\u9632\u707d\uff084\u5de5\u533a\uff09\u5730\u8cea\u8abf\u67fb\u696d\u52d9","client_name":"\u56fd\u571f\u4ea4\u901a\u7701\u4e5d\u5dde\u5730\u65b9\u6574\u5099\u5c40\u5927\u9685\u6cb3\u5ddd\u56fd\u9053\u4e8b\u52d9\u6240","boring_xml_url":47,"boring_view_url":1,"soilmap_view_url":null,"soiltest_xml_url":0,"soiltest_view_url":0},{"id":471082,"code":"NGIC202103628-0004","latitude":"31.639027916667","longitude":"130.81257875","source_code":"","project_name":"","survey_name":"\u4ee4\u548c2\u5e74\u5ea6\u725b\u6839\u5883\u9632\u707d\uff084\u5de5\u533a\uff09\u5730\u8cea\u8abf\u67fb\u696d\u52d9","client_name":"\u56fd\u571f\u4ea4\u901a\u7701\u4e5d\u5dde\u5730\u65b9\u6574\u5099\u5c40\u5927\u9685\u6cb3\u5ddd\u56fd\u9053\u4e8b\u52d9\u6240","boring_xml_url":47,"boring_view_url":1,"soilmap_view_url":null,"soiltest_xml_url":0,"soiltest_view_url":0},{"id":471081,"code":"NGIC202103628-0003","latitude":"31.639461138889","longitude":"130.81256877778","source_code":"","project_name":"","survey_name":"\u4ee4\u548c2\u5e74\u5ea6\u725b\u6839\u5883\u9632\u707d\uff084\u5de5\u533a\uff09\u5730\u8cea\u8abf\u67fb\u696d\u52d9","client_name":"\u56fd\u571f\u4ea4\u901a\u7701\u4e5d\u5dde\u5730\u65b9\u6574\u5099\u5c40\u5927\u9685\u6cb3\u5ddd\u56fd\u9053\u4e8b\u52d9\u6240","boring_xml_url":47,"boring_view_url":1,"soilmap_view_url":null,"soiltest_xml_url":0,"soiltest_view_url":0},{"id":471080,"code":"NGIC202103628-0002","latitude":"31.640160833333","longitude":"130.81223775","source_code":"","project_name":"","survey_name":"\u4ee4\u548c2\u5e74\u5ea6\u725b\u6839\u5883\u9632\u707d\uff084\u5de5\u533a\uff09\u5730\u8cea\u8abf\u67fb\u696d\u52d9","client_name":"\u56fd\u571f\u4ea4\u901a\u7701\u4e5d\u5dde\u5730\u65b9\u6574\u5099\u5c40\u5927\u9685\u6cb3\u5ddd\u56fd\u9053\u4e8b\u52d9\u6240","boring_xml_url":47,"boring_view_url":1,"soilmap_view_url":null,"soiltest_xml_url":0,"soiltest_view_url":0},{"id":471079,"code":"NGIC202103628-0001","latitude":"31.641403055556","longitude":"130.81240555556","source_code":"","project_name":"","survey_name":"\u4ee4\u548c2\u5e74\u5ea6\u725b\u6839\u5883\u9632\u707d\uff084\u5de5\u533a\uff09\u5730\u8cea\u8abf\u67fb\u696d\u52d9","client_name":"\u56fd\u571f\u4ea4\u901a\u7701\u4e5d\u5dde\u5730\u65b9\u6574\u5099\u5c40\u5927\u9685\u6cb3\u5ddd\u56fd\u9053\u4e8b\u52d9\u6240","boring_xml_url":47,"boring_view_url":1,"soilmap_view_url":null,"soiltest_xml_url":0,"soiltest_view_url":0},{"id":471061,"code":"NGIC202103988-0003","latitude":"34.944248888889","longitude":"137.14680861111","source_code":"","project_name":"","survey_name":"\u4ee4\u548c2\u5e74\u5ea6\u8c4a\u6a4b\u6cb3\u5ddd\u4e8b\u52d9\u6240\u7ba1\u5185\u8a73\u7d30\u8a2d\u8a08\u696d\u52d9","client_name":"\u56fd\u571f\u4ea4\u901a\u7701\u4e2d\u90e8\u5730\u65b9\u6574\u5099\u5c40\u8c4a\u6a4b\u6cb3\u5ddd\u4e8b\u52d9\u6240","boring_xml_url":47,"boring_view_url":1,"soilmap_view_url":null,"soiltest_xml_url":47,"soiltest_view_url":47},{"id":471060,"code":"NGIC202103988-0002","latitude":"34.944247777778","longitude":"137.14664444444","source_code":"","project_name":"","survey_name":"\u4ee4\u548c2\u5e74\u5ea6\u8c4a\u6a4b\u6cb3\u5ddd\u4e8b\u52d9\u6240\u7ba1\u5185\u8a73\u7d30\u8a2d\u8a08\u696d\u52d9","client_name":"\u56fd\u571f\u4ea4\u901a\u7701\u4e2d\u90e8\u5730\u65b9\u6574\u5099\u5c40\u8c4a\u6a4b\u6cb3\u5ddd\u4e8b\u52d9\u6240","boring_xml_url":47,"boring_view_url":1,"soilmap_view_url":null,"soiltest_xml_url":47,"soiltest_view_url":47},{"id":471059,"code":"NGIC202103988-0001","latitude":"34.944248055556","longitude":"137.14671027778","source_code":"","project_name":"","survey_name":"\u4ee4\u548c2\u5e74\u5ea6\u8c4a\u6a4b\u6cb3\u5ddd\u4e8b\u52d9\u6240\u7ba1\u5185\u8a73\u7d30\u8a2d\u8a08\u696d\u52d9","client_name":"\u56fd\u571f\u4ea4\u901a\u7701\u4e2d\u90e8\u5730\u65b9\u6574\u5099\u5c40\u8c4a\u6a4b\u6cb3\u5ddd\u4e8b\u52d9\u6240","boring_xml_url":47,"boring_view_url":1,"soilmap_view_url":null,"soiltest_xml_url":47,"soiltest_view_url":47},{"id":471057,"code":"NGIC202103919-0004","latitude":"40.798183333333","longitude":"140.30750555556","source_code":"","project_name":"","survey_name":"\u4ee4\u548c2\u301c3\u5e74\u5ea6\u6d25\u8efd\u9053\u6728\u9020\u5730\u533a\u8edf\u5f31\u5730\u76e4\u89e3\u6790\u696d\u52d9","client_name":"\u56fd\u571f\u4ea4\u901a\u7701\u6771\u5317\u5730\u65b9\u6574\u5099\u5c40\u9752\u68ee\u6cb3\u5ddd\u56fd\u9053\u4e8b\u52d9\u6240","boring_xml_url":47,"boring_view_url":1,"soilmap_view_url":null,"soiltest_xml_url":47,"soiltest_view_url":47},{"id":471056,"code":"NGIC202103919-0003","latitude":"40.79845","longitude":"140.31916111111","source_code":"","project_name":"","survey_name":"\u4ee4\u548c2\u301c3\u5e74\u5ea6\u6d25\u8efd\u9053\u6728\u9020\u5730\u533a\u8edf\u5f31\u5730\u76e4\u89e3\u6790\u696d\u52d9","client_name":"\u56fd\u571f\u4ea4\u901a\u7701\u6771\u5317\u5730\u65b9\u6574\u5099\u5c40\u9752\u68ee\u6cb3\u5ddd\u56fd\u9053\u4e8b\u52d9\u6240","boring_xml_url":47,"boring_view_url":1,"soilmap_view_url":null,"soiltest_xml_url":47,"soiltest_view_url":47},{"id":471055,"code":"NGIC202103919-0002","latitude":"40.799191666667","longitude":"140.32917222222","source_code":"","project_name":"","survey_name":"\u4ee4\u548c2\u301c3\u5e74\u5ea6\u6d25\u8efd\u9053\u6728\u9020\u5730\u533a\u8edf\u5f31\u5730\u76e4\u89e3\u6790\u696d\u52d9","client_name":"\u56fd\u571f\u4ea4\u901a\u7701\u6771\u5317\u5730\u65b9\u6574\u5099\u5c40\u9752\u68ee\u6cb3\u5ddd\u56fd\u9053\u4e8b\u52d9\u6240","boring_xml_url":47,"boring_view_url":1,"soilmap_view_url":null,"soiltest_xml_url":47,"soiltest_view_url":47},{"id":471054,"code":"NGIC202103919-0001","latitude":"40.801833333333","longitude":"140.34899444444","source_code":"","project_name":"","survey_name":"\u4ee4\u548c2\u301c3\u5e74\u5ea6\u6d25\u8efd\u9053\u6728\u9020\u5730\u533a\u8edf\u5f31\u5730\u76e4\u89e3\u6790\u696d\u52d9","client_name":"\u56fd\u571f\u4ea4\u901a\u7701\u6771\u5317\u5730\u65b9\u6574\u5099\u5c40\u9752\u68ee\u6cb3\u5ddd\u56fd\u9053\u4e8b\u52d9\u6240","boring_xml_url":47,"boring_view_url":1,"soilmap_view_url":null,"soiltest_xml_url":47,"soiltest_view_url":47},{"id":471053,"code":"NGIC202103916-0002","latitude":"45.011848888889","longitude":"141.82950722222","source_code":"","project_name":"\u56fd\u55b6\u7dcf\u5408\u8fb2\u5730\u9632\u707d\u4e8b\u696d","survey_name":"\u5e4c\u5ef6\u5730\u533a\u7b2c2\u53f7\u5e79\u7dda\u660e\u6e20\u6392\u6c34\u8def\u8a2d\u8a08\u7b49\u696d\u52d9","client_name":"\u56fd\u571f\u4ea4\u901a\u7701\u5317\u6d77\u9053\u958b\u767a\u5c40\u7a1a\u5185\u958b\u767a\u5efa\u8a2d\u90e8\u7a1a\u5185\u8fb2\u696d\u4e8b\u52d9\u6240","boring_xml_url":47,"boring_view_url":1,"soilmap_view_url":null,"soiltest_xml_url":47,"soiltest_view_url":47},{"id":471052,"code":"NGIC202103916-0001","latitude":"45.011397777778","longitude":"141.82283166667","source_code":"","project_name":"\u56fd\u55b6\u7dcf\u5408\u8fb2\u5730\u9632\u707d\u4e8b\u696d","survey_name":"\u5e4c\u5ef6\u5730\u533a\u7b2c2\u53f7\u5e79\u7dda\u660e\u6e20\u6392\u6c34\u8def\u8a2d\u8a08\u7b49\u696d\u52d9","client_name":"\u56fd\u571f\u4ea4\u901a\u7701\u5317\u6d77\u9053\u958b\u767a\u5c40\u7a1a\u5185\u958b\u767a\u5efa\u8a2d\u90e8\u7a1a\u5185\u8fb2\u696d\u4e8b\u52d9\u6240","boring_xml_url":47,"boring_view_url":1,"soilmap_view_url":null,"soiltest_xml_url":47,"soiltest_view_url":47},{"id":471043,"code":"NGIC202103912-0001","latitude":"35.121944444444","longitude":"136.535","source_code":"","project_name":"","survey_name":"\u4ee4\u548c2\u5e74\u5ea6 \u6771\u6d77\u74b0\u72b6\u5927\u5b89\u5317\u52e2\u9ad8\u67b6\u6a4b\u4e0b\u90e8\u5de5\u4e8b","client_name":"\u56fd\u571f\u4ea4\u901a\u7701\u4e2d\u90e8\u5730\u65b9\u6574\u5099\u5c40\u5317\u52e2\u56fd\u9053\u4e8b\u52d9\u6240","boring_xml_url":47,"boring_view_url":1,"soilmap_view_url":null,"soiltest_xml_url":0,"soiltest_view_url":0},{"id":471010,"code":"NGIC202103885-0006","latitude":"43.454621666667","longitude":"144.99469444444","source_code":"","project_name":"\u56fd\u55b6\u74b0\u5883\u4fdd\u5168\u578b\u304b\u3093\u304c\u3044\u6392\u6c34\u4e8b\u696d","survey_name":"\u4ee4\u548c3\u5e74\u5ea6 \u5225\u6d77\u5317\u90e8\u5730\u533a \u5225\u90014\u53f7\u9001\u6c34\u8def\u8c4a\u539f\u7b2c2\u5de5\u533a\u8a2d\u8a08\u7b49\u696d\u52d9","client_name":"\u56fd\u571f\u4ea4\u901a\u7701\u5317\u6d77\u9053\u958b\u767a\u5c40\u91e7\u8def\u958b\u767a\u5efa\u8a2d\u90e8\u6839\u5ba4\u8fb2\u696d\u4e8b\u52d9\u6240","boring_xml_url":47,"boring_view_url":1,"soilmap_view_url":null,"soiltest_xml_url":47,"soiltest_view_url":47},{"id":471009,"code":"NGIC202103885-0005","latitude":"43.452961388889","longitude":"144.9921725","source_code":"","project_name":"\u56fd\u55b6\u74b0\u5883\u4fdd\u5168\u578b\u304b\u3093\u304c\u3044\u6392\u6c34\u4e8b\u696d","survey_name":"\u4ee4\u548c3\u5e74\u5ea6 \u5225\u6d77\u5317\u90e8\u5730\u533a \u5225\u90014\u53f7\u9001\u6c34\u8def\u8c4a\u539f\u7b2c2\u5de5\u533a\u8a2d\u8a08\u7b49\u696d\u52d9","client_name":"\u56fd\u571f\u4ea4\u901a\u7701\u5317\u6d77\u9053\u958b\u767a\u5c40\u91e7\u8def\u958b\u767a\u5efa\u8a2d\u90e8\u6839\u5ba4\u8fb2\u696d\u4e8b\u52d9\u6240","boring_xml_url":47,"boring_view_url":1,"soilmap_view_url":null,"soiltest_xml_url":47,"soiltest_view_url":47},{"id":471008,"code":"NGIC202103885-0004","latitude":"43.450049444444","longitude":"144.98774916667","source_code":"","project_name":"\u56fd\u55b6\u74b0\u5883\u4fdd\u5168\u578b\u304b\u3093\u304c\u3044\u6392\u6c34\u4e8b\u696d","survey_name":"\u4ee4\u548c3\u5e74\u5ea6 \u5225\u6d77\u5317\u90e8\u5730\u533a \u5225\u90014\u53f7\u9001\u6c34\u8def\u8c4a\u539f\u7b2c2\u5de5\u533a\u8a2d\u8a08\u7b49\u696d\u52d9","client_name":"\u56fd\u571f\u4ea4\u901a\u7701\u5317\u6d77\u9053\u958b\u767a\u5c40\u91e7\u8def\u958b\u767a\u5efa\u8a2d\u90e8\u6839\u5ba4\u8fb2\u696d\u4e8b\u52d9\u6240","boring_xml_url":47,"boring_view_url":1,"soilmap_view_url":null,"soiltest_xml_url":47,"soiltest_view_url":47},{"id":471007,"code":"NGIC202103885-0003","latitude":"43.444730833333","longitude":"144.97924166667","source_code":"","project_name":"\u56fd\u55b6\u74b0\u5883\u4fdd\u5168\u578b\u304b\u3093\u304c\u3044\u6392\u6c34\u4e8b\u696d","survey_name":"\u4ee4\u548c3\u5e74\u5ea6 \u5225\u6d77\u5317\u90e8\u5730\u533a \u5225\u90014\u53f7\u9001\u6c34\u8def\u8c4a\u539f\u7b2c2\u5de5\u533a\u8a2d\u8a08\u7b49\u696d\u52d9","client_name":"\u56fd\u571f\u4ea4\u901a\u7701\u5317\u6d77\u9053\u958b\u767a\u5c40\u91e7\u8def\u958b\u767a\u5efa\u8a2d\u90e8\u6839\u5ba4\u8fb2\u696d\u4e8b\u52d9\u6240","boring_xml_url":47,"boring_view_url":1,"soilmap_view_url":null,"soiltest_xml_url":47,"soiltest_view_url":47},{"id":471006,"code":"NGIC202103885-0002","latitude":"43.441466388889","longitude":"144.974455","source_code":"","project_name":"\u56fd\u55b6\u74b0\u5883\u4fdd\u5168\u578b\u304b\u3093\u304c\u3044\u6392\u6c34\u4e8b\u696d","survey_name":"\u4ee4\u548c3\u5e74\u5ea6 \u5225\u6d77\u5317\u90e8\u5730\u533a \u5225\u90014\u53f7\u9001\u6c34\u8def\u8c4a\u539f\u7b2c2\u5de5\u533a\u8a2d\u8a08\u7b49\u696d\u52d9","client_name":"\u56fd\u571f\u4ea4\u901a\u7701\u5317\u6d77\u9053\u958b\u767a\u5c40\u91e7\u8def\u958b\u767a\u5efa\u8a2d\u90e8\u6839\u5ba4\u8fb2\u696d\u4e8b\u52d9\u6240","boring_xml_url":47,"boring_view_url":1,"soilmap_view_url":null,"soiltest_xml_url":47,"soiltest_view_url":47},{"id":471005,"code":"NGIC202103885-0001","latitude":"43.440758333333","longitude":"144.97346888889","source_code":"","project_name":"\u56fd\u55b6\u74b0\u5883\u4fdd\u5168\u578b\u304b\u3093\u304c\u3044\u6392\u6c34\u4e8b\u696d","survey_name":"\u4ee4\u548c3\u5e74\u5ea6 \u5225\u6d77\u5317\u90e8\u5730\u533a \u5225\u90014\u53f7\u9001\u6c34\u8def\u8c4a\u539f\u7b2c2\u5de5\u533a\u8a2d\u8a08\u7b49\u696d\u52d9","client_name":"\u56fd\u571f\u4ea4\u901a\u7701\u5317\u6d77\u9053\u958b\u767a\u5c40\u91e7\u8def\u958b\u767a\u5efa\u8a2d\u90e8\u6839\u5ba4\u8fb2\u696d\u4e8b\u52d9\u6240","boring_xml_url":47,"boring_view_url":1,"soilmap_view_url":null,"soiltest_xml_url":47,"soiltest_view_url":47},{"id":470996,"code":"NGIC202103901-0001","latitude":"43.304232777778","longitude":"141.70641944444","source_code":"","project_name":"\u56fd\u55b6\u7dca\u6025\u8fb2\u5730\u518d\u7de8\u6574\u5099\u4e8b\u696d\u300c\u5ca9\u898b\u6ca2\u5317\u6751\u5730\u533a\u300d","survey_name":"\u5ca9\u898b\u6ca2\u5317\u6751\u5730\u533a\u8c4a\u6b6344\u533a\u533a\u753b\u6574\u7406\u8a2d\u8a08\u7b49\u696d\u52d9","client_name":"\u56fd\u571f\u4ea4\u901a\u7701\u5317\u6d77\u9053\u958b\u767a\u5c40\u672d\u5e4c\u958b\u767a\u5efa\u8a2d\u90e8\u3000\u5ca9\u898b\u6ca2\u8fb2\u696d\u4e8b\u52d9\u6240","boring_xml_url":47,"boring_view_url":1,"soilmap_view_url":null,"soiltest_xml_url":47,"soiltest_view_url":47},{"id":470995,"code":"NGIC202103900-0001","latitude":"43.299325277778","longitude":"141.69575166667","source_code":"","project_name":"\u56fd\u55b6\u7dca\u6025\u8fb2\u5730\u518d\u7de8\u6574\u5099\u4e8b\u696d\u300c\u5ca9\u898b\u6ca2\u5317\u6751\u5730\u533a\u300d","survey_name":"\u5ca9\u898b\u6ca2\u5317\u6751\u5730\u533a\u8c4a\u6b6325\u30fb26\u533a\u533a\u753b\u6574\u7406\u8a2d\u8a08\u7b49\u696d\u52d9","client_name":"\u56fd\u571f\u4ea4\u901a\u7701\u5317\u6d77\u9053\u958b\u767a\u5c40\u672d\u5e4c\u958b\u767a\u5efa\u8a2d\u90e8\u3000\u5ca9\u898b\u6ca2\u8fb2\u696d\u4e8b\u52d9\u6240","boring_xml_url":47,"boring_view_url":1,"soilmap_view_url":null,"soiltest_xml_url":47,"soiltest_view_url":47},{"id":470980,"code":"NGIC202103877-0011","latitude":"42.98791425","longitude":"140.65820827778","source_code":"","project_name":"\u4e00\u822c\u56fd\u90535\u53f7\u5171\u548c\u753a\u56fd\u5bcc\u5730\u76e4\u74b0\u5883\u8abf\u67fb\u696d\u52d9","survey_name":"\u4e00\u822c\u56fd\u90535\u53f7\u5171\u548c\u753a\u56fd\u5bcc\u5730\u76e4\u74b0\u5883\u8abf\u67fb\u696d\u52d9","client_name":"\u56fd\u571f\u4ea4\u901a\u7701\u5317\u6d77\u9053\u958b\u767a\u5c40\u5c0f\u6a3d\u958b\u767a\u5efa\u8a2d\u90e8\u672c\u90e8","boring_xml_url":47,"boring_view_url":1,"soilmap_view_url":null,"soiltest_xml_url":0,"soiltest_view_url":0},{"id":470979,"code":"NGIC202103877-0010","latitude":"42.987944416667","longitude":"140.65807316667","source_code":"","project_name":"\u4e00\u822c\u56fd\u90535\u53f7\u5171\u548c\u753a\u56fd\u5bcc\u5730\u76e4\u74b0\u5883\u8abf\u67fb\u696d\u52d9","survey_name":"\u4e00\u822c\u56fd\u90535\u53f7\u5171\u548c\u753a\u56fd\u5bcc\u5730\u76e4\u74b0\u5883\u8abf\u67fb\u696d\u52d9","client_name":"\u56fd\u571f\u4ea4\u901a\u7701\u5317\u6d77\u9053\u958b\u767a\u5c40\u5c0f\u6a3d\u958b\u767a\u5efa\u8a2d\u90e8\u672c\u90e8","boring_xml_url":47,"boring_view_url":1,"soilmap_view_url":null,"soiltest_xml_url":0,"soiltest_view_url":0},{"id":470978,"code":"NGIC202103877-0009","latitude":"42.989499861111","longitude":"140.65964688889","source_code":"","project_name":"\u4e00\u822c\u56fd\u90535\u53f7\u5171\u548c\u753a\u56fd\u5bcc\u5730\u76e4\u74b0\u5883\u8abf\u67fb\u696d\u52d9","survey_name":"\u4e00\u822c\u56fd\u90535\u53f7\u5171\u548c\u753a\u56fd\u5bcc\u5730\u76e4\u74b0\u5883\u8abf\u67fb\u696d\u52d9","client_name":"\u56fd\u571f\u4ea4\u901a\u7701\u5317\u6d77\u9053\u958b\u767a\u5c40\u5c0f\u6a3d\u958b\u767a\u5efa\u8a2d\u90e8\u672c\u90e8","boring_xml_url":47,"boring_view_url":1,"soilmap_view_url":null,"soiltest_xml_url":0,"soiltest_view_url":0}]}}