{"header":{"xyz":{"source":[],"mosaic":false},"page":1800,"raw":{"soiltest_result":"0","bbox":"57.598333,109.544722,1.933333,163.806111","page":"1800"},"conditions":{"soiltest_result":0,"north":57.598333,"west":109.544722,"south":1.933333,"east":163.806111},"success":true,"message":""},"data":{"meta":{"total":212844,"page":1800,"pages":7095,"count":30},"values":[{"id":470663,"code":"NGIC202103660-0014","latitude":"35.406124583333","longitude":"139.27765463889","source_code":"","project_name":"","survey_name":"R2\u539a\u6728\u79e6\u91ce\u9053\u8def\u5730\u8cea\u8abf\u67fb\u89e3\u6790\u696d\u52d9","client_name":"\u56fd\u571f\u4ea4\u901a\u7701\u95a2\u6771\u5730\u65b9\u6574\u5099\u5c40\u5ddd\u5d0e\u56fd\u9053\u4e8b\u52d9\u6240","boring_xml_url":47,"boring_view_url":1,"soilmap_view_url":null,"soiltest_xml_url":47,"soiltest_view_url":47},{"id":470662,"code":"NGIC202103660-0013","latitude":"35.410061555556","longitude":"139.28330519444","source_code":"","project_name":"","survey_name":"R2\u539a\u6728\u79e6\u91ce\u9053\u8def\u5730\u8cea\u8abf\u67fb\u89e3\u6790\u696d\u52d9","client_name":"\u56fd\u571f\u4ea4\u901a\u7701\u95a2\u6771\u5730\u65b9\u6574\u5099\u5c40\u5ddd\u5d0e\u56fd\u9053\u4e8b\u52d9\u6240","boring_xml_url":47,"boring_view_url":1,"soilmap_view_url":null,"soiltest_xml_url":0,"soiltest_view_url":0},{"id":470661,"code":"NGIC202103660-0012","latitude":"35.409842694444","longitude":"139.28291327778","source_code":"","project_name":"","survey_name":"R2\u539a\u6728\u79e6\u91ce\u9053\u8def\u5730\u8cea\u8abf\u67fb\u89e3\u6790\u696d\u52d9","client_name":"\u56fd\u571f\u4ea4\u901a\u7701\u95a2\u6771\u5730\u65b9\u6574\u5099\u5c40\u5ddd\u5d0e\u56fd\u9053\u4e8b\u52d9\u6240","boring_xml_url":47,"boring_view_url":1,"soilmap_view_url":null,"soiltest_xml_url":0,"soiltest_view_url":0},{"id":470660,"code":"NGIC202103660-0011","latitude":"35.409604638889","longitude":"139.28248638889","source_code":"","project_name":"","survey_name":"R2\u539a\u6728\u79e6\u91ce\u9053\u8def\u5730\u8cea\u8abf\u67fb\u89e3\u6790\u696d\u52d9","client_name":"\u56fd\u571f\u4ea4\u901a\u7701\u95a2\u6771\u5730\u65b9\u6574\u5099\u5c40\u5ddd\u5d0e\u56fd\u9053\u4e8b\u52d9\u6240","boring_xml_url":47,"boring_view_url":1,"soilmap_view_url":null,"soiltest_xml_url":0,"soiltest_view_url":0},{"id":470659,"code":"NGIC202103660-0010","latitude":"35.473856083333","longitude":"139.35653072222","source_code":"","project_name":"","survey_name":"R2\u539a\u6728\u79e6\u91ce\u9053\u8def\u5730\u8cea\u8abf\u67fb\u89e3\u6790\u696d\u52d9","client_name":"\u56fd\u571f\u4ea4\u901a\u7701\u95a2\u6771\u5730\u65b9\u6574\u5099\u5c40\u5ddd\u5d0e\u56fd\u9053\u4e8b\u52d9\u6240","boring_xml_url":47,"boring_view_url":1,"soilmap_view_url":null,"soiltest_xml_url":47,"soiltest_view_url":47},{"id":470658,"code":"NGIC202103660-0009","latitude":"35.473836861111","longitude":"139.35778638889","source_code":"","project_name":"","survey_name":"R2\u539a\u6728\u79e6\u91ce\u9053\u8def\u5730\u8cea\u8abf\u67fb\u89e3\u6790\u696d\u52d9","client_name":"\u56fd\u571f\u4ea4\u901a\u7701\u95a2\u6771\u5730\u65b9\u6574\u5099\u5c40\u5ddd\u5d0e\u56fd\u9053\u4e8b\u52d9\u6240","boring_xml_url":47,"boring_view_url":1,"soilmap_view_url":null,"soiltest_xml_url":47,"soiltest_view_url":47},{"id":470657,"code":"NGIC202103660-0008","latitude":"35.47418225","longitude":"139.35763691667","source_code":"","project_name":"","survey_name":"R2\u539a\u6728\u79e6\u91ce\u9053\u8def\u5730\u8cea\u8abf\u67fb\u89e3\u6790\u696d\u52d9","client_name":"\u56fd\u571f\u4ea4\u901a\u7701\u95a2\u6771\u5730\u65b9\u6574\u5099\u5c40\u5ddd\u5d0e\u56fd\u9053\u4e8b\u52d9\u6240","boring_xml_url":47,"boring_view_url":1,"soilmap_view_url":null,"soiltest_xml_url":47,"soiltest_view_url":47},{"id":470656,"code":"NGIC202103660-0007","latitude":"35.474255638889","longitude":"139.35853336111","source_code":"","project_name":"","survey_name":"R2\u539a\u6728\u79e6\u91ce\u9053\u8def\u5730\u8cea\u8abf\u67fb\u89e3\u6790\u696d\u52d9","client_name":"\u56fd\u571f\u4ea4\u901a\u7701\u95a2\u6771\u5730\u65b9\u6574\u5099\u5c40\u5ddd\u5d0e\u56fd\u9053\u4e8b\u52d9\u6240","boring_xml_url":47,"boring_view_url":1,"soilmap_view_url":null,"soiltest_xml_url":47,"soiltest_view_url":47},{"id":470655,"code":"NGIC202103660-0006","latitude":"35.474391861111","longitude":"139.35983575","source_code":"","project_name":"","survey_name":"R2\u539a\u6728\u79e6\u91ce\u9053\u8def\u5730\u8cea\u8abf\u67fb\u89e3\u6790\u696d\u52d9","client_name":"\u56fd\u571f\u4ea4\u901a\u7701\u95a2\u6771\u5730\u65b9\u6574\u5099\u5c40\u5ddd\u5d0e\u56fd\u9053\u4e8b\u52d9\u6240","boring_xml_url":47,"boring_view_url":1,"soilmap_view_url":null,"soiltest_xml_url":47,"soiltest_view_url":47},{"id":470654,"code":"NGIC202103660-0005","latitude":"35.47481425","longitude":"139.35954033333","source_code":"","project_name":"","survey_name":"R2\u539a\u6728\u79e6\u91ce\u9053\u8def\u5730\u8cea\u8abf\u67fb\u89e3\u6790\u696d\u52d9","client_name":"\u56fd\u571f\u4ea4\u901a\u7701\u95a2\u6771\u5730\u65b9\u6574\u5099\u5c40\u5ddd\u5d0e\u56fd\u9053\u4e8b\u52d9\u6240","boring_xml_url":47,"boring_view_url":1,"soilmap_view_url":null,"soiltest_xml_url":47,"soiltest_view_url":47},{"id":470653,"code":"NGIC202103660-0004","latitude":"35.474610444444","longitude":"139.36052761111","source_code":"","project_name":"","survey_name":"R2\u539a\u6728\u79e6\u91ce\u9053\u8def\u5730\u8cea\u8abf\u67fb\u89e3\u6790\u696d\u52d9","client_name":"\u56fd\u571f\u4ea4\u901a\u7701\u95a2\u6771\u5730\u65b9\u6574\u5099\u5c40\u5ddd\u5d0e\u56fd\u9053\u4e8b\u52d9\u6240","boring_xml_url":47,"boring_view_url":1,"soilmap_view_url":null,"soiltest_xml_url":47,"soiltest_view_url":47},{"id":470652,"code":"NGIC202103660-0003","latitude":"35.475062638889","longitude":"139.36029311111","source_code":"","project_name":"","survey_name":"R2\u539a\u6728\u79e6\u91ce\u9053\u8def\u5730\u8cea\u8abf\u67fb\u89e3\u6790\u696d\u52d9","client_name":"\u56fd\u571f\u4ea4\u901a\u7701\u95a2\u6771\u5730\u65b9\u6574\u5099\u5c40\u5ddd\u5d0e\u56fd\u9053\u4e8b\u52d9\u6240","boring_xml_url":47,"boring_view_url":1,"soilmap_view_url":null,"soiltest_xml_url":47,"soiltest_view_url":47},{"id":470651,"code":"NGIC202103660-0002","latitude":"35.475540722222","longitude":"139.36555116667","source_code":"","project_name":"","survey_name":"R2\u539a\u6728\u79e6\u91ce\u9053\u8def\u5730\u8cea\u8abf\u67fb\u89e3\u6790\u696d\u52d9","client_name":"\u56fd\u571f\u4ea4\u901a\u7701\u95a2\u6771\u5730\u65b9\u6574\u5099\u5c40\u5ddd\u5d0e\u56fd\u9053\u4e8b\u52d9\u6240","boring_xml_url":47,"boring_view_url":1,"soilmap_view_url":null,"soiltest_xml_url":47,"soiltest_view_url":47},{"id":470650,"code":"NGIC202103660-0001","latitude":"35.476038972222","longitude":"139.36531305556","source_code":"","project_name":"","survey_name":"R2\u539a\u6728\u79e6\u91ce\u9053\u8def\u5730\u8cea\u8abf\u67fb\u89e3\u6790\u696d\u52d9","client_name":"\u56fd\u571f\u4ea4\u901a\u7701\u95a2\u6771\u5730\u65b9\u6574\u5099\u5c40\u5ddd\u5d0e\u56fd\u9053\u4e8b\u52d9\u6240","boring_xml_url":47,"boring_view_url":1,"soilmap_view_url":null,"soiltest_xml_url":47,"soiltest_view_url":47},{"id":470648,"code":"NGIC202103781-0002","latitude":"43.907591666667","longitude":"142.61993611111","source_code":"","project_name":"\u611b\u5225\u5730\u533a","survey_name":"\u4ee4\u548c3\u5e74\u5ea6\u65bd\u884c \u611b\u5225\u5730\u533a \u4e2d\u611b\u5225\u8c4a\u91cc12\u7dda\u5de5\u533a\u533a\u753b\u6574\u7406\u8a2d\u8a08\u7b49\u696d\u52d9","client_name":"\u56fd\u571f\u4ea4\u901a\u7701\u5317\u6d77\u9053\u958b\u767a\u5c40\u65ed\u5ddd\u958b\u767a\u5efa\u8a2d\u90e8\u65ed\u5ddd\u8fb2\u696d\u4e8b\u52d9\u6240","boring_xml_url":47,"boring_view_url":1,"soilmap_view_url":null,"soiltest_xml_url":47,"soiltest_view_url":47},{"id":470647,"code":"NGIC202103781-0001","latitude":"43.90955","longitude":"142.62145833333","source_code":"","project_name":"\u611b\u5225\u5730\u533a","survey_name":"\u4ee4\u548c3\u5e74\u5ea6\u65bd\u884c \u611b\u5225\u5730\u533a \u4e2d\u611b\u5225\u8c4a\u91cc12\u7dda\u5de5\u533a\u533a\u753b\u6574\u7406\u8a2d\u8a08\u7b49\u696d\u52d9","client_name":"\u56fd\u571f\u4ea4\u901a\u7701\u5317\u6d77\u9053\u958b\u767a\u5c40\u65ed\u5ddd\u958b\u767a\u5efa\u8a2d\u90e8\u65ed\u5ddd\u8fb2\u696d\u4e8b\u52d9\u6240","boring_xml_url":47,"boring_view_url":1,"soilmap_view_url":null,"soiltest_xml_url":47,"soiltest_view_url":47},{"id":470642,"code":"NGIC202103811-0007","latitude":"44.725305555556","longitude":"141.78366666667","source_code":"","project_name":"\u7559\u840c\u6e2f\u59161\u6e2f\u5730\u8cea\u8abf\u67fb\u696d\u52d9","survey_name":"\u7559\u840c\u6e2f\u59161\u6e2f\u5730\u8cea\u8abf\u67fb\u696d\u52d9","client_name":"\u56fd\u571f\u4ea4\u901a\u7701\u5317\u6d77\u9053\u958b\u767a\u5c40\u7559\u840c\u958b\u767a\u5efa\u8a2d\u90e8","boring_xml_url":47,"boring_view_url":1,"soilmap_view_url":null,"soiltest_xml_url":47,"soiltest_view_url":47},{"id":470641,"code":"NGIC202103811-0006","latitude":"44.725","longitude":"141.78375","source_code":"","project_name":"\u7559\u840c\u6e2f\u59161\u6e2f\u5730\u8cea\u8abf\u67fb\u696d\u52d9","survey_name":"\u7559\u840c\u6e2f\u59161\u6e2f\u5730\u8cea\u8abf\u67fb\u696d\u52d9","client_name":"\u56fd\u571f\u4ea4\u901a\u7701\u5317\u6d77\u9053\u958b\u767a\u5c40\u7559\u840c\u958b\u767a\u5efa\u8a2d\u90e8","boring_xml_url":47,"boring_view_url":1,"soilmap_view_url":null,"soiltest_xml_url":47,"soiltest_view_url":47},{"id":470640,"code":"NGIC202103811-0005","latitude":"43.945277777778","longitude":"141.64055555556","source_code":"","project_name":"\u7559\u840c\u6e2f\u59161\u6e2f\u5730\u8cea\u8abf\u67fb\u696d\u52d9","survey_name":"\u7559\u840c\u6e2f\u59161\u6e2f\u5730\u8cea\u8abf\u67fb\u696d\u52d9","client_name":"\u56fd\u571f\u4ea4\u901a\u7701\u5317\u6d77\u9053\u958b\u767a\u5c40\u7559\u840c\u958b\u767a\u5efa\u8a2d\u90e8","boring_xml_url":47,"boring_view_url":1,"soilmap_view_url":null,"soiltest_xml_url":47,"soiltest_view_url":47},{"id":470639,"code":"NGIC202103811-0004","latitude":"43.9455","longitude":"141.63883333333","source_code":"","project_name":"\u7559\u840c\u6e2f\u59161\u6e2f\u5730\u8cea\u8abf\u67fb\u696d\u52d9","survey_name":"\u7559\u840c\u6e2f\u59161\u6e2f\u5730\u8cea\u8abf\u67fb\u696d\u52d9","client_name":"\u56fd\u571f\u4ea4\u901a\u7701\u5317\u6d77\u9053\u958b\u767a\u5c40\u7559\u840c\u958b\u767a\u5efa\u8a2d\u90e8","boring_xml_url":47,"boring_view_url":1,"soilmap_view_url":null,"soiltest_xml_url":47,"soiltest_view_url":47},{"id":470638,"code":"NGIC202103811-0003","latitude":"43.945083333333","longitude":"141.64113888889","source_code":"","project_name":"\u7559\u840c\u6e2f\u59161\u6e2f\u5730\u8cea\u8abf\u67fb\u696d\u52d9","survey_name":"\u7559\u840c\u6e2f\u59161\u6e2f\u5730\u8cea\u8abf\u67fb\u696d\u52d9","client_name":"\u56fd\u571f\u4ea4\u901a\u7701\u5317\u6d77\u9053\u958b\u767a\u5c40\u7559\u840c\u958b\u767a\u5efa\u8a2d\u90e8","boring_xml_url":47,"boring_view_url":1,"soilmap_view_url":null,"soiltest_xml_url":47,"soiltest_view_url":47},{"id":470637,"code":"NGIC202103811-0002","latitude":"43.945194444444","longitude":"141.64008333333","source_code":"","project_name":"\u7559\u840c\u6e2f\u59161\u6e2f\u5730\u8cea\u8abf\u67fb\u696d\u52d9","survey_name":"\u7559\u840c\u6e2f\u59161\u6e2f\u5730\u8cea\u8abf\u67fb\u696d\u52d9","client_name":"\u56fd\u571f\u4ea4\u901a\u7701\u5317\u6d77\u9053\u958b\u767a\u5c40\u7559\u840c\u958b\u767a\u5efa\u8a2d\u90e8","boring_xml_url":47,"boring_view_url":1,"soilmap_view_url":null,"soiltest_xml_url":47,"soiltest_view_url":47},{"id":470636,"code":"NGIC202103811-0001","latitude":"43.945333333333","longitude":"141.63877777778","source_code":"","project_name":"\u7559\u840c\u6e2f\u59161\u6e2f\u5730\u8cea\u8abf\u67fb\u696d\u52d9","survey_name":"\u7559\u840c\u6e2f\u59161\u6e2f\u5730\u8cea\u8abf\u67fb\u696d\u52d9","client_name":"\u56fd\u571f\u4ea4\u901a\u7701\u5317\u6d77\u9053\u958b\u767a\u5c40\u7559\u840c\u958b\u767a\u5efa\u8a2d\u90e8","boring_xml_url":47,"boring_view_url":1,"soilmap_view_url":null,"soiltest_xml_url":47,"soiltest_view_url":47},{"id":470628,"code":"NGIC202103695-0003","latitude":"34.043361111111","longitude":"134.58336111111","source_code":"","project_name":"","survey_name":"\u4ee4\u548c3\u5e74\u5ea6 \u6d25\u7530\u5730\u533a\u5730\u8cea\u8abf\u67fb(\u305d\u306e2)\u696d\u52d9","client_name":"\u56fd\u571f\u4ea4\u901a\u7701\u56db\u56fd\u5730\u65b9\u6574\u5099\u5c40\u5fb3\u5cf6\u6cb3\u5ddd\u56fd\u9053\u4e8b\u52d9\u6240","boring_xml_url":47,"boring_view_url":1,"soilmap_view_url":null,"soiltest_xml_url":47,"soiltest_view_url":47},{"id":470627,"code":"NGIC202103695-0002","latitude":"34.04425","longitude":"134.58377777778","source_code":"","project_name":"","survey_name":"\u4ee4\u548c3\u5e74\u5ea6 \u6d25\u7530\u5730\u533a\u5730\u8cea\u8abf\u67fb(\u305d\u306e2)\u696d\u52d9","client_name":"\u56fd\u571f\u4ea4\u901a\u7701\u56db\u56fd\u5730\u65b9\u6574\u5099\u5c40\u5fb3\u5cf6\u6cb3\u5ddd\u56fd\u9053\u4e8b\u52d9\u6240","boring_xml_url":47,"boring_view_url":1,"soilmap_view_url":null,"soiltest_xml_url":47,"soiltest_view_url":47},{"id":470626,"code":"NGIC202103695-0001","latitude":"34.044638888889","longitude":"134.58391666667","source_code":"","project_name":"","survey_name":"\u4ee4\u548c3\u5e74\u5ea6 \u6d25\u7530\u5730\u533a\u5730\u8cea\u8abf\u67fb(\u305d\u306e2)\u696d\u52d9","client_name":"\u56fd\u571f\u4ea4\u901a\u7701\u56db\u56fd\u5730\u65b9\u6574\u5099\u5c40\u5fb3\u5cf6\u6cb3\u5ddd\u56fd\u9053\u4e8b\u52d9\u6240","boring_xml_url":47,"boring_view_url":1,"soilmap_view_url":null,"soiltest_xml_url":47,"soiltest_view_url":47},{"id":470613,"code":"NGIC202103823-0016","latitude":"35.103920861111","longitude":"137.57065241667","source_code":"","project_name":"","survey_name":"\u4ee4\u548c2\u5e74\u5ea6\u8a2d\u697d\u30c0\u30e0\u9053\u8def\u95a2\u4fc2\u5730\u8cea\u8abf\u67fb\u696d\u52d9","client_name":"\u56fd\u571f\u4ea4\u901a\u7701\u4e2d\u90e8\u5730\u65b9\u6574\u5099\u5c40\u8a2d\u697d\u30c0\u30e0\u5de5\u4e8b\u4e8b\u52d9\u6240","boring_xml_url":47,"boring_view_url":1,"soilmap_view_url":null,"soiltest_xml_url":0,"soiltest_view_url":0},{"id":470612,"code":"NGIC202103823-0015","latitude":"35.103815972222","longitude":"137.57081733333","source_code":"","project_name":"","survey_name":"\u4ee4\u548c2\u5e74\u5ea6\u8a2d\u697d\u30c0\u30e0\u9053\u8def\u95a2\u4fc2\u5730\u8cea\u8abf\u67fb\u696d\u52d9","client_name":"\u56fd\u571f\u4ea4\u901a\u7701\u4e2d\u90e8\u5730\u65b9\u6574\u5099\u5c40\u8a2d\u697d\u30c0\u30e0\u5de5\u4e8b\u4e8b\u52d9\u6240","boring_xml_url":47,"boring_view_url":1,"soilmap_view_url":null,"soiltest_xml_url":0,"soiltest_view_url":0},{"id":470611,"code":"NGIC202103823-0014","latitude":"35.103657111111","longitude":"137.57303725","source_code":"","project_name":"","survey_name":"\u4ee4\u548c2\u5e74\u5ea6\u8a2d\u697d\u30c0\u30e0\u9053\u8def\u95a2\u4fc2\u5730\u8cea\u8abf\u67fb\u696d\u52d9","client_name":"\u56fd\u571f\u4ea4\u901a\u7701\u4e2d\u90e8\u5730\u65b9\u6574\u5099\u5c40\u8a2d\u697d\u30c0\u30e0\u5de5\u4e8b\u4e8b\u52d9\u6240","boring_xml_url":47,"boring_view_url":1,"soilmap_view_url":null,"soiltest_xml_url":0,"soiltest_view_url":0},{"id":470610,"code":"NGIC202103823-0013","latitude":"35.103875583333","longitude":"137.57347902778","source_code":"","project_name":"","survey_name":"\u4ee4\u548c2\u5e74\u5ea6\u8a2d\u697d\u30c0\u30e0\u9053\u8def\u95a2\u4fc2\u5730\u8cea\u8abf\u67fb\u696d\u52d9","client_name":"\u56fd\u571f\u4ea4\u901a\u7701\u4e2d\u90e8\u5730\u65b9\u6574\u5099\u5c40\u8a2d\u697d\u30c0\u30e0\u5de5\u4e8b\u4e8b\u52d9\u6240","boring_xml_url":47,"boring_view_url":1,"soilmap_view_url":null,"soiltest_xml_url":0,"soiltest_view_url":0}]}}