{"header":{"xyz":{"source":[],"mosaic":false},"page":1805,"raw":{"soiltest_result":"0","bbox":"57.598333,109.544722,1.933333,163.806111","page":"1805"},"conditions":{"soiltest_result":0,"north":57.598333,"west":109.544722,"south":1.933333,"east":163.806111},"success":true,"message":""},"data":{"meta":{"total":212844,"page":1805,"pages":7095,"count":30},"values":[{"id":470347,"code":"NGIC202103698-0010","latitude":"35.198027777778","longitude":"138.52627777778","source_code":"","project_name":"","survey_name":"\u4ee4\u548c2\u5e74\u5ea6\u9759\u5ca1\u56fd\u9053\u7ba1\u5185\u5730\u8cea\u8abf\u67fb","client_name":"\u56fd\u571f\u4ea4\u901a\u7701\u4e2d\u90e8\u5730\u65b9\u6574\u5099\u5c40\u9759\u5ca1\u56fd\u9053\u4e8b\u52d9\u6240","boring_xml_url":47,"boring_view_url":1,"soilmap_view_url":null,"soiltest_xml_url":0,"soiltest_view_url":0},{"id":470346,"code":"NGIC202103698-0009","latitude":"35.197888888889","longitude":"138.52627777778","source_code":"","project_name":"","survey_name":"\u4ee4\u548c2\u5e74\u5ea6\u9759\u5ca1\u56fd\u9053\u7ba1\u5185\u5730\u8cea\u8abf\u67fb","client_name":"\u56fd\u571f\u4ea4\u901a\u7701\u4e2d\u90e8\u5730\u65b9\u6574\u5099\u5c40\u9759\u5ca1\u56fd\u9053\u4e8b\u52d9\u6240","boring_xml_url":47,"boring_view_url":1,"soilmap_view_url":null,"soiltest_xml_url":0,"soiltest_view_url":0},{"id":470345,"code":"NGIC202103698-0008","latitude":"35.198055555556","longitude":"138.526","source_code":"","project_name":"","survey_name":"\u4ee4\u548c2\u5e74\u5ea6\u9759\u5ca1\u56fd\u9053\u7ba1\u5185\u5730\u8cea\u8abf\u67fb","client_name":"\u56fd\u571f\u4ea4\u901a\u7701\u4e2d\u90e8\u5730\u65b9\u6574\u5099\u5c40\u9759\u5ca1\u56fd\u9053\u4e8b\u52d9\u6240","boring_xml_url":47,"boring_view_url":1,"soilmap_view_url":null,"soiltest_xml_url":0,"soiltest_view_url":0},{"id":470344,"code":"NGIC202103698-0007","latitude":"35.198138888889","longitude":"138.52572222222","source_code":"","project_name":"","survey_name":"\u4ee4\u548c2\u5e74\u5ea6\u9759\u5ca1\u56fd\u9053\u7ba1\u5185\u5730\u8cea\u8abf\u67fb","client_name":"\u56fd\u571f\u4ea4\u901a\u7701\u4e2d\u90e8\u5730\u65b9\u6574\u5099\u5c40\u9759\u5ca1\u56fd\u9053\u4e8b\u52d9\u6240","boring_xml_url":47,"boring_view_url":1,"soilmap_view_url":null,"soiltest_xml_url":0,"soiltest_view_url":0},{"id":470343,"code":"NGIC202103698-0006","latitude":"35.179944444444","longitude":"138.52486111111","source_code":"","project_name":"","survey_name":"\u4ee4\u548c2\u5e74\u5ea6\u9759\u5ca1\u56fd\u9053\u7ba1\u5185\u5730\u8cea\u8abf\u67fb","client_name":"\u56fd\u571f\u4ea4\u901a\u7701\u4e2d\u90e8\u5730\u65b9\u6574\u5099\u5c40\u9759\u5ca1\u56fd\u9053\u4e8b\u52d9\u6240","boring_xml_url":47,"boring_view_url":1,"soilmap_view_url":null,"soiltest_xml_url":0,"soiltest_view_url":0},{"id":470342,"code":"NGIC202103698-0005","latitude":"35.180138888889","longitude":"138.52461111111","source_code":"","project_name":"","survey_name":"\u4ee4\u548c2\u5e74\u5ea6\u9759\u5ca1\u56fd\u9053\u7ba1\u5185\u5730\u8cea\u8abf\u67fb","client_name":"\u56fd\u571f\u4ea4\u901a\u7701\u4e2d\u90e8\u5730\u65b9\u6574\u5099\u5c40\u9759\u5ca1\u56fd\u9053\u4e8b\u52d9\u6240","boring_xml_url":47,"boring_view_url":1,"soilmap_view_url":null,"soiltest_xml_url":0,"soiltest_view_url":0},{"id":470341,"code":"NGIC202103698-0004","latitude":"35.136972222222","longitude":"138.52072222222","source_code":"","project_name":"","survey_name":"\u4ee4\u548c2\u5e74\u5ea6\u9759\u5ca1\u56fd\u9053\u7ba1\u5185\u5730\u8cea\u8abf\u67fb","client_name":"\u56fd\u571f\u4ea4\u901a\u7701\u4e2d\u90e8\u5730\u65b9\u6574\u5099\u5c40\u9759\u5ca1\u56fd\u9053\u4e8b\u52d9\u6240","boring_xml_url":47,"boring_view_url":1,"soilmap_view_url":null,"soiltest_xml_url":0,"soiltest_view_url":0},{"id":470340,"code":"NGIC202103698-0003","latitude":"35.136972222222","longitude":"138.52075","source_code":"","project_name":"","survey_name":"\u4ee4\u548c2\u5e74\u5ea6\u9759\u5ca1\u56fd\u9053\u7ba1\u5185\u5730\u8cea\u8abf\u67fb","client_name":"\u56fd\u571f\u4ea4\u901a\u7701\u4e2d\u90e8\u5730\u65b9\u6574\u5099\u5c40\u9759\u5ca1\u56fd\u9053\u4e8b\u52d9\u6240","boring_xml_url":47,"boring_view_url":1,"soilmap_view_url":null,"soiltest_xml_url":0,"soiltest_view_url":0},{"id":470339,"code":"NGIC202103698-0002","latitude":"35.125027777778","longitude":"138.51130555556","source_code":"","project_name":"","survey_name":"\u4ee4\u548c2\u5e74\u5ea6\u9759\u5ca1\u56fd\u9053\u7ba1\u5185\u5730\u8cea\u8abf\u67fb","client_name":"\u56fd\u571f\u4ea4\u901a\u7701\u4e2d\u90e8\u5730\u65b9\u6574\u5099\u5c40\u9759\u5ca1\u56fd\u9053\u4e8b\u52d9\u6240","boring_xml_url":47,"boring_view_url":1,"soilmap_view_url":null,"soiltest_xml_url":0,"soiltest_view_url":0},{"id":470338,"code":"NGIC202103698-0001","latitude":"35.125194444444","longitude":"138.51122222222","source_code":"","project_name":"","survey_name":"\u4ee4\u548c2\u5e74\u5ea6\u9759\u5ca1\u56fd\u9053\u7ba1\u5185\u5730\u8cea\u8abf\u67fb","client_name":"\u56fd\u571f\u4ea4\u901a\u7701\u4e2d\u90e8\u5730\u65b9\u6574\u5099\u5c40\u9759\u5ca1\u56fd\u9053\u4e8b\u52d9\u6240","boring_xml_url":47,"boring_view_url":1,"soilmap_view_url":null,"soiltest_xml_url":0,"soiltest_view_url":0},{"id":470337,"code":"NGIC202103678-0007","latitude":"33.806278611111","longitude":"132.73159777778","source_code":"","project_name":"","survey_name":"\u4ee4\u548c2-3\u5e74\u5ea6 \u91cd\u4fe1\u5ddd\u51fa\u5408\u5730\u533a\u5824\u9632\u6f0f\u6c34\u5bfe\u7b56\u8a2d\u8a08\u696d\u52d9","client_name":"\u56fd\u571f\u4ea4\u901a\u7701\u56db\u56fd\u5730\u65b9\u6574\u5099\u5c40\u677e\u5c71\u6cb3\u5ddd\u56fd\u9053\u4e8b\u52d9\u6240","boring_xml_url":47,"boring_view_url":1,"soilmap_view_url":null,"soiltest_xml_url":47,"soiltest_view_url":47},{"id":470336,"code":"NGIC202103678-0006","latitude":"33.806093333333","longitude":"132.73163194444","source_code":"","project_name":"","survey_name":"\u4ee4\u548c2-3\u5e74\u5ea6 \u91cd\u4fe1\u5ddd\u51fa\u5408\u5730\u533a\u5824\u9632\u6f0f\u6c34\u5bfe\u7b56\u8a2d\u8a08\u696d\u52d9","client_name":"\u56fd\u571f\u4ea4\u901a\u7701\u56db\u56fd\u5730\u65b9\u6574\u5099\u5c40\u677e\u5c71\u6cb3\u5ddd\u56fd\u9053\u4e8b\u52d9\u6240","boring_xml_url":47,"boring_view_url":1,"soilmap_view_url":null,"soiltest_xml_url":47,"soiltest_view_url":47},{"id":470335,"code":"NGIC202103678-0005","latitude":"33.806258888889","longitude":"132.72795527778","source_code":"","project_name":"","survey_name":"\u4ee4\u548c2-3\u5e74\u5ea6 \u91cd\u4fe1\u5ddd\u51fa\u5408\u5730\u533a\u5824\u9632\u6f0f\u6c34\u5bfe\u7b56\u8a2d\u8a08\u696d\u52d9","client_name":"\u56fd\u571f\u4ea4\u901a\u7701\u56db\u56fd\u5730\u65b9\u6574\u5099\u5c40\u677e\u5c71\u6cb3\u5ddd\u56fd\u9053\u4e8b\u52d9\u6240","boring_xml_url":47,"boring_view_url":1,"soilmap_view_url":null,"soiltest_xml_url":47,"soiltest_view_url":47},{"id":470334,"code":"NGIC202103678-0004","latitude":"33.806021388889","longitude":"132.72791","source_code":"","project_name":"","survey_name":"\u4ee4\u548c2-3\u5e74\u5ea6 \u91cd\u4fe1\u5ddd\u51fa\u5408\u5730\u533a\u5824\u9632\u6f0f\u6c34\u5bfe\u7b56\u8a2d\u8a08\u696d\u52d9","client_name":"\u56fd\u571f\u4ea4\u901a\u7701\u56db\u56fd\u5730\u65b9\u6574\u5099\u5c40\u677e\u5c71\u6cb3\u5ddd\u56fd\u9053\u4e8b\u52d9\u6240","boring_xml_url":47,"boring_view_url":1,"soilmap_view_url":null,"soiltest_xml_url":47,"soiltest_view_url":47},{"id":470333,"code":"NGIC202103678-0003","latitude":"33.807535277778","longitude":"132.72510055556","source_code":"","project_name":"","survey_name":"\u4ee4\u548c2-3\u5e74\u5ea6 \u91cd\u4fe1\u5ddd\u51fa\u5408\u5730\u533a\u5824\u9632\u6f0f\u6c34\u5bfe\u7b56\u8a2d\u8a08\u696d\u52d9","client_name":"\u56fd\u571f\u4ea4\u901a\u7701\u56db\u56fd\u5730\u65b9\u6574\u5099\u5c40\u677e\u5c71\u6cb3\u5ddd\u56fd\u9053\u4e8b\u52d9\u6240","boring_xml_url":47,"boring_view_url":1,"soilmap_view_url":null,"soiltest_xml_url":47,"soiltest_view_url":47},{"id":470332,"code":"NGIC202103678-0002","latitude":"33.807354722222","longitude":"132.72500694444","source_code":"","project_name":"","survey_name":"\u4ee4\u548c2-3\u5e74\u5ea6 \u91cd\u4fe1\u5ddd\u51fa\u5408\u5730\u533a\u5824\u9632\u6f0f\u6c34\u5bfe\u7b56\u8a2d\u8a08\u696d\u52d9","client_name":"\u56fd\u571f\u4ea4\u901a\u7701\u56db\u56fd\u5730\u65b9\u6574\u5099\u5c40\u677e\u5c71\u6cb3\u5ddd\u56fd\u9053\u4e8b\u52d9\u6240","boring_xml_url":47,"boring_view_url":1,"soilmap_view_url":null,"soiltest_xml_url":47,"soiltest_view_url":47},{"id":470331,"code":"NGIC202103678-0001","latitude":"33.807283611111","longitude":"132.72497","source_code":"","project_name":"","survey_name":"\u4ee4\u548c2-3\u5e74\u5ea6 \u91cd\u4fe1\u5ddd\u51fa\u5408\u5730\u533a\u5824\u9632\u6f0f\u6c34\u5bfe\u7b56\u8a2d\u8a08\u696d\u52d9","client_name":"\u56fd\u571f\u4ea4\u901a\u7701\u56db\u56fd\u5730\u65b9\u6574\u5099\u5c40\u677e\u5c71\u6cb3\u5ddd\u56fd\u9053\u4e8b\u52d9\u6240","boring_xml_url":47,"boring_view_url":1,"soilmap_view_url":null,"soiltest_xml_url":47,"soiltest_view_url":47},{"id":470308,"code":"NGIC202103776-0004","latitude":"43.367333333333","longitude":"144.90218055556","source_code":"","project_name":"\u5225\u6d77\u5317\u90e8\u5730\u533a","survey_name":"\u4ee4\u548c3\u5e74\u5ea6\u65bd\u884c \u5225\u6d77\u5317\u90e8\u5730\u533a \u5225\u914d6\u53f7\u7528\u6c34\u8def\u4e2d\u897f\u5225\u7b2c1\u5de5\u533a\u5916\u4e00\u9023\u8a2d\u8a08\u7b49\u696d\u52d9","client_name":"\u56fd\u571f\u4ea4\u901a\u7701\u5317\u6d77\u9053\u958b\u767a\u5c40\u91e7\u8def\u958b\u767a\u5efa\u8a2d\u90e8\u6839\u5ba4\u8fb2\u696d\u4e8b\u52d9\u6240","boring_xml_url":47,"boring_view_url":1,"soilmap_view_url":null,"soiltest_xml_url":47,"soiltest_view_url":47},{"id":470307,"code":"NGIC202103776-0003","latitude":"43.370369444444","longitude":"144.89848611111","source_code":"","project_name":"\u5225\u6d77\u5317\u90e8\u5730\u533a","survey_name":"\u4ee4\u548c3\u5e74\u5ea6\u65bd\u884c \u5225\u6d77\u5317\u90e8\u5730\u533a \u5225\u914d6\u53f7\u7528\u6c34\u8def\u4e2d\u897f\u5225\u7b2c1\u5de5\u533a\u5916\u4e00\u9023\u8a2d\u8a08\u7b49\u696d\u52d9","client_name":"\u56fd\u571f\u4ea4\u901a\u7701\u5317\u6d77\u9053\u958b\u767a\u5c40\u91e7\u8def\u958b\u767a\u5efa\u8a2d\u90e8\u6839\u5ba4\u8fb2\u696d\u4e8b\u52d9\u6240","boring_xml_url":47,"boring_view_url":1,"soilmap_view_url":null,"soiltest_xml_url":47,"soiltest_view_url":47},{"id":470306,"code":"NGIC202103776-0002","latitude":"43.373466666667","longitude":"144.89457222222","source_code":"","project_name":"\u5225\u6d77\u5317\u90e8\u5730\u533a","survey_name":"\u4ee4\u548c3\u5e74\u5ea6\u65bd\u884c \u5225\u6d77\u5317\u90e8\u5730\u533a \u5225\u914d6\u53f7\u7528\u6c34\u8def\u4e2d\u897f\u5225\u7b2c1\u5de5\u533a\u5916\u4e00\u9023\u8a2d\u8a08\u7b49\u696d\u52d9","client_name":"\u56fd\u571f\u4ea4\u901a\u7701\u5317\u6d77\u9053\u958b\u767a\u5c40\u91e7\u8def\u958b\u767a\u5efa\u8a2d\u90e8\u6839\u5ba4\u8fb2\u696d\u4e8b\u52d9\u6240","boring_xml_url":47,"boring_view_url":1,"soilmap_view_url":null,"soiltest_xml_url":47,"soiltest_view_url":47},{"id":470305,"code":"NGIC202103776-0001","latitude":"43.375783333333","longitude":"144.88617777778","source_code":"","project_name":"\u5225\u6d77\u5317\u90e8\u5730\u533a","survey_name":"\u4ee4\u548c3\u5e74\u5ea6\u65bd\u884c \u5225\u6d77\u5317\u90e8\u5730\u533a \u5225\u914d6\u53f7\u7528\u6c34\u8def\u4e2d\u897f\u5225\u7b2c1\u5de5\u533a\u5916\u4e00\u9023\u8a2d\u8a08\u7b49\u696d\u52d9","client_name":"\u56fd\u571f\u4ea4\u901a\u7701\u5317\u6d77\u9053\u958b\u767a\u5c40\u91e7\u8def\u958b\u767a\u5efa\u8a2d\u90e8\u6839\u5ba4\u8fb2\u696d\u4e8b\u52d9\u6240","boring_xml_url":47,"boring_view_url":1,"soilmap_view_url":null,"soiltest_xml_url":47,"soiltest_view_url":47},{"id":470273,"code":"NGIC202103686-0007","latitude":"35.203985611111","longitude":"139.84005330556","source_code":"","project_name":"","survey_name":"\u56fd\u9053127\u53f7\u9632\u707d\u5730\u8cea\u8abf\u67fb\uff08\u305d\u306e4\uff09\u696d\u52d9 3G11","client_name":"\u56fd\u571f\u4ea4\u901a\u7701\u95a2\u6771\u5730\u65b9\u6574\u5099\u5c40\u5343\u8449\u56fd\u9053\u4e8b\u52d9\u6240","boring_xml_url":47,"boring_view_url":1,"soilmap_view_url":null,"soiltest_xml_url":0,"soiltest_view_url":0},{"id":470272,"code":"NGIC202103686-0006","latitude":"35.204058138889","longitude":"139.83981605556","source_code":"","project_name":"","survey_name":"\u56fd\u9053127\u53f7\u9632\u707d\u5730\u8cea\u8abf\u67fb\uff08\u305d\u306e4\uff09\u696d\u52d9 3G11","client_name":"\u56fd\u571f\u4ea4\u901a\u7701\u95a2\u6771\u5730\u65b9\u6574\u5099\u5c40\u5343\u8449\u56fd\u9053\u4e8b\u52d9\u6240","boring_xml_url":47,"boring_view_url":1,"soilmap_view_url":null,"soiltest_xml_url":0,"soiltest_view_url":0},{"id":470271,"code":"NGIC202103686-0005","latitude":"35.20320625","longitude":"139.83890136111","source_code":"","project_name":"","survey_name":"\u56fd\u9053127\u53f7\u9632\u707d\u5730\u8cea\u8abf\u67fb\uff08\u305d\u306e4\uff09\u696d\u52d9 3G11","client_name":"\u56fd\u571f\u4ea4\u901a\u7701\u95a2\u6771\u5730\u65b9\u6574\u5099\u5c40\u5343\u8449\u56fd\u9053\u4e8b\u52d9\u6240","boring_xml_url":47,"boring_view_url":1,"soilmap_view_url":null,"soiltest_xml_url":0,"soiltest_view_url":0},{"id":470270,"code":"NGIC202103686-0004","latitude":"35.203841277778","longitude":"139.84037125","source_code":"","project_name":"","survey_name":"\u56fd\u9053127\u53f7\u9632\u707d\u5730\u8cea\u8abf\u67fb\uff08\u305d\u306e4\uff09\u696d\u52d9 3G11","client_name":"\u56fd\u571f\u4ea4\u901a\u7701\u95a2\u6771\u5730\u65b9\u6574\u5099\u5c40\u5343\u8449\u56fd\u9053\u4e8b\u52d9\u6240","boring_xml_url":47,"boring_view_url":1,"soilmap_view_url":null,"soiltest_xml_url":0,"soiltest_view_url":0},{"id":470269,"code":"NGIC202103686-0003","latitude":"35.203569305556","longitude":"139.83873283333","source_code":"","project_name":"","survey_name":"\u56fd\u9053127\u53f7\u9632\u707d\u5730\u8cea\u8abf\u67fb\uff08\u305d\u306e4\uff09\u696d\u52d9 3G11","client_name":"\u56fd\u571f\u4ea4\u901a\u7701\u95a2\u6771\u5730\u65b9\u6574\u5099\u5c40\u5343\u8449\u56fd\u9053\u4e8b\u52d9\u6240","boring_xml_url":47,"boring_view_url":1,"soilmap_view_url":null,"soiltest_xml_url":0,"soiltest_view_url":0},{"id":470268,"code":"NGIC202103686-0002","latitude":"35.203831361111","longitude":"139.84034058333","source_code":"","project_name":"","survey_name":"\u56fd\u9053127\u53f7\u9632\u707d\u5730\u8cea\u8abf\u67fb\uff08\u305d\u306e4\uff09\u696d\u52d9 3G11","client_name":"\u56fd\u571f\u4ea4\u901a\u7701\u95a2\u6771\u5730\u65b9\u6574\u5099\u5c40\u5343\u8449\u56fd\u9053\u4e8b\u52d9\u6240","boring_xml_url":47,"boring_view_url":1,"soilmap_view_url":null,"soiltest_xml_url":0,"soiltest_view_url":0},{"id":470267,"code":"NGIC202103686-0001","latitude":"35.203525388889","longitude":"139.83903358333","source_code":"","project_name":"","survey_name":"\u56fd\u9053127\u53f7\u9632\u707d\u5730\u8cea\u8abf\u67fb\uff08\u305d\u306e4\uff09\u696d\u52d9 3G11","client_name":"\u56fd\u571f\u4ea4\u901a\u7701\u95a2\u6771\u5730\u65b9\u6574\u5099\u5c40\u5343\u8449\u56fd\u9053\u4e8b\u52d9\u6240","boring_xml_url":47,"boring_view_url":1,"soilmap_view_url":null,"soiltest_xml_url":0,"soiltest_view_url":0},{"id":470264,"code":"NGIC202103680-0008","latitude":"42.606098583333","longitude":"141.92491319444","source_code":"","project_name":"\u56fd\u55b6\u304b\u3093\u304c\u3044\u6392\u6c34\u4e8b\u696d\u65b0\u9d61\u5ddd\u5730\u533a","survey_name":"\u65b0\u9d61\u5ddd\u5730\u533a \u5ddd\u897f\u5357\u5e79\u7dda\u7528\u6c34\u8def\u5916\u8a2d\u8a08\u7b49\u696d\u52d9","client_name":"\u56fd\u571f\u4ea4\u901a\u7701\u5317\u6d77\u9053\u958b\u767a\u5c40\u5ba4\u862d\u958b\u767a\u5efa\u8a2d\u90e8\u80c6\u632f\u8fb2\u696d\u4e8b\u52d9\u6240","boring_xml_url":47,"boring_view_url":1,"soilmap_view_url":null,"soiltest_xml_url":47,"soiltest_view_url":47},{"id":470263,"code":"NGIC202103680-0007","latitude":"42.6062565","longitude":"141.92522438889","source_code":"","project_name":"\u56fd\u55b6\u304b\u3093\u304c\u3044\u6392\u6c34\u4e8b\u696d\u65b0\u9d61\u5ddd\u5730\u533a","survey_name":"\u65b0\u9d61\u5ddd\u5730\u533a \u5ddd\u897f\u5357\u5e79\u7dda\u7528\u6c34\u8def\u5916\u8a2d\u8a08\u7b49\u696d\u52d9","client_name":"\u56fd\u571f\u4ea4\u901a\u7701\u5317\u6d77\u9053\u958b\u767a\u5c40\u5ba4\u862d\u958b\u767a\u5efa\u8a2d\u90e8\u80c6\u632f\u8fb2\u696d\u4e8b\u52d9\u6240","boring_xml_url":47,"boring_view_url":1,"soilmap_view_url":null,"soiltest_xml_url":47,"soiltest_view_url":47}]}}