{"header":{"xyz":{"source":[],"mosaic":false},"page":1806,"raw":{"soiltest_result":"0","bbox":"57.598333,109.544722,1.933333,163.806111","page":"1806"},"conditions":{"soiltest_result":0,"north":57.598333,"west":109.544722,"south":1.933333,"east":163.806111},"success":true,"message":""},"data":{"meta":{"total":212844,"page":1806,"pages":7095,"count":30},"values":[{"id":470262,"code":"NGIC202103680-0006","latitude":"42.593825","longitude":"141.92394166667","source_code":"","project_name":"\u56fd\u55b6\u304b\u3093\u304c\u3044\u6392\u6c34\u4e8b\u696d\u65b0\u9d61\u5ddd\u5730\u533a","survey_name":"\u65b0\u9d61\u5ddd\u5730\u533a \u5ddd\u897f\u5357\u5e79\u7dda\u7528\u6c34\u8def\u5916\u8a2d\u8a08\u7b49\u696d\u52d9","client_name":"\u56fd\u571f\u4ea4\u901a\u7701\u5317\u6d77\u9053\u958b\u767a\u5c40\u5ba4\u862d\u958b\u767a\u5efa\u8a2d\u90e8\u80c6\u632f\u8fb2\u696d\u4e8b\u52d9\u6240","boring_xml_url":47,"boring_view_url":1,"soilmap_view_url":null,"soiltest_xml_url":47,"soiltest_view_url":47},{"id":470261,"code":"NGIC202103680-0005","latitude":"42.592704416667","longitude":"141.94483036111","source_code":"","project_name":"\u56fd\u55b6\u304b\u3093\u304c\u3044\u6392\u6c34\u4e8b\u696d\u65b0\u9d61\u5ddd\u5730\u533a","survey_name":"\u65b0\u9d61\u5ddd\u5730\u533a \u5ddd\u897f\u5357\u5e79\u7dda\u7528\u6c34\u8def\u5916\u8a2d\u8a08\u7b49\u696d\u52d9","client_name":"\u56fd\u571f\u4ea4\u901a\u7701\u5317\u6d77\u9053\u958b\u767a\u5c40\u5ba4\u862d\u958b\u767a\u5efa\u8a2d\u90e8\u80c6\u632f\u8fb2\u696d\u4e8b\u52d9\u6240","boring_xml_url":47,"boring_view_url":1,"soilmap_view_url":null,"soiltest_xml_url":47,"soiltest_view_url":47},{"id":470260,"code":"NGIC202103680-0004","latitude":"42.59419125","longitude":"141.94650836111","source_code":"","project_name":"\u56fd\u55b6\u304b\u3093\u304c\u3044\u6392\u6c34\u4e8b\u696d\u65b0\u9d61\u5ddd\u5730\u533a","survey_name":"\u65b0\u9d61\u5ddd\u5730\u533a \u5ddd\u897f\u5357\u5e79\u7dda\u7528\u6c34\u8def\u5916\u8a2d\u8a08\u7b49\u696d\u52d9","client_name":"\u56fd\u571f\u4ea4\u901a\u7701\u5317\u6d77\u9053\u958b\u767a\u5c40\u5ba4\u862d\u958b\u767a\u5efa\u8a2d\u90e8\u80c6\u632f\u8fb2\u696d\u4e8b\u52d9\u6240","boring_xml_url":47,"boring_view_url":1,"soilmap_view_url":null,"soiltest_xml_url":47,"soiltest_view_url":47},{"id":470259,"code":"NGIC202103680-0003","latitude":"42.595462416667","longitude":"141.94801225","source_code":"","project_name":"\u56fd\u55b6\u304b\u3093\u304c\u3044\u6392\u6c34\u4e8b\u696d\u65b0\u9d61\u5ddd\u5730\u533a","survey_name":"\u65b0\u9d61\u5ddd\u5730\u533a \u5ddd\u897f\u5357\u5e79\u7dda\u7528\u6c34\u8def\u5916\u8a2d\u8a08\u7b49\u696d\u52d9","client_name":"\u56fd\u571f\u4ea4\u901a\u7701\u5317\u6d77\u9053\u958b\u767a\u5c40\u5ba4\u862d\u958b\u767a\u5efa\u8a2d\u90e8\u80c6\u632f\u8fb2\u696d\u4e8b\u52d9\u6240","boring_xml_url":47,"boring_view_url":1,"soilmap_view_url":null,"soiltest_xml_url":47,"soiltest_view_url":47},{"id":470258,"code":"NGIC202103680-0002","latitude":"42.596703416667","longitude":"141.94947763889","source_code":"","project_name":"\u56fd\u55b6\u304b\u3093\u304c\u3044\u6392\u6c34\u4e8b\u696d\u65b0\u9d61\u5ddd\u5730\u533a","survey_name":"\u65b0\u9d61\u5ddd\u5730\u533a \u5ddd\u897f\u5357\u5e79\u7dda\u7528\u6c34\u8def\u5916\u8a2d\u8a08\u7b49\u696d\u52d9","client_name":"\u56fd\u571f\u4ea4\u901a\u7701\u5317\u6d77\u9053\u958b\u767a\u5c40\u5ba4\u862d\u958b\u767a\u5efa\u8a2d\u90e8\u80c6\u632f\u8fb2\u696d\u4e8b\u52d9\u6240","boring_xml_url":47,"boring_view_url":1,"soilmap_view_url":null,"soiltest_xml_url":47,"soiltest_view_url":47},{"id":470257,"code":"NGIC202103680-0001","latitude":"42.598018","longitude":"141.95202291667","source_code":"","project_name":"\u56fd\u55b6\u304b\u3093\u304c\u3044\u6392\u6c34\u4e8b\u696d\u65b0\u9d61\u5ddd\u5730\u533a","survey_name":"\u65b0\u9d61\u5ddd\u5730\u533a \u5ddd\u897f\u5357\u5e79\u7dda\u7528\u6c34\u8def\u5916\u8a2d\u8a08\u7b49\u696d\u52d9","client_name":"\u56fd\u571f\u4ea4\u901a\u7701\u5317\u6d77\u9053\u958b\u767a\u5c40\u5ba4\u862d\u958b\u767a\u5efa\u8a2d\u90e8\u80c6\u632f\u8fb2\u696d\u4e8b\u52d9\u6240","boring_xml_url":47,"boring_view_url":1,"soilmap_view_url":null,"soiltest_xml_url":47,"soiltest_view_url":47},{"id":470241,"code":"NGIC202103733-0008","latitude":"35.097097805556","longitude":"137.56606116667","source_code":"","project_name":"","survey_name":"\u4ee4\u548c3\u5e74\u5ea6\u8a2d\u697d\u30c0\u30e0\u8caf\u6c34\u6c60\u5730\u8cea\u8abf\u67fb\u696d\u52d9","client_name":"\u56fd\u571f\u4ea4\u901a\u7701\u4e2d\u90e8\u5730\u65b9\u6574\u5099\u5c40\u8a2d\u697d\u30c0\u30e0\u5de5\u4e8b\u4e8b\u52d9\u6240","boring_xml_url":47,"boring_view_url":1,"soilmap_view_url":null,"soiltest_xml_url":0,"soiltest_view_url":0},{"id":470240,"code":"NGIC202103733-0007","latitude":"35.097512305556","longitude":"137.56550247222","source_code":"","project_name":"","survey_name":"\u4ee4\u548c3\u5e74\u5ea6\u8a2d\u697d\u30c0\u30e0\u8caf\u6c34\u6c60\u5730\u8cea\u8abf\u67fb\u696d\u52d9","client_name":"\u56fd\u571f\u4ea4\u901a\u7701\u4e2d\u90e8\u5730\u65b9\u6574\u5099\u5c40\u8a2d\u697d\u30c0\u30e0\u5de5\u4e8b\u4e8b\u52d9\u6240","boring_xml_url":47,"boring_view_url":1,"soilmap_view_url":null,"soiltest_xml_url":0,"soiltest_view_url":0},{"id":470239,"code":"NGIC202103733-0006","latitude":"35.097301138889","longitude":"137.56569772222","source_code":"","project_name":"","survey_name":"\u4ee4\u548c3\u5e74\u5ea6\u8a2d\u697d\u30c0\u30e0\u8caf\u6c34\u6c60\u5730\u8cea\u8abf\u67fb\u696d\u52d9","client_name":"\u56fd\u571f\u4ea4\u901a\u7701\u4e2d\u90e8\u5730\u65b9\u6574\u5099\u5c40\u8a2d\u697d\u30c0\u30e0\u5de5\u4e8b\u4e8b\u52d9\u6240","boring_xml_url":47,"boring_view_url":1,"soilmap_view_url":null,"soiltest_xml_url":0,"soiltest_view_url":0},{"id":470238,"code":"NGIC202103733-0005","latitude":"35.093916388889","longitude":"137.56067638889","source_code":"","project_name":"","survey_name":"\u4ee4\u548c3\u5e74\u5ea6\u8a2d\u697d\u30c0\u30e0\u8caf\u6c34\u6c60\u5730\u8cea\u8abf\u67fb\u696d\u52d9","client_name":"\u56fd\u571f\u4ea4\u901a\u7701\u4e2d\u90e8\u5730\u65b9\u6574\u5099\u5c40\u8a2d\u697d\u30c0\u30e0\u5de5\u4e8b\u4e8b\u52d9\u6240","boring_xml_url":47,"boring_view_url":1,"soilmap_view_url":null,"soiltest_xml_url":0,"soiltest_view_url":0},{"id":470237,"code":"NGIC202103733-0004","latitude":"35.094375277778","longitude":"137.56079222222","source_code":"","project_name":"","survey_name":"\u4ee4\u548c3\u5e74\u5ea6\u8a2d\u697d\u30c0\u30e0\u8caf\u6c34\u6c60\u5730\u8cea\u8abf\u67fb\u696d\u52d9","client_name":"\u56fd\u571f\u4ea4\u901a\u7701\u4e2d\u90e8\u5730\u65b9\u6574\u5099\u5c40\u8a2d\u697d\u30c0\u30e0\u5de5\u4e8b\u4e8b\u52d9\u6240","boring_xml_url":47,"boring_view_url":1,"soilmap_view_url":null,"soiltest_xml_url":0,"soiltest_view_url":0},{"id":470236,"code":"NGIC202103733-0003","latitude":"35.088344472222","longitude":"137.55934658333","source_code":"","project_name":"","survey_name":"\u4ee4\u548c3\u5e74\u5ea6\u8a2d\u697d\u30c0\u30e0\u8caf\u6c34\u6c60\u5730\u8cea\u8abf\u67fb\u696d\u52d9","client_name":"\u56fd\u571f\u4ea4\u901a\u7701\u4e2d\u90e8\u5730\u65b9\u6574\u5099\u5c40\u8a2d\u697d\u30c0\u30e0\u5de5\u4e8b\u4e8b\u52d9\u6240","boring_xml_url":47,"boring_view_url":1,"soilmap_view_url":null,"soiltest_xml_url":0,"soiltest_view_url":0},{"id":470235,"code":"NGIC202103733-0002","latitude":"35.088343638889","longitude":"137.55881305556","source_code":"","project_name":"","survey_name":"\u4ee4\u548c3\u5e74\u5ea6\u8a2d\u697d\u30c0\u30e0\u8caf\u6c34\u6c60\u5730\u8cea\u8abf\u67fb\u696d\u52d9","client_name":"\u56fd\u571f\u4ea4\u901a\u7701\u4e2d\u90e8\u5730\u65b9\u6574\u5099\u5c40\u8a2d\u697d\u30c0\u30e0\u5de5\u4e8b\u4e8b\u52d9\u6240","boring_xml_url":47,"boring_view_url":1,"soilmap_view_url":null,"soiltest_xml_url":0,"soiltest_view_url":0},{"id":470234,"code":"NGIC202103733-0001","latitude":"35.088356611111","longitude":"137.55905416667","source_code":"","project_name":"","survey_name":"\u4ee4\u548c3\u5e74\u5ea6\u8a2d\u697d\u30c0\u30e0\u8caf\u6c34\u6c60\u5730\u8cea\u8abf\u67fb\u696d\u52d9","client_name":"\u56fd\u571f\u4ea4\u901a\u7701\u4e2d\u90e8\u5730\u65b9\u6574\u5099\u5c40\u8a2d\u697d\u30c0\u30e0\u5de5\u4e8b\u4e8b\u52d9\u6240","boring_xml_url":47,"boring_view_url":1,"soilmap_view_url":null,"soiltest_xml_url":0,"soiltest_view_url":0},{"id":470207,"code":"NGIC202103531-0003","latitude":"31.9423","longitude":"131.140325","source_code":"","project_name":"","survey_name":"\u4ee4\u548c3\u5e74\u5ea6\u5ca9\u702c\u30c0\u30e0\u518d\u751f\u5468\u8fba\u5730\u8cea\u8abf\u67fb\uff08\u305d\u306e3\uff09\u696d\u52d9","client_name":"\u56fd\u571f\u4ea4\u901a\u7701\u4e5d\u5dde\u5730\u65b9\u6574\u5099\u5c40\u5bae\u5d0e\u6cb3\u5ddd\u56fd\u9053\u4e8b\u52d9\u6240","boring_xml_url":47,"boring_view_url":1,"soilmap_view_url":null,"soiltest_xml_url":0,"soiltest_view_url":0},{"id":470206,"code":"NGIC202103531-0002","latitude":"31.942197222222","longitude":"131.14031388889","source_code":"","project_name":"","survey_name":"\u4ee4\u548c3\u5e74\u5ea6\u5ca9\u702c\u30c0\u30e0\u518d\u751f\u5468\u8fba\u5730\u8cea\u8abf\u67fb\uff08\u305d\u306e3\uff09\u696d\u52d9","client_name":"\u56fd\u571f\u4ea4\u901a\u7701\u4e5d\u5dde\u5730\u65b9\u6574\u5099\u5c40\u5bae\u5d0e\u6cb3\u5ddd\u56fd\u9053\u4e8b\u52d9\u6240","boring_xml_url":47,"boring_view_url":1,"soilmap_view_url":null,"soiltest_xml_url":0,"soiltest_view_url":0},{"id":470205,"code":"NGIC202103531-0001","latitude":"31.942325","longitude":"131.140325","source_code":"","project_name":"","survey_name":"\u4ee4\u548c3\u5e74\u5ea6\u5ca9\u702c\u30c0\u30e0\u518d\u751f\u5468\u8fba\u5730\u8cea\u8abf\u67fb\uff08\u305d\u306e3\uff09\u696d\u52d9","client_name":"\u56fd\u571f\u4ea4\u901a\u7701\u4e5d\u5dde\u5730\u65b9\u6574\u5099\u5c40\u5bae\u5d0e\u6cb3\u5ddd\u56fd\u9053\u4e8b\u52d9\u6240","boring_xml_url":47,"boring_view_url":1,"soilmap_view_url":null,"soiltest_xml_url":0,"soiltest_view_url":0},{"id":470184,"code":"NGIC202103704-0013","latitude":"34.607685444444","longitude":"133.89890858333","source_code":"","project_name":"","survey_name":"\u4ee4\u548c3\u5e74\u5ea6\u7389\u5cf6\u7b20\u5ca1\u9053\u8def\u5916\u5730\u8cea\u8abf\u67fb\u696d\u52d9","client_name":"\u56fd\u571f\u4ea4\u901a\u7701\u4e2d\u56fd\u5730\u65b9\u6574\u5099\u5c40\u5ca1\u5c71\u56fd\u9053\u4e8b\u52d9\u6240","boring_xml_url":47,"boring_view_url":1,"soilmap_view_url":null,"soiltest_xml_url":0,"soiltest_view_url":0},{"id":470183,"code":"NGIC202103704-0012","latitude":"34.608241805556","longitude":"133.89750452778","source_code":"","project_name":"","survey_name":"\u4ee4\u548c3\u5e74\u5ea6\u7389\u5cf6\u7b20\u5ca1\u9053\u8def\u5916\u5730\u8cea\u8abf\u67fb\u696d\u52d9","client_name":"\u56fd\u571f\u4ea4\u901a\u7701\u4e2d\u56fd\u5730\u65b9\u6574\u5099\u5c40\u5ca1\u5c71\u56fd\u9053\u4e8b\u52d9\u6240","boring_xml_url":47,"boring_view_url":1,"soilmap_view_url":null,"soiltest_xml_url":0,"soiltest_view_url":0},{"id":470182,"code":"NGIC202103704-0011","latitude":"34.610502833333","longitude":"133.89458244444","source_code":"","project_name":"","survey_name":"\u4ee4\u548c3\u5e74\u5ea6\u7389\u5cf6\u7b20\u5ca1\u9053\u8def\u5916\u5730\u8cea\u8abf\u67fb\u696d\u52d9","client_name":"\u56fd\u571f\u4ea4\u901a\u7701\u4e2d\u56fd\u5730\u65b9\u6574\u5099\u5c40\u5ca1\u5c71\u56fd\u9053\u4e8b\u52d9\u6240","boring_xml_url":47,"boring_view_url":1,"soilmap_view_url":null,"soiltest_xml_url":0,"soiltest_view_url":0},{"id":470181,"code":"NGIC202103704-0010","latitude":"34.469952333333","longitude":"133.48138661111","source_code":"","project_name":"","survey_name":"\u4ee4\u548c3\u5e74\u5ea6\u7389\u5cf6\u7b20\u5ca1\u9053\u8def\u5916\u5730\u8cea\u8abf\u67fb\u696d\u52d9","client_name":"\u56fd\u571f\u4ea4\u901a\u7701\u4e2d\u56fd\u5730\u65b9\u6574\u5099\u5c40\u5ca1\u5c71\u56fd\u9053\u4e8b\u52d9\u6240","boring_xml_url":47,"boring_view_url":1,"soilmap_view_url":null,"soiltest_xml_url":47,"soiltest_view_url":47},{"id":470180,"code":"NGIC202103704-0009","latitude":"34.466625055556","longitude":"133.48615766667","source_code":"","project_name":"","survey_name":"\u4ee4\u548c3\u5e74\u5ea6\u7389\u5cf6\u7b20\u5ca1\u9053\u8def\u5916\u5730\u8cea\u8abf\u67fb\u696d\u52d9","client_name":"\u56fd\u571f\u4ea4\u901a\u7701\u4e2d\u56fd\u5730\u65b9\u6574\u5099\u5c40\u5ca1\u5c71\u56fd\u9053\u4e8b\u52d9\u6240","boring_xml_url":47,"boring_view_url":1,"soilmap_view_url":null,"soiltest_xml_url":47,"soiltest_view_url":47},{"id":470179,"code":"NGIC202103704-0008","latitude":"34.46648475","longitude":"133.4864245","source_code":"","project_name":"","survey_name":"\u4ee4\u548c3\u5e74\u5ea6\u7389\u5cf6\u7b20\u5ca1\u9053\u8def\u5916\u5730\u8cea\u8abf\u67fb\u696d\u52d9","client_name":"\u56fd\u571f\u4ea4\u901a\u7701\u4e2d\u56fd\u5730\u65b9\u6574\u5099\u5c40\u5ca1\u5c71\u56fd\u9053\u4e8b\u52d9\u6240","boring_xml_url":47,"boring_view_url":1,"soilmap_view_url":null,"soiltest_xml_url":47,"soiltest_view_url":47},{"id":470178,"code":"NGIC202103704-0007","latitude":"34.466406027778","longitude":"133.48681811111","source_code":"","project_name":"","survey_name":"\u4ee4\u548c3\u5e74\u5ea6\u7389\u5cf6\u7b20\u5ca1\u9053\u8def\u5916\u5730\u8cea\u8abf\u67fb\u696d\u52d9","client_name":"\u56fd\u571f\u4ea4\u901a\u7701\u4e2d\u56fd\u5730\u65b9\u6574\u5099\u5c40\u5ca1\u5c71\u56fd\u9053\u4e8b\u52d9\u6240","boring_xml_url":47,"boring_view_url":1,"soilmap_view_url":null,"soiltest_xml_url":47,"soiltest_view_url":47},{"id":470177,"code":"NGIC202103704-0006","latitude":"34.466354277778","longitude":"133.48714063889","source_code":"","project_name":"","survey_name":"\u4ee4\u548c3\u5e74\u5ea6\u7389\u5cf6\u7b20\u5ca1\u9053\u8def\u5916\u5730\u8cea\u8abf\u67fb\u696d\u52d9","client_name":"\u56fd\u571f\u4ea4\u901a\u7701\u4e2d\u56fd\u5730\u65b9\u6574\u5099\u5c40\u5ca1\u5c71\u56fd\u9053\u4e8b\u52d9\u6240","boring_xml_url":47,"boring_view_url":1,"soilmap_view_url":null,"soiltest_xml_url":47,"soiltest_view_url":47},{"id":470176,"code":"NGIC202103704-0005","latitude":"34.498924555556","longitude":"133.54517791667","source_code":"","project_name":"","survey_name":"\u4ee4\u548c3\u5e74\u5ea6\u7389\u5cf6\u7b20\u5ca1\u9053\u8def\u5916\u5730\u8cea\u8abf\u67fb\u696d\u52d9","client_name":"\u56fd\u571f\u4ea4\u901a\u7701\u4e2d\u56fd\u5730\u65b9\u6574\u5099\u5c40\u5ca1\u5c71\u56fd\u9053\u4e8b\u52d9\u6240","boring_xml_url":47,"boring_view_url":1,"soilmap_view_url":null,"soiltest_xml_url":0,"soiltest_view_url":0},{"id":470175,"code":"NGIC202103704-0004","latitude":"34.499116277778","longitude":"133.54420013889","source_code":"","project_name":"","survey_name":"\u4ee4\u548c3\u5e74\u5ea6\u7389\u5cf6\u7b20\u5ca1\u9053\u8def\u5916\u5730\u8cea\u8abf\u67fb\u696d\u52d9","client_name":"\u56fd\u571f\u4ea4\u901a\u7701\u4e2d\u56fd\u5730\u65b9\u6574\u5099\u5c40\u5ca1\u5c71\u56fd\u9053\u4e8b\u52d9\u6240","boring_xml_url":47,"boring_view_url":1,"soilmap_view_url":null,"soiltest_xml_url":0,"soiltest_view_url":0},{"id":470174,"code":"NGIC202103704-0003","latitude":"34.499140111111","longitude":"133.54438491667","source_code":"","project_name":"","survey_name":"\u4ee4\u548c3\u5e74\u5ea6\u7389\u5cf6\u7b20\u5ca1\u9053\u8def\u5916\u5730\u8cea\u8abf\u67fb\u696d\u52d9","client_name":"\u56fd\u571f\u4ea4\u901a\u7701\u4e2d\u56fd\u5730\u65b9\u6574\u5099\u5c40\u5ca1\u5c71\u56fd\u9053\u4e8b\u52d9\u6240","boring_xml_url":47,"boring_view_url":1,"soilmap_view_url":null,"soiltest_xml_url":0,"soiltest_view_url":0},{"id":470173,"code":"NGIC202103704-0002","latitude":"34.499105277778","longitude":"133.54583558333","source_code":"","project_name":"","survey_name":"\u4ee4\u548c3\u5e74\u5ea6\u7389\u5cf6\u7b20\u5ca1\u9053\u8def\u5916\u5730\u8cea\u8abf\u67fb\u696d\u52d9","client_name":"\u56fd\u571f\u4ea4\u901a\u7701\u4e2d\u56fd\u5730\u65b9\u6574\u5099\u5c40\u5ca1\u5c71\u56fd\u9053\u4e8b\u52d9\u6240","boring_xml_url":47,"boring_view_url":1,"soilmap_view_url":null,"soiltest_xml_url":0,"soiltest_view_url":0},{"id":470172,"code":"NGIC202103704-0001","latitude":"34.499531916667","longitude":"133.54550061111","source_code":"","project_name":"","survey_name":"\u4ee4\u548c3\u5e74\u5ea6\u7389\u5cf6\u7b20\u5ca1\u9053\u8def\u5916\u5730\u8cea\u8abf\u67fb\u696d\u52d9","client_name":"\u56fd\u571f\u4ea4\u901a\u7701\u4e2d\u56fd\u5730\u65b9\u6574\u5099\u5c40\u5ca1\u5c71\u56fd\u9053\u4e8b\u52d9\u6240","boring_xml_url":47,"boring_view_url":1,"soilmap_view_url":null,"soiltest_xml_url":0,"soiltest_view_url":0}]}}