{"header":{"xyz":{"source":[],"mosaic":false},"page":1812,"raw":{"soiltest_result":"0","bbox":"57.598333,109.544722,1.933333,163.806111","page":"1812"},"conditions":{"soiltest_result":0,"north":57.598333,"west":109.544722,"south":1.933333,"east":163.806111},"success":true,"message":""},"data":{"meta":{"total":212844,"page":1812,"pages":7095,"count":30},"values":[{"id":469784,"code":"NGIC202103616-0003","latitude":"33.636161111111","longitude":"134.36842222222","source_code":"","project_name":"","survey_name":"\u4ee4\u548c3\u5e74\u5ea6\u6d77\u5357\u5730\u533a\u5916\u5730\u8cea\u8abf\u67fb\u696d\u52d9","client_name":"\u56fd\u571f\u4ea4\u901a\u7701\u56db\u56fd\u5730\u65b9\u6574\u5099\u5c40\u5fb3\u5cf6\u6cb3\u5ddd\u56fd\u9053\u4e8b\u52d9\u6240","boring_xml_url":47,"boring_view_url":1,"soilmap_view_url":null,"soiltest_xml_url":47,"soiltest_view_url":47},{"id":469783,"code":"NGIC202103616-0002","latitude":"33.662122222222","longitude":"134.40248055556","source_code":"","project_name":"","survey_name":"\u4ee4\u548c3\u5e74\u5ea6\u6d77\u5357\u5730\u533a\u5916\u5730\u8cea\u8abf\u67fb\u696d\u52d9","client_name":"\u56fd\u571f\u4ea4\u901a\u7701\u56db\u56fd\u5730\u65b9\u6574\u5099\u5c40\u5fb3\u5cf6\u6cb3\u5ddd\u56fd\u9053\u4e8b\u52d9\u6240","boring_xml_url":47,"boring_view_url":1,"soilmap_view_url":null,"soiltest_xml_url":47,"soiltest_view_url":47},{"id":469782,"code":"NGIC202103616-0001","latitude":"33.662113888889","longitude":"134.40248055556","source_code":"","project_name":"","survey_name":"\u4ee4\u548c3\u5e74\u5ea6\u6d77\u5357\u5730\u533a\u5916\u5730\u8cea\u8abf\u67fb\u696d\u52d9","client_name":"\u56fd\u571f\u4ea4\u901a\u7701\u56db\u56fd\u5730\u65b9\u6574\u5099\u5c40\u5fb3\u5cf6\u6cb3\u5ddd\u56fd\u9053\u4e8b\u52d9\u6240","boring_xml_url":47,"boring_view_url":1,"soilmap_view_url":null,"soiltest_xml_url":47,"soiltest_view_url":47},{"id":469779,"code":"NGIC202103377-0005","latitude":"42.684463888889","longitude":"143.06301111111","source_code":"","project_name":"\u56fd\u55b6\u304b\u3093\u304c\u3044\u6392\u6c34\u4e8b\u696d","survey_name":"\u82bd\u5ba4\u5ddd\u897f\u5730\u533a\u5ca9\u5185\u5e79\u7dda\u7528\u6c34\u8def\u5ca9\u5185\u5ddd\u5de5\u533a\u5b9f\u65bd\u8a2d\u8a08\u7b49\u696d\u52d9","client_name":"\u56fd\u571f\u4ea4\u901a\u7701\u5317\u6d77\u9053\u958b\u767a\u5c40\u5e2f\u5e83\u958b\u767a\u5efa\u8a2d\u90e8\u5e2f\u5e83\u8fb2\u696d\u4e8b\u52d9\u6240","boring_xml_url":47,"boring_view_url":1,"soilmap_view_url":null,"soiltest_xml_url":47,"soiltest_view_url":47},{"id":469778,"code":"NGIC202103377-0004","latitude":"42.691580555556","longitude":"143.06648055556","source_code":"","project_name":"\u56fd\u55b6\u304b\u3093\u304c\u3044\u6392\u6c34\u4e8b\u696d","survey_name":"\u82bd\u5ba4\u5ddd\u897f\u5730\u533a\u5ca9\u5185\u5e79\u7dda\u7528\u6c34\u8def\u5ca9\u5185\u5ddd\u5de5\u533a\u5b9f\u65bd\u8a2d\u8a08\u7b49\u696d\u52d9","client_name":"\u56fd\u571f\u4ea4\u901a\u7701\u5317\u6d77\u9053\u958b\u767a\u5c40\u5e2f\u5e83\u958b\u767a\u5efa\u8a2d\u90e8\u5e2f\u5e83\u8fb2\u696d\u4e8b\u52d9\u6240","boring_xml_url":47,"boring_view_url":1,"soilmap_view_url":null,"soiltest_xml_url":47,"soiltest_view_url":47},{"id":469777,"code":"NGIC202103377-0003","latitude":"42.692438888889","longitude":"143.06692777778","source_code":"","project_name":"\u56fd\u55b6\u304b\u3093\u304c\u3044\u6392\u6c34\u4e8b\u696d","survey_name":"\u82bd\u5ba4\u5ddd\u897f\u5730\u533a\u5ca9\u5185\u5e79\u7dda\u7528\u6c34\u8def\u5ca9\u5185\u5ddd\u5de5\u533a\u5b9f\u65bd\u8a2d\u8a08\u7b49\u696d\u52d9","client_name":"\u56fd\u571f\u4ea4\u901a\u7701\u5317\u6d77\u9053\u958b\u767a\u5c40\u5e2f\u5e83\u958b\u767a\u5efa\u8a2d\u90e8\u5e2f\u5e83\u8fb2\u696d\u4e8b\u52d9\u6240","boring_xml_url":47,"boring_view_url":1,"soilmap_view_url":null,"soiltest_xml_url":47,"soiltest_view_url":47},{"id":469776,"code":"NGIC202103377-0002","latitude":"42.692680555556","longitude":"143.06454166667","source_code":"","project_name":"\u56fd\u55b6\u304b\u3093\u304c\u3044\u6392\u6c34\u4e8b\u696d","survey_name":"\u82bd\u5ba4\u5ddd\u897f\u5730\u533a\u5ca9\u5185\u5e79\u7dda\u7528\u6c34\u8def\u5ca9\u5185\u5ddd\u5de5\u533a\u5b9f\u65bd\u8a2d\u8a08\u7b49\u696d\u52d9","client_name":"\u56fd\u571f\u4ea4\u901a\u7701\u5317\u6d77\u9053\u958b\u767a\u5c40\u5e2f\u5e83\u958b\u767a\u5efa\u8a2d\u90e8\u5e2f\u5e83\u8fb2\u696d\u4e8b\u52d9\u6240","boring_xml_url":47,"boring_view_url":1,"soilmap_view_url":null,"soiltest_xml_url":47,"soiltest_view_url":47},{"id":469775,"code":"NGIC202103377-0001","latitude":"42.693347222222","longitude":"143.062375","source_code":"","project_name":"\u56fd\u55b6\u304b\u3093\u304c\u3044\u6392\u6c34\u4e8b\u696d","survey_name":"\u82bd\u5ba4\u5ddd\u897f\u5730\u533a\u5ca9\u5185\u5e79\u7dda\u7528\u6c34\u8def\u5ca9\u5185\u5ddd\u5de5\u533a\u5b9f\u65bd\u8a2d\u8a08\u7b49\u696d\u52d9","client_name":"\u56fd\u571f\u4ea4\u901a\u7701\u5317\u6d77\u9053\u958b\u767a\u5c40\u5e2f\u5e83\u958b\u767a\u5efa\u8a2d\u90e8\u5e2f\u5e83\u8fb2\u696d\u4e8b\u52d9\u6240","boring_xml_url":47,"boring_view_url":1,"soilmap_view_url":null,"soiltest_xml_url":47,"soiltest_view_url":47},{"id":469721,"code":"NGIC202103557-0002","latitude":"41.441230555556","longitude":"140.21351111111","source_code":"","project_name":"\u4e00\u822c\u56fd\u9053228\u53f7 \u798f\u5cf6\u753a \u677e\u6d66\u5730\u8cea\u8abf\u67fb\u696d\u52d9","survey_name":"\u4e00\u822c\u56fd\u9053228\u53f7 \u798f\u5cf6\u753a \u677e\u6d66\u5730\u8cea\u8abf\u67fb\u696d\u52d9","client_name":"\u56fd\u571f\u4ea4\u901a\u7701\u5317\u6d77\u9053\u958b\u767a\u5c40\u51fd\u9928\u958b\u767a\u5efa\u8a2d\u90e8\u672c\u90e8","boring_xml_url":47,"boring_view_url":1,"soilmap_view_url":null,"soiltest_xml_url":0,"soiltest_view_url":0},{"id":469720,"code":"NGIC202103557-0001","latitude":"41.418986111111","longitude":"140.21741666667","source_code":"","project_name":"\u4e00\u822c\u56fd\u9053228\u53f7 \u798f\u5cf6\u753a \u677e\u6d66\u5730\u8cea\u8abf\u67fb\u696d\u52d9","survey_name":"\u4e00\u822c\u56fd\u9053228\u53f7 \u798f\u5cf6\u753a \u677e\u6d66\u5730\u8cea\u8abf\u67fb\u696d\u52d9","client_name":"\u56fd\u571f\u4ea4\u901a\u7701\u5317\u6d77\u9053\u958b\u767a\u5c40\u51fd\u9928\u958b\u767a\u5efa\u8a2d\u90e8\u672c\u90e8","boring_xml_url":47,"boring_view_url":1,"soilmap_view_url":null,"soiltest_xml_url":0,"soiltest_view_url":0},{"id":469715,"code":"NGIC202103602-0002","latitude":"43.668447222222","longitude":"142.43323611111","source_code":"","project_name":"\u56fd\u55b6\u7dca\u6025\u8fb2\u5730\u518d\u7de8\u6574\u5099\u4e8b\u696d\u65ed\u6771\u5730\u533a","survey_name":"\u4ee4\u548c3\u5e74\u5ea6 \u65ed\u6771\u5730\u533a 72\u8fb2\u533a\u533a\u753b\u6574\u7406\u8a2d\u8a08\u7b49\u696d\u52d9","client_name":"\u56fd\u571f\u4ea4\u901a\u7701\u5317\u6d77\u9053\u958b\u767a\u5c40\u65ed\u5ddd\u958b\u767a\u5efa\u8a2d\u90e8\u65ed\u5ddd\u8fb2\u696d\u4e8b\u52d9\u6240","boring_xml_url":47,"boring_view_url":1,"soilmap_view_url":null,"soiltest_xml_url":47,"soiltest_view_url":47},{"id":469714,"code":"NGIC202103602-0001","latitude":"43.670527777778","longitude":"142.43556111111","source_code":"","project_name":"\u56fd\u55b6\u7dca\u6025\u8fb2\u5730\u518d\u7de8\u6574\u5099\u4e8b\u696d\u65ed\u6771\u5730\u533a","survey_name":"\u4ee4\u548c3\u5e74\u5ea6 \u65ed\u6771\u5730\u533a 72\u8fb2\u533a\u533a\u753b\u6574\u7406\u8a2d\u8a08\u7b49\u696d\u52d9","client_name":"\u56fd\u571f\u4ea4\u901a\u7701\u5317\u6d77\u9053\u958b\u767a\u5c40\u65ed\u5ddd\u958b\u767a\u5efa\u8a2d\u90e8\u65ed\u5ddd\u8fb2\u696d\u4e8b\u52d9\u6240","boring_xml_url":47,"boring_view_url":1,"soilmap_view_url":null,"soiltest_xml_url":47,"soiltest_view_url":47},{"id":469706,"code":"NGIC202103297-0006","latitude":"34.414838666667","longitude":"132.73531166667","source_code":"","project_name":"","survey_name":"\u4ee4\u548c3\u5e74\u5ea6\u5e83\u5cf6\u56fd\u9053\u4e8b\u52d9\u6240\u7ba1\u5185\u4ea4\u901a\u5b89\u5168\u8a2d\u8a08\u4ed6\u696d\u52d9","client_name":"\u56fd\u571f\u4ea4\u901a\u7701\u4e2d\u56fd\u5730\u65b9\u6574\u5099\u5c40\u5e83\u5cf6\u56fd\u9053\u4e8b\u52d9\u6240","boring_xml_url":47,"boring_view_url":1,"soilmap_view_url":null,"soiltest_xml_url":0,"soiltest_view_url":0},{"id":469705,"code":"NGIC202103297-0005","latitude":"34.414761777778","longitude":"132.73525488889","source_code":"","project_name":"","survey_name":"\u4ee4\u548c3\u5e74\u5ea6\u5e83\u5cf6\u56fd\u9053\u4e8b\u52d9\u6240\u7ba1\u5185\u4ea4\u901a\u5b89\u5168\u8a2d\u8a08\u4ed6\u696d\u52d9","client_name":"\u56fd\u571f\u4ea4\u901a\u7701\u4e2d\u56fd\u5730\u65b9\u6574\u5099\u5c40\u5e83\u5cf6\u56fd\u9053\u4e8b\u52d9\u6240","boring_xml_url":47,"boring_view_url":1,"soilmap_view_url":null,"soiltest_xml_url":0,"soiltest_view_url":0},{"id":469704,"code":"NGIC202103297-0004","latitude":"34.414942305556","longitude":"132.73510055556","source_code":"","project_name":"","survey_name":"\u4ee4\u548c3\u5e74\u5ea6\u5e83\u5cf6\u56fd\u9053\u4e8b\u52d9\u6240\u7ba1\u5185\u4ea4\u901a\u5b89\u5168\u8a2d\u8a08\u4ed6\u696d\u52d9","client_name":"\u56fd\u571f\u4ea4\u901a\u7701\u4e2d\u56fd\u5730\u65b9\u6574\u5099\u5c40\u5e83\u5cf6\u56fd\u9053\u4e8b\u52d9\u6240","boring_xml_url":47,"boring_view_url":1,"soilmap_view_url":null,"soiltest_xml_url":0,"soiltest_view_url":0},{"id":469703,"code":"NGIC202103297-0003","latitude":"34.414728388889","longitude":"132.735525","source_code":"","project_name":"","survey_name":"\u4ee4\u548c3\u5e74\u5ea6\u5e83\u5cf6\u56fd\u9053\u4e8b\u52d9\u6240\u7ba1\u5185\u4ea4\u901a\u5b89\u5168\u8a2d\u8a08\u4ed6\u696d\u52d9","client_name":"\u56fd\u571f\u4ea4\u901a\u7701\u4e2d\u56fd\u5730\u65b9\u6574\u5099\u5c40\u5e83\u5cf6\u56fd\u9053\u4e8b\u52d9\u6240","boring_xml_url":47,"boring_view_url":1,"soilmap_view_url":null,"soiltest_xml_url":0,"soiltest_view_url":0},{"id":469702,"code":"NGIC202103297-0002","latitude":"34.414875527778","longitude":"132.73505441667","source_code":"","project_name":"","survey_name":"\u4ee4\u548c3\u5e74\u5ea6\u5e83\u5cf6\u56fd\u9053\u4e8b\u52d9\u6240\u7ba1\u5185\u4ea4\u901a\u5b89\u5168\u8a2d\u8a08\u4ed6\u696d\u52d9","client_name":"\u56fd\u571f\u4ea4\u901a\u7701\u4e2d\u56fd\u5730\u65b9\u6574\u5099\u5c40\u5e83\u5cf6\u56fd\u9053\u4e8b\u52d9\u6240","boring_xml_url":47,"boring_view_url":1,"soilmap_view_url":null,"soiltest_xml_url":0,"soiltest_view_url":0},{"id":469701,"code":"NGIC202103297-0001","latitude":"34.414653222222","longitude":"132.73546494444","source_code":"","project_name":"","survey_name":"\u4ee4\u548c3\u5e74\u5ea6\u5e83\u5cf6\u56fd\u9053\u4e8b\u52d9\u6240\u7ba1\u5185\u4ea4\u901a\u5b89\u5168\u8a2d\u8a08\u4ed6\u696d\u52d9","client_name":"\u56fd\u571f\u4ea4\u901a\u7701\u4e2d\u56fd\u5730\u65b9\u6574\u5099\u5c40\u5e83\u5cf6\u56fd\u9053\u4e8b\u52d9\u6240","boring_xml_url":47,"boring_view_url":1,"soilmap_view_url":null,"soiltest_xml_url":0,"soiltest_view_url":0},{"id":469700,"code":"NGIC202103591-0002","latitude":"43.365960472222","longitude":"144.97942597222","source_code":"","project_name":"\u56fd\u55b6\u74b0\u5883\u4fdd\u5168\u578b\u304b\u3093\u304c\u3044\u6392\u6c34\u4e8b\u696d","survey_name":"\u5225\u6d77\u5317\u90e8\u5730\u533a\u5225\u914d6\u53f7\u7528\u6c34\u8def\u4e2d\u897f\u5225\u7b2c4\u5de5\u533a\u8a2d\u8a08\u7b49\u696d\u52d9","client_name":"\u56fd\u571f\u4ea4\u901a\u7701\u5317\u6d77\u9053\u958b\u767a\u5c40\u91e7\u8def\u958b\u767a\u5efa\u8a2d\u90e8\u3000\u6839\u5ba4\u8fb2\u696d\u4e8b\u52d9\u6240","boring_xml_url":47,"boring_view_url":1,"soilmap_view_url":null,"soiltest_xml_url":47,"soiltest_view_url":47},{"id":469699,"code":"NGIC202103591-0001","latitude":"43.366195083333","longitude":"144.97718888889","source_code":"","project_name":"\u56fd\u55b6\u74b0\u5883\u4fdd\u5168\u578b\u304b\u3093\u304c\u3044\u6392\u6c34\u4e8b\u696d","survey_name":"\u5225\u6d77\u5317\u90e8\u5730\u533a\u5225\u914d6\u53f7\u7528\u6c34\u8def\u4e2d\u897f\u5225\u7b2c4\u5de5\u533a\u8a2d\u8a08\u7b49\u696d\u52d9","client_name":"\u56fd\u571f\u4ea4\u901a\u7701\u5317\u6d77\u9053\u958b\u767a\u5c40\u91e7\u8def\u958b\u767a\u5efa\u8a2d\u90e8\u3000\u6839\u5ba4\u8fb2\u696d\u4e8b\u52d9\u6240","boring_xml_url":47,"boring_view_url":1,"soilmap_view_url":null,"soiltest_xml_url":47,"soiltest_view_url":47},{"id":469692,"code":"NGIC202103566-0006","latitude":"39.753175861111","longitude":"141.1468215","source_code":"","project_name":"\u4ee4\u548c3\u5e74\u5ea6 \u56db\u5341\u56db\u7530\u30c0\u30e0\u518d\u751f\u30c0\u30e0\u30b5\u30a4\u30c8\u53f3\u5cb8\u5730\u8cea\u8abf\u67fb","survey_name":"\u4ee4\u548c3\u5e74\u5ea6 \u56db\u5341\u56db\u7530\u30c0\u30e0\u518d\u751f\u30c0\u30e0\u30b5\u30a4\u30c8\u53f3\u5cb8\u5730\u8cea\u8abf\u67fb","client_name":"\u56fd\u571f\u4ea4\u901a\u7701\u6771\u5317\u5730\u65b9\u6574\u5099\u5c40\u5317\u4e0a\u5ddd\u30c0\u30e0\u7d71\u5408\u7ba1\u7406\u4e8b\u52d9\u6240","boring_xml_url":47,"boring_view_url":1,"soilmap_view_url":null,"soiltest_xml_url":47,"soiltest_view_url":47},{"id":469691,"code":"NGIC202103566-0005","latitude":"39.752969722222","longitude":"141.14658158333","source_code":"","project_name":"\u4ee4\u548c3\u5e74\u5ea6 \u56db\u5341\u56db\u7530\u30c0\u30e0\u518d\u751f\u30c0\u30e0\u30b5\u30a4\u30c8\u53f3\u5cb8\u5730\u8cea\u8abf\u67fb","survey_name":"\u4ee4\u548c3\u5e74\u5ea6 \u56db\u5341\u56db\u7530\u30c0\u30e0\u518d\u751f\u30c0\u30e0\u30b5\u30a4\u30c8\u53f3\u5cb8\u5730\u8cea\u8abf\u67fb","client_name":"\u56fd\u571f\u4ea4\u901a\u7701\u6771\u5317\u5730\u65b9\u6574\u5099\u5c40\u5317\u4e0a\u5ddd\u30c0\u30e0\u7d71\u5408\u7ba1\u7406\u4e8b\u52d9\u6240","boring_xml_url":47,"boring_view_url":1,"soilmap_view_url":null,"soiltest_xml_url":47,"soiltest_view_url":47},{"id":469690,"code":"NGIC202103566-0004","latitude":"39.752526527778","longitude":"141.14767561111","source_code":"","project_name":"\u4ee4\u548c3\u5e74\u5ea6 \u56db\u5341\u56db\u7530\u30c0\u30e0\u518d\u751f\u30c0\u30e0\u30b5\u30a4\u30c8\u53f3\u5cb8\u5730\u8cea\u8abf\u67fb","survey_name":"\u4ee4\u548c3\u5e74\u5ea6 \u56db\u5341\u56db\u7530\u30c0\u30e0\u518d\u751f\u30c0\u30e0\u30b5\u30a4\u30c8\u53f3\u5cb8\u5730\u8cea\u8abf\u67fb","client_name":"\u56fd\u571f\u4ea4\u901a\u7701\u6771\u5317\u5730\u65b9\u6574\u5099\u5c40\u5317\u4e0a\u5ddd\u30c0\u30e0\u7d71\u5408\u7ba1\u7406\u4e8b\u52d9\u6240","boring_xml_url":47,"boring_view_url":1,"soilmap_view_url":null,"soiltest_xml_url":0,"soiltest_view_url":0},{"id":469689,"code":"NGIC202103566-0003","latitude":"39.752499888889","longitude":"141.14798538889","source_code":"","project_name":"\u4ee4\u548c3\u5e74\u5ea6 \u56db\u5341\u56db\u7530\u30c0\u30e0\u518d\u751f\u30c0\u30e0\u30b5\u30a4\u30c8\u53f3\u5cb8\u5730\u8cea\u8abf\u67fb","survey_name":"\u4ee4\u548c3\u5e74\u5ea6 \u56db\u5341\u56db\u7530\u30c0\u30e0\u518d\u751f\u30c0\u30e0\u30b5\u30a4\u30c8\u53f3\u5cb8\u5730\u8cea\u8abf\u67fb","client_name":"\u56fd\u571f\u4ea4\u901a\u7701\u6771\u5317\u5730\u65b9\u6574\u5099\u5c40\u5317\u4e0a\u5ddd\u30c0\u30e0\u7d71\u5408\u7ba1\u7406\u4e8b\u52d9\u6240","boring_xml_url":47,"boring_view_url":1,"soilmap_view_url":null,"soiltest_xml_url":0,"soiltest_view_url":0},{"id":469688,"code":"NGIC202103566-0002","latitude":"39.752850305556","longitude":"141.14780041667","source_code":"","project_name":"\u4ee4\u548c3\u5e74\u5ea6 \u56db\u5341\u56db\u7530\u30c0\u30e0\u518d\u751f\u30c0\u30e0\u30b5\u30a4\u30c8\u53f3\u5cb8\u5730\u8cea\u8abf\u67fb","survey_name":"\u4ee4\u548c3\u5e74\u5ea6 \u56db\u5341\u56db\u7530\u30c0\u30e0\u518d\u751f\u30c0\u30e0\u30b5\u30a4\u30c8\u53f3\u5cb8\u5730\u8cea\u8abf\u67fb","client_name":"\u56fd\u571f\u4ea4\u901a\u7701\u6771\u5317\u5730\u65b9\u6574\u5099\u5c40\u5317\u4e0a\u5ddd\u30c0\u30e0\u7d71\u5408\u7ba1\u7406\u4e8b\u52d9\u6240","boring_xml_url":47,"boring_view_url":1,"soilmap_view_url":null,"soiltest_xml_url":0,"soiltest_view_url":0},{"id":469687,"code":"NGIC202103566-0001","latitude":"39.752826194444","longitude":"141.14836052778","source_code":"","project_name":"\u4ee4\u548c3\u5e74\u5ea6 \u56db\u5341\u56db\u7530\u30c0\u30e0\u518d\u751f\u30c0\u30e0\u30b5\u30a4\u30c8\u53f3\u5cb8\u5730\u8cea\u8abf\u67fb","survey_name":"\u4ee4\u548c3\u5e74\u5ea6 \u56db\u5341\u56db\u7530\u30c0\u30e0\u518d\u751f\u30c0\u30e0\u30b5\u30a4\u30c8\u53f3\u5cb8\u5730\u8cea\u8abf\u67fb","client_name":"\u56fd\u571f\u4ea4\u901a\u7701\u6771\u5317\u5730\u65b9\u6574\u5099\u5c40\u5317\u4e0a\u5ddd\u30c0\u30e0\u7d71\u5408\u7ba1\u7406\u4e8b\u52d9\u6240","boring_xml_url":47,"boring_view_url":1,"soilmap_view_url":null,"soiltest_xml_url":0,"soiltest_view_url":0},{"id":469686,"code":"NGIC202103584-0004","latitude":"35.093960944444","longitude":"138.86506513889","source_code":"","project_name":"","survey_name":"\u4ee4\u548c3\u5e74\u5ea6\u9759\u5ca1\u5730\u65b9\u30fb\u5bb6\u5ead\u88c1\u5224\u6240\u6cbc\u6d25\u652f\u90e8\u6577\u5730\u8abf\u67fb\u696d\u52d9","client_name":"\u56fd\u571f\u4ea4\u901a\u7701\u4e2d\u90e8\u5730\u65b9\u6574\u5099\u5c40\u9759\u5ca1\u55b6\u7e55\u4e8b\u52d9\u6240","boring_xml_url":47,"boring_view_url":1,"soilmap_view_url":null,"soiltest_xml_url":47,"soiltest_view_url":47},{"id":469685,"code":"NGIC202103584-0003","latitude":"35.094355861111","longitude":"138.86499827778","source_code":"","project_name":"","survey_name":"\u4ee4\u548c3\u5e74\u5ea6\u9759\u5ca1\u5730\u65b9\u30fb\u5bb6\u5ead\u88c1\u5224\u6240\u6cbc\u6d25\u652f\u90e8\u6577\u5730\u8abf\u67fb\u696d\u52d9","client_name":"\u56fd\u571f\u4ea4\u901a\u7701\u4e2d\u90e8\u5730\u65b9\u6574\u5099\u5c40\u9759\u5ca1\u55b6\u7e55\u4e8b\u52d9\u6240","boring_xml_url":47,"boring_view_url":1,"soilmap_view_url":null,"soiltest_xml_url":47,"soiltest_view_url":47},{"id":469684,"code":"NGIC202103584-0002","latitude":"35.094062833333","longitude":"138.86551083333","source_code":"","project_name":"","survey_name":"\u4ee4\u548c3\u5e74\u5ea6\u9759\u5ca1\u5730\u65b9\u30fb\u5bb6\u5ead\u88c1\u5224\u6240\u6cbc\u6d25\u652f\u90e8\u6577\u5730\u8abf\u67fb\u696d\u52d9","client_name":"\u56fd\u571f\u4ea4\u901a\u7701\u4e2d\u90e8\u5730\u65b9\u6574\u5099\u5c40\u9759\u5ca1\u55b6\u7e55\u4e8b\u52d9\u6240","boring_xml_url":47,"boring_view_url":1,"soilmap_view_url":null,"soiltest_xml_url":47,"soiltest_view_url":47},{"id":469683,"code":"NGIC202103584-0001","latitude":"35.09441025","longitude":"138.86533727778","source_code":"","project_name":"","survey_name":"\u4ee4\u548c3\u5e74\u5ea6\u9759\u5ca1\u5730\u65b9\u30fb\u5bb6\u5ead\u88c1\u5224\u6240\u6cbc\u6d25\u652f\u90e8\u6577\u5730\u8abf\u67fb\u696d\u52d9","client_name":"\u56fd\u571f\u4ea4\u901a\u7701\u4e2d\u90e8\u5730\u65b9\u6574\u5099\u5c40\u9759\u5ca1\u55b6\u7e55\u4e8b\u52d9\u6240","boring_xml_url":47,"boring_view_url":1,"soilmap_view_url":null,"soiltest_xml_url":47,"soiltest_view_url":47}]}}