{"header":{"xyz":{"source":[],"mosaic":false},"page":1837,"raw":{"soiltest_result":"0","bbox":"57.598333,109.544722,1.933333,163.806111","page":"1837"},"conditions":{"soiltest_result":0,"north":57.598333,"west":109.544722,"south":1.933333,"east":163.806111},"success":true,"message":""},"data":{"meta":{"total":212844,"page":1837,"pages":7095,"count":30},"values":[{"id":467271,"code":"NGIC202103067-0007","latitude":"31.858438055556","longitude":"130.236018","source_code":"","project_name":"\u963f\u4e45\u6839\u5ddd\u5185\u9053\u8def","survey_name":"\u4ee4\u548c2\u5e74\u5ea6\u963f\u4e45\u6839\u5ddd\u5185\u9053\u8def\u5730\u8cea\u8abf\u67fb\uff08\u305d\u306e2\uff09\u696d\u52d9","client_name":"\u56fd\u571f\u4ea4\u901a\u7701\u4e5d\u5dde\u5730\u65b9\u6574\u5099\u5c40\u9e7f\u5150\u5cf6\u56fd\u9053\u4e8b\u52d9\u6240","boring_xml_url":47,"boring_view_url":1,"soilmap_view_url":null,"soiltest_xml_url":0,"soiltest_view_url":0},{"id":467270,"code":"NGIC202103067-0006","latitude":"31.858065638889","longitude":"130.235541","source_code":"","project_name":"\u963f\u4e45\u6839\u5ddd\u5185\u9053\u8def","survey_name":"\u4ee4\u548c2\u5e74\u5ea6\u963f\u4e45\u6839\u5ddd\u5185\u9053\u8def\u5730\u8cea\u8abf\u67fb\uff08\u305d\u306e2\uff09\u696d\u52d9","client_name":"\u56fd\u571f\u4ea4\u901a\u7701\u4e5d\u5dde\u5730\u65b9\u6574\u5099\u5c40\u9e7f\u5150\u5cf6\u56fd\u9053\u4e8b\u52d9\u6240","boring_xml_url":47,"boring_view_url":1,"soilmap_view_url":null,"soiltest_xml_url":0,"soiltest_view_url":0},{"id":467269,"code":"NGIC202103067-0005","latitude":"31.865176166667","longitude":"130.23252638889","source_code":"","project_name":"\u963f\u4e45\u6839\u5ddd\u5185\u9053\u8def","survey_name":"\u4ee4\u548c2\u5e74\u5ea6\u963f\u4e45\u6839\u5ddd\u5185\u9053\u8def\u5730\u8cea\u8abf\u67fb\uff08\u305d\u306e2\uff09\u696d\u52d9","client_name":"\u56fd\u571f\u4ea4\u901a\u7701\u4e5d\u5dde\u5730\u65b9\u6574\u5099\u5c40\u9e7f\u5150\u5cf6\u56fd\u9053\u4e8b\u52d9\u6240","boring_xml_url":47,"boring_view_url":1,"soilmap_view_url":null,"soiltest_xml_url":0,"soiltest_view_url":0},{"id":467268,"code":"NGIC202103067-0004","latitude":"31.865021166667","longitude":"130.23169486111","source_code":"","project_name":"\u963f\u4e45\u6839\u5ddd\u5185\u9053\u8def","survey_name":"\u4ee4\u548c2\u5e74\u5ea6\u963f\u4e45\u6839\u5ddd\u5185\u9053\u8def\u5730\u8cea\u8abf\u67fb\uff08\u305d\u306e2\uff09\u696d\u52d9","client_name":"\u56fd\u571f\u4ea4\u901a\u7701\u4e5d\u5dde\u5730\u65b9\u6574\u5099\u5c40\u9e7f\u5150\u5cf6\u56fd\u9053\u4e8b\u52d9\u6240","boring_xml_url":47,"boring_view_url":1,"soilmap_view_url":null,"soiltest_xml_url":0,"soiltest_view_url":0},{"id":467267,"code":"NGIC202103067-0003","latitude":"31.866324527778","longitude":"130.23248780556","source_code":"","project_name":"\u963f\u4e45\u6839\u5ddd\u5185\u9053\u8def","survey_name":"\u4ee4\u548c2\u5e74\u5ea6\u963f\u4e45\u6839\u5ddd\u5185\u9053\u8def\u5730\u8cea\u8abf\u67fb\uff08\u305d\u306e2\uff09\u696d\u52d9","client_name":"\u56fd\u571f\u4ea4\u901a\u7701\u4e5d\u5dde\u5730\u65b9\u6574\u5099\u5c40\u9e7f\u5150\u5cf6\u56fd\u9053\u4e8b\u52d9\u6240","boring_xml_url":47,"boring_view_url":1,"soilmap_view_url":null,"soiltest_xml_url":0,"soiltest_view_url":0},{"id":467266,"code":"NGIC202103067-0002","latitude":"31.865975611111","longitude":"130.23173847222","source_code":"","project_name":"\u963f\u4e45\u6839\u5ddd\u5185\u9053\u8def","survey_name":"\u4ee4\u548c2\u5e74\u5ea6\u963f\u4e45\u6839\u5ddd\u5185\u9053\u8def\u5730\u8cea\u8abf\u67fb\uff08\u305d\u306e2\uff09\u696d\u52d9","client_name":"\u56fd\u571f\u4ea4\u901a\u7701\u4e5d\u5dde\u5730\u65b9\u6574\u5099\u5c40\u9e7f\u5150\u5cf6\u56fd\u9053\u4e8b\u52d9\u6240","boring_xml_url":47,"boring_view_url":1,"soilmap_view_url":null,"soiltest_xml_url":0,"soiltest_view_url":0},{"id":467265,"code":"NGIC202103067-0001","latitude":"31.870463111111","longitude":"130.23308333333","source_code":"","project_name":"\u963f\u4e45\u6839\u5ddd\u5185\u9053\u8def","survey_name":"\u4ee4\u548c2\u5e74\u5ea6\u963f\u4e45\u6839\u5ddd\u5185\u9053\u8def\u5730\u8cea\u8abf\u67fb\uff08\u305d\u306e2\uff09\u696d\u52d9","client_name":"\u56fd\u571f\u4ea4\u901a\u7701\u4e5d\u5dde\u5730\u65b9\u6574\u5099\u5c40\u9e7f\u5150\u5cf6\u56fd\u9053\u4e8b\u52d9\u6240","boring_xml_url":47,"boring_view_url":1,"soilmap_view_url":null,"soiltest_xml_url":0,"soiltest_view_url":0},{"id":467241,"code":"NGIC202103084-0001","latitude":"42.727746555556","longitude":"143.07049583333","source_code":"","project_name":"\u56fd\u55b6\u304b\u3093\u304c\u3044\u6392\u6c34\u4e8b\u696d","survey_name":"\u82bd\u5ba4\u5ddd\u897f\u5730\u533a\u4e0a\u6e05\u5ddd\u7b2c2\u5e79\u7dda\u7528\u6c34\u8def37\u53f7\u5de5\u533a\u5b9f\u65bd\u8a2d\u8a08\u7b49\u696d\u52d9","client_name":"\u56fd\u571f\u4ea4\u901a\u7701\u5317\u6d77\u9053\u958b\u767a\u5c40\u5e2f\u5e83\u958b\u767a\u5efa\u8a2d\u90e8\u5e2f\u5e83\u8fb2\u696d\u4e8b\u52d9\u6240","boring_xml_url":47,"boring_view_url":1,"soilmap_view_url":null,"soiltest_xml_url":47,"soiltest_view_url":47},{"id":467199,"code":"NGIC202103047-0004","latitude":"33.264425","longitude":"131.670925","source_code":"","project_name":"","survey_name":"\u4ee4\u548c3\u5e74\u5ea6\u5927\u5206\u6e2f\u6d77\u5cb8(\u4e59\u6d25\u5730\u533a)\u571f\u8cea\u8abf\u67fb","client_name":"\u56fd\u571f\u4ea4\u901a\u7701\u4e5d\u5dde\u5730\u65b9\u6574\u5099\u5c40\u5225\u5e9c\u6e2f\u6e7e\u30fb\u7a7a\u6e2f\u6574\u5099\u4e8b\u52d9\u6240","boring_xml_url":47,"boring_view_url":1,"soilmap_view_url":71,"soiltest_xml_url":47,"soiltest_view_url":47},{"id":467198,"code":"NGIC202103047-0003","latitude":"33.267019444444","longitude":"131.67013055556","source_code":"","project_name":"","survey_name":"\u4ee4\u548c3\u5e74\u5ea6\u5927\u5206\u6e2f\u6d77\u5cb8(\u4e59\u6d25\u5730\u533a)\u571f\u8cea\u8abf\u67fb","client_name":"\u56fd\u571f\u4ea4\u901a\u7701\u4e5d\u5dde\u5730\u65b9\u6574\u5099\u5c40\u5225\u5e9c\u6e2f\u6e7e\u30fb\u7a7a\u6e2f\u6574\u5099\u4e8b\u52d9\u6240","boring_xml_url":47,"boring_view_url":1,"soilmap_view_url":71,"soiltest_xml_url":47,"soiltest_view_url":47},{"id":467197,"code":"NGIC202103047-0002","latitude":"33.269608333333","longitude":"131.66913055556","source_code":"","project_name":"","survey_name":"\u4ee4\u548c3\u5e74\u5ea6\u5927\u5206\u6e2f\u6d77\u5cb8(\u4e59\u6d25\u5730\u533a)\u571f\u8cea\u8abf\u67fb","client_name":"\u56fd\u571f\u4ea4\u901a\u7701\u4e5d\u5dde\u5730\u65b9\u6574\u5099\u5c40\u5225\u5e9c\u6e2f\u6e7e\u30fb\u7a7a\u6e2f\u6574\u5099\u4e8b\u52d9\u6240","boring_xml_url":47,"boring_view_url":1,"soilmap_view_url":71,"soiltest_xml_url":47,"soiltest_view_url":47},{"id":467196,"code":"NGIC202103047-0001","latitude":"33.272141666667","longitude":"131.66808055556","source_code":"","project_name":"","survey_name":"\u4ee4\u548c3\u5e74\u5ea6\u5927\u5206\u6e2f\u6d77\u5cb8(\u4e59\u6d25\u5730\u533a)\u571f\u8cea\u8abf\u67fb","client_name":"\u56fd\u571f\u4ea4\u901a\u7701\u4e5d\u5dde\u5730\u65b9\u6574\u5099\u5c40\u5225\u5e9c\u6e2f\u6e7e\u30fb\u7a7a\u6e2f\u6574\u5099\u4e8b\u52d9\u6240","boring_xml_url":47,"boring_view_url":1,"soilmap_view_url":71,"soiltest_xml_url":47,"soiltest_view_url":47},{"id":467183,"code":"NGIC202103037-0002","latitude":"34.025779722222","longitude":"131.77989666667","source_code":"","project_name":"","survey_name":"\u5fb3\u5c71\u4e0b\u677e\u6e2f\u5fb3\u5c71\u5730\u533a\u571f\u8cea\u8abf\u67fb","client_name":"\u56fd\u571f\u4ea4\u901a\u7701\u4e2d\u56fd\u5730\u65b9\u6574\u5099\u5c40\u5b87\u90e8\u6e2f\u6e7e\u30fb\u7a7a\u6e2f\u6574\u5099\u4e8b\u52d9\u6240","boring_xml_url":47,"boring_view_url":1,"soilmap_view_url":71,"soiltest_xml_url":47,"soiltest_view_url":47},{"id":467182,"code":"NGIC202103037-0001","latitude":"34.02611","longitude":"131.78032194444","source_code":"","project_name":"","survey_name":"\u5fb3\u5c71\u4e0b\u677e\u6e2f\u5fb3\u5c71\u5730\u533a\u571f\u8cea\u8abf\u67fb","client_name":"\u56fd\u571f\u4ea4\u901a\u7701\u4e2d\u56fd\u5730\u65b9\u6574\u5099\u5c40\u5b87\u90e8\u6e2f\u6e7e\u30fb\u7a7a\u6e2f\u6574\u5099\u4e8b\u52d9\u6240","boring_xml_url":47,"boring_view_url":1,"soilmap_view_url":71,"soiltest_xml_url":47,"soiltest_view_url":47},{"id":467181,"code":"NGIC202103055-0013","latitude":"34.653146666667","longitude":"131.79603444444","source_code":"","project_name":"\u4ee4\u548c3\u5e74\u5ea6\u76ca\u7530\u897f\u9053\u8def\u767d\u4e0a\u5730\u533a\u5730\u8cea\u8abf\u67fb\u305d\u306e2\u696d\u52d9","survey_name":"\u4ee4\u548c3\u5e74\u5ea6\u76ca\u7530\u897f\u9053\u8def\u767d\u4e0a\u5730\u533a\u5730\u8cea\u8abf\u67fb\u305d\u306e2\u696d\u52d9","client_name":"\u56fd\u571f\u4ea4\u901a\u7701\u4e2d\u56fd\u5730\u65b9\u6574\u5099\u5c40\u6d5c\u7530\u6cb3\u5ddd\u56fd\u9053\u4e8b\u52d9\u6240","boring_xml_url":47,"boring_view_url":1,"soilmap_view_url":null,"soiltest_xml_url":0,"soiltest_view_url":0},{"id":467180,"code":"NGIC202103055-0012","latitude":"34.65282","longitude":"131.79577638889","source_code":"","project_name":"\u4ee4\u548c3\u5e74\u5ea6\u76ca\u7530\u897f\u9053\u8def\u767d\u4e0a\u5730\u533a\u5730\u8cea\u8abf\u67fb\u305d\u306e2\u696d\u52d9","survey_name":"\u4ee4\u548c3\u5e74\u5ea6\u76ca\u7530\u897f\u9053\u8def\u767d\u4e0a\u5730\u533a\u5730\u8cea\u8abf\u67fb\u305d\u306e2\u696d\u52d9","client_name":"\u56fd\u571f\u4ea4\u901a\u7701\u4e2d\u56fd\u5730\u65b9\u6574\u5099\u5c40\u6d5c\u7530\u6cb3\u5ddd\u56fd\u9053\u4e8b\u52d9\u6240","boring_xml_url":47,"boring_view_url":1,"soilmap_view_url":null,"soiltest_xml_url":0,"soiltest_view_url":0},{"id":467179,"code":"NGIC202103055-0011","latitude":"34.652439444444","longitude":"131.79541972222","source_code":"","project_name":"\u4ee4\u548c3\u5e74\u5ea6\u76ca\u7530\u897f\u9053\u8def\u767d\u4e0a\u5730\u533a\u5730\u8cea\u8abf\u67fb\u305d\u306e2\u696d\u52d9","survey_name":"\u4ee4\u548c3\u5e74\u5ea6\u76ca\u7530\u897f\u9053\u8def\u767d\u4e0a\u5730\u533a\u5730\u8cea\u8abf\u67fb\u305d\u306e2\u696d\u52d9","client_name":"\u56fd\u571f\u4ea4\u901a\u7701\u4e2d\u56fd\u5730\u65b9\u6574\u5099\u5c40\u6d5c\u7530\u6cb3\u5ddd\u56fd\u9053\u4e8b\u52d9\u6240","boring_xml_url":47,"boring_view_url":1,"soilmap_view_url":null,"soiltest_xml_url":0,"soiltest_view_url":0},{"id":467178,"code":"NGIC202103055-0010","latitude":"34.651558888889","longitude":"131.79452388889","source_code":"","project_name":"\u4ee4\u548c3\u5e74\u5ea6\u76ca\u7530\u897f\u9053\u8def\u767d\u4e0a\u5730\u533a\u5730\u8cea\u8abf\u67fb\u305d\u306e2\u696d\u52d9","survey_name":"\u4ee4\u548c3\u5e74\u5ea6\u76ca\u7530\u897f\u9053\u8def\u767d\u4e0a\u5730\u533a\u5730\u8cea\u8abf\u67fb\u305d\u306e2\u696d\u52d9","client_name":"\u56fd\u571f\u4ea4\u901a\u7701\u4e2d\u56fd\u5730\u65b9\u6574\u5099\u5c40\u6d5c\u7530\u6cb3\u5ddd\u56fd\u9053\u4e8b\u52d9\u6240","boring_xml_url":47,"boring_view_url":1,"soilmap_view_url":null,"soiltest_xml_url":0,"soiltest_view_url":0},{"id":467177,"code":"NGIC202103055-0009","latitude":"34.649987777778","longitude":"131.7920575","source_code":"","project_name":"\u4ee4\u548c3\u5e74\u5ea6\u76ca\u7530\u897f\u9053\u8def\u767d\u4e0a\u5730\u533a\u5730\u8cea\u8abf\u67fb\u305d\u306e2\u696d\u52d9","survey_name":"\u4ee4\u548c3\u5e74\u5ea6\u76ca\u7530\u897f\u9053\u8def\u767d\u4e0a\u5730\u533a\u5730\u8cea\u8abf\u67fb\u305d\u306e2\u696d\u52d9","client_name":"\u56fd\u571f\u4ea4\u901a\u7701\u4e2d\u56fd\u5730\u65b9\u6574\u5099\u5c40\u6d5c\u7530\u6cb3\u5ddd\u56fd\u9053\u4e8b\u52d9\u6240","boring_xml_url":47,"boring_view_url":1,"soilmap_view_url":null,"soiltest_xml_url":0,"soiltest_view_url":0},{"id":467176,"code":"NGIC202103055-0008","latitude":"34.648338333333","longitude":"131.79211194444","source_code":"","project_name":"\u4ee4\u548c3\u5e74\u5ea6\u76ca\u7530\u897f\u9053\u8def\u767d\u4e0a\u5730\u533a\u5730\u8cea\u8abf\u67fb\u305d\u306e2\u696d\u52d9","survey_name":"\u4ee4\u548c3\u5e74\u5ea6\u76ca\u7530\u897f\u9053\u8def\u767d\u4e0a\u5730\u533a\u5730\u8cea\u8abf\u67fb\u305d\u306e2\u696d\u52d9","client_name":"\u56fd\u571f\u4ea4\u901a\u7701\u4e2d\u56fd\u5730\u65b9\u6574\u5099\u5c40\u6d5c\u7530\u6cb3\u5ddd\u56fd\u9053\u4e8b\u52d9\u6240","boring_xml_url":47,"boring_view_url":1,"soilmap_view_url":null,"soiltest_xml_url":0,"soiltest_view_url":0},{"id":467175,"code":"NGIC202103055-0007","latitude":"34.649148611111","longitude":"131.79070722222","source_code":"","project_name":"\u4ee4\u548c3\u5e74\u5ea6\u76ca\u7530\u897f\u9053\u8def\u767d\u4e0a\u5730\u533a\u5730\u8cea\u8abf\u67fb\u305d\u306e2\u696d\u52d9","survey_name":"\u4ee4\u548c3\u5e74\u5ea6\u76ca\u7530\u897f\u9053\u8def\u767d\u4e0a\u5730\u533a\u5730\u8cea\u8abf\u67fb\u305d\u306e2\u696d\u52d9","client_name":"\u56fd\u571f\u4ea4\u901a\u7701\u4e2d\u56fd\u5730\u65b9\u6574\u5099\u5c40\u6d5c\u7530\u6cb3\u5ddd\u56fd\u9053\u4e8b\u52d9\u6240","boring_xml_url":47,"boring_view_url":1,"soilmap_view_url":null,"soiltest_xml_url":0,"soiltest_view_url":0},{"id":467174,"code":"NGIC202103055-0006","latitude":"34.647624166667","longitude":"131.79112","source_code":"","project_name":"\u4ee4\u548c3\u5e74\u5ea6\u76ca\u7530\u897f\u9053\u8def\u767d\u4e0a\u5730\u533a\u5730\u8cea\u8abf\u67fb\u305d\u306e2\u696d\u52d9","survey_name":"\u4ee4\u548c3\u5e74\u5ea6\u76ca\u7530\u897f\u9053\u8def\u767d\u4e0a\u5730\u533a\u5730\u8cea\u8abf\u67fb\u305d\u306e2\u696d\u52d9","client_name":"\u56fd\u571f\u4ea4\u901a\u7701\u4e2d\u56fd\u5730\u65b9\u6574\u5099\u5c40\u6d5c\u7530\u6cb3\u5ddd\u56fd\u9053\u4e8b\u52d9\u6240","boring_xml_url":47,"boring_view_url":1,"soilmap_view_url":null,"soiltest_xml_url":0,"soiltest_view_url":0},{"id":467173,"code":"NGIC202103055-0005","latitude":"34.650888333333","longitude":"131.79382972222","source_code":"","project_name":"\u4ee4\u548c3\u5e74\u5ea6\u76ca\u7530\u897f\u9053\u8def\u767d\u4e0a\u5730\u533a\u5730\u8cea\u8abf\u67fb\u305d\u306e2\u696d\u52d9","survey_name":"\u4ee4\u548c3\u5e74\u5ea6\u76ca\u7530\u897f\u9053\u8def\u767d\u4e0a\u5730\u533a\u5730\u8cea\u8abf\u67fb\u305d\u306e2\u696d\u52d9","client_name":"\u56fd\u571f\u4ea4\u901a\u7701\u4e2d\u56fd\u5730\u65b9\u6574\u5099\u5c40\u6d5c\u7530\u6cb3\u5ddd\u56fd\u9053\u4e8b\u52d9\u6240","boring_xml_url":47,"boring_view_url":1,"soilmap_view_url":null,"soiltest_xml_url":0,"soiltest_view_url":0},{"id":467172,"code":"NGIC202103055-0004","latitude":"34.649659444444","longitude":"131.79255388889","source_code":"","project_name":"\u4ee4\u548c3\u5e74\u5ea6\u76ca\u7530\u897f\u9053\u8def\u767d\u4e0a\u5730\u533a\u5730\u8cea\u8abf\u67fb\u305d\u306e2\u696d\u52d9","survey_name":"\u4ee4\u548c3\u5e74\u5ea6\u76ca\u7530\u897f\u9053\u8def\u767d\u4e0a\u5730\u533a\u5730\u8cea\u8abf\u67fb\u305d\u306e2\u696d\u52d9","client_name":"\u56fd\u571f\u4ea4\u901a\u7701\u4e2d\u56fd\u5730\u65b9\u6574\u5099\u5c40\u6d5c\u7530\u6cb3\u5ddd\u56fd\u9053\u4e8b\u52d9\u6240","boring_xml_url":47,"boring_view_url":1,"soilmap_view_url":null,"soiltest_xml_url":0,"soiltest_view_url":0},{"id":467171,"code":"NGIC202103055-0003","latitude":"34.648609166667","longitude":"131.79132","source_code":"","project_name":"\u4ee4\u548c3\u5e74\u5ea6\u76ca\u7530\u897f\u9053\u8def\u767d\u4e0a\u5730\u533a\u5730\u8cea\u8abf\u67fb\u305d\u306e2\u696d\u52d9","survey_name":"\u4ee4\u548c3\u5e74\u5ea6\u76ca\u7530\u897f\u9053\u8def\u767d\u4e0a\u5730\u533a\u5730\u8cea\u8abf\u67fb\u305d\u306e2\u696d\u52d9","client_name":"\u56fd\u571f\u4ea4\u901a\u7701\u4e2d\u56fd\u5730\u65b9\u6574\u5099\u5c40\u6d5c\u7530\u6cb3\u5ddd\u56fd\u9053\u4e8b\u52d9\u6240","boring_xml_url":47,"boring_view_url":1,"soilmap_view_url":null,"soiltest_xml_url":0,"soiltest_view_url":0},{"id":467170,"code":"NGIC202103055-0002","latitude":"34.648321666667","longitude":"131.79090833333","source_code":"","project_name":"\u4ee4\u548c3\u5e74\u5ea6\u76ca\u7530\u897f\u9053\u8def\u767d\u4e0a\u5730\u533a\u5730\u8cea\u8abf\u67fb\u305d\u306e2\u696d\u52d9","survey_name":"\u4ee4\u548c3\u5e74\u5ea6\u76ca\u7530\u897f\u9053\u8def\u767d\u4e0a\u5730\u533a\u5730\u8cea\u8abf\u67fb\u305d\u306e2\u696d\u52d9","client_name":"\u56fd\u571f\u4ea4\u901a\u7701\u4e2d\u56fd\u5730\u65b9\u6574\u5099\u5c40\u6d5c\u7530\u6cb3\u5ddd\u56fd\u9053\u4e8b\u52d9\u6240","boring_xml_url":47,"boring_view_url":1,"soilmap_view_url":null,"soiltest_xml_url":0,"soiltest_view_url":0},{"id":467169,"code":"NGIC202103055-0001","latitude":"34.647767777778","longitude":"131.78965138889","source_code":"","project_name":"\u4ee4\u548c3\u5e74\u5ea6\u76ca\u7530\u897f\u9053\u8def\u767d\u4e0a\u5730\u533a\u5730\u8cea\u8abf\u67fb\u305d\u306e2\u696d\u52d9","survey_name":"\u4ee4\u548c3\u5e74\u5ea6\u76ca\u7530\u897f\u9053\u8def\u767d\u4e0a\u5730\u533a\u5730\u8cea\u8abf\u67fb\u305d\u306e2\u696d\u52d9","client_name":"\u56fd\u571f\u4ea4\u901a\u7701\u4e2d\u56fd\u5730\u65b9\u6574\u5099\u5c40\u6d5c\u7530\u6cb3\u5ddd\u56fd\u9053\u4e8b\u52d9\u6240","boring_xml_url":47,"boring_view_url":1,"soilmap_view_url":null,"soiltest_xml_url":0,"soiltest_view_url":0},{"id":467148,"code":"NGIC202102943-0003","latitude":"33.938294444444","longitude":"130.78080833333","source_code":"","project_name":"\u4ee4\u548c3\u5e74\u5ea6\u5317\u4e5d\u5dde\u6e2f(\u97ff\u7058\u6771\u5730\u533a)\u822a\u8def\u30fb\u6cca\u5730(-9m)\u571f\u8cea\u8abf\u67fb","survey_name":"\u4ee4\u548c3\u5e74\u5ea6\u5317\u4e5d\u5dde\u6e2f(\u97ff\u7058\u6771\u5730\u533a)\u822a\u8def\u30fb\u6cca\u5730(-9m)\u571f\u8cea\u8abf\u67fb","client_name":"\u56fd\u571f\u4ea4\u901a\u7701\u4e5d\u5dde\u5730\u65b9\u6574\u5099\u5c40\u5317\u4e5d\u5dde\u6e2f\u6e7e\u30fb\u7a7a\u6e2f\u6574\u5099\u4e8b\u52d9\u6240","boring_xml_url":47,"boring_view_url":1,"soilmap_view_url":71,"soiltest_xml_url":47,"soiltest_view_url":47},{"id":467147,"code":"NGIC202102943-0002","latitude":"33.937608333333","longitude":"130.78081111111","source_code":"","project_name":"\u4ee4\u548c3\u5e74\u5ea6\u5317\u4e5d\u5dde\u6e2f(\u97ff\u7058\u6771\u5730\u533a)\u822a\u8def\u30fb\u6cca\u5730(-9m)\u571f\u8cea\u8abf\u67fb","survey_name":"\u4ee4\u548c3\u5e74\u5ea6\u5317\u4e5d\u5dde\u6e2f(\u97ff\u7058\u6771\u5730\u533a)\u822a\u8def\u30fb\u6cca\u5730(-9m)\u571f\u8cea\u8abf\u67fb","client_name":"\u56fd\u571f\u4ea4\u901a\u7701\u4e5d\u5dde\u5730\u65b9\u6574\u5099\u5c40\u5317\u4e5d\u5dde\u6e2f\u6e7e\u30fb\u7a7a\u6e2f\u6574\u5099\u4e8b\u52d9\u6240","boring_xml_url":47,"boring_view_url":1,"soilmap_view_url":null,"soiltest_xml_url":0,"soiltest_view_url":0},{"id":467146,"code":"NGIC202102943-0001","latitude":"33.938288888889","longitude":"130.77871944444","source_code":"","project_name":"\u4ee4\u548c3\u5e74\u5ea6\u5317\u4e5d\u5dde\u6e2f(\u97ff\u7058\u6771\u5730\u533a)\u822a\u8def\u30fb\u6cca\u5730(-9m)\u571f\u8cea\u8abf\u67fb","survey_name":"\u4ee4\u548c3\u5e74\u5ea6\u5317\u4e5d\u5dde\u6e2f(\u97ff\u7058\u6771\u5730\u533a)\u822a\u8def\u30fb\u6cca\u5730(-9m)\u571f\u8cea\u8abf\u67fb","client_name":"\u56fd\u571f\u4ea4\u901a\u7701\u4e5d\u5dde\u5730\u65b9\u6574\u5099\u5c40\u5317\u4e5d\u5dde\u6e2f\u6e7e\u30fb\u7a7a\u6e2f\u6574\u5099\u4e8b\u52d9\u6240","boring_xml_url":47,"boring_view_url":1,"soilmap_view_url":71,"soiltest_xml_url":47,"soiltest_view_url":47}]}}