{"header":{"xyz":{"source":[],"mosaic":false},"page":1839,"raw":{"soiltest_result":"0","bbox":"57.598333,109.544722,1.933333,163.806111","page":"1839"},"conditions":{"soiltest_result":0,"north":57.598333,"west":109.544722,"south":1.933333,"east":163.806111},"success":true,"message":""},"data":{"meta":{"total":212844,"page":1839,"pages":7095,"count":30},"values":[{"id":467041,"code":"NGIC202103021-0001","latitude":"43.280892222222","longitude":"142.05953","source_code":"","project_name":"","survey_name":"\u4e00\u822c\u56fd\u9053452\u53f7\u4e09\u7b20\u5e02\u5730\u8cea\u8abf\u67fb\u696d\u52d9","client_name":"\u56fd\u571f\u4ea4\u901a\u7701\u5317\u6d77\u9053\u958b\u767a\u5c40\u672d\u5e4c\u958b\u767a\u5efa\u8a2d\u90e8\u672c\u90e8","boring_xml_url":47,"boring_view_url":1,"soilmap_view_url":null,"soiltest_xml_url":0,"soiltest_view_url":0},{"id":467033,"code":"NGIC202103004-0003","latitude":"39.866327333333","longitude":"140.53375638889","source_code":"","project_name":"\u56fd\u9053105\u53f7\u5927\u899a\u91ce\u5ce0\u9632\u707d","survey_name":"\u4ee4\u548c3\u5e74\u5ea6\u5927\u899a\u91ce\u5ce0\u5730\u533a2\u53f7\u30c8\u30f3\u30cd\u30eb\u5730\u8cea\u8abf\u67fb\u696d\u52d9","client_name":"\u56fd\u571f\u4ea4\u901a\u7701\u6771\u5317\u5730\u65b9\u6574\u5099\u5c40\u80fd\u4ee3\u6cb3\u5ddd\u56fd\u9053\u4e8b\u52d9\u6240","boring_xml_url":47,"boring_view_url":1,"soilmap_view_url":null,"soiltest_xml_url":0,"soiltest_view_url":0},{"id":467032,"code":"NGIC202103004-0002","latitude":"39.867667361111","longitude":"140.54516447222","source_code":"","project_name":"\u56fd\u9053105\u53f7\u5927\u899a\u91ce\u5ce0\u9632\u707d","survey_name":"\u4ee4\u548c3\u5e74\u5ea6\u5927\u899a\u91ce\u5ce0\u5730\u533a2\u53f7\u30c8\u30f3\u30cd\u30eb\u5730\u8cea\u8abf\u67fb\u696d\u52d9","client_name":"\u56fd\u571f\u4ea4\u901a\u7701\u6771\u5317\u5730\u65b9\u6574\u5099\u5c40\u80fd\u4ee3\u6cb3\u5ddd\u56fd\u9053\u4e8b\u52d9\u6240","boring_xml_url":47,"boring_view_url":1,"soilmap_view_url":null,"soiltest_xml_url":0,"soiltest_view_url":0},{"id":467031,"code":"NGIC202103004-0001","latitude":"39.867349","longitude":"140.55308941667","source_code":"","project_name":"\u56fd\u9053105\u53f7\u5927\u899a\u91ce\u5ce0\u9632\u707d","survey_name":"\u4ee4\u548c3\u5e74\u5ea6\u5927\u899a\u91ce\u5ce0\u5730\u533a2\u53f7\u30c8\u30f3\u30cd\u30eb\u5730\u8cea\u8abf\u67fb\u696d\u52d9","client_name":"\u56fd\u571f\u4ea4\u901a\u7701\u6771\u5317\u5730\u65b9\u6574\u5099\u5c40\u80fd\u4ee3\u6cb3\u5ddd\u56fd\u9053\u4e8b\u52d9\u6240","boring_xml_url":47,"boring_view_url":1,"soilmap_view_url":null,"soiltest_xml_url":0,"soiltest_view_url":0},{"id":467020,"code":"NGIC202103034-0005","latitude":"38.528192694444","longitude":"141.05356594444","source_code":"","project_name":"","survey_name":"\u9cf4\u702c\u5ddd\u91ce\u7530\u6a4b\u4e0a\u6d41\u5824\u9632\u89e3\u6790\u696d\u52d9","client_name":"\u56fd\u571f\u4ea4\u901a\u7701\u6771\u5317\u5730\u65b9\u6574\u5099\u5c40\u5317\u4e0a\u5ddd\u4e0b\u6d41\u6cb3\u5ddd\u4e8b\u52d9\u6240","boring_xml_url":47,"boring_view_url":1,"soilmap_view_url":null,"soiltest_xml_url":47,"soiltest_view_url":47},{"id":467019,"code":"NGIC202103034-0004","latitude":"38.530635527778","longitude":"141.02513869444","source_code":"","project_name":"","survey_name":"\u9cf4\u702c\u5ddd\u91ce\u7530\u6a4b\u4e0a\u6d41\u5824\u9632\u89e3\u6790\u696d\u52d9","client_name":"\u56fd\u571f\u4ea4\u901a\u7701\u6771\u5317\u5730\u65b9\u6574\u5099\u5c40\u5317\u4e0a\u5ddd\u4e0b\u6d41\u6cb3\u5ddd\u4e8b\u52d9\u6240","boring_xml_url":47,"boring_view_url":1,"soilmap_view_url":null,"soiltest_xml_url":47,"soiltest_view_url":47},{"id":467018,"code":"NGIC202103034-0003","latitude":"38.5307275","longitude":"141.02537983333","source_code":"","project_name":"","survey_name":"\u9cf4\u702c\u5ddd\u91ce\u7530\u6a4b\u4e0a\u6d41\u5824\u9632\u89e3\u6790\u696d\u52d9","client_name":"\u56fd\u571f\u4ea4\u901a\u7701\u6771\u5317\u5730\u65b9\u6574\u5099\u5c40\u5317\u4e0a\u5ddd\u4e0b\u6d41\u6cb3\u5ddd\u4e8b\u52d9\u6240","boring_xml_url":47,"boring_view_url":1,"soilmap_view_url":null,"soiltest_xml_url":47,"soiltest_view_url":47},{"id":467017,"code":"NGIC202103034-0002","latitude":"38.528740694444","longitude":"141.02861175","source_code":"","project_name":"","survey_name":"\u9cf4\u702c\u5ddd\u91ce\u7530\u6a4b\u4e0a\u6d41\u5824\u9632\u89e3\u6790\u696d\u52d9","client_name":"\u56fd\u571f\u4ea4\u901a\u7701\u6771\u5317\u5730\u65b9\u6574\u5099\u5c40\u5317\u4e0a\u5ddd\u4e0b\u6d41\u6cb3\u5ddd\u4e8b\u52d9\u6240","boring_xml_url":47,"boring_view_url":1,"soilmap_view_url":null,"soiltest_xml_url":47,"soiltest_view_url":47},{"id":467016,"code":"NGIC202103034-0001","latitude":"38.528831611111","longitude":"141.02864108333","source_code":"","project_name":"","survey_name":"\u9cf4\u702c\u5ddd\u91ce\u7530\u6a4b\u4e0a\u6d41\u5824\u9632\u89e3\u6790\u696d\u52d9","client_name":"\u56fd\u571f\u4ea4\u901a\u7701\u6771\u5317\u5730\u65b9\u6574\u5099\u5c40\u5317\u4e0a\u5ddd\u4e0b\u6d41\u6cb3\u5ddd\u4e8b\u52d9\u6240","boring_xml_url":47,"boring_view_url":1,"soilmap_view_url":null,"soiltest_xml_url":47,"soiltest_view_url":47},{"id":466975,"code":"NGIC202103039-0012","latitude":"35.9217","longitude":"137.20219722222","source_code":"","project_name":"","survey_name":"\u4ee4\u548c2\u5e74\u5ea6\u98db\u9a28\u5730\u57df\u5730\u8cea\u8abf\u67fb\u696d\u52d9","client_name":"\u56fd\u571f\u4ea4\u901a\u7701\u4e2d\u90e8\u5730\u65b9\u6574\u5099\u5c40\u9ad8\u5c71\u56fd\u9053\u4e8b\u52d9\u6240","boring_xml_url":47,"boring_view_url":1,"soilmap_view_url":null,"soiltest_xml_url":0,"soiltest_view_url":0},{"id":466974,"code":"NGIC202103039-0011","latitude":"35.923847222222","longitude":"137.202375","source_code":"","project_name":"","survey_name":"\u4ee4\u548c2\u5e74\u5ea6\u98db\u9a28\u5730\u57df\u5730\u8cea\u8abf\u67fb\u696d\u52d9","client_name":"\u56fd\u571f\u4ea4\u901a\u7701\u4e2d\u90e8\u5730\u65b9\u6574\u5099\u5c40\u9ad8\u5c71\u56fd\u9053\u4e8b\u52d9\u6240","boring_xml_url":47,"boring_view_url":1,"soilmap_view_url":null,"soiltest_xml_url":0,"soiltest_view_url":0},{"id":466973,"code":"NGIC202103039-0010","latitude":"36.1751","longitude":"137.27724444444","source_code":"","project_name":"","survey_name":"\u4ee4\u548c2\u5e74\u5ea6\u98db\u9a28\u5730\u57df\u5730\u8cea\u8abf\u67fb\u696d\u52d9","client_name":"\u56fd\u571f\u4ea4\u901a\u7701\u4e2d\u90e8\u5730\u65b9\u6574\u5099\u5c40\u9ad8\u5c71\u56fd\u9053\u4e8b\u52d9\u6240","boring_xml_url":47,"boring_view_url":1,"soilmap_view_url":null,"soiltest_xml_url":0,"soiltest_view_url":0},{"id":466972,"code":"NGIC202103039-0009","latitude":"36.171638888889","longitude":"137.28757222222","source_code":"","project_name":"","survey_name":"\u4ee4\u548c2\u5e74\u5ea6\u98db\u9a28\u5730\u57df\u5730\u8cea\u8abf\u67fb\u696d\u52d9","client_name":"\u56fd\u571f\u4ea4\u901a\u7701\u4e2d\u90e8\u5730\u65b9\u6574\u5099\u5c40\u9ad8\u5c71\u56fd\u9053\u4e8b\u52d9\u6240","boring_xml_url":47,"boring_view_url":1,"soilmap_view_url":null,"soiltest_xml_url":0,"soiltest_view_url":0},{"id":466971,"code":"NGIC202103039-0008","latitude":"36.171722222222","longitude":"137.28783888889","source_code":"","project_name":"","survey_name":"\u4ee4\u548c2\u5e74\u5ea6\u98db\u9a28\u5730\u57df\u5730\u8cea\u8abf\u67fb\u696d\u52d9","client_name":"\u56fd\u571f\u4ea4\u901a\u7701\u4e2d\u90e8\u5730\u65b9\u6574\u5099\u5c40\u9ad8\u5c71\u56fd\u9053\u4e8b\u52d9\u6240","boring_xml_url":47,"boring_view_url":1,"soilmap_view_url":null,"soiltest_xml_url":0,"soiltest_view_url":0},{"id":466970,"code":"NGIC202103039-0007","latitude":"36.341627777778","longitude":"137.29463888889","source_code":"","project_name":"","survey_name":"\u4ee4\u548c2\u5e74\u5ea6\u98db\u9a28\u5730\u57df\u5730\u8cea\u8abf\u67fb\u696d\u52d9","client_name":"\u56fd\u571f\u4ea4\u901a\u7701\u4e2d\u90e8\u5730\u65b9\u6574\u5099\u5c40\u9ad8\u5c71\u56fd\u9053\u4e8b\u52d9\u6240","boring_xml_url":47,"boring_view_url":1,"soilmap_view_url":null,"soiltest_xml_url":0,"soiltest_view_url":0},{"id":466969,"code":"NGIC202103039-0006","latitude":"36.342286111111","longitude":"137.29438888889","source_code":"","project_name":"","survey_name":"\u4ee4\u548c2\u5e74\u5ea6\u98db\u9a28\u5730\u57df\u5730\u8cea\u8abf\u67fb\u696d\u52d9","client_name":"\u56fd\u571f\u4ea4\u901a\u7701\u4e2d\u90e8\u5730\u65b9\u6574\u5099\u5c40\u9ad8\u5c71\u56fd\u9053\u4e8b\u52d9\u6240","boring_xml_url":47,"boring_view_url":1,"soilmap_view_url":null,"soiltest_xml_url":0,"soiltest_view_url":0},{"id":466968,"code":"NGIC202103039-0005","latitude":"36.34215","longitude":"137.29420555556","source_code":"","project_name":"","survey_name":"\u4ee4\u548c2\u5e74\u5ea6\u98db\u9a28\u5730\u57df\u5730\u8cea\u8abf\u67fb\u696d\u52d9","client_name":"\u56fd\u571f\u4ea4\u901a\u7701\u4e2d\u90e8\u5730\u65b9\u6574\u5099\u5c40\u9ad8\u5c71\u56fd\u9053\u4e8b\u52d9\u6240","boring_xml_url":47,"boring_view_url":1,"soilmap_view_url":null,"soiltest_xml_url":0,"soiltest_view_url":0},{"id":466967,"code":"NGIC202103039-0004","latitude":"36.342136111111","longitude":"137.29450555556","source_code":"","project_name":"","survey_name":"\u4ee4\u548c2\u5e74\u5ea6\u98db\u9a28\u5730\u57df\u5730\u8cea\u8abf\u67fb\u696d\u52d9","client_name":"\u56fd\u571f\u4ea4\u901a\u7701\u4e2d\u90e8\u5730\u65b9\u6574\u5099\u5c40\u9ad8\u5c71\u56fd\u9053\u4e8b\u52d9\u6240","boring_xml_url":47,"boring_view_url":1,"soilmap_view_url":null,"soiltest_xml_url":0,"soiltest_view_url":0},{"id":466966,"code":"NGIC202103039-0003","latitude":"36.342005555556","longitude":"137.29434722222","source_code":"","project_name":"","survey_name":"\u4ee4\u548c2\u5e74\u5ea6\u98db\u9a28\u5730\u57df\u5730\u8cea\u8abf\u67fb\u696d\u52d9","client_name":"\u56fd\u571f\u4ea4\u901a\u7701\u4e2d\u90e8\u5730\u65b9\u6574\u5099\u5c40\u9ad8\u5c71\u56fd\u9053\u4e8b\u52d9\u6240","boring_xml_url":47,"boring_view_url":1,"soilmap_view_url":null,"soiltest_xml_url":0,"soiltest_view_url":0},{"id":466965,"code":"NGIC202103039-0002","latitude":"36.342016666667","longitude":"137.29460833333","source_code":"","project_name":"","survey_name":"\u4ee4\u548c2\u5e74\u5ea6\u98db\u9a28\u5730\u57df\u5730\u8cea\u8abf\u67fb\u696d\u52d9","client_name":"\u56fd\u571f\u4ea4\u901a\u7701\u4e2d\u90e8\u5730\u65b9\u6574\u5099\u5c40\u9ad8\u5c71\u56fd\u9053\u4e8b\u52d9\u6240","boring_xml_url":47,"boring_view_url":1,"soilmap_view_url":null,"soiltest_xml_url":0,"soiltest_view_url":0},{"id":466964,"code":"NGIC202103039-0001","latitude":"36.341813888889","longitude":"137.29449166667","source_code":"","project_name":"","survey_name":"\u4ee4\u548c2\u5e74\u5ea6\u98db\u9a28\u5730\u57df\u5730\u8cea\u8abf\u67fb\u696d\u52d9","client_name":"\u56fd\u571f\u4ea4\u901a\u7701\u4e2d\u90e8\u5730\u65b9\u6574\u5099\u5c40\u9ad8\u5c71\u56fd\u9053\u4e8b\u52d9\u6240","boring_xml_url":47,"boring_view_url":1,"soilmap_view_url":null,"soiltest_xml_url":0,"soiltest_view_url":0},{"id":466958,"code":"NGIC202103002-0007","latitude":"33.798317805556","longitude":"133.61729588889","source_code":"","project_name":"","survey_name":"\u4ee4\u548c2\u5e74\u5ea6 \u884c\u5ddd\u672c\u5ddd\u5830\u5824\u65bd\u5de5\u8a08\u753b\u691c\u8a0e\u696d\u52d9","client_name":"\u56fd\u571f\u4ea4\u901a\u7701\u56db\u56fd\u5730\u65b9\u6574\u5099\u5c40\u56db\u56fd\u5c71\u5730\u7802\u9632\u4e8b\u52d9\u6240","boring_xml_url":47,"boring_view_url":1,"soilmap_view_url":null,"soiltest_xml_url":0,"soiltest_view_url":0},{"id":466957,"code":"NGIC202103002-0006","latitude":"33.798309388889","longitude":"133.61761283333","source_code":"","project_name":"","survey_name":"\u4ee4\u548c2\u5e74\u5ea6 \u884c\u5ddd\u672c\u5ddd\u5830\u5824\u65bd\u5de5\u8a08\u753b\u691c\u8a0e\u696d\u52d9","client_name":"\u56fd\u571f\u4ea4\u901a\u7701\u56db\u56fd\u5730\u65b9\u6574\u5099\u5c40\u56db\u56fd\u5c71\u5730\u7802\u9632\u4e8b\u52d9\u6240","boring_xml_url":47,"boring_view_url":1,"soilmap_view_url":null,"soiltest_xml_url":0,"soiltest_view_url":0},{"id":466956,"code":"NGIC202103002-0005","latitude":"33.798185944444","longitude":"133.61744386111","source_code":"","project_name":"","survey_name":"\u4ee4\u548c2\u5e74\u5ea6 \u884c\u5ddd\u672c\u5ddd\u5830\u5824\u65bd\u5de5\u8a08\u753b\u691c\u8a0e\u696d\u52d9","client_name":"\u56fd\u571f\u4ea4\u901a\u7701\u56db\u56fd\u5730\u65b9\u6574\u5099\u5c40\u56db\u56fd\u5c71\u5730\u7802\u9632\u4e8b\u52d9\u6240","boring_xml_url":47,"boring_view_url":1,"soilmap_view_url":null,"soiltest_xml_url":0,"soiltest_view_url":0},{"id":466955,"code":"NGIC202103002-0004","latitude":"33.794625","longitude":"133.61881666667","source_code":"","project_name":"","survey_name":"\u4ee4\u548c2\u5e74\u5ea6 \u884c\u5ddd\u672c\u5ddd\u5830\u5824\u65bd\u5de5\u8a08\u753b\u691c\u8a0e\u696d\u52d9","client_name":"\u56fd\u571f\u4ea4\u901a\u7701\u56db\u56fd\u5730\u65b9\u6574\u5099\u5c40\u56db\u56fd\u5c71\u5730\u7802\u9632\u4e8b\u52d9\u6240","boring_xml_url":47,"boring_view_url":1,"soilmap_view_url":null,"soiltest_xml_url":0,"soiltest_view_url":0},{"id":466954,"code":"NGIC202103002-0003","latitude":"33.794655555556","longitude":"133.6187","source_code":"","project_name":"","survey_name":"\u4ee4\u548c2\u5e74\u5ea6 \u884c\u5ddd\u672c\u5ddd\u5830\u5824\u65bd\u5de5\u8a08\u753b\u691c\u8a0e\u696d\u52d9","client_name":"\u56fd\u571f\u4ea4\u901a\u7701\u56db\u56fd\u5730\u65b9\u6574\u5099\u5c40\u56db\u56fd\u5c71\u5730\u7802\u9632\u4e8b\u52d9\u6240","boring_xml_url":47,"boring_view_url":1,"soilmap_view_url":null,"soiltest_xml_url":0,"soiltest_view_url":0},{"id":466953,"code":"NGIC202103002-0002","latitude":"33.794555555556","longitude":"133.61877777778","source_code":"","project_name":"","survey_name":"\u4ee4\u548c2\u5e74\u5ea6 \u884c\u5ddd\u672c\u5ddd\u5830\u5824\u65bd\u5de5\u8a08\u753b\u691c\u8a0e\u696d\u52d9","client_name":"\u56fd\u571f\u4ea4\u901a\u7701\u56db\u56fd\u5730\u65b9\u6574\u5099\u5c40\u56db\u56fd\u5c71\u5730\u7802\u9632\u4e8b\u52d9\u6240","boring_xml_url":47,"boring_view_url":1,"soilmap_view_url":null,"soiltest_xml_url":0,"soiltest_view_url":0},{"id":466952,"code":"NGIC202103002-0001","latitude":"33.794583333333","longitude":"133.61869444444","source_code":"","project_name":"","survey_name":"\u4ee4\u548c2\u5e74\u5ea6 \u884c\u5ddd\u672c\u5ddd\u5830\u5824\u65bd\u5de5\u8a08\u753b\u691c\u8a0e\u696d\u52d9","client_name":"\u56fd\u571f\u4ea4\u901a\u7701\u56db\u56fd\u5730\u65b9\u6574\u5099\u5c40\u56db\u56fd\u5c71\u5730\u7802\u9632\u4e8b\u52d9\u6240","boring_xml_url":47,"boring_view_url":1,"soilmap_view_url":null,"soiltest_xml_url":0,"soiltest_view_url":0},{"id":466951,"code":"NGIC202103008-0001","latitude":"36.785084416667","longitude":"137.09985813889","source_code":"","project_name":"","survey_name":"\u4f0f\u6728\u5bcc\u5c71\u6e2f(\u65b0\u6e4a\u5730\u533a)\u571f\u8cea\u8abf\u67fb","client_name":"\u56fd\u571f\u4ea4\u901a\u7701\u5317\u9678\u5730\u65b9\u6574\u5099\u5c40\u4f0f\u6728\u5bcc\u5c71\u6e2f\u6e7e\u4e8b\u52d9\u6240\u3000\u65b0\u6e4a\u51fa\u5f35\u6240","boring_xml_url":47,"boring_view_url":1,"soilmap_view_url":71,"soiltest_xml_url":47,"soiltest_view_url":47},{"id":466946,"code":"NGIC202102995-0001","latitude":"34.730101361111","longitude":"135.75693752778","source_code":"","project_name":"\u7cbe\u83ef\u62e1\u5e45\u4e8b\u696d\u65b0\u4e21\u56fd\u6a4b\u8a73\u7d30\u8a2d\u8a08\u4ed6\u696d\u52d9","survey_name":"\u7cbe\u83ef\u62e1\u5e45\u4e8b\u696d\u65b0\u4e21\u56fd\u6a4b\u8a73\u7d30\u8a2d\u8a08\u4ed6\u696d\u52d9","client_name":"\u56fd\u571f\u4ea4\u901a\u7701\u8fd1\u757f\u5730\u65b9\u6574\u5099\u5c40\u4eac\u90fd\u56fd\u9053\u4e8b\u52d9\u6240","boring_xml_url":47,"boring_view_url":1,"soilmap_view_url":null,"soiltest_xml_url":0,"soiltest_view_url":0}]}}