{"header":{"xyz":{"source":[],"mosaic":false},"page":1850,"raw":{"soiltest_result":"0","bbox":"57.598333,109.544722,1.933333,163.806111","page":"1850"},"conditions":{"soiltest_result":0,"north":57.598333,"west":109.544722,"south":1.933333,"east":163.806111},"success":true,"message":""},"data":{"meta":{"total":212844,"page":1850,"pages":7095,"count":30},"values":[{"id":465871,"code":"NGIC202102761-0001","latitude":"36.278594611111","longitude":"136.29126025","source_code":"","project_name":"\u725b\u30ce\u8c37\u9053\u8def","survey_name":"\u4ee4\u548c2\u5e74\u5ea6\u725b\u30ce\u8c37\u9053\u8def\u5730\u8cea\u8abf\u67fb\u696d\u52d9","client_name":"\u56fd\u571f\u4ea4\u901a\u7701\u5317\u9678\u5730\u65b9\u6574\u5099\u5c40\u91d1\u6ca2\u6cb3\u5ddd\u56fd\u9053\u4e8b\u52d9\u6240","boring_xml_url":47,"boring_view_url":1,"soilmap_view_url":null,"soiltest_xml_url":47,"soiltest_view_url":47},{"id":465856,"code":"NGIC202102768-0014","latitude":"42.930444444444","longitude":"142.06813888889","source_code":"","project_name":"\u5ca9\u898b\u6ca2\u9053\u8def\u4e8b\u52d9\u6240\u7ba1\u5185\u5730\u8cea\u8abf\u67fb\u696d\u52d9","survey_name":"\u5ca9\u898b\u6ca2\u9053\u8def\u4e8b\u52d9\u6240\u7ba1\u5185\u5730\u8cea\u8abf\u67fb\u696d\u52d9","client_name":"\u56fd\u571f\u4ea4\u901a\u7701\u5317\u6d77\u9053\u958b\u767a\u5c40\u672d\u5e4c\u958b\u767a\u5efa\u8a2d\u90e8\u672c\u90e8","boring_xml_url":47,"boring_view_url":1,"soilmap_view_url":null,"soiltest_xml_url":0,"soiltest_view_url":0},{"id":465855,"code":"NGIC202102768-0013","latitude":"42.938416666667","longitude":"142.04416666667","source_code":"","project_name":"\u5ca9\u898b\u6ca2\u9053\u8def\u4e8b\u52d9\u6240\u7ba1\u5185\u5730\u8cea\u8abf\u67fb\u696d\u52d9","survey_name":"\u5ca9\u898b\u6ca2\u9053\u8def\u4e8b\u52d9\u6240\u7ba1\u5185\u5730\u8cea\u8abf\u67fb\u696d\u52d9","client_name":"\u56fd\u571f\u4ea4\u901a\u7701\u5317\u6d77\u9053\u958b\u767a\u5c40\u672d\u5e4c\u958b\u767a\u5efa\u8a2d\u90e8\u672c\u90e8","boring_xml_url":47,"boring_view_url":1,"soilmap_view_url":null,"soiltest_xml_url":0,"soiltest_view_url":0},{"id":465854,"code":"NGIC202102768-0012","latitude":"42.938611111111","longitude":"142.04319444444","source_code":"","project_name":"\u5ca9\u898b\u6ca2\u9053\u8def\u4e8b\u52d9\u6240\u7ba1\u5185\u5730\u8cea\u8abf\u67fb\u696d\u52d9","survey_name":"\u5ca9\u898b\u6ca2\u9053\u8def\u4e8b\u52d9\u6240\u7ba1\u5185\u5730\u8cea\u8abf\u67fb\u696d\u52d9","client_name":"\u56fd\u571f\u4ea4\u901a\u7701\u5317\u6d77\u9053\u958b\u767a\u5c40\u672d\u5e4c\u958b\u767a\u5efa\u8a2d\u90e8\u672c\u90e8","boring_xml_url":47,"boring_view_url":1,"soilmap_view_url":null,"soiltest_xml_url":0,"soiltest_view_url":0},{"id":465853,"code":"NGIC202102768-0011","latitude":"42.916638888889","longitude":"141.95386111111","source_code":"","project_name":"\u5ca9\u898b\u6ca2\u9053\u8def\u4e8b\u52d9\u6240\u7ba1\u5185\u5730\u8cea\u8abf\u67fb\u696d\u52d9","survey_name":"\u5ca9\u898b\u6ca2\u9053\u8def\u4e8b\u52d9\u6240\u7ba1\u5185\u5730\u8cea\u8abf\u67fb\u696d\u52d9","client_name":"\u56fd\u571f\u4ea4\u901a\u7701\u5317\u6d77\u9053\u958b\u767a\u5c40\u672d\u5e4c\u958b\u767a\u5efa\u8a2d\u90e8\u672c\u90e8","boring_xml_url":47,"boring_view_url":1,"soilmap_view_url":null,"soiltest_xml_url":0,"soiltest_view_url":0},{"id":465852,"code":"NGIC202102768-0010","latitude":"42.916527777778","longitude":"141.95355555556","source_code":"","project_name":"\u5ca9\u898b\u6ca2\u9053\u8def\u4e8b\u52d9\u6240\u7ba1\u5185\u5730\u8cea\u8abf\u67fb\u696d\u52d9","survey_name":"\u5ca9\u898b\u6ca2\u9053\u8def\u4e8b\u52d9\u6240\u7ba1\u5185\u5730\u8cea\u8abf\u67fb\u696d\u52d9","client_name":"\u56fd\u571f\u4ea4\u901a\u7701\u5317\u6d77\u9053\u958b\u767a\u5c40\u672d\u5e4c\u958b\u767a\u5efa\u8a2d\u90e8\u672c\u90e8","boring_xml_url":47,"boring_view_url":1,"soilmap_view_url":null,"soiltest_xml_url":0,"soiltest_view_url":0},{"id":465851,"code":"NGIC202102768-0009","latitude":"42.916222222222","longitude":"141.95252777778","source_code":"","project_name":"\u5ca9\u898b\u6ca2\u9053\u8def\u4e8b\u52d9\u6240\u7ba1\u5185\u5730\u8cea\u8abf\u67fb\u696d\u52d9","survey_name":"\u5ca9\u898b\u6ca2\u9053\u8def\u4e8b\u52d9\u6240\u7ba1\u5185\u5730\u8cea\u8abf\u67fb\u696d\u52d9","client_name":"\u56fd\u571f\u4ea4\u901a\u7701\u5317\u6d77\u9053\u958b\u767a\u5c40\u672d\u5e4c\u958b\u767a\u5efa\u8a2d\u90e8\u672c\u90e8","boring_xml_url":47,"boring_view_url":1,"soilmap_view_url":null,"soiltest_xml_url":0,"soiltest_view_url":0},{"id":465850,"code":"NGIC202102768-0008","latitude":"42.9105","longitude":"141.94497222222","source_code":"","project_name":"\u5ca9\u898b\u6ca2\u9053\u8def\u4e8b\u52d9\u6240\u7ba1\u5185\u5730\u8cea\u8abf\u67fb\u696d\u52d9","survey_name":"\u5ca9\u898b\u6ca2\u9053\u8def\u4e8b\u52d9\u6240\u7ba1\u5185\u5730\u8cea\u8abf\u67fb\u696d\u52d9","client_name":"\u56fd\u571f\u4ea4\u901a\u7701\u5317\u6d77\u9053\u958b\u767a\u5c40\u672d\u5e4c\u958b\u767a\u5efa\u8a2d\u90e8\u672c\u90e8","boring_xml_url":47,"boring_view_url":1,"soilmap_view_url":null,"soiltest_xml_url":0,"soiltest_view_url":0},{"id":465849,"code":"NGIC202102768-0007","latitude":"42.910166666667","longitude":"141.94188888889","source_code":"","project_name":"\u5ca9\u898b\u6ca2\u9053\u8def\u4e8b\u52d9\u6240\u7ba1\u5185\u5730\u8cea\u8abf\u67fb\u696d\u52d9","survey_name":"\u5ca9\u898b\u6ca2\u9053\u8def\u4e8b\u52d9\u6240\u7ba1\u5185\u5730\u8cea\u8abf\u67fb\u696d\u52d9","client_name":"\u56fd\u571f\u4ea4\u901a\u7701\u5317\u6d77\u9053\u958b\u767a\u5c40\u672d\u5e4c\u958b\u767a\u5efa\u8a2d\u90e8\u672c\u90e8","boring_xml_url":47,"boring_view_url":1,"soilmap_view_url":null,"soiltest_xml_url":0,"soiltest_view_url":0},{"id":465848,"code":"NGIC202102768-0006","latitude":"42.910138888889","longitude":"141.94236111111","source_code":"","project_name":"\u5ca9\u898b\u6ca2\u9053\u8def\u4e8b\u52d9\u6240\u7ba1\u5185\u5730\u8cea\u8abf\u67fb\u696d\u52d9","survey_name":"\u5ca9\u898b\u6ca2\u9053\u8def\u4e8b\u52d9\u6240\u7ba1\u5185\u5730\u8cea\u8abf\u67fb\u696d\u52d9","client_name":"\u56fd\u571f\u4ea4\u901a\u7701\u5317\u6d77\u9053\u958b\u767a\u5c40\u672d\u5e4c\u958b\u767a\u5efa\u8a2d\u90e8\u672c\u90e8","boring_xml_url":47,"boring_view_url":1,"soilmap_view_url":null,"soiltest_xml_url":0,"soiltest_view_url":0},{"id":465847,"code":"NGIC202102768-0005","latitude":"43.016027777778","longitude":"141.79080555556","source_code":"","project_name":"\u5ca9\u898b\u6ca2\u9053\u8def\u4e8b\u52d9\u6240\u7ba1\u5185\u5730\u8cea\u8abf\u67fb\u696d\u52d9","survey_name":"\u5ca9\u898b\u6ca2\u9053\u8def\u4e8b\u52d9\u6240\u7ba1\u5185\u5730\u8cea\u8abf\u67fb\u696d\u52d9","client_name":"\u56fd\u571f\u4ea4\u901a\u7701\u5317\u6d77\u9053\u958b\u767a\u5c40\u672d\u5e4c\u958b\u767a\u5efa\u8a2d\u90e8\u672c\u90e8","boring_xml_url":47,"boring_view_url":1,"soilmap_view_url":null,"soiltest_xml_url":47,"soiltest_view_url":47},{"id":465846,"code":"NGIC202102768-0004","latitude":"43.024444444444","longitude":"141.80816666667","source_code":"","project_name":"\u5ca9\u898b\u6ca2\u9053\u8def\u4e8b\u52d9\u6240\u7ba1\u5185\u5730\u8cea\u8abf\u67fb\u696d\u52d9","survey_name":"\u5ca9\u898b\u6ca2\u9053\u8def\u4e8b\u52d9\u6240\u7ba1\u5185\u5730\u8cea\u8abf\u67fb\u696d\u52d9","client_name":"\u56fd\u571f\u4ea4\u901a\u7701\u5317\u6d77\u9053\u958b\u767a\u5c40\u672d\u5e4c\u958b\u767a\u5efa\u8a2d\u90e8\u672c\u90e8","boring_xml_url":47,"boring_view_url":1,"soilmap_view_url":null,"soiltest_xml_url":47,"soiltest_view_url":47},{"id":465845,"code":"NGIC202102768-0003","latitude":"43.025083333333","longitude":"141.80911111111","source_code":"","project_name":"\u5ca9\u898b\u6ca2\u9053\u8def\u4e8b\u52d9\u6240\u7ba1\u5185\u5730\u8cea\u8abf\u67fb\u696d\u52d9","survey_name":"\u5ca9\u898b\u6ca2\u9053\u8def\u4e8b\u52d9\u6240\u7ba1\u5185\u5730\u8cea\u8abf\u67fb\u696d\u52d9","client_name":"\u56fd\u571f\u4ea4\u901a\u7701\u5317\u6d77\u9053\u958b\u767a\u5c40\u672d\u5e4c\u958b\u767a\u5efa\u8a2d\u90e8\u672c\u90e8","boring_xml_url":47,"boring_view_url":1,"soilmap_view_url":null,"soiltest_xml_url":47,"soiltest_view_url":47},{"id":465844,"code":"NGIC202102768-0002","latitude":"43.1555","longitude":"141.75625","source_code":"","project_name":"\u5ca9\u898b\u6ca2\u9053\u8def\u4e8b\u52d9\u6240\u7ba1\u5185\u5730\u8cea\u8abf\u67fb\u696d\u52d9","survey_name":"\u5ca9\u898b\u6ca2\u9053\u8def\u4e8b\u52d9\u6240\u7ba1\u5185\u5730\u8cea\u8abf\u67fb\u696d\u52d9","client_name":"\u56fd\u571f\u4ea4\u901a\u7701\u5317\u6d77\u9053\u958b\u767a\u5c40\u672d\u5e4c\u958b\u767a\u5efa\u8a2d\u90e8\u672c\u90e8","boring_xml_url":47,"boring_view_url":1,"soilmap_view_url":null,"soiltest_xml_url":47,"soiltest_view_url":47},{"id":465843,"code":"NGIC202102768-0001","latitude":"43.156194444444","longitude":"141.75625","source_code":"","project_name":"\u5ca9\u898b\u6ca2\u9053\u8def\u4e8b\u52d9\u6240\u7ba1\u5185\u5730\u8cea\u8abf\u67fb\u696d\u52d9","survey_name":"\u5ca9\u898b\u6ca2\u9053\u8def\u4e8b\u52d9\u6240\u7ba1\u5185\u5730\u8cea\u8abf\u67fb\u696d\u52d9","client_name":"\u56fd\u571f\u4ea4\u901a\u7701\u5317\u6d77\u9053\u958b\u767a\u5c40\u672d\u5e4c\u958b\u767a\u5efa\u8a2d\u90e8\u672c\u90e8","boring_xml_url":47,"boring_view_url":1,"soilmap_view_url":null,"soiltest_xml_url":47,"soiltest_view_url":47},{"id":465842,"code":"NGIC202102759-0011","latitude":"36.611294166667","longitude":"136.70545055556","source_code":"","project_name":"\u91d1\u6ca2\u6771\u90e8\u74b0\u72b6\u9053\u8def\u68ee\u672c\u30c8\u30f3\u30cd\u30ebII\u671f\u7dda","survey_name":"\u4ee4\u548c3\u5e74\u5ea6\u91d1\u6ca2\u6cb3\u5ddd\u56fd\u9053\u9053\u8def\u5730\u8cea\u8abf\u67fb\u696d\u52d9","client_name":"\u56fd\u571f\u4ea4\u901a\u7701\u5317\u9678\u5730\u65b9\u6574\u5099\u5c40\u91d1\u6ca2\u6cb3\u5ddd\u56fd\u9053\u4e8b\u52d9\u6240","boring_xml_url":47,"boring_view_url":1,"soilmap_view_url":null,"soiltest_xml_url":0,"soiltest_view_url":0},{"id":465841,"code":"NGIC202102759-0010","latitude":"36.616455","longitude":"136.70507111111","source_code":"","project_name":"\u91d1\u6ca2\u6771\u90e8\u74b0\u72b6\u9053\u8def\u68ee\u672c\u30c8\u30f3\u30cd\u30ebII\u671f\u7dda","survey_name":"\u4ee4\u548c3\u5e74\u5ea6\u91d1\u6ca2\u6cb3\u5ddd\u56fd\u9053\u9053\u8def\u5730\u8cea\u8abf\u67fb\u696d\u52d9","client_name":"\u56fd\u571f\u4ea4\u901a\u7701\u5317\u9678\u5730\u65b9\u6574\u5099\u5c40\u91d1\u6ca2\u6cb3\u5ddd\u56fd\u9053\u4e8b\u52d9\u6240","boring_xml_url":47,"boring_view_url":1,"soilmap_view_url":null,"soiltest_xml_url":0,"soiltest_view_url":0},{"id":465840,"code":"NGIC202102759-0009","latitude":"36.610708055556","longitude":"136.70542861111","source_code":"","project_name":"\u91d1\u6ca2\u6771\u90e8\u74b0\u72b6\u9053\u8def\u68ee\u672c\u30c8\u30f3\u30cd\u30ebII\u671f\u7dda","survey_name":"\u4ee4\u548c3\u5e74\u5ea6\u91d1\u6ca2\u6cb3\u5ddd\u56fd\u9053\u9053\u8def\u5730\u8cea\u8abf\u67fb\u696d\u52d9","client_name":"\u56fd\u571f\u4ea4\u901a\u7701\u5317\u9678\u5730\u65b9\u6574\u5099\u5c40\u91d1\u6ca2\u6cb3\u5ddd\u56fd\u9053\u4e8b\u52d9\u6240","boring_xml_url":47,"boring_view_url":1,"soilmap_view_url":null,"soiltest_xml_url":47,"soiltest_view_url":47},{"id":465839,"code":"NGIC202102759-0008","latitude":"36.61161","longitude":"136.70546111111","source_code":"","project_name":"\u91d1\u6ca2\u6771\u90e8\u74b0\u72b6\u9053\u8def\u68ee\u672c\u30c8\u30f3\u30cd\u30ebII\u671f\u7dda","survey_name":"\u4ee4\u548c3\u5e74\u5ea6\u91d1\u6ca2\u6cb3\u5ddd\u56fd\u9053\u9053\u8def\u5730\u8cea\u8abf\u67fb\u696d\u52d9","client_name":"\u56fd\u571f\u4ea4\u901a\u7701\u5317\u9678\u5730\u65b9\u6574\u5099\u5c40\u91d1\u6ca2\u6cb3\u5ddd\u56fd\u9053\u4e8b\u52d9\u6240","boring_xml_url":47,"boring_view_url":1,"soilmap_view_url":null,"soiltest_xml_url":0,"soiltest_view_url":0},{"id":465838,"code":"NGIC202102759-0007","latitude":"36.614248888889","longitude":"136.70513527778","source_code":"","project_name":"\u91d1\u6ca2\u6771\u90e8\u74b0\u72b6\u9053\u8def\u68ee\u672c\u30c8\u30f3\u30cd\u30ebII\u671f\u7dda","survey_name":"\u4ee4\u548c3\u5e74\u5ea6\u91d1\u6ca2\u6cb3\u5ddd\u56fd\u9053\u9053\u8def\u5730\u8cea\u8abf\u67fb\u696d\u52d9","client_name":"\u56fd\u571f\u4ea4\u901a\u7701\u5317\u9678\u5730\u65b9\u6574\u5099\u5c40\u91d1\u6ca2\u6cb3\u5ddd\u56fd\u9053\u4e8b\u52d9\u6240","boring_xml_url":47,"boring_view_url":1,"soilmap_view_url":null,"soiltest_xml_url":47,"soiltest_view_url":47},{"id":465837,"code":"NGIC202102759-0006","latitude":"36.616049722222","longitude":"136.70506111111","source_code":"","project_name":"\u91d1\u6ca2\u6771\u90e8\u74b0\u72b6\u9053\u8def\u68ee\u672c\u30c8\u30f3\u30cd\u30ebII\u671f\u7dda","survey_name":"\u4ee4\u548c3\u5e74\u5ea6\u91d1\u6ca2\u6cb3\u5ddd\u56fd\u9053\u9053\u8def\u5730\u8cea\u8abf\u67fb\u696d\u52d9","client_name":"\u56fd\u571f\u4ea4\u901a\u7701\u5317\u9678\u5730\u65b9\u6574\u5099\u5c40\u91d1\u6ca2\u6cb3\u5ddd\u56fd\u9053\u4e8b\u52d9\u6240","boring_xml_url":47,"boring_view_url":1,"soilmap_view_url":null,"soiltest_xml_url":0,"soiltest_view_url":0},{"id":465836,"code":"NGIC202102759-0005","latitude":"36.616752222222","longitude":"136.70508472222","source_code":"","project_name":"\u91d1\u6ca2\u6771\u90e8\u74b0\u72b6\u9053\u8def\u68ee\u672c\u30c8\u30f3\u30cd\u30ebII\u671f\u7dda","survey_name":"\u4ee4\u548c3\u5e74\u5ea6\u91d1\u6ca2\u6cb3\u5ddd\u56fd\u9053\u9053\u8def\u5730\u8cea\u8abf\u67fb\u696d\u52d9","client_name":"\u56fd\u571f\u4ea4\u901a\u7701\u5317\u9678\u5730\u65b9\u6574\u5099\u5c40\u91d1\u6ca2\u6cb3\u5ddd\u56fd\u9053\u4e8b\u52d9\u6240","boring_xml_url":47,"boring_view_url":1,"soilmap_view_url":null,"soiltest_xml_url":47,"soiltest_view_url":47},{"id":465835,"code":"NGIC202102759-0004","latitude":"36.673841388889","longitude":"136.80581713889","source_code":"","project_name":"\u5036\u5229\u4f3d\u7f85\u9632\u707d\u6cb3\u5185\u5730\u533a\u9ad8\u76db\u571f","survey_name":"\u4ee4\u548c3\u5e74\u5ea6\u91d1\u6ca2\u6cb3\u5ddd\u56fd\u9053\u9053\u8def\u5730\u8cea\u8abf\u67fb\u696d\u52d9","client_name":"\u56fd\u571f\u4ea4\u901a\u7701\u5317\u9678\u5730\u65b9\u6574\u5099\u5c40\u91d1\u6ca2\u6cb3\u5ddd\u56fd\u9053\u4e8b\u52d9\u6240","boring_xml_url":47,"boring_view_url":1,"soilmap_view_url":null,"soiltest_xml_url":47,"soiltest_view_url":47},{"id":465834,"code":"NGIC202102759-0003","latitude":"37.024328055556","longitude":"136.94978333333","source_code":"","project_name":"\u7530\u9db4\u6d5c\u4e03\u5c3e\u9053\u8defJR\u4e03\u5c3e\u8de8\u7dda\u6a4b","survey_name":"\u4ee4\u548c3\u5e74\u5ea6\u91d1\u6ca2\u6cb3\u5ddd\u56fd\u9053\u9053\u8def\u5730\u8cea\u8abf\u67fb\u696d\u52d9","client_name":"\u56fd\u571f\u4ea4\u901a\u7701\u5317\u9678\u5730\u65b9\u6574\u5099\u5c40\u91d1\u6ca2\u6cb3\u5ddd\u56fd\u9053\u4e8b\u52d9\u6240","boring_xml_url":47,"boring_view_url":1,"soilmap_view_url":null,"soiltest_xml_url":47,"soiltest_view_url":47},{"id":465833,"code":"NGIC202102759-0002","latitude":"37.025382222222","longitude":"136.94939472222","source_code":"","project_name":"\u7530\u9db4\u6d5c\u4e03\u5c3e\u9053\u8defJR\u4e03\u5c3e\u8de8\u7dda\u6a4b","survey_name":"\u4ee4\u548c3\u5e74\u5ea6\u91d1\u6ca2\u6cb3\u5ddd\u56fd\u9053\u9053\u8def\u5730\u8cea\u8abf\u67fb\u696d\u52d9","client_name":"\u56fd\u571f\u4ea4\u901a\u7701\u5317\u9678\u5730\u65b9\u6574\u5099\u5c40\u91d1\u6ca2\u6cb3\u5ddd\u56fd\u9053\u4e8b\u52d9\u6240","boring_xml_url":47,"boring_view_url":1,"soilmap_view_url":null,"soiltest_xml_url":47,"soiltest_view_url":47},{"id":465832,"code":"NGIC202102759-0001","latitude":"37.025446388889","longitude":"136.94936861111","source_code":"","project_name":"\u7530\u9db4\u6d5c\u4e03\u5c3e\u9053\u8defJR\u4e03\u5c3e\u8de8\u7dda\u6a4b","survey_name":"\u4ee4\u548c3\u5e74\u5ea6\u91d1\u6ca2\u6cb3\u5ddd\u56fd\u9053\u9053\u8def\u5730\u8cea\u8abf\u67fb\u696d\u52d9","client_name":"\u56fd\u571f\u4ea4\u901a\u7701\u5317\u9678\u5730\u65b9\u6574\u5099\u5c40\u91d1\u6ca2\u6cb3\u5ddd\u56fd\u9053\u4e8b\u52d9\u6240","boring_xml_url":47,"boring_view_url":1,"soilmap_view_url":null,"soiltest_xml_url":47,"soiltest_view_url":47},{"id":465794,"code":"NGIC202102709-0004","latitude":"37.624194444444","longitude":"138.82886111111","source_code":"","project_name":"","survey_name":"\u4ee4\u548c3\u5e74\u5ea6\u4fe1\u6fc3\u5ddd\u6cb3\u5ddd\u4e8b\u52d9\u6240\u7ba1\u5185\u5730\u8cea\u8abf\u67fb\u696d\u52d9JR\u8d8a\u5f8c\u7dda\u4fe1\u6fc3\u5ddd\u5206\u6c34\u6a4b\u6881\u5de6\u53f3\u5cb8\u6a4b\u8a70\u5824\u9632\u5730\u8cea\u8abf\u67fb","client_name":"\u56fd\u571f\u4ea4\u901a\u7701\u5317\u9678\u5730\u65b9\u6574\u5099\u5c40\u4fe1\u6fc3\u5ddd\u6cb3\u5ddd\u4e8b\u52d9\u6240","boring_xml_url":47,"boring_view_url":1,"soilmap_view_url":null,"soiltest_xml_url":47,"soiltest_view_url":47},{"id":465793,"code":"NGIC202102709-0003","latitude":"37.624222222222","longitude":"138.82894444444","source_code":"","project_name":"","survey_name":"\u4ee4\u548c3\u5e74\u5ea6\u4fe1\u6fc3\u5ddd\u6cb3\u5ddd\u4e8b\u52d9\u6240\u7ba1\u5185\u5730\u8cea\u8abf\u67fb\u696d\u52d9JR\u8d8a\u5f8c\u7dda\u4fe1\u6fc3\u5ddd\u5206\u6c34\u6a4b\u6881\u5de6\u53f3\u5cb8\u6a4b\u8a70\u5824\u9632\u5730\u8cea\u8abf\u67fb","client_name":"\u56fd\u571f\u4ea4\u901a\u7701\u5317\u9678\u5730\u65b9\u6574\u5099\u5c40\u4fe1\u6fc3\u5ddd\u6cb3\u5ddd\u4e8b\u52d9\u6240","boring_xml_url":47,"boring_view_url":1,"soilmap_view_url":null,"soiltest_xml_url":47,"soiltest_view_url":47},{"id":465792,"code":"NGIC202102709-0002","latitude":"37.627","longitude":"138.83463888889","source_code":"","project_name":"","survey_name":"\u4ee4\u548c3\u5e74\u5ea6\u4fe1\u6fc3\u5ddd\u6cb3\u5ddd\u4e8b\u52d9\u6240\u7ba1\u5185\u5730\u8cea\u8abf\u67fb\u696d\u52d9JR\u8d8a\u5f8c\u7dda\u4fe1\u6fc3\u5ddd\u5206\u6c34\u6a4b\u6881\u5de6\u53f3\u5cb8\u6a4b\u8a70\u5824\u9632\u5730\u8cea\u8abf\u67fb","client_name":"\u56fd\u571f\u4ea4\u901a\u7701\u5317\u9678\u5730\u65b9\u6574\u5099\u5c40\u4fe1\u6fc3\u5ddd\u6cb3\u5ddd\u4e8b\u52d9\u6240","boring_xml_url":47,"boring_view_url":1,"soilmap_view_url":null,"soiltest_xml_url":47,"soiltest_view_url":47},{"id":465791,"code":"NGIC202102709-0001","latitude":"37.626972222222","longitude":"138.83452777778","source_code":"","project_name":"","survey_name":"\u4ee4\u548c3\u5e74\u5ea6\u4fe1\u6fc3\u5ddd\u6cb3\u5ddd\u4e8b\u52d9\u6240\u7ba1\u5185\u5730\u8cea\u8abf\u67fb\u696d\u52d9JR\u8d8a\u5f8c\u7dda\u4fe1\u6fc3\u5ddd\u5206\u6c34\u6a4b\u6881\u5de6\u53f3\u5cb8\u6a4b\u8a70\u5824\u9632\u5730\u8cea\u8abf\u67fb","client_name":"\u56fd\u571f\u4ea4\u901a\u7701\u5317\u9678\u5730\u65b9\u6574\u5099\u5c40\u4fe1\u6fc3\u5ddd\u6cb3\u5ddd\u4e8b\u52d9\u6240","boring_xml_url":47,"boring_view_url":1,"soilmap_view_url":null,"soiltest_xml_url":47,"soiltest_view_url":47}]}}