{"header":{"xyz":{"source":[],"mosaic":false},"page":1856,"raw":{"soiltest_result":"0","bbox":"57.598333,109.544722,1.933333,163.806111","page":"1856"},"conditions":{"soiltest_result":0,"north":57.598333,"west":109.544722,"south":1.933333,"east":163.806111},"success":true,"message":""},"data":{"meta":{"total":212844,"page":1856,"pages":7095,"count":30},"values":[{"id":465080,"code":"NGIC202102578-0003","latitude":"34.842527777778","longitude":"137.82352777778","source_code":"","project_name":"","survey_name":"\u4ee4\u548c3\u5e74\u5ea6\u6d5c\u677e\u6cb3\u5ddd\u7ba1\u5185\u5730\u8cea\u8abf\u67fb\u696d\u52d9","client_name":"\u56fd\u571f\u4ea4\u901a\u7701\u4e2d\u90e8\u5730\u65b9\u6574\u5099\u5c40\u6d5c\u677e\u6cb3\u5ddd\u56fd\u9053\u4e8b\u52d9\u6240","boring_xml_url":47,"boring_view_url":1,"soilmap_view_url":null,"soiltest_xml_url":0,"soiltest_view_url":0},{"id":465079,"code":"NGIC202102578-0002","latitude":"34.838111111111","longitude":"137.82191666667","source_code":"","project_name":"","survey_name":"\u4ee4\u548c3\u5e74\u5ea6\u6d5c\u677e\u6cb3\u5ddd\u7ba1\u5185\u5730\u8cea\u8abf\u67fb\u696d\u52d9","client_name":"\u56fd\u571f\u4ea4\u901a\u7701\u4e2d\u90e8\u5730\u65b9\u6574\u5099\u5c40\u6d5c\u677e\u6cb3\u5ddd\u56fd\u9053\u4e8b\u52d9\u6240","boring_xml_url":47,"boring_view_url":1,"soilmap_view_url":null,"soiltest_xml_url":47,"soiltest_view_url":47},{"id":465078,"code":"NGIC202102578-0001","latitude":"34.838083333333","longitude":"137.82205555556","source_code":"","project_name":"","survey_name":"\u4ee4\u548c3\u5e74\u5ea6\u6d5c\u677e\u6cb3\u5ddd\u7ba1\u5185\u5730\u8cea\u8abf\u67fb\u696d\u52d9","client_name":"\u56fd\u571f\u4ea4\u901a\u7701\u4e2d\u90e8\u5730\u65b9\u6574\u5099\u5c40\u6d5c\u677e\u6cb3\u5ddd\u56fd\u9053\u4e8b\u52d9\u6240","boring_xml_url":47,"boring_view_url":1,"soilmap_view_url":null,"soiltest_xml_url":0,"soiltest_view_url":0},{"id":464969,"code":"NGIC202102569-0010","latitude":"42.658175","longitude":"141.57417777778","source_code":"","project_name":"\u6a3d\u524d\u5c71\u706b\u5c71\u7802\u9632\u4e8b\u696d","survey_name":"\u6a3d\u524d\u5c71\u6d41\u57df\u5730\u8cea\u8abf\u67fb\u696d\u52d9","client_name":"\u56fd\u571f\u4ea4\u901a\u7701\u5317\u6d77\u9053\u958b\u767a\u5c40\u5ba4\u862d\u958b\u767a\u5efa\u8a2d\u90e8\u82eb\u5c0f\u7267\u6cb3\u5ddd\u4e8b\u52d9\u6240","boring_xml_url":47,"boring_view_url":1,"soilmap_view_url":null,"soiltest_xml_url":0,"soiltest_view_url":0},{"id":464968,"code":"NGIC202102569-0009","latitude":"42.651286111111","longitude":"141.52439722222","source_code":"","project_name":"\u6a3d\u524d\u5c71\u706b\u5c71\u7802\u9632\u4e8b\u696d","survey_name":"\u6a3d\u524d\u5c71\u6d41\u57df\u5730\u8cea\u8abf\u67fb\u696d\u52d9","client_name":"\u56fd\u571f\u4ea4\u901a\u7701\u5317\u6d77\u9053\u958b\u767a\u5c40\u5ba4\u862d\u958b\u767a\u5efa\u8a2d\u90e8\u82eb\u5c0f\u7267\u6cb3\u5ddd\u4e8b\u52d9\u6240","boring_xml_url":47,"boring_view_url":1,"soilmap_view_url":null,"soiltest_xml_url":47,"soiltest_view_url":47},{"id":464967,"code":"NGIC202102569-0008","latitude":"42.650905555556","longitude":"141.52421388889","source_code":"","project_name":"\u6a3d\u524d\u5c71\u706b\u5c71\u7802\u9632\u4e8b\u696d","survey_name":"\u6a3d\u524d\u5c71\u6d41\u57df\u5730\u8cea\u8abf\u67fb\u696d\u52d9","client_name":"\u56fd\u571f\u4ea4\u901a\u7701\u5317\u6d77\u9053\u958b\u767a\u5c40\u5ba4\u862d\u958b\u767a\u5efa\u8a2d\u90e8\u82eb\u5c0f\u7267\u6cb3\u5ddd\u4e8b\u52d9\u6240","boring_xml_url":47,"boring_view_url":1,"soilmap_view_url":null,"soiltest_xml_url":0,"soiltest_view_url":0},{"id":464966,"code":"NGIC202102569-0007","latitude":"42.6511","longitude":"141.52430555556","source_code":"","project_name":"\u6a3d\u524d\u5c71\u706b\u5c71\u7802\u9632\u4e8b\u696d","survey_name":"\u6a3d\u524d\u5c71\u6d41\u57df\u5730\u8cea\u8abf\u67fb\u696d\u52d9","client_name":"\u56fd\u571f\u4ea4\u901a\u7701\u5317\u6d77\u9053\u958b\u767a\u5c40\u5ba4\u862d\u958b\u767a\u5efa\u8a2d\u90e8\u82eb\u5c0f\u7267\u6cb3\u5ddd\u4e8b\u52d9\u6240","boring_xml_url":47,"boring_view_url":1,"soilmap_view_url":null,"soiltest_xml_url":47,"soiltest_view_url":47},{"id":464965,"code":"NGIC202102569-0006","latitude":"42.651652777778","longitude":"141.52541388889","source_code":"","project_name":"\u6a3d\u524d\u5c71\u706b\u5c71\u7802\u9632\u4e8b\u696d","survey_name":"\u6a3d\u524d\u5c71\u6d41\u57df\u5730\u8cea\u8abf\u67fb\u696d\u52d9","client_name":"\u56fd\u571f\u4ea4\u901a\u7701\u5317\u6d77\u9053\u958b\u767a\u5c40\u5ba4\u862d\u958b\u767a\u5efa\u8a2d\u90e8\u82eb\u5c0f\u7267\u6cb3\u5ddd\u4e8b\u52d9\u6240","boring_xml_url":47,"boring_view_url":1,"soilmap_view_url":null,"soiltest_xml_url":0,"soiltest_view_url":0},{"id":464964,"code":"NGIC202102569-0005","latitude":"42.651605555556","longitude":"141.52474166667","source_code":"","project_name":"\u6a3d\u524d\u5c71\u706b\u5c71\u7802\u9632\u4e8b\u696d","survey_name":"\u6a3d\u524d\u5c71\u6d41\u57df\u5730\u8cea\u8abf\u67fb\u696d\u52d9","client_name":"\u56fd\u571f\u4ea4\u901a\u7701\u5317\u6d77\u9053\u958b\u767a\u5c40\u5ba4\u862d\u958b\u767a\u5efa\u8a2d\u90e8\u82eb\u5c0f\u7267\u6cb3\u5ddd\u4e8b\u52d9\u6240","boring_xml_url":47,"boring_view_url":1,"soilmap_view_url":null,"soiltest_xml_url":0,"soiltest_view_url":0},{"id":464963,"code":"NGIC202102569-0004","latitude":"42.651630555556","longitude":"141.52508055556","source_code":"","project_name":"\u6a3d\u524d\u5c71\u706b\u5c71\u7802\u9632\u4e8b\u696d","survey_name":"\u6a3d\u524d\u5c71\u6d41\u57df\u5730\u8cea\u8abf\u67fb\u696d\u52d9","client_name":"\u56fd\u571f\u4ea4\u901a\u7701\u5317\u6d77\u9053\u958b\u767a\u5c40\u5ba4\u862d\u958b\u767a\u5efa\u8a2d\u90e8\u82eb\u5c0f\u7267\u6cb3\u5ddd\u4e8b\u52d9\u6240","boring_xml_url":47,"boring_view_url":1,"soilmap_view_url":null,"soiltest_xml_url":0,"soiltest_view_url":0},{"id":464962,"code":"NGIC202102569-0003","latitude":"42.624858333333","longitude":"141.44726944444","source_code":"","project_name":"\u6a3d\u524d\u5c71\u706b\u5c71\u7802\u9632\u4e8b\u696d","survey_name":"\u6a3d\u524d\u5c71\u6d41\u57df\u5730\u8cea\u8abf\u67fb\u696d\u52d9","client_name":"\u56fd\u571f\u4ea4\u901a\u7701\u5317\u6d77\u9053\u958b\u767a\u5c40\u5ba4\u862d\u958b\u767a\u5efa\u8a2d\u90e8\u82eb\u5c0f\u7267\u6cb3\u5ddd\u4e8b\u52d9\u6240","boring_xml_url":47,"boring_view_url":1,"soilmap_view_url":null,"soiltest_xml_url":0,"soiltest_view_url":0},{"id":464961,"code":"NGIC202102569-0002","latitude":"42.625236111111","longitude":"141.44875555556","source_code":"","project_name":"\u6a3d\u524d\u5c71\u706b\u5c71\u7802\u9632\u4e8b\u696d","survey_name":"\u6a3d\u524d\u5c71\u6d41\u57df\u5730\u8cea\u8abf\u67fb\u696d\u52d9","client_name":"\u56fd\u571f\u4ea4\u901a\u7701\u5317\u6d77\u9053\u958b\u767a\u5c40\u5ba4\u862d\u958b\u767a\u5efa\u8a2d\u90e8\u82eb\u5c0f\u7267\u6cb3\u5ddd\u4e8b\u52d9\u6240","boring_xml_url":47,"boring_view_url":1,"soilmap_view_url":null,"soiltest_xml_url":0,"soiltest_view_url":0},{"id":464960,"code":"NGIC202102569-0001","latitude":"42.625422222222","longitude":"141.44956111111","source_code":"","project_name":"\u6a3d\u524d\u5c71\u706b\u5c71\u7802\u9632\u4e8b\u696d","survey_name":"\u6a3d\u524d\u5c71\u6d41\u57df\u5730\u8cea\u8abf\u67fb\u696d\u52d9","client_name":"\u56fd\u571f\u4ea4\u901a\u7701\u5317\u6d77\u9053\u958b\u767a\u5c40\u5ba4\u862d\u958b\u767a\u5efa\u8a2d\u90e8\u82eb\u5c0f\u7267\u6cb3\u5ddd\u4e8b\u52d9\u6240","boring_xml_url":47,"boring_view_url":1,"soilmap_view_url":null,"soiltest_xml_url":0,"soiltest_view_url":0},{"id":464909,"code":"NGIC202102562-0008","latitude":"38.737461388889","longitude":"140.12860555556","source_code":"","project_name":"","survey_name":"\u4ee4\u548c3\u5e74\u5ea6\u53e4\u53e3\u5730\u533a\u5730\u8cea\u8abf\u67fb\u696d\u52d9","client_name":"\u56fd\u571f\u4ea4\u901a\u7701\u6771\u5317\u5730\u65b9\u6574\u5099\u5c40\u5c71\u5f62\u6cb3\u5ddd\u56fd\u9053\u4e8b\u52d9\u6240","boring_xml_url":47,"boring_view_url":1,"soilmap_view_url":null,"soiltest_xml_url":47,"soiltest_view_url":47},{"id":464908,"code":"NGIC202102562-0007","latitude":"38.735808333333","longitude":"140.13216777778","source_code":"","project_name":"","survey_name":"\u4ee4\u548c3\u5e74\u5ea6\u53e4\u53e3\u5730\u533a\u5730\u8cea\u8abf\u67fb\u696d\u52d9","client_name":"\u56fd\u571f\u4ea4\u901a\u7701\u6771\u5317\u5730\u65b9\u6574\u5099\u5c40\u5c71\u5f62\u6cb3\u5ddd\u56fd\u9053\u4e8b\u52d9\u6240","boring_xml_url":47,"boring_view_url":1,"soilmap_view_url":null,"soiltest_xml_url":47,"soiltest_view_url":47},{"id":464907,"code":"NGIC202102562-0006","latitude":"38.735687222222","longitude":"140.13242916667","source_code":"","project_name":"","survey_name":"\u4ee4\u548c3\u5e74\u5ea6\u53e4\u53e3\u5730\u533a\u5730\u8cea\u8abf\u67fb\u696d\u52d9","client_name":"\u56fd\u571f\u4ea4\u901a\u7701\u6771\u5317\u5730\u65b9\u6574\u5099\u5c40\u5c71\u5f62\u6cb3\u5ddd\u56fd\u9053\u4e8b\u52d9\u6240","boring_xml_url":47,"boring_view_url":1,"soilmap_view_url":null,"soiltest_xml_url":47,"soiltest_view_url":47},{"id":464906,"code":"NGIC202102562-0005","latitude":"38.734726111111","longitude":"140.13450972222","source_code":"","project_name":"","survey_name":"\u4ee4\u548c3\u5e74\u5ea6\u53e4\u53e3\u5730\u533a\u5730\u8cea\u8abf\u67fb\u696d\u52d9","client_name":"\u56fd\u571f\u4ea4\u901a\u7701\u6771\u5317\u5730\u65b9\u6574\u5099\u5c40\u5c71\u5f62\u6cb3\u5ddd\u56fd\u9053\u4e8b\u52d9\u6240","boring_xml_url":47,"boring_view_url":1,"soilmap_view_url":null,"soiltest_xml_url":47,"soiltest_view_url":47},{"id":464905,"code":"NGIC202102562-0004","latitude":"38.7340325","longitude":"140.13651555556","source_code":"","project_name":"","survey_name":"\u4ee4\u548c3\u5e74\u5ea6\u53e4\u53e3\u5730\u533a\u5730\u8cea\u8abf\u67fb\u696d\u52d9","client_name":"\u56fd\u571f\u4ea4\u901a\u7701\u6771\u5317\u5730\u65b9\u6574\u5099\u5c40\u5c71\u5f62\u6cb3\u5ddd\u56fd\u9053\u4e8b\u52d9\u6240","boring_xml_url":47,"boring_view_url":1,"soilmap_view_url":null,"soiltest_xml_url":47,"soiltest_view_url":47},{"id":464904,"code":"NGIC202102562-0003","latitude":"38.734678055556","longitude":"140.14726555556","source_code":"","project_name":"","survey_name":"\u4ee4\u548c3\u5e74\u5ea6\u53e4\u53e3\u5730\u533a\u5730\u8cea\u8abf\u67fb\u696d\u52d9","client_name":"\u56fd\u571f\u4ea4\u901a\u7701\u6771\u5317\u5730\u65b9\u6574\u5099\u5c40\u5c71\u5f62\u6cb3\u5ddd\u56fd\u9053\u4e8b\u52d9\u6240","boring_xml_url":47,"boring_view_url":1,"soilmap_view_url":null,"soiltest_xml_url":47,"soiltest_view_url":47},{"id":464903,"code":"NGIC202102562-0002","latitude":"38.734931666667","longitude":"140.14822472222","source_code":"","project_name":"","survey_name":"\u4ee4\u548c3\u5e74\u5ea6\u53e4\u53e3\u5730\u533a\u5730\u8cea\u8abf\u67fb\u696d\u52d9","client_name":"\u56fd\u571f\u4ea4\u901a\u7701\u6771\u5317\u5730\u65b9\u6574\u5099\u5c40\u5c71\u5f62\u6cb3\u5ddd\u56fd\u9053\u4e8b\u52d9\u6240","boring_xml_url":47,"boring_view_url":1,"soilmap_view_url":null,"soiltest_xml_url":47,"soiltest_view_url":47},{"id":464902,"code":"NGIC202102562-0001","latitude":"38.735244722222","longitude":"140.14940916667","source_code":"","project_name":"","survey_name":"\u4ee4\u548c3\u5e74\u5ea6\u53e4\u53e3\u5730\u533a\u5730\u8cea\u8abf\u67fb\u696d\u52d9","client_name":"\u56fd\u571f\u4ea4\u901a\u7701\u6771\u5317\u5730\u65b9\u6574\u5099\u5c40\u5c71\u5f62\u6cb3\u5ddd\u56fd\u9053\u4e8b\u52d9\u6240","boring_xml_url":47,"boring_view_url":1,"soilmap_view_url":null,"soiltest_xml_url":47,"soiltest_view_url":47},{"id":464846,"code":"NGIC202102536-0001","latitude":"42.608158333333","longitude":"141.81683055556","source_code":"","project_name":"","survey_name":"\u82eb\u5c0f\u7267\u6e2f\u6771\u6e2f\u533a\u5730\u8cea\u8abf\u67fb\u696d\u52d9","client_name":"\u56fd\u571f\u4ea4\u901a\u7701\u5317\u6d77\u9053\u958b\u767a\u5c40\u5ba4\u862d\u958b\u767a\u5efa\u8a2d\u90e8\u672c\u90e8","boring_xml_url":47,"boring_view_url":1,"soilmap_view_url":null,"soiltest_xml_url":47,"soiltest_view_url":47},{"id":464830,"code":"NGIC202102538-0005","latitude":"39.037241305556","longitude":"140.39047761111","source_code":"","project_name":"","survey_name":"\u4e0a\u9662\u5185\u5730\u533a\u6a4b\u6881\u8a2d\u8a08\u696d\u52d9","client_name":"\u56fd\u571f\u4ea4\u901a\u7701\u6771\u5317\u5730\u65b9\u6574\u5099\u5c40\u6e6f\u6ca2\u6cb3\u5ddd\u56fd\u9053\u4e8b\u52d9\u6240","boring_xml_url":47,"boring_view_url":1,"soilmap_view_url":null,"soiltest_xml_url":0,"soiltest_view_url":0},{"id":464829,"code":"NGIC202102538-0004","latitude":"39.03723525","longitude":"140.39054777778","source_code":"","project_name":"","survey_name":"\u4e0a\u9662\u5185\u5730\u533a\u6a4b\u6881\u8a2d\u8a08\u696d\u52d9","client_name":"\u56fd\u571f\u4ea4\u901a\u7701\u6771\u5317\u5730\u65b9\u6574\u5099\u5c40\u6e6f\u6ca2\u6cb3\u5ddd\u56fd\u9053\u4e8b\u52d9\u6240","boring_xml_url":47,"boring_view_url":1,"soilmap_view_url":null,"soiltest_xml_url":0,"soiltest_view_url":0},{"id":464828,"code":"NGIC202102538-0003","latitude":"39.037173305556","longitude":"140.39052305556","source_code":"","project_name":"","survey_name":"\u4e0a\u9662\u5185\u5730\u533a\u6a4b\u6881\u8a2d\u8a08\u696d\u52d9","client_name":"\u56fd\u571f\u4ea4\u901a\u7701\u6771\u5317\u5730\u65b9\u6574\u5099\u5c40\u6e6f\u6ca2\u6cb3\u5ddd\u56fd\u9053\u4e8b\u52d9\u6240","boring_xml_url":47,"boring_view_url":1,"soilmap_view_url":null,"soiltest_xml_url":0,"soiltest_view_url":0},{"id":464827,"code":"NGIC202102538-0002","latitude":"39.03702525","longitude":"140.39080627778","source_code":"","project_name":"","survey_name":"\u4e0a\u9662\u5185\u5730\u533a\u6a4b\u6881\u8a2d\u8a08\u696d\u52d9","client_name":"\u56fd\u571f\u4ea4\u901a\u7701\u6771\u5317\u5730\u65b9\u6574\u5099\u5c40\u6e6f\u6ca2\u6cb3\u5ddd\u56fd\u9053\u4e8b\u52d9\u6240","boring_xml_url":47,"boring_view_url":1,"soilmap_view_url":null,"soiltest_xml_url":0,"soiltest_view_url":0},{"id":464826,"code":"NGIC202102538-0001","latitude":"39.037001722222","longitude":"140.39094847222","source_code":"","project_name":"","survey_name":"\u4e0a\u9662\u5185\u5730\u533a\u6a4b\u6881\u8a2d\u8a08\u696d\u52d9","client_name":"\u56fd\u571f\u4ea4\u901a\u7701\u6771\u5317\u5730\u65b9\u6574\u5099\u5c40\u6e6f\u6ca2\u6cb3\u5ddd\u56fd\u9053\u4e8b\u52d9\u6240","boring_xml_url":47,"boring_view_url":1,"soilmap_view_url":null,"soiltest_xml_url":0,"soiltest_view_url":0},{"id":464787,"code":"NGIC202102482-0004","latitude":"42.103157","longitude":"140.562823","source_code":"","project_name":"\u4e00\u822c\u56fd\u90535\u53f7 \u68ee\u753a \u4e0a\u9ce5\u5d0e\u5730\u8cea\u8abf\u67fb","survey_name":"\u4e00\u822c\u56fd\u90535\u53f7 \u68ee\u753a \u4e0a\u9ce5\u5d0e\u5730\u8cea\u8abf\u67fb","client_name":"\u56fd\u571f\u4ea4\u901a\u7701\u5317\u6d77\u9053\u958b\u767a\u5c40\u51fd\u9928\u958b\u767a\u5efa\u8a2d\u90e8","boring_xml_url":47,"boring_view_url":1,"soilmap_view_url":null,"soiltest_xml_url":0,"soiltest_view_url":0},{"id":464786,"code":"NGIC202102482-0003","latitude":"42.103086111111","longitude":"140.56285555556","source_code":"","project_name":"\u4e00\u822c\u56fd\u90535\u53f7 \u68ee\u753a \u4e0a\u9ce5\u5d0e\u5730\u8cea\u8abf\u67fb","survey_name":"\u4e00\u822c\u56fd\u90535\u53f7 \u68ee\u753a \u4e0a\u9ce5\u5d0e\u5730\u8cea\u8abf\u67fb","client_name":"\u56fd\u571f\u4ea4\u901a\u7701\u5317\u6d77\u9053\u958b\u767a\u5c40\u51fd\u9928\u958b\u767a\u5efa\u8a2d\u90e8","boring_xml_url":47,"boring_view_url":1,"soilmap_view_url":null,"soiltest_xml_url":0,"soiltest_view_url":0},{"id":464785,"code":"NGIC202102482-0002","latitude":"42.103107","longitude":"140.562886","source_code":"","project_name":"\u4e00\u822c\u56fd\u90535\u53f7 \u68ee\u753a \u4e0a\u9ce5\u5d0e\u5730\u8cea\u8abf\u67fb","survey_name":"\u4e00\u822c\u56fd\u90535\u53f7 \u68ee\u753a \u4e0a\u9ce5\u5d0e\u5730\u8cea\u8abf\u67fb","client_name":"\u56fd\u571f\u4ea4\u901a\u7701\u5317\u6d77\u9053\u958b\u767a\u5c40\u51fd\u9928\u958b\u767a\u5efa\u8a2d\u90e8","boring_xml_url":47,"boring_view_url":1,"soilmap_view_url":null,"soiltest_xml_url":0,"soiltest_view_url":0}]}}