{"header":{"xyz":{"source":[],"mosaic":false},"page":1857,"raw":{"soiltest_result":"0","bbox":"57.598333,109.544722,1.933333,163.806111","page":"1857"},"conditions":{"soiltest_result":0,"north":57.598333,"west":109.544722,"south":1.933333,"east":163.806111},"success":true,"message":""},"data":{"meta":{"total":212844,"page":1857,"pages":7095,"count":30},"values":[{"id":464784,"code":"NGIC202102482-0001","latitude":"42.103107","longitude":"140.562921","source_code":"","project_name":"\u4e00\u822c\u56fd\u90535\u53f7 \u68ee\u753a \u4e0a\u9ce5\u5d0e\u5730\u8cea\u8abf\u67fb","survey_name":"\u4e00\u822c\u56fd\u90535\u53f7 \u68ee\u753a \u4e0a\u9ce5\u5d0e\u5730\u8cea\u8abf\u67fb","client_name":"\u56fd\u571f\u4ea4\u901a\u7701\u5317\u6d77\u9053\u958b\u767a\u5c40\u51fd\u9928\u958b\u767a\u5efa\u8a2d\u90e8","boring_xml_url":47,"boring_view_url":1,"soilmap_view_url":null,"soiltest_xml_url":0,"soiltest_view_url":0},{"id":464783,"code":"NGIC202102441-0007","latitude":"43.452622222222","longitude":"143.73646666667","source_code":"","project_name":"\u4e00\u822c\u56fd\u9053241\u53f7 \u8db3\u5bc4\u753a \u4e0a\u8db3\u5bc4\u5916\u5730\u8cea\u8abf\u67fb\u696d\u52d9","survey_name":"\u4e00\u822c\u56fd\u9053241\u53f7 \u8db3\u5bc4\u753a \u4e0a\u8db3\u5bc4\u5916\u5730\u8cea\u8abf\u67fb\u696d\u52d9","client_name":"\u56fd\u571f\u4ea4\u901a\u7701\u5317\u6d77\u9053\u958b\u767a\u5c40\u5e2f\u5e83\u958b\u767a\u5efa\u8a2d\u90e8\u672c\u90e8","boring_xml_url":47,"boring_view_url":1,"soilmap_view_url":null,"soiltest_xml_url":0,"soiltest_view_url":0},{"id":464782,"code":"NGIC202102441-0006","latitude":"43.452883333333","longitude":"143.73651111111","source_code":"","project_name":"\u4e00\u822c\u56fd\u9053241\u53f7 \u8db3\u5bc4\u753a \u4e0a\u8db3\u5bc4\u5916\u5730\u8cea\u8abf\u67fb\u696d\u52d9","survey_name":"\u4e00\u822c\u56fd\u9053241\u53f7 \u8db3\u5bc4\u753a \u4e0a\u8db3\u5bc4\u5916\u5730\u8cea\u8abf\u67fb\u696d\u52d9","client_name":"\u56fd\u571f\u4ea4\u901a\u7701\u5317\u6d77\u9053\u958b\u767a\u5c40\u5e2f\u5e83\u958b\u767a\u5efa\u8a2d\u90e8\u672c\u90e8","boring_xml_url":47,"boring_view_url":1,"soilmap_view_url":null,"soiltest_xml_url":0,"soiltest_view_url":0},{"id":464781,"code":"NGIC202102441-0005","latitude":"43.353397222222","longitude":"143.79258611111","source_code":"","project_name":"\u4e00\u822c\u56fd\u9053241\u53f7 \u8db3\u5bc4\u753a \u4e0a\u8db3\u5bc4\u5916\u5730\u8cea\u8abf\u67fb\u696d\u52d9","survey_name":"\u4e00\u822c\u56fd\u9053241\u53f7 \u8db3\u5bc4\u753a \u4e0a\u8db3\u5bc4\u5916\u5730\u8cea\u8abf\u67fb\u696d\u52d9","client_name":"\u56fd\u571f\u4ea4\u901a\u7701\u5317\u6d77\u9053\u958b\u767a\u5c40\u5e2f\u5e83\u958b\u767a\u5efa\u8a2d\u90e8\u672c\u90e8","boring_xml_url":47,"boring_view_url":1,"soilmap_view_url":null,"soiltest_xml_url":0,"soiltest_view_url":0},{"id":464780,"code":"NGIC202102441-0004","latitude":"43.353680555556","longitude":"143.79223611111","source_code":"","project_name":"\u4e00\u822c\u56fd\u9053241\u53f7 \u8db3\u5bc4\u753a \u4e0a\u8db3\u5bc4\u5916\u5730\u8cea\u8abf\u67fb\u696d\u52d9","survey_name":"\u4e00\u822c\u56fd\u9053241\u53f7 \u8db3\u5bc4\u753a \u4e0a\u8db3\u5bc4\u5916\u5730\u8cea\u8abf\u67fb\u696d\u52d9","client_name":"\u56fd\u571f\u4ea4\u901a\u7701\u5317\u6d77\u9053\u958b\u767a\u5c40\u5e2f\u5e83\u958b\u767a\u5efa\u8a2d\u90e8\u672c\u90e8","boring_xml_url":47,"boring_view_url":1,"soilmap_view_url":null,"soiltest_xml_url":0,"soiltest_view_url":0},{"id":464779,"code":"NGIC202102441-0003","latitude":"43.353516666667","longitude":"143.79275555556","source_code":"","project_name":"\u4e00\u822c\u56fd\u9053241\u53f7 \u8db3\u5bc4\u753a \u4e0a\u8db3\u5bc4\u5916\u5730\u8cea\u8abf\u67fb\u696d\u52d9","survey_name":"\u4e00\u822c\u56fd\u9053241\u53f7 \u8db3\u5bc4\u753a \u4e0a\u8db3\u5bc4\u5916\u5730\u8cea\u8abf\u67fb\u696d\u52d9","client_name":"\u56fd\u571f\u4ea4\u901a\u7701\u5317\u6d77\u9053\u958b\u767a\u5c40\u5e2f\u5e83\u958b\u767a\u5efa\u8a2d\u90e8\u672c\u90e8","boring_xml_url":47,"boring_view_url":1,"soilmap_view_url":null,"soiltest_xml_url":0,"soiltest_view_url":0},{"id":464778,"code":"NGIC202102441-0002","latitude":"43.375038888889","longitude":"143.87626666667","source_code":"","project_name":"\u4e00\u822c\u56fd\u9053241\u53f7 \u8db3\u5bc4\u753a \u4e0a\u8db3\u5bc4\u5916\u5730\u8cea\u8abf\u67fb\u696d\u52d9","survey_name":"\u4e00\u822c\u56fd\u9053241\u53f7 \u8db3\u5bc4\u753a \u4e0a\u8db3\u5bc4\u5916\u5730\u8cea\u8abf\u67fb\u696d\u52d9","client_name":"\u56fd\u571f\u4ea4\u901a\u7701\u5317\u6d77\u9053\u958b\u767a\u5c40\u5e2f\u5e83\u958b\u767a\u5efa\u8a2d\u90e8\u672c\u90e8","boring_xml_url":47,"boring_view_url":1,"soilmap_view_url":null,"soiltest_xml_url":0,"soiltest_view_url":0},{"id":464777,"code":"NGIC202102441-0001","latitude":"43.375252777778","longitude":"143.87614444444","source_code":"","project_name":"\u4e00\u822c\u56fd\u9053241\u53f7 \u8db3\u5bc4\u753a \u4e0a\u8db3\u5bc4\u5916\u5730\u8cea\u8abf\u67fb\u696d\u52d9","survey_name":"\u4e00\u822c\u56fd\u9053241\u53f7 \u8db3\u5bc4\u753a \u4e0a\u8db3\u5bc4\u5916\u5730\u8cea\u8abf\u67fb\u696d\u52d9","client_name":"\u56fd\u571f\u4ea4\u901a\u7701\u5317\u6d77\u9053\u958b\u767a\u5c40\u5e2f\u5e83\u958b\u767a\u5efa\u8a2d\u90e8\u672c\u90e8","boring_xml_url":47,"boring_view_url":1,"soilmap_view_url":null,"soiltest_xml_url":0,"soiltest_view_url":0},{"id":464673,"code":"NGIC202102490-0004","latitude":"42.617623805556","longitude":"141.02420452778","source_code":"","project_name":"","survey_name":"\u4e00\u822c\u56fd\u9053274\u53f7\u3080\u304b\u308f\u753a\u7a42\u5225\u5ddd\u8b77\u5cb8\u5730\u8cea\u8abf\u67fb\u5916\u4e00\u9023\u696d\u52d9","client_name":"\u56fd\u571f\u4ea4\u901a\u7701\u5317\u6d77\u9053\u958b\u767a\u5c40\u5ba4\u862d\u958b\u767a\u5efa\u8a2d\u90e8\u672c\u90e8","boring_xml_url":47,"boring_view_url":1,"soilmap_view_url":null,"soiltest_xml_url":47,"soiltest_view_url":47},{"id":464672,"code":"NGIC202102490-0003","latitude":"42.618569555556","longitude":"141.02327161111","source_code":"","project_name":"","survey_name":"\u4e00\u822c\u56fd\u9053274\u53f7\u3080\u304b\u308f\u753a\u7a42\u5225\u5ddd\u8b77\u5cb8\u5730\u8cea\u8abf\u67fb\u5916\u4e00\u9023\u696d\u52d9","client_name":"\u56fd\u571f\u4ea4\u901a\u7701\u5317\u6d77\u9053\u958b\u767a\u5c40\u5ba4\u862d\u958b\u767a\u5efa\u8a2d\u90e8\u672c\u90e8","boring_xml_url":47,"boring_view_url":1,"soilmap_view_url":null,"soiltest_xml_url":47,"soiltest_view_url":47},{"id":464671,"code":"NGIC202102490-0002","latitude":"42.878521","longitude":"142.12740294444","source_code":"","project_name":"","survey_name":"\u4e00\u822c\u56fd\u9053274\u53f7\u3080\u304b\u308f\u753a\u7a42\u5225\u5ddd\u8b77\u5cb8\u5730\u8cea\u8abf\u67fb\u5916\u4e00\u9023\u696d\u52d9","client_name":"\u56fd\u571f\u4ea4\u901a\u7701\u5317\u6d77\u9053\u958b\u767a\u5c40\u5ba4\u862d\u958b\u767a\u5efa\u8a2d\u90e8\u672c\u90e8","boring_xml_url":47,"boring_view_url":1,"soilmap_view_url":null,"soiltest_xml_url":47,"soiltest_view_url":47},{"id":464670,"code":"NGIC202102490-0001","latitude":"42.878692","longitude":"142.126955","source_code":"","project_name":"","survey_name":"\u4e00\u822c\u56fd\u9053274\u53f7\u3080\u304b\u308f\u753a\u7a42\u5225\u5ddd\u8b77\u5cb8\u5730\u8cea\u8abf\u67fb\u5916\u4e00\u9023\u696d\u52d9","client_name":"\u56fd\u571f\u4ea4\u901a\u7701\u5317\u6d77\u9053\u958b\u767a\u5c40\u5ba4\u862d\u958b\u767a\u5efa\u8a2d\u90e8\u672c\u90e8","boring_xml_url":47,"boring_view_url":1,"soilmap_view_url":null,"soiltest_xml_url":47,"soiltest_view_url":47},{"id":464663,"code":"NGIC202102493-0003","latitude":"34.245138888889","longitude":"132.52529722222","source_code":"","project_name":"","survey_name":"\u4ee4\u548c3\u5e74\u5ea6\u6d77\u4fdd\u5927\u6577\u5730\u8abf\u67fb\u696d\u52d9","client_name":"\u56fd\u571f\u4ea4\u901a\u7701\u4e2d\u56fd\u5730\u65b9\u6574\u5099\u5c40\u55b6\u7e55\u90e8","boring_xml_url":47,"boring_view_url":1,"soilmap_view_url":null,"soiltest_xml_url":47,"soiltest_view_url":47},{"id":464662,"code":"NGIC202102493-0002","latitude":"34.245258333333","longitude":"132.52534722222","source_code":"","project_name":"","survey_name":"\u4ee4\u548c3\u5e74\u5ea6\u6d77\u4fdd\u5927\u6577\u5730\u8abf\u67fb\u696d\u52d9","client_name":"\u56fd\u571f\u4ea4\u901a\u7701\u4e2d\u56fd\u5730\u65b9\u6574\u5099\u5c40\u55b6\u7e55\u90e8","boring_xml_url":47,"boring_view_url":1,"soilmap_view_url":null,"soiltest_xml_url":47,"soiltest_view_url":47},{"id":464661,"code":"NGIC202102493-0001","latitude":"34.245227777778","longitude":"132.52489722222","source_code":"","project_name":"","survey_name":"\u4ee4\u548c3\u5e74\u5ea6\u6d77\u4fdd\u5927\u6577\u5730\u8abf\u67fb\u696d\u52d9","client_name":"\u56fd\u571f\u4ea4\u901a\u7701\u4e2d\u56fd\u5730\u65b9\u6574\u5099\u5c40\u55b6\u7e55\u90e8","boring_xml_url":47,"boring_view_url":1,"soilmap_view_url":null,"soiltest_xml_url":47,"soiltest_view_url":47},{"id":464640,"code":"NGIC202102454-0024","latitude":"38.512662583333","longitude":"139.53986358333","source_code":"","project_name":"","survey_name":"\u671d\u65e5\u6e29\u6d77\u9053\u8def(\u7fbd\u8d8a)\u5730\u8cea\u8abf\u67fb\u305d\u306e7\u696d\u52d9","client_name":"\u56fd\u571f\u4ea4\u901a\u7701\u5317\u9678\u5730\u65b9\u6574\u5099\u5c40\u7fbd\u8d8a\u6cb3\u5ddd\u56fd\u9053\u4e8b\u52d9\u6240","boring_xml_url":47,"boring_view_url":1,"soilmap_view_url":null,"soiltest_xml_url":0,"soiltest_view_url":0},{"id":464639,"code":"NGIC202102454-0023","latitude":"38.512468805556","longitude":"139.5399125","source_code":"","project_name":"","survey_name":"\u671d\u65e5\u6e29\u6d77\u9053\u8def(\u7fbd\u8d8a)\u5730\u8cea\u8abf\u67fb\u305d\u306e7\u696d\u52d9","client_name":"\u56fd\u571f\u4ea4\u901a\u7701\u5317\u9678\u5730\u65b9\u6574\u5099\u5c40\u7fbd\u8d8a\u6cb3\u5ddd\u56fd\u9053\u4e8b\u52d9\u6240","boring_xml_url":47,"boring_view_url":1,"soilmap_view_url":null,"soiltest_xml_url":0,"soiltest_view_url":0},{"id":464638,"code":"NGIC202102454-0022","latitude":"38.512168027778","longitude":"139.54008208333","source_code":"","project_name":"","survey_name":"\u671d\u65e5\u6e29\u6d77\u9053\u8def(\u7fbd\u8d8a)\u5730\u8cea\u8abf\u67fb\u305d\u306e7\u696d\u52d9","client_name":"\u56fd\u571f\u4ea4\u901a\u7701\u5317\u9678\u5730\u65b9\u6574\u5099\u5c40\u7fbd\u8d8a\u6cb3\u5ddd\u56fd\u9053\u4e8b\u52d9\u6240","boring_xml_url":47,"boring_view_url":1,"soilmap_view_url":null,"soiltest_xml_url":0,"soiltest_view_url":0},{"id":464637,"code":"NGIC202102454-0021","latitude":"38.512053722222","longitude":"139.54024494444","source_code":"","project_name":"","survey_name":"\u671d\u65e5\u6e29\u6d77\u9053\u8def(\u7fbd\u8d8a)\u5730\u8cea\u8abf\u67fb\u305d\u306e7\u696d\u52d9","client_name":"\u56fd\u571f\u4ea4\u901a\u7701\u5317\u9678\u5730\u65b9\u6574\u5099\u5c40\u7fbd\u8d8a\u6cb3\u5ddd\u56fd\u9053\u4e8b\u52d9\u6240","boring_xml_url":47,"boring_view_url":1,"soilmap_view_url":null,"soiltest_xml_url":0,"soiltest_view_url":0},{"id":464636,"code":"NGIC202102454-0020","latitude":"38.511945722222","longitude":"139.53981272222","source_code":"","project_name":"","survey_name":"\u671d\u65e5\u6e29\u6d77\u9053\u8def(\u7fbd\u8d8a)\u5730\u8cea\u8abf\u67fb\u305d\u306e7\u696d\u52d9","client_name":"\u56fd\u571f\u4ea4\u901a\u7701\u5317\u9678\u5730\u65b9\u6574\u5099\u5c40\u7fbd\u8d8a\u6cb3\u5ddd\u56fd\u9053\u4e8b\u52d9\u6240","boring_xml_url":47,"boring_view_url":1,"soilmap_view_url":null,"soiltest_xml_url":0,"soiltest_view_url":0},{"id":464635,"code":"NGIC202102454-0019","latitude":"38.511772083333","longitude":"139.53986036111","source_code":"","project_name":"","survey_name":"\u671d\u65e5\u6e29\u6d77\u9053\u8def(\u7fbd\u8d8a)\u5730\u8cea\u8abf\u67fb\u305d\u306e7\u696d\u52d9","client_name":"\u56fd\u571f\u4ea4\u901a\u7701\u5317\u9678\u5730\u65b9\u6574\u5099\u5c40\u7fbd\u8d8a\u6cb3\u5ddd\u56fd\u9053\u4e8b\u52d9\u6240","boring_xml_url":47,"boring_view_url":1,"soilmap_view_url":null,"soiltest_xml_url":0,"soiltest_view_url":0},{"id":464634,"code":"NGIC202102454-0018","latitude":"38.509730666667","longitude":"139.53682666667","source_code":"","project_name":"","survey_name":"\u671d\u65e5\u6e29\u6d77\u9053\u8def(\u7fbd\u8d8a)\u5730\u8cea\u8abf\u67fb\u305d\u306e7\u696d\u52d9","client_name":"\u56fd\u571f\u4ea4\u901a\u7701\u5317\u9678\u5730\u65b9\u6574\u5099\u5c40\u7fbd\u8d8a\u6cb3\u5ddd\u56fd\u9053\u4e8b\u52d9\u6240","boring_xml_url":47,"boring_view_url":1,"soilmap_view_url":null,"soiltest_xml_url":0,"soiltest_view_url":0},{"id":464633,"code":"NGIC202102454-0017","latitude":"38.484136861111","longitude":"139.53041130556","source_code":"","project_name":"","survey_name":"\u671d\u65e5\u6e29\u6d77\u9053\u8def(\u7fbd\u8d8a)\u5730\u8cea\u8abf\u67fb\u305d\u306e7\u696d\u52d9","client_name":"\u56fd\u571f\u4ea4\u901a\u7701\u5317\u9678\u5730\u65b9\u6574\u5099\u5c40\u7fbd\u8d8a\u6cb3\u5ddd\u56fd\u9053\u4e8b\u52d9\u6240","boring_xml_url":47,"boring_view_url":1,"soilmap_view_url":null,"soiltest_xml_url":47,"soiltest_view_url":47},{"id":464632,"code":"NGIC202102454-0016","latitude":"38.483713555556","longitude":"139.53069230556","source_code":"","project_name":"","survey_name":"\u671d\u65e5\u6e29\u6d77\u9053\u8def(\u7fbd\u8d8a)\u5730\u8cea\u8abf\u67fb\u305d\u306e7\u696d\u52d9","client_name":"\u56fd\u571f\u4ea4\u901a\u7701\u5317\u9678\u5730\u65b9\u6574\u5099\u5c40\u7fbd\u8d8a\u6cb3\u5ddd\u56fd\u9053\u4e8b\u52d9\u6240","boring_xml_url":47,"boring_view_url":1,"soilmap_view_url":null,"soiltest_xml_url":47,"soiltest_view_url":47},{"id":464631,"code":"NGIC202102454-0015","latitude":"38.482982305556","longitude":"139.53118852778","source_code":"","project_name":"","survey_name":"\u671d\u65e5\u6e29\u6d77\u9053\u8def(\u7fbd\u8d8a)\u5730\u8cea\u8abf\u67fb\u305d\u306e7\u696d\u52d9","client_name":"\u56fd\u571f\u4ea4\u901a\u7701\u5317\u9678\u5730\u65b9\u6574\u5099\u5c40\u7fbd\u8d8a\u6cb3\u5ddd\u56fd\u9053\u4e8b\u52d9\u6240","boring_xml_url":47,"boring_view_url":1,"soilmap_view_url":null,"soiltest_xml_url":47,"soiltest_view_url":47},{"id":464630,"code":"NGIC202102454-0014","latitude":"38.482776444444","longitude":"139.53133069444","source_code":"","project_name":"","survey_name":"\u671d\u65e5\u6e29\u6d77\u9053\u8def(\u7fbd\u8d8a)\u5730\u8cea\u8abf\u67fb\u305d\u306e7\u696d\u52d9","client_name":"\u56fd\u571f\u4ea4\u901a\u7701\u5317\u9678\u5730\u65b9\u6574\u5099\u5c40\u7fbd\u8d8a\u6cb3\u5ddd\u56fd\u9053\u4e8b\u52d9\u6240","boring_xml_url":47,"boring_view_url":1,"soilmap_view_url":null,"soiltest_xml_url":47,"soiltest_view_url":47},{"id":464629,"code":"NGIC202102454-0013","latitude":"38.482539444444","longitude":"139.53149575","source_code":"","project_name":"","survey_name":"\u671d\u65e5\u6e29\u6d77\u9053\u8def(\u7fbd\u8d8a)\u5730\u8cea\u8abf\u67fb\u305d\u306e7\u696d\u52d9","client_name":"\u56fd\u571f\u4ea4\u901a\u7701\u5317\u9678\u5730\u65b9\u6574\u5099\u5c40\u7fbd\u8d8a\u6cb3\u5ddd\u56fd\u9053\u4e8b\u52d9\u6240","boring_xml_url":47,"boring_view_url":1,"soilmap_view_url":null,"soiltest_xml_url":47,"soiltest_view_url":47},{"id":464628,"code":"NGIC202102454-0012","latitude":"38.482302805556","longitude":"139.531662","source_code":"","project_name":"","survey_name":"\u671d\u65e5\u6e29\u6d77\u9053\u8def(\u7fbd\u8d8a)\u5730\u8cea\u8abf\u67fb\u305d\u306e7\u696d\u52d9","client_name":"\u56fd\u571f\u4ea4\u901a\u7701\u5317\u9678\u5730\u65b9\u6574\u5099\u5c40\u7fbd\u8d8a\u6cb3\u5ddd\u56fd\u9053\u4e8b\u52d9\u6240","boring_xml_url":47,"boring_view_url":1,"soilmap_view_url":null,"soiltest_xml_url":47,"soiltest_view_url":47},{"id":464627,"code":"NGIC202102454-0011","latitude":"38.482066722222","longitude":"139.53182936111","source_code":"","project_name":"","survey_name":"\u671d\u65e5\u6e29\u6d77\u9053\u8def(\u7fbd\u8d8a)\u5730\u8cea\u8abf\u67fb\u305d\u306e7\u696d\u52d9","client_name":"\u56fd\u571f\u4ea4\u901a\u7701\u5317\u9678\u5730\u65b9\u6574\u5099\u5c40\u7fbd\u8d8a\u6cb3\u5ddd\u56fd\u9053\u4e8b\u52d9\u6240","boring_xml_url":47,"boring_view_url":1,"soilmap_view_url":null,"soiltest_xml_url":47,"soiltest_view_url":47},{"id":464626,"code":"NGIC202102454-0010","latitude":"38.481596055556","longitude":"139.53216744444","source_code":"","project_name":"","survey_name":"\u671d\u65e5\u6e29\u6d77\u9053\u8def(\u7fbd\u8d8a)\u5730\u8cea\u8abf\u67fb\u305d\u306e7\u696d\u52d9","client_name":"\u56fd\u571f\u4ea4\u901a\u7701\u5317\u9678\u5730\u65b9\u6574\u5099\u5c40\u7fbd\u8d8a\u6cb3\u5ddd\u56fd\u9053\u4e8b\u52d9\u6240","boring_xml_url":47,"boring_view_url":1,"soilmap_view_url":null,"soiltest_xml_url":47,"soiltest_view_url":47}]}}