{"header":{"xyz":{"source":[],"mosaic":false},"page":1870,"raw":{"soiltest_result":"0","bbox":"57.598333,109.544722,1.933333,163.806111","page":"1870"},"conditions":{"soiltest_result":0,"north":57.598333,"west":109.544722,"south":1.933333,"east":163.806111},"success":true,"message":""},"data":{"meta":{"total":212844,"page":1870,"pages":7095,"count":30},"values":[{"id":463176,"code":"NGIC202102092-0011","latitude":"34.677386361111","longitude":"138.93599208333","source_code":"","project_name":"","survey_name":"\u4ee4\u548c2\u5e74\u5ea6\u6cb3\u6d25\u4e0b\u7530\u9053\u8def1\u671f\u5357\u90e8\u5730\u8cea\u8abf\u67fb\u696d\u52d9","client_name":"\u56fd\u571f\u4ea4\u901a\u7701\u4e2d\u90e8\u5730\u65b9\u6574\u5099\u5c40\u6cbc\u6d25\u6cb3\u5ddd\u56fd\u9053\u4e8b\u52d9\u6240\u3000\u8a08\u753b\u8ab2","boring_xml_url":47,"boring_view_url":1,"soilmap_view_url":null,"soiltest_xml_url":0,"soiltest_view_url":0},{"id":463175,"code":"NGIC202102092-0010","latitude":"34.677348416667","longitude":"138.93576988889","source_code":"","project_name":"","survey_name":"\u4ee4\u548c2\u5e74\u5ea6\u6cb3\u6d25\u4e0b\u7530\u9053\u8def1\u671f\u5357\u90e8\u5730\u8cea\u8abf\u67fb\u696d\u52d9","client_name":"\u56fd\u571f\u4ea4\u901a\u7701\u4e2d\u90e8\u5730\u65b9\u6574\u5099\u5c40\u6cbc\u6d25\u6cb3\u5ddd\u56fd\u9053\u4e8b\u52d9\u6240\u3000\u8a08\u753b\u8ab2","boring_xml_url":47,"boring_view_url":1,"soilmap_view_url":null,"soiltest_xml_url":0,"soiltest_view_url":0},{"id":463174,"code":"NGIC202102092-0009","latitude":"34.677902055556","longitude":"138.93550936111","source_code":"","project_name":"","survey_name":"\u4ee4\u548c2\u5e74\u5ea6\u6cb3\u6d25\u4e0b\u7530\u9053\u8def1\u671f\u5357\u90e8\u5730\u8cea\u8abf\u67fb\u696d\u52d9","client_name":"\u56fd\u571f\u4ea4\u901a\u7701\u4e2d\u90e8\u5730\u65b9\u6574\u5099\u5c40\u6cbc\u6d25\u6cb3\u5ddd\u56fd\u9053\u4e8b\u52d9\u6240\u3000\u8a08\u753b\u8ab2","boring_xml_url":47,"boring_view_url":1,"soilmap_view_url":null,"soiltest_xml_url":0,"soiltest_view_url":0},{"id":463173,"code":"NGIC202102092-0008","latitude":"34.678497972222","longitude":"138.93536888889","source_code":"","project_name":"","survey_name":"\u4ee4\u548c2\u5e74\u5ea6\u6cb3\u6d25\u4e0b\u7530\u9053\u8def1\u671f\u5357\u90e8\u5730\u8cea\u8abf\u67fb\u696d\u52d9","client_name":"\u56fd\u571f\u4ea4\u901a\u7701\u4e2d\u90e8\u5730\u65b9\u6574\u5099\u5c40\u6cbc\u6d25\u6cb3\u5ddd\u56fd\u9053\u4e8b\u52d9\u6240\u3000\u8a08\u753b\u8ab2","boring_xml_url":47,"boring_view_url":1,"soilmap_view_url":null,"soiltest_xml_url":47,"soiltest_view_url":47},{"id":463172,"code":"NGIC202102092-0007","latitude":"34.678638527778","longitude":"138.93593377778","source_code":"","project_name":"","survey_name":"\u4ee4\u548c2\u5e74\u5ea6\u6cb3\u6d25\u4e0b\u7530\u9053\u8def1\u671f\u5357\u90e8\u5730\u8cea\u8abf\u67fb\u696d\u52d9","client_name":"\u56fd\u571f\u4ea4\u901a\u7701\u4e2d\u90e8\u5730\u65b9\u6574\u5099\u5c40\u6cbc\u6d25\u6cb3\u5ddd\u56fd\u9053\u4e8b\u52d9\u6240\u3000\u8a08\u753b\u8ab2","boring_xml_url":47,"boring_view_url":1,"soilmap_view_url":null,"soiltest_xml_url":0,"soiltest_view_url":0},{"id":463171,"code":"NGIC202102092-0006","latitude":"34.67885975","longitude":"138.93612183333","source_code":"","project_name":"","survey_name":"\u4ee4\u548c2\u5e74\u5ea6\u6cb3\u6d25\u4e0b\u7530\u9053\u8def1\u671f\u5357\u90e8\u5730\u8cea\u8abf\u67fb\u696d\u52d9","client_name":"\u56fd\u571f\u4ea4\u901a\u7701\u4e2d\u90e8\u5730\u65b9\u6574\u5099\u5c40\u6cbc\u6d25\u6cb3\u5ddd\u56fd\u9053\u4e8b\u52d9\u6240\u3000\u8a08\u753b\u8ab2","boring_xml_url":47,"boring_view_url":1,"soilmap_view_url":null,"soiltest_xml_url":0,"soiltest_view_url":0},{"id":463170,"code":"NGIC202102092-0005","latitude":"34.679037833333","longitude":"138.93614594444","source_code":"","project_name":"","survey_name":"\u4ee4\u548c2\u5e74\u5ea6\u6cb3\u6d25\u4e0b\u7530\u9053\u8def1\u671f\u5357\u90e8\u5730\u8cea\u8abf\u67fb\u696d\u52d9","client_name":"\u56fd\u571f\u4ea4\u901a\u7701\u4e2d\u90e8\u5730\u65b9\u6574\u5099\u5c40\u6cbc\u6d25\u6cb3\u5ddd\u56fd\u9053\u4e8b\u52d9\u6240\u3000\u8a08\u753b\u8ab2","boring_xml_url":47,"boring_view_url":1,"soilmap_view_url":null,"soiltest_xml_url":47,"soiltest_view_url":47},{"id":463169,"code":"NGIC202102092-0004","latitude":"34.679268305556","longitude":"138.93569836111","source_code":"","project_name":"","survey_name":"\u4ee4\u548c2\u5e74\u5ea6\u6cb3\u6d25\u4e0b\u7530\u9053\u8def1\u671f\u5357\u90e8\u5730\u8cea\u8abf\u67fb\u696d\u52d9","client_name":"\u56fd\u571f\u4ea4\u901a\u7701\u4e2d\u90e8\u5730\u65b9\u6574\u5099\u5c40\u6cbc\u6d25\u6cb3\u5ddd\u56fd\u9053\u4e8b\u52d9\u6240\u3000\u8a08\u753b\u8ab2","boring_xml_url":47,"boring_view_url":1,"soilmap_view_url":null,"soiltest_xml_url":0,"soiltest_view_url":0},{"id":463168,"code":"NGIC202102092-0003","latitude":"34.679323694444","longitude":"138.93540094444","source_code":"","project_name":"","survey_name":"\u4ee4\u548c2\u5e74\u5ea6\u6cb3\u6d25\u4e0b\u7530\u9053\u8def1\u671f\u5357\u90e8\u5730\u8cea\u8abf\u67fb\u696d\u52d9","client_name":"\u56fd\u571f\u4ea4\u901a\u7701\u4e2d\u90e8\u5730\u65b9\u6574\u5099\u5c40\u6cbc\u6d25\u6cb3\u5ddd\u56fd\u9053\u4e8b\u52d9\u6240\u3000\u8a08\u753b\u8ab2","boring_xml_url":47,"boring_view_url":1,"soilmap_view_url":null,"soiltest_xml_url":0,"soiltest_view_url":0},{"id":463167,"code":"NGIC202102092-0002","latitude":"34.679316083333","longitude":"138.93623725","source_code":"","project_name":"","survey_name":"\u4ee4\u548c2\u5e74\u5ea6\u6cb3\u6d25\u4e0b\u7530\u9053\u8def1\u671f\u5357\u90e8\u5730\u8cea\u8abf\u67fb\u696d\u52d9","client_name":"\u56fd\u571f\u4ea4\u901a\u7701\u4e2d\u90e8\u5730\u65b9\u6574\u5099\u5c40\u6cbc\u6d25\u6cb3\u5ddd\u56fd\u9053\u4e8b\u52d9\u6240\u3000\u8a08\u753b\u8ab2","boring_xml_url":47,"boring_view_url":1,"soilmap_view_url":null,"soiltest_xml_url":0,"soiltest_view_url":0},{"id":463166,"code":"NGIC202102092-0001","latitude":"34.679557805556","longitude":"138.93571372222","source_code":"","project_name":"","survey_name":"\u4ee4\u548c2\u5e74\u5ea6\u6cb3\u6d25\u4e0b\u7530\u9053\u8def1\u671f\u5357\u90e8\u5730\u8cea\u8abf\u67fb\u696d\u52d9","client_name":"\u56fd\u571f\u4ea4\u901a\u7701\u4e2d\u90e8\u5730\u65b9\u6574\u5099\u5c40\u6cbc\u6d25\u6cb3\u5ddd\u56fd\u9053\u4e8b\u52d9\u6240\u3000\u8a08\u753b\u8ab2","boring_xml_url":47,"boring_view_url":1,"soilmap_view_url":null,"soiltest_xml_url":0,"soiltest_view_url":0},{"id":463132,"code":"NGIC202102058-0006","latitude":"43.585848888889","longitude":"141.731825","source_code":"","project_name":"","survey_name":"\u4e00\u822c\u56fd\u9053275\u53f7\u65b0\u5341\u6d25\u5ddd\u753a\u5fd7\u5bf8\u5ddd\u6a4b\u5730\u8cea\u8abf\u67fb\u5916\u4e00\u9023\u696d\u52d9","client_name":"\u56fd\u571f\u4ea4\u901a\u7701\u5317\u6d77\u9053\u958b\u767a\u5c40\u672d\u5e4c\u958b\u767a\u5efa\u8a2d\u90e8\u672c\u90e8","boring_xml_url":47,"boring_view_url":1,"soilmap_view_url":null,"soiltest_xml_url":47,"soiltest_view_url":47},{"id":463131,"code":"NGIC202102058-0005","latitude":"43.585633333333","longitude":"141.73177777778","source_code":"","project_name":"","survey_name":"\u4e00\u822c\u56fd\u9053275\u53f7\u65b0\u5341\u6d25\u5ddd\u753a\u5fd7\u5bf8\u5ddd\u6a4b\u5730\u8cea\u8abf\u67fb\u5916\u4e00\u9023\u696d\u52d9","client_name":"\u56fd\u571f\u4ea4\u901a\u7701\u5317\u6d77\u9053\u958b\u767a\u5c40\u672d\u5e4c\u958b\u767a\u5efa\u8a2d\u90e8\u672c\u90e8","boring_xml_url":47,"boring_view_url":1,"soilmap_view_url":null,"soiltest_xml_url":47,"soiltest_view_url":47},{"id":463130,"code":"NGIC202102058-0004","latitude":"43.585494444444","longitude":"141.86930555556","source_code":"","project_name":"","survey_name":"\u4e00\u822c\u56fd\u9053275\u53f7\u65b0\u5341\u6d25\u5ddd\u753a\u5fd7\u5bf8\u5ddd\u6a4b\u5730\u8cea\u8abf\u67fb\u5916\u4e00\u9023\u696d\u52d9","client_name":"\u56fd\u571f\u4ea4\u901a\u7701\u5317\u6d77\u9053\u958b\u767a\u5c40\u672d\u5e4c\u958b\u767a\u5efa\u8a2d\u90e8\u672c\u90e8","boring_xml_url":47,"boring_view_url":1,"soilmap_view_url":null,"soiltest_xml_url":47,"soiltest_view_url":47},{"id":463129,"code":"NGIC202102058-0003","latitude":"43.585291666667","longitude":"141.86953416667","source_code":"","project_name":"","survey_name":"\u4e00\u822c\u56fd\u9053275\u53f7\u65b0\u5341\u6d25\u5ddd\u753a\u5fd7\u5bf8\u5ddd\u6a4b\u5730\u8cea\u8abf\u67fb\u5916\u4e00\u9023\u696d\u52d9","client_name":"\u56fd\u571f\u4ea4\u901a\u7701\u5317\u6d77\u9053\u958b\u767a\u5c40\u672d\u5e4c\u958b\u767a\u5efa\u8a2d\u90e8\u672c\u90e8","boring_xml_url":47,"boring_view_url":1,"soilmap_view_url":null,"soiltest_xml_url":47,"soiltest_view_url":47},{"id":463128,"code":"NGIC202102058-0002","latitude":"43.584944444444","longitude":"141.86931666667","source_code":"","project_name":"","survey_name":"\u4e00\u822c\u56fd\u9053275\u53f7\u65b0\u5341\u6d25\u5ddd\u753a\u5fd7\u5bf8\u5ddd\u6a4b\u5730\u8cea\u8abf\u67fb\u5916\u4e00\u9023\u696d\u52d9","client_name":"\u56fd\u571f\u4ea4\u901a\u7701\u5317\u6d77\u9053\u958b\u767a\u5c40\u672d\u5e4c\u958b\u767a\u5efa\u8a2d\u90e8\u672c\u90e8","boring_xml_url":47,"boring_view_url":1,"soilmap_view_url":null,"soiltest_xml_url":47,"soiltest_view_url":47},{"id":463127,"code":"NGIC202102058-0001","latitude":"43.461683055556","longitude":"141.8468475","source_code":"","project_name":"","survey_name":"\u4e00\u822c\u56fd\u9053275\u53f7\u65b0\u5341\u6d25\u5ddd\u753a\u5fd7\u5bf8\u5ddd\u6a4b\u5730\u8cea\u8abf\u67fb\u5916\u4e00\u9023\u696d\u52d9","client_name":"\u56fd\u571f\u4ea4\u901a\u7701\u5317\u6d77\u9053\u958b\u767a\u5c40\u672d\u5e4c\u958b\u767a\u5efa\u8a2d\u90e8\u672c\u90e8","boring_xml_url":47,"boring_view_url":1,"soilmap_view_url":null,"soiltest_xml_url":47,"soiltest_view_url":47},{"id":463124,"code":"NGIC202101921-0002","latitude":"43.938972222222","longitude":"144.14561111111","source_code":"","project_name":"\u56fd\u55b6\u304b\u3093\u304c\u3044\u6392\u6c34\u4e8b\u696d\u300c\u7db2\u8d70\u5ddd\u4e0b\u6d41\u5730\u533a\u300d","survey_name":"\u4ee4\u548c3\u5e74\u5ea6\u7db2\u8d70\u5730\u57df\u6a5f\u80fd\u8a3a\u65ad\u8abf\u67fb\u7b49\u696d\u52d9","client_name":"\u56fd\u571f\u4ea4\u901a\u7701\u5317\u6d77\u9053\u958b\u767a\u5c40\u7db2\u8d70\u958b\u767a\u5efa\u8a2d\u90e8\u8fb2\u696d\u8a08\u753b\u8ab2","boring_xml_url":47,"boring_view_url":1,"soilmap_view_url":null,"soiltest_xml_url":47,"soiltest_view_url":47},{"id":463123,"code":"NGIC202101921-0001","latitude":"43.939277777778","longitude":"144.14527777778","source_code":"","project_name":"\u56fd\u55b6\u304b\u3093\u304c\u3044\u6392\u6c34\u4e8b\u696d\u300c\u7db2\u8d70\u5ddd\u4e0b\u6d41\u5730\u533a\u300d","survey_name":"\u4ee4\u548c3\u5e74\u5ea6\u7db2\u8d70\u5730\u57df\u6a5f\u80fd\u8a3a\u65ad\u8abf\u67fb\u7b49\u696d\u52d9","client_name":"\u56fd\u571f\u4ea4\u901a\u7701\u5317\u6d77\u9053\u958b\u767a\u5c40\u7db2\u8d70\u958b\u767a\u5efa\u8a2d\u90e8\u8fb2\u696d\u8a08\u753b\u8ab2","boring_xml_url":47,"boring_view_url":1,"soilmap_view_url":null,"soiltest_xml_url":47,"soiltest_view_url":47},{"id":463122,"code":"NGIC202102102-0005","latitude":"33.277851138889","longitude":"131.67585902778","source_code":"","project_name":"","survey_name":"\u4ee4\u548c2\u5e74\u5ea6\u5927\u5206\u6e2f\u6d77\u5cb8\uff08\u4e59\u6d25\u5730\u533a\uff09\u571f\u8cea\u8abf\u67fb\uff08\u7b2c2\u6b21\uff09","client_name":"\u56fd\u571f\u4ea4\u901a\u7701\u4e5d\u5dde\u5730\u65b9\u6574\u5099\u5c40\u5225\u5e9c\u6e2f\u6e7e\u30fb\u7a7a\u6e2f\u6574\u5099\u4e8b\u52d9\u6240","boring_xml_url":47,"boring_view_url":1,"soilmap_view_url":71,"soiltest_xml_url":47,"soiltest_view_url":47},{"id":463121,"code":"NGIC202102102-0004","latitude":"33.277536222222","longitude":"131.67496963889","source_code":"","project_name":"","survey_name":"\u4ee4\u548c2\u5e74\u5ea6\u5927\u5206\u6e2f\u6d77\u5cb8\uff08\u4e59\u6d25\u5730\u533a\uff09\u571f\u8cea\u8abf\u67fb\uff08\u7b2c2\u6b21\uff09","client_name":"\u56fd\u571f\u4ea4\u901a\u7701\u4e5d\u5dde\u5730\u65b9\u6574\u5099\u5c40\u5225\u5e9c\u6e2f\u6e7e\u30fb\u7a7a\u6e2f\u6574\u5099\u4e8b\u52d9\u6240","boring_xml_url":47,"boring_view_url":1,"soilmap_view_url":71,"soiltest_xml_url":47,"soiltest_view_url":47},{"id":463120,"code":"NGIC202102102-0003","latitude":"33.277186194444","longitude":"131.67398102778","source_code":"","project_name":"","survey_name":"\u4ee4\u548c2\u5e74\u5ea6\u5927\u5206\u6e2f\u6d77\u5cb8\uff08\u4e59\u6d25\u5730\u533a\uff09\u571f\u8cea\u8abf\u67fb\uff08\u7b2c2\u6b21\uff09","client_name":"\u56fd\u571f\u4ea4\u901a\u7701\u4e5d\u5dde\u5730\u65b9\u6574\u5099\u5c40\u5225\u5e9c\u6e2f\u6e7e\u30fb\u7a7a\u6e2f\u6574\u5099\u4e8b\u52d9\u6240","boring_xml_url":47,"boring_view_url":1,"soilmap_view_url":71,"soiltest_xml_url":47,"soiltest_view_url":47},{"id":463119,"code":"NGIC202102102-0002","latitude":"33.276836","longitude":"131.67299158333","source_code":"","project_name":"","survey_name":"\u4ee4\u548c2\u5e74\u5ea6\u5927\u5206\u6e2f\u6d77\u5cb8\uff08\u4e59\u6d25\u5730\u533a\uff09\u571f\u8cea\u8abf\u67fb\uff08\u7b2c2\u6b21\uff09","client_name":"\u56fd\u571f\u4ea4\u901a\u7701\u4e5d\u5dde\u5730\u65b9\u6574\u5099\u5c40\u5225\u5e9c\u6e2f\u6e7e\u30fb\u7a7a\u6e2f\u6574\u5099\u4e8b\u52d9\u6240","boring_xml_url":47,"boring_view_url":1,"soilmap_view_url":71,"soiltest_xml_url":47,"soiltest_view_url":47},{"id":463118,"code":"NGIC202102102-0001","latitude":"33.276555527778","longitude":"131.67219966667","source_code":"","project_name":"","survey_name":"\u4ee4\u548c2\u5e74\u5ea6\u5927\u5206\u6e2f\u6d77\u5cb8\uff08\u4e59\u6d25\u5730\u533a\uff09\u571f\u8cea\u8abf\u67fb\uff08\u7b2c2\u6b21\uff09","client_name":"\u56fd\u571f\u4ea4\u901a\u7701\u4e5d\u5dde\u5730\u65b9\u6574\u5099\u5c40\u5225\u5e9c\u6e2f\u6e7e\u30fb\u7a7a\u6e2f\u6574\u5099\u4e8b\u52d9\u6240","boring_xml_url":47,"boring_view_url":1,"soilmap_view_url":71,"soiltest_xml_url":47,"soiltest_view_url":47},{"id":463091,"code":"NGIC202102129-0007","latitude":"38.081244444444","longitude":"138.43846666667","source_code":"","project_name":"","survey_name":"\u4e21\u6d25\u6e2f\uff08\u6e4a\u5730\u533a\uff09\u571f\u8cea\u8abf\u67fb","client_name":"\u56fd\u571f\u4ea4\u901a\u7701\u5317\u9678\u5730\u65b9\u6574\u5099\u5c40\u65b0\u6f5f\u6e2f\u6e7e\u30fb\u7a7a\u6e2f\u6574\u5099\u4e8b\u52d9\u6240","boring_xml_url":47,"boring_view_url":1,"soilmap_view_url":null,"soiltest_xml_url":0,"soiltest_view_url":0},{"id":463090,"code":"NGIC202102129-0006","latitude":"38.080766666667","longitude":"138.43791944444","source_code":"","project_name":"","survey_name":"\u4e21\u6d25\u6e2f\uff08\u6e4a\u5730\u533a\uff09\u571f\u8cea\u8abf\u67fb","client_name":"\u56fd\u571f\u4ea4\u901a\u7701\u5317\u9678\u5730\u65b9\u6574\u5099\u5c40\u65b0\u6f5f\u6e2f\u6e7e\u30fb\u7a7a\u6e2f\u6574\u5099\u4e8b\u52d9\u6240","boring_xml_url":47,"boring_view_url":1,"soilmap_view_url":71,"soiltest_xml_url":47,"soiltest_view_url":47},{"id":463089,"code":"NGIC202102129-0005","latitude":"38.081183333333","longitude":"138.43908611111","source_code":"","project_name":"","survey_name":"\u4e21\u6d25\u6e2f\uff08\u6e4a\u5730\u533a\uff09\u571f\u8cea\u8abf\u67fb","client_name":"\u56fd\u571f\u4ea4\u901a\u7701\u5317\u9678\u5730\u65b9\u6574\u5099\u5c40\u65b0\u6f5f\u6e2f\u6e7e\u30fb\u7a7a\u6e2f\u6574\u5099\u4e8b\u52d9\u6240","boring_xml_url":47,"boring_view_url":1,"soilmap_view_url":71,"soiltest_xml_url":47,"soiltest_view_url":47},{"id":463088,"code":"NGIC202102129-0004","latitude":"38.081030555556","longitude":"138.43765555556","source_code":"","project_name":"","survey_name":"\u4e21\u6d25\u6e2f\uff08\u6e4a\u5730\u533a\uff09\u571f\u8cea\u8abf\u67fb","client_name":"\u56fd\u571f\u4ea4\u901a\u7701\u5317\u9678\u5730\u65b9\u6574\u5099\u5c40\u65b0\u6f5f\u6e2f\u6e7e\u30fb\u7a7a\u6e2f\u6574\u5099\u4e8b\u52d9\u6240","boring_xml_url":47,"boring_view_url":1,"soilmap_view_url":71,"soiltest_xml_url":47,"soiltest_view_url":47},{"id":463087,"code":"NGIC202102129-0003","latitude":"38.081297222222","longitude":"138.43847777778","source_code":"","project_name":"","survey_name":"\u4e21\u6d25\u6e2f\uff08\u6e4a\u5730\u533a\uff09\u571f\u8cea\u8abf\u67fb","client_name":"\u56fd\u571f\u4ea4\u901a\u7701\u5317\u9678\u5730\u65b9\u6574\u5099\u5c40\u65b0\u6f5f\u6e2f\u6e7e\u30fb\u7a7a\u6e2f\u6574\u5099\u4e8b\u52d9\u6240","boring_xml_url":47,"boring_view_url":1,"soilmap_view_url":71,"soiltest_xml_url":47,"soiltest_view_url":47},{"id":463086,"code":"NGIC202102129-0002","latitude":"38.081338888889","longitude":"138.43961388889","source_code":"","project_name":"","survey_name":"\u4e21\u6d25\u6e2f\uff08\u6e4a\u5730\u533a\uff09\u571f\u8cea\u8abf\u67fb","client_name":"\u56fd\u571f\u4ea4\u901a\u7701\u5317\u9678\u5730\u65b9\u6574\u5099\u5c40\u65b0\u6f5f\u6e2f\u6e7e\u30fb\u7a7a\u6e2f\u6574\u5099\u4e8b\u52d9\u6240","boring_xml_url":47,"boring_view_url":1,"soilmap_view_url":71,"soiltest_xml_url":47,"soiltest_view_url":47}]}}