{"header":{"xyz":{"source":[],"mosaic":false},"page":1885,"raw":{"soiltest_result":"0","bbox":"57.598333,109.544722,1.933333,163.806111","page":"1885"},"conditions":{"soiltest_result":0,"north":57.598333,"west":109.544722,"south":1.933333,"east":163.806111},"success":true,"message":""},"data":{"meta":{"total":212844,"page":1885,"pages":7095,"count":30},"values":[{"id":460523,"code":"NGIC202101411-0002","latitude":"32.479132611111","longitude":"130.49319563889","source_code":"","project_name":"","survey_name":"\u4ee4\u548c3\u5e74\u5ea6\u516b\u4ee3\u6e2f\u5927\u7bc9\u5cf6\u571f\u7802\u51e6\u5206\u5834\u571f\u8cea\u8abf\u67fb\uff08\u7b2c2\u6b21\uff09","client_name":"\u56fd\u571f\u4ea4\u901a\u7701\u4e5d\u5dde\u5730\u65b9\u6574\u5099\u5c40\u718a\u672c\u6e2f\u6e7e\u30fb\u7a7a\u6e2f\u6574\u5099\u4e8b\u52d9\u6240","boring_xml_url":47,"boring_view_url":1,"soilmap_view_url":71,"soiltest_xml_url":47,"soiltest_view_url":47},{"id":460522,"code":"NGIC202101411-0001","latitude":"32.479963444444","longitude":"130.49270541667","source_code":"","project_name":"","survey_name":"\u4ee4\u548c3\u5e74\u5ea6\u516b\u4ee3\u6e2f\u5927\u7bc9\u5cf6\u571f\u7802\u51e6\u5206\u5834\u571f\u8cea\u8abf\u67fb\uff08\u7b2c2\u6b21\uff09","client_name":"\u56fd\u571f\u4ea4\u901a\u7701\u4e5d\u5dde\u5730\u65b9\u6574\u5099\u5c40\u718a\u672c\u6e2f\u6e7e\u30fb\u7a7a\u6e2f\u6574\u5099\u4e8b\u52d9\u6240","boring_xml_url":47,"boring_view_url":1,"soilmap_view_url":71,"soiltest_xml_url":47,"soiltest_view_url":47},{"id":460486,"code":"NGIC202101436-0004","latitude":"37.162166666667","longitude":"138.92722222222","source_code":"","project_name":"R3\u9577\u5ca1\u56fd\u9053\u7ba1\u5185\u5730\u8cea\u8abf\u67fb\u696d\u52d9\uff08\u5358\u4fa1\u5951\u7d04\uff09","survey_name":"\u5de5\u7b2c3\u53f7\u56fd\u905317\u53f7\u6d66\u4f50\u30d0\u30a4\u30d1\u30b9\u65b0\u6d66\u4f50\u5927\u6a4b\uff08\u30e9\u30f3\u30d7\u90e8\uff09\u5730\u8cea\u8abf\u67fb\u305d\u306e2","client_name":"\u56fd\u571f\u4ea4\u901a\u7701\u5317\u9678\u5730\u65b9\u6574\u5099\u5c40\u9577\u5ca1\u56fd\u9053\u4e8b\u52d9\u6240","boring_xml_url":47,"boring_view_url":1,"soilmap_view_url":null,"soiltest_xml_url":0,"soiltest_view_url":0},{"id":460485,"code":"NGIC202101436-0003","latitude":"37.162055555556","longitude":"138.92697222222","source_code":"","project_name":"R3\u9577\u5ca1\u56fd\u9053\u7ba1\u5185\u5730\u8cea\u8abf\u67fb\u696d\u52d9\uff08\u5358\u4fa1\u5951\u7d04\uff09","survey_name":"\u5de5\u7b2c3\u53f7\u56fd\u905317\u53f7\u6d66\u4f50\u30d0\u30a4\u30d1\u30b9\u65b0\u6d66\u4f50\u5927\u6a4b\uff08\u30e9\u30f3\u30d7\u90e8\uff09\u5730\u8cea\u8abf\u67fb\u305d\u306e2","client_name":"\u56fd\u571f\u4ea4\u901a\u7701\u5317\u9678\u5730\u65b9\u6574\u5099\u5c40\u9577\u5ca1\u56fd\u9053\u4e8b\u52d9\u6240","boring_xml_url":47,"boring_view_url":1,"soilmap_view_url":null,"soiltest_xml_url":0,"soiltest_view_url":0},{"id":460484,"code":"NGIC202101436-0002","latitude":"37.162277777778","longitude":"138.927","source_code":"","project_name":"R3\u9577\u5ca1\u56fd\u9053\u7ba1\u5185\u5730\u8cea\u8abf\u67fb\u696d\u52d9\uff08\u5358\u4fa1\u5951\u7d04\uff09","survey_name":"\u5de5\u7b2c3\u53f7\u56fd\u905317\u53f7\u6d66\u4f50\u30d0\u30a4\u30d1\u30b9\u65b0\u6d66\u4f50\u5927\u6a4b\uff08\u30e9\u30f3\u30d7\u90e8\uff09\u5730\u8cea\u8abf\u67fb\u305d\u306e2","client_name":"\u56fd\u571f\u4ea4\u901a\u7701\u5317\u9678\u5730\u65b9\u6574\u5099\u5c40\u9577\u5ca1\u56fd\u9053\u4e8b\u52d9\u6240","boring_xml_url":47,"boring_view_url":1,"soilmap_view_url":null,"soiltest_xml_url":0,"soiltest_view_url":0},{"id":460483,"code":"NGIC202101436-0001","latitude":"37.162055555556","longitude":"138.92669444444","source_code":"","project_name":"R3\u9577\u5ca1\u56fd\u9053\u7ba1\u5185\u5730\u8cea\u8abf\u67fb\u696d\u52d9\uff08\u5358\u4fa1\u5951\u7d04\uff09","survey_name":"\u5de5\u7b2c3\u53f7\u56fd\u905317\u53f7\u6d66\u4f50\u30d0\u30a4\u30d1\u30b9\u65b0\u6d66\u4f50\u5927\u6a4b\uff08\u30e9\u30f3\u30d7\u90e8\uff09\u5730\u8cea\u8abf\u67fb\u305d\u306e2","client_name":"\u56fd\u571f\u4ea4\u901a\u7701\u5317\u9678\u5730\u65b9\u6574\u5099\u5c40\u9577\u5ca1\u56fd\u9053\u4e8b\u52d9\u6240","boring_xml_url":47,"boring_view_url":1,"soilmap_view_url":null,"soiltest_xml_url":0,"soiltest_view_url":0},{"id":460482,"code":"NGIC202101435-0005","latitude":"37.162333333333","longitude":"138.92644444444","source_code":"","project_name":"R3\u9577\u5ca1\u56fd\u9053\u7ba1\u5185\u5730\u8cea\u8abf\u67fb\u696d\u52d9\uff08\u5358\u4fa1\u5951\u7d04\uff09","survey_name":"\u5de5\u7b2c2\u53f7 \u56fd\u905317\u53f7\u6d66\u4f50\u30d0\u30a4\u30d1\u30b9\u65b0\u6d66\u4f50\u5927\u6a4b\uff08\u30e9\u30f3\u30d7\u90e8\uff09\u5730\u8cea\u8abf\u67fb\u305d\u306e1","client_name":"\u56fd\u571f\u4ea4\u901a\u7701\u5317\u9678\u5730\u65b9\u6574\u5099\u5c40\u9577\u5ca1\u56fd\u9053\u4e8b\u52d9\u6240","boring_xml_url":47,"boring_view_url":1,"soilmap_view_url":null,"soiltest_xml_url":0,"soiltest_view_url":0},{"id":460481,"code":"NGIC202101435-0004","latitude":"37.162083333333","longitude":"138.92613888889","source_code":"","project_name":"R3\u9577\u5ca1\u56fd\u9053\u7ba1\u5185\u5730\u8cea\u8abf\u67fb\u696d\u52d9\uff08\u5358\u4fa1\u5951\u7d04\uff09","survey_name":"\u5de5\u7b2c2\u53f7 \u56fd\u905317\u53f7\u6d66\u4f50\u30d0\u30a4\u30d1\u30b9\u65b0\u6d66\u4f50\u5927\u6a4b\uff08\u30e9\u30f3\u30d7\u90e8\uff09\u5730\u8cea\u8abf\u67fb\u305d\u306e1","client_name":"\u56fd\u571f\u4ea4\u901a\u7701\u5317\u9678\u5730\u65b9\u6574\u5099\u5c40\u9577\u5ca1\u56fd\u9053\u4e8b\u52d9\u6240","boring_xml_url":47,"boring_view_url":1,"soilmap_view_url":null,"soiltest_xml_url":0,"soiltest_view_url":0},{"id":460480,"code":"NGIC202101435-0003","latitude":"37.162333333333","longitude":"138.92586111111","source_code":"","project_name":"R3\u9577\u5ca1\u56fd\u9053\u7ba1\u5185\u5730\u8cea\u8abf\u67fb\u696d\u52d9\uff08\u5358\u4fa1\u5951\u7d04\uff09","survey_name":"\u5de5\u7b2c2\u53f7 \u56fd\u905317\u53f7\u6d66\u4f50\u30d0\u30a4\u30d1\u30b9\u65b0\u6d66\u4f50\u5927\u6a4b\uff08\u30e9\u30f3\u30d7\u90e8\uff09\u5730\u8cea\u8abf\u67fb\u305d\u306e1","client_name":"\u56fd\u571f\u4ea4\u901a\u7701\u5317\u9678\u5730\u65b9\u6574\u5099\u5c40\u9577\u5ca1\u56fd\u9053\u4e8b\u52d9\u6240","boring_xml_url":47,"boring_view_url":1,"soilmap_view_url":null,"soiltest_xml_url":0,"soiltest_view_url":0},{"id":460479,"code":"NGIC202101435-0002","latitude":"37.162111111111","longitude":"138.92530555556","source_code":"","project_name":"R3\u9577\u5ca1\u56fd\u9053\u7ba1\u5185\u5730\u8cea\u8abf\u67fb\u696d\u52d9\uff08\u5358\u4fa1\u5951\u7d04\uff09","survey_name":"\u5de5\u7b2c2\u53f7 \u56fd\u905317\u53f7\u6d66\u4f50\u30d0\u30a4\u30d1\u30b9\u65b0\u6d66\u4f50\u5927\u6a4b\uff08\u30e9\u30f3\u30d7\u90e8\uff09\u5730\u8cea\u8abf\u67fb\u305d\u306e1","client_name":"\u56fd\u571f\u4ea4\u901a\u7701\u5317\u9678\u5730\u65b9\u6574\u5099\u5c40\u9577\u5ca1\u56fd\u9053\u4e8b\u52d9\u6240","boring_xml_url":47,"boring_view_url":1,"soilmap_view_url":null,"soiltest_xml_url":0,"soiltest_view_url":0},{"id":460478,"code":"NGIC202101435-0001","latitude":"37.162361111111","longitude":"138.92530555556","source_code":"","project_name":"R3\u9577\u5ca1\u56fd\u9053\u7ba1\u5185\u5730\u8cea\u8abf\u67fb\u696d\u52d9\uff08\u5358\u4fa1\u5951\u7d04\uff09","survey_name":"\u5de5\u7b2c2\u53f7 \u56fd\u905317\u53f7\u6d66\u4f50\u30d0\u30a4\u30d1\u30b9\u65b0\u6d66\u4f50\u5927\u6a4b\uff08\u30e9\u30f3\u30d7\u90e8\uff09\u5730\u8cea\u8abf\u67fb\u305d\u306e1","client_name":"\u56fd\u571f\u4ea4\u901a\u7701\u5317\u9678\u5730\u65b9\u6574\u5099\u5c40\u9577\u5ca1\u56fd\u9053\u4e8b\u52d9\u6240","boring_xml_url":47,"boring_view_url":1,"soilmap_view_url":null,"soiltest_xml_url":0,"soiltest_view_url":0},{"id":460449,"code":"NGIC202101377-0007","latitude":"35.688104277778","longitude":"139.98387688889","source_code":"","project_name":"","survey_name":"\u5343\u8449\u6e2f\u845b\u5357\u4e2d\u592e\u5730\u533a\u571f\u8cea\u8abf\u67fb","client_name":"\u56fd\u571f\u4ea4\u901a\u7701\u95a2\u6771\u5730\u65b9\u6574\u5099\u5c40\u5343\u8449\u6e2f\u6e7e\u4e8b\u52d9\u6240","boring_xml_url":47,"boring_view_url":1,"soilmap_view_url":71,"soiltest_xml_url":47,"soiltest_view_url":47},{"id":460448,"code":"NGIC202101377-0006","latitude":"35.685541027778","longitude":"139.98516122222","source_code":"","project_name":"","survey_name":"\u5343\u8449\u6e2f\u845b\u5357\u4e2d\u592e\u5730\u533a\u571f\u8cea\u8abf\u67fb","client_name":"\u56fd\u571f\u4ea4\u901a\u7701\u95a2\u6771\u5730\u65b9\u6574\u5099\u5c40\u5343\u8449\u6e2f\u6e7e\u4e8b\u52d9\u6240","boring_xml_url":47,"boring_view_url":1,"soilmap_view_url":71,"soiltest_xml_url":47,"soiltest_view_url":47},{"id":460447,"code":"NGIC202101377-0005","latitude":"35.685719916667","longitude":"139.98456622222","source_code":"","project_name":"","survey_name":"\u5343\u8449\u6e2f\u845b\u5357\u4e2d\u592e\u5730\u533a\u571f\u8cea\u8abf\u67fb","client_name":"\u56fd\u571f\u4ea4\u901a\u7701\u95a2\u6771\u5730\u65b9\u6574\u5099\u5c40\u5343\u8449\u6e2f\u6e7e\u4e8b\u52d9\u6240","boring_xml_url":47,"boring_view_url":1,"soilmap_view_url":71,"soiltest_xml_url":47,"soiltest_view_url":47},{"id":460446,"code":"NGIC202101377-0004","latitude":"35.683479388889","longitude":"139.98438363889","source_code":"","project_name":"","survey_name":"\u5343\u8449\u6e2f\u845b\u5357\u4e2d\u592e\u5730\u533a\u571f\u8cea\u8abf\u67fb","client_name":"\u56fd\u571f\u4ea4\u901a\u7701\u95a2\u6771\u5730\u65b9\u6574\u5099\u5c40\u5343\u8449\u6e2f\u6e7e\u4e8b\u52d9\u6240","boring_xml_url":47,"boring_view_url":1,"soilmap_view_url":71,"soiltest_xml_url":47,"soiltest_view_url":47},{"id":460445,"code":"NGIC202101377-0003","latitude":"35.68370175","longitude":"139.98367297222","source_code":"","project_name":"","survey_name":"\u5343\u8449\u6e2f\u845b\u5357\u4e2d\u592e\u5730\u533a\u571f\u8cea\u8abf\u67fb","client_name":"\u56fd\u571f\u4ea4\u901a\u7701\u95a2\u6771\u5730\u65b9\u6574\u5099\u5c40\u5343\u8449\u6e2f\u6e7e\u4e8b\u52d9\u6240","boring_xml_url":47,"boring_view_url":1,"soilmap_view_url":71,"soiltest_xml_url":47,"soiltest_view_url":47},{"id":460444,"code":"NGIC202101377-0002","latitude":"35.681126666667","longitude":"139.98311827778","source_code":"","project_name":"","survey_name":"\u5343\u8449\u6e2f\u845b\u5357\u4e2d\u592e\u5730\u533a\u571f\u8cea\u8abf\u67fb","client_name":"\u56fd\u571f\u4ea4\u901a\u7701\u95a2\u6771\u5730\u65b9\u6574\u5099\u5c40\u5343\u8449\u6e2f\u6e7e\u4e8b\u52d9\u6240","boring_xml_url":47,"boring_view_url":1,"soilmap_view_url":71,"soiltest_xml_url":47,"soiltest_view_url":47},{"id":460443,"code":"NGIC202101377-0001","latitude":"35.68292075","longitude":"139.97532838889","source_code":"","project_name":"","survey_name":"\u5343\u8449\u6e2f\u845b\u5357\u4e2d\u592e\u5730\u533a\u571f\u8cea\u8abf\u67fb","client_name":"\u56fd\u571f\u4ea4\u901a\u7701\u95a2\u6771\u5730\u65b9\u6574\u5099\u5c40\u5343\u8449\u6e2f\u6e7e\u4e8b\u52d9\u6240","boring_xml_url":47,"boring_view_url":1,"soilmap_view_url":71,"soiltest_xml_url":47,"soiltest_view_url":47},{"id":460422,"code":"NGIC202101409-0002","latitude":"38.742055555556","longitude":"140.27830555556","source_code":"","project_name":"\u5c71\u5f62\u7ba1\u5185\u9632\u707d\u70b9\u691c\u696d\u52d9","survey_name":"\u5c71\u5f62\u7ba1\u5185\u9632\u707d\u70b9\u691c\u696d\u52d9","client_name":"\u56fd\u571f\u4ea4\u901a\u7701\u6771\u5317\u5730\u65b9\u6574\u5099\u5c40\u5c71\u5f62\u6cb3\u5ddd\u56fd\u9053\u4e8b\u52d9\u6240","boring_xml_url":47,"boring_view_url":1,"soilmap_view_url":null,"soiltest_xml_url":0,"soiltest_view_url":0},{"id":460421,"code":"NGIC202101409-0001","latitude":"38.729563888889","longitude":"140.16314444444","source_code":"","project_name":"\u5c71\u5f62\u7ba1\u5185\u9632\u707d\u70b9\u691c\u696d\u52d9","survey_name":"\u5c71\u5f62\u7ba1\u5185\u9632\u707d\u70b9\u691c\u696d\u52d9","client_name":"\u56fd\u571f\u4ea4\u901a\u7701\u6771\u5317\u5730\u65b9\u6574\u5099\u5c40\u5c71\u5f62\u6cb3\u5ddd\u56fd\u9053\u4e8b\u52d9\u6240","boring_xml_url":47,"boring_view_url":1,"soilmap_view_url":null,"soiltest_xml_url":0,"soiltest_view_url":0},{"id":460405,"code":"NGIC202101418-0015","latitude":"37.320777777778","longitude":"138.91216666667","source_code":"","project_name":"","survey_name":"\u4ee4\u548c2\u5e74\u5ea6\u5730\u8cea\u8abf\u67fb(\u305d\u306e2)\u696d\u52d9","client_name":"\u56fd\u571f\u4ea4\u901a\u7701\u5317\u9678\u5730\u65b9\u6574\u5099\u5c40\u6e6f\u6ca2\u7802\u9632\u4e8b\u52d9\u6240","boring_xml_url":47,"boring_view_url":1,"soilmap_view_url":null,"soiltest_xml_url":0,"soiltest_view_url":0},{"id":460404,"code":"NGIC202101418-0014","latitude":"37.320277777778","longitude":"138.91175","source_code":"","project_name":"","survey_name":"\u4ee4\u548c2\u5e74\u5ea6\u5730\u8cea\u8abf\u67fb(\u305d\u306e2)\u696d\u52d9","client_name":"\u56fd\u571f\u4ea4\u901a\u7701\u5317\u9678\u5730\u65b9\u6574\u5099\u5c40\u6e6f\u6ca2\u7802\u9632\u4e8b\u52d9\u6240","boring_xml_url":47,"boring_view_url":1,"soilmap_view_url":null,"soiltest_xml_url":0,"soiltest_view_url":0},{"id":460403,"code":"NGIC202101418-0013","latitude":"37.319833333333","longitude":"138.91172222222","source_code":"","project_name":"","survey_name":"\u4ee4\u548c2\u5e74\u5ea6\u5730\u8cea\u8abf\u67fb(\u305d\u306e2)\u696d\u52d9","client_name":"\u56fd\u571f\u4ea4\u901a\u7701\u5317\u9678\u5730\u65b9\u6574\u5099\u5c40\u6e6f\u6ca2\u7802\u9632\u4e8b\u52d9\u6240","boring_xml_url":47,"boring_view_url":1,"soilmap_view_url":null,"soiltest_xml_url":0,"soiltest_view_url":0},{"id":460402,"code":"NGIC202101418-0012","latitude":"37.319083333333","longitude":"138.91205555556","source_code":"","project_name":"","survey_name":"\u4ee4\u548c2\u5e74\u5ea6\u5730\u8cea\u8abf\u67fb(\u305d\u306e2)\u696d\u52d9","client_name":"\u56fd\u571f\u4ea4\u901a\u7701\u5317\u9678\u5730\u65b9\u6574\u5099\u5c40\u6e6f\u6ca2\u7802\u9632\u4e8b\u52d9\u6240","boring_xml_url":47,"boring_view_url":1,"soilmap_view_url":null,"soiltest_xml_url":0,"soiltest_view_url":0},{"id":460401,"code":"NGIC202101418-0011","latitude":"37.305388888889","longitude":"138.90475","source_code":"","project_name":"","survey_name":"\u4ee4\u548c2\u5e74\u5ea6\u5730\u8cea\u8abf\u67fb(\u305d\u306e2)\u696d\u52d9","client_name":"\u56fd\u571f\u4ea4\u901a\u7701\u5317\u9678\u5730\u65b9\u6574\u5099\u5c40\u6e6f\u6ca2\u7802\u9632\u4e8b\u52d9\u6240","boring_xml_url":47,"boring_view_url":1,"soilmap_view_url":null,"soiltest_xml_url":0,"soiltest_view_url":0},{"id":460400,"code":"NGIC202101418-0010","latitude":"37.3045","longitude":"138.90425","source_code":"","project_name":"","survey_name":"\u4ee4\u548c2\u5e74\u5ea6\u5730\u8cea\u8abf\u67fb(\u305d\u306e2)\u696d\u52d9","client_name":"\u56fd\u571f\u4ea4\u901a\u7701\u5317\u9678\u5730\u65b9\u6574\u5099\u5c40\u6e6f\u6ca2\u7802\u9632\u4e8b\u52d9\u6240","boring_xml_url":47,"boring_view_url":1,"soilmap_view_url":null,"soiltest_xml_url":0,"soiltest_view_url":0},{"id":460399,"code":"NGIC202101418-0009","latitude":"37.303972222222","longitude":"138.904","source_code":"","project_name":"","survey_name":"\u4ee4\u548c2\u5e74\u5ea6\u5730\u8cea\u8abf\u67fb(\u305d\u306e2)\u696d\u52d9","client_name":"\u56fd\u571f\u4ea4\u901a\u7701\u5317\u9678\u5730\u65b9\u6574\u5099\u5c40\u6e6f\u6ca2\u7802\u9632\u4e8b\u52d9\u6240","boring_xml_url":47,"boring_view_url":1,"soilmap_view_url":null,"soiltest_xml_url":0,"soiltest_view_url":0},{"id":460398,"code":"NGIC202101418-0008","latitude":"36.878324444444","longitude":"138.64055694444","source_code":"","project_name":"","survey_name":"\u4ee4\u548c2\u5e74\u5ea6\u5730\u8cea\u8abf\u67fb(\u305d\u306e2)\u696d\u52d9","client_name":"\u56fd\u571f\u4ea4\u901a\u7701\u5317\u9678\u5730\u65b9\u6574\u5099\u5c40\u6e6f\u6ca2\u7802\u9632\u4e8b\u52d9\u6240","boring_xml_url":47,"boring_view_url":1,"soilmap_view_url":null,"soiltest_xml_url":0,"soiltest_view_url":0},{"id":460397,"code":"NGIC202101418-0007","latitude":"36.878553333333","longitude":"138.64094472222","source_code":"","project_name":"","survey_name":"\u4ee4\u548c2\u5e74\u5ea6\u5730\u8cea\u8abf\u67fb(\u305d\u306e2)\u696d\u52d9","client_name":"\u56fd\u571f\u4ea4\u901a\u7701\u5317\u9678\u5730\u65b9\u6574\u5099\u5c40\u6e6f\u6ca2\u7802\u9632\u4e8b\u52d9\u6240","boring_xml_url":47,"boring_view_url":1,"soilmap_view_url":null,"soiltest_xml_url":0,"soiltest_view_url":0},{"id":460396,"code":"NGIC202101418-0006","latitude":"36.878696388889","longitude":"138.64098472222","source_code":"","project_name":"","survey_name":"\u4ee4\u548c2\u5e74\u5ea6\u5730\u8cea\u8abf\u67fb(\u305d\u306e2)\u696d\u52d9","client_name":"\u56fd\u571f\u4ea4\u901a\u7701\u5317\u9678\u5730\u65b9\u6574\u5099\u5c40\u6e6f\u6ca2\u7802\u9632\u4e8b\u52d9\u6240","boring_xml_url":47,"boring_view_url":1,"soilmap_view_url":null,"soiltest_xml_url":0,"soiltest_view_url":0}]}}