{"header":{"xyz":{"source":[],"mosaic":false},"page":1887,"raw":{"soiltest_result":"0","bbox":"57.598333,109.544722,1.933333,163.806111","page":"1887"},"conditions":{"soiltest_result":0,"north":57.598333,"west":109.544722,"south":1.933333,"east":163.806111},"success":true,"message":""},"data":{"meta":{"total":212844,"page":1887,"pages":7095,"count":30},"values":[{"id":456358,"code":"NGIC202101318-0005","latitude":"35.550656666667","longitude":"139.78723694444","source_code":"","project_name":"","survey_name":"\u6771\u4eac\u56fd\u969b\u7a7a\u6e2f\u6771\u5074\u30bf\u30fc\u30df\u30ca\u30eb\u5730\u533a\u571f\u8cea\u8abf\u67fb","client_name":"\u56fd\u571f\u4ea4\u901a\u7701\u95a2\u6771\u5730\u65b9\u6574\u5099\u5c40\u6771\u4eac\u7a7a\u6e2f\u6574\u5099\u4e8b\u52d9\u6240","boring_xml_url":47,"boring_view_url":1,"soilmap_view_url":71,"soiltest_xml_url":47,"soiltest_view_url":47},{"id":456357,"code":"NGIC202101318-0004","latitude":"35.551935","longitude":"139.7859225","source_code":"","project_name":"","survey_name":"\u6771\u4eac\u56fd\u969b\u7a7a\u6e2f\u6771\u5074\u30bf\u30fc\u30df\u30ca\u30eb\u5730\u533a\u571f\u8cea\u8abf\u67fb","client_name":"\u56fd\u571f\u4ea4\u901a\u7701\u95a2\u6771\u5730\u65b9\u6574\u5099\u5c40\u6771\u4eac\u7a7a\u6e2f\u6574\u5099\u4e8b\u52d9\u6240","boring_xml_url":47,"boring_view_url":1,"soilmap_view_url":71,"soiltest_xml_url":47,"soiltest_view_url":47},{"id":456356,"code":"NGIC202101318-0003","latitude":"35.551927222222","longitude":"139.78592805556","source_code":"","project_name":"","survey_name":"\u6771\u4eac\u56fd\u969b\u7a7a\u6e2f\u6771\u5074\u30bf\u30fc\u30df\u30ca\u30eb\u5730\u533a\u571f\u8cea\u8abf\u67fb","client_name":"\u56fd\u571f\u4ea4\u901a\u7701\u95a2\u6771\u5730\u65b9\u6574\u5099\u5c40\u6771\u4eac\u7a7a\u6e2f\u6574\u5099\u4e8b\u52d9\u6240","boring_xml_url":47,"boring_view_url":1,"soilmap_view_url":71,"soiltest_xml_url":47,"soiltest_view_url":47},{"id":456355,"code":"NGIC202101318-0002","latitude":"35.552635833333","longitude":"139.78549166667","source_code":"","project_name":"","survey_name":"\u6771\u4eac\u56fd\u969b\u7a7a\u6e2f\u6771\u5074\u30bf\u30fc\u30df\u30ca\u30eb\u5730\u533a\u571f\u8cea\u8abf\u67fb","client_name":"\u56fd\u571f\u4ea4\u901a\u7701\u95a2\u6771\u5730\u65b9\u6574\u5099\u5c40\u6771\u4eac\u7a7a\u6e2f\u6574\u5099\u4e8b\u52d9\u6240","boring_xml_url":47,"boring_view_url":1,"soilmap_view_url":71,"soiltest_xml_url":47,"soiltest_view_url":47},{"id":456354,"code":"NGIC202101318-0001","latitude":"35.552628055556","longitude":"139.78549722222","source_code":"","project_name":"","survey_name":"\u6771\u4eac\u56fd\u969b\u7a7a\u6e2f\u6771\u5074\u30bf\u30fc\u30df\u30ca\u30eb\u5730\u533a\u571f\u8cea\u8abf\u67fb","client_name":"\u56fd\u571f\u4ea4\u901a\u7701\u95a2\u6771\u5730\u65b9\u6574\u5099\u5c40\u6771\u4eac\u7a7a\u6e2f\u6574\u5099\u4e8b\u52d9\u6240","boring_xml_url":47,"boring_view_url":1,"soilmap_view_url":71,"soiltest_xml_url":47,"soiltest_view_url":47},{"id":456353,"code":"NGIC202101371-0001","latitude":"35.509255555556","longitude":"139.74043333333","source_code":"","project_name":"","survey_name":"\u5ddd\u5d0e\u6e2f\u81e8\u6e2f\u9053\u8def\u6771\u6247\u5cf6\u6c34\u6c5f\u753a\u7dda\u6c34\u6c5f\u753a\u30a2\u30d7\u30ed\u30fc\u30c1\u90e8\u571f\u8cea\u8abf\u67fb","client_name":"\u56fd\u571f\u4ea4\u901a\u7701\u95a2\u6771\u5730\u65b9\u6574\u5099\u5c40\u4eac\u6d5c\u6e2f\u6e7e\u4e8b\u52d9\u6240","boring_xml_url":47,"boring_view_url":1,"soilmap_view_url":null,"soiltest_xml_url":0,"soiltest_view_url":0},{"id":456323,"code":"NGIC202101355-0002","latitude":"36.978138888889","longitude":"137.63455555556","source_code":"","project_name":"\u4ee4\u548c3\u5e74\u5ea6\u9ad8\u7530\u6cb3\u5ddd\u56fd\u9053\u4e8b\u52d9\u6240\u7ba1\u5185\u5730\u8cea\u8abf\u67fb\u696d\u52d9","survey_name":"\u5883\u6a4b\u30dc\u30fc\u30ea\u30f3\u30b0\u8abf\u67fb","client_name":"\u56fd\u571f\u4ea4\u901a\u7701\u5317\u9678\u5730\u65b9\u6574\u5099\u5c40\u9ad8\u7530\u6cb3\u5ddd\u56fd\u9053\u4e8b\u52d9\u6240","boring_xml_url":47,"boring_view_url":1,"soilmap_view_url":null,"soiltest_xml_url":0,"soiltest_view_url":0},{"id":456322,"code":"NGIC202101355-0001","latitude":"36.978083333333","longitude":"137.63488888889","source_code":"","project_name":"\u4ee4\u548c3\u5e74\u5ea6\u9ad8\u7530\u6cb3\u5ddd\u56fd\u9053\u4e8b\u52d9\u6240\u7ba1\u5185\u5730\u8cea\u8abf\u67fb\u696d\u52d9","survey_name":"\u5883\u6a4b\u30dc\u30fc\u30ea\u30f3\u30b0\u8abf\u67fb","client_name":"\u56fd\u571f\u4ea4\u901a\u7701\u5317\u9678\u5730\u65b9\u6574\u5099\u5c40\u9ad8\u7530\u6cb3\u5ddd\u56fd\u9053\u4e8b\u52d9\u6240","boring_xml_url":47,"boring_view_url":1,"soilmap_view_url":null,"soiltest_xml_url":0,"soiltest_view_url":0},{"id":456321,"code":"NGIC202101357-0002","latitude":"36.284890333333","longitude":"140.50939788889","source_code":"","project_name":"","survey_name":"\u6db8\u6cbc\u6c34\u9ce5\u30fb\u6e7f\u5730\u30bb\u30f3\u30bf\u30fc(\u5c55\u793a\u65bd\u8a2d)\uff0821\uff09\u5730\u76e4\u8abf\u67fb","client_name":"\u56fd\u571f\u4ea4\u901a\u7701\u95a2\u6771\u5730\u65b9\u6574\u5099\u5c40\u5b87\u90fd\u5bae\u55b6\u7e55\u4e8b\u52d9\u6240","boring_xml_url":47,"boring_view_url":1,"soilmap_view_url":null,"soiltest_xml_url":47,"soiltest_view_url":47},{"id":456320,"code":"NGIC202101357-0001","latitude":"36.284882583333","longitude":"140.50971883333","source_code":"","project_name":"","survey_name":"\u6db8\u6cbc\u6c34\u9ce5\u30fb\u6e7f\u5730\u30bb\u30f3\u30bf\u30fc(\u5c55\u793a\u65bd\u8a2d)\uff0821\uff09\u5730\u76e4\u8abf\u67fb","client_name":"\u56fd\u571f\u4ea4\u901a\u7701\u95a2\u6771\u5730\u65b9\u6574\u5099\u5c40\u5b87\u90fd\u5bae\u55b6\u7e55\u4e8b\u52d9\u6240","boring_xml_url":47,"boring_view_url":1,"soilmap_view_url":null,"soiltest_xml_url":47,"soiltest_view_url":47},{"id":456317,"code":"NGIC202101195-0003","latitude":"38.428758333333","longitude":"140.916175","source_code":"","project_name":"\u7af9\u6797\u5ddd\u904a\u6c34\u5730\u6392\u6c34\u6a0b\u9580\u5de5\u4e8b","survey_name":"\u7af9\u6797\u5ddd\u904a\u6c34\u5730\u6392\u6c34\u6a0b\u9580\u5de5\u4e8b","client_name":"\u56fd\u571f\u4ea4\u901a\u7701\u6771\u5317\u5730\u65b9\u6574\u5099\u5c40\u5317\u4e0a\u5ddd\u4e0b\u6d41\u6cb3\u5ddd\u4e8b\u52d9\u6240","boring_xml_url":47,"boring_view_url":1,"soilmap_view_url":null,"soiltest_xml_url":0,"soiltest_view_url":0},{"id":456316,"code":"NGIC202101195-0002","latitude":"38.428858333333","longitude":"140.91608333333","source_code":"","project_name":"\u7af9\u6797\u5ddd\u904a\u6c34\u5730\u6392\u6c34\u6a0b\u9580\u5de5\u4e8b","survey_name":"\u7af9\u6797\u5ddd\u904a\u6c34\u5730\u6392\u6c34\u6a0b\u9580\u5de5\u4e8b","client_name":"\u56fd\u571f\u4ea4\u901a\u7701\u6771\u5317\u5730\u65b9\u6574\u5099\u5c40\u5317\u4e0a\u5ddd\u4e0b\u6d41\u6cb3\u5ddd\u4e8b\u52d9\u6240","boring_xml_url":47,"boring_view_url":1,"soilmap_view_url":null,"soiltest_xml_url":47,"soiltest_view_url":47},{"id":456315,"code":"NGIC202101195-0001","latitude":"38.428911111111","longitude":"140.91603611111","source_code":"","project_name":"\u7af9\u6797\u5ddd\u904a\u6c34\u5730\u6392\u6c34\u6a0b\u9580\u5de5\u4e8b","survey_name":"\u7af9\u6797\u5ddd\u904a\u6c34\u5730\u6392\u6c34\u6a0b\u9580\u5de5\u4e8b","client_name":"\u56fd\u571f\u4ea4\u901a\u7701\u6771\u5317\u5730\u65b9\u6574\u5099\u5c40\u5317\u4e0a\u5ddd\u4e0b\u6d41\u6cb3\u5ddd\u4e8b\u52d9\u6240","boring_xml_url":47,"boring_view_url":1,"soilmap_view_url":null,"soiltest_xml_url":47,"soiltest_view_url":47},{"id":456314,"code":"NGIC202101334-0005","latitude":"35.581059916667","longitude":"135.11837058333","source_code":"","project_name":"","survey_name":"\u5927\u5bae\u5cf0\u5c71\u9053\u8def\u68ee\u672c\u5730\u533a\u5730\u8cea\u8abf\u67fb\u696d\u52d9","client_name":"\u56fd\u571f\u4ea4\u901a\u7701\u8fd1\u757f\u5730\u65b9\u6574\u5099\u5c40\u798f\u77e5\u5c71\u6cb3\u5ddd\u56fd\u9053\u4e8b\u52d9\u6240","boring_xml_url":47,"boring_view_url":1,"soilmap_view_url":null,"soiltest_xml_url":47,"soiltest_view_url":47},{"id":456313,"code":"NGIC202101334-0004","latitude":"35.579890222222","longitude":"135.11900322222","source_code":"","project_name":"","survey_name":"\u5927\u5bae\u5cf0\u5c71\u9053\u8def\u68ee\u672c\u5730\u533a\u5730\u8cea\u8abf\u67fb\u696d\u52d9","client_name":"\u56fd\u571f\u4ea4\u901a\u7701\u8fd1\u757f\u5730\u65b9\u6574\u5099\u5c40\u798f\u77e5\u5c71\u6cb3\u5ddd\u56fd\u9053\u4e8b\u52d9\u6240","boring_xml_url":47,"boring_view_url":1,"soilmap_view_url":null,"soiltest_xml_url":0,"soiltest_view_url":0},{"id":456312,"code":"NGIC202101334-0003","latitude":"35.579125083333","longitude":"135.11932525","source_code":"","project_name":"","survey_name":"\u5927\u5bae\u5cf0\u5c71\u9053\u8def\u68ee\u672c\u5730\u533a\u5730\u8cea\u8abf\u67fb\u696d\u52d9","client_name":"\u56fd\u571f\u4ea4\u901a\u7701\u8fd1\u757f\u5730\u65b9\u6574\u5099\u5c40\u798f\u77e5\u5c71\u6cb3\u5ddd\u56fd\u9053\u4e8b\u52d9\u6240","boring_xml_url":47,"boring_view_url":1,"soilmap_view_url":null,"soiltest_xml_url":0,"soiltest_view_url":0},{"id":456311,"code":"NGIC202101334-0002","latitude":"35.575137722222","longitude":"135.12076127778","source_code":"","project_name":"","survey_name":"\u5927\u5bae\u5cf0\u5c71\u9053\u8def\u68ee\u672c\u5730\u533a\u5730\u8cea\u8abf\u67fb\u696d\u52d9","client_name":"\u56fd\u571f\u4ea4\u901a\u7701\u8fd1\u757f\u5730\u65b9\u6574\u5099\u5c40\u798f\u77e5\u5c71\u6cb3\u5ddd\u56fd\u9053\u4e8b\u52d9\u6240","boring_xml_url":47,"boring_view_url":1,"soilmap_view_url":null,"soiltest_xml_url":0,"soiltest_view_url":0},{"id":456310,"code":"NGIC202101334-0001","latitude":"35.574766555556","longitude":"135.12083116667","source_code":"","project_name":"","survey_name":"\u5927\u5bae\u5cf0\u5c71\u9053\u8def\u68ee\u672c\u5730\u533a\u5730\u8cea\u8abf\u67fb\u696d\u52d9","client_name":"\u56fd\u571f\u4ea4\u901a\u7701\u8fd1\u757f\u5730\u65b9\u6574\u5099\u5c40\u798f\u77e5\u5c71\u6cb3\u5ddd\u56fd\u9053\u4e8b\u52d9\u6240","boring_xml_url":47,"boring_view_url":1,"soilmap_view_url":null,"soiltest_xml_url":0,"soiltest_view_url":0},{"id":443780,"code":"NGIC202101315-0002","latitude":"33.795622222222","longitude":"130.99558055556","source_code":"","project_name":"","survey_name":"\u4ee4\u548c3\u5e74\u5ea6\u82c5\u7530\u6e2f(\u672c\u6e2f\u5730\u533a)\u5cb8\u58c1(-10m)\u571f\u8cea\u8abf\u67fb","client_name":"\u56fd\u571f\u4ea4\u901a\u7701\u4e5d\u5dde\u5730\u65b9\u6574\u5099\u5c40\u82c5\u7530\u6e2f\u6e7e\u4e8b\u52d9\u6240","boring_xml_url":47,"boring_view_url":1,"soilmap_view_url":71,"soiltest_xml_url":47,"soiltest_view_url":47},{"id":443779,"code":"NGIC202101315-0001","latitude":"33.795308333333","longitude":"130.99468611111","source_code":"","project_name":"","survey_name":"\u4ee4\u548c3\u5e74\u5ea6\u82c5\u7530\u6e2f(\u672c\u6e2f\u5730\u533a)\u5cb8\u58c1(-10m)\u571f\u8cea\u8abf\u67fb","client_name":"\u56fd\u571f\u4ea4\u901a\u7701\u4e5d\u5dde\u5730\u65b9\u6574\u5099\u5c40\u82c5\u7530\u6e2f\u6e7e\u4e8b\u52d9\u6240","boring_xml_url":47,"boring_view_url":1,"soilmap_view_url":71,"soiltest_xml_url":47,"soiltest_view_url":47},{"id":443775,"code":"NGIC202101311-0005","latitude":"33.461736666667","longitude":"132.70334777778","source_code":"","project_name":"","survey_name":"\u4ee4\u548c3\u5e74\u5ea6\u5c71\u9ce5\u5742\u30c0\u30e0\u7ba1\u5185\u5730\u8cea\u8abf\u67fb\uff08\u305d\u306e2\uff09\u696d\u52d9","client_name":"\u56fd\u571f\u4ea4\u901a\u7701\u56db\u56fd\u5730\u65b9\u6574\u5099\u5c40\u5c71\u9ce5\u5742\u30c0\u30e0\u5de5\u4e8b\u4e8b\u52d9\u6240","boring_xml_url":47,"boring_view_url":1,"soilmap_view_url":null,"soiltest_xml_url":0,"soiltest_view_url":0},{"id":443774,"code":"NGIC202101311-0004","latitude":"33.461887305556","longitude":"132.70350763889","source_code":"","project_name":"","survey_name":"\u4ee4\u548c3\u5e74\u5ea6\u5c71\u9ce5\u5742\u30c0\u30e0\u7ba1\u5185\u5730\u8cea\u8abf\u67fb\uff08\u305d\u306e2\uff09\u696d\u52d9","client_name":"\u56fd\u571f\u4ea4\u901a\u7701\u56db\u56fd\u5730\u65b9\u6574\u5099\u5c40\u5c71\u9ce5\u5742\u30c0\u30e0\u5de5\u4e8b\u4e8b\u52d9\u6240","boring_xml_url":47,"boring_view_url":1,"soilmap_view_url":null,"soiltest_xml_url":0,"soiltest_view_url":0},{"id":443773,"code":"NGIC202101311-0003","latitude":"33.462766388889","longitude":"132.70499361111","source_code":"","project_name":"","survey_name":"\u4ee4\u548c3\u5e74\u5ea6\u5c71\u9ce5\u5742\u30c0\u30e0\u7ba1\u5185\u5730\u8cea\u8abf\u67fb\uff08\u305d\u306e2\uff09\u696d\u52d9","client_name":"\u56fd\u571f\u4ea4\u901a\u7701\u56db\u56fd\u5730\u65b9\u6574\u5099\u5c40\u5c71\u9ce5\u5742\u30c0\u30e0\u5de5\u4e8b\u4e8b\u52d9\u6240","boring_xml_url":47,"boring_view_url":1,"soilmap_view_url":null,"soiltest_xml_url":0,"soiltest_view_url":0},{"id":443772,"code":"NGIC202101311-0002","latitude":"33.462871416667","longitude":"132.70493830556","source_code":"","project_name":"","survey_name":"\u4ee4\u548c3\u5e74\u5ea6\u5c71\u9ce5\u5742\u30c0\u30e0\u7ba1\u5185\u5730\u8cea\u8abf\u67fb\uff08\u305d\u306e2\uff09\u696d\u52d9","client_name":"\u56fd\u571f\u4ea4\u901a\u7701\u56db\u56fd\u5730\u65b9\u6574\u5099\u5c40\u5c71\u9ce5\u5742\u30c0\u30e0\u5de5\u4e8b\u4e8b\u52d9\u6240","boring_xml_url":47,"boring_view_url":1,"soilmap_view_url":null,"soiltest_xml_url":0,"soiltest_view_url":0},{"id":443771,"code":"NGIC202101311-0001","latitude":"33.463139416667","longitude":"132.70457883333","source_code":"","project_name":"","survey_name":"\u4ee4\u548c3\u5e74\u5ea6\u5c71\u9ce5\u5742\u30c0\u30e0\u7ba1\u5185\u5730\u8cea\u8abf\u67fb\uff08\u305d\u306e2\uff09\u696d\u52d9","client_name":"\u56fd\u571f\u4ea4\u901a\u7701\u56db\u56fd\u5730\u65b9\u6574\u5099\u5c40\u5c71\u9ce5\u5742\u30c0\u30e0\u5de5\u4e8b\u4e8b\u52d9\u6240","boring_xml_url":47,"boring_view_url":1,"soilmap_view_url":null,"soiltest_xml_url":0,"soiltest_view_url":0},{"id":443769,"code":"NGIC202101266-0002","latitude":"34.471383333333","longitude":"132.553375","source_code":"","project_name":"\u4ee4\u548c2\u5e74\u5ea6\u4e09\u7be0\u5ddd\u4e01\u5730\u533a\u6a0b\u9580\u8a73\u7d30\u8a2d\u8a08\u4ed6\u696d\u52d9","survey_name":"\u4ee4\u548c2\u5e74\u5ea6\u4e09\u7be0\u5ddd\u4e01\u5730\u533a\u6a0b\u9580\u8a73\u7d30\u8a2d\u8a08\u4ed6\u696d\u52d9","client_name":"\u56fd\u571f\u4ea4\u901a\u7701\u4e2d\u56fd\u5730\u65b9\u6574\u5099\u5c40\u592a\u7530\u5ddd\u6cb3\u5ddd\u4e8b\u52d9\u6240","boring_xml_url":47,"boring_view_url":1,"soilmap_view_url":null,"soiltest_xml_url":47,"soiltest_view_url":47},{"id":443768,"code":"NGIC202101266-0001","latitude":"34.471533333333","longitude":"132.55341666667","source_code":"","project_name":"\u4ee4\u548c2\u5e74\u5ea6\u4e09\u7be0\u5ddd\u4e01\u5730\u533a\u6a0b\u9580\u8a73\u7d30\u8a2d\u8a08\u4ed6\u696d\u52d9","survey_name":"\u4ee4\u548c2\u5e74\u5ea6\u4e09\u7be0\u5ddd\u4e01\u5730\u533a\u6a0b\u9580\u8a73\u7d30\u8a2d\u8a08\u4ed6\u696d\u52d9","client_name":"\u56fd\u571f\u4ea4\u901a\u7701\u4e2d\u56fd\u5730\u65b9\u6574\u5099\u5c40\u592a\u7530\u5ddd\u6cb3\u5ddd\u4e8b\u52d9\u6240","boring_xml_url":47,"boring_view_url":1,"soilmap_view_url":null,"soiltest_xml_url":47,"soiltest_view_url":47},{"id":443725,"code":"NGIC202101291-0012","latitude":"34.002865527778","longitude":"134.56159566667","source_code":"","project_name":"","survey_name":"\u4ee4\u548c3\u5e74\u5ea6\u5927\u539f\u5730\u533a\u5730\u8cea\u8abf\u67fb\uff08\u305d\u306e1\uff09\u696d\u52d9","client_name":"\u56fd\u571f\u4ea4\u901a\u7701\u56db\u56fd\u5730\u65b9\u6574\u5099\u5c40\u5fb3\u5cf6\u6cb3\u5ddd\u56fd\u9053\u4e8b\u52d9\u6240","boring_xml_url":47,"boring_view_url":1,"soilmap_view_url":null,"soiltest_xml_url":47,"soiltest_view_url":47},{"id":443724,"code":"NGIC202101291-0011","latitude":"34.004009694444","longitude":"134.56086730556","source_code":"","project_name":"","survey_name":"\u4ee4\u548c3\u5e74\u5ea6\u5927\u539f\u5730\u533a\u5730\u8cea\u8abf\u67fb\uff08\u305d\u306e1\uff09\u696d\u52d9","client_name":"\u56fd\u571f\u4ea4\u901a\u7701\u56db\u56fd\u5730\u65b9\u6574\u5099\u5c40\u5fb3\u5cf6\u6cb3\u5ddd\u56fd\u9053\u4e8b\u52d9\u6240","boring_xml_url":47,"boring_view_url":1,"soilmap_view_url":null,"soiltest_xml_url":47,"soiltest_view_url":47},{"id":443723,"code":"NGIC202101291-0009","latitude":"34.020993638889","longitude":"134.57139738889","source_code":"","project_name":"","survey_name":"\u4ee4\u548c3\u5e74\u5ea6\u5927\u539f\u5730\u533a\u5730\u8cea\u8abf\u67fb\uff08\u305d\u306e1\uff09\u696d\u52d9","client_name":"\u56fd\u571f\u4ea4\u901a\u7701\u56db\u56fd\u5730\u65b9\u6574\u5099\u5c40\u5fb3\u5cf6\u6cb3\u5ddd\u56fd\u9053\u4e8b\u52d9\u6240","boring_xml_url":47,"boring_view_url":1,"soilmap_view_url":null,"soiltest_xml_url":0,"soiltest_view_url":0}]}}