{"header":{"xyz":{"source":[],"mosaic":false},"page":1889,"raw":{"soiltest_result":"0","bbox":"57.598333,109.544722,1.933333,163.806111","page":"1889"},"conditions":{"soiltest_result":0,"north":57.598333,"west":109.544722,"south":1.933333,"east":163.806111},"success":true,"message":""},"data":{"meta":{"total":212844,"page":1889,"pages":7095,"count":30},"values":[{"id":443518,"code":"NGIC202101200-0006","latitude":"36.257331777778","longitude":"136.28532111111","source_code":"","project_name":"\u725b\u30ce\u8c37\u9053\u8def","survey_name":"\u4ee4\u548c2\u5e74\u5ea6\u91d1\u6ca2\u6cb3\u5ddd\u56fd\u9053\u9053\u8def\u5730\u8cea\u8abf\u67fb\u305d\u306e2\u696d\u52d9","client_name":"\u56fd\u571f\u4ea4\u901a\u7701\u5317\u9678\u5730\u65b9\u6574\u5099\u5c40\u91d1\u6ca2\u6cb3\u5ddd\u56fd\u9053\u4e8b\u52d9\u6240","boring_xml_url":47,"boring_view_url":1,"soilmap_view_url":null,"soiltest_xml_url":0,"soiltest_view_url":0},{"id":443517,"code":"NGIC202101200-0005","latitude":"36.265520027778","longitude":"136.28525011111","source_code":"","project_name":"\u725b\u30ce\u8c37\u9053\u8def","survey_name":"\u4ee4\u548c2\u5e74\u5ea6\u91d1\u6ca2\u6cb3\u5ddd\u56fd\u9053\u9053\u8def\u5730\u8cea\u8abf\u67fb\u305d\u306e2\u696d\u52d9","client_name":"\u56fd\u571f\u4ea4\u901a\u7701\u5317\u9678\u5730\u65b9\u6574\u5099\u5c40\u91d1\u6ca2\u6cb3\u5ddd\u56fd\u9053\u4e8b\u52d9\u6240","boring_xml_url":47,"boring_view_url":1,"soilmap_view_url":null,"soiltest_xml_url":47,"soiltest_view_url":47},{"id":443516,"code":"NGIC202101200-0004","latitude":"36.265434055556","longitude":"136.28593869444","source_code":"","project_name":"\u725b\u30ce\u8c37\u9053\u8def","survey_name":"\u4ee4\u548c2\u5e74\u5ea6\u91d1\u6ca2\u6cb3\u5ddd\u56fd\u9053\u9053\u8def\u5730\u8cea\u8abf\u67fb\u305d\u306e2\u696d\u52d9","client_name":"\u56fd\u571f\u4ea4\u901a\u7701\u5317\u9678\u5730\u65b9\u6574\u5099\u5c40\u91d1\u6ca2\u6cb3\u5ddd\u56fd\u9053\u4e8b\u52d9\u6240","boring_xml_url":47,"boring_view_url":1,"soilmap_view_url":null,"soiltest_xml_url":47,"soiltest_view_url":47},{"id":443515,"code":"NGIC202101200-0003","latitude":"36.265275277778","longitude":"136.28474333333","source_code":"","project_name":"\u725b\u30ce\u8c37\u9053\u8def","survey_name":"\u4ee4\u548c2\u5e74\u5ea6\u91d1\u6ca2\u6cb3\u5ddd\u56fd\u9053\u9053\u8def\u5730\u8cea\u8abf\u67fb\u305d\u306e2\u696d\u52d9","client_name":"\u56fd\u571f\u4ea4\u901a\u7701\u5317\u9678\u5730\u65b9\u6574\u5099\u5c40\u91d1\u6ca2\u6cb3\u5ddd\u56fd\u9053\u4e8b\u52d9\u6240","boring_xml_url":47,"boring_view_url":1,"soilmap_view_url":null,"soiltest_xml_url":47,"soiltest_view_url":47},{"id":443514,"code":"NGIC202101200-0002","latitude":"36.614016861111","longitude":"136.67874022222","source_code":"","project_name":"\u6d77\u5074\u5e79\u7dda(\u4eca\u753a\u301c\u798f\u4e45)","survey_name":"\u4ee4\u548c2\u5e74\u5ea6\u91d1\u6ca2\u6cb3\u5ddd\u56fd\u9053\u9053\u8def\u5730\u8cea\u8abf\u67fb\u305d\u306e2\u696d\u52d9","client_name":"\u56fd\u571f\u4ea4\u901a\u7701\u5317\u9678\u5730\u65b9\u6574\u5099\u5c40\u91d1\u6ca2\u6cb3\u5ddd\u56fd\u9053\u4e8b\u52d9\u6240","boring_xml_url":47,"boring_view_url":1,"soilmap_view_url":null,"soiltest_xml_url":47,"soiltest_view_url":47},{"id":443513,"code":"NGIC202101200-0001","latitude":"36.617979555556","longitude":"136.68447158333","source_code":"","project_name":"\u6d77\u5074\u5e79\u7dda(\u4eca\u753a\u301c\u798f\u4e45)","survey_name":"\u4ee4\u548c2\u5e74\u5ea6\u91d1\u6ca2\u6cb3\u5ddd\u56fd\u9053\u9053\u8def\u5730\u8cea\u8abf\u67fb\u305d\u306e2\u696d\u52d9","client_name":"\u56fd\u571f\u4ea4\u901a\u7701\u5317\u9678\u5730\u65b9\u6574\u5099\u5c40\u91d1\u6ca2\u6cb3\u5ddd\u56fd\u9053\u4e8b\u52d9\u6240","boring_xml_url":47,"boring_view_url":1,"soilmap_view_url":null,"soiltest_xml_url":47,"soiltest_view_url":47},{"id":443484,"code":"NGIC202101280-0012","latitude":"36.350716166667","longitude":"138.52835744444","source_code":"","project_name":"","survey_name":"R2\u8239\u30f6\u6ca2\u5ddd\u6771\u7b2c\u4e8c\u7802\u9632\u5830\u5824\u5730\u8cea\u8abf\u67fb\u696d\u52d9","client_name":"\u56fd\u571f\u4ea4\u901a\u7701\u95a2\u6771\u5730\u65b9\u6574\u5099\u5c40\u5229\u6839\u5ddd\u6c34\u7cfb\u7802\u9632\u4e8b\u52d9\u6240","boring_xml_url":47,"boring_view_url":1,"soilmap_view_url":null,"soiltest_xml_url":0,"soiltest_view_url":0},{"id":443483,"code":"NGIC202101280-0011","latitude":"36.350372694444","longitude":"138.52847858333","source_code":"","project_name":"","survey_name":"R2\u8239\u30f6\u6ca2\u5ddd\u6771\u7b2c\u4e8c\u7802\u9632\u5830\u5824\u5730\u8cea\u8abf\u67fb\u696d\u52d9","client_name":"\u56fd\u571f\u4ea4\u901a\u7701\u95a2\u6771\u5730\u65b9\u6574\u5099\u5c40\u5229\u6839\u5ddd\u6c34\u7cfb\u7802\u9632\u4e8b\u52d9\u6240","boring_xml_url":47,"boring_view_url":1,"soilmap_view_url":null,"soiltest_xml_url":0,"soiltest_view_url":0},{"id":443482,"code":"NGIC202101280-0010","latitude":"36.350102138889","longitude":"138.52959902778","source_code":"","project_name":"","survey_name":"R2\u8239\u30f6\u6ca2\u5ddd\u6771\u7b2c\u4e8c\u7802\u9632\u5830\u5824\u5730\u8cea\u8abf\u67fb\u696d\u52d9","client_name":"\u56fd\u571f\u4ea4\u901a\u7701\u95a2\u6771\u5730\u65b9\u6574\u5099\u5c40\u5229\u6839\u5ddd\u6c34\u7cfb\u7802\u9632\u4e8b\u52d9\u6240","boring_xml_url":47,"boring_view_url":1,"soilmap_view_url":null,"soiltest_xml_url":0,"soiltest_view_url":0},{"id":443481,"code":"NGIC202101280-0009","latitude":"36.350274666667","longitude":"138.53027588889","source_code":"","project_name":"","survey_name":"R2\u8239\u30f6\u6ca2\u5ddd\u6771\u7b2c\u4e8c\u7802\u9632\u5830\u5824\u5730\u8cea\u8abf\u67fb\u696d\u52d9","client_name":"\u56fd\u571f\u4ea4\u901a\u7701\u95a2\u6771\u5730\u65b9\u6574\u5099\u5c40\u5229\u6839\u5ddd\u6c34\u7cfb\u7802\u9632\u4e8b\u52d9\u6240","boring_xml_url":47,"boring_view_url":1,"soilmap_view_url":null,"soiltest_xml_url":0,"soiltest_view_url":0},{"id":443480,"code":"NGIC202101280-0008","latitude":"36.354098916667","longitude":"138.50796338889","source_code":"","project_name":"","survey_name":"R2\u8239\u30f6\u6ca2\u5ddd\u6771\u7b2c\u4e8c\u7802\u9632\u5830\u5824\u5730\u8cea\u8abf\u67fb\u696d\u52d9","client_name":"\u56fd\u571f\u4ea4\u901a\u7701\u95a2\u6771\u5730\u65b9\u6574\u5099\u5c40\u5229\u6839\u5ddd\u6c34\u7cfb\u7802\u9632\u4e8b\u52d9\u6240","boring_xml_url":47,"boring_view_url":1,"soilmap_view_url":null,"soiltest_xml_url":0,"soiltest_view_url":0},{"id":443479,"code":"NGIC202101280-0007","latitude":"36.35501175","longitude":"138.50828766667","source_code":"","project_name":"","survey_name":"R2\u8239\u30f6\u6ca2\u5ddd\u6771\u7b2c\u4e8c\u7802\u9632\u5830\u5824\u5730\u8cea\u8abf\u67fb\u696d\u52d9","client_name":"\u56fd\u571f\u4ea4\u901a\u7701\u95a2\u6771\u5730\u65b9\u6574\u5099\u5c40\u5229\u6839\u5ddd\u6c34\u7cfb\u7802\u9632\u4e8b\u52d9\u6240","boring_xml_url":47,"boring_view_url":1,"soilmap_view_url":null,"soiltest_xml_url":0,"soiltest_view_url":0},{"id":443478,"code":"NGIC202101280-0006","latitude":"36.354744305556","longitude":"138.51611686111","source_code":"","project_name":"","survey_name":"R2\u8239\u30f6\u6ca2\u5ddd\u6771\u7b2c\u4e8c\u7802\u9632\u5830\u5824\u5730\u8cea\u8abf\u67fb\u696d\u52d9","client_name":"\u56fd\u571f\u4ea4\u901a\u7701\u95a2\u6771\u5730\u65b9\u6574\u5099\u5c40\u5229\u6839\u5ddd\u6c34\u7cfb\u7802\u9632\u4e8b\u52d9\u6240","boring_xml_url":47,"boring_view_url":1,"soilmap_view_url":null,"soiltest_xml_url":0,"soiltest_view_url":0},{"id":443477,"code":"NGIC202101280-0005","latitude":"36.352823694444","longitude":"138.51268786111","source_code":"","project_name":"","survey_name":"R2\u8239\u30f6\u6ca2\u5ddd\u6771\u7b2c\u4e8c\u7802\u9632\u5830\u5824\u5730\u8cea\u8abf\u67fb\u696d\u52d9","client_name":"\u56fd\u571f\u4ea4\u901a\u7701\u95a2\u6771\u5730\u65b9\u6574\u5099\u5c40\u5229\u6839\u5ddd\u6c34\u7cfb\u7802\u9632\u4e8b\u52d9\u6240","boring_xml_url":47,"boring_view_url":1,"soilmap_view_url":null,"soiltest_xml_url":47,"soiltest_view_url":47},{"id":443476,"code":"NGIC202101280-0004","latitude":"36.3547875","longitude":"138.51137558333","source_code":"","project_name":"","survey_name":"R2\u8239\u30f6\u6ca2\u5ddd\u6771\u7b2c\u4e8c\u7802\u9632\u5830\u5824\u5730\u8cea\u8abf\u67fb\u696d\u52d9","client_name":"\u56fd\u571f\u4ea4\u901a\u7701\u95a2\u6771\u5730\u65b9\u6574\u5099\u5c40\u5229\u6839\u5ddd\u6c34\u7cfb\u7802\u9632\u4e8b\u52d9\u6240","boring_xml_url":47,"boring_view_url":1,"soilmap_view_url":null,"soiltest_xml_url":0,"soiltest_view_url":0},{"id":443475,"code":"NGIC202101280-0003","latitude":"36.353620027778","longitude":"138.51195236111","source_code":"","project_name":"","survey_name":"R2\u8239\u30f6\u6ca2\u5ddd\u6771\u7b2c\u4e8c\u7802\u9632\u5830\u5824\u5730\u8cea\u8abf\u67fb\u696d\u52d9","client_name":"\u56fd\u571f\u4ea4\u901a\u7701\u95a2\u6771\u5730\u65b9\u6574\u5099\u5c40\u5229\u6839\u5ddd\u6c34\u7cfb\u7802\u9632\u4e8b\u52d9\u6240","boring_xml_url":47,"boring_view_url":1,"soilmap_view_url":null,"soiltest_xml_url":0,"soiltest_view_url":0},{"id":443474,"code":"NGIC202101280-0002","latitude":"36.3532825","longitude":"138.51289419444","source_code":"","project_name":"","survey_name":"R2\u8239\u30f6\u6ca2\u5ddd\u6771\u7b2c\u4e8c\u7802\u9632\u5830\u5824\u5730\u8cea\u8abf\u67fb\u696d\u52d9","client_name":"\u56fd\u571f\u4ea4\u901a\u7701\u95a2\u6771\u5730\u65b9\u6574\u5099\u5c40\u5229\u6839\u5ddd\u6c34\u7cfb\u7802\u9632\u4e8b\u52d9\u6240","boring_xml_url":47,"boring_view_url":1,"soilmap_view_url":null,"soiltest_xml_url":47,"soiltest_view_url":47},{"id":443473,"code":"NGIC202101280-0001","latitude":"36.352792277778","longitude":"138.51449569444","source_code":"","project_name":"","survey_name":"R2\u8239\u30f6\u6ca2\u5ddd\u6771\u7b2c\u4e8c\u7802\u9632\u5830\u5824\u5730\u8cea\u8abf\u67fb\u696d\u52d9","client_name":"\u56fd\u571f\u4ea4\u901a\u7701\u95a2\u6771\u5730\u65b9\u6574\u5099\u5c40\u5229\u6839\u5ddd\u6c34\u7cfb\u7802\u9632\u4e8b\u52d9\u6240","boring_xml_url":47,"boring_view_url":1,"soilmap_view_url":null,"soiltest_xml_url":0,"soiltest_view_url":0},{"id":443439,"code":"NGIC202101145-0008","latitude":"32.439691666667","longitude":"131.64595555556","source_code":"","project_name":"\u4ee4\u548c3\u5e74\u5ea6\u7d30\u5cf6\u6e2f\u571f\u8cea\u8abf\u67fb","survey_name":"\u4ee4\u548c3\u5e74\u5ea6\u7d30\u5cf6\u6e2f\u571f\u8cea\u8abf\u67fb","client_name":"\u56fd\u571f\u4ea4\u901a\u7701\u4e5d\u5dde\u5730\u65b9\u6574\u5099\u5c40\u5bae\u5d0e\u6e2f\u6e7e\u30fb\u7a7a\u6e2f\u6574\u5099\u4e8b\u52d9\u6240","boring_xml_url":47,"boring_view_url":1,"soilmap_view_url":71,"soiltest_xml_url":47,"soiltest_view_url":47},{"id":443438,"code":"NGIC202101145-0007","latitude":"32.439963888889","longitude":"131.64654444444","source_code":"","project_name":"\u4ee4\u548c3\u5e74\u5ea6\u7d30\u5cf6\u6e2f\u571f\u8cea\u8abf\u67fb","survey_name":"\u4ee4\u548c3\u5e74\u5ea6\u7d30\u5cf6\u6e2f\u571f\u8cea\u8abf\u67fb","client_name":"\u56fd\u571f\u4ea4\u901a\u7701\u4e5d\u5dde\u5730\u65b9\u6574\u5099\u5c40\u5bae\u5d0e\u6e2f\u6e7e\u30fb\u7a7a\u6e2f\u6574\u5099\u4e8b\u52d9\u6240","boring_xml_url":47,"boring_view_url":1,"soilmap_view_url":71,"soiltest_xml_url":47,"soiltest_view_url":47},{"id":443437,"code":"NGIC202101145-0006","latitude":"32.440211111111","longitude":"131.64623333333","source_code":"","project_name":"\u4ee4\u548c3\u5e74\u5ea6\u7d30\u5cf6\u6e2f\u571f\u8cea\u8abf\u67fb","survey_name":"\u4ee4\u548c3\u5e74\u5ea6\u7d30\u5cf6\u6e2f\u571f\u8cea\u8abf\u67fb","client_name":"\u56fd\u571f\u4ea4\u901a\u7701\u4e5d\u5dde\u5730\u65b9\u6574\u5099\u5c40\u5bae\u5d0e\u6e2f\u6e7e\u30fb\u7a7a\u6e2f\u6574\u5099\u4e8b\u52d9\u6240","boring_xml_url":47,"boring_view_url":1,"soilmap_view_url":71,"soiltest_xml_url":47,"soiltest_view_url":47},{"id":443436,"code":"NGIC202101145-0005","latitude":"32.440616666667","longitude":"131.64696666667","source_code":"","project_name":"\u4ee4\u548c3\u5e74\u5ea6\u7d30\u5cf6\u6e2f\u571f\u8cea\u8abf\u67fb","survey_name":"\u4ee4\u548c3\u5e74\u5ea6\u7d30\u5cf6\u6e2f\u571f\u8cea\u8abf\u67fb","client_name":"\u56fd\u571f\u4ea4\u901a\u7701\u4e5d\u5dde\u5730\u65b9\u6574\u5099\u5c40\u5bae\u5d0e\u6e2f\u6e7e\u30fb\u7a7a\u6e2f\u6574\u5099\u4e8b\u52d9\u6240","boring_xml_url":47,"boring_view_url":1,"soilmap_view_url":71,"soiltest_xml_url":47,"soiltest_view_url":47},{"id":443435,"code":"NGIC202101145-0004","latitude":"32.441022222222","longitude":"131.64770277778","source_code":"","project_name":"\u4ee4\u548c3\u5e74\u5ea6\u7d30\u5cf6\u6e2f\u571f\u8cea\u8abf\u67fb","survey_name":"\u4ee4\u548c3\u5e74\u5ea6\u7d30\u5cf6\u6e2f\u571f\u8cea\u8abf\u67fb","client_name":"\u56fd\u571f\u4ea4\u901a\u7701\u4e5d\u5dde\u5730\u65b9\u6574\u5099\u5c40\u5bae\u5d0e\u6e2f\u6e7e\u30fb\u7a7a\u6e2f\u6574\u5099\u4e8b\u52d9\u6240","boring_xml_url":47,"boring_view_url":1,"soilmap_view_url":71,"soiltest_xml_url":47,"soiltest_view_url":47},{"id":443434,"code":"NGIC202101145-0003","latitude":"32.441144444444","longitude":"131.64754722222","source_code":"","project_name":"\u4ee4\u548c3\u5e74\u5ea6\u7d30\u5cf6\u6e2f\u571f\u8cea\u8abf\u67fb","survey_name":"\u4ee4\u548c3\u5e74\u5ea6\u7d30\u5cf6\u6e2f\u571f\u8cea\u8abf\u67fb","client_name":"\u56fd\u571f\u4ea4\u901a\u7701\u4e5d\u5dde\u5730\u65b9\u6574\u5099\u5c40\u5bae\u5d0e\u6e2f\u6e7e\u30fb\u7a7a\u6e2f\u6574\u5099\u4e8b\u52d9\u6240","boring_xml_url":47,"boring_view_url":1,"soilmap_view_url":71,"soiltest_xml_url":47,"soiltest_view_url":47},{"id":443433,"code":"NGIC202101145-0002","latitude":"32.441266666667","longitude":"131.64739166667","source_code":"","project_name":"\u4ee4\u548c3\u5e74\u5ea6\u7d30\u5cf6\u6e2f\u571f\u8cea\u8abf\u67fb","survey_name":"\u4ee4\u548c3\u5e74\u5ea6\u7d30\u5cf6\u6e2f\u571f\u8cea\u8abf\u67fb","client_name":"\u56fd\u571f\u4ea4\u901a\u7701\u4e5d\u5dde\u5730\u65b9\u6574\u5099\u5c40\u5bae\u5d0e\u6e2f\u6e7e\u30fb\u7a7a\u6e2f\u6574\u5099\u4e8b\u52d9\u6240","boring_xml_url":47,"boring_view_url":1,"soilmap_view_url":71,"soiltest_xml_url":47,"soiltest_view_url":47},{"id":443432,"code":"NGIC202101145-0001","latitude":"32.441675","longitude":"131.648125","source_code":"","project_name":"\u4ee4\u548c3\u5e74\u5ea6\u7d30\u5cf6\u6e2f\u571f\u8cea\u8abf\u67fb","survey_name":"\u4ee4\u548c3\u5e74\u5ea6\u7d30\u5cf6\u6e2f\u571f\u8cea\u8abf\u67fb","client_name":"\u56fd\u571f\u4ea4\u901a\u7701\u4e5d\u5dde\u5730\u65b9\u6574\u5099\u5c40\u5bae\u5d0e\u6e2f\u6e7e\u30fb\u7a7a\u6e2f\u6574\u5099\u4e8b\u52d9\u6240","boring_xml_url":47,"boring_view_url":1,"soilmap_view_url":71,"soiltest_xml_url":47,"soiltest_view_url":47},{"id":443429,"code":"NGIC202101203-0003","latitude":"33.233790055556","longitude":"133.15867536111","source_code":"","project_name":"","survey_name":"\u4ee4\u548c2-3\u5e74\u5ea6\u7aaa\u5ddd\u4f50\u8cc0\u9053\u8def\u5e73\u4e32\u6539\u826f\u5de5\u4e8b","client_name":"\u56fd\u571f\u4ea4\u901a\u7701\u56db\u56fd\u5730\u65b9\u6574\u5099\u5c40\u4e2d\u6751\u6cb3\u5ddd\u56fd\u9053\u4e8b\u52d9\u6240","boring_xml_url":47,"boring_view_url":1,"soilmap_view_url":null,"soiltest_xml_url":0,"soiltest_view_url":0},{"id":443428,"code":"NGIC202101203-0002","latitude":"33.233791277778","longitude":"133.15861283333","source_code":"","project_name":"","survey_name":"\u4ee4\u548c2-3\u5e74\u5ea6\u7aaa\u5ddd\u4f50\u8cc0\u9053\u8def\u5e73\u4e32\u6539\u826f\u5de5\u4e8b","client_name":"\u56fd\u571f\u4ea4\u901a\u7701\u56db\u56fd\u5730\u65b9\u6574\u5099\u5c40\u4e2d\u6751\u6cb3\u5ddd\u56fd\u9053\u4e8b\u52d9\u6240","boring_xml_url":47,"boring_view_url":1,"soilmap_view_url":null,"soiltest_xml_url":0,"soiltest_view_url":0},{"id":443427,"code":"NGIC202101203-0001","latitude":"33.233739472222","longitude":"133.15869955556","source_code":"","project_name":"","survey_name":"\u4ee4\u548c2-3\u5e74\u5ea6\u7aaa\u5ddd\u4f50\u8cc0\u9053\u8def\u5e73\u4e32\u6539\u826f\u5de5\u4e8b","client_name":"\u56fd\u571f\u4ea4\u901a\u7701\u56db\u56fd\u5730\u65b9\u6574\u5099\u5c40\u4e2d\u6751\u6cb3\u5ddd\u56fd\u9053\u4e8b\u52d9\u6240","boring_xml_url":47,"boring_view_url":1,"soilmap_view_url":null,"soiltest_xml_url":0,"soiltest_view_url":0},{"id":443361,"code":"NGIC202101194-0007","latitude":"33.802600222222","longitude":"132.78057536111","source_code":"","project_name":"","survey_name":"\u4ee4\u548c2\u5e74\u5ea6 \u5317\u4e95\u9580\u7b2c1\u9ad8\u67b6\u6a4b\u8a73\u7d30\u8a2d\u8a08\u696d\u52d9","client_name":"\u56fd\u571f\u4ea4\u901a\u7701\u56db\u56fd\u5730\u65b9\u6574\u5099\u5c40\u677e\u5c71\u6cb3\u5ddd\u56fd\u9053\u4e8b\u52d9\u6240","boring_xml_url":47,"boring_view_url":1,"soilmap_view_url":null,"soiltest_xml_url":47,"soiltest_view_url":47}]}}