{"header":{"xyz":{"source":[],"mosaic":false},"page":1891,"raw":{"soiltest_result":"0","bbox":"57.598333,109.544722,1.933333,163.806111","page":"1891"},"conditions":{"soiltest_result":0,"north":57.598333,"west":109.544722,"south":1.933333,"east":163.806111},"success":true,"message":""},"data":{"meta":{"total":212844,"page":1891,"pages":7095,"count":30},"values":[{"id":441786,"code":"NGIC202101110-0002","latitude":"31.865107444444","longitude":"130.1937095","source_code":"","project_name":"","survey_name":"\u4ee4\u548c2\u5e74\u5ea6\u5ddd\u5185\u6e2f\u571f\u8cea\u8abf\u67fb\uff08\u7b2c2\u6b21\uff09","client_name":"\u56fd\u571f\u4ea4\u901a\u7701\u4e5d\u5dde\u5730\u65b9\u6574\u5099\u5c40\u9e7f\u5150\u5cf6\u6e2f\u6e7e\u30fb\u7a7a\u6e2f\u6574\u5099\u4e8b\u52d9\u6240","boring_xml_url":47,"boring_view_url":1,"soilmap_view_url":71,"soiltest_xml_url":47,"soiltest_view_url":47},{"id":441785,"code":"NGIC202101110-0001","latitude":"31.865441222222","longitude":"130.19385058333","source_code":"","project_name":"","survey_name":"\u4ee4\u548c2\u5e74\u5ea6\u5ddd\u5185\u6e2f\u571f\u8cea\u8abf\u67fb\uff08\u7b2c2\u6b21\uff09","client_name":"\u56fd\u571f\u4ea4\u901a\u7701\u4e5d\u5dde\u5730\u65b9\u6574\u5099\u5c40\u9e7f\u5150\u5cf6\u6e2f\u6e7e\u30fb\u7a7a\u6e2f\u6574\u5099\u4e8b\u52d9\u6240","boring_xml_url":47,"boring_view_url":1,"soilmap_view_url":71,"soiltest_xml_url":47,"soiltest_view_url":47},{"id":441740,"code":"NGIC202101173-0004","latitude":"34.846663888889","longitude":"136.80282222222","source_code":"","project_name":"\u4ee4\u548c2\u5e74\u5ea6 \u540d\u53e4\u5c4b\u6e2f\u571f\u7802\u51e6\u5206\u5834\u571f\u8cea\u8abf\u67fb(\u305d\u306e2)","survey_name":"\u4ee4\u548c2\u5e74\u5ea6 \u540d\u53e4\u5c4b\u6e2f\u571f\u7802\u51e6\u5206\u5834\u571f\u8cea\u8abf\u67fb(\u305d\u306e2)","client_name":"\u56fd\u571f\u4ea4\u901a\u7701\u4e2d\u90e8\u5730\u65b9\u6574\u5099\u5c40\u540d\u53e4\u5c4b\u6e2f\u6e7e\u4e8b\u52d9\u6240","boring_xml_url":47,"boring_view_url":1,"soilmap_view_url":71,"soiltest_xml_url":47,"soiltest_view_url":47},{"id":441739,"code":"NGIC202101173-0003","latitude":"34.842244444444","longitude":"136.80388611111","source_code":"","project_name":"\u4ee4\u548c2\u5e74\u5ea6 \u540d\u53e4\u5c4b\u6e2f\u571f\u7802\u51e6\u5206\u5834\u571f\u8cea\u8abf\u67fb(\u305d\u306e2)","survey_name":"\u4ee4\u548c2\u5e74\u5ea6 \u540d\u53e4\u5c4b\u6e2f\u571f\u7802\u51e6\u5206\u5834\u571f\u8cea\u8abf\u67fb(\u305d\u306e2)","client_name":"\u56fd\u571f\u4ea4\u901a\u7701\u4e2d\u90e8\u5730\u65b9\u6574\u5099\u5c40\u540d\u53e4\u5c4b\u6e2f\u6e7e\u4e8b\u52d9\u6240","boring_xml_url":47,"boring_view_url":1,"soilmap_view_url":71,"soiltest_xml_url":47,"soiltest_view_url":47},{"id":441738,"code":"NGIC202101173-0002","latitude":"34.838705555556","longitude":"136.80473611111","source_code":"","project_name":"\u4ee4\u548c2\u5e74\u5ea6 \u540d\u53e4\u5c4b\u6e2f\u571f\u7802\u51e6\u5206\u5834\u571f\u8cea\u8abf\u67fb(\u305d\u306e2)","survey_name":"\u4ee4\u548c2\u5e74\u5ea6 \u540d\u53e4\u5c4b\u6e2f\u571f\u7802\u51e6\u5206\u5834\u571f\u8cea\u8abf\u67fb(\u305d\u306e2)","client_name":"\u56fd\u571f\u4ea4\u901a\u7701\u4e2d\u90e8\u5730\u65b9\u6574\u5099\u5c40\u540d\u53e4\u5c4b\u6e2f\u6e7e\u4e8b\u52d9\u6240","boring_xml_url":47,"boring_view_url":1,"soilmap_view_url":71,"soiltest_xml_url":47,"soiltest_view_url":47},{"id":441737,"code":"NGIC202101173-0001","latitude":"34.837822222222","longitude":"136.80494722222","source_code":"","project_name":"\u4ee4\u548c2\u5e74\u5ea6 \u540d\u53e4\u5c4b\u6e2f\u571f\u7802\u51e6\u5206\u5834\u571f\u8cea\u8abf\u67fb(\u305d\u306e2)","survey_name":"\u4ee4\u548c2\u5e74\u5ea6 \u540d\u53e4\u5c4b\u6e2f\u571f\u7802\u51e6\u5206\u5834\u571f\u8cea\u8abf\u67fb(\u305d\u306e2)","client_name":"\u56fd\u571f\u4ea4\u901a\u7701\u4e2d\u90e8\u5730\u65b9\u6574\u5099\u5c40\u540d\u53e4\u5c4b\u6e2f\u6e7e\u4e8b\u52d9\u6240","boring_xml_url":47,"boring_view_url":1,"soilmap_view_url":71,"soiltest_xml_url":47,"soiltest_view_url":47},{"id":441719,"code":"NGIC202101161-0007","latitude":"31.865438972222","longitude":"130.19323263889","source_code":"","project_name":"","survey_name":"\u4ee4\u548c3\u5e74\u5ea6 \u5ddd\u5185\u6e2f(\u5510\u6d5c\u5730\u533a)\u5cb8\u58c1(-12m)\u571f\u8cea\u8abf\u67fb","client_name":"\u56fd\u571f\u4ea4\u901a\u7701\u4e5d\u5dde\u5730\u65b9\u6574\u5099\u5c40\u9e7f\u5150\u5cf6\u6e2f\u6e7e\u30fb\u7a7a\u6e2f\u6574\u5099\u4e8b\u52d9\u6240","boring_xml_url":47,"boring_view_url":1,"soilmap_view_url":71,"soiltest_xml_url":47,"soiltest_view_url":47},{"id":441718,"code":"NGIC202101161-0006","latitude":"31.865438972222","longitude":"130.19323263889","source_code":"","project_name":"","survey_name":"\u4ee4\u548c3\u5e74\u5ea6 \u5ddd\u5185\u6e2f(\u5510\u6d5c\u5730\u533a)\u5cb8\u58c1(-12m)\u571f\u8cea\u8abf\u67fb","client_name":"\u56fd\u571f\u4ea4\u901a\u7701\u4e5d\u5dde\u5730\u65b9\u6574\u5099\u5c40\u9e7f\u5150\u5cf6\u6e2f\u6e7e\u30fb\u7a7a\u6e2f\u6574\u5099\u4e8b\u52d9\u6240","boring_xml_url":47,"boring_view_url":1,"soilmap_view_url":71,"soiltest_xml_url":47,"soiltest_view_url":47},{"id":441717,"code":"NGIC202101161-0005","latitude":"31.865070777778","longitude":"130.19448113889","source_code":"","project_name":"","survey_name":"\u4ee4\u548c3\u5e74\u5ea6 \u5ddd\u5185\u6e2f(\u5510\u6d5c\u5730\u533a)\u5cb8\u58c1(-12m)\u571f\u8cea\u8abf\u67fb","client_name":"\u56fd\u571f\u4ea4\u901a\u7701\u4e5d\u5dde\u5730\u65b9\u6574\u5099\u5c40\u9e7f\u5150\u5cf6\u6e2f\u6e7e\u30fb\u7a7a\u6e2f\u6574\u5099\u4e8b\u52d9\u6240","boring_xml_url":47,"boring_view_url":1,"soilmap_view_url":71,"soiltest_xml_url":47,"soiltest_view_url":47},{"id":441716,"code":"NGIC202101161-0004","latitude":"31.8649235","longitude":"130.19498055556","source_code":"","project_name":"","survey_name":"\u4ee4\u548c3\u5e74\u5ea6 \u5ddd\u5185\u6e2f(\u5510\u6d5c\u5730\u533a)\u5cb8\u58c1(-12m)\u571f\u8cea\u8abf\u67fb","client_name":"\u56fd\u571f\u4ea4\u901a\u7701\u4e5d\u5dde\u5730\u65b9\u6574\u5099\u5c40\u9e7f\u5150\u5cf6\u6e2f\u6e7e\u30fb\u7a7a\u6e2f\u6574\u5099\u4e8b\u52d9\u6240","boring_xml_url":47,"boring_view_url":1,"soilmap_view_url":71,"soiltest_xml_url":47,"soiltest_view_url":47},{"id":441715,"code":"NGIC202101161-0003","latitude":"31.864628944444","longitude":"130.19597936111","source_code":"","project_name":"","survey_name":"\u4ee4\u548c3\u5e74\u5ea6 \u5ddd\u5185\u6e2f(\u5510\u6d5c\u5730\u533a)\u5cb8\u58c1(-12m)\u571f\u8cea\u8abf\u67fb","client_name":"\u56fd\u571f\u4ea4\u901a\u7701\u4e5d\u5dde\u5730\u65b9\u6574\u5099\u5c40\u9e7f\u5150\u5cf6\u6e2f\u6e7e\u30fb\u7a7a\u6e2f\u6574\u5099\u4e8b\u52d9\u6240","boring_xml_url":47,"boring_view_url":1,"soilmap_view_url":71,"soiltest_xml_url":47,"soiltest_view_url":47},{"id":441714,"code":"NGIC202101161-0002","latitude":"31.865167638889","longitude":"130.19479988889","source_code":"","project_name":"","survey_name":"\u4ee4\u548c3\u5e74\u5ea6 \u5ddd\u5185\u6e2f(\u5510\u6d5c\u5730\u533a)\u5cb8\u58c1(-12m)\u571f\u8cea\u8abf\u67fb","client_name":"\u56fd\u571f\u4ea4\u901a\u7701\u4e5d\u5dde\u5730\u65b9\u6574\u5099\u5c40\u9e7f\u5150\u5cf6\u6e2f\u6e7e\u30fb\u7a7a\u6e2f\u6574\u5099\u4e8b\u52d9\u6240","boring_xml_url":47,"boring_view_url":1,"soilmap_view_url":71,"soiltest_xml_url":47,"soiltest_view_url":47},{"id":441713,"code":"NGIC202101161-0001","latitude":"31.864873055556","longitude":"130.19579869444","source_code":"","project_name":"","survey_name":"\u4ee4\u548c3\u5e74\u5ea6 \u5ddd\u5185\u6e2f(\u5510\u6d5c\u5730\u533a)\u5cb8\u58c1(-12m)\u571f\u8cea\u8abf\u67fb","client_name":"\u56fd\u571f\u4ea4\u901a\u7701\u4e5d\u5dde\u5730\u65b9\u6574\u5099\u5c40\u9e7f\u5150\u5cf6\u6e2f\u6e7e\u30fb\u7a7a\u6e2f\u6574\u5099\u4e8b\u52d9\u6240","boring_xml_url":47,"boring_view_url":1,"soilmap_view_url":71,"soiltest_xml_url":47,"soiltest_view_url":47},{"id":441680,"code":"NGIC202101128-0002","latitude":"37.671083333333","longitude":"139.01041666667","source_code":"","project_name":"","survey_name":"R2\u4fe1\u6fc3\u5ddd\u4e0b\u6d41\u5730\u8cea\u8abf\u67fb\uff08\u305d\u306e2\uff09\u696d\u52d9 \u8edf\u5f31\u5730\u76e4\u8abf\u67fb\u30fb\u89e3\u6790\uff08\u5929\u795e\u6797\u5730\u533a\uff09","client_name":"\u56fd\u571f\u4ea4\u901a\u7701\u5317\u9678\u5730\u65b9\u6574\u5099\u5c40\u4fe1\u6fc3\u5ddd\u4e0b\u6d41\u6cb3\u5ddd\u4e8b\u52d9\u6240","boring_xml_url":47,"boring_view_url":1,"soilmap_view_url":null,"soiltest_xml_url":47,"soiltest_view_url":47},{"id":441679,"code":"NGIC202101128-0001","latitude":"37.671055555556","longitude":"139.01052777778","source_code":"","project_name":"","survey_name":"R2\u4fe1\u6fc3\u5ddd\u4e0b\u6d41\u5730\u8cea\u8abf\u67fb\uff08\u305d\u306e2\uff09\u696d\u52d9 \u8edf\u5f31\u5730\u76e4\u8abf\u67fb\u30fb\u89e3\u6790\uff08\u5929\u795e\u6797\u5730\u533a\uff09","client_name":"\u56fd\u571f\u4ea4\u901a\u7701\u5317\u9678\u5730\u65b9\u6574\u5099\u5c40\u4fe1\u6fc3\u5ddd\u4e0b\u6d41\u6cb3\u5ddd\u4e8b\u52d9\u6240","boring_xml_url":47,"boring_view_url":1,"soilmap_view_url":null,"soiltest_xml_url":47,"soiltest_view_url":47},{"id":441670,"code":"NGIC202101119-0001","latitude":"38.574592777778","longitude":"139.94404891667","source_code":"","project_name":"","survey_name":"\u6708\u5c71\u5730\u533a\u96c6\u6c34\u4e95\u7b49\u8a2d\u8a08\u696d\u52d9","client_name":"\u56fd\u571f\u4ea4\u901a\u7701\u6771\u5317\u5730\u65b9\u6574\u5099\u5c40\u65b0\u5e84\u6cb3\u5ddd\u4e8b\u52d9\u6240","boring_xml_url":47,"boring_view_url":1,"soilmap_view_url":null,"soiltest_xml_url":0,"soiltest_view_url":0},{"id":441661,"code":"NGIC202101112-0002","latitude":"34.129027777778","longitude":"134.62405555556","source_code":"","project_name":"\u5fb3\u5cf6\u98db\u884c\u5834\u571f\u8cea\u8abf\u67fb","survey_name":"\u5fb3\u5cf6\u98db\u884c\u5834\u571f\u8cea\u8abf\u67fb","client_name":"\u56fd\u571f\u4ea4\u901a\u7701\u56db\u56fd\u5730\u65b9\u6574\u5099\u5c40","boring_xml_url":47,"boring_view_url":1,"soilmap_view_url":null,"soiltest_xml_url":47,"soiltest_view_url":47},{"id":441660,"code":"NGIC202101112-0001","latitude":"34.13","longitude":"134.62430555556","source_code":"","project_name":"\u5fb3\u5cf6\u98db\u884c\u5834\u571f\u8cea\u8abf\u67fb","survey_name":"\u5fb3\u5cf6\u98db\u884c\u5834\u571f\u8cea\u8abf\u67fb","client_name":"\u56fd\u571f\u4ea4\u901a\u7701\u56db\u56fd\u5730\u65b9\u6574\u5099\u5c40","boring_xml_url":47,"boring_view_url":1,"soilmap_view_url":null,"soiltest_xml_url":47,"soiltest_view_url":47},{"id":441654,"code":"NGIC202101101-0012","latitude":"33.897879388889","longitude":"134.60915816667","source_code":"","project_name":"\u4ee4\u548c2-3\u5e74\u5ea6\u4e09\u5009\u5730\u533a\u5730\u8cea\u8abf\u67fb\u696d\u52d9","survey_name":"\u4ee4\u548c2-3\u5e74\u5ea6\u4e09\u5009\u5730\u533a\u5730\u8cea\u8abf\u67fb\u696d\u52d9","client_name":"\u56fd\u571f\u4ea4\u901a\u7701\u56db\u56fd\u5730\u65b9\u6574\u5099\u5c40\u5fb3\u5cf6\u6cb3\u5ddd\u56fd\u9053\u4e8b\u52d9\u6240","boring_xml_url":47,"boring_view_url":1,"soilmap_view_url":null,"soiltest_xml_url":0,"soiltest_view_url":0},{"id":441653,"code":"NGIC202101101-0011","latitude":"33.911005805556","longitude":"134.60811288889","source_code":"","project_name":"\u4ee4\u548c2-3\u5e74\u5ea6\u4e09\u5009\u5730\u533a\u5730\u8cea\u8abf\u67fb\u696d\u52d9","survey_name":"\u4ee4\u548c2-3\u5e74\u5ea6\u4e09\u5009\u5730\u533a\u5730\u8cea\u8abf\u67fb\u696d\u52d9","client_name":"\u56fd\u571f\u4ea4\u901a\u7701\u56db\u56fd\u5730\u65b9\u6574\u5099\u5c40\u5fb3\u5cf6\u6cb3\u5ddd\u56fd\u9053\u4e8b\u52d9\u6240","boring_xml_url":47,"boring_view_url":1,"soilmap_view_url":null,"soiltest_xml_url":47,"soiltest_view_url":47},{"id":441652,"code":"NGIC202101101-0010","latitude":"33.911543833333","longitude":"134.60812938889","source_code":"","project_name":"\u4ee4\u548c2-3\u5e74\u5ea6\u4e09\u5009\u5730\u533a\u5730\u8cea\u8abf\u67fb\u696d\u52d9","survey_name":"\u4ee4\u548c2-3\u5e74\u5ea6\u4e09\u5009\u5730\u533a\u5730\u8cea\u8abf\u67fb\u696d\u52d9","client_name":"\u56fd\u571f\u4ea4\u901a\u7701\u56db\u56fd\u5730\u65b9\u6574\u5099\u5c40\u5fb3\u5cf6\u6cb3\u5ddd\u56fd\u9053\u4e8b\u52d9\u6240","boring_xml_url":47,"boring_view_url":1,"soilmap_view_url":null,"soiltest_xml_url":47,"soiltest_view_url":47},{"id":441651,"code":"NGIC202101101-0009","latitude":"33.911866","longitude":"134.60856455556","source_code":"","project_name":"\u4ee4\u548c2-3\u5e74\u5ea6\u4e09\u5009\u5730\u533a\u5730\u8cea\u8abf\u67fb\u696d\u52d9","survey_name":"\u4ee4\u548c2-3\u5e74\u5ea6\u4e09\u5009\u5730\u533a\u5730\u8cea\u8abf\u67fb\u696d\u52d9","client_name":"\u56fd\u571f\u4ea4\u901a\u7701\u56db\u56fd\u5730\u65b9\u6574\u5099\u5c40\u5fb3\u5cf6\u6cb3\u5ddd\u56fd\u9053\u4e8b\u52d9\u6240","boring_xml_url":47,"boring_view_url":1,"soilmap_view_url":null,"soiltest_xml_url":47,"soiltest_view_url":47},{"id":441650,"code":"NGIC202101101-0008","latitude":"33.913235777778","longitude":"134.60863141667","source_code":"","project_name":"\u4ee4\u548c2-3\u5e74\u5ea6\u4e09\u5009\u5730\u533a\u5730\u8cea\u8abf\u67fb\u696d\u52d9","survey_name":"\u4ee4\u548c2-3\u5e74\u5ea6\u4e09\u5009\u5730\u533a\u5730\u8cea\u8abf\u67fb\u696d\u52d9","client_name":"\u56fd\u571f\u4ea4\u901a\u7701\u56db\u56fd\u5730\u65b9\u6574\u5099\u5c40\u5fb3\u5cf6\u6cb3\u5ddd\u56fd\u9053\u4e8b\u52d9\u6240","boring_xml_url":47,"boring_view_url":1,"soilmap_view_url":null,"soiltest_xml_url":47,"soiltest_view_url":47},{"id":441649,"code":"NGIC202101101-0007","latitude":"33.91490475","longitude":"134.609035","source_code":"","project_name":"\u4ee4\u548c2-3\u5e74\u5ea6\u4e09\u5009\u5730\u533a\u5730\u8cea\u8abf\u67fb\u696d\u52d9","survey_name":"\u4ee4\u548c2-3\u5e74\u5ea6\u4e09\u5009\u5730\u533a\u5730\u8cea\u8abf\u67fb\u696d\u52d9","client_name":"\u56fd\u571f\u4ea4\u901a\u7701\u56db\u56fd\u5730\u65b9\u6574\u5099\u5c40\u5fb3\u5cf6\u6cb3\u5ddd\u56fd\u9053\u4e8b\u52d9\u6240","boring_xml_url":47,"boring_view_url":1,"soilmap_view_url":null,"soiltest_xml_url":47,"soiltest_view_url":47},{"id":441648,"code":"NGIC202101101-0006","latitude":"33.915219611111","longitude":"134.60912819444","source_code":"","project_name":"\u4ee4\u548c2-3\u5e74\u5ea6\u4e09\u5009\u5730\u533a\u5730\u8cea\u8abf\u67fb\u696d\u52d9","survey_name":"\u4ee4\u548c2-3\u5e74\u5ea6\u4e09\u5009\u5730\u533a\u5730\u8cea\u8abf\u67fb\u696d\u52d9","client_name":"\u56fd\u571f\u4ea4\u901a\u7701\u56db\u56fd\u5730\u65b9\u6574\u5099\u5c40\u5fb3\u5cf6\u6cb3\u5ddd\u56fd\u9053\u4e8b\u52d9\u6240","boring_xml_url":47,"boring_view_url":1,"soilmap_view_url":null,"soiltest_xml_url":47,"soiltest_view_url":47},{"id":441647,"code":"NGIC202101101-0005","latitude":"33.915516472222","longitude":"134.60921102778","source_code":"","project_name":"\u4ee4\u548c2-3\u5e74\u5ea6\u4e09\u5009\u5730\u533a\u5730\u8cea\u8abf\u67fb\u696d\u52d9","survey_name":"\u4ee4\u548c2-3\u5e74\u5ea6\u4e09\u5009\u5730\u533a\u5730\u8cea\u8abf\u67fb\u696d\u52d9","client_name":"\u56fd\u571f\u4ea4\u901a\u7701\u56db\u56fd\u5730\u65b9\u6574\u5099\u5c40\u5fb3\u5cf6\u6cb3\u5ddd\u56fd\u9053\u4e8b\u52d9\u6240","boring_xml_url":47,"boring_view_url":1,"soilmap_view_url":null,"soiltest_xml_url":47,"soiltest_view_url":47},{"id":441646,"code":"NGIC202101101-0004","latitude":"33.915840888889","longitude":"134.60928377778","source_code":"","project_name":"\u4ee4\u548c2-3\u5e74\u5ea6\u4e09\u5009\u5730\u533a\u5730\u8cea\u8abf\u67fb\u696d\u52d9","survey_name":"\u4ee4\u548c2-3\u5e74\u5ea6\u4e09\u5009\u5730\u533a\u5730\u8cea\u8abf\u67fb\u696d\u52d9","client_name":"\u56fd\u571f\u4ea4\u901a\u7701\u56db\u56fd\u5730\u65b9\u6574\u5099\u5c40\u5fb3\u5cf6\u6cb3\u5ddd\u56fd\u9053\u4e8b\u52d9\u6240","boring_xml_url":47,"boring_view_url":1,"soilmap_view_url":null,"soiltest_xml_url":47,"soiltest_view_url":47},{"id":441645,"code":"NGIC202101101-0003","latitude":"33.916146222222","longitude":"134.60935313889","source_code":"","project_name":"\u4ee4\u548c2-3\u5e74\u5ea6\u4e09\u5009\u5730\u533a\u5730\u8cea\u8abf\u67fb\u696d\u52d9","survey_name":"\u4ee4\u548c2-3\u5e74\u5ea6\u4e09\u5009\u5730\u533a\u5730\u8cea\u8abf\u67fb\u696d\u52d9","client_name":"\u56fd\u571f\u4ea4\u901a\u7701\u56db\u56fd\u5730\u65b9\u6574\u5099\u5c40\u5fb3\u5cf6\u6cb3\u5ddd\u56fd\u9053\u4e8b\u52d9\u6240","boring_xml_url":47,"boring_view_url":1,"soilmap_view_url":null,"soiltest_xml_url":47,"soiltest_view_url":47},{"id":441644,"code":"NGIC202101101-0002","latitude":"33.916462166667","longitude":"134.60943938889","source_code":"","project_name":"\u4ee4\u548c2-3\u5e74\u5ea6\u4e09\u5009\u5730\u533a\u5730\u8cea\u8abf\u67fb\u696d\u52d9","survey_name":"\u4ee4\u548c2-3\u5e74\u5ea6\u4e09\u5009\u5730\u533a\u5730\u8cea\u8abf\u67fb\u696d\u52d9","client_name":"\u56fd\u571f\u4ea4\u901a\u7701\u56db\u56fd\u5730\u65b9\u6574\u5099\u5c40\u5fb3\u5cf6\u6cb3\u5ddd\u56fd\u9053\u4e8b\u52d9\u6240","boring_xml_url":47,"boring_view_url":1,"soilmap_view_url":null,"soiltest_xml_url":47,"soiltest_view_url":47},{"id":441643,"code":"NGIC202101101-0001","latitude":"33.91676575","longitude":"134.60951538889","source_code":"","project_name":"\u4ee4\u548c2-3\u5e74\u5ea6\u4e09\u5009\u5730\u533a\u5730\u8cea\u8abf\u67fb\u696d\u52d9","survey_name":"\u4ee4\u548c2-3\u5e74\u5ea6\u4e09\u5009\u5730\u533a\u5730\u8cea\u8abf\u67fb\u696d\u52d9","client_name":"\u56fd\u571f\u4ea4\u901a\u7701\u56db\u56fd\u5730\u65b9\u6574\u5099\u5c40\u5fb3\u5cf6\u6cb3\u5ddd\u56fd\u9053\u4e8b\u52d9\u6240","boring_xml_url":47,"boring_view_url":1,"soilmap_view_url":null,"soiltest_xml_url":47,"soiltest_view_url":47}]}}