{"header":{"xyz":{"source":[],"mosaic":false},"page":1909,"raw":{"soiltest_result":"0","bbox":"57.598333,109.544722,1.933333,163.806111","page":"1909"},"conditions":{"soiltest_result":0,"north":57.598333,"west":109.544722,"south":1.933333,"east":163.806111},"success":true,"message":""},"data":{"meta":{"total":212844,"page":1909,"pages":7095,"count":30},"values":[{"id":362568,"code":"NGIC202100555-0022","latitude":"35.389014722222","longitude":"136.74387122222","source_code":"","project_name":"\u5c90\u5927\u30d0\u30a4\u30d1\u30b9","survey_name":"\u4ee4\u548c2\u5e74\u5ea621\u53f7\u5c90\u5927\u30d0\u30a4\u30d1\u30b9\u831c\u90e8\u5730\u533a\u5730\u8cea\u8abf\u67fb\u696d\u52d9","client_name":"\u56fd\u571f\u4ea4\u901a\u7701\u4e2d\u90e8\u5730\u65b9\u6574\u5099\u5c40\u5c90\u961c\u56fd\u9053\u4e8b\u52d9\u6240\u3000\u8a08\u753b\u8ab2","boring_xml_url":47,"boring_view_url":1,"soilmap_view_url":null,"soiltest_xml_url":47,"soiltest_view_url":47},{"id":362567,"code":"NGIC202100555-0021","latitude":"35.388585944444","longitude":"136.74532025","source_code":"","project_name":"\u5c90\u5927\u30d0\u30a4\u30d1\u30b9","survey_name":"\u4ee4\u548c2\u5e74\u5ea621\u53f7\u5c90\u5927\u30d0\u30a4\u30d1\u30b9\u831c\u90e8\u5730\u533a\u5730\u8cea\u8abf\u67fb\u696d\u52d9","client_name":"\u56fd\u571f\u4ea4\u901a\u7701\u4e2d\u90e8\u5730\u65b9\u6574\u5099\u5c40\u5c90\u961c\u56fd\u9053\u4e8b\u52d9\u6240\u3000\u8a08\u753b\u8ab2","boring_xml_url":47,"boring_view_url":1,"soilmap_view_url":null,"soiltest_xml_url":47,"soiltest_view_url":47},{"id":362566,"code":"NGIC202100555-0020","latitude":"35.388462722222","longitude":"136.75574780556","source_code":"","project_name":"\u5c90\u5927\u30d0\u30a4\u30d1\u30b9","survey_name":"\u4ee4\u548c2\u5e74\u5ea621\u53f7\u5c90\u5927\u30d0\u30a4\u30d1\u30b9\u831c\u90e8\u5730\u533a\u5730\u8cea\u8abf\u67fb\u696d\u52d9","client_name":"\u56fd\u571f\u4ea4\u901a\u7701\u4e2d\u90e8\u5730\u65b9\u6574\u5099\u5c40\u5c90\u961c\u56fd\u9053\u4e8b\u52d9\u6240\u3000\u8a08\u753b\u8ab2","boring_xml_url":47,"boring_view_url":1,"soilmap_view_url":null,"soiltest_xml_url":47,"soiltest_view_url":47},{"id":362565,"code":"NGIC202100555-0019","latitude":"35.388374055556","longitude":"136.75720477778","source_code":"","project_name":"\u5c90\u5927\u30d0\u30a4\u30d1\u30b9","survey_name":"\u4ee4\u548c2\u5e74\u5ea621\u53f7\u5c90\u5927\u30d0\u30a4\u30d1\u30b9\u831c\u90e8\u5730\u533a\u5730\u8cea\u8abf\u67fb\u696d\u52d9","client_name":"\u56fd\u571f\u4ea4\u901a\u7701\u4e2d\u90e8\u5730\u65b9\u6574\u5099\u5c40\u5c90\u961c\u56fd\u9053\u4e8b\u52d9\u6240\u3000\u8a08\u753b\u8ab2","boring_xml_url":47,"boring_view_url":1,"soilmap_view_url":null,"soiltest_xml_url":47,"soiltest_view_url":47},{"id":362564,"code":"NGIC202100555-0018","latitude":"35.388094944444","longitude":"136.75720672222","source_code":"","project_name":"\u5c90\u5927\u30d0\u30a4\u30d1\u30b9","survey_name":"\u4ee4\u548c2\u5e74\u5ea621\u53f7\u5c90\u5927\u30d0\u30a4\u30d1\u30b9\u831c\u90e8\u5730\u533a\u5730\u8cea\u8abf\u67fb\u696d\u52d9","client_name":"\u56fd\u571f\u4ea4\u901a\u7701\u4e2d\u90e8\u5730\u65b9\u6574\u5099\u5c40\u5c90\u961c\u56fd\u9053\u4e8b\u52d9\u6240\u3000\u8a08\u753b\u8ab2","boring_xml_url":47,"boring_view_url":1,"soilmap_view_url":null,"soiltest_xml_url":47,"soiltest_view_url":47},{"id":362563,"code":"NGIC202100555-0017","latitude":"35.388071444444","longitude":"136.75786530556","source_code":"","project_name":"\u5c90\u5927\u30d0\u30a4\u30d1\u30b9","survey_name":"\u4ee4\u548c2\u5e74\u5ea621\u53f7\u5c90\u5927\u30d0\u30a4\u30d1\u30b9\u831c\u90e8\u5730\u533a\u5730\u8cea\u8abf\u67fb\u696d\u52d9","client_name":"\u56fd\u571f\u4ea4\u901a\u7701\u4e2d\u90e8\u5730\u65b9\u6574\u5099\u5c40\u5c90\u961c\u56fd\u9053\u4e8b\u52d9\u6240\u3000\u8a08\u753b\u8ab2","boring_xml_url":47,"boring_view_url":1,"soilmap_view_url":null,"soiltest_xml_url":47,"soiltest_view_url":47},{"id":362562,"code":"NGIC202100555-0016","latitude":"35.388344805556","longitude":"136.75792833333","source_code":"","project_name":"\u5c90\u5927\u30d0\u30a4\u30d1\u30b9","survey_name":"\u4ee4\u548c2\u5e74\u5ea621\u53f7\u5c90\u5927\u30d0\u30a4\u30d1\u30b9\u831c\u90e8\u5730\u533a\u5730\u8cea\u8abf\u67fb\u696d\u52d9","client_name":"\u56fd\u571f\u4ea4\u901a\u7701\u4e2d\u90e8\u5730\u65b9\u6574\u5099\u5c40\u5c90\u961c\u56fd\u9053\u4e8b\u52d9\u6240\u3000\u8a08\u753b\u8ab2","boring_xml_url":47,"boring_view_url":1,"soilmap_view_url":null,"soiltest_xml_url":47,"soiltest_view_url":47},{"id":362561,"code":"NGIC202100555-0015","latitude":"35.389039361111","longitude":"136.74251469444","source_code":"","project_name":"\u5c90\u5927\u30d0\u30a4\u30d1\u30b9","survey_name":"\u4ee4\u548c2\u5e74\u5ea621\u53f7\u5c90\u5927\u30d0\u30a4\u30d1\u30b9\u831c\u90e8\u5730\u533a\u5730\u8cea\u8abf\u67fb\u696d\u52d9","client_name":"\u56fd\u571f\u4ea4\u901a\u7701\u4e2d\u90e8\u5730\u65b9\u6574\u5099\u5c40\u5c90\u961c\u56fd\u9053\u4e8b\u52d9\u6240\u3000\u8a08\u753b\u8ab2","boring_xml_url":47,"boring_view_url":1,"soilmap_view_url":null,"soiltest_xml_url":47,"soiltest_view_url":47},{"id":362560,"code":"NGIC202100555-0014","latitude":"35.388857055556","longitude":"136.74304752778","source_code":"","project_name":"\u5c90\u5927\u30d0\u30a4\u30d1\u30b9","survey_name":"\u4ee4\u548c2\u5e74\u5ea621\u53f7\u5c90\u5927\u30d0\u30a4\u30d1\u30b9\u831c\u90e8\u5730\u533a\u5730\u8cea\u8abf\u67fb\u696d\u52d9","client_name":"\u56fd\u571f\u4ea4\u901a\u7701\u4e2d\u90e8\u5730\u65b9\u6574\u5099\u5c40\u5c90\u961c\u56fd\u9053\u4e8b\u52d9\u6240\u3000\u8a08\u753b\u8ab2","boring_xml_url":47,"boring_view_url":1,"soilmap_view_url":null,"soiltest_xml_url":47,"soiltest_view_url":47},{"id":362559,"code":"NGIC202100555-0013","latitude":"35.388670277778","longitude":"136.74442302778","source_code":"","project_name":"\u5c90\u5927\u30d0\u30a4\u30d1\u30b9","survey_name":"\u4ee4\u548c2\u5e74\u5ea621\u53f7\u5c90\u5927\u30d0\u30a4\u30d1\u30b9\u831c\u90e8\u5730\u533a\u5730\u8cea\u8abf\u67fb\u696d\u52d9","client_name":"\u56fd\u571f\u4ea4\u901a\u7701\u4e2d\u90e8\u5730\u65b9\u6574\u5099\u5c40\u5c90\u961c\u56fd\u9053\u4e8b\u52d9\u6240\u3000\u8a08\u753b\u8ab2","boring_xml_url":47,"boring_view_url":1,"soilmap_view_url":null,"soiltest_xml_url":47,"soiltest_view_url":47},{"id":362558,"code":"NGIC202100555-0012","latitude":"35.388540444444","longitude":"136.74657486111","source_code":"","project_name":"\u5c90\u5927\u30d0\u30a4\u30d1\u30b9","survey_name":"\u4ee4\u548c2\u5e74\u5ea621\u53f7\u5c90\u5927\u30d0\u30a4\u30d1\u30b9\u831c\u90e8\u5730\u533a\u5730\u8cea\u8abf\u67fb\u696d\u52d9","client_name":"\u56fd\u571f\u4ea4\u901a\u7701\u4e2d\u90e8\u5730\u65b9\u6574\u5099\u5c40\u5c90\u961c\u56fd\u9053\u4e8b\u52d9\u6240\u3000\u8a08\u753b\u8ab2","boring_xml_url":47,"boring_view_url":1,"soilmap_view_url":null,"soiltest_xml_url":47,"soiltest_view_url":47},{"id":362557,"code":"NGIC202100555-0011","latitude":"35.388487722222","longitude":"136.74781494444","source_code":"","project_name":"\u5c90\u5927\u30d0\u30a4\u30d1\u30b9","survey_name":"\u4ee4\u548c2\u5e74\u5ea621\u53f7\u5c90\u5927\u30d0\u30a4\u30d1\u30b9\u831c\u90e8\u5730\u533a\u5730\u8cea\u8abf\u67fb\u696d\u52d9","client_name":"\u56fd\u571f\u4ea4\u901a\u7701\u4e2d\u90e8\u5730\u65b9\u6574\u5099\u5c40\u5c90\u961c\u56fd\u9053\u4e8b\u52d9\u6240\u3000\u8a08\u753b\u8ab2","boring_xml_url":47,"boring_view_url":1,"soilmap_view_url":null,"soiltest_xml_url":47,"soiltest_view_url":47},{"id":362556,"code":"NGIC202100555-0010","latitude":"35.388441833333","longitude":"136.74853622222","source_code":"","project_name":"\u5c90\u5927\u30d0\u30a4\u30d1\u30b9","survey_name":"\u4ee4\u548c2\u5e74\u5ea621\u53f7\u5c90\u5927\u30d0\u30a4\u30d1\u30b9\u831c\u90e8\u5730\u533a\u5730\u8cea\u8abf\u67fb\u696d\u52d9","client_name":"\u56fd\u571f\u4ea4\u901a\u7701\u4e2d\u90e8\u5730\u65b9\u6574\u5099\u5c40\u5c90\u961c\u56fd\u9053\u4e8b\u52d9\u6240\u3000\u8a08\u753b\u8ab2","boring_xml_url":47,"boring_view_url":1,"soilmap_view_url":null,"soiltest_xml_url":47,"soiltest_view_url":47},{"id":362555,"code":"NGIC202100555-0009","latitude":"35.388594722222","longitude":"136.74906975","source_code":"","project_name":"\u5c90\u5927\u30d0\u30a4\u30d1\u30b9","survey_name":"\u4ee4\u548c2\u5e74\u5ea621\u53f7\u5c90\u5927\u30d0\u30a4\u30d1\u30b9\u831c\u90e8\u5730\u533a\u5730\u8cea\u8abf\u67fb\u696d\u52d9","client_name":"\u56fd\u571f\u4ea4\u901a\u7701\u4e2d\u90e8\u5730\u65b9\u6574\u5099\u5c40\u5c90\u961c\u56fd\u9053\u4e8b\u52d9\u6240\u3000\u8a08\u753b\u8ab2","boring_xml_url":47,"boring_view_url":1,"soilmap_view_url":null,"soiltest_xml_url":47,"soiltest_view_url":47},{"id":362554,"code":"NGIC202100555-0008","latitude":"35.388509055556","longitude":"136.75022816667","source_code":"","project_name":"\u5c90\u5927\u30d0\u30a4\u30d1\u30b9","survey_name":"\u4ee4\u548c2\u5e74\u5ea621\u53f7\u5c90\u5927\u30d0\u30a4\u30d1\u30b9\u831c\u90e8\u5730\u533a\u5730\u8cea\u8abf\u67fb\u696d\u52d9","client_name":"\u56fd\u571f\u4ea4\u901a\u7701\u4e2d\u90e8\u5730\u65b9\u6574\u5099\u5c40\u5c90\u961c\u56fd\u9053\u4e8b\u52d9\u6240\u3000\u8a08\u753b\u8ab2","boring_xml_url":47,"boring_view_url":1,"soilmap_view_url":null,"soiltest_xml_url":47,"soiltest_view_url":47},{"id":362553,"code":"NGIC202100555-0007","latitude":"35.388535666667","longitude":"136.75081891667","source_code":"","project_name":"\u5c90\u5927\u30d0\u30a4\u30d1\u30b9","survey_name":"\u4ee4\u548c2\u5e74\u5ea621\u53f7\u5c90\u5927\u30d0\u30a4\u30d1\u30b9\u831c\u90e8\u5730\u533a\u5730\u8cea\u8abf\u67fb\u696d\u52d9","client_name":"\u56fd\u571f\u4ea4\u901a\u7701\u4e2d\u90e8\u5730\u65b9\u6574\u5099\u5c40\u5c90\u961c\u56fd\u9053\u4e8b\u52d9\u6240\u3000\u8a08\u753b\u8ab2","boring_xml_url":47,"boring_view_url":1,"soilmap_view_url":null,"soiltest_xml_url":47,"soiltest_view_url":47},{"id":362552,"code":"NGIC202100555-0006","latitude":"35.3884605","longitude":"136.75139780556","source_code":"","project_name":"\u5c90\u5927\u30d0\u30a4\u30d1\u30b9","survey_name":"\u4ee4\u548c2\u5e74\u5ea621\u53f7\u5c90\u5927\u30d0\u30a4\u30d1\u30b9\u831c\u90e8\u5730\u533a\u5730\u8cea\u8abf\u67fb\u696d\u52d9","client_name":"\u56fd\u571f\u4ea4\u901a\u7701\u4e2d\u90e8\u5730\u65b9\u6574\u5099\u5c40\u5c90\u961c\u56fd\u9053\u4e8b\u52d9\u6240\u3000\u8a08\u753b\u8ab2","boring_xml_url":47,"boring_view_url":1,"soilmap_view_url":null,"soiltest_xml_url":47,"soiltest_view_url":47},{"id":362551,"code":"NGIC202100555-0005","latitude":"35.3884545","longitude":"136.75198033333","source_code":"","project_name":"\u5c90\u5927\u30d0\u30a4\u30d1\u30b9","survey_name":"\u4ee4\u548c2\u5e74\u5ea621\u53f7\u5c90\u5927\u30d0\u30a4\u30d1\u30b9\u831c\u90e8\u5730\u533a\u5730\u8cea\u8abf\u67fb\u696d\u52d9","client_name":"\u56fd\u571f\u4ea4\u901a\u7701\u4e2d\u90e8\u5730\u65b9\u6574\u5099\u5c40\u5c90\u961c\u56fd\u9053\u4e8b\u52d9\u6240\u3000\u8a08\u753b\u8ab2","boring_xml_url":47,"boring_view_url":1,"soilmap_view_url":null,"soiltest_xml_url":47,"soiltest_view_url":47},{"id":362550,"code":"NGIC202100555-0004","latitude":"35.388429972222","longitude":"136.75256294444","source_code":"","project_name":"\u5c90\u5927\u30d0\u30a4\u30d1\u30b9","survey_name":"\u4ee4\u548c2\u5e74\u5ea621\u53f7\u5c90\u5927\u30d0\u30a4\u30d1\u30b9\u831c\u90e8\u5730\u533a\u5730\u8cea\u8abf\u67fb\u696d\u52d9","client_name":"\u56fd\u571f\u4ea4\u901a\u7701\u4e2d\u90e8\u5730\u65b9\u6574\u5099\u5c40\u5c90\u961c\u56fd\u9053\u4e8b\u52d9\u6240\u3000\u8a08\u753b\u8ab2","boring_xml_url":47,"boring_view_url":1,"soilmap_view_url":null,"soiltest_xml_url":47,"soiltest_view_url":47},{"id":362549,"code":"NGIC202100555-0003","latitude":"35.388353416667","longitude":"136.75370322222","source_code":"","project_name":"\u5c90\u5927\u30d0\u30a4\u30d1\u30b9","survey_name":"\u4ee4\u548c2\u5e74\u5ea621\u53f7\u5c90\u5927\u30d0\u30a4\u30d1\u30b9\u831c\u90e8\u5730\u533a\u5730\u8cea\u8abf\u67fb\u696d\u52d9","client_name":"\u56fd\u571f\u4ea4\u901a\u7701\u4e2d\u90e8\u5730\u65b9\u6574\u5099\u5c40\u5c90\u961c\u56fd\u9053\u4e8b\u52d9\u6240\u3000\u8a08\u753b\u8ab2","boring_xml_url":47,"boring_view_url":1,"soilmap_view_url":null,"soiltest_xml_url":47,"soiltest_view_url":47},{"id":362548,"code":"NGIC202100555-0002","latitude":"35.388394805556","longitude":"136.75427130556","source_code":"","project_name":"\u5c90\u5927\u30d0\u30a4\u30d1\u30b9","survey_name":"\u4ee4\u548c2\u5e74\u5ea621\u53f7\u5c90\u5927\u30d0\u30a4\u30d1\u30b9\u831c\u90e8\u5730\u533a\u5730\u8cea\u8abf\u67fb\u696d\u52d9","client_name":"\u56fd\u571f\u4ea4\u901a\u7701\u4e2d\u90e8\u5730\u65b9\u6574\u5099\u5c40\u5c90\u961c\u56fd\u9053\u4e8b\u52d9\u6240\u3000\u8a08\u753b\u8ab2","boring_xml_url":47,"boring_view_url":1,"soilmap_view_url":null,"soiltest_xml_url":47,"soiltest_view_url":47},{"id":362547,"code":"NGIC202100555-0001","latitude":"35.388302","longitude":"136.75493427778","source_code":"","project_name":"\u5c90\u5927\u30d0\u30a4\u30d1\u30b9","survey_name":"\u4ee4\u548c2\u5e74\u5ea621\u53f7\u5c90\u5927\u30d0\u30a4\u30d1\u30b9\u831c\u90e8\u5730\u533a\u5730\u8cea\u8abf\u67fb\u696d\u52d9","client_name":"\u56fd\u571f\u4ea4\u901a\u7701\u4e2d\u90e8\u5730\u65b9\u6574\u5099\u5c40\u5c90\u961c\u56fd\u9053\u4e8b\u52d9\u6240\u3000\u8a08\u753b\u8ab2","boring_xml_url":47,"boring_view_url":1,"soilmap_view_url":null,"soiltest_xml_url":47,"soiltest_view_url":47},{"id":362546,"code":"NGIC202100539-0023","latitude":"35.104555555556","longitude":"137.80477777778","source_code":"","project_name":"","survey_name":"\u4ee4\u548c2\u5e74\u5ea6\u4f50\u4e45\u9593\u5357\u5730\u533a\u5730\u8cea\u8abf\u67fb\u696d\u52d9","client_name":"\u56fd\u571f\u4ea4\u901a\u7701\u4e2d\u90e8\u5730\u65b9\u6574\u5099\u5c40\u6d5c\u677e\u6cb3\u5ddd\u56fd\u9053\u4e8b\u52d9\u6240","boring_xml_url":47,"boring_view_url":1,"soilmap_view_url":null,"soiltest_xml_url":0,"soiltest_view_url":0},{"id":362545,"code":"NGIC202100539-0022","latitude":"35.079027777778","longitude":"137.79052777778","source_code":"","project_name":"","survey_name":"\u4ee4\u548c2\u5e74\u5ea6\u4f50\u4e45\u9593\u5357\u5730\u533a\u5730\u8cea\u8abf\u67fb\u696d\u52d9","client_name":"\u56fd\u571f\u4ea4\u901a\u7701\u4e2d\u90e8\u5730\u65b9\u6574\u5099\u5c40\u6d5c\u677e\u6cb3\u5ddd\u56fd\u9053\u4e8b\u52d9\u6240","boring_xml_url":47,"boring_view_url":1,"soilmap_view_url":null,"soiltest_xml_url":0,"soiltest_view_url":0},{"id":362544,"code":"NGIC202100539-0021","latitude":"35.103777777778","longitude":"137.81119444444","source_code":"","project_name":"","survey_name":"\u4ee4\u548c2\u5e74\u5ea6\u4f50\u4e45\u9593\u5357\u5730\u533a\u5730\u8cea\u8abf\u67fb\u696d\u52d9","client_name":"\u56fd\u571f\u4ea4\u901a\u7701\u4e2d\u90e8\u5730\u65b9\u6574\u5099\u5c40\u6d5c\u677e\u6cb3\u5ddd\u56fd\u9053\u4e8b\u52d9\u6240","boring_xml_url":47,"boring_view_url":1,"soilmap_view_url":null,"soiltest_xml_url":0,"soiltest_view_url":0},{"id":362543,"code":"NGIC202100539-0020","latitude":"35.104416666667","longitude":"137.81180555556","source_code":"","project_name":"","survey_name":"\u4ee4\u548c2\u5e74\u5ea6\u4f50\u4e45\u9593\u5357\u5730\u533a\u5730\u8cea\u8abf\u67fb\u696d\u52d9","client_name":"\u56fd\u571f\u4ea4\u901a\u7701\u4e2d\u90e8\u5730\u65b9\u6574\u5099\u5c40\u6d5c\u677e\u6cb3\u5ddd\u56fd\u9053\u4e8b\u52d9\u6240","boring_xml_url":47,"boring_view_url":1,"soilmap_view_url":null,"soiltest_xml_url":0,"soiltest_view_url":0},{"id":362542,"code":"NGIC202100539-0019","latitude":"35.078527777778","longitude":"137.79027777778","source_code":"","project_name":"","survey_name":"\u4ee4\u548c2\u5e74\u5ea6\u4f50\u4e45\u9593\u5357\u5730\u533a\u5730\u8cea\u8abf\u67fb\u696d\u52d9","client_name":"\u56fd\u571f\u4ea4\u901a\u7701\u4e2d\u90e8\u5730\u65b9\u6574\u5099\u5c40\u6d5c\u677e\u6cb3\u5ddd\u56fd\u9053\u4e8b\u52d9\u6240","boring_xml_url":47,"boring_view_url":1,"soilmap_view_url":null,"soiltest_xml_url":0,"soiltest_view_url":0},{"id":362541,"code":"NGIC202100539-0018","latitude":"35.079083333333","longitude":"137.7905","source_code":"","project_name":"","survey_name":"\u4ee4\u548c2\u5e74\u5ea6\u4f50\u4e45\u9593\u5357\u5730\u533a\u5730\u8cea\u8abf\u67fb\u696d\u52d9","client_name":"\u56fd\u571f\u4ea4\u901a\u7701\u4e2d\u90e8\u5730\u65b9\u6574\u5099\u5c40\u6d5c\u677e\u6cb3\u5ddd\u56fd\u9053\u4e8b\u52d9\u6240","boring_xml_url":47,"boring_view_url":1,"soilmap_view_url":null,"soiltest_xml_url":0,"soiltest_view_url":0},{"id":362540,"code":"NGIC202100539-0017","latitude":"35.07925","longitude":"137.79069444444","source_code":"","project_name":"","survey_name":"\u4ee4\u548c2\u5e74\u5ea6\u4f50\u4e45\u9593\u5357\u5730\u533a\u5730\u8cea\u8abf\u67fb\u696d\u52d9","client_name":"\u56fd\u571f\u4ea4\u901a\u7701\u4e2d\u90e8\u5730\u65b9\u6574\u5099\u5c40\u6d5c\u677e\u6cb3\u5ddd\u56fd\u9053\u4e8b\u52d9\u6240","boring_xml_url":47,"boring_view_url":1,"soilmap_view_url":null,"soiltest_xml_url":0,"soiltest_view_url":0},{"id":362539,"code":"NGIC202100539-0016","latitude":"35.085833333333","longitude":"137.79755555556","source_code":"","project_name":"","survey_name":"\u4ee4\u548c2\u5e74\u5ea6\u4f50\u4e45\u9593\u5357\u5730\u533a\u5730\u8cea\u8abf\u67fb\u696d\u52d9","client_name":"\u56fd\u571f\u4ea4\u901a\u7701\u4e2d\u90e8\u5730\u65b9\u6574\u5099\u5c40\u6d5c\u677e\u6cb3\u5ddd\u56fd\u9053\u4e8b\u52d9\u6240","boring_xml_url":47,"boring_view_url":1,"soilmap_view_url":null,"soiltest_xml_url":0,"soiltest_view_url":0}]}}