{"header":{"xyz":{"source":[],"mosaic":false},"page":1916,"raw":{"soiltest_result":"0","bbox":"57.598333,109.544722,1.933333,163.806111","page":"1916"},"conditions":{"soiltest_result":0,"north":57.598333,"west":109.544722,"south":1.933333,"east":163.806111},"success":true,"message":""},"data":{"meta":{"total":212844,"page":1916,"pages":7095,"count":30},"values":[{"id":362008,"code":"NGIC202100460-0007","latitude":"35.356238888889","longitude":"138.96851388889","source_code":"","project_name":"246\u53f7\u88fe\u91ce\u30d0\u30a4\u30d1\u30b9","survey_name":"\u4ee4\u548c2\u5e74\u5ea6246\u53f7\u88fe\u91ce\u30d0\u30a4\u30d1\u30b9\u5730\u8cea\u8abf\u67fb\u696d\u52d9","client_name":"\u56fd\u571f\u4ea4\u901a\u7701\u4e2d\u90e8\u5730\u65b9\u6574\u5099\u5c40\u6cbc\u6d25\u6cb3\u5ddd\u56fd\u9053\u4e8b\u52d9\u6240","boring_xml_url":47,"boring_view_url":1,"soilmap_view_url":null,"soiltest_xml_url":0,"soiltest_view_url":0},{"id":362007,"code":"NGIC202100460-0006","latitude":"35.356183333333","longitude":"138.96948888889","source_code":"","project_name":"246\u53f7\u88fe\u91ce\u30d0\u30a4\u30d1\u30b9","survey_name":"\u4ee4\u548c2\u5e74\u5ea6246\u53f7\u88fe\u91ce\u30d0\u30a4\u30d1\u30b9\u5730\u8cea\u8abf\u67fb\u696d\u52d9","client_name":"\u56fd\u571f\u4ea4\u901a\u7701\u4e2d\u90e8\u5730\u65b9\u6574\u5099\u5c40\u6cbc\u6d25\u6cb3\u5ddd\u56fd\u9053\u4e8b\u52d9\u6240","boring_xml_url":47,"boring_view_url":1,"soilmap_view_url":null,"soiltest_xml_url":0,"soiltest_view_url":0},{"id":362006,"code":"NGIC202100460-0005","latitude":"35.358177777778","longitude":"138.97066944444","source_code":"","project_name":"246\u53f7\u88fe\u91ce\u30d0\u30a4\u30d1\u30b9","survey_name":"\u4ee4\u548c2\u5e74\u5ea6246\u53f7\u88fe\u91ce\u30d0\u30a4\u30d1\u30b9\u5730\u8cea\u8abf\u67fb\u696d\u52d9","client_name":"\u56fd\u571f\u4ea4\u901a\u7701\u4e2d\u90e8\u5730\u65b9\u6574\u5099\u5c40\u6cbc\u6d25\u6cb3\u5ddd\u56fd\u9053\u4e8b\u52d9\u6240","boring_xml_url":47,"boring_view_url":1,"soilmap_view_url":null,"soiltest_xml_url":0,"soiltest_view_url":0},{"id":362005,"code":"NGIC202100460-0004","latitude":"35.357933333333","longitude":"138.9707","source_code":"","project_name":"246\u53f7\u88fe\u91ce\u30d0\u30a4\u30d1\u30b9","survey_name":"\u4ee4\u548c2\u5e74\u5ea6246\u53f7\u88fe\u91ce\u30d0\u30a4\u30d1\u30b9\u5730\u8cea\u8abf\u67fb\u696d\u52d9","client_name":"\u56fd\u571f\u4ea4\u901a\u7701\u4e2d\u90e8\u5730\u65b9\u6574\u5099\u5c40\u6cbc\u6d25\u6cb3\u5ddd\u56fd\u9053\u4e8b\u52d9\u6240","boring_xml_url":47,"boring_view_url":1,"soilmap_view_url":null,"soiltest_xml_url":0,"soiltest_view_url":0},{"id":362004,"code":"NGIC202100460-0003","latitude":"35.357366666667","longitude":"138.97085277778","source_code":"","project_name":"246\u53f7\u88fe\u91ce\u30d0\u30a4\u30d1\u30b9","survey_name":"\u4ee4\u548c2\u5e74\u5ea6246\u53f7\u88fe\u91ce\u30d0\u30a4\u30d1\u30b9\u5730\u8cea\u8abf\u67fb\u696d\u52d9","client_name":"\u56fd\u571f\u4ea4\u901a\u7701\u4e2d\u90e8\u5730\u65b9\u6574\u5099\u5c40\u6cbc\u6d25\u6cb3\u5ddd\u56fd\u9053\u4e8b\u52d9\u6240","boring_xml_url":47,"boring_view_url":1,"soilmap_view_url":null,"soiltest_xml_url":0,"soiltest_view_url":0},{"id":362003,"code":"NGIC202100460-0002","latitude":"35.357372222222","longitude":"138.97129166667","source_code":"","project_name":"246\u53f7\u88fe\u91ce\u30d0\u30a4\u30d1\u30b9","survey_name":"\u4ee4\u548c2\u5e74\u5ea6246\u53f7\u88fe\u91ce\u30d0\u30a4\u30d1\u30b9\u5730\u8cea\u8abf\u67fb\u696d\u52d9","client_name":"\u56fd\u571f\u4ea4\u901a\u7701\u4e2d\u90e8\u5730\u65b9\u6574\u5099\u5c40\u6cbc\u6d25\u6cb3\u5ddd\u56fd\u9053\u4e8b\u52d9\u6240","boring_xml_url":47,"boring_view_url":1,"soilmap_view_url":null,"soiltest_xml_url":0,"soiltest_view_url":0},{"id":362002,"code":"NGIC202100460-0001","latitude":"35.357922222222","longitude":"138.97189444444","source_code":"","project_name":"246\u53f7\u88fe\u91ce\u30d0\u30a4\u30d1\u30b9","survey_name":"\u4ee4\u548c2\u5e74\u5ea6246\u53f7\u88fe\u91ce\u30d0\u30a4\u30d1\u30b9\u5730\u8cea\u8abf\u67fb\u696d\u52d9","client_name":"\u56fd\u571f\u4ea4\u901a\u7701\u4e2d\u90e8\u5730\u65b9\u6574\u5099\u5c40\u6cbc\u6d25\u6cb3\u5ddd\u56fd\u9053\u4e8b\u52d9\u6240","boring_xml_url":47,"boring_view_url":1,"soilmap_view_url":null,"soiltest_xml_url":0,"soiltest_view_url":0},{"id":361985,"code":"NGIC202100421-0004","latitude":"39.781498416667","longitude":"140.03380597222","source_code":"","project_name":"","survey_name":"\u4ee4\u548c2\u5e74\u5ea6 \u79cb\u7530\u6e2f\u98ef\u5cf6\u5730\u533a\u571f\u8cea\u8abf\u67fb\u5916\u696d\u52d9","client_name":"\u56fd\u571f\u4ea4\u901a\u7701\u6771\u5317\u5730\u65b9\u6574\u5099\u5c40\u4ed9\u53f0\u6e2f\u6e7e\u7a7a\u6e2f\u6280\u8853\u8abf\u67fb\u4e8b\u52d9\u6240","boring_xml_url":47,"boring_view_url":1,"soilmap_view_url":null,"soiltest_xml_url":47,"soiltest_view_url":47},{"id":361984,"code":"NGIC202100421-0003","latitude":"39.781441805556","longitude":"140.03382530556","source_code":"","project_name":"","survey_name":"\u4ee4\u548c2\u5e74\u5ea6 \u79cb\u7530\u6e2f\u98ef\u5cf6\u5730\u533a\u571f\u8cea\u8abf\u67fb\u5916\u696d\u52d9","client_name":"\u56fd\u571f\u4ea4\u901a\u7701\u6771\u5317\u5730\u65b9\u6574\u5099\u5c40\u4ed9\u53f0\u6e2f\u6e7e\u7a7a\u6e2f\u6280\u8853\u8abf\u67fb\u4e8b\u52d9\u6240","boring_xml_url":47,"boring_view_url":1,"soilmap_view_url":null,"soiltest_xml_url":0,"soiltest_view_url":0},{"id":361983,"code":"NGIC202100421-0002","latitude":"39.781330555556","longitude":"140.03450747222","source_code":"","project_name":"","survey_name":"\u4ee4\u548c2\u5e74\u5ea6 \u79cb\u7530\u6e2f\u98ef\u5cf6\u5730\u533a\u571f\u8cea\u8abf\u67fb\u5916\u696d\u52d9","client_name":"\u56fd\u571f\u4ea4\u901a\u7701\u6771\u5317\u5730\u65b9\u6574\u5099\u5c40\u4ed9\u53f0\u6e2f\u6e7e\u7a7a\u6e2f\u6280\u8853\u8abf\u67fb\u4e8b\u52d9\u6240","boring_xml_url":47,"boring_view_url":1,"soilmap_view_url":71,"soiltest_xml_url":0,"soiltest_view_url":0},{"id":361982,"code":"NGIC202100421-0001","latitude":"39.781273861111","longitude":"140.03452638889","source_code":"","project_name":"","survey_name":"\u4ee4\u548c2\u5e74\u5ea6 \u79cb\u7530\u6e2f\u98ef\u5cf6\u5730\u533a\u571f\u8cea\u8abf\u67fb\u5916\u696d\u52d9","client_name":"\u56fd\u571f\u4ea4\u901a\u7701\u6771\u5317\u5730\u65b9\u6574\u5099\u5c40\u4ed9\u53f0\u6e2f\u6e7e\u7a7a\u6e2f\u6280\u8853\u8abf\u67fb\u4e8b\u52d9\u6240","boring_xml_url":47,"boring_view_url":1,"soilmap_view_url":71,"soiltest_xml_url":47,"soiltest_view_url":47},{"id":361976,"code":"NGIC202100438-0004","latitude":"34.6122","longitude":"133.89273611111","source_code":"","project_name":"\u5ca1\u5c71\u74b0\u72b6\u5357\u9053\u8def\u6771\u7566\u5730\u533a\u7b2c10\u6539\u826f\u5de5\u4e8b","survey_name":"\u5ca1\u5c71\u74b0\u72b6\u5357\u9053\u8def\u6771\u7566\u5730\u533a\u7b2c10\u6539\u826f\u5de5\u4e8b","client_name":"\u56fd\u571f\u4ea4\u901a\u7701\u4e2d\u56fd\u5730\u65b9\u6574\u5099\u5c40\u5ca1\u5c71\u56fd\u9053\u4e8b\u52d9\u6240","boring_xml_url":47,"boring_view_url":1,"soilmap_view_url":null,"soiltest_xml_url":0,"soiltest_view_url":0},{"id":361975,"code":"NGIC202100438-0003","latitude":"34.612438888889","longitude":"133.89259166667","source_code":"","project_name":"\u5ca1\u5c71\u74b0\u72b6\u5357\u9053\u8def\u6771\u7566\u5730\u533a\u7b2c10\u6539\u826f\u5de5\u4e8b","survey_name":"\u5ca1\u5c71\u74b0\u72b6\u5357\u9053\u8def\u6771\u7566\u5730\u533a\u7b2c10\u6539\u826f\u5de5\u4e8b","client_name":"\u56fd\u571f\u4ea4\u901a\u7701\u4e2d\u56fd\u5730\u65b9\u6574\u5099\u5c40\u5ca1\u5c71\u56fd\u9053\u4e8b\u52d9\u6240","boring_xml_url":47,"boring_view_url":1,"soilmap_view_url":null,"soiltest_xml_url":0,"soiltest_view_url":0},{"id":361974,"code":"NGIC202100438-0002","latitude":"34.612538888889","longitude":"133.89255","source_code":"","project_name":"\u5ca1\u5c71\u74b0\u72b6\u5357\u9053\u8def\u6771\u7566\u5730\u533a\u7b2c10\u6539\u826f\u5de5\u4e8b","survey_name":"\u5ca1\u5c71\u74b0\u72b6\u5357\u9053\u8def\u6771\u7566\u5730\u533a\u7b2c10\u6539\u826f\u5de5\u4e8b","client_name":"\u56fd\u571f\u4ea4\u901a\u7701\u4e2d\u56fd\u5730\u65b9\u6574\u5099\u5c40\u5ca1\u5c71\u56fd\u9053\u4e8b\u52d9\u6240","boring_xml_url":47,"boring_view_url":1,"soilmap_view_url":null,"soiltest_xml_url":0,"soiltest_view_url":0},{"id":361973,"code":"NGIC202100438-0001","latitude":"34.612611111111","longitude":"133.8925","source_code":"","project_name":"\u5ca1\u5c71\u74b0\u72b6\u5357\u9053\u8def\u6771\u7566\u5730\u533a\u7b2c10\u6539\u826f\u5de5\u4e8b","survey_name":"\u5ca1\u5c71\u74b0\u72b6\u5357\u9053\u8def\u6771\u7566\u5730\u533a\u7b2c10\u6539\u826f\u5de5\u4e8b","client_name":"\u56fd\u571f\u4ea4\u901a\u7701\u4e2d\u56fd\u5730\u65b9\u6574\u5099\u5c40\u5ca1\u5c71\u56fd\u9053\u4e8b\u52d9\u6240","boring_xml_url":47,"boring_view_url":1,"soilmap_view_url":null,"soiltest_xml_url":0,"soiltest_view_url":0},{"id":361904,"code":"NGIC202100434-0005","latitude":"37.604911111111","longitude":"139.82992416667","source_code":"","project_name":"","survey_name":"\u4ee4\u548c2\u5e74\u5ea6\u963f\u8cc0\u5ddd\u4e0b\u6d41\u5730\u533a\u5730\u8cea\u8abf\u67fb\u696d\u52d9","client_name":"\u56fd\u571f\u4ea4\u901a\u7701\u5317\u9678\u5730\u65b9\u6574\u5099\u5c40\u963f\u8cc0\u5ddd\u6cb3\u5ddd\u4e8b\u52d9\u6240","boring_xml_url":47,"boring_view_url":1,"soilmap_view_url":null,"soiltest_xml_url":0,"soiltest_view_url":0},{"id":361903,"code":"NGIC202100434-0004","latitude":"37.606638611111","longitude":"139.82640444444","source_code":"","project_name":"","survey_name":"\u4ee4\u548c2\u5e74\u5ea6\u963f\u8cc0\u5ddd\u4e0b\u6d41\u5730\u533a\u5730\u8cea\u8abf\u67fb\u696d\u52d9","client_name":"\u56fd\u571f\u4ea4\u901a\u7701\u5317\u9678\u5730\u65b9\u6574\u5099\u5c40\u963f\u8cc0\u5ddd\u6cb3\u5ddd\u4e8b\u52d9\u6240","boring_xml_url":47,"boring_view_url":1,"soilmap_view_url":null,"soiltest_xml_url":0,"soiltest_view_url":0},{"id":361902,"code":"NGIC202100434-0003","latitude":"37.616044166667","longitude":"139.80217555556","source_code":"","project_name":"","survey_name":"\u4ee4\u548c2\u5e74\u5ea6\u963f\u8cc0\u5ddd\u4e0b\u6d41\u5730\u533a\u5730\u8cea\u8abf\u67fb\u696d\u52d9","client_name":"\u56fd\u571f\u4ea4\u901a\u7701\u5317\u9678\u5730\u65b9\u6574\u5099\u5c40\u963f\u8cc0\u5ddd\u6cb3\u5ddd\u4e8b\u52d9\u6240","boring_xml_url":47,"boring_view_url":1,"soilmap_view_url":null,"soiltest_xml_url":0,"soiltest_view_url":0},{"id":361901,"code":"NGIC202100434-0002","latitude":"37.615908055556","longitude":"139.80176027778","source_code":"","project_name":"","survey_name":"\u4ee4\u548c2\u5e74\u5ea6\u963f\u8cc0\u5ddd\u4e0b\u6d41\u5730\u533a\u5730\u8cea\u8abf\u67fb\u696d\u52d9","client_name":"\u56fd\u571f\u4ea4\u901a\u7701\u5317\u9678\u5730\u65b9\u6574\u5099\u5c40\u963f\u8cc0\u5ddd\u6cb3\u5ddd\u4e8b\u52d9\u6240","boring_xml_url":47,"boring_view_url":1,"soilmap_view_url":null,"soiltest_xml_url":0,"soiltest_view_url":0},{"id":361900,"code":"NGIC202100434-0001","latitude":"37.616215277778","longitude":"139.80122277778","source_code":"","project_name":"","survey_name":"\u4ee4\u548c2\u5e74\u5ea6\u963f\u8cc0\u5ddd\u4e0b\u6d41\u5730\u533a\u5730\u8cea\u8abf\u67fb\u696d\u52d9","client_name":"\u56fd\u571f\u4ea4\u901a\u7701\u5317\u9678\u5730\u65b9\u6574\u5099\u5c40\u963f\u8cc0\u5ddd\u6cb3\u5ddd\u4e8b\u52d9\u6240","boring_xml_url":47,"boring_view_url":1,"soilmap_view_url":null,"soiltest_xml_url":0,"soiltest_view_url":0},{"id":361876,"code":"NGIC202100136-0017","latitude":"35.538480555556","longitude":"137.12347777778","source_code":"","project_name":"","survey_name":"\u4ee4\u548c2\u5e74\u5ea6\u5c90\u961c\u56fd\u9053\u7ba1\u5185\u7ba1\u7406\u5730\u8cea\u8abf\u67fb\u696d\u52d9","client_name":"\u56fd\u571f\u4ea4\u901a\u7701\u4e2d\u90e8\u5730\u65b9\u6574\u5099\u5c40\u5c90\u961c\u56fd\u9053\u4e8b\u52d9\u6240","boring_xml_url":47,"boring_view_url":1,"soilmap_view_url":null,"soiltest_xml_url":0,"soiltest_view_url":0},{"id":361875,"code":"NGIC202100136-0016","latitude":"35.5911","longitude":"136.94665555556","source_code":"","project_name":"","survey_name":"\u4ee4\u548c2\u5e74\u5ea6\u5c90\u961c\u56fd\u9053\u7ba1\u5185\u7ba1\u7406\u5730\u8cea\u8abf\u67fb\u696d\u52d9","client_name":"\u56fd\u571f\u4ea4\u901a\u7701\u4e2d\u90e8\u5730\u65b9\u6574\u5099\u5c40\u5c90\u961c\u56fd\u9053\u4e8b\u52d9\u6240","boring_xml_url":47,"boring_view_url":1,"soilmap_view_url":null,"soiltest_xml_url":0,"soiltest_view_url":0},{"id":361874,"code":"NGIC202100136-0015","latitude":"35.590719444444","longitude":"136.946375","source_code":"","project_name":"","survey_name":"\u4ee4\u548c2\u5e74\u5ea6\u5c90\u961c\u56fd\u9053\u7ba1\u5185\u7ba1\u7406\u5730\u8cea\u8abf\u67fb\u696d\u52d9","client_name":"\u56fd\u571f\u4ea4\u901a\u7701\u4e2d\u90e8\u5730\u65b9\u6574\u5099\u5c40\u5c90\u961c\u56fd\u9053\u4e8b\u52d9\u6240","boring_xml_url":47,"boring_view_url":1,"soilmap_view_url":null,"soiltest_xml_url":0,"soiltest_view_url":0},{"id":361873,"code":"NGIC202100136-0014","latitude":"35.590755555556","longitude":"136.94633888889","source_code":"","project_name":"","survey_name":"\u4ee4\u548c2\u5e74\u5ea6\u5c90\u961c\u56fd\u9053\u7ba1\u5185\u7ba1\u7406\u5730\u8cea\u8abf\u67fb\u696d\u52d9","client_name":"\u56fd\u571f\u4ea4\u901a\u7701\u4e2d\u90e8\u5730\u65b9\u6574\u5099\u5c40\u5c90\u961c\u56fd\u9053\u4e8b\u52d9\u6240","boring_xml_url":47,"boring_view_url":1,"soilmap_view_url":null,"soiltest_xml_url":0,"soiltest_view_url":0},{"id":361872,"code":"NGIC202100136-0013","latitude":"35.590058333333","longitude":"136.94579166667","source_code":"","project_name":"","survey_name":"\u4ee4\u548c2\u5e74\u5ea6\u5c90\u961c\u56fd\u9053\u7ba1\u5185\u7ba1\u7406\u5730\u8cea\u8abf\u67fb\u696d\u52d9","client_name":"\u56fd\u571f\u4ea4\u901a\u7701\u4e2d\u90e8\u5730\u65b9\u6574\u5099\u5c40\u5c90\u961c\u56fd\u9053\u4e8b\u52d9\u6240","boring_xml_url":47,"boring_view_url":1,"soilmap_view_url":null,"soiltest_xml_url":0,"soiltest_view_url":0},{"id":361871,"code":"NGIC202100136-0012","latitude":"35.589869444444","longitude":"136.94557222222","source_code":"","project_name":"","survey_name":"\u4ee4\u548c2\u5e74\u5ea6\u5c90\u961c\u56fd\u9053\u7ba1\u5185\u7ba1\u7406\u5730\u8cea\u8abf\u67fb\u696d\u52d9","client_name":"\u56fd\u571f\u4ea4\u901a\u7701\u4e2d\u90e8\u5730\u65b9\u6574\u5099\u5c40\u5c90\u961c\u56fd\u9053\u4e8b\u52d9\u6240","boring_xml_url":47,"boring_view_url":1,"soilmap_view_url":null,"soiltest_xml_url":0,"soiltest_view_url":0},{"id":361870,"code":"NGIC202100136-0011","latitude":"35.588527777778","longitude":"136.944725","source_code":"","project_name":"","survey_name":"\u4ee4\u548c2\u5e74\u5ea6\u5c90\u961c\u56fd\u9053\u7ba1\u5185\u7ba1\u7406\u5730\u8cea\u8abf\u67fb\u696d\u52d9","client_name":"\u56fd\u571f\u4ea4\u901a\u7701\u4e2d\u90e8\u5730\u65b9\u6574\u5099\u5c40\u5c90\u961c\u56fd\u9053\u4e8b\u52d9\u6240","boring_xml_url":47,"boring_view_url":1,"soilmap_view_url":null,"soiltest_xml_url":0,"soiltest_view_url":0},{"id":361869,"code":"NGIC202100136-0010","latitude":"35.588511111111","longitude":"136.94477222222","source_code":"","project_name":"","survey_name":"\u4ee4\u548c2\u5e74\u5ea6\u5c90\u961c\u56fd\u9053\u7ba1\u5185\u7ba1\u7406\u5730\u8cea\u8abf\u67fb\u696d\u52d9","client_name":"\u56fd\u571f\u4ea4\u901a\u7701\u4e2d\u90e8\u5730\u65b9\u6574\u5099\u5c40\u5c90\u961c\u56fd\u9053\u4e8b\u52d9\u6240","boring_xml_url":47,"boring_view_url":1,"soilmap_view_url":null,"soiltest_xml_url":0,"soiltest_view_url":0},{"id":361868,"code":"NGIC202100136-0009","latitude":"35.587688888889","longitude":"136.94437222222","source_code":"","project_name":"","survey_name":"\u4ee4\u548c2\u5e74\u5ea6\u5c90\u961c\u56fd\u9053\u7ba1\u5185\u7ba1\u7406\u5730\u8cea\u8abf\u67fb\u696d\u52d9","client_name":"\u56fd\u571f\u4ea4\u901a\u7701\u4e2d\u90e8\u5730\u65b9\u6574\u5099\u5c40\u5c90\u961c\u56fd\u9053\u4e8b\u52d9\u6240","boring_xml_url":47,"boring_view_url":1,"soilmap_view_url":null,"soiltest_xml_url":0,"soiltest_view_url":0},{"id":361867,"code":"NGIC202100136-0008","latitude":"35.876763888889","longitude":"136.85855555556","source_code":"","project_name":"","survey_name":"\u4ee4\u548c2\u5e74\u5ea6\u5c90\u961c\u56fd\u9053\u7ba1\u5185\u7ba1\u7406\u5730\u8cea\u8abf\u67fb\u696d\u52d9","client_name":"\u56fd\u571f\u4ea4\u901a\u7701\u4e2d\u90e8\u5730\u65b9\u6574\u5099\u5c40\u5c90\u961c\u56fd\u9053\u4e8b\u52d9\u6240","boring_xml_url":47,"boring_view_url":1,"soilmap_view_url":null,"soiltest_xml_url":0,"soiltest_view_url":0}]}}