{"header":{"xyz":{"source":[],"mosaic":false},"page":1918,"raw":{"soiltest_result":"0","bbox":"57.598333,109.544722,1.933333,163.806111","page":"1918"},"conditions":{"soiltest_result":0,"north":57.598333,"west":109.544722,"south":1.933333,"east":163.806111},"success":true,"message":""},"data":{"meta":{"total":212844,"page":1918,"pages":7095,"count":30},"values":[{"id":361558,"code":"NGIC202100278-0003","latitude":"26.245274444444","longitude":"127.6946325","source_code":"","project_name":"","survey_name":"\u4ee4\u548c2\u5e74\u5ea6\u6c96\u7e04\u897f\u6d77\u5cb8\u9053\u8def\u95a2\u4fc2\u6e2c\u91cf\u8abf\u67fb\u8a2d\u8a08\u696d\u52d9","client_name":"\u5185\u95a3\u5e9c\u6c96\u7e04\u7dcf\u5408\u4e8b\u52d9\u5c40\u958b\u767a\u5efa\u8a2d\u90e8\u5357\u90e8\u56fd\u9053\u4e8b\u52d9\u6240","boring_xml_url":47,"boring_view_url":1,"soilmap_view_url":null,"soiltest_xml_url":47,"soiltest_view_url":47},{"id":361557,"code":"NGIC202100278-0002","latitude":"26.245424722222","longitude":"127.69479111111","source_code":"","project_name":"","survey_name":"\u4ee4\u548c2\u5e74\u5ea6\u6c96\u7e04\u897f\u6d77\u5cb8\u9053\u8def\u95a2\u4fc2\u6e2c\u91cf\u8abf\u67fb\u8a2d\u8a08\u696d\u52d9","client_name":"\u5185\u95a3\u5e9c\u6c96\u7e04\u7dcf\u5408\u4e8b\u52d9\u5c40\u958b\u767a\u5efa\u8a2d\u90e8\u5357\u90e8\u56fd\u9053\u4e8b\u52d9\u6240","boring_xml_url":47,"boring_view_url":1,"soilmap_view_url":null,"soiltest_xml_url":47,"soiltest_view_url":47},{"id":361556,"code":"NGIC202100278-0001","latitude":"26.2453775","longitude":"127.69482972222","source_code":"","project_name":"","survey_name":"\u4ee4\u548c2\u5e74\u5ea6\u6c96\u7e04\u897f\u6d77\u5cb8\u9053\u8def\u95a2\u4fc2\u6e2c\u91cf\u8abf\u67fb\u8a2d\u8a08\u696d\u52d9","client_name":"\u5185\u95a3\u5e9c\u6c96\u7e04\u7dcf\u5408\u4e8b\u52d9\u5c40\u958b\u767a\u5efa\u8a2d\u90e8\u5357\u90e8\u56fd\u9053\u4e8b\u52d9\u6240","boring_xml_url":47,"boring_view_url":1,"soilmap_view_url":null,"soiltest_xml_url":47,"soiltest_view_url":47},{"id":361554,"code":"NGIC202100362-0009","latitude":"35.842575","longitude":"140.45471388889","source_code":"","project_name":"","survey_name":"\u56fd\u905351\u53f7\u5317\u5343\u8449\u62e1\u5e45\u4ed6\u8a2d\u8a08\u696d\u52d92G7","client_name":"\u56fd\u571f\u4ea4\u901a\u7701\u95a2\u6771\u5730\u65b9\u6574\u5099\u5c40\u5343\u8449\u56fd\u9053\u4e8b\u52d9\u6240","boring_xml_url":47,"boring_view_url":1,"soilmap_view_url":null,"soiltest_xml_url":47,"soiltest_view_url":47},{"id":361553,"code":"NGIC202100362-0008","latitude":"35.842852777778","longitude":"140.45457222222","source_code":"","project_name":"","survey_name":"\u56fd\u905351\u53f7\u5317\u5343\u8449\u62e1\u5e45\u4ed6\u8a2d\u8a08\u696d\u52d92G7","client_name":"\u56fd\u571f\u4ea4\u901a\u7701\u95a2\u6771\u5730\u65b9\u6574\u5099\u5c40\u5343\u8449\u56fd\u9053\u4e8b\u52d9\u6240","boring_xml_url":47,"boring_view_url":1,"soilmap_view_url":null,"soiltest_xml_url":47,"soiltest_view_url":47},{"id":361552,"code":"NGIC202100362-0007","latitude":"35.846066666667","longitude":"140.45986666667","source_code":"","project_name":"","survey_name":"\u56fd\u905351\u53f7\u5317\u5343\u8449\u62e1\u5e45\u4ed6\u8a2d\u8a08\u696d\u52d92G7","client_name":"\u56fd\u571f\u4ea4\u901a\u7701\u95a2\u6771\u5730\u65b9\u6574\u5099\u5c40\u5343\u8449\u56fd\u9053\u4e8b\u52d9\u6240","boring_xml_url":47,"boring_view_url":1,"soilmap_view_url":null,"soiltest_xml_url":47,"soiltest_view_url":47},{"id":361551,"code":"NGIC202100362-0006","latitude":"35.845166666667","longitude":"140.45849722222","source_code":"","project_name":"","survey_name":"\u56fd\u905351\u53f7\u5317\u5343\u8449\u62e1\u5e45\u4ed6\u8a2d\u8a08\u696d\u52d92G7","client_name":"\u56fd\u571f\u4ea4\u901a\u7701\u95a2\u6771\u5730\u65b9\u6574\u5099\u5c40\u5343\u8449\u56fd\u9053\u4e8b\u52d9\u6240","boring_xml_url":47,"boring_view_url":1,"soilmap_view_url":null,"soiltest_xml_url":47,"soiltest_view_url":47},{"id":361550,"code":"NGIC202100362-0005","latitude":"35.844233333333","longitude":"140.45696944444","source_code":"","project_name":"","survey_name":"\u56fd\u905351\u53f7\u5317\u5343\u8449\u62e1\u5e45\u4ed6\u8a2d\u8a08\u696d\u52d92G7","client_name":"\u56fd\u571f\u4ea4\u901a\u7701\u95a2\u6771\u5730\u65b9\u6574\u5099\u5c40\u5343\u8449\u56fd\u9053\u4e8b\u52d9\u6240","boring_xml_url":47,"boring_view_url":1,"soilmap_view_url":null,"soiltest_xml_url":47,"soiltest_view_url":47},{"id":361549,"code":"NGIC202100362-0004","latitude":"35.843327777778","longitude":"140.45479722222","source_code":"","project_name":"","survey_name":"\u56fd\u905351\u53f7\u5317\u5343\u8449\u62e1\u5e45\u4ed6\u8a2d\u8a08\u696d\u52d92G7","client_name":"\u56fd\u571f\u4ea4\u901a\u7701\u95a2\u6771\u5730\u65b9\u6574\u5099\u5c40\u5343\u8449\u56fd\u9053\u4e8b\u52d9\u6240","boring_xml_url":47,"boring_view_url":1,"soilmap_view_url":null,"soiltest_xml_url":47,"soiltest_view_url":47},{"id":361548,"code":"NGIC202100362-0003","latitude":"35.842975","longitude":"140.45271666667","source_code":"","project_name":"","survey_name":"\u56fd\u905351\u53f7\u5317\u5343\u8449\u62e1\u5e45\u4ed6\u8a2d\u8a08\u696d\u52d92G7","client_name":"\u56fd\u571f\u4ea4\u901a\u7701\u95a2\u6771\u5730\u65b9\u6574\u5099\u5c40\u5343\u8449\u56fd\u9053\u4e8b\u52d9\u6240","boring_xml_url":47,"boring_view_url":1,"soilmap_view_url":null,"soiltest_xml_url":47,"soiltest_view_url":47},{"id":361547,"code":"NGIC202100362-0002","latitude":"35.842888888889","longitude":"140.45063888889","source_code":"","project_name":"","survey_name":"\u56fd\u905351\u53f7\u5317\u5343\u8449\u62e1\u5e45\u4ed6\u8a2d\u8a08\u696d\u52d92G7","client_name":"\u56fd\u571f\u4ea4\u901a\u7701\u95a2\u6771\u5730\u65b9\u6574\u5099\u5c40\u5343\u8449\u56fd\u9053\u4e8b\u52d9\u6240","boring_xml_url":47,"boring_view_url":1,"soilmap_view_url":null,"soiltest_xml_url":47,"soiltest_view_url":47},{"id":361546,"code":"NGIC202100362-0001","latitude":"35.843108333333","longitude":"140.45065833333","source_code":"","project_name":"","survey_name":"\u56fd\u905351\u53f7\u5317\u5343\u8449\u62e1\u5e45\u4ed6\u8a2d\u8a08\u696d\u52d92G7","client_name":"\u56fd\u571f\u4ea4\u901a\u7701\u95a2\u6771\u5730\u65b9\u6574\u5099\u5c40\u5343\u8449\u56fd\u9053\u4e8b\u52d9\u6240","boring_xml_url":47,"boring_view_url":1,"soilmap_view_url":null,"soiltest_xml_url":47,"soiltest_view_url":47},{"id":361531,"code":"NGIC202100163-0005","latitude":"35.239388888889","longitude":"137.83838888889","source_code":"","project_name":"","survey_name":"\u4ee4\u548c2\u5e74\u5ea6\u5929\u7adc\u5ddd\u6c34\u7cfb\u5929\u7adc\u5730\u533a\u5730\u8cea\u8abf\u67fb\u696d\u52d9","client_name":"\u56fd\u571f\u4ea4\u901a\u7701\u4e2d\u90e8\u5730\u65b9\u6574\u5099\u5c40\u5929\u7adc\u5ddd\u4e0a\u6d41\u6cb3\u5ddd\u4e8b\u52d9\u6240","boring_xml_url":47,"boring_view_url":1,"soilmap_view_url":null,"soiltest_xml_url":0,"soiltest_view_url":0},{"id":361530,"code":"NGIC202100163-0004","latitude":"35.237861111111","longitude":"137.83630555556","source_code":"","project_name":"","survey_name":"\u4ee4\u548c2\u5e74\u5ea6\u5929\u7adc\u5ddd\u6c34\u7cfb\u5929\u7adc\u5730\u533a\u5730\u8cea\u8abf\u67fb\u696d\u52d9","client_name":"\u56fd\u571f\u4ea4\u901a\u7701\u4e2d\u90e8\u5730\u65b9\u6574\u5099\u5c40\u5929\u7adc\u5ddd\u4e0a\u6d41\u6cb3\u5ddd\u4e8b\u52d9\u6240","boring_xml_url":47,"boring_view_url":1,"soilmap_view_url":null,"soiltest_xml_url":0,"soiltest_view_url":0},{"id":361529,"code":"NGIC202100163-0003","latitude":"35.235947222222","longitude":"137.83892222222","source_code":"","project_name":"","survey_name":"\u4ee4\u548c2\u5e74\u5ea6\u5929\u7adc\u5ddd\u6c34\u7cfb\u5929\u7adc\u5730\u533a\u5730\u8cea\u8abf\u67fb\u696d\u52d9","client_name":"\u56fd\u571f\u4ea4\u901a\u7701\u4e2d\u90e8\u5730\u65b9\u6574\u5099\u5c40\u5929\u7adc\u5ddd\u4e0a\u6d41\u6cb3\u5ddd\u4e8b\u52d9\u6240","boring_xml_url":47,"boring_view_url":1,"soilmap_view_url":null,"soiltest_xml_url":0,"soiltest_view_url":0},{"id":361528,"code":"NGIC202100163-0002","latitude":"35.279994444444","longitude":"137.85944722222","source_code":"","project_name":"","survey_name":"\u4ee4\u548c2\u5e74\u5ea6\u5929\u7adc\u5ddd\u6c34\u7cfb\u5929\u7adc\u5730\u533a\u5730\u8cea\u8abf\u67fb\u696d\u52d9","client_name":"\u56fd\u571f\u4ea4\u901a\u7701\u4e2d\u90e8\u5730\u65b9\u6574\u5099\u5c40\u5929\u7adc\u5ddd\u4e0a\u6d41\u6cb3\u5ddd\u4e8b\u52d9\u6240","boring_xml_url":47,"boring_view_url":1,"soilmap_view_url":null,"soiltest_xml_url":0,"soiltest_view_url":0},{"id":361527,"code":"NGIC202100163-0001","latitude":"35.275933333333","longitude":"137.85895555556","source_code":"","project_name":"","survey_name":"\u4ee4\u548c2\u5e74\u5ea6\u5929\u7adc\u5ddd\u6c34\u7cfb\u5929\u7adc\u5730\u533a\u5730\u8cea\u8abf\u67fb\u696d\u52d9","client_name":"\u56fd\u571f\u4ea4\u901a\u7701\u4e2d\u90e8\u5730\u65b9\u6574\u5099\u5c40\u5929\u7adc\u5ddd\u4e0a\u6d41\u6cb3\u5ddd\u4e8b\u52d9\u6240","boring_xml_url":47,"boring_view_url":1,"soilmap_view_url":null,"soiltest_xml_url":0,"soiltest_view_url":0},{"id":361511,"code":"NGIC202100329-0012","latitude":"33.997423027778","longitude":"133.58515244444","source_code":"","project_name":"","survey_name":"\u4ee4\u548c2\u5e74\u5ea6\u5ddd\u4e4b\u6c5f\u4e09\u5cf6\u30d0\u30a4\u30d1\u30b9\u5730\u8cea\u8abf\u67fb\u696d\u52d9","client_name":"\u56fd\u571f\u4ea4\u901a\u7701\u56db\u56fd\u5730\u65b9\u6574\u5099\u5c40\u677e\u5c71\u6cb3\u5ddd\u56fd\u9053\u4e8b\u52d9\u6240","boring_xml_url":47,"boring_view_url":1,"soilmap_view_url":null,"soiltest_xml_url":47,"soiltest_view_url":47},{"id":361510,"code":"NGIC202100329-0011","latitude":"33.997065666667","longitude":"133.58471302778","source_code":"","project_name":"","survey_name":"\u4ee4\u548c2\u5e74\u5ea6\u5ddd\u4e4b\u6c5f\u4e09\u5cf6\u30d0\u30a4\u30d1\u30b9\u5730\u8cea\u8abf\u67fb\u696d\u52d9","client_name":"\u56fd\u571f\u4ea4\u901a\u7701\u56db\u56fd\u5730\u65b9\u6574\u5099\u5c40\u677e\u5c71\u6cb3\u5ddd\u56fd\u9053\u4e8b\u52d9\u6240","boring_xml_url":47,"boring_view_url":1,"soilmap_view_url":null,"soiltest_xml_url":47,"soiltest_view_url":47},{"id":361509,"code":"NGIC202100329-0010","latitude":"33.996842833333","longitude":"133.58398780556","source_code":"","project_name":"","survey_name":"\u4ee4\u548c2\u5e74\u5ea6\u5ddd\u4e4b\u6c5f\u4e09\u5cf6\u30d0\u30a4\u30d1\u30b9\u5730\u8cea\u8abf\u67fb\u696d\u52d9","client_name":"\u56fd\u571f\u4ea4\u901a\u7701\u56db\u56fd\u5730\u65b9\u6574\u5099\u5c40\u677e\u5c71\u6cb3\u5ddd\u56fd\u9053\u4e8b\u52d9\u6240","boring_xml_url":47,"boring_view_url":1,"soilmap_view_url":null,"soiltest_xml_url":47,"soiltest_view_url":47},{"id":361508,"code":"NGIC202100329-0009","latitude":"33.9976015","longitude":"133.58577663889","source_code":"","project_name":"","survey_name":"\u4ee4\u548c2\u5e74\u5ea6\u5ddd\u4e4b\u6c5f\u4e09\u5cf6\u30d0\u30a4\u30d1\u30b9\u5730\u8cea\u8abf\u67fb\u696d\u52d9","client_name":"\u56fd\u571f\u4ea4\u901a\u7701\u56db\u56fd\u5730\u65b9\u6574\u5099\u5c40\u677e\u5c71\u6cb3\u5ddd\u56fd\u9053\u4e8b\u52d9\u6240","boring_xml_url":47,"boring_view_url":1,"soilmap_view_url":null,"soiltest_xml_url":47,"soiltest_view_url":47},{"id":361507,"code":"NGIC202100329-0008","latitude":"34.004965305556","longitude":"133.58719155556","source_code":"","project_name":"","survey_name":"\u4ee4\u548c2\u5e74\u5ea6\u5ddd\u4e4b\u6c5f\u4e09\u5cf6\u30d0\u30a4\u30d1\u30b9\u5730\u8cea\u8abf\u67fb\u696d\u52d9","client_name":"\u56fd\u571f\u4ea4\u901a\u7701\u56db\u56fd\u5730\u65b9\u6574\u5099\u5c40\u677e\u5c71\u6cb3\u5ddd\u56fd\u9053\u4e8b\u52d9\u6240","boring_xml_url":47,"boring_view_url":1,"soilmap_view_url":null,"soiltest_xml_url":47,"soiltest_view_url":47},{"id":361506,"code":"NGIC202100329-0007","latitude":"34.005467694444","longitude":"133.58644522222","source_code":"","project_name":"","survey_name":"\u4ee4\u548c2\u5e74\u5ea6\u5ddd\u4e4b\u6c5f\u4e09\u5cf6\u30d0\u30a4\u30d1\u30b9\u5730\u8cea\u8abf\u67fb\u696d\u52d9","client_name":"\u56fd\u571f\u4ea4\u901a\u7701\u56db\u56fd\u5730\u65b9\u6574\u5099\u5c40\u677e\u5c71\u6cb3\u5ddd\u56fd\u9053\u4e8b\u52d9\u6240","boring_xml_url":47,"boring_view_url":1,"soilmap_view_url":null,"soiltest_xml_url":47,"soiltest_view_url":47},{"id":361505,"code":"NGIC202100329-0006","latitude":"34.00571275","longitude":"133.58655472222","source_code":"","project_name":"","survey_name":"\u4ee4\u548c2\u5e74\u5ea6\u5ddd\u4e4b\u6c5f\u4e09\u5cf6\u30d0\u30a4\u30d1\u30b9\u5730\u8cea\u8abf\u67fb\u696d\u52d9","client_name":"\u56fd\u571f\u4ea4\u901a\u7701\u56db\u56fd\u5730\u65b9\u6574\u5099\u5c40\u677e\u5c71\u6cb3\u5ddd\u56fd\u9053\u4e8b\u52d9\u6240","boring_xml_url":47,"boring_view_url":1,"soilmap_view_url":null,"soiltest_xml_url":0,"soiltest_view_url":0},{"id":361504,"code":"NGIC202100329-0005","latitude":"34.006617638889","longitude":"133.58637230556","source_code":"","project_name":"","survey_name":"\u4ee4\u548c2\u5e74\u5ea6\u5ddd\u4e4b\u6c5f\u4e09\u5cf6\u30d0\u30a4\u30d1\u30b9\u5730\u8cea\u8abf\u67fb\u696d\u52d9","client_name":"\u56fd\u571f\u4ea4\u901a\u7701\u56db\u56fd\u5730\u65b9\u6574\u5099\u5c40\u677e\u5c71\u6cb3\u5ddd\u56fd\u9053\u4e8b\u52d9\u6240","boring_xml_url":47,"boring_view_url":1,"soilmap_view_url":null,"soiltest_xml_url":0,"soiltest_view_url":0},{"id":361503,"code":"NGIC202100329-0004","latitude":"34.006758444444","longitude":"133.5856355","source_code":"","project_name":"","survey_name":"\u4ee4\u548c2\u5e74\u5ea6\u5ddd\u4e4b\u6c5f\u4e09\u5cf6\u30d0\u30a4\u30d1\u30b9\u5730\u8cea\u8abf\u67fb\u696d\u52d9","client_name":"\u56fd\u571f\u4ea4\u901a\u7701\u56db\u56fd\u5730\u65b9\u6574\u5099\u5c40\u677e\u5c71\u6cb3\u5ddd\u56fd\u9053\u4e8b\u52d9\u6240","boring_xml_url":47,"boring_view_url":1,"soilmap_view_url":null,"soiltest_xml_url":0,"soiltest_view_url":0},{"id":361502,"code":"NGIC202100329-0003","latitude":"34.007023527778","longitude":"133.58607925","source_code":"","project_name":"","survey_name":"\u4ee4\u548c2\u5e74\u5ea6\u5ddd\u4e4b\u6c5f\u4e09\u5cf6\u30d0\u30a4\u30d1\u30b9\u5730\u8cea\u8abf\u67fb\u696d\u52d9","client_name":"\u56fd\u571f\u4ea4\u901a\u7701\u56db\u56fd\u5730\u65b9\u6574\u5099\u5c40\u677e\u5c71\u6cb3\u5ddd\u56fd\u9053\u4e8b\u52d9\u6240","boring_xml_url":47,"boring_view_url":1,"soilmap_view_url":null,"soiltest_xml_url":0,"soiltest_view_url":0},{"id":361501,"code":"NGIC202100329-0002","latitude":"34.008446833333","longitude":"133.58531447222","source_code":"","project_name":"","survey_name":"\u4ee4\u548c2\u5e74\u5ea6\u5ddd\u4e4b\u6c5f\u4e09\u5cf6\u30d0\u30a4\u30d1\u30b9\u5730\u8cea\u8abf\u67fb\u696d\u52d9","client_name":"\u56fd\u571f\u4ea4\u901a\u7701\u56db\u56fd\u5730\u65b9\u6574\u5099\u5c40\u677e\u5c71\u6cb3\u5ddd\u56fd\u9053\u4e8b\u52d9\u6240","boring_xml_url":47,"boring_view_url":1,"soilmap_view_url":null,"soiltest_xml_url":0,"soiltest_view_url":0},{"id":361500,"code":"NGIC202100329-0001","latitude":"34.009099666667","longitude":"133.58531408333","source_code":"","project_name":"","survey_name":"\u4ee4\u548c2\u5e74\u5ea6\u5ddd\u4e4b\u6c5f\u4e09\u5cf6\u30d0\u30a4\u30d1\u30b9\u5730\u8cea\u8abf\u67fb\u696d\u52d9","client_name":"\u56fd\u571f\u4ea4\u901a\u7701\u56db\u56fd\u5730\u65b9\u6574\u5099\u5c40\u677e\u5c71\u6cb3\u5ddd\u56fd\u9053\u4e8b\u52d9\u6240","boring_xml_url":47,"boring_view_url":1,"soilmap_view_url":null,"soiltest_xml_url":0,"soiltest_view_url":0},{"id":361427,"code":"NGIC202100323-0015","latitude":"31.464626972222","longitude":"131.20160030556","source_code":"","project_name":"\u4ee4\u548c2\u5e74\u5ea6\u6cb9\u6d25\u30fb\u590f\u4e95\u9053\u8def(\u6728\u4ee3\u5730\u533a\u5916)\u5730\u8cea\u8abf\u67fb\u696d\u52d9","survey_name":"\u4ee4\u548c2\u5e74\u5ea6\u6cb9\u6d25\u30fb\u590f\u4e95\u9053\u8def(\u6728\u4ee3\u5730\u533a\u5916)\u5730\u8cea\u8abf\u67fb\u696d\u52d9","client_name":"\u56fd\u571f\u4ea4\u901a\u7701\u4e5d\u5dde\u5730\u65b9\u6574\u5099\u5c40\u5bae\u5d0e\u6cb3\u5ddd\u56fd\u9053\u4e8b\u52d9\u6240","boring_xml_url":47,"boring_view_url":1,"soilmap_view_url":null,"soiltest_xml_url":0,"soiltest_view_url":0}]}}