{"header":{"xyz":{"source":[],"mosaic":false},"page":1927,"raw":{"soiltest_result":"0","bbox":"57.598333,109.544722,1.933333,163.806111","page":"1927"},"conditions":{"soiltest_result":0,"north":57.598333,"west":109.544722,"south":1.933333,"east":163.806111},"success":true,"message":""},"data":{"meta":{"total":212844,"page":1927,"pages":7095,"count":30},"values":[{"id":360570,"code":"NGIC202100133-0005","latitude":"26.466403861111","longitude":"127.83067425","source_code":"","project_name":"","survey_name":"\u4ee4\u548c2\u5e74\u5ea6\u5317\u90e8\u56fd\u9053\u6539\u7bc9\u8a2d\u8a08(\u305d\u306e1)\u696d\u52d9","client_name":"\u5185\u95a3\u5e9c\u6c96\u7e04\u7dcf\u5408\u4e8b\u52d9\u5c40\u958b\u767a\u5efa\u8a2d\u90e8\u5317\u90e8\u56fd\u9053\u4e8b\u52d9\u6240","boring_xml_url":47,"boring_view_url":1,"soilmap_view_url":null,"soiltest_xml_url":0,"soiltest_view_url":0},{"id":360569,"code":"NGIC202100133-0004","latitude":"26.466267805556","longitude":"127.83080055556","source_code":"","project_name":"","survey_name":"\u4ee4\u548c2\u5e74\u5ea6\u5317\u90e8\u56fd\u9053\u6539\u7bc9\u8a2d\u8a08(\u305d\u306e1)\u696d\u52d9","client_name":"\u5185\u95a3\u5e9c\u6c96\u7e04\u7dcf\u5408\u4e8b\u52d9\u5c40\u958b\u767a\u5efa\u8a2d\u90e8\u5317\u90e8\u56fd\u9053\u4e8b\u52d9\u6240","boring_xml_url":47,"boring_view_url":1,"soilmap_view_url":null,"soiltest_xml_url":0,"soiltest_view_url":0},{"id":360568,"code":"NGIC202100133-0003","latitude":"26.466691027778","longitude":"127.83106108333","source_code":"","project_name":"","survey_name":"\u4ee4\u548c2\u5e74\u5ea6\u5317\u90e8\u56fd\u9053\u6539\u7bc9\u8a2d\u8a08(\u305d\u306e1)\u696d\u52d9","client_name":"\u5185\u95a3\u5e9c\u6c96\u7e04\u7dcf\u5408\u4e8b\u52d9\u5c40\u958b\u767a\u5efa\u8a2d\u90e8\u5317\u90e8\u56fd\u9053\u4e8b\u52d9\u6240","boring_xml_url":47,"boring_view_url":1,"soilmap_view_url":null,"soiltest_xml_url":0,"soiltest_view_url":0},{"id":360567,"code":"NGIC202100133-0002","latitude":"26.466601416667","longitude":"127.83114427778","source_code":"","project_name":"","survey_name":"\u4ee4\u548c2\u5e74\u5ea6\u5317\u90e8\u56fd\u9053\u6539\u7bc9\u8a2d\u8a08(\u305d\u306e1)\u696d\u52d9","client_name":"\u5185\u95a3\u5e9c\u6c96\u7e04\u7dcf\u5408\u4e8b\u52d9\u5c40\u958b\u767a\u5efa\u8a2d\u90e8\u5317\u90e8\u56fd\u9053\u4e8b\u52d9\u6240","boring_xml_url":47,"boring_view_url":1,"soilmap_view_url":null,"soiltest_xml_url":0,"soiltest_view_url":0},{"id":360566,"code":"NGIC202100133-0001","latitude":"26.467022694444","longitude":"127.83153736111","source_code":"","project_name":"","survey_name":"\u4ee4\u548c2\u5e74\u5ea6\u5317\u90e8\u56fd\u9053\u6539\u7bc9\u8a2d\u8a08(\u305d\u306e1)\u696d\u52d9","client_name":"\u5185\u95a3\u5e9c\u6c96\u7e04\u7dcf\u5408\u4e8b\u52d9\u5c40\u958b\u767a\u5efa\u8a2d\u90e8\u5317\u90e8\u56fd\u9053\u4e8b\u52d9\u6240","boring_xml_url":47,"boring_view_url":1,"soilmap_view_url":null,"soiltest_xml_url":0,"soiltest_view_url":0},{"id":360555,"code":"NGIC202100142-0004","latitude":"35.470082083333","longitude":"137.19082094444","source_code":"","project_name":"","survey_name":"\u4ee4\u548c2\u5e74\u5ea6\u65b0\u4e38\u5c71\u30c0\u30e0\u8caf\u6c34\u6c60\u5de6\u5cb8\u4e0b\u6d41\u90e8\u5730\u8cea\u8abf\u67fb\u696d\u52d9","client_name":"\u56fd\u571f\u4ea4\u901a\u7701\u4e2d\u90e8\u5730\u65b9\u6574\u5099\u5c40\u65b0\u4e38\u5c71\u30c0\u30e0\u5de5\u4e8b\u4e8b\u52d9\u6240","boring_xml_url":47,"boring_view_url":1,"soilmap_view_url":null,"soiltest_xml_url":0,"soiltest_view_url":0},{"id":360554,"code":"NGIC202100142-0003","latitude":"35.470956833333","longitude":"137.1905765","source_code":"","project_name":"","survey_name":"\u4ee4\u548c2\u5e74\u5ea6\u65b0\u4e38\u5c71\u30c0\u30e0\u8caf\u6c34\u6c60\u5de6\u5cb8\u4e0b\u6d41\u90e8\u5730\u8cea\u8abf\u67fb\u696d\u52d9","client_name":"\u56fd\u571f\u4ea4\u901a\u7701\u4e2d\u90e8\u5730\u65b9\u6574\u5099\u5c40\u65b0\u4e38\u5c71\u30c0\u30e0\u5de5\u4e8b\u4e8b\u52d9\u6240","boring_xml_url":47,"boring_view_url":1,"soilmap_view_url":null,"soiltest_xml_url":0,"soiltest_view_url":0},{"id":360553,"code":"NGIC202100142-0002","latitude":"35.471908138889","longitude":"137.19031066667","source_code":"","project_name":"","survey_name":"\u4ee4\u548c2\u5e74\u5ea6\u65b0\u4e38\u5c71\u30c0\u30e0\u8caf\u6c34\u6c60\u5de6\u5cb8\u4e0b\u6d41\u90e8\u5730\u8cea\u8abf\u67fb\u696d\u52d9","client_name":"\u56fd\u571f\u4ea4\u901a\u7701\u4e2d\u90e8\u5730\u65b9\u6574\u5099\u5c40\u65b0\u4e38\u5c71\u30c0\u30e0\u5de5\u4e8b\u4e8b\u52d9\u6240","boring_xml_url":47,"boring_view_url":1,"soilmap_view_url":null,"soiltest_xml_url":0,"soiltest_view_url":0},{"id":360552,"code":"NGIC202100142-0001","latitude":"35.4727435","longitude":"137.19007725","source_code":"","project_name":"","survey_name":"\u4ee4\u548c2\u5e74\u5ea6\u65b0\u4e38\u5c71\u30c0\u30e0\u8caf\u6c34\u6c60\u5de6\u5cb8\u4e0b\u6d41\u90e8\u5730\u8cea\u8abf\u67fb\u696d\u52d9","client_name":"\u56fd\u571f\u4ea4\u901a\u7701\u4e2d\u90e8\u5730\u65b9\u6574\u5099\u5c40\u65b0\u4e38\u5c71\u30c0\u30e0\u5de5\u4e8b\u4e8b\u52d9\u6240","boring_xml_url":47,"boring_view_url":1,"soilmap_view_url":null,"soiltest_xml_url":0,"soiltest_view_url":0},{"id":360546,"code":"NGIC202100135-0003","latitude":"36.18925","longitude":"139.50860555556","source_code":"","project_name":"","survey_name":"R2\u4e94\u971e\u30fb\u6817\u6a4b\u5730\u533a\u5916\u5824\u9632\u6574\u5099\u691c\u8a0e\u696d\u52d9","client_name":"\u56fd\u571f\u4ea4\u901a\u7701\u95a2\u6771\u5730\u65b9\u6574\u5099\u5c40\u5229\u6839\u5ddd\u4e0a\u6d41\u6cb3\u5ddd\u4e8b\u52d9\u6240","boring_xml_url":47,"boring_view_url":1,"soilmap_view_url":null,"soiltest_xml_url":47,"soiltest_view_url":47},{"id":360545,"code":"NGIC202100135-0002","latitude":"36.188819444444","longitude":"139.53323055556","source_code":"","project_name":"","survey_name":"R2\u4e94\u971e\u30fb\u6817\u6a4b\u5730\u533a\u5916\u5824\u9632\u6574\u5099\u691c\u8a0e\u696d\u52d9","client_name":"\u56fd\u571f\u4ea4\u901a\u7701\u95a2\u6771\u5730\u65b9\u6574\u5099\u5c40\u5229\u6839\u5ddd\u4e0a\u6d41\u6cb3\u5ddd\u4e8b\u52d9\u6240","boring_xml_url":47,"boring_view_url":1,"soilmap_view_url":null,"soiltest_xml_url":0,"soiltest_view_url":0},{"id":360544,"code":"NGIC202100135-0001","latitude":"36.189211111111","longitude":"139.53435555556","source_code":"","project_name":"","survey_name":"R2\u4e94\u971e\u30fb\u6817\u6a4b\u5730\u533a\u5916\u5824\u9632\u6574\u5099\u691c\u8a0e\u696d\u52d9","client_name":"\u56fd\u571f\u4ea4\u901a\u7701\u95a2\u6771\u5730\u65b9\u6574\u5099\u5c40\u5229\u6839\u5ddd\u4e0a\u6d41\u6cb3\u5ddd\u4e8b\u52d9\u6240","boring_xml_url":47,"boring_view_url":1,"soilmap_view_url":null,"soiltest_xml_url":47,"soiltest_view_url":47},{"id":360536,"code":"NGIC202100104-0002","latitude":"34.227824277778","longitude":"132.18537975","source_code":"","project_name":"","survey_name":"\u4ee4\u548c2\u5e74\u5ea6 \u5c0f\u702c\u5ddd\u9632\u9e7f\u5730\u533a\u6a0b\u9580\u8a73\u7d30\u8a2d\u8a08\u4ed6\u696d\u52d9","client_name":"\u56fd\u571f\u4ea4\u901a\u7701\u4e2d\u56fd\u5730\u65b9\u6574\u5099\u5c40\u592a\u7530\u5ddd\u6cb3\u5ddd\u4e8b\u52d9\u6240","boring_xml_url":47,"boring_view_url":1,"soilmap_view_url":null,"soiltest_xml_url":47,"soiltest_view_url":47},{"id":360535,"code":"NGIC202100104-0001","latitude":"34.2277815","longitude":"132.18538152778","source_code":"","project_name":"","survey_name":"\u4ee4\u548c2\u5e74\u5ea6 \u5c0f\u702c\u5ddd\u9632\u9e7f\u5730\u533a\u6a0b\u9580\u8a73\u7d30\u8a2d\u8a08\u4ed6\u696d\u52d9","client_name":"\u56fd\u571f\u4ea4\u901a\u7701\u4e2d\u56fd\u5730\u65b9\u6574\u5099\u5c40\u592a\u7530\u5ddd\u6cb3\u5ddd\u4e8b\u52d9\u6240","boring_xml_url":47,"boring_view_url":1,"soilmap_view_url":null,"soiltest_xml_url":47,"soiltest_view_url":47},{"id":360485,"code":"NGIC202003099-0019","latitude":"34.074616222222","longitude":"132.20085988889","source_code":"","project_name":"\u4ee4\u548c2\u5e74\u5ea6\u85e4\u751f\u9577\u91ce\u30d0\u30a4\u30d1\u30b9\u901a\u6d25\u5730\u533a\u5916\u5730\u8cea\u8abf\u67fb\u696d\u52d9","survey_name":"\u4ee4\u548c2\u5e74\u5ea6\u85e4\u751f\u9577\u91ce\u30d0\u30a4\u30d1\u30b9\u901a\u6d25\u5730\u533a\u5916\u5730\u8cea\u8abf\u67fb\u696d\u52d9","client_name":"\u56fd\u571f\u4ea4\u901a\u7701\u4e2d\u56fd\u5730\u65b9\u6574\u5099\u5c40\u5c71\u53e3\u6cb3\u5ddd\u56fd\u9053\u4e8b\u52d9\u6240","boring_xml_url":47,"boring_view_url":1,"soilmap_view_url":null,"soiltest_xml_url":47,"soiltest_view_url":47},{"id":360484,"code":"NGIC202003099-0018","latitude":"34.074994388889","longitude":"132.20073533333","source_code":"","project_name":"\u4ee4\u548c2\u5e74\u5ea6\u85e4\u751f\u9577\u91ce\u30d0\u30a4\u30d1\u30b9\u901a\u6d25\u5730\u533a\u5916\u5730\u8cea\u8abf\u67fb\u696d\u52d9","survey_name":"\u4ee4\u548c2\u5e74\u5ea6\u85e4\u751f\u9577\u91ce\u30d0\u30a4\u30d1\u30b9\u901a\u6d25\u5730\u533a\u5916\u5730\u8cea\u8abf\u67fb\u696d\u52d9","client_name":"\u56fd\u571f\u4ea4\u901a\u7701\u4e2d\u56fd\u5730\u65b9\u6574\u5099\u5c40\u5c71\u53e3\u6cb3\u5ddd\u56fd\u9053\u4e8b\u52d9\u6240","boring_xml_url":47,"boring_view_url":1,"soilmap_view_url":null,"soiltest_xml_url":47,"soiltest_view_url":47},{"id":360483,"code":"NGIC202003099-0017","latitude":"34.076289","longitude":"132.19993975","source_code":"","project_name":"\u4ee4\u548c2\u5e74\u5ea6\u85e4\u751f\u9577\u91ce\u30d0\u30a4\u30d1\u30b9\u901a\u6d25\u5730\u533a\u5916\u5730\u8cea\u8abf\u67fb\u696d\u52d9","survey_name":"\u4ee4\u548c2\u5e74\u5ea6\u85e4\u751f\u9577\u91ce\u30d0\u30a4\u30d1\u30b9\u901a\u6d25\u5730\u533a\u5916\u5730\u8cea\u8abf\u67fb\u696d\u52d9","client_name":"\u56fd\u571f\u4ea4\u901a\u7701\u4e2d\u56fd\u5730\u65b9\u6574\u5099\u5c40\u5c71\u53e3\u6cb3\u5ddd\u56fd\u9053\u4e8b\u52d9\u6240","boring_xml_url":47,"boring_view_url":1,"soilmap_view_url":null,"soiltest_xml_url":47,"soiltest_view_url":47},{"id":360482,"code":"NGIC202003099-0016","latitude":"34.07690475","longitude":"132.19974891667","source_code":"","project_name":"\u4ee4\u548c2\u5e74\u5ea6\u85e4\u751f\u9577\u91ce\u30d0\u30a4\u30d1\u30b9\u901a\u6d25\u5730\u533a\u5916\u5730\u8cea\u8abf\u67fb\u696d\u52d9","survey_name":"\u4ee4\u548c2\u5e74\u5ea6\u85e4\u751f\u9577\u91ce\u30d0\u30a4\u30d1\u30b9\u901a\u6d25\u5730\u533a\u5916\u5730\u8cea\u8abf\u67fb\u696d\u52d9","client_name":"\u56fd\u571f\u4ea4\u901a\u7701\u4e2d\u56fd\u5730\u65b9\u6574\u5099\u5c40\u5c71\u53e3\u6cb3\u5ddd\u56fd\u9053\u4e8b\u52d9\u6240","boring_xml_url":47,"boring_view_url":1,"soilmap_view_url":null,"soiltest_xml_url":47,"soiltest_view_url":47},{"id":360481,"code":"NGIC202003099-0015","latitude":"34.077462555556","longitude":"132.19940247222","source_code":"","project_name":"\u4ee4\u548c2\u5e74\u5ea6\u85e4\u751f\u9577\u91ce\u30d0\u30a4\u30d1\u30b9\u901a\u6d25\u5730\u533a\u5916\u5730\u8cea\u8abf\u67fb\u696d\u52d9","survey_name":"\u4ee4\u548c2\u5e74\u5ea6\u85e4\u751f\u9577\u91ce\u30d0\u30a4\u30d1\u30b9\u901a\u6d25\u5730\u533a\u5916\u5730\u8cea\u8abf\u67fb\u696d\u52d9","client_name":"\u56fd\u571f\u4ea4\u901a\u7701\u4e2d\u56fd\u5730\u65b9\u6574\u5099\u5c40\u5c71\u53e3\u6cb3\u5ddd\u56fd\u9053\u4e8b\u52d9\u6240","boring_xml_url":47,"boring_view_url":1,"soilmap_view_url":null,"soiltest_xml_url":0,"soiltest_view_url":0},{"id":360480,"code":"NGIC202003099-0014","latitude":"34.078500583333","longitude":"132.19914763889","source_code":"","project_name":"\u4ee4\u548c2\u5e74\u5ea6\u85e4\u751f\u9577\u91ce\u30d0\u30a4\u30d1\u30b9\u901a\u6d25\u5730\u533a\u5916\u5730\u8cea\u8abf\u67fb\u696d\u52d9","survey_name":"\u4ee4\u548c2\u5e74\u5ea6\u85e4\u751f\u9577\u91ce\u30d0\u30a4\u30d1\u30b9\u901a\u6d25\u5730\u533a\u5916\u5730\u8cea\u8abf\u67fb\u696d\u52d9","client_name":"\u56fd\u571f\u4ea4\u901a\u7701\u4e2d\u56fd\u5730\u65b9\u6574\u5099\u5c40\u5c71\u53e3\u6cb3\u5ddd\u56fd\u9053\u4e8b\u52d9\u6240","boring_xml_url":47,"boring_view_url":1,"soilmap_view_url":null,"soiltest_xml_url":0,"soiltest_view_url":0},{"id":360479,"code":"NGIC202003099-0013","latitude":"34.078417527778","longitude":"132.19891763889","source_code":"","project_name":"\u4ee4\u548c2\u5e74\u5ea6\u85e4\u751f\u9577\u91ce\u30d0\u30a4\u30d1\u30b9\u901a\u6d25\u5730\u533a\u5916\u5730\u8cea\u8abf\u67fb\u696d\u52d9","survey_name":"\u4ee4\u548c2\u5e74\u5ea6\u85e4\u751f\u9577\u91ce\u30d0\u30a4\u30d1\u30b9\u901a\u6d25\u5730\u533a\u5916\u5730\u8cea\u8abf\u67fb\u696d\u52d9","client_name":"\u56fd\u571f\u4ea4\u901a\u7701\u4e2d\u56fd\u5730\u65b9\u6574\u5099\u5c40\u5c71\u53e3\u6cb3\u5ddd\u56fd\u9053\u4e8b\u52d9\u6240","boring_xml_url":47,"boring_view_url":1,"soilmap_view_url":null,"soiltest_xml_url":0,"soiltest_view_url":0},{"id":360478,"code":"NGIC202003099-0012","latitude":"34.079068416667","longitude":"132.19887875","source_code":"","project_name":"\u4ee4\u548c2\u5e74\u5ea6\u85e4\u751f\u9577\u91ce\u30d0\u30a4\u30d1\u30b9\u901a\u6d25\u5730\u533a\u5916\u5730\u8cea\u8abf\u67fb\u696d\u52d9","survey_name":"\u4ee4\u548c2\u5e74\u5ea6\u85e4\u751f\u9577\u91ce\u30d0\u30a4\u30d1\u30b9\u901a\u6d25\u5730\u533a\u5916\u5730\u8cea\u8abf\u67fb\u696d\u52d9","client_name":"\u56fd\u571f\u4ea4\u901a\u7701\u4e2d\u56fd\u5730\u65b9\u6574\u5099\u5c40\u5c71\u53e3\u6cb3\u5ddd\u56fd\u9053\u4e8b\u52d9\u6240","boring_xml_url":47,"boring_view_url":1,"soilmap_view_url":null,"soiltest_xml_url":0,"soiltest_view_url":0},{"id":360477,"code":"NGIC202003099-0011","latitude":"34.078994194444","longitude":"132.19864172222","source_code":"","project_name":"\u4ee4\u548c2\u5e74\u5ea6\u85e4\u751f\u9577\u91ce\u30d0\u30a4\u30d1\u30b9\u901a\u6d25\u5730\u533a\u5916\u5730\u8cea\u8abf\u67fb\u696d\u52d9","survey_name":"\u4ee4\u548c2\u5e74\u5ea6\u85e4\u751f\u9577\u91ce\u30d0\u30a4\u30d1\u30b9\u901a\u6d25\u5730\u533a\u5916\u5730\u8cea\u8abf\u67fb\u696d\u52d9","client_name":"\u56fd\u571f\u4ea4\u901a\u7701\u4e2d\u56fd\u5730\u65b9\u6574\u5099\u5c40\u5c71\u53e3\u6cb3\u5ddd\u56fd\u9053\u4e8b\u52d9\u6240","boring_xml_url":47,"boring_view_url":1,"soilmap_view_url":null,"soiltest_xml_url":0,"soiltest_view_url":0},{"id":360476,"code":"NGIC202003099-0010","latitude":"34.079519222222","longitude":"132.19842772222","source_code":"","project_name":"\u4ee4\u548c2\u5e74\u5ea6\u85e4\u751f\u9577\u91ce\u30d0\u30a4\u30d1\u30b9\u901a\u6d25\u5730\u533a\u5916\u5730\u8cea\u8abf\u67fb\u696d\u52d9","survey_name":"\u4ee4\u548c2\u5e74\u5ea6\u85e4\u751f\u9577\u91ce\u30d0\u30a4\u30d1\u30b9\u901a\u6d25\u5730\u533a\u5916\u5730\u8cea\u8abf\u67fb\u696d\u52d9","client_name":"\u56fd\u571f\u4ea4\u901a\u7701\u4e2d\u56fd\u5730\u65b9\u6574\u5099\u5c40\u5c71\u53e3\u6cb3\u5ddd\u56fd\u9053\u4e8b\u52d9\u6240","boring_xml_url":47,"boring_view_url":1,"soilmap_view_url":null,"soiltest_xml_url":0,"soiltest_view_url":0},{"id":360475,"code":"NGIC202003099-0009","latitude":"34.079430083333","longitude":"132.19807063889","source_code":"","project_name":"\u4ee4\u548c2\u5e74\u5ea6\u85e4\u751f\u9577\u91ce\u30d0\u30a4\u30d1\u30b9\u901a\u6d25\u5730\u533a\u5916\u5730\u8cea\u8abf\u67fb\u696d\u52d9","survey_name":"\u4ee4\u548c2\u5e74\u5ea6\u85e4\u751f\u9577\u91ce\u30d0\u30a4\u30d1\u30b9\u901a\u6d25\u5730\u533a\u5916\u5730\u8cea\u8abf\u67fb\u696d\u52d9","client_name":"\u56fd\u571f\u4ea4\u901a\u7701\u4e2d\u56fd\u5730\u65b9\u6574\u5099\u5c40\u5c71\u53e3\u6cb3\u5ddd\u56fd\u9053\u4e8b\u52d9\u6240","boring_xml_url":47,"boring_view_url":1,"soilmap_view_url":null,"soiltest_xml_url":0,"soiltest_view_url":0},{"id":360474,"code":"NGIC202003099-0008","latitude":"34.080082861111","longitude":"132.19824855556","source_code":"","project_name":"\u4ee4\u548c2\u5e74\u5ea6\u85e4\u751f\u9577\u91ce\u30d0\u30a4\u30d1\u30b9\u901a\u6d25\u5730\u533a\u5916\u5730\u8cea\u8abf\u67fb\u696d\u52d9","survey_name":"\u4ee4\u548c2\u5e74\u5ea6\u85e4\u751f\u9577\u91ce\u30d0\u30a4\u30d1\u30b9\u901a\u6d25\u5730\u533a\u5916\u5730\u8cea\u8abf\u67fb\u696d\u52d9","client_name":"\u56fd\u571f\u4ea4\u901a\u7701\u4e2d\u56fd\u5730\u65b9\u6574\u5099\u5c40\u5c71\u53e3\u6cb3\u5ddd\u56fd\u9053\u4e8b\u52d9\u6240","boring_xml_url":47,"boring_view_url":1,"soilmap_view_url":null,"soiltest_xml_url":0,"soiltest_view_url":0},{"id":360473,"code":"NGIC202003099-0007","latitude":"34.080479527778","longitude":"132.19814919444","source_code":"","project_name":"\u4ee4\u548c2\u5e74\u5ea6\u85e4\u751f\u9577\u91ce\u30d0\u30a4\u30d1\u30b9\u901a\u6d25\u5730\u533a\u5916\u5730\u8cea\u8abf\u67fb\u696d\u52d9","survey_name":"\u4ee4\u548c2\u5e74\u5ea6\u85e4\u751f\u9577\u91ce\u30d0\u30a4\u30d1\u30b9\u901a\u6d25\u5730\u533a\u5916\u5730\u8cea\u8abf\u67fb\u696d\u52d9","client_name":"\u56fd\u571f\u4ea4\u901a\u7701\u4e2d\u56fd\u5730\u65b9\u6574\u5099\u5c40\u5c71\u53e3\u6cb3\u5ddd\u56fd\u9053\u4e8b\u52d9\u6240","boring_xml_url":47,"boring_view_url":1,"soilmap_view_url":null,"soiltest_xml_url":47,"soiltest_view_url":47},{"id":360472,"code":"NGIC202003099-0006","latitude":"34.080921888889","longitude":"132.19803188889","source_code":"","project_name":"\u4ee4\u548c2\u5e74\u5ea6\u85e4\u751f\u9577\u91ce\u30d0\u30a4\u30d1\u30b9\u901a\u6d25\u5730\u533a\u5916\u5730\u8cea\u8abf\u67fb\u696d\u52d9","survey_name":"\u4ee4\u548c2\u5e74\u5ea6\u85e4\u751f\u9577\u91ce\u30d0\u30a4\u30d1\u30b9\u901a\u6d25\u5730\u533a\u5916\u5730\u8cea\u8abf\u67fb\u696d\u52d9","client_name":"\u56fd\u571f\u4ea4\u901a\u7701\u4e2d\u56fd\u5730\u65b9\u6574\u5099\u5c40\u5c71\u53e3\u6cb3\u5ddd\u56fd\u9053\u4e8b\u52d9\u6240","boring_xml_url":47,"boring_view_url":1,"soilmap_view_url":null,"soiltest_xml_url":0,"soiltest_view_url":0},{"id":360471,"code":"NGIC202003099-0005","latitude":"34.081373666667","longitude":"132.19800577778","source_code":"","project_name":"\u4ee4\u548c2\u5e74\u5ea6\u85e4\u751f\u9577\u91ce\u30d0\u30a4\u30d1\u30b9\u901a\u6d25\u5730\u533a\u5916\u5730\u8cea\u8abf\u67fb\u696d\u52d9","survey_name":"\u4ee4\u548c2\u5e74\u5ea6\u85e4\u751f\u9577\u91ce\u30d0\u30a4\u30d1\u30b9\u901a\u6d25\u5730\u533a\u5916\u5730\u8cea\u8abf\u67fb\u696d\u52d9","client_name":"\u56fd\u571f\u4ea4\u901a\u7701\u4e2d\u56fd\u5730\u65b9\u6574\u5099\u5c40\u5c71\u53e3\u6cb3\u5ddd\u56fd\u9053\u4e8b\u52d9\u6240","boring_xml_url":47,"boring_view_url":1,"soilmap_view_url":null,"soiltest_xml_url":0,"soiltest_view_url":0},{"id":360470,"code":"NGIC202003099-0004","latitude":"34.081778083333","longitude":"132.19797536111","source_code":"","project_name":"\u4ee4\u548c2\u5e74\u5ea6\u85e4\u751f\u9577\u91ce\u30d0\u30a4\u30d1\u30b9\u901a\u6d25\u5730\u533a\u5916\u5730\u8cea\u8abf\u67fb\u696d\u52d9","survey_name":"\u4ee4\u548c2\u5e74\u5ea6\u85e4\u751f\u9577\u91ce\u30d0\u30a4\u30d1\u30b9\u901a\u6d25\u5730\u533a\u5916\u5730\u8cea\u8abf\u67fb\u696d\u52d9","client_name":"\u56fd\u571f\u4ea4\u901a\u7701\u4e2d\u56fd\u5730\u65b9\u6574\u5099\u5c40\u5c71\u53e3\u6cb3\u5ddd\u56fd\u9053\u4e8b\u52d9\u6240","boring_xml_url":47,"boring_view_url":1,"soilmap_view_url":null,"soiltest_xml_url":0,"soiltest_view_url":0}]}}