{"header":{"xyz":{"source":[],"mosaic":false},"page":1931,"raw":{"soiltest_result":"0","bbox":"57.598333,109.544722,1.933333,163.806111","page":"1931"},"conditions":{"soiltest_result":0,"north":57.598333,"west":109.544722,"south":1.933333,"east":163.806111},"success":true,"message":""},"data":{"meta":{"total":212844,"page":1931,"pages":7095,"count":30},"values":[{"id":360238,"code":"NGIC202100049-0003","latitude":"33.7891375","longitude":"134.226413","source_code":"","project_name":"\u4ee4\u548c2\u5e74\u5ea6 \u5c0f\u898b\u91ce\u3005\u30c0\u30e0\u8caf\u6c34\u6c60\u5730\u8cea\u8abf\u67fb\u5916\u696d\u52d9","survey_name":"\u4ee4\u548c2\u5e74\u5ea6 \u5c0f\u898b\u91ce\u3005\u30c0\u30e0\u8caf\u6c34\u6c60\u5730\u8cea\u8abf\u67fb\u5916\u696d\u52d9","client_name":"\u56fd\u571f\u4ea4\u901a\u7701\u56db\u56fd\u5730\u65b9\u6574\u5099\u5c40\u90a3\u8cc0\u5ddd\u6cb3\u5ddd\u4e8b\u52d9\u6240","boring_xml_url":47,"boring_view_url":1,"soilmap_view_url":null,"soiltest_xml_url":47,"soiltest_view_url":47},{"id":360237,"code":"NGIC202100049-0002","latitude":"33.797226388889","longitude":"134.23847394444","source_code":"","project_name":"\u4ee4\u548c2\u5e74\u5ea6 \u5c0f\u898b\u91ce\u3005\u30c0\u30e0\u8caf\u6c34\u6c60\u5730\u8cea\u8abf\u67fb\u5916\u696d\u52d9","survey_name":"\u4ee4\u548c2\u5e74\u5ea6 \u5c0f\u898b\u91ce\u3005\u30c0\u30e0\u8caf\u6c34\u6c60\u5730\u8cea\u8abf\u67fb\u5916\u696d\u52d9","client_name":"\u56fd\u571f\u4ea4\u901a\u7701\u56db\u56fd\u5730\u65b9\u6574\u5099\u5c40\u90a3\u8cc0\u5ddd\u6cb3\u5ddd\u4e8b\u52d9\u6240","boring_xml_url":47,"boring_view_url":1,"soilmap_view_url":null,"soiltest_xml_url":47,"soiltest_view_url":47},{"id":360236,"code":"NGIC202100049-0001","latitude":"33.806377527778","longitude":"134.24158027778","source_code":"","project_name":"\u4ee4\u548c2\u5e74\u5ea6 \u5c0f\u898b\u91ce\u3005\u30c0\u30e0\u8caf\u6c34\u6c60\u5730\u8cea\u8abf\u67fb\u5916\u696d\u52d9","survey_name":"\u4ee4\u548c2\u5e74\u5ea6 \u5c0f\u898b\u91ce\u3005\u30c0\u30e0\u8caf\u6c34\u6c60\u5730\u8cea\u8abf\u67fb\u5916\u696d\u52d9","client_name":"\u56fd\u571f\u4ea4\u901a\u7701\u56db\u56fd\u5730\u65b9\u6574\u5099\u5c40\u90a3\u8cc0\u5ddd\u6cb3\u5ddd\u4e8b\u52d9\u6240","boring_xml_url":47,"boring_view_url":1,"soilmap_view_url":null,"soiltest_xml_url":47,"soiltest_view_url":47},{"id":360188,"code":"NGIC202004313-0010","latitude":"32.694509916667","longitude":"131.23879036111","source_code":"","project_name":"\u4ee4\u548c\u5143\u5e74\u5ea6\u4e94\u30f6\u702c\u9ad8\u5343\u7a42\u9053\u8def\u65b0\u6d25\u82b1\u30c8\u30f3\u30cd\u30eb\u5730\u8cea\u8abf\u67fb\u696d\u52d9","survey_name":"\u4ee4\u548c\u5143\u5e74\u5ea6\u4e94\u30f6\u702c\u9ad8\u5343\u7a42\u9053\u8def\u65b0\u6d25\u82b1\u30c8\u30f3\u30cd\u30eb\u5730\u8cea\u8abf\u67fb\u696d\u52d9","client_name":"\u56fd\u571f\u4ea4\u901a\u7701\u4e5d\u5dde\u5730\u65b9\u6574\u5099\u5c40\u5ef6\u5ca1\u6cb3\u5ddd\u56fd\u9053\u4e8b\u52d9\u6240","boring_xml_url":47,"boring_view_url":1,"soilmap_view_url":null,"soiltest_xml_url":0,"soiltest_view_url":0},{"id":360187,"code":"NGIC202004313-0009","latitude":"32.68534675","longitude":"131.21549216667","source_code":"","project_name":"\u4ee4\u548c\u5143\u5e74\u5ea6\u4e94\u30f6\u702c\u9ad8\u5343\u7a42\u9053\u8def\u65b0\u6d25\u82b1\u30c8\u30f3\u30cd\u30eb\u5730\u8cea\u8abf\u67fb\u696d\u52d9","survey_name":"\u4ee4\u548c\u5143\u5e74\u5ea6\u4e94\u30f6\u702c\u9ad8\u5343\u7a42\u9053\u8def\u65b0\u6d25\u82b1\u30c8\u30f3\u30cd\u30eb\u5730\u8cea\u8abf\u67fb\u696d\u52d9","client_name":"\u56fd\u571f\u4ea4\u901a\u7701\u4e5d\u5dde\u5730\u65b9\u6574\u5099\u5c40\u5ef6\u5ca1\u6cb3\u5ddd\u56fd\u9053\u4e8b\u52d9\u6240","boring_xml_url":47,"boring_view_url":1,"soilmap_view_url":null,"soiltest_xml_url":0,"soiltest_view_url":0},{"id":360186,"code":"NGIC202004313-0008","latitude":"32.694680888889","longitude":"131.23839052778","source_code":"","project_name":"\u4ee4\u548c\u5143\u5e74\u5ea6\u4e94\u30f6\u702c\u9ad8\u5343\u7a42\u9053\u8def\u65b0\u6d25\u82b1\u30c8\u30f3\u30cd\u30eb\u5730\u8cea\u8abf\u67fb\u696d\u52d9","survey_name":"\u4ee4\u548c\u5143\u5e74\u5ea6\u4e94\u30f6\u702c\u9ad8\u5343\u7a42\u9053\u8def\u65b0\u6d25\u82b1\u30c8\u30f3\u30cd\u30eb\u5730\u8cea\u8abf\u67fb\u696d\u52d9","client_name":"\u56fd\u571f\u4ea4\u901a\u7701\u4e5d\u5dde\u5730\u65b9\u6574\u5099\u5c40\u5ef6\u5ca1\u6cb3\u5ddd\u56fd\u9053\u4e8b\u52d9\u6240","boring_xml_url":47,"boring_view_url":1,"soilmap_view_url":null,"soiltest_xml_url":0,"soiltest_view_url":0},{"id":360185,"code":"NGIC202004313-0007","latitude":"32.694411055556","longitude":"131.23853891667","source_code":"","project_name":"\u4ee4\u548c\u5143\u5e74\u5ea6\u4e94\u30f6\u702c\u9ad8\u5343\u7a42\u9053\u8def\u65b0\u6d25\u82b1\u30c8\u30f3\u30cd\u30eb\u5730\u8cea\u8abf\u67fb\u696d\u52d9","survey_name":"\u4ee4\u548c\u5143\u5e74\u5ea6\u4e94\u30f6\u702c\u9ad8\u5343\u7a42\u9053\u8def\u65b0\u6d25\u82b1\u30c8\u30f3\u30cd\u30eb\u5730\u8cea\u8abf\u67fb\u696d\u52d9","client_name":"\u56fd\u571f\u4ea4\u901a\u7701\u4e5d\u5dde\u5730\u65b9\u6574\u5099\u5c40\u5ef6\u5ca1\u6cb3\u5ddd\u56fd\u9053\u4e8b\u52d9\u6240","boring_xml_url":47,"boring_view_url":1,"soilmap_view_url":null,"soiltest_xml_url":0,"soiltest_view_url":0},{"id":360184,"code":"NGIC202004313-0006","latitude":"32.692531944444","longitude":"131.23345622222","source_code":"","project_name":"\u4ee4\u548c\u5143\u5e74\u5ea6\u4e94\u30f6\u702c\u9ad8\u5343\u7a42\u9053\u8def\u65b0\u6d25\u82b1\u30c8\u30f3\u30cd\u30eb\u5730\u8cea\u8abf\u67fb\u696d\u52d9","survey_name":"\u4ee4\u548c\u5143\u5e74\u5ea6\u4e94\u30f6\u702c\u9ad8\u5343\u7a42\u9053\u8def\u65b0\u6d25\u82b1\u30c8\u30f3\u30cd\u30eb\u5730\u8cea\u8abf\u67fb\u696d\u52d9","client_name":"\u56fd\u571f\u4ea4\u901a\u7701\u4e5d\u5dde\u5730\u65b9\u6574\u5099\u5c40\u5ef6\u5ca1\u6cb3\u5ddd\u56fd\u9053\u4e8b\u52d9\u6240","boring_xml_url":47,"boring_view_url":1,"soilmap_view_url":null,"soiltest_xml_url":0,"soiltest_view_url":0},{"id":360183,"code":"NGIC202004313-0005","latitude":"32.690642722222","longitude":"131.22863738889","source_code":"","project_name":"\u4ee4\u548c\u5143\u5e74\u5ea6\u4e94\u30f6\u702c\u9ad8\u5343\u7a42\u9053\u8def\u65b0\u6d25\u82b1\u30c8\u30f3\u30cd\u30eb\u5730\u8cea\u8abf\u67fb\u696d\u52d9","survey_name":"\u4ee4\u548c\u5143\u5e74\u5ea6\u4e94\u30f6\u702c\u9ad8\u5343\u7a42\u9053\u8def\u65b0\u6d25\u82b1\u30c8\u30f3\u30cd\u30eb\u5730\u8cea\u8abf\u67fb\u696d\u52d9","client_name":"\u56fd\u571f\u4ea4\u901a\u7701\u4e5d\u5dde\u5730\u65b9\u6574\u5099\u5c40\u5ef6\u5ca1\u6cb3\u5ddd\u56fd\u9053\u4e8b\u52d9\u6240","boring_xml_url":47,"boring_view_url":1,"soilmap_view_url":null,"soiltest_xml_url":0,"soiltest_view_url":0},{"id":360182,"code":"NGIC202004313-0004","latitude":"32.68840425","longitude":"131.22298944444","source_code":"","project_name":"\u4ee4\u548c\u5143\u5e74\u5ea6\u4e94\u30f6\u702c\u9ad8\u5343\u7a42\u9053\u8def\u65b0\u6d25\u82b1\u30c8\u30f3\u30cd\u30eb\u5730\u8cea\u8abf\u67fb\u696d\u52d9","survey_name":"\u4ee4\u548c\u5143\u5e74\u5ea6\u4e94\u30f6\u702c\u9ad8\u5343\u7a42\u9053\u8def\u65b0\u6d25\u82b1\u30c8\u30f3\u30cd\u30eb\u5730\u8cea\u8abf\u67fb\u696d\u52d9","client_name":"\u56fd\u571f\u4ea4\u901a\u7701\u4e5d\u5dde\u5730\u65b9\u6574\u5099\u5c40\u5ef6\u5ca1\u6cb3\u5ddd\u56fd\u9053\u4e8b\u52d9\u6240","boring_xml_url":47,"boring_view_url":1,"soilmap_view_url":null,"soiltest_xml_url":0,"soiltest_view_url":0},{"id":360181,"code":"NGIC202004313-0003","latitude":"32.686049361111","longitude":"131.21773316667","source_code":"","project_name":"\u4ee4\u548c\u5143\u5e74\u5ea6\u4e94\u30f6\u702c\u9ad8\u5343\u7a42\u9053\u8def\u65b0\u6d25\u82b1\u30c8\u30f3\u30cd\u30eb\u5730\u8cea\u8abf\u67fb\u696d\u52d9","survey_name":"\u4ee4\u548c\u5143\u5e74\u5ea6\u4e94\u30f6\u702c\u9ad8\u5343\u7a42\u9053\u8def\u65b0\u6d25\u82b1\u30c8\u30f3\u30cd\u30eb\u5730\u8cea\u8abf\u67fb\u696d\u52d9","client_name":"\u56fd\u571f\u4ea4\u901a\u7701\u4e5d\u5dde\u5730\u65b9\u6574\u5099\u5c40\u5ef6\u5ca1\u6cb3\u5ddd\u56fd\u9053\u4e8b\u52d9\u6240","boring_xml_url":47,"boring_view_url":1,"soilmap_view_url":null,"soiltest_xml_url":0,"soiltest_view_url":0},{"id":360180,"code":"NGIC202004313-0002","latitude":"32.685718027778","longitude":"131.21673927778","source_code":"","project_name":"\u4ee4\u548c\u5143\u5e74\u5ea6\u4e94\u30f6\u702c\u9ad8\u5343\u7a42\u9053\u8def\u65b0\u6d25\u82b1\u30c8\u30f3\u30cd\u30eb\u5730\u8cea\u8abf\u67fb\u696d\u52d9","survey_name":"\u4ee4\u548c\u5143\u5e74\u5ea6\u4e94\u30f6\u702c\u9ad8\u5343\u7a42\u9053\u8def\u65b0\u6d25\u82b1\u30c8\u30f3\u30cd\u30eb\u5730\u8cea\u8abf\u67fb\u696d\u52d9","client_name":"\u56fd\u571f\u4ea4\u901a\u7701\u4e5d\u5dde\u5730\u65b9\u6574\u5099\u5c40\u5ef6\u5ca1\u6cb3\u5ddd\u56fd\u9053\u4e8b\u52d9\u6240","boring_xml_url":47,"boring_view_url":1,"soilmap_view_url":null,"soiltest_xml_url":47,"soiltest_view_url":47},{"id":360179,"code":"NGIC202004313-0001","latitude":"32.685359694444","longitude":"131.21552505556","source_code":"","project_name":"\u4ee4\u548c\u5143\u5e74\u5ea6\u4e94\u30f6\u702c\u9ad8\u5343\u7a42\u9053\u8def\u65b0\u6d25\u82b1\u30c8\u30f3\u30cd\u30eb\u5730\u8cea\u8abf\u67fb\u696d\u52d9","survey_name":"\u4ee4\u548c\u5143\u5e74\u5ea6\u4e94\u30f6\u702c\u9ad8\u5343\u7a42\u9053\u8def\u65b0\u6d25\u82b1\u30c8\u30f3\u30cd\u30eb\u5730\u8cea\u8abf\u67fb\u696d\u52d9","client_name":"\u56fd\u571f\u4ea4\u901a\u7701\u4e5d\u5dde\u5730\u65b9\u6574\u5099\u5c40\u5ef6\u5ca1\u6cb3\u5ddd\u56fd\u9053\u4e8b\u52d9\u6240","boring_xml_url":47,"boring_view_url":1,"soilmap_view_url":null,"soiltest_xml_url":0,"soiltest_view_url":0},{"id":360177,"code":"NGIC202100009-0006","latitude":"36.683233333333","longitude":"138.27271666667","source_code":"","project_name":"","survey_name":"\u4ee4\u548c2\u5e74\u5ea6\u7ba1\u5185\u5730\u8cea\u8abf\u67fb\u305d\u306e2\u696d\u52d9","client_name":"\u56fd\u571f\u4ea4\u901a\u7701\u5317\u9678\u5730\u65b9\u6574\u5099\u5c40\u5343\u66f2\u5ddd\u6cb3\u5ddd\u4e8b\u52d9\u6240","boring_xml_url":47,"boring_view_url":1,"soilmap_view_url":null,"soiltest_xml_url":47,"soiltest_view_url":47},{"id":360176,"code":"NGIC202100009-0005","latitude":"36.684069444444","longitude":"138.27292777778","source_code":"","project_name":"","survey_name":"\u4ee4\u548c2\u5e74\u5ea6\u7ba1\u5185\u5730\u8cea\u8abf\u67fb\u305d\u306e2\u696d\u52d9","client_name":"\u56fd\u571f\u4ea4\u901a\u7701\u5317\u9678\u5730\u65b9\u6574\u5099\u5c40\u5343\u66f2\u5ddd\u6cb3\u5ddd\u4e8b\u52d9\u6240","boring_xml_url":47,"boring_view_url":1,"soilmap_view_url":null,"soiltest_xml_url":47,"soiltest_view_url":47},{"id":360175,"code":"NGIC202100009-0004","latitude":"36.685041666667","longitude":"138.27259722222","source_code":"","project_name":"","survey_name":"\u4ee4\u548c2\u5e74\u5ea6\u7ba1\u5185\u5730\u8cea\u8abf\u67fb\u305d\u306e2\u696d\u52d9","client_name":"\u56fd\u571f\u4ea4\u901a\u7701\u5317\u9678\u5730\u65b9\u6574\u5099\u5c40\u5343\u66f2\u5ddd\u6cb3\u5ddd\u4e8b\u52d9\u6240","boring_xml_url":47,"boring_view_url":1,"soilmap_view_url":null,"soiltest_xml_url":47,"soiltest_view_url":47},{"id":360174,"code":"NGIC202100009-0003","latitude":"36.685577777778","longitude":"138.27409444444","source_code":"","project_name":"","survey_name":"\u4ee4\u548c2\u5e74\u5ea6\u7ba1\u5185\u5730\u8cea\u8abf\u67fb\u305d\u306e2\u696d\u52d9","client_name":"\u56fd\u571f\u4ea4\u901a\u7701\u5317\u9678\u5730\u65b9\u6574\u5099\u5c40\u5343\u66f2\u5ddd\u6cb3\u5ddd\u4e8b\u52d9\u6240","boring_xml_url":47,"boring_view_url":1,"soilmap_view_url":null,"soiltest_xml_url":47,"soiltest_view_url":47},{"id":360173,"code":"NGIC202100009-0002","latitude":"36.685730555556","longitude":"138.27473055556","source_code":"","project_name":"","survey_name":"\u4ee4\u548c2\u5e74\u5ea6\u7ba1\u5185\u5730\u8cea\u8abf\u67fb\u305d\u306e2\u696d\u52d9","client_name":"\u56fd\u571f\u4ea4\u901a\u7701\u5317\u9678\u5730\u65b9\u6574\u5099\u5c40\u5343\u66f2\u5ddd\u6cb3\u5ddd\u4e8b\u52d9\u6240","boring_xml_url":47,"boring_view_url":1,"soilmap_view_url":null,"soiltest_xml_url":47,"soiltest_view_url":47},{"id":360172,"code":"NGIC202100009-0001","latitude":"36.686775","longitude":"138.27576111111","source_code":"","project_name":"","survey_name":"\u4ee4\u548c2\u5e74\u5ea6\u7ba1\u5185\u5730\u8cea\u8abf\u67fb\u305d\u306e2\u696d\u52d9","client_name":"\u56fd\u571f\u4ea4\u901a\u7701\u5317\u9678\u5730\u65b9\u6574\u5099\u5c40\u5343\u66f2\u5ddd\u6cb3\u5ddd\u4e8b\u52d9\u6240","boring_xml_url":47,"boring_view_url":1,"soilmap_view_url":null,"soiltest_xml_url":47,"soiltest_view_url":47},{"id":360171,"code":"NGIC202100045-0010","latitude":"33.573511111111","longitude":"134.30265277778","source_code":"","project_name":"","survey_name":"\u4ee4\u548c2\u5e74\u5ea6 \u6d77\u90e8\u91ce\u6839\u9053\u8def\u5730\u8cea\u8abf\u67fb\uff08\u6d77\u5357\u5730\u533a\uff09\u696d\u52d9","client_name":"\u56fd\u571f\u4ea4\u901a\u7701\u56db\u56fd\u5730\u65b9\u6574\u5099\u5c40\u5fb3\u5cf6\u6cb3\u5ddd\u56fd\u9053\u4e8b\u52d9\u6240","boring_xml_url":47,"boring_view_url":1,"soilmap_view_url":null,"soiltest_xml_url":47,"soiltest_view_url":47},{"id":360170,"code":"NGIC202100045-0009","latitude":"33.573519444444","longitude":"134.30266111111","source_code":"","project_name":"","survey_name":"\u4ee4\u548c2\u5e74\u5ea6 \u6d77\u90e8\u91ce\u6839\u9053\u8def\u5730\u8cea\u8abf\u67fb\uff08\u6d77\u5357\u5730\u533a\uff09\u696d\u52d9","client_name":"\u56fd\u571f\u4ea4\u901a\u7701\u56db\u56fd\u5730\u65b9\u6574\u5099\u5c40\u5fb3\u5cf6\u6cb3\u5ddd\u56fd\u9053\u4e8b\u52d9\u6240","boring_xml_url":47,"boring_view_url":1,"soilmap_view_url":null,"soiltest_xml_url":47,"soiltest_view_url":47},{"id":360169,"code":"NGIC202100045-0008","latitude":"33.575355555556","longitude":"134.30456944444","source_code":"","project_name":"","survey_name":"\u4ee4\u548c2\u5e74\u5ea6 \u6d77\u90e8\u91ce\u6839\u9053\u8def\u5730\u8cea\u8abf\u67fb\uff08\u6d77\u5357\u5730\u533a\uff09\u696d\u52d9","client_name":"\u56fd\u571f\u4ea4\u901a\u7701\u56db\u56fd\u5730\u65b9\u6574\u5099\u5c40\u5fb3\u5cf6\u6cb3\u5ddd\u56fd\u9053\u4e8b\u52d9\u6240","boring_xml_url":47,"boring_view_url":1,"soilmap_view_url":null,"soiltest_xml_url":47,"soiltest_view_url":47},{"id":360168,"code":"NGIC202100045-0007","latitude":"33.569733333333","longitude":"134.29872777778","source_code":"","project_name":"","survey_name":"\u4ee4\u548c2\u5e74\u5ea6 \u6d77\u90e8\u91ce\u6839\u9053\u8def\u5730\u8cea\u8abf\u67fb\uff08\u6d77\u5357\u5730\u533a\uff09\u696d\u52d9","client_name":"\u56fd\u571f\u4ea4\u901a\u7701\u56db\u56fd\u5730\u65b9\u6574\u5099\u5c40\u5fb3\u5cf6\u6cb3\u5ddd\u56fd\u9053\u4e8b\u52d9\u6240","boring_xml_url":47,"boring_view_url":1,"soilmap_view_url":null,"soiltest_xml_url":47,"soiltest_view_url":47},{"id":360167,"code":"NGIC202100045-0006","latitude":"33.569727777778","longitude":"134.29871944444","source_code":"","project_name":"","survey_name":"\u4ee4\u548c2\u5e74\u5ea6 \u6d77\u90e8\u91ce\u6839\u9053\u8def\u5730\u8cea\u8abf\u67fb\uff08\u6d77\u5357\u5730\u533a\uff09\u696d\u52d9","client_name":"\u56fd\u571f\u4ea4\u901a\u7701\u56db\u56fd\u5730\u65b9\u6574\u5099\u5c40\u5fb3\u5cf6\u6cb3\u5ddd\u56fd\u9053\u4e8b\u52d9\u6240","boring_xml_url":47,"boring_view_url":1,"soilmap_view_url":null,"soiltest_xml_url":47,"soiltest_view_url":47},{"id":360166,"code":"NGIC202100045-0005","latitude":"33.607630555556","longitude":"134.34289166667","source_code":"","project_name":"","survey_name":"\u4ee4\u548c2\u5e74\u5ea6 \u6d77\u90e8\u91ce\u6839\u9053\u8def\u5730\u8cea\u8abf\u67fb\uff08\u6d77\u5357\u5730\u533a\uff09\u696d\u52d9","client_name":"\u56fd\u571f\u4ea4\u901a\u7701\u56db\u56fd\u5730\u65b9\u6574\u5099\u5c40\u5fb3\u5cf6\u6cb3\u5ddd\u56fd\u9053\u4e8b\u52d9\u6240","boring_xml_url":47,"boring_view_url":1,"soilmap_view_url":null,"soiltest_xml_url":47,"soiltest_view_url":47},{"id":360165,"code":"NGIC202100045-0004","latitude":"33.607622222222","longitude":"134.34287777778","source_code":"","project_name":"","survey_name":"\u4ee4\u548c2\u5e74\u5ea6 \u6d77\u90e8\u91ce\u6839\u9053\u8def\u5730\u8cea\u8abf\u67fb\uff08\u6d77\u5357\u5730\u533a\uff09\u696d\u52d9","client_name":"\u56fd\u571f\u4ea4\u901a\u7701\u56db\u56fd\u5730\u65b9\u6574\u5099\u5c40\u5fb3\u5cf6\u6cb3\u5ddd\u56fd\u9053\u4e8b\u52d9\u6240","boring_xml_url":47,"boring_view_url":1,"soilmap_view_url":null,"soiltest_xml_url":47,"soiltest_view_url":47},{"id":360164,"code":"NGIC202100045-0003","latitude":"33.606902777778","longitude":"134.34272222222","source_code":"","project_name":"","survey_name":"\u4ee4\u548c2\u5e74\u5ea6 \u6d77\u90e8\u91ce\u6839\u9053\u8def\u5730\u8cea\u8abf\u67fb\uff08\u6d77\u5357\u5730\u533a\uff09\u696d\u52d9","client_name":"\u56fd\u571f\u4ea4\u901a\u7701\u56db\u56fd\u5730\u65b9\u6574\u5099\u5c40\u5fb3\u5cf6\u6cb3\u5ddd\u56fd\u9053\u4e8b\u52d9\u6240","boring_xml_url":47,"boring_view_url":1,"soilmap_view_url":null,"soiltest_xml_url":47,"soiltest_view_url":47},{"id":360163,"code":"NGIC202100045-0002","latitude":"33.606758333333","longitude":"134.34241666667","source_code":"","project_name":"","survey_name":"\u4ee4\u548c2\u5e74\u5ea6 \u6d77\u90e8\u91ce\u6839\u9053\u8def\u5730\u8cea\u8abf\u67fb\uff08\u6d77\u5357\u5730\u533a\uff09\u696d\u52d9","client_name":"\u56fd\u571f\u4ea4\u901a\u7701\u56db\u56fd\u5730\u65b9\u6574\u5099\u5c40\u5fb3\u5cf6\u6cb3\u5ddd\u56fd\u9053\u4e8b\u52d9\u6240","boring_xml_url":47,"boring_view_url":1,"soilmap_view_url":null,"soiltest_xml_url":47,"soiltest_view_url":47},{"id":360162,"code":"NGIC202100045-0001","latitude":"33.60675","longitude":"134.34241666667","source_code":"","project_name":"","survey_name":"\u4ee4\u548c2\u5e74\u5ea6 \u6d77\u90e8\u91ce\u6839\u9053\u8def\u5730\u8cea\u8abf\u67fb\uff08\u6d77\u5357\u5730\u533a\uff09\u696d\u52d9","client_name":"\u56fd\u571f\u4ea4\u901a\u7701\u56db\u56fd\u5730\u65b9\u6574\u5099\u5c40\u5fb3\u5cf6\u6cb3\u5ddd\u56fd\u9053\u4e8b\u52d9\u6240","boring_xml_url":47,"boring_view_url":1,"soilmap_view_url":null,"soiltest_xml_url":47,"soiltest_view_url":47},{"id":360106,"code":"NGIC202100031-0002","latitude":"34.342775694444","longitude":"132.43707347222","source_code":"","project_name":"","survey_name":"\u5e83\u5cf6\u6e2f\u51fa\u5cf6\u5730\u533a\u571f\u8cea\u8abf\u67fb\uff08\u305d\u306e2\uff09","client_name":"\u56fd\u571f\u4ea4\u901a\u7701\u4e2d\u56fd\u5730\u65b9\u6574\u5099\u5c40\u5e83\u5cf6\u6e2f\u6e7e\u30fb\u7a7a\u6e2f\u6574\u5099\u4e8b\u52d9\u6240","boring_xml_url":47,"boring_view_url":1,"soilmap_view_url":71,"soiltest_xml_url":47,"soiltest_view_url":47}]}}