{"header":{"xyz":{"source":[],"mosaic":false},"page":1934,"raw":{"soiltest_result":"0","bbox":"57.598333,109.544722,1.933333,163.806111","page":"1934"},"conditions":{"soiltest_result":0,"north":57.598333,"west":109.544722,"south":1.933333,"east":163.806111},"success":true,"message":""},"data":{"meta":{"total":212844,"page":1934,"pages":7095,"count":30},"values":[{"id":359885,"code":"NGIC202004373-0019","latitude":"34.685762138889","longitude":"133.73824086111","source_code":"","project_name":"","survey_name":"\u4ee4\u548c2\u5e74\u5ea6\u7dcf\u793e\u4e00\u5bae\u30d0\u30a4\u30d1\u30b9\u5730\u8cea\u8abf\u67fb\u696d\u52d9","client_name":"\u56fd\u571f\u4ea4\u901a\u7701\u4e2d\u56fd\u5730\u65b9\u6574\u5099\u5c40\u5ca1\u5c71\u56fd\u9053\u4e8b\u52d9\u6240","boring_xml_url":47,"boring_view_url":1,"soilmap_view_url":null,"soiltest_xml_url":0,"soiltest_view_url":0},{"id":359884,"code":"NGIC202004373-0018","latitude":"34.6845075","longitude":"133.74322858333","source_code":"","project_name":"","survey_name":"\u4ee4\u548c2\u5e74\u5ea6\u7dcf\u793e\u4e00\u5bae\u30d0\u30a4\u30d1\u30b9\u5730\u8cea\u8abf\u67fb\u696d\u52d9","client_name":"\u56fd\u571f\u4ea4\u901a\u7701\u4e2d\u56fd\u5730\u65b9\u6574\u5099\u5c40\u5ca1\u5c71\u56fd\u9053\u4e8b\u52d9\u6240","boring_xml_url":47,"boring_view_url":1,"soilmap_view_url":null,"soiltest_xml_url":0,"soiltest_view_url":0},{"id":359883,"code":"NGIC202004373-0017","latitude":"34.684427972222","longitude":"133.74318330556","source_code":"","project_name":"","survey_name":"\u4ee4\u548c2\u5e74\u5ea6\u7dcf\u793e\u4e00\u5bae\u30d0\u30a4\u30d1\u30b9\u5730\u8cea\u8abf\u67fb\u696d\u52d9","client_name":"\u56fd\u571f\u4ea4\u901a\u7701\u4e2d\u56fd\u5730\u65b9\u6574\u5099\u5c40\u5ca1\u5c71\u56fd\u9053\u4e8b\u52d9\u6240","boring_xml_url":47,"boring_view_url":1,"soilmap_view_url":null,"soiltest_xml_url":0,"soiltest_view_url":0},{"id":359882,"code":"NGIC202004373-0016","latitude":"34.686312611111","longitude":"133.74408030556","source_code":"","project_name":"","survey_name":"\u4ee4\u548c2\u5e74\u5ea6\u7dcf\u793e\u4e00\u5bae\u30d0\u30a4\u30d1\u30b9\u5730\u8cea\u8abf\u67fb\u696d\u52d9","client_name":"\u56fd\u571f\u4ea4\u901a\u7701\u4e2d\u56fd\u5730\u65b9\u6574\u5099\u5c40\u5ca1\u5c71\u56fd\u9053\u4e8b\u52d9\u6240","boring_xml_url":47,"boring_view_url":1,"soilmap_view_url":null,"soiltest_xml_url":0,"soiltest_view_url":0},{"id":359881,"code":"NGIC202004373-0015","latitude":"34.684914527778","longitude":"133.74319025","source_code":"","project_name":"","survey_name":"\u4ee4\u548c2\u5e74\u5ea6\u7dcf\u793e\u4e00\u5bae\u30d0\u30a4\u30d1\u30b9\u5730\u8cea\u8abf\u67fb\u696d\u52d9","client_name":"\u56fd\u571f\u4ea4\u901a\u7701\u4e2d\u56fd\u5730\u65b9\u6574\u5099\u5c40\u5ca1\u5c71\u56fd\u9053\u4e8b\u52d9\u6240","boring_xml_url":47,"boring_view_url":1,"soilmap_view_url":null,"soiltest_xml_url":0,"soiltest_view_url":0},{"id":359880,"code":"NGIC202004373-0014","latitude":"34.684595527778","longitude":"133.74330527778","source_code":"","project_name":"","survey_name":"\u4ee4\u548c2\u5e74\u5ea6\u7dcf\u793e\u4e00\u5bae\u30d0\u30a4\u30d1\u30b9\u5730\u8cea\u8abf\u67fb\u696d\u52d9","client_name":"\u56fd\u571f\u4ea4\u901a\u7701\u4e2d\u56fd\u5730\u65b9\u6574\u5099\u5c40\u5ca1\u5c71\u56fd\u9053\u4e8b\u52d9\u6240","boring_xml_url":47,"boring_view_url":1,"soilmap_view_url":null,"soiltest_xml_url":0,"soiltest_view_url":0},{"id":359879,"code":"NGIC202004373-0013","latitude":"34.684304638889","longitude":"133.74320513889","source_code":"","project_name":"","survey_name":"\u4ee4\u548c2\u5e74\u5ea6\u7dcf\u793e\u4e00\u5bae\u30d0\u30a4\u30d1\u30b9\u5730\u8cea\u8abf\u67fb\u696d\u52d9","client_name":"\u56fd\u571f\u4ea4\u901a\u7701\u4e2d\u56fd\u5730\u65b9\u6574\u5099\u5c40\u5ca1\u5c71\u56fd\u9053\u4e8b\u52d9\u6240","boring_xml_url":47,"boring_view_url":1,"soilmap_view_url":null,"soiltest_xml_url":0,"soiltest_view_url":0},{"id":359878,"code":"NGIC202004373-0012","latitude":"34.684793583333","longitude":"133.74295125","source_code":"","project_name":"","survey_name":"\u4ee4\u548c2\u5e74\u5ea6\u7dcf\u793e\u4e00\u5bae\u30d0\u30a4\u30d1\u30b9\u5730\u8cea\u8abf\u67fb\u696d\u52d9","client_name":"\u56fd\u571f\u4ea4\u901a\u7701\u4e2d\u56fd\u5730\u65b9\u6574\u5099\u5c40\u5ca1\u5c71\u56fd\u9053\u4e8b\u52d9\u6240","boring_xml_url":47,"boring_view_url":1,"soilmap_view_url":null,"soiltest_xml_url":0,"soiltest_view_url":0},{"id":359877,"code":"NGIC202004373-0011","latitude":"34.684505138889","longitude":"133.74307819444","source_code":"","project_name":"","survey_name":"\u4ee4\u548c2\u5e74\u5ea6\u7dcf\u793e\u4e00\u5bae\u30d0\u30a4\u30d1\u30b9\u5730\u8cea\u8abf\u67fb\u696d\u52d9","client_name":"\u56fd\u571f\u4ea4\u901a\u7701\u4e2d\u56fd\u5730\u65b9\u6574\u5099\u5c40\u5ca1\u5c71\u56fd\u9053\u4e8b\u52d9\u6240","boring_xml_url":47,"boring_view_url":1,"soilmap_view_url":null,"soiltest_xml_url":0,"soiltest_view_url":0},{"id":359876,"code":"NGIC202004373-0010","latitude":"34.691382222222","longitude":"133.80311388889","source_code":"","project_name":"","survey_name":"\u4ee4\u548c2\u5e74\u5ea6\u7dcf\u793e\u4e00\u5bae\u30d0\u30a4\u30d1\u30b9\u5730\u8cea\u8abf\u67fb\u696d\u52d9","client_name":"\u56fd\u571f\u4ea4\u901a\u7701\u4e2d\u56fd\u5730\u65b9\u6574\u5099\u5c40\u5ca1\u5c71\u56fd\u9053\u4e8b\u52d9\u6240","boring_xml_url":47,"boring_view_url":1,"soilmap_view_url":null,"soiltest_xml_url":47,"soiltest_view_url":47},{"id":359875,"code":"NGIC202004373-0009","latitude":"34.691779666667","longitude":"133.80432386111","source_code":"","project_name":"","survey_name":"\u4ee4\u548c2\u5e74\u5ea6\u7dcf\u793e\u4e00\u5bae\u30d0\u30a4\u30d1\u30b9\u5730\u8cea\u8abf\u67fb\u696d\u52d9","client_name":"\u56fd\u571f\u4ea4\u901a\u7701\u4e2d\u56fd\u5730\u65b9\u6574\u5099\u5c40\u5ca1\u5c71\u56fd\u9053\u4e8b\u52d9\u6240","boring_xml_url":47,"boring_view_url":1,"soilmap_view_url":null,"soiltest_xml_url":47,"soiltest_view_url":47},{"id":359874,"code":"NGIC202004373-0008","latitude":"34.692311527778","longitude":"133.80532302778","source_code":"","project_name":"","survey_name":"\u4ee4\u548c2\u5e74\u5ea6\u7dcf\u793e\u4e00\u5bae\u30d0\u30a4\u30d1\u30b9\u5730\u8cea\u8abf\u67fb\u696d\u52d9","client_name":"\u56fd\u571f\u4ea4\u901a\u7701\u4e2d\u56fd\u5730\u65b9\u6574\u5099\u5c40\u5ca1\u5c71\u56fd\u9053\u4e8b\u52d9\u6240","boring_xml_url":47,"boring_view_url":1,"soilmap_view_url":null,"soiltest_xml_url":47,"soiltest_view_url":47},{"id":359873,"code":"NGIC202004373-0007","latitude":"34.692638333333","longitude":"133.80666369444","source_code":"","project_name":"","survey_name":"\u4ee4\u548c2\u5e74\u5ea6\u7dcf\u793e\u4e00\u5bae\u30d0\u30a4\u30d1\u30b9\u5730\u8cea\u8abf\u67fb\u696d\u52d9","client_name":"\u56fd\u571f\u4ea4\u901a\u7701\u4e2d\u56fd\u5730\u65b9\u6574\u5099\u5c40\u5ca1\u5c71\u56fd\u9053\u4e8b\u52d9\u6240","boring_xml_url":47,"boring_view_url":1,"soilmap_view_url":null,"soiltest_xml_url":47,"soiltest_view_url":47},{"id":359872,"code":"NGIC202004373-0006","latitude":"34.692984861111","longitude":"133.80713977778","source_code":"","project_name":"","survey_name":"\u4ee4\u548c2\u5e74\u5ea6\u7dcf\u793e\u4e00\u5bae\u30d0\u30a4\u30d1\u30b9\u5730\u8cea\u8abf\u67fb\u696d\u52d9","client_name":"\u56fd\u571f\u4ea4\u901a\u7701\u4e2d\u56fd\u5730\u65b9\u6574\u5099\u5c40\u5ca1\u5c71\u56fd\u9053\u4e8b\u52d9\u6240","boring_xml_url":47,"boring_view_url":1,"soilmap_view_url":null,"soiltest_xml_url":47,"soiltest_view_url":47},{"id":359871,"code":"NGIC202004373-0005","latitude":"34.692767444444","longitude":"133.80755111111","source_code":"","project_name":"","survey_name":"\u4ee4\u548c2\u5e74\u5ea6\u7dcf\u793e\u4e00\u5bae\u30d0\u30a4\u30d1\u30b9\u5730\u8cea\u8abf\u67fb\u696d\u52d9","client_name":"\u56fd\u571f\u4ea4\u901a\u7701\u4e2d\u56fd\u5730\u65b9\u6574\u5099\u5c40\u5ca1\u5c71\u56fd\u9053\u4e8b\u52d9\u6240","boring_xml_url":47,"boring_view_url":1,"soilmap_view_url":null,"soiltest_xml_url":47,"soiltest_view_url":47},{"id":359870,"code":"NGIC202004373-0004","latitude":"34.693234527778","longitude":"133.80783194444","source_code":"","project_name":"","survey_name":"\u4ee4\u548c2\u5e74\u5ea6\u7dcf\u793e\u4e00\u5bae\u30d0\u30a4\u30d1\u30b9\u5730\u8cea\u8abf\u67fb\u696d\u52d9","client_name":"\u56fd\u571f\u4ea4\u901a\u7701\u4e2d\u56fd\u5730\u65b9\u6574\u5099\u5c40\u5ca1\u5c71\u56fd\u9053\u4e8b\u52d9\u6240","boring_xml_url":47,"boring_view_url":1,"soilmap_view_url":null,"soiltest_xml_url":47,"soiltest_view_url":47},{"id":359869,"code":"NGIC202004373-0003","latitude":"34.693350666667","longitude":"133.80823480556","source_code":"","project_name":"","survey_name":"\u4ee4\u548c2\u5e74\u5ea6\u7dcf\u793e\u4e00\u5bae\u30d0\u30a4\u30d1\u30b9\u5730\u8cea\u8abf\u67fb\u696d\u52d9","client_name":"\u56fd\u571f\u4ea4\u901a\u7701\u4e2d\u56fd\u5730\u65b9\u6574\u5099\u5c40\u5ca1\u5c71\u56fd\u9053\u4e8b\u52d9\u6240","boring_xml_url":47,"boring_view_url":1,"soilmap_view_url":null,"soiltest_xml_url":47,"soiltest_view_url":47},{"id":359868,"code":"NGIC202004373-0002","latitude":"34.69349025","longitude":"133.80858444444","source_code":"","project_name":"","survey_name":"\u4ee4\u548c2\u5e74\u5ea6\u7dcf\u793e\u4e00\u5bae\u30d0\u30a4\u30d1\u30b9\u5730\u8cea\u8abf\u67fb\u696d\u52d9","client_name":"\u56fd\u571f\u4ea4\u901a\u7701\u4e2d\u56fd\u5730\u65b9\u6574\u5099\u5c40\u5ca1\u5c71\u56fd\u9053\u4e8b\u52d9\u6240","boring_xml_url":47,"boring_view_url":1,"soilmap_view_url":null,"soiltest_xml_url":47,"soiltest_view_url":47},{"id":359867,"code":"NGIC202004373-0001","latitude":"34.691180583333","longitude":"133.86996933333","source_code":"","project_name":"","survey_name":"\u4ee4\u548c2\u5e74\u5ea6\u7dcf\u793e\u4e00\u5bae\u30d0\u30a4\u30d1\u30b9\u5730\u8cea\u8abf\u67fb\u696d\u52d9","client_name":"\u56fd\u571f\u4ea4\u901a\u7701\u4e2d\u56fd\u5730\u65b9\u6574\u5099\u5c40\u5ca1\u5c71\u56fd\u9053\u4e8b\u52d9\u6240","boring_xml_url":47,"boring_view_url":1,"soilmap_view_url":null,"soiltest_xml_url":47,"soiltest_view_url":47},{"id":359850,"code":"NGIC202004732-0015","latitude":"33.406062805556","longitude":"129.97655233333","source_code":"","project_name":"","survey_name":"\u4ee4\u548c2\u5e74\u5ea6 \u516d\u89d2\u5ddd\u6c34\u7cfb\u5730\u8cea\u8abf\u67fb\u696d\u52d9","client_name":"\u56fd\u571f\u4ea4\u901a\u7701\u4e5d\u5dde\u5730\u65b9\u6574\u5099\u5c40\u6b66\u96c4\u6cb3\u5ddd\u4e8b\u52d9\u6240","boring_xml_url":47,"boring_view_url":1,"soilmap_view_url":null,"soiltest_xml_url":47,"soiltest_view_url":47},{"id":359849,"code":"NGIC202004732-0014","latitude":"33.405939777778","longitude":"129.97693272222","source_code":"","project_name":"","survey_name":"\u4ee4\u548c2\u5e74\u5ea6 \u516d\u89d2\u5ddd\u6c34\u7cfb\u5730\u8cea\u8abf\u67fb\u696d\u52d9","client_name":"\u56fd\u571f\u4ea4\u901a\u7701\u4e5d\u5dde\u5730\u65b9\u6574\u5099\u5c40\u6b66\u96c4\u6cb3\u5ddd\u4e8b\u52d9\u6240","boring_xml_url":47,"boring_view_url":1,"soilmap_view_url":null,"soiltest_xml_url":47,"soiltest_view_url":47},{"id":359848,"code":"NGIC202004732-0013","latitude":"33.243349527778","longitude":"130.19394636111","source_code":"","project_name":"","survey_name":"\u4ee4\u548c2\u5e74\u5ea6 \u516d\u89d2\u5ddd\u6c34\u7cfb\u5730\u8cea\u8abf\u67fb\u696d\u52d9","client_name":"\u56fd\u571f\u4ea4\u901a\u7701\u4e5d\u5dde\u5730\u65b9\u6574\u5099\u5c40\u6b66\u96c4\u6cb3\u5ddd\u4e8b\u52d9\u6240","boring_xml_url":47,"boring_view_url":1,"soilmap_view_url":null,"soiltest_xml_url":47,"soiltest_view_url":47},{"id":359847,"code":"NGIC202004732-0012","latitude":"33.24340075","longitude":"130.194045","source_code":"","project_name":"","survey_name":"\u4ee4\u548c2\u5e74\u5ea6 \u516d\u89d2\u5ddd\u6c34\u7cfb\u5730\u8cea\u8abf\u67fb\u696d\u52d9","client_name":"\u56fd\u571f\u4ea4\u901a\u7701\u4e5d\u5dde\u5730\u65b9\u6574\u5099\u5c40\u6b66\u96c4\u6cb3\u5ddd\u4e8b\u52d9\u6240","boring_xml_url":47,"boring_view_url":1,"soilmap_view_url":null,"soiltest_xml_url":47,"soiltest_view_url":47},{"id":359846,"code":"NGIC202004732-0011","latitude":"33.243448972222","longitude":"130.19413786111","source_code":"","project_name":"","survey_name":"\u4ee4\u548c2\u5e74\u5ea6 \u516d\u89d2\u5ddd\u6c34\u7cfb\u5730\u8cea\u8abf\u67fb\u696d\u52d9","client_name":"\u56fd\u571f\u4ea4\u901a\u7701\u4e5d\u5dde\u5730\u65b9\u6574\u5099\u5c40\u6b66\u96c4\u6cb3\u5ddd\u4e8b\u52d9\u6240","boring_xml_url":47,"boring_view_url":1,"soilmap_view_url":null,"soiltest_xml_url":47,"soiltest_view_url":47},{"id":359845,"code":"NGIC202004732-0010","latitude":"33.234150111111","longitude":"130.18883972222","source_code":"","project_name":"","survey_name":"\u4ee4\u548c2\u5e74\u5ea6 \u516d\u89d2\u5ddd\u6c34\u7cfb\u5730\u8cea\u8abf\u67fb\u696d\u52d9","client_name":"\u56fd\u571f\u4ea4\u901a\u7701\u4e5d\u5dde\u5730\u65b9\u6574\u5099\u5c40\u6b66\u96c4\u6cb3\u5ddd\u4e8b\u52d9\u6240","boring_xml_url":47,"boring_view_url":1,"soilmap_view_url":null,"soiltest_xml_url":47,"soiltest_view_url":47},{"id":359844,"code":"NGIC202004732-0009","latitude":"33.234176777778","longitude":"130.18895977778","source_code":"","project_name":"","survey_name":"\u4ee4\u548c2\u5e74\u5ea6 \u516d\u89d2\u5ddd\u6c34\u7cfb\u5730\u8cea\u8abf\u67fb\u696d\u52d9","client_name":"\u56fd\u571f\u4ea4\u901a\u7701\u4e5d\u5dde\u5730\u65b9\u6574\u5099\u5c40\u6b66\u96c4\u6cb3\u5ddd\u4e8b\u52d9\u6240","boring_xml_url":47,"boring_view_url":1,"soilmap_view_url":null,"soiltest_xml_url":47,"soiltest_view_url":47},{"id":359843,"code":"NGIC202004732-0008","latitude":"33.234197666667","longitude":"130.18906233333","source_code":"","project_name":"","survey_name":"\u4ee4\u548c2\u5e74\u5ea6 \u516d\u89d2\u5ddd\u6c34\u7cfb\u5730\u8cea\u8abf\u67fb\u696d\u52d9","client_name":"\u56fd\u571f\u4ea4\u901a\u7701\u4e5d\u5dde\u5730\u65b9\u6574\u5099\u5c40\u6b66\u96c4\u6cb3\u5ddd\u4e8b\u52d9\u6240","boring_xml_url":47,"boring_view_url":1,"soilmap_view_url":null,"soiltest_xml_url":47,"soiltest_view_url":47},{"id":359840,"code":"NGIC202004732-0005","latitude":"33.222371944444","longitude":"130.192279","source_code":"","project_name":"","survey_name":"\u4ee4\u548c2\u5e74\u5ea6 \u516d\u89d2\u5ddd\u6c34\u7cfb\u5730\u8cea\u8abf\u67fb\u696d\u52d9","client_name":"\u56fd\u571f\u4ea4\u901a\u7701\u4e5d\u5dde\u5730\u65b9\u6574\u5099\u5c40\u6b66\u96c4\u6cb3\u5ddd\u4e8b\u52d9\u6240","boring_xml_url":47,"boring_view_url":1,"soilmap_view_url":null,"soiltest_xml_url":47,"soiltest_view_url":47},{"id":359839,"code":"NGIC202004732-0004","latitude":"33.222291916667","longitude":"130.19235894444","source_code":"","project_name":"","survey_name":"\u4ee4\u548c2\u5e74\u5ea6 \u516d\u89d2\u5ddd\u6c34\u7cfb\u5730\u8cea\u8abf\u67fb\u696d\u52d9","client_name":"\u56fd\u571f\u4ea4\u901a\u7701\u4e5d\u5dde\u5730\u65b9\u6574\u5099\u5c40\u6b66\u96c4\u6cb3\u5ddd\u4e8b\u52d9\u6240","boring_xml_url":47,"boring_view_url":1,"soilmap_view_url":null,"soiltest_xml_url":47,"soiltest_view_url":47},{"id":359838,"code":"NGIC202004732-0003","latitude":"33.222130944444","longitude":"130.19246952778","source_code":"","project_name":"","survey_name":"\u4ee4\u548c2\u5e74\u5ea6 \u516d\u89d2\u5ddd\u6c34\u7cfb\u5730\u8cea\u8abf\u67fb\u696d\u52d9","client_name":"\u56fd\u571f\u4ea4\u901a\u7701\u4e5d\u5dde\u5730\u65b9\u6574\u5099\u5c40\u6b66\u96c4\u6cb3\u5ddd\u4e8b\u52d9\u6240","boring_xml_url":47,"boring_view_url":1,"soilmap_view_url":null,"soiltest_xml_url":47,"soiltest_view_url":47}]}}