{"header":{"xyz":{"source":[],"mosaic":false},"page":1938,"raw":{"soiltest_result":"0","bbox":"57.598333,109.544722,1.933333,163.806111","page":"1938"},"conditions":{"soiltest_result":0,"north":57.598333,"west":109.544722,"south":1.933333,"east":163.806111},"success":true,"message":""},"data":{"meta":{"total":212844,"page":1938,"pages":7095,"count":30},"values":[{"id":359571,"code":"NGIC202004606-0018","latitude":"35.694922777778","longitude":"139.36384888889","source_code":"","project_name":"","survey_name":"\u4ee4\u548c2\u5e74\u5ea6\u591a\u6469\u5ddd\u6c34\u7cfb\u5730\u8cea\u8abf\u67fb\u696d\u52d9","client_name":"\u56fd\u571f\u4ea4\u901a\u7701\u95a2\u6771\u5730\u65b9\u6574\u5099\u5c40\u4eac\u6d5c\u6cb3\u5ddd\u4e8b\u52d9\u6240","boring_xml_url":47,"boring_view_url":1,"soilmap_view_url":null,"soiltest_xml_url":47,"soiltest_view_url":47},{"id":359570,"code":"NGIC202004606-0017","latitude":"35.540678611111","longitude":"139.72977666667","source_code":"","project_name":"","survey_name":"\u4ee4\u548c2\u5e74\u5ea6\u591a\u6469\u5ddd\u6c34\u7cfb\u5730\u8cea\u8abf\u67fb\u696d\u52d9","client_name":"\u56fd\u571f\u4ea4\u901a\u7701\u95a2\u6771\u5730\u65b9\u6574\u5099\u5c40\u4eac\u6d5c\u6cb3\u5ddd\u4e8b\u52d9\u6240","boring_xml_url":47,"boring_view_url":1,"soilmap_view_url":null,"soiltest_xml_url":47,"soiltest_view_url":47},{"id":359569,"code":"NGIC202004606-0016","latitude":"35.540678611111","longitude":"139.72977666667","source_code":"","project_name":"","survey_name":"\u4ee4\u548c2\u5e74\u5ea6\u591a\u6469\u5ddd\u6c34\u7cfb\u5730\u8cea\u8abf\u67fb\u696d\u52d9","client_name":"\u56fd\u571f\u4ea4\u901a\u7701\u95a2\u6771\u5730\u65b9\u6574\u5099\u5c40\u4eac\u6d5c\u6cb3\u5ddd\u4e8b\u52d9\u6240","boring_xml_url":47,"boring_view_url":1,"soilmap_view_url":null,"soiltest_xml_url":47,"soiltest_view_url":47},{"id":359568,"code":"NGIC202004606-0015","latitude":"35.540606666667","longitude":"139.73095472222","source_code":"","project_name":"","survey_name":"\u4ee4\u548c2\u5e74\u5ea6\u591a\u6469\u5ddd\u6c34\u7cfb\u5730\u8cea\u8abf\u67fb\u696d\u52d9","client_name":"\u56fd\u571f\u4ea4\u901a\u7701\u95a2\u6771\u5730\u65b9\u6574\u5099\u5c40\u4eac\u6d5c\u6cb3\u5ddd\u4e8b\u52d9\u6240","boring_xml_url":47,"boring_view_url":1,"soilmap_view_url":null,"soiltest_xml_url":47,"soiltest_view_url":47},{"id":359567,"code":"NGIC202004606-0014","latitude":"35.540606666667","longitude":"139.73095472222","source_code":"","project_name":"","survey_name":"\u4ee4\u548c2\u5e74\u5ea6\u591a\u6469\u5ddd\u6c34\u7cfb\u5730\u8cea\u8abf\u67fb\u696d\u52d9","client_name":"\u56fd\u571f\u4ea4\u901a\u7701\u95a2\u6771\u5730\u65b9\u6574\u5099\u5c40\u4eac\u6d5c\u6cb3\u5ddd\u4e8b\u52d9\u6240","boring_xml_url":47,"boring_view_url":1,"soilmap_view_url":null,"soiltest_xml_url":47,"soiltest_view_url":47},{"id":359566,"code":"NGIC202004606-0013","latitude":"35.540185","longitude":"139.73151222222","source_code":"","project_name":"","survey_name":"\u4ee4\u548c2\u5e74\u5ea6\u591a\u6469\u5ddd\u6c34\u7cfb\u5730\u8cea\u8abf\u67fb\u696d\u52d9","client_name":"\u56fd\u571f\u4ea4\u901a\u7701\u95a2\u6771\u5730\u65b9\u6574\u5099\u5c40\u4eac\u6d5c\u6cb3\u5ddd\u4e8b\u52d9\u6240","boring_xml_url":47,"boring_view_url":1,"soilmap_view_url":null,"soiltest_xml_url":47,"soiltest_view_url":47},{"id":359565,"code":"NGIC202004606-0012","latitude":"35.540185","longitude":"139.73151222222","source_code":"","project_name":"","survey_name":"\u4ee4\u548c2\u5e74\u5ea6\u591a\u6469\u5ddd\u6c34\u7cfb\u5730\u8cea\u8abf\u67fb\u696d\u52d9","client_name":"\u56fd\u571f\u4ea4\u901a\u7701\u95a2\u6771\u5730\u65b9\u6574\u5099\u5c40\u4eac\u6d5c\u6cb3\u5ddd\u4e8b\u52d9\u6240","boring_xml_url":47,"boring_view_url":1,"soilmap_view_url":null,"soiltest_xml_url":47,"soiltest_view_url":47},{"id":359564,"code":"NGIC202004606-0011","latitude":"35.611156111111","longitude":"139.62497388889","source_code":"","project_name":"","survey_name":"\u4ee4\u548c2\u5e74\u5ea6\u591a\u6469\u5ddd\u6c34\u7cfb\u5730\u8cea\u8abf\u67fb\u696d\u52d9","client_name":"\u56fd\u571f\u4ea4\u901a\u7701\u95a2\u6771\u5730\u65b9\u6574\u5099\u5c40\u4eac\u6d5c\u6cb3\u5ddd\u4e8b\u52d9\u6240","boring_xml_url":47,"boring_view_url":1,"soilmap_view_url":null,"soiltest_xml_url":0,"soiltest_view_url":0},{"id":359563,"code":"NGIC202004606-0010","latitude":"35.611211944444","longitude":"139.62562888889","source_code":"","project_name":"","survey_name":"\u4ee4\u548c2\u5e74\u5ea6\u591a\u6469\u5ddd\u6c34\u7cfb\u5730\u8cea\u8abf\u67fb\u696d\u52d9","client_name":"\u56fd\u571f\u4ea4\u901a\u7701\u95a2\u6771\u5730\u65b9\u6574\u5099\u5c40\u4eac\u6d5c\u6cb3\u5ddd\u4e8b\u52d9\u6240","boring_xml_url":47,"boring_view_url":1,"soilmap_view_url":null,"soiltest_xml_url":0,"soiltest_view_url":0},{"id":359562,"code":"NGIC202004606-0009","latitude":"35.664720555556","longitude":"139.4311825","source_code":"","project_name":"","survey_name":"\u4ee4\u548c2\u5e74\u5ea6\u591a\u6469\u5ddd\u6c34\u7cfb\u5730\u8cea\u8abf\u67fb\u696d\u52d9","client_name":"\u56fd\u571f\u4ea4\u901a\u7701\u95a2\u6771\u5730\u65b9\u6574\u5099\u5c40\u4eac\u6d5c\u6cb3\u5ddd\u4e8b\u52d9\u6240","boring_xml_url":47,"boring_view_url":1,"soilmap_view_url":null,"soiltest_xml_url":47,"soiltest_view_url":47},{"id":359561,"code":"NGIC202004606-0008","latitude":"35.664815","longitude":"139.43132833333","source_code":"","project_name":"","survey_name":"\u4ee4\u548c2\u5e74\u5ea6\u591a\u6469\u5ddd\u6c34\u7cfb\u5730\u8cea\u8abf\u67fb\u696d\u52d9","client_name":"\u56fd\u571f\u4ea4\u901a\u7701\u95a2\u6771\u5730\u65b9\u6574\u5099\u5c40\u4eac\u6d5c\u6cb3\u5ddd\u4e8b\u52d9\u6240","boring_xml_url":47,"boring_view_url":1,"soilmap_view_url":null,"soiltest_xml_url":47,"soiltest_view_url":47},{"id":359560,"code":"NGIC202004606-0007","latitude":"35.663384722222","longitude":"139.43274944444","source_code":"","project_name":"","survey_name":"\u4ee4\u548c2\u5e74\u5ea6\u591a\u6469\u5ddd\u6c34\u7cfb\u5730\u8cea\u8abf\u67fb\u696d\u52d9","client_name":"\u56fd\u571f\u4ea4\u901a\u7701\u95a2\u6771\u5730\u65b9\u6574\u5099\u5c40\u4eac\u6d5c\u6cb3\u5ddd\u4e8b\u52d9\u6240","boring_xml_url":47,"boring_view_url":1,"soilmap_view_url":null,"soiltest_xml_url":47,"soiltest_view_url":47},{"id":359559,"code":"NGIC202004606-0006","latitude":"35.663501111111","longitude":"139.43288861111","source_code":"","project_name":"","survey_name":"\u4ee4\u548c2\u5e74\u5ea6\u591a\u6469\u5ddd\u6c34\u7cfb\u5730\u8cea\u8abf\u67fb\u696d\u52d9","client_name":"\u56fd\u571f\u4ea4\u901a\u7701\u95a2\u6771\u5730\u65b9\u6574\u5099\u5c40\u4eac\u6d5c\u6cb3\u5ddd\u4e8b\u52d9\u6240","boring_xml_url":47,"boring_view_url":1,"soilmap_view_url":null,"soiltest_xml_url":47,"soiltest_view_url":47},{"id":359558,"code":"NGIC202004606-0005","latitude":"35.664708888889","longitude":"139.43034694444","source_code":"","project_name":"","survey_name":"\u4ee4\u548c2\u5e74\u5ea6\u591a\u6469\u5ddd\u6c34\u7cfb\u5730\u8cea\u8abf\u67fb\u696d\u52d9","client_name":"\u56fd\u571f\u4ea4\u901a\u7701\u95a2\u6771\u5730\u65b9\u6574\u5099\u5c40\u4eac\u6d5c\u6cb3\u5ddd\u4e8b\u52d9\u6240","boring_xml_url":47,"boring_view_url":1,"soilmap_view_url":null,"soiltest_xml_url":47,"soiltest_view_url":47},{"id":359557,"code":"NGIC202004606-0004","latitude":"35.665074166667","longitude":"139.43046777778","source_code":"","project_name":"","survey_name":"\u4ee4\u548c2\u5e74\u5ea6\u591a\u6469\u5ddd\u6c34\u7cfb\u5730\u8cea\u8abf\u67fb\u696d\u52d9","client_name":"\u56fd\u571f\u4ea4\u901a\u7701\u95a2\u6771\u5730\u65b9\u6574\u5099\u5c40\u4eac\u6d5c\u6cb3\u5ddd\u4e8b\u52d9\u6240","boring_xml_url":47,"boring_view_url":1,"soilmap_view_url":null,"soiltest_xml_url":47,"soiltest_view_url":47},{"id":359556,"code":"NGIC202004606-0003","latitude":"35.664075555556","longitude":"139.43121944444","source_code":"","project_name":"","survey_name":"\u4ee4\u548c2\u5e74\u5ea6\u591a\u6469\u5ddd\u6c34\u7cfb\u5730\u8cea\u8abf\u67fb\u696d\u52d9","client_name":"\u56fd\u571f\u4ea4\u901a\u7701\u95a2\u6771\u5730\u65b9\u6574\u5099\u5c40\u4eac\u6d5c\u6cb3\u5ddd\u4e8b\u52d9\u6240","boring_xml_url":47,"boring_view_url":1,"soilmap_view_url":null,"soiltest_xml_url":47,"soiltest_view_url":47},{"id":359555,"code":"NGIC202004606-0002","latitude":"35.664385833333","longitude":"139.43156055556","source_code":"","project_name":"","survey_name":"\u4ee4\u548c2\u5e74\u5ea6\u591a\u6469\u5ddd\u6c34\u7cfb\u5730\u8cea\u8abf\u67fb\u696d\u52d9","client_name":"\u56fd\u571f\u4ea4\u901a\u7701\u95a2\u6771\u5730\u65b9\u6574\u5099\u5c40\u4eac\u6d5c\u6cb3\u5ddd\u4e8b\u52d9\u6240","boring_xml_url":47,"boring_view_url":1,"soilmap_view_url":null,"soiltest_xml_url":47,"soiltest_view_url":47},{"id":359554,"code":"NGIC202004606-0001","latitude":"35.664566388889","longitude":"139.43180722222","source_code":"","project_name":"","survey_name":"\u4ee4\u548c2\u5e74\u5ea6\u591a\u6469\u5ddd\u6c34\u7cfb\u5730\u8cea\u8abf\u67fb\u696d\u52d9","client_name":"\u56fd\u571f\u4ea4\u901a\u7701\u95a2\u6771\u5730\u65b9\u6574\u5099\u5c40\u4eac\u6d5c\u6cb3\u5ddd\u4e8b\u52d9\u6240","boring_xml_url":47,"boring_view_url":1,"soilmap_view_url":null,"soiltest_xml_url":47,"soiltest_view_url":47},{"id":359553,"code":"NGIC202004736-0001","latitude":"35.092262555556","longitude":"137.55684077778","source_code":"","project_name":"\u4ee4\u548c2\u5e74\u5ea6\u8a2d\u697d\u30c0\u30e0\u30c0\u30e0\u30b5\u30a4\u30c8\u53f3\u5cb8\u5730\u8cea\u8abf\u67fb\uff08M98\uff09\u696d\u52d9","survey_name":"\u4ee4\u548c2\u5e74\u5ea6\u8a2d\u697d\u30c0\u30e0\u30c0\u30e0\u30b5\u30a4\u30c8\u53f3\u5cb8\u5730\u8cea\u8abf\u67fb\uff08M98\uff09\u696d\u52d9","client_name":"\u56fd\u571f\u4ea4\u901a\u7701\u4e2d\u90e8\u5730\u65b9\u6574\u5099\u5c40\u8a2d\u697d\u30c0\u30e0\u5de5\u4e8b\u4e8b\u52d9\u6240","boring_xml_url":47,"boring_view_url":1,"soilmap_view_url":null,"soiltest_xml_url":0,"soiltest_view_url":0},{"id":359518,"code":"NGIC202004680-0007","latitude":"37.772135833333","longitude":"140.3506125","source_code":"","project_name":"","survey_name":"\u4ee4\u548c2\u5e74\u5ea6 \u963f\u6b66\u9688\u5ddd\u6c34\u7cfb\u4e0d\u52d5\u6ca2\u7b2c6\u7802\u9632\u5830\u5824\u7b49\u8a2d\u8a08\u696d\u52d9","client_name":"\u56fd\u571f\u4ea4\u901a\u7701\u6771\u5317\u5730\u65b9\u6574\u5099\u5c40\u798f\u5cf6\u6cb3\u5ddd\u56fd\u9053\u4e8b\u52d9\u6240","boring_xml_url":47,"boring_view_url":1,"soilmap_view_url":null,"soiltest_xml_url":0,"soiltest_view_url":0},{"id":359517,"code":"NGIC202004680-0006","latitude":"37.771931666667","longitude":"140.35035333333","source_code":"","project_name":"","survey_name":"\u4ee4\u548c2\u5e74\u5ea6 \u963f\u6b66\u9688\u5ddd\u6c34\u7cfb\u4e0d\u52d5\u6ca2\u7b2c6\u7802\u9632\u5830\u5824\u7b49\u8a2d\u8a08\u696d\u52d9","client_name":"\u56fd\u571f\u4ea4\u901a\u7701\u6771\u5317\u5730\u65b9\u6574\u5099\u5c40\u798f\u5cf6\u6cb3\u5ddd\u56fd\u9053\u4e8b\u52d9\u6240","boring_xml_url":47,"boring_view_url":1,"soilmap_view_url":null,"soiltest_xml_url":0,"soiltest_view_url":0},{"id":359516,"code":"NGIC202004680-0005","latitude":"37.772186388889","longitude":"140.35046583333","source_code":"","project_name":"","survey_name":"\u4ee4\u548c2\u5e74\u5ea6 \u963f\u6b66\u9688\u5ddd\u6c34\u7cfb\u4e0d\u52d5\u6ca2\u7b2c6\u7802\u9632\u5830\u5824\u7b49\u8a2d\u8a08\u696d\u52d9","client_name":"\u56fd\u571f\u4ea4\u901a\u7701\u6771\u5317\u5730\u65b9\u6574\u5099\u5c40\u798f\u5cf6\u6cb3\u5ddd\u56fd\u9053\u4e8b\u52d9\u6240","boring_xml_url":47,"boring_view_url":1,"soilmap_view_url":null,"soiltest_xml_url":0,"soiltest_view_url":0},{"id":359515,"code":"NGIC202004680-0004","latitude":"37.772303611111","longitude":"140.35046916667","source_code":"","project_name":"","survey_name":"\u4ee4\u548c2\u5e74\u5ea6 \u963f\u6b66\u9688\u5ddd\u6c34\u7cfb\u4e0d\u52d5\u6ca2\u7b2c6\u7802\u9632\u5830\u5824\u7b49\u8a2d\u8a08\u696d\u52d9","client_name":"\u56fd\u571f\u4ea4\u901a\u7701\u6771\u5317\u5730\u65b9\u6574\u5099\u5c40\u798f\u5cf6\u6cb3\u5ddd\u56fd\u9053\u4e8b\u52d9\u6240","boring_xml_url":47,"boring_view_url":1,"soilmap_view_url":null,"soiltest_xml_url":0,"soiltest_view_url":0},{"id":359514,"code":"NGIC202004680-0003","latitude":"37.772436388889","longitude":"140.35031583333","source_code":"","project_name":"","survey_name":"\u4ee4\u548c2\u5e74\u5ea6 \u963f\u6b66\u9688\u5ddd\u6c34\u7cfb\u4e0d\u52d5\u6ca2\u7b2c6\u7802\u9632\u5830\u5824\u7b49\u8a2d\u8a08\u696d\u52d9","client_name":"\u56fd\u571f\u4ea4\u901a\u7701\u6771\u5317\u5730\u65b9\u6574\u5099\u5c40\u798f\u5cf6\u6cb3\u5ddd\u56fd\u9053\u4e8b\u52d9\u6240","boring_xml_url":47,"boring_view_url":1,"soilmap_view_url":null,"soiltest_xml_url":0,"soiltest_view_url":0},{"id":359513,"code":"NGIC202004680-0002","latitude":"37.777377222222","longitude":"140.34783111111","source_code":"","project_name":"","survey_name":"\u4ee4\u548c2\u5e74\u5ea6 \u963f\u6b66\u9688\u5ddd\u6c34\u7cfb\u4e0d\u52d5\u6ca2\u7b2c6\u7802\u9632\u5830\u5824\u7b49\u8a2d\u8a08\u696d\u52d9","client_name":"\u56fd\u571f\u4ea4\u901a\u7701\u6771\u5317\u5730\u65b9\u6574\u5099\u5c40\u798f\u5cf6\u6cb3\u5ddd\u56fd\u9053\u4e8b\u52d9\u6240","boring_xml_url":47,"boring_view_url":1,"soilmap_view_url":null,"soiltest_xml_url":0,"soiltest_view_url":0},{"id":359512,"code":"NGIC202004680-0001","latitude":"37.776972777778","longitude":"140.34751","source_code":"","project_name":"","survey_name":"\u4ee4\u548c2\u5e74\u5ea6 \u963f\u6b66\u9688\u5ddd\u6c34\u7cfb\u4e0d\u52d5\u6ca2\u7b2c6\u7802\u9632\u5830\u5824\u7b49\u8a2d\u8a08\u696d\u52d9","client_name":"\u56fd\u571f\u4ea4\u901a\u7701\u6771\u5317\u5730\u65b9\u6574\u5099\u5c40\u798f\u5cf6\u6cb3\u5ddd\u56fd\u9053\u4e8b\u52d9\u6240","boring_xml_url":47,"boring_view_url":1,"soilmap_view_url":null,"soiltest_xml_url":0,"soiltest_view_url":0},{"id":359504,"code":"NGIC202004668-0017","latitude":"38.363166666667","longitude":"139.55241666667","source_code":"","project_name":"","survey_name":"R1\u671d\u65e5\u6e29\u6d77\u9053\u8def\u5730\u8cea\u8abf\u67fb\u696d\u52d9","client_name":"\u56fd\u571f\u4ea4\u901a\u7701\u5317\u9678\u5730\u65b9\u6574\u5099\u5c40\u65b0\u6f5f\u56fd\u9053\u4e8b\u52d9\u6240","boring_xml_url":47,"boring_view_url":1,"soilmap_view_url":null,"soiltest_xml_url":0,"soiltest_view_url":0},{"id":359503,"code":"NGIC202004668-0016","latitude":"38.363638888889","longitude":"139.5515","source_code":"","project_name":"","survey_name":"R1\u671d\u65e5\u6e29\u6d77\u9053\u8def\u5730\u8cea\u8abf\u67fb\u696d\u52d9","client_name":"\u56fd\u571f\u4ea4\u901a\u7701\u5317\u9678\u5730\u65b9\u6574\u5099\u5c40\u65b0\u6f5f\u56fd\u9053\u4e8b\u52d9\u6240","boring_xml_url":47,"boring_view_url":1,"soilmap_view_url":null,"soiltest_xml_url":0,"soiltest_view_url":0},{"id":359502,"code":"NGIC202004668-0015","latitude":"38.427583333333","longitude":"139.58433333333","source_code":"","project_name":"","survey_name":"R1\u671d\u65e5\u6e29\u6d77\u9053\u8def\u5730\u8cea\u8abf\u67fb\u696d\u52d9","client_name":"\u56fd\u571f\u4ea4\u901a\u7701\u5317\u9678\u5730\u65b9\u6574\u5099\u5c40\u65b0\u6f5f\u56fd\u9053\u4e8b\u52d9\u6240","boring_xml_url":47,"boring_view_url":1,"soilmap_view_url":null,"soiltest_xml_url":47,"soiltest_view_url":47},{"id":359501,"code":"NGIC202004668-0014","latitude":"38.427611111111","longitude":"139.58422222222","source_code":"","project_name":"","survey_name":"R1\u671d\u65e5\u6e29\u6d77\u9053\u8def\u5730\u8cea\u8abf\u67fb\u696d\u52d9","client_name":"\u56fd\u571f\u4ea4\u901a\u7701\u5317\u9678\u5730\u65b9\u6574\u5099\u5c40\u65b0\u6f5f\u56fd\u9053\u4e8b\u52d9\u6240","boring_xml_url":47,"boring_view_url":1,"soilmap_view_url":null,"soiltest_xml_url":0,"soiltest_view_url":0}]}}