{"header":{"xyz":{"source":[],"mosaic":false},"page":1940,"raw":{"soiltest_result":"0","bbox":"57.598333,109.544722,1.933333,163.806111","page":"1940"},"conditions":{"soiltest_result":0,"north":57.598333,"west":109.544722,"south":1.933333,"east":163.806111},"success":true,"message":""},"data":{"meta":{"total":212844,"page":1940,"pages":7095,"count":30},"values":[{"id":359442,"code":"NGIC202004643-0009","latitude":"33.274008333333","longitude":"130.17540833333","source_code":"","project_name":"\u4ee4\u548c2\u5e74\u5ea6\u725b\u6d25\u5ddd\u53f3\u539f\u5730\u533a\u5730\u8cea\u8abf\u67fb\u696d\u52d9","survey_name":"\u4ee4\u548c2\u5e74\u5ea6\u725b\u6d25\u5ddd\u53f3\u539f\u5730\u533a\u5730\u8cea\u8abf\u67fb\u696d\u52d9","client_name":"\u56fd\u571f\u4ea4\u901a\u7701\u4e5d\u5dde\u5730\u65b9\u6574\u5099\u5c40\u6b66\u96c4\u6cb3\u5ddd\u4e8b\u52d9\u6240\u8abf\u67fb\u8ab2","boring_xml_url":47,"boring_view_url":1,"soilmap_view_url":null,"soiltest_xml_url":47,"soiltest_view_url":47},{"id":359441,"code":"NGIC202004643-0008","latitude":"33.274911111111","longitude":"130.17461388889","source_code":"","project_name":"\u4ee4\u548c2\u5e74\u5ea6\u725b\u6d25\u5ddd\u53f3\u539f\u5730\u533a\u5730\u8cea\u8abf\u67fb\u696d\u52d9","survey_name":"\u4ee4\u548c2\u5e74\u5ea6\u725b\u6d25\u5ddd\u53f3\u539f\u5730\u533a\u5730\u8cea\u8abf\u67fb\u696d\u52d9","client_name":"\u56fd\u571f\u4ea4\u901a\u7701\u4e5d\u5dde\u5730\u65b9\u6574\u5099\u5c40\u6b66\u96c4\u6cb3\u5ddd\u4e8b\u52d9\u6240\u8abf\u67fb\u8ab2","boring_xml_url":47,"boring_view_url":1,"soilmap_view_url":null,"soiltest_xml_url":47,"soiltest_view_url":47},{"id":359440,"code":"NGIC202004643-0007","latitude":"33.275408333333","longitude":"130.17188611111","source_code":"","project_name":"\u4ee4\u548c2\u5e74\u5ea6\u725b\u6d25\u5ddd\u53f3\u539f\u5730\u533a\u5730\u8cea\u8abf\u67fb\u696d\u52d9","survey_name":"\u4ee4\u548c2\u5e74\u5ea6\u725b\u6d25\u5ddd\u53f3\u539f\u5730\u533a\u5730\u8cea\u8abf\u67fb\u696d\u52d9","client_name":"\u56fd\u571f\u4ea4\u901a\u7701\u4e5d\u5dde\u5730\u65b9\u6574\u5099\u5c40\u6b66\u96c4\u6cb3\u5ddd\u4e8b\u52d9\u6240\u8abf\u67fb\u8ab2","boring_xml_url":47,"boring_view_url":1,"soilmap_view_url":null,"soiltest_xml_url":47,"soiltest_view_url":47},{"id":359439,"code":"NGIC202004643-0006","latitude":"33.275638888889","longitude":"130.17091388889","source_code":"","project_name":"\u4ee4\u548c2\u5e74\u5ea6\u725b\u6d25\u5ddd\u53f3\u539f\u5730\u533a\u5730\u8cea\u8abf\u67fb\u696d\u52d9","survey_name":"\u4ee4\u548c2\u5e74\u5ea6\u725b\u6d25\u5ddd\u53f3\u539f\u5730\u533a\u5730\u8cea\u8abf\u67fb\u696d\u52d9","client_name":"\u56fd\u571f\u4ea4\u901a\u7701\u4e5d\u5dde\u5730\u65b9\u6574\u5099\u5c40\u6b66\u96c4\u6cb3\u5ddd\u4e8b\u52d9\u6240\u8abf\u67fb\u8ab2","boring_xml_url":47,"boring_view_url":1,"soilmap_view_url":null,"soiltest_xml_url":47,"soiltest_view_url":47},{"id":359438,"code":"NGIC202004643-0005","latitude":"33.276377777778","longitude":"130.16883333333","source_code":"","project_name":"\u4ee4\u548c2\u5e74\u5ea6\u725b\u6d25\u5ddd\u53f3\u539f\u5730\u533a\u5730\u8cea\u8abf\u67fb\u696d\u52d9","survey_name":"\u4ee4\u548c2\u5e74\u5ea6\u725b\u6d25\u5ddd\u53f3\u539f\u5730\u533a\u5730\u8cea\u8abf\u67fb\u696d\u52d9","client_name":"\u56fd\u571f\u4ea4\u901a\u7701\u4e5d\u5dde\u5730\u65b9\u6574\u5099\u5c40\u6b66\u96c4\u6cb3\u5ddd\u4e8b\u52d9\u6240\u8abf\u67fb\u8ab2","boring_xml_url":47,"boring_view_url":1,"soilmap_view_url":null,"soiltest_xml_url":47,"soiltest_view_url":47},{"id":359437,"code":"NGIC202004643-0004","latitude":"33.276686111111","longitude":"130.16718333333","source_code":"","project_name":"\u4ee4\u548c2\u5e74\u5ea6\u725b\u6d25\u5ddd\u53f3\u539f\u5730\u533a\u5730\u8cea\u8abf\u67fb\u696d\u52d9","survey_name":"\u4ee4\u548c2\u5e74\u5ea6\u725b\u6d25\u5ddd\u53f3\u539f\u5730\u533a\u5730\u8cea\u8abf\u67fb\u696d\u52d9","client_name":"\u56fd\u571f\u4ea4\u901a\u7701\u4e5d\u5dde\u5730\u65b9\u6574\u5099\u5c40\u6b66\u96c4\u6cb3\u5ddd\u4e8b\u52d9\u6240\u8abf\u67fb\u8ab2","boring_xml_url":47,"boring_view_url":1,"soilmap_view_url":null,"soiltest_xml_url":47,"soiltest_view_url":47},{"id":359436,"code":"NGIC202004643-0003","latitude":"33.277255555556","longitude":"130.16759444444","source_code":"","project_name":"\u4ee4\u548c2\u5e74\u5ea6\u725b\u6d25\u5ddd\u53f3\u539f\u5730\u533a\u5730\u8cea\u8abf\u67fb\u696d\u52d9","survey_name":"\u4ee4\u548c2\u5e74\u5ea6\u725b\u6d25\u5ddd\u53f3\u539f\u5730\u533a\u5730\u8cea\u8abf\u67fb\u696d\u52d9","client_name":"\u56fd\u571f\u4ea4\u901a\u7701\u4e5d\u5dde\u5730\u65b9\u6574\u5099\u5c40\u6b66\u96c4\u6cb3\u5ddd\u4e8b\u52d9\u6240\u8abf\u67fb\u8ab2","boring_xml_url":47,"boring_view_url":1,"soilmap_view_url":null,"soiltest_xml_url":47,"soiltest_view_url":47},{"id":359435,"code":"NGIC202004643-0002","latitude":"33.278194444444","longitude":"130.16709722222","source_code":"","project_name":"\u4ee4\u548c2\u5e74\u5ea6\u725b\u6d25\u5ddd\u53f3\u539f\u5730\u533a\u5730\u8cea\u8abf\u67fb\u696d\u52d9","survey_name":"\u4ee4\u548c2\u5e74\u5ea6\u725b\u6d25\u5ddd\u53f3\u539f\u5730\u533a\u5730\u8cea\u8abf\u67fb\u696d\u52d9","client_name":"\u56fd\u571f\u4ea4\u901a\u7701\u4e5d\u5dde\u5730\u65b9\u6574\u5099\u5c40\u6b66\u96c4\u6cb3\u5ddd\u4e8b\u52d9\u6240\u8abf\u67fb\u8ab2","boring_xml_url":47,"boring_view_url":1,"soilmap_view_url":null,"soiltest_xml_url":47,"soiltest_view_url":47},{"id":359434,"code":"NGIC202004643-0001","latitude":"33.2787","longitude":"130.16684166667","source_code":"","project_name":"\u4ee4\u548c2\u5e74\u5ea6\u725b\u6d25\u5ddd\u53f3\u539f\u5730\u533a\u5730\u8cea\u8abf\u67fb\u696d\u52d9","survey_name":"\u4ee4\u548c2\u5e74\u5ea6\u725b\u6d25\u5ddd\u53f3\u539f\u5730\u533a\u5730\u8cea\u8abf\u67fb\u696d\u52d9","client_name":"\u56fd\u571f\u4ea4\u901a\u7701\u4e5d\u5dde\u5730\u65b9\u6574\u5099\u5c40\u6b66\u96c4\u6cb3\u5ddd\u4e8b\u52d9\u6240\u8abf\u67fb\u8ab2","boring_xml_url":47,"boring_view_url":1,"soilmap_view_url":null,"soiltest_xml_url":47,"soiltest_view_url":47},{"id":359417,"code":"NGIC202004702-0001","latitude":"35.985785555556","longitude":"140.5277425","source_code":"","project_name":"\u6771\u95a2\u9053\u6c34\u6238\u7dda\u6a4b\u6881\u8a73\u7d30\u8a2d\u8a08\u696d\u52d931C6","survey_name":"\u6771\u95a2\u9053\u6c34\u6238\u7dda\u6a4b\u6881\u8a73\u7d30\u8a2d\u8a08\u696d\u52d931C6","client_name":"\u56fd\u571f\u4ea4\u901a\u7701\u95a2\u6771\u5730\u65b9\u6574\u5099\u5c40\u5e38\u7dcf\u56fd\u9053\u4e8b\u52d9\u6240","boring_xml_url":47,"boring_view_url":1,"soilmap_view_url":null,"soiltest_xml_url":47,"soiltest_view_url":47},{"id":359413,"code":"NGIC202004258-0001","latitude":"31.783522222222","longitude":"131.46705972222","source_code":"","project_name":"\u56fd\u9053220\u53f7","survey_name":"\u4ee4\u548c2\u30fb3\u5e74\u5ea6\u56fd\u9053220\u53f7\u659c\u9762\u52d5\u614b\u89b3\u6e2c\u5916\u696d\u52d9","client_name":"\u56fd\u571f\u4ea4\u901a\u7701\u4e5d\u5dde\u5730\u65b9\u6574\u5099\u5c40\u5bae\u5d0e\u6cb3\u5ddd\u56fd\u9053\u4e8b\u52d9\u6240","boring_xml_url":47,"boring_view_url":1,"soilmap_view_url":null,"soiltest_xml_url":0,"soiltest_view_url":0},{"id":359406,"code":"NGIC202004689-0002","latitude":"37.247805555556","longitude":"140.33733333333","source_code":"","project_name":"","survey_name":"\u4ee4\u548c2\u5e74\u5ea6\u4f1a\u6d25\u5730\u533a\u6a4b\u6881\u4fee\u6b63\u8a2d\u8a08\u696d\u52d9","client_name":"\u56fd\u571f\u4ea4\u901a\u7701\u6771\u5317\u5730\u65b9\u6574\u5099\u5c40\u90e1\u5c71\u56fd\u9053\u4e8b\u52d9\u6240\u3000\u5de5\u52d9\u8ab2","boring_xml_url":47,"boring_view_url":1,"soilmap_view_url":null,"soiltest_xml_url":47,"soiltest_view_url":47},{"id":359405,"code":"NGIC202004689-0001","latitude":"37.24775","longitude":"140.338","source_code":"","project_name":"","survey_name":"\u4ee4\u548c2\u5e74\u5ea6\u4f1a\u6d25\u5730\u533a\u6a4b\u6881\u4fee\u6b63\u8a2d\u8a08\u696d\u52d9","client_name":"\u56fd\u571f\u4ea4\u901a\u7701\u6771\u5317\u5730\u65b9\u6574\u5099\u5c40\u90e1\u5c71\u56fd\u9053\u4e8b\u52d9\u6240\u3000\u5de5\u52d9\u8ab2","boring_xml_url":47,"boring_view_url":1,"soilmap_view_url":null,"soiltest_xml_url":47,"soiltest_view_url":47},{"id":359397,"code":"NGIC202004681-0002","latitude":"35.362532194444","longitude":"137.26315483333","source_code":"","project_name":"\u5730\u8cea\u8abf\u67fb","survey_name":"\u4ee4\u548c2\u5e74\u5ea6\u591a\u6cbb\u898b\u56fd\u9053\u9632\u707d\u70b9\u691c\u696d\u52d9","client_name":"\u56fd\u571f\u4ea4\u901a\u7701\u4e2d\u90e8\u5730\u65b9\u6574\u5099\u5c40\u591a\u6cbb\u898b\u7802\u9632\u56fd\u9053\u4e8b\u52d9\u6240","boring_xml_url":47,"boring_view_url":1,"soilmap_view_url":null,"soiltest_xml_url":0,"soiltest_view_url":0},{"id":359396,"code":"NGIC202004681-0001","latitude":"35.362495416667","longitude":"137.26324394444","source_code":"","project_name":"\u5730\u8cea\u8abf\u67fb","survey_name":"\u4ee4\u548c2\u5e74\u5ea6\u591a\u6cbb\u898b\u56fd\u9053\u9632\u707d\u70b9\u691c\u696d\u52d9","client_name":"\u56fd\u571f\u4ea4\u901a\u7701\u4e2d\u90e8\u5730\u65b9\u6574\u5099\u5c40\u591a\u6cbb\u898b\u7802\u9632\u56fd\u9053\u4e8b\u52d9\u6240","boring_xml_url":47,"boring_view_url":1,"soilmap_view_url":null,"soiltest_xml_url":0,"soiltest_view_url":0},{"id":359386,"code":"NGIC202004675-0017","latitude":"38.570002777778","longitude":"139.56259166667","source_code":"","project_name":"","survey_name":"\u9152\u7530\u7ba1\u5185\u9053\u8def\u6c34\u6587\u5730\u8cea\u8abf\u67fb\u696d\u52d9","client_name":"\u56fd\u571f\u4ea4\u901a\u7701\u6771\u5317\u5730\u65b9\u6574\u5099\u5c40\u9152\u7530\u6cb3\u5ddd\u56fd\u9053\u4e8b\u52d9\u6240","boring_xml_url":47,"boring_view_url":1,"soilmap_view_url":null,"soiltest_xml_url":0,"soiltest_view_url":0},{"id":359385,"code":"NGIC202004675-0016","latitude":"38.567427777778","longitude":"139.56166666667","source_code":"","project_name":"","survey_name":"\u9152\u7530\u7ba1\u5185\u9053\u8def\u6c34\u6587\u5730\u8cea\u8abf\u67fb\u696d\u52d9","client_name":"\u56fd\u571f\u4ea4\u901a\u7701\u6771\u5317\u5730\u65b9\u6574\u5099\u5c40\u9152\u7530\u6cb3\u5ddd\u56fd\u9053\u4e8b\u52d9\u6240","boring_xml_url":47,"boring_view_url":1,"soilmap_view_url":null,"soiltest_xml_url":0,"soiltest_view_url":0},{"id":359384,"code":"NGIC202004675-0015","latitude":"39.068744444444","longitude":"139.88886388889","source_code":"","project_name":"","survey_name":"\u9152\u7530\u7ba1\u5185\u9053\u8def\u6c34\u6587\u5730\u8cea\u8abf\u67fb\u696d\u52d9","client_name":"\u56fd\u571f\u4ea4\u901a\u7701\u6771\u5317\u5730\u65b9\u6574\u5099\u5c40\u9152\u7530\u6cb3\u5ddd\u56fd\u9053\u4e8b\u52d9\u6240","boring_xml_url":47,"boring_view_url":1,"soilmap_view_url":null,"soiltest_xml_url":47,"soiltest_view_url":47},{"id":359383,"code":"NGIC202004675-0014","latitude":"39.067661111111","longitude":"139.88993611111","source_code":"","project_name":"","survey_name":"\u9152\u7530\u7ba1\u5185\u9053\u8def\u6c34\u6587\u5730\u8cea\u8abf\u67fb\u696d\u52d9","client_name":"\u56fd\u571f\u4ea4\u901a\u7701\u6771\u5317\u5730\u65b9\u6574\u5099\u5c40\u9152\u7530\u6cb3\u5ddd\u56fd\u9053\u4e8b\u52d9\u6240","boring_xml_url":47,"boring_view_url":1,"soilmap_view_url":null,"soiltest_xml_url":47,"soiltest_view_url":47},{"id":359382,"code":"NGIC202004675-0013","latitude":"39.067197222222","longitude":"139.89039444444","source_code":"","project_name":"","survey_name":"\u9152\u7530\u7ba1\u5185\u9053\u8def\u6c34\u6587\u5730\u8cea\u8abf\u67fb\u696d\u52d9","client_name":"\u56fd\u571f\u4ea4\u901a\u7701\u6771\u5317\u5730\u65b9\u6574\u5099\u5c40\u9152\u7530\u6cb3\u5ddd\u56fd\u9053\u4e8b\u52d9\u6240","boring_xml_url":47,"boring_view_url":1,"soilmap_view_url":null,"soiltest_xml_url":47,"soiltest_view_url":47},{"id":359381,"code":"NGIC202004675-0012","latitude":"39.066841666667","longitude":"139.89075","source_code":"","project_name":"","survey_name":"\u9152\u7530\u7ba1\u5185\u9053\u8def\u6c34\u6587\u5730\u8cea\u8abf\u67fb\u696d\u52d9","client_name":"\u56fd\u571f\u4ea4\u901a\u7701\u6771\u5317\u5730\u65b9\u6574\u5099\u5c40\u9152\u7530\u6cb3\u5ddd\u56fd\u9053\u4e8b\u52d9\u6240","boring_xml_url":47,"boring_view_url":1,"soilmap_view_url":null,"soiltest_xml_url":47,"soiltest_view_url":47},{"id":359380,"code":"NGIC202004675-0011","latitude":"39.066383333333","longitude":"139.8912","source_code":"","project_name":"","survey_name":"\u9152\u7530\u7ba1\u5185\u9053\u8def\u6c34\u6587\u5730\u8cea\u8abf\u67fb\u696d\u52d9","client_name":"\u56fd\u571f\u4ea4\u901a\u7701\u6771\u5317\u5730\u65b9\u6574\u5099\u5c40\u9152\u7530\u6cb3\u5ddd\u56fd\u9053\u4e8b\u52d9\u6240","boring_xml_url":47,"boring_view_url":1,"soilmap_view_url":null,"soiltest_xml_url":47,"soiltest_view_url":47},{"id":359379,"code":"NGIC202004675-0010","latitude":"39.065813888889","longitude":"139.89176666667","source_code":"","project_name":"","survey_name":"\u9152\u7530\u7ba1\u5185\u9053\u8def\u6c34\u6587\u5730\u8cea\u8abf\u67fb\u696d\u52d9","client_name":"\u56fd\u571f\u4ea4\u901a\u7701\u6771\u5317\u5730\u65b9\u6574\u5099\u5c40\u9152\u7530\u6cb3\u5ddd\u56fd\u9053\u4e8b\u52d9\u6240","boring_xml_url":47,"boring_view_url":1,"soilmap_view_url":null,"soiltest_xml_url":47,"soiltest_view_url":47},{"id":359378,"code":"NGIC202004675-0009","latitude":"39.065244444444","longitude":"139.89233055556","source_code":"","project_name":"","survey_name":"\u9152\u7530\u7ba1\u5185\u9053\u8def\u6c34\u6587\u5730\u8cea\u8abf\u67fb\u696d\u52d9","client_name":"\u56fd\u571f\u4ea4\u901a\u7701\u6771\u5317\u5730\u65b9\u6574\u5099\u5c40\u9152\u7530\u6cb3\u5ddd\u56fd\u9053\u4e8b\u52d9\u6240","boring_xml_url":47,"boring_view_url":1,"soilmap_view_url":null,"soiltest_xml_url":47,"soiltest_view_url":47},{"id":359377,"code":"NGIC202004675-0008","latitude":"39.064780555556","longitude":"139.89276944444","source_code":"","project_name":"","survey_name":"\u9152\u7530\u7ba1\u5185\u9053\u8def\u6c34\u6587\u5730\u8cea\u8abf\u67fb\u696d\u52d9","client_name":"\u56fd\u571f\u4ea4\u901a\u7701\u6771\u5317\u5730\u65b9\u6574\u5099\u5c40\u9152\u7530\u6cb3\u5ddd\u56fd\u9053\u4e8b\u52d9\u6240","boring_xml_url":47,"boring_view_url":1,"soilmap_view_url":null,"soiltest_xml_url":47,"soiltest_view_url":47},{"id":359376,"code":"NGIC202004675-0007","latitude":"39.064336111111","longitude":"139.89316111111","source_code":"","project_name":"","survey_name":"\u9152\u7530\u7ba1\u5185\u9053\u8def\u6c34\u6587\u5730\u8cea\u8abf\u67fb\u696d\u52d9","client_name":"\u56fd\u571f\u4ea4\u901a\u7701\u6771\u5317\u5730\u65b9\u6574\u5099\u5c40\u9152\u7530\u6cb3\u5ddd\u56fd\u9053\u4e8b\u52d9\u6240","boring_xml_url":47,"boring_view_url":1,"soilmap_view_url":null,"soiltest_xml_url":47,"soiltest_view_url":47},{"id":359375,"code":"NGIC202004675-0006","latitude":"39.063761111111","longitude":"139.89362222222","source_code":"","project_name":"","survey_name":"\u9152\u7530\u7ba1\u5185\u9053\u8def\u6c34\u6587\u5730\u8cea\u8abf\u67fb\u696d\u52d9","client_name":"\u56fd\u571f\u4ea4\u901a\u7701\u6771\u5317\u5730\u65b9\u6574\u5099\u5c40\u9152\u7530\u6cb3\u5ddd\u56fd\u9053\u4e8b\u52d9\u6240","boring_xml_url":47,"boring_view_url":1,"soilmap_view_url":null,"soiltest_xml_url":47,"soiltest_view_url":47},{"id":359374,"code":"NGIC202004675-0005","latitude":"39.062677777778","longitude":"139.89431944444","source_code":"","project_name":"","survey_name":"\u9152\u7530\u7ba1\u5185\u9053\u8def\u6c34\u6587\u5730\u8cea\u8abf\u67fb\u696d\u52d9","client_name":"\u56fd\u571f\u4ea4\u901a\u7701\u6771\u5317\u5730\u65b9\u6574\u5099\u5c40\u9152\u7530\u6cb3\u5ddd\u56fd\u9053\u4e8b\u52d9\u6240","boring_xml_url":47,"boring_view_url":1,"soilmap_view_url":null,"soiltest_xml_url":47,"soiltest_view_url":47},{"id":359373,"code":"NGIC202004675-0004","latitude":"39.062138888889","longitude":"139.89458888889","source_code":"","project_name":"","survey_name":"\u9152\u7530\u7ba1\u5185\u9053\u8def\u6c34\u6587\u5730\u8cea\u8abf\u67fb\u696d\u52d9","client_name":"\u56fd\u571f\u4ea4\u901a\u7701\u6771\u5317\u5730\u65b9\u6574\u5099\u5c40\u9152\u7530\u6cb3\u5ddd\u56fd\u9053\u4e8b\u52d9\u6240","boring_xml_url":47,"boring_view_url":1,"soilmap_view_url":null,"soiltest_xml_url":47,"soiltest_view_url":47},{"id":359372,"code":"NGIC202004675-0003","latitude":"39.060186111111","longitude":"139.89521111111","source_code":"","project_name":"","survey_name":"\u9152\u7530\u7ba1\u5185\u9053\u8def\u6c34\u6587\u5730\u8cea\u8abf\u67fb\u696d\u52d9","client_name":"\u56fd\u571f\u4ea4\u901a\u7701\u6771\u5317\u5730\u65b9\u6574\u5099\u5c40\u9152\u7530\u6cb3\u5ddd\u56fd\u9053\u4e8b\u52d9\u6240","boring_xml_url":47,"boring_view_url":1,"soilmap_view_url":null,"soiltest_xml_url":47,"soiltest_view_url":47}]}}