{"header":{"xyz":{"source":[],"mosaic":false},"page":1955,"raw":{"soiltest_result":"0","bbox":"57.598333,109.544722,1.933333,163.806111","page":"1955"},"conditions":{"soiltest_result":0,"north":57.598333,"west":109.544722,"south":1.933333,"east":163.806111},"success":true,"message":""},"data":{"meta":{"total":212844,"page":1955,"pages":7095,"count":30},"values":[{"id":358188,"code":"NGIC202004446-0001","latitude":"35.710866666667","longitude":"139.84747083333","source_code":"","project_name":"","survey_name":"R1\u5e73\u4e95\u5730\u533a\u4ed6\u5730\u8cea\u8abf\u67fb\u696d\u52d9","client_name":"\u56fd\u571f\u4ea4\u901a\u7701\u95a2\u6771\u5730\u65b9\u6574\u5099\u5c40\u8352\u5ddd\u4e0b\u6d41\u6cb3\u5ddd\u4e8b\u52d9\u6240","boring_xml_url":47,"boring_view_url":1,"soilmap_view_url":null,"soiltest_xml_url":47,"soiltest_view_url":47},{"id":358127,"code":"NGIC202004301-0012","latitude":"34.385013527778","longitude":"132.45057036111","source_code":"","project_name":"","survey_name":"\u4ee4\u548c2\u5e74\u5ea6\u897f\u5e83\u5cf6\u30d0\u30a4\u30d1\u30b9\u5927\u624b\u753a\u5730\u533a\u5916\u5730\u8cea\u8abf\u67fb\u696d\u52d9","client_name":"\u56fd\u571f\u4ea4\u901a\u7701\u4e2d\u56fd\u5730\u65b9\u6574\u5099\u5c40\u5e83\u5cf6\u56fd\u9053\u4e8b\u52d9\u6240","boring_xml_url":47,"boring_view_url":1,"soilmap_view_url":null,"soiltest_xml_url":47,"soiltest_view_url":47},{"id":358126,"code":"NGIC202004301-0011","latitude":"34.384904638889","longitude":"132.45200583333","source_code":"","project_name":"","survey_name":"\u4ee4\u548c2\u5e74\u5ea6\u897f\u5e83\u5cf6\u30d0\u30a4\u30d1\u30b9\u5927\u624b\u753a\u5730\u533a\u5916\u5730\u8cea\u8abf\u67fb\u696d\u52d9","client_name":"\u56fd\u571f\u4ea4\u901a\u7701\u4e2d\u56fd\u5730\u65b9\u6574\u5099\u5c40\u5e83\u5cf6\u56fd\u9053\u4e8b\u52d9\u6240","boring_xml_url":47,"boring_view_url":1,"soilmap_view_url":null,"soiltest_xml_url":47,"soiltest_view_url":47},{"id":358125,"code":"NGIC202004301-0010","latitude":"34.384846277778","longitude":"132.45249377778","source_code":"","project_name":"","survey_name":"\u4ee4\u548c2\u5e74\u5ea6\u897f\u5e83\u5cf6\u30d0\u30a4\u30d1\u30b9\u5927\u624b\u753a\u5730\u533a\u5916\u5730\u8cea\u8abf\u67fb\u696d\u52d9","client_name":"\u56fd\u571f\u4ea4\u901a\u7701\u4e2d\u56fd\u5730\u65b9\u6574\u5099\u5c40\u5e83\u5cf6\u56fd\u9053\u4e8b\u52d9\u6240","boring_xml_url":47,"boring_view_url":1,"soilmap_view_url":null,"soiltest_xml_url":47,"soiltest_view_url":47},{"id":358124,"code":"NGIC202004301-0009","latitude":"34.384689166667","longitude":"132.45295291667","source_code":"","project_name":"","survey_name":"\u4ee4\u548c2\u5e74\u5ea6\u897f\u5e83\u5cf6\u30d0\u30a4\u30d1\u30b9\u5927\u624b\u753a\u5730\u533a\u5916\u5730\u8cea\u8abf\u67fb\u696d\u52d9","client_name":"\u56fd\u571f\u4ea4\u901a\u7701\u4e2d\u56fd\u5730\u65b9\u6574\u5099\u5c40\u5e83\u5cf6\u56fd\u9053\u4e8b\u52d9\u6240","boring_xml_url":47,"boring_view_url":1,"soilmap_view_url":null,"soiltest_xml_url":47,"soiltest_view_url":47},{"id":358123,"code":"NGIC202004301-0008","latitude":"34.38491025","longitude":"132.45360991667","source_code":"","project_name":"","survey_name":"\u4ee4\u548c2\u5e74\u5ea6\u897f\u5e83\u5cf6\u30d0\u30a4\u30d1\u30b9\u5927\u624b\u753a\u5730\u533a\u5916\u5730\u8cea\u8abf\u67fb\u696d\u52d9","client_name":"\u56fd\u571f\u4ea4\u901a\u7701\u4e2d\u56fd\u5730\u65b9\u6574\u5099\u5c40\u5e83\u5cf6\u56fd\u9053\u4e8b\u52d9\u6240","boring_xml_url":47,"boring_view_url":1,"soilmap_view_url":null,"soiltest_xml_url":47,"soiltest_view_url":47},{"id":358122,"code":"NGIC202004301-0007","latitude":"34.384838666667","longitude":"132.4544235","source_code":"","project_name":"","survey_name":"\u4ee4\u548c2\u5e74\u5ea6\u897f\u5e83\u5cf6\u30d0\u30a4\u30d1\u30b9\u5927\u624b\u753a\u5730\u533a\u5916\u5730\u8cea\u8abf\u67fb\u696d\u52d9","client_name":"\u56fd\u571f\u4ea4\u901a\u7701\u4e2d\u56fd\u5730\u65b9\u6574\u5099\u5c40\u5e83\u5cf6\u56fd\u9053\u4e8b\u52d9\u6240","boring_xml_url":47,"boring_view_url":1,"soilmap_view_url":null,"soiltest_xml_url":47,"soiltest_view_url":47},{"id":358121,"code":"NGIC202004301-0006","latitude":"34.3844595","longitude":"132.45491369444","source_code":"","project_name":"","survey_name":"\u4ee4\u548c2\u5e74\u5ea6\u897f\u5e83\u5cf6\u30d0\u30a4\u30d1\u30b9\u5927\u624b\u753a\u5730\u533a\u5916\u5730\u8cea\u8abf\u67fb\u696d\u52d9","client_name":"\u56fd\u571f\u4ea4\u901a\u7701\u4e2d\u56fd\u5730\u65b9\u6574\u5099\u5c40\u5e83\u5cf6\u56fd\u9053\u4e8b\u52d9\u6240","boring_xml_url":47,"boring_view_url":1,"soilmap_view_url":null,"soiltest_xml_url":47,"soiltest_view_url":47},{"id":358120,"code":"NGIC202004301-0005","latitude":"34.384364388889","longitude":"132.45530502778","source_code":"","project_name":"","survey_name":"\u4ee4\u548c2\u5e74\u5ea6\u897f\u5e83\u5cf6\u30d0\u30a4\u30d1\u30b9\u5927\u624b\u753a\u5730\u533a\u5916\u5730\u8cea\u8abf\u67fb\u696d\u52d9","client_name":"\u56fd\u571f\u4ea4\u901a\u7701\u4e2d\u56fd\u5730\u65b9\u6574\u5099\u5c40\u5e83\u5cf6\u56fd\u9053\u4e8b\u52d9\u6240","boring_xml_url":47,"boring_view_url":1,"soilmap_view_url":null,"soiltest_xml_url":47,"soiltest_view_url":47},{"id":358119,"code":"NGIC202004301-0004","latitude":"34.3842435","longitude":"132.45580988889","source_code":"","project_name":"","survey_name":"\u4ee4\u548c2\u5e74\u5ea6\u897f\u5e83\u5cf6\u30d0\u30a4\u30d1\u30b9\u5927\u624b\u753a\u5730\u533a\u5916\u5730\u8cea\u8abf\u67fb\u696d\u52d9","client_name":"\u56fd\u571f\u4ea4\u901a\u7701\u4e2d\u56fd\u5730\u65b9\u6574\u5099\u5c40\u5e83\u5cf6\u56fd\u9053\u4e8b\u52d9\u6240","boring_xml_url":47,"boring_view_url":1,"soilmap_view_url":null,"soiltest_xml_url":47,"soiltest_view_url":47},{"id":358118,"code":"NGIC202004301-0003","latitude":"34.3841415","longitude":"132.45624558333","source_code":"","project_name":"","survey_name":"\u4ee4\u548c2\u5e74\u5ea6\u897f\u5e83\u5cf6\u30d0\u30a4\u30d1\u30b9\u5927\u624b\u753a\u5730\u533a\u5916\u5730\u8cea\u8abf\u67fb\u696d\u52d9","client_name":"\u56fd\u571f\u4ea4\u901a\u7701\u4e2d\u56fd\u5730\u65b9\u6574\u5099\u5c40\u5e83\u5cf6\u56fd\u9053\u4e8b\u52d9\u6240","boring_xml_url":47,"boring_view_url":1,"soilmap_view_url":null,"soiltest_xml_url":47,"soiltest_view_url":47},{"id":358117,"code":"NGIC202004301-0002","latitude":"34.384030138889","longitude":"132.45671238889","source_code":"","project_name":"","survey_name":"\u4ee4\u548c2\u5e74\u5ea6\u897f\u5e83\u5cf6\u30d0\u30a4\u30d1\u30b9\u5927\u624b\u753a\u5730\u533a\u5916\u5730\u8cea\u8abf\u67fb\u696d\u52d9","client_name":"\u56fd\u571f\u4ea4\u901a\u7701\u4e2d\u56fd\u5730\u65b9\u6574\u5099\u5c40\u5e83\u5cf6\u56fd\u9053\u4e8b\u52d9\u6240","boring_xml_url":47,"boring_view_url":1,"soilmap_view_url":null,"soiltest_xml_url":47,"soiltest_view_url":47},{"id":358116,"code":"NGIC202004301-0001","latitude":"34.383831055556","longitude":"132.45755558333","source_code":"","project_name":"","survey_name":"\u4ee4\u548c2\u5e74\u5ea6\u897f\u5e83\u5cf6\u30d0\u30a4\u30d1\u30b9\u5927\u624b\u753a\u5730\u533a\u5916\u5730\u8cea\u8abf\u67fb\u696d\u52d9","client_name":"\u56fd\u571f\u4ea4\u901a\u7701\u4e2d\u56fd\u5730\u65b9\u6574\u5099\u5c40\u5e83\u5cf6\u56fd\u9053\u4e8b\u52d9\u6240","boring_xml_url":47,"boring_view_url":1,"soilmap_view_url":null,"soiltest_xml_url":47,"soiltest_view_url":47},{"id":358115,"code":"NGIC202004525-0002","latitude":"40.784666666667","longitude":"141.15375","source_code":"","project_name":"","survey_name":"\u4ee4\u548c\u5143\u5e74\u5ea6 \u4e03\u6238\u5317\u9053\u8def\u6539\u826f\u5de5\u4e8b","client_name":"\u56fd\u571f\u4ea4\u901a\u7701\u6771\u5317\u5730\u65b9\u6574\u5099\u5c40\u9752\u68ee\u6cb3\u5ddd\u56fd\u9053\u4e8b\u52d9\u6240","boring_xml_url":47,"boring_view_url":1,"soilmap_view_url":null,"soiltest_xml_url":47,"soiltest_view_url":47},{"id":358114,"code":"NGIC202004525-0001","latitude":"40.785361111111","longitude":"141.15283333333","source_code":"","project_name":"","survey_name":"\u4ee4\u548c\u5143\u5e74\u5ea6 \u4e03\u6238\u5317\u9053\u8def\u6539\u826f\u5de5\u4e8b","client_name":"\u56fd\u571f\u4ea4\u901a\u7701\u6771\u5317\u5730\u65b9\u6574\u5099\u5c40\u9752\u68ee\u6cb3\u5ddd\u56fd\u9053\u4e8b\u52d9\u6240","boring_xml_url":47,"boring_view_url":1,"soilmap_view_url":null,"soiltest_xml_url":47,"soiltest_view_url":47},{"id":358099,"code":"NGIC202004506-0001","latitude":"35.090330555556","longitude":"137.55668888889","source_code":"","project_name":"","survey_name":"\u4ee4\u548c2\u5e74\u5ea6\u8a2d\u697d\u30c0\u30e0\u30c0\u30e0\u30b5\u30a4\u30c8\u5de6\u5cb8\u5730\u8cea\u8abf\u67fb\uff08M102\uff09\u696d\u52d9","client_name":"\u56fd\u571f\u4ea4\u901a\u7701\u4e2d\u90e8\u5730\u65b9\u6574\u5099\u5c40\u8a2d\u697d\u30c0\u30e0\u5de5\u4e8b\u4e8b\u52d9\u6240","boring_xml_url":47,"boring_view_url":1,"soilmap_view_url":null,"soiltest_xml_url":0,"soiltest_view_url":0},{"id":358094,"code":"NGIC202004485-0020","latitude":"35.550169722222","longitude":"137.16555230556","source_code":"","project_name":"","survey_name":"\u4ee4\u548c2\u5e74\u5ea641\u53f7\u4e0a\u9ebb\u751f\u4e03\u5b97\u5730\u533a\u5730\u8cea\u8abf\u67fb\u696d\u52d9","client_name":"\u56fd\u571f\u4ea4\u901a\u7701\u4e2d\u90e8\u5730\u65b9\u6574\u5099\u5c40\u5c90\u961c\u56fd\u9053\u4e8b\u52d9\u6240","boring_xml_url":47,"boring_view_url":1,"soilmap_view_url":null,"soiltest_xml_url":0,"soiltest_view_url":0},{"id":358093,"code":"NGIC202004485-0019","latitude":"35.550238527778","longitude":"137.16543827778","source_code":"","project_name":"","survey_name":"\u4ee4\u548c2\u5e74\u5ea641\u53f7\u4e0a\u9ebb\u751f\u4e03\u5b97\u5730\u533a\u5730\u8cea\u8abf\u67fb\u696d\u52d9","client_name":"\u56fd\u571f\u4ea4\u901a\u7701\u4e2d\u90e8\u5730\u65b9\u6574\u5099\u5c40\u5c90\u961c\u56fd\u9053\u4e8b\u52d9\u6240","boring_xml_url":47,"boring_view_url":1,"soilmap_view_url":null,"soiltest_xml_url":0,"soiltest_view_url":0},{"id":358092,"code":"NGIC202004485-0018","latitude":"35.550243305556","longitude":"137.1651225","source_code":"","project_name":"","survey_name":"\u4ee4\u548c2\u5e74\u5ea641\u53f7\u4e0a\u9ebb\u751f\u4e03\u5b97\u5730\u533a\u5730\u8cea\u8abf\u67fb\u696d\u52d9","client_name":"\u56fd\u571f\u4ea4\u901a\u7701\u4e2d\u90e8\u5730\u65b9\u6574\u5099\u5c40\u5c90\u961c\u56fd\u9053\u4e8b\u52d9\u6240","boring_xml_url":47,"boring_view_url":1,"soilmap_view_url":null,"soiltest_xml_url":0,"soiltest_view_url":0},{"id":358091,"code":"NGIC202004485-0017","latitude":"35.549868777778","longitude":"137.16515633333","source_code":"","project_name":"","survey_name":"\u4ee4\u548c2\u5e74\u5ea641\u53f7\u4e0a\u9ebb\u751f\u4e03\u5b97\u5730\u533a\u5730\u8cea\u8abf\u67fb\u696d\u52d9","client_name":"\u56fd\u571f\u4ea4\u901a\u7701\u4e2d\u90e8\u5730\u65b9\u6574\u5099\u5c40\u5c90\u961c\u56fd\u9053\u4e8b\u52d9\u6240","boring_xml_url":47,"boring_view_url":1,"soilmap_view_url":null,"soiltest_xml_url":0,"soiltest_view_url":0},{"id":358090,"code":"NGIC202004485-0016","latitude":"35.548674444444","longitude":"137.16457602778","source_code":"","project_name":"","survey_name":"\u4ee4\u548c2\u5e74\u5ea641\u53f7\u4e0a\u9ebb\u751f\u4e03\u5b97\u5730\u533a\u5730\u8cea\u8abf\u67fb\u696d\u52d9","client_name":"\u56fd\u571f\u4ea4\u901a\u7701\u4e2d\u90e8\u5730\u65b9\u6574\u5099\u5c40\u5c90\u961c\u56fd\u9053\u4e8b\u52d9\u6240","boring_xml_url":47,"boring_view_url":1,"soilmap_view_url":null,"soiltest_xml_url":0,"soiltest_view_url":0},{"id":358089,"code":"NGIC202004485-0015","latitude":"35.549078555556","longitude":"137.16480155556","source_code":"","project_name":"","survey_name":"\u4ee4\u548c2\u5e74\u5ea641\u53f7\u4e0a\u9ebb\u751f\u4e03\u5b97\u5730\u533a\u5730\u8cea\u8abf\u67fb\u696d\u52d9","client_name":"\u56fd\u571f\u4ea4\u901a\u7701\u4e2d\u90e8\u5730\u65b9\u6574\u5099\u5c40\u5c90\u961c\u56fd\u9053\u4e8b\u52d9\u6240","boring_xml_url":47,"boring_view_url":1,"soilmap_view_url":null,"soiltest_xml_url":0,"soiltest_view_url":0},{"id":358088,"code":"NGIC202004485-0014","latitude":"35.547445416667","longitude":"137.16392275","source_code":"","project_name":"","survey_name":"\u4ee4\u548c2\u5e74\u5ea641\u53f7\u4e0a\u9ebb\u751f\u4e03\u5b97\u5730\u533a\u5730\u8cea\u8abf\u67fb\u696d\u52d9","client_name":"\u56fd\u571f\u4ea4\u901a\u7701\u4e2d\u90e8\u5730\u65b9\u6574\u5099\u5c40\u5c90\u961c\u56fd\u9053\u4e8b\u52d9\u6240","boring_xml_url":47,"boring_view_url":1,"soilmap_view_url":null,"soiltest_xml_url":0,"soiltest_view_url":0},{"id":358087,"code":"NGIC202004485-0013","latitude":"35.547394166667","longitude":"137.1638915","source_code":"","project_name":"","survey_name":"\u4ee4\u548c2\u5e74\u5ea641\u53f7\u4e0a\u9ebb\u751f\u4e03\u5b97\u5730\u533a\u5730\u8cea\u8abf\u67fb\u696d\u52d9","client_name":"\u56fd\u571f\u4ea4\u901a\u7701\u4e2d\u90e8\u5730\u65b9\u6574\u5099\u5c40\u5c90\u961c\u56fd\u9053\u4e8b\u52d9\u6240","boring_xml_url":47,"boring_view_url":1,"soilmap_view_url":null,"soiltest_xml_url":0,"soiltest_view_url":0},{"id":358086,"code":"NGIC202004485-0012","latitude":"35.545611166667","longitude":"137.159288","source_code":"","project_name":"","survey_name":"\u4ee4\u548c2\u5e74\u5ea641\u53f7\u4e0a\u9ebb\u751f\u4e03\u5b97\u5730\u533a\u5730\u8cea\u8abf\u67fb\u696d\u52d9","client_name":"\u56fd\u571f\u4ea4\u901a\u7701\u4e2d\u90e8\u5730\u65b9\u6574\u5099\u5c40\u5c90\u961c\u56fd\u9053\u4e8b\u52d9\u6240","boring_xml_url":47,"boring_view_url":1,"soilmap_view_url":null,"soiltest_xml_url":0,"soiltest_view_url":0},{"id":358085,"code":"NGIC202004485-0011","latitude":"35.545155805556","longitude":"137.15705322222","source_code":"","project_name":"","survey_name":"\u4ee4\u548c2\u5e74\u5ea641\u53f7\u4e0a\u9ebb\u751f\u4e03\u5b97\u5730\u533a\u5730\u8cea\u8abf\u67fb\u696d\u52d9","client_name":"\u56fd\u571f\u4ea4\u901a\u7701\u4e2d\u90e8\u5730\u65b9\u6574\u5099\u5c40\u5c90\u961c\u56fd\u9053\u4e8b\u52d9\u6240","boring_xml_url":47,"boring_view_url":1,"soilmap_view_url":null,"soiltest_xml_url":0,"soiltest_view_url":0},{"id":358084,"code":"NGIC202004485-0010","latitude":"35.545114472222","longitude":"137.15662433333","source_code":"","project_name":"","survey_name":"\u4ee4\u548c2\u5e74\u5ea641\u53f7\u4e0a\u9ebb\u751f\u4e03\u5b97\u5730\u533a\u5730\u8cea\u8abf\u67fb\u696d\u52d9","client_name":"\u56fd\u571f\u4ea4\u901a\u7701\u4e2d\u90e8\u5730\u65b9\u6574\u5099\u5c40\u5c90\u961c\u56fd\u9053\u4e8b\u52d9\u6240","boring_xml_url":47,"boring_view_url":1,"soilmap_view_url":null,"soiltest_xml_url":47,"soiltest_view_url":47},{"id":358083,"code":"NGIC202004485-0009","latitude":"35.545209055556","longitude":"137.15682222222","source_code":"","project_name":"","survey_name":"\u4ee4\u548c2\u5e74\u5ea641\u53f7\u4e0a\u9ebb\u751f\u4e03\u5b97\u5730\u533a\u5730\u8cea\u8abf\u67fb\u696d\u52d9","client_name":"\u56fd\u571f\u4ea4\u901a\u7701\u4e2d\u90e8\u5730\u65b9\u6574\u5099\u5c40\u5c90\u961c\u56fd\u9053\u4e8b\u52d9\u6240","boring_xml_url":47,"boring_view_url":1,"soilmap_view_url":null,"soiltest_xml_url":47,"soiltest_view_url":47},{"id":358082,"code":"NGIC202004485-0008","latitude":"35.545344305556","longitude":"137.15691694444","source_code":"","project_name":"","survey_name":"\u4ee4\u548c2\u5e74\u5ea641\u53f7\u4e0a\u9ebb\u751f\u4e03\u5b97\u5730\u533a\u5730\u8cea\u8abf\u67fb\u696d\u52d9","client_name":"\u56fd\u571f\u4ea4\u901a\u7701\u4e2d\u90e8\u5730\u65b9\u6574\u5099\u5c40\u5c90\u961c\u56fd\u9053\u4e8b\u52d9\u6240","boring_xml_url":47,"boring_view_url":1,"soilmap_view_url":null,"soiltest_xml_url":47,"soiltest_view_url":47},{"id":358081,"code":"NGIC202004485-0007","latitude":"35.545283694444","longitude":"137.15626627778","source_code":"","project_name":"","survey_name":"\u4ee4\u548c2\u5e74\u5ea641\u53f7\u4e0a\u9ebb\u751f\u4e03\u5b97\u5730\u533a\u5730\u8cea\u8abf\u67fb\u696d\u52d9","client_name":"\u56fd\u571f\u4ea4\u901a\u7701\u4e2d\u90e8\u5730\u65b9\u6574\u5099\u5c40\u5c90\u961c\u56fd\u9053\u4e8b\u52d9\u6240","boring_xml_url":47,"boring_view_url":1,"soilmap_view_url":null,"soiltest_xml_url":0,"soiltest_view_url":0}]}}