{"header":{"xyz":{"source":[],"mosaic":false},"page":1961,"raw":{"soiltest_result":"0","bbox":"57.598333,109.544722,1.933333,163.806111","page":"1961"},"conditions":{"soiltest_result":0,"north":57.598333,"west":109.544722,"south":1.933333,"east":163.806111},"success":true,"message":""},"data":{"meta":{"total":212844,"page":1961,"pages":7095,"count":30},"values":[{"id":357827,"code":"NGIC202003991-0008","latitude":"34.355841555556","longitude":"134.0741645","source_code":"","project_name":"","survey_name":"\u9ad8\u677e\u6e2f\u671d\u65e5\u5730\u533a\u5cb8\u58c1\uff08-7.5m\uff09\u571f\u8cea\u8abf\u67fb\u7b49","client_name":"\u56fd\u571f\u4ea4\u901a\u7701\u56db\u56fd\u5730\u65b9\u6574\u5099\u5c40\u6e2f\u6e7e\u7a7a\u6e2f\u90e8","boring_xml_url":47,"boring_view_url":1,"soilmap_view_url":71,"soiltest_xml_url":47,"soiltest_view_url":47},{"id":357826,"code":"NGIC202003991-0007","latitude":"34.355866388889","longitude":"134.07475672222","source_code":"","project_name":"","survey_name":"\u9ad8\u677e\u6e2f\u671d\u65e5\u5730\u533a\u5cb8\u58c1\uff08-7.5m\uff09\u571f\u8cea\u8abf\u67fb\u7b49","client_name":"\u56fd\u571f\u4ea4\u901a\u7701\u56db\u56fd\u5730\u65b9\u6574\u5099\u5c40\u6e2f\u6e7e\u7a7a\u6e2f\u90e8","boring_xml_url":47,"boring_view_url":1,"soilmap_view_url":71,"soiltest_xml_url":47,"soiltest_view_url":47},{"id":357825,"code":"NGIC202003991-0006","latitude":"34.356279","longitude":"134.07381511111","source_code":"","project_name":"","survey_name":"\u9ad8\u677e\u6e2f\u671d\u65e5\u5730\u533a\u5cb8\u58c1\uff08-7.5m\uff09\u571f\u8cea\u8abf\u67fb\u7b49","client_name":"\u56fd\u571f\u4ea4\u901a\u7701\u56db\u56fd\u5730\u65b9\u6574\u5099\u5c40\u6e2f\u6e7e\u7a7a\u6e2f\u90e8","boring_xml_url":47,"boring_view_url":1,"soilmap_view_url":71,"soiltest_xml_url":47,"soiltest_view_url":47},{"id":357824,"code":"NGIC202003991-0005","latitude":"34.35629275","longitude":"134.07413836111","source_code":"","project_name":"","survey_name":"\u9ad8\u677e\u6e2f\u671d\u65e5\u5730\u533a\u5cb8\u58c1\uff08-7.5m\uff09\u571f\u8cea\u8abf\u67fb\u7b49","client_name":"\u56fd\u571f\u4ea4\u901a\u7701\u56db\u56fd\u5730\u65b9\u6574\u5099\u5c40\u6e2f\u6e7e\u7a7a\u6e2f\u90e8","boring_xml_url":47,"boring_view_url":1,"soilmap_view_url":71,"soiltest_xml_url":47,"soiltest_view_url":47},{"id":357823,"code":"NGIC202003991-0004","latitude":"34.356743138889","longitude":"134.07411255556","source_code":"","project_name":"","survey_name":"\u9ad8\u677e\u6e2f\u671d\u65e5\u5730\u533a\u5cb8\u58c1\uff08-7.5m\uff09\u571f\u8cea\u8abf\u67fb\u7b49","client_name":"\u56fd\u571f\u4ea4\u901a\u7701\u56db\u56fd\u5730\u65b9\u6574\u5099\u5c40\u6e2f\u6e7e\u7a7a\u6e2f\u90e8","boring_xml_url":47,"boring_view_url":1,"soilmap_view_url":71,"soiltest_xml_url":47,"soiltest_view_url":47},{"id":357822,"code":"NGIC202003991-0003","latitude":"34.357217111111","longitude":"134.07467766667","source_code":"","project_name":"","survey_name":"\u9ad8\u677e\u6e2f\u671d\u65e5\u5730\u533a\u5cb8\u58c1\uff08-7.5m\uff09\u571f\u8cea\u8abf\u67fb\u7b49","client_name":"\u56fd\u571f\u4ea4\u901a\u7701\u56db\u56fd\u5730\u65b9\u6574\u5099\u5c40\u6e2f\u6e7e\u7a7a\u6e2f\u90e8","boring_xml_url":47,"boring_view_url":1,"soilmap_view_url":71,"soiltest_xml_url":47,"soiltest_view_url":47},{"id":357821,"code":"NGIC202003991-0002","latitude":"34.357178888889","longitude":"134.07376144444","source_code":"","project_name":"","survey_name":"\u9ad8\u677e\u6e2f\u671d\u65e5\u5730\u533a\u5cb8\u58c1\uff08-7.5m\uff09\u571f\u8cea\u8abf\u67fb\u7b49","client_name":"\u56fd\u571f\u4ea4\u901a\u7701\u56db\u56fd\u5730\u65b9\u6574\u5099\u5c40\u6e2f\u6e7e\u7a7a\u6e2f\u90e8","boring_xml_url":47,"boring_view_url":1,"soilmap_view_url":71,"soiltest_xml_url":47,"soiltest_view_url":47},{"id":357820,"code":"NGIC202003991-0001","latitude":"34.3571925","longitude":"134.07408761111","source_code":"","project_name":"","survey_name":"\u9ad8\u677e\u6e2f\u671d\u65e5\u5730\u533a\u5cb8\u58c1\uff08-7.5m\uff09\u571f\u8cea\u8abf\u67fb\u7b49","client_name":"\u56fd\u571f\u4ea4\u901a\u7701\u56db\u56fd\u5730\u65b9\u6574\u5099\u5c40\u6e2f\u6e7e\u7a7a\u6e2f\u90e8","boring_xml_url":47,"boring_view_url":1,"soilmap_view_url":71,"soiltest_xml_url":47,"soiltest_view_url":47},{"id":357811,"code":"NGIC202004003-0004","latitude":"33.256743916667","longitude":"131.60082905556","source_code":"","project_name":"\u4ee4\u548c2\u5e74\u5ea6\u5927\u5206\u6e2f\u6d77\u5cb8(\u4f4f\u5409\u5730\u533a)\u571f\u8cea\u8abf\u67fb(\u7b2c3\u6b21)","survey_name":"\u4ee4\u548c2\u5e74\u5ea6\u5927\u5206\u6e2f\u6d77\u5cb8(\u4f4f\u5409\u5730\u533a)\u571f\u8cea\u8abf\u67fb(\u7b2c3\u6b21)","client_name":"\u56fd\u571f\u4ea4\u901a\u7701\u4e5d\u5dde\u5730\u65b9\u6574\u5099\u5c40\u5225\u5e9c\u6e2f\u6e7e\u30fb\u7a7a\u6e2f\u6574\u5099\u4e8b\u52d9\u6240","boring_xml_url":47,"boring_view_url":1,"soilmap_view_url":71,"soiltest_xml_url":47,"soiltest_view_url":47},{"id":357810,"code":"NGIC202004003-0003","latitude":"33.257172944444","longitude":"131.60177316667","source_code":"","project_name":"\u4ee4\u548c2\u5e74\u5ea6\u5927\u5206\u6e2f\u6d77\u5cb8(\u4f4f\u5409\u5730\u533a)\u571f\u8cea\u8abf\u67fb(\u7b2c3\u6b21)","survey_name":"\u4ee4\u548c2\u5e74\u5ea6\u5927\u5206\u6e2f\u6d77\u5cb8(\u4f4f\u5409\u5730\u533a)\u571f\u8cea\u8abf\u67fb(\u7b2c3\u6b21)","client_name":"\u56fd\u571f\u4ea4\u901a\u7701\u4e5d\u5dde\u5730\u65b9\u6574\u5099\u5c40\u5225\u5e9c\u6e2f\u6e7e\u30fb\u7a7a\u6e2f\u6574\u5099\u4e8b\u52d9\u6240","boring_xml_url":47,"boring_view_url":1,"soilmap_view_url":71,"soiltest_xml_url":47,"soiltest_view_url":47},{"id":357809,"code":"NGIC202004003-0002","latitude":"33.258030694444","longitude":"131.60366141667","source_code":"","project_name":"\u4ee4\u548c2\u5e74\u5ea6\u5927\u5206\u6e2f\u6d77\u5cb8(\u4f4f\u5409\u5730\u533a)\u571f\u8cea\u8abf\u67fb(\u7b2c3\u6b21)","survey_name":"\u4ee4\u548c2\u5e74\u5ea6\u5927\u5206\u6e2f\u6d77\u5cb8(\u4f4f\u5409\u5730\u533a)\u571f\u8cea\u8abf\u67fb(\u7b2c3\u6b21)","client_name":"\u56fd\u571f\u4ea4\u901a\u7701\u4e5d\u5dde\u5730\u65b9\u6574\u5099\u5c40\u5225\u5e9c\u6e2f\u6e7e\u30fb\u7a7a\u6e2f\u6574\u5099\u4e8b\u52d9\u6240","boring_xml_url":47,"boring_view_url":1,"soilmap_view_url":71,"soiltest_xml_url":47,"soiltest_view_url":47},{"id":357808,"code":"NGIC202004003-0001","latitude":"33.258864472222","longitude":"131.60555702778","source_code":"","project_name":"\u4ee4\u548c2\u5e74\u5ea6\u5927\u5206\u6e2f\u6d77\u5cb8(\u4f4f\u5409\u5730\u533a)\u571f\u8cea\u8abf\u67fb(\u7b2c3\u6b21)","survey_name":"\u4ee4\u548c2\u5e74\u5ea6\u5927\u5206\u6e2f\u6d77\u5cb8(\u4f4f\u5409\u5730\u533a)\u571f\u8cea\u8abf\u67fb(\u7b2c3\u6b21)","client_name":"\u56fd\u571f\u4ea4\u901a\u7701\u4e5d\u5dde\u5730\u65b9\u6574\u5099\u5c40\u5225\u5e9c\u6e2f\u6e7e\u30fb\u7a7a\u6e2f\u6574\u5099\u4e8b\u52d9\u6240","boring_xml_url":47,"boring_view_url":1,"soilmap_view_url":71,"soiltest_xml_url":47,"soiltest_view_url":47},{"id":357798,"code":"NGIC202004233-0002","latitude":"34.857986361111","longitude":"134.56532980556","source_code":"","project_name":"","survey_name":"\u63d6\u4fdd\u5ddd\u89dc\u5d0e\u5730\u533a\u6cb3\u9053\u6398\u524a\u7b49\u8a73\u7d30\u8a2d\u8a08\u696d\u52d9","client_name":"\u56fd\u571f\u4ea4\u901a\u7701\u8fd1\u757f\u5730\u65b9\u6574\u5099\u5c40\u59eb\u8def\u6cb3\u5ddd\u56fd\u9053\u4e8b\u52d9\u6240","boring_xml_url":47,"boring_view_url":1,"soilmap_view_url":null,"soiltest_xml_url":0,"soiltest_view_url":0},{"id":357797,"code":"NGIC202004233-0001","latitude":"34.857648055556","longitude":"134.56521205556","source_code":"","project_name":"","survey_name":"\u63d6\u4fdd\u5ddd\u89dc\u5d0e\u5730\u533a\u6cb3\u9053\u6398\u524a\u7b49\u8a73\u7d30\u8a2d\u8a08\u696d\u52d9","client_name":"\u56fd\u571f\u4ea4\u901a\u7701\u8fd1\u757f\u5730\u65b9\u6574\u5099\u5c40\u59eb\u8def\u6cb3\u5ddd\u56fd\u9053\u4e8b\u52d9\u6240","boring_xml_url":47,"boring_view_url":1,"soilmap_view_url":null,"soiltest_xml_url":0,"soiltest_view_url":0},{"id":357785,"code":"NGIC202004094-0004","latitude":"33.714113694444","longitude":"132.7064925","source_code":"","project_name":"","survey_name":"\u4ee4\u548c2-3\u5e74\u5ea6 \u677e\u4e8c\u7ba1\u5185\u9632\u707d\u70b9\u691c\u696d\u52d9","client_name":"\u56fd\u571f\u4ea4\u901a\u7701\u56db\u56fd\u5730\u65b9\u6574\u5099\u5c40\u677e\u5c71\u6cb3\u5ddd\u56fd\u9053\u4e8b\u52d9\u6240 \u9053\u8def\u7ba1\u7406\u7b2c\u4e8c\u8ab2","boring_xml_url":47,"boring_view_url":1,"soilmap_view_url":null,"soiltest_xml_url":47,"soiltest_view_url":47},{"id":357784,"code":"NGIC202004094-0003","latitude":"33.714203972222","longitude":"132.70665083333","source_code":"","project_name":"","survey_name":"\u4ee4\u548c2-3\u5e74\u5ea6 \u677e\u4e8c\u7ba1\u5185\u9632\u707d\u70b9\u691c\u696d\u52d9","client_name":"\u56fd\u571f\u4ea4\u901a\u7701\u56db\u56fd\u5730\u65b9\u6574\u5099\u5c40\u677e\u5c71\u6cb3\u5ddd\u56fd\u9053\u4e8b\u52d9\u6240 \u9053\u8def\u7ba1\u7406\u7b2c\u4e8c\u8ab2","boring_xml_url":47,"boring_view_url":1,"soilmap_view_url":null,"soiltest_xml_url":47,"soiltest_view_url":47},{"id":357783,"code":"NGIC202004094-0002","latitude":"33.699251888889","longitude":"132.70608883333","source_code":"","project_name":"","survey_name":"\u4ee4\u548c2-3\u5e74\u5ea6 \u677e\u4e8c\u7ba1\u5185\u9632\u707d\u70b9\u691c\u696d\u52d9","client_name":"\u56fd\u571f\u4ea4\u901a\u7701\u56db\u56fd\u5730\u65b9\u6574\u5099\u5c40\u677e\u5c71\u6cb3\u5ddd\u56fd\u9053\u4e8b\u52d9\u6240 \u9053\u8def\u7ba1\u7406\u7b2c\u4e8c\u8ab2","boring_xml_url":47,"boring_view_url":1,"soilmap_view_url":null,"soiltest_xml_url":0,"soiltest_view_url":0},{"id":357782,"code":"NGIC202004094-0001","latitude":"33.699248555556","longitude":"132.70611688889","source_code":"","project_name":"","survey_name":"\u4ee4\u548c2-3\u5e74\u5ea6 \u677e\u4e8c\u7ba1\u5185\u9632\u707d\u70b9\u691c\u696d\u52d9","client_name":"\u56fd\u571f\u4ea4\u901a\u7701\u56db\u56fd\u5730\u65b9\u6574\u5099\u5c40\u677e\u5c71\u6cb3\u5ddd\u56fd\u9053\u4e8b\u52d9\u6240 \u9053\u8def\u7ba1\u7406\u7b2c\u4e8c\u8ab2","boring_xml_url":47,"boring_view_url":1,"soilmap_view_url":null,"soiltest_xml_url":0,"soiltest_view_url":0},{"id":357774,"code":"NGIC202004364-0015","latitude":"35.143392166667","longitude":"137.84648419444","source_code":"","project_name":"","survey_name":"\u4ee4\u548c2\u5e74\u5ea6\u4e09\u9060\u5357\u4fe1\u81ea\u52d5\u8eca\u9053\u5730\u8cea\u8abf\u67fb\u696d\u52d9","client_name":"\u56fd\u571f\u4ea4\u901a\u7701\u4e2d\u90e8\u5730\u65b9\u6574\u5099\u5c40\u6d5c\u677e\u6cb3\u5ddd\u56fd\u9053\u4e8b\u52d9\u6240","boring_xml_url":47,"boring_view_url":1,"soilmap_view_url":null,"soiltest_xml_url":0,"soiltest_view_url":0},{"id":357773,"code":"NGIC202004364-0014","latitude":"35.142568916667","longitude":"137.84602897222","source_code":"","project_name":"","survey_name":"\u4ee4\u548c2\u5e74\u5ea6\u4e09\u9060\u5357\u4fe1\u81ea\u52d5\u8eca\u9053\u5730\u8cea\u8abf\u67fb\u696d\u52d9","client_name":"\u56fd\u571f\u4ea4\u901a\u7701\u4e2d\u90e8\u5730\u65b9\u6574\u5099\u5c40\u6d5c\u677e\u6cb3\u5ddd\u56fd\u9053\u4e8b\u52d9\u6240","boring_xml_url":47,"boring_view_url":1,"soilmap_view_url":null,"soiltest_xml_url":0,"soiltest_view_url":0},{"id":357772,"code":"NGIC202004364-0013","latitude":"35.142952222222","longitude":"137.84623177778","source_code":"","project_name":"","survey_name":"\u4ee4\u548c2\u5e74\u5ea6\u4e09\u9060\u5357\u4fe1\u81ea\u52d5\u8eca\u9053\u5730\u8cea\u8abf\u67fb\u696d\u52d9","client_name":"\u56fd\u571f\u4ea4\u901a\u7701\u4e2d\u90e8\u5730\u65b9\u6574\u5099\u5c40\u6d5c\u677e\u6cb3\u5ddd\u56fd\u9053\u4e8b\u52d9\u6240","boring_xml_url":47,"boring_view_url":1,"soilmap_view_url":null,"soiltest_xml_url":0,"soiltest_view_url":0},{"id":357771,"code":"NGIC202004364-0012","latitude":"35.1433805","longitude":"137.84649544444","source_code":"","project_name":"","survey_name":"\u4ee4\u548c2\u5e74\u5ea6\u4e09\u9060\u5357\u4fe1\u81ea\u52d5\u8eca\u9053\u5730\u8cea\u8abf\u67fb\u696d\u52d9","client_name":"\u56fd\u571f\u4ea4\u901a\u7701\u4e2d\u90e8\u5730\u65b9\u6574\u5099\u5c40\u6d5c\u677e\u6cb3\u5ddd\u56fd\u9053\u4e8b\u52d9\u6240","boring_xml_url":47,"boring_view_url":1,"soilmap_view_url":null,"soiltest_xml_url":0,"soiltest_view_url":0},{"id":357770,"code":"NGIC202004364-0011","latitude":"35.14358425","longitude":"137.84662522222","source_code":"","project_name":"","survey_name":"\u4ee4\u548c2\u5e74\u5ea6\u4e09\u9060\u5357\u4fe1\u81ea\u52d5\u8eca\u9053\u5730\u8cea\u8abf\u67fb\u696d\u52d9","client_name":"\u56fd\u571f\u4ea4\u901a\u7701\u4e2d\u90e8\u5730\u65b9\u6574\u5099\u5c40\u6d5c\u677e\u6cb3\u5ddd\u56fd\u9053\u4e8b\u52d9\u6240","boring_xml_url":47,"boring_view_url":1,"soilmap_view_url":null,"soiltest_xml_url":0,"soiltest_view_url":0},{"id":357769,"code":"NGIC202004364-0010","latitude":"35.142533638889","longitude":"137.84692036111","source_code":"","project_name":"","survey_name":"\u4ee4\u548c2\u5e74\u5ea6\u4e09\u9060\u5357\u4fe1\u81ea\u52d5\u8eca\u9053\u5730\u8cea\u8abf\u67fb\u696d\u52d9","client_name":"\u56fd\u571f\u4ea4\u901a\u7701\u4e2d\u90e8\u5730\u65b9\u6574\u5099\u5c40\u6d5c\u677e\u6cb3\u5ddd\u56fd\u9053\u4e8b\u52d9\u6240","boring_xml_url":47,"boring_view_url":1,"soilmap_view_url":null,"soiltest_xml_url":0,"soiltest_view_url":0},{"id":357768,"code":"NGIC202004364-0009","latitude":"35.141998333333","longitude":"137.84726425","source_code":"","project_name":"","survey_name":"\u4ee4\u548c2\u5e74\u5ea6\u4e09\u9060\u5357\u4fe1\u81ea\u52d5\u8eca\u9053\u5730\u8cea\u8abf\u67fb\u696d\u52d9","client_name":"\u56fd\u571f\u4ea4\u901a\u7701\u4e2d\u90e8\u5730\u65b9\u6574\u5099\u5c40\u6d5c\u677e\u6cb3\u5ddd\u56fd\u9053\u4e8b\u52d9\u6240","boring_xml_url":47,"boring_view_url":1,"soilmap_view_url":null,"soiltest_xml_url":0,"soiltest_view_url":0},{"id":357767,"code":"NGIC202004364-0008","latitude":"35.142011888889","longitude":"137.84746483333","source_code":"","project_name":"","survey_name":"\u4ee4\u548c2\u5e74\u5ea6\u4e09\u9060\u5357\u4fe1\u81ea\u52d5\u8eca\u9053\u5730\u8cea\u8abf\u67fb\u696d\u52d9","client_name":"\u56fd\u571f\u4ea4\u901a\u7701\u4e2d\u90e8\u5730\u65b9\u6574\u5099\u5c40\u6d5c\u677e\u6cb3\u5ddd\u56fd\u9053\u4e8b\u52d9\u6240","boring_xml_url":47,"boring_view_url":1,"soilmap_view_url":null,"soiltest_xml_url":0,"soiltest_view_url":0},{"id":357766,"code":"NGIC202004364-0007","latitude":"35.142220277778","longitude":"137.84760575","source_code":"","project_name":"","survey_name":"\u4ee4\u548c2\u5e74\u5ea6\u4e09\u9060\u5357\u4fe1\u81ea\u52d5\u8eca\u9053\u5730\u8cea\u8abf\u67fb\u696d\u52d9","client_name":"\u56fd\u571f\u4ea4\u901a\u7701\u4e2d\u90e8\u5730\u65b9\u6574\u5099\u5c40\u6d5c\u677e\u6cb3\u5ddd\u56fd\u9053\u4e8b\u52d9\u6240","boring_xml_url":47,"boring_view_url":1,"soilmap_view_url":null,"soiltest_xml_url":0,"soiltest_view_url":0},{"id":357765,"code":"NGIC202004364-0006","latitude":"35.143214361111","longitude":"137.84867652778","source_code":"","project_name":"","survey_name":"\u4ee4\u548c2\u5e74\u5ea6\u4e09\u9060\u5357\u4fe1\u81ea\u52d5\u8eca\u9053\u5730\u8cea\u8abf\u67fb\u696d\u52d9","client_name":"\u56fd\u571f\u4ea4\u901a\u7701\u4e2d\u90e8\u5730\u65b9\u6574\u5099\u5c40\u6d5c\u677e\u6cb3\u5ddd\u56fd\u9053\u4e8b\u52d9\u6240","boring_xml_url":47,"boring_view_url":1,"soilmap_view_url":null,"soiltest_xml_url":0,"soiltest_view_url":0},{"id":357764,"code":"NGIC202004364-0005","latitude":"35.143298333333","longitude":"137.84887038889","source_code":"","project_name":"","survey_name":"\u4ee4\u548c2\u5e74\u5ea6\u4e09\u9060\u5357\u4fe1\u81ea\u52d5\u8eca\u9053\u5730\u8cea\u8abf\u67fb\u696d\u52d9","client_name":"\u56fd\u571f\u4ea4\u901a\u7701\u4e2d\u90e8\u5730\u65b9\u6574\u5099\u5c40\u6d5c\u677e\u6cb3\u5ddd\u56fd\u9053\u4e8b\u52d9\u6240","boring_xml_url":47,"boring_view_url":1,"soilmap_view_url":null,"soiltest_xml_url":0,"soiltest_view_url":0},{"id":357763,"code":"NGIC202004364-0004","latitude":"35.143173555556","longitude":"137.84913252778","source_code":"","project_name":"","survey_name":"\u4ee4\u548c2\u5e74\u5ea6\u4e09\u9060\u5357\u4fe1\u81ea\u52d5\u8eca\u9053\u5730\u8cea\u8abf\u67fb\u696d\u52d9","client_name":"\u56fd\u571f\u4ea4\u901a\u7701\u4e2d\u90e8\u5730\u65b9\u6574\u5099\u5c40\u6d5c\u677e\u6cb3\u5ddd\u56fd\u9053\u4e8b\u52d9\u6240","boring_xml_url":47,"boring_view_url":1,"soilmap_view_url":null,"soiltest_xml_url":0,"soiltest_view_url":0}]}}