{"header":{"xyz":{"source":[],"mosaic":false},"page":1963,"raw":{"soiltest_result":"0","bbox":"57.598333,109.544722,1.933333,163.806111","page":"1963"},"conditions":{"soiltest_result":0,"north":57.598333,"west":109.544722,"south":1.933333,"east":163.806111},"success":true,"message":""},"data":{"meta":{"total":212844,"page":1963,"pages":7095,"count":30},"values":[{"id":357695,"code":"NGIC202004268-0023","latitude":"35.659022222222","longitude":"138.61869444444","source_code":"","project_name":"","survey_name":"R1\u65b0\u5c71\u68a8\u74b0\u72b6\u9053\u8def\u5730\u8cea\u8abf\u67fb\u696d\u52d9","client_name":"\u56fd\u571f\u4ea4\u901a\u7701\u95a2\u6771\u5730\u65b9\u6574\u5099\u5c40\u7532\u5e9c\u6cb3\u5ddd\u56fd\u9053\u4e8b\u52d9\u6240","boring_xml_url":47,"boring_view_url":1,"soilmap_view_url":null,"soiltest_xml_url":47,"soiltest_view_url":47},{"id":357694,"code":"NGIC202004268-0022","latitude":"35.658686111111","longitude":"138.61868611111","source_code":"","project_name":"","survey_name":"R1\u65b0\u5c71\u68a8\u74b0\u72b6\u9053\u8def\u5730\u8cea\u8abf\u67fb\u696d\u52d9","client_name":"\u56fd\u571f\u4ea4\u901a\u7701\u95a2\u6771\u5730\u65b9\u6574\u5099\u5c40\u7532\u5e9c\u6cb3\u5ddd\u56fd\u9053\u4e8b\u52d9\u6240","boring_xml_url":47,"boring_view_url":1,"soilmap_view_url":null,"soiltest_xml_url":47,"soiltest_view_url":47},{"id":357693,"code":"NGIC202004268-0021","latitude":"35.657838888889","longitude":"138.61891944444","source_code":"","project_name":"","survey_name":"R1\u65b0\u5c71\u68a8\u74b0\u72b6\u9053\u8def\u5730\u8cea\u8abf\u67fb\u696d\u52d9","client_name":"\u56fd\u571f\u4ea4\u901a\u7701\u95a2\u6771\u5730\u65b9\u6574\u5099\u5c40\u7532\u5e9c\u6cb3\u5ddd\u56fd\u9053\u4e8b\u52d9\u6240","boring_xml_url":47,"boring_view_url":1,"soilmap_view_url":null,"soiltest_xml_url":47,"soiltest_view_url":47},{"id":357692,"code":"NGIC202004268-0020","latitude":"35.657725","longitude":"138.61917777778","source_code":"","project_name":"","survey_name":"R1\u65b0\u5c71\u68a8\u74b0\u72b6\u9053\u8def\u5730\u8cea\u8abf\u67fb\u696d\u52d9","client_name":"\u56fd\u571f\u4ea4\u901a\u7701\u95a2\u6771\u5730\u65b9\u6574\u5099\u5c40\u7532\u5e9c\u6cb3\u5ddd\u56fd\u9053\u4e8b\u52d9\u6240","boring_xml_url":47,"boring_view_url":1,"soilmap_view_url":null,"soiltest_xml_url":47,"soiltest_view_url":47},{"id":357691,"code":"NGIC202004268-0019","latitude":"35.657766666667","longitude":"138.61934722222","source_code":"","project_name":"","survey_name":"R1\u65b0\u5c71\u68a8\u74b0\u72b6\u9053\u8def\u5730\u8cea\u8abf\u67fb\u696d\u52d9","client_name":"\u56fd\u571f\u4ea4\u901a\u7701\u95a2\u6771\u5730\u65b9\u6574\u5099\u5c40\u7532\u5e9c\u6cb3\u5ddd\u56fd\u9053\u4e8b\u52d9\u6240","boring_xml_url":47,"boring_view_url":1,"soilmap_view_url":null,"soiltest_xml_url":47,"soiltest_view_url":47},{"id":357690,"code":"NGIC202004268-0018","latitude":"35.656591666667","longitude":"138.6192","source_code":"","project_name":"","survey_name":"R1\u65b0\u5c71\u68a8\u74b0\u72b6\u9053\u8def\u5730\u8cea\u8abf\u67fb\u696d\u52d9","client_name":"\u56fd\u571f\u4ea4\u901a\u7701\u95a2\u6771\u5730\u65b9\u6574\u5099\u5c40\u7532\u5e9c\u6cb3\u5ddd\u56fd\u9053\u4e8b\u52d9\u6240","boring_xml_url":47,"boring_view_url":1,"soilmap_view_url":null,"soiltest_xml_url":47,"soiltest_view_url":47},{"id":357689,"code":"NGIC202004268-0017","latitude":"35.653716666667","longitude":"138.61933888889","source_code":"","project_name":"","survey_name":"R1\u65b0\u5c71\u68a8\u74b0\u72b6\u9053\u8def\u5730\u8cea\u8abf\u67fb\u696d\u52d9","client_name":"\u56fd\u571f\u4ea4\u901a\u7701\u95a2\u6771\u5730\u65b9\u6574\u5099\u5c40\u7532\u5e9c\u6cb3\u5ddd\u56fd\u9053\u4e8b\u52d9\u6240","boring_xml_url":47,"boring_view_url":1,"soilmap_view_url":null,"soiltest_xml_url":47,"soiltest_view_url":47},{"id":357688,"code":"NGIC202004268-0016","latitude":"35.653383333333","longitude":"138.61954444444","source_code":"","project_name":"","survey_name":"R1\u65b0\u5c71\u68a8\u74b0\u72b6\u9053\u8def\u5730\u8cea\u8abf\u67fb\u696d\u52d9","client_name":"\u56fd\u571f\u4ea4\u901a\u7701\u95a2\u6771\u5730\u65b9\u6574\u5099\u5c40\u7532\u5e9c\u6cb3\u5ddd\u56fd\u9053\u4e8b\u52d9\u6240","boring_xml_url":47,"boring_view_url":1,"soilmap_view_url":null,"soiltest_xml_url":47,"soiltest_view_url":47},{"id":357687,"code":"NGIC202004268-0015","latitude":"35.653058333333","longitude":"138.61895555556","source_code":"","project_name":"","survey_name":"R1\u65b0\u5c71\u68a8\u74b0\u72b6\u9053\u8def\u5730\u8cea\u8abf\u67fb\u696d\u52d9","client_name":"\u56fd\u571f\u4ea4\u901a\u7701\u95a2\u6771\u5730\u65b9\u6574\u5099\u5c40\u7532\u5e9c\u6cb3\u5ddd\u56fd\u9053\u4e8b\u52d9\u6240","boring_xml_url":47,"boring_view_url":1,"soilmap_view_url":null,"soiltest_xml_url":47,"soiltest_view_url":47},{"id":357686,"code":"NGIC202004268-0014","latitude":"35.653105555556","longitude":"138.61954166667","source_code":"","project_name":"","survey_name":"R1\u65b0\u5c71\u68a8\u74b0\u72b6\u9053\u8def\u5730\u8cea\u8abf\u67fb\u696d\u52d9","client_name":"\u56fd\u571f\u4ea4\u901a\u7701\u95a2\u6771\u5730\u65b9\u6574\u5099\u5c40\u7532\u5e9c\u6cb3\u5ddd\u56fd\u9053\u4e8b\u52d9\u6240","boring_xml_url":47,"boring_view_url":1,"soilmap_view_url":null,"soiltest_xml_url":47,"soiltest_view_url":47},{"id":357685,"code":"NGIC202004268-0013","latitude":"35.652888888889","longitude":"138.61903611111","source_code":"","project_name":"","survey_name":"R1\u65b0\u5c71\u68a8\u74b0\u72b6\u9053\u8def\u5730\u8cea\u8abf\u67fb\u696d\u52d9","client_name":"\u56fd\u571f\u4ea4\u901a\u7701\u95a2\u6771\u5730\u65b9\u6574\u5099\u5c40\u7532\u5e9c\u6cb3\u5ddd\u56fd\u9053\u4e8b\u52d9\u6240","boring_xml_url":47,"boring_view_url":1,"soilmap_view_url":null,"soiltest_xml_url":47,"soiltest_view_url":47},{"id":357684,"code":"NGIC202004268-0012","latitude":"35.652769444444","longitude":"138.61950555556","source_code":"","project_name":"","survey_name":"R1\u65b0\u5c71\u68a8\u74b0\u72b6\u9053\u8def\u5730\u8cea\u8abf\u67fb\u696d\u52d9","client_name":"\u56fd\u571f\u4ea4\u901a\u7701\u95a2\u6771\u5730\u65b9\u6574\u5099\u5c40\u7532\u5e9c\u6cb3\u5ddd\u56fd\u9053\u4e8b\u52d9\u6240","boring_xml_url":47,"boring_view_url":1,"soilmap_view_url":null,"soiltest_xml_url":47,"soiltest_view_url":47},{"id":357683,"code":"NGIC202004268-0011","latitude":"35.650836111111","longitude":"138.61938888889","source_code":"","project_name":"","survey_name":"R1\u65b0\u5c71\u68a8\u74b0\u72b6\u9053\u8def\u5730\u8cea\u8abf\u67fb\u696d\u52d9","client_name":"\u56fd\u571f\u4ea4\u901a\u7701\u95a2\u6771\u5730\u65b9\u6574\u5099\u5c40\u7532\u5e9c\u6cb3\u5ddd\u56fd\u9053\u4e8b\u52d9\u6240","boring_xml_url":47,"boring_view_url":1,"soilmap_view_url":null,"soiltest_xml_url":47,"soiltest_view_url":47},{"id":357682,"code":"NGIC202004268-0010","latitude":"35.650505555556","longitude":"138.61945277778","source_code":"","project_name":"","survey_name":"R1\u65b0\u5c71\u68a8\u74b0\u72b6\u9053\u8def\u5730\u8cea\u8abf\u67fb\u696d\u52d9","client_name":"\u56fd\u571f\u4ea4\u901a\u7701\u95a2\u6771\u5730\u65b9\u6574\u5099\u5c40\u7532\u5e9c\u6cb3\u5ddd\u56fd\u9053\u4e8b\u52d9\u6240","boring_xml_url":47,"boring_view_url":1,"soilmap_view_url":null,"soiltest_xml_url":47,"soiltest_view_url":47},{"id":357681,"code":"NGIC202004268-0009","latitude":"35.65025","longitude":"138.61945833333","source_code":"","project_name":"","survey_name":"R1\u65b0\u5c71\u68a8\u74b0\u72b6\u9053\u8def\u5730\u8cea\u8abf\u67fb\u696d\u52d9","client_name":"\u56fd\u571f\u4ea4\u901a\u7701\u95a2\u6771\u5730\u65b9\u6574\u5099\u5c40\u7532\u5e9c\u6cb3\u5ddd\u56fd\u9053\u4e8b\u52d9\u6240","boring_xml_url":47,"boring_view_url":1,"soilmap_view_url":null,"soiltest_xml_url":47,"soiltest_view_url":47},{"id":357680,"code":"NGIC202004268-0008","latitude":"35.647388888889","longitude":"138.62137222222","source_code":"","project_name":"","survey_name":"R1\u65b0\u5c71\u68a8\u74b0\u72b6\u9053\u8def\u5730\u8cea\u8abf\u67fb\u696d\u52d9","client_name":"\u56fd\u571f\u4ea4\u901a\u7701\u95a2\u6771\u5730\u65b9\u6574\u5099\u5c40\u7532\u5e9c\u6cb3\u5ddd\u56fd\u9053\u4e8b\u52d9\u6240","boring_xml_url":47,"boring_view_url":1,"soilmap_view_url":null,"soiltest_xml_url":47,"soiltest_view_url":47},{"id":357679,"code":"NGIC202004268-0007","latitude":"35.646961111111","longitude":"138.62203055556","source_code":"","project_name":"","survey_name":"R1\u65b0\u5c71\u68a8\u74b0\u72b6\u9053\u8def\u5730\u8cea\u8abf\u67fb\u696d\u52d9","client_name":"\u56fd\u571f\u4ea4\u901a\u7701\u95a2\u6771\u5730\u65b9\u6574\u5099\u5c40\u7532\u5e9c\u6cb3\u5ddd\u56fd\u9053\u4e8b\u52d9\u6240","boring_xml_url":47,"boring_view_url":1,"soilmap_view_url":null,"soiltest_xml_url":47,"soiltest_view_url":47},{"id":357678,"code":"NGIC202004268-0006","latitude":"35.647058333333","longitude":"138.62225833333","source_code":"","project_name":"","survey_name":"R1\u65b0\u5c71\u68a8\u74b0\u72b6\u9053\u8def\u5730\u8cea\u8abf\u67fb\u696d\u52d9","client_name":"\u56fd\u571f\u4ea4\u901a\u7701\u95a2\u6771\u5730\u65b9\u6574\u5099\u5c40\u7532\u5e9c\u6cb3\u5ddd\u56fd\u9053\u4e8b\u52d9\u6240","boring_xml_url":47,"boring_view_url":1,"soilmap_view_url":null,"soiltest_xml_url":47,"soiltest_view_url":47},{"id":357677,"code":"NGIC202004268-0005","latitude":"35.646283333333","longitude":"138.62258055556","source_code":"","project_name":"","survey_name":"R1\u65b0\u5c71\u68a8\u74b0\u72b6\u9053\u8def\u5730\u8cea\u8abf\u67fb\u696d\u52d9","client_name":"\u56fd\u571f\u4ea4\u901a\u7701\u95a2\u6771\u5730\u65b9\u6574\u5099\u5c40\u7532\u5e9c\u6cb3\u5ddd\u56fd\u9053\u4e8b\u52d9\u6240","boring_xml_url":47,"boring_view_url":1,"soilmap_view_url":null,"soiltest_xml_url":47,"soiltest_view_url":47},{"id":357676,"code":"NGIC202004268-0004","latitude":"35.645847222222","longitude":"138.622525","source_code":"","project_name":"","survey_name":"R1\u65b0\u5c71\u68a8\u74b0\u72b6\u9053\u8def\u5730\u8cea\u8abf\u67fb\u696d\u52d9","client_name":"\u56fd\u571f\u4ea4\u901a\u7701\u95a2\u6771\u5730\u65b9\u6574\u5099\u5c40\u7532\u5e9c\u6cb3\u5ddd\u56fd\u9053\u4e8b\u52d9\u6240","boring_xml_url":47,"boring_view_url":1,"soilmap_view_url":null,"soiltest_xml_url":47,"soiltest_view_url":47},{"id":357675,"code":"NGIC202004268-0003","latitude":"35.645216666667","longitude":"138.62303055556","source_code":"","project_name":"","survey_name":"R1\u65b0\u5c71\u68a8\u74b0\u72b6\u9053\u8def\u5730\u8cea\u8abf\u67fb\u696d\u52d9","client_name":"\u56fd\u571f\u4ea4\u901a\u7701\u95a2\u6771\u5730\u65b9\u6574\u5099\u5c40\u7532\u5e9c\u6cb3\u5ddd\u56fd\u9053\u4e8b\u52d9\u6240","boring_xml_url":47,"boring_view_url":1,"soilmap_view_url":null,"soiltest_xml_url":47,"soiltest_view_url":47},{"id":357674,"code":"NGIC202004268-0002","latitude":"35.644952777778","longitude":"138.62279722222","source_code":"","project_name":"","survey_name":"R1\u65b0\u5c71\u68a8\u74b0\u72b6\u9053\u8def\u5730\u8cea\u8abf\u67fb\u696d\u52d9","client_name":"\u56fd\u571f\u4ea4\u901a\u7701\u95a2\u6771\u5730\u65b9\u6574\u5099\u5c40\u7532\u5e9c\u6cb3\u5ddd\u56fd\u9053\u4e8b\u52d9\u6240","boring_xml_url":47,"boring_view_url":1,"soilmap_view_url":null,"soiltest_xml_url":47,"soiltest_view_url":47},{"id":357673,"code":"NGIC202004268-0001","latitude":"35.644380555556","longitude":"138.62321944444","source_code":"","project_name":"","survey_name":"R1\u65b0\u5c71\u68a8\u74b0\u72b6\u9053\u8def\u5730\u8cea\u8abf\u67fb\u696d\u52d9","client_name":"\u56fd\u571f\u4ea4\u901a\u7701\u95a2\u6771\u5730\u65b9\u6574\u5099\u5c40\u7532\u5e9c\u6cb3\u5ddd\u56fd\u9053\u4e8b\u52d9\u6240","boring_xml_url":47,"boring_view_url":1,"soilmap_view_url":null,"soiltest_xml_url":0,"soiltest_view_url":0},{"id":357670,"code":"NGIC202004253-0001","latitude":"34.375091666667","longitude":"131.14458333333","source_code":"","project_name":"","survey_name":"\u4ee4\u548c2\u5e74\u5ea6\u5c71\u53e3\u6cb3\u5ddd\u56fd\u9053\u4e8b\u52d9\u6240\u7ba1\u5185\u6a4b\u6881\u88dc\u4fee\u8a2d\u8a08\u4ed6\u696d\u52d9","client_name":"\u56fd\u571f\u4ea4\u901a\u7701\u4e2d\u56fd\u5730\u65b9\u6574\u5099\u5c40\u5c71\u53e3\u6cb3\u5ddd\u56fd\u9053\u4e8b\u52d9\u6240\u9053\u8def\u7ba1\u7406\u7b2c\u4e8c\u8ab2","boring_xml_url":47,"boring_view_url":1,"soilmap_view_url":null,"soiltest_xml_url":0,"soiltest_view_url":0},{"id":357663,"code":"NGIC202004238-0004","latitude":"33.337921583333","longitude":"130.52556102778","source_code":"","project_name":"\u4ee4\u548c2\u5e74\u5ea6\u798f\u5ca1\u56fd\u9053\u7ba1\u5185\u9632\u707d\u70b9\u691c\u5916\u696d\u52d9","survey_name":"\u4ee4\u548c2\u5e74\u5ea6\u798f\u5ca1\u56fd\u9053\u7ba1\u5185\u9632\u707d\u70b9\u691c\u5916\u696d\u52d9","client_name":"\u56fd\u571f\u4ea4\u901a\u7701\u4e5d\u5dde\u5730\u65b9\u6574\u5099\u5c40\u798f\u5ca1\u56fd\u9053\u4e8b\u52d9\u6240","boring_xml_url":47,"boring_view_url":1,"soilmap_view_url":null,"soiltest_xml_url":0,"soiltest_view_url":0},{"id":357662,"code":"NGIC202004238-0003","latitude":"33.631997194444","longitude":"130.51867386111","source_code":"","project_name":"\u4ee4\u548c2\u5e74\u5ea6\u798f\u5ca1\u56fd\u9053\u7ba1\u5185\u9632\u707d\u70b9\u691c\u5916\u696d\u52d9","survey_name":"\u4ee4\u548c2\u5e74\u5ea6\u798f\u5ca1\u56fd\u9053\u7ba1\u5185\u9632\u707d\u70b9\u691c\u5916\u696d\u52d9","client_name":"\u56fd\u571f\u4ea4\u901a\u7701\u4e5d\u5dde\u5730\u65b9\u6574\u5099\u5c40\u798f\u5ca1\u56fd\u9053\u4e8b\u52d9\u6240","boring_xml_url":47,"boring_view_url":1,"soilmap_view_url":null,"soiltest_xml_url":0,"soiltest_view_url":0},{"id":357661,"code":"NGIC202004238-0002","latitude":"33.626738388889","longitude":"130.49596166667","source_code":"","project_name":"\u4ee4\u548c2\u5e74\u5ea6\u798f\u5ca1\u56fd\u9053\u7ba1\u5185\u9632\u707d\u70b9\u691c\u5916\u696d\u52d9","survey_name":"\u4ee4\u548c2\u5e74\u5ea6\u798f\u5ca1\u56fd\u9053\u7ba1\u5185\u9632\u707d\u70b9\u691c\u5916\u696d\u52d9","client_name":"\u56fd\u571f\u4ea4\u901a\u7701\u4e5d\u5dde\u5730\u65b9\u6574\u5099\u5c40\u798f\u5ca1\u56fd\u9053\u4e8b\u52d9\u6240","boring_xml_url":47,"boring_view_url":1,"soilmap_view_url":null,"soiltest_xml_url":0,"soiltest_view_url":0},{"id":357660,"code":"NGIC202004238-0001","latitude":"33.626802138889","longitude":"130.49589772222","source_code":"","project_name":"\u4ee4\u548c2\u5e74\u5ea6\u798f\u5ca1\u56fd\u9053\u7ba1\u5185\u9632\u707d\u70b9\u691c\u5916\u696d\u52d9","survey_name":"\u4ee4\u548c2\u5e74\u5ea6\u798f\u5ca1\u56fd\u9053\u7ba1\u5185\u9632\u707d\u70b9\u691c\u5916\u696d\u52d9","client_name":"\u56fd\u571f\u4ea4\u901a\u7701\u4e5d\u5dde\u5730\u65b9\u6574\u5099\u5c40\u798f\u5ca1\u56fd\u9053\u4e8b\u52d9\u6240","boring_xml_url":47,"boring_view_url":1,"soilmap_view_url":null,"soiltest_xml_url":0,"soiltest_view_url":0},{"id":357654,"code":"NGIC202004228-0005","latitude":"34.262764166667","longitude":"132.1383385","source_code":"","project_name":"","survey_name":"\u4ee4\u548c2\u5e74\u5ea6\u5f25\u6804\u30c0\u30e0\u91dc\u30f6\u539f\u5730\u533a\u6cd5\u9762\u8a73\u7d30\u8a2d\u8a08\u696d\u52d9","client_name":"\u56fd\u571f\u4ea4\u901a\u7701\u4e2d\u56fd\u5730\u65b9\u6574\u5099\u5c40\u5f25\u6804\u30c0\u30e0\u7ba1\u7406\u6240","boring_xml_url":47,"boring_view_url":1,"soilmap_view_url":null,"soiltest_xml_url":0,"soiltest_view_url":0},{"id":357653,"code":"NGIC202004228-0004","latitude":"34.262916666667","longitude":"132.138075","source_code":"","project_name":"","survey_name":"\u4ee4\u548c2\u5e74\u5ea6\u5f25\u6804\u30c0\u30e0\u91dc\u30f6\u539f\u5730\u533a\u6cd5\u9762\u8a73\u7d30\u8a2d\u8a08\u696d\u52d9","client_name":"\u56fd\u571f\u4ea4\u901a\u7701\u4e2d\u56fd\u5730\u65b9\u6574\u5099\u5c40\u5f25\u6804\u30c0\u30e0\u7ba1\u7406\u6240","boring_xml_url":47,"boring_view_url":1,"soilmap_view_url":null,"soiltest_xml_url":0,"soiltest_view_url":0}]}}