{"header":{"xyz":{"source":[],"mosaic":false},"page":1965,"raw":{"soiltest_result":"0","bbox":"57.598333,109.544722,1.933333,163.806111","page":"1965"},"conditions":{"soiltest_result":0,"north":57.598333,"west":109.544722,"south":1.933333,"east":163.806111},"success":true,"message":""},"data":{"meta":{"total":212844,"page":1965,"pages":7095,"count":30},"values":[{"id":357583,"code":"NGIC202004340-0013","latitude":"33.873652777778","longitude":"136.07171666667","source_code":"","project_name":"","survey_name":"\u4ee4\u548c2\u5e74\u5ea6\u7d00\u52e2\u56fd\u9053\u7ba1\u5185\u5730\u8cea\u8abf\u67fb\u696d\u52d9","client_name":"\u56fd\u571f\u4ea4\u901a\u7701\u4e2d\u90e8\u5730\u65b9\u6574\u5099\u5c40\u7d00\u52e2\u56fd\u9053\u4e8b\u52d9\u6240","boring_xml_url":47,"boring_view_url":1,"soilmap_view_url":null,"soiltest_xml_url":47,"soiltest_view_url":47},{"id":357582,"code":"NGIC202004340-0012","latitude":"33.872716666667","longitude":"136.07161666667","source_code":"","project_name":"","survey_name":"\u4ee4\u548c2\u5e74\u5ea6\u7d00\u52e2\u56fd\u9053\u7ba1\u5185\u5730\u8cea\u8abf\u67fb\u696d\u52d9","client_name":"\u56fd\u571f\u4ea4\u901a\u7701\u4e2d\u90e8\u5730\u65b9\u6574\u5099\u5c40\u7d00\u52e2\u56fd\u9053\u4e8b\u52d9\u6240","boring_xml_url":47,"boring_view_url":1,"soilmap_view_url":null,"soiltest_xml_url":47,"soiltest_view_url":47},{"id":357581,"code":"NGIC202004340-0011","latitude":"33.872411111111","longitude":"136.070875","source_code":"","project_name":"","survey_name":"\u4ee4\u548c2\u5e74\u5ea6\u7d00\u52e2\u56fd\u9053\u7ba1\u5185\u5730\u8cea\u8abf\u67fb\u696d\u52d9","client_name":"\u56fd\u571f\u4ea4\u901a\u7701\u4e2d\u90e8\u5730\u65b9\u6574\u5099\u5c40\u7d00\u52e2\u56fd\u9053\u4e8b\u52d9\u6240","boring_xml_url":47,"boring_view_url":1,"soilmap_view_url":null,"soiltest_xml_url":47,"soiltest_view_url":47},{"id":357580,"code":"NGIC202004340-0010","latitude":"33.871458333333","longitude":"136.07061666667","source_code":"","project_name":"","survey_name":"\u4ee4\u548c2\u5e74\u5ea6\u7d00\u52e2\u56fd\u9053\u7ba1\u5185\u5730\u8cea\u8abf\u67fb\u696d\u52d9","client_name":"\u56fd\u571f\u4ea4\u901a\u7701\u4e2d\u90e8\u5730\u65b9\u6574\u5099\u5c40\u7d00\u52e2\u56fd\u9053\u4e8b\u52d9\u6240","boring_xml_url":47,"boring_view_url":1,"soilmap_view_url":null,"soiltest_xml_url":0,"soiltest_view_url":0},{"id":357579,"code":"NGIC202004340-0009","latitude":"33.870633333333","longitude":"136.07048333333","source_code":"","project_name":"","survey_name":"\u4ee4\u548c2\u5e74\u5ea6\u7d00\u52e2\u56fd\u9053\u7ba1\u5185\u5730\u8cea\u8abf\u67fb\u696d\u52d9","client_name":"\u56fd\u571f\u4ea4\u901a\u7701\u4e2d\u90e8\u5730\u65b9\u6574\u5099\u5c40\u7d00\u52e2\u56fd\u9053\u4e8b\u52d9\u6240","boring_xml_url":47,"boring_view_url":1,"soilmap_view_url":null,"soiltest_xml_url":47,"soiltest_view_url":47},{"id":357578,"code":"NGIC202004340-0008","latitude":"33.867075","longitude":"136.06986944444","source_code":"","project_name":"","survey_name":"\u4ee4\u548c2\u5e74\u5ea6\u7d00\u52e2\u56fd\u9053\u7ba1\u5185\u5730\u8cea\u8abf\u67fb\u696d\u52d9","client_name":"\u56fd\u571f\u4ea4\u901a\u7701\u4e2d\u90e8\u5730\u65b9\u6574\u5099\u5c40\u7d00\u52e2\u56fd\u9053\u4e8b\u52d9\u6240","boring_xml_url":47,"boring_view_url":1,"soilmap_view_url":null,"soiltest_xml_url":0,"soiltest_view_url":0},{"id":357577,"code":"NGIC202004340-0007","latitude":"33.878425","longitude":"136.07135277778","source_code":"","project_name":"","survey_name":"\u4ee4\u548c2\u5e74\u5ea6\u7d00\u52e2\u56fd\u9053\u7ba1\u5185\u5730\u8cea\u8abf\u67fb\u696d\u52d9","client_name":"\u56fd\u571f\u4ea4\u901a\u7701\u4e2d\u90e8\u5730\u65b9\u6574\u5099\u5c40\u7d00\u52e2\u56fd\u9053\u4e8b\u52d9\u6240","boring_xml_url":47,"boring_view_url":1,"soilmap_view_url":null,"soiltest_xml_url":0,"soiltest_view_url":0},{"id":357576,"code":"NGIC202004340-0006","latitude":"33.878680555556","longitude":"136.07148888889","source_code":"","project_name":"","survey_name":"\u4ee4\u548c2\u5e74\u5ea6\u7d00\u52e2\u56fd\u9053\u7ba1\u5185\u5730\u8cea\u8abf\u67fb\u696d\u52d9","client_name":"\u56fd\u571f\u4ea4\u901a\u7701\u4e2d\u90e8\u5730\u65b9\u6574\u5099\u5c40\u7d00\u52e2\u56fd\u9053\u4e8b\u52d9\u6240","boring_xml_url":47,"boring_view_url":1,"soilmap_view_url":null,"soiltest_xml_url":0,"soiltest_view_url":0},{"id":357575,"code":"NGIC202004340-0005","latitude":"33.879319444444","longitude":"136.07158055556","source_code":"","project_name":"","survey_name":"\u4ee4\u548c2\u5e74\u5ea6\u7d00\u52e2\u56fd\u9053\u7ba1\u5185\u5730\u8cea\u8abf\u67fb\u696d\u52d9","client_name":"\u56fd\u571f\u4ea4\u901a\u7701\u4e2d\u90e8\u5730\u65b9\u6574\u5099\u5c40\u7d00\u52e2\u56fd\u9053\u4e8b\u52d9\u6240","boring_xml_url":47,"boring_view_url":1,"soilmap_view_url":null,"soiltest_xml_url":0,"soiltest_view_url":0},{"id":357574,"code":"NGIC202004340-0004","latitude":"33.881502777778","longitude":"136.07235555556","source_code":"","project_name":"","survey_name":"\u4ee4\u548c2\u5e74\u5ea6\u7d00\u52e2\u56fd\u9053\u7ba1\u5185\u5730\u8cea\u8abf\u67fb\u696d\u52d9","client_name":"\u56fd\u571f\u4ea4\u901a\u7701\u4e2d\u90e8\u5730\u65b9\u6574\u5099\u5c40\u7d00\u52e2\u56fd\u9053\u4e8b\u52d9\u6240","boring_xml_url":47,"boring_view_url":1,"soilmap_view_url":null,"soiltest_xml_url":0,"soiltest_view_url":0},{"id":357573,"code":"NGIC202004340-0003","latitude":"33.981963888889","longitude":"136.10733888889","source_code":"","project_name":"","survey_name":"\u4ee4\u548c2\u5e74\u5ea6\u7d00\u52e2\u56fd\u9053\u7ba1\u5185\u5730\u8cea\u8abf\u67fb\u696d\u52d9","client_name":"\u56fd\u571f\u4ea4\u901a\u7701\u4e2d\u90e8\u5730\u65b9\u6574\u5099\u5c40\u7d00\u52e2\u56fd\u9053\u4e8b\u52d9\u6240","boring_xml_url":47,"boring_view_url":1,"soilmap_view_url":null,"soiltest_xml_url":0,"soiltest_view_url":0},{"id":357572,"code":"NGIC202004340-0002","latitude":"33.98225","longitude":"136.10754722222","source_code":"","project_name":"","survey_name":"\u4ee4\u548c2\u5e74\u5ea6\u7d00\u52e2\u56fd\u9053\u7ba1\u5185\u5730\u8cea\u8abf\u67fb\u696d\u52d9","client_name":"\u56fd\u571f\u4ea4\u901a\u7701\u4e2d\u90e8\u5730\u65b9\u6574\u5099\u5c40\u7d00\u52e2\u56fd\u9053\u4e8b\u52d9\u6240","boring_xml_url":47,"boring_view_url":1,"soilmap_view_url":null,"soiltest_xml_url":0,"soiltest_view_url":0},{"id":357571,"code":"NGIC202004340-0001","latitude":"33.982527777778","longitude":"136.10766388889","source_code":"","project_name":"","survey_name":"\u4ee4\u548c2\u5e74\u5ea6\u7d00\u52e2\u56fd\u9053\u7ba1\u5185\u5730\u8cea\u8abf\u67fb\u696d\u52d9","client_name":"\u56fd\u571f\u4ea4\u901a\u7701\u4e2d\u90e8\u5730\u65b9\u6574\u5099\u5c40\u7d00\u52e2\u56fd\u9053\u4e8b\u52d9\u6240","boring_xml_url":47,"boring_view_url":1,"soilmap_view_url":null,"soiltest_xml_url":0,"soiltest_view_url":0},{"id":357570,"code":"NGIC202004183-0016","latitude":"33.342669444444","longitude":"129.6656","source_code":"","project_name":"","survey_name":"\u4ee4\u548c2\u5e74\u5ea6\u6c5f\u8fce2\u53f7\u30c8\u30f3\u30cd\u30eb\u5916\u5730\u8cea\u8abf\u67fb\u696d\u52d9","client_name":"\u56fd\u571f\u4ea4\u901a\u7701\u4e5d\u5dde\u5730\u65b9\u6574\u5099\u5c40\u9577\u5d0e\u6cb3\u5ddd\u56fd\u9053\u4e8b\u52d9\u6240","boring_xml_url":47,"boring_view_url":1,"soilmap_view_url":null,"soiltest_xml_url":0,"soiltest_view_url":0},{"id":357569,"code":"NGIC202004183-0015","latitude":"33.307147222222","longitude":"129.64210555556","source_code":"","project_name":"","survey_name":"\u4ee4\u548c2\u5e74\u5ea6\u6c5f\u8fce2\u53f7\u30c8\u30f3\u30cd\u30eb\u5916\u5730\u8cea\u8abf\u67fb\u696d\u52d9","client_name":"\u56fd\u571f\u4ea4\u901a\u7701\u4e5d\u5dde\u5730\u65b9\u6574\u5099\u5c40\u9577\u5d0e\u6cb3\u5ddd\u56fd\u9053\u4e8b\u52d9\u6240","boring_xml_url":47,"boring_view_url":1,"soilmap_view_url":null,"soiltest_xml_url":0,"soiltest_view_url":0},{"id":357568,"code":"NGIC202004183-0014","latitude":"33.307336111111","longitude":"129.64205277778","source_code":"","project_name":"","survey_name":"\u4ee4\u548c2\u5e74\u5ea6\u6c5f\u8fce2\u53f7\u30c8\u30f3\u30cd\u30eb\u5916\u5730\u8cea\u8abf\u67fb\u696d\u52d9","client_name":"\u56fd\u571f\u4ea4\u901a\u7701\u4e5d\u5dde\u5730\u65b9\u6574\u5099\u5c40\u9577\u5d0e\u6cb3\u5ddd\u56fd\u9053\u4e8b\u52d9\u6240","boring_xml_url":47,"boring_view_url":1,"soilmap_view_url":null,"soiltest_xml_url":0,"soiltest_view_url":0},{"id":357567,"code":"NGIC202004183-0013","latitude":"33.297588888889","longitude":"129.63535833333","source_code":"","project_name":"","survey_name":"\u4ee4\u548c2\u5e74\u5ea6\u6c5f\u8fce2\u53f7\u30c8\u30f3\u30cd\u30eb\u5916\u5730\u8cea\u8abf\u67fb\u696d\u52d9","client_name":"\u56fd\u571f\u4ea4\u901a\u7701\u4e5d\u5dde\u5730\u65b9\u6574\u5099\u5c40\u9577\u5d0e\u6cb3\u5ddd\u56fd\u9053\u4e8b\u52d9\u6240","boring_xml_url":47,"boring_view_url":1,"soilmap_view_url":null,"soiltest_xml_url":0,"soiltest_view_url":0},{"id":357566,"code":"NGIC202004183-0012","latitude":"33.298483333333","longitude":"129.63543611111","source_code":"","project_name":"","survey_name":"\u4ee4\u548c2\u5e74\u5ea6\u6c5f\u8fce2\u53f7\u30c8\u30f3\u30cd\u30eb\u5916\u5730\u8cea\u8abf\u67fb\u696d\u52d9","client_name":"\u56fd\u571f\u4ea4\u901a\u7701\u4e5d\u5dde\u5730\u65b9\u6574\u5099\u5c40\u9577\u5d0e\u6cb3\u5ddd\u56fd\u9053\u4e8b\u52d9\u6240","boring_xml_url":47,"boring_view_url":1,"soilmap_view_url":null,"soiltest_xml_url":0,"soiltest_view_url":0},{"id":357565,"code":"NGIC202004183-0011","latitude":"33.298722222222","longitude":"129.63539444444","source_code":"","project_name":"","survey_name":"\u4ee4\u548c2\u5e74\u5ea6\u6c5f\u8fce2\u53f7\u30c8\u30f3\u30cd\u30eb\u5916\u5730\u8cea\u8abf\u67fb\u696d\u52d9","client_name":"\u56fd\u571f\u4ea4\u901a\u7701\u4e5d\u5dde\u5730\u65b9\u6574\u5099\u5c40\u9577\u5d0e\u6cb3\u5ddd\u56fd\u9053\u4e8b\u52d9\u6240","boring_xml_url":47,"boring_view_url":1,"soilmap_view_url":null,"soiltest_xml_url":0,"soiltest_view_url":0},{"id":357564,"code":"NGIC202004183-0010","latitude":"33.299313888889","longitude":"129.63593888889","source_code":"","project_name":"","survey_name":"\u4ee4\u548c2\u5e74\u5ea6\u6c5f\u8fce2\u53f7\u30c8\u30f3\u30cd\u30eb\u5916\u5730\u8cea\u8abf\u67fb\u696d\u52d9","client_name":"\u56fd\u571f\u4ea4\u901a\u7701\u4e5d\u5dde\u5730\u65b9\u6574\u5099\u5c40\u9577\u5d0e\u6cb3\u5ddd\u56fd\u9053\u4e8b\u52d9\u6240","boring_xml_url":47,"boring_view_url":1,"soilmap_view_url":null,"soiltest_xml_url":0,"soiltest_view_url":0},{"id":357563,"code":"NGIC202004183-0009","latitude":"33.303538888889","longitude":"129.64015833333","source_code":"","project_name":"","survey_name":"\u4ee4\u548c2\u5e74\u5ea6\u6c5f\u8fce2\u53f7\u30c8\u30f3\u30cd\u30eb\u5916\u5730\u8cea\u8abf\u67fb\u696d\u52d9","client_name":"\u56fd\u571f\u4ea4\u901a\u7701\u4e5d\u5dde\u5730\u65b9\u6574\u5099\u5c40\u9577\u5d0e\u6cb3\u5ddd\u56fd\u9053\u4e8b\u52d9\u6240","boring_xml_url":47,"boring_view_url":1,"soilmap_view_url":null,"soiltest_xml_url":0,"soiltest_view_url":0},{"id":357562,"code":"NGIC202004183-0008","latitude":"33.303322222222","longitude":"129.63972222222","source_code":"","project_name":"","survey_name":"\u4ee4\u548c2\u5e74\u5ea6\u6c5f\u8fce2\u53f7\u30c8\u30f3\u30cd\u30eb\u5916\u5730\u8cea\u8abf\u67fb\u696d\u52d9","client_name":"\u56fd\u571f\u4ea4\u901a\u7701\u4e5d\u5dde\u5730\u65b9\u6574\u5099\u5c40\u9577\u5d0e\u6cb3\u5ddd\u56fd\u9053\u4e8b\u52d9\u6240","boring_xml_url":47,"boring_view_url":1,"soilmap_view_url":null,"soiltest_xml_url":0,"soiltest_view_url":0},{"id":357561,"code":"NGIC202004183-0007","latitude":"33.303202777778","longitude":"129.63986944444","source_code":"","project_name":"","survey_name":"\u4ee4\u548c2\u5e74\u5ea6\u6c5f\u8fce2\u53f7\u30c8\u30f3\u30cd\u30eb\u5916\u5730\u8cea\u8abf\u67fb\u696d\u52d9","client_name":"\u56fd\u571f\u4ea4\u901a\u7701\u4e5d\u5dde\u5730\u65b9\u6574\u5099\u5c40\u9577\u5d0e\u6cb3\u5ddd\u56fd\u9053\u4e8b\u52d9\u6240","boring_xml_url":47,"boring_view_url":1,"soilmap_view_url":null,"soiltest_xml_url":0,"soiltest_view_url":0},{"id":357560,"code":"NGIC202004183-0006","latitude":"33.303708333333","longitude":"129.640475","source_code":"","project_name":"","survey_name":"\u4ee4\u548c2\u5e74\u5ea6\u6c5f\u8fce2\u53f7\u30c8\u30f3\u30cd\u30eb\u5916\u5730\u8cea\u8abf\u67fb\u696d\u52d9","client_name":"\u56fd\u571f\u4ea4\u901a\u7701\u4e5d\u5dde\u5730\u65b9\u6574\u5099\u5c40\u9577\u5d0e\u6cb3\u5ddd\u56fd\u9053\u4e8b\u52d9\u6240","boring_xml_url":47,"boring_view_url":1,"soilmap_view_url":null,"soiltest_xml_url":0,"soiltest_view_url":0},{"id":357559,"code":"NGIC202004183-0005","latitude":"33.304713888889","longitude":"129.64041111111","source_code":"","project_name":"","survey_name":"\u4ee4\u548c2\u5e74\u5ea6\u6c5f\u8fce2\u53f7\u30c8\u30f3\u30cd\u30eb\u5916\u5730\u8cea\u8abf\u67fb\u696d\u52d9","client_name":"\u56fd\u571f\u4ea4\u901a\u7701\u4e5d\u5dde\u5730\u65b9\u6574\u5099\u5c40\u9577\u5d0e\u6cb3\u5ddd\u56fd\u9053\u4e8b\u52d9\u6240","boring_xml_url":47,"boring_view_url":1,"soilmap_view_url":null,"soiltest_xml_url":0,"soiltest_view_url":0},{"id":357558,"code":"NGIC202004183-0004","latitude":"33.304680555556","longitude":"129.64099722222","source_code":"","project_name":"","survey_name":"\u4ee4\u548c2\u5e74\u5ea6\u6c5f\u8fce2\u53f7\u30c8\u30f3\u30cd\u30eb\u5916\u5730\u8cea\u8abf\u67fb\u696d\u52d9","client_name":"\u56fd\u571f\u4ea4\u901a\u7701\u4e5d\u5dde\u5730\u65b9\u6574\u5099\u5c40\u9577\u5d0e\u6cb3\u5ddd\u56fd\u9053\u4e8b\u52d9\u6240","boring_xml_url":47,"boring_view_url":1,"soilmap_view_url":null,"soiltest_xml_url":0,"soiltest_view_url":0},{"id":357557,"code":"NGIC202004183-0003","latitude":"33.305477777778","longitude":"129.64175","source_code":"","project_name":"","survey_name":"\u4ee4\u548c2\u5e74\u5ea6\u6c5f\u8fce2\u53f7\u30c8\u30f3\u30cd\u30eb\u5916\u5730\u8cea\u8abf\u67fb\u696d\u52d9","client_name":"\u56fd\u571f\u4ea4\u901a\u7701\u4e5d\u5dde\u5730\u65b9\u6574\u5099\u5c40\u9577\u5d0e\u6cb3\u5ddd\u56fd\u9053\u4e8b\u52d9\u6240","boring_xml_url":47,"boring_view_url":1,"soilmap_view_url":null,"soiltest_xml_url":0,"soiltest_view_url":0},{"id":357556,"code":"NGIC202004183-0002","latitude":"33.306366666667","longitude":"129.64226666667","source_code":"","project_name":"","survey_name":"\u4ee4\u548c2\u5e74\u5ea6\u6c5f\u8fce2\u53f7\u30c8\u30f3\u30cd\u30eb\u5916\u5730\u8cea\u8abf\u67fb\u696d\u52d9","client_name":"\u56fd\u571f\u4ea4\u901a\u7701\u4e5d\u5dde\u5730\u65b9\u6574\u5099\u5c40\u9577\u5d0e\u6cb3\u5ddd\u56fd\u9053\u4e8b\u52d9\u6240","boring_xml_url":47,"boring_view_url":1,"soilmap_view_url":null,"soiltest_xml_url":0,"soiltest_view_url":0},{"id":357555,"code":"NGIC202004183-0001","latitude":"33.306683333333","longitude":"129.64241388889","source_code":"","project_name":"","survey_name":"\u4ee4\u548c2\u5e74\u5ea6\u6c5f\u8fce2\u53f7\u30c8\u30f3\u30cd\u30eb\u5916\u5730\u8cea\u8abf\u67fb\u696d\u52d9","client_name":"\u56fd\u571f\u4ea4\u901a\u7701\u4e5d\u5dde\u5730\u65b9\u6574\u5099\u5c40\u9577\u5d0e\u6cb3\u5ddd\u56fd\u9053\u4e8b\u52d9\u6240","boring_xml_url":47,"boring_view_url":1,"soilmap_view_url":null,"soiltest_xml_url":0,"soiltest_view_url":0},{"id":357554,"code":"NGIC202004181-0003","latitude":"32.911132777778","longitude":"130.02917080556","source_code":"","project_name":"\n      ","survey_name":"\u4ee4\u548c2\u5e74\u5ea6\u672c\u660e\u5ddd\u30c0\u30e0\u5de6\u5cb8\u90e8\u5730\u8cea\u8abf\u67fb\u696d\u52d9","client_name":"\u56fd\u571f\u4ea4\u901a\u7701\u4e5d\u5dde\u5730\u65b9\u6574\u5099\u5c40\u9577\u5d0e\u6cb3\u5ddd\u56fd\u9053\u4e8b\u52d9\u6240","boring_xml_url":47,"boring_view_url":1,"soilmap_view_url":null,"soiltest_xml_url":0,"soiltest_view_url":0}]}}