{"header":{"xyz":{"source":[],"mosaic":false},"page":1970,"raw":{"soiltest_result":"0","bbox":"57.598333,109.544722,1.933333,163.806111","page":"1970"},"conditions":{"soiltest_result":0,"north":57.598333,"west":109.544722,"south":1.933333,"east":163.806111},"success":true,"message":""},"data":{"meta":{"total":212844,"page":1970,"pages":7095,"count":30},"values":[{"id":357198,"code":"NGIC202004363-0013","latitude":"35.147673666667","longitude":"137.84887172222","source_code":"","project_name":"","survey_name":"\u4ee4\u548c2\u5e74\u5ea6\u6c34\u7aaa\u5730\u533a\u5730\u8cea\u8abf\u67fb\u696d\u52d9","client_name":"\u56fd\u571f\u4ea4\u901a\u7701\u4e2d\u90e8\u5730\u65b9\u6574\u5099\u5c40\u6d5c\u677e\u6cb3\u5ddd\u56fd\u9053\u4e8b\u52d9\u6240","boring_xml_url":47,"boring_view_url":1,"soilmap_view_url":null,"soiltest_xml_url":0,"soiltest_view_url":0},{"id":357197,"code":"NGIC202004363-0012","latitude":"35.147881611111","longitude":"137.84899488889","source_code":"","project_name":"","survey_name":"\u4ee4\u548c2\u5e74\u5ea6\u6c34\u7aaa\u5730\u533a\u5730\u8cea\u8abf\u67fb\u696d\u52d9","client_name":"\u56fd\u571f\u4ea4\u901a\u7701\u4e2d\u90e8\u5730\u65b9\u6574\u5099\u5c40\u6d5c\u677e\u6cb3\u5ddd\u56fd\u9053\u4e8b\u52d9\u6240","boring_xml_url":47,"boring_view_url":1,"soilmap_view_url":null,"soiltest_xml_url":0,"soiltest_view_url":0},{"id":357196,"code":"NGIC202004363-0011","latitude":"35.148107222222","longitude":"137.84912197222","source_code":"","project_name":"","survey_name":"\u4ee4\u548c2\u5e74\u5ea6\u6c34\u7aaa\u5730\u533a\u5730\u8cea\u8abf\u67fb\u696d\u52d9","client_name":"\u56fd\u571f\u4ea4\u901a\u7701\u4e2d\u90e8\u5730\u65b9\u6574\u5099\u5c40\u6d5c\u677e\u6cb3\u5ddd\u56fd\u9053\u4e8b\u52d9\u6240","boring_xml_url":47,"boring_view_url":1,"soilmap_view_url":null,"soiltest_xml_url":0,"soiltest_view_url":0},{"id":357195,"code":"NGIC202004363-0010","latitude":"35.148249777778","longitude":"137.84920225","source_code":"","project_name":"","survey_name":"\u4ee4\u548c2\u5e74\u5ea6\u6c34\u7aaa\u5730\u533a\u5730\u8cea\u8abf\u67fb\u696d\u52d9","client_name":"\u56fd\u571f\u4ea4\u901a\u7701\u4e2d\u90e8\u5730\u65b9\u6574\u5099\u5c40\u6d5c\u677e\u6cb3\u5ddd\u56fd\u9053\u4e8b\u52d9\u6240","boring_xml_url":47,"boring_view_url":1,"soilmap_view_url":null,"soiltest_xml_url":0,"soiltest_view_url":0},{"id":357194,"code":"NGIC202004363-0009","latitude":"35.163973527778","longitude":"137.85806027778","source_code":"","project_name":"","survey_name":"\u4ee4\u548c2\u5e74\u5ea6\u6c34\u7aaa\u5730\u533a\u5730\u8cea\u8abf\u67fb\u696d\u52d9","client_name":"\u56fd\u571f\u4ea4\u901a\u7701\u4e2d\u90e8\u5730\u65b9\u6574\u5099\u5c40\u6d5c\u677e\u6cb3\u5ddd\u56fd\u9053\u4e8b\u52d9\u6240","boring_xml_url":47,"boring_view_url":1,"soilmap_view_url":null,"soiltest_xml_url":0,"soiltest_view_url":0},{"id":357193,"code":"NGIC202004363-0008","latitude":"35.164063527778","longitude":"137.85811097222","source_code":"","project_name":"","survey_name":"\u4ee4\u548c2\u5e74\u5ea6\u6c34\u7aaa\u5730\u533a\u5730\u8cea\u8abf\u67fb\u696d\u52d9","client_name":"\u56fd\u571f\u4ea4\u901a\u7701\u4e2d\u90e8\u5730\u65b9\u6574\u5099\u5c40\u6d5c\u677e\u6cb3\u5ddd\u56fd\u9053\u4e8b\u52d9\u6240","boring_xml_url":47,"boring_view_url":1,"soilmap_view_url":null,"soiltest_xml_url":0,"soiltest_view_url":0},{"id":357192,"code":"NGIC202004363-0007","latitude":"35.164398944444","longitude":"137.8583","source_code":"","project_name":"","survey_name":"\u4ee4\u548c2\u5e74\u5ea6\u6c34\u7aaa\u5730\u533a\u5730\u8cea\u8abf\u67fb\u696d\u52d9","client_name":"\u56fd\u571f\u4ea4\u901a\u7701\u4e2d\u90e8\u5730\u65b9\u6574\u5099\u5c40\u6d5c\u677e\u6cb3\u5ddd\u56fd\u9053\u4e8b\u52d9\u6240","boring_xml_url":47,"boring_view_url":1,"soilmap_view_url":null,"soiltest_xml_url":0,"soiltest_view_url":0},{"id":357191,"code":"NGIC202004363-0006","latitude":"35.164587111111","longitude":"137.858406","source_code":"","project_name":"","survey_name":"\u4ee4\u548c2\u5e74\u5ea6\u6c34\u7aaa\u5730\u533a\u5730\u8cea\u8abf\u67fb\u696d\u52d9","client_name":"\u56fd\u571f\u4ea4\u901a\u7701\u4e2d\u90e8\u5730\u65b9\u6574\u5099\u5c40\u6d5c\u677e\u6cb3\u5ddd\u56fd\u9053\u4e8b\u52d9\u6240","boring_xml_url":47,"boring_view_url":1,"soilmap_view_url":null,"soiltest_xml_url":0,"soiltest_view_url":0},{"id":357190,"code":"NGIC202004363-0005","latitude":"35.165040555556","longitude":"137.85668019444","source_code":"","project_name":"","survey_name":"\u4ee4\u548c2\u5e74\u5ea6\u6c34\u7aaa\u5730\u533a\u5730\u8cea\u8abf\u67fb\u696d\u52d9","client_name":"\u56fd\u571f\u4ea4\u901a\u7701\u4e2d\u90e8\u5730\u65b9\u6574\u5099\u5c40\u6d5c\u677e\u6cb3\u5ddd\u56fd\u9053\u4e8b\u52d9\u6240","boring_xml_url":47,"boring_view_url":1,"soilmap_view_url":null,"soiltest_xml_url":0,"soiltest_view_url":0},{"id":357189,"code":"NGIC202004363-0004","latitude":"35.164700694444","longitude":"137.85662572222","source_code":"","project_name":"","survey_name":"\u4ee4\u548c2\u5e74\u5ea6\u6c34\u7aaa\u5730\u533a\u5730\u8cea\u8abf\u67fb\u696d\u52d9","client_name":"\u56fd\u571f\u4ea4\u901a\u7701\u4e2d\u90e8\u5730\u65b9\u6574\u5099\u5c40\u6d5c\u677e\u6cb3\u5ddd\u56fd\u9053\u4e8b\u52d9\u6240","boring_xml_url":47,"boring_view_url":1,"soilmap_view_url":null,"soiltest_xml_url":0,"soiltest_view_url":0},{"id":357188,"code":"NGIC202004363-0003","latitude":"35.164298472222","longitude":"137.85720616667","source_code":"","project_name":"","survey_name":"\u4ee4\u548c2\u5e74\u5ea6\u6c34\u7aaa\u5730\u533a\u5730\u8cea\u8abf\u67fb\u696d\u52d9","client_name":"\u56fd\u571f\u4ea4\u901a\u7701\u4e2d\u90e8\u5730\u65b9\u6574\u5099\u5c40\u6d5c\u677e\u6cb3\u5ddd\u56fd\u9053\u4e8b\u52d9\u6240","boring_xml_url":47,"boring_view_url":1,"soilmap_view_url":null,"soiltest_xml_url":0,"soiltest_view_url":0},{"id":357187,"code":"NGIC202004363-0002","latitude":"35.164101444444","longitude":"137.85797066667","source_code":"","project_name":"","survey_name":"\u4ee4\u548c2\u5e74\u5ea6\u6c34\u7aaa\u5730\u533a\u5730\u8cea\u8abf\u67fb\u696d\u52d9","client_name":"\u56fd\u571f\u4ea4\u901a\u7701\u4e2d\u90e8\u5730\u65b9\u6574\u5099\u5c40\u6d5c\u677e\u6cb3\u5ddd\u56fd\u9053\u4e8b\u52d9\u6240","boring_xml_url":47,"boring_view_url":1,"soilmap_view_url":null,"soiltest_xml_url":0,"soiltest_view_url":0},{"id":357186,"code":"NGIC202004363-0001","latitude":"35.164583944444","longitude":"137.85827444444","source_code":"","project_name":"","survey_name":"\u4ee4\u548c2\u5e74\u5ea6\u6c34\u7aaa\u5730\u533a\u5730\u8cea\u8abf\u67fb\u696d\u52d9","client_name":"\u56fd\u571f\u4ea4\u901a\u7701\u4e2d\u90e8\u5730\u65b9\u6574\u5099\u5c40\u6d5c\u677e\u6cb3\u5ddd\u56fd\u9053\u4e8b\u52d9\u6240","boring_xml_url":47,"boring_view_url":1,"soilmap_view_url":null,"soiltest_xml_url":0,"soiltest_view_url":0},{"id":357182,"code":"NGIC202004235-0003","latitude":"34.821127777778","longitude":"138.10599722222","source_code":"","project_name":"","survey_name":"\u4ee4\u548c2\u5e74\u5ea6\u6d5c\u677e\u7ba1\u5185\u9632\u707d\u70b9\u691c\u696d\u52d9","client_name":"\u56fd\u571f\u4ea4\u901a\u7701\u4e2d\u90e8\u5730\u65b9\u6574\u5099\u5c40\u6d5c\u677e\u6cb3\u5ddd\u56fd\u9053\u4e8b\u52d9\u6240","boring_xml_url":47,"boring_view_url":1,"soilmap_view_url":null,"soiltest_xml_url":47,"soiltest_view_url":47},{"id":357181,"code":"NGIC202004235-0002","latitude":"34.821191666667","longitude":"138.10599444444","source_code":"","project_name":"","survey_name":"\u4ee4\u548c2\u5e74\u5ea6\u6d5c\u677e\u7ba1\u5185\u9632\u707d\u70b9\u691c\u696d\u52d9","client_name":"\u56fd\u571f\u4ea4\u901a\u7701\u4e2d\u90e8\u5730\u65b9\u6574\u5099\u5c40\u6d5c\u677e\u6cb3\u5ddd\u56fd\u9053\u4e8b\u52d9\u6240","boring_xml_url":47,"boring_view_url":1,"soilmap_view_url":null,"soiltest_xml_url":47,"soiltest_view_url":47},{"id":357180,"code":"NGIC202004235-0001","latitude":"34.821241666667","longitude":"138.10599166667","source_code":"","project_name":"","survey_name":"\u4ee4\u548c2\u5e74\u5ea6\u6d5c\u677e\u7ba1\u5185\u9632\u707d\u70b9\u691c\u696d\u52d9","client_name":"\u56fd\u571f\u4ea4\u901a\u7701\u4e2d\u90e8\u5730\u65b9\u6574\u5099\u5c40\u6d5c\u677e\u6cb3\u5ddd\u56fd\u9053\u4e8b\u52d9\u6240","boring_xml_url":47,"boring_view_url":1,"soilmap_view_url":null,"soiltest_xml_url":47,"soiltest_view_url":47},{"id":357175,"code":"NGIC202004086-0025","latitude":"34.806825","longitude":"135.813725","source_code":"","project_name":"","survey_name":"\u57ce\u967d\u4e95\u624b\u6728\u6d25\u5ddd\u30d0\u30a4\u30d1\u30b9\u591a\u8cc0\u5730\u533a\u5730\u8cea\u8abf\u67fb\u696d\u52d9","client_name":"\u56fd\u571f\u4ea4\u901a\u7701\u8fd1\u757f\u5730\u65b9\u6574\u5099\u5c40\u4eac\u90fd\u56fd\u9053\u4e8b\u52d9\u6240","boring_xml_url":47,"boring_view_url":1,"soilmap_view_url":null,"soiltest_xml_url":0,"soiltest_view_url":0},{"id":357174,"code":"NGIC202004086-0024","latitude":"34.807244444444","longitude":"135.81330277778","source_code":"","project_name":"","survey_name":"\u57ce\u967d\u4e95\u624b\u6728\u6d25\u5ddd\u30d0\u30a4\u30d1\u30b9\u591a\u8cc0\u5730\u533a\u5730\u8cea\u8abf\u67fb\u696d\u52d9","client_name":"\u56fd\u571f\u4ea4\u901a\u7701\u8fd1\u757f\u5730\u65b9\u6574\u5099\u5c40\u4eac\u90fd\u56fd\u9053\u4e8b\u52d9\u6240","boring_xml_url":47,"boring_view_url":1,"soilmap_view_url":null,"soiltest_xml_url":0,"soiltest_view_url":0},{"id":357173,"code":"NGIC202004086-0023","latitude":"34.807694444444","longitude":"135.81293055556","source_code":"","project_name":"","survey_name":"\u57ce\u967d\u4e95\u624b\u6728\u6d25\u5ddd\u30d0\u30a4\u30d1\u30b9\u591a\u8cc0\u5730\u533a\u5730\u8cea\u8abf\u67fb\u696d\u52d9","client_name":"\u56fd\u571f\u4ea4\u901a\u7701\u8fd1\u757f\u5730\u65b9\u6574\u5099\u5c40\u4eac\u90fd\u56fd\u9053\u4e8b\u52d9\u6240","boring_xml_url":47,"boring_view_url":1,"soilmap_view_url":null,"soiltest_xml_url":0,"soiltest_view_url":0},{"id":357172,"code":"NGIC202004086-0022","latitude":"34.809269444444","longitude":"135.81251944444","source_code":"","project_name":"","survey_name":"\u57ce\u967d\u4e95\u624b\u6728\u6d25\u5ddd\u30d0\u30a4\u30d1\u30b9\u591a\u8cc0\u5730\u533a\u5730\u8cea\u8abf\u67fb\u696d\u52d9","client_name":"\u56fd\u571f\u4ea4\u901a\u7701\u8fd1\u757f\u5730\u65b9\u6574\u5099\u5c40\u4eac\u90fd\u56fd\u9053\u4e8b\u52d9\u6240","boring_xml_url":47,"boring_view_url":1,"soilmap_view_url":null,"soiltest_xml_url":47,"soiltest_view_url":47},{"id":357171,"code":"NGIC202004086-0021","latitude":"34.809544444444","longitude":"135.81256944444","source_code":"","project_name":"","survey_name":"\u57ce\u967d\u4e95\u624b\u6728\u6d25\u5ddd\u30d0\u30a4\u30d1\u30b9\u591a\u8cc0\u5730\u533a\u5730\u8cea\u8abf\u67fb\u696d\u52d9","client_name":"\u56fd\u571f\u4ea4\u901a\u7701\u8fd1\u757f\u5730\u65b9\u6574\u5099\u5c40\u4eac\u90fd\u56fd\u9053\u4e8b\u52d9\u6240","boring_xml_url":47,"boring_view_url":1,"soilmap_view_url":null,"soiltest_xml_url":47,"soiltest_view_url":47},{"id":357170,"code":"NGIC202004086-0020","latitude":"34.809891666667","longitude":"135.81266666667","source_code":"","project_name":"","survey_name":"\u57ce\u967d\u4e95\u624b\u6728\u6d25\u5ddd\u30d0\u30a4\u30d1\u30b9\u591a\u8cc0\u5730\u533a\u5730\u8cea\u8abf\u67fb\u696d\u52d9","client_name":"\u56fd\u571f\u4ea4\u901a\u7701\u8fd1\u757f\u5730\u65b9\u6574\u5099\u5c40\u4eac\u90fd\u56fd\u9053\u4e8b\u52d9\u6240","boring_xml_url":47,"boring_view_url":1,"soilmap_view_url":null,"soiltest_xml_url":47,"soiltest_view_url":47},{"id":357169,"code":"NGIC202004086-0019","latitude":"34.811622222222","longitude":"135.81327777778","source_code":"","project_name":"","survey_name":"\u57ce\u967d\u4e95\u624b\u6728\u6d25\u5ddd\u30d0\u30a4\u30d1\u30b9\u591a\u8cc0\u5730\u533a\u5730\u8cea\u8abf\u67fb\u696d\u52d9","client_name":"\u56fd\u571f\u4ea4\u901a\u7701\u8fd1\u757f\u5730\u65b9\u6574\u5099\u5c40\u4eac\u90fd\u56fd\u9053\u4e8b\u52d9\u6240","boring_xml_url":47,"boring_view_url":1,"soilmap_view_url":null,"soiltest_xml_url":47,"soiltest_view_url":47},{"id":357168,"code":"NGIC202004086-0018","latitude":"34.811891666667","longitude":"135.81341111111","source_code":"","project_name":"","survey_name":"\u57ce\u967d\u4e95\u624b\u6728\u6d25\u5ddd\u30d0\u30a4\u30d1\u30b9\u591a\u8cc0\u5730\u533a\u5730\u8cea\u8abf\u67fb\u696d\u52d9","client_name":"\u56fd\u571f\u4ea4\u901a\u7701\u8fd1\u757f\u5730\u65b9\u6574\u5099\u5c40\u4eac\u90fd\u56fd\u9053\u4e8b\u52d9\u6240","boring_xml_url":47,"boring_view_url":1,"soilmap_view_url":null,"soiltest_xml_url":47,"soiltest_view_url":47},{"id":357167,"code":"NGIC202004086-0017","latitude":"34.81205","longitude":"135.81338333333","source_code":"","project_name":"","survey_name":"\u57ce\u967d\u4e95\u624b\u6728\u6d25\u5ddd\u30d0\u30a4\u30d1\u30b9\u591a\u8cc0\u5730\u533a\u5730\u8cea\u8abf\u67fb\u696d\u52d9","client_name":"\u56fd\u571f\u4ea4\u901a\u7701\u8fd1\u757f\u5730\u65b9\u6574\u5099\u5c40\u4eac\u90fd\u56fd\u9053\u4e8b\u52d9\u6240","boring_xml_url":47,"boring_view_url":1,"soilmap_view_url":null,"soiltest_xml_url":47,"soiltest_view_url":47},{"id":357166,"code":"NGIC202004086-0016","latitude":"34.812225","longitude":"135.81360555556","source_code":"","project_name":"","survey_name":"\u57ce\u967d\u4e95\u624b\u6728\u6d25\u5ddd\u30d0\u30a4\u30d1\u30b9\u591a\u8cc0\u5730\u533a\u5730\u8cea\u8abf\u67fb\u696d\u52d9","client_name":"\u56fd\u571f\u4ea4\u901a\u7701\u8fd1\u757f\u5730\u65b9\u6574\u5099\u5c40\u4eac\u90fd\u56fd\u9053\u4e8b\u52d9\u6240","boring_xml_url":47,"boring_view_url":1,"soilmap_view_url":null,"soiltest_xml_url":47,"soiltest_view_url":47},{"id":357165,"code":"NGIC202004086-0015","latitude":"34.81275","longitude":"135.81362222222","source_code":"","project_name":"","survey_name":"\u57ce\u967d\u4e95\u624b\u6728\u6d25\u5ddd\u30d0\u30a4\u30d1\u30b9\u591a\u8cc0\u5730\u533a\u5730\u8cea\u8abf\u67fb\u696d\u52d9","client_name":"\u56fd\u571f\u4ea4\u901a\u7701\u8fd1\u757f\u5730\u65b9\u6574\u5099\u5c40\u4eac\u90fd\u56fd\u9053\u4e8b\u52d9\u6240","boring_xml_url":47,"boring_view_url":1,"soilmap_view_url":null,"soiltest_xml_url":0,"soiltest_view_url":0},{"id":357164,"code":"NGIC202004086-0014","latitude":"34.812730555556","longitude":"135.81398888889","source_code":"","project_name":"","survey_name":"\u57ce\u967d\u4e95\u624b\u6728\u6d25\u5ddd\u30d0\u30a4\u30d1\u30b9\u591a\u8cc0\u5730\u533a\u5730\u8cea\u8abf\u67fb\u696d\u52d9","client_name":"\u56fd\u571f\u4ea4\u901a\u7701\u8fd1\u757f\u5730\u65b9\u6574\u5099\u5c40\u4eac\u90fd\u56fd\u9053\u4e8b\u52d9\u6240","boring_xml_url":47,"boring_view_url":1,"soilmap_view_url":null,"soiltest_xml_url":0,"soiltest_view_url":0},{"id":357163,"code":"NGIC202004086-0013","latitude":"34.813522222222","longitude":"135.81365","source_code":"","project_name":"","survey_name":"\u57ce\u967d\u4e95\u624b\u6728\u6d25\u5ddd\u30d0\u30a4\u30d1\u30b9\u591a\u8cc0\u5730\u533a\u5730\u8cea\u8abf\u67fb\u696d\u52d9","client_name":"\u56fd\u571f\u4ea4\u901a\u7701\u8fd1\u757f\u5730\u65b9\u6574\u5099\u5c40\u4eac\u90fd\u56fd\u9053\u4e8b\u52d9\u6240","boring_xml_url":47,"boring_view_url":1,"soilmap_view_url":null,"soiltest_xml_url":47,"soiltest_view_url":47},{"id":357162,"code":"NGIC202004086-0012","latitude":"34.8134","longitude":"135.81401388889","source_code":"","project_name":"","survey_name":"\u57ce\u967d\u4e95\u624b\u6728\u6d25\u5ddd\u30d0\u30a4\u30d1\u30b9\u591a\u8cc0\u5730\u533a\u5730\u8cea\u8abf\u67fb\u696d\u52d9","client_name":"\u56fd\u571f\u4ea4\u901a\u7701\u8fd1\u757f\u5730\u65b9\u6574\u5099\u5c40\u4eac\u90fd\u56fd\u9053\u4e8b\u52d9\u6240","boring_xml_url":47,"boring_view_url":1,"soilmap_view_url":null,"soiltest_xml_url":0,"soiltest_view_url":0}]}}