{"header":{"xyz":{"source":[],"mosaic":false},"page":1976,"raw":{"soiltest_result":"0","bbox":"57.598333,109.544722,1.933333,163.806111","page":"1976"},"conditions":{"soiltest_result":0,"north":57.598333,"west":109.544722,"south":1.933333,"east":163.806111},"success":true,"message":""},"data":{"meta":{"total":212844,"page":1976,"pages":7095,"count":30},"values":[{"id":356773,"code":"NGIC202004165-0003","latitude":"35.323930277778","longitude":"137.82356855556","source_code":"","project_name":"\u4ee4\u548c2\u5e74\u5ea6 \u5929\u7adc\u5ddd\u6c34\u7cfb\u4e2d\u6d41\u5730\u533a\u5730\u8cea\u8abf\u67fb\u696d\u52d9","survey_name":"\u4ee4\u548c2\u5e74\u5ea6 \u5929\u7adc\u5ddd\u6c34\u7cfb\u4e2d\u6d41\u5730\u533a\u5730\u8cea\u8abf\u67fb\u696d\u52d9","client_name":"\u56fd\u571f\u4ea4\u901a\u7701\u4e2d\u90e8\u5730\u65b9\u6574\u5099\u5c40\u5929\u7adc\u5ddd\u4e0a\u6d41\u6cb3\u5ddd\u4e8b\u52d9\u6240","boring_xml_url":47,"boring_view_url":1,"soilmap_view_url":null,"soiltest_xml_url":0,"soiltest_view_url":0},{"id":356772,"code":"NGIC202004165-0002","latitude":"35.323285","longitude":"137.824518","source_code":"","project_name":"\u4ee4\u548c2\u5e74\u5ea6 \u5929\u7adc\u5ddd\u6c34\u7cfb\u4e2d\u6d41\u5730\u533a\u5730\u8cea\u8abf\u67fb\u696d\u52d9","survey_name":"\u4ee4\u548c2\u5e74\u5ea6 \u5929\u7adc\u5ddd\u6c34\u7cfb\u4e2d\u6d41\u5730\u533a\u5730\u8cea\u8abf\u67fb\u696d\u52d9","client_name":"\u56fd\u571f\u4ea4\u901a\u7701\u4e2d\u90e8\u5730\u65b9\u6574\u5099\u5c40\u5929\u7adc\u5ddd\u4e0a\u6d41\u6cb3\u5ddd\u4e8b\u52d9\u6240","boring_xml_url":47,"boring_view_url":1,"soilmap_view_url":null,"soiltest_xml_url":0,"soiltest_view_url":0},{"id":356771,"code":"NGIC202004165-0001","latitude":"35.322809888889","longitude":"137.82497177778","source_code":"","project_name":"\u4ee4\u548c2\u5e74\u5ea6 \u5929\u7adc\u5ddd\u6c34\u7cfb\u4e2d\u6d41\u5730\u533a\u5730\u8cea\u8abf\u67fb\u696d\u52d9","survey_name":"\u4ee4\u548c2\u5e74\u5ea6 \u5929\u7adc\u5ddd\u6c34\u7cfb\u4e2d\u6d41\u5730\u533a\u5730\u8cea\u8abf\u67fb\u696d\u52d9","client_name":"\u56fd\u571f\u4ea4\u901a\u7701\u4e2d\u90e8\u5730\u65b9\u6574\u5099\u5c40\u5929\u7adc\u5ddd\u4e0a\u6d41\u6cb3\u5ddd\u4e8b\u52d9\u6240","boring_xml_url":47,"boring_view_url":1,"soilmap_view_url":null,"soiltest_xml_url":0,"soiltest_view_url":0},{"id":356770,"code":"NGIC202004162-0004","latitude":"35.467316666667","longitude":"137.17284166667","source_code":"","project_name":"\u4ee4\u548c\u5143\u5e74\u5ea6 \u65b0\u4e38\u5c71\u30c0\u30e0\u8caf\u6c34\u6c60\u53f3\u5cb8\u4e0a\u6d41\u90e8\u5730\u8cea\u8abf\u67fb\u696d\u52d9","survey_name":"\u4ee4\u548c\u5143\u5e74\u5ea6 \u65b0\u4e38\u5c71\u30c0\u30e0\u8caf\u6c34\u6c60\u53f3\u5cb8\u4e0a\u6d41\u90e8\u5730\u8cea\u8abf\u67fb\u696d\u52d9","client_name":"\u56fd\u571f\u4ea4\u901a\u7701\u4e2d\u90e8\u5730\u65b9\u6574\u5099\u5c40 \u65b0\u4e38\u5c71\u30c0\u30e0\u5de5\u4e8b\u4e8b\u52d9\u6240","boring_xml_url":47,"boring_view_url":1,"soilmap_view_url":null,"soiltest_xml_url":0,"soiltest_view_url":0},{"id":356769,"code":"NGIC202004162-0003","latitude":"35.467758333333","longitude":"137.25971388889","source_code":"","project_name":"\u4ee4\u548c\u5143\u5e74\u5ea6 \u65b0\u4e38\u5c71\u30c0\u30e0\u8caf\u6c34\u6c60\u53f3\u5cb8\u4e0a\u6d41\u90e8\u5730\u8cea\u8abf\u67fb\u696d\u52d9","survey_name":"\u4ee4\u548c\u5143\u5e74\u5ea6 \u65b0\u4e38\u5c71\u30c0\u30e0\u8caf\u6c34\u6c60\u53f3\u5cb8\u4e0a\u6d41\u90e8\u5730\u8cea\u8abf\u67fb\u696d\u52d9","client_name":"\u56fd\u571f\u4ea4\u901a\u7701\u4e2d\u90e8\u5730\u65b9\u6574\u5099\u5c40 \u65b0\u4e38\u5c71\u30c0\u30e0\u5de5\u4e8b\u4e8b\u52d9\u6240","boring_xml_url":47,"boring_view_url":1,"soilmap_view_url":null,"soiltest_xml_url":0,"soiltest_view_url":0},{"id":356768,"code":"NGIC202004162-0002","latitude":"35.467","longitude":"137.26016666667","source_code":"","project_name":"\u4ee4\u548c\u5143\u5e74\u5ea6 \u65b0\u4e38\u5c71\u30c0\u30e0\u8caf\u6c34\u6c60\u53f3\u5cb8\u4e0a\u6d41\u90e8\u5730\u8cea\u8abf\u67fb\u696d\u52d9","survey_name":"\u4ee4\u548c\u5143\u5e74\u5ea6 \u65b0\u4e38\u5c71\u30c0\u30e0\u8caf\u6c34\u6c60\u53f3\u5cb8\u4e0a\u6d41\u90e8\u5730\u8cea\u8abf\u67fb\u696d\u52d9","client_name":"\u56fd\u571f\u4ea4\u901a\u7701\u4e2d\u90e8\u5730\u65b9\u6574\u5099\u5c40 \u65b0\u4e38\u5c71\u30c0\u30e0\u5de5\u4e8b\u4e8b\u52d9\u6240","boring_xml_url":47,"boring_view_url":1,"soilmap_view_url":null,"soiltest_xml_url":0,"soiltest_view_url":0},{"id":356767,"code":"NGIC202004162-0001","latitude":"35.466472222222","longitude":"137.26048611111","source_code":"","project_name":"\u4ee4\u548c\u5143\u5e74\u5ea6 \u65b0\u4e38\u5c71\u30c0\u30e0\u8caf\u6c34\u6c60\u53f3\u5cb8\u4e0a\u6d41\u90e8\u5730\u8cea\u8abf\u67fb\u696d\u52d9","survey_name":"\u4ee4\u548c\u5143\u5e74\u5ea6 \u65b0\u4e38\u5c71\u30c0\u30e0\u8caf\u6c34\u6c60\u53f3\u5cb8\u4e0a\u6d41\u90e8\u5730\u8cea\u8abf\u67fb\u696d\u52d9","client_name":"\u56fd\u571f\u4ea4\u901a\u7701\u4e2d\u90e8\u5730\u65b9\u6574\u5099\u5c40 \u65b0\u4e38\u5c71\u30c0\u30e0\u5de5\u4e8b\u4e8b\u52d9\u6240","boring_xml_url":47,"boring_view_url":1,"soilmap_view_url":null,"soiltest_xml_url":0,"soiltest_view_url":0},{"id":356747,"code":"NGIC202004160-0021","latitude":"35.115333333333","longitude":"137.55232222222","source_code":"","project_name":"\u4ee4\u548c2\u5e74\u5ea6\u8a2d\u697d\u30c0\u30e0\u4ed8\u66ff\u9053\u8def\u95a2\u9023\u5730\u8cea\u8abf\u67fb","survey_name":"\u4ee4\u548c2\u5e74\u5ea6\u8a2d\u697d\u30c0\u30e0\u4ed8\u66ff\u9053\u8def\u95a2\u9023\u5730\u8cea\u8abf\u67fb","client_name":"\u56fd\u571f\u4ea4\u901a\u7701\u4e2d\u90e8\u5730\u65b9\u6574\u5099\u5c40\u8a2d\u697d\u30c0\u30e0\u5de5\u4e8b\u4e8b\u52d9\u6240","boring_xml_url":47,"boring_view_url":1,"soilmap_view_url":null,"soiltest_xml_url":0,"soiltest_view_url":0},{"id":356746,"code":"NGIC202004160-0020","latitude":"35.115566666667","longitude":"137.55221388889","source_code":"","project_name":"\u4ee4\u548c2\u5e74\u5ea6\u8a2d\u697d\u30c0\u30e0\u4ed8\u66ff\u9053\u8def\u95a2\u9023\u5730\u8cea\u8abf\u67fb","survey_name":"\u4ee4\u548c2\u5e74\u5ea6\u8a2d\u697d\u30c0\u30e0\u4ed8\u66ff\u9053\u8def\u95a2\u9023\u5730\u8cea\u8abf\u67fb","client_name":"\u56fd\u571f\u4ea4\u901a\u7701\u4e2d\u90e8\u5730\u65b9\u6574\u5099\u5c40\u8a2d\u697d\u30c0\u30e0\u5de5\u4e8b\u4e8b\u52d9\u6240","boring_xml_url":47,"boring_view_url":1,"soilmap_view_url":null,"soiltest_xml_url":0,"soiltest_view_url":0},{"id":356745,"code":"NGIC202004160-0019","latitude":"35.110669444444","longitude":"137.54782222222","source_code":"","project_name":"\u4ee4\u548c2\u5e74\u5ea6\u8a2d\u697d\u30c0\u30e0\u4ed8\u66ff\u9053\u8def\u95a2\u9023\u5730\u8cea\u8abf\u67fb","survey_name":"\u4ee4\u548c2\u5e74\u5ea6\u8a2d\u697d\u30c0\u30e0\u4ed8\u66ff\u9053\u8def\u95a2\u9023\u5730\u8cea\u8abf\u67fb","client_name":"\u56fd\u571f\u4ea4\u901a\u7701\u4e2d\u90e8\u5730\u65b9\u6574\u5099\u5c40\u8a2d\u697d\u30c0\u30e0\u5de5\u4e8b\u4e8b\u52d9\u6240","boring_xml_url":47,"boring_view_url":1,"soilmap_view_url":null,"soiltest_xml_url":0,"soiltest_view_url":0},{"id":356744,"code":"NGIC202004160-0018","latitude":"35.116866666667","longitude":"137.58346388889","source_code":"","project_name":"\u4ee4\u548c2\u5e74\u5ea6\u8a2d\u697d\u30c0\u30e0\u4ed8\u66ff\u9053\u8def\u95a2\u9023\u5730\u8cea\u8abf\u67fb","survey_name":"\u4ee4\u548c2\u5e74\u5ea6\u8a2d\u697d\u30c0\u30e0\u4ed8\u66ff\u9053\u8def\u95a2\u9023\u5730\u8cea\u8abf\u67fb","client_name":"\u56fd\u571f\u4ea4\u901a\u7701\u4e2d\u90e8\u5730\u65b9\u6574\u5099\u5c40\u8a2d\u697d\u30c0\u30e0\u5de5\u4e8b\u4e8b\u52d9\u6240","boring_xml_url":47,"boring_view_url":1,"soilmap_view_url":null,"soiltest_xml_url":0,"soiltest_view_url":0},{"id":356743,"code":"NGIC202004160-0017","latitude":"35.117119444444","longitude":"137.58332777778","source_code":"","project_name":"\u4ee4\u548c2\u5e74\u5ea6\u8a2d\u697d\u30c0\u30e0\u4ed8\u66ff\u9053\u8def\u95a2\u9023\u5730\u8cea\u8abf\u67fb","survey_name":"\u4ee4\u548c2\u5e74\u5ea6\u8a2d\u697d\u30c0\u30e0\u4ed8\u66ff\u9053\u8def\u95a2\u9023\u5730\u8cea\u8abf\u67fb","client_name":"\u56fd\u571f\u4ea4\u901a\u7701\u4e2d\u90e8\u5730\u65b9\u6574\u5099\u5c40\u8a2d\u697d\u30c0\u30e0\u5de5\u4e8b\u4e8b\u52d9\u6240","boring_xml_url":47,"boring_view_url":1,"soilmap_view_url":null,"soiltest_xml_url":0,"soiltest_view_url":0},{"id":356742,"code":"NGIC202004160-0016","latitude":"35.117380555556","longitude":"137.58326111111","source_code":"","project_name":"\u4ee4\u548c2\u5e74\u5ea6\u8a2d\u697d\u30c0\u30e0\u4ed8\u66ff\u9053\u8def\u95a2\u9023\u5730\u8cea\u8abf\u67fb","survey_name":"\u4ee4\u548c2\u5e74\u5ea6\u8a2d\u697d\u30c0\u30e0\u4ed8\u66ff\u9053\u8def\u95a2\u9023\u5730\u8cea\u8abf\u67fb","client_name":"\u56fd\u571f\u4ea4\u901a\u7701\u4e2d\u90e8\u5730\u65b9\u6574\u5099\u5c40\u8a2d\u697d\u30c0\u30e0\u5de5\u4e8b\u4e8b\u52d9\u6240","boring_xml_url":47,"boring_view_url":1,"soilmap_view_url":null,"soiltest_xml_url":0,"soiltest_view_url":0},{"id":356741,"code":"NGIC202004160-0015","latitude":"35.100769444444","longitude":"137.55022777778","source_code":"","project_name":"\u4ee4\u548c2\u5e74\u5ea6\u8a2d\u697d\u30c0\u30e0\u4ed8\u66ff\u9053\u8def\u95a2\u9023\u5730\u8cea\u8abf\u67fb","survey_name":"\u4ee4\u548c2\u5e74\u5ea6\u8a2d\u697d\u30c0\u30e0\u4ed8\u66ff\u9053\u8def\u95a2\u9023\u5730\u8cea\u8abf\u67fb","client_name":"\u56fd\u571f\u4ea4\u901a\u7701\u4e2d\u90e8\u5730\u65b9\u6574\u5099\u5c40\u8a2d\u697d\u30c0\u30e0\u5de5\u4e8b\u4e8b\u52d9\u6240","boring_xml_url":47,"boring_view_url":1,"soilmap_view_url":null,"soiltest_xml_url":0,"soiltest_view_url":0},{"id":356740,"code":"NGIC202004160-0014","latitude":"35.100877777778","longitude":"137.55016666667","source_code":"","project_name":"\u4ee4\u548c2\u5e74\u5ea6\u8a2d\u697d\u30c0\u30e0\u4ed8\u66ff\u9053\u8def\u95a2\u9023\u5730\u8cea\u8abf\u67fb","survey_name":"\u4ee4\u548c2\u5e74\u5ea6\u8a2d\u697d\u30c0\u30e0\u4ed8\u66ff\u9053\u8def\u95a2\u9023\u5730\u8cea\u8abf\u67fb","client_name":"\u56fd\u571f\u4ea4\u901a\u7701\u4e2d\u90e8\u5730\u65b9\u6574\u5099\u5c40\u8a2d\u697d\u30c0\u30e0\u5de5\u4e8b\u4e8b\u52d9\u6240","boring_xml_url":47,"boring_view_url":1,"soilmap_view_url":null,"soiltest_xml_url":0,"soiltest_view_url":0},{"id":356739,"code":"NGIC202004160-0013","latitude":"35.103352777778","longitude":"137.54974166667","source_code":"","project_name":"\u4ee4\u548c2\u5e74\u5ea6\u8a2d\u697d\u30c0\u30e0\u4ed8\u66ff\u9053\u8def\u95a2\u9023\u5730\u8cea\u8abf\u67fb","survey_name":"\u4ee4\u548c2\u5e74\u5ea6\u8a2d\u697d\u30c0\u30e0\u4ed8\u66ff\u9053\u8def\u95a2\u9023\u5730\u8cea\u8abf\u67fb","client_name":"\u56fd\u571f\u4ea4\u901a\u7701\u4e2d\u90e8\u5730\u65b9\u6574\u5099\u5c40\u8a2d\u697d\u30c0\u30e0\u5de5\u4e8b\u4e8b\u52d9\u6240","boring_xml_url":47,"boring_view_url":1,"soilmap_view_url":null,"soiltest_xml_url":0,"soiltest_view_url":0},{"id":356738,"code":"NGIC202004160-0012","latitude":"35.103455555556","longitude":"137.54981666667","source_code":"","project_name":"\u4ee4\u548c2\u5e74\u5ea6\u8a2d\u697d\u30c0\u30e0\u4ed8\u66ff\u9053\u8def\u95a2\u9023\u5730\u8cea\u8abf\u67fb","survey_name":"\u4ee4\u548c2\u5e74\u5ea6\u8a2d\u697d\u30c0\u30e0\u4ed8\u66ff\u9053\u8def\u95a2\u9023\u5730\u8cea\u8abf\u67fb","client_name":"\u56fd\u571f\u4ea4\u901a\u7701\u4e2d\u90e8\u5730\u65b9\u6574\u5099\u5c40\u8a2d\u697d\u30c0\u30e0\u5de5\u4e8b\u4e8b\u52d9\u6240","boring_xml_url":47,"boring_view_url":1,"soilmap_view_url":null,"soiltest_xml_url":0,"soiltest_view_url":0},{"id":356737,"code":"NGIC202004160-0011","latitude":"35.103755555556","longitude":"137.54993888889","source_code":"","project_name":"\u4ee4\u548c2\u5e74\u5ea6\u8a2d\u697d\u30c0\u30e0\u4ed8\u66ff\u9053\u8def\u95a2\u9023\u5730\u8cea\u8abf\u67fb","survey_name":"\u4ee4\u548c2\u5e74\u5ea6\u8a2d\u697d\u30c0\u30e0\u4ed8\u66ff\u9053\u8def\u95a2\u9023\u5730\u8cea\u8abf\u67fb","client_name":"\u56fd\u571f\u4ea4\u901a\u7701\u4e2d\u90e8\u5730\u65b9\u6574\u5099\u5c40\u8a2d\u697d\u30c0\u30e0\u5de5\u4e8b\u4e8b\u52d9\u6240","boring_xml_url":47,"boring_view_url":1,"soilmap_view_url":null,"soiltest_xml_url":0,"soiltest_view_url":0},{"id":356736,"code":"NGIC202004160-0010","latitude":"35.104094444444","longitude":"137.54970833333","source_code":"","project_name":"\u4ee4\u548c2\u5e74\u5ea6\u8a2d\u697d\u30c0\u30e0\u4ed8\u66ff\u9053\u8def\u95a2\u9023\u5730\u8cea\u8abf\u67fb","survey_name":"\u4ee4\u548c2\u5e74\u5ea6\u8a2d\u697d\u30c0\u30e0\u4ed8\u66ff\u9053\u8def\u95a2\u9023\u5730\u8cea\u8abf\u67fb","client_name":"\u56fd\u571f\u4ea4\u901a\u7701\u4e2d\u90e8\u5730\u65b9\u6574\u5099\u5c40\u8a2d\u697d\u30c0\u30e0\u5de5\u4e8b\u4e8b\u52d9\u6240","boring_xml_url":47,"boring_view_url":1,"soilmap_view_url":null,"soiltest_xml_url":0,"soiltest_view_url":0},{"id":356735,"code":"NGIC202004160-0009","latitude":"35.104158333333","longitude":"137.55004166667","source_code":"","project_name":"\u4ee4\u548c2\u5e74\u5ea6\u8a2d\u697d\u30c0\u30e0\u4ed8\u66ff\u9053\u8def\u95a2\u9023\u5730\u8cea\u8abf\u67fb","survey_name":"\u4ee4\u548c2\u5e74\u5ea6\u8a2d\u697d\u30c0\u30e0\u4ed8\u66ff\u9053\u8def\u95a2\u9023\u5730\u8cea\u8abf\u67fb","client_name":"\u56fd\u571f\u4ea4\u901a\u7701\u4e2d\u90e8\u5730\u65b9\u6574\u5099\u5c40\u8a2d\u697d\u30c0\u30e0\u5de5\u4e8b\u4e8b\u52d9\u6240","boring_xml_url":47,"boring_view_url":1,"soilmap_view_url":null,"soiltest_xml_url":0,"soiltest_view_url":0},{"id":356734,"code":"NGIC202004160-0008","latitude":"35.104613888889","longitude":"137.54948611111","source_code":"","project_name":"\u4ee4\u548c2\u5e74\u5ea6\u8a2d\u697d\u30c0\u30e0\u4ed8\u66ff\u9053\u8def\u95a2\u9023\u5730\u8cea\u8abf\u67fb","survey_name":"\u4ee4\u548c2\u5e74\u5ea6\u8a2d\u697d\u30c0\u30e0\u4ed8\u66ff\u9053\u8def\u95a2\u9023\u5730\u8cea\u8abf\u67fb","client_name":"\u56fd\u571f\u4ea4\u901a\u7701\u4e2d\u90e8\u5730\u65b9\u6574\u5099\u5c40\u8a2d\u697d\u30c0\u30e0\u5de5\u4e8b\u4e8b\u52d9\u6240","boring_xml_url":47,"boring_view_url":1,"soilmap_view_url":null,"soiltest_xml_url":0,"soiltest_view_url":0},{"id":356733,"code":"NGIC202004160-0007","latitude":"35.104602777778","longitude":"137.54989722222","source_code":"","project_name":"\u4ee4\u548c2\u5e74\u5ea6\u8a2d\u697d\u30c0\u30e0\u4ed8\u66ff\u9053\u8def\u95a2\u9023\u5730\u8cea\u8abf\u67fb","survey_name":"\u4ee4\u548c2\u5e74\u5ea6\u8a2d\u697d\u30c0\u30e0\u4ed8\u66ff\u9053\u8def\u95a2\u9023\u5730\u8cea\u8abf\u67fb","client_name":"\u56fd\u571f\u4ea4\u901a\u7701\u4e2d\u90e8\u5730\u65b9\u6574\u5099\u5c40\u8a2d\u697d\u30c0\u30e0\u5de5\u4e8b\u4e8b\u52d9\u6240","boring_xml_url":47,"boring_view_url":1,"soilmap_view_url":null,"soiltest_xml_url":0,"soiltest_view_url":0},{"id":356732,"code":"NGIC202004160-0006","latitude":"35.105527777778","longitude":"137.54930277778","source_code":"","project_name":"\u4ee4\u548c2\u5e74\u5ea6\u8a2d\u697d\u30c0\u30e0\u4ed8\u66ff\u9053\u8def\u95a2\u9023\u5730\u8cea\u8abf\u67fb","survey_name":"\u4ee4\u548c2\u5e74\u5ea6\u8a2d\u697d\u30c0\u30e0\u4ed8\u66ff\u9053\u8def\u95a2\u9023\u5730\u8cea\u8abf\u67fb","client_name":"\u56fd\u571f\u4ea4\u901a\u7701\u4e2d\u90e8\u5730\u65b9\u6574\u5099\u5c40\u8a2d\u697d\u30c0\u30e0\u5de5\u4e8b\u4e8b\u52d9\u6240","boring_xml_url":47,"boring_view_url":1,"soilmap_view_url":null,"soiltest_xml_url":0,"soiltest_view_url":0},{"id":356731,"code":"NGIC202004160-0005","latitude":"35.105761111111","longitude":"137.54922222222","source_code":"","project_name":"\u4ee4\u548c2\u5e74\u5ea6\u8a2d\u697d\u30c0\u30e0\u4ed8\u66ff\u9053\u8def\u95a2\u9023\u5730\u8cea\u8abf\u67fb","survey_name":"\u4ee4\u548c2\u5e74\u5ea6\u8a2d\u697d\u30c0\u30e0\u4ed8\u66ff\u9053\u8def\u95a2\u9023\u5730\u8cea\u8abf\u67fb","client_name":"\u56fd\u571f\u4ea4\u901a\u7701\u4e2d\u90e8\u5730\u65b9\u6574\u5099\u5c40\u8a2d\u697d\u30c0\u30e0\u5de5\u4e8b\u4e8b\u52d9\u6240","boring_xml_url":47,"boring_view_url":1,"soilmap_view_url":null,"soiltest_xml_url":0,"soiltest_view_url":0},{"id":356730,"code":"NGIC202004160-0004","latitude":"35.106491666667","longitude":"137.548525","source_code":"","project_name":"\u4ee4\u548c2\u5e74\u5ea6\u8a2d\u697d\u30c0\u30e0\u4ed8\u66ff\u9053\u8def\u95a2\u9023\u5730\u8cea\u8abf\u67fb","survey_name":"\u4ee4\u548c2\u5e74\u5ea6\u8a2d\u697d\u30c0\u30e0\u4ed8\u66ff\u9053\u8def\u95a2\u9023\u5730\u8cea\u8abf\u67fb","client_name":"\u56fd\u571f\u4ea4\u901a\u7701\u4e2d\u90e8\u5730\u65b9\u6574\u5099\u5c40\u8a2d\u697d\u30c0\u30e0\u5de5\u4e8b\u4e8b\u52d9\u6240","boring_xml_url":47,"boring_view_url":1,"soilmap_view_url":null,"soiltest_xml_url":0,"soiltest_view_url":0},{"id":356729,"code":"NGIC202004160-0003","latitude":"35.106638888889","longitude":"137.5487","source_code":"","project_name":"\u4ee4\u548c2\u5e74\u5ea6\u8a2d\u697d\u30c0\u30e0\u4ed8\u66ff\u9053\u8def\u95a2\u9023\u5730\u8cea\u8abf\u67fb","survey_name":"\u4ee4\u548c2\u5e74\u5ea6\u8a2d\u697d\u30c0\u30e0\u4ed8\u66ff\u9053\u8def\u95a2\u9023\u5730\u8cea\u8abf\u67fb","client_name":"\u56fd\u571f\u4ea4\u901a\u7701\u4e2d\u90e8\u5730\u65b9\u6574\u5099\u5c40\u8a2d\u697d\u30c0\u30e0\u5de5\u4e8b\u4e8b\u52d9\u6240","boring_xml_url":47,"boring_view_url":1,"soilmap_view_url":null,"soiltest_xml_url":0,"soiltest_view_url":0},{"id":356728,"code":"NGIC202004160-0002","latitude":"35.106738888889","longitude":"137.54818888889","source_code":"","project_name":"\u4ee4\u548c2\u5e74\u5ea6\u8a2d\u697d\u30c0\u30e0\u4ed8\u66ff\u9053\u8def\u95a2\u9023\u5730\u8cea\u8abf\u67fb","survey_name":"\u4ee4\u548c2\u5e74\u5ea6\u8a2d\u697d\u30c0\u30e0\u4ed8\u66ff\u9053\u8def\u95a2\u9023\u5730\u8cea\u8abf\u67fb","client_name":"\u56fd\u571f\u4ea4\u901a\u7701\u4e2d\u90e8\u5730\u65b9\u6574\u5099\u5c40\u8a2d\u697d\u30c0\u30e0\u5de5\u4e8b\u4e8b\u52d9\u6240","boring_xml_url":47,"boring_view_url":1,"soilmap_view_url":null,"soiltest_xml_url":0,"soiltest_view_url":0},{"id":356727,"code":"NGIC202004160-0001","latitude":"35.106891666667","longitude":"137.54830277778","source_code":"","project_name":"\u4ee4\u548c2\u5e74\u5ea6\u8a2d\u697d\u30c0\u30e0\u4ed8\u66ff\u9053\u8def\u95a2\u9023\u5730\u8cea\u8abf\u67fb","survey_name":"\u4ee4\u548c2\u5e74\u5ea6\u8a2d\u697d\u30c0\u30e0\u4ed8\u66ff\u9053\u8def\u95a2\u9023\u5730\u8cea\u8abf\u67fb","client_name":"\u56fd\u571f\u4ea4\u901a\u7701\u4e2d\u90e8\u5730\u65b9\u6574\u5099\u5c40\u8a2d\u697d\u30c0\u30e0\u5de5\u4e8b\u4e8b\u52d9\u6240","boring_xml_url":47,"boring_view_url":1,"soilmap_view_url":null,"soiltest_xml_url":0,"soiltest_view_url":0},{"id":356726,"code":"NGIC202004135-0027","latitude":"43.699566666667","longitude":"142.36828055556","source_code":"","project_name":"","survey_name":"\u77f3\u72e9\u5ddd\u4e0a\u6d41\u5de5\u4e8b\u7b87\u6240\u5730\u8cea\u8abf\u67fb\u696d\u52d9","client_name":"\u56fd\u571f\u4ea4\u901a\u7701\u5317\u6d77\u9053\u958b\u767a\u5c40\u65ed\u5ddd\u958b\u767a\u5efa\u8a2d\u90e8\u65ed\u5ddd\u6cb3\u5ddd\u4e8b\u52d9\u6240","boring_xml_url":47,"boring_view_url":1,"soilmap_view_url":null,"soiltest_xml_url":0,"soiltest_view_url":0},{"id":356725,"code":"NGIC202004135-0026","latitude":"43.700825","longitude":"142.36804722222","source_code":"","project_name":"","survey_name":"\u77f3\u72e9\u5ddd\u4e0a\u6d41\u5de5\u4e8b\u7b87\u6240\u5730\u8cea\u8abf\u67fb\u696d\u52d9","client_name":"\u56fd\u571f\u4ea4\u901a\u7701\u5317\u6d77\u9053\u958b\u767a\u5c40\u65ed\u5ddd\u958b\u767a\u5efa\u8a2d\u90e8\u65ed\u5ddd\u6cb3\u5ddd\u4e8b\u52d9\u6240","boring_xml_url":47,"boring_view_url":1,"soilmap_view_url":null,"soiltest_xml_url":0,"soiltest_view_url":0}]}}