{"header":{"xyz":{"source":[],"mosaic":false},"page":1986,"raw":{"soiltest_result":"0","bbox":"57.598333,109.544722,1.933333,163.806111","page":"1986"},"conditions":{"soiltest_result":0,"north":57.598333,"west":109.544722,"south":1.933333,"east":163.806111},"success":true,"message":""},"data":{"meta":{"total":212844,"page":1986,"pages":7095,"count":30},"values":[{"id":355916,"code":"NGIC202003893-0010","latitude":"35.780496666667","longitude":"138.30540166667","source_code":"","project_name":"R1\u91dc\u7121\u5ddd\u6d41\u57df\u7802\u9632\u65bd\u8a2d\u5730\u8cea\u8abf\u67fb\u696d\u52d9","survey_name":"R1\u91dc\u7121\u5ddd\u6d41\u57df\u7802\u9632\u65bd\u8a2d\u5730\u8cea\u8abf\u67fb\u696d\u52d9","client_name":"\u56fd\u571f\u4ea4\u901a\u7701\u95a2\u6771\u5730\u65b9\u6574\u5099\u5c40\u5bcc\u58eb\u5ddd\u7802\u9632\u4e8b\u52d9\u6240","boring_xml_url":47,"boring_view_url":1,"soilmap_view_url":null,"soiltest_xml_url":0,"soiltest_view_url":0},{"id":355915,"code":"NGIC202003893-0009","latitude":"35.780216111111","longitude":"138.30512111111","source_code":"","project_name":"R1\u91dc\u7121\u5ddd\u6d41\u57df\u7802\u9632\u65bd\u8a2d\u5730\u8cea\u8abf\u67fb\u696d\u52d9","survey_name":"R1\u91dc\u7121\u5ddd\u6d41\u57df\u7802\u9632\u65bd\u8a2d\u5730\u8cea\u8abf\u67fb\u696d\u52d9","client_name":"\u56fd\u571f\u4ea4\u901a\u7701\u95a2\u6771\u5730\u65b9\u6574\u5099\u5c40\u5bcc\u58eb\u5ddd\u7802\u9632\u4e8b\u52d9\u6240","boring_xml_url":47,"boring_view_url":1,"soilmap_view_url":null,"soiltest_xml_url":0,"soiltest_view_url":0},{"id":355914,"code":"NGIC202003893-0008","latitude":"35.780005833333","longitude":"138.30494444444","source_code":"","project_name":"R1\u91dc\u7121\u5ddd\u6d41\u57df\u7802\u9632\u65bd\u8a2d\u5730\u8cea\u8abf\u67fb\u696d\u52d9","survey_name":"R1\u91dc\u7121\u5ddd\u6d41\u57df\u7802\u9632\u65bd\u8a2d\u5730\u8cea\u8abf\u67fb\u696d\u52d9","client_name":"\u56fd\u571f\u4ea4\u901a\u7701\u95a2\u6771\u5730\u65b9\u6574\u5099\u5c40\u5bcc\u58eb\u5ddd\u7802\u9632\u4e8b\u52d9\u6240","boring_xml_url":47,"boring_view_url":1,"soilmap_view_url":null,"soiltest_xml_url":0,"soiltest_view_url":0},{"id":355913,"code":"NGIC202003893-0007","latitude":"35.803276111111","longitude":"138.29970388889","source_code":"","project_name":"R1\u91dc\u7121\u5ddd\u6d41\u57df\u7802\u9632\u65bd\u8a2d\u5730\u8cea\u8abf\u67fb\u696d\u52d9","survey_name":"R1\u91dc\u7121\u5ddd\u6d41\u57df\u7802\u9632\u65bd\u8a2d\u5730\u8cea\u8abf\u67fb\u696d\u52d9","client_name":"\u56fd\u571f\u4ea4\u901a\u7701\u95a2\u6771\u5730\u65b9\u6574\u5099\u5c40\u5bcc\u58eb\u5ddd\u7802\u9632\u4e8b\u52d9\u6240","boring_xml_url":47,"boring_view_url":1,"soilmap_view_url":null,"soiltest_xml_url":0,"soiltest_view_url":0},{"id":355912,"code":"NGIC202003893-0006","latitude":"35.803463333333","longitude":"138.29966944444","source_code":"","project_name":"R1\u91dc\u7121\u5ddd\u6d41\u57df\u7802\u9632\u65bd\u8a2d\u5730\u8cea\u8abf\u67fb\u696d\u52d9","survey_name":"R1\u91dc\u7121\u5ddd\u6d41\u57df\u7802\u9632\u65bd\u8a2d\u5730\u8cea\u8abf\u67fb\u696d\u52d9","client_name":"\u56fd\u571f\u4ea4\u901a\u7701\u95a2\u6771\u5730\u65b9\u6574\u5099\u5c40\u5bcc\u58eb\u5ddd\u7802\u9632\u4e8b\u52d9\u6240","boring_xml_url":47,"boring_view_url":1,"soilmap_view_url":null,"soiltest_xml_url":0,"soiltest_view_url":0},{"id":355911,"code":"NGIC202003893-0005","latitude":"35.803396944444","longitude":"138.29953444444","source_code":"","project_name":"R1\u91dc\u7121\u5ddd\u6d41\u57df\u7802\u9632\u65bd\u8a2d\u5730\u8cea\u8abf\u67fb\u696d\u52d9","survey_name":"R1\u91dc\u7121\u5ddd\u6d41\u57df\u7802\u9632\u65bd\u8a2d\u5730\u8cea\u8abf\u67fb\u696d\u52d9","client_name":"\u56fd\u571f\u4ea4\u901a\u7701\u95a2\u6771\u5730\u65b9\u6574\u5099\u5c40\u5bcc\u58eb\u5ddd\u7802\u9632\u4e8b\u52d9\u6240","boring_xml_url":47,"boring_view_url":1,"soilmap_view_url":null,"soiltest_xml_url":0,"soiltest_view_url":0},{"id":355910,"code":"NGIC202003893-0004","latitude":"35.803314722222","longitude":"138.29939638889","source_code":"","project_name":"R1\u91dc\u7121\u5ddd\u6d41\u57df\u7802\u9632\u65bd\u8a2d\u5730\u8cea\u8abf\u67fb\u696d\u52d9","survey_name":"R1\u91dc\u7121\u5ddd\u6d41\u57df\u7802\u9632\u65bd\u8a2d\u5730\u8cea\u8abf\u67fb\u696d\u52d9","client_name":"\u56fd\u571f\u4ea4\u901a\u7701\u95a2\u6771\u5730\u65b9\u6574\u5099\u5c40\u5bcc\u58eb\u5ddd\u7802\u9632\u4e8b\u52d9\u6240","boring_xml_url":47,"boring_view_url":1,"soilmap_view_url":null,"soiltest_xml_url":0,"soiltest_view_url":0},{"id":355909,"code":"NGIC202003893-0003","latitude":"35.836083333333","longitude":"138.28173916667","source_code":"","project_name":"R1\u91dc\u7121\u5ddd\u6d41\u57df\u7802\u9632\u65bd\u8a2d\u5730\u8cea\u8abf\u67fb\u696d\u52d9","survey_name":"R1\u91dc\u7121\u5ddd\u6d41\u57df\u7802\u9632\u65bd\u8a2d\u5730\u8cea\u8abf\u67fb\u696d\u52d9","client_name":"\u56fd\u571f\u4ea4\u901a\u7701\u95a2\u6771\u5730\u65b9\u6574\u5099\u5c40\u5bcc\u58eb\u5ddd\u7802\u9632\u4e8b\u52d9\u6240","boring_xml_url":47,"boring_view_url":1,"soilmap_view_url":null,"soiltest_xml_url":0,"soiltest_view_url":0},{"id":355908,"code":"NGIC202003893-0002","latitude":"35.835844444444","longitude":"138.28161888889","source_code":"","project_name":"R1\u91dc\u7121\u5ddd\u6d41\u57df\u7802\u9632\u65bd\u8a2d\u5730\u8cea\u8abf\u67fb\u696d\u52d9","survey_name":"R1\u91dc\u7121\u5ddd\u6d41\u57df\u7802\u9632\u65bd\u8a2d\u5730\u8cea\u8abf\u67fb\u696d\u52d9","client_name":"\u56fd\u571f\u4ea4\u901a\u7701\u95a2\u6771\u5730\u65b9\u6574\u5099\u5c40\u5bcc\u58eb\u5ddd\u7802\u9632\u4e8b\u52d9\u6240","boring_xml_url":47,"boring_view_url":1,"soilmap_view_url":null,"soiltest_xml_url":0,"soiltest_view_url":0},{"id":355907,"code":"NGIC202003893-0001","latitude":"35.835355277778","longitude":"138.28158361111","source_code":"","project_name":"R1\u91dc\u7121\u5ddd\u6d41\u57df\u7802\u9632\u65bd\u8a2d\u5730\u8cea\u8abf\u67fb\u696d\u52d9","survey_name":"R1\u91dc\u7121\u5ddd\u6d41\u57df\u7802\u9632\u65bd\u8a2d\u5730\u8cea\u8abf\u67fb\u696d\u52d9","client_name":"\u56fd\u571f\u4ea4\u901a\u7701\u95a2\u6771\u5730\u65b9\u6574\u5099\u5c40\u5bcc\u58eb\u5ddd\u7802\u9632\u4e8b\u52d9\u6240","boring_xml_url":47,"boring_view_url":1,"soilmap_view_url":null,"soiltest_xml_url":0,"soiltest_view_url":0},{"id":355898,"code":"NGIC202003920-0001","latitude":"37.748655555556","longitude":"139.06673972222","source_code":"","project_name":"","survey_name":"R2\u4fe1\u6fc3\u5ddd\u4e0b\u6d41\u5730\u8cea\u8abf\u67fb\u696d\u52d9","client_name":"\u56fd\u571f\u4ea4\u901a\u7701\u5317\u9678\u5730\u65b9\u6574\u5099\u5c40\u4fe1\u6fc3\u5ddd\u4e0b\u6d41\u6cb3\u5ddd\u4e8b\u52d9\u6240","boring_xml_url":47,"boring_view_url":1,"soilmap_view_url":null,"soiltest_xml_url":0,"soiltest_view_url":0},{"id":355875,"code":"NGIC202003914-0004","latitude":"34.6154","longitude":"136.08337777778","source_code":"","project_name":"","survey_name":"\u540d\u5f35\u5ddd\u30fb\u5b87\u9640\u5ddd\u5730\u4e0b\u6c34\u8abf\u67fb\u8a08\u753b\u7acb\u6848\u696d\u52d9","client_name":"\u56fd\u571f\u4ea4\u901a\u7701\u8fd1\u757f\u5730\u65b9\u6574\u5099\u5c40\u6728\u6d25\u5ddd\u4e0a\u6d41\u6cb3\u5ddd\u4e8b\u52d9\u6240","boring_xml_url":47,"boring_view_url":1,"soilmap_view_url":null,"soiltest_xml_url":0,"soiltest_view_url":0},{"id":355874,"code":"NGIC202003914-0003","latitude":"34.618527777778","longitude":"136.07988888889","source_code":"","project_name":"","survey_name":"\u540d\u5f35\u5ddd\u30fb\u5b87\u9640\u5ddd\u5730\u4e0b\u6c34\u8abf\u67fb\u8a08\u753b\u7acb\u6848\u696d\u52d9","client_name":"\u56fd\u571f\u4ea4\u901a\u7701\u8fd1\u757f\u5730\u65b9\u6574\u5099\u5c40\u6728\u6d25\u5ddd\u4e0a\u6d41\u6cb3\u5ddd\u4e8b\u52d9\u6240","boring_xml_url":47,"boring_view_url":1,"soilmap_view_url":null,"soiltest_xml_url":0,"soiltest_view_url":0},{"id":355873,"code":"NGIC202003914-0002","latitude":"34.619944444444","longitude":"136.08183333333","source_code":"","project_name":"","survey_name":"\u540d\u5f35\u5ddd\u30fb\u5b87\u9640\u5ddd\u5730\u4e0b\u6c34\u8abf\u67fb\u8a08\u753b\u7acb\u6848\u696d\u52d9","client_name":"\u56fd\u571f\u4ea4\u901a\u7701\u8fd1\u757f\u5730\u65b9\u6574\u5099\u5c40\u6728\u6d25\u5ddd\u4e0a\u6d41\u6cb3\u5ddd\u4e8b\u52d9\u6240","boring_xml_url":47,"boring_view_url":1,"soilmap_view_url":null,"soiltest_xml_url":0,"soiltest_view_url":0},{"id":355872,"code":"NGIC202003914-0001","latitude":"34.623138888889","longitude":"136.08638888889","source_code":"","project_name":"","survey_name":"\u540d\u5f35\u5ddd\u30fb\u5b87\u9640\u5ddd\u5730\u4e0b\u6c34\u8abf\u67fb\u8a08\u753b\u7acb\u6848\u696d\u52d9","client_name":"\u56fd\u571f\u4ea4\u901a\u7701\u8fd1\u757f\u5730\u65b9\u6574\u5099\u5c40\u6728\u6d25\u5ddd\u4e0a\u6d41\u6cb3\u5ddd\u4e8b\u52d9\u6240","boring_xml_url":47,"boring_view_url":1,"soilmap_view_url":null,"soiltest_xml_url":0,"soiltest_view_url":0},{"id":355857,"code":"NGIC202003777-0002","latitude":"33.560585055556","longitude":"130.45610405556","source_code":"","project_name":"","survey_name":"\u4e5d\u5dde\u7ba1\u533a\u8b66\u5bdf\u5b66\u6821 (R2) \u6577\u5730\u8abf\u67fb\u696d\u52d9","client_name":"\u56fd\u571f\u4ea4\u901a\u7701\u4e5d\u5dde\u5730\u65b9\u6574\u5099\u5c40\u55b6\u7e55\u90e8","boring_xml_url":47,"boring_view_url":1,"soilmap_view_url":null,"soiltest_xml_url":47,"soiltest_view_url":47},{"id":355856,"code":"NGIC202003777-0001","latitude":"33.56044975","longitude":"130.45540544444","source_code":"","project_name":"","survey_name":"\u4e5d\u5dde\u7ba1\u533a\u8b66\u5bdf\u5b66\u6821 (R2) \u6577\u5730\u8abf\u67fb\u696d\u52d9","client_name":"\u56fd\u571f\u4ea4\u901a\u7701\u4e5d\u5dde\u5730\u65b9\u6574\u5099\u5c40\u55b6\u7e55\u90e8","boring_xml_url":47,"boring_view_url":1,"soilmap_view_url":null,"soiltest_xml_url":47,"soiltest_view_url":47},{"id":355848,"code":"NGIC202003766-0013","latitude":"34.971287777778","longitude":"132.47273722222","source_code":"","project_name":"\u4ee4\u548c2\u5e74\u5ea6\u6c5f\u306e\u5ddd\u56e0\u539f\u5730\u533a\u5916\u5730\u8cea\u8abf\u67fb\u696d\u52d9","survey_name":"\u4ee4\u548c2\u5e74\u5ea6\u6c5f\u306e\u5ddd\u56e0\u539f\u5730\u533a\u5916\u5730\u8cea\u8abf\u67fb\u696d\u52d9","client_name":"\u56fd\u571f\u4ea4\u901a\u7701\u4e2d\u56fd\u5730\u65b9\u6574\u5099\u5c40\u6d5c\u7530\u6cb3\u5ddd\u56fd\u9053\u4e8b\u52d9\u6240","boring_xml_url":47,"boring_view_url":1,"soilmap_view_url":null,"soiltest_xml_url":0,"soiltest_view_url":0},{"id":355847,"code":"NGIC202003766-0012","latitude":"34.991478055556","longitude":"132.49256222222","source_code":"","project_name":"\u4ee4\u548c2\u5e74\u5ea6\u6c5f\u306e\u5ddd\u56e0\u539f\u5730\u533a\u5916\u5730\u8cea\u8abf\u67fb\u696d\u52d9","survey_name":"\u4ee4\u548c2\u5e74\u5ea6\u6c5f\u306e\u5ddd\u56e0\u539f\u5730\u533a\u5916\u5730\u8cea\u8abf\u67fb\u696d\u52d9","client_name":"\u56fd\u571f\u4ea4\u901a\u7701\u4e2d\u56fd\u5730\u65b9\u6574\u5099\u5c40\u6d5c\u7530\u6cb3\u5ddd\u56fd\u9053\u4e8b\u52d9\u6240","boring_xml_url":47,"boring_view_url":1,"soilmap_view_url":null,"soiltest_xml_url":0,"soiltest_view_url":0},{"id":355846,"code":"NGIC202003766-0011","latitude":"34.964549166667","longitude":"132.44540944444","source_code":"","project_name":"\u4ee4\u548c2\u5e74\u5ea6\u6c5f\u306e\u5ddd\u56e0\u539f\u5730\u533a\u5916\u5730\u8cea\u8abf\u67fb\u696d\u52d9","survey_name":"\u4ee4\u548c2\u5e74\u5ea6\u6c5f\u306e\u5ddd\u56e0\u539f\u5730\u533a\u5916\u5730\u8cea\u8abf\u67fb\u696d\u52d9","client_name":"\u56fd\u571f\u4ea4\u901a\u7701\u4e2d\u56fd\u5730\u65b9\u6574\u5099\u5c40\u6d5c\u7530\u6cb3\u5ddd\u56fd\u9053\u4e8b\u52d9\u6240","boring_xml_url":47,"boring_view_url":1,"soilmap_view_url":null,"soiltest_xml_url":0,"soiltest_view_url":0},{"id":355845,"code":"NGIC202003766-0010","latitude":"34.968941111111","longitude":"132.32845861111","source_code":"","project_name":"\u4ee4\u548c2\u5e74\u5ea6\u6c5f\u306e\u5ddd\u56e0\u539f\u5730\u533a\u5916\u5730\u8cea\u8abf\u67fb\u696d\u52d9","survey_name":"\u4ee4\u548c2\u5e74\u5ea6\u6c5f\u306e\u5ddd\u56e0\u539f\u5730\u533a\u5916\u5730\u8cea\u8abf\u67fb\u696d\u52d9","client_name":"\u56fd\u571f\u4ea4\u901a\u7701\u4e2d\u56fd\u5730\u65b9\u6574\u5099\u5c40\u6d5c\u7530\u6cb3\u5ddd\u56fd\u9053\u4e8b\u52d9\u6240","boring_xml_url":47,"boring_view_url":1,"soilmap_view_url":null,"soiltest_xml_url":47,"soiltest_view_url":47},{"id":355844,"code":"NGIC202003766-0009","latitude":"34.954468611111","longitude":"132.39418611111","source_code":"","project_name":"\u4ee4\u548c2\u5e74\u5ea6\u6c5f\u306e\u5ddd\u56e0\u539f\u5730\u533a\u5916\u5730\u8cea\u8abf\u67fb\u696d\u52d9","survey_name":"\u4ee4\u548c2\u5e74\u5ea6\u6c5f\u306e\u5ddd\u56e0\u539f\u5730\u533a\u5916\u5730\u8cea\u8abf\u67fb\u696d\u52d9","client_name":"\u56fd\u571f\u4ea4\u901a\u7701\u4e2d\u56fd\u5730\u65b9\u6574\u5099\u5c40\u6d5c\u7530\u6cb3\u5ddd\u56fd\u9053\u4e8b\u52d9\u6240","boring_xml_url":47,"boring_view_url":1,"soilmap_view_url":null,"soiltest_xml_url":47,"soiltest_view_url":47},{"id":355843,"code":"NGIC202003766-0008","latitude":"34.953695","longitude":"132.39410638889","source_code":"","project_name":"\u4ee4\u548c2\u5e74\u5ea6\u6c5f\u306e\u5ddd\u56e0\u539f\u5730\u533a\u5916\u5730\u8cea\u8abf\u67fb\u696d\u52d9","survey_name":"\u4ee4\u548c2\u5e74\u5ea6\u6c5f\u306e\u5ddd\u56e0\u539f\u5730\u533a\u5916\u5730\u8cea\u8abf\u67fb\u696d\u52d9","client_name":"\u56fd\u571f\u4ea4\u901a\u7701\u4e2d\u56fd\u5730\u65b9\u6574\u5099\u5c40\u6d5c\u7530\u6cb3\u5ddd\u56fd\u9053\u4e8b\u52d9\u6240","boring_xml_url":47,"boring_view_url":1,"soilmap_view_url":null,"soiltest_xml_url":47,"soiltest_view_url":47},{"id":355842,"code":"NGIC202003766-0007","latitude":"34.954923888889","longitude":"132.39421916667","source_code":"","project_name":"\u4ee4\u548c2\u5e74\u5ea6\u6c5f\u306e\u5ddd\u56e0\u539f\u5730\u533a\u5916\u5730\u8cea\u8abf\u67fb\u696d\u52d9","survey_name":"\u4ee4\u548c2\u5e74\u5ea6\u6c5f\u306e\u5ddd\u56e0\u539f\u5730\u533a\u5916\u5730\u8cea\u8abf\u67fb\u696d\u52d9","client_name":"\u56fd\u571f\u4ea4\u901a\u7701\u4e2d\u56fd\u5730\u65b9\u6574\u5099\u5c40\u6d5c\u7530\u6cb3\u5ddd\u56fd\u9053\u4e8b\u52d9\u6240","boring_xml_url":47,"boring_view_url":1,"soilmap_view_url":null,"soiltest_xml_url":47,"soiltest_view_url":47},{"id":355841,"code":"NGIC202003766-0006","latitude":"34.959622777778","longitude":"132.42593861111","source_code":"","project_name":"\u4ee4\u548c2\u5e74\u5ea6\u6c5f\u306e\u5ddd\u56e0\u539f\u5730\u533a\u5916\u5730\u8cea\u8abf\u67fb\u696d\u52d9","survey_name":"\u4ee4\u548c2\u5e74\u5ea6\u6c5f\u306e\u5ddd\u56e0\u539f\u5730\u533a\u5916\u5730\u8cea\u8abf\u67fb\u696d\u52d9","client_name":"\u56fd\u571f\u4ea4\u901a\u7701\u4e2d\u56fd\u5730\u65b9\u6574\u5099\u5c40\u6d5c\u7530\u6cb3\u5ddd\u56fd\u9053\u4e8b\u52d9\u6240","boring_xml_url":47,"boring_view_url":1,"soilmap_view_url":null,"soiltest_xml_url":0,"soiltest_view_url":0},{"id":355840,"code":"NGIC202003766-0005","latitude":"34.958733055556","longitude":"132.42319888889","source_code":"","project_name":"\u4ee4\u548c2\u5e74\u5ea6\u6c5f\u306e\u5ddd\u56e0\u539f\u5730\u533a\u5916\u5730\u8cea\u8abf\u67fb\u696d\u52d9","survey_name":"\u4ee4\u548c2\u5e74\u5ea6\u6c5f\u306e\u5ddd\u56e0\u539f\u5730\u533a\u5916\u5730\u8cea\u8abf\u67fb\u696d\u52d9","client_name":"\u56fd\u571f\u4ea4\u901a\u7701\u4e2d\u56fd\u5730\u65b9\u6574\u5099\u5c40\u6d5c\u7530\u6cb3\u5ddd\u56fd\u9053\u4e8b\u52d9\u6240","boring_xml_url":47,"boring_view_url":1,"soilmap_view_url":null,"soiltest_xml_url":0,"soiltest_view_url":0},{"id":355839,"code":"NGIC202003766-0004","latitude":"34.973193888889","longitude":"132.47506361111","source_code":"","project_name":"\u4ee4\u548c2\u5e74\u5ea6\u6c5f\u306e\u5ddd\u56e0\u539f\u5730\u533a\u5916\u5730\u8cea\u8abf\u67fb\u696d\u52d9","survey_name":"\u4ee4\u548c2\u5e74\u5ea6\u6c5f\u306e\u5ddd\u56e0\u539f\u5730\u533a\u5916\u5730\u8cea\u8abf\u67fb\u696d\u52d9","client_name":"\u56fd\u571f\u4ea4\u901a\u7701\u4e2d\u56fd\u5730\u65b9\u6574\u5099\u5c40\u6d5c\u7530\u6cb3\u5ddd\u56fd\u9053\u4e8b\u52d9\u6240","boring_xml_url":47,"boring_view_url":1,"soilmap_view_url":null,"soiltest_xml_url":47,"soiltest_view_url":47},{"id":355838,"code":"NGIC202003766-0003","latitude":"34.973315833333","longitude":"132.47493","source_code":"","project_name":"\u4ee4\u548c2\u5e74\u5ea6\u6c5f\u306e\u5ddd\u56e0\u539f\u5730\u533a\u5916\u5730\u8cea\u8abf\u67fb\u696d\u52d9","survey_name":"\u4ee4\u548c2\u5e74\u5ea6\u6c5f\u306e\u5ddd\u56e0\u539f\u5730\u533a\u5916\u5730\u8cea\u8abf\u67fb\u696d\u52d9","client_name":"\u56fd\u571f\u4ea4\u901a\u7701\u4e2d\u56fd\u5730\u65b9\u6574\u5099\u5c40\u6d5c\u7530\u6cb3\u5ddd\u56fd\u9053\u4e8b\u52d9\u6240","boring_xml_url":47,"boring_view_url":1,"soilmap_view_url":null,"soiltest_xml_url":47,"soiltest_view_url":47},{"id":355837,"code":"NGIC202003766-0002","latitude":"34.971443888889","longitude":"132.473225","source_code":"","project_name":"\u4ee4\u548c2\u5e74\u5ea6\u6c5f\u306e\u5ddd\u56e0\u539f\u5730\u533a\u5916\u5730\u8cea\u8abf\u67fb\u696d\u52d9","survey_name":"\u4ee4\u548c2\u5e74\u5ea6\u6c5f\u306e\u5ddd\u56e0\u539f\u5730\u533a\u5916\u5730\u8cea\u8abf\u67fb\u696d\u52d9","client_name":"\u56fd\u571f\u4ea4\u901a\u7701\u4e2d\u56fd\u5730\u65b9\u6574\u5099\u5c40\u6d5c\u7530\u6cb3\u5ddd\u56fd\u9053\u4e8b\u52d9\u6240","boring_xml_url":47,"boring_view_url":1,"soilmap_view_url":null,"soiltest_xml_url":47,"soiltest_view_url":47},{"id":355836,"code":"NGIC202003766-0001","latitude":"34.971568333333","longitude":"132.47301277778","source_code":"","project_name":"\u4ee4\u548c2\u5e74\u5ea6\u6c5f\u306e\u5ddd\u56e0\u539f\u5730\u533a\u5916\u5730\u8cea\u8abf\u67fb\u696d\u52d9","survey_name":"\u4ee4\u548c2\u5e74\u5ea6\u6c5f\u306e\u5ddd\u56e0\u539f\u5730\u533a\u5916\u5730\u8cea\u8abf\u67fb\u696d\u52d9","client_name":"\u56fd\u571f\u4ea4\u901a\u7701\u4e2d\u56fd\u5730\u65b9\u6574\u5099\u5c40\u6d5c\u7530\u6cb3\u5ddd\u56fd\u9053\u4e8b\u52d9\u6240","boring_xml_url":47,"boring_view_url":1,"soilmap_view_url":null,"soiltest_xml_url":47,"soiltest_view_url":47}]}}