{"header":{"xyz":{"source":[],"mosaic":false},"page":1994,"raw":{"soiltest_result":"0","bbox":"57.598333,109.544722,1.933333,163.806111","page":"1994"},"conditions":{"soiltest_result":0,"north":57.598333,"west":109.544722,"south":1.933333,"east":163.806111},"success":true,"message":""},"data":{"meta":{"total":212844,"page":1994,"pages":7095,"count":30},"values":[{"id":355391,"code":"NGIC202003861-0005","latitude":"35.985298638889","longitude":"139.39480963889","source_code":"","project_name":"","survey_name":"R1\u5165\u9593\u5ddd\u7b49\u5730\u8cea\u8abf\u67fb\uff08\u305d\u306e2\uff09\u696d\u52d9","client_name":"\u56fd\u571f\u4ea4\u901a\u7701\u95a2\u6771\u5730\u65b9\u6574\u5099\u5c40\u8352\u5ddd\u4e0a\u6d41\u6cb3\u5ddd\u4e8b\u52d9\u6240","boring_xml_url":47,"boring_view_url":1,"soilmap_view_url":null,"soiltest_xml_url":47,"soiltest_view_url":47},{"id":355390,"code":"NGIC202003861-0004","latitude":"35.958119194444","longitude":"139.47365505556","source_code":"","project_name":"","survey_name":"R1\u5165\u9593\u5ddd\u7b49\u5730\u8cea\u8abf\u67fb\uff08\u305d\u306e2\uff09\u696d\u52d9","client_name":"\u56fd\u571f\u4ea4\u901a\u7701\u95a2\u6771\u5730\u65b9\u6574\u5099\u5c40\u8352\u5ddd\u4e0a\u6d41\u6cb3\u5ddd\u4e8b\u52d9\u6240","boring_xml_url":47,"boring_view_url":1,"soilmap_view_url":null,"soiltest_xml_url":47,"soiltest_view_url":47},{"id":355389,"code":"NGIC202003861-0003","latitude":"35.958044888889","longitude":"139.47519688889","source_code":"","project_name":"","survey_name":"R1\u5165\u9593\u5ddd\u7b49\u5730\u8cea\u8abf\u67fb\uff08\u305d\u306e2\uff09\u696d\u52d9","client_name":"\u56fd\u571f\u4ea4\u901a\u7701\u95a2\u6771\u5730\u65b9\u6574\u5099\u5c40\u8352\u5ddd\u4e0a\u6d41\u6cb3\u5ddd\u4e8b\u52d9\u6240","boring_xml_url":47,"boring_view_url":1,"soilmap_view_url":null,"soiltest_xml_url":47,"soiltest_view_url":47},{"id":355388,"code":"NGIC202003861-0002","latitude":"35.957817888889","longitude":"139.47670525","source_code":"","project_name":"","survey_name":"R1\u5165\u9593\u5ddd\u7b49\u5730\u8cea\u8abf\u67fb\uff08\u305d\u306e2\uff09\u696d\u52d9","client_name":"\u56fd\u571f\u4ea4\u901a\u7701\u95a2\u6771\u5730\u65b9\u6574\u5099\u5c40\u8352\u5ddd\u4e0a\u6d41\u6cb3\u5ddd\u4e8b\u52d9\u6240","boring_xml_url":47,"boring_view_url":1,"soilmap_view_url":null,"soiltest_xml_url":47,"soiltest_view_url":47},{"id":355387,"code":"NGIC202003861-0001","latitude":"35.957485777778","longitude":"139.47852841667","source_code":"","project_name":"","survey_name":"R1\u5165\u9593\u5ddd\u7b49\u5730\u8cea\u8abf\u67fb\uff08\u305d\u306e2\uff09\u696d\u52d9","client_name":"\u56fd\u571f\u4ea4\u901a\u7701\u95a2\u6771\u5730\u65b9\u6574\u5099\u5c40\u8352\u5ddd\u4e0a\u6d41\u6cb3\u5ddd\u4e8b\u52d9\u6240","boring_xml_url":47,"boring_view_url":1,"soilmap_view_url":null,"soiltest_xml_url":47,"soiltest_view_url":47},{"id":355386,"code":"NGIC202003872-0013","latitude":"43.075130055556","longitude":"144.80365988889","source_code":"","project_name":"","survey_name":"\u4e00\u822c\u56fd\u905344\u53f7\u539a\u5cb8\u753a\u7cf8\u9b5a\u6ca2\u897f\u5730\u8cea\u8abf\u67fb\u696d\u52d9","client_name":"\u56fd\u571f\u4ea4\u901a\u7701\u5317\u6d77\u9053\u958b\u767a\u5c40\u91e7\u8def\u958b\u767a\u5efa\u8a2d\u90e8\u672c\u90e8","boring_xml_url":47,"boring_view_url":1,"soilmap_view_url":null,"soiltest_xml_url":0,"soiltest_view_url":0},{"id":355385,"code":"NGIC202003872-0012","latitude":"43.070963861111","longitude":"144.80743786111","source_code":"","project_name":"","survey_name":"\u4e00\u822c\u56fd\u905344\u53f7\u539a\u5cb8\u753a\u7cf8\u9b5a\u6ca2\u897f\u5730\u8cea\u8abf\u67fb\u696d\u52d9","client_name":"\u56fd\u571f\u4ea4\u901a\u7701\u5317\u6d77\u9053\u958b\u767a\u5c40\u91e7\u8def\u958b\u767a\u5efa\u8a2d\u90e8\u672c\u90e8","boring_xml_url":47,"boring_view_url":1,"soilmap_view_url":null,"soiltest_xml_url":0,"soiltest_view_url":0},{"id":355384,"code":"NGIC202003872-0011","latitude":"43.106025472222","longitude":"144.95163566667","source_code":"","project_name":"","survey_name":"\u4e00\u822c\u56fd\u905344\u53f7\u539a\u5cb8\u753a\u7cf8\u9b5a\u6ca2\u897f\u5730\u8cea\u8abf\u67fb\u696d\u52d9","client_name":"\u56fd\u571f\u4ea4\u901a\u7701\u5317\u6d77\u9053\u958b\u767a\u5c40\u91e7\u8def\u958b\u767a\u5efa\u8a2d\u90e8\u672c\u90e8","boring_xml_url":47,"boring_view_url":1,"soilmap_view_url":null,"soiltest_xml_url":47,"soiltest_view_url":47},{"id":355383,"code":"NGIC202003872-0010","latitude":"43.1082335","longitude":"144.89648458333","source_code":"","project_name":"","survey_name":"\u4e00\u822c\u56fd\u905344\u53f7\u539a\u5cb8\u753a\u7cf8\u9b5a\u6ca2\u897f\u5730\u8cea\u8abf\u67fb\u696d\u52d9","client_name":"\u56fd\u571f\u4ea4\u901a\u7701\u5317\u6d77\u9053\u958b\u767a\u5c40\u91e7\u8def\u958b\u767a\u5efa\u8a2d\u90e8\u672c\u90e8","boring_xml_url":47,"boring_view_url":1,"soilmap_view_url":null,"soiltest_xml_url":47,"soiltest_view_url":47},{"id":355382,"code":"NGIC202003872-0009","latitude":"43.103734611111","longitude":"144.8702415","source_code":"","project_name":"","survey_name":"\u4e00\u822c\u56fd\u905344\u53f7\u539a\u5cb8\u753a\u7cf8\u9b5a\u6ca2\u897f\u5730\u8cea\u8abf\u67fb\u696d\u52d9","client_name":"\u56fd\u571f\u4ea4\u901a\u7701\u5317\u6d77\u9053\u958b\u767a\u5c40\u91e7\u8def\u958b\u767a\u5efa\u8a2d\u90e8\u672c\u90e8","boring_xml_url":47,"boring_view_url":1,"soilmap_view_url":null,"soiltest_xml_url":47,"soiltest_view_url":47},{"id":355381,"code":"NGIC202003872-0008","latitude":"43.087723333333","longitude":"144.84552930556","source_code":"","project_name":"","survey_name":"\u4e00\u822c\u56fd\u905344\u53f7\u539a\u5cb8\u753a\u7cf8\u9b5a\u6ca2\u897f\u5730\u8cea\u8abf\u67fb\u696d\u52d9","client_name":"\u56fd\u571f\u4ea4\u901a\u7701\u5317\u6d77\u9053\u958b\u767a\u5c40\u91e7\u8def\u958b\u767a\u5efa\u8a2d\u90e8\u672c\u90e8","boring_xml_url":47,"boring_view_url":1,"soilmap_view_url":null,"soiltest_xml_url":47,"soiltest_view_url":47},{"id":355380,"code":"NGIC202003872-0007","latitude":"43.082109555556","longitude":"144.81504422222","source_code":"","project_name":"","survey_name":"\u4e00\u822c\u56fd\u905344\u53f7\u539a\u5cb8\u753a\u7cf8\u9b5a\u6ca2\u897f\u5730\u8cea\u8abf\u67fb\u696d\u52d9","client_name":"\u56fd\u571f\u4ea4\u901a\u7701\u5317\u6d77\u9053\u958b\u767a\u5c40\u91e7\u8def\u958b\u767a\u5efa\u8a2d\u90e8\u672c\u90e8","boring_xml_url":47,"boring_view_url":1,"soilmap_view_url":null,"soiltest_xml_url":47,"soiltest_view_url":47},{"id":355379,"code":"NGIC202003872-0006","latitude":"43.058504722222","longitude":"144.78014258333","source_code":"","project_name":"","survey_name":"\u4e00\u822c\u56fd\u905344\u53f7\u539a\u5cb8\u753a\u7cf8\u9b5a\u6ca2\u897f\u5730\u8cea\u8abf\u67fb\u696d\u52d9","client_name":"\u56fd\u571f\u4ea4\u901a\u7701\u5317\u6d77\u9053\u958b\u767a\u5c40\u91e7\u8def\u958b\u767a\u5efa\u8a2d\u90e8\u672c\u90e8","boring_xml_url":47,"boring_view_url":1,"soilmap_view_url":null,"soiltest_xml_url":0,"soiltest_view_url":0},{"id":355378,"code":"NGIC202003872-0005","latitude":"43.060521333333","longitude":"144.7845185","source_code":"","project_name":"","survey_name":"\u4e00\u822c\u56fd\u905344\u53f7\u539a\u5cb8\u753a\u7cf8\u9b5a\u6ca2\u897f\u5730\u8cea\u8abf\u67fb\u696d\u52d9","client_name":"\u56fd\u571f\u4ea4\u901a\u7701\u5317\u6d77\u9053\u958b\u767a\u5c40\u91e7\u8def\u958b\u767a\u5efa\u8a2d\u90e8\u672c\u90e8","boring_xml_url":47,"boring_view_url":1,"soilmap_view_url":null,"soiltest_xml_url":0,"soiltest_view_url":0},{"id":355377,"code":"NGIC202003872-0004","latitude":"43.056510194444","longitude":"144.77615494444","source_code":"","project_name":"","survey_name":"\u4e00\u822c\u56fd\u905344\u53f7\u539a\u5cb8\u753a\u7cf8\u9b5a\u6ca2\u897f\u5730\u8cea\u8abf\u67fb\u696d\u52d9","client_name":"\u56fd\u571f\u4ea4\u901a\u7701\u5317\u6d77\u9053\u958b\u767a\u5c40\u91e7\u8def\u958b\u767a\u5efa\u8a2d\u90e8\u672c\u90e8","boring_xml_url":47,"boring_view_url":1,"soilmap_view_url":null,"soiltest_xml_url":0,"soiltest_view_url":0},{"id":355376,"code":"NGIC202003872-0003","latitude":"43.056082722222","longitude":"144.77514727778","source_code":"","project_name":"","survey_name":"\u4e00\u822c\u56fd\u905344\u53f7\u539a\u5cb8\u753a\u7cf8\u9b5a\u6ca2\u897f\u5730\u8cea\u8abf\u67fb\u696d\u52d9","client_name":"\u56fd\u571f\u4ea4\u901a\u7701\u5317\u6d77\u9053\u958b\u767a\u5c40\u91e7\u8def\u958b\u767a\u5efa\u8a2d\u90e8\u672c\u90e8","boring_xml_url":47,"boring_view_url":1,"soilmap_view_url":null,"soiltest_xml_url":0,"soiltest_view_url":0},{"id":355375,"code":"NGIC202003872-0002","latitude":"43.056082722222","longitude":"144.77514727778","source_code":"","project_name":"","survey_name":"\u4e00\u822c\u56fd\u905344\u53f7\u539a\u5cb8\u753a\u7cf8\u9b5a\u6ca2\u897f\u5730\u8cea\u8abf\u67fb\u696d\u52d9","client_name":"\u56fd\u571f\u4ea4\u901a\u7701\u5317\u6d77\u9053\u958b\u767a\u5c40\u91e7\u8def\u958b\u767a\u5efa\u8a2d\u90e8\u672c\u90e8","boring_xml_url":47,"boring_view_url":1,"soilmap_view_url":null,"soiltest_xml_url":0,"soiltest_view_url":0},{"id":355374,"code":"NGIC202003872-0001","latitude":"43.055890833333","longitude":"144.77463502778","source_code":"","project_name":"","survey_name":"\u4e00\u822c\u56fd\u905344\u53f7\u539a\u5cb8\u753a\u7cf8\u9b5a\u6ca2\u897f\u5730\u8cea\u8abf\u67fb\u696d\u52d9","client_name":"\u56fd\u571f\u4ea4\u901a\u7701\u5317\u6d77\u9053\u958b\u767a\u5c40\u91e7\u8def\u958b\u767a\u5efa\u8a2d\u90e8\u672c\u90e8","boring_xml_url":47,"boring_view_url":1,"soilmap_view_url":null,"soiltest_xml_url":0,"soiltest_view_url":0},{"id":355364,"code":"NGIC202003686-0015","latitude":"31.443319388889","longitude":"130.98659227778","source_code":"","project_name":"\u4ee4\u548c2\u5e74\u5ea6\u65e5\u5357\u30fb\u5fd7\u5e03\u5fd7\u9053\u8def\u7acb\u5c71\u6a4b\u5730\u8cea\u8abf\u67fb\u696d\u52d9","survey_name":"\u4ee4\u548c2\u5e74\u5ea6\u65e5\u5357\u30fb\u5fd7\u5e03\u5fd7\u9053\u8def\u7acb\u5c71\u6a4b\u5730\u8cea\u8abf\u67fb\u696d\u52d9","client_name":"\u56fd\u571f\u4ea4\u901a\u7701\u4e5d\u5dde\u5730\u65b9\u6574\u5099\u5c40\u5927\u9685\u6cb3\u5ddd\u56fd\u9053\u4e8b\u52d9\u6240","boring_xml_url":47,"boring_view_url":1,"soilmap_view_url":null,"soiltest_xml_url":0,"soiltest_view_url":0},{"id":355363,"code":"NGIC202003686-0014","latitude":"31.442736833333","longitude":"130.98695366667","source_code":"","project_name":"\u4ee4\u548c2\u5e74\u5ea6\u65e5\u5357\u30fb\u5fd7\u5e03\u5fd7\u9053\u8def\u7acb\u5c71\u6a4b\u5730\u8cea\u8abf\u67fb\u696d\u52d9","survey_name":"\u4ee4\u548c2\u5e74\u5ea6\u65e5\u5357\u30fb\u5fd7\u5e03\u5fd7\u9053\u8def\u7acb\u5c71\u6a4b\u5730\u8cea\u8abf\u67fb\u696d\u52d9","client_name":"\u56fd\u571f\u4ea4\u901a\u7701\u4e5d\u5dde\u5730\u65b9\u6574\u5099\u5c40\u5927\u9685\u6cb3\u5ddd\u56fd\u9053\u4e8b\u52d9\u6240","boring_xml_url":47,"boring_view_url":1,"soilmap_view_url":null,"soiltest_xml_url":0,"soiltest_view_url":0},{"id":355362,"code":"NGIC202003686-0013","latitude":"31.460556805556","longitude":"130.90059972222","source_code":"","project_name":"\u4ee4\u548c2\u5e74\u5ea6\u65e5\u5357\u30fb\u5fd7\u5e03\u5fd7\u9053\u8def\u7acb\u5c71\u6a4b\u5730\u8cea\u8abf\u67fb\u696d\u52d9","survey_name":"\u4ee4\u548c2\u5e74\u5ea6\u65e5\u5357\u30fb\u5fd7\u5e03\u5fd7\u9053\u8def\u7acb\u5c71\u6a4b\u5730\u8cea\u8abf\u67fb\u696d\u52d9","client_name":"\u56fd\u571f\u4ea4\u901a\u7701\u4e5d\u5dde\u5730\u65b9\u6574\u5099\u5c40\u5927\u9685\u6cb3\u5ddd\u56fd\u9053\u4e8b\u52d9\u6240","boring_xml_url":47,"boring_view_url":1,"soilmap_view_url":null,"soiltest_xml_url":47,"soiltest_view_url":47},{"id":355361,"code":"NGIC202003686-0012","latitude":"31.460521527778","longitude":"130.90053855556","source_code":"","project_name":"\u4ee4\u548c2\u5e74\u5ea6\u65e5\u5357\u30fb\u5fd7\u5e03\u5fd7\u9053\u8def\u7acb\u5c71\u6a4b\u5730\u8cea\u8abf\u67fb\u696d\u52d9","survey_name":"\u4ee4\u548c2\u5e74\u5ea6\u65e5\u5357\u30fb\u5fd7\u5e03\u5fd7\u9053\u8def\u7acb\u5c71\u6a4b\u5730\u8cea\u8abf\u67fb\u696d\u52d9","client_name":"\u56fd\u571f\u4ea4\u901a\u7701\u4e5d\u5dde\u5730\u65b9\u6574\u5099\u5c40\u5927\u9685\u6cb3\u5ddd\u56fd\u9053\u4e8b\u52d9\u6240","boring_xml_url":47,"boring_view_url":1,"soilmap_view_url":null,"soiltest_xml_url":47,"soiltest_view_url":47},{"id":355360,"code":"NGIC202003686-0011","latitude":"31.443230305556","longitude":"130.92679441667","source_code":"","project_name":"\u4ee4\u548c2\u5e74\u5ea6\u65e5\u5357\u30fb\u5fd7\u5e03\u5fd7\u9053\u8def\u7acb\u5c71\u6a4b\u5730\u8cea\u8abf\u67fb\u696d\u52d9","survey_name":"\u4ee4\u548c2\u5e74\u5ea6\u65e5\u5357\u30fb\u5fd7\u5e03\u5fd7\u9053\u8def\u7acb\u5c71\u6a4b\u5730\u8cea\u8abf\u67fb\u696d\u52d9","client_name":"\u56fd\u571f\u4ea4\u901a\u7701\u4e5d\u5dde\u5730\u65b9\u6574\u5099\u5c40\u5927\u9685\u6cb3\u5ddd\u56fd\u9053\u4e8b\u52d9\u6240","boring_xml_url":47,"boring_view_url":1,"soilmap_view_url":null,"soiltest_xml_url":0,"soiltest_view_url":0},{"id":355359,"code":"NGIC202003686-0010","latitude":"31.443926777778","longitude":"130.92767919444","source_code":"","project_name":"\u4ee4\u548c2\u5e74\u5ea6\u65e5\u5357\u30fb\u5fd7\u5e03\u5fd7\u9053\u8def\u7acb\u5c71\u6a4b\u5730\u8cea\u8abf\u67fb\u696d\u52d9","survey_name":"\u4ee4\u548c2\u5e74\u5ea6\u65e5\u5357\u30fb\u5fd7\u5e03\u5fd7\u9053\u8def\u7acb\u5c71\u6a4b\u5730\u8cea\u8abf\u67fb\u696d\u52d9","client_name":"\u56fd\u571f\u4ea4\u901a\u7701\u4e5d\u5dde\u5730\u65b9\u6574\u5099\u5c40\u5927\u9685\u6cb3\u5ddd\u56fd\u9053\u4e8b\u52d9\u6240","boring_xml_url":47,"boring_view_url":1,"soilmap_view_url":null,"soiltest_xml_url":47,"soiltest_view_url":47},{"id":355358,"code":"NGIC202003686-0009","latitude":"31.445126611111","longitude":"130.92927608333","source_code":"","project_name":"\u4ee4\u548c2\u5e74\u5ea6\u65e5\u5357\u30fb\u5fd7\u5e03\u5fd7\u9053\u8def\u7acb\u5c71\u6a4b\u5730\u8cea\u8abf\u67fb\u696d\u52d9","survey_name":"\u4ee4\u548c2\u5e74\u5ea6\u65e5\u5357\u30fb\u5fd7\u5e03\u5fd7\u9053\u8def\u7acb\u5c71\u6a4b\u5730\u8cea\u8abf\u67fb\u696d\u52d9","client_name":"\u56fd\u571f\u4ea4\u901a\u7701\u4e5d\u5dde\u5730\u65b9\u6574\u5099\u5c40\u5927\u9685\u6cb3\u5ddd\u56fd\u9053\u4e8b\u52d9\u6240","boring_xml_url":47,"boring_view_url":1,"soilmap_view_url":null,"soiltest_xml_url":47,"soiltest_view_url":47},{"id":355357,"code":"NGIC202003686-0008","latitude":"31.491064111111","longitude":"131.10356672222","source_code":"","project_name":"\u4ee4\u548c2\u5e74\u5ea6\u65e5\u5357\u30fb\u5fd7\u5e03\u5fd7\u9053\u8def\u7acb\u5c71\u6a4b\u5730\u8cea\u8abf\u67fb\u696d\u52d9","survey_name":"\u4ee4\u548c2\u5e74\u5ea6\u65e5\u5357\u30fb\u5fd7\u5e03\u5fd7\u9053\u8def\u7acb\u5c71\u6a4b\u5730\u8cea\u8abf\u67fb\u696d\u52d9","client_name":"\u56fd\u571f\u4ea4\u901a\u7701\u4e5d\u5dde\u5730\u65b9\u6574\u5099\u5c40\u5927\u9685\u6cb3\u5ddd\u56fd\u9053\u4e8b\u52d9\u6240","boring_xml_url":47,"boring_view_url":1,"soilmap_view_url":null,"soiltest_xml_url":0,"soiltest_view_url":0},{"id":355356,"code":"NGIC202003686-0007","latitude":"31.491140611111","longitude":"131.10375375","source_code":"","project_name":"\u4ee4\u548c2\u5e74\u5ea6\u65e5\u5357\u30fb\u5fd7\u5e03\u5fd7\u9053\u8def\u7acb\u5c71\u6a4b\u5730\u8cea\u8abf\u67fb\u696d\u52d9","survey_name":"\u4ee4\u548c2\u5e74\u5ea6\u65e5\u5357\u30fb\u5fd7\u5e03\u5fd7\u9053\u8def\u7acb\u5c71\u6a4b\u5730\u8cea\u8abf\u67fb\u696d\u52d9","client_name":"\u56fd\u571f\u4ea4\u901a\u7701\u4e5d\u5dde\u5730\u65b9\u6574\u5099\u5c40\u5927\u9685\u6cb3\u5ddd\u56fd\u9053\u4e8b\u52d9\u6240","boring_xml_url":47,"boring_view_url":1,"soilmap_view_url":null,"soiltest_xml_url":0,"soiltest_view_url":0},{"id":355355,"code":"NGIC202003686-0006","latitude":"31.491041222222","longitude":"131.10365544444","source_code":"","project_name":"\u4ee4\u548c2\u5e74\u5ea6\u65e5\u5357\u30fb\u5fd7\u5e03\u5fd7\u9053\u8def\u7acb\u5c71\u6a4b\u5730\u8cea\u8abf\u67fb\u696d\u52d9","survey_name":"\u4ee4\u548c2\u5e74\u5ea6\u65e5\u5357\u30fb\u5fd7\u5e03\u5fd7\u9053\u8def\u7acb\u5c71\u6a4b\u5730\u8cea\u8abf\u67fb\u696d\u52d9","client_name":"\u56fd\u571f\u4ea4\u901a\u7701\u4e5d\u5dde\u5730\u65b9\u6574\u5099\u5c40\u5927\u9685\u6cb3\u5ddd\u56fd\u9053\u4e8b\u52d9\u6240","boring_xml_url":47,"boring_view_url":1,"soilmap_view_url":null,"soiltest_xml_url":0,"soiltest_view_url":0},{"id":355354,"code":"NGIC202003686-0005","latitude":"31.491004527778","longitude":"131.10407097222","source_code":"","project_name":"\u4ee4\u548c2\u5e74\u5ea6\u65e5\u5357\u30fb\u5fd7\u5e03\u5fd7\u9053\u8def\u7acb\u5c71\u6a4b\u5730\u8cea\u8abf\u67fb\u696d\u52d9","survey_name":"\u4ee4\u548c2\u5e74\u5ea6\u65e5\u5357\u30fb\u5fd7\u5e03\u5fd7\u9053\u8def\u7acb\u5c71\u6a4b\u5730\u8cea\u8abf\u67fb\u696d\u52d9","client_name":"\u56fd\u571f\u4ea4\u901a\u7701\u4e5d\u5dde\u5730\u65b9\u6574\u5099\u5c40\u5927\u9685\u6cb3\u5ddd\u56fd\u9053\u4e8b\u52d9\u6240","boring_xml_url":47,"boring_view_url":1,"soilmap_view_url":null,"soiltest_xml_url":0,"soiltest_view_url":0},{"id":355353,"code":"NGIC202003686-0004","latitude":"31.490897944444","longitude":"131.10412077778","source_code":"","project_name":"\u4ee4\u548c2\u5e74\u5ea6\u65e5\u5357\u30fb\u5fd7\u5e03\u5fd7\u9053\u8def\u7acb\u5c71\u6a4b\u5730\u8cea\u8abf\u67fb\u696d\u52d9","survey_name":"\u4ee4\u548c2\u5e74\u5ea6\u65e5\u5357\u30fb\u5fd7\u5e03\u5fd7\u9053\u8def\u7acb\u5c71\u6a4b\u5730\u8cea\u8abf\u67fb\u696d\u52d9","client_name":"\u56fd\u571f\u4ea4\u901a\u7701\u4e5d\u5dde\u5730\u65b9\u6574\u5099\u5c40\u5927\u9685\u6cb3\u5ddd\u56fd\u9053\u4e8b\u52d9\u6240","boring_xml_url":47,"boring_view_url":1,"soilmap_view_url":null,"soiltest_xml_url":0,"soiltest_view_url":0}]}}