{"header":{"xyz":{"source":[],"mosaic":false},"page":2000,"raw":{"soiltest_result":"0","bbox":"57.598333,109.544722,1.933333,163.806111","page":"2000"},"conditions":{"soiltest_result":0,"north":57.598333,"west":109.544722,"south":1.933333,"east":163.806111},"success":true,"message":""},"data":{"meta":{"total":212844,"page":2000,"pages":7095,"count":30},"values":[{"id":354871,"code":"NGIC202003637-0011","latitude":"33.020664555556","longitude":"132.99816019444","source_code":"","project_name":"\n      ","survey_name":"\u4ee4\u548c2\u5e74\u5ea6\u7530\u30ce\u53e3\u30c8\u30f3\u30cd\u30eb\u5916\u5730\u8cea\u8abf\u67fb\u696d\u52d9","client_name":"\u56fd\u571f\u4ea4\u901a\u7701\u56db\u56fd\u5730\u65b9\u6574\u5099\u5c40\u4e2d\u6751\u6cb3\u5ddd\u56fd\u9053\u4e8b\u52d9\u6240","boring_xml_url":47,"boring_view_url":1,"soilmap_view_url":null,"soiltest_xml_url":0,"soiltest_view_url":0},{"id":354870,"code":"NGIC202003637-0010","latitude":"33.021034277778","longitude":"132.99772680556","source_code":"","project_name":"\n      ","survey_name":"\u4ee4\u548c2\u5e74\u5ea6\u7530\u30ce\u53e3\u30c8\u30f3\u30cd\u30eb\u5916\u5730\u8cea\u8abf\u67fb\u696d\u52d9","client_name":"\u56fd\u571f\u4ea4\u901a\u7701\u56db\u56fd\u5730\u65b9\u6574\u5099\u5c40\u4e2d\u6751\u6cb3\u5ddd\u56fd\u9053\u4e8b\u52d9\u6240","boring_xml_url":47,"boring_view_url":1,"soilmap_view_url":null,"soiltest_xml_url":0,"soiltest_view_url":0},{"id":354869,"code":"NGIC202003637-0009","latitude":"33.021338472222","longitude":"132.99933791667","source_code":"","project_name":"\n      ","survey_name":"\u4ee4\u548c2\u5e74\u5ea6\u7530\u30ce\u53e3\u30c8\u30f3\u30cd\u30eb\u5916\u5730\u8cea\u8abf\u67fb\u696d\u52d9","client_name":"\u56fd\u571f\u4ea4\u901a\u7701\u56db\u56fd\u5730\u65b9\u6574\u5099\u5c40\u4e2d\u6751\u6cb3\u5ddd\u56fd\u9053\u4e8b\u52d9\u6240","boring_xml_url":47,"boring_view_url":1,"soilmap_view_url":null,"soiltest_xml_url":0,"soiltest_view_url":0},{"id":354868,"code":"NGIC202003637-0008","latitude":"33.015423277778","longitude":"132.98981836111","source_code":"","project_name":"\n      ","survey_name":"\u4ee4\u548c2\u5e74\u5ea6\u7530\u30ce\u53e3\u30c8\u30f3\u30cd\u30eb\u5916\u5730\u8cea\u8abf\u67fb\u696d\u52d9","client_name":"\u56fd\u571f\u4ea4\u901a\u7701\u56db\u56fd\u5730\u65b9\u6574\u5099\u5c40\u4e2d\u6751\u6cb3\u5ddd\u56fd\u9053\u4e8b\u52d9\u6240","boring_xml_url":47,"boring_view_url":1,"soilmap_view_url":null,"soiltest_xml_url":0,"soiltest_view_url":0},{"id":354867,"code":"NGIC202003637-0007","latitude":"33.01571025","longitude":"132.98998411111","source_code":"","project_name":"\n      ","survey_name":"\u4ee4\u548c2\u5e74\u5ea6\u7530\u30ce\u53e3\u30c8\u30f3\u30cd\u30eb\u5916\u5730\u8cea\u8abf\u67fb\u696d\u52d9","client_name":"\u56fd\u571f\u4ea4\u901a\u7701\u56db\u56fd\u5730\u65b9\u6574\u5099\u5c40\u4e2d\u6751\u6cb3\u5ddd\u56fd\u9053\u4e8b\u52d9\u6240","boring_xml_url":47,"boring_view_url":1,"soilmap_view_url":null,"soiltest_xml_url":0,"soiltest_view_url":0},{"id":354866,"code":"NGIC202003637-0006","latitude":"33.016593777778","longitude":"132.99096391667","source_code":"","project_name":"\n      ","survey_name":"\u4ee4\u548c2\u5e74\u5ea6\u7530\u30ce\u53e3\u30c8\u30f3\u30cd\u30eb\u5916\u5730\u8cea\u8abf\u67fb\u696d\u52d9","client_name":"\u56fd\u571f\u4ea4\u901a\u7701\u56db\u56fd\u5730\u65b9\u6574\u5099\u5c40\u4e2d\u6751\u6cb3\u5ddd\u56fd\u9053\u4e8b\u52d9\u6240","boring_xml_url":47,"boring_view_url":1,"soilmap_view_url":null,"soiltest_xml_url":0,"soiltest_view_url":0},{"id":354865,"code":"NGIC202003637-0005","latitude":"33.017096944444","longitude":"132.99132836111","source_code":"","project_name":"\n      ","survey_name":"\u4ee4\u548c2\u5e74\u5ea6\u7530\u30ce\u53e3\u30c8\u30f3\u30cd\u30eb\u5916\u5730\u8cea\u8abf\u67fb\u696d\u52d9","client_name":"\u56fd\u571f\u4ea4\u901a\u7701\u56db\u56fd\u5730\u65b9\u6574\u5099\u5c40\u4e2d\u6751\u6cb3\u5ddd\u56fd\u9053\u4e8b\u52d9\u6240","boring_xml_url":47,"boring_view_url":1,"soilmap_view_url":null,"soiltest_xml_url":0,"soiltest_view_url":0},{"id":354864,"code":"NGIC202003637-0004","latitude":"33.02052825","longitude":"132.99696936111","source_code":"","project_name":"\n      ","survey_name":"\u4ee4\u548c2\u5e74\u5ea6\u7530\u30ce\u53e3\u30c8\u30f3\u30cd\u30eb\u5916\u5730\u8cea\u8abf\u67fb\u696d\u52d9","client_name":"\u56fd\u571f\u4ea4\u901a\u7701\u56db\u56fd\u5730\u65b9\u6574\u5099\u5c40\u4e2d\u6751\u6cb3\u5ddd\u56fd\u9053\u4e8b\u52d9\u6240","boring_xml_url":47,"boring_view_url":1,"soilmap_view_url":null,"soiltest_xml_url":0,"soiltest_view_url":0},{"id":354863,"code":"NGIC202003637-0003","latitude":"33.020931916667","longitude":"132.99805061111","source_code":"","project_name":"\n      ","survey_name":"\u4ee4\u548c2\u5e74\u5ea6\u7530\u30ce\u53e3\u30c8\u30f3\u30cd\u30eb\u5916\u5730\u8cea\u8abf\u67fb\u696d\u52d9","client_name":"\u56fd\u571f\u4ea4\u901a\u7701\u56db\u56fd\u5730\u65b9\u6574\u5099\u5c40\u4e2d\u6751\u6cb3\u5ddd\u56fd\u9053\u4e8b\u52d9\u6240","boring_xml_url":47,"boring_view_url":1,"soilmap_view_url":null,"soiltest_xml_url":0,"soiltest_view_url":0},{"id":354862,"code":"NGIC202003637-0002","latitude":"33.021063166667","longitude":"132.99840361111","source_code":"","project_name":"\n      ","survey_name":"\u4ee4\u548c2\u5e74\u5ea6\u7530\u30ce\u53e3\u30c8\u30f3\u30cd\u30eb\u5916\u5730\u8cea\u8abf\u67fb\u696d\u52d9","client_name":"\u56fd\u571f\u4ea4\u901a\u7701\u56db\u56fd\u5730\u65b9\u6574\u5099\u5c40\u4e2d\u6751\u6cb3\u5ddd\u56fd\u9053\u4e8b\u52d9\u6240","boring_xml_url":47,"boring_view_url":1,"soilmap_view_url":null,"soiltest_xml_url":0,"soiltest_view_url":0},{"id":354861,"code":"NGIC202003637-0001","latitude":"33.021673388889","longitude":"132.99920116667","source_code":"","project_name":"\n      ","survey_name":"\u4ee4\u548c2\u5e74\u5ea6\u7530\u30ce\u53e3\u30c8\u30f3\u30cd\u30eb\u5916\u5730\u8cea\u8abf\u67fb\u696d\u52d9","client_name":"\u56fd\u571f\u4ea4\u901a\u7701\u56db\u56fd\u5730\u65b9\u6574\u5099\u5c40\u4e2d\u6751\u6cb3\u5ddd\u56fd\u9053\u4e8b\u52d9\u6240","boring_xml_url":47,"boring_view_url":1,"soilmap_view_url":null,"soiltest_xml_url":0,"soiltest_view_url":0},{"id":354849,"code":"NGIC202003784-0017","latitude":"37.891116666667","longitude":"140.77171111111","source_code":"","project_name":"","survey_name":"\u4ee4\u548c2\u5e74\u5ea6\u5185\u5ddd\u7b49\u69cb\u9020\u7269\u8abf\u67fb\u8a2d\u8a08(\u305d\u306e2)\u696d\u52d9","client_name":"\u56fd\u571f\u4ea4\u901a\u7701\u6771\u5317\u5730\u65b9\u6574\u5099\u5c40\u5bae\u57ce\u5357\u90e8\u5fa9\u8208\u4e8b\u52d9\u6240","boring_xml_url":47,"boring_view_url":1,"soilmap_view_url":null,"soiltest_xml_url":47,"soiltest_view_url":47},{"id":354848,"code":"NGIC202003784-0014","latitude":"37.899466666667","longitude":"140.77226388889","source_code":"","project_name":"","survey_name":"\u4ee4\u548c2\u5e74\u5ea6\u5185\u5ddd\u7b49\u69cb\u9020\u7269\u8abf\u67fb\u8a2d\u8a08(\u305d\u306e2)\u696d\u52d9","client_name":"\u56fd\u571f\u4ea4\u901a\u7701\u6771\u5317\u5730\u65b9\u6574\u5099\u5c40\u5bae\u57ce\u5357\u90e8\u5fa9\u8208\u4e8b\u52d9\u6240","boring_xml_url":47,"boring_view_url":1,"soilmap_view_url":null,"soiltest_xml_url":47,"soiltest_view_url":47},{"id":354847,"code":"NGIC202003784-0010","latitude":"37.90015","longitude":"140.77253055556","source_code":"","project_name":"","survey_name":"\u4ee4\u548c2\u5e74\u5ea6\u5185\u5ddd\u7b49\u69cb\u9020\u7269\u8abf\u67fb\u8a2d\u8a08(\u305d\u306e2)\u696d\u52d9","client_name":"\u56fd\u571f\u4ea4\u901a\u7701\u6771\u5317\u5730\u65b9\u6574\u5099\u5c40\u5bae\u57ce\u5357\u90e8\u5fa9\u8208\u4e8b\u52d9\u6240","boring_xml_url":47,"boring_view_url":1,"soilmap_view_url":null,"soiltest_xml_url":47,"soiltest_view_url":47},{"id":354846,"code":"NGIC202003784-0008","latitude":"37.908738888889","longitude":"140.76686111111","source_code":"","project_name":"","survey_name":"\u4ee4\u548c2\u5e74\u5ea6\u5185\u5ddd\u7b49\u69cb\u9020\u7269\u8abf\u67fb\u8a2d\u8a08(\u305d\u306e2)\u696d\u52d9","client_name":"\u56fd\u571f\u4ea4\u901a\u7701\u6771\u5317\u5730\u65b9\u6574\u5099\u5c40\u5bae\u57ce\u5357\u90e8\u5fa9\u8208\u4e8b\u52d9\u6240","boring_xml_url":47,"boring_view_url":1,"soilmap_view_url":null,"soiltest_xml_url":47,"soiltest_view_url":47},{"id":354845,"code":"NGIC202003784-0005","latitude":"37.908402777778","longitude":"140.76648333333","source_code":"","project_name":"","survey_name":"\u4ee4\u548c2\u5e74\u5ea6\u5185\u5ddd\u7b49\u69cb\u9020\u7269\u8abf\u67fb\u8a2d\u8a08(\u305d\u306e2)\u696d\u52d9","client_name":"\u56fd\u571f\u4ea4\u901a\u7701\u6771\u5317\u5730\u65b9\u6574\u5099\u5c40\u5bae\u57ce\u5357\u90e8\u5fa9\u8208\u4e8b\u52d9\u6240","boring_xml_url":47,"boring_view_url":1,"soilmap_view_url":null,"soiltest_xml_url":47,"soiltest_view_url":47},{"id":354844,"code":"NGIC202003784-0003","latitude":"37.900130555556","longitude":"140.77485555556","source_code":"","project_name":"","survey_name":"\u4ee4\u548c2\u5e74\u5ea6\u5185\u5ddd\u7b49\u69cb\u9020\u7269\u8abf\u67fb\u8a2d\u8a08(\u305d\u306e2)\u696d\u52d9","client_name":"\u56fd\u571f\u4ea4\u901a\u7701\u6771\u5317\u5730\u65b9\u6574\u5099\u5c40\u5bae\u57ce\u5357\u90e8\u5fa9\u8208\u4e8b\u52d9\u6240","boring_xml_url":47,"boring_view_url":1,"soilmap_view_url":null,"soiltest_xml_url":0,"soiltest_view_url":0},{"id":354843,"code":"NGIC202003784-0001","latitude":"37.900336111111","longitude":"140.77459444444","source_code":"","project_name":"","survey_name":"\u4ee4\u548c2\u5e74\u5ea6\u5185\u5ddd\u7b49\u69cb\u9020\u7269\u8abf\u67fb\u8a2d\u8a08(\u305d\u306e2)\u696d\u52d9","client_name":"\u56fd\u571f\u4ea4\u901a\u7701\u6771\u5317\u5730\u65b9\u6574\u5099\u5c40\u5bae\u57ce\u5357\u90e8\u5fa9\u8208\u4e8b\u52d9\u6240","boring_xml_url":47,"boring_view_url":1,"soilmap_view_url":null,"soiltest_xml_url":47,"soiltest_view_url":47},{"id":354842,"code":"NGIC202003742-0008","latitude":"37.05705","longitude":"138.97567822222","source_code":"","project_name":"\n      ","survey_name":"\u4ee4\u548c2\u5e74\u5ea6\u5730\u8cea\u8abf\u67fb\u696d\u52d9","client_name":"\u56fd\u571f\u4ea4\u901a\u7701\u5317\u9678\u5730\u65b9\u6574\u5099\u5c40\u6e6f\u6ca2\u7802\u9632\u4e8b\u52d9\u6240","boring_xml_url":47,"boring_view_url":1,"soilmap_view_url":null,"soiltest_xml_url":0,"soiltest_view_url":0},{"id":354841,"code":"NGIC202003742-0007","latitude":"37.057310916667","longitude":"138.97544202778","source_code":"","project_name":"\n      ","survey_name":"\u4ee4\u548c2\u5e74\u5ea6\u5730\u8cea\u8abf\u67fb\u696d\u52d9","client_name":"\u56fd\u571f\u4ea4\u901a\u7701\u5317\u9678\u5730\u65b9\u6574\u5099\u5c40\u6e6f\u6ca2\u7802\u9632\u4e8b\u52d9\u6240","boring_xml_url":47,"boring_view_url":1,"soilmap_view_url":null,"soiltest_xml_url":0,"soiltest_view_url":0},{"id":354840,"code":"NGIC202003742-0006","latitude":"37.057397333333","longitude":"138.97536377778","source_code":"","project_name":"\n      ","survey_name":"\u4ee4\u548c2\u5e74\u5ea6\u5730\u8cea\u8abf\u67fb\u696d\u52d9","client_name":"\u56fd\u571f\u4ea4\u901a\u7701\u5317\u9678\u5730\u65b9\u6574\u5099\u5c40\u6e6f\u6ca2\u7802\u9632\u4e8b\u52d9\u6240","boring_xml_url":47,"boring_view_url":1,"soilmap_view_url":null,"soiltest_xml_url":0,"soiltest_view_url":0},{"id":354839,"code":"NGIC202003742-0005","latitude":"36.914676527778","longitude":"138.6385085","source_code":"","project_name":"\n      ","survey_name":"\u4ee4\u548c2\u5e74\u5ea6\u5730\u8cea\u8abf\u67fb\u696d\u52d9","client_name":"\u56fd\u571f\u4ea4\u901a\u7701\u5317\u9678\u5730\u65b9\u6574\u5099\u5c40\u6e6f\u6ca2\u7802\u9632\u4e8b\u52d9\u6240","boring_xml_url":47,"boring_view_url":1,"soilmap_view_url":null,"soiltest_xml_url":0,"soiltest_view_url":0},{"id":354838,"code":"NGIC202003742-0004","latitude":"36.914348777778","longitude":"138.63901213889","source_code":"","project_name":"\n      ","survey_name":"\u4ee4\u548c2\u5e74\u5ea6\u5730\u8cea\u8abf\u67fb\u696d\u52d9","client_name":"\u56fd\u571f\u4ea4\u901a\u7701\u5317\u9678\u5730\u65b9\u6574\u5099\u5c40\u6e6f\u6ca2\u7802\u9632\u4e8b\u52d9\u6240","boring_xml_url":47,"boring_view_url":1,"soilmap_view_url":null,"soiltest_xml_url":0,"soiltest_view_url":0},{"id":354837,"code":"NGIC202003742-0003","latitude":"36.914727972222","longitude":"138.63914877778","source_code":"","project_name":"\n      ","survey_name":"\u4ee4\u548c2\u5e74\u5ea6\u5730\u8cea\u8abf\u67fb\u696d\u52d9","client_name":"\u56fd\u571f\u4ea4\u901a\u7701\u5317\u9678\u5730\u65b9\u6574\u5099\u5c40\u6e6f\u6ca2\u7802\u9632\u4e8b\u52d9\u6240","boring_xml_url":47,"boring_view_url":1,"soilmap_view_url":null,"soiltest_xml_url":0,"soiltest_view_url":0},{"id":354836,"code":"NGIC202003742-0002","latitude":"36.914626111111","longitude":"138.63895852778","source_code":"","project_name":"\n      ","survey_name":"\u4ee4\u548c2\u5e74\u5ea6\u5730\u8cea\u8abf\u67fb\u696d\u52d9","client_name":"\u56fd\u571f\u4ea4\u901a\u7701\u5317\u9678\u5730\u65b9\u6574\u5099\u5c40\u6e6f\u6ca2\u7802\u9632\u4e8b\u52d9\u6240","boring_xml_url":47,"boring_view_url":1,"soilmap_view_url":null,"soiltest_xml_url":0,"soiltest_view_url":0},{"id":354835,"code":"NGIC202003742-0001","latitude":"36.914373416667","longitude":"138.63897533333","source_code":"","project_name":"\n      ","survey_name":"\u4ee4\u548c2\u5e74\u5ea6\u5730\u8cea\u8abf\u67fb\u696d\u52d9","client_name":"\u56fd\u571f\u4ea4\u901a\u7701\u5317\u9678\u5730\u65b9\u6574\u5099\u5c40\u6e6f\u6ca2\u7802\u9632\u4e8b\u52d9\u6240","boring_xml_url":47,"boring_view_url":1,"soilmap_view_url":null,"soiltest_xml_url":0,"soiltest_view_url":0},{"id":354834,"code":"NGIC202003636-0001","latitude":"35.382908333333","longitude":"135.14170833333","source_code":"","project_name":"","survey_name":"\u7531\u826f\u5ddd\u6d41\u57df\u6a0b\u9580\u8010\u9707\u7167\u67fb\u696d\u52d9","client_name":"\u56fd\u571f\u4ea4\u901a\u7701\u8fd1\u757f\u5730\u65b9\u6574\u5099\u5c40\u798f\u77e5\u5c71\u6cb3\u5ddd\u56fd\u9053\u4e8b\u52d9\u6240","boring_xml_url":47,"boring_view_url":1,"soilmap_view_url":null,"soiltest_xml_url":47,"soiltest_view_url":47},{"id":354833,"code":"NGIC202003635-0004","latitude":"34.736613888889","longitude":"135.28113888889","source_code":"","project_name":"","survey_name":"\u65b0\u6e4a\u5ddd\u6d41\u57df\u4ed6\u7802\u9632\u5830\u5824\u8a2d\u8a08\u696d\u52d9","client_name":"\u56fd\u571f\u4ea4\u901a\u7701\u8fd1\u757f\u5730\u65b9\u6574\u5099\u5c40\u516d\u7532\u7802\u9632\u4e8b\u52d9\u6240","boring_xml_url":47,"boring_view_url":1,"soilmap_view_url":null,"soiltest_xml_url":0,"soiltest_view_url":0},{"id":354832,"code":"NGIC202003635-0003","latitude":"34.736816666667","longitude":"135.28119722222","source_code":"","project_name":"","survey_name":"\u65b0\u6e4a\u5ddd\u6d41\u57df\u4ed6\u7802\u9632\u5830\u5824\u8a2d\u8a08\u696d\u52d9","client_name":"\u56fd\u571f\u4ea4\u901a\u7701\u8fd1\u757f\u5730\u65b9\u6574\u5099\u5c40\u516d\u7532\u7802\u9632\u4e8b\u52d9\u6240","boring_xml_url":47,"boring_view_url":1,"soilmap_view_url":null,"soiltest_xml_url":0,"soiltest_view_url":0},{"id":354831,"code":"NGIC202003635-0002","latitude":"34.736730555556","longitude":"135.28097777778","source_code":"","project_name":"","survey_name":"\u65b0\u6e4a\u5ddd\u6d41\u57df\u4ed6\u7802\u9632\u5830\u5824\u8a2d\u8a08\u696d\u52d9","client_name":"\u56fd\u571f\u4ea4\u901a\u7701\u8fd1\u757f\u5730\u65b9\u6574\u5099\u5c40\u516d\u7532\u7802\u9632\u4e8b\u52d9\u6240","boring_xml_url":47,"boring_view_url":1,"soilmap_view_url":null,"soiltest_xml_url":0,"soiltest_view_url":0}]}}