{"header":{"xyz":{"source":[],"mosaic":false},"page":2003,"raw":{"soiltest_result":"0","bbox":"57.598333,109.544722,1.933333,163.806111","page":"2003"},"conditions":{"soiltest_result":0,"north":57.598333,"west":109.544722,"south":1.933333,"east":163.806111},"success":true,"message":""},"data":{"meta":{"total":212844,"page":2003,"pages":7095,"count":30},"values":[{"id":354724,"code":"NGIC202003744-0002","latitude":"35.784786111111","longitude":"137.95484444444","source_code":"","project_name":"\u4ee4\u548c2\u5e74\u5ea6\u98ef\u7530\u56fd\u9053\u7ba1\u5185\u5730\u8cea\u8abf\u67fb\u696d\u52d9","survey_name":"\u4ee4\u548c2\u5e74\u5ea6\u98ef\u7530\u56fd\u9053\u7ba1\u5185\u5730\u8cea\u8abf\u67fb\u696d\u52d9","client_name":"\u56fd\u571f\u4ea4\u901a\u7701\u4e2d\u90e8\u5730\u65b9\u6574\u5099\u5c40\u98ef\u7530\u56fd\u9053\u4e8b\u52d9\u6240","boring_xml_url":47,"boring_view_url":1,"soilmap_view_url":null,"soiltest_xml_url":0,"soiltest_view_url":0},{"id":354723,"code":"NGIC202003744-0001","latitude":"35.781036111111","longitude":"137.95344722222","source_code":"","project_name":"\u4ee4\u548c2\u5e74\u5ea6\u98ef\u7530\u56fd\u9053\u7ba1\u5185\u5730\u8cea\u8abf\u67fb\u696d\u52d9","survey_name":"\u4ee4\u548c2\u5e74\u5ea6\u98ef\u7530\u56fd\u9053\u7ba1\u5185\u5730\u8cea\u8abf\u67fb\u696d\u52d9","client_name":"\u56fd\u571f\u4ea4\u901a\u7701\u4e2d\u90e8\u5730\u65b9\u6574\u5099\u5c40\u98ef\u7530\u56fd\u9053\u4e8b\u52d9\u6240","boring_xml_url":47,"boring_view_url":1,"soilmap_view_url":null,"soiltest_xml_url":0,"soiltest_view_url":0},{"id":354692,"code":"NGIC202003694-0012","latitude":"36.904688888889","longitude":"138.78169444444","source_code":"","project_name":"\u4ee4\u548c2\u5e74\u5ea6\u56fd\u905317\u53f7\u4e09\u4fe3\u9632\u707d\u5730\u8cea\u8abf\u67fb\u696d\u52d9","survey_name":"\u4ee4\u548c2\u5e74\u5ea6\u56fd\u905317\u53f7\u4e09\u4fe3\u9632\u707d\u5730\u8cea\u8abf\u67fb\u696d\u52d9","client_name":"\u56fd\u571f\u4ea4\u901a\u7701\u5317\u9678\u5730\u65b9\u6574\u5099\u5c40\u9577\u5ca1\u56fd\u9053\u4e8b\u52d9\u6240","boring_xml_url":47,"boring_view_url":1,"soilmap_view_url":null,"soiltest_xml_url":0,"soiltest_view_url":0},{"id":354691,"code":"NGIC202003694-0011","latitude":"36.904716666667","longitude":"138.78216111111","source_code":"","project_name":"\u4ee4\u548c2\u5e74\u5ea6\u56fd\u905317\u53f7\u4e09\u4fe3\u9632\u707d\u5730\u8cea\u8abf\u67fb\u696d\u52d9","survey_name":"\u4ee4\u548c2\u5e74\u5ea6\u56fd\u905317\u53f7\u4e09\u4fe3\u9632\u707d\u5730\u8cea\u8abf\u67fb\u696d\u52d9","client_name":"\u56fd\u571f\u4ea4\u901a\u7701\u5317\u9678\u5730\u65b9\u6574\u5099\u5c40\u9577\u5ca1\u56fd\u9053\u4e8b\u52d9\u6240","boring_xml_url":47,"boring_view_url":1,"soilmap_view_url":null,"soiltest_xml_url":47,"soiltest_view_url":47},{"id":354690,"code":"NGIC202003694-0010","latitude":"36.904716666667","longitude":"138.78216111111","source_code":"","project_name":"\u4ee4\u548c2\u5e74\u5ea6\u56fd\u905317\u53f7\u4e09\u4fe3\u9632\u707d\u5730\u8cea\u8abf\u67fb\u696d\u52d9","survey_name":"\u4ee4\u548c2\u5e74\u5ea6\u56fd\u905317\u53f7\u4e09\u4fe3\u9632\u707d\u5730\u8cea\u8abf\u67fb\u696d\u52d9","client_name":"\u56fd\u571f\u4ea4\u901a\u7701\u5317\u9678\u5730\u65b9\u6574\u5099\u5c40\u9577\u5ca1\u56fd\u9053\u4e8b\u52d9\u6240","boring_xml_url":47,"boring_view_url":1,"soilmap_view_url":null,"soiltest_xml_url":0,"soiltest_view_url":0},{"id":354689,"code":"NGIC202003694-0009","latitude":"36.901827777778","longitude":"138.77749722222","source_code":"","project_name":"\u4ee4\u548c2\u5e74\u5ea6\u56fd\u905317\u53f7\u4e09\u4fe3\u9632\u707d\u5730\u8cea\u8abf\u67fb\u696d\u52d9","survey_name":"\u4ee4\u548c2\u5e74\u5ea6\u56fd\u905317\u53f7\u4e09\u4fe3\u9632\u707d\u5730\u8cea\u8abf\u67fb\u696d\u52d9","client_name":"\u56fd\u571f\u4ea4\u901a\u7701\u5317\u9678\u5730\u65b9\u6574\u5099\u5c40\u9577\u5ca1\u56fd\u9053\u4e8b\u52d9\u6240","boring_xml_url":47,"boring_view_url":1,"soilmap_view_url":null,"soiltest_xml_url":0,"soiltest_view_url":0},{"id":354688,"code":"NGIC202003694-0008","latitude":"36.905022222222","longitude":"138.78166944444","source_code":"","project_name":"\u4ee4\u548c2\u5e74\u5ea6\u56fd\u905317\u53f7\u4e09\u4fe3\u9632\u707d\u5730\u8cea\u8abf\u67fb\u696d\u52d9","survey_name":"\u4ee4\u548c2\u5e74\u5ea6\u56fd\u905317\u53f7\u4e09\u4fe3\u9632\u707d\u5730\u8cea\u8abf\u67fb\u696d\u52d9","client_name":"\u56fd\u571f\u4ea4\u901a\u7701\u5317\u9678\u5730\u65b9\u6574\u5099\u5c40\u9577\u5ca1\u56fd\u9053\u4e8b\u52d9\u6240","boring_xml_url":47,"boring_view_url":1,"soilmap_view_url":null,"soiltest_xml_url":47,"soiltest_view_url":47},{"id":354687,"code":"NGIC202003694-0007","latitude":"36.904861111111","longitude":"138.78209722222","source_code":"","project_name":"\u4ee4\u548c2\u5e74\u5ea6\u56fd\u905317\u53f7\u4e09\u4fe3\u9632\u707d\u5730\u8cea\u8abf\u67fb\u696d\u52d9","survey_name":"\u4ee4\u548c2\u5e74\u5ea6\u56fd\u905317\u53f7\u4e09\u4fe3\u9632\u707d\u5730\u8cea\u8abf\u67fb\u696d\u52d9","client_name":"\u56fd\u571f\u4ea4\u901a\u7701\u5317\u9678\u5730\u65b9\u6574\u5099\u5c40\u9577\u5ca1\u56fd\u9053\u4e8b\u52d9\u6240","boring_xml_url":47,"boring_view_url":1,"soilmap_view_url":null,"soiltest_xml_url":47,"soiltest_view_url":47},{"id":354686,"code":"NGIC202003694-0006","latitude":"36.904861111111","longitude":"138.78209722222","source_code":"","project_name":"\u4ee4\u548c2\u5e74\u5ea6\u56fd\u905317\u53f7\u4e09\u4fe3\u9632\u707d\u5730\u8cea\u8abf\u67fb\u696d\u52d9","survey_name":"\u4ee4\u548c2\u5e74\u5ea6\u56fd\u905317\u53f7\u4e09\u4fe3\u9632\u707d\u5730\u8cea\u8abf\u67fb\u696d\u52d9","client_name":"\u56fd\u571f\u4ea4\u901a\u7701\u5317\u9678\u5730\u65b9\u6574\u5099\u5c40\u9577\u5ca1\u56fd\u9053\u4e8b\u52d9\u6240","boring_xml_url":47,"boring_view_url":1,"soilmap_view_url":null,"soiltest_xml_url":47,"soiltest_view_url":47},{"id":354685,"code":"NGIC202003694-0005","latitude":"36.904838888889","longitude":"138.78099722222","source_code":"","project_name":"\u4ee4\u548c2\u5e74\u5ea6\u56fd\u905317\u53f7\u4e09\u4fe3\u9632\u707d\u5730\u8cea\u8abf\u67fb\u696d\u52d9","survey_name":"\u4ee4\u548c2\u5e74\u5ea6\u56fd\u905317\u53f7\u4e09\u4fe3\u9632\u707d\u5730\u8cea\u8abf\u67fb\u696d\u52d9","client_name":"\u56fd\u571f\u4ea4\u901a\u7701\u5317\u9678\u5730\u65b9\u6574\u5099\u5c40\u9577\u5ca1\u56fd\u9053\u4e8b\u52d9\u6240","boring_xml_url":47,"boring_view_url":1,"soilmap_view_url":null,"soiltest_xml_url":47,"soiltest_view_url":47},{"id":354684,"code":"NGIC202003694-0004","latitude":"36.904838888889","longitude":"138.78099722222","source_code":"","project_name":"\u4ee4\u548c2\u5e74\u5ea6\u56fd\u905317\u53f7\u4e09\u4fe3\u9632\u707d\u5730\u8cea\u8abf\u67fb\u696d\u52d9","survey_name":"\u4ee4\u548c2\u5e74\u5ea6\u56fd\u905317\u53f7\u4e09\u4fe3\u9632\u707d\u5730\u8cea\u8abf\u67fb\u696d\u52d9","client_name":"\u56fd\u571f\u4ea4\u901a\u7701\u5317\u9678\u5730\u65b9\u6574\u5099\u5c40\u9577\u5ca1\u56fd\u9053\u4e8b\u52d9\u6240","boring_xml_url":47,"boring_view_url":1,"soilmap_view_url":null,"soiltest_xml_url":47,"soiltest_view_url":47},{"id":354683,"code":"NGIC202003694-0003","latitude":"36.904422222222","longitude":"138.78002222222","source_code":"","project_name":"\u4ee4\u548c2\u5e74\u5ea6\u56fd\u905317\u53f7\u4e09\u4fe3\u9632\u707d\u5730\u8cea\u8abf\u67fb\u696d\u52d9","survey_name":"\u4ee4\u548c2\u5e74\u5ea6\u56fd\u905317\u53f7\u4e09\u4fe3\u9632\u707d\u5730\u8cea\u8abf\u67fb\u696d\u52d9","client_name":"\u56fd\u571f\u4ea4\u901a\u7701\u5317\u9678\u5730\u65b9\u6574\u5099\u5c40\u9577\u5ca1\u56fd\u9053\u4e8b\u52d9\u6240","boring_xml_url":47,"boring_view_url":1,"soilmap_view_url":null,"soiltest_xml_url":0,"soiltest_view_url":0},{"id":354682,"code":"NGIC202003694-0002","latitude":"36.904422222222","longitude":"138.78002222222","source_code":"","project_name":"\u4ee4\u548c2\u5e74\u5ea6\u56fd\u905317\u53f7\u4e09\u4fe3\u9632\u707d\u5730\u8cea\u8abf\u67fb\u696d\u52d9","survey_name":"\u4ee4\u548c2\u5e74\u5ea6\u56fd\u905317\u53f7\u4e09\u4fe3\u9632\u707d\u5730\u8cea\u8abf\u67fb\u696d\u52d9","client_name":"\u56fd\u571f\u4ea4\u901a\u7701\u5317\u9678\u5730\u65b9\u6574\u5099\u5c40\u9577\u5ca1\u56fd\u9053\u4e8b\u52d9\u6240","boring_xml_url":47,"boring_view_url":1,"soilmap_view_url":null,"soiltest_xml_url":0,"soiltest_view_url":0},{"id":354681,"code":"NGIC202003694-0001","latitude":"36.9046","longitude":"138.77990555556","source_code":"","project_name":"\u4ee4\u548c2\u5e74\u5ea6\u56fd\u905317\u53f7\u4e09\u4fe3\u9632\u707d\u5730\u8cea\u8abf\u67fb\u696d\u52d9","survey_name":"\u4ee4\u548c2\u5e74\u5ea6\u56fd\u905317\u53f7\u4e09\u4fe3\u9632\u707d\u5730\u8cea\u8abf\u67fb\u696d\u52d9","client_name":"\u56fd\u571f\u4ea4\u901a\u7701\u5317\u9678\u5730\u65b9\u6574\u5099\u5c40\u9577\u5ca1\u56fd\u9053\u4e8b\u52d9\u6240","boring_xml_url":47,"boring_view_url":1,"soilmap_view_url":null,"soiltest_xml_url":47,"soiltest_view_url":47},{"id":354680,"code":"NGIC202003699-0014","latitude":"36.351291666667","longitude":"140.06144444444","source_code":"","project_name":"","survey_name":"R2\u56fd\u905350\u53f7\u5354\u548c\u30d0\u30a4\u30d1\u30b9\u5730\u8cea\u8abf\u67fb\u696d\u52d9","client_name":"\u56fd\u571f\u4ea4\u901a\u7701\u95a2\u6771\u5730\u65b9\u6574\u5099\u5c40\u5e38\u9678\u6cb3\u5ddd\u56fd\u9053\u4e8b\u52d9\u6240","boring_xml_url":47,"boring_view_url":1,"soilmap_view_url":null,"soiltest_xml_url":0,"soiltest_view_url":0},{"id":354679,"code":"NGIC202003699-0013","latitude":"36.351030555556","longitude":"140.05968888889","source_code":"","project_name":"","survey_name":"R2\u56fd\u905350\u53f7\u5354\u548c\u30d0\u30a4\u30d1\u30b9\u5730\u8cea\u8abf\u67fb\u696d\u52d9","client_name":"\u56fd\u571f\u4ea4\u901a\u7701\u95a2\u6771\u5730\u65b9\u6574\u5099\u5c40\u5e38\u9678\u6cb3\u5ddd\u56fd\u9053\u4e8b\u52d9\u6240","boring_xml_url":47,"boring_view_url":1,"soilmap_view_url":null,"soiltest_xml_url":47,"soiltest_view_url":47},{"id":354678,"code":"NGIC202003699-0012","latitude":"36.350716666667","longitude":"140.05833055556","source_code":"","project_name":"","survey_name":"R2\u56fd\u905350\u53f7\u5354\u548c\u30d0\u30a4\u30d1\u30b9\u5730\u8cea\u8abf\u67fb\u696d\u52d9","client_name":"\u56fd\u571f\u4ea4\u901a\u7701\u95a2\u6771\u5730\u65b9\u6574\u5099\u5c40\u5e38\u9678\u6cb3\u5ddd\u56fd\u9053\u4e8b\u52d9\u6240","boring_xml_url":47,"boring_view_url":1,"soilmap_view_url":null,"soiltest_xml_url":47,"soiltest_view_url":47},{"id":354677,"code":"NGIC202003699-0011","latitude":"36.348011111111","longitude":"140.04598333333","source_code":"","project_name":"","survey_name":"R2\u56fd\u905350\u53f7\u5354\u548c\u30d0\u30a4\u30d1\u30b9\u5730\u8cea\u8abf\u67fb\u696d\u52d9","client_name":"\u56fd\u571f\u4ea4\u901a\u7701\u95a2\u6771\u5730\u65b9\u6574\u5099\u5c40\u5e38\u9678\u6cb3\u5ddd\u56fd\u9053\u4e8b\u52d9\u6240","boring_xml_url":47,"boring_view_url":1,"soilmap_view_url":null,"soiltest_xml_url":47,"soiltest_view_url":47},{"id":354676,"code":"NGIC202003699-0010","latitude":"36.348888888889","longitude":"140.04247222222","source_code":"","project_name":"","survey_name":"R2\u56fd\u905350\u53f7\u5354\u548c\u30d0\u30a4\u30d1\u30b9\u5730\u8cea\u8abf\u67fb\u696d\u52d9","client_name":"\u56fd\u571f\u4ea4\u901a\u7701\u95a2\u6771\u5730\u65b9\u6574\u5099\u5c40\u5e38\u9678\u6cb3\u5ddd\u56fd\u9053\u4e8b\u52d9\u6240","boring_xml_url":47,"boring_view_url":1,"soilmap_view_url":null,"soiltest_xml_url":47,"soiltest_view_url":47},{"id":354675,"code":"NGIC202003699-0009","latitude":"36.347647222222","longitude":"140.03724166667","source_code":"","project_name":"","survey_name":"R2\u56fd\u905350\u53f7\u5354\u548c\u30d0\u30a4\u30d1\u30b9\u5730\u8cea\u8abf\u67fb\u696d\u52d9","client_name":"\u56fd\u571f\u4ea4\u901a\u7701\u95a2\u6771\u5730\u65b9\u6574\u5099\u5c40\u5e38\u9678\u6cb3\u5ddd\u56fd\u9053\u4e8b\u52d9\u6240","boring_xml_url":47,"boring_view_url":1,"soilmap_view_url":null,"soiltest_xml_url":47,"soiltest_view_url":47},{"id":354674,"code":"NGIC202003699-0008","latitude":"36.347602777778","longitude":"140.0371","source_code":"","project_name":"","survey_name":"R2\u56fd\u905350\u53f7\u5354\u548c\u30d0\u30a4\u30d1\u30b9\u5730\u8cea\u8abf\u67fb\u696d\u52d9","client_name":"\u56fd\u571f\u4ea4\u901a\u7701\u95a2\u6771\u5730\u65b9\u6574\u5099\u5c40\u5e38\u9678\u6cb3\u5ddd\u56fd\u9053\u4e8b\u52d9\u6240","boring_xml_url":47,"boring_view_url":1,"soilmap_view_url":null,"soiltest_xml_url":47,"soiltest_view_url":47},{"id":354673,"code":"NGIC202003699-0007","latitude":"36.347244444444","longitude":"140.03288333333","source_code":"","project_name":"","survey_name":"R2\u56fd\u905350\u53f7\u5354\u548c\u30d0\u30a4\u30d1\u30b9\u5730\u8cea\u8abf\u67fb\u696d\u52d9","client_name":"\u56fd\u571f\u4ea4\u901a\u7701\u95a2\u6771\u5730\u65b9\u6574\u5099\u5c40\u5e38\u9678\u6cb3\u5ddd\u56fd\u9053\u4e8b\u52d9\u6240","boring_xml_url":47,"boring_view_url":1,"soilmap_view_url":null,"soiltest_xml_url":47,"soiltest_view_url":47},{"id":354672,"code":"NGIC202003699-0006","latitude":"36.345766666667","longitude":"140.02831944444","source_code":"","project_name":"","survey_name":"R2\u56fd\u905350\u53f7\u5354\u548c\u30d0\u30a4\u30d1\u30b9\u5730\u8cea\u8abf\u67fb\u696d\u52d9","client_name":"\u56fd\u571f\u4ea4\u901a\u7701\u95a2\u6771\u5730\u65b9\u6574\u5099\u5c40\u5e38\u9678\u6cb3\u5ddd\u56fd\u9053\u4e8b\u52d9\u6240","boring_xml_url":47,"boring_view_url":1,"soilmap_view_url":null,"soiltest_xml_url":47,"soiltest_view_url":47},{"id":354671,"code":"NGIC202003699-0005","latitude":"36.344991666667","longitude":"140.02615","source_code":"","project_name":"","survey_name":"R2\u56fd\u905350\u53f7\u5354\u548c\u30d0\u30a4\u30d1\u30b9\u5730\u8cea\u8abf\u67fb\u696d\u52d9","client_name":"\u56fd\u571f\u4ea4\u901a\u7701\u95a2\u6771\u5730\u65b9\u6574\u5099\u5c40\u5e38\u9678\u6cb3\u5ddd\u56fd\u9053\u4e8b\u52d9\u6240","boring_xml_url":47,"boring_view_url":1,"soilmap_view_url":null,"soiltest_xml_url":47,"soiltest_view_url":47},{"id":354670,"code":"NGIC202003699-0004","latitude":"36.341630555556","longitude":"140.02256388889","source_code":"","project_name":"","survey_name":"R2\u56fd\u905350\u53f7\u5354\u548c\u30d0\u30a4\u30d1\u30b9\u5730\u8cea\u8abf\u67fb\u696d\u52d9","client_name":"\u56fd\u571f\u4ea4\u901a\u7701\u95a2\u6771\u5730\u65b9\u6574\u5099\u5c40\u5e38\u9678\u6cb3\u5ddd\u56fd\u9053\u4e8b\u52d9\u6240","boring_xml_url":47,"boring_view_url":1,"soilmap_view_url":null,"soiltest_xml_url":47,"soiltest_view_url":47},{"id":354669,"code":"NGIC202003699-0003","latitude":"36.335533333333","longitude":"140.02300555556","source_code":"","project_name":"","survey_name":"R2\u56fd\u905350\u53f7\u5354\u548c\u30d0\u30a4\u30d1\u30b9\u5730\u8cea\u8abf\u67fb\u696d\u52d9","client_name":"\u56fd\u571f\u4ea4\u901a\u7701\u95a2\u6771\u5730\u65b9\u6574\u5099\u5c40\u5e38\u9678\u6cb3\u5ddd\u56fd\u9053\u4e8b\u52d9\u6240","boring_xml_url":47,"boring_view_url":1,"soilmap_view_url":null,"soiltest_xml_url":47,"soiltest_view_url":47},{"id":354668,"code":"NGIC202003699-0002","latitude":"36.332147222222","longitude":"140.02288611111","source_code":"","project_name":"","survey_name":"R2\u56fd\u905350\u53f7\u5354\u548c\u30d0\u30a4\u30d1\u30b9\u5730\u8cea\u8abf\u67fb\u696d\u52d9","client_name":"\u56fd\u571f\u4ea4\u901a\u7701\u95a2\u6771\u5730\u65b9\u6574\u5099\u5c40\u5e38\u9678\u6cb3\u5ddd\u56fd\u9053\u4e8b\u52d9\u6240","boring_xml_url":47,"boring_view_url":1,"soilmap_view_url":null,"soiltest_xml_url":47,"soiltest_view_url":47},{"id":354667,"code":"NGIC202003699-0001","latitude":"36.326919444444","longitude":"140.01552222222","source_code":"","project_name":"","survey_name":"R2\u56fd\u905350\u53f7\u5354\u548c\u30d0\u30a4\u30d1\u30b9\u5730\u8cea\u8abf\u67fb\u696d\u52d9","client_name":"\u56fd\u571f\u4ea4\u901a\u7701\u95a2\u6771\u5730\u65b9\u6574\u5099\u5c40\u5e38\u9678\u6cb3\u5ddd\u56fd\u9053\u4e8b\u52d9\u6240","boring_xml_url":47,"boring_view_url":1,"soilmap_view_url":null,"soiltest_xml_url":47,"soiltest_view_url":47},{"id":354645,"code":"NGIC202003664-0018","latitude":"35.644158333333","longitude":"138.05726666667","source_code":"","project_name":"\u5973\u9ad8\u7802\u9632\u5830\u5824","survey_name":"\u4ee4\u548c2\u5e74\u5ea6\u5929\u7adc\u5ddd\u6c34\u7cfb\u4e0b\u4f0a\u90a3\u5730\u533a\u5730\u8cea\u8abf\u67fb\u696d\u52d9","client_name":"\u56fd\u571f\u4ea4\u901a\u7701\u4e2d\u90e8\u5730\u65b9\u6574\u5099\u5c40\u5929\u7adc\u5ddd\u4e0a\u6d41\u6cb3\u5ddd\u4e8b\u52d9\u6240","boring_xml_url":47,"boring_view_url":1,"soilmap_view_url":null,"soiltest_xml_url":0,"soiltest_view_url":0},{"id":354644,"code":"NGIC202003664-0017","latitude":"35.64425","longitude":"138.05771388889","source_code":"","project_name":"\u5973\u9ad8\u7802\u9632\u5830\u5824","survey_name":"\u4ee4\u548c2\u5e74\u5ea6\u5929\u7adc\u5ddd\u6c34\u7cfb\u4e0b\u4f0a\u90a3\u5730\u533a\u5730\u8cea\u8abf\u67fb\u696d\u52d9","client_name":"\u56fd\u571f\u4ea4\u901a\u7701\u4e2d\u90e8\u5730\u65b9\u6574\u5099\u5c40\u5929\u7adc\u5ddd\u4e0a\u6d41\u6cb3\u5ddd\u4e8b\u52d9\u6240","boring_xml_url":47,"boring_view_url":1,"soilmap_view_url":null,"soiltest_xml_url":0,"soiltest_view_url":0}]}}