{"header":{"xyz":{"source":[],"mosaic":false},"page":2004,"raw":{"soiltest_result":"0","bbox":"57.598333,109.544722,1.933333,163.806111","page":"2004"},"conditions":{"soiltest_result":0,"north":57.598333,"west":109.544722,"south":1.933333,"east":163.806111},"success":true,"message":""},"data":{"meta":{"total":212844,"page":2004,"pages":7095,"count":30},"values":[{"id":354643,"code":"NGIC202003664-0016","latitude":"35.332161111111","longitude":"137.97565","source_code":"","project_name":"\u6c60\u53e3\u5ddd\u7802\u9632\u5830\u5824","survey_name":"\u4ee4\u548c2\u5e74\u5ea6\u5929\u7adc\u5ddd\u6c34\u7cfb\u4e0b\u4f0a\u90a3\u5730\u533a\u5730\u8cea\u8abf\u67fb\u696d\u52d9","client_name":"\u56fd\u571f\u4ea4\u901a\u7701\u4e2d\u90e8\u5730\u65b9\u6574\u5099\u5c40\u5929\u7adc\u5ddd\u4e0a\u6d41\u6cb3\u5ddd\u4e8b\u52d9\u6240","boring_xml_url":47,"boring_view_url":1,"soilmap_view_url":null,"soiltest_xml_url":0,"soiltest_view_url":0},{"id":354642,"code":"NGIC202003664-0015","latitude":"35.678597222222","longitude":"138.06265833333","source_code":"","project_name":"\u77e2\u7acb\u6728\u7802\u9632\u5830\u5824","survey_name":"\u4ee4\u548c2\u5e74\u5ea6\u5929\u7adc\u5ddd\u6c34\u7cfb\u4e0b\u4f0a\u90a3\u5730\u533a\u5730\u8cea\u8abf\u67fb\u696d\u52d9","client_name":"\u56fd\u571f\u4ea4\u901a\u7701\u4e2d\u90e8\u5730\u65b9\u6574\u5099\u5c40\u5929\u7adc\u5ddd\u4e0a\u6d41\u6cb3\u5ddd\u4e8b\u52d9\u6240","boring_xml_url":47,"boring_view_url":1,"soilmap_view_url":null,"soiltest_xml_url":0,"soiltest_view_url":0},{"id":354641,"code":"NGIC202003664-0014","latitude":"35.678875","longitude":"138.06298055556","source_code":"","project_name":"\u77e2\u7acb\u6728\u7802\u9632\u5830\u5824","survey_name":"\u4ee4\u548c2\u5e74\u5ea6\u5929\u7adc\u5ddd\u6c34\u7cfb\u4e0b\u4f0a\u90a3\u5730\u533a\u5730\u8cea\u8abf\u67fb\u696d\u52d9","client_name":"\u56fd\u571f\u4ea4\u901a\u7701\u4e2d\u90e8\u5730\u65b9\u6574\u5099\u5c40\u5929\u7adc\u5ddd\u4e0a\u6d41\u6cb3\u5ddd\u4e8b\u52d9\u6240","boring_xml_url":47,"boring_view_url":1,"soilmap_view_url":null,"soiltest_xml_url":0,"soiltest_view_url":0},{"id":354640,"code":"NGIC202003664-0013","latitude":"35.678955555556","longitude":"138.06265","source_code":"","project_name":"\u77e2\u7acb\u6728\u7802\u9632\u5830\u5824","survey_name":"\u4ee4\u548c2\u5e74\u5ea6\u5929\u7adc\u5ddd\u6c34\u7cfb\u4e0b\u4f0a\u90a3\u5730\u533a\u5730\u8cea\u8abf\u67fb\u696d\u52d9","client_name":"\u56fd\u571f\u4ea4\u901a\u7701\u4e2d\u90e8\u5730\u65b9\u6574\u5099\u5c40\u5929\u7adc\u5ddd\u4e0a\u6d41\u6cb3\u5ddd\u4e8b\u52d9\u6240","boring_xml_url":47,"boring_view_url":1,"soilmap_view_url":null,"soiltest_xml_url":0,"soiltest_view_url":0},{"id":354639,"code":"NGIC202003664-0012","latitude":"35.678830555556","longitude":"138.06225","source_code":"","project_name":"\u77e2\u7acb\u6728\u7802\u9632\u5830\u5824","survey_name":"\u4ee4\u548c2\u5e74\u5ea6\u5929\u7adc\u5ddd\u6c34\u7cfb\u4e0b\u4f0a\u90a3\u5730\u533a\u5730\u8cea\u8abf\u67fb\u696d\u52d9","client_name":"\u56fd\u571f\u4ea4\u901a\u7701\u4e2d\u90e8\u5730\u65b9\u6574\u5099\u5c40\u5929\u7adc\u5ddd\u4e0a\u6d41\u6cb3\u5ddd\u4e8b\u52d9\u6240","boring_xml_url":47,"boring_view_url":1,"soilmap_view_url":null,"soiltest_xml_url":0,"soiltest_view_url":0},{"id":354638,"code":"NGIC202003664-0011","latitude":"35.663116666667","longitude":"138.0645","source_code":"","project_name":"\u5317\u5ddd\u7b2c2\u7802\u9632\u5830\u5824","survey_name":"\u4ee4\u548c2\u5e74\u5ea6\u5929\u7adc\u5ddd\u6c34\u7cfb\u4e0b\u4f0a\u90a3\u5730\u533a\u5730\u8cea\u8abf\u67fb\u696d\u52d9","client_name":"\u56fd\u571f\u4ea4\u901a\u7701\u4e2d\u90e8\u5730\u65b9\u6574\u5099\u5c40\u5929\u7adc\u5ddd\u4e0a\u6d41\u6cb3\u5ddd\u4e8b\u52d9\u6240","boring_xml_url":47,"boring_view_url":1,"soilmap_view_url":null,"soiltest_xml_url":0,"soiltest_view_url":0},{"id":354637,"code":"NGIC202003664-0010","latitude":"35.663058333333","longitude":"138.06518611111","source_code":"","project_name":"\u5317\u5ddd\u7b2c2\u7802\u9632\u5830\u5824","survey_name":"\u4ee4\u548c2\u5e74\u5ea6\u5929\u7adc\u5ddd\u6c34\u7cfb\u4e0b\u4f0a\u90a3\u5730\u533a\u5730\u8cea\u8abf\u67fb\u696d\u52d9","client_name":"\u56fd\u571f\u4ea4\u901a\u7701\u4e2d\u90e8\u5730\u65b9\u6574\u5099\u5c40\u5929\u7adc\u5ddd\u4e0a\u6d41\u6cb3\u5ddd\u4e8b\u52d9\u6240","boring_xml_url":47,"boring_view_url":1,"soilmap_view_url":null,"soiltest_xml_url":0,"soiltest_view_url":0},{"id":354636,"code":"NGIC202003664-0009","latitude":"35.663391666667","longitude":"138.06468055556","source_code":"","project_name":"\u5317\u5ddd\u7b2c2\u7802\u9632\u5830\u5824","survey_name":"\u4ee4\u548c2\u5e74\u5ea6\u5929\u7adc\u5ddd\u6c34\u7cfb\u4e0b\u4f0a\u90a3\u5730\u533a\u5730\u8cea\u8abf\u67fb\u696d\u52d9","client_name":"\u56fd\u571f\u4ea4\u901a\u7701\u4e2d\u90e8\u5730\u65b9\u6574\u5099\u5c40\u5929\u7adc\u5ddd\u4e0a\u6d41\u6cb3\u5ddd\u4e8b\u52d9\u6240","boring_xml_url":47,"boring_view_url":1,"soilmap_view_url":null,"soiltest_xml_url":0,"soiltest_view_url":0},{"id":354635,"code":"NGIC202003664-0008","latitude":"35.663588888889","longitude":"138.064","source_code":"","project_name":"\u5317\u5ddd\u7b2c2\u7802\u9632\u5830\u5824","survey_name":"\u4ee4\u548c2\u5e74\u5ea6\u5929\u7adc\u5ddd\u6c34\u7cfb\u4e0b\u4f0a\u90a3\u5730\u533a\u5730\u8cea\u8abf\u67fb\u696d\u52d9","client_name":"\u56fd\u571f\u4ea4\u901a\u7701\u4e2d\u90e8\u5730\u65b9\u6574\u5099\u5c40\u5929\u7adc\u5ddd\u4e0a\u6d41\u6cb3\u5ddd\u4e8b\u52d9\u6240","boring_xml_url":47,"boring_view_url":1,"soilmap_view_url":null,"soiltest_xml_url":0,"soiltest_view_url":0},{"id":354634,"code":"NGIC202003664-0007","latitude":"35.657602777778","longitude":"138.06075555556","source_code":"","project_name":"\u5317\u5ddd\u7802\u9632\u5830\u5824","survey_name":"\u4ee4\u548c2\u5e74\u5ea6\u5929\u7adc\u5ddd\u6c34\u7cfb\u4e0b\u4f0a\u90a3\u5730\u533a\u5730\u8cea\u8abf\u67fb\u696d\u52d9","client_name":"\u56fd\u571f\u4ea4\u901a\u7701\u4e2d\u90e8\u5730\u65b9\u6574\u5099\u5c40\u5929\u7adc\u5ddd\u4e0a\u6d41\u6cb3\u5ddd\u4e8b\u52d9\u6240","boring_xml_url":47,"boring_view_url":1,"soilmap_view_url":null,"soiltest_xml_url":0,"soiltest_view_url":0},{"id":354633,"code":"NGIC202003664-0006","latitude":"35.657663888889","longitude":"138.06062222222","source_code":"","project_name":"\u5317\u5ddd\u7802\u9632\u5830\u5824","survey_name":"\u4ee4\u548c2\u5e74\u5ea6\u5929\u7adc\u5ddd\u6c34\u7cfb\u4e0b\u4f0a\u90a3\u5730\u533a\u5730\u8cea\u8abf\u67fb\u696d\u52d9","client_name":"\u56fd\u571f\u4ea4\u901a\u7701\u4e2d\u90e8\u5730\u65b9\u6574\u5099\u5c40\u5929\u7adc\u5ddd\u4e0a\u6d41\u6cb3\u5ddd\u4e8b\u52d9\u6240","boring_xml_url":47,"boring_view_url":1,"soilmap_view_url":null,"soiltest_xml_url":0,"soiltest_view_url":0},{"id":354632,"code":"NGIC202003664-0005","latitude":"35.651191666667","longitude":"138.06050277778","source_code":"","project_name":"\u624b\u958b\u6ca2\u7802\u9632\u5830\u5824","survey_name":"\u4ee4\u548c2\u5e74\u5ea6\u5929\u7adc\u5ddd\u6c34\u7cfb\u4e0b\u4f0a\u90a3\u5730\u533a\u5730\u8cea\u8abf\u67fb\u696d\u52d9","client_name":"\u56fd\u571f\u4ea4\u901a\u7701\u4e2d\u90e8\u5730\u65b9\u6574\u5099\u5c40\u5929\u7adc\u5ddd\u4e0a\u6d41\u6cb3\u5ddd\u4e8b\u52d9\u6240","boring_xml_url":47,"boring_view_url":1,"soilmap_view_url":null,"soiltest_xml_url":0,"soiltest_view_url":0},{"id":354631,"code":"NGIC202003664-0004","latitude":"35.651","longitude":"138.06054444444","source_code":"","project_name":"\u624b\u958b\u6ca2\u7802\u9632\u5830\u5824","survey_name":"\u4ee4\u548c2\u5e74\u5ea6\u5929\u7adc\u5ddd\u6c34\u7cfb\u4e0b\u4f0a\u90a3\u5730\u533a\u5730\u8cea\u8abf\u67fb\u696d\u52d9","client_name":"\u56fd\u571f\u4ea4\u901a\u7701\u4e2d\u90e8\u5730\u65b9\u6574\u5099\u5c40\u5929\u7adc\u5ddd\u4e0a\u6d41\u6cb3\u5ddd\u4e8b\u52d9\u6240","boring_xml_url":47,"boring_view_url":1,"soilmap_view_url":null,"soiltest_xml_url":0,"soiltest_view_url":0},{"id":354630,"code":"NGIC202003664-0003","latitude":"35.651563888889","longitude":"138.06104722222","source_code":"","project_name":"\u624b\u958b\u6ca2\u7802\u9632\u5830\u5824","survey_name":"\u4ee4\u548c2\u5e74\u5ea6\u5929\u7adc\u5ddd\u6c34\u7cfb\u4e0b\u4f0a\u90a3\u5730\u533a\u5730\u8cea\u8abf\u67fb\u696d\u52d9","client_name":"\u56fd\u571f\u4ea4\u901a\u7701\u4e2d\u90e8\u5730\u65b9\u6574\u5099\u5c40\u5929\u7adc\u5ddd\u4e0a\u6d41\u6cb3\u5ddd\u4e8b\u52d9\u6240","boring_xml_url":47,"boring_view_url":1,"soilmap_view_url":null,"soiltest_xml_url":0,"soiltest_view_url":0},{"id":354629,"code":"NGIC202003664-0002","latitude":"35.651194444444","longitude":"138.06090277778","source_code":"","project_name":"\u624b\u958b\u6ca2\u7802\u9632\u5830\u5824","survey_name":"\u4ee4\u548c2\u5e74\u5ea6\u5929\u7adc\u5ddd\u6c34\u7cfb\u4e0b\u4f0a\u90a3\u5730\u533a\u5730\u8cea\u8abf\u67fb\u696d\u52d9","client_name":"\u56fd\u571f\u4ea4\u901a\u7701\u4e2d\u90e8\u5730\u65b9\u6574\u5099\u5c40\u5929\u7adc\u5ddd\u4e0a\u6d41\u6cb3\u5ddd\u4e8b\u52d9\u6240","boring_xml_url":47,"boring_view_url":1,"soilmap_view_url":null,"soiltest_xml_url":0,"soiltest_view_url":0},{"id":354628,"code":"NGIC202003664-0001","latitude":"35.372480555556","longitude":"137.96154444444","source_code":"","project_name":"\u5357\u5510\u6ca2\u7802\u9632\u5830\u5824","survey_name":"\u4ee4\u548c2\u5e74\u5ea6\u5929\u7adc\u5ddd\u6c34\u7cfb\u4e0b\u4f0a\u90a3\u5730\u533a\u5730\u8cea\u8abf\u67fb\u696d\u52d9","client_name":"\u56fd\u571f\u4ea4\u901a\u7701\u4e2d\u90e8\u5730\u65b9\u6574\u5099\u5c40\u5929\u7adc\u5ddd\u4e0a\u6d41\u6cb3\u5ddd\u4e8b\u52d9\u6240","boring_xml_url":47,"boring_view_url":1,"soilmap_view_url":null,"soiltest_xml_url":0,"soiltest_view_url":0},{"id":354619,"code":"NGIC202003630-0004","latitude":"38.487122222222","longitude":"141.29561111111","source_code":"","project_name":"","survey_name":"\u65e7\u5317\u4e0a\u5ddd\u53f3\u5cb8\u9e7f\u53c8\u5730\u533a\u5730\u8cea\u8abf\u67fb\u696d\u52d9","client_name":"\u56fd\u571f\u4ea4\u901a\u7701\u6771\u5317\u5730\u65b9\u6574\u5099\u5c40\u5317\u4e0a\u5ddd\u4e0b\u6d41\u6cb3\u5ddd\u4e8b\u52d9\u6240","boring_xml_url":47,"boring_view_url":1,"soilmap_view_url":null,"soiltest_xml_url":47,"soiltest_view_url":47},{"id":354618,"code":"NGIC202003630-0003","latitude":"38.483038888889","longitude":"141.29581388889","source_code":"","project_name":"","survey_name":"\u65e7\u5317\u4e0a\u5ddd\u53f3\u5cb8\u9e7f\u53c8\u5730\u533a\u5730\u8cea\u8abf\u67fb\u696d\u52d9","client_name":"\u56fd\u571f\u4ea4\u901a\u7701\u6771\u5317\u5730\u65b9\u6574\u5099\u5c40\u5317\u4e0a\u5ddd\u4e0b\u6d41\u6cb3\u5ddd\u4e8b\u52d9\u6240","boring_xml_url":47,"boring_view_url":1,"soilmap_view_url":null,"soiltest_xml_url":47,"soiltest_view_url":47},{"id":354617,"code":"NGIC202003630-0002","latitude":"38.476708333333","longitude":"141.297","source_code":"","project_name":"","survey_name":"\u65e7\u5317\u4e0a\u5ddd\u53f3\u5cb8\u9e7f\u53c8\u5730\u533a\u5730\u8cea\u8abf\u67fb\u696d\u52d9","client_name":"\u56fd\u571f\u4ea4\u901a\u7701\u6771\u5317\u5730\u65b9\u6574\u5099\u5c40\u5317\u4e0a\u5ddd\u4e0b\u6d41\u6cb3\u5ddd\u4e8b\u52d9\u6240","boring_xml_url":47,"boring_view_url":1,"soilmap_view_url":null,"soiltest_xml_url":47,"soiltest_view_url":47},{"id":354615,"code":"NGIC202003585-0016","latitude":"31.802766722222","longitude":"131.01301266667","source_code":"","project_name":" \u5927\u6dc0\u5ddd\u7802\u9632\u5730\u8cea\u8abf\u67fb\u4e8b\u696d","survey_name":"\u4ee4\u548c2\u5e74\u5ea6 \u5927\u6dc0\u5ddd\u7802\u9632\u5730\u8cea\u8abf\u67fb\u696d\u52d9","client_name":"\u56fd\u571f\u4ea4\u901a\u7701\u4e5d\u5dde\u5730\u65b9\u6574\u5099\u5c40\u5bae\u5d0e\u6cb3\u5ddd\u56fd\u9053\u4e8b\u52d9\u6240 \u5de5\u52d9\u7b2c\u4e8c\u8ab2","boring_xml_url":47,"boring_view_url":1,"soilmap_view_url":null,"soiltest_xml_url":0,"soiltest_view_url":0},{"id":354614,"code":"NGIC202003585-0015","latitude":"31.802598277778","longitude":"131.0129735","source_code":"","project_name":"\u5927\u6dc0\u5ddd\u7802\u9632\u5730\u8cea\u8abf\u67fb\u4e8b\u696d","survey_name":"\u4ee4\u548c2\u5e74\u5ea6 \u5927\u6dc0\u5ddd\u7802\u9632\u5730\u8cea\u8abf\u67fb\u696d\u52d9","client_name":"\u56fd\u571f\u4ea4\u901a\u7701\u4e5d\u5dde\u5730\u65b9\u6574\u5099\u5c40\u5bae\u5d0e\u6cb3\u5ddd\u56fd\u9053\u4e8b\u52d9\u6240 \u5de5\u52d9\u7b2c\u4e8c\u8ab2","boring_xml_url":47,"boring_view_url":1,"soilmap_view_url":null,"soiltest_xml_url":0,"soiltest_view_url":0},{"id":354613,"code":"NGIC202003585-0014","latitude":"31.802422722222","longitude":"131.01299486111","source_code":"","project_name":"\u5927\u6dc0\u5ddd\u7802\u9632\u5730\u8cea\u8abf\u67fb\u4e8b\u696d","survey_name":"\u4ee4\u548c2\u5e74\u5ea6 \u5927\u6dc0\u5ddd\u7802\u9632\u5730\u8cea\u8abf\u67fb\u696d\u52d9","client_name":"\u56fd\u571f\u4ea4\u901a\u7701\u4e5d\u5dde\u5730\u65b9\u6574\u5099\u5c40\u5bae\u5d0e\u6cb3\u5ddd\u56fd\u9053\u4e8b\u52d9\u6240 \u5de5\u52d9\u7b2c\u4e8c\u8ab2","boring_xml_url":47,"boring_view_url":1,"soilmap_view_url":null,"soiltest_xml_url":0,"soiltest_view_url":0},{"id":354612,"code":"NGIC202003585-0013","latitude":"31.818034055556","longitude":"131.01676441667","source_code":"","project_name":"\u5927\u6dc0\u5ddd\u7802\u9632\u5730\u8cea\u8abf\u67fb\u4e8b\u696d","survey_name":"\u4ee4\u548c2\u5e74\u5ea6 \u5927\u6dc0\u5ddd\u7802\u9632\u5730\u8cea\u8abf\u67fb\u696d\u52d9","client_name":"\u56fd\u571f\u4ea4\u901a\u7701\u4e5d\u5dde\u5730\u65b9\u6574\u5099\u5c40\u5bae\u5d0e\u6cb3\u5ddd\u56fd\u9053\u4e8b\u52d9\u6240 \u5de5\u52d9\u7b2c\u4e8c\u8ab2","boring_xml_url":47,"boring_view_url":1,"soilmap_view_url":null,"soiltest_xml_url":0,"soiltest_view_url":0},{"id":354611,"code":"NGIC202003585-0012","latitude":"31.817981111111","longitude":"131.01667980556","source_code":"","project_name":"\u5927\u6dc0\u5ddd\u7802\u9632\u5730\u8cea\u8abf\u67fb\u4e8b\u696d","survey_name":"\u4ee4\u548c2\u5e74\u5ea6 \u5927\u6dc0\u5ddd\u7802\u9632\u5730\u8cea\u8abf\u67fb\u696d\u52d9","client_name":"\u56fd\u571f\u4ea4\u901a\u7701\u4e5d\u5dde\u5730\u65b9\u6574\u5099\u5c40\u5bae\u5d0e\u6cb3\u5ddd\u56fd\u9053\u4e8b\u52d9\u6240 \u5de5\u52d9\u7b2c\u4e8c\u8ab2","boring_xml_url":47,"boring_view_url":1,"soilmap_view_url":null,"soiltest_xml_url":0,"soiltest_view_url":0},{"id":354610,"code":"NGIC202003585-0011","latitude":"31.817942083333","longitude":"131.01658969444","source_code":"","project_name":"\u5927\u6dc0\u5ddd\u7802\u9632\u5730\u8cea\u8abf\u67fb\u4e8b\u696d","survey_name":"\u4ee4\u548c2\u5e74\u5ea6 \u5927\u6dc0\u5ddd\u7802\u9632\u5730\u8cea\u8abf\u67fb\u696d\u52d9","client_name":"\u56fd\u571f\u4ea4\u901a\u7701\u4e5d\u5dde\u5730\u65b9\u6574\u5099\u5c40\u5bae\u5d0e\u6cb3\u5ddd\u56fd\u9053\u4e8b\u52d9\u6240 \u5de5\u52d9\u7b2c\u4e8c\u8ab2","boring_xml_url":47,"boring_view_url":1,"soilmap_view_url":null,"soiltest_xml_url":0,"soiltest_view_url":0},{"id":354609,"code":"NGIC202003585-0010","latitude":"31.848955972222","longitude":"131.04542711111","source_code":"","project_name":"\u5927\u6dc0\u5ddd\u7802\u9632\u5730\u8cea\u8abf\u67fb\u4e8b\u696d","survey_name":"\u4ee4\u548c2\u5e74\u5ea6 \u5927\u6dc0\u5ddd\u7802\u9632\u5730\u8cea\u8abf\u67fb\u696d\u52d9","client_name":"\u56fd\u571f\u4ea4\u901a\u7701\u4e5d\u5dde\u5730\u65b9\u6574\u5099\u5c40\u5bae\u5d0e\u6cb3\u5ddd\u56fd\u9053\u4e8b\u52d9\u6240 \u5de5\u52d9\u7b2c\u4e8c\u8ab2","boring_xml_url":47,"boring_view_url":1,"soilmap_view_url":null,"soiltest_xml_url":0,"soiltest_view_url":0},{"id":354608,"code":"NGIC202003585-0009","latitude":"31.849085416667","longitude":"131.04526472222","source_code":"","project_name":"\u5927\u6dc0\u5ddd\u7802\u9632\u5730\u8cea\u8abf\u67fb\u4e8b\u696d","survey_name":"\u4ee4\u548c2\u5e74\u5ea6 \u5927\u6dc0\u5ddd\u7802\u9632\u5730\u8cea\u8abf\u67fb\u696d\u52d9","client_name":"\u56fd\u571f\u4ea4\u901a\u7701\u4e5d\u5dde\u5730\u65b9\u6574\u5099\u5c40\u5bae\u5d0e\u6cb3\u5ddd\u56fd\u9053\u4e8b\u52d9\u6240 \u5de5\u52d9\u7b2c\u4e8c\u8ab2","boring_xml_url":47,"boring_view_url":1,"soilmap_view_url":null,"soiltest_xml_url":0,"soiltest_view_url":0},{"id":354607,"code":"NGIC202003585-0008","latitude":"31.8492105","longitude":"131.04537766667","source_code":"","project_name":"\u5927\u6dc0\u5ddd\u7802\u9632\u5730\u8cea\u8abf\u67fb\u4e8b\u696d","survey_name":"\u4ee4\u548c2\u5e74\u5ea6 \u5927\u6dc0\u5ddd\u7802\u9632\u5730\u8cea\u8abf\u67fb\u696d\u52d9","client_name":"\u56fd\u571f\u4ea4\u901a\u7701\u4e5d\u5dde\u5730\u65b9\u6574\u5099\u5c40\u5bae\u5d0e\u6cb3\u5ddd\u56fd\u9053\u4e8b\u52d9\u6240 \u5de5\u52d9\u7b2c\u4e8c\u8ab2","boring_xml_url":47,"boring_view_url":1,"soilmap_view_url":null,"soiltest_xml_url":0,"soiltest_view_url":0},{"id":354606,"code":"NGIC202003585-0007","latitude":"31.849237944444","longitude":"131.04526633333","source_code":"","project_name":" \u5927\u6dc0\u5ddd\u7802\u9632\u5730\u8cea\u8abf\u67fb\u4e8b\u696d","survey_name":"\u4ee4\u548c2\u5e74\u5ea6 \u5927\u6dc0\u5ddd\u7802\u9632\u5730\u8cea\u8abf\u67fb\u696d\u52d9","client_name":"\u56fd\u571f\u4ea4\u901a\u7701\u4e5d\u5dde\u5730\u65b9\u6574\u5099\u5c40\u5bae\u5d0e\u6cb3\u5ddd\u56fd\u9053\u4e8b\u52d9\u6240 \u5de5\u52d9\u7b2c\u4e8c\u8ab2","boring_xml_url":47,"boring_view_url":1,"soilmap_view_url":null,"soiltest_xml_url":0,"soiltest_view_url":0},{"id":354605,"code":"NGIC202003585-0006","latitude":"31.849227944444","longitude":"131.04511155556","source_code":"","project_name":"\u5927\u6dc0\u5ddd\u7802\u9632\u5730\u8cea\u8abf\u67fb\u4e8b\u696d","survey_name":"\u4ee4\u548c2\u5e74\u5ea6 \u5927\u6dc0\u5ddd\u7802\u9632\u5730\u8cea\u8abf\u67fb\u696d\u52d9","client_name":"\u56fd\u571f\u4ea4\u901a\u7701\u4e5d\u5dde\u5730\u65b9\u6574\u5099\u5c40\u5bae\u5d0e\u6cb3\u5ddd\u56fd\u9053\u4e8b\u52d9\u6240 \u5de5\u52d9\u7b2c\u4e8c\u8ab2","boring_xml_url":47,"boring_view_url":1,"soilmap_view_url":null,"soiltest_xml_url":0,"soiltest_view_url":0}]}}