{"header":{"xyz":{"source":[],"mosaic":false},"page":201,"raw":{"soiltest_result":"0","bbox":"57.598333,109.544722,1.933333,163.806111","page":"201"},"conditions":{"soiltest_result":0,"north":57.598333,"west":109.544722,"south":1.933333,"east":163.806111},"success":true,"message":""},"data":{"meta":{"total":212844,"page":201,"pages":7095,"count":30},"values":[{"id":579634,"code":"NGIC202206181-0008","latitude":"32.886555555556","longitude":"130.72686111111","source_code":"","project_name":"\u4ee4\u548c4\u5e74\u5ea6\u5927\u6d25\u718a\u672c\u9053\u8def(\u5408\u5fd7\u301c\u718a\u672c)\u5730\u8cea\u8abf\u67fb(\u305d\u306e3)\u696d\u52d9","survey_name":"\u4ee4\u548c4\u5e74\u5ea6\u5927\u6d25\u718a\u672c\u9053\u8def(\u5408\u5fd7\u301c\u718a\u672c)\u5730\u8cea\u8abf\u67fb(\u305d\u306e3)\u696d\u52d9","client_name":"\u56fd\u571f\u4ea4\u901a\u7701\u4e5d\u5dde\u5730\u65b9\u6574\u5099\u5c40\u718a\u672c\u6cb3\u5ddd\u56fd\u9053\u4e8b\u52d9\u6240","boring_xml_url":47,"boring_view_url":1,"soilmap_view_url":null,"soiltest_xml_url":47,"soiltest_view_url":47},{"id":579633,"code":"NGIC202206181-0007","latitude":"32.88785","longitude":"130.72659444444","source_code":"","project_name":"\u4ee4\u548c4\u5e74\u5ea6\u5927\u6d25\u718a\u672c\u9053\u8def(\u5408\u5fd7\u301c\u718a\u672c)\u5730\u8cea\u8abf\u67fb(\u305d\u306e3)\u696d\u52d9","survey_name":"\u4ee4\u548c4\u5e74\u5ea6\u5927\u6d25\u718a\u672c\u9053\u8def(\u5408\u5fd7\u301c\u718a\u672c)\u5730\u8cea\u8abf\u67fb(\u305d\u306e3)\u696d\u52d9","client_name":"\u56fd\u571f\u4ea4\u901a\u7701\u4e5d\u5dde\u5730\u65b9\u6574\u5099\u5c40\u718a\u672c\u6cb3\u5ddd\u56fd\u9053\u4e8b\u52d9\u6240","boring_xml_url":47,"boring_view_url":1,"soilmap_view_url":null,"soiltest_xml_url":47,"soiltest_view_url":47},{"id":579632,"code":"NGIC202206181-0006","latitude":"32.889813888889","longitude":"130.72816944444","source_code":"","project_name":"\u4ee4\u548c4\u5e74\u5ea6\u5927\u6d25\u718a\u672c\u9053\u8def(\u5408\u5fd7\u301c\u718a\u672c)\u5730\u8cea\u8abf\u67fb(\u305d\u306e3)\u696d\u52d9","survey_name":"\u4ee4\u548c4\u5e74\u5ea6\u5927\u6d25\u718a\u672c\u9053\u8def(\u5408\u5fd7\u301c\u718a\u672c)\u5730\u8cea\u8abf\u67fb(\u305d\u306e3)\u696d\u52d9","client_name":"\u56fd\u571f\u4ea4\u901a\u7701\u4e5d\u5dde\u5730\u65b9\u6574\u5099\u5c40\u718a\u672c\u6cb3\u5ddd\u56fd\u9053\u4e8b\u52d9\u6240","boring_xml_url":47,"boring_view_url":1,"soilmap_view_url":null,"soiltest_xml_url":47,"soiltest_view_url":47},{"id":579631,"code":"NGIC202206181-0005","latitude":"32.89325","longitude":"130.72858333333","source_code":"","project_name":"\u4ee4\u548c4\u5e74\u5ea6\u5927\u6d25\u718a\u672c\u9053\u8def(\u5408\u5fd7\u301c\u718a\u672c)\u5730\u8cea\u8abf\u67fb(\u305d\u306e3)\u696d\u52d9","survey_name":"\u4ee4\u548c4\u5e74\u5ea6\u5927\u6d25\u718a\u672c\u9053\u8def(\u5408\u5fd7\u301c\u718a\u672c)\u5730\u8cea\u8abf\u67fb(\u305d\u306e3)\u696d\u52d9","client_name":"\u56fd\u571f\u4ea4\u901a\u7701\u4e5d\u5dde\u5730\u65b9\u6574\u5099\u5c40\u718a\u672c\u6cb3\u5ddd\u56fd\u9053\u4e8b\u52d9\u6240","boring_xml_url":47,"boring_view_url":1,"soilmap_view_url":null,"soiltest_xml_url":47,"soiltest_view_url":47},{"id":579630,"code":"NGIC202206181-0004","latitude":"32.895772222222","longitude":"130.73000833333","source_code":"","project_name":"\u4ee4\u548c4\u5e74\u5ea6\u5927\u6d25\u718a\u672c\u9053\u8def(\u5408\u5fd7\u301c\u718a\u672c)\u5730\u8cea\u8abf\u67fb(\u305d\u306e3)\u696d\u52d9","survey_name":"\u4ee4\u548c4\u5e74\u5ea6\u5927\u6d25\u718a\u672c\u9053\u8def(\u5408\u5fd7\u301c\u718a\u672c)\u5730\u8cea\u8abf\u67fb(\u305d\u306e3)\u696d\u52d9","client_name":"\u56fd\u571f\u4ea4\u901a\u7701\u4e5d\u5dde\u5730\u65b9\u6574\u5099\u5c40\u718a\u672c\u6cb3\u5ddd\u56fd\u9053\u4e8b\u52d9\u6240","boring_xml_url":47,"boring_view_url":1,"soilmap_view_url":null,"soiltest_xml_url":47,"soiltest_view_url":47},{"id":579629,"code":"NGIC202206181-0003","latitude":"32.895802777778","longitude":"130.73058333333","source_code":"","project_name":"\u4ee4\u548c4\u5e74\u5ea6\u5927\u6d25\u718a\u672c\u9053\u8def(\u5408\u5fd7\u301c\u718a\u672c)\u5730\u8cea\u8abf\u67fb(\u305d\u306e3)\u696d\u52d9","survey_name":"\u4ee4\u548c4\u5e74\u5ea6\u5927\u6d25\u718a\u672c\u9053\u8def(\u5408\u5fd7\u301c\u718a\u672c)\u5730\u8cea\u8abf\u67fb(\u305d\u306e3)\u696d\u52d9","client_name":"\u56fd\u571f\u4ea4\u901a\u7701\u4e5d\u5dde\u5730\u65b9\u6574\u5099\u5c40\u718a\u672c\u6cb3\u5ddd\u56fd\u9053\u4e8b\u52d9\u6240","boring_xml_url":47,"boring_view_url":1,"soilmap_view_url":null,"soiltest_xml_url":47,"soiltest_view_url":47},{"id":579628,"code":"NGIC202206181-0002","latitude":"32.896530555556","longitude":"130.73075277778","source_code":"","project_name":"\u4ee4\u548c4\u5e74\u5ea6\u5927\u6d25\u718a\u672c\u9053\u8def(\u5408\u5fd7\u301c\u718a\u672c)\u5730\u8cea\u8abf\u67fb(\u305d\u306e3)\u696d\u52d9","survey_name":"\u4ee4\u548c4\u5e74\u5ea6\u5927\u6d25\u718a\u672c\u9053\u8def(\u5408\u5fd7\u301c\u718a\u672c)\u5730\u8cea\u8abf\u67fb(\u305d\u306e3)\u696d\u52d9","client_name":"\u56fd\u571f\u4ea4\u901a\u7701\u4e5d\u5dde\u5730\u65b9\u6574\u5099\u5c40\u718a\u672c\u6cb3\u5ddd\u56fd\u9053\u4e8b\u52d9\u6240","boring_xml_url":47,"boring_view_url":1,"soilmap_view_url":null,"soiltest_xml_url":47,"soiltest_view_url":47},{"id":579627,"code":"NGIC202206181-0001","latitude":"32.897069444444","longitude":"130.73178888889","source_code":"","project_name":"\u4ee4\u548c4\u5e74\u5ea6\u5927\u6d25\u718a\u672c\u9053\u8def(\u5408\u5fd7\u301c\u718a\u672c)\u5730\u8cea\u8abf\u67fb(\u305d\u306e3)\u696d\u52d9","survey_name":"\u4ee4\u548c4\u5e74\u5ea6\u5927\u6d25\u718a\u672c\u9053\u8def(\u5408\u5fd7\u301c\u718a\u672c)\u5730\u8cea\u8abf\u67fb(\u305d\u306e3)\u696d\u52d9","client_name":"\u56fd\u571f\u4ea4\u901a\u7701\u4e5d\u5dde\u5730\u65b9\u6574\u5099\u5c40\u718a\u672c\u6cb3\u5ddd\u56fd\u9053\u4e8b\u52d9\u6240","boring_xml_url":47,"boring_view_url":1,"soilmap_view_url":null,"soiltest_xml_url":47,"soiltest_view_url":47},{"id":579623,"code":"NGIC202206085-0013","latitude":"33.262977777778","longitude":"130.17921666667","source_code":"","project_name":"","survey_name":"\u4ee4\u548c3\u5e74\u5ea6\u725b\u6d25\u5ddd\u904a\u6c34\u5730\uff08\u5c71\u5d0e\u5730\u533a\uff09\u5468\u56f2\u5824\u8a73\u7d30\u8a2d\u8a08\u696d\u52d9","client_name":"\u56fd\u571f\u4ea4\u901a\u7701\u4e5d\u5dde\u5730\u65b9\u6574\u5099\u5c40\u6b66\u96c4\u6cb3\u5ddd\u4e8b\u52d9\u6240","boring_xml_url":47,"boring_view_url":1,"soilmap_view_url":null,"soiltest_xml_url":0,"soiltest_view_url":0},{"id":579622,"code":"NGIC202206085-0012","latitude":"33.262977777778","longitude":"130.17903333333","source_code":"","project_name":"","survey_name":"\u4ee4\u548c3\u5e74\u5ea6\u725b\u6d25\u5ddd\u904a\u6c34\u5730\uff08\u5c71\u5d0e\u5730\u533a\uff09\u5468\u56f2\u5824\u8a73\u7d30\u8a2d\u8a08\u696d\u52d9","client_name":"\u56fd\u571f\u4ea4\u901a\u7701\u4e5d\u5dde\u5730\u65b9\u6574\u5099\u5c40\u6b66\u96c4\u6cb3\u5ddd\u4e8b\u52d9\u6240","boring_xml_url":47,"boring_view_url":1,"soilmap_view_url":null,"soiltest_xml_url":0,"soiltest_view_url":0},{"id":579621,"code":"NGIC202206085-0011","latitude":"33.265883333333","longitude":"130.18005555556","source_code":"","project_name":"","survey_name":"\u4ee4\u548c3\u5e74\u5ea6\u725b\u6d25\u5ddd\u904a\u6c34\u5730\uff08\u5c71\u5d0e\u5730\u533a\uff09\u5468\u56f2\u5824\u8a73\u7d30\u8a2d\u8a08\u696d\u52d9","client_name":"\u56fd\u571f\u4ea4\u901a\u7701\u4e5d\u5dde\u5730\u65b9\u6574\u5099\u5c40\u6b66\u96c4\u6cb3\u5ddd\u4e8b\u52d9\u6240","boring_xml_url":47,"boring_view_url":1,"soilmap_view_url":null,"soiltest_xml_url":0,"soiltest_view_url":0},{"id":579620,"code":"NGIC202206085-0010","latitude":"33.265938888889","longitude":"130.17997222222","source_code":"","project_name":"","survey_name":"\u4ee4\u548c3\u5e74\u5ea6\u725b\u6d25\u5ddd\u904a\u6c34\u5730\uff08\u5c71\u5d0e\u5730\u533a\uff09\u5468\u56f2\u5824\u8a73\u7d30\u8a2d\u8a08\u696d\u52d9","client_name":"\u56fd\u571f\u4ea4\u901a\u7701\u4e5d\u5dde\u5730\u65b9\u6574\u5099\u5c40\u6b66\u96c4\u6cb3\u5ddd\u4e8b\u52d9\u6240","boring_xml_url":47,"boring_view_url":1,"soilmap_view_url":null,"soiltest_xml_url":0,"soiltest_view_url":0},{"id":579619,"code":"NGIC202206085-0009","latitude":"33.268911111111","longitude":"130.18351638889","source_code":"","project_name":"","survey_name":"\u4ee4\u548c3\u5e74\u5ea6\u725b\u6d25\u5ddd\u904a\u6c34\u5730\uff08\u5c71\u5d0e\u5730\u533a\uff09\u5468\u56f2\u5824\u8a73\u7d30\u8a2d\u8a08\u696d\u52d9","client_name":"\u56fd\u571f\u4ea4\u901a\u7701\u4e5d\u5dde\u5730\u65b9\u6574\u5099\u5c40\u6b66\u96c4\u6cb3\u5ddd\u4e8b\u52d9\u6240","boring_xml_url":47,"boring_view_url":1,"soilmap_view_url":null,"soiltest_xml_url":47,"soiltest_view_url":47},{"id":579618,"code":"NGIC202206085-0008","latitude":"33.261597222222","longitude":"130.17856111111","source_code":"","project_name":"","survey_name":"\u4ee4\u548c3\u5e74\u5ea6\u725b\u6d25\u5ddd\u904a\u6c34\u5730\uff08\u5c71\u5d0e\u5730\u533a\uff09\u5468\u56f2\u5824\u8a73\u7d30\u8a2d\u8a08\u696d\u52d9","client_name":"\u56fd\u571f\u4ea4\u901a\u7701\u4e5d\u5dde\u5730\u65b9\u6574\u5099\u5c40\u6b66\u96c4\u6cb3\u5ddd\u4e8b\u52d9\u6240","boring_xml_url":47,"boring_view_url":1,"soilmap_view_url":null,"soiltest_xml_url":0,"soiltest_view_url":0},{"id":579617,"code":"NGIC202206085-0007","latitude":"33.261763888889","longitude":"130.17870833333","source_code":"","project_name":"","survey_name":"\u4ee4\u548c3\u5e74\u5ea6\u725b\u6d25\u5ddd\u904a\u6c34\u5730\uff08\u5c71\u5d0e\u5730\u533a\uff09\u5468\u56f2\u5824\u8a73\u7d30\u8a2d\u8a08\u696d\u52d9","client_name":"\u56fd\u571f\u4ea4\u901a\u7701\u4e5d\u5dde\u5730\u65b9\u6574\u5099\u5c40\u6b66\u96c4\u6cb3\u5ddd\u4e8b\u52d9\u6240","boring_xml_url":47,"boring_view_url":1,"soilmap_view_url":null,"soiltest_xml_url":0,"soiltest_view_url":0},{"id":579616,"code":"NGIC202206085-0006","latitude":"33.270568611111","longitude":"130.18254111111","source_code":"","project_name":"","survey_name":"\u4ee4\u548c3\u5e74\u5ea6\u725b\u6d25\u5ddd\u904a\u6c34\u5730\uff08\u5c71\u5d0e\u5730\u533a\uff09\u5468\u56f2\u5824\u8a73\u7d30\u8a2d\u8a08\u696d\u52d9","client_name":"\u56fd\u571f\u4ea4\u901a\u7701\u4e5d\u5dde\u5730\u65b9\u6574\u5099\u5c40\u6b66\u96c4\u6cb3\u5ddd\u4e8b\u52d9\u6240","boring_xml_url":47,"boring_view_url":1,"soilmap_view_url":null,"soiltest_xml_url":47,"soiltest_view_url":47},{"id":579615,"code":"NGIC202206085-0005","latitude":"33.261120555556","longitude":"130.17830777778","source_code":"","project_name":"","survey_name":"\u4ee4\u548c3\u5e74\u5ea6\u725b\u6d25\u5ddd\u904a\u6c34\u5730\uff08\u5c71\u5d0e\u5730\u533a\uff09\u5468\u56f2\u5824\u8a73\u7d30\u8a2d\u8a08\u696d\u52d9","client_name":"\u56fd\u571f\u4ea4\u901a\u7701\u4e5d\u5dde\u5730\u65b9\u6574\u5099\u5c40\u6b66\u96c4\u6cb3\u5ddd\u4e8b\u52d9\u6240","boring_xml_url":47,"boring_view_url":1,"soilmap_view_url":null,"soiltest_xml_url":47,"soiltest_view_url":47},{"id":579614,"code":"NGIC202206085-0004","latitude":"33.261978611111","longitude":"130.17895611111","source_code":"","project_name":"","survey_name":"\u4ee4\u548c3\u5e74\u5ea6\u725b\u6d25\u5ddd\u904a\u6c34\u5730\uff08\u5c71\u5d0e\u5730\u533a\uff09\u5468\u56f2\u5824\u8a73\u7d30\u8a2d\u8a08\u696d\u52d9","client_name":"\u56fd\u571f\u4ea4\u901a\u7701\u4e5d\u5dde\u5730\u65b9\u6574\u5099\u5c40\u6b66\u96c4\u6cb3\u5ddd\u4e8b\u52d9\u6240","boring_xml_url":47,"boring_view_url":1,"soilmap_view_url":null,"soiltest_xml_url":47,"soiltest_view_url":47},{"id":579613,"code":"NGIC202206085-0003","latitude":"33.264716666667","longitude":"130.17895261111","source_code":"","project_name":"","survey_name":"\u4ee4\u548c3\u5e74\u5ea6\u725b\u6d25\u5ddd\u904a\u6c34\u5730\uff08\u5c71\u5d0e\u5730\u533a\uff09\u5468\u56f2\u5824\u8a73\u7d30\u8a2d\u8a08\u696d\u52d9","client_name":"\u56fd\u571f\u4ea4\u901a\u7701\u4e5d\u5dde\u5730\u65b9\u6574\u5099\u5c40\u6b66\u96c4\u6cb3\u5ddd\u4e8b\u52d9\u6240","boring_xml_url":47,"boring_view_url":1,"soilmap_view_url":null,"soiltest_xml_url":0,"soiltest_view_url":0},{"id":579612,"code":"NGIC202206085-0002","latitude":"33.265595861111","longitude":"130.17959116667","source_code":"","project_name":"","survey_name":"\u4ee4\u548c3\u5e74\u5ea6\u725b\u6d25\u5ddd\u904a\u6c34\u5730\uff08\u5c71\u5d0e\u5730\u533a\uff09\u5468\u56f2\u5824\u8a73\u7d30\u8a2d\u8a08\u696d\u52d9","client_name":"\u56fd\u571f\u4ea4\u901a\u7701\u4e5d\u5dde\u5730\u65b9\u6574\u5099\u5c40\u6b66\u96c4\u6cb3\u5ddd\u4e8b\u52d9\u6240","boring_xml_url":47,"boring_view_url":1,"soilmap_view_url":null,"soiltest_xml_url":0,"soiltest_view_url":0},{"id":579611,"code":"NGIC202206085-0001","latitude":"33.269103527778","longitude":"130.18356477778","source_code":"","project_name":"","survey_name":"\u4ee4\u548c3\u5e74\u5ea6\u725b\u6d25\u5ddd\u904a\u6c34\u5730\uff08\u5c71\u5d0e\u5730\u533a\uff09\u5468\u56f2\u5824\u8a73\u7d30\u8a2d\u8a08\u696d\u52d9","client_name":"\u56fd\u571f\u4ea4\u901a\u7701\u4e5d\u5dde\u5730\u65b9\u6574\u5099\u5c40\u6b66\u96c4\u6cb3\u5ddd\u4e8b\u52d9\u6240","boring_xml_url":47,"boring_view_url":1,"soilmap_view_url":null,"soiltest_xml_url":0,"soiltest_view_url":0},{"id":579603,"code":"NGIC202206069-0009","latitude":"32.942524805556","longitude":"130.50479758333","source_code":"","project_name":"","survey_name":"\u4ee4\u548c4\u5e74\u5ea6\u718a\u672c\u7ba1\u5185\u5730\u8cea\u8abf\u67fb\u696d\u52d9","client_name":"\u56fd\u571f\u4ea4\u901a\u7701\u4e5d\u5dde\u5730\u65b9\u6574\u5099\u5c40\u718a\u672c\u6cb3\u5ddd\u56fd\u9053\u4e8b\u52d9\u6240","boring_xml_url":47,"boring_view_url":1,"soilmap_view_url":null,"soiltest_xml_url":0,"soiltest_view_url":0},{"id":579602,"code":"NGIC202206069-0008","latitude":"32.94265125","longitude":"130.504708","source_code":"","project_name":"","survey_name":"\u4ee4\u548c4\u5e74\u5ea6\u718a\u672c\u7ba1\u5185\u5730\u8cea\u8abf\u67fb\u696d\u52d9","client_name":"\u56fd\u571f\u4ea4\u901a\u7701\u4e5d\u5dde\u5730\u65b9\u6574\u5099\u5c40\u718a\u672c\u6cb3\u5ddd\u56fd\u9053\u4e8b\u52d9\u6240","boring_xml_url":47,"boring_view_url":1,"soilmap_view_url":null,"soiltest_xml_url":0,"soiltest_view_url":0},{"id":579601,"code":"NGIC202206069-0007","latitude":"32.6146775","longitude":"130.46221222222","source_code":"","project_name":"","survey_name":"\u4ee4\u548c4\u5e74\u5ea6\u718a\u672c\u7ba1\u5185\u5730\u8cea\u8abf\u67fb\u696d\u52d9","client_name":"\u56fd\u571f\u4ea4\u901a\u7701\u4e5d\u5dde\u5730\u65b9\u6574\u5099\u5c40\u718a\u672c\u6cb3\u5ddd\u56fd\u9053\u4e8b\u52d9\u6240","boring_xml_url":47,"boring_view_url":1,"soilmap_view_url":null,"soiltest_xml_url":0,"soiltest_view_url":0},{"id":579600,"code":"NGIC202206069-0006","latitude":"32.615419444444","longitude":"130.46217666667","source_code":"","project_name":"","survey_name":"\u4ee4\u548c4\u5e74\u5ea6\u718a\u672c\u7ba1\u5185\u5730\u8cea\u8abf\u67fb\u696d\u52d9","client_name":"\u56fd\u571f\u4ea4\u901a\u7701\u4e5d\u5dde\u5730\u65b9\u6574\u5099\u5c40\u718a\u672c\u6cb3\u5ddd\u56fd\u9053\u4e8b\u52d9\u6240","boring_xml_url":47,"boring_view_url":1,"soilmap_view_url":null,"soiltest_xml_url":0,"soiltest_view_url":0},{"id":579599,"code":"NGIC202206069-0005","latitude":"32.6037775","longitude":"130.70240508333","source_code":"","project_name":"","survey_name":"\u4ee4\u548c4\u5e74\u5ea6\u718a\u672c\u7ba1\u5185\u5730\u8cea\u8abf\u67fb\u696d\u52d9","client_name":"\u56fd\u571f\u4ea4\u901a\u7701\u4e5d\u5dde\u5730\u65b9\u6574\u5099\u5c40\u718a\u672c\u6cb3\u5ddd\u56fd\u9053\u4e8b\u52d9\u6240","boring_xml_url":47,"boring_view_url":1,"soilmap_view_url":null,"soiltest_xml_url":0,"soiltest_view_url":0},{"id":579598,"code":"NGIC202206069-0004","latitude":"32.60394325","longitude":"130.70245458333","source_code":"","project_name":"","survey_name":"\u4ee4\u548c4\u5e74\u5ea6\u718a\u672c\u7ba1\u5185\u5730\u8cea\u8abf\u67fb\u696d\u52d9","client_name":"\u56fd\u571f\u4ea4\u901a\u7701\u4e5d\u5dde\u5730\u65b9\u6574\u5099\u5c40\u718a\u672c\u6cb3\u5ddd\u56fd\u9053\u4e8b\u52d9\u6240","boring_xml_url":47,"boring_view_url":1,"soilmap_view_url":null,"soiltest_xml_url":47,"soiltest_view_url":47},{"id":579597,"code":"NGIC202206069-0003","latitude":"32.854402888889","longitude":"130.71098272222","source_code":"","project_name":"","survey_name":"\u4ee4\u548c4\u5e74\u5ea6\u718a\u672c\u7ba1\u5185\u5730\u8cea\u8abf\u67fb\u696d\u52d9","client_name":"\u56fd\u571f\u4ea4\u901a\u7701\u4e5d\u5dde\u5730\u65b9\u6574\u5099\u5c40\u718a\u672c\u6cb3\u5ddd\u56fd\u9053\u4e8b\u52d9\u6240","boring_xml_url":47,"boring_view_url":1,"soilmap_view_url":null,"soiltest_xml_url":0,"soiltest_view_url":0},{"id":579596,"code":"NGIC202206069-0002","latitude":"32.853736583333","longitude":"130.71094705556","source_code":"","project_name":"","survey_name":"\u4ee4\u548c4\u5e74\u5ea6\u718a\u672c\u7ba1\u5185\u5730\u8cea\u8abf\u67fb\u696d\u52d9","client_name":"\u56fd\u571f\u4ea4\u901a\u7701\u4e5d\u5dde\u5730\u65b9\u6574\u5099\u5c40\u718a\u672c\u6cb3\u5ddd\u56fd\u9053\u4e8b\u52d9\u6240","boring_xml_url":47,"boring_view_url":1,"soilmap_view_url":null,"soiltest_xml_url":47,"soiltest_view_url":47},{"id":579595,"code":"NGIC202206069-0001","latitude":"32.853922194444","longitude":"130.71141391667","source_code":"","project_name":"","survey_name":"\u4ee4\u548c4\u5e74\u5ea6\u718a\u672c\u7ba1\u5185\u5730\u8cea\u8abf\u67fb\u696d\u52d9","client_name":"\u56fd\u571f\u4ea4\u901a\u7701\u4e5d\u5dde\u5730\u65b9\u6574\u5099\u5c40\u718a\u672c\u6cb3\u5ddd\u56fd\u9053\u4e8b\u52d9\u6240","boring_xml_url":47,"boring_view_url":1,"soilmap_view_url":null,"soiltest_xml_url":47,"soiltest_view_url":47}]}}