{"header":{"xyz":{"source":[],"mosaic":false},"page":2012,"raw":{"soiltest_result":"0","bbox":"57.598333,109.544722,1.933333,163.806111","page":"2012"},"conditions":{"soiltest_result":0,"north":57.598333,"west":109.544722,"south":1.933333,"east":163.806111},"success":true,"message":""},"data":{"meta":{"total":212844,"page":2012,"pages":7095,"count":30},"values":[{"id":354029,"code":"NGIC202003526-0001","latitude":"37.449358333333","longitude":"138.83709444444","source_code":"","project_name":"","survey_name":"\u4ee4\u548c2\u5e74\u5ea6\u4fe1\u6fc3\u5ddd\u6cb3\u5ddd\u4e8b\u52d9\u6240\u7ba1\u5185\u5730\u8cea\u8abf\u67fb\u696d\u52d9","client_name":"\u56fd\u571f\u4ea4\u901a\u7701\u5317\u9678\u5730\u65b9\u6574\u5099\u5c40\u4fe1\u6fc3\u5ddd\u6cb3\u5ddd\u4e8b\u52d9\u6240","boring_xml_url":47,"boring_view_url":1,"soilmap_view_url":null,"soiltest_xml_url":47,"soiltest_view_url":47},{"id":354005,"code":"NGIC202003470-0017","latitude":"35.595657361111","longitude":"135.10458966667","source_code":"","project_name":"\u5927\u5bae\u5cf0\u5c71\u9053\u8def","survey_name":"\u5927\u5bae\u5cf0\u5c71\u9053\u8def\u5468\u67b3\u5730\u533a\u4ed6\u5730\u8cea\u8abf\u67fb\u696d\u52d9","client_name":"\u56fd\u571f\u4ea4\u901a\u7701\u8fd1\u757f\u5730\u65b9\u6574\u5099\u5c40\u798f\u77e5\u5c71\u6cb3\u5ddd\u56fd\u9053\u4e8b\u52d9\u6240","boring_xml_url":47,"boring_view_url":1,"soilmap_view_url":null,"soiltest_xml_url":47,"soiltest_view_url":47},{"id":354004,"code":"NGIC202003470-0016","latitude":"35.594349305556","longitude":"135.10707163889","source_code":"","project_name":"\u5927\u5bae\u5cf0\u5c71\u9053\u8def","survey_name":"\u5927\u5bae\u5cf0\u5c71\u9053\u8def\u5468\u67b3\u5730\u533a\u4ed6\u5730\u8cea\u8abf\u67fb\u696d\u52d9","client_name":"\u56fd\u571f\u4ea4\u901a\u7701\u8fd1\u757f\u5730\u65b9\u6574\u5099\u5c40\u798f\u77e5\u5c71\u6cb3\u5ddd\u56fd\u9053\u4e8b\u52d9\u6240","boring_xml_url":47,"boring_view_url":1,"soilmap_view_url":null,"soiltest_xml_url":47,"soiltest_view_url":47},{"id":354003,"code":"NGIC202003470-0015","latitude":"35.593081333333","longitude":"135.11011266667","source_code":"","project_name":"\u5927\u5bae\u5cf0\u5c71\u9053\u8def","survey_name":"\u5927\u5bae\u5cf0\u5c71\u9053\u8def\u5468\u67b3\u5730\u533a\u4ed6\u5730\u8cea\u8abf\u67fb\u696d\u52d9","client_name":"\u56fd\u571f\u4ea4\u901a\u7701\u8fd1\u757f\u5730\u65b9\u6574\u5099\u5c40\u798f\u77e5\u5c71\u6cb3\u5ddd\u56fd\u9053\u4e8b\u52d9\u6240","boring_xml_url":47,"boring_view_url":1,"soilmap_view_url":null,"soiltest_xml_url":0,"soiltest_view_url":0},{"id":354002,"code":"NGIC202003470-0014","latitude":"35.5928395","longitude":"135.11048380556","source_code":"","project_name":"\u5927\u5bae\u5cf0\u5c71\u9053\u8def","survey_name":"\u5927\u5bae\u5cf0\u5c71\u9053\u8def\u5468\u67b3\u5730\u533a\u4ed6\u5730\u8cea\u8abf\u67fb\u696d\u52d9","client_name":"\u56fd\u571f\u4ea4\u901a\u7701\u8fd1\u757f\u5730\u65b9\u6574\u5099\u5c40\u798f\u77e5\u5c71\u6cb3\u5ddd\u56fd\u9053\u4e8b\u52d9\u6240","boring_xml_url":47,"boring_view_url":1,"soilmap_view_url":null,"soiltest_xml_url":47,"soiltest_view_url":47},{"id":354001,"code":"NGIC202003470-0013","latitude":"35.592648","longitude":"135.11084988889","source_code":"","project_name":"\u5927\u5bae\u5cf0\u5c71\u9053\u8def","survey_name":"\u5927\u5bae\u5cf0\u5c71\u9053\u8def\u5468\u67b3\u5730\u533a\u4ed6\u5730\u8cea\u8abf\u67fb\u696d\u52d9","client_name":"\u56fd\u571f\u4ea4\u901a\u7701\u8fd1\u757f\u5730\u65b9\u6574\u5099\u5c40\u798f\u77e5\u5c71\u6cb3\u5ddd\u56fd\u9053\u4e8b\u52d9\u6240","boring_xml_url":47,"boring_view_url":1,"soilmap_view_url":null,"soiltest_xml_url":0,"soiltest_view_url":0},{"id":354000,"code":"NGIC202003470-0012","latitude":"35.592470277778","longitude":"135.11092125","source_code":"","project_name":"\u5927\u5bae\u5cf0\u5c71\u9053\u8def","survey_name":"\u5927\u5bae\u5cf0\u5c71\u9053\u8def\u5468\u67b3\u5730\u533a\u4ed6\u5730\u8cea\u8abf\u67fb\u696d\u52d9","client_name":"\u56fd\u571f\u4ea4\u901a\u7701\u8fd1\u757f\u5730\u65b9\u6574\u5099\u5c40\u798f\u77e5\u5c71\u6cb3\u5ddd\u56fd\u9053\u4e8b\u52d9\u6240","boring_xml_url":47,"boring_view_url":1,"soilmap_view_url":null,"soiltest_xml_url":47,"soiltest_view_url":47},{"id":353999,"code":"NGIC202003470-0011","latitude":"35.592313638889","longitude":"135.11121333333","source_code":"","project_name":"\u5927\u5bae\u5cf0\u5c71\u9053\u8def","survey_name":"\u5927\u5bae\u5cf0\u5c71\u9053\u8def\u5468\u67b3\u5730\u533a\u4ed6\u5730\u8cea\u8abf\u67fb\u696d\u52d9","client_name":"\u56fd\u571f\u4ea4\u901a\u7701\u8fd1\u757f\u5730\u65b9\u6574\u5099\u5c40\u798f\u77e5\u5c71\u6cb3\u5ddd\u56fd\u9053\u4e8b\u52d9\u6240","boring_xml_url":47,"boring_view_url":1,"soilmap_view_url":null,"soiltest_xml_url":47,"soiltest_view_url":47},{"id":353998,"code":"NGIC202003470-0010","latitude":"35.5920675","longitude":"135.11153288889","source_code":"","project_name":"\u5927\u5bae\u5cf0\u5c71\u9053\u8def","survey_name":"\u5927\u5bae\u5cf0\u5c71\u9053\u8def\u5468\u67b3\u5730\u533a\u4ed6\u5730\u8cea\u8abf\u67fb\u696d\u52d9","client_name":"\u56fd\u571f\u4ea4\u901a\u7701\u8fd1\u757f\u5730\u65b9\u6574\u5099\u5c40\u798f\u77e5\u5c71\u6cb3\u5ddd\u56fd\u9053\u4e8b\u52d9\u6240","boring_xml_url":47,"boring_view_url":1,"soilmap_view_url":null,"soiltest_xml_url":47,"soiltest_view_url":47},{"id":353997,"code":"NGIC202003470-0009","latitude":"35.591844722222","longitude":"135.11174794444","source_code":"","project_name":"\u5927\u5bae\u5cf0\u5c71\u9053\u8def","survey_name":"\u5927\u5bae\u5cf0\u5c71\u9053\u8def\u5468\u67b3\u5730\u533a\u4ed6\u5730\u8cea\u8abf\u67fb\u696d\u52d9","client_name":"\u56fd\u571f\u4ea4\u901a\u7701\u8fd1\u757f\u5730\u65b9\u6574\u5099\u5c40\u798f\u77e5\u5c71\u6cb3\u5ddd\u56fd\u9053\u4e8b\u52d9\u6240","boring_xml_url":47,"boring_view_url":1,"soilmap_view_url":null,"soiltest_xml_url":47,"soiltest_view_url":47},{"id":353996,"code":"NGIC202003470-0008","latitude":"35.591815722222","longitude":"135.11191563889","source_code":"","project_name":"\u5927\u5bae\u5cf0\u5c71\u9053\u8def","survey_name":"\u5927\u5bae\u5cf0\u5c71\u9053\u8def\u5468\u67b3\u5730\u533a\u4ed6\u5730\u8cea\u8abf\u67fb\u696d\u52d9","client_name":"\u56fd\u571f\u4ea4\u901a\u7701\u8fd1\u757f\u5730\u65b9\u6574\u5099\u5c40\u798f\u77e5\u5c71\u6cb3\u5ddd\u56fd\u9053\u4e8b\u52d9\u6240","boring_xml_url":47,"boring_view_url":1,"soilmap_view_url":null,"soiltest_xml_url":0,"soiltest_view_url":0},{"id":353995,"code":"NGIC202003470-0007","latitude":"35.591569222222","longitude":"135.11202472222","source_code":"","project_name":"\u5927\u5bae\u5cf0\u5c71\u9053\u8def","survey_name":"\u5927\u5bae\u5cf0\u5c71\u9053\u8def\u5468\u67b3\u5730\u533a\u4ed6\u5730\u8cea\u8abf\u67fb\u696d\u52d9","client_name":"\u56fd\u571f\u4ea4\u901a\u7701\u8fd1\u757f\u5730\u65b9\u6574\u5099\u5c40\u798f\u77e5\u5c71\u6cb3\u5ddd\u56fd\u9053\u4e8b\u52d9\u6240","boring_xml_url":47,"boring_view_url":1,"soilmap_view_url":null,"soiltest_xml_url":0,"soiltest_view_url":0},{"id":353994,"code":"NGIC202003470-0006","latitude":"35.587590833333","longitude":"135.11542369444","source_code":"","project_name":"\u5927\u5bae\u5cf0\u5c71\u9053\u8def","survey_name":"\u5927\u5bae\u5cf0\u5c71\u9053\u8def\u5468\u67b3\u5730\u533a\u4ed6\u5730\u8cea\u8abf\u67fb\u696d\u52d9","client_name":"\u56fd\u571f\u4ea4\u901a\u7701\u8fd1\u757f\u5730\u65b9\u6574\u5099\u5c40\u798f\u77e5\u5c71\u6cb3\u5ddd\u56fd\u9053\u4e8b\u52d9\u6240","boring_xml_url":47,"boring_view_url":1,"soilmap_view_url":null,"soiltest_xml_url":0,"soiltest_view_url":0},{"id":353993,"code":"NGIC202003470-0005","latitude":"35.587013111111","longitude":"135.11564619444","source_code":"","project_name":"\u5927\u5bae\u5cf0\u5c71\u9053\u8def","survey_name":"\u5927\u5bae\u5cf0\u5c71\u9053\u8def\u5468\u67b3\u5730\u533a\u4ed6\u5730\u8cea\u8abf\u67fb\u696d\u52d9","client_name":"\u56fd\u571f\u4ea4\u901a\u7701\u8fd1\u757f\u5730\u65b9\u6574\u5099\u5c40\u798f\u77e5\u5c71\u6cb3\u5ddd\u56fd\u9053\u4e8b\u52d9\u6240","boring_xml_url":47,"boring_view_url":1,"soilmap_view_url":null,"soiltest_xml_url":0,"soiltest_view_url":0},{"id":353992,"code":"NGIC202003470-0004","latitude":"35.586868222222","longitude":"135.11561225","source_code":"","project_name":"\u5927\u5bae\u5cf0\u5c71\u9053\u8def","survey_name":"\u5927\u5bae\u5cf0\u5c71\u9053\u8def\u5468\u67b3\u5730\u533a\u4ed6\u5730\u8cea\u8abf\u67fb\u696d\u52d9","client_name":"\u56fd\u571f\u4ea4\u901a\u7701\u8fd1\u757f\u5730\u65b9\u6574\u5099\u5c40\u798f\u77e5\u5c71\u6cb3\u5ddd\u56fd\u9053\u4e8b\u52d9\u6240","boring_xml_url":47,"boring_view_url":1,"soilmap_view_url":null,"soiltest_xml_url":47,"soiltest_view_url":47},{"id":353991,"code":"NGIC202003470-0003","latitude":"35.586168055556","longitude":"135.1160315","source_code":"","project_name":"\u5927\u5bae\u5cf0\u5c71\u9053\u8def","survey_name":"\u5927\u5bae\u5cf0\u5c71\u9053\u8def\u5468\u67b3\u5730\u533a\u4ed6\u5730\u8cea\u8abf\u67fb\u696d\u52d9","client_name":"\u56fd\u571f\u4ea4\u901a\u7701\u8fd1\u757f\u5730\u65b9\u6574\u5099\u5c40\u798f\u77e5\u5c71\u6cb3\u5ddd\u56fd\u9053\u4e8b\u52d9\u6240","boring_xml_url":47,"boring_view_url":1,"soilmap_view_url":null,"soiltest_xml_url":47,"soiltest_view_url":47},{"id":353990,"code":"NGIC202003470-0002","latitude":"35.585985833333","longitude":"135.11614713889","source_code":"","project_name":"\u5927\u5bae\u5cf0\u5c71\u9053\u8def","survey_name":"\u5927\u5bae\u5cf0\u5c71\u9053\u8def\u5468\u67b3\u5730\u533a\u4ed6\u5730\u8cea\u8abf\u67fb\u696d\u52d9","client_name":"\u56fd\u571f\u4ea4\u901a\u7701\u8fd1\u757f\u5730\u65b9\u6574\u5099\u5c40\u798f\u77e5\u5c71\u6cb3\u5ddd\u56fd\u9053\u4e8b\u52d9\u6240","boring_xml_url":47,"boring_view_url":1,"soilmap_view_url":null,"soiltest_xml_url":0,"soiltest_view_url":0},{"id":353989,"code":"NGIC202003470-0001","latitude":"35.585530333333","longitude":"135.11644777778","source_code":"","project_name":"\u5927\u5bae\u5cf0\u5c71\u9053\u8def","survey_name":"\u5927\u5bae\u5cf0\u5c71\u9053\u8def\u5468\u67b3\u5730\u533a\u4ed6\u5730\u8cea\u8abf\u67fb\u696d\u52d9","client_name":"\u56fd\u571f\u4ea4\u901a\u7701\u8fd1\u757f\u5730\u65b9\u6574\u5099\u5c40\u798f\u77e5\u5c71\u6cb3\u5ddd\u56fd\u9053\u4e8b\u52d9\u6240","boring_xml_url":47,"boring_view_url":1,"soilmap_view_url":null,"soiltest_xml_url":0,"soiltest_view_url":0},{"id":353977,"code":"NGIC202003465-0003","latitude":"35.279395555556","longitude":"132.85768194444","source_code":"","project_name":"","survey_name":"\u677e\u6c5f\u56fd\u9053\u4e8b\u52d9\u6240\u7ba1\u5185\u4fee\u7e55\u6e2c\u91cf\u8a2d\u8a08\u696d\u52d9","client_name":"\u56fd\u571f\u4ea4\u901a\u7701\u4e2d\u56fd\u5730\u65b9\u6574\u5099\u5c40\u677e\u6c5f\u56fd\u9053\u4e8b\u52d9\u6240","boring_xml_url":47,"boring_view_url":1,"soilmap_view_url":null,"soiltest_xml_url":0,"soiltest_view_url":0},{"id":353976,"code":"NGIC202003465-0002","latitude":"34.969307777778","longitude":"132.73385138889","source_code":"","project_name":"","survey_name":"\u677e\u6c5f\u56fd\u9053\u4e8b\u52d9\u6240\u7ba1\u5185\u4fee\u7e55\u6e2c\u91cf\u8a2d\u8a08\u696d\u52d9","client_name":"\u56fd\u571f\u4ea4\u901a\u7701\u4e2d\u56fd\u5730\u65b9\u6574\u5099\u5c40\u677e\u6c5f\u56fd\u9053\u4e8b\u52d9\u6240","boring_xml_url":47,"boring_view_url":1,"soilmap_view_url":null,"soiltest_xml_url":0,"soiltest_view_url":0},{"id":353975,"code":"NGIC202003465-0001","latitude":"35.427009444444","longitude":"133.15405944444","source_code":"","project_name":"","survey_name":"\u677e\u6c5f\u56fd\u9053\u4e8b\u52d9\u6240\u7ba1\u5185\u4fee\u7e55\u6e2c\u91cf\u8a2d\u8a08\u696d\u52d9","client_name":"\u56fd\u571f\u4ea4\u901a\u7701\u4e2d\u56fd\u5730\u65b9\u6574\u5099\u5c40\u677e\u6c5f\u56fd\u9053\u4e8b\u52d9\u6240","boring_xml_url":47,"boring_view_url":1,"soilmap_view_url":null,"soiltest_xml_url":0,"soiltest_view_url":0},{"id":353950,"code":"NGIC202003457-0010","latitude":"31.575536083333","longitude":"131.37259691667","source_code":"","project_name":"","survey_name":"\u4ee4\u548c2 \u5e74\u5ea6\u6cb9\u6d25\u30fb\u590f\u4e95\u9053\u8def\uff08 \u5e73\u91ce\u5730\u533a\u5916\uff09 \u5730\u8cea\u8abf\u67fb\u696d\u52d9","client_name":"\u56fd\u571f\u4ea4\u901a\u7701\u4e5d\u5dde\u5730\u65b9\u6574\u5099\u5c40\u5bae\u5d0e\u6cb3\u5ddd\u56fd\u9053\u4e8b\u52d9\u6240","boring_xml_url":47,"boring_view_url":1,"soilmap_view_url":null,"soiltest_xml_url":47,"soiltest_view_url":47},{"id":353949,"code":"NGIC202003457-0009","latitude":"31.578875805556","longitude":"131.37337130556","source_code":"","project_name":"","survey_name":"\u4ee4\u548c2\u5e74\u5ea6\u6cb9\u6d25\u30fb\u590f\u4e95\u9053\u8def\uff08\u5e73\u91ce\u5730\u533a\u5916\uff09\u5730\u8cea\u8abf\u67fb\u696d\u52d9","client_name":"\u56fd\u571f\u4ea4\u901a\u7701\u4e5d\u5dde\u5730\u65b9\u6574\u5099\u5c40\u5bae\u5d0e\u6cb3\u5ddd\u56fd\u9053\u4e8b\u52d9\u6240","boring_xml_url":47,"boring_view_url":1,"soilmap_view_url":null,"soiltest_xml_url":0,"soiltest_view_url":0},{"id":353948,"code":"NGIC202003457-0008","latitude":"31.578810444444","longitude":"131.37353005556","source_code":"","project_name":"","survey_name":"\u4ee4\u548c2\u5e74\u5ea6\u6cb9\u6d25\u30fb\u590f\u4e95\u9053\u8def\uff08\u5e73\u91ce\u5730\u533a\u5916\uff09\u5730\u8cea\u8abf\u67fb\u696d\u52d9","client_name":"\u56fd\u571f\u4ea4\u901a\u7701\u4e5d\u5dde\u5730\u65b9\u6574\u5099\u5c40\u5bae\u5d0e\u6cb3\u5ddd\u56fd\u9053\u4e8b\u52d9\u6240","boring_xml_url":47,"boring_view_url":1,"soilmap_view_url":null,"soiltest_xml_url":0,"soiltest_view_url":0},{"id":353947,"code":"NGIC202003457-0007","latitude":"31.579601555556","longitude":"131.37372402778","source_code":"","project_name":"","survey_name":"\u4ee4\u548c2\u5e74\u5ea6\u6cb9\u6d25\u30fb\u590f\u4e95\u9053\u8def\uff08\u5e73\u91ce\u5730\u533a\u5916\uff09\u5730\u8cea\u8abf\u67fb\u696d\u52d9","client_name":"\u56fd\u571f\u4ea4\u901a\u7701\u4e5d\u5dde\u5730\u65b9\u6574\u5099\u5c40\u5bae\u5d0e\u6cb3\u5ddd\u56fd\u9053\u4e8b\u52d9\u6240","boring_xml_url":47,"boring_view_url":1,"soilmap_view_url":null,"soiltest_xml_url":0,"soiltest_view_url":0},{"id":353946,"code":"NGIC202003457-0006","latitude":"31.579489444444","longitude":"131.37395547222","source_code":"","project_name":"","survey_name":"\u4ee4\u548c2\u5e74\u5ea6\u6cb9\u6d25\u30fb\u590f\u4e95\u9053\u8def\uff08\u5e73\u91ce\u5730\u533a\u5916\uff09\u5730\u8cea\u8abf\u67fb\u696d\u52d9","client_name":"\u56fd\u571f\u4ea4\u901a\u7701\u4e5d\u5dde\u5730\u65b9\u6574\u5099\u5c40\u5bae\u5d0e\u6cb3\u5ddd\u56fd\u9053\u4e8b\u52d9\u6240","boring_xml_url":47,"boring_view_url":1,"soilmap_view_url":null,"soiltest_xml_url":0,"soiltest_view_url":0},{"id":353945,"code":"NGIC202003457-0005","latitude":"31.580338416667","longitude":"131.37467947222","source_code":"","project_name":"","survey_name":"\u4ee4\u548c2\u5e74\u5ea6\u6cb9\u6d25\u30fb\u590f\u4e95\u9053\u8def\uff08\u5e73\u91ce\u5730\u533a\u5916\uff09\u5730\u8cea\u8abf\u67fb\u696d\u52d9","client_name":"\u56fd\u571f\u4ea4\u901a\u7701\u4e5d\u5dde\u5730\u65b9\u6574\u5099\u5c40\u5bae\u5d0e\u6cb3\u5ddd\u56fd\u9053\u4e8b\u52d9\u6240","boring_xml_url":47,"boring_view_url":1,"soilmap_view_url":null,"soiltest_xml_url":0,"soiltest_view_url":0},{"id":353944,"code":"NGIC202003457-0004","latitude":"31.580587944444","longitude":"131.37488772222","source_code":"","project_name":"","survey_name":"\u4ee4\u548c2\u5e74\u5ea6\u6cb9\u6d25\u30fb\u590f\u4e95\u9053\u8def\uff08\u5e73\u91ce\u5730\u533a\u5916\uff09\u5730\u8cea\u8abf\u67fb\u696d\u52d9","client_name":"\u56fd\u571f\u4ea4\u901a\u7701\u4e5d\u5dde\u5730\u65b9\u6574\u5099\u5c40\u5bae\u5d0e\u6cb3\u5ddd\u56fd\u9053\u4e8b\u52d9\u6240","boring_xml_url":47,"boring_view_url":1,"soilmap_view_url":null,"soiltest_xml_url":0,"soiltest_view_url":0},{"id":353943,"code":"NGIC202003457-0003","latitude":"31.592498083333","longitude":"131.38546244444","source_code":"","project_name":"","survey_name":"\u4ee4\u548c2\u5e74\u5ea6\u6cb9\u6d25\u30fb\u590f\u4e95\u9053\u8def\uff08\u5e73\u91ce\u5730\u533a\u5916\uff09\u5730\u8cea\u8abf\u67fb\u696d\u52d9","client_name":"\u56fd\u571f\u4ea4\u901a\u7701\u4e5d\u5dde\u5730\u65b9\u6574\u5099\u5c40\u5bae\u5d0e\u6cb3\u5ddd\u56fd\u9053\u4e8b\u52d9\u6240","boring_xml_url":47,"boring_view_url":1,"soilmap_view_url":null,"soiltest_xml_url":0,"soiltest_view_url":0},{"id":353942,"code":"NGIC202003457-0002","latitude":"31.592774666667","longitude":"131.38579491667","source_code":"","project_name":"","survey_name":"\u4ee4\u548c2\u5e74\u5ea6\u6cb9\u6d25\u30fb\u590f\u4e95\u9053\u8def\uff08\u5e73\u91ce\u5730\u533a\u5916\uff09\u5730\u8cea\u8abf\u67fb\u696d\u52d9","client_name":"\u56fd\u571f\u4ea4\u901a\u7701\u4e5d\u5dde\u5730\u65b9\u6574\u5099\u5c40\u5bae\u5d0e\u6cb3\u5ddd\u56fd\u9053\u4e8b\u52d9\u6240","boring_xml_url":47,"boring_view_url":1,"soilmap_view_url":null,"soiltest_xml_url":0,"soiltest_view_url":0}]}}