{"header":{"xyz":{"source":[],"mosaic":false},"page":2018,"raw":{"soiltest_result":"0","bbox":"57.598333,109.544722,1.933333,163.806111","page":"2018"},"conditions":{"soiltest_result":0,"north":57.598333,"west":109.544722,"south":1.933333,"east":163.806111},"success":true,"message":""},"data":{"meta":{"total":212844,"page":2018,"pages":7095,"count":30},"values":[{"id":353064,"code":"NGIC202003400-0003","latitude":"43.663877777778","longitude":"142.43849166667","source_code":"","project_name":"\u56fd\u55b6\u7dca\u6025\u8fb2\u5730\u518d\u7de8\u6574\u5099\u4e8b\u696d","survey_name":"\u4ee4\u548c2\u5e74\u5ea6\u65bd\u884c \u65ed\u6771\u5730\u533a 75\u8fb2\u533a\u5916\u533a\u753b\u6574\u7406\u8a2d\u8a08\u7b49\u696d\u52d9","client_name":"\u56fd\u571f\u4ea4\u901a\u7701\u5317\u6d77\u9053\u958b\u767a\u5c40\u65ed\u5ddd\u958b\u767a\u5efa\u8a2d\u90e8\u65ed\u5ddd\u8fb2\u696d\u4e8b\u52d9\u6240","boring_xml_url":47,"boring_view_url":1,"soilmap_view_url":null,"soiltest_xml_url":47,"soiltest_view_url":47},{"id":353063,"code":"NGIC202003400-0002","latitude":"43.665205555556","longitude":"142.44021111111","source_code":"","project_name":"\u56fd\u55b6\u7dca\u6025\u8fb2\u5730\u518d\u7de8\u6574\u5099\u4e8b\u696d","survey_name":"\u4ee4\u548c2\u5e74\u5ea6\u65bd\u884c \u65ed\u6771\u5730\u533a 75\u8fb2\u533a\u5916\u533a\u753b\u6574\u7406\u8a2d\u8a08\u7b49\u696d\u52d9","client_name":"\u56fd\u571f\u4ea4\u901a\u7701\u5317\u6d77\u9053\u958b\u767a\u5c40\u65ed\u5ddd\u958b\u767a\u5efa\u8a2d\u90e8\u65ed\u5ddd\u8fb2\u696d\u4e8b\u52d9\u6240","boring_xml_url":47,"boring_view_url":1,"soilmap_view_url":null,"soiltest_xml_url":47,"soiltest_view_url":47},{"id":353062,"code":"NGIC202003400-0001","latitude":"43.666413888889","longitude":"142.443525","source_code":"","project_name":"\u56fd\u55b6\u7dca\u6025\u8fb2\u5730\u518d\u7de8\u6574\u5099\u4e8b\u696d","survey_name":"\u4ee4\u548c2\u5e74\u5ea6\u65bd\u884c \u65ed\u6771\u5730\u533a 75\u8fb2\u533a\u5916\u533a\u753b\u6574\u7406\u8a2d\u8a08\u7b49\u696d\u52d9","client_name":"\u56fd\u571f\u4ea4\u901a\u7701\u5317\u6d77\u9053\u958b\u767a\u5c40\u65ed\u5ddd\u958b\u767a\u5efa\u8a2d\u90e8\u65ed\u5ddd\u8fb2\u696d\u4e8b\u52d9\u6240","boring_xml_url":47,"boring_view_url":1,"soilmap_view_url":null,"soiltest_xml_url":47,"soiltest_view_url":47},{"id":353041,"code":"NGIC202003360-0004","latitude":"36.121666666667","longitude":"136.73555555556","source_code":"","project_name":"\n      ","survey_name":"\u4ee4\u548c\u5143\u5e74\u5ea6\u751a\u4e4b\u52a9\u8c37\u5730\u3059\u3079\u308a(\u4e2d\u9593\u5c3e\u6839\u30d6\u30ed\u30c3\u30af\uff09\u5730\u8cea\u8abf\u67fb\u305d\u306e2\u696d\u52d9","client_name":"\u56fd\u571f\u4ea4\u901a\u7701\u5317\u9678\u5730\u65b9\u6574\u5099\u5c40\u91d1\u6ca2\u6cb3\u5ddd\u56fd\u9053\u4e8b\u52d9\u6240","boring_xml_url":47,"boring_view_url":1,"soilmap_view_url":null,"soiltest_xml_url":0,"soiltest_view_url":0},{"id":353040,"code":"NGIC202003360-0003","latitude":"36.121666666667","longitude":"136.73555555556","source_code":"","project_name":"\n      ","survey_name":"\u4ee4\u548c\u5143\u5e74\u5ea6\u751a\u4e4b\u52a9\u8c37\u5730\u3059\u3079\u308a(\u4e2d\u9593\u5c3e\u6839\u30d6\u30ed\u30c3\u30af\uff09\u5730\u8cea\u8abf\u67fb\u305d\u306e2\u696d\u52d9","client_name":"\u56fd\u571f\u4ea4\u901a\u7701\u5317\u9678\u5730\u65b9\u6574\u5099\u5c40\u91d1\u6ca2\u6cb3\u5ddd\u56fd\u9053\u4e8b\u52d9\u6240","boring_xml_url":47,"boring_view_url":1,"soilmap_view_url":null,"soiltest_xml_url":0,"soiltest_view_url":0},{"id":353039,"code":"NGIC202003360-0002","latitude":"36.1305645","longitude":"136.75531508333","source_code":"","project_name":"\n      ","survey_name":"\u4ee4\u548c\u5143\u5e74\u5ea6\u751a\u4e4b\u52a9\u8c37\u5730\u3059\u3079\u308a(\u4e2d\u9593\u5c3e\u6839\u30d6\u30ed\u30c3\u30af\uff09\u5730\u8cea\u8abf\u67fb\u305d\u306e2\u696d\u52d9","client_name":"\u56fd\u571f\u4ea4\u901a\u7701\u5317\u9678\u5730\u65b9\u6574\u5099\u5c40\u91d1\u6ca2\u6cb3\u5ddd\u56fd\u9053\u4e8b\u52d9\u6240","boring_xml_url":47,"boring_view_url":1,"soilmap_view_url":null,"soiltest_xml_url":0,"soiltest_view_url":0},{"id":353038,"code":"NGIC202003360-0001","latitude":"36.131857222222","longitude":"136.75666855556","source_code":"","project_name":"\n      ","survey_name":"\u4ee4\u548c\u5143\u5e74\u5ea6\u751a\u4e4b\u52a9\u8c37\u5730\u3059\u3079\u308a(\u4e2d\u9593\u5c3e\u6839\u30d6\u30ed\u30c3\u30af\uff09\u5730\u8cea\u8abf\u67fb\u305d\u306e2\u696d\u52d9","client_name":"\u56fd\u571f\u4ea4\u901a\u7701\u5317\u9678\u5730\u65b9\u6574\u5099\u5c40\u91d1\u6ca2\u6cb3\u5ddd\u56fd\u9053\u4e8b\u52d9\u6240","boring_xml_url":47,"boring_view_url":1,"soilmap_view_url":null,"soiltest_xml_url":0,"soiltest_view_url":0},{"id":353021,"code":"NGIC202003358-0001","latitude":"36.920813888889","longitude":"138.82246111111","source_code":"","project_name":"","survey_name":"R2\u9577\u5ca1\u56fd\u9053\u7ba1\u5185\u5730\u8cea\u8abf\u67fb\u696d\u52d9(\u5358\u4fa1\u5951\u7d04) \u6e6f\u6ca2\u9664\u96ea\u57fa\u5730\u8eca\u5eab\u68df\u5730\u76e4\u8abf\u67fb","client_name":"\u56fd\u571f\u4ea4\u901a\u7701\u5317\u9678\u5730\u65b9\u6574\u5099\u5c40\u9577\u5ca1\u56fd\u9053\u4e8b\u52d9\u6240","boring_xml_url":47,"boring_view_url":1,"soilmap_view_url":null,"soiltest_xml_url":47,"soiltest_view_url":47},{"id":353020,"code":"NGIC202003354-0002","latitude":"36.130424472222","longitude":"136.76032752778","source_code":"","project_name":"\n      ","survey_name":"\u4ee4\u548c\u5143\u5e74\u5ea6\u751a\u4e4b\u52a9\u8c37\u5730\u3059\u3079\u308a(\u5de6\u5cb8\u5927\u898f\u6a21\u30d6\u30ed\u30c3\u30af)\u5730\u8cea\u8abf\u67fb\u305d\u306e3\u696d\u52d9","client_name":"\u56fd\u571f\u4ea4\u901a\u7701\u5317\u9678\u5730\u65b9\u6574\u5099\u5c40\u91d1\u6ca2\u6cb3\u5ddd\u56fd\u9053\u4e8b\u52d9\u6240","boring_xml_url":47,"boring_view_url":1,"soilmap_view_url":null,"soiltest_xml_url":0,"soiltest_view_url":0},{"id":353019,"code":"NGIC202003354-0001","latitude":"36.13121375","longitude":"136.76015605556","source_code":"","project_name":"\n      ","survey_name":"\u4ee4\u548c\u5143\u5e74\u5ea6\u751a\u4e4b\u52a9\u8c37\u5730\u3059\u3079\u308a(\u5de6\u5cb8\u5927\u898f\u6a21\u30d6\u30ed\u30c3\u30af)\u5730\u8cea\u8abf\u67fb\u305d\u306e3\u696d\u52d9","client_name":"\u56fd\u571f\u4ea4\u901a\u7701\u5317\u9678\u5730\u65b9\u6574\u5099\u5c40\u91d1\u6ca2\u6cb3\u5ddd\u56fd\u9053\u4e8b\u52d9\u6240","boring_xml_url":47,"boring_view_url":1,"soilmap_view_url":null,"soiltest_xml_url":0,"soiltest_view_url":0},{"id":353005,"code":"NGIC202003352-0001","latitude":"37.170194444444","longitude":"138.11794444444","source_code":"","project_name":"","survey_name":"\u4ee4\u548c2\u5e74\u5ea6\u9ad8\u7530\u7ba1\u5185\u5730\u8cea\u8abf\u67fb\u696d\u52d9\u56fd\u90538\u53f7\u4e0a\u8d8a\u5e02\u8336\u5c4b\u30f6\u539f\u5730\u5148\uff08\u4e73\u6bcd\u30f6\u5cb3\u30c8\u30f3\u30cd\u30eb\uff09\u30dc\u30fc\u30ea\u30f3\u30b0\u8abf\u67fb","client_name":"\u56fd\u571f\u4ea4\u901a\u7701\u5317\u9678\u5730\u65b9\u6574\u5099\u5c40\u9ad8\u7530\u6cb3\u5ddd\u56fd\u9053\u4e8b\u52d9\u6240","boring_xml_url":47,"boring_view_url":1,"soilmap_view_url":null,"soiltest_xml_url":0,"soiltest_view_url":0},{"id":353004,"code":"NGIC202003351-0015","latitude":"35.497583388889","longitude":"137.17294194444","source_code":"","project_name":"","survey_name":"\u4ee4\u548c2\u5e74\u5ea6\u65b0\u4e38\u5c71\u30c0\u30e0\u516b\u767e\u6d25\u5730\u533a\u5730\u8cea\u8abf\u67fb\u696d\u52d9","client_name":"\u56fd\u571f\u4ea4\u901a\u7701\u4e2d\u90e8\u5730\u65b9\u6574\u5099\u5c40\u65b0\u4e38\u5c71\u30c0\u30e0\u5de5\u4e8b\u4e8b\u52d9\u6240","boring_xml_url":47,"boring_view_url":1,"soilmap_view_url":null,"soiltest_xml_url":0,"soiltest_view_url":0},{"id":353003,"code":"NGIC202003351-0014","latitude":"35.497760083333","longitude":"137.17453694444","source_code":"","project_name":"","survey_name":"\u4ee4\u548c2\u5e74\u5ea6\u65b0\u4e38\u5c71\u30c0\u30e0\u516b\u767e\u6d25\u5730\u533a\u5730\u8cea\u8abf\u67fb\u696d\u52d9","client_name":"\u56fd\u571f\u4ea4\u901a\u7701\u4e2d\u90e8\u5730\u65b9\u6574\u5099\u5c40\u65b0\u4e38\u5c71\u30c0\u30e0\u5de5\u4e8b\u4e8b\u52d9\u6240","boring_xml_url":47,"boring_view_url":1,"soilmap_view_url":null,"soiltest_xml_url":0,"soiltest_view_url":0},{"id":353002,"code":"NGIC202003351-0013","latitude":"35.492866833333","longitude":"137.16697830556","source_code":"","project_name":"","survey_name":"\u4ee4\u548c2\u5e74\u5ea6\u65b0\u4e38\u5c71\u30c0\u30e0\u516b\u767e\u6d25\u5730\u533a\u5730\u8cea\u8abf\u67fb\u696d\u52d9","client_name":"\u56fd\u571f\u4ea4\u901a\u7701\u4e2d\u90e8\u5730\u65b9\u6574\u5099\u5c40\u65b0\u4e38\u5c71\u30c0\u30e0\u5de5\u4e8b\u4e8b\u52d9\u6240","boring_xml_url":47,"boring_view_url":1,"soilmap_view_url":null,"soiltest_xml_url":0,"soiltest_view_url":0},{"id":353001,"code":"NGIC202003351-0012","latitude":"35.493996638889","longitude":"137.16885519444","source_code":"","project_name":"","survey_name":"\u4ee4\u548c2\u5e74\u5ea6\u65b0\u4e38\u5c71\u30c0\u30e0\u516b\u767e\u6d25\u5730\u533a\u5730\u8cea\u8abf\u67fb\u696d\u52d9","client_name":"\u56fd\u571f\u4ea4\u901a\u7701\u4e2d\u90e8\u5730\u65b9\u6574\u5099\u5c40\u65b0\u4e38\u5c71\u30c0\u30e0\u5de5\u4e8b\u4e8b\u52d9\u6240","boring_xml_url":47,"boring_view_url":1,"soilmap_view_url":null,"soiltest_xml_url":0,"soiltest_view_url":0},{"id":353000,"code":"NGIC202003351-0011","latitude":"35.493825361111","longitude":"137.16808197222","source_code":"","project_name":"","survey_name":"\u4ee4\u548c2\u5e74\u5ea6\u65b0\u4e38\u5c71\u30c0\u30e0\u516b\u767e\u6d25\u5730\u533a\u5730\u8cea\u8abf\u67fb\u696d\u52d9","client_name":"\u56fd\u571f\u4ea4\u901a\u7701\u4e2d\u90e8\u5730\u65b9\u6574\u5099\u5c40\u65b0\u4e38\u5c71\u30c0\u30e0\u5de5\u4e8b\u4e8b\u52d9\u6240","boring_xml_url":47,"boring_view_url":1,"soilmap_view_url":null,"soiltest_xml_url":0,"soiltest_view_url":0},{"id":352999,"code":"NGIC202003351-0010","latitude":"35.495086","longitude":"137.17090577778","source_code":"","project_name":"","survey_name":"\u4ee4\u548c2\u5e74\u5ea6\u65b0\u4e38\u5c71\u30c0\u30e0\u516b\u767e\u6d25\u5730\u533a\u5730\u8cea\u8abf\u67fb\u696d\u52d9","client_name":"\u56fd\u571f\u4ea4\u901a\u7701\u4e2d\u90e8\u5730\u65b9\u6574\u5099\u5c40\u65b0\u4e38\u5c71\u30c0\u30e0\u5de5\u4e8b\u4e8b\u52d9\u6240","boring_xml_url":47,"boring_view_url":1,"soilmap_view_url":null,"soiltest_xml_url":0,"soiltest_view_url":0},{"id":352998,"code":"NGIC202003351-0009","latitude":"35.494335777778","longitude":"137.16979680556","source_code":"","project_name":"","survey_name":"\u4ee4\u548c2\u5e74\u5ea6\u65b0\u4e38\u5c71\u30c0\u30e0\u516b\u767e\u6d25\u5730\u533a\u5730\u8cea\u8abf\u67fb\u696d\u52d9","client_name":"\u56fd\u571f\u4ea4\u901a\u7701\u4e2d\u90e8\u5730\u65b9\u6574\u5099\u5c40\u65b0\u4e38\u5c71\u30c0\u30e0\u5de5\u4e8b\u4e8b\u52d9\u6240","boring_xml_url":47,"boring_view_url":1,"soilmap_view_url":null,"soiltest_xml_url":0,"soiltest_view_url":0},{"id":352997,"code":"NGIC202003351-0008","latitude":"35.496490944444","longitude":"137.17330047222","source_code":"","project_name":"","survey_name":"\u4ee4\u548c2\u5e74\u5ea6\u65b0\u4e38\u5c71\u30c0\u30e0\u516b\u767e\u6d25\u5730\u533a\u5730\u8cea\u8abf\u67fb\u696d\u52d9","client_name":"\u56fd\u571f\u4ea4\u901a\u7701\u4e2d\u90e8\u5730\u65b9\u6574\u5099\u5c40\u65b0\u4e38\u5c71\u30c0\u30e0\u5de5\u4e8b\u4e8b\u52d9\u6240","boring_xml_url":47,"boring_view_url":1,"soilmap_view_url":null,"soiltest_xml_url":0,"soiltest_view_url":0},{"id":352996,"code":"NGIC202003351-0007","latitude":"35.495237805556","longitude":"137.17127341667","source_code":"","project_name":"","survey_name":"\u4ee4\u548c2\u5e74\u5ea6\u65b0\u4e38\u5c71\u30c0\u30e0\u516b\u767e\u6d25\u5730\u533a\u5730\u8cea\u8abf\u67fb\u696d\u52d9","client_name":"\u56fd\u571f\u4ea4\u901a\u7701\u4e2d\u90e8\u5730\u65b9\u6574\u5099\u5c40\u65b0\u4e38\u5c71\u30c0\u30e0\u5de5\u4e8b\u4e8b\u52d9\u6240","boring_xml_url":47,"boring_view_url":1,"soilmap_view_url":null,"soiltest_xml_url":0,"soiltest_view_url":0},{"id":352995,"code":"NGIC202003351-0006","latitude":"35.495745222222","longitude":"137.17187705556","source_code":"","project_name":"","survey_name":"\u4ee4\u548c2\u5e74\u5ea6\u65b0\u4e38\u5c71\u30c0\u30e0\u516b\u767e\u6d25\u5730\u533a\u5730\u8cea\u8abf\u67fb\u696d\u52d9","client_name":"\u56fd\u571f\u4ea4\u901a\u7701\u4e2d\u90e8\u5730\u65b9\u6574\u5099\u5c40\u65b0\u4e38\u5c71\u30c0\u30e0\u5de5\u4e8b\u4e8b\u52d9\u6240","boring_xml_url":47,"boring_view_url":1,"soilmap_view_url":null,"soiltest_xml_url":0,"soiltest_view_url":0},{"id":352994,"code":"NGIC202003351-0005","latitude":"35.496202305556","longitude":"137.17244963889","source_code":"","project_name":"","survey_name":"\u4ee4\u548c2\u5e74\u5ea6\u65b0\u4e38\u5c71\u30c0\u30e0\u516b\u767e\u6d25\u5730\u533a\u5730\u8cea\u8abf\u67fb\u696d\u52d9","client_name":"\u56fd\u571f\u4ea4\u901a\u7701\u4e2d\u90e8\u5730\u65b9\u6574\u5099\u5c40\u65b0\u4e38\u5c71\u30c0\u30e0\u5de5\u4e8b\u4e8b\u52d9\u6240","boring_xml_url":47,"boring_view_url":1,"soilmap_view_url":null,"soiltest_xml_url":0,"soiltest_view_url":0},{"id":352993,"code":"NGIC202003351-0004","latitude":"35.497565722222","longitude":"137.17430480556","source_code":"","project_name":"","survey_name":"\u4ee4\u548c2\u5e74\u5ea6\u65b0\u4e38\u5c71\u30c0\u30e0\u516b\u767e\u6d25\u5730\u533a\u5730\u8cea\u8abf\u67fb\u696d\u52d9","client_name":"\u56fd\u571f\u4ea4\u901a\u7701\u4e2d\u90e8\u5730\u65b9\u6574\u5099\u5c40\u65b0\u4e38\u5c71\u30c0\u30e0\u5de5\u4e8b\u4e8b\u52d9\u6240","boring_xml_url":47,"boring_view_url":1,"soilmap_view_url":null,"soiltest_xml_url":0,"soiltest_view_url":0},{"id":352992,"code":"NGIC202003351-0003","latitude":"35.49703075","longitude":"137.17309177778","source_code":"","project_name":"","survey_name":"\u4ee4\u548c2\u5e74\u5ea6\u65b0\u4e38\u5c71\u30c0\u30e0\u516b\u767e\u6d25\u5730\u533a\u5730\u8cea\u8abf\u67fb\u696d\u52d9","client_name":"\u56fd\u571f\u4ea4\u901a\u7701\u4e2d\u90e8\u5730\u65b9\u6574\u5099\u5c40\u65b0\u4e38\u5c71\u30c0\u30e0\u5de5\u4e8b\u4e8b\u52d9\u6240","boring_xml_url":47,"boring_view_url":1,"soilmap_view_url":null,"soiltest_xml_url":0,"soiltest_view_url":0},{"id":352991,"code":"NGIC202003351-0002","latitude":"35.497083583333","longitude":"137.17376866667","source_code":"","project_name":"","survey_name":"\u4ee4\u548c2\u5e74\u5ea6\u65b0\u4e38\u5c71\u30c0\u30e0\u516b\u767e\u6d25\u5730\u533a\u5730\u8cea\u8abf\u67fb\u696d\u52d9","client_name":"\u56fd\u571f\u4ea4\u901a\u7701\u4e2d\u90e8\u5730\u65b9\u6574\u5099\u5c40\u65b0\u4e38\u5c71\u30c0\u30e0\u5de5\u4e8b\u4e8b\u52d9\u6240","boring_xml_url":47,"boring_view_url":1,"soilmap_view_url":null,"soiltest_xml_url":0,"soiltest_view_url":0},{"id":352990,"code":"NGIC202003351-0001","latitude":"35.498919555556","longitude":"137.17298575","source_code":"","project_name":"","survey_name":"\u4ee4\u548c2\u5e74\u5ea6\u65b0\u4e38\u5c71\u30c0\u30e0\u516b\u767e\u6d25\u5730\u533a\u5730\u8cea\u8abf\u67fb\u696d\u52d9","client_name":"\u56fd\u571f\u4ea4\u901a\u7701\u4e2d\u90e8\u5730\u65b9\u6574\u5099\u5c40\u65b0\u4e38\u5c71\u30c0\u30e0\u5de5\u4e8b\u4e8b\u52d9\u6240","boring_xml_url":47,"boring_view_url":1,"soilmap_view_url":null,"soiltest_xml_url":0,"soiltest_view_url":0},{"id":352974,"code":"NGIC202003329-0003","latitude":"42.386655555556","longitude":"140.00568611111","source_code":"","project_name":"\u56fd\u55b6\u7dca\u6025\u8fb2\u5730\u518d\u7de8\u6574\u5099\u4e8b\u696d","survey_name":"\u4ee4\u548c2\u5e74\u5ea6\u65bd\u884c\u4eca\u91d1\u5357\u5730\u533a\u5317\u516b\u675f\u7b2c1\u5de5\u533a\u533a\u753b\u6574\u7406\u8a2d\u8a08\u7b49\u696d\u52d9","client_name":"\u56fd\u571f\u4ea4\u901a\u7701\u5317\u6d77\u9053\u958b\u767a\u5c40\u51fd\u9928\u958b\u767a\u5efa\u8a2d\u90e8\u51fd\u9928\u8fb2\u696d\u4e8b\u52d9\u6240","boring_xml_url":47,"boring_view_url":1,"soilmap_view_url":null,"soiltest_xml_url":0,"soiltest_view_url":0},{"id":352973,"code":"NGIC202003329-0002","latitude":"42.404086111111","longitude":"140.00449166667","source_code":"","project_name":"\u56fd\u55b6\u7dca\u6025\u8fb2\u5730\u518d\u7de8\u6574\u5099\u4e8b\u696d","survey_name":"\u4ee4\u548c2\u5e74\u5ea6\u65bd\u884c\u4eca\u91d1\u5357\u5730\u533a\u5317\u516b\u675f\u7b2c1\u5de5\u533a\u533a\u753b\u6574\u7406\u8a2d\u8a08\u7b49\u696d\u52d9","client_name":"\u56fd\u571f\u4ea4\u901a\u7701\u5317\u6d77\u9053\u958b\u767a\u5c40\u51fd\u9928\u958b\u767a\u5efa\u8a2d\u90e8\u51fd\u9928\u8fb2\u696d\u4e8b\u52d9\u6240","boring_xml_url":47,"boring_view_url":1,"soilmap_view_url":null,"soiltest_xml_url":0,"soiltest_view_url":0},{"id":352972,"code":"NGIC202003329-0001","latitude":"42.407072222222","longitude":"140.00518888889","source_code":"","project_name":"\u56fd\u55b6\u7dca\u6025\u8fb2\u5730\u518d\u7de8\u6574\u5099\u4e8b\u696d","survey_name":"\u4ee4\u548c2\u5e74\u5ea6\u65bd\u884c\u4eca\u91d1\u5357\u5730\u533a\u5317\u516b\u675f\u7b2c1\u5de5\u533a\u533a\u753b\u6574\u7406\u8a2d\u8a08\u7b49\u696d\u52d9","client_name":"\u56fd\u571f\u4ea4\u901a\u7701\u5317\u6d77\u9053\u958b\u767a\u5c40\u51fd\u9928\u958b\u767a\u5efa\u8a2d\u90e8\u51fd\u9928\u8fb2\u696d\u4e8b\u52d9\u6240","boring_xml_url":47,"boring_view_url":1,"soilmap_view_url":null,"soiltest_xml_url":0,"soiltest_view_url":0},{"id":352942,"code":"NGIC202003284-0015","latitude":"35.606136111111","longitude":"135.09792111111","source_code":"","project_name":"","survey_name":"\u5927\u5bae\u5cf0\u5c71\u9053\u8def\u7b2c\u56db\u9ad8\u67b6\u6a4b\u4ed6\u5730\u8cea\u8abf\u67fb\u696d\u52d9","client_name":"\u56fd\u571f\u4ea4\u901a\u7701\u8fd1\u757f\u5730\u65b9\u6574\u5099\u5c40\u798f\u77e5\u5c71\u6cb3\u5ddd\u56fd\u9053\u4e8b\u52d9\u6240","boring_xml_url":47,"boring_view_url":1,"soilmap_view_url":null,"soiltest_xml_url":0,"soiltest_view_url":0}]}}