{"header":{"xyz":{"source":[],"mosaic":false},"page":2020,"raw":{"soiltest_result":"0","bbox":"57.598333,109.544722,1.933333,163.806111","page":"2020"},"conditions":{"soiltest_result":0,"north":57.598333,"west":109.544722,"south":1.933333,"east":163.806111},"success":true,"message":""},"data":{"meta":{"total":212844,"page":2020,"pages":7095,"count":30},"values":[{"id":352911,"code":"NGIC202003288-0007","latitude":"37.925155","longitude":"140.6891925","source_code":"","project_name":"","survey_name":"\u4ee4\u548c2\u5e74\u5ea6 \u4e38\u68ee\u5730\u533a\u5730\u8cea\u8abf\u67fb\u696d\u52d9\uff08\u305d\u306e2\uff09","client_name":"\u56fd\u571f\u4ea4\u901a\u7701\u6771\u5317\u5730\u65b9\u6574\u5099\u5c40\u5bae\u57ce\u5357\u90e8\u5fa9\u8208\u4e8b\u52d9\u6240","boring_xml_url":47,"boring_view_url":1,"soilmap_view_url":null,"soiltest_xml_url":0,"soiltest_view_url":0},{"id":352910,"code":"NGIC202003288-0006","latitude":"37.925108333333","longitude":"140.689075","source_code":"","project_name":"","survey_name":"\u4ee4\u548c2\u5e74\u5ea6 \u4e38\u68ee\u5730\u533a\u5730\u8cea\u8abf\u67fb\u696d\u52d9\uff08\u305d\u306e2\uff09","client_name":"\u56fd\u571f\u4ea4\u901a\u7701\u6771\u5317\u5730\u65b9\u6574\u5099\u5c40\u5bae\u57ce\u5357\u90e8\u5fa9\u8208\u4e8b\u52d9\u6240","boring_xml_url":47,"boring_view_url":1,"soilmap_view_url":null,"soiltest_xml_url":0,"soiltest_view_url":0},{"id":352909,"code":"NGIC202003288-0005","latitude":"37.924827777778","longitude":"140.6885","source_code":"","project_name":"","survey_name":"\u4ee4\u548c2\u5e74\u5ea6 \u4e38\u68ee\u5730\u533a\u5730\u8cea\u8abf\u67fb\u696d\u52d9\uff08\u305d\u306e2\uff09","client_name":"\u56fd\u571f\u4ea4\u901a\u7701\u6771\u5317\u5730\u65b9\u6574\u5099\u5c40\u5bae\u57ce\u5357\u90e8\u5fa9\u8208\u4e8b\u52d9\u6240","boring_xml_url":47,"boring_view_url":1,"soilmap_view_url":null,"soiltest_xml_url":0,"soiltest_view_url":0},{"id":352908,"code":"NGIC202003288-0004","latitude":"37.914197222222","longitude":"140.67384166667","source_code":"","project_name":"","survey_name":"\u4ee4\u548c2\u5e74\u5ea6 \u4e38\u68ee\u5730\u533a\u5730\u8cea\u8abf\u67fb\u696d\u52d9\uff08\u305d\u306e2\uff09","client_name":"\u56fd\u571f\u4ea4\u901a\u7701\u6771\u5317\u5730\u65b9\u6574\u5099\u5c40\u5bae\u57ce\u5357\u90e8\u5fa9\u8208\u4e8b\u52d9\u6240","boring_xml_url":47,"boring_view_url":1,"soilmap_view_url":null,"soiltest_xml_url":0,"soiltest_view_url":0},{"id":352907,"code":"NGIC202003288-0003","latitude":"37.913816666667","longitude":"140.67366388889","source_code":"","project_name":"","survey_name":"\u4ee4\u548c2\u5e74\u5ea6 \u4e38\u68ee\u5730\u533a\u5730\u8cea\u8abf\u67fb\u696d\u52d9\uff08\u305d\u306e2\uff09","client_name":"\u56fd\u571f\u4ea4\u901a\u7701\u6771\u5317\u5730\u65b9\u6574\u5099\u5c40\u5bae\u57ce\u5357\u90e8\u5fa9\u8208\u4e8b\u52d9\u6240","boring_xml_url":47,"boring_view_url":1,"soilmap_view_url":null,"soiltest_xml_url":0,"soiltest_view_url":0},{"id":352906,"code":"NGIC202003288-0002","latitude":"37.913816666667","longitude":"140.67335555556","source_code":"","project_name":"","survey_name":"\u4ee4\u548c2\u5e74\u5ea6 \u4e38\u68ee\u5730\u533a\u5730\u8cea\u8abf\u67fb\u696d\u52d9\uff08\u305d\u306e2\uff09","client_name":"\u56fd\u571f\u4ea4\u901a\u7701\u6771\u5317\u5730\u65b9\u6574\u5099\u5c40\u5bae\u57ce\u5357\u90e8\u5fa9\u8208\u4e8b\u52d9\u6240","boring_xml_url":47,"boring_view_url":1,"soilmap_view_url":null,"soiltest_xml_url":0,"soiltest_view_url":0},{"id":352905,"code":"NGIC202003288-0001","latitude":"37.913955555556","longitude":"140.67328611111","source_code":"","project_name":"","survey_name":"\u4ee4\u548c2\u5e74\u5ea6 \u4e38\u68ee\u5730\u533a\u5730\u8cea\u8abf\u67fb\u696d\u52d9\uff08\u305d\u306e2\uff09","client_name":"\u56fd\u571f\u4ea4\u901a\u7701\u6771\u5317\u5730\u65b9\u6574\u5099\u5c40\u5bae\u57ce\u5357\u90e8\u5fa9\u8208\u4e8b\u52d9\u6240","boring_xml_url":47,"boring_view_url":1,"soilmap_view_url":null,"soiltest_xml_url":0,"soiltest_view_url":0},{"id":352903,"code":"NGIC202003280-0008","latitude":"32.7716","longitude":"130.68091388889","source_code":"","project_name":"\u4ee4\u548c2\u5e74\u5ea6\u767d\u5ddd\u4e0b\u6d41\u5830\u6539\u7bc9\u5730\u8cea\u8abf\u67fb\uff08\u305d\u306e2\uff09\u696d\u52d9","survey_name":"\u4ee4\u548c2\u5e74\u5ea6\u767d\u5ddd\u4e0b\u6d41\u5830\u6539\u7bc9\u5730\u8cea\u8abf\u67fb\uff08\u305d\u306e2\uff09\u696d\u52d9","client_name":"\u56fd\u571f\u4ea4\u901a\u7701\u4e5d\u5dde\u5730\u65b9\u6574\u5099\u5c40\u718a\u672c\u6cb3\u5ddd\u56fd\u9053\u4e8b\u52d9\u6240","boring_xml_url":47,"boring_view_url":1,"soilmap_view_url":null,"soiltest_xml_url":0,"soiltest_view_url":0},{"id":352902,"code":"NGIC202003280-0007","latitude":"32.771258333333","longitude":"130.68072777778","source_code":"","project_name":"\u4ee4\u548c2\u5e74\u5ea6\u767d\u5ddd\u4e0b\u6d41\u5830\u6539\u7bc9\u5730\u8cea\u8abf\u67fb\uff08\u305d\u306e2\uff09\u696d\u52d9","survey_name":"\u4ee4\u548c2\u5e74\u5ea6\u767d\u5ddd\u4e0b\u6d41\u5830\u6539\u7bc9\u5730\u8cea\u8abf\u67fb\uff08\u305d\u306e2\uff09\u696d\u52d9","client_name":"\u56fd\u571f\u4ea4\u901a\u7701\u4e5d\u5dde\u5730\u65b9\u6574\u5099\u5c40\u718a\u672c\u6cb3\u5ddd\u56fd\u9053\u4e8b\u52d9\u6240","boring_xml_url":47,"boring_view_url":1,"soilmap_view_url":null,"soiltest_xml_url":0,"soiltest_view_url":0},{"id":352901,"code":"NGIC202003280-0006","latitude":"32.771383333333","longitude":"130.68146666667","source_code":"","project_name":"\u4ee4\u548c2\u5e74\u5ea6\u767d\u5ddd\u4e0b\u6d41\u5830\u6539\u7bc9\u5730\u8cea\u8abf\u67fb\uff08\u305d\u306e2\uff09\u696d\u52d9","survey_name":"\u4ee4\u548c2\u5e74\u5ea6\u767d\u5ddd\u4e0b\u6d41\u5830\u6539\u7bc9\u5730\u8cea\u8abf\u67fb\uff08\u305d\u306e2\uff09\u696d\u52d9","client_name":"\u56fd\u571f\u4ea4\u901a\u7701\u4e5d\u5dde\u5730\u65b9\u6574\u5099\u5c40\u718a\u672c\u6cb3\u5ddd\u56fd\u9053\u4e8b\u52d9\u6240","boring_xml_url":47,"boring_view_url":1,"soilmap_view_url":null,"soiltest_xml_url":0,"soiltest_view_url":0},{"id":352900,"code":"NGIC202003280-0005","latitude":"32.771041666667","longitude":"130.68128055556","source_code":"","project_name":"\u4ee4\u548c2\u5e74\u5ea6\u767d\u5ddd\u4e0b\u6d41\u5830\u6539\u7bc9\u5730\u8cea\u8abf\u67fb\uff08\u305d\u306e2\uff09\u696d\u52d9","survey_name":"\u4ee4\u548c2\u5e74\u5ea6\u767d\u5ddd\u4e0b\u6d41\u5830\u6539\u7bc9\u5730\u8cea\u8abf\u67fb\uff08\u305d\u306e2\uff09\u696d\u52d9","client_name":"\u56fd\u571f\u4ea4\u901a\u7701\u4e5d\u5dde\u5730\u65b9\u6574\u5099\u5c40\u718a\u672c\u6cb3\u5ddd\u56fd\u9053\u4e8b\u52d9\u6240","boring_xml_url":47,"boring_view_url":1,"soilmap_view_url":null,"soiltest_xml_url":0,"soiltest_view_url":0},{"id":352899,"code":"NGIC202003280-0004","latitude":"32.770608333333","longitude":"130.68121944444","source_code":"","project_name":"\u4ee4\u548c2\u5e74\u5ea6\u767d\u5ddd\u4e0b\u6d41\u5830\u6539\u7bc9\u5730\u8cea\u8abf\u67fb\uff08\u305d\u306e2\uff09\u696d\u52d9","survey_name":"\u4ee4\u548c2\u5e74\u5ea6\u767d\u5ddd\u4e0b\u6d41\u5830\u6539\u7bc9\u5730\u8cea\u8abf\u67fb\uff08\u305d\u306e2\uff09\u696d\u52d9","client_name":"\u56fd\u571f\u4ea4\u901a\u7701\u4e5d\u5dde\u5730\u65b9\u6574\u5099\u5c40\u718a\u672c\u6cb3\u5ddd\u56fd\u9053\u4e8b\u52d9\u6240","boring_xml_url":47,"boring_view_url":1,"soilmap_view_url":null,"soiltest_xml_url":0,"soiltest_view_url":0},{"id":352898,"code":"NGIC202003280-0003","latitude":"32.770775","longitude":"130.68088888889","source_code":"","project_name":"\u4ee4\u548c2\u5e74\u5ea6\u767d\u5ddd\u4e0b\u6d41\u5830\u6539\u7bc9\u5730\u8cea\u8abf\u67fb\uff08\u305d\u306e2\uff09\u696d\u52d9","survey_name":"\u4ee4\u548c2\u5e74\u5ea6\u767d\u5ddd\u4e0b\u6d41\u5830\u6539\u7bc9\u5730\u8cea\u8abf\u67fb\uff08\u305d\u306e2\uff09\u696d\u52d9","client_name":"\u56fd\u571f\u4ea4\u901a\u7701\u4e5d\u5dde\u5730\u65b9\u6574\u5099\u5c40\u718a\u672c\u6cb3\u5ddd\u56fd\u9053\u4e8b\u52d9\u6240","boring_xml_url":47,"boring_view_url":1,"soilmap_view_url":null,"soiltest_xml_url":47,"soiltest_view_url":47},{"id":352897,"code":"NGIC202003280-0002","latitude":"32.771008333333","longitude":"130.68029444444","source_code":"","project_name":"\u4ee4\u548c2\u5e74\u5ea6\u767d\u5ddd\u4e0b\u6d41\u5830\u6539\u7bc9\u5730\u8cea\u8abf\u67fb\uff08\u305d\u306e2\uff09\u696d\u52d9","survey_name":"\u4ee4\u548c2\u5e74\u5ea6\u767d\u5ddd\u4e0b\u6d41\u5830\u6539\u7bc9\u5730\u8cea\u8abf\u67fb\uff08\u305d\u306e2\uff09\u696d\u52d9","client_name":"\u56fd\u571f\u4ea4\u901a\u7701\u4e5d\u5dde\u5730\u65b9\u6574\u5099\u5c40\u718a\u672c\u6cb3\u5ddd\u56fd\u9053\u4e8b\u52d9\u6240","boring_xml_url":47,"boring_view_url":1,"soilmap_view_url":null,"soiltest_xml_url":0,"soiltest_view_url":0},{"id":352896,"code":"NGIC202003280-0001","latitude":"32.770577777778","longitude":"130.68063333333","source_code":"","project_name":"\u4ee4\u548c2\u5e74\u5ea6\u767d\u5ddd\u4e0b\u6d41\u5830\u6539\u7bc9\u5730\u8cea\u8abf\u67fb\uff08\u305d\u306e2\uff09\u696d\u52d9","survey_name":"\u4ee4\u548c2\u5e74\u5ea6\u767d\u5ddd\u4e0b\u6d41\u5830\u6539\u7bc9\u5730\u8cea\u8abf\u67fb\uff08\u305d\u306e2\uff09\u696d\u52d9","client_name":"\u56fd\u571f\u4ea4\u901a\u7701\u4e5d\u5dde\u5730\u65b9\u6574\u5099\u5c40\u718a\u672c\u6cb3\u5ddd\u56fd\u9053\u4e8b\u52d9\u6240","boring_xml_url":47,"boring_view_url":1,"soilmap_view_url":null,"soiltest_xml_url":0,"soiltest_view_url":0},{"id":352895,"code":"NGIC202003434-0004","latitude":"43.705002777778","longitude":"143.600875","source_code":"","project_name":"","survey_name":"\u7db2\u8d70\u958b\u767a\u5efa\u8a2d\u90e8\u7ba1\u5185\u5730\u8cea\u8abf\u67fb\u696d\u52d9","client_name":"\u56fd\u571f\u4ea4\u901a\u7701\u5317\u6d77\u9053\u958b\u767a\u5c40\u7db2\u8d70\u958b\u767a\u5efa\u8a2d\u90e8","boring_xml_url":47,"boring_view_url":1,"soilmap_view_url":null,"soiltest_xml_url":0,"soiltest_view_url":0},{"id":352894,"code":"NGIC202003434-0003","latitude":"43.705019444444","longitude":"143.60093611111","source_code":"","project_name":"","survey_name":"\u7db2\u8d70\u958b\u767a\u5efa\u8a2d\u90e8\u7ba1\u5185\u5730\u8cea\u8abf\u67fb\u696d\u52d9","client_name":"\u56fd\u571f\u4ea4\u901a\u7701\u5317\u6d77\u9053\u958b\u767a\u5c40\u7db2\u8d70\u958b\u767a\u5efa\u8a2d\u90e8","boring_xml_url":47,"boring_view_url":1,"soilmap_view_url":null,"soiltest_xml_url":47,"soiltest_view_url":47},{"id":352893,"code":"NGIC202003434-0002","latitude":"44.102336111111","longitude":"143.85254444444","source_code":"","project_name":"","survey_name":"\u7db2\u8d70\u958b\u767a\u5efa\u8a2d\u90e8\u7ba1\u5185\u5730\u8cea\u8abf\u67fb\u696d\u52d9","client_name":"\u56fd\u571f\u4ea4\u901a\u7701\u5317\u6d77\u9053\u958b\u767a\u5c40\u7db2\u8d70\u958b\u767a\u5efa\u8a2d\u90e8","boring_xml_url":47,"boring_view_url":1,"soilmap_view_url":null,"soiltest_xml_url":0,"soiltest_view_url":0},{"id":352892,"code":"NGIC202003434-0001","latitude":"44.120127777778","longitude":"144.10411944444","source_code":"","project_name":"","survey_name":"\u7db2\u8d70\u958b\u767a\u5efa\u8a2d\u90e8\u7ba1\u5185\u5730\u8cea\u8abf\u67fb\u696d\u52d9","client_name":"\u56fd\u571f\u4ea4\u901a\u7701\u5317\u6d77\u9053\u958b\u767a\u5c40\u7db2\u8d70\u958b\u767a\u5efa\u8a2d\u90e8","boring_xml_url":47,"boring_view_url":1,"soilmap_view_url":null,"soiltest_xml_url":0,"soiltest_view_url":0},{"id":352885,"code":"NGIC202003265-0001","latitude":"34.639154638889","longitude":"133.97598519444","source_code":"","project_name":"","survey_name":"\u4ee4\u548c2\u5e74\u5ea6\u5ca1\u5c71\u56fd\u9053\u4ea4\u5b89\u6e2c\u91cf\u8a2d\u8a08\u305d\u306e2\u696d\u52d9","client_name":"\u56fd\u571f\u4ea4\u901a\u7701\u4e2d\u56fd\u5730\u65b9\u6574\u5099\u5c40\u5ca1\u5c71\u56fd\u9053\u4e8b\u52d9\u6240\u3000\u4ea4\u901a\u5bfe\u7b56\u8ab2","boring_xml_url":47,"boring_view_url":1,"soilmap_view_url":null,"soiltest_xml_url":47,"soiltest_view_url":47},{"id":352864,"code":"NGIC202003298-0003","latitude":"37.798188888889","longitude":"140.37927222222","source_code":"","project_name":"\u4ee4\u548c2\u5e74\u5ea6\u963f\u6b66\u9688\u5ddd\u6c34\u7cfb\u6817\u5b50\u6ca2\u7802\u9632\u5830\u5824\u7b49\u8a2d\u8a08\u696d\u52d9","survey_name":"\u4ee4\u548c2\u5e74\u5ea6\u963f\u6b66\u9688\u5ddd\u6c34\u7cfb\u6817\u5b50\u6ca2\u7802\u9632\u5830\u5824\u7b49\u8a2d\u8a08\u696d\u52d9","client_name":"\u56fd\u571f\u4ea4\u901a\u7701\u6771\u5317\u5730\u65b9\u6574\u5099\u5c40\u798f\u5cf6\u6cb3\u5ddd\u56fd\u9053\u4e8b\u52d9\u6240","boring_xml_url":47,"boring_view_url":1,"soilmap_view_url":null,"soiltest_xml_url":0,"soiltest_view_url":0},{"id":352863,"code":"NGIC202003298-0002","latitude":"37.798236111111","longitude":"140.379","source_code":"","project_name":"\u4ee4\u548c2\u5e74\u5ea6\u963f\u6b66\u9688\u5ddd\u6c34\u7cfb\u6817\u5b50\u6ca2\u7802\u9632\u5830\u5824\u7b49\u8a2d\u8a08\u696d\u52d9","survey_name":"\u4ee4\u548c2\u5e74\u5ea6\u963f\u6b66\u9688\u5ddd\u6c34\u7cfb\u6817\u5b50\u6ca2\u7802\u9632\u5830\u5824\u7b49\u8a2d\u8a08\u696d\u52d9","client_name":"\u56fd\u571f\u4ea4\u901a\u7701\u6771\u5317\u5730\u65b9\u6574\u5099\u5c40\u798f\u5cf6\u6cb3\u5ddd\u56fd\u9053\u4e8b\u52d9\u6240","boring_xml_url":47,"boring_view_url":1,"soilmap_view_url":null,"soiltest_xml_url":0,"soiltest_view_url":0},{"id":352862,"code":"NGIC202003298-0001","latitude":"37.798330555556","longitude":"140.37846944444","source_code":"","project_name":"\u4ee4\u548c2\u5e74\u5ea6\u963f\u6b66\u9688\u5ddd\u6c34\u7cfb\u6817\u5b50\u6ca2\u7802\u9632\u5830\u5824\u7b49\u8a2d\u8a08\u696d\u52d9","survey_name":"\u4ee4\u548c2\u5e74\u5ea6\u963f\u6b66\u9688\u5ddd\u6c34\u7cfb\u6817\u5b50\u6ca2\u7802\u9632\u5830\u5824\u7b49\u8a2d\u8a08\u696d\u52d9","client_name":"\u56fd\u571f\u4ea4\u901a\u7701\u6771\u5317\u5730\u65b9\u6574\u5099\u5c40\u798f\u5cf6\u6cb3\u5ddd\u56fd\u9053\u4e8b\u52d9\u6240","boring_xml_url":47,"boring_view_url":1,"soilmap_view_url":null,"soiltest_xml_url":0,"soiltest_view_url":0},{"id":352861,"code":"NGIC202003235-0001","latitude":"42.783944444444","longitude":"143.04952777778","source_code":"","project_name":"\u56fd\u55b6\u304b\u3093\u304c\u3044\u6392\u6c34\u4e8b\u696d\u82bd\u5ba4\u5ddd\u897f\u5730\u533a","survey_name":"\u4ee4\u548c2\u5e74\u5ea6\u65bd\u884c \u82bd\u5ba4\u5ddd\u897f\u5730\u533a\u7a32\u7530\u5e79\u7dda\u7528\u6c34\u8def\u4e0a\u5e2f\u5e8318\u53f7\u5de5\u533a\u5b9f\u65bd\u8a2d\u8a08\u7b49\u696d\u52d9","client_name":"\u56fd\u571f\u4ea4\u901a\u7701\u5317\u6d77\u9053\u958b\u767a\u5c40\u5e2f\u5e83\u958b\u767a\u5efa\u8a2d\u90e8\u5e2f\u5e83\u8fb2\u696d\u4e8b\u52d9\u6240","boring_xml_url":47,"boring_view_url":1,"soilmap_view_url":null,"soiltest_xml_url":47,"soiltest_view_url":47},{"id":352858,"code":"NGIC202003295-0004","latitude":"35.099097222222","longitude":"137.13558055556","source_code":"","project_name":"\u4ee4\u548c2\u5e74\u5ea6\u540d\u56db\u56fd\u9053\u8c4a\u7530\u30d0\u30a4\u30d1\u30b9\u6574\u5099\u5de5\u4e8b","survey_name":"\u4ee4\u548c2\u5e74\u5ea6\u540d\u56db\u56fd\u9053\u8c4a\u7530\u30d0\u30a4\u30d1\u30b9\u6574\u5099\u5de5\u4e8b\u306b\u4f34\u3046\u5730\u8cea\u8abf\u67fb","client_name":"\u56fd\u571f\u4ea4\u901a\u7701\u4e2d\u90e8\u5730\u65b9\u6574\u5099\u5c40\u540d\u56db\u56fd\u9053\u4e8b\u52d9\u6240","boring_xml_url":47,"boring_view_url":1,"soilmap_view_url":null,"soiltest_xml_url":0,"soiltest_view_url":0},{"id":352857,"code":"NGIC202003295-0003","latitude":"35.098208333333","longitude":"137.134375","source_code":"","project_name":"\u4ee4\u548c2\u5e74\u5ea6\u540d\u56db\u56fd\u9053\u8c4a\u7530\u30d0\u30a4\u30d1\u30b9\u6574\u5099\u5de5\u4e8b","survey_name":"\u4ee4\u548c2\u5e74\u5ea6\u540d\u56db\u56fd\u9053\u8c4a\u7530\u30d0\u30a4\u30d1\u30b9\u6574\u5099\u5de5\u4e8b\u306b\u4f34\u3046\u5730\u8cea\u8abf\u67fb","client_name":"\u56fd\u571f\u4ea4\u901a\u7701\u4e2d\u90e8\u5730\u65b9\u6574\u5099\u5c40\u540d\u56db\u56fd\u9053\u4e8b\u52d9\u6240","boring_xml_url":47,"boring_view_url":1,"soilmap_view_url":null,"soiltest_xml_url":0,"soiltest_view_url":0},{"id":352856,"code":"NGIC202003295-0002","latitude":"35.097291666667","longitude":"137.13334166667","source_code":"","project_name":"\u4ee4\u548c2\u5e74\u5ea6\u540d\u56db\u56fd\u9053\u8c4a\u7530\u30d0\u30a4\u30d1\u30b9\u6574\u5099\u5de5\u4e8b","survey_name":"\u4ee4\u548c2\u5e74\u5ea6\u540d\u56db\u56fd\u9053\u8c4a\u7530\u30d0\u30a4\u30d1\u30b9\u6574\u5099\u5de5\u4e8b\u306b\u4f34\u3046\u5730\u8cea\u8abf\u67fb","client_name":"\u56fd\u571f\u4ea4\u901a\u7701\u4e2d\u90e8\u5730\u65b9\u6574\u5099\u5c40\u540d\u56db\u56fd\u9053\u4e8b\u52d9\u6240","boring_xml_url":47,"boring_view_url":1,"soilmap_view_url":null,"soiltest_xml_url":0,"soiltest_view_url":0},{"id":352855,"code":"NGIC202003295-0001","latitude":"35.096130555556","longitude":"137.13290277778","source_code":"","project_name":"\u4ee4\u548c2\u5e74\u5ea6\u540d\u56db\u56fd\u9053\u8c4a\u7530\u30d0\u30a4\u30d1\u30b9\u6574\u5099\u5de5\u4e8b","survey_name":"\u4ee4\u548c2\u5e74\u5ea6\u540d\u56db\u56fd\u9053\u8c4a\u7530\u30d0\u30a4\u30d1\u30b9\u6574\u5099\u5de5\u4e8b\u306b\u4f34\u3046\u5730\u8cea\u8abf\u67fb","client_name":"\u56fd\u571f\u4ea4\u901a\u7701\u4e2d\u90e8\u5730\u65b9\u6574\u5099\u5c40\u540d\u56db\u56fd\u9053\u4e8b\u52d9\u6240","boring_xml_url":47,"boring_view_url":1,"soilmap_view_url":null,"soiltest_xml_url":0,"soiltest_view_url":0},{"id":352854,"code":"NGIC202003290-0002","latitude":"43.812147222222","longitude":"143.89835277778","source_code":"","project_name":"\u5317\u898b\u7a0e\u52d9\u7f7220\u6577\u5730\u8abf\u67fb","survey_name":"\u5317\u898b\u7a0e\u52d9\u7f7220\u6577\u5730\u8abf\u67fb","client_name":"\u56fd\u571f\u4ea4\u901a\u7701\u5317\u6d77\u9053\u958b\u767a\u5c40\u55b6\u7e55\u90e8","boring_xml_url":47,"boring_view_url":1,"soilmap_view_url":null,"soiltest_xml_url":47,"soiltest_view_url":47},{"id":352853,"code":"NGIC202003290-0001","latitude":"43.812108333333","longitude":"143.89884722222","source_code":"","project_name":"\u5317\u898b\u7a0e\u52d9\u7f7220\u6577\u5730\u8abf\u67fb","survey_name":"\u5317\u898b\u7a0e\u52d9\u7f7220\u6577\u5730\u8abf\u67fb","client_name":"\u56fd\u571f\u4ea4\u901a\u7701\u5317\u6d77\u9053\u958b\u767a\u5c40\u55b6\u7e55\u90e8","boring_xml_url":47,"boring_view_url":1,"soilmap_view_url":null,"soiltest_xml_url":47,"soiltest_view_url":47}]}}