{"header":{"xyz":{"source":[],"mosaic":false},"page":2026,"raw":{"soiltest_result":"0","bbox":"57.598333,109.544722,1.933333,163.806111","page":"2026"},"conditions":{"soiltest_result":0,"north":57.598333,"west":109.544722,"south":1.933333,"east":163.806111},"success":true,"message":""},"data":{"meta":{"total":212844,"page":2026,"pages":7095,"count":30},"values":[{"id":352564,"code":"NGIC202003237-0004","latitude":"35.293861111111","longitude":"138.65956666667","source_code":"","project_name":"\u5bcc\u58eb\u5c71\u5357\u9e93\u5730\u533a","survey_name":"\u4ee4\u548c\u5143\u5e74\u5ea6 \u5bcc\u58eb\u5c71\u5357\u9e93\u5730\u533a\u5730\u8cea\u8abf\u67fb\u696d\u52d9","client_name":"\u56fd\u571f\u4ea4\u901a\u7701\u4e2d\u90e8\u5730\u65b9\u6574\u5099\u5c40\u5bcc\u58eb\u7802\u9632\u4e8b\u52d9\u6240","boring_xml_url":47,"boring_view_url":1,"soilmap_view_url":null,"soiltest_xml_url":0,"soiltest_view_url":0},{"id":352563,"code":"NGIC202003237-0003","latitude":"35.294072222222","longitude":"138.66031111111","source_code":"","project_name":"\u5bcc\u58eb\u5c71\u5357\u9e93\u5730\u533a","survey_name":"\u4ee4\u548c\u5143\u5e74\u5ea6 \u5bcc\u58eb\u5c71\u5357\u9e93\u5730\u533a\u5730\u8cea\u8abf\u67fb\u696d\u52d9","client_name":"\u56fd\u571f\u4ea4\u901a\u7701\u4e2d\u90e8\u5730\u65b9\u6574\u5099\u5c40\u5bcc\u58eb\u7802\u9632\u4e8b\u52d9\u6240","boring_xml_url":47,"boring_view_url":1,"soilmap_view_url":null,"soiltest_xml_url":0,"soiltest_view_url":0},{"id":352562,"code":"NGIC202003237-0002","latitude":"35.294094444444","longitude":"138.65958055556","source_code":"","project_name":"\u5bcc\u58eb\u5c71\u5357\u9e93\u5730\u533a","survey_name":"\u4ee4\u548c\u5143\u5e74\u5ea6 \u5bcc\u58eb\u5c71\u5357\u9e93\u5730\u533a\u5730\u8cea\u8abf\u67fb\u696d\u52d9","client_name":"\u56fd\u571f\u4ea4\u901a\u7701\u4e2d\u90e8\u5730\u65b9\u6574\u5099\u5c40\u5bcc\u58eb\u7802\u9632\u4e8b\u52d9\u6240","boring_xml_url":47,"boring_view_url":1,"soilmap_view_url":null,"soiltest_xml_url":0,"soiltest_view_url":0},{"id":352561,"code":"NGIC202003237-0001","latitude":"35.294127777778","longitude":"138.65885","source_code":"","project_name":"\u5bcc\u58eb\u5c71\u5357\u9e93\u5730\u533a","survey_name":"\u4ee4\u548c\u5143\u5e74\u5ea6 \u5bcc\u58eb\u5c71\u5357\u9e93\u5730\u533a\u5730\u8cea\u8abf\u67fb\u696d\u52d9","client_name":"\u56fd\u571f\u4ea4\u901a\u7701\u4e2d\u90e8\u5730\u65b9\u6574\u5099\u5c40\u5bcc\u58eb\u7802\u9632\u4e8b\u52d9\u6240","boring_xml_url":47,"boring_view_url":1,"soilmap_view_url":null,"soiltest_xml_url":0,"soiltest_view_url":0},{"id":352541,"code":"NGIC202003243-0015","latitude":"34.481803055556","longitude":"136.709835","source_code":"","project_name":"\u52e2\u7530\u5ddd\u63a7\u5f0f\u92fc\u77e2\u677f\u58c1\u7167\u67fb","survey_name":"\u4ee4\u548c\u5143\u5e74\u5ea6 \u4e09\u91cd\u6cb3\u5ddd\u5730\u8cea\u8abf\u67fb\u696d\u52d9","client_name":"\u56fd\u571f\u4ea4\u901a\u7701\u4e2d\u90e8\u5730\u65b9\u6574\u5099\u5c40\u4e09\u91cd\u6cb3\u5ddd\u56fd\u9053\u4e8b\u52d9\u6240","boring_xml_url":47,"boring_view_url":1,"soilmap_view_url":null,"soiltest_xml_url":47,"soiltest_view_url":47},{"id":352540,"code":"NGIC202003243-0014","latitude":"34.485555833333","longitude":"136.71473861111","source_code":"","project_name":"\u52e2\u7530\u5ddd\u63a7\u5f0f\u92fc\u77e2\u677f\u58c1\u7167\u67fb","survey_name":"\u4ee4\u548c\u5143\u5e74\u5ea6 \u4e09\u91cd\u6cb3\u5ddd\u5730\u8cea\u8abf\u67fb\u696d\u52d9","client_name":"\u56fd\u571f\u4ea4\u901a\u7701\u4e2d\u90e8\u5730\u65b9\u6574\u5099\u5c40\u4e09\u91cd\u6cb3\u5ddd\u56fd\u9053\u4e8b\u52d9\u6240","boring_xml_url":47,"boring_view_url":1,"soilmap_view_url":null,"soiltest_xml_url":0,"soiltest_view_url":0},{"id":352539,"code":"NGIC202003243-0013","latitude":"34.557238888889","longitude":"136.59886","source_code":"","project_name":"\u6adb\u7530\u5ddd\u6d78\u900f\u5bfe\u7b56\u8a2d\u8a08","survey_name":"\u4ee4\u548c\u5143\u5e74\u5ea6 \u4e09\u91cd\u6cb3\u5ddd\u5730\u8cea\u8abf\u67fb\u696d\u52d9","client_name":"\u56fd\u571f\u4ea4\u901a\u7701\u4e2d\u90e8\u5730\u65b9\u6574\u5099\u5c40\u4e09\u91cd\u6cb3\u5ddd\u56fd\u9053\u4e8b\u52d9\u6240","boring_xml_url":47,"boring_view_url":1,"soilmap_view_url":null,"soiltest_xml_url":47,"soiltest_view_url":47},{"id":352538,"code":"NGIC202003243-0012","latitude":"34.557295833333","longitude":"136.59913277778","source_code":"","project_name":"\u6adb\u7530\u5ddd\u6d78\u900f\u5bfe\u7b56\u8a2d\u8a08","survey_name":"\u4ee4\u548c\u5143\u5e74\u5ea6 \u4e09\u91cd\u6cb3\u5ddd\u5730\u8cea\u8abf\u67fb\u696d\u52d9","client_name":"\u56fd\u571f\u4ea4\u901a\u7701\u4e2d\u90e8\u5730\u65b9\u6574\u5099\u5c40\u4e09\u91cd\u6cb3\u5ddd\u56fd\u9053\u4e8b\u52d9\u6240","boring_xml_url":47,"boring_view_url":1,"soilmap_view_url":null,"soiltest_xml_url":47,"soiltest_view_url":47},{"id":352537,"code":"NGIC202003243-0011","latitude":"34.557160277778","longitude":"136.59853305556","source_code":"","project_name":"\u6adb\u7530\u5ddd\u6d78\u900f\u5bfe\u7b56\u8a2d\u8a08","survey_name":"\u4ee4\u548c\u5143\u5e74\u5ea6 \u4e09\u91cd\u6cb3\u5ddd\u5730\u8cea\u8abf\u67fb\u696d\u52d9","client_name":"\u56fd\u571f\u4ea4\u901a\u7701\u4e2d\u90e8\u5730\u65b9\u6574\u5099\u5c40\u4e09\u91cd\u6cb3\u5ddd\u56fd\u9053\u4e8b\u52d9\u6240","boring_xml_url":47,"boring_view_url":1,"soilmap_view_url":null,"soiltest_xml_url":47,"soiltest_view_url":47},{"id":352536,"code":"NGIC202003243-0010","latitude":"34.593372777778","longitude":"136.57860111111","source_code":"","project_name":"\u6adb\u7530\u5ddd\u897f\u9ed2\u90e8\u707d\u5bb3\u5fa9\u65e7\u5de5\u4e8b","survey_name":"\u4ee4\u548c\u5143\u5e74\u5ea6 \u4e09\u91cd\u6cb3\u5ddd\u5730\u8cea\u8abf\u67fb\u696d\u52d9","client_name":"\u56fd\u571f\u4ea4\u901a\u7701\u4e2d\u90e8\u5730\u65b9\u6574\u5099\u5c40\u4e09\u91cd\u6cb3\u5ddd\u56fd\u9053\u4e8b\u52d9\u6240","boring_xml_url":47,"boring_view_url":1,"soilmap_view_url":null,"soiltest_xml_url":0,"soiltest_view_url":0},{"id":352535,"code":"NGIC202003243-0009","latitude":"34.640536111111","longitude":"136.47548638889","source_code":"","project_name":"\u4e2d\u6751\u5ddd\u8b77\u5cb8\u6574\u5099\u5de5\u4e8b","survey_name":"\u4ee4\u548c\u5143\u5e74\u5ea6 \u4e09\u91cd\u6cb3\u5ddd\u5730\u8cea\u8abf\u67fb\u696d\u52d9","client_name":"\u56fd\u571f\u4ea4\u901a\u7701\u4e2d\u90e8\u5730\u65b9\u6574\u5099\u5c40\u4e09\u91cd\u6cb3\u5ddd\u56fd\u9053\u4e8b\u52d9\u6240","boring_xml_url":47,"boring_view_url":1,"soilmap_view_url":null,"soiltest_xml_url":0,"soiltest_view_url":0},{"id":352534,"code":"NGIC202003243-0008","latitude":"34.637721111111","longitude":"136.47251","source_code":"","project_name":"\u4e2d\u6751\u5ddd\u8b77\u5cb8\u6574\u5099\u8a2d\u8a08","survey_name":"\u4ee4\u548c\u5143\u5e74\u5ea6 \u4e09\u91cd\u6cb3\u5ddd\u5730\u8cea\u8abf\u67fb\u696d\u52d9","client_name":"\u56fd\u571f\u4ea4\u901a\u7701\u4e2d\u90e8\u5730\u65b9\u6574\u5099\u5c40\u4e09\u91cd\u6cb3\u5ddd\u56fd\u9053\u4e8b\u52d9\u6240","boring_xml_url":47,"boring_view_url":1,"soilmap_view_url":null,"soiltest_xml_url":0,"soiltest_view_url":0},{"id":352533,"code":"NGIC202003243-0007","latitude":"34.6382575","longitude":"136.47208833333","source_code":"","project_name":"\u4e2d\u6751\u5ddd\u8b77\u5cb8\u6574\u5099\u8a2d\u8a08","survey_name":"\u4ee4\u548c\u5143\u5e74\u5ea6 \u4e09\u91cd\u6cb3\u5ddd\u5730\u8cea\u8abf\u67fb\u696d\u52d9","client_name":"\u56fd\u571f\u4ea4\u901a\u7701\u4e2d\u90e8\u5730\u65b9\u6574\u5099\u5c40\u4e09\u91cd\u6cb3\u5ddd\u56fd\u9053\u4e8b\u52d9\u6240","boring_xml_url":47,"boring_view_url":1,"soilmap_view_url":null,"soiltest_xml_url":0,"soiltest_view_url":0},{"id":352532,"code":"NGIC202003243-0006","latitude":"34.913180555556","longitude":"136.63449444444","source_code":"","project_name":"\u9234\u9e7f\u5ddd\u6d3e\u5ddd\u5730\u4e0b\u6c34\u30e2\u30cb\u30bf\u30ea\u30f3\u30b0","survey_name":"\u4ee4\u548c\u5143\u5e74\u5ea6 \u4e09\u91cd\u6cb3\u5ddd\u5730\u8cea\u8abf\u67fb\u696d\u52d9","client_name":"\u56fd\u571f\u4ea4\u901a\u7701\u4e2d\u90e8\u5730\u65b9\u6574\u5099\u5c40\u4e09\u91cd\u6cb3\u5ddd\u56fd\u9053\u4e8b\u52d9\u6240","boring_xml_url":47,"boring_view_url":1,"soilmap_view_url":null,"soiltest_xml_url":47,"soiltest_view_url":47},{"id":352531,"code":"NGIC202003243-0005","latitude":"34.875753888889","longitude":"136.5145625","source_code":"","project_name":"\u9234\u9e7f\u5ddd\u4e0a\u6c34\u9053\u6c34\u7ba1\u6a4b\u4e0b\u90e8\u64a4\u53bb\u5de5\u4e8b","survey_name":"\u4ee4\u548c\u5143\u5e74\u5ea6 \u4e09\u91cd\u6cb3\u5ddd\u5730\u8cea\u8abf\u67fb\u696d\u52d9","client_name":"\u56fd\u571f\u4ea4\u901a\u7701\u4e2d\u90e8\u5730\u65b9\u6574\u5099\u5c40\u4e09\u91cd\u6cb3\u5ddd\u56fd\u9053\u4e8b\u52d9\u6240","boring_xml_url":47,"boring_view_url":1,"soilmap_view_url":null,"soiltest_xml_url":0,"soiltest_view_url":0},{"id":352530,"code":"NGIC202003243-0004","latitude":"34.925766944444","longitude":"136.61860722222","source_code":"","project_name":"\u9234\u9e7f\u5ddd\u6d78\u900f\u5bfe\u7b56\u8a2d\u8a08","survey_name":"\u4ee4\u548c\u5143\u5e74\u5ea6 \u4e09\u91cd\u6cb3\u5ddd\u5730\u8cea\u8abf\u67fb\u696d\u52d9","client_name":"\u56fd\u571f\u4ea4\u901a\u7701\u4e2d\u90e8\u5730\u65b9\u6574\u5099\u5c40\u4e09\u91cd\u6cb3\u5ddd\u56fd\u9053\u4e8b\u52d9\u6240","boring_xml_url":47,"boring_view_url":1,"soilmap_view_url":null,"soiltest_xml_url":47,"soiltest_view_url":47},{"id":352529,"code":"NGIC202003243-0003","latitude":"34.926234444444","longitude":"136.62090333333","source_code":"","project_name":"\u9234\u9e7f\u5ddd\u6d78\u900f\u5bfe\u7b56\u8a2d\u8a08","survey_name":"\u4ee4\u548c\u5143\u5e74\u5ea6 \u4e09\u91cd\u6cb3\u5ddd\u5730\u8cea\u8abf\u67fb\u696d\u52d9","client_name":"\u56fd\u571f\u4ea4\u901a\u7701\u4e2d\u90e8\u5730\u65b9\u6574\u5099\u5c40\u4e09\u91cd\u6cb3\u5ddd\u56fd\u9053\u4e8b\u52d9\u6240","boring_xml_url":47,"boring_view_url":1,"soilmap_view_url":null,"soiltest_xml_url":47,"soiltest_view_url":47},{"id":352528,"code":"NGIC202003243-0002","latitude":"34.926346111111","longitude":"136.62087861111","source_code":"","project_name":"\u9234\u9e7f\u5ddd\u6d78\u900f\u5bfe\u7b56\u8a2d\u8a08","survey_name":"\u4ee4\u548c\u5143\u5e74\u5ea6 \u4e09\u91cd\u6cb3\u5ddd\u5730\u8cea\u8abf\u67fb\u696d\u52d9","client_name":"\u56fd\u571f\u4ea4\u901a\u7701\u4e2d\u90e8\u5730\u65b9\u6574\u5099\u5c40\u4e09\u91cd\u6cb3\u5ddd\u56fd\u9053\u4e8b\u52d9\u6240","boring_xml_url":47,"boring_view_url":1,"soilmap_view_url":null,"soiltest_xml_url":47,"soiltest_view_url":47},{"id":352527,"code":"NGIC202003243-0001","latitude":"34.926078333333","longitude":"136.62093861111","source_code":"","project_name":"\u9234\u9e7f\u5ddd\u6d78\u900f\u5bfe\u7b56\u8a2d\u8a08","survey_name":"\u4ee4\u548c\u5143\u5e74\u5ea6 \u4e09\u91cd\u6cb3\u5ddd\u5730\u8cea\u8abf\u67fb\u696d\u52d9","client_name":"\u56fd\u571f\u4ea4\u901a\u7701\u4e2d\u90e8\u5730\u65b9\u6574\u5099\u5c40\u4e09\u91cd\u6cb3\u5ddd\u56fd\u9053\u4e8b\u52d9\u6240","boring_xml_url":47,"boring_view_url":1,"soilmap_view_url":null,"soiltest_xml_url":47,"soiltest_view_url":47},{"id":352517,"code":"NGIC202003227-0003","latitude":"40.041391666667","longitude":"141.86709166667","source_code":"","project_name":"","survey_name":"\u4e09\u9678\u5317\u5730\u533a\u6c34\u6587\u8abf\u67fb","client_name":"\u56fd\u571f\u4ea4\u901a\u7701\u6771\u5317\u5730\u65b9\u6574\u5099\u5c40\u4e09\u9678\u56fd\u9053\u4e8b\u52d9\u6240","boring_xml_url":47,"boring_view_url":1,"soilmap_view_url":null,"soiltest_xml_url":0,"soiltest_view_url":0},{"id":352516,"code":"NGIC202003227-0002","latitude":"40.040769444444","longitude":"141.86809722222","source_code":"","project_name":"","survey_name":"\u4e09\u9678\u5317\u5730\u533a\u6c34\u6587\u8abf\u67fb","client_name":"\u56fd\u571f\u4ea4\u901a\u7701\u6771\u5317\u5730\u65b9\u6574\u5099\u5c40\u4e09\u9678\u56fd\u9053\u4e8b\u52d9\u6240","boring_xml_url":47,"boring_view_url":1,"soilmap_view_url":null,"soiltest_xml_url":0,"soiltest_view_url":0},{"id":352515,"code":"NGIC202003227-0001","latitude":"40.040683333333","longitude":"141.86801666667","source_code":"","project_name":"","survey_name":"\u4e09\u9678\u5317\u5730\u533a\u6c34\u6587\u8abf\u67fb","client_name":"\u56fd\u571f\u4ea4\u901a\u7701\u6771\u5317\u5730\u65b9\u6574\u5099\u5c40\u4e09\u9678\u56fd\u9053\u4e8b\u52d9\u6240","boring_xml_url":47,"boring_view_url":1,"soilmap_view_url":null,"soiltest_xml_url":0,"soiltest_view_url":0},{"id":352511,"code":"NGIC202003198-0014","latitude":"33.015717055556","longitude":"132.98945569444","source_code":"","project_name":"\n      ","survey_name":"\u4ee4\u548c2\u5e74\u5ea6\u7530\u30ce\u53e3\u30c8\u30f3\u30cd\u30eb\u5916\u5730\u8cea\u8abf\u67fb\u696d\u52d9","client_name":"\u56fd\u571f\u4ea4\u901a\u7701\u56db\u56fd\u5730\u65b9\u6574\u5099\u5c40\u4e2d\u6751\u6cb3\u5ddd\u56fd\u9053\u4e8b\u52d9\u6240","boring_xml_url":47,"boring_view_url":1,"soilmap_view_url":null,"soiltest_xml_url":0,"soiltest_view_url":0},{"id":352510,"code":"NGIC202003198-0013","latitude":"33.016004027778","longitude":"132.99043733333","source_code":"","project_name":"\n      ","survey_name":"\u4ee4\u548c2\u5e74\u5ea6\u7530\u30ce\u53e3\u30c8\u30f3\u30cd\u30eb\u5916\u5730\u8cea\u8abf\u67fb\u696d\u52d9","client_name":"\u56fd\u571f\u4ea4\u901a\u7701\u56db\u56fd\u5730\u65b9\u6574\u5099\u5c40\u4e2d\u6751\u6cb3\u5ddd\u56fd\u9053\u4e8b\u52d9\u6240","boring_xml_url":47,"boring_view_url":1,"soilmap_view_url":null,"soiltest_xml_url":0,"soiltest_view_url":0},{"id":352509,"code":"NGIC202003198-0012","latitude":"33.020389694444","longitude":"132.99666502778","source_code":"","project_name":"\n      ","survey_name":"\u4ee4\u548c2\u5e74\u5ea6\u7530\u30ce\u53e3\u30c8\u30f3\u30cd\u30eb\u5916\u5730\u8cea\u8abf\u67fb\u696d\u52d9","client_name":"\u56fd\u571f\u4ea4\u901a\u7701\u56db\u56fd\u5730\u65b9\u6574\u5099\u5c40\u4e2d\u6751\u6cb3\u5ddd\u56fd\u9053\u4e8b\u52d9\u6240","boring_xml_url":47,"boring_view_url":1,"soilmap_view_url":null,"soiltest_xml_url":0,"soiltest_view_url":0},{"id":352508,"code":"NGIC202003198-0011","latitude":"33.020664555556","longitude":"132.99816019444","source_code":"","project_name":"\n      ","survey_name":"\u4ee4\u548c2\u5e74\u5ea6\u7530\u30ce\u53e3\u30c8\u30f3\u30cd\u30eb\u5916\u5730\u8cea\u8abf\u67fb\u696d\u52d9","client_name":"\u56fd\u571f\u4ea4\u901a\u7701\u56db\u56fd\u5730\u65b9\u6574\u5099\u5c40\u4e2d\u6751\u6cb3\u5ddd\u56fd\u9053\u4e8b\u52d9\u6240","boring_xml_url":47,"boring_view_url":1,"soilmap_view_url":null,"soiltest_xml_url":0,"soiltest_view_url":0},{"id":352507,"code":"NGIC202003198-0010","latitude":"33.021034277778","longitude":"132.99772680556","source_code":"","project_name":"\n      ","survey_name":"\u4ee4\u548c2\u5e74\u5ea6\u7530\u30ce\u53e3\u30c8\u30f3\u30cd\u30eb\u5916\u5730\u8cea\u8abf\u67fb\u696d\u52d9","client_name":"\u56fd\u571f\u4ea4\u901a\u7701\u56db\u56fd\u5730\u65b9\u6574\u5099\u5c40\u4e2d\u6751\u6cb3\u5ddd\u56fd\u9053\u4e8b\u52d9\u6240","boring_xml_url":47,"boring_view_url":1,"soilmap_view_url":null,"soiltest_xml_url":0,"soiltest_view_url":0},{"id":352506,"code":"NGIC202003198-0009","latitude":"33.021338472222","longitude":"132.99933791667","source_code":"","project_name":"\n      ","survey_name":"\u4ee4\u548c2\u5e74\u5ea6\u7530\u30ce\u53e3\u30c8\u30f3\u30cd\u30eb\u5916\u5730\u8cea\u8abf\u67fb\u696d\u52d9","client_name":"\u56fd\u571f\u4ea4\u901a\u7701\u56db\u56fd\u5730\u65b9\u6574\u5099\u5c40\u4e2d\u6751\u6cb3\u5ddd\u56fd\u9053\u4e8b\u52d9\u6240","boring_xml_url":47,"boring_view_url":1,"soilmap_view_url":null,"soiltest_xml_url":0,"soiltest_view_url":0},{"id":352505,"code":"NGIC202003198-0008","latitude":"33.015423277778","longitude":"132.98981836111","source_code":"","project_name":"\n      ","survey_name":"\u4ee4\u548c2\u5e74\u5ea6\u7530\u30ce\u53e3\u30c8\u30f3\u30cd\u30eb\u5916\u5730\u8cea\u8abf\u67fb\u696d\u52d9","client_name":"\u56fd\u571f\u4ea4\u901a\u7701\u56db\u56fd\u5730\u65b9\u6574\u5099\u5c40\u4e2d\u6751\u6cb3\u5ddd\u56fd\u9053\u4e8b\u52d9\u6240","boring_xml_url":47,"boring_view_url":1,"soilmap_view_url":null,"soiltest_xml_url":0,"soiltest_view_url":0},{"id":352504,"code":"NGIC202003198-0007","latitude":"33.01571025","longitude":"132.98998411111","source_code":"","project_name":"\n      ","survey_name":"\u4ee4\u548c2\u5e74\u5ea6\u7530\u30ce\u53e3\u30c8\u30f3\u30cd\u30eb\u5916\u5730\u8cea\u8abf\u67fb\u696d\u52d9","client_name":"\u56fd\u571f\u4ea4\u901a\u7701\u56db\u56fd\u5730\u65b9\u6574\u5099\u5c40\u4e2d\u6751\u6cb3\u5ddd\u56fd\u9053\u4e8b\u52d9\u6240","boring_xml_url":47,"boring_view_url":1,"soilmap_view_url":null,"soiltest_xml_url":0,"soiltest_view_url":0}]}}