{"header":{"xyz":{"source":[],"mosaic":false},"page":2032,"raw":{"soiltest_result":"0","bbox":"57.598333,109.544722,1.933333,163.806111","page":"2032"},"conditions":{"soiltest_result":0,"north":57.598333,"west":109.544722,"south":1.933333,"east":163.806111},"success":true,"message":""},"data":{"meta":{"total":212844,"page":2032,"pages":7095,"count":30},"values":[{"id":352234,"code":"NGIC202003155-0003","latitude":"35.07475","longitude":"138.91727777778","source_code":"","project_name":"","survey_name":"\u4ee4\u548c2\u5e74\u5ea6\u72e9\u91ce\u5ddd\u6c34\u7cfb\u5730\u8cea\u8abf\u67fb\u696d\u52d9","client_name":"\u56fd\u571f\u4ea4\u901a\u7701\u4e2d\u90e8\u5730\u65b9\u6574\u5099\u5c40\u6cbc\u6d25\u6cb3\u5ddd\u56fd\u9053\u4e8b\u52d9\u6240","boring_xml_url":47,"boring_view_url":1,"soilmap_view_url":null,"soiltest_xml_url":47,"soiltest_view_url":47},{"id":352233,"code":"NGIC202003155-0002","latitude":"35.093833333333","longitude":"138.90108333333","source_code":"","project_name":"","survey_name":"\u4ee4\u548c2\u5e74\u5ea6\u72e9\u91ce\u5ddd\u6c34\u7cfb\u5730\u8cea\u8abf\u67fb\u696d\u52d9","client_name":"\u56fd\u571f\u4ea4\u901a\u7701\u4e2d\u90e8\u5730\u65b9\u6574\u5099\u5c40\u6cbc\u6d25\u6cb3\u5ddd\u56fd\u9053\u4e8b\u52d9\u6240","boring_xml_url":47,"boring_view_url":1,"soilmap_view_url":null,"soiltest_xml_url":47,"soiltest_view_url":47},{"id":352232,"code":"NGIC202003155-0001","latitude":"35.095083333333","longitude":"138.89413888889","source_code":"","project_name":"","survey_name":"\u4ee4\u548c2\u5e74\u5ea6\u72e9\u91ce\u5ddd\u6c34\u7cfb\u5730\u8cea\u8abf\u67fb\u696d\u52d9","client_name":"\u56fd\u571f\u4ea4\u901a\u7701\u4e2d\u90e8\u5730\u65b9\u6574\u5099\u5c40\u6cbc\u6d25\u6cb3\u5ddd\u56fd\u9053\u4e8b\u52d9\u6240","boring_xml_url":47,"boring_view_url":1,"soilmap_view_url":null,"soiltest_xml_url":47,"soiltest_view_url":47},{"id":352231,"code":"NGIC202003132-0015","latitude":"32.990599972222","longitude":"132.95563297222","source_code":"","project_name":"","survey_name":"\u4ee4\u548c2\u5e74\u5ea6 \u5927\u65b9\u56db\u4e07\u5341\u9053\u8def(\u53e4\u6d25\u8cc0\u5730\u533a\u305d\u306e1)\u5730\u8cea\u8abf\u67fb\u696d\u52d9","client_name":"\u56fd\u571f\u4ea4\u901a\u7701\u56db\u56fd\u5730\u65b9\u6574\u5099\u5c40\u4e2d\u6751\u6cb3\u5ddd\u56fd\u9053\u4e8b\u52d9\u6240","boring_xml_url":47,"boring_view_url":1,"soilmap_view_url":null,"soiltest_xml_url":0,"soiltest_view_url":0},{"id":352230,"code":"NGIC202003132-0014","latitude":"32.991474","longitude":"132.95671063889","source_code":"","project_name":"","survey_name":"\u4ee4\u548c2\u5e74\u5ea6 \u5927\u65b9\u56db\u4e07\u5341\u9053\u8def(\u53e4\u6d25\u8cc0\u5730\u533a\u305d\u306e1)\u5730\u8cea\u8abf\u67fb\u696d\u52d9","client_name":"\u56fd\u571f\u4ea4\u901a\u7701\u56db\u56fd\u5730\u65b9\u6574\u5099\u5c40\u4e2d\u6751\u6cb3\u5ddd\u56fd\u9053\u4e8b\u52d9\u6240","boring_xml_url":47,"boring_view_url":1,"soilmap_view_url":null,"soiltest_xml_url":0,"soiltest_view_url":0},{"id":352229,"code":"NGIC202003132-0013","latitude":"32.992281444444","longitude":"132.95822866667","source_code":"","project_name":"","survey_name":"\u4ee4\u548c2\u5e74\u5ea6 \u5927\u65b9\u56db\u4e07\u5341\u9053\u8def(\u53e4\u6d25\u8cc0\u5730\u533a\u305d\u306e1)\u5730\u8cea\u8abf\u67fb\u696d\u52d9","client_name":"\u56fd\u571f\u4ea4\u901a\u7701\u56db\u56fd\u5730\u65b9\u6574\u5099\u5c40\u4e2d\u6751\u6cb3\u5ddd\u56fd\u9053\u4e8b\u52d9\u6240","boring_xml_url":47,"boring_view_url":1,"soilmap_view_url":null,"soiltest_xml_url":0,"soiltest_view_url":0},{"id":352228,"code":"NGIC202003132-0012","latitude":"32.995314944444","longitude":"132.96189786111","source_code":"","project_name":"","survey_name":"\u4ee4\u548c2\u5e74\u5ea6 \u5927\u65b9\u56db\u4e07\u5341\u9053\u8def(\u53e4\u6d25\u8cc0\u5730\u533a\u305d\u306e1)\u5730\u8cea\u8abf\u67fb\u696d\u52d9","client_name":"\u56fd\u571f\u4ea4\u901a\u7701\u56db\u56fd\u5730\u65b9\u6574\u5099\u5c40\u4e2d\u6751\u6cb3\u5ddd\u56fd\u9053\u4e8b\u52d9\u6240","boring_xml_url":47,"boring_view_url":1,"soilmap_view_url":null,"soiltest_xml_url":0,"soiltest_view_url":0},{"id":352227,"code":"NGIC202003132-0011","latitude":"32.996290361111","longitude":"132.96367147222","source_code":"","project_name":"","survey_name":"\u4ee4\u548c2\u5e74\u5ea6 \u5927\u65b9\u56db\u4e07\u5341\u9053\u8def(\u53e4\u6d25\u8cc0\u5730\u533a\u305d\u306e1)\u5730\u8cea\u8abf\u67fb\u696d\u52d9","client_name":"\u56fd\u571f\u4ea4\u901a\u7701\u56db\u56fd\u5730\u65b9\u6574\u5099\u5c40\u4e2d\u6751\u6cb3\u5ddd\u56fd\u9053\u4e8b\u52d9\u6240","boring_xml_url":47,"boring_view_url":1,"soilmap_view_url":null,"soiltest_xml_url":0,"soiltest_view_url":0},{"id":352226,"code":"NGIC202003132-0010","latitude":"32.998160194444","longitude":"132.96463277778","source_code":"","project_name":"","survey_name":"\u4ee4\u548c2\u5e74\u5ea6 \u5927\u65b9\u56db\u4e07\u5341\u9053\u8def(\u53e4\u6d25\u8cc0\u5730\u533a\u305d\u306e1)\u5730\u8cea\u8abf\u67fb\u696d\u52d9","client_name":"\u56fd\u571f\u4ea4\u901a\u7701\u56db\u56fd\u5730\u65b9\u6574\u5099\u5c40\u4e2d\u6751\u6cb3\u5ddd\u56fd\u9053\u4e8b\u52d9\u6240","boring_xml_url":47,"boring_view_url":1,"soilmap_view_url":null,"soiltest_xml_url":0,"soiltest_view_url":0},{"id":352225,"code":"NGIC202003132-0009","latitude":"32.990357416667","longitude":"132.95596405556","source_code":"","project_name":"","survey_name":"\u4ee4\u548c2\u5e74\u5ea6 \u5927\u65b9\u56db\u4e07\u5341\u9053\u8def(\u53e4\u6d25\u8cc0\u5730\u533a\u305d\u306e1)\u5730\u8cea\u8abf\u67fb\u696d\u52d9","client_name":"\u56fd\u571f\u4ea4\u901a\u7701\u56db\u56fd\u5730\u65b9\u6574\u5099\u5c40\u4e2d\u6751\u6cb3\u5ddd\u56fd\u9053\u4e8b\u52d9\u6240","boring_xml_url":47,"boring_view_url":1,"soilmap_view_url":null,"soiltest_xml_url":0,"soiltest_view_url":0},{"id":352224,"code":"NGIC202003132-0008","latitude":"32.991446805556","longitude":"132.95586180556","source_code":"","project_name":"","survey_name":"\u4ee4\u548c2\u5e74\u5ea6 \u5927\u65b9\u56db\u4e07\u5341\u9053\u8def(\u53e4\u6d25\u8cc0\u5730\u533a\u305d\u306e1)\u5730\u8cea\u8abf\u67fb\u696d\u52d9","client_name":"\u56fd\u571f\u4ea4\u901a\u7701\u56db\u56fd\u5730\u65b9\u6574\u5099\u5c40\u4e2d\u6751\u6cb3\u5ddd\u56fd\u9053\u4e8b\u52d9\u6240","boring_xml_url":47,"boring_view_url":1,"soilmap_view_url":null,"soiltest_xml_url":0,"soiltest_view_url":0},{"id":352223,"code":"NGIC202003132-0007","latitude":"32.991107222222","longitude":"132.95619577778","source_code":"","project_name":"","survey_name":"\u4ee4\u548c2\u5e74\u5ea6 \u5927\u65b9\u56db\u4e07\u5341\u9053\u8def(\u53e4\u6d25\u8cc0\u5730\u533a\u305d\u306e1)\u5730\u8cea\u8abf\u67fb\u696d\u52d9","client_name":"\u56fd\u571f\u4ea4\u901a\u7701\u56db\u56fd\u5730\u65b9\u6574\u5099\u5c40\u4e2d\u6751\u6cb3\u5ddd\u56fd\u9053\u4e8b\u52d9\u6240","boring_xml_url":47,"boring_view_url":1,"soilmap_view_url":null,"soiltest_xml_url":0,"soiltest_view_url":0},{"id":352222,"code":"NGIC202003132-0006","latitude":"32.992071805556","longitude":"132.95777938889","source_code":"","project_name":"","survey_name":"\u4ee4\u548c2\u5e74\u5ea6 \u5927\u65b9\u56db\u4e07\u5341\u9053\u8def(\u53e4\u6d25\u8cc0\u5730\u533a\u305d\u306e1)\u5730\u8cea\u8abf\u67fb\u696d\u52d9","client_name":"\u56fd\u571f\u4ea4\u901a\u7701\u56db\u56fd\u5730\u65b9\u6574\u5099\u5c40\u4e2d\u6751\u6cb3\u5ddd\u56fd\u9053\u4e8b\u52d9\u6240","boring_xml_url":47,"boring_view_url":1,"soilmap_view_url":null,"soiltest_xml_url":0,"soiltest_view_url":0},{"id":352221,"code":"NGIC202003132-0005","latitude":"32.992444666667","longitude":"132.95858622222","source_code":"","project_name":"","survey_name":"\u4ee4\u548c2\u5e74\u5ea6 \u5927\u65b9\u56db\u4e07\u5341\u9053\u8def(\u53e4\u6d25\u8cc0\u5730\u533a\u305d\u306e1)\u5730\u8cea\u8abf\u67fb\u696d\u52d9","client_name":"\u56fd\u571f\u4ea4\u901a\u7701\u56db\u56fd\u5730\u65b9\u6574\u5099\u5c40\u4e2d\u6751\u6cb3\u5ddd\u56fd\u9053\u4e8b\u52d9\u6240","boring_xml_url":47,"boring_view_url":1,"soilmap_view_url":null,"soiltest_xml_url":0,"soiltest_view_url":0},{"id":352220,"code":"NGIC202003132-0004","latitude":"32.994589166667","longitude":"132.96289880556","source_code":"","project_name":"","survey_name":"\u4ee4\u548c2\u5e74\u5ea6 \u5927\u65b9\u56db\u4e07\u5341\u9053\u8def(\u53e4\u6d25\u8cc0\u5730\u533a\u305d\u306e1)\u5730\u8cea\u8abf\u67fb\u696d\u52d9","client_name":"\u56fd\u571f\u4ea4\u901a\u7701\u56db\u56fd\u5730\u65b9\u6574\u5099\u5c40\u4e2d\u6751\u6cb3\u5ddd\u56fd\u9053\u4e8b\u52d9\u6240","boring_xml_url":47,"boring_view_url":1,"soilmap_view_url":null,"soiltest_xml_url":0,"soiltest_view_url":0},{"id":352219,"code":"NGIC202003132-0003","latitude":"32.994893138889","longitude":"132.96244375","source_code":"","project_name":"","survey_name":"\u4ee4\u548c2\u5e74\u5ea6 \u5927\u65b9\u56db\u4e07\u5341\u9053\u8def(\u53e4\u6d25\u8cc0\u5730\u533a\u305d\u306e1)\u5730\u8cea\u8abf\u67fb\u696d\u52d9","client_name":"\u56fd\u571f\u4ea4\u901a\u7701\u56db\u56fd\u5730\u65b9\u6574\u5099\u5c40\u4e2d\u6751\u6cb3\u5ddd\u56fd\u9053\u4e8b\u52d9\u6240","boring_xml_url":47,"boring_view_url":1,"soilmap_view_url":null,"soiltest_xml_url":0,"soiltest_view_url":0},{"id":352218,"code":"NGIC202003132-0002","latitude":"33.000133722222","longitude":"132.96485963889","source_code":"","project_name":"","survey_name":"\u4ee4\u548c2\u5e74\u5ea6 \u5927\u65b9\u56db\u4e07\u5341\u9053\u8def(\u53e4\u6d25\u8cc0\u5730\u533a\u305d\u306e1)\u5730\u8cea\u8abf\u67fb\u696d\u52d9","client_name":"\u56fd\u571f\u4ea4\u901a\u7701\u56db\u56fd\u5730\u65b9\u6574\u5099\u5c40\u4e2d\u6751\u6cb3\u5ddd\u56fd\u9053\u4e8b\u52d9\u6240","boring_xml_url":47,"boring_view_url":1,"soilmap_view_url":null,"soiltest_xml_url":0,"soiltest_view_url":0},{"id":352217,"code":"NGIC202003132-0001","latitude":"33.000190527778","longitude":"132.96449719444","source_code":"","project_name":"","survey_name":"\u4ee4\u548c2\u5e74\u5ea6 \u5927\u65b9\u56db\u4e07\u5341\u9053\u8def(\u53e4\u6d25\u8cc0\u5730\u533a\u305d\u306e1)\u5730\u8cea\u8abf\u67fb\u696d\u52d9","client_name":"\u56fd\u571f\u4ea4\u901a\u7701\u56db\u56fd\u5730\u65b9\u6574\u5099\u5c40\u4e2d\u6751\u6cb3\u5ddd\u56fd\u9053\u4e8b\u52d9\u6240","boring_xml_url":47,"boring_view_url":1,"soilmap_view_url":null,"soiltest_xml_url":0,"soiltest_view_url":0},{"id":352216,"code":"NGIC202003131-0010","latitude":"33.988648111111","longitude":"133.04798672222","source_code":"","project_name":"","survey_name":"\u4ee4\u548c2\u5e74\u5ea6 \u4eca\u6cbb\u9053\u8def\u5730\u8cea\u8abf\u67fb\u696d\u52d9","client_name":"\u56fd\u571f\u4ea4\u901a\u7701\u56db\u56fd\u5730\u65b9\u6574\u5099\u5c40\u677e\u5c71\u6cb3\u5ddd\u56fd\u9053\u4e8b\u52d9\u6240","boring_xml_url":47,"boring_view_url":1,"soilmap_view_url":null,"soiltest_xml_url":0,"soiltest_view_url":0},{"id":352215,"code":"NGIC202003131-0009","latitude":"34.047873416667","longitude":"132.97107575","source_code":"","project_name":"","survey_name":"\u4ee4\u548c2\u5e74\u5ea6 \u4eca\u6cbb\u9053\u8def\u5730\u8cea\u8abf\u67fb\u696d\u52d9","client_name":"\u56fd\u571f\u4ea4\u901a\u7701\u56db\u56fd\u5730\u65b9\u6574\u5099\u5c40\u677e\u5c71\u6cb3\u5ddd\u56fd\u9053\u4e8b\u52d9\u6240","boring_xml_url":47,"boring_view_url":1,"soilmap_view_url":null,"soiltest_xml_url":0,"soiltest_view_url":0},{"id":352214,"code":"NGIC202003131-0008","latitude":"34.049602861111","longitude":"132.97062255556","source_code":"","project_name":"","survey_name":"\u4ee4\u548c2\u5e74\u5ea6 \u4eca\u6cbb\u9053\u8def\u5730\u8cea\u8abf\u67fb\u696d\u52d9","client_name":"\u56fd\u571f\u4ea4\u901a\u7701\u56db\u56fd\u5730\u65b9\u6574\u5099\u5c40\u677e\u5c71\u6cb3\u5ddd\u56fd\u9053\u4e8b\u52d9\u6240","boring_xml_url":47,"boring_view_url":1,"soilmap_view_url":null,"soiltest_xml_url":0,"soiltest_view_url":0},{"id":352213,"code":"NGIC202003131-0007","latitude":"34.050820027778","longitude":"132.97032438889","source_code":"","project_name":"","survey_name":"\u4ee4\u548c2\u5e74\u5ea6 \u4eca\u6cbb\u9053\u8def\u5730\u8cea\u8abf\u67fb\u696d\u52d9","client_name":"\u56fd\u571f\u4ea4\u901a\u7701\u56db\u56fd\u5730\u65b9\u6574\u5099\u5c40\u677e\u5c71\u6cb3\u5ddd\u56fd\u9053\u4e8b\u52d9\u6240","boring_xml_url":47,"boring_view_url":1,"soilmap_view_url":null,"soiltest_xml_url":0,"soiltest_view_url":0},{"id":352212,"code":"NGIC202003131-0006","latitude":"34.048986361111","longitude":"132.97123116667","source_code":"","project_name":"","survey_name":"\u4ee4\u548c2\u5e74\u5ea6 \u4eca\u6cbb\u9053\u8def\u5730\u8cea\u8abf\u67fb\u696d\u52d9","client_name":"\u56fd\u571f\u4ea4\u901a\u7701\u56db\u56fd\u5730\u65b9\u6574\u5099\u5c40\u677e\u5c71\u6cb3\u5ddd\u56fd\u9053\u4e8b\u52d9\u6240","boring_xml_url":47,"boring_view_url":1,"soilmap_view_url":null,"soiltest_xml_url":0,"soiltest_view_url":0},{"id":352211,"code":"NGIC202003131-0005","latitude":"34.049489388889","longitude":"132.97123088889","source_code":"","project_name":"","survey_name":"\u4ee4\u548c2\u5e74\u5ea6 \u4eca\u6cbb\u9053\u8def\u5730\u8cea\u8abf\u67fb\u696d\u52d9","client_name":"\u56fd\u571f\u4ea4\u901a\u7701\u56db\u56fd\u5730\u65b9\u6574\u5099\u5c40\u677e\u5c71\u6cb3\u5ddd\u56fd\u9053\u4e8b\u52d9\u6240","boring_xml_url":47,"boring_view_url":1,"soilmap_view_url":null,"soiltest_xml_url":0,"soiltest_view_url":0},{"id":352210,"code":"NGIC202003131-0004","latitude":"34.050197333333","longitude":"132.97106733333","source_code":"","project_name":"","survey_name":"\u4ee4\u548c2\u5e74\u5ea6 \u4eca\u6cbb\u9053\u8def\u5730\u8cea\u8abf\u67fb\u696d\u52d9","client_name":"\u56fd\u571f\u4ea4\u901a\u7701\u56db\u56fd\u5730\u65b9\u6574\u5099\u5c40\u677e\u5c71\u6cb3\u5ddd\u56fd\u9053\u4e8b\u52d9\u6240","boring_xml_url":47,"boring_view_url":1,"soilmap_view_url":null,"soiltest_xml_url":0,"soiltest_view_url":0},{"id":352209,"code":"NGIC202003131-0003","latitude":"34.051105277778","longitude":"132.97109855556","source_code":"","project_name":"","survey_name":"\u4ee4\u548c2\u5e74\u5ea6 \u4eca\u6cbb\u9053\u8def\u5730\u8cea\u8abf\u67fb\u696d\u52d9","client_name":"\u56fd\u571f\u4ea4\u901a\u7701\u56db\u56fd\u5730\u65b9\u6574\u5099\u5c40\u677e\u5c71\u6cb3\u5ddd\u56fd\u9053\u4e8b\u52d9\u6240","boring_xml_url":47,"boring_view_url":1,"soilmap_view_url":null,"soiltest_xml_url":0,"soiltest_view_url":0},{"id":352208,"code":"NGIC202003131-0002","latitude":"34.051755444444","longitude":"132.97021144444","source_code":"","project_name":"","survey_name":"\u4ee4\u548c2\u5e74\u5ea6 \u4eca\u6cbb\u9053\u8def\u5730\u8cea\u8abf\u67fb\u696d\u52d9","client_name":"\u56fd\u571f\u4ea4\u901a\u7701\u56db\u56fd\u5730\u65b9\u6574\u5099\u5c40\u677e\u5c71\u6cb3\u5ddd\u56fd\u9053\u4e8b\u52d9\u6240","boring_xml_url":47,"boring_view_url":1,"soilmap_view_url":null,"soiltest_xml_url":47,"soiltest_view_url":47},{"id":352207,"code":"NGIC202003131-0001","latitude":"34.052135333333","longitude":"132.97100955556","source_code":"","project_name":"","survey_name":"\u4ee4\u548c2\u5e74\u5ea6 \u4eca\u6cbb\u9053\u8def\u5730\u8cea\u8abf\u67fb\u696d\u52d9","client_name":"\u56fd\u571f\u4ea4\u901a\u7701\u56db\u56fd\u5730\u65b9\u6574\u5099\u5c40\u677e\u5c71\u6cb3\u5ddd\u56fd\u9053\u4e8b\u52d9\u6240","boring_xml_url":47,"boring_view_url":1,"soilmap_view_url":null,"soiltest_xml_url":47,"soiltest_view_url":47},{"id":352188,"code":"NGIC202003103-0008","latitude":"34.087951944444","longitude":"132.19813872222","source_code":"","project_name":"\u4ee4\u548c2\u5e74\u5ea6\u85e4\u751f\u9577\u91ce\u30d0\u30a4\u30d1\u30b9\u4fdd\u6d25\u5730\u533a\u5730\u8cea\u8abf\u67fb\u696d\u52d9","survey_name":"\u4ee4\u548c2\u5e74\u5ea6\u85e4\u751f\u9577\u91ce\u30d0\u30a4\u30d1\u30b9\u4fdd\u6d25\u5730\u533a\u5730\u8cea\u8abf\u67fb\u696d\u52d9","client_name":"\u56fd\u571f\u4ea4\u901a\u7701\u4e2d\u56fd\u5730\u65b9\u6574\u5099\u5c40\u5c71\u53e3\u6cb3\u5ddd\u56fd\u9053\u4e8b\u52d9\u6240","boring_xml_url":47,"boring_view_url":1,"soilmap_view_url":null,"soiltest_xml_url":0,"soiltest_view_url":0},{"id":352187,"code":"NGIC202003103-0007","latitude":"34.088633833333","longitude":"132.19815947222","source_code":"","project_name":"\u4ee4\u548c2\u5e74\u5ea6\u85e4\u751f\u9577\u91ce\u30d0\u30a4\u30d1\u30b9\u4fdd\u6d25\u5730\u533a\u5730\u8cea\u8abf\u67fb\u696d\u52d9","survey_name":"\u4ee4\u548c2\u5e74\u5ea6\u85e4\u751f\u9577\u91ce\u30d0\u30a4\u30d1\u30b9\u4fdd\u6d25\u5730\u533a\u5730\u8cea\u8abf\u67fb\u696d\u52d9","client_name":"\u56fd\u571f\u4ea4\u901a\u7701\u4e2d\u56fd\u5730\u65b9\u6574\u5099\u5c40\u5c71\u53e3\u6cb3\u5ddd\u56fd\u9053\u4e8b\u52d9\u6240","boring_xml_url":47,"boring_view_url":1,"soilmap_view_url":null,"soiltest_xml_url":0,"soiltest_view_url":0}]}}