{"header":{"xyz":{"source":[],"mosaic":false},"page":2041,"raw":{"soiltest_result":"0","bbox":"57.598333,109.544722,1.933333,163.806111","page":"2041"},"conditions":{"soiltest_result":0,"north":57.598333,"west":109.544722,"south":1.933333,"east":163.806111},"success":true,"message":""},"data":{"meta":{"total":212844,"page":2041,"pages":7095,"count":30},"values":[{"id":351580,"code":"NGIC202002989-0007","latitude":"33.273905","longitude":"130.16385977778","source_code":"","project_name":"","survey_name":"\u6b66\u96c4\u6cb3\u5ddd\u4e8b\u52d9\u6240\u7ba1\u5185\u5824\u9632\u5b89\u5168\u5ea6\u8abf\u67fb\u691c\u8a0e\u696d\u52d9","client_name":"\u56fd\u571f\u4ea4\u901a\u7701\u4e5d\u5dde\u5730\u65b9\u6574\u5099\u5c40\u6b66\u96c4\u6cb3\u5ddd\u4e8b\u52d9\u6240","boring_xml_url":47,"boring_view_url":1,"soilmap_view_url":null,"soiltest_xml_url":47,"soiltest_view_url":47},{"id":351579,"code":"NGIC202002989-0006","latitude":"33.273984138889","longitude":"130.16377877778","source_code":"","project_name":"","survey_name":"\u6b66\u96c4\u6cb3\u5ddd\u4e8b\u52d9\u6240\u7ba1\u5185\u5824\u9632\u5b89\u5168\u5ea6\u8abf\u67fb\u691c\u8a0e\u696d\u52d9","client_name":"\u56fd\u571f\u4ea4\u901a\u7701\u4e5d\u5dde\u5730\u65b9\u6574\u5099\u5c40\u6b66\u96c4\u6cb3\u5ddd\u4e8b\u52d9\u6240","boring_xml_url":47,"boring_view_url":1,"soilmap_view_url":null,"soiltest_xml_url":47,"soiltest_view_url":47},{"id":351578,"code":"NGIC202002989-0005","latitude":"33.274045222222","longitude":"130.16371625","source_code":"","project_name":"","survey_name":"\u6b66\u96c4\u6cb3\u5ddd\u4e8b\u52d9\u6240\u7ba1\u5185\u5824\u9632\u5b89\u5168\u5ea6\u8abf\u67fb\u691c\u8a0e\u696d\u52d9","client_name":"\u56fd\u571f\u4ea4\u901a\u7701\u4e5d\u5dde\u5730\u65b9\u6574\u5099\u5c40\u6b66\u96c4\u6cb3\u5ddd\u4e8b\u52d9\u6240","boring_xml_url":47,"boring_view_url":1,"soilmap_view_url":null,"soiltest_xml_url":47,"soiltest_view_url":47},{"id":351577,"code":"NGIC202002989-0004","latitude":"33.275990694444","longitude":"130.16746386111","source_code":"","project_name":"","survey_name":"\u6b66\u96c4\u6cb3\u5ddd\u4e8b\u52d9\u6240\u7ba1\u5185\u5824\u9632\u5b89\u5168\u5ea6\u8abf\u67fb\u691c\u8a0e\u696d\u52d9","client_name":"\u56fd\u571f\u4ea4\u901a\u7701\u4e5d\u5dde\u5730\u65b9\u6574\u5099\u5c40\u6b66\u96c4\u6cb3\u5ddd\u4e8b\u52d9\u6240","boring_xml_url":47,"boring_view_url":1,"soilmap_view_url":null,"soiltest_xml_url":47,"soiltest_view_url":47},{"id":351576,"code":"NGIC202002989-0003","latitude":"33.275946694444","longitude":"130.16736313889","source_code":"","project_name":"","survey_name":"\u6b66\u96c4\u6cb3\u5ddd\u4e8b\u52d9\u6240\u7ba1\u5185\u5824\u9632\u5b89\u5168\u5ea6\u8abf\u67fb\u691c\u8a0e\u696d\u52d9","client_name":"\u56fd\u571f\u4ea4\u901a\u7701\u4e5d\u5dde\u5730\u65b9\u6574\u5099\u5c40\u6b66\u96c4\u6cb3\u5ddd\u4e8b\u52d9\u6240","boring_xml_url":47,"boring_view_url":1,"soilmap_view_url":null,"soiltest_xml_url":47,"soiltest_view_url":47},{"id":351575,"code":"NGIC202002989-0002","latitude":"33.275905777778","longitude":"130.16726944444","source_code":"","project_name":"","survey_name":"\u6b66\u96c4\u6cb3\u5ddd\u4e8b\u52d9\u6240\u7ba1\u5185\u5824\u9632\u5b89\u5168\u5ea6\u8abf\u67fb\u691c\u8a0e\u696d\u52d9","client_name":"\u56fd\u571f\u4ea4\u901a\u7701\u4e5d\u5dde\u5730\u65b9\u6574\u5099\u5c40\u6b66\u96c4\u6cb3\u5ddd\u4e8b\u52d9\u6240","boring_xml_url":47,"boring_view_url":1,"soilmap_view_url":null,"soiltest_xml_url":47,"soiltest_view_url":47},{"id":351574,"code":"NGIC202002989-0001","latitude":"33.275866694444","longitude":"130.16717994444","source_code":"","project_name":"","survey_name":"\u6b66\u96c4\u6cb3\u5ddd\u4e8b\u52d9\u6240\u7ba1\u5185\u5824\u9632\u5b89\u5168\u5ea6\u8abf\u67fb\u691c\u8a0e\u696d\u52d9","client_name":"\u56fd\u571f\u4ea4\u901a\u7701\u4e5d\u5dde\u5730\u65b9\u6574\u5099\u5c40\u6b66\u96c4\u6cb3\u5ddd\u4e8b\u52d9\u6240","boring_xml_url":47,"boring_view_url":1,"soilmap_view_url":null,"soiltest_xml_url":47,"soiltest_view_url":47},{"id":351537,"code":"NGIC202002958-0005","latitude":"39.072230555556","longitude":"141.13082777778","source_code":"","project_name":"","survey_name":"\u5ca9\u624b\u7ba1\u5185\u9053\u8def\u70b9\u691c\u30fb\u88dc\u4fee\u8a2d\u8a08\u696d\u52d9","client_name":"\u56fd\u571f\u4ea4\u901a\u7701\u6771\u5317\u5730\u65b9\u6574\u5099\u5c40\u5ca9\u624b\u6cb3\u5ddd\u56fd\u9053\u4e8b\u52d9\u6240","boring_xml_url":47,"boring_view_url":1,"soilmap_view_url":null,"soiltest_xml_url":0,"soiltest_view_url":0},{"id":351536,"code":"NGIC202002958-0004","latitude":"39.072808333333","longitude":"141.13076111111","source_code":"","project_name":"","survey_name":"\u5ca9\u624b\u7ba1\u5185\u9053\u8def\u70b9\u691c\u30fb\u88dc\u4fee\u8a2d\u8a08\u696d\u52d9","client_name":"\u56fd\u571f\u4ea4\u901a\u7701\u6771\u5317\u5730\u65b9\u6574\u5099\u5c40\u5ca9\u624b\u6cb3\u5ddd\u56fd\u9053\u4e8b\u52d9\u6240","boring_xml_url":47,"boring_view_url":1,"soilmap_view_url":null,"soiltest_xml_url":0,"soiltest_view_url":0},{"id":351535,"code":"NGIC202002958-0003","latitude":"39.072358333333","longitude":"141.13042222222","source_code":"","project_name":"","survey_name":"\u5ca9\u624b\u7ba1\u5185\u9053\u8def\u70b9\u691c\u30fb\u88dc\u4fee\u8a2d\u8a08\u696d\u52d9","client_name":"\u56fd\u571f\u4ea4\u901a\u7701\u6771\u5317\u5730\u65b9\u6574\u5099\u5c40\u5ca9\u624b\u6cb3\u5ddd\u56fd\u9053\u4e8b\u52d9\u6240","boring_xml_url":47,"boring_view_url":1,"soilmap_view_url":null,"soiltest_xml_url":0,"soiltest_view_url":0},{"id":351534,"code":"NGIC202002958-0002","latitude":"39.072733333333","longitude":"141.13091388889","source_code":"","project_name":"","survey_name":"\u5ca9\u624b\u7ba1\u5185\u9053\u8def\u70b9\u691c\u30fb\u88dc\u4fee\u8a2d\u8a08\u696d\u52d9","client_name":"\u56fd\u571f\u4ea4\u901a\u7701\u6771\u5317\u5730\u65b9\u6574\u5099\u5c40\u5ca9\u624b\u6cb3\u5ddd\u56fd\u9053\u4e8b\u52d9\u6240","boring_xml_url":47,"boring_view_url":1,"soilmap_view_url":null,"soiltest_xml_url":0,"soiltest_view_url":0},{"id":351533,"code":"NGIC202002958-0001","latitude":"39.072294444444","longitude":"141.13056666667","source_code":"","project_name":"","survey_name":"\u5ca9\u624b\u7ba1\u5185\u9053\u8def\u70b9\u691c\u30fb\u88dc\u4fee\u8a2d\u8a08\u696d\u52d9","client_name":"\u56fd\u571f\u4ea4\u901a\u7701\u6771\u5317\u5730\u65b9\u6574\u5099\u5c40\u5ca9\u624b\u6cb3\u5ddd\u56fd\u9053\u4e8b\u52d9\u6240","boring_xml_url":47,"boring_view_url":1,"soilmap_view_url":null,"soiltest_xml_url":47,"soiltest_view_url":47},{"id":351525,"code":"NGIC202003022-0010","latitude":"35.943169444444","longitude":"136.37014444444","source_code":"","project_name":"\u4ed8\u66ff\u770c\u9053\u5927\u672c\u5730\u533a\u6a4b\u6881\u4ed6\u8a73\u7d30\u8a2d\u8a08\u696d\u52d9","survey_name":"\u4ed8\u66ff\u770c\u9053\u5927\u672c\u5730\u533a\u6a4b\u6881\u4ed6\u8a73\u7d30\u8a2d\u8a08\u696d\u52d9","client_name":"\u56fd\u571f\u4ea4\u901a\u7701\u8fd1\u757f\u5730\u65b9\u6574\u5099\u5c40\u8db3\u7fbd\u5ddd\u30c0\u30e0\u5de5\u4e8b\u4e8b\u52d9\u6240","boring_xml_url":47,"boring_view_url":1,"soilmap_view_url":null,"soiltest_xml_url":0,"soiltest_view_url":0},{"id":351524,"code":"NGIC202003022-0009","latitude":"35.925575","longitude":"136.40764444444","source_code":"","project_name":"\u4ed8\u66ff\u770c\u9053\u5927\u672c\u5730\u533a\u6a4b\u6881\u4ed6\u8a73\u7d30\u8a2d\u8a08\u696d\u52d9","survey_name":"\u4ed8\u66ff\u770c\u9053\u5927\u672c\u5730\u533a\u6a4b\u6881\u4ed6\u8a73\u7d30\u8a2d\u8a08\u696d\u52d9","client_name":"\u56fd\u571f\u4ea4\u901a\u7701\u8fd1\u757f\u5730\u65b9\u6574\u5099\u5c40\u8db3\u7fbd\u5ddd\u30c0\u30e0\u5de5\u4e8b\u4e8b\u52d9\u6240","boring_xml_url":47,"boring_view_url":1,"soilmap_view_url":null,"soiltest_xml_url":0,"soiltest_view_url":0},{"id":351523,"code":"NGIC202003022-0008","latitude":"35.925486111111","longitude":"136.40752777778","source_code":"","project_name":"\u4ed8\u66ff\u770c\u9053\u5927\u672c\u5730\u533a\u6a4b\u6881\u4ed6\u8a73\u7d30\u8a2d\u8a08\u696d\u52d9","survey_name":"\u4ed8\u66ff\u770c\u9053\u5927\u672c\u5730\u533a\u6a4b\u6881\u4ed6\u8a73\u7d30\u8a2d\u8a08\u696d\u52d9","client_name":"\u56fd\u571f\u4ea4\u901a\u7701\u8fd1\u757f\u5730\u65b9\u6574\u5099\u5c40\u8db3\u7fbd\u5ddd\u30c0\u30e0\u5de5\u4e8b\u4e8b\u52d9\u6240","boring_xml_url":47,"boring_view_url":1,"soilmap_view_url":null,"soiltest_xml_url":0,"soiltest_view_url":0},{"id":351522,"code":"NGIC202003022-0007","latitude":"35.926463888889","longitude":"136.40593055556","source_code":"","project_name":"\u4ed8\u66ff\u770c\u9053\u5927\u672c\u5730\u533a\u6a4b\u6881\u4ed6\u8a73\u7d30\u8a2d\u8a08\u696d\u52d9","survey_name":"\u4ed8\u66ff\u770c\u9053\u5927\u672c\u5730\u533a\u6a4b\u6881\u4ed6\u8a73\u7d30\u8a2d\u8a08\u696d\u52d9","client_name":"\u56fd\u571f\u4ea4\u901a\u7701\u8fd1\u757f\u5730\u65b9\u6574\u5099\u5c40\u8db3\u7fbd\u5ddd\u30c0\u30e0\u5de5\u4e8b\u4e8b\u52d9\u6240","boring_xml_url":47,"boring_view_url":1,"soilmap_view_url":null,"soiltest_xml_url":0,"soiltest_view_url":0},{"id":351521,"code":"NGIC202003022-0006","latitude":"35.927669444444","longitude":"136.40182777778","source_code":"","project_name":"\u4ed8\u66ff\u770c\u9053\u5927\u672c\u5730\u533a\u6a4b\u6881\u4ed6\u8a73\u7d30\u8a2d\u8a08\u696d\u52d9","survey_name":"\u4ed8\u66ff\u770c\u9053\u5927\u672c\u5730\u533a\u6a4b\u6881\u4ed6\u8a73\u7d30\u8a2d\u8a08\u696d\u52d9","client_name":"\u56fd\u571f\u4ea4\u901a\u7701\u8fd1\u757f\u5730\u65b9\u6574\u5099\u5c40\u8db3\u7fbd\u5ddd\u30c0\u30e0\u5de5\u4e8b\u4e8b\u52d9\u6240","boring_xml_url":47,"boring_view_url":1,"soilmap_view_url":null,"soiltest_xml_url":0,"soiltest_view_url":0},{"id":351520,"code":"NGIC202003022-0005","latitude":"35.927527777778","longitude":"136.40185277778","source_code":"","project_name":"\u4ed8\u66ff\u770c\u9053\u5927\u672c\u5730\u533a\u6a4b\u6881\u4ed6\u8a73\u7d30\u8a2d\u8a08\u696d\u52d9","survey_name":"\u4ed8\u66ff\u770c\u9053\u5927\u672c\u5730\u533a\u6a4b\u6881\u4ed6\u8a73\u7d30\u8a2d\u8a08\u696d\u52d9","client_name":"\u56fd\u571f\u4ea4\u901a\u7701\u8fd1\u757f\u5730\u65b9\u6574\u5099\u5c40\u8db3\u7fbd\u5ddd\u30c0\u30e0\u5de5\u4e8b\u4e8b\u52d9\u6240","boring_xml_url":47,"boring_view_url":1,"soilmap_view_url":null,"soiltest_xml_url":0,"soiltest_view_url":0},{"id":351519,"code":"NGIC202003022-0004","latitude":"35.927836111111","longitude":"136.40095833333","source_code":"","project_name":"\u4ed8\u66ff\u770c\u9053\u5927\u672c\u5730\u533a\u6a4b\u6881\u4ed6\u8a73\u7d30\u8a2d\u8a08\u696d\u52d9","survey_name":"\u4ed8\u66ff\u770c\u9053\u5927\u672c\u5730\u533a\u6a4b\u6881\u4ed6\u8a73\u7d30\u8a2d\u8a08\u696d\u52d9","client_name":"\u56fd\u571f\u4ea4\u901a\u7701\u8fd1\u757f\u5730\u65b9\u6574\u5099\u5c40\u8db3\u7fbd\u5ddd\u30c0\u30e0\u5de5\u4e8b\u4e8b\u52d9\u6240","boring_xml_url":47,"boring_view_url":1,"soilmap_view_url":null,"soiltest_xml_url":0,"soiltest_view_url":0},{"id":351518,"code":"NGIC202003022-0003","latitude":"35.927741666667","longitude":"136.40090833333","source_code":"","project_name":"\u4ed8\u66ff\u770c\u9053\u5927\u672c\u5730\u533a\u6a4b\u6881\u4ed6\u8a73\u7d30\u8a2d\u8a08\u696d\u52d9","survey_name":"\u4ed8\u66ff\u770c\u9053\u5927\u672c\u5730\u533a\u6a4b\u6881\u4ed6\u8a73\u7d30\u8a2d\u8a08\u696d\u52d9","client_name":"\u56fd\u571f\u4ea4\u901a\u7701\u8fd1\u757f\u5730\u65b9\u6574\u5099\u5c40\u8db3\u7fbd\u5ddd\u30c0\u30e0\u5de5\u4e8b\u4e8b\u52d9\u6240","boring_xml_url":47,"boring_view_url":1,"soilmap_view_url":null,"soiltest_xml_url":0,"soiltest_view_url":0},{"id":351517,"code":"NGIC202003022-0002","latitude":"35.927938888889","longitude":"136.40026666667","source_code":"","project_name":"\u4ed8\u66ff\u770c\u9053\u5927\u672c\u5730\u533a\u6a4b\u6881\u4ed6\u8a73\u7d30\u8a2d\u8a08\u696d\u52d9","survey_name":"\u4ed8\u66ff\u770c\u9053\u5927\u672c\u5730\u533a\u6a4b\u6881\u4ed6\u8a73\u7d30\u8a2d\u8a08\u696d\u52d9","client_name":"\u56fd\u571f\u4ea4\u901a\u7701\u8fd1\u757f\u5730\u65b9\u6574\u5099\u5c40\u8db3\u7fbd\u5ddd\u30c0\u30e0\u5de5\u4e8b\u4e8b\u52d9\u6240","boring_xml_url":47,"boring_view_url":1,"soilmap_view_url":null,"soiltest_xml_url":0,"soiltest_view_url":0},{"id":351516,"code":"NGIC202003022-0001","latitude":"35.928022222222","longitude":"136.39986388889","source_code":"","project_name":"\u4ed8\u66ff\u770c\u9053\u5927\u672c\u5730\u533a\u6a4b\u6881\u4ed6\u8a73\u7d30\u8a2d\u8a08\u696d\u52d9","survey_name":"\u4ed8\u66ff\u770c\u9053\u5927\u672c\u5730\u533a\u6a4b\u6881\u4ed6\u8a73\u7d30\u8a2d\u8a08\u696d\u52d9","client_name":"\u56fd\u571f\u4ea4\u901a\u7701\u8fd1\u757f\u5730\u65b9\u6574\u5099\u5c40\u8db3\u7fbd\u5ddd\u30c0\u30e0\u5de5\u4e8b\u4e8b\u52d9\u6240","boring_xml_url":47,"boring_view_url":1,"soilmap_view_url":null,"soiltest_xml_url":0,"soiltest_view_url":0},{"id":351515,"code":"NGIC202002937-0010","latitude":"35.630244444444","longitude":"139.29888611111","source_code":"","project_name":"\u4ee4\u548c2\u5e74\u5ea6 R2G\u56fd\u905320\u53f7\u516b\u738b\u5b50\u5357BP\u5c0f\u6bd4\u4f01\u5730\u533a\u5730\u8cea\u8abf\u67fb\u696d\u52d9","survey_name":"\u4ee4\u548c2\u5e74\u5ea6 R2G\u56fd\u905320\u53f7\u516b\u738b\u5b50\u5357BP\u5c0f\u6bd4\u4f01\u5730\u533a\u5730\u8cea\u8abf\u67fb\u696d\u52d9","client_name":"\u56fd\u571f\u4ea4\u901a\u7701\u95a2\u6771\u5730\u65b9\u6574\u5099\u5c40\u76f8\u6b66\u56fd\u9053\u4e8b\u52d9\u6240","boring_xml_url":47,"boring_view_url":1,"soilmap_view_url":null,"soiltest_xml_url":47,"soiltest_view_url":47},{"id":351514,"code":"NGIC202002937-0009","latitude":"35.629877777778","longitude":"139.29880555556","source_code":"","project_name":"\u4ee4\u548c2\u5e74\u5ea6 R2G\u56fd\u905320\u53f7\u516b\u738b\u5b50\u5357BP\u5c0f\u6bd4\u4f01\u5730\u533a\u5730\u8cea\u8abf\u67fb\u696d\u52d9","survey_name":"\u4ee4\u548c2\u5e74\u5ea6 R2G\u56fd\u905320\u53f7\u516b\u738b\u5b50\u5357BP\u5c0f\u6bd4\u4f01\u5730\u533a\u5730\u8cea\u8abf\u67fb\u696d\u52d9","client_name":"\u56fd\u571f\u4ea4\u901a\u7701\u95a2\u6771\u5730\u65b9\u6574\u5099\u5c40\u76f8\u6b66\u56fd\u9053\u4e8b\u52d9\u6240","boring_xml_url":47,"boring_view_url":1,"soilmap_view_url":null,"soiltest_xml_url":47,"soiltest_view_url":47},{"id":351513,"code":"NGIC202002937-0008","latitude":"35.641441666667","longitude":"139.33205555556","source_code":"","project_name":"\u4ee4\u548c2\u5e74\u5ea6 R2G\u56fd\u905320\u53f7\u516b\u738b\u5b50\u5357BP\u5c0f\u6bd4\u4f01\u5730\u533a\u5730\u8cea\u8abf\u67fb\u696d\u52d9","survey_name":"\u4ee4\u548c2\u5e74\u5ea6 R2G\u56fd\u905320\u53f7\u516b\u738b\u5b50\u5357BP\u5c0f\u6bd4\u4f01\u5730\u533a\u5730\u8cea\u8abf\u67fb\u696d\u52d9","client_name":"\u56fd\u571f\u4ea4\u901a\u7701\u95a2\u6771\u5730\u65b9\u6574\u5099\u5c40\u76f8\u6b66\u56fd\u9053\u4e8b\u52d9\u6240","boring_xml_url":47,"boring_view_url":1,"soilmap_view_url":null,"soiltest_xml_url":47,"soiltest_view_url":47},{"id":351512,"code":"NGIC202002937-0007","latitude":"35.641769444444","longitude":"139.33210277778","source_code":"","project_name":"\u4ee4\u548c2\u5e74\u5ea6 R2G\u56fd\u905320\u53f7\u516b\u738b\u5b50\u5357BP\u5c0f\u6bd4\u4f01\u5730\u533a\u5730\u8cea\u8abf\u67fb\u696d\u52d9","survey_name":"\u4ee4\u548c2\u5e74\u5ea6 R2G\u56fd\u905320\u53f7\u516b\u738b\u5b50\u5357BP\u5c0f\u6bd4\u4f01\u5730\u533a\u5730\u8cea\u8abf\u67fb\u696d\u52d9","client_name":"\u56fd\u571f\u4ea4\u901a\u7701\u95a2\u6771\u5730\u65b9\u6574\u5099\u5c40\u76f8\u6b66\u56fd\u9053\u4e8b\u52d9\u6240","boring_xml_url":47,"boring_view_url":1,"soilmap_view_url":null,"soiltest_xml_url":0,"soiltest_view_url":0},{"id":351511,"code":"NGIC202002937-0006","latitude":"35.641955555556","longitude":"139.33203888889","source_code":"","project_name":"\u4ee4\u548c2\u5e74\u5ea6 R2G\u56fd\u905320\u53f7\u516b\u738b\u5b50\u5357BP\u5c0f\u6bd4\u4f01\u5730\u533a\u5730\u8cea\u8abf\u67fb\u696d\u52d9","survey_name":"\u4ee4\u548c2\u5e74\u5ea6 R2G\u56fd\u905320\u53f7\u516b\u738b\u5b50\u5357BP\u5c0f\u6bd4\u4f01\u5730\u533a\u5730\u8cea\u8abf\u67fb\u696d\u52d9","client_name":"\u56fd\u571f\u4ea4\u901a\u7701\u95a2\u6771\u5730\u65b9\u6574\u5099\u5c40\u76f8\u6b66\u56fd\u9053\u4e8b\u52d9\u6240","boring_xml_url":47,"boring_view_url":1,"soilmap_view_url":null,"soiltest_xml_url":0,"soiltest_view_url":0},{"id":351510,"code":"NGIC202002937-0005","latitude":"35.642522222222","longitude":"139.33199722222","source_code":"","project_name":"\u4ee4\u548c2\u5e74\u5ea6 R2G\u56fd\u905320\u53f7\u516b\u738b\u5b50\u5357BP\u5c0f\u6bd4\u4f01\u5730\u533a\u5730\u8cea\u8abf\u67fb\u696d\u52d9","survey_name":"\u4ee4\u548c2\u5e74\u5ea6 R2G\u56fd\u905320\u53f7\u516b\u738b\u5b50\u5357BP\u5c0f\u6bd4\u4f01\u5730\u533a\u5730\u8cea\u8abf\u67fb\u696d\u52d9","client_name":"\u56fd\u571f\u4ea4\u901a\u7701\u95a2\u6771\u5730\u65b9\u6574\u5099\u5c40\u76f8\u6b66\u56fd\u9053\u4e8b\u52d9\u6240","boring_xml_url":47,"boring_view_url":1,"soilmap_view_url":null,"soiltest_xml_url":0,"soiltest_view_url":0},{"id":351509,"code":"NGIC202002937-0004","latitude":"35.643063888889","longitude":"139.33196111111","source_code":"","project_name":"\u4ee4\u548c2\u5e74\u5ea6 R2G\u56fd\u905320\u53f7\u516b\u738b\u5b50\u5357BP\u5c0f\u6bd4\u4f01\u5730\u533a\u5730\u8cea\u8abf\u67fb\u696d\u52d9","survey_name":"\u4ee4\u548c2\u5e74\u5ea6 R2G\u56fd\u905320\u53f7\u516b\u738b\u5b50\u5357BP\u5c0f\u6bd4\u4f01\u5730\u533a\u5730\u8cea\u8abf\u67fb\u696d\u52d9","client_name":"\u56fd\u571f\u4ea4\u901a\u7701\u95a2\u6771\u5730\u65b9\u6574\u5099\u5c40\u76f8\u6b66\u56fd\u9053\u4e8b\u52d9\u6240","boring_xml_url":47,"boring_view_url":1,"soilmap_view_url":null,"soiltest_xml_url":0,"soiltest_view_url":0},{"id":351508,"code":"NGIC202002937-0003","latitude":"35.643583333333","longitude":"139.33180555556","source_code":"","project_name":"\u4ee4\u548c2\u5e74\u5ea6 R2G\u56fd\u905320\u53f7\u516b\u738b\u5b50\u5357BP\u5c0f\u6bd4\u4f01\u5730\u533a\u5730\u8cea\u8abf\u67fb\u696d\u52d9","survey_name":"\u4ee4\u548c2\u5e74\u5ea6 R2G\u56fd\u905320\u53f7\u516b\u738b\u5b50\u5357BP\u5c0f\u6bd4\u4f01\u5730\u533a\u5730\u8cea\u8abf\u67fb\u696d\u52d9","client_name":"\u56fd\u571f\u4ea4\u901a\u7701\u95a2\u6771\u5730\u65b9\u6574\u5099\u5c40\u76f8\u6b66\u56fd\u9053\u4e8b\u52d9\u6240","boring_xml_url":47,"boring_view_url":1,"soilmap_view_url":null,"soiltest_xml_url":0,"soiltest_view_url":0}]}}