{"header":{"xyz":{"source":[],"mosaic":false},"page":205,"raw":{"soiltest_result":"0","bbox":"57.598333,109.544722,1.933333,163.806111","page":"205"},"conditions":{"soiltest_result":0,"north":57.598333,"west":109.544722,"south":1.933333,"east":163.806111},"success":true,"message":""},"data":{"meta":{"total":212844,"page":205,"pages":7095,"count":30},"values":[{"id":579375,"code":"NGIC202206213-0007","latitude":"43.370400805556","longitude":"143.68224958333","source_code":"","project_name":"\u5317\u6d77\u9053\u6a2a\u65ad\u81ea\u52d5\u8eca\u9053\u9678\u5225\u753a\u5916\u4e0a\u5229\u5225\u5730\u8cea\u8abf\u67fb\u696d\u52d9","survey_name":"\u5317\u6d77\u9053\u6a2a\u65ad\u81ea\u52d5\u8eca\u9053\u9678\u5225\u753a\u5916\u4e0a\u5229\u5225\u5730\u8cea\u8abf\u67fb\u696d\u52d9","client_name":"\u56fd\u571f\u4ea4\u901a\u7701\u5317\u6d77\u9053\u958b\u767a\u5c40\u5e2f\u5e83\u958b\u767a\u5efa\u8a2d\u90e8\u672c\u90e8","boring_xml_url":47,"boring_view_url":1,"soilmap_view_url":null,"soiltest_xml_url":47,"soiltest_view_url":47},{"id":579374,"code":"NGIC202206213-0006","latitude":"43.370035527778","longitude":"143.68214025","source_code":"","project_name":"\u5317\u6d77\u9053\u6a2a\u65ad\u81ea\u52d5\u8eca\u9053\u9678\u5225\u753a\u5916\u4e0a\u5229\u5225\u5730\u8cea\u8abf\u67fb\u696d\u52d9","survey_name":"\u5317\u6d77\u9053\u6a2a\u65ad\u81ea\u52d5\u8eca\u9053\u9678\u5225\u753a\u5916\u4e0a\u5229\u5225\u5730\u8cea\u8abf\u67fb\u696d\u52d9","client_name":"\u56fd\u571f\u4ea4\u901a\u7701\u5317\u6d77\u9053\u958b\u767a\u5c40\u5e2f\u5e83\u958b\u767a\u5efa\u8a2d\u90e8\u672c\u90e8","boring_xml_url":47,"boring_view_url":1,"soilmap_view_url":null,"soiltest_xml_url":47,"soiltest_view_url":47},{"id":579373,"code":"NGIC202206213-0005","latitude":"43.368672","longitude":"143.68200833333","source_code":"","project_name":"\u5317\u6d77\u9053\u6a2a\u65ad\u81ea\u52d5\u8eca\u9053\u9678\u5225\u753a\u5916\u4e0a\u5229\u5225\u5730\u8cea\u8abf\u67fb\u696d\u52d9","survey_name":"\u5317\u6d77\u9053\u6a2a\u65ad\u81ea\u52d5\u8eca\u9053\u9678\u5225\u753a\u5916\u4e0a\u5229\u5225\u5730\u8cea\u8abf\u67fb\u696d\u52d9","client_name":"\u56fd\u571f\u4ea4\u901a\u7701\u5317\u6d77\u9053\u958b\u767a\u5c40\u5e2f\u5e83\u958b\u767a\u5efa\u8a2d\u90e8\u672c\u90e8","boring_xml_url":47,"boring_view_url":1,"soilmap_view_url":null,"soiltest_xml_url":47,"soiltest_view_url":47},{"id":579372,"code":"NGIC202206213-0004","latitude":"43.368494916667","longitude":"143.68148066667","source_code":"","project_name":"\u5317\u6d77\u9053\u6a2a\u65ad\u81ea\u52d5\u8eca\u9053\u9678\u5225\u753a\u5916\u4e0a\u5229\u5225\u5730\u8cea\u8abf\u67fb\u696d\u52d9","survey_name":"\u5317\u6d77\u9053\u6a2a\u65ad\u81ea\u52d5\u8eca\u9053\u9678\u5225\u753a\u5916\u4e0a\u5229\u5225\u5730\u8cea\u8abf\u67fb\u696d\u52d9","client_name":"\u56fd\u571f\u4ea4\u901a\u7701\u5317\u6d77\u9053\u958b\u767a\u5c40\u5e2f\u5e83\u958b\u767a\u5efa\u8a2d\u90e8\u672c\u90e8","boring_xml_url":47,"boring_view_url":1,"soilmap_view_url":null,"soiltest_xml_url":47,"soiltest_view_url":47},{"id":579371,"code":"NGIC202206213-0003","latitude":"43.355916694444","longitude":"143.68298244444","source_code":"","project_name":"\u5317\u6d77\u9053\u6a2a\u65ad\u81ea\u52d5\u8eca\u9053\u9678\u5225\u753a\u5916\u4e0a\u5229\u5225\u5730\u8cea\u8abf\u67fb\u696d\u52d9","survey_name":"\u5317\u6d77\u9053\u6a2a\u65ad\u81ea\u52d5\u8eca\u9053\u9678\u5225\u753a\u5916\u4e0a\u5229\u5225\u5730\u8cea\u8abf\u67fb\u696d\u52d9","client_name":"\u56fd\u571f\u4ea4\u901a\u7701\u5317\u6d77\u9053\u958b\u767a\u5c40\u5e2f\u5e83\u958b\u767a\u5efa\u8a2d\u90e8\u672c\u90e8","boring_xml_url":47,"boring_view_url":1,"soilmap_view_url":null,"soiltest_xml_url":47,"soiltest_view_url":47},{"id":579370,"code":"NGIC202206213-0002","latitude":"43.355050027778","longitude":"143.6827995","source_code":"","project_name":"\u5317\u6d77\u9053\u6a2a\u65ad\u81ea\u52d5\u8eca\u9053\u9678\u5225\u753a\u5916\u4e0a\u5229\u5225\u5730\u8cea\u8abf\u67fb\u696d\u52d9","survey_name":"\u5317\u6d77\u9053\u6a2a\u65ad\u81ea\u52d5\u8eca\u9053\u9678\u5225\u753a\u5916\u4e0a\u5229\u5225\u5730\u8cea\u8abf\u67fb\u696d\u52d9","client_name":"\u56fd\u571f\u4ea4\u901a\u7701\u5317\u6d77\u9053\u958b\u767a\u5c40\u5e2f\u5e83\u958b\u767a\u5efa\u8a2d\u90e8\u672c\u90e8","boring_xml_url":47,"boring_view_url":1,"soilmap_view_url":null,"soiltest_xml_url":47,"soiltest_view_url":47},{"id":579369,"code":"NGIC202206213-0001","latitude":"43.354066944444","longitude":"143.68243002778","source_code":"","project_name":"\u5317\u6d77\u9053\u6a2a\u65ad\u81ea\u52d5\u8eca\u9053\u9678\u5225\u753a\u5916\u4e0a\u5229\u5225\u5730\u8cea\u8abf\u67fb\u696d\u52d9","survey_name":"\u5317\u6d77\u9053\u6a2a\u65ad\u81ea\u52d5\u8eca\u9053\u9678\u5225\u753a\u5916\u4e0a\u5229\u5225\u5730\u8cea\u8abf\u67fb\u696d\u52d9","client_name":"\u56fd\u571f\u4ea4\u901a\u7701\u5317\u6d77\u9053\u958b\u767a\u5c40\u5e2f\u5e83\u958b\u767a\u5efa\u8a2d\u90e8\u672c\u90e8","boring_xml_url":47,"boring_view_url":1,"soilmap_view_url":null,"soiltest_xml_url":47,"soiltest_view_url":47},{"id":579330,"code":"NGIC202206041-0004","latitude":"33.568076888889","longitude":"134.29700508333","source_code":"","project_name":"","survey_name":"\u4ee4\u548c4\u5e74\u5ea6\u6d77\u90e8\u91ce\u6839\u9053\u8def\uff08\u4e45\u4fdd\u5730\u533a\u305d\u306e4\uff09\u5730\u8cea\u8abf\u67fb\u696d\u52d9","client_name":"\u56fd\u571f\u4ea4\u901a\u7701\u56db\u56fd\u5730\u65b9\u6574\u5099\u5c40\u5fb3\u5cf6\u6cb3\u5ddd\u56fd\u9053\u4e8b\u52d9\u6240","boring_xml_url":47,"boring_view_url":1,"soilmap_view_url":null,"soiltest_xml_url":47,"soiltest_view_url":47},{"id":579329,"code":"NGIC202206041-0003","latitude":"33.568076888889","longitude":"134.29700508333","source_code":"","project_name":"","survey_name":"\u4ee4\u548c4\u5e74\u5ea6\u6d77\u90e8\u91ce\u6839\u9053\u8def\uff08\u4e45\u4fdd\u5730\u533a\u305d\u306e4\uff09\u5730\u8cea\u8abf\u67fb\u696d\u52d9","client_name":"\u56fd\u571f\u4ea4\u901a\u7701\u56db\u56fd\u5730\u65b9\u6574\u5099\u5c40\u5fb3\u5cf6\u6cb3\u5ddd\u56fd\u9053\u4e8b\u52d9\u6240","boring_xml_url":47,"boring_view_url":1,"soilmap_view_url":null,"soiltest_xml_url":47,"soiltest_view_url":47},{"id":579328,"code":"NGIC202206041-0002","latitude":"33.568955138889","longitude":"134.29801772222","source_code":"","project_name":"","survey_name":"\u4ee4\u548c4\u5e74\u5ea6\u6d77\u90e8\u91ce\u6839\u9053\u8def\uff08\u4e45\u4fdd\u5730\u533a\u305d\u306e4\uff09\u5730\u8cea\u8abf\u67fb\u696d\u52d9","client_name":"\u56fd\u571f\u4ea4\u901a\u7701\u56db\u56fd\u5730\u65b9\u6574\u5099\u5c40\u5fb3\u5cf6\u6cb3\u5ddd\u56fd\u9053\u4e8b\u52d9\u6240","boring_xml_url":47,"boring_view_url":1,"soilmap_view_url":null,"soiltest_xml_url":47,"soiltest_view_url":47},{"id":579327,"code":"NGIC202206041-0001","latitude":"33.568955138889","longitude":"134.29801772222","source_code":"","project_name":"","survey_name":"\u4ee4\u548c4\u5e74\u5ea6\u6d77\u90e8\u91ce\u6839\u9053\u8def\uff08\u4e45\u4fdd\u5730\u533a\u305d\u306e4\uff09\u5730\u8cea\u8abf\u67fb\u696d\u52d9","client_name":"\u56fd\u571f\u4ea4\u901a\u7701\u56db\u56fd\u5730\u65b9\u6574\u5099\u5c40\u5fb3\u5cf6\u6cb3\u5ddd\u56fd\u9053\u4e8b\u52d9\u6240","boring_xml_url":47,"boring_view_url":1,"soilmap_view_url":null,"soiltest_xml_url":47,"soiltest_view_url":47},{"id":579326,"code":"NGIC202206162-0019","latitude":"33.694836111111","longitude":"135.98095","source_code":"","project_name":"","survey_name":"\u65b0\u5bae\u9053\u8def\u4e09\u8f2a\u5d0e\u5730\u533a\u4ed6\u5730\u8cea\u8abf\u67fb\u696d\u52d9","client_name":"\u56fd\u571f\u4ea4\u901a\u7701\u8fd1\u757f\u5730\u65b9\u6574\u5099\u5c40\u7d00\u5357\u6cb3\u5ddd\u56fd\u9053\u4e8b\u52d9\u6240","boring_xml_url":47,"boring_view_url":1,"soilmap_view_url":null,"soiltest_xml_url":0,"soiltest_view_url":0},{"id":579325,"code":"NGIC202206162-0018","latitude":"33.694744444444","longitude":"135.98060833333","source_code":"","project_name":"","survey_name":"\u65b0\u5bae\u9053\u8def\u4e09\u8f2a\u5d0e\u5730\u533a\u4ed6\u5730\u8cea\u8abf\u67fb\u696d\u52d9","client_name":"\u56fd\u571f\u4ea4\u901a\u7701\u8fd1\u757f\u5730\u65b9\u6574\u5099\u5c40\u7d00\u5357\u6cb3\u5ddd\u56fd\u9053\u4e8b\u52d9\u6240","boring_xml_url":47,"boring_view_url":1,"soilmap_view_url":null,"soiltest_xml_url":0,"soiltest_view_url":0},{"id":579324,"code":"NGIC202206162-0017","latitude":"33.694619444444","longitude":"135.98048888889","source_code":"","project_name":"","survey_name":"\u65b0\u5bae\u9053\u8def\u4e09\u8f2a\u5d0e\u5730\u533a\u4ed6\u5730\u8cea\u8abf\u67fb\u696d\u52d9","client_name":"\u56fd\u571f\u4ea4\u901a\u7701\u8fd1\u757f\u5730\u65b9\u6574\u5099\u5c40\u7d00\u5357\u6cb3\u5ddd\u56fd\u9053\u4e8b\u52d9\u6240","boring_xml_url":47,"boring_view_url":1,"soilmap_view_url":null,"soiltest_xml_url":47,"soiltest_view_url":47},{"id":579323,"code":"NGIC202206162-0016","latitude":"33.694475","longitude":"135.98032777778","source_code":"","project_name":"","survey_name":"\u65b0\u5bae\u9053\u8def\u4e09\u8f2a\u5d0e\u5730\u533a\u4ed6\u5730\u8cea\u8abf\u67fb\u696d\u52d9","client_name":"\u56fd\u571f\u4ea4\u901a\u7701\u8fd1\u757f\u5730\u65b9\u6574\u5099\u5c40\u7d00\u5357\u6cb3\u5ddd\u56fd\u9053\u4e8b\u52d9\u6240","boring_xml_url":47,"boring_view_url":1,"soilmap_view_url":null,"soiltest_xml_url":47,"soiltest_view_url":47},{"id":579322,"code":"NGIC202206162-0015","latitude":"33.714741666667","longitude":"136.00131666667","source_code":"","project_name":"","survey_name":"\u65b0\u5bae\u9053\u8def\u4e09\u8f2a\u5d0e\u5730\u533a\u4ed6\u5730\u8cea\u8abf\u67fb\u696d\u52d9","client_name":"\u56fd\u571f\u4ea4\u901a\u7701\u8fd1\u757f\u5730\u65b9\u6574\u5099\u5c40\u7d00\u5357\u6cb3\u5ddd\u56fd\u9053\u4e8b\u52d9\u6240","boring_xml_url":47,"boring_view_url":1,"soilmap_view_url":null,"soiltest_xml_url":0,"soiltest_view_url":0},{"id":579321,"code":"NGIC202206162-0014","latitude":"33.714744444444","longitude":"136.00103333333","source_code":"","project_name":"","survey_name":"\u65b0\u5bae\u9053\u8def\u4e09\u8f2a\u5d0e\u5730\u533a\u4ed6\u5730\u8cea\u8abf\u67fb\u696d\u52d9","client_name":"\u56fd\u571f\u4ea4\u901a\u7701\u8fd1\u757f\u5730\u65b9\u6574\u5099\u5c40\u7d00\u5357\u6cb3\u5ddd\u56fd\u9053\u4e8b\u52d9\u6240","boring_xml_url":47,"boring_view_url":1,"soilmap_view_url":null,"soiltest_xml_url":0,"soiltest_view_url":0},{"id":579320,"code":"NGIC202206162-0013","latitude":"33.693955555556","longitude":"135.98094722222","source_code":"","project_name":"","survey_name":"\u65b0\u5bae\u9053\u8def\u4e09\u8f2a\u5d0e\u5730\u533a\u4ed6\u5730\u8cea\u8abf\u67fb\u696d\u52d9","client_name":"\u56fd\u571f\u4ea4\u901a\u7701\u8fd1\u757f\u5730\u65b9\u6574\u5099\u5c40\u7d00\u5357\u6cb3\u5ddd\u56fd\u9053\u4e8b\u52d9\u6240","boring_xml_url":47,"boring_view_url":1,"soilmap_view_url":null,"soiltest_xml_url":47,"soiltest_view_url":47},{"id":579319,"code":"NGIC202206162-0012","latitude":"33.69435","longitude":"135.980475","source_code":"","project_name":"","survey_name":"\u65b0\u5bae\u9053\u8def\u4e09\u8f2a\u5d0e\u5730\u533a\u4ed6\u5730\u8cea\u8abf\u67fb\u696d\u52d9","client_name":"\u56fd\u571f\u4ea4\u901a\u7701\u8fd1\u757f\u5730\u65b9\u6574\u5099\u5c40\u7d00\u5357\u6cb3\u5ddd\u56fd\u9053\u4e8b\u52d9\u6240","boring_xml_url":47,"boring_view_url":1,"soilmap_view_url":null,"soiltest_xml_url":47,"soiltest_view_url":47},{"id":579318,"code":"NGIC202206162-0011","latitude":"33.694794444444","longitude":"135.97978888889","source_code":"","project_name":"","survey_name":"\u65b0\u5bae\u9053\u8def\u4e09\u8f2a\u5d0e\u5730\u533a\u4ed6\u5730\u8cea\u8abf\u67fb\u696d\u52d9","client_name":"\u56fd\u571f\u4ea4\u901a\u7701\u8fd1\u757f\u5730\u65b9\u6574\u5099\u5c40\u7d00\u5357\u6cb3\u5ddd\u56fd\u9053\u4e8b\u52d9\u6240","boring_xml_url":47,"boring_view_url":1,"soilmap_view_url":null,"soiltest_xml_url":0,"soiltest_view_url":0},{"id":579317,"code":"NGIC202206162-0010","latitude":"33.694733333333","longitude":"135.97969722222","source_code":"","project_name":"","survey_name":"\u65b0\u5bae\u9053\u8def\u4e09\u8f2a\u5d0e\u5730\u533a\u4ed6\u5730\u8cea\u8abf\u67fb\u696d\u52d9","client_name":"\u56fd\u571f\u4ea4\u901a\u7701\u8fd1\u757f\u5730\u65b9\u6574\u5099\u5c40\u7d00\u5357\u6cb3\u5ddd\u56fd\u9053\u4e8b\u52d9\u6240","boring_xml_url":47,"boring_view_url":1,"soilmap_view_url":null,"soiltest_xml_url":47,"soiltest_view_url":47},{"id":579316,"code":"NGIC202206162-0009","latitude":"33.694663888889","longitude":"135.97933611111","source_code":"","project_name":"","survey_name":"\u65b0\u5bae\u9053\u8def\u4e09\u8f2a\u5d0e\u5730\u533a\u4ed6\u5730\u8cea\u8abf\u67fb\u696d\u52d9","client_name":"\u56fd\u571f\u4ea4\u901a\u7701\u8fd1\u757f\u5730\u65b9\u6574\u5099\u5c40\u7d00\u5357\u6cb3\u5ddd\u56fd\u9053\u4e8b\u52d9\u6240","boring_xml_url":47,"boring_view_url":1,"soilmap_view_url":null,"soiltest_xml_url":0,"soiltest_view_url":0},{"id":579315,"code":"NGIC202206162-0008","latitude":"33.694522222222","longitude":"135.97890555556","source_code":"","project_name":"","survey_name":"\u65b0\u5bae\u9053\u8def\u4e09\u8f2a\u5d0e\u5730\u533a\u4ed6\u5730\u8cea\u8abf\u67fb\u696d\u52d9","client_name":"\u56fd\u571f\u4ea4\u901a\u7701\u8fd1\u757f\u5730\u65b9\u6574\u5099\u5c40\u7d00\u5357\u6cb3\u5ddd\u56fd\u9053\u4e8b\u52d9\u6240","boring_xml_url":47,"boring_view_url":1,"soilmap_view_url":null,"soiltest_xml_url":0,"soiltest_view_url":0},{"id":579314,"code":"NGIC202206162-0007","latitude":"33.694216666667","longitude":"135.97852222222","source_code":"","project_name":"","survey_name":"\u65b0\u5bae\u9053\u8def\u4e09\u8f2a\u5d0e\u5730\u533a\u4ed6\u5730\u8cea\u8abf\u67fb\u696d\u52d9","client_name":"\u56fd\u571f\u4ea4\u901a\u7701\u8fd1\u757f\u5730\u65b9\u6574\u5099\u5c40\u7d00\u5357\u6cb3\u5ddd\u56fd\u9053\u4e8b\u52d9\u6240","boring_xml_url":47,"boring_view_url":1,"soilmap_view_url":null,"soiltest_xml_url":0,"soiltest_view_url":0},{"id":579313,"code":"NGIC202206162-0006","latitude":"33.693594444444","longitude":"135.97744166667","source_code":"","project_name":"","survey_name":"\u65b0\u5bae\u9053\u8def\u4e09\u8f2a\u5d0e\u5730\u533a\u4ed6\u5730\u8cea\u8abf\u67fb\u696d\u52d9","client_name":"\u56fd\u571f\u4ea4\u901a\u7701\u8fd1\u757f\u5730\u65b9\u6574\u5099\u5c40\u7d00\u5357\u6cb3\u5ddd\u56fd\u9053\u4e8b\u52d9\u6240","boring_xml_url":47,"boring_view_url":1,"soilmap_view_url":null,"soiltest_xml_url":47,"soiltest_view_url":47},{"id":579312,"code":"NGIC202206162-0005","latitude":"33.695088888889","longitude":"135.97964166667","source_code":"","project_name":"","survey_name":"\u65b0\u5bae\u9053\u8def\u4e09\u8f2a\u5d0e\u5730\u533a\u4ed6\u5730\u8cea\u8abf\u67fb\u696d\u52d9","client_name":"\u56fd\u571f\u4ea4\u901a\u7701\u8fd1\u757f\u5730\u65b9\u6574\u5099\u5c40\u7d00\u5357\u6cb3\u5ddd\u56fd\u9053\u4e8b\u52d9\u6240","boring_xml_url":47,"boring_view_url":1,"soilmap_view_url":null,"soiltest_xml_url":0,"soiltest_view_url":0},{"id":579311,"code":"NGIC202206162-0004","latitude":"33.694480555556","longitude":"135.97911944444","source_code":"","project_name":"","survey_name":"\u65b0\u5bae\u9053\u8def\u4e09\u8f2a\u5d0e\u5730\u533a\u4ed6\u5730\u8cea\u8abf\u67fb\u696d\u52d9","client_name":"\u56fd\u571f\u4ea4\u901a\u7701\u8fd1\u757f\u5730\u65b9\u6574\u5099\u5c40\u7d00\u5357\u6cb3\u5ddd\u56fd\u9053\u4e8b\u52d9\u6240","boring_xml_url":47,"boring_view_url":1,"soilmap_view_url":null,"soiltest_xml_url":0,"soiltest_view_url":0},{"id":579310,"code":"NGIC202206162-0003","latitude":"33.693902777778","longitude":"135.97834444444","source_code":"","project_name":"","survey_name":"\u65b0\u5bae\u9053\u8def\u4e09\u8f2a\u5d0e\u5730\u533a\u4ed6\u5730\u8cea\u8abf\u67fb\u696d\u52d9","client_name":"\u56fd\u571f\u4ea4\u901a\u7701\u8fd1\u757f\u5730\u65b9\u6574\u5099\u5c40\u7d00\u5357\u6cb3\u5ddd\u56fd\u9053\u4e8b\u52d9\u6240","boring_xml_url":47,"boring_view_url":1,"soilmap_view_url":null,"soiltest_xml_url":47,"soiltest_view_url":47},{"id":579309,"code":"NGIC202206162-0002","latitude":"33.693613888889","longitude":"135.97776944444","source_code":"","project_name":"","survey_name":"\u65b0\u5bae\u9053\u8def\u4e09\u8f2a\u5d0e\u5730\u533a\u4ed6\u5730\u8cea\u8abf\u67fb\u696d\u52d9","client_name":"\u56fd\u571f\u4ea4\u901a\u7701\u8fd1\u757f\u5730\u65b9\u6574\u5099\u5c40\u7d00\u5357\u6cb3\u5ddd\u56fd\u9053\u4e8b\u52d9\u6240","boring_xml_url":47,"boring_view_url":1,"soilmap_view_url":null,"soiltest_xml_url":47,"soiltest_view_url":47},{"id":579308,"code":"NGIC202206162-0001","latitude":"33.693302777778","longitude":"135.977175","source_code":"","project_name":"","survey_name":"\u65b0\u5bae\u9053\u8def\u4e09\u8f2a\u5d0e\u5730\u533a\u4ed6\u5730\u8cea\u8abf\u67fb\u696d\u52d9","client_name":"\u56fd\u571f\u4ea4\u901a\u7701\u8fd1\u757f\u5730\u65b9\u6574\u5099\u5c40\u7d00\u5357\u6cb3\u5ddd\u56fd\u9053\u4e8b\u52d9\u6240","boring_xml_url":47,"boring_view_url":1,"soilmap_view_url":null,"soiltest_xml_url":47,"soiltest_view_url":47}]}}