{"header":{"xyz":{"source":[],"mosaic":false},"page":2055,"raw":{"soiltest_result":"0","bbox":"57.598333,109.544722,1.933333,163.806111","page":"2055"},"conditions":{"soiltest_result":0,"north":57.598333,"west":109.544722,"south":1.933333,"east":163.806111},"success":true,"message":""},"data":{"meta":{"total":212844,"page":2055,"pages":7095,"count":30},"values":[{"id":350211,"code":"NGIC202002737-0001","latitude":"45.060348138889","longitude":"141.74085469444","source_code":"","project_name":"\u56fd\u55b6\u7dcf\u5408\u8fb2\u5730\u9632\u707d\u4e8b\u696d","survey_name":"\u5e4c\u5ef6\u5730\u533a\u7b2c3\u53f7\u5e79\u7dda\u660e\u6e20\u6392\u6c34\u8def\u9644\u5e2f\u65bd\u8a2d\u8a2d\u8a08\u7b49\u696d\u52d9","client_name":"\u56fd\u571f\u4ea4\u901a\u7701\u5317\u6d77\u9053\u958b\u767a\u5c40\u7a1a\u5185\u958b\u767a\u5efa\u8a2d\u90e8\u7a1a\u5185\u8fb2\u696d\u4e8b\u52d9\u6240","boring_xml_url":47,"boring_view_url":1,"soilmap_view_url":null,"soiltest_xml_url":47,"soiltest_view_url":47},{"id":350202,"code":"NGIC202002727-0011","latitude":"42.988116666667","longitude":"140.658375","source_code":"","project_name":"\u4e00\u822c\u56fd\u90535\u53f7\u5171\u548c\u753a\u5916\u56fd\u5bcc\u5730\u8cea\u8abf\u67fb\u696d\u52d9","survey_name":"\u4e00\u822c\u56fd\u90535\u53f7\u5171\u548c\u753a\u5916\u56fd\u5bcc\u5730\u8cea\u8abf\u67fb\u696d\u52d9","client_name":"\u56fd\u571f\u4ea4\u901a\u7701\u5317\u6d77\u9053\u958b\u767a\u5c40\u5c0f\u6a3d\u958b\u767a\u5efa\u8a2d\u90e8\u5c0f\u6a3d\u9053\u8def\u4e8b\u52d9\u6240","boring_xml_url":47,"boring_view_url":1,"soilmap_view_url":null,"soiltest_xml_url":0,"soiltest_view_url":0},{"id":350201,"code":"NGIC202002727-0010","latitude":"43.075088888889","longitude":"140.71156111111","source_code":"","project_name":"\u4e00\u822c\u56fd\u90535\u53f7\u5171\u548c\u753a\u5916\u56fd\u5bcc\u5730\u8cea\u8abf\u67fb\u696d\u52d9","survey_name":"\u4e00\u822c\u56fd\u90535\u53f7\u5171\u548c\u753a\u5916\u56fd\u5bcc\u5730\u8cea\u8abf\u67fb\u696d\u52d9","client_name":"\u56fd\u571f\u4ea4\u901a\u7701\u5317\u6d77\u9053\u958b\u767a\u5c40\u5c0f\u6a3d\u958b\u767a\u5efa\u8a2d\u90e8\u5c0f\u6a3d\u9053\u8def\u4e8b\u52d9\u6240","boring_xml_url":47,"boring_view_url":1,"soilmap_view_url":null,"soiltest_xml_url":0,"soiltest_view_url":0},{"id":350200,"code":"NGIC202002727-0009","latitude":"43.074536111111","longitude":"140.71128888889","source_code":"","project_name":"\u4e00\u822c\u56fd\u90535\u53f7\u5171\u548c\u753a\u5916\u56fd\u5bcc\u5730\u8cea\u8abf\u67fb\u696d\u52d9","survey_name":"\u4e00\u822c\u56fd\u90535\u53f7\u5171\u548c\u753a\u5916\u56fd\u5bcc\u5730\u8cea\u8abf\u67fb\u696d\u52d9","client_name":"\u56fd\u571f\u4ea4\u901a\u7701\u5317\u6d77\u9053\u958b\u767a\u5c40\u5c0f\u6a3d\u958b\u767a\u5efa\u8a2d\u90e8\u5c0f\u6a3d\u9053\u8def\u4e8b\u52d9\u6240","boring_xml_url":47,"boring_view_url":1,"soilmap_view_url":null,"soiltest_xml_url":0,"soiltest_view_url":0},{"id":350199,"code":"NGIC202002727-0008","latitude":"42.980525","longitude":"140.6549","source_code":"","project_name":"\u4e00\u822c\u56fd\u90535\u53f7\u5171\u548c\u753a\u5916\u56fd\u5bcc\u5730\u8cea\u8abf\u67fb\u696d\u52d9","survey_name":"\u4e00\u822c\u56fd\u90535\u53f7\u5171\u548c\u753a\u5916\u56fd\u5bcc\u5730\u8cea\u8abf\u67fb\u696d\u52d9","client_name":"\u56fd\u571f\u4ea4\u901a\u7701\u5317\u6d77\u9053\u958b\u767a\u5c40\u5c0f\u6a3d\u958b\u767a\u5efa\u8a2d\u90e8\u5c0f\u6a3d\u9053\u8def\u4e8b\u52d9\u6240","boring_xml_url":47,"boring_view_url":1,"soilmap_view_url":null,"soiltest_xml_url":0,"soiltest_view_url":0},{"id":350198,"code":"NGIC202002727-0007","latitude":"42.980430555556","longitude":"140.65463888889","source_code":"","project_name":"\u4e00\u822c\u56fd\u90535\u53f7\u5171\u548c\u753a\u5916\u56fd\u5bcc\u5730\u8cea\u8abf\u67fb\u696d\u52d9","survey_name":"\u4e00\u822c\u56fd\u90535\u53f7\u5171\u548c\u753a\u5916\u56fd\u5bcc\u5730\u8cea\u8abf\u67fb\u696d\u52d9","client_name":"\u56fd\u571f\u4ea4\u901a\u7701\u5317\u6d77\u9053\u958b\u767a\u5c40\u5c0f\u6a3d\u958b\u767a\u5efa\u8a2d\u90e8\u5c0f\u6a3d\u9053\u8def\u4e8b\u52d9\u6240","boring_xml_url":47,"boring_view_url":1,"soilmap_view_url":null,"soiltest_xml_url":0,"soiltest_view_url":0},{"id":350197,"code":"NGIC202002727-0006","latitude":"42.980225","longitude":"140.65563055556","source_code":"","project_name":"\u4e00\u822c\u56fd\u90535\u53f7\u5171\u548c\u753a\u5916\u56fd\u5bcc\u5730\u8cea\u8abf\u67fb\u696d\u52d9","survey_name":"\u4e00\u822c\u56fd\u90535\u53f7\u5171\u548c\u753a\u5916\u56fd\u5bcc\u5730\u8cea\u8abf\u67fb\u696d\u52d9","client_name":"\u56fd\u571f\u4ea4\u901a\u7701\u5317\u6d77\u9053\u958b\u767a\u5c40\u5c0f\u6a3d\u958b\u767a\u5efa\u8a2d\u90e8\u5c0f\u6a3d\u9053\u8def\u4e8b\u52d9\u6240","boring_xml_url":47,"boring_view_url":1,"soilmap_view_url":null,"soiltest_xml_url":0,"soiltest_view_url":0},{"id":350196,"code":"NGIC202002727-0005","latitude":"42.979875","longitude":"140.65526111111","source_code":"","project_name":"\u4e00\u822c\u56fd\u90535\u53f7\u5171\u548c\u753a\u5916\u56fd\u5bcc\u5730\u8cea\u8abf\u67fb\u696d\u52d9","survey_name":"\u4e00\u822c\u56fd\u90535\u53f7\u5171\u548c\u753a\u5916\u56fd\u5bcc\u5730\u8cea\u8abf\u67fb\u696d\u52d9","client_name":"\u56fd\u571f\u4ea4\u901a\u7701\u5317\u6d77\u9053\u958b\u767a\u5c40\u5c0f\u6a3d\u958b\u767a\u5efa\u8a2d\u90e8\u5c0f\u6a3d\u9053\u8def\u4e8b\u52d9\u6240","boring_xml_url":47,"boring_view_url":1,"soilmap_view_url":null,"soiltest_xml_url":0,"soiltest_view_url":0},{"id":350195,"code":"NGIC202002727-0004","latitude":"42.953413888889","longitude":"140.68968055556","source_code":"","project_name":"\u4e00\u822c\u56fd\u90535\u53f7\u5171\u548c\u753a\u5916\u56fd\u5bcc\u5730\u8cea\u8abf\u67fb\u696d\u52d9","survey_name":"\u4e00\u822c\u56fd\u90535\u53f7\u5171\u548c\u753a\u5916\u56fd\u5bcc\u5730\u8cea\u8abf\u67fb\u696d\u52d9","client_name":"\u56fd\u571f\u4ea4\u901a\u7701\u5317\u6d77\u9053\u958b\u767a\u5c40\u5c0f\u6a3d\u958b\u767a\u5efa\u8a2d\u90e8\u5c0f\u6a3d\u9053\u8def\u4e8b\u52d9\u6240","boring_xml_url":47,"boring_view_url":1,"soilmap_view_url":null,"soiltest_xml_url":0,"soiltest_view_url":0},{"id":350194,"code":"NGIC202002727-0003","latitude":"42.952963888889","longitude":"140.6903","source_code":"","project_name":"\u4e00\u822c\u56fd\u90535\u53f7\u5171\u548c\u753a\u5916\u56fd\u5bcc\u5730\u8cea\u8abf\u67fb\u696d\u52d9","survey_name":"\u4e00\u822c\u56fd\u90535\u53f7\u5171\u548c\u753a\u5916\u56fd\u5bcc\u5730\u8cea\u8abf\u67fb\u696d\u52d9","client_name":"\u56fd\u571f\u4ea4\u901a\u7701\u5317\u6d77\u9053\u958b\u767a\u5c40\u5c0f\u6a3d\u958b\u767a\u5efa\u8a2d\u90e8\u5c0f\u6a3d\u9053\u8def\u4e8b\u52d9\u6240","boring_xml_url":47,"boring_view_url":1,"soilmap_view_url":null,"soiltest_xml_url":0,"soiltest_view_url":0},{"id":350193,"code":"NGIC202002727-0002","latitude":"42.952775","longitude":"140.689825","source_code":"","project_name":"\u4e00\u822c\u56fd\u90535\u53f7\u5171\u548c\u753a\u5916\u56fd\u5bcc\u5730\u8cea\u8abf\u67fb\u696d\u52d9","survey_name":"\u4e00\u822c\u56fd\u90535\u53f7\u5171\u548c\u753a\u5916\u56fd\u5bcc\u5730\u8cea\u8abf\u67fb\u696d\u52d9","client_name":"\u56fd\u571f\u4ea4\u901a\u7701\u5317\u6d77\u9053\u958b\u767a\u5c40\u5c0f\u6a3d\u958b\u767a\u5efa\u8a2d\u90e8\u5c0f\u6a3d\u9053\u8def\u4e8b\u52d9\u6240","boring_xml_url":47,"boring_view_url":1,"soilmap_view_url":null,"soiltest_xml_url":0,"soiltest_view_url":0},{"id":350192,"code":"NGIC202002727-0001","latitude":"42.952808333333","longitude":"140.69011111111","source_code":"","project_name":"\u4e00\u822c\u56fd\u90535\u53f7\u5171\u548c\u753a\u5916\u56fd\u5bcc\u5730\u8cea\u8abf\u67fb\u696d\u52d9","survey_name":"\u4e00\u822c\u56fd\u90535\u53f7\u5171\u548c\u753a\u5916\u56fd\u5bcc\u5730\u8cea\u8abf\u67fb\u696d\u52d9","client_name":"\u56fd\u571f\u4ea4\u901a\u7701\u5317\u6d77\u9053\u958b\u767a\u5c40\u5c0f\u6a3d\u958b\u767a\u5efa\u8a2d\u90e8\u5c0f\u6a3d\u9053\u8def\u4e8b\u52d9\u6240","boring_xml_url":47,"boring_view_url":1,"soilmap_view_url":null,"soiltest_xml_url":0,"soiltest_view_url":0},{"id":350181,"code":"NGIC202002697-0005","latitude":"34.919869555556","longitude":"135.91257233333","source_code":"","project_name":"","survey_name":"\u9e7f\u8df3\u5730\u533a\u5730\u8cea\u8abf\u67fb\u696d\u52d9","client_name":"\u56fd\u571f\u4ea4\u901a\u7701\u8fd1\u757f\u5730\u65b9\u6574\u5099\u5c40\u7435\u7436\u6e56\u6cb3\u5ddd\u4e8b\u52d9\u6240","boring_xml_url":47,"boring_view_url":1,"soilmap_view_url":null,"soiltest_xml_url":47,"soiltest_view_url":47},{"id":350180,"code":"NGIC202002697-0004","latitude":"34.921579444444","longitude":"135.91297538889","source_code":"","project_name":"","survey_name":"\u9e7f\u8df3\u5730\u533a\u5730\u8cea\u8abf\u67fb\u696d\u52d9","client_name":"\u56fd\u571f\u4ea4\u901a\u7701\u8fd1\u757f\u5730\u65b9\u6574\u5099\u5c40\u7435\u7436\u6e56\u6cb3\u5ddd\u4e8b\u52d9\u6240","boring_xml_url":47,"boring_view_url":1,"soilmap_view_url":null,"soiltest_xml_url":0,"soiltest_view_url":0},{"id":350179,"code":"NGIC202002697-0003","latitude":"34.917127638889","longitude":"135.91309208333","source_code":"","project_name":"","survey_name":"\u9e7f\u8df3\u5730\u533a\u5730\u8cea\u8abf\u67fb\u696d\u52d9","client_name":"\u56fd\u571f\u4ea4\u901a\u7701\u8fd1\u757f\u5730\u65b9\u6574\u5099\u5c40\u7435\u7436\u6e56\u6cb3\u5ddd\u4e8b\u52d9\u6240","boring_xml_url":47,"boring_view_url":1,"soilmap_view_url":null,"soiltest_xml_url":47,"soiltest_view_url":47},{"id":350178,"code":"NGIC202002697-0002","latitude":"34.91586075","longitude":"135.91338047222","source_code":"","project_name":"","survey_name":"\u9e7f\u8df3\u5730\u533a\u5730\u8cea\u8abf\u67fb\u696d\u52d9","client_name":"\u56fd\u571f\u4ea4\u901a\u7701\u8fd1\u757f\u5730\u65b9\u6574\u5099\u5c40\u7435\u7436\u6e56\u6cb3\u5ddd\u4e8b\u52d9\u6240","boring_xml_url":47,"boring_view_url":1,"soilmap_view_url":null,"soiltest_xml_url":47,"soiltest_view_url":47},{"id":350177,"code":"NGIC202002697-0001","latitude":"34.914721","longitude":"135.91350647222","source_code":"","project_name":"","survey_name":"\u9e7f\u8df3\u5730\u533a\u5730\u8cea\u8abf\u67fb\u696d\u52d9","client_name":"\u56fd\u571f\u4ea4\u901a\u7701\u8fd1\u757f\u5730\u65b9\u6574\u5099\u5c40\u7435\u7436\u6e56\u6cb3\u5ddd\u4e8b\u52d9\u6240","boring_xml_url":47,"boring_view_url":1,"soilmap_view_url":null,"soiltest_xml_url":47,"soiltest_view_url":47},{"id":350176,"code":"NGIC202002690-0010","latitude":"34.779359055556","longitude":"135.19253825","source_code":"","project_name":"","survey_name":"\u795e\u6238\u5e02\u57df\u4ed6\u7802\u9632\u5830\u5824\u8a2d\u8a08\u696d\u52d9","client_name":"\u56fd\u571f\u4ea4\u901a\u7701\u8fd1\u757f\u5730\u65b9\u6574\u5099\u5c40\u516d\u7532\u7802\u9632\u4e8b\u52d9\u6240","boring_xml_url":47,"boring_view_url":1,"soilmap_view_url":null,"soiltest_xml_url":0,"soiltest_view_url":0},{"id":350175,"code":"NGIC202002690-0009","latitude":"34.779465611111","longitude":"135.1925155","source_code":"","project_name":"","survey_name":"\u795e\u6238\u5e02\u57df\u4ed6\u7802\u9632\u5830\u5824\u8a2d\u8a08\u696d\u52d9","client_name":"\u56fd\u571f\u4ea4\u901a\u7701\u8fd1\u757f\u5730\u65b9\u6574\u5099\u5c40\u516d\u7532\u7802\u9632\u4e8b\u52d9\u6240","boring_xml_url":47,"boring_view_url":1,"soilmap_view_url":null,"soiltest_xml_url":0,"soiltest_view_url":0},{"id":350174,"code":"NGIC202002690-0008","latitude":"34.779431833333","longitude":"135.19265780556","source_code":"","project_name":"","survey_name":"\u795e\u6238\u5e02\u57df\u4ed6\u7802\u9632\u5830\u5824\u8a2d\u8a08\u696d\u52d9","client_name":"\u56fd\u571f\u4ea4\u901a\u7701\u8fd1\u757f\u5730\u65b9\u6574\u5099\u5c40\u516d\u7532\u7802\u9632\u4e8b\u52d9\u6240","boring_xml_url":47,"boring_view_url":1,"soilmap_view_url":null,"soiltest_xml_url":0,"soiltest_view_url":0},{"id":350173,"code":"NGIC202002690-0007","latitude":"34.779397861111","longitude":"135.19242094444","source_code":"","project_name":"","survey_name":"\u795e\u6238\u5e02\u57df\u4ed6\u7802\u9632\u5830\u5824\u8a2d\u8a08\u696d\u52d9","client_name":"\u56fd\u571f\u4ea4\u901a\u7701\u8fd1\u757f\u5730\u65b9\u6574\u5099\u5c40\u516d\u7532\u7802\u9632\u4e8b\u52d9\u6240","boring_xml_url":47,"boring_view_url":1,"soilmap_view_url":null,"soiltest_xml_url":0,"soiltest_view_url":0},{"id":350172,"code":"NGIC202002690-0006","latitude":"34.779413722222","longitude":"135.19255066667","source_code":"","project_name":"","survey_name":"\u795e\u6238\u5e02\u57df\u4ed6\u7802\u9632\u5830\u5824\u8a2d\u8a08\u696d\u52d9","client_name":"\u56fd\u571f\u4ea4\u901a\u7701\u8fd1\u757f\u5730\u65b9\u6574\u5099\u5c40\u516d\u7532\u7802\u9632\u4e8b\u52d9\u6240","boring_xml_url":47,"boring_view_url":1,"soilmap_view_url":null,"soiltest_xml_url":0,"soiltest_view_url":0},{"id":350171,"code":"NGIC202002690-0005","latitude":"34.675022111111","longitude":"135.13935736111","source_code":"","project_name":"","survey_name":"\u795e\u6238\u5e02\u57df\u4ed6\u7802\u9632\u5830\u5824\u8a2d\u8a08\u696d\u52d9","client_name":"\u56fd\u571f\u4ea4\u901a\u7701\u8fd1\u757f\u5730\u65b9\u6574\u5099\u5c40\u516d\u7532\u7802\u9632\u4e8b\u52d9\u6240","boring_xml_url":47,"boring_view_url":1,"soilmap_view_url":null,"soiltest_xml_url":0,"soiltest_view_url":0},{"id":350170,"code":"NGIC202002690-0004","latitude":"34.6752595","longitude":"135.13906602778","source_code":"","project_name":"","survey_name":"\u795e\u6238\u5e02\u57df\u4ed6\u7802\u9632\u5830\u5824\u8a2d\u8a08\u696d\u52d9","client_name":"\u56fd\u571f\u4ea4\u901a\u7701\u8fd1\u757f\u5730\u65b9\u6574\u5099\u5c40\u516d\u7532\u7802\u9632\u4e8b\u52d9\u6240","boring_xml_url":47,"boring_view_url":1,"soilmap_view_url":null,"soiltest_xml_url":0,"soiltest_view_url":0},{"id":350169,"code":"NGIC202002690-0003","latitude":"34.675263666667","longitude":"135.13929477778","source_code":"","project_name":"","survey_name":"\u795e\u6238\u5e02\u57df\u4ed6\u7802\u9632\u5830\u5824\u8a2d\u8a08\u696d\u52d9","client_name":"\u56fd\u571f\u4ea4\u901a\u7701\u8fd1\u757f\u5730\u65b9\u6574\u5099\u5c40\u516d\u7532\u7802\u9632\u4e8b\u52d9\u6240","boring_xml_url":47,"boring_view_url":1,"soilmap_view_url":null,"soiltest_xml_url":0,"soiltest_view_url":0},{"id":350168,"code":"NGIC202002690-0002","latitude":"34.675059805556","longitude":"135.13903761111","source_code":"","project_name":"","survey_name":"\u795e\u6238\u5e02\u57df\u4ed6\u7802\u9632\u5830\u5824\u8a2d\u8a08\u696d\u52d9","client_name":"\u56fd\u571f\u4ea4\u901a\u7701\u8fd1\u757f\u5730\u65b9\u6574\u5099\u5c40\u516d\u7532\u7802\u9632\u4e8b\u52d9\u6240","boring_xml_url":47,"boring_view_url":1,"soilmap_view_url":null,"soiltest_xml_url":0,"soiltest_view_url":0},{"id":350167,"code":"NGIC202002690-0001","latitude":"34.675170861111","longitude":"135.13917480556","source_code":"","project_name":"","survey_name":"\u795e\u6238\u5e02\u57df\u4ed6\u7802\u9632\u5830\u5824\u8a2d\u8a08\u696d\u52d9","client_name":"\u56fd\u571f\u4ea4\u901a\u7701\u8fd1\u757f\u5730\u65b9\u6574\u5099\u5c40\u516d\u7532\u7802\u9632\u4e8b\u52d9\u6240","boring_xml_url":47,"boring_view_url":1,"soilmap_view_url":null,"soiltest_xml_url":0,"soiltest_view_url":0},{"id":350145,"code":"NGIC202002722-0005","latitude":"33.834604722222","longitude":"131.03791916667","source_code":"","project_name":"\n      ","survey_name":"\u4ee4\u548c2\u5e74\u5ea6\u5317\u4e5d\u5dde\u7a7a\u6e2f\u571f\u8cea\u8abf\u67fb","client_name":"\u56fd\u571f\u4ea4\u901a\u7701\u4e5d\u5dde\u5730\u65b9\u6574\u5099\u5c40\u5317\u4e5d\u5dde\u6e2f\u6e7e\u30fb\u7a7a\u6e2f\u6574\u5099\u4e8b\u52d9\u6240","boring_xml_url":47,"boring_view_url":1,"soilmap_view_url":71,"soiltest_xml_url":47,"soiltest_view_url":47},{"id":350144,"code":"NGIC202002722-0004","latitude":"33.831741388889","longitude":"131.03817333333","source_code":"","project_name":"\n      ","survey_name":"\u4ee4\u548c2\u5e74\u5ea6\u5317\u4e5d\u5dde\u7a7a\u6e2f\u571f\u8cea\u8abf\u67fb","client_name":"\u56fd\u571f\u4ea4\u901a\u7701\u4e5d\u5dde\u5730\u65b9\u6574\u5099\u5c40\u5317\u4e5d\u5dde\u6e2f\u6e7e\u30fb\u7a7a\u6e2f\u6574\u5099\u4e8b\u52d9\u6240","boring_xml_url":47,"boring_view_url":1,"soilmap_view_url":71,"soiltest_xml_url":47,"soiltest_view_url":47},{"id":350143,"code":"NGIC202002722-0003","latitude":"33.829563611111","longitude":"131.03861694444","source_code":"","project_name":"\n      ","survey_name":"\u4ee4\u548c2\u5e74\u5ea6\u5317\u4e5d\u5dde\u7a7a\u6e2f\u571f\u8cea\u8abf\u67fb","client_name":"\u56fd\u571f\u4ea4\u901a\u7701\u4e5d\u5dde\u5730\u65b9\u6574\u5099\u5c40\u5317\u4e5d\u5dde\u6e2f\u6e7e\u30fb\u7a7a\u6e2f\u6574\u5099\u4e8b\u52d9\u6240","boring_xml_url":47,"boring_view_url":1,"soilmap_view_url":71,"soiltest_xml_url":47,"soiltest_view_url":47}]}}