{"header":{"xyz":{"source":[],"mosaic":false},"page":2069,"raw":{"soiltest_result":"0","bbox":"57.598333,109.544722,1.933333,163.806111","page":"2069"},"conditions":{"soiltest_result":0,"north":57.598333,"west":109.544722,"south":1.933333,"east":163.806111},"success":true,"message":""},"data":{"meta":{"total":212844,"page":2069,"pages":7095,"count":30},"values":[{"id":349179,"code":"NGIC202002481-0002","latitude":"35.291820277778","longitude":"132.65231694444","source_code":"","project_name":"","survey_name":"\u6e56\u9675\u591a\u4f0e\u9053\u8def\u591a\u4f0e\u5730\u533a\u5916\u5730\u8cea\u8abf\u67fb\u696d\u52d9","client_name":"\u56fd\u571f\u4ea4\u901a\u7701\u4e2d\u56fd\u5730\u65b9\u6574\u5099\u5c40\u677e\u6c5f\u56fd\u9053\u4e8b\u52d9\u6240","boring_xml_url":47,"boring_view_url":1,"soilmap_view_url":null,"soiltest_xml_url":0,"soiltest_view_url":0},{"id":349178,"code":"NGIC202002481-0001","latitude":"35.291636388889","longitude":"132.65238055556","source_code":"","project_name":"","survey_name":"\u6e56\u9675\u591a\u4f0e\u9053\u8def\u591a\u4f0e\u5730\u533a\u5916\u5730\u8cea\u8abf\u67fb\u696d\u52d9","client_name":"\u56fd\u571f\u4ea4\u901a\u7701\u4e2d\u56fd\u5730\u65b9\u6574\u5099\u5c40\u677e\u6c5f\u56fd\u9053\u4e8b\u52d9\u6240","boring_xml_url":47,"boring_view_url":1,"soilmap_view_url":null,"soiltest_xml_url":0,"soiltest_view_url":0},{"id":349175,"code":"NGIC202002479-0002","latitude":"33.949097222222","longitude":"134.60536666667","source_code":"","project_name":"","survey_name":"\u4ee4\u548c2\u5e74\u5ea6\u7fbd\u30ce\u6d66\u5730\u533a\u5916\u5730\u8cea\u8abf\u67fb\u696d\u52d9","client_name":"\u56fd\u571f\u4ea4\u901a\u7701\u56db\u56fd\u5730\u65b9\u6574\u5099\u5c40\u5fb3\u5cf6\u6cb3\u5ddd\u56fd\u9053\u4e8b\u52d9\u6240","boring_xml_url":47,"boring_view_url":1,"soilmap_view_url":null,"soiltest_xml_url":0,"soiltest_view_url":0},{"id":349174,"code":"NGIC202002479-0001","latitude":"33.958794444444","longitude":"134.59506944444","source_code":"","project_name":"","survey_name":"\u4ee4\u548c2\u5e74\u5ea6\u7fbd\u30ce\u6d66\u5730\u533a\u5916\u5730\u8cea\u8abf\u67fb\u696d\u52d9","client_name":"\u56fd\u571f\u4ea4\u901a\u7701\u56db\u56fd\u5730\u65b9\u6574\u5099\u5c40\u5fb3\u5cf6\u6cb3\u5ddd\u56fd\u9053\u4e8b\u52d9\u6240","boring_xml_url":47,"boring_view_url":1,"soilmap_view_url":null,"soiltest_xml_url":0,"soiltest_view_url":0},{"id":349172,"code":"NGIC202002478-0006","latitude":"34.630444444444","longitude":"133.72216666667","source_code":"","project_name":"","survey_name":"\u9ad8\u6881\u5ddd\u6c34\u7cfb\u5c0f\u7530\u5ddd\u5bae\u7530\u5830\u5730\u8cea\u8abf\u67fb\u696d\u52d9","client_name":"\u56fd\u571f\u4ea4\u901a\u7701\u4e2d\u56fd\u5730\u65b9\u6574\u5099\u5c40\u5ca1\u5c71\u6cb3\u5ddd\u4e8b\u52d9\u6240","boring_xml_url":47,"boring_view_url":1,"soilmap_view_url":null,"soiltest_xml_url":47,"soiltest_view_url":47},{"id":349171,"code":"NGIC202002478-0005","latitude":"34.573027777778","longitude":"133.71261111111","source_code":"","project_name":"","survey_name":"\u9ad8\u6881\u5ddd\u6c34\u7cfb\u5c0f\u7530\u5ddd\u5bae\u7530\u5830\u5730\u8cea\u8abf\u67fb\u696d\u52d9","client_name":"\u56fd\u571f\u4ea4\u901a\u7701\u4e2d\u56fd\u5730\u65b9\u6574\u5099\u5c40\u5ca1\u5c71\u6cb3\u5ddd\u4e8b\u52d9\u6240","boring_xml_url":47,"boring_view_url":1,"soilmap_view_url":null,"soiltest_xml_url":47,"soiltest_view_url":47},{"id":349170,"code":"NGIC202002478-0004","latitude":"34.573083333333","longitude":"133.71252777778","source_code":"","project_name":"","survey_name":"\u9ad8\u6881\u5ddd\u6c34\u7cfb\u5c0f\u7530\u5ddd\u5bae\u7530\u5830\u5730\u8cea\u8abf\u67fb\u696d\u52d9","client_name":"\u56fd\u571f\u4ea4\u901a\u7701\u4e2d\u56fd\u5730\u65b9\u6574\u5099\u5c40\u5ca1\u5c71\u6cb3\u5ddd\u4e8b\u52d9\u6240","boring_xml_url":47,"boring_view_url":1,"soilmap_view_url":null,"soiltest_xml_url":47,"soiltest_view_url":47},{"id":349169,"code":"NGIC202002478-0003","latitude":"34.570722222222","longitude":"133.71119444444","source_code":"","project_name":"","survey_name":"\u9ad8\u6881\u5ddd\u6c34\u7cfb\u5c0f\u7530\u5ddd\u5bae\u7530\u5830\u5730\u8cea\u8abf\u67fb\u696d\u52d9","client_name":"\u56fd\u571f\u4ea4\u901a\u7701\u4e2d\u56fd\u5730\u65b9\u6574\u5099\u5c40\u5ca1\u5c71\u6cb3\u5ddd\u4e8b\u52d9\u6240","boring_xml_url":47,"boring_view_url":1,"soilmap_view_url":null,"soiltest_xml_url":47,"soiltest_view_url":47},{"id":349168,"code":"NGIC202002478-0002","latitude":"34.620472222222","longitude":"133.68091666667","source_code":"","project_name":"","survey_name":"\u9ad8\u6881\u5ddd\u6c34\u7cfb\u5c0f\u7530\u5ddd\u5bae\u7530\u5830\u5730\u8cea\u8abf\u67fb\u696d\u52d9","client_name":"\u56fd\u571f\u4ea4\u901a\u7701\u4e2d\u56fd\u5730\u65b9\u6574\u5099\u5c40\u5ca1\u5c71\u6cb3\u5ddd\u4e8b\u52d9\u6240","boring_xml_url":47,"boring_view_url":1,"soilmap_view_url":null,"soiltest_xml_url":0,"soiltest_view_url":0},{"id":349167,"code":"NGIC202002478-0001","latitude":"34.620944444444","longitude":"133.68088888889","source_code":"","project_name":"","survey_name":"\u9ad8\u6881\u5ddd\u6c34\u7cfb\u5c0f\u7530\u5ddd\u5bae\u7530\u5830\u5730\u8cea\u8abf\u67fb\u696d\u52d9","client_name":"\u56fd\u571f\u4ea4\u901a\u7701\u4e2d\u56fd\u5730\u65b9\u6574\u5099\u5c40\u5ca1\u5c71\u6cb3\u5ddd\u4e8b\u52d9\u6240","boring_xml_url":47,"boring_view_url":1,"soilmap_view_url":null,"soiltest_xml_url":47,"soiltest_view_url":47},{"id":349151,"code":"NGIC202002473-0007","latitude":"33.599452138889","longitude":"134.33332","source_code":"","project_name":"\u4ee4\u548c2\u5e74\u5ea6\u6d77\u90e8\u91ce\u6839\u9053\u8def\u5730\u8cea\u8abf\u67fb(\u6d77\u5357\u30fb\u6d77\u90e8\u5730\u533a\u305d\u306e2)\u696d\u52d9","survey_name":"\u4ee4\u548c2\u5e74\u5ea6\u6d77\u90e8\u91ce\u6839\u9053\u8def\u5730\u8cea\u8abf\u67fb(\u6d77\u5357\u30fb\u6d77\u90e8\u5730\u533a\u305d\u306e2)\u696d\u52d9","client_name":"\u56fd\u571f\u4ea4\u901a\u7701\u56db\u56fd\u5730\u65b9\u6574\u5099\u5c40\u5fb3\u5cf6\u6cb3\u5ddd\u56fd\u9053\u4e8b\u52d9\u6240","boring_xml_url":47,"boring_view_url":1,"soilmap_view_url":null,"soiltest_xml_url":0,"soiltest_view_url":0},{"id":349150,"code":"NGIC202002473-0006","latitude":"33.599715694444","longitude":"134.33349197222","source_code":"","project_name":"\u4ee4\u548c2\u5e74\u5ea6\u6d77\u90e8\u91ce\u6839\u9053\u8def\u5730\u8cea\u8abf\u67fb(\u6d77\u5357\u30fb\u6d77\u90e8\u5730\u533a\u305d\u306e2)\u696d\u52d9","survey_name":"\u4ee4\u548c2\u5e74\u5ea6\u6d77\u90e8\u91ce\u6839\u9053\u8def\u5730\u8cea\u8abf\u67fb(\u6d77\u5357\u30fb\u6d77\u90e8\u5730\u533a\u305d\u306e2)\u696d\u52d9","client_name":"\u56fd\u571f\u4ea4\u901a\u7701\u56db\u56fd\u5730\u65b9\u6574\u5099\u5c40\u5fb3\u5cf6\u6cb3\u5ddd\u56fd\u9053\u4e8b\u52d9\u6240","boring_xml_url":47,"boring_view_url":1,"soilmap_view_url":null,"soiltest_xml_url":47,"soiltest_view_url":47},{"id":349149,"code":"NGIC202002473-0005","latitude":"33.602654166667","longitude":"134.33661961111","source_code":"","project_name":"\u4ee4\u548c2\u5e74\u5ea6\u6d77\u90e8\u91ce\u6839\u9053\u8def\u5730\u8cea\u8abf\u67fb(\u6d77\u5357\u30fb\u6d77\u90e8\u5730\u533a\u305d\u306e2)\u696d\u52d9","survey_name":"\u4ee4\u548c2\u5e74\u5ea6\u6d77\u90e8\u91ce\u6839\u9053\u8def\u5730\u8cea\u8abf\u67fb(\u6d77\u5357\u30fb\u6d77\u90e8\u5730\u533a\u305d\u306e2)\u696d\u52d9","client_name":"\u56fd\u571f\u4ea4\u901a\u7701\u56db\u56fd\u5730\u65b9\u6574\u5099\u5c40\u5fb3\u5cf6\u6cb3\u5ddd\u56fd\u9053\u4e8b\u52d9\u6240","boring_xml_url":47,"boring_view_url":1,"soilmap_view_url":null,"soiltest_xml_url":47,"soiltest_view_url":47},{"id":349148,"code":"NGIC202002473-0004","latitude":"33.603912361111","longitude":"134.33791175","source_code":"","project_name":"\u4ee4\u548c2\u5e74\u5ea6\u6d77\u90e8\u91ce\u6839\u9053\u8def\u5730\u8cea\u8abf\u67fb(\u6d77\u5357\u30fb\u6d77\u90e8\u5730\u533a\u305d\u306e2)\u696d\u52d9","survey_name":"\u4ee4\u548c2\u5e74\u5ea6\u6d77\u90e8\u91ce\u6839\u9053\u8def\u5730\u8cea\u8abf\u67fb(\u6d77\u5357\u30fb\u6d77\u90e8\u5730\u533a\u305d\u306e2)\u696d\u52d9","client_name":"\u56fd\u571f\u4ea4\u901a\u7701\u56db\u56fd\u5730\u65b9\u6574\u5099\u5c40\u5fb3\u5cf6\u6cb3\u5ddd\u56fd\u9053\u4e8b\u52d9\u6240","boring_xml_url":47,"boring_view_url":1,"soilmap_view_url":null,"soiltest_xml_url":47,"soiltest_view_url":47},{"id":349147,"code":"NGIC202002473-0003","latitude":"33.605074833333","longitude":"134.33910563889","source_code":"","project_name":"\u4ee4\u548c2\u5e74\u5ea6\u6d77\u90e8\u91ce\u6839\u9053\u8def\u5730\u8cea\u8abf\u67fb(\u6d77\u5357\u30fb\u6d77\u90e8\u5730\u533a\u305d\u306e2)\u696d\u52d9","survey_name":"\u4ee4\u548c2\u5e74\u5ea6\u6d77\u90e8\u91ce\u6839\u9053\u8def\u5730\u8cea\u8abf\u67fb(\u6d77\u5357\u30fb\u6d77\u90e8\u5730\u533a\u305d\u306e2)\u696d\u52d9","client_name":"\u56fd\u571f\u4ea4\u901a\u7701\u56db\u56fd\u5730\u65b9\u6574\u5099\u5c40\u5fb3\u5cf6\u6cb3\u5ddd\u56fd\u9053\u4e8b\u52d9\u6240","boring_xml_url":47,"boring_view_url":1,"soilmap_view_url":null,"soiltest_xml_url":47,"soiltest_view_url":47},{"id":349146,"code":"NGIC202002473-0002","latitude":"33.6058595","longitude":"134.33995102778","source_code":"","project_name":"\u4ee4\u548c2\u5e74\u5ea6\u6d77\u90e8\u91ce\u6839\u9053\u8def\u5730\u8cea\u8abf\u67fb(\u6d77\u5357\u30fb\u6d77\u90e8\u5730\u533a\u305d\u306e2)\u696d\u52d9","survey_name":"\u4ee4\u548c2\u5e74\u5ea6\u6d77\u90e8\u91ce\u6839\u9053\u8def\u5730\u8cea\u8abf\u67fb(\u6d77\u5357\u30fb\u6d77\u90e8\u5730\u533a\u305d\u306e2)\u696d\u52d9","client_name":"\u56fd\u571f\u4ea4\u901a\u7701\u56db\u56fd\u5730\u65b9\u6574\u5099\u5c40\u5fb3\u5cf6\u6cb3\u5ddd\u56fd\u9053\u4e8b\u52d9\u6240","boring_xml_url":47,"boring_view_url":1,"soilmap_view_url":null,"soiltest_xml_url":47,"soiltest_view_url":47},{"id":349145,"code":"NGIC202002473-0001","latitude":"33.606066333333","longitude":"134.34012394444","source_code":"","project_name":"\u4ee4\u548c2\u5e74\u5ea6\u6d77\u90e8\u91ce\u6839\u9053\u8def\u5730\u8cea\u8abf\u67fb(\u6d77\u5357\u30fb\u6d77\u90e8\u5730\u533a\u305d\u306e2)\u696d\u52d9","survey_name":"\u4ee4\u548c2\u5e74\u5ea6\u6d77\u90e8\u91ce\u6839\u9053\u8def\u5730\u8cea\u8abf\u67fb(\u6d77\u5357\u30fb\u6d77\u90e8\u5730\u533a\u305d\u306e2)\u696d\u52d9","client_name":"\u56fd\u571f\u4ea4\u901a\u7701\u56db\u56fd\u5730\u65b9\u6574\u5099\u5c40\u5fb3\u5cf6\u6cb3\u5ddd\u56fd\u9053\u4e8b\u52d9\u6240","boring_xml_url":47,"boring_view_url":1,"soilmap_view_url":null,"soiltest_xml_url":47,"soiltest_view_url":47},{"id":349133,"code":"NGIC202002500-0002","latitude":"43.356180694444","longitude":"141.78870380556","source_code":"","project_name":"\u56fd\u55b6\u8fb2\u5730\u518d\u7de8\u6574\u5099\u4e8b\u696d","survey_name":"\u4ee4\u548c2\u5e74\u5ea6\u65bd\u884c\u7f8e\u5504\u8336\u5fd7\u5185\u5730\u533a75\u30fb80\u30fb81\u30fb82\u5de5\u533a\u533a\u753b\u6574\u7406\u8a2d\u8a08\u7b49\u696d\u52d9","client_name":"\u56fd\u571f\u4ea4\u901a\u7701\u5317\u6d77\u9053\u958b\u767a\u5c40\u672d\u5e4c\u958b\u767a\u5efa\u8a2d\u90e8\u3000\u5ca9\u898b\u6ca2\u8fb2\u696d\u4e8b\u52d9\u6240","boring_xml_url":47,"boring_view_url":1,"soilmap_view_url":null,"soiltest_xml_url":47,"soiltest_view_url":47},{"id":349132,"code":"NGIC202002500-0001","latitude":"43.356029166667","longitude":"141.7826915","source_code":"","project_name":"\u56fd\u55b6\u8fb2\u5730\u518d\u7de8\u6574\u5099\u4e8b\u696d","survey_name":"\u4ee4\u548c2\u5e74\u5ea6\u65bd\u884c\u7f8e\u5504\u8336\u5fd7\u5185\u5730\u533a75\u30fb80\u30fb81\u30fb82\u5de5\u533a\u533a\u753b\u6574\u7406\u8a2d\u8a08\u7b49\u696d\u52d9","client_name":"\u56fd\u571f\u4ea4\u901a\u7701\u5317\u6d77\u9053\u958b\u767a\u5c40\u672d\u5e4c\u958b\u767a\u5efa\u8a2d\u90e8\u3000\u5ca9\u898b\u6ca2\u8fb2\u696d\u4e8b\u52d9\u6240","boring_xml_url":47,"boring_view_url":1,"soilmap_view_url":null,"soiltest_xml_url":47,"soiltest_view_url":47},{"id":349088,"code":"NGIC202002496-0022","latitude":"34.456109694444","longitude":"135.74507283333","source_code":"","project_name":"\u5927\u548c\u5fa1\u6240\u9053\u8def\u5fa1\u6240\u5e02\u57df\u5730\u8cea\u8abf\u67fb\u696d\u52d9","survey_name":"\u5927\u548c\u5fa1\u6240\u9053\u8def\u5fa1\u6240\u5e02\u57df\u5730\u8cea\u8abf\u67fb\u696d\u52d9","client_name":"\u56fd\u571f\u4ea4\u901a\u7701\u8fd1\u757f\u5730\u65b9\u6574\u5099\u5c40\u5948\u826f\u56fd\u9053\u4e8b\u52d9\u6240","boring_xml_url":47,"boring_view_url":1,"soilmap_view_url":null,"soiltest_xml_url":47,"soiltest_view_url":47},{"id":349087,"code":"NGIC202002496-0021","latitude":"34.456191694444","longitude":"135.74524138889","source_code":"","project_name":"\u5927\u548c\u5fa1\u6240\u9053\u8def\u5fa1\u6240\u5e02\u57df\u5730\u8cea\u8abf\u67fb\u696d\u52d9","survey_name":"\u5927\u548c\u5fa1\u6240\u9053\u8def\u5fa1\u6240\u5e02\u57df\u5730\u8cea\u8abf\u67fb\u696d\u52d9","client_name":"\u56fd\u571f\u4ea4\u901a\u7701\u8fd1\u757f\u5730\u65b9\u6574\u5099\u5c40\u5948\u826f\u56fd\u9053\u4e8b\u52d9\u6240","boring_xml_url":47,"boring_view_url":1,"soilmap_view_url":null,"soiltest_xml_url":47,"soiltest_view_url":47},{"id":349086,"code":"NGIC202002496-0020","latitude":"34.456432888889","longitude":"135.74574833333","source_code":"","project_name":"\u5927\u548c\u5fa1\u6240\u9053\u8def\u5fa1\u6240\u5e02\u57df\u5730\u8cea\u8abf\u67fb\u696d\u52d9","survey_name":"\u5927\u548c\u5fa1\u6240\u9053\u8def\u5fa1\u6240\u5e02\u57df\u5730\u8cea\u8abf\u67fb\u696d\u52d9","client_name":"\u56fd\u571f\u4ea4\u901a\u7701\u8fd1\u757f\u5730\u65b9\u6574\u5099\u5c40\u5948\u826f\u56fd\u9053\u4e8b\u52d9\u6240","boring_xml_url":47,"boring_view_url":1,"soilmap_view_url":null,"soiltest_xml_url":47,"soiltest_view_url":47},{"id":349085,"code":"NGIC202002496-0019","latitude":"34.456792194444","longitude":"135.74647858333","source_code":"","project_name":"\u5927\u548c\u5fa1\u6240\u9053\u8def\u5fa1\u6240\u5e02\u57df\u5730\u8cea\u8abf\u67fb\u696d\u52d9","survey_name":"\u5927\u548c\u5fa1\u6240\u9053\u8def\u5fa1\u6240\u5e02\u57df\u5730\u8cea\u8abf\u67fb\u696d\u52d9","client_name":"\u56fd\u571f\u4ea4\u901a\u7701\u8fd1\u757f\u5730\u65b9\u6574\u5099\u5c40\u5948\u826f\u56fd\u9053\u4e8b\u52d9\u6240","boring_xml_url":47,"boring_view_url":1,"soilmap_view_url":null,"soiltest_xml_url":47,"soiltest_view_url":47},{"id":349084,"code":"NGIC202002496-0018","latitude":"34.456879638889","longitude":"135.7466435","source_code":"","project_name":"\u5927\u548c\u5fa1\u6240\u9053\u8def\u5fa1\u6240\u5e02\u57df\u5730\u8cea\u8abf\u67fb\u696d\u52d9","survey_name":"\u5927\u548c\u5fa1\u6240\u9053\u8def\u5fa1\u6240\u5e02\u57df\u5730\u8cea\u8abf\u67fb\u696d\u52d9","client_name":"\u56fd\u571f\u4ea4\u901a\u7701\u8fd1\u757f\u5730\u65b9\u6574\u5099\u5c40\u5948\u826f\u56fd\u9053\u4e8b\u52d9\u6240","boring_xml_url":47,"boring_view_url":1,"soilmap_view_url":null,"soiltest_xml_url":47,"soiltest_view_url":47},{"id":349083,"code":"NGIC202002496-0017","latitude":"34.456972861111","longitude":"135.74681247222","source_code":"","project_name":"\u5927\u548c\u5fa1\u6240\u9053\u8def\u5fa1\u6240\u5e02\u57df\u5730\u8cea\u8abf\u67fb\u696d\u52d9","survey_name":"\u5927\u548c\u5fa1\u6240\u9053\u8def\u5fa1\u6240\u5e02\u57df\u5730\u8cea\u8abf\u67fb\u696d\u52d9","client_name":"\u56fd\u571f\u4ea4\u901a\u7701\u8fd1\u757f\u5730\u65b9\u6574\u5099\u5c40\u5948\u826f\u56fd\u9053\u4e8b\u52d9\u6240","boring_xml_url":47,"boring_view_url":1,"soilmap_view_url":null,"soiltest_xml_url":47,"soiltest_view_url":47},{"id":349082,"code":"NGIC202002496-0016","latitude":"34.457939527778","longitude":"135.74752008333","source_code":"","project_name":"\u5927\u548c\u5fa1\u6240\u9053\u8def\u5fa1\u6240\u5e02\u57df\u5730\u8cea\u8abf\u67fb\u696d\u52d9","survey_name":"\u5927\u548c\u5fa1\u6240\u9053\u8def\u5fa1\u6240\u5e02\u57df\u5730\u8cea\u8abf\u67fb\u696d\u52d9","client_name":"\u56fd\u571f\u4ea4\u901a\u7701\u8fd1\u757f\u5730\u65b9\u6574\u5099\u5c40\u5948\u826f\u56fd\u9053\u4e8b\u52d9\u6240","boring_xml_url":47,"boring_view_url":1,"soilmap_view_url":null,"soiltest_xml_url":47,"soiltest_view_url":47},{"id":349081,"code":"NGIC202002496-0015","latitude":"34.45808275","longitude":"135.74769533333","source_code":"","project_name":"\u5927\u548c\u5fa1\u6240\u9053\u8def\u5fa1\u6240\u5e02\u57df\u5730\u8cea\u8abf\u67fb\u696d\u52d9","survey_name":"\u5927\u548c\u5fa1\u6240\u9053\u8def\u5fa1\u6240\u5e02\u57df\u5730\u8cea\u8abf\u67fb\u696d\u52d9","client_name":"\u56fd\u571f\u4ea4\u901a\u7701\u8fd1\u757f\u5730\u65b9\u6574\u5099\u5c40\u5948\u826f\u56fd\u9053\u4e8b\u52d9\u6240","boring_xml_url":47,"boring_view_url":1,"soilmap_view_url":null,"soiltest_xml_url":47,"soiltest_view_url":47},{"id":349080,"code":"NGIC202002496-0014","latitude":"34.458229555556","longitude":"135.74786327778","source_code":"","project_name":"\u5927\u548c\u5fa1\u6240\u9053\u8def\u5fa1\u6240\u5e02\u57df\u5730\u8cea\u8abf\u67fb\u696d\u52d9","survey_name":"\u5927\u548c\u5fa1\u6240\u9053\u8def\u5fa1\u6240\u5e02\u57df\u5730\u8cea\u8abf\u67fb\u696d\u52d9","client_name":"\u56fd\u571f\u4ea4\u901a\u7701\u8fd1\u757f\u5730\u65b9\u6574\u5099\u5c40\u5948\u826f\u56fd\u9053\u4e8b\u52d9\u6240","boring_xml_url":47,"boring_view_url":1,"soilmap_view_url":null,"soiltest_xml_url":47,"soiltest_view_url":47},{"id":349079,"code":"NGIC202002496-0013","latitude":"34.458525833333","longitude":"135.74817022222","source_code":"","project_name":"\u5927\u548c\u5fa1\u6240\u9053\u8def\u5fa1\u6240\u5e02\u57df\u5730\u8cea\u8abf\u67fb\u696d\u52d9","survey_name":"\u5927\u548c\u5fa1\u6240\u9053\u8def\u5fa1\u6240\u5e02\u57df\u5730\u8cea\u8abf\u67fb\u696d\u52d9","client_name":"\u56fd\u571f\u4ea4\u901a\u7701\u8fd1\u757f\u5730\u65b9\u6574\u5099\u5c40\u5948\u826f\u56fd\u9053\u4e8b\u52d9\u6240","boring_xml_url":47,"boring_view_url":1,"soilmap_view_url":null,"soiltest_xml_url":47,"soiltest_view_url":47},{"id":349078,"code":"NGIC202002496-0012","latitude":"34.458686138889","longitude":"135.74832111111","source_code":"","project_name":"\u5927\u548c\u5fa1\u6240\u9053\u8def\u5fa1\u6240\u5e02\u57df\u5730\u8cea\u8abf\u67fb\u696d\u52d9","survey_name":"\u5927\u548c\u5fa1\u6240\u9053\u8def\u5fa1\u6240\u5e02\u57df\u5730\u8cea\u8abf\u67fb\u696d\u52d9","client_name":"\u56fd\u571f\u4ea4\u901a\u7701\u8fd1\u757f\u5730\u65b9\u6574\u5099\u5c40\u5948\u826f\u56fd\u9053\u4e8b\u52d9\u6240","boring_xml_url":47,"boring_view_url":1,"soilmap_view_url":null,"soiltest_xml_url":47,"soiltest_view_url":47}]}}