{"header":{"xyz":{"source":[],"mosaic":false},"page":2075,"raw":{"soiltest_result":"0","bbox":"57.598333,109.544722,1.933333,163.806111","page":"2075"},"conditions":{"soiltest_result":0,"north":57.598333,"west":109.544722,"south":1.933333,"east":163.806111},"success":true,"message":""},"data":{"meta":{"total":212844,"page":2075,"pages":7095,"count":30},"values":[{"id":348472,"code":"NGIC202002276-0005","latitude":"32.007076361111","longitude":"130.63019177778","source_code":"","project_name":"","survey_name":"\u4ee4\u548c2\u5e74\u5ea6\u5ddd\u5185\u5ddd\u83f1\u5208\u5730\u533a\u5730\u8cea\u8abf\u67fb\u696d\u52d9","client_name":"\u56fd\u571f\u4ea4\u901a\u7701\u4e5d\u5dde\u5730\u65b9\u6574\u5099\u5c40\u5ddd\u5185\u5ddd\u6cb3\u5ddd\u4e8b\u52d9\u6240","boring_xml_url":47,"boring_view_url":1,"soilmap_view_url":null,"soiltest_xml_url":47,"soiltest_view_url":47},{"id":348471,"code":"NGIC202002276-0004","latitude":"32.012397638889","longitude":"130.61866813889","source_code":"","project_name":"","survey_name":"\u4ee4\u548c2\u5e74\u5ea6\u5ddd\u5185\u5ddd\u83f1\u5208\u5730\u533a\u5730\u8cea\u8abf\u67fb\u696d\u52d9","client_name":"\u56fd\u571f\u4ea4\u901a\u7701\u4e5d\u5dde\u5730\u65b9\u6574\u5099\u5c40\u5ddd\u5185\u5ddd\u6cb3\u5ddd\u4e8b\u52d9\u6240","boring_xml_url":47,"boring_view_url":1,"soilmap_view_url":null,"soiltest_xml_url":47,"soiltest_view_url":47},{"id":348470,"code":"NGIC202002276-0003","latitude":"32.012463777778","longitude":"130.62111347222","source_code":"","project_name":"","survey_name":"\u4ee4\u548c2\u5e74\u5ea6\u5ddd\u5185\u5ddd\u83f1\u5208\u5730\u533a\u5730\u8cea\u8abf\u67fb\u696d\u52d9","client_name":"\u56fd\u571f\u4ea4\u901a\u7701\u4e5d\u5dde\u5730\u65b9\u6574\u5099\u5c40\u5ddd\u5185\u5ddd\u6cb3\u5ddd\u4e8b\u52d9\u6240","boring_xml_url":47,"boring_view_url":1,"soilmap_view_url":null,"soiltest_xml_url":47,"soiltest_view_url":47},{"id":348469,"code":"NGIC202002276-0002","latitude":"32.017897027778","longitude":"130.60736516667","source_code":"","project_name":"","survey_name":"\u4ee4\u548c2\u5e74\u5ea6\u5ddd\u5185\u5ddd\u83f1\u5208\u5730\u533a\u5730\u8cea\u8abf\u67fb\u696d\u52d9","client_name":"\u56fd\u571f\u4ea4\u901a\u7701\u4e5d\u5dde\u5730\u65b9\u6574\u5099\u5c40\u5ddd\u5185\u5ddd\u6cb3\u5ddd\u4e8b\u52d9\u6240","boring_xml_url":47,"boring_view_url":1,"soilmap_view_url":null,"soiltest_xml_url":47,"soiltest_view_url":47},{"id":348468,"code":"NGIC202002276-0001","latitude":"32.018970333333","longitude":"130.60746316667","source_code":"","project_name":"","survey_name":"\u4ee4\u548c2\u5e74\u5ea6\u5ddd\u5185\u5ddd\u83f1\u5208\u5730\u533a\u5730\u8cea\u8abf\u67fb\u696d\u52d9","client_name":"\u56fd\u571f\u4ea4\u901a\u7701\u4e5d\u5dde\u5730\u65b9\u6574\u5099\u5c40\u5ddd\u5185\u5ddd\u6cb3\u5ddd\u4e8b\u52d9\u6240","boring_xml_url":47,"boring_view_url":1,"soilmap_view_url":null,"soiltest_xml_url":47,"soiltest_view_url":47},{"id":348410,"code":"NGIC202002313-0003","latitude":"38.584680583333","longitude":"140.62491075","source_code":"","project_name":"\u9cf4\u702c\u5ddd\u7dcf\u5408\u958b\u767a\u4e8b\u696d","survey_name":"\u9cf4\u702c\u5ddd\u7dcf\u5408\u958b\u767a\u4e0b\u6d41\u90e8\u5730\u3059\u3079\u308a\u5730\u8cea\u8abf\u67fb","client_name":"\u56fd\u571f\u4ea4\u901a\u7701\u6771\u5317\u5730\u65b9\u6574\u5099\u5c40\u9cf4\u702c\u5ddd\u7dcf\u5408\u958b\u767a\u5de5\u4e8b\u4e8b\u52d9\u6240","boring_xml_url":47,"boring_view_url":1,"soilmap_view_url":null,"soiltest_xml_url":0,"soiltest_view_url":0},{"id":348409,"code":"NGIC202002313-0002","latitude":"38.584989777778","longitude":"140.62530688889","source_code":"","project_name":"\u9cf4\u702c\u5ddd\u7dcf\u5408\u958b\u767a\u4e8b\u696d","survey_name":"\u9cf4\u702c\u5ddd\u7dcf\u5408\u958b\u767a\u4e0b\u6d41\u90e8\u5730\u3059\u3079\u308a\u5730\u8cea\u8abf\u67fb","client_name":"\u56fd\u571f\u4ea4\u901a\u7701\u6771\u5317\u5730\u65b9\u6574\u5099\u5c40\u9cf4\u702c\u5ddd\u7dcf\u5408\u958b\u767a\u5de5\u4e8b\u4e8b\u52d9\u6240","boring_xml_url":47,"boring_view_url":1,"soilmap_view_url":null,"soiltest_xml_url":0,"soiltest_view_url":0},{"id":348408,"code":"NGIC202002313-0001","latitude":"38.585502","longitude":"140.62596319444","source_code":"","project_name":"\u9cf4\u702c\u5ddd\u7dcf\u5408\u958b\u767a\u4e8b\u696d","survey_name":"\u9cf4\u702c\u5ddd\u7dcf\u5408\u958b\u767a\u4e0b\u6d41\u90e8\u5730\u3059\u3079\u308a\u5730\u8cea\u8abf\u67fb","client_name":"\u56fd\u571f\u4ea4\u901a\u7701\u6771\u5317\u5730\u65b9\u6574\u5099\u5c40\u9cf4\u702c\u5ddd\u7dcf\u5408\u958b\u767a\u5de5\u4e8b\u4e8b\u52d9\u6240","boring_xml_url":47,"boring_view_url":1,"soilmap_view_url":null,"soiltest_xml_url":0,"soiltest_view_url":0},{"id":348407,"code":"NGIC202002312-0002","latitude":"38.585787694444","longitude":"140.62414430556","source_code":"","project_name":"\u9cf4\u702c\u5ddd\u7dcf\u5408\u958b\u767a\u4e8b\u696d","survey_name":"\u9cf4\u702c\u5ddd\u7dcf\u5408\u958b\u767a\u4e0a\u6d41\u90e8\u5730\u3059\u3079\u308a\u5730\u8cea\u8abf\u67fb","client_name":"\u56fd\u571f\u4ea4\u901a\u7701\u6771\u5317\u5730\u65b9\u6574\u5099\u5c40\u9cf4\u702c\u5ddd\u7dcf\u5408\u958b\u767a\u5de5\u4e8b\u4e8b\u52d9\u6240","boring_xml_url":47,"boring_view_url":1,"soilmap_view_url":null,"soiltest_xml_url":0,"soiltest_view_url":0},{"id":348406,"code":"NGIC202002312-0001","latitude":"38.58655225","longitude":"140.62490366667","source_code":"","project_name":"\u9cf4\u702c\u5ddd\u7dcf\u5408\u958b\u767a\u4e8b\u696d","survey_name":"\u9cf4\u702c\u5ddd\u7dcf\u5408\u958b\u767a\u4e0a\u6d41\u90e8\u5730\u3059\u3079\u308a\u5730\u8cea\u8abf\u67fb","client_name":"\u56fd\u571f\u4ea4\u901a\u7701\u6771\u5317\u5730\u65b9\u6574\u5099\u5c40\u9cf4\u702c\u5ddd\u7dcf\u5408\u958b\u767a\u5de5\u4e8b\u4e8b\u52d9\u6240","boring_xml_url":47,"boring_view_url":1,"soilmap_view_url":null,"soiltest_xml_url":0,"soiltest_view_url":0},{"id":348405,"code":"NGIC202002171-0004","latitude":"33.267677388889","longitude":"131.66240758333","source_code":"","project_name":"\u4ee4\u548c2\u5e74\u5ea6\u5927\u5206\u6e2f\u6d77\u5cb8(\u6d25\u7559\u5730\u533a)\u571f\u8cea\u8abf\u67fb","survey_name":"\u4ee4\u548c2\u5e74\u5ea6\u5927\u5206\u6e2f\u6d77\u5cb8(\u6d25\u7559\u5730\u533a)\u571f\u8cea\u8abf\u67fb","client_name":"\u56fd\u571f\u4ea4\u901a\u7701\u4e5d\u5dde\u5730\u65b9\u6574\u5099\u5c40\u5225\u5e9c\u6e2f\u6e7e\u30fb\u7a7a\u6e2f\u6574\u5099\u4e8b\u52d9\u6240","boring_xml_url":47,"boring_view_url":1,"soilmap_view_url":71,"soiltest_xml_url":47,"soiltest_view_url":47},{"id":348404,"code":"NGIC202002171-0003","latitude":"33.269011916667","longitude":"131.66191241667","source_code":"","project_name":"\u4ee4\u548c2\u5e74\u5ea6\u5927\u5206\u6e2f\u6d77\u5cb8(\u6d25\u7559\u5730\u533a)\u571f\u8cea\u8abf\u67fb","survey_name":"\u4ee4\u548c2\u5e74\u5ea6\u5927\u5206\u6e2f\u6d77\u5cb8(\u6d25\u7559\u5730\u533a)\u571f\u8cea\u8abf\u67fb","client_name":"\u56fd\u571f\u4ea4\u901a\u7701\u4e5d\u5dde\u5730\u65b9\u6574\u5099\u5c40\u5225\u5e9c\u6e2f\u6e7e\u30fb\u7a7a\u6e2f\u6574\u5099\u4e8b\u52d9\u6240","boring_xml_url":47,"boring_view_url":1,"soilmap_view_url":71,"soiltest_xml_url":47,"soiltest_view_url":47},{"id":348403,"code":"NGIC202002171-0002","latitude":"33.270246361111","longitude":"131.66144472222","source_code":"","project_name":"\u4ee4\u548c2\u5e74\u5ea6\u5927\u5206\u6e2f\u6d77\u5cb8(\u6d25\u7559\u5730\u533a)\u571f\u8cea\u8abf\u67fb","survey_name":"\u4ee4\u548c2\u5e74\u5ea6\u5927\u5206\u6e2f\u6d77\u5cb8(\u6d25\u7559\u5730\u533a)\u571f\u8cea\u8abf\u67fb","client_name":"\u56fd\u571f\u4ea4\u901a\u7701\u4e5d\u5dde\u5730\u65b9\u6574\u5099\u5c40\u5225\u5e9c\u6e2f\u6e7e\u30fb\u7a7a\u6e2f\u6574\u5099\u4e8b\u52d9\u6240","boring_xml_url":47,"boring_view_url":1,"soilmap_view_url":71,"soiltest_xml_url":47,"soiltest_view_url":47},{"id":348402,"code":"NGIC202002171-0001","latitude":"33.270836083333","longitude":"131.66121063889","source_code":"","project_name":"\u4ee4\u548c2\u5e74\u5ea6\u5927\u5206\u6e2f\u6d77\u5cb8(\u6d25\u7559\u5730\u533a)\u571f\u8cea\u8abf\u67fb","survey_name":"\u4ee4\u548c2\u5e74\u5ea6\u5927\u5206\u6e2f\u6d77\u5cb8(\u6d25\u7559\u5730\u533a)\u571f\u8cea\u8abf\u67fb","client_name":"\u56fd\u571f\u4ea4\u901a\u7701\u4e5d\u5dde\u5730\u65b9\u6574\u5099\u5c40\u5225\u5e9c\u6e2f\u6e7e\u30fb\u7a7a\u6e2f\u6574\u5099\u4e8b\u52d9\u6240","boring_xml_url":47,"boring_view_url":1,"soilmap_view_url":71,"soiltest_xml_url":47,"soiltest_view_url":47},{"id":348401,"code":"NGIC202002317-0016","latitude":"43.858713888889","longitude":"143.97375833333","source_code":"","project_name":"","survey_name":"\u4e00\u822c\u56fd\u905339\u53f7\u5317\u898b\u5e02\u5354\u548c\u5730\u8cea\u8abf\u67fb\u696d\u52d9","client_name":"\u56fd\u571f\u4ea4\u901a\u7701\u5317\u6d77\u9053\u958b\u767a\u5c40\u7db2\u8d70\u958b\u767a\u5efa\u8a2d\u90e8","boring_xml_url":47,"boring_view_url":1,"soilmap_view_url":null,"soiltest_xml_url":47,"soiltest_view_url":47},{"id":348400,"code":"NGIC202002317-0015","latitude":"43.858569444444","longitude":"143.97404722222","source_code":"","project_name":"","survey_name":"\u4e00\u822c\u56fd\u905339\u53f7 \u5317\u898b\u5e02\u5354\u548c\u5730\u8cea\u8abf\u67fb\u696d\u52d9","client_name":"\u56fd\u571f\u4ea4\u901a\u7701\u5317\u6d77\u9053\u958b\u767a\u5c40\u7db2\u8d70\u958b\u767a\u5efa\u8a2d\u90e8","boring_xml_url":47,"boring_view_url":1,"soilmap_view_url":null,"soiltest_xml_url":47,"soiltest_view_url":47},{"id":348399,"code":"NGIC202002317-0014","latitude":"43.858416666667","longitude":"143.97435833333","source_code":"","project_name":"","survey_name":"\u4e00\u822c\u56fd\u905339\u53f7\u5317\u898b\u5e02\u5354\u548c\u5730\u8cea\u8abf\u67fb\u696d\u52d9","client_name":"\u56fd\u571f\u4ea4\u901a\u7701\u5317\u6d77\u9053\u958b\u767a\u5c40\u7db2\u8d70\u958b\u767a\u5efa\u8a2d\u90e8","boring_xml_url":47,"boring_view_url":1,"soilmap_view_url":null,"soiltest_xml_url":47,"soiltest_view_url":47},{"id":348398,"code":"NGIC202002317-0013","latitude":"43.846436111111","longitude":"143.95787222222","source_code":"","project_name":"","survey_name":"\u4e00\u822c\u56fd\u905339\u53f7\u5317\u898b\u5e02\u5354\u548c\u5730\u8cea\u8abf\u67fb\u696d\u52d9","client_name":"\u56fd\u571f\u4ea4\u901a\u7701\u5317\u6d77\u9053\u958b\u767a\u5c40\u7db2\u8d70\u958b\u767a\u5efa\u8a2d\u90e8","boring_xml_url":47,"boring_view_url":1,"soilmap_view_url":null,"soiltest_xml_url":47,"soiltest_view_url":47},{"id":348397,"code":"NGIC202002317-0012","latitude":"43.846308333333","longitude":"143.95810555556","source_code":"","project_name":"","survey_name":"\u4e00\u822c\u56fd\u905339\u53f7\u5317\u898b\u5e02\u5354\u548c\u5730\u8cea\u8abf\u67fb\u696d\u52d9","client_name":"\u56fd\u571f\u4ea4\u901a\u7701\u5317\u6d77\u9053\u958b\u767a\u5c40\u7db2\u8d70\u958b\u767a\u5efa\u8a2d\u90e8","boring_xml_url":47,"boring_view_url":1,"soilmap_view_url":null,"soiltest_xml_url":47,"soiltest_view_url":47},{"id":348396,"code":"NGIC202002317-0011","latitude":"43.8462","longitude":"143.95830555556","source_code":"","project_name":"","survey_name":"\u4e00\u822c\u56fd\u905339\u53f7\u5317\u898b\u5e02\u5354\u548c\u5730\u8cea\u8abf\u67fb\u696d\u52d9","client_name":"\u56fd\u571f\u4ea4\u901a\u7701\u5317\u6d77\u9053\u958b\u767a\u5c40\u7db2\u8d70\u958b\u767a\u5efa\u8a2d\u90e8","boring_xml_url":47,"boring_view_url":1,"soilmap_view_url":null,"soiltest_xml_url":47,"soiltest_view_url":47},{"id":348395,"code":"NGIC202002317-0010","latitude":"43.856130555556","longitude":"143.96968888889","source_code":"","project_name":"","survey_name":"\u4e00\u822c\u56fd\u905339\u53f7\u5317\u898b\u5e02\u5354\u548c\u5730\u8cea\u8abf\u67fb\u696d\u52d9","client_name":"\u56fd\u571f\u4ea4\u901a\u7701\u5317\u6d77\u9053\u958b\u767a\u5c40\u7db2\u8d70\u958b\u767a\u5efa\u8a2d\u90e8","boring_xml_url":47,"boring_view_url":1,"soilmap_view_url":null,"soiltest_xml_url":47,"soiltest_view_url":47},{"id":348394,"code":"NGIC202002317-0009","latitude":"43.856311111111","longitude":"143.96916666667","source_code":"","project_name":"","survey_name":"\u4e00\u822c\u56fd\u905339\u53f7\u5317\u898b\u5e02\u5354\u548c\u5730\u8cea\u8abf\u67fb\u696d\u52d9","client_name":"\u56fd\u571f\u4ea4\u901a\u7701\u5317\u6d77\u9053\u958b\u767a\u5c40\u7db2\u8d70\u958b\u767a\u5efa\u8a2d\u90e8","boring_xml_url":47,"boring_view_url":1,"soilmap_view_url":null,"soiltest_xml_url":47,"soiltest_view_url":47},{"id":348393,"code":"NGIC202002317-0008","latitude":"43.857363888889","longitude":"143.97245","source_code":"","project_name":"","survey_name":"\u4e00\u822c\u56fd\u905339\u53f7\u5317\u898b\u5e02\u5354\u548c\u5730\u8cea\u8abf\u67fb\u696d\u52d9","client_name":"\u56fd\u571f\u4ea4\u901a\u7701\u5317\u6d77\u9053\u958b\u767a\u5c40\u7db2\u8d70\u958b\u767a\u5efa\u8a2d\u90e8","boring_xml_url":47,"boring_view_url":1,"soilmap_view_url":null,"soiltest_xml_url":47,"soiltest_view_url":47},{"id":348392,"code":"NGIC202002317-0007","latitude":"43.857644444444","longitude":"143.97181666667","source_code":"","project_name":"","survey_name":"\u4e00\u822c\u56fd\u905339\u53f7\u5317\u898b\u5e02\u5354\u548c\u5730\u8cea\u8abf\u67fb\u696d\u52d9","client_name":"\u56fd\u571f\u4ea4\u901a\u7701\u5317\u6d77\u9053\u958b\u767a\u5c40\u7db2\u8d70\u958b\u767a\u5efa\u8a2d\u90e8","boring_xml_url":47,"boring_view_url":1,"soilmap_view_url":null,"soiltest_xml_url":47,"soiltest_view_url":47},{"id":348391,"code":"NGIC202002317-0006","latitude":"43.856791666667","longitude":"143.97091111111","source_code":"","project_name":"","survey_name":"\u4e00\u822c\u56fd\u905339\u53f7\u5317\u898b\u5e02\u5354\u548c\u5730\u8cea\u8abf\u67fb\u696d\u52d9","client_name":"\u56fd\u571f\u4ea4\u901a\u7701\u5317\u6d77\u9053\u958b\u767a\u5c40\u7db2\u8d70\u958b\u767a\u5efa\u8a2d\u90e8","boring_xml_url":47,"boring_view_url":1,"soilmap_view_url":null,"soiltest_xml_url":47,"soiltest_view_url":47},{"id":348390,"code":"NGIC202002317-0005","latitude":"43.856736111111","longitude":"143.97021944444","source_code":"","project_name":"","survey_name":"\u4e00\u822c\u56fd\u905339\u53f7\u5317\u898b\u5e02\u5354\u548c\u5730\u8cea\u8abf\u67fb\u696d\u52d9","client_name":"\u56fd\u571f\u4ea4\u901a\u7701\u5317\u6d77\u9053\u958b\u767a\u5c40\u7db2\u8d70\u958b\u767a\u5efa\u8a2d\u90e8","boring_xml_url":47,"boring_view_url":1,"soilmap_view_url":null,"soiltest_xml_url":47,"soiltest_view_url":47},{"id":348389,"code":"NGIC202002317-0004","latitude":"43.854144444444","longitude":"143.96652222222","source_code":"","project_name":"","survey_name":"\u4e00\u822c\u56fd\u905339\u53f7\u5317\u898b\u5e02\u5354\u548c\u5730\u8cea\u8abf\u67fb\u696d\u52d9","client_name":"\u56fd\u571f\u4ea4\u901a\u7701\u5317\u6d77\u9053\u958b\u767a\u5c40\u7db2\u8d70\u958b\u767a\u5efa\u8a2d\u90e8","boring_xml_url":47,"boring_view_url":1,"soilmap_view_url":null,"soiltest_xml_url":47,"soiltest_view_url":47},{"id":348388,"code":"NGIC202002317-0003","latitude":"43.854127777778","longitude":"143.96621111111","source_code":"","project_name":"","survey_name":"\u4e00\u822c\u56fd\u905339\u53f7\u5317\u898b\u5e02\u5354\u548c\u5730\u8cea\u8abf\u67fb\u696d\u52d9","client_name":"\u56fd\u571f\u4ea4\u901a\u7701\u5317\u6d77\u9053\u958b\u767a\u5c40\u7db2\u8d70\u958b\u767a\u5efa\u8a2d\u90e8","boring_xml_url":47,"boring_view_url":1,"soilmap_view_url":null,"soiltest_xml_url":47,"soiltest_view_url":47},{"id":348387,"code":"NGIC202002317-0002","latitude":"43.848347222222","longitude":"143.96059722222","source_code":"","project_name":"","survey_name":"\u4e00\u822c\u56fd\u905339\u53f7\u5317\u898b\u5e02\u5354\u548c\u5730\u8cea\u8abf\u67fb\u696d\u52d9","client_name":"\u56fd\u571f\u4ea4\u901a\u7701\u5317\u6d77\u9053\u958b\u767a\u5c40\u7db2\u8d70\u958b\u767a\u5efa\u8a2d\u90e8","boring_xml_url":47,"boring_view_url":1,"soilmap_view_url":null,"soiltest_xml_url":47,"soiltest_view_url":47},{"id":348386,"code":"NGIC202002317-0001","latitude":"43.848580555556","longitude":"143.96011944444","source_code":"","project_name":"","survey_name":"\u4e00\u822c\u56fd\u905339\u53f7\u5317\u898b\u5e02\u5354\u548c\u5730\u8cea\u8abf\u67fb\u696d\u52d9","client_name":"\u56fd\u571f\u4ea4\u901a\u7701\u5317\u6d77\u9053\u958b\u767a\u5c40\u7db2\u8d70\u958b\u767a\u5efa\u8a2d\u90e8","boring_xml_url":47,"boring_view_url":1,"soilmap_view_url":null,"soiltest_xml_url":47,"soiltest_view_url":47}]}}