{"header":{"xyz":{"source":[],"mosaic":false},"page":2080,"raw":{"soiltest_result":"0","bbox":"57.598333,109.544722,1.933333,163.806111","page":"2080"},"conditions":{"soiltest_result":0,"north":57.598333,"west":109.544722,"south":1.933333,"east":163.806111},"success":true,"message":""},"data":{"meta":{"total":212844,"page":2080,"pages":7095,"count":30},"values":[{"id":347924,"code":"NGIC202002090-0020","latitude":"32.965605555556","longitude":"131.36089722222","source_code":"","project_name":"","survey_name":"\u4ee4\u548c2\u5e74\u5ea6\u7af9\u7530\u963f\u8607\u9053\u8def\uff08\u7af9\u7530\u5730\u533a\uff09\u5730\u8cea\u8abf\u67fb\u696d\u52d9","client_name":"\u56fd\u571f\u4ea4\u901a\u7701\u4e5d\u5dde\u5730\u65b9\u6574\u5099\u5c40\u4f50\u4f2f\u6cb3\u5ddd\u56fd\u9053\u4e8b\u52d9\u6240","boring_xml_url":47,"boring_view_url":1,"soilmap_view_url":null,"soiltest_xml_url":0,"soiltest_view_url":0},{"id":347923,"code":"NGIC202002090-0019","latitude":"32.965627777778","longitude":"131.36160833333","source_code":"","project_name":"","survey_name":"\u4ee4\u548c2\u5e74\u5ea6\u7af9\u7530\u963f\u8607\u9053\u8def\uff08\u7af9\u7530\u5730\u533a\uff09\u5730\u8cea\u8abf\u67fb\u696d\u52d9","client_name":"\u56fd\u571f\u4ea4\u901a\u7701\u4e5d\u5dde\u5730\u65b9\u6574\u5099\u5c40\u4f50\u4f2f\u6cb3\u5ddd\u56fd\u9053\u4e8b\u52d9\u6240","boring_xml_url":47,"boring_view_url":1,"soilmap_view_url":null,"soiltest_xml_url":0,"soiltest_view_url":0},{"id":347922,"code":"NGIC202002090-0018","latitude":"32.969597222222","longitude":"131.36376111111","source_code":"","project_name":"","survey_name":"\u4ee4\u548c2\u5e74\u5ea6\u7af9\u7530\u963f\u8607\u9053\u8def\uff08\u7af9\u7530\u5730\u533a\uff09\u5730\u8cea\u8abf\u67fb\u696d\u52d9","client_name":"\u56fd\u571f\u4ea4\u901a\u7701\u4e5d\u5dde\u5730\u65b9\u6574\u5099\u5c40\u4f50\u4f2f\u6cb3\u5ddd\u56fd\u9053\u4e8b\u52d9\u6240","boring_xml_url":47,"boring_view_url":1,"soilmap_view_url":null,"soiltest_xml_url":47,"soiltest_view_url":47},{"id":347921,"code":"NGIC202002090-0017","latitude":"32.972991666667","longitude":"131.36485","source_code":"","project_name":"","survey_name":"\u4ee4\u548c2\u5e74\u5ea6\u7af9\u7530\u963f\u8607\u9053\u8def\uff08\u7af9\u7530\u5730\u533a\uff09\u5730\u8cea\u8abf\u67fb\u696d\u52d9","client_name":"\u56fd\u571f\u4ea4\u901a\u7701\u4e5d\u5dde\u5730\u65b9\u6574\u5099\u5c40\u4f50\u4f2f\u6cb3\u5ddd\u56fd\u9053\u4e8b\u52d9\u6240","boring_xml_url":47,"boring_view_url":1,"soilmap_view_url":null,"soiltest_xml_url":0,"soiltest_view_url":0},{"id":347920,"code":"NGIC202002090-0016","latitude":"32.973988888889","longitude":"131.36668055556","source_code":"","project_name":"","survey_name":"\u4ee4\u548c2\u5e74\u5ea6\u7af9\u7530\u963f\u8607\u9053\u8def\uff08\u7af9\u7530\u5730\u533a\uff09\u5730\u8cea\u8abf\u67fb\u696d\u52d9","client_name":"\u56fd\u571f\u4ea4\u901a\u7701\u4e5d\u5dde\u5730\u65b9\u6574\u5099\u5c40\u4f50\u4f2f\u6cb3\u5ddd\u56fd\u9053\u4e8b\u52d9\u6240","boring_xml_url":47,"boring_view_url":1,"soilmap_view_url":null,"soiltest_xml_url":0,"soiltest_view_url":0},{"id":347919,"code":"NGIC202002090-0015","latitude":"32.976702777778","longitude":"131.37116944444","source_code":"","project_name":"","survey_name":"\u4ee4\u548c2\u5e74\u5ea6\u7af9\u7530\u963f\u8607\u9053\u8def\uff08\u7af9\u7530\u5730\u533a\uff09\u5730\u8cea\u8abf\u67fb\u696d\u52d9","client_name":"\u56fd\u571f\u4ea4\u901a\u7701\u4e5d\u5dde\u5730\u65b9\u6574\u5099\u5c40\u4f50\u4f2f\u6cb3\u5ddd\u56fd\u9053\u4e8b\u52d9\u6240","boring_xml_url":47,"boring_view_url":1,"soilmap_view_url":null,"soiltest_xml_url":47,"soiltest_view_url":47},{"id":347918,"code":"NGIC202002090-0014","latitude":"32.977008333333","longitude":"131.37315555556","source_code":"","project_name":"","survey_name":"\u4ee4\u548c2\u5e74\u5ea6\u7af9\u7530\u963f\u8607\u9053\u8def\uff08\u7af9\u7530\u5730\u533a\uff09\u5730\u8cea\u8abf\u67fb\u696d\u52d9","client_name":"\u56fd\u571f\u4ea4\u901a\u7701\u4e5d\u5dde\u5730\u65b9\u6574\u5099\u5c40\u4f50\u4f2f\u6cb3\u5ddd\u56fd\u9053\u4e8b\u52d9\u6240","boring_xml_url":47,"boring_view_url":1,"soilmap_view_url":null,"soiltest_xml_url":0,"soiltest_view_url":0},{"id":347917,"code":"NGIC202002090-0013","latitude":"32.977125","longitude":"131.37454444444","source_code":"","project_name":"","survey_name":"\u4ee4\u548c2\u5e74\u5ea6\u7af9\u7530\u963f\u8607\u9053\u8def\uff08\u7af9\u7530\u5730\u533a\uff09\u5730\u8cea\u8abf\u67fb\u696d\u52d9","client_name":"\u56fd\u571f\u4ea4\u901a\u7701\u4e5d\u5dde\u5730\u65b9\u6574\u5099\u5c40\u4f50\u4f2f\u6cb3\u5ddd\u56fd\u9053\u4e8b\u52d9\u6240","boring_xml_url":47,"boring_view_url":1,"soilmap_view_url":null,"soiltest_xml_url":0,"soiltest_view_url":0},{"id":347916,"code":"NGIC202002090-0012","latitude":"32.977202777778","longitude":"131.37694722222","source_code":"","project_name":"","survey_name":"\u4ee4\u548c2\u5e74\u5ea6\u7af9\u7530\u963f\u8607\u9053\u8def\uff08\u7af9\u7530\u5730\u533a\uff09\u5730\u8cea\u8abf\u67fb\u696d\u52d9","client_name":"\u56fd\u571f\u4ea4\u901a\u7701\u4e5d\u5dde\u5730\u65b9\u6574\u5099\u5c40\u4f50\u4f2f\u6cb3\u5ddd\u56fd\u9053\u4e8b\u52d9\u6240","boring_xml_url":47,"boring_view_url":1,"soilmap_view_url":null,"soiltest_xml_url":0,"soiltest_view_url":0},{"id":347915,"code":"NGIC202002090-0011","latitude":"32.976766666667","longitude":"131.37744166667","source_code":"","project_name":"","survey_name":"\u4ee4\u548c2\u5e74\u5ea6\u7af9\u7530\u963f\u8607\u9053\u8def\uff08\u7af9\u7530\u5730\u533a\uff09\u5730\u8cea\u8abf\u67fb\u696d\u52d9","client_name":"\u56fd\u571f\u4ea4\u901a\u7701\u4e5d\u5dde\u5730\u65b9\u6574\u5099\u5c40\u4f50\u4f2f\u6cb3\u5ddd\u56fd\u9053\u4e8b\u52d9\u6240","boring_xml_url":47,"boring_view_url":1,"soilmap_view_url":null,"soiltest_xml_url":0,"soiltest_view_url":0},{"id":347914,"code":"NGIC202002090-0010","latitude":"32.977027777778","longitude":"131.38112777778","source_code":"","project_name":"","survey_name":"\u4ee4\u548c2\u5e74\u5ea6\u7af9\u7530\u963f\u8607\u9053\u8def\uff08\u7af9\u7530\u5730\u533a\uff09\u5730\u8cea\u8abf\u67fb\u696d\u52d9","client_name":"\u56fd\u571f\u4ea4\u901a\u7701\u4e5d\u5dde\u5730\u65b9\u6574\u5099\u5c40\u4f50\u4f2f\u6cb3\u5ddd\u56fd\u9053\u4e8b\u52d9\u6240","boring_xml_url":47,"boring_view_url":1,"soilmap_view_url":null,"soiltest_xml_url":47,"soiltest_view_url":47},{"id":347913,"code":"NGIC202002090-0009","latitude":"32.976972222222","longitude":"131.38293055556","source_code":"","project_name":"","survey_name":"\u4ee4\u548c2\u5e74\u5ea6\u7af9\u7530\u963f\u8607\u9053\u8def\uff08\u7af9\u7530\u5730\u533a\uff09\u5730\u8cea\u8abf\u67fb\u696d\u52d9","client_name":"\u56fd\u571f\u4ea4\u901a\u7701\u4e5d\u5dde\u5730\u65b9\u6574\u5099\u5c40\u4f50\u4f2f\u6cb3\u5ddd\u56fd\u9053\u4e8b\u52d9\u6240","boring_xml_url":47,"boring_view_url":1,"soilmap_view_url":null,"soiltest_xml_url":0,"soiltest_view_url":0},{"id":347912,"code":"NGIC202002090-0008","latitude":"32.977208333333","longitude":"131.38336111111","source_code":"","project_name":"","survey_name":"\u4ee4\u548c2\u5e74\u5ea6\u7af9\u7530\u963f\u8607\u9053\u8def\uff08\u7af9\u7530\u5730\u533a\uff09\u5730\u8cea\u8abf\u67fb\u696d\u52d9","client_name":"\u56fd\u571f\u4ea4\u901a\u7701\u4e5d\u5dde\u5730\u65b9\u6574\u5099\u5c40\u4f50\u4f2f\u6cb3\u5ddd\u56fd\u9053\u4e8b\u52d9\u6240","boring_xml_url":47,"boring_view_url":1,"soilmap_view_url":null,"soiltest_xml_url":0,"soiltest_view_url":0},{"id":347911,"code":"NGIC202002090-0007","latitude":"32.977252777778","longitude":"131.38526944444","source_code":"","project_name":"","survey_name":"\u4ee4\u548c2\u5e74\u5ea6\u7af9\u7530\u963f\u8607\u9053\u8def\uff08\u7af9\u7530\u5730\u533a\uff09\u5730\u8cea\u8abf\u67fb\u696d\u52d9","client_name":"\u56fd\u571f\u4ea4\u901a\u7701\u4e5d\u5dde\u5730\u65b9\u6574\u5099\u5c40\u4f50\u4f2f\u6cb3\u5ddd\u56fd\u9053\u4e8b\u52d9\u6240","boring_xml_url":47,"boring_view_url":1,"soilmap_view_url":null,"soiltest_xml_url":0,"soiltest_view_url":0},{"id":347910,"code":"NGIC202002090-0006","latitude":"32.976811111111","longitude":"131.38718611111","source_code":"","project_name":"","survey_name":"\u4ee4\u548c2\u5e74\u5ea6\u7af9\u7530\u963f\u8607\u9053\u8def\uff08\u7af9\u7530\u5730\u533a\uff09\u5730\u8cea\u8abf\u67fb\u696d\u52d9","client_name":"\u56fd\u571f\u4ea4\u901a\u7701\u4e5d\u5dde\u5730\u65b9\u6574\u5099\u5c40\u4f50\u4f2f\u6cb3\u5ddd\u56fd\u9053\u4e8b\u52d9\u6240","boring_xml_url":47,"boring_view_url":1,"soilmap_view_url":null,"soiltest_xml_url":0,"soiltest_view_url":0},{"id":347909,"code":"NGIC202002090-0005","latitude":"32.977016666667","longitude":"131.38981944444","source_code":"","project_name":"","survey_name":"\u4ee4\u548c2\u5e74\u5ea6\u7af9\u7530\u963f\u8607\u9053\u8def\uff08\u7af9\u7530\u5730\u533a\uff09\u5730\u8cea\u8abf\u67fb\u696d\u52d9","client_name":"\u56fd\u571f\u4ea4\u901a\u7701\u4e5d\u5dde\u5730\u65b9\u6574\u5099\u5c40\u4f50\u4f2f\u6cb3\u5ddd\u56fd\u9053\u4e8b\u52d9\u6240","boring_xml_url":47,"boring_view_url":1,"soilmap_view_url":null,"soiltest_xml_url":0,"soiltest_view_url":0},{"id":347908,"code":"NGIC202002090-0004","latitude":"32.977594444444","longitude":"131.39042777778","source_code":"","project_name":"","survey_name":"\u4ee4\u548c2\u5e74\u5ea6\u7af9\u7530\u963f\u8607\u9053\u8def\uff08\u7af9\u7530\u5730\u533a\uff09\u5730\u8cea\u8abf\u67fb\u696d\u52d9","client_name":"\u56fd\u571f\u4ea4\u901a\u7701\u4e5d\u5dde\u5730\u65b9\u6574\u5099\u5c40\u4f50\u4f2f\u6cb3\u5ddd\u56fd\u9053\u4e8b\u52d9\u6240","boring_xml_url":47,"boring_view_url":1,"soilmap_view_url":null,"soiltest_xml_url":0,"soiltest_view_url":0},{"id":347907,"code":"NGIC202002090-0003","latitude":"32.977144444444","longitude":"131.39164722222","source_code":"","project_name":"","survey_name":"\u4ee4\u548c2\u5e74\u5ea6\u7af9\u7530\u963f\u8607\u9053\u8def\uff08\u7af9\u7530\u5730\u533a\uff09\u5730\u8cea\u8abf\u67fb\u696d\u52d9","client_name":"\u56fd\u571f\u4ea4\u901a\u7701\u4e5d\u5dde\u5730\u65b9\u6574\u5099\u5c40\u4f50\u4f2f\u6cb3\u5ddd\u56fd\u9053\u4e8b\u52d9\u6240","boring_xml_url":47,"boring_view_url":1,"soilmap_view_url":null,"soiltest_xml_url":0,"soiltest_view_url":0},{"id":347906,"code":"NGIC202002090-0002","latitude":"32.977152777778","longitude":"131.39263611111","source_code":"","project_name":"","survey_name":"\u4ee4\u548c2\u5e74\u5ea6\u7af9\u7530\u963f\u8607\u9053\u8def\uff08\u7af9\u7530\u5730\u533a\uff09\u5730\u8cea\u8abf\u67fb\u696d\u52d9","client_name":"\u56fd\u571f\u4ea4\u901a\u7701\u4e5d\u5dde\u5730\u65b9\u6574\u5099\u5c40\u4f50\u4f2f\u6cb3\u5ddd\u56fd\u9053\u4e8b\u52d9\u6240","boring_xml_url":47,"boring_view_url":1,"soilmap_view_url":null,"soiltest_xml_url":0,"soiltest_view_url":0},{"id":347905,"code":"NGIC202002090-0001","latitude":"32.977319444444","longitude":"131.39261388889","source_code":"","project_name":"","survey_name":"\u4ee4\u548c2\u5e74\u5ea6\u7af9\u7530\u963f\u8607\u9053\u8def\uff08\u7af9\u7530\u5730\u533a\uff09\u5730\u8cea\u8abf\u67fb\u696d\u52d9","client_name":"\u56fd\u571f\u4ea4\u901a\u7701\u4e5d\u5dde\u5730\u65b9\u6574\u5099\u5c40\u4f50\u4f2f\u6cb3\u5ddd\u56fd\u9053\u4e8b\u52d9\u6240","boring_xml_url":47,"boring_view_url":1,"soilmap_view_url":null,"soiltest_xml_url":0,"soiltest_view_url":0},{"id":347877,"code":"NGIC202002188-0003","latitude":"42.75376425","longitude":"143.03794202778","source_code":"","project_name":"\u56fd\u55b6\u304b\u3093\u304c\u3044\u6392\u6c34\u4e8b\u696d","survey_name":"\u82bd\u5ba4\u5ddd\u897f\u5730\u533a\u6e05\u5ddd\u7b2c1\u5e79\u7dda\u7528\u6c34\u8def\u897f\u7f8e\u6804\u5de5\u533a\u5b9f\u65bd\u8a2d\u8a08\u7b49\u696d\u52d9","client_name":"\u56fd\u571f\u4ea4\u901a\u7701\u5317\u6d77\u9053\u958b\u767a\u5c40\u5e2f\u5e83\u958b\u767a\u5efa\u8a2d\u90e8\u5e2f\u5e83\u8fb2\u696d\u4e8b\u52d9\u6240","boring_xml_url":47,"boring_view_url":1,"soilmap_view_url":null,"soiltest_xml_url":47,"soiltest_view_url":47},{"id":347876,"code":"NGIC202002188-0002","latitude":"42.756467666667","longitude":"143.02742266667","source_code":"","project_name":"\u56fd\u55b6\u304b\u3093\u304c\u3044\u6392\u6c34\u4e8b\u696d","survey_name":"\u82bd\u5ba4\u5ddd\u897f\u5730\u533a\u6e05\u5ddd\u7b2c1\u5e79\u7dda\u7528\u6c34\u8def\u897f\u7f8e\u6804\u5de5\u533a\u5b9f\u65bd\u8a2d\u8a08\u7b49\u696d\u52d9","client_name":"\u56fd\u571f\u4ea4\u901a\u7701\u5317\u6d77\u9053\u958b\u767a\u5c40\u5e2f\u5e83\u958b\u767a\u5efa\u8a2d\u90e8\u5e2f\u5e83\u8fb2\u696d\u4e8b\u52d9\u6240","boring_xml_url":47,"boring_view_url":1,"soilmap_view_url":null,"soiltest_xml_url":47,"soiltest_view_url":47},{"id":347875,"code":"NGIC202002188-0001","latitude":"42.761715722222","longitude":"143.01905930556","source_code":"","project_name":"\u56fd\u55b6\u304b\u3093\u304c\u3044\u6392\u6c34\u4e8b\u696d","survey_name":"\u82bd\u5ba4\u5ddd\u897f\u5730\u533a\u6e05\u5ddd\u7b2c1\u5e79\u7dda\u7528\u6c34\u8def\u897f\u7f8e\u6804\u5de5\u533a\u5b9f\u65bd\u8a2d\u8a08\u7b49\u696d\u52d9","client_name":"\u56fd\u571f\u4ea4\u901a\u7701\u5317\u6d77\u9053\u958b\u767a\u5c40\u5e2f\u5e83\u958b\u767a\u5efa\u8a2d\u90e8\u5e2f\u5e83\u8fb2\u696d\u4e8b\u52d9\u6240","boring_xml_url":47,"boring_view_url":1,"soilmap_view_url":null,"soiltest_xml_url":47,"soiltest_view_url":47},{"id":347871,"code":"NGIC202002182-0001","latitude":"36.672340583333","longitude":"137.19722216667","source_code":"","project_name":"","survey_name":"\u4ee4\u548c2\u5e74\u5ea6\u6cb3\u5ddd\u4e8b\u696d\u7ba1\u5185\u5730\u8cea\u8abf\u67fb\u696d\u52d9","client_name":"\u56fd\u571f\u4ea4\u901a\u7701\u5317\u9678\u5730\u65b9\u6574\u5099\u5c40\u5bcc\u5c71\u6cb3\u5ddd\u56fd\u9053\u4e8b\u52d9\u6240","boring_xml_url":47,"boring_view_url":1,"soilmap_view_url":null,"soiltest_xml_url":0,"soiltest_view_url":0},{"id":347870,"code":"NGIC202002124-0006","latitude":"43.539183333333","longitude":"141.60385","source_code":"","project_name":"\u6edd\u5ddd\u9053\u8def\u4e8b\u52d9\u6240\u7ba1\u5185\u5730\u8cea\u8abf\u67fb\u696d\u52d9","survey_name":"\u6edd\u5ddd\u9053\u8def\u4e8b\u52d9\u6240\u7ba1\u5185\u5730\u8cea\u8abf\u67fb\u696d\u52d9","client_name":"\u56fd\u571f\u4ea4\u901a\u7701\u5317\u6d77\u9053\u958b\u767a\u5c40\u672d\u5e4c\u958b\u767a\u5efa\u8a2d\u90e8\u6edd\u5ddd\u9053\u8def\u4e8b\u52d9\u6240","boring_xml_url":47,"boring_view_url":1,"soilmap_view_url":null,"soiltest_xml_url":47,"soiltest_view_url":47},{"id":347869,"code":"NGIC202002124-0005","latitude":"43.572766666667","longitude":"141.5566","source_code":"","project_name":"\u6edd\u5ddd\u9053\u8def\u4e8b\u52d9\u6240\u7ba1\u5185\u5730\u8cea\u8abf\u67fb\u696d\u52d9","survey_name":"\u6edd\u5ddd\u9053\u8def\u4e8b\u52d9\u6240\u7ba1\u5185\u5730\u8cea\u8abf\u67fb\u696d\u52d9","client_name":"\u56fd\u571f\u4ea4\u901a\u7701\u5317\u6d77\u9053\u958b\u767a\u5c40\u672d\u5e4c\u958b\u767a\u5efa\u8a2d\u90e8\u6edd\u5ddd\u9053\u8def\u4e8b\u52d9\u6240","boring_xml_url":47,"boring_view_url":1,"soilmap_view_url":null,"soiltest_xml_url":47,"soiltest_view_url":47},{"id":347868,"code":"NGIC202002124-0004","latitude":"43.594163888889","longitude":"141.48831666667","source_code":"","project_name":"\u6edd\u5ddd\u9053\u8def\u4e8b\u52d9\u6240\u7ba1\u5185\u5730\u8cea\u8abf\u67fb\u696d\u52d9","survey_name":"\u6edd\u5ddd\u9053\u8def\u4e8b\u52d9\u6240\u7ba1\u5185\u5730\u8cea\u8abf\u67fb\u696d\u52d9","client_name":"\u56fd\u571f\u4ea4\u901a\u7701\u5317\u6d77\u9053\u958b\u767a\u5c40\u672d\u5e4c\u958b\u767a\u5efa\u8a2d\u90e8\u6edd\u5ddd\u9053\u8def\u4e8b\u52d9\u6240","boring_xml_url":47,"boring_view_url":1,"soilmap_view_url":null,"soiltest_xml_url":47,"soiltest_view_url":47},{"id":347867,"code":"NGIC202002124-0003","latitude":"43.500663888889","longitude":"142.18563333333","source_code":"","project_name":"\u6edd\u5ddd\u9053\u8def\u4e8b\u52d9\u6240\u7ba1\u5185\u5730\u8cea\u8abf\u67fb\u696d\u52d9","survey_name":"\u6edd\u5ddd\u9053\u8def\u4e8b\u52d9\u6240\u7ba1\u5185\u5730\u8cea\u8abf\u67fb\u696d\u52d9","client_name":"\u56fd\u571f\u4ea4\u901a\u7701\u5317\u6d77\u9053\u958b\u767a\u5c40\u672d\u5e4c\u958b\u767a\u5efa\u8a2d\u90e8\u6edd\u5ddd\u9053\u8def\u4e8b\u52d9\u6240","boring_xml_url":47,"boring_view_url":1,"soilmap_view_url":null,"soiltest_xml_url":0,"soiltest_view_url":0},{"id":347866,"code":"NGIC202002124-0002","latitude":"43.500366666667","longitude":"142.1854","source_code":"","project_name":"\u6edd\u5ddd\u9053\u8def\u4e8b\u52d9\u6240\u7ba1\u5185\u5730\u8cea\u8abf\u67fb\u696d\u52d9","survey_name":"\u6edd\u5ddd\u9053\u8def\u4e8b\u52d9\u6240\u7ba1\u5185\u5730\u8cea\u8abf\u67fb\u696d\u52d9","client_name":"\u56fd\u571f\u4ea4\u901a\u7701\u5317\u6d77\u9053\u958b\u767a\u5c40\u672d\u5e4c\u958b\u767a\u5efa\u8a2d\u90e8\u6edd\u5ddd\u9053\u8def\u4e8b\u52d9\u6240","boring_xml_url":47,"boring_view_url":1,"soilmap_view_url":null,"soiltest_xml_url":0,"soiltest_view_url":0},{"id":347865,"code":"NGIC202002124-0001","latitude":"43.500830555556","longitude":"142.18438333333","source_code":"","project_name":"\u6edd\u5ddd\u9053\u8def\u4e8b\u52d9\u6240\u7ba1\u5185\u5730\u8cea\u8abf\u67fb\u696d\u52d9","survey_name":"\u6edd\u5ddd\u9053\u8def\u4e8b\u52d9\u6240\u7ba1\u5185\u5730\u8cea\u8abf\u67fb\u696d\u52d9","client_name":"\u56fd\u571f\u4ea4\u901a\u7701\u5317\u6d77\u9053\u958b\u767a\u5c40\u672d\u5e4c\u958b\u767a\u5efa\u8a2d\u90e8\u6edd\u5ddd\u9053\u8def\u4e8b\u52d9\u6240","boring_xml_url":47,"boring_view_url":1,"soilmap_view_url":null,"soiltest_xml_url":0,"soiltest_view_url":0}]}}