{"header":{"xyz":{"source":[],"mosaic":false},"page":2104,"raw":{"soiltest_result":"0","bbox":"57.598333,109.544722,1.933333,163.806111","page":"2104"},"conditions":{"soiltest_result":0,"north":57.598333,"west":109.544722,"south":1.933333,"east":163.806111},"success":true,"message":""},"data":{"meta":{"total":212844,"page":2104,"pages":7095,"count":30},"values":[{"id":345861,"code":"NGIC202001647-0001","latitude":"33.460702527778","longitude":"132.70379438889","source_code":"","project_name":"\n      ","survey_name":"\u4ee4\u548c2\u5e74\u5ea6\u5c71\u9ce5\u5742\u30c0\u30e0\u7ba1\u5185\u5730\u8cea\u8abf\u67fb\uff08\u305d\u306e1\uff09\u696d\u52d9","client_name":"\u56fd\u571f\u4ea4\u901a\u7701\u56db\u56fd\u5730\u65b9\u6574\u5099\u5c40\u5c71\u9ce5\u5742\u30c0\u30e0\u5de5\u4e8b\u4e8b\u52d9\u6240","boring_xml_url":47,"boring_view_url":1,"soilmap_view_url":null,"soiltest_xml_url":0,"soiltest_view_url":0},{"id":345842,"code":"NGIC202001605-0003","latitude":"42.933686111111","longitude":"142.59754166667","source_code":"","project_name":"","survey_name":"\u4e00\u822c\u56fd\u9053274\u53f7\u65e5\u9ad8\u753a\u6e05\u702c\u9632\u707d\u5730\u8cea\u8abf\u67fb\u696d\u52d9","client_name":"\u56fd\u571f\u4ea4\u901a\u7701\u5317\u6d77\u9053\u958b\u767a\u5c40\u5ba4\u862d\u958b\u767a\u5efa\u8a2d\u90e8\u82eb\u5c0f\u7267\u9053\u8def\u4e8b\u52d9\u6240","boring_xml_url":47,"boring_view_url":1,"soilmap_view_url":null,"soiltest_xml_url":47,"soiltest_view_url":47},{"id":345841,"code":"NGIC202001605-0002","latitude":"42.933577777778","longitude":"142.597125","source_code":"","project_name":"","survey_name":"\u4e00\u822c\u56fd\u9053274\u53f7\u65e5\u9ad8\u753a\u6e05\u702c\u9632\u707d\u5730\u8cea\u8abf\u67fb\u696d\u52d9","client_name":"\u56fd\u571f\u4ea4\u901a\u7701\u5317\u6d77\u9053\u958b\u767a\u5c40\u5ba4\u862d\u958b\u767a\u5efa\u8a2d\u90e8\u82eb\u5c0f\u7267\u9053\u8def\u4e8b\u52d9\u6240","boring_xml_url":47,"boring_view_url":1,"soilmap_view_url":null,"soiltest_xml_url":47,"soiltest_view_url":47},{"id":345840,"code":"NGIC202001605-0001","latitude":"42.933438888889","longitude":"142.59669444444","source_code":"","project_name":"","survey_name":"\u4e00\u822c\u56fd\u9053274\u53f7\u65e5\u9ad8\u753a\u6e05\u702c\u9632\u707d\u5730\u8cea\u8abf\u67fb\u696d\u52d9","client_name":"\u56fd\u571f\u4ea4\u901a\u7701\u5317\u6d77\u9053\u958b\u767a\u5c40\u5ba4\u862d\u958b\u767a\u5efa\u8a2d\u90e8\u82eb\u5c0f\u7267\u9053\u8def\u4e8b\u52d9\u6240","boring_xml_url":47,"boring_view_url":1,"soilmap_view_url":null,"soiltest_xml_url":47,"soiltest_view_url":47},{"id":345839,"code":"NGIC202001660-0003","latitude":"44.891050222222","longitude":"142.61528458333","source_code":"","project_name":"","survey_name":"\u4e00\u822c\u56fd\u9053238\u53f7\u679d\u5e78\u753a\u4e0b\u5e4c\u5225\u5730\u8cea\u8abf\u67fb\u696d\u52d9","client_name":"\u56fd\u571f\u4ea4\u901a\u7701\u5317\u6d77\u9053\u958b\u767a\u5c40\u7a1a\u5185\u958b\u767a\u5efa\u8a2d\u90e8\u672c\u90e8","boring_xml_url":47,"boring_view_url":1,"soilmap_view_url":null,"soiltest_xml_url":47,"soiltest_view_url":47},{"id":345838,"code":"NGIC202001660-0002","latitude":"44.89065575","longitude":"142.61561463889","source_code":"","project_name":"","survey_name":"\u4e00\u822c\u56fd\u9053238\u53f7\u679d\u5e78\u753a\u4e0b\u5e4c\u5225\u5730\u8cea\u8abf\u67fb\u696d\u52d9","client_name":"\u56fd\u571f\u4ea4\u901a\u7701\u5317\u6d77\u9053\u958b\u767a\u5c40\u7a1a\u5185\u958b\u767a\u5efa\u8a2d\u90e8\u672c\u90e8","boring_xml_url":47,"boring_view_url":1,"soilmap_view_url":null,"soiltest_xml_url":47,"soiltest_view_url":47},{"id":345837,"code":"NGIC202001660-0001","latitude":"44.890230333333","longitude":"142.61597055556","source_code":"","project_name":"","survey_name":"\u4e00\u822c\u56fd\u9053238\u53f7\u679d\u5e78\u753a\u4e0b\u5e4c\u5225\u5730\u8cea\u8abf\u67fb\u696d\u52d9","client_name":"\u56fd\u571f\u4ea4\u901a\u7701\u5317\u6d77\u9053\u958b\u767a\u5c40\u7a1a\u5185\u958b\u767a\u5efa\u8a2d\u90e8\u672c\u90e8","boring_xml_url":47,"boring_view_url":1,"soilmap_view_url":null,"soiltest_xml_url":47,"soiltest_view_url":47},{"id":345812,"code":"NGIC202001641-0002","latitude":"43.268508333333","longitude":"141.68506666667","source_code":"","project_name":"\u5317\u6751\u904a\u6c34\u5730\u4e8b\u696d","survey_name":"\u5ca9\u898b\u6ca2\u6cb3\u5ddd\u4e8b\u52d9\u6240\u7ba1\u5185\u5730\u8cea\u8abf\u67fb\u696d\u52d9","client_name":"\u56fd\u571f\u4ea4\u901a\u7701\u5317\u6d77\u9053\u958b\u767a\u5c40\u672d\u5e4c\u958b\u767a\u5efa\u8a2d\u90e8\u5ca9\u898b\u6ca2\u6cb3\u5ddd\u4e8b\u52d9\u6240","boring_xml_url":47,"boring_view_url":1,"soilmap_view_url":null,"soiltest_xml_url":47,"soiltest_view_url":47},{"id":345811,"code":"NGIC202001641-0001","latitude":"43.277536111111","longitude":"141.6826","source_code":"","project_name":"\u5317\u6751\u904a\u6c34\u5730\u4e8b\u696d","survey_name":"\u5ca9\u898b\u6ca2\u6cb3\u5ddd\u4e8b\u52d9\u6240\u7ba1\u5185\u5730\u8cea\u8abf\u67fb\u696d\u52d9","client_name":"\u56fd\u571f\u4ea4\u901a\u7701\u5317\u6d77\u9053\u958b\u767a\u5c40\u672d\u5e4c\u958b\u767a\u5efa\u8a2d\u90e8\u5ca9\u898b\u6ca2\u6cb3\u5ddd\u4e8b\u52d9\u6240","boring_xml_url":47,"boring_view_url":1,"soilmap_view_url":null,"soiltest_xml_url":47,"soiltest_view_url":47},{"id":345771,"code":"NGIC202001598-0004","latitude":"43.443555555556","longitude":"145.26216666667","source_code":"","project_name":"","survey_name":"\u6839\u5ba4\u9053\u8def\u4e8b\u52d9\u6240\u7ba1\u5185 \u5730\u8cea\u8abf\u67fb\u696d\u52d9","client_name":"\u56fd\u571f\u4ea4\u901a\u7701\u5317\u6d77\u9053\u958b\u767a\u5c40\u91e7\u8def\u958b\u767a\u5efa\u8a2d\u90e8\u672c\u90e8","boring_xml_url":47,"boring_view_url":1,"soilmap_view_url":null,"soiltest_xml_url":0,"soiltest_view_url":0},{"id":345770,"code":"NGIC202001598-0003","latitude":"43.254519444444","longitude":"145.38577777778","source_code":"","project_name":"","survey_name":"\u6839\u5ba4\u9053\u8def\u4e8b\u52d9\u6240\u7ba1\u5185\u5730\u8cea\u8abf\u67fb\u696d\u52d9","client_name":"\u56fd\u571f\u4ea4\u901a\u7701\u5317\u6d77\u9053\u958b\u767a\u5c40\u91e7\u8def\u958b\u767a\u5efa\u8a2d\u90e8\u672c\u90e8","boring_xml_url":47,"boring_view_url":1,"soilmap_view_url":null,"soiltest_xml_url":0,"soiltest_view_url":0},{"id":345769,"code":"NGIC202001598-0002","latitude":"43.252722222222","longitude":"145.37961111111","source_code":"","project_name":"","survey_name":"\u6839\u5ba4\u9053\u8def\u4e8b\u52d9\u6240\u7ba1\u5185\u5730\u8cea\u8abf\u67fb\u696d\u52d9","client_name":"\u56fd\u571f\u4ea4\u901a\u7701\u5317\u6d77\u9053\u958b\u767a\u5c40\u91e7\u8def\u958b\u767a\u5efa\u8a2d\u90e8\u672c\u90e8","boring_xml_url":47,"boring_view_url":1,"soilmap_view_url":null,"soiltest_xml_url":0,"soiltest_view_url":0},{"id":345768,"code":"NGIC202001598-0001","latitude":"43.253138888889","longitude":"145.37836111111","source_code":"","project_name":"","survey_name":"\u6839\u5ba4\u9053\u8def\u4e8b\u52d9\u6240\u7ba1\u5185\u5730\u8cea\u8abf\u67fb\u696d\u52d9","client_name":"\u56fd\u571f\u4ea4\u901a\u7701\u5317\u6d77\u9053\u958b\u767a\u5c40\u91e7\u8def\u958b\u767a\u5efa\u8a2d\u90e8\u672c\u90e8","boring_xml_url":47,"boring_view_url":1,"soilmap_view_url":null,"soiltest_xml_url":0,"soiltest_view_url":0},{"id":345755,"code":"NGIC202001597-0001","latitude":"34.528630555556","longitude":"133.624825","source_code":"","project_name":"\u7389\u5cf6\u7b20\u5ca1\u9053\u8def\u4e0b\u308a\u7dda204.300k\u301c204.350k\u306e\u308a\u9762\u5909\u72b6\u5bfe\u7b56\u8a2d\u8a08","survey_name":"\u4ee4\u548c2\u5e74\u5ea6\u56fd\u90532\u53f7\u30fb53\u53f7\u7ba1\u7406\u95a2\u4fc2\u6e2c\u91cf\u8a2d\u8a08\u696d\u52d9","client_name":"\u56fd\u571f\u4ea4\u901a\u7701\u4e2d\u56fd\u5730\u65b9\u6574\u5099\u5c40\u5ca1\u5c71\u56fd\u9053\u4e8b\u52d9\u6240","boring_xml_url":47,"boring_view_url":1,"soilmap_view_url":null,"soiltest_xml_url":0,"soiltest_view_url":0},{"id":345754,"code":"NGIC202001596-0004","latitude":"32.842375","longitude":"131.15732222222","source_code":"","project_name":"\u9ad8\u68ee\u5ddd2","survey_name":"\u4ee4\u548c2\u5e74\u5ea6\u963f\u8607\u5730\u57df\u5730\u8cea\u8abf\u67fb(\u305d\u306e3)\u696d\u52d9","client_name":"\u56fd\u571f\u4ea4\u901a\u7701\u4e5d\u5dde\u5730\u65b9\u6574\u5099\u5c40\u718a\u672c\u5fa9\u8208\u4e8b\u52d9\u6240\u5de5\u52d9\u7b2c\u4e00\u8ab2","boring_xml_url":47,"boring_view_url":1,"soilmap_view_url":null,"soiltest_xml_url":0,"soiltest_view_url":0},{"id":345753,"code":"NGIC202001596-0003","latitude":"32.841977777778","longitude":"131.15744722222","source_code":"","project_name":"\u9ad8\u68ee\u5ddd2","survey_name":"\u4ee4\u548c2\u5e74\u5ea6\u963f\u8607\u5730\u57df\u5730\u8cea\u8abf\u67fb(\u305d\u306e3)\u696d\u52d9","client_name":"\u56fd\u571f\u4ea4\u901a\u7701\u4e5d\u5dde\u5730\u65b9\u6574\u5099\u5c40\u718a\u672c\u5fa9\u8208\u4e8b\u52d9\u6240\u5de5\u52d9\u7b2c\u4e00\u8ab2","boring_xml_url":47,"boring_view_url":1,"soilmap_view_url":null,"soiltest_xml_url":0,"soiltest_view_url":0},{"id":345752,"code":"NGIC202001596-0002","latitude":"32.842411111111","longitude":"131.15754722222","source_code":"","project_name":"\u9ad8\u68ee\u5ddd2","survey_name":"\u4ee4\u548c2\u5e74\u5ea6\u963f\u8607\u5730\u57df\u5730\u8cea\u8abf\u67fb(\u305d\u306e3)\u696d\u52d9","client_name":"\u56fd\u571f\u4ea4\u901a\u7701\u4e5d\u5dde\u5730\u65b9\u6574\u5099\u5c40\u718a\u672c\u5fa9\u8208\u4e8b\u52d9\u6240\u5de5\u52d9\u7b2c\u4e00\u8ab2","boring_xml_url":47,"boring_view_url":1,"soilmap_view_url":null,"soiltest_xml_url":47,"soiltest_view_url":47},{"id":345751,"code":"NGIC202001596-0001","latitude":"32.842288888889","longitude":"131.15746388889","source_code":"","project_name":"\u9ad8\u68ee\u5ddd2","survey_name":"\u4ee4\u548c2\u5e74\u5ea6\u963f\u8607\u5730\u57df\u5730\u8cea\u8abf\u67fb(\u305d\u306e3)\u696d\u52d9","client_name":"\u56fd\u571f\u4ea4\u901a\u7701\u4e5d\u5dde\u5730\u65b9\u6574\u5099\u5c40\u718a\u672c\u5fa9\u8208\u4e8b\u52d9\u6240\u5de5\u52d9\u7b2c\u4e00\u8ab2","boring_xml_url":47,"boring_view_url":1,"soilmap_view_url":null,"soiltest_xml_url":0,"soiltest_view_url":0},{"id":345698,"code":"NGIC202001609-0005","latitude":"43.079037277778","longitude":"141.75329366667","source_code":"","project_name":"\u4e00\u822c\u56fd\u9053234\u53f7 \u5ca9\u898b\u6ca2\u5e02 \u5730\u8cea\u8abf\u67fb\u696d\u52d9","survey_name":"\u4e00\u822c\u56fd\u9053234\u53f7 \u5ca9\u898b\u6ca2\u5e02 \u5730\u8cea\u8abf\u67fb\u696d\u52d9","client_name":"\u56fd\u571f\u4ea4\u901a\u7701\u5317\u6d77\u9053\u958b\u767a\u5c40\u672d\u5e4c\u958b\u767a\u5efa\u8a2d\u90e8\u5ca9\u898b\u6ca2\u9053\u8def\u4e8b\u52d9\u6240","boring_xml_url":47,"boring_view_url":1,"soilmap_view_url":null,"soiltest_xml_url":0,"soiltest_view_url":0},{"id":345697,"code":"NGIC202001609-0004","latitude":"43.079458083333","longitude":"141.75291930556","source_code":"","project_name":"\u4e00\u822c\u56fd\u9053234\u53f7 \u5ca9\u898b\u6ca2\u5e02 \u5730\u8cea\u8abf\u67fb\u696d\u52d9","survey_name":"\u4e00\u822c\u56fd\u9053234\u53f7 \u5ca9\u898b\u6ca2\u5e02 \u5730\u8cea\u8abf\u67fb\u696d\u52d9","client_name":"\u56fd\u571f\u4ea4\u901a\u7701\u5317\u6d77\u9053\u958b\u767a\u5c40\u672d\u5e4c\u958b\u767a\u5efa\u8a2d\u90e8\u5ca9\u898b\u6ca2\u9053\u8def\u4e8b\u52d9\u6240","boring_xml_url":47,"boring_view_url":1,"soilmap_view_url":null,"soiltest_xml_url":0,"soiltest_view_url":0},{"id":345696,"code":"NGIC202001609-0003","latitude":"43.079851055556","longitude":"141.75242936111","source_code":"","project_name":"\u4e00\u822c\u56fd\u9053234\u53f7 \u5ca9\u898b\u6ca2\u5e02 \u5730\u8cea\u8abf\u67fb\u696d\u52d9","survey_name":"\u4e00\u822c\u56fd\u9053234\u53f7 \u5ca9\u898b\u6ca2\u5e02 \u5730\u8cea\u8abf\u67fb\u696d\u52d9","client_name":"\u56fd\u571f\u4ea4\u901a\u7701\u5317\u6d77\u9053\u958b\u767a\u5c40\u672d\u5e4c\u958b\u767a\u5efa\u8a2d\u90e8\u5ca9\u898b\u6ca2\u9053\u8def\u4e8b\u52d9\u6240","boring_xml_url":47,"boring_view_url":1,"soilmap_view_url":null,"soiltest_xml_url":0,"soiltest_view_url":0},{"id":345695,"code":"NGIC202001609-0002","latitude":"43.080292472222","longitude":"141.75173222222","source_code":"","project_name":"\u4e00\u822c\u56fd\u9053234\u53f7 \u5ca9\u898b\u6ca2\u5e02 \u5730\u8cea\u8abf\u67fb\u696d\u52d9","survey_name":"\u4e00\u822c\u56fd\u9053234\u53f7 \u5ca9\u898b\u6ca2\u5e02 \u5730\u8cea\u8abf\u67fb\u696d\u52d9","client_name":"\u56fd\u571f\u4ea4\u901a\u7701\u5317\u6d77\u9053\u958b\u767a\u5c40\u672d\u5e4c\u958b\u767a\u5efa\u8a2d\u90e8\u5ca9\u898b\u6ca2\u9053\u8def\u4e8b\u52d9\u6240","boring_xml_url":47,"boring_view_url":1,"soilmap_view_url":null,"soiltest_xml_url":0,"soiltest_view_url":0},{"id":345694,"code":"NGIC202001609-0001","latitude":"43.080557833333","longitude":"141.75116122222","source_code":"","project_name":"\u4e00\u822c\u56fd\u9053234\u53f7 \u5ca9\u898b\u6ca2\u5e02 \u5730\u8cea\u8abf\u67fb\u696d\u52d9","survey_name":"\u4e00\u822c\u56fd\u9053234\u53f7 \u5ca9\u898b\u6ca2\u5e02 \u5730\u8cea\u8abf\u67fb\u696d\u52d9","client_name":"\u56fd\u571f\u4ea4\u901a\u7701\u5317\u6d77\u9053\u958b\u767a\u5c40\u672d\u5e4c\u958b\u767a\u5efa\u8a2d\u90e8\u5ca9\u898b\u6ca2\u9053\u8def\u4e8b\u52d9\u6240","boring_xml_url":47,"boring_view_url":1,"soilmap_view_url":null,"soiltest_xml_url":0,"soiltest_view_url":0},{"id":345671,"code":"NGIC202001592-0002","latitude":"34.574100805556","longitude":"135.50400319444","source_code":"","project_name":"","survey_name":"\u8b66\u5bdf\u5e81\u583a\u5206\u5e81\u820e\u6577\u5730\u8abf\u67fb\u696d\u52d9","client_name":"\u56fd\u571f\u4ea4\u901a\u7701\u8fd1\u757f\u5730\u65b9\u6574\u5099\u5c40\u55b6\u7e55\u90e8","boring_xml_url":47,"boring_view_url":1,"soilmap_view_url":null,"soiltest_xml_url":47,"soiltest_view_url":47},{"id":345670,"code":"NGIC202001592-0001","latitude":"34.573783722222","longitude":"135.50376880556","source_code":"","project_name":"","survey_name":"\u8b66\u5bdf\u5e81\u583a\u5206\u5e81\u820e\u6577\u5730\u8abf\u67fb\u696d\u52d9","client_name":"\u56fd\u571f\u4ea4\u901a\u7701\u8fd1\u757f\u5730\u65b9\u6574\u5099\u5c40\u55b6\u7e55\u90e8","boring_xml_url":47,"boring_view_url":1,"soilmap_view_url":null,"soiltest_xml_url":47,"soiltest_view_url":47},{"id":345626,"code":"NGIC202001543-0006","latitude":"41.987215555556","longitude":"140.63949833333","source_code":"","project_name":"","survey_name":"\u4e00\u822c\u56fd\u9053228\u53f7 \u4e0a\u30ce\u56fd\u753a \u5c0f\u7802\u5b50\u5730\u8cea\u8abf\u67fb\u696d\u52d9","client_name":"\u56fd\u571f\u4ea4\u901a\u7701\u5317\u6d77\u9053\u958b\u767a\u5c40\u51fd\u9928\u958b\u767a\u5efa\u8a2d\u90e8\u672c\u90e8","boring_xml_url":47,"boring_view_url":1,"soilmap_view_url":null,"soiltest_xml_url":0,"soiltest_view_url":0},{"id":345625,"code":"NGIC202001543-0005","latitude":"41.983465555556","longitude":"140.63950194444","source_code":"","project_name":"","survey_name":"\u4e00\u822c\u56fd\u9053228\u53f7 \u4e0a\u30ce\u56fd\u753a \u5c0f\u7802\u5b50\u5730\u8cea\u8abf\u67fb\u696d\u52d9","client_name":"\u56fd\u571f\u4ea4\u901a\u7701\u5317\u6d77\u9053\u958b\u767a\u5c40\u51fd\u9928\u958b\u767a\u5efa\u8a2d\u90e8\u672c\u90e8","boring_xml_url":47,"boring_view_url":1,"soilmap_view_url":null,"soiltest_xml_url":0,"soiltest_view_url":0},{"id":345624,"code":"NGIC202001543-0004","latitude":"41.800130555556","longitude":"140.07333555556","source_code":"","project_name":"","survey_name":"\u4e00\u822c\u56fd\u9053228\u53f7 \u4e0a\u30ce\u56fd\u753a \u5c0f\u7802\u5b50\u5730\u8cea\u8abf\u67fb\u696d\u52d9","client_name":"\u56fd\u571f\u4ea4\u901a\u7701\u5317\u6d77\u9053\u958b\u767a\u5c40\u51fd\u9928\u958b\u767a\u5efa\u8a2d\u90e8\u672c\u90e8","boring_xml_url":47,"boring_view_url":1,"soilmap_view_url":null,"soiltest_xml_url":0,"soiltest_view_url":0},{"id":345623,"code":"NGIC202001543-0003","latitude":"41.788863888889","longitude":"140.07447","source_code":"","project_name":"","survey_name":"\u4e00\u822c\u56fd\u9053228\u53f7 \u4e0a\u30ce\u56fd\u753a \u5c0f\u7802\u5b50\u5730\u8cea\u8abf\u67fb\u696d\u52d9","client_name":"\u56fd\u571f\u4ea4\u901a\u7701\u5317\u6d77\u9053\u958b\u767a\u5c40\u51fd\u9928\u958b\u767a\u5efa\u8a2d\u90e8\u672c\u90e8","boring_xml_url":47,"boring_view_url":1,"soilmap_view_url":null,"soiltest_xml_url":47,"soiltest_view_url":47},{"id":345622,"code":"NGIC202001543-0002","latitude":"41.78871","longitude":"140.074465","source_code":"","project_name":"","survey_name":"\u4e00\u822c\u56fd\u9053228\u53f7 \u4e0a\u30ce\u56fd\u753a \u5c0f\u7802\u5b50\u5730\u8cea\u8abf\u67fb\u696d\u52d9","client_name":"\u56fd\u571f\u4ea4\u901a\u7701\u5317\u6d77\u9053\u958b\u767a\u5c40\u51fd\u9928\u958b\u767a\u5efa\u8a2d\u90e8\u672c\u90e8","boring_xml_url":47,"boring_view_url":1,"soilmap_view_url":null,"soiltest_xml_url":0,"soiltest_view_url":0}]}}