{"header":{"xyz":{"source":[],"mosaic":false},"page":2123,"raw":{"soiltest_result":"0","bbox":"57.598333,109.544722,1.933333,163.806111","page":"2123"},"conditions":{"soiltest_result":0,"north":57.598333,"west":109.544722,"south":1.933333,"east":163.806111},"success":true,"message":""},"data":{"meta":{"total":212844,"page":2123,"pages":7095,"count":30},"values":[{"id":331371,"code":"NGIC202001069-0001","latitude":"32.226613888889","longitude":"130.70577222222","source_code":"","project_name":"\u7403\u78e8\u5ddd\u6d41\u57df\u5730\u8cea\u8abf\u67fb\uff08\u305d\u306e1\uff09\u696d\u52d9","survey_name":"\u7403\u78e8\u5ddd\u6d41\u57df\u5730\u8cea\u8abf\u67fb\uff08\u305d\u306e1\uff09\u696d\u52d9","client_name":"\u56fd\u571f\u4ea4\u901a\u7701\u4e5d\u5dde\u5730\u65b9\u6574\u5099\u5c40\u516b\u4ee3\u6cb3\u5ddd\u56fd\u9053\u4e8b\u52d9\u6240","boring_xml_url":47,"boring_view_url":1,"soilmap_view_url":null,"soiltest_xml_url":47,"soiltest_view_url":47},{"id":331332,"code":"NGIC202001064-0001","latitude":"37.656244222222","longitude":"139.64055511111","source_code":"","project_name":"","survey_name":"\u4ee4\u548c2\u5e74\u5ea6\u963f\u8cc0\u91ce\u5ddd\u6cb3\u5ddd\u4e8b\u52d9\u6240\u7ba1\u5185\u5730\u8cea\u8abf\u67fb\u696d\u52d9","client_name":"\u56fd\u571f\u4ea4\u901a\u7701\u5317\u9678\u5730\u65b9\u6574\u5099\u5c40\u963f\u8cc0\u91ce\u5ddd\u6cb3\u5ddd\u4e8b\u52d9\u6240","boring_xml_url":47,"boring_view_url":1,"soilmap_view_url":null,"soiltest_xml_url":0,"soiltest_view_url":0},{"id":331331,"code":"NGIC202001057-0003","latitude":"35.087","longitude":"137.121","source_code":"","project_name":" ","survey_name":"\u4ee4\u548c\u5143\u5e74\u5ea6 155\u53f7\u8c4a\u7530\u5357BP\u7530\u753a\u5730\u533a\u9053\u8def\u5efa\u8a2d\u5de5\u4e8b\u5730\u8cea\u8abf\u67fb","client_name":"\u56fd\u571f\u4ea4\u901a\u7701\u4e2d\u90e8\u5730\u65b9\u6574\u5099\u5c40\u540d\u56db\u56fd\u9053\u4e8b\u52d9\u6240","boring_xml_url":47,"boring_view_url":1,"soilmap_view_url":null,"soiltest_xml_url":0,"soiltest_view_url":0},{"id":331330,"code":"NGIC202001057-0002","latitude":"35.086944444444","longitude":"137.12127777778","source_code":"","project_name":" ","survey_name":"\u4ee4\u548c\u5143\u5e74\u5ea6 155\u53f7\u8c4a\u7530\u5357BP\u7530\u753a\u5730\u533a\u9053\u8def\u5efa\u8a2d\u5de5\u4e8b\u5730\u8cea\u8abf\u67fb","client_name":"\u56fd\u571f\u4ea4\u901a\u7701\u4e2d\u90e8\u5730\u65b9\u6574\u5099\u5c40\u540d\u56db\u56fd\u9053\u4e8b\u52d9\u6240","boring_xml_url":47,"boring_view_url":1,"soilmap_view_url":null,"soiltest_xml_url":0,"soiltest_view_url":0},{"id":331329,"code":"NGIC202001057-0001","latitude":"35.086416666667","longitude":"137.12130555556","source_code":"","project_name":" ","survey_name":"\u4ee4\u548c\u5143\u5e74\u5ea6 155\u53f7\u8c4a\u7530\u5357BP\u7530\u753a\u5730\u533a\u9053\u8def\u5efa\u8a2d\u5de5\u4e8b\u5730\u8cea\u8abf\u67fb","client_name":"\u56fd\u571f\u4ea4\u901a\u7701\u4e2d\u90e8\u5730\u65b9\u6574\u5099\u5c40\u540d\u56db\u56fd\u9053\u4e8b\u52d9\u6240","boring_xml_url":47,"boring_view_url":1,"soilmap_view_url":null,"soiltest_xml_url":0,"soiltest_view_url":0},{"id":331274,"code":"NGIC202001001-0012","latitude":"34.682638888889","longitude":"138.93723333333","source_code":"","project_name":"","survey_name":"\u4ee4\u548c\u5143\u5e74\u5ea6\u6cb3\u6d25\u4e0b\u7530\u9053\u8def1\u671f\u5357\u90e8\u5730\u8cea\u8abf\u67fb\u696d\u52d9","client_name":"\u56fd\u571f\u4ea4\u901a\u7701\u4e2d\u90e8\u5730\u65b9\u6574\u5099\u5c40\u6cbc\u6d25\u6cb3\u5ddd\u56fd\u9053\u4e8b\u52d9\u6240","boring_xml_url":47,"boring_view_url":1,"soilmap_view_url":null,"soiltest_xml_url":47,"soiltest_view_url":47},{"id":331273,"code":"NGIC202001001-0011","latitude":"34.683691666667","longitude":"138.93657222222","source_code":"","project_name":"","survey_name":"\u4ee4\u548c\u5143\u5e74\u5ea6\u6cb3\u6d25\u4e0b\u7530\u9053\u8def1\u671f\u5357\u90e8\u5730\u8cea\u8abf\u67fb\u696d\u52d9","client_name":"\u56fd\u571f\u4ea4\u901a\u7701\u4e2d\u90e8\u5730\u65b9\u6574\u5099\u5c40\u6cbc\u6d25\u6cb3\u5ddd\u56fd\u9053\u4e8b\u52d9\u6240","boring_xml_url":47,"boring_view_url":1,"soilmap_view_url":null,"soiltest_xml_url":47,"soiltest_view_url":47},{"id":331272,"code":"NGIC202001001-0010","latitude":"34.674958333333","longitude":"138.93606666667","source_code":"","project_name":"","survey_name":"\u4ee4\u548c\u5143\u5e74\u5ea6\u6cb3\u6d25\u4e0b\u7530\u9053\u8def1\u671f\u5357\u90e8\u5730\u8cea\u8abf\u67fb\u696d\u52d9","client_name":"\u56fd\u571f\u4ea4\u901a\u7701\u4e2d\u90e8\u5730\u65b9\u6574\u5099\u5c40\u6cbc\u6d25\u6cb3\u5ddd\u56fd\u9053\u4e8b\u52d9\u6240","boring_xml_url":47,"boring_view_url":1,"soilmap_view_url":null,"soiltest_xml_url":0,"soiltest_view_url":0},{"id":331271,"code":"NGIC202001001-0009","latitude":"34.675408333333","longitude":"138.93611388889","source_code":"","project_name":"","survey_name":"\u4ee4\u548c\u5143\u5e74\u5ea6\u6cb3\u6d25\u4e0b\u7530\u9053\u8def1\u671f\u5357\u90e8\u5730\u8cea\u8abf\u67fb\u696d\u52d9","client_name":"\u56fd\u571f\u4ea4\u901a\u7701\u4e2d\u90e8\u5730\u65b9\u6574\u5099\u5c40\u6cbc\u6d25\u6cb3\u5ddd\u56fd\u9053\u4e8b\u52d9\u6240","boring_xml_url":47,"boring_view_url":1,"soilmap_view_url":null,"soiltest_xml_url":0,"soiltest_view_url":0},{"id":331270,"code":"NGIC202001001-0008","latitude":"34.675786111111","longitude":"138.93611944444","source_code":"","project_name":"","survey_name":"\u4ee4\u548c\u5143\u5e74\u5ea6\u6cb3\u6d25\u4e0b\u7530\u9053\u8def1\u671f\u5357\u90e8\u5730\u8cea\u8abf\u67fb\u696d\u52d9","client_name":"\u56fd\u571f\u4ea4\u901a\u7701\u4e2d\u90e8\u5730\u65b9\u6574\u5099\u5c40\u6cbc\u6d25\u6cb3\u5ddd\u56fd\u9053\u4e8b\u52d9\u6240","boring_xml_url":47,"boring_view_url":1,"soilmap_view_url":null,"soiltest_xml_url":0,"soiltest_view_url":0},{"id":331269,"code":"NGIC202001001-0007","latitude":"34.693111111111","longitude":"138.93675","source_code":"","project_name":"","survey_name":"\u4ee4\u548c\u5143\u5e74\u5ea6\u6cb3\u6d25\u4e0b\u7530\u9053\u8def1\u671f\u5357\u90e8\u5730\u8cea\u8abf\u67fb\u696d\u52d9","client_name":"\u56fd\u571f\u4ea4\u901a\u7701\u4e2d\u90e8\u5730\u65b9\u6574\u5099\u5c40\u6cbc\u6d25\u6cb3\u5ddd\u56fd\u9053\u4e8b\u52d9\u6240","boring_xml_url":47,"boring_view_url":1,"soilmap_view_url":null,"soiltest_xml_url":0,"soiltest_view_url":0},{"id":331268,"code":"NGIC202001001-0006","latitude":"34.693213888889","longitude":"138.93674444444","source_code":"","project_name":"","survey_name":"\u4ee4\u548c\u5143\u5e74\u5ea6\u6cb3\u6d25\u4e0b\u7530\u9053\u8def1\u671f\u5357\u90e8\u5730\u8cea\u8abf\u67fb\u696d\u52d9","client_name":"\u56fd\u571f\u4ea4\u901a\u7701\u4e2d\u90e8\u5730\u65b9\u6574\u5099\u5c40\u6cbc\u6d25\u6cb3\u5ddd\u56fd\u9053\u4e8b\u52d9\u6240","boring_xml_url":47,"boring_view_url":1,"soilmap_view_url":null,"soiltest_xml_url":0,"soiltest_view_url":0},{"id":331267,"code":"NGIC202001001-0005","latitude":"34.694755555556","longitude":"138.93648611111","source_code":"","project_name":"","survey_name":"\u4ee4\u548c\u5143\u5e74\u5ea6\u6cb3\u6d25\u4e0b\u7530\u9053\u8def1\u671f\u5357\u90e8\u5730\u8cea\u8abf\u67fb\u696d\u52d9","client_name":"\u56fd\u571f\u4ea4\u901a\u7701\u4e2d\u90e8\u5730\u65b9\u6574\u5099\u5c40\u6cbc\u6d25\u6cb3\u5ddd\u56fd\u9053\u4e8b\u52d9\u6240","boring_xml_url":47,"boring_view_url":1,"soilmap_view_url":null,"soiltest_xml_url":0,"soiltest_view_url":0},{"id":331266,"code":"NGIC202001001-0004","latitude":"34.694802777778","longitude":"138.93659444444","source_code":"","project_name":"","survey_name":"\u4ee4\u548c\u5143\u5e74\u5ea6\u6cb3\u6d25\u4e0b\u7530\u9053\u8def1\u671f\u5357\u90e8\u5730\u8cea\u8abf\u67fb\u696d\u52d9","client_name":"\u56fd\u571f\u4ea4\u901a\u7701\u4e2d\u90e8\u5730\u65b9\u6574\u5099\u5c40\u6cbc\u6d25\u6cb3\u5ddd\u56fd\u9053\u4e8b\u52d9\u6240","boring_xml_url":47,"boring_view_url":1,"soilmap_view_url":null,"soiltest_xml_url":0,"soiltest_view_url":0},{"id":331265,"code":"NGIC202001001-0003","latitude":"34.705919444444","longitude":"138.93686388889","source_code":"","project_name":"","survey_name":"\u4ee4\u548c\u5143\u5e74\u5ea6\u6cb3\u6d25\u4e0b\u7530\u9053\u8def1\u671f\u5357\u90e8\u5730\u8cea\u8abf\u67fb\u696d\u52d9","client_name":"\u56fd\u571f\u4ea4\u901a\u7701\u4e2d\u90e8\u5730\u65b9\u6574\u5099\u5c40\u6cbc\u6d25\u6cb3\u5ddd\u56fd\u9053\u4e8b\u52d9\u6240","boring_xml_url":47,"boring_view_url":1,"soilmap_view_url":null,"soiltest_xml_url":0,"soiltest_view_url":0},{"id":331264,"code":"NGIC202001001-0002","latitude":"34.706280555556","longitude":"138.93686388889","source_code":"","project_name":"","survey_name":"\u4ee4\u548c\u5143\u5e74\u5ea6\u6cb3\u6d25\u4e0b\u7530\u9053\u8def1\u671f\u5357\u90e8\u5730\u8cea\u8abf\u67fb\u696d\u52d9","client_name":"\u56fd\u571f\u4ea4\u901a\u7701\u4e2d\u90e8\u5730\u65b9\u6574\u5099\u5c40\u6cbc\u6d25\u6cb3\u5ddd\u56fd\u9053\u4e8b\u52d9\u6240","boring_xml_url":47,"boring_view_url":1,"soilmap_view_url":null,"soiltest_xml_url":0,"soiltest_view_url":0},{"id":331263,"code":"NGIC202001001-0001","latitude":"34.706483333333","longitude":"138.93686388889","source_code":"","project_name":"","survey_name":"\u4ee4\u548c\u5143\u5e74\u5ea6\u6cb3\u6d25\u4e0b\u7530\u9053\u8def1\u671f\u5357\u90e8\u5730\u8cea\u8abf\u67fb\u696d\u52d9","client_name":"\u56fd\u571f\u4ea4\u901a\u7701\u4e2d\u90e8\u5730\u65b9\u6574\u5099\u5c40\u6cbc\u6d25\u6cb3\u5ddd\u56fd\u9053\u4e8b\u52d9\u6240","boring_xml_url":47,"boring_view_url":1,"soilmap_view_url":null,"soiltest_xml_url":0,"soiltest_view_url":0},{"id":331243,"code":"NGIC202000992-0038","latitude":"38.768800444444","longitude":"140.00195952778","source_code":"","project_name":"\u5c0f\u51fa\u6ca2\u5ddd\u7b2c2\u7802\u9632\u5830\u5824\u5730\u8cea\u8abf\u67fb","survey_name":"\u4ee4\u548c\u5143\u5e74\u5ea6\u677e\u6ca2\u5ddd\u307b\u304b\u5730\u8cea\u8abf\u67fb","client_name":"\u56fd\u571f\u4ea4\u901a\u7701\u6771\u5317\u5730\u65b9\u6574\u5099\u5c40\u65b0\u5e84\u6cb3\u5ddd\u4e8b\u52d9\u6240","boring_xml_url":47,"boring_view_url":1,"soilmap_view_url":null,"soiltest_xml_url":0,"soiltest_view_url":0},{"id":331242,"code":"NGIC202000992-0037","latitude":"38.768855944444","longitude":"140.00175955556","source_code":"","project_name":"\u5c0f\u51fa\u6ca2\u5ddd\u7b2c2\u7802\u9632\u5830\u5824\u5730\u8cea\u8abf\u67fb","survey_name":"\u4ee4\u548c\u5143\u5e74\u5ea6\u677e\u6ca2\u5ddd\u307b\u304b\u5730\u8cea\u8abf\u67fb","client_name":"\u56fd\u571f\u4ea4\u901a\u7701\u6771\u5317\u5730\u65b9\u6574\u5099\u5c40\u65b0\u5e84\u6cb3\u5ddd\u4e8b\u52d9\u6240","boring_xml_url":47,"boring_view_url":1,"soilmap_view_url":null,"soiltest_xml_url":0,"soiltest_view_url":0},{"id":331241,"code":"NGIC202000992-0036","latitude":"38.768746611111","longitude":"140.00183980556","source_code":"","project_name":"\u5c0f\u51fa\u6ca2\u5ddd\u7b2c2\u7802\u9632\u5830\u5824\u5730\u8cea\u8abf\u67fb","survey_name":"\u4ee4\u548c\u5143\u5e74\u5ea6\u677e\u6ca2\u5ddd\u307b\u304b\u5730\u8cea\u8abf\u67fb","client_name":"\u56fd\u571f\u4ea4\u901a\u7701\u6771\u5317\u5730\u65b9\u6574\u5099\u5c40\u65b0\u5e84\u6cb3\u5ddd\u4e8b\u52d9\u6240","boring_xml_url":47,"boring_view_url":1,"soilmap_view_url":null,"soiltest_xml_url":0,"soiltest_view_url":0},{"id":331240,"code":"NGIC202000992-0035","latitude":"38.768621611111","longitude":"140.00193155556","source_code":"","project_name":"\u5c0f\u51fa\u6ca2\u5ddd\u7b2c2\u7802\u9632\u5830\u5824\u5730\u8cea\u8abf\u67fb","survey_name":"\u4ee4\u548c\u5143\u5e74\u5ea6\u677e\u6ca2\u5ddd\u307b\u304b\u5730\u8cea\u8abf\u67fb","client_name":"\u56fd\u571f\u4ea4\u901a\u7701\u6771\u5317\u5730\u65b9\u6574\u5099\u5c40\u65b0\u5e84\u6cb3\u5ddd\u4e8b\u52d9\u6240","boring_xml_url":47,"boring_view_url":1,"soilmap_view_url":null,"soiltest_xml_url":0,"soiltest_view_url":0},{"id":331239,"code":"NGIC202000992-0034","latitude":"38.544802111111","longitude":"139.79553008333","source_code":"","project_name":"\u677e\u6ca2\u5ddd\u7b2c2\u7802\u9632\u5830\u5824\u5730\u8cea\u8abf\u67fb","survey_name":"\u4ee4\u548c\u5143\u5e74\u5ea6\u677e\u6ca2\u5ddd\u307b\u304b\u5730\u8cea\u8abf\u67fb","client_name":"\u56fd\u571f\u4ea4\u901a\u7701\u6771\u5317\u5730\u65b9\u6574\u5099\u5c40\u65b0\u5e84\u6cb3\u5ddd\u4e8b\u52d9\u6240","boring_xml_url":47,"boring_view_url":1,"soilmap_view_url":null,"soiltest_xml_url":0,"soiltest_view_url":0},{"id":331238,"code":"NGIC202000992-0033","latitude":"38.545016583333","longitude":"139.79536383333","source_code":"","project_name":"\u677e\u6ca2\u5ddd\u7b2c2\u7802\u9632\u5830\u5824\u5730\u8cea\u8abf\u67fb","survey_name":"\u4ee4\u548c\u5143\u5e74\u5ea6\u677e\u6ca2\u5ddd\u307b\u304b\u5730\u8cea\u8abf\u67fb","client_name":"\u56fd\u571f\u4ea4\u901a\u7701\u6771\u5317\u5730\u65b9\u6574\u5099\u5c40\u65b0\u5e84\u6cb3\u5ddd\u4e8b\u52d9\u6240","boring_xml_url":47,"boring_view_url":1,"soilmap_view_url":null,"soiltest_xml_url":0,"soiltest_view_url":0},{"id":331237,"code":"NGIC202000992-0032","latitude":"38.544895222222","longitude":"139.79528811111","source_code":"","project_name":"\u677e\u6ca2\u5ddd\u7b2c2\u7802\u9632\u5830\u5824\u5730\u8cea\u8abf\u67fb","survey_name":"\u4ee4\u548c\u5143\u5e74\u5ea6\u677e\u6ca2\u5ddd\u307b\u304b\u5730\u8cea\u8abf\u67fb","client_name":"\u56fd\u571f\u4ea4\u901a\u7701\u6771\u5317\u5730\u65b9\u6574\u5099\u5c40\u65b0\u5e84\u6cb3\u5ddd\u4e8b\u52d9\u6240","boring_xml_url":47,"boring_view_url":1,"soilmap_view_url":null,"soiltest_xml_url":0,"soiltest_view_url":0},{"id":331236,"code":"NGIC202000992-0031","latitude":"38.544733305556","longitude":"139.79510375","source_code":"","project_name":"\u677e\u6ca2\u5ddd\u7b2c2\u7802\u9632\u5830\u5824\u5730\u8cea\u8abf\u67fb","survey_name":"\u4ee4\u548c\u5143\u5e74\u5ea6\u677e\u6ca2\u5ddd\u307b\u304b\u5730\u8cea\u8abf\u67fb","client_name":"\u56fd\u571f\u4ea4\u901a\u7701\u6771\u5317\u5730\u65b9\u6574\u5099\u5c40\u65b0\u5e84\u6cb3\u5ddd\u4e8b\u52d9\u6240","boring_xml_url":47,"boring_view_url":1,"soilmap_view_url":null,"soiltest_xml_url":0,"soiltest_view_url":0},{"id":331235,"code":"NGIC202000992-0030","latitude":"38.6368915","longitude":"140.17956244444","source_code":"","project_name":"\u516b\u5e61\u6ca2\u7b2c5\u7802\u9632\u5830\u5824\u5730\u8cea\u8abf\u67fb","survey_name":"\u4ee4\u548c\u5143\u5e74\u5ea6\u677e\u6ca2\u5ddd\u307b\u304b\u5730\u8cea\u8abf\u67fb","client_name":"\u56fd\u571f\u4ea4\u901a\u7701\u6771\u5317\u5730\u65b9\u6574\u5099\u5c40\u65b0\u5e84\u6cb3\u5ddd\u4e8b\u52d9\u6240","boring_xml_url":47,"boring_view_url":1,"soilmap_view_url":null,"soiltest_xml_url":0,"soiltest_view_url":0},{"id":331234,"code":"NGIC202000992-0029","latitude":"38.636895666667","longitude":"140.17979233333","source_code":"","project_name":"\u516b\u5e61\u6ca2\u7b2c5\u7802\u9632\u5830\u5824\u5730\u8cea\u8abf\u67fb","survey_name":"\u4ee4\u548c\u5143\u5e74\u5ea6\u677e\u6ca2\u5ddd\u307b\u304b\u5730\u8cea\u8abf\u67fb","client_name":"\u56fd\u571f\u4ea4\u901a\u7701\u6771\u5317\u5730\u65b9\u6574\u5099\u5c40\u65b0\u5e84\u6cb3\u5ddd\u4e8b\u52d9\u6240","boring_xml_url":47,"boring_view_url":1,"soilmap_view_url":null,"soiltest_xml_url":0,"soiltest_view_url":0},{"id":331233,"code":"NGIC202000992-0028","latitude":"38.636899555556","longitude":"140.180005","source_code":"","project_name":"\u516b\u5e61\u6ca2\u7b2c5\u7802\u9632\u5830\u5824\u5730\u8cea\u8abf\u67fb","survey_name":"\u4ee4\u548c\u5143\u5e74\u5ea6\u677e\u6ca2\u5ddd\u307b\u304b\u5730\u8cea\u8abf\u67fb","client_name":"\u56fd\u571f\u4ea4\u901a\u7701\u6771\u5317\u5730\u65b9\u6574\u5099\u5c40\u65b0\u5e84\u6cb3\u5ddd\u4e8b\u52d9\u6240","boring_xml_url":47,"boring_view_url":1,"soilmap_view_url":null,"soiltest_xml_url":0,"soiltest_view_url":0},{"id":331232,"code":"NGIC202000992-0027","latitude":"38.475278277778","longitude":"139.76891686111","source_code":"","project_name":"\u30b7\u30df\u30ba\u6ca2\u7802\u9632\u5830\u5824\u5730\u8cea\u8abf\u67fb","survey_name":"\u4ee4\u548c\u5143\u5e74\u5ea6\u677e\u6ca2\u5ddd\u307b\u304b\u5730\u8cea\u8abf\u67fb","client_name":"\u56fd\u571f\u4ea4\u901a\u7701\u6771\u5317\u5730\u65b9\u6574\u5099\u5c40\u65b0\u5e84\u6cb3\u5ddd\u4e8b\u52d9\u6240","boring_xml_url":47,"boring_view_url":1,"soilmap_view_url":null,"soiltest_xml_url":0,"soiltest_view_url":0},{"id":331231,"code":"NGIC202000992-0026","latitude":"38.475454916667","longitude":"139.76860630556","source_code":"","project_name":"\u30b7\u30df\u30ba\u6ca2\u7802\u9632\u5830\u5824\u5730\u8cea\u8abf\u67fb","survey_name":"\u4ee4\u548c\u5143\u5e74\u5ea6\u677e\u6ca2\u5ddd\u307b\u304b\u5730\u8cea\u8abf\u67fb","client_name":"\u56fd\u571f\u4ea4\u901a\u7701\u6771\u5317\u5730\u65b9\u6574\u5099\u5c40\u65b0\u5e84\u6cb3\u5ddd\u4e8b\u52d9\u6240","boring_xml_url":47,"boring_view_url":1,"soilmap_view_url":null,"soiltest_xml_url":0,"soiltest_view_url":0}]}}