{"header":{"xyz":{"source":[],"mosaic":false},"page":2126,"raw":{"soiltest_result":"0","bbox":"57.598333,109.544722,1.933333,163.806111","page":"2126"},"conditions":{"soiltest_result":0,"north":57.598333,"west":109.544722,"south":1.933333,"east":163.806111},"success":true,"message":""},"data":{"meta":{"total":212844,"page":2126,"pages":7095,"count":30},"values":[{"id":331067,"code":"NGIC202001003-0001","latitude":"42.125966666667","longitude":"142.91829444444","source_code":"","project_name":"\u69d8\u4f3c\u6f01\u6e2f\u5730\u8cea\u8abf\u67fb\u696d\u52d9","survey_name":"\u69d8\u4f3c\u6f01\u6e2f\u5730\u8cea\u8abf\u67fb\u696d\u52d9","client_name":"\u56fd\u571f\u4ea4\u901a\u7701\u5317\u6d77\u9053\u958b\u767a\u5c40\u5ba4\u862d\u958b\u767a\u5efa\u8a2d\u90e8\u6d66\u6cb3\u6e2f\u6e7e\u4e8b\u52d9\u6240","boring_xml_url":47,"boring_view_url":1,"soilmap_view_url":null,"soiltest_xml_url":0,"soiltest_view_url":0},{"id":331036,"code":"NGIC202000984-0003","latitude":"41.820877777778","longitude":"140.70748611111","source_code":"","project_name":"\u4e00\u822c\u56fd\u9053278\u53f7 \u51fd\u9928\u5e02 \u8457\u4fdd\u5185\u5927\u6a4b\u5730\u8cea\u8abf\u67fb\u5916\u4e00\u9023\u696d\u52d9","survey_name":"\u4e00\u822c\u56fd\u9053278\u53f7 \u51fd\u9928\u5e02 \u8457\u4fdd\u5185\u5927\u6a4b\u5730\u8cea\u8abf\u67fb\u5916\u4e00\u9023\u696d\u52d9","client_name":"\u56fd\u571f\u4ea4\u901a\u7701\u5317\u6d77\u9053\u958b\u767a\u5c40\u51fd\u9928\u958b\u767a\u5efa\u8a2d\u90e8","boring_xml_url":47,"boring_view_url":1,"soilmap_view_url":null,"soiltest_xml_url":47,"soiltest_view_url":47},{"id":331035,"code":"NGIC202000984-0002","latitude":"41.774933333333","longitude":"140.78898333333","source_code":"","project_name":"\u4e00\u822c\u56fd\u9053278\u53f7 \u51fd\u9928\u5e02 \u8457\u4fdd\u5185\u5927\u6a4b\u5730\u8cea\u8abf\u67fb\u5916\u4e00\u9023\u696d\u52d9","survey_name":"\u4e00\u822c\u56fd\u9053278\u53f7 \u51fd\u9928\u5e02 \u8457\u4fdd\u5185\u5927\u6a4b\u5730\u8cea\u8abf\u67fb\u5916\u4e00\u9023\u696d\u52d9","client_name":"\u56fd\u571f\u4ea4\u901a\u7701\u5317\u6d77\u9053\u958b\u767a\u5c40\u51fd\u9928\u958b\u767a\u5efa\u8a2d\u90e8","boring_xml_url":47,"boring_view_url":1,"soilmap_view_url":null,"soiltest_xml_url":47,"soiltest_view_url":47},{"id":331034,"code":"NGIC202000984-0001","latitude":"41.893372222222","longitude":"141.00149166667","source_code":"","project_name":"\u4e00\u822c\u56fd\u9053278\u53f7 \u51fd\u9928\u5e02 \u8457\u4fdd\u5185\u5927\u6a4b\u5730\u8cea\u8abf\u67fb\u5916\u4e00\u9023\u696d\u52d9","survey_name":"\u4e00\u822c\u56fd\u9053278\u53f7 \u51fd\u9928\u5e02 \u8457\u4fdd\u5185\u5927\u6a4b\u5730\u8cea\u8abf\u67fb\u5916\u4e00\u9023\u696d\u52d9","client_name":"\u56fd\u571f\u4ea4\u901a\u7701\u5317\u6d77\u9053\u958b\u767a\u5c40\u51fd\u9928\u958b\u767a\u5efa\u8a2d\u90e8","boring_xml_url":47,"boring_view_url":1,"soilmap_view_url":null,"soiltest_xml_url":47,"soiltest_view_url":47},{"id":331033,"code":"NGIC202000950-0003","latitude":"43.718913888889","longitude":"141.88416388889","source_code":"","project_name":"\u6df1\u5ddd\u9053\u8def\u4e8b\u52d9\u6240\u7ba1\u5185\u5730\u8cea\u8abf\u67fb\u696d\u52d9","survey_name":"\u6df1\u5ddd\u9053\u8def\u4e8b\u52d9\u6240\u7ba1\u5185\u5730\u8cea\u8abf\u67fb\u696d\u52d9","client_name":"\u56fd\u571f\u4ea4\u901a\u7701\u5317\u6d77\u9053\u958b\u767a\u5c40\u672d\u5e4c\u958b\u767a\u5efa\u8a2d\u90e8\u6df1\u5ddd\u9053\u8def\u4e8b\u52d9\u6240","boring_xml_url":47,"boring_view_url":1,"soilmap_view_url":null,"soiltest_xml_url":47,"soiltest_view_url":47},{"id":331032,"code":"NGIC202000950-0002","latitude":"43.717780555556","longitude":"141.88485","source_code":"","project_name":"\u6df1\u5ddd\u9053\u8def\u4e8b\u52d9\u6240\u7ba1\u5185\u5730\u8cea\u8abf\u67fb\u696d\u52d9","survey_name":"\u6df1\u5ddd\u9053\u8def\u4e8b\u52d9\u6240\u7ba1\u5185\u5730\u8cea\u8abf\u67fb\u696d\u52d9","client_name":"\u56fd\u571f\u4ea4\u901a\u7701\u5317\u6d77\u9053\u958b\u767a\u5c40\u672d\u5e4c\u958b\u767a\u5efa\u8a2d\u90e8\u6df1\u5ddd\u9053\u8def\u4e8b\u52d9\u6240","boring_xml_url":47,"boring_view_url":1,"soilmap_view_url":null,"soiltest_xml_url":47,"soiltest_view_url":47},{"id":331031,"code":"NGIC202000950-0001","latitude":"43.721480555556","longitude":"142.04623055556","source_code":"","project_name":"\u6df1\u5ddd\u9053\u8def\u4e8b\u52d9\u6240\u7ba1\u5185\u5730\u8cea\u8abf\u67fb\u696d\u52d9","survey_name":"\u6df1\u5ddd\u9053\u8def\u4e8b\u52d9\u6240\u7ba1\u5185\u5730\u8cea\u8abf\u67fb\u696d\u52d9","client_name":"\u56fd\u571f\u4ea4\u901a\u7701\u5317\u6d77\u9053\u958b\u767a\u5c40\u672d\u5e4c\u958b\u767a\u5efa\u8a2d\u90e8\u6df1\u5ddd\u9053\u8def\u4e8b\u52d9\u6240","boring_xml_url":47,"boring_view_url":1,"soilmap_view_url":null,"soiltest_xml_url":47,"soiltest_view_url":47},{"id":331030,"code":"NGIC201902059-0007","latitude":"26.205565166667","longitude":"127.66501944444","source_code":"","project_name":"","survey_name":"\u5e73\u621031\u5e74\u5ea6\u5357\u90e8\u56fd\u9053\u7ba1\u5185\u9632\u707d\u70b9\u691c\u8a2d\u8a08\u696d\u52d9","client_name":"\u5185\u95a3\u5e9c\u6c96\u7e04\u7dcf\u5408\u4e8b\u52d9\u5c40\u958b\u767a\u5efa\u8a2d\u90e8\u5357\u90e8\u56fd\u9053\u4e8b\u52d9\u6240","boring_xml_url":47,"boring_view_url":1,"soilmap_view_url":null,"soiltest_xml_url":0,"soiltest_view_url":0},{"id":331029,"code":"NGIC201902059-0006","latitude":"26.205491611111","longitude":"127.66502575","source_code":"","project_name":"","survey_name":"\u5e73\u621031\u5e74\u5ea6\u5357\u90e8\u56fd\u9053\u7ba1\u5185\u9632\u707d\u70b9\u691c\u8a2d\u8a08\u696d\u52d9","client_name":"\u5185\u95a3\u5e9c\u6c96\u7e04\u7dcf\u5408\u4e8b\u52d9\u5c40\u958b\u767a\u5efa\u8a2d\u90e8\u5357\u90e8\u56fd\u9053\u4e8b\u52d9\u6240","boring_xml_url":47,"boring_view_url":1,"soilmap_view_url":null,"soiltest_xml_url":0,"soiltest_view_url":0},{"id":331028,"code":"NGIC201902059-0005","latitude":"26.173118333333","longitude":"127.69737944444","source_code":"","project_name":"","survey_name":"\u5e73\u621031\u5e74\u5ea6\u5357\u90e8\u56fd\u9053\u7ba1\u5185\u9632\u707d\u70b9\u691c\u8a2d\u8a08\u696d\u52d9","client_name":"\u5185\u95a3\u5e9c\u6c96\u7e04\u7dcf\u5408\u4e8b\u52d9\u5c40\u958b\u767a\u5efa\u8a2d\u90e8\u5357\u90e8\u56fd\u9053\u4e8b\u52d9\u6240","boring_xml_url":47,"boring_view_url":1,"soilmap_view_url":null,"soiltest_xml_url":0,"soiltest_view_url":0},{"id":331027,"code":"NGIC201902059-0004","latitude":"26.173050833333","longitude":"127.69736027778","source_code":"","project_name":"","survey_name":"\u5e73\u621031\u5e74\u5ea6\u5357\u90e8\u56fd\u9053\u7ba1\u5185\u9632\u707d\u70b9\u691c\u8a2d\u8a08\u696d\u52d9","client_name":"\u5185\u95a3\u5e9c\u6c96\u7e04\u7dcf\u5408\u4e8b\u52d9\u5c40\u958b\u767a\u5efa\u8a2d\u90e8\u5357\u90e8\u56fd\u9053\u4e8b\u52d9\u6240","boring_xml_url":47,"boring_view_url":1,"soilmap_view_url":null,"soiltest_xml_url":0,"soiltest_view_url":0},{"id":331026,"code":"NGIC201902059-0003","latitude":"26.244760277778","longitude":"127.71138138889","source_code":"","project_name":"","survey_name":"\u5e73\u621031\u5e74\u5ea6\u5357\u90e8\u56fd\u9053\u7ba1\u5185\u9632\u707d\u70b9\u691c\u8a2d\u8a08\u696d\u52d9","client_name":"\u5185\u95a3\u5e9c\u6c96\u7e04\u7dcf\u5408\u4e8b\u52d9\u5c40\u958b\u767a\u5efa\u8a2d\u90e8\u5357\u90e8\u56fd\u9053\u4e8b\u52d9\u6240","boring_xml_url":47,"boring_view_url":1,"soilmap_view_url":null,"soiltest_xml_url":0,"soiltest_view_url":0},{"id":331025,"code":"NGIC201902059-0002","latitude":"26.244732805556","longitude":"127.71145452778","source_code":"","project_name":"","survey_name":"\u5e73\u621031\u5e74\u5ea6\u5357\u90e8\u56fd\u9053\u7ba1\u5185\u9632\u707d\u70b9\u691c\u8a2d\u8a08\u696d\u52d9","client_name":"\u5185\u95a3\u5e9c\u6c96\u7e04\u7dcf\u5408\u4e8b\u52d9\u5c40\u958b\u767a\u5efa\u8a2d\u90e8\u5357\u90e8\u56fd\u9053\u4e8b\u52d9\u6240","boring_xml_url":47,"boring_view_url":1,"soilmap_view_url":null,"soiltest_xml_url":0,"soiltest_view_url":0},{"id":331024,"code":"NGIC201902059-0001","latitude":"26.254656944444","longitude":"127.72358527778","source_code":"","project_name":"","survey_name":"\u5e73\u621031\u5e74\u5ea6\u5357\u90e8\u56fd\u9053\u7ba1\u5185\u9632\u707d\u70b9\u691c\u8a2d\u8a08\u696d\u52d9","client_name":"\u5185\u95a3\u5e9c\u6c96\u7e04\u7dcf\u5408\u4e8b\u52d9\u5c40\u958b\u767a\u5efa\u8a2d\u90e8\u5357\u90e8\u56fd\u9053\u4e8b\u52d9\u6240","boring_xml_url":47,"boring_view_url":1,"soilmap_view_url":null,"soiltest_xml_url":0,"soiltest_view_url":0},{"id":331017,"code":"NGIC202000927-0002","latitude":"33.460804361111","longitude":"132.70337161111","source_code":"","project_name":"","survey_name":"\u4ee4\u548c2\u5e74\u5ea6 \u5c71\u9ce5\u5742\u30c0\u30e0\u7ba1\u5185\u5730\u8cea\u8abf\u67fb\uff08\u305d\u306e10\uff09\u696d\u52d9","client_name":"\u56fd\u571f\u4ea4\u901a\u7701\u56db\u56fd\u5730\u65b9\u6574\u5099\u5c40\u5c71\u9ce5\u5742\u30c0\u30e0\u5de5\u4e8b\u4e8b\u52d9\u6240","boring_xml_url":47,"boring_view_url":1,"soilmap_view_url":null,"soiltest_xml_url":0,"soiltest_view_url":0},{"id":331016,"code":"NGIC202000927-0001","latitude":"33.460310805556","longitude":"132.70388458333","source_code":"","project_name":"","survey_name":"\u4ee4\u548c2\u5e74\u5ea6 \u5c71\u9ce5\u5742\u30c0\u30e0\u7ba1\u5185\u5730\u8cea\u8abf\u67fb\uff08\u305d\u306e10\uff09\u696d\u52d9","client_name":"\u56fd\u571f\u4ea4\u901a\u7701\u56db\u56fd\u5730\u65b9\u6574\u5099\u5c40\u5c71\u9ce5\u5742\u30c0\u30e0\u5de5\u4e8b\u4e8b\u52d9\u6240","boring_xml_url":47,"boring_view_url":1,"soilmap_view_url":null,"soiltest_xml_url":0,"soiltest_view_url":0},{"id":331015,"code":"NGIC202000924-0003","latitude":"33.462090277778","longitude":"132.70268269444","source_code":"","project_name":"","survey_name":"\u4ee4\u548c2\u5e74\u5ea6 \u5c71\u9ce5\u5742\u30c0\u30e0\u7ba1\u5185\u5730\u8cea\u8abf\u67fb\uff08\u305d\u306e3\uff09\u696d\u52d9","client_name":"\u56fd\u571f\u4ea4\u901a\u7701\u56db\u56fd\u5730\u65b9\u6574\u5099\u5c40\u5c71\u9ce5\u5742\u30c0\u30e0\u5de5\u4e8b\u4e8b\u52d9\u6240","boring_xml_url":47,"boring_view_url":1,"soilmap_view_url":null,"soiltest_xml_url":0,"soiltest_view_url":0},{"id":331014,"code":"NGIC202000924-0002","latitude":"33.462130361111","longitude":"132.70325644444","source_code":"","project_name":"","survey_name":"\u4ee4\u548c2\u5e74\u5ea6 \u5c71\u9ce5\u5742\u30c0\u30e0\u7ba1\u5185\u5730\u8cea\u8abf\u67fb\uff08\u305d\u306e3\uff09\u696d\u52d9","client_name":"\u56fd\u571f\u4ea4\u901a\u7701\u56db\u56fd\u5730\u65b9\u6574\u5099\u5c40\u5c71\u9ce5\u5742\u30c0\u30e0\u5de5\u4e8b\u4e8b\u52d9\u6240","boring_xml_url":47,"boring_view_url":1,"soilmap_view_url":null,"soiltest_xml_url":0,"soiltest_view_url":0},{"id":331013,"code":"NGIC202000924-0001","latitude":"33.4623195","longitude":"132.70410908333","source_code":"","project_name":"","survey_name":"\u4ee4\u548c2\u5e74\u5ea6 \u5c71\u9ce5\u5742\u30c0\u30e0\u7ba1\u5185\u5730\u8cea\u8abf\u67fb\uff08\u305d\u306e3\uff09\u696d\u52d9","client_name":"\u56fd\u571f\u4ea4\u901a\u7701\u56db\u56fd\u5730\u65b9\u6574\u5099\u5c40\u5c71\u9ce5\u5742\u30c0\u30e0\u5de5\u4e8b\u4e8b\u52d9\u6240","boring_xml_url":47,"boring_view_url":1,"soilmap_view_url":null,"soiltest_xml_url":0,"soiltest_view_url":0},{"id":330990,"code":"NGIC202000979-0004","latitude":"35.588809611111","longitude":"140.08107472222","source_code":"","project_name":"\n      ","survey_name":"\u5343\u8449\u6e2f\u5343\u8449\u4e2d\u592e\u5730\u533a\u571f\u8cea\u8abf\u67fb\uff08\u305d\u306e2\uff09","client_name":"\u56fd\u571f\u4ea4\u901a\u7701\u95a2\u6771\u5730\u65b9\u6574\u5099\u5c40\u5343\u8449\u6e2f\u6e7e\u4e8b\u52d9\u6240","boring_xml_url":47,"boring_view_url":1,"soilmap_view_url":71,"soiltest_xml_url":47,"soiltest_view_url":47},{"id":330989,"code":"NGIC202000979-0003","latitude":"35.588779027778","longitude":"140.08061047222","source_code":"","project_name":"\n      ","survey_name":"\u5343\u8449\u6e2f\u5343\u8449\u4e2d\u592e\u5730\u533a\u571f\u8cea\u8abf\u67fb\uff08\u305d\u306e2\uff09","client_name":"\u56fd\u571f\u4ea4\u901a\u7701\u95a2\u6771\u5730\u65b9\u6574\u5099\u5c40\u5343\u8449\u6e2f\u6e7e\u4e8b\u52d9\u6240","boring_xml_url":47,"boring_view_url":1,"soilmap_view_url":71,"soiltest_xml_url":47,"soiltest_view_url":47},{"id":330988,"code":"NGIC202000979-0002","latitude":"35.588414611111","longitude":"140.08079047222","source_code":"","project_name":"\n      ","survey_name":"\u5343\u8449\u6e2f\u5343\u8449\u4e2d\u592e\u5730\u533a\u571f\u8cea\u8abf\u67fb\uff08\u305d\u306e2\uff09","client_name":"\u56fd\u571f\u4ea4\u901a\u7701\u95a2\u6771\u5730\u65b9\u6574\u5099\u5c40\u5343\u8449\u6e2f\u6e7e\u4e8b\u52d9\u6240","boring_xml_url":47,"boring_view_url":1,"soilmap_view_url":71,"soiltest_xml_url":47,"soiltest_view_url":47},{"id":330987,"code":"NGIC202000979-0001","latitude":"35.588286638889","longitude":"140.08126838889","source_code":"","project_name":"\n      ","survey_name":"\u5343\u8449\u6e2f\u5343\u8449\u4e2d\u592e\u5730\u533a\u571f\u8cea\u8abf\u67fb\uff08\u305d\u306e2\uff09","client_name":"\u56fd\u571f\u4ea4\u901a\u7701\u95a2\u6771\u5730\u65b9\u6574\u5099\u5c40\u5343\u8449\u6e2f\u6e7e\u4e8b\u52d9\u6240","boring_xml_url":47,"boring_view_url":1,"soilmap_view_url":71,"soiltest_xml_url":47,"soiltest_view_url":47},{"id":330976,"code":"NGIC202000966-0026","latitude":"34.658416111111","longitude":"135.20640944444","source_code":"","project_name":"","survey_name":"\u5927\u962a\u6e7e\u5cb8\u9053\u8def\u897f\u4f38\u90e8\u30dd\u30fc\u30c8\u30a2\u30a4\u30e9\u30f3\u30c9\u4e2d\u897f\u90e8\u5730\u533a\u5730\u8cea\u8abf\u67fb\u696d\u52d9","client_name":"\u56fd\u571f\u4ea4\u901a\u7701\u8fd1\u757f\u5730\u65b9\u6574\u5099\u5c40\u6d6a\u901f\u56fd\u9053\u4e8b\u52d9\u6240","boring_xml_url":47,"boring_view_url":1,"soilmap_view_url":null,"soiltest_xml_url":47,"soiltest_view_url":47},{"id":330975,"code":"NGIC202000966-0025","latitude":"34.658499722222","longitude":"135.20695277778","source_code":"","project_name":"","survey_name":"\u5927\u962a\u6e7e\u5cb8\u9053\u8def\u897f\u4f38\u90e8\u30dd\u30fc\u30c8\u30a2\u30a4\u30e9\u30f3\u30c9\u4e2d\u897f\u90e8\u5730\u533a\u5730\u8cea\u8abf\u67fb\u696d\u52d9","client_name":"\u56fd\u571f\u4ea4\u901a\u7701\u8fd1\u757f\u5730\u65b9\u6574\u5099\u5c40\u6d6a\u901f\u56fd\u9053\u4e8b\u52d9\u6240","boring_xml_url":47,"boring_view_url":1,"soilmap_view_url":null,"soiltest_xml_url":47,"soiltest_view_url":47},{"id":330974,"code":"NGIC202000966-0024","latitude":"34.657693611111","longitude":"135.2047525","source_code":"","project_name":"","survey_name":"\u5927\u962a\u6e7e\u5cb8\u9053\u8def\u897f\u4f38\u90e8\u30dd\u30fc\u30c8\u30a2\u30a4\u30e9\u30f3\u30c9\u4e2d\u897f\u90e8\u5730\u533a\u5730\u8cea\u8abf\u67fb\u696d\u52d9","client_name":"\u56fd\u571f\u4ea4\u901a\u7701\u8fd1\u757f\u5730\u65b9\u6574\u5099\u5c40\u6d6a\u901f\u56fd\u9053\u4e8b\u52d9\u6240","boring_xml_url":47,"boring_view_url":1,"soilmap_view_url":null,"soiltest_xml_url":47,"soiltest_view_url":47},{"id":330973,"code":"NGIC202000966-0023","latitude":"34.657944444444","longitude":"135.2044175","source_code":"","project_name":"","survey_name":"\u5927\u962a\u6e7e\u5cb8\u9053\u8def\u897f\u4f38\u90e8\u30dd\u30fc\u30c8\u30a2\u30a4\u30e9\u30f3\u30c9\u4e2d\u897f\u90e8\u5730\u533a\u5730\u8cea\u8abf\u67fb\u696d\u52d9","client_name":"\u56fd\u571f\u4ea4\u901a\u7701\u8fd1\u757f\u5730\u65b9\u6574\u5099\u5c40\u6d6a\u901f\u56fd\u9053\u4e8b\u52d9\u6240","boring_xml_url":47,"boring_view_url":1,"soilmap_view_url":null,"soiltest_xml_url":47,"soiltest_view_url":47},{"id":330972,"code":"NGIC202000966-0022","latitude":"34.6579875","longitude":"135.20467333333","source_code":"","project_name":"","survey_name":"\u5927\u962a\u6e7e\u5cb8\u9053\u8def\u897f\u4f38\u90e8\u30dd\u30fc\u30c8\u30a2\u30a4\u30e9\u30f3\u30c9\u4e2d\u897f\u90e8\u5730\u533a\u5730\u8cea\u8abf\u67fb\u696d\u52d9","client_name":"\u56fd\u571f\u4ea4\u901a\u7701\u8fd1\u757f\u5730\u65b9\u6574\u5099\u5c40\u6d6a\u901f\u56fd\u9053\u4e8b\u52d9\u6240","boring_xml_url":47,"boring_view_url":1,"soilmap_view_url":null,"soiltest_xml_url":47,"soiltest_view_url":47},{"id":330971,"code":"NGIC202000966-0021","latitude":"34.658316666667","longitude":"135.20477027778","source_code":"","project_name":"","survey_name":"\u5927\u962a\u6e7e\u5cb8\u9053\u8def\u897f\u4f38\u90e8\u30dd\u30fc\u30c8\u30a2\u30a4\u30e9\u30f3\u30c9\u4e2d\u897f\u90e8\u5730\u533a\u5730\u8cea\u8abf\u67fb\u696d\u52d9","client_name":"\u56fd\u571f\u4ea4\u901a\u7701\u8fd1\u757f\u5730\u65b9\u6574\u5099\u5c40\u6d6a\u901f\u56fd\u9053\u4e8b\u52d9\u6240","boring_xml_url":47,"boring_view_url":1,"soilmap_view_url":null,"soiltest_xml_url":47,"soiltest_view_url":47},{"id":330970,"code":"NGIC202000966-0020","latitude":"34.658563333333","longitude":"135.20503888889","source_code":"","project_name":"","survey_name":"\u5927\u962a\u6e7e\u5cb8\u9053\u8def\u897f\u4f38\u90e8\u30dd\u30fc\u30c8\u30a2\u30a4\u30e9\u30f3\u30c9\u4e2d\u897f\u90e8\u5730\u533a\u5730\u8cea\u8abf\u67fb\u696d\u52d9","client_name":"\u56fd\u571f\u4ea4\u901a\u7701\u8fd1\u757f\u5730\u65b9\u6574\u5099\u5c40\u6d6a\u901f\u56fd\u9053\u4e8b\u52d9\u6240","boring_xml_url":47,"boring_view_url":1,"soilmap_view_url":null,"soiltest_xml_url":47,"soiltest_view_url":47}]}}