{"header":{"xyz":{"source":[],"mosaic":false},"page":2130,"raw":{"soiltest_result":"0","bbox":"57.598333,109.544722,1.933333,163.806111","page":"2130"},"conditions":{"soiltest_result":0,"north":57.598333,"west":109.544722,"south":1.933333,"east":163.806111},"success":true,"message":""},"data":{"meta":{"total":212844,"page":2130,"pages":7095,"count":30},"values":[{"id":330695,"code":"NGIC202000869-0003","latitude":"36.496141666667","longitude":"138.497975","source_code":"","project_name":"","survey_name":"R1\u56fd\u9053144\u53f7\u5b2c\u604b\u6751\u9cf4\u5ca9\u6a4b\u5730\u8cea\u8abf\u67fb\u696d\u52d9","client_name":"\u56fd\u571f\u4ea4\u901a\u7701\u95a2\u6771\u5730\u65b9\u6574\u5099\u5c40\u9ad8\u5d0e\u6cb3\u5ddd\u56fd\u9053\u4e8b\u52d9\u6240","boring_xml_url":47,"boring_view_url":1,"soilmap_view_url":null,"soiltest_xml_url":0,"soiltest_view_url":0},{"id":330694,"code":"NGIC202000869-0002","latitude":"36.496027777778","longitude":"138.49825555556","source_code":"","project_name":"","survey_name":"R1\u56fd\u9053144\u53f7\u5b2c\u604b\u6751\u9cf4\u5ca9\u6a4b\u5730\u8cea\u8abf\u67fb\u696d\u52d9","client_name":"\u56fd\u571f\u4ea4\u901a\u7701\u95a2\u6771\u5730\u65b9\u6574\u5099\u5c40\u9ad8\u5d0e\u6cb3\u5ddd\u56fd\u9053\u4e8b\u52d9\u6240","boring_xml_url":47,"boring_view_url":1,"soilmap_view_url":null,"soiltest_xml_url":0,"soiltest_view_url":0},{"id":330693,"code":"NGIC202000869-0001","latitude":"36.496847222222","longitude":"138.49856111111","source_code":"","project_name":"","survey_name":"R1\u56fd\u9053144\u53f7\u5b2c\u604b\u6751\u9cf4\u5ca9\u6a4b\u5730\u8cea\u8abf\u67fb\u696d\u52d9","client_name":"\u56fd\u571f\u4ea4\u901a\u7701\u95a2\u6771\u5730\u65b9\u6574\u5099\u5c40\u9ad8\u5d0e\u6cb3\u5ddd\u56fd\u9053\u4e8b\u52d9\u6240","boring_xml_url":47,"boring_view_url":1,"soilmap_view_url":null,"soiltest_xml_url":0,"soiltest_view_url":0},{"id":330650,"code":"NGIC202000864-0019","latitude":"31.473408333333","longitude":"131.13939444444","source_code":"","project_name":"\u4ee4\u548c\u5143\u5e74\u5ea6\u6cb9\u6d25\u30fb\u590f\u4e95\u9053\u8def\u5730\u8cea\u8abf\u67fb(2\u5de5\u533a)\u696d\u52d9","survey_name":"\u4ee4\u548c\u5143\u5e74\u5ea6\u6cb9\u6d25\u30fb\u590f\u4e95\u9053\u8def\u5730\u8cea\u8abf\u67fb(2\u5de5\u533a)\u696d\u52d9","client_name":"\u56fd\u571f\u4ea4\u901a\u7701\u4e5d\u5dde\u5730\u65b9\u6574\u5099\u5c40\u5927\u9685\u6cb3\u5ddd\u56fd\u9053\u4e8b\u52d9\u6240 \u8abf\u67fb\u7b2c\u4e09\u8ab2","boring_xml_url":47,"boring_view_url":1,"soilmap_view_url":null,"soiltest_xml_url":0,"soiltest_view_url":0},{"id":330649,"code":"NGIC202000864-0018","latitude":"31.472855555556","longitude":"131.14026111111","source_code":"","project_name":"\u4ee4\u548c\u5143\u5e74\u5ea6\u6cb9\u6d25\u30fb\u590f\u4e95\u9053\u8def\u5730\u8cea\u8abf\u67fb(2\u5de5\u533a)\u696d\u52d9","survey_name":"\u4ee4\u548c\u5143\u5e74\u5ea6\u6cb9\u6d25\u30fb\u590f\u4e95\u9053\u8def\u5730\u8cea\u8abf\u67fb(2\u5de5\u533a)\u696d\u52d9","client_name":"\u56fd\u571f\u4ea4\u901a\u7701\u4e5d\u5dde\u5730\u65b9\u6574\u5099\u5c40\u5927\u9685\u6cb3\u5ddd\u56fd\u9053\u4e8b\u52d9\u6240 \u8abf\u67fb\u7b2c\u4e09\u8ab2","boring_xml_url":47,"boring_view_url":1,"soilmap_view_url":null,"soiltest_xml_url":0,"soiltest_view_url":0},{"id":330648,"code":"NGIC202000864-0017","latitude":"31.470772222222","longitude":"131.14364166667","source_code":"","project_name":"\u4ee4\u548c\u5143\u5e74\u5ea6\u6cb9\u6d25\u30fb\u590f\u4e95\u9053\u8def\u5730\u8cea\u8abf\u67fb(2\u5de5\u533a)\u696d\u52d9","survey_name":"\u4ee4\u548c\u5143\u5e74\u5ea6\u6cb9\u6d25\u30fb\u590f\u4e95\u9053\u8def\u5730\u8cea\u8abf\u67fb(2\u5de5\u533a)\u696d\u52d9","client_name":"\u56fd\u571f\u4ea4\u901a\u7701\u4e5d\u5dde\u5730\u65b9\u6574\u5099\u5c40\u5927\u9685\u6cb3\u5ddd\u56fd\u9053\u4e8b\u52d9\u6240 \u8abf\u67fb\u7b2c\u4e09\u8ab2","boring_xml_url":47,"boring_view_url":1,"soilmap_view_url":null,"soiltest_xml_url":0,"soiltest_view_url":0},{"id":330647,"code":"NGIC202000864-0016","latitude":"31.469997222222","longitude":"131.14518888889","source_code":"","project_name":"\u4ee4\u548c\u5143\u5e74\u5ea6\u6cb9\u6d25\u30fb\u590f\u4e95\u9053\u8def\u5730\u8cea\u8abf\u67fb(2\u5de5\u533a)\u696d\u52d9","survey_name":"\u4ee4\u548c\u5143\u5e74\u5ea6\u6cb9\u6d25\u30fb\u590f\u4e95\u9053\u8def\u5730\u8cea\u8abf\u67fb(2\u5de5\u533a)\u696d\u52d9","client_name":"\u56fd\u571f\u4ea4\u901a\u7701\u4e5d\u5dde\u5730\u65b9\u6574\u5099\u5c40\u5927\u9685\u6cb3\u5ddd\u56fd\u9053\u4e8b\u52d9\u6240 \u8abf\u67fb\u7b2c\u4e09\u8ab2","boring_xml_url":47,"boring_view_url":1,"soilmap_view_url":null,"soiltest_xml_url":0,"soiltest_view_url":0},{"id":330646,"code":"NGIC202000864-0015","latitude":"31.483197222222","longitude":"131.12212777778","source_code":"","project_name":"\u4ee4\u548c\u5143\u5e74\u5ea6\u6cb9\u6d25\u30fb\u590f\u4e95\u9053\u8def\u5730\u8cea\u8abf\u67fb(2\u5de5\u533a)\u696d\u52d9","survey_name":"\u4ee4\u548c\u5143\u5e74\u5ea6\u6cb9\u6d25\u30fb\u590f\u4e95\u9053\u8def\u5730\u8cea\u8abf\u67fb(2\u5de5\u533a)\u696d\u52d9","client_name":"\u56fd\u571f\u4ea4\u901a\u7701\u4e5d\u5dde\u5730\u65b9\u6574\u5099\u5c40\u5927\u9685\u6cb3\u5ddd\u56fd\u9053\u4e8b\u52d9\u6240 \u8abf\u67fb\u7b2c\u4e09\u8ab2","boring_xml_url":47,"boring_view_url":1,"soilmap_view_url":null,"soiltest_xml_url":0,"soiltest_view_url":0},{"id":330645,"code":"NGIC202000864-0014","latitude":"31.481708333333","longitude":"131.1252","source_code":"","project_name":"\u4ee4\u548c\u5143\u5e74\u5ea6\u6cb9\u6d25\u30fb\u590f\u4e95\u9053\u8def\u5730\u8cea\u8abf\u67fb(2\u5de5\u533a)\u696d\u52d9","survey_name":"\u4ee4\u548c\u5143\u5e74\u5ea6\u6cb9\u6d25\u30fb\u590f\u4e95\u9053\u8def\u5730\u8cea\u8abf\u67fb(2\u5de5\u533a)\u696d\u52d9","client_name":"\u56fd\u571f\u4ea4\u901a\u7701\u4e5d\u5dde\u5730\u65b9\u6574\u5099\u5c40\u5927\u9685\u6cb3\u5ddd\u56fd\u9053\u4e8b\u52d9\u6240 \u8abf\u67fb\u7b2c\u4e09\u8ab2","boring_xml_url":47,"boring_view_url":1,"soilmap_view_url":null,"soiltest_xml_url":0,"soiltest_view_url":0},{"id":330644,"code":"NGIC202000864-0013","latitude":"31.480725","longitude":"131.12850833333","source_code":"","project_name":"\u4ee4\u548c\u5143\u5e74\u5ea6\u6cb9\u6d25\u30fb\u590f\u4e95\u9053\u8def\u5730\u8cea\u8abf\u67fb(2\u5de5\u533a)\u696d\u52d9","survey_name":"\u4ee4\u548c\u5143\u5e74\u5ea6\u6cb9\u6d25\u30fb\u590f\u4e95\u9053\u8def\u5730\u8cea\u8abf\u67fb(2\u5de5\u533a)\u696d\u52d9","client_name":"\u56fd\u571f\u4ea4\u901a\u7701\u4e5d\u5dde\u5730\u65b9\u6574\u5099\u5c40\u5927\u9685\u6cb3\u5ddd\u56fd\u9053\u4e8b\u52d9\u6240 \u8abf\u67fb\u7b2c\u4e09\u8ab2","boring_xml_url":47,"boring_view_url":1,"soilmap_view_url":null,"soiltest_xml_url":0,"soiltest_view_url":0},{"id":330643,"code":"NGIC202000864-0012","latitude":"31.478797222222","longitude":"131.13170555556","source_code":"","project_name":"\u4ee4\u548c\u5143\u5e74\u5ea6\u6cb9\u6d25\u30fb\u590f\u4e95\u9053\u8def\u5730\u8cea\u8abf\u67fb(2\u5de5\u533a)\u696d\u52d9","survey_name":"\u4ee4\u548c\u5143\u5e74\u5ea6\u6cb9\u6d25\u30fb\u590f\u4e95\u9053\u8def\u5730\u8cea\u8abf\u67fb(2\u5de5\u533a)\u696d\u52d9","client_name":"\u56fd\u571f\u4ea4\u901a\u7701\u4e5d\u5dde\u5730\u65b9\u6574\u5099\u5c40\u5927\u9685\u6cb3\u5ddd\u56fd\u9053\u4e8b\u52d9\u6240 \u8abf\u67fb\u7b2c\u4e09\u8ab2","boring_xml_url":47,"boring_view_url":1,"soilmap_view_url":null,"soiltest_xml_url":0,"soiltest_view_url":0},{"id":330642,"code":"NGIC202000864-0011","latitude":"31.478397222222","longitude":"131.13299722222","source_code":"","project_name":"\u4ee4\u548c\u5143\u5e74\u5ea6\u6cb9\u6d25\u30fb\u590f\u4e95\u9053\u8def\u5730\u8cea\u8abf\u67fb(2\u5de5\u533a)\u696d\u52d9","survey_name":"\u4ee4\u548c\u5143\u5e74\u5ea6\u6cb9\u6d25\u30fb\u590f\u4e95\u9053\u8def\u5730\u8cea\u8abf\u67fb(2\u5de5\u533a)\u696d\u52d9","client_name":"\u56fd\u571f\u4ea4\u901a\u7701\u4e5d\u5dde\u5730\u65b9\u6574\u5099\u5c40\u5927\u9685\u6cb3\u5ddd\u56fd\u9053\u4e8b\u52d9\u6240 \u8abf\u67fb\u7b2c\u4e09\u8ab2","boring_xml_url":47,"boring_view_url":1,"soilmap_view_url":null,"soiltest_xml_url":47,"soiltest_view_url":47},{"id":330641,"code":"NGIC202000864-0010","latitude":"31.478297222222","longitude":"131.13376666667","source_code":"","project_name":"\u4ee4\u548c\u5143\u5e74\u5ea6\u6cb9\u6d25\u30fb\u590f\u4e95\u9053\u8def\u5730\u8cea\u8abf\u67fb(2\u5de5\u533a)\u696d\u52d9","survey_name":"\u4ee4\u548c\u5143\u5e74\u5ea6\u6cb9\u6d25\u30fb\u590f\u4e95\u9053\u8def\u5730\u8cea\u8abf\u67fb(2\u5de5\u533a)\u696d\u52d9","client_name":"\u56fd\u571f\u4ea4\u901a\u7701\u4e5d\u5dde\u5730\u65b9\u6574\u5099\u5c40\u5927\u9685\u6cb3\u5ddd\u56fd\u9053\u4e8b\u52d9\u6240 \u8abf\u67fb\u7b2c\u4e09\u8ab2","boring_xml_url":47,"boring_view_url":1,"soilmap_view_url":null,"soiltest_xml_url":0,"soiltest_view_url":0},{"id":330640,"code":"NGIC202000864-0009","latitude":"31.477691666667","longitude":"131.13496666667","source_code":"","project_name":"\u4ee4\u548c\u5143\u5e74\u5ea6\u6cb9\u6d25\u30fb\u590f\u4e95\u9053\u8def\u5730\u8cea\u8abf\u67fb(2\u5de5\u533a)\u696d\u52d9","survey_name":"\u4ee4\u548c\u5143\u5e74\u5ea6\u6cb9\u6d25\u30fb\u590f\u4e95\u9053\u8def\u5730\u8cea\u8abf\u67fb(2\u5de5\u533a)\u696d\u52d9","client_name":"\u56fd\u571f\u4ea4\u901a\u7701\u4e5d\u5dde\u5730\u65b9\u6574\u5099\u5c40\u5927\u9685\u6cb3\u5ddd\u56fd\u9053\u4e8b\u52d9\u6240 \u8abf\u67fb\u7b2c\u4e09\u8ab2","boring_xml_url":47,"boring_view_url":1,"soilmap_view_url":null,"soiltest_xml_url":47,"soiltest_view_url":47},{"id":330639,"code":"NGIC202000864-0008","latitude":"31.477125","longitude":"131.13471111111","source_code":"","project_name":"\u4ee4\u548c\u5143\u5e74\u5ea6\u6cb9\u6d25\u30fb\u590f\u4e95\u9053\u8def\u5730\u8cea\u8abf\u67fb(2\u5de5\u533a)\u696d\u52d9","survey_name":"\u4ee4\u548c\u5143\u5e74\u5ea6\u6cb9\u6d25\u30fb\u590f\u4e95\u9053\u8def\u5730\u8cea\u8abf\u67fb(2\u5de5\u533a)\u696d\u52d9","client_name":"\u56fd\u571f\u4ea4\u901a\u7701\u4e5d\u5dde\u5730\u65b9\u6574\u5099\u5c40\u5927\u9685\u6cb3\u5ddd\u56fd\u9053\u4e8b\u52d9\u6240 \u8abf\u67fb\u7b2c\u4e09\u8ab2","boring_xml_url":47,"boring_view_url":1,"soilmap_view_url":null,"soiltest_xml_url":47,"soiltest_view_url":47},{"id":330638,"code":"NGIC202000864-0007","latitude":"31.474958333333","longitude":"131.13730555556","source_code":"","project_name":"\u4ee4\u548c\u5143\u5e74\u5ea6\u6cb9\u6d25\u30fb\u590f\u4e95\u9053\u8def\u5730\u8cea\u8abf\u67fb(2\u5de5\u533a)\u696d\u52d9","survey_name":"\u4ee4\u548c\u5143\u5e74\u5ea6\u6cb9\u6d25\u30fb\u590f\u4e95\u9053\u8def\u5730\u8cea\u8abf\u67fb(2\u5de5\u533a)\u696d\u52d9","client_name":"\u56fd\u571f\u4ea4\u901a\u7701\u4e5d\u5dde\u5730\u65b9\u6574\u5099\u5c40\u5927\u9685\u6cb3\u5ddd\u56fd\u9053\u4e8b\u52d9\u6240 \u8abf\u67fb\u7b2c\u4e09\u8ab2","boring_xml_url":47,"boring_view_url":1,"soilmap_view_url":null,"soiltest_xml_url":0,"soiltest_view_url":0},{"id":330637,"code":"NGIC202000864-0006","latitude":"31.474047222222","longitude":"131.13837777778","source_code":"","project_name":"\u4ee4\u548c\u5143\u5e74\u5ea6\u6cb9\u6d25\u30fb\u590f\u4e95\u9053\u8def\u5730\u8cea\u8abf\u67fb(2\u5de5\u533a)\u696d\u52d9","survey_name":"\u4ee4\u548c\u5143\u5e74\u5ea6\u6cb9\u6d25\u30fb\u590f\u4e95\u9053\u8def\u5730\u8cea\u8abf\u67fb(2\u5de5\u533a)\u696d\u52d9","client_name":"\u56fd\u571f\u4ea4\u901a\u7701\u4e5d\u5dde\u5730\u65b9\u6574\u5099\u5c40\u5927\u9685\u6cb3\u5ddd\u56fd\u9053\u4e8b\u52d9\u6240 \u8abf\u67fb\u7b2c\u4e09\u8ab2","boring_xml_url":47,"boring_view_url":1,"soilmap_view_url":null,"soiltest_xml_url":47,"soiltest_view_url":47},{"id":330636,"code":"NGIC202000864-0005","latitude":"31.47235","longitude":"131.14083611111","source_code":"","project_name":"\u4ee4\u548c\u5143\u5e74\u5ea6\u6cb9\u6d25\u30fb\u590f\u4e95\u9053\u8def\u5730\u8cea\u8abf\u67fb(2\u5de5\u533a)\u696d\u52d9","survey_name":"\u4ee4\u548c\u5143\u5e74\u5ea6\u6cb9\u6d25\u30fb\u590f\u4e95\u9053\u8def\u5730\u8cea\u8abf\u67fb(2\u5de5\u533a)\u696d\u52d9","client_name":"\u56fd\u571f\u4ea4\u901a\u7701\u4e5d\u5dde\u5730\u65b9\u6574\u5099\u5c40\u5927\u9685\u6cb3\u5ddd\u56fd\u9053\u4e8b\u52d9\u6240 \u8abf\u67fb\u7b2c\u4e09\u8ab2","boring_xml_url":47,"boring_view_url":1,"soilmap_view_url":null,"soiltest_xml_url":47,"soiltest_view_url":47},{"id":330635,"code":"NGIC202000864-0004","latitude":"31.471311111111","longitude":"131.14261111111","source_code":"","project_name":"\u4ee4\u548c\u5143\u5e74\u5ea6\u6cb9\u6d25\u30fb\u590f\u4e95\u9053\u8def\u5730\u8cea\u8abf\u67fb(2\u5de5\u533a)\u696d\u52d9","survey_name":"\u4ee4\u548c\u5143\u5e74\u5ea6\u6cb9\u6d25\u30fb\u590f\u4e95\u9053\u8def\u5730\u8cea\u8abf\u67fb(2\u5de5\u533a)\u696d\u52d9","client_name":"\u56fd\u571f\u4ea4\u901a\u7701\u4e5d\u5dde\u5730\u65b9\u6574\u5099\u5c40\u5927\u9685\u6cb3\u5ddd\u56fd\u9053\u4e8b\u52d9\u6240 \u8abf\u67fb\u7b2c\u4e09\u8ab2","boring_xml_url":47,"boring_view_url":1,"soilmap_view_url":null,"soiltest_xml_url":47,"soiltest_view_url":47},{"id":330634,"code":"NGIC202000864-0003","latitude":"31.470786111111","longitude":"131.14564444444","source_code":"","project_name":"\u4ee4\u548c\u5143\u5e74\u5ea6\u6cb9\u6d25\u30fb\u590f\u4e95\u9053\u8def\u5730\u8cea\u8abf\u67fb(2\u5de5\u533a)\u696d\u52d9","survey_name":"\u4ee4\u548c\u5143\u5e74\u5ea6\u6cb9\u6d25\u30fb\u590f\u4e95\u9053\u8def\u5730\u8cea\u8abf\u67fb(2\u5de5\u533a)\u696d\u52d9","client_name":"\u56fd\u571f\u4ea4\u901a\u7701\u4e5d\u5dde\u5730\u65b9\u6574\u5099\u5c40\u5927\u9685\u6cb3\u5ddd\u56fd\u9053\u4e8b\u52d9\u6240 \u8abf\u67fb\u7b2c\u4e09\u8ab2","boring_xml_url":47,"boring_view_url":1,"soilmap_view_url":null,"soiltest_xml_url":0,"soiltest_view_url":0},{"id":330633,"code":"NGIC202000864-0002","latitude":"31.47035","longitude":"131.14547777778","source_code":"","project_name":"\u4ee4\u548c\u5143\u5e74\u5ea6\u6cb9\u6d25\u30fb\u590f\u4e95\u9053\u8def\u5730\u8cea\u8abf\u67fb(2\u5de5\u533a)\u696d\u52d9","survey_name":"\u4ee4\u548c\u5143\u5e74\u5ea6\u6cb9\u6d25\u30fb\u590f\u4e95\u9053\u8def\u5730\u8cea\u8abf\u67fb(2\u5de5\u533a)\u696d\u52d9","client_name":"\u56fd\u571f\u4ea4\u901a\u7701\u4e5d\u5dde\u5730\u65b9\u6574\u5099\u5c40\u5927\u9685\u6cb3\u5ddd\u56fd\u9053\u4e8b\u52d9\u6240 \u8abf\u67fb\u7b2c\u4e09\u8ab2","boring_xml_url":47,"boring_view_url":1,"soilmap_view_url":null,"soiltest_xml_url":0,"soiltest_view_url":0},{"id":330632,"code":"NGIC202000864-0001","latitude":"31.47005","longitude":"131.14657222222","source_code":"","project_name":"\u4ee4\u548c\u5143\u5e74\u5ea6\u6cb9\u6d25\u30fb\u590f\u4e95\u9053\u8def\u5730\u8cea\u8abf\u67fb(2\u5de5\u533a)\u696d\u52d9","survey_name":"\u4ee4\u548c\u5143\u5e74\u5ea6\u6cb9\u6d25\u30fb\u590f\u4e95\u9053\u8def\u5730\u8cea\u8abf\u67fb(2\u5de5\u533a)\u696d\u52d9","client_name":"\u56fd\u571f\u4ea4\u901a\u7701\u4e5d\u5dde\u5730\u65b9\u6574\u5099\u5c40\u5927\u9685\u6cb3\u5ddd\u56fd\u9053\u4e8b\u52d9\u6240 \u8abf\u67fb\u7b2c\u4e09\u8ab2","boring_xml_url":47,"boring_view_url":1,"soilmap_view_url":null,"soiltest_xml_url":0,"soiltest_view_url":0},{"id":330621,"code":"NGIC202000904-0008","latitude":"36.033988694444","longitude":"140.10366355556","source_code":"","project_name":"","survey_name":"\u52d5\u7269\u533b\u85ac\u54c1\u691c\u67fb\u6240\uff0820\uff09\u5730\u76e4\u8abf\u67fb","client_name":"\u56fd\u571f\u4ea4\u901a\u7701\u95a2\u6771\u5730\u65b9\u6574\u5099\u5c40\u55b6\u7e55\u90e8","boring_xml_url":47,"boring_view_url":1,"soilmap_view_url":null,"soiltest_xml_url":47,"soiltest_view_url":47},{"id":330620,"code":"NGIC202000904-0007","latitude":"36.034715888889","longitude":"140.10326233333","source_code":"","project_name":"","survey_name":"\u52d5\u7269\u533b\u85ac\u54c1\u691c\u67fb\u6240\uff0820\uff09\u5730\u76e4\u8abf\u67fb","client_name":"\u56fd\u571f\u4ea4\u901a\u7701\u95a2\u6771\u5730\u65b9\u6574\u5099\u5c40\u55b6\u7e55\u90e8","boring_xml_url":47,"boring_view_url":1,"soilmap_view_url":null,"soiltest_xml_url":47,"soiltest_view_url":47},{"id":330619,"code":"NGIC202000904-0006","latitude":"36.033573","longitude":"140.10373755556","source_code":"","project_name":"","survey_name":"\u52d5\u7269\u533b\u85ac\u54c1\u691c\u67fb\u6240\uff0820\uff09\u5730\u76e4\u8abf\u67fb","client_name":"\u56fd\u571f\u4ea4\u901a\u7701\u95a2\u6771\u5730\u65b9\u6574\u5099\u5c40\u55b6\u7e55\u90e8","boring_xml_url":47,"boring_view_url":1,"soilmap_view_url":null,"soiltest_xml_url":47,"soiltest_view_url":47},{"id":330618,"code":"NGIC202000904-0005","latitude":"36.033988694444","longitude":"140.10366355556","source_code":"","project_name":"","survey_name":"\u52d5\u7269\u533b\u85ac\u54c1\u691c\u67fb\u6240\uff0820\uff09\u5730\u76e4\u8abf\u67fb","client_name":"\u56fd\u571f\u4ea4\u901a\u7701\u95a2\u6771\u5730\u65b9\u6574\u5099\u5c40\u55b6\u7e55\u90e8","boring_xml_url":47,"boring_view_url":1,"soilmap_view_url":null,"soiltest_xml_url":47,"soiltest_view_url":47},{"id":330617,"code":"NGIC202000904-0004","latitude":"36.034715888889","longitude":"140.10326233333","source_code":"","project_name":"","survey_name":"\u52d5\u7269\u533b\u85ac\u54c1\u691c\u67fb\u6240\uff0820\uff09\u5730\u76e4\u8abf\u67fb","client_name":"\u56fd\u571f\u4ea4\u901a\u7701\u95a2\u6771\u5730\u65b9\u6574\u5099\u5c40\u55b6\u7e55\u90e8","boring_xml_url":47,"boring_view_url":1,"soilmap_view_url":null,"soiltest_xml_url":47,"soiltest_view_url":47},{"id":330616,"code":"NGIC202000904-0003","latitude":"36.034508583333","longitude":"140.10301083333","source_code":"","project_name":"","survey_name":"\u52d5\u7269\u533b\u85ac\u54c1\u691c\u67fb\u6240\uff0820\uff09\u5730\u76e4\u8abf\u67fb","client_name":"\u56fd\u571f\u4ea4\u901a\u7701\u95a2\u6771\u5730\u65b9\u6574\u5099\u5c40\u55b6\u7e55\u90e8","boring_xml_url":47,"boring_view_url":1,"soilmap_view_url":null,"soiltest_xml_url":47,"soiltest_view_url":47},{"id":330615,"code":"NGIC202000904-0002","latitude":"36.034300583333","longitude":"140.10274086111","source_code":"","project_name":"","survey_name":"\u52d5\u7269\u533b\u85ac\u54c1\u691c\u67fb\u6240\uff0820\uff09\u5730\u76e4\u8abf\u67fb","client_name":"\u56fd\u571f\u4ea4\u901a\u7701\u95a2\u6771\u5730\u65b9\u6574\u5099\u5c40\u55b6\u7e55\u90e8","boring_xml_url":47,"boring_view_url":1,"soilmap_view_url":null,"soiltest_xml_url":47,"soiltest_view_url":47},{"id":330614,"code":"NGIC202000904-0001","latitude":"36.034707416667","longitude":"140.10273827778","source_code":"","project_name":"","survey_name":"\u52d5\u7269\u533b\u85ac\u54c1\u691c\u67fb\u6240\uff0820\uff09\u5730\u76e4\u8abf\u67fb","client_name":"\u56fd\u571f\u4ea4\u901a\u7701\u95a2\u6771\u5730\u65b9\u6574\u5099\u5c40\u55b6\u7e55\u90e8","boring_xml_url":47,"boring_view_url":1,"soilmap_view_url":null,"soiltest_xml_url":47,"soiltest_view_url":47}]}}