{"header":{"xyz":{"source":[],"mosaic":false},"page":2131,"raw":{"soiltest_result":"0","bbox":"57.598333,109.544722,1.933333,163.806111","page":"2131"},"conditions":{"soiltest_result":0,"north":57.598333,"west":109.544722,"south":1.933333,"east":163.806111},"success":true,"message":""},"data":{"meta":{"total":212844,"page":2131,"pages":7095,"count":30},"values":[{"id":330613,"code":"NGIC202000905-0004","latitude":"39.124736333333","longitude":"140.16391327778","source_code":"","project_name":"\u9ce5\u6d77\u30c0\u30e0\u5efa\u8a2d\u4e8b\u696d","survey_name":"\u9ce5\u6d77\u30c0\u30e0\u5de6\u5cb8\u4e0b\u6d41\u5730\u8cea\u8abf\u67fb\u696d\u52d9","client_name":"\u56fd\u571f\u4ea4\u901a\u7701\u6771\u5317\u5730\u65b9\u6574\u5099\u5c40\u9ce5\u6d77\u30c0\u30e0\u5de5\u4e8b\u4e8b\u52d9\u6240","boring_xml_url":47,"boring_view_url":1,"soilmap_view_url":null,"soiltest_xml_url":0,"soiltest_view_url":0},{"id":330612,"code":"NGIC202000905-0003","latitude":"39.125188527778","longitude":"140.16375608333","source_code":"","project_name":"\u9ce5\u6d77\u30c0\u30e0\u5efa\u8a2d\u4e8b\u696d","survey_name":"\u9ce5\u6d77\u30c0\u30e0\u5de6\u5cb8\u4e0b\u6d41\u5730\u8cea\u8abf\u67fb\u696d\u52d9","client_name":"\u56fd\u571f\u4ea4\u901a\u7701\u6771\u5317\u5730\u65b9\u6574\u5099\u5c40\u9ce5\u6d77\u30c0\u30e0\u5de5\u4e8b\u4e8b\u52d9\u6240","boring_xml_url":47,"boring_view_url":1,"soilmap_view_url":null,"soiltest_xml_url":0,"soiltest_view_url":0},{"id":330611,"code":"NGIC202000905-0002","latitude":"39.126678472222","longitude":"140.15491152778","source_code":"","project_name":"\u9ce5\u6d77\u30c0\u30e0\u5efa\u8a2d\u4e8b\u696d","survey_name":"\u9ce5\u6d77\u30c0\u30e0\u5de6\u5cb8\u4e0b\u6d41\u5730\u8cea\u8abf\u67fb\u696d\u52d9","client_name":"\u56fd\u571f\u4ea4\u901a\u7701\u6771\u5317\u5730\u65b9\u6574\u5099\u5c40\u9ce5\u6d77\u30c0\u30e0\u5de5\u4e8b\u4e8b\u52d9\u6240","boring_xml_url":47,"boring_view_url":1,"soilmap_view_url":null,"soiltest_xml_url":0,"soiltest_view_url":0},{"id":330610,"code":"NGIC202000905-0001","latitude":"39.12625325","longitude":"140.15419338889","source_code":"","project_name":"\u9ce5\u6d77\u30c0\u30e0\u5efa\u8a2d\u4e8b\u696d","survey_name":"\u9ce5\u6d77\u30c0\u30e0\u5de6\u5cb8\u4e0b\u6d41\u5730\u8cea\u8abf\u67fb\u696d\u52d9","client_name":"\u56fd\u571f\u4ea4\u901a\u7701\u6771\u5317\u5730\u65b9\u6574\u5099\u5c40\u9ce5\u6d77\u30c0\u30e0\u5de5\u4e8b\u4e8b\u52d9\u6240","boring_xml_url":47,"boring_view_url":1,"soilmap_view_url":null,"soiltest_xml_url":0,"soiltest_view_url":0},{"id":330607,"code":"NGIC202000917-0016","latitude":"34.749771972222","longitude":"138.93825391667","source_code":"","project_name":"","survey_name":"\u4ee4\u548c\u5143\u5e74\u5ea6\u6cb3\u6d25\u4e0b\u7530\u9053\u8def2\u671f\u5730\u8cea\u8abf\u67fb\u696d\u52d9","client_name":"\u56fd\u571f\u4ea4\u901a\u7701\u4e2d\u90e8\u5730\u65b9\u6574\u5099\u5c40\u6cbc\u6d25\u6cb3\u5ddd\u56fd\u9053\u4e8b\u52d9\u6240","boring_xml_url":47,"boring_view_url":1,"soilmap_view_url":null,"soiltest_xml_url":0,"soiltest_view_url":0},{"id":330606,"code":"NGIC202000917-0015","latitude":"34.749645027778","longitude":"138.93837736111","source_code":"","project_name":"","survey_name":"\u4ee4\u548c\u5143\u5e74\u5ea6\u6cb3\u6d25\u4e0b\u7530\u9053\u8def2\u671f\u5730\u8cea\u8abf\u67fb\u696d\u52d9","client_name":"\u56fd\u571f\u4ea4\u901a\u7701\u4e2d\u90e8\u5730\u65b9\u6574\u5099\u5c40\u6cbc\u6d25\u6cb3\u5ddd\u56fd\u9053\u4e8b\u52d9\u6240","boring_xml_url":47,"boring_view_url":1,"soilmap_view_url":null,"soiltest_xml_url":0,"soiltest_view_url":0},{"id":330605,"code":"NGIC202000917-0014","latitude":"34.778047972222","longitude":"138.94506319444","source_code":"","project_name":"","survey_name":"\u4ee4\u548c\u5143\u5e74\u5ea6\u6cb3\u6d25\u4e0b\u7530\u9053\u8def2\u671f\u5730\u8cea\u8abf\u67fb\u696d\u52d9","client_name":"\u56fd\u571f\u4ea4\u901a\u7701\u4e2d\u90e8\u5730\u65b9\u6574\u5099\u5c40\u6cbc\u6d25\u6cb3\u5ddd\u56fd\u9053\u4e8b\u52d9\u6240","boring_xml_url":47,"boring_view_url":1,"soilmap_view_url":null,"soiltest_xml_url":0,"soiltest_view_url":0},{"id":330604,"code":"NGIC202000917-0013","latitude":"34.777871194444","longitude":"138.94519713889","source_code":"","project_name":"","survey_name":"\u4ee4\u548c\u5143\u5e74\u5ea6\u6cb3\u6d25\u4e0b\u7530\u9053\u8def2\u671f\u5730\u8cea\u8abf\u67fb\u696d\u52d9","client_name":"\u56fd\u571f\u4ea4\u901a\u7701\u4e2d\u90e8\u5730\u65b9\u6574\u5099\u5c40\u6cbc\u6d25\u6cb3\u5ddd\u56fd\u9053\u4e8b\u52d9\u6240","boring_xml_url":47,"boring_view_url":1,"soilmap_view_url":null,"soiltest_xml_url":0,"soiltest_view_url":0},{"id":330603,"code":"NGIC202000917-0012","latitude":"34.756612888889","longitude":"138.94614691667","source_code":"","project_name":"","survey_name":"\u4ee4\u548c\u5143\u5e74\u5ea6\u6cb3\u6d25\u4e0b\u7530\u9053\u8def2\u671f\u5730\u8cea\u8abf\u67fb\u696d\u52d9","client_name":"\u56fd\u571f\u4ea4\u901a\u7701\u4e2d\u90e8\u5730\u65b9\u6574\u5099\u5c40\u6cbc\u6d25\u6cb3\u5ddd\u56fd\u9053\u4e8b\u52d9\u6240","boring_xml_url":47,"boring_view_url":1,"soilmap_view_url":null,"soiltest_xml_url":0,"soiltest_view_url":0},{"id":330602,"code":"NGIC202000917-0011","latitude":"34.756444361111","longitude":"138.94590761111","source_code":"","project_name":"","survey_name":"\u4ee4\u548c\u5143\u5e74\u5ea6\u6cb3\u6d25\u4e0b\u7530\u9053\u8def2\u671f\u5730\u8cea\u8abf\u67fb\u696d\u52d9","client_name":"\u56fd\u571f\u4ea4\u901a\u7701\u4e2d\u90e8\u5730\u65b9\u6574\u5099\u5c40\u6cbc\u6d25\u6cb3\u5ddd\u56fd\u9053\u4e8b\u52d9\u6240","boring_xml_url":47,"boring_view_url":1,"soilmap_view_url":null,"soiltest_xml_url":0,"soiltest_view_url":0},{"id":330601,"code":"NGIC202000917-0010","latitude":"34.778483","longitude":"138.94618347222","source_code":"","project_name":"","survey_name":"\u4ee4\u548c\u5143\u5e74\u5ea6\u6cb3\u6d25\u4e0b\u7530\u9053\u8def2\u671f\u5730\u8cea\u8abf\u67fb\u696d\u52d9","client_name":"\u56fd\u571f\u4ea4\u901a\u7701\u4e2d\u90e8\u5730\u65b9\u6574\u5099\u5c40\u6cbc\u6d25\u6cb3\u5ddd\u56fd\u9053\u4e8b\u52d9\u6240","boring_xml_url":47,"boring_view_url":1,"soilmap_view_url":null,"soiltest_xml_url":0,"soiltest_view_url":0},{"id":330600,"code":"NGIC202000917-0009","latitude":"34.778326222222","longitude":"138.9463635","source_code":"","project_name":"","survey_name":"\u4ee4\u548c\u5143\u5e74\u5ea6\u6cb3\u6d25\u4e0b\u7530\u9053\u8def2\u671f\u5730\u8cea\u8abf\u67fb\u696d\u52d9","client_name":"\u56fd\u571f\u4ea4\u901a\u7701\u4e2d\u90e8\u5730\u65b9\u6574\u5099\u5c40\u6cbc\u6d25\u6cb3\u5ddd\u56fd\u9053\u4e8b\u52d9\u6240","boring_xml_url":47,"boring_view_url":1,"soilmap_view_url":null,"soiltest_xml_url":0,"soiltest_view_url":0},{"id":330599,"code":"NGIC202000917-0008","latitude":"34.778261388889","longitude":"138.94628897222","source_code":"","project_name":"","survey_name":"\u4ee4\u548c\u5143\u5e74\u5ea6\u6cb3\u6d25\u4e0b\u7530\u9053\u8def2\u671f\u5730\u8cea\u8abf\u67fb\u696d\u52d9","client_name":"\u56fd\u571f\u4ea4\u901a\u7701\u4e2d\u90e8\u5730\u65b9\u6574\u5099\u5c40\u6cbc\u6d25\u6cb3\u5ddd\u56fd\u9053\u4e8b\u52d9\u6240","boring_xml_url":47,"boring_view_url":1,"soilmap_view_url":null,"soiltest_xml_url":0,"soiltest_view_url":0},{"id":330598,"code":"NGIC202000917-0007","latitude":"34.778234333333","longitude":"138.94645208333","source_code":"","project_name":"","survey_name":"\u4ee4\u548c\u5143\u5e74\u5ea6\u6cb3\u6d25\u4e0b\u7530\u9053\u8def2\u671f\u5730\u8cea\u8abf\u67fb\u696d\u52d9","client_name":"\u56fd\u571f\u4ea4\u901a\u7701\u4e2d\u90e8\u5730\u65b9\u6574\u5099\u5c40\u6cbc\u6d25\u6cb3\u5ddd\u56fd\u9053\u4e8b\u52d9\u6240","boring_xml_url":47,"boring_view_url":1,"soilmap_view_url":null,"soiltest_xml_url":0,"soiltest_view_url":0},{"id":330597,"code":"NGIC202000917-0006","latitude":"34.777907277778","longitude":"138.94642388889","source_code":"","project_name":"","survey_name":"\u4ee4\u548c\u5143\u5e74\u5ea6\u6cb3\u6d25\u4e0b\u7530\u9053\u8def2\u671f\u5730\u8cea\u8abf\u67fb\u696d\u52d9","client_name":"\u56fd\u571f\u4ea4\u901a\u7701\u4e2d\u90e8\u5730\u65b9\u6574\u5099\u5c40\u6cbc\u6d25\u6cb3\u5ddd\u56fd\u9053\u4e8b\u52d9\u6240","boring_xml_url":47,"boring_view_url":1,"soilmap_view_url":null,"soiltest_xml_url":0,"soiltest_view_url":0},{"id":330596,"code":"NGIC202000917-0005","latitude":"34.7779345","longitude":"138.94658355556","source_code":"","project_name":"","survey_name":"\u4ee4\u548c\u5143\u5e74\u5ea6\u6cb3\u6d25\u4e0b\u7530\u9053\u8def2\u671f\u5730\u8cea\u8abf\u67fb\u696d\u52d9","client_name":"\u56fd\u571f\u4ea4\u901a\u7701\u4e2d\u90e8\u5730\u65b9\u6574\u5099\u5c40\u6cbc\u6d25\u6cb3\u5ddd\u56fd\u9053\u4e8b\u52d9\u6240","boring_xml_url":47,"boring_view_url":1,"soilmap_view_url":null,"soiltest_xml_url":0,"soiltest_view_url":0},{"id":330595,"code":"NGIC202000917-0004","latitude":"34.777977916667","longitude":"138.94674675","source_code":"","project_name":"","survey_name":"\u4ee4\u548c\u5143\u5e74\u5ea6\u6cb3\u6d25\u4e0b\u7530\u9053\u8def2\u671f\u5730\u8cea\u8abf\u67fb\u696d\u52d9","client_name":"\u56fd\u571f\u4ea4\u901a\u7701\u4e2d\u90e8\u5730\u65b9\u6574\u5099\u5c40\u6cbc\u6d25\u6cb3\u5ddd\u56fd\u9053\u4e8b\u52d9\u6240","boring_xml_url":47,"boring_view_url":1,"soilmap_view_url":null,"soiltest_xml_url":0,"soiltest_view_url":0},{"id":330594,"code":"NGIC202000917-0003","latitude":"34.778023416667","longitude":"138.94539061111","source_code":"","project_name":"","survey_name":"\u4ee4\u548c\u5143\u5e74\u5ea6\u6cb3\u6d25\u4e0b\u7530\u9053\u8def2\u671f\u5730\u8cea\u8abf\u67fb\u696d\u52d9","client_name":"\u56fd\u571f\u4ea4\u901a\u7701\u4e2d\u90e8\u5730\u65b9\u6574\u5099\u5c40\u6cbc\u6d25\u6cb3\u5ddd\u56fd\u9053\u4e8b\u52d9\u6240","boring_xml_url":47,"boring_view_url":1,"soilmap_view_url":null,"soiltest_xml_url":0,"soiltest_view_url":0},{"id":330593,"code":"NGIC202000917-0002","latitude":"34.77812325","longitude":"138.94528361111","source_code":"","project_name":"","survey_name":"\u4ee4\u548c\u5143\u5e74\u5ea6\u6cb3\u6d25\u4e0b\u7530\u9053\u8def2\u671f\u5730\u8cea\u8abf\u67fb\u696d\u52d9","client_name":"\u56fd\u571f\u4ea4\u901a\u7701\u4e2d\u90e8\u5730\u65b9\u6574\u5099\u5c40\u6cbc\u6d25\u6cb3\u5ddd\u56fd\u9053\u4e8b\u52d9\u6240","boring_xml_url":47,"boring_view_url":1,"soilmap_view_url":null,"soiltest_xml_url":0,"soiltest_view_url":0},{"id":330592,"code":"NGIC202000917-0001","latitude":"34.777758722222","longitude":"138.94524769444","source_code":"","project_name":"","survey_name":"\u4ee4\u548c\u5143\u5e74\u5ea6\u6cb3\u6d25\u4e0b\u7530\u9053\u8def2\u671f\u5730\u8cea\u8abf\u67fb\u696d\u52d9","client_name":"\u56fd\u571f\u4ea4\u901a\u7701\u4e2d\u90e8\u5730\u65b9\u6574\u5099\u5c40\u6cbc\u6d25\u6cb3\u5ddd\u56fd\u9053\u4e8b\u52d9\u6240","boring_xml_url":47,"boring_view_url":1,"soilmap_view_url":null,"soiltest_xml_url":0,"soiltest_view_url":0},{"id":330576,"code":"NGIC202000892-0001","latitude":"38.438361111111","longitude":"140.91436111111","source_code":"","project_name":"\u5584\u5ddd\u821e\u91ce\u7aaa\u7530\u6771\u5730\u533a\u5916\u707d\u5bb3\u5fa9\u65e7\u5de5\u4e8b","survey_name":"\u5584\u5ddd\u821e\u91ce\u7aaa\u7530\u6771\u5730\u533a\u5916\u707d\u5bb3\u5fa9\u65e7\u5de5\u4e8b","client_name":"\u56fd\u571f\u4ea4\u901a\u7701\u6771\u5317\u5730\u65b9\u6574\u5099\u5c40\u5317\u4e0a\u5ddd\u4e0b\u6d41\u6cb3\u5ddd\u4e8b\u52d9\u6240","boring_xml_url":47,"boring_view_url":1,"soilmap_view_url":null,"soiltest_xml_url":0,"soiltest_view_url":0},{"id":330559,"code":"NGIC202000847-0010","latitude":"43.857955555556","longitude":"144.08198611111","source_code":"","project_name":"\u4e00\u822c\u56fd\u905339\u53f7 \u7f8e\u5e4c\u753a \u7aef\u91ce\u9ad8\u91ce\u5730\u8cea\u8abf\u67fb\u696d\u52d9","survey_name":"\u4e00\u822c\u56fd\u905339\u53f7 \u7f8e\u5e4c\u753a \u7aef\u91ce\u9ad8\u91ce\u5730\u8cea\u8abf\u67fb\u696d\u52d9","client_name":"\u56fd\u571f\u4ea4\u901a\u7701\u5317\u6d77\u9053\u958b\u767a\u5c40\u7db2\u8d70\u958b\u767a\u5efa\u8a2d\u90e8","boring_xml_url":47,"boring_view_url":1,"soilmap_view_url":null,"soiltest_xml_url":47,"soiltest_view_url":47},{"id":330558,"code":"NGIC202000847-0009","latitude":"43.859005555556","longitude":"144.08098055556","source_code":"","project_name":"\u4e00\u822c\u56fd\u905339\u53f7 \u7f8e\u5e4c\u753a \u7aef\u91ce\u9ad8\u91ce\u5730\u8cea\u8abf\u67fb\u696d\u52d9","survey_name":"\u4e00\u822c\u56fd\u905339\u53f7 \u7f8e\u5e4c\u753a \u7aef\u91ce\u9ad8\u91ce\u5730\u8cea\u8abf\u67fb\u696d\u52d9","client_name":"\u56fd\u571f\u4ea4\u901a\u7701\u5317\u6d77\u9053\u958b\u767a\u5c40\u7db2\u8d70\u958b\u767a\u5efa\u8a2d\u90e8","boring_xml_url":47,"boring_view_url":1,"soilmap_view_url":null,"soiltest_xml_url":47,"soiltest_view_url":47},{"id":330557,"code":"NGIC202000847-0008","latitude":"43.860088888889","longitude":"144.079825","source_code":"","project_name":"\u4e00\u822c\u56fd\u905339\u53f7 \u7f8e\u5e4c\u753a \u7aef\u91ce\u9ad8\u91ce\u5730\u8cea\u8abf\u67fb\u696d\u52d9","survey_name":"\u4e00\u822c\u56fd\u905339\u53f7 \u7f8e\u5e4c\u753a \u7aef\u91ce\u9ad8\u91ce\u5730\u8cea\u8abf\u67fb\u696d\u52d9","client_name":"\u56fd\u571f\u4ea4\u901a\u7701\u5317\u6d77\u9053\u958b\u767a\u5c40\u7db2\u8d70\u958b\u767a\u5efa\u8a2d\u90e8","boring_xml_url":47,"boring_view_url":1,"soilmap_view_url":null,"soiltest_xml_url":47,"soiltest_view_url":47},{"id":330556,"code":"NGIC202000847-0007","latitude":"43.858802777778","longitude":"144.08165","source_code":"","project_name":"\u4e00\u822c\u56fd\u905339\u53f7 \u7f8e\u5e4c\u753a \u7aef\u91ce\u9ad8\u91ce\u5730\u8cea\u8abf\u67fb\u696d\u52d9","survey_name":"\u4e00\u822c\u56fd\u905339\u53f7 \u7f8e\u5e4c\u753a \u7aef\u91ce\u9ad8\u91ce\u5730\u8cea\u8abf\u67fb\u696d\u52d9","client_name":"\u56fd\u571f\u4ea4\u901a\u7701\u5317\u6d77\u9053\u958b\u767a\u5c40\u7db2\u8d70\u958b\u767a\u5efa\u8a2d\u90e8","boring_xml_url":47,"boring_view_url":1,"soilmap_view_url":null,"soiltest_xml_url":47,"soiltest_view_url":47},{"id":330555,"code":"NGIC202000847-0006","latitude":"43.860302777778","longitude":"144.08005833333","source_code":"","project_name":"\u4e00\u822c\u56fd\u905339\u53f7 \u7f8e\u5e4c\u753a \u7aef\u91ce\u9ad8\u91ce\u5730\u8cea\u8abf\u67fb\u696d\u52d9","survey_name":"\u4e00\u822c\u56fd\u905339\u53f7 \u7f8e\u5e4c\u753a \u7aef\u91ce\u9ad8\u91ce\u5730\u8cea\u8abf\u67fb\u696d\u52d9","client_name":"\u56fd\u571f\u4ea4\u901a\u7701\u5317\u6d77\u9053\u958b\u767a\u5c40\u7db2\u8d70\u958b\u767a\u5efa\u8a2d\u90e8","boring_xml_url":47,"boring_view_url":1,"soilmap_view_url":null,"soiltest_xml_url":47,"soiltest_view_url":47},{"id":330554,"code":"NGIC202000847-0005","latitude":"43.863597222222","longitude":"144.07595555556","source_code":"","project_name":"\u4e00\u822c\u56fd\u905339\u53f7 \u7f8e\u5e4c\u753a \u7aef\u91ce\u9ad8\u91ce\u5730\u8cea\u8abf\u67fb\u696d\u52d9","survey_name":"\u4e00\u822c\u56fd\u905339\u53f7 \u7f8e\u5e4c\u753a \u7aef\u91ce\u9ad8\u91ce\u5730\u8cea\u8abf\u67fb\u696d\u52d9","client_name":"\u56fd\u571f\u4ea4\u901a\u7701\u5317\u6d77\u9053\u958b\u767a\u5c40\u7db2\u8d70\u958b\u767a\u5efa\u8a2d\u90e8","boring_xml_url":47,"boring_view_url":1,"soilmap_view_url":null,"soiltest_xml_url":47,"soiltest_view_url":47},{"id":330553,"code":"NGIC202000847-0004","latitude":"43.865097222222","longitude":"144.07195833333","source_code":"","project_name":"\u4e00\u822c\u56fd\u905339\u53f7 \u7f8e\u5e4c\u753a \u7aef\u91ce\u9ad8\u91ce\u5730\u8cea\u8abf\u67fb\u696d\u52d9","survey_name":"\u4e00\u822c\u56fd\u905339\u53f7 \u7f8e\u5e4c\u753a \u7aef\u91ce\u9ad8\u91ce\u5730\u8cea\u8abf\u67fb\u696d\u52d9","client_name":"\u56fd\u571f\u4ea4\u901a\u7701\u5317\u6d77\u9053\u958b\u767a\u5c40\u7db2\u8d70\u958b\u767a\u5efa\u8a2d\u90e8","boring_xml_url":47,"boring_view_url":1,"soilmap_view_url":null,"soiltest_xml_url":47,"soiltest_view_url":47},{"id":330552,"code":"NGIC202000847-0003","latitude":"43.865447222222","longitude":"144.07163055556","source_code":"","project_name":"\u4e00\u822c\u56fd\u905339\u53f7 \u7f8e\u5e4c\u753a \u7aef\u91ce\u9ad8\u91ce\u5730\u8cea\u8abf\u67fb\u696d\u52d9","survey_name":"\u4e00\u822c\u56fd\u905339\u53f7 \u7f8e\u5e4c\u753a \u7aef\u91ce\u9ad8\u91ce\u5730\u8cea\u8abf\u67fb\u696d\u52d9","client_name":"\u56fd\u571f\u4ea4\u901a\u7701\u5317\u6d77\u9053\u958b\u767a\u5c40\u7db2\u8d70\u958b\u767a\u5efa\u8a2d\u90e8","boring_xml_url":47,"boring_view_url":1,"soilmap_view_url":null,"soiltest_xml_url":47,"soiltest_view_url":47},{"id":330551,"code":"NGIC202000847-0002","latitude":"43.865538888889","longitude":"144.07114444444","source_code":"","project_name":"\u4e00\u822c\u56fd\u905339\u53f7 \u7f8e\u5e4c\u753a \u7aef\u91ce\u9ad8\u91ce\u5730\u8cea\u8abf\u67fb\u696d\u52d9","survey_name":"\u4e00\u822c\u56fd\u905339\u53f7 \u7f8e\u5e4c\u753a \u7aef\u91ce\u9ad8\u91ce\u5730\u8cea\u8abf\u67fb\u696d\u52d9","client_name":"\u56fd\u571f\u4ea4\u901a\u7701\u5317\u6d77\u9053\u958b\u767a\u5c40\u7db2\u8d70\u958b\u767a\u5efa\u8a2d\u90e8","boring_xml_url":47,"boring_view_url":1,"soilmap_view_url":null,"soiltest_xml_url":47,"soiltest_view_url":47}]}}