{"header":{"xyz":{"source":[],"mosaic":false},"page":2138,"raw":{"soiltest_result":"0","bbox":"57.598333,109.544722,1.933333,163.806111","page":"2138"},"conditions":{"soiltest_result":0,"north":57.598333,"west":109.544722,"south":1.933333,"east":163.806111},"success":true,"message":""},"data":{"meta":{"total":212844,"page":2138,"pages":7095,"count":30},"values":[{"id":329996,"code":"NGIC202000706-0001","latitude":"34.2422","longitude":"130.91898627778","source_code":"","project_name":"\u5c71\u53e3\u7ba1\u5185\u96fb\u7dda\u5171\u540c\u6e9d\u5916\u8a2d\u8a08\u696d\u52d9","survey_name":"\u5c71\u53e3\u7ba1\u5185\u96fb\u7dda\u5171\u540c\u6e9d\u5916\u8a2d\u8a08\u696d\u52d9","client_name":"\u56fd\u571f\u4ea4\u901a\u7701\u4e2d\u56fd\u5730\u65b9\u6574\u5099\u5c40\u5c71\u53e3\u6cb3\u5ddd\u56fd\u9053\u4e8b\u52d9\u6240","boring_xml_url":47,"boring_view_url":1,"soilmap_view_url":null,"soiltest_xml_url":0,"soiltest_view_url":0},{"id":329947,"code":"NGIC202000698-0003","latitude":"33.297891666667","longitude":"129.63526111111","source_code":"","project_name":"","survey_name":"\u4ee4\u548c\u5143\u5e74\u5ea6\u677e\u6d66\u4f50\u3005\u9053\u8def(\u6c5f\u8fce\u5de5\u533a)\u5730\u8cea\u8abf\u67fb\u696d\u52d9","client_name":"\u56fd\u571f\u4ea4\u901a\u7701\u4e5d\u5dde\u5730\u65b9\u6574\u5099\u5c40\u9577\u5d0e\u6cb3\u5ddd\u56fd\u9053\u4e8b\u52d9\u6240 \u5de5\u52d9\u8ab2","boring_xml_url":47,"boring_view_url":1,"soilmap_view_url":null,"soiltest_xml_url":0,"soiltest_view_url":0},{"id":329946,"code":"NGIC202000698-0002","latitude":"33.297847222222","longitude":"129.634925","source_code":"","project_name":"","survey_name":"\u4ee4\u548c\u5143\u5e74\u5ea6\u677e\u6d66\u4f50\u3005\u9053\u8def(\u6c5f\u8fce\u5de5\u533a)\u5730\u8cea\u8abf\u67fb\u696d\u52d9","client_name":"\u56fd\u571f\u4ea4\u901a\u7701\u4e5d\u5dde\u5730\u65b9\u6574\u5099\u5c40\u9577\u5d0e\u6cb3\u5ddd\u56fd\u9053\u4e8b\u52d9\u6240 \u5de5\u52d9\u8ab2","boring_xml_url":47,"boring_view_url":1,"soilmap_view_url":null,"soiltest_xml_url":0,"soiltest_view_url":0},{"id":329945,"code":"NGIC202000698-0001","latitude":"33.298","longitude":"129.63528888889","source_code":"","project_name":"","survey_name":"\u4ee4\u548c\u5143\u5e74\u5ea6\u677e\u6d66\u4f50\u3005\u9053\u8def(\u6c5f\u8fce\u5de5\u533a)\u5730\u8cea\u8abf\u67fb\u696d\u52d9","client_name":"\u56fd\u571f\u4ea4\u901a\u7701\u4e5d\u5dde\u5730\u65b9\u6574\u5099\u5c40\u9577\u5d0e\u6cb3\u5ddd\u56fd\u9053\u4e8b\u52d9\u6240 \u5de5\u52d9\u8ab2","boring_xml_url":47,"boring_view_url":1,"soilmap_view_url":null,"soiltest_xml_url":0,"soiltest_view_url":0},{"id":329938,"code":"NGIC202000717-0017","latitude":"34.68695725","longitude":"133.73466741667","source_code":"","project_name":"","survey_name":"\u4ee4\u548c\u5143\u5e74\u5ea6\u7dcf\u793e\u4e00\u5bae\u30d0\u30a4\u30d1\u30b9\u677e\u5c3e\u5730\u533a\u5916\u5730\u8cea\u8abf\u67fb\u696d\u52d9","client_name":"\u56fd\u571f\u4ea4\u901a\u7701\u4e2d\u56fd\u5730\u65b9\u6574\u5099\u5c40\u5ca1\u5c71\u56fd\u9053\u4e8b\u52d9\u6240 \u8a08\u753b\u8ab2","boring_xml_url":47,"boring_view_url":1,"soilmap_view_url":null,"soiltest_xml_url":0,"soiltest_view_url":0},{"id":329937,"code":"NGIC202000717-0016","latitude":"34.687120388889","longitude":"133.73427805556","source_code":"","project_name":"","survey_name":"\u4ee4\u548c\u5143\u5e74\u5ea6\u7dcf\u793e\u4e00\u5bae\u30d0\u30a4\u30d1\u30b9\u677e\u5c3e\u5730\u533a\u5916\u5730\u8cea\u8abf\u67fb\u696d\u52d9","client_name":"\u56fd\u571f\u4ea4\u901a\u7701\u4e2d\u56fd\u5730\u65b9\u6574\u5099\u5c40\u5ca1\u5c71\u56fd\u9053\u4e8b\u52d9\u6240 \u8a08\u753b\u8ab2","boring_xml_url":47,"boring_view_url":1,"soilmap_view_url":null,"soiltest_xml_url":0,"soiltest_view_url":0},{"id":329936,"code":"NGIC202000717-0015","latitude":"34.987430555556","longitude":"133.95888055556","source_code":"","project_name":"","survey_name":"\u4ee4\u548c\u5143\u5e74\u5ea6\u7dcf\u793e\u4e00\u5bae\u30d0\u30a4\u30d1\u30b9\u677e\u5c3e\u5730\u533a\u5916\u5730\u8cea\u8abf\u67fb\u696d\u52d9","client_name":"\u56fd\u571f\u4ea4\u901a\u7701\u4e2d\u56fd\u5730\u65b9\u6574\u5099\u5c40\u5ca1\u5c71\u56fd\u9053\u4e8b\u52d9\u6240 \u8a08\u753b\u8ab2","boring_xml_url":47,"boring_view_url":1,"soilmap_view_url":null,"soiltest_xml_url":0,"soiltest_view_url":0},{"id":329935,"code":"NGIC202000717-0014","latitude":"34.970863888889","longitude":"133.96140555556","source_code":"","project_name":"","survey_name":"\u4ee4\u548c\u5143\u5e74\u5ea6\u7dcf\u793e\u4e00\u5bae\u30d0\u30a4\u30d1\u30b9\u677e\u5c3e\u5730\u533a\u5916\u5730\u8cea\u8abf\u67fb\u696d\u52d9","client_name":"\u56fd\u571f\u4ea4\u901a\u7701\u4e2d\u56fd\u5730\u65b9\u6574\u5099\u5c40\u5ca1\u5c71\u56fd\u9053\u4e8b\u52d9\u6240 \u8a08\u753b\u8ab2","boring_xml_url":47,"boring_view_url":1,"soilmap_view_url":null,"soiltest_xml_url":47,"soiltest_view_url":47},{"id":329934,"code":"NGIC202000717-0013","latitude":"34.627389166667","longitude":"133.94722213889","source_code":"","project_name":"","survey_name":"\u4ee4\u548c\u5143\u5e74\u5ea6\u7dcf\u793e\u4e00\u5bae\u30d0\u30a4\u30d1\u30b9\u677e\u5c3e\u5730\u533a\u5916\u5730\u8cea\u8abf\u67fb\u696d\u52d9","client_name":"\u56fd\u571f\u4ea4\u901a\u7701\u4e2d\u56fd\u5730\u65b9\u6574\u5099\u5c40\u5ca1\u5c71\u56fd\u9053\u4e8b\u52d9\u6240 \u8a08\u753b\u8ab2","boring_xml_url":47,"boring_view_url":1,"soilmap_view_url":null,"soiltest_xml_url":0,"soiltest_view_url":0},{"id":329933,"code":"NGIC202000717-0012","latitude":"34.627691583333","longitude":"133.94772172222","source_code":"","project_name":"","survey_name":"\u4ee4\u548c\u5143\u5e74\u5ea6\u7dcf\u793e\u4e00\u5bae\u30d0\u30a4\u30d1\u30b9\u677e\u5c3e\u5730\u533a\u5916\u5730\u8cea\u8abf\u67fb\u696d\u52d9","client_name":"\u56fd\u571f\u4ea4\u901a\u7701\u4e2d\u56fd\u5730\u65b9\u6574\u5099\u5c40\u5ca1\u5c71\u56fd\u9053\u4e8b\u52d9\u6240 \u8a08\u753b\u8ab2","boring_xml_url":47,"boring_view_url":1,"soilmap_view_url":null,"soiltest_xml_url":0,"soiltest_view_url":0},{"id":329932,"code":"NGIC202000717-0011","latitude":"34.627912555556","longitude":"133.94828055556","source_code":"","project_name":"","survey_name":"\u4ee4\u548c\u5143\u5e74\u5ea6\u7dcf\u793e\u4e00\u5bae\u30d0\u30a4\u30d1\u30b9\u677e\u5c3e\u5730\u533a\u5916\u5730\u8cea\u8abf\u67fb\u696d\u52d9","client_name":"\u56fd\u571f\u4ea4\u901a\u7701\u4e2d\u56fd\u5730\u65b9\u6574\u5099\u5c40\u5ca1\u5c71\u56fd\u9053\u4e8b\u52d9\u6240 \u8a08\u753b\u8ab2","boring_xml_url":47,"boring_view_url":1,"soilmap_view_url":null,"soiltest_xml_url":0,"soiltest_view_url":0},{"id":329931,"code":"NGIC202000717-0010","latitude":"34.628133638889","longitude":"133.94883930556","source_code":"","project_name":"","survey_name":"\u4ee4\u548c\u5143\u5e74\u5ea6\u7dcf\u793e\u4e00\u5bae\u30d0\u30a4\u30d1\u30b9\u677e\u5c3e\u5730\u533a\u5916\u5730\u8cea\u8abf\u67fb\u696d\u52d9","client_name":"\u56fd\u571f\u4ea4\u901a\u7701\u4e2d\u56fd\u5730\u65b9\u6574\u5099\u5c40\u5ca1\u5c71\u56fd\u9053\u4e8b\u52d9\u6240 \u8a08\u753b\u8ab2","boring_xml_url":47,"boring_view_url":1,"soilmap_view_url":null,"soiltest_xml_url":0,"soiltest_view_url":0},{"id":329930,"code":"NGIC202000717-0009","latitude":"34.692641666667","longitude":"133.86692777778","source_code":"","project_name":"","survey_name":"\u4ee4\u548c\u5143\u5e74\u5ea6\u7dcf\u793e\u4e00\u5bae\u30d0\u30a4\u30d1\u30b9\u677e\u5c3e\u5730\u533a\u5916\u5730\u8cea\u8abf\u67fb\u696d\u52d9","client_name":"\u56fd\u571f\u4ea4\u901a\u7701\u4e2d\u56fd\u5730\u65b9\u6574\u5099\u5c40\u5ca1\u5c71\u56fd\u9053\u4e8b\u52d9\u6240 \u8a08\u753b\u8ab2","boring_xml_url":47,"boring_view_url":1,"soilmap_view_url":null,"soiltest_xml_url":0,"soiltest_view_url":0},{"id":329929,"code":"NGIC202000717-0008","latitude":"34.692433638889","longitude":"133.86678422222","source_code":"","project_name":"","survey_name":"\u4ee4\u548c\u5143\u5e74\u5ea6\u7dcf\u793e\u4e00\u5bae\u30d0\u30a4\u30d1\u30b9\u677e\u5c3e\u5730\u533a\u5916\u5730\u8cea\u8abf\u67fb\u696d\u52d9","client_name":"\u56fd\u571f\u4ea4\u901a\u7701\u4e2d\u56fd\u5730\u65b9\u6574\u5099\u5c40\u5ca1\u5c71\u56fd\u9053\u4e8b\u52d9\u6240 \u8a08\u753b\u8ab2","boring_xml_url":47,"boring_view_url":1,"soilmap_view_url":null,"soiltest_xml_url":47,"soiltest_view_url":47},{"id":329928,"code":"NGIC202000717-0007","latitude":"34.693425833333","longitude":"133.86775908333","source_code":"","project_name":"","survey_name":"\u4ee4\u548c\u5143\u5e74\u5ea6\u7dcf\u793e\u4e00\u5bae\u30d0\u30a4\u30d1\u30b9\u677e\u5c3e\u5730\u533a\u5916\u5730\u8cea\u8abf\u67fb\u696d\u52d9","client_name":"\u56fd\u571f\u4ea4\u901a\u7701\u4e2d\u56fd\u5730\u65b9\u6574\u5099\u5c40\u5ca1\u5c71\u56fd\u9053\u4e8b\u52d9\u6240 \u8a08\u753b\u8ab2","boring_xml_url":47,"boring_view_url":1,"soilmap_view_url":null,"soiltest_xml_url":47,"soiltest_view_url":47},{"id":329927,"code":"NGIC202000717-0006","latitude":"34.693541222222","longitude":"133.86833625","source_code":"","project_name":"","survey_name":"\u4ee4\u548c\u5143\u5e74\u5ea6\u7dcf\u793e\u4e00\u5bae\u30d0\u30a4\u30d1\u30b9\u677e\u5c3e\u5730\u533a\u5916\u5730\u8cea\u8abf\u67fb\u696d\u52d9","client_name":"\u56fd\u571f\u4ea4\u901a\u7701\u4e2d\u56fd\u5730\u65b9\u6574\u5099\u5c40\u5ca1\u5c71\u56fd\u9053\u4e8b\u52d9\u6240 \u8a08\u753b\u8ab2","boring_xml_url":47,"boring_view_url":1,"soilmap_view_url":null,"soiltest_xml_url":47,"soiltest_view_url":47},{"id":329926,"code":"NGIC202000717-0005","latitude":"34.692838861111","longitude":"133.86810716667","source_code":"","project_name":"","survey_name":"\u4ee4\u548c\u5143\u5e74\u5ea6\u7dcf\u793e\u4e00\u5bae\u30d0\u30a4\u30d1\u30b9\u677e\u5c3e\u5730\u533a\u5916\u5730\u8cea\u8abf\u67fb\u696d\u52d9","client_name":"\u56fd\u571f\u4ea4\u901a\u7701\u4e2d\u56fd\u5730\u65b9\u6574\u5099\u5c40\u5ca1\u5c71\u56fd\u9053\u4e8b\u52d9\u6240 \u8a08\u753b\u8ab2","boring_xml_url":47,"boring_view_url":1,"soilmap_view_url":null,"soiltest_xml_url":47,"soiltest_view_url":47},{"id":329925,"code":"NGIC202000717-0004","latitude":"34.692405277778","longitude":"133.86849877778","source_code":"","project_name":"","survey_name":"\u4ee4\u548c\u5143\u5e74\u5ea6\u7dcf\u793e\u4e00\u5bae\u30d0\u30a4\u30d1\u30b9\u677e\u5c3e\u5730\u533a\u5916\u5730\u8cea\u8abf\u67fb\u696d\u52d9","client_name":"\u56fd\u571f\u4ea4\u901a\u7701\u4e2d\u56fd\u5730\u65b9\u6574\u5099\u5c40\u5ca1\u5c71\u56fd\u9053\u4e8b\u52d9\u6240 \u8a08\u753b\u8ab2","boring_xml_url":47,"boring_view_url":1,"soilmap_view_url":null,"soiltest_xml_url":47,"soiltest_view_url":47},{"id":329924,"code":"NGIC202000717-0003","latitude":"34.691644694444","longitude":"133.86977236111","source_code":"","project_name":"","survey_name":"\u4ee4\u548c\u5143\u5e74\u5ea6\u7dcf\u793e\u4e00\u5bae\u30d0\u30a4\u30d1\u30b9\u677e\u5c3e\u5730\u533a\u5916\u5730\u8cea\u8abf\u67fb\u696d\u52d9","client_name":"\u56fd\u571f\u4ea4\u901a\u7701\u4e2d\u56fd\u5730\u65b9\u6574\u5099\u5c40\u5ca1\u5c71\u56fd\u9053\u4e8b\u52d9\u6240 \u8a08\u753b\u8ab2","boring_xml_url":47,"boring_view_url":1,"soilmap_view_url":null,"soiltest_xml_url":47,"soiltest_view_url":47},{"id":329923,"code":"NGIC202000717-0002","latitude":"34.692780611111","longitude":"133.86698883333","source_code":"","project_name":"","survey_name":"\u4ee4\u548c\u5143\u5e74\u5ea6\u7dcf\u793e\u4e00\u5bae\u30d0\u30a4\u30d1\u30b9\u677e\u5c3e\u5730\u533a\u5916\u5730\u8cea\u8abf\u67fb\u696d\u52d9","client_name":"\u56fd\u571f\u4ea4\u901a\u7701\u4e2d\u56fd\u5730\u65b9\u6574\u5099\u5c40\u5ca1\u5c71\u56fd\u9053\u4e8b\u52d9\u6240 \u8a08\u753b\u8ab2","boring_xml_url":47,"boring_view_url":1,"soilmap_view_url":null,"soiltest_xml_url":47,"soiltest_view_url":47},{"id":329922,"code":"NGIC202000717-0001","latitude":"34.692992805556","longitude":"133.86738313889","source_code":"","project_name":"","survey_name":"\u4ee4\u548c\u5143\u5e74\u5ea6\u7dcf\u793e\u4e00\u5bae\u30d0\u30a4\u30d1\u30b9\u677e\u5c3e\u5730\u533a\u5916\u5730\u8cea\u8abf\u67fb\u696d\u52d9","client_name":"\u56fd\u571f\u4ea4\u901a\u7701\u4e2d\u56fd\u5730\u65b9\u6574\u5099\u5c40\u5ca1\u5c71\u56fd\u9053\u4e8b\u52d9\u6240 \u8a08\u753b\u8ab2","boring_xml_url":47,"boring_view_url":1,"soilmap_view_url":null,"soiltest_xml_url":47,"soiltest_view_url":47},{"id":329921,"code":"NGIC202000716-0004","latitude":"34.326693583333","longitude":"132.83858019444","source_code":"","project_name":"","survey_name":"\u5b89\u82b8\u6d25\u30d0\u30a4\u30d1\u30b9\u6728\u8c37\u5730\u533a\u5916\u5730\u8cea\u8abf\u67fb\u696d\u52d9","client_name":"\u56fd\u571f\u4ea4\u901a\u7701\u4e2d\u56fd\u5730\u65b9\u6574\u5099\u5c40\u5e83\u5cf6\u56fd\u9053\u4e8b\u52d9\u6240","boring_xml_url":47,"boring_view_url":1,"soilmap_view_url":null,"soiltest_xml_url":0,"soiltest_view_url":0},{"id":329920,"code":"NGIC202000716-0003","latitude":"34.326878361111","longitude":"132.83853044444","source_code":"","project_name":"","survey_name":"\u5b89\u82b8\u6d25\u30d0\u30a4\u30d1\u30b9\u6728\u8c37\u5730\u533a\u5916\u5730\u8cea\u8abf\u67fb\u696d\u52d9","client_name":"\u56fd\u571f\u4ea4\u901a\u7701\u4e2d\u56fd\u5730\u65b9\u6574\u5099\u5c40\u5e83\u5cf6\u56fd\u9053\u4e8b\u52d9\u6240","boring_xml_url":47,"boring_view_url":1,"soilmap_view_url":null,"soiltest_xml_url":0,"soiltest_view_url":0},{"id":329919,"code":"NGIC202000716-0002","latitude":"34.32705675","longitude":"132.81553030556","source_code":"","project_name":"","survey_name":"\u5b89\u82b8\u6d25\u30d0\u30a4\u30d1\u30b9\u6728\u8c37\u5730\u533a\u5916\u5730\u8cea\u8abf\u67fb\u696d\u52d9","client_name":"\u56fd\u571f\u4ea4\u901a\u7701\u4e2d\u56fd\u5730\u65b9\u6574\u5099\u5c40\u5e83\u5cf6\u56fd\u9053\u4e8b\u52d9\u6240","boring_xml_url":47,"boring_view_url":1,"soilmap_view_url":null,"soiltest_xml_url":0,"soiltest_view_url":0},{"id":329918,"code":"NGIC202000716-0001","latitude":"34.326863555556","longitude":"132.81560338889","source_code":"","project_name":"","survey_name":"\u5b89\u82b8\u6d25\u30d0\u30a4\u30d1\u30b9\u6728\u8c37\u5730\u533a\u5916\u5730\u8cea\u8abf\u67fb\u696d\u52d9","client_name":"\u56fd\u571f\u4ea4\u901a\u7701\u4e2d\u56fd\u5730\u65b9\u6574\u5099\u5c40\u5e83\u5cf6\u56fd\u9053\u4e8b\u52d9\u6240","boring_xml_url":47,"boring_view_url":1,"soilmap_view_url":null,"soiltest_xml_url":0,"soiltest_view_url":0},{"id":329869,"code":"NGIC202000537-0001","latitude":"33.571722222222","longitude":"133.6475","source_code":"","project_name":"","survey_name":"\u4ee4\u548c\u5143\u5e74\u5ea6\u5357\u56fd\u7a0e\u52d9\u7f72\u5e81\u820e\u5897\u7bc9\u8a2d\u8a08\u696d\u52d9","client_name":"\u56fd\u571f\u4ea4\u901a\u7701\u56db\u56fd\u5730\u65b9\u6574\u5099\u5c40\u55b6\u7e55\u90e8","boring_xml_url":47,"boring_view_url":1,"soilmap_view_url":null,"soiltest_xml_url":47,"soiltest_view_url":47},{"id":329846,"code":"NGIC202000337-0003","latitude":"33.850446361111","longitude":"132.69059752778","source_code":"","project_name":"","survey_name":"\u677e\u5c71\u6e2f\u5409\u7530\u6d5c\u5730\u533a\u571f\u8cea\u8abf\u67fb","client_name":"\u56fd\u571f\u4ea4\u901a\u7701\u56db\u56fd\u5730\u65b9\u6574\u5099\u5c40\u677e\u5c71\u6e2f\u6e7e\u30fb\u7a7a\u6e2f\u6574\u5099\u4e8b\u52d9\u6240","boring_xml_url":47,"boring_view_url":1,"soilmap_view_url":71,"soiltest_xml_url":47,"soiltest_view_url":47},{"id":329845,"code":"NGIC202000337-0002","latitude":"33.849817388889","longitude":"132.69100519444","source_code":"","project_name":"","survey_name":"\u677e\u5c71\u6e2f\u5409\u7530\u6d5c\u5730\u533a\u571f\u8cea\u8abf\u67fb","client_name":"\u56fd\u571f\u4ea4\u901a\u7701\u56db\u56fd\u5730\u65b9\u6574\u5099\u5c40\u677e\u5c71\u6e2f\u6e7e\u30fb\u7a7a\u6e2f\u6574\u5099\u4e8b\u52d9\u6240","boring_xml_url":47,"boring_view_url":1,"soilmap_view_url":71,"soiltest_xml_url":47,"soiltest_view_url":47},{"id":329844,"code":"NGIC202000337-0001","latitude":"33.849009166667","longitude":"132.69151558333","source_code":"","project_name":"","survey_name":"\u677e\u5c71\u6e2f\u5409\u7530\u6d5c\u5730\u533a\u571f\u8cea\u8abf\u67fb","client_name":"\u56fd\u571f\u4ea4\u901a\u7701\u56db\u56fd\u5730\u65b9\u6574\u5099\u5c40\u677e\u5c71\u6e2f\u6e7e\u30fb\u7a7a\u6e2f\u6574\u5099\u4e8b\u52d9\u6240","boring_xml_url":47,"boring_view_url":1,"soilmap_view_url":71,"soiltest_xml_url":47,"soiltest_view_url":47},{"id":329838,"code":"NGIC202000653-0010","latitude":"34.607722222222","longitude":"136.06219444444","source_code":"","project_name":"\u6728\u6d25\u5ddd\u6c34\u7cfb(\u4e09\u91cd)\u7802\u9632\u65bd\u8a2d\u8a2d\u8a08\u4ed6\u696d\u52d9","survey_name":"\u6728\u6d25\u5ddd\u6c34\u7cfb(\u4e09\u91cd)\u7802\u9632\u65bd\u8a2d\u8a2d\u8a08\u4ed6\u696d\u52d9","client_name":"\u56fd\u571f\u4ea4\u901a\u7701\u8fd1\u757f\u5730\u65b9\u6574\u5099\u5c40\u7d00\u4f0a\u5c71\u7cfb\u7802\u9632\u4e8b\u52d9\u6240","boring_xml_url":47,"boring_view_url":1,"soilmap_view_url":null,"soiltest_xml_url":0,"soiltest_view_url":0}]}}