{"header":{"xyz":{"source":[],"mosaic":false},"page":2140,"raw":{"soiltest_result":"0","bbox":"57.598333,109.544722,1.933333,163.806111","page":"2140"},"conditions":{"soiltest_result":0,"north":57.598333,"west":109.544722,"south":1.933333,"east":163.806111},"success":true,"message":""},"data":{"meta":{"total":212844,"page":2140,"pages":7095,"count":30},"values":[{"id":329774,"code":"NGIC202000533-0014","latitude":"35.476050305556","longitude":"138.34281916667","source_code":"","project_name":"R1\u65e9\u5ddd\u6d41\u57df\u7802\u9632\u65bd\u8a2d\u5730\u8cea\u8abf\u67fb\u696d\u52d9","survey_name":"R1\u65e9\u5ddd\u6d41\u57df\u7802\u9632\u65bd\u8a2d\u5730\u8cea\u8abf\u67fb\u696d\u52d9","client_name":"\u56fd\u571f\u4ea4\u901a\u7701\u95a2\u6771\u5730\u65b9\u6574\u5099\u5c40\u5bcc\u58eb\u5ddd\u7802\u9632\u4e8b\u52d9\u6240","boring_xml_url":47,"boring_view_url":1,"soilmap_view_url":null,"soiltest_xml_url":0,"soiltest_view_url":0},{"id":329773,"code":"NGIC202000533-0013","latitude":"35.476372055556","longitude":"138.34260577778","source_code":"","project_name":"R1\u65e9\u5ddd\u6d41\u57df\u7802\u9632\u65bd\u8a2d\u5730\u8cea\u8abf\u67fb\u696d\u52d9","survey_name":"R1\u65e9\u5ddd\u6d41\u57df\u7802\u9632\u65bd\u8a2d\u5730\u8cea\u8abf\u67fb\u696d\u52d9","client_name":"\u56fd\u571f\u4ea4\u901a\u7701\u95a2\u6771\u5730\u65b9\u6574\u5099\u5c40\u5bcc\u58eb\u5ddd\u7802\u9632\u4e8b\u52d9\u6240","boring_xml_url":47,"boring_view_url":1,"soilmap_view_url":null,"soiltest_xml_url":0,"soiltest_view_url":0},{"id":329772,"code":"NGIC202000533-0012","latitude":"35.476525055556","longitude":"138.34249505556","source_code":"","project_name":"R1\u65e9\u5ddd\u6d41\u57df\u7802\u9632\u65bd\u8a2d\u5730\u8cea\u8abf\u67fb\u696d\u52d9","survey_name":"R1\u65e9\u5ddd\u6d41\u57df\u7802\u9632\u65bd\u8a2d\u5730\u8cea\u8abf\u67fb\u696d\u52d9","client_name":"\u56fd\u571f\u4ea4\u901a\u7701\u95a2\u6771\u5730\u65b9\u6574\u5099\u5c40\u5bcc\u58eb\u5ddd\u7802\u9632\u4e8b\u52d9\u6240","boring_xml_url":47,"boring_view_url":1,"soilmap_view_url":null,"soiltest_xml_url":0,"soiltest_view_url":0},{"id":329771,"code":"NGIC202000533-0011","latitude":"35.476687833333","longitude":"138.3425315","source_code":"","project_name":"R1\u65e9\u5ddd\u6d41\u57df\u7802\u9632\u65bd\u8a2d\u5730\u8cea\u8abf\u67fb\u696d\u52d9","survey_name":"R1\u65e9\u5ddd\u6d41\u57df\u7802\u9632\u65bd\u8a2d\u5730\u8cea\u8abf\u67fb\u696d\u52d9","client_name":"\u56fd\u571f\u4ea4\u901a\u7701\u95a2\u6771\u5730\u65b9\u6574\u5099\u5c40\u5bcc\u58eb\u5ddd\u7802\u9632\u4e8b\u52d9\u6240","boring_xml_url":47,"boring_view_url":1,"soilmap_view_url":null,"soiltest_xml_url":0,"soiltest_view_url":0},{"id":329770,"code":"NGIC202000533-0010","latitude":"35.489262972222","longitude":"138.30042372222","source_code":"","project_name":"R1\u65e9\u5ddd\u6d41\u57df\u7802\u9632\u65bd\u8a2d\u5730\u8cea\u8abf\u67fb\u696d\u52d9","survey_name":"R1\u65e9\u5ddd\u6d41\u57df\u7802\u9632\u65bd\u8a2d\u5730\u8cea\u8abf\u67fb\u696d\u52d9","client_name":"\u56fd\u571f\u4ea4\u901a\u7701\u95a2\u6771\u5730\u65b9\u6574\u5099\u5c40\u5bcc\u58eb\u5ddd\u7802\u9632\u4e8b\u52d9\u6240","boring_xml_url":47,"boring_view_url":1,"soilmap_view_url":null,"soiltest_xml_url":0,"soiltest_view_url":0},{"id":329769,"code":"NGIC202000533-0009","latitude":"35.489535222222","longitude":"138.30037322222","source_code":"","project_name":"R1\u65e9\u5ddd\u6d41\u57df\u7802\u9632\u65bd\u8a2d\u5730\u8cea\u8abf\u67fb\u696d\u52d9","survey_name":"R1\u65e9\u5ddd\u6d41\u57df\u7802\u9632\u65bd\u8a2d\u5730\u8cea\u8abf\u67fb\u696d\u52d9","client_name":"\u56fd\u571f\u4ea4\u901a\u7701\u95a2\u6771\u5730\u65b9\u6574\u5099\u5c40\u5bcc\u58eb\u5ddd\u7802\u9632\u4e8b\u52d9\u6240","boring_xml_url":47,"boring_view_url":1,"soilmap_view_url":null,"soiltest_xml_url":0,"soiltest_view_url":0},{"id":329768,"code":"NGIC202000533-0008","latitude":"35.531203388889","longitude":"138.30773608333","source_code":"","project_name":"R1\u65e9\u5ddd\u6d41\u57df\u7802\u9632\u65bd\u8a2d\u5730\u8cea\u8abf\u67fb\u696d\u52d9","survey_name":"R1\u65e9\u5ddd\u6d41\u57df\u7802\u9632\u65bd\u8a2d\u5730\u8cea\u8abf\u67fb\u696d\u52d9","client_name":"\u56fd\u571f\u4ea4\u901a\u7701\u95a2\u6771\u5730\u65b9\u6574\u5099\u5c40\u5bcc\u58eb\u5ddd\u7802\u9632\u4e8b\u52d9\u6240","boring_xml_url":47,"boring_view_url":1,"soilmap_view_url":null,"soiltest_xml_url":0,"soiltest_view_url":0},{"id":329767,"code":"NGIC202000533-0007","latitude":"35.531435083333","longitude":"138.30752563889","source_code":"","project_name":"R1\u65e9\u5ddd\u6d41\u57df\u7802\u9632\u65bd\u8a2d\u5730\u8cea\u8abf\u67fb\u696d\u52d9","survey_name":"R1\u65e9\u5ddd\u6d41\u57df\u7802\u9632\u65bd\u8a2d\u5730\u8cea\u8abf\u67fb\u696d\u52d9","client_name":"\u56fd\u571f\u4ea4\u901a\u7701\u95a2\u6771\u5730\u65b9\u6574\u5099\u5c40\u5bcc\u58eb\u5ddd\u7802\u9632\u4e8b\u52d9\u6240","boring_xml_url":47,"boring_view_url":1,"soilmap_view_url":null,"soiltest_xml_url":0,"soiltest_view_url":0},{"id":329766,"code":"NGIC202000533-0006","latitude":"35.531365388889","longitude":"138.30760155556","source_code":"","project_name":"R1\u65e9\u5ddd\u6d41\u57df\u7802\u9632\u65bd\u8a2d\u5730\u8cea\u8abf\u67fb\u696d\u52d9","survey_name":"R1\u65e9\u5ddd\u6d41\u57df\u7802\u9632\u65bd\u8a2d\u5730\u8cea\u8abf\u67fb\u696d\u52d9","client_name":"\u56fd\u571f\u4ea4\u901a\u7701\u95a2\u6771\u5730\u65b9\u6574\u5099\u5c40\u5bcc\u58eb\u5ddd\u7802\u9632\u4e8b\u52d9\u6240","boring_xml_url":47,"boring_view_url":1,"soilmap_view_url":null,"soiltest_xml_url":0,"soiltest_view_url":0},{"id":329765,"code":"NGIC202000533-0005","latitude":"35.531193527778","longitude":"138.30763966667","source_code":"","project_name":"R1\u65e9\u5ddd\u6d41\u57df\u7802\u9632\u65bd\u8a2d\u5730\u8cea\u8abf\u67fb\u696d\u52d9","survey_name":"R1\u65e9\u5ddd\u6d41\u57df\u7802\u9632\u65bd\u8a2d\u5730\u8cea\u8abf\u67fb\u696d\u52d9","client_name":"\u56fd\u571f\u4ea4\u901a\u7701\u95a2\u6771\u5730\u65b9\u6574\u5099\u5c40\u5bcc\u58eb\u5ddd\u7802\u9632\u4e8b\u52d9\u6240","boring_xml_url":47,"boring_view_url":1,"soilmap_view_url":null,"soiltest_xml_url":0,"soiltest_view_url":0},{"id":329764,"code":"NGIC202000533-0004","latitude":"35.531019722222","longitude":"138.30768722222","source_code":"","project_name":"R1\u65e9\u5ddd\u6d41\u57df\u7802\u9632\u65bd\u8a2d\u5730\u8cea\u8abf\u67fb\u696d\u52d9","survey_name":"R1\u65e9\u5ddd\u6d41\u57df\u7802\u9632\u65bd\u8a2d\u5730\u8cea\u8abf\u67fb\u696d\u52d9","client_name":"\u56fd\u571f\u4ea4\u901a\u7701\u95a2\u6771\u5730\u65b9\u6574\u5099\u5c40\u5bcc\u58eb\u5ddd\u7802\u9632\u4e8b\u52d9\u6240","boring_xml_url":47,"boring_view_url":1,"soilmap_view_url":null,"soiltest_xml_url":0,"soiltest_view_url":0},{"id":329763,"code":"NGIC202000533-0003","latitude":"35.530784527778","longitude":"138.30758486111","source_code":"","project_name":"R1\u65e9\u5ddd\u6d41\u57df\u7802\u9632\u65bd\u8a2d\u5730\u8cea\u8abf\u67fb\u696d\u52d9","survey_name":"R1\u65e9\u5ddd\u6d41\u57df\u7802\u9632\u65bd\u8a2d\u5730\u8cea\u8abf\u67fb\u696d\u52d9","client_name":"\u56fd\u571f\u4ea4\u901a\u7701\u95a2\u6771\u5730\u65b9\u6574\u5099\u5c40\u5bcc\u58eb\u5ddd\u7802\u9632\u4e8b\u52d9\u6240","boring_xml_url":47,"boring_view_url":1,"soilmap_view_url":null,"soiltest_xml_url":0,"soiltest_view_url":0},{"id":329762,"code":"NGIC202000533-0002","latitude":"35.572558611111","longitude":"138.29449877778","source_code":"","project_name":"R1\u65e9\u5ddd\u6d41\u57df\u7802\u9632\u65bd\u8a2d\u5730\u8cea\u8abf\u67fb\u696d\u52d9","survey_name":"R1\u65e9\u5ddd\u6d41\u57df\u7802\u9632\u65bd\u8a2d\u5730\u8cea\u8abf\u67fb\u696d\u52d9","client_name":"\u56fd\u571f\u4ea4\u901a\u7701\u95a2\u6771\u5730\u65b9\u6574\u5099\u5c40\u5bcc\u58eb\u5ddd\u7802\u9632\u4e8b\u52d9\u6240","boring_xml_url":47,"boring_view_url":1,"soilmap_view_url":null,"soiltest_xml_url":0,"soiltest_view_url":0},{"id":329761,"code":"NGIC202000533-0001","latitude":"35.572714833333","longitude":"138.29426872222","source_code":"","project_name":"R1\u65e9\u5ddd\u6d41\u57df\u7802\u9632\u65bd\u8a2d\u5730\u8cea\u8abf\u67fb\u696d\u52d9","survey_name":"R1\u65e9\u5ddd\u6d41\u57df\u7802\u9632\u65bd\u8a2d\u5730\u8cea\u8abf\u67fb\u696d\u52d9","client_name":"\u56fd\u571f\u4ea4\u901a\u7701\u95a2\u6771\u5730\u65b9\u6574\u5099\u5c40\u5bcc\u58eb\u5ddd\u7802\u9632\u4e8b\u52d9\u6240","boring_xml_url":47,"boring_view_url":1,"soilmap_view_url":null,"soiltest_xml_url":0,"soiltest_view_url":0},{"id":329758,"code":"NGIC202000691-0001","latitude":"33.864159333333","longitude":"133.77431047222","source_code":"","project_name":"\u4ee4\u548c\u5143-2\u5e74\u5ea6\u4e0b\u540d\u7b2c\u4e00\u6a4b\u5916\u8010\u9707\u88dc\u5f37\u8a2d\u8a08\u696d\u52d9","survey_name":"\u4ee4\u548c\u5143-2\u5e74\u5ea6\u4e0b\u540d\u7b2c\u4e00\u6a4b\u5916\u8010\u9707\u88dc\u5f37\u8a2d\u8a08\u696d\u52d9","client_name":"\u56fd\u571f\u4ea4\u901a\u7701\u56db\u56fd\u5730\u65b9\u6574\u5099\u5c40\u5fb3\u5cf6\u6cb3\u5ddd\u56fd\u9053\u4e8b\u52d9\u6240","boring_xml_url":47,"boring_view_url":1,"soilmap_view_url":null,"soiltest_xml_url":0,"soiltest_view_url":0},{"id":329751,"code":"NGIC202000683-0011","latitude":"33.56772725","longitude":"133.57338247222","source_code":"","project_name":"\n      ","survey_name":"\u4ee4\u548c\u5143\u5e74\u5ea6\u571f\u4f50\u7ba1\u5185\u5730\u8cea\u8abf\u67fb\u5916\u696d\u52d9","client_name":"\u56fd\u571f\u4ea4\u901a\u7701\u56db\u56fd\u5730\u65b9\u6574\u5099\u5c40\u571f\u4f50\u56fd\u9053\u4e8b\u52d9\u6240","boring_xml_url":47,"boring_view_url":1,"soilmap_view_url":null,"soiltest_xml_url":0,"soiltest_view_url":0},{"id":329750,"code":"NGIC202000679-0011","latitude":"33.024093305556","longitude":"130.62191105556","source_code":"","project_name":"","survey_name":"\u4ee4\u548c\u5143\u5e74\u5ea6\u83ca\u6c60\u5ddd\u6c34\u7cfb\u5730\u8cea\u8abf\u67fb\u696d\u52d9","client_name":"\u56fd\u571f\u4ea4\u901a\u7701\u4e5d\u5dde\u5730\u65b9\u6574\u5099\u5c40\u83ca\u6c60\u5ddd\u6cb3\u5ddd\u4e8b\u52d9\u6240","boring_xml_url":47,"boring_view_url":1,"soilmap_view_url":null,"soiltest_xml_url":47,"soiltest_view_url":47},{"id":329749,"code":"NGIC202000679-0010","latitude":"33.022451194444","longitude":"130.62124630556","source_code":"","project_name":"","survey_name":"\u4ee4\u548c\u5143\u5e74\u5ea6\u83ca\u6c60\u5ddd\u6c34\u7cfb\u5730\u8cea\u8abf\u67fb\u696d\u52d9","client_name":"\u56fd\u571f\u4ea4\u901a\u7701\u4e5d\u5dde\u5730\u65b9\u6574\u5099\u5c40\u83ca\u6c60\u5ddd\u6cb3\u5ddd\u4e8b\u52d9\u6240","boring_xml_url":47,"boring_view_url":1,"soilmap_view_url":null,"soiltest_xml_url":47,"soiltest_view_url":47},{"id":329748,"code":"NGIC202000679-0009","latitude":"33.023680833333","longitude":"130.62174577778","source_code":"","project_name":"","survey_name":"\u4ee4\u548c\u5143\u5e74\u5ea6\u83ca\u6c60\u5ddd\u6c34\u7cfb\u5730\u8cea\u8abf\u67fb\u696d\u52d9","client_name":"\u56fd\u571f\u4ea4\u901a\u7701\u4e5d\u5dde\u5730\u65b9\u6574\u5099\u5c40\u83ca\u6c60\u5ddd\u6cb3\u5ddd\u4e8b\u52d9\u6240","boring_xml_url":47,"boring_view_url":1,"soilmap_view_url":null,"soiltest_xml_url":47,"soiltest_view_url":47},{"id":329747,"code":"NGIC202000679-0008","latitude":"33.024061277778","longitude":"130.6220225","source_code":"","project_name":"","survey_name":"\u4ee4\u548c\u5143\u5e74\u5ea6\u83ca\u6c60\u5ddd\u6c34\u7cfb\u5730\u8cea\u8abf\u67fb\u696d\u52d9","client_name":"\u56fd\u571f\u4ea4\u901a\u7701\u4e5d\u5dde\u5730\u65b9\u6574\u5099\u5c40\u83ca\u6c60\u5ddd\u6cb3\u5ddd\u4e8b\u52d9\u6240","boring_xml_url":47,"boring_view_url":1,"soilmap_view_url":null,"soiltest_xml_url":47,"soiltest_view_url":47},{"id":329746,"code":"NGIC202000679-0007","latitude":"33.024021611111","longitude":"130.62188202778","source_code":"","project_name":"","survey_name":"\u4ee4\u548c\u5143\u5e74\u5ea6\u83ca\u6c60\u5ddd\u6c34\u7cfb\u5730\u8cea\u8abf\u67fb\u696d\u52d9","client_name":"\u56fd\u571f\u4ea4\u901a\u7701\u4e5d\u5dde\u5730\u65b9\u6574\u5099\u5c40\u83ca\u6c60\u5ddd\u6cb3\u5ddd\u4e8b\u52d9\u6240","boring_xml_url":47,"boring_view_url":1,"soilmap_view_url":null,"soiltest_xml_url":47,"soiltest_view_url":47},{"id":329745,"code":"NGIC202000679-0006","latitude":"33.023650277778","longitude":"130.62185216667","source_code":"","project_name":"","survey_name":"\u4ee4\u548c\u5143\u5e74\u5ea6\u83ca\u6c60\u5ddd\u6c34\u7cfb\u5730\u8cea\u8abf\u67fb\u696d\u52d9","client_name":"\u56fd\u571f\u4ea4\u901a\u7701\u4e5d\u5dde\u5730\u65b9\u6574\u5099\u5c40\u83ca\u6c60\u5ddd\u6cb3\u5ddd\u4e8b\u52d9\u6240","boring_xml_url":47,"boring_view_url":1,"soilmap_view_url":null,"soiltest_xml_url":47,"soiltest_view_url":47},{"id":329744,"code":"NGIC202000679-0005","latitude":"33.023559222222","longitude":"130.62169655556","source_code":"","project_name":"","survey_name":"\u4ee4\u548c\u5143\u5e74\u5ea6\u83ca\u6c60\u5ddd\u6c34\u7cfb\u5730\u8cea\u8abf\u67fb\u696d\u52d9","client_name":"\u56fd\u571f\u4ea4\u901a\u7701\u4e5d\u5dde\u5730\u65b9\u6574\u5099\u5c40\u83ca\u6c60\u5ddd\u6cb3\u5ddd\u4e8b\u52d9\u6240","boring_xml_url":47,"boring_view_url":1,"soilmap_view_url":null,"soiltest_xml_url":47,"soiltest_view_url":47},{"id":329743,"code":"NGIC202000679-0004","latitude":"33.022882166667","longitude":"130.62154119444","source_code":"","project_name":"","survey_name":"\u4ee4\u548c\u5143\u5e74\u5ea6\u83ca\u6c60\u5ddd\u6c34\u7cfb\u5730\u8cea\u8abf\u67fb\u696d\u52d9","client_name":"\u56fd\u571f\u4ea4\u901a\u7701\u4e5d\u5dde\u5730\u65b9\u6574\u5099\u5c40\u83ca\u6c60\u5ddd\u6cb3\u5ddd\u4e8b\u52d9\u6240","boring_xml_url":47,"boring_view_url":1,"soilmap_view_url":null,"soiltest_xml_url":0,"soiltest_view_url":0},{"id":329742,"code":"NGIC202000679-0003","latitude":"33.022790111111","longitude":"130.62138519444","source_code":"","project_name":"","survey_name":"\u4ee4\u548c\u5143\u5e74\u5ea6\u83ca\u6c60\u5ddd\u6c34\u7cfb\u5730\u8cea\u8abf\u67fb\u696d\u52d9","client_name":"\u56fd\u571f\u4ea4\u901a\u7701\u4e5d\u5dde\u5730\u65b9\u6574\u5099\u5c40\u83ca\u6c60\u5ddd\u6cb3\u5ddd\u4e8b\u52d9\u6240","boring_xml_url":47,"boring_view_url":1,"soilmap_view_url":null,"soiltest_xml_url":0,"soiltest_view_url":0},{"id":329741,"code":"NGIC202000679-0002","latitude":"33.022419194444","longitude":"130.62135775","source_code":"","project_name":"","survey_name":"\u4ee4\u548c\u5143\u5e74\u5ea6\u83ca\u6c60\u5ddd\u6c34\u7cfb\u5730\u8cea\u8abf\u67fb\u696d\u52d9","client_name":"\u56fd\u571f\u4ea4\u901a\u7701\u4e5d\u5dde\u5730\u65b9\u6574\u5099\u5c40\u83ca\u6c60\u5ddd\u6cb3\u5ddd\u4e8b\u52d9\u6240","boring_xml_url":47,"boring_view_url":1,"soilmap_view_url":null,"soiltest_xml_url":47,"soiltest_view_url":47},{"id":329740,"code":"NGIC202000679-0001","latitude":"33.02237125","longitude":"130.62119802778","source_code":"","project_name":"","survey_name":"\u4ee4\u548c\u5143\u5e74\u5ea6\u83ca\u6c60\u5ddd\u6c34\u7cfb\u5730\u8cea\u8abf\u67fb\u696d\u52d9","client_name":"\u56fd\u571f\u4ea4\u901a\u7701\u4e5d\u5dde\u5730\u65b9\u6574\u5099\u5c40\u83ca\u6c60\u5ddd\u6cb3\u5ddd\u4e8b\u52d9\u6240","boring_xml_url":47,"boring_view_url":1,"soilmap_view_url":null,"soiltest_xml_url":47,"soiltest_view_url":47},{"id":329727,"code":"NGIC202000692-0008","latitude":"43.861027777778","longitude":"144.07988888889","source_code":"","project_name":"\u4e00\u822c\u56fd\u905339\u53f7 \u7f8e\u5e4c\u753a \u9ad8\u91ce\u897f\u5730\u8cea\u8abf\u67fb\u696d\u52d9","survey_name":"\u4e00\u822c\u56fd\u905339\u53f7 \u7f8e\u5e4c\u753a \u9ad8\u91ce\u897f\u5730\u8cea\u8abf\u67fb\u696d\u52d9","client_name":"\u56fd\u571f\u4ea4\u901a\u7701\u5317\u6d77\u9053\u958b\u767a\u5c40\u7db2\u8d70\u958b\u767a\u5efa\u8a2d\u90e8\u672c\u90e8","boring_xml_url":47,"boring_view_url":1,"soilmap_view_url":null,"soiltest_xml_url":47,"soiltest_view_url":47},{"id":329726,"code":"NGIC202000692-0007","latitude":"43.860888888889","longitude":"144.07963888889","source_code":"","project_name":"\u4e00\u822c\u56fd\u905339\u53f7 \u7f8e\u5e4c\u753a \u9ad8\u91ce\u897f\u5730\u8cea\u8abf\u67fb\u696d\u52d9","survey_name":"\u4e00\u822c\u56fd\u905339\u53f7 \u7f8e\u5e4c\u753a \u9ad8\u91ce\u897f\u5730\u8cea\u8abf\u67fb\u696d\u52d9","client_name":"\u56fd\u571f\u4ea4\u901a\u7701\u5317\u6d77\u9053\u958b\u767a\u5c40\u7db2\u8d70\u958b\u767a\u5efa\u8a2d\u90e8\u672c\u90e8","boring_xml_url":47,"boring_view_url":1,"soilmap_view_url":null,"soiltest_xml_url":47,"soiltest_view_url":47},{"id":329725,"code":"NGIC202000692-0006","latitude":"43.862611111111","longitude":"144.07708333333","source_code":"","project_name":"\u4e00\u822c\u56fd\u905339\u53f7 \u7f8e\u5e4c\u753a \u9ad8\u91ce\u897f\u5730\u8cea\u8abf\u67fb\u696d\u52d9","survey_name":"\u4e00\u822c\u56fd\u905339\u53f7 \u7f8e\u5e4c\u753a \u9ad8\u91ce\u897f\u5730\u8cea\u8abf\u67fb\u696d\u52d9","client_name":"\u56fd\u571f\u4ea4\u901a\u7701\u5317\u6d77\u9053\u958b\u767a\u5c40\u7db2\u8d70\u958b\u767a\u5efa\u8a2d\u90e8\u672c\u90e8","boring_xml_url":47,"boring_view_url":1,"soilmap_view_url":null,"soiltest_xml_url":47,"soiltest_view_url":47}]}}