{"header":{"xyz":{"source":[],"mosaic":false},"page":2147,"raw":{"soiltest_result":"0","bbox":"57.598333,109.544722,1.933333,163.806111","page":"2147"},"conditions":{"soiltest_result":0,"north":57.598333,"west":109.544722,"south":1.933333,"east":163.806111},"success":true,"message":""},"data":{"meta":{"total":212844,"page":2147,"pages":7095,"count":30},"values":[{"id":323053,"code":"NGIC202000467-0012","latitude":"35.290666666667","longitude":"138.63527777778","source_code":"","project_name":"","survey_name":"\u4ee4\u548c\u5143\u5e74\u5ea6\u5bcc\u58eb\u5c71\u5357\u9e93\u5730\u8cea\u8abf\u67fb\u696d\u52d9","client_name":"\u56fd\u571f\u4ea4\u901a\u7701\u4e2d\u90e8\u5730\u65b9\u6574\u5099\u5c40\u5bcc\u58eb\u7802\u9632\u4e8b\u52d9\u6240","boring_xml_url":47,"boring_view_url":1,"soilmap_view_url":null,"soiltest_xml_url":0,"soiltest_view_url":0},{"id":323052,"code":"NGIC202000467-0011","latitude":"35.291166666667","longitude":"138.63591666667","source_code":"","project_name":"","survey_name":"\u4ee4\u548c\u5143\u5e74\u5ea6\u5bcc\u58eb\u5c71\u5357\u9e93\u5730\u8cea\u8abf\u67fb\u696d\u52d9","client_name":"\u56fd\u571f\u4ea4\u901a\u7701\u4e2d\u90e8\u5730\u65b9\u6574\u5099\u5c40\u5bcc\u58eb\u7802\u9632\u4e8b\u52d9\u6240","boring_xml_url":47,"boring_view_url":1,"soilmap_view_url":null,"soiltest_xml_url":0,"soiltest_view_url":0},{"id":323051,"code":"NGIC202000467-0010","latitude":"35.290166666667","longitude":"138.63477777778","source_code":"","project_name":"","survey_name":"\u4ee4\u548c\u5143\u5e74\u5ea6\u5bcc\u58eb\u5c71\u5357\u9e93\u5730\u8cea\u8abf\u67fb\u696d\u52d9","client_name":"\u56fd\u571f\u4ea4\u901a\u7701\u4e2d\u90e8\u5730\u65b9\u6574\u5099\u5c40\u5bcc\u58eb\u7802\u9632\u4e8b\u52d9\u6240","boring_xml_url":47,"boring_view_url":1,"soilmap_view_url":null,"soiltest_xml_url":0,"soiltest_view_url":0},{"id":323050,"code":"NGIC202000467-0009","latitude":"35.289916666667","longitude":"138.63552777778","source_code":"","project_name":"","survey_name":"\u4ee4\u548c\u5143\u5e74\u5ea6\u5bcc\u58eb\u5c71\u5357\u9e93\u5730\u8cea\u8abf\u67fb\u696d\u52d9","client_name":"\u56fd\u571f\u4ea4\u901a\u7701\u4e2d\u90e8\u5730\u65b9\u6574\u5099\u5c40\u5bcc\u58eb\u7802\u9632\u4e8b\u52d9\u6240","boring_xml_url":47,"boring_view_url":1,"soilmap_view_url":null,"soiltest_xml_url":0,"soiltest_view_url":0},{"id":323049,"code":"NGIC202000467-0008","latitude":"35.290444444444","longitude":"138.63497222222","source_code":"","project_name":"","survey_name":"\u4ee4\u548c\u5143\u5e74\u5ea6\u5bcc\u58eb\u5c71\u5357\u9e93\u5730\u8cea\u8abf\u67fb\u696d\u52d9","client_name":"\u56fd\u571f\u4ea4\u901a\u7701\u4e2d\u90e8\u5730\u65b9\u6574\u5099\u5c40\u5bcc\u58eb\u7802\u9632\u4e8b\u52d9\u6240","boring_xml_url":47,"boring_view_url":1,"soilmap_view_url":null,"soiltest_xml_url":0,"soiltest_view_url":0},{"id":323048,"code":"NGIC202000467-0007","latitude":"35.290777777778","longitude":"138.63452777778","source_code":"","project_name":"","survey_name":"\u4ee4\u548c\u5143\u5e74\u5ea6\u5bcc\u58eb\u5c71\u5357\u9e93\u5730\u8cea\u8abf\u67fb\u696d\u52d9","client_name":"\u56fd\u571f\u4ea4\u901a\u7701\u4e2d\u90e8\u5730\u65b9\u6574\u5099\u5c40\u5bcc\u58eb\u7802\u9632\u4e8b\u52d9\u6240","boring_xml_url":47,"boring_view_url":1,"soilmap_view_url":null,"soiltest_xml_url":0,"soiltest_view_url":0},{"id":323047,"code":"NGIC202000467-0006","latitude":"35.290472222222","longitude":"138.63594444444","source_code":"","project_name":"","survey_name":"\u4ee4\u548c\u5143\u5e74\u5ea6\u5bcc\u58eb\u5c71\u5357\u9e93\u5730\u8cea\u8abf\u67fb\u696d\u52d9","client_name":"\u56fd\u571f\u4ea4\u901a\u7701\u4e2d\u90e8\u5730\u65b9\u6574\u5099\u5c40\u5bcc\u58eb\u7802\u9632\u4e8b\u52d9\u6240","boring_xml_url":47,"boring_view_url":1,"soilmap_view_url":null,"soiltest_xml_url":0,"soiltest_view_url":0},{"id":323046,"code":"NGIC202000467-0005","latitude":"35.290888888889","longitude":"138.63547222222","source_code":"","project_name":"","survey_name":"\u4ee4\u548c\u5143\u5e74\u5ea6\u5bcc\u58eb\u5c71\u5357\u9e93\u5730\u8cea\u8abf\u67fb\u696d\u52d9","client_name":"\u56fd\u571f\u4ea4\u901a\u7701\u4e2d\u90e8\u5730\u65b9\u6574\u5099\u5c40\u5bcc\u58eb\u7802\u9632\u4e8b\u52d9\u6240","boring_xml_url":47,"boring_view_url":1,"soilmap_view_url":null,"soiltest_xml_url":0,"soiltest_view_url":0},{"id":323045,"code":"NGIC202000467-0004","latitude":"35.291194444444","longitude":"138.63511111111","source_code":"","project_name":"","survey_name":"\u4ee4\u548c\u5143\u5e74\u5ea6\u5bcc\u58eb\u5c71\u5357\u9e93\u5730\u8cea\u8abf\u67fb\u696d\u52d9","client_name":"\u56fd\u571f\u4ea4\u901a\u7701\u4e2d\u90e8\u5730\u65b9\u6574\u5099\u5c40\u5bcc\u58eb\u7802\u9632\u4e8b\u52d9\u6240","boring_xml_url":47,"boring_view_url":1,"soilmap_view_url":null,"soiltest_xml_url":0,"soiltest_view_url":0},{"id":323044,"code":"NGIC202000467-0003","latitude":"35.291138888889","longitude":"138.63655555556","source_code":"","project_name":"","survey_name":"\u4ee4\u548c\u5143\u5e74\u5ea6\u5bcc\u58eb\u5c71\u5357\u9e93\u5730\u8cea\u8abf\u67fb\u696d\u52d9","client_name":"\u56fd\u571f\u4ea4\u901a\u7701\u4e2d\u90e8\u5730\u65b9\u6574\u5099\u5c40\u5bcc\u58eb\u7802\u9632\u4e8b\u52d9\u6240","boring_xml_url":47,"boring_view_url":1,"soilmap_view_url":null,"soiltest_xml_url":0,"soiltest_view_url":0},{"id":323043,"code":"NGIC202000467-0002","latitude":"35.291472222222","longitude":"138.63619444444","source_code":"","project_name":"","survey_name":"\u4ee4\u548c\u5143\u5e74\u5ea6\u5bcc\u58eb\u5c71\u5357\u9e93\u5730\u8cea\u8abf\u67fb\u696d\u52d9","client_name":"\u56fd\u571f\u4ea4\u901a\u7701\u4e2d\u90e8\u5730\u65b9\u6574\u5099\u5c40\u5bcc\u58eb\u7802\u9632\u4e8b\u52d9\u6240","boring_xml_url":47,"boring_view_url":1,"soilmap_view_url":null,"soiltest_xml_url":0,"soiltest_view_url":0},{"id":323042,"code":"NGIC202000467-0001","latitude":"35.291638888889","longitude":"138.63569444444","source_code":"","project_name":"","survey_name":"\u4ee4\u548c\u5143\u5e74\u5ea6\u5bcc\u58eb\u5c71\u5357\u9e93\u5730\u8cea\u8abf\u67fb\u696d\u52d9","client_name":"\u56fd\u571f\u4ea4\u901a\u7701\u4e2d\u90e8\u5730\u65b9\u6574\u5099\u5c40\u5bcc\u58eb\u7802\u9632\u4e8b\u52d9\u6240","boring_xml_url":47,"boring_view_url":1,"soilmap_view_url":null,"soiltest_xml_url":0,"soiltest_view_url":0},{"id":323037,"code":"NGIC202000512-0012","latitude":"33.509732777778","longitude":"134.25856705556","source_code":"","project_name":"","survey_name":"\u4ee4\u548c\u5143-2\u5e74\u5ea6\u6d77\u90e8\u91ce\u6839\u9053\u8def(\u571f\u4f50\u7ba1\u5185)\u5730\u8cea\u8abf\u67fb\u696d\u52d9","client_name":"\u56fd\u571f\u4ea4\u901a\u7701\u56db\u56fd\u5730\u65b9\u6574\u5099\u5c40\u571f\u4f50\u56fd\u9053\u4e8b\u52d9\u6240","boring_xml_url":47,"boring_view_url":1,"soilmap_view_url":null,"soiltest_xml_url":0,"soiltest_view_url":0},{"id":323036,"code":"NGIC202000512-0011","latitude":"33.543632638889","longitude":"134.28439894444","source_code":"","project_name":"","survey_name":"\u4ee4\u548c\u5143-2\u5e74\u5ea6\u6d77\u90e8\u91ce\u6839\u9053\u8def(\u571f\u4f50\u7ba1\u5185)\u5730\u8cea\u8abf\u67fb\u696d\u52d9","client_name":"\u56fd\u571f\u4ea4\u901a\u7701\u56db\u56fd\u5730\u65b9\u6574\u5099\u5c40\u571f\u4f50\u56fd\u9053\u4e8b\u52d9\u6240","boring_xml_url":47,"boring_view_url":1,"soilmap_view_url":null,"soiltest_xml_url":0,"soiltest_view_url":0},{"id":323035,"code":"NGIC202000512-0010","latitude":"33.516427083333","longitude":"134.26752858333","source_code":"","project_name":"","survey_name":"\u4ee4\u548c\u5143-2\u5e74\u5ea6\u6d77\u90e8\u91ce\u6839\u9053\u8def(\u571f\u4f50\u7ba1\u5185)\u5730\u8cea\u8abf\u67fb\u696d\u52d9","client_name":"\u56fd\u571f\u4ea4\u901a\u7701\u56db\u56fd\u5730\u65b9\u6574\u5099\u5c40\u571f\u4f50\u56fd\u9053\u4e8b\u52d9\u6240","boring_xml_url":47,"boring_view_url":1,"soilmap_view_url":null,"soiltest_xml_url":0,"soiltest_view_url":0},{"id":323034,"code":"NGIC202000512-0009","latitude":"33.517158527778","longitude":"134.26829502778","source_code":"","project_name":"","survey_name":"\u4ee4\u548c\u5143-2\u5e74\u5ea6\u6d77\u90e8\u91ce\u6839\u9053\u8def(\u571f\u4f50\u7ba1\u5185)\u5730\u8cea\u8abf\u67fb\u696d\u52d9","client_name":"\u56fd\u571f\u4ea4\u901a\u7701\u56db\u56fd\u5730\u65b9\u6574\u5099\u5c40\u571f\u4f50\u56fd\u9053\u4e8b\u52d9\u6240","boring_xml_url":47,"boring_view_url":1,"soilmap_view_url":null,"soiltest_xml_url":0,"soiltest_view_url":0},{"id":323033,"code":"NGIC202000512-0008","latitude":"33.522864916667","longitude":"134.273537","source_code":"","project_name":"","survey_name":"\u4ee4\u548c\u5143-2\u5e74\u5ea6\u6d77\u90e8\u91ce\u6839\u9053\u8def(\u571f\u4f50\u7ba1\u5185)\u5730\u8cea\u8abf\u67fb\u696d\u52d9","client_name":"\u56fd\u571f\u4ea4\u901a\u7701\u56db\u56fd\u5730\u65b9\u6574\u5099\u5c40\u571f\u4f50\u56fd\u9053\u4e8b\u52d9\u6240","boring_xml_url":47,"boring_view_url":1,"soilmap_view_url":null,"soiltest_xml_url":0,"soiltest_view_url":0},{"id":323032,"code":"NGIC202000512-0007","latitude":"33.526863888889","longitude":"134.27647186111","source_code":"","project_name":"","survey_name":"\u4ee4\u548c\u5143-2\u5e74\u5ea6\u6d77\u90e8\u91ce\u6839\u9053\u8def(\u571f\u4f50\u7ba1\u5185)\u5730\u8cea\u8abf\u67fb\u696d\u52d9","client_name":"\u56fd\u571f\u4ea4\u901a\u7701\u56db\u56fd\u5730\u65b9\u6574\u5099\u5c40\u571f\u4f50\u56fd\u9053\u4e8b\u52d9\u6240","boring_xml_url":47,"boring_view_url":1,"soilmap_view_url":null,"soiltest_xml_url":0,"soiltest_view_url":0},{"id":323031,"code":"NGIC202000512-0006","latitude":"33.530772888889","longitude":"134.27845169444","source_code":"","project_name":"","survey_name":"\u4ee4\u548c\u5143-2\u5e74\u5ea6\u6d77\u90e8\u91ce\u6839\u9053\u8def(\u571f\u4f50\u7ba1\u5185)\u5730\u8cea\u8abf\u67fb\u696d\u52d9","client_name":"\u56fd\u571f\u4ea4\u901a\u7701\u56db\u56fd\u5730\u65b9\u6574\u5099\u5c40\u571f\u4f50\u56fd\u9053\u4e8b\u52d9\u6240","boring_xml_url":47,"boring_view_url":1,"soilmap_view_url":null,"soiltest_xml_url":0,"soiltest_view_url":0},{"id":323030,"code":"NGIC202000512-0005","latitude":"33.540612138889","longitude":"134.28299433333","source_code":"","project_name":"","survey_name":"\u4ee4\u548c\u5143-2\u5e74\u5ea6\u6d77\u90e8\u91ce\u6839\u9053\u8def(\u571f\u4f50\u7ba1\u5185)\u5730\u8cea\u8abf\u67fb\u696d\u52d9","client_name":"\u56fd\u571f\u4ea4\u901a\u7701\u56db\u56fd\u5730\u65b9\u6574\u5099\u5c40\u571f\u4f50\u56fd\u9053\u4e8b\u52d9\u6240","boring_xml_url":47,"boring_view_url":1,"soilmap_view_url":null,"soiltest_xml_url":0,"soiltest_view_url":0},{"id":323029,"code":"NGIC202000512-0004","latitude":"33.541461388889","longitude":"134.283656","source_code":"","project_name":"","survey_name":"\u4ee4\u548c\u5143-2\u5e74\u5ea6\u6d77\u90e8\u91ce\u6839\u9053\u8def(\u571f\u4f50\u7ba1\u5185)\u5730\u8cea\u8abf\u67fb\u696d\u52d9","client_name":"\u56fd\u571f\u4ea4\u901a\u7701\u56db\u56fd\u5730\u65b9\u6574\u5099\u5c40\u571f\u4f50\u56fd\u9053\u4e8b\u52d9\u6240","boring_xml_url":47,"boring_view_url":1,"soilmap_view_url":null,"soiltest_xml_url":0,"soiltest_view_url":0},{"id":323028,"code":"NGIC202000512-0003","latitude":"33.545363166667","longitude":"134.28507511111","source_code":"","project_name":"","survey_name":"\u4ee4\u548c\u5143-2\u5e74\u5ea6\u6d77\u90e8\u91ce\u6839\u9053\u8def(\u571f\u4f50\u7ba1\u5185)\u5730\u8cea\u8abf\u67fb\u696d\u52d9","client_name":"\u56fd\u571f\u4ea4\u901a\u7701\u56db\u56fd\u5730\u65b9\u6574\u5099\u5c40\u571f\u4f50\u56fd\u9053\u4e8b\u52d9\u6240","boring_xml_url":47,"boring_view_url":1,"soilmap_view_url":null,"soiltest_xml_url":0,"soiltest_view_url":0},{"id":323027,"code":"NGIC202000512-0002","latitude":"33.552909166667","longitude":"134.28712513889","source_code":"","project_name":"","survey_name":"\u4ee4\u548c\u5143-2\u5e74\u5ea6\u6d77\u90e8\u91ce\u6839\u9053\u8def(\u571f\u4f50\u7ba1\u5185)\u5730\u8cea\u8abf\u67fb\u696d\u52d9","client_name":"\u56fd\u571f\u4ea4\u901a\u7701\u56db\u56fd\u5730\u65b9\u6574\u5099\u5c40\u571f\u4f50\u56fd\u9053\u4e8b\u52d9\u6240","boring_xml_url":47,"boring_view_url":1,"soilmap_view_url":null,"soiltest_xml_url":0,"soiltest_view_url":0},{"id":323026,"code":"NGIC202000512-0001","latitude":"33.554213305556","longitude":"134.28756066667","source_code":"","project_name":"","survey_name":"\u4ee4\u548c\u5143-2\u5e74\u5ea6\u6d77\u90e8\u91ce\u6839\u9053\u8def(\u571f\u4f50\u7ba1\u5185)\u5730\u8cea\u8abf\u67fb\u696d\u52d9","client_name":"\u56fd\u571f\u4ea4\u901a\u7701\u56db\u56fd\u5730\u65b9\u6574\u5099\u5c40\u571f\u4f50\u56fd\u9053\u4e8b\u52d9\u6240","boring_xml_url":47,"boring_view_url":1,"soilmap_view_url":null,"soiltest_xml_url":0,"soiltest_view_url":0},{"id":323002,"code":"NGIC202000502-0017","latitude":"39.038046861111","longitude":"140.71745625","source_code":"","project_name":"","survey_name":"\u5e73\u621031\u5e74\u5ea6\u6210\u702c\u30c0\u30e0\u5824\u4f53\u88dc\u8db3\u8a2d\u8a08\u696d\u52d9","client_name":"\u56fd\u571f\u4ea4\u901a\u7701\u6771\u5317\u5730\u65b9\u6574\u5099\u5c40\u6210\u702c\u30c0\u30e0\u5de5\u4e8b\u4e8b\u52d9\u6240","boring_xml_url":47,"boring_view_url":1,"soilmap_view_url":null,"soiltest_xml_url":0,"soiltest_view_url":0},{"id":323001,"code":"NGIC202000502-0016","latitude":"39.038052777778","longitude":"140.71763611111","source_code":"","project_name":"","survey_name":"\u5e73\u621031\u5e74\u5ea6\u6210\u702c\u30c0\u30e0\u5824\u4f53\u88dc\u8db3\u8a2d\u8a08\u696d\u52d9","client_name":"\u56fd\u571f\u4ea4\u901a\u7701\u6771\u5317\u5730\u65b9\u6574\u5099\u5c40\u6210\u702c\u30c0\u30e0\u5de5\u4e8b\u4e8b\u52d9\u6240","boring_xml_url":47,"boring_view_url":1,"soilmap_view_url":null,"soiltest_xml_url":0,"soiltest_view_url":0},{"id":323000,"code":"NGIC202000502-0015","latitude":"39.038052777778","longitude":"140.71763611111","source_code":"","project_name":"","survey_name":"\u5e73\u621031\u5e74\u5ea6\u6210\u702c\u30c0\u30e0\u5824\u4f53\u88dc\u8db3\u8a2d\u8a08\u696d\u52d9","client_name":"\u56fd\u571f\u4ea4\u901a\u7701\u6771\u5317\u5730\u65b9\u6574\u5099\u5c40\u6210\u702c\u30c0\u30e0\u5de5\u4e8b\u4e8b\u52d9\u6240","boring_xml_url":47,"boring_view_url":1,"soilmap_view_url":null,"soiltest_xml_url":0,"soiltest_view_url":0},{"id":322999,"code":"NGIC202000502-0014","latitude":"39.037866666667","longitude":"140.71746666667","source_code":"","project_name":"","survey_name":"\u5e73\u621031\u5e74\u5ea6\u6210\u702c\u30c0\u30e0\u5824\u4f53\u88dc\u8db3\u8a2d\u8a08\u696d\u52d9","client_name":"\u56fd\u571f\u4ea4\u901a\u7701\u6771\u5317\u5730\u65b9\u6574\u5099\u5c40\u6210\u702c\u30c0\u30e0\u5de5\u4e8b\u4e8b\u52d9\u6240","boring_xml_url":47,"boring_view_url":1,"soilmap_view_url":null,"soiltest_xml_url":0,"soiltest_view_url":0},{"id":322998,"code":"NGIC202000502-0013","latitude":"39.037872222222","longitude":"140.71764722222","source_code":"","project_name":"","survey_name":"\u5e73\u621031\u5e74\u5ea6\u6210\u702c\u30c0\u30e0\u5824\u4f53\u88dc\u8db3\u8a2d\u8a08\u696d\u52d9","client_name":"\u56fd\u571f\u4ea4\u901a\u7701\u6771\u5317\u5730\u65b9\u6574\u5099\u5c40\u6210\u702c\u30c0\u30e0\u5de5\u4e8b\u4e8b\u52d9\u6240","boring_xml_url":47,"boring_view_url":1,"soilmap_view_url":null,"soiltest_xml_url":0,"soiltest_view_url":0},{"id":322997,"code":"NGIC202000502-0012","latitude":"39.037872222222","longitude":"140.71764722222","source_code":"","project_name":"","survey_name":"\u5e73\u621031\u5e74\u5ea6\u6210\u702c\u30c0\u30e0\u5824\u4f53\u88dc\u8db3\u8a2d\u8a08\u696d\u52d9","client_name":"\u56fd\u571f\u4ea4\u901a\u7701\u6771\u5317\u5730\u65b9\u6574\u5099\u5c40\u6210\u702c\u30c0\u30e0\u5de5\u4e8b\u4e8b\u52d9\u6240","boring_xml_url":47,"boring_view_url":1,"soilmap_view_url":null,"soiltest_xml_url":0,"soiltest_view_url":0}]}}