{"header":{"xyz":{"source":[],"mosaic":false},"page":2155,"raw":{"soiltest_result":"0","bbox":"57.598333,109.544722,1.933333,163.806111","page":"2155"},"conditions":{"soiltest_result":0,"north":57.598333,"west":109.544722,"south":1.933333,"east":163.806111},"success":true,"message":""},"data":{"meta":{"total":212844,"page":2155,"pages":7095,"count":30},"values":[{"id":306658,"code":"NGIC202000380-0010","latitude":"34.512730555556","longitude":"133.58249166667","source_code":"","project_name":"\u4e00\u822c\u56fd\u90532\u53f7\u7389\u5cf6\u30fb\u7b20\u5ca1\u9053\u8def","survey_name":"\u5e73\u621031\u5e74\u5ea6\u7389\u5cf6\u7b20\u5ca1\u9053\u8def\u5730\u8cea\u8abf\u67fb\u696d\u52d9","client_name":"\u56fd\u571f\u4ea4\u901a\u7701\u4e2d\u56fd\u5730\u65b9\u6574\u5099\u5c40\u5ca1\u5c71\u56fd\u9053\u4e8b\u52d9\u6240","boring_xml_url":47,"boring_view_url":1,"soilmap_view_url":null,"soiltest_xml_url":0,"soiltest_view_url":0},{"id":306657,"code":"NGIC202000380-0009","latitude":"34.512841666667","longitude":"133.582825","source_code":"","project_name":"\u4e00\u822c\u56fd\u90532\u53f7\u7389\u5cf6\u30fb\u7b20\u5ca1\u9053\u8def","survey_name":"\u5e73\u621031\u5e74\u5ea6\u7389\u5cf6\u7b20\u5ca1\u9053\u8def\u5730\u8cea\u8abf\u67fb\u696d\u52d9","client_name":"\u56fd\u571f\u4ea4\u901a\u7701\u4e2d\u56fd\u5730\u65b9\u6574\u5099\u5c40\u5ca1\u5c71\u56fd\u9053\u4e8b\u52d9\u6240","boring_xml_url":47,"boring_view_url":1,"soilmap_view_url":null,"soiltest_xml_url":0,"soiltest_view_url":0},{"id":306656,"code":"NGIC202000380-0008","latitude":"34.513158333333","longitude":"133.58344722222","source_code":"","project_name":"\u4e00\u822c\u56fd\u90532\u53f7\u7389\u5cf6\u30fb\u7b20\u5ca1\u9053\u8def","survey_name":"\u5e73\u621031\u5e74\u5ea6\u7389\u5cf6\u7b20\u5ca1\u9053\u8def\u5730\u8cea\u8abf\u67fb\u696d\u52d9","client_name":"\u56fd\u571f\u4ea4\u901a\u7701\u4e2d\u56fd\u5730\u65b9\u6574\u5099\u5c40\u5ca1\u5c71\u56fd\u9053\u4e8b\u52d9\u6240","boring_xml_url":47,"boring_view_url":1,"soilmap_view_url":null,"soiltest_xml_url":0,"soiltest_view_url":0},{"id":306655,"code":"NGIC202000380-0007","latitude":"34.515822222222","longitude":"133.58897777778","source_code":"","project_name":"\u4e00\u822c\u56fd\u90532\u53f7\u7389\u5cf6\u30fb\u7b20\u5ca1\u9053\u8def","survey_name":"\u5e73\u621031\u5e74\u5ea6\u7389\u5cf6\u7b20\u5ca1\u9053\u8def\u5730\u8cea\u8abf\u67fb\u696d\u52d9","client_name":"\u56fd\u571f\u4ea4\u901a\u7701\u4e2d\u56fd\u5730\u65b9\u6574\u5099\u5c40\u5ca1\u5c71\u56fd\u9053\u4e8b\u52d9\u6240","boring_xml_url":47,"boring_view_url":1,"soilmap_view_url":null,"soiltest_xml_url":0,"soiltest_view_url":0},{"id":306654,"code":"NGIC202000380-0006","latitude":"34.515863888889","longitude":"133.58911111111","source_code":"","project_name":"\u4e00\u822c\u56fd\u90532\u53f7\u7389\u5cf6\u30fb\u7b20\u5ca1\u9053\u8def","survey_name":"\u5e73\u621031\u5e74\u5ea6\u7389\u5cf6\u7b20\u5ca1\u9053\u8def\u5730\u8cea\u8abf\u67fb\u696d\u52d9","client_name":"\u56fd\u571f\u4ea4\u901a\u7701\u4e2d\u56fd\u5730\u65b9\u6574\u5099\u5c40\u5ca1\u5c71\u56fd\u9053\u4e8b\u52d9\u6240","boring_xml_url":47,"boring_view_url":1,"soilmap_view_url":null,"soiltest_xml_url":0,"soiltest_view_url":0},{"id":306653,"code":"NGIC202000380-0005","latitude":"34.515772222222","longitude":"133.58916111111","source_code":"","project_name":"\u4e00\u822c\u56fd\u90532\u53f7\u7389\u5cf6\u30fb\u7b20\u5ca1\u9053\u8def","survey_name":"\u5e73\u621031\u5e74\u5ea6\u7389\u5cf6\u7b20\u5ca1\u9053\u8def\u5730\u8cea\u8abf\u67fb\u696d\u52d9","client_name":"\u56fd\u571f\u4ea4\u901a\u7701\u4e2d\u56fd\u5730\u65b9\u6574\u5099\u5c40\u5ca1\u5c71\u56fd\u9053\u4e8b\u52d9\u6240","boring_xml_url":47,"boring_view_url":1,"soilmap_view_url":null,"soiltest_xml_url":0,"soiltest_view_url":0},{"id":306652,"code":"NGIC202000380-0004","latitude":"34.511077777778","longitude":"133.58002777778","source_code":"","project_name":"\u4e00\u822c\u56fd\u90532\u53f7\u7389\u5cf6\u30fb\u7b20\u5ca1\u9053\u8def","survey_name":"\u5e73\u621031\u5e74\u5ea6\u7389\u5cf6\u7b20\u5ca1\u9053\u8def\u5730\u8cea\u8abf\u67fb\u696d\u52d9","client_name":"\u56fd\u571f\u4ea4\u901a\u7701\u4e2d\u56fd\u5730\u65b9\u6574\u5099\u5c40\u5ca1\u5c71\u56fd\u9053\u4e8b\u52d9\u6240","boring_xml_url":47,"boring_view_url":1,"soilmap_view_url":null,"soiltest_xml_url":0,"soiltest_view_url":0},{"id":306651,"code":"NGIC202000380-0003","latitude":"34.511325","longitude":"133.58148333333","source_code":"","project_name":"\u4e00\u822c\u56fd\u90532\u53f7\u7389\u5cf6\u30fb\u7b20\u5ca1\u9053\u8def","survey_name":"\u5e73\u621031\u5e74\u5ea6\u7389\u5cf6\u7b20\u5ca1\u9053\u8def\u5730\u8cea\u8abf\u67fb\u696d\u52d9","client_name":"\u56fd\u571f\u4ea4\u901a\u7701\u4e2d\u56fd\u5730\u65b9\u6574\u5099\u5c40\u5ca1\u5c71\u56fd\u9053\u4e8b\u52d9\u6240","boring_xml_url":47,"boring_view_url":1,"soilmap_view_url":null,"soiltest_xml_url":0,"soiltest_view_url":0},{"id":306650,"code":"NGIC202000380-0002","latitude":"34.511733333333","longitude":"133.58110277778","source_code":"","project_name":"\u4e00\u822c\u56fd\u90532\u53f7\u7389\u5cf6\u30fb\u7b20\u5ca1\u9053\u8def","survey_name":"\u5e73\u621031\u5e74\u5ea6\u7389\u5cf6\u7b20\u5ca1\u9053\u8def\u5730\u8cea\u8abf\u67fb\u696d\u52d9","client_name":"\u56fd\u571f\u4ea4\u901a\u7701\u4e2d\u56fd\u5730\u65b9\u6574\u5099\u5c40\u5ca1\u5c71\u56fd\u9053\u4e8b\u52d9\u6240","boring_xml_url":47,"boring_view_url":1,"soilmap_view_url":null,"soiltest_xml_url":0,"soiltest_view_url":0},{"id":306649,"code":"NGIC202000380-0001","latitude":"34.511866666667","longitude":"133.58179722222","source_code":"","project_name":"\u4e00\u822c\u56fd\u90532\u53f7\u7389\u5cf6\u30fb\u7b20\u5ca1\u9053\u8def","survey_name":"\u5e73\u621031\u5e74\u5ea6\u7389\u5cf6\u7b20\u5ca1\u9053\u8def\u5730\u8cea\u8abf\u67fb\u696d\u52d9","client_name":"\u56fd\u571f\u4ea4\u901a\u7701\u4e2d\u56fd\u5730\u65b9\u6574\u5099\u5c40\u5ca1\u5c71\u56fd\u9053\u4e8b\u52d9\u6240","boring_xml_url":47,"boring_view_url":1,"soilmap_view_url":null,"soiltest_xml_url":0,"soiltest_view_url":0},{"id":306644,"code":"NGIC202000381-0034","latitude":"34.482558333333","longitude":"133.52935833333","source_code":"","project_name":"\u4e00\u822c\u56fd\u90532\u53f7\u7389\u5cf6\u30fb\u7b20\u5ca1\u9053\u8def","survey_name":"\u5e73\u621031\u5e74\u5ea6\u7389\u5cf6\u7b20\u5ca1\u9053\u8def\u5730\u8cea\u8abf\u67fb\u305d\u306e2\u696d\u52d9","client_name":"\u56fd\u571f\u4ea4\u901a\u7701\u4e2d\u56fd\u5730\u65b9\u6574\u5099\u5c40\u5ca1\u5c71\u56fd\u9053\u4e8b\u52d9\u6240","boring_xml_url":47,"boring_view_url":1,"soilmap_view_url":null,"soiltest_xml_url":47,"soiltest_view_url":47},{"id":306643,"code":"NGIC202000381-0033","latitude":"34.482691666667","longitude":"133.53020555556","source_code":"","project_name":"\u4e00\u822c\u56fd\u90532\u53f7\u7389\u5cf6\u30fb\u7b20\u5ca1\u9053\u8def","survey_name":"\u5e73\u621031\u5e74\u5ea6\u7389\u5cf6\u7b20\u5ca1\u9053\u8def\u5730\u8cea\u8abf\u67fb\u305d\u306e2\u696d\u52d9","client_name":"\u56fd\u571f\u4ea4\u901a\u7701\u4e2d\u56fd\u5730\u65b9\u6574\u5099\u5c40\u5ca1\u5c71\u56fd\u9053\u4e8b\u52d9\u6240","boring_xml_url":47,"boring_view_url":1,"soilmap_view_url":null,"soiltest_xml_url":0,"soiltest_view_url":0},{"id":306642,"code":"NGIC202000381-0032","latitude":"34.483727777778","longitude":"133.53291944444","source_code":"","project_name":"\u4e00\u822c\u56fd\u90532\u53f7\u7389\u5cf6\u30fb\u7b20\u5ca1\u9053\u8def","survey_name":"\u5e73\u621031\u5e74\u5ea6\u7389\u5cf6\u7b20\u5ca1\u9053\u8def\u5730\u8cea\u8abf\u67fb\u305d\u306e2\u696d\u52d9","client_name":"\u56fd\u571f\u4ea4\u901a\u7701\u4e2d\u56fd\u5730\u65b9\u6574\u5099\u5c40\u5ca1\u5c71\u56fd\u9053\u4e8b\u52d9\u6240","boring_xml_url":47,"boring_view_url":1,"soilmap_view_url":null,"soiltest_xml_url":0,"soiltest_view_url":0},{"id":306641,"code":"NGIC202000381-0031","latitude":"34.498830555556","longitude":"133.55668888889","source_code":"","project_name":"\u4e00\u822c\u56fd\u90532\u53f7\u7389\u5cf6\u30fb\u7b20\u5ca1\u9053\u8def","survey_name":"\u5e73\u621031\u5e74\u5ea6\u7389\u5cf6\u7b20\u5ca1\u9053\u8def\u5730\u8cea\u8abf\u67fb\u305d\u306e2\u696d\u52d9","client_name":"\u56fd\u571f\u4ea4\u901a\u7701\u4e2d\u56fd\u5730\u65b9\u6574\u5099\u5c40\u5ca1\u5c71\u56fd\u9053\u4e8b\u52d9\u6240","boring_xml_url":47,"boring_view_url":1,"soilmap_view_url":null,"soiltest_xml_url":0,"soiltest_view_url":0},{"id":306640,"code":"NGIC202000381-0030","latitude":"34.499119444444","longitude":"133.55669722222","source_code":"","project_name":"\u4e00\u822c\u56fd\u90532\u53f7\u7389\u5cf6\u30fb\u7b20\u5ca1\u9053\u8def","survey_name":"\u5e73\u621031\u5e74\u5ea6\u7389\u5cf6\u7b20\u5ca1\u9053\u8def\u5730\u8cea\u8abf\u67fb\u305d\u306e2\u696d\u52d9","client_name":"\u56fd\u571f\u4ea4\u901a\u7701\u4e2d\u56fd\u5730\u65b9\u6574\u5099\u5c40\u5ca1\u5c71\u56fd\u9053\u4e8b\u52d9\u6240","boring_xml_url":47,"boring_view_url":1,"soilmap_view_url":null,"soiltest_xml_url":0,"soiltest_view_url":0},{"id":306639,"code":"NGIC202000381-0029","latitude":"34.499572222222","longitude":"133.55925555556","source_code":"","project_name":"\u4e00\u822c\u56fd\u90532\u53f7\u7389\u5cf6\u30fb\u7b20\u5ca1\u9053\u8def","survey_name":"\u5e73\u621031\u5e74\u5ea6\u7389\u5cf6\u7b20\u5ca1\u9053\u8def\u5730\u8cea\u8abf\u67fb\u305d\u306e2\u696d\u52d9","client_name":"\u56fd\u571f\u4ea4\u901a\u7701\u4e2d\u56fd\u5730\u65b9\u6574\u5099\u5c40\u5ca1\u5c71\u56fd\u9053\u4e8b\u52d9\u6240","boring_xml_url":47,"boring_view_url":1,"soilmap_view_url":null,"soiltest_xml_url":0,"soiltest_view_url":0},{"id":306638,"code":"NGIC202000381-0028","latitude":"34.500130555556","longitude":"133.55906388889","source_code":"","project_name":"\u4e00\u822c\u56fd\u90532\u53f7\u7389\u5cf6\u30fb\u7b20\u5ca1\u9053\u8def","survey_name":"\u5e73\u621031\u5e74\u5ea6\u7389\u5cf6\u7b20\u5ca1\u9053\u8def\u5730\u8cea\u8abf\u67fb\u305d\u306e2\u696d\u52d9","client_name":"\u56fd\u571f\u4ea4\u901a\u7701\u4e2d\u56fd\u5730\u65b9\u6574\u5099\u5c40\u5ca1\u5c71\u56fd\u9053\u4e8b\u52d9\u6240","boring_xml_url":47,"boring_view_url":1,"soilmap_view_url":null,"soiltest_xml_url":0,"soiltest_view_url":0},{"id":306637,"code":"NGIC202000381-0027","latitude":"34.499763888889","longitude":"133.55928055556","source_code":"","project_name":"\u4e00\u822c\u56fd\u90532\u53f7\u7389\u5cf6\u30fb\u7b20\u5ca1\u9053\u8def","survey_name":"\u5e73\u621031\u5e74\u5ea6\u7389\u5cf6\u7b20\u5ca1\u9053\u8def\u5730\u8cea\u8abf\u67fb\u305d\u306e2\u696d\u52d9","client_name":"\u56fd\u571f\u4ea4\u901a\u7701\u4e2d\u56fd\u5730\u65b9\u6574\u5099\u5c40\u5ca1\u5c71\u56fd\u9053\u4e8b\u52d9\u6240","boring_xml_url":47,"boring_view_url":1,"soilmap_view_url":null,"soiltest_xml_url":0,"soiltest_view_url":0},{"id":306636,"code":"NGIC202000381-0026","latitude":"34.499813888889","longitude":"133.55958333333","source_code":"","project_name":"\u4e00\u822c\u56fd\u90532\u53f7\u7389\u5cf6\u30fb\u7b20\u5ca1\u9053\u8def","survey_name":"\u5e73\u621031\u5e74\u5ea6\u7389\u5cf6\u7b20\u5ca1\u9053\u8def\u5730\u8cea\u8abf\u67fb\u305d\u306e2\u696d\u52d9","client_name":"\u56fd\u571f\u4ea4\u901a\u7701\u4e2d\u56fd\u5730\u65b9\u6574\u5099\u5c40\u5ca1\u5c71\u56fd\u9053\u4e8b\u52d9\u6240","boring_xml_url":47,"boring_view_url":1,"soilmap_view_url":null,"soiltest_xml_url":0,"soiltest_view_url":0},{"id":306635,"code":"NGIC202000381-0025","latitude":"34.499880555556","longitude":"133.55989722222","source_code":"","project_name":"\u4e00\u822c\u56fd\u90532\u53f7\u7389\u5cf6\u30fb\u7b20\u5ca1\u9053\u8def","survey_name":"\u5e73\u621031\u5e74\u5ea6\u7389\u5cf6\u7b20\u5ca1\u9053\u8def\u5730\u8cea\u8abf\u67fb\u305d\u306e2\u696d\u52d9","client_name":"\u56fd\u571f\u4ea4\u901a\u7701\u4e2d\u56fd\u5730\u65b9\u6574\u5099\u5c40\u5ca1\u5c71\u56fd\u9053\u4e8b\u52d9\u6240","boring_xml_url":47,"boring_view_url":1,"soilmap_view_url":null,"soiltest_xml_url":0,"soiltest_view_url":0},{"id":306634,"code":"NGIC202000381-0024","latitude":"34.499983333333","longitude":"133.56008611111","source_code":"","project_name":"\u4e00\u822c\u56fd\u90532\u53f7\u7389\u5cf6\u30fb\u7b20\u5ca1\u9053\u8def","survey_name":"\u5e73\u621031\u5e74\u5ea6\u7389\u5cf6\u7b20\u5ca1\u9053\u8def\u5730\u8cea\u8abf\u67fb\u305d\u306e2\u696d\u52d9","client_name":"\u56fd\u571f\u4ea4\u901a\u7701\u4e2d\u56fd\u5730\u65b9\u6574\u5099\u5c40\u5ca1\u5c71\u56fd\u9053\u4e8b\u52d9\u6240","boring_xml_url":47,"boring_view_url":1,"soilmap_view_url":null,"soiltest_xml_url":0,"soiltest_view_url":0},{"id":306633,"code":"NGIC202000381-0023","latitude":"34.50035","longitude":"133.56071666667","source_code":"","project_name":"\u4e00\u822c\u56fd\u90532\u53f7\u7389\u5cf6\u30fb\u7b20\u5ca1\u9053\u8def","survey_name":"\u5e73\u621031\u5e74\u5ea6\u7389\u5cf6\u7b20\u5ca1\u9053\u8def\u5730\u8cea\u8abf\u67fb\u305d\u306e2\u696d\u52d9","client_name":"\u56fd\u571f\u4ea4\u901a\u7701\u4e2d\u56fd\u5730\u65b9\u6574\u5099\u5c40\u5ca1\u5c71\u56fd\u9053\u4e8b\u52d9\u6240","boring_xml_url":47,"boring_view_url":1,"soilmap_view_url":null,"soiltest_xml_url":0,"soiltest_view_url":0},{"id":306632,"code":"NGIC202000381-0022","latitude":"34.505319444444","longitude":"133.56951111111","source_code":"","project_name":"\u4e00\u822c\u56fd\u90532\u53f7\u7389\u5cf6\u30fb\u7b20\u5ca1\u9053\u8def","survey_name":"\u5e73\u621031\u5e74\u5ea6\u7389\u5cf6\u7b20\u5ca1\u9053\u8def\u5730\u8cea\u8abf\u67fb\u305d\u306e2\u696d\u52d9","client_name":"\u56fd\u571f\u4ea4\u901a\u7701\u4e2d\u56fd\u5730\u65b9\u6574\u5099\u5c40\u5ca1\u5c71\u56fd\u9053\u4e8b\u52d9\u6240","boring_xml_url":47,"boring_view_url":1,"soilmap_view_url":null,"soiltest_xml_url":0,"soiltest_view_url":0},{"id":306631,"code":"NGIC202000381-0021","latitude":"34.5054","longitude":"133.57013611111","source_code":"","project_name":"\u4e00\u822c\u56fd\u90532\u53f7\u7389\u5cf6\u30fb\u7b20\u5ca1\u9053\u8def","survey_name":"\u5e73\u621031\u5e74\u5ea6\u7389\u5cf6\u7b20\u5ca1\u9053\u8def\u5730\u8cea\u8abf\u67fb\u305d\u306e2\u696d\u52d9","client_name":"\u56fd\u571f\u4ea4\u901a\u7701\u4e2d\u56fd\u5730\u65b9\u6574\u5099\u5c40\u5ca1\u5c71\u56fd\u9053\u4e8b\u52d9\u6240","boring_xml_url":47,"boring_view_url":1,"soilmap_view_url":null,"soiltest_xml_url":0,"soiltest_view_url":0},{"id":306630,"code":"NGIC202000381-0020","latitude":"34.500863888889","longitude":"133.560575","source_code":"","project_name":"\u4e00\u822c\u56fd\u90532\u53f7\u7389\u5cf6\u30fb\u7b20\u5ca1\u9053\u8def","survey_name":"\u5e73\u621031\u5e74\u5ea6\u7389\u5cf6\u7b20\u5ca1\u9053\u8def\u5730\u8cea\u8abf\u67fb\u305d\u306e2\u696d\u52d9","client_name":"\u56fd\u571f\u4ea4\u901a\u7701\u4e2d\u56fd\u5730\u65b9\u6574\u5099\u5c40\u5ca1\u5c71\u56fd\u9053\u4e8b\u52d9\u6240","boring_xml_url":47,"boring_view_url":1,"soilmap_view_url":null,"soiltest_xml_url":0,"soiltest_view_url":0},{"id":306629,"code":"NGIC202000381-0019","latitude":"34.501644444444","longitude":"133.56147777778","source_code":"","project_name":"\u4e00\u822c\u56fd\u90532\u53f7\u7389\u5cf6\u30fb\u7b20\u5ca1\u9053\u8def","survey_name":"\u5e73\u621031\u5e74\u5ea6\u7389\u5cf6\u7b20\u5ca1\u9053\u8def\u5730\u8cea\u8abf\u67fb\u305d\u306e2\u696d\u52d9","client_name":"\u56fd\u571f\u4ea4\u901a\u7701\u4e2d\u56fd\u5730\u65b9\u6574\u5099\u5c40\u5ca1\u5c71\u56fd\u9053\u4e8b\u52d9\u6240","boring_xml_url":47,"boring_view_url":1,"soilmap_view_url":null,"soiltest_xml_url":0,"soiltest_view_url":0},{"id":306628,"code":"NGIC202000381-0018","latitude":"34.502027777778","longitude":"133.56193888889","source_code":"","project_name":"\u4e00\u822c\u56fd\u90532\u53f7\u7389\u5cf6\u30fb\u7b20\u5ca1\u9053\u8def","survey_name":"\u5e73\u621031\u5e74\u5ea6\u7389\u5cf6\u7b20\u5ca1\u9053\u8def\u5730\u8cea\u8abf\u67fb\u305d\u306e2\u696d\u52d9","client_name":"\u56fd\u571f\u4ea4\u901a\u7701\u4e2d\u56fd\u5730\u65b9\u6574\u5099\u5c40\u5ca1\u5c71\u56fd\u9053\u4e8b\u52d9\u6240","boring_xml_url":47,"boring_view_url":1,"soilmap_view_url":null,"soiltest_xml_url":0,"soiltest_view_url":0},{"id":306627,"code":"NGIC202000381-0017","latitude":"34.500233333333","longitude":"133.55948611111","source_code":"","project_name":"\u4e00\u822c\u56fd\u90532\u53f7\u7389\u5cf6\u30fb\u7b20\u5ca1\u9053\u8def","survey_name":"\u5e73\u621031\u5e74\u5ea6\u7389\u5cf6\u7b20\u5ca1\u9053\u8def\u5730\u8cea\u8abf\u67fb\u305d\u306e2\u696d\u52d9","client_name":"\u56fd\u571f\u4ea4\u901a\u7701\u4e2d\u56fd\u5730\u65b9\u6574\u5099\u5c40\u5ca1\u5c71\u56fd\u9053\u4e8b\u52d9\u6240","boring_xml_url":47,"boring_view_url":1,"soilmap_view_url":null,"soiltest_xml_url":0,"soiltest_view_url":0},{"id":306626,"code":"NGIC202000381-0016","latitude":"34.500355555556","longitude":"133.55955833333","source_code":"","project_name":"\u4e00\u822c\u56fd\u90532\u53f7\u7389\u5cf6\u30fb\u7b20\u5ca1\u9053\u8def","survey_name":"\u5e73\u621031\u5e74\u5ea6\u7389\u5cf6\u7b20\u5ca1\u9053\u8def\u5730\u8cea\u8abf\u67fb\u305d\u306e2\u696d\u52d9","client_name":"\u56fd\u571f\u4ea4\u901a\u7701\u4e2d\u56fd\u5730\u65b9\u6574\u5099\u5c40\u5ca1\u5c71\u56fd\u9053\u4e8b\u52d9\u6240","boring_xml_url":47,"boring_view_url":1,"soilmap_view_url":null,"soiltest_xml_url":47,"soiltest_view_url":47},{"id":306625,"code":"NGIC202000381-0015","latitude":"34.500186111111","longitude":"133.55929166667","source_code":"","project_name":"\u4e00\u822c\u56fd\u90532\u53f7\u7389\u5cf6\u30fb\u7b20\u5ca1\u9053\u8def","survey_name":"\u5e73\u621031\u5e74\u5ea6\u7389\u5cf6\u7b20\u5ca1\u9053\u8def\u5730\u8cea\u8abf\u67fb\u305d\u306e2\u696d\u52d9","client_name":"\u56fd\u571f\u4ea4\u901a\u7701\u4e2d\u56fd\u5730\u65b9\u6574\u5099\u5c40\u5ca1\u5c71\u56fd\u9053\u4e8b\u52d9\u6240","boring_xml_url":47,"boring_view_url":1,"soilmap_view_url":null,"soiltest_xml_url":47,"soiltest_view_url":47}]}}