{"header":{"xyz":{"source":[],"mosaic":false},"page":2167,"raw":{"soiltest_result":"0","bbox":"57.598333,109.544722,1.933333,163.806111","page":"2167"},"conditions":{"soiltest_result":0,"north":57.598333,"west":109.544722,"south":1.933333,"east":163.806111},"success":true,"message":""},"data":{"meta":{"total":212844,"page":2167,"pages":7095,"count":30},"values":[{"id":290039,"code":"NGIC202000199-0004","latitude":"37.769424777778","longitude":"140.58723497222","source_code":"","project_name":"\u6771\u5317\u4e2d\u592e\u81ea\u52d5\u8eca\u9053\u4e0b\u5c0f\u56fd\u5730\u533a\u9053\u8def\u6539\u826f\u5de5\u4e8b","survey_name":"\u6771\u5317\u4e2d\u592e\u81ea\u52d5\u8eca\u9053\u4e0b\u5c0f\u56fd\u5730\u533a\u9053\u8def\u6539\u826f\u5de5\u4e8b","client_name":"\u56fd\u571f\u4ea4\u901a\u7701\u6771\u5317\u5730\u65b9\u6574\u5099\u5c40\u798f\u5cf6\u6cb3\u5ddd\u56fd\u9053\u4e8b\u52d9\u6240","boring_xml_url":47,"boring_view_url":1,"soilmap_view_url":null,"soiltest_xml_url":0,"soiltest_view_url":0},{"id":290038,"code":"NGIC202000199-0003","latitude":"37.769423944444","longitude":"140.58723413889","source_code":"","project_name":"\u6771\u5317\u4e2d\u592e\u81ea\u52d5\u8eca\u9053\u4e0b\u5c0f\u56fd\u5730\u533a\u9053\u8def\u6539\u826f\u5de5\u4e8b","survey_name":"\u6771\u5317\u4e2d\u592e\u81ea\u52d5\u8eca\u9053\u4e0b\u5c0f\u56fd\u5730\u533a\u9053\u8def\u6539\u826f\u5de5\u4e8b","client_name":"\u56fd\u571f\u4ea4\u901a\u7701\u6771\u5317\u5730\u65b9\u6574\u5099\u5c40\u798f\u5cf6\u6cb3\u5ddd\u56fd\u9053\u4e8b\u52d9\u6240","boring_xml_url":47,"boring_view_url":1,"soilmap_view_url":null,"soiltest_xml_url":0,"soiltest_view_url":0},{"id":290037,"code":"NGIC202000199-0002","latitude":"37.769375583333","longitude":"140.58713416667","source_code":"","project_name":"\u6771\u5317\u4e2d\u592e\u81ea\u52d5\u8eca\u9053\u4e0b\u5c0f\u56fd\u5730\u533a\u9053\u8def\u6539\u826f\u5de5\u4e8b","survey_name":"\u6771\u5317\u4e2d\u592e\u81ea\u52d5\u8eca\u9053\u4e0b\u5c0f\u56fd\u5730\u533a\u9053\u8def\u6539\u826f\u5de5\u4e8b","client_name":"\u56fd\u571f\u4ea4\u901a\u7701\u6771\u5317\u5730\u65b9\u6574\u5099\u5c40\u798f\u5cf6\u6cb3\u5ddd\u56fd\u9053\u4e8b\u52d9\u6240","boring_xml_url":47,"boring_view_url":1,"soilmap_view_url":null,"soiltest_xml_url":0,"soiltest_view_url":0},{"id":290036,"code":"NGIC202000199-0001","latitude":"37.76937475","longitude":"140.58713333333","source_code":"","project_name":"\u6771\u5317\u4e2d\u592e\u81ea\u52d5\u8eca\u9053\u4e0b\u5c0f\u56fd\u5730\u533a\u9053\u8def\u6539\u826f\u5de5\u4e8b","survey_name":"\u6771\u5317\u4e2d\u592e\u81ea\u52d5\u8eca\u9053\u4e0b\u5c0f\u56fd\u5730\u533a\u9053\u8def\u6539\u826f\u5de5\u4e8b","client_name":"\u56fd\u571f\u4ea4\u901a\u7701\u6771\u5317\u5730\u65b9\u6574\u5099\u5c40\u798f\u5cf6\u6cb3\u5ddd\u56fd\u9053\u4e8b\u52d9\u6240","boring_xml_url":47,"boring_view_url":1,"soilmap_view_url":null,"soiltest_xml_url":0,"soiltest_view_url":0},{"id":290010,"code":"NGIC202000193-0009","latitude":"38.524611111111","longitude":"141.35636111111","source_code":"","project_name":"","survey_name":"\u5317\u4e0a\u5ddd\u4e0b\u6d41\u4e09\u8f2a\u7530\u5730\u533a\u5824\u9632\u8a2d\u8a08\u696d\u52d9","client_name":"\u56fd\u571f\u4ea4\u901a\u7701\u6771\u5317\u5730\u65b9\u6574\u5099\u5c40\u5317\u4e0a\u5ddd\u4e0b\u6d41\u6cb3\u5ddd\u4e8b\u52d9\u6240","boring_xml_url":47,"boring_view_url":1,"soilmap_view_url":null,"soiltest_xml_url":47,"soiltest_view_url":47},{"id":290009,"code":"NGIC202000193-0008","latitude":"38.525","longitude":"141.35633333333","source_code":"","project_name":"","survey_name":"\u5317\u4e0a\u5ddd\u4e0b\u6d41\u4e09\u8f2a\u7530\u5730\u533a\u5824\u9632\u8a2d\u8a08\u696d\u52d9","client_name":"\u56fd\u571f\u4ea4\u901a\u7701\u6771\u5317\u5730\u65b9\u6574\u5099\u5c40\u5317\u4e0a\u5ddd\u4e0b\u6d41\u6cb3\u5ddd\u4e8b\u52d9\u6240","boring_xml_url":47,"boring_view_url":1,"soilmap_view_url":null,"soiltest_xml_url":47,"soiltest_view_url":47},{"id":290008,"code":"NGIC202000193-0007","latitude":"38.524833333333","longitude":"141.35633333333","source_code":"","project_name":"","survey_name":"\u5317\u4e0a\u5ddd\u4e0b\u6d41\u4e09\u8f2a\u7530\u5730\u533a\u5824\u9632\u8a2d\u8a08\u696d\u52d9","client_name":"\u56fd\u571f\u4ea4\u901a\u7701\u6771\u5317\u5730\u65b9\u6574\u5099\u5c40\u5317\u4e0a\u5ddd\u4e0b\u6d41\u6cb3\u5ddd\u4e8b\u52d9\u6240","boring_xml_url":47,"boring_view_url":1,"soilmap_view_url":null,"soiltest_xml_url":47,"soiltest_view_url":47},{"id":290007,"code":"NGIC202000193-0006","latitude":"38.525027777778","longitude":"141.36361111111","source_code":"","project_name":"","survey_name":"\u5317\u4e0a\u5ddd\u4e0b\u6d41\u4e09\u8f2a\u7530\u5730\u533a\u5824\u9632\u8a2d\u8a08\u696d\u52d9","client_name":"\u56fd\u571f\u4ea4\u901a\u7701\u6771\u5317\u5730\u65b9\u6574\u5099\u5c40\u5317\u4e0a\u5ddd\u4e0b\u6d41\u6cb3\u5ddd\u4e8b\u52d9\u6240","boring_xml_url":47,"boring_view_url":1,"soilmap_view_url":null,"soiltest_xml_url":47,"soiltest_view_url":47},{"id":290006,"code":"NGIC202000193-0005","latitude":"38.525388888889","longitude":"141.36355555556","source_code":"","project_name":"","survey_name":"\u5317\u4e0a\u5ddd\u4e0b\u6d41\u4e09\u8f2a\u7530\u5730\u533a\u5824\u9632\u8a2d\u8a08\u696d\u52d9","client_name":"\u56fd\u571f\u4ea4\u901a\u7701\u6771\u5317\u5730\u65b9\u6574\u5099\u5c40\u5317\u4e0a\u5ddd\u4e0b\u6d41\u6cb3\u5ddd\u4e8b\u52d9\u6240","boring_xml_url":47,"boring_view_url":1,"soilmap_view_url":null,"soiltest_xml_url":47,"soiltest_view_url":47},{"id":290005,"code":"NGIC202000193-0004","latitude":"38.525222222222","longitude":"141.36358333333","source_code":"","project_name":"","survey_name":"\u5317\u4e0a\u5ddd\u4e0b\u6d41\u4e09\u8f2a\u7530\u5730\u533a\u5824\u9632\u8a2d\u8a08\u696d\u52d9","client_name":"\u56fd\u571f\u4ea4\u901a\u7701\u6771\u5317\u5730\u65b9\u6574\u5099\u5c40\u5317\u4e0a\u5ddd\u4e0b\u6d41\u6cb3\u5ddd\u4e8b\u52d9\u6240","boring_xml_url":47,"boring_view_url":1,"soilmap_view_url":null,"soiltest_xml_url":47,"soiltest_view_url":47},{"id":290004,"code":"NGIC202000193-0003","latitude":"38.52625","longitude":"141.36836111111","source_code":"","project_name":"","survey_name":"\u5317\u4e0a\u5ddd\u4e0b\u6d41\u4e09\u8f2a\u7530\u5730\u533a\u5824\u9632\u8a2d\u8a08\u696d\u52d9","client_name":"\u56fd\u571f\u4ea4\u901a\u7701\u6771\u5317\u5730\u65b9\u6574\u5099\u5c40\u5317\u4e0a\u5ddd\u4e0b\u6d41\u6cb3\u5ddd\u4e8b\u52d9\u6240","boring_xml_url":47,"boring_view_url":1,"soilmap_view_url":null,"soiltest_xml_url":47,"soiltest_view_url":47},{"id":290003,"code":"NGIC202000193-0002","latitude":"38.526555555556","longitude":"141.36819444444","source_code":"","project_name":"","survey_name":"\u5317\u4e0a\u5ddd\u4e0b\u6d41\u4e09\u8f2a\u7530\u5730\u533a\u5824\u9632\u8a2d\u8a08\u696d\u52d9","client_name":"\u56fd\u571f\u4ea4\u901a\u7701\u6771\u5317\u5730\u65b9\u6574\u5099\u5c40\u5317\u4e0a\u5ddd\u4e0b\u6d41\u6cb3\u5ddd\u4e8b\u52d9\u6240","boring_xml_url":47,"boring_view_url":1,"soilmap_view_url":null,"soiltest_xml_url":47,"soiltest_view_url":47},{"id":290002,"code":"NGIC202000193-0001","latitude":"38.526416666667","longitude":"141.36830555556","source_code":"","project_name":"","survey_name":"\u5317\u4e0a\u5ddd\u4e0b\u6d41\u4e09\u8f2a\u7530\u5730\u533a\u5824\u9632\u8a2d\u8a08\u696d\u52d9","client_name":"\u56fd\u571f\u4ea4\u901a\u7701\u6771\u5317\u5730\u65b9\u6574\u5099\u5c40\u5317\u4e0a\u5ddd\u4e0b\u6d41\u6cb3\u5ddd\u4e8b\u52d9\u6240","boring_xml_url":47,"boring_view_url":1,"soilmap_view_url":null,"soiltest_xml_url":47,"soiltest_view_url":47},{"id":289982,"code":"NGIC202000183-0008","latitude":"34.641588888889","longitude":"136.47687777778","source_code":"","project_name":"\u96f2\u51fa\u5ddd\u51fa\u5f35\u6240\u7ba1\u5185","survey_name":"\u4ee4\u548c\u5143\u5e74\u5ea6\u96f2\u51fa\u5ddd\u5730\u8cea\u8abf\u67fb\u696d\u52d9","client_name":"\u56fd\u571f\u4ea4\u901a\u7701\u4e2d\u90e8\u5730\u65b9\u6574\u5099\u5c40\u4e09\u91cd\u6cb3\u5ddd\u56fd\u9053\u4e8b\u52d9\u6240","boring_xml_url":47,"boring_view_url":1,"soilmap_view_url":null,"soiltest_xml_url":47,"soiltest_view_url":47},{"id":289981,"code":"NGIC202000183-0007","latitude":"34.641513888889","longitude":"136.47700277778","source_code":"","project_name":"\u96f2\u51fa\u5ddd\u51fa\u5f35\u6240\u7ba1\u5185","survey_name":"\u4ee4\u548c\u5143\u5e74\u5ea6\u96f2\u51fa\u5ddd\u5730\u8cea\u8abf\u67fb\u696d\u52d9","client_name":"\u56fd\u571f\u4ea4\u901a\u7701\u4e2d\u90e8\u5730\u65b9\u6574\u5099\u5c40\u4e09\u91cd\u6cb3\u5ddd\u56fd\u9053\u4e8b\u52d9\u6240","boring_xml_url":47,"boring_view_url":1,"soilmap_view_url":null,"soiltest_xml_url":47,"soiltest_view_url":47},{"id":289980,"code":"NGIC202000183-0006","latitude":"34.641455555556","longitude":"136.4771","source_code":"","project_name":"\u96f2\u51fa\u5ddd\u51fa\u5f35\u6240\u7ba1\u5185","survey_name":"\u4ee4\u548c\u5143\u5e74\u5ea6\u96f2\u51fa\u5ddd\u5730\u8cea\u8abf\u67fb\u696d\u52d9","client_name":"\u56fd\u571f\u4ea4\u901a\u7701\u4e2d\u90e8\u5730\u65b9\u6574\u5099\u5c40\u4e09\u91cd\u6cb3\u5ddd\u56fd\u9053\u4e8b\u52d9\u6240","boring_xml_url":47,"boring_view_url":1,"soilmap_view_url":null,"soiltest_xml_url":47,"soiltest_view_url":47},{"id":289979,"code":"NGIC202000183-0005","latitude":"34.655702777778","longitude":"136.45749722222","source_code":"","project_name":"\u96f2\u51fa\u5ddd\u51fa\u5f35\u6240\u7ba1\u5185","survey_name":"\u4ee4\u548c\u5143\u5e74\u5ea6\u96f2\u51fa\u5ddd\u5730\u8cea\u8abf\u67fb\u696d\u52d9","client_name":"\u56fd\u571f\u4ea4\u901a\u7701\u4e2d\u90e8\u5730\u65b9\u6574\u5099\u5c40\u4e09\u91cd\u6cb3\u5ddd\u56fd\u9053\u4e8b\u52d9\u6240","boring_xml_url":47,"boring_view_url":1,"soilmap_view_url":null,"soiltest_xml_url":47,"soiltest_view_url":47},{"id":289978,"code":"NGIC202000183-0004","latitude":"34.655658333333","longitude":"136.45749444444","source_code":"","project_name":"\u96f2\u51fa\u5ddd\u51fa\u5f35\u6240\u7ba1\u5185","survey_name":"\u4ee4\u548c\u5143\u5e74\u5ea6\u96f2\u51fa\u5ddd\u5730\u8cea\u8abf\u67fb\u696d\u52d9","client_name":"\u56fd\u571f\u4ea4\u901a\u7701\u4e2d\u90e8\u5730\u65b9\u6574\u5099\u5c40\u4e09\u91cd\u6cb3\u5ddd\u56fd\u9053\u4e8b\u52d9\u6240","boring_xml_url":47,"boring_view_url":1,"soilmap_view_url":null,"soiltest_xml_url":47,"soiltest_view_url":47},{"id":289977,"code":"NGIC202000183-0003","latitude":"34.665333333333","longitude":"136.45312222222","source_code":"","project_name":"\u96f2\u51fa\u5ddd\u51fa\u5f35\u6240\u7ba1\u5185","survey_name":"\u4ee4\u548c\u5143\u5e74\u5ea6\u96f2\u51fa\u5ddd\u5730\u8cea\u8abf\u67fb\u696d\u52d9","client_name":"\u56fd\u571f\u4ea4\u901a\u7701\u4e2d\u90e8\u5730\u65b9\u6574\u5099\u5c40\u4e09\u91cd\u6cb3\u5ddd\u56fd\u9053\u4e8b\u52d9\u6240","boring_xml_url":47,"boring_view_url":1,"soilmap_view_url":null,"soiltest_xml_url":47,"soiltest_view_url":47},{"id":289976,"code":"NGIC202000183-0002","latitude":"34.665213888889","longitude":"136.45298888889","source_code":"","project_name":"\u96f2\u51fa\u5ddd\u51fa\u5f35\u6240\u7ba1\u5185","survey_name":"\u4ee4\u548c\u5143\u5e74\u5ea6\u96f2\u51fa\u5ddd\u5730\u8cea\u8abf\u67fb\u696d\u52d9","client_name":"\u56fd\u571f\u4ea4\u901a\u7701\u4e2d\u90e8\u5730\u65b9\u6574\u5099\u5c40\u4e09\u91cd\u6cb3\u5ddd\u56fd\u9053\u4e8b\u52d9\u6240","boring_xml_url":47,"boring_view_url":1,"soilmap_view_url":null,"soiltest_xml_url":47,"soiltest_view_url":47},{"id":289975,"code":"NGIC202000183-0001","latitude":"34.665097222222","longitude":"136.45286111111","source_code":"","project_name":"\u96f2\u51fa\u5ddd\u51fa\u5f35\u6240\u7ba1\u5185","survey_name":"\u4ee4\u548c\u5143\u5e74\u5ea6\u96f2\u51fa\u5ddd\u5730\u8cea\u8abf\u67fb\u696d\u52d9","client_name":"\u56fd\u571f\u4ea4\u901a\u7701\u4e2d\u90e8\u5730\u65b9\u6574\u5099\u5c40\u4e09\u91cd\u6cb3\u5ddd\u56fd\u9053\u4e8b\u52d9\u6240","boring_xml_url":47,"boring_view_url":1,"soilmap_view_url":null,"soiltest_xml_url":47,"soiltest_view_url":47},{"id":289968,"code":"NGIC202000188-0003","latitude":"35.024416666667","longitude":"133.17718611111","source_code":"","project_name":"","survey_name":"\u9375\u639b\u5ce0\u9053\u8def\u6a4b\u6881\u8a73\u7d30\u8a2d\u8a08\u696d\u52d9","client_name":"\u56fd\u571f\u4ea4\u901a\u7701\u4e2d\u56fd\u5730\u65b9\u6574\u5099\u5c40\u4e09\u6b21\u6cb3\u5ddd\u56fd\u9053\u4e8b\u52d9\u6240\u5de5\u52d9\u8ab2","boring_xml_url":47,"boring_view_url":1,"soilmap_view_url":null,"soiltest_xml_url":0,"soiltest_view_url":0},{"id":289967,"code":"NGIC202000188-0002","latitude":"35.023894444444","longitude":"133.17695277778","source_code":"","project_name":"","survey_name":"\u9375\u639b\u5ce0\u9053\u8def\u6a4b\u6881\u8a73\u7d30\u8a2d\u8a08\u696d\u52d9","client_name":"\u56fd\u571f\u4ea4\u901a\u7701\u4e2d\u56fd\u5730\u65b9\u6574\u5099\u5c40\u4e09\u6b21\u6cb3\u5ddd\u56fd\u9053\u4e8b\u52d9\u6240\u5de5\u52d9\u8ab2","boring_xml_url":47,"boring_view_url":1,"soilmap_view_url":null,"soiltest_xml_url":0,"soiltest_view_url":0},{"id":289966,"code":"NGIC202000188-0001","latitude":"35.023961111111","longitude":"133.17706666667","source_code":"","project_name":"","survey_name":"\u9375\u639b\u5ce0\u9053\u8def\u6a4b\u6881\u8a73\u7d30\u8a2d\u8a08\u696d\u52d9","client_name":"\u56fd\u571f\u4ea4\u901a\u7701\u4e2d\u56fd\u5730\u65b9\u6574\u5099\u5c40\u4e09\u6b21\u6cb3\u5ddd\u56fd\u9053\u4e8b\u52d9\u6240\u5de5\u52d9\u8ab2","boring_xml_url":47,"boring_view_url":1,"soilmap_view_url":null,"soiltest_xml_url":47,"soiltest_view_url":47},{"id":289939,"code":"NGIC202000182-0005","latitude":"32.454620111111","longitude":"130.90756538889","source_code":"","project_name":"","survey_name":"\u30db\u30f3\u30ce\u30b3\u30a6\u8c37\u5ddd\u7b2c2\u7802\u9632\u5830\u5824\u6e2c\u91cf\u8a2d\u8a08\u53ca\u3073\u5730\u8cea\u8abf\u67fb\u696d\u52d9","client_name":"\u56fd\u571f\u4ea4\u901a\u7701\u4e5d\u5dde\u5730\u65b9\u6574\u5099\u5c40\u5ddd\u8fba\u5ddd\u30c0\u30e0\u7802\u9632\u4e8b\u52d9\u6240","boring_xml_url":47,"boring_view_url":1,"soilmap_view_url":null,"soiltest_xml_url":0,"soiltest_view_url":0},{"id":289938,"code":"NGIC202000182-0004","latitude":"32.454652777778","longitude":"130.90716666667","source_code":"","project_name":"","survey_name":"\u30db\u30f3\u30ce\u30b3\u30a6\u8c37\u5ddd\u7b2c2\u7802\u9632\u5830\u5824\u6e2c\u91cf\u8a2d\u8a08\u53ca\u3073\u5730\u8cea\u8abf\u67fb\u696d\u52d9","client_name":"\u56fd\u571f\u4ea4\u901a\u7701\u4e5d\u5dde\u5730\u65b9\u6574\u5099\u5c40\u5ddd\u8fba\u5ddd\u30c0\u30e0\u7802\u9632\u4e8b\u52d9\u6240","boring_xml_url":47,"boring_view_url":1,"soilmap_view_url":null,"soiltest_xml_url":0,"soiltest_view_url":0},{"id":289937,"code":"NGIC202000182-0003","latitude":"32.454577777778","longitude":"130.90731111111","source_code":"","project_name":"","survey_name":"\u30db\u30f3\u30ce\u30b3\u30a6\u8c37\u5ddd\u7b2c2\u7802\u9632\u5830\u5824\u6e2c\u91cf\u8a2d\u8a08\u53ca\u3073\u5730\u8cea\u8abf\u67fb\u696d\u52d9","client_name":"\u56fd\u571f\u4ea4\u901a\u7701\u4e5d\u5dde\u5730\u65b9\u6574\u5099\u5c40\u5ddd\u8fba\u5ddd\u30c0\u30e0\u7802\u9632\u4e8b\u52d9\u6240","boring_xml_url":47,"boring_view_url":1,"soilmap_view_url":null,"soiltest_xml_url":0,"soiltest_view_url":0},{"id":289936,"code":"NGIC202000182-0002","latitude":"32.454494444444","longitude":"130.90747777778","source_code":"","project_name":"","survey_name":"\u30db\u30f3\u30ce\u30b3\u30a6\u8c37\u5ddd\u7b2c2\u7802\u9632\u5830\u5824\u6e2c\u91cf\u8a2d\u8a08\u53ca\u3073\u5730\u8cea\u8abf\u67fb\u696d\u52d9","client_name":"\u56fd\u571f\u4ea4\u901a\u7701\u4e5d\u5dde\u5730\u65b9\u6574\u5099\u5c40\u5ddd\u8fba\u5ddd\u30c0\u30e0\u7802\u9632\u4e8b\u52d9\u6240","boring_xml_url":47,"boring_view_url":1,"soilmap_view_url":null,"soiltest_xml_url":0,"soiltest_view_url":0},{"id":289935,"code":"NGIC202000182-0001","latitude":"32.454505555556","longitude":"130.90737222222","source_code":"","project_name":"","survey_name":"\u30db\u30f3\u30ce\u30b3\u30a6\u8c37\u5ddd\u7b2c2\u7802\u9632\u5830\u5824\u6e2c\u91cf\u8a2d\u8a08\u53ca\u3073\u5730\u8cea\u8abf\u67fb\u696d\u52d9","client_name":"\u56fd\u571f\u4ea4\u901a\u7701\u4e5d\u5dde\u5730\u65b9\u6574\u5099\u5c40\u5ddd\u8fba\u5ddd\u30c0\u30e0\u7802\u9632\u4e8b\u52d9\u6240","boring_xml_url":47,"boring_view_url":1,"soilmap_view_url":null,"soiltest_xml_url":0,"soiltest_view_url":0},{"id":289916,"code":"NGIC202000170-0006","latitude":"34.613580277778","longitude":"133.89184222222","source_code":"","project_name":"","survey_name":"\u5ca1\u5c71\u74b0\u72b6\u5357\u9053\u8def\u6771\u7566\u5730\u533a\u7b2c5\u6539\u826f\u5de5\u4e8b","client_name":"\u56fd\u571f\u4ea4\u901a\u7701\u4e2d\u56fd\u5730\u65b9\u6574\u5099\u5c40\u5ca1\u5c71\u56fd\u9053\u4e8b\u52d9\u6240","boring_xml_url":47,"boring_view_url":1,"soilmap_view_url":null,"soiltest_xml_url":0,"soiltest_view_url":0}]}}