{"header":{"xyz":{"source":[],"mosaic":false},"page":2168,"raw":{"soiltest_result":"0","bbox":"57.598333,109.544722,1.933333,163.806111","page":"2168"},"conditions":{"soiltest_result":0,"north":57.598333,"west":109.544722,"south":1.933333,"east":163.806111},"success":true,"message":""},"data":{"meta":{"total":212844,"page":2168,"pages":7095,"count":30},"values":[{"id":289915,"code":"NGIC202000170-0005","latitude":"34.613309166667","longitude":"133.89208694444","source_code":"","project_name":"","survey_name":"\u5ca1\u5c71\u74b0\u72b6\u5357\u9053\u8def\u6771\u7566\u5730\u533a\u7b2c5\u6539\u826f\u5de5\u4e8b","client_name":"\u56fd\u571f\u4ea4\u901a\u7701\u4e2d\u56fd\u5730\u65b9\u6574\u5099\u5c40\u5ca1\u5c71\u56fd\u9053\u4e8b\u52d9\u6240","boring_xml_url":47,"boring_view_url":1,"soilmap_view_url":null,"soiltest_xml_url":0,"soiltest_view_url":0},{"id":289914,"code":"NGIC202000170-0004","latitude":"34.612953055556","longitude":"133.89226027778","source_code":"","project_name":"","survey_name":"\u5ca1\u5c71\u74b0\u72b6\u5357\u9053\u8def\u6771\u7566\u5730\u533a\u7b2c5\u6539\u826f\u5de5\u4e8b","client_name":"\u56fd\u571f\u4ea4\u901a\u7701\u4e2d\u56fd\u5730\u65b9\u6574\u5099\u5c40\u5ca1\u5c71\u56fd\u9053\u4e8b\u52d9\u6240","boring_xml_url":47,"boring_view_url":1,"soilmap_view_url":null,"soiltest_xml_url":0,"soiltest_view_url":0},{"id":289907,"code":"NGIC202000164-0014","latitude":"26.45177375","longitude":"127.93492788889","source_code":"","project_name":"","survey_name":"\u5e73\u621031\u5e74\u5ea6\u5317\u90e8\u56fd\u9053\u6539\u7bc9\u8a2d\u8a08(\u305d\u306e2\uff09\u696d\u52d9","client_name":"\u5185\u95a3\u5e9c\u6c96\u7e04\u7dcf\u5408\u4e8b\u52d9\u5c40\u958b\u767a\u5efa\u8a2d\u90e8\u5317\u90e8\u56fd\u9053\u4e8b\u52d9\u6240","boring_xml_url":47,"boring_view_url":1,"soilmap_view_url":null,"soiltest_xml_url":0,"soiltest_view_url":0},{"id":289906,"code":"NGIC202000164-0013","latitude":"26.554893333333","longitude":"127.97219436111","source_code":"","project_name":"","survey_name":"\u5e73\u621031\u5e74\u5ea6\u5317\u90e8\u56fd\u9053\u6539\u7bc9\u8a2d\u8a08(\u305d\u306e2\uff09\u696d\u52d9","client_name":"\u5185\u95a3\u5e9c\u6c96\u7e04\u7dcf\u5408\u4e8b\u52d9\u5c40\u958b\u767a\u5efa\u8a2d\u90e8\u5317\u90e8\u56fd\u9053\u4e8b\u52d9\u6240","boring_xml_url":47,"boring_view_url":1,"soilmap_view_url":null,"soiltest_xml_url":0,"soiltest_view_url":0},{"id":289905,"code":"NGIC202000164-0012","latitude":"26.555128111111","longitude":"127.97240177778","source_code":"","project_name":"","survey_name":"\u5e73\u621031\u5e74\u5ea6\u5317\u90e8\u56fd\u9053\u6539\u7bc9\u8a2d\u8a08(\u305d\u306e2\uff09\u696d\u52d9","client_name":"\u5185\u95a3\u5e9c\u6c96\u7e04\u7dcf\u5408\u4e8b\u52d9\u5c40\u958b\u767a\u5efa\u8a2d\u90e8\u5317\u90e8\u56fd\u9053\u4e8b\u52d9\u6240","boring_xml_url":47,"boring_view_url":1,"soilmap_view_url":null,"soiltest_xml_url":0,"soiltest_view_url":0},{"id":289904,"code":"NGIC202000164-0011","latitude":"26.555011166667","longitude":"127.97241708333","source_code":"","project_name":"","survey_name":"\u5e73\u621031\u5e74\u5ea6\u5317\u90e8\u56fd\u9053\u6539\u7bc9\u8a2d\u8a08\uff08\u305d\u306e2\uff09\u696d\u52d9","client_name":"\u5185\u95a3\u5e9c\u6c96\u7e04\u7dcf\u5408\u4e8b\u52d9\u5c40\u958b\u767a\u5efa\u8a2d\u90e8\u5317\u90e8\u56fd\u9053\u4e8b\u52d9\u6240","boring_xml_url":47,"boring_view_url":1,"soilmap_view_url":null,"soiltest_xml_url":0,"soiltest_view_url":0},{"id":289903,"code":"NGIC202000164-0010","latitude":"26.553917805556","longitude":"127.97212394444","source_code":"","project_name":"","survey_name":"\u5e73\u621031\u5e74\u5ea6\u5317\u90e8\u56fd\u9053\u6539\u7bc9\u8a2d\u8a08\uff08\u305d\u306e2\uff09\u696d\u52d9","client_name":"\u5185\u95a3\u5e9c\u6c96\u7e04\u7dcf\u5408\u4e8b\u52d9\u5c40\u958b\u767a\u5efa\u8a2d\u90e8\u5317\u90e8\u56fd\u9053\u4e8b\u52d9\u6240","boring_xml_url":47,"boring_view_url":1,"soilmap_view_url":null,"soiltest_xml_url":0,"soiltest_view_url":0},{"id":289902,"code":"NGIC202000164-0009","latitude":"26.554003305556","longitude":"127.97262883333","source_code":"","project_name":"","survey_name":"\u5e73\u621031\u5e74\u5ea6\u5317\u90e8\u56fd\u9053\u6539\u7bc9\u8a2d\u8a08\uff08\u305d\u306e2\uff09\u696d\u52d9","client_name":"\u5185\u95a3\u5e9c\u6c96\u7e04\u7dcf\u5408\u4e8b\u52d9\u5c40\u958b\u767a\u5efa\u8a2d\u90e8\u5317\u90e8\u56fd\u9053\u4e8b\u52d9\u6240","boring_xml_url":47,"boring_view_url":1,"soilmap_view_url":null,"soiltest_xml_url":0,"soiltest_view_url":0},{"id":289901,"code":"NGIC202000164-0008","latitude":"26.555220111111","longitude":"127.97311161111","source_code":"","project_name":"","survey_name":"\u5e73\u621031\u5e74\u5ea6\u5317\u90e8\u56fd\u9053\u6539\u7bc9\u8a2d\u8a08\uff08\u305d\u306e2\uff09\u696d\u52d9","client_name":"\u5185\u95a3\u5e9c\u6c96\u7e04\u7dcf\u5408\u4e8b\u52d9\u5c40\u958b\u767a\u5efa\u8a2d\u90e8\u5317\u90e8\u56fd\u9053\u4e8b\u52d9\u6240","boring_xml_url":47,"boring_view_url":1,"soilmap_view_url":null,"soiltest_xml_url":0,"soiltest_view_url":0},{"id":289900,"code":"NGIC202000164-0007","latitude":"26.555097555556","longitude":"127.97337097222","source_code":"","project_name":"","survey_name":"\u5e73\u621031\u5e74\u5ea6\u5317\u90e8\u56fd\u9053\u6539\u7bc9\u8a2d\u8a08\uff08\u305d\u306e2\uff09\u696d\u52d9","client_name":"\u5185\u95a3\u5e9c\u6c96\u7e04\u7dcf\u5408\u4e8b\u52d9\u5c40\u958b\u767a\u5efa\u8a2d\u90e8\u5317\u90e8\u56fd\u9053\u4e8b\u52d9\u6240","boring_xml_url":47,"boring_view_url":1,"soilmap_view_url":null,"soiltest_xml_url":0,"soiltest_view_url":0},{"id":289899,"code":"NGIC202000164-0006","latitude":"26.554241333333","longitude":"127.97310336111","source_code":"","project_name":"","survey_name":"\u5e73\u621031\u5e74\u5ea6\u5317\u90e8\u56fd\u9053\u6539\u7bc9\u8a2d\u8a08\uff08\u305d\u306e2\uff09\u696d\u52d9","client_name":"\u5185\u95a3\u5e9c\u6c96\u7e04\u7dcf\u5408\u4e8b\u52d9\u5c40\u958b\u767a\u5efa\u8a2d\u90e8\u5317\u90e8\u56fd\u9053\u4e8b\u52d9\u6240","boring_xml_url":47,"boring_view_url":1,"soilmap_view_url":null,"soiltest_xml_url":0,"soiltest_view_url":0},{"id":289898,"code":"NGIC202000164-0005","latitude":"26.554930111111","longitude":"127.97243211111","source_code":"","project_name":"","survey_name":"\u5e73\u621031\u5e74\u5ea6\u5317\u90e8\u56fd\u9053\u6539\u7bc9\u8a2d\u8a08\uff08\u305d\u306e2\uff09\u696d\u52d9","client_name":"\u5185\u95a3\u5e9c\u6c96\u7e04\u7dcf\u5408\u4e8b\u52d9\u5c40\u958b\u767a\u5efa\u8a2d\u90e8\u5317\u90e8\u56fd\u9053\u4e8b\u52d9\u6240","boring_xml_url":47,"boring_view_url":1,"soilmap_view_url":null,"soiltest_xml_url":0,"soiltest_view_url":0},{"id":289897,"code":"NGIC202000164-0004","latitude":"26.554819666667","longitude":"127.97259827778","source_code":"","project_name":"","survey_name":"\u5e73\u621031\u5e74\u5ea6\u5317\u90e8\u56fd\u9053\u6539\u7bc9\u8a2d\u8a08\uff08\u305d\u306e2\uff09\u696d\u52d9","client_name":"\u5185\u95a3\u5e9c\u6c96\u7e04\u7dcf\u5408\u4e8b\u52d9\u5c40\u958b\u767a\u5efa\u8a2d\u90e8\u5317\u90e8\u56fd\u9053\u4e8b\u52d9\u6240","boring_xml_url":47,"boring_view_url":1,"soilmap_view_url":null,"soiltest_xml_url":0,"soiltest_view_url":0},{"id":289896,"code":"NGIC202000164-0003","latitude":"26.554698944444","longitude":"127.97277866667","source_code":"","project_name":"","survey_name":"\u5e73\u621031\u5e74\u5ea6\u5317\u90e8\u56fd\u9053\u6539\u7bc9\u8a2d\u8a08\uff08\u305d\u306e2\uff09\u696d\u52d9","client_name":"\u5185\u95a3\u5e9c\u6c96\u7e04\u7dcf\u5408\u4e8b\u52d9\u5c40\u958b\u767a\u5efa\u8a2d\u90e8\u5317\u90e8\u56fd\u9053\u4e8b\u52d9\u6240","boring_xml_url":47,"boring_view_url":1,"soilmap_view_url":null,"soiltest_xml_url":0,"soiltest_view_url":0},{"id":289895,"code":"NGIC202000164-0002","latitude":"26.554610277778","longitude":"127.97309241667","source_code":"","project_name":"","survey_name":"\u5e73\u621031\u5e74\u5ea6\u5317\u90e8\u56fd\u9053\u6539\u7bc9\u8a2d\u8a08\uff08\u305d\u306e2\uff09\u696d\u52d9","client_name":"\u5185\u95a3\u5e9c\u6c96\u7e04\u7dcf\u5408\u4e8b\u52d9\u5c40\u958b\u767a\u5efa\u8a2d\u90e8\u5317\u90e8\u56fd\u9053\u4e8b\u52d9\u6240","boring_xml_url":47,"boring_view_url":1,"soilmap_view_url":null,"soiltest_xml_url":0,"soiltest_view_url":0},{"id":289894,"code":"NGIC202000164-0001","latitude":"26.554542638889","longitude":"127.97339683333","source_code":"","project_name":"","survey_name":"\u5e73\u621031\u5e74\u5ea6\u5317\u90e8\u56fd\u9053\u6539\u7bc9\u8a2d\u8a08\uff08\u305d\u306e2\uff09\u696d\u52d9","client_name":"\u5185\u95a3\u5e9c\u6c96\u7e04\u7dcf\u5408\u4e8b\u52d9\u5c40\u958b\u767a\u5efa\u8a2d\u90e8\u5317\u90e8\u56fd\u9053\u4e8b\u52d9\u6240","boring_xml_url":47,"boring_view_url":1,"soilmap_view_url":null,"soiltest_xml_url":0,"soiltest_view_url":0},{"id":289893,"code":"NGIC202000180-0003","latitude":"33.462490833333","longitude":"132.70492411111","source_code":"","project_name":"\n      ","survey_name":"\u4ee4\u548c\u5143\u5e74\u5ea6\u5c71\u9ce5\u5742\u30c0\u30e0\u7ba1\u5185\u5730\u8cea\u8abf\u67fb\uff08\u305d\u306e9\uff09\u696d\u52d9","client_name":"\u56fd\u571f\u4ea4\u901a\u7701\u56db\u56fd\u5730\u65b9\u6574\u5099\u5c40\u5c71\u9ce5\u5742\u30c0\u30e0\u5de5\u4e8b\u4e8b\u52d9\u6240","boring_xml_url":47,"boring_view_url":1,"soilmap_view_url":null,"soiltest_xml_url":0,"soiltest_view_url":0},{"id":289892,"code":"NGIC202000180-0002","latitude":"33.462138444444","longitude":"132.70486741667","source_code":"","project_name":"\n      ","survey_name":"\u4ee4\u548c\u5143\u5e74\u5ea6\u5c71\u9ce5\u5742\u30c0\u30e0\u7ba1\u5185\u5730\u8cea\u8abf\u67fb\uff08\u305d\u306e9\uff09\u696d\u52d9","client_name":"\u56fd\u571f\u4ea4\u901a\u7701\u56db\u56fd\u5730\u65b9\u6574\u5099\u5c40\u5c71\u9ce5\u5742\u30c0\u30e0\u5de5\u4e8b\u4e8b\u52d9\u6240","boring_xml_url":47,"boring_view_url":1,"soilmap_view_url":null,"soiltest_xml_url":0,"soiltest_view_url":0},{"id":289891,"code":"NGIC202000180-0001","latitude":"33.461090138889","longitude":"132.70369197222","source_code":"","project_name":"\n      ","survey_name":"\u4ee4\u548c\u5143\u5e74\u5ea6\u5c71\u9ce5\u5742\u30c0\u30e0\u7ba1\u5185\u5730\u8cea\u8abf\u67fb\uff08\u305d\u306e9\uff09\u696d\u52d9","client_name":"\u56fd\u571f\u4ea4\u901a\u7701\u56db\u56fd\u5730\u65b9\u6574\u5099\u5c40\u5c71\u9ce5\u5742\u30c0\u30e0\u5de5\u4e8b\u4e8b\u52d9\u6240","boring_xml_url":47,"boring_view_url":1,"soilmap_view_url":null,"soiltest_xml_url":0,"soiltest_view_url":0},{"id":289867,"code":"NGIC202000147-0002","latitude":"40.263666666667","longitude":"141.79044444444","source_code":"","project_name":"\u4ee4\u548c\u5143\u5e74\u5ea6","survey_name":"\u6d0b\u91ce\u968e\u4e0a\u9593\u88dc\u8db3\u8a2d\u8a08\u696d\u52d9","client_name":"\u56fd\u571f\u4ea4\u901a\u7701\u6771\u5317\u5730\u65b9\u6574\u5099\u5c40\u4e09\u9678\u56fd\u9053\u4e8b\u52d9\u6240","boring_xml_url":47,"boring_view_url":1,"soilmap_view_url":null,"soiltest_xml_url":0,"soiltest_view_url":0},{"id":289866,"code":"NGIC202000147-0001","latitude":"40.26375","longitude":"141.79088888889","source_code":"","project_name":"\u4ee4\u548c\u5143\u5e74\u5ea6","survey_name":"\u6d0b\u91ce\u968e\u4e0a\u9593\u88dc\u8db3\u8a2d\u8a08\u696d\u52d9","client_name":"\u56fd\u571f\u4ea4\u901a\u7701\u6771\u5317\u5730\u65b9\u6574\u5099\u5c40\u4e09\u9678\u56fd\u9053\u4e8b\u52d9\u6240","boring_xml_url":47,"boring_view_url":1,"soilmap_view_url":null,"soiltest_xml_url":0,"soiltest_view_url":0},{"id":289796,"code":"NGIC202000161-0005","latitude":"37.820341","longitude":"140.52523636111","source_code":"","project_name":"\u6851\u6298\u9ad8\u67b6\u6a4b\u534a\u4e94\u90ce\u5730\u533a\u5e8a\u7248\u5de5\u5de5\u4e8b","survey_name":"\u6851\u6298\u9ad8\u67b6\u6a4b\u534a\u4e94\u90ce\u5730\u533a\u5e8a\u7248\u5de5\u5de5\u4e8b","client_name":"\u56fd\u571f\u4ea4\u901a\u7701\u6771\u5317\u5730\u65b9\u6574\u5099\u5c40\u798f\u5cf6\u6cb3\u5ddd\u56fd\u9053\u4e8b\u52d9\u6240","boring_xml_url":47,"boring_view_url":1,"soilmap_view_url":null,"soiltest_xml_url":0,"soiltest_view_url":0},{"id":289795,"code":"NGIC202000161-0004","latitude":"37.820126083333","longitude":"140.52563858333","source_code":"","project_name":"\u6851\u6298\u9ad8\u67b6\u6a4b\u534a\u4e94\u90ce\u5730\u533a\u5e8a\u7248\u5de5\u5de5\u4e8b","survey_name":"\u6851\u6298\u9ad8\u67b6\u6a4b\u534a\u4e94\u90ce\u5730\u533a\u5e8a\u7248\u5de5\u5de5\u4e8b","client_name":"\u56fd\u571f\u4ea4\u901a\u7701\u6771\u5317\u5730\u65b9\u6574\u5099\u5c40\u798f\u5cf6\u6cb3\u5ddd\u56fd\u9053\u4e8b\u52d9\u6240","boring_xml_url":47,"boring_view_url":1,"soilmap_view_url":null,"soiltest_xml_url":0,"soiltest_view_url":0},{"id":289794,"code":"NGIC202000161-0003","latitude":"37.820126055556","longitude":"140.52551152778","source_code":"","project_name":"\u6851\u6298\u9ad8\u67b6\u6a4b\u534a\u4e94\u90ce\u5730\u533a\u5e8a\u7248\u5de5\u5de5\u4e8b","survey_name":"\u6851\u6298\u9ad8\u67b6\u6a4b\u534a\u4e94\u90ce\u5730\u533a\u5e8a\u7248\u5de5\u5de5\u4e8b","client_name":"\u56fd\u571f\u4ea4\u901a\u7701\u6771\u5317\u5730\u65b9\u6574\u5099\u5c40\u798f\u5cf6\u6cb3\u5ddd\u56fd\u9053\u4e8b\u52d9\u6240","boring_xml_url":47,"boring_view_url":1,"soilmap_view_url":null,"soiltest_xml_url":0,"soiltest_view_url":0},{"id":289793,"code":"NGIC202000161-0002","latitude":"37.820155666667","longitude":"140.52557505556","source_code":"","project_name":"\u6851\u6298\u9ad8\u67b6\u6a4b\u534a\u4e94\u90ce\u5730\u533a\u5e8a\u7248\u5de5\u5de5\u4e8b","survey_name":"\u6851\u6298\u9ad8\u67b6\u6a4b\u534a\u4e94\u90ce\u5730\u533a\u5e8a\u7248\u5de5\u5de5\u4e8b","client_name":"\u56fd\u571f\u4ea4\u901a\u7701\u6771\u5317\u5730\u65b9\u6574\u5099\u5c40\u798f\u5cf6\u6cb3\u5ddd\u56fd\u9053\u4e8b\u52d9\u6240","boring_xml_url":47,"boring_view_url":1,"soilmap_view_url":null,"soiltest_xml_url":0,"soiltest_view_url":0},{"id":289792,"code":"NGIC202000161-0001","latitude":"37.820364305556","longitude":"140.52530797222","source_code":"","project_name":"\u6851\u6298\u9ad8\u67b6\u6a4b\u534a\u4e94\u90ce\u5730\u533a\u5e8a\u7248\u5de5\u5de5\u4e8b","survey_name":"\u6851\u6298\u9ad8\u67b6\u6a4b\u534a\u4e94\u90ce\u5730\u533a\u5e8a\u7248\u5de5\u5de5\u4e8b","client_name":"\u56fd\u571f\u4ea4\u901a\u7701\u6771\u5317\u5730\u65b9\u6574\u5099\u5c40\u798f\u5cf6\u6cb3\u5ddd\u56fd\u9053\u4e8b\u52d9\u6240","boring_xml_url":47,"boring_view_url":1,"soilmap_view_url":null,"soiltest_xml_url":0,"soiltest_view_url":0},{"id":289787,"code":"NGIC202000143-0004","latitude":"33.589913888889","longitude":"130.40379722222","source_code":"","project_name":"","survey_name":"\u30a4\u30f3\u30d5\u30e9\u65bd\u8a2d\u306e\u6db2\u72b6\u5316\u8a55\u4fa1\u306e\u305f\u3081\u306e3\u6b21\u5143\u5730\u76e4\u69cb\u9020\u30e2\u30c7\u30eb\u306e\u4f5c\u6210\u624b\u6cd5\u306e\u958b\u767a","client_name":"\u56fd\u571f\u4ea4\u901a\u7701\u672c\u5c40\u56fd\u571f\u6280\u8853\u653f\u7b56\u7dcf\u5408\u7814\u7a76\u6240","boring_xml_url":47,"boring_view_url":1,"soilmap_view_url":null,"soiltest_xml_url":47,"soiltest_view_url":47},{"id":289786,"code":"NGIC202000143-0003","latitude":"33.593769444444","longitude":"130.39427222222","source_code":"","project_name":"","survey_name":"\u30a4\u30f3\u30d5\u30e9\u65bd\u8a2d\u306e\u6db2\u72b6\u5316\u8a55\u4fa1\u306e\u305f\u3081\u306e3\u6b21\u5143\u5730\u76e4\u69cb\u9020\u30e2\u30c7\u30eb\u306e\u4f5c\u6210\u624b\u6cd5\u306e\u958b\u767a","client_name":"\u56fd\u571f\u4ea4\u901a\u7701\u672c\u5c40\u56fd\u571f\u6280\u8853\u653f\u7b56\u7dcf\u5408\u7814\u7a76\u6240","boring_xml_url":47,"boring_view_url":1,"soilmap_view_url":null,"soiltest_xml_url":47,"soiltest_view_url":47},{"id":289785,"code":"NGIC202000143-0002","latitude":"33.589913888889","longitude":"130.40379722222","source_code":"","project_name":"","survey_name":"\u30a4\u30f3\u30d5\u30e9\u65bd\u8a2d\u306e\u6db2\u72b6\u5316\u8a55\u4fa1\u306e\u305f\u3081\u306e3\u6b21\u5143\u5730\u76e4\u69cb\u9020\u30e2\u30c7\u30eb\u306e\u4f5c\u6210\u624b\u6cd5\u306e\u958b\u767a","client_name":"\u56fd\u571f\u4ea4\u901a\u7701\u672c\u5c40\u56fd\u571f\u6280\u8853\u653f\u7b56\u7dcf\u5408\u7814\u7a76\u6240","boring_xml_url":47,"boring_view_url":1,"soilmap_view_url":null,"soiltest_xml_url":47,"soiltest_view_url":47},{"id":289784,"code":"NGIC202000143-0001","latitude":"33.593769444444","longitude":"130.39427222222","source_code":"","project_name":"","survey_name":"\u30a4\u30f3\u30d5\u30e9\u65bd\u8a2d\u306e\u6db2\u72b6\u5316\u8a55\u4fa1\u306e\u305f\u3081\u306e3\u6b21\u5143\u5730\u76e4\u69cb\u9020\u30e2\u30c7\u30eb\u306e\u4f5c\u6210\u624b\u6cd5\u306e\u958b\u767a","client_name":"\u56fd\u571f\u4ea4\u901a\u7701\u672c\u5c40\u56fd\u571f\u6280\u8853\u653f\u7b56\u7dcf\u5408\u7814\u7a76\u6240","boring_xml_url":47,"boring_view_url":1,"soilmap_view_url":null,"soiltest_xml_url":47,"soiltest_view_url":47}]}}