{"header":{"xyz":{"source":[],"mosaic":false},"page":2171,"raw":{"soiltest_result":"0","bbox":"57.598333,109.544722,1.933333,163.806111","page":"2171"},"conditions":{"soiltest_result":0,"north":57.598333,"west":109.544722,"south":1.933333,"east":163.806111},"success":true,"message":""},"data":{"meta":{"total":212844,"page":2171,"pages":7095,"count":30},"values":[{"id":289629,"code":"NGIC202000121-0015","latitude":"35.436402777778","longitude":"137.35666111111","source_code":"","project_name":"","survey_name":"\u5e73\u621031\u5e74\u5ea6\u745e\u6d6a\u6075\u90a3\u9053\u8def\u5730\u8cea\u8abf\u67fb\u696d\u52d9","client_name":"\u56fd\u571f\u4ea4\u901a\u7701\u4e2d\u90e8\u5730\u65b9\u6574\u5099\u5c40\u591a\u6cbb\u898b\u7802\u9632\u56fd\u9053\u4e8b\u52d9\u6240","boring_xml_url":47,"boring_view_url":1,"soilmap_view_url":null,"soiltest_xml_url":0,"soiltest_view_url":0},{"id":289628,"code":"NGIC202000121-0014","latitude":"35.436136111111","longitude":"137.35547777778","source_code":"","project_name":"","survey_name":"\u5e73\u621031\u5e74\u5ea6\u745e\u6d6a\u6075\u90a3\u9053\u8def\u5730\u8cea\u8abf\u67fb\u696d\u52d9","client_name":"\u56fd\u571f\u4ea4\u901a\u7701\u4e2d\u90e8\u5730\u65b9\u6574\u5099\u5c40\u591a\u6cbb\u898b\u7802\u9632\u56fd\u9053\u4e8b\u52d9\u6240","boring_xml_url":47,"boring_view_url":1,"soilmap_view_url":null,"soiltest_xml_url":0,"soiltest_view_url":0},{"id":289627,"code":"NGIC202000121-0013","latitude":"35.434666666667","longitude":"137.35371666667","source_code":"","project_name":"","survey_name":"\u5e73\u621031\u5e74\u5ea6\u745e\u6d6a\u6075\u90a3\u9053\u8def\u5730\u8cea\u8abf\u67fb\u696d\u52d9","client_name":"\u56fd\u571f\u4ea4\u901a\u7701\u4e2d\u90e8\u5730\u65b9\u6574\u5099\u5c40\u591a\u6cbb\u898b\u7802\u9632\u56fd\u9053\u4e8b\u52d9\u6240","boring_xml_url":47,"boring_view_url":1,"soilmap_view_url":null,"soiltest_xml_url":0,"soiltest_view_url":0},{"id":289626,"code":"NGIC202000121-0012","latitude":"35.433525","longitude":"137.35131388889","source_code":"","project_name":"","survey_name":"\u5e73\u621031\u5e74\u5ea6\u745e\u6d6a\u6075\u90a3\u9053\u8def\u5730\u8cea\u8abf\u67fb\u696d\u52d9","client_name":"\u56fd\u571f\u4ea4\u901a\u7701\u4e2d\u90e8\u5730\u65b9\u6574\u5099\u5c40\u591a\u6cbb\u898b\u7802\u9632\u56fd\u9053\u4e8b\u52d9\u6240","boring_xml_url":47,"boring_view_url":1,"soilmap_view_url":null,"soiltest_xml_url":0,"soiltest_view_url":0},{"id":289625,"code":"NGIC202000121-0011","latitude":"35.433166666667","longitude":"137.35158333333","source_code":"","project_name":"","survey_name":"\u5e73\u621031\u5e74\u5ea6\u745e\u6d6a\u6075\u90a3\u9053\u8def\u5730\u8cea\u8abf\u67fb\u696d\u52d9","client_name":"\u56fd\u571f\u4ea4\u901a\u7701\u4e2d\u90e8\u5730\u65b9\u6574\u5099\u5c40\u591a\u6cbb\u898b\u7802\u9632\u56fd\u9053\u4e8b\u52d9\u6240","boring_xml_url":47,"boring_view_url":1,"soilmap_view_url":null,"soiltest_xml_url":0,"soiltest_view_url":0},{"id":289624,"code":"NGIC202000121-0010","latitude":"35.430919444444","longitude":"137.34421666667","source_code":"","project_name":"","survey_name":"\u5e73\u621031\u5e74\u5ea6\u745e\u6d6a\u6075\u90a3\u9053\u8def\u5730\u8cea\u8abf\u67fb\u696d\u52d9","client_name":"\u56fd\u571f\u4ea4\u901a\u7701\u4e2d\u90e8\u5730\u65b9\u6574\u5099\u5c40\u591a\u6cbb\u898b\u7802\u9632\u56fd\u9053\u4e8b\u52d9\u6240","boring_xml_url":47,"boring_view_url":1,"soilmap_view_url":null,"soiltest_xml_url":0,"soiltest_view_url":0},{"id":289623,"code":"NGIC202000121-0009","latitude":"35.429286111111","longitude":"137.339675","source_code":"","project_name":"","survey_name":"\u5e73\u621031\u5e74\u5ea6\u745e\u6d6a\u6075\u90a3\u9053\u8def\u5730\u8cea\u8abf\u67fb\u696d\u52d9","client_name":"\u56fd\u571f\u4ea4\u901a\u7701\u4e2d\u90e8\u5730\u65b9\u6574\u5099\u5c40\u591a\u6cbb\u898b\u7802\u9632\u56fd\u9053\u4e8b\u52d9\u6240","boring_xml_url":47,"boring_view_url":1,"soilmap_view_url":null,"soiltest_xml_url":0,"soiltest_view_url":0},{"id":289622,"code":"NGIC202000121-0008","latitude":"35.424375","longitude":"137.3301","source_code":"","project_name":"","survey_name":"\u5e73\u621031\u5e74\u5ea6\u745e\u6d6a\u6075\u90a3\u9053\u8def\u5730\u8cea\u8abf\u67fb\u696d\u52d9","client_name":"\u56fd\u571f\u4ea4\u901a\u7701\u4e2d\u90e8\u5730\u65b9\u6574\u5099\u5c40\u591a\u6cbb\u898b\u7802\u9632\u56fd\u9053\u4e8b\u52d9\u6240","boring_xml_url":47,"boring_view_url":1,"soilmap_view_url":null,"soiltest_xml_url":0,"soiltest_view_url":0},{"id":289621,"code":"NGIC202000121-0007","latitude":"35.416666666667","longitude":"137.31968888889","source_code":"","project_name":"","survey_name":"\u5e73\u621031\u5e74\u5ea6\u745e\u6d6a\u6075\u90a3\u9053\u8def\u5730\u8cea\u8abf\u67fb\u696d\u52d9","client_name":"\u56fd\u571f\u4ea4\u901a\u7701\u4e2d\u90e8\u5730\u65b9\u6574\u5099\u5c40\u591a\u6cbb\u898b\u7802\u9632\u56fd\u9053\u4e8b\u52d9\u6240","boring_xml_url":47,"boring_view_url":1,"soilmap_view_url":null,"soiltest_xml_url":0,"soiltest_view_url":0},{"id":289620,"code":"NGIC202000121-0006","latitude":"35.414561111111","longitude":"137.31201944444","source_code":"","project_name":"","survey_name":"\u5e73\u621031\u5e74\u5ea6\u745e\u6d6a\u6075\u90a3\u9053\u8def\u5730\u8cea\u8abf\u67fb\u696d\u52d9","client_name":"\u56fd\u571f\u4ea4\u901a\u7701\u4e2d\u90e8\u5730\u65b9\u6574\u5099\u5c40\u591a\u6cbb\u898b\u7802\u9632\u56fd\u9053\u4e8b\u52d9\u6240","boring_xml_url":47,"boring_view_url":1,"soilmap_view_url":null,"soiltest_xml_url":0,"soiltest_view_url":0},{"id":289619,"code":"NGIC202000121-0005","latitude":"35.412825","longitude":"137.31100833333","source_code":"","project_name":"","survey_name":"\u5e73\u621031\u5e74\u5ea6\u745e\u6d6a\u6075\u90a3\u9053\u8def\u5730\u8cea\u8abf\u67fb\u696d\u52d9","client_name":"\u56fd\u571f\u4ea4\u901a\u7701\u4e2d\u90e8\u5730\u65b9\u6574\u5099\u5c40\u591a\u6cbb\u898b\u7802\u9632\u56fd\u9053\u4e8b\u52d9\u6240","boring_xml_url":47,"boring_view_url":1,"soilmap_view_url":null,"soiltest_xml_url":0,"soiltest_view_url":0},{"id":289618,"code":"NGIC202000121-0004","latitude":"35.412613888889","longitude":"137.31048055556","source_code":"","project_name":"","survey_name":"\u5e73\u621031\u5e74\u5ea6\u745e\u6d6a\u6075\u90a3\u9053\u8def\u5730\u8cea\u8abf\u67fb\u696d\u52d9","client_name":"\u56fd\u571f\u4ea4\u901a\u7701\u4e2d\u90e8\u5730\u65b9\u6574\u5099\u5c40\u591a\u6cbb\u898b\u7802\u9632\u56fd\u9053\u4e8b\u52d9\u6240","boring_xml_url":47,"boring_view_url":1,"soilmap_view_url":null,"soiltest_xml_url":0,"soiltest_view_url":0},{"id":289617,"code":"NGIC202000121-0003","latitude":"35.409083333333","longitude":"137.307725","source_code":"","project_name":"","survey_name":"\u5e73\u621031\u5e74\u5ea6\u745e\u6d6a\u6075\u90a3\u9053\u8def\u5730\u8cea\u8abf\u67fb\u696d\u52d9","client_name":"\u56fd\u571f\u4ea4\u901a\u7701\u4e2d\u90e8\u5730\u65b9\u6574\u5099\u5c40\u591a\u6cbb\u898b\u7802\u9632\u56fd\u9053\u4e8b\u52d9\u6240","boring_xml_url":47,"boring_view_url":1,"soilmap_view_url":null,"soiltest_xml_url":0,"soiltest_view_url":0},{"id":289616,"code":"NGIC202000121-0002","latitude":"35.408855555556","longitude":"137.30821666667","source_code":"","project_name":"","survey_name":"\u5e73\u621031\u5e74\u5ea6\u745e\u6d6a\u6075\u90a3\u9053\u8def\u5730\u8cea\u8abf\u67fb\u696d\u52d9","client_name":"\u56fd\u571f\u4ea4\u901a\u7701\u4e2d\u90e8\u5730\u65b9\u6574\u5099\u5c40\u591a\u6cbb\u898b\u7802\u9632\u56fd\u9053\u4e8b\u52d9\u6240","boring_xml_url":47,"boring_view_url":1,"soilmap_view_url":null,"soiltest_xml_url":0,"soiltest_view_url":0},{"id":289615,"code":"NGIC202000121-0001","latitude":"35.408122222222","longitude":"137.30637222222","source_code":"","project_name":"","survey_name":"\u5e73\u621031\u5e74\u5ea6\u745e\u6d6a\u6075\u90a3\u9053\u8def\u5730\u8cea\u8abf\u67fb\u696d\u52d9","client_name":"\u56fd\u571f\u4ea4\u901a\u7701\u4e2d\u90e8\u5730\u65b9\u6574\u5099\u5c40\u591a\u6cbb\u898b\u7802\u9632\u56fd\u9053\u4e8b\u52d9\u6240","boring_xml_url":47,"boring_view_url":1,"soilmap_view_url":null,"soiltest_xml_url":0,"soiltest_view_url":0},{"id":289608,"code":"NGIC202000114-0004","latitude":"34.449346888889","longitude":"132.53164766667","source_code":"","project_name":"","survey_name":"\u5e83\u5cf6\u897f\u90e8\u5c71\u7cfb\u99ac\u6728\u5730\u533a\u7802\u9632\u5830\u5824\u4e88\u5099\u8a73\u7d30\u8a2d\u8a08\u696d\u52d9","client_name":"\u56fd\u571f\u4ea4\u901a\u7701\u4e2d\u56fd\u5730\u65b9\u6574\u5099\u5c40\u5e83\u5cf6\u897f\u90e8\u5c71\u7cfb\u7802\u9632\u4e8b\u52d9\u6240","boring_xml_url":47,"boring_view_url":1,"soilmap_view_url":null,"soiltest_xml_url":0,"soiltest_view_url":0},{"id":289607,"code":"NGIC202000114-0003","latitude":"34.449103861111","longitude":"132.53156930556","source_code":"","project_name":"","survey_name":"\u5e83\u5cf6\u897f\u90e8\u5c71\u7cfb\u99ac\u6728\u5730\u533a\u7802\u9632\u5830\u5824\u4e88\u5099\u8a73\u7d30\u8a2d\u8a08\u696d\u52d9","client_name":"\u56fd\u571f\u4ea4\u901a\u7701\u4e2d\u56fd\u5730\u65b9\u6574\u5099\u5c40\u5e83\u5cf6\u897f\u90e8\u5c71\u7cfb\u7802\u9632\u4e8b\u52d9\u6240","boring_xml_url":47,"boring_view_url":1,"soilmap_view_url":null,"soiltest_xml_url":0,"soiltest_view_url":0},{"id":289606,"code":"NGIC202000114-0002","latitude":"34.449292833333","longitude":"132.53148036111","source_code":"","project_name":"","survey_name":"\u5e83\u5cf6\u897f\u90e8\u5c71\u7cfb\u99ac\u6728\u5730\u533a\u7802\u9632\u5830\u5824\u4e88\u5099\u8a73\u7d30\u8a2d\u8a08\u696d\u52d9","client_name":"\u56fd\u571f\u4ea4\u901a\u7701\u4e2d\u56fd\u5730\u65b9\u6574\u5099\u5c40\u5e83\u5cf6\u897f\u90e8\u5c71\u7cfb\u7802\u9632\u4e8b\u52d9\u6240","boring_xml_url":47,"boring_view_url":1,"soilmap_view_url":null,"soiltest_xml_url":0,"soiltest_view_url":0},{"id":289605,"code":"NGIC202000114-0001","latitude":"34.449543333333","longitude":"132.53136247222","source_code":"","project_name":"","survey_name":"\u5e83\u5cf6\u897f\u90e8\u5c71\u7cfb\u99ac\u6728\u5730\u533a\u7802\u9632\u5830\u5824\u4e88\u5099\u8a73\u7d30\u8a2d\u8a08\u696d\u52d9","client_name":"\u56fd\u571f\u4ea4\u901a\u7701\u4e2d\u56fd\u5730\u65b9\u6574\u5099\u5c40\u5e83\u5cf6\u897f\u90e8\u5c71\u7cfb\u7802\u9632\u4e8b\u52d9\u6240","boring_xml_url":47,"boring_view_url":1,"soilmap_view_url":null,"soiltest_xml_url":0,"soiltest_view_url":0},{"id":289598,"code":"NGIC202000117-0006","latitude":"36.140459","longitude":"137.73809047222","source_code":"","project_name":"\n      ","survey_name":"H31\u9577\u91ce\u56fd\u9053\u7ba1\u5185\u5730\u8cea\u6c34\u6587\u8abf\u67fb\u696d\u52d9","client_name":"\u56fd\u571f\u4ea4\u901a\u7701\u95a2\u6771\u5730\u65b9\u6574\u5099\u5c40\u9577\u91ce\u56fd\u9053\u4e8b\u52d9\u6240","boring_xml_url":47,"boring_view_url":1,"soilmap_view_url":null,"soiltest_xml_url":0,"soiltest_view_url":0},{"id":289597,"code":"NGIC202000117-0005","latitude":"36.14036725","longitude":"137.73781808333","source_code":"","project_name":"\n      ","survey_name":"H31\u9577\u91ce\u56fd\u9053\u7ba1\u5185\u5730\u8cea\u6c34\u6587\u8abf\u67fb\u696d\u52d9","client_name":"\u56fd\u571f\u4ea4\u901a\u7701\u95a2\u6771\u5730\u65b9\u6574\u5099\u5c40\u9577\u91ce\u56fd\u9053\u4e8b\u52d9\u6240","boring_xml_url":47,"boring_view_url":1,"soilmap_view_url":null,"soiltest_xml_url":0,"soiltest_view_url":0},{"id":289596,"code":"NGIC202000117-0004","latitude":"36.649490444444","longitude":"138.25009169444","source_code":"","project_name":"\n      ","survey_name":"H31\u9577\u91ce\u56fd\u9053\u7ba1\u5185\u5730\u8cea\u6c34\u6587\u8abf\u67fb\u696d\u52d9","client_name":"\u56fd\u571f\u4ea4\u901a\u7701\u95a2\u6771\u5730\u65b9\u6574\u5099\u5c40\u9577\u91ce\u56fd\u9053\u4e8b\u52d9\u6240","boring_xml_url":47,"boring_view_url":1,"soilmap_view_url":null,"soiltest_xml_url":0,"soiltest_view_url":0},{"id":289595,"code":"NGIC202000117-0003","latitude":"36.646389361111","longitude":"138.244907","source_code":"","project_name":"\n      ","survey_name":"H31\u9577\u91ce\u56fd\u9053\u7ba1\u5185\u5730\u8cea\u6c34\u6587\u8abf\u67fb\u696d\u52d9","client_name":"\u56fd\u571f\u4ea4\u901a\u7701\u95a2\u6771\u5730\u65b9\u6574\u5099\u5c40\u9577\u91ce\u56fd\u9053\u4e8b\u52d9\u6240","boring_xml_url":47,"boring_view_url":1,"soilmap_view_url":null,"soiltest_xml_url":0,"soiltest_view_url":0},{"id":289594,"code":"NGIC202000117-0002","latitude":"36.130632277778","longitude":"137.71797005556","source_code":"","project_name":"\n      ","survey_name":"H31\u9577\u91ce\u56fd\u9053\u7ba1\u5185\u5730\u8cea\u6c34\u6587\u8abf\u67fb\u696d\u52d9","client_name":"\u56fd\u571f\u4ea4\u901a\u7701\u95a2\u6771\u5730\u65b9\u6574\u5099\u5c40\u9577\u91ce\u56fd\u9053\u4e8b\u52d9\u6240","boring_xml_url":47,"boring_view_url":1,"soilmap_view_url":null,"soiltest_xml_url":0,"soiltest_view_url":0},{"id":289593,"code":"NGIC202000117-0001","latitude":"36.130646194444","longitude":"137.71816186111","source_code":"","project_name":"\n      ","survey_name":"H31\u9577\u91ce\u56fd\u9053\u7ba1\u5185\u5730\u8cea\u6c34\u6587\u8abf\u67fb\u696d\u52d9","client_name":"\u56fd\u571f\u4ea4\u901a\u7701\u95a2\u6771\u5730\u65b9\u6574\u5099\u5c40\u9577\u91ce\u56fd\u9053\u4e8b\u52d9\u6240","boring_xml_url":47,"boring_view_url":1,"soilmap_view_url":null,"soiltest_xml_url":0,"soiltest_view_url":0},{"id":289581,"code":"NGIC202000101-0005","latitude":"28.385170583333","longitude":"129.49423444444","source_code":"","project_name":"","survey_name":"\u540d\u702c\u7b2c2\u5408\u540c\u5e81\u820e(R1)\u6577\u5730\u8abf\u67fb\u696d\u52d9","client_name":"\u56fd\u571f\u4ea4\u901a\u7701\u4e5d\u5dde\u5730\u65b9\u6574\u5099\u5c40\u9e7f\u5150\u5cf6\u55b6\u7e55\u4e8b\u52d9\u6240","boring_xml_url":47,"boring_view_url":1,"soilmap_view_url":null,"soiltest_xml_url":0,"soiltest_view_url":0},{"id":289580,"code":"NGIC202000101-0004","latitude":"28.385089944444","longitude":"129.494101","source_code":"","project_name":"","survey_name":"\u540d\u702c\u7b2c2\u5408\u540c\u5e81\u820e(R1)\u6577\u5730\u8abf\u67fb\u696d\u52d9","client_name":"\u56fd\u571f\u4ea4\u901a\u7701\u4e5d\u5dde\u5730\u65b9\u6574\u5099\u5c40\u9e7f\u5150\u5cf6\u55b6\u7e55\u4e8b\u52d9\u6240","boring_xml_url":47,"boring_view_url":1,"soilmap_view_url":null,"soiltest_xml_url":0,"soiltest_view_url":0},{"id":289579,"code":"NGIC202000101-0003","latitude":"28.385102861111","longitude":"129.49463319444","source_code":"","project_name":"","survey_name":"\u540d\u702c\u7b2c2\u5408\u540c\u5e81\u820e(R1)\u6577\u5730\u8abf\u67fb\u696d\u52d9","client_name":"\u56fd\u571f\u4ea4\u901a\u7701\u4e5d\u5dde\u5730\u65b9\u6574\u5099\u5c40\u9e7f\u5150\u5cf6\u55b6\u7e55\u4e8b\u52d9\u6240","boring_xml_url":47,"boring_view_url":1,"soilmap_view_url":null,"soiltest_xml_url":47,"soiltest_view_url":47},{"id":289578,"code":"NGIC202000101-0002","latitude":"28.385396277778","longitude":"129.4941085","source_code":"","project_name":"","survey_name":"\u540d\u702c\u7b2c2\u5408\u540c\u5e81\u820e(R1)\u6577\u5730\u8abf\u67fb\u696d\u52d9","client_name":"\u56fd\u571f\u4ea4\u901a\u7701\u4e5d\u5dde\u5730\u65b9\u6574\u5099\u5c40\u9e7f\u5150\u5cf6\u55b6\u7e55\u4e8b\u52d9\u6240","boring_xml_url":47,"boring_view_url":1,"soilmap_view_url":null,"soiltest_xml_url":0,"soiltest_view_url":0},{"id":289577,"code":"NGIC202000101-0001","latitude":"28.385409222222","longitude":"129.49462941667","source_code":"","project_name":"","survey_name":"\u540d\u702c\u7b2c2\u5408\u540c\u5e81\u820e(R1)\u6577\u5730\u8abf\u67fb\u696d\u52d9","client_name":"\u56fd\u571f\u4ea4\u901a\u7701\u4e5d\u5dde\u5730\u65b9\u6574\u5099\u5c40\u9e7f\u5150\u5cf6\u55b6\u7e55\u4e8b\u52d9\u6240","boring_xml_url":47,"boring_view_url":1,"soilmap_view_url":null,"soiltest_xml_url":0,"soiltest_view_url":0}]}}