{"header":{"xyz":{"source":[],"mosaic":false},"page":2176,"raw":{"soiltest_result":"0","bbox":"57.598333,109.544722,1.933333,163.806111","page":"2176"},"conditions":{"soiltest_result":0,"north":57.598333,"west":109.544722,"south":1.933333,"east":163.806111},"success":true,"message":""},"data":{"meta":{"total":212844,"page":2176,"pages":7095,"count":30},"values":[{"id":289376,"code":"NGIC202000051-0001","latitude":"34.132222222222","longitude":"133.69291666667","source_code":"","project_name":"\u5e73\u621031\u5e74\u5ea6 \u9999\u5ddd\u7ba1\u5185\u5730\u4e0b\u6c34\u8abf\u67fb\u696d\u52d9","survey_name":"\u5e73\u621031\u5e74\u5ea6 \u9999\u5ddd\u7ba1\u5185\u5730\u4e0b\u6c34\u8abf\u67fb\u696d\u52d9","client_name":"\u56fd\u571f\u4ea4\u901a\u7701\u56db\u56fd\u5730\u65b9\u6574\u5099\u5c40\u9999\u5ddd\u6cb3\u5ddd\u56fd\u9053\u4e8b\u52d9\u6240","boring_xml_url":47,"boring_view_url":1,"soilmap_view_url":null,"soiltest_xml_url":47,"soiltest_view_url":47},{"id":289366,"code":"NGIC202000077-0004","latitude":"39.113261111111","longitude":"140.16338516667","source_code":"","project_name":"","survey_name":"\u9ce5\u6d77\u30c0\u30e0\u5b50\u5409\u5ddd\u5468\u8fba\u5730\u8cea\u8abf\u67fb\u696d\u52d9","client_name":"\u56fd\u571f\u4ea4\u901a\u7701\u6771\u5317\u5730\u65b9\u6574\u5099\u5c40\u9ce5\u6d77\u30c0\u30e0\u5de5\u4e8b\u4e8b\u52d9\u6240","boring_xml_url":47,"boring_view_url":1,"soilmap_view_url":null,"soiltest_xml_url":0,"soiltest_view_url":0},{"id":289365,"code":"NGIC202000077-0003","latitude":"39.113804805556","longitude":"140.16282677778","source_code":"","project_name":"","survey_name":"\u9ce5\u6d77\u30c0\u30e0\u5b50\u5409\u5ddd\u5468\u8fba\u5730\u8cea\u8abf\u67fb\u696d\u52d9","client_name":"\u56fd\u571f\u4ea4\u901a\u7701\u6771\u5317\u5730\u65b9\u6574\u5099\u5c40\u9ce5\u6d77\u30c0\u30e0\u5de5\u4e8b\u4e8b\u52d9\u6240","boring_xml_url":47,"boring_view_url":1,"soilmap_view_url":null,"soiltest_xml_url":0,"soiltest_view_url":0},{"id":289364,"code":"NGIC202000077-0002","latitude":"39.114560166667","longitude":"140.16329716667","source_code":"","project_name":"","survey_name":"\u9ce5\u6d77\u30c0\u30e0\u5b50\u5409\u5ddd\u5468\u8fba\u5730\u8cea\u8abf\u67fb\u696d\u52d9","client_name":"\u56fd\u571f\u4ea4\u901a\u7701\u6771\u5317\u5730\u65b9\u6574\u5099\u5c40\u9ce5\u6d77\u30c0\u30e0\u5de5\u4e8b\u4e8b\u52d9\u6240","boring_xml_url":47,"boring_view_url":1,"soilmap_view_url":null,"soiltest_xml_url":0,"soiltest_view_url":0},{"id":289363,"code":"NGIC202000077-0001","latitude":"39.114560166667","longitude":"140.16329716667","source_code":"","project_name":"","survey_name":"\u9ce5\u6d77\u30c0\u30e0\u5b50\u5409\u5ddd\u5468\u8fba\u5730\u8cea\u8abf\u67fb\u696d\u52d9","client_name":"\u56fd\u571f\u4ea4\u901a\u7701\u6771\u5317\u5730\u65b9\u6574\u5099\u5c40\u9ce5\u6d77\u30c0\u30e0\u5de5\u4e8b\u4e8b\u52d9\u6240","boring_xml_url":47,"boring_view_url":1,"soilmap_view_url":null,"soiltest_xml_url":0,"soiltest_view_url":0},{"id":289362,"code":"NGIC201901941-0010","latitude":"37.213944444444","longitude":"138.30938888889","source_code":"","project_name":"","survey_name":"\u4ee4\u548c\u5143\u5e74\u5ea6\u7ba1\u5185\u5730\u8cea\u8abf\u67fb\u696d\u52d9","client_name":"\u56fd\u571f\u4ea4\u901a\u7701\u5317\u9678\u5730\u65b9\u6574\u5099\u5c40\u9ad8\u7530\u6cb3\u5ddd\u56fd\u9053\u4e8b\u52d9\u6240","boring_xml_url":47,"boring_view_url":1,"soilmap_view_url":null,"soiltest_xml_url":47,"soiltest_view_url":47},{"id":289361,"code":"NGIC201901941-0009","latitude":"37.213944444444","longitude":"138.30986111111","source_code":"","project_name":"","survey_name":"\u4ee4\u548c\u5143\u5e74\u5ea6\u7ba1\u5185\u5730\u8cea\u8abf\u67fb\u696d\u52d9","client_name":"\u56fd\u571f\u4ea4\u901a\u7701\u5317\u9678\u5730\u65b9\u6574\u5099\u5c40\u9ad8\u7530\u6cb3\u5ddd\u56fd\u9053\u4e8b\u52d9\u6240","boring_xml_url":47,"boring_view_url":1,"soilmap_view_url":null,"soiltest_xml_url":47,"soiltest_view_url":47},{"id":289360,"code":"NGIC201901941-0008","latitude":"36.984894444444","longitude":"137.6632","source_code":"","project_name":"","survey_name":"\u4ee4\u548c\u5143\u5e74\u5ea6\u7ba1\u5185\u5730\u8cea\u8abf\u67fb\u696d\u52d9","client_name":"\u56fd\u571f\u4ea4\u901a\u7701\u5317\u9678\u5730\u65b9\u6574\u5099\u5c40\u9ad8\u7530\u6cb3\u5ddd\u56fd\u9053\u4e8b\u52d9\u6240","boring_xml_url":47,"boring_view_url":1,"soilmap_view_url":null,"soiltest_xml_url":0,"soiltest_view_url":0},{"id":289359,"code":"NGIC201901941-0007","latitude":"36.984883333333","longitude":"137.6632","source_code":"","project_name":"","survey_name":"\u4ee4\u548c\u5143\u5e74\u5ea6\u7ba1\u5185\u5730\u8cea\u8abf\u67fb\u696d\u52d9","client_name":"\u56fd\u571f\u4ea4\u901a\u7701\u5317\u9678\u5730\u65b9\u6574\u5099\u5c40\u9ad8\u7530\u6cb3\u5ddd\u56fd\u9053\u4e8b\u52d9\u6240","boring_xml_url":47,"boring_view_url":1,"soilmap_view_url":null,"soiltest_xml_url":0,"soiltest_view_url":0},{"id":289358,"code":"NGIC201901941-0006","latitude":"37.050555555556","longitude":"137.88402777778","source_code":"","project_name":"","survey_name":"\u4ee4\u548c\u5143\u5e74\u5ea6\u7ba1\u5185\u5730\u8cea\u8abf\u67fb\u696d\u52d9","client_name":"\u56fd\u571f\u4ea4\u901a\u7701\u5317\u9678\u5730\u65b9\u6574\u5099\u5c40\u9ad8\u7530\u6cb3\u5ddd\u56fd\u9053\u4e8b\u52d9\u6240","boring_xml_url":47,"boring_view_url":1,"soilmap_view_url":null,"soiltest_xml_url":47,"soiltest_view_url":47},{"id":289357,"code":"NGIC201901941-0005","latitude":"37.168333333333","longitude":"138.12569444444","source_code":"","project_name":"","survey_name":"\u4ee4\u548c\u5143\u5e74\u5ea6\u7ba1\u5185\u5730\u8cea\u8abf\u67fb\u696d\u52d9","client_name":"\u56fd\u571f\u4ea4\u901a\u7701\u5317\u9678\u5730\u65b9\u6574\u5099\u5c40\u9ad8\u7530\u6cb3\u5ddd\u56fd\u9053\u4e8b\u52d9\u6240","boring_xml_url":47,"boring_view_url":1,"soilmap_view_url":null,"soiltest_xml_url":0,"soiltest_view_url":0},{"id":289356,"code":"NGIC201901941-0004","latitude":"37.168138888889","longitude":"138.12555555556","source_code":"","project_name":"","survey_name":"\u4ee4\u548c\u5143\u5e74\u5ea6\u7ba1\u5185\u5730\u8cea\u8abf\u67fb\u696d\u52d9","client_name":"\u56fd\u571f\u4ea4\u901a\u7701\u5317\u9678\u5730\u65b9\u6574\u5099\u5c40\u9ad8\u7530\u6cb3\u5ddd\u56fd\u9053\u4e8b\u52d9\u6240","boring_xml_url":47,"boring_view_url":1,"soilmap_view_url":null,"soiltest_xml_url":0,"soiltest_view_url":0},{"id":289355,"code":"NGIC201901941-0003","latitude":"37.27725","longitude":"138.39672222222","source_code":"","project_name":"","survey_name":"\u4ee4\u548c\u5143\u5e74\u5ea6\u7ba1\u5185\u5730\u8cea\u8abf\u67fb\u696d\u52d9","client_name":"\u56fd\u571f\u4ea4\u901a\u7701\u5317\u9678\u5730\u65b9\u6574\u5099\u5c40\u9ad8\u7530\u6cb3\u5ddd\u56fd\u9053\u4e8b\u52d9\u6240","boring_xml_url":47,"boring_view_url":1,"soilmap_view_url":null,"soiltest_xml_url":47,"soiltest_view_url":47},{"id":289354,"code":"NGIC201901941-0002","latitude":"37.279027777778","longitude":"138.39683333333","source_code":"","project_name":"","survey_name":"\u4ee4\u548c\u5143\u5e74\u5ea6\u7ba1\u5185\u5730\u8cea\u8abf\u67fb\u696d\u52d9","client_name":"\u56fd\u571f\u4ea4\u901a\u7701\u5317\u9678\u5730\u65b9\u6574\u5099\u5c40\u9ad8\u7530\u6cb3\u5ddd\u56fd\u9053\u4e8b\u52d9\u6240","boring_xml_url":47,"boring_view_url":1,"soilmap_view_url":null,"soiltest_xml_url":47,"soiltest_view_url":47},{"id":289353,"code":"NGIC201901941-0001","latitude":"37.279","longitude":"138.397","source_code":"","project_name":"","survey_name":"\u4ee4\u548c\u5143\u5e74\u5ea6\u7ba1\u5185\u5730\u8cea\u8abf\u67fb\u696d\u52d9","client_name":"\u56fd\u571f\u4ea4\u901a\u7701\u5317\u9678\u5730\u65b9\u6574\u5099\u5c40\u9ad8\u7530\u6cb3\u5ddd\u56fd\u9053\u4e8b\u52d9\u6240","boring_xml_url":47,"boring_view_url":1,"soilmap_view_url":null,"soiltest_xml_url":47,"soiltest_view_url":47},{"id":289352,"code":"NGIC202000074-0003","latitude":"37.810680916667","longitude":"140.53777097222","source_code":"","project_name":"\n      ","survey_name":"\u76f8\u99ac\u798f\u5cf6\u9053\u8def\u6c34\u6587\u8abf\u67fb\u696d\u52d9","client_name":"\u56fd\u571f\u4ea4\u901a\u7701\u6771\u5317\u5730\u65b9\u6574\u5099\u5c40\u798f\u5cf6\u6cb3\u5ddd\u56fd\u9053\u4e8b\u52d9\u6240","boring_xml_url":47,"boring_view_url":1,"soilmap_view_url":null,"soiltest_xml_url":0,"soiltest_view_url":0},{"id":289351,"code":"NGIC202000074-0002","latitude":"37.810647888889","longitude":"140.53750911111","source_code":"","project_name":"\n      ","survey_name":"\u76f8\u99ac\u798f\u5cf6\u9053\u8def\u6c34\u6587\u8abf\u67fb\u696d\u52d9","client_name":"\u56fd\u571f\u4ea4\u901a\u7701\u6771\u5317\u5730\u65b9\u6574\u5099\u5c40\u798f\u5cf6\u6cb3\u5ddd\u56fd\u9053\u4e8b\u52d9\u6240","boring_xml_url":47,"boring_view_url":1,"soilmap_view_url":null,"soiltest_xml_url":0,"soiltest_view_url":0},{"id":289350,"code":"NGIC202000074-0001","latitude":"37.810379027778","longitude":"140.53782275","source_code":"","project_name":"\n      ","survey_name":"\u76f8\u99ac\u798f\u5cf6\u9053\u8def\u6c34\u6587\u8abf\u67fb\u696d\u52d9","client_name":"\u56fd\u571f\u4ea4\u901a\u7701\u6771\u5317\u5730\u65b9\u6574\u5099\u5c40\u798f\u5cf6\u6cb3\u5ddd\u56fd\u9053\u4e8b\u52d9\u6240","boring_xml_url":47,"boring_view_url":1,"soilmap_view_url":null,"soiltest_xml_url":0,"soiltest_view_url":0},{"id":289349,"code":"NGIC202000055-0006","latitude":"37.781061111111","longitude":"138.91419166667","source_code":"","project_name":"H31\u65b0\u6f5f\u56fd\u9053\u5730\u8cea\u8abf\u67fb\u696d\u52d9\u5358\u4fa1\u5951\u7d04","survey_name":"\u56fd\u9053116\u53f7\u62bc\u4ed8\u5730\u533a\u5730\u8cea\u8abf\u67fb\u696d\u52d9\uff08\u305d\u306e2\uff09","client_name":"\u56fd\u571f\u4ea4\u901a\u7701\u5317\u9678\u5730\u65b9\u6574\u5099\u5c40\u65b0\u6f5f\u56fd\u9053\u4e8b\u52d9\u6240","boring_xml_url":47,"boring_view_url":1,"soilmap_view_url":null,"soiltest_xml_url":0,"soiltest_view_url":0},{"id":289348,"code":"NGIC202000055-0005","latitude":"37.782608333333","longitude":"138.91644444444","source_code":"","project_name":"H31 \u65b0\u6f5f\u56fd\u9053\u5730\u8cea\u8abf\u67fb\u696d\u52d9\u5358\u4fa1\u5951\u7d04","survey_name":"\u56fd\u9053116\u53f7\u62bc\u4ed8\u5730\u533a\u5730\u8cea\u8abf\u67fb\u696d\u52d9\uff08\u305d\u306e2\uff09","client_name":"\u56fd\u571f\u4ea4\u901a\u7701\u5317\u9678\u5730\u65b9\u6574\u5099\u5c40\u65b0\u6f5f\u56fd\u9053\u4e8b\u52d9\u6240","boring_xml_url":47,"boring_view_url":1,"soilmap_view_url":null,"soiltest_xml_url":47,"soiltest_view_url":47},{"id":289347,"code":"NGIC202000055-0004","latitude":"37.783444444444","longitude":"138.91760277778","source_code":"","project_name":"H31\u65b0\u6f5f\u56fd\u9053\u5730\u8cea\u8abf\u67fb\u696d\u52d9\u5358\u4fa1\u5951\u7d04","survey_name":"\u56fd\u9053116\u53f7\u62bc\u4ed8\u5730\u533a\u5730\u8cea\u8abf\u67fb\u696d\u52d9\uff08\u305d\u306e2\uff09","client_name":"\u56fd\u571f\u4ea4\u901a\u7701\u5317\u9678\u5730\u65b9\u6574\u5099\u5c40\u65b0\u6f5f\u56fd\u9053\u4e8b\u52d9\u6240","boring_xml_url":47,"boring_view_url":1,"soilmap_view_url":null,"soiltest_xml_url":0,"soiltest_view_url":0},{"id":289346,"code":"NGIC202000054-0003","latitude":"37.785238888889","longitude":"138.92015555556","source_code":"","project_name":"H31 \u65b0\u6f5f\u56fd\u9053\u5730\u8cea\u8abf\u67fb\u696d\u52d9\u5358\u4fa1\u5951\u7d04","survey_name":"\u56fd\u9053116\u53f7\u62bc\u4ed8\u5730\u533a\u5730\u8cea\u8abf\u67fb\u696d\u52d9\uff08\u305d\u306e1\uff09","client_name":"\u56fd\u571f\u4ea4\u901a\u7701\u5317\u9678\u5730\u65b9\u6574\u5099\u5c40\u65b0\u6f5f\u56fd\u9053\u4e8b\u52d9\u6240","boring_xml_url":47,"boring_view_url":1,"soilmap_view_url":null,"soiltest_xml_url":0,"soiltest_view_url":0},{"id":289345,"code":"NGIC202000054-0002","latitude":"37.786111111111","longitude":"138.92153055556","source_code":"","project_name":"H31 \u65b0\u6f5f\u56fd\u9053\u5730\u8cea\u8abf\u67fb\u696d\u52d9\u5358\u4fa1\u5951\u7d04","survey_name":"\u56fd\u9053116\u53f7\u62bc\u4ed8\u5730\u533a\u5730\u8cea\u8abf\u67fb\u696d\u52d9\uff08\u305d\u306e1\uff09","client_name":"\u56fd\u571f\u4ea4\u901a\u7701\u5317\u9678\u5730\u65b9\u6574\u5099\u5c40\u65b0\u6f5f\u56fd\u9053\u4e8b\u52d9\u6240","boring_xml_url":47,"boring_view_url":1,"soilmap_view_url":null,"soiltest_xml_url":47,"soiltest_view_url":47},{"id":289344,"code":"NGIC202000054-0001","latitude":"37.787858333333","longitude":"138.923075","source_code":"","project_name":"H31 \u65b0\u6f5f\u56fd\u9053\u5730\u8cea\u8abf\u67fb\u696d\u52d9\u5358\u4fa1\u5951\u7d04","survey_name":"\u56fd\u9053116\u53f7\u62bc\u4ed8\u5730\u533a\u5730\u8cea\u8abf\u67fb\u696d\u52d9\uff08\u305d\u306e1\uff09","client_name":"\u56fd\u571f\u4ea4\u901a\u7701\u5317\u9678\u5730\u65b9\u6574\u5099\u5c40\u65b0\u6f5f\u56fd\u9053\u4e8b\u52d9\u6240","boring_xml_url":47,"boring_view_url":1,"soilmap_view_url":null,"soiltest_xml_url":0,"soiltest_view_url":0},{"id":289314,"code":"NGIC201902037-0004","latitude":"33.257610722222","longitude":"131.60271391667","source_code":"","project_name":"\n      ","survey_name":"\u4ee4\u548c\u5143\u5e74\u5ea6\u5927\u5206\u6e2f\u6d77\u5cb8\u571f\u8cea\u8abf\u67fb(\u7b2c6\u6b21)","client_name":"\u56fd\u571f\u4ea4\u901a\u7701\u4e5d\u5dde\u5730\u65b9\u6574\u5099\u5c40\u5225\u5e9c\u6e2f\u6e7e\u30fb\u7a7a\u6e2f\u6574\u5099\u4e8b\u52d9\u6240","boring_xml_url":47,"boring_view_url":1,"soilmap_view_url":71,"soiltest_xml_url":47,"soiltest_view_url":47},{"id":289313,"code":"NGIC201902037-0003","latitude":"33.261977611111","longitude":"131.61432452778","source_code":"","project_name":"\n      ","survey_name":"\u4ee4\u548c\u5143\u5e74\u5ea6\u5927\u5206\u6e2f\u6d77\u5cb8\u571f\u8cea\u8abf\u67fb(\u7b2c6\u6b21)","client_name":"\u56fd\u571f\u4ea4\u901a\u7701\u4e5d\u5dde\u5730\u65b9\u6574\u5099\u5c40\u5225\u5e9c\u6e2f\u6e7e\u30fb\u7a7a\u6e2f\u6574\u5099\u4e8b\u52d9\u6240","boring_xml_url":47,"boring_view_url":1,"soilmap_view_url":71,"soiltest_xml_url":47,"soiltest_view_url":47},{"id":289312,"code":"NGIC201902037-0002","latitude":"33.26027675","longitude":"131.60952066667","source_code":"","project_name":"\n      ","survey_name":"\u4ee4\u548c\u5143\u5e74\u5ea6\u5927\u5206\u6e2f\u6d77\u5cb8\u571f\u8cea\u8abf\u67fb(\u7b2c6\u6b21)","client_name":"\u56fd\u571f\u4ea4\u901a\u7701\u4e5d\u5dde\u5730\u65b9\u6574\u5099\u5c40\u5225\u5e9c\u6e2f\u6e7e\u30fb\u7a7a\u6e2f\u6574\u5099\u4e8b\u52d9\u6240","boring_xml_url":47,"boring_view_url":1,"soilmap_view_url":71,"soiltest_xml_url":47,"soiltest_view_url":47},{"id":289311,"code":"NGIC201902037-0001","latitude":"33.25632","longitude":"131.59988375","source_code":"","project_name":"\n      ","survey_name":"\u4ee4\u548c\u5143\u5e74\u5ea6\u5927\u5206\u6e2f\u6d77\u5cb8\u571f\u8cea\u8abf\u67fb(\u7b2c6\u6b21)","client_name":"\u56fd\u571f\u4ea4\u901a\u7701\u4e5d\u5dde\u5730\u65b9\u6574\u5099\u5c40\u5225\u5e9c\u6e2f\u6e7e\u30fb\u7a7a\u6e2f\u6574\u5099\u4e8b\u52d9\u6240","boring_xml_url":47,"boring_view_url":1,"soilmap_view_url":71,"soiltest_xml_url":47,"soiltest_view_url":47},{"id":289306,"code":"NGIC202000057-0025","latitude":"35.137916666667","longitude":"138.85694444444","source_code":"","project_name":"","survey_name":"\u4ee4\u548c\u5143\u5e74\u5ea6\u6771\u99ff\u6cb3\u6e7e\uff08\u6cbc\u6d25\u5ca1\u5bae\u30fb\u611b\u9df9\uff09\u5730\u8cea\u8abf\u67fb\u696d\u52d9","client_name":"\u56fd\u571f\u4ea4\u901a\u7701\u4e2d\u90e8\u5730\u65b9\u6574\u5099\u5c40\u6cbc\u6d25\u6cb3\u5ddd\u56fd\u9053\u4e8b\u52d9\u6240","boring_xml_url":47,"boring_view_url":1,"soilmap_view_url":null,"soiltest_xml_url":47,"soiltest_view_url":47},{"id":289305,"code":"NGIC202000057-0024","latitude":"35.138388888889","longitude":"138.85783333333","source_code":"","project_name":"","survey_name":"\u4ee4\u548c\u5143\u5e74\u5ea6\u6771\u99ff\u6cb3\u6e7e\uff08\u6cbc\u6d25\u5ca1\u5bae\u30fb\u611b\u9df9\uff09\u5730\u8cea\u8abf\u67fb\u696d\u52d9","client_name":"\u56fd\u571f\u4ea4\u901a\u7701\u4e2d\u90e8\u5730\u65b9\u6574\u5099\u5c40\u6cbc\u6d25\u6cb3\u5ddd\u56fd\u9053\u4e8b\u52d9\u6240","boring_xml_url":47,"boring_view_url":1,"soilmap_view_url":null,"soiltest_xml_url":47,"soiltest_view_url":47}]}}