{"header":{"xyz":{"source":[],"mosaic":false},"page":2183,"raw":{"soiltest_result":"0","bbox":"57.598333,109.544722,1.933333,163.806111","page":"2183"},"conditions":{"soiltest_result":0,"north":57.598333,"west":109.544722,"south":1.933333,"east":163.806111},"success":true,"message":""},"data":{"meta":{"total":212844,"page":2183,"pages":7095,"count":30},"values":[{"id":288920,"code":"NGIC201901947-0008","latitude":"36.514916666667","longitude":"140.47041666667","source_code":"","project_name":"R1\u90a3\u73c2\u5ddd\u6c34\u6238\u4e2d\u6d41\u7ba1\u5185\u7dca\u6025\u5730\u8cea\u8abf\u67fb\u696d\u52d9","survey_name":"R1\u90a3\u73c2\u5ddd\u6c34\u6238\u4e2d\u6d41\u7ba1\u5185\u7dca\u6025\u5730\u8cea\u8abf\u67fb\u696d\u52d9","client_name":"\u56fd\u571f\u4ea4\u901a\u7701\u95a2\u6771\u5730\u65b9\u6574\u5099\u5c40\u5e38\u9678\u6cb3\u5ddd\u56fd\u9053\u4e8b\u52d9\u6240","boring_xml_url":47,"boring_view_url":1,"soilmap_view_url":null,"soiltest_xml_url":47,"soiltest_view_url":47},{"id":288919,"code":"NGIC201901947-0007","latitude":"36.515083333333","longitude":"140.47025","source_code":"","project_name":"R1\u90a3\u73c2\u5ddd\u6c34\u6238\u4e2d\u6d41\u7ba1\u5185\u7dca\u6025\u5730\u8cea\u8abf\u67fb\u696d\u52d9","survey_name":"R1\u90a3\u73c2\u5ddd\u6c34\u6238\u4e2d\u6d41\u7ba1\u5185\u7dca\u6025\u5730\u8cea\u8abf\u67fb\u696d\u52d9","client_name":"\u56fd\u571f\u4ea4\u901a\u7701\u95a2\u6771\u5730\u65b9\u6574\u5099\u5c40\u5e38\u9678\u6cb3\u5ddd\u56fd\u9053\u4e8b\u52d9\u6240","boring_xml_url":47,"boring_view_url":1,"soilmap_view_url":null,"soiltest_xml_url":47,"soiltest_view_url":47},{"id":288918,"code":"NGIC201901947-0006","latitude":"36.5105","longitude":"140.47394444444","source_code":"","project_name":"R1\u90a3\u73c2\u5ddd\u6c34\u6238\u4e2d\u6d41\u7ba1\u5185\u7dca\u6025\u5730\u8cea\u8abf\u67fb\u696d\u52d9","survey_name":"R1\u90a3\u73c2\u5ddd\u6c34\u6238\u4e2d\u6d41\u7ba1\u5185\u7dca\u6025\u5730\u8cea\u8abf\u67fb\u696d\u52d9","client_name":"\u56fd\u571f\u4ea4\u901a\u7701\u95a2\u6771\u5730\u65b9\u6574\u5099\u5c40\u5e38\u9678\u6cb3\u5ddd\u56fd\u9053\u4e8b\u52d9\u6240","boring_xml_url":47,"boring_view_url":1,"soilmap_view_url":null,"soiltest_xml_url":47,"soiltest_view_url":47},{"id":288917,"code":"NGIC201901947-0005","latitude":"36.509638888889","longitude":"140.47419444444","source_code":"","project_name":"R1\u90a3\u73c2\u5ddd\u6c34\u6238\u4e2d\u6d41\u7ba1\u5185\u7dca\u6025\u5730\u8cea\u8abf\u67fb\u696d\u52d9","survey_name":"R1\u90a3\u73c2\u5ddd\u6c34\u6238\u4e2d\u6d41\u7ba1\u5185\u7dca\u6025\u5730\u8cea\u8abf\u67fb\u696d\u52d9","client_name":"\u56fd\u571f\u4ea4\u901a\u7701\u95a2\u6771\u5730\u65b9\u6574\u5099\u5c40\u5e38\u9678\u6cb3\u5ddd\u56fd\u9053\u4e8b\u52d9\u6240","boring_xml_url":47,"boring_view_url":1,"soilmap_view_url":null,"soiltest_xml_url":47,"soiltest_view_url":47},{"id":288916,"code":"NGIC201901947-0004","latitude":"36.510111111111","longitude":"140.47386111111","source_code":"","project_name":"R1\u90a3\u73c2\u5ddd\u6c34\u6238\u4e2d\u6d41\u7ba1\u5185\u7dca\u6025\u5730\u8cea\u8abf\u67fb\u696d\u52d9","survey_name":"R1\u90a3\u73c2\u5ddd\u6c34\u6238\u4e2d\u6d41\u7ba1\u5185\u7dca\u6025\u5730\u8cea\u8abf\u67fb\u696d\u52d9","client_name":"\u56fd\u571f\u4ea4\u901a\u7701\u95a2\u6771\u5730\u65b9\u6574\u5099\u5c40\u5e38\u9678\u6cb3\u5ddd\u56fd\u9053\u4e8b\u52d9\u6240","boring_xml_url":47,"boring_view_url":1,"soilmap_view_url":null,"soiltest_xml_url":47,"soiltest_view_url":47},{"id":288915,"code":"NGIC201901947-0003","latitude":"36.369277777778","longitude":"140.49572222222","source_code":"","project_name":"R1\u90a3\u73c2\u5ddd\u6c34\u6238\u4e2d\u6d41\u7ba1\u5185\u7dca\u6025\u5730\u8cea\u8abf\u67fb\u696d\u52d9","survey_name":"R1\u90a3\u73c2\u5ddd\u6c34\u6238\u4e2d\u6d41\u7ba1\u5185\u7dca\u6025\u5730\u8cea\u8abf\u67fb\u696d\u52d9","client_name":"\u56fd\u571f\u4ea4\u901a\u7701\u95a2\u6771\u5730\u65b9\u6574\u5099\u5c40\u5e38\u9678\u6cb3\u5ddd\u56fd\u9053\u4e8b\u52d9\u6240","boring_xml_url":47,"boring_view_url":1,"soilmap_view_url":null,"soiltest_xml_url":47,"soiltest_view_url":47},{"id":288914,"code":"NGIC201901947-0002","latitude":"36.372527777778","longitude":"140.51227777778","source_code":"","project_name":"R1\u90a3\u73c2\u5ddd\u6c34\u6238\u4e2d\u6d41\u7ba1\u5185\u7dca\u6025\u5730\u8cea\u8abf\u67fb\u696d\u52d9","survey_name":"R1\u90a3\u73c2\u5ddd\u6c34\u6238\u4e2d\u6d41\u7ba1\u5185\u7dca\u6025\u5730\u8cea\u8abf\u67fb\u696d\u52d9","client_name":"\u56fd\u571f\u4ea4\u901a\u7701\u95a2\u6771\u5730\u65b9\u6574\u5099\u5c40\u5e38\u9678\u6cb3\u5ddd\u56fd\u9053\u4e8b\u52d9\u6240","boring_xml_url":47,"boring_view_url":1,"soilmap_view_url":null,"soiltest_xml_url":47,"soiltest_view_url":47},{"id":288913,"code":"NGIC201901947-0001","latitude":"36.371583333333","longitude":"140.51391666667","source_code":"","project_name":"R1\u90a3\u73c2\u5ddd\u6c34\u6238\u4e2d\u6d41\u7ba1\u5185\u7dca\u6025\u5730\u8cea\u8abf\u67fb\u696d\u52d9","survey_name":"R1\u90a3\u73c2\u5ddd\u6c34\u6238\u4e2d\u6d41\u7ba1\u5185\u7dca\u6025\u5730\u8cea\u8abf\u67fb\u696d\u52d9","client_name":"\u56fd\u571f\u4ea4\u901a\u7701\u95a2\u6771\u5730\u65b9\u6574\u5099\u5c40\u5e38\u9678\u6cb3\u5ddd\u56fd\u9053\u4e8b\u52d9\u6240","boring_xml_url":47,"boring_view_url":1,"soilmap_view_url":null,"soiltest_xml_url":47,"soiltest_view_url":47},{"id":288912,"code":"NGIC201902035-0001","latitude":"34.219363888889","longitude":"135.834525","source_code":"","project_name":"","survey_name":"\u5927\u898f\u6a21\u5d29\u58ca\u659c\u9762\u7b87\u6240\u659c\u9762\u76e3\u8996\u89b3\u6e2c\u8abf\u67fb\u696d\u52d9","client_name":"\u56fd\u571f\u4ea4\u901a\u7701\u8fd1\u757f\u5730\u65b9\u6574\u5099\u5c40\u7d00\u4f0a\u5c71\u7cfb\u7802\u9632\u4e8b\u52d9\u6240","boring_xml_url":47,"boring_view_url":1,"soilmap_view_url":null,"soiltest_xml_url":0,"soiltest_view_url":0},{"id":288911,"code":"NGIC201902020-0003","latitude":"38.891086111111","longitude":"141.26571666667","source_code":"","project_name":"\u4ee4\u548c\u5143\u5e74\u5ea6 \u5317\u4e0a\u5ddd\u4e0a\u6d41\u6cb3\u5ddd\u69cb\u9020\u7269\u8a2d\u8a08\u7b49\u696d\u52d9","survey_name":"\u4ee4\u548c\u5143\u5e74\u5ea6 \u5317\u4e0a\u5ddd\u4e0a\u6d41\u6cb3\u5ddd\u69cb\u9020\u7269\u8a2d\u8a08\u7b49\u696d\u52d9","client_name":"\u56fd\u571f\u4ea4\u901a\u7701\u6771\u5317\u5730\u65b9\u6574\u5099\u5c40\u5ca9\u624b\u6cb3\u5ddd\u56fd\u9053\u4e8b\u52d9\u6240","boring_xml_url":47,"boring_view_url":1,"soilmap_view_url":null,"soiltest_xml_url":0,"soiltest_view_url":0},{"id":288910,"code":"NGIC201902020-0002","latitude":"39.309166666667","longitude":"141.15280555556","source_code":"","project_name":"\u4ee4\u548c\u5143\u5e74\u5ea6 \u5317\u4e0a\u5ddd\u4e0a\u6d41\u6cb3\u5ddd\u69cb\u9020\u7269\u8a2d\u8a08\u7b49\u696d\u52d9","survey_name":"\u4ee4\u548c\u5143\u5e74\u5ea6 \u5317\u4e0a\u5ddd\u4e0a\u6d41\u6cb3\u5ddd\u69cb\u9020\u7269\u8a2d\u8a08\u7b49\u696d\u52d9","client_name":"\u56fd\u571f\u4ea4\u901a\u7701\u6771\u5317\u5730\u65b9\u6574\u5099\u5c40\u5ca9\u624b\u6cb3\u5ddd\u56fd\u9053\u4e8b\u52d9\u6240","boring_xml_url":47,"boring_view_url":1,"soilmap_view_url":null,"soiltest_xml_url":47,"soiltest_view_url":47},{"id":288909,"code":"NGIC201902020-0001","latitude":"39.306169444444","longitude":"141.15121666667","source_code":"","project_name":"\u4ee4\u548c\u5143\u5e74\u5ea6 \u5317\u4e0a\u5ddd\u4e0a\u6d41\u6cb3\u5ddd\u69cb\u9020\u7269\u8a2d\u8a08\u7b49\u696d\u52d9","survey_name":"\u4ee4\u548c\u5143\u5e74\u5ea6 \u5317\u4e0a\u5ddd\u4e0a\u6d41\u6cb3\u5ddd\u69cb\u9020\u7269\u8a2d\u8a08\u7b49\u696d\u52d9","client_name":"\u56fd\u571f\u4ea4\u901a\u7701\u6771\u5317\u5730\u65b9\u6574\u5099\u5c40\u5ca9\u624b\u6cb3\u5ddd\u56fd\u9053\u4e8b\u52d9\u6240","boring_xml_url":47,"boring_view_url":1,"soilmap_view_url":null,"soiltest_xml_url":47,"soiltest_view_url":47},{"id":288908,"code":"NGIC201902054-0002","latitude":"37.823611111111","longitude":"138.925","source_code":"","project_name":"H31\u65b0\u6f5f\u56fd\u9053\u5730\u8cea\u8abf\u67fb\u5358\u4fa1\u5951\u7d04","survey_name":"\u56fd\u9053116\u53f7\u65b0\u6f5f\u897f\u9053\u8def\u5730\u8cea\u8abf\u67fb\u696d\u52d9","client_name":"\u56fd\u571f\u4ea4\u901a\u7701\u5317\u9678\u5730\u65b9\u6574\u5099\u5c40\u65b0\u6f5f\u56fd\u9053\u4e8b\u52d9\u6240","boring_xml_url":47,"boring_view_url":1,"soilmap_view_url":null,"soiltest_xml_url":47,"soiltest_view_url":47},{"id":288907,"code":"NGIC201902054-0001","latitude":"37.821388888889","longitude":"138.92444444444","source_code":"","project_name":"H31\u65b0\u6f5f\u56fd\u9053\u5730\u8cea\u8abf\u67fb\u5358\u4fa1\u5951\u7d04","survey_name":"\u56fd\u9053116\u53f7\u65b0\u6f5f\u897f\u9053\u8def\u5730\u8cea\u8abf\u67fb\u696d\u52d9","client_name":"\u56fd\u571f\u4ea4\u901a\u7701\u5317\u9678\u5730\u65b9\u6574\u5099\u5c40\u65b0\u6f5f\u56fd\u9053\u4e8b\u52d9\u6240","boring_xml_url":47,"boring_view_url":1,"soilmap_view_url":null,"soiltest_xml_url":47,"soiltest_view_url":47},{"id":288906,"code":"NGIC201902050-0003","latitude":"38.066694444444","longitude":"140.81172222222","source_code":"","project_name":"\u5e73\u621031\u5e74\u5ea6 \u963f\u6b66\u9688\u5ddd\u4e0b\u6d41\u5ca9\u6cbc\u7ba1\u5185\u6cb3\u9053\u6574\u5099\u6e2c\u91cf\u8a2d\u8a08\u696d\u52d9","survey_name":"\u5e73\u621031\u5e74\u5ea6 \u963f\u6b66\u9688\u5ddd\u4e0b\u6d41\u5ca9\u6cbc\u7ba1\u5185\u6cb3\u9053\u6574\u5099\u6e2c\u91cf\u8a2d\u8a08\u696d\u52d9","client_name":"\u56fd\u571f\u4ea4\u901a\u7701\u6771\u5317\u5730\u65b9\u6574\u5099\u5c40\u4ed9\u53f0\u6cb3\u5ddd\u56fd\u9053\u4e8b\u52d9\u6240","boring_xml_url":47,"boring_view_url":1,"soilmap_view_url":null,"soiltest_xml_url":0,"soiltest_view_url":0},{"id":288905,"code":"NGIC201902050-0002","latitude":"38.066611111111","longitude":"140.81166666667","source_code":"","project_name":"\u5e73\u621031\u5e74\u5ea6 \u963f\u6b66\u9688\u5ddd\u4e0b\u6d41\u5ca9\u6cbc\u7ba1\u5185\u6cb3\u9053\u6574\u5099\u6e2c\u91cf\u8a2d\u8a08\u696d\u52d9","survey_name":"\u5e73\u621031\u5e74\u5ea6 \u963f\u6b66\u9688\u5ddd\u4e0b\u6d41\u5ca9\u6cbc\u7ba1\u5185\u6cb3\u9053\u6574\u5099\u6e2c\u91cf\u8a2d\u8a08\u696d\u52d9","client_name":"\u56fd\u571f\u4ea4\u901a\u7701\u6771\u5317\u5730\u65b9\u6574\u5099\u5c40\u4ed9\u53f0\u6cb3\u5ddd\u56fd\u9053\u4e8b\u52d9\u6240","boring_xml_url":47,"boring_view_url":1,"soilmap_view_url":null,"soiltest_xml_url":47,"soiltest_view_url":47},{"id":288904,"code":"NGIC201902050-0001","latitude":"38.0705","longitude":"140.811","source_code":"","project_name":"\u5e73\u621031\u5e74\u5ea6 \u963f\u6b66\u9688\u5ddd\u4e0b\u6d41\u5ca9\u6cbc\u7ba1\u5185\u6cb3\u9053\u6574\u5099\u6e2c\u91cf\u8a2d\u8a08\u696d\u52d9","survey_name":"\u5e73\u621031\u5e74\u5ea6 \u963f\u6b66\u9688\u5ddd\u4e0b\u6d41\u5ca9\u6cbc\u7ba1\u5185\u6cb3\u9053\u6574\u5099\u6e2c\u91cf\u8a2d\u8a08\u696d\u52d9","client_name":"\u56fd\u571f\u4ea4\u901a\u7701\u6771\u5317\u5730\u65b9\u6574\u5099\u5c40\u4ed9\u53f0\u6cb3\u5ddd\u56fd\u9053\u4e8b\u52d9\u6240","boring_xml_url":47,"boring_view_url":1,"soilmap_view_url":null,"soiltest_xml_url":47,"soiltest_view_url":47},{"id":288903,"code":"NGIC201902055-0001","latitude":"37.49075","longitude":"138.84705555556","source_code":"","project_name":"","survey_name":"\u5e73\u621031\u5e74\u5ea6\u4fe1\u6fc3\u5ddd\u6cb3\u5ddd\u4e8b\u52d9\u6240\u7ba1\u5185\u5730\u8cea\u8abf\u67fb\u696d\u52d9","client_name":"\u56fd\u571f\u4ea4\u901a\u7701\u5317\u9678\u5730\u65b9\u6574\u5099\u5c40\u4fe1\u6fc3\u5ddd\u6cb3\u5ddd\u4e8b\u52d9\u6240","boring_xml_url":47,"boring_view_url":1,"soilmap_view_url":null,"soiltest_xml_url":0,"soiltest_view_url":0},{"id":288902,"code":"NGIC201902047-0006","latitude":"39.520716666667","longitude":"140.06016111111","source_code":"","project_name":"\n      ","survey_name":"\u79cb\u7530\u6cb3\u5ddd\u56fd\u9053\u7ba1\u5185\u6cd5\u9762\u89b3\u6e2c\u696d\u52d9","client_name":"\u56fd\u571f\u4ea4\u901a\u7701\u6771\u5317\u5730\u65b9\u6574\u5099\u5c40\u79cb\u7530\u6cb3\u5ddd\u56fd\u9053\u4e8b\u52d9\u6240","boring_xml_url":47,"boring_view_url":1,"soilmap_view_url":null,"soiltest_xml_url":0,"soiltest_view_url":0},{"id":288901,"code":"NGIC201902047-0005","latitude":"39.52073","longitude":"140.060165","source_code":"","project_name":"\n      ","survey_name":"\u79cb\u7530\u6cb3\u5ddd\u56fd\u9053\u7ba1\u5185\u6cd5\u9762\u89b3\u6e2c\u696d\u52d9","client_name":"\u56fd\u571f\u4ea4\u901a\u7701\u6771\u5317\u5730\u65b9\u6574\u5099\u5c40\u79cb\u7530\u6cb3\u5ddd\u56fd\u9053\u4e8b\u52d9\u6240","boring_xml_url":47,"boring_view_url":1,"soilmap_view_url":null,"soiltest_xml_url":47,"soiltest_view_url":47},{"id":288900,"code":"NGIC201902047-0004","latitude":"39.520452777778","longitude":"140.06005833333","source_code":"","project_name":"\n      ","survey_name":"\u79cb\u7530\u6cb3\u5ddd\u56fd\u9053\u7ba1\u5185\u6cd5\u9762\u89b3\u6e2c\u696d\u52d9","client_name":"\u56fd\u571f\u4ea4\u901a\u7701\u6771\u5317\u5730\u65b9\u6574\u5099\u5c40\u79cb\u7530\u6cb3\u5ddd\u56fd\u9053\u4e8b\u52d9\u6240","boring_xml_url":47,"boring_view_url":1,"soilmap_view_url":null,"soiltest_xml_url":0,"soiltest_view_url":0},{"id":288899,"code":"NGIC201902047-0003","latitude":"39.520465","longitude":"140.060065","source_code":"","project_name":"\n      ","survey_name":"\u79cb\u7530\u6cb3\u5ddd\u56fd\u9053\u7ba1\u5185\u6cd5\u9762\u89b3\u6e2c\u696d\u52d9","client_name":"\u56fd\u571f\u4ea4\u901a\u7701\u6771\u5317\u5730\u65b9\u6574\u5099\u5c40\u79cb\u7530\u6cb3\u5ddd\u56fd\u9053\u4e8b\u52d9\u6240","boring_xml_url":47,"boring_view_url":1,"soilmap_view_url":null,"soiltest_xml_url":47,"soiltest_view_url":47},{"id":288898,"code":"NGIC201902047-0002","latitude":"39.520422222222","longitude":"140.05993055556","source_code":"","project_name":"\n      ","survey_name":"\u79cb\u7530\u6cb3\u5ddd\u56fd\u9053\u7ba1\u5185\u6cd5\u9762\u89b3\u6e2c\u696d\u52d9","client_name":"\u56fd\u571f\u4ea4\u901a\u7701\u6771\u5317\u5730\u65b9\u6574\u5099\u5c40\u79cb\u7530\u6cb3\u5ddd\u56fd\u9053\u4e8b\u52d9\u6240","boring_xml_url":47,"boring_view_url":1,"soilmap_view_url":null,"soiltest_xml_url":0,"soiltest_view_url":0},{"id":288897,"code":"NGIC201902047-0001","latitude":"39.520443833333","longitude":"140.05992683333","source_code":"","project_name":"\n      ","survey_name":"\u79cb\u7530\u6cb3\u5ddd\u56fd\u9053\u7ba1\u5185\u6cd5\u9762\u89b3\u6e2c\u696d\u52d9","client_name":"\u56fd\u571f\u4ea4\u901a\u7701\u6771\u5317\u5730\u65b9\u6574\u5099\u5c40\u79cb\u7530\u6cb3\u5ddd\u56fd\u9053\u4e8b\u52d9\u6240","boring_xml_url":47,"boring_view_url":1,"soilmap_view_url":null,"soiltest_xml_url":47,"soiltest_view_url":47},{"id":288896,"code":"NGIC201902013-0004","latitude":"42.664961111111","longitude":"141.66358888889","source_code":"","project_name":"\n      ","survey_name":"\u30a4\u30f3\u30d5\u30e9\u65bd\u8a2d\u306e\u6db2\u72b6\u5316\u8a55\u4fa1\u306e\u305f\u3081\u306e3\u6b21\u5143\u5730\u76e4\u69cb\u9020\u30e2\u30c7\u30eb\u306e\u4f5c\u6210\u624b\u6cd5\u306e\u958b\u767a","client_name":"\u56fd\u571f\u4ea4\u901a\u7701\u672c\u5c40\u56fd\u571f\u6280\u8853\u653f\u7b56\u7dcf\u5408\u7814\u7a76\u6240 \u4f01\u753b\u90e8","boring_xml_url":47,"boring_view_url":1,"soilmap_view_url":null,"soiltest_xml_url":47,"soiltest_view_url":47},{"id":288895,"code":"NGIC201902013-0003","latitude":"42.664961111111","longitude":"141.66358888889","source_code":"","project_name":"\n      ","survey_name":"\u30a4\u30f3\u30d5\u30e9\u65bd\u8a2d\u306e\u6db2\u72b6\u5316\u8a55\u4fa1\u306e\u305f\u3081\u306e3\u6b21\u5143\u5730\u76e4\u69cb\u9020\u30e2\u30c7\u30eb\u306e\u4f5c\u6210\u624b\u6cd5\u306e\u958b\u767a","client_name":"\u56fd\u571f\u4ea4\u901a\u7701\u672c\u5c40\u56fd\u571f\u6280\u8853\u653f\u7b56\u7dcf\u5408\u7814\u7a76\u6240 \u4f01\u753b\u90e8","boring_xml_url":47,"boring_view_url":1,"soilmap_view_url":null,"soiltest_xml_url":47,"soiltest_view_url":47},{"id":288894,"code":"NGIC201902013-0002","latitude":"42.634419444444","longitude":"141.60962777778","source_code":"","project_name":"\n      ","survey_name":"\u30a4\u30f3\u30d5\u30e9\u65bd\u8a2d\u306e\u6db2\u72b6\u5316\u8a55\u4fa1\u306e\u305f\u3081\u306e3\u6b21\u5143\u5730\u76e4\u69cb\u9020\u30e2\u30c7\u30eb\u306e\u4f5c\u6210\u624b\u6cd5\u306e\u958b\u767a","client_name":"\u56fd\u571f\u4ea4\u901a\u7701\u672c\u5c40\u56fd\u571f\u6280\u8853\u653f\u7b56\u7dcf\u5408\u7814\u7a76\u6240 \u4f01\u753b\u90e8","boring_xml_url":47,"boring_view_url":1,"soilmap_view_url":null,"soiltest_xml_url":47,"soiltest_view_url":47},{"id":288893,"code":"NGIC201902013-0001","latitude":"42.634419444444","longitude":"141.60962777778","source_code":"","project_name":"\n      ","survey_name":"\u30a4\u30f3\u30d5\u30e9\u65bd\u8a2d\u306e\u6db2\u72b6\u5316\u8a55\u4fa1\u306e\u305f\u3081\u306e3\u6b21\u5143\u5730\u76e4\u69cb\u9020\u30e2\u30c7\u30eb\u306e\u4f5c\u6210\u624b\u6cd5\u306e\u958b\u767a","client_name":"\u56fd\u571f\u4ea4\u901a\u7701\u672c\u5c40\u56fd\u571f\u6280\u8853\u653f\u7b56\u7dcf\u5408\u7814\u7a76\u6240 \u4f01\u753b\u90e8","boring_xml_url":47,"boring_view_url":1,"soilmap_view_url":null,"soiltest_xml_url":47,"soiltest_view_url":47},{"id":288882,"code":"NGIC201902039-0002","latitude":"36.360363222222","longitude":"138.31776438889","source_code":"","project_name":"R1\u5e02\u9053\u767d\u9ce5\u795e\u793e\u7dda\u9053\u8def\u6539\u826f\u4ed6\u7dca\u6025\u5fa9\u65e7\u5de5\u4e8b","survey_name":"\u6d77\u91ce\u5bbf\u707d\u5bb3\u8abf\u67fb","client_name":"\u56fd\u571f\u4ea4\u901a\u7701\u95a2\u6771\u5730\u65b9\u6574\u5099\u5c40\u9577\u91ce\u56fd\u9053\u4e8b\u52d9\u6240","boring_xml_url":47,"boring_view_url":1,"soilmap_view_url":null,"soiltest_xml_url":0,"soiltest_view_url":0},{"id":288881,"code":"NGIC201902039-0001","latitude":"36.360487194444","longitude":"138.318807","source_code":"","project_name":"R1\u5e02\u9053\u767d\u9ce5\u795e\u793e\u7dda\u9053\u8def\u6539\u826f\u4ed6\u7dca\u6025\u5fa9\u65e7\u5de5\u4e8b","survey_name":"\u6d77\u91ce\u5bbf\u707d\u5bb3\u8abf\u67fb","client_name":"\u56fd\u571f\u4ea4\u901a\u7701\u95a2\u6771\u5730\u65b9\u6574\u5099\u5c40\u9577\u91ce\u56fd\u9053\u4e8b\u52d9\u6240","boring_xml_url":47,"boring_view_url":1,"soilmap_view_url":null,"soiltest_xml_url":0,"soiltest_view_url":0}]}}