{"header":{"xyz":{"source":[],"mosaic":false},"page":2187,"raw":{"soiltest_result":"0","bbox":"57.598333,109.544722,1.933333,163.806111","page":"2187"},"conditions":{"soiltest_result":0,"north":57.598333,"west":109.544722,"south":1.933333,"east":163.806111},"success":true,"message":""},"data":{"meta":{"total":212844,"page":2187,"pages":7095,"count":30},"values":[{"id":288751,"code":"NGIC201902040-0010","latitude":"32.703236861111","longitude":"131.26456533333","source_code":"","project_name":"","survey_name":"\u5e73\u621031\u5e74\u5ea6\u4e94\u30f6\u702c\u9ad8\u5343\u7a42\u9053\u8def\u62bc\u65b9\u5730\u533a\u5730\u8cea\u8abf\u67fb\u696d\u52d9","client_name":"\u56fd\u571f\u4ea4\u901a\u7701\u4e5d\u5dde\u5730\u65b9\u6574\u5099\u5c40\u5ef6\u5ca1\u6cb3\u5ddd\u56fd\u9053\u4e8b\u52d9\u6240","boring_xml_url":47,"boring_view_url":1,"soilmap_view_url":null,"soiltest_xml_url":0,"soiltest_view_url":0},{"id":288750,"code":"NGIC201902040-0009","latitude":"32.702686194444","longitude":"131.26365936111","source_code":"","project_name":"","survey_name":"\u5e73\u621031\u5e74\u5ea6\u4e94\u30f6\u702c\u9ad8\u5343\u7a42\u9053\u8def\u62bc\u65b9\u5730\u533a\u5730\u8cea\u8abf\u67fb\u696d\u52d9","client_name":"\u56fd\u571f\u4ea4\u901a\u7701\u4e5d\u5dde\u5730\u65b9\u6574\u5099\u5c40\u5ef6\u5ca1\u6cb3\u5ddd\u56fd\u9053\u4e8b\u52d9\u6240","boring_xml_url":47,"boring_view_url":1,"soilmap_view_url":null,"soiltest_xml_url":0,"soiltest_view_url":0},{"id":288749,"code":"NGIC201902040-0008","latitude":"32.702979111111","longitude":"131.26355222222","source_code":"","project_name":"","survey_name":"\u5e73\u621031\u5e74\u5ea6\u4e94\u30f6\u702c\u9ad8\u5343\u7a42\u9053\u8def\u62bc\u65b9\u5730\u533a\u5730\u8cea\u8abf\u67fb\u696d\u52d9","client_name":"\u56fd\u571f\u4ea4\u901a\u7701\u4e5d\u5dde\u5730\u65b9\u6574\u5099\u5c40\u5ef6\u5ca1\u6cb3\u5ddd\u56fd\u9053\u4e8b\u52d9\u6240","boring_xml_url":47,"boring_view_url":1,"soilmap_view_url":null,"soiltest_xml_url":0,"soiltest_view_url":0},{"id":288748,"code":"NGIC201902040-0007","latitude":"32.701690694444","longitude":"131.25889922222","source_code":"","project_name":"","survey_name":"\u5e73\u621031\u5e74\u5ea6\u4e94\u30f6\u702c\u9ad8\u5343\u7a42\u9053\u8def\u62bc\u65b9\u5730\u533a\u5730\u8cea\u8abf\u67fb\u696d\u52d9","client_name":"\u56fd\u571f\u4ea4\u901a\u7701\u4e5d\u5dde\u5730\u65b9\u6574\u5099\u5c40\u5ef6\u5ca1\u6cb3\u5ddd\u56fd\u9053\u4e8b\u52d9\u6240","boring_xml_url":47,"boring_view_url":1,"soilmap_view_url":null,"soiltest_xml_url":0,"soiltest_view_url":0},{"id":288747,"code":"NGIC201902040-0006","latitude":"32.701978777778","longitude":"131.25883547222","source_code":"","project_name":"","survey_name":"\u5e73\u621031\u5e74\u5ea6\u4e94\u30f6\u702c\u9ad8\u5343\u7a42\u9053\u8def\u62bc\u65b9\u5730\u533a\u5730\u8cea\u8abf\u67fb\u696d\u52d9","client_name":"\u56fd\u571f\u4ea4\u901a\u7701\u4e5d\u5dde\u5730\u65b9\u6574\u5099\u5c40\u5ef6\u5ca1\u6cb3\u5ddd\u56fd\u9053\u4e8b\u52d9\u6240","boring_xml_url":47,"boring_view_url":1,"soilmap_view_url":null,"soiltest_xml_url":0,"soiltest_view_url":0},{"id":288746,"code":"NGIC201902040-0005","latitude":"32.701031333333","longitude":"131.25816413889","source_code":"","project_name":"","survey_name":"\u5e73\u621031\u5e74\u5ea6\u4e94\u30f6\u702c\u9ad8\u5343\u7a42\u9053\u8def\u62bc\u65b9\u5730\u533a\u5730\u8cea\u8abf\u67fb\u696d\u52d9","client_name":"\u56fd\u571f\u4ea4\u901a\u7701\u4e5d\u5dde\u5730\u65b9\u6574\u5099\u5c40\u5ef6\u5ca1\u6cb3\u5ddd\u56fd\u9053\u4e8b\u52d9\u6240","boring_xml_url":47,"boring_view_url":1,"soilmap_view_url":null,"soiltest_xml_url":0,"soiltest_view_url":0},{"id":288745,"code":"NGIC201902040-0004","latitude":"32.701535888889","longitude":"131.2578485","source_code":"","project_name":"","survey_name":"\u5e73\u621031\u5e74\u5ea6\u4e94\u30f6\u702c\u9ad8\u5343\u7a42\u9053\u8def\u62bc\u65b9\u5730\u533a\u5730\u8cea\u8abf\u67fb\u696d\u52d9","client_name":"\u56fd\u571f\u4ea4\u901a\u7701\u4e5d\u5dde\u5730\u65b9\u6574\u5099\u5c40\u5ef6\u5ca1\u6cb3\u5ddd\u56fd\u9053\u4e8b\u52d9\u6240","boring_xml_url":47,"boring_view_url":1,"soilmap_view_url":null,"soiltest_xml_url":0,"soiltest_view_url":0},{"id":288744,"code":"NGIC201902040-0003","latitude":"32.701810527778","longitude":"131.25758186111","source_code":"","project_name":"","survey_name":"\u5e73\u621031\u5e74\u5ea6\u4e94\u30f6\u702c\u9ad8\u5343\u7a42\u9053\u8def\u62bc\u65b9\u5730\u533a\u5730\u8cea\u8abf\u67fb\u696d\u52d9","client_name":"\u56fd\u571f\u4ea4\u901a\u7701\u4e5d\u5dde\u5730\u65b9\u6574\u5099\u5c40\u5ef6\u5ca1\u6cb3\u5ddd\u56fd\u9053\u4e8b\u52d9\u6240","boring_xml_url":47,"boring_view_url":1,"soilmap_view_url":null,"soiltest_xml_url":47,"soiltest_view_url":47},{"id":288743,"code":"NGIC201902040-0002","latitude":"32.697877222222","longitude":"131.24600116667","source_code":"","project_name":"","survey_name":"\u5e73\u621031\u5e74\u5ea6\u4e94\u30f6\u702c\u9ad8\u5343\u7a42\u9053\u8def\u62bc\u65b9\u5730\u533a\u5730\u8cea\u8abf\u67fb\u696d\u52d9","client_name":"\u56fd\u571f\u4ea4\u901a\u7701\u4e5d\u5dde\u5730\u65b9\u6574\u5099\u5c40\u5ef6\u5ca1\u6cb3\u5ddd\u56fd\u9053\u4e8b\u52d9\u6240","boring_xml_url":47,"boring_view_url":1,"soilmap_view_url":null,"soiltest_xml_url":0,"soiltest_view_url":0},{"id":288742,"code":"NGIC201902040-0001","latitude":"32.698182527778","longitude":"131.24573425","source_code":"","project_name":"","survey_name":"\u5e73\u621031\u5e74\u5ea6\u4e94\u30f6\u702c\u9ad8\u5343\u7a42\u9053\u8def\u62bc\u65b9\u5730\u533a\u5730\u8cea\u8abf\u67fb\u696d\u52d9","client_name":"\u56fd\u571f\u4ea4\u901a\u7701\u4e5d\u5dde\u5730\u65b9\u6574\u5099\u5c40\u5ef6\u5ca1\u6cb3\u5ddd\u56fd\u9053\u4e8b\u52d9\u6240","boring_xml_url":47,"boring_view_url":1,"soilmap_view_url":null,"soiltest_xml_url":0,"soiltest_view_url":0},{"id":288741,"code":"NGIC201902010-0002","latitude":"35.87975","longitude":"139.61713888889","source_code":"","project_name":"\u6b69\u9053\u6a4b\u88dc\u4fee\u4e8b\u696d","survey_name":"\u5e73\u621031\u5e74\u5ea6\u7ba1\u5185\u9053\u8def\u69cb\u9020\u7269\u70b9\u691c\u30fb\u88dc\u4fee\u8a2d\u8a08\u696d\u52d9\u59d4\u8a17","client_name":"\u56fd\u571f\u4ea4\u901a\u7701\u95a2\u6771\u5730\u65b9\u6574\u5099\u5c40\u5927\u5bae\u56fd\u9053\u4e8b\u52d9\u6240","boring_xml_url":47,"boring_view_url":1,"soilmap_view_url":null,"soiltest_xml_url":47,"soiltest_view_url":47},{"id":288740,"code":"NGIC201902010-0001","latitude":"35.879888888889","longitude":"139.61758333333","source_code":"","project_name":"\u6b69\u9053\u6a4b\u88dc\u4fee\u4e8b\u696d","survey_name":"\u5e73\u621031\u5e74\u5ea6\u7ba1\u5185\u9053\u8def\u69cb\u9020\u7269\u70b9\u691c\u30fb\u88dc\u4fee\u8a2d\u8a08\u696d\u52d9\u59d4\u8a17","client_name":"\u56fd\u571f\u4ea4\u901a\u7701\u95a2\u6771\u5730\u65b9\u6574\u5099\u5c40\u5927\u5bae\u56fd\u9053\u4e8b\u52d9\u6240","boring_xml_url":47,"boring_view_url":1,"soilmap_view_url":null,"soiltest_xml_url":47,"soiltest_view_url":47},{"id":288737,"code":"NGIC201901925-0013","latitude":"38.022477777778","longitude":"140.09786111111","source_code":"","project_name":"","survey_name":"\u4ee4\u548c\u5143\u5e74\u5ea6 \u6700\u4e0a\u5ddd\u4e0a\u6d41\u7ba1\u5185\u5730\u8cea\u8abf\u67fb\u696d\u52d9","client_name":"\u56fd\u571f\u4ea4\u901a\u7701\u6771\u5317\u5730\u65b9\u6574\u5099\u5c40\u5c71\u5f62\u6cb3\u5ddd\u56fd\u9053\u4e8b\u52d9\u6240","boring_xml_url":47,"boring_view_url":1,"soilmap_view_url":null,"soiltest_xml_url":47,"soiltest_view_url":47},{"id":288736,"code":"NGIC201901925-0012","latitude":"38.022427777778","longitude":"140.09801111111","source_code":"","project_name":"","survey_name":"\u4ee4\u548c\u5143\u5e74\u5ea6 \u6700\u4e0a\u5ddd\u4e0a\u6d41\u7ba1\u5185\u5730\u8cea\u8abf\u67fb\u696d\u52d9","client_name":"\u56fd\u571f\u4ea4\u901a\u7701\u6771\u5317\u5730\u65b9\u6574\u5099\u5c40\u5c71\u5f62\u6cb3\u5ddd\u56fd\u9053\u4e8b\u52d9\u6240","boring_xml_url":47,"boring_view_url":1,"soilmap_view_url":null,"soiltest_xml_url":47,"soiltest_view_url":47},{"id":288735,"code":"NGIC201901925-0011","latitude":"38.196027777778","longitude":"140.09966944444","source_code":"","project_name":"","survey_name":"\u4ee4\u548c\u5143\u5e74\u5ea6 \u6700\u4e0a\u5ddd\u4e0a\u6d41\u7ba1\u5185\u5730\u8cea\u8abf\u67fb\u696d\u52d9","client_name":"\u56fd\u571f\u4ea4\u901a\u7701\u6771\u5317\u5730\u65b9\u6574\u5099\u5c40\u5c71\u5f62\u6cb3\u5ddd\u56fd\u9053\u4e8b\u52d9\u6240","boring_xml_url":47,"boring_view_url":1,"soilmap_view_url":null,"soiltest_xml_url":47,"soiltest_view_url":47},{"id":288734,"code":"NGIC201901925-0010","latitude":"38.196094444444","longitude":"140.09960555556","source_code":"","project_name":"","survey_name":"\u4ee4\u548c\u5143\u5e74\u5ea6 \u6700\u4e0a\u5ddd\u4e0a\u6d41\u7ba1\u5185\u5730\u8cea\u8abf\u67fb\u696d\u52d9","client_name":"\u56fd\u571f\u4ea4\u901a\u7701\u6771\u5317\u5730\u65b9\u6574\u5099\u5c40\u5c71\u5f62\u6cb3\u5ddd\u56fd\u9053\u4e8b\u52d9\u6240","boring_xml_url":47,"boring_view_url":1,"soilmap_view_url":null,"soiltest_xml_url":47,"soiltest_view_url":47},{"id":288733,"code":"NGIC201901925-0009","latitude":"38.373794444444","longitude":"140.32779444444","source_code":"","project_name":"","survey_name":"\u4ee4\u548c\u5143\u5e74\u5ea6 \u6700\u4e0a\u5ddd\u4e0a\u6d41\u7ba1\u5185\u5730\u8cea\u8abf\u67fb\u696d\u52d9","client_name":"\u56fd\u571f\u4ea4\u901a\u7701\u6771\u5317\u5730\u65b9\u6574\u5099\u5c40\u5c71\u5f62\u6cb3\u5ddd\u56fd\u9053\u4e8b\u52d9\u6240","boring_xml_url":47,"boring_view_url":1,"soilmap_view_url":null,"soiltest_xml_url":47,"soiltest_view_url":47},{"id":288732,"code":"NGIC201901925-0008","latitude":"38.372630555556","longitude":"140.32879722222","source_code":"","project_name":"","survey_name":"\u4ee4\u548c\u5143\u5e74\u5ea6 \u6700\u4e0a\u5ddd\u4e0a\u6d41\u7ba1\u5185\u5730\u8cea\u8abf\u67fb\u696d\u52d9","client_name":"\u56fd\u571f\u4ea4\u901a\u7701\u6771\u5317\u5730\u65b9\u6574\u5099\u5c40\u5c71\u5f62\u6cb3\u5ddd\u56fd\u9053\u4e8b\u52d9\u6240","boring_xml_url":47,"boring_view_url":1,"soilmap_view_url":null,"soiltest_xml_url":47,"soiltest_view_url":47},{"id":288731,"code":"NGIC201901925-0007","latitude":"38.372561111111","longitude":"140.32888333333","source_code":"","project_name":"","survey_name":"\u4ee4\u548c\u5143\u5e74\u5ea6 \u6700\u4e0a\u5ddd\u4e0a\u6d41\u7ba1\u5185\u5730\u8cea\u8abf\u67fb\u696d\u52d9","client_name":"\u56fd\u571f\u4ea4\u901a\u7701\u6771\u5317\u5730\u65b9\u6574\u5099\u5c40\u5c71\u5f62\u6cb3\u5ddd\u56fd\u9053\u4e8b\u52d9\u6240","boring_xml_url":47,"boring_view_url":1,"soilmap_view_url":null,"soiltest_xml_url":47,"soiltest_view_url":47},{"id":288730,"code":"NGIC201901925-0006","latitude":"38.402547222222","longitude":"140.32649166667","source_code":"","project_name":"","survey_name":"\u4ee4\u548c\u5143\u5e74\u5ea6 \u6700\u4e0a\u5ddd\u4e0a\u6d41\u7ba1\u5185\u5730\u8cea\u8abf\u67fb\u696d\u52d9","client_name":"\u56fd\u571f\u4ea4\u901a\u7701\u6771\u5317\u5730\u65b9\u6574\u5099\u5c40\u5c71\u5f62\u6cb3\u5ddd\u56fd\u9053\u4e8b\u52d9\u6240","boring_xml_url":47,"boring_view_url":1,"soilmap_view_url":null,"soiltest_xml_url":47,"soiltest_view_url":47},{"id":288729,"code":"NGIC201901925-0005","latitude":"38.404661111111","longitude":"140.32781388889","source_code":"","project_name":"","survey_name":"\u4ee4\u548c\u5143\u5e74\u5ea6 \u6700\u4e0a\u5ddd\u4e0a\u6d41\u7ba1\u5185\u5730\u8cea\u8abf\u67fb\u696d\u52d9","client_name":"\u56fd\u571f\u4ea4\u901a\u7701\u6771\u5317\u5730\u65b9\u6574\u5099\u5c40\u5c71\u5f62\u6cb3\u5ddd\u56fd\u9053\u4e8b\u52d9\u6240","boring_xml_url":47,"boring_view_url":1,"soilmap_view_url":null,"soiltest_xml_url":0,"soiltest_view_url":0},{"id":288728,"code":"NGIC201901925-0004","latitude":"38.404577777778","longitude":"140.32796944444","source_code":"","project_name":"","survey_name":"\u4ee4\u548c\u5143\u5e74\u5ea6 \u6700\u4e0a\u5ddd\u4e0a\u6d41\u7ba1\u5185\u5730\u8cea\u8abf\u67fb\u696d\u52d9","client_name":"\u56fd\u571f\u4ea4\u901a\u7701\u6771\u5317\u5730\u65b9\u6574\u5099\u5c40\u5c71\u5f62\u6cb3\u5ddd\u56fd\u9053\u4e8b\u52d9\u6240","boring_xml_url":47,"boring_view_url":1,"soilmap_view_url":null,"soiltest_xml_url":0,"soiltest_view_url":0},{"id":288727,"code":"NGIC201901925-0003","latitude":"38.441433333333","longitude":"140.3254","source_code":"","project_name":"","survey_name":"\u4ee4\u548c\u5143\u5e74\u5ea6 \u6700\u4e0a\u5ddd\u4e0a\u6d41\u7ba1\u5185\u5730\u8cea\u8abf\u67fb\u696d\u52d9","client_name":"\u56fd\u571f\u4ea4\u901a\u7701\u6771\u5317\u5730\u65b9\u6574\u5099\u5c40\u5c71\u5f62\u6cb3\u5ddd\u56fd\u9053\u4e8b\u52d9\u6240","boring_xml_url":47,"boring_view_url":1,"soilmap_view_url":null,"soiltest_xml_url":47,"soiltest_view_url":47},{"id":288726,"code":"NGIC201901925-0002","latitude":"38.440919444444","longitude":"140.32623333333","source_code":"","project_name":"","survey_name":"\u4ee4\u548c\u5143\u5e74\u5ea6 \u6700\u4e0a\u5ddd\u4e0a\u6d41\u7ba1\u5185\u5730\u8cea\u8abf\u67fb\u696d\u52d9","client_name":"\u56fd\u571f\u4ea4\u901a\u7701\u6771\u5317\u5730\u65b9\u6574\u5099\u5c40\u5c71\u5f62\u6cb3\u5ddd\u56fd\u9053\u4e8b\u52d9\u6240","boring_xml_url":47,"boring_view_url":1,"soilmap_view_url":null,"soiltest_xml_url":47,"soiltest_view_url":47},{"id":288725,"code":"NGIC201901925-0001","latitude":"38.437897222222","longitude":"140.32796111111","source_code":"","project_name":"","survey_name":"\u4ee4\u548c\u5143\u5e74\u5ea6 \u6700\u4e0a\u5ddd\u4e0a\u6d41\u7ba1\u5185\u5730\u8cea\u8abf\u67fb\u696d\u52d9","client_name":"\u56fd\u571f\u4ea4\u901a\u7701\u6771\u5317\u5730\u65b9\u6574\u5099\u5c40\u5c71\u5f62\u6cb3\u5ddd\u56fd\u9053\u4e8b\u52d9\u6240","boring_xml_url":47,"boring_view_url":1,"soilmap_view_url":null,"soiltest_xml_url":47,"soiltest_view_url":47},{"id":288710,"code":"NGIC201901966-0015","latitude":"33.530118138889","longitude":"130.18301563889","source_code":"","project_name":"\u4eca\u5bbf\u9053\u8def","survey_name":"\u4ee4\u548c\u5143\u5e74\u5ea6\u798f\u5ca1\u56fd\u9053\u6539\u7bc9\u95a2\u9023\u5730\u8cea\u8abf\u67fb\u696d\u52d9","client_name":"\u56fd\u571f\u4ea4\u901a\u7701\u4e5d\u5dde\u5730\u65b9\u6574\u5099\u5c40\u798f\u5ca1\u56fd\u9053\u4e8b\u52d9\u6240","boring_xml_url":47,"boring_view_url":1,"soilmap_view_url":null,"soiltest_xml_url":0,"soiltest_view_url":0},{"id":288709,"code":"NGIC201901966-0014","latitude":"33.530635638889","longitude":"130.18447041667","source_code":"","project_name":"\u4eca\u5bbf\u9053\u8def","survey_name":"\u4ee4\u548c\u5143\u5e74\u5ea6\u798f\u5ca1\u56fd\u9053\u6539\u7bc9\u95a2\u9023\u5730\u8cea\u8abf\u67fb\u696d\u52d9","client_name":"\u56fd\u571f\u4ea4\u901a\u7701\u4e5d\u5dde\u5730\u65b9\u6574\u5099\u5c40\u798f\u5ca1\u56fd\u9053\u4e8b\u52d9\u6240","boring_xml_url":47,"boring_view_url":1,"soilmap_view_url":null,"soiltest_xml_url":0,"soiltest_view_url":0},{"id":288708,"code":"NGIC201901966-0013","latitude":"33.590874555556","longitude":"130.40757516667","source_code":"","project_name":"\u6625\u5409\u6a4b","survey_name":"\u4ee4\u548c\u5143\u5e74\u5ea6\u798f\u5ca1\u56fd\u9053\u6539\u7bc9\u95a2\u9023\u5730\u8cea\u8abf\u67fb\u696d\u52d9","client_name":"\u56fd\u571f\u4ea4\u901a\u7701\u4e5d\u5dde\u5730\u65b9\u6574\u5099\u5c40\u798f\u5ca1\u56fd\u9053\u4e8b\u52d9\u6240","boring_xml_url":47,"boring_view_url":1,"soilmap_view_url":null,"soiltest_xml_url":47,"soiltest_view_url":47},{"id":288707,"code":"NGIC201901966-0012","latitude":"33.337214555556","longitude":"130.54070288889","source_code":"","project_name":"\u9ce5\u6816\u4e45\u7559\u7c73\u9053\u8def","survey_name":"\u4ee4\u548c\u5143\u5e74\u5ea6\u798f\u5ca1\u56fd\u9053\u6539\u7bc9\u95a2\u9023\u5730\u8cea\u8abf\u67fb\u696d\u52d9","client_name":"\u56fd\u571f\u4ea4\u901a\u7701\u4e5d\u5dde\u5730\u65b9\u6574\u5099\u5c40\u798f\u5ca1\u56fd\u9053\u4e8b\u52d9\u6240","boring_xml_url":47,"boring_view_url":1,"soilmap_view_url":null,"soiltest_xml_url":47,"soiltest_view_url":47},{"id":288706,"code":"NGIC201901966-0011","latitude":"33.337515861111","longitude":"130.54081197222","source_code":"","project_name":"\u9ce5\u6816\u4e45\u7559\u7c73\u9053\u8def","survey_name":"\u4ee4\u548c\u5143\u5e74\u5ea6\u798f\u5ca1\u56fd\u9053\u6539\u7bc9\u95a2\u9023\u5730\u8cea\u8abf\u67fb\u696d\u52d9","client_name":"\u56fd\u571f\u4ea4\u901a\u7701\u4e5d\u5dde\u5730\u65b9\u6574\u5099\u5c40\u798f\u5ca1\u56fd\u9053\u4e8b\u52d9\u6240","boring_xml_url":47,"boring_view_url":1,"soilmap_view_url":null,"soiltest_xml_url":47,"soiltest_view_url":47}]}}