{"header":{"xyz":{"source":[],"mosaic":false},"page":2197,"raw":{"soiltest_result":"0","bbox":"57.598333,109.544722,1.933333,163.806111","page":"2197"},"conditions":{"soiltest_result":0,"north":57.598333,"west":109.544722,"south":1.933333,"east":163.806111},"success":true,"message":""},"data":{"meta":{"total":212844,"page":2197,"pages":7095,"count":30},"values":[{"id":288241,"code":"NGIC201901929-0004","latitude":"34.620847222222","longitude":"133.73089444444","source_code":"","project_name":"\n      ","survey_name":"\u4ee4\u548c\u5143\u5e74\u5ea6\u5c0f\u7530\u5ddd\u5916\u5730\u8cea\u8abf\u67fb\uff08\u305d\u306e2\uff09\u696d\u52d9","client_name":"\u56fd\u571f\u4ea4\u901a\u7701\u4e2d\u56fd\u5730\u65b9\u6574\u5099\u5c40\u9ad8\u6881\u5ddd\u30fb\u5c0f\u7530\u5ddd\u7dca\u6025\u6cbb\u6c34\u5bfe\u7b56\u6cb3\u5ddd\u4e8b\u52d9\u6240","boring_xml_url":47,"boring_view_url":1,"soilmap_view_url":null,"soiltest_xml_url":47,"soiltest_view_url":47},{"id":288240,"code":"NGIC201901929-0003","latitude":"34.621155555556","longitude":"133.72998611111","source_code":"","project_name":"\n      ","survey_name":"\u4ee4\u548c\u5143\u5e74\u5ea6\u5c0f\u7530\u5ddd\u5916\u5730\u8cea\u8abf\u67fb\uff08\u305d\u306e2\uff09\u696d\u52d9","client_name":"\u56fd\u571f\u4ea4\u901a\u7701\u4e2d\u56fd\u5730\u65b9\u6574\u5099\u5c40\u9ad8\u6881\u5ddd\u30fb\u5c0f\u7530\u5ddd\u7dca\u6025\u6cbb\u6c34\u5bfe\u7b56\u6cb3\u5ddd\u4e8b\u52d9\u6240","boring_xml_url":47,"boring_view_url":1,"soilmap_view_url":null,"soiltest_xml_url":47,"soiltest_view_url":47},{"id":288239,"code":"NGIC201901929-0002","latitude":"34.621155555556","longitude":"133.72998611111","source_code":"","project_name":"\n      ","survey_name":"\u4ee4\u548c\u5143\u5e74\u5ea6\u5c0f\u7530\u5ddd\u5916\u5730\u8cea\u8abf\u67fb\uff08\u305d\u306e2\uff09\u696d\u52d9","client_name":"\u56fd\u571f\u4ea4\u901a\u7701\u4e2d\u56fd\u5730\u65b9\u6574\u5099\u5c40\u9ad8\u6881\u5ddd\u30fb\u5c0f\u7530\u5ddd\u7dca\u6025\u6cbb\u6c34\u5bfe\u7b56\u6cb3\u5ddd\u4e8b\u52d9\u6240","boring_xml_url":47,"boring_view_url":1,"soilmap_view_url":null,"soiltest_xml_url":47,"soiltest_view_url":47},{"id":288238,"code":"NGIC201901929-0001","latitude":"34.6207","longitude":"133.72990277778","source_code":"","project_name":"\n      ","survey_name":"\u4ee4\u548c\u5143\u5e74\u5ea6\u5c0f\u7530\u5ddd\u5916\u5730\u8cea\u8abf\u67fb\uff08\u305d\u306e2\uff09\u696d\u52d9","client_name":"\u56fd\u571f\u4ea4\u901a\u7701\u4e2d\u56fd\u5730\u65b9\u6574\u5099\u5c40\u9ad8\u6881\u5ddd\u30fb\u5c0f\u7530\u5ddd\u7dca\u6025\u6cbb\u6c34\u5bfe\u7b56\u6cb3\u5ddd\u4e8b\u52d9\u6240","boring_xml_url":47,"boring_view_url":1,"soilmap_view_url":null,"soiltest_xml_url":47,"soiltest_view_url":47},{"id":288229,"code":"NGIC201901928-0022","latitude":"34.729679722222","longitude":"135.73079055556","source_code":"","project_name":"","survey_name":"\u6e05\u6edd\u751f\u99d2\u9053\u8def\u751f\u99d2\u5730\u533a\u5730\u8cea\u8abf\u67fb\u696d\u52d9","client_name":"\u56fd\u571f\u4ea4\u901a\u7701\u8fd1\u757f\u5730\u65b9\u6574\u5099\u5c40\u6d6a\u901f\u56fd\u9053\u4e8b\u52d9\u6240","boring_xml_url":47,"boring_view_url":1,"soilmap_view_url":null,"soiltest_xml_url":47,"soiltest_view_url":47},{"id":288228,"code":"NGIC201901928-0021","latitude":"34.729320833333","longitude":"135.75354611111","source_code":"","project_name":"","survey_name":"\u6e05\u6edd\u751f\u99d2\u9053\u8def\u751f\u99d2\u5730\u533a\u5730\u8cea\u8abf\u67fb\u696d\u52d9","client_name":"\u56fd\u571f\u4ea4\u901a\u7701\u8fd1\u757f\u5730\u65b9\u6574\u5099\u5c40\u6d6a\u901f\u56fd\u9053\u4e8b\u52d9\u6240","boring_xml_url":47,"boring_view_url":1,"soilmap_view_url":null,"soiltest_xml_url":47,"soiltest_view_url":47},{"id":288227,"code":"NGIC201901928-0020","latitude":"34.728761388889","longitude":"135.74833055556","source_code":"","project_name":"","survey_name":"\u6e05\u6edd\u751f\u99d2\u9053\u8def\u751f\u99d2\u5730\u533a\u5730\u8cea\u8abf\u67fb\u696d\u52d9","client_name":"\u56fd\u571f\u4ea4\u901a\u7701\u8fd1\u757f\u5730\u65b9\u6574\u5099\u5c40\u6d6a\u901f\u56fd\u9053\u4e8b\u52d9\u6240","boring_xml_url":47,"boring_view_url":1,"soilmap_view_url":null,"soiltest_xml_url":47,"soiltest_view_url":47},{"id":288226,"code":"NGIC201901928-0019","latitude":"34.729005277778","longitude":"135.74794444444","source_code":"","project_name":"","survey_name":"\u6e05\u6edd\u751f\u99d2\u9053\u8def\u751f\u99d2\u5730\u533a\u5730\u8cea\u8abf\u67fb\u696d\u52d9","client_name":"\u56fd\u571f\u4ea4\u901a\u7701\u8fd1\u757f\u5730\u65b9\u6574\u5099\u5c40\u6d6a\u901f\u56fd\u9053\u4e8b\u52d9\u6240","boring_xml_url":47,"boring_view_url":1,"soilmap_view_url":null,"soiltest_xml_url":47,"soiltest_view_url":47},{"id":288225,"code":"NGIC201901928-0018","latitude":"34.729098333333","longitude":"135.74588333333","source_code":"","project_name":"","survey_name":"\u6e05\u6edd\u751f\u99d2\u9053\u8def\u751f\u99d2\u5730\u533a\u5730\u8cea\u8abf\u67fb\u696d\u52d9","client_name":"\u56fd\u571f\u4ea4\u901a\u7701\u8fd1\u757f\u5730\u65b9\u6574\u5099\u5c40\u6d6a\u901f\u56fd\u9053\u4e8b\u52d9\u6240","boring_xml_url":47,"boring_view_url":1,"soilmap_view_url":null,"soiltest_xml_url":47,"soiltest_view_url":47},{"id":288224,"code":"NGIC201901928-0017","latitude":"34.728923055556","longitude":"135.7478025","source_code":"","project_name":"","survey_name":"\u6e05\u6edd\u751f\u99d2\u9053\u8def\u751f\u99d2\u5730\u533a\u5730\u8cea\u8abf\u67fb\u696d\u52d9","client_name":"\u56fd\u571f\u4ea4\u901a\u7701\u8fd1\u757f\u5730\u65b9\u6574\u5099\u5c40\u6d6a\u901f\u56fd\u9053\u4e8b\u52d9\u6240","boring_xml_url":47,"boring_view_url":1,"soilmap_view_url":null,"soiltest_xml_url":47,"soiltest_view_url":47},{"id":288223,"code":"NGIC201901928-0016","latitude":"34.729077222222","longitude":"135.7468125","source_code":"","project_name":"","survey_name":"\u6e05\u6edd\u751f\u99d2\u9053\u8def\u751f\u99d2\u5730\u533a\u5730\u8cea\u8abf\u67fb\u696d\u52d9","client_name":"\u56fd\u571f\u4ea4\u901a\u7701\u8fd1\u757f\u5730\u65b9\u6574\u5099\u5c40\u6d6a\u901f\u56fd\u9053\u4e8b\u52d9\u6240","boring_xml_url":47,"boring_view_url":1,"soilmap_view_url":null,"soiltest_xml_url":47,"soiltest_view_url":47},{"id":288222,"code":"NGIC201901928-0015","latitude":"34.728998333333","longitude":"135.74631638889","source_code":"","project_name":"","survey_name":"\u6e05\u6edd\u751f\u99d2\u9053\u8def\u751f\u99d2\u5730\u533a\u5730\u8cea\u8abf\u67fb\u696d\u52d9","client_name":"\u56fd\u571f\u4ea4\u901a\u7701\u8fd1\u757f\u5730\u65b9\u6574\u5099\u5c40\u6d6a\u901f\u56fd\u9053\u4e8b\u52d9\u6240","boring_xml_url":47,"boring_view_url":1,"soilmap_view_url":null,"soiltest_xml_url":47,"soiltest_view_url":47},{"id":288221,"code":"NGIC201901928-0014","latitude":"34.728700833333","longitude":"135.74571805556","source_code":"","project_name":"","survey_name":"\u6e05\u6edd\u751f\u99d2\u9053\u8def\u751f\u99d2\u5730\u533a\u5730\u8cea\u8abf\u67fb\u696d\u52d9","client_name":"\u56fd\u571f\u4ea4\u901a\u7701\u8fd1\u757f\u5730\u65b9\u6574\u5099\u5c40\u6d6a\u901f\u56fd\u9053\u4e8b\u52d9\u6240","boring_xml_url":47,"boring_view_url":1,"soilmap_view_url":null,"soiltest_xml_url":47,"soiltest_view_url":47},{"id":288220,"code":"NGIC201901928-0013","latitude":"34.733531111111","longitude":"135.72007361111","source_code":"","project_name":"","survey_name":"\u6e05\u6edd\u751f\u99d2\u9053\u8def\u751f\u99d2\u5730\u533a\u5730\u8cea\u8abf\u67fb\u696d\u52d9","client_name":"\u56fd\u571f\u4ea4\u901a\u7701\u8fd1\u757f\u5730\u65b9\u6574\u5099\u5c40\u6d6a\u901f\u56fd\u9053\u4e8b\u52d9\u6240","boring_xml_url":47,"boring_view_url":1,"soilmap_view_url":null,"soiltest_xml_url":47,"soiltest_view_url":47},{"id":288219,"code":"NGIC201901928-0012","latitude":"34.733264444444","longitude":"135.72003166667","source_code":"","project_name":"","survey_name":"\u6e05\u6edd\u751f\u99d2\u9053\u8def\u751f\u99d2\u5730\u533a\u5730\u8cea\u8abf\u67fb\u696d\u52d9","client_name":"\u56fd\u571f\u4ea4\u901a\u7701\u8fd1\u757f\u5730\u65b9\u6574\u5099\u5c40\u6d6a\u901f\u56fd\u9053\u4e8b\u52d9\u6240","boring_xml_url":47,"boring_view_url":1,"soilmap_view_url":null,"soiltest_xml_url":47,"soiltest_view_url":47},{"id":288218,"code":"NGIC201901928-0011","latitude":"34.733722222222","longitude":"135.7195575","source_code":"","project_name":"","survey_name":"\u6e05\u6edd\u751f\u99d2\u9053\u8def\u751f\u99d2\u5730\u533a\u5730\u8cea\u8abf\u67fb\u696d\u52d9","client_name":"\u56fd\u571f\u4ea4\u901a\u7701\u8fd1\u757f\u5730\u65b9\u6574\u5099\u5c40\u6d6a\u901f\u56fd\u9053\u4e8b\u52d9\u6240","boring_xml_url":47,"boring_view_url":1,"soilmap_view_url":null,"soiltest_xml_url":47,"soiltest_view_url":47},{"id":288217,"code":"NGIC201901928-0010","latitude":"34.733850555556","longitude":"135.71966638889","source_code":"","project_name":"","survey_name":"\u6e05\u6edd\u751f\u99d2\u9053\u8def\u751f\u99d2\u5730\u533a\u5730\u8cea\u8abf\u67fb\u696d\u52d9","client_name":"\u56fd\u571f\u4ea4\u901a\u7701\u8fd1\u757f\u5730\u65b9\u6574\u5099\u5c40\u6d6a\u901f\u56fd\u9053\u4e8b\u52d9\u6240","boring_xml_url":47,"boring_view_url":1,"soilmap_view_url":null,"soiltest_xml_url":47,"soiltest_view_url":47},{"id":288216,"code":"NGIC201901928-0009","latitude":"34.734078055556","longitude":"135.71933805556","source_code":"","project_name":"","survey_name":"\u6e05\u6edd\u751f\u99d2\u9053\u8def\u751f\u99d2\u5730\u533a\u5730\u8cea\u8abf\u67fb\u696d\u52d9","client_name":"\u56fd\u571f\u4ea4\u901a\u7701\u8fd1\u757f\u5730\u65b9\u6574\u5099\u5c40\u6d6a\u901f\u56fd\u9053\u4e8b\u52d9\u6240","boring_xml_url":47,"boring_view_url":1,"soilmap_view_url":null,"soiltest_xml_url":47,"soiltest_view_url":47},{"id":288215,"code":"NGIC201901928-0008","latitude":"34.734219444444","longitude":"135.71948222222","source_code":"","project_name":"","survey_name":"\u6e05\u6edd\u751f\u99d2\u9053\u8def\u751f\u99d2\u5730\u533a\u5730\u8cea\u8abf\u67fb\u696d\u52d9","client_name":"\u56fd\u571f\u4ea4\u901a\u7701\u8fd1\u757f\u5730\u65b9\u6574\u5099\u5c40\u6d6a\u901f\u56fd\u9053\u4e8b\u52d9\u6240","boring_xml_url":47,"boring_view_url":1,"soilmap_view_url":null,"soiltest_xml_url":47,"soiltest_view_url":47},{"id":288214,"code":"NGIC201901928-0007","latitude":"34.7342725","longitude":"135.71987055556","source_code":"","project_name":"","survey_name":"\u6e05\u6edd\u751f\u99d2\u9053\u8def\u751f\u99d2\u5730\u533a\u5730\u8cea\u8abf\u67fb\u696d\u52d9","client_name":"\u56fd\u571f\u4ea4\u901a\u7701\u8fd1\u757f\u5730\u65b9\u6574\u5099\u5c40\u6d6a\u901f\u56fd\u9053\u4e8b\u52d9\u6240","boring_xml_url":47,"boring_view_url":1,"soilmap_view_url":null,"soiltest_xml_url":47,"soiltest_view_url":47},{"id":288213,"code":"NGIC201901928-0006","latitude":"34.734483611111","longitude":"135.72022111111","source_code":"","project_name":"","survey_name":"\u6e05\u6edd\u751f\u99d2\u9053\u8def\u751f\u99d2\u5730\u533a\u5730\u8cea\u8abf\u67fb\u696d\u52d9","client_name":"\u56fd\u571f\u4ea4\u901a\u7701\u8fd1\u757f\u5730\u65b9\u6574\u5099\u5c40\u6d6a\u901f\u56fd\u9053\u4e8b\u52d9\u6240","boring_xml_url":47,"boring_view_url":1,"soilmap_view_url":null,"soiltest_xml_url":47,"soiltest_view_url":47},{"id":288212,"code":"NGIC201901928-0005","latitude":"34.734930555556","longitude":"135.71916944444","source_code":"","project_name":"","survey_name":"\u6e05\u6edd\u751f\u99d2\u9053\u8def\u751f\u99d2\u5730\u533a\u5730\u8cea\u8abf\u67fb\u696d\u52d9","client_name":"\u56fd\u571f\u4ea4\u901a\u7701\u8fd1\u757f\u5730\u65b9\u6574\u5099\u5c40\u6d6a\u901f\u56fd\u9053\u4e8b\u52d9\u6240","boring_xml_url":47,"boring_view_url":1,"soilmap_view_url":null,"soiltest_xml_url":47,"soiltest_view_url":47},{"id":288211,"code":"NGIC201901928-0004","latitude":"34.735457222222","longitude":"135.71852222222","source_code":"","project_name":"","survey_name":"\u6e05\u6edd\u751f\u99d2\u9053\u8def\u751f\u99d2\u5730\u533a\u5730\u8cea\u8abf\u67fb\u696d\u52d9","client_name":"\u56fd\u571f\u4ea4\u901a\u7701\u8fd1\u757f\u5730\u65b9\u6574\u5099\u5c40\u6d6a\u901f\u56fd\u9053\u4e8b\u52d9\u6240","boring_xml_url":47,"boring_view_url":1,"soilmap_view_url":null,"soiltest_xml_url":47,"soiltest_view_url":47},{"id":288210,"code":"NGIC201901928-0003","latitude":"34.735583055556","longitude":"135.71867472222","source_code":"","project_name":"","survey_name":"\u6e05\u6edd\u751f\u99d2\u9053\u8def\u751f\u99d2\u5730\u533a\u5730\u8cea\u8abf\u67fb\u696d\u52d9","client_name":"\u56fd\u571f\u4ea4\u901a\u7701\u8fd1\u757f\u5730\u65b9\u6574\u5099\u5c40\u6d6a\u901f\u56fd\u9053\u4e8b\u52d9\u6240","boring_xml_url":47,"boring_view_url":1,"soilmap_view_url":null,"soiltest_xml_url":47,"soiltest_view_url":47},{"id":288209,"code":"NGIC201901928-0002","latitude":"34.735903611111","longitude":"135.7186075","source_code":"","project_name":"","survey_name":"\u6e05\u6edd\u751f\u99d2\u9053\u8def\u751f\u99d2\u5730\u533a\u5730\u8cea\u8abf\u67fb\u696d\u52d9","client_name":"\u56fd\u571f\u4ea4\u901a\u7701\u8fd1\u757f\u5730\u65b9\u6574\u5099\u5c40\u6d6a\u901f\u56fd\u9053\u4e8b\u52d9\u6240","boring_xml_url":47,"boring_view_url":1,"soilmap_view_url":null,"soiltest_xml_url":47,"soiltest_view_url":47},{"id":288208,"code":"NGIC201901928-0001","latitude":"34.737444166667","longitude":"135.71681138889","source_code":"","project_name":"","survey_name":"\u6e05\u6edd\u751f\u99d2\u9053\u8def\u751f\u99d2\u5730\u533a\u5730\u8cea\u8abf\u67fb\u696d\u52d9","client_name":"\u56fd\u571f\u4ea4\u901a\u7701\u8fd1\u757f\u5730\u65b9\u6574\u5099\u5c40\u6d6a\u901f\u56fd\u9053\u4e8b\u52d9\u6240","boring_xml_url":47,"boring_view_url":1,"soilmap_view_url":null,"soiltest_xml_url":47,"soiltest_view_url":47},{"id":288207,"code":"NGIC201901908-0008","latitude":"32.996416666667","longitude":"130.42775","source_code":"","project_name":"\u6709\u660e\u6d77\u6cbf\u5cb8\u9053\u8def\u4e8b\u696d","survey_name":"\u4ee4\u548c\u5143\u5e74\u5ea6\u6709\u660e\u6d77\u6cbf\u5cb8\u9053\u8def(\u5357\u90e8\u5730\u533a)\u5730\u8cea\u8abf\u67fb\u696d\u52d9","client_name":"\u56fd\u571f\u4ea4\u901a\u7701\u4e5d\u5dde\u5730\u65b9\u6574\u5099\u5c40\u6709\u660e\u6d77\u6cbf\u5cb8\u56fd\u9053\u4e8b\u52d9\u6240","boring_xml_url":47,"boring_view_url":1,"soilmap_view_url":null,"soiltest_xml_url":47,"soiltest_view_url":47},{"id":288206,"code":"NGIC201901908-0007","latitude":"32.99725","longitude":"130.42752777778","source_code":"","project_name":"\u6709\u660e\u6d77\u6cbf\u5cb8\u9053\u8def\u4e8b\u696d","survey_name":"\u4ee4\u548c\u5143\u5e74\u5ea6\u6709\u660e\u6d77\u6cbf\u5cb8\u9053\u8def(\u5357\u90e8\u5730\u533a)\u5730\u8cea\u8abf\u67fb\u696d\u52d9","client_name":"\u56fd\u571f\u4ea4\u901a\u7701\u4e5d\u5dde\u5730\u65b9\u6574\u5099\u5c40\u6709\u660e\u6d77\u6cbf\u5cb8\u56fd\u9053\u4e8b\u52d9\u6240","boring_xml_url":47,"boring_view_url":1,"soilmap_view_url":null,"soiltest_xml_url":47,"soiltest_view_url":47},{"id":288205,"code":"NGIC201901908-0006","latitude":"32.998111111111","longitude":"130.42677777778","source_code":"","project_name":"\u6709\u660e\u6d77\u6cbf\u5cb8\u9053\u8def\u4e8b\u696d","survey_name":"\u4ee4\u548c\u5143\u5e74\u5ea6\u6709\u660e\u6d77\u6cbf\u5cb8\u9053\u8def(\u5357\u90e8\u5730\u533a)\u5730\u8cea\u8abf\u67fb\u696d\u52d9","client_name":"\u56fd\u571f\u4ea4\u901a\u7701\u4e5d\u5dde\u5730\u65b9\u6574\u5099\u5c40\u6709\u660e\u6d77\u6cbf\u5cb8\u56fd\u9053\u4e8b\u52d9\u6240","boring_xml_url":47,"boring_view_url":1,"soilmap_view_url":null,"soiltest_xml_url":47,"soiltest_view_url":47},{"id":288204,"code":"NGIC201901908-0005","latitude":"32.999194444444","longitude":"130.42536111111","source_code":"","project_name":"\u6709\u660e\u6d77\u6cbf\u5cb8\u9053\u8def\u4e8b\u696d","survey_name":"\u4ee4\u548c\u5143\u5e74\u5ea6\u6709\u660e\u6d77\u6cbf\u5cb8\u9053\u8def(\u5357\u90e8\u5730\u533a)\u5730\u8cea\u8abf\u67fb\u696d\u52d9","client_name":"\u56fd\u571f\u4ea4\u901a\u7701\u4e5d\u5dde\u5730\u65b9\u6574\u5099\u5c40\u6709\u660e\u6d77\u6cbf\u5cb8\u56fd\u9053\u4e8b\u52d9\u6240","boring_xml_url":47,"boring_view_url":1,"soilmap_view_url":null,"soiltest_xml_url":47,"soiltest_view_url":47}]}}