{"header":{"xyz":{"source":[],"mosaic":false},"page":2198,"raw":{"soiltest_result":"0","bbox":"57.598333,109.544722,1.933333,163.806111","page":"2198"},"conditions":{"soiltest_result":0,"north":57.598333,"west":109.544722,"south":1.933333,"east":163.806111},"success":true,"message":""},"data":{"meta":{"total":212844,"page":2198,"pages":7095,"count":30},"values":[{"id":288203,"code":"NGIC201901908-0004","latitude":"32.999861111111","longitude":"130.426","source_code":"","project_name":"\u6709\u660e\u6d77\u6cbf\u5cb8\u9053\u8def\u4e8b\u696d","survey_name":"\u4ee4\u548c\u5143\u5e74\u5ea6\u6709\u660e\u6d77\u6cbf\u5cb8\u9053\u8def(\u5357\u90e8\u5730\u533a)\u5730\u8cea\u8abf\u67fb\u696d\u52d9","client_name":"\u56fd\u571f\u4ea4\u901a\u7701\u4e5d\u5dde\u5730\u65b9\u6574\u5099\u5c40\u6709\u660e\u6d77\u6cbf\u5cb8\u56fd\u9053\u4e8b\u52d9\u6240","boring_xml_url":47,"boring_view_url":1,"soilmap_view_url":null,"soiltest_xml_url":0,"soiltest_view_url":0},{"id":288202,"code":"NGIC201901908-0003","latitude":"32.999861111111","longitude":"130.42522222222","source_code":"","project_name":"\u6709\u660e\u6d77\u6cbf\u5cb8\u9053\u8def\u4e8b\u696d","survey_name":"\u4ee4\u548c\u5143\u5e74\u5ea6\u6709\u660e\u6d77\u6cbf\u5cb8\u9053\u8def(\u5357\u90e8\u5730\u533a)\u5730\u8cea\u8abf\u67fb\u696d\u52d9","client_name":"\u56fd\u571f\u4ea4\u901a\u7701\u4e5d\u5dde\u5730\u65b9\u6574\u5099\u5c40\u6709\u660e\u6d77\u6cbf\u5cb8\u56fd\u9053\u4e8b\u52d9\u6240","boring_xml_url":47,"boring_view_url":1,"soilmap_view_url":null,"soiltest_xml_url":0,"soiltest_view_url":0},{"id":288201,"code":"NGIC201901908-0002","latitude":"33.000694444444","longitude":"130.42366666667","source_code":"","project_name":"\u6709\u660e\u6d77\u6cbf\u5cb8\u9053\u8def\u4e8b\u696d","survey_name":"\u4ee4\u548c\u5143\u5e74\u5ea6\u6709\u660e\u6d77\u6cbf\u5cb8\u9053\u8def(\u5357\u90e8\u5730\u533a)\u5730\u8cea\u8abf\u67fb\u696d\u52d9","client_name":"\u56fd\u571f\u4ea4\u901a\u7701\u4e5d\u5dde\u5730\u65b9\u6574\u5099\u5c40\u6709\u660e\u6d77\u6cbf\u5cb8\u56fd\u9053\u4e8b\u52d9\u6240","boring_xml_url":47,"boring_view_url":1,"soilmap_view_url":null,"soiltest_xml_url":0,"soiltest_view_url":0},{"id":288200,"code":"NGIC201901908-0001","latitude":"33.002916666667","longitude":"130.42230555556","source_code":"","project_name":"\u6709\u660e\u6d77\u6cbf\u5cb8\u9053\u8def\u4e8b\u696d","survey_name":"\u4ee4\u548c\u5143\u5e74\u5ea6\u6709\u660e\u6d77\u6cbf\u5cb8\u9053\u8def(\u5357\u90e8\u5730\u533a)\u5730\u8cea\u8abf\u67fb\u696d\u52d9","client_name":"\u56fd\u571f\u4ea4\u901a\u7701\u4e5d\u5dde\u5730\u65b9\u6574\u5099\u5c40\u6709\u660e\u6d77\u6cbf\u5cb8\u56fd\u9053\u4e8b\u52d9\u6240","boring_xml_url":47,"boring_view_url":1,"soilmap_view_url":null,"soiltest_xml_url":47,"soiltest_view_url":47},{"id":288199,"code":"NGIC201901859-0005","latitude":"26.253316111111","longitude":"127.78422166667","source_code":"","project_name":"\u56fd\u9053329\u53f7:\u5965\u9593\u5730\u5185","survey_name":"\u5e73\u621031\u5e74\u5ea6\u5357\u90e8\u56fd\u9053\u7ba1\u5185\u4ea4\u901a\u5bfe\u7b56\u95a2\u4fc2\u6e2c\u91cf\u8abf\u67fb\u8a2d\u8a08(\u305d\u306e2)\u696d\u52d9","client_name":"\u5185\u95a3\u5e9c\u6c96\u7e04\u7dcf\u5408\u4e8b\u52d9\u5c40\u958b\u767a\u5efa\u8a2d\u90e8\u5357\u90e8\u56fd\u9053\u4e8b\u52d9\u6240","boring_xml_url":47,"boring_view_url":1,"soilmap_view_url":null,"soiltest_xml_url":0,"soiltest_view_url":0},{"id":288198,"code":"NGIC201901859-0004","latitude":"26.254588611111","longitude":"127.78491222222","source_code":"","project_name":"\u56fd\u9053329\u53f7:\u5965\u9593\u5730\u5185","survey_name":"\u5e73\u621031\u5e74\u5ea6\u5357\u90e8\u56fd\u9053\u7ba1\u5185\u4ea4\u901a\u5bfe\u7b56\u95a2\u4fc2\u6e2c\u91cf\u8abf\u67fb\u8a2d\u8a08(\u305d\u306e2)\u696d\u52d9","client_name":"\u5185\u95a3\u5e9c\u6c96\u7e04\u7dcf\u5408\u4e8b\u52d9\u5c40\u958b\u767a\u5efa\u8a2d\u90e8\u5357\u90e8\u56fd\u9053\u4e8b\u52d9\u6240","boring_xml_url":47,"boring_view_url":1,"soilmap_view_url":null,"soiltest_xml_url":47,"soiltest_view_url":47},{"id":288197,"code":"NGIC201901859-0003","latitude":"26.254938055556","longitude":"127.78486916667","source_code":"","project_name":"\u56fd\u9053329\u53f7:\u5965\u9593\u5730\u5185","survey_name":"\u5e73\u621031\u5e74\u5ea6\u5357\u90e8\u56fd\u9053\u7ba1\u5185\u4ea4\u901a\u5bfe\u7b56\u95a2\u4fc2\u6e2c\u91cf\u8abf\u67fb\u8a2d\u8a08(\u305d\u306e2)\u696d\u52d9","client_name":"\u5185\u95a3\u5e9c\u6c96\u7e04\u7dcf\u5408\u4e8b\u52d9\u5c40\u958b\u767a\u5efa\u8a2d\u90e8\u5357\u90e8\u56fd\u9053\u4e8b\u52d9\u6240","boring_xml_url":47,"boring_view_url":1,"soilmap_view_url":null,"soiltest_xml_url":47,"soiltest_view_url":47},{"id":288196,"code":"NGIC201901859-0002","latitude":"26.255083","longitude":"127.78490908333","source_code":"","project_name":"\u56fd\u9053329\u53f7:\u5965\u9593\u5730\u5185","survey_name":"\u5e73\u621031\u5e74\u5ea6\u5357\u90e8\u56fd\u9053\u7ba1\u5185\u4ea4\u901a\u5bfe\u7b56\u95a2\u4fc2\u6e2c\u91cf\u8abf\u67fb\u8a2d\u8a08(\u305d\u306e2)\u696d\u52d9","client_name":"\u5185\u95a3\u5e9c\u6c96\u7e04\u7dcf\u5408\u4e8b\u52d9\u5c40\u958b\u767a\u5efa\u8a2d\u90e8\u5357\u90e8\u56fd\u9053\u4e8b\u52d9\u6240","boring_xml_url":47,"boring_view_url":1,"soilmap_view_url":null,"soiltest_xml_url":0,"soiltest_view_url":0},{"id":288195,"code":"NGIC201901859-0001","latitude":"26.2558125","longitude":"127.78513055556","source_code":"","project_name":"\u56fd\u9053329\u53f7:\u5965\u9593\u5730\u5185","survey_name":"\u5e73\u621031\u5e74\u5ea6\u5357\u90e8\u56fd\u9053\u7ba1\u5185\u4ea4\u901a\u5bfe\u7b56\u95a2\u4fc2\u6e2c\u91cf\u8abf\u67fb\u8a2d\u8a08(\u305d\u306e2)\u696d\u52d9","client_name":"\u5185\u95a3\u5e9c\u6c96\u7e04\u7dcf\u5408\u4e8b\u52d9\u5c40\u958b\u767a\u5efa\u8a2d\u90e8\u5357\u90e8\u56fd\u9053\u4e8b\u52d9\u6240","boring_xml_url":47,"boring_view_url":1,"soilmap_view_url":null,"soiltest_xml_url":0,"soiltest_view_url":0},{"id":288194,"code":"NGIC201901896-0012","latitude":"35.120517916667","longitude":"137.58249663889","source_code":"","project_name":"\u5e73\u621031\u5e74\u5ea6 \u8a2d\u697d\u30c0\u30e0\u9577\u6c5f\u516b\u6a4b\u5730\u533a\u5730\u8cea\u8abf\u67fb\u696d\u52d9","survey_name":"\u5e73\u621031\u5e74\u5ea6 \u8a2d\u697d\u30c0\u30e0\u9577\u6c5f\u516b\u6a4b\u5730\u533a\u5730\u8cea\u8abf\u67fb\u696d\u52d9","client_name":"\u56fd\u571f\u4ea4\u901a\u7701\u4e2d\u90e8\u5730\u65b9\u6574\u5099\u5c40\u8a2d\u697d\u30c0\u30e0\u5de5\u4e8b\u4e8b\u52d9\u6240","boring_xml_url":47,"boring_view_url":1,"soilmap_view_url":null,"soiltest_xml_url":0,"soiltest_view_url":0},{"id":288193,"code":"NGIC201901896-0011","latitude":"35.122205277778","longitude":"137.57804405556","source_code":"","project_name":"\u5e73\u621031\u5e74\u5ea6 \u8a2d\u697d\u30c0\u30e0\u9577\u6c5f\u516b\u6a4b\u5730\u533a\u5730\u8cea\u8abf\u67fb\u696d\u52d9","survey_name":"\u5e73\u621031\u5e74\u5ea6 \u8a2d\u697d\u30c0\u30e0\u9577\u6c5f\u516b\u6a4b\u5730\u533a\u5730\u8cea\u8abf\u67fb\u696d\u52d9","client_name":"\u56fd\u571f\u4ea4\u901a\u7701\u4e2d\u90e8\u5730\u65b9\u6574\u5099\u5c40\u8a2d\u697d\u30c0\u30e0\u5de5\u4e8b\u4e8b\u52d9\u6240","boring_xml_url":47,"boring_view_url":1,"soilmap_view_url":null,"soiltest_xml_url":0,"soiltest_view_url":0},{"id":288192,"code":"NGIC201901896-0010","latitude":"35.118216888889","longitude":"137.57548811111","source_code":"","project_name":"\u5e73\u621031\u5e74\u5ea6 \u8a2d\u697d\u30c0\u30e0\u9577\u6c5f\u516b\u6a4b\u5730\u533a\u5730\u8cea\u8abf\u67fb\u696d\u52d9","survey_name":"\u5e73\u621031\u5e74\u5ea6 \u8a2d\u697d\u30c0\u30e0\u9577\u6c5f\u516b\u6a4b\u5730\u533a\u5730\u8cea\u8abf\u67fb\u696d\u52d9","client_name":"\u56fd\u571f\u4ea4\u901a\u7701\u4e2d\u90e8\u5730\u65b9\u6574\u5099\u5c40\u8a2d\u697d\u30c0\u30e0\u5de5\u4e8b\u4e8b\u52d9\u6240","boring_xml_url":47,"boring_view_url":1,"soilmap_view_url":null,"soiltest_xml_url":0,"soiltest_view_url":0},{"id":288191,"code":"NGIC201901896-0009","latitude":"35.104859555556","longitude":"137.58120327778","source_code":"","project_name":"\u5e73\u621031\u5e74\u5ea6 \u8a2d\u697d\u30c0\u30e0\u9577\u6c5f\u516b\u6a4b\u5730\u533a\u5730\u8cea\u8abf\u67fb\u696d\u52d9","survey_name":"\u5e73\u621031\u5e74\u5ea6 \u8a2d\u697d\u30c0\u30e0\u9577\u6c5f\u516b\u6a4b\u5730\u533a\u5730\u8cea\u8abf\u67fb\u696d\u52d9","client_name":"\u56fd\u571f\u4ea4\u901a\u7701\u4e2d\u90e8\u5730\u65b9\u6574\u5099\u5c40\u8a2d\u697d\u30c0\u30e0\u5de5\u4e8b\u4e8b\u52d9\u6240","boring_xml_url":47,"boring_view_url":1,"soilmap_view_url":null,"soiltest_xml_url":0,"soiltest_view_url":0},{"id":288190,"code":"NGIC201901896-0008","latitude":"35.104859555556","longitude":"137.58120327778","source_code":"","project_name":"\u5e73\u621031\u5e74\u5ea6 \u8a2d\u697d\u30c0\u30e0\u9577\u6c5f\u516b\u6a4b\u5730\u533a\u5730\u8cea\u8abf\u67fb\u696d\u52d9","survey_name":"\u5e73\u621031\u5e74\u5ea6 \u8a2d\u697d\u30c0\u30e0\u9577\u6c5f\u516b\u6a4b\u5730\u533a\u5730\u8cea\u8abf\u67fb\u696d\u52d9","client_name":"\u56fd\u571f\u4ea4\u901a\u7701\u4e2d\u90e8\u5730\u65b9\u6574\u5099\u5c40\u8a2d\u697d\u30c0\u30e0\u5de5\u4e8b\u4e8b\u52d9\u6240","boring_xml_url":47,"boring_view_url":1,"soilmap_view_url":null,"soiltest_xml_url":0,"soiltest_view_url":0},{"id":288189,"code":"NGIC201901896-0007","latitude":"35.104859555556","longitude":"137.58120327778","source_code":"","project_name":"\u5e73\u621031\u5e74\u5ea6 \u8a2d\u697d\u30c0\u30e0\u9577\u6c5f\u516b\u6a4b\u5730\u533a\u5730\u8cea\u8abf\u67fb\u696d\u52d9","survey_name":"\u5e73\u621031\u5e74\u5ea6 \u8a2d\u697d\u30c0\u30e0\u9577\u6c5f\u516b\u6a4b\u5730\u533a\u5730\u8cea\u8abf\u67fb\u696d\u52d9","client_name":"\u56fd\u571f\u4ea4\u901a\u7701\u4e2d\u90e8\u5730\u65b9\u6574\u5099\u5c40\u8a2d\u697d\u30c0\u30e0\u5de5\u4e8b\u4e8b\u52d9\u6240","boring_xml_url":47,"boring_view_url":1,"soilmap_view_url":null,"soiltest_xml_url":0,"soiltest_view_url":0},{"id":288188,"code":"NGIC201901896-0006","latitude":"35.104859555556","longitude":"137.58120327778","source_code":"","project_name":"\u5e73\u621031\u5e74\u5ea6 \u8a2d\u697d\u30c0\u30e0\u9577\u6c5f\u516b\u6a4b\u5730\u533a\u5730\u8cea\u8abf\u67fb\u696d\u52d9","survey_name":"\u5e73\u621031\u5e74\u5ea6 \u8a2d\u697d\u30c0\u30e0\u9577\u6c5f\u516b\u6a4b\u5730\u533a\u5730\u8cea\u8abf\u67fb\u696d\u52d9","client_name":"\u56fd\u571f\u4ea4\u901a\u7701\u4e2d\u90e8\u5730\u65b9\u6574\u5099\u5c40\u8a2d\u697d\u30c0\u30e0\u5de5\u4e8b\u4e8b\u52d9\u6240","boring_xml_url":47,"boring_view_url":1,"soilmap_view_url":null,"soiltest_xml_url":0,"soiltest_view_url":0},{"id":288187,"code":"NGIC201901896-0005","latitude":"35.104812166667","longitude":"137.58072902778","source_code":"","project_name":"\u5e73\u621031\u5e74\u5ea6 \u8a2d\u697d\u30c0\u30e0\u9577\u6c5f\u516b\u6a4b\u5730\u533a\u5730\u8cea\u8abf\u67fb\u696d\u52d9","survey_name":"\u5e73\u621031\u5e74\u5ea6 \u8a2d\u697d\u30c0\u30e0\u9577\u6c5f\u516b\u6a4b\u5730\u533a\u5730\u8cea\u8abf\u67fb\u696d\u52d9","client_name":"\u56fd\u571f\u4ea4\u901a\u7701\u4e2d\u90e8\u5730\u65b9\u6574\u5099\u5c40\u8a2d\u697d\u30c0\u30e0\u5de5\u4e8b\u4e8b\u52d9\u6240","boring_xml_url":47,"boring_view_url":1,"soilmap_view_url":null,"soiltest_xml_url":0,"soiltest_view_url":0},{"id":288186,"code":"NGIC201901896-0004","latitude":"35.065479027778","longitude":"137.54395438889","source_code":"","project_name":"\u5e73\u621031\u5e74\u5ea6 \u8a2d\u697d\u30c0\u30e0\u9577\u6c5f\u516b\u6a4b\u5730\u533a\u5730\u8cea\u8abf\u67fb\u696d\u52d9","survey_name":"\u5e73\u621031\u5e74\u5ea6 \u8a2d\u697d\u30c0\u30e0\u9577\u6c5f\u516b\u6a4b\u5730\u533a\u5730\u8cea\u8abf\u67fb\u696d\u52d9","client_name":"\u56fd\u571f\u4ea4\u901a\u7701\u4e2d\u90e8\u5730\u65b9\u6574\u5099\u5c40\u8a2d\u697d\u30c0\u30e0\u5de5\u4e8b\u4e8b\u52d9\u6240","boring_xml_url":47,"boring_view_url":1,"soilmap_view_url":null,"soiltest_xml_url":47,"soiltest_view_url":47},{"id":288185,"code":"NGIC201901896-0003","latitude":"35.065738861111","longitude":"137.54382769444","source_code":"","project_name":"\u5e73\u621031\u5e74\u5ea6 \u8a2d\u697d\u30c0\u30e0\u9577\u6c5f\u516b\u6a4b\u5730\u533a\u5730\u8cea\u8abf\u67fb\u696d\u52d9","survey_name":"\u5e73\u621031\u5e74\u5ea6 \u8a2d\u697d\u30c0\u30e0\u9577\u6c5f\u516b\u6a4b\u5730\u533a\u5730\u8cea\u8abf\u67fb\u696d\u52d9","client_name":"\u56fd\u571f\u4ea4\u901a\u7701\u4e2d\u90e8\u5730\u65b9\u6574\u5099\u5c40\u8a2d\u697d\u30c0\u30e0\u5de5\u4e8b\u4e8b\u52d9\u6240","boring_xml_url":47,"boring_view_url":1,"soilmap_view_url":null,"soiltest_xml_url":47,"soiltest_view_url":47},{"id":288184,"code":"NGIC201901896-0002","latitude":"35.0659335","longitude":"137.54360766667","source_code":"","project_name":"\u5e73\u621031\u5e74\u5ea6 \u8a2d\u697d\u30c0\u30e0\u9577\u6c5f\u516b\u6a4b\u5730\u533a\u5730\u8cea\u8abf\u67fb\u696d\u52d9","survey_name":"\u5e73\u621031\u5e74\u5ea6 \u8a2d\u697d\u30c0\u30e0\u9577\u6c5f\u516b\u6a4b\u5730\u533a\u5730\u8cea\u8abf\u67fb\u696d\u52d9","client_name":"\u56fd\u571f\u4ea4\u901a\u7701\u4e2d\u90e8\u5730\u65b9\u6574\u5099\u5c40\u8a2d\u697d\u30c0\u30e0\u5de5\u4e8b\u4e8b\u52d9\u6240","boring_xml_url":47,"boring_view_url":1,"soilmap_view_url":null,"soiltest_xml_url":47,"soiltest_view_url":47},{"id":288183,"code":"NGIC201901896-0001","latitude":"35.066139","longitude":"137.54332088889","source_code":"","project_name":"\u5e73\u621031\u5e74\u5ea6 \u8a2d\u697d\u30c0\u30e0\u9577\u6c5f\u516b\u6a4b\u5730\u533a\u5730\u8cea\u8abf\u67fb\u696d\u52d9","survey_name":"\u5e73\u621031\u5e74\u5ea6 \u8a2d\u697d\u30c0\u30e0\u9577\u6c5f\u516b\u6a4b\u5730\u533a\u5730\u8cea\u8abf\u67fb\u696d\u52d9","client_name":"\u56fd\u571f\u4ea4\u901a\u7701\u4e2d\u90e8\u5730\u65b9\u6574\u5099\u5c40\u8a2d\u697d\u30c0\u30e0\u5de5\u4e8b\u4e8b\u52d9\u6240","boring_xml_url":47,"boring_view_url":1,"soilmap_view_url":null,"soiltest_xml_url":47,"soiltest_view_url":47},{"id":288161,"code":"NGIC201901915-0006","latitude":"33.524361111111","longitude":"130.86358333333","source_code":"","project_name":"\u5c71\u9e7f\u5730\u533a\u5916\u5730\u8cea\u8abf\u67fb\u696d\u52d9","survey_name":"\u5c71\u9e7f\u5730\u533a\u5916\u5730\u8cea\u8abf\u67fb\u696d\u52d9","client_name":"\u56fd\u571f\u4ea4\u901a\u7701\u4e5d\u5dde\u5730\u65b9\u6574\u5099\u5c40\u9060\u8cc0\u5ddd\u6cb3\u5ddd\u4e8b\u52d9\u6240","boring_xml_url":47,"boring_view_url":1,"soilmap_view_url":null,"soiltest_xml_url":0,"soiltest_view_url":0},{"id":288160,"code":"NGIC201901915-0005","latitude":"33.527777777778","longitude":"130.86361111111","source_code":"","project_name":"\u5c71\u9e7f\u5730\u533a\u5916\u5730\u8cea\u8abf\u67fb\u696d\u52d9","survey_name":"\u5c71\u9e7f\u5730\u533a\u5916\u5730\u8cea\u8abf\u67fb\u696d\u52d9","client_name":"\u56fd\u571f\u4ea4\u901a\u7701\u4e5d\u5dde\u5730\u65b9\u6574\u5099\u5c40\u9060\u8cc0\u5ddd\u6cb3\u5ddd\u4e8b\u52d9\u6240","boring_xml_url":47,"boring_view_url":1,"soilmap_view_url":null,"soiltest_xml_url":0,"soiltest_view_url":0},{"id":288159,"code":"NGIC201901915-0004","latitude":"33.530638888889","longitude":"130.86244444444","source_code":"","project_name":"\u5c71\u9e7f\u5730\u533a\u5916\u5730\u8cea\u8abf\u67fb\u696d\u52d9","survey_name":"\u5c71\u9e7f\u5730\u533a\u5916\u5730\u8cea\u8abf\u67fb\u696d\u52d9","client_name":"\u56fd\u571f\u4ea4\u901a\u7701\u4e5d\u5dde\u5730\u65b9\u6574\u5099\u5c40\u9060\u8cc0\u5ddd\u6cb3\u5ddd\u4e8b\u52d9\u6240","boring_xml_url":47,"boring_view_url":1,"soilmap_view_url":null,"soiltest_xml_url":0,"soiltest_view_url":0},{"id":288158,"code":"NGIC201901915-0003","latitude":"33.896388888889","longitude":"130.67361111111","source_code":"","project_name":"\u5c71\u9e7f\u5730\u533a\u5916\u5730\u8cea\u8abf\u67fb\u696d\u52d9","survey_name":"\u5c71\u9e7f\u5730\u533a\u5916\u5730\u8cea\u8abf\u67fb\u696d\u52d9","client_name":"\u56fd\u571f\u4ea4\u901a\u7701\u4e5d\u5dde\u5730\u65b9\u6574\u5099\u5c40\u9060\u8cc0\u5ddd\u6cb3\u5ddd\u4e8b\u52d9\u6240","boring_xml_url":47,"boring_view_url":1,"soilmap_view_url":null,"soiltest_xml_url":47,"soiltest_view_url":47},{"id":288157,"code":"NGIC201901915-0002","latitude":"33.896305555556","longitude":"130.67175","source_code":"","project_name":"\u5c71\u9e7f\u5730\u533a\u5916\u5730\u8cea\u8abf\u67fb\u696d\u52d9","survey_name":"\u5c71\u9e7f\u5730\u533a\u5916\u5730\u8cea\u8abf\u67fb\u696d\u52d9","client_name":"\u56fd\u571f\u4ea4\u901a\u7701\u4e5d\u5dde\u5730\u65b9\u6574\u5099\u5c40\u9060\u8cc0\u5ddd\u6cb3\u5ddd\u4e8b\u52d9\u6240","boring_xml_url":47,"boring_view_url":1,"soilmap_view_url":null,"soiltest_xml_url":0,"soiltest_view_url":0},{"id":288156,"code":"NGIC201901915-0001","latitude":"33.895833333333","longitude":"130.67055555556","source_code":"","project_name":"\u5c71\u9e7f\u5730\u533a\u5916\u5730\u8cea\u8abf\u67fb\u696d\u52d9","survey_name":"\u5c71\u9e7f\u5730\u533a\u5916\u5730\u8cea\u8abf\u67fb\u696d\u52d9","client_name":"\u56fd\u571f\u4ea4\u901a\u7701\u4e5d\u5dde\u5730\u65b9\u6574\u5099\u5c40\u9060\u8cc0\u5ddd\u6cb3\u5ddd\u4e8b\u52d9\u6240","boring_xml_url":47,"boring_view_url":1,"soilmap_view_url":null,"soiltest_xml_url":47,"soiltest_view_url":47},{"id":288151,"code":"NGIC201901921-0004","latitude":"35.243726083333","longitude":"137.38198336111","source_code":"","project_name":"","survey_name":"\u5e73\u621031\u5e74\u5ea6\u77e2\u4f5c\u30c0\u30e0\u5730\u8cea\u8abf\u67fb","client_name":"\u56fd\u571f\u4ea4\u901a\u7701\u4e2d\u90e8\u5730\u65b9\u6574\u5099\u5c40\u77e2\u4f5c\u30c0\u30e0\u7ba1\u7406\u6240","boring_xml_url":47,"boring_view_url":1,"soilmap_view_url":null,"soiltest_xml_url":0,"soiltest_view_url":0},{"id":288150,"code":"NGIC201901921-0003","latitude":"35.243948055556","longitude":"137.40879241667","source_code":"","project_name":"","survey_name":"\u5e73\u621031\u5e74\u5ea6\u77e2\u4f5c\u30c0\u30e0\u5730\u8cea\u8abf\u67fb","client_name":"\u56fd\u571f\u4ea4\u901a\u7701\u4e2d\u90e8\u5730\u65b9\u6574\u5099\u5c40\u77e2\u4f5c\u30c0\u30e0\u7ba1\u7406\u6240","boring_xml_url":47,"boring_view_url":1,"soilmap_view_url":null,"soiltest_xml_url":0,"soiltest_view_url":0},{"id":288149,"code":"NGIC201901921-0002","latitude":"35.241524666667","longitude":"137.44870880556","source_code":"","project_name":"","survey_name":"\u5e73\u621031\u5e74\u5ea6\u77e2\u4f5c\u30c0\u30e0\u5730\u8cea\u8abf\u67fb","client_name":"\u56fd\u571f\u4ea4\u901a\u7701\u4e2d\u90e8\u5730\u65b9\u6574\u5099\u5c40\u77e2\u4f5c\u30c0\u30e0\u7ba1\u7406\u6240","boring_xml_url":47,"boring_view_url":1,"soilmap_view_url":null,"soiltest_xml_url":0,"soiltest_view_url":0}]}}