{"header":{"xyz":{"source":[],"mosaic":false},"page":220,"raw":{"soiltest_result":"0","bbox":"57.598333,109.544722,1.933333,163.806111","page":"220"},"conditions":{"soiltest_result":0,"north":57.598333,"west":109.544722,"south":1.933333,"east":163.806111},"success":true,"message":""},"data":{"meta":{"total":212844,"page":220,"pages":7095,"count":30},"values":[{"id":577943,"code":"NGIC202205904-0001","latitude":"38.4417225","longitude":"140.32416694444","source_code":"","project_name":"","survey_name":"\u4ee4\u548c4\u5e74\u5ea6\u6700\u4e0a\u5ddd\u4e0a\u6d41\u62bc\u5207\u5730\u533a\u69cb\u9020\u7269\u8a73\u7d30\u8a2d\u8a08\u696d\u52d9","client_name":"\u56fd\u571f\u4ea4\u901a\u7701\u6771\u5317\u5730\u65b9\u6574\u5099\u5c40\u5c71\u5f62\u6cb3\u5ddd\u56fd\u9053\u4e8b\u52d9\u6240","boring_xml_url":47,"boring_view_url":1,"soilmap_view_url":null,"soiltest_xml_url":47,"soiltest_view_url":47},{"id":577941,"code":"NGIC202205856-0005","latitude":"33.848908333333","longitude":"134.28928055556","source_code":"","project_name":"","survey_name":"\u4ee4\u548c3\u22124\u5e74\u5ea6\u5c0f\u898b\u91ce\u3005\u30c0\u30e0\u5468\u8fba\u5730\u8cea\u8abf\u67fb\uff08\u305d\u306e6\uff09\u696d\u52d9","client_name":"\u56fd\u571f\u4ea4\u901a\u7701\u56db\u56fd\u5730\u65b9\u6574\u5099\u5c40\u90a3\u8cc0\u5ddd\u6cb3\u5ddd\u4e8b\u52d9\u6240","boring_xml_url":47,"boring_view_url":1,"soilmap_view_url":null,"soiltest_xml_url":0,"soiltest_view_url":0},{"id":577940,"code":"NGIC202205856-0004","latitude":"33.849127777778","longitude":"134.28909444444","source_code":"","project_name":"","survey_name":"\u4ee4\u548c3\u22124\u5e74\u5ea6\u5c0f\u898b\u91ce\u3005\u30c0\u30e0\u5468\u8fba\u5730\u8cea\u8abf\u67fb\uff08\u305d\u306e6\uff09\u696d\u52d9","client_name":"\u56fd\u571f\u4ea4\u901a\u7701\u56db\u56fd\u5730\u65b9\u6574\u5099\u5c40\u90a3\u8cc0\u5ddd\u6cb3\u5ddd\u4e8b\u52d9\u6240","boring_xml_url":47,"boring_view_url":1,"soilmap_view_url":null,"soiltest_xml_url":0,"soiltest_view_url":0},{"id":577939,"code":"NGIC202205856-0003","latitude":"33.807722222222","longitude":"134.255125","source_code":"","project_name":"","survey_name":"\u4ee4\u548c3\u22124\u5e74\u5ea6\u5c0f\u898b\u91ce\u3005\u30c0\u30e0\u5468\u8fba\u5730\u8cea\u8abf\u67fb\uff08\u305d\u306e6\uff09\u696d\u52d9","client_name":"\u56fd\u571f\u4ea4\u901a\u7701\u56db\u56fd\u5730\u65b9\u6574\u5099\u5c40\u90a3\u8cc0\u5ddd\u6cb3\u5ddd\u4e8b\u52d9\u6240","boring_xml_url":47,"boring_view_url":1,"soilmap_view_url":null,"soiltest_xml_url":0,"soiltest_view_url":0},{"id":577938,"code":"NGIC202205856-0002","latitude":"33.808177777778","longitude":"134.25511666667","source_code":"","project_name":"","survey_name":"\u4ee4\u548c3\u22124\u5e74\u5ea6\u5c0f\u898b\u91ce\u3005\u30c0\u30e0\u5468\u8fba\u5730\u8cea\u8abf\u67fb\uff08\u305d\u306e6\uff09\u696d\u52d9","client_name":"\u56fd\u571f\u4ea4\u901a\u7701\u56db\u56fd\u5730\u65b9\u6574\u5099\u5c40\u90a3\u8cc0\u5ddd\u6cb3\u5ddd\u4e8b\u52d9\u6240","boring_xml_url":47,"boring_view_url":1,"soilmap_view_url":null,"soiltest_xml_url":0,"soiltest_view_url":0},{"id":577937,"code":"NGIC202205856-0001","latitude":"33.808647222222","longitude":"134.25511111111","source_code":"","project_name":"","survey_name":"\u4ee4\u548c3\u22124\u5e74\u5ea6\u5c0f\u898b\u91ce\u3005\u30c0\u30e0\u5468\u8fba\u5730\u8cea\u8abf\u67fb\uff08\u305d\u306e6\uff09\u696d\u52d9","client_name":"\u56fd\u571f\u4ea4\u901a\u7701\u56db\u56fd\u5730\u65b9\u6574\u5099\u5c40\u90a3\u8cc0\u5ddd\u6cb3\u5ddd\u4e8b\u52d9\u6240","boring_xml_url":47,"boring_view_url":1,"soilmap_view_url":null,"soiltest_xml_url":0,"soiltest_view_url":0},{"id":577936,"code":"NGIC202205581-0007","latitude":"35.33790575","longitude":"132.74405191667","source_code":"","project_name":"","survey_name":"\u4ee4\u548c4\u5e74\u5ea6\u6590\u4f0a\u5ddd\u6c34\u7cfb\u5730\u8cea\u8abf\u67fb\u696d\u52d9","client_name":"\u56fd\u571f\u4ea4\u901a\u7701\u4e2d\u56fd\u5730\u65b9\u6574\u5099\u5c40\u51fa\u96f2\u6cb3\u5ddd\u4e8b\u52d9\u6240","boring_xml_url":47,"boring_view_url":1,"soilmap_view_url":null,"soiltest_xml_url":47,"soiltest_view_url":47},{"id":577935,"code":"NGIC202205581-0006","latitude":"35.337956805556","longitude":"132.74390566667","source_code":"","project_name":"","survey_name":"\u4ee4\u548c4\u5e74\u5ea6\u6590\u4f0a\u5ddd\u6c34\u7cfb\u5730\u8cea\u8abf\u67fb\u696d\u52d9","client_name":"\u56fd\u571f\u4ea4\u901a\u7701\u4e2d\u56fd\u5730\u65b9\u6574\u5099\u5c40\u51fa\u96f2\u6cb3\u5ddd\u4e8b\u52d9\u6240","boring_xml_url":47,"boring_view_url":1,"soilmap_view_url":null,"soiltest_xml_url":47,"soiltest_view_url":47},{"id":577934,"code":"NGIC202205581-0005","latitude":"35.346992416667","longitude":"132.70603658333","source_code":"","project_name":"","survey_name":"\u4ee4\u548c4\u5e74\u5ea6\u6590\u4f0a\u5ddd\u6c34\u7cfb\u5730\u8cea\u8abf\u67fb\u696d\u52d9","client_name":"\u56fd\u571f\u4ea4\u901a\u7701\u4e2d\u56fd\u5730\u65b9\u6574\u5099\u5c40\u51fa\u96f2\u6cb3\u5ddd\u4e8b\u52d9\u6240","boring_xml_url":47,"boring_view_url":1,"soilmap_view_url":null,"soiltest_xml_url":47,"soiltest_view_url":47},{"id":577933,"code":"NGIC202205581-0004","latitude":"35.346641055556","longitude":"132.7050455","source_code":"","project_name":"","survey_name":"\u4ee4\u548c4\u5e74\u5ea6\u6590\u4f0a\u5ddd\u6c34\u7cfb\u5730\u8cea\u8abf\u67fb\u696d\u52d9","client_name":"\u56fd\u571f\u4ea4\u901a\u7701\u4e2d\u56fd\u5730\u65b9\u6574\u5099\u5c40\u51fa\u96f2\u6cb3\u5ddd\u4e8b\u52d9\u6240","boring_xml_url":47,"boring_view_url":1,"soilmap_view_url":null,"soiltest_xml_url":47,"soiltest_view_url":47},{"id":577932,"code":"NGIC202205581-0003","latitude":"35.346162638889","longitude":"132.70298397222","source_code":"","project_name":"","survey_name":"\u4ee4\u548c4\u5e74\u5ea6\u6590\u4f0a\u5ddd\u6c34\u7cfb\u5730\u8cea\u8abf\u67fb\u696d\u52d9","client_name":"\u56fd\u571f\u4ea4\u901a\u7701\u4e2d\u56fd\u5730\u65b9\u6574\u5099\u5c40\u51fa\u96f2\u6cb3\u5ddd\u4e8b\u52d9\u6240","boring_xml_url":47,"boring_view_url":1,"soilmap_view_url":null,"soiltest_xml_url":47,"soiltest_view_url":47},{"id":577931,"code":"NGIC202205581-0002","latitude":"35.464931861111","longitude":"133.04372461111","source_code":"","project_name":"","survey_name":"\u4ee4\u548c4\u5e74\u5ea6\u6590\u4f0a\u5ddd\u6c34\u7cfb\u5730\u8cea\u8abf\u67fb\u696d\u52d9","client_name":"\u56fd\u571f\u4ea4\u901a\u7701\u4e2d\u56fd\u5730\u65b9\u6574\u5099\u5c40\u51fa\u96f2\u6cb3\u5ddd\u4e8b\u52d9\u6240","boring_xml_url":47,"boring_view_url":1,"soilmap_view_url":null,"soiltest_xml_url":47,"soiltest_view_url":47},{"id":577930,"code":"NGIC202205581-0001","latitude":"35.531092416667","longitude":"133.15294072222","source_code":"","project_name":"","survey_name":"\u4ee4\u548c4\u5e74\u5ea6\u6590\u4f0a\u5ddd\u6c34\u7cfb\u5730\u8cea\u8abf\u67fb\u696d\u52d9","client_name":"\u56fd\u571f\u4ea4\u901a\u7701\u4e2d\u56fd\u5730\u65b9\u6574\u5099\u5c40\u51fa\u96f2\u6cb3\u5ddd\u4e8b\u52d9\u6240","boring_xml_url":47,"boring_view_url":1,"soilmap_view_url":null,"soiltest_xml_url":47,"soiltest_view_url":47},{"id":577896,"code":"NGIC202205860-0007","latitude":"36.979944444444","longitude":"137.65316666667","source_code":"","project_name":"","survey_name":"\u4ee4\u548c4\u5e74\u5ea6\u7cf8\u9b5a\u5ddd\u5730\u533a\u5730\u8cea\u8abf\u67fb\u305d\u306e2\u696d\u52d9","client_name":"\u56fd\u571f\u4ea4\u901a\u7701\u5317\u9678\u5730\u65b9\u6574\u5099\u5c40\u9ad8\u7530\u6cb3\u5ddd\u56fd\u9053\u4e8b\u52d9\u6240","boring_xml_url":47,"boring_view_url":1,"soilmap_view_url":null,"soiltest_xml_url":0,"soiltest_view_url":0},{"id":577895,"code":"NGIC202205860-0006","latitude":"36.980083333333","longitude":"137.65372222222","source_code":"","project_name":"","survey_name":"\u4ee4\u548c4\u5e74\u5ea6\u7cf8\u9b5a\u5ddd\u5730\u533a\u5730\u8cea\u8abf\u67fb\u305d\u306e2\u696d\u52d9","client_name":"\u56fd\u571f\u4ea4\u901a\u7701\u5317\u9678\u5730\u65b9\u6574\u5099\u5c40\u9ad8\u7530\u6cb3\u5ddd\u56fd\u9053\u4e8b\u52d9\u6240","boring_xml_url":47,"boring_view_url":1,"soilmap_view_url":null,"soiltest_xml_url":0,"soiltest_view_url":0},{"id":577894,"code":"NGIC202205860-0005","latitude":"36.987788888889","longitude":"137.675875","source_code":"","project_name":"","survey_name":"\u4ee4\u548c4\u5e74\u5ea6\u7cf8\u9b5a\u5ddd\u5730\u533a\u5730\u8cea\u8abf\u67fb\u305d\u306e2\u696d\u52d9","client_name":"\u56fd\u571f\u4ea4\u901a\u7701\u5317\u9678\u5730\u65b9\u6574\u5099\u5c40\u9ad8\u7530\u6cb3\u5ddd\u56fd\u9053\u4e8b\u52d9\u6240","boring_xml_url":47,"boring_view_url":1,"soilmap_view_url":null,"soiltest_xml_url":0,"soiltest_view_url":0},{"id":577893,"code":"NGIC202205860-0004","latitude":"36.988222222222","longitude":"137.67711111111","source_code":"","project_name":"","survey_name":"\u4ee4\u548c4\u5e74\u5ea6\u7cf8\u9b5a\u5ddd\u5730\u533a\u5730\u8cea\u8abf\u67fb\u305d\u306e2\u696d\u52d9","client_name":"\u56fd\u571f\u4ea4\u901a\u7701\u5317\u9678\u5730\u65b9\u6574\u5099\u5c40\u9ad8\u7530\u6cb3\u5ddd\u56fd\u9053\u4e8b\u52d9\u6240","boring_xml_url":47,"boring_view_url":1,"soilmap_view_url":null,"soiltest_xml_url":0,"soiltest_view_url":0},{"id":577892,"code":"NGIC202205860-0003","latitude":"36.988416666667","longitude":"137.67772222222","source_code":"","project_name":"","survey_name":"\u4ee4\u548c4\u5e74\u5ea6\u7cf8\u9b5a\u5ddd\u5730\u533a\u5730\u8cea\u8abf\u67fb\u305d\u306e2\u696d\u52d9","client_name":"\u56fd\u571f\u4ea4\u901a\u7701\u5317\u9678\u5730\u65b9\u6574\u5099\u5c40\u9ad8\u7530\u6cb3\u5ddd\u56fd\u9053\u4e8b\u52d9\u6240","boring_xml_url":47,"boring_view_url":1,"soilmap_view_url":null,"soiltest_xml_url":0,"soiltest_view_url":0},{"id":577891,"code":"NGIC202205860-0002","latitude":"36.988888888889","longitude":"137.67977222222","source_code":"","project_name":"","survey_name":"\u4ee4\u548c4\u5e74\u5ea6\u7cf8\u9b5a\u5ddd\u5730\u533a\u5730\u8cea\u8abf\u67fb\u305d\u306e2\u696d\u52d9","client_name":"\u56fd\u571f\u4ea4\u901a\u7701\u5317\u9678\u5730\u65b9\u6574\u5099\u5c40\u9ad8\u7530\u6cb3\u5ddd\u56fd\u9053\u4e8b\u52d9\u6240","boring_xml_url":47,"boring_view_url":1,"soilmap_view_url":null,"soiltest_xml_url":0,"soiltest_view_url":0},{"id":577890,"code":"NGIC202205860-0001","latitude":"37.059833333333","longitude":"137.91541666667","source_code":"","project_name":"","survey_name":"\u4ee4\u548c4\u5e74\u5ea6\u7cf8\u9b5a\u5ddd\u5730\u533a\u5730\u8cea\u8abf\u67fb\u305d\u306e2\u696d\u52d9","client_name":"\u56fd\u571f\u4ea4\u901a\u7701\u5317\u9678\u5730\u65b9\u6574\u5099\u5c40\u9ad8\u7530\u6cb3\u5ddd\u56fd\u9053\u4e8b\u52d9\u6240","boring_xml_url":47,"boring_view_url":1,"soilmap_view_url":null,"soiltest_xml_url":0,"soiltest_view_url":0},{"id":577880,"code":"NGIC202205846-0002","latitude":"32.3634325","longitude":"130.8617475","source_code":"","project_name":"","survey_name":"\u5ddd\u8fba\u5ddd\u7ba1\u5185\u7802\u9632\u65bd\u8a2d\u8a2d\u8a08\u696d\u52d9","client_name":"\u56fd\u571f\u4ea4\u901a\u7701\u4e5d\u5dde\u5730\u65b9\u6574\u5099\u5c40\u5ddd\u8fba\u5ddd\u30c0\u30e0\u7802\u9632\u4e8b\u52d9\u6240","boring_xml_url":47,"boring_view_url":1,"soilmap_view_url":null,"soiltest_xml_url":0,"soiltest_view_url":0},{"id":577879,"code":"NGIC202205846-0001","latitude":"32.363588888889","longitude":"130.86163583333","source_code":"","project_name":"","survey_name":"\u5ddd\u8fba\u5ddd\u7ba1\u5185\u7802\u9632\u65bd\u8a2d\u8a2d\u8a08\u696d\u52d9","client_name":"\u56fd\u571f\u4ea4\u901a\u7701\u4e5d\u5dde\u5730\u65b9\u6574\u5099\u5c40\u5ddd\u8fba\u5ddd\u30c0\u30e0\u7802\u9632\u4e8b\u52d9\u6240","boring_xml_url":47,"boring_view_url":1,"soilmap_view_url":null,"soiltest_xml_url":0,"soiltest_view_url":0},{"id":577873,"code":"NGIC202205837-0002","latitude":"34.345205555556","longitude":"132.43841344444","source_code":"","project_name":"","survey_name":"\u5e83\u5cf6\u6e2f\u51fa\u5cf6\u5730\u533a\u571f\u8cea\u8abf\u67fb","client_name":"\u56fd\u571f\u4ea4\u901a\u7701\u4e2d\u56fd\u5730\u65b9\u6574\u5099\u5c40\u5e83\u5cf6\u6e2f\u6e7e\u30fb\u7a7a\u6e2f\u6574\u5099\u4e8b\u52d9\u6240\u3000\u5de5\u52d9\u8ab2","boring_xml_url":47,"boring_view_url":1,"soilmap_view_url":71,"soiltest_xml_url":47,"soiltest_view_url":47},{"id":577872,"code":"NGIC202205837-0001","latitude":"34.345136527778","longitude":"132.43872797222","source_code":"","project_name":"","survey_name":"\u5e83\u5cf6\u6e2f\u51fa\u5cf6\u5730\u533a\u571f\u8cea\u8abf\u67fb","client_name":"\u56fd\u571f\u4ea4\u901a\u7701\u4e2d\u56fd\u5730\u65b9\u6574\u5099\u5c40\u5e83\u5cf6\u6e2f\u6e7e\u30fb\u7a7a\u6e2f\u6574\u5099\u4e8b\u52d9\u6240\u3000\u5de5\u52d9\u8ab2","boring_xml_url":47,"boring_view_url":1,"soilmap_view_url":71,"soiltest_xml_url":47,"soiltest_view_url":47},{"id":577871,"code":"NGIC202205836-0002","latitude":"32.287823611111","longitude":"131.57217611111","source_code":"","project_name":"\u4ee4\u548c4\u5e74\u5ea6 \u56fd\u905310\u53f7\u9053\u8def\u9632\u707d\u70b9\u691c\u30fb\u6e2c\u91cf\u8a2d\u8a08\u5916\u696d\u52d9","survey_name":"\u4ee4\u548c4\u5e74\u5ea6 \u56fd\u905310\u53f7\u9053\u8def\u9632\u707d\u70b9\u691c\u30fb\u6e2c\u91cf\u8a2d\u8a08\u5916\u696d\u52d9","client_name":"\u56fd\u571f\u4ea4\u901a\u7701\u4e5d\u5dde\u5730\u65b9\u6574\u5099\u5c40\u5bae\u5d0e\u6cb3\u5ddd\u56fd\u9053\u4e8b\u52d9\u6240 \u9053\u8def\u7ba1\u7406\u7b2c\u4e8c\u8ab2","boring_xml_url":47,"boring_view_url":1,"soilmap_view_url":null,"soiltest_xml_url":0,"soiltest_view_url":0},{"id":577870,"code":"NGIC202205836-0001","latitude":"31.761293055556","longitude":"131.05396305556","source_code":"","project_name":"\u4ee4\u548c4\u5e74\u5ea6\u56fd\u905310\u53f7\u9053\u8def\u9632\u707d\u70b9\u691c\u30fb\u6e2c\u91cf\u8a2d\u8a08\u5916\u696d\u52d9","survey_name":"\u4ee4\u548c4\u5e74\u5ea6\u56fd\u905310\u53f7\u9053\u8def\u9632\u707d\u70b9\u691c\u30fb\u6e2c\u91cf\u8a2d\u8a08\u5916\u696d\u52d9","client_name":"\u56fd\u571f\u4ea4\u901a\u7701\u4e5d\u5dde\u5730\u65b9\u6574\u5099\u5c40\u5bae\u5d0e\u6cb3\u5ddd\u56fd\u9053\u4e8b\u52d9\u6240 \u9053\u8def\u7ba1\u7406\u7b2c\u4e8c\u8ab2","boring_xml_url":47,"boring_view_url":1,"soilmap_view_url":null,"soiltest_xml_url":0,"soiltest_view_url":0},{"id":577865,"code":"NGIC202205832-0002","latitude":"34.610266666667","longitude":"133.89466111111","source_code":"","project_name":"\u4ee4\u548c3\u5e74\u5ea6\u5ca1\u5c71\u74b0\u72b6\u5357\u9053\u8def\u85e4\u7530\u5730\u533a\u7b2c9\u6539\u826f\u5de5\u4e8b","survey_name":"\u4ee4\u548c3\u5e74\u5ea6\u5ca1\u5c71\u74b0\u72b6\u5357\u9053\u8def\u85e4\u7530\u5730\u533a\u7b2c9\u6539\u826f\u5de5\u4e8b","client_name":"\u56fd\u571f\u4ea4\u901a\u7701\u4e2d\u56fd\u5730\u65b9\u6574\u5099\u5c40\u5ca1\u5c71\u56fd\u9053\u4e8b\u52d9\u6240","boring_xml_url":47,"boring_view_url":1,"soilmap_view_url":null,"soiltest_xml_url":0,"soiltest_view_url":0},{"id":577864,"code":"NGIC202205832-0001","latitude":"34.611852777778","longitude":"133.89338055556","source_code":"","project_name":"\u4ee4\u548c3\u5e74\u5ea6\u5ca1\u5c71\u74b0\u72b6\u5357\u9053\u8def\u85e4\u7530\u5730\u533a\u7b2c9\u6539\u826f\u5de5\u4e8b","survey_name":"\u4ee4\u548c3\u5e74\u5ea6\u5ca1\u5c71\u74b0\u72b6\u5357\u9053\u8def\u85e4\u7530\u5730\u533a\u7b2c9\u6539\u826f\u5de5\u4e8b","client_name":"\u56fd\u571f\u4ea4\u901a\u7701\u4e2d\u56fd\u5730\u65b9\u6574\u5099\u5c40\u5ca1\u5c71\u56fd\u9053\u4e8b\u52d9\u6240","boring_xml_url":47,"boring_view_url":1,"soilmap_view_url":null,"soiltest_xml_url":0,"soiltest_view_url":0},{"id":577853,"code":"NGIC202205997-0025","latitude":"36.212280861111","longitude":"137.90711875","source_code":"","project_name":"\u677e\u672c\u6ce2\u7530\u9053\u8def","survey_name":"R3\u9577\u91ce\u56fd\u9053\u7ba1\u5185\u5730\u8cea\u8abf\u67fb\u89e3\u6790\u696d\u52d9","client_name":"\u56fd\u571f\u4ea4\u901a\u7701\u95a2\u6771\u5730\u65b9\u6574\u5099\u5c40\u9577\u91ce\u56fd\u9053\u4e8b\u52d9\u6240","boring_xml_url":47,"boring_view_url":1,"soilmap_view_url":null,"soiltest_xml_url":0,"soiltest_view_url":0},{"id":577852,"code":"NGIC202205997-0024","latitude":"36.414604444444","longitude":"138.22617388889","source_code":"","project_name":"\u4e0a\u7530\u5e02\u79cb\u548c\u5730\u533a","survey_name":"R3\u9577\u91ce\u56fd\u9053\u7ba1\u5185\u5730\u8cea\u8abf\u67fb\u89e3\u6790\u696d\u52d9","client_name":"\u56fd\u571f\u4ea4\u901a\u7701\u95a2\u6771\u5730\u65b9\u6574\u5099\u5c40\u9577\u91ce\u56fd\u9053\u4e8b\u52d9\u6240","boring_xml_url":47,"boring_view_url":1,"soilmap_view_url":null,"soiltest_xml_url":0,"soiltest_view_url":0}]}}