{"header":{"xyz":{"source":[],"mosaic":false},"page":2206,"raw":{"soiltest_result":"0","bbox":"57.598333,109.544722,1.933333,163.806111","page":"2206"},"conditions":{"soiltest_result":0,"north":57.598333,"west":109.544722,"south":1.933333,"east":163.806111},"success":true,"message":""},"data":{"meta":{"total":212844,"page":2206,"pages":7095,"count":30},"values":[{"id":287774,"code":"NGIC201901846-0025","latitude":"33.399085277778","longitude":"130.82768333333","source_code":"","project_name":"\u5e73\u621031\u5e74\u5ea6 \u8d64\u8c37\u5ddd\u6d41\u57df\u7802\u9632\u5730\u8cea\u8abf\u67fb\u696d\u52d9","survey_name":"\u5e73\u621031\u5e74\u5ea6 \u8d64\u8c37\u5ddd\u6d41\u57df\u7802\u9632\u5730\u8cea\u8abf\u67fb\u696d\u52d9","client_name":"\u56fd\u571f\u4ea4\u901a\u7701\u4e5d\u5dde\u5730\u65b9\u6574\u5099\u5c40\u7b51\u5f8c\u5ddd\u6cb3\u5ddd\u4e8b\u52d9\u6240","boring_xml_url":47,"boring_view_url":1,"soilmap_view_url":null,"soiltest_xml_url":0,"soiltest_view_url":0},{"id":287773,"code":"NGIC201901846-0024","latitude":"33.399106111111","longitude":"130.8276175","source_code":"","project_name":"\u5e73\u621031\u5e74\u5ea6 \u8d64\u8c37\u5ddd\u6d41\u57df\u7802\u9632\u5730\u8cea\u8abf\u67fb\u696d\u52d9","survey_name":"\u5e73\u621031\u5e74\u5ea6 \u8d64\u8c37\u5ddd\u6d41\u57df\u7802\u9632\u5730\u8cea\u8abf\u67fb\u696d\u52d9","client_name":"\u56fd\u571f\u4ea4\u901a\u7701\u4e5d\u5dde\u5730\u65b9\u6574\u5099\u5c40\u7b51\u5f8c\u5ddd\u6cb3\u5ddd\u4e8b\u52d9\u6240","boring_xml_url":47,"boring_view_url":1,"soilmap_view_url":null,"soiltest_xml_url":0,"soiltest_view_url":0},{"id":287772,"code":"NGIC201901846-0023","latitude":"33.382605555556","longitude":"130.84503611111","source_code":"","project_name":"\u5e73\u621031\u5e74\u5ea6 \u8d64\u8c37\u5ddd\u6d41\u57df\u7802\u9632\u5730\u8cea\u8abf\u67fb\u696d\u52d9","survey_name":"\u5e73\u621031\u5e74\u5ea6 \u8d64\u8c37\u5ddd\u6d41\u57df\u7802\u9632\u5730\u8cea\u8abf\u67fb\u696d\u52d9","client_name":"\u56fd\u571f\u4ea4\u901a\u7701\u4e5d\u5dde\u5730\u65b9\u6574\u5099\u5c40\u7b51\u5f8c\u5ddd\u6cb3\u5ddd\u4e8b\u52d9\u6240","boring_xml_url":47,"boring_view_url":1,"soilmap_view_url":null,"soiltest_xml_url":0,"soiltest_view_url":0},{"id":287771,"code":"NGIC201901846-0022","latitude":"33.382979444444","longitude":"130.84549","source_code":"","project_name":"\u5e73\u621031\u5e74\u5ea6 \u8d64\u8c37\u5ddd\u6d41\u57df\u7802\u9632\u5730\u8cea\u8abf\u67fb\u696d\u52d9","survey_name":"\u5e73\u621031\u5e74\u5ea6 \u8d64\u8c37\u5ddd\u6d41\u57df\u7802\u9632\u5730\u8cea\u8abf\u67fb\u696d\u52d9","client_name":"\u56fd\u571f\u4ea4\u901a\u7701\u4e5d\u5dde\u5730\u65b9\u6574\u5099\u5c40\u7b51\u5f8c\u5ddd\u6cb3\u5ddd\u4e8b\u52d9\u6240","boring_xml_url":47,"boring_view_url":1,"soilmap_view_url":null,"soiltest_xml_url":0,"soiltest_view_url":0},{"id":287770,"code":"NGIC201901846-0021","latitude":"33.383021666667","longitude":"130.84363694444","source_code":"","project_name":"\u5e73\u621031\u5e74\u5ea6 \u8d64\u8c37\u5ddd\u6d41\u57df\u7802\u9632\u5730\u8cea\u8abf\u67fb\u696d\u52d9","survey_name":"\u5e73\u621031\u5e74\u5ea6 \u8d64\u8c37\u5ddd\u6d41\u57df\u7802\u9632\u5730\u8cea\u8abf\u67fb\u696d\u52d9","client_name":"\u56fd\u571f\u4ea4\u901a\u7701\u4e5d\u5dde\u5730\u65b9\u6574\u5099\u5c40\u7b51\u5f8c\u5ddd\u6cb3\u5ddd\u4e8b\u52d9\u6240","boring_xml_url":47,"boring_view_url":1,"soilmap_view_url":null,"soiltest_xml_url":0,"soiltest_view_url":0},{"id":287769,"code":"NGIC201901846-0020","latitude":"33.3828275","longitude":"130.84530472222","source_code":"","project_name":"\u5e73\u621031\u5e74\u5ea6 \u8d64\u8c37\u5ddd\u6d41\u57df\u7802\u9632\u5730\u8cea\u8abf\u67fb\u696d\u52d9","survey_name":"\u5e73\u621031\u5e74\u5ea6 \u8d64\u8c37\u5ddd\u6d41\u57df\u7802\u9632\u5730\u8cea\u8abf\u67fb\u696d\u52d9","client_name":"\u56fd\u571f\u4ea4\u901a\u7701\u4e5d\u5dde\u5730\u65b9\u6574\u5099\u5c40\u7b51\u5f8c\u5ddd\u6cb3\u5ddd\u4e8b\u52d9\u6240","boring_xml_url":47,"boring_view_url":1,"soilmap_view_url":null,"soiltest_xml_url":0,"soiltest_view_url":0},{"id":287768,"code":"NGIC201901846-0019","latitude":"33.382588333333","longitude":"130.84404305556","source_code":"","project_name":"\u5e73\u621031\u5e74\u5ea6 \u8d64\u8c37\u5ddd\u6d41\u57df\u7802\u9632\u5730\u8cea\u8abf\u67fb\u696d\u52d9","survey_name":"\u5e73\u621031\u5e74\u5ea6 \u8d64\u8c37\u5ddd\u6d41\u57df\u7802\u9632\u5730\u8cea\u8abf\u67fb\u696d\u52d9","client_name":"\u56fd\u571f\u4ea4\u901a\u7701\u4e5d\u5dde\u5730\u65b9\u6574\u5099\u5c40\u7b51\u5f8c\u5ddd\u6cb3\u5ddd\u4e8b\u52d9\u6240","boring_xml_url":47,"boring_view_url":1,"soilmap_view_url":null,"soiltest_xml_url":0,"soiltest_view_url":0},{"id":287767,"code":"NGIC201901846-0018","latitude":"33.382988333333","longitude":"130.84413777778","source_code":"","project_name":"\u5e73\u621031\u5e74\u5ea6 \u8d64\u8c37\u5ddd\u6d41\u57df\u7802\u9632\u5730\u8cea\u8abf\u67fb\u696d\u52d9","survey_name":"\u5e73\u621031\u5e74\u5ea6 \u8d64\u8c37\u5ddd\u6d41\u57df\u7802\u9632\u5730\u8cea\u8abf\u67fb\u696d\u52d9","client_name":"\u56fd\u571f\u4ea4\u901a\u7701\u4e5d\u5dde\u5730\u65b9\u6574\u5099\u5c40\u7b51\u5f8c\u5ddd\u6cb3\u5ddd\u4e8b\u52d9\u6240","boring_xml_url":47,"boring_view_url":1,"soilmap_view_url":null,"soiltest_xml_url":0,"soiltest_view_url":0},{"id":287766,"code":"NGIC201901846-0017","latitude":"33.383229444444","longitude":"130.84417416667","source_code":"","project_name":"\u5e73\u621031\u5e74\u5ea6 \u8d64\u8c37\u5ddd\u6d41\u57df\u7802\u9632\u5730\u8cea\u8abf\u67fb\u696d\u52d9","survey_name":"\u5e73\u621031\u5e74\u5ea6 \u8d64\u8c37\u5ddd\u6d41\u57df\u7802\u9632\u5730\u8cea\u8abf\u67fb\u696d\u52d9","client_name":"\u56fd\u571f\u4ea4\u901a\u7701\u4e5d\u5dde\u5730\u65b9\u6574\u5099\u5c40\u7b51\u5f8c\u5ddd\u6cb3\u5ddd\u4e8b\u52d9\u6240","boring_xml_url":47,"boring_view_url":1,"soilmap_view_url":null,"soiltest_xml_url":0,"soiltest_view_url":0},{"id":287765,"code":"NGIC201901846-0016","latitude":"33.391571111111","longitude":"130.85088333333","source_code":"","project_name":"\u5e73\u621031\u5e74\u5ea6 \u8d64\u8c37\u5ddd\u6d41\u57df\u7802\u9632\u5730\u8cea\u8abf\u67fb\u696d\u52d9","survey_name":"\u5e73\u621031\u5e74\u5ea6 \u8d64\u8c37\u5ddd\u6d41\u57df\u7802\u9632\u5730\u8cea\u8abf\u67fb\u696d\u52d9","client_name":"\u56fd\u571f\u4ea4\u901a\u7701\u4e5d\u5dde\u5730\u65b9\u6574\u5099\u5c40\u7b51\u5f8c\u5ddd\u6cb3\u5ddd\u4e8b\u52d9\u6240","boring_xml_url":47,"boring_view_url":1,"soilmap_view_url":null,"soiltest_xml_url":0,"soiltest_view_url":0},{"id":287764,"code":"NGIC201901846-0015","latitude":"33.391715","longitude":"130.85075388889","source_code":"","project_name":"\u5e73\u621031\u5e74\u5ea6 \u8d64\u8c37\u5ddd\u6d41\u57df\u7802\u9632\u5730\u8cea\u8abf\u67fb\u696d\u52d9","survey_name":"\u5e73\u621031\u5e74\u5ea6 \u8d64\u8c37\u5ddd\u6d41\u57df\u7802\u9632\u5730\u8cea\u8abf\u67fb\u696d\u52d9","client_name":"\u56fd\u571f\u4ea4\u901a\u7701\u4e5d\u5dde\u5730\u65b9\u6574\u5099\u5c40\u7b51\u5f8c\u5ddd\u6cb3\u5ddd\u4e8b\u52d9\u6240","boring_xml_url":47,"boring_view_url":1,"soilmap_view_url":null,"soiltest_xml_url":0,"soiltest_view_url":0},{"id":287763,"code":"NGIC201901846-0014","latitude":"33.391577777778","longitude":"130.85080805556","source_code":"","project_name":"\u5e73\u621031\u5e74\u5ea6 \u8d64\u8c37\u5ddd\u6d41\u57df\u7802\u9632\u5730\u8cea\u8abf\u67fb\u696d\u52d9","survey_name":"\u5e73\u621031\u5e74\u5ea6 \u8d64\u8c37\u5ddd\u6d41\u57df\u7802\u9632\u5730\u8cea\u8abf\u67fb\u696d\u52d9","client_name":"\u56fd\u571f\u4ea4\u901a\u7701\u4e5d\u5dde\u5730\u65b9\u6574\u5099\u5c40\u7b51\u5f8c\u5ddd\u6cb3\u5ddd\u4e8b\u52d9\u6240","boring_xml_url":47,"boring_view_url":1,"soilmap_view_url":null,"soiltest_xml_url":0,"soiltest_view_url":0},{"id":287762,"code":"NGIC201901846-0013","latitude":"33.391651944444","longitude":"130.85074333333","source_code":"","project_name":"\u5e73\u621031\u5e74\u5ea6 \u8d64\u8c37\u5ddd\u6d41\u57df\u7802\u9632\u5730\u8cea\u8abf\u67fb\u696d\u52d9","survey_name":"\u5e73\u621031\u5e74\u5ea6 \u8d64\u8c37\u5ddd\u6d41\u57df\u7802\u9632\u5730\u8cea\u8abf\u67fb\u696d\u52d9","client_name":"\u56fd\u571f\u4ea4\u901a\u7701\u4e5d\u5dde\u5730\u65b9\u6574\u5099\u5c40\u7b51\u5f8c\u5ddd\u6cb3\u5ddd\u4e8b\u52d9\u6240","boring_xml_url":47,"boring_view_url":1,"soilmap_view_url":null,"soiltest_xml_url":0,"soiltest_view_url":0},{"id":287761,"code":"NGIC201901846-0012","latitude":"33.390404166667","longitude":"130.84655944444","source_code":"","project_name":"\u5e73\u621031\u5e74\u5ea6 \u8d64\u8c37\u5ddd\u6d41\u57df\u7802\u9632\u5730\u8cea\u8abf\u67fb\u696d\u52d9","survey_name":"\u5e73\u621031\u5e74\u5ea6 \u8d64\u8c37\u5ddd\u6d41\u57df\u7802\u9632\u5730\u8cea\u8abf\u67fb\u696d\u52d9","client_name":"\u56fd\u571f\u4ea4\u901a\u7701\u4e5d\u5dde\u5730\u65b9\u6574\u5099\u5c40\u7b51\u5f8c\u5ddd\u6cb3\u5ddd\u4e8b\u52d9\u6240","boring_xml_url":47,"boring_view_url":1,"soilmap_view_url":null,"soiltest_xml_url":0,"soiltest_view_url":0},{"id":287760,"code":"NGIC201901846-0011","latitude":"33.390743888889","longitude":"130.84705277778","source_code":"","project_name":"\u5e73\u621031\u5e74\u5ea6 \u8d64\u8c37\u5ddd\u6d41\u57df\u7802\u9632\u5730\u8cea\u8abf\u67fb\u696d\u52d9","survey_name":"\u5e73\u621031\u5e74\u5ea6 \u8d64\u8c37\u5ddd\u6d41\u57df\u7802\u9632\u5730\u8cea\u8abf\u67fb\u696d\u52d9","client_name":"\u56fd\u571f\u4ea4\u901a\u7701\u4e5d\u5dde\u5730\u65b9\u6574\u5099\u5c40\u7b51\u5f8c\u5ddd\u6cb3\u5ddd\u4e8b\u52d9\u6240","boring_xml_url":47,"boring_view_url":1,"soilmap_view_url":null,"soiltest_xml_url":0,"soiltest_view_url":0},{"id":287759,"code":"NGIC201901846-0010","latitude":"33.390526111111","longitude":"130.84701444444","source_code":"","project_name":"\u5e73\u621031\u5e74\u5ea6 \u8d64\u8c37\u5ddd\u6d41\u57df\u7802\u9632\u5730\u8cea\u8abf\u67fb\u696d\u52d9","survey_name":"\u5e73\u621031\u5e74\u5ea6 \u8d64\u8c37\u5ddd\u6d41\u57df\u7802\u9632\u5730\u8cea\u8abf\u67fb\u696d\u52d9","client_name":"\u56fd\u571f\u4ea4\u901a\u7701\u4e5d\u5dde\u5730\u65b9\u6574\u5099\u5c40\u7b51\u5f8c\u5ddd\u6cb3\u5ddd\u4e8b\u52d9\u6240","boring_xml_url":47,"boring_view_url":1,"soilmap_view_url":null,"soiltest_xml_url":0,"soiltest_view_url":0},{"id":287758,"code":"NGIC201901846-0009","latitude":"33.390500277778","longitude":"130.84676055556","source_code":"","project_name":"\u5e73\u621031\u5e74\u5ea6 \u8d64\u8c37\u5ddd\u6d41\u57df\u7802\u9632\u5730\u8cea\u8abf\u67fb\u696d\u52d9","survey_name":"\u5e73\u621031\u5e74\u5ea6 \u8d64\u8c37\u5ddd\u6d41\u57df\u7802\u9632\u5730\u8cea\u8abf\u67fb\u696d\u52d9","client_name":"\u56fd\u571f\u4ea4\u901a\u7701\u4e5d\u5dde\u5730\u65b9\u6574\u5099\u5c40\u7b51\u5f8c\u5ddd\u6cb3\u5ddd\u4e8b\u52d9\u6240","boring_xml_url":47,"boring_view_url":1,"soilmap_view_url":null,"soiltest_xml_url":0,"soiltest_view_url":0},{"id":287757,"code":"NGIC201901846-0008","latitude":"33.392165555556","longitude":"130.84569277778","source_code":"","project_name":"\u5e73\u621031\u5e74\u5ea6 \u8d64\u8c37\u5ddd\u6d41\u57df\u7802\u9632\u5730\u8cea\u8abf\u67fb\u696d\u52d9","survey_name":"\u5e73\u621031\u5e74\u5ea6 \u8d64\u8c37\u5ddd\u6d41\u57df\u7802\u9632\u5730\u8cea\u8abf\u67fb\u696d\u52d9","client_name":"\u56fd\u571f\u4ea4\u901a\u7701\u4e5d\u5dde\u5730\u65b9\u6574\u5099\u5c40\u7b51\u5f8c\u5ddd\u6cb3\u5ddd\u4e8b\u52d9\u6240","boring_xml_url":47,"boring_view_url":1,"soilmap_view_url":null,"soiltest_xml_url":0,"soiltest_view_url":0},{"id":287756,"code":"NGIC201901846-0007","latitude":"33.3920675","longitude":"130.8454575","source_code":"","project_name":"\u5e73\u621031\u5e74\u5ea6 \u8d64\u8c37\u5ddd\u6d41\u57df\u7802\u9632\u5730\u8cea\u8abf\u67fb\u696d\u52d9","survey_name":"\u5e73\u621031\u5e74\u5ea6 \u8d64\u8c37\u5ddd\u6d41\u57df\u7802\u9632\u5730\u8cea\u8abf\u67fb\u696d\u52d9","client_name":"\u56fd\u571f\u4ea4\u901a\u7701\u4e5d\u5dde\u5730\u65b9\u6574\u5099\u5c40\u7b51\u5f8c\u5ddd\u6cb3\u5ddd\u4e8b\u52d9\u6240","boring_xml_url":47,"boring_view_url":1,"soilmap_view_url":null,"soiltest_xml_url":0,"soiltest_view_url":0},{"id":287755,"code":"NGIC201901846-0006","latitude":"33.391904166667","longitude":"130.84517638889","source_code":"","project_name":"\u5e73\u621031\u5e74\u5ea6 \u8d64\u8c37\u5ddd\u6d41\u57df\u7802\u9632\u5730\u8cea\u8abf\u67fb\u696d\u52d9","survey_name":"\u5e73\u621031\u5e74\u5ea6 \u8d64\u8c37\u5ddd\u6d41\u57df\u7802\u9632\u5730\u8cea\u8abf\u67fb\u696d\u52d9","client_name":"\u56fd\u571f\u4ea4\u901a\u7701\u4e5d\u5dde\u5730\u65b9\u6574\u5099\u5c40\u7b51\u5f8c\u5ddd\u6cb3\u5ddd\u4e8b\u52d9\u6240","boring_xml_url":47,"boring_view_url":1,"soilmap_view_url":null,"soiltest_xml_url":0,"soiltest_view_url":0},{"id":287754,"code":"NGIC201901846-0005","latitude":"33.391858333333","longitude":"130.84409166667","source_code":"","project_name":"\u5e73\u621031\u5e74\u5ea6 \u8d64\u8c37\u5ddd\u6d41\u57df\u7802\u9632\u5730\u8cea\u8abf\u67fb\u696d\u52d9","survey_name":"\u5e73\u621031\u5e74\u5ea6 \u8d64\u8c37\u5ddd\u6d41\u57df\u7802\u9632\u5730\u8cea\u8abf\u67fb\u696d\u52d9","client_name":"\u56fd\u571f\u4ea4\u901a\u7701\u4e5d\u5dde\u5730\u65b9\u6574\u5099\u5c40\u7b51\u5f8c\u5ddd\u6cb3\u5ddd\u4e8b\u52d9\u6240","boring_xml_url":47,"boring_view_url":1,"soilmap_view_url":null,"soiltest_xml_url":0,"soiltest_view_url":0},{"id":287753,"code":"NGIC201901846-0004","latitude":"33.391676388889","longitude":"130.84402861111","source_code":"","project_name":"\u5e73\u621031\u5e74\u5ea6 \u8d64\u8c37\u5ddd\u6d41\u57df\u7802\u9632\u5730\u8cea\u8abf\u67fb\u696d\u52d9","survey_name":"\u5e73\u621031\u5e74\u5ea6 \u8d64\u8c37\u5ddd\u6d41\u57df\u7802\u9632\u5730\u8cea\u8abf\u67fb\u696d\u52d9","client_name":"\u56fd\u571f\u4ea4\u901a\u7701\u4e5d\u5dde\u5730\u65b9\u6574\u5099\u5c40\u7b51\u5f8c\u5ddd\u6cb3\u5ddd\u4e8b\u52d9\u6240","boring_xml_url":47,"boring_view_url":1,"soilmap_view_url":null,"soiltest_xml_url":0,"soiltest_view_url":0},{"id":287752,"code":"NGIC201901846-0003","latitude":"33.391503888889","longitude":"130.84398388889","source_code":"","project_name":"\u5e73\u621031\u5e74\u5ea6 \u8d64\u8c37\u5ddd\u6d41\u57df\u7802\u9632\u5730\u8cea\u8abf\u67fb\u696d\u52d9","survey_name":"\u5e73\u621031\u5e74\u5ea6 \u8d64\u8c37\u5ddd\u6d41\u57df\u7802\u9632\u5730\u8cea\u8abf\u67fb\u696d\u52d9","client_name":"\u56fd\u571f\u4ea4\u901a\u7701\u4e5d\u5dde\u5730\u65b9\u6574\u5099\u5c40\u7b51\u5f8c\u5ddd\u6cb3\u5ddd\u4e8b\u52d9\u6240","boring_xml_url":47,"boring_view_url":1,"soilmap_view_url":null,"soiltest_xml_url":0,"soiltest_view_url":0},{"id":287751,"code":"NGIC201901846-0002","latitude":"33.380813888889","longitude":"130.83676083333","source_code":"","project_name":"\u5e73\u621031\u5e74\u5ea6 \u8d64\u8c37\u5ddd\u6d41\u57df\u7802\u9632\u5730\u8cea\u8abf\u67fb\u696d\u52d9","survey_name":"\u5e73\u621031\u5e74\u5ea6 \u8d64\u8c37\u5ddd\u6d41\u57df\u7802\u9632\u5730\u8cea\u8abf\u67fb\u696d\u52d9","client_name":"\u56fd\u571f\u4ea4\u901a\u7701\u4e5d\u5dde\u5730\u65b9\u6574\u5099\u5c40\u7b51\u5f8c\u5ddd\u6cb3\u5ddd\u4e8b\u52d9\u6240","boring_xml_url":47,"boring_view_url":1,"soilmap_view_url":null,"soiltest_xml_url":0,"soiltest_view_url":0},{"id":287750,"code":"NGIC201901846-0001","latitude":"33.38046","longitude":"130.83703388889","source_code":"","project_name":"\u5e73\u621031\u5e74\u5ea6 \u8d64\u8c37\u5ddd\u6d41\u57df\u7802\u9632\u5730\u8cea\u8abf\u67fb\u696d\u52d9","survey_name":"\u5e73\u621031\u5e74\u5ea6 \u8d64\u8c37\u5ddd\u6d41\u57df\u7802\u9632\u5730\u8cea\u8abf\u67fb\u696d\u52d9","client_name":"\u56fd\u571f\u4ea4\u901a\u7701\u4e5d\u5dde\u5730\u65b9\u6574\u5099\u5c40\u7b51\u5f8c\u5ddd\u6cb3\u5ddd\u4e8b\u52d9\u6240","boring_xml_url":47,"boring_view_url":1,"soilmap_view_url":null,"soiltest_xml_url":0,"soiltest_view_url":0},{"id":287749,"code":"NGIC201901836-0012","latitude":"33.080351222222","longitude":"132.50663591667","source_code":"","project_name":"","survey_name":"\u4ee4\u548c\u5143\u5e74\u5ea6\u6d25\u5cf6\u9053\u8def\u5730\u8cea\u8abf\u67fb\u696d\u52d9","client_name":"\u56fd\u571f\u4ea4\u901a\u7701\u56db\u56fd\u5730\u65b9\u6574\u5099\u5c40\u5927\u6d32\u6cb3\u5ddd\u56fd\u9053\u4e8b\u52d9\u6240","boring_xml_url":47,"boring_view_url":1,"soilmap_view_url":null,"soiltest_xml_url":0,"soiltest_view_url":0},{"id":287748,"code":"NGIC201901836-0011","latitude":"33.0804075","longitude":"132.50642961111","source_code":"","project_name":"","survey_name":"\u4ee4\u548c\u5143\u5e74\u5ea6\u6d25\u5cf6\u9053\u8def\u5730\u8cea\u8abf\u67fb\u696d\u52d9","client_name":"\u56fd\u571f\u4ea4\u901a\u7701\u56db\u56fd\u5730\u65b9\u6574\u5099\u5c40\u5927\u6d32\u6cb3\u5ddd\u56fd\u9053\u4e8b\u52d9\u6240","boring_xml_url":47,"boring_view_url":1,"soilmap_view_url":null,"soiltest_xml_url":0,"soiltest_view_url":0},{"id":287747,"code":"NGIC201901836-0010","latitude":"33.080175833333","longitude":"132.50640711111","source_code":"","project_name":"","survey_name":"\u4ee4\u548c\u5143\u5e74\u5ea6\u6d25\u5cf6\u9053\u8def\u5730\u8cea\u8abf\u67fb\u696d\u52d9","client_name":"\u56fd\u571f\u4ea4\u901a\u7701\u56db\u56fd\u5730\u65b9\u6574\u5099\u5c40\u5927\u6d32\u6cb3\u5ddd\u56fd\u9053\u4e8b\u52d9\u6240","boring_xml_url":47,"boring_view_url":1,"soilmap_view_url":null,"soiltest_xml_url":47,"soiltest_view_url":47},{"id":287746,"code":"NGIC201901836-0009","latitude":"33.079742805556","longitude":"132.50609758333","source_code":"","project_name":"","survey_name":"\u4ee4\u548c\u5143\u5e74\u5ea6\u6d25\u5cf6\u9053\u8def\u5730\u8cea\u8abf\u67fb\u696d\u52d9","client_name":"\u56fd\u571f\u4ea4\u901a\u7701\u56db\u56fd\u5730\u65b9\u6574\u5099\u5c40\u5927\u6d32\u6cb3\u5ddd\u56fd\u9053\u4e8b\u52d9\u6240","boring_xml_url":47,"boring_view_url":1,"soilmap_view_url":null,"soiltest_xml_url":0,"soiltest_view_url":0},{"id":287745,"code":"NGIC201901836-0008","latitude":"33.079523416667","longitude":"132.50592766667","source_code":"","project_name":"","survey_name":"\u4ee4\u548c\u5143\u5e74\u5ea6\u6d25\u5cf6\u9053\u8def\u5730\u8cea\u8abf\u67fb\u696d\u52d9","client_name":"\u56fd\u571f\u4ea4\u901a\u7701\u56db\u56fd\u5730\u65b9\u6574\u5099\u5c40\u5927\u6d32\u6cb3\u5ddd\u56fd\u9053\u4e8b\u52d9\u6240","boring_xml_url":47,"boring_view_url":1,"soilmap_view_url":null,"soiltest_xml_url":0,"soiltest_view_url":0}]}}