{"header":{"xyz":{"source":[],"mosaic":false},"page":221,"raw":{"soiltest_result":"0","bbox":"57.598333,109.544722,1.933333,163.806111","page":"221"},"conditions":{"soiltest_result":0,"north":57.598333,"west":109.544722,"south":1.933333,"east":163.806111},"success":true,"message":""},"data":{"meta":{"total":212844,"page":221,"pages":7095,"count":30},"values":[{"id":577851,"code":"NGIC202205997-0023","latitude":"36.414311944444","longitude":"138.22701277778","source_code":"","project_name":"\u4e0a\u7530\u5e02\u79cb\u548c\u5730\u533a","survey_name":"R3\u9577\u91ce\u56fd\u9053\u7ba1\u5185\u5730\u8cea\u8abf\u67fb\u89e3\u6790\u696d\u52d9","client_name":"\u56fd\u571f\u4ea4\u901a\u7701\u95a2\u6771\u5730\u65b9\u6574\u5099\u5c40\u9577\u91ce\u56fd\u9053\u4e8b\u52d9\u6240","boring_xml_url":47,"boring_view_url":1,"soilmap_view_url":null,"soiltest_xml_url":0,"soiltest_view_url":0},{"id":577850,"code":"NGIC202205997-0022","latitude":"36.316853111111","longitude":"137.93204730556","source_code":"","project_name":"\u91ce\u7530\u4ea4\u5dee\u70b9","survey_name":"R3\u9577\u91ce\u56fd\u9053\u7ba1\u5185\u5730\u8cea\u8abf\u67fb\u89e3\u6790\u696d\u52d9","client_name":"\u56fd\u571f\u4ea4\u901a\u7701\u95a2\u6771\u5730\u65b9\u6574\u5099\u5c40\u9577\u91ce\u56fd\u9053\u4e8b\u52d9\u6240","boring_xml_url":47,"boring_view_url":1,"soilmap_view_url":null,"soiltest_xml_url":0,"soiltest_view_url":0},{"id":577849,"code":"NGIC202205997-0021","latitude":"36.548153055556","longitude":"137.97428586111","source_code":"","project_name":"\u65e5\u539f\u897f","survey_name":"R3\u9577\u91ce\u56fd\u9053\u7ba1\u5185\u5730\u8cea\u8abf\u67fb\u89e3\u6790\u696d\u52d9","client_name":"\u56fd\u571f\u4ea4\u901a\u7701\u95a2\u6771\u5730\u65b9\u6574\u5099\u5c40\u9577\u91ce\u56fd\u9053\u4e8b\u52d9\u6240","boring_xml_url":47,"boring_view_url":1,"soilmap_view_url":null,"soiltest_xml_url":47,"soiltest_view_url":47},{"id":577848,"code":"NGIC202205997-0020","latitude":"36.548116083333","longitude":"137.97411541667","source_code":"","project_name":"\u65e5\u539f\u897f","survey_name":"R3\u9577\u91ce\u56fd\u9053\u7ba1\u5185\u5730\u8cea\u8abf\u67fb\u89e3\u6790\u696d\u52d9","client_name":"\u56fd\u571f\u4ea4\u901a\u7701\u95a2\u6771\u5730\u65b9\u6574\u5099\u5c40\u9577\u91ce\u56fd\u9053\u4e8b\u52d9\u6240","boring_xml_url":47,"boring_view_url":1,"soilmap_view_url":null,"soiltest_xml_url":47,"soiltest_view_url":47},{"id":577847,"code":"NGIC202205997-0019","latitude":"36.483132083333","longitude":"137.95222341667","source_code":"","project_name":"\u5c71\u6e05\u8def\u9632\u707d(\u8de8\u9053\u6a4b)","survey_name":"R3\u9577\u91ce\u56fd\u9053\u7ba1\u5185\u5730\u8cea\u8abf\u67fb\u89e3\u6790\u696d\u52d9","client_name":"\u56fd\u571f\u4ea4\u901a\u7701\u95a2\u6771\u5730\u65b9\u6574\u5099\u5c40\u9577\u91ce\u56fd\u9053\u4e8b\u52d9\u6240","boring_xml_url":47,"boring_view_url":1,"soilmap_view_url":null,"soiltest_xml_url":0,"soiltest_view_url":0},{"id":577846,"code":"NGIC202205997-0018","latitude":"36.483107166667","longitude":"137.95183672222","source_code":"","project_name":"\u5c71\u6e05\u8def\u9632\u707d(\u8de8\u9053\u6a4b)","survey_name":"R3\u9577\u91ce\u56fd\u9053\u7ba1\u5185\u5730\u8cea\u8abf\u67fb\u89e3\u6790\u696d\u52d9","client_name":"\u56fd\u571f\u4ea4\u901a\u7701\u95a2\u6771\u5730\u65b9\u6574\u5099\u5c40\u9577\u91ce\u56fd\u9053\u4e8b\u52d9\u6240","boring_xml_url":47,"boring_view_url":1,"soilmap_view_url":null,"soiltest_xml_url":0,"soiltest_view_url":0},{"id":577845,"code":"NGIC202205997-0017","latitude":"36.486276361111","longitude":"137.95393658333","source_code":"","project_name":"\u5c71\u6e05\u8def\u9632\u707d","survey_name":"R3\u9577\u91ce\u56fd\u9053\u7ba1\u5185\u5730\u8cea\u8abf\u67fb\u89e3\u6790\u696d\u52d9","client_name":"\u56fd\u571f\u4ea4\u901a\u7701\u95a2\u6771\u5730\u65b9\u6574\u5099\u5c40\u9577\u91ce\u56fd\u9053\u4e8b\u52d9\u6240","boring_xml_url":47,"boring_view_url":1,"soilmap_view_url":null,"soiltest_xml_url":47,"soiltest_view_url":47},{"id":577844,"code":"NGIC202205997-0016","latitude":"36.486182138889","longitude":"137.95408388889","source_code":"","project_name":"\u5c71\u6e05\u8def\u9632\u707d","survey_name":"R3\u9577\u91ce\u56fd\u9053\u7ba1\u5185\u5730\u8cea\u8abf\u67fb\u89e3\u6790\u696d\u52d9","client_name":"\u56fd\u571f\u4ea4\u901a\u7701\u95a2\u6771\u5730\u65b9\u6574\u5099\u5c40\u9577\u91ce\u56fd\u9053\u4e8b\u52d9\u6240","boring_xml_url":47,"boring_view_url":1,"soilmap_view_url":null,"soiltest_xml_url":0,"soiltest_view_url":0},{"id":577843,"code":"NGIC202205997-0015","latitude":"36.485931805556","longitude":"137.95366313889","source_code":"","project_name":"\u5c71\u6e05\u8def\u9632\u707d","survey_name":"R3\u9577\u91ce\u56fd\u9053\u7ba1\u5185\u5730\u8cea\u8abf\u67fb\u89e3\u6790\u696d\u52d9","client_name":"\u56fd\u571f\u4ea4\u901a\u7701\u95a2\u6771\u5730\u65b9\u6574\u5099\u5c40\u9577\u91ce\u56fd\u9053\u4e8b\u52d9\u6240","boring_xml_url":47,"boring_view_url":1,"soilmap_view_url":null,"soiltest_xml_url":0,"soiltest_view_url":0},{"id":577842,"code":"NGIC202205997-0014","latitude":"36.485643722222","longitude":"137.95360591667","source_code":"","project_name":"\u5c71\u6e05\u8def\u9632\u707d","survey_name":"R3\u9577\u91ce\u56fd\u9053\u7ba1\u5185\u5730\u8cea\u8abf\u67fb\u89e3\u6790\u696d\u52d9","client_name":"\u56fd\u571f\u4ea4\u901a\u7701\u95a2\u6771\u5730\u65b9\u6574\u5099\u5c40\u9577\u91ce\u56fd\u9053\u4e8b\u52d9\u6240","boring_xml_url":47,"boring_view_url":1,"soilmap_view_url":null,"soiltest_xml_url":0,"soiltest_view_url":0},{"id":577841,"code":"NGIC202205997-0013","latitude":"36.484696666667","longitude":"137.952945","source_code":"","project_name":"\u5c71\u6e05\u8def\u9632\u707d","survey_name":"R3\u9577\u91ce\u56fd\u9053\u7ba1\u5185\u5730\u8cea\u8abf\u67fb\u89e3\u6790\u696d\u52d9","client_name":"\u56fd\u571f\u4ea4\u901a\u7701\u95a2\u6771\u5730\u65b9\u6574\u5099\u5c40\u9577\u91ce\u56fd\u9053\u4e8b\u52d9\u6240","boring_xml_url":47,"boring_view_url":1,"soilmap_view_url":null,"soiltest_xml_url":0,"soiltest_view_url":0},{"id":577840,"code":"NGIC202205997-0012","latitude":"36.484239694444","longitude":"137.95263063889","source_code":"","project_name":"\u5c71\u6e05\u8def\u9632\u707d","survey_name":"R3\u9577\u91ce\u56fd\u9053\u7ba1\u5185\u5730\u8cea\u8abf\u67fb\u89e3\u6790\u696d\u52d9","client_name":"\u56fd\u571f\u4ea4\u901a\u7701\u95a2\u6771\u5730\u65b9\u6574\u5099\u5c40\u9577\u91ce\u56fd\u9053\u4e8b\u52d9\u6240","boring_xml_url":47,"boring_view_url":1,"soilmap_view_url":null,"soiltest_xml_url":0,"soiltest_view_url":0},{"id":577839,"code":"NGIC202205997-0011","latitude":"36.431308888889","longitude":"137.92511505556","source_code":"","project_name":"\u751f\u5742\u6751\u7dcf\u5408\u30b0\u30e9\u30a6\u30f3\u30c9","survey_name":"R3\u9577\u91ce\u56fd\u9053\u7ba1\u5185\u5730\u8cea\u8abf\u67fb\u89e3\u6790\u696d\u52d9","client_name":"\u56fd\u571f\u4ea4\u901a\u7701\u95a2\u6771\u5730\u65b9\u6574\u5099\u5c40\u9577\u91ce\u56fd\u9053\u4e8b\u52d9\u6240","boring_xml_url":47,"boring_view_url":1,"soilmap_view_url":null,"soiltest_xml_url":0,"soiltest_view_url":0},{"id":577838,"code":"NGIC202205997-0010","latitude":"36.431297055556","longitude":"137.92659166667","source_code":"","project_name":"\u751f\u5742\u6751\u7dcf\u5408\u30b0\u30e9\u30a6\u30f3\u30c9","survey_name":"R3\u9577\u91ce\u56fd\u9053\u7ba1\u5185\u5730\u8cea\u8abf\u67fb\u89e3\u6790\u696d\u52d9","client_name":"\u56fd\u571f\u4ea4\u901a\u7701\u95a2\u6771\u5730\u65b9\u6574\u5099\u5c40\u9577\u91ce\u56fd\u9053\u4e8b\u52d9\u6240","boring_xml_url":47,"boring_view_url":1,"soilmap_view_url":null,"soiltest_xml_url":0,"soiltest_view_url":0},{"id":577837,"code":"NGIC202205997-0009","latitude":"36.425167861111","longitude":"137.92030797222","source_code":"","project_name":"\u751f\u5742\u6751\u30b9\u30ab\u30a4\u30b9\u30dd\u30fc\u30c4\u30d1\u30fc\u30af","survey_name":"R3\u9577\u91ce\u56fd\u9053\u7ba1\u5185\u5730\u8cea\u8abf\u67fb\u89e3\u6790\u696d\u52d9","client_name":"\u56fd\u571f\u4ea4\u901a\u7701\u95a2\u6771\u5730\u65b9\u6574\u5099\u5c40\u9577\u91ce\u56fd\u9053\u4e8b\u52d9\u6240","boring_xml_url":47,"boring_view_url":1,"soilmap_view_url":null,"soiltest_xml_url":0,"soiltest_view_url":0},{"id":577836,"code":"NGIC202205997-0008","latitude":"36.424640305556","longitude":"137.92040083333","source_code":"","project_name":"\u751f\u5742\u6751\u30b9\u30ab\u30a4\u30b9\u30dd\u30fc\u30c4\u30d1\u30fc\u30af","survey_name":"R3\u9577\u91ce\u56fd\u9053\u7ba1\u5185\u5730\u8cea\u8abf\u67fb\u89e3\u6790\u696d\u52d9","client_name":"\u56fd\u571f\u4ea4\u901a\u7701\u95a2\u6771\u5730\u65b9\u6574\u5099\u5c40\u9577\u91ce\u56fd\u9053\u4e8b\u52d9\u6240","boring_xml_url":47,"boring_view_url":1,"soilmap_view_url":null,"soiltest_xml_url":0,"soiltest_view_url":0},{"id":577835,"code":"NGIC202205997-0007","latitude":"36.424521666667","longitude":"137.92080383333","source_code":"","project_name":"\u751f\u5742\u6751\u30b9\u30ab\u30a4\u30b9\u30dd\u30fc\u30c4\u30d1\u30fc\u30af","survey_name":"R3\u9577\u91ce\u56fd\u9053\u7ba1\u5185\u5730\u8cea\u8abf\u67fb\u89e3\u6790\u696d\u52d9","client_name":"\u56fd\u571f\u4ea4\u901a\u7701\u95a2\u6771\u5730\u65b9\u6574\u5099\u5c40\u9577\u91ce\u56fd\u9053\u4e8b\u52d9\u6240","boring_xml_url":47,"boring_view_url":1,"soilmap_view_url":null,"soiltest_xml_url":0,"soiltest_view_url":0},{"id":577834,"code":"NGIC202205997-0006","latitude":"36.236718555556","longitude":"137.95626261111","source_code":"","project_name":"\u677e\u672c\u62e1\u5e45\u9053\u8def","survey_name":"R3\u9577\u91ce\u56fd\u9053\u7ba1\u5185\u5730\u8cea\u8abf\u67fb\u89e3\u6790\u696d\u52d9","client_name":"\u56fd\u571f\u4ea4\u901a\u7701\u95a2\u6771\u5730\u65b9\u6574\u5099\u5c40\u9577\u91ce\u56fd\u9053\u4e8b\u52d9\u6240","boring_xml_url":47,"boring_view_url":1,"soilmap_view_url":null,"soiltest_xml_url":0,"soiltest_view_url":0},{"id":577833,"code":"NGIC202205997-0005","latitude":"36.236698","longitude":"137.95629575","source_code":"","project_name":"\u677e\u672c\u62e1\u5e45\u9053\u8def","survey_name":"R3\u9577\u91ce\u56fd\u9053\u7ba1\u5185\u5730\u8cea\u8abf\u67fb\u89e3\u6790\u696d\u52d9","client_name":"\u56fd\u571f\u4ea4\u901a\u7701\u95a2\u6771\u5730\u65b9\u6574\u5099\u5c40\u9577\u91ce\u56fd\u9053\u4e8b\u52d9\u6240","boring_xml_url":47,"boring_view_url":1,"soilmap_view_url":null,"soiltest_xml_url":0,"soiltest_view_url":0},{"id":577832,"code":"NGIC202205997-0004","latitude":"36.236187805556","longitude":"137.95629763889","source_code":"","project_name":"\u677e\u672c\u62e1\u5e45\u9053\u8def","survey_name":"R3\u9577\u91ce\u56fd\u9053\u7ba1\u5185\u5730\u8cea\u8abf\u67fb\u89e3\u6790\u696d\u52d9","client_name":"\u56fd\u571f\u4ea4\u901a\u7701\u95a2\u6771\u5730\u65b9\u6574\u5099\u5c40\u9577\u91ce\u56fd\u9053\u4e8b\u52d9\u6240","boring_xml_url":47,"boring_view_url":1,"soilmap_view_url":null,"soiltest_xml_url":0,"soiltest_view_url":0},{"id":577831,"code":"NGIC202205997-0003","latitude":"36.236069694444","longitude":"137.95658447222","source_code":"","project_name":"\u677e\u672c\u62e1\u5e45\u9053\u8def","survey_name":"R3\u9577\u91ce\u56fd\u9053\u7ba1\u5185\u5730\u8cea\u8abf\u67fb\u89e3\u6790\u696d\u52d9","client_name":"\u56fd\u571f\u4ea4\u901a\u7701\u95a2\u6771\u5730\u65b9\u6574\u5099\u5c40\u9577\u91ce\u56fd\u9053\u4e8b\u52d9\u6240","boring_xml_url":47,"boring_view_url":1,"soilmap_view_url":null,"soiltest_xml_url":0,"soiltest_view_url":0},{"id":577830,"code":"NGIC202205997-0002","latitude":"36.538390277778","longitude":"138.10008638889","source_code":"","project_name":"\u5742\u57ce\u66f4\u57f4\u30d0\u30a4\u30d1\u30b93\u5de5\u533a\u7a32\u8377\u5c71\u30c8\u30f3\u30cd\u30eb","survey_name":"R3\u9577\u91ce\u56fd\u9053\u7ba1\u5185\u5730\u8cea\u8abf\u67fb\u89e3\u6790\u696d\u52d9","client_name":"\u56fd\u571f\u4ea4\u901a\u7701\u95a2\u6771\u5730\u65b9\u6574\u5099\u5c40\u9577\u91ce\u56fd\u9053\u4e8b\u52d9\u6240","boring_xml_url":47,"boring_view_url":1,"soilmap_view_url":null,"soiltest_xml_url":0,"soiltest_view_url":0},{"id":577829,"code":"NGIC202205997-0001","latitude":"36.538512222222","longitude":"138.10009611111","source_code":"","project_name":"\u5742\u57ce\u66f4\u57f4\u30d0\u30a4\u30d1\u30b93\u5de5\u533a\u7a32\u8377\u5c71\u30c8\u30f3\u30cd\u30eb","survey_name":"R3\u9577\u91ce\u56fd\u9053\u7ba1\u5185\u5730\u8cea\u8abf\u67fb\u89e3\u6790\u696d\u52d9","client_name":"\u56fd\u571f\u4ea4\u901a\u7701\u95a2\u6771\u5730\u65b9\u6574\u5099\u5c40\u9577\u91ce\u56fd\u9053\u4e8b\u52d9\u6240","boring_xml_url":47,"boring_view_url":1,"soilmap_view_url":null,"soiltest_xml_url":0,"soiltest_view_url":0},{"id":577820,"code":"NGIC202205659-0003","latitude":"32.937492944444","longitude":"131.79762511111","source_code":"","project_name":"","survey_name":"\u4e45\u7559\u9808\u5ddd\u6e2c\u91cf\u8a2d\u8a08\u5916(\u305d\u306e2)\u696d\u52d9","client_name":"\u56fd\u571f\u4ea4\u901a\u7701\u4e5d\u5dde\u5730\u65b9\u6574\u5099\u5c40\u4f50\u4f2f\u6cb3\u5ddd\u56fd\u9053\u4e8b\u52d9\u6240","boring_xml_url":47,"boring_view_url":1,"soilmap_view_url":null,"soiltest_xml_url":0,"soiltest_view_url":0},{"id":577819,"code":"NGIC202205659-0002","latitude":"32.938507472222","longitude":"131.79699994444","source_code":"","project_name":"","survey_name":"\u4e45\u7559\u9808\u5ddd\u6e2c\u91cf\u8a2d\u8a08\u5916(\u305d\u306e2)\u696d\u52d9","client_name":"\u56fd\u571f\u4ea4\u901a\u7701\u4e5d\u5dde\u5730\u65b9\u6574\u5099\u5c40\u4f50\u4f2f\u6cb3\u5ddd\u56fd\u9053\u4e8b\u52d9\u6240","boring_xml_url":47,"boring_view_url":1,"soilmap_view_url":null,"soiltest_xml_url":0,"soiltest_view_url":0},{"id":577818,"code":"NGIC202205659-0001","latitude":"32.938955361111","longitude":"131.79831352778","source_code":"","project_name":"","survey_name":"\u4e45\u7559\u9808\u5ddd\u6e2c\u91cf\u8a2d\u8a08\u5916(\u305d\u306e2)\u696d\u52d9","client_name":"\u56fd\u571f\u4ea4\u901a\u7701\u4e5d\u5dde\u5730\u65b9\u6574\u5099\u5c40\u4f50\u4f2f\u6cb3\u5ddd\u56fd\u9053\u4e8b\u52d9\u6240","boring_xml_url":47,"boring_view_url":1,"soilmap_view_url":null,"soiltest_xml_url":0,"soiltest_view_url":0},{"id":577799,"code":"NGIC202205821-0002","latitude":"34.182460555556","longitude":"132.23333194444","source_code":"","project_name":"\u5ca9\u56fd\u6e2f\u81e8\u6e2f\u9053\u8def\u6574\u5099\u4e8b\u696d","survey_name":"\u5ca9\u56fd\u6e2f\u81e8\u6e2f\u9053\u8def\u8a2d\u8a08\u696d\u52d9","client_name":"\u56fd\u571f\u4ea4\u901a\u7701\u4e2d\u56fd\u5730\u65b9\u6574\u5099\u5c40\u5b87\u90e8\u6e2f\u6e7e\u30fb\u7a7a\u6e2f\u6574\u5099\u4e8b\u52d9\u6240","boring_xml_url":47,"boring_view_url":1,"soilmap_view_url":null,"soiltest_xml_url":0,"soiltest_view_url":0},{"id":577798,"code":"NGIC202205821-0001","latitude":"34.182108333333","longitude":"132.23330055556","source_code":"","project_name":"\u5ca9\u56fd\u6e2f\u81e8\u6e2f\u9053\u8def\u6574\u5099\u4e8b\u696d","survey_name":"\u5ca9\u56fd\u6e2f\u81e8\u6e2f\u9053\u8def\u8a2d\u8a08\u696d\u52d9","client_name":"\u56fd\u571f\u4ea4\u901a\u7701\u4e2d\u56fd\u5730\u65b9\u6574\u5099\u5c40\u5b87\u90e8\u6e2f\u6e7e\u30fb\u7a7a\u6e2f\u6574\u5099\u4e8b\u52d9\u6240","boring_xml_url":47,"boring_view_url":1,"soilmap_view_url":null,"soiltest_xml_url":0,"soiltest_view_url":0},{"id":577755,"code":"NGIC202205595-0001","latitude":"36.128818555556","longitude":"139.03118211111","source_code":"","project_name":"R4\u8b72\u539f\u5730\u3059\u3079\u308a\u5916\u89b3\u6e2c\u696d\u52d9","survey_name":"R4\u8b72\u539f\u5730\u3059\u3079\u308a\u5916\u89b3\u6e2c\u696d\u52d9","client_name":"\u56fd\u571f\u4ea4\u901a\u7701\u95a2\u6771\u5730\u65b9\u6574\u5099\u5c40\u5229\u6839\u5ddd\u6c34\u7cfb\u7802\u9632\u4e8b\u52d9\u6240","boring_xml_url":47,"boring_view_url":1,"soilmap_view_url":null,"soiltest_xml_url":0,"soiltest_view_url":0},{"id":577748,"code":"NGIC202205628-0043","latitude":"34.709742194444","longitude":"135.57743433333","source_code":"","project_name":"","survey_name":"\u6dc0\u5ddd\u5de6\u5cb8\u7dda\u5ef6\u4f38\u90e8\u6a2a\u5824\u5730\u533a\u4ed6\u571f\u58cc\u8abf\u67fb\u696d\u52d9\u00a5n","client_name":"\u56fd\u571f\u4ea4\u901a\u7701\u8fd1\u757f\u5730\u65b9\u6574\u5099\u5c40\u6d6a\u901f\u56fd\u9053\u4e8b\u52d9\u6240","boring_xml_url":47,"boring_view_url":1,"soilmap_view_url":null,"soiltest_xml_url":0,"soiltest_view_url":0}]}}