{"header":{"xyz":{"source":[],"mosaic":false},"page":2213,"raw":{"soiltest_result":"0","bbox":"57.598333,109.544722,1.933333,163.806111","page":"2213"},"conditions":{"soiltest_result":0,"north":57.598333,"west":109.544722,"south":1.933333,"east":163.806111},"success":true,"message":""},"data":{"meta":{"total":212844,"page":2213,"pages":7095,"count":30},"values":[{"id":287523,"code":"NGIC201901825-0006","latitude":"35.900629","longitude":"140.37659077778","source_code":"","project_name":"","survey_name":"\u570f\u592e\u9053\u5730\u8cea\u8abf\u67fb\u696d\u52d930K21","client_name":"\u56fd\u571f\u4ea4\u901a\u7701\u95a2\u6771\u5730\u65b9\u6574\u5099\u5c40\u5e38\u7dcf\u56fd\u9053\u4e8b\u52d9\u6240\u8a08\u753b\u8ab2","boring_xml_url":47,"boring_view_url":1,"soilmap_view_url":null,"soiltest_xml_url":47,"soiltest_view_url":47},{"id":287522,"code":"NGIC201901825-0005","latitude":"35.901380277778","longitude":"140.37619591667","source_code":"","project_name":"","survey_name":"\u570f\u592e\u9053\u5730\u8cea\u8abf\u67fb\u696d\u52d930K21","client_name":"\u56fd\u571f\u4ea4\u901a\u7701\u95a2\u6771\u5730\u65b9\u6574\u5099\u5c40\u5e38\u7dcf\u56fd\u9053\u4e8b\u52d9\u6240\u8a08\u753b\u8ab2","boring_xml_url":47,"boring_view_url":1,"soilmap_view_url":null,"soiltest_xml_url":47,"soiltest_view_url":47},{"id":287521,"code":"NGIC201901825-0004","latitude":"35.903600916667","longitude":"140.37499583333","source_code":"","project_name":"","survey_name":"\u570f\u592e\u9053\u5730\u8cea\u8abf\u67fb\u696d\u52d930K21","client_name":"\u56fd\u571f\u4ea4\u901a\u7701\u95a2\u6771\u5730\u65b9\u6574\u5099\u5c40\u5e38\u7dcf\u56fd\u9053\u4e8b\u52d9\u6240\u8a08\u753b\u8ab2","boring_xml_url":47,"boring_view_url":1,"soilmap_view_url":null,"soiltest_xml_url":47,"soiltest_view_url":47},{"id":287520,"code":"NGIC201901825-0003","latitude":"35.904344611111","longitude":"140.37459666667","source_code":"","project_name":"","survey_name":"\u570f\u592e\u9053\u5730\u8cea\u8abf\u67fb\u696d\u52d930K21","client_name":"\u56fd\u571f\u4ea4\u901a\u7701\u95a2\u6771\u5730\u65b9\u6574\u5099\u5c40\u5e38\u7dcf\u56fd\u9053\u4e8b\u52d9\u6240\u8a08\u753b\u8ab2","boring_xml_url":47,"boring_view_url":1,"soilmap_view_url":null,"soiltest_xml_url":47,"soiltest_view_url":47},{"id":287519,"code":"NGIC201901825-0002","latitude":"35.905081333333","longitude":"140.37418866667","source_code":"","project_name":"","survey_name":"\u570f\u592e\u9053\u5730\u8cea\u8abf\u67fb\u696d\u52d930K21","client_name":"\u56fd\u571f\u4ea4\u901a\u7701\u95a2\u6771\u5730\u65b9\u6574\u5099\u5c40\u5e38\u7dcf\u56fd\u9053\u4e8b\u52d9\u6240\u8a08\u753b\u8ab2","boring_xml_url":47,"boring_view_url":1,"soilmap_view_url":null,"soiltest_xml_url":47,"soiltest_view_url":47},{"id":287518,"code":"NGIC201901825-0001","latitude":"35.90584","longitude":"140.37376225","source_code":"","project_name":"","survey_name":"\u570f\u592e\u9053\u5730\u8cea\u8abf\u67fb\u696d\u52d930K21","client_name":"\u56fd\u571f\u4ea4\u901a\u7701\u95a2\u6771\u5730\u65b9\u6574\u5099\u5c40\u5e38\u7dcf\u56fd\u9053\u4e8b\u52d9\u6240\u8a08\u753b\u8ab2","boring_xml_url":47,"boring_view_url":1,"soilmap_view_url":null,"soiltest_xml_url":47,"soiltest_view_url":47},{"id":287513,"code":"NGIC201901796-0001","latitude":"33.040931833333","longitude":"133.03002452778","source_code":"","project_name":"","survey_name":"\u5e73\u621031\u5e74\u5ea6\u4f50\u8cc0\u5927\u65b9\u9053\u8def\u6c34\u6587\u8abf\u67fb\uff08\u305d\u306e1\uff09\u696d\u52d9","client_name":"\u56fd\u571f\u4ea4\u901a\u7701\u56db\u56fd\u5730\u65b9\u6574\u5099\u5c40\u4e2d\u6751\u6cb3\u5ddd\u56fd\u9053\u4e8b\u52d9\u6240","boring_xml_url":47,"boring_view_url":1,"soilmap_view_url":null,"soiltest_xml_url":47,"soiltest_view_url":47},{"id":287492,"code":"NGIC201901799-0010","latitude":"36.000783333333","longitude":"139.50598888889","source_code":"","project_name":"R1\u8352\u5ddd\u4e0a\u6d41\u7ba1\u5185\u5730\u8cea\u8abf\u67fb\u696d\u52d9","survey_name":"R1\u8352\u5ddd\u4e0a\u6d41\u7ba1\u5185\u5730\u8cea\u8abf\u67fb\u696d\u52d9","client_name":"\u56fd\u571f\u4ea4\u901a\u7701\u95a2\u6771\u5730\u65b9\u6574\u5099\u5c40\u8352\u5ddd\u4e0a\u6d41\u6cb3\u5ddd\u4e8b\u52d9\u6240","boring_xml_url":47,"boring_view_url":1,"soilmap_view_url":null,"soiltest_xml_url":47,"soiltest_view_url":47},{"id":287491,"code":"NGIC201901799-0009","latitude":"35.983980555556","longitude":"139.52074166667","source_code":"","project_name":"R1\u8352\u5ddd\u4e0a\u6d41\u7ba1\u5185\u5730\u8cea\u8abf\u67fb\u696d\u52d9","survey_name":"R1\u8352\u5ddd\u4e0a\u6d41\u7ba1\u5185\u5730\u8cea\u8abf\u67fb\u696d\u52d9","client_name":"\u56fd\u571f\u4ea4\u901a\u7701\u95a2\u6771\u5730\u65b9\u6574\u5099\u5c40\u8352\u5ddd\u4e0a\u6d41\u6cb3\u5ddd\u4e8b\u52d9\u6240","boring_xml_url":47,"boring_view_url":1,"soilmap_view_url":null,"soiltest_xml_url":47,"soiltest_view_url":47},{"id":287490,"code":"NGIC201901799-0008","latitude":"35.9787","longitude":"139.52761111111","source_code":"","project_name":"R1\u8352\u5ddd\u4e0a\u6d41\u7ba1\u5185\u5730\u8cea\u8abf\u67fb\u696d\u52d9","survey_name":"R1\u8352\u5ddd\u4e0a\u6d41\u7ba1\u5185\u5730\u8cea\u8abf\u67fb\u696d\u52d9","client_name":"\u56fd\u571f\u4ea4\u901a\u7701\u95a2\u6771\u5730\u65b9\u6574\u5099\u5c40\u8352\u5ddd\u4e0a\u6d41\u6cb3\u5ddd\u4e8b\u52d9\u6240","boring_xml_url":47,"boring_view_url":1,"soilmap_view_url":null,"soiltest_xml_url":47,"soiltest_view_url":47},{"id":287489,"code":"NGIC201901799-0007","latitude":"35.974444444444","longitude":"139.53065","source_code":"","project_name":"R1\u8352\u5ddd\u4e0a\u6d41\u7ba1\u5185\u5730\u8cea\u8abf\u67fb\u696d\u52d9","survey_name":"R1\u8352\u5ddd\u4e0a\u6d41\u7ba1\u5185\u5730\u8cea\u8abf\u67fb\u696d\u52d9","client_name":"\u56fd\u571f\u4ea4\u901a\u7701\u95a2\u6771\u5730\u65b9\u6574\u5099\u5c40\u8352\u5ddd\u4e0a\u6d41\u6cb3\u5ddd\u4e8b\u52d9\u6240","boring_xml_url":47,"boring_view_url":1,"soilmap_view_url":null,"soiltest_xml_url":47,"soiltest_view_url":47},{"id":287488,"code":"NGIC201901799-0006","latitude":"35.9694","longitude":"139.53608333333","source_code":"","project_name":"R1\u8352\u5ddd\u4e0a\u6d41\u7ba1\u5185\u5730\u8cea\u8abf\u67fb\u696d\u52d9","survey_name":"R1\u8352\u5ddd\u4e0a\u6d41\u7ba1\u5185\u5730\u8cea\u8abf\u67fb\u696d\u52d9","client_name":"\u56fd\u571f\u4ea4\u901a\u7701\u95a2\u6771\u5730\u65b9\u6574\u5099\u5c40\u8352\u5ddd\u4e0a\u6d41\u6cb3\u5ddd\u4e8b\u52d9\u6240","boring_xml_url":47,"boring_view_url":1,"soilmap_view_url":null,"soiltest_xml_url":47,"soiltest_view_url":47},{"id":287487,"code":"NGIC201901799-0005","latitude":"35.961044444444","longitude":"139.54081111111","source_code":"","project_name":"R1\u8352\u5ddd\u4e0a\u6d41\u7ba1\u5185\u5730\u8cea\u8abf\u67fb\u696d\u52d9","survey_name":"R1\u8352\u5ddd\u4e0a\u6d41\u7ba1\u5185\u5730\u8cea\u8abf\u67fb\u696d\u52d9","client_name":"\u56fd\u571f\u4ea4\u901a\u7701\u95a2\u6771\u5730\u65b9\u6574\u5099\u5c40\u8352\u5ddd\u4e0a\u6d41\u6cb3\u5ddd\u4e8b\u52d9\u6240","boring_xml_url":47,"boring_view_url":1,"soilmap_view_url":null,"soiltest_xml_url":47,"soiltest_view_url":47},{"id":287486,"code":"NGIC201901799-0004","latitude":"35.955761111111","longitude":"139.54269444444","source_code":"","project_name":"R1\u8352\u5ddd\u4e0a\u6d41\u7ba1\u5185\u5730\u8cea\u8abf\u67fb\u696d\u52d9","survey_name":"R1\u8352\u5ddd\u4e0a\u6d41\u7ba1\u5185\u5730\u8cea\u8abf\u67fb\u696d\u52d9","client_name":"\u56fd\u571f\u4ea4\u901a\u7701\u95a2\u6771\u5730\u65b9\u6574\u5099\u5c40\u8352\u5ddd\u4e0a\u6d41\u6cb3\u5ddd\u4e8b\u52d9\u6240","boring_xml_url":47,"boring_view_url":1,"soilmap_view_url":null,"soiltest_xml_url":47,"soiltest_view_url":47},{"id":287485,"code":"NGIC201901799-0003","latitude":"35.947352777778","longitude":"139.54515","source_code":"","project_name":"R1\u8352\u5ddd\u4e0a\u6d41\u7ba1\u5185\u5730\u8cea\u8abf\u67fb\u696d\u52d9","survey_name":"R1\u8352\u5ddd\u4e0a\u6d41\u7ba1\u5185\u5730\u8cea\u8abf\u67fb\u696d\u52d9","client_name":"\u56fd\u571f\u4ea4\u901a\u7701\u95a2\u6771\u5730\u65b9\u6574\u5099\u5c40\u8352\u5ddd\u4e0a\u6d41\u6cb3\u5ddd\u4e8b\u52d9\u6240","boring_xml_url":47,"boring_view_url":1,"soilmap_view_url":null,"soiltest_xml_url":47,"soiltest_view_url":47},{"id":287484,"code":"NGIC201901799-0002","latitude":"35.943027777778","longitude":"139.54632777778","source_code":"","project_name":"R1\u8352\u5ddd\u4e0a\u6d41\u7ba1\u5185\u5730\u8cea\u8abf\u67fb\u696d\u52d9","survey_name":"R1\u8352\u5ddd\u4e0a\u6d41\u7ba1\u5185\u5730\u8cea\u8abf\u67fb\u696d\u52d9","client_name":"\u56fd\u571f\u4ea4\u901a\u7701\u95a2\u6771\u5730\u65b9\u6574\u5099\u5c40\u8352\u5ddd\u4e0a\u6d41\u6cb3\u5ddd\u4e8b\u52d9\u6240","boring_xml_url":47,"boring_view_url":1,"soilmap_view_url":null,"soiltest_xml_url":47,"soiltest_view_url":47},{"id":287483,"code":"NGIC201901799-0001","latitude":"35.920552777778","longitude":"139.546275","source_code":"","project_name":"R1\u8352\u5ddd\u4e0a\u6d41\u7ba1\u5185\u5730\u8cea\u8abf\u67fb\u696d\u52d9","survey_name":"R1\u8352\u5ddd\u4e0a\u6d41\u7ba1\u5185\u5730\u8cea\u8abf\u67fb\u696d\u52d9","client_name":"\u56fd\u571f\u4ea4\u901a\u7701\u95a2\u6771\u5730\u65b9\u6574\u5099\u5c40\u8352\u5ddd\u4e0a\u6d41\u6cb3\u5ddd\u4e8b\u52d9\u6240","boring_xml_url":47,"boring_view_url":1,"soilmap_view_url":null,"soiltest_xml_url":47,"soiltest_view_url":47},{"id":287456,"code":"NGIC201901777-0019","latitude":"35.661977972222","longitude":"139.91726625","source_code":"","project_name":"","survey_name":"H31\u56fd\u9053357\u53f7\u5883\u5ddd\u6a4b\u6881\u5730\u8cea\u8abf\u67fb\u696d\u52d9","client_name":"\u56fd\u571f\u4ea4\u901a\u7701\u95a2\u6771\u5730\u65b9\u6574\u5099\u5c40\u9996\u90fd\u56fd\u9053\u4e8b\u52d9\u6240","boring_xml_url":47,"boring_view_url":1,"soilmap_view_url":null,"soiltest_xml_url":47,"soiltest_view_url":47},{"id":287455,"code":"NGIC201901777-0018","latitude":"35.65974175","longitude":"139.91483947222","source_code":"","project_name":"","survey_name":"H31\u56fd\u9053357\u53f7\u5883\u5ddd\u6a4b\u6881\u5730\u8cea\u8abf\u67fb\u696d\u52d9","client_name":"\u56fd\u571f\u4ea4\u901a\u7701\u95a2\u6771\u5730\u65b9\u6574\u5099\u5c40\u9996\u90fd\u56fd\u9053\u4e8b\u52d9\u6240","boring_xml_url":47,"boring_view_url":1,"soilmap_view_url":null,"soiltest_xml_url":47,"soiltest_view_url":47},{"id":287454,"code":"NGIC201901777-0017","latitude":"35.659485722222","longitude":"139.91455208333","source_code":"","project_name":"","survey_name":"H31\u56fd\u9053357\u53f7\u5883\u5ddd\u6a4b\u6881\u5730\u8cea\u8abf\u67fb\u696d\u52d9","client_name":"\u56fd\u571f\u4ea4\u901a\u7701\u95a2\u6771\u5730\u65b9\u6574\u5099\u5c40\u9996\u90fd\u56fd\u9053\u4e8b\u52d9\u6240","boring_xml_url":47,"boring_view_url":1,"soilmap_view_url":null,"soiltest_xml_url":47,"soiltest_view_url":47},{"id":287453,"code":"NGIC201901777-0016","latitude":"35.659041333333","longitude":"139.91401077778","source_code":"","project_name":"","survey_name":"H31\u56fd\u9053357\u53f7\u5883\u5ddd\u6a4b\u6881\u5730\u8cea\u8abf\u67fb\u696d\u52d9","client_name":"\u56fd\u571f\u4ea4\u901a\u7701\u95a2\u6771\u5730\u65b9\u6574\u5099\u5c40\u9996\u90fd\u56fd\u9053\u4e8b\u52d9\u6240","boring_xml_url":47,"boring_view_url":1,"soilmap_view_url":null,"soiltest_xml_url":47,"soiltest_view_url":47},{"id":287452,"code":"NGIC201901777-0015","latitude":"35.658289694444","longitude":"139.91308513889","source_code":"","project_name":"","survey_name":"H31\u56fd\u9053357\u53f7\u5883\u5ddd\u6a4b\u6881\u5730\u8cea\u8abf\u67fb\u696d\u52d9","client_name":"\u56fd\u571f\u4ea4\u901a\u7701\u95a2\u6771\u5730\u65b9\u6574\u5099\u5c40\u9996\u90fd\u56fd\u9053\u4e8b\u52d9\u6240","boring_xml_url":47,"boring_view_url":1,"soilmap_view_url":null,"soiltest_xml_url":47,"soiltest_view_url":47},{"id":287451,"code":"NGIC201901777-0014","latitude":"35.658020166667","longitude":"139.91276327778","source_code":"","project_name":"","survey_name":"H31\u56fd\u9053357\u53f7\u5883\u5ddd\u6a4b\u6881\u5730\u8cea\u8abf\u67fb\u696d\u52d9","client_name":"\u56fd\u571f\u4ea4\u901a\u7701\u95a2\u6771\u5730\u65b9\u6574\u5099\u5c40\u9996\u90fd\u56fd\u9053\u4e8b\u52d9\u6240","boring_xml_url":47,"boring_view_url":1,"soilmap_view_url":null,"soiltest_xml_url":47,"soiltest_view_url":47},{"id":287450,"code":"NGIC201901777-0013","latitude":"35.659363416667","longitude":"139.91351063889","source_code":"","project_name":"","survey_name":"H31\u56fd\u9053357\u53f7\u5883\u5ddd\u6a4b\u6881\u5730\u8cea\u8abf\u67fb\u696d\u52d9","client_name":"\u56fd\u571f\u4ea4\u901a\u7701\u95a2\u6771\u5730\u65b9\u6574\u5099\u5c40\u9996\u90fd\u56fd\u9053\u4e8b\u52d9\u6240","boring_xml_url":47,"boring_view_url":1,"soilmap_view_url":null,"soiltest_xml_url":47,"soiltest_view_url":47},{"id":287449,"code":"NGIC201901777-0012","latitude":"35.658607972222","longitude":"139.91256077778","source_code":"","project_name":"","survey_name":"H31\u56fd\u9053357\u53f7\u5883\u5ddd\u6a4b\u6881\u5730\u8cea\u8abf\u67fb\u696d\u52d9","client_name":"\u56fd\u571f\u4ea4\u901a\u7701\u95a2\u6771\u5730\u65b9\u6574\u5099\u5c40\u9996\u90fd\u56fd\u9053\u4e8b\u52d9\u6240","boring_xml_url":47,"boring_view_url":1,"soilmap_view_url":null,"soiltest_xml_url":47,"soiltest_view_url":47},{"id":287448,"code":"NGIC201901777-0011","latitude":"35.658347055556","longitude":"139.91225594444","source_code":"","project_name":"","survey_name":"H31\u56fd\u9053357\u53f7\u5883\u5ddd\u6a4b\u6881\u5730\u8cea\u8abf\u67fb\u696d\u52d9","client_name":"\u56fd\u571f\u4ea4\u901a\u7701\u95a2\u6771\u5730\u65b9\u6574\u5099\u5c40\u9996\u90fd\u56fd\u9053\u4e8b\u52d9\u6240","boring_xml_url":47,"boring_view_url":1,"soilmap_view_url":null,"soiltest_xml_url":47,"soiltest_view_url":47},{"id":287447,"code":"NGIC201901777-0010","latitude":"35.6515765","longitude":"139.90505586111","source_code":"","project_name":"","survey_name":"H31\u56fd\u9053357\u53f7\u5883\u5ddd\u6a4b\u6881\u5730\u8cea\u8abf\u67fb\u696d\u52d9","client_name":"\u56fd\u571f\u4ea4\u901a\u7701\u95a2\u6771\u5730\u65b9\u6574\u5099\u5c40\u9996\u90fd\u56fd\u9053\u4e8b\u52d9\u6240","boring_xml_url":47,"boring_view_url":1,"soilmap_view_url":null,"soiltest_xml_url":47,"soiltest_view_url":47},{"id":287446,"code":"NGIC201901777-0009","latitude":"35.651136583333","longitude":"139.90457838889","source_code":"","project_name":"","survey_name":"H31\u56fd\u9053357\u53f7\u5883\u5ddd\u6a4b\u6881\u5730\u8cea\u8abf\u67fb\u696d\u52d9","client_name":"\u56fd\u571f\u4ea4\u901a\u7701\u95a2\u6771\u5730\u65b9\u6574\u5099\u5c40\u9996\u90fd\u56fd\u9053\u4e8b\u52d9\u6240","boring_xml_url":47,"boring_view_url":1,"soilmap_view_url":null,"soiltest_xml_url":47,"soiltest_view_url":47},{"id":287445,"code":"NGIC201901777-0008","latitude":"35.650580777778","longitude":"139.90385175","source_code":"","project_name":"","survey_name":"H31\u56fd\u9053357\u53f7\u5883\u5ddd\u6a4b\u6881\u5730\u8cea\u8abf\u67fb\u696d\u52d9","client_name":"\u56fd\u571f\u4ea4\u901a\u7701\u95a2\u6771\u5730\u65b9\u6574\u5099\u5c40\u9996\u90fd\u56fd\u9053\u4e8b\u52d9\u6240","boring_xml_url":47,"boring_view_url":1,"soilmap_view_url":null,"soiltest_xml_url":47,"soiltest_view_url":47},{"id":287444,"code":"NGIC201901777-0007","latitude":"35.649993083333","longitude":"139.90316369444","source_code":"","project_name":"","survey_name":"H31\u56fd\u9053357\u53f7\u5883\u5ddd\u6a4b\u6881\u5730\u8cea\u8abf\u67fb\u696d\u52d9","client_name":"\u56fd\u571f\u4ea4\u901a\u7701\u95a2\u6771\u5730\u65b9\u6574\u5099\u5c40\u9996\u90fd\u56fd\u9053\u4e8b\u52d9\u6240","boring_xml_url":47,"boring_view_url":1,"soilmap_view_url":null,"soiltest_xml_url":47,"soiltest_view_url":47}]}}