{"header":{"xyz":{"source":[],"mosaic":false},"page":2217,"raw":{"soiltest_result":"0","bbox":"57.598333,109.544722,1.933333,163.806111","page":"2217"},"conditions":{"soiltest_result":0,"north":57.598333,"west":109.544722,"south":1.933333,"east":163.806111},"success":true,"message":""},"data":{"meta":{"total":212844,"page":2217,"pages":7095,"count":30},"values":[{"id":287319,"code":"NGIC201901715-0003","latitude":"34.042440555556","longitude":"134.02808638889","source_code":"","project_name":"\u4ee4\u548c\u5143\u5e74\u5ea6\u534a\u7530\u7b87\u6240\u5916\u5730\u8cea\u8abf\u67fb\u696d\u52d9","survey_name":"\u4ee4\u548c\u5143\u5e74\u5ea6\u534a\u7530\u7b87\u6240\u5916\u5730\u8cea\u8abf\u67fb\u696d\u52d9","client_name":"\u56fd\u571f\u4ea4\u901a\u7701\u56db\u56fd\u5730\u65b9\u6574\u5099\u5c40\u5fb3\u5cf6\u6cb3\u5ddd\u56fd\u9053\u4e8b\u52d9\u6240","boring_xml_url":47,"boring_view_url":1,"soilmap_view_url":null,"soiltest_xml_url":47,"soiltest_view_url":47},{"id":287318,"code":"NGIC201901715-0002","latitude":"34.041807222222","longitude":"134.02627138889","source_code":"","project_name":"\u4ee4\u548c\u5143\u5e74\u5ea6\u534a\u7530\u7b87\u6240\u5916\u5730\u8cea\u8abf\u67fb\u696d\u52d9","survey_name":"\u4ee4\u548c\u5143\u5e74\u5ea6\u534a\u7530\u7b87\u6240\u5916\u5730\u8cea\u8abf\u67fb\u696d\u52d9","client_name":"\u56fd\u571f\u4ea4\u901a\u7701\u56db\u56fd\u5730\u65b9\u6574\u5099\u5c40\u5fb3\u5cf6\u6cb3\u5ddd\u56fd\u9053\u4e8b\u52d9\u6240","boring_xml_url":47,"boring_view_url":1,"soilmap_view_url":null,"soiltest_xml_url":47,"soiltest_view_url":47},{"id":287317,"code":"NGIC201901715-0001","latitude":"34.041794722222","longitude":"134.02627777778","source_code":"","project_name":"\u4ee4\u548c\u5143\u5e74\u5ea6\u534a\u7530\u7b87\u6240\u5916\u5730\u8cea\u8abf\u67fb\u696d\u52d9","survey_name":"\u4ee4\u548c\u5143\u5e74\u5ea6\u534a\u7530\u7b87\u6240\u5916\u5730\u8cea\u8abf\u67fb\u696d\u52d9","client_name":"\u56fd\u571f\u4ea4\u901a\u7701\u56db\u56fd\u5730\u65b9\u6574\u5099\u5c40\u5fb3\u5cf6\u6cb3\u5ddd\u56fd\u9053\u4e8b\u52d9\u6240","boring_xml_url":47,"boring_view_url":1,"soilmap_view_url":null,"soiltest_xml_url":47,"soiltest_view_url":47},{"id":287304,"code":"NGIC201901688-0003","latitude":"26.441953833333","longitude":"127.83285994444","source_code":"","project_name":"","survey_name":"\u8b66\u5bdf\u5b66\u6821\u9053\u5834\u59162\u4ef6(R1)\u8a2d\u8a08\u696d\u52d9","client_name":"\u5185\u95a3\u5e9c\u6c96\u7e04\u7dcf\u5408\u4e8b\u52d9\u5c40\u958b\u767a\u5efa\u8a2d\u90e8","boring_xml_url":47,"boring_view_url":1,"soilmap_view_url":null,"soiltest_xml_url":0,"soiltest_view_url":0},{"id":287303,"code":"NGIC201901688-0002","latitude":"26.442010138889","longitude":"127.83275188889","source_code":"","project_name":"","survey_name":"\u8b66\u5bdf\u5b66\u6821\u9053\u5834\u59162\u4ef6(R1)\u8a2d\u8a08\u696d\u52d9","client_name":"\u5185\u95a3\u5e9c\u6c96\u7e04\u7dcf\u5408\u4e8b\u52d9\u5c40\u958b\u767a\u5efa\u8a2d\u90e8","boring_xml_url":47,"boring_view_url":1,"soilmap_view_url":null,"soiltest_xml_url":0,"soiltest_view_url":0},{"id":287302,"code":"NGIC201901688-0001","latitude":"26.441897527778","longitude":"127.832968","source_code":"","project_name":"","survey_name":"\u8b66\u5bdf\u5b66\u6821\u9053\u5834\u59162\u4ef6(R1)\u8a2d\u8a08\u696d\u52d9","client_name":"\u5185\u95a3\u5e9c\u6c96\u7e04\u7dcf\u5408\u4e8b\u52d9\u5c40\u958b\u767a\u5efa\u8a2d\u90e8","boring_xml_url":47,"boring_view_url":1,"soilmap_view_url":null,"soiltest_xml_url":47,"soiltest_view_url":47},{"id":287301,"code":"NGIC201901774-0011","latitude":"42.716477777778","longitude":"140.42853333333","source_code":"","project_name":"","survey_name":"\u5036\u77e5\u5b89\u958b\u767a\u4e8b\u52d9\u6240\u7ba1\u5185\u5730\u8cea\u8abf\u67fb\u696d\u52d9","client_name":"\u56fd\u571f\u4ea4\u901a\u7701\u5317\u6d77\u9053\u958b\u767a\u5c40\u5c0f\u6a3d\u958b\u767a\u5efa\u8a2d\u90e8\u5036\u77e5\u5b89\u958b\u767a\u4e8b\u52d9\u6240","boring_xml_url":47,"boring_view_url":1,"soilmap_view_url":null,"soiltest_xml_url":47,"soiltest_view_url":47},{"id":287300,"code":"NGIC201901774-0010","latitude":"42.712522222222","longitude":"140.42681944444","source_code":"","project_name":"","survey_name":"\u5036\u77e5\u5b89\u958b\u767a\u4e8b\u52d9\u6240\u7ba1\u5185\u5730\u8cea\u8abf\u67fb\u696d\u52d9","client_name":"\u56fd\u571f\u4ea4\u901a\u7701\u5317\u6d77\u9053\u958b\u767a\u5c40\u5c0f\u6a3d\u958b\u767a\u5efa\u8a2d\u90e8\u5036\u77e5\u5b89\u958b\u767a\u4e8b\u52d9\u6240","boring_xml_url":47,"boring_view_url":1,"soilmap_view_url":null,"soiltest_xml_url":47,"soiltest_view_url":47},{"id":287299,"code":"NGIC201901774-0009","latitude":"42.712572222222","longitude":"140.42660555556","source_code":"","project_name":"","survey_name":"\u5036\u77e5\u5b89\u958b\u767a\u4e8b\u52d9\u6240\u7ba1\u5185\u5730\u8cea\u8abf\u67fb\u696d\u52d9","client_name":"\u56fd\u571f\u4ea4\u901a\u7701\u5317\u6d77\u9053\u958b\u767a\u5c40\u5c0f\u6a3d\u958b\u767a\u5efa\u8a2d\u90e8\u5036\u77e5\u5b89\u958b\u767a\u4e8b\u52d9\u6240","boring_xml_url":47,"boring_view_url":1,"soilmap_view_url":null,"soiltest_xml_url":47,"soiltest_view_url":47},{"id":287298,"code":"NGIC201901774-0008","latitude":"42.707777777778","longitude":"140.42447777778","source_code":"","project_name":"","survey_name":"\u5036\u77e5\u5b89\u958b\u767a\u4e8b\u52d9\u6240\u7ba1\u5185\u5730\u8cea\u8abf\u67fb\u696d\u52d9","client_name":"\u56fd\u571f\u4ea4\u901a\u7701\u5317\u6d77\u9053\u958b\u767a\u5c40\u5c0f\u6a3d\u958b\u767a\u5efa\u8a2d\u90e8\u5036\u77e5\u5b89\u958b\u767a\u4e8b\u52d9\u6240","boring_xml_url":47,"boring_view_url":1,"soilmap_view_url":null,"soiltest_xml_url":47,"soiltest_view_url":47},{"id":287297,"code":"NGIC201901774-0007","latitude":"42.914228611111","longitude":"140.71972277778","source_code":"","project_name":"\u30af\u30c8\u30b5\u30f32\u53f7\u5ddd\u6a4b","survey_name":"\u5036\u77e5\u5b89\u958b\u767a\u4e8b\u52d9\u6240\u7ba1\u5185\u5730\u8cea\u8abf\u67fb\u696d\u52d9","client_name":"\u56fd\u571f\u4ea4\u901a\u7701\u5317\u6d77\u9053\u958b\u767a\u5c40\u5c0f\u6a3d\u958b\u767a\u5efa\u8a2d\u90e8\u5036\u77e5\u5b89\u958b\u767a\u4e8b\u52d9\u6240","boring_xml_url":47,"boring_view_url":1,"soilmap_view_url":null,"soiltest_xml_url":47,"soiltest_view_url":47},{"id":287296,"code":"NGIC201901774-0006","latitude":"42.902802777778","longitude":"140.72536666667","source_code":"","project_name":"","survey_name":"\u5036\u77e5\u5b89\u958b\u767a\u4e8b\u52d9\u6240\u7ba1\u5185\u5730\u8cea\u8abf\u67fb\u696d\u52d9","client_name":"\u56fd\u571f\u4ea4\u901a\u7701\u5317\u6d77\u9053\u958b\u767a\u5c40\u5c0f\u6a3d\u958b\u767a\u5efa\u8a2d\u90e8\u5036\u77e5\u5b89\u958b\u767a\u4e8b\u52d9\u6240","boring_xml_url":47,"boring_view_url":1,"soilmap_view_url":null,"soiltest_xml_url":47,"soiltest_view_url":47},{"id":287295,"code":"NGIC201901774-0005","latitude":"42.902669444444","longitude":"140.72555555556","source_code":"","project_name":"","survey_name":"\u5036\u77e5\u5b89\u958b\u767a\u4e8b\u52d9\u6240\u7ba1\u5185\u5730\u8cea\u8abf\u67fb\u696d\u52d9","client_name":"\u56fd\u571f\u4ea4\u901a\u7701\u5317\u6d77\u9053\u958b\u767a\u5c40\u5c0f\u6a3d\u958b\u767a\u5efa\u8a2d\u90e8\u5036\u77e5\u5b89\u958b\u767a\u4e8b\u52d9\u6240","boring_xml_url":47,"boring_view_url":1,"soilmap_view_url":null,"soiltest_xml_url":47,"soiltest_view_url":47},{"id":287294,"code":"NGIC201901774-0004","latitude":"42.902604722222","longitude":"140.72550722222","source_code":"","project_name":"","survey_name":"\u5036\u77e5\u5b89\u958b\u767a\u4e8b\u52d9\u6240\u7ba1\u5185\u5730\u8cea\u8abf\u67fb\u696d\u52d9","client_name":"\u56fd\u571f\u4ea4\u901a\u7701\u5317\u6d77\u9053\u958b\u767a\u5c40\u5c0f\u6a3d\u958b\u767a\u5efa\u8a2d\u90e8\u5036\u77e5\u5b89\u958b\u767a\u4e8b\u52d9\u6240","boring_xml_url":47,"boring_view_url":1,"soilmap_view_url":null,"soiltest_xml_url":0,"soiltest_view_url":0},{"id":287293,"code":"NGIC201901774-0003","latitude":"42.909444444444","longitude":"140.75333333333","source_code":"","project_name":"","survey_name":"\u5036\u77e5\u5b89\u958b\u767a\u4e8b\u52d9\u6240\u7ba1\u5185 \u5730\u8cea\u8abf\u67fb\u696d\u52d9","client_name":"\u56fd\u571f\u4ea4\u901a\u7701\u5317\u6d77\u9053\u958b\u767a\u5c40\u5c0f\u6a3d\u958b\u767a\u5efa\u8a2d\u90e8\u5036\u77e5\u5b89\u958b\u767a\u4e8b\u52d9\u6240","boring_xml_url":47,"boring_view_url":1,"soilmap_view_url":null,"soiltest_xml_url":47,"soiltest_view_url":47},{"id":287292,"code":"NGIC201901774-0002","latitude":"42.907777777778","longitude":"140.75305555556","source_code":"","project_name":"","survey_name":"\u5036\u77e5\u5b89\u958b\u767a\u4e8b\u52d9\u6240\u7ba1\u5185 \u5730\u8cea\u8abf\u67fb\u696d\u52d9","client_name":"\u56fd\u571f\u4ea4\u901a\u7701\u5317\u6d77\u9053\u958b\u767a\u5c40\u5c0f\u6a3d\u958b\u767a\u5efa\u8a2d\u90e8\u5036\u77e5\u5b89\u958b\u767a\u4e8b\u52d9\u6240","boring_xml_url":47,"boring_view_url":1,"soilmap_view_url":null,"soiltest_xml_url":47,"soiltest_view_url":47},{"id":287291,"code":"NGIC201901774-0001","latitude":"42.905833333333","longitude":"140.75305555556","source_code":"","project_name":"","survey_name":"\u5036\u77e5\u5b89\u958b\u767a\u4e8b\u52d9\u6240\u7ba1\u5185 \u5730\u8cea\u8abf\u67fb\u696d\u52d9","client_name":"\u56fd\u571f\u4ea4\u901a\u7701\u5317\u6d77\u9053\u958b\u767a\u5c40\u5c0f\u6a3d\u958b\u767a\u5efa\u8a2d\u90e8\u5036\u77e5\u5b89\u958b\u767a\u4e8b\u52d9\u6240","boring_xml_url":47,"boring_view_url":1,"soilmap_view_url":null,"soiltest_xml_url":47,"soiltest_view_url":47},{"id":287286,"code":"NGIC201901751-0006","latitude":"33.54734275","longitude":"133.45119341667","source_code":"","project_name":"\u9ad8\u77e5\u897f\u30d0\u30a4\u30d1\u30b9","survey_name":"\u5e73\u621030-31\u5e74\u5ea633\u30fb56\u53f7\u7ba1\u5185\u9632\u707d\u70b9\u691c\u89b3\u6e2c\u696d\u52d9","client_name":"\u56fd\u571f\u4ea4\u901a\u7701\u56db\u56fd\u5730\u65b9\u6574\u5099\u5c40\u571f\u4f50\u56fd\u9053\u4e8b\u52d9\u6240","boring_xml_url":47,"boring_view_url":1,"soilmap_view_url":null,"soiltest_xml_url":0,"soiltest_view_url":0},{"id":287285,"code":"NGIC201901751-0005","latitude":"33.547448583333","longitude":"133.45093447222","source_code":"","project_name":"\u9ad8\u77e5\u897f\u30d0\u30a4\u30d1\u30b9","survey_name":"\u5e73\u621030-31\u5e74\u5ea633\u30fb56\u53f7\u7ba1\u5185\u9632\u707d\u70b9\u691c\u89b3\u6e2c\u696d\u52d9","client_name":"\u56fd\u571f\u4ea4\u901a\u7701\u56db\u56fd\u5730\u65b9\u6574\u5099\u5c40\u571f\u4f50\u56fd\u9053\u4e8b\u52d9\u6240","boring_xml_url":47,"boring_view_url":1,"soilmap_view_url":null,"soiltest_xml_url":0,"soiltest_view_url":0},{"id":287284,"code":"NGIC201901751-0004","latitude":"33.547263","longitude":"133.45141461111","source_code":"","project_name":"\u9ad8\u77e5\u897f\u30d0\u30a4\u30d1\u30b9","survey_name":"\u5e73\u621030-31\u5e74\u5ea633\u30fb56\u53f7\u7ba1\u5185\u9632\u707d\u70b9\u691c\u89b3\u6e2c\u696d\u52d9","client_name":"\u56fd\u571f\u4ea4\u901a\u7701\u56db\u56fd\u5730\u65b9\u6574\u5099\u5c40\u571f\u4f50\u56fd\u9053\u4e8b\u52d9\u6240","boring_xml_url":47,"boring_view_url":1,"soilmap_view_url":null,"soiltest_xml_url":0,"soiltest_view_url":0},{"id":287283,"code":"NGIC201901751-0003","latitude":"33.5474135","longitude":"133.45133236111","source_code":"","project_name":"\u9ad8\u77e5\u897f\u30d0\u30a4\u30d1\u30b9","survey_name":"\u5e73\u621030-31\u5e74\u5ea633\u30fb56\u53f7\u7ba1\u5185\u9632\u707d\u70b9\u691c\u89b3\u6e2c\u696d\u52d9","client_name":"\u56fd\u571f\u4ea4\u901a\u7701\u56db\u56fd\u5730\u65b9\u6574\u5099\u5c40\u571f\u4f50\u56fd\u9053\u4e8b\u52d9\u6240","boring_xml_url":47,"boring_view_url":1,"soilmap_view_url":null,"soiltest_xml_url":0,"soiltest_view_url":0},{"id":287282,"code":"NGIC201901751-0002","latitude":"33.547515444444","longitude":"133.45126027778","source_code":"","project_name":"\u9ad8\u77e5\u897f\u30d0\u30a4\u30d1\u30b9","survey_name":"\u5e73\u621030-31\u5e74\u5ea633\u30fb56\u53f7\u7ba1\u5185\u9632\u707d\u70b9\u691c\u89b3\u6e2c\u696d\u52d9","client_name":"\u56fd\u571f\u4ea4\u901a\u7701\u56db\u56fd\u5730\u65b9\u6574\u5099\u5c40\u571f\u4f50\u56fd\u9053\u4e8b\u52d9\u6240","boring_xml_url":47,"boring_view_url":1,"soilmap_view_url":null,"soiltest_xml_url":0,"soiltest_view_url":0},{"id":287281,"code":"NGIC201901751-0001","latitude":"33.547713027778","longitude":"133.45161669444","source_code":"","project_name":"\u9ad8\u77e5\u897f\u30d0\u30a4\u30d1\u30b9","survey_name":"\u5e73\u621030-31\u5e74\u5ea633\u30fb56\u53f7\u7ba1\u5185\u9632\u707d\u70b9\u691c\u89b3\u6e2c\u696d\u52d9","client_name":"\u56fd\u571f\u4ea4\u901a\u7701\u56db\u56fd\u5730\u65b9\u6574\u5099\u5c40\u571f\u4f50\u56fd\u9053\u4e8b\u52d9\u6240","boring_xml_url":47,"boring_view_url":1,"soilmap_view_url":null,"soiltest_xml_url":0,"soiltest_view_url":0},{"id":287280,"code":"NGIC201901771-0003","latitude":"35.734588944444","longitude":"137.20861083333","source_code":"","project_name":"","survey_name":"\u5e73\u621030\u5e74\u5ea6\u9ad8\u5c71\u56fd\u9053\u7ba1\u5185\u9632\u707d\u70b9\u691c\u8a2d\u8a08\u696d\u52d9","client_name":"\u56fd\u571f\u4ea4\u901a\u7701\u4e2d\u90e8\u5730\u65b9\u6574\u5099\u5c40\u9ad8\u5c71\u56fd\u9053\u4e8b\u52d9\u6240","boring_xml_url":47,"boring_view_url":1,"soilmap_view_url":null,"soiltest_xml_url":0,"soiltest_view_url":0},{"id":287279,"code":"NGIC201901771-0002","latitude":"36.395789694444","longitude":"137.28635694444","source_code":"","project_name":"","survey_name":"\u5e73\u621030\u5e74\u5ea6\u9ad8\u5c71\u56fd\u9053\u7ba1\u5185\u9632\u707d\u70b9\u691c\u8a2d\u8a08\u696d\u52d9","client_name":"\u56fd\u571f\u4ea4\u901a\u7701\u4e2d\u90e8\u5730\u65b9\u6574\u5099\u5c40\u9ad8\u5c71\u56fd\u9053\u4e8b\u52d9\u6240","boring_xml_url":47,"boring_view_url":1,"soilmap_view_url":null,"soiltest_xml_url":0,"soiltest_view_url":0},{"id":287278,"code":"NGIC201901771-0001","latitude":"36.396131111111","longitude":"137.28601422222","source_code":"","project_name":"","survey_name":"\u5e73\u621030\u5e74\u5ea6\u9ad8\u5c71\u56fd\u9053\u7ba1\u5185\u9632\u707d\u70b9\u691c\u8a2d\u8a08\u696d\u52d9","client_name":"\u56fd\u571f\u4ea4\u901a\u7701\u4e2d\u90e8\u5730\u65b9\u6574\u5099\u5c40\u9ad8\u5c71\u56fd\u9053\u4e8b\u52d9\u6240","boring_xml_url":47,"boring_view_url":1,"soilmap_view_url":null,"soiltest_xml_url":0,"soiltest_view_url":0},{"id":287263,"code":"NGIC201901665-0025","latitude":"35.111665","longitude":"137.55793388889","source_code":"","project_name":"","survey_name":"\u5e73\u621031\u5e74\u5ea6\u8a2d\u697d\u30c0\u30e0\u5ddd\u5411\u5927\u540d\u5009\u5730\u533a\u5730\u8cea\u8abf\u67fb\u696d\u52d9","client_name":"\u56fd\u571f\u4ea4\u901a\u7701\u4e2d\u90e8\u5730\u65b9\u6574\u5099\u5c40\u8a2d\u697d\u30c0\u30e0\u5de5\u4e8b\u4e8b\u52d9\u6240","boring_xml_url":47,"boring_view_url":1,"soilmap_view_url":null,"soiltest_xml_url":0,"soiltest_view_url":0},{"id":287262,"code":"NGIC201901665-0024","latitude":"35.111667222222","longitude":"137.55795694444","source_code":"","project_name":"","survey_name":"\u5e73\u621031\u5e74\u5ea6\u8a2d\u697d\u30c0\u30e0\u5ddd\u5411\u5927\u540d\u5009\u5730\u533a\u5730\u8cea\u8abf\u67fb\u696d\u52d9","client_name":"\u56fd\u571f\u4ea4\u901a\u7701\u4e2d\u90e8\u5730\u65b9\u6574\u5099\u5c40\u8a2d\u697d\u30c0\u30e0\u5de5\u4e8b\u4e8b\u52d9\u6240","boring_xml_url":47,"boring_view_url":1,"soilmap_view_url":null,"soiltest_xml_url":0,"soiltest_view_url":0},{"id":287261,"code":"NGIC201901665-0023","latitude":"35.111983333333","longitude":"137.55821361111","source_code":"","project_name":"","survey_name":"\u5e73\u621031\u5e74\u5ea6\u8a2d\u697d\u30c0\u30e0\u5ddd\u5411\u5927\u540d\u5009\u5730\u533a\u5730\u8cea\u8abf\u67fb\u696d\u52d9","client_name":"\u56fd\u571f\u4ea4\u901a\u7701\u4e2d\u90e8\u5730\u65b9\u6574\u5099\u5c40\u8a2d\u697d\u30c0\u30e0\u5de5\u4e8b\u4e8b\u52d9\u6240","boring_xml_url":47,"boring_view_url":1,"soilmap_view_url":null,"soiltest_xml_url":0,"soiltest_view_url":0},{"id":287260,"code":"NGIC201901665-0022","latitude":"35.112000277778","longitude":"137.55820611111","source_code":"","project_name":"","survey_name":"\u5e73\u621031\u5e74\u5ea6\u8a2d\u697d\u30c0\u30e0\u5ddd\u5411\u5927\u540d\u5009\u5730\u533a\u5730\u8cea\u8abf\u67fb\u696d\u52d9","client_name":"\u56fd\u571f\u4ea4\u901a\u7701\u4e2d\u90e8\u5730\u65b9\u6574\u5099\u5c40\u8a2d\u697d\u30c0\u30e0\u5de5\u4e8b\u4e8b\u52d9\u6240","boring_xml_url":47,"boring_view_url":1,"soilmap_view_url":null,"soiltest_xml_url":47,"soiltest_view_url":47}]}}