{"header":{"xyz":{"source":[],"mosaic":false},"page":222,"raw":{"soiltest_result":"0","bbox":"57.598333,109.544722,1.933333,163.806111","page":"222"},"conditions":{"soiltest_result":0,"north":57.598333,"west":109.544722,"south":1.933333,"east":163.806111},"success":true,"message":""},"data":{"meta":{"total":212844,"page":222,"pages":7095,"count":30},"values":[{"id":577747,"code":"NGIC202205628-0042","latitude":"34.70977575","longitude":"135.57753563889","source_code":"","project_name":"","survey_name":"\u6dc0\u5ddd\u5de6\u5cb8\u7dda\u5ef6\u4f38\u90e8\u6a2a\u5824\u5730\u533a\u4ed6\u571f\u58cc\u8abf\u67fb\u696d\u52d9\u00a5n","client_name":"\u56fd\u571f\u4ea4\u901a\u7701\u8fd1\u757f\u5730\u65b9\u6574\u5099\u5c40\u6d6a\u901f\u56fd\u9053\u4e8b\u52d9\u6240","boring_xml_url":47,"boring_view_url":1,"soilmap_view_url":null,"soiltest_xml_url":0,"soiltest_view_url":0},{"id":577746,"code":"NGIC202205628-0041","latitude":"34.709825777778","longitude":"135.57764608333","source_code":"","project_name":"","survey_name":"\u6dc0\u5ddd\u5de6\u5cb8\u7dda\u5ef6\u4f38\u90e8\u6a2a\u5824\u5730\u533a\u4ed6\u571f\u58cc\u8abf\u67fb\u696d\u52d9\u00a5n","client_name":"\u56fd\u571f\u4ea4\u901a\u7701\u8fd1\u757f\u5730\u65b9\u6574\u5099\u5c40\u6d6a\u901f\u56fd\u9053\u4e8b\u52d9\u6240","boring_xml_url":47,"boring_view_url":1,"soilmap_view_url":null,"soiltest_xml_url":0,"soiltest_view_url":0},{"id":577745,"code":"NGIC202205628-0040","latitude":"34.709852833333","longitude":"135.57773016667","source_code":"","project_name":"","survey_name":"\u6dc0\u5ddd\u5de6\u5cb8\u7dda\u5ef6\u4f38\u90e8\u6a2a\u5824\u5730\u533a\u4ed6\u571f\u58cc\u8abf\u67fb\u696d\u52d9\u00a5n","client_name":"\u56fd\u571f\u4ea4\u901a\u7701\u8fd1\u757f\u5730\u65b9\u6574\u5099\u5c40\u6d6a\u901f\u56fd\u9053\u4e8b\u52d9\u6240","boring_xml_url":47,"boring_view_url":1,"soilmap_view_url":null,"soiltest_xml_url":0,"soiltest_view_url":0},{"id":577744,"code":"NGIC202205628-0039","latitude":"34.709840027778","longitude":"135.57738677778","source_code":"","project_name":"","survey_name":"\u6dc0\u5ddd\u5de6\u5cb8\u7dda\u5ef6\u4f38\u90e8\u6a2a\u5824\u5730\u533a\u4ed6\u571f\u58cc\u8abf\u67fb\u696d\u52d9\u00a5n","client_name":"\u56fd\u571f\u4ea4\u901a\u7701\u8fd1\u757f\u5730\u65b9\u6574\u5099\u5c40\u6d6a\u901f\u56fd\u9053\u4e8b\u52d9\u6240","boring_xml_url":47,"boring_view_url":1,"soilmap_view_url":null,"soiltest_xml_url":0,"soiltest_view_url":0},{"id":577743,"code":"NGIC202205628-0038","latitude":"34.709871333333","longitude":"135.57748780556","source_code":"","project_name":"","survey_name":"\u6dc0\u5ddd\u5de6\u5cb8\u7dda\u5ef6\u4f38\u90e8\u6a2a\u5824\u5730\u533a\u4ed6\u571f\u58cc\u8abf\u67fb\u696d\u52d9\u00a5n","client_name":"\u56fd\u571f\u4ea4\u901a\u7701\u8fd1\u757f\u5730\u65b9\u6574\u5099\u5c40\u6d6a\u901f\u56fd\u9053\u4e8b\u52d9\u6240","boring_xml_url":47,"boring_view_url":1,"soilmap_view_url":null,"soiltest_xml_url":0,"soiltest_view_url":0},{"id":577742,"code":"NGIC202205628-0037","latitude":"34.70990875","longitude":"135.57758858333","source_code":"","project_name":"","survey_name":"\u6dc0\u5ddd\u5de6\u5cb8\u7dda\u5ef6\u4f38\u90e8\u6a2a\u5824\u5730\u533a\u4ed6\u571f\u58cc\u8abf\u67fb\u696d\u52d9\u00a5n","client_name":"\u56fd\u571f\u4ea4\u901a\u7701\u8fd1\u757f\u5730\u65b9\u6574\u5099\u5c40\u6d6a\u901f\u56fd\u9053\u4e8b\u52d9\u6240","boring_xml_url":47,"boring_view_url":1,"soilmap_view_url":null,"soiltest_xml_url":0,"soiltest_view_url":0},{"id":577741,"code":"NGIC202205628-0036","latitude":"34.709950944444","longitude":"135.57768161111","source_code":"","project_name":"","survey_name":"\u6dc0\u5ddd\u5de6\u5cb8\u7dda\u5ef6\u4f38\u90e8\u6a2a\u5824\u5730\u533a\u4ed6\u571f\u58cc\u8abf\u67fb\u696d\u52d9\u00a5n","client_name":"\u56fd\u571f\u4ea4\u901a\u7701\u8fd1\u757f\u5730\u65b9\u6574\u5099\u5c40\u6d6a\u901f\u56fd\u9053\u4e8b\u52d9\u6240","boring_xml_url":47,"boring_view_url":1,"soilmap_view_url":null,"soiltest_xml_url":0,"soiltest_view_url":0},{"id":577740,"code":"NGIC202205628-0035","latitude":"34.70998925","longitude":"135.57778116667","source_code":"","project_name":"","survey_name":"\u6dc0\u5ddd\u5de6\u5cb8\u7dda\u5ef6\u4f38\u90e8\u6a2a\u5824\u5730\u533a\u4ed6\u571f\u58cc\u8abf\u67fb\u696d\u52d9\u00a5n","client_name":"\u56fd\u571f\u4ea4\u901a\u7701\u8fd1\u757f\u5730\u65b9\u6574\u5099\u5c40\u6d6a\u901f\u56fd\u9053\u4e8b\u52d9\u6240","boring_xml_url":47,"boring_view_url":1,"soilmap_view_url":null,"soiltest_xml_url":0,"soiltest_view_url":0},{"id":577739,"code":"NGIC202205628-0034","latitude":"34.710025611111","longitude":"135.57788191667","source_code":"","project_name":"","survey_name":"\u6dc0\u5ddd\u5de6\u5cb8\u7dda\u5ef6\u4f38\u90e8\u6a2a\u5824\u5730\u533a\u4ed6\u571f\u58cc\u8abf\u67fb\u696d\u52d9\u00a5n","client_name":"\u56fd\u571f\u4ea4\u901a\u7701\u8fd1\u757f\u5730\u65b9\u6574\u5099\u5c40\u6d6a\u901f\u56fd\u9053\u4e8b\u52d9\u6240","boring_xml_url":47,"boring_view_url":1,"soilmap_view_url":null,"soiltest_xml_url":0,"soiltest_view_url":0},{"id":577738,"code":"NGIC202205628-0033","latitude":"34.710054722222","longitude":"135.5779585","source_code":"","project_name":"","survey_name":"\u6dc0\u5ddd\u5de6\u5cb8\u7dda\u5ef6\u4f38\u90e8\u6a2a\u5824\u5730\u533a\u4ed6\u571f\u58cc\u8abf\u67fb\u696d\u52d9\u00a5n","client_name":"\u56fd\u571f\u4ea4\u901a\u7701\u8fd1\u757f\u5730\u65b9\u6574\u5099\u5c40\u6d6a\u901f\u56fd\u9053\u4e8b\u52d9\u6240","boring_xml_url":47,"boring_view_url":1,"soilmap_view_url":null,"soiltest_xml_url":0,"soiltest_view_url":0},{"id":577737,"code":"NGIC202205628-0032","latitude":"34.709909527778","longitude":"135.577353","source_code":"","project_name":"","survey_name":"\u6dc0\u5ddd\u5de6\u5cb8\u7dda\u5ef6\u4f38\u90e8\u6a2a\u5824\u5730\u533a\u4ed6\u571f\u58cc\u8abf\u67fb\u696d\u52d9\u00a5n","client_name":"\u56fd\u571f\u4ea4\u901a\u7701\u8fd1\u757f\u5730\u65b9\u6574\u5099\u5c40\u6d6a\u901f\u56fd\u9053\u4e8b\u52d9\u6240","boring_xml_url":47,"boring_view_url":1,"soilmap_view_url":null,"soiltest_xml_url":0,"soiltest_view_url":0},{"id":577736,"code":"NGIC202205628-0031","latitude":"34.709943111111","longitude":"135.57745433333","source_code":"","project_name":"","survey_name":"\u6dc0\u5ddd\u5de6\u5cb8\u7dda\u5ef6\u4f38\u90e8\u6a2a\u5824\u5730\u533a\u4ed6\u571f\u58cc\u8abf\u67fb\u696d\u52d9\u00a5n","client_name":"\u56fd\u571f\u4ea4\u901a\u7701\u8fd1\u757f\u5730\u65b9\u6574\u5099\u5c40\u6d6a\u901f\u56fd\u9053\u4e8b\u52d9\u6240","boring_xml_url":47,"boring_view_url":1,"soilmap_view_url":null,"soiltest_xml_url":0,"soiltest_view_url":0},{"id":577735,"code":"NGIC202205628-0030","latitude":"34.709976666667","longitude":"135.57755563889","source_code":"","project_name":"","survey_name":"\u6dc0\u5ddd\u5de6\u5cb8\u7dda\u5ef6\u4f38\u90e8\u6a2a\u5824\u5730\u533a\u4ed6\u571f\u58cc\u8abf\u67fb\u696d\u52d9\u00a5n","client_name":"\u56fd\u571f\u4ea4\u901a\u7701\u8fd1\u757f\u5730\u65b9\u6574\u5099\u5c40\u6d6a\u901f\u56fd\u9053\u4e8b\u52d9\u6240","boring_xml_url":47,"boring_view_url":1,"soilmap_view_url":null,"soiltest_xml_url":0,"soiltest_view_url":0},{"id":577734,"code":"NGIC202205628-0029","latitude":"34.71001025","longitude":"135.57765694444","source_code":"","project_name":"","survey_name":"\u6dc0\u5ddd\u5de6\u5cb8\u7dda\u5ef6\u4f38\u90e8\u6a2a\u5824\u5730\u533a\u4ed6\u571f\u58cc\u8abf\u67fb\u696d\u52d9\u00a5n","client_name":"\u56fd\u571f\u4ea4\u901a\u7701\u8fd1\u757f\u5730\u65b9\u6574\u5099\u5c40\u6d6a\u901f\u56fd\u9053\u4e8b\u52d9\u6240","boring_xml_url":47,"boring_view_url":1,"soilmap_view_url":null,"soiltest_xml_url":0,"soiltest_view_url":0},{"id":577733,"code":"NGIC202205628-0028","latitude":"34.710043805556","longitude":"135.57775827778","source_code":"","project_name":"","survey_name":"\u6dc0\u5ddd\u5de6\u5cb8\u7dda\u5ef6\u4f38\u90e8\u6a2a\u5824\u5730\u533a\u4ed6\u571f\u58cc\u8abf\u67fb\u696d\u52d9\u00a5n","client_name":"\u56fd\u571f\u4ea4\u901a\u7701\u8fd1\u757f\u5730\u65b9\u6574\u5099\u5c40\u6d6a\u901f\u56fd\u9053\u4e8b\u52d9\u6240","boring_xml_url":47,"boring_view_url":1,"soilmap_view_url":null,"soiltest_xml_url":0,"soiltest_view_url":0},{"id":577732,"code":"NGIC202205628-0027","latitude":"34.710077388889","longitude":"135.57785958333","source_code":"","project_name":"","survey_name":"\u6dc0\u5ddd\u5de6\u5cb8\u7dda\u5ef6\u4f38\u90e8\u6a2a\u5824\u5730\u533a\u4ed6\u571f\u58cc\u8abf\u67fb\u696d\u52d9\u00a5n","client_name":"\u56fd\u571f\u4ea4\u901a\u7701\u8fd1\u757f\u5730\u65b9\u6574\u5099\u5c40\u6d6a\u901f\u56fd\u9053\u4e8b\u52d9\u6240","boring_xml_url":47,"boring_view_url":1,"soilmap_view_url":null,"soiltest_xml_url":0,"soiltest_view_url":0},{"id":577731,"code":"NGIC202205628-0026","latitude":"34.710110972222","longitude":"135.57796088889","source_code":"","project_name":"","survey_name":"\u6dc0\u5ddd\u5de6\u5cb8\u7dda\u5ef6\u4f38\u90e8\u6a2a\u5824\u5730\u533a\u4ed6\u571f\u58cc\u8abf\u67fb\u696d\u52d9\u00a5n","client_name":"\u56fd\u571f\u4ea4\u901a\u7701\u8fd1\u757f\u5730\u65b9\u6574\u5099\u5c40\u6d6a\u901f\u56fd\u9053\u4e8b\u52d9\u6240","boring_xml_url":47,"boring_view_url":1,"soilmap_view_url":null,"soiltest_xml_url":0,"soiltest_view_url":0},{"id":577730,"code":"NGIC202205628-0025","latitude":"34.710144527778","longitude":"135.57806222222","source_code":"","project_name":"","survey_name":"\u6dc0\u5ddd\u5de6\u5cb8\u7dda\u5ef6\u4f38\u90e8\u6a2a\u5824\u5730\u533a\u4ed6\u571f\u58cc\u8abf\u67fb\u696d\u52d9\u00a5n","client_name":"\u56fd\u571f\u4ea4\u901a\u7701\u8fd1\u757f\u5730\u65b9\u6574\u5099\u5c40\u6d6a\u901f\u56fd\u9053\u4e8b\u52d9\u6240","boring_xml_url":47,"boring_view_url":1,"soilmap_view_url":null,"soiltest_xml_url":0,"soiltest_view_url":0},{"id":577729,"code":"NGIC202205628-0024","latitude":"34.710178111111","longitude":"135.57816352778","source_code":"","project_name":"","survey_name":"\u6dc0\u5ddd\u5de6\u5cb8\u7dda\u5ef6\u4f38\u90e8\u6a2a\u5824\u5730\u533a\u4ed6\u571f\u58cc\u8abf\u67fb\u696d\u52d9\u00a5n","client_name":"\u56fd\u571f\u4ea4\u901a\u7701\u8fd1\u757f\u5730\u65b9\u6574\u5099\u5c40\u6d6a\u901f\u56fd\u9053\u4e8b\u52d9\u6240","boring_xml_url":47,"boring_view_url":1,"soilmap_view_url":null,"soiltest_xml_url":0,"soiltest_view_url":0},{"id":577728,"code":"NGIC202205628-0023","latitude":"34.710211666667","longitude":"135.57826486111","source_code":"","project_name":"","survey_name":"\u6dc0\u5ddd\u5de6\u5cb8\u7dda\u5ef6\u4f38\u90e8\u6a2a\u5824\u5730\u533a\u4ed6\u571f\u58cc\u8abf\u67fb\u696d\u52d9\u00a5n","client_name":"\u56fd\u571f\u4ea4\u901a\u7701\u8fd1\u757f\u5730\u65b9\u6574\u5099\u5c40\u6d6a\u901f\u56fd\u9053\u4e8b\u52d9\u6240","boring_xml_url":47,"boring_view_url":1,"soilmap_view_url":null,"soiltest_xml_url":0,"soiltest_view_url":0},{"id":577727,"code":"NGIC202205628-0022","latitude":"34.71024525","longitude":"135.57836616667","source_code":"","project_name":"","survey_name":"\u6dc0\u5ddd\u5de6\u5cb8\u7dda\u5ef6\u4f38\u90e8\u6a2a\u5824\u5730\u533a\u4ed6\u571f\u58cc\u8abf\u67fb\u696d\u52d9\u00a5n","client_name":"\u56fd\u571f\u4ea4\u901a\u7701\u8fd1\u757f\u5730\u65b9\u6574\u5099\u5c40\u6d6a\u901f\u56fd\u9053\u4e8b\u52d9\u6240","boring_xml_url":47,"boring_view_url":1,"soilmap_view_url":null,"soiltest_xml_url":0,"soiltest_view_url":0},{"id":577726,"code":"NGIC202205628-0021","latitude":"34.710301138889","longitude":"135.57845527778","source_code":"","project_name":"","survey_name":"\u6dc0\u5ddd\u5de6\u5cb8\u7dda\u5ef6\u4f38\u90e8\u6a2a\u5824\u5730\u533a\u4ed6\u571f\u58cc\u8abf\u67fb\u696d\u52d9\u00a5n","client_name":"\u56fd\u571f\u4ea4\u901a\u7701\u8fd1\u757f\u5730\u65b9\u6574\u5099\u5c40\u6d6a\u901f\u56fd\u9053\u4e8b\u52d9\u6240","boring_xml_url":47,"boring_view_url":1,"soilmap_view_url":null,"soiltest_xml_url":0,"soiltest_view_url":0},{"id":577725,"code":"NGIC202205628-0020","latitude":"34.710337972222","longitude":"135.57855147222","source_code":"","project_name":"","survey_name":"\u6dc0\u5ddd\u5de6\u5cb8\u7dda\u5ef6\u4f38\u90e8\u6a2a\u5824\u5730\u533a\u4ed6\u571f\u58cc\u8abf\u67fb\u696d\u52d9\u00a5n","client_name":"\u56fd\u571f\u4ea4\u901a\u7701\u8fd1\u757f\u5730\u65b9\u6574\u5099\u5c40\u6d6a\u901f\u56fd\u9053\u4e8b\u52d9\u6240","boring_xml_url":47,"boring_view_url":1,"soilmap_view_url":null,"soiltest_xml_url":0,"soiltest_view_url":0},{"id":577724,"code":"NGIC202205628-0019","latitude":"34.710380805556","longitude":"135.57865025","source_code":"","project_name":"","survey_name":"\u6dc0\u5ddd\u5de6\u5cb8\u7dda\u5ef6\u4f38\u90e8\u6a2a\u5824\u5730\u533a\u4ed6\u571f\u58cc\u8abf\u67fb\u696d\u52d9\u00a5n","client_name":"\u56fd\u571f\u4ea4\u901a\u7701\u8fd1\u757f\u5730\u65b9\u6574\u5099\u5c40\u6d6a\u901f\u56fd\u9053\u4e8b\u52d9\u6240","boring_xml_url":47,"boring_view_url":1,"soilmap_view_url":null,"soiltest_xml_url":0,"soiltest_view_url":0},{"id":577723,"code":"NGIC202205628-0018","latitude":"34.709955694444","longitude":"135.57732911111","source_code":"","project_name":"","survey_name":"\u6dc0\u5ddd\u5de6\u5cb8\u7dda\u5ef6\u4f38\u90e8\u6a2a\u5824\u5730\u533a\u4ed6\u571f\u58cc\u8abf\u67fb\u696d\u52d9\u00a5n","client_name":"\u56fd\u571f\u4ea4\u901a\u7701\u8fd1\u757f\u5730\u65b9\u6574\u5099\u5c40\u6d6a\u901f\u56fd\u9053\u4e8b\u52d9\u6240","boring_xml_url":47,"boring_view_url":1,"soilmap_view_url":null,"soiltest_xml_url":0,"soiltest_view_url":0},{"id":577722,"code":"NGIC202205628-0017","latitude":"34.709991027778","longitude":"135.5774335","source_code":"","project_name":"","survey_name":"\u6dc0\u5ddd\u5de6\u5cb8\u7dda\u5ef6\u4f38\u90e8\u6a2a\u5824\u5730\u533a\u4ed6\u571f\u58cc\u8abf\u67fb\u696d\u52d9\u00a5n","client_name":"\u56fd\u571f\u4ea4\u901a\u7701\u8fd1\u757f\u5730\u65b9\u6574\u5099\u5c40\u6d6a\u901f\u56fd\u9053\u4e8b\u52d9\u6240","boring_xml_url":47,"boring_view_url":1,"soilmap_view_url":null,"soiltest_xml_url":0,"soiltest_view_url":0},{"id":577721,"code":"NGIC202205628-0016","latitude":"34.710028833333","longitude":"135.57753377778","source_code":"","project_name":"","survey_name":"\u6dc0\u5ddd\u5de6\u5cb8\u7dda\u5ef6\u4f38\u90e8\u6a2a\u5824\u5730\u533a\u4ed6\u571f\u58cc\u8abf\u67fb\u696d\u52d9\u00a5n","client_name":"\u56fd\u571f\u4ea4\u901a\u7701\u8fd1\u757f\u5730\u65b9\u6574\u5099\u5c40\u6d6a\u901f\u56fd\u9053\u4e8b\u52d9\u6240","boring_xml_url":47,"boring_view_url":1,"soilmap_view_url":null,"soiltest_xml_url":0,"soiltest_view_url":0},{"id":577720,"code":"NGIC202205628-0015","latitude":"34.710077666667","longitude":"135.57762594444","source_code":"","project_name":"","survey_name":"\u6dc0\u5ddd\u5de6\u5cb8\u7dda\u5ef6\u4f38\u90e8\u6a2a\u5824\u5730\u533a\u4ed6\u571f\u58cc\u8abf\u67fb\u696d\u52d9\u00a5n","client_name":"\u56fd\u571f\u4ea4\u901a\u7701\u8fd1\u757f\u5730\u65b9\u6574\u5099\u5c40\u6d6a\u901f\u56fd\u9053\u4e8b\u52d9\u6240","boring_xml_url":47,"boring_view_url":1,"soilmap_view_url":null,"soiltest_xml_url":0,"soiltest_view_url":0},{"id":577719,"code":"NGIC202205628-0014","latitude":"34.710111333333","longitude":"135.57772619444","source_code":"","project_name":"","survey_name":"\u6dc0\u5ddd\u5de6\u5cb8\u7dda\u5ef6\u4f38\u90e8\u6a2a\u5824\u5730\u533a\u4ed6\u571f\u58cc\u8abf\u67fb\u696d\u52d9\u00a5n","client_name":"\u56fd\u571f\u4ea4\u901a\u7701\u8fd1\u757f\u5730\u65b9\u6574\u5099\u5c40\u6d6a\u901f\u56fd\u9053\u4e8b\u52d9\u6240","boring_xml_url":47,"boring_view_url":1,"soilmap_view_url":null,"soiltest_xml_url":0,"soiltest_view_url":0},{"id":577718,"code":"NGIC202205628-0013","latitude":"34.710152027778","longitude":"135.57782330556","source_code":"","project_name":"","survey_name":"\u6dc0\u5ddd\u5de6\u5cb8\u7dda\u5ef6\u4f38\u90e8\u6a2a\u5824\u5730\u533a\u4ed6\u571f\u58cc\u8abf\u67fb\u696d\u52d9\u00a5n","client_name":"\u56fd\u571f\u4ea4\u901a\u7701\u8fd1\u757f\u5730\u65b9\u6574\u5099\u5c40\u6d6a\u901f\u56fd\u9053\u4e8b\u52d9\u6240","boring_xml_url":47,"boring_view_url":1,"soilmap_view_url":null,"soiltest_xml_url":0,"soiltest_view_url":0}]}}