{"header":{"xyz":{"source":[],"mosaic":false},"page":2220,"raw":{"soiltest_result":"0","bbox":"57.598333,109.544722,1.933333,163.806111","page":"2220"},"conditions":{"soiltest_result":0,"north":57.598333,"west":109.544722,"south":1.933333,"east":163.806111},"success":true,"message":""},"data":{"meta":{"total":212844,"page":2220,"pages":7095,"count":30},"values":[{"id":287190,"code":"NGIC201901760-0008","latitude":"36.685336111111","longitude":"138.27491111111","source_code":"","project_name":"\u9577\u91ce\u5e02\u7a42\u4fdd\u5730\u533a\u5730\u8cea\u8abf\u67fb","survey_name":"\u5e73\u621031\u5e74\u5ea6\u7ba1\u5185\u5730\u8cea\u8abf\u67fb\u696d\u52d9","client_name":"\u56fd\u571f\u4ea4\u901a\u7701\u5317\u9678\u5730\u65b9\u6574\u5099\u5c40\u5343\u66f2\u5ddd\u6cb3\u5ddd\u4e8b\u52d9\u6240","boring_xml_url":47,"boring_view_url":1,"soilmap_view_url":null,"soiltest_xml_url":0,"soiltest_view_url":0},{"id":287189,"code":"NGIC201901760-0007","latitude":"36.686027777778","longitude":"138.27571388889","source_code":"","project_name":"\u9577\u91ce\u5e02\u7a42\u4fdd\u5730\u533a\u5730\u8cea\u8abf\u67fb","survey_name":"\u5e73\u621031\u5e74\u5ea6\u7ba1\u5185\u5730\u8cea\u8abf\u67fb\u696d\u52d9","client_name":"\u56fd\u571f\u4ea4\u901a\u7701\u5317\u9678\u5730\u65b9\u6574\u5099\u5c40\u5343\u66f2\u5ddd\u6cb3\u5ddd\u4e8b\u52d9\u6240","boring_xml_url":47,"boring_view_url":1,"soilmap_view_url":null,"soiltest_xml_url":47,"soiltest_view_url":47},{"id":287188,"code":"NGIC201901760-0006","latitude":"36.686511111111","longitude":"138.27620277778","source_code":"","project_name":"\u9577\u91ce\u5e02\u7a42\u4fdd\u5730\u533a\u5730\u8cea\u8abf\u67fb","survey_name":"\u5e73\u621031\u5e74\u5ea6\u7ba1\u5185\u5730\u8cea\u8abf\u67fb\u696d\u52d9","client_name":"\u56fd\u571f\u4ea4\u901a\u7701\u5317\u9678\u5730\u65b9\u6574\u5099\u5c40\u5343\u66f2\u5ddd\u6cb3\u5ddd\u4e8b\u52d9\u6240","boring_xml_url":47,"boring_view_url":1,"soilmap_view_url":null,"soiltest_xml_url":0,"soiltest_view_url":0},{"id":287187,"code":"NGIC201901760-0005","latitude":"36.687066666667","longitude":"138.27657222222","source_code":"","project_name":"\u9577\u91ce\u5e02\u7a42\u4fdd\u5730\u533a\u5730\u8cea\u8abf\u67fb","survey_name":"\u5e73\u621031\u5e74\u5ea6\u7ba1\u5185\u5730\u8cea\u8abf\u67fb\u696d\u52d9","client_name":"\u56fd\u571f\u4ea4\u901a\u7701\u5317\u9678\u5730\u65b9\u6574\u5099\u5c40\u5343\u66f2\u5ddd\u6cb3\u5ddd\u4e8b\u52d9\u6240","boring_xml_url":47,"boring_view_url":1,"soilmap_view_url":null,"soiltest_xml_url":0,"soiltest_view_url":0},{"id":287186,"code":"NGIC201901760-0004","latitude":"36.393502777778","longitude":"138.24507777778","source_code":"","project_name":"\u4e0a\u7530\u5e02\u8acf\u8a2a\u5f62\u5730\u533a\u5730\u8cea\u8abf\u67fb","survey_name":"\u5e73\u621031\u5e74\u5ea6\u7ba1\u5185\u5730\u8cea\u8abf\u67fb\u696d\u52d9","client_name":"\u56fd\u571f\u4ea4\u901a\u7701\u5317\u9678\u5730\u65b9\u6574\u5099\u5c40\u5343\u66f2\u5ddd\u6cb3\u5ddd\u4e8b\u52d9\u6240","boring_xml_url":47,"boring_view_url":1,"soilmap_view_url":null,"soiltest_xml_url":0,"soiltest_view_url":0},{"id":287185,"code":"NGIC201901760-0003","latitude":"36.709594444444","longitude":"138.29375833333","source_code":"","project_name":"\u5c0f\u5e03\u65bd\u753a\u5409\u5cf6\u5730\u533a\u5730\u8cea\u8abf\u67fb","survey_name":"\u5e73\u621031\u5e74\u5ea6\u7ba1\u5185\u5730\u8cea\u8abf\u67fb\u696d\u52d9","client_name":"\u56fd\u571f\u4ea4\u901a\u7701\u5317\u9678\u5730\u65b9\u6574\u5099\u5c40\u5343\u66f2\u5ddd\u6cb3\u5ddd\u4e8b\u52d9\u6240","boring_xml_url":47,"boring_view_url":1,"soilmap_view_url":null,"soiltest_xml_url":47,"soiltest_view_url":47},{"id":287184,"code":"NGIC201901760-0002","latitude":"36.70945","longitude":"138.29399722222","source_code":"","project_name":"\u5c0f\u5e03\u65bd\u753a\u5409\u5cf6\u5730\u533a\u5730\u8cea\u8abf\u67fb","survey_name":"\u5e73\u621031\u5e74\u5ea6\u7ba1\u5185\u5730\u8cea\u8abf\u67fb\u696d\u52d9","client_name":"\u56fd\u571f\u4ea4\u901a\u7701\u5317\u9678\u5730\u65b9\u6574\u5099\u5c40\u5343\u66f2\u5ddd\u6cb3\u5ddd\u4e8b\u52d9\u6240","boring_xml_url":47,"boring_view_url":1,"soilmap_view_url":null,"soiltest_xml_url":47,"soiltest_view_url":47},{"id":287183,"code":"NGIC201901760-0001","latitude":"36.709530555556","longitude":"138.29386388889","source_code":"","project_name":"\u5c0f\u5e03\u65bd\u753a\u5409\u5cf6\u5730\u533a\u5730\u8cea\u8abf\u67fb","survey_name":"\u5e73\u621031\u5e74\u5ea6\u7ba1\u5185\u5730\u8cea\u8abf\u67fb\u696d\u52d9","client_name":"\u56fd\u571f\u4ea4\u901a\u7701\u5317\u9678\u5730\u65b9\u6574\u5099\u5c40\u5343\u66f2\u5ddd\u6cb3\u5ddd\u4e8b\u52d9\u6240","boring_xml_url":47,"boring_view_url":1,"soilmap_view_url":null,"soiltest_xml_url":47,"soiltest_view_url":47},{"id":287182,"code":"NGIC201901756-0005","latitude":"35.536944444444","longitude":"139.79444444444","source_code":"","project_name":"\u56fd\u9053357\u53f7\u591a\u6469\u5ddd\u30c8\u30f3\u30cd\u30eb","survey_name":"\u5e73\u621031\u5e74\u5ea6\u591a\u6469\u5ddd\u30c8\u30f3\u30cd\u30eb\u5730\u8cea\u88dc\u8db3\u8abf\u67fb\u696d\u52d9","client_name":"\u56fd\u571f\u4ea4\u901a\u7701\u95a2\u6771\u5730\u65b9\u6574\u5099\u5c40\u5ddd\u5d0e\u56fd\u9053\u4e8b\u52d9\u6240","boring_xml_url":47,"boring_view_url":1,"soilmap_view_url":null,"soiltest_xml_url":47,"soiltest_view_url":47},{"id":287181,"code":"NGIC201901756-0004","latitude":"35.513333333333","longitude":"139.78666666667","source_code":"","project_name":"\u56fd\u9053357\u53f7\u591a\u6469\u5ddd\u30c8\u30f3\u30cd\u30eb","survey_name":"\u5e73\u621031\u5e74\u5ea6\u591a\u6469\u5ddd\u30c8\u30f3\u30cd\u30eb\u5730\u8cea\u88dc\u8db3\u8abf\u67fb\u696d\u52d9","client_name":"\u56fd\u571f\u4ea4\u901a\u7701\u95a2\u6771\u5730\u65b9\u6574\u5099\u5c40\u5ddd\u5d0e\u56fd\u9053\u4e8b\u52d9\u6240","boring_xml_url":47,"boring_view_url":1,"soilmap_view_url":null,"soiltest_xml_url":47,"soiltest_view_url":47},{"id":287180,"code":"NGIC201901756-0003","latitude":"35.530555555556","longitude":"139.79444444444","source_code":"","project_name":"\u56fd\u9053357\u53f7\u591a\u6469\u5ddd\u30c8\u30f3\u30cd\u30eb","survey_name":"\u5e73\u621031\u5e74\u5ea6\u591a\u6469\u5ddd\u30c8\u30f3\u30cd\u30eb\u5730\u8cea\u88dc\u8db3\u8abf\u67fb\u696d\u52d9","client_name":"\u56fd\u571f\u4ea4\u901a\u7701\u95a2\u6771\u5730\u65b9\u6574\u5099\u5c40\u5ddd\u5d0e\u56fd\u9053\u4e8b\u52d9\u6240","boring_xml_url":47,"boring_view_url":1,"soilmap_view_url":null,"soiltest_xml_url":47,"soiltest_view_url":47},{"id":287179,"code":"NGIC201901756-0002","latitude":"35.528333333333","longitude":"139.79388888889","source_code":"","project_name":"\u56fd\u9053357\u53f7\u591a\u6469\u5ddd\u30c8\u30f3\u30cd\u30eb","survey_name":"\u5e73\u621031\u5e74\u5ea6\u591a\u6469\u5ddd\u30c8\u30f3\u30cd\u30eb\u5730\u8cea\u88dc\u8db3\u8abf\u67fb\u696d\u52d9","client_name":"\u56fd\u571f\u4ea4\u901a\u7701\u95a2\u6771\u5730\u65b9\u6574\u5099\u5c40\u5ddd\u5d0e\u56fd\u9053\u4e8b\u52d9\u6240","boring_xml_url":47,"boring_view_url":1,"soilmap_view_url":null,"soiltest_xml_url":47,"soiltest_view_url":47},{"id":287178,"code":"NGIC201901756-0001","latitude":"35.521666666667","longitude":"139.79194444444","source_code":"","project_name":"\u56fd\u9053357\u53f7\u591a\u6469\u5ddd\u30c8\u30f3\u30cd\u30eb","survey_name":"\u5e73\u621031\u5e74\u5ea6\u591a\u6469\u5ddd\u30c8\u30f3\u30cd\u30eb\u5730\u8cea\u88dc\u8db3\u8abf\u67fb\u696d\u52d9","client_name":"\u56fd\u571f\u4ea4\u901a\u7701\u95a2\u6771\u5730\u65b9\u6574\u5099\u5c40\u5ddd\u5d0e\u56fd\u9053\u4e8b\u52d9\u6240","boring_xml_url":47,"boring_view_url":1,"soilmap_view_url":null,"soiltest_xml_url":47,"soiltest_view_url":47},{"id":287175,"code":"NGIC201901574-0007","latitude":"35.492382583333","longitude":"137.16469344444","source_code":"","project_name":"","survey_name":"\u4ee4\u548c\u5143\u5e74\u5ea6\u65b0\u4e38\u5c71\u30c0\u30e0\u539f\u77f3\u5c71\u897f\u90e8\u5730\u8cea\u8abf\u67fb\u696d\u52d9","client_name":"\u56fd\u571f\u4ea4\u901a\u7701\u4e2d\u90e8\u5730\u65b9\u6574\u5099\u5c40\u65b0\u4e38\u5c71\u30c0\u30e0\u5de5\u4e8b\u4e8b\u52d9\u6240","boring_xml_url":47,"boring_view_url":1,"soilmap_view_url":null,"soiltest_xml_url":0,"soiltest_view_url":0},{"id":287174,"code":"NGIC201901574-0006","latitude":"35.492889","longitude":"137.16608233333","source_code":"","project_name":"","survey_name":"\u4ee4\u548c\u5143\u5e74\u5ea6\u65b0\u4e38\u5c71\u30c0\u30e0\u539f\u77f3\u5c71\u897f\u90e8\u5730\u8cea\u8abf\u67fb\u696d\u52d9","client_name":"\u56fd\u571f\u4ea4\u901a\u7701\u4e2d\u90e8\u5730\u65b9\u6574\u5099\u5c40\u65b0\u4e38\u5c71\u30c0\u30e0\u5de5\u4e8b\u4e8b\u52d9\u6240","boring_xml_url":47,"boring_view_url":1,"soilmap_view_url":null,"soiltest_xml_url":0,"soiltest_view_url":0},{"id":287173,"code":"NGIC201901574-0005","latitude":"35.49321375","longitude":"137.16506605556","source_code":"","project_name":"","survey_name":"\u4ee4\u548c\u5143\u5e74\u5ea6\u65b0\u4e38\u5c71\u30c0\u30e0\u539f\u77f3\u5c71\u897f\u90e8\u5730\u8cea\u8abf\u67fb\u696d\u52d9","client_name":"\u56fd\u571f\u4ea4\u901a\u7701\u4e2d\u90e8\u5730\u65b9\u6574\u5099\u5c40\u65b0\u4e38\u5c71\u30c0\u30e0\u5de5\u4e8b\u4e8b\u52d9\u6240","boring_xml_url":47,"boring_view_url":1,"soilmap_view_url":null,"soiltest_xml_url":0,"soiltest_view_url":0},{"id":287172,"code":"NGIC201901574-0004","latitude":"35.493466944444","longitude":"137.16577272222","source_code":"","project_name":"","survey_name":"\u4ee4\u548c\u5143\u5e74\u5ea6\u65b0\u4e38\u5c71\u30c0\u30e0\u539f\u77f3\u5c71\u897f\u90e8\u5730\u8cea\u8abf\u67fb\u696d\u52d9","client_name":"\u56fd\u571f\u4ea4\u901a\u7701\u4e2d\u90e8\u5730\u65b9\u6574\u5099\u5c40\u65b0\u4e38\u5c71\u30c0\u30e0\u5de5\u4e8b\u4e8b\u52d9\u6240","boring_xml_url":47,"boring_view_url":1,"soilmap_view_url":null,"soiltest_xml_url":0,"soiltest_view_url":0},{"id":287171,"code":"NGIC201901574-0003","latitude":"35.494009138889","longitude":"137.16632461111","source_code":"","project_name":"","survey_name":"\u4ee4\u548c\u5143\u5e74\u5ea6\u65b0\u4e38\u5c71\u30c0\u30e0\u539f\u77f3\u5c71\u897f\u90e8\u5730\u8cea\u8abf\u67fb\u696d\u52d9","client_name":"\u56fd\u571f\u4ea4\u901a\u7701\u4e2d\u90e8\u5730\u65b9\u6574\u5099\u5c40\u65b0\u4e38\u5c71\u30c0\u30e0\u5de5\u4e8b\u4e8b\u52d9\u6240","boring_xml_url":47,"boring_view_url":1,"soilmap_view_url":null,"soiltest_xml_url":0,"soiltest_view_url":0},{"id":287170,"code":"NGIC201901574-0002","latitude":"35.493755916667","longitude":"137.16561791667","source_code":"","project_name":"","survey_name":"\u4ee4\u548c\u5143\u5e74\u5ea6\u65b0\u4e38\u5c71\u30c0\u30e0\u539f\u77f3\u5c71\u897f\u90e8\u5730\u8cea\u8abf\u67fb\u696d\u52d9","client_name":"\u56fd\u571f\u4ea4\u901a\u7701\u4e2d\u90e8\u5730\u65b9\u6574\u5099\u5c40\u65b0\u4e38\u5c71\u30c0\u30e0\u5de5\u4e8b\u4e8b\u52d9\u6240","boring_xml_url":47,"boring_view_url":1,"soilmap_view_url":null,"soiltest_xml_url":0,"soiltest_view_url":0},{"id":287169,"code":"NGIC201901574-0001","latitude":"35.493501333333","longitude":"137.16533313889","source_code":"","project_name":"","survey_name":"\u4ee4\u548c\u5143\u5e74\u5ea6\u65b0\u4e38\u5c71\u30c0\u30e0\u539f\u77f3\u5c71\u897f\u90e8\u5730\u8cea\u8abf\u67fb\u696d\u52d9","client_name":"\u56fd\u571f\u4ea4\u901a\u7701\u4e2d\u90e8\u5730\u65b9\u6574\u5099\u5c40\u65b0\u4e38\u5c71\u30c0\u30e0\u5de5\u4e8b\u4e8b\u52d9\u6240","boring_xml_url":47,"boring_view_url":1,"soilmap_view_url":null,"soiltest_xml_url":0,"soiltest_view_url":0},{"id":287168,"code":"NGIC201901743-0003","latitude":"42.802379416667","longitude":"142.85762586111","source_code":"","project_name":"\u56fd\u55b6\u304b\u3093\u304c\u3044\u6392\u6c34\u4e8b\u696d","survey_name":"\u82bd\u5ba4\u5ddd\u897f\u5730\u533a\u5e2f\u5e83\u304b\u308f\u306b\u3057\u5c0e\u6c34\u8def\u4f0f\u7f8e29\u7dda\u5de5\u533a\u5b9f\u65bd\u8a2d\u8a08\u7b49\u696d\u52d9","client_name":"\u56fd\u571f\u4ea4\u901a\u7701\u5317\u6d77\u9053\u958b\u767a\u5c40\u5e2f\u5e83\u958b\u767a\u5efa\u8a2d\u90e8\u5e2f\u5e83\u8fb2\u696d\u4e8b\u52d9\u6240","boring_xml_url":47,"boring_view_url":1,"soilmap_view_url":null,"soiltest_xml_url":0,"soiltest_view_url":0},{"id":287167,"code":"NGIC201901743-0002","latitude":"42.802588305556","longitude":"142.85733869444","source_code":"","project_name":"\u56fd\u55b6\u304b\u3093\u304c\u3044\u6392\u6c34\u4e8b\u696d","survey_name":"\u82bd\u5ba4\u5ddd\u897f\u5730\u533a\u5e2f\u5e83\u304b\u308f\u306b\u3057\u5c0e\u6c34\u8def\u4f0f\u7f8e29\u7dda\u5de5\u533a\u5b9f\u65bd\u8a2d\u8a08\u7b49\u696d\u52d9","client_name":"\u56fd\u571f\u4ea4\u901a\u7701\u5317\u6d77\u9053\u958b\u767a\u5c40\u5e2f\u5e83\u958b\u767a\u5efa\u8a2d\u90e8\u5e2f\u5e83\u8fb2\u696d\u4e8b\u52d9\u6240","boring_xml_url":47,"boring_view_url":1,"soilmap_view_url":null,"soiltest_xml_url":47,"soiltest_view_url":47},{"id":287166,"code":"NGIC201901743-0001","latitude":"42.804519","longitude":"142.85430669444","source_code":"","project_name":"\u56fd\u55b6\u304b\u3093\u304c\u3044\u6392\u6c34\u4e8b\u696d","survey_name":"\u82bd\u5ba4\u5ddd\u897f\u5730\u533a\u5e2f\u5e83\u304b\u308f\u306b\u3057\u5c0e\u6c34\u8def\u4f0f\u7f8e29\u7dda\u5de5\u533a\u5b9f\u65bd\u8a2d\u8a08\u7b49\u696d\u52d9","client_name":"\u56fd\u571f\u4ea4\u901a\u7701\u5317\u6d77\u9053\u958b\u767a\u5c40\u5e2f\u5e83\u958b\u767a\u5efa\u8a2d\u90e8\u5e2f\u5e83\u8fb2\u696d\u4e8b\u52d9\u6240","boring_xml_url":47,"boring_view_url":1,"soilmap_view_url":null,"soiltest_xml_url":47,"soiltest_view_url":47},{"id":287153,"code":"NGIC201901717-0003","latitude":"32.778772222222","longitude":"131.69924166667","source_code":"","project_name":"","survey_name":"\u4ee4\u548c\u5143\u5e74\u5ea6 \u5b87\u76ee\u5730\u533a\u9632\u707d(\u305d\u306e1)\u5de5\u4e8b","client_name":"\u56fd\u571f\u4ea4\u901a\u7701\u4e5d\u5dde\u5730\u65b9\u6574\u5099\u5c40\u4f50\u4f2f\u6cb3\u5ddd\u56fd\u9053\u4e8b\u52d9\u6240","boring_xml_url":47,"boring_view_url":1,"soilmap_view_url":null,"soiltest_xml_url":0,"soiltest_view_url":0},{"id":287152,"code":"NGIC201901717-0002","latitude":"32.778883333333","longitude":"131.69941388889","source_code":"","project_name":"","survey_name":"\u4ee4\u548c\u5143\u5e74\u5ea6 \u5b87\u76ee\u5730\u533a\u9632\u707d(\u305d\u306e1)\u5de5\u4e8b","client_name":"\u56fd\u571f\u4ea4\u901a\u7701\u4e5d\u5dde\u5730\u65b9\u6574\u5099\u5c40\u4f50\u4f2f\u6cb3\u5ddd\u56fd\u9053\u4e8b\u52d9\u6240","boring_xml_url":47,"boring_view_url":1,"soilmap_view_url":null,"soiltest_xml_url":0,"soiltest_view_url":0},{"id":287151,"code":"NGIC201901717-0001","latitude":"32.778986111111","longitude":"131.69958888889","source_code":"","project_name":"","survey_name":"\u4ee4\u548c\u5143\u5e74\u5ea6 \u5b87\u76ee\u5730\u533a\u9632\u707d(\u305d\u306e1)\u5de5\u4e8b","client_name":"\u56fd\u571f\u4ea4\u901a\u7701\u4e5d\u5dde\u5730\u65b9\u6574\u5099\u5c40\u4f50\u4f2f\u6cb3\u5ddd\u56fd\u9053\u4e8b\u52d9\u6240","boring_xml_url":47,"boring_view_url":1,"soilmap_view_url":null,"soiltest_xml_url":0,"soiltest_view_url":0},{"id":287150,"code":"NGIC201901713-0004","latitude":"33.848669444444","longitude":"132.69518055556","source_code":"","project_name":"","survey_name":"\u677e\u5c71\u7a7a\u6e2f\u6ed1\u8d70\u8def\u7aef\u5b89\u5168\u533a\u57df\u571f\u8cea\u8abf\u67fb","client_name":"\u56fd\u571f\u4ea4\u901a\u7701\u56db\u56fd\u5730\u65b9\u6574\u5099\u5c40\u677e\u5c71\u6e2f\u6e7e\u30fb\u7a7a\u6e2f\u6574\u5099\u4e8b\u52d9\u6240","boring_xml_url":47,"boring_view_url":1,"soilmap_view_url":71,"soiltest_xml_url":47,"soiltest_view_url":47},{"id":287149,"code":"NGIC201901713-0003","latitude":"33.834988888889","longitude":"132.68878888889","source_code":"","project_name":"","survey_name":"\u677e\u5c71\u7a7a\u6e2f\u6ed1\u8d70\u8def\u7aef\u5b89\u5168\u533a\u57df\u571f\u8cea\u8abf\u67fb","client_name":"\u56fd\u571f\u4ea4\u901a\u7701\u56db\u56fd\u5730\u65b9\u6574\u5099\u5c40\u677e\u5c71\u6e2f\u6e7e\u30fb\u7a7a\u6e2f\u6574\u5099\u4e8b\u52d9\u6240","boring_xml_url":47,"boring_view_url":1,"soilmap_view_url":71,"soiltest_xml_url":47,"soiltest_view_url":47},{"id":287148,"code":"NGIC201901713-0002","latitude":"33.835933333333","longitude":"132.68839722222","source_code":"","project_name":"","survey_name":"\u677e\u5c71\u7a7a\u6e2f\u6ed1\u8d70\u8def\u7aef\u5b89\u5168\u533a\u57df\u571f\u8cea\u8abf\u67fb","client_name":"\u56fd\u571f\u4ea4\u901a\u7701\u56db\u56fd\u5730\u65b9\u6574\u5099\u5c40\u677e\u5c71\u6e2f\u6e7e\u30fb\u7a7a\u6e2f\u6574\u5099\u4e8b\u52d9\u6240","boring_xml_url":47,"boring_view_url":1,"soilmap_view_url":71,"soiltest_xml_url":47,"soiltest_view_url":47},{"id":287147,"code":"NGIC201901713-0001","latitude":"33.835169444444","longitude":"132.687625","source_code":"","project_name":"","survey_name":"\u677e\u5c71\u7a7a\u6e2f\u6ed1\u8d70\u8def\u7aef\u5b89\u5168\u533a\u57df\u571f\u8cea\u8abf\u67fb","client_name":"\u56fd\u571f\u4ea4\u901a\u7701\u56db\u56fd\u5730\u65b9\u6574\u5099\u5c40\u677e\u5c71\u6e2f\u6e7e\u30fb\u7a7a\u6e2f\u6574\u5099\u4e8b\u52d9\u6240","boring_xml_url":47,"boring_view_url":1,"soilmap_view_url":71,"soiltest_xml_url":47,"soiltest_view_url":47}]}}