{"header":{"xyz":{"source":[],"mosaic":false},"page":2226,"raw":{"soiltest_result":"0","bbox":"57.598333,109.544722,1.933333,163.806111","page":"2226"},"conditions":{"soiltest_result":0,"north":57.598333,"west":109.544722,"south":1.933333,"east":163.806111},"success":true,"message":""},"data":{"meta":{"total":212844,"page":2226,"pages":7095,"count":30},"values":[{"id":286922,"code":"NGIC201901677-0004","latitude":"35.748725722222","longitude":"137.21639733333","source_code":"","project_name":"","survey_name":"\u4ee4\u548c\u5143\u5e74\u5ea6 \u98db\u9a28\u5730\u57df\u5730\u8cea\u8abf\u67fb\u696d\u52d9","client_name":"\u56fd\u571f\u4ea4\u901a\u7701\u4e2d\u90e8\u5730\u65b9\u6574\u5099\u5c40\u9ad8\u5c71\u56fd\u9053\u4e8b\u52d9\u6240","boring_xml_url":47,"boring_view_url":1,"soilmap_view_url":null,"soiltest_xml_url":0,"soiltest_view_url":0},{"id":286921,"code":"NGIC201901677-0003","latitude":"35.750280722222","longitude":"137.21268275","source_code":"","project_name":"","survey_name":"\u4ee4\u548c\u5143\u5e74\u5ea6 \u98db\u9a28\u5730\u57df\u5730\u8cea\u8abf\u67fb\u696d\u52d9","client_name":"\u56fd\u571f\u4ea4\u901a\u7701\u4e2d\u90e8\u5730\u65b9\u6574\u5099\u5c40\u9ad8\u5c71\u56fd\u9053\u4e8b\u52d9\u6240","boring_xml_url":47,"boring_view_url":1,"soilmap_view_url":null,"soiltest_xml_url":0,"soiltest_view_url":0},{"id":286920,"code":"NGIC201901677-0002","latitude":"35.7503315","longitude":"137.21202125","source_code":"","project_name":"","survey_name":"\u4ee4\u548c\u5143\u5e74\u5ea6 \u98db\u9a28\u5730\u57df\u5730\u8cea\u8abf\u67fb\u696d\u52d9","client_name":"\u56fd\u571f\u4ea4\u901a\u7701\u4e2d\u90e8\u5730\u65b9\u6574\u5099\u5c40\u9ad8\u5c71\u56fd\u9053\u4e8b\u52d9\u6240","boring_xml_url":47,"boring_view_url":1,"soilmap_view_url":null,"soiltest_xml_url":0,"soiltest_view_url":0},{"id":286919,"code":"NGIC201901677-0001","latitude":"35.749837583333","longitude":"137.21062133333","source_code":"","project_name":"","survey_name":"\u4ee4\u548c\u5143\u5e74\u5ea6 \u98db\u9a28\u5730\u57df\u5730\u8cea\u8abf\u67fb\u696d\u52d9","client_name":"\u56fd\u571f\u4ea4\u901a\u7701\u4e2d\u90e8\u5730\u65b9\u6574\u5099\u5c40\u9ad8\u5c71\u56fd\u9053\u4e8b\u52d9\u6240","boring_xml_url":47,"boring_view_url":1,"soilmap_view_url":null,"soiltest_xml_url":0,"soiltest_view_url":0},{"id":286916,"code":"NGIC201901709-0001","latitude":"39.111544444444","longitude":"140.890025","source_code":"","project_name":"","survey_name":"\u80c6\u6ca2\u30c0\u30e0\u5730\u3059\u3079\u308a\u89b3\u6e2c\u7b49\u696d\u52d9","client_name":"\u56fd\u571f\u4ea4\u901a\u7701\u6771\u5317\u5730\u65b9\u6574\u5099\u5c40\u5317\u4e0a\u5ddd\u30c0\u30e0\u7d71\u5408\u7ba1\u7406\u4e8b\u52d9\u6240","boring_xml_url":47,"boring_view_url":1,"soilmap_view_url":null,"soiltest_xml_url":0,"soiltest_view_url":0},{"id":286892,"code":"NGIC201901701-0002","latitude":"40.5040045","longitude":"140.92951672222","source_code":"","project_name":"","survey_name":"\u9752\u3076\u306a\u5c71\u5730\u533a\u5730\u8cea\u8abf\u67fb","client_name":"\u56fd\u571f\u4ea4\u901a\u7701\u6771\u5317\u5730\u65b9\u6574\u5099\u5c40\u9752\u68ee\u6cb3\u5ddd\u56fd\u9053\u4e8b\u52d9\u6240","boring_xml_url":47,"boring_view_url":1,"soilmap_view_url":null,"soiltest_xml_url":0,"soiltest_view_url":0},{"id":286891,"code":"NGIC201901701-0001","latitude":"40.504426611111","longitude":"140.92928605556","source_code":"","project_name":"","survey_name":"\u9752\u3076\u306a\u5c71\u5730\u533a\u5730\u8cea\u8abf\u67fb","client_name":"\u56fd\u571f\u4ea4\u901a\u7701\u6771\u5317\u5730\u65b9\u6574\u5099\u5c40\u9752\u68ee\u6cb3\u5ddd\u56fd\u9053\u4e8b\u52d9\u6240","boring_xml_url":47,"boring_view_url":1,"soilmap_view_url":null,"soiltest_xml_url":0,"soiltest_view_url":0},{"id":286890,"code":"NGIC201901689-0013","latitude":"35.589008333333","longitude":"139.66200555556","source_code":"","project_name":"","survey_name":"\u5e73\u621030\u5e74\u5ea6\u591a\u6469\u5ddd\u6c34\u7cfb\u5730\u8cea\u8abf\u67fb\u696d\u52d9","client_name":"\u56fd\u571f\u4ea4\u901a\u7701\u95a2\u6771\u5730\u65b9\u6574\u5099\u5c40\u4eac\u6d5c\u6cb3\u5ddd\u4e8b\u52d9\u6240","boring_xml_url":47,"boring_view_url":1,"soilmap_view_url":null,"soiltest_xml_url":47,"soiltest_view_url":47},{"id":286889,"code":"NGIC201901689-0012","latitude":"35.589227777778","longitude":"139.66316388889","source_code":"","project_name":"","survey_name":"\u5e73\u621030\u5e74\u5ea6\u591a\u6469\u5ddd\u6c34\u7cfb\u5730\u8cea\u8abf\u67fb\u696d\u52d9","client_name":"\u56fd\u571f\u4ea4\u901a\u7701\u95a2\u6771\u5730\u65b9\u6574\u5099\u5c40\u4eac\u6d5c\u6cb3\u5ddd\u4e8b\u52d9\u6240","boring_xml_url":47,"boring_view_url":1,"soilmap_view_url":null,"soiltest_xml_url":47,"soiltest_view_url":47},{"id":286888,"code":"NGIC201901689-0011","latitude":"35.583213888889","longitude":"139.67175277778","source_code":"","project_name":"","survey_name":"\u5e73\u621030\u5e74\u5ea6\u591a\u6469\u5ddd\u6c34\u7cfb\u5730\u8cea\u8abf\u67fb\u696d\u52d9","client_name":"\u56fd\u571f\u4ea4\u901a\u7701\u95a2\u6771\u5730\u65b9\u6574\u5099\u5c40\u4eac\u6d5c\u6cb3\u5ddd\u4e8b\u52d9\u6240","boring_xml_url":47,"boring_view_url":1,"soilmap_view_url":null,"soiltest_xml_url":47,"soiltest_view_url":47},{"id":286887,"code":"NGIC201901689-0010","latitude":"35.582875","longitude":"139.67171111111","source_code":"","project_name":"","survey_name":"\u5e73\u621030\u5e74\u5ea6\u591a\u6469\u5ddd\u6c34\u7cfb\u5730\u8cea\u8abf\u67fb\u696d\u52d9","client_name":"\u56fd\u571f\u4ea4\u901a\u7701\u95a2\u6771\u5730\u65b9\u6574\u5099\u5c40\u4eac\u6d5c\u6cb3\u5ddd\u4e8b\u52d9\u6240","boring_xml_url":47,"boring_view_url":1,"soilmap_view_url":null,"soiltest_xml_url":0,"soiltest_view_url":0},{"id":286886,"code":"NGIC201901689-0009","latitude":"35.547105555556","longitude":"139.70164166667","source_code":"","project_name":"","survey_name":"\u5e73\u621030\u5e74\u5ea6\u591a\u6469\u5ddd\u6c34\u7cfb\u5730\u8cea\u8abf\u67fb\u696d\u52d9","client_name":"\u56fd\u571f\u4ea4\u901a\u7701\u95a2\u6771\u5730\u65b9\u6574\u5099\u5c40\u4eac\u6d5c\u6cb3\u5ddd\u4e8b\u52d9\u6240","boring_xml_url":47,"boring_view_url":1,"soilmap_view_url":null,"soiltest_xml_url":47,"soiltest_view_url":47},{"id":286885,"code":"NGIC201901689-0008","latitude":"35.547252777778","longitude":"139.70143888889","source_code":"","project_name":"","survey_name":"\u5e73\u621030\u5e74\u5ea6\u591a\u6469\u5ddd\u6c34\u7cfb\u5730\u8cea\u8abf\u67fb\u696d\u52d9","client_name":"\u56fd\u571f\u4ea4\u901a\u7701\u95a2\u6771\u5730\u65b9\u6574\u5099\u5c40\u4eac\u6d5c\u6cb3\u5ddd\u4e8b\u52d9\u6240","boring_xml_url":47,"boring_view_url":1,"soilmap_view_url":null,"soiltest_xml_url":47,"soiltest_view_url":47},{"id":286884,"code":"NGIC201901689-0007","latitude":"35.546491666667","longitude":"139.70096388889","source_code":"","project_name":"","survey_name":"\u5e73\u621030\u5e74\u5ea6\u591a\u6469\u5ddd\u6c34\u7cfb\u5730\u8cea\u8abf\u67fb\u696d\u52d9","client_name":"\u56fd\u571f\u4ea4\u901a\u7701\u95a2\u6771\u5730\u65b9\u6574\u5099\u5c40\u4eac\u6d5c\u6cb3\u5ddd\u4e8b\u52d9\u6240","boring_xml_url":47,"boring_view_url":1,"soilmap_view_url":null,"soiltest_xml_url":47,"soiltest_view_url":47},{"id":286883,"code":"NGIC201901689-0006","latitude":"35.546633333333","longitude":"139.70076666667","source_code":"","project_name":"","survey_name":"\u5e73\u621030\u5e74\u5ea6\u591a\u6469\u5ddd\u6c34\u7cfb\u5730\u8cea\u8abf\u67fb\u696d\u52d9","client_name":"\u56fd\u571f\u4ea4\u901a\u7701\u95a2\u6771\u5730\u65b9\u6574\u5099\u5c40\u4eac\u6d5c\u6cb3\u5ddd\u4e8b\u52d9\u6240","boring_xml_url":47,"boring_view_url":1,"soilmap_view_url":null,"soiltest_xml_url":47,"soiltest_view_url":47},{"id":286882,"code":"NGIC201901689-0005","latitude":"35.586747222222","longitude":"139.66869444444","source_code":"","project_name":"","survey_name":"\u5e73\u621030\u5e74\u5ea6\u591a\u6469\u5ddd\u6c34\u7cfb\u5730\u8cea\u8abf\u67fb\u696d\u52d9","client_name":"\u56fd\u571f\u4ea4\u901a\u7701\u95a2\u6771\u5730\u65b9\u6574\u5099\u5c40\u4eac\u6d5c\u6cb3\u5ddd\u4e8b\u52d9\u6240","boring_xml_url":47,"boring_view_url":1,"soilmap_view_url":null,"soiltest_xml_url":47,"soiltest_view_url":47},{"id":286881,"code":"NGIC201901689-0004","latitude":"35.544422222222","longitude":"139.69680277778","source_code":"","project_name":"","survey_name":"\u5e73\u621030\u5e74\u5ea6\u591a\u6469\u5ddd\u6c34\u7cfb\u5730\u8cea\u8abf\u67fb\u696d\u52d9","client_name":"\u56fd\u571f\u4ea4\u901a\u7701\u95a2\u6771\u5730\u65b9\u6574\u5099\u5c40\u4eac\u6d5c\u6cb3\u5ddd\u4e8b\u52d9\u6240","boring_xml_url":47,"boring_view_url":1,"soilmap_view_url":null,"soiltest_xml_url":47,"soiltest_view_url":47},{"id":286880,"code":"NGIC201901689-0003","latitude":"35.54025","longitude":"139.72872777778","source_code":"","project_name":"","survey_name":"\u5e73\u621030\u5e74\u5ea6\u591a\u6469\u5ddd\u6c34\u7cfb\u5730\u8cea\u8abf\u67fb\u696d\u52d9","client_name":"\u56fd\u571f\u4ea4\u901a\u7701\u95a2\u6771\u5730\u65b9\u6574\u5099\u5c40\u4eac\u6d5c\u6cb3\u5ddd\u4e8b\u52d9\u6240","boring_xml_url":47,"boring_view_url":1,"soilmap_view_url":null,"soiltest_xml_url":47,"soiltest_view_url":47},{"id":286879,"code":"NGIC201901689-0002","latitude":"35.540202777778","longitude":"139.73082222222","source_code":"","project_name":"","survey_name":"\u5e73\u621030\u5e74\u5ea6\u591a\u6469\u5ddd\u6c34\u7cfb\u5730\u8cea\u8abf\u67fb\u696d\u52d9","client_name":"\u56fd\u571f\u4ea4\u901a\u7701\u95a2\u6771\u5730\u65b9\u6574\u5099\u5c40\u4eac\u6d5c\u6cb3\u5ddd\u4e8b\u52d9\u6240","boring_xml_url":47,"boring_view_url":1,"soilmap_view_url":null,"soiltest_xml_url":47,"soiltest_view_url":47},{"id":286878,"code":"NGIC201901689-0001","latitude":"35.538983333333","longitude":"139.76218055556","source_code":"","project_name":"","survey_name":"\u5e73\u621030\u5e74\u5ea6\u591a\u6469\u5ddd\u6c34\u7cfb\u5730\u8cea\u8abf\u67fb\u696d\u52d9","client_name":"\u56fd\u571f\u4ea4\u901a\u7701\u95a2\u6771\u5730\u65b9\u6574\u5099\u5c40\u4eac\u6d5c\u6cb3\u5ddd\u4e8b\u52d9\u6240","boring_xml_url":47,"boring_view_url":1,"soilmap_view_url":null,"soiltest_xml_url":47,"soiltest_view_url":47},{"id":286877,"code":"NGIC201901695-0008","latitude":"33.719373527778","longitude":"136.00576636111","source_code":"","project_name":"","survey_name":"\u65b0\u5bae\u9053\u8def\u5730\u8cea\u8abf\u67fb\u696d\u52d9","client_name":"\u56fd\u571f\u4ea4\u901a\u7701\u8fd1\u757f\u5730\u65b9\u6574\u5099\u5c40\u7d00\u5357\u6cb3\u5ddd\u56fd\u9053\u4e8b\u52d9\u6240","boring_xml_url":47,"boring_view_url":1,"soilmap_view_url":null,"soiltest_xml_url":47,"soiltest_view_url":47},{"id":286876,"code":"NGIC201901695-0007","latitude":"33.718540222222","longitude":"136.00558325","source_code":"","project_name":"","survey_name":"\u65b0\u5bae\u9053\u8def\u5730\u8cea\u8abf\u67fb\u696d\u52d9","client_name":"\u56fd\u571f\u4ea4\u901a\u7701\u8fd1\u757f\u5730\u65b9\u6574\u5099\u5c40\u7d00\u5357\u6cb3\u5ddd\u56fd\u9053\u4e8b\u52d9\u6240","boring_xml_url":47,"boring_view_url":1,"soilmap_view_url":null,"soiltest_xml_url":47,"soiltest_view_url":47},{"id":286875,"code":"NGIC201901695-0006","latitude":"33.71864025","longitude":"136.00535008333","source_code":"","project_name":"","survey_name":"\u65b0\u5bae\u9053\u8def\u5730\u8cea\u8abf\u67fb\u696d\u52d9","client_name":"\u56fd\u571f\u4ea4\u901a\u7701\u8fd1\u757f\u5730\u65b9\u6574\u5099\u5c40\u7d00\u5357\u6cb3\u5ddd\u56fd\u9053\u4e8b\u52d9\u6240","boring_xml_url":47,"boring_view_url":1,"soilmap_view_url":null,"soiltest_xml_url":47,"soiltest_view_url":47},{"id":286874,"code":"NGIC201901695-0005","latitude":"33.716141361111","longitude":"136.00341266667","source_code":"","project_name":"","survey_name":"\u65b0\u5bae\u9053\u8def\u5730\u8cea\u8abf\u67fb\u696d\u52d9","client_name":"\u56fd\u571f\u4ea4\u901a\u7701\u8fd1\u757f\u5730\u65b9\u6574\u5099\u5c40\u7d00\u5357\u6cb3\u5ddd\u56fd\u9053\u4e8b\u52d9\u6240","boring_xml_url":47,"boring_view_url":1,"soilmap_view_url":null,"soiltest_xml_url":47,"soiltest_view_url":47},{"id":286873,"code":"NGIC201901695-0004","latitude":"33.70241175","longitude":"135.99046005556","source_code":"","project_name":"","survey_name":"\u65b0\u5bae\u9053\u8def\u5730\u8cea\u8abf\u67fb\u696d\u52d9","client_name":"\u56fd\u571f\u4ea4\u901a\u7701\u8fd1\u757f\u5730\u65b9\u6574\u5099\u5c40\u7d00\u5357\u6cb3\u5ddd\u56fd\u9053\u4e8b\u52d9\u6240","boring_xml_url":47,"boring_view_url":1,"soilmap_view_url":null,"soiltest_xml_url":47,"soiltest_view_url":47},{"id":286872,"code":"NGIC201901695-0003","latitude":"33.700620944444","longitude":"135.98469033333","source_code":"","project_name":"","survey_name":"\u65b0\u5bae\u9053\u8def\u5730\u8cea\u8abf\u67fb\u696d\u52d9","client_name":"\u56fd\u571f\u4ea4\u901a\u7701\u8fd1\u757f\u5730\u65b9\u6574\u5099\u5c40\u7d00\u5357\u6cb3\u5ddd\u56fd\u9053\u4e8b\u52d9\u6240","boring_xml_url":47,"boring_view_url":1,"soilmap_view_url":null,"soiltest_xml_url":0,"soiltest_view_url":0},{"id":286871,"code":"NGIC201901695-0002","latitude":"33.700620944444","longitude":"135.98469033333","source_code":"","project_name":"","survey_name":"\u65b0\u5bae\u9053\u8def\u5730\u8cea\u8abf\u67fb\u696d\u52d9","client_name":"\u56fd\u571f\u4ea4\u901a\u7701\u8fd1\u757f\u5730\u65b9\u6574\u5099\u5c40\u7d00\u5357\u6cb3\u5ddd\u56fd\u9053\u4e8b\u52d9\u6240","boring_xml_url":47,"boring_view_url":1,"soilmap_view_url":null,"soiltest_xml_url":0,"soiltest_view_url":0},{"id":286870,"code":"NGIC201901695-0001","latitude":"33.698678916667","longitude":"135.98227163889","source_code":"","project_name":"","survey_name":"\u65b0\u5bae\u9053\u8def\u5730\u8cea\u8abf\u67fb\u696d\u52d9","client_name":"\u56fd\u571f\u4ea4\u901a\u7701\u8fd1\u757f\u5730\u65b9\u6574\u5099\u5c40\u7d00\u5357\u6cb3\u5ddd\u56fd\u9053\u4e8b\u52d9\u6240","boring_xml_url":47,"boring_view_url":1,"soilmap_view_url":null,"soiltest_xml_url":0,"soiltest_view_url":0},{"id":286865,"code":"NGIC201901690-0003","latitude":"34.864444444444","longitude":"136.58494444444","source_code":"","project_name":"","survey_name":"\u5e73\u621030\u5e74\u5ea623\u53f7\u5317\u7389\u57a3\u9ad8\u67b6\u6a4b\u897f\u4e0b\u90e8\u5de5\u4e8b","client_name":"\u56fd\u571f\u4ea4\u901a\u7701\u4e2d\u90e8\u5730\u65b9\u6574\u5099\u5c40\u4e09\u91cd\u6cb3\u5ddd\u56fd\u9053\u4e8b\u52d9\u6240","boring_xml_url":47,"boring_view_url":1,"soilmap_view_url":null,"soiltest_xml_url":0,"soiltest_view_url":0},{"id":286864,"code":"NGIC201901690-0002","latitude":"34.864777777778","longitude":"136.58527777778","source_code":"","project_name":"","survey_name":"\u5e73\u621030\u5e74\u5ea623\u53f7\u5317\u7389\u57a3\u9ad8\u67b6\u6a4b\u897f\u4e0b\u90e8\u5de5\u4e8b","client_name":"\u56fd\u571f\u4ea4\u901a\u7701\u4e2d\u90e8\u5730\u65b9\u6574\u5099\u5c40\u4e09\u91cd\u6cb3\u5ddd\u56fd\u9053\u4e8b\u52d9\u6240","boring_xml_url":47,"boring_view_url":1,"soilmap_view_url":null,"soiltest_xml_url":0,"soiltest_view_url":0}]}}