{"header":{"xyz":{"source":[],"mosaic":false},"page":223,"raw":{"soiltest_result":"0","bbox":"57.598333,109.544722,1.933333,163.806111","page":"223"},"conditions":{"soiltest_result":0,"north":57.598333,"west":109.544722,"south":1.933333,"east":163.806111},"success":true,"message":""},"data":{"meta":{"total":212844,"page":223,"pages":7095,"count":30},"values":[{"id":577717,"code":"NGIC202205628-0012","latitude":"34.710194638889","longitude":"135.57792025","source_code":"","project_name":"","survey_name":"\u6dc0\u5ddd\u5de6\u5cb8\u7dda\u5ef6\u4f38\u90e8\u6a2a\u5824\u5730\u533a\u4ed6\u571f\u58cc\u8abf\u67fb\u696d\u52d9\u00a5n","client_name":"\u56fd\u571f\u4ea4\u901a\u7701\u8fd1\u757f\u5730\u65b9\u6574\u5099\u5c40\u6d6a\u901f\u56fd\u9053\u4e8b\u52d9\u6240","boring_xml_url":47,"boring_view_url":1,"soilmap_view_url":null,"soiltest_xml_url":0,"soiltest_view_url":0},{"id":577716,"code":"NGIC202205628-0011","latitude":"34.710228194444","longitude":"135.57802155556","source_code":"","project_name":"","survey_name":"\u6dc0\u5ddd\u5de6\u5cb8\u7dda\u5ef6\u4f38\u90e8\u6a2a\u5824\u5730\u533a\u4ed6\u571f\u58cc\u8abf\u67fb\u696d\u52d9\u00a5n","client_name":"\u56fd\u571f\u4ea4\u901a\u7701\u8fd1\u757f\u5730\u65b9\u6574\u5099\u5c40\u6d6a\u901f\u56fd\u9053\u4e8b\u52d9\u6240","boring_xml_url":47,"boring_view_url":1,"soilmap_view_url":null,"soiltest_xml_url":0,"soiltest_view_url":0},{"id":577715,"code":"NGIC202205628-0010","latitude":"34.710261777778","longitude":"135.57812288889","source_code":"","project_name":"","survey_name":"\u6dc0\u5ddd\u5de6\u5cb8\u7dda\u5ef6\u4f38\u90e8\u6a2a\u5824\u5730\u533a\u4ed6\u571f\u58cc\u8abf\u67fb\u696d\u52d9\u00a5n","client_name":"\u56fd\u571f\u4ea4\u901a\u7701\u8fd1\u757f\u5730\u65b9\u6574\u5099\u5c40\u6d6a\u901f\u56fd\u9053\u4e8b\u52d9\u6240","boring_xml_url":47,"boring_view_url":1,"soilmap_view_url":null,"soiltest_xml_url":0,"soiltest_view_url":0},{"id":577714,"code":"NGIC202205628-0009","latitude":"34.710295361111","longitude":"135.57822419444","source_code":"","project_name":"","survey_name":"\u6dc0\u5ddd\u5de6\u5cb8\u7dda\u5ef6\u4f38\u90e8\u6a2a\u5824\u5730\u533a\u4ed6\u571f\u58cc\u8abf\u67fb\u696d\u52d9\u00a5n","client_name":"\u56fd\u571f\u4ea4\u901a\u7701\u8fd1\u757f\u5730\u65b9\u6574\u5099\u5c40\u6d6a\u901f\u56fd\u9053\u4e8b\u52d9\u6240","boring_xml_url":47,"boring_view_url":1,"soilmap_view_url":null,"soiltest_xml_url":0,"soiltest_view_url":0},{"id":577713,"code":"NGIC202205628-0008","latitude":"34.710328916667","longitude":"135.57832552778","source_code":"","project_name":"","survey_name":"\u6dc0\u5ddd\u5de6\u5cb8\u7dda\u5ef6\u4f38\u90e8\u6a2a\u5824\u5730\u533a\u4ed6\u571f\u58cc\u8abf\u67fb\u696d\u52d9\u00a5n","client_name":"\u56fd\u571f\u4ea4\u901a\u7701\u8fd1\u757f\u5730\u65b9\u6574\u5099\u5c40\u6d6a\u901f\u56fd\u9053\u4e8b\u52d9\u6240","boring_xml_url":47,"boring_view_url":1,"soilmap_view_url":null,"soiltest_xml_url":0,"soiltest_view_url":0},{"id":577712,"code":"NGIC202205628-0007","latitude":"34.7103625","longitude":"135.57842683333","source_code":"","project_name":"","survey_name":"\u6dc0\u5ddd\u5de6\u5cb8\u7dda\u5ef6\u4f38\u90e8\u6a2a\u5824\u5730\u533a\u4ed6\u571f\u58cc\u8abf\u67fb\u696d\u52d9\u00a5n","client_name":"\u56fd\u571f\u4ea4\u901a\u7701\u8fd1\u757f\u5730\u65b9\u6574\u5099\u5c40\u6d6a\u901f\u56fd\u9053\u4e8b\u52d9\u6240","boring_xml_url":47,"boring_view_url":1,"soilmap_view_url":null,"soiltest_xml_url":0,"soiltest_view_url":0},{"id":577711,"code":"NGIC202205628-0006","latitude":"34.710396055556","longitude":"135.57852813889","source_code":"","project_name":"","survey_name":"\u6dc0\u5ddd\u5de6\u5cb8\u7dda\u5ef6\u4f38\u90e8\u6a2a\u5824\u5730\u533a\u4ed6\u571f\u58cc\u8abf\u67fb\u696d\u52d9\u00a5n","client_name":"\u56fd\u571f\u4ea4\u901a\u7701\u8fd1\u757f\u5730\u65b9\u6574\u5099\u5c40\u6d6a\u901f\u56fd\u9053\u4e8b\u52d9\u6240","boring_xml_url":47,"boring_view_url":1,"soilmap_view_url":null,"soiltest_xml_url":0,"soiltest_view_url":0},{"id":577710,"code":"NGIC202205628-0005","latitude":"34.710429638889","longitude":"135.57862944444","source_code":"","project_name":"","survey_name":"\u6dc0\u5ddd\u5de6\u5cb8\u7dda\u5ef6\u4f38\u90e8\u6a2a\u5824\u5730\u533a\u4ed6\u571f\u58cc\u8abf\u67fb\u696d\u52d9\u00a5n","client_name":"\u56fd\u571f\u4ea4\u901a\u7701\u8fd1\u757f\u5730\u65b9\u6574\u5099\u5c40\u6d6a\u901f\u56fd\u9053\u4e8b\u52d9\u6240","boring_xml_url":47,"boring_view_url":1,"soilmap_view_url":null,"soiltest_xml_url":0,"soiltest_view_url":0},{"id":577709,"code":"NGIC202205628-0004","latitude":"34.710463222222","longitude":"135.57873077778","source_code":"","project_name":"","survey_name":"\u6dc0\u5ddd\u5de6\u5cb8\u7dda\u5ef6\u4f38\u90e8\u6a2a\u5824\u5730\u533a\u4ed6\u571f\u58cc\u8abf\u67fb\u696d\u52d9\u00a5n","client_name":"\u56fd\u571f\u4ea4\u901a\u7701\u8fd1\u757f\u5730\u65b9\u6574\u5099\u5c40\u6d6a\u901f\u56fd\u9053\u4e8b\u52d9\u6240","boring_xml_url":47,"boring_view_url":1,"soilmap_view_url":null,"soiltest_xml_url":0,"soiltest_view_url":0},{"id":577708,"code":"NGIC202205628-0003","latitude":"34.71045825","longitude":"135.57854105556","source_code":"","project_name":"","survey_name":"\u6dc0\u5ddd\u5de6\u5cb8\u7dda\u5ef6\u4f38\u90e8\u6a2a\u5824\u5730\u533a\u4ed6\u571f\u58cc\u8abf\u67fb\u696d\u52d9\u00a5n","client_name":"\u56fd\u571f\u4ea4\u901a\u7701\u8fd1\u757f\u5730\u65b9\u6574\u5099\u5c40\u6d6a\u901f\u56fd\u9053\u4e8b\u52d9\u6240","boring_xml_url":47,"boring_view_url":1,"soilmap_view_url":null,"soiltest_xml_url":0,"soiltest_view_url":0},{"id":577707,"code":"NGIC202205628-0002","latitude":"34.710494","longitude":"135.57863733333","source_code":"","project_name":"","survey_name":"\u6dc0\u5ddd\u5de6\u5cb8\u7dda\u5ef6\u4f38\u90e8\u6a2a\u5824\u5730\u533a\u4ed6\u571f\u58cc\u8abf\u67fb\u696d\u52d9\u00a5n","client_name":"\u56fd\u571f\u4ea4\u901a\u7701\u8fd1\u757f\u5730\u65b9\u6574\u5099\u5c40\u6d6a\u901f\u56fd\u9053\u4e8b\u52d9\u6240","boring_xml_url":47,"boring_view_url":1,"soilmap_view_url":null,"soiltest_xml_url":0,"soiltest_view_url":0},{"id":577706,"code":"NGIC202205628-0001","latitude":"34.710513972222","longitude":"135.578707","source_code":"","project_name":"","survey_name":"\u6dc0\u5ddd\u5de6\u5cb8\u7dda\u5ef6\u4f38\u90e8\u6a2a\u5824\u5730\u533a\u4ed6\u571f\u58cc\u8abf\u67fb\u696d\u52d9\u00a5n","client_name":"\u56fd\u571f\u4ea4\u901a\u7701\u8fd1\u757f\u5730\u65b9\u6574\u5099\u5c40\u6d6a\u901f\u56fd\u9053\u4e8b\u52d9\u6240","boring_xml_url":47,"boring_view_url":1,"soilmap_view_url":null,"soiltest_xml_url":0,"soiltest_view_url":0},{"id":577698,"code":"NGIC202205890-0001","latitude":"37.687777777778","longitude":"140.30833333333","source_code":"","project_name":"","survey_name":"\u963f\u6b66\u9688\u5ddd\u6c34\u7cfb\u6802\u306e\u68ee\u7802\u9632\u5830\u5824\u7b49\u8a2d\u8a08\u696d\u52d9","client_name":"\u56fd\u571f\u4ea4\u901a\u7701\u6771\u5317\u5730\u65b9\u6574\u5099\u5c40\u798f\u5cf6\u6cb3\u5ddd\u56fd\u9053\u4e8b\u52d9\u6240","boring_xml_url":47,"boring_view_url":1,"soilmap_view_url":null,"soiltest_xml_url":0,"soiltest_view_url":0},{"id":577670,"code":"NGIC202205802-0005","latitude":"26.386943388889","longitude":"127.74626633333","source_code":"","project_name":"\u4ee4\u548c4\u5e74\u5ea6\u5317\u90e8\u56fd\u9053\u6539\u7bc9\u8a2d\u8a08\uff08\u305d\u306e1\uff09\u696d\u52d9","survey_name":"\u4ee4\u548c4\u5e74\u5ea6\u5317\u90e8\u56fd\u9053\u6539\u7bc9\u8a2d\u8a08\uff08\u305d\u306e1\uff09\u696d\u52d9","client_name":"\u5185\u95a3\u5e9c\u6c96\u7e04\u7dcf\u5408\u4e8b\u52d9\u5c40\u958b\u767a\u5efa\u8a2d\u90e8\u5317\u90e8\u56fd\u9053\u4e8b\u52d9\u6240","boring_xml_url":47,"boring_view_url":1,"soilmap_view_url":null,"soiltest_xml_url":0,"soiltest_view_url":0},{"id":577669,"code":"NGIC202205802-0004","latitude":"26.386900805556","longitude":"127.74668047222","source_code":"","project_name":"\u4ee4\u548c4\u5e74\u5ea6\u5317\u90e8\u56fd\u9053\u6539\u7bc9\u8a2d\u8a08\uff08\u305d\u306e1\uff09\u696d\u52d9","survey_name":"\u4ee4\u548c4\u5e74\u5ea6\u5317\u90e8\u56fd\u9053\u6539\u7bc9\u8a2d\u8a08\uff08\u305d\u306e1\uff09\u696d\u52d9","client_name":"\u5185\u95a3\u5e9c\u6c96\u7e04\u7dcf\u5408\u4e8b\u52d9\u5c40\u958b\u767a\u5efa\u8a2d\u90e8\u5317\u90e8\u56fd\u9053\u4e8b\u52d9\u6240","boring_xml_url":47,"boring_view_url":1,"soilmap_view_url":null,"soiltest_xml_url":0,"soiltest_view_url":0},{"id":577668,"code":"NGIC202205802-0003","latitude":"26.387601555556","longitude":"127.746403","source_code":"","project_name":"\u4ee4\u548c4\u5e74\u5ea6\u5317\u90e8\u56fd\u9053\u6539\u7bc9\u8a2d\u8a08\uff08\u305d\u306e1\uff09\u696d\u52d9","survey_name":"\u4ee4\u548c4\u5e74\u5ea6\u5317\u90e8\u56fd\u9053\u6539\u7bc9\u8a2d\u8a08\uff08\u305d\u306e1\uff09\u696d\u52d9","client_name":"\u5185\u95a3\u5e9c\u6c96\u7e04\u7dcf\u5408\u4e8b\u52d9\u5c40\u958b\u767a\u5efa\u8a2d\u90e8\u5317\u90e8\u56fd\u9053\u4e8b\u52d9\u6240","boring_xml_url":47,"boring_view_url":1,"soilmap_view_url":null,"soiltest_xml_url":0,"soiltest_view_url":0},{"id":577667,"code":"NGIC202205802-0002","latitude":"26.387563638889","longitude":"127.74674663889","source_code":"","project_name":"\u4ee4\u548c4\u5e74\u5ea6\u5317\u90e8\u56fd\u9053\u6539\u7bc9\u8a2d\u8a08\uff08\u305d\u306e1\uff09\u696d\u52d9","survey_name":"\u4ee4\u548c4\u5e74\u5ea6\u5317\u90e8\u56fd\u9053\u6539\u7bc9\u8a2d\u8a08\uff08\u305d\u306e1\uff09\u696d\u52d9","client_name":"\u5185\u95a3\u5e9c\u6c96\u7e04\u7dcf\u5408\u4e8b\u52d9\u5c40\u958b\u767a\u5efa\u8a2d\u90e8\u5317\u90e8\u56fd\u9053\u4e8b\u52d9\u6240","boring_xml_url":47,"boring_view_url":1,"soilmap_view_url":null,"soiltest_xml_url":0,"soiltest_view_url":0},{"id":577666,"code":"NGIC202205802-0001","latitude":"26.388103527778","longitude":"127.74682808333","source_code":"","project_name":"\u4ee4\u548c4\u5e74\u5ea6\u5317\u90e8\u56fd\u9053\u6539\u7bc9\u8a2d\u8a08\uff08\u305d\u306e1\uff09\u696d\u52d9","survey_name":"\u4ee4\u548c4\u5e74\u5ea6\u5317\u90e8\u56fd\u9053\u6539\u7bc9\u8a2d\u8a08\uff08\u305d\u306e1\uff09\u696d\u52d9","client_name":"\u5185\u95a3\u5e9c\u6c96\u7e04\u7dcf\u5408\u4e8b\u52d9\u5c40\u958b\u767a\u5efa\u8a2d\u90e8\u5317\u90e8\u56fd\u9053\u4e8b\u52d9\u6240","boring_xml_url":47,"boring_view_url":1,"soilmap_view_url":null,"soiltest_xml_url":0,"soiltest_view_url":0},{"id":577661,"code":"NGIC202205800-0003","latitude":"32.340618555556","longitude":"130.84435741667","source_code":"","project_name":"","survey_name":"\u4ee4\u548c4\u5e74\u5ea6\u85e4\u7530\u5730\u533a\u5730\u8cea\u8abf\u67fb(\u305d\u306e2)\u696d\u52d9","client_name":"\u56fd\u571f\u4ea4\u901a\u7701\u4e5d\u5dde\u5730\u65b9\u6574\u5099\u5c40\u5ddd\u8fba\u5ddd\u30c0\u30e0\u7802\u9632\u4e8b\u52d9\u6240","boring_xml_url":47,"boring_view_url":1,"soilmap_view_url":null,"soiltest_xml_url":0,"soiltest_view_url":0},{"id":577660,"code":"NGIC202205800-0002","latitude":"32.339164166667","longitude":"130.84713211111","source_code":"","project_name":"","survey_name":"\u4ee4\u548c4\u5e74\u5ea6\u85e4\u7530\u5730\u533a\u5730\u8cea\u8abf\u67fb(\u305d\u306e2)\u696d\u52d9","client_name":"\u56fd\u571f\u4ea4\u901a\u7701\u4e5d\u5dde\u5730\u65b9\u6574\u5099\u5c40\u5ddd\u8fba\u5ddd\u30c0\u30e0\u7802\u9632\u4e8b\u52d9\u6240","boring_xml_url":47,"boring_view_url":1,"soilmap_view_url":null,"soiltest_xml_url":0,"soiltest_view_url":0},{"id":577659,"code":"NGIC202205800-0001","latitude":"32.340788305556","longitude":"130.84897422222","source_code":"","project_name":"","survey_name":"\u4ee4\u548c4\u5e74\u5ea6\u85e4\u7530\u5730\u533a\u5730\u8cea\u8abf\u67fb(\u305d\u306e2)\u696d\u52d9","client_name":"\u56fd\u571f\u4ea4\u901a\u7701\u4e5d\u5dde\u5730\u65b9\u6574\u5099\u5c40\u5ddd\u8fba\u5ddd\u30c0\u30e0\u7802\u9632\u4e8b\u52d9\u6240","boring_xml_url":47,"boring_view_url":1,"soilmap_view_url":null,"soiltest_xml_url":0,"soiltest_view_url":0},{"id":577638,"code":"NGIC202205599-0006","latitude":"35.532713583333","longitude":"134.795853","source_code":"","project_name":"","survey_name":"\u8c4a\u5ca1\u9053\u8def(2\u671f)\u6238\u7267\u5ca9\u4e95\u5730\u533a\u5730\u8cea\u8abf\u67fb\u696d\u52d9","client_name":"\u56fd\u571f\u4ea4\u901a\u7701\u8fd1\u757f\u5730\u65b9\u6574\u5099\u5c40\u8c4a\u5ca1\u6cb3\u5ddd\u56fd\u9053\u4e8b\u52d9\u6240","boring_xml_url":47,"boring_view_url":1,"soilmap_view_url":null,"soiltest_xml_url":0,"soiltest_view_url":0},{"id":577637,"code":"NGIC202205599-0005","latitude":"35.532326388889","longitude":"134.7956655","source_code":"","project_name":"","survey_name":"\u8c4a\u5ca1\u9053\u8def(2\u671f)\u6238\u7267\u5ca9\u4e95\u5730\u533a\u5730\u8cea\u8abf\u67fb\u696d\u52d9","client_name":"\u56fd\u571f\u4ea4\u901a\u7701\u8fd1\u757f\u5730\u65b9\u6574\u5099\u5c40\u8c4a\u5ca1\u6cb3\u5ddd\u56fd\u9053\u4e8b\u52d9\u6240","boring_xml_url":47,"boring_view_url":1,"soilmap_view_url":null,"soiltest_xml_url":0,"soiltest_view_url":0},{"id":577636,"code":"NGIC202205599-0004","latitude":"35.5319885","longitude":"134.79586186111","source_code":"","project_name":"","survey_name":"\u8c4a\u5ca1\u9053\u8def\uff082\u671f\uff09\u6238\u7267\u5ca9\u4e95\u5730\u533a\u5730\u8cea\u8abf\u67fb\u696d\u52d9","client_name":"\u56fd\u571f\u4ea4\u901a\u7701\u8fd1\u757f\u5730\u65b9\u6574\u5099\u5c40\u8c4a\u5ca1\u6cb3\u5ddd\u56fd\u9053\u4e8b\u52d9\u6240","boring_xml_url":47,"boring_view_url":1,"soilmap_view_url":null,"soiltest_xml_url":0,"soiltest_view_url":0},{"id":577635,"code":"NGIC202205599-0003","latitude":"35.531567472222","longitude":"134.79611375","source_code":"","project_name":"","survey_name":"\u8c4a\u5ca1\u9053\u8def\uff082\u671f\uff09\u6238\u7267\u5ca9\u4e95\u5730\u533a\u5730\u8cea\u8abf\u67fb\u696d\u52d9","client_name":"\u56fd\u571f\u4ea4\u901a\u7701\u8fd1\u757f\u5730\u65b9\u6574\u5099\u5c40\u8c4a\u5ca1\u6cb3\u5ddd\u56fd\u9053\u4e8b\u52d9\u6240","boring_xml_url":47,"boring_view_url":1,"soilmap_view_url":null,"soiltest_xml_url":0,"soiltest_view_url":0},{"id":577634,"code":"NGIC202205599-0002","latitude":"35.530261638889","longitude":"134.79691491667","source_code":"","project_name":"","survey_name":"\u8c4a\u5ca1\u9053\u8def\uff082\u671f\uff09\u6238\u7267\u5ca9\u4e95\u5730\u533a\u5730\u8cea\u8abf\u67fb\u696d\u52d9","client_name":"\u56fd\u571f\u4ea4\u901a\u7701\u8fd1\u757f\u5730\u65b9\u6574\u5099\u5c40\u8c4a\u5ca1\u6cb3\u5ddd\u56fd\u9053\u4e8b\u52d9\u6240","boring_xml_url":47,"boring_view_url":1,"soilmap_view_url":null,"soiltest_xml_url":0,"soiltest_view_url":0},{"id":577633,"code":"NGIC202205599-0001","latitude":"35.529695527778","longitude":"134.79669825","source_code":"","project_name":"","survey_name":"\u8c4a\u5ca1\u9053\u8def\uff082\u671f\uff09\u6238\u7267\u5ca9\u4e95\u5730\u533a\u5730\u8cea\u8abf\u67fb\u696d\u52d9","client_name":"\u56fd\u571f\u4ea4\u901a\u7701\u8fd1\u757f\u5730\u65b9\u6574\u5099\u5c40\u8c4a\u5ca1\u6cb3\u5ddd\u56fd\u9053\u4e8b\u52d9\u6240","boring_xml_url":47,"boring_view_url":1,"soilmap_view_url":null,"soiltest_xml_url":0,"soiltest_view_url":0},{"id":577595,"code":"NGIC202205582-0001","latitude":"31.821241055556","longitude":"131.35779386111","source_code":"","project_name":"","survey_name":"\u4ee4\u548c4\u5e74\u5ea6\u6771\u4e5d\u5dde\u9053\u5730\u8cea\u8abf\u67fb\u5916\uff08\u305d\u306e1\uff09\u696d\u52d9","client_name":"\u56fd\u571f\u4ea4\u901a\u7701\u4e5d\u5dde\u5730\u65b9\u6574\u5099\u5c40\u5bae\u5d0e\u6cb3\u5ddd\u56fd\u9053\u4e8b\u52d9\u6240","boring_xml_url":47,"boring_view_url":1,"soilmap_view_url":null,"soiltest_xml_url":0,"soiltest_view_url":0},{"id":577547,"code":"NGIC202205867-0001","latitude":"37.223722222222","longitude":"140.32958333333","source_code":"","project_name":"","survey_name":"\u77e2\u5439\u93e1\u77f3\u9053\u8def\u88dc\u8db3\u8a2d\u8a08\u696d\u52d9","client_name":"\u56fd\u571f\u4ea4\u901a\u7701\u6771\u5317\u5730\u65b9\u6574\u5099\u5c40\u90e1\u5c71\u56fd\u9053\u4e8b\u52d9\u6240","boring_xml_url":47,"boring_view_url":1,"soilmap_view_url":null,"soiltest_xml_url":47,"soiltest_view_url":47},{"id":577533,"code":"NGIC202205843-0002","latitude":"35.242838638889","longitude":"137.41844075","source_code":"","project_name":"","survey_name":"\u4ee4\u548c4\u5e74\u5ea6\u77e2\u4f5c\u30c0\u30e0\u7ba1\u7406\u6240\u5730\u8cea\u8abf\u67fb\u696d\u52d9","client_name":"\u56fd\u571f\u4ea4\u901a\u7701\u4e2d\u90e8\u5730\u65b9\u6574\u5099\u5c40\u77e2\u4f5c\u30c0\u30e0\u7ba1\u7406\u6240","boring_xml_url":47,"boring_view_url":1,"soilmap_view_url":null,"soiltest_xml_url":0,"soiltest_view_url":0}]}}