{"header":{"xyz":{"source":[],"mosaic":false},"page":2233,"raw":{"soiltest_result":"0","bbox":"57.598333,109.544722,1.933333,163.806111","page":"2233"},"conditions":{"soiltest_result":0,"north":57.598333,"west":109.544722,"south":1.933333,"east":163.806111},"success":true,"message":""},"data":{"meta":{"total":212844,"page":2233,"pages":7095,"count":30},"values":[{"id":286578,"code":"NGIC201901321-0005","latitude":"35.0585","longitude":"137.73697777778","source_code":"","project_name":"\u4ee4\u548c\u5143\u5e74\u5ea6\u4e09\u9060\u5357\u4fe1\u5730\u57df\u5730\u8cea\u30ea\u30b9\u30af\u691c\u8a0e\u696d\u52d9","survey_name":"\u4ee4\u548c\u5143\u5e74\u5ea6\u4e09\u9060\u5357\u4fe1\u5730\u57df\u5730\u8cea\u30ea\u30b9\u30af\u691c\u8a0e\u696d\u52d9","client_name":"\u56fd\u571f\u4ea4\u901a\u7701\u4e2d\u90e8\u5730\u65b9\u6574\u5099\u5c40\u6d5c\u677e\u6cb3\u5ddd\u56fd\u9053\u4e8b\u52d9\u6240","boring_xml_url":47,"boring_view_url":1,"soilmap_view_url":null,"soiltest_xml_url":0,"soiltest_view_url":0},{"id":286577,"code":"NGIC201901321-0004","latitude":"35.058111111111","longitude":"137.73683333333","source_code":"","project_name":"\u4ee4\u548c\u5143\u5e74\u5ea6\u4e09\u9060\u5357\u4fe1\u5730\u57df\u5730\u8cea\u30ea\u30b9\u30af\u691c\u8a0e\u696d\u52d9","survey_name":"\u4ee4\u548c\u5143\u5e74\u5ea6\u4e09\u9060\u5357\u4fe1\u5730\u57df\u5730\u8cea\u30ea\u30b9\u30af\u691c\u8a0e\u696d\u52d9","client_name":"\u56fd\u571f\u4ea4\u901a\u7701\u4e2d\u90e8\u5730\u65b9\u6574\u5099\u5c40\u6d5c\u677e\u6cb3\u5ddd\u56fd\u9053\u4e8b\u52d9\u6240","boring_xml_url":47,"boring_view_url":1,"soilmap_view_url":null,"soiltest_xml_url":0,"soiltest_view_url":0},{"id":286576,"code":"NGIC201901321-0003","latitude":"35.058322222222","longitude":"137.73655833333","source_code":"","project_name":"\u4ee4\u548c\u5143\u5e74\u5ea6\u4e09\u9060\u5357\u4fe1\u5730\u57df\u5730\u8cea\u30ea\u30b9\u30af\u691c\u8a0e\u696d\u52d9","survey_name":"\u4ee4\u548c\u5143\u5e74\u5ea6\u4e09\u9060\u5357\u4fe1\u5730\u57df\u5730\u8cea\u30ea\u30b9\u30af\u691c\u8a0e\u696d\u52d9","client_name":"\u56fd\u571f\u4ea4\u901a\u7701\u4e2d\u90e8\u5730\u65b9\u6574\u5099\u5c40\u6d5c\u677e\u6cb3\u5ddd\u56fd\u9053\u4e8b\u52d9\u6240","boring_xml_url":47,"boring_view_url":1,"soilmap_view_url":null,"soiltest_xml_url":0,"soiltest_view_url":0},{"id":286575,"code":"NGIC201901321-0002","latitude":"35.058513888889","longitude":"137.73626666667","source_code":"","project_name":"\u4ee4\u548c\u5143\u5e74\u5ea6\u4e09\u9060\u5357\u4fe1\u5730\u57df\u5730\u8cea\u30ea\u30b9\u30af\u691c\u8a0e\u696d\u52d9","survey_name":"\u4ee4\u548c\u5143\u5e74\u5ea6\u4e09\u9060\u5357\u4fe1\u5730\u57df\u5730\u8cea\u30ea\u30b9\u30af\u691c\u8a0e\u696d\u52d9","client_name":"\u56fd\u571f\u4ea4\u901a\u7701\u4e2d\u90e8\u5730\u65b9\u6574\u5099\u5c40\u6d5c\u677e\u6cb3\u5ddd\u56fd\u9053\u4e8b\u52d9\u6240","boring_xml_url":47,"boring_view_url":1,"soilmap_view_url":null,"soiltest_xml_url":0,"soiltest_view_url":0},{"id":286574,"code":"NGIC201901321-0001","latitude":"35.058447222222","longitude":"137.736","source_code":"","project_name":"\u4ee4\u548c\u5143\u5e74\u5ea6\u4e09\u9060\u5357\u4fe1\u5730\u57df\u5730\u8cea\u30ea\u30b9\u30af\u691c\u8a0e\u696d\u52d9","survey_name":"\u4ee4\u548c\u5143\u5e74\u5ea6\u4e09\u9060\u5357\u4fe1\u5730\u57df\u5730\u8cea\u30ea\u30b9\u30af\u691c\u8a0e\u696d\u52d9","client_name":"\u56fd\u571f\u4ea4\u901a\u7701\u4e2d\u90e8\u5730\u65b9\u6574\u5099\u5c40\u6d5c\u677e\u6cb3\u5ddd\u56fd\u9053\u4e8b\u52d9\u6240","boring_xml_url":47,"boring_view_url":1,"soilmap_view_url":null,"soiltest_xml_url":0,"soiltest_view_url":0},{"id":286573,"code":"NGIC201901653-0007","latitude":"35.822625","longitude":"140.72214166667","source_code":"","project_name":"R1\u5229\u6839\u5ddd\u53f3\u5cb8\u9ad8\u7530\u5730\u533a\u4ed6\u5730\u8cea\u8abf\u67fb\u696d\u52d9","survey_name":"R1\u5229\u6839\u5ddd\u53f3\u5cb8\u9ad8\u7530\u5730\u533a\u4ed6\u5730\u8cea\u8abf\u67fb\u696d\u52d9","client_name":"\u56fd\u571f\u4ea4\u901a\u7701\u95a2\u6771\u5730\u65b9\u6574\u5099\u5c40\u5229\u6839\u5ddd\u4e0b\u6d41\u6cb3\u5ddd\u4e8b\u52d9\u6240","boring_xml_url":47,"boring_view_url":1,"soilmap_view_url":null,"soiltest_xml_url":47,"soiltest_view_url":47},{"id":286572,"code":"NGIC201901653-0006","latitude":"35.818738888889","longitude":"140.72325","source_code":"","project_name":"R1\u5229\u6839\u5ddd\u53f3\u5cb8\u9ad8\u7530\u5730\u533a\u4ed6\u5730\u8cea\u8abf\u67fb\u696d\u52d9","survey_name":"R1\u5229\u6839\u5ddd\u53f3\u5cb8\u9ad8\u7530\u5730\u533a\u4ed6\u5730\u8cea\u8abf\u67fb\u696d\u52d9","client_name":"\u56fd\u571f\u4ea4\u901a\u7701\u95a2\u6771\u5730\u65b9\u6574\u5099\u5c40\u5229\u6839\u5ddd\u4e0b\u6d41\u6cb3\u5ddd\u4e8b\u52d9\u6240","boring_xml_url":47,"boring_view_url":1,"soilmap_view_url":null,"soiltest_xml_url":47,"soiltest_view_url":47},{"id":286571,"code":"NGIC201901653-0005","latitude":"35.781138888889","longitude":"140.73938888889","source_code":"","project_name":"R1\u5229\u6839\u5ddd\u53f3\u5cb8\u9ad8\u7530\u5730\u533a\u4ed6\u5730\u8cea\u8abf\u67fb\u696d\u52d9","survey_name":"R1\u5229\u6839\u5ddd\u53f3\u5cb8\u9ad8\u7530\u5730\u533a\u4ed6\u5730\u8cea\u8abf\u67fb\u696d\u52d9","client_name":"\u56fd\u571f\u4ea4\u901a\u7701\u95a2\u6771\u5730\u65b9\u6574\u5099\u5c40\u5229\u6839\u5ddd\u4e0b\u6d41\u6cb3\u5ddd\u4e8b\u52d9\u6240","boring_xml_url":47,"boring_view_url":1,"soilmap_view_url":null,"soiltest_xml_url":47,"soiltest_view_url":47},{"id":286570,"code":"NGIC201901653-0004","latitude":"35.764319444444","longitude":"140.76922222222","source_code":"","project_name":"R1\u5229\u6839\u5ddd\u53f3\u5cb8\u9ad8\u7530\u5730\u533a\u4ed6\u5730\u8cea\u8abf\u67fb\u696d\u52d9","survey_name":"R1\u5229\u6839\u5ddd\u53f3\u5cb8\u9ad8\u7530\u5730\u533a\u4ed6\u5730\u8cea\u8abf\u67fb\u696d\u52d9","client_name":"\u56fd\u571f\u4ea4\u901a\u7701\u95a2\u6771\u5730\u65b9\u6574\u5099\u5c40\u5229\u6839\u5ddd\u4e0b\u6d41\u6cb3\u5ddd\u4e8b\u52d9\u6240","boring_xml_url":47,"boring_view_url":1,"soilmap_view_url":null,"soiltest_xml_url":47,"soiltest_view_url":47},{"id":286569,"code":"NGIC201901653-0003","latitude":"35.762911111111","longitude":"140.77154722222","source_code":"","project_name":"R1\u5229\u6839\u5ddd\u53f3\u5cb8\u9ad8\u7530\u5730\u533a\u4ed6\u5730\u8cea\u8abf\u67fb\u696d\u52d9","survey_name":"R1\u5229\u6839\u5ddd\u53f3\u5cb8\u9ad8\u7530\u5730\u533a\u4ed6\u5730\u8cea\u8abf\u67fb\u696d\u52d9","client_name":"\u56fd\u571f\u4ea4\u901a\u7701\u95a2\u6771\u5730\u65b9\u6574\u5099\u5c40\u5229\u6839\u5ddd\u4e0b\u6d41\u6cb3\u5ddd\u4e8b\u52d9\u6240","boring_xml_url":47,"boring_view_url":1,"soilmap_view_url":null,"soiltest_xml_url":47,"soiltest_view_url":47},{"id":286568,"code":"NGIC201901653-0002","latitude":"35.749683333333","longitude":"140.79289722222","source_code":"","project_name":"R1\u5229\u6839\u5ddd\u53f3\u5cb8\u9ad8\u7530\u5730\u533a\u4ed6\u5730\u8cea\u8abf\u67fb\u696d\u52d9","survey_name":"R1\u5229\u6839\u5ddd\u53f3\u5cb8\u9ad8\u7530\u5730\u533a\u4ed6\u5730\u8cea\u8abf\u67fb\u696d\u52d9","client_name":"\u56fd\u571f\u4ea4\u901a\u7701\u95a2\u6771\u5730\u65b9\u6574\u5099\u5c40\u5229\u6839\u5ddd\u4e0b\u6d41\u6cb3\u5ddd\u4e8b\u52d9\u6240","boring_xml_url":47,"boring_view_url":1,"soilmap_view_url":null,"soiltest_xml_url":47,"soiltest_view_url":47},{"id":286567,"code":"NGIC201901653-0001","latitude":"35.749794444444","longitude":"140.79306111111","source_code":"","project_name":"R1\u5229\u6839\u5ddd\u53f3\u5cb8\u9ad8\u7530\u5730\u533a\u4ed6\u5730\u8cea\u8abf\u67fb\u696d\u52d9","survey_name":"R1\u5229\u6839\u5ddd\u53f3\u5cb8\u9ad8\u7530\u5730\u533a\u4ed6\u5730\u8cea\u8abf\u67fb\u696d\u52d9","client_name":"\u56fd\u571f\u4ea4\u901a\u7701\u95a2\u6771\u5730\u65b9\u6574\u5099\u5c40\u5229\u6839\u5ddd\u4e0b\u6d41\u6cb3\u5ddd\u4e8b\u52d9\u6240","boring_xml_url":47,"boring_view_url":1,"soilmap_view_url":null,"soiltest_xml_url":47,"soiltest_view_url":47},{"id":286566,"code":"NGIC201901590-0022","latitude":"35.8879","longitude":"139.63041944444","source_code":"","project_name":"2019\u5e74\u5ea6\u65b0\u5927\u5bae\u4e0a\u5c3e\u9053\u8def\u5730\u8cea\u8abf\u67fb\u305d\u306e1\u696d\u52d9\u59d4\u8a17","survey_name":"2019\u5e74\u5ea6\u65b0\u5927\u5bae\u4e0a\u5c3e\u9053\u8def\u5730\u8cea\u8abf\u67fb\u305d\u306e1\u696d\u52d9\u59d4\u8a17","client_name":"\u56fd\u571f\u4ea4\u901a\u7701\u95a2\u6771\u5730\u65b9\u6574\u5099\u5c40\u5927\u5bae\u56fd\u9053\u4e8b\u52d9\u6240","boring_xml_url":47,"boring_view_url":1,"soilmap_view_url":null,"soiltest_xml_url":47,"soiltest_view_url":47},{"id":286565,"code":"NGIC201901590-0021","latitude":"35.8879","longitude":"139.63041944444","source_code":"","project_name":"2019\u5e74\u5ea6\u65b0\u5927\u5bae\u4e0a\u5c3e\u9053\u8def\u5730\u8cea\u8abf\u67fb\u305d\u306e1\u696d\u52d9\u59d4\u8a17","survey_name":"2019\u5e74\u5ea6\u65b0\u5927\u5bae\u4e0a\u5c3e\u9053\u8def\u5730\u8cea\u8abf\u67fb\u305d\u306e1\u696d\u52d9\u59d4\u8a17","client_name":"\u56fd\u571f\u4ea4\u901a\u7701\u95a2\u6771\u5730\u65b9\u6574\u5099\u5c40\u5927\u5bae\u56fd\u9053\u4e8b\u52d9\u6240","boring_xml_url":47,"boring_view_url":1,"soilmap_view_url":null,"soiltest_xml_url":0,"soiltest_view_url":0},{"id":286564,"code":"NGIC201901590-0020","latitude":"35.906252777778","longitude":"139.59663888889","source_code":"","project_name":"2019\u5e74\u5ea6\u65b0\u5927\u5bae\u4e0a\u5c3e\u9053\u8def\u5730\u8cea\u8abf\u67fb\u305d\u306e1\u696d\u52d9\u59d4\u8a17","survey_name":"2019\u5e74\u5ea6\u65b0\u5927\u5bae\u4e0a\u5c3e\u9053\u8def\u5730\u8cea\u8abf\u67fb\u305d\u306e1\u696d\u52d9\u59d4\u8a17","client_name":"\u56fd\u571f\u4ea4\u901a\u7701\u95a2\u6771\u5730\u65b9\u6574\u5099\u5c40\u5927\u5bae\u56fd\u9053\u4e8b\u52d9\u6240","boring_xml_url":47,"boring_view_url":1,"soilmap_view_url":null,"soiltest_xml_url":47,"soiltest_view_url":47},{"id":286563,"code":"NGIC201901590-0019","latitude":"35.906252777778","longitude":"139.59663888889","source_code":"","project_name":"2019\u5e74\u5ea6\u65b0\u5927\u5bae\u4e0a\u5c3e\u9053\u8def\u5730\u8cea\u8abf\u67fb\u305d\u306e1\u696d\u52d9\u59d4\u8a17","survey_name":"2019\u5e74\u5ea6\u65b0\u5927\u5bae\u4e0a\u5c3e\u9053\u8def\u5730\u8cea\u8abf\u67fb\u305d\u306e1\u696d\u52d9\u59d4\u8a17","client_name":"\u56fd\u571f\u4ea4\u901a\u7701\u95a2\u6771\u5730\u65b9\u6574\u5099\u5c40\u5927\u5bae\u56fd\u9053\u4e8b\u52d9\u6240","boring_xml_url":47,"boring_view_url":1,"soilmap_view_url":null,"soiltest_xml_url":0,"soiltest_view_url":0},{"id":286562,"code":"NGIC201901590-0018","latitude":"35.919697222222","longitude":"139.59283888889","source_code":"","project_name":"2019\u5e74\u5ea6\u65b0\u5927\u5bae\u4e0a\u5c3e\u9053\u8def\u5730\u8cea\u8abf\u67fb\u305d\u306e1\u696d\u52d9\u59d4\u8a17","survey_name":"2019\u5e74\u5ea6\u65b0\u5927\u5bae\u4e0a\u5c3e\u9053\u8def\u5730\u8cea\u8abf\u67fb\u305d\u306e1\u696d\u52d9\u59d4\u8a17","client_name":"\u56fd\u571f\u4ea4\u901a\u7701\u95a2\u6771\u5730\u65b9\u6574\u5099\u5c40\u5927\u5bae\u56fd\u9053\u4e8b\u52d9\u6240","boring_xml_url":47,"boring_view_url":1,"soilmap_view_url":null,"soiltest_xml_url":47,"soiltest_view_url":47},{"id":286561,"code":"NGIC201901590-0017","latitude":"35.919697222222","longitude":"139.59283888889","source_code":"","project_name":"2019\u5e74\u5ea6\u65b0\u5927\u5bae\u4e0a\u5c3e\u9053\u8def\u5730\u8cea\u8abf\u67fb\u305d\u306e1\u696d\u52d9\u59d4\u8a17","survey_name":"2019\u5e74\u5ea6\u65b0\u5927\u5bae\u4e0a\u5c3e\u9053\u8def\u5730\u8cea\u8abf\u67fb\u305d\u306e1\u696d\u52d9\u59d4\u8a17","client_name":"\u56fd\u571f\u4ea4\u901a\u7701\u95a2\u6771\u5730\u65b9\u6574\u5099\u5c40\u5927\u5bae\u56fd\u9053\u4e8b\u52d9\u6240","boring_xml_url":47,"boring_view_url":1,"soilmap_view_url":null,"soiltest_xml_url":0,"soiltest_view_url":0},{"id":286560,"code":"NGIC201901590-0016","latitude":"35.92035","longitude":"139.59296666667","source_code":"","project_name":"2019\u5e74\u5ea6\u65b0\u5927\u5bae\u4e0a\u5c3e\u9053\u8def\u5730\u8cea\u8abf\u67fb\u305d\u306e1\u696d\u52d9\u59d4\u8a17","survey_name":"2019\u5e74\u5ea6\u65b0\u5927\u5bae\u4e0a\u5c3e\u9053\u8def\u5730\u8cea\u8abf\u67fb\u305d\u306e1\u696d\u52d9\u59d4\u8a17","client_name":"\u56fd\u571f\u4ea4\u901a\u7701\u95a2\u6771\u5730\u65b9\u6574\u5099\u5c40\u5927\u5bae\u56fd\u9053\u4e8b\u52d9\u6240","boring_xml_url":47,"boring_view_url":1,"soilmap_view_url":null,"soiltest_xml_url":0,"soiltest_view_url":0},{"id":286559,"code":"NGIC201901590-0015","latitude":"35.919916666667","longitude":"139.59299722222","source_code":"","project_name":"2019\u5e74\u5ea6\u65b0\u5927\u5bae\u4e0a\u5c3e\u9053\u8def\u5730\u8cea\u8abf\u67fb\u305d\u306e1\u696d\u52d9\u59d4\u8a17","survey_name":"2019\u5e74\u5ea6\u65b0\u5927\u5bae\u4e0a\u5c3e\u9053\u8def\u5730\u8cea\u8abf\u67fb\u305d\u306e1\u696d\u52d9\u59d4\u8a17","client_name":"\u56fd\u571f\u4ea4\u901a\u7701\u95a2\u6771\u5730\u65b9\u6574\u5099\u5c40\u5927\u5bae\u56fd\u9053\u4e8b\u52d9\u6240","boring_xml_url":47,"boring_view_url":1,"soilmap_view_url":null,"soiltest_xml_url":0,"soiltest_view_url":0},{"id":286558,"code":"NGIC201901590-0014","latitude":"35.919541666667","longitude":"139.59300833333","source_code":"","project_name":"2019\u5e74\u5ea6\u65b0\u5927\u5bae\u4e0a\u5c3e\u9053\u8def\u5730\u8cea\u8abf\u67fb\u305d\u306e1\u696d\u52d9\u59d4\u8a17","survey_name":"2019\u5e74\u5ea6\u65b0\u5927\u5bae\u4e0a\u5c3e\u9053\u8def\u5730\u8cea\u8abf\u67fb\u305d\u306e1\u696d\u52d9\u59d4\u8a17","client_name":"\u56fd\u571f\u4ea4\u901a\u7701\u95a2\u6771\u5730\u65b9\u6574\u5099\u5c40\u5927\u5bae\u56fd\u9053\u4e8b\u52d9\u6240","boring_xml_url":47,"boring_view_url":1,"soilmap_view_url":null,"soiltest_xml_url":0,"soiltest_view_url":0},{"id":286557,"code":"NGIC201901590-0013","latitude":"35.919138888889","longitude":"139.59287777778","source_code":"","project_name":"2019\u5e74\u5ea6\u65b0\u5927\u5bae\u4e0a\u5c3e\u9053\u8def\u5730\u8cea\u8abf\u67fb\u305d\u306e1\u696d\u52d9\u59d4\u8a17","survey_name":"2019\u5e74\u5ea6\u65b0\u5927\u5bae\u4e0a\u5c3e\u9053\u8def\u5730\u8cea\u8abf\u67fb\u305d\u306e1\u696d\u52d9\u59d4\u8a17","client_name":"\u56fd\u571f\u4ea4\u901a\u7701\u95a2\u6771\u5730\u65b9\u6574\u5099\u5c40\u5927\u5bae\u56fd\u9053\u4e8b\u52d9\u6240","boring_xml_url":47,"boring_view_url":1,"soilmap_view_url":null,"soiltest_xml_url":47,"soiltest_view_url":47},{"id":286556,"code":"NGIC201901590-0012","latitude":"35.919138888889","longitude":"139.59287777778","source_code":"","project_name":"2019\u5e74\u5ea6\u65b0\u5927\u5bae\u4e0a\u5c3e\u9053\u8def\u5730\u8cea\u8abf\u67fb\u305d\u306e1\u696d\u52d9\u59d4\u8a17","survey_name":"2019\u5e74\u5ea6\u65b0\u5927\u5bae\u4e0a\u5c3e\u9053\u8def\u5730\u8cea\u8abf\u67fb\u305d\u306e1\u696d\u52d9\u59d4\u8a17","client_name":"\u56fd\u571f\u4ea4\u901a\u7701\u95a2\u6771\u5730\u65b9\u6574\u5099\u5c40\u5927\u5bae\u56fd\u9053\u4e8b\u52d9\u6240","boring_xml_url":47,"boring_view_url":1,"soilmap_view_url":null,"soiltest_xml_url":47,"soiltest_view_url":47},{"id":286555,"code":"NGIC201901590-0011","latitude":"35.918663888889","longitude":"139.59287222222","source_code":"","project_name":"2019\u5e74\u5ea6\u65b0\u5927\u5bae\u4e0a\u5c3e\u9053\u8def\u5730\u8cea\u8abf\u67fb\u305d\u306e1\u696d\u52d9\u59d4\u8a17","survey_name":"2019\u5e74\u5ea6\u65b0\u5927\u5bae\u4e0a\u5c3e\u9053\u8def\u5730\u8cea\u8abf\u67fb\u305d\u306e1\u696d\u52d9\u59d4\u8a17","client_name":"\u56fd\u571f\u4ea4\u901a\u7701\u95a2\u6771\u5730\u65b9\u6574\u5099\u5c40\u5927\u5bae\u56fd\u9053\u4e8b\u52d9\u6240","boring_xml_url":47,"boring_view_url":1,"soilmap_view_url":null,"soiltest_xml_url":0,"soiltest_view_url":0},{"id":286554,"code":"NGIC201901590-0010","latitude":"35.918138888889","longitude":"139.592925","source_code":"","project_name":"2019\u5e74\u5ea6\u65b0\u5927\u5bae\u4e0a\u5c3e\u9053\u8def\u5730\u8cea\u8abf\u67fb\u305d\u306e1\u696d\u52d9\u59d4\u8a17","survey_name":"2019\u5e74\u5ea6\u65b0\u5927\u5bae\u4e0a\u5c3e\u9053\u8def\u5730\u8cea\u8abf\u67fb\u305d\u306e1\u696d\u52d9\u59d4\u8a17","client_name":"\u56fd\u571f\u4ea4\u901a\u7701\u95a2\u6771\u5730\u65b9\u6574\u5099\u5c40\u5927\u5bae\u56fd\u9053\u4e8b\u52d9\u6240","boring_xml_url":47,"boring_view_url":1,"soilmap_view_url":null,"soiltest_xml_url":0,"soiltest_view_url":0},{"id":286553,"code":"NGIC201901590-0009","latitude":"35.917658333333","longitude":"139.59295833333","source_code":"","project_name":"2019\u5e74\u5ea6\u65b0\u5927\u5bae\u4e0a\u5c3e\u9053\u8def\u5730\u8cea\u8abf\u67fb\u305d\u306e1\u696d\u52d9\u59d4\u8a17","survey_name":"2019\u5e74\u5ea6\u65b0\u5927\u5bae\u4e0a\u5c3e\u9053\u8def\u5730\u8cea\u8abf\u67fb\u305d\u306e1\u696d\u52d9\u59d4\u8a17","client_name":"\u56fd\u571f\u4ea4\u901a\u7701\u95a2\u6771\u5730\u65b9\u6574\u5099\u5c40\u5927\u5bae\u56fd\u9053\u4e8b\u52d9\u6240","boring_xml_url":47,"boring_view_url":1,"soilmap_view_url":null,"soiltest_xml_url":0,"soiltest_view_url":0},{"id":286552,"code":"NGIC201901590-0008","latitude":"35.917116666667","longitude":"139.593225","source_code":"","project_name":"2019\u5e74\u5ea6\u65b0\u5927\u5bae\u4e0a\u5c3e\u9053\u8def\u5730\u8cea\u8abf\u67fb\u305d\u306e1\u696d\u52d9\u59d4\u8a17","survey_name":"2019\u5e74\u5ea6\u65b0\u5927\u5bae\u4e0a\u5c3e\u9053\u8def\u5730\u8cea\u8abf\u67fb\u305d\u306e1\u696d\u52d9\u59d4\u8a17","client_name":"\u56fd\u571f\u4ea4\u901a\u7701\u95a2\u6771\u5730\u65b9\u6574\u5099\u5c40\u5927\u5bae\u56fd\u9053\u4e8b\u52d9\u6240","boring_xml_url":47,"boring_view_url":1,"soilmap_view_url":null,"soiltest_xml_url":47,"soiltest_view_url":47},{"id":286551,"code":"NGIC201901590-0007","latitude":"35.917116666667","longitude":"139.593225","source_code":"","project_name":"2019\u5e74\u5ea6\u65b0\u5927\u5bae\u4e0a\u5c3e\u9053\u8def\u5730\u8cea\u8abf\u67fb\u305d\u306e1\u696d\u52d9\u59d4\u8a17","survey_name":"2019\u5e74\u5ea6\u65b0\u5927\u5bae\u4e0a\u5c3e\u9053\u8def\u5730\u8cea\u8abf\u67fb\u305d\u306e1\u696d\u52d9\u59d4\u8a17","client_name":"\u56fd\u571f\u4ea4\u901a\u7701\u95a2\u6771\u5730\u65b9\u6574\u5099\u5c40\u5927\u5bae\u56fd\u9053\u4e8b\u52d9\u6240","boring_xml_url":47,"boring_view_url":1,"soilmap_view_url":null,"soiltest_xml_url":47,"soiltest_view_url":47},{"id":286550,"code":"NGIC201901590-0006","latitude":"35.916722222222","longitude":"139.59322777778","source_code":"","project_name":"2019\u5e74\u5ea6\u65b0\u5927\u5bae\u4e0a\u5c3e\u9053\u8def\u5730\u8cea\u8abf\u67fb\u305d\u306e1\u696d\u52d9\u59d4\u8a17","survey_name":"2019\u5e74\u5ea6\u65b0\u5927\u5bae\u4e0a\u5c3e\u9053\u8def\u5730\u8cea\u8abf\u67fb\u305d\u306e1\u696d\u52d9\u59d4\u8a17","client_name":"\u56fd\u571f\u4ea4\u901a\u7701\u95a2\u6771\u5730\u65b9\u6574\u5099\u5c40\u5927\u5bae\u56fd\u9053\u4e8b\u52d9\u6240","boring_xml_url":47,"boring_view_url":1,"soilmap_view_url":null,"soiltest_xml_url":0,"soiltest_view_url":0},{"id":286549,"code":"NGIC201901590-0005","latitude":"35.916238888889","longitude":"139.59326388889","source_code":"","project_name":"2019\u5e74\u5ea6\u65b0\u5927\u5bae\u4e0a\u5c3e\u9053\u8def\u5730\u8cea\u8abf\u67fb\u305d\u306e1\u696d\u52d9\u59d4\u8a17","survey_name":"2019\u5e74\u5ea6\u65b0\u5927\u5bae\u4e0a\u5c3e\u9053\u8def\u5730\u8cea\u8abf\u67fb\u305d\u306e1\u696d\u52d9\u59d4\u8a17","client_name":"\u56fd\u571f\u4ea4\u901a\u7701\u95a2\u6771\u5730\u65b9\u6574\u5099\u5c40\u5927\u5bae\u56fd\u9053\u4e8b\u52d9\u6240","boring_xml_url":47,"boring_view_url":1,"soilmap_view_url":null,"soiltest_xml_url":0,"soiltest_view_url":0}]}}