{"header":{"xyz":{"source":[],"mosaic":false},"page":2244,"raw":{"soiltest_result":"0","bbox":"57.598333,109.544722,1.933333,163.806111","page":"2244"},"conditions":{"soiltest_result":0,"north":57.598333,"west":109.544722,"south":1.933333,"east":163.806111},"success":true,"message":""},"data":{"meta":{"total":212844,"page":2244,"pages":7095,"count":30},"values":[{"id":285966,"code":"NGIC201901498-0001","latitude":"34.218971277778","longitude":"134.03055077778","source_code":"","project_name":"","survey_name":"\u9ad8\u677e\u7a7a\u6e2f\u5834\u5916\u571f\u8cea\u8abf\u67fb","client_name":"\u56fd\u571f\u4ea4\u901a\u7701\u56db\u56fd\u5730\u65b9\u6574\u5099\u5c40\u9ad8\u677e\u6e2f\u6e7e\u30fb\u7a7a\u6e2f\u6574\u5099\u4e8b\u52d9\u6240","boring_xml_url":47,"boring_view_url":1,"soilmap_view_url":71,"soiltest_xml_url":47,"soiltest_view_url":47},{"id":285962,"code":"NGIC201901523-0014","latitude":"36.023281027778","longitude":"139.37133058333","source_code":"","project_name":"","survey_name":"R1\u8352\u5ddd\u8abf\u7bc0\u6c60\u5730\u8cea\u8abf\u67fb(\u305d\u306e2)\u696d\u52d9","client_name":"\u56fd\u571f\u4ea4\u901a\u7701\u95a2\u6771\u5730\u65b9\u6574\u5099\u5c40\u8352\u5ddd\u4e0a\u6d41\u6cb3\u5ddd\u4e8b\u52d9\u6240","boring_xml_url":47,"boring_view_url":1,"soilmap_view_url":null,"soiltest_xml_url":47,"soiltest_view_url":47},{"id":285961,"code":"NGIC201901523-0013","latitude":"36.023399722222","longitude":"139.37113722222","source_code":"","project_name":"","survey_name":"R1\u8352\u5ddd\u8abf\u7bc0\u6c60\u5730\u8cea\u8abf\u67fb(\u305d\u306e2)\u696d\u52d9","client_name":"\u56fd\u571f\u4ea4\u901a\u7701\u95a2\u6771\u5730\u65b9\u6574\u5099\u5c40\u8352\u5ddd\u4e0a\u6d41\u6cb3\u5ddd\u4e8b\u52d9\u6240","boring_xml_url":47,"boring_view_url":1,"soilmap_view_url":null,"soiltest_xml_url":47,"soiltest_view_url":47},{"id":285960,"code":"NGIC201901523-0012","latitude":"36.023600916667","longitude":"139.37115191667","source_code":"","project_name":"","survey_name":"R1\u8352\u5ddd\u8abf\u7bc0\u6c60\u5730\u8cea\u8abf\u67fb(\u305d\u306e2)\u696d\u52d9","client_name":"\u56fd\u571f\u4ea4\u901a\u7701\u95a2\u6771\u5730\u65b9\u6574\u5099\u5c40\u8352\u5ddd\u4e0a\u6d41\u6cb3\u5ddd\u4e8b\u52d9\u6240","boring_xml_url":47,"boring_view_url":1,"soilmap_view_url":null,"soiltest_xml_url":0,"soiltest_view_url":0},{"id":285959,"code":"NGIC201901523-0011","latitude":"36.019617861111","longitude":"139.37679877778","source_code":"","project_name":"","survey_name":"R1\u8352\u5ddd\u8abf\u7bc0\u6c60\u5730\u8cea\u8abf\u67fb(\u305d\u306e2)\u696d\u52d9","client_name":"\u56fd\u571f\u4ea4\u901a\u7701\u95a2\u6771\u5730\u65b9\u6574\u5099\u5c40\u8352\u5ddd\u4e0a\u6d41\u6cb3\u5ddd\u4e8b\u52d9\u6240","boring_xml_url":47,"boring_view_url":1,"soilmap_view_url":null,"soiltest_xml_url":0,"soiltest_view_url":0},{"id":285958,"code":"NGIC201901523-0010","latitude":"36.019737972222","longitude":"139.37669119444","source_code":"","project_name":"","survey_name":"R1\u8352\u5ddd\u8abf\u7bc0\u6c60\u5730\u8cea\u8abf\u67fb(\u305d\u306e2)\u696d\u52d9","client_name":"\u56fd\u571f\u4ea4\u901a\u7701\u95a2\u6771\u5730\u65b9\u6574\u5099\u5c40\u8352\u5ddd\u4e0a\u6d41\u6cb3\u5ddd\u4e8b\u52d9\u6240","boring_xml_url":47,"boring_view_url":1,"soilmap_view_url":null,"soiltest_xml_url":0,"soiltest_view_url":0},{"id":285957,"code":"NGIC201901523-0009","latitude":"36.0197005","longitude":"139.37637261111","source_code":"","project_name":"","survey_name":"R1\u8352\u5ddd\u8abf\u7bc0\u6c60\u5730\u8cea\u8abf\u67fb(\u305d\u306e2)\u696d\u52d9","client_name":"\u56fd\u571f\u4ea4\u901a\u7701\u95a2\u6771\u5730\u65b9\u6574\u5099\u5c40\u8352\u5ddd\u4e0a\u6d41\u6cb3\u5ddd\u4e8b\u52d9\u6240","boring_xml_url":47,"boring_view_url":1,"soilmap_view_url":null,"soiltest_xml_url":0,"soiltest_view_url":0},{"id":285956,"code":"NGIC201901523-0008","latitude":"35.9979435","longitude":"139.42238469444","source_code":"","project_name":"","survey_name":"R1\u8352\u5ddd\u8abf\u7bc0\u6c60\u5730\u8cea\u8abf\u67fb(\u305d\u306e2)\u696d\u52d9","client_name":"\u56fd\u571f\u4ea4\u901a\u7701\u95a2\u6771\u5730\u65b9\u6574\u5099\u5c40\u8352\u5ddd\u4e0a\u6d41\u6cb3\u5ddd\u4e8b\u52d9\u6240","boring_xml_url":47,"boring_view_url":1,"soilmap_view_url":null,"soiltest_xml_url":47,"soiltest_view_url":47},{"id":285955,"code":"NGIC201901523-0007","latitude":"35.9984495","longitude":"139.42231441667","source_code":"","project_name":"","survey_name":"R1\u8352\u5ddd\u8abf\u7bc0\u6c60\u5730\u8cea\u8abf\u67fb(\u305d\u306e2)\u696d\u52d9","client_name":"\u56fd\u571f\u4ea4\u901a\u7701\u95a2\u6771\u5730\u65b9\u6574\u5099\u5c40\u8352\u5ddd\u4e0a\u6d41\u6cb3\u5ddd\u4e8b\u52d9\u6240","boring_xml_url":47,"boring_view_url":1,"soilmap_view_url":null,"soiltest_xml_url":47,"soiltest_view_url":47},{"id":285954,"code":"NGIC201901523-0006","latitude":"35.999179305556","longitude":"139.42265447222","source_code":"","project_name":"","survey_name":"R1\u8352\u5ddd\u8abf\u7bc0\u6c60\u5730\u8cea\u8abf\u67fb(\u305d\u306e2)\u696d\u52d9","client_name":"\u56fd\u571f\u4ea4\u901a\u7701\u95a2\u6771\u5730\u65b9\u6574\u5099\u5c40\u8352\u5ddd\u4e0a\u6d41\u6cb3\u5ddd\u4e8b\u52d9\u6240","boring_xml_url":47,"boring_view_url":1,"soilmap_view_url":null,"soiltest_xml_url":47,"soiltest_view_url":47},{"id":285953,"code":"NGIC201901523-0005","latitude":"35.99465225","longitude":"139.41712236111","source_code":"","project_name":"","survey_name":"R1\u8352\u5ddd\u8abf\u7bc0\u6c60\u5730\u8cea\u8abf\u67fb(\u305d\u306e2)\u696d\u52d9","client_name":"\u56fd\u571f\u4ea4\u901a\u7701\u95a2\u6771\u5730\u65b9\u6574\u5099\u5c40\u8352\u5ddd\u4e0a\u6d41\u6cb3\u5ddd\u4e8b\u52d9\u6240","boring_xml_url":47,"boring_view_url":1,"soilmap_view_url":null,"soiltest_xml_url":47,"soiltest_view_url":47},{"id":285952,"code":"NGIC201901523-0004","latitude":"35.994715694444","longitude":"139.41687247222","source_code":"","project_name":"","survey_name":"R1\u8352\u5ddd\u8abf\u7bc0\u6c60\u5730\u8cea\u8abf\u67fb(\u305d\u306e2)\u696d\u52d9","client_name":"\u56fd\u571f\u4ea4\u901a\u7701\u95a2\u6771\u5730\u65b9\u6574\u5099\u5c40\u8352\u5ddd\u4e0a\u6d41\u6cb3\u5ddd\u4e8b\u52d9\u6240","boring_xml_url":47,"boring_view_url":1,"soilmap_view_url":null,"soiltest_xml_url":47,"soiltest_view_url":47},{"id":285951,"code":"NGIC201901523-0003","latitude":"35.959126138889","longitude":"139.46865702778","source_code":"","project_name":"","survey_name":"R1\u8352\u5ddd\u8abf\u7bc0\u6c60\u5730\u8cea\u8abf\u67fb(\u305d\u306e2)\u696d\u52d9","client_name":"\u56fd\u571f\u4ea4\u901a\u7701\u95a2\u6771\u5730\u65b9\u6574\u5099\u5c40\u8352\u5ddd\u4e0a\u6d41\u6cb3\u5ddd\u4e8b\u52d9\u6240","boring_xml_url":47,"boring_view_url":1,"soilmap_view_url":null,"soiltest_xml_url":47,"soiltest_view_url":47},{"id":285950,"code":"NGIC201901523-0002","latitude":"35.959236222222","longitude":"139.46818091667","source_code":"","project_name":"","survey_name":"R1\u8352\u5ddd\u8abf\u7bc0\u6c60\u5730\u8cea\u8abf\u67fb(\u305d\u306e2)\u696d\u52d9","client_name":"\u56fd\u571f\u4ea4\u901a\u7701\u95a2\u6771\u5730\u65b9\u6574\u5099\u5c40\u8352\u5ddd\u4e0a\u6d41\u6cb3\u5ddd\u4e8b\u52d9\u6240","boring_xml_url":47,"boring_view_url":1,"soilmap_view_url":null,"soiltest_xml_url":47,"soiltest_view_url":47},{"id":285949,"code":"NGIC201901523-0001","latitude":"35.959193777778","longitude":"139.46722436111","source_code":"","project_name":"","survey_name":"R1\u8352\u5ddd\u8abf\u7bc0\u6c60\u5730\u8cea\u8abf\u67fb(\u305d\u306e2)\u696d\u52d9","client_name":"\u56fd\u571f\u4ea4\u901a\u7701\u95a2\u6771\u5730\u65b9\u6574\u5099\u5c40\u8352\u5ddd\u4e0a\u6d41\u6cb3\u5ddd\u4e8b\u52d9\u6240","boring_xml_url":47,"boring_view_url":1,"soilmap_view_url":null,"soiltest_xml_url":47,"soiltest_view_url":47},{"id":285945,"code":"NGIC201901492-0008","latitude":"34.5932925","longitude":"135.491485","source_code":"","project_name":"","survey_name":"\u9060\u91cc\u5c0f\u91ce\u6771\u5730\u533a\u571f\u58cc\u8abf\u67fb\u696d\u52d9","client_name":"\u56fd\u571f\u4ea4\u901a\u7701\u8fd1\u757f\u5730\u65b9\u6574\u5099\u5c40\u5927\u548c\u5ddd\u6cb3\u5ddd\u56fd\u9053\u4e8b\u52d9\u6240","boring_xml_url":47,"boring_view_url":1,"soilmap_view_url":null,"soiltest_xml_url":0,"soiltest_view_url":0},{"id":285944,"code":"NGIC201901492-0007","latitude":"34.5936325","longitude":"135.49158916667","source_code":"","project_name":"","survey_name":"\u9060\u91cc\u5c0f\u91ce\u6771\u5730\u533a\u571f\u58cc\u8abf\u67fb\u696d\u52d9","client_name":"\u56fd\u571f\u4ea4\u901a\u7701\u8fd1\u757f\u5730\u65b9\u6574\u5099\u5c40\u5927\u548c\u5ddd\u6cb3\u5ddd\u56fd\u9053\u4e8b\u52d9\u6240","boring_xml_url":47,"boring_view_url":1,"soilmap_view_url":null,"soiltest_xml_url":0,"soiltest_view_url":0},{"id":285943,"code":"NGIC201901492-0006","latitude":"34.593683333333","longitude":"135.49085833333","source_code":"","project_name":"","survey_name":"\u9060\u91cc\u5c0f\u91ce\u6771\u5730\u533a\u571f\u58cc\u8abf\u67fb\u696d\u52d9","client_name":"\u56fd\u571f\u4ea4\u901a\u7701\u8fd1\u757f\u5730\u65b9\u6574\u5099\u5c40\u5927\u548c\u5ddd\u6cb3\u5ddd\u56fd\u9053\u4e8b\u52d9\u6240","boring_xml_url":47,"boring_view_url":1,"soilmap_view_url":null,"soiltest_xml_url":0,"soiltest_view_url":0},{"id":285942,"code":"NGIC201901492-0005","latitude":"34.593704166667","longitude":"135.49075222222","source_code":"","project_name":"","survey_name":"\u9060\u91cc\u5c0f\u91ce\u6771\u5730\u533a\u571f\u58cc\u8abf\u67fb\u696d\u52d9","client_name":"\u56fd\u571f\u4ea4\u901a\u7701\u8fd1\u757f\u5730\u65b9\u6574\u5099\u5c40\u5927\u548c\u5ddd\u6cb3\u5ddd\u56fd\u9053\u4e8b\u52d9\u6240","boring_xml_url":47,"boring_view_url":1,"soilmap_view_url":null,"soiltest_xml_url":0,"soiltest_view_url":0},{"id":285941,"code":"NGIC201901492-0004","latitude":"34.593725277778","longitude":"135.49064472222","source_code":"","project_name":"","survey_name":"\u9060\u91cc\u5c0f\u91ce\u6771\u5730\u533a\u571f\u58cc\u8abf\u67fb\u696d\u52d9","client_name":"\u56fd\u571f\u4ea4\u901a\u7701\u8fd1\u757f\u5730\u65b9\u6574\u5099\u5c40\u5927\u548c\u5ddd\u6cb3\u5ddd\u56fd\u9053\u4e8b\u52d9\u6240","boring_xml_url":47,"boring_view_url":1,"soilmap_view_url":null,"soiltest_xml_url":0,"soiltest_view_url":0},{"id":285940,"code":"NGIC201901492-0003","latitude":"34.593771111111","longitude":"135.49088888889","source_code":"","project_name":"","survey_name":"\u9060\u91cc\u5c0f\u91ce\u6771\u5730\u533a\u571f\u58cc\u8abf\u67fb\u696d\u52d9","client_name":"\u56fd\u571f\u4ea4\u901a\u7701\u8fd1\u757f\u5730\u65b9\u6574\u5099\u5c40\u5927\u548c\u5ddd\u6cb3\u5ddd\u56fd\u9053\u4e8b\u52d9\u6240","boring_xml_url":47,"boring_view_url":1,"soilmap_view_url":null,"soiltest_xml_url":0,"soiltest_view_url":0},{"id":285939,"code":"NGIC201901492-0002","latitude":"34.593791944444","longitude":"135.49077722222","source_code":"","project_name":"","survey_name":"\u9060\u91cc\u5c0f\u91ce\u6771\u5730\u533a\u571f\u58cc\u8abf\u67fb\u696d\u52d9","client_name":"\u56fd\u571f\u4ea4\u901a\u7701\u8fd1\u757f\u5730\u65b9\u6574\u5099\u5c40\u5927\u548c\u5ddd\u6cb3\u5ddd\u56fd\u9053\u4e8b\u52d9\u6240","boring_xml_url":47,"boring_view_url":1,"soilmap_view_url":null,"soiltest_xml_url":0,"soiltest_view_url":0},{"id":285938,"code":"NGIC201901492-0001","latitude":"34.593812777778","longitude":"135.49067","source_code":"","project_name":"","survey_name":"\u9060\u91cc\u5c0f\u91ce\u6771\u5730\u533a\u571f\u58cc\u8abf\u67fb\u696d\u52d9","client_name":"\u56fd\u571f\u4ea4\u901a\u7701\u8fd1\u757f\u5730\u65b9\u6574\u5099\u5c40\u5927\u548c\u5ddd\u6cb3\u5ddd\u56fd\u9053\u4e8b\u52d9\u6240","boring_xml_url":47,"boring_view_url":1,"soilmap_view_url":null,"soiltest_xml_url":0,"soiltest_view_url":0},{"id":285937,"code":"NGIC201901512-0001","latitude":"35.943156222222","longitude":"138.88606791667","source_code":"","project_name":"","survey_name":"H31\u4e8c\u702c\u30c0\u30e0\u5730\u3059\u3079\u308a\u89b3\u6e2c\u8a55\u4fa1\u696d\u52d9","client_name":"\u56fd\u571f\u4ea4\u901a\u7701\u95a2\u6771\u5730\u65b9\u6574\u5099\u5c40\u4e8c\u702c\u30c0\u30e0\u7ba1\u7406\u6240","boring_xml_url":47,"boring_view_url":1,"soilmap_view_url":null,"soiltest_xml_url":0,"soiltest_view_url":0},{"id":285931,"code":"NGIC201901484-0001","latitude":"42.7587355","longitude":"143.01282561111","source_code":"","project_name":"\u5e73\u621031\u5e74\u5ea6\u65bd\u884c \u82bd\u5ba4\u5ddd\u897f\u5730\u533a \u516b\u5343\u4ee3\u9001\u6c34\u5e79\u7dda\u7528\u6c34\u8def26\u53f7\u5de5\u533a\u5b9f\u65bd\u8a2d\u8a08\u7b49\u696d\u52d9","survey_name":"\u5e73\u621031\u5e74\u5ea6\u65bd\u884c \u82bd\u5ba4\u5ddd\u897f\u5730\u533a \u516b\u5343\u4ee3\u9001\u6c34\u5e79\u7dda\u7528\u6c34\u8def26\u53f7\u5de5\u533a\u5b9f\u65bd\u8a2d\u8a08\u7b49\u696d\u52d9","client_name":"\u56fd\u571f\u4ea4\u901a\u7701\u5317\u6d77\u9053\u958b\u767a\u5c40\u5e2f\u5e83\u958b\u767a\u5efa\u8a2d\u90e8\u3000\u5e2f\u5e83\u8fb2\u696d\u4e8b\u52d9\u6240","boring_xml_url":47,"boring_view_url":1,"soilmap_view_url":null,"soiltest_xml_url":47,"soiltest_view_url":47},{"id":285927,"code":"NGIC201901489-0005","latitude":"33.874437611111","longitude":"135.71851611111","source_code":"","project_name":"","survey_name":"\u4e09\u8d8a\u5ddd\u6d41\u57df\u7802\u9632\u5830\u5824\u8a2d\u8a08\u4ed6\u696d\u52d9","client_name":"\u56fd\u571f\u4ea4\u901a\u7701\u8fd1\u757f\u5730\u65b9\u6574\u5099\u5c40\u7d00\u4f0a\u5c71\u7cfb\u7802\u9632\u4e8b\u52d9\u6240","boring_xml_url":47,"boring_view_url":1,"soilmap_view_url":null,"soiltest_xml_url":0,"soiltest_view_url":0},{"id":285926,"code":"NGIC201901489-0004","latitude":"33.874709916667","longitude":"135.71853069444","source_code":"","project_name":"","survey_name":"\u4e09\u8d8a\u5ddd\u6d41\u57df\u7802\u9632\u5830\u5824\u8a2d\u8a08\u4ed6\u696d\u52d9","client_name":"\u56fd\u571f\u4ea4\u901a\u7701\u8fd1\u757f\u5730\u65b9\u6574\u5099\u5c40\u7d00\u4f0a\u5c71\u7cfb\u7802\u9632\u4e8b\u52d9\u6240","boring_xml_url":47,"boring_view_url":1,"soilmap_view_url":null,"soiltest_xml_url":0,"soiltest_view_url":0},{"id":285925,"code":"NGIC201901489-0003","latitude":"33.874629472222","longitude":"135.71837427778","source_code":"","project_name":"","survey_name":"\u4e09\u8d8a\u5ddd\u6d41\u57df\u7802\u9632\u5830\u5824\u8a2d\u8a08\u4ed6\u696d\u52d9","client_name":"\u56fd\u571f\u4ea4\u901a\u7701\u8fd1\u757f\u5730\u65b9\u6574\u5099\u5c40\u7d00\u4f0a\u5c71\u7cfb\u7802\u9632\u4e8b\u52d9\u6240","boring_xml_url":47,"boring_view_url":1,"soilmap_view_url":null,"soiltest_xml_url":0,"soiltest_view_url":0},{"id":285924,"code":"NGIC201901489-0002","latitude":"33.874544305556","longitude":"135.71820866667","source_code":"","project_name":"","survey_name":"\u4e09\u8d8a\u5ddd\u6d41\u57df\u7802\u9632\u5830\u5824\u8a2d\u8a08\u4ed6\u696d\u52d9","client_name":"\u56fd\u571f\u4ea4\u901a\u7701\u8fd1\u757f\u5730\u65b9\u6574\u5099\u5c40\u7d00\u4f0a\u5c71\u7cfb\u7802\u9632\u4e8b\u52d9\u6240","boring_xml_url":47,"boring_view_url":1,"soilmap_view_url":null,"soiltest_xml_url":0,"soiltest_view_url":0},{"id":285923,"code":"NGIC201901489-0001","latitude":"33.865827861111","longitude":"135.75891663889","source_code":"","project_name":"","survey_name":"\u4e09\u8d8a\u5ddd\u6d41\u57df\u7802\u9632\u5830\u5824\u8a2d\u8a08\u4ed6\u696d\u52d9","client_name":"\u56fd\u571f\u4ea4\u901a\u7701\u8fd1\u757f\u5730\u65b9\u6574\u5099\u5c40\u7d00\u4f0a\u5c71\u7cfb\u7802\u9632\u4e8b\u52d9\u6240","boring_xml_url":47,"boring_view_url":1,"soilmap_view_url":null,"soiltest_xml_url":0,"soiltest_view_url":0}]}}