{"header":{"xyz":{"source":[],"mosaic":false},"page":2248,"raw":{"soiltest_result":"0","bbox":"57.598333,109.544722,1.933333,163.806111","page":"2248"},"conditions":{"soiltest_result":0,"north":57.598333,"west":109.544722,"south":1.933333,"east":163.806111},"success":true,"message":""},"data":{"meta":{"total":212844,"page":2248,"pages":7095,"count":30},"values":[{"id":285756,"code":"NGIC201901470-0006","latitude":"34.171120638889","longitude":"132.20004822222","source_code":"","project_name":"\u5ca9\u56fd\u5927\u7af9\u9053\u8def","survey_name":"\u5ca9\u56fd\u5730\u533a\u8a2d\u8a08\u4ed6\u696d\u52d9","client_name":"\u56fd\u571f\u4ea4\u901a\u7701\u4e2d\u56fd\u5730\u65b9\u6574\u5099\u5c40\u5c71\u53e3\u6cb3\u5ddd\u56fd\u9053\u4e8b\u52d9\u6240","boring_xml_url":47,"boring_view_url":1,"soilmap_view_url":null,"soiltest_xml_url":0,"soiltest_view_url":0},{"id":285755,"code":"NGIC201901470-0005","latitude":"34.171239972222","longitude":"132.20022663889","source_code":"","project_name":"\u5ca9\u56fd\u5927\u7af9\u9053\u8def","survey_name":"\u5ca9\u56fd\u5730\u533a\u8a2d\u8a08\u4ed6\u696d\u52d9","client_name":"\u56fd\u571f\u4ea4\u901a\u7701\u4e2d\u56fd\u5730\u65b9\u6574\u5099\u5c40\u5c71\u53e3\u6cb3\u5ddd\u56fd\u9053\u4e8b\u52d9\u6240","boring_xml_url":47,"boring_view_url":1,"soilmap_view_url":null,"soiltest_xml_url":0,"soiltest_view_url":0},{"id":285754,"code":"NGIC201901470-0004","latitude":"34.171565388889","longitude":"132.20016563889","source_code":"","project_name":"\u5ca9\u56fd\u5927\u7af9\u9053\u8def","survey_name":"\u5ca9\u56fd\u5730\u533a\u8a2d\u8a08\u4ed6\u696d\u52d9","client_name":"\u56fd\u571f\u4ea4\u901a\u7701\u4e2d\u56fd\u5730\u65b9\u6574\u5099\u5c40\u5c71\u53e3\u6cb3\u5ddd\u56fd\u9053\u4e8b\u52d9\u6240","boring_xml_url":47,"boring_view_url":1,"soilmap_view_url":null,"soiltest_xml_url":0,"soiltest_view_url":0},{"id":285753,"code":"NGIC201901470-0003","latitude":"34.204113305556","longitude":"132.20387883333","source_code":"","project_name":"\u5ca9\u56fd\u5927\u7af9\u9053\u8def","survey_name":"\u5ca9\u56fd\u5730\u533a\u8a2d\u8a08\u4ed6\u696d\u52d9","client_name":"\u56fd\u571f\u4ea4\u901a\u7701\u4e2d\u56fd\u5730\u65b9\u6574\u5099\u5c40\u5c71\u53e3\u6cb3\u5ddd\u56fd\u9053\u4e8b\u52d9\u6240","boring_xml_url":47,"boring_view_url":1,"soilmap_view_url":null,"soiltest_xml_url":0,"soiltest_view_url":0},{"id":285752,"code":"NGIC201901470-0002","latitude":"34.203836083333","longitude":"132.20401141667","source_code":"","project_name":"\u5ca9\u56fd\u5927\u7af9\u9053\u8def","survey_name":"\u5ca9\u56fd\u5730\u533a\u8a2d\u8a08\u4ed6\u696d\u52d9","client_name":"\u56fd\u571f\u4ea4\u901a\u7701\u4e2d\u56fd\u5730\u65b9\u6574\u5099\u5c40\u5c71\u53e3\u6cb3\u5ddd\u56fd\u9053\u4e8b\u52d9\u6240","boring_xml_url":47,"boring_view_url":1,"soilmap_view_url":null,"soiltest_xml_url":0,"soiltest_view_url":0},{"id":285751,"code":"NGIC201901470-0001","latitude":"34.20363825","longitude":"132.20369625","source_code":"","project_name":"\u5ca9\u56fd\u5927\u7af9\u9053\u8def","survey_name":"\u5ca9\u56fd\u5730\u533a\u8a2d\u8a08\u4ed6\u696d\u52d9","client_name":"\u56fd\u571f\u4ea4\u901a\u7701\u4e2d\u56fd\u5730\u65b9\u6574\u5099\u5c40\u5c71\u53e3\u6cb3\u5ddd\u56fd\u9053\u4e8b\u52d9\u6240","boring_xml_url":47,"boring_view_url":1,"soilmap_view_url":null,"soiltest_xml_url":0,"soiltest_view_url":0},{"id":285750,"code":"NGIC201901456-0006","latitude":"35.493805555556","longitude":"137.16472222222","source_code":"","project_name":"\u4ee4\u548c\u5143\u5e74\u5ea6\u65b0\u4e38\u5c71\u30c0\u30e0\u539f\u77f3\u5c71\u5468\u8fba\u5730\u8cea\u8abf\u67fb\u696d\u52d9","survey_name":"\u4ee4\u548c\u5143\u5e74\u5ea6\u65b0\u4e38\u5c71\u30c0\u30e0\u539f\u77f3\u5c71\u5468\u8fba\u5730\u8cea\u8abf\u67fb\u696d\u52d9","client_name":"\u56fd\u571f\u4ea4\u901a\u7701\u4e2d\u90e8\u5730\u65b9\u6574\u5099\u5c40\u65b0\u4e38\u5c71\u30c0\u30e0\u5de5\u4e8b\u4e8b\u52d9\u6240","boring_xml_url":47,"boring_view_url":1,"soilmap_view_url":null,"soiltest_xml_url":0,"soiltest_view_url":0},{"id":285749,"code":"NGIC201901456-0005","latitude":"35.492333333333","longitude":"137.16555555556","source_code":"","project_name":"\u4ee4\u548c\u5143\u5e74\u5ea6\u65b0\u4e38\u5c71\u30c0\u30e0\u539f\u77f3\u5c71\u5468\u8fba\u5730\u8cea\u8abf\u67fb\u696d\u52d9","survey_name":"\u4ee4\u548c\u5143\u5e74\u5ea6\u65b0\u4e38\u5c71\u30c0\u30e0\u539f\u77f3\u5c71\u5468\u8fba\u5730\u8cea\u8abf\u67fb\u696d\u52d9","client_name":"\u56fd\u571f\u4ea4\u901a\u7701\u4e2d\u90e8\u5730\u65b9\u6574\u5099\u5c40\u65b0\u4e38\u5c71\u30c0\u30e0\u5de5\u4e8b\u4e8b\u52d9\u6240","boring_xml_url":47,"boring_view_url":1,"soilmap_view_url":null,"soiltest_xml_url":0,"soiltest_view_url":0},{"id":285748,"code":"NGIC201901456-0004","latitude":"35.493388888889","longitude":"137.16452777778","source_code":"","project_name":"\u4ee4\u548c\u5143\u5e74\u5ea6\u65b0\u4e38\u5c71\u30c0\u30e0\u539f\u77f3\u5c71\u5468\u8fba\u5730\u8cea\u8abf\u67fb\u696d\u52d9","survey_name":"\u4ee4\u548c\u5143\u5e74\u5ea6\u65b0\u4e38\u5c71\u30c0\u30e0\u539f\u77f3\u5c71\u5468\u8fba\u5730\u8cea\u8abf\u67fb\u696d\u52d9","client_name":"\u56fd\u571f\u4ea4\u901a\u7701\u4e2d\u90e8\u5730\u65b9\u6574\u5099\u5c40\u65b0\u4e38\u5c71\u30c0\u30e0\u5de5\u4e8b\u4e8b\u52d9\u6240","boring_xml_url":47,"boring_view_url":1,"soilmap_view_url":null,"soiltest_xml_url":0,"soiltest_view_url":0},{"id":285747,"code":"NGIC201901456-0003","latitude":"35.492944444444","longitude":"137.16438888889","source_code":"","project_name":"\u4ee4\u548c\u5143\u5e74\u5ea6\u65b0\u4e38\u5c71\u30c0\u30e0\u539f\u77f3\u5c71\u5468\u8fba\u5730\u8cea\u8abf\u67fb\u696d\u52d9","survey_name":"\u4ee4\u548c\u5143\u5e74\u5ea6\u65b0\u4e38\u5c71\u30c0\u30e0\u539f\u77f3\u5c71\u5468\u8fba\u5730\u8cea\u8abf\u67fb\u696d\u52d9","client_name":"\u56fd\u571f\u4ea4\u901a\u7701\u4e2d\u90e8\u5730\u65b9\u6574\u5099\u5c40\u65b0\u4e38\u5c71\u30c0\u30e0\u5de5\u4e8b\u4e8b\u52d9\u6240","boring_xml_url":47,"boring_view_url":1,"soilmap_view_url":null,"soiltest_xml_url":0,"soiltest_view_url":0},{"id":285746,"code":"NGIC201901456-0002","latitude":"35.492138888889","longitude":"137.16397222222","source_code":"","project_name":"\u4ee4\u548c\u5143\u5e74\u5ea6\u65b0\u4e38\u5c71\u30c0\u30e0\u539f\u77f3\u5c71\u5468\u8fba\u5730\u8cea\u8abf\u67fb\u696d\u52d9","survey_name":"\u4ee4\u548c\u5143\u5e74\u5ea6\u65b0\u4e38\u5c71\u30c0\u30e0\u539f\u77f3\u5c71\u5468\u8fba\u5730\u8cea\u8abf\u67fb\u696d\u52d9","client_name":"\u56fd\u571f\u4ea4\u901a\u7701\u4e2d\u90e8\u5730\u65b9\u6574\u5099\u5c40\u65b0\u4e38\u5c71\u30c0\u30e0\u5de5\u4e8b\u4e8b\u52d9\u6240","boring_xml_url":47,"boring_view_url":1,"soilmap_view_url":null,"soiltest_xml_url":0,"soiltest_view_url":0},{"id":285745,"code":"NGIC201901456-0001","latitude":"35.491694444444","longitude":"137.16375","source_code":"","project_name":"\u4ee4\u548c\u5143\u5e74\u5ea6\u65b0\u4e38\u5c71\u30c0\u30e0\u539f\u77f3\u5c71\u5468\u8fba\u5730\u8cea\u8abf\u67fb\u696d\u52d9","survey_name":"\u4ee4\u548c\u5143\u5e74\u5ea6\u65b0\u4e38\u5c71\u30c0\u30e0\u539f\u77f3\u5c71\u5468\u8fba\u5730\u8cea\u8abf\u67fb\u696d\u52d9","client_name":"\u56fd\u571f\u4ea4\u901a\u7701\u4e2d\u90e8\u5730\u65b9\u6574\u5099\u5c40\u65b0\u4e38\u5c71\u30c0\u30e0\u5de5\u4e8b\u4e8b\u52d9\u6240","boring_xml_url":47,"boring_view_url":1,"soilmap_view_url":null,"soiltest_xml_url":0,"soiltest_view_url":0},{"id":285738,"code":"NGIC201901468-0004","latitude":"32.177071944444","longitude":"130.38834777778","source_code":"","project_name":"\u82a6\u5317\u51fa\u6c34\u9053\u8def","survey_name":"\u5e73\u621031\u5e74\u5ea6\u4e2d\u5c3e\u5c71\u30c8\u30f3\u30cd\u30eb\u5916\u6c34\u6587\u89b3\u6e2c\u696d\u52d9","client_name":"\u56fd\u571f\u4ea4\u901a\u7701\u4e5d\u5dde\u5730\u65b9\u6574\u5099\u5c40\u516b\u4ee3\u6cb3\u5ddd\u56fd\u9053\u4e8b\u52d9\u6240","boring_xml_url":47,"boring_view_url":1,"soilmap_view_url":null,"soiltest_xml_url":47,"soiltest_view_url":47},{"id":285737,"code":"NGIC201901468-0003","latitude":"32.177120833333","longitude":"130.38781388889","source_code":"","project_name":"\u82a6\u5317\u51fa\u6c34\u9053\u8def","survey_name":"\u5e73\u621031\u5e74\u5ea6\u4e2d\u5c3e\u5c71\u30c8\u30f3\u30cd\u30eb\u5916\u6c34\u6587\u89b3\u6e2c\u696d\u52d9","client_name":"\u56fd\u571f\u4ea4\u901a\u7701\u4e5d\u5dde\u5730\u65b9\u6574\u5099\u5c40\u516b\u4ee3\u6cb3\u5ddd\u56fd\u9053\u4e8b\u52d9\u6240","boring_xml_url":47,"boring_view_url":1,"soilmap_view_url":null,"soiltest_xml_url":47,"soiltest_view_url":47},{"id":285736,"code":"NGIC201901468-0002","latitude":"32.177180555556","longitude":"130.38808777778","source_code":"","project_name":"\u82a6\u5317\u51fa\u6c34\u9053\u8def","survey_name":"\u5e73\u621031\u5e74\u5ea6\u4e2d\u5c3e\u5c71\u30c8\u30f3\u30cd\u30eb\u5916\u6c34\u6587\u89b3\u6e2c\u696d\u52d9","client_name":"\u56fd\u571f\u4ea4\u901a\u7701\u4e5d\u5dde\u5730\u65b9\u6574\u5099\u5c40\u516b\u4ee3\u6cb3\u5ddd\u56fd\u9053\u4e8b\u52d9\u6240","boring_xml_url":47,"boring_view_url":1,"soilmap_view_url":null,"soiltest_xml_url":0,"soiltest_view_url":0},{"id":285735,"code":"NGIC201901468-0001","latitude":"32.177140555556","longitude":"130.38806277778","source_code":"","project_name":"\u82a6\u5317\u51fa\u6c34\u9053\u8def","survey_name":"\u5e73\u621031\u5e74\u5ea6\u4e2d\u5c3e\u5c71\u30c8\u30f3\u30cd\u30eb\u5916\u6c34\u6587\u89b3\u6e2c\u696d\u52d9","client_name":"\u56fd\u571f\u4ea4\u901a\u7701\u4e5d\u5dde\u5730\u65b9\u6574\u5099\u5c40\u516b\u4ee3\u6cb3\u5ddd\u56fd\u9053\u4e8b\u52d9\u6240","boring_xml_url":47,"boring_view_url":1,"soilmap_view_url":null,"soiltest_xml_url":0,"soiltest_view_url":0},{"id":285713,"code":"NGIC201901458-0002","latitude":"43.142961111111","longitude":"141.67255833333","source_code":"","project_name":"\u5e4c\u5411\u5ddd\u5730\u8cea\u8abf\u67fb\u696d\u52d9","survey_name":"\u5e4c\u5411\u5ddd\u5730\u8cea\u8abf\u67fb\u696d\u52d9","client_name":"\u56fd\u571f\u4ea4\u901a\u7701\u5317\u6d77\u9053\u958b\u767a\u5c40\u672d\u5e4c\u958b\u767a\u5efa\u8a2d\u90e8\u6c5f\u5225\u6cb3\u5ddd\u4e8b\u52d9\u6240","boring_xml_url":47,"boring_view_url":1,"soilmap_view_url":null,"soiltest_xml_url":47,"soiltest_view_url":47},{"id":285712,"code":"NGIC201901458-0001","latitude":"43.144211111111","longitude":"141.67138611111","source_code":"","project_name":"\u5e4c\u5411\u5ddd\u5730\u8cea\u8abf\u67fb\u696d\u52d9","survey_name":"\u5e4c\u5411\u5ddd\u5730\u8cea\u8abf\u67fb\u696d\u52d9","client_name":"\u56fd\u571f\u4ea4\u901a\u7701\u5317\u6d77\u9053\u958b\u767a\u5c40\u672d\u5e4c\u958b\u767a\u5efa\u8a2d\u90e8\u6c5f\u5225\u6cb3\u5ddd\u4e8b\u52d9\u6240","boring_xml_url":47,"boring_view_url":1,"soilmap_view_url":null,"soiltest_xml_url":47,"soiltest_view_url":47},{"id":285711,"code":"NGIC201901469-0002","latitude":"45.044169444444","longitude":"141.75026666667","source_code":"","project_name":"\u56fd\u55b6\u7dcf\u5408\u8fb2\u5730\u9632\u707d\u4e8b\u696d","survey_name":"\u5e4c\u5ef6\u5730\u533a\u4e0b\u6cbc\u5317\u5de5\u533a\u660e\u6e20\u6392\u6c34\u8def\u8a2d\u8a08\u7b49\u696d\u52d9","client_name":"\u56fd\u571f\u4ea4\u901a\u7701\u5317\u6d77\u9053\u958b\u767a\u5c40\u7a1a\u5185\u958b\u767a\u5efa\u8a2d\u90e8\u7a1a\u5185\u8fb2\u696d\u4e8b\u696d\u6240","boring_xml_url":47,"boring_view_url":1,"soilmap_view_url":null,"soiltest_xml_url":47,"soiltest_view_url":47},{"id":285710,"code":"NGIC201901469-0001","latitude":"45.052472222222","longitude":"141.74839166667","source_code":"","project_name":"\u56fd\u55b6\u7dcf\u5408\u8fb2\u5730\u9632\u707d\u4e8b\u696d","survey_name":"\u5e4c\u5ef6\u5730\u533a\u4e0b\u6cbc\u5317\u5de5\u533a\u660e\u6e20\u6392\u6c34\u8def\u8a2d\u8a08\u7b49\u696d\u52d9","client_name":"\u56fd\u571f\u4ea4\u901a\u7701\u5317\u6d77\u9053\u958b\u767a\u5c40\u7a1a\u5185\u958b\u767a\u5efa\u8a2d\u90e8\u7a1a\u5185\u8fb2\u696d\u4e8b\u696d\u6240","boring_xml_url":47,"boring_view_url":1,"soilmap_view_url":null,"soiltest_xml_url":47,"soiltest_view_url":47},{"id":285707,"code":"NGIC201901457-0008","latitude":"33.599358888889","longitude":"130.60582175","source_code":"","project_name":"","survey_name":"\u4ee4\u548c\u5143\u5e74\u5ea6 \u7b51\u7a42\u30c8\u30f3\u30cd\u30eb\uff08\u7be0\u6817\u5074\uff09\u5730\u8cea\u8abf\u67fb\u696d\u52d9","client_name":"\u56fd\u571f\u4ea4\u901a\u7701\u4e5d\u5dde\u5730\u65b9\u6574\u5099\u5c40\u5317\u4e5d\u5dde\u56fd\u9053\u4e8b\u52d9\u6240","boring_xml_url":47,"boring_view_url":1,"soilmap_view_url":null,"soiltest_xml_url":0,"soiltest_view_url":0},{"id":285706,"code":"NGIC201901457-0007","latitude":"33.599523805556","longitude":"130.60542016667","source_code":"","project_name":"","survey_name":"\u4ee4\u548c\u5143\u5e74\u5ea6 \u7b51\u7a42\u30c8\u30f3\u30cd\u30eb\uff08\u7be0\u6817\u5074\uff09\u5730\u8cea\u8abf\u67fb\u696d\u52d9","client_name":"\u56fd\u571f\u4ea4\u901a\u7701\u4e5d\u5dde\u5730\u65b9\u6574\u5099\u5c40\u5317\u4e5d\u5dde\u56fd\u9053\u4e8b\u52d9\u6240","boring_xml_url":47,"boring_view_url":1,"soilmap_view_url":null,"soiltest_xml_url":0,"soiltest_view_url":0},{"id":285705,"code":"NGIC201901457-0006","latitude":"33.599696611111","longitude":"130.60556383333","source_code":"","project_name":"","survey_name":"\u4ee4\u548c\u5143\u5e74\u5ea6 \u7b51\u7a42\u30c8\u30f3\u30cd\u30eb\uff08\u7be0\u6817\u5074\uff09\u5730\u8cea\u8abf\u67fb\u696d\u52d9","client_name":"\u56fd\u571f\u4ea4\u901a\u7701\u4e5d\u5dde\u5730\u65b9\u6574\u5099\u5c40\u5317\u4e5d\u5dde\u56fd\u9053\u4e8b\u52d9\u6240","boring_xml_url":47,"boring_view_url":1,"soilmap_view_url":null,"soiltest_xml_url":0,"soiltest_view_url":0},{"id":285704,"code":"NGIC201901457-0005","latitude":"33.599797361111","longitude":"130.60527511111","source_code":"","project_name":"","survey_name":"\u4ee4\u548c\u5143\u5e74\u5ea6 \u7b51\u7a42\u30c8\u30f3\u30cd\u30eb\uff08\u7be0\u6817\u5074\uff09\u5730\u8cea\u8abf\u67fb\u696d\u52d9","client_name":"\u56fd\u571f\u4ea4\u901a\u7701\u4e5d\u5dde\u5730\u65b9\u6574\u5099\u5c40\u5317\u4e5d\u5dde\u56fd\u9053\u4e8b\u52d9\u6240","boring_xml_url":47,"boring_view_url":1,"soilmap_view_url":null,"soiltest_xml_url":0,"soiltest_view_url":0},{"id":285703,"code":"NGIC201901457-0004","latitude":"33.6058055","longitude":"130.584014","source_code":"","project_name":"","survey_name":"\u4ee4\u548c\u5143\u5e74\u5ea6 \u7b51\u7a42\u30c8\u30f3\u30cd\u30eb\uff08\u7be0\u6817\u5074\uff09\u5730\u8cea\u8abf\u67fb\u696d\u52d9","client_name":"\u56fd\u571f\u4ea4\u901a\u7701\u4e5d\u5dde\u5730\u65b9\u6574\u5099\u5c40\u5317\u4e5d\u5dde\u56fd\u9053\u4e8b\u52d9\u6240","boring_xml_url":47,"boring_view_url":1,"soilmap_view_url":null,"soiltest_xml_url":0,"soiltest_view_url":0},{"id":285702,"code":"NGIC201901457-0003","latitude":"33.606694361111","longitude":"130.58289341667","source_code":"","project_name":"","survey_name":"\u4ee4\u548c\u5143\u5e74\u5ea6 \u7b51\u7a42\u30c8\u30f3\u30cd\u30eb\uff08\u7be0\u6817\u5074\uff09\u5730\u8cea\u8abf\u67fb\u696d\u52d9","client_name":"\u56fd\u571f\u4ea4\u901a\u7701\u4e5d\u5dde\u5730\u65b9\u6574\u5099\u5c40\u5317\u4e5d\u5dde\u56fd\u9053\u4e8b\u52d9\u6240","boring_xml_url":47,"boring_view_url":1,"soilmap_view_url":null,"soiltest_xml_url":0,"soiltest_view_url":0},{"id":285701,"code":"NGIC201901457-0002","latitude":"33.606915222222","longitude":"130.58283386111","source_code":"","project_name":"","survey_name":"\u4ee4\u548c\u5143\u5e74\u5ea6 \u7b51\u7a42\u30c8\u30f3\u30cd\u30eb\uff08\u7be0\u6817\u5074\uff09\u5730\u8cea\u8abf\u67fb\u696d\u52d9","client_name":"\u56fd\u571f\u4ea4\u901a\u7701\u4e5d\u5dde\u5730\u65b9\u6574\u5099\u5c40\u5317\u4e5d\u5dde\u56fd\u9053\u4e8b\u52d9\u6240","boring_xml_url":47,"boring_view_url":1,"soilmap_view_url":null,"soiltest_xml_url":0,"soiltest_view_url":0},{"id":285700,"code":"NGIC201901457-0001","latitude":"33.606841055556","longitude":"130.58289511111","source_code":"","project_name":"","survey_name":"\u4ee4\u548c\u5143\u5e74\u5ea6 \u7b51\u7a42\u30c8\u30f3\u30cd\u30eb\uff08\u7be0\u6817\u5074\uff09\u5730\u8cea\u8abf\u67fb\u696d\u52d9","client_name":"\u56fd\u571f\u4ea4\u901a\u7701\u4e5d\u5dde\u5730\u65b9\u6574\u5099\u5c40\u5317\u4e5d\u5dde\u56fd\u9053\u4e8b\u52d9\u6240","boring_xml_url":47,"boring_view_url":1,"soilmap_view_url":null,"soiltest_xml_url":0,"soiltest_view_url":0},{"id":285696,"code":"NGIC201901452-0008","latitude":"43.107497222222","longitude":"141.22104722222","source_code":"","project_name":"\u5927\u898f\u6a21\u571f\u7802\u79fb\u52d5\u5730\u8cea\u8abf\u67fb\u696d\u52d9","survey_name":"\u5927\u898f\u6a21\u571f\u7802\u79fb\u52d5\u5730\u8cea\u8abf\u67fb\u696d\u52d9","client_name":"\u56fd\u571f\u4ea4\u901a\u7701\u5317\u6d77\u9053\u958b\u767a\u5c40\u672d\u5e4c\u958b\u767a\u5efa\u8a2d\u90e8\u672c\u90e8","boring_xml_url":47,"boring_view_url":1,"soilmap_view_url":null,"soiltest_xml_url":0,"soiltest_view_url":0},{"id":285695,"code":"NGIC201901452-0007","latitude":"43.106516666667","longitude":"141.21998055556","source_code":"","project_name":"\u5927\u898f\u6a21\u571f\u7802\u79fb\u52d5\u5730\u8cea\u8abf\u67fb\u696d\u52d9","survey_name":"\u5927\u898f\u6a21\u571f\u7802\u79fb\u52d5\u5730\u8cea\u8abf\u67fb\u696d\u52d9","client_name":"\u56fd\u571f\u4ea4\u901a\u7701\u5317\u6d77\u9053\u958b\u767a\u5c40\u672d\u5e4c\u958b\u767a\u5efa\u8a2d\u90e8\u672c\u90e8","boring_xml_url":47,"boring_view_url":1,"soilmap_view_url":null,"soiltest_xml_url":0,"soiltest_view_url":0}]}}