{"header":{"xyz":{"source":[],"mosaic":false},"page":2250,"raw":{"soiltest_result":"0","bbox":"57.598333,109.544722,1.933333,163.806111","page":"2250"},"conditions":{"soiltest_result":0,"north":57.598333,"west":109.544722,"south":1.933333,"east":163.806111},"success":true,"message":""},"data":{"meta":{"total":212844,"page":2250,"pages":7095,"count":30},"values":[{"id":285630,"code":"NGIC201901429-0002","latitude":"35.498461305556","longitude":"133.81513933333","source_code":"","project_name":"","survey_name":"\u5317\u6761JCT\u5730\u8cea\u8abf\u67fb\u305d\u306e3\u696d\u52d9","client_name":"\u56fd\u571f\u4ea4\u901a\u7701\u4e2d\u56fd\u5730\u65b9\u6574\u5099\u5c40\u5009\u5409\u6cb3\u5ddd\u56fd\u9053\u4e8b\u52d9\u6240","boring_xml_url":47,"boring_view_url":1,"soilmap_view_url":null,"soiltest_xml_url":47,"soiltest_view_url":47},{"id":285629,"code":"NGIC201901429-0001","latitude":"35.498100138889","longitude":"133.81523827778","source_code":"","project_name":"","survey_name":"\u5317\u6761JCT\u5730\u8cea\u8abf\u67fb\u305d\u306e3\u696d\u52d9","client_name":"\u56fd\u571f\u4ea4\u901a\u7701\u4e2d\u56fd\u5730\u65b9\u6574\u5099\u5c40\u5009\u5409\u6cb3\u5ddd\u56fd\u9053\u4e8b\u52d9\u6240","boring_xml_url":47,"boring_view_url":1,"soilmap_view_url":null,"soiltest_xml_url":0,"soiltest_view_url":0},{"id":285625,"code":"NGIC201901418-0038","latitude":"33.374289166667","longitude":"130.83204472222","source_code":"","project_name":"","survey_name":"\u5e73\u621031\u5e74\u5ea6\u8d64\u8c37\u5ddd\u6d41\u57df\u6e2c\u91cf\u8a2d\u8a08\u5916\uff08\u305d\u306e2\uff09\u696d\u52d9","client_name":"\u56fd\u571f\u4ea4\u901a\u7701\u4e5d\u5dde\u5730\u65b9\u6574\u5099\u5c40\u7b51\u5f8c\u5ddd\u6cb3\u5ddd\u4e8b\u52d9\u6240","boring_xml_url":47,"boring_view_url":1,"soilmap_view_url":null,"soiltest_xml_url":0,"soiltest_view_url":0},{"id":285624,"code":"NGIC201901418-0037","latitude":"33.379710833333","longitude":"130.83854916667","source_code":"","project_name":"","survey_name":"\u5e73\u621031\u5e74\u5ea6\u8d64\u8c37\u5ddd\u6d41\u57df\u6e2c\u91cf\u8a2d\u8a08\u5916\uff08\u305d\u306e2\uff09\u696d\u52d9","client_name":"\u56fd\u571f\u4ea4\u901a\u7701\u4e5d\u5dde\u5730\u65b9\u6574\u5099\u5c40\u7b51\u5f8c\u5ddd\u6cb3\u5ddd\u4e8b\u52d9\u6240","boring_xml_url":47,"boring_view_url":1,"soilmap_view_url":null,"soiltest_xml_url":0,"soiltest_view_url":0},{"id":285623,"code":"NGIC201901418-0036","latitude":"33.379722222222","longitude":"130.83849972222","source_code":"","project_name":"","survey_name":"\u5e73\u621031\u5e74\u5ea6\u8d64\u8c37\u5ddd\u6d41\u57df\u6e2c\u91cf\u8a2d\u8a08\u5916\uff08\u305d\u306e2\uff09\u696d\u52d9","client_name":"\u56fd\u571f\u4ea4\u901a\u7701\u4e5d\u5dde\u5730\u65b9\u6574\u5099\u5c40\u7b51\u5f8c\u5ddd\u6cb3\u5ddd\u4e8b\u52d9\u6240","boring_xml_url":47,"boring_view_url":1,"soilmap_view_url":null,"soiltest_xml_url":0,"soiltest_view_url":0},{"id":285622,"code":"NGIC201901418-0035","latitude":"33.380021111111","longitude":"130.83845333333","source_code":"","project_name":"","survey_name":"\u5e73\u621031\u5e74\u5ea6\u8d64\u8c37\u5ddd\u6d41\u57df\u6e2c\u91cf\u8a2d\u8a08\u5916\uff08\u305d\u306e2\uff09\u696d\u52d9","client_name":"\u56fd\u571f\u4ea4\u901a\u7701\u4e5d\u5dde\u5730\u65b9\u6574\u5099\u5c40\u7b51\u5f8c\u5ddd\u6cb3\u5ddd\u4e8b\u52d9\u6240","boring_xml_url":47,"boring_view_url":1,"soilmap_view_url":null,"soiltest_xml_url":0,"soiltest_view_url":0},{"id":285621,"code":"NGIC201901418-0034","latitude":"33.379948888889","longitude":"130.83841361111","source_code":"","project_name":"","survey_name":"\u5e73\u621031\u5e74\u5ea6\u8d64\u8c37\u5ddd\u6d41\u57df\u6e2c\u91cf\u8a2d\u8a08\u5916\uff08\u305d\u306e2\uff09\u696d\u52d9","client_name":"\u56fd\u571f\u4ea4\u901a\u7701\u4e5d\u5dde\u5730\u65b9\u6574\u5099\u5c40\u7b51\u5f8c\u5ddd\u6cb3\u5ddd\u4e8b\u52d9\u6240","boring_xml_url":47,"boring_view_url":1,"soilmap_view_url":null,"soiltest_xml_url":0,"soiltest_view_url":0},{"id":285620,"code":"NGIC201901418-0033","latitude":"33.366203055556","longitude":"130.82794694444","source_code":"","project_name":"","survey_name":"\u5e73\u621031\u5e74\u5ea6\u8d64\u8c37\u5ddd\u6d41\u57df\u6e2c\u91cf\u8a2d\u8a08\u5916\uff08\u305d\u306e2\uff09\u696d\u52d9","client_name":"\u56fd\u571f\u4ea4\u901a\u7701\u4e5d\u5dde\u5730\u65b9\u6574\u5099\u5c40\u7b51\u5f8c\u5ddd\u6cb3\u5ddd\u4e8b\u52d9\u6240","boring_xml_url":47,"boring_view_url":1,"soilmap_view_url":null,"soiltest_xml_url":0,"soiltest_view_url":0},{"id":285619,"code":"NGIC201901418-0032","latitude":"33.366333888889","longitude":"130.82756916667","source_code":"","project_name":"","survey_name":"\u5e73\u621031\u5e74\u5ea6\u8d64\u8c37\u5ddd\u6d41\u57df\u6e2c\u91cf\u8a2d\u8a08\u5916\uff08\u305d\u306e2\uff09\u696d\u52d9","client_name":"\u56fd\u571f\u4ea4\u901a\u7701\u4e5d\u5dde\u5730\u65b9\u6574\u5099\u5c40\u7b51\u5f8c\u5ddd\u6cb3\u5ddd\u4e8b\u52d9\u6240","boring_xml_url":47,"boring_view_url":1,"soilmap_view_url":null,"soiltest_xml_url":0,"soiltest_view_url":0},{"id":285618,"code":"NGIC201901418-0031","latitude":"33.380197777778","longitude":"130.83880666667","source_code":"","project_name":"","survey_name":"\u5e73\u621031\u5e74\u5ea6\u8d64\u8c37\u5ddd\u6d41\u57df\u6e2c\u91cf\u8a2d\u8a08\u5916\uff08\u305d\u306e2\uff09\u696d\u52d9","client_name":"\u56fd\u571f\u4ea4\u901a\u7701\u4e5d\u5dde\u5730\u65b9\u6574\u5099\u5c40\u7b51\u5f8c\u5ddd\u6cb3\u5ddd\u4e8b\u52d9\u6240","boring_xml_url":47,"boring_view_url":1,"soilmap_view_url":null,"soiltest_xml_url":0,"soiltest_view_url":0},{"id":285617,"code":"NGIC201901418-0030","latitude":"33.380120555556","longitude":"130.83874638889","source_code":"","project_name":"","survey_name":"\u5e73\u621031\u5e74\u5ea6\u8d64\u8c37\u5ddd\u6d41\u57df\u6e2c\u91cf\u8a2d\u8a08\u5916\uff08\u305d\u306e2\uff09\u696d\u52d9","client_name":"\u56fd\u571f\u4ea4\u901a\u7701\u4e5d\u5dde\u5730\u65b9\u6574\u5099\u5c40\u7b51\u5f8c\u5ddd\u6cb3\u5ddd\u4e8b\u52d9\u6240","boring_xml_url":47,"boring_view_url":1,"soilmap_view_url":null,"soiltest_xml_url":0,"soiltest_view_url":0},{"id":285616,"code":"NGIC201901418-0029","latitude":"33.379978333333","longitude":"130.83901111111","source_code":"","project_name":"","survey_name":"\u5e73\u621031\u5e74\u5ea6\u8d64\u8c37\u5ddd\u6d41\u57df\u6e2c\u91cf\u8a2d\u8a08\u5916\uff08\u305d\u306e2\uff09\u696d\u52d9","client_name":"\u56fd\u571f\u4ea4\u901a\u7701\u4e5d\u5dde\u5730\u65b9\u6574\u5099\u5c40\u7b51\u5f8c\u5ddd\u6cb3\u5ddd\u4e8b\u52d9\u6240","boring_xml_url":47,"boring_view_url":1,"soilmap_view_url":null,"soiltest_xml_url":0,"soiltest_view_url":0},{"id":285615,"code":"NGIC201901418-0028","latitude":"33.379928055556","longitude":"130.83896583333","source_code":"","project_name":"","survey_name":"\u5e73\u621031\u5e74\u5ea6\u8d64\u8c37\u5ddd\u6d41\u57df\u6e2c\u91cf\u8a2d\u8a08\u5916\uff08\u305d\u306e2\uff09\u696d\u52d9","client_name":"\u56fd\u571f\u4ea4\u901a\u7701\u4e5d\u5dde\u5730\u65b9\u6574\u5099\u5c40\u7b51\u5f8c\u5ddd\u6cb3\u5ddd\u4e8b\u52d9\u6240","boring_xml_url":47,"boring_view_url":1,"soilmap_view_url":null,"soiltest_xml_url":0,"soiltest_view_url":0},{"id":285614,"code":"NGIC201901418-0027","latitude":"33.374301666667","longitude":"130.83209277778","source_code":"","project_name":"","survey_name":"\u5e73\u621031\u5e74\u5ea6\u8d64\u8c37\u5ddd\u6d41\u57df\u6e2c\u91cf\u8a2d\u8a08\u5916\uff08\u305d\u306e2\uff09\u696d\u52d9","client_name":"\u56fd\u571f\u4ea4\u901a\u7701\u4e5d\u5dde\u5730\u65b9\u6574\u5099\u5c40\u7b51\u5f8c\u5ddd\u6cb3\u5ddd\u4e8b\u52d9\u6240","boring_xml_url":47,"boring_view_url":1,"soilmap_view_url":null,"soiltest_xml_url":0,"soiltest_view_url":0},{"id":285613,"code":"NGIC201901418-0026","latitude":"33.374154722222","longitude":"130.83235888889","source_code":"","project_name":"","survey_name":"\u5e73\u621031\u5e74\u5ea6\u8d64\u8c37\u5ddd\u6d41\u57df\u6e2c\u91cf\u8a2d\u8a08\u5916\uff08\u305d\u306e2\uff09\u696d\u52d9","client_name":"\u56fd\u571f\u4ea4\u901a\u7701\u4e5d\u5dde\u5730\u65b9\u6574\u5099\u5c40\u7b51\u5f8c\u5ddd\u6cb3\u5ddd\u4e8b\u52d9\u6240","boring_xml_url":47,"boring_view_url":1,"soilmap_view_url":null,"soiltest_xml_url":0,"soiltest_view_url":0},{"id":285612,"code":"NGIC201901418-0025","latitude":"33.367485833333","longitude":"130.83065972222","source_code":"","project_name":"","survey_name":"\u5e73\u621031\u5e74\u5ea6\u8d64\u8c37\u5ddd\u6d41\u57df\u6e2c\u91cf\u8a2d\u8a08\u5916\uff08\u305d\u306e2\uff09\u696d\u52d9","client_name":"\u56fd\u571f\u4ea4\u901a\u7701\u4e5d\u5dde\u5730\u65b9\u6574\u5099\u5c40\u7b51\u5f8c\u5ddd\u6cb3\u5ddd\u4e8b\u52d9\u6240","boring_xml_url":47,"boring_view_url":1,"soilmap_view_url":null,"soiltest_xml_url":0,"soiltest_view_url":0},{"id":285611,"code":"NGIC201901418-0024","latitude":"33.367546111111","longitude":"130.83056027778","source_code":"","project_name":"","survey_name":"\u5e73\u621031\u5e74\u5ea6\u8d64\u8c37\u5ddd\u6d41\u57df\u6e2c\u91cf\u8a2d\u8a08\u5916\uff08\u305d\u306e2\uff09\u696d\u52d9","client_name":"\u56fd\u571f\u4ea4\u901a\u7701\u4e5d\u5dde\u5730\u65b9\u6574\u5099\u5c40\u7b51\u5f8c\u5ddd\u6cb3\u5ddd\u4e8b\u52d9\u6240","boring_xml_url":47,"boring_view_url":1,"soilmap_view_url":null,"soiltest_xml_url":0,"soiltest_view_url":0},{"id":285610,"code":"NGIC201901418-0023","latitude":"33.367399444444","longitude":"130.83059805556","source_code":"","project_name":"","survey_name":"\u5e73\u621031\u5e74\u5ea6\u8d64\u8c37\u5ddd\u6d41\u57df\u6e2c\u91cf\u8a2d\u8a08\u5916\uff08\u305d\u306e2\uff09\u696d\u52d9","client_name":"\u56fd\u571f\u4ea4\u901a\u7701\u4e5d\u5dde\u5730\u65b9\u6574\u5099\u5c40\u7b51\u5f8c\u5ddd\u6cb3\u5ddd\u4e8b\u52d9\u6240","boring_xml_url":47,"boring_view_url":1,"soilmap_view_url":null,"soiltest_xml_url":0,"soiltest_view_url":0},{"id":285609,"code":"NGIC201901418-0022","latitude":"33.367422777778","longitude":"130.83048361111","source_code":"","project_name":"","survey_name":"\u5e73\u621031\u5e74\u5ea6\u8d64\u8c37\u5ddd\u6d41\u57df\u6e2c\u91cf\u8a2d\u8a08\u5916\uff08\u305d\u306e2\uff09\u696d\u52d9","client_name":"\u56fd\u571f\u4ea4\u901a\u7701\u4e5d\u5dde\u5730\u65b9\u6574\u5099\u5c40\u7b51\u5f8c\u5ddd\u6cb3\u5ddd\u4e8b\u52d9\u6240","boring_xml_url":47,"boring_view_url":1,"soilmap_view_url":null,"soiltest_xml_url":0,"soiltest_view_url":0},{"id":285608,"code":"NGIC201901418-0021","latitude":"33.365367222222","longitude":"130.83183111111","source_code":"","project_name":"","survey_name":"\u5e73\u621031\u5e74\u5ea6\u8d64\u8c37\u5ddd\u6d41\u57df\u6e2c\u91cf\u8a2d\u8a08\u5916\uff08\u305d\u306e2\uff09\u696d\u52d9","client_name":"\u56fd\u571f\u4ea4\u901a\u7701\u4e5d\u5dde\u5730\u65b9\u6574\u5099\u5c40\u7b51\u5f8c\u5ddd\u6cb3\u5ddd\u4e8b\u52d9\u6240","boring_xml_url":47,"boring_view_url":1,"soilmap_view_url":null,"soiltest_xml_url":0,"soiltest_view_url":0},{"id":285607,"code":"NGIC201901418-0020","latitude":"33.365448888889","longitude":"130.83168833333","source_code":"","project_name":"","survey_name":"\u5e73\u621031\u5e74\u5ea6\u8d64\u8c37\u5ddd\u6d41\u57df\u6e2c\u91cf\u8a2d\u8a08\u5916\uff08\u305d\u306e2\uff09\u696d\u52d9","client_name":"\u56fd\u571f\u4ea4\u901a\u7701\u4e5d\u5dde\u5730\u65b9\u6574\u5099\u5c40\u7b51\u5f8c\u5ddd\u6cb3\u5ddd\u4e8b\u52d9\u6240","boring_xml_url":47,"boring_view_url":1,"soilmap_view_url":null,"soiltest_xml_url":0,"soiltest_view_url":0},{"id":285606,"code":"NGIC201901418-0019","latitude":"33.365451944444","longitude":"130.83151361111","source_code":"","project_name":"","survey_name":"\u5e73\u621031\u5e74\u5ea6\u8d64\u8c37\u5ddd\u6d41\u57df\u6e2c\u91cf\u8a2d\u8a08\u5916\uff08\u305d\u306e2\uff09\u696d\u52d9","client_name":"\u56fd\u571f\u4ea4\u901a\u7701\u4e5d\u5dde\u5730\u65b9\u6574\u5099\u5c40\u7b51\u5f8c\u5ddd\u6cb3\u5ddd\u4e8b\u52d9\u6240","boring_xml_url":47,"boring_view_url":1,"soilmap_view_url":null,"soiltest_xml_url":0,"soiltest_view_url":0},{"id":285605,"code":"NGIC201901418-0018","latitude":"33.371491388889","longitude":"130.83168611111","source_code":"","project_name":"","survey_name":"\u5e73\u621031\u5e74\u5ea6\u8d64\u8c37\u5ddd\u6d41\u57df\u6e2c\u91cf\u8a2d\u8a08\u5916\uff08\u305d\u306e2\uff09\u696d\u52d9","client_name":"\u56fd\u571f\u4ea4\u901a\u7701\u4e5d\u5dde\u5730\u65b9\u6574\u5099\u5c40\u7b51\u5f8c\u5ddd\u6cb3\u5ddd\u4e8b\u52d9\u6240","boring_xml_url":47,"boring_view_url":1,"soilmap_view_url":null,"soiltest_xml_url":0,"soiltest_view_url":0},{"id":285604,"code":"NGIC201901418-0017","latitude":"33.371419444444","longitude":"130.83158888889","source_code":"","project_name":"","survey_name":"\u5e73\u621031\u5e74\u5ea6\u8d64\u8c37\u5ddd\u6d41\u57df\u6e2c\u91cf\u8a2d\u8a08\u5916\uff08\u305d\u306e2\uff09\u696d\u52d9","client_name":"\u56fd\u571f\u4ea4\u901a\u7701\u4e5d\u5dde\u5730\u65b9\u6574\u5099\u5c40\u7b51\u5f8c\u5ddd\u6cb3\u5ddd\u4e8b\u52d9\u6240","boring_xml_url":47,"boring_view_url":1,"soilmap_view_url":null,"soiltest_xml_url":0,"soiltest_view_url":0},{"id":285603,"code":"NGIC201901418-0016","latitude":"33.371553888889","longitude":"130.83132083333","source_code":"","project_name":"","survey_name":"\u5e73\u621031\u5e74\u5ea6\u8d64\u8c37\u5ddd\u6d41\u57df\u6e2c\u91cf\u8a2d\u8a08\u5916\uff08\u305d\u306e2\uff09\u696d\u52d9","client_name":"\u56fd\u571f\u4ea4\u901a\u7701\u4e5d\u5dde\u5730\u65b9\u6574\u5099\u5c40\u7b51\u5f8c\u5ddd\u6cb3\u5ddd\u4e8b\u52d9\u6240","boring_xml_url":47,"boring_view_url":1,"soilmap_view_url":null,"soiltest_xml_url":0,"soiltest_view_url":0},{"id":285602,"code":"NGIC201901418-0015","latitude":"33.371655","longitude":"130.83132166667","source_code":"","project_name":"","survey_name":"\u5e73\u621031\u5e74\u5ea6\u8d64\u8c37\u5ddd\u6d41\u57df\u6e2c\u91cf\u8a2d\u8a08\u5916\uff08\u305d\u306e2\uff09\u696d\u52d9","client_name":"\u56fd\u571f\u4ea4\u901a\u7701\u4e5d\u5dde\u5730\u65b9\u6574\u5099\u5c40\u7b51\u5f8c\u5ddd\u6cb3\u5ddd\u4e8b\u52d9\u6240","boring_xml_url":47,"boring_view_url":1,"soilmap_view_url":null,"soiltest_xml_url":0,"soiltest_view_url":0},{"id":285601,"code":"NGIC201901418-0014","latitude":"33.361131666667","longitude":"130.82541277778","source_code":"","project_name":"","survey_name":"\u5e73\u621031\u5e74\u5ea6\u8d64\u8c37\u5ddd\u6d41\u57df\u6e2c\u91cf\u8a2d\u8a08\u5916\uff08\u305d\u306e2\uff09\u696d\u52d9","client_name":"\u56fd\u571f\u4ea4\u901a\u7701\u4e5d\u5dde\u5730\u65b9\u6574\u5099\u5c40\u7b51\u5f8c\u5ddd\u6cb3\u5ddd\u4e8b\u52d9\u6240","boring_xml_url":47,"boring_view_url":1,"soilmap_view_url":null,"soiltest_xml_url":0,"soiltest_view_url":0},{"id":285600,"code":"NGIC201901418-0013","latitude":"33.361110555556","longitude":"130.8253225","source_code":"","project_name":"","survey_name":"\u5e73\u621031\u5e74\u5ea6\u8d64\u8c37\u5ddd\u6d41\u57df\u6e2c\u91cf\u8a2d\u8a08\u5916\uff08\u305d\u306e2\uff09\u696d\u52d9","client_name":"\u56fd\u571f\u4ea4\u901a\u7701\u4e5d\u5dde\u5730\u65b9\u6574\u5099\u5c40\u7b51\u5f8c\u5ddd\u6cb3\u5ddd\u4e8b\u52d9\u6240","boring_xml_url":47,"boring_view_url":1,"soilmap_view_url":null,"soiltest_xml_url":0,"soiltest_view_url":0},{"id":285599,"code":"NGIC201901418-0012","latitude":"33.361275555556","longitude":"130.82496138889","source_code":"","project_name":"","survey_name":"\u5e73\u621031\u5e74\u5ea6\u8d64\u8c37\u5ddd\u6d41\u57df\u6e2c\u91cf\u8a2d\u8a08\u5916\uff08\u305d\u306e2\uff09\u696d\u52d9","client_name":"\u56fd\u571f\u4ea4\u901a\u7701\u4e5d\u5dde\u5730\u65b9\u6574\u5099\u5c40\u7b51\u5f8c\u5ddd\u6cb3\u5ddd\u4e8b\u52d9\u6240","boring_xml_url":47,"boring_view_url":1,"soilmap_view_url":null,"soiltest_xml_url":0,"soiltest_view_url":0},{"id":285598,"code":"NGIC201901418-0011","latitude":"33.363326666667","longitude":"130.82550194444","source_code":"","project_name":"","survey_name":"\u5e73\u621031\u5e74\u5ea6\u8d64\u8c37\u5ddd\u6d41\u57df\u6e2c\u91cf\u8a2d\u8a08\u5916\uff08\u305d\u306e2\uff09\u696d\u52d9","client_name":"\u56fd\u571f\u4ea4\u901a\u7701\u4e5d\u5dde\u5730\u65b9\u6574\u5099\u5c40\u7b51\u5f8c\u5ddd\u6cb3\u5ddd\u4e8b\u52d9\u6240","boring_xml_url":47,"boring_view_url":1,"soilmap_view_url":null,"soiltest_xml_url":0,"soiltest_view_url":0}]}}