{"header":{"xyz":{"source":[],"mosaic":false},"page":2264,"raw":{"soiltest_result":"0","bbox":"57.598333,109.544722,1.933333,163.806111","page":"2264"},"conditions":{"soiltest_result":0,"north":57.598333,"west":109.544722,"south":1.933333,"east":163.806111},"success":true,"message":""},"data":{"meta":{"total":212844,"page":2264,"pages":7095,"count":30},"values":[{"id":284983,"code":"NGIC201901312-0005","latitude":"35.577663888889","longitude":"135.12010555556","source_code":"","project_name":"","survey_name":"\u5927\u5bae\u5cf0\u5c71\u9053\u8def\u5730\u8cea\u8abf\u67fb\u696d\u52d9","client_name":"\u56fd\u571f\u4ea4\u901a\u7701\u8fd1\u757f\u5730\u65b9\u6574\u5099\u5c40\u798f\u77e5\u5c71\u6cb3\u5ddd\u56fd\u9053\u4e8b\u52d9\u6240","boring_xml_url":47,"boring_view_url":1,"soilmap_view_url":null,"soiltest_xml_url":47,"soiltest_view_url":47},{"id":284982,"code":"NGIC201901312-0004","latitude":"35.577208333333","longitude":"135.12031388889","source_code":"","project_name":"","survey_name":"\u5927\u5bae\u5cf0\u5c71\u9053\u8def\u5730\u8cea\u8abf\u67fb\u696d\u52d9","client_name":"\u56fd\u571f\u4ea4\u901a\u7701\u8fd1\u757f\u5730\u65b9\u6574\u5099\u5c40\u798f\u77e5\u5c71\u6cb3\u5ddd\u56fd\u9053\u4e8b\u52d9\u6240","boring_xml_url":47,"boring_view_url":1,"soilmap_view_url":null,"soiltest_xml_url":47,"soiltest_view_url":47},{"id":284981,"code":"NGIC201901312-0003","latitude":"35.576747222222","longitude":"135.12050833333","source_code":"","project_name":"","survey_name":"\u5927\u5bae\u5cf0\u5c71\u9053\u8def\u5730\u8cea\u8abf\u67fb\u696d\u52d9","client_name":"\u56fd\u571f\u4ea4\u901a\u7701\u8fd1\u757f\u5730\u65b9\u6574\u5099\u5c40\u798f\u77e5\u5c71\u6cb3\u5ddd\u56fd\u9053\u4e8b\u52d9\u6240","boring_xml_url":47,"boring_view_url":1,"soilmap_view_url":null,"soiltest_xml_url":47,"soiltest_view_url":47},{"id":284980,"code":"NGIC201901312-0002","latitude":"35.576286111111","longitude":"135.12069166667","source_code":"","project_name":"","survey_name":"\u5927\u5bae\u5cf0\u5c71\u9053\u8def\u5730\u8cea\u8abf\u67fb\u696d\u52d9","client_name":"\u56fd\u571f\u4ea4\u901a\u7701\u8fd1\u757f\u5730\u65b9\u6574\u5099\u5c40\u798f\u77e5\u5c71\u6cb3\u5ddd\u56fd\u9053\u4e8b\u52d9\u6240","boring_xml_url":47,"boring_view_url":1,"soilmap_view_url":null,"soiltest_xml_url":47,"soiltest_view_url":47},{"id":284979,"code":"NGIC201901312-0001","latitude":"35.57475","longitude":"135.12111111111","source_code":"","project_name":"","survey_name":"\u5927\u5bae\u5cf0\u5c71\u9053\u8def\u5730\u8cea\u8abf\u67fb\u696d\u52d9","client_name":"\u56fd\u571f\u4ea4\u901a\u7701\u8fd1\u757f\u5730\u65b9\u6574\u5099\u5c40\u798f\u77e5\u5c71\u6cb3\u5ddd\u56fd\u9053\u4e8b\u52d9\u6240","boring_xml_url":47,"boring_view_url":1,"soilmap_view_url":null,"soiltest_xml_url":0,"soiltest_view_url":0},{"id":284978,"code":"NGIC201901332-0002","latitude":"31.942156944444","longitude":"131.1399025","source_code":"","project_name":"\u5ca9\u702c\u30c0\u30e0\u518d\u751f\u4e8b\u696d","survey_name":"\u4ee4\u548c\u5143\u5e74\u5ea6\u5ca9\u702c\u30c0\u30e0\u518d\u751f\u5824\u4f53\u5730\u8cea\u8abf\u67fb\u696d\u52d9","client_name":"\u56fd\u571f\u4ea4\u901a\u7701\u4e5d\u5dde\u5730\u65b9\u6574\u5099\u5c40\u5bae\u5d0e\u6cb3\u5ddd\u56fd\u9053\u4e8b\u52d9\u6240","boring_xml_url":47,"boring_view_url":1,"soilmap_view_url":null,"soiltest_xml_url":0,"soiltest_view_url":0},{"id":284977,"code":"NGIC201901332-0001","latitude":"31.942276388889","longitude":"131.13993583333","source_code":"","project_name":"\u5ca9\u702c\u30c0\u30e0\u518d\u751f\u4e8b\u696d","survey_name":"\u4ee4\u548c\u5143\u5e74\u5ea6\u5ca9\u702c\u30c0\u30e0\u518d\u751f\u5824\u4f53\u5730\u8cea\u8abf\u67fb\u696d\u52d9","client_name":"\u56fd\u571f\u4ea4\u901a\u7701\u4e5d\u5dde\u5730\u65b9\u6574\u5099\u5c40\u5bae\u5d0e\u6cb3\u5ddd\u56fd\u9053\u4e8b\u52d9\u6240","boring_xml_url":47,"boring_view_url":1,"soilmap_view_url":null,"soiltest_xml_url":0,"soiltest_view_url":0},{"id":284976,"code":"NGIC201901308-0005","latitude":"35.307102777778","longitude":"139.30664166667","source_code":"","project_name":"","survey_name":"R1\u660e\u6cbb\u8a18\u5ff5\u5927\u78ef\u90b8\u5712\u5730\u76e4\u8abf\u67fb\u696d\u52d9","client_name":"\u56fd\u571f\u4ea4\u901a\u7701\u95a2\u6771\u5730\u65b9\u6574\u5099\u5c40\u56fd\u55b6\u662d\u548c\u8a18\u5ff5\u516c\u5712\u4e8b\u52d9\u6240","boring_xml_url":47,"boring_view_url":1,"soilmap_view_url":null,"soiltest_xml_url":47,"soiltest_view_url":47},{"id":284975,"code":"NGIC201901308-0004","latitude":"35.306897222222","longitude":"139.30582222222","source_code":"","project_name":"","survey_name":"R1\u660e\u6cbb\u8a18\u5ff5\u5927\u78ef\u90b8\u5712\u5730\u76e4\u8abf\u67fb\u696d\u52d9","client_name":"\u56fd\u571f\u4ea4\u901a\u7701\u95a2\u6771\u5730\u65b9\u6574\u5099\u5c40\u56fd\u55b6\u662d\u548c\u8a18\u5ff5\u516c\u5712\u4e8b\u52d9\u6240","boring_xml_url":47,"boring_view_url":1,"soilmap_view_url":null,"soiltest_xml_url":47,"soiltest_view_url":47},{"id":284974,"code":"NGIC201901308-0003","latitude":"35.306625","longitude":"139.30356944444","source_code":"","project_name":"","survey_name":"R1\u660e\u6cbb\u8a18\u5ff5\u5927\u78ef\u90b8\u5712\u5730\u76e4\u8abf\u67fb\u696d\u52d9","client_name":"\u56fd\u571f\u4ea4\u901a\u7701\u95a2\u6771\u5730\u65b9\u6574\u5099\u5c40\u56fd\u55b6\u662d\u548c\u8a18\u5ff5\u516c\u5712\u4e8b\u52d9\u6240","boring_xml_url":47,"boring_view_url":1,"soilmap_view_url":null,"soiltest_xml_url":47,"soiltest_view_url":47},{"id":284973,"code":"NGIC201901308-0002","latitude":"35.306775","longitude":"139.304225","source_code":"","project_name":"","survey_name":"R1\u660e\u6cbb\u8a18\u5ff5\u5927\u78ef\u90b8\u5712\u5730\u76e4\u8abf\u67fb\u696d\u52d9","client_name":"\u56fd\u571f\u4ea4\u901a\u7701\u95a2\u6771\u5730\u65b9\u6574\u5099\u5c40\u56fd\u55b6\u662d\u548c\u8a18\u5ff5\u516c\u5712\u4e8b\u52d9\u6240","boring_xml_url":47,"boring_view_url":1,"soilmap_view_url":null,"soiltest_xml_url":47,"soiltest_view_url":47},{"id":284972,"code":"NGIC201901308-0001","latitude":"35.306777777778","longitude":"139.30424722222","source_code":"","project_name":"","survey_name":"R1\u660e\u6cbb\u8a18\u5ff5\u5927\u78ef\u90b8\u5712\u5730\u76e4\u8abf\u67fb\u696d\u52d9","client_name":"\u56fd\u571f\u4ea4\u901a\u7701\u95a2\u6771\u5730\u65b9\u6574\u5099\u5c40\u56fd\u55b6\u662d\u548c\u8a18\u5ff5\u516c\u5712\u4e8b\u52d9\u6240","boring_xml_url":47,"boring_view_url":1,"soilmap_view_url":null,"soiltest_xml_url":47,"soiltest_view_url":47},{"id":284971,"code":"NGIC201901354-0020","latitude":"44.598038888889","longitude":"142.29068333333","source_code":"","project_name":"","survey_name":"\u5929\u5869\u5ddd\u4e0a\u6d41\u540d\u5bc4\u6cb3\u5ddd\u4e8b\u52d9\u6240\u7ba1\u5185\u5730\u8cea\u8abf\u67fb\u696d\u52d9","client_name":"\u56fd\u571f\u4ea4\u901a\u7701\u5317\u6d77\u9053\u958b\u767a\u5c40\u65ed\u5ddd\u958b\u767a\u5efa\u8a2d\u90e8\u3000\u540d\u5bc4\u6cb3\u5ddd\u4e8b\u52d9\u6240","boring_xml_url":47,"boring_view_url":1,"soilmap_view_url":null,"soiltest_xml_url":47,"soiltest_view_url":47},{"id":284970,"code":"NGIC201901354-0019","latitude":"44.599361111111","longitude":"142.29041111111","source_code":"","project_name":"","survey_name":"\u5929\u5869\u5ddd\u4e0a\u6d41\u540d\u5bc4\u6cb3\u5ddd\u4e8b\u52d9\u6240\u7ba1\u5185\u5730\u8cea\u8abf\u67fb\u696d\u52d9","client_name":"\u56fd\u571f\u4ea4\u901a\u7701\u5317\u6d77\u9053\u958b\u767a\u5c40\u65ed\u5ddd\u958b\u767a\u5efa\u8a2d\u90e8\u3000\u540d\u5bc4\u6cb3\u5ddd\u4e8b\u52d9\u6240","boring_xml_url":47,"boring_view_url":1,"soilmap_view_url":null,"soiltest_xml_url":47,"soiltest_view_url":47},{"id":284969,"code":"NGIC201901354-0018","latitude":"44.600691666667","longitude":"142.29100833333","source_code":"","project_name":"","survey_name":"\u5929\u5869\u5ddd\u4e0a\u6d41\u540d\u5bc4\u6cb3\u5ddd\u4e8b\u52d9\u6240\u7ba1\u5185\u5730\u8cea\u8abf\u67fb\u696d\u52d9","client_name":"\u56fd\u571f\u4ea4\u901a\u7701\u5317\u6d77\u9053\u958b\u767a\u5c40\u65ed\u5ddd\u958b\u767a\u5efa\u8a2d\u90e8\u3000\u540d\u5bc4\u6cb3\u5ddd\u4e8b\u52d9\u6240","boring_xml_url":47,"boring_view_url":1,"soilmap_view_url":null,"soiltest_xml_url":47,"soiltest_view_url":47},{"id":284968,"code":"NGIC201901354-0017","latitude":"44.602105555556","longitude":"142.29234722222","source_code":"","project_name":"","survey_name":"\u5929\u5869\u5ddd\u4e0a\u6d41\u540d\u5bc4\u6cb3\u5ddd\u4e8b\u52d9\u6240\u7ba1\u5185\u5730\u8cea\u8abf\u67fb\u696d\u52d9","client_name":"\u56fd\u571f\u4ea4\u901a\u7701\u5317\u6d77\u9053\u958b\u767a\u5c40\u65ed\u5ddd\u958b\u767a\u5efa\u8a2d\u90e8\u3000\u540d\u5bc4\u6cb3\u5ddd\u4e8b\u52d9\u6240","boring_xml_url":47,"boring_view_url":1,"soilmap_view_url":null,"soiltest_xml_url":47,"soiltest_view_url":47},{"id":284967,"code":"NGIC201901354-0016","latitude":"44.603008333333","longitude":"142.29416111111","source_code":"","project_name":"","survey_name":"\u5929\u5869\u5ddd\u4e0a\u6d41\u540d\u5bc4\u6cb3\u5ddd\u4e8b\u52d9\u6240\u7ba1\u5185\u5730\u8cea\u8abf\u67fb\u696d\u52d9","client_name":"\u56fd\u571f\u4ea4\u901a\u7701\u5317\u6d77\u9053\u958b\u767a\u5c40\u65ed\u5ddd\u958b\u767a\u5efa\u8a2d\u90e8\u3000\u540d\u5bc4\u6cb3\u5ddd\u4e8b\u52d9\u6240","boring_xml_url":47,"boring_view_url":1,"soilmap_view_url":null,"soiltest_xml_url":47,"soiltest_view_url":47},{"id":284966,"code":"NGIC201901354-0015","latitude":"44.603033333333","longitude":"142.29676111111","source_code":"","project_name":"","survey_name":"\u5929\u5869\u5ddd\u4e0a\u6d41\u540d\u5bc4\u6cb3\u5ddd\u4e8b\u52d9\u6240\u7ba1\u5185\u5730\u8cea\u8abf\u67fb\u696d\u52d9","client_name":"\u56fd\u571f\u4ea4\u901a\u7701\u5317\u6d77\u9053\u958b\u767a\u5c40\u65ed\u5ddd\u958b\u767a\u5efa\u8a2d\u90e8\u3000\u540d\u5bc4\u6cb3\u5ddd\u4e8b\u52d9\u6240","boring_xml_url":47,"boring_view_url":1,"soilmap_view_url":null,"soiltest_xml_url":47,"soiltest_view_url":47},{"id":284965,"code":"NGIC201901354-0014","latitude":"44.603336111111","longitude":"142.29855277778","source_code":"","project_name":"","survey_name":"\u5929\u5869\u5ddd\u4e0a\u6d41\u540d\u5bc4\u6cb3\u5ddd\u4e8b\u52d9\u6240\u7ba1\u5185\u5730\u8cea\u8abf\u67fb\u696d\u52d9","client_name":"\u56fd\u571f\u4ea4\u901a\u7701\u5317\u6d77\u9053\u958b\u767a\u5c40\u65ed\u5ddd\u958b\u767a\u5efa\u8a2d\u90e8\u3000\u540d\u5bc4\u6cb3\u5ddd\u4e8b\u52d9\u6240","boring_xml_url":47,"boring_view_url":1,"soilmap_view_url":null,"soiltest_xml_url":47,"soiltest_view_url":47},{"id":284964,"code":"NGIC201901354-0013","latitude":"44.299666666667","longitude":"142.65136666667","source_code":"","project_name":"","survey_name":"\u5929\u5869\u5ddd\u4e0a\u6d41\u540d\u5bc4\u6cb3\u5ddd\u4e8b\u52d9\u6240\u7ba1\u5185\u5730\u8cea\u8abf\u67fb\u696d\u52d9","client_name":"\u56fd\u571f\u4ea4\u901a\u7701\u5317\u6d77\u9053\u958b\u767a\u5c40\u65ed\u5ddd\u958b\u767a\u5efa\u8a2d\u90e8\u3000\u540d\u5bc4\u6cb3\u5ddd\u4e8b\u52d9\u6240","boring_xml_url":47,"boring_view_url":1,"soilmap_view_url":null,"soiltest_xml_url":47,"soiltest_view_url":47},{"id":284963,"code":"NGIC201901354-0012","latitude":"44.605386111111","longitude":"142.29817222222","source_code":"","project_name":"","survey_name":"\u5929\u5869\u5ddd\u4e0a\u6d41\u540d\u5bc4\u6cb3\u5ddd\u4e8b\u52d9\u6240\u7ba1\u5185\u5730\u8cea\u8abf\u67fb\u696d\u52d9","client_name":"\u56fd\u571f\u4ea4\u901a\u7701\u5317\u6d77\u9053\u958b\u767a\u5c40\u65ed\u5ddd\u958b\u767a\u5efa\u8a2d\u90e8\u3000\u540d\u5bc4\u6cb3\u5ddd\u4e8b\u52d9\u6240","boring_xml_url":47,"boring_view_url":1,"soilmap_view_url":null,"soiltest_xml_url":47,"soiltest_view_url":47},{"id":284962,"code":"NGIC201901354-0011","latitude":"44.604722222222","longitude":"142.30126111111","source_code":"","project_name":"","survey_name":"\u5929\u5869\u5ddd\u4e0a\u6d41\u540d\u5bc4\u6cb3\u5ddd\u4e8b\u52d9\u6240\u7ba1\u5185\u5730\u8cea\u8abf\u67fb\u696d\u52d9","client_name":"\u56fd\u571f\u4ea4\u901a\u7701\u5317\u6d77\u9053\u958b\u767a\u5c40\u65ed\u5ddd\u958b\u767a\u5efa\u8a2d\u90e8\u3000\u540d\u5bc4\u6cb3\u5ddd\u4e8b\u52d9\u6240","boring_xml_url":47,"boring_view_url":1,"soilmap_view_url":null,"soiltest_xml_url":47,"soiltest_view_url":47},{"id":284961,"code":"NGIC201901354-0010","latitude":"44.605247222222","longitude":"142.301275","source_code":"","project_name":"","survey_name":"\u5929\u5869\u5ddd\u4e0a\u6d41\u540d\u5bc4\u6cb3\u5ddd\u4e8b\u52d9\u6240\u7ba1\u5185\u5730\u8cea\u8abf\u67fb\u696d\u52d9","client_name":"\u56fd\u571f\u4ea4\u901a\u7701\u5317\u6d77\u9053\u958b\u767a\u5c40\u65ed\u5ddd\u958b\u767a\u5efa\u8a2d\u90e8\u3000\u540d\u5bc4\u6cb3\u5ddd\u4e8b\u52d9\u6240","boring_xml_url":47,"boring_view_url":1,"soilmap_view_url":null,"soiltest_xml_url":47,"soiltest_view_url":47},{"id":284960,"code":"NGIC201901354-0009","latitude":"44.604452777778","longitude":"142.30343055556","source_code":"","project_name":"","survey_name":"\u5929\u5869\u5ddd\u4e0a\u6d41\u540d\u5bc4\u6cb3\u5ddd\u4e8b\u52d9\u6240\u7ba1\u5185\u5730\u8cea\u8abf\u67fb\u696d\u52d9","client_name":"\u56fd\u571f\u4ea4\u901a\u7701\u5317\u6d77\u9053\u958b\u767a\u5c40\u65ed\u5ddd\u958b\u767a\u5efa\u8a2d\u90e8\u3000\u540d\u5bc4\u6cb3\u5ddd\u4e8b\u52d9\u6240","boring_xml_url":47,"boring_view_url":1,"soilmap_view_url":null,"soiltest_xml_url":47,"soiltest_view_url":47},{"id":284959,"code":"NGIC201901354-0008","latitude":"44.604488888889","longitude":"142.30516388889","source_code":"","project_name":"","survey_name":"\u5929\u5869\u5ddd\u4e0a\u6d41\u540d\u5bc4\u6cb3\u5ddd\u4e8b\u52d9\u6240\u7ba1\u5185\u5730\u8cea\u8abf\u67fb\u696d\u52d9","client_name":"\u56fd\u571f\u4ea4\u901a\u7701\u5317\u6d77\u9053\u958b\u767a\u5c40\u65ed\u5ddd\u958b\u767a\u5efa\u8a2d\u90e8\u3000\u540d\u5bc4\u6cb3\u5ddd\u4e8b\u52d9\u6240","boring_xml_url":47,"boring_view_url":1,"soilmap_view_url":null,"soiltest_xml_url":47,"soiltest_view_url":47},{"id":284958,"code":"NGIC201901354-0007","latitude":"44.605088888889","longitude":"142.30537777778","source_code":"","project_name":"","survey_name":"\u5929\u5869\u5ddd\u4e0a\u6d41\u540d\u5bc4\u6cb3\u5ddd\u4e8b\u52d9\u6240\u7ba1\u5185\u5730\u8cea\u8abf\u67fb\u696d\u52d9","client_name":"\u56fd\u571f\u4ea4\u901a\u7701\u5317\u6d77\u9053\u958b\u767a\u5c40\u65ed\u5ddd\u958b\u767a\u5efa\u8a2d\u90e8\u3000\u540d\u5bc4\u6cb3\u5ddd\u4e8b\u52d9\u6240","boring_xml_url":47,"boring_view_url":1,"soilmap_view_url":null,"soiltest_xml_url":47,"soiltest_view_url":47},{"id":284957,"code":"NGIC201901354-0006","latitude":"44.606008333333","longitude":"142.30469166667","source_code":"","project_name":"","survey_name":"\u5929\u5869\u5ddd\u4e0a\u6d41\u540d\u5bc4\u6cb3\u5ddd\u4e8b\u52d9\u6240\u7ba1\u5185\u5730\u8cea\u8abf\u67fb\u696d\u52d9","client_name":"\u56fd\u571f\u4ea4\u901a\u7701\u5317\u6d77\u9053\u958b\u767a\u5c40\u65ed\u5ddd\u958b\u767a\u5efa\u8a2d\u90e8\u3000\u540d\u5bc4\u6cb3\u5ddd\u4e8b\u52d9\u6240","boring_xml_url":47,"boring_view_url":1,"soilmap_view_url":null,"soiltest_xml_url":47,"soiltest_view_url":47},{"id":284956,"code":"NGIC201901354-0005","latitude":"44.607286111111","longitude":"142.30335555556","source_code":"","project_name":"","survey_name":"\u5929\u5869\u5ddd\u4e0a\u6d41\u540d\u5bc4\u6cb3\u5ddd\u4e8b\u52d9\u6240\u7ba1\u5185\u5730\u8cea\u8abf\u67fb\u696d\u52d9","client_name":"\u56fd\u571f\u4ea4\u901a\u7701\u5317\u6d77\u9053\u958b\u767a\u5c40\u65ed\u5ddd\u958b\u767a\u5efa\u8a2d\u90e8\u3000\u540d\u5bc4\u6cb3\u5ddd\u4e8b\u52d9\u6240","boring_xml_url":47,"boring_view_url":1,"soilmap_view_url":null,"soiltest_xml_url":47,"soiltest_view_url":47},{"id":284955,"code":"NGIC201901354-0004","latitude":"44.612291666667","longitude":"142.30105","source_code":"","project_name":"","survey_name":"\u5929\u5869\u5ddd\u4e0a\u6d41\u540d\u5bc4\u6cb3\u5ddd\u4e8b\u52d9\u6240\u7ba1\u5185\u5730\u8cea\u8abf\u67fb\u696d\u52d9","client_name":"\u56fd\u571f\u4ea4\u901a\u7701\u5317\u6d77\u9053\u958b\u767a\u5c40\u65ed\u5ddd\u958b\u767a\u5efa\u8a2d\u90e8\u3000\u540d\u5bc4\u6cb3\u5ddd\u4e8b\u52d9\u6240","boring_xml_url":47,"boring_view_url":1,"soilmap_view_url":null,"soiltest_xml_url":47,"soiltest_view_url":47},{"id":284954,"code":"NGIC201901354-0003","latitude":"44.613905555556","longitude":"142.30035277778","source_code":"","project_name":"","survey_name":"\u5929\u5869\u5ddd\u4e0a\u6d41\u540d\u5bc4\u6cb3\u5ddd\u4e8b\u52d9\u6240\u7ba1\u5185\u5730\u8cea\u8abf\u67fb\u696d\u52d9","client_name":"\u56fd\u571f\u4ea4\u901a\u7701\u5317\u6d77\u9053\u958b\u767a\u5c40\u65ed\u5ddd\u958b\u767a\u5efa\u8a2d\u90e8\u3000\u540d\u5bc4\u6cb3\u5ddd\u4e8b\u52d9\u6240","boring_xml_url":47,"boring_view_url":1,"soilmap_view_url":null,"soiltest_xml_url":47,"soiltest_view_url":47}]}}