{"header":{"xyz":{"source":[],"mosaic":false},"page":2271,"raw":{"soiltest_result":"0","bbox":"57.598333,109.544722,1.933333,163.806111","page":"2271"},"conditions":{"soiltest_result":0,"north":57.598333,"west":109.544722,"south":1.933333,"east":163.806111},"success":true,"message":""},"data":{"meta":{"total":212844,"page":2271,"pages":7095,"count":30},"values":[{"id":284697,"code":"NGIC201901193-0001","latitude":"34.833747138889","longitude":"135.28404813889","source_code":"","project_name":"\u540d\u5869\u9053\u8def\u6771\u4e45\u4fdd\u8336\u5712\u5730\u533a\u4ed6\u9053\u8def\u8a73\u7d30\u8a2d\u8a08\u696d\u52d9","survey_name":"\u540d\u5869\u9053\u8def\u6771\u4e45\u4fdd\u8336\u5712\u5730\u533a\u4ed6\u9053\u8def\u8a73\u7d30\u8a2d\u8a08\u696d\u52d9","client_name":"\u56fd\u571f\u4ea4\u901a\u7701\u8fd1\u757f\u5730\u65b9\u6574\u5099\u5c40\u5175\u5eab\u56fd\u9053\u4e8b\u52d9\u6240","boring_xml_url":47,"boring_view_url":1,"soilmap_view_url":null,"soiltest_xml_url":47,"soiltest_view_url":47},{"id":284696,"code":"NGIC201901264-0018","latitude":"38.584259805556","longitude":"140.63853080556","source_code":"","project_name":"\n      ","survey_name":"\u9cf4\u702c\u5ddd\u7dcf\u5408\u958b\u767a\u4ed8\u66ff\u56fd\u9053\u4e0a\u6d41\u90e8\u5730\u8cea\u8abf\u67fb","client_name":"\u56fd\u571f\u4ea4\u901a\u7701\u6771\u5317\u5730\u65b9\u6574\u5099\u5c40\u9cf4\u702c\u5ddd\u7dcf\u5408\u958b\u767a\u5de5\u4e8b\u4e8b\u52d9\u6240","boring_xml_url":47,"boring_view_url":1,"soilmap_view_url":null,"soiltest_xml_url":0,"soiltest_view_url":0},{"id":284695,"code":"NGIC201901264-0017","latitude":"38.587102305556","longitude":"140.63835822222","source_code":"","project_name":"\n      ","survey_name":"\u9cf4\u702c\u5ddd\u7dcf\u5408\u958b\u767a\u4ed8\u66ff\u56fd\u9053\u4e0a\u6d41\u90e8\u5730\u8cea\u8abf\u67fb","client_name":"\u56fd\u571f\u4ea4\u901a\u7701\u6771\u5317\u5730\u65b9\u6574\u5099\u5c40\u9cf4\u702c\u5ddd\u7dcf\u5408\u958b\u767a\u5de5\u4e8b\u4e8b\u52d9\u6240","boring_xml_url":47,"boring_view_url":1,"soilmap_view_url":null,"soiltest_xml_url":0,"soiltest_view_url":0},{"id":284694,"code":"NGIC201901264-0016","latitude":"38.587593833333","longitude":"140.6385205","source_code":"","project_name":"\n      ","survey_name":"\u9cf4\u702c\u5ddd\u7dcf\u5408\u958b\u767a\u4ed8\u66ff\u56fd\u9053\u4e0a\u6d41\u90e8\u5730\u8cea\u8abf\u67fb","client_name":"\u56fd\u571f\u4ea4\u901a\u7701\u6771\u5317\u5730\u65b9\u6574\u5099\u5c40\u9cf4\u702c\u5ddd\u7dcf\u5408\u958b\u767a\u5de5\u4e8b\u4e8b\u52d9\u6240","boring_xml_url":47,"boring_view_url":1,"soilmap_view_url":null,"soiltest_xml_url":0,"soiltest_view_url":0},{"id":284693,"code":"NGIC201901264-0015","latitude":"38.589651444444","longitude":"140.63837130556","source_code":"","project_name":"\n      ","survey_name":"\u9cf4\u702c\u5ddd\u7dcf\u5408\u958b\u767a\u4ed8\u66ff\u56fd\u9053\u4e0a\u6d41\u90e8\u5730\u8cea\u8abf\u67fb","client_name":"\u56fd\u571f\u4ea4\u901a\u7701\u6771\u5317\u5730\u65b9\u6574\u5099\u5c40\u9cf4\u702c\u5ddd\u7dcf\u5408\u958b\u767a\u5de5\u4e8b\u4e8b\u52d9\u6240","boring_xml_url":47,"boring_view_url":1,"soilmap_view_url":null,"soiltest_xml_url":0,"soiltest_view_url":0},{"id":284692,"code":"NGIC201901264-0014","latitude":"38.590439833333","longitude":"140.63787505556","source_code":"","project_name":"\n      ","survey_name":"\u9cf4\u702c\u5ddd\u7dcf\u5408\u958b\u767a\u4ed8\u66ff\u56fd\u9053\u4e0a\u6d41\u90e8\u5730\u8cea\u8abf\u67fb","client_name":"\u56fd\u571f\u4ea4\u901a\u7701\u6771\u5317\u5730\u65b9\u6574\u5099\u5c40\u9cf4\u702c\u5ddd\u7dcf\u5408\u958b\u767a\u5de5\u4e8b\u4e8b\u52d9\u6240","boring_xml_url":47,"boring_view_url":1,"soilmap_view_url":null,"soiltest_xml_url":0,"soiltest_view_url":0},{"id":284691,"code":"NGIC201901264-0013","latitude":"38.590208555556","longitude":"140.63764975","source_code":"","project_name":"\n      ","survey_name":"\u9cf4\u702c\u5ddd\u7dcf\u5408\u958b\u767a\u4ed8\u66ff\u56fd\u9053\u4e0a\u6d41\u90e8\u5730\u8cea\u8abf\u67fb","client_name":"\u56fd\u571f\u4ea4\u901a\u7701\u6771\u5317\u5730\u65b9\u6574\u5099\u5c40\u9cf4\u702c\u5ddd\u7dcf\u5408\u958b\u767a\u5de5\u4e8b\u4e8b\u52d9\u6240","boring_xml_url":47,"boring_view_url":1,"soilmap_view_url":null,"soiltest_xml_url":0,"soiltest_view_url":0},{"id":284690,"code":"NGIC201901264-0012","latitude":"38.590605555556","longitude":"140.63695308333","source_code":"","project_name":"\n      ","survey_name":"\u9cf4\u702c\u5ddd\u7dcf\u5408\u958b\u767a\u4ed8\u66ff\u56fd\u9053\u4e0a\u6d41\u90e8\u5730\u8cea\u8abf\u67fb","client_name":"\u56fd\u571f\u4ea4\u901a\u7701\u6771\u5317\u5730\u65b9\u6574\u5099\u5c40\u9cf4\u702c\u5ddd\u7dcf\u5408\u958b\u767a\u5de5\u4e8b\u4e8b\u52d9\u6240","boring_xml_url":47,"boring_view_url":1,"soilmap_view_url":null,"soiltest_xml_url":0,"soiltest_view_url":0},{"id":284689,"code":"NGIC201901264-0011","latitude":"38.590402972222","longitude":"140.63691794444","source_code":"","project_name":"\n      ","survey_name":"\u9cf4\u702c\u5ddd\u7dcf\u5408\u958b\u767a\u4ed8\u66ff\u56fd\u9053\u4e0a\u6d41\u90e8\u5730\u8cea\u8abf\u67fb","client_name":"\u56fd\u571f\u4ea4\u901a\u7701\u6771\u5317\u5730\u65b9\u6574\u5099\u5c40\u9cf4\u702c\u5ddd\u7dcf\u5408\u958b\u767a\u5de5\u4e8b\u4e8b\u52d9\u6240","boring_xml_url":47,"boring_view_url":1,"soilmap_view_url":null,"soiltest_xml_url":0,"soiltest_view_url":0},{"id":284688,"code":"NGIC201901264-0010","latitude":"38.590206194444","longitude":"140.6356815","source_code":"","project_name":"\n      ","survey_name":"\u9cf4\u702c\u5ddd\u7dcf\u5408\u958b\u767a\u4ed8\u66ff\u56fd\u9053\u4e0a\u6d41\u90e8\u5730\u8cea\u8abf\u67fb","client_name":"\u56fd\u571f\u4ea4\u901a\u7701\u6771\u5317\u5730\u65b9\u6574\u5099\u5c40\u9cf4\u702c\u5ddd\u7dcf\u5408\u958b\u767a\u5de5\u4e8b\u4e8b\u52d9\u6240","boring_xml_url":47,"boring_view_url":1,"soilmap_view_url":null,"soiltest_xml_url":0,"soiltest_view_url":0},{"id":284687,"code":"NGIC201901264-0009","latitude":"38.590382277778","longitude":"140.63524688889","source_code":"","project_name":"\n      ","survey_name":"\u9cf4\u702c\u5ddd\u7dcf\u5408\u958b\u767a\u4ed8\u66ff\u56fd\u9053\u4e0a\u6d41\u90e8\u5730\u8cea\u8abf\u67fb","client_name":"\u56fd\u571f\u4ea4\u901a\u7701\u6771\u5317\u5730\u65b9\u6574\u5099\u5c40\u9cf4\u702c\u5ddd\u7dcf\u5408\u958b\u767a\u5de5\u4e8b\u4e8b\u52d9\u6240","boring_xml_url":47,"boring_view_url":1,"soilmap_view_url":null,"soiltest_xml_url":0,"soiltest_view_url":0},{"id":284686,"code":"NGIC201901264-0008","latitude":"38.590217222222","longitude":"140.63531519444","source_code":"","project_name":"\n      ","survey_name":"\u9cf4\u702c\u5ddd\u7dcf\u5408\u958b\u767a\u4ed8\u66ff\u56fd\u9053\u4e0a\u6d41\u90e8\u5730\u8cea\u8abf\u67fb","client_name":"\u56fd\u571f\u4ea4\u901a\u7701\u6771\u5317\u5730\u65b9\u6574\u5099\u5c40\u9cf4\u702c\u5ddd\u7dcf\u5408\u958b\u767a\u5de5\u4e8b\u4e8b\u52d9\u6240","boring_xml_url":47,"boring_view_url":1,"soilmap_view_url":null,"soiltest_xml_url":0,"soiltest_view_url":0},{"id":284685,"code":"NGIC201901264-0007","latitude":"38.590212611111","longitude":"140.63459294444","source_code":"","project_name":"\n      ","survey_name":"\u9cf4\u702c\u5ddd\u7dcf\u5408\u958b\u767a\u4ed8\u66ff\u56fd\u9053\u4e0a\u6d41\u90e8\u5730\u8cea\u8abf\u67fb","client_name":"\u56fd\u571f\u4ea4\u901a\u7701\u6771\u5317\u5730\u65b9\u6574\u5099\u5c40\u9cf4\u702c\u5ddd\u7dcf\u5408\u958b\u767a\u5de5\u4e8b\u4e8b\u52d9\u6240","boring_xml_url":47,"boring_view_url":1,"soilmap_view_url":null,"soiltest_xml_url":0,"soiltest_view_url":0},{"id":284684,"code":"NGIC201901264-0006","latitude":"38.590050277778","longitude":"140.63466011111","source_code":"","project_name":"\n      ","survey_name":"\u9cf4\u702c\u5ddd\u7dcf\u5408\u958b\u767a\u4ed8\u66ff\u56fd\u9053\u4e0a\u6d41\u90e8\u5730\u8cea\u8abf\u67fb","client_name":"\u56fd\u571f\u4ea4\u901a\u7701\u6771\u5317\u5730\u65b9\u6574\u5099\u5c40\u9cf4\u702c\u5ddd\u7dcf\u5408\u958b\u767a\u5de5\u4e8b\u4e8b\u52d9\u6240","boring_xml_url":47,"boring_view_url":1,"soilmap_view_url":null,"soiltest_xml_url":0,"soiltest_view_url":0},{"id":284683,"code":"NGIC201901264-0005","latitude":"38.58966775","longitude":"140.63338216667","source_code":"","project_name":"\n      ","survey_name":"\u9cf4\u702c\u5ddd\u7dcf\u5408\u958b\u767a\u4ed8\u66ff\u56fd\u9053\u4e0a\u6d41\u90e8\u5730\u8cea\u8abf\u67fb","client_name":"\u56fd\u571f\u4ea4\u901a\u7701\u6771\u5317\u5730\u65b9\u6574\u5099\u5c40\u9cf4\u702c\u5ddd\u7dcf\u5408\u958b\u767a\u5de5\u4e8b\u4e8b\u52d9\u6240","boring_xml_url":47,"boring_view_url":1,"soilmap_view_url":null,"soiltest_xml_url":0,"soiltest_view_url":0},{"id":284682,"code":"NGIC201901264-0004","latitude":"38.589461861111","longitude":"140.63257425","source_code":"","project_name":"\n      ","survey_name":"\u9cf4\u702c\u5ddd\u7dcf\u5408\u958b\u767a\u4ed8\u66ff\u56fd\u9053\u4e0a\u6d41\u90e8\u5730\u8cea\u8abf\u67fb","client_name":"\u56fd\u571f\u4ea4\u901a\u7701\u6771\u5317\u5730\u65b9\u6574\u5099\u5c40\u9cf4\u702c\u5ddd\u7dcf\u5408\u958b\u767a\u5de5\u4e8b\u4e8b\u52d9\u6240","boring_xml_url":47,"boring_view_url":1,"soilmap_view_url":null,"soiltest_xml_url":0,"soiltest_view_url":0},{"id":284681,"code":"NGIC201901264-0003","latitude":"38.589233666667","longitude":"140.63167902778","source_code":"","project_name":"\n      ","survey_name":"\u9cf4\u702c\u5ddd\u7dcf\u5408\u958b\u767a\u4ed8\u66ff\u56fd\u9053\u4e0a\u6d41\u90e8\u5730\u8cea\u8abf\u67fb","client_name":"\u56fd\u571f\u4ea4\u901a\u7701\u6771\u5317\u5730\u65b9\u6574\u5099\u5c40\u9cf4\u702c\u5ddd\u7dcf\u5408\u958b\u767a\u5de5\u4e8b\u4e8b\u52d9\u6240","boring_xml_url":47,"boring_view_url":1,"soilmap_view_url":null,"soiltest_xml_url":0,"soiltest_view_url":0},{"id":284680,"code":"NGIC201901264-0002","latitude":"38.589038888889","longitude":"140.63091477778","source_code":"","project_name":"\n      ","survey_name":"\u9cf4\u702c\u5ddd\u7dcf\u5408\u958b\u767a\u4ed8\u66ff\u56fd\u9053\u4e0a\u6d41\u90e8\u5730\u8cea\u8abf\u67fb","client_name":"\u56fd\u571f\u4ea4\u901a\u7701\u6771\u5317\u5730\u65b9\u6574\u5099\u5c40\u9cf4\u702c\u5ddd\u7dcf\u5408\u958b\u767a\u5de5\u4e8b\u4e8b\u52d9\u6240","boring_xml_url":47,"boring_view_url":1,"soilmap_view_url":null,"soiltest_xml_url":0,"soiltest_view_url":0},{"id":284679,"code":"NGIC201901264-0001","latitude":"38.588875","longitude":"140.63027180556","source_code":"","project_name":"\n      ","survey_name":"\u9cf4\u702c\u5ddd\u7dcf\u5408\u958b\u767a\u4ed8\u66ff\u56fd\u9053\u4e0a\u6d41\u90e8\u5730\u8cea\u8abf\u67fb","client_name":"\u56fd\u571f\u4ea4\u901a\u7701\u6771\u5317\u5730\u65b9\u6574\u5099\u5c40\u9cf4\u702c\u5ddd\u7dcf\u5408\u958b\u767a\u5de5\u4e8b\u4e8b\u52d9\u6240","boring_xml_url":47,"boring_view_url":1,"soilmap_view_url":null,"soiltest_xml_url":0,"soiltest_view_url":0},{"id":284650,"code":"NGIC201901245-0008","latitude":"38.886144555556","longitude":"140.31742672222","source_code":"","project_name":"","survey_name":"\u91d1\u5c71\u5730\u533a\u5730\u8cea\u8abf\u67fb\u696d\u52d9","client_name":"\u56fd\u571f\u4ea4\u901a\u7701\u6771\u5317\u5730\u65b9\u6574\u5099\u5c40\u5c71\u5f62\u6cb3\u5ddd\u56fd\u9053\u4e8b\u52d9\u6240","boring_xml_url":47,"boring_view_url":1,"soilmap_view_url":null,"soiltest_xml_url":47,"soiltest_view_url":47},{"id":284649,"code":"NGIC201901245-0007","latitude":"38.912850861111","longitude":"140.32323544444","source_code":"","project_name":"","survey_name":"\u91d1\u5c71\u5730\u533a\u5730\u8cea\u8abf\u67fb\u696d\u52d9","client_name":"\u56fd\u571f\u4ea4\u901a\u7701\u6771\u5317\u5730\u65b9\u6574\u5099\u5c40\u5c71\u5f62\u6cb3\u5ddd\u56fd\u9053\u4e8b\u52d9\u6240","boring_xml_url":47,"boring_view_url":1,"soilmap_view_url":null,"soiltest_xml_url":47,"soiltest_view_url":47},{"id":284648,"code":"NGIC201901245-0006","latitude":"38.907622444444","longitude":"140.32106744444","source_code":"","project_name":"","survey_name":"\u91d1\u5c71\u5730\u533a\u5730\u8cea\u8abf\u67fb\u696d\u52d9","client_name":"\u56fd\u571f\u4ea4\u901a\u7701\u6771\u5317\u5730\u65b9\u6574\u5099\u5c40\u5c71\u5f62\u6cb3\u5ddd\u56fd\u9053\u4e8b\u52d9\u6240","boring_xml_url":47,"boring_view_url":1,"soilmap_view_url":null,"soiltest_xml_url":47,"soiltest_view_url":47},{"id":284647,"code":"NGIC201901245-0005","latitude":"38.907096972222","longitude":"140.32086169444","source_code":"","project_name":"","survey_name":"\u91d1\u5c71\u5730\u533a\u5730\u8cea\u8abf\u67fb\u696d\u52d9","client_name":"\u56fd\u571f\u4ea4\u901a\u7701\u6771\u5317\u5730\u65b9\u6574\u5099\u5c40\u5c71\u5f62\u6cb3\u5ddd\u56fd\u9053\u4e8b\u52d9\u6240","boring_xml_url":47,"boring_view_url":1,"soilmap_view_url":null,"soiltest_xml_url":0,"soiltest_view_url":0},{"id":284646,"code":"NGIC201901245-0004","latitude":"38.916963888889","longitude":"140.324925","source_code":"","project_name":"","survey_name":"\u91d1\u5c71\u5730\u533a\u5730\u8cea\u8abf\u67fb\u696d\u52d9","client_name":"\u56fd\u571f\u4ea4\u901a\u7701\u6771\u5317\u5730\u65b9\u6574\u5099\u5c40\u5c71\u5f62\u6cb3\u5ddd\u56fd\u9053\u4e8b\u52d9\u6240","boring_xml_url":47,"boring_view_url":1,"soilmap_view_url":null,"soiltest_xml_url":47,"soiltest_view_url":47},{"id":284645,"code":"NGIC201901245-0003","latitude":"38.917079444444","longitude":"140.32458972222","source_code":"","project_name":"","survey_name":"\u91d1\u5c71\u5730\u533a\u5730\u8cea\u8abf\u67fb\u696d\u52d9","client_name":"\u56fd\u571f\u4ea4\u901a\u7701\u6771\u5317\u5730\u65b9\u6574\u5099\u5c40\u5c71\u5f62\u6cb3\u5ddd\u56fd\u9053\u4e8b\u52d9\u6240","boring_xml_url":47,"boring_view_url":1,"soilmap_view_url":null,"soiltest_xml_url":0,"soiltest_view_url":0},{"id":284644,"code":"NGIC201901245-0002","latitude":"38.907975638889","longitude":"140.32120575","source_code":"","project_name":"","survey_name":"\u91d1\u5c71\u5730\u533a\u5730\u8cea\u8abf\u67fb\u696d\u52d9","client_name":"\u56fd\u571f\u4ea4\u901a\u7701\u6771\u5317\u5730\u65b9\u6574\u5099\u5c40\u5c71\u5f62\u6cb3\u5ddd\u56fd\u9053\u4e8b\u52d9\u6240","boring_xml_url":47,"boring_view_url":1,"soilmap_view_url":null,"soiltest_xml_url":0,"soiltest_view_url":0},{"id":284643,"code":"NGIC201901245-0001","latitude":"38.890537694444","longitude":"140.31696141667","source_code":"","project_name":"","survey_name":"\u91d1\u5c71\u5730\u533a\u5730\u8cea\u8abf\u67fb\u696d\u52d9","client_name":"\u56fd\u571f\u4ea4\u901a\u7701\u6771\u5317\u5730\u65b9\u6574\u5099\u5c40\u5c71\u5f62\u6cb3\u5ddd\u56fd\u9053\u4e8b\u52d9\u6240","boring_xml_url":47,"boring_view_url":1,"soilmap_view_url":null,"soiltest_xml_url":47,"soiltest_view_url":47},{"id":284627,"code":"NGIC201901223-0017","latitude":"36.003305555556","longitude":"140.11741666667","source_code":"","project_name":"\n      ","survey_name":"\u725b\u4e45\u571f\u6d66BP\u5730\u8cea\u8abf\u67fb(\u305d\u306e2)\u696d\u52d930K16","client_name":"\u56fd\u571f\u4ea4\u901a\u7701\u95a2\u6771\u5730\u65b9\u6574\u5099\u5c40\u5e38\u7dcf\u56fd\u9053\u4e8b\u52d9\u6240","boring_xml_url":47,"boring_view_url":1,"soilmap_view_url":null,"soiltest_xml_url":47,"soiltest_view_url":47},{"id":284626,"code":"NGIC201901223-0016","latitude":"36.003305555556","longitude":"140.11741666667","source_code":"","project_name":"\n      ","survey_name":"\u725b\u4e45\u571f\u6d66BP\u5730\u8cea\u8abf\u67fb(\u305d\u306e2)\u696d\u52d930K16","client_name":"\u56fd\u571f\u4ea4\u901a\u7701\u95a2\u6771\u5730\u65b9\u6574\u5099\u5c40\u5e38\u7dcf\u56fd\u9053\u4e8b\u52d9\u6240","boring_xml_url":47,"boring_view_url":1,"soilmap_view_url":null,"soiltest_xml_url":0,"soiltest_view_url":0},{"id":284625,"code":"NGIC201901223-0015","latitude":"36.000916666667","longitude":"140.11691666667","source_code":"","project_name":"\n      ","survey_name":"\u725b\u4e45\u571f\u6d66BP\u5730\u8cea\u8abf\u67fb(\u305d\u306e2)\u696d\u52d930K16","client_name":"\u56fd\u571f\u4ea4\u901a\u7701\u95a2\u6771\u5730\u65b9\u6574\u5099\u5c40\u5e38\u7dcf\u56fd\u9053\u4e8b\u52d9\u6240","boring_xml_url":47,"boring_view_url":1,"soilmap_view_url":null,"soiltest_xml_url":0,"soiltest_view_url":0}]}}