{"header":{"xyz":{"source":[],"mosaic":false},"page":2273,"raw":{"soiltest_result":"0","bbox":"57.598333,109.544722,1.933333,163.806111","page":"2273"},"conditions":{"soiltest_result":0,"north":57.598333,"west":109.544722,"south":1.933333,"east":163.806111},"success":true,"message":""},"data":{"meta":{"total":212844,"page":2273,"pages":7095,"count":30},"values":[{"id":284528,"code":"NGIC201901229-0003","latitude":"38.478305555556","longitude":"140.36169444444","source_code":"","project_name":"","survey_name":"\u4ee4\u548c\u5143\u5e74\u5ea6\u5c71\u5f62\u7ba1\u5185\u8edf\u5f31\u5730\u76e4\u89e3\u6790\u696d\u52d9","client_name":"\u56fd\u571f\u4ea4\u901a\u7701\u6771\u5317\u5730\u65b9\u6574\u5099\u5c40\u5c71\u5f62\u6cb3\u5ddd\u56fd\u9053\u4e8b\u52d9\u6240","boring_xml_url":47,"boring_view_url":1,"soilmap_view_url":null,"soiltest_xml_url":47,"soiltest_view_url":47},{"id":284527,"code":"NGIC201901229-0002","latitude":"38.476527777778","longitude":"140.36013888889","source_code":"","project_name":"","survey_name":"\u4ee4\u548c\u5143\u5e74\u5ea6\u5c71\u5f62\u7ba1\u5185\u8edf\u5f31\u5730\u76e4\u89e3\u6790\u696d\u52d9","client_name":"\u56fd\u571f\u4ea4\u901a\u7701\u6771\u5317\u5730\u65b9\u6574\u5099\u5c40\u5c71\u5f62\u6cb3\u5ddd\u56fd\u9053\u4e8b\u52d9\u6240","boring_xml_url":47,"boring_view_url":1,"soilmap_view_url":null,"soiltest_xml_url":47,"soiltest_view_url":47},{"id":284526,"code":"NGIC201901229-0001","latitude":"38.476555555556","longitude":"140.35941666667","source_code":"","project_name":"","survey_name":"\u4ee4\u548c\u5143\u5e74\u5ea6\u5c71\u5f62\u7ba1\u5185\u8edf\u5f31\u5730\u76e4\u89e3\u6790\u696d\u52d9","client_name":"\u56fd\u571f\u4ea4\u901a\u7701\u6771\u5317\u5730\u65b9\u6574\u5099\u5c40\u5c71\u5f62\u6cb3\u5ddd\u56fd\u9053\u4e8b\u52d9\u6240","boring_xml_url":47,"boring_view_url":1,"soilmap_view_url":null,"soiltest_xml_url":47,"soiltest_view_url":47},{"id":284521,"code":"NGIC201901258-0010","latitude":"43.014033333333","longitude":"141.56746666667","source_code":"","project_name":"\u30eb\u30eb\u30de\u30c3\u30d7\u5ddd\u5916\u5730\u8cea\u8abf\u67fb\u696d\u52d9","survey_name":"\u30eb\u30eb\u30de\u30c3\u30d7\u5ddd\u5916\u5730\u8cea\u8abf\u67fb\u696d\u52d9","client_name":"\u56fd\u571f\u4ea4\u901a\u7701\u5317\u6d77\u9053\u958b\u767a\u5c40\u672d\u5e4c\u958b\u767a\u5efa\u8a2d\u90e8\u5343\u6b73\u5ddd\u6cb3\u5ddd\u4e8b\u52d9\u6240","boring_xml_url":47,"boring_view_url":1,"soilmap_view_url":null,"soiltest_xml_url":47,"soiltest_view_url":47},{"id":284520,"code":"NGIC201901258-0009","latitude":"43.014383333333","longitude":"141.56726666667","source_code":"","project_name":"\u30eb\u30eb\u30de\u30c3\u30d7\u5ddd\u5916\u5730\u8cea\u8abf\u67fb\u696d\u52d9","survey_name":"\u30eb\u30eb\u30de\u30c3\u30d7\u5ddd\u5916\u5730\u8cea\u8abf\u67fb\u696d\u52d9","client_name":"\u56fd\u571f\u4ea4\u901a\u7701\u5317\u6d77\u9053\u958b\u767a\u5c40\u672d\u5e4c\u958b\u767a\u5efa\u8a2d\u90e8\u5343\u6b73\u5ddd\u6cb3\u5ddd\u4e8b\u52d9\u6240","boring_xml_url":47,"boring_view_url":1,"soilmap_view_url":null,"soiltest_xml_url":47,"soiltest_view_url":47},{"id":284519,"code":"NGIC201901258-0008","latitude":"42.880613888889","longitude":"141.64778055556","source_code":"","project_name":"\u30eb\u30eb\u30de\u30c3\u30d7\u5ddd\u5916\u5730\u8cea\u8abf\u67fb\u696d\u52d9","survey_name":"\u30eb\u30eb\u30de\u30c3\u30d7\u5ddd\u5916\u5730\u8cea\u8abf\u67fb\u696d\u52d9","client_name":"\u56fd\u571f\u4ea4\u901a\u7701\u5317\u6d77\u9053\u958b\u767a\u5c40\u672d\u5e4c\u958b\u767a\u5efa\u8a2d\u90e8\u5343\u6b73\u5ddd\u6cb3\u5ddd\u4e8b\u52d9\u6240","boring_xml_url":47,"boring_view_url":1,"soilmap_view_url":null,"soiltest_xml_url":47,"soiltest_view_url":47},{"id":284518,"code":"NGIC201901258-0007","latitude":"42.880597222222","longitude":"141.64776666667","source_code":"","project_name":"\u30eb\u30eb\u30de\u30c3\u30d7\u5ddd\u5916\u5730\u8cea\u8abf\u67fb\u696d\u52d9","survey_name":"\u30eb\u30eb\u30de\u30c3\u30d7\u5ddd\u5916\u5730\u8cea\u8abf\u67fb\u696d\u52d9","client_name":"\u56fd\u571f\u4ea4\u901a\u7701\u5317\u6d77\u9053\u958b\u767a\u5c40\u672d\u5e4c\u958b\u767a\u5efa\u8a2d\u90e8\u5343\u6b73\u5ddd\u6cb3\u5ddd\u4e8b\u52d9\u6240","boring_xml_url":47,"boring_view_url":1,"soilmap_view_url":null,"soiltest_xml_url":47,"soiltest_view_url":47},{"id":284517,"code":"NGIC201901258-0006","latitude":"42.880638888889","longitude":"141.647675","source_code":"","project_name":"\u30eb\u30eb\u30de\u30c3\u30d7\u5ddd\u5916\u5730\u8cea\u8abf\u67fb\u696d\u52d9","survey_name":"\u30eb\u30eb\u30de\u30c3\u30d7\u5ddd\u5916\u5730\u8cea\u8abf\u67fb\u696d\u52d9","client_name":"\u56fd\u571f\u4ea4\u901a\u7701\u5317\u6d77\u9053\u958b\u767a\u5c40\u672d\u5e4c\u958b\u767a\u5efa\u8a2d\u90e8\u5343\u6b73\u5ddd\u6cb3\u5ddd\u4e8b\u52d9\u6240","boring_xml_url":47,"boring_view_url":1,"soilmap_view_url":null,"soiltest_xml_url":47,"soiltest_view_url":47},{"id":284516,"code":"NGIC201901258-0005","latitude":"42.879744444444","longitude":"141.64637777778","source_code":"","project_name":"\u30eb\u30eb\u30de\u30c3\u30d7\u5ddd\u5916\u5730\u8cea\u8abf\u67fb\u696d\u52d9","survey_name":"\u30eb\u30eb\u30de\u30c3\u30d7\u5ddd\u5916\u5730\u8cea\u8abf\u67fb\u696d\u52d9","client_name":"\u56fd\u571f\u4ea4\u901a\u7701\u5317\u6d77\u9053\u958b\u767a\u5c40\u672d\u5e4c\u958b\u767a\u5efa\u8a2d\u90e8\u5343\u6b73\u5ddd\u6cb3\u5ddd\u4e8b\u52d9\u6240","boring_xml_url":47,"boring_view_url":1,"soilmap_view_url":null,"soiltest_xml_url":47,"soiltest_view_url":47},{"id":284515,"code":"NGIC201901258-0004","latitude":"42.879805555556","longitude":"141.64631666667","source_code":"","project_name":"\u30eb\u30eb\u30de\u30c3\u30d7\u5ddd\u5916\u5730\u8cea\u8abf\u67fb\u696d\u52d9","survey_name":"\u30eb\u30eb\u30de\u30c3\u30d7\u5ddd\u5916\u5730\u8cea\u8abf\u67fb\u696d\u52d9","client_name":"\u56fd\u571f\u4ea4\u901a\u7701\u5317\u6d77\u9053\u958b\u767a\u5c40\u672d\u5e4c\u958b\u767a\u5efa\u8a2d\u90e8\u5343\u6b73\u5ddd\u6cb3\u5ddd\u4e8b\u52d9\u6240","boring_xml_url":47,"boring_view_url":1,"soilmap_view_url":null,"soiltest_xml_url":47,"soiltest_view_url":47},{"id":284514,"code":"NGIC201901258-0003","latitude":"42.879813888889","longitude":"141.64625555556","source_code":"","project_name":"\u30eb\u30eb\u30de\u30c3\u30d7\u5ddd\u5916\u5730\u8cea\u8abf\u67fb\u696d\u52d9","survey_name":"\u30eb\u30eb\u30de\u30c3\u30d7\u5ddd\u5916\u5730\u8cea\u8abf\u67fb\u696d\u52d9","client_name":"\u56fd\u571f\u4ea4\u901a\u7701\u5317\u6d77\u9053\u958b\u767a\u5c40\u672d\u5e4c\u958b\u767a\u5efa\u8a2d\u90e8\u5343\u6b73\u5ddd\u6cb3\u5ddd\u4e8b\u52d9\u6240","boring_xml_url":47,"boring_view_url":1,"soilmap_view_url":null,"soiltest_xml_url":47,"soiltest_view_url":47},{"id":284513,"code":"NGIC201901258-0002","latitude":"42.942438888889","longitude":"141.58926388889","source_code":"","project_name":"\u30eb\u30eb\u30de\u30c3\u30d7\u5ddd\u5916\u5730\u8cea\u8abf\u67fb\u696d\u52d9","survey_name":"\u30eb\u30eb\u30de\u30c3\u30d7\u5ddd\u5916\u5730\u8cea\u8abf\u67fb\u696d\u52d9","client_name":"\u56fd\u571f\u4ea4\u901a\u7701\u5317\u6d77\u9053\u958b\u767a\u5c40\u672d\u5e4c\u958b\u767a\u5efa\u8a2d\u90e8\u5343\u6b73\u5ddd\u6cb3\u5ddd\u4e8b\u52d9\u6240","boring_xml_url":47,"boring_view_url":1,"soilmap_view_url":null,"soiltest_xml_url":47,"soiltest_view_url":47},{"id":284512,"code":"NGIC201901258-0001","latitude":"42.942405555556","longitude":"141.58936944444","source_code":"","project_name":"\u30eb\u30eb\u30de\u30c3\u30d7\u5ddd\u5916\u5730\u8cea\u8abf\u67fb\u696d\u52d9","survey_name":"\u30eb\u30eb\u30de\u30c3\u30d7\u5ddd\u5916\u5730\u8cea\u8abf\u67fb\u696d\u52d9","client_name":"\u56fd\u571f\u4ea4\u901a\u7701\u5317\u6d77\u9053\u958b\u767a\u5c40\u672d\u5e4c\u958b\u767a\u5efa\u8a2d\u90e8\u5343\u6b73\u5ddd\u6cb3\u5ddd\u4e8b\u52d9\u6240","boring_xml_url":47,"boring_view_url":1,"soilmap_view_url":null,"soiltest_xml_url":47,"soiltest_view_url":47},{"id":284509,"code":"NGIC201901227-0008","latitude":"35.367661111111","longitude":"137.093825","source_code":"","project_name":"\u4ee4\u548c\u5143\u5e74\u5ea6 \u591a\u6cbb\u898b\u7802\u9632\u59bb\u6728\u7ba1\u5185\u5730\u8cea\u8abf\u67fb\u696d\u52d9","survey_name":"\u4ee4\u548c\u5143\u5e74\u5ea6 \u591a\u6cbb\u898b\u7802\u9632\u59bb\u6728\u7ba1\u5185\u5730\u8cea\u8abf\u67fb\u696d\u52d9","client_name":"\u56fd\u571f\u4ea4\u901a\u7701\u4e2d\u90e8\u5730\u65b9\u6574\u5099\u5c40\u591a\u6cbb\u898b\u7802\u9632\u56fd\u9053\u4e8b\u52d9\u6240","boring_xml_url":47,"boring_view_url":1,"soilmap_view_url":null,"soiltest_xml_url":0,"soiltest_view_url":0},{"id":284508,"code":"NGIC201901227-0007","latitude":"35.367666666667","longitude":"137.09364166667","source_code":"","project_name":"\u4ee4\u548c\u5143\u5e74\u5ea6 \u591a\u6cbb\u898b\u7802\u9632\u59bb\u6728\u7ba1\u5185\u5730\u8cea\u8abf\u67fb\u696d\u52d9","survey_name":"\u4ee4\u548c\u5143\u5e74\u5ea6 \u591a\u6cbb\u898b\u7802\u9632\u59bb\u6728\u7ba1\u5185\u5730\u8cea\u8abf\u67fb\u696d\u52d9","client_name":"\u56fd\u571f\u4ea4\u901a\u7701\u4e2d\u90e8\u5730\u65b9\u6574\u5099\u5c40\u591a\u6cbb\u898b\u7802\u9632\u56fd\u9053\u4e8b\u52d9\u6240","boring_xml_url":47,"boring_view_url":1,"soilmap_view_url":null,"soiltest_xml_url":0,"soiltest_view_url":0},{"id":284507,"code":"NGIC201901227-0006","latitude":"35.367669444444","longitude":"137.09348611111","source_code":"","project_name":"\u4ee4\u548c\u5143\u5e74\u5ea6 \u591a\u6cbb\u898b\u7802\u9632\u59bb\u6728\u7ba1\u5185\u5730\u8cea\u8abf\u67fb\u696d\u52d9","survey_name":"\u4ee4\u548c\u5143\u5e74\u5ea6 \u591a\u6cbb\u898b\u7802\u9632\u59bb\u6728\u7ba1\u5185\u5730\u8cea\u8abf\u67fb\u696d\u52d9","client_name":"\u56fd\u571f\u4ea4\u901a\u7701\u4e2d\u90e8\u5730\u65b9\u6574\u5099\u5c40\u591a\u6cbb\u898b\u7802\u9632\u56fd\u9053\u4e8b\u52d9\u6240","boring_xml_url":47,"boring_view_url":1,"soilmap_view_url":null,"soiltest_xml_url":0,"soiltest_view_url":0},{"id":284506,"code":"NGIC201901227-0005","latitude":"35.367563888889","longitude":"137.09363888889","source_code":"","project_name":"\u4ee4\u548c\u5143\u5e74\u5ea6 \u591a\u6cbb\u898b\u7802\u9632\u59bb\u6728\u7ba1\u5185\u5730\u8cea\u8abf\u67fb\u696d\u52d9","survey_name":"\u4ee4\u548c\u5143\u5e74\u5ea6 \u591a\u6cbb\u898b\u7802\u9632\u59bb\u6728\u7ba1\u5185\u5730\u8cea\u8abf\u67fb\u696d\u52d9","client_name":"\u56fd\u571f\u4ea4\u901a\u7701\u4e2d\u90e8\u5730\u65b9\u6574\u5099\u5c40\u591a\u6cbb\u898b\u7802\u9632\u56fd\u9053\u4e8b\u52d9\u6240","boring_xml_url":47,"boring_view_url":1,"soilmap_view_url":null,"soiltest_xml_url":0,"soiltest_view_url":0},{"id":284505,"code":"NGIC201901227-0004","latitude":"35.366622222222","longitude":"137.091575","source_code":"","project_name":"\u4ee4\u548c\u5143\u5e74\u5ea6 \u591a\u6cbb\u898b\u7802\u9632\u59bb\u6728\u7ba1\u5185\u5730\u8cea\u8abf\u67fb\u696d\u52d9","survey_name":"\u4ee4\u548c\u5143\u5e74\u5ea6 \u591a\u6cbb\u898b\u7802\u9632\u59bb\u6728\u7ba1\u5185\u5730\u8cea\u8abf\u67fb\u696d\u52d9","client_name":"\u56fd\u571f\u4ea4\u901a\u7701\u4e2d\u90e8\u5730\u65b9\u6574\u5099\u5c40\u591a\u6cbb\u898b\u7802\u9632\u56fd\u9053\u4e8b\u52d9\u6240","boring_xml_url":47,"boring_view_url":1,"soilmap_view_url":null,"soiltest_xml_url":0,"soiltest_view_url":0},{"id":284504,"code":"NGIC201901227-0003","latitude":"35.366525","longitude":"137.09155555556","source_code":"","project_name":"\u4ee4\u548c\u5143\u5e74\u5ea6 \u591a\u6cbb\u898b\u7802\u9632\u59bb\u6728\u7ba1\u5185\u5730\u8cea\u8abf\u67fb\u696d\u52d9","survey_name":"\u4ee4\u548c\u5143\u5e74\u5ea6 \u591a\u6cbb\u898b\u7802\u9632\u59bb\u6728\u7ba1\u5185\u5730\u8cea\u8abf\u67fb\u696d\u52d9","client_name":"\u56fd\u571f\u4ea4\u901a\u7701\u4e2d\u90e8\u5730\u65b9\u6574\u5099\u5c40\u591a\u6cbb\u898b\u7802\u9632\u56fd\u9053\u4e8b\u52d9\u6240","boring_xml_url":47,"boring_view_url":1,"soilmap_view_url":null,"soiltest_xml_url":0,"soiltest_view_url":0},{"id":284503,"code":"NGIC201901227-0002","latitude":"35.366408333333","longitude":"137.09153333333","source_code":"","project_name":"\u4ee4\u548c\u5143\u5e74\u5ea6 \u591a\u6cbb\u898b\u7802\u9632\u59bb\u6728\u7ba1\u5185\u5730\u8cea\u8abf\u67fb\u696d\u52d9","survey_name":"\u4ee4\u548c\u5143\u5e74\u5ea6 \u591a\u6cbb\u898b\u7802\u9632\u59bb\u6728\u7ba1\u5185\u5730\u8cea\u8abf\u67fb\u696d\u52d9","client_name":"\u56fd\u571f\u4ea4\u901a\u7701\u4e2d\u90e8\u5730\u65b9\u6574\u5099\u5c40\u591a\u6cbb\u898b\u7802\u9632\u56fd\u9053\u4e8b\u52d9\u6240","boring_xml_url":47,"boring_view_url":1,"soilmap_view_url":null,"soiltest_xml_url":0,"soiltest_view_url":0},{"id":284502,"code":"NGIC201901227-0001","latitude":"35.366508333333","longitude":"137.09168055556","source_code":"","project_name":"\u4ee4\u548c\u5143\u5e74\u5ea6 \u591a\u6cbb\u898b\u7802\u9632\u59bb\u6728\u7ba1\u5185\u5730\u8cea\u8abf\u67fb\u696d\u52d9","survey_name":"\u4ee4\u548c\u5143\u5e74\u5ea6 \u591a\u6cbb\u898b\u7802\u9632\u59bb\u6728\u7ba1\u5185\u5730\u8cea\u8abf\u67fb\u696d\u52d9","client_name":"\u56fd\u571f\u4ea4\u901a\u7701\u4e2d\u90e8\u5730\u65b9\u6574\u5099\u5c40\u591a\u6cbb\u898b\u7802\u9632\u56fd\u9053\u4e8b\u52d9\u6240","boring_xml_url":47,"boring_view_url":1,"soilmap_view_url":null,"soiltest_xml_url":0,"soiltest_view_url":0},{"id":284501,"code":"NGIC201901160-0005","latitude":"40.805055555556","longitude":"140.40615555556","source_code":"","project_name":"","survey_name":"\u7a32\u76db\u5730\u533a\u5730\u8cea\u8abf\u67fb","client_name":"\u56fd\u571f\u4ea4\u901a\u7701\u6771\u5317\u5730\u65b9\u6574\u5099\u5c40\u9752\u68ee\u6cb3\u5ddd\u56fd\u9053\u4e8b\u52d9\u6240","boring_xml_url":47,"boring_view_url":1,"soilmap_view_url":null,"soiltest_xml_url":47,"soiltest_view_url":47},{"id":284500,"code":"NGIC201901160-0004","latitude":"40.805330555556","longitude":"140.40773888889","source_code":"","project_name":"","survey_name":"\u7a32\u76db\u5730\u533a\u5730\u8cea\u8abf\u67fb","client_name":"\u56fd\u571f\u4ea4\u901a\u7701\u6771\u5317\u5730\u65b9\u6574\u5099\u5c40\u9752\u68ee\u6cb3\u5ddd\u56fd\u9053\u4e8b\u52d9\u6240","boring_xml_url":47,"boring_view_url":1,"soilmap_view_url":null,"soiltest_xml_url":47,"soiltest_view_url":47},{"id":284499,"code":"NGIC201901160-0003","latitude":"40.806169444444","longitude":"140.41243055556","source_code":"","project_name":"","survey_name":"\u7a32\u76db\u5730\u533a\u5730\u8cea\u8abf\u67fb","client_name":"\u56fd\u571f\u4ea4\u901a\u7701\u6771\u5317\u5730\u65b9\u6574\u5099\u5c40\u9752\u68ee\u6cb3\u5ddd\u56fd\u9053\u4e8b\u52d9\u6240","boring_xml_url":47,"boring_view_url":1,"soilmap_view_url":null,"soiltest_xml_url":47,"soiltest_view_url":47},{"id":284498,"code":"NGIC201901160-0002","latitude":"40.807286111111","longitude":"140.41818055556","source_code":"","project_name":"","survey_name":"\u7a32\u76db\u5730\u533a\u5730\u8cea\u8abf\u67fb","client_name":"\u56fd\u571f\u4ea4\u901a\u7701\u6771\u5317\u5730\u65b9\u6574\u5099\u5c40\u9752\u68ee\u6cb3\u5ddd\u56fd\u9053\u4e8b\u52d9\u6240","boring_xml_url":47,"boring_view_url":1,"soilmap_view_url":null,"soiltest_xml_url":47,"soiltest_view_url":47},{"id":284497,"code":"NGIC201901160-0001","latitude":"40.814444444444","longitude":"140.75083333333","source_code":"","project_name":"","survey_name":"\u7a32\u76db\u5730\u533a\u5730\u8cea\u8abf\u67fb","client_name":"\u56fd\u571f\u4ea4\u901a\u7701\u6771\u5317\u5730\u65b9\u6574\u5099\u5c40\u9752\u68ee\u6cb3\u5ddd\u56fd\u9053\u4e8b\u52d9\u6240","boring_xml_url":47,"boring_view_url":1,"soilmap_view_url":null,"soiltest_xml_url":0,"soiltest_view_url":0},{"id":284487,"code":"NGIC201901191-0008","latitude":"33.587981055556","longitude":"132.51450397222","source_code":"","project_name":"","survey_name":"\u4ee4\u548c\u5143\u5e74\u5ea6\u80b1\u5ddd\u7ba1\u5185\u5730\u8cea\u8abf\u67fb\uff08\u305d\u306e3\uff09\u696d\u52d9","client_name":"\u56fd\u571f\u4ea4\u901a\u7701\u56db\u56fd\u5730\u65b9\u6574\u5099\u5c40\u5927\u6d32\u6cb3\u5ddd\u56fd\u9053\u4e8b\u52d9\u6240","boring_xml_url":47,"boring_view_url":1,"soilmap_view_url":null,"soiltest_xml_url":47,"soiltest_view_url":47},{"id":284486,"code":"NGIC201901191-0007","latitude":"33.5880615","longitude":"132.51245047222","source_code":"","project_name":"","survey_name":"\u4ee4\u548c\u5143\u5e74\u5ea6\u80b1\u5ddd\u7ba1\u5185\u5730\u8cea\u8abf\u67fb\uff08\u305d\u306e3\uff09\u696d\u52d9","client_name":"\u56fd\u571f\u4ea4\u901a\u7701\u56db\u56fd\u5730\u65b9\u6574\u5099\u5c40\u5927\u6d32\u6cb3\u5ddd\u56fd\u9053\u4e8b\u52d9\u6240","boring_xml_url":47,"boring_view_url":1,"soilmap_view_url":null,"soiltest_xml_url":47,"soiltest_view_url":47},{"id":284485,"code":"NGIC201901191-0006","latitude":"33.588823305556","longitude":"132.51158186111","source_code":"","project_name":"","survey_name":"\u4ee4\u548c\u5143\u5e74\u5ea6\u80b1\u5ddd\u7ba1\u5185\u5730\u8cea\u8abf\u67fb\uff08\u305d\u306e3\uff09\u696d\u52d9","client_name":"\u56fd\u571f\u4ea4\u901a\u7701\u56db\u56fd\u5730\u65b9\u6574\u5099\u5c40\u5927\u6d32\u6cb3\u5ddd\u56fd\u9053\u4e8b\u52d9\u6240","boring_xml_url":47,"boring_view_url":1,"soilmap_view_url":null,"soiltest_xml_url":47,"soiltest_view_url":47},{"id":284484,"code":"NGIC201901191-0005","latitude":"33.586029805556","longitude":"132.51656091667","source_code":"","project_name":"","survey_name":"\u4ee4\u548c\u5143\u5e74\u5ea6\u80b1\u5ddd\u7ba1\u5185\u5730\u8cea\u8abf\u67fb\uff08\u305d\u306e3\uff09\u696d\u52d9","client_name":"\u56fd\u571f\u4ea4\u901a\u7701\u56db\u56fd\u5730\u65b9\u6574\u5099\u5c40\u5927\u6d32\u6cb3\u5ddd\u56fd\u9053\u4e8b\u52d9\u6240","boring_xml_url":47,"boring_view_url":1,"soilmap_view_url":null,"soiltest_xml_url":47,"soiltest_view_url":47}]}}