{"header":{"xyz":{"source":[],"mosaic":false},"page":2275,"raw":{"soiltest_result":"0","bbox":"57.598333,109.544722,1.933333,163.806111","page":"2275"},"conditions":{"soiltest_result":0,"north":57.598333,"west":109.544722,"south":1.933333,"east":163.806111},"success":true,"message":""},"data":{"meta":{"total":212844,"page":2275,"pages":7095,"count":30},"values":[{"id":284325,"code":"NGIC201901206-0006","latitude":"38.578988888889","longitude":"139.82516111111","source_code":"","project_name":"","survey_name":"\u5bd2\u6cb3\u6c5f\u5ddd\u6d41\u57df\u6728\u6238\u53e3\u6ca2\u307b\u304b\u5730\u8cea\u8abf\u67fb","client_name":"\u56fd\u571f\u4ea4\u901a\u7701\u6771\u5317\u5730\u65b9\u6574\u5099\u5c40\u65b0\u5e84\u6cb3\u5ddd\u4e8b\u52d9\u6240","boring_xml_url":47,"boring_view_url":1,"soilmap_view_url":null,"soiltest_xml_url":0,"soiltest_view_url":0},{"id":284324,"code":"NGIC201901206-0005","latitude":"38.579166666667","longitude":"139.82504444444","source_code":"","project_name":"","survey_name":"\u5bd2\u6cb3\u6c5f\u5ddd\u6d41\u57df\u6728\u6238\u53e3\u6ca2\u307b\u304b\u5730\u8cea\u8abf\u67fb","client_name":"\u56fd\u571f\u4ea4\u901a\u7701\u6771\u5317\u5730\u65b9\u6574\u5099\u5c40\u65b0\u5e84\u6cb3\u5ddd\u4e8b\u52d9\u6240","boring_xml_url":47,"boring_view_url":1,"soilmap_view_url":null,"soiltest_xml_url":0,"soiltest_view_url":0},{"id":284323,"code":"NGIC201901206-0004","latitude":"38.578986111111","longitude":"139.82504722222","source_code":"","project_name":"","survey_name":"\u5bd2\u6cb3\u6c5f\u5ddd\u6d41\u57df\u6728\u6238\u53e3\u6ca2\u307b\u304b\u5730\u8cea\u8abf\u67fb","client_name":"\u56fd\u571f\u4ea4\u901a\u7701\u6771\u5317\u5730\u65b9\u6574\u5099\u5c40\u65b0\u5e84\u6cb3\u5ddd\u4e8b\u52d9\u6240","boring_xml_url":47,"boring_view_url":1,"soilmap_view_url":null,"soiltest_xml_url":0,"soiltest_view_url":0},{"id":284322,"code":"NGIC201901206-0003","latitude":"38.578825","longitude":"139.82505","source_code":"","project_name":"","survey_name":"\u5bd2\u6cb3\u6c5f\u5ddd\u6d41\u57df\u6728\u6238\u53e3\u6ca2\u307b\u304b\u5730\u8cea\u8abf\u67fb","client_name":"\u56fd\u571f\u4ea4\u901a\u7701\u6771\u5317\u5730\u65b9\u6574\u5099\u5c40\u65b0\u5e84\u6cb3\u5ddd\u4e8b\u52d9\u6240","boring_xml_url":47,"boring_view_url":1,"soilmap_view_url":null,"soiltest_xml_url":0,"soiltest_view_url":0},{"id":284321,"code":"NGIC201901206-0002","latitude":"38.623630555556","longitude":"140.22536111111","source_code":"","project_name":"","survey_name":"\u5bd2\u6cb3\u6c5f\u5ddd\u6d41\u57df\u6728\u6238\u53e3\u6ca2\u307b\u304b\u5730\u8cea\u8abf\u67fb","client_name":"\u56fd\u571f\u4ea4\u901a\u7701\u6771\u5317\u5730\u65b9\u6574\u5099\u5c40\u65b0\u5e84\u6cb3\u5ddd\u4e8b\u52d9\u6240","boring_xml_url":47,"boring_view_url":1,"soilmap_view_url":null,"soiltest_xml_url":0,"soiltest_view_url":0},{"id":284320,"code":"NGIC201901206-0001","latitude":"38.622497222222","longitude":"140.22246666667","source_code":"","project_name":"","survey_name":"\u5bd2\u6cb3\u6c5f\u5ddd\u6d41\u57df\u6728\u6238\u53e3\u6ca2\u307b\u304b\u5730\u8cea\u8abf\u67fb","client_name":"\u56fd\u571f\u4ea4\u901a\u7701\u6771\u5317\u5730\u65b9\u6574\u5099\u5c40\u65b0\u5e84\u6cb3\u5ddd\u4e8b\u52d9\u6240","boring_xml_url":47,"boring_view_url":1,"soilmap_view_url":null,"soiltest_xml_url":0,"soiltest_view_url":0},{"id":284306,"code":"NGIC201901143-0009","latitude":"33.545166666667","longitude":"133.04988888889","source_code":"","project_name":"","survey_name":"\u4ee4\u548c\u5143\u5e74\u5ea6\u677e\u5c71\u5916\u74b0\u72b6\u9053\u8def\u30a4\u30f3\u30bf\u30fc\u6771\u7dda\u5730\u8cea\u8abf\u67fb\uff08\u305d\u306e1\uff09\u696d\u52d9","client_name":"\u56fd\u571f\u4ea4\u901a\u7701\u56db\u56fd\u5730\u65b9\u6574\u5099\u5c40\u677e\u5c71\u6cb3\u5ddd\u56fd\u9053\u4e8b\u52d9\u6240","boring_xml_url":47,"boring_view_url":1,"soilmap_view_url":null,"soiltest_xml_url":0,"soiltest_view_url":0},{"id":284305,"code":"NGIC201901143-0008","latitude":"33.808597222222","longitude":"132.799925","source_code":"","project_name":"","survey_name":"\u4ee4\u548c\u5143\u5e74\u5ea6\u677e\u5c71\u5916\u74b0\u72b6\u9053\u8def\u30a4\u30f3\u30bf\u30fc\u6771\u7dda\u5730\u8cea\u8abf\u67fb\uff08\u305d\u306e1\uff09\u696d\u52d9","client_name":"\u56fd\u571f\u4ea4\u901a\u7701\u56db\u56fd\u5730\u65b9\u6574\u5099\u5c40\u677e\u5c71\u6cb3\u5ddd\u56fd\u9053\u4e8b\u52d9\u6240","boring_xml_url":47,"boring_view_url":1,"soilmap_view_url":null,"soiltest_xml_url":47,"soiltest_view_url":47},{"id":284304,"code":"NGIC201901143-0007","latitude":"33.807480555556","longitude":"132.79915","source_code":"","project_name":"","survey_name":"\u4ee4\u548c\u5143\u5e74\u5ea6\u677e\u5c71\u5916\u74b0\u72b6\u9053\u8def\u30a4\u30f3\u30bf\u30fc\u6771\u7dda\u5730\u8cea\u8abf\u67fb\uff08\u305d\u306e1\uff09\u696d\u52d9","client_name":"\u56fd\u571f\u4ea4\u901a\u7701\u56db\u56fd\u5730\u65b9\u6574\u5099\u5c40\u677e\u5c71\u6cb3\u5ddd\u56fd\u9053\u4e8b\u52d9\u6240","boring_xml_url":47,"boring_view_url":1,"soilmap_view_url":null,"soiltest_xml_url":47,"soiltest_view_url":47},{"id":284303,"code":"NGIC201901143-0006","latitude":"33.806061111111","longitude":"132.798275","source_code":"","project_name":"","survey_name":"\u4ee4\u548c\u5143\u5e74\u5ea6\u677e\u5c71\u5916\u74b0\u72b6\u9053\u8def\u30a4\u30f3\u30bf\u30fc\u6771\u7dda\u5730\u8cea\u8abf\u67fb\uff08\u305d\u306e1\uff09\u696d\u52d9","client_name":"\u56fd\u571f\u4ea4\u901a\u7701\u56db\u56fd\u5730\u65b9\u6574\u5099\u5c40\u677e\u5c71\u6cb3\u5ddd\u56fd\u9053\u4e8b\u52d9\u6240","boring_xml_url":47,"boring_view_url":1,"soilmap_view_url":null,"soiltest_xml_url":47,"soiltest_view_url":47},{"id":284302,"code":"NGIC201901143-0005","latitude":"33.803169444444","longitude":"132.79588055556","source_code":"","project_name":"","survey_name":"\u4ee4\u548c\u5143\u5e74\u5ea6\u677e\u5c71\u5916\u74b0\u72b6\u9053\u8def\u30a4\u30f3\u30bf\u30fc\u6771\u7dda\u5730\u8cea\u8abf\u67fb\uff08\u305d\u306e1\uff09\u696d\u52d9","client_name":"\u56fd\u571f\u4ea4\u901a\u7701\u56db\u56fd\u5730\u65b9\u6574\u5099\u5c40\u677e\u5c71\u6cb3\u5ddd\u56fd\u9053\u4e8b\u52d9\u6240","boring_xml_url":47,"boring_view_url":1,"soilmap_view_url":null,"soiltest_xml_url":47,"soiltest_view_url":47},{"id":284301,"code":"NGIC201901143-0004","latitude":"33.802508333333","longitude":"132.79408333333","source_code":"","project_name":"","survey_name":"\u4ee4\u548c\u5143\u5e74\u5ea6\u677e\u5c71\u5916\u74b0\u72b6\u9053\u8def\u30a4\u30f3\u30bf\u30fc\u6771\u7dda\u5730\u8cea\u8abf\u67fb\uff08\u305d\u306e1\uff09\u696d\u52d9","client_name":"\u56fd\u571f\u4ea4\u901a\u7701\u56db\u56fd\u5730\u65b9\u6574\u5099\u5c40\u677e\u5c71\u6cb3\u5ddd\u56fd\u9053\u4e8b\u52d9\u6240","boring_xml_url":47,"boring_view_url":1,"soilmap_view_url":null,"soiltest_xml_url":47,"soiltest_view_url":47},{"id":284300,"code":"NGIC201901143-0003","latitude":"33.802416666667","longitude":"132.79283055556","source_code":"","project_name":"","survey_name":"\u4ee4\u548c\u5143\u5e74\u5ea6\u677e\u5c71\u5916\u74b0\u72b6\u9053\u8def\u30a4\u30f3\u30bf\u30fc\u6771\u7dda\u5730\u8cea\u8abf\u67fb\uff08\u305d\u306e1\uff09\u696d\u52d9","client_name":"\u56fd\u571f\u4ea4\u901a\u7701\u56db\u56fd\u5730\u65b9\u6574\u5099\u5c40\u677e\u5c71\u6cb3\u5ddd\u56fd\u9053\u4e8b\u52d9\u6240","boring_xml_url":47,"boring_view_url":1,"soilmap_view_url":null,"soiltest_xml_url":47,"soiltest_view_url":47},{"id":284299,"code":"NGIC201901143-0002","latitude":"33.802419444444","longitude":"132.79148055556","source_code":"","project_name":"","survey_name":"\u4ee4\u548c\u5143\u5e74\u5ea6\u677e\u5c71\u5916\u74b0\u72b6\u9053\u8def\u30a4\u30f3\u30bf\u30fc\u6771\u7dda\u5730\u8cea\u8abf\u67fb\uff08\u305d\u306e1\uff09\u696d\u52d9","client_name":"\u56fd\u571f\u4ea4\u901a\u7701\u56db\u56fd\u5730\u65b9\u6574\u5099\u5c40\u677e\u5c71\u6cb3\u5ddd\u56fd\u9053\u4e8b\u52d9\u6240","boring_xml_url":47,"boring_view_url":1,"soilmap_view_url":null,"soiltest_xml_url":47,"soiltest_view_url":47},{"id":284298,"code":"NGIC201901143-0001","latitude":"33.802422222222","longitude":"132.78975277778","source_code":"","project_name":"","survey_name":"\u4ee4\u548c\u5143\u5e74\u5ea6\u677e\u5c71\u5916\u74b0\u72b6\u9053\u8def\u30a4\u30f3\u30bf\u30fc\u6771\u7dda\u5730\u8cea\u8abf\u67fb\uff08\u305d\u306e1\uff09\u696d\u52d9","client_name":"\u56fd\u571f\u4ea4\u901a\u7701\u56db\u56fd\u5730\u65b9\u6574\u5099\u5c40\u677e\u5c71\u6cb3\u5ddd\u56fd\u9053\u4e8b\u52d9\u6240","boring_xml_url":47,"boring_view_url":1,"soilmap_view_url":null,"soiltest_xml_url":47,"soiltest_view_url":47},{"id":284292,"code":"NGIC201901195-0013","latitude":"36.793410861111","longitude":"139.70507594444","source_code":"","project_name":"H31\u65e5\u5149\u7802\u9632\u7ba1\u5185\u7802\u9632\u65bd\u8a2d\u5730\u8cea\u8abf\u67fb\u696d\u52d9","survey_name":"H31\u65e5\u5149\u7802\u9632\u7ba1\u5185\u7802\u9632\u65bd\u8a2d\u5730\u8cea\u8abf\u67fb\u696d\u52d9","client_name":"\u56fd\u571f\u4ea4\u901a\u7701\u95a2\u6771\u5730\u65b9\u6574\u5099\u5c40\u65e5\u5149\u7802\u9632\u4e8b\u52d9\u6240","boring_xml_url":47,"boring_view_url":1,"soilmap_view_url":null,"soiltest_xml_url":0,"soiltest_view_url":0},{"id":284291,"code":"NGIC201901195-0012","latitude":"36.793512888889","longitude":"139.70532130556","source_code":"","project_name":"H31\u65e5\u5149\u7802\u9632\u7ba1\u5185\u7802\u9632\u65bd\u8a2d\u5730\u8cea\u8abf\u67fb\u696d\u52d9","survey_name":"H31\u65e5\u5149\u7802\u9632\u7ba1\u5185\u7802\u9632\u65bd\u8a2d\u5730\u8cea\u8abf\u67fb\u696d\u52d9","client_name":"\u56fd\u571f\u4ea4\u901a\u7701\u95a2\u6771\u5730\u65b9\u6574\u5099\u5c40\u65e5\u5149\u7802\u9632\u4e8b\u52d9\u6240","boring_xml_url":47,"boring_view_url":1,"soilmap_view_url":null,"soiltest_xml_url":0,"soiltest_view_url":0},{"id":284290,"code":"NGIC201901195-0011","latitude":"36.989654194444","longitude":"139.68413186111","source_code":"","project_name":"H31\u65e5\u5149\u7802\u9632\u7ba1\u5185\u7802\u9632\u65bd\u8a2d\u5730\u8cea\u8abf\u67fb\u696d\u52d9","survey_name":"H31\u65e5\u5149\u7802\u9632\u7ba1\u5185\u7802\u9632\u65bd\u8a2d\u5730\u8cea\u8abf\u67fb\u696d\u52d9","client_name":"\u56fd\u571f\u4ea4\u901a\u7701\u95a2\u6771\u5730\u65b9\u6574\u5099\u5c40\u65e5\u5149\u7802\u9632\u4e8b\u52d9\u6240","boring_xml_url":47,"boring_view_url":1,"soilmap_view_url":null,"soiltest_xml_url":0,"soiltest_view_url":0},{"id":284289,"code":"NGIC201901195-0010","latitude":"36.989700222222","longitude":"139.68416708333","source_code":"","project_name":"H31\u65e5\u5149\u7802\u9632\u7ba1\u5185\u7802\u9632\u65bd\u8a2d\u5730\u8cea\u8abf\u67fb\u696d\u52d9","survey_name":"H31\u65e5\u5149\u7802\u9632\u7ba1\u5185\u7802\u9632\u65bd\u8a2d\u5730\u8cea\u8abf\u67fb\u696d\u52d9","client_name":"\u56fd\u571f\u4ea4\u901a\u7701\u95a2\u6771\u5730\u65b9\u6574\u5099\u5c40\u65e5\u5149\u7802\u9632\u4e8b\u52d9\u6240","boring_xml_url":47,"boring_view_url":1,"soilmap_view_url":null,"soiltest_xml_url":0,"soiltest_view_url":0},{"id":284288,"code":"NGIC201901195-0009","latitude":"36.989120944444","longitude":"139.68469997222","source_code":"","project_name":"H31\u65e5\u5149\u7802\u9632\u7ba1\u5185\u7802\u9632\u65bd\u8a2d\u5730\u8cea\u8abf\u67fb\u696d\u52d9","survey_name":"H31\u65e5\u5149\u7802\u9632\u7ba1\u5185\u7802\u9632\u65bd\u8a2d\u5730\u8cea\u8abf\u67fb\u696d\u52d9","client_name":"\u56fd\u571f\u4ea4\u901a\u7701\u95a2\u6771\u5730\u65b9\u6574\u5099\u5c40\u65e5\u5149\u7802\u9632\u4e8b\u52d9\u6240","boring_xml_url":47,"boring_view_url":1,"soilmap_view_url":null,"soiltest_xml_url":0,"soiltest_view_url":0},{"id":284287,"code":"NGIC201901195-0008","latitude":"36.98916325","longitude":"139.68476983333","source_code":"","project_name":"H31\u65e5\u5149\u7802\u9632\u7ba1\u5185\u7802\u9632\u65bd\u8a2d\u5730\u8cea\u8abf\u67fb\u696d\u52d9","survey_name":"H31\u65e5\u5149\u7802\u9632\u7ba1\u5185\u7802\u9632\u65bd\u8a2d\u5730\u8cea\u8abf\u67fb\u696d\u52d9","client_name":"\u56fd\u571f\u4ea4\u901a\u7701\u95a2\u6771\u5730\u65b9\u6574\u5099\u5c40\u65e5\u5149\u7802\u9632\u4e8b\u52d9\u6240","boring_xml_url":47,"boring_view_url":1,"soilmap_view_url":null,"soiltest_xml_url":0,"soiltest_view_url":0},{"id":284286,"code":"NGIC201901195-0007","latitude":"36.791917416667","longitude":"139.59732855556","source_code":"","project_name":"H31\u65e5\u5149\u7802\u9632\u7ba1\u5185\u7802\u9632\u65bd\u8a2d\u5730\u8cea\u8abf\u67fb\u696d\u52d9","survey_name":"H31\u65e5\u5149\u7802\u9632\u7ba1\u5185\u7802\u9632\u65bd\u8a2d\u5730\u8cea\u8abf\u67fb\u696d\u52d9","client_name":"\u56fd\u571f\u4ea4\u901a\u7701\u95a2\u6771\u5730\u65b9\u6574\u5099\u5c40\u65e5\u5149\u7802\u9632\u4e8b\u52d9\u6240","boring_xml_url":47,"boring_view_url":1,"soilmap_view_url":null,"soiltest_xml_url":0,"soiltest_view_url":0},{"id":284285,"code":"NGIC201901195-0006","latitude":"36.791795638889","longitude":"139.59682916667","source_code":"","project_name":"H31\u65e5\u5149\u7802\u9632\u7ba1\u5185\u7802\u9632\u65bd\u8a2d\u5730\u8cea\u8abf\u67fb\u696d\u52d9","survey_name":"H31\u65e5\u5149\u7802\u9632\u7ba1\u5185\u7802\u9632\u65bd\u8a2d\u5730\u8cea\u8abf\u67fb\u696d\u52d9","client_name":"\u56fd\u571f\u4ea4\u901a\u7701\u95a2\u6771\u5730\u65b9\u6574\u5099\u5c40\u65e5\u5149\u7802\u9632\u4e8b\u52d9\u6240","boring_xml_url":47,"boring_view_url":1,"soilmap_view_url":null,"soiltest_xml_url":0,"soiltest_view_url":0},{"id":284284,"code":"NGIC201901195-0005","latitude":"36.792449833333","longitude":"139.59389641667","source_code":"","project_name":"H31\u65e5\u5149\u7802\u9632\u7ba1\u5185\u7802\u9632\u65bd\u8a2d\u5730\u8cea\u8abf\u67fb\u696d\u52d9","survey_name":"H31\u65e5\u5149\u7802\u9632\u7ba1\u5185\u7802\u9632\u65bd\u8a2d\u5730\u8cea\u8abf\u67fb\u696d\u52d9","client_name":"\u56fd\u571f\u4ea4\u901a\u7701\u95a2\u6771\u5730\u65b9\u6574\u5099\u5c40\u65e5\u5149\u7802\u9632\u4e8b\u52d9\u6240","boring_xml_url":47,"boring_view_url":1,"soilmap_view_url":null,"soiltest_xml_url":0,"soiltest_view_url":0},{"id":284283,"code":"NGIC201901195-0004","latitude":"36.792533833333","longitude":"139.59376213889","source_code":"","project_name":"H31\u65e5\u5149\u7802\u9632\u7ba1\u5185\u7802\u9632\u65bd\u8a2d\u5730\u8cea\u8abf\u67fb\u696d\u52d9","survey_name":"H31\u65e5\u5149\u7802\u9632\u7ba1\u5185\u7802\u9632\u65bd\u8a2d\u5730\u8cea\u8abf\u67fb\u696d\u52d9","client_name":"\u56fd\u571f\u4ea4\u901a\u7701\u95a2\u6771\u5730\u65b9\u6574\u5099\u5c40\u65e5\u5149\u7802\u9632\u4e8b\u52d9\u6240","boring_xml_url":47,"boring_view_url":1,"soilmap_view_url":null,"soiltest_xml_url":47,"soiltest_view_url":47},{"id":284282,"code":"NGIC201901195-0003","latitude":"36.792416583333","longitude":"139.59370422222","source_code":"","project_name":"H31\u65e5\u5149\u7802\u9632\u7ba1\u5185\u7802\u9632\u65bd\u8a2d\u5730\u8cea\u8abf\u67fb\u696d\u52d9","survey_name":"H31\u65e5\u5149\u7802\u9632\u7ba1\u5185\u7802\u9632\u65bd\u8a2d\u5730\u8cea\u8abf\u67fb\u696d\u52d9","client_name":"\u56fd\u571f\u4ea4\u901a\u7701\u95a2\u6771\u5730\u65b9\u6574\u5099\u5c40\u65e5\u5149\u7802\u9632\u4e8b\u52d9\u6240","boring_xml_url":47,"boring_view_url":1,"soilmap_view_url":null,"soiltest_xml_url":0,"soiltest_view_url":0},{"id":284281,"code":"NGIC201901195-0002","latitude":"36.792280194444","longitude":"139.59363405556","source_code":"","project_name":"H31\u65e5\u5149\u7802\u9632\u7ba1\u5185\u7802\u9632\u65bd\u8a2d\u5730\u8cea\u8abf\u67fb\u696d\u52d9","survey_name":"H31\u65e5\u5149\u7802\u9632\u7ba1\u5185\u7802\u9632\u65bd\u8a2d\u5730\u8cea\u8abf\u67fb\u696d\u52d9","client_name":"\u56fd\u571f\u4ea4\u901a\u7701\u95a2\u6771\u5730\u65b9\u6574\u5099\u5c40\u65e5\u5149\u7802\u9632\u4e8b\u52d9\u6240","boring_xml_url":47,"boring_view_url":1,"soilmap_view_url":null,"soiltest_xml_url":0,"soiltest_view_url":0},{"id":284280,"code":"NGIC201901195-0001","latitude":"36.792185138889","longitude":"139.59358858333","source_code":"","project_name":"H31\u65e5\u5149\u7802\u9632\u7ba1\u5185\u7802\u9632\u65bd\u8a2d\u5730\u8cea\u8abf\u67fb\u696d\u52d9","survey_name":"H31\u65e5\u5149\u7802\u9632\u7ba1\u5185\u7802\u9632\u65bd\u8a2d\u5730\u8cea\u8abf\u67fb\u696d\u52d9","client_name":"\u56fd\u571f\u4ea4\u901a\u7701\u95a2\u6771\u5730\u65b9\u6574\u5099\u5c40\u65e5\u5149\u7802\u9632\u4e8b\u52d9\u6240","boring_xml_url":47,"boring_view_url":1,"soilmap_view_url":null,"soiltest_xml_url":47,"soiltest_view_url":47},{"id":284279,"code":"NGIC201901151-0010","latitude":"34.879354972222","longitude":"134.94558663889","source_code":"","project_name":"","survey_name":"\u59eb\u8def\u7ba1\u5185\u6a0b\u9580\u7b49\u8010\u9707\u6027\u80fd\u7167\u67fb\u696d\u52d9","client_name":"\u56fd\u571f\u4ea4\u901a\u7701\u8fd1\u757f\u5730\u65b9\u6574\u5099\u5c40\u59eb\u8def\u6cb3\u5ddd\u56fd\u9053\u4e8b\u52d9\u6240","boring_xml_url":47,"boring_view_url":1,"soilmap_view_url":null,"soiltest_xml_url":47,"soiltest_view_url":47},{"id":284278,"code":"NGIC201901151-0009","latitude":"34.855548111111","longitude":"134.89414991667","source_code":"","project_name":"","survey_name":"\u59eb\u8def\u7ba1\u5185\u6a0b\u9580\u7b49\u8010\u9707\u6027\u80fd\u7167\u67fb\u696d\u52d9","client_name":"\u56fd\u571f\u4ea4\u901a\u7701\u8fd1\u757f\u5730\u65b9\u6574\u5099\u5c40\u59eb\u8def\u6cb3\u5ddd\u56fd\u9053\u4e8b\u52d9\u6240","boring_xml_url":47,"boring_view_url":1,"soilmap_view_url":null,"soiltest_xml_url":47,"soiltest_view_url":47}]}}