{"header":{"xyz":{"source":[],"mosaic":false},"page":2276,"raw":{"soiltest_result":"0","bbox":"57.598333,109.544722,1.933333,163.806111","page":"2276"},"conditions":{"soiltest_result":0,"north":57.598333,"west":109.544722,"south":1.933333,"east":163.806111},"success":true,"message":""},"data":{"meta":{"total":212844,"page":2276,"pages":7095,"count":30},"values":[{"id":284277,"code":"NGIC201901151-0008","latitude":"34.917110638889","longitude":"134.93448147222","source_code":"","project_name":"","survey_name":"\u59eb\u8def\u7ba1\u5185\u6a0b\u9580\u7b49\u8010\u9707\u6027\u80fd\u7167\u67fb\u696d\u52d9","client_name":"\u56fd\u571f\u4ea4\u901a\u7701\u8fd1\u757f\u5730\u65b9\u6574\u5099\u5c40\u59eb\u8def\u6cb3\u5ddd\u56fd\u9053\u4e8b\u52d9\u6240","boring_xml_url":47,"boring_view_url":1,"soilmap_view_url":null,"soiltest_xml_url":47,"soiltest_view_url":47},{"id":284276,"code":"NGIC201901151-0007","latitude":"34.8317485","longitude":"134.92800444444","source_code":"","project_name":"","survey_name":"\u59eb\u8def\u7ba1\u5185\u6a0b\u9580\u7b49\u8010\u9707\u6027\u80fd\u7167\u67fb\u696d\u52d9","client_name":"\u56fd\u571f\u4ea4\u901a\u7701\u8fd1\u757f\u5730\u65b9\u6574\u5099\u5c40\u59eb\u8def\u6cb3\u5ddd\u56fd\u9053\u4e8b\u52d9\u6240","boring_xml_url":47,"boring_view_url":1,"soilmap_view_url":null,"soiltest_xml_url":47,"soiltest_view_url":47},{"id":284275,"code":"NGIC201901151-0006","latitude":"34.781481138889","longitude":"134.85454347222","source_code":"","project_name":"","survey_name":"\u59eb\u8def\u7ba1\u5185\u6a0b\u9580\u7b49\u8010\u9707\u6027\u80fd\u7167\u67fb\u696d\u52d9","client_name":"\u56fd\u571f\u4ea4\u901a\u7701\u8fd1\u757f\u5730\u65b9\u6574\u5099\u5c40\u59eb\u8def\u6cb3\u5ddd\u56fd\u9053\u4e8b\u52d9\u6240","boring_xml_url":47,"boring_view_url":1,"soilmap_view_url":null,"soiltest_xml_url":47,"soiltest_view_url":47},{"id":284274,"code":"NGIC201901151-0005","latitude":"34.903425194444","longitude":"134.54065447222","source_code":"","project_name":"","survey_name":"\u59eb\u8def\u7ba1\u5185\u6a0b\u9580\u7b49\u8010\u9707\u6027\u80fd\u7167\u67fb\u696d\u52d9","client_name":"\u56fd\u571f\u4ea4\u901a\u7701\u8fd1\u757f\u5730\u65b9\u6574\u5099\u5c40\u59eb\u8def\u6cb3\u5ddd\u56fd\u9053\u4e8b\u52d9\u6240","boring_xml_url":47,"boring_view_url":1,"soilmap_view_url":null,"soiltest_xml_url":47,"soiltest_view_url":47},{"id":284273,"code":"NGIC201901151-0004","latitude":"34.8852845","longitude":"134.54642497222","source_code":"","project_name":"","survey_name":"\u59eb\u8def\u7ba1\u5185\u6a0b\u9580\u7b49\u8010\u9707\u6027\u80fd\u7167\u67fb\u696d\u52d9","client_name":"\u56fd\u571f\u4ea4\u901a\u7701\u8fd1\u757f\u5730\u65b9\u6574\u5099\u5c40\u59eb\u8def\u6cb3\u5ddd\u56fd\u9053\u4e8b\u52d9\u6240","boring_xml_url":47,"boring_view_url":1,"soilmap_view_url":null,"soiltest_xml_url":47,"soiltest_view_url":47},{"id":284272,"code":"NGIC201901151-0003","latitude":"34.852416722222","longitude":"134.56507591667","source_code":"","project_name":"","survey_name":"\u59eb\u8def\u7ba1\u5185\u6a0b\u9580\u7b49\u8010\u9707\u6027\u80fd\u7167\u67fb\u696d\u52d9","client_name":"\u56fd\u571f\u4ea4\u901a\u7701\u8fd1\u757f\u5730\u65b9\u6574\u5099\u5c40\u59eb\u8def\u6cb3\u5ddd\u56fd\u9053\u4e8b\u52d9\u6240","boring_xml_url":47,"boring_view_url":1,"soilmap_view_url":null,"soiltest_xml_url":47,"soiltest_view_url":47},{"id":284271,"code":"NGIC201901151-0002","latitude":"35.096332666667","longitude":"134.58312430556","source_code":"","project_name":"","survey_name":"\u59eb\u8def\u7ba1\u5185\u6a0b\u9580\u7b49\u8010\u9707\u6027\u80fd\u7167\u67fb\u696d\u52d9","client_name":"\u56fd\u571f\u4ea4\u901a\u7701\u8fd1\u757f\u5730\u65b9\u6574\u5099\u5c40\u59eb\u8def\u6cb3\u5ddd\u56fd\u9053\u4e8b\u52d9\u6240","boring_xml_url":47,"boring_view_url":1,"soilmap_view_url":null,"soiltest_xml_url":47,"soiltest_view_url":47},{"id":284270,"code":"NGIC201901151-0001","latitude":"34.943995444444","longitude":"134.55178888889","source_code":"","project_name":"","survey_name":"\u59eb\u8def\u7ba1\u5185\u6a0b\u9580\u7b49\u8010\u9707\u6027\u80fd\u7167\u67fb\u696d\u52d9","client_name":"\u56fd\u571f\u4ea4\u901a\u7701\u8fd1\u757f\u5730\u65b9\u6574\u5099\u5c40\u59eb\u8def\u6cb3\u5ddd\u56fd\u9053\u4e8b\u52d9\u6240","boring_xml_url":47,"boring_view_url":1,"soilmap_view_url":null,"soiltest_xml_url":47,"soiltest_view_url":47},{"id":284269,"code":"NGIC201901172-0006","latitude":"44.953555555556","longitude":"141.85616666667","source_code":"","project_name":"\u56fd\u55b6\u7dcf\u5408\u8fb2\u5730\u9632\u707d\u4e8b\u696d\u300c\u7523\u58eb\u5730\u533a\u300d","survey_name":"\u4ee4\u548c\u5143\u5e74\u5ea6 \u7523\u58eb\u5730\u533a\u7b2c3\u53f7\u6392\u6c34\u8def\u8a2d\u8a08\u7b49\u696d\u52d9","client_name":"\u56fd\u571f\u4ea4\u901a\u7701\u5317\u6d77\u9053\u958b\u767a\u5c40\u7559\u840c\u958b\u767a\u5efa\u8a2d\u90e8\u5929\u5869\u5730\u57df\u8fb2\u696d\u958b\u767a\u4e8b\u696d\u6240","boring_xml_url":47,"boring_view_url":1,"soilmap_view_url":null,"soiltest_xml_url":47,"soiltest_view_url":47},{"id":284268,"code":"NGIC201901172-0005","latitude":"44.953805555556","longitude":"141.85938888889","source_code":"","project_name":"\u56fd\u55b6\u7dcf\u5408\u8fb2\u5730\u9632\u707d\u4e8b\u696d\u300c\u7523\u58eb\u5730\u533a\u300d","survey_name":"\u4ee4\u548c\u5143\u5e74\u5ea6 \u7523\u58eb\u5730\u533a\u7b2c3\u53f7\u6392\u6c34\u8def\u8a2d\u8a08\u7b49\u696d\u52d9","client_name":"\u56fd\u571f\u4ea4\u901a\u7701\u5317\u6d77\u9053\u958b\u767a\u5c40\u7559\u840c\u958b\u767a\u5efa\u8a2d\u90e8\u5929\u5869\u5730\u57df\u8fb2\u696d\u958b\u767a\u4e8b\u696d\u6240","boring_xml_url":47,"boring_view_url":1,"soilmap_view_url":null,"soiltest_xml_url":47,"soiltest_view_url":47},{"id":284267,"code":"NGIC201901172-0004","latitude":"44.954138888889","longitude":"141.86383333333","source_code":"","project_name":"\u56fd\u55b6\u7dcf\u5408\u8fb2\u5730\u9632\u707d\u4e8b\u696d\u300c\u7523\u58eb\u5730\u533a\u300d","survey_name":"\u4ee4\u548c\u5143\u5e74\u5ea6 \u7523\u58eb\u5730\u533a\u7b2c3\u53f7\u6392\u6c34\u8def\u8a2d\u8a08\u7b49\u696d\u52d9","client_name":"\u56fd\u571f\u4ea4\u901a\u7701\u5317\u6d77\u9053\u958b\u767a\u5c40\u7559\u840c\u958b\u767a\u5efa\u8a2d\u90e8\u5929\u5869\u5730\u57df\u8fb2\u696d\u958b\u767a\u4e8b\u696d\u6240","boring_xml_url":47,"boring_view_url":1,"soilmap_view_url":null,"soiltest_xml_url":47,"soiltest_view_url":47},{"id":284266,"code":"NGIC201901172-0003","latitude":"44.953333333333","longitude":"141.85288888889","source_code":"","project_name":"\u56fd\u55b6\u7dcf\u5408\u8fb2\u5730\u9632\u707d\u4e8b\u696d\u300c\u7523\u58eb\u5730\u533a\u300d","survey_name":"\u4ee4\u548c\u5143\u5e74\u5ea6 \u7523\u58eb\u5730\u533a\u7b2c3\u53f7\u6392\u6c34\u8def\u8a2d\u8a08\u7b49\u696d\u52d9","client_name":"\u56fd\u571f\u4ea4\u901a\u7701\u5317\u6d77\u9053\u958b\u767a\u5c40\u7559\u840c\u958b\u767a\u5efa\u8a2d\u90e8\u5929\u5869\u5730\u57df\u8fb2\u696d\u958b\u767a\u4e8b\u696d\u6240","boring_xml_url":47,"boring_view_url":1,"soilmap_view_url":null,"soiltest_xml_url":0,"soiltest_view_url":0},{"id":284265,"code":"NGIC201901172-0002","latitude":"44.954","longitude":"141.862","source_code":"","project_name":"\u56fd\u55b6\u7dcf\u5408\u8fb2\u5730\u9632\u707d\u4e8b\u696d\u300c\u7523\u58eb\u5730\u533a\u300d","survey_name":"\u4ee4\u548c\u5143\u5e74\u5ea6 \u7523\u58eb\u5730\u533a\u7b2c3\u53f7\u6392\u6c34\u8def\u8a2d\u8a08\u7b49\u696d\u52d9","client_name":"\u56fd\u571f\u4ea4\u901a\u7701\u5317\u6d77\u9053\u958b\u767a\u5c40\u7559\u840c\u958b\u767a\u5efa\u8a2d\u90e8\u5929\u5869\u5730\u57df\u8fb2\u696d\u958b\u767a\u4e8b\u696d\u6240","boring_xml_url":47,"boring_view_url":1,"soilmap_view_url":null,"soiltest_xml_url":47,"soiltest_view_url":47},{"id":284264,"code":"NGIC201901172-0001","latitude":"44.958805555556","longitude":"141.86533333333","source_code":"","project_name":"\u56fd\u55b6\u7dcf\u5408\u8fb2\u5730\u9632\u707d\u4e8b\u696d\u300c\u7523\u58eb\u5730\u533a\u300d","survey_name":"\u4ee4\u548c\u5143\u5e74\u5ea6 \u7523\u58eb\u5730\u533a\u7b2c3\u53f7\u6392\u6c34\u8def\u8a2d\u8a08\u7b49\u696d\u52d9","client_name":"\u56fd\u571f\u4ea4\u901a\u7701\u5317\u6d77\u9053\u958b\u767a\u5c40\u7559\u840c\u958b\u767a\u5efa\u8a2d\u90e8\u5929\u5869\u5730\u57df\u8fb2\u696d\u958b\u767a\u4e8b\u696d\u6240","boring_xml_url":47,"boring_view_url":1,"soilmap_view_url":null,"soiltest_xml_url":47,"soiltest_view_url":47},{"id":284254,"code":"NGIC201901144-0011","latitude":"35.040060527778","longitude":"132.29577172222","source_code":"","project_name":"\u798f\u5149\u30fb\u6d45\u5229\u9053\u8def\u5f8c\u5730\u5730\u533a\u5730\u8cea\u8abf\u67fb\u696d\u52d9","survey_name":"\u798f\u5149\u30fb\u6d45\u5229\u9053\u8def\u5f8c\u5730\u5730\u533a\u5730\u8cea\u8abf\u67fb\u696d\u52d9","client_name":"\u56fd\u571f\u4ea4\u901a\u7701\u4e2d\u56fd\u5730\u65b9\u6574\u5099\u5c40\u6d5c\u7530\u6cb3\u5ddd\u56fd\u9053\u4e8b\u52d9\u6240","boring_xml_url":47,"boring_view_url":1,"soilmap_view_url":null,"soiltest_xml_url":47,"soiltest_view_url":47},{"id":284253,"code":"NGIC201901144-0010","latitude":"35.03975725","longitude":"132.29609944444","source_code":"","project_name":"\u798f\u5149\u30fb\u6d45\u5229\u9053\u8def\u5f8c\u5730\u5730\u533a\u5730\u8cea\u8abf\u67fb\u696d\u52d9","survey_name":"\u798f\u5149\u30fb\u6d45\u5229\u9053\u8def\u5f8c\u5730\u5730\u533a\u5730\u8cea\u8abf\u67fb\u696d\u52d9","client_name":"\u56fd\u571f\u4ea4\u901a\u7701\u4e2d\u56fd\u5730\u65b9\u6574\u5099\u5c40\u6d5c\u7530\u6cb3\u5ddd\u56fd\u9053\u4e8b\u52d9\u6240","boring_xml_url":47,"boring_view_url":1,"soilmap_view_url":null,"soiltest_xml_url":47,"soiltest_view_url":47},{"id":284252,"code":"NGIC201901144-0009","latitude":"35.039378472222","longitude":"132.29466030556","source_code":"","project_name":"\u798f\u5149\u30fb\u6d45\u5229\u9053\u8def\u5f8c\u5730\u5730\u533a\u5730\u8cea\u8abf\u67fb\u696d\u52d9","survey_name":"\u798f\u5149\u30fb\u6d45\u5229\u9053\u8def\u5f8c\u5730\u5730\u533a\u5730\u8cea\u8abf\u67fb\u696d\u52d9","client_name":"\u56fd\u571f\u4ea4\u901a\u7701\u4e2d\u56fd\u5730\u65b9\u6574\u5099\u5c40\u6d5c\u7530\u6cb3\u5ddd\u56fd\u9053\u4e8b\u52d9\u6240","boring_xml_url":47,"boring_view_url":1,"soilmap_view_url":null,"soiltest_xml_url":47,"soiltest_view_url":47},{"id":284251,"code":"NGIC201901144-0008","latitude":"35.040617333333","longitude":"132.29633991667","source_code":"","project_name":"\u798f\u5149\u30fb\u6d45\u5229\u9053\u8def\u5f8c\u5730\u5730\u533a\u5730\u8cea\u8abf\u67fb\u696d\u52d9","survey_name":"\u798f\u5149\u30fb\u6d45\u5229\u9053\u8def\u5f8c\u5730\u5730\u533a\u5730\u8cea\u8abf\u67fb\u696d\u52d9","client_name":"\u56fd\u571f\u4ea4\u901a\u7701\u4e2d\u56fd\u5730\u65b9\u6574\u5099\u5c40\u6d5c\u7530\u6cb3\u5ddd\u56fd\u9053\u4e8b\u52d9\u6240","boring_xml_url":47,"boring_view_url":1,"soilmap_view_url":null,"soiltest_xml_url":47,"soiltest_view_url":47},{"id":284250,"code":"NGIC201901144-0007","latitude":"35.040626333333","longitude":"132.29726086111","source_code":"","project_name":"\u798f\u5149\u30fb\u6d45\u5229\u9053\u8def\u5f8c\u5730\u5730\u533a\u5730\u8cea\u8abf\u67fb\u696d\u52d9","survey_name":"\u798f\u5149\u30fb\u6d45\u5229\u9053\u8def\u5f8c\u5730\u5730\u533a\u5730\u8cea\u8abf\u67fb\u696d\u52d9","client_name":"\u56fd\u571f\u4ea4\u901a\u7701\u4e2d\u56fd\u5730\u65b9\u6574\u5099\u5c40\u6d5c\u7530\u6cb3\u5ddd\u56fd\u9053\u4e8b\u52d9\u6240","boring_xml_url":47,"boring_view_url":1,"soilmap_view_url":null,"soiltest_xml_url":47,"soiltest_view_url":47},{"id":284249,"code":"NGIC201901144-0006","latitude":"35.040772","longitude":"132.29713186111","source_code":"","project_name":"\u798f\u5149\u30fb\u6d45\u5229\u9053\u8def\u5f8c\u5730\u5730\u533a\u5730\u8cea\u8abf\u67fb\u696d\u52d9","survey_name":"\u798f\u5149\u30fb\u6d45\u5229\u9053\u8def\u5f8c\u5730\u5730\u533a\u5730\u8cea\u8abf\u67fb\u696d\u52d9","client_name":"\u56fd\u571f\u4ea4\u901a\u7701\u4e2d\u56fd\u5730\u65b9\u6574\u5099\u5c40\u6d5c\u7530\u6cb3\u5ddd\u56fd\u9053\u4e8b\u52d9\u6240","boring_xml_url":47,"boring_view_url":1,"soilmap_view_url":null,"soiltest_xml_url":47,"soiltest_view_url":47},{"id":284248,"code":"NGIC201901144-0005","latitude":"35.040911694444","longitude":"132.29779641667","source_code":"","project_name":"\u798f\u5149\u30fb\u6d45\u5229\u9053\u8def\u5f8c\u5730\u5730\u533a\u5730\u8cea\u8abf\u67fb\u696d\u52d9","survey_name":"\u798f\u5149\u30fb\u6d45\u5229\u9053\u8def\u5f8c\u5730\u5730\u533a\u5730\u8cea\u8abf\u67fb\u696d\u52d9","client_name":"\u56fd\u571f\u4ea4\u901a\u7701\u4e2d\u56fd\u5730\u65b9\u6574\u5099\u5c40\u6d5c\u7530\u6cb3\u5ddd\u56fd\u9053\u4e8b\u52d9\u6240","boring_xml_url":47,"boring_view_url":1,"soilmap_view_url":null,"soiltest_xml_url":47,"soiltest_view_url":47},{"id":284247,"code":"NGIC201901144-0004","latitude":"35.041180194444","longitude":"132.29823388889","source_code":"","project_name":"\u798f\u5149\u30fb\u6d45\u5229\u9053\u8def\u5f8c\u5730\u5730\u533a\u5730\u8cea\u8abf\u67fb\u696d\u52d9","survey_name":"\u798f\u5149\u30fb\u6d45\u5229\u9053\u8def\u5f8c\u5730\u5730\u533a\u5730\u8cea\u8abf\u67fb\u696d\u52d9","client_name":"\u56fd\u571f\u4ea4\u901a\u7701\u4e2d\u56fd\u5730\u65b9\u6574\u5099\u5c40\u6d5c\u7530\u6cb3\u5ddd\u56fd\u9053\u4e8b\u52d9\u6240","boring_xml_url":47,"boring_view_url":1,"soilmap_view_url":null,"soiltest_xml_url":47,"soiltest_view_url":47},{"id":284246,"code":"NGIC201901144-0003","latitude":"35.041307277778","longitude":"132.29827041667","source_code":"","project_name":"\u798f\u5149\u30fb\u6d45\u5229\u9053\u8def\u5f8c\u5730\u5730\u533a\u5730\u8cea\u8abf\u67fb\u696d\u52d9","survey_name":"\u798f\u5149\u30fb\u6d45\u5229\u9053\u8def\u5f8c\u5730\u5730\u533a\u5730\u8cea\u8abf\u67fb\u696d\u52d9","client_name":"\u56fd\u571f\u4ea4\u901a\u7701\u4e2d\u56fd\u5730\u65b9\u6574\u5099\u5c40\u6d5c\u7530\u6cb3\u5ddd\u56fd\u9053\u4e8b\u52d9\u6240","boring_xml_url":47,"boring_view_url":1,"soilmap_view_url":null,"soiltest_xml_url":47,"soiltest_view_url":47},{"id":284245,"code":"NGIC201901144-0002","latitude":"35.041399805556","longitude":"132.29844569444","source_code":"","project_name":"\u798f\u5149\u30fb\u6d45\u5229\u9053\u8def\u5f8c\u5730\u5730\u533a\u5730\u8cea\u8abf\u67fb\u696d\u52d9","survey_name":"\u798f\u5149\u30fb\u6d45\u5229\u9053\u8def\u5f8c\u5730\u5730\u533a\u5730\u8cea\u8abf\u67fb\u696d\u52d9","client_name":"\u56fd\u571f\u4ea4\u901a\u7701\u4e2d\u56fd\u5730\u65b9\u6574\u5099\u5c40\u6d5c\u7530\u6cb3\u5ddd\u56fd\u9053\u4e8b\u52d9\u6240","boring_xml_url":47,"boring_view_url":1,"soilmap_view_url":null,"soiltest_xml_url":47,"soiltest_view_url":47},{"id":284244,"code":"NGIC201901144-0001","latitude":"35.041549916667","longitude":"132.29844694444","source_code":"","project_name":"\u798f\u5149\u30fb\u6d45\u5229\u9053\u8def\u5f8c\u5730\u5730\u533a\u5730\u8cea\u8abf\u67fb\u696d\u52d9","survey_name":"\u798f\u5149\u30fb\u6d45\u5229\u9053\u8def\u5f8c\u5730\u5730\u533a\u5730\u8cea\u8abf\u67fb\u696d\u52d9","client_name":"\u56fd\u571f\u4ea4\u901a\u7701\u4e2d\u56fd\u5730\u65b9\u6574\u5099\u5c40\u6d5c\u7530\u6cb3\u5ddd\u56fd\u9053\u4e8b\u52d9\u6240","boring_xml_url":47,"boring_view_url":1,"soilmap_view_url":null,"soiltest_xml_url":47,"soiltest_view_url":47},{"id":284243,"code":"NGIC201901200-0004","latitude":"35.3727","longitude":"139.36881944444","source_code":"","project_name":"\n      ","survey_name":"\u5e73\u621030\u5e74\u5ea6\u9db4\u898b\u5ddd\u6cb3\u5e8a\u6750\u6599\u8abf\u67fb\u53ca\u3073\u76f8\u6a21\u5ddd\u5730\u8cea\u8abf\u67fb\u696d\u52d9","client_name":"\u56fd\u571f\u4ea4\u901a\u7701\u95a2\u6771\u5730\u65b9\u6574\u5099\u5c40\u4eac\u6d5c\u6cb3\u5ddd\u4e8b\u52d9\u6240","boring_xml_url":47,"boring_view_url":1,"soilmap_view_url":null,"soiltest_xml_url":47,"soiltest_view_url":47},{"id":284242,"code":"NGIC201901200-0003","latitude":"35.370986","longitude":"139.3683355","source_code":"","project_name":"\n      ","survey_name":"\u5e73\u621030\u5e74\u5ea6\u9db4\u898b\u5ddd\u6cb3\u5e8a\u6750\u6599\u8abf\u67fb\u53ca\u3073\u76f8\u6a21\u5ddd\u5730\u8cea\u8abf\u67fb\u696d\u52d9","client_name":"\u56fd\u571f\u4ea4\u901a\u7701\u95a2\u6771\u5730\u65b9\u6574\u5099\u5c40\u4eac\u6d5c\u6cb3\u5ddd\u4e8b\u52d9\u6240","boring_xml_url":47,"boring_view_url":1,"soilmap_view_url":null,"soiltest_xml_url":47,"soiltest_view_url":47},{"id":284241,"code":"NGIC201901200-0002","latitude":"35.3418","longitude":"139.37172222222","source_code":"","project_name":"\n      ","survey_name":"\u5e73\u621030\u5e74\u5ea6\u9db4\u898b\u5ddd\u6cb3\u5e8a\u6750\u6599\u8abf\u67fb\u53ca\u3073\u76f8\u6a21\u5ddd\u5730\u8cea\u8abf\u67fb\u696d\u52d9","client_name":"\u56fd\u571f\u4ea4\u901a\u7701\u95a2\u6771\u5730\u65b9\u6574\u5099\u5c40\u4eac\u6d5c\u6cb3\u5ddd\u4e8b\u52d9\u6240","boring_xml_url":47,"boring_view_url":1,"soilmap_view_url":null,"soiltest_xml_url":47,"soiltest_view_url":47},{"id":284240,"code":"NGIC201901200-0001","latitude":"35.338724194444","longitude":"139.37056819444","source_code":"","project_name":"\n      ","survey_name":"\u5e73\u621030\u5e74\u5ea6\u9db4\u898b\u5ddd\u6cb3\u5e8a\u6750\u6599\u8abf\u67fb\u53ca\u3073\u76f8\u6a21\u5ddd\u5730\u8cea\u8abf\u67fb\u696d\u52d9","client_name":"\u56fd\u571f\u4ea4\u901a\u7701\u95a2\u6771\u5730\u65b9\u6574\u5099\u5c40\u4eac\u6d5c\u6cb3\u5ddd\u4e8b\u52d9\u6240","boring_xml_url":47,"boring_view_url":1,"soilmap_view_url":null,"soiltest_xml_url":47,"soiltest_view_url":47},{"id":284233,"code":"NGIC201901196-0007","latitude":"36.271402777778","longitude":"137.14604166667","source_code":"","project_name":"","survey_name":"\u4ee4\u548c\u5143\u5e74\u5ea6 \u9ad8\u5c71\u56fd\u9053\u7ba1\u5185\u9053\u8def\u69cb\u9020\u7269\u88dc\u4fee\u8a2d\u8a08\u696d\u52d9","client_name":"\u56fd\u571f\u4ea4\u901a\u7701\u4e2d\u90e8\u5730\u65b9\u6574\u5099\u5c40\u9ad8\u5c71\u56fd\u9053\u4e8b\u52d9\u6240","boring_xml_url":47,"boring_view_url":1,"soilmap_view_url":null,"soiltest_xml_url":0,"soiltest_view_url":0}]}}