{"header":{"xyz":{"source":[],"mosaic":false},"page":2277,"raw":{"soiltest_result":"0","bbox":"57.598333,109.544722,1.933333,163.806111","page":"2277"},"conditions":{"soiltest_result":0,"north":57.598333,"west":109.544722,"south":1.933333,"east":163.806111},"success":true,"message":""},"data":{"meta":{"total":212844,"page":2277,"pages":7095,"count":30},"values":[{"id":284232,"code":"NGIC201901196-0006","latitude":"36.271416666667","longitude":"137.14597777778","source_code":"","project_name":"","survey_name":"\u4ee4\u548c\u5143\u5e74\u5ea6 \u9ad8\u5c71\u56fd\u9053\u7ba1\u5185\u9053\u8def\u69cb\u9020\u7269\u88dc\u4fee\u8a2d\u8a08\u696d\u52d9","client_name":"\u56fd\u571f\u4ea4\u901a\u7701\u4e2d\u90e8\u5730\u65b9\u6574\u5099\u5c40\u9ad8\u5c71\u56fd\u9053\u4e8b\u52d9\u6240","boring_xml_url":47,"boring_view_url":1,"soilmap_view_url":null,"soiltest_xml_url":0,"soiltest_view_url":0},{"id":284231,"code":"NGIC201901196-0005","latitude":"36.271425","longitude":"137.14586388889","source_code":"","project_name":"","survey_name":"\u4ee4\u548c\u5143\u5e74\u5ea6 \u9ad8\u5c71\u56fd\u9053\u7ba1\u5185\u9053\u8def\u69cb\u9020\u7269\u88dc\u4fee\u8a2d\u8a08\u696d\u52d9","client_name":"\u56fd\u571f\u4ea4\u901a\u7701\u4e2d\u90e8\u5730\u65b9\u6574\u5099\u5c40\u9ad8\u5c71\u56fd\u9053\u4e8b\u52d9\u6240","boring_xml_url":47,"boring_view_url":1,"soilmap_view_url":null,"soiltest_xml_url":0,"soiltest_view_url":0},{"id":284230,"code":"NGIC201901196-0004","latitude":"36.271430555556","longitude":"137.14575555556","source_code":"","project_name":"","survey_name":"\u4ee4\u548c\u5143\u5e74\u5ea6 \u9ad8\u5c71\u56fd\u9053\u7ba1\u5185\u9053\u8def\u69cb\u9020\u7269\u88dc\u4fee\u8a2d\u8a08\u696d\u52d9","client_name":"\u56fd\u571f\u4ea4\u901a\u7701\u4e2d\u90e8\u5730\u65b9\u6574\u5099\u5c40\u9ad8\u5c71\u56fd\u9053\u4e8b\u52d9\u6240","boring_xml_url":47,"boring_view_url":1,"soilmap_view_url":null,"soiltest_xml_url":0,"soiltest_view_url":0},{"id":284229,"code":"NGIC201901196-0003","latitude":"36.271433333333","longitude":"137.14571944444","source_code":"","project_name":"","survey_name":"\u4ee4\u548c\u5143\u5e74\u5ea6 \u9ad8\u5c71\u56fd\u9053\u7ba1\u5185\u9053\u8def\u69cb\u9020\u7269\u88dc\u4fee\u8a2d\u8a08\u696d\u52d9","client_name":"\u56fd\u571f\u4ea4\u901a\u7701\u4e2d\u90e8\u5730\u65b9\u6574\u5099\u5c40\u9ad8\u5c71\u56fd\u9053\u4e8b\u52d9\u6240","boring_xml_url":47,"boring_view_url":1,"soilmap_view_url":null,"soiltest_xml_url":0,"soiltest_view_url":0},{"id":284228,"code":"NGIC201901196-0002","latitude":"36.271502777778","longitude":"137.14588611111","source_code":"","project_name":"","survey_name":"\u4ee4\u548c\u5143\u5e74\u5ea6 \u9ad8\u5c71\u56fd\u9053\u7ba1\u5185\u9053\u8def\u69cb\u9020\u7269\u88dc\u4fee\u8a2d\u8a08\u696d\u52d9","client_name":"\u56fd\u571f\u4ea4\u901a\u7701\u4e2d\u90e8\u5730\u65b9\u6574\u5099\u5c40\u9ad8\u5c71\u56fd\u9053\u4e8b\u52d9\u6240","boring_xml_url":47,"boring_view_url":1,"soilmap_view_url":null,"soiltest_xml_url":0,"soiltest_view_url":0},{"id":284227,"code":"NGIC201901196-0001","latitude":"36.271369444444","longitude":"137.14599166667","source_code":"","project_name":"","survey_name":"\u4ee4\u548c\u5143\u5e74\u5ea6\u9ad8\u5c71\u56fd\u9053\u7ba1\u5185\u9053\u8def\u69cb\u9020\u7269\u88dc\u4fee\u8a2d\u8a08\u696d\u52d9","client_name":"\u56fd\u571f\u4ea4\u901a\u7701\u4e2d\u90e8\u5730\u65b9\u6574\u5099\u5c40\u9ad8\u5c71\u56fd\u9053\u4e8b\u52d9\u6240","boring_xml_url":47,"boring_view_url":1,"soilmap_view_url":null,"soiltest_xml_url":0,"soiltest_view_url":0},{"id":284224,"code":"NGIC201901187-0005","latitude":"44.780358333333","longitude":"142.13348055556","source_code":"","project_name":"","survey_name":"\u4e00\u822c\u56fd\u905340\u53f7\u4e2d\u5ddd\u753a\u97f3\u5a01\u5b50\u5e9c\u30d0\u30a4\u30d1\u30b9\u5730\u8cea\u8abf\u67fb","client_name":"\u56fd\u571f\u4ea4\u901a\u7701\u5317\u6d77\u9053\u958b\u767a\u5c40\u65ed\u5ddd\u958b\u767a\u5efa\u8a2d\u90e8\u3000\u58eb\u5225\u9053\u8def\u4e8b\u52d9\u6240","boring_xml_url":47,"boring_view_url":1,"soilmap_view_url":null,"soiltest_xml_url":0,"soiltest_view_url":0},{"id":284223,"code":"NGIC201901187-0004","latitude":"44.780480555556","longitude":"142.13037222222","source_code":"","project_name":"","survey_name":"\u4e00\u822c\u56fd\u905340\u53f7\u4e2d\u5ddd\u753a\u97f3\u5a01\u5b50\u5e9c\u30d0\u30a4\u30d1\u30b9\u5730\u8cea\u8abf\u67fb","client_name":"\u56fd\u571f\u4ea4\u901a\u7701\u5317\u6d77\u9053\u958b\u767a\u5c40\u65ed\u5ddd\u958b\u767a\u5efa\u8a2d\u90e8\u3000\u58eb\u5225\u9053\u8def\u4e8b\u52d9\u6240","boring_xml_url":47,"boring_view_url":1,"soilmap_view_url":null,"soiltest_xml_url":0,"soiltest_view_url":0},{"id":284222,"code":"NGIC201901187-0003","latitude":"44.779755555556","longitude":"142.13221111111","source_code":"","project_name":"","survey_name":"\u4e00\u822c\u56fd\u905340\u53f7\u4e2d\u5ddd\u753a\u97f3\u5a01\u5b50\u5e9c\u30d0\u30a4\u30d1\u30b9\u5730\u8cea\u8abf\u67fb","client_name":"\u56fd\u571f\u4ea4\u901a\u7701\u5317\u6d77\u9053\u958b\u767a\u5c40\u65ed\u5ddd\u958b\u767a\u5efa\u8a2d\u90e8\u3000\u58eb\u5225\u9053\u8def\u4e8b\u52d9\u6240","boring_xml_url":47,"boring_view_url":1,"soilmap_view_url":null,"soiltest_xml_url":0,"soiltest_view_url":0},{"id":284221,"code":"NGIC201901187-0002","latitude":"44.779602777778","longitude":"142.13310277778","source_code":"","project_name":"","survey_name":"\u4e00\u822c\u56fd\u905340\u53f7\u4e2d\u5ddd\u753a\u97f3\u5a01\u5b50\u5e9c\u30d0\u30a4\u30d1\u30b9\u5730\u8cea\u8abf\u67fb","client_name":"\u56fd\u571f\u4ea4\u901a\u7701\u5317\u6d77\u9053\u958b\u767a\u5c40\u65ed\u5ddd\u958b\u767a\u5efa\u8a2d\u90e8\u3000\u58eb\u5225\u9053\u8def\u4e8b\u52d9\u6240","boring_xml_url":47,"boring_view_url":1,"soilmap_view_url":null,"soiltest_xml_url":0,"soiltest_view_url":0},{"id":284220,"code":"NGIC201901187-0001","latitude":"44.779786111111","longitude":"142.13319166667","source_code":"","project_name":"","survey_name":"\u4e00\u822c\u56fd\u905340\u53f7\u4e2d\u5ddd\u753a\u97f3\u5a01\u5b50\u5e9c\u30d0\u30a4\u30d1\u30b9\u5730\u8cea\u8abf\u67fb","client_name":"\u56fd\u571f\u4ea4\u901a\u7701\u5317\u6d77\u9053\u958b\u767a\u5c40\u65ed\u5ddd\u958b\u767a\u5efa\u8a2d\u90e8\u3000\u58eb\u5225\u9053\u8def\u4e8b\u52d9\u6240","boring_xml_url":47,"boring_view_url":1,"soilmap_view_url":null,"soiltest_xml_url":0,"soiltest_view_url":0},{"id":284219,"code":"NGIC201901017-0003","latitude":"34.757833333333","longitude":"134.97587222222","source_code":"","project_name":"\u795e\u51fa\u30d0\u30a4\u30d1\u30b9\u7530\u4e95\u5730\u533a\u4ed6\u9053\u8def\u8a73\u7d30\u8a2d\u8a08\u696d\u52d9","survey_name":"\u795e\u51fa\u30d0\u30a4\u30d1\u30b9\u7530\u4e95\u5730\u533a\u4ed6\u9053\u8def\u8a73\u7d30\u8a2d\u8a08\u696d\u52d9","client_name":"\u56fd\u571f\u4ea4\u901a\u7701\u8fd1\u757f\u5730\u65b9\u6574\u5099\u5c40\u5175\u5eab\u56fd\u9053\u4e8b\u52d9\u6240","boring_xml_url":47,"boring_view_url":1,"soilmap_view_url":null,"soiltest_xml_url":47,"soiltest_view_url":47},{"id":284218,"code":"NGIC201901017-0002","latitude":"34.757522222222","longitude":"134.97600833333","source_code":"","project_name":"\u795e\u51fa\u30d0\u30a4\u30d1\u30b9\u7530\u4e95\u5730\u533a\u4ed6\u9053\u8def\u8a73\u7d30\u8a2d\u8a08\u696d\u52d9","survey_name":"\u795e\u51fa\u30d0\u30a4\u30d1\u30b9\u7530\u4e95\u5730\u533a\u4ed6\u9053\u8def\u8a73\u7d30\u8a2d\u8a08\u696d\u52d9","client_name":"\u56fd\u571f\u4ea4\u901a\u7701\u8fd1\u757f\u5730\u65b9\u6574\u5099\u5c40\u5175\u5eab\u56fd\u9053\u4e8b\u52d9\u6240","boring_xml_url":47,"boring_view_url":1,"soilmap_view_url":null,"soiltest_xml_url":47,"soiltest_view_url":47},{"id":284217,"code":"NGIC201901017-0001","latitude":"34.757216666667","longitude":"134.97615555556","source_code":"","project_name":"\u795e\u51fa\u30d0\u30a4\u30d1\u30b9\u7530\u4e95\u5730\u533a\u4ed6\u9053\u8def\u8a73\u7d30\u8a2d\u8a08\u696d\u52d9","survey_name":"\u795e\u51fa\u30d0\u30a4\u30d1\u30b9\u7530\u4e95\u5730\u533a\u4ed6\u9053\u8def\u8a73\u7d30\u8a2d\u8a08\u696d\u52d9","client_name":"\u56fd\u571f\u4ea4\u901a\u7701\u8fd1\u757f\u5730\u65b9\u6574\u5099\u5c40\u5175\u5eab\u56fd\u9053\u4e8b\u52d9\u6240","boring_xml_url":47,"boring_view_url":1,"soilmap_view_url":null,"soiltest_xml_url":47,"soiltest_view_url":47},{"id":284213,"code":"NGIC201901178-0003","latitude":"39.126332861111","longitude":"140.15585894444","source_code":"","project_name":"\n      ","survey_name":"\u9ce5\u6d77\u30c0\u30e0\u5de6\u5cb8\u5730\u8cea\u8abf\u67fb\u696d\u52d9","client_name":"\u56fd\u571f\u4ea4\u901a\u7701\u6771\u5317\u5730\u65b9\u6574\u5099\u5c40\u9ce5\u6d77\u30c0\u30e0\u5de5\u4e8b\u4e8b\u52d9\u6240","boring_xml_url":47,"boring_view_url":1,"soilmap_view_url":null,"soiltest_xml_url":0,"soiltest_view_url":0},{"id":284212,"code":"NGIC201901178-0002","latitude":"39.125678722222","longitude":"140.15475411111","source_code":"","project_name":"\n      ","survey_name":"\u9ce5\u6d77\u30c0\u30e0\u5de6\u5cb8\u5730\u8cea\u8abf\u67fb\u696d\u52d9","client_name":"\u56fd\u571f\u4ea4\u901a\u7701\u6771\u5317\u5730\u65b9\u6574\u5099\u5c40\u9ce5\u6d77\u30c0\u30e0\u5de5\u4e8b\u4e8b\u52d9\u6240","boring_xml_url":47,"boring_view_url":1,"soilmap_view_url":null,"soiltest_xml_url":0,"soiltest_view_url":0},{"id":284211,"code":"NGIC201901178-0001","latitude":"39.123813055556","longitude":"140.153132","source_code":"","project_name":"\n      ","survey_name":"\u9ce5\u6d77\u30c0\u30e0\u5de6\u5cb8\u5730\u8cea\u8abf\u67fb\u696d\u52d9","client_name":"\u56fd\u571f\u4ea4\u901a\u7701\u6771\u5317\u5730\u65b9\u6574\u5099\u5c40\u9ce5\u6d77\u30c0\u30e0\u5de5\u4e8b\u4e8b\u52d9\u6240","boring_xml_url":47,"boring_view_url":1,"soilmap_view_url":null,"soiltest_xml_url":0,"soiltest_view_url":0},{"id":284203,"code":"NGIC201901162-0021","latitude":"37.642544444444","longitude":"138.94544444444","source_code":"","project_name":"","survey_name":"R1\u4fe1\u6fc3\u5ddd\u4e0b\u6d41\u5730\u8cea\u8abf\u67fb\u696d\u52d9","client_name":"\u56fd\u571f\u4ea4\u901a\u7701\u5317\u9678\u5730\u65b9\u6574\u5099\u5c40\u4fe1\u6fc3\u5ddd\u4e0b\u6d41\u6cb3\u5ddd\u4e8b\u52d9\u6240","boring_xml_url":47,"boring_view_url":1,"soilmap_view_url":null,"soiltest_xml_url":0,"soiltest_view_url":0},{"id":284202,"code":"NGIC201901162-0020","latitude":"37.642544444444","longitude":"138.94544444444","source_code":"","project_name":"","survey_name":"R1\u4fe1\u6fc3\u5ddd\u4e0b\u6d41\u5730\u8cea\u8abf\u67fb\u696d\u52d9","client_name":"\u56fd\u571f\u4ea4\u901a\u7701\u5317\u9678\u5730\u65b9\u6574\u5099\u5c40\u4fe1\u6fc3\u5ddd\u4e0b\u6d41\u6cb3\u5ddd\u4e8b\u52d9\u6240","boring_xml_url":47,"boring_view_url":1,"soilmap_view_url":null,"soiltest_xml_url":47,"soiltest_view_url":47},{"id":284201,"code":"NGIC201901162-0019","latitude":"37.643772222222","longitude":"138.94583055556","source_code":"","project_name":"","survey_name":"R1\u4fe1\u6fc3\u5ddd\u4e0b\u6d41\u5730\u8cea\u8abf\u67fb\u696d\u52d9","client_name":"\u56fd\u571f\u4ea4\u901a\u7701\u5317\u9678\u5730\u65b9\u6574\u5099\u5c40\u4fe1\u6fc3\u5ddd\u4e0b\u6d41\u6cb3\u5ddd\u4e8b\u52d9\u6240","boring_xml_url":47,"boring_view_url":1,"soilmap_view_url":null,"soiltest_xml_url":0,"soiltest_view_url":0},{"id":284200,"code":"NGIC201901162-0018","latitude":"37.643772222222","longitude":"138.94583055556","source_code":"","project_name":"","survey_name":"R1\u4fe1\u6fc3\u5ddd\u4e0b\u6d41\u5730\u8cea\u8abf\u67fb\u696d\u52d9","client_name":"\u56fd\u571f\u4ea4\u901a\u7701\u5317\u9678\u5730\u65b9\u6574\u5099\u5c40\u4fe1\u6fc3\u5ddd\u4e0b\u6d41\u6cb3\u5ddd\u4e8b\u52d9\u6240","boring_xml_url":47,"boring_view_url":1,"soilmap_view_url":null,"soiltest_xml_url":47,"soiltest_view_url":47},{"id":284199,"code":"NGIC201901162-0017","latitude":"37.646663888889","longitude":"138.94932222222","source_code":"","project_name":"","survey_name":"R1\u4fe1\u6fc3\u5ddd\u4e0b\u6d41\u5730\u8cea\u8abf\u67fb\u696d\u52d9","client_name":"\u56fd\u571f\u4ea4\u901a\u7701\u5317\u9678\u5730\u65b9\u6574\u5099\u5c40\u4fe1\u6fc3\u5ddd\u4e0b\u6d41\u6cb3\u5ddd\u4e8b\u52d9\u6240","boring_xml_url":47,"boring_view_url":1,"soilmap_view_url":null,"soiltest_xml_url":47,"soiltest_view_url":47},{"id":284198,"code":"NGIC201901162-0016","latitude":"37.647375","longitude":"138.95138611111","source_code":"","project_name":"","survey_name":"R1\u4fe1\u6fc3\u5ddd\u4e0b\u6d41\u5730\u8cea\u8abf\u67fb\u696d\u52d9","client_name":"\u56fd\u571f\u4ea4\u901a\u7701\u5317\u9678\u5730\u65b9\u6574\u5099\u5c40\u4fe1\u6fc3\u5ddd\u4e0b\u6d41\u6cb3\u5ddd\u4e8b\u52d9\u6240","boring_xml_url":47,"boring_view_url":1,"soilmap_view_url":null,"soiltest_xml_url":47,"soiltest_view_url":47},{"id":284197,"code":"NGIC201901162-0015","latitude":"37.669830555556","longitude":"139.0025","source_code":"","project_name":"","survey_name":"R1\u4fe1\u6fc3\u5ddd\u4e0b\u6d41\u5730\u8cea\u8abf\u67fb\u696d\u52d9","client_name":"\u56fd\u571f\u4ea4\u901a\u7701\u5317\u9678\u5730\u65b9\u6574\u5099\u5c40\u4fe1\u6fc3\u5ddd\u4e0b\u6d41\u6cb3\u5ddd\u4e8b\u52d9\u6240","boring_xml_url":47,"boring_view_url":1,"soilmap_view_url":null,"soiltest_xml_url":0,"soiltest_view_url":0},{"id":284196,"code":"NGIC201901162-0014","latitude":"37.669830555556","longitude":"139.0025","source_code":"","project_name":"","survey_name":"R1\u4fe1\u6fc3\u5ddd\u4e0b\u6d41\u5730\u8cea\u8abf\u67fb\u696d\u52d9","client_name":"\u56fd\u571f\u4ea4\u901a\u7701\u5317\u9678\u5730\u65b9\u6574\u5099\u5c40\u4fe1\u6fc3\u5ddd\u4e0b\u6d41\u6cb3\u5ddd\u4e8b\u52d9\u6240","boring_xml_url":47,"boring_view_url":1,"soilmap_view_url":null,"soiltest_xml_url":47,"soiltest_view_url":47},{"id":284195,"code":"NGIC201901162-0013","latitude":"37.669758333333","longitude":"139.00478611111","source_code":"","project_name":"","survey_name":"R1\u4fe1\u6fc3\u5ddd\u4e0b\u6d41\u5730\u8cea\u8abf\u67fb\u696d\u52d9","client_name":"\u56fd\u571f\u4ea4\u901a\u7701\u5317\u9678\u5730\u65b9\u6574\u5099\u5c40\u4fe1\u6fc3\u5ddd\u4e0b\u6d41\u6cb3\u5ddd\u4e8b\u52d9\u6240","boring_xml_url":47,"boring_view_url":1,"soilmap_view_url":null,"soiltest_xml_url":0,"soiltest_view_url":0},{"id":284194,"code":"NGIC201901162-0012","latitude":"37.669758333333","longitude":"139.00478611111","source_code":"","project_name":"","survey_name":"R1\u4fe1\u6fc3\u5ddd\u4e0b\u6d41\u5730\u8cea\u8abf\u67fb\u696d\u52d9","client_name":"\u56fd\u571f\u4ea4\u901a\u7701\u5317\u9678\u5730\u65b9\u6574\u5099\u5c40\u4fe1\u6fc3\u5ddd\u4e0b\u6d41\u6cb3\u5ddd\u4e8b\u52d9\u6240","boring_xml_url":47,"boring_view_url":1,"soilmap_view_url":null,"soiltest_xml_url":47,"soiltest_view_url":47},{"id":284193,"code":"NGIC201901162-0011","latitude":"37.670502777778","longitude":"139.00703055556","source_code":"","project_name":"","survey_name":"R1\u4fe1\u6fc3\u5ddd\u4e0b\u6d41\u5730\u8cea\u8abf\u67fb\u696d\u52d9","client_name":"\u56fd\u571f\u4ea4\u901a\u7701\u5317\u9678\u5730\u65b9\u6574\u5099\u5c40\u4fe1\u6fc3\u5ddd\u4e0b\u6d41\u6cb3\u5ddd\u4e8b\u52d9\u6240","boring_xml_url":47,"boring_view_url":1,"soilmap_view_url":null,"soiltest_xml_url":0,"soiltest_view_url":0},{"id":284192,"code":"NGIC201901162-0010","latitude":"37.670502777778","longitude":"139.00703055556","source_code":"","project_name":"","survey_name":"R1\u4fe1\u6fc3\u5ddd\u4e0b\u6d41\u5730\u8cea\u8abf\u67fb\u696d\u52d9","client_name":"\u56fd\u571f\u4ea4\u901a\u7701\u5317\u9678\u5730\u65b9\u6574\u5099\u5c40\u4fe1\u6fc3\u5ddd\u4e0b\u6d41\u6cb3\u5ddd\u4e8b\u52d9\u6240","boring_xml_url":47,"boring_view_url":1,"soilmap_view_url":null,"soiltest_xml_url":47,"soiltest_view_url":47},{"id":284191,"code":"NGIC201901162-0009","latitude":"37.671733333333","longitude":"139.00846666667","source_code":"","project_name":"","survey_name":"R1\u4fe1\u6fc3\u5ddd\u4e0b\u6d41\u5730\u8cea\u8abf\u67fb\u696d\u52d9","client_name":"\u56fd\u571f\u4ea4\u901a\u7701\u5317\u9678\u5730\u65b9\u6574\u5099\u5c40\u4fe1\u6fc3\u5ddd\u4e0b\u6d41\u6cb3\u5ddd\u4e8b\u52d9\u6240","boring_xml_url":47,"boring_view_url":1,"soilmap_view_url":null,"soiltest_xml_url":0,"soiltest_view_url":0}]}}