{"header":{"xyz":{"source":[],"mosaic":false},"page":2279,"raw":{"soiltest_result":"0","bbox":"57.598333,109.544722,1.933333,163.806111","page":"2279"},"conditions":{"soiltest_result":0,"north":57.598333,"west":109.544722,"south":1.933333,"east":163.806111},"success":true,"message":""},"data":{"meta":{"total":212844,"page":2279,"pages":7095,"count":30},"values":[{"id":284144,"code":"NGIC201901159-0030","latitude":"38.634463888889","longitude":"140.00351944444","source_code":"","project_name":"","survey_name":"\u7acb\u8c37\u6ca2\u5ddd\u6d41\u57df\u30cd\u30ce\u30b9\u30b1\u6ca2\u307b\u304b\u5730\u8cea\u8abf\u67fb","client_name":"\u56fd\u571f\u4ea4\u901a\u7701\u6771\u5317\u5730\u65b9\u6574\u5099\u5c40\u65b0\u5e84\u6cb3\u5ddd\u4e8b\u52d9\u6240","boring_xml_url":47,"boring_view_url":1,"soilmap_view_url":null,"soiltest_xml_url":0,"soiltest_view_url":0},{"id":284143,"code":"NGIC201901159-0029","latitude":"38.634502777778","longitude":"140.00339166667","source_code":"","project_name":"","survey_name":"\u7acb\u8c37\u6ca2\u5ddd\u6d41\u57df\u30cd\u30ce\u30b9\u30b1\u6ca2\u307b\u304b\u5730\u8cea\u8abf\u67fb","client_name":"\u56fd\u571f\u4ea4\u901a\u7701\u6771\u5317\u5730\u65b9\u6574\u5099\u5c40\u65b0\u5e84\u6cb3\u5ddd\u4e8b\u52d9\u6240","boring_xml_url":47,"boring_view_url":1,"soilmap_view_url":null,"soiltest_xml_url":0,"soiltest_view_url":0},{"id":284142,"code":"NGIC201901159-0028","latitude":"38.634547222222","longitude":"140.00310555556","source_code":"","project_name":"","survey_name":"\u7acb\u8c37\u6ca2\u5ddd\u6d41\u57df\u30cd\u30ce\u30b9\u30b1\u6ca2\u307b\u304b\u5730\u8cea\u8abf\u67fb","client_name":"\u56fd\u571f\u4ea4\u901a\u7701\u6771\u5317\u5730\u65b9\u6574\u5099\u5c40\u65b0\u5e84\u6cb3\u5ddd\u4e8b\u52d9\u6240","boring_xml_url":47,"boring_view_url":1,"soilmap_view_url":null,"soiltest_xml_url":0,"soiltest_view_url":0},{"id":284141,"code":"NGIC201901159-0027","latitude":"38.636202777778","longitude":"140.00532222222","source_code":"","project_name":"","survey_name":"\u7acb\u8c37\u6ca2\u5ddd\u6d41\u57df\u30cd\u30ce\u30b9\u30b1\u6ca2\u307b\u304b\u5730\u8cea\u8abf\u67fb","client_name":"\u56fd\u571f\u4ea4\u901a\u7701\u6771\u5317\u5730\u65b9\u6574\u5099\u5c40\u65b0\u5e84\u6cb3\u5ddd\u4e8b\u52d9\u6240","boring_xml_url":47,"boring_view_url":1,"soilmap_view_url":null,"soiltest_xml_url":0,"soiltest_view_url":0},{"id":284140,"code":"NGIC201901159-0026","latitude":"38.636419444444","longitude":"140.00514722222","source_code":"","project_name":"","survey_name":"\u7acb\u8c37\u6ca2\u5ddd\u6d41\u57df\u30cd\u30ce\u30b9\u30b1\u6ca2\u307b\u304b\u5730\u8cea\u8abf\u67fb","client_name":"\u56fd\u571f\u4ea4\u901a\u7701\u6771\u5317\u5730\u65b9\u6574\u5099\u5c40\u65b0\u5e84\u6cb3\u5ddd\u4e8b\u52d9\u6240","boring_xml_url":47,"boring_view_url":1,"soilmap_view_url":null,"soiltest_xml_url":0,"soiltest_view_url":0},{"id":284139,"code":"NGIC201901159-0025","latitude":"38.636661111111","longitude":"140.00498888889","source_code":"","project_name":"","survey_name":"\u7acb\u8c37\u6ca2\u5ddd\u6d41\u57df\u30cd\u30ce\u30b9\u30b1\u6ca2\u307b\u304b\u5730\u8cea\u8abf\u67fb","client_name":"\u56fd\u571f\u4ea4\u901a\u7701\u6771\u5317\u5730\u65b9\u6574\u5099\u5c40\u65b0\u5e84\u6cb3\u5ddd\u4e8b\u52d9\u6240","boring_xml_url":47,"boring_view_url":1,"soilmap_view_url":null,"soiltest_xml_url":0,"soiltest_view_url":0},{"id":284138,"code":"NGIC201901159-0024","latitude":"38.688591055556","longitude":"140.16125802778","source_code":"","project_name":"","survey_name":"\u7acb\u8c37\u6ca2\u5ddd\u6d41\u57df\u30cd\u30ce\u30b9\u30b1\u6ca2\u307b\u304b\u5730\u8cea\u8abf\u67fb","client_name":"\u56fd\u571f\u4ea4\u901a\u7701\u6771\u5317\u5730\u65b9\u6574\u5099\u5c40\u65b0\u5e84\u6cb3\u5ddd\u4e8b\u52d9\u6240","boring_xml_url":47,"boring_view_url":1,"soilmap_view_url":null,"soiltest_xml_url":0,"soiltest_view_url":0},{"id":284137,"code":"NGIC201901159-0023","latitude":"38.688790638889","longitude":"140.16090308333","source_code":"","project_name":"","survey_name":"\u7acb\u8c37\u6ca2\u5ddd\u6d41\u57df\u30cd\u30ce\u30b9\u30b1\u6ca2\u307b\u304b\u5730\u8cea\u8abf\u67fb","client_name":"\u56fd\u571f\u4ea4\u901a\u7701\u6771\u5317\u5730\u65b9\u6574\u5099\u5c40\u65b0\u5e84\u6cb3\u5ddd\u4e8b\u52d9\u6240","boring_xml_url":47,"boring_view_url":1,"soilmap_view_url":null,"soiltest_xml_url":0,"soiltest_view_url":0},{"id":284136,"code":"NGIC201901159-0022","latitude":"38.688517861111","longitude":"140.16119102778","source_code":"","project_name":"","survey_name":"\u7acb\u8c37\u6ca2\u5ddd\u6d41\u57df\u30cd\u30ce\u30b9\u30b1\u6ca2\u307b\u304b\u5730\u8cea\u8abf\u67fb","client_name":"\u56fd\u571f\u4ea4\u901a\u7701\u6771\u5317\u5730\u65b9\u6574\u5099\u5c40\u65b0\u5e84\u6cb3\u5ddd\u4e8b\u52d9\u6240","boring_xml_url":47,"boring_view_url":1,"soilmap_view_url":null,"soiltest_xml_url":0,"soiltest_view_url":0},{"id":284135,"code":"NGIC201901159-0021","latitude":"38.688861","longitude":"140.16077788889","source_code":"","project_name":"","survey_name":"\u7acb\u8c37\u6ca2\u5ddd\u6d41\u57df\u30cd\u30ce\u30b9\u30b1\u6ca2\u307b\u304b\u5730\u8cea\u8abf\u67fb","client_name":"\u56fd\u571f\u4ea4\u901a\u7701\u6771\u5317\u5730\u65b9\u6574\u5099\u5c40\u65b0\u5e84\u6cb3\u5ddd\u4e8b\u52d9\u6240","boring_xml_url":47,"boring_view_url":1,"soilmap_view_url":null,"soiltest_xml_url":0,"soiltest_view_url":0},{"id":284134,"code":"NGIC201901159-0020","latitude":"38.688509138889","longitude":"140.16140375","source_code":"","project_name":"","survey_name":"\u7acb\u8c37\u6ca2\u5ddd\u6d41\u57df\u30cd\u30ce\u30b9\u30b1\u6ca2\u307b\u304b\u5730\u8cea\u8abf\u67fb","client_name":"\u56fd\u571f\u4ea4\u901a\u7701\u6771\u5317\u5730\u65b9\u6574\u5099\u5c40\u65b0\u5e84\u6cb3\u5ddd\u4e8b\u52d9\u6240","boring_xml_url":47,"boring_view_url":1,"soilmap_view_url":null,"soiltest_xml_url":0,"soiltest_view_url":0},{"id":284133,"code":"NGIC201901159-0019","latitude":"38.688675083333","longitude":"140.16110858333","source_code":"","project_name":"","survey_name":"\u7acb\u8c37\u6ca2\u5ddd\u6d41\u57df\u30cd\u30ce\u30b9\u30b1\u6ca2\u307b\u304b\u5730\u8cea\u8abf\u67fb","client_name":"\u56fd\u571f\u4ea4\u901a\u7701\u6771\u5317\u5730\u65b9\u6574\u5099\u5c40\u65b0\u5e84\u6cb3\u5ddd\u4e8b\u52d9\u6240","boring_xml_url":47,"boring_view_url":1,"soilmap_view_url":null,"soiltest_xml_url":0,"soiltest_view_url":0},{"id":284132,"code":"NGIC201901159-0018","latitude":"38.935725277778","longitude":"140.36423888889","source_code":"","project_name":"","survey_name":"\u7acb\u8c37\u6ca2\u5ddd\u6d41\u57df\u30cd\u30ce\u30b9\u30b1\u6ca2\u307b\u304b\u5730\u8cea\u8abf\u67fb","client_name":"\u56fd\u571f\u4ea4\u901a\u7701\u6771\u5317\u5730\u65b9\u6574\u5099\u5c40\u65b0\u5e84\u6cb3\u5ddd\u4e8b\u52d9\u6240","boring_xml_url":47,"boring_view_url":1,"soilmap_view_url":null,"soiltest_xml_url":0,"soiltest_view_url":0},{"id":284131,"code":"NGIC201901159-0017","latitude":"38.935486388889","longitude":"140.36421636111","source_code":"","project_name":"","survey_name":"\u7acb\u8c37\u6ca2\u5ddd\u6d41\u57df\u30cd\u30ce\u30b9\u30b1\u6ca2\u307b\u304b\u5730\u8cea\u8abf\u67fb","client_name":"\u56fd\u571f\u4ea4\u901a\u7701\u6771\u5317\u5730\u65b9\u6574\u5099\u5c40\u65b0\u5e84\u6cb3\u5ddd\u4e8b\u52d9\u6240","boring_xml_url":47,"boring_view_url":1,"soilmap_view_url":null,"soiltest_xml_url":0,"soiltest_view_url":0},{"id":284130,"code":"NGIC201901159-0016","latitude":"38.935603583333","longitude":"140.36398369444","source_code":"","project_name":"","survey_name":"\u7acb\u8c37\u6ca2\u5ddd\u6d41\u57df\u30cd\u30ce\u30b9\u30b1\u6ca2\u307b\u304b\u5730\u8cea\u8abf\u67fb","client_name":"\u56fd\u571f\u4ea4\u901a\u7701\u6771\u5317\u5730\u65b9\u6574\u5099\u5c40\u65b0\u5e84\u6cb3\u5ddd\u4e8b\u52d9\u6240","boring_xml_url":47,"boring_view_url":1,"soilmap_view_url":null,"soiltest_xml_url":0,"soiltest_view_url":0},{"id":284129,"code":"NGIC201901159-0015","latitude":"38.9355345","longitude":"140.36412086111","source_code":"","project_name":"","survey_name":"\u7acb\u8c37\u6ca2\u5ddd\u6d41\u57df\u30cd\u30ce\u30b9\u30b1\u6ca2\u307b\u304b\u5730\u8cea\u8abf\u67fb","client_name":"\u56fd\u571f\u4ea4\u901a\u7701\u6771\u5317\u5730\u65b9\u6574\u5099\u5c40\u65b0\u5e84\u6cb3\u5ddd\u4e8b\u52d9\u6240","boring_xml_url":47,"boring_view_url":1,"soilmap_view_url":null,"soiltest_xml_url":0,"soiltest_view_url":0},{"id":284128,"code":"NGIC201901159-0014","latitude":"38.93804","longitude":"140.36271622222","source_code":"","project_name":"","survey_name":"\u7acb\u8c37\u6ca2\u5ddd\u6d41\u57df\u30cd\u30ce\u30b9\u30b1\u6ca2\u307b\u304b\u5730\u8cea\u8abf\u67fb","client_name":"\u56fd\u571f\u4ea4\u901a\u7701\u6771\u5317\u5730\u65b9\u6574\u5099\u5c40\u65b0\u5e84\u6cb3\u5ddd\u4e8b\u52d9\u6240","boring_xml_url":47,"boring_view_url":1,"soilmap_view_url":null,"soiltest_xml_url":0,"soiltest_view_url":0},{"id":284127,"code":"NGIC201901159-0013","latitude":"38.938035555556","longitude":"140.36250833333","source_code":"","project_name":"","survey_name":"\u7acb\u8c37\u6ca2\u5ddd\u6d41\u57df\u30cd\u30ce\u30b9\u30b1\u6ca2\u307b\u304b\u5730\u8cea\u8abf\u67fb","client_name":"\u56fd\u571f\u4ea4\u901a\u7701\u6771\u5317\u5730\u65b9\u6574\u5099\u5c40\u65b0\u5e84\u6cb3\u5ddd\u4e8b\u52d9\u6240","boring_xml_url":47,"boring_view_url":1,"soilmap_view_url":null,"soiltest_xml_url":0,"soiltest_view_url":0},{"id":284126,"code":"NGIC201901159-0012","latitude":"38.938202861111","longitude":"140.36238402778","source_code":"","project_name":"","survey_name":"\u7acb\u8c37\u6ca2\u5ddd\u6d41\u57df\u30cd\u30ce\u30b9\u30b1\u6ca2\u307b\u304b\u5730\u8cea\u8abf\u67fb","client_name":"\u56fd\u571f\u4ea4\u901a\u7701\u6771\u5317\u5730\u65b9\u6574\u5099\u5c40\u65b0\u5e84\u6cb3\u5ddd\u4e8b\u52d9\u6240","boring_xml_url":47,"boring_view_url":1,"soilmap_view_url":null,"soiltest_xml_url":0,"soiltest_view_url":0},{"id":284125,"code":"NGIC201901159-0011","latitude":"38.937958583333","longitude":"140.36288233333","source_code":"","project_name":"","survey_name":"\u7acb\u8c37\u6ca2\u5ddd\u6d41\u57df\u30cd\u30ce\u30b9\u30b1\u6ca2\u307b\u304b\u5730\u8cea\u8abf\u67fb","client_name":"\u56fd\u571f\u4ea4\u901a\u7701\u6771\u5317\u5730\u65b9\u6574\u5099\u5c40\u65b0\u5e84\u6cb3\u5ddd\u4e8b\u52d9\u6240","boring_xml_url":47,"boring_view_url":1,"soilmap_view_url":null,"soiltest_xml_url":0,"soiltest_view_url":0},{"id":284124,"code":"NGIC201901159-0010","latitude":"38.938111861111","longitude":"140.36256966667","source_code":"","project_name":"","survey_name":"\u7acb\u8c37\u6ca2\u5ddd\u6d41\u57df\u30cd\u30ce\u30b9\u30b1\u6ca2\u307b\u304b\u5730\u8cea\u8abf\u67fb","client_name":"\u56fd\u571f\u4ea4\u901a\u7701\u6771\u5317\u5730\u65b9\u6574\u5099\u5c40\u65b0\u5e84\u6cb3\u5ddd\u4e8b\u52d9\u6240","boring_xml_url":47,"boring_view_url":1,"soilmap_view_url":null,"soiltest_xml_url":0,"soiltest_view_url":0},{"id":284123,"code":"NGIC201901159-0009","latitude":"38.938706527778","longitude":"140.35887469444","source_code":"","project_name":"","survey_name":"\u7acb\u8c37\u6ca2\u5ddd\u6d41\u57df\u30cd\u30ce\u30b9\u30b1\u6ca2\u307b\u304b\u5730\u8cea\u8abf\u67fb","client_name":"\u56fd\u571f\u4ea4\u901a\u7701\u6771\u5317\u5730\u65b9\u6574\u5099\u5c40\u65b0\u5e84\u6cb3\u5ddd\u4e8b\u52d9\u6240","boring_xml_url":47,"boring_view_url":1,"soilmap_view_url":null,"soiltest_xml_url":0,"soiltest_view_url":0},{"id":284122,"code":"NGIC201901159-0008","latitude":"38.938702305556","longitude":"140.35911797222","source_code":"","project_name":"","survey_name":"\u7acb\u8c37\u6ca2\u5ddd\u6d41\u57df\u30cd\u30ce\u30b9\u30b1\u6ca2\u307b\u304b\u5730\u8cea\u8abf\u67fb","client_name":"\u56fd\u571f\u4ea4\u901a\u7701\u6771\u5317\u5730\u65b9\u6574\u5099\u5c40\u65b0\u5e84\u6cb3\u5ddd\u4e8b\u52d9\u6240","boring_xml_url":47,"boring_view_url":1,"soilmap_view_url":null,"soiltest_xml_url":0,"soiltest_view_url":0},{"id":284121,"code":"NGIC201901159-0007","latitude":"38.938790277778","longitude":"140.35894325","source_code":"","project_name":"","survey_name":"\u7acb\u8c37\u6ca2\u5ddd\u6d41\u57df\u30cd\u30ce\u30b9\u30b1\u6ca2\u307b\u304b\u5730\u8cea\u8abf\u67fb","client_name":"\u56fd\u571f\u4ea4\u901a\u7701\u6771\u5317\u5730\u65b9\u6574\u5099\u5c40\u65b0\u5e84\u6cb3\u5ddd\u4e8b\u52d9\u6240","boring_xml_url":47,"boring_view_url":1,"soilmap_view_url":null,"soiltest_xml_url":0,"soiltest_view_url":0},{"id":284120,"code":"NGIC201901159-0006","latitude":"38.9388775","longitude":"140.35876852778","source_code":"","project_name":"","survey_name":"\u7acb\u8c37\u6ca2\u5ddd\u6d41\u57df\u30cd\u30ce\u30b9\u30b1\u6ca2\u307b\u304b\u5730\u8cea\u8abf\u67fb","client_name":"\u56fd\u571f\u4ea4\u901a\u7701\u6771\u5317\u5730\u65b9\u6574\u5099\u5c40\u65b0\u5e84\u6cb3\u5ddd\u4e8b\u52d9\u6240","boring_xml_url":47,"boring_view_url":1,"soilmap_view_url":null,"soiltest_xml_url":0,"soiltest_view_url":0},{"id":284119,"code":"NGIC201901159-0005","latitude":"38.925375527778","longitude":"140.36133772222","source_code":"","project_name":"","survey_name":"\u7acb\u8c37\u6ca2\u5ddd\u6d41\u57df\u30cd\u30ce\u30b9\u30b1\u6ca2\u307b\u304b\u5730\u8cea\u8abf\u67fb","client_name":"\u56fd\u571f\u4ea4\u901a\u7701\u6771\u5317\u5730\u65b9\u6574\u5099\u5c40\u65b0\u5e84\u6cb3\u5ddd\u4e8b\u52d9\u6240","boring_xml_url":47,"boring_view_url":1,"soilmap_view_url":null,"soiltest_xml_url":0,"soiltest_view_url":0},{"id":284118,"code":"NGIC201901159-0004","latitude":"38.92522975","longitude":"140.36119866667","source_code":"","project_name":"","survey_name":"\u7acb\u8c37\u6ca2\u5ddd\u6d41\u57df\u30cd\u30ce\u30b9\u30b1\u6ca2\u307b\u304b\u5730\u8cea\u8abf\u67fb","client_name":"\u56fd\u571f\u4ea4\u901a\u7701\u6771\u5317\u5730\u65b9\u6574\u5099\u5c40\u65b0\u5e84\u6cb3\u5ddd\u4e8b\u52d9\u6240","boring_xml_url":47,"boring_view_url":1,"soilmap_view_url":null,"soiltest_xml_url":0,"soiltest_view_url":0},{"id":284117,"code":"NGIC201901159-0003","latitude":"38.925428111111","longitude":"140.36151958333","source_code":"","project_name":"","survey_name":"\u7acb\u8c37\u6ca2\u5ddd\u6d41\u57df\u30cd\u30ce\u30b9\u30b1\u6ca2\u307b\u304b\u5730\u8cea\u8abf\u67fb","client_name":"\u56fd\u571f\u4ea4\u901a\u7701\u6771\u5317\u5730\u65b9\u6574\u5099\u5c40\u65b0\u5e84\u6cb3\u5ddd\u4e8b\u52d9\u6240","boring_xml_url":47,"boring_view_url":1,"soilmap_view_url":null,"soiltest_xml_url":0,"soiltest_view_url":0},{"id":284116,"code":"NGIC201901159-0002","latitude":"38.925322472222","longitude":"140.36115388889","source_code":"","project_name":"","survey_name":"\u7acb\u8c37\u6ca2\u5ddd\u6d41\u57df\u30cd\u30ce\u30b9\u30b1\u6ca2\u307b\u304b\u5730\u8cea\u8abf\u67fb","client_name":"\u56fd\u571f\u4ea4\u901a\u7701\u6771\u5317\u5730\u65b9\u6574\u5099\u5c40\u65b0\u5e84\u6cb3\u5ddd\u4e8b\u52d9\u6240","boring_xml_url":47,"boring_view_url":1,"soilmap_view_url":null,"soiltest_xml_url":0,"soiltest_view_url":0},{"id":284115,"code":"NGIC201901159-0001","latitude":"38.925273416667","longitude":"140.36098416667","source_code":"","project_name":"","survey_name":"\u7acb\u8c37\u6ca2\u5ddd\u6d41\u57df\u30cd\u30ce\u30b9\u30b1\u6ca2\u307b\u304b\u5730\u8cea\u8abf\u67fb","client_name":"\u56fd\u571f\u4ea4\u901a\u7701\u6771\u5317\u5730\u65b9\u6574\u5099\u5c40\u65b0\u5e84\u6cb3\u5ddd\u4e8b\u52d9\u6240","boring_xml_url":47,"boring_view_url":1,"soilmap_view_url":null,"soiltest_xml_url":0,"soiltest_view_url":0}]}}