{"header":{"xyz":{"source":[],"mosaic":false},"page":2280,"raw":{"soiltest_result":"0","bbox":"57.598333,109.544722,1.933333,163.806111","page":"2280"},"conditions":{"soiltest_result":0,"north":57.598333,"west":109.544722,"south":1.933333,"east":163.806111},"success":true,"message":""},"data":{"meta":{"total":212844,"page":2280,"pages":7095,"count":30},"values":[{"id":284114,"code":"NGIC201901150-0003","latitude":"42.709723055556","longitude":"141.87481891667","source_code":"","project_name":"\u76f4\u8f44\u707d\u5bb3\u5fa9\u65e7\u4e8b\u696d\u52c7\u6255\u6771\u90e8\u5730\u533a","survey_name":"\u4ee4\u548c\u5143\u5e74\u5ea6 \u52c7\u6255\u6771\u90e8\u5730\u533a \u539a\u5e4c\u5c0e\u6c34\u8def\u9644\u5e2f\u65bd\u8a2d\u707d\u5bb3\u5fa9\u65e7\u5bfe\u7b56\u691c\u8a0e\u7b49\u696d\u52d9","client_name":"\u56fd\u571f\u4ea4\u901a\u7701\u5317\u6d77\u9053\u958b\u767a\u5c40\u5ba4\u862d\u958b\u767a\u5efa\u8a2d\u90e8\u80c6\u632f\u6771\u90e8\u8fb2\u696d\u958b\u767a\u4e8b\u696d\u6240","boring_xml_url":47,"boring_view_url":1,"soilmap_view_url":null,"soiltest_xml_url":0,"soiltest_view_url":0},{"id":284113,"code":"NGIC201901150-0002","latitude":"42.709668527778","longitude":"141.87469725","source_code":"","project_name":"\u76f4\u8f44\u707d\u5bb3\u5fa9\u65e7\u4e8b\u696d\u52c7\u6255\u6771\u90e8\u5730\u533a","survey_name":"\u4ee4\u548c\u5143\u5e74\u5ea6 \u52c7\u6255\u6771\u90e8\u5730\u533a \u539a\u5e4c\u5c0e\u6c34\u8def\u9644\u5e2f\u65bd\u8a2d\u707d\u5bb3\u5fa9\u65e7\u5bfe\u7b56\u691c\u8a0e\u7b49\u696d\u52d9","client_name":"\u56fd\u571f\u4ea4\u901a\u7701\u5317\u6d77\u9053\u958b\u767a\u5c40\u5ba4\u862d\u958b\u767a\u5efa\u8a2d\u90e8\u80c6\u632f\u6771\u90e8\u8fb2\u696d\u958b\u767a\u4e8b\u696d\u6240","boring_xml_url":47,"boring_view_url":1,"soilmap_view_url":null,"soiltest_xml_url":0,"soiltest_view_url":0},{"id":284112,"code":"NGIC201901150-0001","latitude":"42.709628305556","longitude":"141.87460747222","source_code":"","project_name":"\u76f4\u8f44\u707d\u5bb3\u5fa9\u65e7\u4e8b\u696d\u52c7\u6255\u6771\u90e8\u5730\u533a","survey_name":"\u4ee4\u548c\u5143\u5e74\u5ea6 \u52c7\u6255\u6771\u90e8\u5730\u533a \u539a\u5e4c\u5c0e\u6c34\u8def\u9644\u5e2f\u65bd\u8a2d\u707d\u5bb3\u5fa9\u65e7\u5bfe\u7b56\u691c\u8a0e\u7b49\u696d\u52d9","client_name":"\u56fd\u571f\u4ea4\u901a\u7701\u5317\u6d77\u9053\u958b\u767a\u5c40\u5ba4\u862d\u958b\u767a\u5efa\u8a2d\u90e8\u80c6\u632f\u6771\u90e8\u8fb2\u696d\u958b\u767a\u4e8b\u696d\u6240","boring_xml_url":47,"boring_view_url":1,"soilmap_view_url":null,"soiltest_xml_url":0,"soiltest_view_url":0},{"id":284111,"code":"NGIC201901142-0004","latitude":"38.43175","longitude":"141.31047222222","source_code":"","project_name":"\u65e7\u5317\u4e0a\u5ddd\u53f3\u5cb8\u4f4f\u5409\u4e0b\u6d41\u5730\u533a\u7bc9\u5824\u5de5\u4e8b","survey_name":"\u65e7\u5317\u4e0a\u5ddd\u53f3\u5cb8\u4f4f\u5409\u4e0b\u6d41\u5730\u533a\u7bc9\u5824\u5de5\u4e8b","client_name":"\u56fd\u571f\u4ea4\u901a\u7701\u6771\u5317\u5730\u65b9\u6574\u5099\u5c40\u5317\u4e0a\u5ddd\u4e0b\u6d41\u6cb3\u5ddd\u4e8b\u52d9\u6240","boring_xml_url":47,"boring_view_url":1,"soilmap_view_url":null,"soiltest_xml_url":0,"soiltest_view_url":0},{"id":284110,"code":"NGIC201901142-0003","latitude":"38.4375","longitude":"141.31388888889","source_code":"","project_name":"\u65e7\u5317\u4e0a\u5ddd\u53f3\u5cb8\u4f4f\u5409\u4e0b\u6d41\u5730\u533a\u7bc9\u5824\u5de5\u4e8b","survey_name":"\u65e7\u5317\u4e0a\u5ddd\u53f3\u5cb8\u4f4f\u5409\u4e0b\u6d41\u5730\u533a\u7bc9\u5824\u5de5\u4e8b","client_name":"\u56fd\u571f\u4ea4\u901a\u7701\u6771\u5317\u5730\u65b9\u6574\u5099\u5c40\u5317\u4e0a\u5ddd\u4e0b\u6d41\u6cb3\u5ddd\u4e8b\u52d9\u6240","boring_xml_url":47,"boring_view_url":1,"soilmap_view_url":null,"soiltest_xml_url":0,"soiltest_view_url":0},{"id":284109,"code":"NGIC201901142-0002","latitude":"38.434222222222","longitude":"141.31169444444","source_code":"","project_name":"\u65e7\u5317\u4e0a\u5ddd\u53f3\u5cb8\u4f4f\u5409\u4e0b\u6d41\u5730\u533a\u7bc9\u5824\u5de5\u4e8b","survey_name":"\u65e7\u5317\u4e0a\u5ddd\u53f3\u5cb8\u4f4f\u5409\u4e0b\u6d41\u5730\u533a\u7bc9\u5824\u5de5\u4e8b","client_name":"\u56fd\u571f\u4ea4\u901a\u7701\u6771\u5317\u5730\u65b9\u6574\u5099\u5c40\u5317\u4e0a\u5ddd\u4e0b\u6d41\u6cb3\u5ddd\u4e8b\u52d9\u6240","boring_xml_url":47,"boring_view_url":1,"soilmap_view_url":null,"soiltest_xml_url":0,"soiltest_view_url":0},{"id":284108,"code":"NGIC201901142-0001","latitude":"38.433777777778","longitude":"141.31130555556","source_code":"","project_name":"\u65e7\u5317\u4e0a\u5ddd\u53f3\u5cb8\u4f4f\u5409\u4e0b\u6d41\u5730\u533a\u7bc9\u5824\u5de5\u4e8b","survey_name":"\u65e7\u5317\u4e0a\u5ddd\u53f3\u5cb8\u4f4f\u5409\u4e0b\u6d41\u5730\u533a\u7bc9\u5824\u5de5\u4e8b","client_name":"\u56fd\u571f\u4ea4\u901a\u7701\u6771\u5317\u5730\u65b9\u6574\u5099\u5c40\u5317\u4e0a\u5ddd\u4e0b\u6d41\u6cb3\u5ddd\u4e8b\u52d9\u6240","boring_xml_url":47,"boring_view_url":1,"soilmap_view_url":null,"soiltest_xml_url":0,"soiltest_view_url":0},{"id":284101,"code":"NGIC201901135-0004","latitude":"42.580694444444","longitude":"142.12188888889","source_code":"","project_name":"\u65e5\u9ad8\u9053\u8def\u4e8b\u52d9\u6240\u7ba1\u5185\u5730\u8cea\u8abf\u67fb\u696d\u52d9","survey_name":"\u65e5\u9ad8\u9053\u8def\u4e8b\u52d9\u6240\u7ba1\u5185\u5730\u8cea\u8abf\u67fb\u696d\u52d9","client_name":"\u56fd\u571f\u4ea4\u901a\u7701\u5317\u6d77\u9053\u958b\u767a\u5c40\u5ba4\u862d\u958b\u767a\u5efa\u8a2d\u90e8 \u672c\u90e8","boring_xml_url":47,"boring_view_url":1,"soilmap_view_url":null,"soiltest_xml_url":47,"soiltest_view_url":47},{"id":284100,"code":"NGIC201901135-0003","latitude":"42.581222222222","longitude":"142.12275","source_code":"","project_name":"\u65e5\u9ad8\u9053\u8def\u4e8b\u52d9\u6240\u7ba1\u5185\u5730\u8cea\u8abf\u67fb\u696d\u52d9","survey_name":"\u65e5\u9ad8\u9053\u8def\u4e8b\u52d9\u6240\u7ba1\u5185\u5730\u8cea\u8abf\u67fb\u696d\u52d9","client_name":"\u56fd\u571f\u4ea4\u901a\u7701\u5317\u6d77\u9053\u958b\u767a\u5c40\u5ba4\u862d\u958b\u767a\u5efa\u8a2d\u90e8 \u672c\u90e8","boring_xml_url":47,"boring_view_url":1,"soilmap_view_url":null,"soiltest_xml_url":47,"soiltest_view_url":47},{"id":284099,"code":"NGIC201901135-0002","latitude":"42.725858111111","longitude":"142.29211686111","source_code":"","project_name":"\u65e5\u9ad8\u9053\u8def\u4e8b\u52d9\u6240\u7ba1\u5185\u5730\u8cea\u8abf\u67fb\u696d\u52d9","survey_name":"\u65e5\u9ad8\u9053\u8def\u4e8b\u52d9\u6240\u7ba1\u5185\u5730\u8cea\u8abf\u67fb\u696d\u52d9","client_name":"\u56fd\u571f\u4ea4\u901a\u7701\u5317\u6d77\u9053\u958b\u767a\u5c40\u5ba4\u862d\u958b\u767a\u5efa\u8a2d\u90e8 \u672c\u90e8","boring_xml_url":47,"boring_view_url":1,"soilmap_view_url":null,"soiltest_xml_url":0,"soiltest_view_url":0},{"id":284098,"code":"NGIC201901135-0001","latitude":"42.725847527778","longitude":"142.29224425","source_code":"","project_name":"\u65e5\u9ad8\u9053\u8def\u4e8b\u52d9\u6240\u7ba1\u5185\u5730\u8cea\u8abf\u67fb\u696d\u52d9","survey_name":"\u65e5\u9ad8\u9053\u8def\u4e8b\u52d9\u6240\u7ba1\u5185\u5730\u8cea\u8abf\u67fb\u696d\u52d9","client_name":"\u56fd\u571f\u4ea4\u901a\u7701\u5317\u6d77\u9053\u958b\u767a\u5c40\u5ba4\u862d\u958b\u767a\u5efa\u8a2d\u90e8 \u672c\u90e8","boring_xml_url":47,"boring_view_url":1,"soilmap_view_url":null,"soiltest_xml_url":0,"soiltest_view_url":0},{"id":284086,"code":"NGIC201901127-0005","latitude":"38.485913888889","longitude":"139.99492777778","source_code":"","project_name":"\n      ","survey_name":"\u5fd7\u6d25\u5730\u3059\u3079\u308a\u4e94\u8272\u6cbc\u4e2d\u90e8\u5730\u8cea\u8abf\u67fb","client_name":"\u56fd\u571f\u4ea4\u901a\u7701\u6771\u5317\u5730\u65b9\u6574\u5099\u5c40\u65b0\u5e84\u6cb3\u5ddd\u4e8b\u52d9\u6240","boring_xml_url":47,"boring_view_url":1,"soilmap_view_url":null,"soiltest_xml_url":0,"soiltest_view_url":0},{"id":284085,"code":"NGIC201901127-0004","latitude":"38.490886861111","longitude":"140.00432361111","source_code":"","project_name":"\n      ","survey_name":"\u5fd7\u6d25\u5730\u3059\u3079\u308a\u4e94\u8272\u6cbc\u4e2d\u90e8\u5730\u8cea\u8abf\u67fb","client_name":"\u56fd\u571f\u4ea4\u901a\u7701\u6771\u5317\u5730\u65b9\u6574\u5099\u5c40\u65b0\u5e84\u6cb3\u5ddd\u4e8b\u52d9\u6240","boring_xml_url":47,"boring_view_url":1,"soilmap_view_url":null,"soiltest_xml_url":0,"soiltest_view_url":0},{"id":284084,"code":"NGIC201901127-0003","latitude":"38.493181972222","longitude":"140.00226116667","source_code":"","project_name":"\n      ","survey_name":"\u5fd7\u6d25\u5730\u3059\u3079\u308a\u4e94\u8272\u6cbc\u4e2d\u90e8\u5730\u8cea\u8abf\u67fb","client_name":"\u56fd\u571f\u4ea4\u901a\u7701\u6771\u5317\u5730\u65b9\u6574\u5099\u5c40\u65b0\u5e84\u6cb3\u5ddd\u4e8b\u52d9\u6240","boring_xml_url":47,"boring_view_url":1,"soilmap_view_url":null,"soiltest_xml_url":0,"soiltest_view_url":0},{"id":284083,"code":"NGIC201901127-0002","latitude":"38.494824277778","longitude":"140.00278408333","source_code":"","project_name":"\n      ","survey_name":"\u5fd7\u6d25\u5730\u3059\u3079\u308a\u4e94\u8272\u6cbc\u4e2d\u90e8\u5730\u8cea\u8abf\u67fb","client_name":"\u56fd\u571f\u4ea4\u901a\u7701\u6771\u5317\u5730\u65b9\u6574\u5099\u5c40\u65b0\u5e84\u6cb3\u5ddd\u4e8b\u52d9\u6240","boring_xml_url":47,"boring_view_url":1,"soilmap_view_url":null,"soiltest_xml_url":0,"soiltest_view_url":0},{"id":284082,"code":"NGIC201901127-0001","latitude":"38.494381472222","longitude":"140.00448136111","source_code":"","project_name":"\n      ","survey_name":"\u5fd7\u6d25\u5730\u3059\u3079\u308a\u4e94\u8272\u6cbc\u4e2d\u90e8\u5730\u8cea\u8abf\u67fb","client_name":"\u56fd\u571f\u4ea4\u901a\u7701\u6771\u5317\u5730\u65b9\u6574\u5099\u5c40\u65b0\u5e84\u6cb3\u5ddd\u4e8b\u52d9\u6240","boring_xml_url":47,"boring_view_url":1,"soilmap_view_url":null,"soiltest_xml_url":0,"soiltest_view_url":0},{"id":284080,"code":"NGIC201901119-0001","latitude":"31.877222222222","longitude":"131.17102777778","source_code":"","project_name":"","survey_name":"\u4ee4\u548c\u5143\u5e74\u5ea6\u56fd\u905310\u53f7\u9053\u8def\u9632\u707d\u70b9\u691c\u30fb\u6e2c\u91cf\u8a2d\u8a08\u696d\u52d9","client_name":"\u56fd\u571f\u4ea4\u901a\u7701\u4e5d\u5dde\u5730\u65b9\u6574\u5099\u5c40\u5bae\u5d0e\u6cb3\u5ddd\u56fd\u9053\u4e8b\u52d9\u6240","boring_xml_url":47,"boring_view_url":1,"soilmap_view_url":null,"soiltest_xml_url":0,"soiltest_view_url":0},{"id":284055,"code":"NGIC201901101-0003","latitude":"42.768243083333","longitude":"143.03101755556","source_code":"","project_name":"\u56fd\u55b6\u304b\u3093\u304c\u3044\u6392\u6c34\u4e8b\u696d","survey_name":"\u4ee4\u548c\u5143\u5e74\u5ea6\u65bd\u884c\u82bd\u5ba4\u5ddd\u897f\u5730\u533a\u5317\u304b\u308f\u306b\u3057\u30d5\u30a1\u30fc\u30e0\u30dd\u30f3\u30c9\u5b9f\u65bd\u8a2d\u8a08\u7b49\u696d\u52d9","client_name":"\u56fd\u571f\u4ea4\u901a\u7701\u5317\u6d77\u9053\u958b\u767a\u5c40\u5e2f\u5e83\u958b\u767a\u5efa\u8a2d\u90e8\u3000\u5e2f\u5e83\u8fb2\u696d\u4e8b\u52d9\u6240","boring_xml_url":47,"boring_view_url":1,"soilmap_view_url":null,"soiltest_xml_url":47,"soiltest_view_url":47},{"id":284054,"code":"NGIC201901101-0002","latitude":"42.767817027778","longitude":"143.03112191667","source_code":"","project_name":"\u56fd\u55b6\u304b\u3093\u304c\u3044\u6392\u6c34\u4e8b\u696d","survey_name":"\u4ee4\u548c\u5143\u5e74\u5ea6\u65bd\u884c\u82bd\u5ba4\u5ddd\u897f\u5730\u533a\u5317\u304b\u308f\u306b\u3057\u30d5\u30a1\u30fc\u30e0\u30dd\u30f3\u30c9\u5b9f\u65bd\u8a2d\u8a08\u7b49\u696d\u52d9","client_name":"\u56fd\u571f\u4ea4\u901a\u7701\u5317\u6d77\u9053\u958b\u767a\u5c40\u5e2f\u5e83\u958b\u767a\u5efa\u8a2d\u90e8\u3000\u5e2f\u5e83\u8fb2\u696d\u4e8b\u52d9\u6240","boring_xml_url":47,"boring_view_url":1,"soilmap_view_url":null,"soiltest_xml_url":47,"soiltest_view_url":47},{"id":284053,"code":"NGIC201901101-0001","latitude":"42.769474416667","longitude":"143.02840530556","source_code":"","project_name":"\u56fd\u55b6\u304b\u3093\u304c\u3044\u6392\u6c34\u4e8b\u696d","survey_name":"\u4ee4\u548c\u5143\u5e74\u5ea6\u65bd\u884c\u82bd\u5ba4\u5ddd\u897f\u5730\u533a\u5317\u304b\u308f\u306b\u3057\u30d5\u30a1\u30fc\u30e0\u30dd\u30f3\u30c9\u5b9f\u65bd\u8a2d\u8a08\u7b49\u696d\u52d9","client_name":"\u56fd\u571f\u4ea4\u901a\u7701\u5317\u6d77\u9053\u958b\u767a\u5c40\u5e2f\u5e83\u958b\u767a\u5efa\u8a2d\u90e8\u3000\u5e2f\u5e83\u8fb2\u696d\u4e8b\u52d9\u6240","boring_xml_url":47,"boring_view_url":1,"soilmap_view_url":null,"soiltest_xml_url":47,"soiltest_view_url":47},{"id":284046,"code":"NGIC201901102-0003","latitude":"34.049472444444","longitude":"131.74147255556","source_code":"","project_name":"","survey_name":"\u5fb3\u5c71\u4e0b\u677e\u6e2f\u571f\u8cea\u8abf\u67fb","client_name":"\u56fd\u571f\u4ea4\u901a\u7701\u4e2d\u56fd\u5730\u65b9\u6574\u5099\u5c40\u5b87\u90e8\u6e2f\u6e7e\u30fb\u7a7a\u6e2f\u6574\u5099\u4e8b\u52d9\u6240","boring_xml_url":47,"boring_view_url":1,"soilmap_view_url":null,"soiltest_xml_url":0,"soiltest_view_url":0},{"id":284045,"code":"NGIC201901102-0002","latitude":"34.049638972222","longitude":"131.74086375","source_code":"","project_name":"","survey_name":"\u5fb3\u5c71\u4e0b\u677e\u6e2f\u571f\u8cea\u8abf\u67fb","client_name":"\u56fd\u571f\u4ea4\u901a\u7701\u4e2d\u56fd\u5730\u65b9\u6574\u5099\u5c40\u5b87\u90e8\u6e2f\u6e7e\u30fb\u7a7a\u6e2f\u6574\u5099\u4e8b\u52d9\u6240","boring_xml_url":47,"boring_view_url":1,"soilmap_view_url":71,"soiltest_xml_url":47,"soiltest_view_url":47},{"id":284044,"code":"NGIC201901102-0001","latitude":"34.024075277778","longitude":"131.77918491667","source_code":"","project_name":"","survey_name":"\u5fb3\u5c71\u4e0b\u677e\u6e2f\u571f\u8cea\u8abf\u67fb","client_name":"\u56fd\u571f\u4ea4\u901a\u7701\u4e2d\u56fd\u5730\u65b9\u6574\u5099\u5c40\u5b87\u90e8\u6e2f\u6e7e\u30fb\u7a7a\u6e2f\u6574\u5099\u4e8b\u52d9\u6240","boring_xml_url":47,"boring_view_url":1,"soilmap_view_url":71,"soiltest_xml_url":47,"soiltest_view_url":47},{"id":284043,"code":"NGIC201901122-0010","latitude":"35.199948138889","longitude":"132.46070244444","source_code":"","project_name":"","survey_name":"\u5927\u7530\u9759\u9593\u9053\u8def\u9759\u9593\u6771\u90e8\u5730\u533a\u5916\u5730\u8cea\u8abf\u67fb\u696d\u52d9","client_name":"\u56fd\u571f\u4ea4\u901a\u7701\u4e2d\u56fd\u5730\u65b9\u6574\u5099\u5c40\u4e2d\u56fd\u5730\u65b9\u6574\u5099\u5c40 \u677e\u6c5f\u56fd\u9053\u4e8b\u52d9\u6240","boring_xml_url":47,"boring_view_url":1,"soilmap_view_url":null,"soiltest_xml_url":0,"soiltest_view_url":0},{"id":284042,"code":"NGIC201901122-0009","latitude":"35.199763138889","longitude":"132.46090147222","source_code":"","project_name":"","survey_name":"\u5927\u7530\u9759\u9593\u9053\u8def\u9759\u9593\u6771\u90e8\u5730\u533a\u5916\u5730\u8cea\u8abf\u67fb\u696d\u52d9","client_name":"\u56fd\u571f\u4ea4\u901a\u7701\u4e2d\u56fd\u5730\u65b9\u6574\u5099\u5c40\u4e2d\u56fd\u5730\u65b9\u6574\u5099\u5c40 \u677e\u6c5f\u56fd\u9053\u4e8b\u52d9\u6240","boring_xml_url":47,"boring_view_url":1,"soilmap_view_url":null,"soiltest_xml_url":0,"soiltest_view_url":0},{"id":284041,"code":"NGIC201901122-0008","latitude":"35.199385777778","longitude":"132.46106261111","source_code":"","project_name":"","survey_name":"\u5927\u7530\u9759\u9593\u9053\u8def\u9759\u9593\u6771\u90e8\u5730\u533a\u5916\u5730\u8cea\u8abf\u67fb\u696d\u52d9","client_name":"\u56fd\u571f\u4ea4\u901a\u7701\u4e2d\u56fd\u5730\u65b9\u6574\u5099\u5c40\u4e2d\u56fd\u5730\u65b9\u6574\u5099\u5c40 \u677e\u6c5f\u56fd\u9053\u4e8b\u52d9\u6240","boring_xml_url":47,"boring_view_url":1,"soilmap_view_url":null,"soiltest_xml_url":0,"soiltest_view_url":0},{"id":284040,"code":"NGIC201901122-0007","latitude":"35.211202","longitude":"132.50304202778","source_code":"","project_name":"","survey_name":"\u5927\u7530\u9759\u9593\u9053\u8def\u9759\u9593\u6771\u90e8\u5730\u533a\u5916\u5730\u8cea\u8abf\u67fb\u696d\u52d9","client_name":"\u56fd\u571f\u4ea4\u901a\u7701\u4e2d\u56fd\u5730\u65b9\u6574\u5099\u5c40\u4e2d\u56fd\u5730\u65b9\u6574\u5099\u5c40 \u677e\u6c5f\u56fd\u9053\u4e8b\u52d9\u6240","boring_xml_url":47,"boring_view_url":1,"soilmap_view_url":null,"soiltest_xml_url":0,"soiltest_view_url":0},{"id":284039,"code":"NGIC201901122-0006","latitude":"35.211285277778","longitude":"132.50300286111","source_code":"","project_name":"","survey_name":"\u5927\u7530\u9759\u9593\u9053\u8def\u9759\u9593\u6771\u90e8\u5730\u533a\u5916\u5730\u8cea\u8abf\u67fb\u696d\u52d9","client_name":"\u56fd\u571f\u4ea4\u901a\u7701\u4e2d\u56fd\u5730\u65b9\u6574\u5099\u5c40\u4e2d\u56fd\u5730\u65b9\u6574\u5099\u5c40 \u677e\u6c5f\u56fd\u9053\u4e8b\u52d9\u6240","boring_xml_url":47,"boring_view_url":1,"soilmap_view_url":null,"soiltest_xml_url":0,"soiltest_view_url":0},{"id":284038,"code":"NGIC201901122-0005","latitude":"35.206888277778","longitude":"132.48990452778","source_code":"","project_name":"","survey_name":"\u5927\u7530\u9759\u9593\u9053\u8def\u9759\u9593\u6771\u90e8\u5730\u533a\u5916\u5730\u8cea\u8abf\u67fb\u696d\u52d9","client_name":"\u56fd\u571f\u4ea4\u901a\u7701\u4e2d\u56fd\u5730\u65b9\u6574\u5099\u5c40\u4e2d\u56fd\u5730\u65b9\u6574\u5099\u5c40 \u677e\u6c5f\u56fd\u9053\u4e8b\u52d9\u6240","boring_xml_url":47,"boring_view_url":1,"soilmap_view_url":null,"soiltest_xml_url":0,"soiltest_view_url":0},{"id":284037,"code":"NGIC201901122-0004","latitude":"35.206802666667","longitude":"132.48947841667","source_code":"","project_name":"","survey_name":"\u5927\u7530\u9759\u9593\u9053\u8def\u9759\u9593\u6771\u90e8\u5730\u533a\u5916\u5730\u8cea\u8abf\u67fb\u696d\u52d9","client_name":"\u56fd\u571f\u4ea4\u901a\u7701\u4e2d\u56fd\u5730\u65b9\u6574\u5099\u5c40\u4e2d\u56fd\u5730\u65b9\u6574\u5099\u5c40 \u677e\u6c5f\u56fd\u9053\u4e8b\u52d9\u6240","boring_xml_url":47,"boring_view_url":1,"soilmap_view_url":null,"soiltest_xml_url":0,"soiltest_view_url":0}]}}