{"header":{"xyz":{"source":[],"mosaic":false},"page":2285,"raw":{"soiltest_result":"0","bbox":"57.598333,109.544722,1.933333,163.806111","page":"2285"},"conditions":{"soiltest_result":0,"north":57.598333,"west":109.544722,"south":1.933333,"east":163.806111},"success":true,"message":""},"data":{"meta":{"total":212844,"page":2285,"pages":7095,"count":30},"values":[{"id":283828,"code":"NGIC201901054-0006","latitude":"36.854843277778","longitude":"138.62274963889","source_code":"","project_name":"\u5e73\u621031\u5e74\u5ea6\u5730\u8cea\u8abf\u67fb\u696d\u52d9","survey_name":"\u5e73\u621031\u5e74\u5ea6\u5730\u8cea\u8abf\u67fb\u696d\u52d9","client_name":"\u56fd\u571f\u4ea4\u901a\u7701\u5317\u9678\u5730\u65b9\u6574\u5099\u5c40\u6e6f\u6ca2\u7802\u9632\u4e8b\u52d9\u6240","boring_xml_url":47,"boring_view_url":1,"soilmap_view_url":null,"soiltest_xml_url":0,"soiltest_view_url":0},{"id":283827,"code":"NGIC201901054-0005","latitude":"36.858796694444","longitude":"138.62647430556","source_code":"","project_name":"\u5e73\u621031\u5e74\u5ea6\u5730\u8cea\u8abf\u67fb\u696d\u52d9","survey_name":"\u5e73\u621031\u5e74\u5ea6\u5730\u8cea\u8abf\u67fb\u696d\u52d9","client_name":"\u56fd\u571f\u4ea4\u901a\u7701\u5317\u9678\u5730\u65b9\u6574\u5099\u5c40\u6e6f\u6ca2\u7802\u9632\u4e8b\u52d9\u6240","boring_xml_url":47,"boring_view_url":1,"soilmap_view_url":null,"soiltest_xml_url":0,"soiltest_view_url":0},{"id":283826,"code":"NGIC201901054-0004","latitude":"36.860048611111","longitude":"138.62752344444","source_code":"","project_name":"\u5e73\u621031\u5e74\u5ea6\u5730\u8cea\u8abf\u67fb\u696d\u52d9","survey_name":"\u5e73\u621031\u5e74\u5ea6\u5730\u8cea\u8abf\u67fb\u696d\u52d9","client_name":"\u56fd\u571f\u4ea4\u901a\u7701\u5317\u9678\u5730\u65b9\u6574\u5099\u5c40\u6e6f\u6ca2\u7802\u9632\u4e8b\u52d9\u6240","boring_xml_url":47,"boring_view_url":1,"soilmap_view_url":null,"soiltest_xml_url":0,"soiltest_view_url":0},{"id":283825,"code":"NGIC201901054-0003","latitude":"37.134223777778","longitude":"139.034379","source_code":"","project_name":"\u5e73\u621031\u5e74\u5ea6\u5730\u8cea\u8abf\u67fb\u696d\u52d9","survey_name":"\u5e73\u621031\u5e74\u5ea6\u5730\u8cea\u8abf\u67fb\u696d\u52d9","client_name":"\u56fd\u571f\u4ea4\u901a\u7701\u5317\u9678\u5730\u65b9\u6574\u5099\u5c40\u6e6f\u6ca2\u7802\u9632\u4e8b\u52d9\u6240","boring_xml_url":47,"boring_view_url":1,"soilmap_view_url":null,"soiltest_xml_url":47,"soiltest_view_url":47},{"id":283824,"code":"NGIC201901054-0002","latitude":"37.134463944444","longitude":"139.03401527778","source_code":"","project_name":"\u5e73\u621031\u5e74\u5ea6\u5730\u8cea\u8abf\u67fb\u696d\u52d9","survey_name":"\u5e73\u621031\u5e74\u5ea6\u5730\u8cea\u8abf\u67fb\u696d\u52d9","client_name":"\u56fd\u571f\u4ea4\u901a\u7701\u5317\u9678\u5730\u65b9\u6574\u5099\u5c40\u6e6f\u6ca2\u7802\u9632\u4e8b\u52d9\u6240","boring_xml_url":47,"boring_view_url":1,"soilmap_view_url":null,"soiltest_xml_url":47,"soiltest_view_url":47},{"id":283823,"code":"NGIC201901054-0001","latitude":"37.134327861111","longitude":"139.03419911111","source_code":"","project_name":"\u5e73\u621031\u5e74\u5ea6\u5730\u8cea\u8abf\u67fb\u696d\u52d9","survey_name":"\u5e73\u621031\u5e74\u5ea6\u5730\u8cea\u8abf\u67fb\u696d\u52d9","client_name":"\u56fd\u571f\u4ea4\u901a\u7701\u5317\u9678\u5730\u65b9\u6574\u5099\u5c40\u6e6f\u6ca2\u7802\u9632\u4e8b\u52d9\u6240","boring_xml_url":47,"boring_view_url":1,"soilmap_view_url":null,"soiltest_xml_url":47,"soiltest_view_url":47},{"id":283791,"code":"NGIC201901082-0002","latitude":"43.902102777778","longitude":"142.63626666667","source_code":"","project_name":"\u56fd\u55b6\u7dca\u6025\u8fb2\u5730\u518d\u7de8\u6574\u5099\u4e8b\u696d","survey_name":"\u611b\u5225\u5730\u533a\u4e2d\u611b\u5225\u4e2d\u592e\u5de5\u533a\u5916\u533a\u753b\u6574\u7406\u8a2d\u8a08\u7b49\u696d\u52d9","client_name":"\u56fd\u571f\u4ea4\u901a\u7701\u5317\u6d77\u9053\u958b\u767a\u5c40\u65ed\u5ddd\u958b\u767a\u5efa\u8a2d\u90e8 \u65ed\u5ddd\u8fb2\u696d\u4e8b\u52d9\u6240","boring_xml_url":47,"boring_view_url":1,"soilmap_view_url":null,"soiltest_xml_url":47,"soiltest_view_url":47},{"id":283790,"code":"NGIC201901082-0001","latitude":"43.900644444444","longitude":"142.64156944444","source_code":"","project_name":"\u56fd\u55b6\u7dca\u6025\u8fb2\u5730\u518d\u7de8\u6574\u5099\u4e8b\u696d","survey_name":"\u611b\u5225\u5730\u533a\u4e2d\u611b\u5225\u4e2d\u592e\u5de5\u533a\u5916\u533a\u753b\u6574\u7406\u8a2d\u8a08\u7b49\u696d\u52d9","client_name":"\u56fd\u571f\u4ea4\u901a\u7701\u5317\u6d77\u9053\u958b\u767a\u5c40\u65ed\u5ddd\u958b\u767a\u5efa\u8a2d\u90e8 \u65ed\u5ddd\u8fb2\u696d\u4e8b\u52d9\u6240","boring_xml_url":47,"boring_view_url":1,"soilmap_view_url":null,"soiltest_xml_url":47,"soiltest_view_url":47},{"id":283789,"code":"NGIC201901077-0027","latitude":"44.607430555556","longitude":"142.30680555556","source_code":"","project_name":"","survey_name":"\u5929\u5869\u5ddd\u4e0a\u6d41\u5730\u8cea\u8abf\u67fb\u59d4\u8a17\u696d\u52d9","client_name":"\u56fd\u571f\u4ea4\u901a\u7701\u5317\u6d77\u9053\u958b\u767a\u5c40\u65ed\u5ddd\u958b\u767a\u5efa\u8a2d\u90e8\u3000\u540d\u5bc4\u6cb3\u5ddd\u4e8b\u52d9\u6240","boring_xml_url":47,"boring_view_url":1,"soilmap_view_url":null,"soiltest_xml_url":47,"soiltest_view_url":47},{"id":283788,"code":"NGIC201901077-0026","latitude":"44.608163888889","longitude":"142.30470833333","source_code":"","project_name":"","survey_name":"\u5929\u5869\u5ddd\u4e0a\u6d41\u5730\u8cea\u8abf\u67fb\u59d4\u8a17\u696d\u52d9","client_name":"\u56fd\u571f\u4ea4\u901a\u7701\u5317\u6d77\u9053\u958b\u767a\u5c40\u65ed\u5ddd\u958b\u767a\u5efa\u8a2d\u90e8\u3000\u540d\u5bc4\u6cb3\u5ddd\u4e8b\u52d9\u6240","boring_xml_url":47,"boring_view_url":1,"soilmap_view_url":null,"soiltest_xml_url":47,"soiltest_view_url":47},{"id":283787,"code":"NGIC201901077-0025","latitude":"44.608891666667","longitude":"142.30583611111","source_code":"","project_name":"","survey_name":"\u5929\u5869\u5ddd\u4e0a\u6d41\u5730\u8cea\u8abf\u67fb\u59d4\u8a17\u696d\u52d9","client_name":"\u56fd\u571f\u4ea4\u901a\u7701\u5317\u6d77\u9053\u958b\u767a\u5c40\u65ed\u5ddd\u958b\u767a\u5efa\u8a2d\u90e8\u3000\u540d\u5bc4\u6cb3\u5ddd\u4e8b\u52d9\u6240","boring_xml_url":47,"boring_view_url":1,"soilmap_view_url":null,"soiltest_xml_url":47,"soiltest_view_url":47},{"id":283786,"code":"NGIC201901077-0024","latitude":"44.609427777778","longitude":"142.30359444444","source_code":"","project_name":"","survey_name":"\u5929\u5869\u5ddd\u4e0a\u6d41\u5730\u8cea\u8abf\u67fb\u59d4\u8a17\u696d\u52d9","client_name":"\u56fd\u571f\u4ea4\u901a\u7701\u5317\u6d77\u9053\u958b\u767a\u5c40\u65ed\u5ddd\u958b\u767a\u5efa\u8a2d\u90e8\u3000\u540d\u5bc4\u6cb3\u5ddd\u4e8b\u52d9\u6240","boring_xml_url":47,"boring_view_url":1,"soilmap_view_url":null,"soiltest_xml_url":47,"soiltest_view_url":47},{"id":283785,"code":"NGIC201901077-0023","latitude":"44.610647222222","longitude":"142.30324166667","source_code":"","project_name":"","survey_name":"\u5929\u5869\u5ddd\u4e0a\u6d41\u5730\u8cea\u8abf\u67fb\u59d4\u8a17\u696d\u52d9","client_name":"\u56fd\u571f\u4ea4\u901a\u7701\u5317\u6d77\u9053\u958b\u767a\u5c40\u65ed\u5ddd\u958b\u767a\u5efa\u8a2d\u90e8\u3000\u540d\u5bc4\u6cb3\u5ddd\u4e8b\u52d9\u6240","boring_xml_url":47,"boring_view_url":1,"soilmap_view_url":null,"soiltest_xml_url":47,"soiltest_view_url":47},{"id":283784,"code":"NGIC201901077-0022","latitude":"44.612358333333","longitude":"142.30300277778","source_code":"","project_name":"","survey_name":"\u5929\u5869\u5ddd\u4e0a\u6d41\u5730\u8cea\u8abf\u67fb\u59d4\u8a17\u696d\u52d9","client_name":"\u56fd\u571f\u4ea4\u901a\u7701\u5317\u6d77\u9053\u958b\u767a\u5c40\u65ed\u5ddd\u958b\u767a\u5efa\u8a2d\u90e8\u3000\u540d\u5bc4\u6cb3\u5ddd\u4e8b\u52d9\u6240","boring_xml_url":47,"boring_view_url":1,"soilmap_view_url":null,"soiltest_xml_url":47,"soiltest_view_url":47},{"id":283783,"code":"NGIC201901077-0021","latitude":"44.616827777778","longitude":"142.29790833333","source_code":"","project_name":"","survey_name":"\u5929\u5869\u5ddd\u4e0a\u6d41\u5730\u8cea\u8abf\u67fb\u59d4\u8a17\u696d\u52d9","client_name":"\u56fd\u571f\u4ea4\u901a\u7701\u5317\u6d77\u9053\u958b\u767a\u5c40\u65ed\u5ddd\u958b\u767a\u5efa\u8a2d\u90e8\u3000\u540d\u5bc4\u6cb3\u5ddd\u4e8b\u52d9\u6240","boring_xml_url":47,"boring_view_url":1,"soilmap_view_url":null,"soiltest_xml_url":47,"soiltest_view_url":47},{"id":283782,"code":"NGIC201901077-0020","latitude":"44.617505555556","longitude":"142.29824166667","source_code":"","project_name":"","survey_name":"\u5929\u5869\u5ddd\u4e0a\u6d41\u5730\u8cea\u8abf\u67fb\u59d4\u8a17\u696d\u52d9","client_name":"\u56fd\u571f\u4ea4\u901a\u7701\u5317\u6d77\u9053\u958b\u767a\u5c40\u65ed\u5ddd\u958b\u767a\u5efa\u8a2d\u90e8\u3000\u540d\u5bc4\u6cb3\u5ddd\u4e8b\u52d9\u6240","boring_xml_url":47,"boring_view_url":1,"soilmap_view_url":null,"soiltest_xml_url":47,"soiltest_view_url":47},{"id":283781,"code":"NGIC201901077-0019","latitude":"44.617569444444","longitude":"142.29566111111","source_code":"","project_name":"","survey_name":"\u5929\u5869\u5ddd\u4e0a\u6d41\u5730\u8cea\u8abf\u67fb\u59d4\u8a17\u696d\u52d9","client_name":"\u56fd\u571f\u4ea4\u901a\u7701\u5317\u6d77\u9053\u958b\u767a\u5c40\u65ed\u5ddd\u958b\u767a\u5efa\u8a2d\u90e8\u3000\u540d\u5bc4\u6cb3\u5ddd\u4e8b\u52d9\u6240","boring_xml_url":47,"boring_view_url":1,"soilmap_view_url":null,"soiltest_xml_url":47,"soiltest_view_url":47},{"id":283780,"code":"NGIC201901077-0018","latitude":"44.618108333333","longitude":"142.29594722222","source_code":"","project_name":"","survey_name":"\u5929\u5869\u5ddd\u4e0a\u6d41\u5730\u8cea\u8abf\u67fb\u59d4\u8a17\u696d\u52d9","client_name":"\u56fd\u571f\u4ea4\u901a\u7701\u5317\u6d77\u9053\u958b\u767a\u5c40\u65ed\u5ddd\u958b\u767a\u5efa\u8a2d\u90e8\u3000\u540d\u5bc4\u6cb3\u5ddd\u4e8b\u52d9\u6240","boring_xml_url":47,"boring_view_url":1,"soilmap_view_url":null,"soiltest_xml_url":47,"soiltest_view_url":47},{"id":283779,"code":"NGIC201901077-0017","latitude":"44.618433333333","longitude":"142.29370277778","source_code":"","project_name":"","survey_name":"\u5929\u5869\u5ddd\u4e0a\u6d41\u5730\u8cea\u8abf\u67fb\u59d4\u8a17\u696d\u52d9","client_name":"\u56fd\u571f\u4ea4\u901a\u7701\u5317\u6d77\u9053\u958b\u767a\u5c40\u65ed\u5ddd\u958b\u767a\u5efa\u8a2d\u90e8\u3000\u540d\u5bc4\u6cb3\u5ddd\u4e8b\u52d9\u6240","boring_xml_url":47,"boring_view_url":1,"soilmap_view_url":null,"soiltest_xml_url":47,"soiltest_view_url":47},{"id":283778,"code":"NGIC201901077-0016","latitude":"44.618944444444","longitude":"142.29398888889","source_code":"","project_name":"","survey_name":"\u5929\u5869\u5ddd\u4e0a\u6d41\u5730\u8cea\u8abf\u67fb\u59d4\u8a17\u696d\u52d9","client_name":"\u56fd\u571f\u4ea4\u901a\u7701\u5317\u6d77\u9053\u958b\u767a\u5c40\u65ed\u5ddd\u958b\u767a\u5efa\u8a2d\u90e8\u3000\u540d\u5bc4\u6cb3\u5ddd\u4e8b\u52d9\u6240","boring_xml_url":47,"boring_view_url":1,"soilmap_view_url":null,"soiltest_xml_url":47,"soiltest_view_url":47},{"id":283777,"code":"NGIC201901077-0015","latitude":"44.619191666667","longitude":"142.29161666667","source_code":"","project_name":"","survey_name":"\u5929\u5869\u5ddd\u4e0a\u6d41\u5730\u8cea\u8abf\u67fb\u59d4\u8a17\u696d\u52d9","client_name":"\u56fd\u571f\u4ea4\u901a\u7701\u5317\u6d77\u9053\u958b\u767a\u5c40\u65ed\u5ddd\u958b\u767a\u5efa\u8a2d\u90e8\u3000\u540d\u5bc4\u6cb3\u5ddd\u4e8b\u52d9\u6240","boring_xml_url":47,"boring_view_url":1,"soilmap_view_url":null,"soiltest_xml_url":47,"soiltest_view_url":47},{"id":283776,"code":"NGIC201901077-0014","latitude":"44.619761111111","longitude":"142.29193055556","source_code":"","project_name":"","survey_name":"\u5929\u5869\u5ddd\u4e0a\u6d41\u5730\u8cea\u8abf\u67fb\u59d4\u8a17\u696d\u52d9","client_name":"\u56fd\u571f\u4ea4\u901a\u7701\u5317\u6d77\u9053\u958b\u767a\u5c40\u65ed\u5ddd\u958b\u767a\u5efa\u8a2d\u90e8\u3000\u540d\u5bc4\u6cb3\u5ddd\u4e8b\u52d9\u6240","boring_xml_url":47,"boring_view_url":1,"soilmap_view_url":null,"soiltest_xml_url":47,"soiltest_view_url":47},{"id":283775,"code":"NGIC201901077-0013","latitude":"44.619891666667","longitude":"142.28963055556","source_code":"","project_name":"","survey_name":"\u5929\u5869\u5ddd\u4e0a\u6d41\u5730\u8cea\u8abf\u67fb\u59d4\u8a17\u696d\u52d9","client_name":"\u56fd\u571f\u4ea4\u901a\u7701\u5317\u6d77\u9053\u958b\u767a\u5c40\u65ed\u5ddd\u958b\u767a\u5efa\u8a2d\u90e8\u3000\u540d\u5bc4\u6cb3\u5ddd\u4e8b\u52d9\u6240","boring_xml_url":47,"boring_view_url":1,"soilmap_view_url":null,"soiltest_xml_url":47,"soiltest_view_url":47},{"id":283774,"code":"NGIC201901077-0012","latitude":"44.620358333333","longitude":"142.290275","source_code":"","project_name":"","survey_name":"\u5929\u5869\u5ddd\u4e0a\u6d41\u5730\u8cea\u8abf\u67fb\u59d4\u8a17\u696d\u52d9","client_name":"\u56fd\u571f\u4ea4\u901a\u7701\u5317\u6d77\u9053\u958b\u767a\u5c40\u65ed\u5ddd\u958b\u767a\u5efa\u8a2d\u90e8\u3000\u540d\u5bc4\u6cb3\u5ddd\u4e8b\u52d9\u6240","boring_xml_url":47,"boring_view_url":1,"soilmap_view_url":null,"soiltest_xml_url":47,"soiltest_view_url":47},{"id":283773,"code":"NGIC201901077-0011","latitude":"44.62105","longitude":"142.28749444444","source_code":"","project_name":"","survey_name":"\u5929\u5869\u5ddd\u4e0a\u6d41\u5730\u8cea\u8abf\u67fb\u59d4\u8a17\u696d\u52d9","client_name":"\u56fd\u571f\u4ea4\u901a\u7701\u5317\u6d77\u9053\u958b\u767a\u5c40\u65ed\u5ddd\u958b\u767a\u5efa\u8a2d\u90e8\u3000\u540d\u5bc4\u6cb3\u5ddd\u4e8b\u52d9\u6240","boring_xml_url":47,"boring_view_url":1,"soilmap_view_url":null,"soiltest_xml_url":47,"soiltest_view_url":47},{"id":283772,"code":"NGIC201901077-0010","latitude":"44.621705555556","longitude":"142.28811944444","source_code":"","project_name":"","survey_name":"\u5929\u5869\u5ddd\u4e0a\u6d41\u5730\u8cea\u8abf\u67fb\u59d4\u8a17\u696d\u52d9","client_name":"\u56fd\u571f\u4ea4\u901a\u7701\u5317\u6d77\u9053\u958b\u767a\u5c40\u65ed\u5ddd\u958b\u767a\u5efa\u8a2d\u90e8\u3000\u540d\u5bc4\u6cb3\u5ddd\u4e8b\u52d9\u6240","boring_xml_url":47,"boring_view_url":1,"soilmap_view_url":null,"soiltest_xml_url":47,"soiltest_view_url":47},{"id":283771,"code":"NGIC201901077-0009","latitude":"44.622877777778","longitude":"142.28586388889","source_code":"","project_name":"","survey_name":"\u5929\u5869\u5ddd\u4e0a\u6d41\u5730\u8cea\u8abf\u67fb\u59d4\u8a17\u696d\u52d9","client_name":"\u56fd\u571f\u4ea4\u901a\u7701\u5317\u6d77\u9053\u958b\u767a\u5c40\u65ed\u5ddd\u958b\u767a\u5efa\u8a2d\u90e8\u3000\u540d\u5bc4\u6cb3\u5ddd\u4e8b\u52d9\u6240","boring_xml_url":47,"boring_view_url":1,"soilmap_view_url":null,"soiltest_xml_url":47,"soiltest_view_url":47},{"id":283770,"code":"NGIC201901077-0008","latitude":"44.622827777778","longitude":"142.28291666667","source_code":"","project_name":"","survey_name":"\u5929\u5869\u5ddd\u4e0a\u6d41\u5730\u8cea\u8abf\u67fb\u59d4\u8a17\u696d\u52d9","client_name":"\u56fd\u571f\u4ea4\u901a\u7701\u5317\u6d77\u9053\u958b\u767a\u5c40\u65ed\u5ddd\u958b\u767a\u5efa\u8a2d\u90e8\u3000\u540d\u5bc4\u6cb3\u5ddd\u4e8b\u52d9\u6240","boring_xml_url":47,"boring_view_url":1,"soilmap_view_url":null,"soiltest_xml_url":47,"soiltest_view_url":47},{"id":283769,"code":"NGIC201901077-0007","latitude":"44.623411111111","longitude":"142.28346111111","source_code":"","project_name":"","survey_name":"\u5929\u5869\u5ddd\u4e0a\u6d41\u5730\u8cea\u8abf\u67fb\u59d4\u8a17\u696d\u52d9","client_name":"\u56fd\u571f\u4ea4\u901a\u7701\u5317\u6d77\u9053\u958b\u767a\u5c40\u65ed\u5ddd\u958b\u767a\u5efa\u8a2d\u90e8\u3000\u540d\u5bc4\u6cb3\u5ddd\u4e8b\u52d9\u6240","boring_xml_url":47,"boring_view_url":1,"soilmap_view_url":null,"soiltest_xml_url":47,"soiltest_view_url":47},{"id":283768,"code":"NGIC201901077-0006","latitude":"44.623561111111","longitude":"142.28080555556","source_code":"","project_name":"","survey_name":"\u5929\u5869\u5ddd\u4e0a\u6d41\u5730\u8cea\u8abf\u67fb\u59d4\u8a17\u696d\u52d9","client_name":"\u56fd\u571f\u4ea4\u901a\u7701\u5317\u6d77\u9053\u958b\u767a\u5c40\u65ed\u5ddd\u958b\u767a\u5efa\u8a2d\u90e8\u3000\u540d\u5bc4\u6cb3\u5ddd\u4e8b\u52d9\u6240","boring_xml_url":47,"boring_view_url":1,"soilmap_view_url":null,"soiltest_xml_url":47,"soiltest_view_url":47}]}}