{"header":{"xyz":{"source":[],"mosaic":false},"page":2317,"raw":{"soiltest_result":"0","bbox":"57.598333,109.544722,1.933333,163.806111","page":"2317"},"conditions":{"soiltest_result":0,"north":57.598333,"west":109.544722,"south":1.933333,"east":163.806111},"success":true,"message":""},"data":{"meta":{"total":212844,"page":2317,"pages":7095,"count":30},"values":[{"id":282334,"code":"NGIC201900739-0002","latitude":"32.852455694444","longitude":"131.03133886111","source_code":"","project_name":"","survey_name":"\u4ee4\u548c\u5143\u5e74\u5ea6\u591c\u5cf0\u5c71\u5730\u533a\u5730\u8cea\u8abf\u67fb\u696d\u52d9","client_name":"\u56fd\u571f\u4ea4\u901a\u7701\u4e5d\u5dde\u5730\u65b9\u6574\u5099\u5c40\u718a\u672c\u5fa9\u8208\u4e8b\u52d9\u6240","boring_xml_url":47,"boring_view_url":1,"soilmap_view_url":null,"soiltest_xml_url":0,"soiltest_view_url":0},{"id":282333,"code":"NGIC201900739-0001","latitude":"32.85365475","longitude":"131.03059711111","source_code":"","project_name":"","survey_name":"\u4ee4\u548c\u5143\u5e74\u5ea6\u591c\u5cf0\u5c71\u5730\u533a\u5730\u8cea\u8abf\u67fb\u696d\u52d9","client_name":"\u56fd\u571f\u4ea4\u901a\u7701\u4e5d\u5dde\u5730\u65b9\u6574\u5099\u5c40\u718a\u672c\u5fa9\u8208\u4e8b\u52d9\u6240","boring_xml_url":47,"boring_view_url":1,"soilmap_view_url":null,"soiltest_xml_url":0,"soiltest_view_url":0},{"id":282323,"code":"NGIC201900783-0004","latitude":"36.469046583333","longitude":"137.02679580556","source_code":"","project_name":"\u5229\u8cc0\u30c0\u30e0\u5efa\u8a2d\u4e8b\u696d","survey_name":"\u5e73\u621031\u5e74\u5ea6\u5229\u8cc0\u30c0\u30e0\u845b\u5c71\u5730\u533a\u8caf\u6c34\u6c60\u6cd5\u9762\u5730\u8cea\u8abf\u67fb\u696d\u52d9","client_name":"\u56fd\u571f\u4ea4\u901a\u7701\u5317\u9678\u5730\u65b9\u6574\u5099\u5c40\u5229\u8cc0\u30c0\u30e0\u5de5\u4e8b\u4e8b\u52d9\u6240","boring_xml_url":47,"boring_view_url":1,"soilmap_view_url":null,"soiltest_xml_url":0,"soiltest_view_url":0},{"id":282322,"code":"NGIC201900783-0003","latitude":"36.469320638889","longitude":"137.0288725","source_code":"","project_name":"\u5229\u8cc0\u30c0\u30e0\u5efa\u8a2d\u4e8b\u696d","survey_name":"\u5e73\u621031\u5e74\u5ea6\u5229\u8cc0\u30c0\u30e0\u845b\u5c71\u5730\u533a\u8caf\u6c34\u6c60\u6cd5\u9762\u5730\u8cea\u8abf\u67fb\u696d\u52d9","client_name":"\u56fd\u571f\u4ea4\u901a\u7701\u5317\u9678\u5730\u65b9\u6574\u5099\u5c40\u5229\u8cc0\u30c0\u30e0\u5de5\u4e8b\u4e8b\u52d9\u6240","boring_xml_url":47,"boring_view_url":1,"soilmap_view_url":null,"soiltest_xml_url":0,"soiltest_view_url":0},{"id":282321,"code":"NGIC201900783-0002","latitude":"36.47178325","longitude":"137.02005325","source_code":"","project_name":"\u5229\u8cc0\u30c0\u30e0\u5efa\u8a2d\u4e8b\u696d","survey_name":"\u5e73\u621031\u5e74\u5ea6\u5229\u8cc0\u30c0\u30e0\u845b\u5c71\u5730\u533a\u8caf\u6c34\u6c60\u6cd5\u9762\u5730\u8cea\u8abf\u67fb\u696d\u52d9","client_name":"\u56fd\u571f\u4ea4\u901a\u7701\u5317\u9678\u5730\u65b9\u6574\u5099\u5c40\u5229\u8cc0\u30c0\u30e0\u5de5\u4e8b\u4e8b\u52d9\u6240","boring_xml_url":47,"boring_view_url":1,"soilmap_view_url":null,"soiltest_xml_url":0,"soiltest_view_url":0},{"id":282320,"code":"NGIC201900783-0001","latitude":"36.471718722222","longitude":"137.02076241667","source_code":"","project_name":"\u5229\u8cc0\u30c0\u30e0\u5efa\u8a2d\u4e8b\u696d","survey_name":"\u5e73\u621031\u5e74\u5ea6\u5229\u8cc0\u30c0\u30e0\u845b\u5c71\u5730\u533a\u8caf\u6c34\u6c60\u6cd5\u9762\u5730\u8cea\u8abf\u67fb\u696d\u52d9","client_name":"\u56fd\u571f\u4ea4\u901a\u7701\u5317\u9678\u5730\u65b9\u6574\u5099\u5c40\u5229\u8cc0\u30c0\u30e0\u5de5\u4e8b\u4e8b\u52d9\u6240","boring_xml_url":47,"boring_view_url":1,"soilmap_view_url":null,"soiltest_xml_url":0,"soiltest_view_url":0},{"id":282316,"code":"NGIC201900760-0009","latitude":"32.732194444444","longitude":"129.86335","source_code":"","project_name":"\u4ee4\u548c\u5143\u5e74\u5ea6\u9577\u5d0e\u6e2f\u571f\u8cea\u8abf\u67fb","survey_name":"\u4ee4\u548c\u5143\u5e74\u5ea6\u9577\u5d0e\u6e2f\u571f\u8cea\u8abf\u67fb","client_name":"\u56fd\u571f\u4ea4\u901a\u7701\u4e5d\u5dde\u5730\u65b9\u6574\u5099\u5c40\u9577\u5d0e\u6e2f\u6e7e\u30fb\u7a7a\u6e2f\u6574\u5099\u4e8b\u52d9\u6240","boring_xml_url":47,"boring_view_url":1,"soilmap_view_url":71,"soiltest_xml_url":47,"soiltest_view_url":47},{"id":282315,"code":"NGIC201900760-0008","latitude":"32.731866666667","longitude":"129.86331944444","source_code":"","project_name":"\u4ee4\u548c\u5143\u5e74\u5ea6\u9577\u5d0e\u6e2f\u571f\u8cea\u8abf\u67fb","survey_name":"\u4ee4\u548c\u5143\u5e74\u5ea6\u9577\u5d0e\u6e2f\u571f\u8cea\u8abf\u67fb","client_name":"\u56fd\u571f\u4ea4\u901a\u7701\u4e5d\u5dde\u5730\u65b9\u6574\u5099\u5c40\u9577\u5d0e\u6e2f\u6e7e\u30fb\u7a7a\u6e2f\u6574\u5099\u4e8b\u52d9\u6240","boring_xml_url":47,"boring_view_url":1,"soilmap_view_url":71,"soiltest_xml_url":47,"soiltest_view_url":47},{"id":282314,"code":"NGIC201900760-0007","latitude":"32.731980555556","longitude":"129.86315277778","source_code":"","project_name":"\u4ee4\u548c\u5143\u5e74\u5ea6\u9577\u5d0e\u6e2f\u571f\u8cea\u8abf\u67fb","survey_name":"\u4ee4\u548c\u5143\u5e74\u5ea6\u9577\u5d0e\u6e2f\u571f\u8cea\u8abf\u67fb","client_name":"\u56fd\u571f\u4ea4\u901a\u7701\u4e5d\u5dde\u5730\u65b9\u6574\u5099\u5c40\u9577\u5d0e\u6e2f\u6e7e\u30fb\u7a7a\u6e2f\u6574\u5099\u4e8b\u52d9\u6240","boring_xml_url":47,"boring_view_url":1,"soilmap_view_url":71,"soiltest_xml_url":47,"soiltest_view_url":47},{"id":282313,"code":"NGIC201900760-0006","latitude":"32.732086111111","longitude":"129.86298055556","source_code":"","project_name":"\u4ee4\u548c\u5143\u5e74\u5ea6\u9577\u5d0e\u6e2f\u571f\u8cea\u8abf\u67fb","survey_name":"\u4ee4\u548c\u5143\u5e74\u5ea6\u9577\u5d0e\u6e2f\u571f\u8cea\u8abf\u67fb","client_name":"\u56fd\u571f\u4ea4\u901a\u7701\u4e5d\u5dde\u5730\u65b9\u6574\u5099\u5c40\u9577\u5d0e\u6e2f\u6e7e\u30fb\u7a7a\u6e2f\u6574\u5099\u4e8b\u52d9\u6240","boring_xml_url":47,"boring_view_url":1,"soilmap_view_url":71,"soiltest_xml_url":47,"soiltest_view_url":47},{"id":282312,"code":"NGIC201900760-0005","latitude":"32.732611111111","longitude":"129.86400833333","source_code":"","project_name":"\u4ee4\u548c\u5143\u5e74\u5ea6\u9577\u5d0e\u6e2f\u571f\u8cea\u8abf\u67fb","survey_name":"\u4ee4\u548c\u5143\u5e74\u5ea6\u9577\u5d0e\u6e2f\u571f\u8cea\u8abf\u67fb","client_name":"\u56fd\u571f\u4ea4\u901a\u7701\u4e5d\u5dde\u5730\u65b9\u6574\u5099\u5c40\u9577\u5d0e\u6e2f\u6e7e\u30fb\u7a7a\u6e2f\u6574\u5099\u4e8b\u52d9\u6240","boring_xml_url":47,"boring_view_url":1,"soilmap_view_url":71,"soiltest_xml_url":47,"soiltest_view_url":47},{"id":282311,"code":"NGIC201900760-0004","latitude":"32.732741666667","longitude":"129.8638","source_code":"","project_name":"\u4ee4\u548c\u5143\u5e74\u5ea6\u9577\u5d0e\u6e2f\u571f\u8cea\u8abf\u67fb","survey_name":"\u4ee4\u548c\u5143\u5e74\u5ea6\u9577\u5d0e\u6e2f\u571f\u8cea\u8abf\u67fb","client_name":"\u56fd\u571f\u4ea4\u901a\u7701\u4e5d\u5dde\u5730\u65b9\u6574\u5099\u5c40\u9577\u5d0e\u6e2f\u6e7e\u30fb\u7a7a\u6e2f\u6574\u5099\u4e8b\u52d9\u6240","boring_xml_url":47,"boring_view_url":1,"soilmap_view_url":71,"soiltest_xml_url":47,"soiltest_view_url":47},{"id":282310,"code":"NGIC201900760-0003","latitude":"32.732833333333","longitude":"129.86365833333","source_code":"","project_name":"\u4ee4\u548c\u5143\u5e74\u5ea6\u9577\u5d0e\u6e2f\u571f\u8cea\u8abf\u67fb","survey_name":"\u4ee4\u548c\u5143\u5e74\u5ea6\u9577\u5d0e\u6e2f\u571f\u8cea\u8abf\u67fb","client_name":"\u56fd\u571f\u4ea4\u901a\u7701\u4e5d\u5dde\u5730\u65b9\u6574\u5099\u5c40\u9577\u5d0e\u6e2f\u6e7e\u30fb\u7a7a\u6e2f\u6574\u5099\u4e8b\u52d9\u6240","boring_xml_url":47,"boring_view_url":1,"soilmap_view_url":71,"soiltest_xml_url":47,"soiltest_view_url":47},{"id":282309,"code":"NGIC201900760-0002","latitude":"32.733122222222","longitude":"129.86419166667","source_code":"","project_name":"\u4ee4\u548c\u5143\u5e74\u5ea6\u9577\u5d0e\u6e2f\u571f\u8cea\u8abf\u67fb","survey_name":"\u4ee4\u548c\u5143\u5e74\u5ea6\u9577\u5d0e\u6e2f\u571f\u8cea\u8abf\u67fb","client_name":"\u56fd\u571f\u4ea4\u901a\u7701\u4e5d\u5dde\u5730\u65b9\u6574\u5099\u5c40\u9577\u5d0e\u6e2f\u6e7e\u30fb\u7a7a\u6e2f\u6574\u5099\u4e8b\u52d9\u6240","boring_xml_url":47,"boring_view_url":1,"soilmap_view_url":71,"soiltest_xml_url":47,"soiltest_view_url":47},{"id":282308,"code":"NGIC201900760-0001","latitude":"32.733858333333","longitude":"129.86486111111","source_code":"","project_name":"\u4ee4\u548c\u5143\u5e74\u5ea6\u9577\u5d0e\u6e2f\u571f\u8cea\u8abf\u67fb","survey_name":"\u4ee4\u548c\u5143\u5e74\u5ea6\u9577\u5d0e\u6e2f\u571f\u8cea\u8abf\u67fb","client_name":"\u56fd\u571f\u4ea4\u901a\u7701\u4e5d\u5dde\u5730\u65b9\u6574\u5099\u5c40\u9577\u5d0e\u6e2f\u6e7e\u30fb\u7a7a\u6e2f\u6574\u5099\u4e8b\u52d9\u6240","boring_xml_url":47,"boring_view_url":1,"soilmap_view_url":71,"soiltest_xml_url":47,"soiltest_view_url":47},{"id":282306,"code":"NGIC201900744-0006","latitude":"38.575825","longitude":"139.94587222222","source_code":"","project_name":"","survey_name":"\u4ee4\u548c\u5143\u5e74\u5ea6\u7530\u9ea6\u4fe3\u5730\u3059\u3079\u308a\u5ca9\u83c5\u6ca2\u5317\u90e8\u5730\u8cea\u8abf\u67fb","client_name":"\u56fd\u571f\u4ea4\u901a\u7701\u6771\u5317\u5730\u65b9\u6574\u5099\u5c40\u65b0\u5e84\u6cb3\u5ddd\u4e8b\u52d9\u6240","boring_xml_url":47,"boring_view_url":1,"soilmap_view_url":null,"soiltest_xml_url":0,"soiltest_view_url":0},{"id":282305,"code":"NGIC201900744-0005","latitude":"38.575822222222","longitude":"139.94586388889","source_code":"","project_name":"","survey_name":"\u4ee4\u548c\u5143\u5e74\u5ea6\u7530\u9ea6\u4fe3\u5730\u3059\u3079\u308a\u5ca9\u83c5\u6ca2\u5317\u90e8\u5730\u8cea\u8abf\u67fb","client_name":"\u56fd\u571f\u4ea4\u901a\u7701\u6771\u5317\u5730\u65b9\u6574\u5099\u5c40\u65b0\u5e84\u6cb3\u5ddd\u4e8b\u52d9\u6240","boring_xml_url":47,"boring_view_url":1,"soilmap_view_url":null,"soiltest_xml_url":0,"soiltest_view_url":0},{"id":282304,"code":"NGIC201900744-0004","latitude":"38.575633333333","longitude":"139.94545","source_code":"","project_name":"","survey_name":"\u4ee4\u548c\u5143\u5e74\u5ea6\u7530\u9ea6\u4fe3\u5730\u3059\u3079\u308a\u5ca9\u83c5\u6ca2\u5317\u90e8\u5730\u8cea\u8abf\u67fb","client_name":"\u56fd\u571f\u4ea4\u901a\u7701\u6771\u5317\u5730\u65b9\u6574\u5099\u5c40\u65b0\u5e84\u6cb3\u5ddd\u4e8b\u52d9\u6240","boring_xml_url":47,"boring_view_url":1,"soilmap_view_url":null,"soiltest_xml_url":0,"soiltest_view_url":0},{"id":282303,"code":"NGIC201900744-0003","latitude":"38.575333333333","longitude":"139.94478888889","source_code":"","project_name":"","survey_name":"\u4ee4\u548c\u5143\u5e74\u5ea6\u7530\u9ea6\u4fe3\u5730\u3059\u3079\u308a\u5ca9\u83c5\u6ca2\u5317\u90e8\u5730\u8cea\u8abf\u67fb","client_name":"\u56fd\u571f\u4ea4\u901a\u7701\u6771\u5317\u5730\u65b9\u6574\u5099\u5c40\u65b0\u5e84\u6cb3\u5ddd\u4e8b\u52d9\u6240","boring_xml_url":47,"boring_view_url":1,"soilmap_view_url":null,"soiltest_xml_url":0,"soiltest_view_url":0},{"id":282302,"code":"NGIC201900744-0002","latitude":"38.574852777778","longitude":"139.94346666667","source_code":"","project_name":"","survey_name":"\u4ee4\u548c\u5143\u5e74\u5ea6\u7530\u9ea6\u4fe3\u5730\u3059\u3079\u308a\u5ca9\u83c5\u6ca2\u5317\u90e8\u5730\u8cea\u8abf\u67fb","client_name":"\u56fd\u571f\u4ea4\u901a\u7701\u6771\u5317\u5730\u65b9\u6574\u5099\u5c40\u65b0\u5e84\u6cb3\u5ddd\u4e8b\u52d9\u6240","boring_xml_url":47,"boring_view_url":1,"soilmap_view_url":null,"soiltest_xml_url":0,"soiltest_view_url":0},{"id":282301,"code":"NGIC201900744-0001","latitude":"38.574611111111","longitude":"139.94547222222","source_code":"","project_name":"","survey_name":"\u4ee4\u548c\u5143\u5e74\u5ea6\u7530\u9ea6\u4fe3\u5730\u3059\u3079\u308a\u5ca9\u83c5\u6ca2\u5317\u90e8\u5730\u8cea\u8abf\u67fb","client_name":"\u56fd\u571f\u4ea4\u901a\u7701\u6771\u5317\u5730\u65b9\u6574\u5099\u5c40\u65b0\u5e84\u6cb3\u5ddd\u4e8b\u52d9\u6240","boring_xml_url":47,"boring_view_url":1,"soilmap_view_url":null,"soiltest_xml_url":0,"soiltest_view_url":0},{"id":282285,"code":"NGIC201900784-0014","latitude":"35.024530555556","longitude":"136.76060833333","source_code":"","project_name":"","survey_name":"\u5e73\u621031\u5e74\u5ea6\u6728\u66fd\u5ddd\u798f\u8c4a\u5730\u8cea\u8abf\u67fb\u696d\u52d9","client_name":"\u56fd\u571f\u4ea4\u901a\u7701\u4e2d\u90e8\u5730\u65b9\u6574\u5099\u5c40\u6728\u66fd\u5ddd\u4e0b\u6d41\u6cb3\u5ddd\u4e8b\u52d9\u6240 \u5de5\u52d9\u8ab2","boring_xml_url":47,"boring_view_url":1,"soilmap_view_url":null,"soiltest_xml_url":47,"soiltest_view_url":47},{"id":282284,"code":"NGIC201900784-0013","latitude":"35.024416666667","longitude":"136.76044722222","source_code":"","project_name":"","survey_name":"\u5e73\u621031\u5e74\u5ea6\u6728\u66fd\u5ddd\u798f\u8c4a\u5730\u8cea\u8abf\u67fb\u696d\u52d9","client_name":"\u56fd\u571f\u4ea4\u901a\u7701\u4e2d\u90e8\u5730\u65b9\u6574\u5099\u5c40\u6728\u66fd\u5ddd\u4e0b\u6d41\u6cb3\u5ddd\u4e8b\u52d9\u6240 \u5de5\u52d9\u8ab2","boring_xml_url":47,"boring_view_url":1,"soilmap_view_url":null,"soiltest_xml_url":47,"soiltest_view_url":47},{"id":282283,"code":"NGIC201900784-0012","latitude":"35.024283333333","longitude":"136.76025277778","source_code":"","project_name":"","survey_name":"\u5e73\u621031\u5e74\u5ea6\u6728\u66fd\u5ddd\u798f\u8c4a\u5730\u8cea\u8abf\u67fb\u696d\u52d9","client_name":"\u56fd\u571f\u4ea4\u901a\u7701\u4e2d\u90e8\u5730\u65b9\u6574\u5099\u5c40\u6728\u66fd\u5ddd\u4e0b\u6d41\u6cb3\u5ddd\u4e8b\u52d9\u6240 \u5de5\u52d9\u8ab2","boring_xml_url":47,"boring_view_url":1,"soilmap_view_url":null,"soiltest_xml_url":47,"soiltest_view_url":47},{"id":282282,"code":"NGIC201900784-0011","latitude":"35.036986111111","longitude":"136.74990833333","source_code":"","project_name":"","survey_name":"\u5e73\u621031\u5e74\u5ea6\u6728\u66fd\u5ddd\u798f\u8c4a\u5730\u8cea\u8abf\u67fb\u696d\u52d9","client_name":"\u56fd\u571f\u4ea4\u901a\u7701\u4e2d\u90e8\u5730\u65b9\u6574\u5099\u5c40\u6728\u66fd\u5ddd\u4e0b\u6d41\u6cb3\u5ddd\u4e8b\u52d9\u6240 \u5de5\u52d9\u8ab2","boring_xml_url":47,"boring_view_url":1,"soilmap_view_url":null,"soiltest_xml_url":47,"soiltest_view_url":47},{"id":282281,"code":"NGIC201900784-0010","latitude":"35.0369","longitude":"136.74970833333","source_code":"","project_name":"","survey_name":"\u5e73\u621031\u5e74\u5ea6\u6728\u66fd\u5ddd\u798f\u8c4a\u5730\u8cea\u8abf\u67fb\u696d\u52d9","client_name":"\u56fd\u571f\u4ea4\u901a\u7701\u4e2d\u90e8\u5730\u65b9\u6574\u5099\u5c40\u6728\u66fd\u5ddd\u4e0b\u6d41\u6cb3\u5ddd\u4e8b\u52d9\u6240 \u5de5\u52d9\u8ab2","boring_xml_url":47,"boring_view_url":1,"soilmap_view_url":null,"soiltest_xml_url":47,"soiltest_view_url":47},{"id":282280,"code":"NGIC201900784-0009","latitude":"35.036788888889","longitude":"136.74949722222","source_code":"","project_name":"","survey_name":"\u5e73\u621031\u5e74\u5ea6\u6728\u66fd\u5ddd\u798f\u8c4a\u5730\u8cea\u8abf\u67fb\u696d\u52d9","client_name":"\u56fd\u571f\u4ea4\u901a\u7701\u4e2d\u90e8\u5730\u65b9\u6574\u5099\u5c40\u6728\u66fd\u5ddd\u4e0b\u6d41\u6cb3\u5ddd\u4e8b\u52d9\u6240 \u5de5\u52d9\u8ab2","boring_xml_url":47,"boring_view_url":1,"soilmap_view_url":null,"soiltest_xml_url":47,"soiltest_view_url":47},{"id":282279,"code":"NGIC201900784-0008","latitude":"35.043494444444","longitude":"136.74586388889","source_code":"","project_name":"","survey_name":"\u5e73\u621031\u5e74\u5ea6\u6728\u66fd\u5ddd\u798f\u8c4a\u5730\u8cea\u8abf\u67fb\u696d\u52d9","client_name":"\u56fd\u571f\u4ea4\u901a\u7701\u4e2d\u90e8\u5730\u65b9\u6574\u5099\u5c40\u6728\u66fd\u5ddd\u4e0b\u6d41\u6cb3\u5ddd\u4e8b\u52d9\u6240 \u5de5\u52d9\u8ab2","boring_xml_url":47,"boring_view_url":1,"soilmap_view_url":null,"soiltest_xml_url":47,"soiltest_view_url":47},{"id":282278,"code":"NGIC201900784-0007","latitude":"35.043402777778","longitude":"136.74564444444","source_code":"","project_name":"","survey_name":"\u5e73\u621031\u5e74\u5ea6\u6728\u66fd\u5ddd\u798f\u8c4a\u5730\u8cea\u8abf\u67fb\u696d\u52d9","client_name":"\u56fd\u571f\u4ea4\u901a\u7701\u4e2d\u90e8\u5730\u65b9\u6574\u5099\u5c40\u6728\u66fd\u5ddd\u4e0b\u6d41\u6cb3\u5ddd\u4e8b\u52d9\u6240 \u5de5\u52d9\u8ab2","boring_xml_url":47,"boring_view_url":1,"soilmap_view_url":null,"soiltest_xml_url":47,"soiltest_view_url":47},{"id":282277,"code":"NGIC201900784-0006","latitude":"35.043308333333","longitude":"136.745425","source_code":"","project_name":"","survey_name":"\u5e73\u621031\u5e74\u5ea6\u6728\u66fd\u5ddd\u798f\u8c4a\u5730\u8cea\u8abf\u67fb\u696d\u52d9","client_name":"\u56fd\u571f\u4ea4\u901a\u7701\u4e2d\u90e8\u5730\u65b9\u6574\u5099\u5c40\u6728\u66fd\u5ddd\u4e0b\u6d41\u6cb3\u5ddd\u4e8b\u52d9\u6240 \u5de5\u52d9\u8ab2","boring_xml_url":47,"boring_view_url":1,"soilmap_view_url":null,"soiltest_xml_url":47,"soiltest_view_url":47}]}}