{"header":{"xyz":{"source":[],"mosaic":false},"page":2334,"raw":{"soiltest_result":"0","bbox":"57.598333,109.544722,1.933333,163.806111","page":"2334"},"conditions":{"soiltest_result":0,"north":57.598333,"west":109.544722,"south":1.933333,"east":163.806111},"success":true,"message":""},"data":{"meta":{"total":212844,"page":2334,"pages":7095,"count":30},"values":[{"id":281429,"code":"NGIC201900559-0004","latitude":"43.624547222222","longitude":"142.46719444444","source_code":"","project_name":"","survey_name":"\u65ed\u5ddd\u9053\u8def\u4e8b\u52d9\u6240\u7ba1\u5185 \u5730\u8cea\u8abf\u67fb\u696d\u52d9","client_name":"\u56fd\u571f\u4ea4\u901a\u7701\u5317\u6d77\u9053\u958b\u767a\u5c40\u65ed\u5ddd\u958b\u767a\u5efa\u8a2d\u90e8\u65ed\u5ddd\u9053\u8def\u4e8b\u52d9\u6240","boring_xml_url":47,"boring_view_url":1,"soilmap_view_url":null,"soiltest_xml_url":0,"soiltest_view_url":0},{"id":281428,"code":"NGIC201900559-0003","latitude":"43.822966666667","longitude":"142.38360555556","source_code":"","project_name":"","survey_name":"\u65ed\u5ddd\u9053\u8def\u4e8b\u52d9\u6240\u7ba1\u5185\u5730\u8cea\u8abf\u67fb\u696d\u52d9","client_name":"\u56fd\u571f\u4ea4\u901a\u7701\u5317\u6d77\u9053\u958b\u767a\u5c40\u65ed\u5ddd\u958b\u767a\u5efa\u8a2d\u90e8\u65ed\u5ddd\u9053\u8def\u4e8b\u52d9\u6240","boring_xml_url":47,"boring_view_url":1,"soilmap_view_url":null,"soiltest_xml_url":0,"soiltest_view_url":0},{"id":281427,"code":"NGIC201900559-0002","latitude":"43.822713888889","longitude":"142.38330277778","source_code":"","project_name":"","survey_name":"\u65ed\u5ddd\u9053\u8def\u4e8b\u52d9\u6240\u7ba1\u5185\u5730\u8cea\u8abf\u67fb\u696d\u52d9","client_name":"\u56fd\u571f\u4ea4\u901a\u7701\u5317\u6d77\u9053\u958b\u767a\u5c40\u65ed\u5ddd\u958b\u767a\u5efa\u8a2d\u90e8\u65ed\u5ddd\u9053\u8def\u4e8b\u52d9\u6240","boring_xml_url":47,"boring_view_url":1,"soilmap_view_url":null,"soiltest_xml_url":0,"soiltest_view_url":0},{"id":281426,"code":"NGIC201900559-0001","latitude":"43.822563888889","longitude":"142.38346111111","source_code":"","project_name":"","survey_name":"\u65ed\u5ddd\u9053\u8def\u4e8b\u52d9\u6240\u7ba1\u5185\u5730\u8cea\u8abf\u67fb\u696d\u52d9","client_name":"\u56fd\u571f\u4ea4\u901a\u7701\u5317\u6d77\u9053\u958b\u767a\u5c40\u65ed\u5ddd\u958b\u767a\u5efa\u8a2d\u90e8\u65ed\u5ddd\u9053\u8def\u4e8b\u52d9\u6240","boring_xml_url":47,"boring_view_url":1,"soilmap_view_url":null,"soiltest_xml_url":0,"soiltest_view_url":0},{"id":281425,"code":"NGIC201900556-0007","latitude":"41.533155555556","longitude":"140.258975","source_code":"","project_name":"\u4e00\u822c\u56fd\u9053229\u53f7\u516b\u96f2\u753a\u51b7\u6c34\u6a4b\u5730\u8cea\u8abf\u67fb\u5916\u4e00\u9023\u696d\u52d9","survey_name":"\u4e00\u822c\u56fd\u9053229\u53f7\u516b\u96f2\u753a\u51b7\u6c34\u6a4b\u5730\u8cea\u8abf\u67fb\u5916\u4e00\u9023\u696d\u52d9","client_name":"\u56fd\u571f\u4ea4\u901a\u7701\u5317\u6d77\u9053\u958b\u767a\u5c40\u51fd\u9928\u958b\u767a\u5efa\u8a2d\u90e8\u672c\u90e8","boring_xml_url":47,"boring_view_url":1,"soilmap_view_url":null,"soiltest_xml_url":0,"soiltest_view_url":0},{"id":281424,"code":"NGIC201900556-0006","latitude":"41.533713888889","longitude":"140.25901111111","source_code":"","project_name":"\u4e00\u822c\u56fd\u9053229\u53f7\u516b\u96f2\u753a\u51b7\u6c34\u6a4b\u5730\u8cea\u8abf\u67fb\u5916\u4e00\u9023\u696d\u52d9","survey_name":"\u4e00\u822c\u56fd\u9053229\u53f7\u516b\u96f2\u753a\u51b7\u6c34\u6a4b\u5730\u8cea\u8abf\u67fb\u5916\u4e00\u9023\u696d\u52d9","client_name":"\u56fd\u571f\u4ea4\u901a\u7701\u5317\u6d77\u9053\u958b\u767a\u5c40\u51fd\u9928\u958b\u767a\u5efa\u8a2d\u90e8\u672c\u90e8","boring_xml_url":47,"boring_view_url":1,"soilmap_view_url":null,"soiltest_xml_url":0,"soiltest_view_url":0},{"id":281423,"code":"NGIC201900556-0005","latitude":"41.533588888889","longitude":"140.25866111111","source_code":"","project_name":"\u4e00\u822c\u56fd\u9053229\u53f7\u516b\u96f2\u753a\u51b7\u6c34\u6a4b\u5730\u8cea\u8abf\u67fb\u5916\u4e00\u9023\u696d\u52d9","survey_name":"\u4e00\u822c\u56fd\u9053229\u53f7\u516b\u96f2\u753a\u51b7\u6c34\u6a4b\u5730\u8cea\u8abf\u67fb\u5916\u4e00\u9023\u696d\u52d9","client_name":"\u56fd\u571f\u4ea4\u901a\u7701\u5317\u6d77\u9053\u958b\u767a\u5c40\u51fd\u9928\u958b\u767a\u5efa\u8a2d\u90e8\u672c\u90e8","boring_xml_url":47,"boring_view_url":1,"soilmap_view_url":null,"soiltest_xml_url":0,"soiltest_view_url":0},{"id":281422,"code":"NGIC201900556-0004","latitude":"42.330763888889","longitude":"140.27761944444","source_code":"","project_name":"\u4e00\u822c\u56fd\u9053229\u53f7\u516b\u96f2\u753a\u51b7\u6c34\u6a4b\u5730\u8cea\u8abf\u67fb\u5916\u4e00\u9023\u696d\u52d9","survey_name":"\u4e00\u822c\u56fd\u9053229\u53f7\u516b\u96f2\u753a\u51b7\u6c34\u6a4b\u5730\u8cea\u8abf\u67fb\u5916\u4e00\u9023\u696d\u52d9","client_name":"\u56fd\u571f\u4ea4\u901a\u7701\u5317\u6d77\u9053\u958b\u767a\u5c40\u51fd\u9928\u958b\u767a\u5efa\u8a2d\u90e8\u672c\u90e8","boring_xml_url":47,"boring_view_url":1,"soilmap_view_url":null,"soiltest_xml_url":0,"soiltest_view_url":0},{"id":281421,"code":"NGIC201900556-0003","latitude":"42.330733333333","longitude":"140.27772222222","source_code":"","project_name":"\u4e00\u822c\u56fd\u9053229\u53f7\u516b\u96f2\u753a\u51b7\u6c34\u6a4b\u5730\u8cea\u8abf\u67fb\u5916\u4e00\u9023\u696d\u52d9","survey_name":"\u4e00\u822c\u56fd\u9053229\u53f7\u516b\u96f2\u753a\u51b7\u6c34\u6a4b\u5730\u8cea\u8abf\u67fb\u5916\u4e00\u9023\u696d\u52d9","client_name":"\u56fd\u571f\u4ea4\u901a\u7701\u5317\u6d77\u9053\u958b\u767a\u5c40\u51fd\u9928\u958b\u767a\u5efa\u8a2d\u90e8\u672c\u90e8","boring_xml_url":47,"boring_view_url":1,"soilmap_view_url":null,"soiltest_xml_url":0,"soiltest_view_url":0},{"id":281420,"code":"NGIC201900556-0002","latitude":"42.090383333333","longitude":"140.05138055556","source_code":"","project_name":"\u4e00\u822c\u56fd\u9053229\u53f7\u516b\u96f2\u753a\u51b7\u6c34\u6a4b\u5730\u8cea\u8abf\u67fb\u5916\u4e00\u9023\u696d\u52d9","survey_name":"\u4e00\u822c\u56fd\u9053229\u53f7\u516b\u96f2\u753a\u51b7\u6c34\u6a4b\u5730\u8cea\u8abf\u67fb\u5916\u4e00\u9023\u696d\u52d9","client_name":"\u56fd\u571f\u4ea4\u901a\u7701\u5317\u6d77\u9053\u958b\u767a\u5c40\u51fd\u9928\u958b\u767a\u5efa\u8a2d\u90e8\u672c\u90e8","boring_xml_url":47,"boring_view_url":1,"soilmap_view_url":null,"soiltest_xml_url":47,"soiltest_view_url":47},{"id":281419,"code":"NGIC201900556-0001","latitude":"42.090841666667","longitude":"140.05088611111","source_code":"","project_name":"\u4e00\u822c\u56fd\u9053229\u53f7\u516b\u96f2\u753a\u51b7\u6c34\u6a4b\u5730\u8cea\u8abf\u67fb\u5916\u4e00\u9023\u696d\u52d9","survey_name":"\u4e00\u822c\u56fd\u9053229\u53f7\u516b\u96f2\u753a\u51b7\u6c34\u6a4b\u5730\u8cea\u8abf\u67fb\u5916\u4e00\u9023\u696d\u52d9","client_name":"\u56fd\u571f\u4ea4\u901a\u7701\u5317\u6d77\u9053\u958b\u767a\u5c40\u51fd\u9928\u958b\u767a\u5efa\u8a2d\u90e8\u672c\u90e8","boring_xml_url":47,"boring_view_url":1,"soilmap_view_url":null,"soiltest_xml_url":47,"soiltest_view_url":47},{"id":281403,"code":"NGIC201900581-0012","latitude":"35.328372027778","longitude":"133.72942916667","source_code":"","project_name":"","survey_name":"\u5929\u795e\u5ddd\u5bae\u306e\u8c37\u7802\u9632\u5830\u5824\u5730\u8cea\u8abf\u67fb\u696d\u52d9","client_name":"\u56fd\u571f\u4ea4\u901a\u7701\u4e2d\u56fd\u5730\u65b9\u6574\u5099\u5c40\u5009\u5409\u6cb3\u5ddd\u56fd\u9053\u4e8b\u52d9\u6240","boring_xml_url":47,"boring_view_url":1,"soilmap_view_url":null,"soiltest_xml_url":0,"soiltest_view_url":0},{"id":281402,"code":"NGIC201900581-0011","latitude":"35.328544166667","longitude":"133.72978655556","source_code":"","project_name":"","survey_name":"\u5929\u795e\u5ddd\u5bae\u306e\u8c37\u7802\u9632\u5830\u5824\u5730\u8cea\u8abf\u67fb\u696d\u52d9","client_name":"\u56fd\u571f\u4ea4\u901a\u7701\u4e2d\u56fd\u5730\u65b9\u6574\u5099\u5c40\u5009\u5409\u6cb3\u5ddd\u56fd\u9053\u4e8b\u52d9\u6240","boring_xml_url":47,"boring_view_url":1,"soilmap_view_url":null,"soiltest_xml_url":0,"soiltest_view_url":0},{"id":281401,"code":"NGIC201900581-0010","latitude":"35.418179638889","longitude":"133.88987586111","source_code":"","project_name":"","survey_name":"\u5929\u795e\u5ddd\u5bae\u306e\u8c37\u7802\u9632\u5830\u5824\u5730\u8cea\u8abf\u67fb\u696d\u52d9","client_name":"\u56fd\u571f\u4ea4\u901a\u7701\u4e2d\u56fd\u5730\u65b9\u6574\u5099\u5c40\u5009\u5409\u6cb3\u5ddd\u56fd\u9053\u4e8b\u52d9\u6240","boring_xml_url":47,"boring_view_url":1,"soilmap_view_url":null,"soiltest_xml_url":0,"soiltest_view_url":0},{"id":281400,"code":"NGIC201900581-0009","latitude":"35.418435805556","longitude":"133.88984975","source_code":"","project_name":"","survey_name":"\u5929\u795e\u5ddd\u5bae\u306e\u8c37\u7802\u9632\u5830\u5824\u5730\u8cea\u8abf\u67fb\u696d\u52d9","client_name":"\u56fd\u571f\u4ea4\u901a\u7701\u4e2d\u56fd\u5730\u65b9\u6574\u5099\u5c40\u5009\u5409\u6cb3\u5ddd\u56fd\u9053\u4e8b\u52d9\u6240","boring_xml_url":47,"boring_view_url":1,"soilmap_view_url":null,"soiltest_xml_url":0,"soiltest_view_url":0},{"id":281399,"code":"NGIC201900581-0008","latitude":"35.418341361111","longitude":"133.88989330556","source_code":"","project_name":"","survey_name":"\u5929\u795e\u5ddd\u5bae\u306e\u8c37\u7802\u9632\u5830\u5824\u5730\u8cea\u8abf\u67fb\u696d\u52d9","client_name":"\u56fd\u571f\u4ea4\u901a\u7701\u4e2d\u56fd\u5730\u65b9\u6574\u5099\u5c40\u5009\u5409\u6cb3\u5ddd\u56fd\u9053\u4e8b\u52d9\u6240","boring_xml_url":47,"boring_view_url":1,"soilmap_view_url":null,"soiltest_xml_url":0,"soiltest_view_url":0},{"id":281398,"code":"NGIC201900581-0007","latitude":"35.418656611111","longitude":"133.89002433333","source_code":"","project_name":"","survey_name":"\u5929\u795e\u5ddd\u5bae\u306e\u8c37\u7802\u9632\u5830\u5824\u5730\u8cea\u8abf\u67fb\u696d\u52d9","client_name":"\u56fd\u571f\u4ea4\u901a\u7701\u4e2d\u56fd\u5730\u65b9\u6574\u5099\u5c40\u5009\u5409\u6cb3\u5ddd\u56fd\u9053\u4e8b\u52d9\u6240","boring_xml_url":47,"boring_view_url":1,"soilmap_view_url":null,"soiltest_xml_url":0,"soiltest_view_url":0},{"id":281397,"code":"NGIC201900581-0006","latitude":"35.418788222222","longitude":"133.88990838889","source_code":"","project_name":"","survey_name":"\u5929\u795e\u5ddd\u5bae\u306e\u8c37\u7802\u9632\u5830\u5824\u5730\u8cea\u8abf\u67fb\u696d\u52d9","client_name":"\u56fd\u571f\u4ea4\u901a\u7701\u4e2d\u56fd\u5730\u65b9\u6574\u5099\u5c40\u5009\u5409\u6cb3\u5ddd\u56fd\u9053\u4e8b\u52d9\u6240","boring_xml_url":47,"boring_view_url":1,"soilmap_view_url":null,"soiltest_xml_url":0,"soiltest_view_url":0},{"id":281396,"code":"NGIC201900581-0005","latitude":"35.418958527778","longitude":"133.89019702778","source_code":"","project_name":"","survey_name":"\u5929\u795e\u5ddd\u5bae\u306e\u8c37\u7802\u9632\u5830\u5824\u5730\u8cea\u8abf\u67fb\u696d\u52d9","client_name":"\u56fd\u571f\u4ea4\u901a\u7701\u4e2d\u56fd\u5730\u65b9\u6574\u5099\u5c40\u5009\u5409\u6cb3\u5ddd\u56fd\u9053\u4e8b\u52d9\u6240","boring_xml_url":47,"boring_view_url":1,"soilmap_view_url":null,"soiltest_xml_url":0,"soiltest_view_url":0},{"id":281395,"code":"NGIC201900581-0004","latitude":"35.4186725","longitude":"133.89037036111","source_code":"","project_name":"","survey_name":"\u5929\u795e\u5ddd\u5bae\u306e\u8c37\u7802\u9632\u5830\u5824\u5730\u8cea\u8abf\u67fb\u696d\u52d9","client_name":"\u56fd\u571f\u4ea4\u901a\u7701\u4e2d\u56fd\u5730\u65b9\u6574\u5099\u5c40\u5009\u5409\u6cb3\u5ddd\u56fd\u9053\u4e8b\u52d9\u6240","boring_xml_url":47,"boring_view_url":1,"soilmap_view_url":null,"soiltest_xml_url":0,"soiltest_view_url":0},{"id":281394,"code":"NGIC201900581-0003","latitude":"35.418710138889","longitude":"133.89060261111","source_code":"","project_name":"","survey_name":"\u5929\u795e\u5ddd\u5bae\u306e\u8c37\u7802\u9632\u5830\u5824\u5730\u8cea\u8abf\u67fb\u696d\u52d9","client_name":"\u56fd\u571f\u4ea4\u901a\u7701\u4e2d\u56fd\u5730\u65b9\u6574\u5099\u5c40\u5009\u5409\u6cb3\u5ddd\u56fd\u9053\u4e8b\u52d9\u6240","boring_xml_url":47,"boring_view_url":1,"soilmap_view_url":null,"soiltest_xml_url":0,"soiltest_view_url":0},{"id":281393,"code":"NGIC201900581-0002","latitude":"35.418872138889","longitude":"133.89033811111","source_code":"","project_name":"","survey_name":"\u5929\u795e\u5ddd\u5bae\u306e\u8c37\u7802\u9632\u5830\u5824\u5730\u8cea\u8abf\u67fb\u696d\u52d9","client_name":"\u56fd\u571f\u4ea4\u901a\u7701\u4e2d\u56fd\u5730\u65b9\u6574\u5099\u5c40\u5009\u5409\u6cb3\u5ddd\u56fd\u9053\u4e8b\u52d9\u6240","boring_xml_url":47,"boring_view_url":1,"soilmap_view_url":null,"soiltest_xml_url":0,"soiltest_view_url":0},{"id":281392,"code":"NGIC201900581-0001","latitude":"35.41878575","longitude":"133.89047919444","source_code":"","project_name":"","survey_name":"\u5929\u795e\u5ddd\u5bae\u306e\u8c37\u7802\u9632\u5830\u5824\u5730\u8cea\u8abf\u67fb\u696d\u52d9","client_name":"\u56fd\u571f\u4ea4\u901a\u7701\u4e2d\u56fd\u5730\u65b9\u6574\u5099\u5c40\u5009\u5409\u6cb3\u5ddd\u56fd\u9053\u4e8b\u52d9\u6240","boring_xml_url":47,"boring_view_url":1,"soilmap_view_url":null,"soiltest_xml_url":0,"soiltest_view_url":0},{"id":281380,"code":"NGIC201900562-0007","latitude":"33.257692138889","longitude":"131.66643638889","source_code":"","project_name":"","survey_name":"\u5e73\u621031\u5e74\u5ea6\u5927\u5206\u6e2f\u6d77\u5cb8\u571f\u8cea\u8abf\u67fb(\u7b2c3\u6b21)","client_name":"\u56fd\u571f\u4ea4\u901a\u7701\u4e5d\u5dde\u5730\u65b9\u6574\u5099\u5c40\u5225\u5e9c\u6e2f\u6e7e\u30fb\u7a7a\u6e2f\u6574\u5099\u4e8b\u52d9\u6240","boring_xml_url":47,"boring_view_url":1,"soilmap_view_url":71,"soiltest_xml_url":47,"soiltest_view_url":47},{"id":281379,"code":"NGIC201900562-0006","latitude":"33.272813583333","longitude":"131.65764388889","source_code":"","project_name":"","survey_name":"\u5e73\u621031\u5e74\u5ea6\u5927\u5206\u6e2f\u6d77\u5cb8\u571f\u8cea\u8abf\u67fb(\u7b2c3\u6b21)","client_name":"\u56fd\u571f\u4ea4\u901a\u7701\u4e5d\u5dde\u5730\u65b9\u6574\u5099\u5c40\u5225\u5e9c\u6e2f\u6e7e\u30fb\u7a7a\u6e2f\u6574\u5099\u4e8b\u52d9\u6240","boring_xml_url":47,"boring_view_url":1,"soilmap_view_url":71,"soiltest_xml_url":47,"soiltest_view_url":47},{"id":281378,"code":"NGIC201900562-0005","latitude":"33.272545416667","longitude":"131.65661988889","source_code":"","project_name":"","survey_name":"\u5e73\u621031\u5e74\u5ea6\u5927\u5206\u6e2f\u6d77\u5cb8\u571f\u8cea\u8abf\u67fb(\u7b2c3\u6b21)","client_name":"\u56fd\u571f\u4ea4\u901a\u7701\u4e5d\u5dde\u5730\u65b9\u6574\u5099\u5c40\u5225\u5e9c\u6e2f\u6e7e\u30fb\u7a7a\u6e2f\u6574\u5099\u4e8b\u52d9\u6240","boring_xml_url":47,"boring_view_url":1,"soilmap_view_url":71,"soiltest_xml_url":47,"soiltest_view_url":47},{"id":281377,"code":"NGIC201900562-0004","latitude":"33.272276777778","longitude":"131.65559477778","source_code":"","project_name":"","survey_name":"\u5e73\u621031\u5e74\u5ea6\u5927\u5206\u6e2f\u6d77\u5cb8\u571f\u8cea\u8abf\u67fb(\u7b2c3\u6b21)","client_name":"\u56fd\u571f\u4ea4\u901a\u7701\u4e5d\u5dde\u5730\u65b9\u6574\u5099\u5c40\u5225\u5e9c\u6e2f\u6e7e\u30fb\u7a7a\u6e2f\u6574\u5099\u4e8b\u52d9\u6240","boring_xml_url":47,"boring_view_url":1,"soilmap_view_url":71,"soiltest_xml_url":47,"soiltest_view_url":47},{"id":281376,"code":"NGIC201900562-0003","latitude":"33.272007416667","longitude":"131.65456861111","source_code":"","project_name":"","survey_name":"\u5e73\u621031\u5e74\u5ea6\u5927\u5206\u6e2f\u6d77\u5cb8\u571f\u8cea\u8abf\u67fb(\u7b2c3\u6b21)","client_name":"\u56fd\u571f\u4ea4\u901a\u7701\u4e5d\u5dde\u5730\u65b9\u6574\u5099\u5c40\u5225\u5e9c\u6e2f\u6e7e\u30fb\u7a7a\u6e2f\u6574\u5099\u4e8b\u52d9\u6240","boring_xml_url":47,"boring_view_url":1,"soilmap_view_url":71,"soiltest_xml_url":47,"soiltest_view_url":47},{"id":281375,"code":"NGIC201900562-0002","latitude":"33.271738333333","longitude":"131.65354352778","source_code":"","project_name":"","survey_name":"\u5e73\u621031\u5e74\u5ea6\u5927\u5206\u6e2f\u6d77\u5cb8\u571f\u8cea\u8abf\u67fb(\u7b2c3\u6b21)","client_name":"\u56fd\u571f\u4ea4\u901a\u7701\u4e5d\u5dde\u5730\u65b9\u6574\u5099\u5c40\u5225\u5e9c\u6e2f\u6e7e\u30fb\u7a7a\u6e2f\u6574\u5099\u4e8b\u52d9\u6240","boring_xml_url":47,"boring_view_url":1,"soilmap_view_url":71,"soiltest_xml_url":47,"soiltest_view_url":47},{"id":281374,"code":"NGIC201900562-0001","latitude":"33.271474222222","longitude":"131.65252119444","source_code":"","project_name":"","survey_name":"\u5e73\u621031\u5e74\u5ea6\u5927\u5206\u6e2f\u6d77\u5cb8\u571f\u8cea\u8abf\u67fb(\u7b2c3\u6b21)","client_name":"\u56fd\u571f\u4ea4\u901a\u7701\u4e5d\u5dde\u5730\u65b9\u6574\u5099\u5c40\u5225\u5e9c\u6e2f\u6e7e\u30fb\u7a7a\u6e2f\u6574\u5099\u4e8b\u52d9\u6240","boring_xml_url":47,"boring_view_url":1,"soilmap_view_url":71,"soiltest_xml_url":47,"soiltest_view_url":47}]}}