{"header":{"xyz":{"source":[],"mosaic":false},"page":2335,"raw":{"soiltest_result":"0","bbox":"57.598333,109.544722,1.933333,163.806111","page":"2335"},"conditions":{"soiltest_result":0,"north":57.598333,"west":109.544722,"south":1.933333,"east":163.806111},"success":true,"message":""},"data":{"meta":{"total":212844,"page":2335,"pages":7095,"count":30},"values":[{"id":281372,"code":"NGIC201900565-0004","latitude":"36.2539475","longitude":"136.74609277778","source_code":"","project_name":"","survey_name":"\u5e73\u621031\u5e74\u5ea6\u767d\u5c71\u7802\u9632\u7ba1\u5185\u5730\u8cea\u8abf\u67fb\u696d\u52d9","client_name":"\u56fd\u571f\u4ea4\u901a\u7701\u5317\u9678\u5730\u65b9\u6574\u5099\u5c40\u91d1\u6ca2\u6cb3\u5ddd\u56fd\u9053\u4e8b\u52d9\u6240","boring_xml_url":47,"boring_view_url":1,"soilmap_view_url":null,"soiltest_xml_url":0,"soiltest_view_url":0},{"id":281371,"code":"NGIC201900565-0003","latitude":"36.253576388889","longitude":"136.74614777778","source_code":"","project_name":"","survey_name":"\u5e73\u621031\u5e74\u5ea6\u767d\u5c71\u7802\u9632\u7ba1\u5185\u5730\u8cea\u8abf\u67fb\u696d\u52d9","client_name":"\u56fd\u571f\u4ea4\u901a\u7701\u5317\u9678\u5730\u65b9\u6574\u5099\u5c40\u91d1\u6ca2\u6cb3\u5ddd\u56fd\u9053\u4e8b\u52d9\u6240","boring_xml_url":47,"boring_view_url":1,"soilmap_view_url":null,"soiltest_xml_url":0,"soiltest_view_url":0},{"id":281370,"code":"NGIC201900565-0002","latitude":"36.253777777778","longitude":"136.74635027778","source_code":"","project_name":"","survey_name":"\u5e73\u621031\u5e74\u5ea6\u767d\u5c71\u7802\u9632\u7ba1\u5185\u5730\u8cea\u8abf\u67fb\u696d\u52d9","client_name":"\u56fd\u571f\u4ea4\u901a\u7701\u5317\u9678\u5730\u65b9\u6574\u5099\u5c40\u91d1\u6ca2\u6cb3\u5ddd\u56fd\u9053\u4e8b\u52d9\u6240","boring_xml_url":47,"boring_view_url":1,"soilmap_view_url":null,"soiltest_xml_url":0,"soiltest_view_url":0},{"id":281369,"code":"NGIC201900565-0001","latitude":"36.254080555556","longitude":"136.74669472222","source_code":"","project_name":"","survey_name":"\u5e73\u621031\u5e74\u5ea6\u767d\u5c71\u7802\u9632\u7ba1\u5185\u5730\u8cea\u8abf\u67fb\u696d\u52d9","client_name":"\u56fd\u571f\u4ea4\u901a\u7701\u5317\u9678\u5730\u65b9\u6574\u5099\u5c40\u91d1\u6ca2\u6cb3\u5ddd\u56fd\u9053\u4e8b\u52d9\u6240","boring_xml_url":47,"boring_view_url":1,"soilmap_view_url":null,"soiltest_xml_url":0,"soiltest_view_url":0},{"id":281368,"code":"NGIC201900515-0002","latitude":"36.085927777778","longitude":"139.75893333333","source_code":"","project_name":"","survey_name":"H30\u570f\u592e\u9053\u4e94\u971e\u9ad8\u67b6\u6a4b\u6a4b\u6881\u8a73\u7d30\u8a2d\u8a08\u696d\u52d9","client_name":"\u56fd\u571f\u4ea4\u901a\u7701\u95a2\u6771\u5730\u65b9\u6574\u5099\u5c40\u5317\u9996\u90fd\u56fd\u9053\u4e8b\u52d9\u6240","boring_xml_url":47,"boring_view_url":1,"soilmap_view_url":null,"soiltest_xml_url":47,"soiltest_view_url":47},{"id":281367,"code":"NGIC201900515-0001","latitude":"36.085927777778","longitude":"139.75893333333","source_code":"","project_name":"","survey_name":"H30\u570f\u592e\u9053\u4e94\u971e\u9ad8\u67b6\u6a4b\u6a4b\u6881\u8a73\u7d30\u8a2d\u8a08\u696d\u52d9","client_name":"\u56fd\u571f\u4ea4\u901a\u7701\u95a2\u6771\u5730\u65b9\u6574\u5099\u5c40\u5317\u9996\u90fd\u56fd\u9053\u4e8b\u52d9\u6240","boring_xml_url":47,"boring_view_url":1,"soilmap_view_url":null,"soiltest_xml_url":47,"soiltest_view_url":47},{"id":281366,"code":"NGIC201900514-0002","latitude":"36.075888888889","longitude":"139.75325","source_code":"","project_name":"","survey_name":"H30\u570f\u592e\u9053\u65b0\u5207\u6238\u897f\u9ad8\u67b6\u6a4b\u6a4b\u6881\u8a73\u7d30\u8a2d\u8a08\u696d\u52d9","client_name":"\u56fd\u571f\u4ea4\u901a\u7701\u95a2\u6771\u5730\u65b9\u6574\u5099\u5c40\u5317\u9996\u90fd\u56fd\u9053\u4e8b\u52d9\u6240","boring_xml_url":47,"boring_view_url":1,"soilmap_view_url":null,"soiltest_xml_url":47,"soiltest_view_url":47},{"id":281365,"code":"NGIC201900514-0001","latitude":"36.075888888889","longitude":"139.75325","source_code":"","project_name":"","survey_name":"H30\u570f\u592e\u9053\u65b0\u5207\u6238\u897f\u9ad8\u67b6\u6a4b\u6a4b\u6881\u8a73\u7d30\u8a2d\u8a08\u696d\u52d9","client_name":"\u56fd\u571f\u4ea4\u901a\u7701\u95a2\u6771\u5730\u65b9\u6574\u5099\u5c40\u5317\u9996\u90fd\u56fd\u9053\u4e8b\u52d9\u6240","boring_xml_url":47,"boring_view_url":1,"soilmap_view_url":null,"soiltest_xml_url":47,"soiltest_view_url":47},{"id":281364,"code":"NGIC201900557-0016","latitude":"35.925838888889","longitude":"139.59256944444","source_code":"","project_name":"","survey_name":"2019\u5e74\u5ea6\u65b0\u5927\u5bae\u4e0a\u5c3e\u9053\u8def\u5730\u8cea\u8abf\u67fb\u305d\u306e2\u696d\u52d9\u59d4\u8a17","client_name":"\u56fd\u571f\u4ea4\u901a\u7701\u95a2\u6771\u5730\u65b9\u6574\u5099\u5c40\u5927\u5bae\u56fd\u9053\u4e8b\u52d9\u6240","boring_xml_url":47,"boring_view_url":1,"soilmap_view_url":null,"soiltest_xml_url":0,"soiltest_view_url":0},{"id":281363,"code":"NGIC201900557-0015","latitude":"35.925388888889","longitude":"139.59260277778","source_code":"","project_name":"","survey_name":"2019\u5e74\u5ea6\u65b0\u5927\u5bae\u4e0a\u5c3e\u9053\u8def\u5730\u8cea\u8abf\u67fb\u305d\u306e2\u696d\u52d9\u59d4\u8a17","client_name":"\u56fd\u571f\u4ea4\u901a\u7701\u95a2\u6771\u5730\u65b9\u6574\u5099\u5c40\u5927\u5bae\u56fd\u9053\u4e8b\u52d9\u6240","boring_xml_url":47,"boring_view_url":1,"soilmap_view_url":null,"soiltest_xml_url":0,"soiltest_view_url":0},{"id":281362,"code":"NGIC201900557-0014","latitude":"35.924894444444","longitude":"139.59263888889","source_code":"","project_name":"","survey_name":"2019\u5e74\u5ea6\u65b0\u5927\u5bae\u4e0a\u5c3e\u9053\u8def\u5730\u8cea\u8abf\u67fb\u305d\u306e2\u696d\u52d9\u59d4\u8a17","client_name":"\u56fd\u571f\u4ea4\u901a\u7701\u95a2\u6771\u5730\u65b9\u6574\u5099\u5c40\u5927\u5bae\u56fd\u9053\u4e8b\u52d9\u6240","boring_xml_url":47,"boring_view_url":1,"soilmap_view_url":null,"soiltest_xml_url":0,"soiltest_view_url":0},{"id":281361,"code":"NGIC201900557-0013","latitude":"35.924505555556","longitude":"139.59266666667","source_code":"","project_name":"","survey_name":"2019\u5e74\u5ea6\u65b0\u5927\u5bae\u4e0a\u5c3e\u9053\u8def\u5730\u8cea\u8abf\u67fb\u305d\u306e2\u696d\u52d9\u59d4\u8a17","client_name":"\u56fd\u571f\u4ea4\u901a\u7701\u95a2\u6771\u5730\u65b9\u6574\u5099\u5c40\u5927\u5bae\u56fd\u9053\u4e8b\u52d9\u6240","boring_xml_url":47,"boring_view_url":1,"soilmap_view_url":null,"soiltest_xml_url":47,"soiltest_view_url":47},{"id":281360,"code":"NGIC201900557-0012","latitude":"35.924505555556","longitude":"139.59266666667","source_code":"","project_name":"","survey_name":"2019\u5e74\u5ea6\u65b0\u5927\u5bae\u4e0a\u5c3e\u9053\u8def\u5730\u8cea\u8abf\u67fb\u305d\u306e2\u696d\u52d9\u59d4\u8a17","client_name":"\u56fd\u571f\u4ea4\u901a\u7701\u95a2\u6771\u5730\u65b9\u6574\u5099\u5c40\u5927\u5bae\u56fd\u9053\u4e8b\u52d9\u6240","boring_xml_url":47,"boring_view_url":1,"soilmap_view_url":null,"soiltest_xml_url":47,"soiltest_view_url":47},{"id":281359,"code":"NGIC201900557-0011","latitude":"35.924102777778","longitude":"139.59269444444","source_code":"","project_name":"","survey_name":"2019\u5e74\u5ea6\u65b0\u5927\u5bae\u4e0a\u5c3e\u9053\u8def\u5730\u8cea\u8abf\u67fb\u305d\u306e2\u696d\u52d9\u59d4\u8a17","client_name":"\u56fd\u571f\u4ea4\u901a\u7701\u95a2\u6771\u5730\u65b9\u6574\u5099\u5c40\u5927\u5bae\u56fd\u9053\u4e8b\u52d9\u6240","boring_xml_url":47,"boring_view_url":1,"soilmap_view_url":null,"soiltest_xml_url":0,"soiltest_view_url":0},{"id":281358,"code":"NGIC201900557-0010","latitude":"35.92375","longitude":"139.59271944444","source_code":"","project_name":"","survey_name":"2019\u5e74\u5ea6\u65b0\u5927\u5bae\u4e0a\u5c3e\u9053\u8def\u5730\u8cea\u8abf\u67fb\u305d\u306e2\u696d\u52d9\u59d4\u8a17","client_name":"\u56fd\u571f\u4ea4\u901a\u7701\u95a2\u6771\u5730\u65b9\u6574\u5099\u5c40\u5927\u5bae\u56fd\u9053\u4e8b\u52d9\u6240","boring_xml_url":47,"boring_view_url":1,"soilmap_view_url":null,"soiltest_xml_url":0,"soiltest_view_url":0},{"id":281357,"code":"NGIC201900557-0009","latitude":"35.9233","longitude":"139.59275277778","source_code":"","project_name":"","survey_name":"2019\u5e74\u5ea6\u65b0\u5927\u5bae\u4e0a\u5c3e\u9053\u8def\u5730\u8cea\u8abf\u67fb\u305d\u306e2\u696d\u52d9\u59d4\u8a17","client_name":"\u56fd\u571f\u4ea4\u901a\u7701\u95a2\u6771\u5730\u65b9\u6574\u5099\u5c40\u5927\u5bae\u56fd\u9053\u4e8b\u52d9\u6240","boring_xml_url":47,"boring_view_url":1,"soilmap_view_url":null,"soiltest_xml_url":0,"soiltest_view_url":0},{"id":281356,"code":"NGIC201900557-0008","latitude":"35.92285","longitude":"139.59278611111","source_code":"","project_name":"","survey_name":"2019\u5e74\u5ea6\u65b0\u5927\u5bae\u4e0a\u5c3e\u9053\u8def\u5730\u8cea\u8abf\u67fb\u305d\u306e2\u696d\u52d9\u59d4\u8a17","client_name":"\u56fd\u571f\u4ea4\u901a\u7701\u95a2\u6771\u5730\u65b9\u6574\u5099\u5c40\u5927\u5bae\u56fd\u9053\u4e8b\u52d9\u6240","boring_xml_url":47,"boring_view_url":1,"soilmap_view_url":null,"soiltest_xml_url":0,"soiltest_view_url":0},{"id":281355,"code":"NGIC201900557-0007","latitude":"35.9224","longitude":"139.59281666667","source_code":"","project_name":"","survey_name":"2019\u5e74\u5ea6\u65b0\u5927\u5bae\u4e0a\u5c3e\u9053\u8def\u5730\u8cea\u8abf\u67fb\u305d\u306e2\u696d\u52d9\u59d4\u8a17","client_name":"\u56fd\u571f\u4ea4\u901a\u7701\u95a2\u6771\u5730\u65b9\u6574\u5099\u5c40\u5927\u5bae\u56fd\u9053\u4e8b\u52d9\u6240","boring_xml_url":47,"boring_view_url":1,"soilmap_view_url":null,"soiltest_xml_url":47,"soiltest_view_url":47},{"id":281354,"code":"NGIC201900557-0006","latitude":"35.9224","longitude":"139.59281666667","source_code":"","project_name":"","survey_name":"2019\u5e74\u5ea6\u65b0\u5927\u5bae\u4e0a\u5c3e\u9053\u8def\u5730\u8cea\u8abf\u67fb\u305d\u306e2\u696d\u52d9\u59d4\u8a17","client_name":"\u56fd\u571f\u4ea4\u901a\u7701\u95a2\u6771\u5730\u65b9\u6574\u5099\u5c40\u5927\u5bae\u56fd\u9053\u4e8b\u52d9\u6240","boring_xml_url":47,"boring_view_url":1,"soilmap_view_url":null,"soiltest_xml_url":47,"soiltest_view_url":47},{"id":281353,"code":"NGIC201900557-0005","latitude":"35.922041666667","longitude":"139.59284444444","source_code":"","project_name":"","survey_name":"2019\u5e74\u5ea6\u65b0\u5927\u5bae\u4e0a\u5c3e\u9053\u8def\u5730\u8cea\u8abf\u67fb\u305d\u306e2\u696d\u52d9\u59d4\u8a17","client_name":"\u56fd\u571f\u4ea4\u901a\u7701\u95a2\u6771\u5730\u65b9\u6574\u5099\u5c40\u5927\u5bae\u56fd\u9053\u4e8b\u52d9\u6240","boring_xml_url":47,"boring_view_url":1,"soilmap_view_url":null,"soiltest_xml_url":0,"soiltest_view_url":0},{"id":281352,"code":"NGIC201900557-0004","latitude":"35.921591666667","longitude":"139.592875","source_code":"","project_name":"","survey_name":"2019\u5e74\u5ea6\u65b0\u5927\u5bae\u4e0a\u5c3e\u9053\u8def\u5730\u8cea\u8abf\u67fb\u305d\u306e2\u696d\u52d9\u59d4\u8a17","client_name":"\u56fd\u571f\u4ea4\u901a\u7701\u95a2\u6771\u5730\u65b9\u6574\u5099\u5c40\u5927\u5bae\u56fd\u9053\u4e8b\u52d9\u6240","boring_xml_url":47,"boring_view_url":1,"soilmap_view_url":null,"soiltest_xml_url":0,"soiltest_view_url":0},{"id":281351,"code":"NGIC201900557-0003","latitude":"35.921141666667","longitude":"139.59290833333","source_code":"","project_name":"","survey_name":"2019\u5e74\u5ea6\u65b0\u5927\u5bae\u4e0a\u5c3e\u9053\u8def\u5730\u8cea\u8abf\u67fb\u305d\u306e2\u696d\u52d9\u59d4\u8a17","client_name":"\u56fd\u571f\u4ea4\u901a\u7701\u95a2\u6771\u5730\u65b9\u6574\u5099\u5c40\u5927\u5bae\u56fd\u9053\u4e8b\u52d9\u6240","boring_xml_url":47,"boring_view_url":1,"soilmap_view_url":null,"soiltest_xml_url":0,"soiltest_view_url":0},{"id":281350,"code":"NGIC201900557-0002","latitude":"35.920772222222","longitude":"139.59293611111","source_code":"","project_name":"","survey_name":"2019\u5e74\u5ea6\u65b0\u5927\u5bae\u4e0a\u5c3e\u9053\u8def\u5730\u8cea\u8abf\u67fb\u305d\u306e2\u696d\u52d9\u59d4\u8a17","client_name":"\u56fd\u571f\u4ea4\u901a\u7701\u95a2\u6771\u5730\u65b9\u6574\u5099\u5c40\u5927\u5bae\u56fd\u9053\u4e8b\u52d9\u6240","boring_xml_url":47,"boring_view_url":1,"soilmap_view_url":null,"soiltest_xml_url":47,"soiltest_view_url":47},{"id":281349,"code":"NGIC201900557-0001","latitude":"35.920772222222","longitude":"139.59293611111","source_code":"","project_name":"","survey_name":"2019\u5e74\u5ea6\u65b0\u5927\u5bae\u4e0a\u5c3e\u9053\u8def\u5730\u8cea\u8abf\u67fb\u305d\u306e2\u696d\u52d9\u59d4\u8a17","client_name":"\u56fd\u571f\u4ea4\u901a\u7701\u95a2\u6771\u5730\u65b9\u6574\u5099\u5c40\u5927\u5bae\u56fd\u9053\u4e8b\u52d9\u6240","boring_xml_url":47,"boring_view_url":1,"soilmap_view_url":null,"soiltest_xml_url":47,"soiltest_view_url":47},{"id":281331,"code":"NGIC201900586-0002","latitude":"35.617194444444","longitude":"140.07897222222","source_code":"","project_name":"","survey_name":"\u5343\u8449\u904b\u8f38\u652f\u5c40\u5009\u5eab\uff0819\uff09\u5730\u76e4\u8abf\u67fb","client_name":"\u56fd\u571f\u4ea4\u901a\u7701\u95a2\u6771\u5730\u65b9\u6574\u5099\u5c40\u6771\u4eac\u7b2c\u4e8c\u55b6\u7e55\u4e8b\u52d9\u6240","boring_xml_url":47,"boring_view_url":1,"soilmap_view_url":null,"soiltest_xml_url":47,"soiltest_view_url":47},{"id":281330,"code":"NGIC201900586-0001","latitude":"35.617388888889","longitude":"140.07866666667","source_code":"","project_name":"","survey_name":"\u5343\u8449\u904b\u8f38\u652f\u5c40\u5009\u5eab\uff0819\uff09\u5730\u76e4\u8abf\u67fb","client_name":"\u56fd\u571f\u4ea4\u901a\u7701\u95a2\u6771\u5730\u65b9\u6574\u5099\u5c40\u6771\u4eac\u7b2c\u4e8c\u55b6\u7e55\u4e8b\u52d9\u6240","boring_xml_url":47,"boring_view_url":1,"soilmap_view_url":null,"soiltest_xml_url":47,"soiltest_view_url":47},{"id":281319,"code":"NGIC201900555-0004","latitude":"41.398304666667","longitude":"140.19602913889","source_code":"","project_name":"","survey_name":"\u4e00\u822c\u56fd\u9053228\u53f7 \u798f\u5cf6\u753a\u5916 \u677e\u6d66\u5730\u8cea\u8abf\u67fb\u696d\u52d9","client_name":"\u56fd\u571f\u4ea4\u901a\u7701\u5317\u6d77\u9053\u958b\u767a\u5c40\u51fd\u9928\u958b\u767a\u5efa\u8a2d\u90e8","boring_xml_url":47,"boring_view_url":1,"soilmap_view_url":null,"soiltest_xml_url":0,"soiltest_view_url":0},{"id":281318,"code":"NGIC201900555-0003","latitude":"41.409169166667","longitude":"140.21268897222","source_code":"","project_name":"","survey_name":"\u4e00\u822c\u56fd\u9053228\u53f7 \u798f\u5cf6\u753a\u5916 \u677e\u6d66\u5730\u8cea\u8abf\u67fb\u696d\u52d9","client_name":"\u56fd\u571f\u4ea4\u901a\u7701\u5317\u6d77\u9053\u958b\u767a\u5c40\u51fd\u9928\u958b\u767a\u5efa\u8a2d\u90e8","boring_xml_url":47,"boring_view_url":1,"soilmap_view_url":null,"soiltest_xml_url":0,"soiltest_view_url":0},{"id":281317,"code":"NGIC201900555-0002","latitude":"41.409267333333","longitude":"140.21350691667","source_code":"","project_name":"","survey_name":"\u4e00\u822c\u56fd\u9053228\u53f7 \u798f\u5cf6\u753a\u5916 \u677e\u6d66\u5730\u8cea\u8abf\u67fb\u696d\u52d9","client_name":"\u56fd\u571f\u4ea4\u901a\u7701\u5317\u6d77\u9053\u958b\u767a\u5c40\u51fd\u9928\u958b\u767a\u5efa\u8a2d\u90e8","boring_xml_url":47,"boring_view_url":1,"soilmap_view_url":null,"soiltest_xml_url":0,"soiltest_view_url":0},{"id":281316,"code":"NGIC201900555-0001","latitude":"41.415132833333","longitude":"140.21662375","source_code":"","project_name":"","survey_name":"\u4e00\u822c\u56fd\u9053228\u53f7 \u798f\u5cf6\u753a\u5916 \u677e\u6d66\u5730\u8cea\u8abf\u67fb\u696d\u52d9","client_name":"\u56fd\u571f\u4ea4\u901a\u7701\u5317\u6d77\u9053\u958b\u767a\u5c40\u51fd\u9928\u958b\u767a\u5efa\u8a2d\u90e8","boring_xml_url":47,"boring_view_url":1,"soilmap_view_url":null,"soiltest_xml_url":0,"soiltest_view_url":0}]}}