{"header":{"xyz":{"source":[],"mosaic":false},"page":2347,"raw":{"soiltest_result":"0","bbox":"57.598333,109.544722,1.933333,163.806111","page":"2347"},"conditions":{"soiltest_result":0,"north":57.598333,"west":109.544722,"south":1.933333,"east":163.806111},"success":true,"message":""},"data":{"meta":{"total":212844,"page":2347,"pages":7095,"count":30},"values":[{"id":280696,"code":"NGIC201900282-0006","latitude":"43.172330555556","longitude":"142.57323611111","source_code":"","project_name":"\u540c\u4e0a","survey_name":"\u7a7a\u77e5\u5ddd\u4e0a\u6d41\u5730\u8cea\u8abf\u67fb\u696d\u52d9","client_name":"\u56fd\u571f\u4ea4\u901a\u7701\u5317\u6d77\u9053\u958b\u767a\u5c40\u672d\u5e4c\u958b\u767a\u5efa\u8a2d\u90e8\u7a7a\u77e5\u5ddd\u6cb3\u5ddd\u4e8b\u52d9\u6240","boring_xml_url":47,"boring_view_url":1,"soilmap_view_url":null,"soiltest_xml_url":47,"soiltest_view_url":47},{"id":280695,"code":"NGIC201900282-0005","latitude":"43.1726","longitude":"142.57311666667","source_code":"","project_name":"\u540c\u4e0a","survey_name":"\u7a7a\u77e5\u5ddd\u4e0a\u6d41\u5730\u8cea\u8abf\u67fb\u696d\u52d9","client_name":"\u56fd\u571f\u4ea4\u901a\u7701\u5317\u6d77\u9053\u958b\u767a\u5c40\u672d\u5e4c\u958b\u767a\u5efa\u8a2d\u90e8\u7a7a\u77e5\u5ddd\u6cb3\u5ddd\u4e8b\u52d9\u6240","boring_xml_url":47,"boring_view_url":1,"soilmap_view_url":null,"soiltest_xml_url":47,"soiltest_view_url":47},{"id":280694,"code":"NGIC201900282-0004","latitude":"43.172872222222","longitude":"142.57336388889","source_code":"","project_name":"\u540c\u4e0a","survey_name":"\u7a7a\u77e5\u5ddd\u4e0a\u6d41\u5730\u8cea\u8abf\u67fb\u696d\u52d9","client_name":"\u56fd\u571f\u4ea4\u901a\u7701\u5317\u6d77\u9053\u958b\u767a\u5c40\u672d\u5e4c\u958b\u767a\u5efa\u8a2d\u90e8\u7a7a\u77e5\u5ddd\u6cb3\u5ddd\u4e8b\u52d9\u6240","boring_xml_url":47,"boring_view_url":1,"soilmap_view_url":null,"soiltest_xml_url":0,"soiltest_view_url":0},{"id":280693,"code":"NGIC201900282-0003","latitude":"43.173172222222","longitude":"142.57351666667","source_code":"","project_name":"\u540c\u4e0a","survey_name":"\u7a7a\u77e5\u5ddd\u4e0a\u6d41\u5730\u8cea\u8abf\u67fb\u696d\u52d9","client_name":"\u56fd\u571f\u4ea4\u901a\u7701\u5317\u6d77\u9053\u958b\u767a\u5c40\u672d\u5e4c\u958b\u767a\u5efa\u8a2d\u90e8\u7a7a\u77e5\u5ddd\u6cb3\u5ddd\u4e8b\u52d9\u6240","boring_xml_url":47,"boring_view_url":1,"soilmap_view_url":null,"soiltest_xml_url":47,"soiltest_view_url":47},{"id":280692,"code":"NGIC201900282-0002","latitude":"43.173447222222","longitude":"142.57365555556","source_code":"","project_name":"\u540c\u4e0a","survey_name":"\u7a7a\u77e5\u5ddd\u4e0a\u6d41\u5730\u8cea\u8abf\u67fb\u696d\u52d9","client_name":"\u56fd\u571f\u4ea4\u901a\u7701\u5317\u6d77\u9053\u958b\u767a\u5c40\u672d\u5e4c\u958b\u767a\u5efa\u8a2d\u90e8\u7a7a\u77e5\u5ddd\u6cb3\u5ddd\u4e8b\u52d9\u6240","boring_xml_url":47,"boring_view_url":1,"soilmap_view_url":null,"soiltest_xml_url":0,"soiltest_view_url":0},{"id":280691,"code":"NGIC201900282-0001","latitude":"43.173755555556","longitude":"142.57368055556","source_code":"","project_name":"\u540c\u4e0a","survey_name":"\u7a7a\u77e5\u5ddd\u4e0a\u6d41\u5730\u8cea\u8abf\u67fb\u696d\u52d9","client_name":"\u56fd\u571f\u4ea4\u901a\u7701\u5317\u6d77\u9053\u958b\u767a\u5c40\u672d\u5e4c\u958b\u767a\u5efa\u8a2d\u90e8\u7a7a\u77e5\u5ddd\u6cb3\u5ddd\u4e8b\u52d9\u6240","boring_xml_url":47,"boring_view_url":1,"soilmap_view_url":null,"soiltest_xml_url":47,"soiltest_view_url":47},{"id":280685,"code":"NGIC201900398-0007","latitude":"42.505944444444","longitude":"143.25327777778","source_code":"","project_name":"\u5e2f\u5e83\u5e83\u5c3e\u81ea\u52d5\u8eca\u9053\u5927\u6a39\u753a\u5916\u7d0b\u5225\u5730\u8cea\u8abf\u67fb\u696d\u52d9","survey_name":"\u5e2f\u5e83\u5e83\u5c3e\u81ea\u52d5\u8eca\u9053\u5927\u6a39\u753a\u5916\u7d0b\u5225\u5730\u8cea\u8abf\u67fb\u696d\u52d9","client_name":"\u56fd\u571f\u4ea4\u901a\u7701\u5317\u6d77\u9053\u958b\u767a\u5c40\u5e2f\u5e83\u958b\u767a\u5efa\u8a2d\u90e8 \u5e2f\u5e83\u9053\u8def\u4e8b\u52d9\u6240","boring_xml_url":47,"boring_view_url":1,"soilmap_view_url":null,"soiltest_xml_url":0,"soiltest_view_url":0},{"id":280684,"code":"NGIC201900398-0006","latitude":"42.444472222222","longitude":"143.26061111111","source_code":"","project_name":"\u5e2f\u5e83\u5e83\u5c3e\u81ea\u52d5\u8eca\u9053\u5927\u6a39\u753a\u5916\u7d0b\u5225\u5730\u8cea\u8abf\u67fb\u696d\u52d9","survey_name":"\u5e2f\u5e83\u5e83\u5c3e\u81ea\u52d5\u8eca\u9053\u5927\u6a39\u753a\u5916\u7d0b\u5225\u5730\u8cea\u8abf\u67fb\u696d\u52d9","client_name":"\u56fd\u571f\u4ea4\u901a\u7701\u5317\u6d77\u9053\u958b\u767a\u5c40\u5e2f\u5e83\u958b\u767a\u5efa\u8a2d\u90e8 \u5e2f\u5e83\u9053\u8def\u4e8b\u52d9\u6240","boring_xml_url":47,"boring_view_url":1,"soilmap_view_url":null,"soiltest_xml_url":0,"soiltest_view_url":0},{"id":280683,"code":"NGIC201900398-0005","latitude":"42.445138888889","longitude":"143.26091666667","source_code":"","project_name":"\u5e2f\u5e83\u5e83\u5c3e\u81ea\u52d5\u8eca\u9053\u5927\u6a39\u753a\u5916\u7d0b\u5225\u5730\u8cea\u8abf\u67fb\u696d\u52d9","survey_name":"\u5e2f\u5e83\u5e83\u5c3e\u81ea\u52d5\u8eca\u9053\u5927\u6a39\u753a\u5916\u7d0b\u5225\u5730\u8cea\u8abf\u67fb\u696d\u52d9","client_name":"\u56fd\u571f\u4ea4\u901a\u7701\u5317\u6d77\u9053\u958b\u767a\u5c40\u5e2f\u5e83\u958b\u767a\u5efa\u8a2d\u90e8 \u5e2f\u5e83\u9053\u8def\u4e8b\u52d9\u6240","boring_xml_url":47,"boring_view_url":1,"soilmap_view_url":null,"soiltest_xml_url":0,"soiltest_view_url":0},{"id":280682,"code":"NGIC201900398-0004","latitude":"42.4455","longitude":"143.25977777778","source_code":"","project_name":"\u5e2f\u5e83\u5e83\u5c3e\u81ea\u52d5\u8eca\u9053\u5927\u6a39\u753a\u5916\u7d0b\u5225\u5730\u8cea\u8abf\u67fb\u696d\u52d9","survey_name":"\u5e2f\u5e83\u5e83\u5c3e\u81ea\u52d5\u8eca\u9053\u5927\u6a39\u753a\u5916\u7d0b\u5225\u5730\u8cea\u8abf\u67fb\u696d\u52d9","client_name":"\u56fd\u571f\u4ea4\u901a\u7701\u5317\u6d77\u9053\u958b\u767a\u5c40\u5e2f\u5e83\u958b\u767a\u5efa\u8a2d\u90e8 \u5e2f\u5e83\u9053\u8def\u4e8b\u52d9\u6240","boring_xml_url":47,"boring_view_url":1,"soilmap_view_url":null,"soiltest_xml_url":47,"soiltest_view_url":47},{"id":280681,"code":"NGIC201900398-0003","latitude":"42.44675","longitude":"143.26055555556","source_code":"","project_name":"\u5e2f\u5e83\u5e83\u5c3e\u81ea\u52d5\u8eca\u9053\u5927\u6a39\u753a\u5916\u7d0b\u5225\u5730\u8cea\u8abf\u67fb\u696d\u52d9","survey_name":"\u5e2f\u5e83\u5e83\u5c3e\u81ea\u52d5\u8eca\u9053\u5927\u6a39\u753a\u5916\u7d0b\u5225\u5730\u8cea\u8abf\u67fb\u696d\u52d9","client_name":"\u56fd\u571f\u4ea4\u901a\u7701\u5317\u6d77\u9053\u958b\u767a\u5c40\u5e2f\u5e83\u958b\u767a\u5efa\u8a2d\u90e8 \u5e2f\u5e83\u9053\u8def\u4e8b\u52d9\u6240","boring_xml_url":47,"boring_view_url":1,"soilmap_view_url":null,"soiltest_xml_url":0,"soiltest_view_url":0},{"id":280680,"code":"NGIC201900398-0002","latitude":"42.449638888889","longitude":"143.26058333333","source_code":"","project_name":"\u5e2f\u5e83\u5e83\u5c3e\u81ea\u52d5\u8eca\u9053\u5927\u6a39\u753a\u5916\u7d0b\u5225\u5730\u8cea\u8abf\u67fb\u696d\u52d9","survey_name":"\u5e2f\u5e83\u5e83\u5c3e\u81ea\u52d5\u8eca\u9053\u5927\u6a39\u753a\u5916\u7d0b\u5225\u5730\u8cea\u8abf\u67fb\u696d\u52d9","client_name":"\u56fd\u571f\u4ea4\u901a\u7701\u5317\u6d77\u9053\u958b\u767a\u5c40\u5e2f\u5e83\u958b\u767a\u5efa\u8a2d\u90e8 \u5e2f\u5e83\u9053\u8def\u4e8b\u52d9\u6240","boring_xml_url":47,"boring_view_url":1,"soilmap_view_url":null,"soiltest_xml_url":0,"soiltest_view_url":0},{"id":280679,"code":"NGIC201900398-0001","latitude":"42.450527777778","longitude":"143.26058333333","source_code":"","project_name":"\u5e2f\u5e83\u5e83\u5c3e\u81ea\u52d5\u8eca\u9053\u5927\u6a39\u753a\u5916\u7d0b\u5225\u5730\u8cea\u8abf\u67fb\u696d\u52d9","survey_name":"\u5e2f\u5e83\u5e83\u5c3e\u81ea\u52d5\u8eca\u9053\u5927\u6a39\u753a\u5916\u7d0b\u5225\u5730\u8cea\u8abf\u67fb\u696d\u52d9","client_name":"\u56fd\u571f\u4ea4\u901a\u7701\u5317\u6d77\u9053\u958b\u767a\u5c40\u5e2f\u5e83\u958b\u767a\u5efa\u8a2d\u90e8 \u5e2f\u5e83\u9053\u8def\u4e8b\u52d9\u6240","boring_xml_url":47,"boring_view_url":1,"soilmap_view_url":null,"soiltest_xml_url":47,"soiltest_view_url":47},{"id":280673,"code":"NGIC201900382-0007","latitude":"33.510453277778","longitude":"132.54016819444","source_code":"","project_name":"\u4ee4\u548c\u5143\u5e74\u5ea6\u80b1\u5ddd\u7ba1\u5185\u5730\u8cea\u8abf\u67fb(\u305d\u306e1)\u696d\u52d9","survey_name":"\u4ee4\u548c\u5143\u5e74\u5ea6\u80b1\u5ddd\u7ba1\u5185\u5730\u8cea\u8abf\u67fb(\u305d\u306e1)\u696d\u52d9","client_name":"\u56fd\u571f\u4ea4\u901a\u7701\u56db\u56fd\u5730\u65b9\u6574\u5099\u5c40\u5927\u6d32\u6cb3\u5ddd\u56fd\u9053\u4e8b\u52d9\u6240","boring_xml_url":47,"boring_view_url":1,"soilmap_view_url":null,"soiltest_xml_url":0,"soiltest_view_url":0},{"id":280672,"code":"NGIC201900382-0006","latitude":"33.503429388889","longitude":"132.55538741667","source_code":"","project_name":"\u4ee4\u548c\u5143\u5e74\u5ea6\u80b1\u5ddd\u7ba1\u5185\u5730\u8cea\u8abf\u67fb(\u305d\u306e1)\u696d\u52d9","survey_name":"\u4ee4\u548c\u5143\u5e74\u5ea6\u80b1\u5ddd\u7ba1\u5185\u5730\u8cea\u8abf\u67fb(\u305d\u306e1)\u696d\u52d9","client_name":"\u56fd\u571f\u4ea4\u901a\u7701\u56db\u56fd\u5730\u65b9\u6574\u5099\u5c40\u5927\u6d32\u6cb3\u5ddd\u56fd\u9053\u4e8b\u52d9\u6240","boring_xml_url":47,"boring_view_url":1,"soilmap_view_url":null,"soiltest_xml_url":47,"soiltest_view_url":47},{"id":280671,"code":"NGIC201900382-0005","latitude":"33.503208333333","longitude":"132.55398766667","source_code":"","project_name":"\u4ee4\u548c\u5143\u5e74\u5ea6\u80b1\u5ddd\u7ba1\u5185\u5730\u8cea\u8abf\u67fb(\u305d\u306e1)\u696d\u52d9","survey_name":"\u4ee4\u548c\u5143\u5e74\u5ea6\u80b1\u5ddd\u7ba1\u5185\u5730\u8cea\u8abf\u67fb(\u305d\u306e1)\u696d\u52d9","client_name":"\u56fd\u571f\u4ea4\u901a\u7701\u56db\u56fd\u5730\u65b9\u6574\u5099\u5c40\u5927\u6d32\u6cb3\u5ddd\u56fd\u9053\u4e8b\u52d9\u6240","boring_xml_url":47,"boring_view_url":1,"soilmap_view_url":null,"soiltest_xml_url":47,"soiltest_view_url":47},{"id":280670,"code":"NGIC201900382-0004","latitude":"33.505611833333","longitude":"132.55196586111","source_code":"","project_name":"\u4ee4\u548c\u5143\u5e74\u5ea6\u80b1\u5ddd\u7ba1\u5185\u5730\u8cea\u8abf\u67fb(\u305d\u306e1)\u696d\u52d9","survey_name":"\u4ee4\u548c\u5143\u5e74\u5ea6\u80b1\u5ddd\u7ba1\u5185\u5730\u8cea\u8abf\u67fb(\u305d\u306e1)\u696d\u52d9","client_name":"\u56fd\u571f\u4ea4\u901a\u7701\u56db\u56fd\u5730\u65b9\u6574\u5099\u5c40\u5927\u6d32\u6cb3\u5ddd\u56fd\u9053\u4e8b\u52d9\u6240","boring_xml_url":47,"boring_view_url":1,"soilmap_view_url":null,"soiltest_xml_url":47,"soiltest_view_url":47},{"id":280669,"code":"NGIC201900382-0003","latitude":"33.503845333333","longitude":"132.54973413889","source_code":"","project_name":"\u4ee4\u548c\u5143\u5e74\u5ea6\u80b1\u5ddd\u7ba1\u5185\u5730\u8cea\u8abf\u67fb(\u305d\u306e1)\u696d\u52d9","survey_name":"\u4ee4\u548c\u5143\u5e74\u5ea6\u80b1\u5ddd\u7ba1\u5185\u5730\u8cea\u8abf\u67fb(\u305d\u306e1)\u696d\u52d9","client_name":"\u56fd\u571f\u4ea4\u901a\u7701\u56db\u56fd\u5730\u65b9\u6574\u5099\u5c40\u5927\u6d32\u6cb3\u5ddd\u56fd\u9053\u4e8b\u52d9\u6240","boring_xml_url":47,"boring_view_url":1,"soilmap_view_url":null,"soiltest_xml_url":47,"soiltest_view_url":47},{"id":280668,"code":"NGIC201900382-0002","latitude":"33.503836444444","longitude":"132.54938980556","source_code":"","project_name":"\u4ee4\u548c\u5143\u5e74\u5ea6\u80b1\u5ddd\u7ba1\u5185\u5730\u8cea\u8abf\u67fb(\u305d\u306e1)\u696d\u52d9","survey_name":"\u4ee4\u548c\u5143\u5e74\u5ea6\u80b1\u5ddd\u7ba1\u5185\u5730\u8cea\u8abf\u67fb(\u305d\u306e1)\u696d\u52d9","client_name":"\u56fd\u571f\u4ea4\u901a\u7701\u56db\u56fd\u5730\u65b9\u6574\u5099\u5c40\u5927\u6d32\u6cb3\u5ddd\u56fd\u9053\u4e8b\u52d9\u6240","boring_xml_url":47,"boring_view_url":1,"soilmap_view_url":null,"soiltest_xml_url":47,"soiltest_view_url":47},{"id":280667,"code":"NGIC201900382-0001","latitude":"33.505080305556","longitude":"132.54938980556","source_code":"","project_name":"\u4ee4\u548c\u5143\u5e74\u5ea6\u80b1\u5ddd\u7ba1\u5185\u5730\u8cea\u8abf\u67fb(\u305d\u306e1)\u696d\u52d9","survey_name":"\u4ee4\u548c\u5143\u5e74\u5ea6\u80b1\u5ddd\u7ba1\u5185\u5730\u8cea\u8abf\u67fb(\u305d\u306e1)\u696d\u52d9","client_name":"\u56fd\u571f\u4ea4\u901a\u7701\u56db\u56fd\u5730\u65b9\u6574\u5099\u5c40\u5927\u6d32\u6cb3\u5ddd\u56fd\u9053\u4e8b\u52d9\u6240","boring_xml_url":47,"boring_view_url":1,"soilmap_view_url":null,"soiltest_xml_url":47,"soiltest_view_url":47},{"id":280663,"code":"NGIC201900027-0005","latitude":"38.445202777778","longitude":"140.90824444444","source_code":"","project_name":"","survey_name":"\u5584\u5ddd\u849c\u888b\u5730\u533a\u6a0b\u9580\u7b49\u8a73\u7d30\u8a2d\u8a08\u696d\u52d9","client_name":"\u56fd\u571f\u4ea4\u901a\u7701\u6771\u5317\u5730\u65b9\u6574\u5099\u5c40\u5317\u4e0a\u5ddd\u4e0b\u6d41\u6cb3\u5ddd\u4e8b\u52d9\u6240","boring_xml_url":47,"boring_view_url":1,"soilmap_view_url":null,"soiltest_xml_url":0,"soiltest_view_url":0},{"id":280662,"code":"NGIC201900027-0004","latitude":"38.445091666667","longitude":"140.908225","source_code":"","project_name":"","survey_name":"\u5584\u5ddd\u849c\u888b\u5730\u533a\u6a0b\u9580\u7b49\u8a73\u7d30\u8a2d\u8a08\u696d\u52d9","client_name":"\u56fd\u571f\u4ea4\u901a\u7701\u6771\u5317\u5730\u65b9\u6574\u5099\u5c40\u5317\u4e0a\u5ddd\u4e0b\u6d41\u6cb3\u5ddd\u4e8b\u52d9\u6240","boring_xml_url":47,"boring_view_url":1,"soilmap_view_url":null,"soiltest_xml_url":47,"soiltest_view_url":47},{"id":280661,"code":"NGIC201900027-0003","latitude":"38.435313888889","longitude":"140.91947222222","source_code":"","project_name":"","survey_name":"\u5584\u5ddd\u849c\u888b\u5730\u533a\u6a0b\u9580\u7b49\u8a73\u7d30\u8a2d\u8a08\u696d\u52d9","client_name":"\u56fd\u571f\u4ea4\u901a\u7701\u6771\u5317\u5730\u65b9\u6574\u5099\u5c40\u5317\u4e0a\u5ddd\u4e0b\u6d41\u6cb3\u5ddd\u4e8b\u52d9\u6240","boring_xml_url":47,"boring_view_url":1,"soilmap_view_url":null,"soiltest_xml_url":47,"soiltest_view_url":47},{"id":280660,"code":"NGIC201900027-0002","latitude":"38.434122222222","longitude":"140.92020555556","source_code":"","project_name":"","survey_name":"\u5584\u5ddd\u849c\u888b\u5730\u533a\u6a0b\u9580\u7b49\u8a73\u7d30\u8a2d\u8a08\u696d\u52d9","client_name":"\u56fd\u571f\u4ea4\u901a\u7701\u6771\u5317\u5730\u65b9\u6574\u5099\u5c40\u5317\u4e0a\u5ddd\u4e0b\u6d41\u6cb3\u5ddd\u4e8b\u52d9\u6240","boring_xml_url":47,"boring_view_url":1,"soilmap_view_url":null,"soiltest_xml_url":47,"soiltest_view_url":47},{"id":280659,"code":"NGIC201900027-0001","latitude":"38.432288888889","longitude":"140.92141944444","source_code":"","project_name":"","survey_name":"\u5584\u5ddd\u849c\u888b\u5730\u533a\u6a0b\u9580\u7b49\u8a73\u7d30\u8a2d\u8a08\u696d\u52d9","client_name":"\u56fd\u571f\u4ea4\u901a\u7701\u6771\u5317\u5730\u65b9\u6574\u5099\u5c40\u5317\u4e0a\u5ddd\u4e0b\u6d41\u6cb3\u5ddd\u4e8b\u52d9\u6240","boring_xml_url":47,"boring_view_url":1,"soilmap_view_url":null,"soiltest_xml_url":47,"soiltest_view_url":47},{"id":280656,"code":"NGIC201900366-0018","latitude":"34.415351916667","longitude":"132.62951763889","source_code":"","project_name":"","survey_name":"\u5b89\u82b8\u6d25\u30d0\u30a4\u30d1\u30b9\u5916\u5730\u8cea\u8abf\u67fb\u696d\u52d9","client_name":"\u56fd\u571f\u4ea4\u901a\u7701\u4e2d\u56fd\u5730\u65b9\u6574\u5099\u5c40\u5e83\u5cf6\u56fd\u9053\u4e8b\u52d9\u6240","boring_xml_url":47,"boring_view_url":1,"soilmap_view_url":null,"soiltest_xml_url":0,"soiltest_view_url":0},{"id":280655,"code":"NGIC201900366-0017","latitude":"34.418536111111","longitude":"132.60573888889","source_code":"","project_name":"","survey_name":"\u5b89\u82b8\u6d25\u30d0\u30a4\u30d1\u30b9\u5916\u5730\u8cea\u8abf\u67fb\u696d\u52d9","client_name":"\u56fd\u571f\u4ea4\u901a\u7701\u4e2d\u56fd\u5730\u65b9\u6574\u5099\u5c40\u5e83\u5cf6\u56fd\u9053\u4e8b\u52d9\u6240","boring_xml_url":47,"boring_view_url":1,"soilmap_view_url":null,"soiltest_xml_url":0,"soiltest_view_url":0},{"id":280654,"code":"NGIC201900366-0016","latitude":"34.324335166667","longitude":"132.83376058333","source_code":"","project_name":"","survey_name":"\u5b89\u82b8\u6d25\u30d0\u30a4\u30d1\u30b9\u5916\u5730\u8cea\u8abf\u67fb\u696d\u52d9","client_name":"\u56fd\u571f\u4ea4\u901a\u7701\u4e2d\u56fd\u5730\u65b9\u6574\u5099\u5c40\u5e83\u5cf6\u56fd\u9053\u4e8b\u52d9\u6240","boring_xml_url":47,"boring_view_url":1,"soilmap_view_url":null,"soiltest_xml_url":0,"soiltest_view_url":0},{"id":280653,"code":"NGIC201900366-0015","latitude":"34.324505361111","longitude":"132.83342077778","source_code":"","project_name":"","survey_name":"\u5b89\u82b8\u6d25\u30d0\u30a4\u30d1\u30b9\u5916\u5730\u8cea\u8abf\u67fb\u696d\u52d9","client_name":"\u56fd\u571f\u4ea4\u901a\u7701\u4e2d\u56fd\u5730\u65b9\u6574\u5099\u5c40\u5e83\u5cf6\u56fd\u9053\u4e8b\u52d9\u6240","boring_xml_url":47,"boring_view_url":1,"soilmap_view_url":null,"soiltest_xml_url":0,"soiltest_view_url":0},{"id":280652,"code":"NGIC201900366-0014","latitude":"34.417469666667","longitude":"132.63210705556","source_code":"","project_name":"","survey_name":"\u5b89\u82b8\u6d25\u30d0\u30a4\u30d1\u30b9\u5916\u5730\u8cea\u8abf\u67fb\u696d\u52d9","client_name":"\u56fd\u571f\u4ea4\u901a\u7701\u4e2d\u56fd\u5730\u65b9\u6574\u5099\u5c40\u5e83\u5cf6\u56fd\u9053\u4e8b\u52d9\u6240","boring_xml_url":47,"boring_view_url":1,"soilmap_view_url":null,"soiltest_xml_url":0,"soiltest_view_url":0}]}}