{"header":{"xyz":{"source":[],"mosaic":false},"page":2349,"raw":{"soiltest_result":"0","bbox":"57.598333,109.544722,1.933333,163.806111","page":"2349"},"conditions":{"soiltest_result":0,"north":57.598333,"west":109.544722,"south":1.933333,"east":163.806111},"success":true,"message":""},"data":{"meta":{"total":212844,"page":2349,"pages":7095,"count":30},"values":[{"id":280599,"code":"NGIC201900344-0005","latitude":"42.911769444444","longitude":"141.91810555556","source_code":"","project_name":"","survey_name":"\u7be0\u6d25\u5730\u533a\u59161\u5730\u533a\u7dca\u6025\u8cc7\u6750\u7f6e\u5834\u5730\u8cea\u8abf\u67fb\u696d\u52d9","client_name":"\u56fd\u571f\u4ea4\u901a\u7701\u5317\u6d77\u9053\u958b\u767a\u5c40\u672d\u5e4c\u958b\u767a\u5efa\u8a2d\u90e8\u3000\u672d\u5e4c\u5317\u8fb2\u696d\u4e8b\u52d9\u6240","boring_xml_url":47,"boring_view_url":1,"soilmap_view_url":null,"soiltest_xml_url":47,"soiltest_view_url":47},{"id":280598,"code":"NGIC201900344-0004","latitude":"42.912494444444","longitude":"141.91767777778","source_code":"","project_name":"","survey_name":"\u7be0\u6d25\u5730\u533a\u59161\u5730\u533a \u7dca\u6025\u8cc7\u6750\u7f6e\u5834\u5730\u8cea\u8abf\u67fb\u696d\u52d9","client_name":"\u56fd\u571f\u4ea4\u901a\u7701\u5317\u6d77\u9053\u958b\u767a\u5c40\u672d\u5e4c\u958b\u767a\u5efa\u8a2d\u90e8\u3000\u672d\u5e4c\u5317\u8fb2\u696d\u4e8b\u52d9\u6240","boring_xml_url":47,"boring_view_url":1,"soilmap_view_url":null,"soiltest_xml_url":47,"soiltest_view_url":47},{"id":280597,"code":"NGIC201900344-0003","latitude":"43.317694444444","longitude":"141.66845833333","source_code":"","project_name":"","survey_name":"\u7be0\u6d25\u5730\u533a\u59161\u5730\u533a\u7dca\u6025\u8cc7\u6750\u7f6e\u5834\u5730\u8cea\u8abf\u67fb\u696d\u52d9","client_name":"\u56fd\u571f\u4ea4\u901a\u7701\u5317\u6d77\u9053\u958b\u767a\u5c40\u672d\u5e4c\u958b\u767a\u5efa\u8a2d\u90e8\u3000\u672d\u5e4c\u5317\u8fb2\u696d\u4e8b\u52d9\u6240","boring_xml_url":47,"boring_view_url":1,"soilmap_view_url":null,"soiltest_xml_url":47,"soiltest_view_url":47},{"id":280596,"code":"NGIC201900344-0002","latitude":"43.31765","longitude":"141.66778611111","source_code":"","project_name":"","survey_name":"\u7be0\u6d25\u5730\u533a\u59161\u5730\u533a\u7dca\u6025\u8cc7\u6750\u7f6e\u5834\u5730\u8cea\u8abf\u67fb\u696d\u52d9","client_name":"\u56fd\u571f\u4ea4\u901a\u7701\u5317\u6d77\u9053\u958b\u767a\u5c40\u672d\u5e4c\u958b\u767a\u5efa\u8a2d\u90e8\u3000\u672d\u5e4c\u5317\u8fb2\u696d\u4e8b\u52d9\u6240","boring_xml_url":47,"boring_view_url":1,"soilmap_view_url":null,"soiltest_xml_url":47,"soiltest_view_url":47},{"id":280595,"code":"NGIC201900344-0001","latitude":"43.317555555556","longitude":"141.6671","source_code":"","project_name":"","survey_name":"\u7be0\u6d25\u5730\u533a\u59161\u5730\u533a\u7dca\u6025\u8cc7\u6750\u7f6e\u5834\u5730\u8cea\u8abf\u67fb\u696d\u52d9","client_name":"\u56fd\u571f\u4ea4\u901a\u7701\u5317\u6d77\u9053\u958b\u767a\u5c40\u672d\u5e4c\u958b\u767a\u5efa\u8a2d\u90e8\u3000\u672d\u5e4c\u5317\u8fb2\u696d\u4e8b\u52d9\u6240","boring_xml_url":47,"boring_view_url":1,"soilmap_view_url":null,"soiltest_xml_url":47,"soiltest_view_url":47},{"id":280590,"code":"NGIC201900390-0012","latitude":"37.009444805556","longitude":"139.66935008333","source_code":"","project_name":"\u5165\u5c71\u6ca2\u5730\u533a","survey_name":"H30\u65e5\u5149\u7802\u9632\u7ba1\u5185\u7802\u9632\u65bd\u8a2d\u5730\u8cea\u8abf\u67fb\u696d\u52d9\uff08\u305d\u306e1\uff09","client_name":"\u56fd\u571f\u4ea4\u901a\u7701\u95a2\u6771\u5730\u65b9\u6574\u5099\u5c40\u65e5\u5149\u7802\u9632\u4e8b\u52d9\u6240","boring_xml_url":47,"boring_view_url":1,"soilmap_view_url":null,"soiltest_xml_url":0,"soiltest_view_url":0},{"id":280589,"code":"NGIC201900390-0011","latitude":"37.009677222222","longitude":"139.66887733333","source_code":"","project_name":"\u5165\u5c71\u6ca2\u5730\u533a","survey_name":"H30\u65e5\u5149\u7802\u9632\u7ba1\u5185\u7802\u9632\u65bd\u8a2d\u5730\u8cea\u8abf\u67fb\u696d\u52d9\uff08\u305d\u306e1\uff09","client_name":"\u56fd\u571f\u4ea4\u901a\u7701\u95a2\u6771\u5730\u65b9\u6574\u5099\u5c40\u65e5\u5149\u7802\u9632\u4e8b\u52d9\u6240","boring_xml_url":47,"boring_view_url":1,"soilmap_view_url":null,"soiltest_xml_url":0,"soiltest_view_url":0},{"id":280588,"code":"NGIC201900390-0010","latitude":"37.009679111111","longitude":"139.66934863889","source_code":"","project_name":"\u5165\u5c71\u6ca2\u5730\u533a","survey_name":"H30\u65e5\u5149\u7802\u9632\u7ba1\u5185\u7802\u9632\u65bd\u8a2d\u5730\u8cea\u8abf\u67fb\u696d\u52d9\uff08\u305d\u306e1\uff09","client_name":"\u56fd\u571f\u4ea4\u901a\u7701\u95a2\u6771\u5730\u65b9\u6574\u5099\u5c40\u65e5\u5149\u7802\u9632\u4e8b\u52d9\u6240","boring_xml_url":47,"boring_view_url":1,"soilmap_view_url":null,"soiltest_xml_url":0,"soiltest_view_url":0},{"id":280587,"code":"NGIC201900390-0009","latitude":"37.009680166667","longitude":"139.66961647222","source_code":"","project_name":"\u5165\u5c71\u6ca2\u5730\u533a","survey_name":"H30\u65e5\u5149\u7802\u9632\u7ba1\u5185\u7802\u9632\u65bd\u8a2d\u5730\u8cea\u8abf\u67fb\u696d\u52d9\uff08\u305d\u306e1\uff09","client_name":"\u56fd\u571f\u4ea4\u901a\u7701\u95a2\u6771\u5730\u65b9\u6574\u5099\u5c40\u65e5\u5149\u7802\u9632\u4e8b\u52d9\u6240","boring_xml_url":47,"boring_view_url":1,"soilmap_view_url":null,"soiltest_xml_url":0,"soiltest_view_url":0},{"id":280586,"code":"NGIC201900390-0008","latitude":"37.007295138889","longitude":"139.67182083333","source_code":"","project_name":"\u5165\u5c71\u6ca2\u5730\u533a","survey_name":"H30\u65e5\u5149\u7802\u9632\u7ba1\u5185\u7802\u9632\u65bd\u8a2d\u5730\u8cea\u8abf\u67fb\u696d\u52d9\uff08\u305d\u306e1\uff09","client_name":"\u56fd\u571f\u4ea4\u901a\u7701\u95a2\u6771\u5730\u65b9\u6574\u5099\u5c40\u65e5\u5149\u7802\u9632\u4e8b\u52d9\u6240","boring_xml_url":47,"boring_view_url":1,"soilmap_view_url":null,"soiltest_xml_url":0,"soiltest_view_url":0},{"id":280585,"code":"NGIC201900390-0007","latitude":"37.007161833333","longitude":"139.67146561111","source_code":"","project_name":"\u5165\u5c71\u6ca2\u5730\u533a","survey_name":"H30\u65e5\u5149\u7802\u9632\u7ba1\u5185\u7802\u9632\u65bd\u8a2d\u5730\u8cea\u8abf\u67fb\u696d\u52d9\uff08\u305d\u306e1\uff09","client_name":"\u56fd\u571f\u4ea4\u901a\u7701\u95a2\u6771\u5730\u65b9\u6574\u5099\u5c40\u65e5\u5149\u7802\u9632\u4e8b\u52d9\u6240","boring_xml_url":47,"boring_view_url":1,"soilmap_view_url":null,"soiltest_xml_url":0,"soiltest_view_url":0},{"id":280584,"code":"NGIC201900390-0006","latitude":"37.007362777778","longitude":"139.67154113889","source_code":"","project_name":"\u5165\u5c71\u6ca2\u5730\u533a","survey_name":"H30\u65e5\u5149\u7802\u9632\u7ba1\u5185\u7802\u9632\u65bd\u8a2d\u5730\u8cea\u8abf\u67fb\u696d\u52d9\uff08\u305d\u306e1\uff09","client_name":"\u56fd\u571f\u4ea4\u901a\u7701\u95a2\u6771\u5730\u65b9\u6574\u5099\u5c40\u65e5\u5149\u7802\u9632\u4e8b\u52d9\u6240","boring_xml_url":47,"boring_view_url":1,"soilmap_view_url":null,"soiltest_xml_url":0,"soiltest_view_url":0},{"id":280583,"code":"NGIC201900390-0005","latitude":"37.007587111111","longitude":"139.67162544444","source_code":"","project_name":"\u5165\u5c71\u6ca2\u5730\u533a","survey_name":"H30\u65e5\u5149\u7802\u9632\u7ba1\u5185\u7802\u9632\u65bd\u8a2d\u5730\u8cea\u8abf\u67fb\u696d\u52d9\uff08\u305d\u306e1\uff09","client_name":"\u56fd\u571f\u4ea4\u901a\u7701\u95a2\u6771\u5730\u65b9\u6574\u5099\u5c40\u65e5\u5149\u7802\u9632\u4e8b\u52d9\u6240","boring_xml_url":47,"boring_view_url":1,"soilmap_view_url":null,"soiltest_xml_url":0,"soiltest_view_url":0},{"id":280582,"code":"NGIC201900390-0004","latitude":"36.736116472222","longitude":"139.52930936111","source_code":"","project_name":"\u6c34\u7121\u6ca2\u5730\u533a","survey_name":"H30\u65e5\u5149\u7802\u9632\u7ba1\u5185\u7802\u9632\u65bd\u8a2d\u5730\u8cea\u8abf\u67fb\u696d\u52d9\uff08\u305d\u306e1\uff09","client_name":"\u56fd\u571f\u4ea4\u901a\u7701\u95a2\u6771\u5730\u65b9\u6574\u5099\u5c40\u65e5\u5149\u7802\u9632\u4e8b\u52d9\u6240","boring_xml_url":47,"boring_view_url":1,"soilmap_view_url":null,"soiltest_xml_url":0,"soiltest_view_url":0},{"id":280581,"code":"NGIC201900390-0003","latitude":"36.736299833333","longitude":"139.52906108333","source_code":"","project_name":"\u6c34\u7121\u6ca2\u5730\u533a","survey_name":"H30\u65e5\u5149\u7802\u9632\u7ba1\u5185\u7802\u9632\u65bd\u8a2d\u5730\u8cea\u8abf\u67fb\u696d\u52d9\uff08\u305d\u306e1\uff09","client_name":"\u56fd\u571f\u4ea4\u901a\u7701\u95a2\u6771\u5730\u65b9\u6574\u5099\u5c40\u65e5\u5149\u7802\u9632\u4e8b\u52d9\u6240","boring_xml_url":47,"boring_view_url":1,"soilmap_view_url":null,"soiltest_xml_url":0,"soiltest_view_url":0},{"id":280580,"code":"NGIC201900390-0002","latitude":"36.73628225","longitude":"139.52888375","source_code":"","project_name":"\u6c34\u7121\u6ca2\u5730\u533a","survey_name":"H30\u65e5\u5149\u7802\u9632\u7ba1\u5185\u7802\u9632\u65bd\u8a2d\u5730\u8cea\u8abf\u67fb\u696d\u52d9\uff08\u305d\u306e1\uff09","client_name":"\u56fd\u571f\u4ea4\u901a\u7701\u95a2\u6771\u5730\u65b9\u6574\u5099\u5c40\u65e5\u5149\u7802\u9632\u4e8b\u52d9\u6240","boring_xml_url":47,"boring_view_url":1,"soilmap_view_url":null,"soiltest_xml_url":0,"soiltest_view_url":0},{"id":280579,"code":"NGIC201900390-0001","latitude":"36.736268638889","longitude":"139.52866044444","source_code":"","project_name":"\u6c34\u7121\u6ca2\u5730\u533a","survey_name":"H30\u65e5\u5149\u7802\u9632\u7ba1\u5185\u7802\u9632\u65bd\u8a2d\u5730\u8cea\u8abf\u67fb\u696d\u52d9\uff08\u305d\u306e1\uff09","client_name":"\u56fd\u571f\u4ea4\u901a\u7701\u95a2\u6771\u5730\u65b9\u6574\u5099\u5c40\u65e5\u5149\u7802\u9632\u4e8b\u52d9\u6240","boring_xml_url":47,"boring_view_url":1,"soilmap_view_url":null,"soiltest_xml_url":0,"soiltest_view_url":0},{"id":280576,"code":"NGIC201900386-0006","latitude":"43.406007111111","longitude":"143.70570166667","source_code":"","project_name":"\u8db3\u5bc4\u9053\u8def\u4e8b\u52d9\u6240\u7ba1\u5185","survey_name":"\u8db3\u5bc4\u9053\u8def\u4e8b\u52d9\u6240\u7ba1\u5185\u5730\u8cea\u8abf\u67fb\u696d\u52d9","client_name":"\u56fd\u571f\u4ea4\u901a\u7701\u5317\u6d77\u9053\u958b\u767a\u5c40\u5e2f\u5e83\u958b\u767a\u5efa\u8a2d\u90e8\u8db3\u5bc4\u9053\u8def\u4e8b\u52d9\u6240","boring_xml_url":47,"boring_view_url":1,"soilmap_view_url":null,"soiltest_xml_url":0,"soiltest_view_url":0},{"id":280575,"code":"NGIC201900386-0005","latitude":"43.405996","longitude":"143.70575508333","source_code":"","project_name":"\u8db3\u5bc4\u9053\u8def\u4e8b\u52d9\u6240\u7ba1\u5185","survey_name":"\u8db3\u5bc4\u9053\u8def\u4e8b\u52d9\u6240\u7ba1\u5185\u5730\u8cea\u8abf\u67fb\u696d\u52d9","client_name":"\u56fd\u571f\u4ea4\u901a\u7701\u5317\u6d77\u9053\u958b\u767a\u5c40\u5e2f\u5e83\u958b\u767a\u5efa\u8a2d\u90e8\u8db3\u5bc4\u9053\u8def\u4e8b\u52d9\u6240","boring_xml_url":47,"boring_view_url":1,"soilmap_view_url":null,"soiltest_xml_url":0,"soiltest_view_url":0},{"id":280574,"code":"NGIC201900386-0004","latitude":"43.4063365","longitude":"143.70573722222","source_code":"","project_name":"\u8db3\u5bc4\u9053\u8def\u4e8b\u52d9\u6240\u7ba1\u5185","survey_name":"\u8db3\u5bc4\u9053\u8def\u4e8b\u52d9\u6240\u7ba1\u5185\u5730\u8cea\u8abf\u67fb\u696d\u52d9","client_name":"\u56fd\u571f\u4ea4\u901a\u7701\u5317\u6d77\u9053\u958b\u767a\u5c40\u5e2f\u5e83\u958b\u767a\u5efa\u8a2d\u90e8\u8db3\u5bc4\u9053\u8def\u4e8b\u52d9\u6240","boring_xml_url":47,"boring_view_url":1,"soilmap_view_url":null,"soiltest_xml_url":0,"soiltest_view_url":0},{"id":280573,"code":"NGIC201900386-0003","latitude":"43.406314277778","longitude":"143.70586955556","source_code":"","project_name":"\u8db3\u5bc4\u9053\u8def\u4e8b\u52d9\u6240\u7ba1\u5185","survey_name":"\u8db3\u5bc4\u9053\u8def\u4e8b\u52d9\u6240\u7ba1\u5185\u5730\u8cea\u8abf\u67fb\u696d\u52d9","client_name":"\u56fd\u571f\u4ea4\u901a\u7701\u5317\u6d77\u9053\u958b\u767a\u5c40\u5e2f\u5e83\u958b\u767a\u5efa\u8a2d\u90e8\u8db3\u5bc4\u9053\u8def\u4e8b\u52d9\u6240","boring_xml_url":47,"boring_view_url":1,"soilmap_view_url":null,"soiltest_xml_url":0,"soiltest_view_url":0},{"id":280572,"code":"NGIC201900386-0002","latitude":"43.504810972222","longitude":"143.70735530556","source_code":"","project_name":"\u8db3\u5bc4\u9053\u8def\u4e8b\u52d9\u6240\u7ba1\u5185","survey_name":"\u8db3\u5bc4\u9053\u8def\u4e8b\u52d9\u6240\u7ba1\u5185\u5730\u8cea\u8abf\u67fb\u696d\u52d9","client_name":"\u56fd\u571f\u4ea4\u901a\u7701\u5317\u6d77\u9053\u958b\u767a\u5c40\u5e2f\u5e83\u958b\u767a\u5efa\u8a2d\u90e8\u8db3\u5bc4\u9053\u8def\u4e8b\u52d9\u6240","boring_xml_url":47,"boring_view_url":1,"soilmap_view_url":null,"soiltest_xml_url":0,"soiltest_view_url":0},{"id":280571,"code":"NGIC201900386-0001","latitude":"43.504792472222","longitude":"143.70786469444","source_code":"","project_name":"\u8db3\u5bc4\u9053\u8def\u4e8b\u52d9\u6240\u7ba1\u5185","survey_name":"\u8db3\u5bc4\u9053\u8def\u4e8b\u52d9\u6240\u7ba1\u5185\u5730\u8cea\u8abf\u67fb\u696d\u52d9","client_name":"\u56fd\u571f\u4ea4\u901a\u7701\u5317\u6d77\u9053\u958b\u767a\u5c40\u5e2f\u5e83\u958b\u767a\u5efa\u8a2d\u90e8\u8db3\u5bc4\u9053\u8def\u4e8b\u52d9\u6240","boring_xml_url":47,"boring_view_url":1,"soilmap_view_url":null,"soiltest_xml_url":0,"soiltest_view_url":0},{"id":280570,"code":"NGIC201900364-0003","latitude":"33.734503722222","longitude":"133.33079305556","source_code":"","project_name":"\u5e73\u621030\u5e74\u5ea6\u6238\u4e2d\u8c37\u7802\u9632\u5830\u5824\u5916\u6e2c\u91cf\u8a2d\u8a08\u696d\u52d9","survey_name":"\u5e73\u621030\u5e74\u5ea6\u6238\u4e2d\u8c37\u7802\u9632\u5830\u5824\u5916\u6e2c\u91cf\u8a2d\u8a08\u696d\u52d9","client_name":"\u56fd\u571f\u4ea4\u901a\u7701\u56db\u56fd\u5730\u65b9\u6574\u5099\u5c40\u56db\u56fd\u5c71\u5730\u7802\u9632\u4e8b\u52d9\u6240","boring_xml_url":47,"boring_view_url":1,"soilmap_view_url":null,"soiltest_xml_url":0,"soiltest_view_url":0},{"id":280569,"code":"NGIC201900364-0002","latitude":"33.73474925","longitude":"133.33093269444","source_code":"","project_name":"\u5e73\u621030\u5e74\u5ea6\u6238\u4e2d\u8c37\u7802\u9632\u5830\u5824\u5916\u6e2c\u91cf\u8a2d\u8a08\u696d\u52d9","survey_name":"\u5e73\u621030\u5e74\u5ea6\u6238\u4e2d\u8c37\u7802\u9632\u5830\u5824\u5916\u6e2c\u91cf\u8a2d\u8a08\u696d\u52d9","client_name":"\u56fd\u571f\u4ea4\u901a\u7701\u56db\u56fd\u5730\u65b9\u6574\u5099\u5c40\u56db\u56fd\u5c71\u5730\u7802\u9632\u4e8b\u52d9\u6240","boring_xml_url":47,"boring_view_url":1,"soilmap_view_url":null,"soiltest_xml_url":0,"soiltest_view_url":0},{"id":280568,"code":"NGIC201900364-0001","latitude":"33.734629944444","longitude":"133.33086483333","source_code":"","project_name":"\u5e73\u621030\u5e74\u5ea6\u6238\u4e2d\u8c37\u7802\u9632\u5830\u5824\u5916\u6e2c\u91cf\u8a2d\u8a08\u696d\u52d9","survey_name":"\u5e73\u621030\u5e74\u5ea6\u6238\u4e2d\u8c37\u7802\u9632\u5830\u5824\u5916\u6e2c\u91cf\u8a2d\u8a08\u696d\u52d9","client_name":"\u56fd\u571f\u4ea4\u901a\u7701\u56db\u56fd\u5730\u65b9\u6574\u5099\u5c40\u56db\u56fd\u5c71\u5730\u7802\u9632\u4e8b\u52d9\u6240","boring_xml_url":47,"boring_view_url":1,"soilmap_view_url":null,"soiltest_xml_url":0,"soiltest_view_url":0},{"id":280567,"code":"NGIC201900362-0005","latitude":"34.984525","longitude":"136.69329722222","source_code":"","project_name":"","survey_name":"\u5e73\u621031\u5e74\u5ea6\u56db\u65e5\u5e02\u6e2f\u971e\u30f6\u6d66\u5730\u533a\u571f\u8cea\u8abf\u67fb","client_name":"\u56fd\u571f\u4ea4\u901a\u7701\u4e2d\u90e8\u5730\u65b9\u6574\u5099\u5c40\u56db\u65e5\u5e02\u6e2f\u6e7e\u4e8b\u52d9\u6240","boring_xml_url":47,"boring_view_url":1,"soilmap_view_url":71,"soiltest_xml_url":47,"soiltest_view_url":47},{"id":280566,"code":"NGIC201900362-0004","latitude":"34.983911111111","longitude":"136.69123333333","source_code":"","project_name":"","survey_name":"\u5e73\u621031\u5e74\u5ea6\u56db\u65e5\u5e02\u6e2f\u971e\u30f6\u6d66\u5730\u533a\u571f\u8cea\u8abf\u67fb","client_name":"\u56fd\u571f\u4ea4\u901a\u7701\u4e2d\u90e8\u5730\u65b9\u6574\u5099\u5c40\u56db\u65e5\u5e02\u6e2f\u6e7e\u4e8b\u52d9\u6240","boring_xml_url":47,"boring_view_url":1,"soilmap_view_url":71,"soiltest_xml_url":47,"soiltest_view_url":47},{"id":280565,"code":"NGIC201900362-0003","latitude":"34.983344444444","longitude":"136.68927222222","source_code":"","project_name":"","survey_name":"\u5e73\u621031\u5e74\u5ea6\u56db\u65e5\u5e02\u6e2f\u971e\u30f6\u6d66\u5730\u533a\u571f\u8cea\u8abf\u67fb","client_name":"\u56fd\u571f\u4ea4\u901a\u7701\u4e2d\u90e8\u5730\u65b9\u6574\u5099\u5c40\u56db\u65e5\u5e02\u6e2f\u6e7e\u4e8b\u52d9\u6240","boring_xml_url":47,"boring_view_url":1,"soilmap_view_url":71,"soiltest_xml_url":47,"soiltest_view_url":47},{"id":280564,"code":"NGIC201900362-0002","latitude":"34.995472222222","longitude":"136.6722","source_code":"","project_name":"","survey_name":"\u5e73\u621031\u5e74\u5ea6\u56db\u65e5\u5e02\u6e2f\u971e\u30f6\u6d66\u5730\u533a\u571f\u8cea\u8abf\u67fb","client_name":"\u56fd\u571f\u4ea4\u901a\u7701\u4e2d\u90e8\u5730\u65b9\u6574\u5099\u5c40\u56db\u65e5\u5e02\u6e2f\u6e7e\u4e8b\u52d9\u6240","boring_xml_url":47,"boring_view_url":1,"soilmap_view_url":71,"soiltest_xml_url":47,"soiltest_view_url":47}]}}