{"header":{"xyz":{"source":[],"mosaic":false},"page":2354,"raw":{"soiltest_result":"0","bbox":"57.598333,109.544722,1.933333,163.806111","page":"2354"},"conditions":{"soiltest_result":0,"north":57.598333,"west":109.544722,"south":1.933333,"east":163.806111},"success":true,"message":""},"data":{"meta":{"total":212844,"page":2354,"pages":7095,"count":30},"values":[{"id":280305,"code":"NGIC201900272-0004","latitude":"36.251125","longitude":"140.35804722222","source_code":"","project_name":"","survey_name":"H30\u7b2c\u4e00\u5c0e\u6c34\u8def\u30dc\u30fc\u30ea\u30f3\u30b0\u8abf\u67fb\u696d\u52d9(\u305d\u306e2)","client_name":"\u56fd\u571f\u4ea4\u901a\u7701\u95a2\u6771\u5730\u65b9\u6574\u5099\u5c40\u971e\u30f6\u6d66\u5c0e\u6c34\u5de5\u4e8b\u4e8b\u52d9\u6240","boring_xml_url":47,"boring_view_url":1,"soilmap_view_url":null,"soiltest_xml_url":0,"soiltest_view_url":0},{"id":280304,"code":"NGIC201900272-0003","latitude":"36.274622222222","longitude":"140.37016111111","source_code":"","project_name":"","survey_name":"H30\u7b2c\u4e00\u5c0e\u6c34\u8def\u30dc\u30fc\u30ea\u30f3\u30b0\u8abf\u67fb\u696d\u52d9(\u305d\u306e2)","client_name":"\u56fd\u571f\u4ea4\u901a\u7701\u95a2\u6771\u5730\u65b9\u6574\u5099\u5c40\u971e\u30f6\u6d66\u5c0e\u6c34\u5de5\u4e8b\u4e8b\u52d9\u6240","boring_xml_url":47,"boring_view_url":1,"soilmap_view_url":null,"soiltest_xml_url":0,"soiltest_view_url":0},{"id":280303,"code":"NGIC201900272-0002","latitude":"36.325216222222","longitude":"140.39740955556","source_code":"","project_name":"","survey_name":"H30\u7b2c\u4e00\u5c0e\u6c34\u8def\u30dc\u30fc\u30ea\u30f3\u30b0\u8abf\u67fb\u696d\u52d9(\u305d\u306e2)","client_name":"\u56fd\u571f\u4ea4\u901a\u7701\u95a2\u6771\u5730\u65b9\u6574\u5099\u5c40\u971e\u30f6\u6d66\u5c0e\u6c34\u5de5\u4e8b\u4e8b\u52d9\u6240","boring_xml_url":47,"boring_view_url":1,"soilmap_view_url":null,"soiltest_xml_url":0,"soiltest_view_url":0},{"id":280302,"code":"NGIC201900272-0001","latitude":"36.356376666667","longitude":"140.41394113889","source_code":"","project_name":"","survey_name":"H30\u7b2c\u4e00\u5c0e\u6c34\u8def\u30dc\u30fc\u30ea\u30f3\u30b0\u8abf\u67fb\u696d\u52d9(\u305d\u306e2)","client_name":"\u56fd\u571f\u4ea4\u901a\u7701\u95a2\u6771\u5730\u65b9\u6574\u5099\u5c40\u971e\u30f6\u6d66\u5c0e\u6c34\u5de5\u4e8b\u4e8b\u52d9\u6240","boring_xml_url":47,"boring_view_url":1,"soilmap_view_url":null,"soiltest_xml_url":0,"soiltest_view_url":0},{"id":280298,"code":"NGIC201900234-0009","latitude":"35.648555555556","longitude":"139.35275","source_code":"","project_name":"\n      ","survey_name":"30G\u65e5\u91ce\u30d0\u30a4\u30d1\u30b9(\u5ef6\u4f38)II\u671f\u5730\u8cea\u8abf\u67fb\u4ed6\u696d\u52d9","client_name":"\u56fd\u571f\u4ea4\u901a\u7701\u95a2\u6771\u5730\u65b9\u6574\u5099\u5c40\u76f8\u6b66\u56fd\u9053\u4e8b\u52d9\u6240","boring_xml_url":47,"boring_view_url":1,"soilmap_view_url":null,"soiltest_xml_url":47,"soiltest_view_url":47},{"id":280297,"code":"NGIC201900234-0008","latitude":"35.648472222222","longitude":"139.35411111111","source_code":"","project_name":"\n      ","survey_name":"30G\u65e5\u91ce\u30d0\u30a4\u30d1\u30b9(\u5ef6\u4f38)II\u671f\u5730\u8cea\u8abf\u67fb\u4ed6\u696d\u52d9","client_name":"\u56fd\u571f\u4ea4\u901a\u7701\u95a2\u6771\u5730\u65b9\u6574\u5099\u5c40\u76f8\u6b66\u56fd\u9053\u4e8b\u52d9\u6240","boring_xml_url":47,"boring_view_url":1,"soilmap_view_url":null,"soiltest_xml_url":47,"soiltest_view_url":47},{"id":280296,"code":"NGIC201900234-0007","latitude":"35.648388888889","longitude":"139.35561111111","source_code":"","project_name":"\n      ","survey_name":"30G\u65e5\u91ce\u30d0\u30a4\u30d1\u30b9(\u5ef6\u4f38)II\u671f\u5730\u8cea\u8abf\u67fb\u4ed6\u696d\u52d9","client_name":"\u56fd\u571f\u4ea4\u901a\u7701\u95a2\u6771\u5730\u65b9\u6574\u5099\u5c40\u76f8\u6b66\u56fd\u9053\u4e8b\u52d9\u6240","boring_xml_url":47,"boring_view_url":1,"soilmap_view_url":null,"soiltest_xml_url":47,"soiltest_view_url":47},{"id":280295,"code":"NGIC201900234-0006","latitude":"35.648305555556","longitude":"139.35711111111","source_code":"","project_name":"\n      ","survey_name":"30G\u65e5\u91ce\u30d0\u30a4\u30d1\u30b9(\u5ef6\u4f38)II\u671f\u5730\u8cea\u8abf\u67fb\u4ed6\u696d\u52d9","client_name":"\u56fd\u571f\u4ea4\u901a\u7701\u95a2\u6771\u5730\u65b9\u6574\u5099\u5c40\u76f8\u6b66\u56fd\u9053\u4e8b\u52d9\u6240","boring_xml_url":47,"boring_view_url":1,"soilmap_view_url":null,"soiltest_xml_url":47,"soiltest_view_url":47},{"id":280294,"code":"NGIC201900234-0005","latitude":"35.648222222222","longitude":"139.35822222222","source_code":"","project_name":"\n      ","survey_name":"30G\u65e5\u91ce\u30d0\u30a4\u30d1\u30b9(\u5ef6\u4f38)II\u671f\u5730\u8cea\u8abf\u67fb\u4ed6\u696d\u52d9","client_name":"\u56fd\u571f\u4ea4\u901a\u7701\u95a2\u6771\u5730\u65b9\u6574\u5099\u5c40\u76f8\u6b66\u56fd\u9053\u4e8b\u52d9\u6240","boring_xml_url":47,"boring_view_url":1,"soilmap_view_url":null,"soiltest_xml_url":47,"soiltest_view_url":47},{"id":280293,"code":"NGIC201900234-0004","latitude":"35.648722222222","longitude":"139.36202777778","source_code":"","project_name":"\n      ","survey_name":"30G\u65e5\u91ce\u30d0\u30a4\u30d1\u30b9(\u5ef6\u4f38)II\u671f\u5730\u8cea\u8abf\u67fb\u4ed6\u696d\u52d9","client_name":"\u56fd\u571f\u4ea4\u901a\u7701\u95a2\u6771\u5730\u65b9\u6574\u5099\u5c40\u76f8\u6b66\u56fd\u9053\u4e8b\u52d9\u6240","boring_xml_url":47,"boring_view_url":1,"soilmap_view_url":null,"soiltest_xml_url":47,"soiltest_view_url":47},{"id":280292,"code":"NGIC201900234-0003","latitude":"35.649027777778","longitude":"139.36227777778","source_code":"","project_name":"\n      ","survey_name":"30G\u65e5\u91ce\u30d0\u30a4\u30d1\u30b9(\u5ef6\u4f38)II\u671f\u5730\u8cea\u8abf\u67fb\u4ed6\u696d\u52d9","client_name":"\u56fd\u571f\u4ea4\u901a\u7701\u95a2\u6771\u5730\u65b9\u6574\u5099\u5c40\u76f8\u6b66\u56fd\u9053\u4e8b\u52d9\u6240","boring_xml_url":47,"boring_view_url":1,"soilmap_view_url":null,"soiltest_xml_url":47,"soiltest_view_url":47},{"id":280291,"code":"NGIC201900234-0002","latitude":"35.649111111111","longitude":"139.36277777778","source_code":"","project_name":"\n      ","survey_name":"30G\u65e5\u91ce\u30d0\u30a4\u30d1\u30b9(\u5ef6\u4f38)II\u671f\u5730\u8cea\u8abf\u67fb\u4ed6\u696d\u52d9","client_name":"\u56fd\u571f\u4ea4\u901a\u7701\u95a2\u6771\u5730\u65b9\u6574\u5099\u5c40\u76f8\u6b66\u56fd\u9053\u4e8b\u52d9\u6240","boring_xml_url":47,"boring_view_url":1,"soilmap_view_url":null,"soiltest_xml_url":47,"soiltest_view_url":47},{"id":280290,"code":"NGIC201900234-0001","latitude":"35.649416666667","longitude":"139.36302777778","source_code":"","project_name":"\n      ","survey_name":"30G\u65e5\u91ce\u30d0\u30a4\u30d1\u30b9(\u5ef6\u4f38)II\u671f\u5730\u8cea\u8abf\u67fb\u4ed6\u696d\u52d9","client_name":"\u56fd\u571f\u4ea4\u901a\u7701\u95a2\u6771\u5730\u65b9\u6574\u5099\u5c40\u76f8\u6b66\u56fd\u9053\u4e8b\u52d9\u6240","boring_xml_url":47,"boring_view_url":1,"soilmap_view_url":null,"soiltest_xml_url":47,"soiltest_view_url":47},{"id":280289,"code":"NGIC201900247-0001","latitude":"36.463219444444","longitude":"137.02160555556","source_code":"","project_name":"","survey_name":"\u5e73\u621031\u5e74\u5ea6\u5229\u8cc0\u30c0\u30e0\u62bc\u8c37\u5730\u533a\u8caf\u6c34\u6c60\u6cd5\u9762\u5730\u8cea\u8abf\u67fb(\u305d\u306e3)\u696d\u52d9","client_name":"\u56fd\u571f\u4ea4\u901a\u7701\u5317\u9678\u5730\u65b9\u6574\u5099\u5c40\u5229\u8cc0\u30c0\u30e0\u5de5\u4e8b\u4e8b\u52d9\u6240","boring_xml_url":47,"boring_view_url":1,"soilmap_view_url":null,"soiltest_xml_url":0,"soiltest_view_url":0},{"id":280288,"code":"NGIC201900245-0001","latitude":"36.4499","longitude":"137.02145","source_code":"","project_name":"","survey_name":"\u5e73\u621031\u5e74\u5ea6\u5229\u8cc0\u30c0\u30e0\u5ca9\u6df5\u5730\u533a\u8caf\u6c34\u6c60\u6cd5\u9762\u5730\u8cea\u8abf\u67fb(\u305d\u306e2)\u696d\u52d9","client_name":"\u56fd\u571f\u4ea4\u901a\u7701\u5317\u9678\u5730\u65b9\u6574\u5099\u5c40\u5229\u8cc0\u30c0\u30e0\u5de5\u4e8b\u4e8b\u52d9\u6240","boring_xml_url":47,"boring_view_url":1,"soilmap_view_url":null,"soiltest_xml_url":0,"soiltest_view_url":0},{"id":280284,"code":"NGIC201900292-0004","latitude":"34.768361111111","longitude":"136.13152777778","source_code":"","project_name":"","survey_name":"\u4ee4\u548c\u5143\u5e74\u5ea6\u6d25\u5730\u5bb6\u88c1\u4f0a\u8cc0\u652f\u90e8\u6577\u5730\u8abf\u67fb\u696d\u52d9","client_name":"\u56fd\u571f\u4ea4\u901a\u7701\u4e2d\u90e8\u5730\u65b9\u6574\u5099\u5c40\u55b6\u7e55\u90e8 \u4fdd\u5168\u6307\u5c0e\u30fb\u76e3\u7763\u5ba4","boring_xml_url":47,"boring_view_url":1,"soilmap_view_url":null,"soiltest_xml_url":0,"soiltest_view_url":0},{"id":280283,"code":"NGIC201900292-0003","latitude":"34.768333333333","longitude":"136.13113888889","source_code":"","project_name":"","survey_name":"\u4ee4\u548c\u5143\u5e74\u5ea6\u6d25\u5730\u5bb6\u88c1\u4f0a\u8cc0\u652f\u90e8\u6577\u5730\u8abf\u67fb\u696d\u52d9","client_name":"\u56fd\u571f\u4ea4\u901a\u7701\u4e2d\u90e8\u5730\u65b9\u6574\u5099\u5c40\u55b6\u7e55\u90e8 \u4fdd\u5168\u6307\u5c0e\u30fb\u76e3\u7763\u5ba4","boring_xml_url":47,"boring_view_url":1,"soilmap_view_url":null,"soiltest_xml_url":0,"soiltest_view_url":0},{"id":280282,"code":"NGIC201900292-0002","latitude":"34.768722222222","longitude":"136.13113888889","source_code":"","project_name":"","survey_name":"\u4ee4\u548c\u5143\u5e74\u5ea6\u6d25\u5730\u5bb6\u88c1\u4f0a\u8cc0\u652f\u90e8\u6577\u5730\u8abf\u67fb\u696d\u52d9","client_name":"\u56fd\u571f\u4ea4\u901a\u7701\u4e2d\u90e8\u5730\u65b9\u6574\u5099\u5c40\u55b6\u7e55\u90e8 \u4fdd\u5168\u6307\u5c0e\u30fb\u76e3\u7763\u5ba4","boring_xml_url":47,"boring_view_url":1,"soilmap_view_url":null,"soiltest_xml_url":47,"soiltest_view_url":47},{"id":280281,"code":"NGIC201900292-0001","latitude":"34.76875","longitude":"136.1315","source_code":"","project_name":"","survey_name":"\u4ee4\u548c\u5143\u5e74\u5ea6\u6d25\u5730\u5bb6\u88c1\u4f0a\u8cc0\u652f\u90e8\u6577\u5730\u8abf\u67fb\u696d\u52d9","client_name":"\u56fd\u571f\u4ea4\u901a\u7701\u4e2d\u90e8\u5730\u65b9\u6574\u5099\u5c40\u55b6\u7e55\u90e8 \u4fdd\u5168\u6307\u5c0e\u30fb\u76e3\u7763\u5ba4","boring_xml_url":47,"boring_view_url":1,"soilmap_view_url":null,"soiltest_xml_url":0,"soiltest_view_url":0},{"id":280278,"code":"NGIC201900309-0001","latitude":"45.399888888889","longitude":"141.70263888889","source_code":"","project_name":"","survey_name":"\u7a1a\u5185\u5730\u65b9\u5408\u540c\u5e81\u820e19\u6577\u5730\u8abf\u67fb","client_name":"\u56fd\u571f\u4ea4\u901a\u7701\u5317\u6d77\u9053\u958b\u767a\u5c40\u55b6\u7e55\u90e8","boring_xml_url":47,"boring_view_url":1,"soilmap_view_url":null,"soiltest_xml_url":47,"soiltest_view_url":47},{"id":280271,"code":"NGIC201900288-0003","latitude":"38.267473694444","longitude":"141.02495102778","source_code":"","project_name":"","survey_name":"\u4ed9\u53f0\u5869\u91dc\u6e2f\u4ed9\u53f0\u6e2f\u533a\u5411\u6d0b\u5730\u533a\u571f\u8cea\u8abf\u67fb","client_name":"\u56fd\u571f\u4ea4\u901a\u7701\u6771\u5317\u5730\u65b9\u6574\u5099\u5c40\u5869\u91dc\u6e2f\u6e7e\u30fb\u7a7a\u6e2f\u6574\u5099\u4e8b\u52d9\u6240","boring_xml_url":47,"boring_view_url":1,"soilmap_view_url":71,"soiltest_xml_url":47,"soiltest_view_url":47},{"id":280270,"code":"NGIC201900288-0002","latitude":"38.267469222222","longitude":"141.02495041667","source_code":"","project_name":"","survey_name":"\u4ed9\u53f0\u5869\u91dc\u6e2f\u4ed9\u53f0\u6e2f\u533a\u5411\u6d0b\u5730\u533a\u571f\u8cea\u8abf\u67fb","client_name":"\u56fd\u571f\u4ea4\u901a\u7701\u6771\u5317\u5730\u65b9\u6574\u5099\u5c40\u5869\u91dc\u6e2f\u6e7e\u30fb\u7a7a\u6e2f\u6574\u5099\u4e8b\u52d9\u6240","boring_xml_url":47,"boring_view_url":1,"soilmap_view_url":null,"soiltest_xml_url":0,"soiltest_view_url":0},{"id":280269,"code":"NGIC201900288-0001","latitude":"38.267526611111","longitude":"141.02498380556","source_code":"","project_name":"","survey_name":"\u4ed9\u53f0\u5869\u91dc\u6e2f\u4ed9\u53f0\u6e2f\u533a\u5411\u6d0b\u5730\u533a\u571f\u8cea\u8abf\u67fb","client_name":"\u56fd\u571f\u4ea4\u901a\u7701\u6771\u5317\u5730\u65b9\u6574\u5099\u5c40\u5869\u91dc\u6e2f\u6e7e\u30fb\u7a7a\u6e2f\u6574\u5099\u4e8b\u52d9\u6240","boring_xml_url":47,"boring_view_url":1,"soilmap_view_url":null,"soiltest_xml_url":0,"soiltest_view_url":0},{"id":280257,"code":"NGIC201900307-0008","latitude":"42.126991277778","longitude":"142.91145108333","source_code":"","project_name":"","survey_name":"\u69d8\u4f3c\u6f01\u6e2f\u5730\u8cea\u8abf\u67fb\u696d\u52d9","client_name":"\u56fd\u571f\u4ea4\u901a\u7701\u5317\u6d77\u9053\u958b\u767a\u5c40\u5ba4\u9593\u958b\u767a\u5efa\u8a2d\u90e8\u3000\u6d66\u6cb3\u6e2f\u6e7e\u4e8b\u52d9\u6240","boring_xml_url":47,"boring_view_url":1,"soilmap_view_url":71,"soiltest_xml_url":47,"soiltest_view_url":47},{"id":280256,"code":"NGIC201900307-0007","latitude":"42.126961444444","longitude":"142.91195141667","source_code":"","project_name":"","survey_name":"\u69d8\u4f3c\u6f01\u6e2f\u5730\u8cea\u8abf\u67fb\u696d\u52d9","client_name":"\u56fd\u571f\u4ea4\u901a\u7701\u5317\u6d77\u9053\u958b\u767a\u5c40\u5ba4\u9593\u958b\u767a\u5efa\u8a2d\u90e8\u3000\u6d66\u6cb3\u6e2f\u6e7e\u4e8b\u52d9\u6240","boring_xml_url":47,"boring_view_url":1,"soilmap_view_url":null,"soiltest_xml_url":0,"soiltest_view_url":0},{"id":280255,"code":"NGIC201900307-0006","latitude":"42.126523638889","longitude":"142.91161152778","source_code":"","project_name":"","survey_name":"\u69d8\u4f3c\u6f01\u6e2f\u5730\u8cea\u8abf\u67fb\u696d\u52d9","client_name":"\u56fd\u571f\u4ea4\u901a\u7701\u5317\u6d77\u9053\u958b\u767a\u5c40\u5ba4\u9593\u958b\u767a\u5efa\u8a2d\u90e8\u3000\u6d66\u6cb3\u6e2f\u6e7e\u4e8b\u52d9\u6240","boring_xml_url":47,"boring_view_url":1,"soilmap_view_url":null,"soiltest_xml_url":0,"soiltest_view_url":0},{"id":280254,"code":"NGIC201900307-0005","latitude":"42.124753","longitude":"142.91989872222","source_code":"","project_name":"","survey_name":"\u69d8\u4f3c\u6f01\u6e2f\u5730\u8cea\u8abf\u67fb\u696d\u52d9","client_name":"\u56fd\u571f\u4ea4\u901a\u7701\u5317\u6d77\u9053\u958b\u767a\u5c40\u5ba4\u9593\u958b\u767a\u5efa\u8a2d\u90e8\u3000\u6d66\u6cb3\u6e2f\u6e7e\u4e8b\u52d9\u6240","boring_xml_url":47,"boring_view_url":1,"soilmap_view_url":71,"soiltest_xml_url":47,"soiltest_view_url":47},{"id":280253,"code":"NGIC201900307-0004","latitude":"42.124682555556","longitude":"142.91980855556","source_code":"","project_name":"","survey_name":"\u69d8\u4f3c\u6f01\u6e2f\u5730\u8cea\u8abf\u67fb\u696d\u52d9","client_name":"\u56fd\u571f\u4ea4\u901a\u7701\u5317\u6d77\u9053\u958b\u767a\u5c40\u5ba4\u9593\u958b\u767a\u5efa\u8a2d\u90e8\u3000\u6d66\u6cb3\u6e2f\u6e7e\u4e8b\u52d9\u6240","boring_xml_url":47,"boring_view_url":1,"soilmap_view_url":null,"soiltest_xml_url":0,"soiltest_view_url":0},{"id":280252,"code":"NGIC201900307-0003","latitude":"42.124769361111","longitude":"142.919459","source_code":"","project_name":"","survey_name":"\u69d8\u4f3c\u6f01\u6e2f\u5730\u8cea\u8abf\u67fb\u696d\u52d9","client_name":"\u56fd\u571f\u4ea4\u901a\u7701\u5317\u6d77\u9053\u958b\u767a\u5c40\u5ba4\u9593\u958b\u767a\u5efa\u8a2d\u90e8\u3000\u6d66\u6cb3\u6e2f\u6e7e\u4e8b\u52d9\u6240","boring_xml_url":47,"boring_view_url":1,"soilmap_view_url":null,"soiltest_xml_url":0,"soiltest_view_url":0},{"id":280251,"code":"NGIC201900307-0002","latitude":"42.128041916667","longitude":"142.91931230556","source_code":"","project_name":"","survey_name":"\u69d8\u4f3c\u6f01\u6e2f\u5730\u8cea\u8abf\u67fb\u696d\u52d9","client_name":"\u56fd\u571f\u4ea4\u901a\u7701\u5317\u6d77\u9053\u958b\u767a\u5c40\u5ba4\u9593\u958b\u767a\u5efa\u8a2d\u90e8\u3000\u6d66\u6cb3\u6e2f\u6e7e\u4e8b\u52d9\u6240","boring_xml_url":47,"boring_view_url":1,"soilmap_view_url":71,"soiltest_xml_url":47,"soiltest_view_url":47}]}}