{"header":{"xyz":{"source":[],"mosaic":false},"page":2357,"raw":{"soiltest_result":"0","bbox":"57.598333,109.544722,1.933333,163.806111","page":"2357"},"conditions":{"soiltest_result":0,"north":57.598333,"west":109.544722,"south":1.933333,"east":163.806111},"success":true,"message":""},"data":{"meta":{"total":212844,"page":2357,"pages":7095,"count":30},"values":[{"id":280142,"code":"NGIC201900257-0006","latitude":"34.143878166667","longitude":"135.20029133333","source_code":"","project_name":"","survey_name":"\u548c\u6b4c\u5c71\u4e0b\u6d25\u6e2f\u6d77\u5cb8\uff08\u6d77\u5357\u5730\u533a\uff09\u571f\u8cea\u8abf\u67fb","client_name":"\u56fd\u571f\u4ea4\u901a\u7701\u8fd1\u757f\u5730\u65b9\u6574\u5099\u5c40\u548c\u6b4c\u5c71\u6e2f\u6e7e\u4e8b\u52d9\u6240","boring_xml_url":47,"boring_view_url":1,"soilmap_view_url":null,"soiltest_xml_url":0,"soiltest_view_url":0},{"id":280141,"code":"NGIC201900257-0005","latitude":"34.149020333333","longitude":"135.19575119444","source_code":"","project_name":"","survey_name":"\u548c\u6b4c\u5c71\u4e0b\u6d25\u6e2f\u6d77\u5cb8(\u6d77\u5357\u5730\u533a)\u571f\u8cea\u8abf\u67fb","client_name":"\u56fd\u571f\u4ea4\u901a\u7701\u8fd1\u757f\u5730\u65b9\u6574\u5099\u5c40\u548c\u6b4c\u5c71\u6e2f\u6e7e\u4e8b\u52d9\u6240","boring_xml_url":47,"boring_view_url":1,"soilmap_view_url":71,"soiltest_xml_url":47,"soiltest_view_url":47},{"id":280140,"code":"NGIC201900257-0004","latitude":"34.148968916667","longitude":"135.19479997222","source_code":"","project_name":"","survey_name":"\u548c\u6b4c\u5c71\u4e0b\u6d25\u6e2f\u6d77\u5cb8(\u6d77\u5357\u5730\u533a)\u571f\u8cea\u8abf\u67fb","client_name":"\u56fd\u571f\u4ea4\u901a\u7701\u8fd1\u757f\u5730\u65b9\u6574\u5099\u5c40\u548c\u6b4c\u5c71\u6e2f\u6e7e\u4e8b\u52d9\u6240","boring_xml_url":47,"boring_view_url":1,"soilmap_view_url":71,"soiltest_xml_url":47,"soiltest_view_url":47},{"id":280139,"code":"NGIC201900257-0003","latitude":"34.148904694444","longitude":"135.19333294444","source_code":"","project_name":"","survey_name":"\u548c\u6b4c\u5c71\u4e0b\u6d25\u6e2f\u6d77\u5cb8(\u6d77\u5357\u5730\u533a)\u571f\u8cea\u8abf\u67fb","client_name":"\u56fd\u571f\u4ea4\u901a\u7701\u8fd1\u757f\u5730\u65b9\u6574\u5099\u5c40\u548c\u6b4c\u5c71\u6e2f\u6e7e\u4e8b\u52d9\u6240","boring_xml_url":47,"boring_view_url":1,"soilmap_view_url":71,"soiltest_xml_url":47,"soiltest_view_url":47},{"id":280138,"code":"NGIC201900257-0002","latitude":"34.148955722222","longitude":"135.19246511111","source_code":"","project_name":"","survey_name":"\u548c\u6b4c\u5c71\u4e0b\u6d25\u6e2f\u6d77\u5cb8(\u6d77\u5357\u5730\u533a)\u571f\u8cea\u8abf\u67fb","client_name":"\u56fd\u571f\u4ea4\u901a\u7701\u8fd1\u757f\u5730\u65b9\u6574\u5099\u5c40\u548c\u6b4c\u5c71\u6e2f\u6e7e\u4e8b\u52d9\u6240","boring_xml_url":47,"boring_view_url":1,"soilmap_view_url":71,"soiltest_xml_url":47,"soiltest_view_url":47},{"id":280137,"code":"NGIC201900257-0001","latitude":"34.148824194444","longitude":"135.191466","source_code":"","project_name":"","survey_name":"\u548c\u6b4c\u5c71\u4e0b\u6d25\u6e2f\u6d77\u5cb8(\u6d77\u5357\u5730\u533a)\u571f\u8cea\u8abf\u67fb","client_name":"\u56fd\u571f\u4ea4\u901a\u7701\u8fd1\u757f\u5730\u65b9\u6574\u5099\u5c40\u548c\u6b4c\u5c71\u6e2f\u6e7e\u4e8b\u52d9\u6240","boring_xml_url":47,"boring_view_url":1,"soilmap_view_url":71,"soiltest_xml_url":47,"soiltest_view_url":47},{"id":280135,"code":"NGIC201900252-0001","latitude":"31.86525","longitude":"130.19369444444","source_code":"","project_name":"","survey_name":"\u4ee4\u548c\u5143\u5e74\u5ea6\u9e7f\u5150\u5cf6\u6e2f\u6e7e\u30fb\u7a7a\u6e2f\u6574\u5099\u4e8b\u52d9\u6240\u7ba1\u5185\u571f\u8cea\u8abf\u67fb","client_name":"\u56fd\u571f\u4ea4\u901a\u7701\u4e5d\u5dde\u5730\u65b9\u6574\u5099\u5c40\u9e7f\u5150\u5cf6\u6e2f\u6e7e\u30fb\u7a7a\u6e2f\u6574\u5099\u4e8b\u52d9\u6240","boring_xml_url":47,"boring_view_url":1,"soilmap_view_url":71,"soiltest_xml_url":47,"soiltest_view_url":47},{"id":280117,"code":"NGIC201900233-0016","latitude":"31.771230305556","longitude":"131.09063338889","source_code":"","project_name":"\u5730\u57df\u9ad8\u898f\u683c\u9053\u8def\u90fd\u57ce\u5fd7\u5e03\u5fd7\u9053\u8def","survey_name":"\u5e73\u621030\u5e74\u5ea6\u90fd\u57ce\u9053\u8def\uff08\u90fd\u57ce\u301c\u4e59\u623f\uff09\u8edf\u5f31\u5730\u76e4\u89e3\u6790\u691c\u8a0e\u696d\u52d9","client_name":"\u56fd\u571f\u4ea4\u901a\u7701\u4e5d\u5dde\u5730\u65b9\u6574\u5099\u5c40\u5bae\u5d0e\u6cb3\u5ddd\u56fd\u9053\u4e8b\u52d9\u6240","boring_xml_url":47,"boring_view_url":1,"soilmap_view_url":null,"soiltest_xml_url":47,"soiltest_view_url":47},{"id":280116,"code":"NGIC201900233-0015","latitude":"31.771506833333","longitude":"131.09071577778","source_code":"","project_name":"\u5730\u57df\u9ad8\u898f\u683c\u9053\u8def\u90fd\u57ce\u5fd7\u5e03\u5fd7\u9053\u8def","survey_name":"\u5e73\u621030\u5e74\u5ea6\u90fd\u57ce\u9053\u8def\uff08\u90fd\u57ce\u301c\u4e59\u623f\uff09\u8edf\u5f31\u5730\u76e4\u89e3\u6790\u691c\u8a0e\u696d\u52d9","client_name":"\u56fd\u571f\u4ea4\u901a\u7701\u4e5d\u5dde\u5730\u65b9\u6574\u5099\u5c40\u5bae\u5d0e\u6cb3\u5ddd\u56fd\u9053\u4e8b\u52d9\u6240","boring_xml_url":47,"boring_view_url":1,"soilmap_view_url":null,"soiltest_xml_url":47,"soiltest_view_url":47},{"id":280115,"code":"NGIC201900233-0014","latitude":"31.772002166667","longitude":"131.09111063889","source_code":"","project_name":"\u5730\u57df\u9ad8\u898f\u683c\u9053\u8def\u90fd\u57ce\u5fd7\u5e03\u5fd7\u9053\u8def","survey_name":"\u5e73\u621030\u5e74\u5ea6\u90fd\u57ce\u9053\u8def\uff08\u90fd\u57ce\u301c\u4e59\u623f\uff09\u8edf\u5f31\u5730\u76e4\u89e3\u6790\u691c\u8a0e\u696d\u52d9","client_name":"\u56fd\u571f\u4ea4\u901a\u7701\u4e5d\u5dde\u5730\u65b9\u6574\u5099\u5c40\u5bae\u5d0e\u6cb3\u5ddd\u56fd\u9053\u4e8b\u52d9\u6240","boring_xml_url":47,"boring_view_url":1,"soilmap_view_url":null,"soiltest_xml_url":47,"soiltest_view_url":47},{"id":280114,"code":"NGIC201900233-0013","latitude":"31.764160888889","longitude":"131.06294997222","source_code":"","project_name":"\u5730\u57df\u9ad8\u898f\u683c\u9053\u8def\u90fd\u57ce\u5fd7\u5e03\u5fd7\u9053\u8def","survey_name":"\u5e73\u621030\u5e74\u5ea6\u90fd\u57ce\u9053\u8def\uff08\u90fd\u57ce\u301c\u4e59\u623f\uff09\u8edf\u5f31\u5730\u76e4\u89e3\u6790\u691c\u8a0e\u696d\u52d9","client_name":"\u56fd\u571f\u4ea4\u901a\u7701\u4e5d\u5dde\u5730\u65b9\u6574\u5099\u5c40\u5bae\u5d0e\u6cb3\u5ddd\u56fd\u9053\u4e8b\u52d9\u6240","boring_xml_url":47,"boring_view_url":1,"soilmap_view_url":null,"soiltest_xml_url":47,"soiltest_view_url":47},{"id":280113,"code":"NGIC201900233-0012","latitude":"31.767708027778","longitude":"131.08785758333","source_code":"","project_name":"\u5730\u57df\u9ad8\u898f\u683c\u9053\u8def\u90fd\u57ce\u5fd7\u5e03\u5fd7\u9053\u8def","survey_name":"\u5e73\u621030\u5e74\u5ea6\u90fd\u57ce\u9053\u8def\uff08\u90fd\u57ce\u301c\u4e59\u623f\uff09\u8edf\u5f31\u5730\u76e4\u89e3\u6790\u691c\u8a0e\u696d\u52d9","client_name":"\u56fd\u571f\u4ea4\u901a\u7701\u4e5d\u5dde\u5730\u65b9\u6574\u5099\u5c40\u5bae\u5d0e\u6cb3\u5ddd\u56fd\u9053\u4e8b\u52d9\u6240","boring_xml_url":47,"boring_view_url":1,"soilmap_view_url":null,"soiltest_xml_url":47,"soiltest_view_url":47},{"id":280112,"code":"NGIC201900233-0011","latitude":"31.769493555556","longitude":"131.08928855556","source_code":"","project_name":"\u5730\u57df\u9ad8\u898f\u683c\u9053\u8def\u90fd\u57ce\u5fd7\u5e03\u5fd7\u9053\u8def","survey_name":"\u5e73\u621030\u5e74\u5ea6\u90fd\u57ce\u9053\u8def\uff08\u90fd\u57ce\u301c\u4e59\u623f\uff09\u8edf\u5f31\u5730\u76e4\u89e3\u6790\u691c\u8a0e\u696d\u52d9","client_name":"\u56fd\u571f\u4ea4\u901a\u7701\u4e5d\u5dde\u5730\u65b9\u6574\u5099\u5c40\u5bae\u5d0e\u6cb3\u5ddd\u56fd\u9053\u4e8b\u52d9\u6240","boring_xml_url":47,"boring_view_url":1,"soilmap_view_url":null,"soiltest_xml_url":47,"soiltest_view_url":47},{"id":280111,"code":"NGIC201900233-0010","latitude":"31.763963333333","longitude":"131.06104430556","source_code":"","project_name":"\u5730\u57df\u9ad8\u898f\u683c\u9053\u8def\u90fd\u57ce\u5fd7\u5e03\u5fd7\u9053\u8def","survey_name":"\u5e73\u621030\u5e74\u5ea6\u90fd\u57ce\u9053\u8def\uff08\u90fd\u57ce\u301c\u4e59\u623f\uff09\u8edf\u5f31\u5730\u76e4\u89e3\u6790\u691c\u8a0e\u696d\u52d9","client_name":"\u56fd\u571f\u4ea4\u901a\u7701\u4e5d\u5dde\u5730\u65b9\u6574\u5099\u5c40\u5bae\u5d0e\u6cb3\u5ddd\u56fd\u9053\u4e8b\u52d9\u6240","boring_xml_url":47,"boring_view_url":1,"soilmap_view_url":null,"soiltest_xml_url":47,"soiltest_view_url":47},{"id":280110,"code":"NGIC201900233-0009","latitude":"31.763904472222","longitude":"131.06163841667","source_code":"","project_name":"\u5730\u57df\u9ad8\u898f\u683c\u9053\u8def\u90fd\u57ce\u5fd7\u5e03\u5fd7\u9053\u8def","survey_name":"\u5e73\u621030\u5e74\u5ea6\u90fd\u57ce\u9053\u8def\uff08\u90fd\u57ce\u301c\u4e59\u623f\uff09\u8edf\u5f31\u5730\u76e4\u89e3\u6790\u691c\u8a0e\u696d\u52d9","client_name":"\u56fd\u571f\u4ea4\u901a\u7701\u4e5d\u5dde\u5730\u65b9\u6574\u5099\u5c40\u5bae\u5d0e\u6cb3\u5ddd\u56fd\u9053\u4e8b\u52d9\u6240","boring_xml_url":47,"boring_view_url":1,"soilmap_view_url":null,"soiltest_xml_url":47,"soiltest_view_url":47},{"id":280109,"code":"NGIC201900233-0008","latitude":"31.77203325","longitude":"131.09149891667","source_code":"","project_name":"\u5730\u57df\u9ad8\u898f\u683c\u9053\u8def\u90fd\u57ce\u5fd7\u5e03\u5fd7\u9053\u8def","survey_name":"\u5e73\u621030\u5e74\u5ea6\u90fd\u57ce\u9053\u8def\uff08\u90fd\u57ce\u301c\u4e59\u623f\uff09\u8edf\u5f31\u5730\u76e4\u89e3\u6790\u691c\u8a0e\u696d\u52d9","client_name":"\u56fd\u571f\u4ea4\u901a\u7701\u4e5d\u5dde\u5730\u65b9\u6574\u5099\u5c40\u5bae\u5d0e\u6cb3\u5ddd\u56fd\u9053\u4e8b\u52d9\u6240","boring_xml_url":47,"boring_view_url":1,"soilmap_view_url":null,"soiltest_xml_url":47,"soiltest_view_url":47},{"id":280108,"code":"NGIC201900233-0007","latitude":"31.773742583333","longitude":"131.09301269444","source_code":"","project_name":"\u5730\u57df\u9ad8\u898f\u683c\u9053\u8def\u90fd\u57ce\u5fd7\u5e03\u5fd7\u9053\u8def","survey_name":"\u5e73\u621030\u5e74\u5ea6\u90fd\u57ce\u9053\u8def\uff08\u90fd\u57ce\u301c\u4e59\u623f\uff09\u8edf\u5f31\u5730\u76e4\u89e3\u6790\u691c\u8a0e\u696d\u52d9","client_name":"\u56fd\u571f\u4ea4\u901a\u7701\u4e5d\u5dde\u5730\u65b9\u6574\u5099\u5c40\u5bae\u5d0e\u6cb3\u5ddd\u56fd\u9053\u4e8b\u52d9\u6240","boring_xml_url":47,"boring_view_url":1,"soilmap_view_url":null,"soiltest_xml_url":47,"soiltest_view_url":47},{"id":280107,"code":"NGIC201900233-0006","latitude":"31.7750585","longitude":"131.09464980556","source_code":"","project_name":"\u5730\u57df\u9ad8\u898f\u683c\u9053\u8def\u90fd\u57ce\u5fd7\u5e03\u5fd7\u9053\u8def","survey_name":"\u5e73\u621030\u5e74\u5ea6\u90fd\u57ce\u9053\u8def\uff08\u90fd\u57ce\u301c\u4e59\u623f\uff09\u8edf\u5f31\u5730\u76e4\u89e3\u6790\u691c\u8a0e\u696d\u52d9","client_name":"\u56fd\u571f\u4ea4\u901a\u7701\u4e5d\u5dde\u5730\u65b9\u6574\u5099\u5c40\u5bae\u5d0e\u6cb3\u5ddd\u56fd\u9053\u4e8b\u52d9\u6240","boring_xml_url":47,"boring_view_url":1,"soilmap_view_url":null,"soiltest_xml_url":47,"soiltest_view_url":47},{"id":280106,"code":"NGIC201900233-0005","latitude":"31.776798416667","longitude":"131.09762341667","source_code":"","project_name":"\u5730\u57df\u9ad8\u898f\u683c\u9053\u8def\u90fd\u57ce\u5fd7\u5e03\u5fd7\u9053\u8def","survey_name":"\u5e73\u621030\u5e74\u5ea6\u90fd\u57ce\u9053\u8def\uff08\u90fd\u57ce\u301c\u4e59\u623f\uff09\u8edf\u5f31\u5730\u76e4\u89e3\u6790\u691c\u8a0e\u696d\u52d9","client_name":"\u56fd\u571f\u4ea4\u901a\u7701\u4e5d\u5dde\u5730\u65b9\u6574\u5099\u5c40\u5bae\u5d0e\u6cb3\u5ddd\u56fd\u9053\u4e8b\u52d9\u6240","boring_xml_url":47,"boring_view_url":1,"soilmap_view_url":null,"soiltest_xml_url":47,"soiltest_view_url":47},{"id":280105,"code":"NGIC201900233-0004","latitude":"31.777877805556","longitude":"131.10023863889","source_code":"","project_name":"\u5730\u57df\u9ad8\u898f\u683c\u9053\u8def\u90fd\u57ce\u5fd7\u5e03\u5fd7\u9053\u8def","survey_name":"\u5e73\u621030\u5e74\u5ea6\u90fd\u57ce\u9053\u8def\uff08\u90fd\u57ce\u301c\u4e59\u623f\uff09\u8edf\u5f31\u5730\u76e4\u89e3\u6790\u691c\u8a0e\u696d\u52d9","client_name":"\u56fd\u571f\u4ea4\u901a\u7701\u4e5d\u5dde\u5730\u65b9\u6574\u5099\u5c40\u5bae\u5d0e\u6cb3\u5ddd\u56fd\u9053\u4e8b\u52d9\u6240","boring_xml_url":47,"boring_view_url":1,"soilmap_view_url":null,"soiltest_xml_url":47,"soiltest_view_url":47},{"id":280104,"code":"NGIC201900233-0003","latitude":"31.778421833333","longitude":"131.10157255556","source_code":"","project_name":"\u5730\u57df\u9ad8\u898f\u683c\u9053\u8def\u90fd\u57ce\u5fd7\u5e03\u5fd7\u9053\u8def","survey_name":"\u5e73\u621030\u5e74\u5ea6\u90fd\u57ce\u9053\u8def\uff08\u90fd\u57ce\u301c\u4e59\u623f\uff09\u8edf\u5f31\u5730\u76e4\u89e3\u6790\u691c\u8a0e\u696d\u52d9","client_name":"\u56fd\u571f\u4ea4\u901a\u7701\u4e5d\u5dde\u5730\u65b9\u6574\u5099\u5c40\u5bae\u5d0e\u6cb3\u5ddd\u56fd\u9053\u4e8b\u52d9\u6240","boring_xml_url":47,"boring_view_url":1,"soilmap_view_url":null,"soiltest_xml_url":47,"soiltest_view_url":47},{"id":280103,"code":"NGIC201900233-0002","latitude":"31.778316916667","longitude":"131.10205302778","source_code":"","project_name":"\u5730\u57df\u9ad8\u898f\u683c\u9053\u8def\u90fd\u57ce\u5fd7\u5e03\u5fd7\u9053\u8def","survey_name":"\u5e73\u621030\u5e74\u5ea6\u90fd\u57ce\u9053\u8def\uff08\u90fd\u57ce\u301c\u4e59\u623f\uff09\u8edf\u5f31\u5730\u76e4\u89e3\u6790\u691c\u8a0e\u696d\u52d9","client_name":"\u56fd\u571f\u4ea4\u901a\u7701\u4e5d\u5dde\u5730\u65b9\u6574\u5099\u5c40\u5bae\u5d0e\u6cb3\u5ddd\u56fd\u9053\u4e8b\u52d9\u6240","boring_xml_url":47,"boring_view_url":1,"soilmap_view_url":null,"soiltest_xml_url":47,"soiltest_view_url":47},{"id":280102,"code":"NGIC201900233-0001","latitude":"31.778622388889","longitude":"131.10261241667","source_code":"","project_name":"\u5730\u57df\u9ad8\u898f\u683c\u9053\u8def\u90fd\u57ce\u5fd7\u5e03\u5fd7\u9053\u8def","survey_name":"\u5e73\u621030\u5e74\u5ea6\u90fd\u57ce\u9053\u8def\uff08\u90fd\u57ce\u301c\u4e59\u623f\uff09\u8edf\u5f31\u5730\u76e4\u89e3\u6790\u691c\u8a0e\u696d\u52d9","client_name":"\u56fd\u571f\u4ea4\u901a\u7701\u4e5d\u5dde\u5730\u65b9\u6574\u5099\u5c40\u5bae\u5d0e\u6cb3\u5ddd\u56fd\u9053\u4e8b\u52d9\u6240","boring_xml_url":47,"boring_view_url":1,"soilmap_view_url":null,"soiltest_xml_url":47,"soiltest_view_url":47},{"id":280101,"code":"NGIC201900255-0009","latitude":"36.417138888889","longitude":"138.76297222222","source_code":"","project_name":"","survey_name":"H30\u5317\u6ca2\u7802\u9632\u5830\u5824\u5916\u5730\u8cea\u8abf\u67fb\u696d\u52d9","client_name":"\u56fd\u571f\u4ea4\u901a\u7701\u95a2\u6771\u5730\u65b9\u6574\u5099\u5c40\u5229\u6839\u5ddd\u6c34\u7cfb\u7802\u9632\u4e8b\u52d9\u6240","boring_xml_url":47,"boring_view_url":1,"soilmap_view_url":null,"soiltest_xml_url":0,"soiltest_view_url":0},{"id":280100,"code":"NGIC201900255-0008","latitude":"36.432638888889","longitude":"138.76505555556","source_code":"","project_name":"","survey_name":"H30\u5317\u6ca2\u7802\u9632\u5830\u5824\u5916\u5730\u8cea\u8abf\u67fb\u696d\u52d9","client_name":"\u56fd\u571f\u4ea4\u901a\u7701\u95a2\u6771\u5730\u65b9\u6574\u5099\u5c40\u5229\u6839\u5ddd\u6c34\u7cfb\u7802\u9632\u4e8b\u52d9\u6240","boring_xml_url":47,"boring_view_url":1,"soilmap_view_url":null,"soiltest_xml_url":0,"soiltest_view_url":0},{"id":280099,"code":"NGIC201900255-0007","latitude":"36.745055555556","longitude":"139.25158333333","source_code":"","project_name":"","survey_name":"H30\u5317\u6ca2\u7802\u9632\u5830\u5824\u5916\u5730\u8cea\u8abf\u67fb\u696d\u52d9","client_name":"\u56fd\u571f\u4ea4\u901a\u7701\u95a2\u6771\u5730\u65b9\u6574\u5099\u5c40\u5229\u6839\u5ddd\u6c34\u7cfb\u7802\u9632\u4e8b\u52d9\u6240","boring_xml_url":47,"boring_view_url":1,"soilmap_view_url":null,"soiltest_xml_url":0,"soiltest_view_url":0},{"id":280098,"code":"NGIC201900255-0006","latitude":"36.074311111111","longitude":"138.70085555556","source_code":"","project_name":"","survey_name":"H30\u5317\u6ca2\u7802\u9632\u5830\u5824\u5916\u5730\u8cea\u8abf\u67fb\u696d\u52d9","client_name":"\u56fd\u571f\u4ea4\u901a\u7701\u95a2\u6771\u5730\u65b9\u6574\u5099\u5c40\u5229\u6839\u5ddd\u6c34\u7cfb\u7802\u9632\u4e8b\u52d9\u6240","boring_xml_url":47,"boring_view_url":1,"soilmap_view_url":null,"soiltest_xml_url":0,"soiltest_view_url":0},{"id":280097,"code":"NGIC201900255-0005","latitude":"36.074322222222","longitude":"138.70016388889","source_code":"","project_name":"","survey_name":"H30\u5317\u6ca2\u7802\u9632\u5830\u5824\u5916\u5730\u8cea\u8abf\u67fb\u696d\u52d9","client_name":"\u56fd\u571f\u4ea4\u901a\u7701\u95a2\u6771\u5730\u65b9\u6574\u5099\u5c40\u5229\u6839\u5ddd\u6c34\u7cfb\u7802\u9632\u4e8b\u52d9\u6240","boring_xml_url":47,"boring_view_url":1,"soilmap_view_url":null,"soiltest_xml_url":0,"soiltest_view_url":0},{"id":280096,"code":"NGIC201900255-0004","latitude":"36.073786111111","longitude":"138.69930555556","source_code":"","project_name":"","survey_name":"H30\u5317\u6ca2\u7802\u9632\u5830\u5824\u5916\u5730\u8cea\u8abf\u67fb\u696d\u52d9","client_name":"\u56fd\u571f\u4ea4\u901a\u7701\u95a2\u6771\u5730\u65b9\u6574\u5099\u5c40\u5229\u6839\u5ddd\u6c34\u7cfb\u7802\u9632\u4e8b\u52d9\u6240","boring_xml_url":47,"boring_view_url":1,"soilmap_view_url":null,"soiltest_xml_url":0,"soiltest_view_url":0},{"id":280095,"code":"NGIC201900255-0003","latitude":"36.074005555556","longitude":"138.69905","source_code":"","project_name":"","survey_name":"H30\u5317\u6ca2\u7802\u9632\u5830\u5824\u5916\u5730\u8cea\u8abf\u67fb\u696d\u52d9","client_name":"\u56fd\u571f\u4ea4\u901a\u7701\u95a2\u6771\u5730\u65b9\u6574\u5099\u5c40\u5229\u6839\u5ddd\u6c34\u7cfb\u7802\u9632\u4e8b\u52d9\u6240","boring_xml_url":47,"boring_view_url":1,"soilmap_view_url":null,"soiltest_xml_url":0,"soiltest_view_url":0}]}}