{"header":{"xyz":{"source":[],"mosaic":false},"page":2358,"raw":{"soiltest_result":"0","bbox":"57.598333,109.544722,1.933333,163.806111","page":"2358"},"conditions":{"soiltest_result":0,"north":57.598333,"west":109.544722,"south":1.933333,"east":163.806111},"success":true,"message":""},"data":{"meta":{"total":212844,"page":2358,"pages":7095,"count":30},"values":[{"id":280094,"code":"NGIC201900255-0002","latitude":"36.073494444444","longitude":"138.6993","source_code":"","project_name":"","survey_name":"H30\u5317\u6ca2\u7802\u9632\u5830\u5824\u5916\u5730\u8cea\u8abf\u67fb\u696d\u52d9","client_name":"\u56fd\u571f\u4ea4\u901a\u7701\u95a2\u6771\u5730\u65b9\u6574\u5099\u5c40\u5229\u6839\u5ddd\u6c34\u7cfb\u7802\u9632\u4e8b\u52d9\u6240","boring_xml_url":47,"boring_view_url":1,"soilmap_view_url":null,"soiltest_xml_url":0,"soiltest_view_url":0},{"id":280093,"code":"NGIC201900255-0001","latitude":"36.073713888889","longitude":"138.69916666667","source_code":"","project_name":"","survey_name":"H30\u5317\u6ca2\u7802\u9632\u5830\u5824\u5916\u5730\u8cea\u8abf\u67fb\u696d\u52d9","client_name":"\u56fd\u571f\u4ea4\u901a\u7701\u95a2\u6771\u5730\u65b9\u6574\u5099\u5c40\u5229\u6839\u5ddd\u6c34\u7cfb\u7802\u9632\u4e8b\u52d9\u6240","boring_xml_url":47,"boring_view_url":1,"soilmap_view_url":null,"soiltest_xml_url":0,"soiltest_view_url":0},{"id":280090,"code":"NGIC201900258-0009","latitude":"36.398511111111","longitude":"138.83319444444","source_code":"","project_name":"","survey_name":"H30\u9663\u7530\u6ca2\u7802\u9632\u5830\u5824\u5916\u5730\u8cea\u8abf\u67fb\u696d\u52d9","client_name":"\u56fd\u571f\u4ea4\u901a\u7701\u95a2\u6771\u5730\u65b9\u6574\u5099\u5c40\u5229\u6839\u5ddd\u6c34\u7cfb\u7802\u9632\u4e8b\u52d9\u6240","boring_xml_url":47,"boring_view_url":1,"soilmap_view_url":null,"soiltest_xml_url":0,"soiltest_view_url":0},{"id":280089,"code":"NGIC201900258-0008","latitude":"36.398813888889","longitude":"138.83286388889","source_code":"","project_name":"","survey_name":"H30\u9663\u7530\u6ca2\u7802\u9632\u5830\u5824\u5916\u5730\u8cea\u8abf\u67fb\u696d\u52d9","client_name":"\u56fd\u571f\u4ea4\u901a\u7701\u95a2\u6771\u5730\u65b9\u6574\u5099\u5c40\u5229\u6839\u5ddd\u6c34\u7cfb\u7802\u9632\u4e8b\u52d9\u6240","boring_xml_url":47,"boring_view_url":1,"soilmap_view_url":null,"soiltest_xml_url":0,"soiltest_view_url":0},{"id":280088,"code":"NGIC201900258-0007","latitude":"36.398697222222","longitude":"138.83298888889","source_code":"","project_name":"","survey_name":"H30\u9663\u7530\u6ca2\u7802\u9632\u5830\u5824\u5916\u5730\u8cea\u8abf\u67fb\u696d\u52d9","client_name":"\u56fd\u571f\u4ea4\u901a\u7701\u95a2\u6771\u5730\u65b9\u6574\u5099\u5c40\u5229\u6839\u5ddd\u6c34\u7cfb\u7802\u9632\u4e8b\u52d9\u6240","boring_xml_url":47,"boring_view_url":1,"soilmap_view_url":null,"soiltest_xml_url":0,"soiltest_view_url":0},{"id":280087,"code":"NGIC201900258-0006","latitude":"36.432702777778","longitude":"138.76694444444","source_code":"","project_name":"","survey_name":"H30\u9663\u7530\u6ca2\u7802\u9632\u5830\u5824\u5916\u5730\u8cea\u8abf\u67fb\u696d\u52d9","client_name":"\u56fd\u571f\u4ea4\u901a\u7701\u95a2\u6771\u5730\u65b9\u6574\u5099\u5c40\u5229\u6839\u5ddd\u6c34\u7cfb\u7802\u9632\u4e8b\u52d9\u6240","boring_xml_url":47,"boring_view_url":1,"soilmap_view_url":null,"soiltest_xml_url":0,"soiltest_view_url":0},{"id":280086,"code":"NGIC201900258-0005","latitude":"36.432947222222","longitude":"138.76729444444","source_code":"","project_name":"","survey_name":"H30\u9663\u7530\u6ca2\u7802\u9632\u5830\u5824\u5916\u5730\u8cea\u8abf\u67fb\u696d\u52d9","client_name":"\u56fd\u571f\u4ea4\u901a\u7701\u95a2\u6771\u5730\u65b9\u6574\u5099\u5c40\u5229\u6839\u5ddd\u6c34\u7cfb\u7802\u9632\u4e8b\u52d9\u6240","boring_xml_url":47,"boring_view_url":1,"soilmap_view_url":null,"soiltest_xml_url":0,"soiltest_view_url":0},{"id":280085,"code":"NGIC201900258-0004","latitude":"36.432866666667","longitude":"138.76703888889","source_code":"","project_name":"","survey_name":"H30\u9663\u7530\u6ca2\u7802\u9632\u5830\u5824\u5916\u5730\u8cea\u8abf\u67fb\u696d\u52d9","client_name":"\u56fd\u571f\u4ea4\u901a\u7701\u95a2\u6771\u5730\u65b9\u6574\u5099\u5c40\u5229\u6839\u5ddd\u6c34\u7cfb\u7802\u9632\u4e8b\u52d9\u6240","boring_xml_url":47,"boring_view_url":1,"soilmap_view_url":null,"soiltest_xml_url":0,"soiltest_view_url":0},{"id":280084,"code":"NGIC201900258-0003","latitude":"36.466813888889","longitude":"138.77926944444","source_code":"","project_name":"","survey_name":"H30\u9663\u7530\u6ca2\u7802\u9632\u5830\u5824\u5916\u5730\u8cea\u8abf\u67fb\u696d\u52d9","client_name":"\u56fd\u571f\u4ea4\u901a\u7701\u95a2\u6771\u5730\u65b9\u6574\u5099\u5c40\u5229\u6839\u5ddd\u6c34\u7cfb\u7802\u9632\u4e8b\u52d9\u6240","boring_xml_url":47,"boring_view_url":1,"soilmap_view_url":null,"soiltest_xml_url":0,"soiltest_view_url":0},{"id":280083,"code":"NGIC201900258-0002","latitude":"36.466969444444","longitude":"138.77876111111","source_code":"","project_name":"","survey_name":"H30\u9663\u7530\u6ca2\u7802\u9632\u5830\u5824\u5916\u5730\u8cea\u8abf\u67fb\u696d\u52d9","client_name":"\u56fd\u571f\u4ea4\u901a\u7701\u95a2\u6771\u5730\u65b9\u6574\u5099\u5c40\u5229\u6839\u5ddd\u6c34\u7cfb\u7802\u9632\u4e8b\u52d9\u6240","boring_xml_url":47,"boring_view_url":1,"soilmap_view_url":null,"soiltest_xml_url":0,"soiltest_view_url":0},{"id":280082,"code":"NGIC201900258-0001","latitude":"36.467084111111","longitude":"138.77876313889","source_code":"","project_name":"","survey_name":"H30\u9663\u7530\u6ca2\u7802\u9632\u5830\u5824\u5916\u5730\u8cea\u8abf\u67fb\u696d\u52d9","client_name":"\u56fd\u571f\u4ea4\u901a\u7701\u95a2\u6771\u5730\u65b9\u6574\u5099\u5c40\u5229\u6839\u5ddd\u6c34\u7cfb\u7802\u9632\u4e8b\u52d9\u6240","boring_xml_url":47,"boring_view_url":1,"soilmap_view_url":null,"soiltest_xml_url":0,"soiltest_view_url":0},{"id":280081,"code":"NGIC201900250-0010","latitude":"36.552666666667","longitude":"138.60655555556","source_code":"","project_name":"H30\u795e\u5927\u524d\u6ca2\u7802\u9632\u5830\u5824\u5916\u5730\u8cea\u8abf\u67fb\u696d\u52d9","survey_name":"H30\u795e\u5927\u524d\u6ca2\u7802\u9632\u5830\u5824\u5916\u5730\u8cea\u8abf\u67fb\u696d\u52d9","client_name":"\u56fd\u571f\u4ea4\u901a\u7701\u95a2\u6771\u5730\u65b9\u6574\u5099\u5c40\u5229\u6839\u5ddd\u6c34\u7cfb\u7802\u9632\u4e8b\u52d9\u6240","boring_xml_url":47,"boring_view_url":1,"soilmap_view_url":null,"soiltest_xml_url":0,"soiltest_view_url":0},{"id":280080,"code":"NGIC201900250-0009","latitude":"36.552638888889","longitude":"138.60644444444","source_code":"","project_name":"H30\u795e\u5927\u524d\u6ca2\u7802\u9632\u5830\u5824\u5916\u5730\u8cea\u8abf\u67fb\u696d\u52d9","survey_name":"H30\u795e\u5927\u524d\u6ca2\u7802\u9632\u5830\u5824\u5916\u5730\u8cea\u8abf\u67fb\u696d\u52d9","client_name":"\u56fd\u571f\u4ea4\u901a\u7701\u95a2\u6771\u5730\u65b9\u6574\u5099\u5c40\u5229\u6839\u5ddd\u6c34\u7cfb\u7802\u9632\u4e8b\u52d9\u6240","boring_xml_url":47,"boring_view_url":1,"soilmap_view_url":null,"soiltest_xml_url":0,"soiltest_view_url":0},{"id":280079,"code":"NGIC201900250-0008","latitude":"36.552388888889","longitude":"138.60644444444","source_code":"","project_name":"H30\u795e\u5927\u524d\u6ca2\u7802\u9632\u5830\u5824\u5916\u5730\u8cea\u8abf\u67fb\u696d\u52d9","survey_name":"H30\u795e\u5927\u524d\u6ca2\u7802\u9632\u5830\u5824\u5916\u5730\u8cea\u8abf\u67fb\u696d\u52d9","client_name":"\u56fd\u571f\u4ea4\u901a\u7701\u95a2\u6771\u5730\u65b9\u6574\u5099\u5c40\u5229\u6839\u5ddd\u6c34\u7cfb\u7802\u9632\u4e8b\u52d9\u6240","boring_xml_url":47,"boring_view_url":1,"soilmap_view_url":null,"soiltest_xml_url":0,"soiltest_view_url":0},{"id":280078,"code":"NGIC201900250-0007","latitude":"36.552361111111","longitude":"138.60613888889","source_code":"","project_name":"H30\u795e\u5927\u524d\u6ca2\u7802\u9632\u5830\u5824\u5916\u5730\u8cea\u8abf\u67fb\u696d\u52d9","survey_name":"H30\u795e\u5927\u524d\u6ca2\u7802\u9632\u5830\u5824\u5916\u5730\u8cea\u8abf\u67fb\u696d\u52d9","client_name":"\u56fd\u571f\u4ea4\u901a\u7701\u95a2\u6771\u5730\u65b9\u6574\u5099\u5c40\u5229\u6839\u5ddd\u6c34\u7cfb\u7802\u9632\u4e8b\u52d9\u6240","boring_xml_url":47,"boring_view_url":1,"soilmap_view_url":null,"soiltest_xml_url":0,"soiltest_view_url":0},{"id":280077,"code":"NGIC201900250-0006","latitude":"36.552361111111","longitude":"138.60630555556","source_code":"","project_name":"H30\u795e\u5927\u524d\u6ca2\u7802\u9632\u5830\u5824\u5916\u5730\u8cea\u8abf\u67fb\u696d\u52d9","survey_name":"H30\u795e\u5927\u524d\u6ca2\u7802\u9632\u5830\u5824\u5916\u5730\u8cea\u8abf\u67fb\u696d\u52d9","client_name":"\u56fd\u571f\u4ea4\u901a\u7701\u95a2\u6771\u5730\u65b9\u6574\u5099\u5c40\u5229\u6839\u5ddd\u6c34\u7cfb\u7802\u9632\u4e8b\u52d9\u6240","boring_xml_url":47,"boring_view_url":1,"soilmap_view_url":null,"soiltest_xml_url":0,"soiltest_view_url":0},{"id":280076,"code":"NGIC201900250-0005","latitude":"36.513111111111","longitude":"138.51475","source_code":"","project_name":"H30\u795e\u5927\u524d\u6ca2\u7802\u9632\u5830\u5824\u5916\u5730\u8cea\u8abf\u67fb\u696d\u52d9","survey_name":"H30\u795e\u5927\u524d\u6ca2\u7802\u9632\u5830\u5824\u5916\u5730\u8cea\u8abf\u67fb\u696d\u52d9","client_name":"\u56fd\u571f\u4ea4\u901a\u7701\u95a2\u6771\u5730\u65b9\u6574\u5099\u5c40\u5229\u6839\u5ddd\u6c34\u7cfb\u7802\u9632\u4e8b\u52d9\u6240","boring_xml_url":47,"boring_view_url":1,"soilmap_view_url":null,"soiltest_xml_url":0,"soiltest_view_url":0},{"id":280075,"code":"NGIC201900250-0004","latitude":"36.513111111111","longitude":"138.51555555556","source_code":"","project_name":"H30\u795e\u5927\u524d\u6ca2\u7802\u9632\u5830\u5824\u5916\u5730\u8cea\u8abf\u67fb\u696d\u52d9","survey_name":"H30\u795e\u5927\u524d\u6ca2\u7802\u9632\u5830\u5824\u5916\u5730\u8cea\u8abf\u67fb\u696d\u52d9","client_name":"\u56fd\u571f\u4ea4\u901a\u7701\u95a2\u6771\u5730\u65b9\u6574\u5099\u5c40\u5229\u6839\u5ddd\u6c34\u7cfb\u7802\u9632\u4e8b\u52d9\u6240","boring_xml_url":47,"boring_view_url":1,"soilmap_view_url":null,"soiltest_xml_url":0,"soiltest_view_url":0},{"id":280074,"code":"NGIC201900250-0003","latitude":"36.513027777778","longitude":"138.51541666667","source_code":"","project_name":"H30\u795e\u5927\u524d\u6ca2\u7802\u9632\u5830\u5824\u5916\u5730\u8cea\u8abf\u67fb\u696d\u52d9","survey_name":"H30\u795e\u5927\u524d\u6ca2\u7802\u9632\u5830\u5824\u5916\u5730\u8cea\u8abf\u67fb\u696d\u52d9","client_name":"\u56fd\u571f\u4ea4\u901a\u7701\u95a2\u6771\u5730\u65b9\u6574\u5099\u5c40\u5229\u6839\u5ddd\u6c34\u7cfb\u7802\u9632\u4e8b\u52d9\u6240","boring_xml_url":47,"boring_view_url":1,"soilmap_view_url":null,"soiltest_xml_url":0,"soiltest_view_url":0},{"id":280073,"code":"NGIC201900250-0002","latitude":"36.513055555556","longitude":"138.51494444444","source_code":"","project_name":"H30\u795e\u5927\u524d\u6ca2\u7802\u9632\u5830\u5824\u5916\u5730\u8cea\u8abf\u67fb\u696d\u52d9","survey_name":"H30\u795e\u5927\u524d\u6ca2\u7802\u9632\u5830\u5824\u5916\u5730\u8cea\u8abf\u67fb\u696d\u52d9","client_name":"\u56fd\u571f\u4ea4\u901a\u7701\u95a2\u6771\u5730\u65b9\u6574\u5099\u5c40\u5229\u6839\u5ddd\u6c34\u7cfb\u7802\u9632\u4e8b\u52d9\u6240","boring_xml_url":47,"boring_view_url":1,"soilmap_view_url":null,"soiltest_xml_url":0,"soiltest_view_url":0},{"id":280072,"code":"NGIC201900250-0001","latitude":"36.513027777778","longitude":"138.51527777778","source_code":"","project_name":"H30\u795e\u5927\u524d\u6ca2\u7802\u9632\u5830\u5824\u5916\u5730\u8cea\u8abf\u67fb\u696d\u52d9","survey_name":"H30\u795e\u5927\u524d\u6ca2\u7802\u9632\u5830\u5824\u5916\u5730\u8cea\u8abf\u67fb\u696d\u52d9","client_name":"\u56fd\u571f\u4ea4\u901a\u7701\u95a2\u6771\u5730\u65b9\u6574\u5099\u5c40\u5229\u6839\u5ddd\u6c34\u7cfb\u7802\u9632\u4e8b\u52d9\u6240","boring_xml_url":47,"boring_view_url":1,"soilmap_view_url":null,"soiltest_xml_url":0,"soiltest_view_url":0},{"id":280055,"code":"NGIC201900203-0006","latitude":"42.254166666667","longitude":"142.5375","source_code":"","project_name":"\u6d66\u6cb3\u6e2f\u59161 \u6e2f\u5730\u8cea\u8abf\u67fb\u696d\u52d9","survey_name":"\u6d66\u6cb3\u6e2f\u59161 \u6e2f\u5730\u8cea\u8abf\u67fb\u696d\u52d9","client_name":"\u56fd\u571f\u4ea4\u901a\u7701\u5317\u6d77\u9053\u958b\u767a\u5c40\u5ba4\u862d\u958b\u767a\u5efa\u8a2d\u90e8\u3000\u6d66\u6cb3\u6e2f\u6e7e\u4e8b\u52d9\u6240","boring_xml_url":47,"boring_view_url":1,"soilmap_view_url":null,"soiltest_xml_url":47,"soiltest_view_url":47},{"id":280054,"code":"NGIC201900203-0005","latitude":"42.248611111111","longitude":"142.55027777778","source_code":"","project_name":"\u6d66\u6cb3\u6e2f\u59161\u6e2f\u5730\u8cea\u8abf\u67fb\u696d\u52d9","survey_name":"\u6d66\u6cb3\u6e2f\u59161\u6e2f\u5730\u8cea\u8abf\u67fb\u696d\u52d9","client_name":"\u56fd\u571f\u4ea4\u901a\u7701\u5317\u6d77\u9053\u958b\u767a\u5c40\u5ba4\u862d\u958b\u767a\u5efa\u8a2d\u90e8\u3000\u6d66\u6cb3\u6e2f\u6e7e\u4e8b\u52d9\u6240","boring_xml_url":47,"boring_view_url":1,"soilmap_view_url":null,"soiltest_xml_url":0,"soiltest_view_url":0},{"id":280053,"code":"NGIC201900203-0004","latitude":"42.163888888889","longitude":"142.77083333333","source_code":"","project_name":"\u6d66\u6cb3\u6e2f\u59161\u6e2f\u5730\u8cea\u8abf\u67fb\u696d\u52d9","survey_name":"\u6d66\u6cb3\u6e2f\u59161\u6e2f\u5730\u8cea\u8abf\u67fb\u696d\u52d9","client_name":"\u56fd\u571f\u4ea4\u901a\u7701\u5317\u6d77\u9053\u958b\u767a\u5c40\u5ba4\u862d\u958b\u767a\u5efa\u8a2d\u90e8\u3000\u6d66\u6cb3\u6e2f\u6e7e\u4e8b\u52d9\u6240","boring_xml_url":47,"boring_view_url":1,"soilmap_view_url":null,"soiltest_xml_url":0,"soiltest_view_url":0},{"id":280052,"code":"NGIC201900203-0003","latitude":"42.163055555556","longitude":"142.77111111111","source_code":"","project_name":"\u6d66\u6cb3\u6e2f\u59161\u6e2f\u5730\u8cea\u8abf\u67fb\u696d\u52d9","survey_name":"\u6d66\u6cb3\u6e2f\u59161\u6e2f\u5730\u8cea\u8abf\u67fb\u696d\u52d9","client_name":"\u56fd\u571f\u4ea4\u901a\u7701\u5317\u6d77\u9053\u958b\u767a\u5c40\u5ba4\u862d\u958b\u767a\u5efa\u8a2d\u90e8\u3000\u6d66\u6cb3\u6e2f\u6e7e\u4e8b\u52d9\u6240","boring_xml_url":47,"boring_view_url":1,"soilmap_view_url":null,"soiltest_xml_url":0,"soiltest_view_url":0},{"id":280051,"code":"NGIC201900203-0002","latitude":"42.162222222222","longitude":"142.77083333333","source_code":"","project_name":"\u6d66\u6cb3\u6e2f\u59161\u6e2f\u5730\u8cea\u8abf\u67fb\u696d\u52d9","survey_name":"\u6d66\u6cb3\u6e2f\u59161\u6e2f\u5730\u8cea\u8abf\u67fb\u696d\u52d9","client_name":"\u56fd\u571f\u4ea4\u901a\u7701\u5317\u6d77\u9053\u958b\u767a\u5c40\u5ba4\u862d\u958b\u767a\u5efa\u8a2d\u90e8\u3000\u6d66\u6cb3\u6e2f\u6e7e\u4e8b\u52d9\u6240","boring_xml_url":47,"boring_view_url":1,"soilmap_view_url":null,"soiltest_xml_url":47,"soiltest_view_url":47},{"id":280050,"code":"NGIC201900203-0001","latitude":"42.165833333333","longitude":"142.76222222222","source_code":"","project_name":"\u6d66\u6cb3\u6e2f\u59161\u6e2f\u5730\u8cea\u8abf\u67fb\u696d\u52d9","survey_name":"\u6d66\u6cb3\u6e2f\u59161\u6e2f\u5730\u8cea\u8abf\u67fb\u696d\u52d9","client_name":"\u56fd\u571f\u4ea4\u901a\u7701\u5317\u6d77\u9053\u958b\u767a\u5c40\u5ba4\u862d\u958b\u767a\u5efa\u8a2d\u90e8\u3000\u6d66\u6cb3\u6e2f\u6e7e\u4e8b\u52d9\u6240","boring_xml_url":47,"boring_view_url":1,"soilmap_view_url":null,"soiltest_xml_url":47,"soiltest_view_url":47},{"id":280045,"code":"NGIC201900249-0002","latitude":"44.433169444444","longitude":"143.03285","source_code":"","project_name":"","survey_name":"\u8208\u90e8\u9053\u8def\u4e8b\u52d9\u6240\u7ba1\u5185\u5730\u8cea\u8abf\u67fb\u696d\u52d9","client_name":"\u56fd\u571f\u4ea4\u901a\u7701\u5317\u6d77\u9053\u958b\u767a\u5c40\u7db2\u8d70\u958b\u767a\u5efa\u8a2d\u90e8\u3000\u8208\u90e8\u9053\u8def\u4e8b\u52d9\u6240","boring_xml_url":47,"boring_view_url":1,"soilmap_view_url":null,"soiltest_xml_url":0,"soiltest_view_url":0},{"id":280044,"code":"NGIC201900249-0001","latitude":"44.238286111111","longitude":"143.25207777778","source_code":"","project_name":"","survey_name":"\u8208\u90e8\u9053\u8def\u4e8b\u52d9\u6240\u7ba1\u5185\u5730\u8cea\u8abf\u67fb\u696d\u52d9","client_name":"\u56fd\u571f\u4ea4\u901a\u7701\u5317\u6d77\u9053\u958b\u767a\u5c40\u7db2\u8d70\u958b\u767a\u5efa\u8a2d\u90e8\u3000\u8208\u90e8\u9053\u8def\u4e8b\u52d9\u6240","boring_xml_url":47,"boring_view_url":1,"soilmap_view_url":null,"soiltest_xml_url":0,"soiltest_view_url":0},{"id":280024,"code":"NGIC201900232-0022","latitude":"34.687493333333","longitude":"135.24767305556","source_code":"","project_name":"\u5e73\u621030\u5e74\u5ea6 \u795e\u6238\u6e2f\u571f\u8cea\u8abf\u67fb(\u7b2c1\u5de5\u533a)","survey_name":"\u5e73\u621030\u5e74\u5ea6 \u795e\u6238\u6e2f\u571f\u8cea\u8abf\u67fb(\u7b2c1\u5de5\u533a)","client_name":"\u56fd\u571f\u4ea4\u901a\u7701\u8fd1\u757f\u5730\u65b9\u6574\u5099\u5c40\u7dcf\u52d9\u90e8","boring_xml_url":47,"boring_view_url":1,"soilmap_view_url":null,"soiltest_xml_url":0,"soiltest_view_url":0}]}}