{"header":{"xyz":{"source":[],"mosaic":false},"page":236,"raw":{"soiltest_result":"0","bbox":"57.598333,109.544722,1.933333,163.806111","page":"236"},"conditions":{"soiltest_result":0,"north":57.598333,"west":109.544722,"south":1.933333,"east":163.806111},"success":true,"message":""},"data":{"meta":{"total":212844,"page":236,"pages":7095,"count":30},"values":[{"id":576614,"code":"NGIC202205658-0004","latitude":"43.096166666667","longitude":"141.62002777778","source_code":"","project_name":"","survey_name":"\u4ee4\u548c4\u5e74\u5ea6\u65bd\u884c\u6c5f\u5225\u5357\u5e4c\u5730\u533a \u53575\u7dda\u96c6\u6c34\u8def\u53576\u7dda\u4e0b\u6d41\u5de5\u533a\u8a2d\u8a08\u7b49\u696d\u52d9","client_name":"\u56fd\u571f\u4ea4\u901a\u7701\u5317\u6d77\u9053\u958b\u767a\u5c40\u672d\u5e4c\u958b\u767a\u5efa\u8a2d\u90e8 \u672d\u5e4c\u5317\u8fb2\u696d\u4e8b\u52d9\u6240","boring_xml_url":47,"boring_view_url":1,"soilmap_view_url":null,"soiltest_xml_url":47,"soiltest_view_url":47},{"id":576613,"code":"NGIC202205658-0003","latitude":"43.095388888889","longitude":"141.6185","source_code":"","project_name":"","survey_name":"\u4ee4\u548c4\u5e74\u5ea6\u65bd\u884c\u6c5f\u5225\u5357\u5e4c\u5730\u533a \u53575\u7dda\u96c6\u6c34\u8def\u53576\u7dda\u4e0b\u6d41\u5de5\u533a\u8a2d\u8a08\u7b49\u696d\u52d9","client_name":"\u56fd\u571f\u4ea4\u901a\u7701\u5317\u6d77\u9053\u958b\u767a\u5c40\u672d\u5e4c\u958b\u767a\u5efa\u8a2d\u90e8 \u672d\u5e4c\u5317\u8fb2\u696d\u4e8b\u52d9\u6240","boring_xml_url":47,"boring_view_url":1,"soilmap_view_url":null,"soiltest_xml_url":47,"soiltest_view_url":47},{"id":576612,"code":"NGIC202205658-0002","latitude":"43.094638888889","longitude":"141.61713888889","source_code":"","project_name":"","survey_name":"\u4ee4\u548c4\u5e74\u5ea6\u65bd\u884c\u6c5f\u5225\u5357\u5e4c\u5730\u533a \u53575\u7dda\u96c6\u6c34\u8def\u53576\u7dda\u4e0b\u6d41\u5de5\u533a\u8a2d\u8a08\u7b49\u696d\u52d9","client_name":"\u56fd\u571f\u4ea4\u901a\u7701\u5317\u6d77\u9053\u958b\u767a\u5c40\u672d\u5e4c\u958b\u767a\u5efa\u8a2d\u90e8 \u672d\u5e4c\u5317\u8fb2\u696d\u4e8b\u52d9\u6240","boring_xml_url":47,"boring_view_url":1,"soilmap_view_url":null,"soiltest_xml_url":47,"soiltest_view_url":47},{"id":576611,"code":"NGIC202205658-0001","latitude":"43.094194444444","longitude":"141.61622222222","source_code":"","project_name":"","survey_name":"\u4ee4\u548c4\u5e74\u5ea6\u65bd\u884c\u6c5f\u5225\u5357\u5e4c\u5730\u533a \u53575\u7dda\u96c6\u6c34\u8def\u53576\u7dda\u4e0b\u6d41\u5de5\u533a\u8a2d\u8a08\u7b49\u696d\u52d9","client_name":"\u56fd\u571f\u4ea4\u901a\u7701\u5317\u6d77\u9053\u958b\u767a\u5c40\u672d\u5e4c\u958b\u767a\u5efa\u8a2d\u90e8 \u672d\u5e4c\u5317\u8fb2\u696d\u4e8b\u52d9\u6240","boring_xml_url":47,"boring_view_url":1,"soilmap_view_url":null,"soiltest_xml_url":47,"soiltest_view_url":47},{"id":576581,"code":"NGIC202205699-0006","latitude":"42.310250555556","longitude":"142.44812583333","source_code":"","project_name":"\u65e5\u9ad8\u81ea\u52d5\u8eca\u9053 \u65b0\u3072\u3060\u304b\u753a \u6771\u9759\u5185\u5730\u8cea\u8abf\u67fb\u696d\u52d9","survey_name":"\u65e5\u9ad8\u81ea\u52d5\u8eca\u9053 \u65b0\u3072\u3060\u304b\u753a \u6771\u9759\u5185\u5730\u8cea\u8abf\u67fb\u696d\u52d9","client_name":"\u56fd\u571f\u4ea4\u901a\u7701\u5317\u6d77\u9053\u958b\u767a\u5c40\u5ba4\u862d\u958b\u767a\u5efa\u8a2d\u90e8\u672c\u90e8","boring_xml_url":47,"boring_view_url":1,"soilmap_view_url":null,"soiltest_xml_url":47,"soiltest_view_url":47},{"id":576580,"code":"NGIC202205699-0005","latitude":"42.310752222222","longitude":"142.44536444444","source_code":"","project_name":"\u65e5\u9ad8\u81ea\u52d5\u8eca\u9053 \u65b0\u3072\u3060\u304b\u753a \u6771\u9759\u5185\u5730\u8cea\u8abf\u67fb\u696d\u52d9","survey_name":"\u65e5\u9ad8\u81ea\u52d5\u8eca\u9053 \u65b0\u3072\u3060\u304b\u753a \u6771\u9759\u5185\u5730\u8cea\u8abf\u67fb\u696d\u52d9","client_name":"\u56fd\u571f\u4ea4\u901a\u7701\u5317\u6d77\u9053\u958b\u767a\u5c40\u5ba4\u862d\u958b\u767a\u5efa\u8a2d\u90e8\u672c\u90e8","boring_xml_url":47,"boring_view_url":1,"soilmap_view_url":null,"soiltest_xml_url":47,"soiltest_view_url":47},{"id":576579,"code":"NGIC202205699-0004","latitude":"42.311363333333","longitude":"142.44222333333","source_code":"","project_name":"\u65e5\u9ad8\u81ea\u52d5\u8eca\u9053 \u65b0\u3072\u3060\u304b\u753a \u6771\u9759\u5185\u5730\u8cea\u8abf\u67fb\u696d\u52d9","survey_name":"\u65e5\u9ad8\u81ea\u52d5\u8eca\u9053 \u65b0\u3072\u3060\u304b\u753a \u6771\u9759\u5185\u5730\u8cea\u8abf\u67fb\u696d\u52d9","client_name":"\u56fd\u571f\u4ea4\u901a\u7701\u5317\u6d77\u9053\u958b\u767a\u5c40\u5ba4\u862d\u958b\u767a\u5efa\u8a2d\u90e8\u672c\u90e8","boring_xml_url":47,"boring_view_url":1,"soilmap_view_url":null,"soiltest_xml_url":47,"soiltest_view_url":47},{"id":576578,"code":"NGIC202205699-0003","latitude":"42.312082777778","longitude":"142.44094194444","source_code":"","project_name":"\u65e5\u9ad8\u81ea\u52d5\u8eca\u9053 \u65b0\u3072\u3060\u304b\u753a \u6771\u9759\u5185\u5730\u8cea\u8abf\u67fb\u696d\u52d9","survey_name":"\u65e5\u9ad8\u81ea\u52d5\u8eca\u9053 \u65b0\u3072\u3060\u304b\u753a \u6771\u9759\u5185\u5730\u8cea\u8abf\u67fb\u696d\u52d9","client_name":"\u56fd\u571f\u4ea4\u901a\u7701\u5317\u6d77\u9053\u958b\u767a\u5c40\u5ba4\u862d\u958b\u767a\u5efa\u8a2d\u90e8\u672c\u90e8","boring_xml_url":47,"boring_view_url":1,"soilmap_view_url":null,"soiltest_xml_url":47,"soiltest_view_url":47},{"id":576577,"code":"NGIC202205699-0002","latitude":"42.312261666667","longitude":"142.44041666667","source_code":"","project_name":"\u65e5\u9ad8\u81ea\u52d5\u8eca\u9053 \u65b0\u3072\u3060\u304b\u753a \u6771\u9759\u5185\u5730\u8cea\u8abf\u67fb\u696d\u52d9","survey_name":"\u65e5\u9ad8\u81ea\u52d5\u8eca\u9053 \u65b0\u3072\u3060\u304b\u753a \u6771\u9759\u5185\u5730\u8cea\u8abf\u67fb\u696d\u52d9","client_name":"\u56fd\u571f\u4ea4\u901a\u7701\u5317\u6d77\u9053\u958b\u767a\u5c40\u5ba4\u862d\u958b\u767a\u5efa\u8a2d\u90e8\u672c\u90e8","boring_xml_url":47,"boring_view_url":1,"soilmap_view_url":null,"soiltest_xml_url":47,"soiltest_view_url":47},{"id":576576,"code":"NGIC202205699-0001","latitude":"42.312085555556","longitude":"142.43937194444","source_code":"","project_name":"\u65e5\u9ad8\u81ea\u52d5\u8eca\u9053 \u65b0\u3072\u3060\u304b\u753a \u6771\u9759\u5185\u5730\u8cea\u8abf\u67fb\u696d\u52d9","survey_name":"\u65e5\u9ad8\u81ea\u52d5\u8eca\u9053 \u65b0\u3072\u3060\u304b\u753a \u6771\u9759\u5185\u5730\u8cea\u8abf\u67fb\u696d\u52d9","client_name":"\u56fd\u571f\u4ea4\u901a\u7701\u5317\u6d77\u9053\u958b\u767a\u5c40\u5ba4\u862d\u958b\u767a\u5efa\u8a2d\u90e8\u672c\u90e8","boring_xml_url":47,"boring_view_url":1,"soilmap_view_url":null,"soiltest_xml_url":47,"soiltest_view_url":47},{"id":576573,"code":"NGIC202205576-0014","latitude":"34.665758722222","longitude":"131.70525316667","source_code":"","project_name":"","survey_name":"\u4ee4\u548c3\u5e74\u5ea6 \u76ca\u7530\u7530\u4e07\u5ddd\u9053\u8def\u30c8\u30f3\u30cd\u30eb\u5730\u8cea\u89e3\u6790\u305d\u306e2\u696d\u52d9","client_name":"\u56fd\u571f\u4ea4\u901a\u7701\u4e2d\u56fd\u5730\u65b9\u6574\u5099\u5c40\u5c71\u9670\u897f\u90e8\u56fd\u9053\u4e8b\u52d9\u6240","boring_xml_url":47,"boring_view_url":1,"soilmap_view_url":null,"soiltest_xml_url":0,"soiltest_view_url":0},{"id":576572,"code":"NGIC202205576-0013","latitude":"34.665762277778","longitude":"131.70527858333","source_code":"","project_name":"","survey_name":"\u4ee4\u548c3\u5e74\u5ea6 \u76ca\u7530\u7530\u4e07\u5ddd\u9053\u8def\u30c8\u30f3\u30cd\u30eb\u5730\u8cea\u89e3\u6790\u305d\u306e2\u696d\u52d9","client_name":"\u56fd\u571f\u4ea4\u901a\u7701\u4e2d\u56fd\u5730\u65b9\u6574\u5099\u5c40\u5c71\u9670\u897f\u90e8\u56fd\u9053\u4e8b\u52d9\u6240","boring_xml_url":47,"boring_view_url":1,"soilmap_view_url":null,"soiltest_xml_url":0,"soiltest_view_url":0},{"id":576571,"code":"NGIC202205576-0012","latitude":"34.665865444444","longitude":"131.70563563889","source_code":"","project_name":"","survey_name":"\u4ee4\u548c3\u5e74\u5ea6 \u76ca\u7530\u7530\u4e07\u5ddd\u9053\u8def\u30c8\u30f3\u30cd\u30eb\u5730\u8cea\u89e3\u6790\u305d\u306e2\u696d\u52d9","client_name":"\u56fd\u571f\u4ea4\u901a\u7701\u4e2d\u56fd\u5730\u65b9\u6574\u5099\u5c40\u5c71\u9670\u897f\u90e8\u56fd\u9053\u4e8b\u52d9\u6240","boring_xml_url":47,"boring_view_url":1,"soilmap_view_url":null,"soiltest_xml_url":0,"soiltest_view_url":0},{"id":576570,"code":"NGIC202205576-0011","latitude":"34.667871722222","longitude":"131.71183188889","source_code":"","project_name":"","survey_name":"\u4ee4\u548c3\u5e74\u5ea6 \u76ca\u7530\u7530\u4e07\u5ddd\u9053\u8def\u30c8\u30f3\u30cd\u30eb\u5730\u8cea\u89e3\u6790\u305d\u306e2\u696d\u52d9","client_name":"\u56fd\u571f\u4ea4\u901a\u7701\u4e2d\u56fd\u5730\u65b9\u6574\u5099\u5c40\u5c71\u9670\u897f\u90e8\u56fd\u9053\u4e8b\u52d9\u6240","boring_xml_url":47,"boring_view_url":1,"soilmap_view_url":null,"soiltest_xml_url":0,"soiltest_view_url":0},{"id":576569,"code":"NGIC202205576-0010","latitude":"34.668034138889","longitude":"131.71223377778","source_code":"","project_name":"","survey_name":"\u4ee4\u548c3\u5e74\u5ea6 \u76ca\u7530\u7530\u4e07\u5ddd\u9053\u8def\u30c8\u30f3\u30cd\u30eb\u5730\u8cea\u89e3\u6790\u305d\u306e2\u696d\u52d9","client_name":"\u56fd\u571f\u4ea4\u901a\u7701\u4e2d\u56fd\u5730\u65b9\u6574\u5099\u5c40\u5c71\u9670\u897f\u90e8\u56fd\u9053\u4e8b\u52d9\u6240","boring_xml_url":47,"boring_view_url":1,"soilmap_view_url":null,"soiltest_xml_url":0,"soiltest_view_url":0},{"id":576568,"code":"NGIC202205576-0009","latitude":"34.668479361111","longitude":"131.71311197222","source_code":"","project_name":"","survey_name":"\u4ee4\u548c3\u5e74\u5ea6 \u76ca\u7530\u7530\u4e07\u5ddd\u9053\u8def\u30c8\u30f3\u30cd\u30eb\u5730\u8cea\u89e3\u6790\u305d\u306e2\u696d\u52d9","client_name":"\u56fd\u571f\u4ea4\u901a\u7701\u4e2d\u56fd\u5730\u65b9\u6574\u5099\u5c40\u5c71\u9670\u897f\u90e8\u56fd\u9053\u4e8b\u52d9\u6240","boring_xml_url":47,"boring_view_url":1,"soilmap_view_url":null,"soiltest_xml_url":0,"soiltest_view_url":0},{"id":576567,"code":"NGIC202205576-0008","latitude":"34.668697194444","longitude":"131.71365108333","source_code":"","project_name":"","survey_name":"\u4ee4\u548c3\u5e74\u5ea6 \u76ca\u7530\u7530\u4e07\u5ddd\u9053\u8def\u30c8\u30f3\u30cd\u30eb\u5730\u8cea\u89e3\u6790\u305d\u306e2\u696d\u52d9","client_name":"\u56fd\u571f\u4ea4\u901a\u7701\u4e2d\u56fd\u5730\u65b9\u6574\u5099\u5c40\u5c71\u9670\u897f\u90e8\u56fd\u9053\u4e8b\u52d9\u6240","boring_xml_url":47,"boring_view_url":1,"soilmap_view_url":null,"soiltest_xml_url":0,"soiltest_view_url":0},{"id":576566,"code":"NGIC202205576-0007","latitude":"34.665406527778","longitude":"131.70402208333","source_code":"","project_name":"","survey_name":"\u4ee4\u548c3\u5e74\u5ea6 \u76ca\u7530\u7530\u4e07\u5ddd\u9053\u8def\u30c8\u30f3\u30cd\u30eb\u5730\u8cea\u89e3\u6790\u305d\u306e2\u696d\u52d9","client_name":"\u56fd\u571f\u4ea4\u901a\u7701\u4e2d\u56fd\u5730\u65b9\u6574\u5099\u5c40\u5c71\u9670\u897f\u90e8\u56fd\u9053\u4e8b\u52d9\u6240","boring_xml_url":47,"boring_view_url":1,"soilmap_view_url":null,"soiltest_xml_url":0,"soiltest_view_url":0},{"id":576565,"code":"NGIC202205576-0006","latitude":"34.665548166667","longitude":"131.70449855556","source_code":"","project_name":"","survey_name":"\u4ee4\u548c3\u5e74\u5ea6 \u76ca\u7530\u7530\u4e07\u5ddd\u9053\u8def\u30c8\u30f3\u30cd\u30eb\u5730\u8cea\u89e3\u6790\u305d\u306e2\u696d\u52d9","client_name":"\u56fd\u571f\u4ea4\u901a\u7701\u4e2d\u56fd\u5730\u65b9\u6574\u5099\u5c40\u5c71\u9670\u897f\u90e8\u56fd\u9053\u4e8b\u52d9\u6240","boring_xml_url":47,"boring_view_url":1,"soilmap_view_url":null,"soiltest_xml_url":0,"soiltest_view_url":0},{"id":576564,"code":"NGIC202205576-0005","latitude":"34.665649111111","longitude":"131.70486036111","source_code":"","project_name":"","survey_name":"\u4ee4\u548c3\u5e74\u5ea6 \u76ca\u7530\u7530\u4e07\u5ddd\u9053\u8def\u30c8\u30f3\u30cd\u30eb\u5730\u8cea\u89e3\u6790\u305d\u306e2\u696d\u52d9","client_name":"\u56fd\u571f\u4ea4\u901a\u7701\u4e2d\u56fd\u5730\u65b9\u6574\u5099\u5c40\u5c71\u9670\u897f\u90e8\u56fd\u9053\u4e8b\u52d9\u6240","boring_xml_url":47,"boring_view_url":1,"soilmap_view_url":null,"soiltest_xml_url":0,"soiltest_view_url":0},{"id":576563,"code":"NGIC202205576-0004","latitude":"34.668954666667","longitude":"131.71428819444","source_code":"","project_name":"","survey_name":"\u4ee4\u548c3\u5e74\u5ea6 \u76ca\u7530\u7530\u4e07\u5ddd\u9053\u8def\u30c8\u30f3\u30cd\u30eb\u5730\u8cea\u89e3\u6790\u305d\u306e2\u696d\u52d9","client_name":"\u56fd\u571f\u4ea4\u901a\u7701\u4e2d\u56fd\u5730\u65b9\u6574\u5099\u5c40\u5c71\u9670\u897f\u90e8\u56fd\u9053\u4e8b\u52d9\u6240","boring_xml_url":47,"boring_view_url":1,"soilmap_view_url":null,"soiltest_xml_url":0,"soiltest_view_url":0},{"id":576562,"code":"NGIC202205576-0003","latitude":"34.668942666667","longitude":"131.71428783333","source_code":"","project_name":"","survey_name":"\u4ee4\u548c3\u5e74\u5ea6 \u76ca\u7530\u7530\u4e07\u5ddd\u9053\u8def\u30c8\u30f3\u30cd\u30eb\u5730\u8cea\u89e3\u6790\u305d\u306e2\u696d\u52d9","client_name":"\u56fd\u571f\u4ea4\u901a\u7701\u4e2d\u56fd\u5730\u65b9\u6574\u5099\u5c40\u5c71\u9670\u897f\u90e8\u56fd\u9053\u4e8b\u52d9\u6240","boring_xml_url":47,"boring_view_url":1,"soilmap_view_url":null,"soiltest_xml_url":0,"soiltest_view_url":0},{"id":576561,"code":"NGIC202205576-0002","latitude":"34.669234944444","longitude":"131.71498155556","source_code":"","project_name":"","survey_name":"\u4ee4\u548c3\u5e74\u5ea6 \u76ca\u7530\u7530\u4e07\u5ddd\u9053\u8def\u30c8\u30f3\u30cd\u30eb\u5730\u8cea\u89e3\u6790\u305d\u306e2\u696d\u52d9","client_name":"\u56fd\u571f\u4ea4\u901a\u7701\u4e2d\u56fd\u5730\u65b9\u6574\u5099\u5c40\u5c71\u9670\u897f\u90e8\u56fd\u9053\u4e8b\u52d9\u6240","boring_xml_url":47,"boring_view_url":1,"soilmap_view_url":null,"soiltest_xml_url":0,"soiltest_view_url":0},{"id":576560,"code":"NGIC202205576-0001","latitude":"34.6694245","longitude":"131.71546763889","source_code":"","project_name":"","survey_name":"\u4ee4\u548c3\u5e74\u5ea6 \u76ca\u7530\u7530\u4e07\u5ddd\u9053\u8def\u30c8\u30f3\u30cd\u30eb\u5730\u8cea\u89e3\u6790\u305d\u306e2\u696d\u52d9","client_name":"\u56fd\u571f\u4ea4\u901a\u7701\u4e2d\u56fd\u5730\u65b9\u6574\u5099\u5c40\u5c71\u9670\u897f\u90e8\u56fd\u9053\u4e8b\u52d9\u6240","boring_xml_url":47,"boring_view_url":1,"soilmap_view_url":null,"soiltest_xml_url":0,"soiltest_view_url":0},{"id":576558,"code":"NGIC202205220-0002","latitude":"33.507361111111","longitude":"133.857","source_code":"","project_name":"\u7a74\u5185\u7b2c2\u6a4bP1\u6a4b\u811a","survey_name":"\u4ee4\u548c4\u5e74\u5ea6\u5b89\u82b8\u5730\u533a\u6c34\u6587\u8abf\u67fb\u696d\u52d9","client_name":"\u56fd\u571f\u4ea4\u901a\u7701\u56db\u56fd\u5730\u65b9\u6574\u5099\u5c40\u571f\u4f50\u56fd\u9053\u4e8b\u52d9\u6240","boring_xml_url":47,"boring_view_url":1,"soilmap_view_url":null,"soiltest_xml_url":0,"soiltest_view_url":0},{"id":576557,"code":"NGIC202205220-0001","latitude":"33.519444444444","longitude":"133.79766666667","source_code":"","project_name":"\u548c\u98df\u5ddd\u6a4bP1\u6a4b\u811a\u7b87\u6240","survey_name":"\u4ee4\u548c4\u5e74\u5ea6\u5b89\u82b8\u5730\u533a\u6c34\u6587\u8abf\u67fb\u696d\u52d9","client_name":"\u56fd\u571f\u4ea4\u901a\u7701\u56db\u56fd\u5730\u65b9\u6574\u5099\u5c40\u571f\u4f50\u56fd\u9053\u4e8b\u52d9\u6240","boring_xml_url":47,"boring_view_url":1,"soilmap_view_url":null,"soiltest_xml_url":0,"soiltest_view_url":0},{"id":576519,"code":"NGIC202205392-0004","latitude":"33.272594444444","longitude":"130.29440833333","source_code":"","project_name":"","survey_name":"\u4f50\u8cc0\u770c\u8b66\u5bdf\u6a5f\u52d5\u968a\uff08R4\uff09\u6577\u5730\u8abf\u67fb\u696d\u52d9","client_name":"\u56fd\u571f\u4ea4\u901a\u7701\u4e5d\u5dde\u5730\u65b9\u6574\u5099\u5c40\u55b6\u7e55\u90e8","boring_xml_url":47,"boring_view_url":1,"soilmap_view_url":null,"soiltest_xml_url":0,"soiltest_view_url":0},{"id":576518,"code":"NGIC202205392-0003","latitude":"33.272630555556","longitude":"130.29523055556","source_code":"","project_name":"","survey_name":"\u4f50\u8cc0\u770c\u8b66\u5bdf\u6a5f\u52d5\u968a\uff08R4\uff09\u6577\u5730\u8abf\u67fb\u696d\u52d9","client_name":"\u56fd\u571f\u4ea4\u901a\u7701\u4e5d\u5dde\u5730\u65b9\u6574\u5099\u5c40\u55b6\u7e55\u90e8","boring_xml_url":47,"boring_view_url":1,"soilmap_view_url":null,"soiltest_xml_url":0,"soiltest_view_url":0},{"id":576517,"code":"NGIC202205392-0002","latitude":"33.272788888889","longitude":"130.29520555556","source_code":"","project_name":"","survey_name":"\u4f50\u8cc0\u770c\u8b66\u5bdf\u6a5f\u52d5\u968a\uff08R4\uff09\u6577\u5730\u8abf\u67fb\u696d\u52d9","client_name":"\u56fd\u571f\u4ea4\u901a\u7701\u4e5d\u5dde\u5730\u65b9\u6574\u5099\u5c40\u55b6\u7e55\u90e8","boring_xml_url":47,"boring_view_url":1,"soilmap_view_url":null,"soiltest_xml_url":47,"soiltest_view_url":47},{"id":576516,"code":"NGIC202205392-0001","latitude":"33.272663888889","longitude":"130.29479722222","source_code":"","project_name":"","survey_name":"\u4f50\u8cc0\u770c\u8b66\u5bdf\u6a5f\u52d5\u968a\uff08R4\uff09\u6577\u5730\u8abf\u67fb\u696d\u52d9","client_name":"\u56fd\u571f\u4ea4\u901a\u7701\u4e5d\u5dde\u5730\u65b9\u6574\u5099\u5c40\u55b6\u7e55\u90e8","boring_xml_url":47,"boring_view_url":1,"soilmap_view_url":null,"soiltest_xml_url":47,"soiltest_view_url":47}]}}