{"header":{"xyz":{"source":[],"mosaic":false},"page":2367,"raw":{"soiltest_result":"0","bbox":"57.598333,109.544722,1.933333,163.806111","page":"2367"},"conditions":{"soiltest_result":0,"north":57.598333,"west":109.544722,"south":1.933333,"east":163.806111},"success":true,"message":""},"data":{"meta":{"total":212844,"page":2367,"pages":7095,"count":30},"values":[{"id":279606,"code":"NGIC201900142-0020","latitude":"35.291938888889","longitude":"137.92121111111","source_code":"","project_name":"\u5e73\u621030\u5e74\u5ea6 \u5929\u7adc\u5ddd\u6c34\u7cfb\u6b64\u7530\u5730\u533a\u5730\u8cea\u8abf\u67fb\u696d\u52d9","survey_name":"\u5e73\u621030\u5e74\u5ea6 \u5929\u7adc\u5ddd\u6c34\u7cfb\u6b64\u7530\u5730\u533a\u5730\u8cea\u8abf\u67fb\u696d\u52d9","client_name":"\u56fd\u571f\u4ea4\u901a\u7701\u4e2d\u90e8\u5730\u65b9\u6574\u5099\u5c40\u5929\u7adc\u5ddd\u4e0a\u6d41\u6cb3\u5ddd\u4e8b\u52d9\u6240","boring_xml_url":47,"boring_view_url":1,"soilmap_view_url":null,"soiltest_xml_url":0,"soiltest_view_url":0},{"id":279605,"code":"NGIC201900142-0018","latitude":"35.291730555556","longitude":"137.91878055556","source_code":"","project_name":"\u5e73\u621030\u5e74\u5ea6 \u5929\u7adc\u5ddd\u6c34\u7cfb\u6b64\u7530\u5730\u533a\u5730\u8cea\u8abf\u67fb\u696d\u52d9","survey_name":"\u5e73\u621030\u5e74\u5ea6 \u5929\u7adc\u5ddd\u6c34\u7cfb\u6b64\u7530\u5730\u533a\u5730\u8cea\u8abf\u67fb\u696d\u52d9","client_name":"\u56fd\u571f\u4ea4\u901a\u7701\u4e2d\u90e8\u5730\u65b9\u6574\u5099\u5c40\u5929\u7adc\u5ddd\u4e0a\u6d41\u6cb3\u5ddd\u4e8b\u52d9\u6240","boring_xml_url":47,"boring_view_url":1,"soilmap_view_url":null,"soiltest_xml_url":0,"soiltest_view_url":0},{"id":279604,"code":"NGIC201900142-0016","latitude":"35.291138888889","longitude":"137.91896944444","source_code":"","project_name":"\u5e73\u621030\u5e74\u5ea6 \u5929\u7adc\u5ddd\u6c34\u7cfb\u6b64\u7530\u5730\u533a\u5730\u8cea\u8abf\u67fb\u696d\u52d9","survey_name":"\u5e73\u621030\u5e74\u5ea6 \u5929\u7adc\u5ddd\u6c34\u7cfb\u6b64\u7530\u5730\u533a\u5730\u8cea\u8abf\u67fb\u696d\u52d9","client_name":"\u56fd\u571f\u4ea4\u901a\u7701\u4e2d\u90e8\u5730\u65b9\u6574\u5099\u5c40\u5929\u7adc\u5ddd\u4e0a\u6d41\u6cb3\u5ddd\u4e8b\u52d9\u6240","boring_xml_url":47,"boring_view_url":1,"soilmap_view_url":null,"soiltest_xml_url":0,"soiltest_view_url":0},{"id":279603,"code":"NGIC201900142-0014","latitude":"35.291888888889","longitude":"137.91921944444","source_code":"","project_name":"\u5e73\u621030\u5e74\u5ea6 \u5929\u7adc\u5ddd\u6c34\u7cfb\u6b64\u7530\u5730\u533a\u5730\u8cea\u8abf\u67fb\u696d\u52d9","survey_name":"\u5e73\u621030\u5e74\u5ea6 \u5929\u7adc\u5ddd\u6c34\u7cfb\u6b64\u7530\u5730\u533a\u5730\u8cea\u8abf\u67fb\u696d\u52d9","client_name":"\u56fd\u571f\u4ea4\u901a\u7701\u4e2d\u90e8\u5730\u65b9\u6574\u5099\u5c40\u5929\u7adc\u5ddd\u4e0a\u6d41\u6cb3\u5ddd\u4e8b\u52d9\u6240","boring_xml_url":47,"boring_view_url":1,"soilmap_view_url":null,"soiltest_xml_url":0,"soiltest_view_url":0},{"id":279602,"code":"NGIC201900142-0012","latitude":"35.291461111111","longitude":"137.91956944444","source_code":"","project_name":"\u5e73\u621030\u5e74\u5ea6 \u5929\u7adc\u5ddd\u6c34\u7cfb\u6b64\u7530\u5730\u533a\u5730\u8cea\u8abf\u67fb\u696d\u52d9","survey_name":"\u5e73\u621030\u5e74\u5ea6 \u5929\u7adc\u5ddd\u6c34\u7cfb\u6b64\u7530\u5730\u533a\u5730\u8cea\u8abf\u67fb\u696d\u52d9","client_name":"\u56fd\u571f\u4ea4\u901a\u7701\u4e2d\u90e8\u5730\u65b9\u6574\u5099\u5c40\u5929\u7adc\u5ddd\u4e0a\u6d41\u6cb3\u5ddd\u4e8b\u52d9\u6240","boring_xml_url":47,"boring_view_url":1,"soilmap_view_url":null,"soiltest_xml_url":0,"soiltest_view_url":0},{"id":279601,"code":"NGIC201900142-0009","latitude":"35.292319444444","longitude":"137.9206","source_code":"","project_name":"\u5e73\u621030\u5e74\u5ea6 \u5929\u7adc\u5ddd\u6c34\u7cfb\u6b64\u7530\u5730\u533a\u5730\u8cea\u8abf\u67fb\u696d\u52d9","survey_name":"\u5e73\u621030\u5e74\u5ea6 \u5929\u7adc\u5ddd\u6c34\u7cfb\u6b64\u7530\u5730\u533a\u5730\u8cea\u8abf\u67fb\u696d\u52d9","client_name":"\u56fd\u571f\u4ea4\u901a\u7701\u4e2d\u90e8\u5730\u65b9\u6574\u5099\u5c40\u5929\u7adc\u5ddd\u4e0a\u6d41\u6cb3\u5ddd\u4e8b\u52d9\u6240","boring_xml_url":47,"boring_view_url":1,"soilmap_view_url":null,"soiltest_xml_url":0,"soiltest_view_url":0},{"id":279600,"code":"NGIC201900142-0007","latitude":"35.292380555556","longitude":"137.91968055556","source_code":"","project_name":"\u5e73\u621030\u5e74\u5ea6 \u5929\u7adc\u5ddd\u6c34\u7cfb\u6b64\u7530\u5730\u533a\u5730\u8cea\u8abf\u67fb\u696d\u52d9","survey_name":"\u5e73\u621030\u5e74\u5ea6 \u5929\u7adc\u5ddd\u6c34\u7cfb\u6b64\u7530\u5730\u533a\u5730\u8cea\u8abf\u67fb\u696d\u52d9","client_name":"\u56fd\u571f\u4ea4\u901a\u7701\u4e2d\u90e8\u5730\u65b9\u6574\u5099\u5c40\u5929\u7adc\u5ddd\u4e0a\u6d41\u6cb3\u5ddd\u4e8b\u52d9\u6240","boring_xml_url":47,"boring_view_url":1,"soilmap_view_url":null,"soiltest_xml_url":0,"soiltest_view_url":0},{"id":279599,"code":"NGIC201900142-0005","latitude":"35.292588888889","longitude":"137.91926111111","source_code":"","project_name":"\u5e73\u621030\u5e74\u5ea6 \u5929\u7adc\u5ddd\u6c34\u7cfb\u6b64\u7530\u5730\u533a\u5730\u8cea\u8abf\u67fb\u696d\u52d9","survey_name":"\u5e73\u621030\u5e74\u5ea6 \u5929\u7adc\u5ddd\u6c34\u7cfb\u6b64\u7530\u5730\u533a\u5730\u8cea\u8abf\u67fb\u696d\u52d9","client_name":"\u56fd\u571f\u4ea4\u901a\u7701\u4e2d\u90e8\u5730\u65b9\u6574\u5099\u5c40\u5929\u7adc\u5ddd\u4e0a\u6d41\u6cb3\u5ddd\u4e8b\u52d9\u6240","boring_xml_url":47,"boring_view_url":1,"soilmap_view_url":null,"soiltest_xml_url":0,"soiltest_view_url":0},{"id":279598,"code":"NGIC201900142-0002","latitude":"35.293030555556","longitude":"137.92033055556","source_code":"","project_name":"\u5e73\u621030\u5e74\u5ea6 \u5929\u7adc\u5ddd\u6c34\u7cfb\u6b64\u7530\u5730\u533a\u5730\u8cea\u8abf\u67fb\u696d\u52d9","survey_name":"\u5e73\u621030\u5e74\u5ea6 \u5929\u7adc\u5ddd\u6c34\u7cfb\u6b64\u7530\u5730\u533a\u5730\u8cea\u8abf\u67fb\u696d\u52d9","client_name":"\u56fd\u571f\u4ea4\u901a\u7701\u4e2d\u90e8\u5730\u65b9\u6574\u5099\u5c40\u5929\u7adc\u5ddd\u4e0a\u6d41\u6cb3\u5ddd\u4e8b\u52d9\u6240","boring_xml_url":47,"boring_view_url":1,"soilmap_view_url":null,"soiltest_xml_url":0,"soiltest_view_url":0},{"id":279597,"code":"NGIC201900145-0007","latitude":"35.1405","longitude":"138.51988888889","source_code":"","project_name":"\u9759\u56fd\u7ba1\u5185\u5730\u8cea\u8abf\u67fb","survey_name":"\u5e73\u621030\u5e74\u5ea6\u9759\u56fd\u7ba1\u5185\u5730\u8cea\u8abf\u67fb","client_name":"\u56fd\u571f\u4ea4\u901a\u7701\u4e2d\u90e8\u5730\u65b9\u6574\u5099\u5c40\u9759\u5ca1\u56fd\u9053\u4e8b\u52d9\u6240","boring_xml_url":47,"boring_view_url":1,"soilmap_view_url":null,"soiltest_xml_url":0,"soiltest_view_url":0},{"id":279596,"code":"NGIC201900145-0006","latitude":"35.002611111111","longitude":"138.37988888889","source_code":"","project_name":"\u9759\u56fd\u7ba1\u5185\u5730\u8cea\u8abf\u67fb","survey_name":"\u5e73\u621030\u5e74\u5ea6\u9759\u56fd\u7ba1\u5185\u5730\u8cea\u8abf\u67fb","client_name":"\u56fd\u571f\u4ea4\u901a\u7701\u4e2d\u90e8\u5730\u65b9\u6574\u5099\u5c40\u9759\u5ca1\u56fd\u9053\u4e8b\u52d9\u6240","boring_xml_url":47,"boring_view_url":1,"soilmap_view_url":null,"soiltest_xml_url":47,"soiltest_view_url":47},{"id":279595,"code":"NGIC201900145-0005","latitude":"35.002666666667","longitude":"138.37966666667","source_code":"","project_name":"\u9759\u56fd\u7ba1\u5185\u5730\u8cea\u8abf\u67fb","survey_name":"\u5e73\u621030\u5e74\u5ea6\u9759\u56fd\u7ba1\u5185\u5730\u8cea\u8abf\u67fb","client_name":"\u56fd\u571f\u4ea4\u901a\u7701\u4e2d\u90e8\u5730\u65b9\u6574\u5099\u5c40\u9759\u5ca1\u56fd\u9053\u4e8b\u52d9\u6240","boring_xml_url":47,"boring_view_url":1,"soilmap_view_url":null,"soiltest_xml_url":47,"soiltest_view_url":47},{"id":279594,"code":"NGIC201900145-0004","latitude":"34.940786111111","longitude":"138.32265833333","source_code":"","project_name":"\u9759\u56fd\u7ba1\u5185\u5730\u8cea\u8abf\u67fb","survey_name":"\u5e73\u621030\u5e74\u5ea6\u9759\u56fd\u7ba1\u5185\u5730\u8cea\u8abf\u67fb","client_name":"\u56fd\u571f\u4ea4\u901a\u7701\u4e2d\u90e8\u5730\u65b9\u6574\u5099\u5c40\u9759\u5ca1\u56fd\u9053\u4e8b\u52d9\u6240","boring_xml_url":47,"boring_view_url":1,"soilmap_view_url":null,"soiltest_xml_url":0,"soiltest_view_url":0},{"id":279593,"code":"NGIC201900145-0003","latitude":"34.940377777778","longitude":"138.32307222222","source_code":"","project_name":"\u9759\u56fd\u7ba1\u5185\u5730\u8cea\u8abf\u67fb","survey_name":"\u5e73\u621030\u5e74\u5ea6\u9759\u56fd\u7ba1\u5185\u5730\u8cea\u8abf\u67fb","client_name":"\u56fd\u571f\u4ea4\u901a\u7701\u4e2d\u90e8\u5730\u65b9\u6574\u5099\u5c40\u9759\u5ca1\u56fd\u9053\u4e8b\u52d9\u6240","boring_xml_url":47,"boring_view_url":1,"soilmap_view_url":null,"soiltest_xml_url":0,"soiltest_view_url":0},{"id":279592,"code":"NGIC201900145-0002","latitude":"34.939866666667","longitude":"138.32328055556","source_code":"","project_name":"\u9759\u56fd\u7ba1\u5185\u5730\u8cea\u8abf\u67fb","survey_name":"\u5e73\u621030\u5e74\u5ea6\u9759\u56fd\u7ba1\u5185\u5730\u8cea\u8abf\u67fb","client_name":"\u56fd\u571f\u4ea4\u901a\u7701\u4e2d\u90e8\u5730\u65b9\u6574\u5099\u5c40\u9759\u5ca1\u56fd\u9053\u4e8b\u52d9\u6240","boring_xml_url":47,"boring_view_url":1,"soilmap_view_url":null,"soiltest_xml_url":0,"soiltest_view_url":0},{"id":279591,"code":"NGIC201900145-0001","latitude":"34.939411111111","longitude":"138.324125","source_code":"","project_name":"\u9759\u56fd\u7ba1\u5185\u5730\u8cea\u8abf\u67fb","survey_name":"\u5e73\u621030\u5e74\u5ea6\u9759\u56fd\u7ba1\u5185\u5730\u8cea\u8abf\u67fb","client_name":"\u56fd\u571f\u4ea4\u901a\u7701\u4e2d\u90e8\u5730\u65b9\u6574\u5099\u5c40\u9759\u5ca1\u56fd\u9053\u4e8b\u52d9\u6240","boring_xml_url":47,"boring_view_url":1,"soilmap_view_url":null,"soiltest_xml_url":0,"soiltest_view_url":0},{"id":279586,"code":"NGIC201900133-0005","latitude":"32.469647222222","longitude":"130.64451388889","source_code":"","project_name":"","survey_name":"\u5e73\u621030\u30fb31\u5e74\u5ea6\u8888\u88df\u5802\u5ddd\u6cbb\u6c34\u5bfe\u7b56\u691c\u8a0e\u53ca\u3073\u8a2d\u8a08\u696d\u52d9","client_name":"\u56fd\u571f\u4ea4\u901a\u7701\u4e5d\u5dde\u5730\u65b9\u6574\u5099\u5c40\u516b\u4ee3\u6cb3\u5ddd\u56fd\u9053\u4e8b\u52d9\u6240","boring_xml_url":47,"boring_view_url":1,"soilmap_view_url":null,"soiltest_xml_url":47,"soiltest_view_url":47},{"id":279585,"code":"NGIC201900133-0004","latitude":"32.469908333333","longitude":"130.64415","source_code":"","project_name":"","survey_name":"\u5e73\u621030\u30fb31\u5e74\u5ea6\u8888\u88df\u5802\u5ddd\u6cbb\u6c34\u5bfe\u7b56\u691c\u8a0e\u53ca\u3073\u8a2d\u8a08\u696d\u52d9","client_name":"\u56fd\u571f\u4ea4\u901a\u7701\u4e5d\u5dde\u5730\u65b9\u6574\u5099\u5c40\u516b\u4ee3\u6cb3\u5ddd\u56fd\u9053\u4e8b\u52d9\u6240","boring_xml_url":47,"boring_view_url":1,"soilmap_view_url":null,"soiltest_xml_url":47,"soiltest_view_url":47},{"id":279584,"code":"NGIC201900133-0003","latitude":"32.469725","longitude":"130.644275","source_code":"","project_name":"","survey_name":"\u5e73\u621030\u30fb31\u5e74\u5ea6\u8888\u88df\u5802\u5ddd\u6cbb\u6c34\u5bfe\u7b56\u691c\u8a0e\u53ca\u3073\u8a2d\u8a08\u696d\u52d9","client_name":"\u56fd\u571f\u4ea4\u901a\u7701\u4e5d\u5dde\u5730\u65b9\u6574\u5099\u5c40\u516b\u4ee3\u6cb3\u5ddd\u56fd\u9053\u4e8b\u52d9\u6240","boring_xml_url":47,"boring_view_url":1,"soilmap_view_url":null,"soiltest_xml_url":47,"soiltest_view_url":47},{"id":279583,"code":"NGIC201900133-0002","latitude":"32.470272222222","longitude":"130.64385277778","source_code":"","project_name":"","survey_name":"\u5e73\u621030\u30fb31\u5e74\u5ea6\u8888\u88df\u5802\u5ddd\u6cbb\u6c34\u5bfe\u7b56\u691c\u8a0e\u53ca\u3073\u8a2d\u8a08\u696d\u52d9","client_name":"\u56fd\u571f\u4ea4\u901a\u7701\u4e5d\u5dde\u5730\u65b9\u6574\u5099\u5c40\u516b\u4ee3\u6cb3\u5ddd\u56fd\u9053\u4e8b\u52d9\u6240","boring_xml_url":47,"boring_view_url":1,"soilmap_view_url":null,"soiltest_xml_url":47,"soiltest_view_url":47},{"id":279582,"code":"NGIC201900133-0001","latitude":"32.469333333333","longitude":"130.64485277778","source_code":"","project_name":"","survey_name":"\u5e73\u621030\u30fb31\u5e74\u5ea6\u8888\u88df\u5802\u5ddd\u6cbb\u6c34\u5bfe\u7b56\u691c\u8a0e\u53ca\u3073\u8a2d\u8a08\u696d\u52d9","client_name":"\u56fd\u571f\u4ea4\u901a\u7701\u4e5d\u5dde\u5730\u65b9\u6574\u5099\u5c40\u516b\u4ee3\u6cb3\u5ddd\u56fd\u9053\u4e8b\u52d9\u6240","boring_xml_url":47,"boring_view_url":1,"soilmap_view_url":null,"soiltest_xml_url":47,"soiltest_view_url":47},{"id":279581,"code":"NGIC201900118-0002","latitude":"31.788954361111","longitude":"130.72707875","source_code":"","project_name":"","survey_name":"\u5e73\u621031\u5e74\u5ea6 \u9e7f\u5150\u5cf6\u7a7a\u6e2f\u6ed1\u8d70\u8def\u7aef\u5b89\u5168\u533a\u57df(\u5357\u5074)\u571f\u8cea\u8abf\u67fb","client_name":"\u56fd\u571f\u4ea4\u901a\u7701\u4e5d\u5dde\u5730\u65b9\u6574\u5099\u5c40\u9e7f\u5150\u5cf6\u6e2f\u6e7e\u30fb\u7a7a\u6e2f\u6574\u5099\u4e8b\u52d9\u6240","boring_xml_url":47,"boring_view_url":1,"soilmap_view_url":null,"soiltest_xml_url":0,"soiltest_view_url":0},{"id":279580,"code":"NGIC201900118-0001","latitude":"31.78940825","longitude":"130.72694377778","source_code":"","project_name":"","survey_name":"\u5e73\u621031\u5e74\u5ea6 \u9e7f\u5150\u5cf6\u7a7a\u6e2f\u6ed1\u8d70\u8def\u7aef\u5b89\u5168\u533a\u57df(\u5357\u5074)\u571f\u8cea\u8abf\u67fb","client_name":"\u56fd\u571f\u4ea4\u901a\u7701\u4e5d\u5dde\u5730\u65b9\u6574\u5099\u5c40\u9e7f\u5150\u5cf6\u6e2f\u6e7e\u30fb\u7a7a\u6e2f\u6574\u5099\u4e8b\u52d9\u6240","boring_xml_url":47,"boring_view_url":1,"soilmap_view_url":null,"soiltest_xml_url":0,"soiltest_view_url":0},{"id":279575,"code":"NGIC201900136-0003","latitude":"32.973965861111","longitude":"131.92379475","source_code":"","project_name":"","survey_name":"\u5e73\u621031\u5e74\u5ea6\u4f50\u4f2f\u6e2f(\u5973\u5cf6\u5730\u533a)\u5cb8\u58c1(-10m)(\u6539\u826f)\u571f\u8cea\u8abf\u67fb","client_name":"\u56fd\u571f\u4ea4\u901a\u7701\u4e5d\u5dde\u5730\u65b9\u6574\u5099\u5c40\u5225\u5e9c\u6e2f\u6e7e\uff65\u7a7a\u6e2f\u6574\u5099\u4e8b\u52d9\u6240","boring_xml_url":47,"boring_view_url":1,"soilmap_view_url":71,"soiltest_xml_url":47,"soiltest_view_url":47},{"id":279574,"code":"NGIC201900136-0002","latitude":"32.974045194444","longitude":"131.92274916667","source_code":"","project_name":"","survey_name":"\u5e73\u621031\u5e74\u5ea6\u4f50\u4f2f\u6e2f(\u5973\u5cf6\u5730\u533a)\u5cb8\u58c1(-10m)(\u6539\u826f)\u571f\u8cea\u8abf\u67fb","client_name":"\u56fd\u571f\u4ea4\u901a\u7701\u4e5d\u5dde\u5730\u65b9\u6574\u5099\u5c40\u5225\u5e9c\u6e2f\u6e7e\uff65\u7a7a\u6e2f\u6574\u5099\u4e8b\u52d9\u6240","boring_xml_url":47,"boring_view_url":1,"soilmap_view_url":71,"soiltest_xml_url":47,"soiltest_view_url":47},{"id":279573,"code":"NGIC201900136-0001","latitude":"32.974592777778","longitude":"131.92173269444","source_code":"","project_name":"","survey_name":"\u5e73\u621031\u5e74\u5ea6\u4f50\u4f2f\u6e2f(\u5973\u5cf6\u5730\u533a)\u5cb8\u58c1(-10m)(\u6539\u826f)\u571f\u8cea\u8abf\u67fb","client_name":"\u56fd\u571f\u4ea4\u901a\u7701\u4e5d\u5dde\u5730\u65b9\u6574\u5099\u5c40\u5225\u5e9c\u6e2f\u6e7e\uff65\u7a7a\u6e2f\u6574\u5099\u4e8b\u52d9\u6240","boring_xml_url":47,"boring_view_url":1,"soilmap_view_url":71,"soiltest_xml_url":47,"soiltest_view_url":47},{"id":279572,"code":"NGIC201900127-0002","latitude":"34.451388888889","longitude":"132.50381111111","source_code":"","project_name":"","survey_name":"\u5e83\u5cf6\u897f\u90e8\u5c71\u7cfb\u5009\u91cd\u5730\u533a\u7802\u9632\u5830\u5824\u8a73\u7d30\u8a2d\u8a08\u5916\u696d\u52d9","client_name":"\u56fd\u571f\u4ea4\u901a\u7701\u4e2d\u56fd\u5730\u65b9\u6574\u5099\u5c40\u5e83\u5cf6\u897f\u90e8\u5c71\u7cfb\u7802\u9632\u4e8b\u52d9\u6240\u8abf\u67fb\u8ab2","boring_xml_url":47,"boring_view_url":1,"soilmap_view_url":null,"soiltest_xml_url":0,"soiltest_view_url":0},{"id":279571,"code":"NGIC201900127-0001","latitude":"34.451486111111","longitude":"132.50375555556","source_code":"","project_name":"","survey_name":"\u5e83\u5cf6\u897f\u90e8\u5c71\u7cfb\u5009\u91cd\u5730\u533a\u7802\u9632\u5830\u5824\u8a73\u7d30\u8a2d\u8a08\u5916\u696d\u52d9","client_name":"\u56fd\u571f\u4ea4\u901a\u7701\u4e2d\u56fd\u5730\u65b9\u6574\u5099\u5c40\u5e83\u5cf6\u897f\u90e8\u5c71\u7cfb\u7802\u9632\u4e8b\u52d9\u6240\u8abf\u67fb\u8ab2","boring_xml_url":47,"boring_view_url":1,"soilmap_view_url":null,"soiltest_xml_url":0,"soiltest_view_url":0},{"id":279570,"code":"NGIC201900106-0011","latitude":"32.713199916667","longitude":"130.62937969444","source_code":"","project_name":"","survey_name":"\u7dd1\u5ddd\u5730\u8cea\u8abf\u67fb\u696d\u52d9","client_name":"\u56fd\u571f\u4ea4\u901a\u7701\u4e5d\u5dde\u5730\u65b9\u6574\u5099\u5c40\u718a\u672c\u6cb3\u5ddd\u56fd\u9053\u4e8b\u52d9\u6240 \u8abf\u67fb\u7b2c\u4e00\u8ab2","boring_xml_url":47,"boring_view_url":1,"soilmap_view_url":null,"soiltest_xml_url":47,"soiltest_view_url":47},{"id":279569,"code":"NGIC201900106-0010","latitude":"32.713103861111","longitude":"130.62933952778","source_code":"","project_name":"","survey_name":"\u7dd1\u5ddd\u5730\u8cea\u8abf\u67fb\u696d\u52d9","client_name":"\u56fd\u571f\u4ea4\u901a\u7701\u4e5d\u5dde\u5730\u65b9\u6574\u5099\u5c40\u718a\u672c\u6cb3\u5ddd\u56fd\u9053\u4e8b\u52d9\u6240 \u8abf\u67fb\u7b2c\u4e00\u8ab2","boring_xml_url":47,"boring_view_url":1,"soilmap_view_url":null,"soiltest_xml_url":47,"soiltest_view_url":47}]}}