{"header":{"xyz":{"source":[],"mosaic":false},"page":2368,"raw":{"soiltest_result":"0","bbox":"57.598333,109.544722,1.933333,163.806111","page":"2368"},"conditions":{"soiltest_result":0,"north":57.598333,"west":109.544722,"south":1.933333,"east":163.806111},"success":true,"message":""},"data":{"meta":{"total":212844,"page":2368,"pages":7095,"count":30},"values":[{"id":279568,"code":"NGIC201900106-0009","latitude":"32.712939805556","longitude":"130.62927811111","source_code":"","project_name":"","survey_name":"\u7dd1\u5ddd\u5730\u8cea\u8abf\u67fb\u696d\u52d9","client_name":"\u56fd\u571f\u4ea4\u901a\u7701\u4e5d\u5dde\u5730\u65b9\u6574\u5099\u5c40\u718a\u672c\u6cb3\u5ddd\u56fd\u9053\u4e8b\u52d9\u6240 \u8abf\u67fb\u7b2c\u4e00\u8ab2","boring_xml_url":47,"boring_view_url":1,"soilmap_view_url":null,"soiltest_xml_url":47,"soiltest_view_url":47},{"id":279567,"code":"NGIC201900106-0008","latitude":"32.712782416667","longitude":"130.62922119444","source_code":"","project_name":"","survey_name":"\u7dd1\u5ddd\u5730\u8cea\u8abf\u67fb\u696d\u52d9","client_name":"\u56fd\u571f\u4ea4\u901a\u7701\u4e5d\u5dde\u5730\u65b9\u6574\u5099\u5c40\u718a\u672c\u6cb3\u5ddd\u56fd\u9053\u4e8b\u52d9\u6240 \u8abf\u67fb\u7b2c\u4e00\u8ab2","boring_xml_url":47,"boring_view_url":1,"soilmap_view_url":null,"soiltest_xml_url":47,"soiltest_view_url":47},{"id":279566,"code":"NGIC201900106-0007","latitude":"32.643589916667","longitude":"130.80775322222","source_code":"","project_name":"","survey_name":"\u7dd1\u5ddd\u5730\u8cea\u8abf\u67fb\u696d\u52d9","client_name":"\u56fd\u571f\u4ea4\u901a\u7701\u4e5d\u5dde\u5730\u65b9\u6574\u5099\u5c40\u718a\u672c\u6cb3\u5ddd\u56fd\u9053\u4e8b\u52d9\u6240 \u8abf\u67fb\u7b2c\u4e00\u8ab2","boring_xml_url":47,"boring_view_url":1,"soilmap_view_url":null,"soiltest_xml_url":47,"soiltest_view_url":47},{"id":279565,"code":"NGIC201900106-0006","latitude":"32.657106555556","longitude":"130.80176902778","source_code":"","project_name":"","survey_name":"\u7dd1\u5ddd\u5730\u8cea\u8abf\u67fb\u696d\u52d9","client_name":"\u56fd\u571f\u4ea4\u901a\u7701\u4e5d\u5dde\u5730\u65b9\u6574\u5099\u5c40\u718a\u672c\u6cb3\u5ddd\u56fd\u9053\u4e8b\u52d9\u6240 \u8abf\u67fb\u7b2c\u4e00\u8ab2","boring_xml_url":47,"boring_view_url":1,"soilmap_view_url":null,"soiltest_xml_url":47,"soiltest_view_url":47},{"id":279564,"code":"NGIC201900106-0005","latitude":"32.681228916667","longitude":"130.80197738889","source_code":"","project_name":"","survey_name":"\u7dd1\u5ddd\u5730\u8cea\u8abf\u67fb\u696d\u52d9","client_name":"\u56fd\u571f\u4ea4\u901a\u7701\u4e5d\u5dde\u5730\u65b9\u6574\u5099\u5c40\u718a\u672c\u6cb3\u5ddd\u56fd\u9053\u4e8b\u52d9\u6240 \u8abf\u67fb\u7b2c\u4e00\u8ab2","boring_xml_url":47,"boring_view_url":1,"soilmap_view_url":null,"soiltest_xml_url":47,"soiltest_view_url":47},{"id":279563,"code":"NGIC201900106-0004","latitude":"32.68329825","longitude":"130.80007947222","source_code":"","project_name":"","survey_name":"\u7dd1\u5ddd\u5730\u8cea\u8abf\u67fb\u696d\u52d9","client_name":"\u56fd\u571f\u4ea4\u901a\u7701\u4e5d\u5dde\u5730\u65b9\u6574\u5099\u5c40\u718a\u672c\u6cb3\u5ddd\u56fd\u9053\u4e8b\u52d9\u6240 \u8abf\u67fb\u7b2c\u4e00\u8ab2","boring_xml_url":47,"boring_view_url":1,"soilmap_view_url":null,"soiltest_xml_url":47,"soiltest_view_url":47},{"id":279562,"code":"NGIC201900106-0003","latitude":"32.729320416667","longitude":"130.75623736111","source_code":"","project_name":"","survey_name":"\u7dd1\u5ddd\u5730\u8cea\u8abf\u67fb\u696d\u52d9","client_name":"\u56fd\u571f\u4ea4\u901a\u7701\u4e5d\u5dde\u5730\u65b9\u6574\u5099\u5c40\u718a\u672c\u6cb3\u5ddd\u56fd\u9053\u4e8b\u52d9\u6240 \u8abf\u67fb\u7b2c\u4e00\u8ab2","boring_xml_url":47,"boring_view_url":1,"soilmap_view_url":null,"soiltest_xml_url":47,"soiltest_view_url":47},{"id":279561,"code":"NGIC201900106-0002","latitude":"32.736144388889","longitude":"130.72095758333","source_code":"","project_name":"","survey_name":"\u7dd1\u5ddd\u5730\u8cea\u8abf\u67fb\u696d\u52d9","client_name":"\u56fd\u571f\u4ea4\u901a\u7701\u4e5d\u5dde\u5730\u65b9\u6574\u5099\u5c40\u718a\u672c\u6cb3\u5ddd\u56fd\u9053\u4e8b\u52d9\u6240 \u8abf\u67fb\u7b2c\u4e00\u8ab2","boring_xml_url":47,"boring_view_url":1,"soilmap_view_url":null,"soiltest_xml_url":47,"soiltest_view_url":47},{"id":279560,"code":"NGIC201900106-0001","latitude":"32.731046777778","longitude":"130.68997597222","source_code":"","project_name":"","survey_name":"\u7dd1\u5ddd\u5730\u8cea\u8abf\u67fb\u696d\u52d9","client_name":"\u56fd\u571f\u4ea4\u901a\u7701\u4e5d\u5dde\u5730\u65b9\u6574\u5099\u5c40\u718a\u672c\u6cb3\u5ddd\u56fd\u9053\u4e8b\u52d9\u6240 \u8abf\u67fb\u7b2c\u4e00\u8ab2","boring_xml_url":47,"boring_view_url":1,"soilmap_view_url":null,"soiltest_xml_url":47,"soiltest_view_url":47},{"id":279554,"code":"NGIC201900134-0017","latitude":"36.260588888889","longitude":"139.88926666667","source_code":"","project_name":"","survey_name":"H30\u4e0b\u9928\u7ba1\u5185\u5730\u8cea\u8abf\u67fb\uff08\u305d\u306e2\uff09\u696d\u52d9","client_name":"\u56fd\u571f\u4ea4\u901a\u7701\u95a2\u6771\u5730\u65b9\u6574\u5099\u5c40\u4e0b\u9928\u6cb3\u5ddd\u4e8b\u52d9\u6240","boring_xml_url":47,"boring_view_url":1,"soilmap_view_url":null,"soiltest_xml_url":0,"soiltest_view_url":0},{"id":279553,"code":"NGIC201900134-0016","latitude":"36.261163888889","longitude":"139.88926388889","source_code":"","project_name":"","survey_name":"H30\u4e0b\u9928\u7ba1\u5185\u5730\u8cea\u8abf\u67fb\uff08\u305d\u306e2\uff09\u696d\u52d9","client_name":"\u56fd\u571f\u4ea4\u901a\u7701\u95a2\u6771\u5730\u65b9\u6574\u5099\u5c40\u4e0b\u9928\u6cb3\u5ddd\u4e8b\u52d9\u6240","boring_xml_url":47,"boring_view_url":1,"soilmap_view_url":null,"soiltest_xml_url":0,"soiltest_view_url":0},{"id":279552,"code":"NGIC201900134-0015","latitude":"36.261313888889","longitude":"139.88940555556","source_code":"","project_name":"","survey_name":"H30\u4e0b\u9928\u7ba1\u5185\u5730\u8cea\u8abf\u67fb\uff08\u305d\u306e2\uff09\u696d\u52d9","client_name":"\u56fd\u571f\u4ea4\u901a\u7701\u95a2\u6771\u5730\u65b9\u6574\u5099\u5c40\u4e0b\u9928\u6cb3\u5ddd\u4e8b\u52d9\u6240","boring_xml_url":47,"boring_view_url":1,"soilmap_view_url":null,"soiltest_xml_url":47,"soiltest_view_url":47},{"id":279551,"code":"NGIC201900134-0014","latitude":"36.261472222222","longitude":"139.88958333333","source_code":"","project_name":"","survey_name":"H30\u4e0b\u9928\u7ba1\u5185\u5730\u8cea\u8abf\u67fb\uff08\u305d\u306e2\uff09\u696d\u52d9","client_name":"\u56fd\u571f\u4ea4\u901a\u7701\u95a2\u6771\u5730\u65b9\u6574\u5099\u5c40\u4e0b\u9928\u6cb3\u5ddd\u4e8b\u52d9\u6240","boring_xml_url":47,"boring_view_url":1,"soilmap_view_url":null,"soiltest_xml_url":47,"soiltest_view_url":47},{"id":279550,"code":"NGIC201900134-0013","latitude":"36.262005555556","longitude":"139.89017222222","source_code":"","project_name":"","survey_name":"H30\u4e0b\u9928\u7ba1\u5185\u5730\u8cea\u8abf\u67fb\uff08\u305d\u306e2\uff09\u696d\u52d9","client_name":"\u56fd\u571f\u4ea4\u901a\u7701\u95a2\u6771\u5730\u65b9\u6574\u5099\u5c40\u4e0b\u9928\u6cb3\u5ddd\u4e8b\u52d9\u6240","boring_xml_url":47,"boring_view_url":1,"soilmap_view_url":null,"soiltest_xml_url":0,"soiltest_view_url":0},{"id":279549,"code":"NGIC201900134-0012","latitude":"35.987572222222","longitude":"139.97200833333","source_code":"","project_name":"","survey_name":"H30\u4e0b\u9928\u7ba1\u5185\u5730\u8cea\u8abf\u67fb\uff08\u305d\u306e2\uff09\u696d\u52d9","client_name":"\u56fd\u571f\u4ea4\u901a\u7701\u95a2\u6771\u5730\u65b9\u6574\u5099\u5c40\u4e0b\u9928\u6cb3\u5ddd\u4e8b\u52d9\u6240","boring_xml_url":47,"boring_view_url":1,"soilmap_view_url":null,"soiltest_xml_url":47,"soiltest_view_url":47},{"id":279548,"code":"NGIC201900134-0011","latitude":"35.987480555556","longitude":"139.97223611111","source_code":"","project_name":"","survey_name":"H30\u4e0b\u9928\u7ba1\u5185\u5730\u8cea\u8abf\u67fb\uff08\u305d\u306e2\uff09\u696d\u52d9","client_name":"\u56fd\u571f\u4ea4\u901a\u7701\u95a2\u6771\u5730\u65b9\u6574\u5099\u5c40\u4e0b\u9928\u6cb3\u5ddd\u4e8b\u52d9\u6240","boring_xml_url":47,"boring_view_url":1,"soilmap_view_url":null,"soiltest_xml_url":47,"soiltest_view_url":47},{"id":279547,"code":"NGIC201900134-0010","latitude":"36.282794444444","longitude":"139.90628888889","source_code":"","project_name":"","survey_name":"H30\u4e0b\u9928\u7ba1\u5185\u5730\u8cea\u8abf\u67fb\uff08\u305d\u306e2\uff09\u696d\u52d9","client_name":"\u56fd\u571f\u4ea4\u901a\u7701\u95a2\u6771\u5730\u65b9\u6574\u5099\u5c40\u4e0b\u9928\u6cb3\u5ddd\u4e8b\u52d9\u6240","boring_xml_url":47,"boring_view_url":1,"soilmap_view_url":null,"soiltest_xml_url":47,"soiltest_view_url":47},{"id":279546,"code":"NGIC201900134-0009","latitude":"36.281858333333","longitude":"139.90638611111","source_code":"","project_name":"","survey_name":"H30\u4e0b\u9928\u7ba1\u5185\u5730\u8cea\u8abf\u67fb\uff08\u305d\u306e2\uff09\u696d\u52d9","client_name":"\u56fd\u571f\u4ea4\u901a\u7701\u95a2\u6771\u5730\u65b9\u6574\u5099\u5c40\u4e0b\u9928\u6cb3\u5ddd\u4e8b\u52d9\u6240","boring_xml_url":47,"boring_view_url":1,"soilmap_view_url":null,"soiltest_xml_url":47,"soiltest_view_url":47},{"id":279545,"code":"NGIC201900134-0008","latitude":"36.279966666667","longitude":"139.90612222222","source_code":"","project_name":"","survey_name":"H30\u4e0b\u9928\u7ba1\u5185\u5730\u8cea\u8abf\u67fb\uff08\u305d\u306e2\uff09\u696d\u52d9","client_name":"\u56fd\u571f\u4ea4\u901a\u7701\u95a2\u6771\u5730\u65b9\u6574\u5099\u5c40\u4e0b\u9928\u6cb3\u5ddd\u4e8b\u52d9\u6240","boring_xml_url":47,"boring_view_url":1,"soilmap_view_url":null,"soiltest_xml_url":47,"soiltest_view_url":47},{"id":279544,"code":"NGIC201900134-0007","latitude":"36.271772222222","longitude":"139.90664166667","source_code":"","project_name":"","survey_name":"H30\u4e0b\u9928\u7ba1\u5185\u5730\u8cea\u8abf\u67fb\uff08\u305d\u306e2\uff09\u696d\u52d9","client_name":"\u56fd\u571f\u4ea4\u901a\u7701\u95a2\u6771\u5730\u65b9\u6574\u5099\u5c40\u4e0b\u9928\u6cb3\u5ddd\u4e8b\u52d9\u6240","boring_xml_url":47,"boring_view_url":1,"soilmap_view_url":null,"soiltest_xml_url":47,"soiltest_view_url":47},{"id":279543,"code":"NGIC201900134-0006","latitude":"36.273177777778","longitude":"139.90568611111","source_code":"","project_name":"","survey_name":"H30\u4e0b\u9928\u7ba1\u5185\u5730\u8cea\u8abf\u67fb\uff08\u305d\u306e2\uff09\u696d\u52d9","client_name":"\u56fd\u571f\u4ea4\u901a\u7701\u95a2\u6771\u5730\u65b9\u6574\u5099\u5c40\u4e0b\u9928\u6cb3\u5ddd\u4e8b\u52d9\u6240","boring_xml_url":47,"boring_view_url":1,"soilmap_view_url":null,"soiltest_xml_url":47,"soiltest_view_url":47},{"id":279542,"code":"NGIC201900134-0005","latitude":"36.200486111111","longitude":"139.91821388889","source_code":"","project_name":"","survey_name":"H30\u4e0b\u9928\u7ba1\u5185\u5730\u8cea\u8abf\u67fb\uff08\u305d\u306e2\uff09\u696d\u52d9","client_name":"\u56fd\u571f\u4ea4\u901a\u7701\u95a2\u6771\u5730\u65b9\u6574\u5099\u5c40\u4e0b\u9928\u6cb3\u5ddd\u4e8b\u52d9\u6240","boring_xml_url":47,"boring_view_url":1,"soilmap_view_url":null,"soiltest_xml_url":47,"soiltest_view_url":47},{"id":279541,"code":"NGIC201900134-0004","latitude":"36.261222222222","longitude":"139.88961666667","source_code":"","project_name":"","survey_name":"H30\u4e0b\u9928\u7ba1\u5185\u5730\u8cea\u8abf\u67fb\uff08\u305d\u306e2\uff09\u696d\u52d9","client_name":"\u56fd\u571f\u4ea4\u901a\u7701\u95a2\u6771\u5730\u65b9\u6574\u5099\u5c40\u4e0b\u9928\u6cb3\u5ddd\u4e8b\u52d9\u6240","boring_xml_url":47,"boring_view_url":1,"soilmap_view_url":null,"soiltest_xml_url":0,"soiltest_view_url":0},{"id":279540,"code":"NGIC201900134-0003","latitude":"36.261858333333","longitude":"139.89035555556","source_code":"","project_name":"","survey_name":"H30\u4e0b\u9928\u7ba1\u5185\u5730\u8cea\u8abf\u67fb\uff08\u305d\u306e2\uff09\u696d\u52d9","client_name":"\u56fd\u571f\u4ea4\u901a\u7701\u95a2\u6771\u5730\u65b9\u6574\u5099\u5c40\u4e0b\u9928\u6cb3\u5ddd\u4e8b\u52d9\u6240","boring_xml_url":47,"boring_view_url":1,"soilmap_view_url":null,"soiltest_xml_url":0,"soiltest_view_url":0},{"id":279539,"code":"NGIC201900134-0002","latitude":"36.260936111111","longitude":"139.88912777778","source_code":"","project_name":"","survey_name":"H30\u4e0b\u9928\u7ba1\u5185\u5730\u8cea\u8abf\u67fb\uff08\u305d\u306e2\uff09\u696d\u52d9","client_name":"\u56fd\u571f\u4ea4\u901a\u7701\u95a2\u6771\u5730\u65b9\u6574\u5099\u5c40\u4e0b\u9928\u6cb3\u5ddd\u4e8b\u52d9\u6240","boring_xml_url":47,"boring_view_url":1,"soilmap_view_url":null,"soiltest_xml_url":0,"soiltest_view_url":0},{"id":279538,"code":"NGIC201900134-0001","latitude":"36.261044444444","longitude":"139.88941111111","source_code":"","project_name":"","survey_name":"H30\u4e0b\u9928\u7ba1\u5185\u5730\u8cea\u8abf\u67fb\uff08\u305d\u306e2\uff09\u696d\u52d9","client_name":"\u56fd\u571f\u4ea4\u901a\u7701\u95a2\u6771\u5730\u65b9\u6574\u5099\u5c40\u4e0b\u9928\u6cb3\u5ddd\u4e8b\u52d9\u6240","boring_xml_url":47,"boring_view_url":1,"soilmap_view_url":null,"soiltest_xml_url":47,"soiltest_view_url":47},{"id":279519,"code":"NGIC201900122-0004","latitude":"41.791106111111","longitude":"140.61874888889","source_code":"","project_name":"","survey_name":"\u4e00\u822c\u56fd\u9053228\u53f7 \u5317\u6597\u5e02 \u77e2\u4e0d\u6765\u7dca\u6025\u5730\u8cea\u8abf\u67fb\u696d\u52d9","client_name":"\u56fd\u571f\u4ea4\u901a\u7701\u5317\u6d77\u9053\u958b\u767a\u5c40\u51fd\u9928\u958b\u767a\u5efa\u8a2d\u90e8\u672c\u90e8","boring_xml_url":47,"boring_view_url":1,"soilmap_view_url":null,"soiltest_xml_url":0,"soiltest_view_url":0},{"id":279518,"code":"NGIC201900122-0003","latitude":"41.792225","longitude":"140.61850916667","source_code":"","project_name":"","survey_name":"\u4e00\u822c\u56fd\u9053228\u53f7 \u5317\u6597\u5e02 \u77e2\u4e0d\u6765\u7dca\u6025\u5730\u8cea\u8abf\u67fb\u696d\u52d9","client_name":"\u56fd\u571f\u4ea4\u901a\u7701\u5317\u6d77\u9053\u958b\u767a\u5c40\u51fd\u9928\u958b\u767a\u5efa\u8a2d\u90e8\u672c\u90e8","boring_xml_url":47,"boring_view_url":1,"soilmap_view_url":null,"soiltest_xml_url":0,"soiltest_view_url":0},{"id":279517,"code":"NGIC201900122-0002","latitude":"41.793040555556","longitude":"140.61850555556","source_code":"","project_name":"","survey_name":"\u4e00\u822c\u56fd\u9053228\u53f7 \u5317\u6597\u5e02 \u77e2\u4e0d\u6765\u7dca\u6025\u5730\u8cea\u8abf\u67fb\u696d\u52d9","client_name":"\u56fd\u571f\u4ea4\u901a\u7701\u5317\u6d77\u9053\u958b\u767a\u5c40\u51fd\u9928\u958b\u767a\u5efa\u8a2d\u90e8\u672c\u90e8","boring_xml_url":47,"boring_view_url":1,"soilmap_view_url":null,"soiltest_xml_url":0,"soiltest_view_url":0},{"id":279516,"code":"NGIC201900122-0001","latitude":"41.793510833333","longitude":"140.61848527778","source_code":"","project_name":"","survey_name":"\u4e00\u822c\u56fd\u9053228\u53f7 \u5317\u6597\u5e02 \u77e2\u4e0d\u6765\u7dca\u6025\u5730\u8cea\u8abf\u67fb\u696d\u52d9","client_name":"\u56fd\u571f\u4ea4\u901a\u7701\u5317\u6d77\u9053\u958b\u767a\u5c40\u51fd\u9928\u958b\u767a\u5efa\u8a2d\u90e8\u672c\u90e8","boring_xml_url":47,"boring_view_url":1,"soilmap_view_url":null,"soiltest_xml_url":0,"soiltest_view_url":0}]}}