{"header":{"xyz":{"source":[],"mosaic":false},"page":2371,"raw":{"soiltest_result":"0","bbox":"57.598333,109.544722,1.933333,163.806111","page":"2371"},"conditions":{"soiltest_result":0,"north":57.598333,"west":109.544722,"south":1.933333,"east":163.806111},"success":true,"message":""},"data":{"meta":{"total":212844,"page":2371,"pages":7095,"count":30},"values":[{"id":263238,"code":"NGIC201900109-0002","latitude":"35.104886111111","longitude":"137.80311388889","source_code":"","project_name":"\u5e73\u621030\u5e74\u5ea6\u5929\u7adc\u5ddd\u30c0\u30e0\u5730\u8cea\u8abf\u67fb\u696d\u52d9","survey_name":"\u5e73\u621030\u5e74\u5ea6\u5929\u7adc\u5ddd\u30c0\u30e0\u5730\u8cea\u8abf\u67fb\u696d\u52d9","client_name":"\u56fd\u571f\u4ea4\u901a\u7701\u4e2d\u90e8\u5730\u65b9\u6574\u5099\u5c40\u6d5c\u677e\u6cb3\u5ddd\u56fd\u9053\u4e8b\u52d9\u6240","boring_xml_url":47,"boring_view_url":1,"soilmap_view_url":null,"soiltest_xml_url":0,"soiltest_view_url":0},{"id":263237,"code":"NGIC201900109-0001","latitude":"35.098611111111","longitude":"137.79588611111","source_code":"","project_name":"\u5e73\u621030\u5e74\u5ea6\u5929\u7adc\u5ddd\u30c0\u30e0\u5730\u8cea\u8abf\u67fb\u696d\u52d9","survey_name":"\u5e73\u621030\u5e74\u5ea6\u5929\u7adc\u5ddd\u30c0\u30e0\u5730\u8cea\u8abf\u67fb\u696d\u52d9","client_name":"\u56fd\u571f\u4ea4\u901a\u7701\u4e2d\u90e8\u5730\u65b9\u6574\u5099\u5c40\u6d5c\u677e\u6cb3\u5ddd\u56fd\u9053\u4e8b\u52d9\u6240","boring_xml_url":47,"boring_view_url":1,"soilmap_view_url":null,"soiltest_xml_url":0,"soiltest_view_url":0},{"id":263236,"code":"NGIC201900103-0002","latitude":"36.838669444444","longitude":"138.77910277778","source_code":"","project_name":"H31\u9577\u5ca1\u56fd\u9053\u7ba1\u5185\u5730\u8cea\u8abf\u67fb\u696d\u52d9(\u5358\u4fa1\u5951\u7d04)\u4e8c\u5c45\u9664\u96ea\u57fa\u5730\u5efa\u5c4b\u5730\u8cea\u8abf\u67fb","survey_name":"H31\u9577\u5ca1\u56fd\u9053\u7ba1\u5185\u5730\u8cea\u8abf\u67fb\u696d\u52d9(\u5358\u4fa1\u5951\u7d04)\u4e8c\u5c45\u9664\u96ea\u57fa\u5730\u5efa\u5c4b\u5730\u8cea\u8abf\u67fb","client_name":"\u56fd\u571f\u4ea4\u901a\u7701\u5317\u9678\u5730\u65b9\u6574\u5099\u5c40\u9577\u5ca1\u56fd\u9053\u4e8b\u52d9\u6240","boring_xml_url":47,"boring_view_url":1,"soilmap_view_url":null,"soiltest_xml_url":0,"soiltest_view_url":0},{"id":263235,"code":"NGIC201900103-0001","latitude":"36.838641666667","longitude":"138.77874722222","source_code":"","project_name":"H31\u9577\u5ca1\u56fd\u9053\u7ba1\u5185\u5730\u8cea\u8abf\u67fb\u696d\u52d9(\u5358\u4fa1\u5951\u7d04)\u4e8c\u5c45\u9664\u96ea\u57fa\u5730\u5efa\u5c4b\u5730\u8cea\u8abf\u67fb","survey_name":"H31\u9577\u5ca1\u56fd\u9053\u7ba1\u5185\u5730\u8cea\u8abf\u67fb\u696d\u52d9(\u5358\u4fa1\u5951\u7d04)\u4e8c\u5c45\u9664\u96ea\u57fa\u5730\u5efa\u5c4b\u5730\u8cea\u8abf\u67fb","client_name":"\u56fd\u571f\u4ea4\u901a\u7701\u5317\u9678\u5730\u65b9\u6574\u5099\u5c40\u9577\u5ca1\u56fd\u9053\u4e8b\u52d9\u6240","boring_xml_url":47,"boring_view_url":1,"soilmap_view_url":null,"soiltest_xml_url":47,"soiltest_view_url":47},{"id":263234,"code":"NGIC201900091-0001","latitude":"34.496666666667","longitude":"135.76083333333","source_code":"","project_name":"","survey_name":"\u5927\u548c\u5fa1\u6240\u9053\u8def\u6a7f\u539f\u9ad8\u7530IC\u30fbC\u30e9\u30f3\u30d7\u6a4b\u4e0b\u90e8\u5de5\u4e8b","client_name":"\u56fd\u571f\u4ea4\u901a\u7701\u8fd1\u757f\u5730\u65b9\u6574\u5099\u5c40\u5948\u826f\u56fd\u9053\u4e8b\u52d9\u6240","boring_xml_url":47,"boring_view_url":1,"soilmap_view_url":null,"soiltest_xml_url":0,"soiltest_view_url":0},{"id":263233,"code":"NGIC201900099-0007","latitude":"36.586978972222","longitude":"140.66302502778","source_code":"","project_name":"","survey_name":"H30\u5e74\u5ea6\u56fd\u90536\u53f7\u65e5\u7acb\u30d0\u30a4\u30d1\u30b9\u5730\u8cea\u8abf\u67fb\u30fb\u89e3\u6790\u696d\u52d9","client_name":"\u56fd\u571f\u4ea4\u901a\u7701\u95a2\u6771\u5730\u65b9\u6574\u5099\u5c40\u5e38\u9678\u6cb3\u5ddd\u56fd\u9053\u4e8b\u52d9\u6240","boring_xml_url":47,"boring_view_url":1,"soilmap_view_url":null,"soiltest_xml_url":47,"soiltest_view_url":47},{"id":263232,"code":"NGIC201900099-0006","latitude":"36.585802666667","longitude":"140.66232638889","source_code":"","project_name":"","survey_name":"H30\u5e74\u5ea6\u56fd\u90536\u53f7\u65e5\u7acb\u30d0\u30a4\u30d1\u30b9\u5730\u8cea\u8abf\u67fb\u30fb\u89e3\u6790\u696d\u52d9","client_name":"\u56fd\u571f\u4ea4\u901a\u7701\u95a2\u6771\u5730\u65b9\u6574\u5099\u5c40\u5e38\u9678\u6cb3\u5ddd\u56fd\u9053\u4e8b\u52d9\u6240","boring_xml_url":47,"boring_view_url":1,"soilmap_view_url":null,"soiltest_xml_url":47,"soiltest_view_url":47},{"id":263231,"code":"NGIC201900099-0005","latitude":"36.583684611111","longitude":"140.66220613889","source_code":"","project_name":"","survey_name":"H30\u5e74\u5ea6\u56fd\u90536\u53f7\u65e5\u7acb\u30d0\u30a4\u30d1\u30b9\u5730\u8cea\u8abf\u67fb\u30fb\u89e3\u6790\u696d\u52d9","client_name":"\u56fd\u571f\u4ea4\u901a\u7701\u95a2\u6771\u5730\u65b9\u6574\u5099\u5c40\u5e38\u9678\u6cb3\u5ddd\u56fd\u9053\u4e8b\u52d9\u6240","boring_xml_url":47,"boring_view_url":1,"soilmap_view_url":null,"soiltest_xml_url":47,"soiltest_view_url":47},{"id":263230,"code":"NGIC201900099-0004","latitude":"36.582310055556","longitude":"140.66244188889","source_code":"","project_name":"","survey_name":"H30\u5e74\u5ea6\u56fd\u90536\u53f7\u65e5\u7acb\u30d0\u30a4\u30d1\u30b9\u5730\u8cea\u8abf\u67fb\u30fb\u89e3\u6790\u696d\u52d9","client_name":"\u56fd\u571f\u4ea4\u901a\u7701\u95a2\u6771\u5730\u65b9\u6574\u5099\u5c40\u5e38\u9678\u6cb3\u5ddd\u56fd\u9053\u4e8b\u52d9\u6240","boring_xml_url":47,"boring_view_url":1,"soilmap_view_url":null,"soiltest_xml_url":47,"soiltest_view_url":47},{"id":263229,"code":"NGIC201900099-0003","latitude":"36.582128527778","longitude":"140.66223336111","source_code":"","project_name":"","survey_name":"H30\u5e74\u5ea6\u56fd\u90536\u53f7\u65e5\u7acb\u30d0\u30a4\u30d1\u30b9\u5730\u8cea\u8abf\u67fb\u30fb\u89e3\u6790\u696d\u52d9","client_name":"\u56fd\u571f\u4ea4\u901a\u7701\u95a2\u6771\u5730\u65b9\u6574\u5099\u5c40\u5e38\u9678\u6cb3\u5ddd\u56fd\u9053\u4e8b\u52d9\u6240","boring_xml_url":47,"boring_view_url":1,"soilmap_view_url":null,"soiltest_xml_url":47,"soiltest_view_url":47},{"id":263228,"code":"NGIC201900099-0002","latitude":"36.572051333333","longitude":"140.65267569444","source_code":"","project_name":"","survey_name":"H30\u5e74\u5ea6\u56fd\u90536\u53f7\u65e5\u7acb\u30d0\u30a4\u30d1\u30b9\u5730\u8cea\u8abf\u67fb\u30fb\u89e3\u6790\u696d\u52d9","client_name":"\u56fd\u571f\u4ea4\u901a\u7701\u95a2\u6771\u5730\u65b9\u6574\u5099\u5c40\u5e38\u9678\u6cb3\u5ddd\u56fd\u9053\u4e8b\u52d9\u6240","boring_xml_url":47,"boring_view_url":1,"soilmap_view_url":null,"soiltest_xml_url":47,"soiltest_view_url":47},{"id":263227,"code":"NGIC201900099-0001","latitude":"36.570657444444","longitude":"140.65207041667","source_code":"","project_name":"","survey_name":"H30\u5e74\u5ea6\u56fd\u90536\u53f7\u65e5\u7acb\u30d0\u30a4\u30d1\u30b9\u5730\u8cea\u8abf\u67fb\u30fb\u89e3\u6790\u696d\u52d9","client_name":"\u56fd\u571f\u4ea4\u901a\u7701\u95a2\u6771\u5730\u65b9\u6574\u5099\u5c40\u5e38\u9678\u6cb3\u5ddd\u56fd\u9053\u4e8b\u52d9\u6240","boring_xml_url":47,"boring_view_url":1,"soilmap_view_url":null,"soiltest_xml_url":47,"soiltest_view_url":47},{"id":263222,"code":"NGIC201900102-0001","latitude":"43.599114666667","longitude":"145.19503855556","source_code":"","project_name":"\u4e00\u822c\u56fd\u9053244\u53f7\u5225\u6d77\u753a\u5c3e\u5cb1\u6cbc\u8996\u8ddd\u6539\u826f\u4e8b\u696d","survey_name":"\u4e00\u822c\u56fd\u9053244\u53f7\u5225\u6d77\u753a\u5c3e\u5cb1\u6cbc\u8996\u8ddd\u6539\u826f\u5730\u8cea\u8abf\u67fb\u696d\u52d9","client_name":"\u56fd\u571f\u4ea4\u901a\u7701\u5317\u6d77\u9053\u958b\u767a\u5c40\u91e7\u8def\u958b\u767a\u5efa\u8a2d\u90e8","boring_xml_url":47,"boring_view_url":1,"soilmap_view_url":null,"soiltest_xml_url":47,"soiltest_view_url":47},{"id":263218,"code":"NGIC201900082-0001","latitude":"35.459550444444","longitude":"137.29057636111","source_code":"","project_name":"\n      ","survey_name":"\u5e73\u621030\u5e74\u5ea6\u65b0\u4e38\u5c71\u30c0\u30e0\u98ef\u5730\u5730\u533a\u5730\u8cea\u8abf\u67fb\u696d\u52d9","client_name":"\u56fd\u571f\u4ea4\u901a\u7701\u4e2d\u90e8\u5730\u65b9\u6574\u5099\u5c40\u65b0\u4e38\u5c71\u30c0\u30e0\u5de5\u4e8b\u4e8b\u52d9\u6240","boring_xml_url":47,"boring_view_url":1,"soilmap_view_url":null,"soiltest_xml_url":0,"soiltest_view_url":0},{"id":263217,"code":"NGIC201900095-0002","latitude":"34.501027777778","longitude":"133.56119444444","source_code":"","project_name":"\u4e00\u822c\u56fd\u90532\u53f7\u7389\u5cf6\u30fb\u7b20\u5ca1\u9053\u8def\uff08II\u671f\uff09","survey_name":"\u7389\u5cf6\u7b20\u5ca1\u9053\u8def\u5916\u9053\u8def\u8cc7\u6599\u4f5c\u6210\u305d\u306e2\u696d\u52d9","client_name":"\u56fd\u571f\u4ea4\u901a\u7701\u4e2d\u56fd\u5730\u65b9\u6574\u5099\u5c40\u5ca1\u5c71\u56fd\u9053\u4e8b\u52d9\u6240\u3000\u5de5\u52d9\u8ab2","boring_xml_url":47,"boring_view_url":1,"soilmap_view_url":null,"soiltest_xml_url":47,"soiltest_view_url":47},{"id":263216,"code":"NGIC201900095-0001","latitude":"34.501638888889","longitude":"133.56202777778","source_code":"","project_name":"\u4e00\u822c\u56fd\u90532\u53f7\u7389\u5cf6\u30fb\u7b20\u5ca1\u9053\u8def\uff08II\u671f\uff09","survey_name":"\u7389\u5cf6\u7b20\u5ca1\u9053\u8def\u5916\u9053\u8def\u8cc7\u6599\u4f5c\u6210\u305d\u306e2\u696d\u52d9","client_name":"\u56fd\u571f\u4ea4\u901a\u7701\u4e2d\u56fd\u5730\u65b9\u6574\u5099\u5c40\u5ca1\u5c71\u56fd\u9053\u4e8b\u52d9\u6240\u3000\u5de5\u52d9\u8ab2","boring_xml_url":47,"boring_view_url":1,"soilmap_view_url":null,"soiltest_xml_url":47,"soiltest_view_url":47},{"id":263215,"code":"NGIC201900094-0017","latitude":"35.675355555556","longitude":"137.7232","source_code":"","project_name":"","survey_name":"\u5e73\u621030\u5e74\u5ea6\u591a\u6cbb\u898b\u7802\u9632\u6728\u66fd\u5ddd\u6c34\u7cfb\u5730\u8cea\u8abf\u67fb\u696d\u52d9","client_name":"\u56fd\u571f\u4ea4\u901a\u7701\u4e2d\u90e8\u5730\u65b9\u6574\u5099\u5c40\u591a\u6cbb\u898b\u7802\u9632\u56fd\u9053\u4e8b\u52d9\u6240","boring_xml_url":47,"boring_view_url":1,"soilmap_view_url":null,"soiltest_xml_url":0,"soiltest_view_url":0},{"id":263214,"code":"NGIC201900094-0016","latitude":"35.675475","longitude":"137.72322222222","source_code":"","project_name":"","survey_name":"\u5e73\u621030\u5e74\u5ea6\u591a\u6cbb\u898b\u7802\u9632\u6728\u66fd\u5ddd\u6c34\u7cfb\u5730\u8cea\u8abf\u67fb\u696d\u52d9","client_name":"\u56fd\u571f\u4ea4\u901a\u7701\u4e2d\u90e8\u5730\u65b9\u6574\u5099\u5c40\u591a\u6cbb\u898b\u7802\u9632\u56fd\u9053\u4e8b\u52d9\u6240","boring_xml_url":47,"boring_view_url":1,"soilmap_view_url":null,"soiltest_xml_url":0,"soiltest_view_url":0},{"id":263213,"code":"NGIC201900094-0015","latitude":"35.675172222222","longitude":"137.723525","source_code":"","project_name":"","survey_name":"\u5e73\u621030\u5e74\u5ea6\u591a\u6cbb\u898b\u7802\u9632\u6728\u66fd\u5ddd\u6c34\u7cfb\u5730\u8cea\u8abf\u67fb\u696d\u52d9","client_name":"\u56fd\u571f\u4ea4\u901a\u7701\u4e2d\u90e8\u5730\u65b9\u6574\u5099\u5c40\u591a\u6cbb\u898b\u7802\u9632\u56fd\u9053\u4e8b\u52d9\u6240","boring_xml_url":47,"boring_view_url":1,"soilmap_view_url":null,"soiltest_xml_url":0,"soiltest_view_url":0},{"id":263212,"code":"NGIC201900094-0014","latitude":"35.675208333333","longitude":"137.72353611111","source_code":"","project_name":"","survey_name":"\u5e73\u621030\u5e74\u5ea6\u591a\u6cbb\u898b\u7802\u9632\u6728\u66fd\u5ddd\u6c34\u7cfb\u5730\u8cea\u8abf\u67fb\u696d\u52d9","client_name":"\u56fd\u571f\u4ea4\u901a\u7701\u4e2d\u90e8\u5730\u65b9\u6574\u5099\u5c40\u591a\u6cbb\u898b\u7802\u9632\u56fd\u9053\u4e8b\u52d9\u6240","boring_xml_url":47,"boring_view_url":1,"soilmap_view_url":null,"soiltest_xml_url":0,"soiltest_view_url":0},{"id":263211,"code":"NGIC201900094-0013","latitude":"35.550222222222","longitude":"137.55995277778","source_code":"","project_name":"","survey_name":"\u5e73\u621030\u5e74\u5ea6\u591a\u6cbb\u898b\u7802\u9632\u6728\u66fd\u5ddd\u6c34\u7cfb\u5730\u8cea\u8abf\u67fb\u696d\u52d9","client_name":"\u56fd\u571f\u4ea4\u901a\u7701\u4e2d\u90e8\u5730\u65b9\u6574\u5099\u5c40\u591a\u6cbb\u898b\u7802\u9632\u56fd\u9053\u4e8b\u52d9\u6240","boring_xml_url":47,"boring_view_url":1,"soilmap_view_url":null,"soiltest_xml_url":0,"soiltest_view_url":0},{"id":263210,"code":"NGIC201900094-0012","latitude":"35.550525","longitude":"137.55988888889","source_code":"","project_name":"","survey_name":"\u5e73\u621030\u5e74\u5ea6\u591a\u6cbb\u898b\u7802\u9632\u6728\u66fd\u5ddd\u6c34\u7cfb\u5730\u8cea\u8abf\u67fb\u696d\u52d9","client_name":"\u56fd\u571f\u4ea4\u901a\u7701\u4e2d\u90e8\u5730\u65b9\u6574\u5099\u5c40\u591a\u6cbb\u898b\u7802\u9632\u56fd\u9053\u4e8b\u52d9\u6240","boring_xml_url":47,"boring_view_url":1,"soilmap_view_url":null,"soiltest_xml_url":0,"soiltest_view_url":0},{"id":263209,"code":"NGIC201900094-0011","latitude":"35.550686111111","longitude":"137.55992777778","source_code":"","project_name":"","survey_name":"\u5e73\u621030\u5e74\u5ea6\u591a\u6cbb\u898b\u7802\u9632\u6728\u66fd\u5ddd\u6c34\u7cfb\u5730\u8cea\u8abf\u67fb\u696d\u52d9","client_name":"\u56fd\u571f\u4ea4\u901a\u7701\u4e2d\u90e8\u5730\u65b9\u6574\u5099\u5c40\u591a\u6cbb\u898b\u7802\u9632\u56fd\u9053\u4e8b\u52d9\u6240","boring_xml_url":47,"boring_view_url":1,"soilmap_view_url":null,"soiltest_xml_url":0,"soiltest_view_url":0},{"id":263208,"code":"NGIC201900094-0010","latitude":"35.584686111111","longitude":"137.54451111111","source_code":"","project_name":"","survey_name":"\u5e73\u621030\u5e74\u5ea6\u591a\u6cbb\u898b\u7802\u9632\u6728\u66fd\u5ddd\u6c34\u7cfb\u5730\u8cea\u8abf\u67fb\u696d\u52d9","client_name":"\u56fd\u571f\u4ea4\u901a\u7701\u4e2d\u90e8\u5730\u65b9\u6574\u5099\u5c40\u591a\u6cbb\u898b\u7802\u9632\u56fd\u9053\u4e8b\u52d9\u6240","boring_xml_url":47,"boring_view_url":1,"soilmap_view_url":null,"soiltest_xml_url":0,"soiltest_view_url":0},{"id":263207,"code":"NGIC201900094-0009","latitude":"35.585027777778","longitude":"137.54535833333","source_code":"","project_name":"","survey_name":"\u5e73\u621030\u5e74\u5ea6\u591a\u6cbb\u898b\u7802\u9632\u6728\u66fd\u5ddd\u6c34\u7cfb\u5730\u8cea\u8abf\u67fb\u696d\u52d9","client_name":"\u56fd\u571f\u4ea4\u901a\u7701\u4e2d\u90e8\u5730\u65b9\u6574\u5099\u5c40\u591a\u6cbb\u898b\u7802\u9632\u56fd\u9053\u4e8b\u52d9\u6240","boring_xml_url":47,"boring_view_url":1,"soilmap_view_url":null,"soiltest_xml_url":0,"soiltest_view_url":0},{"id":263206,"code":"NGIC201900094-0008","latitude":"35.648555555556","longitude":"137.61981944444","source_code":"","project_name":"","survey_name":"\u5e73\u621030\u5e74\u5ea6\u591a\u6cbb\u898b\u7802\u9632\u6728\u66fd\u5ddd\u6c34\u7cfb\u5730\u8cea\u8abf\u67fb\u696d\u52d9","client_name":"\u56fd\u571f\u4ea4\u901a\u7701\u4e2d\u90e8\u5730\u65b9\u6574\u5099\u5c40\u591a\u6cbb\u898b\u7802\u9632\u56fd\u9053\u4e8b\u52d9\u6240","boring_xml_url":47,"boring_view_url":1,"soilmap_view_url":null,"soiltest_xml_url":0,"soiltest_view_url":0},{"id":263205,"code":"NGIC201900094-0007","latitude":"35.648208333333","longitude":"137.619825","source_code":"","project_name":"","survey_name":"\u5e73\u621030\u5e74\u5ea6\u591a\u6cbb\u898b\u7802\u9632\u6728\u66fd\u5ddd\u6c34\u7cfb\u5730\u8cea\u8abf\u67fb\u696d\u52d9","client_name":"\u56fd\u571f\u4ea4\u901a\u7701\u4e2d\u90e8\u5730\u65b9\u6574\u5099\u5c40\u591a\u6cbb\u898b\u7802\u9632\u56fd\u9053\u4e8b\u52d9\u6240","boring_xml_url":47,"boring_view_url":1,"soilmap_view_url":null,"soiltest_xml_url":0,"soiltest_view_url":0},{"id":263204,"code":"NGIC201900094-0006","latitude":"35.648377777778","longitude":"137.61981666667","source_code":"","project_name":"","survey_name":"\u5e73\u621030\u5e74\u5ea6\u591a\u6cbb\u898b\u7802\u9632\u6728\u66fd\u5ddd\u6c34\u7cfb\u5730\u8cea\u8abf\u67fb\u696d\u52d9","client_name":"\u56fd\u571f\u4ea4\u901a\u7701\u4e2d\u90e8\u5730\u65b9\u6574\u5099\u5c40\u591a\u6cbb\u898b\u7802\u9632\u56fd\u9053\u4e8b\u52d9\u6240","boring_xml_url":47,"boring_view_url":1,"soilmap_view_url":null,"soiltest_xml_url":0,"soiltest_view_url":0},{"id":263203,"code":"NGIC201900094-0005","latitude":"35.648638888889","longitude":"137.61981666667","source_code":"","project_name":"","survey_name":"\u5e73\u621030\u5e74\u5ea6\u591a\u6cbb\u898b\u7802\u9632\u6728\u66fd\u5ddd\u6c34\u7cfb\u5730\u8cea\u8abf\u67fb\u696d\u52d9","client_name":"\u56fd\u571f\u4ea4\u901a\u7701\u4e2d\u90e8\u5730\u65b9\u6574\u5099\u5c40\u591a\u6cbb\u898b\u7802\u9632\u56fd\u9053\u4e8b\u52d9\u6240","boring_xml_url":47,"boring_view_url":1,"soilmap_view_url":null,"soiltest_xml_url":0,"soiltest_view_url":0},{"id":263202,"code":"NGIC201900094-0004","latitude":"35.672972222222","longitude":"137.64244166667","source_code":"","project_name":"","survey_name":"\u5e73\u621030\u5e74\u5ea6\u591a\u6cbb\u898b\u7802\u9632\u6728\u66fd\u5ddd\u6c34\u7cfb\u5730\u8cea\u8abf\u67fb\u696d\u52d9","client_name":"\u56fd\u571f\u4ea4\u901a\u7701\u4e2d\u90e8\u5730\u65b9\u6574\u5099\u5c40\u591a\u6cbb\u898b\u7802\u9632\u56fd\u9053\u4e8b\u52d9\u6240","boring_xml_url":47,"boring_view_url":1,"soilmap_view_url":null,"soiltest_xml_url":0,"soiltest_view_url":0}]}}