{"header":{"xyz":{"source":[],"mosaic":false},"page":2389,"raw":{"soiltest_result":"0","bbox":"57.598333,109.544722,1.933333,163.806111","page":"2389"},"conditions":{"soiltest_result":0,"north":57.598333,"west":109.544722,"south":1.933333,"east":163.806111},"success":true,"message":""},"data":{"meta":{"total":212844,"page":2389,"pages":7095,"count":30},"values":[{"id":258888,"code":"B4KJ201802002-4368","latitude":"33.348917","longitude":"129.765722","source_code":"QS20108945400200150008","project_name":"\u5e73\u621022\u5e74\u5ea6 \u9577\u5d0e\u7ba1\u5185\u6539\u7bc9\u4e8b\u696d\u5730\u8cea\u8abf\u67fb\u696d\u52d9","survey_name":"\u5e73\u621022\u5e74\u5ea6 \u9577\u5d0e\u7ba1\u5185\u6539\u7bc9\u4e8b\u696d\u5730\u8cea\u8abf\u67fb\u696d\u52d9","client_name":"\u56fd\u571f\u4ea4\u901a\u7701\u4e5d\u5dde\u5730\u65b9\u6574\u5099\u5c40 \u9577\u5d0e\u6cb3\u5ddd\u56fd\u9053\u4e8b\u52d9\u6240","boring_xml_url":49,"boring_view_url":1,"soilmap_view_url":null,"soiltest_xml_url":0,"soiltest_view_url":0},{"id":258887,"code":"B4KJ201802002-4367","latitude":"33.349444","longitude":"129.765667","source_code":"QS20108945400200150007","project_name":"\u5e73\u621022\u5e74\u5ea6 \u9577\u5d0e\u7ba1\u5185\u6539\u7bc9\u4e8b\u696d\u5730\u8cea\u8abf\u67fb\u696d\u52d9","survey_name":"\u5e73\u621022\u5e74\u5ea6 \u9577\u5d0e\u7ba1\u5185\u6539\u7bc9\u4e8b\u696d\u5730\u8cea\u8abf\u67fb\u696d\u52d9","client_name":"\u56fd\u571f\u4ea4\u901a\u7701\u4e5d\u5dde\u5730\u65b9\u6574\u5099\u5c40 \u9577\u5d0e\u6cb3\u5ddd\u56fd\u9053\u4e8b\u52d9\u6240","boring_xml_url":49,"boring_view_url":1,"soilmap_view_url":null,"soiltest_xml_url":0,"soiltest_view_url":0},{"id":258886,"code":"B4KJ201802002-4366","latitude":"33.349389","longitude":"129.765944","source_code":"QS20108945400200150006","project_name":"\u5e73\u621022\u5e74\u5ea6 \u9577\u5d0e\u7ba1\u5185\u6539\u7bc9\u4e8b\u696d\u5730\u8cea\u8abf\u67fb\u696d\u52d9","survey_name":"\u5e73\u621022\u5e74\u5ea6 \u9577\u5d0e\u7ba1\u5185\u6539\u7bc9\u4e8b\u696d\u5730\u8cea\u8abf\u67fb\u696d\u52d9","client_name":"\u56fd\u571f\u4ea4\u901a\u7701\u4e5d\u5dde\u5730\u65b9\u6574\u5099\u5c40 \u9577\u5d0e\u6cb3\u5ddd\u56fd\u9053\u4e8b\u52d9\u6240","boring_xml_url":49,"boring_view_url":1,"soilmap_view_url":null,"soiltest_xml_url":0,"soiltest_view_url":0},{"id":258885,"code":"B4KJ201802002-4365","latitude":"33.349306","longitude":"129.765861","source_code":"QS20108945400200150005","project_name":"\u5e73\u621022\u5e74\u5ea6 \u9577\u5d0e\u7ba1\u5185\u6539\u7bc9\u4e8b\u696d\u5730\u8cea\u8abf\u67fb\u696d\u52d9","survey_name":"\u5e73\u621022\u5e74\u5ea6 \u9577\u5d0e\u7ba1\u5185\u6539\u7bc9\u4e8b\u696d\u5730\u8cea\u8abf\u67fb\u696d\u52d9","client_name":"\u56fd\u571f\u4ea4\u901a\u7701\u4e5d\u5dde\u5730\u65b9\u6574\u5099\u5c40 \u9577\u5d0e\u6cb3\u5ddd\u56fd\u9053\u4e8b\u52d9\u6240","boring_xml_url":49,"boring_view_url":1,"soilmap_view_url":null,"soiltest_xml_url":0,"soiltest_view_url":0},{"id":258884,"code":"B4KJ201802002-4364","latitude":"33.349194","longitude":"129.765556","source_code":"QS20108945400200150004","project_name":"\u5e73\u621022\u5e74\u5ea6 \u9577\u5d0e\u7ba1\u5185\u6539\u7bc9\u4e8b\u696d\u5730\u8cea\u8abf\u67fb\u696d\u52d9","survey_name":"\u5e73\u621022\u5e74\u5ea6 \u9577\u5d0e\u7ba1\u5185\u6539\u7bc9\u4e8b\u696d\u5730\u8cea\u8abf\u67fb\u696d\u52d9","client_name":"\u56fd\u571f\u4ea4\u901a\u7701\u4e5d\u5dde\u5730\u65b9\u6574\u5099\u5c40 \u9577\u5d0e\u6cb3\u5ddd\u56fd\u9053\u4e8b\u52d9\u6240","boring_xml_url":49,"boring_view_url":1,"soilmap_view_url":null,"soiltest_xml_url":0,"soiltest_view_url":0},{"id":258883,"code":"B4KJ201802002-4363","latitude":"33.347361","longitude":"129.771333","source_code":"QS20108945400200150003","project_name":"\u5e73\u621022\u5e74\u5ea6\u9577\u5d0e\u7ba1\u5185\u6539\u7bc9\u4e8b\u696d\u5730\u8cea\u8abf\u67fb\u696d\u52d9","survey_name":"\u5e73\u621022\u5e74\u5ea6\u9577\u5d0e\u7ba1\u5185\u6539\u7bc9\u4e8b\u696d\u5730\u8cea\u8abf\u67fb\u696d\u52d9","client_name":"\u56fd\u571f\u4ea4\u901a\u7701\u4e5d\u5dde\u5730\u65b9\u6574\u5099\u5c40 \u9577\u5d0e\u6cb3\u5ddd\u56fd\u9053\u4e8b\u52d9\u6240","boring_xml_url":49,"boring_view_url":1,"soilmap_view_url":null,"soiltest_xml_url":0,"soiltest_view_url":0},{"id":258882,"code":"B4KJ201802002-4362","latitude":"33.347278","longitude":"129.771333","source_code":"QS20108945400200150002","project_name":"\u5e73\u621022\u5e74\u5ea6\u9577\u5d0e\u7ba1\u5185\u6539\u7bc9\u4e8b\u696d\u5730\u8cea\u8abf\u67fb\u696d\u52d9","survey_name":"\u5e73\u621022\u5e74\u5ea6\u9577\u5d0e\u7ba1\u5185\u6539\u7bc9\u4e8b\u696d\u5730\u8cea\u8abf\u67fb\u696d\u52d9","client_name":"\u56fd\u571f\u4ea4\u901a\u7701\u4e5d\u5dde\u5730\u65b9\u6574\u5099\u5c40 \u9577\u5d0e\u6cb3\u5ddd\u56fd\u9053\u4e8b\u52d9\u6240","boring_xml_url":49,"boring_view_url":1,"soilmap_view_url":null,"soiltest_xml_url":0,"soiltest_view_url":0},{"id":258881,"code":"B4KJ201802002-4361","latitude":"33.347222","longitude":"129.771694","source_code":"QS20108945400200150001","project_name":"\u5e73\u621022\u5e74\u5ea6\u9577\u5d0e\u7ba1\u5185\u6539\u7bc9\u4e8b\u696d\u5730\u8cea\u8abf\u67fb\u696d\u52d9","survey_name":"\u5e73\u621022\u5e74\u5ea6\u9577\u5d0e\u7ba1\u5185\u6539\u7bc9\u4e8b\u696d\u5730\u8cea\u8abf\u67fb\u696d\u52d9","client_name":"\u56fd\u571f\u4ea4\u901a\u7701 \u4e5d\u5dde\u5730\u65b9\u6574\u5099\u5c40 \u9577\u5d0e\u6cb3\u5ddd\u56fd\u9053\u4e8b\u52d9\u6240","boring_xml_url":49,"boring_view_url":1,"soilmap_view_url":null,"soiltest_xml_url":0,"soiltest_view_url":0},{"id":258880,"code":"B4KJ201802002-4360","latitude":"33.341389","longitude":"129.779722","source_code":"QS20108945400200070010","project_name":"\u4f0a\u4e07\u91cc\u677e\u6d66\u9053\u8def(\u8abf\u5ddd\uff5e\u677e\u6d66)\u5730\u8cea\u8abf\u67fb\u696d\u52d9","survey_name":"\u4f0a\u4e07\u91cc\u677e\u6d66\u9053\u8def(\u8abf\u5ddd\uff5e\u677e\u6d66)\u5730\u8cea\u8abf\u67fb\u696d\u52d9","client_name":"\u56fd\u571f\u4ea4\u901a\u7701 \u4e5d\u5dde\u5730\u65b9\u6574\u5099\u5c40 \u9577\u5d0e\u6cb3\u5ddd\u56fd\u9053\u4e8b\u52d9\u6240","boring_xml_url":49,"boring_view_url":1,"soilmap_view_url":null,"soiltest_xml_url":0,"soiltest_view_url":0},{"id":258879,"code":"B4KJ201802002-4359","latitude":"33.343889","longitude":"129.779444","source_code":"QS20108945400200070009","project_name":"\u4f0a\u4e07\u91cc\u677e\u6d66\u9053\u8def(\u8abf\u5ddd\uff5e\u677e\u6d66)\u5730\u8cea\u8abf\u67fb\u696d\u52d9","survey_name":"\u4f0a\u4e07\u91cc\u677e\u6d66\u9053\u8def(\u8abf\u5ddd\uff5e\u677e\u6d66)\u5730\u8cea\u8abf\u67fb\u696d\u52d9","client_name":"\u56fd\u571f\u4ea4\u901a\u7701 \u4e5d\u5dde\u5730\u65b9\u6574\u5099\u5c40 \u9577\u5d0e\u6cb3\u5ddd\u56fd\u9053\u4e8b\u52d9\u6240","boring_xml_url":49,"boring_view_url":1,"soilmap_view_url":null,"soiltest_xml_url":0,"soiltest_view_url":0},{"id":258878,"code":"B4KJ201802002-4358","latitude":"33.355278","longitude":"129.739167","source_code":"QS20108945400200070008","project_name":"\u4f0a\u4e07\u91cc\u677e\u6d66\u9053\u8def(\u8abf\u5ddd\uff5e\u677e\u6d66)\u5730\u8cea\u8abf\u67fb\u696d\u52d9","survey_name":"\u4f0a\u4e07\u91cc\u677e\u6d66\u9053\u8def(\u8abf\u5ddd\uff5e\u677e\u6d66)\u5730\u8cea\u8abf\u67fb\u696d\u52d9","client_name":"\u56fd\u571f\u4ea4\u901a\u7701 \u4e5d\u5dde\u5730\u65b9\u6574\u5099\u5c40 \u9577\u5d0e\u6cb3\u5ddd\u56fd\u9053\u4e8b\u52d9\u6240","boring_xml_url":49,"boring_view_url":1,"soilmap_view_url":null,"soiltest_xml_url":0,"soiltest_view_url":0},{"id":258877,"code":"B4KJ201802002-4357","latitude":"33.348056","longitude":"129.721667","source_code":"QS20108945400200070007","project_name":"","survey_name":"\u4f0a\u4e07\u91cc\u677e\u6d66\u9053\u8def(\u8abf\u5ddd\uff5e\u677e\u6d66)\u5730\u8cea\u8abf\u67fb\u696d\u52d9","client_name":"\u56fd\u571f\u4ea4\u901a\u7701 \u4e5d\u5dde\u5730\u65b9\u6574\u5099\u5c40 \u9577\u5d0e\u6cb3\u5ddd\u56fd\u9053\u4e8b\u52d9\u6240","boring_xml_url":49,"boring_view_url":1,"soilmap_view_url":null,"soiltest_xml_url":0,"soiltest_view_url":0},{"id":258876,"code":"B4KJ201802002-4356","latitude":"33.348333","longitude":"129.721667","source_code":"QS20108945400200070006","project_name":"\u4f0a\u4e07\u91cc\u677e\u6d66\u9053\u8def(\u8abf\u5ddd\uff5e\u677e\u6d66)\u5730\u8cea\u8abf\u67fb\u696d\u52d9","survey_name":"\u4f0a\u4e07\u91cc\u677e\u6d66\u9053\u8def(\u8abf\u5ddd\uff5e\u677e\u6d66)\u5730\u8cea\u8abf\u67fb\u696d\u52d9","client_name":"\u56fd\u571f\u4ea4\u901a\u7701 \u4e5d\u5dde\u5730\u65b9\u6574\u5099\u5c40 \u9577\u5d0e\u6cb3\u5ddd\u56fd\u9053\u4e8b\u52d9\u6240","boring_xml_url":49,"boring_view_url":1,"soilmap_view_url":null,"soiltest_xml_url":49,"soiltest_view_url":48},{"id":258875,"code":"B4KJ201802002-4355","latitude":"33.348333","longitude":"129.722222","source_code":"QS20108945400200070005","project_name":"\u4f0a\u4e07\u91cc\u677e\u6d66\u9053\u8def(\u8abf\u5ddd\uff5e\u677e\u6d66)\u5730\u8cea\u8abf\u67fb\u696d\u52d9","survey_name":"\u4f0a\u4e07\u91cc\u677e\u6d66\u9053\u8def(\u8abf\u5ddd\uff5e\u677e\u6d66)\u5730\u8cea\u8abf\u67fb\u696d\u52d9","client_name":"\u56fd\u571f\u4ea4\u901a\u7701 \u4e5d\u5dde\u5730\u65b9\u6574\u5099\u5c40 \u9577\u5d0e\u6cb3\u5ddd\u56fd\u9053\u4e8b\u52d9\u6240","boring_xml_url":49,"boring_view_url":1,"soilmap_view_url":null,"soiltest_xml_url":49,"soiltest_view_url":48},{"id":258874,"code":"B4KJ201802002-4354","latitude":"33.348056","longitude":"129.722778","source_code":"QS20108945400200070004","project_name":"\u4f0a\u4e07\u91cc\u677e\u6d66\u9053\u8def(\u8abf\u5ddd\uff5e\u677e\u6d66)\u5730\u8cea\u8abf\u67fb\u696d\u52d9","survey_name":"\u4f0a\u4e07\u91cc\u677e\u6d66\u9053\u8def(\u8abf\u5ddd\uff5e\u677e\u6d66)\u5730\u8cea\u8abf\u67fb\u696d\u52d9","client_name":"\u56fd\u571f\u4ea4\u901a\u7701 \u4e5d\u5dde\u5730\u65b9\u6574\u5099\u5c40 \u9577\u5d0e\u6cb3\u5ddd\u56fd\u9053\u4e8b\u52d9\u6240","boring_xml_url":49,"boring_view_url":1,"soilmap_view_url":null,"soiltest_xml_url":49,"soiltest_view_url":48},{"id":258873,"code":"B4KJ201802002-4353","latitude":"33.348056","longitude":"129.728333","source_code":"QS20108945400200070003","project_name":"\u4f0a\u4e07\u91cc\u677e\u6d66\u9053\u8def(\u8abf\u5ddd\uff5e\u677e\u6d66)\u5730\u8cea\u8abf\u67fb\u696d\u52d9","survey_name":"\u4f0a\u4e07\u91cc\u677e\u6d66\u9053\u8def(\u8abf\u5ddd\uff5e\u677e\u6d66)\u5730\u8cea\u8abf\u67fb\u696d\u52d9","client_name":"\u56fd\u571f\u4ea4\u901a\u7701 \u4e5d\u5dde\u5730\u65b9\u6574\u5099\u5c40 \u9577\u5d0e\u6cb3\u5ddd\u56fd\u9053\u4e8b\u52d9\u6240","boring_xml_url":49,"boring_view_url":1,"soilmap_view_url":null,"soiltest_xml_url":0,"soiltest_view_url":0},{"id":258872,"code":"B4KJ201802002-4352","latitude":"33.348056","longitude":"129.728611","source_code":"QS20108945400200070002","project_name":"\u4f0a\u4e07\u91cc\u677e\u6d66\u9053\u8def(\u8abf\u5ddd\uff5e\u677e\u6d66)\u5730\u8cea\u8abf\u67fb\u696d\u52d9","survey_name":"\u4f0a\u4e07\u91cc\u677e\u6d66\u9053\u8def(\u8abf\u5ddd\uff5e\u677e\u6d66)\u5730\u8cea\u8abf\u67fb\u696d\u52d9","client_name":"\u56fd\u571f\u4ea4\u901a\u7701 \u4e5d\u5dde\u5730\u65b9\u6574\u5099\u5c40 \u9577\u5d0e\u6cb3\u5ddd\u56fd\u9053\u4e8b\u52d9\u6240","boring_xml_url":49,"boring_view_url":1,"soilmap_view_url":null,"soiltest_xml_url":0,"soiltest_view_url":0},{"id":258871,"code":"B4KJ201802002-4351","latitude":"33.170361","longitude":"129.71425","source_code":"QS20108945400200040001","project_name":"\u4f50\u4e16\u4fdd\u4e2d\u592eIC\u5074\u9053\u90e8\u304c\u308c\u304d\u5bfe\u7b56","survey_name":"\u5e73\u621022\u5e74\u5ea6\u9577\u5d0e\u770c\u5317\u5730\u533a\u6539\u7bc9\u4e8b\u696d\u6e2c\u91cf\u8a2d\u8a08\u696d\u52d9","client_name":"\u56fd\u571f\u4ea4\u901a\u7701 \u9577\u5d0e\u6cb3\u5ddd\u56fd\u9053\u4e8b\u52d9\u6240 \u5de5\u52d9\u8ab2","boring_xml_url":49,"boring_view_url":1,"soilmap_view_url":null,"soiltest_xml_url":0,"soiltest_view_url":0},{"id":258870,"code":"B4KJ201802002-4350","latitude":"33.347861","longitude":"129.718028","source_code":"QS20098945400200110011","project_name":"","survey_name":"\u4f0a\u4e07\u91cc\u677e\u6d66\u9053\u8def\u677e\u6d66\u5730\u533a\u5730\u8cea\u8abf\u67fb\u696d\u52d9","client_name":"\u56fd\u571f\u4ea4\u901a\u7701 \u9577\u5d0e\u6cb3\u5ddd\u56fd\u9053\u4e8b\u52d9\u6240 \u5de5\u52d9\u8ab2","boring_xml_url":49,"boring_view_url":1,"soilmap_view_url":null,"soiltest_xml_url":49,"soiltest_view_url":48},{"id":258869,"code":"B4KJ201802002-4349","latitude":"33.347139","longitude":"129.772306","source_code":"QS20098945400200110010","project_name":"","survey_name":"\u4f0a\u4e07\u91cc\u677e\u6d66\u9053\u8def\u677e\u6d66\u5730\u533a\u5730\u8cea\u8abf\u67fb\u696d\u52d9","client_name":"\u56fd\u571f\u4ea4\u901a\u7701 \u9577\u5d0e\u6cb3\u5ddd\u56fd\u9053\u4e8b\u52d9\u6240 \u5de5\u52d9\u8ab2","boring_xml_url":49,"boring_view_url":1,"soilmap_view_url":null,"soiltest_xml_url":49,"soiltest_view_url":48},{"id":258868,"code":"B4KJ201802002-4348","latitude":"33.3475","longitude":"129.772028","source_code":"QS20098945400200110009","project_name":"","survey_name":"\u4f0a\u4e07\u91cc\u677e\u6d66\u9053\u8def\u677e\u6d66\u5730\u533a\u5730\u8cea\u8abf\u67fb\u696d\u52d9","client_name":"\u56fd\u571f\u4ea4\u901a\u7701 \u9577\u5d0e\u6cb3\u5ddd\u56fd\u9053\u4e8b\u52d9\u6240 \u5de5\u52d9\u8ab2","boring_xml_url":49,"boring_view_url":1,"soilmap_view_url":null,"soiltest_xml_url":49,"soiltest_view_url":48},{"id":258867,"code":"B4KJ201802002-4347","latitude":"33.34825","longitude":"129.729056","source_code":"QS20098945400200110008","project_name":"","survey_name":"\u4f0a\u4e07\u91cc\u677e\u6d66\u9053\u8def\u677e\u6d66\u5730\u533a\u5730\u8cea\u8abf\u67fb\u696d\u52d9","client_name":"\u56fd\u571f\u4ea4\u901a\u7701 \u9577\u5d0e\u6cb3\u5ddd\u56fd\u9053\u4e8b\u52d9\u6240 \u5de5\u52d9\u8ab2","boring_xml_url":49,"boring_view_url":1,"soilmap_view_url":null,"soiltest_xml_url":49,"soiltest_view_url":48},{"id":258866,"code":"B4KJ201802002-4346","latitude":"33.348306","longitude":"129.729556","source_code":"QS20098945400200110007","project_name":"","survey_name":"\u4f0a\u4e07\u91cc\u677e\u6d66\u9053\u8def\u677e\u6d66\u5730\u533a\u5730\u8cea\u8abf\u67fb\u696d\u52d9","client_name":"\u56fd\u571f\u4ea4\u901a\u7701 \u9577\u5d0e\u6cb3\u5ddd\u56fd\u9053\u4e8b\u52d9\u6240 \u5de5\u52d9\u8ab2","boring_xml_url":49,"boring_view_url":1,"soilmap_view_url":null,"soiltest_xml_url":49,"soiltest_view_url":48},{"id":258865,"code":"B4KJ201802002-4345","latitude":"33.348472","longitude":"129.730167","source_code":"QS20098945400200110006","project_name":"","survey_name":"\u4f0a\u4e07\u91cc\u677e\u6d66\u9053\u8def\u677e\u6d66\u5730\u533a\u5730\u8cea\u8abf\u67fb\u696d\u52d9","client_name":"\u56fd\u571f\u4ea4\u901a\u7701 \u9577\u5d0e\u6cb3\u5ddd\u56fd\u9053\u4e8b\u52d9\u6240 \u5de5\u52d9\u8ab2","boring_xml_url":49,"boring_view_url":1,"soilmap_view_url":null,"soiltest_xml_url":49,"soiltest_view_url":48},{"id":258864,"code":"B4KJ201802002-4344","latitude":"33.348083","longitude":"129.719833","source_code":"QS20098945400200110005","project_name":"","survey_name":"\u4f0a\u4e07\u91cc\u677e\u6d66\u9053\u8def\u677e\u6d66\u5730\u533a\u5730\u8cea\u8abf\u67fb\u696d\u52d9","client_name":"\u56fd\u571f\u4ea4\u901a\u7701 \u9577\u5d0e\u6cb3\u5ddd\u56fd\u9053\u4e8b\u52d9\u6240 \u5de5\u52d9\u8ab2","boring_xml_url":49,"boring_view_url":1,"soilmap_view_url":null,"soiltest_xml_url":49,"soiltest_view_url":48},{"id":258863,"code":"B4KJ201802002-4343","latitude":"33.348222","longitude":"129.72125","source_code":"QS20098945400200110004","project_name":"","survey_name":"\u4f0a\u4e07\u91cc\u677e\u6d66\u9053\u8def\u677e\u6d66\u5730\u533a\u5730\u8cea\u8abf\u67fb\u696d\u52d9","client_name":"\u56fd\u571f\u4ea4\u901a\u7701 \u9577\u5d0e\u6cb3\u5ddd\u56fd\u9053\u4e8b\u52d9\u6240 \u5de5\u52d9\u8ab2","boring_xml_url":49,"boring_view_url":1,"soilmap_view_url":null,"soiltest_xml_url":49,"soiltest_view_url":48},{"id":258862,"code":"B4KJ201802002-4342","latitude":"33.347972","longitude":"129.719306","source_code":"QS20098945400200110003","project_name":"","survey_name":"\u4f0a\u4e07\u91cc\u677e\u6d66\u9053\u8def\u677e\u6d66\u5730\u533a\u5730\u8cea\u8abf\u67fb\u696d\u52d9","client_name":"\u56fd\u571f\u4ea4\u901a\u7701 \u9577\u5d0e\u6cb3\u5ddd\u56fd\u9053\u4e8b\u52d9\u6240 \u5de5\u52d9\u8ab2","boring_xml_url":49,"boring_view_url":1,"soilmap_view_url":null,"soiltest_xml_url":49,"soiltest_view_url":48},{"id":258861,"code":"B4KJ201802002-4341","latitude":"33.348","longitude":"129.720472","source_code":"QS20098945400200110002","project_name":"","survey_name":"\u4f0a\u4e07\u91cc\u677e\u6d66\u9053\u8def\u677e\u6d66\u5730\u533a\u5730\u8cea\u8abf\u67fb\u696d\u52d9","client_name":"\u56fd\u571f\u4ea4\u901a\u7701 \u9577\u5d0e\u6cb3\u5ddd\u56fd\u9053\u4e8b\u52d9\u6240 \u5de5\u52d9\u8ab2","boring_xml_url":49,"boring_view_url":1,"soilmap_view_url":null,"soiltest_xml_url":49,"soiltest_view_url":48},{"id":258860,"code":"B4KJ201802002-4340","latitude":"33.348167","longitude":"129.720472","source_code":"QS20098945400200110001","project_name":"","survey_name":"\u4f0a\u4e07\u91cc\u677e\u6d66\u9053\u8def\u677e\u6d66\u5730\u533a\u5730\u8cea\u8abf\u67fb\u696d\u52d9","client_name":"\u56fd\u571f\u4ea4\u901a\u7701 \u9577\u5d0e\u6cb3\u5ddd\u56fd\u9053\u4e8b\u52d9\u6240 \u5de5\u52d9\u8ab2","boring_xml_url":49,"boring_view_url":1,"soilmap_view_url":null,"soiltest_xml_url":49,"soiltest_view_url":48},{"id":258859,"code":"B4KJ201802002-4339","latitude":"33.348278","longitude":"129.723861","source_code":"QS20098945400200100005","project_name":"","survey_name":"\u4f0a\u4e07\u91cc\u677e\u6d66\u9053\u8def \u8abf\u5ddd2\u53f7\u30c8\u30f3\u30cd\u30eb\u5730\u8cea\u8abf\u67fb\u696d\u52d9","client_name":"\u56fd\u571f\u4ea4\u901a\u7701\u4e5d\u5dde\u5730\u65b9\u6574\u5099\u5c40\u9577\u5d0e\u6cb3\u5ddd\u56fd\u9053\u4e8b\u52d9\u6240","boring_xml_url":49,"boring_view_url":1,"soilmap_view_url":null,"soiltest_xml_url":0,"soiltest_view_url":0}]}}