{"header":{"xyz":{"source":[],"mosaic":false},"page":2397,"raw":{"soiltest_result":"0","bbox":"57.598333,109.544722,1.933333,163.806111","page":"2397"},"conditions":{"soiltest_result":0,"north":57.598333,"west":109.544722,"south":1.933333,"east":163.806111},"success":true,"message":""},"data":{"meta":{"total":212844,"page":2397,"pages":7095,"count":30},"values":[{"id":258648,"code":"B4KJ201802002-4128","latitude":"32.765972","longitude":"130.690722","source_code":"QS20088950600200100002","project_name":"\u5e73\u621020\u5e74\u5ea6 \u767d\u5ddd\u30fb\u7dd1\u5ddd\u5730\u8cea\u8abf\u67fb\u696d\u52d9","survey_name":"\u5e73\u621020\u5e74\u5ea6 \u767d\u5ddd\u30fb\u7dd1\u5ddd\u5730\u8cea\u8abf\u67fb\u696d\u52d9","client_name":"\u56fd\u571f\u4ea4\u901a\u7701 \u4e5d\u5dde\u5730\u65b9\u6574\u5099\u5c40 \u718a\u672c\u6cb3\u5ddd\u56fd\u9053\u4e8b\u52d9\u6240","boring_xml_url":49,"boring_view_url":1,"soilmap_view_url":null,"soiltest_xml_url":52,"soiltest_view_url":51},{"id":258647,"code":"B4KJ201802002-4127","latitude":"32.771639","longitude":"130.682639","source_code":"QS20088950600200100001","project_name":"\u5e73\u621020\u5e74\u5ea6 \u767d\u5ddd\u30fb\u7dd1\u5ddd\u5730\u8cea\u8abf\u67fb\u696d\u52d9","survey_name":"\u5e73\u621020\u5e74\u5ea6 \u767d\u5ddd\u30fb\u7dd1\u5ddd\u5730\u8cea\u8abf\u67fb\u696d\u52d9","client_name":"\u56fd\u571f\u4ea4\u901a\u7701 \u4e5d\u5dde\u5730\u65b9\u6574\u5099\u5c40 \u718a\u672c\u6cb3\u5ddd\u56fd\u9053\u4e8b\u52d9\u6240","boring_xml_url":49,"boring_view_url":1,"soilmap_view_url":null,"soiltest_xml_url":52,"soiltest_view_url":51},{"id":258646,"code":"B4KJ201802002-4126","latitude":"32.716111","longitude":"130.791306","source_code":"QS20088950600200210009","project_name":"","survey_name":"\u5fa1\u8239\u5ddd\u5824\u9632\u8a73\u7d30\u70b9\u691c\u696d\u52d9","client_name":"\u56fd\u571f\u4ea4\u901a\u7701 \u4e5d\u5dde\u5730\u65b9\u6574\u5099\u5c40 \u718a\u672c\u6cb3\u5ddd\u56fd\u9053\u4e8b\u52d9\u6240","boring_xml_url":49,"boring_view_url":1,"soilmap_view_url":null,"soiltest_xml_url":52,"soiltest_view_url":51},{"id":258645,"code":"B4KJ201802002-4125","latitude":"32.716111","longitude":"130.791306","source_code":"QS20088950600200210008","project_name":"","survey_name":"\u5fa1\u8239\u5ddd\u5824\u9632\u8a73\u7d30\u70b9\u691c\u696d\u52d9","client_name":"\u56fd\u571f\u4ea4\u901a\u7701 \u4e5d\u5dde\u5730\u65b9\u6574\u5099\u5c40 \u718a\u672c\u6cb3\u5ddd\u56fd\u9053\u4e8b\u52d9\u6240","boring_xml_url":49,"boring_view_url":1,"soilmap_view_url":null,"soiltest_xml_url":52,"soiltest_view_url":51},{"id":258644,"code":"B4KJ201802002-4124","latitude":"32.716222","longitude":"130.791306","source_code":"QS20088950600200210007","project_name":"","survey_name":"\u5fa1\u8239\u5ddd\u5824\u9632\u8a73\u7d30\u70b9\u691c\u696d\u52d9","client_name":"\u56fd\u571f\u4ea4\u901a\u7701 \u4e5d\u5dde\u5730\u65b9\u6574\u5099\u5c40 \u718a\u672c\u6cb3\u5ddd\u56fd\u9053\u4e8b\u52d9\u6240","boring_xml_url":49,"boring_view_url":1,"soilmap_view_url":null,"soiltest_xml_url":52,"soiltest_view_url":51},{"id":258643,"code":"B4KJ201802002-4123","latitude":"32.719028","longitude":"130.786028","source_code":"QS20088950600200210006","project_name":"","survey_name":"\u5fa1\u8239\u5ddd\u5824\u9632\u8a73\u7d30\u70b9\u691c\u696d\u52d9","client_name":"\u56fd\u571f\u4ea4\u901a\u7701 \u4e5d\u5dde\u5730\u65b9\u6574\u5099\u5c40 \u718a\u672c\u6cb3\u5ddd\u56fd\u9053\u4e8b\u52d9\u6240","boring_xml_url":49,"boring_view_url":1,"soilmap_view_url":null,"soiltest_xml_url":52,"soiltest_view_url":51},{"id":258642,"code":"B4KJ201802002-4122","latitude":"32.718944","longitude":"130.785889","source_code":"QS20088950600200210005","project_name":"","survey_name":"\u5fa1\u8239\u5ddd\u5824\u9632\u8a73\u7d30\u70b9\u691c\u696d\u52d9","client_name":"\u56fd\u571f\u4ea4\u901a\u7701 \u4e5d\u5dde\u5730\u65b9\u6574\u5099\u5c40 \u718a\u672c\u6cb3\u5ddd\u56fd\u9053\u4e8b\u52d9\u6240","boring_xml_url":49,"boring_view_url":1,"soilmap_view_url":null,"soiltest_xml_url":52,"soiltest_view_url":51},{"id":258641,"code":"B4KJ201802002-4121","latitude":"32.731306","longitude":"130.774917","source_code":"QS20088950600200210004","project_name":"","survey_name":"\u5fa1\u8239\u5ddd\u5824\u9632\u8a73\u7d30\u70b9\u691c\u696d\u52d9","client_name":"\u56fd\u571f\u4ea4\u901a\u7701 \u4e5d\u5dde\u5730\u65b9\u6574\u5099\u5c40 \u718a\u672c\u6cb3\u5ddd\u56fd\u9053\u4e8b\u52d9\u6240","boring_xml_url":49,"boring_view_url":1,"soilmap_view_url":null,"soiltest_xml_url":52,"soiltest_view_url":51},{"id":258640,"code":"B4KJ201802002-4120","latitude":"32.73125","longitude":"130.774861","source_code":"QS20088950600200210003","project_name":"","survey_name":"\u5fa1\u8239\u5ddd\u5824\u9632\u8a73\u7d30\u70b9\u691c\u696d\u52d9","client_name":"\u56fd\u571f\u4ea4\u901a\u7701 \u4e5d\u5dde\u5730\u65b9\u6574\u5099\u5c40 \u718a\u672c\u6cb3\u5ddd\u56fd\u9053\u4e8b\u52d9\u6240","boring_xml_url":49,"boring_view_url":1,"soilmap_view_url":null,"soiltest_xml_url":52,"soiltest_view_url":51},{"id":258639,"code":"B4KJ201802002-4119","latitude":"32.733056","longitude":"130.758222","source_code":"QS20088950600200210002","project_name":"","survey_name":"\u5fa1\u8239\u5ddd\u5824\u9632\u8a73\u7d30\u70b9\u691c\u696d\u52d9","client_name":"\u56fd\u571f\u4ea4\u901a\u7701 \u4e5d\u5dde\u5730\u65b9\u6574\u5099\u5c40 \u718a\u672c\u6cb3\u5ddd\u56fd\u9053\u4e8b\u52d9\u6240","boring_xml_url":49,"boring_view_url":1,"soilmap_view_url":null,"soiltest_xml_url":52,"soiltest_view_url":51},{"id":258638,"code":"B4KJ201802002-4118","latitude":"32.732972","longitude":"130.758194","source_code":"QS20088950600200210001","project_name":"","survey_name":"\u5fa1\u8239\u5ddd\u5824\u9632\u8a73\u7d30\u70b9\u691c\u696d\u52d9","client_name":"\u56fd\u571f\u4ea4\u901a\u7701 \u4e5d\u5dde\u5730\u65b9\u6574\u5099\u5c40 \u718a\u672c\u6cb3\u5ddd\u56fd\u9053\u4e8b\u52d9\u6240","boring_xml_url":49,"boring_view_url":1,"soilmap_view_url":null,"soiltest_xml_url":52,"soiltest_view_url":51},{"id":258637,"code":"B4KJ201802002-4117","latitude":"32.910833","longitude":"129.951667","source_code":"QS20068945400200250008","project_name":"","survey_name":"\u9577\u5d0e34\u53f7\u5927\u6751\u62e1\u5e45\u5730\u8cea\u8abf\u67fb\u696d\u52d9","client_name":"\u56fd\u571f\u4ea4\u901a\u7701\u4e5d\u5dde\u5730\u65b9\u6574\u5099\u5c40\u9577\u5d0e\u6cb3\u5ddd\u56fd\u9053\u4e8b\u52d9\u6240","boring_xml_url":49,"boring_view_url":1,"soilmap_view_url":null,"soiltest_xml_url":0,"soiltest_view_url":0},{"id":258636,"code":"B4KJ201802002-4116","latitude":"32.911667","longitude":"129.951111","source_code":"QS20068945400200250007","project_name":"","survey_name":"\u9577\u5d0e34\u53f7\u5927\u6751\u62e1\u5e45\u5730\u8cea\u8abf\u67fb\u696d\u52d9","client_name":"\u56fd\u571f\u4ea4\u901a\u7701\u4e5d\u5dde\u5730\u65b9\u6574\u5099\u5c40\u9577\u5d0e\u6cb3\u5ddd\u56fd\u9053\u4e8b\u52d9\u6240","boring_xml_url":49,"boring_view_url":1,"soilmap_view_url":null,"soiltest_xml_url":0,"soiltest_view_url":0},{"id":258635,"code":"B4KJ201802002-4115","latitude":"32.89375","longitude":"129.968333","source_code":"QS20068945400200250006","project_name":"","survey_name":"\u9577\u5d0e34\u53f7\u5927\u6751\u62e1\u5e45\u5730\u8cea\u8abf\u67fb\u696d\u52d9","client_name":"\u56fd\u571f\u4ea4\u901a\u7701\u4e5d\u5dde\u5730\u65b9\u6574\u5099\u5c40\u9577\u5d0e\u6cb3\u5ddd\u56fd\u9053\u4e8b\u52d9\u6240","boring_xml_url":49,"boring_view_url":1,"soilmap_view_url":null,"soiltest_xml_url":0,"soiltest_view_url":0},{"id":258634,"code":"B4KJ201802002-4114","latitude":"32.893889","longitude":"129.968333","source_code":"QS20068945400200250005","project_name":"","survey_name":"\u9577\u5d0e34\u53f7\u5927\u6751\u62e1\u5e45\u5730\u8cea\u8abf\u67fb\u696d\u52d9","client_name":"\u56fd\u571f\u4ea4\u901a\u7701\u4e5d\u5dde\u5730\u65b9\u6574\u5099\u5c40\u9577\u5d0e\u6cb3\u5ddd\u56fd\u9053\u4e8b\u52d9\u6240","boring_xml_url":49,"boring_view_url":1,"soilmap_view_url":null,"soiltest_xml_url":0,"soiltest_view_url":0},{"id":258633,"code":"B4KJ201802002-4113","latitude":"32.909167","longitude":"129.953889","source_code":"QS20068945400200250004","project_name":"","survey_name":"\u9577\u5d0e34\u53f7\u5927\u6751\u62e1\u5e45\u5730\u8cea\u8abf\u67fb\u696d\u52d9","client_name":"\u56fd\u571f\u4ea4\u901a\u7701\u4e5d\u5dde\u5730\u65b9\u6574\u5099\u5c40\u9577\u5d0e\u6cb3\u5ddd\u56fd\u9053\u4e8b\u52d9\u6240","boring_xml_url":49,"boring_view_url":1,"soilmap_view_url":null,"soiltest_xml_url":52,"soiltest_view_url":51},{"id":258632,"code":"B4KJ201802002-4112","latitude":"32.909444","longitude":"129.953333","source_code":"QS20068945400200250003","project_name":"","survey_name":"\u9577\u5d0e34\u53f7\u5927\u6751\u62e1\u5e45\u5730\u8cea\u8abf\u67fb\u696d\u52d9","client_name":"\u56fd\u571f\u4ea4\u901a\u7701\u4e5d\u5dde\u5730\u65b9\u6574\u5099\u5c40\u9577\u5d0e\u6cb3\u5ddd\u56fd\u9053\u4e8b\u52d9\u6240","boring_xml_url":49,"boring_view_url":1,"soilmap_view_url":null,"soiltest_xml_url":0,"soiltest_view_url":0},{"id":258631,"code":"B4KJ201802002-4111","latitude":"32.909444","longitude":"129.953333","source_code":"QS20068945400200250002","project_name":"","survey_name":"\u9577\u5d0e34\u53f7\u5927\u6751\u62e1\u5e45\u5730\u8cea\u8abf\u67fb\u696d\u52d9","client_name":"\u56fd\u571f\u4ea4\u901a\u7701\u4e5d\u5dde\u5730\u65b9\u6574\u5099\u5c40\u9577\u5d0e\u6cb3\u5ddd\u56fd\u9053\u4e8b\u52d9\u6240","boring_xml_url":49,"boring_view_url":1,"soilmap_view_url":null,"soiltest_xml_url":52,"soiltest_view_url":51},{"id":258630,"code":"B4KJ201802002-4110","latitude":"32.909722","longitude":"129.953611","source_code":"QS20068945400200250001","project_name":"","survey_name":"\u9577\u5d0e34\u53f7\u5927\u6751\u62e1\u5e45\u5730\u8cea\u8abf\u67fb\u696d\u52d9","client_name":"\u56fd\u571f\u4ea4\u901a\u7701\u4e5d\u5dde\u5730\u65b9\u6574\u5099\u5c40\u9577\u5d0e\u6cb3\u5ddd\u56fd\u9053\u4e8b\u52d9\u6240","boring_xml_url":49,"boring_view_url":1,"soilmap_view_url":null,"soiltest_xml_url":52,"soiltest_view_url":51},{"id":258629,"code":"B4KJ201802002-4109","latitude":"33.540278","longitude":"133.594722","source_code":"SK128862401000380005","project_name":"","survey_name":"\u5e73\u621024-25\u5e74\u5ea6 \u5510\u8c37\u5730\u533a\u6539\u826f\u5de5\u4e8b","client_name":"\u56fd\u571f\u4ea4\u901a\u7701 \u56db\u56fd\u5730\u65b9\u6574\u5099\u5c40 \u571f\u4f50\u56fd\u9053\u4e8b\u52d9\u6240","boring_xml_url":47,"boring_view_url":1,"soilmap_view_url":null,"soiltest_xml_url":0,"soiltest_view_url":0},{"id":258628,"code":"B4KJ201802002-4108","latitude":"33.54","longitude":"133.595","source_code":"SK128862401000380004","project_name":"","survey_name":"\u5e73\u621024-25\u5e74\u5ea6 \u5510\u8c37\u5730\u533a\u6539\u826f\u5de5\u4e8b","client_name":"\u56fd\u571f\u4ea4\u901a\u7701 \u56db\u56fd\u5730\u65b9\u6574\u5099\u5c40 \u571f\u4f50\u56fd\u9053\u4e8b\u52d9\u6240","boring_xml_url":47,"boring_view_url":1,"soilmap_view_url":null,"soiltest_xml_url":0,"soiltest_view_url":0},{"id":258627,"code":"B4KJ201802002-4107","latitude":"33.539444","longitude":"133.594722","source_code":"SK128862401000380003","project_name":"","survey_name":"\u5e73\u621024-25\u5e74\u5ea6 \u5510\u8c37\u5730\u533a\u6539\u826f\u5de5\u4e8b","client_name":"\u56fd\u571f\u4ea4\u901a\u7701 \u56db\u56fd\u5730\u65b9\u6574\u5099\u5c40 \u571f\u4f50\u56fd\u9053\u4e8b\u52d9\u6240","boring_xml_url":47,"boring_view_url":1,"soilmap_view_url":null,"soiltest_xml_url":0,"soiltest_view_url":0},{"id":258626,"code":"B4KJ201802002-4106","latitude":"33.539722","longitude":"133.594722","source_code":"SK128862401000380002","project_name":"","survey_name":"\u5e73\u621024-25\u5e74\u5ea6 \u5510\u8c37\u5730\u533a\u6539\u826f\u5de5\u4e8b","client_name":"\u56fd\u571f\u4ea4\u901a\u7701 \u56db\u56fd\u5730\u65b9\u6574\u5099\u5c40 \u571f\u4f50\u56fd\u9053\u4e8b\u52d9\u6240","boring_xml_url":47,"boring_view_url":1,"soilmap_view_url":null,"soiltest_xml_url":0,"soiltest_view_url":0},{"id":258625,"code":"B4KJ201802002-4105","latitude":"33.54","longitude":"133.594722","source_code":"SK128862401000380001","project_name":"","survey_name":"\u5e73\u621024-25\u5e74\u5ea6 \u5510\u8c37\u5730\u533a\u6539\u826f\u5de5\u4e8b","client_name":"\u56fd\u571f\u4ea4\u901a\u7701 \u56db\u56fd\u5730\u65b9\u6574\u5099\u5c40 \u571f\u4f50\u56fd\u9053\u4e8b\u52d9\u6240","boring_xml_url":47,"boring_view_url":1,"soilmap_view_url":null,"soiltest_xml_url":0,"soiltest_view_url":0},{"id":258624,"code":"B4KJ201802002-4104","latitude":"33.557778","longitude":"133.663611","source_code":"SK128862401000170002","project_name":"","survey_name":"\u5e73\u621024\u5e74\u5ea6 \u7530\u6751\u9ad8\u67b6\u6a4b\u4e0b\u90e8\u5de5\u4e8b","client_name":"\u56fd\u571f\u4ea4\u901a\u7701\u56db\u56fd\u5730\u65b9\u6574\u5099\u5c40\u571f\u4f50\u56fd\u9053\u4e8b\u52d9\u6240","boring_xml_url":47,"boring_view_url":1,"soilmap_view_url":null,"soiltest_xml_url":0,"soiltest_view_url":0},{"id":258623,"code":"B4KJ201802002-4103","latitude":"33.557778","longitude":"133.663611","source_code":"SK128862401000170001","project_name":"","survey_name":"\u5e73\u621024\u5e74\u5ea6 \u7530\u6751\u9ad8\u67b6\u6a4b\u4e0b\u90e8\u5de5\u4e8b","client_name":"\u56fd\u571f\u4ea4\u901a\u7701\u56db\u56fd\u5730\u65b9\u6574\u5099\u5c40\u571f\u4f50\u56fd\u9053\u4e8b\u52d9\u6240","boring_xml_url":47,"boring_view_url":1,"soilmap_view_url":null,"soiltest_xml_url":0,"soiltest_view_url":0},{"id":258622,"code":"B4KJ201802002-4102","latitude":"32.974472","longitude":"132.886944","source_code":"SK118861452000190009","project_name":"\u5e73\u621023-24\u5e74\u5ea6 \u5c71\u8def\u5ddd\u6a0b\u9580\u5916\u8010\u9707\u7167\u67fb\u691c\u8a0e\u696d\u52d9","survey_name":"\u5e73\u621023-24\u5e74\u5ea6 \u5c71\u8def\u5ddd\u6a0b\u9580\u5916\u8010\u9707\u7167\u67fb\u691c\u8a0e\u696d\u52d9","client_name":"\u56fd\u571f\u4ea4\u901a\u7701\u56db\u56fd\u5730\u65b9\u6574\u5099\u5c40\u4e2d\u6751\u6cb3\u5ddd\u56fd\u9053\u4e8b\u52d9\u6240","boring_xml_url":47,"boring_view_url":1,"soilmap_view_url":null,"soiltest_xml_url":47,"soiltest_view_url":46},{"id":258621,"code":"B4KJ201802002-4101","latitude":"32.974278","longitude":"132.886833","source_code":"SK118861452000190008","project_name":"\u5e73\u621023-24\u5e74\u5ea6 \u5c71\u8def\u5ddd\u6a0b\u9580\u5916\u8010\u9707\u7167\u67fb\u691c\u8a0e\u696d\u52d9","survey_name":"\u5e73\u621023-24\u5e74\u5ea6 \u5c71\u8def\u5ddd\u6a0b\u9580\u5916\u8010\u9707\u7167\u67fb\u691c\u8a0e\u696d\u52d9","client_name":"\u56fd\u571f\u4ea4\u901a\u7701\u56db\u56fd\u5730\u65b9\u6574\u5099\u5c40\u4e2d\u6751\u6cb3\u5ddd\u56fd\u9053\u4e8b\u52d9\u6240","boring_xml_url":47,"boring_view_url":1,"soilmap_view_url":null,"soiltest_xml_url":47,"soiltest_view_url":46},{"id":258620,"code":"B4KJ201802002-4100","latitude":"32.971361","longitude":"132.893111","source_code":"SK118861452000190007","project_name":"\u5e73\u621023-24\u5e74\u5ea6 \u5c71\u8def\u5ddd\u6a0b\u9580\u5916\u8010\u9707\u7167\u67fb\u691c\u8a0e\u696d\u52d9","survey_name":"\u5e73\u621023-24\u5e74\u5ea6 \u5c71\u8def\u5ddd\u6a0b\u9580\u5916\u8010\u9707\u7167\u67fb\u691c\u8a0e\u696d\u52d9","client_name":"\u56fd\u571f\u4ea4\u901a\u7701\u56db\u56fd\u5730\u65b9\u6574\u5099\u5c40\u4e2d\u6751\u6cb3\u5ddd\u56fd\u9053\u4e8b\u52d9\u6240","boring_xml_url":47,"boring_view_url":1,"soilmap_view_url":null,"soiltest_xml_url":47,"soiltest_view_url":46},{"id":258619,"code":"B4KJ201802002-4099","latitude":"32.971167","longitude":"132.893139","source_code":"SK118861452000190006","project_name":"\u5e73\u621023-24\u5e74\u5ea6 \u5c71\u8def\u5ddd\u6a0b\u9580\u5916\u8010\u9707\u7167\u67fb\u691c\u8a0e\u696d\u52d9","survey_name":"\u5e73\u621023-24\u5e74\u5ea6 \u5c71\u8def\u5ddd\u6a0b\u9580\u5916\u8010\u9707\u7167\u67fb\u691c\u8a0e\u696d\u52d9","client_name":"\u56fd\u571f\u4ea4\u901a\u7701\u56db\u56fd\u5730\u65b9\u6574\u5099\u5c40\u4e2d\u6751\u6cb3\u5ddd\u56fd\u9053\u4e8b\u52d9\u6240","boring_xml_url":47,"boring_view_url":1,"soilmap_view_url":null,"soiltest_xml_url":47,"soiltest_view_url":46}]}}