{"header":{"xyz":{"source":[],"mosaic":false},"page":2401,"raw":{"soiltest_result":"0","bbox":"57.598333,109.544722,1.933333,163.806111","page":"2401"},"conditions":{"soiltest_result":0,"north":57.598333,"west":109.544722,"south":1.933333,"east":163.806111},"success":true,"message":""},"data":{"meta":{"total":212844,"page":2401,"pages":7095,"count":30},"values":[{"id":258528,"code":"B4KJ201802002-4008","latitude":"34.141694","longitude":"134.606944","source_code":"SK128830642000060004","project_name":"\u5e73\u621024\u5e74\u5ea6 \u65e7\u5409\u91ce\u5ddd\u5730\u4e0b\u6c34\u89b3\u6e2c\u4e95\u8a2d\u7f6e\u696d\u52d9","survey_name":"\u5e73\u621024\u5e74\u5ea6 \u65e7\u5409\u91ce\u5ddd\u5730\u4e0b\u6c34\u89b3\u6e2c\u4e95\u8a2d\u7f6e\u696d\u52d9","client_name":"\u56fd\u571f\u4ea4\u901a\u7701 \u56db\u56fd\u5730\u65b9\u6574\u5099\u5c40 \u5fb3\u5cf6\u6cb3\u5ddd\u56fd\u9053\u4e8b\u52d9\u6240","boring_xml_url":47,"boring_view_url":1,"soilmap_view_url":null,"soiltest_xml_url":0,"soiltest_view_url":0},{"id":258527,"code":"B4KJ201802002-4007","latitude":"34.153778","longitude":"134.597194","source_code":"SK128830642000060003","project_name":"\u5e73\u621024\u5e74\u5ea6 \u65e7\u5409\u91ce\u5ddd\u5730\u4e0b\u6c34\u89b3\u6e2c\u4e95\u8a2d\u7f6e\u696d\u52d9","survey_name":"\u5e73\u621024\u5e74\u5ea6 \u65e7\u5409\u91ce\u5ddd\u5730\u4e0b\u6c34\u89b3\u6e2c\u4e95\u8a2d\u7f6e\u696d\u52d9","client_name":"\u56fd\u571f\u4ea4\u901a\u7701 \u56db\u56fd\u5730\u65b9\u6574\u5099\u5c40 \u5fb3\u5cf6\u6cb3\u5ddd\u56fd\u9053\u4e8b\u52d9\u6240","boring_xml_url":47,"boring_view_url":1,"soilmap_view_url":null,"soiltest_xml_url":0,"soiltest_view_url":0},{"id":258526,"code":"B4KJ201802002-4006","latitude":"34.152194","longitude":"134.590833","source_code":"SK128830642000060002","project_name":"\u5e73\u621024\u5e74\u5ea6 \u65e7\u5409\u91ce\u5ddd\u5730\u4e0b\u6c34\u89b3\u6e2c\u4e95\u8a2d\u7f6e\u696d\u52d9","survey_name":"\u5e73\u621024\u5e74\u5ea6 \u65e7\u5409\u91ce\u5ddd\u5730\u4e0b\u6c34\u89b3\u6e2c\u4e95\u8a2d\u7f6e\u696d\u52d9","client_name":"\u56fd\u571f\u4ea4\u901a\u7701 \u56db\u56fd\u5730\u65b9\u6574\u5099\u5c40 \u5fb3\u5cf6\u6cb3\u5ddd\u56fd\u9053\u4e8b\u52d9\u6240","boring_xml_url":47,"boring_view_url":1,"soilmap_view_url":null,"soiltest_xml_url":0,"soiltest_view_url":0},{"id":258525,"code":"B4KJ201802002-4005","latitude":"34.128278","longitude":"134.576028","source_code":"SK128830642000060001","project_name":"\u5e73\u621024\u5e74\u5ea6 \u65e7\u5409\u91ce\u5ddd\u5730\u4e0b\u6c34\u89b3\u6e2c\u4e95\u8a2d\u7f6e\u696d\u52d9","survey_name":"\u5e73\u621024\u5e74\u5ea6 \u65e7\u5409\u91ce\u5ddd\u5730\u4e0b\u6c34\u89b3\u6e2c\u4e95\u8a2d\u7f6e\u696d\u52d9","client_name":"\u56fd\u571f\u4ea4\u901a\u7701 \u56db\u56fd\u5730\u65b9\u6574\u5099\u5c40 \u5fb3\u5cf6\u6cb3\u5ddd\u56fd\u9053\u4e8b\u52d9\u6240","boring_xml_url":47,"boring_view_url":1,"soilmap_view_url":null,"soiltest_xml_url":0,"soiltest_view_url":0},{"id":258524,"code":"B4KJ201802002-4004","latitude":"34.044444","longitude":"133.918333","source_code":"SK128830642000040001","project_name":"\u5e73\u621024\u5e74\u5ea6 \u3053\u307e\u305f\u5ddd\u6a0b\u9580\u5b9f\u65bd\u8a2d\u8a08\u696d\u52d9","survey_name":"\u5e73\u621024\u5e74\u5ea6 \u3053\u307e\u305f\u5ddd\u6a0b\u9580\u5b9f\u65bd\u8a2d\u8a08\u696d\u52d9","client_name":"\u56fd\u571f\u4ea4\u901a\u7701\u56db\u56fd\u5730\u65b9\u6574\u5099\u5c40 \u5fb3\u5cf6\u6cb3\u5ddd\u56fd\u9053\u4e8b\u52d9\u6240","boring_xml_url":47,"boring_view_url":1,"soilmap_view_url":null,"soiltest_xml_url":0,"soiltest_view_url":0},{"id":258523,"code":"B4KJ201802002-4003","latitude":"34.149444","longitude":"134.60825","source_code":"SK118830402000310001","project_name":"\u5e73\u621023-24\u5e74\u5ea6 \u65e7\u5409\u91ce\u5ddd\u5de6\u5cb8\u5824\u9632\u8010\u9707\u8a2d\u8a08\u696d\u52d9","survey_name":"\u5e73\u621023-24\u5e74\u5ea6 \u65e7\u5409\u91ce\u5ddd\u5de6\u5cb8\u5824\u9632\u8010\u9707\u8a2d\u8a08\u696d\u52d9","client_name":"\u56fd\u571f\u4ea4\u901a\u7701 \u56db\u56fd\u5730\u65b9\u6574\u5099\u5c40 \u5fb3\u5cf6\u6cb3\u5ddd\u56fd\u9053\u4e8b\u52d9\u6240","boring_xml_url":47,"boring_view_url":1,"soilmap_view_url":null,"soiltest_xml_url":0,"soiltest_view_url":0},{"id":258522,"code":"B4KJ201802002-4002","latitude":"33.6125","longitude":"132.478611","source_code":"SK108851622000130001","project_name":"","survey_name":"\u5e73\u621022\u5e74\u5ea6 \u80b1\u5ddd\u6c34\u7cfb\u8010\u9707\u6027\u80fd\u7167\u67fb\u5916\u696d\u52d9\u59d4\u8a17","client_name":"\u56fd\u571f\u4ea4\u901a\u7701\u56db\u56fd\u5730\u65b9\u6574\u5099\u5c40\u5927\u6d32\u6cb3\u5ddd\u56fd\u9053\u4e8b\u52d9\u6240","boring_xml_url":47,"boring_view_url":1,"soilmap_view_url":null,"soiltest_xml_url":47,"soiltest_view_url":46},{"id":258521,"code":"B4KJ201802002-4001","latitude":"34.043333","longitude":"133.919722","source_code":"SK098830402000190005","project_name":"","survey_name":"\u5e73\u621021\u5e74\u5ea6 \u5409\u91ce\u5ddd\u5824\u9632\u5730\u8cea\u8abf\u67fb\u696d\u52d9","client_name":"\u56fd\u571f\u4ea4\u901a\u7701\u56db\u56fd\u5730\u65b9\u6574\u5099\u5c40\u5fb3\u5cf6\u6cb3\u5ddd\u56fd\u9053\u4e8b\u52d9\u6240","boring_xml_url":47,"boring_view_url":1,"soilmap_view_url":null,"soiltest_xml_url":47,"soiltest_view_url":46},{"id":258520,"code":"B4KJ201802002-4000","latitude":"34.043333","longitude":"133.935833","source_code":"SK098830402000190004","project_name":"","survey_name":"\u5e73\u621021\u5e74\u5ea6 \u5409\u91ce\u5ddd\u5824\u9632\u5730\u8cea\u8abf\u67fb\u696d\u52d9","client_name":"\u56fd\u571f\u4ea4\u901a\u7701\u56db\u56fd\u5730\u65b9\u6574\u5099\u5c40\u5fb3\u5cf6\u6cb3\u5ddd\u56fd\u9053\u4e8b\u52d9\u6240","boring_xml_url":47,"boring_view_url":1,"soilmap_view_url":null,"soiltest_xml_url":47,"soiltest_view_url":46},{"id":258519,"code":"B4KJ201802002-3999","latitude":"34.065833","longitude":"134.266667","source_code":"SK098830402000190003","project_name":"","survey_name":"\u5e73\u621021\u5e74\u5ea6 \u5409\u91ce\u5ddd\u5824\u9632\u5730\u8cea\u8abf\u67fb\u696d\u52d9","client_name":"\u56fd\u571f\u4ea4\u901a\u7701\u56db\u56fd\u5730\u65b9\u6574\u5099\u5c40\u5fb3\u5cf6\u6cb3\u5ddd\u56fd\u9053\u4e8b\u52d9\u6240","boring_xml_url":47,"boring_view_url":1,"soilmap_view_url":null,"soiltest_xml_url":47,"soiltest_view_url":46},{"id":258518,"code":"B4KJ201802002-3998","latitude":"34.095167","longitude":"134.5695","source_code":"SK098830402000190002","project_name":"","survey_name":"\u5e73\u621021\u5e74\u5ea6 \u5409\u91ce\u5ddd\u5824\u9632\u5730\u8cea\u8abf\u67fb\u696d\u52d9","client_name":"\u56fd\u571f\u4ea4\u901a\u7701\u56db\u56fd\u5730\u65b9\u6574\u5099\u5c40\u5fb3\u5cf6\u6cb3\u5ddd\u56fd\u9053\u4e8b\u52d9\u6240","boring_xml_url":47,"boring_view_url":1,"soilmap_view_url":null,"soiltest_xml_url":47,"soiltest_view_url":46},{"id":258517,"code":"B4KJ201802002-3997","latitude":"34.095556","longitude":"134.569722","source_code":"SK098830402000190001","project_name":"","survey_name":"\u5e73\u621021\u5e74\u5ea6 \u5409\u91ce\u5ddd\u5824\u9632\u5730\u8cea\u8abf\u67fb\u696d\u52d9","client_name":"\u56fd\u571f\u4ea4\u901a\u7701\u56db\u56fd\u5730\u65b9\u6574\u5099\u5c40\u5fb3\u5cf6\u6cb3\u5ddd\u56fd\u9053\u4e8b\u52d9\u6240","boring_xml_url":47,"boring_view_url":1,"soilmap_view_url":null,"soiltest_xml_url":47,"soiltest_view_url":46},{"id":258516,"code":"B4KJ201802002-3996","latitude":"33.271083","longitude":"132.585056","source_code":"SK108851412000140005","project_name":"\u5e73\u621022\u5e74\u5ea6 \u56db\u56fd\u6a2a\u65ad\u9053\u6e2c\u91cf\u8a2d\u8a08(\u305d\u306e3)\u696d\u52d9\u59d4\u8a17","survey_name":"\u5e73\u621022\u5e74\u5ea6 \u56db\u56fd\u6a2a\u65ad\u9053\u6e2c\u91cf\u8a2d\u8a08(\u305d\u306e3)\u696d\u52d9\u59d4\u8a17","client_name":"\u56fd\u571f\u4ea4\u901a\u7701\u56db\u56fd\u5730\u65b9\u6574\u5099\u5c40\u5927\u6d32\u6cb3\u5ddd\u56fd\u9053\u4e8b\u52d9\u6240\u5de5\u52d9\u7b2c2\u8ab2","boring_xml_url":47,"boring_view_url":1,"soilmap_view_url":null,"soiltest_xml_url":0,"soiltest_view_url":0},{"id":258515,"code":"B4KJ201802002-3995","latitude":"33.268556","longitude":"132.580722","source_code":"SK108851412000140004","project_name":"\u5e73\u621022\u5e74\u5ea6\u56db\u56fd\u6a2a\u65ad\u9053\u6e2c\u91cf\u8a2d\u8a08(\u305d\u306e3)\u696d\u52d9\u59d4\u8a17","survey_name":"\u5e73\u621022\u5e74\u5ea6\u56db\u56fd\u6a2a\u65ad\u9053\u6e2c\u91cf\u8a2d\u8a08(\u305d\u306e3)\u696d\u52d9\u59d4\u8a17","client_name":"\u56fd\u571f\u4ea4\u901a\u7701\u56db\u56fd\u5730\u65b9\u6574\u5099\u5c40\u5927\u6d32\u6cb3\u5ddd\u56fd\u9053\u4e8b\u52d9\u6240","boring_xml_url":47,"boring_view_url":1,"soilmap_view_url":null,"soiltest_xml_url":0,"soiltest_view_url":0},{"id":258514,"code":"B4KJ201802002-3994","latitude":"33.268556","longitude":"132.580889","source_code":"SK108851412000140003","project_name":"\u5e73\u621022\u5e74\u5ea6\u56db\u56fd\u6a2a\u65ad\u9053\u6e2c\u91cf\u8a2d\u8a08(\u305d\u306e3)\u696d\u52d9\u59d4\u8a17","survey_name":"\u5e73\u621022\u5e74\u5ea6\u56db\u56fd\u6a2a\u65ad\u9053\u6e2c\u91cf\u8a2d\u8a08(\u305d\u306e3)\u696d\u52d9\u59d4\u8a17","client_name":"\u56fd\u571f\u4ea4\u901a\u7701\u56db\u56fd\u5730\u65b9\u6574\u5099\u5c40\u5927\u6d32\u6cb3\u5ddd\u56fd\u9053\u4e8b\u52d9\u6240","boring_xml_url":47,"boring_view_url":1,"soilmap_view_url":null,"soiltest_xml_url":0,"soiltest_view_url":0},{"id":258513,"code":"B4KJ201802002-3993","latitude":"33.26825","longitude":"132.580694","source_code":"SK108851412000140002","project_name":"\u5e73\u621022\u5e74\u5ea6\u56db\u56fd\u6a2a\u65ad\u9053\u6e2c\u91cf\u8a2d\u8a08(\u305d\u306e3)\u696d\u52d9\u59d4\u8a17","survey_name":"\u5e73\u621022\u5e74\u5ea6\u56db\u56fd\u6a2a\u65ad\u9053\u6e2c\u91cf\u8a2d\u8a08(\u305d\u306e3)\u696d\u52d9\u59d4\u8a17","client_name":"\u56fd\u571f\u4ea4\u901a\u7701\u56db\u56fd\u5730\u65b9\u6574\u5099\u5c40\u5927\u6d32\u6cb3\u5ddd\u56fd\u9053\u4e8b\u52d9\u6240","boring_xml_url":47,"boring_view_url":1,"soilmap_view_url":null,"soiltest_xml_url":0,"soiltest_view_url":0},{"id":258512,"code":"B4KJ201802002-3992","latitude":"33.268194","longitude":"132.580778","source_code":"SK108851412000140001","project_name":"\u5e73\u621022\u5e74\u5ea6\u56db\u56fd\u6a2a\u65ad\u9053\u6e2c\u91cf\u8a2d\u8a08(\u305d\u306e3)\u696d\u52d9\u59d4\u8a17","survey_name":"\u5e73\u621022\u5e74\u5ea6\u56db\u56fd\u6a2a\u65ad\u9053\u6e2c\u91cf\u8a2d\u8a08(\u305d\u306e3)\u696d\u52d9\u59d4\u8a17","client_name":"\u56fd\u571f\u4ea4\u901a\u7701\u56db\u56fd\u5730\u65b9\u6574\u5099\u5c40\u5927\u6d32\u6cb3\u5ddd\u56fd\u9053\u4e8b\u52d9\u6240","boring_xml_url":47,"boring_view_url":1,"soilmap_view_url":null,"soiltest_xml_url":0,"soiltest_view_url":0},{"id":258511,"code":"B4KJ201802002-3991","latitude":"33.25125","longitude":"132.572611","source_code":"SK108851412000090002","project_name":"\u5e73\u621022\u5e74\u5ea6 \u56db\u56fd\u6a2a\u65ad\u9053\u6e2c\u91cf\u8a2d\u8a08(\u305d\u306e2)\u696d\u52d9\u59d4\u8a17","survey_name":"\u5e73\u621022\u5e74\u5ea6 \u56db\u56fd\u6a2a\u65ad\u9053\u6e2c\u91cf\u8a2d\u8a08(\u305d\u306e2)\u696d\u52d9\u59d4\u8a17","client_name":"\u56fd\u571f\u4ea4\u901a\u7701\u56db\u56fd\u5730\u65b9\u6574\u5099\u5c40\u5927\u6d32\u6cb3\u5ddd\u56fd\u9053\u4e8b\u52d9\u6240","boring_xml_url":47,"boring_view_url":1,"soilmap_view_url":null,"soiltest_xml_url":0,"soiltest_view_url":0},{"id":258510,"code":"B4KJ201802002-3990","latitude":"33.251889","longitude":"132.573583","source_code":"SK108851412000090001","project_name":"\u5e73\u621022\u5e74\u5ea6 \u56db\u56fd\u6a2a\u65ad\u9053\u6e2c\u91cf\u8a2d\u8a08(\u305d\u306e2)\u696d\u52d9\u59d4\u8a17","survey_name":"\u5e73\u621022\u5e74\u5ea6 \u56db\u56fd\u6a2a\u65ad\u9053\u6e2c\u91cf\u8a2d\u8a08(\u305d\u306e2)\u696d\u52d9\u59d4\u8a17","client_name":"\u56fd\u571f\u4ea4\u901a\u7701\u56db\u56fd\u5730\u65b9\u6574\u5099\u5c40\u5927\u6d32\u6cb3\u5ddd\u56fd\u9053\u4e8b\u52d9\u6240","boring_xml_url":47,"boring_view_url":1,"soilmap_view_url":null,"soiltest_xml_url":0,"soiltest_view_url":0},{"id":258509,"code":"B4KJ201802002-3989","latitude":"33.864806","longitude":"133.864917","source_code":"SK108837402000050006","project_name":"\u5e73\u621022\u5e74\u5ea6\u718a\u8c37\u7b2c4\u5830\u5824\u7ba1\u7406\u7528\u9053\u8def\u8abf\u67fb\u8a2d\u8a08\u696d\u52d9\u59d4\u8a17","survey_name":"\u5e73\u621022\u5e74\u5ea6\u718a\u8c37\u7b2c4\u5830\u5824\u7ba1\u7406\u7528\u9053\u8def\u8abf\u67fb\u8a2d\u8a08\u696d\u52d9\u59d4\u8a17","client_name":"\u56fd\u571f\u4ea4\u901a\u7701 \u56db\u56fd\u5730\u65b9\u6574\u5099\u5c40 \u56db\u56fd\u5c71\u5730\u7802\u9632\u4e8b\u52d9\u6240","boring_xml_url":47,"boring_view_url":1,"soilmap_view_url":null,"soiltest_xml_url":0,"soiltest_view_url":0},{"id":258508,"code":"B4KJ201802002-3988","latitude":"33.861639","longitude":"133.862944","source_code":"SK108837402000050005","project_name":"\u5e73\u621022\u5e74\u5ea6\u718a\u8c37\u7b2c4\u5830\u5824\u7ba1\u7406\u7528\u9053\u8def\u8abf\u67fb\u8a2d\u8a08\u696d\u52d9\u59d4\u8a17","survey_name":"\u5e73\u621022\u5e74\u5ea6\u718a\u8c37\u7b2c4\u5830\u5824\u7ba1\u7406\u7528\u9053\u8def\u8abf\u67fb\u8a2d\u8a08\u696d\u52d9\u59d4\u8a17","client_name":"\u56fd\u571f\u4ea4\u901a\u7701 \u56db\u56fd\u5730\u65b9\u6574\u5099\u5c40 \u56db\u56fd\u5c71\u5730\u7802\u9632\u4e8b\u52d9\u6240","boring_xml_url":47,"boring_view_url":1,"soilmap_view_url":null,"soiltest_xml_url":0,"soiltest_view_url":0},{"id":258507,"code":"B4KJ201802002-3987","latitude":"33.864278","longitude":"133.864639","source_code":"SK108837402000050004","project_name":"\u5e73\u621022\u5e74\u5ea6\u718a\u8c37\u7b2c4\u5830\u5824\u7ba1\u7406\u7528\u9053\u8def\u8abf\u67fb\u8a2d\u8a08\u696d\u52d9\u59d4\u8a17","survey_name":"\u5e73\u621022\u5e74\u5ea6\u718a\u8c37\u7b2c4\u5830\u5824\u7ba1\u7406\u7528\u9053\u8def\u8abf\u67fb\u8a2d\u8a08\u696d\u52d9\u59d4\u8a17","client_name":"\u56fd\u571f\u4ea4\u901a\u7701 \u56db\u56fd\u5730\u65b9\u6574\u5099\u5c40 \u56db\u56fd\u5c71\u5730\u7802\u9632\u4e8b\u52d9\u6240","boring_xml_url":47,"boring_view_url":1,"soilmap_view_url":null,"soiltest_xml_url":0,"soiltest_view_url":0},{"id":258506,"code":"B4KJ201802002-3986","latitude":"33.863333","longitude":"133.863917","source_code":"SK108837402000050003","project_name":"\u5e73\u621022\u5e74\u5ea6\u718a\u8c37\u7b2c4\u5830\u5824\u7ba1\u7406\u7528\u9053\u8def\u8abf\u67fb\u8a2d\u8a08\u696d\u52d9\u59d4\u8a17","survey_name":"\u5e73\u621022\u5e74\u5ea6\u718a\u8c37\u7b2c4\u5830\u5824\u7ba1\u7406\u7528\u9053\u8def\u8abf\u67fb\u8a2d\u8a08\u696d\u52d9\u59d4\u8a17","client_name":"\u56fd\u571f\u4ea4\u901a\u7701 \u56db\u56fd\u5730\u65b9\u6574\u5099\u5c40 \u56db\u56fd\u5c71\u5730\u7802\u9632\u4e8b\u52d9\u6240","boring_xml_url":47,"boring_view_url":1,"soilmap_view_url":null,"soiltest_xml_url":0,"soiltest_view_url":0},{"id":258505,"code":"B4KJ201802002-3985","latitude":"33.864111","longitude":"133.864639","source_code":"SK108837402000050002","project_name":"\u5e73\u621022\u5e74\u5ea6\u718a\u8c37\u7b2c4\u5830\u5824\u7ba1\u7406\u7528\u9053\u8def\u8abf\u67fb\u8a2d\u8a08\u696d\u52d9\u59d4\u8a17","survey_name":"\u5e73\u621022\u5e74\u5ea6\u718a\u8c37\u7b2c4\u5830\u5824\u7ba1\u7406\u7528\u9053\u8def\u8abf\u67fb\u8a2d\u8a08\u696d\u52d9\u59d4\u8a17","client_name":"\u56fd\u571f\u4ea4\u901a\u7701 \u56db\u56fd\u5730\u65b9\u6574\u5099\u5c40 \u56db\u56fd\u5c71\u5730\u7802\u9632\u4e8b\u52d9\u6240","boring_xml_url":47,"boring_view_url":1,"soilmap_view_url":null,"soiltest_xml_url":0,"soiltest_view_url":0},{"id":258504,"code":"B4KJ201802002-3984","latitude":"33.864083","longitude":"133.864528","source_code":"SK108837402000050001","project_name":"\u5e73\u621022\u5e74\u5ea6\u718a\u8c37\u7b2c4\u5830\u5824\u7ba1\u7406\u7528\u9053\u8def\u8abf\u67fb\u8a2d\u8a08\u696d\u52d9\u59d4\u8a17","survey_name":"\u5e73\u621022\u5e74\u5ea6\u718a\u8c37\u7b2c4\u5830\u5824\u7ba1\u7406\u7528\u9053\u8def\u8abf\u67fb\u8a2d\u8a08\u696d\u52d9\u59d4\u8a17","client_name":"\u56fd\u571f\u4ea4\u901a\u7701 \u56db\u56fd\u5730\u65b9\u6574\u5099\u5c40 \u56db\u56fd\u5c71\u5730\u7802\u9632\u4e8b\u52d9\u6240","boring_xml_url":47,"boring_view_url":1,"soilmap_view_url":null,"soiltest_xml_url":0,"soiltest_view_url":0},{"id":258503,"code":"B4KJ201802002-3983","latitude":"33.5345","longitude":"132.606306","source_code":"SK108851622000150003","project_name":"\u5e73\u621022\u5e74\u5ea6 \u80b1\u5ddd\u6c34\u7cfb\u5824\u9632\u5f37\u5316\u5bfe\u7b56\u691c\u8a0e\u696d\u52d9\u59d4\u8a17","survey_name":"\u5e73\u621022\u5e74\u5ea6 \u80b1\u5ddd\u6c34\u7cfb\u5824\u9632\u5f37\u5316\u5bfe\u7b56\u691c\u8a0e\u696d\u52d9\u59d4\u8a17","client_name":"\u56fd\u571f\u4ea4\u901a\u7701\u56db\u56fd\u5730\u65b9\u6574\u5099\u5c40 \u5927\u6d32\u6cb3\u5ddd\u56fd\u9053\u4e8b\u52d9\u6240","boring_xml_url":47,"boring_view_url":1,"soilmap_view_url":null,"soiltest_xml_url":47,"soiltest_view_url":46},{"id":258502,"code":"B4KJ201802002-3982","latitude":"33.534861","longitude":"132.597306","source_code":"SK108851622000150002","project_name":"\u5e73\u621022\u5e74\u5ea6 \u80b1\u5ddd\u6c34\u7cfb\u5824\u9632\u5f37\u5316\u5bfe\u7b56\u691c\u8a0e\u696d\u52d9\u59d4\u8a17","survey_name":"\u5e73\u621022\u5e74\u5ea6 \u80b1\u5ddd\u6c34\u7cfb\u5824\u9632\u5f37\u5316\u5bfe\u7b56\u691c\u8a0e\u696d\u52d9\u59d4\u8a17","client_name":"\u56fd\u571f\u4ea4\u901a\u7701\u56db\u56fd\u5730\u65b9\u6574\u5099\u5c40 \u5927\u6d32\u6cb3\u5ddd\u56fd\u9053\u4e8b\u52d9\u6240","boring_xml_url":47,"boring_view_url":1,"soilmap_view_url":null,"soiltest_xml_url":47,"soiltest_view_url":46},{"id":258501,"code":"B4KJ201802002-3981","latitude":"33.534778","longitude":"132.597278","source_code":"SK108851622000150001","project_name":"\u5e73\u621022\u5e74\u5ea6 \u80b1\u5ddd\u6c34\u7cfb\u5824\u9632\u5f37\u5316\u5bfe\u7b56\u691c\u8a0e\u696d\u52d9\u59d4\u8a17","survey_name":"\u5e73\u621022\u5e74\u5ea6 \u80b1\u5ddd\u6c34\u7cfb\u5824\u9632\u5f37\u5316\u5bfe\u7b56\u691c\u8a0e\u696d\u52d9\u59d4\u8a17","client_name":"\u56fd\u571f\u4ea4\u901a\u7701\u56db\u56fd\u5730\u65b9\u6574\u5099\u5c40 \u5927\u6d32\u6cb3\u5ddd\u56fd\u9053\u4e8b\u52d9\u6240","boring_xml_url":47,"boring_view_url":1,"soilmap_view_url":null,"soiltest_xml_url":47,"soiltest_view_url":46},{"id":258500,"code":"B4KJ201802002-3980","latitude":"33.546111","longitude":"133.7525","source_code":"SK118862401000080001","project_name":"\u5e73\u621023\u5e74\u5ea6 \u591c\u9808\u6539\u826f\u5de5\u4e8b \u5207\u571f\u306e\u308a\u9762No.76+50\u4ed8\u8fd1\u5730\u8cea\u8abf\u67fb","survey_name":"\u5e73\u621023\u5e74\u5ea6 \u591c\u9808\u6539\u826f\u5de5\u4e8b","client_name":"\u56fd\u571f\u4ea4\u901a\u7701\u56db\u56fd\u5730\u65b9\u6574\u5099\u5c40\u571f\u4f50\u56fd\u9053\u4e8b\u52d9\u6240","boring_xml_url":47,"boring_view_url":1,"soilmap_view_url":null,"soiltest_xml_url":0,"soiltest_view_url":0},{"id":258499,"code":"B4KJ201802002-3979","latitude":"33.757889","longitude":"132.710583","source_code":"SK118850411000150001","project_name":"","survey_name":"\u5e73\u621023-24\u5e74\u5ea6 \u4f0a\u4e88\u8de8\u7dda\u6a4b\u4e0b\u90e8\u5de5\u4e8b","client_name":"\u56fd\u571f\u4ea4\u901a\u7701\u56db\u56fd\u5730\u65b9\u6574\u5099\u5c40\u677e\u5c71\u6cb3\u5ddd\u56fd\u9053\u4e8b\u52d9\u6240","boring_xml_url":47,"boring_view_url":1,"soilmap_view_url":null,"soiltest_xml_url":0,"soiltest_view_url":0}]}}