{"header":{"xyz":{"source":[],"mosaic":false},"page":2406,"raw":{"soiltest_result":"0","bbox":"57.598333,109.544722,1.933333,163.806111","page":"2406"},"conditions":{"soiltest_result":0,"north":57.598333,"west":109.544722,"south":1.933333,"east":163.806111},"success":true,"message":""},"data":{"meta":{"total":212844,"page":2406,"pages":7095,"count":30},"values":[{"id":258378,"code":"B4KJ201802002-3858","latitude":"33.907722","longitude":"133.108333","source_code":"SK128850622000240008","project_name":"\u5e73\u621024\u5e74\u5ea6 \u65b0\u5c45\u6d5c\u30d0\u30a4\u30d1\u30b9\u5916\u5730\u8cea\u8abf\u67fb\u696d\u52d9","survey_name":"\u5e73\u621024\u5e74\u5ea6 \u65b0\u5c45\u6d5c\u30d0\u30a4\u30d1\u30b9\u5916\u5730\u8cea\u8abf\u67fb\u696d\u52d9","client_name":"\u56fd\u571f\u4ea4\u901a\u7701 \u677e\u5c71\u6cb3\u5ddd\u56fd\u9053\u4e8b\u52d9\u6240","boring_xml_url":47,"boring_view_url":1,"soilmap_view_url":null,"soiltest_xml_url":0,"soiltest_view_url":0},{"id":258377,"code":"B4KJ201802002-3857","latitude":"33.938167","longitude":"133.293528","source_code":"SK128850622000240007","project_name":"\u5e73\u621024\u5e74\u5ea6 \u65b0\u5c45\u6d5c\u30d0\u30a4\u30d1\u30b9\u5916\u5730\u8cea\u8abf\u67fb\u696d\u52d9","survey_name":"\u5e73\u621024\u5e74\u5ea6 \u65b0\u5c45\u6d5c\u30d0\u30a4\u30d1\u30b9\u5916\u5730\u8cea\u8abf\u67fb\u696d\u52d9","client_name":"\u56fd\u571f\u4ea4\u901a\u7701 \u677e\u5c71\u6cb3\u5ddd\u56fd\u9053\u4e8b\u52d9\u6240","boring_xml_url":47,"boring_view_url":1,"soilmap_view_url":null,"soiltest_xml_url":0,"soiltest_view_url":0},{"id":258376,"code":"B4KJ201802002-3856","latitude":"33.938556","longitude":"133.292972","source_code":"SK128850622000240006","project_name":"\u5e73\u621024\u5e74\u5ea6 \u65b0\u5c45\u6d5c\u30d0\u30a4\u30d1\u30b9\u5916\u5730\u8cea\u8abf\u67fb\u696d\u52d9","survey_name":"\u5e73\u621024\u5e74\u5ea6 \u65b0\u5c45\u6d5c\u30d0\u30a4\u30d1\u30b9\u5916\u5730\u8cea\u8abf\u67fb\u696d\u52d9","client_name":"\u56fd\u571f\u4ea4\u901a\u7701 \u677e\u5c71\u6cb3\u5ddd\u56fd\u9053\u4e8b\u52d9\u6240","boring_xml_url":47,"boring_view_url":1,"soilmap_view_url":null,"soiltest_xml_url":0,"soiltest_view_url":0},{"id":258375,"code":"B4KJ201802002-3855","latitude":"33.938056","longitude":"133.289806","source_code":"SK128850622000240005","project_name":"\u5e73\u621024\u5e74\u5ea6 \u65b0\u5c45\u6d5c\u30d0\u30a4\u30d1\u30b9\u5916\u5730\u8cea\u8abf\u67fb\u696d\u52d9","survey_name":"\u5e73\u621024\u5e74\u5ea6 \u65b0\u5c45\u6d5c\u30d0\u30a4\u30d1\u30b9\u5916\u5730\u8cea\u8abf\u67fb\u696d\u52d9","client_name":"\u56fd\u571f\u4ea4\u901a\u7701 \u677e\u5c71\u6cb3\u5ddd\u56fd\u9053\u4e8b\u52d9\u6240","boring_xml_url":47,"boring_view_url":1,"soilmap_view_url":null,"soiltest_xml_url":0,"soiltest_view_url":0},{"id":258374,"code":"B4KJ201802002-3854","latitude":"33.937833","longitude":"133.289944","source_code":"SK128850622000240004","project_name":"\u5e73\u621024\u5e74\u5ea6 \u65b0\u5c45\u6d5c\u30d0\u30a4\u30d1\u30b9\u5916\u5730\u8cea\u8abf\u67fb\u696d\u52d9","survey_name":"\u5e73\u621024\u5e74\u5ea6 \u65b0\u5c45\u6d5c\u30d0\u30a4\u30d1\u30b9\u5916\u5730\u8cea\u8abf\u67fb\u696d\u52d9","client_name":"\u56fd\u571f\u4ea4\u901a\u7701 \u677e\u5c71\u6cb3\u5ddd\u56fd\u9053\u4e8b\u52d9\u6240","boring_xml_url":47,"boring_view_url":1,"soilmap_view_url":null,"soiltest_xml_url":0,"soiltest_view_url":0},{"id":258373,"code":"B4KJ201802002-3853","latitude":"33.937361","longitude":"133.286694","source_code":"SK128850622000240003","project_name":"\u5e73\u621024\u5e74\u5ea6 \u65b0\u5c45\u6d5c\u30d0\u30a4\u30d1\u30b9\u5916\u5730\u8cea\u8abf\u67fb\u696d\u52d9","survey_name":"\u5e73\u621024\u5e74\u5ea6 \u65b0\u5c45\u6d5c\u30d0\u30a4\u30d1\u30b9\u5916\u5730\u8cea\u8abf\u67fb\u696d\u52d9","client_name":"\u56fd\u571f\u4ea4\u901a\u7701 \u677e\u5c71\u6cb3\u5ddd\u56fd\u9053\u4e8b\u52d9\u6240","boring_xml_url":47,"boring_view_url":1,"soilmap_view_url":null,"soiltest_xml_url":0,"soiltest_view_url":0},{"id":258372,"code":"B4KJ201802002-3852","latitude":"33.9375","longitude":"133.395278","source_code":"SK128850622000240002","project_name":"\u5e73\u621024\u5e74\u5ea6 \u65b0\u5c45\u6d5c\u30d0\u30a4\u30d1\u30b9\u5916\u5730\u8cea\u8abf\u67fb\u696d\u52d9","survey_name":"\u5e73\u621024\u5e74\u5ea6 \u65b0\u5c45\u6d5c\u30d0\u30a4\u30d1\u30b9\u5916\u5730\u8cea\u8abf\u67fb\u696d\u52d9","client_name":"\u56fd\u571f\u4ea4\u901a\u7701 \u677e\u5c71\u6cb3\u5ddd\u56fd\u9053\u4e8b\u52d9\u6240","boring_xml_url":47,"boring_view_url":1,"soilmap_view_url":null,"soiltest_xml_url":0,"soiltest_view_url":0},{"id":258371,"code":"B4KJ201802002-3851","latitude":"33.937667","longitude":"133.286778","source_code":"SK128850622000240001","project_name":"\u5e73\u621024\u5e74\u5ea6 \u65b0\u5c45\u6d5c\u30d0\u30a4\u30d1\u30b9\u5916\u5730\u8cea\u8abf\u67fb\u696d\u52d9","survey_name":"\u5e73\u621024\u5e74\u5ea6 \u65b0\u5c45\u6d5c\u30d0\u30a4\u30d1\u30b9\u5916\u5730\u8cea\u8abf\u67fb\u696d\u52d9","client_name":"\u56fd\u571f\u4ea4\u901a\u7701 \u677e\u5c71\u6cb3\u5ddd\u56fd\u9053\u4e8b\u52d9\u6240","boring_xml_url":47,"boring_view_url":1,"soilmap_view_url":null,"soiltest_xml_url":0,"soiltest_view_url":0},{"id":258370,"code":"B4KJ201802002-3850","latitude":"34.107528","longitude":"134.556778","source_code":"SK128830402000130002","project_name":"\u5e73\u621024\u5e74\u5ea6 \u4eca\u5207\u5ddd\u4e2d\u6751\u5730\u533a\u5916\u5730\u8cea\u8abf\u67fb\u696d\u52d9","survey_name":"\u5e73\u621024\u5e74\u5ea6 \u4eca\u5207\u5ddd\u4e2d\u6751\u5730\u533a\u5916\u5730\u8cea\u8abf\u67fb\u696d\u52d9","client_name":"\u56fd\u571f\u4ea4\u901a\u7701 \u56db\u56fd\u5730\u65b9\u6574\u5099\u5c40 \u5fb3\u5cf6\u6cb3\u5ddd\u56fd\u9053\u4e8b\u52d9\u6240","boring_xml_url":47,"boring_view_url":1,"soilmap_view_url":null,"soiltest_xml_url":47,"soiltest_view_url":46},{"id":258369,"code":"B4KJ201802002-3849","latitude":"34.127722","longitude":"134.567278","source_code":"SK128830402000130001","project_name":"\u5e73\u621024\u5e74\u5ea6 \u4eca\u5207\u5ddd\u4e2d\u6751\u5730\u533a\u5916\u5730\u8cea\u8abf\u67fb\u696d\u52d9","survey_name":"\u5e73\u621024\u5e74\u5ea6 \u4eca\u5207\u5ddd\u4e2d\u6751\u5730\u533a\u5916\u5730\u8cea\u8abf\u67fb\u696d\u52d9","client_name":"\u56fd\u571f\u4ea4\u901a\u7701 \u56db\u56fd\u5730\u65b9\u6574\u5099\u5c40 \u5fb3\u5cf6\u6cb3\u5ddd\u56fd\u9053\u4e8b\u52d9\u6240","boring_xml_url":47,"boring_view_url":1,"soilmap_view_url":null,"soiltest_xml_url":47,"soiltest_view_url":46},{"id":258368,"code":"B4KJ201802002-3848","latitude":"33.905028","longitude":"133.753361","source_code":"SK128830472000310002","project_name":"","survey_name":"\u5e73\u621024\u5e74\u5ea6 32\u53f7\u6539\u7bc9\u9632\u707d\u5730\u8cea\u8abf\u67fb\u696d\u52d9","client_name":"\u56fd\u571f\u4ea4\u901a\u7701 \u56db\u56fd\u5730\u65b9\u6574\u5099\u5c40 \u5fb3\u5cf6\u6cb3\u5ddd\u56fd\u9053\u4e8b\u52d9\u6240","boring_xml_url":47,"boring_view_url":1,"soilmap_view_url":null,"soiltest_xml_url":0,"soiltest_view_url":0},{"id":258367,"code":"B4KJ201802002-3847","latitude":"33.904889","longitude":"133.7535","source_code":"SK128830472000310001","project_name":"","survey_name":"\u5e73\u621024\u5e74\u5ea6 32\u53f7\u6539\u7bc9\u9632\u707d\u5730\u8cea\u8abf\u67fb\u696d\u52d9","client_name":"\u56fd\u571f\u4ea4\u901a\u7701 \u56db\u56fd\u5730\u65b9\u6574\u5099\u5c40 \u5fb3\u5cf6\u6cb3\u5ddd\u56fd\u9053\u4e8b\u52d9\u6240","boring_xml_url":47,"boring_view_url":1,"soilmap_view_url":null,"soiltest_xml_url":0,"soiltest_view_url":0},{"id":258366,"code":"B4KJ201802002-3846","latitude":"33.804444","longitude":"134.595278","source_code":"SK128830472000180005","project_name":"\u5e73\u621024\u5e74\u5ea6 \u798f\u4e95\u9053\u8def(2\u5de5\u533a)\u5730\u8cea\u8abf\u67fb\u696d\u52d9","survey_name":"\u5e73\u621024\u5e74\u5ea6 \u798f\u4e95\u9053\u8def(2\u5de5\u533a)\u5730\u8cea\u8abf\u67fb\u696d\u52d9","client_name":"\u56fd\u571f\u4ea4\u901a\u7701 \u56db\u56fd\u5730\u65b9\u6574\u5099\u5c40 \u5fb3\u5cf6\u6cb3\u5ddd\u56fd\u9053\u4e8b\u52d9\u6240","boring_xml_url":47,"boring_view_url":1,"soilmap_view_url":null,"soiltest_xml_url":0,"soiltest_view_url":0},{"id":258365,"code":"B4KJ201802002-3845","latitude":"33.814444","longitude":"134.602222","source_code":"SK128830472000180004","project_name":"\u5e73\u621024\u5e74\u5ea6 \u798f\u4e95\u9053\u8def(2\u5de5\u533a)\u5730\u8cea\u8abf\u67fb\u696d\u52d9","survey_name":"\u5e73\u621024\u5e74\u5ea6 \u798f\u4e95\u9053\u8def(2\u5de5\u533a)\u5730\u8cea\u8abf\u67fb\u696d\u52d9","client_name":"\u56fd\u571f\u4ea4\u901a\u7701 \u56db\u56fd\u5730\u65b9\u6574\u5099\u5c40 \u5fb3\u5cf6\u6cb3\u5ddd\u56fd\u9053\u4e8b\u52d9\u6240","boring_xml_url":47,"boring_view_url":1,"soilmap_view_url":null,"soiltest_xml_url":0,"soiltest_view_url":0},{"id":258364,"code":"B4KJ201802002-3844","latitude":"33.820833","longitude":"134.607778","source_code":"SK128830472000180003","project_name":"\u5e73\u621024\u5e74\u5ea6 \u798f\u4e95\u9053\u8def(2\u5de5\u533a)\u5730\u8cea\u8abf\u67fb\u696d\u52d9","survey_name":"\u5e73\u621024\u5e74\u5ea6 \u798f\u4e95\u9053\u8def(2\u5de5\u533a)\u5730\u8cea\u8abf\u67fb\u696d\u52d9","client_name":"\u56fd\u571f\u4ea4\u901a\u7701 \u56db\u56fd\u5730\u65b9\u6574\u5099\u5c40 \u5fb3\u5cf6\u6cb3\u5ddd\u56fd\u9053\u4e8b\u52d9\u6240","boring_xml_url":47,"boring_view_url":1,"soilmap_view_url":null,"soiltest_xml_url":0,"soiltest_view_url":0},{"id":258363,"code":"B4KJ201802002-3843","latitude":"33.829167","longitude":"134.61","source_code":"SK128830472000180002","project_name":"\u5e73\u621024\u5e74\u5ea6 \u798f\u4e95\u9053\u8def(2\u5de5\u533a)\u5730\u8cea\u8abf\u67fb\u696d\u52d9","survey_name":"\u5e73\u621024\u5e74\u5ea6 \u798f\u4e95\u9053\u8def(2\u5de5\u533a)\u5730\u8cea\u8abf\u67fb\u696d\u52d9","client_name":"\u56fd\u571f\u4ea4\u901a\u7701 \u56db\u56fd\u5730\u65b9\u6574\u5099\u5c40 \u5fb3\u5cf6\u6cb3\u5ddd\u56fd\u9053\u4e8b\u52d9\u6240","boring_xml_url":47,"boring_view_url":1,"soilmap_view_url":null,"soiltest_xml_url":47,"soiltest_view_url":46},{"id":258362,"code":"B4KJ201802002-3842","latitude":"33.835833","longitude":"134.608056","source_code":"SK128830472000180001","project_name":"\u5e73\u621024\u5e74\u5ea6 \u798f\u4e95\u9053\u8def(2\u5de5\u533a)\u5730\u8cea\u8abf\u67fb\u696d\u52d9","survey_name":"\u5e73\u621024\u5e74\u5ea6 \u798f\u4e95\u9053\u8def(2\u5de5\u533a)\u5730\u8cea\u8abf\u67fb\u696d\u52d9","client_name":"\u56fd\u571f\u4ea4\u901a\u7701 \u56db\u56fd\u5730\u65b9\u6574\u5099\u5c40 \u5fb3\u5cf6\u6cb3\u5ddd\u56fd\u9053\u4e8b\u52d9\u6240","boring_xml_url":47,"boring_view_url":1,"soilmap_view_url":null,"soiltest_xml_url":47,"soiltest_view_url":46},{"id":258361,"code":"B4KJ201802002-3841","latitude":"33.922111","longitude":"134.656528","source_code":"SK118834402000340023","project_name":"","survey_name":"\u5e73\u621023-24\u5e74\u5ea6 \u6851\u91ce\u5ddd\u53f3\u5cb8\u8010\u9707\u70b9\u691c\u5730\u8cea\u8abf\u67fb\u696d\u52d9","client_name":"\u56fd\u571f\u4ea4\u901a\u7701\u56db\u56fd\u5730\u65b9\u6574\u5099\u5c40 \u90a3\u8cc0\u5ddd\u6cb3\u5ddd\u4e8b\u52d9\u6240","boring_xml_url":47,"boring_view_url":1,"soilmap_view_url":null,"soiltest_xml_url":47,"soiltest_view_url":46},{"id":258360,"code":"B4KJ201802002-3840","latitude":"33.922111","longitude":"134.656528","source_code":"SK118834402000340022","project_name":"","survey_name":"\u5e73\u621023-24\u5e74\u5ea6 \u6851\u91ce\u5ddd\u53f3\u5cb8\u8010\u9707\u70b9\u691c\u5730\u8cea\u8abf\u67fb\u696d\u52d9","client_name":"\u56fd\u571f\u4ea4\u901a\u7701\u56db\u56fd\u5730\u65b9\u6574\u5099\u5c40 \u90a3\u8cc0\u5ddd\u6cb3\u5ddd\u4e8b\u52d9\u6240","boring_xml_url":47,"boring_view_url":1,"soilmap_view_url":null,"soiltest_xml_url":47,"soiltest_view_url":46},{"id":258359,"code":"B4KJ201802002-3839","latitude":"33.923111","longitude":"134.6635","source_code":"SK118834402000340021","project_name":"","survey_name":"\u5e73\u621023-24\u5e74\u5ea6 \u6851\u91ce\u5ddd\u53f3\u5cb8\u8010\u9707\u70b9\u691c\u5730\u8cea\u8abf\u67fb\u696d\u52d9","client_name":"\u56fd\u571f\u4ea4\u901a\u7701\u56db\u56fd\u5730\u65b9\u6574\u5099\u5c40 \u90a3\u8cc0\u5ddd\u6cb3\u5ddd\u4e8b\u52d9\u6240","boring_xml_url":47,"boring_view_url":1,"soilmap_view_url":null,"soiltest_xml_url":47,"soiltest_view_url":46},{"id":258358,"code":"B4KJ201802002-3838","latitude":"33.923111","longitude":"134.6635","source_code":"SK118834402000340020","project_name":"","survey_name":"\u5e73\u621023-24\u5e74\u5ea6 \u6851\u91ce\u5ddd\u53f3\u5cb8\u8010\u9707\u70b9\u691c\u5730\u8cea\u8abf\u67fb\u696d\u52d9","client_name":"\u56fd\u571f\u4ea4\u901a\u7701\u56db\u56fd\u5730\u65b9\u6574\u5099\u5c40 \u90a3\u8cc0\u5ddd\u6cb3\u5ddd\u4e8b\u52d9\u6240","boring_xml_url":47,"boring_view_url":1,"soilmap_view_url":null,"soiltest_xml_url":47,"soiltest_view_url":46},{"id":258357,"code":"B4KJ201802002-3837","latitude":"33.926694","longitude":"134.669111","source_code":"SK118834402000340019","project_name":"","survey_name":"\u5e73\u621023-24\u5e74\u5ea6 \u6851\u91ce\u5ddd\u53f3\u5cb8\u8010\u9707\u70b9\u691c\u5730\u8cea\u8abf\u67fb\u696d\u52d9","client_name":"\u56fd\u571f\u4ea4\u901a\u7701\u56db\u56fd\u5730\u65b9\u6574\u5099\u5c40 \u90a3\u8cc0\u5ddd\u6cb3\u5ddd\u4e8b\u52d9\u6240","boring_xml_url":47,"boring_view_url":1,"soilmap_view_url":null,"soiltest_xml_url":0,"soiltest_view_url":0},{"id":258356,"code":"B4KJ201802002-3836","latitude":"33.926583","longitude":"134.669278","source_code":"SK118834402000340018","project_name":"","survey_name":"\u5e73\u621023-24\u5e74\u5ea6 \u6851\u91ce\u5ddd\u53f3\u5cb8\u8010\u9707\u70b9\u691c\u5730\u8cea\u8abf\u67fb\u696d\u52d9","client_name":"\u56fd\u571f\u4ea4\u901a\u7701\u56db\u56fd\u5730\u65b9\u6574\u5099\u5c40 \u90a3\u8cc0\u5ddd\u6cb3\u5ddd\u4e8b\u52d9\u6240","boring_xml_url":47,"boring_view_url":1,"soilmap_view_url":null,"soiltest_xml_url":0,"soiltest_view_url":0},{"id":258355,"code":"B4KJ201802002-3835","latitude":"33.931222","longitude":"134.674333","source_code":"SK118834402000340015","project_name":"","survey_name":"\u5e73\u621023-24\u5e74\u5ea6 \u6851\u91ce\u5ddd\u53f3\u5cb8\u8010\u9707\u70b9\u691c\u5730\u8cea\u8abf\u67fb\u696d\u52d9","client_name":"\u56fd\u571f\u4ea4\u901a\u7701\u56db\u56fd\u5730\u65b9\u6574\u5099\u5c40 \u90a3\u8cc0\u5ddd\u6cb3\u5ddd\u4e8b\u52d9\u6240","boring_xml_url":47,"boring_view_url":1,"soilmap_view_url":null,"soiltest_xml_url":0,"soiltest_view_url":0},{"id":258354,"code":"B4KJ201802002-3834","latitude":"33.931333","longitude":"134.674306","source_code":"SK118834402000340014","project_name":"","survey_name":"\u5e73\u621023-24\u5e74\u5ea6 \u6851\u91ce\u5ddd\u53f3\u5cb8\u8010\u9707\u70b9\u691c\u5730\u8cea\u8abf\u67fb\u696d\u52d9","client_name":"\u56fd\u571f\u4ea4\u901a\u7701\u56db\u56fd\u5730\u65b9\u6574\u5099\u5c40 \u90a3\u8cc0\u5ddd\u6cb3\u5ddd\u4e8b\u52d9\u6240","boring_xml_url":47,"boring_view_url":1,"soilmap_view_url":null,"soiltest_xml_url":47,"soiltest_view_url":46},{"id":258353,"code":"B4KJ201802002-3833","latitude":"33.931333","longitude":"134.674306","source_code":"SK118834402000340013","project_name":"","survey_name":"\u5e73\u621023-24\u5e74\u5ea6 \u6851\u91ce\u5ddd\u53f3\u5cb8\u8010\u9707\u70b9\u691c\u5730\u8cea\u8abf\u67fb\u696d\u52d9","client_name":"\u56fd\u571f\u4ea4\u901a\u7701\u56db\u56fd\u5730\u65b9\u6574\u5099\u5c40 \u90a3\u8cc0\u5ddd\u6cb3\u5ddd\u4e8b\u52d9\u6240","boring_xml_url":47,"boring_view_url":1,"soilmap_view_url":null,"soiltest_xml_url":47,"soiltest_view_url":46},{"id":258352,"code":"B4KJ201802002-3832","latitude":"33.931722","longitude":"134.6795","source_code":"SK118834402000340012","project_name":"","survey_name":"\u5e73\u621023-24\u5e74\u5ea6 \u6851\u91ce\u5ddd\u53f3\u5cb8\u8010\u9707\u70b9\u691c\u5730\u8cea\u8abf\u67fb\u696d\u52d9","client_name":"\u56fd\u571f\u4ea4\u901a\u7701\u56db\u56fd\u5730\u65b9\u6574\u5099\u5c40 \u90a3\u8cc0\u5ddd\u6cb3\u5ddd\u4e8b\u52d9\u6240","boring_xml_url":47,"boring_view_url":1,"soilmap_view_url":null,"soiltest_xml_url":0,"soiltest_view_url":0},{"id":258351,"code":"B4KJ201802002-3831","latitude":"33.931806","longitude":"134.679528","source_code":"SK118834402000340011","project_name":"","survey_name":"\u5e73\u621023-24\u5e74\u5ea6 \u6851\u91ce\u5ddd\u53f3\u5cb8\u8010\u9707\u70b9\u691c\u5730\u8cea\u8abf\u67fb\u696d\u52d9","client_name":"\u56fd\u571f\u4ea4\u901a\u7701\u56db\u56fd\u5730\u65b9\u6574\u5099\u5c40 \u90a3\u8cc0\u5ddd\u6cb3\u5ddd\u4e8b\u52d9\u6240","boring_xml_url":47,"boring_view_url":1,"soilmap_view_url":null,"soiltest_xml_url":47,"soiltest_view_url":46},{"id":258350,"code":"B4KJ201802002-3830","latitude":"33.931806","longitude":"134.679528","source_code":"SK118834402000340010","project_name":"","survey_name":"\u5e73\u621023-24\u5e74\u5ea6 \u6851\u91ce\u5ddd\u53f3\u5cb8\u8010\u9707\u70b9\u691c\u5730\u8cea\u8abf\u67fb\u696d\u52d9","client_name":"\u56fd\u571f\u4ea4\u901a\u7701\u56db\u56fd\u5730\u65b9\u6574\u5099\u5c40 \u90a3\u8cc0\u5ddd\u6cb3\u5ddd\u4e8b\u52d9\u6240","boring_xml_url":47,"boring_view_url":1,"soilmap_view_url":null,"soiltest_xml_url":47,"soiltest_view_url":46},{"id":258349,"code":"B4KJ201802002-3829","latitude":"33.930833","longitude":"134.680972","source_code":"SK118834402000340009","project_name":"","survey_name":"\u5e73\u621023-24\u5e74\u5ea6 \u6851\u91ce\u5ddd\u53f3\u5cb8\u8010\u9707\u70b9\u691c\u5730\u8cea\u8abf\u67fb\u696d\u52d9","client_name":"\u56fd\u571f\u4ea4\u901a\u7701\u56db\u56fd\u5730\u65b9\u6574\u5099\u5c40 \u90a3\u8cc0\u5ddd\u6cb3\u5ddd\u4e8b\u52d9\u6240","boring_xml_url":47,"boring_view_url":1,"soilmap_view_url":null,"soiltest_xml_url":0,"soiltest_view_url":0}]}}