{"header":{"xyz":{"source":[],"mosaic":false},"page":2413,"raw":{"soiltest_result":"0","bbox":"57.598333,109.544722,1.933333,163.806111","page":"2413"},"conditions":{"soiltest_result":0,"north":57.598333,"west":109.544722,"south":1.933333,"east":163.806111},"success":true,"message":""},"data":{"meta":{"total":212844,"page":2413,"pages":7095,"count":30},"values":[{"id":258168,"code":"B4KJ201802002-3648","latitude":"33.906861","longitude":"133.106944","source_code":"SK128850622000260001","project_name":"\u5e73\u621024\u5e74\u5ea6","survey_name":"\u5c0f\u677e\u30d0\u30a4\u30d1\u30b9\u5730\u8cea\u8abf\u67fb\u696d\u52d9","client_name":"\u56fd\u9053\u4ea4\u901a\u7701\u677e\u5c71\u6cb3\u5ddd\u56fd\u9053\u4e8b\u52d9\u6240","boring_xml_url":47,"boring_view_url":1,"soilmap_view_url":null,"soiltest_xml_url":0,"soiltest_view_url":0},{"id":258167,"code":"B4KJ201802002-3647","latitude":"33.838889","longitude":"132.785","source_code":"SK128850522000110003","project_name":"\u5e73\u621024\u5e74\u5ea6 \u77f3\u624b\u5ddd\u30c0\u30e0\u8b66\u5831\u5c40\u5468\u8fba\u5730\u8cea\u8abf\u67fb\u696d\u52d9","survey_name":"\u5e73\u621024\u5e74\u5ea6 \u77f3\u624b\u5ddd\u30c0\u30e0\u8b66\u5831\u5c40\u5468\u8fba\u5730\u8cea\u8abf\u67fb\u696d\u52d9","client_name":"\u56fd\u571f\u4ea4\u901a\u7701 \u56db\u56fd\u5730\u65b9\u6574\u5099\u5c40 \u677e\u5c71\u6cb3\u5ddd\u56fd\u9053\u4e8b\u52d9\u6240","boring_xml_url":47,"boring_view_url":1,"soilmap_view_url":null,"soiltest_xml_url":47,"soiltest_view_url":46},{"id":258166,"code":"B4KJ201802002-3646","latitude":"33.833056","longitude":"132.771667","source_code":"SK128850522000110002","project_name":"\u5e73\u621024\u5e74\u5ea6 \u77f3\u624b\u5ddd\u30c0\u30e0\u8b66\u5831\u5c40\u5468\u8fba\u5730\u8cea\u8abf\u67fb\u696d\u52d9","survey_name":"\u5e73\u621024\u5e74\u5ea6 \u77f3\u624b\u5ddd\u30c0\u30e0\u8b66\u5831\u5c40\u5468\u8fba\u5730\u8cea\u8abf\u67fb\u696d\u52d9","client_name":"\u56fd\u571f\u4ea4\u901a\u7701 \u56db\u56fd\u5730\u65b9\u6574\u5099\u5c40 \u677e\u5c71\u6cb3\u5ddd\u56fd\u9053\u4e8b\u52d9\u6240","boring_xml_url":47,"boring_view_url":1,"soilmap_view_url":null,"soiltest_xml_url":47,"soiltest_view_url":46},{"id":258165,"code":"B4KJ201802002-3645","latitude":"33.810556","longitude":"132.743611","source_code":"SK128850522000110001","project_name":"\u5e73\u621024\u5e74\u5ea6 \u77f3\u624b\u5ddd\u30c0\u30e0\u8b66\u5831\u5c40\u5468\u8fba\u5730\u8cea\u8abf\u67fb\u696d\u52d9","survey_name":"\u5e73\u621024\u5e74\u5ea6 \u77f3\u624b\u5ddd\u30c0\u30e0\u8b66\u5831\u5c40\u5468\u8fba\u5730\u8cea\u8abf\u67fb\u696d\u52d9","client_name":"\u56fd\u571f\u4ea4\u901a\u7701 \u56db\u56fd\u5730\u65b9\u6574\u5099\u5c40 \u677e\u5c71\u6cb3\u5ddd\u56fd\u9053\u4e8b\u52d9\u6240","boring_xml_url":47,"boring_view_url":1,"soilmap_view_url":null,"soiltest_xml_url":47,"soiltest_view_url":46},{"id":258164,"code":"B4KJ201802002-3644","latitude":"34.099361","longitude":"133.793028","source_code":"SK128840612000140005","project_name":"\u5e73\u621024\u5e74\u5ea6 \u9999\u5ddd\u7ba1\u5185\u5730\u8cea\u8abf\u67fb\u696d\u52d9","survey_name":"\u5e73\u621024\u5e74\u5ea6 \u9999\u5ddd\u7ba1\u5185\u5730\u8cea\u8abf\u67fb\u696d\u52d9","client_name":"\u56fd\u571f\u4ea4\u901a\u7701\u56db\u56fd\u5730\u65b9\u6574\u5099\u5c40\u9999\u5ddd\u6cb3\u5ddd\u56fd\u9053\u4e8b\u52d9\u6240","boring_xml_url":47,"boring_view_url":1,"soilmap_view_url":null,"soiltest_xml_url":0,"soiltest_view_url":0},{"id":258163,"code":"B4KJ201802002-3643","latitude":"34.099472","longitude":"133.793056","source_code":"SK128840612000140004","project_name":"\u5e73\u621024\u5e74\u5ea6 \u9999\u5ddd\u7ba1\u5185\u5730\u8cea\u8abf\u67fb\u696d\u52d9","survey_name":"\u5e73\u621024\u5e74\u5ea6 \u9999\u5ddd\u7ba1\u5185\u5730\u8cea\u8abf\u67fb\u696d\u52d9","client_name":"\u56fd\u571f\u4ea4\u901a\u7701\u56db\u56fd\u5730\u65b9\u6574\u5099\u5c40\u9999\u5ddd\u6cb3\u5ddd\u56fd\u9053\u4e8b\u52d9\u6240","boring_xml_url":47,"boring_view_url":1,"soilmap_view_url":null,"soiltest_xml_url":0,"soiltest_view_url":0},{"id":258162,"code":"B4KJ201802002-3642","latitude":"34.126389","longitude":"133.688333","source_code":"SK128840612000140003","project_name":"\u5e73\u621024\u5e74\u5ea6 \u9999\u5ddd\u7ba1\u5185\u5730\u8cea\u8abf\u67fb\u696d\u52d9","survey_name":"\u5e73\u621024\u5e74\u5ea6 \u9999\u5ddd\u7ba1\u5185\u5730\u8cea\u8abf\u67fb\u696d\u52d9","client_name":"\u56fd\u571f\u4ea4\u901a\u7701\u56db\u56fd\u5730\u65b9\u6574\u5099\u5c40\u9999\u5ddd\u6cb3\u5ddd\u56fd\u9053\u4e8b\u52d9\u6240","boring_xml_url":47,"boring_view_url":1,"soilmap_view_url":null,"soiltest_xml_url":0,"soiltest_view_url":0},{"id":258161,"code":"B4KJ201802002-3641","latitude":"34.239444","longitude":"134.355278","source_code":"SK128840612000140002","project_name":"\u5e73\u621024\u5e74\u5ea6 \u9999\u5ddd\u7ba1\u5185\u5730\u8cea\u8abf\u67fb\u696d\u52d9","survey_name":"\u5e73\u621024\u5e74\u5ea6 \u9999\u5ddd\u7ba1\u5185\u5730\u8cea\u8abf\u67fb\u696d\u52d9","client_name":"\u56fd\u571f\u4ea4\u901a\u7701\u56db\u56fd\u5730\u65b9\u6574\u5099\u5c40\u9999\u5ddd\u6cb3\u5ddd\u56fd\u9053\u4e8b\u52d9\u6240","boring_xml_url":47,"boring_view_url":1,"soilmap_view_url":null,"soiltest_xml_url":0,"soiltest_view_url":0},{"id":258160,"code":"B4KJ201802002-3640","latitude":"34.237778","longitude":"134.368333","source_code":"SK128840612000140001","project_name":"\u5e73\u621024\u5e74\u5ea6 \u9999\u5ddd\u7ba1\u5185\u5730\u8cea\u8abf\u67fb\u696d\u52d9","survey_name":"\u5e73\u621024\u5e74\u5ea6 \u9999\u5ddd\u7ba1\u5185\u5730\u8cea\u8abf\u67fb\u696d\u52d9","client_name":"\u56fd\u571f\u4ea4\u901a\u7701\u56db\u56fd\u5730\u65b9\u6574\u5099\u5c40\u9999\u5ddd\u6cb3\u5ddd\u56fd\u9053\u4e8b\u52d9\u6240","boring_xml_url":47,"boring_view_url":1,"soilmap_view_url":null,"soiltest_xml_url":47,"soiltest_view_url":46},{"id":258159,"code":"B4KJ201802002-3639","latitude":"34.031056","longitude":"133.834444","source_code":"SK128830562000180006","project_name":"\u5e73\u621024\u5e74\u5ea6 \u5fb3\u5cf6\u7ba1\u5185\u4ea4\u901a\u5b89\u5168\u65bd\u8a2d\u95a2\u4fc2\u5730\u8cea\u8abf\u67fb(\u305d\u306e2)\u696d\u52d9","survey_name":"\u5e73\u621024\u5e74\u5ea6 \u5fb3\u5cf6\u7ba1\u5185\u4ea4\u901a\u5b89\u5168\u65bd\u8a2d\u95a2\u4fc2\u5730\u8cea\u8abf\u67fb(\u305d\u306e2)\u696d\u52d9","client_name":"\u56fd\u571f\u4ea4\u901a\u7701 \u56db\u56fd\u5730\u65b9\u6574\u5099\u5c40 \u5fb3\u5cf6\u6cb3\u5ddd\u56fd\u9053\u4e8b\u52d9\u6240 \u4ea4\u901a\u5bfe\u7b56\u8ab2","boring_xml_url":47,"boring_view_url":1,"soilmap_view_url":null,"soiltest_xml_url":0,"soiltest_view_url":0},{"id":258158,"code":"B4KJ201802002-3638","latitude":"34.031","longitude":"133.834028","source_code":"SK128830562000180005","project_name":"\u5e73\u621024\u5e74\u5ea6 \u5fb3\u5cf6\u7ba1\u5185\u4ea4\u901a\u5b89\u5168\u65bd\u8a2d\u95a2\u4fc2\u5730\u8cea\u8abf\u67fb(\u305d\u306e2)\u696d\u52d9","survey_name":"\u5e73\u621024\u5e74\u5ea6 \u5fb3\u5cf6\u7ba1\u5185\u4ea4\u901a\u5b89\u5168\u65bd\u8a2d\u95a2\u4fc2\u5730\u8cea\u8abf\u67fb(\u305d\u306e2)\u696d\u52d9","client_name":"\u56fd\u571f\u4ea4\u901a\u7701 \u56db\u56fd\u5730\u65b9\u6574\u5099\u5c40 \u5fb3\u5cf6\u6cb3\u5ddd\u56fd\u9053\u4e8b\u52d9\u6240 \u4ea4\u901a\u5bfe\u7b56\u8ab2","boring_xml_url":47,"boring_view_url":1,"soilmap_view_url":null,"soiltest_xml_url":0,"soiltest_view_url":0},{"id":258157,"code":"B4KJ201802002-3637","latitude":"34.030639","longitude":"133.833139","source_code":"SK128830562000180004","project_name":"\u5e73\u621024\u5e74\u5ea6 \u5fb3\u5cf6\u7ba1\u5185\u4ea4\u901a\u5b89\u5168\u65bd\u8a2d\u95a2\u4fc2\u5730\u8cea\u8abf\u67fb(\u305d\u306e2)\u696d\u52d9","survey_name":"\u5e73\u621024\u5e74\u5ea6 \u5fb3\u5cf6\u7ba1\u5185\u4ea4\u901a\u5b89\u5168\u65bd\u8a2d\u95a2\u4fc2\u5730\u8cea\u8abf\u67fb(\u305d\u306e2)\u696d\u52d9","client_name":"\u56fd\u571f\u4ea4\u901a\u7701 \u56db\u56fd\u5730\u65b9\u6574\u5099\u5c40 \u5fb3\u5cf6\u6cb3\u5ddd\u56fd\u9053\u4e8b\u52d9\u6240 \u4ea4\u901a\u5bfe\u7b56\u8ab2","boring_xml_url":47,"boring_view_url":1,"soilmap_view_url":null,"soiltest_xml_url":0,"soiltest_view_url":0},{"id":258156,"code":"B4KJ201802002-3636","latitude":"34.064833","longitude":"134.318972","source_code":"SK128830562000180003","project_name":"\u5e73\u621024\u5e74\u5ea6 \u5fb3\u5cf6\u7ba1\u5185\u4ea4\u901a\u5b89\u5168\u65bd\u8a2d\u95a2\u4fc2\u5730\u8cea\u8abf\u67fb(\u305d\u306e2)\u696d\u52d9","survey_name":"\u5e73\u621024\u5e74\u5ea6 \u5fb3\u5cf6\u7ba1\u5185\u4ea4\u901a\u5b89\u5168\u65bd\u8a2d\u95a2\u4fc2\u5730\u8cea\u8abf\u67fb(\u305d\u306e2)\u696d\u52d9","client_name":"\u56fd\u571f\u4ea4\u901a\u7701 \u56db\u56fd\u5730\u65b9\u6574\u5099\u5c40 \u5fb3\u5cf6\u6cb3\u5ddd\u56fd\u9053\u4e8b\u52d9\u6240 \u4ea4\u901a\u5bfe\u7b56\u8ab2","boring_xml_url":47,"boring_view_url":1,"soilmap_view_url":null,"soiltest_xml_url":0,"soiltest_view_url":0},{"id":258155,"code":"B4KJ201802002-3635","latitude":"34.064167","longitude":"134.317917","source_code":"SK128830562000180002","project_name":"\u5e73\u621024\u5e74\u5ea6 \u5fb3\u5cf6\u7ba1\u5185\u4ea4\u901a\u5b89\u5168\u65bd\u8a2d\u95a2\u4fc2\u5730\u8cea\u8abf\u67fb(\u305d\u306e2)\u696d\u52d9","survey_name":"\u5e73\u621024\u5e74\u5ea6 \u5fb3\u5cf6\u7ba1\u5185\u4ea4\u901a\u5b89\u5168\u65bd\u8a2d\u95a2\u4fc2\u5730\u8cea\u8abf\u67fb(\u305d\u306e2)\u696d\u52d9","client_name":"\u56fd\u571f\u4ea4\u901a\u7701 \u56db\u56fd\u5730\u65b9\u6574\u5099\u5c40 \u5fb3\u5cf6\u6cb3\u5ddd\u56fd\u9053\u4e8b\u52d9\u6240 \u4ea4\u901a\u5bfe\u7b56\u8ab2","boring_xml_url":47,"boring_view_url":1,"soilmap_view_url":null,"soiltest_xml_url":0,"soiltest_view_url":0},{"id":258154,"code":"B4KJ201802002-3634","latitude":"33.578556","longitude":"134.311583","source_code":"SK128830562000180001","project_name":"\u5e73\u621024\u5e74\u5ea6 \u5fb3\u5cf6\u7ba1\u5185\u4ea4\u901a\u5b89\u5168\u65bd\u8a2d\u95a2\u4fc2\u5730\u8cea\u8abf\u67fb(\u305d\u306e2)\u696d\u52d9","survey_name":"\u5e73\u621024\u5e74\u5ea6 \u5fb3\u5cf6\u7ba1\u5185\u4ea4\u901a\u5b89\u5168\u65bd\u8a2d\u95a2\u4fc2\u5730\u8cea\u8abf\u67fb(\u305d\u306e2)\u696d\u52d9","client_name":"\u56fd\u571f\u4ea4\u901a\u7701 \u56db\u56fd\u5730\u65b9\u6574\u5099\u5c40 \u5fb3\u5cf6\u6cb3\u5ddd\u56fd\u9053\u4e8b\u52d9\u6240 \u4ea4\u901a\u5bfe\u7b56\u8ab2","boring_xml_url":47,"boring_view_url":1,"soilmap_view_url":null,"soiltest_xml_url":0,"soiltest_view_url":0},{"id":258153,"code":"B4KJ201802002-3633","latitude":"34.056667","longitude":"134.235833","source_code":"SK128830562000070006","project_name":"","survey_name":"\u5e73\u621024\u5e74\u5ea6 \u5fb3\u5cf6\u7ba1\u5185\u4ea4\u901a\u5b89\u5168\u65bd\u8a2d\u95a2\u4fc2\u5730\u8cea\u8abf\u67fb\u696d\u52d9","client_name":"\u56fd\u571f\u4ea4\u901a\u7701\u56db\u56fd\u5730\u65b9\u6574\u5099\u5c40\u5fb3\u5cf6\u6cb3\u5ddd\u56fd\u9053\u4e8b\u52d9\u6240","boring_xml_url":47,"boring_view_url":1,"soilmap_view_url":null,"soiltest_xml_url":0,"soiltest_view_url":0},{"id":258152,"code":"B4KJ201802002-3632","latitude":"34.076639","longitude":"134.514417","source_code":"SK128830562000070005","project_name":"","survey_name":"\u5e73\u621024\u5e74\u5ea6 \u5fb3\u5cf6\u7ba1\u5185\u4ea4\u901a\u5b89\u5168\u65bd\u8a2d\u95a2\u4fc2\u5730\u8cea\u8abf\u67fb\u696d\u52d9","client_name":"\u56fd\u571f\u4ea4\u901a\u7701\u56db\u56fd\u5730\u65b9\u6574\u5099\u5c40\u5fb3\u5cf6\u6cb3\u5ddd\u56fd\u9053\u4e8b\u52d9\u6240","boring_xml_url":47,"boring_view_url":1,"soilmap_view_url":null,"soiltest_xml_url":0,"soiltest_view_url":0},{"id":258151,"code":"B4KJ201802002-3631","latitude":"34.074056","longitude":"134.510139","source_code":"SK128830562000070004","project_name":"","survey_name":"\u5e73\u621024\u5e74\u5ea6 \u5fb3\u5cf6\u7ba1\u5185\u4ea4\u901a\u5b89\u5168\u65bd\u8a2d\u95a2\u4fc2\u5730\u8cea\u8abf\u67fb\u696d\u52d9","client_name":"\u56fd\u571f\u4ea4\u901a\u7701\u56db\u56fd\u5730\u65b9\u6574\u5099\u5c40\u5fb3\u5cf6\u6cb3\u5ddd\u56fd\u9053\u4e8b\u52d9\u6240","boring_xml_url":47,"boring_view_url":1,"soilmap_view_url":null,"soiltest_xml_url":0,"soiltest_view_url":0},{"id":258150,"code":"B4KJ201802002-3630","latitude":"33.818833","longitude":"134.600639","source_code":"SK128830562000070003","project_name":"","survey_name":"\u5e73\u621024\u5e74\u5ea6 \u5fb3\u5cf6\u7ba1\u5185\u4ea4\u901a\u5b89\u5168\u65bd\u8a2d\u95a2\u4fc2 \u5730\u8cea\u8abf\u67fb\u696d\u52d9","client_name":"\u56fd\u571f\u4ea4\u901a\u7701\u56db\u56fd\u5730\u65b9\u6574\u5099\u5c40\u5fb3\u5cf6\u6cb3\u5ddd\u56fd\u9053\u4e8b\u52d9\u6240","boring_xml_url":47,"boring_view_url":1,"soilmap_view_url":null,"soiltest_xml_url":0,"soiltest_view_url":0},{"id":258149,"code":"B4KJ201802002-3629","latitude":"33.819139","longitude":"134.601056","source_code":"SK128830562000070002","project_name":"","survey_name":"\u5e73\u621024\u5e74\u5ea6 \u5fb3\u5cf6\u7ba1\u5185\u4ea4\u901a\u5b89\u5168\u65bd\u8a2d\u95a2\u4fc2 \u5730\u8cea\u8abf\u67fb\u696d\u52d9","client_name":"\u56fd\u571f\u4ea4\u901a\u7701\u56db\u56fd\u5730\u65b9\u6574\u5099\u5c40\u5fb3\u5cf6\u6cb3\u5ddd\u56fd\u9053\u4e8b\u52d9\u6240","boring_xml_url":47,"boring_view_url":1,"soilmap_view_url":null,"soiltest_xml_url":0,"soiltest_view_url":0},{"id":258148,"code":"B4KJ201802002-3628","latitude":"34.081444","longitude":"134.561139","source_code":"SK128830562000070001","project_name":"","survey_name":"\u5e73\u621024\u5e74\u5ea6 \u5fb3\u5cf6\u7ba1\u5185\u4ea4\u901a\u5b89\u5168\u65bd\u8a2d\u95a2\u4fc2\u5730\u8cea\u8abf\u67fb\u696d\u52d9","client_name":"\u56fd\u571f\u4ea4\u901a\u7701\u56db\u56fd\u5730\u65b9\u6574\u5099\u5c40\u5fb3\u5cf6\u6cb3\u5ddd\u56fd\u9053\u4e8b\u52d9\u6240","boring_xml_url":47,"boring_view_url":1,"soilmap_view_url":null,"soiltest_xml_url":0,"soiltest_view_url":0},{"id":258147,"code":"B4KJ201802002-3627","latitude":"34.0595","longitude":"134.590583","source_code":"SK128830482000120007","project_name":"\u5e73\u621024\u5e74\u5ea6 \u963f\u5357\u5fb3\u5cf6\u6771\u5730\u8cea\u8abf\u67fb\u696d\u52d9","survey_name":"\u5e73\u621024\u5e74\u5ea6 \u963f\u5357\u5fb3\u5cf6\u6771\u5730\u8cea\u8abf\u67fb\u696d\u52d9","client_name":"\u56fd\u571f\u4ea4\u901a\u7701\u56db\u56fd\u5730\u65b9\u6574\u5099\u5c40\u5fb3\u5cf6\u6cb3\u5ddd\u56fd\u9053\u4e8b\u52d9\u6240","boring_xml_url":47,"boring_view_url":1,"soilmap_view_url":null,"soiltest_xml_url":47,"soiltest_view_url":46},{"id":258146,"code":"B4KJ201802002-3626","latitude":"34.010056","longitude":"134.561111","source_code":"SK128830482000120006","project_name":"\u5e73\u621024\u5e74\u5ea6 \u963f\u5357\u5fb3\u5cf6\u6771\u5730\u8cea\u8abf\u67fb\u696d\u52d9","survey_name":"\u5e73\u621024\u5e74\u5ea6 \u963f\u5357\u5fb3\u5cf6\u6771\u5730\u8cea\u8abf\u67fb\u696d\u52d9","client_name":"\u56fd\u571f\u4ea4\u901a\u7701\u56db\u56fd\u5730\u65b9\u6574\u5099\u5c40\u5fb3\u5cf6\u6cb3\u5ddd\u56fd\u9053\u4e8b\u52d9\u6240","boring_xml_url":47,"boring_view_url":1,"soilmap_view_url":null,"soiltest_xml_url":47,"soiltest_view_url":46},{"id":258145,"code":"B4KJ201802002-3625","latitude":"33.955889","longitude":"134.597083","source_code":"SK128830482000120005","project_name":"\u5e73\u621024\u5e74\u5ea6 \u963f\u5357\u5fb3\u5cf6\u6771\u5730\u8cea\u8abf\u67fb\u696d\u52d9","survey_name":"\u5e73\u621024\u5e74\u5ea6 \u963f\u5357\u5fb3\u5cf6\u6771\u5730\u8cea\u8abf\u67fb\u696d\u52d9","client_name":"\u56fd\u571f\u4ea4\u901a\u7701\u56db\u56fd\u5730\u65b9\u6574\u5099\u5c40\u5fb3\u5cf6\u6cb3\u5ddd\u56fd\u9053\u4e8b\u52d9\u6240","boring_xml_url":47,"boring_view_url":1,"soilmap_view_url":null,"soiltest_xml_url":0,"soiltest_view_url":0},{"id":258144,"code":"B4KJ201802002-3624","latitude":"33.956722","longitude":"134.596361","source_code":"SK128830482000120004","project_name":"\u5e73\u621024\u5e74\u5ea6 \u963f\u5357\u5fb3\u5cf6\u6771\u5730\u8cea\u8abf\u67fb\u696d\u52d9","survey_name":"\u5e73\u621024\u5e74\u5ea6 \u963f\u5357\u5fb3\u5cf6\u6771\u5730\u8cea\u8abf\u67fb\u696d\u52d9","client_name":"\u56fd\u571f\u4ea4\u901a\u7701\u56db\u56fd\u5730\u65b9\u6574\u5099\u5c40\u5fb3\u5cf6\u6cb3\u5ddd\u56fd\u9053\u4e8b\u52d9\u6240","boring_xml_url":47,"boring_view_url":1,"soilmap_view_url":null,"soiltest_xml_url":47,"soiltest_view_url":46},{"id":258143,"code":"B4KJ201802002-3623","latitude":"33.958306","longitude":"134.59525","source_code":"SK128830482000120003","project_name":"\u5e73\u621024\u5e74\u5ea6 \u963f\u5357\u5fb3\u5cf6\u6771\u5730\u8cea\u8abf\u67fb\u696d\u52d9","survey_name":"\u5e73\u621024\u5e74\u5ea6 \u963f\u5357\u5fb3\u5cf6\u6771\u5730\u8cea\u8abf\u67fb\u696d\u52d9","client_name":"\u56fd\u571f\u4ea4\u901a\u7701\u56db\u56fd\u5730\u65b9\u6574\u5099\u5c40\u5fb3\u5cf6\u6cb3\u5ddd\u56fd\u9053\u4e8b\u52d9\u6240","boring_xml_url":47,"boring_view_url":1,"soilmap_view_url":null,"soiltest_xml_url":0,"soiltest_view_url":0},{"id":258142,"code":"B4KJ201802002-3622","latitude":"33.94125","longitude":"134.610778","source_code":"SK128830482000120002","project_name":"\u5e73\u621024\u5e74\u5ea6 \u963f\u5357\u5fb3\u5cf6\u6771\u5730\u8cea\u8abf\u67fb\u696d\u52d9","survey_name":"\u5e73\u621024\u5e74\u5ea6 \u963f\u5357\u5fb3\u5cf6\u6771\u5730\u8cea\u8abf\u67fb\u696d\u52d9","client_name":"\u56fd\u571f\u4ea4\u901a\u7701 \u5fb3\u5cf6\u6cb3\u5ddd\u56fd\u9053\u4e8b\u52d9\u6240","boring_xml_url":47,"boring_view_url":1,"soilmap_view_url":null,"soiltest_xml_url":47,"soiltest_view_url":46},{"id":258141,"code":"B4KJ201802002-3621","latitude":"33.941306","longitude":"134.61075","source_code":"SK128830482000120001","project_name":"\u5e73\u621024\u5e74\u5ea6 \u963f\u5357\u5fb3\u5cf6\u6771\u5730\u8cea\u8abf\u67fb\u696d\u52d9","survey_name":"\u5e73\u621024\u5e74\u5ea6 \u963f\u5357\u5fb3\u5cf6\u6771\u5730\u8cea\u8abf\u67fb\u696d\u52d9","client_name":"\u56fd\u571f\u4ea4\u901a\u7701 \u5fb3\u5cf6\u6cb3\u5ddd\u56fd\u9053\u4e8b\u52d9\u6240","boring_xml_url":47,"boring_view_url":1,"soilmap_view_url":null,"soiltest_xml_url":47,"soiltest_view_url":46},{"id":258140,"code":"B4KJ201802002-3620","latitude":"33.940083","longitude":"134.675444","source_code":"SK128830472000320002","project_name":"\u5e73\u621024\u5e74\u5ea6 \u963f\u5357\u9053\u8def\u5730\u8cea\u8abf\u67fb\u696d\u52d9","survey_name":"\u5e73\u621024\u5e74\u5ea6 \u963f\u5357\u9053\u8def\u5730\u8cea\u8abf\u67fb\u696d\u52d9","client_name":"\u56fd\u571f\u4ea4\u901a\u7701\u56db\u56fd\u5730\u65b9\u6574\u5099\u5c40\u5fb3\u5cf6\u6cb3\u5ddd\u56fd\u9053\u4e8b\u52d9\u6240","boring_xml_url":47,"boring_view_url":1,"soilmap_view_url":null,"soiltest_xml_url":47,"soiltest_view_url":46},{"id":258139,"code":"B4KJ201802002-3619","latitude":"33.940694","longitude":"134.675389","source_code":"SK128830472000320001","project_name":"\u5e73\u621024\u5e74\u5ea6 \u963f\u5357\u9053\u8def\u5730\u8cea\u8abf\u67fb\u696d\u52d9","survey_name":"\u5e73\u621024\u5e74\u5ea6 \u963f\u5357\u9053\u8def\u5730\u8cea\u8abf\u67fb\u696d\u52d9","client_name":"\u56fd\u571f\u4ea4\u901a\u7701\u56db\u56fd\u5730\u65b9\u6574\u5099\u5c40\u5fb3\u5cf6\u6cb3\u5ddd\u56fd\u9053\u4e8b\u52d9\u6240","boring_xml_url":47,"boring_view_url":1,"soilmap_view_url":null,"soiltest_xml_url":47,"soiltest_view_url":46}]}}