{"header":{"xyz":{"source":[],"mosaic":false},"page":2419,"raw":{"soiltest_result":"0","bbox":"57.598333,109.544722,1.933333,163.806111","page":"2419"},"conditions":{"soiltest_result":0,"north":57.598333,"west":109.544722,"south":1.933333,"east":163.806111},"success":true,"message":""},"data":{"meta":{"total":212844,"page":2419,"pages":7095,"count":30},"values":[{"id":257988,"code":"B4KJ201802002-3468","latitude":"33.733639","longitude":"133.525306","source_code":"SK108837652000130003","project_name":"\u5e73\u621022\u5e74\u5ea6 \u4e0a\u30ce\u571f\u5c45\u5ddd\u7802\u9632\u5830\u5824\u6e2c\u91cf\u8a2d\u8a08\u696d\u52d9\u59d4\u8a17","survey_name":"\u5e73\u621022\u5e74\u5ea6 \u4e0a\u30ce\u571f\u5c45\u5ddd\u7802\u9632\u5830\u5824\u6e2c\u91cf\u8a2d\u8a08\u696d\u52d9\u59d4\u8a17","client_name":"\u56fd\u571f\u4ea4\u901a\u7701\u56db\u56fd\u5730\u65b9\u6574\u5099\u5c40\u56db\u56fd\u5c71\u5730\u7802\u9632\u4e8b\u52d9\u6240","boring_xml_url":47,"boring_view_url":1,"soilmap_view_url":null,"soiltest_xml_url":0,"soiltest_view_url":0},{"id":257987,"code":"B4KJ201802002-3467","latitude":"33.73375","longitude":"133.525361","source_code":"SK108837652000130002","project_name":"\u5e73\u621022\u5e74\u5ea6 \u4e0a\u30ce\u571f\u5c45\u5ddd\u7802\u9632\u5830\u5824\u6e2c\u91cf\u8a2d\u8a08\u696d\u52d9\u59d4\u8a17","survey_name":"\u5e73\u621022\u5e74\u5ea6 \u4e0a\u30ce\u571f\u5c45\u5ddd\u7802\u9632\u5830\u5824\u6e2c\u91cf\u8a2d\u8a08\u696d\u52d9\u59d4\u8a17","client_name":"\u56fd\u571f\u4ea4\u901a\u7701\u56db\u56fd\u5730\u65b9\u6574\u5099\u5c40\u56db\u56fd\u5c71\u5730\u7802\u9632\u4e8b\u52d9\u6240","boring_xml_url":47,"boring_view_url":1,"soilmap_view_url":null,"soiltest_xml_url":0,"soiltest_view_url":0},{"id":257986,"code":"B4KJ201802002-3466","latitude":"33.733889","longitude":"133.525417","source_code":"SK108837652000130001","project_name":"\u5e73\u621022\u5e74\u5ea6 \u4e0a\u30ce\u571f\u5c45\u5ddd\u7802\u9632\u5830\u5824\u6e2c\u91cf\u8a2d\u8a08\u696d\u52d9\u59d4\u8a17","survey_name":"\u5e73\u621022\u5e74\u5ea6 \u4e0a\u30ce\u571f\u5c45\u5ddd\u7802\u9632\u5830\u5824\u6e2c\u91cf\u8a2d\u8a08\u696d\u52d9\u59d4\u8a17","client_name":"\u56fd\u571f\u4ea4\u901a\u7701\u56db\u56fd\u5730\u65b9\u6574\u5099\u5c40\u56db\u56fd\u5c71\u5730\u7802\u9632\u4e8b\u52d9\u6240","boring_xml_url":47,"boring_view_url":1,"soilmap_view_url":null,"soiltest_xml_url":0,"soiltest_view_url":0},{"id":257985,"code":"B4KJ201802002-3465","latitude":"33.483278","longitude":"133.370083","source_code":"SK118862512000220007","project_name":"\u5e73\u621023\u5e74\u5ea6 \u571f\u4f50\u7ba1\u5185\u5730\u8cea\u8abf\u67fb\u696d\u52d9","survey_name":"\u5e73\u621023\u5e74\u5ea6 \u571f\u4f50\u7ba1\u5185\u5730\u8cea\u8abf\u67fb\u696d\u52d9","client_name":"\u56fd\u571f\u4ea4\u901a\u7701\u56db\u56fd\u5730\u65b9\u6574\u5099\u5c40 \u571f\u4f50\u56fd\u9053\u4e8b\u52d9\u6240","boring_xml_url":47,"boring_view_url":1,"soilmap_view_url":null,"soiltest_xml_url":47,"soiltest_view_url":46},{"id":257984,"code":"B4KJ201802002-3464","latitude":"33.483278","longitude":"133.370083","source_code":"SK118862512000220006","project_name":"\u5e73\u621023\u5e74\u5ea6 \u571f\u4f50\u7ba1\u5185\u5730\u8cea\u8abf\u67fb\u696d\u52d9","survey_name":"\u5e73\u621023\u5e74\u5ea6 \u571f\u4f50\u7ba1\u5185\u5730\u8cea\u8abf\u67fb\u696d\u52d9","client_name":"\u56fd\u571f\u4ea4\u901a\u7701\u56db\u56fd\u5730\u65b9\u6574\u5099\u5c40 \u571f\u4f50\u56fd\u9053\u4e8b\u52d9\u6240","boring_xml_url":47,"boring_view_url":1,"soilmap_view_url":null,"soiltest_xml_url":47,"soiltest_view_url":46},{"id":257983,"code":"B4KJ201802002-3463","latitude":"33.550778","longitude":"133.446806","source_code":"SK118862512000220005","project_name":"\u5e73\u621023\u5e74\u5ea6 \u571f\u4f50\u7ba1\u5185\u5730\u8cea\u8abf\u67fb\u696d\u52d9","survey_name":"\u5e73\u621023\u5e74\u5ea6 \u571f\u4f50\u7ba1\u5185\u5730\u8cea\u8abf\u67fb\u696d\u52d9","client_name":"\u56fd\u571f\u4ea4\u901a\u7701\u56db\u56fd\u5730\u65b9\u6574\u5099\u5c40 \u571f\u4f50\u56fd\u9053\u4e8b\u52d9\u6240","boring_xml_url":47,"boring_view_url":1,"soilmap_view_url":null,"soiltest_xml_url":47,"soiltest_view_url":46},{"id":257982,"code":"B4KJ201802002-3462","latitude":"33.552472","longitude":"133.55325","source_code":"SK118862512000220004","project_name":"\u5e73\u621023\u5e74\u5ea6 \u571f\u4f50\u7ba1\u5185\u5730\u8cea\u8abf\u67fb\u696d\u52d9","survey_name":"\u5e73\u621023\u5e74\u5ea6 \u571f\u4f50\u7ba1\u5185\u5730\u8cea\u8abf\u67fb\u696d\u52d9","client_name":"\u56fd\u571f\u4ea4\u901a\u7701\u56db\u56fd\u5730\u65b9\u6574\u5099\u5c40 \u571f\u4f50\u56fd\u9053\u4e8b\u52d9\u6240","boring_xml_url":47,"boring_view_url":1,"soilmap_view_url":null,"soiltest_xml_url":47,"soiltest_view_url":46},{"id":257981,"code":"B4KJ201802002-3461","latitude":"33.550944","longitude":"133.552917","source_code":"SK118862512000220003","project_name":"\u5e73\u621023\u5e74\u5ea6 \u571f\u4f50\u7ba1\u5185\u5730\u8cea\u8abf\u67fb\u696d\u52d9","survey_name":"\u5e73\u621023\u5e74\u5ea6 \u571f\u4f50\u7ba1\u5185\u5730\u8cea\u8abf\u67fb\u696d\u52d9","client_name":"\u56fd\u571f\u4ea4\u901a\u7701\u56db\u56fd\u5730\u65b9\u6574\u5099\u5c40 \u571f\u4f50\u56fd\u9053\u4e8b\u52d9\u6240","boring_xml_url":47,"boring_view_url":1,"soilmap_view_url":null,"soiltest_xml_url":47,"soiltest_view_url":46},{"id":257980,"code":"B4KJ201802002-3460","latitude":"33.549056","longitude":"133.551278","source_code":"SK118862512000220002","project_name":"\u5e73\u621023\u5e74\u5ea6 \u571f\u4f50\u7ba1\u5185\u5730\u8cea\u8abf\u67fb\u696d\u52d9","survey_name":"\u5e73\u621023\u5e74\u5ea6 \u571f\u4f50\u7ba1\u5185\u5730\u8cea\u8abf\u67fb\u696d\u52d9","client_name":"\u56fd\u571f\u4ea4\u901a\u7701\u56db\u56fd\u5730\u65b9\u6574\u5099\u5c40 \u571f\u4f50\u56fd\u9053\u4e8b\u52d9\u6240","boring_xml_url":47,"boring_view_url":1,"soilmap_view_url":null,"soiltest_xml_url":47,"soiltest_view_url":46},{"id":257979,"code":"B4KJ201802002-3459","latitude":"33.547583","longitude":"133.548389","source_code":"SK118862512000220001","project_name":"\u5e73\u621023\u5e74\u5ea6 \u571f\u4f50\u7ba1\u5185\u5730\u8cea\u8abf\u67fb\u696d\u52d9","survey_name":"\u5e73\u621023\u5e74\u5ea6 \u571f\u4f50\u7ba1\u5185\u5730\u8cea\u8abf\u67fb\u696d\u52d9","client_name":"\u56fd\u571f\u4ea4\u901a\u7701\u56db\u56fd\u5730\u65b9\u6574\u5099\u5c40 \u571f\u4f50\u56fd\u9053\u4e8b\u52d9\u6240","boring_xml_url":47,"boring_view_url":1,"soilmap_view_url":null,"soiltest_xml_url":47,"soiltest_view_url":46},{"id":257978,"code":"B4KJ201802002-3458","latitude":"33.522944","longitude":"133.615667","source_code":"SK118860602000170003","project_name":"","survey_name":"\u5e73\u621023\u5e74\u5ea6 \u9ad8\u77e5\u6d77\u5cb8\u5730\u8cea\u8abf\u67fb(\u305d\u306e2)\u696d\u52d9","client_name":"\u56db\u56fd\u5730\u65b9\u6574\u5099\u5c40 \u9ad8\u77e5\u6cb3\u5ddd\u56fd\u9053\u4e8b\u52d9\u6240","boring_xml_url":47,"boring_view_url":1,"soilmap_view_url":null,"soiltest_xml_url":0,"soiltest_view_url":0},{"id":257977,"code":"B4KJ201802002-3457","latitude":"33.519944","longitude":"133.601944","source_code":"SK118860602000170002","project_name":"","survey_name":"\u5e73\u621023\u5e74\u5ea6 \u9ad8\u77e5\u6d77\u5cb8\u5730\u8cea\u8abf\u67fb(\u305d\u306e2)\u696d\u52d9","client_name":"\u56db\u56fd\u5730\u65b9\u6574\u5099\u5c40 \u9ad8\u77e5\u6cb3\u5ddd\u56fd\u9053\u4e8b\u52d9\u6240","boring_xml_url":47,"boring_view_url":1,"soilmap_view_url":null,"soiltest_xml_url":0,"soiltest_view_url":0},{"id":257976,"code":"B4KJ201802002-3456","latitude":"33.522","longitude":"133.610639","source_code":"SK118860602000170001","project_name":"","survey_name":"\u5e73\u621023\u5e74\u5ea6 \u9ad8\u77e5\u6d77\u5cb8\u5730\u8cea\u8abf\u67fb(\u305d\u306e2)\u696d\u52d9","client_name":"\u56db\u56fd\u5730\u65b9\u6574\u5099\u5c40 \u9ad8\u77e5\u6cb3\u5ddd\u56fd\u9053\u4e8b\u52d9\u6240","boring_xml_url":47,"boring_view_url":1,"soilmap_view_url":null,"soiltest_xml_url":0,"soiltest_view_url":0},{"id":257975,"code":"B4KJ201802002-3455","latitude":"33.557778","longitude":"133.682778","source_code":"SK118860402000330011","project_name":"\u5e73\u621023\u5e74\u5ea6 \u7269\u90e8\u5ddd\u5824\u9632\u5730\u8cea\u8abf\u67fb(\u305d\u306e3)\u696d\u52d9","survey_name":"\u5e73\u621023\u5e74\u5ea6 \u7269\u90e8\u5ddd\u5824\u9632\u5730\u8cea\u8abf\u67fb(\u305d\u306e3)\u696d\u52d9","client_name":"\u56fd\u571f\u4ea4\u901a\u7701\u56db\u56fd\u5730\u65b9\u6574\u5099\u5c40\u9ad8\u77e5\u6cb3\u5ddd\u56fd\u9053\u4e8b\u52d9\u6240","boring_xml_url":47,"boring_view_url":1,"soilmap_view_url":null,"soiltest_xml_url":0,"soiltest_view_url":0},{"id":257974,"code":"B4KJ201802002-3454","latitude":"33.553056","longitude":"133.684167","source_code":"SK118860402000330010","project_name":"\u5e73\u621023\u5e74\u5ea6 \u7269\u90e8\u5ddd\u5824\u9632\u5730\u8cea\u8abf\u67fb(\u305d\u306e3)\u696d\u52d9","survey_name":"\u5e73\u621023\u5e74\u5ea6 \u7269\u90e8\u5ddd\u5824\u9632\u5730\u8cea\u8abf\u67fb(\u305d\u306e3)\u696d\u52d9","client_name":"\u56fd\u571f\u4ea4\u901a\u7701\u56db\u56fd\u5730\u65b9\u6574\u5099\u5c40\u9ad8\u77e5\u6cb3\u5ddd\u56fd\u9053\u4e8b\u52d9\u6240","boring_xml_url":47,"boring_view_url":1,"soilmap_view_url":null,"soiltest_xml_url":0,"soiltest_view_url":0},{"id":257973,"code":"B4KJ201802002-3453","latitude":"33.553056","longitude":"133.684167","source_code":"SK118860402000330009","project_name":"\u5e73\u621023\u5e74\u5ea6 \u7269\u90e8\u5ddd\u5824\u9632\u5730\u8cea\u8abf\u67fb(\u305d\u306e3)\u696d\u52d9","survey_name":"\u5e73\u621023\u5e74\u5ea6 \u7269\u90e8\u5ddd\u5824\u9632\u5730\u8cea\u8abf\u67fb(\u305d\u306e3)\u696d\u52d9","client_name":"\u56fd\u571f\u4ea4\u901a\u7701\u56db\u56fd\u5730\u65b9\u6574\u5099\u5c40\u9ad8\u77e5\u6cb3\u5ddd\u56fd\u9053\u4e8b\u52d9\u6240","boring_xml_url":47,"boring_view_url":1,"soilmap_view_url":null,"soiltest_xml_url":0,"soiltest_view_url":0},{"id":257972,"code":"B4KJ201802002-3452","latitude":"33.551389","longitude":"133.684722","source_code":"SK118860402000330008","project_name":"\u5e73\u621023\u5e74\u5ea6 \u7269\u90e8\u5ddd\u5824\u9632\u5730\u8cea\u8abf\u67fb(\u305d\u306e3)\u696d\u52d9","survey_name":"\u5e73\u621023\u5e74\u5ea6 \u7269\u90e8\u5ddd\u5824\u9632\u5730\u8cea\u8abf\u67fb(\u305d\u306e3)\u696d\u52d9","client_name":"\u56fd\u571f\u4ea4\u901a\u7701\u56db\u56fd\u5730\u65b9\u6574\u5099\u5c40\u9ad8\u77e5\u6cb3\u5ddd\u56fd\u9053\u4e8b\u52d9\u6240","boring_xml_url":47,"boring_view_url":1,"soilmap_view_url":null,"soiltest_xml_url":0,"soiltest_view_url":0},{"id":257971,"code":"B4KJ201802002-3451","latitude":"33.551389","longitude":"133.685","source_code":"SK118860402000330007","project_name":"\u5e73\u621023\u5e74\u5ea6 \u7269\u90e8\u5ddd\u5824\u9632\u5730\u8cea\u8abf\u67fb(\u305d\u306e3)\u696d\u52d9","survey_name":"\u5e73\u621023\u5e74\u5ea6 \u7269\u90e8\u5ddd\u5824\u9632\u5730\u8cea\u8abf\u67fb(\u305d\u306e3)\u696d\u52d9","client_name":"\u56fd\u571f\u4ea4\u901a\u7701\u56db\u56fd\u5730\u65b9\u6574\u5099\u5c40\u9ad8\u77e5\u6cb3\u5ddd\u56fd\u9053\u4e8b\u52d9\u6240","boring_xml_url":47,"boring_view_url":1,"soilmap_view_url":null,"soiltest_xml_url":0,"soiltest_view_url":0},{"id":257970,"code":"B4KJ201802002-3450","latitude":"33.5525","longitude":"133.681111","source_code":"SK118860402000330006","project_name":"\u5e73\u621023\u5e74\u5ea6 \u7269\u90e8\u5ddd\u5824\u9632\u5730\u8cea\u8abf\u67fb(\u305d\u306e3)\u696d\u52d9","survey_name":"\u5e73\u621023\u5e74\u5ea6 \u7269\u90e8\u5ddd\u5824\u9632\u5730\u8cea\u8abf\u67fb(\u305d\u306e3)\u696d\u52d9","client_name":"\u56fd\u571f\u4ea4\u901a\u7701\u56db\u56fd\u5730\u65b9\u6574\u5099\u5c40\u9ad8\u77e5\u6cb3\u5ddd\u56fd\u9053\u4e8b\u52d9\u6240","boring_xml_url":47,"boring_view_url":1,"soilmap_view_url":null,"soiltest_xml_url":0,"soiltest_view_url":0},{"id":257969,"code":"B4KJ201802002-3449","latitude":"33.5525","longitude":"133.680833","source_code":"SK118860402000330005","project_name":"\u5e73\u621023\u5e74\u5ea6 \u7269\u90e8\u5ddd\u5824\u9632\u5730\u8cea\u8abf\u67fb(\u305d\u306e3)\u696d\u52d9","survey_name":"\u5e73\u621023\u5e74\u5ea6 \u7269\u90e8\u5ddd\u5824\u9632\u5730\u8cea\u8abf\u67fb(\u305d\u306e3)\u696d\u52d9","client_name":"\u56fd\u571f\u4ea4\u901a\u7701\u56db\u56fd\u5730\u65b9\u6574\u5099\u5c40\u9ad8\u77e5\u6cb3\u5ddd\u56fd\u9053\u4e8b\u52d9\u6240","boring_xml_url":47,"boring_view_url":1,"soilmap_view_url":null,"soiltest_xml_url":0,"soiltest_view_url":0},{"id":257968,"code":"B4KJ201802002-3448","latitude":"33.550833","longitude":"133.681389","source_code":"SK118860402000330004","project_name":"\u5e73\u621023\u5e74\u5ea6 \u7269\u90e8\u5ddd\u5824\u9632\u5730\u8cea\u8abf\u67fb(\u305d\u306e3)\u696d\u52d9","survey_name":"\u5e73\u621023\u5e74\u5ea6 \u7269\u90e8\u5ddd\u5824\u9632\u5730\u8cea\u8abf\u67fb(\u305d\u306e3)\u696d\u52d9","client_name":"\u56fd\u571f\u4ea4\u901a\u7701\u56db\u56fd\u5730\u65b9\u6574\u5099\u5c40\u9ad8\u77e5\u6cb3\u5ddd\u56fd\u9053\u4e8b\u52d9\u6240","boring_xml_url":47,"boring_view_url":1,"soilmap_view_url":null,"soiltest_xml_url":0,"soiltest_view_url":0},{"id":257967,"code":"B4KJ201802002-3447","latitude":"33.550556","longitude":"133.681389","source_code":"SK118860402000330003","project_name":"\u5e73\u621023\u5e74\u5ea6 \u7269\u90e8\u5ddd\u5824\u9632\u5730\u8cea\u8abf\u67fb(\u305d\u306e3)\u696d\u52d9","survey_name":"\u5e73\u621023\u5e74\u5ea6 \u7269\u90e8\u5ddd\u5824\u9632\u5730\u8cea\u8abf\u67fb(\u305d\u306e3)\u696d\u52d9","client_name":"\u56fd\u571f\u4ea4\u901a\u7701\u56db\u56fd\u5730\u65b9\u6574\u5099\u5c40\u9ad8\u77e5\u6cb3\u5ddd\u56fd\u9053\u4e8b\u52d9\u6240","boring_xml_url":47,"boring_view_url":1,"soilmap_view_url":null,"soiltest_xml_url":0,"soiltest_view_url":0},{"id":257966,"code":"B4KJ201802002-3446","latitude":"33.548889","longitude":"133.681944","source_code":"SK118860402000330002","project_name":"\u5e73\u621023\u5e74\u5ea6 \u7269\u90e8\u5ddd\u5824\u9632\u5730\u8cea\u8abf\u67fb(\u305d\u306e3)\u696d\u52d9","survey_name":"\u5e73\u621023\u5e74\u5ea6 \u7269\u90e8\u5ddd\u5824\u9632\u5730\u8cea\u8abf\u67fb(\u305d\u306e3)\u696d\u52d9","client_name":"\u56fd\u571f\u4ea4\u901a\u7701\u56db\u56fd\u5730\u65b9\u6574\u5099\u5c40\u9ad8\u77e5\u6cb3\u5ddd\u56fd\u9053\u4e8b\u52d9\u6240","boring_xml_url":47,"boring_view_url":1,"soilmap_view_url":null,"soiltest_xml_url":0,"soiltest_view_url":0},{"id":257965,"code":"B4KJ201802002-3445","latitude":"33.548889","longitude":"133.681667","source_code":"SK118860402000330001","project_name":"\u5e73\u621023\u5e74\u5ea6 \u7269\u90e8\u5ddd\u5824\u9632\u5730\u8cea\u8abf\u67fb(\u305d\u306e3)\u696d\u52d9","survey_name":"\u5e73\u621023\u5e74\u5ea6 \u7269\u90e8\u5ddd\u5824\u9632\u5730\u8cea\u8abf\u67fb(\u305d\u306e3)\u696d\u52d9","client_name":"\u56fd\u571f\u4ea4\u901a\u7701\u56db\u56fd\u5730\u65b9\u6574\u5099\u5c40\u9ad8\u77e5\u6cb3\u5ddd\u56fd\u9053\u4e8b\u52d9\u6240","boring_xml_url":47,"boring_view_url":1,"soilmap_view_url":null,"soiltest_xml_url":0,"soiltest_view_url":0},{"id":257964,"code":"B4KJ201802002-3444","latitude":"33.549528","longitude":"133.619611","source_code":"SK118862622000040002","project_name":"","survey_name":"\u5e73\u621023\u5e74\u5ea6 \u5927\u5c71\u9053\u8def\u6c34\u6587\u8abf\u67fb\u696d\u52d9","client_name":"\u56fd\u571f\u4ea4\u901a\u7701\u56db\u56fd\u5730\u65b9\u6574\u5099\u5c40\u571f\u4f50\u56fd\u9053\u4e8b\u52d9\u6240","boring_xml_url":47,"boring_view_url":1,"soilmap_view_url":null,"soiltest_xml_url":0,"soiltest_view_url":0},{"id":257963,"code":"B4KJ201802002-3443","latitude":"33.549694","longitude":"133.619278","source_code":"SK118862622000040001","project_name":"","survey_name":"\u5e73\u621023\u5e74\u5ea6 \u5927\u5c71\u9053\u8def\u6c34\u6587\u8abf\u67fb\u696d\u52d9","client_name":"\u56fd\u571f\u4ea4\u901a\u7701\u56db\u56fd\u5730\u65b9\u6574\u5099\u5c40\u571f\u4f50\u56fd\u9053\u4e8b\u52d9\u6240","boring_xml_url":47,"boring_view_url":1,"soilmap_view_url":null,"soiltest_xml_url":0,"soiltest_view_url":0},{"id":257962,"code":"B4KJ201802002-3442","latitude":"33.49","longitude":"133.553333","source_code":"SK118860602000180002","project_name":"","survey_name":"\u5e73\u621023\u5e74\u5ea6 \u9ad8\u77e5\u6d77\u5cb8\u5730\u8cea\u8abf\u67fb(\u305d\u306e3)\u696d\u52d9","client_name":"\u56db\u56fd\u5730\u65b9\u6574\u5099\u5c40 \u9ad8\u77e5\u6cb3\u5ddd\u56fd\u9053\u4e8b\u52d9\u6240","boring_xml_url":47,"boring_view_url":1,"soilmap_view_url":null,"soiltest_xml_url":47,"soiltest_view_url":46},{"id":257961,"code":"B4KJ201802002-3441","latitude":"33.519167","longitude":"133.598611","source_code":"SK118860602000180001","project_name":"","survey_name":"\u5e73\u621023\u5e74\u5ea6 \u9ad8\u77e5\u6d77\u5cb8\u5730\u8cea\u8abf\u67fb(\u305d\u306e3)\u696d\u52d9","client_name":"\u56db\u56fd\u5730\u65b9\u6574\u5099\u5c40 \u9ad8\u77e5\u6cb3\u5ddd\u56fd\u9053\u4e8b\u52d9\u6240","boring_xml_url":47,"boring_view_url":1,"soilmap_view_url":null,"soiltest_xml_url":47,"soiltest_view_url":46},{"id":257960,"code":"B4KJ201802002-3440","latitude":"33.524722","longitude":"133.624833","source_code":"SK118860602000160003","project_name":"","survey_name":"\u5e73\u621023\u5e74\u5ea6 \u9ad8\u77e5\u6d77\u5cb8\u5730\u8cea\u8abf\u67fb\u696d\u52d9","client_name":"\u56fd\u571f\u4ea4\u901a\u7701 \u56db\u56fd\u5730\u65b9\u6574\u5099\u5c40 \u9ad8\u77e5\u6cb3\u5ddd\u56fd\u9053\u4e8b\u52d9\u6240","boring_xml_url":47,"boring_view_url":1,"soilmap_view_url":null,"soiltest_xml_url":47,"soiltest_view_url":46},{"id":257959,"code":"B4KJ201802002-3439","latitude":"33.527861","longitude":"133.641056","source_code":"SK118860602000160002","project_name":"","survey_name":"\u5e73\u621023\u5e74\u5ea6 \u9ad8\u77e5\u6d77\u5cb8\u5730\u8cea\u8abf\u67fb\u696d\u52d9","client_name":"\u56fd\u571f\u4ea4\u901a\u7701 \u56db\u56fd\u5730\u65b9\u6574\u5099\u5c40 \u9ad8\u77e5\u6cb3\u5ddd\u56fd\u9053\u4e8b\u52d9\u6240","boring_xml_url":47,"boring_view_url":1,"soilmap_view_url":null,"soiltest_xml_url":47,"soiltest_view_url":46}]}}