{"header":{"xyz":{"source":[],"mosaic":false},"page":2421,"raw":{"soiltest_result":"0","bbox":"57.598333,109.544722,1.933333,163.806111","page":"2421"},"conditions":{"soiltest_result":0,"north":57.598333,"west":109.544722,"south":1.933333,"east":163.806111},"success":true,"message":""},"data":{"meta":{"total":212844,"page":2421,"pages":7095,"count":30},"values":[{"id":257928,"code":"B4KJ201802002-3408","latitude":"34.002833","longitude":"133.017806","source_code":"SK118850622000490009","project_name":"\u5e73\u621023\u5e74\u5ea6 \u4eca\u6cbb\u9053\u8def\u5730\u8cea\u8abf\u67fb(\u305d\u306e4)\u696d\u52d9","survey_name":"\u5e73\u621023\u5e74\u5ea6 \u4eca\u6cbb\u9053\u8def\u5730\u8cea\u8abf\u67fb(\u305d\u306e4)\u696d\u52d9","client_name":"\u56fd\u571f\u4ea4\u901a\u7701\u56db\u56fd\u5730\u65b9\u6574\u5099\u5c40\u677e\u5c71\u6cb3\u5ddd\u56fd\u9053\u4e8b\u52d9\u6240","boring_xml_url":47,"boring_view_url":1,"soilmap_view_url":null,"soiltest_xml_url":0,"soiltest_view_url":0},{"id":257927,"code":"B4KJ201802002-3407","latitude":"34.004083","longitude":"133.015778","source_code":"SK118850622000490008","project_name":"\u5e73\u621023\u5e74\u5ea6 \u4eca\u6cbb\u9053\u8def\u5730\u8cea\u8abf\u67fb(\u305d\u306e4)\u696d\u52d9","survey_name":"\u5e73\u621023\u5e74\u5ea6 \u4eca\u6cbb\u9053\u8def\u5730\u8cea\u8abf\u67fb(\u305d\u306e4)\u696d\u52d9","client_name":"\u56fd\u571f\u4ea4\u901a\u7701\u56db\u56fd\u5730\u65b9\u6574\u5099\u5c40\u677e\u5c71\u6cb3\u5ddd\u56fd\u9053\u4e8b\u52d9\u6240","boring_xml_url":47,"boring_view_url":1,"soilmap_view_url":null,"soiltest_xml_url":0,"soiltest_view_url":0},{"id":257926,"code":"B4KJ201802002-3406","latitude":"34.004556","longitude":"133.015528","source_code":"SK118850622000490007","project_name":"\u5e73\u621023\u5e74\u5ea6 \u4eca\u6cbb\u9053\u8def\u5730\u8cea\u8abf\u67fb(\u305d\u306e4)\u696d\u52d9","survey_name":"\u5e73\u621023\u5e74\u5ea6 \u4eca\u6cbb\u9053\u8def\u5730\u8cea\u8abf\u67fb(\u305d\u306e4)\u696d\u52d9","client_name":"\u56fd\u571f\u4ea4\u901a\u7701\u56db\u56fd\u5730\u65b9\u6574\u5099\u5c40\u677e\u5c71\u6cb3\u5ddd\u56fd\u9053\u4e8b\u52d9\u6240","boring_xml_url":47,"boring_view_url":1,"soilmap_view_url":null,"soiltest_xml_url":0,"soiltest_view_url":0},{"id":257925,"code":"B4KJ201802002-3405","latitude":"34.002083","longitude":"133.017694","source_code":"SK118850622000490006","project_name":"\u5e73\u621023\u5e74\u5ea6 \u4eca\u6cbb\u9053\u8def\u5730\u8cea\u8abf\u67fb(\u305d\u306e4)\u696d\u52d9","survey_name":"\u5e73\u621023\u5e74\u5ea6 \u4eca\u6cbb\u9053\u8def\u5730\u8cea\u8abf\u67fb(\u305d\u306e4)\u696d\u52d9","client_name":"\u56fd\u571f\u4ea4\u901a\u7701\u56db\u56fd\u5730\u65b9\u6574\u5099\u5c40\u677e\u5c71\u6cb3\u5ddd\u56fd\u9053\u4e8b\u52d9\u6240","boring_xml_url":47,"boring_view_url":1,"soilmap_view_url":null,"soiltest_xml_url":0,"soiltest_view_url":0},{"id":257924,"code":"B4KJ201802002-3404","latitude":"33.995222","longitude":"133.026139","source_code":"SK118850622000490005","project_name":"\u5e73\u621023\u5e74\u5ea6 \u4eca\u6cbb\u9053\u8def\u5730\u8cea\u8abf\u67fb(\u305d\u306e4)\u696d\u52d9","survey_name":"\u5e73\u621023\u5e74\u5ea6 \u4eca\u6cbb\u9053\u8def\u5730\u8cea\u8abf\u67fb(\u305d\u306e4)\u696d\u52d9","client_name":"\u56fd\u571f\u4ea4\u901a\u7701\u56db\u56fd\u5730\u65b9\u6574\u5099\u5c40\u677e\u5c71\u6cb3\u5ddd\u56fd\u9053\u4e8b\u52d9\u6240","boring_xml_url":47,"boring_view_url":1,"soilmap_view_url":null,"soiltest_xml_url":0,"soiltest_view_url":0},{"id":257923,"code":"B4KJ201802002-3403","latitude":"33.995472","longitude":"133.025361","source_code":"SK118850622000490004","project_name":"\u5e73\u621023\u5e74\u5ea6 \u4eca\u6cbb\u9053\u8def\u5730\u8cea\u8abf\u67fb(\u305d\u306e4)\u696d\u52d9","survey_name":"\u5e73\u621023\u5e74\u5ea6 \u4eca\u6cbb\u9053\u8def\u5730\u8cea\u8abf\u67fb(\u305d\u306e4)\u696d\u52d9","client_name":"\u56fd\u571f\u4ea4\u901a\u7701\u56db\u56fd\u5730\u65b9\u6574\u5099\u5c40\u677e\u5c71\u6cb3\u5ddd\u56fd\u9053\u4e8b\u52d9\u6240","boring_xml_url":47,"boring_view_url":1,"soilmap_view_url":null,"soiltest_xml_url":0,"soiltest_view_url":0},{"id":257922,"code":"B4KJ201802002-3402","latitude":"33.995694","longitude":"133.024833","source_code":"SK118850622000490003","project_name":"\u5e73\u621023\u5e74\u5ea6 \u4eca\u6cbb\u9053\u8def\u5730\u8cea\u8abf\u67fb(\u305d\u306e4)\u696d\u52d9","survey_name":"\u5e73\u621023\u5e74\u5ea6 \u4eca\u6cbb\u9053\u8def\u5730\u8cea\u8abf\u67fb(\u305d\u306e4)\u696d\u52d9","client_name":"\u56fd\u571f\u4ea4\u901a\u7701\u56db\u56fd\u5730\u65b9\u6574\u5099\u5c40\u677e\u5c71\u6cb3\u5ddd\u56fd\u9053\u4e8b\u52d9\u6240","boring_xml_url":47,"boring_view_url":1,"soilmap_view_url":null,"soiltest_xml_url":0,"soiltest_view_url":0},{"id":257921,"code":"B4KJ201802002-3401","latitude":"33.996139","longitude":"133.023806","source_code":"SK118850622000490002","project_name":"\u5e73\u621023\u5e74\u5ea6 \u4eca\u6cbb\u9053\u8def\u5730\u8cea\u8abf\u67fb(\u305d\u306e4)\u696d\u52d9","survey_name":"\u5e73\u621023\u5e74\u5ea6 \u4eca\u6cbb\u9053\u8def\u5730\u8cea\u8abf\u67fb(\u305d\u306e4)\u696d\u52d9","client_name":"\u56fd\u4ea4\u7701 \u677e\u5c71\u6cb3\u5ddd\u56fd\u9053\u4e8b\u52d9\u6240","boring_xml_url":47,"boring_view_url":1,"soilmap_view_url":null,"soiltest_xml_url":0,"soiltest_view_url":0},{"id":257920,"code":"B4KJ201802002-3400","latitude":"34.008472","longitude":"133.001028","source_code":"SK118850622000490001","project_name":"\u5e73\u621023\u5e74\u5ea6 \u4eca\u6cbb\u9053\u8def\u5730\u8cea\u8abf\u67fb(\u305d\u306e4)\u696d\u52d9","survey_name":"\u5e73\u621023\u5e74\u5ea6 \u4eca\u6cbb\u9053\u8def\u5730\u8cea\u8abf\u67fb(\u305d\u306e4)\u696d\u52d9","client_name":"\u56fd\u571f\u4ea4\u901a\u7701\u56db\u56fd\u5730\u65b9\u6574\u5099\u5c40\u677e\u5c71\u6cb3\u5ddd\u56fd\u9053\u4e8b\u52d9\u6240","boring_xml_url":47,"boring_view_url":1,"soilmap_view_url":null,"soiltest_xml_url":0,"soiltest_view_url":0},{"id":257919,"code":"B4KJ201802002-3399","latitude":"33.988889","longitude":"133.048056","source_code":"SK118850622000470009","project_name":"\u5e73\u621023\u5e74\u5ea6","survey_name":"\u4eca\u6cbb\u9053\u8def\u5730\u8cea\u8abf\u67fb(\u305d\u306e3)\u696d\u52d9","client_name":"\u56fd\u571f\u4ea4\u901a\u7701\u56db\u56fd\u5730\u65b9\u6574\u5099\u5c40\u677e\u5c71\u6cb3\u5ddd\u56fd\u9053\u4e8b\u52d9\u6240","boring_xml_url":47,"boring_view_url":1,"soilmap_view_url":null,"soiltest_xml_url":0,"soiltest_view_url":0},{"id":257918,"code":"B4KJ201802002-3398","latitude":"33.989444","longitude":"133.0475","source_code":"SK118850622000470008","project_name":"\u5e73\u621023\u5e74\u5ea6","survey_name":"\u4eca\u6cbb\u9053\u8def\u5730\u8cea\u8abf\u67fb(\u305d\u306e3)\u696d\u52d9","client_name":"\u56fd\u571f\u4ea4\u901a\u7701\u56db\u56fd\u5730\u65b9\u6574\u5099\u5c40\u677e\u5c71\u6cb3\u5ddd\u56fd\u9053\u4e8b\u52d9\u6240","boring_xml_url":47,"boring_view_url":1,"soilmap_view_url":null,"soiltest_xml_url":0,"soiltest_view_url":0},{"id":257917,"code":"B4KJ201802002-3397","latitude":"33.993611","longitude":"133.042222","source_code":"SK118850622000470007","project_name":"\u5e73\u621023\u5e74\u5ea6","survey_name":"\u4eca\u6cbb\u9053\u8def\u5730\u8cea\u8abf\u67fb(\u305d\u306e3)\u696d\u52d9","client_name":"\u56fd\u571f\u4ea4\u901a\u7701\u56db\u56fd\u5730\u65b9\u6574\u5099\u5c40\u677e\u5c71\u6cb3\u5ddd\u56fd\u9053\u4e8b\u52d9\u6240","boring_xml_url":47,"boring_view_url":1,"soilmap_view_url":null,"soiltest_xml_url":0,"soiltest_view_url":0},{"id":257916,"code":"B4KJ201802002-3396","latitude":"33.993611","longitude":"133.040833","source_code":"SK118850622000470005","project_name":"\u5e73\u621023\u5e74\u5ea6","survey_name":"\u4eca\u6cbb\u9053\u8def\u5730\u8cea\u8abf\u67fb(\u305d\u306e3)\u696d\u52d9","client_name":"\u56fd\u571f\u4ea4\u901a\u7701\u56db\u56fd\u5730\u65b9\u6574\u5099\u5c40\u677e\u5c71\u6cb3\u5ddd\u56fd\u9053\u4e8b\u52d9\u6240","boring_xml_url":47,"boring_view_url":1,"soilmap_view_url":null,"soiltest_xml_url":0,"soiltest_view_url":0},{"id":257915,"code":"B4KJ201802002-3395","latitude":"33.993611","longitude":"133.040556","source_code":"SK118850622000470004","project_name":"\u5e73\u621023\u5e74\u5ea6","survey_name":"\u4eca\u6cbb\u9053\u8def\u5730\u8cea\u8abf\u67fb(\u305d\u306e3)\u696d\u52d9","client_name":"\u56fd\u571f\u4ea4\u901a\u7701\u56db\u56fd\u5730\u65b9\u6574\u5099\u5c40\u677e\u5c71\u6cb3\u5ddd\u56fd\u9053\u4e8b\u52d9\u6240","boring_xml_url":47,"boring_view_url":1,"soilmap_view_url":null,"soiltest_xml_url":0,"soiltest_view_url":0},{"id":257914,"code":"B4KJ201802002-3394","latitude":"33.907167","longitude":"133.108417","source_code":"SK118850622000470003","project_name":"\u5e73\u621023\u5e74\u5ea6","survey_name":"\u4eca\u6cbb\u9053\u8def\u5730\u8cea\u8abf\u67fb(\u305d\u306e3)\u696d\u52d9","client_name":"\u56fd\u571f\u4ea4\u901a\u7701\u56db\u56fd\u5730\u65b9\u6574\u5099\u5c40\u677e\u5c71\u6cb3\u5ddd\u56fd\u9053\u4e8b\u52d9\u6240","boring_xml_url":47,"boring_view_url":1,"soilmap_view_url":null,"soiltest_xml_url":0,"soiltest_view_url":0},{"id":257913,"code":"B4KJ201802002-3393","latitude":"33.906056","longitude":"133.108083","source_code":"SK118850622000470002","project_name":"\u5e73\u621023\u5e74\u5ea6","survey_name":"\u4eca\u6cbb\u9053\u8def\u5730\u8cea\u8abf\u67fb(\u305d\u306e3)\u696d\u52d9","client_name":"\u56fd\u571f\u4ea4\u901a\u7701\u56db\u56fd\u5730\u65b9\u6574\u5099\u5c40\u677e\u5c71\u6cb3\u5ddd\u56fd\u9053\u4e8b\u52d9\u6240","boring_xml_url":47,"boring_view_url":1,"soilmap_view_url":null,"soiltest_xml_url":0,"soiltest_view_url":0},{"id":257912,"code":"B4KJ201802002-3392","latitude":"33.901972","longitude":"133.107556","source_code":"SK118850622000470001","project_name":"\u5e73\u621023\u5e74\u5ea6","survey_name":"\u4eca\u6cbb\u9053\u8def\u5730\u8cea\u8abf\u67fb(\u305d\u306e3)\u696d\u52d9","client_name":"\u56fd\u571f\u4ea4\u901a\u7701\u56db\u56fd\u5730\u65b9\u6574\u5099\u5c40\u677e\u5c71\u6cb3\u5ddd\u56fd\u9053\u4e8b\u52d9\u6240","boring_xml_url":47,"boring_view_url":1,"soilmap_view_url":null,"soiltest_xml_url":0,"soiltest_view_url":0},{"id":257911,"code":"B4KJ201802002-3391","latitude":"33.811028","longitude":"132.727278","source_code":"SK118850622000140007","project_name":"","survey_name":"\u5e73\u621023\u5e74\u5ea6 \u677e\u5c71\u5916\u74b0\u72b6\u9053\u8def\u7a7a\u6e2f\u7dda\u5357\u5409\u7530\u5916\u5730\u8cea\u8abf\u67fb\u696d\u52d9","client_name":"\u56fd\u571f\u4ea4\u901a\u7701\u56db\u56fd\u5730\u65b9\u6574\u5099\u5c40\u677e\u5c71\u6cb3\u5ddd\u56fd\u9053\u4e8b\u52d9\u6240","boring_xml_url":47,"boring_view_url":1,"soilmap_view_url":null,"soiltest_xml_url":47,"soiltest_view_url":46},{"id":257910,"code":"B4KJ201802002-3390","latitude":"33.830111","longitude":"132.709306","source_code":"SK118850622000140006","project_name":"","survey_name":"\u5e73\u621023\u5e74\u5ea6 \u677e\u5c71\u5916\u74b0\u72b6\u9053\u8def\u7a7a\u6e2f\u7dda\u5357\u5409\u7530\u5916\u5730\u8cea\u8abf\u67fb\u696d\u52d9","client_name":"\u56fd\u571f\u4ea4\u901a\u7701\u56db\u56fd\u5730\u65b9\u6574\u5099\u5c40\u677e\u5c71\u6cb3\u5ddd\u56fd\u9053\u4e8b\u52d9\u6240","boring_xml_url":47,"boring_view_url":1,"soilmap_view_url":null,"soiltest_xml_url":0,"soiltest_view_url":0},{"id":257909,"code":"B4KJ201802002-3389","latitude":"33.829472","longitude":"132.70975","source_code":"SK118850622000140005","project_name":"","survey_name":"\u5e73\u621023\u5e74\u5ea6 \u677e\u5c71\u5916\u74b0\u72b6\u9053\u8def\u7a7a\u6e2f\u7dda\u5357\u5409\u7530\u5916\u5730\u8cea\u8abf\u67fb\u696d\u52d9","client_name":"\u56fd\u571f\u4ea4\u901a\u7701\u56db\u56fd\u5730\u65b9\u6574\u5099\u5c40\u677e\u5c71\u6cb3\u5ddd\u56fd\u9053\u4e8b\u52d9\u6240","boring_xml_url":47,"boring_view_url":1,"soilmap_view_url":null,"soiltest_xml_url":47,"soiltest_view_url":46},{"id":257908,"code":"B4KJ201802002-3388","latitude":"33.822528","longitude":"132.713361","source_code":"SK118850622000140004","project_name":"","survey_name":"\u5e73\u621023\u5e74\u5ea6 \u677e\u5c71\u5916\u74b0\u72b6\u9053\u8def\u7a7a\u6e2f\u7dda\u5357\u5409\u7530\u5916\u5730\u8cea\u8abf\u67fb\u696d\u52d9","client_name":"\u56fd\u571f\u4ea4\u901a\u7701\u56db\u56fd\u5730\u65b9\u6574\u5099\u5c40\u677e\u5c71\u6cb3\u5ddd\u56fd\u9053\u4e8b\u52d9\u6240","boring_xml_url":47,"boring_view_url":1,"soilmap_view_url":null,"soiltest_xml_url":0,"soiltest_view_url":0},{"id":257907,"code":"B4KJ201802002-3387","latitude":"33.821028","longitude":"132.714111","source_code":"SK118850622000140003","project_name":"","survey_name":"\u5e73\u621023\u5e74\u5ea6 \u677e\u5c71\u5916\u74b0\u72b6\u9053\u8def\u7a7a\u6e2f\u7dda\u5357\u5409\u7530\u5916\u5730\u8cea\u8abf\u67fb\u696d\u52d9","client_name":"\u56fd\u571f\u4ea4\u901a\u7701\u56db\u56fd\u5730\u65b9\u6574\u5099\u5c40\u677e\u5c71\u6cb3\u5ddd\u56fd\u9053\u4e8b\u52d9\u6240","boring_xml_url":47,"boring_view_url":1,"soilmap_view_url":null,"soiltest_xml_url":0,"soiltest_view_url":0},{"id":257906,"code":"B4KJ201802002-3386","latitude":"33.82025","longitude":"132.715833","source_code":"SK118850622000140002","project_name":"","survey_name":"\u5e73\u621023\u5e74\u5ea6 \u677e\u5c71\u5916\u74b0\u72b6\u9053\u8def\u7a7a\u6e2f\u7dda\u5357\u5409\u7530\u5916\u5730\u8cea\u8abf\u67fb\u696d\u52d9","client_name":"\u56fd\u571f\u4ea4\u901a\u7701\u56db\u56fd\u5730\u65b9\u6574\u5099\u5c40\u677e\u5c71\u6cb3\u5ddd\u56fd\u9053\u4e8b\u52d9\u6240","boring_xml_url":47,"boring_view_url":1,"soilmap_view_url":null,"soiltest_xml_url":0,"soiltest_view_url":0},{"id":257905,"code":"B4KJ201802002-3385","latitude":"33.812139","longitude":"132.723194","source_code":"SK118850622000140001","project_name":"","survey_name":"\u5e73\u621023\u5e74\u5ea6 \u677e\u5c71\u5916\u74b0\u72b6\u9053\u8def\u7a7a\u6e2f\u7dda\u5357\u5409\u7530\u5916\u5730\u8cea\u8abf\u67fb\u696d\u52d9","client_name":"\u56fd\u571f\u4ea4\u901a\u7701\u56db\u56fd\u5730\u65b9\u6574\u5099\u5c40\u677e\u5c71\u6cb3\u5ddd\u56fd\u9053\u4e8b\u52d9\u6240","boring_xml_url":47,"boring_view_url":1,"soilmap_view_url":null,"soiltest_xml_url":0,"soiltest_view_url":0},{"id":257904,"code":"B4KJ201802002-3384","latitude":"33.819444","longitude":"132.715889","source_code":"SK118850622000130005","project_name":"\u6c34\u6587\u8abf\u67fb","survey_name":"\u5e73\u621023\u5e74\u5ea6\u677e\u5c71\u5916\u74b0\u72b6\u9053\u8def\u7a7a\u6e2f\u7dda\u6c34\u6587\u8abf\u67fb\u696d\u52d9","client_name":"\u56fd\u571f\u4ea4\u901a\u7701\u56db\u56fd\u5730\u65b9\u6574\u5099\u5c40\u677e\u5c71\u6cb3\u5ddd\u56fd\u9053\u4e8b\u52d9\u6240","boring_xml_url":47,"boring_view_url":1,"soilmap_view_url":null,"soiltest_xml_url":0,"soiltest_view_url":0},{"id":257903,"code":"B4KJ201802002-3383","latitude":"33.816194","longitude":"132.720472","source_code":"SK118850622000130004","project_name":"\u6c34\u6587\u8abf\u67fb","survey_name":"\u5e73\u621023\u5e74\u5ea6\u677e\u5c71\u5916\u74b0\u72b6\u9053\u8def\u7a7a\u6e2f\u7dda\u6c34\u6587\u8abf\u67fb\u696d\u52d9","client_name":"\u56fd\u571f\u4ea4\u901a\u7701\u56db\u56fd\u5730\u65b9\u6574\u5099\u5c40\u677e\u5c71\u6cb3\u5ddd\u56fd\u9053\u4e8b\u52d9\u6240","boring_xml_url":47,"boring_view_url":1,"soilmap_view_url":null,"soiltest_xml_url":0,"soiltest_view_url":0},{"id":257902,"code":"B4KJ201802002-3382","latitude":"33.812917","longitude":"132.721389","source_code":"SK118850622000130003","project_name":"\u6c34\u6587\u8abf\u67fb","survey_name":"\u5e73\u621023\u5e74\u5ea6\u677e\u5c71\u5916\u74b0\u72b6\u9053\u8def\u7a7a\u6e2f\u7dda\u6c34\u6587\u8abf\u67fb\u696d\u52d9","client_name":"\u56fd\u571f\u4ea4\u901a\u7701\u56db\u56fd\u5730\u65b9\u6574\u5099\u5c40\u677e\u5c71\u6cb3\u5ddd\u56fd\u9053\u4e8b\u52d9\u6240","boring_xml_url":47,"boring_view_url":1,"soilmap_view_url":null,"soiltest_xml_url":0,"soiltest_view_url":0},{"id":257901,"code":"B4KJ201802002-3381","latitude":"33.811056","longitude":"132.725139","source_code":"SK118850622000130002","project_name":"\u6c34\u6587\u8abf\u67fb","survey_name":"\u5e73\u621023\u5e74\u5ea6\u677e\u5c71\u5916\u74b0\u72b6\u9053\u8def\u7a7a\u6e2f\u7dda\u6c34\u6587\u8abf\u67fb\u696d\u52d9","client_name":"\u56fd\u571f\u4ea4\u901a\u7701\u56db\u56fd\u5730\u65b9\u6574\u5099\u5c40\u677e\u5c71\u6cb3\u5ddd\u56fd\u9053\u4e8b\u52d9\u6240","boring_xml_url":47,"boring_view_url":1,"soilmap_view_url":null,"soiltest_xml_url":0,"soiltest_view_url":0},{"id":257900,"code":"B4KJ201802002-3380","latitude":"33.811472","longitude":"132.732833","source_code":"SK118850622000130001","project_name":"\u6c34\u6587\u8abf\u67fb","survey_name":"\u5e73\u621023\u5e74\u5ea6\u677e\u5c71\u5916\u74b0\u72b6\u9053\u8def\u7a7a\u6e2f\u7dda\u6c34\u6587\u8abf\u67fb\u696d\u52d9","client_name":"\u56fd\u571f\u4ea4\u901a\u7701\u56db\u56fd\u5730\u65b9\u6574\u5099\u5c40\u677e\u5c71\u6cb3\u5ddd\u56fd\u9053\u4e8b\u52d9\u6240","boring_xml_url":47,"boring_view_url":1,"soilmap_view_url":null,"soiltest_xml_url":0,"soiltest_view_url":0},{"id":257899,"code":"B4KJ201802002-3379","latitude":"33.907472","longitude":"133.189972","source_code":"SK118850542000070001","project_name":"\u5e73\u621023\u5e74\u5ea6 \u897f\u6761\u7ba1\u5185\u6e2c\u91cf\u53ca\u3073\u8a2d\u8a08\u696d\u52d9","survey_name":"\u5e73\u621023\u5e74\u5ea6 \u897f\u6761\u7ba1\u5185\u6e2c\u91cf\u53ca\u3073\u8a2d\u8a08\u696d\u52d9","client_name":"\u56fd\u571f\u4ea4\u901a\u7701\u56db\u56fd\u5730\u65b9\u6574\u5099\u5c40\u677e\u5c71\u6cb3\u5ddd\u56fd\u9053\u4e8b\u52d9\u6240","boring_xml_url":47,"boring_view_url":1,"soilmap_view_url":null,"soiltest_xml_url":47,"soiltest_view_url":46}]}}