{"header":{"xyz":{"source":[],"mosaic":false},"page":2422,"raw":{"soiltest_result":"0","bbox":"57.598333,109.544722,1.933333,163.806111","page":"2422"},"conditions":{"soiltest_result":0,"north":57.598333,"west":109.544722,"south":1.933333,"east":163.806111},"success":true,"message":""},"data":{"meta":{"total":212844,"page":2422,"pages":7095,"count":30},"values":[{"id":257898,"code":"B4KJ201802002-3378","latitude":"33.738306","longitude":"132.813889","source_code":"SK118850542000060002","project_name":"","survey_name":"\u5e73\u621023\u5e74\u5ea6\u677e\u5c71\u7ba1\u5185\u56fd\u905333\u53f7\u5916\u9632\u707d\u70b9\u691c\u696d\u52d9","client_name":"\u56fd\u571f\u4ea4\u901a\u7701\u56db\u56fd\u5730\u65b9\u6574\u5099\u5c40\u677e\u5c71\u6cb3\u5ddd\u56fd\u9053\u4e8b\u52d9\u6240","boring_xml_url":47,"boring_view_url":1,"soilmap_view_url":null,"soiltest_xml_url":0,"soiltest_view_url":0},{"id":257897,"code":"B4KJ201802002-3377","latitude":"33.738194","longitude":"132.813556","source_code":"SK118850542000060001","project_name":"","survey_name":"\u5e73\u621023\u5e74\u5ea6\u677e\u5c71\u7ba1\u5185\u56fd\u905333\u53f7\u5916\u9632\u707d\u70b9\u691c\u696d\u52d9","client_name":"\u56fd\u571f\u4ea4\u901a\u7701\u56db\u56fd\u5730\u65b9\u6574\u5099\u5c40\u677e\u5c71\u6cb3\u5ddd\u56fd\u9053\u4e8b\u52d9\u6240","boring_xml_url":47,"boring_view_url":1,"soilmap_view_url":null,"soiltest_xml_url":0,"soiltest_view_url":0},{"id":257896,"code":"B4KJ201802002-3376","latitude":"33.893889","longitude":"132.842778","source_code":"SK118850522000070002","project_name":"","survey_name":"\u5e73\u621023\u5e74\u5ea6 \u77f3\u624b\u5ddd\u30c0\u30e0\u6e2c\u91cf\u8a2d\u8a08\u5916\u696d\u52d9","client_name":"\u56fd\u571f\u4ea4\u901a\u7701\u56db\u56fd\u5730\u65b9\u6574\u5099\u5c40\u677e\u5c71\u6cb3\u5ddd\u56fd\u9053\u4e8b\u52d9\u6240\u77f3\u624b\u5ddd\u30c0\u30e0\u7ba1\u7406\u652f\u6240","boring_xml_url":47,"boring_view_url":1,"soilmap_view_url":null,"soiltest_xml_url":0,"soiltest_view_url":0},{"id":257895,"code":"B4KJ201802002-3375","latitude":"33.861333","longitude":"132.814556","source_code":"SK118850522000070001","project_name":"","survey_name":"\u5e73\u621023\u5e74\u5ea6 \u77f3\u624b\u5ddd\u30c0\u30e0\u6e2c\u91cf\u8a2d\u8a08\u5916\u696d\u52d9","client_name":"\u56fd\u571f\u4ea4\u901a\u7701\u56db\u56fd\u5730\u65b9\u6574\u5099\u5c40\u677e\u5c71\u6cb3\u5ddd\u56fd\u9053\u4e8b\u52d9\u6240\u77f3\u624b\u5ddd\u30c0\u30e0\u7ba1\u7406\u652f\u6240","boring_xml_url":47,"boring_view_url":1,"soilmap_view_url":null,"soiltest_xml_url":0,"soiltest_view_url":0},{"id":257894,"code":"B4KJ201802002-3374","latitude":"33.810778","longitude":"132.733333","source_code":"SK108850622000370009","project_name":"\u5e73\u621022-23\u5e74\u5ea6","survey_name":"\u677e\u5c71\u5916\u74b0\u72b6\u9053\u8def\u7a7a\u6e2f\u7dda\u4f59\u6238\u5730\u8cea\u8abf\u67fb\u696d\u52d9","client_name":"\u56fd\u571f\u4ea4\u901a\u7701\u56db\u56fd\u5730\u65b9\u6574\u5099\u5c40 \u677e\u5c71\u6cb3\u5ddd\u56fd\u9053\u4e8b\u52d9\u6240","boring_xml_url":47,"boring_view_url":1,"soilmap_view_url":null,"soiltest_xml_url":0,"soiltest_view_url":0},{"id":257893,"code":"B4KJ201802002-3373","latitude":"33.810583","longitude":"132.733639","source_code":"SK108850622000370008","project_name":"\u5e73\u621022-23\u5e74\u5ea6","survey_name":"\u677e\u5c71\u5916\u74b0\u72b6\u9053\u8def\u7a7a\u6e2f\u7dda\u4f59\u6238\u5730\u8cea\u8abf\u67fb\u696d\u52d9","client_name":"\u56fd\u571f\u4ea4\u901a\u7701\u56db\u56fd\u5730\u65b9\u6574\u5099\u5c40 \u677e\u5c71\u6cb3\u5ddd\u56fd\u9053\u4e8b\u52d9\u6240","boring_xml_url":47,"boring_view_url":1,"soilmap_view_url":null,"soiltest_xml_url":0,"soiltest_view_url":0},{"id":257892,"code":"B4KJ201802002-3372","latitude":"33.814389","longitude":"132.720667","source_code":"SK108850622000370007","project_name":"\u5e73\u621022-23\u5e74\u5ea6","survey_name":"\u677e\u5c71\u5916\u74b0\u72b6\u9053\u8def\u7a7a\u6e2f\u7dda\u4f59\u6238\u5730\u8cea\u8abf\u67fb\u696d\u52d9","client_name":"\u56fd\u571f\u4ea4\u901a\u7701\u56db\u56fd\u5730\u65b9\u6574\u5099\u5c40 \u677e\u5c71\u6cb3\u5ddd\u56fd\u9053\u4e8b\u52d9\u6240","boring_xml_url":47,"boring_view_url":1,"soilmap_view_url":null,"soiltest_xml_url":47,"soiltest_view_url":46},{"id":257891,"code":"B4KJ201802002-3371","latitude":"33.812472","longitude":"132.722611","source_code":"SK108850622000370006","project_name":"\u5e73\u621022-23\u5e74\u5ea6","survey_name":"\u677e\u5c71\u5916\u74b0\u72b6\u9053\u8def\u7a7a\u6e2f\u7dda\u4f59\u6238\u5730\u8cea\u8abf\u67fb\u696d\u52d9","client_name":"\u56fd\u571f\u4ea4\u901a\u7701\u56db\u56fd\u5730\u65b9\u6574\u5099\u5c40 \u677e\u5c71\u6cb3\u5ddd\u56fd\u9053\u4e8b\u52d9\u6240","boring_xml_url":47,"boring_view_url":1,"soilmap_view_url":null,"soiltest_xml_url":47,"soiltest_view_url":46},{"id":257890,"code":"B4KJ201802002-3370","latitude":"33.811944","longitude":"132.723556","source_code":"SK108850622000370005","project_name":"\u5e73\u621022-23\u5e74\u5ea6","survey_name":"\u677e\u5c71\u5916\u74b0\u72b6\u9053\u8def\u7a7a\u6e2f\u7dda\u4f59\u6238\u5730\u8cea\u8abf\u67fb\u696d\u52d9","client_name":"\u56fd\u571f\u4ea4\u901a\u7701\u56db\u56fd\u5730\u65b9\u6574\u5099\u5c40 \u677e\u5c71\u6cb3\u5ddd\u56fd\u9053\u4e8b\u52d9\u6240","boring_xml_url":47,"boring_view_url":1,"soilmap_view_url":null,"soiltest_xml_url":0,"soiltest_view_url":0},{"id":257889,"code":"B4KJ201802002-3369","latitude":"33.811389","longitude":"132.72475","source_code":"SK108850622000370004","project_name":"\u5e73\u621022-23\u5e74\u5ea6","survey_name":"\u677e\u5c71\u5916\u74b0\u72b6\u9053\u8def\u7a7a\u6e2f\u7dda\u4f59\u6238\u5730\u8cea\u8abf\u67fb\u696d\u52d9","client_name":"\u56fd\u571f\u4ea4\u901a\u7701\u56db\u56fd\u5730\u65b9\u6574\u5099\u5c40 \u677e\u5c71\u6cb3\u5ddd\u56fd\u9053\u4e8b\u52d9\u6240","boring_xml_url":47,"boring_view_url":1,"soilmap_view_url":null,"soiltest_xml_url":47,"soiltest_view_url":46},{"id":257888,"code":"B4KJ201802002-3368","latitude":"33.811278","longitude":"132.729806","source_code":"SK108850622000370003","project_name":"\u5e73\u621022-23\u5e74\u5ea6","survey_name":"\u677e\u5c71\u5916\u74b0\u72b6\u9053\u8def\u7a7a\u6e2f\u7dda\u4f59\u6238\u5730\u8cea\u8abf\u67fb\u696d\u52d9","client_name":"\u56fd\u571f\u4ea4\u901a\u7701\u56db\u56fd\u5730\u65b9\u6574\u5099\u5c40 \u677e\u5c71\u6cb3\u5ddd\u56fd\u9053\u4e8b\u52d9\u6240","boring_xml_url":47,"boring_view_url":1,"soilmap_view_url":null,"soiltest_xml_url":0,"soiltest_view_url":0},{"id":257887,"code":"B4KJ201802002-3367","latitude":"33.811333","longitude":"132.730222","source_code":"SK108850622000370002","project_name":"\u5e73\u621022-23\u5e74\u5ea6","survey_name":"\u677e\u5c71\u5916\u74b0\u72b6\u9053\u8def\u7a7a\u6e2f\u7dda\u4f59\u6238\u5730\u8cea\u8abf\u67fb\u696d\u52d9","client_name":"\u56fd\u571f\u4ea4\u901a\u7701\u56db\u56fd\u5730\u65b9\u6574\u5099\u5c40 \u677e\u5c71\u6cb3\u5ddd\u56fd\u9053\u4e8b\u52d9\u6240","boring_xml_url":47,"boring_view_url":1,"soilmap_view_url":null,"soiltest_xml_url":47,"soiltest_view_url":46},{"id":257886,"code":"B4KJ201802002-3366","latitude":"33.811444","longitude":"132.732778","source_code":"SK108850622000370001","project_name":"\u5e73\u621022-23\u5e74\u5ea6","survey_name":"\u677e\u5c71\u5916\u74b0\u72b6\u9053\u8def\u7a7a\u6e2f\u7dda\u4f59\u6238\u5730\u8cea\u8abf\u67fb\u696d\u52d9","client_name":"\u56fd\u571f\u4ea4\u901a\u7701\u56db\u56fd\u5730\u65b9\u6574\u5099\u5c40 \u677e\u5c71\u6cb3\u5ddd\u56fd\u9053\u4e8b\u52d9\u6240","boring_xml_url":47,"boring_view_url":1,"soilmap_view_url":null,"soiltest_xml_url":47,"soiltest_view_url":46},{"id":257885,"code":"B4KJ201802002-3365","latitude":"34.100778","longitude":"133.801306","source_code":"SK118840542000020007","project_name":"","survey_name":"\u5e73\u621023\u5e74\u5ea6\u8ca1\u7530\u5730\u533a\u901a\u884c\u898f\u5236\u533a\u9593\u691c\u8a0e\u696d\u52d9","client_name":"\u56fd\u571f\u4ea4\u901a\u7701\u56db\u56fd\u5730\u65b9\u6574\u5099\u5c40\u9999\u5ddd\u6cb3\u5ddd\u56fd\u9053\u4e8b\u52d9\u6240","boring_xml_url":47,"boring_view_url":1,"soilmap_view_url":null,"soiltest_xml_url":0,"soiltest_view_url":0},{"id":257884,"code":"B4KJ201802002-3364","latitude":"34.099306","longitude":"133.800278","source_code":"SK118840542000020006","project_name":"","survey_name":"\u5e73\u621023\u5e74\u5ea6\u8ca1\u7530\u5730\u533a\u901a\u884c\u898f\u5236\u533a\u9593\u691c\u8a0e\u696d\u52d9","client_name":"\u56fd\u571f\u4ea4\u901a\u7701\u56db\u56fd\u5730\u65b9\u6574\u5099\u5c40\u9999\u5ddd\u6cb3\u5ddd\u56fd\u9053\u4e8b\u52d9\u6240","boring_xml_url":47,"boring_view_url":1,"soilmap_view_url":null,"soiltest_xml_url":0,"soiltest_view_url":0},{"id":257883,"code":"B4KJ201802002-3363","latitude":"34.099444","longitude":"133.800389","source_code":"SK118840542000020005","project_name":"","survey_name":"\u5e73\u621023\u5e74\u5ea6\u8ca1\u7530\u5730\u533a\u901a\u884c\u898f\u5236\u533a\u9593\u691c\u8a0e\u696d\u52d9","client_name":"\u56fd\u571f\u4ea4\u901a\u7701\u56db\u56fd\u5730\u65b9\u6574\u5099\u5c40\u9999\u5ddd\u6cb3\u5ddd\u56fd\u9053\u4e8b\u52d9\u6240","boring_xml_url":47,"boring_view_url":1,"soilmap_view_url":null,"soiltest_xml_url":0,"soiltest_view_url":0},{"id":257882,"code":"B4KJ201802002-3362","latitude":"34.101639","longitude":"133.800278","source_code":"SK118840542000020004","project_name":"","survey_name":"\u5e73\u621023\u5e74\u5ea6\u8ca1\u7530\u5730\u533a\u901a\u884c\u898f\u5236\u533a\u9593\u691c\u8a0e\u696d\u52d9","client_name":"\u56fd\u571f\u4ea4\u901a\u7701\u56db\u56fd\u5730\u65b9\u6574\u5099\u5c40\u9999\u5ddd\u6cb3\u5ddd\u56fd\u9053\u4e8b\u52d9\u6240","boring_xml_url":47,"boring_view_url":1,"soilmap_view_url":null,"soiltest_xml_url":0,"soiltest_view_url":0},{"id":257881,"code":"B4KJ201802002-3361","latitude":"34.101806","longitude":"133.800278","source_code":"SK118840542000020003","project_name":"","survey_name":"\u5e73\u621023\u5e74\u5ea6\u8ca1\u7530\u5730\u533a\u901a\u884c\u898f\u5236\u533a\u9593\u691c\u8a0e\u696d\u52d9","client_name":"\u56fd\u571f\u4ea4\u901a\u7701\u56db\u56fd\u5730\u65b9\u6574\u5099\u5c40\u9999\u5ddd\u6cb3\u5ddd\u56fd\u9053\u4e8b\u52d9\u6240","boring_xml_url":47,"boring_view_url":1,"soilmap_view_url":null,"soiltest_xml_url":0,"soiltest_view_url":0},{"id":257880,"code":"B4KJ201802002-3360","latitude":"34.102111","longitude":"133.800056","source_code":"SK118840542000020002","project_name":"","survey_name":"\u5e73\u621023\u5e74\u5ea6\u8ca1\u7530\u5730\u533a\u901a\u884c\u898f\u5236\u533a\u9593\u691c\u8a0e\u696d\u52d9","client_name":"\u56fd\u571f\u4ea4\u901a\u7701\u56db\u56fd\u5730\u65b9\u6574\u5099\u5c40\u9999\u5ddd\u6cb3\u5ddd\u56fd\u9053\u4e8b\u52d9\u6240","boring_xml_url":47,"boring_view_url":1,"soilmap_view_url":null,"soiltest_xml_url":0,"soiltest_view_url":0},{"id":257879,"code":"B4KJ201802002-3359","latitude":"34.102111","longitude":"133.800056","source_code":"SK118840542000020001","project_name":"","survey_name":"\u5e73\u621023\u5e74\u5ea6\u8ca1\u7530\u5730\u533a\u901a\u884c\u898f\u5236\u533a\u9593\u691c\u8a0e\u696d\u52d9","client_name":"\u56fd\u571f\u4ea4\u901a\u7701\u56db\u56fd\u5730\u65b9\u6574\u5099\u5c40\u9999\u5ddd\u6cb3\u5ddd\u56fd\u9053\u4e8b\u52d9\u6240","boring_xml_url":47,"boring_view_url":1,"soilmap_view_url":null,"soiltest_xml_url":0,"soiltest_view_url":0},{"id":257878,"code":"B4KJ201802002-3358","latitude":"33.469167","longitude":"133.466389","source_code":"SK118860402000300005","project_name":"","survey_name":"\u5e73\u621023\u5e74\u5ea6 \u4ec1\u6dc0\u5ddd\u5824\u9632\u5730\u8cea\u8abf\u67fb(\u305d\u306e2)\u696d\u52d9","client_name":"\u56db\u56fd\u5730\u65b9\u6574\u5099\u5c40 \u9ad8\u77e5\u6cb3\u5ddd\u56fd\u9053\u4e8b\u52d9\u6240","boring_xml_url":47,"boring_view_url":1,"soilmap_view_url":null,"soiltest_xml_url":0,"soiltest_view_url":0},{"id":257877,"code":"B4KJ201802002-3357","latitude":"33.469306","longitude":"133.466528","source_code":"SK118860402000300004","project_name":"","survey_name":"\u5e73\u621023\u5e74\u5ea6 \u4ec1\u6dc0\u5ddd\u5824\u9632\u5730\u8cea\u8abf\u67fb(\u305d\u306e2)\u696d\u52d9","client_name":"\u56db\u56fd\u5730\u65b9\u6574\u5099\u5c40 \u9ad8\u77e5\u6cb3\u5ddd\u56fd\u9053\u4e8b\u52d9\u6240","boring_xml_url":47,"boring_view_url":1,"soilmap_view_url":null,"soiltest_xml_url":0,"soiltest_view_url":0},{"id":257876,"code":"B4KJ201802002-3356","latitude":"33.468333","longitude":"133.467778","source_code":"SK118860402000300003","project_name":"","survey_name":"\u5e73\u621023\u5e74\u5ea6 \u4ec1\u6dc0\u5ddd\u5824\u9632\u5730\u8cea\u8abf\u67fb(\u305d\u306e2)\u696d\u52d9","client_name":"\u56db\u56fd\u5730\u65b9\u6574\u5099\u5c40 \u9ad8\u77e5\u6cb3\u5ddd\u56fd\u9053\u4e8b\u52d9\u6240","boring_xml_url":47,"boring_view_url":1,"soilmap_view_url":null,"soiltest_xml_url":0,"soiltest_view_url":0},{"id":257875,"code":"B4KJ201802002-3355","latitude":"33.468611","longitude":"133.468056","source_code":"SK118860402000300002","project_name":"","survey_name":"\u5e73\u621023\u5e74\u5ea6 \u4ec1\u6dc0\u5ddd\u5824\u9632\u5730\u8cea\u8abf\u67fb(\u305d\u306e2)\u696d\u52d9","client_name":"\u56db\u56fd\u5730\u65b9\u6574\u5099\u5c40 \u9ad8\u77e5\u6cb3\u5ddd\u56fd\u9053\u4e8b\u52d9\u6240","boring_xml_url":47,"boring_view_url":1,"soilmap_view_url":null,"soiltest_xml_url":0,"soiltest_view_url":0},{"id":257874,"code":"B4KJ201802002-3354","latitude":"33.465306","longitude":"133.485667","source_code":"SK118860402000300001","project_name":"L-0k-200(H23-NL1-1(0k\/-2))","survey_name":"\u5e73\u621023\u5e74\u5ea6 \u4ec1\u6dc0\u5ddd\u5824\u9632\u5730\u8cea\u8abf\u67fb(\u305d\u306e2)\u696d\u52d9","client_name":"\u56db\u56fd\u5730\u65b9\u6574\u5099\u5c40 \u9ad8\u77e5\u6cb3\u5ddd\u56fd\u9053\u4e8b\u52d9\u6240","boring_xml_url":47,"boring_view_url":1,"soilmap_view_url":null,"soiltest_xml_url":0,"soiltest_view_url":0},{"id":257873,"code":"B4KJ201802002-3353","latitude":"33.811389","longitude":"132.728333","source_code":"SK118850622000370007","project_name":"","survey_name":"\u5e73\u621023\u5e74\u5ea6 \u677e\u5c71\u5916\u74b0\u72b6\u9053\u8def\u4f59\u6238\u5916\u5730\u8cea\u8abf\u67fb\u696d\u52d9","client_name":"\u56fd\u571f\u4ea4\u901a\u7701 \u56db\u56fd\u5730\u65b9\u6574\u5099\u5c40 \u677e\u5c71\u6cb3\u5ddd\u56fd\u9053\u4e8b\u52d9\u6240","boring_xml_url":47,"boring_view_url":1,"soilmap_view_url":null,"soiltest_xml_url":0,"soiltest_view_url":0},{"id":257872,"code":"B4KJ201802002-3352","latitude":"33.8195","longitude":"132.716833","source_code":"SK118850622000370006","project_name":"","survey_name":"\u5e73\u621023\u5e74\u5ea6 \u677e\u5c71\u5916\u74b0\u72b6\u9053\u8def\u4f59\u6238\u5916\u5730\u8cea\u8abf\u67fb\u696d\u52d9","client_name":"\u56fd\u571f\u4ea4\u901a\u7701\u56db\u56fd\u5730\u65b9\u6574\u5099\u5c40\u677e\u5c71\u6cb3\u5ddd\u56fd\u9053\u4e8b\u52d9\u6240","boring_xml_url":47,"boring_view_url":1,"soilmap_view_url":null,"soiltest_xml_url":0,"soiltest_view_url":0},{"id":257871,"code":"B4KJ201802002-3351","latitude":"33.817222","longitude":"132.719389","source_code":"SK118850622000370005","project_name":"","survey_name":"\u5e73\u621023\u5e74\u5ea6 \u677e\u5c71\u5916\u74b0\u72b6\u9053\u8def\u4f59\u6238\u5916\u5730\u8cea\u8abf\u67fb\u696d\u52d9","client_name":"\u56fd\u571f\u4ea4\u901a\u7701\u56db\u56fd\u5730\u65b9\u6574\u5099\u5c40\u677e\u5c71\u6cb3\u5ddd\u56fd\u9053\u4e8b\u52d9\u6240","boring_xml_url":47,"boring_view_url":1,"soilmap_view_url":null,"soiltest_xml_url":0,"soiltest_view_url":0},{"id":257870,"code":"B4KJ201802002-3350","latitude":"33.815694","longitude":"132.719944","source_code":"SK118850622000370004","project_name":"","survey_name":"\u5e73\u621023\u5e74\u5ea6 \u677e\u5c71\u5916\u74b0\u72b6\u9053\u8def\u4f59\u6238\u5916\u5730\u8cea\u8abf\u67fb\u696d\u52d9","client_name":"\u56fd\u571f\u4ea4\u901a\u7701\u56db\u56fd\u5730\u65b9\u6574\u5099\u5c40\u677e\u5c71\u6cb3\u5ddd\u56fd\u9053\u4e8b\u52d9\u6240","boring_xml_url":47,"boring_view_url":1,"soilmap_view_url":null,"soiltest_xml_url":0,"soiltest_view_url":0},{"id":257869,"code":"B4KJ201802002-3349","latitude":"33.811389","longitude":"132.728861","source_code":"SK118850622000370003","project_name":"","survey_name":"\u5e73\u621023\u5e74\u5ea6 \u677e\u5c71\u5916\u74b0\u72b6\u9053\u8def\u4f59\u6238\u5916\u5730\u8cea\u8abf\u67fb\u696d\u52d9","client_name":"\u56fd\u571f\u4ea4\u901a\u7701\u56db\u56fd\u5730\u65b9\u6574\u5099\u5c40\u677e\u5c71\u6cb3\u5ddd\u56fd\u9053\u4e8b\u52d9\u6240","boring_xml_url":47,"boring_view_url":1,"soilmap_view_url":null,"soiltest_xml_url":0,"soiltest_view_url":0}]}}