{"header":{"xyz":{"source":[],"mosaic":false},"page":2423,"raw":{"soiltest_result":"0","bbox":"57.598333,109.544722,1.933333,163.806111","page":"2423"},"conditions":{"soiltest_result":0,"north":57.598333,"west":109.544722,"south":1.933333,"east":163.806111},"success":true,"message":""},"data":{"meta":{"total":212844,"page":2423,"pages":7095,"count":30},"values":[{"id":257868,"code":"B4KJ201802002-3348","latitude":"33.80675","longitude":"132.744889","source_code":"SK118850622000370002","project_name":"","survey_name":"\u5e73\u621023\u5e74\u5ea6 \u677e\u5c71\u5916\u74b0\u72b6\u9053\u8def\u4f59\u6238\u5916\u5730\u8cea\u8abf\u67fb\u696d\u52d9","client_name":"\u56fd\u571f\u4ea4\u901a\u7701\u56db\u56fd\u5730\u65b9\u6574\u5099\u5c40\u677e\u5c71\u6cb3\u5ddd\u56fd\u9053\u4e8b\u52d9\u6240","boring_xml_url":47,"boring_view_url":1,"soilmap_view_url":null,"soiltest_xml_url":0,"soiltest_view_url":0},{"id":257867,"code":"B4KJ201802002-3347","latitude":"33.80675","longitude":"132.745222","source_code":"SK118850622000370001","project_name":"","survey_name":"\u5e73\u621023\u5e74\u5ea6 \u677e\u5c71\u5916\u74b0\u72b6\u9053\u8def\u4f59\u6238\u5916\u5730\u8cea\u8abf\u67fb\u696d\u52d9","client_name":"\u56fd\u571f\u4ea4\u901a\u7701\u56db\u56fd\u5730\u65b9\u6574\u5099\u5c40\u677e\u5c71\u6cb3\u5ddd\u56fd\u9053\u4e8b\u52d9\u6240","boring_xml_url":47,"boring_view_url":1,"soilmap_view_url":null,"soiltest_xml_url":0,"soiltest_view_url":0},{"id":257866,"code":"B4KJ201802002-3346","latitude":"34.003806","longitude":"133.015806","source_code":"SK118850622000500008","project_name":"","survey_name":"\u5e73\u621023\u5e74\u5ea6 \u4eca\u6cbb\u9053\u8def\u5730\u8cea\u8abf\u67fb(\u305d\u306e5)\u696d\u52d9","client_name":"\u56fd\u571f\u4ea4\u901a\u7701 \u56db\u56fd\u5730\u65b9\u6574\u5099\u5c40 \u677e\u5c71\u6cb3\u5ddd\u56fd\u9053\u4e8b\u52d9\u6240 \u8abf\u67fb\u7b2c\u4e8c\u8ab2","boring_xml_url":47,"boring_view_url":1,"soilmap_view_url":null,"soiltest_xml_url":47,"soiltest_view_url":46},{"id":257865,"code":"B4KJ201802002-3345","latitude":"34.004306","longitude":"133.015361","source_code":"SK118850622000500007","project_name":"","survey_name":"\u5e73\u621023\u5e74\u5ea6 \u4eca\u6cbb\u9053\u8def\u5730\u8cea\u8abf\u67fb(\u305d\u306e5)\u696d\u52d9","client_name":"\u56fd\u571f\u4ea4\u901a\u7701 \u56db\u56fd\u5730\u65b9\u6574\u5099\u5c40 \u677e\u5c71\u6cb3\u5ddd\u56fd\u9053\u4e8b\u52d9\u6240 \u8abf\u67fb\u7b2c\u4e8c\u8ab2","boring_xml_url":47,"boring_view_url":1,"soilmap_view_url":null,"soiltest_xml_url":47,"soiltest_view_url":46},{"id":257864,"code":"B4KJ201802002-3344","latitude":"33.995306","longitude":"133.029639","source_code":"SK118850622000500006","project_name":"","survey_name":"\u5e73\u621023\u5e74\u5ea6 \u4eca\u6cbb\u9053\u8def\u5730\u8cea\u8abf\u67fb(\u305d\u306e5)\u696d\u52d9","client_name":"\u56fd\u571f\u4ea4\u901a\u7701 \u56db\u56fd\u5730\u65b9\u6574\u5099\u5c40 \u677e\u5c71\u6cb3\u5ddd\u5de5\u4e8b\u4e8b\u52d9\u6240 \u8abf\u67fb\u7b2c\u4e8c\u8ab2","boring_xml_url":47,"boring_view_url":1,"soilmap_view_url":null,"soiltest_xml_url":47,"soiltest_view_url":46},{"id":257863,"code":"B4KJ201802002-3343","latitude":"33.995417","longitude":"133.029722","source_code":"SK118850622000500005","project_name":"","survey_name":"\u5e73\u621023\u5e74\u5ea6 \u4eca\u6cbb\u9053\u8def\u5730\u8cea\u8abf\u67fb(\u305d\u306e5)\u696d\u52d9","client_name":"\u56fd\u571f\u4ea4\u901a\u7701 \u56db\u56fd\u5730\u65b9\u6574\u5099\u5c40 \u677e\u5c71\u6cb3\u5ddd\u56fd\u9053\u4e8b\u52d9\u6240 \u8abf\u67fb\u7b2c\u4e8c\u8ab2","boring_xml_url":47,"boring_view_url":1,"soilmap_view_url":null,"soiltest_xml_url":47,"soiltest_view_url":46},{"id":257862,"code":"B4KJ201802002-3342","latitude":"33.993722","longitude":"133.038861","source_code":"SK118850622000500004","project_name":"","survey_name":"\u5e73\u621023\u5e74\u5ea6 \u4eca\u6cbb\u9053\u8def\u5730\u8cea\u8abf\u67fb(\u305d\u306e5)\u696d\u52d9","client_name":"\u56fd\u571f\u4ea4\u901a\u7701 \u56db\u56fd\u5730\u65b9\u6574\u5099\u5c40 \u677e\u5c71\u6cb3\u5ddd\u56fd\u9053\u4e8b\u52d9\u6240 \u8abf\u67fb\u7b2c\u4e8c\u8ab2","boring_xml_url":47,"boring_view_url":1,"soilmap_view_url":null,"soiltest_xml_url":0,"soiltest_view_url":0},{"id":257861,"code":"B4KJ201802002-3341","latitude":"33.993778","longitude":"133.038806","source_code":"SK118850622000500003","project_name":"","survey_name":"\u5e73\u621023\u5e74\u5ea6 \u4eca\u6cbb\u9053\u8def\u5730\u8cea\u8abf\u67fb(\u305d\u306e5)\u696d\u52d9","client_name":"\u56fd\u571f\u4ea4\u901a\u7701 \u56db\u56fd\u5730\u65b9\u6574\u5099\u5c40 \u677e\u5c71\u6cb3\u5ddd\u56fd\u9053\u4e8b\u52d9\u6240 \u8abf\u67fb\u7b2c\u4e8c\u8ab2","boring_xml_url":47,"boring_view_url":1,"soilmap_view_url":null,"soiltest_xml_url":0,"soiltest_view_url":0},{"id":257860,"code":"B4KJ201802002-3340","latitude":"33.993778","longitude":"133.0385","source_code":"SK118850622000500002","project_name":"","survey_name":"\u5e73\u621023\u5e74\u5ea6 \u4eca\u6cbb\u9053\u8def\u5730\u8cea\u8abf\u67fb(\u305d\u306e5)\u696d\u52d9","client_name":"\u56fd\u571f\u4ea4\u901a\u7701 \u56db\u56fd\u5730\u65b9\u6574\u5099\u5c40 \u677e\u5c71\u6cb3\u5ddd\u56fd\u9053\u4e8b\u52d9\u6240 \u8abf\u67fb\u7b2c\u4e8c\u8ab2","boring_xml_url":47,"boring_view_url":1,"soilmap_view_url":null,"soiltest_xml_url":0,"soiltest_view_url":0},{"id":257859,"code":"B4KJ201802002-3339","latitude":"33.993778","longitude":"133.038139","source_code":"SK118850622000500001","project_name":"","survey_name":"\u5e73\u621023\u5e74\u5ea6 \u4eca\u6cbb\u9053\u8def\u5730\u8cea\u8abf\u67fb(\u305d\u306e5)\u696d\u52d9","client_name":"\u56fd\u571f\u4ea4\u901a\u7701 \u56db\u56fd\u5730\u65b9\u6574\u5099\u5c40 \u677e\u5c71\u6cb3\u5ddd\u56fd\u9053\u4e8b\u52d9\u6240 \u8abf\u67fb\u7b2c\u4e8c\u8ab2","boring_xml_url":47,"boring_view_url":1,"soilmap_view_url":null,"soiltest_xml_url":0,"soiltest_view_url":0},{"id":257858,"code":"B4KJ201802002-3338","latitude":"33.8145","longitude":"132.720417","source_code":"SK118850622000480007","project_name":"","survey_name":"\u5e73\u621023\u5e74\u5ea6 \u677e\u5c71\u5916\u74b0\u72b6\u9053\u8def\u7a7a\u6e2f\u7dda\u4f59\u6238\u5916\u5730\u8cea\u8abf\u67fb\u696d\u52d9","client_name":"\u56db\u56fd\u5730\u65b9\u6574\u5099\u5c40\u677e\u5c71\u6cb3\u5ddd\u56fd\u9053\u4e8b\u52d9\u6240","boring_xml_url":47,"boring_view_url":1,"soilmap_view_url":null,"soiltest_xml_url":0,"soiltest_view_url":0},{"id":257857,"code":"B4KJ201802002-3337","latitude":"33.813944","longitude":"132.721","source_code":"SK118850622000480006","project_name":"","survey_name":"\u5e73\u621023\u5e74\u5ea6 \u677e\u5c71\u5916\u74b0\u72b6\u9053\u8def\u7a7a\u6e2f\u7dda\u4f59\u6238\u5916\u5730\u8cea\u8abf\u67fb\u696d\u52d9","client_name":"\u56db\u56fd\u5730\u65b9\u6574\u5099\u5c40\u677e\u5c71\u6cb3\u5ddd\u56fd\u9053\u4e8b\u52d9\u6240","boring_xml_url":47,"boring_view_url":1,"soilmap_view_url":null,"soiltest_xml_url":0,"soiltest_view_url":0},{"id":257856,"code":"B4KJ201802002-3336","latitude":"33.8135","longitude":"132.721389","source_code":"SK118850622000480005","project_name":"","survey_name":"\u5e73\u621023\u5e74\u5ea6 \u677e\u5c71\u5916\u74b0\u72b6\u9053\u8def\u7a7a\u6e2f\u7dda\u4f59\u6238\u5916\u5730\u8cea\u8abf\u67fb\u696d\u52d9","client_name":"\u56db\u56fd\u5730\u65b9\u6574\u5099\u5c40\u677e\u5c71\u6cb3\u5ddd\u56fd\u9053\u4e8b\u52d9\u6240","boring_xml_url":47,"boring_view_url":1,"soilmap_view_url":null,"soiltest_xml_url":47,"soiltest_view_url":46},{"id":257855,"code":"B4KJ201802002-3335","latitude":"33.811111","longitude":"132.729306","source_code":"SK118850622000480004","project_name":"","survey_name":"\u5e73\u621023\u5e74\u5ea6 \u677e\u5c71\u5916\u74b0\u72b6\u9053\u8def\u7a7a\u6e2f\u7dda\u4f59\u6238\u5916\u5730\u8cea\u8abf\u67fb\u696d\u52d9","client_name":"\u56db\u56fd\u5730\u65b9\u6574\u5099\u5c40\u677e\u5c71\u6cb3\u5ddd\u56fd\u9053\u4e8b\u52d9\u6240","boring_xml_url":47,"boring_view_url":1,"soilmap_view_url":null,"soiltest_xml_url":47,"soiltest_view_url":46},{"id":257854,"code":"B4KJ201802002-3334","latitude":"33.811083","longitude":"132.730306","source_code":"SK118850622000480003","project_name":"","survey_name":"\u5e73\u621023\u5e74\u5ea6 \u677e\u5c71\u5916\u74b0\u72b6\u9053\u8def\u7a7a\u6e2f\u7dda\u4f59\u6238\u5916\u5730\u8cea\u8abf\u67fb\u696d\u52d9","client_name":"\u56db\u56fd\u5730\u65b9\u6574\u5099\u5c40\u677e\u5c71\u6cb3\u5ddd\u56fd\u9053\u4e8b\u52d9\u6240","boring_xml_url":47,"boring_view_url":1,"soilmap_view_url":null,"soiltest_xml_url":0,"soiltest_view_url":0},{"id":257853,"code":"B4KJ201802002-3333","latitude":"33.811333","longitude":"132.731111","source_code":"SK118850622000480002","project_name":"","survey_name":"\u5e73\u621023\u5e74\u5ea6 \u677e\u5c71\u5916\u74b0\u72b6\u9053\u8def\u7a7a\u6e2f\u7dda\u4f59\u6238\u5916\u5730\u8cea\u8abf\u67fb\u696d\u52d9","client_name":"\u56db\u56fd\u5730\u65b9\u6574\u5099\u5c40\u677e\u5c71\u6cb3\u5ddd\u56fd\u9053\u4e8b\u52d9\u6240","boring_xml_url":47,"boring_view_url":1,"soilmap_view_url":null,"soiltest_xml_url":0,"soiltest_view_url":0},{"id":257852,"code":"B4KJ201802002-3332","latitude":"33.811389","longitude":"132.732222","source_code":"SK118850622000480001","project_name":"","survey_name":"\u5e73\u621023\u5e74\u5ea6 \u677e\u5c71\u5916\u74b0\u72b6\u9053\u8def\u7a7a\u6e2f\u7dda\u4f59\u6238\u5916\u5730\u8cea\u8abf\u67fb\u696d\u52d9","client_name":"\u56db\u56fd\u5730\u65b9\u6574\u5099\u5c40\u677e\u5c71\u6cb3\u5ddd\u56fd\u9053\u4e8b\u52d9","boring_xml_url":47,"boring_view_url":1,"soilmap_view_url":null,"soiltest_xml_url":0,"soiltest_view_url":0},{"id":257851,"code":"B4KJ201802002-3331","latitude":"34.009778","longitude":"133.006417","source_code":"SK118850622000340008","project_name":"","survey_name":"\u5e73\u621023\u5e74\u5ea6 \u4eca\u6cbb\u9053\u8def\u5730\u8cea\u8abf\u67fb(\u305d\u306e1)\u696d\u52d9","client_name":"\u56fd\u571f\u4ea4\u901a\u7701 \u56db\u56fd\u5730\u65b9\u6574\u5099\u5c40 \u677e\u5c71\u6cb3\u5ddd\u56fd\u9053\u4e8b\u52d9\u6240","boring_xml_url":47,"boring_view_url":1,"soilmap_view_url":null,"soiltest_xml_url":0,"soiltest_view_url":0},{"id":257850,"code":"B4KJ201802002-3330","latitude":"34.009889","longitude":"133.006056","source_code":"SK118850622000340007","project_name":"","survey_name":"\u5e73\u621023\u5e74\u5ea6 \u4eca\u6cbb\u9053\u8def\u5730\u8cea\u8abf\u67fb(\u305d\u306e1)\u696d\u52d9","client_name":"\u56fd\u571f\u4ea4\u901a\u7701 \u56db\u56fd\u5730\u65b9\u6574\u5099\u5c40 \u677e\u5c71\u6cb3\u5ddd\u56fd\u9053\u4e8b\u52d9\u6240","boring_xml_url":47,"boring_view_url":1,"soilmap_view_url":null,"soiltest_xml_url":0,"soiltest_view_url":0},{"id":257849,"code":"B4KJ201802002-3329","latitude":"34.01","longitude":"133.005667","source_code":"SK118850622000340006","project_name":"","survey_name":"\u5e73\u621023\u5e74\u5ea6 \u4eca\u6cbb\u9053\u8def\u5730\u8cea\u8abf\u67fb(\u305d\u306e1)\u696d\u52d9","client_name":"\u56fd\u571f\u4ea4\u901a\u7701 \u56db\u56fd\u5730\u65b9\u6574\u5099\u5c40 \u677e\u5c71\u6cb3\u5ddd\u56fd\u9053\u4e8b\u52d9\u6240","boring_xml_url":47,"boring_view_url":1,"soilmap_view_url":null,"soiltest_xml_url":0,"soiltest_view_url":0},{"id":257848,"code":"B4KJ201802002-3328","latitude":"34.010111","longitude":"133.005278","source_code":"SK118850622000340005","project_name":"","survey_name":"\u5e73\u621023\u5e74\u5ea6 \u4eca\u6cbb\u9053\u8def\u5730\u8cea\u8abf\u67fb(\u305d\u306e1)\u696d\u52d9","client_name":"\u56fd\u571f\u4ea4\u901a\u7701 \u56db\u56fd\u5730\u65b9\u6574\u5099\u5c40 \u677e\u5c71\u6cb3\u5ddd\u56fd\u9053\u4e8b\u52d9\u6240","boring_xml_url":47,"boring_view_url":1,"soilmap_view_url":null,"soiltest_xml_url":0,"soiltest_view_url":0},{"id":257847,"code":"B4KJ201802002-3327","latitude":"34.010222","longitude":"133.004889","source_code":"SK118850622000340004","project_name":"","survey_name":"\u5e73\u621023\u5e74\u5ea6 \u4eca\u6cbb\u9053\u8def\u5730\u8cea\u8abf\u67fb(\u305d\u306e1)\u696d\u52d9","client_name":"\u56fd\u571f\u4ea4\u901a\u7701 \u56db\u56fd\u5730\u65b9\u6574\u5099\u5c40 \u677e\u5c71\u6cb3\u5ddd\u56fd\u9053\u4e8b\u52d9\u6240","boring_xml_url":47,"boring_view_url":1,"soilmap_view_url":null,"soiltest_xml_url":0,"soiltest_view_url":0},{"id":257846,"code":"B4KJ201802002-3326","latitude":"34.009167","longitude":"133.008028","source_code":"SK118850622000340003","project_name":"","survey_name":"\u5e73\u621023\u5e74\u5ea6 \u4eca\u6cbb\u9053\u8def\u5730\u8cea\u8abf\u67fb(\u305d\u306e1)\u696d\u52d9","client_name":"\u56fd\u571f\u4ea4\u901a\u7701 \u56db\u56fd\u5730\u65b9\u6574\u5099\u5c40 \u677e\u5c71\u6cb3\u5ddd\u56fd\u9053\u4e8b\u52d9\u6240","boring_xml_url":47,"boring_view_url":1,"soilmap_view_url":null,"soiltest_xml_url":0,"soiltest_view_url":0},{"id":257845,"code":"B4KJ201802002-3325","latitude":"34.009444","longitude":"133.007389","source_code":"SK118850622000340002","project_name":"","survey_name":"\u5e73\u621023\u5e74\u5ea6 \u4eca\u6cbb\u9053\u8def\u5730\u8cea\u8abf\u67fb(\u305d\u306e1)\u696d\u52d9","client_name":"\u56fd\u571f\u4ea4\u901a\u7701 \u56db\u56fd\u5730\u65b9\u6574\u5099\u5c40 \u677e\u5c71\u6cb3\u5ddd\u56fd\u9053\u4e8b\u52d9\u6240","boring_xml_url":47,"boring_view_url":1,"soilmap_view_url":null,"soiltest_xml_url":0,"soiltest_view_url":0},{"id":257844,"code":"B4KJ201802002-3324","latitude":"34.012917","longitude":"132.996417","source_code":"SK118850622000340001","project_name":"","survey_name":"\u5e73\u621023\u5e74\u5ea6 \u4eca\u6cbb\u9053\u8def\u5730\u8cea\u8abf\u67fb(\u305d\u306e1)\u696d\u52d9","client_name":"\u56fd\u571f\u4ea4\u901a\u7701 \u56db\u56fd\u5730\u65b9\u6574\u5099\u5c40 \u677e\u5c71\u6cb3\u5ddd\u56fd\u9053\u4e8b\u52d9\u6240","boring_xml_url":47,"boring_view_url":1,"soilmap_view_url":null,"soiltest_xml_url":0,"soiltest_view_url":0},{"id":257843,"code":"B4KJ201802002-3323","latitude":"33.466","longitude":"132.542","source_code":"SK118851532000070005","project_name":"\u5e73\u621023\u5e74\u5ea6 \u5927\u6d32\u7ba1\u5185\u9632\u707d\u70b9\u691c\u696d\u52d9","survey_name":"\u5e73\u621023\u5e74\u5ea6 \u5927\u6d32\u7ba1\u5185\u9632\u707d\u70b9\u691c\u696d\u52d9","client_name":"\u56fd\u571f\u4ea4\u901a\u7701\u56db\u56fd\u5730\u65b9\u6574\u5099\u5c40\u5927\u6d32\u6cb3\u5ddd\u56fd\u9053\u4e8b\u52d9\u6240","boring_xml_url":47,"boring_view_url":1,"soilmap_view_url":null,"soiltest_xml_url":0,"soiltest_view_url":0},{"id":257842,"code":"B4KJ201802002-3322","latitude":"33.466139","longitude":"132.541694","source_code":"SK118851532000070004","project_name":"\u5e73\u621023\u5e74\u5ea6 \u5927\u6d32\u7ba1\u5185\u9632\u707d\u70b9\u691c\u696d\u52d9","survey_name":"\u5e73\u621023\u5e74\u5ea6 \u5927\u6d32\u7ba1\u5185\u9632\u707d\u70b9\u691c\u696d\u52d9","client_name":"\u56fd\u571f\u4ea4\u901a\u7701\u56db\u56fd\u5730\u65b9\u6574\u5099\u5c40\u5927\u6d32\u6cb3\u5ddd\u56fd\u9053\u4e8b\u52d9\u6240","boring_xml_url":47,"boring_view_url":1,"soilmap_view_url":null,"soiltest_xml_url":0,"soiltest_view_url":0},{"id":257841,"code":"B4KJ201802002-3321","latitude":"33.234","longitude":"132.568222","source_code":"SK118851532000070003","project_name":"\u5e73\u621023\u5e74\u5ea6\u5927\u6d32\u7ba1\u5185\u9632\u707d\u70b9\u691c\u696d\u52d9","survey_name":"\u5e73\u621023\u5e74\u5ea6\u5927\u6d32\u7ba1\u5185\u9632\u707d\u70b9\u691c\u696d\u52d9","client_name":"\u56fd\u571f\u4ea4\u901a\u7701 \u56db\u56fd\u5730\u65b9\u6574\u5099\u5c40 \u5927\u6d32\u6cb3\u5ddd\u56fd\u9053\u4e8b\u52d9\u6240","boring_xml_url":47,"boring_view_url":1,"soilmap_view_url":null,"soiltest_xml_url":0,"soiltest_view_url":0},{"id":257840,"code":"B4KJ201802002-3320","latitude":"33.234222","longitude":"132.568028","source_code":"SK118851532000070002","project_name":"\u5e73\u621023\u5e74\u5ea6\u5927\u6d32\u7ba1\u5185\u9632\u707d\u70b9\u691c\u696d\u52d9","survey_name":"\u5e73\u621023\u5e74\u5ea6\u5927\u6d32\u7ba1\u5185\u9632\u707d\u70b9\u691c\u696d\u52d9","client_name":"\u56fd\u571f\u4ea4\u901a\u7701 \u56db\u56fd\u5730\u65b9\u6574\u5099\u5c40 \u5927\u6d32\u6cb3\u5ddd\u56fd\u9053\u4e8b\u52d9\u6240","boring_xml_url":47,"boring_view_url":1,"soilmap_view_url":null,"soiltest_xml_url":0,"soiltest_view_url":0},{"id":257839,"code":"B4KJ201802002-3319","latitude":"33.233972","longitude":"132.567806","source_code":"SK118851532000070001","project_name":"\u5e73\u621023\u5e74\u5ea6\u5927\u6d32\u7ba1\u5185\u9632\u707d\u70b9\u691c\u696d\u52d9","survey_name":"\u5e73\u621023\u5e74\u5ea6\u5927\u6d32\u7ba1\u5185\u9632\u707d\u70b9\u691c\u696d\u52d9","client_name":"\u56fd\u571f\u4ea4\u901a\u7701 \u56db\u56fd\u5730\u65b9\u6574\u5099\u5c40 \u5927\u6d32\u6cb3\u5ddd\u56fd\u9053\u4e8b\u52d9\u6240","boring_xml_url":47,"boring_view_url":1,"soilmap_view_url":null,"soiltest_xml_url":0,"soiltest_view_url":0}]}}