{"header":{"xyz":{"source":[],"mosaic":false},"page":2424,"raw":{"soiltest_result":"0","bbox":"57.598333,109.544722,1.933333,163.806111","page":"2424"},"conditions":{"soiltest_result":0,"north":57.598333,"west":109.544722,"south":1.933333,"east":163.806111},"success":true,"message":""},"data":{"meta":{"total":212844,"page":2424,"pages":7095,"count":30},"values":[{"id":257838,"code":"B4KJ201802002-3318","latitude":"33.2845","longitude":"132.592028","source_code":"SK118851412000120001","project_name":"\u5e73\u621023\u5e74\u5ea6 \u56db\u56fd\u6a2a\u65ad\u9053\u6e2c\u91cf\u8a2d\u8a08(\u305d\u306e2)\u696d\u52d9","survey_name":"\u5e73\u621023\u5e74\u5ea6 \u56db\u56fd\u6a2a\u65ad\u9053\u6e2c\u91cf\u8a2d\u8a08(\u305d\u306e2)\u696d\u52d9","client_name":"\u5927\u6d32\u6cb3\u5ddd\u56fd\u9053\u4e8b\u52d9\u6240","boring_xml_url":47,"boring_view_url":1,"soilmap_view_url":null,"soiltest_xml_url":0,"soiltest_view_url":0},{"id":257837,"code":"B4KJ201802002-3317","latitude":"33.066389","longitude":"132.488889","source_code":"SK108851532000130001","project_name":"","survey_name":"\u5e73\u621022\u5e74\u5ea6 \u6d66\u77e5\u5730\u533a\u8abf\u67fb\u8a2d\u8a08\u696d\u52d9\u59d4\u8a17","client_name":"\u56fd\u571f\u4ea4\u901a\u7701\u56db\u56fd\u5730\u65b9\u6574\u5099\u5c40\u5927\u6d32\u6cb3\u5ddd\u56fd\u9053\u4e8b\u52d9\u6240","boring_xml_url":47,"boring_view_url":1,"soilmap_view_url":null,"soiltest_xml_url":0,"soiltest_view_url":0},{"id":257836,"code":"B4KJ201802002-3316","latitude":"33.306389","longitude":"133.183889","source_code":"SK088862401000370006","project_name":"","survey_name":"\u5e73\u621020-21\u5e74\u5ea6 \u5927\u5742\u8c37\u6539\u826f\u5de5\u4e8b","client_name":"\u56fd\u571f\u4ea4\u901a\u7701 \u56db\u56fd\u5730\u65b9\u6574\u5099\u5c40 \u571f\u4f50\u56fd\u9053\u4e8b\u52d9\u6240","boring_xml_url":47,"boring_view_url":1,"soilmap_view_url":null,"soiltest_xml_url":0,"soiltest_view_url":0},{"id":257835,"code":"B4KJ201802002-3315","latitude":"33.306944","longitude":"133.186111","source_code":"SK088862401000370005","project_name":"","survey_name":"\u5e73\u621020-21\u5e74\u5ea6 \u5927\u5742\u8c37\u6539\u826f\u5de5\u4e8b","client_name":"\u56fd\u571f\u4ea4\u901a\u7701 \u56db\u56fd\u5730\u65b9\u6574\u5099\u5c40 \u571f\u4f50\u56fd\u9053\u4e8b\u52d9\u6240","boring_xml_url":47,"boring_view_url":1,"soilmap_view_url":null,"soiltest_xml_url":0,"soiltest_view_url":0},{"id":257834,"code":"B4KJ201802002-3314","latitude":"33.308056","longitude":"133.186389","source_code":"SK088862401000370004","project_name":"","survey_name":"\u5e73\u621020-21\u5e74\u5ea6 \u5927\u5742\u8c37\u6539\u826f\u5de5\u4e8b","client_name":"\u56fd\u571f\u4ea4\u901a\u7701 \u56db\u56fd\u5730\u65b9\u6574\u5099\u5c40 \u571f\u4f50\u56fd\u9053\u4e8b\u52d9\u6240","boring_xml_url":47,"boring_view_url":1,"soilmap_view_url":null,"soiltest_xml_url":0,"soiltest_view_url":0},{"id":257833,"code":"B4KJ201802002-3313","latitude":"33.307778","longitude":"133.185556","source_code":"SK088862401000370003","project_name":"","survey_name":"\u5e73\u621020-21\u5e74\u5ea6 \u5927\u5742\u8c37\u6539\u826f\u5de5\u4e8b","client_name":"\u56fd\u571f\u4ea4\u901a\u7701 \u56db\u56fd\u5730\u65b9\u6574\u5099\u5c40 \u571f\u4f50\u56fd\u9053\u4e8b\u52d9\u6240","boring_xml_url":47,"boring_view_url":1,"soilmap_view_url":null,"soiltest_xml_url":0,"soiltest_view_url":0},{"id":257832,"code":"B4KJ201802002-3312","latitude":"33.307222","longitude":"133.185833","source_code":"SK088862401000370002","project_name":"","survey_name":"\u5e73\u621020-21\u5e74\u5ea6 \u5927\u5742\u8c37\u6539\u826f\u5de5\u4e8b","client_name":"\u56fd\u571f\u4ea4\u901a\u7701 \u56db\u56fd\u5730\u65b9\u6574\u5099\u5c40 \u571f\u4f50\u56fd\u9053\u4e8b\u52d9\u6240","boring_xml_url":47,"boring_view_url":1,"soilmap_view_url":null,"soiltest_xml_url":0,"soiltest_view_url":0},{"id":257831,"code":"B4KJ201802002-3311","latitude":"33.308056","longitude":"133.186111","source_code":"SK088862401000370001","project_name":"","survey_name":"\u5e73\u621020-21\u5e74\u5ea6 \u5927\u5742\u8c37\u6539\u826f\u5de5\u4e8b","client_name":"\u56fd\u571f\u4ea4\u901a\u7701 \u56db\u56fd\u5730\u65b9\u6574\u5099\u5c40 \u571f\u4f50\u56fd\u9053\u4e8b\u52d9\u6240","boring_xml_url":47,"boring_view_url":1,"soilmap_view_url":null,"soiltest_xml_url":0,"soiltest_view_url":0},{"id":257830,"code":"B4KJ201802002-3310","latitude":"33.759722","longitude":"133.524444","source_code":"SK98875652000160002","project_name":"\u5e73\u621021\u5e74\u5ea6 \u9808\u5c71\u5730\u533a\u6e2c\u91cf\u8a2d\u8a08\u696d\u52d9\u59d4\u8a17","survey_name":"\u5e73\u621021\u5e74\u5ea6 \u9808\u5c71\u5730\u533a\u6e2c\u91cf\u8a2d\u8a08\u696d\u52d9\u59d4\u8a17","client_name":"\u56fd\u571f\u4ea4\u901a\u7701 \u5409\u91ce\u5ddd\u30c0\u30e0\u7d71\u5408\u7ba1\u7406\u4e8b\u52d9\u6240","boring_xml_url":46,"boring_view_url":1,"soilmap_view_url":null,"soiltest_xml_url":0,"soiltest_view_url":0},{"id":257829,"code":"B4KJ201802002-3309","latitude":"33.759167","longitude":"133.524444","source_code":"SK98875652000160001","project_name":"\u5e73\u621021\u5e74\u5ea6 \u9808\u5c71\u5730\u533a\u6e2c\u91cf\u8a2d\u8a08\u696d\u52d9\u59d4\u8a17","survey_name":"\u5e73\u621021\u5e74\u5ea6 \u9808\u5c71\u5730\u533a\u6e2c\u91cf\u8a2d\u8a08\u696d\u52d9\u59d4\u8a17","client_name":"\u56fd\u571f\u4ea4\u901a\u7701 \u5409\u91ce\u5ddd\u30c0\u30e0\u7d71\u5408\u7ba1\u7406\u4e8b\u52d9\u6240","boring_xml_url":46,"boring_view_url":1,"soilmap_view_url":null,"soiltest_xml_url":0,"soiltest_view_url":0},{"id":257828,"code":"B4KJ201802002-3308","latitude":"33.994417","longitude":"133.789972","source_code":"SK118830542000090004","project_name":"","survey_name":"\u5e73\u621023\u5e74\u5ea6 \u5fb3\u5cf6\u9053\u8def\u7ba1\u7406(\u4e0b\u5ddd\u5730\u533a)\u5730\u8cea\u8abf\u67fb\u696d\u52d9","client_name":"\u56fd\u571f\u4ea4\u901a\u7701 \u56db\u56fd\u5730\u65b9\u6574\u5099\u5c40 \u5fb3\u5cf6\u6cb3\u5ddd\u56fd\u9053\u4e8b\u52d9\u6240","boring_xml_url":47,"boring_view_url":1,"soilmap_view_url":null,"soiltest_xml_url":0,"soiltest_view_url":0},{"id":257827,"code":"B4KJ201802002-3307","latitude":"33.994","longitude":"133.790306","source_code":"SK118830542000090003","project_name":"","survey_name":"\u5e73\u621023\u5e74\u5ea6 \u5fb3\u5cf6\u9053\u8def\u7ba1\u7406(\u4e0b\u5ddd\u5730\u533a)\u5730\u8cea\u8abf\u67fb\u696d\u52d9","client_name":"\u56fd\u571f\u4ea4\u901a\u7701 \u56db\u56fd\u5730\u65b9\u6574\u5099\u5c40 \u5fb3\u5cf6\u6cb3\u5ddd\u56fd\u9053\u4e8b\u52d9\u6240","boring_xml_url":47,"boring_view_url":1,"soilmap_view_url":null,"soiltest_xml_url":0,"soiltest_view_url":0},{"id":257826,"code":"B4KJ201802002-3306","latitude":"33.993833","longitude":"133.789944","source_code":"SK118830542000090002","project_name":"","survey_name":"\u5e73\u621023\u5e74\u5ea6 \u5fb3\u5cf6\u9053\u8def\u7ba1\u7406(\u4e0b\u5ddd\u5730\u533a)\u5730\u8cea\u8abf\u67fb\u696d\u52d9","client_name":"\u56fd\u571f\u4ea4\u901a\u7701 \u56db\u56fd\u5730\u65b9\u6574\u5099\u5c40 \u5fb3\u5cf6\u6cb3\u5ddd\u56fd\u9053\u4e8b\u52d9\u6240","boring_xml_url":47,"boring_view_url":1,"soilmap_view_url":null,"soiltest_xml_url":0,"soiltest_view_url":0},{"id":257825,"code":"B4KJ201802002-3305","latitude":"33.993972","longitude":"133.789639","source_code":"SK118830542000090001","project_name":"","survey_name":"\u5e73\u621023\u5e74\u5ea6 \u5fb3\u5cf6\u9053\u8def\u7ba1\u7406(\u4e0b\u5ddd\u5730\u533a)\u5730\u8cea\u8abf\u67fb\u696d\u52d9","client_name":"\u56fd\u571f\u4ea4\u901a\u7701 \u56db\u56fd\u5730\u65b9\u6574\u5099\u5c40 \u5fb3\u5cf6\u6cb3\u5ddd\u56fd\u9053\u4e8b\u52d9\u6240","boring_xml_url":47,"boring_view_url":1,"soilmap_view_url":null,"soiltest_xml_url":0,"soiltest_view_url":0},{"id":257824,"code":"B4KJ201802002-3304","latitude":"33.845667","longitude":"134.622694","source_code":"SK118834502000050006","project_name":"\u5e73\u621023\u5e74\u5ea6 \u5824\u9632\u7ba1\u7406\u5730\u8cea\u8abf\u67fb\u696d\u52d9","survey_name":"\u5e73\u621023\u5e74\u5ea6 \u5824\u9632\u7ba1\u7406\u5730\u8cea\u8abf\u67fb\u696d\u52d9","client_name":"\u56db\u56fd\u5730\u65b9\u6574\u5099\u5c40 \u90a3\u8cc0\u5ddd\u6cb3\u5ddd\u4e8b\u52d9\u6240","boring_xml_url":47,"boring_view_url":1,"soilmap_view_url":null,"soiltest_xml_url":0,"soiltest_view_url":0},{"id":257823,"code":"B4KJ201802002-3303","latitude":"33.845694","longitude":"134.622722","source_code":"SK118834502000050005","project_name":"\u5e73\u621023\u5e74\u5ea6 \u5824\u9632\u7ba1\u7406\u5730\u8cea\u8abf\u67fb\u696d\u52d9","survey_name":"\u5e73\u621023\u5e74\u5ea6 \u5824\u9632\u7ba1\u7406\u5730\u8cea\u8abf\u67fb\u696d\u52d9","client_name":"\u56db\u56fd\u5730\u65b9\u6574\u5099\u5c40 \u90a3\u8cc0\u5ddd\u6cb3\u5ddd\u4e8b\u52d9\u6240","boring_xml_url":47,"boring_view_url":1,"soilmap_view_url":null,"soiltest_xml_url":0,"soiltest_view_url":0},{"id":257822,"code":"B4KJ201802002-3302","latitude":"33.846306","longitude":"134.623194","source_code":"SK118834502000050004","project_name":"\u5e73\u621023\u5e74\u5ea6 \u5824\u9632\u7ba1\u7406\u5730\u8cea\u8abf\u67fb\u696d\u52d9","survey_name":"\u5e73\u621023\u5e74\u5ea6 \u5824\u9632\u7ba1\u7406\u5730\u8cea\u8abf\u67fb\u696d\u52d9","client_name":"\u56db\u56fd\u5730\u65b9\u6574\u5099\u5c40 \u90a3\u8cc0\u5ddd\u6cb3\u5ddd\u4e8b\u52d9\u6240","boring_xml_url":47,"boring_view_url":1,"soilmap_view_url":null,"soiltest_xml_url":0,"soiltest_view_url":0},{"id":257821,"code":"B4KJ201802002-3301","latitude":"33.846306","longitude":"134.623167","source_code":"SK118834502000050003","project_name":"\u5e73\u621023\u5e74\u5ea6 \u5824\u9632\u7ba1\u7406\u5730\u8cea\u8abf\u67fb\u696d\u52d9","survey_name":"\u5e73\u621023\u5e74\u5ea6 \u5824\u9632\u7ba1\u7406\u5730\u8cea\u8abf\u67fb\u696d\u52d9","client_name":"\u56db\u56fd\u5730\u65b9\u6574\u5099\u5c40 \u90a3\u8cc0\u5ddd\u6cb3\u5ddd\u4e8b\u52d9\u6240","boring_xml_url":47,"boring_view_url":1,"soilmap_view_url":null,"soiltest_xml_url":0,"soiltest_view_url":0},{"id":257820,"code":"B4KJ201802002-3300","latitude":"33.848417","longitude":"134.624694","source_code":"SK118834502000050002","project_name":"\u5e73\u621023\u5e74\u5ea6 \u5824\u9632\u7ba1\u7406\u5730\u8cea\u8abf\u67fb\u696d\u52d9","survey_name":"\u5e73\u621023\u5e74\u5ea6 \u5824\u9632\u7ba1\u7406\u5730\u8cea\u8abf\u67fb\u696d\u52d9","client_name":"\u56db\u56fd\u5730\u65b9\u6574\u5099\u5c40 \u90a3\u8cc0\u5ddd\u6cb3\u5ddd\u4e8b\u52d9\u6240","boring_xml_url":47,"boring_view_url":1,"soilmap_view_url":null,"soiltest_xml_url":0,"soiltest_view_url":0},{"id":257819,"code":"B4KJ201802002-3299","latitude":"33.848444","longitude":"134.624667","source_code":"SK118834502000050001","project_name":"\u5e73\u621023\u5e74\u5ea6 \u5824\u9632\u7ba1\u7406\u5730\u8cea\u8abf\u67fb\u696d\u52d9","survey_name":"\u5e73\u621023\u5e74\u5ea6 \u5824\u9632\u7ba1\u7406\u5730\u8cea\u8abf\u67fb\u696d\u52d9","client_name":"\u56db\u56fd\u5730\u65b9\u6574\u5099\u5c40 \u90a3\u8cc0\u5ddd\u6cb3\u5ddd\u4e8b\u52d9\u6240","boring_xml_url":47,"boring_view_url":1,"soilmap_view_url":null,"soiltest_xml_url":0,"soiltest_view_url":0},{"id":257818,"code":"B4KJ201802002-3298","latitude":"33.541389","longitude":"133.098611","source_code":"SK118877002000080002","project_name":"","survey_name":"\u5e73\u621023\u5e74\u5ea6\u68ee\u5c71\u5730\u533a\u5916\u5730\u8cea\u8abf\u67fb","client_name":"\u56fd\u571f\u4ea4\u901a\u7701\u56db\u56fd\u5730\u65b9\u6574\u5099\u5c40\u5927\u6e21\u30c0\u30e0\u5de5\u4e8b\u4e8b\u52d9\u6240","boring_xml_url":47,"boring_view_url":1,"soilmap_view_url":null,"soiltest_xml_url":0,"soiltest_view_url":0},{"id":257817,"code":"B4KJ201802002-3297","latitude":"33.546667","longitude":"133.103056","source_code":"SK118877002000080001","project_name":"","survey_name":"\u5e73\u621023\u5e74\u5ea6\u68ee\u5c71\u5730\u533a\u5916\u5730\u8cea\u8abf\u67fb","client_name":"\u56fd\u571f\u4ea4\u901a\u7701\u56db\u56fd\u5730\u65b9\u6574\u5099\u5c40\u5927\u6e21\u30c0\u30e0\u5de5\u4e8b\u4e8b\u52d9\u6240","boring_xml_url":47,"boring_view_url":1,"soilmap_view_url":null,"soiltest_xml_url":0,"soiltest_view_url":0},{"id":257816,"code":"B4KJ201802002-3296","latitude":"33.538778","longitude":"133.084056","source_code":"SK118877002000070003","project_name":"\u5e73\u621023\u5e74\u5ea6 \u9df2\u306e\u5de3\u5730\u533a\u5730\u8cea\u8abf\u67fb\u696d\u52d9","survey_name":"\u5e73\u621023\u5e74\u5ea6 \u9df2\u306e\u5de3\u5730\u533a\u5730\u8cea\u8abf\u67fb\u696d\u52d9","client_name":"\u56fd\u571f\u4ea4\u901a\u7701 \u56db\u56fd\u5730\u65b9\u6574\u5099\u5c40 \u5927\u6e21\u30c0\u30e0\u7ba1\u7406\u6240","boring_xml_url":47,"boring_view_url":1,"soilmap_view_url":null,"soiltest_xml_url":0,"soiltest_view_url":0},{"id":257815,"code":"B4KJ201802002-3295","latitude":"33.536917","longitude":"133.081917","source_code":"SK118877002000070002","project_name":"\u5e73\u621023\u5e74\u5ea6 \u9df2\u306e\u5de3\u5730\u533a\u5730\u8cea\u8abf\u67fb\u696d\u52d9","survey_name":"\u5e73\u621023\u5e74\u5ea6 \u9df2\u306e\u5de3\u5730\u533a\u5730\u8cea\u8abf\u67fb\u696d\u52d9","client_name":"\u56fd\u571f\u4ea4\u901a\u7701 \u56db\u56fd\u5730\u65b9\u6574\u5099\u5c40 \u5927\u6e21\u30c0\u30e0\u7ba1\u7406\u6240","boring_xml_url":47,"boring_view_url":1,"soilmap_view_url":null,"soiltest_xml_url":0,"soiltest_view_url":0},{"id":257814,"code":"B4KJ201802002-3294","latitude":"33.538222","longitude":"133.081694","source_code":"SK118877002000070001","project_name":"\u5e73\u621023\u5e74\u5ea6 \u9df2\u306e\u5de3\u5730\u533a\u5730\u8cea\u8abf\u67fb\u696d\u52d9","survey_name":"\u5e73\u621023\u5e74\u5ea6 \u9df2\u306e\u5de3\u5730\u533a\u5730\u8cea\u8abf\u67fb\u696d\u52d9","client_name":"\u56fd\u571f\u4ea4\u901a\u7701 \u56db\u56fd\u5730\u65b9\u6574\u5099\u5c40 \u5927\u6e21\u30c0\u30e0\u7ba1\u7406\u6240","boring_xml_url":47,"boring_view_url":1,"soilmap_view_url":null,"soiltest_xml_url":0,"soiltest_view_url":0},{"id":257813,"code":"B4KJ201802002-3293","latitude":"33.936639","longitude":"133.555111","source_code":"SK118875652000070002","project_name":"\u5bae\u524d\u5730\u533a\u5730\u3059\u3079\u308a\u5bfe\u7b56","survey_name":"\u5e73\u621023\u5e74\u5ea6 \u5bae\u524d\u5730\u533a\u5730\u8cea\u8abf\u67fb\u696d\u52d9","client_name":"\u56fd\u571f\u4ea4\u901a\u7701 \u56db\u56fd\u5730\u65b9\u6574\u5099\u5c40 \u5409\u91ce\u5ddd\u30c0\u30e0\u7d71\u5408\u7ba1\u7406\u4e8b\u52d9\u6240","boring_xml_url":47,"boring_view_url":1,"soilmap_view_url":null,"soiltest_xml_url":0,"soiltest_view_url":0},{"id":257812,"code":"B4KJ201802002-3292","latitude":"33.937361","longitude":"133.555278","source_code":"SK118875652000070001","project_name":"\u5bae\u524d\u5730\u533a\u5730\u3059\u3079\u308a\u5bfe\u7b56","survey_name":"\u5e73\u621023\u5e74\u5ea6 \u5bae\u524d\u5730\u533a\u5730\u8cea\u8abf\u67fb\u696d\u52d9","client_name":"\u56fd\u571f\u4ea4\u901a\u7701 \u56db\u56fd\u5730\u65b9\u6574\u5099\u5c40 \u5409\u91ce\u5ddd\u30c0\u30e0\u7d71\u5408\u7ba1\u7406\u4e8b\u52d9\u6240","boring_xml_url":47,"boring_view_url":1,"soilmap_view_url":null,"soiltest_xml_url":0,"soiltest_view_url":0},{"id":257811,"code":"B4KJ201802002-3291","latitude":"33.579","longitude":"133.569639","source_code":"SK118862622000210006","project_name":"","survey_name":"\u5e73\u621023\u5e74\u5ea6 55\u53f7\u5730\u8cea\u8abf\u67fb\u696d\u52d9","client_name":"\u56fd\u571f\u4ea4\u901a\u7701 \u56db\u56fd\u5730\u65b9\u6574\u5099\u5c40 \u571f\u4f50\u56fd\u9053\u4e8b\u52d9\u6240","boring_xml_url":47,"boring_view_url":1,"soilmap_view_url":null,"soiltest_xml_url":47,"soiltest_view_url":46},{"id":257810,"code":"B4KJ201802002-3290","latitude":"33.5565","longitude":"133.678361","source_code":"SK118862622000210005","project_name":"","survey_name":"\u5e73\u621023\u5e74\u5ea6 55\u53f7\u5730\u8cea\u8abf\u67fb\u696d\u52d9","client_name":"\u56fd\u571f\u4ea4\u901a\u7701 \u56db\u56fd\u5730\u65b9\u6574\u5099\u5c40 \u571f\u4f50\u56fd\u9053\u4e8b\u52d9\u6240","boring_xml_url":47,"boring_view_url":1,"soilmap_view_url":null,"soiltest_xml_url":47,"soiltest_view_url":46},{"id":257809,"code":"B4KJ201802002-3289","latitude":"33.556611","longitude":"133.677056","source_code":"SK118862622000210004","project_name":"","survey_name":"\u5e73\u621023\u5e74\u5ea6 55\u53f7\u5730\u8cea\u8abf\u67fb\u696d\u52d9","client_name":"\u56fd\u571f\u4ea4\u901a\u7701 \u56db\u56fd\u5730\u65b9\u6574\u5099\u5c40 \u571f\u4f50\u56fd\u9053\u4e8b\u52d9\u6240","boring_xml_url":47,"boring_view_url":1,"soilmap_view_url":null,"soiltest_xml_url":47,"soiltest_view_url":46}]}}