{"header":{"xyz":{"source":[],"mosaic":false},"page":2433,"raw":{"soiltest_result":"0","bbox":"57.598333,109.544722,1.933333,163.806111","page":"2433"},"conditions":{"soiltest_result":0,"north":57.598333,"west":109.544722,"south":1.933333,"east":163.806111},"success":true,"message":""},"data":{"meta":{"total":212844,"page":2433,"pages":7095,"count":30},"values":[{"id":257568,"code":"B4KJ201802002-3048","latitude":"33.907861","longitude":"133.373333","source_code":"SK108862452000130003","project_name":"","survey_name":"\u5e73\u621022\u5e74\u5ea6 \u8d8a\u77e5\u9053\u8def\u59161\u4ef6\u5730\u8cea\u8abf\u67fb\u696d\u52d9","client_name":"\u56fd\u571f\u4ea4\u901a\u7701 \u56db\u56fd\u5730\u65b9\u6574\u5099\u5c40 \u571f\u4f50\u56fd\u9053\u4e8b\u52d9\u6240","boring_xml_url":47,"boring_view_url":1,"soilmap_view_url":null,"soiltest_xml_url":0,"soiltest_view_url":0},{"id":257567,"code":"B4KJ201802002-3047","latitude":"33.907833","longitude":"133.373306","source_code":"SK108862452000130002","project_name":"","survey_name":"\u5e73\u621022\u5e74\u5ea6 \u8d8a\u77e5\u9053\u8def\u59161\u4ef6\u5730\u8cea\u8abf\u67fb\u696d\u52d9","client_name":"\u56fd\u571f\u4ea4\u901a\u7701 \u56db\u56fd\u5730\u65b9\u6574\u5099\u5c40 \u571f\u4f50\u56fd\u9053\u4e8b\u52d9\u6240","boring_xml_url":47,"boring_view_url":1,"soilmap_view_url":null,"soiltest_xml_url":0,"soiltest_view_url":0},{"id":257566,"code":"B4KJ201802002-3046","latitude":"33.905333","longitude":"133.375639","source_code":"SK108862452000130001","project_name":"","survey_name":"\u5e73\u621022\u5e74\u5ea6 \u8d8a\u77e5\u9053\u8def\u59161\u4ef6\u5730\u8cea\u8abf\u67fb\u696d\u52d9","client_name":"\u56fd\u571f\u4ea4\u901a\u7701 \u56db\u56fd\u5730\u65b9\u6574\u5099\u5c40 \u571f\u4f50\u56fd\u9053\u4e8b\u52d9\u6240","boring_xml_url":47,"boring_view_url":1,"soilmap_view_url":null,"soiltest_xml_url":0,"soiltest_view_url":0},{"id":257565,"code":"B4KJ201802002-3045","latitude":"33.022417","longitude":"132.562056","source_code":"SK108861402000100012","project_name":"\u5e73\u621022\u5e74\u5ea6\u56db\u4e07+\u5ddd\u8010\u9707\u7167\u67fb\u691c\u8a0e\u696d\u52d9\u59d4\u8a17","survey_name":"\u5e73\u621022\u5e74\u5ea6\u56db\u4e07+\u5ddd\u8010\u9707\u7167\u67fb\u691c\u8a0e\u696d\u52d9\u59d4\u8a17","client_name":"\u56fd\u571f\u4ea4\u901a\u7701\u4e2d\u6751\u6cb3\u5ddd\u56fd\u9053\u4e8b\u52d9\u6240","boring_xml_url":47,"boring_view_url":1,"soilmap_view_url":null,"soiltest_xml_url":47,"soiltest_view_url":46},{"id":257564,"code":"B4KJ201802002-3044","latitude":"32.955444","longitude":"132.978333","source_code":"SK108861402000100010","project_name":"\u5e73\u621022\u5e74\u5ea6\u56db\u4e07+\u5ddd\u8010\u9707\u7167\u67fb\u691c\u8a0e\u696d\u52d9\u59d4\u8a17","survey_name":"\u5e73\u621022\u5e74\u5ea6\u56db\u4e07+\u5ddd\u8010\u9707\u7167\u67fb\u691c\u8a0e\u696d\u52d9\u59d4\u8a17","client_name":"\u56fd\u571f\u4ea4\u901a\u7701\u56db\u56fd\u5730\u65b9\u6574\u5099\u5c40\u4e2d\u6751\u6cb3\u5ddd\u56fd\u9053\u4e8b\u52d9\u6240","boring_xml_url":47,"boring_view_url":1,"soilmap_view_url":null,"soiltest_xml_url":0,"soiltest_view_url":0},{"id":257563,"code":"B4KJ201802002-3043","latitude":"32.954639","longitude":"132.978667","source_code":"SK108861402000100009","project_name":"\u5e73\u621022\u5e74\u5ea6\u56db\u4e07+\u5ddd\u8010\u9707\u7167\u67fb\u691c\u8a0e\u696d\u52d9\u59d4\u8a17","survey_name":"\u5e73\u621022\u5e74\u5ea6\u56db\u4e07+\u5ddd\u8010\u9707\u7167\u67fb\u691c\u8a0e\u696d\u52d9\u59d4\u8a17","client_name":"\u56fd\u571f\u4ea4\u901a\u7701\u56db\u56fd\u5730\u65b9\u6574\u5099\u5c40\u4e2d\u6751\u6cb3\u5ddd\u56fd\u9053\u4e8b\u52d9\u6240","boring_xml_url":47,"boring_view_url":1,"soilmap_view_url":null,"soiltest_xml_url":0,"soiltest_view_url":0},{"id":257562,"code":"B4KJ201802002-3042","latitude":"32.953444","longitude":"132.979056","source_code":"SK108861402000100008","project_name":"\u5e73\u621022\u5e74\u5ea6\u56db\u4e07+\u5ddd\u8010\u9707\u7167\u67fb\u691c\u8a0e\u696d\u52d9\u59d4\u8a17","survey_name":"\u5e73\u621022\u5e74\u5ea6\u56db\u4e07+\u5ddd\u8010\u9707\u7167\u67fb\u691c\u8a0e\u696d\u52d9\u59d4\u8a17","client_name":"\u56fd\u571f\u4ea4\u901a\u7701\u56db\u56fd\u5730\u65b9\u6574\u5099\u5c40\u4e2d\u6751\u6cb3\u5ddd\u56fd\u9053\u4e8b\u52d9\u6240","boring_xml_url":47,"boring_view_url":1,"soilmap_view_url":null,"soiltest_xml_url":0,"soiltest_view_url":0},{"id":257561,"code":"B4KJ201802002-3041","latitude":"32.947139","longitude":"132.981944","source_code":"SK108861402000100006","project_name":"\u5e73\u621022\u5e74\u5ea6\u56db\u4e07+\u5ddd\u8010\u9707\u7167\u67fb\u691c\u8a0e\u696d\u52d9\u59d4\u8a17","survey_name":"\u5e73\u621022\u5e74\u5ea6\u56db\u4e07+\u5ddd\u8010\u9707\u7167\u67fb\u691c\u8a0e\u696d\u52d9\u59d4\u8a17","client_name":"\u56fd\u571f\u4ea4\u901a\u7701\u56db\u56fd\u5730\u65b9\u6574\u5099\u5c40\u4e2d\u6751\u6cb3\u5ddd\u56fd\u9053\u4e8b\u52d9\u6240","boring_xml_url":47,"boring_view_url":1,"soilmap_view_url":null,"soiltest_xml_url":0,"soiltest_view_url":0},{"id":257560,"code":"B4KJ201802002-3040","latitude":"33.022389","longitude":"132.562056","source_code":"SK108861402000100004","project_name":"\u5e73\u621022\u5e74\u5ea6\u56db\u4e07+\u5ddd\u8010\u9707\u7167\u67fb\u691c\u8a0e\u696d\u52d9\u59d4\u8a17","survey_name":"\u5e73\u621022\u5e74\u5ea6\u56db\u4e07+\u5ddd\u8010\u9707\u7167\u67fb\u691c\u8a0e\u696d\u52d9\u59d4\u8a17","client_name":"\u9ad8\u77e5\u770c\u4e2d\u6751\u6cb3\u5ddd\u56fd\u9053\u4e8b\u52d9\u6240","boring_xml_url":47,"boring_view_url":1,"soilmap_view_url":null,"soiltest_xml_url":47,"soiltest_view_url":46},{"id":257559,"code":"B4KJ201802002-3039","latitude":"33.022361","longitude":"132.562056","source_code":"SK108861402000100003","project_name":"\u5e73\u621022\u5e74\u5ea6\u56db\u4e07+\u5ddd\u8010\u9707\u7167\u67fb\u691c\u8a0e\u696d\u52d9\u59d4\u8a17","survey_name":"\u5e73\u621022\u5e74\u5ea6\u56db\u4e07+\u5ddd\u8010\u9707\u7167\u67fb\u691c\u8a0e\u696d\u52d9\u59d4\u8a17","client_name":"\u56fd\u571f\u4ea4\u901a\u7701\u4e2d\u6751\u6cb3\u5ddd\u56fd\u9053\u4e8b\u52d9\u6240","boring_xml_url":47,"boring_view_url":1,"soilmap_view_url":null,"soiltest_xml_url":47,"soiltest_view_url":46},{"id":257558,"code":"B4KJ201802002-3038","latitude":"33.022361","longitude":"132.562056","source_code":"SK108861402000100002","project_name":"\u5e73\u621022\u5e74\u5ea6\u56db\u4e07+\u5ddd\u8010\u9707\u7167\u67fb\u691c\u8a0e\u696d\u52d9\u59d4\u8a17","survey_name":"\u5e73\u621022\u5e74\u5ea6\u56db\u4e07+\u5ddd\u8010\u9707\u7167\u67fb\u691c\u8a0e\u696d\u52d9\u59d4\u8a17","client_name":"\u56fd\u571f\u4ea4\u901a\u7701\u4e2d\u6751\u6cb3\u5ddd\u56fd\u9053\u4e8b\u52d9\u6240","boring_xml_url":47,"boring_view_url":1,"soilmap_view_url":null,"soiltest_xml_url":47,"soiltest_view_url":46},{"id":257557,"code":"B4KJ201802002-3037","latitude":"32.953583","longitude":"132.978861","source_code":"SK108861402000100001","project_name":"\u5e73\u621022\u5e74\u5ea6\u56db\u4e07+\u5ddd\u8010\u9707\u7167\u67fb\u691c\u8a0e\u696d\u52d9\u59d4\u8a17","survey_name":"\u5e73\u621022\u5e74\u5ea6\u56db\u4e07+\u5ddd\u8010\u9707\u7167\u67fb\u691c\u8a0e\u696d\u52d9\u59d4\u8a17","client_name":"\u56fd\u571f\u4ea4\u901a\u7701\u56db\u56fd\u5730\u65b9\u6574\u5099\u5c40\u4e2d\u6751\u6cb3\u5ddd\u56fd\u9053\u4e8b\u52d9\u6240","boring_xml_url":47,"boring_view_url":1,"soilmap_view_url":null,"soiltest_xml_url":47,"soiltest_view_url":46},{"id":257556,"code":"B4KJ201802002-3036","latitude":"32.975833","longitude":"132.950556","source_code":"SK108861402000040003","project_name":"","survey_name":"\u5e73\u621022\u5e74\u5ea6 \u4e0d\u7834\u30fb\u89d2\u5d0e\u5730\u533a\u5824\u9632\u5916\u8a2d\u8a08\u696d\u52d9\u59d4\u8a17","client_name":"\u56fd\u571f\u4ea4\u901a\u7701 \u56db\u56fd\u5730\u65b9\u6574\u5099\u5c40 \u4e2d\u6751\u6cb3\u5ddd\u56fd\u9053\u4e8b\u52d9\u6240","boring_xml_url":47,"boring_view_url":1,"soilmap_view_url":null,"soiltest_xml_url":47,"soiltest_view_url":46},{"id":257555,"code":"B4KJ201802002-3035","latitude":"32.975833","longitude":"132.950556","source_code":"SK108861402000040002","project_name":"","survey_name":"\u5e73\u621022\u5e74\u5ea6 \u4e0d\u7834\u30fb\u89d2\u5d0e\u5730\u533a\u5824\u9632\u5916\u8a2d\u8a08\u696d\u52d9\u59d4\u8a17","client_name":"\u56fd\u571f\u4ea4\u901a\u7701 \u56db\u56fd\u5730\u65b9\u6574\u5099\u5c40 \u4e2d\u6751\u6cb3\u5ddd\u56fd\u9053\u4e8b\u52d9\u6240","boring_xml_url":47,"boring_view_url":1,"soilmap_view_url":null,"soiltest_xml_url":47,"soiltest_view_url":46},{"id":257554,"code":"B4KJ201802002-3034","latitude":"32.975278","longitude":"132.950833","source_code":"SK108861402000040001","project_name":"","survey_name":"\u5e73\u621022\u5e74\u5ea6 \u4e0d\u7834\u30fb\u89d2\u5d0e\u5730\u533a\u5824\u9632\u5916\u8a2d\u8a08\u696d\u52d9\u59d4\u8a17","client_name":"\u56fd\u571f\u4ea4\u901a\u7701 \u56db\u56fd\u5730\u65b9\u6574\u5099\u5c40 \u4e2d\u6751\u6cb3\u5ddd\u56fd\u9053\u4e8b\u52d9\u6240","boring_xml_url":47,"boring_view_url":1,"soilmap_view_url":null,"soiltest_xml_url":0,"soiltest_view_url":0},{"id":257553,"code":"B4KJ201802002-3033","latitude":"33.996222","longitude":"133.028722","source_code":"SK108850622000310013","project_name":"","survey_name":"\u5e73\u621022\u5e74\u5ea6\u4eca\u6cbb\u9053\u8def\u5730\u8cea\u8abf\u67fb\u696d\u52d9","client_name":"\u56fd\u571f\u4ea4\u901a\u7701\u56db\u56fd\u5730\u65b9\u6574\u5099\u5c40\u677e\u5c71\u6cb3\u5ddd\u56fd\u9053\u4e8b\u52d9\u6240","boring_xml_url":47,"boring_view_url":1,"soilmap_view_url":null,"soiltest_xml_url":47,"soiltest_view_url":46},{"id":257552,"code":"B4KJ201802002-3032","latitude":"33.9985","longitude":"133.024194","source_code":"SK108850622000310012","project_name":"","survey_name":"\u5e73\u621022\u5e74\u5ea6\u4eca\u6cbb\u9053\u8def\u5730\u8cea\u8abf\u67fb\u696d\u52d9","client_name":"\u56fd\u571f\u4ea4\u901a\u7701\u56db\u56fd\u5730\u65b9\u6574\u5099\u5c40\u677e\u5c71\u6cb3\u5ddd\u56fd\u9053\u4e8b\u52d9\u6240","boring_xml_url":47,"boring_view_url":1,"soilmap_view_url":null,"soiltest_xml_url":47,"soiltest_view_url":46},{"id":257551,"code":"B4KJ201802002-3031","latitude":"34.001333","longitude":"133.018583","source_code":"SK108850622000310011","project_name":"","survey_name":"\u5e73\u621022\u5e74\u5ea6\u4eca\u6cbb\u9053\u8def\u5730\u8cea\u8abf\u67fb\u696d\u52d9","client_name":"\u56fd\u571f\u4ea4\u901a\u7701\u56db\u56fd\u5730\u65b9\u6574\u5099\u5c40\u677e\u5c71\u6cb3\u5ddd\u56fd\u9053\u4e8b\u52d9\u6240","boring_xml_url":47,"boring_view_url":1,"soilmap_view_url":null,"soiltest_xml_url":47,"soiltest_view_url":46},{"id":257550,"code":"B4KJ201802002-3030","latitude":"34.002806","longitude":"133.016944","source_code":"SK108850622000310010","project_name":"","survey_name":"\u5e73\u621022\u5e74\u5ea6\u4eca\u6cbb\u9053\u8def\u5730\u8cea\u8abf\u67fb\u696d\u52d9","client_name":"\u56fd\u571f\u4ea4\u901a\u7701\u56db\u56fd\u5730\u65b9\u6574\u5099\u5c40\u677e\u5c71\u6cb3\u5ddd\u56fd\u9053\u4e8b\u52d9\u6240","boring_xml_url":47,"boring_view_url":1,"soilmap_view_url":null,"soiltest_xml_url":47,"soiltest_view_url":46},{"id":257549,"code":"B4KJ201802002-3029","latitude":"34.011111","longitude":"133.001056","source_code":"SK108850622000310009","project_name":"","survey_name":"\u5e73\u621022\u5e74\u5ea6\u4eca\u6cbb\u9053\u8def\u5730\u8cea\u8abf\u67fb\u696d\u52d9","client_name":"\u56fd\u571f\u4ea4\u901a\u7701\u56db\u56fd\u5730\u65b9\u6574\u5099\u5c40\u677e\u5c71\u6cb3\u5ddd\u56fd\u9053\u4e8b\u52d9\u6240","boring_xml_url":47,"boring_view_url":1,"soilmap_view_url":null,"soiltest_xml_url":47,"soiltest_view_url":46},{"id":257548,"code":"B4KJ201802002-3028","latitude":"34.011361","longitude":"133.000361","source_code":"SK108850622000310008","project_name":"","survey_name":"\u5e73\u621022\u5e74\u5ea6\u4eca\u6cbb\u9053\u8def\u5730\u8cea\u8abf\u67fb\u696d\u52d9","client_name":"\u56fd\u571f\u4ea4\u901a\u7701\u56db\u56fd\u5730\u65b9\u6574\u5099\u5c40\u677e\u5c71\u6cb3\u5ddd\u56fd\u9053\u4e8b\u52d9\u6240","boring_xml_url":47,"boring_view_url":1,"soilmap_view_url":null,"soiltest_xml_url":47,"soiltest_view_url":46},{"id":257547,"code":"B4KJ201802002-3027","latitude":"34.011694","longitude":"132.999278","source_code":"SK108850622000310007","project_name":"","survey_name":"\u5e73\u621022\u5e74\u5ea6\u4eca\u6cbb\u9053\u8def\u5730\u8cea\u8abf\u67fb\u696d\u52d9","client_name":"\u56fd\u571f\u4ea4\u901a\u7701\u56db\u56fd\u5730\u65b9\u6574\u5099\u5c40\u677e\u5c71\u6cb3\u5ddd\u56fd\u9053\u4e8b\u52d9\u6240","boring_xml_url":47,"boring_view_url":1,"soilmap_view_url":null,"soiltest_xml_url":47,"soiltest_view_url":46},{"id":257546,"code":"B4KJ201802002-3026","latitude":"34.011917","longitude":"132.998583","source_code":"SK108850622000310006","project_name":"","survey_name":"\u5e73\u621022\u5e74\u5ea6\u4eca\u6cbb\u9053\u8def\u5730\u8cea\u8abf\u67fb\u696d\u52d9","client_name":"\u56fd\u571f\u4ea4\u901a\u7701\u56db\u56fd\u5730\u65b9\u6574\u5099\u5c40\u677e\u5c71\u6cb3\u5ddd\u56fd\u9053\u4e8b\u52d9\u6240","boring_xml_url":47,"boring_view_url":1,"soilmap_view_url":null,"soiltest_xml_url":47,"soiltest_view_url":46},{"id":257545,"code":"B4KJ201802002-3025","latitude":"34.012056","longitude":"132.998222","source_code":"SK108850622000310005","project_name":"","survey_name":"\u5e73\u621022\u5e74\u5ea6\u4eca\u6cbb\u9053\u8def\u5730\u8cea\u8abf\u67fb\u696d\u52d9","client_name":"\u56fd\u571f\u4ea4\u901a\u7701\u56db\u56fd\u5730\u65b9\u6574\u5099\u5c40\u677e\u5c71\u6cb3\u5ddd\u56fd\u9053\u4e8b\u52d9\u6240","boring_xml_url":47,"boring_view_url":1,"soilmap_view_url":null,"soiltest_xml_url":47,"soiltest_view_url":46},{"id":257544,"code":"B4KJ201802002-3024","latitude":"34.012222","longitude":"132.997861","source_code":"SK108850622000310004","project_name":"","survey_name":"\u5e73\u621022\u5e74\u5ea6\u4eca\u6cbb\u9053\u8def\u5730\u8cea\u8abf\u67fb\u696d\u52d9","client_name":"\u56fd\u571f\u4ea4\u901a\u7701\u56db\u56fd\u5730\u65b9\u6574\u5099\u5c40\u677e\u5c71\u6cb3\u5ddd\u56fd\u9053\u4e8b\u52d9\u6240","boring_xml_url":47,"boring_view_url":1,"soilmap_view_url":null,"soiltest_xml_url":47,"soiltest_view_url":46},{"id":257543,"code":"B4KJ201802002-3023","latitude":"34.012472","longitude":"132.997278","source_code":"SK108850622000310003","project_name":"","survey_name":"\u5e73\u621022\u5e74\u5ea6\u4eca\u6cbb\u9053\u8def\u5730\u8cea\u8abf\u67fb\u696d\u52d9","client_name":"\u56fd\u571f\u4ea4\u901a\u7701\u56db\u56fd\u5730\u65b9\u6574\u5099\u5c40\u677e\u5c71\u6cb3\u5ddd\u56fd\u9053\u4e8b\u52d9\u6240","boring_xml_url":47,"boring_view_url":1,"soilmap_view_url":null,"soiltest_xml_url":47,"soiltest_view_url":46},{"id":257542,"code":"B4KJ201802002-3022","latitude":"34.012694","longitude":"132.996806","source_code":"SK108850622000310002","project_name":"","survey_name":"\u5e73\u621022\u5e74\u5ea6\u4eca\u6cbb\u9053\u8def\u5730\u8cea\u8abf\u67fb\u696d\u52d9","client_name":"\u56fd\u571f\u4ea4\u901a\u7701\u56db\u56fd\u5730\u65b9\u6574\u5099\u5c40\u677e\u5c71\u6cb3\u5ddd\u56fd\u9053\u4e8b\u52d9\u6240","boring_xml_url":47,"boring_view_url":1,"soilmap_view_url":null,"soiltest_xml_url":47,"soiltest_view_url":46},{"id":257541,"code":"B4KJ201802002-3021","latitude":"34.01275","longitude":"132.996528","source_code":"SK108850622000310001","project_name":"","survey_name":"\u5e73\u621022\u5e74\u5ea6\u4eca\u6cbb\u9053\u8def\u5730\u8cea\u8abf\u67fb\u696d\u52d9","client_name":"\u56fd\u571f\u4ea4\u901a\u7701\u56db\u56fd\u5730\u65b9\u6574\u5099\u5c40\u677e\u5c71\u6cb3\u5ddd\u56fd\u9053\u4e8b\u52d9\u6240","boring_xml_url":47,"boring_view_url":1,"soilmap_view_url":null,"soiltest_xml_url":0,"soiltest_view_url":0},{"id":257540,"code":"B4KJ201802002-3020","latitude":"33.828722","longitude":"132.710833","source_code":"SK108850622000300006","project_name":"\u5730\u8cea\u8abf\u67fb","survey_name":"\u5e73\u621022\u5e74\u5ea6\u677e\u5c71\u5916\u74b0\u72b6\u9053\u8def\u7a7a\u6e2f\u7dda\u5357\u5409\u7530\u5730\u8cea\u8abf\u67fb\u696d\u52d9(\u305d\u306e2)","client_name":"\u56fd\u571f\u4ea4\u901a\u7701\u56db\u56fd\u5730\u65b9\u6574\u5099\u5c40\u677e\u5c71\u6cb3\u5ddd\u56fd\u9053\u4e8b\u52d9\u6240","boring_xml_url":47,"boring_view_url":1,"soilmap_view_url":null,"soiltest_xml_url":0,"soiltest_view_url":0},{"id":257539,"code":"B4KJ201802002-3019","latitude":"33.828417","longitude":"132.711306","source_code":"SK108850622000300005","project_name":"\u5730\u8cea\u8abf\u67fb","survey_name":"\u5e73\u621022\u5e74\u5ea6\u677e\u5c71\u5916\u74b0\u72b6\u9053\u8def\u7a7a\u6e2f\u7dda\u5357\u5409\u7530\u5730\u8cea\u8abf\u67fb\u696d\u52d9(\u305d\u306e2)","client_name":"\u56fd\u571f\u4ea4\u901a\u7701\u56db\u56fd\u5730\u65b9\u6574\u5099\u5c40\u677e\u5c71\u6cb3\u5ddd\u56fd\u9053\u4e8b\u52d9\u6240","boring_xml_url":47,"boring_view_url":1,"soilmap_view_url":null,"soiltest_xml_url":47,"soiltest_view_url":46}]}}