{"header":{"xyz":{"source":[],"mosaic":false},"page":2436,"raw":{"soiltest_result":"0","bbox":"57.598333,109.544722,1.933333,163.806111","page":"2436"},"conditions":{"soiltest_result":0,"north":57.598333,"west":109.544722,"south":1.933333,"east":163.806111},"success":true,"message":""},"data":{"meta":{"total":212844,"page":2436,"pages":7095,"count":30},"values":[{"id":257478,"code":"B4KJ201802002-2958","latitude":"34.036972","longitude":"133.969444","source_code":"SK108830402000110004","project_name":"\u5e73\u621022\u5e74\u5ea6 \u5c71\u53e3\u8c37\u5ddd\u5730\u533a\u5730\u8cea\u8abf\u67fb\u696d\u52d9","survey_name":"\u5e73\u621022\u5e74\u5ea6 \u5c71\u53e3\u8c37\u5ddd\u5730\u533a\u5730\u8cea\u8abf\u67fb\u696d\u52d9","client_name":"\u56fd\u571f\u4ea4\u901a\u7701\u56db\u56fd\u5730\u65b9\u6574\u5099\u5c40\u5fb3\u5cf6\u6cb3\u5ddd\u56fd\u9053\u4e8b\u52d9\u6240","boring_xml_url":47,"boring_view_url":1,"soilmap_view_url":null,"soiltest_xml_url":0,"soiltest_view_url":0},{"id":257477,"code":"B4KJ201802002-2957","latitude":"34.036806","longitude":"133.969361","source_code":"SK108830402000110003","project_name":"\u5e73\u621022\u5e74\u5ea6 \u5c71\u53e3\u8c37\u5ddd\u5730\u533a\u5730\u8cea\u8abf\u67fb\u696d\u52d9","survey_name":"\u5e73\u621022\u5e74\u5ea6 \u5c71\u53e3\u8c37\u5ddd\u5730\u533a\u5730\u8cea\u8abf\u67fb\u696d\u52d9","client_name":"\u56fd\u571f\u4ea4\u901a\u7701\u56db\u56fd\u5730\u65b9\u6574\u5099\u5c40\u5fb3\u5cf6\u6cb3\u5ddd\u56fd\u9053\u4e8b\u52d9\u6240","boring_xml_url":47,"boring_view_url":1,"soilmap_view_url":null,"soiltest_xml_url":0,"soiltest_view_url":0},{"id":257476,"code":"B4KJ201802002-2956","latitude":"34.036889","longitude":"133.969278","source_code":"SK108830402000110002","project_name":"\u5e73\u621022\u5e74\u5ea6 \u5c71\u53e3\u8c37\u5ddd\u5730\u533a\u5730\u8cea\u8abf\u67fb\u696d\u52d9","survey_name":"\u5e73\u621022\u5e74\u5ea6 \u5c71\u53e3\u8c37\u5ddd\u5730\u533a\u5730\u8cea\u8abf\u67fb\u696d\u52d9","client_name":"\u56fd\u571f\u4ea4\u901a\u7701\u56db\u56fd\u5730\u65b9\u6574\u5099\u5c40\u5fb3\u5cf6\u6cb3\u5ddd\u56fd\u9053\u4e8b\u52d9\u6240","boring_xml_url":47,"boring_view_url":1,"soilmap_view_url":null,"soiltest_xml_url":0,"soiltest_view_url":0},{"id":257475,"code":"B4KJ201802002-2955","latitude":"34.036667","longitude":"133.969222","source_code":"SK108830402000110001","project_name":"\u5e73\u621022\u5e74\u5ea6 \u5c71\u53e3\u8c37\u5ddd\u5730\u533a\u5730\u8cea\u8abf\u67fb\u696d\u52d9","survey_name":"\u5e73\u621022\u5e74\u5ea6 \u5c71\u53e3\u8c37\u5ddd\u5730\u533a\u5730\u8cea\u8abf\u67fb\u696d\u52d9","client_name":"\u56fd\u571f\u4ea4\u901a\u7701\u56db\u56fd\u5730\u65b9\u6574\u5099\u5c40\u5fb3\u5cf6\u6cb3\u5ddd\u56fd\u9053\u4e8b\u52d9\u6240","boring_xml_url":47,"boring_view_url":1,"soilmap_view_url":null,"soiltest_xml_url":0,"soiltest_view_url":0},{"id":257474,"code":"B4KJ201802002-2954","latitude":"34.060333","longitude":"133.814889","source_code":"SK098830472000180014","project_name":"","survey_name":"\u5e73\u621021\u5e74\u5ea6 \u5fb3\u5cf6\u5357\u74b0\u72b6\u9053\u8def\u7b49\u5730\u8cea\u8abf\u67fb\u696d\u52d9","client_name":"\u56fd\u571f\u4ea4\u901a\u7701 \u56db\u56fd\u5730\u65b9\u6574\u5099\u5c40 \u5fb3\u5cf6\u6cb3\u5ddd\u56fd\u9053\u4e8b\u52d9\u6240","boring_xml_url":47,"boring_view_url":1,"soilmap_view_url":null,"soiltest_xml_url":0,"soiltest_view_url":0},{"id":257473,"code":"B4KJ201802002-2953","latitude":"34.06025","longitude":"133.815056","source_code":"SK098830472000180013","project_name":"","survey_name":"\u5e73\u621021\u5e74\u5ea6 \u5fb3\u5cf6\u5357\u74b0\u72b6\u9053\u8def\u7b49\u5730\u8cea\u8abf\u67fb\u696d\u52d9","client_name":"\u56fd\u571f\u4ea4\u901a\u7701 \u56db\u56fd\u5730\u65b9\u6574\u5099\u5c40 \u5fb3\u5cf6\u6cb3\u5ddd\u56fd\u9053\u4e8b\u52d9\u6240","boring_xml_url":47,"boring_view_url":1,"soilmap_view_url":null,"soiltest_xml_url":0,"soiltest_view_url":0},{"id":257472,"code":"B4KJ201802002-2952","latitude":"34.04834","longitude":"134.486269","source_code":"SK098830472000180012","project_name":"","survey_name":"\u5e73\u621021\u5e74\u5ea6 \u5fb3\u5cf6\u5357\u74b0\u72b6\u9053\u8def\u7b49\u5730\u8cea\u8abf\u67fb\u696d\u52d9","client_name":"\u56fd\u571f\u4ea4\u901a\u7701 \u56db\u56fd\u5730\u65b9\u6574\u5099\u5c40 \u5fb3\u5cf6\u6cb3\u5ddd\u56fd\u9053\u4e8b\u52d9\u6240","boring_xml_url":47,"boring_view_url":1,"soilmap_view_url":null,"soiltest_xml_url":0,"soiltest_view_url":0},{"id":257471,"code":"B4KJ201802002-2951","latitude":"34.04759","longitude":"134.486519","source_code":"SK098830472000180011","project_name":"","survey_name":"\u5e73\u621021\u5e74\u5ea6 \u5fb3\u5cf6\u5357\u74b0\u72b6\u9053\u8def\u7b49\u5730\u8cea\u8abf\u67fb\u696d\u52d9","client_name":"\u56fd\u571f\u4ea4\u901a\u7701 \u56db\u56fd\u5730\u65b9\u6574\u5099\u5c40 \u5fb3\u5cf6\u6cb3\u5ddd\u56fd\u9053\u4e8b\u52d9\u6240","boring_xml_url":47,"boring_view_url":1,"soilmap_view_url":null,"soiltest_xml_url":0,"soiltest_view_url":0},{"id":257470,"code":"B4KJ201802002-2950","latitude":"34.042675","longitude":"134.496324","source_code":"SK098830472000180010","project_name":"","survey_name":"\u5e73\u621021\u5e74\u5ea6 \u5fb3\u5cf6\u5357\u74b0\u72b6\u9053\u8def\u7b49\u5730\u8cea\u8abf\u67fb\u696d\u52d9","client_name":"\u56fd\u571f\u4ea4\u901a\u7701 \u56db\u56fd\u5730\u65b9\u6574\u5099\u5c40 \u5fb3\u5cf6\u6cb3\u5ddd\u56fd\u9053\u4e8b\u52d9\u6240","boring_xml_url":47,"boring_view_url":1,"soilmap_view_url":null,"soiltest_xml_url":0,"soiltest_view_url":0},{"id":257469,"code":"B4KJ201802002-2949","latitude":"34.045674","longitude":"134.488019","source_code":"SK098830472000180009","project_name":"","survey_name":"\u5e73\u621021\u5e74\u5ea6 \u5fb3\u5cf6\u5357\u74b0\u72b6\u9053\u8def\u7b49\u5730\u8cea\u8abf\u67fb\u696d\u52d9","client_name":"\u56fd\u571f\u4ea4\u901a\u7701 \u56db\u56fd\u5730\u65b9\u6574\u5099\u5c40 \u5fb3\u5cf6\u6cb3\u5ddd\u56fd\u9053\u4e8b\u52d9\u6240","boring_xml_url":47,"boring_view_url":1,"soilmap_view_url":null,"soiltest_xml_url":0,"soiltest_view_url":0},{"id":257468,"code":"B4KJ201802002-2948","latitude":"34.04573","longitude":"134.488019","source_code":"SK098830472000180008","project_name":"","survey_name":"\u5e73\u621021\u5e74\u5ea6 \u5fb3\u5cf6\u5357\u74b0\u72b6\u9053\u8def\u7b49\u5730\u8cea\u8abf\u67fb\u696d\u52d9","client_name":"\u56fd\u571f\u4ea4\u901a\u7701 \u56db\u56fd\u5730\u65b9\u6574\u5099\u5c40 \u5fb3\u5cf6\u6cb3\u5ddd\u56fd\u9053\u4e8b\u52d9\u6240","boring_xml_url":47,"boring_view_url":1,"soilmap_view_url":null,"soiltest_xml_url":0,"soiltest_view_url":0},{"id":257467,"code":"B4KJ201802002-2947","latitude":"34.04448","longitude":"134.488658","source_code":"SK098830472000180007","project_name":"","survey_name":"\u5e73\u621021\u5e74\u5ea6 \u5fb3\u5cf6\u5357\u74b0\u72b6\u9053\u8def\u7b49\u5730\u8cea\u8abf\u67fb\u696d\u52d9","client_name":"\u56fd\u571f\u4ea4\u901a\u7701 \u56db\u56fd\u5730\u65b9\u6574\u5099\u5c40 \u5fb3\u5cf6\u6cb3\u5ddd\u56fd\u9053\u4e8b\u52d9\u6240","boring_xml_url":47,"boring_view_url":1,"soilmap_view_url":null,"soiltest_xml_url":0,"soiltest_view_url":0},{"id":257466,"code":"B4KJ201802002-2946","latitude":"34.044674","longitude":"134.489075","source_code":"SK098830472000180006","project_name":"","survey_name":"\u5e73\u621021\u5e74\u5ea6 \u5fb3\u5cf6\u5357\u74b0\u72b6\u9053\u8def\u7b49\u5730\u8cea\u8abf\u67fb\u696d\u52d9","client_name":"\u56fd\u571f\u4ea4\u901a\u7701 \u56db\u56fd\u5730\u65b9\u6574\u5099\u5c40 \u5fb3\u5cf6\u6cb3\u5ddd\u56fd\u9053\u4e8b\u52d9\u6240","boring_xml_url":47,"boring_view_url":1,"soilmap_view_url":null,"soiltest_xml_url":0,"soiltest_view_url":0},{"id":257465,"code":"B4KJ201802002-2945","latitude":"34.044674","longitude":"134.488186","source_code":"SK098830472000180005","project_name":"","survey_name":"\u5e73\u621021\u5e74\u5ea6 \u5fb3\u5cf6\u5357\u74b0\u72b6\u9053\u8def\u7b49\u5730\u8cea\u8abf\u67fb\u696d\u52d9","client_name":"\u56fd\u571f\u4ea4\u901a\u7701 \u56db\u56fd\u5730\u65b9\u6574\u5099\u5c40 \u5fb3\u5cf6\u6cb3\u5ddd\u56fd\u9053\u4e8b\u52d9\u6240","boring_xml_url":47,"boring_view_url":1,"soilmap_view_url":null,"soiltest_xml_url":0,"soiltest_view_url":0},{"id":257464,"code":"B4KJ201802002-2944","latitude":"34.04498","longitude":"134.488325","source_code":"SK098830472000180004","project_name":"","survey_name":"\u5e73\u621021\u5e74\u5ea6 \u5fb3\u5cf6\u5357\u74b0\u72b6\u9053\u8def\u7b49\u5730\u8cea\u8abf\u67fb\u696d\u52d9","client_name":"\u56fd\u571f\u4ea4\u901a\u7701 \u56db\u56fd\u5730\u65b9\u6574\u5099\u5c40 \u5fb3\u5cf6\u6cb3\u5ddd\u56fd\u9053\u4e8b\u52d9\u6240","boring_xml_url":47,"boring_view_url":1,"soilmap_view_url":null,"soiltest_xml_url":0,"soiltest_view_url":0},{"id":257463,"code":"B4KJ201802002-2943","latitude":"34.044869","longitude":"134.487658","source_code":"SK098830472000180003","project_name":"","survey_name":"\u5e73\u621021\u5e74\u5ea6 \u5fb3\u5cf6\u5357\u74b0\u72b6\u9053\u8def\u7b49\u5730\u8cea\u8abf\u67fb\u696d\u52d9","client_name":"\u56fd\u571f\u4ea4\u901a\u7701 \u56db\u56fd\u5730\u65b9\u6574\u5099\u5c40 \u5fb3\u5cf6\u6cb3\u5ddd\u56fd\u9053\u4e8b\u52d9\u6240","boring_xml_url":47,"boring_view_url":1,"soilmap_view_url":null,"soiltest_xml_url":0,"soiltest_view_url":0},{"id":257462,"code":"B4KJ201802002-2942","latitude":"34.045146","longitude":"134.487936","source_code":"SK098830472000180002","project_name":"","survey_name":"\u5e73\u621021\u5e74\u5ea6 \u5fb3\u5cf6\u5357\u74b0\u72b6\u9053\u8def\u7b49\u5730\u8cea\u8abf\u67fb\u696d\u52d9","client_name":"\u56fd\u571f\u4ea4\u901a\u7701 \u56db\u56fd\u5730\u65b9\u6574\u5099\u5c40 \u5fb3\u5cf6\u6cb3\u5ddd\u56fd\u9053\u4e8b\u52d9\u6240","boring_xml_url":47,"boring_view_url":1,"soilmap_view_url":null,"soiltest_xml_url":0,"soiltest_view_url":0},{"id":257461,"code":"B4KJ201802002-2941","latitude":"34.045396","longitude":"134.487186","source_code":"SK098830472000180001","project_name":"","survey_name":"\u5e73\u621021\u5e74\u5ea6 \u5fb3\u5cf6\u5357\u74b0\u72b6\u9053\u8def\u7b49\u5730\u8cea\u8abf\u67fb\u696d\u52d9","client_name":"\u56fd\u571f\u4ea4\u901a\u7701 \u56db\u56fd\u5730\u65b9\u6574\u5099\u5c40 \u5fb3\u5cf6\u6cb3\u5ddd\u56fd\u9053\u4e8b\u52d9\u6240","boring_xml_url":47,"boring_view_url":1,"soilmap_view_url":null,"soiltest_xml_url":0,"soiltest_view_url":0},{"id":257460,"code":"B4KJ201802002-2940","latitude":"33.460583","longitude":"133.477111","source_code":"SK108860602000220002","project_name":"\u5e73\u621022\u5e74\u5ea6 \u7269\u90e8\u5ddd\u30fb\u4ec1\u6dc0\u5ddd\u5824\u9632\u5730\u8cea\u8abf\u67fb\u696d\u52d9","survey_name":"\u5e73\u621022\u5e74\u5ea6 \u7269\u90e8\u5ddd\u30fb\u4ec1\u6dc0\u5ddd\u5824\u9632\u5730\u8cea\u8abf\u67fb\u696d\u52d9","client_name":"\u56fd\u571f\u4ea4\u901a\u7701\u56db\u56fd\u5730\u65b9\u6574\u5099\u5c40\u9ad8\u77e5\u6cb3\u5ddd\u56fd\u9053\u4e8b\u52d9\u6240","boring_xml_url":47,"boring_view_url":1,"soilmap_view_url":null,"soiltest_xml_url":0,"soiltest_view_url":0},{"id":257459,"code":"B4KJ201802002-2939","latitude":"33.536417","longitude":"132.682917","source_code":"SK108860602000220001","project_name":"\u5e73\u621022\u5e74\u5ea6 \u7269\u90e8\u5ddd\u30fb\u4ec1\u6dc0\u5ddd\u5824\u9632\u5730\u8cea\u8abf\u67fb\u696d\u52d9","survey_name":"\u5e73\u621022\u5e74\u5ea6 \u7269\u90e8\u5ddd\u30fb\u4ec1\u6dc0\u5ddd\u5824\u9632\u5730\u8cea\u8abf\u67fb\u696d\u52d9","client_name":"\u56fd\u571f\u4ea4\u901a\u7701\u56db\u56fd\u5730\u65b9\u6574\u5099\u5c40\u9ad8\u77e5\u6cb3\u5ddd\u56fd\u9053\u4e8b\u52d9\u6240","boring_xml_url":47,"boring_view_url":1,"soilmap_view_url":null,"soiltest_xml_url":0,"soiltest_view_url":0},{"id":257458,"code":"B4KJ201802002-2938","latitude":"33.904444","longitude":"133.753333","source_code":"SK108830472000230002","project_name":"\u5e73\u621022\u5e74\u5ea6 32\u53f7\u6539\u7bc9\u9632\u707d(\u5927\u6b69\u5371\u5de5\u533a) \u5730\u8cea\u8abf\u67fb\u696d\u52d9","survey_name":"\u5e73\u621022\u5e74\u5ea6 32\u53f7\u6539\u7bc9\u9632\u707d(\u5927\u6b69\u5371\u5de5\u533a) \u5730\u8cea\u8abf\u67fb\u696d\u52d9","client_name":"\u56fd\u571f\u4ea4\u901a\u7701 \u56db\u56fd\u5730\u65b9\u6574\u5099\u5c40 \u5fb3\u5cf6\u6cb3\u5ddd\u56fd\u9053\u4e8b\u52d9\u6240","boring_xml_url":47,"boring_view_url":1,"soilmap_view_url":null,"soiltest_xml_url":0,"soiltest_view_url":0},{"id":257457,"code":"B4KJ201802002-2937","latitude":"33.905","longitude":"133.753333","source_code":"SK108830472000230001","project_name":"\u5e73\u621022\u5e74\u5ea6 32\u53f7\u6539\u7bc9\u9632\u707d(\u5927\u6b69\u5371\u5de5\u533a) \u5730\u8cea\u8abf\u67fb\u696d\u52d9","survey_name":"\u5e73\u621022\u5e74\u5ea6 32\u53f7\u6539\u7bc9\u9632\u707d(\u5927\u6b69\u5371\u5de5\u533a) \u5730\u8cea\u8abf\u67fb\u696d\u52d9","client_name":"\u56fd\u571f\u4ea4\u901a\u7701 \u56db\u56fd\u5730\u65b9\u6574\u5099\u5c40 \u5fb3\u5cf6\u6cb3\u5ddd\u56fd\u9053\u4e8b\u52d9\u6240","boring_xml_url":47,"boring_view_url":1,"soilmap_view_url":null,"soiltest_xml_url":0,"soiltest_view_url":0},{"id":257456,"code":"B4KJ201802002-2936","latitude":"33.544417","longitude":"133.104083","source_code":"SK108877002000080004","project_name":"","survey_name":"\u5e73\u621022\u5e74\u5ea6\u5927\u6e21\u30c0\u30e0\u5730\u8cea\u8abf\u67fb\u696d\u52d9","client_name":"\u56fd\u571f\u4ea4\u901a\u7701\u56db\u56fd\u5730\u65b9\u6574\u5099\u5c40\u5927\u6e21\u30c0\u30e0\u5de5\u4e8b\u4e8b\u52d9\u6240","boring_xml_url":47,"boring_view_url":1,"soilmap_view_url":null,"soiltest_xml_url":0,"soiltest_view_url":0},{"id":257455,"code":"B4KJ201802002-2935","latitude":"33.546417","longitude":"133.104306","source_code":"SK108877002000080003","project_name":"","survey_name":"\u5e73\u621022\u5e74\u5ea6\u5927\u6e21\u30c0\u30e0\u5730\u8cea\u8abf\u67fb\u696d\u52d9","client_name":"\u56fd\u571f\u4ea4\u901a\u7701\u56db\u56fd\u5730\u65b9\u6574\u5099\u5c40\u5927\u6e21\u30c0\u30e0\u5de5\u4e8b\u4e8b\u52d9\u6240","boring_xml_url":47,"boring_view_url":1,"soilmap_view_url":null,"soiltest_xml_url":0,"soiltest_view_url":0},{"id":257454,"code":"B4KJ201802002-2934","latitude":"33.545472","longitude":"133.104278","source_code":"SK108877002000080002","project_name":"","survey_name":"\u5e73\u621022\u5e74\u5ea6\u5927\u6e21\u30c0\u30e0\u5730\u8cea\u8abf\u67fb\u696d\u52d9","client_name":"\u56fd\u571f\u4ea4\u901a\u7701\u56db\u56fd\u5730\u65b9\u6574\u5099\u5c40\u5927\u6e21\u30c0\u30e0\u5de5\u4e8b\u4e8b\u52d9\u6240","boring_xml_url":47,"boring_view_url":1,"soilmap_view_url":null,"soiltest_xml_url":0,"soiltest_view_url":0},{"id":257453,"code":"B4KJ201802002-2933","latitude":"33.545028","longitude":"133.103472","source_code":"SK108877002000080001","project_name":"","survey_name":"\u5e73\u621022\u5e74\u5ea6\u5927\u6e21\u30c0\u30e0\u5730\u8cea\u8abf\u67fb\u696d\u52d9","client_name":"\u56fd\u571f\u4ea4\u901a\u7701\u56db\u56fd\u5730\u65b9\u6574\u5099\u5c40\u5927\u6e21\u30c0\u30e0\u5de5\u4e8b\u4e8b\u52d9\u6240","boring_xml_url":47,"boring_view_url":1,"soilmap_view_url":null,"soiltest_xml_url":0,"soiltest_view_url":0},{"id":257452,"code":"B4KJ201802002-2932","latitude":"33.875833","longitude":"133.831111","source_code":"SK108837652000290008","project_name":"","survey_name":"\u5e73\u621022\u5e74\u5ea6 \u5584\u5fb3\u5730\u3059\u3079\u308a\u5730\u8cea\u8abf\u67fb\u696d\u52d9","client_name":"\u56fd\u571f\u4ea4\u901a\u7701\u56db\u56fd\u5730\u65b9\u6574\u5099\u5c40\u56db\u56fd\u5c71\u5730\u7802\u9632\u4e8b\u52d9\u6240","boring_xml_url":47,"boring_view_url":1,"soilmap_view_url":null,"soiltest_xml_url":0,"soiltest_view_url":0},{"id":257451,"code":"B4KJ201802002-2931","latitude":"33.878611","longitude":"133.83","source_code":"SK108837652000290007","project_name":"","survey_name":"\u5e73\u621022\u5e74\u5ea6 \u5584\u5fb3\u5730\u3059\u3079\u308a\u5730\u8cea\u8abf\u67fb\u696d\u52d9","client_name":"\u56fd\u571f\u4ea4\u901a\u7701\u56db\u56fd\u5730\u65b9\u6574\u5099\u5c40\u56db\u56fd\u5c71\u5730\u7802\u9632\u4e8b\u52d9\u6240","boring_xml_url":47,"boring_view_url":1,"soilmap_view_url":null,"soiltest_xml_url":0,"soiltest_view_url":0},{"id":257450,"code":"B4KJ201802002-2930","latitude":"33.879444","longitude":"133.830278","source_code":"SK108837652000290006","project_name":"","survey_name":"\u5e73\u621022\u5e74\u5ea6 \u5584\u5fb3\u5730\u3059\u3079\u308a\u5730\u8cea\u8abf\u67fb\u696d\u52d9","client_name":"\u56fd\u571f\u4ea4\u901a\u7701\u56db\u56fd\u5730\u65b9\u6574\u5099\u5c40\u56db\u56fd\u5c71\u5730\u7802\u9632\u4e8b\u52d9\u6240","boring_xml_url":47,"boring_view_url":1,"soilmap_view_url":null,"soiltest_xml_url":0,"soiltest_view_url":0},{"id":257449,"code":"B4KJ201802002-2929","latitude":"33.871111","longitude":"133.8275","source_code":"SK108837652000290005","project_name":"","survey_name":"\u5e73\u621022\u5e74\u5ea6 \u5584\u5fb3\u5730\u3059\u3079\u308a\u5730\u8cea\u8abf\u67fb\u696d\u52d9","client_name":"\u56fd\u571f\u4ea4\u901a\u7701\u56db\u56fd\u5730\u65b9\u6574\u5099\u5c40\u56db\u56fd\u5c71\u5730\u7802\u9632\u4e8b\u52d9\u6240","boring_xml_url":47,"boring_view_url":1,"soilmap_view_url":null,"soiltest_xml_url":0,"soiltest_view_url":0}]}}