{"header":{"xyz":{"source":[],"mosaic":false},"page":2437,"raw":{"soiltest_result":"0","bbox":"57.598333,109.544722,1.933333,163.806111","page":"2437"},"conditions":{"soiltest_result":0,"north":57.598333,"west":109.544722,"south":1.933333,"east":163.806111},"success":true,"message":""},"data":{"meta":{"total":212844,"page":2437,"pages":7095,"count":30},"values":[{"id":257448,"code":"B4KJ201802002-2928","latitude":"33.87","longitude":"133.8275","source_code":"SK108837652000290004","project_name":"","survey_name":"\u5e73\u621022\u5e74\u5ea6 \u5584\u5fb3\u5730\u3059\u3079\u308a\u5730\u8cea\u8abf\u67fb\u696d\u52d9","client_name":"\u56fd\u571f\u4ea4\u901a\u7701\u56db\u56fd\u5730\u65b9\u6574\u5099\u5c40\u56db\u56fd\u5c71\u5730\u7802\u9632\u4e8b\u52d9\u6240","boring_xml_url":47,"boring_view_url":1,"soilmap_view_url":null,"soiltest_xml_url":0,"soiltest_view_url":0},{"id":257447,"code":"B4KJ201802002-2927","latitude":"33.889167","longitude":"133.838056","source_code":"SK108837652000290003","project_name":"","survey_name":"\u5e73\u621022\u5e74\u5ea6 \u5584\u5fb3\u5730\u3059\u3079\u308a\u5730\u8cea\u8abf\u67fb\u696d\u52d9","client_name":"\u56fd\u571f\u4ea4\u901a\u7701\u56db\u56fd\u5730\u65b9\u6574\u5099\u5c40\u56db\u56fd\u5c71\u5730\u7802\u9632\u4e8b\u52d9\u6240","boring_xml_url":47,"boring_view_url":1,"soilmap_view_url":null,"soiltest_xml_url":0,"soiltest_view_url":0},{"id":257446,"code":"B4KJ201802002-2926","latitude":"33.888611","longitude":"133.836389","source_code":"SK108837652000290002","project_name":"","survey_name":"\u5e73\u621022\u5e74\u5ea6 \u5584\u5fb3\u5730\u3059\u3079\u308a\u5730\u8cea\u8abf\u67fb\u696d\u52d9","client_name":"\u56fd\u571f\u4ea4\u901a\u7701\u56db\u56fd\u5730\u65b9\u6574\u5099\u5c40\u56db\u56fd\u5c71\u5730\u7802\u9632\u4e8b\u52d9\u6240","boring_xml_url":47,"boring_view_url":1,"soilmap_view_url":null,"soiltest_xml_url":0,"soiltest_view_url":0},{"id":257445,"code":"B4KJ201802002-2925","latitude":"33.8875","longitude":"133.836111","source_code":"SK108837652000290001","project_name":"","survey_name":"\u5e73\u621022\u5e74\u5ea6 \u5584\u5fb3\u5730\u3059\u3079\u308a\u5730\u8cea\u8abf\u67fb\u696d\u52d9","client_name":"\u56fd\u571f\u4ea4\u901a\u7701\u56db\u56fd\u5730\u65b9\u6574\u5099\u5c40\u56db\u56fd\u5c71\u5730\u7802\u9632\u4e8b\u52d9\u6240","boring_xml_url":47,"boring_view_url":1,"soilmap_view_url":null,"soiltest_xml_url":0,"soiltest_view_url":0},{"id":257444,"code":"B4KJ201802002-2924","latitude":"33.937778","longitude":"133.554167","source_code":"SK108875652000100001","project_name":"\u5e73\u621022\u5e74\u5ea6 \u5bae\u524d\u5730\u533a\u5730\u8cea\u8abf\u67fb\u696d\u52d9","survey_name":"\u5e73\u621022\u5e74\u5ea6 \u5bae\u524d\u5730\u533a\u5730\u8cea\u8abf\u67fb\u696d\u52d9","client_name":"\u56fd\u571f\u4ea4\u901a\u7701 \u56db\u56fd\u5730\u65b9\u6574\u5099\u5c40 \u5409\u91ce\u5ddd\u30c0\u30e0\u7d71\u5408\u7ba1\u7406\u4e8b\u52d9\u6240","boring_xml_url":47,"boring_view_url":1,"soilmap_view_url":null,"soiltest_xml_url":0,"soiltest_view_url":0},{"id":257443,"code":"B4KJ201802002-2923","latitude":"33.547972","longitude":"133.39775","source_code":"SK108860402000090006","project_name":"","survey_name":"\u5e73\u621022\u5e74\u5ea6 \u52a0\u7530\u5824\u9632\u6e2c\u91cf\u5b9f\u65bd\u8a2d\u8a08\u696d\u52d9\u59d4\u8a17","client_name":"\u56fd\u571f\u4ea4\u901a\u7701 \u56db\u56fd\u5730\u65b9\u6574\u5099\u5c40 \u9ad8\u77e5\u6cb3\u5ddd\u56fd\u9053\u4e8b\u52d9\u6240","boring_xml_url":47,"boring_view_url":1,"soilmap_view_url":null,"soiltest_xml_url":47,"soiltest_view_url":46},{"id":257442,"code":"B4KJ201802002-2922","latitude":"33.54975","longitude":"133.400667","source_code":"SK108860402000090005","project_name":"","survey_name":"\u5e73\u621022\u5e74\u5ea6 \u52a0\u7530\u5824\u9632\u6e2c\u91cf\u5b9f\u65bd\u8a2d\u8a08\u696d\u52d9\u59d4\u8a17","client_name":"\u56fd\u571f\u4ea4\u901a\u7701 \u56db\u56fd\u5730\u65b9\u6574\u5099\u5c40 \u9ad8\u77e5\u6cb3\u5ddd\u56fd\u9053\u4e8b\u52d9\u6240","boring_xml_url":47,"boring_view_url":1,"soilmap_view_url":null,"soiltest_xml_url":47,"soiltest_view_url":46},{"id":257441,"code":"B4KJ201802002-2921","latitude":"33.55225","longitude":"133.402417","source_code":"SK108860402000090004","project_name":"","survey_name":"\u5e73\u621022 \u5e74\u5ea6 \u52a0\u7530\u5824\u9632\u6e2c\u91cf\u5b9f\u65bd\u8a2d\u8a08\u696d\u52d9\u59d4\u8a17","client_name":"\u56fd\u571f\u4ea4\u901a\u7701 \u56db\u56fd\u5730\u65b9\u6574\u5099\u5c40 \u9ad8\u77e5\u6cb3\u5ddd\u56fd\u9053\u4e8b\u52d9\u6240","boring_xml_url":47,"boring_view_url":1,"soilmap_view_url":null,"soiltest_xml_url":47,"soiltest_view_url":46},{"id":257440,"code":"B4KJ201802002-2920","latitude":"33.552361","longitude":"133.402806","source_code":"SK108860402000090003","project_name":"","survey_name":"\u5e73\u621022 \u5e74\u5ea6 \u52a0\u7530\u5824\u9632\u6e2c\u91cf\u5b9f\u65bd\u8a2d\u8a08\u696d\u52d9\u59d4\u8a17","client_name":"\u56fd\u571f\u4ea4\u901a\u7701 \u56db\u56fd\u5730\u65b9\u6574\u5099\u5c40 \u9ad8\u77e5\u6cb3\u5ddd\u56fd\u9053\u4e8b\u52d9\u6240","boring_xml_url":47,"boring_view_url":1,"soilmap_view_url":null,"soiltest_xml_url":47,"soiltest_view_url":46},{"id":257439,"code":"B4KJ201802002-2919","latitude":"33.552556","longitude":"133.402889","source_code":"SK108860402000090002","project_name":"","survey_name":"\u5e73\u621022\u5e74\u5ea6 \u52a0\u7530\u5824\u9632\u6e2c\u91cf\u5b9f\u65bd\u8a2d\u8a08\u696d\u52d9\u59d4\u8a17","client_name":"\u56fd\u571f\u4ea4\u901a\u7701 \u56db\u56fd\u5730\u65b9\u6574\u5099\u5c40 \u9ad8\u77e5\u6cb3\u5ddd\u56fd\u9053\u4e8b\u52d9\u6240","boring_xml_url":47,"boring_view_url":1,"soilmap_view_url":null,"soiltest_xml_url":0,"soiltest_view_url":0},{"id":257438,"code":"B4KJ201802002-2918","latitude":"33.551583","longitude":"133.416889","source_code":"SK108860402000090001","project_name":"","survey_name":"\u5e73\u621022\u5e74\u5ea6 \u52a0\u7530\u5824\u9632\u6e2c\u91cf\u5b9f\u65bd\u8a2d\u8a08\u696d\u52d9\u59d4\u8a17","client_name":"\u56fd\u571f\u4ea4\u901a\u7701 \u56db\u56fd\u5730\u65b9\u6574\u5099\u5c40 \u9ad8\u77e5\u6cb3\u5ddd\u56fd\u9053\u4e8b\u52d9\u6240","boring_xml_url":47,"boring_view_url":1,"soilmap_view_url":null,"soiltest_xml_url":47,"soiltest_view_url":46},{"id":257437,"code":"B4KJ201802002-2917","latitude":"33.777417","longitude":"133.775111","source_code":"SK108837652000300004","project_name":"\u5e73\u621022\u5e74\u5ea6 \u6012\u7530\u30fb\u516b\u755d\u5730\u3059\u3079\u308a\u5730\u8cea\u8abf\u67fb\u696d\u52d9","survey_name":"\u5e73\u621022\u5e74\u5ea6 \u6012\u7530\u30fb\u516b\u755d\u5730\u3059\u3079\u308a\u5730\u8cea\u8abf\u67fb\u696d\u52d9","client_name":"\u56fd\u571f\u4ea4\u901a\u7701\u56db\u56fd\u5730\u65b9\u6574\u5099\u5c40\u56db\u56fd\u5c71\u5730\u7802\u9632\u4e8b\u52d9\u6240","boring_xml_url":47,"boring_view_url":1,"soilmap_view_url":null,"soiltest_xml_url":0,"soiltest_view_url":0},{"id":257436,"code":"B4KJ201802002-2916","latitude":"33.774778","longitude":"133.774028","source_code":"SK108837652000300003","project_name":"\u5e73\u621022\u5e74\u5ea6 \u6012\u7530\u30fb\u516b\u755d\u5730\u3059\u3079\u308a\u5730\u8cea\u8abf\u67fb\u696d\u52d9","survey_name":"\u5e73\u621022\u5e74\u5ea6 \u6012\u7530\u30fb\u516b\u755d\u5730\u3059\u3079\u308a\u5730\u8cea\u8abf\u67fb\u696d\u52d9","client_name":"\u56fd\u571f\u4ea4\u901a\u7701\u56db\u56fd\u5730\u65b9\u6574\u5099\u5c40\u56db\u56fd\u5c71\u5730\u7802\u9632\u4e8b\u52d9\u6240","boring_xml_url":47,"boring_view_url":1,"soilmap_view_url":null,"soiltest_xml_url":0,"soiltest_view_url":0},{"id":257435,"code":"B4KJ201802002-2915","latitude":"33.778722","longitude":"133.783","source_code":"SK108837652000300002","project_name":"\u5e73\u621022\u5e74\u5ea6 \u6012\u7530\u30fb\u516b\u755d\u5730\u3059\u3079\u308a\u5730\u8cea\u8abf\u67fb\u696d\u52d9","survey_name":"\u5e73\u621022\u5e74\u5ea6 \u6012\u7530\u30fb\u516b\u755d\u5730\u3059\u3079\u308a\u5730\u8cea\u8abf\u67fb\u696d\u52d9","client_name":"\u56fd\u571f\u4ea4\u901a\u7701\u56db\u56fd\u5730\u65b9\u6574\u5099\u5c40\u56db\u56fd\u5c71\u5730\u7802\u9632\u4e8b\u52d9\u6240","boring_xml_url":47,"boring_view_url":1,"soilmap_view_url":null,"soiltest_xml_url":0,"soiltest_view_url":0},{"id":257434,"code":"B4KJ201802002-2914","latitude":"33.783472","longitude":"133.780361","source_code":"SK108837652000300001","project_name":"\u5e73\u621022\u5e74\u5ea6 \u6012\u7530\u30fb\u516b\u755d\u5730\u3059\u3079\u308a\u5730\u8cea\u8abf\u67fb\u696d\u52d9","survey_name":"\u5e73\u621022\u5e74\u5ea6 \u6012\u7530\u30fb\u516b\u755d\u5730\u3059\u3079\u308a\u5730\u8cea\u8abf\u67fb\u696d\u52d9","client_name":"\u56fd\u571f\u4ea4\u901a\u7701\u56db\u56fd\u5730\u65b9\u6574\u5099\u5c40\u56db\u56fd\u5c71\u5730\u7802\u9632\u4e8b\u52d9\u6240","boring_xml_url":47,"boring_view_url":1,"soilmap_view_url":null,"soiltest_xml_url":0,"soiltest_view_url":0},{"id":257433,"code":"B4KJ201802002-2913","latitude":"34.041667","longitude":"134.582778","source_code":"SK068830482000180009","project_name":"","survey_name":"\u5e73\u621018-19\u5e74\u5ea6 \u5c0f\u677e\u5cf6\u5fb3\u5cf6\u6771\u9593\u5730\u8cea\u8abf\u67fb(\u305d\u306e2)\u696d\u52d9","client_name":"\u56fd\u571f\u4ea4\u901a\u7701 \u56db\u56fd\u5730\u65b9\u6574\u5099\u5c40 \u5fb3\u5cf6\u6cb3\u5ddd\u56fd\u9053\u4e8b\u52d9\u6240","boring_xml_url":47,"boring_view_url":1,"soilmap_view_url":null,"soiltest_xml_url":50,"soiltest_view_url":49},{"id":257432,"code":"B4KJ201802002-2912","latitude":"34.043611","longitude":"134.583611","source_code":"SK068830482000180008","project_name":"","survey_name":"\u5e73\u621018-19\u5e74\u5ea6 \u5c0f\u677e\u5cf6\u5fb3\u5cf6\u6771\u9593\u5730\u8cea\u8abf\u67fb(\u305d\u306e2)\u696d\u52d9","client_name":"\u56fd\u571f\u4ea4\u901a\u7701 \u56db\u56fd\u5730\u65b9\u6574\u5099\u5c40 \u5fb3\u5cf6\u6cb3\u5ddd\u56fd\u9053\u4e8b\u52d9\u6240","boring_xml_url":47,"boring_view_url":1,"soilmap_view_url":null,"soiltest_xml_url":50,"soiltest_view_url":49},{"id":257431,"code":"B4KJ201802002-2911","latitude":"34.045556","longitude":"134.584167","source_code":"SK068830482000180007","project_name":"","survey_name":"\u5e73\u621018-19\u5e74\u5ea6 \u5c0f\u677e\u5cf6\u5fb3\u5cf6\u6771\u9593\u5730\u8cea\u8abf\u67fb(\u305d\u306e2)\u696d\u52d9","client_name":"\u56fd\u571f\u4ea4\u901a\u7701 \u56db\u56fd\u5730\u65b9\u6574\u5099\u5c40 \u5fb3\u5cf6\u6cb3\u5ddd\u56fd\u9053\u4e8b\u52d9\u6240","boring_xml_url":47,"boring_view_url":1,"soilmap_view_url":null,"soiltest_xml_url":50,"soiltest_view_url":49},{"id":257430,"code":"B4KJ201802002-2910","latitude":"34.045556","longitude":"134.584167","source_code":"SK068830482000180006","project_name":"","survey_name":"\u5e73\u621018-19\u5e74\u5ea6 \u5c0f\u677e\u5cf6\u5fb3\u5cf6\u6771\u9593\u5730\u8cea\u8abf\u67fb(\u305d\u306e2)\u696d\u52d9","client_name":"\u56fd\u571f\u4ea4\u901a\u7701 \u56db\u56fd\u5730\u65b9\u6574\u5099\u5c40 \u5fb3\u5cf6\u6cb3\u5ddd\u56fd\u9053\u4e8b\u52d9\u6240","boring_xml_url":47,"boring_view_url":1,"soilmap_view_url":null,"soiltest_xml_url":50,"soiltest_view_url":49},{"id":257429,"code":"B4KJ201802002-2909","latitude":"34.047222","longitude":"134.584722","source_code":"SK068830482000180005","project_name":"","survey_name":"\u5e73\u621018-19\u5e74\u5ea6 \u5c0f\u677e\u5cf6\u5fb3\u5cf6\u6771\u9593\u5730\u8cea\u8abf\u67fb(\u305d\u306e2)\u696d\u52d9","client_name":"\u56fd\u571f\u4ea4\u901a\u7701 \u56db\u56fd\u5730\u65b9\u6574\u5099\u5c40 \u5fb3\u5cf6\u6cb3\u5ddd\u56fd\u9053\u4e8b\u52d9\u6240","boring_xml_url":47,"boring_view_url":1,"soilmap_view_url":null,"soiltest_xml_url":50,"soiltest_view_url":49},{"id":257428,"code":"B4KJ201802002-2908","latitude":"34.049722","longitude":"134.585556","source_code":"SK068830482000180004","project_name":"","survey_name":"\u5e73\u621018-19\u5e74\u5ea6 \u5c0f\u677e\u5cf6\u5fb3\u5cf6\u6771\u9593\u5730\u8cea\u8abf\u67fb(\u305d\u306e2)\u696d\u52d9","client_name":"\u56fd\u571f\u4ea4\u901a\u7701 \u56db\u56fd\u5730\u65b9\u6574\u5099\u5c40 \u5fb3\u5cf6\u6cb3\u5ddd\u56fd\u9053\u4e8b\u52d9\u6240","boring_xml_url":47,"boring_view_url":1,"soilmap_view_url":null,"soiltest_xml_url":50,"soiltest_view_url":49},{"id":257427,"code":"B4KJ201802002-2907","latitude":"34.049722","longitude":"134.585556","source_code":"SK068830482000180003","project_name":"","survey_name":"\u5e73\u621018-19\u5e74\u5ea6 \u5c0f\u677e\u5cf6\u5fb3\u5cf6\u6771\u9593\u5730\u8cea\u8abf\u67fb(\u305d\u306e2)\u696d\u52d9","client_name":"\u56fd\u571f\u4ea4\u901a\u7701 \u56db\u56fd\u5730\u65b9\u6574\u5099\u5c40 \u5fb3\u5cf6\u6cb3\u5ddd\u56fd\u9053\u4e8b\u52d9\u6240","boring_xml_url":47,"boring_view_url":1,"soilmap_view_url":null,"soiltest_xml_url":50,"soiltest_view_url":49},{"id":257424,"code":"B4KJ201802002-2904","latitude":"33.872222","longitude":"133.875","source_code":"SK078837602000310005","project_name":"\u7530\u5ca1\u8c37","survey_name":"\u5e73\u621019-20\u5e74\u5ea6\u5409\u91ce\u5ddd\u4e2d\u6d41\u57df\u7802\u9632\u5830\u5824\u6e2c\u91cf\u8a2d\u8a08\u305d\u306e2\u696d\u52d9\u59d4\u8a17","client_name":"\u56fd\u571f\u4ea4\u901a\u7701 \u56db\u56fd\u5730\u65b9\u6574\u5099\u5c40 \u56db\u56fd\u5c71\u5730\u7802\u9632\u4e8b\u52d9\u6240","boring_xml_url":47,"boring_view_url":1,"soilmap_view_url":null,"soiltest_xml_url":0,"soiltest_view_url":0},{"id":257423,"code":"B4KJ201802002-2903","latitude":"33.871944","longitude":"133.875278","source_code":"SK078837602000310004","project_name":"\u7530\u5ca1\u8c37","survey_name":"\u5e73\u621019-20\u5e74\u5ea6\u5409\u91ce\u5ddd\u4e2d\u6d41\u57df\u7802\u9632\u5830\u5824\u6e2c\u91cf\u8a2d\u8a08\u305d\u306e2\u696d\u52d9\u59d4\u8a17","client_name":"\u56fd\u571f\u4ea4\u901a\u7701 \u56db\u56fd\u5730\u65b9\u6574\u5099\u5c40 \u56db\u56fd\u5c71\u5730\u7802\u9632\u4e8b\u52d9\u6240","boring_xml_url":47,"boring_view_url":1,"soilmap_view_url":null,"soiltest_xml_url":0,"soiltest_view_url":0},{"id":257422,"code":"B4KJ201802002-2902","latitude":"33.8725","longitude":"133.873611","source_code":"SK078837602000310003","project_name":"\u548c\u7530\u8c37\u53f3\u652f\u6e13","survey_name":"\u5e73\u621019-20\u5e74\u5ea6\u5409\u91ce\u5ddd\u4e2d\u6d41\u57df\u7802\u9632\u5830\u5824\u6e2c\u91cf\u8a2d\u8a08\u305d\u306e2\u696d\u52d9\u59d4\u8a17","client_name":"\u56fd\u571f\u4ea4\u901a\u7701 \u56db\u56fd\u5730\u65b9\u6574\u5099\u5c40 \u56db\u56fd\u5c71\u5730\u7802\u9632\u4e8b\u52d9\u6240","boring_xml_url":47,"boring_view_url":1,"soilmap_view_url":null,"soiltest_xml_url":0,"soiltest_view_url":0},{"id":257421,"code":"B4KJ201802002-2901","latitude":"33.872222","longitude":"133.873889","source_code":"SK078837602000310002","project_name":"\u548c\u7530\u8c37\u53f3\u652f\u6e13","survey_name":"\u5e73\u621019-20\u5e74\u5ea6\u5409\u91ce\u5ddd\u4e2d\u6d41\u57df\u7802\u9632\u5830\u5824\u6e2c\u91cf\u8a2d\u8a08\u305d\u306e2\u696d\u52d9\u59d4\u8a17","client_name":"\u56fd\u571f\u4ea4\u901a\u7701 \u56db\u56fd\u5730\u65b9\u6574\u5099\u5c40 \u56db\u56fd\u5c71\u5730\u7802\u9632\u4e8b\u52d9\u6240","boring_xml_url":47,"boring_view_url":1,"soilmap_view_url":null,"soiltest_xml_url":0,"soiltest_view_url":0},{"id":257420,"code":"B4KJ201802002-2900","latitude":"33.872222","longitude":"133.873889","source_code":"SK078837602000310001","project_name":"\u548c\u7530\u8c37\u53f3\u652f\u6e13","survey_name":"\u5e73\u621019-20\u5e74\u5ea6\u5409\u91ce\u5ddd\u4e2d\u6d41\u57df\u7802\u9632\u5830\u5824\u6e2c\u91cf\u8a2d\u8a08\u305d\u306e2\u696d\u52d9\u59d4\u8a17","client_name":"\u56fd\u571f\u4ea4\u901a\u7701 \u56db\u56fd\u5730\u65b9\u6574\u5099\u5c40 \u56db\u56fd\u5c71\u5730\u7802\u9632\u4e8b\u52d9\u6240","boring_xml_url":47,"boring_view_url":1,"soilmap_view_url":null,"soiltest_xml_url":0,"soiltest_view_url":0},{"id":257419,"code":"B4KJ201802002-2899","latitude":"32.981444","longitude":"132.936611","source_code":"SK088861402000060005","project_name":"","survey_name":"\u5e73\u621020\u5e74\u5ea6 \u4e0d\u7834\u6a0b\u9580\u5916\u8a73\u7d30\u8a2d\u8a08\u696d\u52d9\u59d4\u8a17","client_name":"\u56fd\u571f\u4ea4\u901a\u7701\u56db\u56fd\u5730\u65b9\u6574\u5099\u5c40\u4e2d\u6751\u6cb3\u5ddd\u56fd\u9053\u4e8b\u52d9\u6240","boring_xml_url":47,"boring_view_url":1,"soilmap_view_url":null,"soiltest_xml_url":0,"soiltest_view_url":0},{"id":257418,"code":"B4KJ201802002-2898","latitude":"32.9815","longitude":"132.936444","source_code":"SK088861402000060004","project_name":"","survey_name":"\u5e73\u621020\u5e74\u5ea6 \u4e0d\u7834\u6a0b\u9580\u5916\u8a73\u7d30\u8a2d\u8a08\u696d\u52d9\u59d4\u8a17","client_name":"\u56fd\u571f\u4ea4\u901a\u7701\u56db\u56fd\u5730\u65b9\u6574\u5099\u5c40\u4e2d\u6751\u6cb3\u5ddd\u56fd\u9053\u4e8b\u52d9\u6240","boring_xml_url":47,"boring_view_url":1,"soilmap_view_url":null,"soiltest_xml_url":0,"soiltest_view_url":0},{"id":257417,"code":"B4KJ201802002-2897","latitude":"32.981472","longitude":"132.936389","source_code":"SK088861402000060003","project_name":"","survey_name":"\u5e73\u621020\u5e74\u5ea6 \u4e0d\u7834\u6a0b\u9580\u5916\u8a73\u7d30\u8a2d\u8a08\u696d\u52d9\u59d4\u8a17","client_name":"\u56fd\u571f\u4ea4\u901a\u7701\u56db\u56fd\u5730\u65b9\u6574\u5099\u5c40\u4e2d\u6751\u6cb3\u5ddd\u56fd\u9053\u4e8b\u52d9\u6240","boring_xml_url":47,"boring_view_url":1,"soilmap_view_url":null,"soiltest_xml_url":0,"soiltest_view_url":0}]}}