{"header":{"xyz":{"source":[],"mosaic":false},"page":2438,"raw":{"soiltest_result":"0","bbox":"57.598333,109.544722,1.933333,163.806111","page":"2438"},"conditions":{"soiltest_result":0,"north":57.598333,"west":109.544722,"south":1.933333,"east":163.806111},"success":true,"message":""},"data":{"meta":{"total":212844,"page":2438,"pages":7095,"count":30},"values":[{"id":257416,"code":"B4KJ201802002-2896","latitude":"32.984056","longitude":"132.93375","source_code":"SK088861402000060002","project_name":"","survey_name":"\u5e73\u621020\u5e74\u5ea6 \u4e0d\u7834\u6a0b\u9580\u5916\u8a73\u7d30\u8a2d\u8a08\u696d\u52d9\u59d4\u8a17","client_name":"\u56fd\u571f\u4ea4\u901a\u7701\u56db\u56fd\u5730\u65b9\u6574\u5099\u5c40\u4e2d\u6751\u6cb3\u5ddd\u56fd\u9053\u4e8b\u52d9\u6240","boring_xml_url":47,"boring_view_url":1,"soilmap_view_url":null,"soiltest_xml_url":0,"soiltest_view_url":0},{"id":257415,"code":"B4KJ201802002-2895","latitude":"32.984583","longitude":"132.933472","source_code":"SK088861402000060001","project_name":"","survey_name":"\u5e73\u621020\u5e74\u5ea6 \u4e0d\u7834\u6a0b\u9580\u5916\u8a73\u7d30\u8a2d\u8a08\u696d\u52d9\u59d4\u8a17","client_name":"\u56fd\u571f\u4ea4\u901a\u7701\u56db\u56fd\u5730\u65b9\u6574\u5099\u5c40\u4e2d\u6751\u6cb3\u5ddd\u56fd\u9053\u4e8b\u52d9\u6240","boring_xml_url":47,"boring_view_url":1,"soilmap_view_url":null,"soiltest_xml_url":0,"soiltest_view_url":0},{"id":257414,"code":"B4KJ201802002-2894","latitude":"33.885194","longitude":"133.800417","source_code":"SK078837602000300007","project_name":"\u5e73\u621019-20\u5e74\u5ea6 \u5409\u91ce\u5ddd\u4e2d\u6d41\u57df\u7802\u9632\u5830\u5824\u6e2c\u91cf\u8a2d\u8a08\u305d\u306e1\u696d\u52d9\u59d4\u8a17","survey_name":"\u5e73\u621019-20\u5e74\u5ea6 \u5409\u91ce\u5ddd\u4e2d\u6d41\u57df\u7802\u9632\u5830\u5824\u6e2c\u91cf\u8a2d\u8a08\u305d\u306e1\u696d\u52d9\u59d4\u8a17","client_name":"\u56fd\u571f\u4ea4\u901a\u7701 \u56db\u56fd\u5c71\u5730\u7802\u9632\u4e8b\u52d9\u6240","boring_xml_url":47,"boring_view_url":1,"soilmap_view_url":null,"soiltest_xml_url":0,"soiltest_view_url":0},{"id":257413,"code":"B4KJ201802002-2893","latitude":"33.885111","longitude":"133.800306","source_code":"SK078837602000300006","project_name":"\u5e73\u621019-20\u5e74\u5ea6 \u5409\u91ce\u5ddd\u4e2d\u6d41\u57df\u7802\u9632\u5830\u5824\u6e2c\u91cf\u8a2d\u8a08\u305d\u306e1\u696d\u52d9\u59d4\u8a17","survey_name":"\u5e73\u621019-20\u5e74\u5ea6 \u5409\u91ce\u5ddd\u4e2d\u6d41\u57df\u7802\u9632\u5830\u5824\u6e2c\u91cf\u8a2d\u8a08\u305d\u306e1\u696d\u52d9\u59d4\u8a17","client_name":"\u56fd\u571f\u4ea4\u901a\u7701 \u56db\u56fd\u5c71\u5730\u7802\u9632\u4e8b\u52d9\u6240","boring_xml_url":47,"boring_view_url":1,"soilmap_view_url":null,"soiltest_xml_url":0,"soiltest_view_url":0},{"id":257412,"code":"B4KJ201802002-2892","latitude":"33.885028","longitude":"133.800167","source_code":"SK078837602000300005","project_name":"\u5e73\u621019-20\u5e74\u5ea6 \u5409\u91ce\u5ddd\u4e2d\u6d41\u57df\u7802\u9632\u5830\u5824\u6e2c\u91cf\u8a2d\u8a08\u305d\u306e1\u696d\u52d9\u59d4\u8a17","survey_name":"\u5e73\u621019-20\u5e74\u5ea6 \u5409\u91ce\u5ddd\u4e2d\u6d41\u57df\u7802\u9632\u5830\u5824\u6e2c\u91cf\u8a2d\u8a08\u305d\u306e1\u696d\u52d9\u59d4\u8a17","client_name":"\u56fd\u571f\u4ea4\u901a\u7701 \u56db\u56fd\u5c71\u5730\u7802\u9632\u4e8b\u52d9\u6240","boring_xml_url":47,"boring_view_url":1,"soilmap_view_url":null,"soiltest_xml_url":0,"soiltest_view_url":0},{"id":257411,"code":"B4KJ201802002-2891","latitude":"33.964917","longitude":"133.777056","source_code":"SK078837602000300004","project_name":"\u5e73\u621019-20\u5e74\u5ea6 \u5409\u91ce\u5ddd\u4e2d\u6d41\u57df\u7802\u9632\u5830\u5824\u6e2c\u91cf\u8a2d\u8a08\u305d\u306e1\u696d\u52d9\u59d4\u8a17","survey_name":"\u5e73\u621019-20\u5e74\u5ea6 \u5409\u91ce\u5ddd\u4e2d\u6d41\u57df\u7802\u9632\u5830\u5824\u6e2c\u91cf\u8a2d\u8a08\u305d\u306e1\u696d\u52d9\u59d4\u8a17","client_name":"\u56fd\u571f\u4ea4\u901a\u7701 \u56db\u56fd\u5c71\u5730\u7802\u9632\u4e8b\u52d9\u6240","boring_xml_url":47,"boring_view_url":1,"soilmap_view_url":null,"soiltest_xml_url":0,"soiltest_view_url":0},{"id":257410,"code":"B4KJ201802002-2890","latitude":"33.964806","longitude":"133.77725","source_code":"SK078837602000300003","project_name":"\u5e73\u621019-20\u5e74\u5ea6 \u5409\u91ce\u5ddd\u4e2d\u6d41\u57df\u7802\u9632\u5830\u5824\u6e2c\u91cf\u8a2d\u8a08\u305d\u306e1\u696d\u52d9\u59d4\u8a17","survey_name":"\u5e73\u621019-20\u5e74\u5ea6 \u5409\u91ce\u5ddd\u4e2d\u6d41\u57df\u7802\u9632\u5830\u5824\u6e2c\u91cf\u8a2d\u8a08\u305d\u306e1\u696d\u52d9\u59d4\u8a17","client_name":"\u56fd\u571f\u4ea4\u901a\u7701 \u56db\u56fd\u5c71\u5730\u7802\u9632\u4e8b\u52d9\u6240","boring_xml_url":47,"boring_view_url":1,"soilmap_view_url":null,"soiltest_xml_url":0,"soiltest_view_url":0},{"id":257409,"code":"B4KJ201802002-2889","latitude":"33.965083","longitude":"133.777278","source_code":"SK078837602000300002","project_name":"\u5e73\u621019-20\u5e74\u5ea6 \u5409\u91ce\u5ddd\u4e2d\u6d41\u57df\u7802\u9632\u5830\u5824\u6e2c\u91cf\u8a2d\u8a08\u305d\u306e1\u696d\u52d9\u59d4\u8a17","survey_name":"\u5e73\u621019-20\u5e74\u5ea6 \u5409\u91ce\u5ddd\u4e2d\u6d41\u57df\u7802\u9632\u5830\u5824\u6e2c\u91cf\u8a2d\u8a08\u305d\u306e1\u696d\u52d9\u59d4\u8a17","client_name":"\u56fd\u571f\u4ea4\u901a\u7701 \u56db\u56fd\u5c71\u5730\u7802\u9632\u4e8b\u52d9\u6240","boring_xml_url":47,"boring_view_url":1,"soilmap_view_url":null,"soiltest_xml_url":0,"soiltest_view_url":0},{"id":257408,"code":"B4KJ201802002-2888","latitude":"33.964944","longitude":"133.77725","source_code":"SK078837602000300001","project_name":"\u5e73\u621019-20\u5e74\u5ea6 \u5409\u91ce\u5ddd\u4e2d\u6d41\u57df\u7802\u9632\u5830\u5824\u6e2c\u91cf\u8a2d\u8a08\u305d\u306e1\u696d\u52d9\u59d4\u8a17","survey_name":"\u5e73\u621019-20\u5e74\u5ea6 \u5409\u91ce\u5ddd\u4e2d\u6d41\u57df\u7802\u9632\u5830\u5824\u6e2c\u91cf\u8a2d\u8a08\u305d\u306e1\u696d\u52d9\u59d4\u8a17","client_name":"\u56fd\u571f\u4ea4\u901a\u7701 \u56db\u56fd\u5c71\u5730\u7802\u9632\u4e8b\u52d9\u6240","boring_xml_url":47,"boring_view_url":1,"soilmap_view_url":null,"soiltest_xml_url":0,"soiltest_view_url":0},{"id":257407,"code":"B4KJ201802002-2887","latitude":"33.47415","longitude":"133.460428","source_code":"SK088860402000150003","project_name":"\u5e73\u621020\u5e74\u5ea6 \u6ce2\u4ecb\u5ddd\u5408\u6d41\u70b9\u5730\u8cea\u8abf\u67fb\u696d\u52d9","survey_name":"\u5e73\u621020\u5e74\u5ea6 \u6ce2\u4ecb\u5ddd\u5408\u6d41\u70b9\u5730\u8cea\u8abf\u67fb\u696d\u52d9","client_name":"\u9ad8\u77e5\u6cb3\u5ddd\u56fd\u9053\u4e8b\u52d9\u6240","boring_xml_url":47,"boring_view_url":1,"soilmap_view_url":null,"soiltest_xml_url":50,"soiltest_view_url":49},{"id":257406,"code":"B4KJ201802002-2886","latitude":"33.474317","longitude":"133.460872","source_code":"SK088860402000150002","project_name":"\u5e73\u621020\u5e74\u5ea6 \u6ce2\u4ecb\u5ddd\u5408\u6d41\u70b9\u5730\u8cea\u8abf\u67fb\u696d\u52d9","survey_name":"\u5e73\u621020\u5e74\u5ea6 \u6ce2\u4ecb\u5ddd\u5408\u6d41\u70b9\u5730\u8cea\u8abf\u67fb\u696d\u52d9","client_name":"\u9ad8\u77e5\u6cb3\u5ddd\u56fd\u9053\u4e8b\u52d9\u6240","boring_xml_url":47,"boring_view_url":1,"soilmap_view_url":null,"soiltest_xml_url":50,"soiltest_view_url":49},{"id":257405,"code":"B4KJ201802002-2885","latitude":"33.474595","longitude":"133.459872","source_code":"SK088860402000150001","project_name":"\u5e73\u621020\u5e74\u5ea6 \u6ce2\u4ecb\u5ddd\u5408\u6d41\u70b9\u5730\u8cea\u8abf\u67fb\u696d\u52d9","survey_name":"\u5e73\u621020\u5e74\u5ea6 \u6ce2\u4ecb\u5ddd\u5408\u6d41\u70b9\u5730\u8cea\u8abf\u67fb\u696d\u52d9","client_name":"\u9ad8\u77e5\u6cb3\u5ddd\u56fd\u9053\u4e8b\u52d9\u6240","boring_xml_url":47,"boring_view_url":1,"soilmap_view_url":null,"soiltest_xml_url":50,"soiltest_view_url":49},{"id":257404,"code":"B4KJ201802002-2884","latitude":"33.548139","longitude":"132.550417","source_code":"SK088851622000060007","project_name":"\u5e73\u621020\u5e74\u5ea6\u80b1\u5ddd\u5824\u9632\u8cea\u7684\u8a73\u7d30\u8abf\u67fb\u696d\u52d9\u59d4\u8a17","survey_name":"\u5e73\u621020\u5e74\u5ea6\u80b1\u5ddd\u5824\u9632\u8cea\u7684\u8a73\u7d30\u8abf\u67fb\u696d\u52d9\u59d4\u8a17","client_name":"\u56fd\u571f\u4ea4\u901a\u7701\u56db\u56fd\u5730\u65b9\u6574\u5099\u5c40 \u5927\u6d32\u6cb3\u5ddd\u56fd\u9053\u4e8b\u52d9\u6240","boring_xml_url":47,"boring_view_url":1,"soilmap_view_url":null,"soiltest_xml_url":50,"soiltest_view_url":49},{"id":257403,"code":"B4KJ201802002-2883","latitude":"33.561417","longitude":"132.5305","source_code":"SK088851622000060006","project_name":"\u5e73\u621020\u5e74\u5ea6\u80b1\u5ddd\u5824\u9632\u8cea\u7684\u8a73\u7d30\u8abf\u67fb\u696d\u52d9\u59d4\u8a17","survey_name":"\u5e73\u621020\u5e74\u5ea6\u80b1\u5ddd\u5824\u9632\u8cea\u7684\u8a73\u7d30\u8abf\u67fb\u696d\u52d9\u59d4\u8a17","client_name":"\u56fd\u571f\u4ea4\u901a\u7701\u56db\u56fd\u5730\u65b9\u6574\u5099\u5c40 \u5927\u6d32\u6cb3\u5ddd\u56fd\u9053\u4e8b\u52d9\u6240","boring_xml_url":47,"boring_view_url":1,"soilmap_view_url":null,"soiltest_xml_url":50,"soiltest_view_url":49},{"id":257402,"code":"B4KJ201802002-2882","latitude":"33.561333","longitude":"132.530389","source_code":"SK088851622000060005","project_name":"\u5e73\u621020\u5e74\u5ea6\u80b1\u5ddd\u5824\u9632\u8cea\u7684\u8a73\u7d30\u8abf\u67fb\u696d\u52d9\u59d4\u8a17","survey_name":"\u5e73\u621020\u5e74\u5ea6\u80b1\u5ddd\u5824\u9632\u8cea\u7684\u8a73\u7d30\u8abf\u67fb\u696d\u52d9\u59d4\u8a17","client_name":"\u56fd\u571f\u4ea4\u901a\u7701\u56db\u56fd\u5730\u65b9\u6574\u5099\u5c40 \u5927\u6d32\u6cb3\u5ddd\u56fd\u9053\u4e8b\u52d9\u6240","boring_xml_url":47,"boring_view_url":1,"soilmap_view_url":null,"soiltest_xml_url":50,"soiltest_view_url":49},{"id":257401,"code":"B4KJ201802002-2881","latitude":"33.561278","longitude":"132.530306","source_code":"SK088851622000060004","project_name":"\u5e73\u621020\u5e74\u5ea6\u80b1\u5ddd\u5824\u9632\u8cea\u7684\u8a73\u7d30\u8abf\u67fb\u696d\u52d9\u59d4\u8a17","survey_name":"\u5e73\u621020\u5e74\u5ea6\u80b1\u5ddd\u5824\u9632\u8cea\u7684\u8a73\u7d30\u8abf\u67fb\u696d\u52d9\u59d4\u8a17","client_name":"\u56fd\u571f\u4ea4\u901a\u7701\u56db\u56fd\u5730\u65b9\u6574\u5099\u5c40 \u5927\u6d32\u6cb3\u5ddd\u56fd\u9053\u4e8b\u52d9\u6240","boring_xml_url":47,"boring_view_url":1,"soilmap_view_url":null,"soiltest_xml_url":50,"soiltest_view_url":49},{"id":257400,"code":"B4KJ201802002-2880","latitude":"33.5765","longitude":"132.526083","source_code":"SK088851622000060003","project_name":"\u5e73\u621020\u5e74\u5ea6\u80b1\u5ddd\u5824\u9632\u8cea\u7684\u8a73\u7d30\u8abf\u67fb\u696d\u52d9\u59d4\u8a17","survey_name":"\u5e73\u621020\u5e74\u5ea6\u80b1\u5ddd\u5824\u9632\u8cea\u7684\u8a73\u7d30\u8abf\u67fb\u696d\u52d9\u59d4\u8a17","client_name":"\u56fd\u571f\u4ea4\u901a\u7701\u56db\u56fd\u5730\u65b9\u6574\u5099\u5c40 \u5927\u6d32\u6cb3\u5ddd\u56fd\u9053\u4e8b\u52d9\u6240","boring_xml_url":47,"boring_view_url":1,"soilmap_view_url":null,"soiltest_xml_url":50,"soiltest_view_url":49},{"id":257399,"code":"B4KJ201802002-2879","latitude":"33.576639","longitude":"132.526111","source_code":"SK088851622000060002","project_name":"\u5e73\u621020\u5e74\u5ea6\u80b1\u5ddd\u5824\u9632\u8cea\u7684\u8a73\u7d30\u8abf\u67fb\u696d\u52d9\u59d4\u8a17","survey_name":"\u5e73\u621020\u5e74\u5ea6\u80b1\u5ddd\u5824\u9632\u8cea\u7684\u8a73\u7d30\u8abf\u67fb\u696d\u52d9\u59d4\u8a17","client_name":"\u56fd\u571f\u4ea4\u901a\u7701\u56db\u56fd\u5730\u65b9\u6574\u5099\u5c40 \u5927\u6d32\u6cb3\u5ddd\u56fd\u9053\u4e8b\u52d9\u6240","boring_xml_url":47,"boring_view_url":1,"soilmap_view_url":null,"soiltest_xml_url":50,"soiltest_view_url":49},{"id":257398,"code":"B4KJ201802002-2878","latitude":"33.576722","longitude":"132.526111","source_code":"SK088851622000060001","project_name":"\u5e73\u621020\u5e74\u5ea6\u80b1\u5ddd\u5824\u9632\u8cea\u7684\u8a73\u7d30\u8abf\u67fb\u696d\u52d9\u59d4\u8a17","survey_name":"\u5e73\u621020\u5e74\u5ea6\u80b1\u5ddd\u5824\u9632\u8cea\u7684\u8a73\u7d30\u8abf\u67fb\u696d\u52d9\u59d4\u8a17","client_name":"\u56fd\u571f\u4ea4\u901a\u7701\u56db\u56fd\u5730\u65b9\u6574\u5099\u5c40 \u5927\u6d32\u6cb3\u5ddd\u56fd\u9053\u4e8b\u52d9\u6240","boring_xml_url":47,"boring_view_url":1,"soilmap_view_url":null,"soiltest_xml_url":50,"soiltest_view_url":49},{"id":257397,"code":"B4KJ201802002-2877","latitude":"33.610917","longitude":"132.480444","source_code":"SK078851402000050002","project_name":"\u5e73\u621019\u5e74\u5ea6\u9577\u6d5c\u5927\u6a4b\u6539\u9020\u8a2d\u8a08\u5916\u696d\u52d9\u59d4\u8a17","survey_name":"\u5e73\u621019\u5e74\u5ea6\u9577\u6d5c\u5927\u6a4b\u6539\u9020\u8a2d\u8a08\u5916\u696d\u52d9\u59d4\u8a17","client_name":"\u56fd\u571f\u4ea4\u901a\u7701\u56db\u56fd\u5730\u65b9\u6574\u5099\u5c40\u5927\u6d32\u6cb3\u5ddd\u56fd\u9053\u4e8b\u52d9\u6240","boring_xml_url":47,"boring_view_url":1,"soilmap_view_url":null,"soiltest_xml_url":0,"soiltest_view_url":0},{"id":257396,"code":"B4KJ201802002-2876","latitude":"33.609083","longitude":"132.479222","source_code":"SK078851402000050001","project_name":"\u5e73\u621019\u5e74\u5ea6\u9577\u6d5c\u5927\u6a4b\u6539\u9020\u8a2d\u8a08\u5916\u696d\u52d9\u59d4\u8a17","survey_name":"\u5e73\u621019\u5e74\u5ea6\u9577\u6d5c\u5927\u6a4b\u6539\u9020\u8a2d\u8a08\u5916\u696d\u52d9\u59d4\u8a17","client_name":"\u56fd\u571f\u4ea4\u901a\u7701\u56db\u56fd\u5730\u65b9\u6574\u5099\u5c40\u5927\u6d32\u6cb3\u5ddd\u56fd\u9053\u4e8b\u52d9\u6240","boring_xml_url":47,"boring_view_url":1,"soilmap_view_url":null,"soiltest_xml_url":0,"soiltest_view_url":0},{"id":257395,"code":"B4KJ201802002-2875","latitude":"34.096667","longitude":"134.405556","source_code":"SK078830402000190001","project_name":"\u5e73\u621019\u5e74\u5ea6 \u702c\u90e8\u6f0f\u6c34\u5bfe\u7b56\u6e2c\u91cf\u8a2d\u8a08\u696d\u52d9\u59d4\u8a17","survey_name":"\u5e73\u621019\u5e74\u5ea6 \u702c\u90e8\u6f0f\u6c34\u5bfe\u7b56\u6e2c\u91cf\u8a2d\u8a08\u696d\u52d9\u59d4\u8a17","client_name":"\u56fd\u571f\u4ea4\u901a\u7701 \u56db\u56fd\u5730\u65b9\u6574\u5099\u5c40 \u5fb3\u5cf6\u6cb3\u5ddd\u56fd\u9053\u4e8b\u52d9\u5c40","boring_xml_url":47,"boring_view_url":1,"soilmap_view_url":null,"soiltest_xml_url":50,"soiltest_view_url":49},{"id":257394,"code":"B4KJ201802002-2874","latitude":"34.034361","longitude":"133.966222","source_code":"SK078830402000150003","project_name":"","survey_name":"\u5e73\u621019\u5e74\u5ea6\u5c71\u53e3\u8c37\u5ddd\u6a4b\u6881\u8a73\u7d30\u8a2d\u8a08\u696d\u52d9\u59d4\u8a17","client_name":"\u56fd\u571f\u4ea4\u901a\u7701\u56db\u56fd\u5730\u65b9\u6574\u5099\u5c40\u5fb3\u5cf6\u6cb3\u5ddd\u56fd\u9053\u4e8b\u52d9\u6240","boring_xml_url":47,"boring_view_url":1,"soilmap_view_url":null,"soiltest_xml_url":50,"soiltest_view_url":49},{"id":257393,"code":"B4KJ201802002-2873","latitude":"34.034361","longitude":"133.966472","source_code":"SK078830402000150002","project_name":"","survey_name":"\u5e73\u621019\u5e74\u5ea6\u5c71\u53e3\u8c37\u5ddd\u6a4b\u6881\u8a73\u7d30\u8a2d\u8a08\u696d\u52d9\u59d4\u8a17","client_name":"\u56fd\u571f\u4ea4\u901a\u7701\u56db\u56fd\u5730\u65b9\u6574\u5099\u5c40\u5fb3\u5cf6\u6cb3\u5ddd\u56fd\u9053\u4e8b\u52d9\u6240","boring_xml_url":47,"boring_view_url":1,"soilmap_view_url":null,"soiltest_xml_url":50,"soiltest_view_url":49},{"id":257392,"code":"B4KJ201802002-2872","latitude":"34.034361","longitude":"133.96675","source_code":"SK078830402000150001","project_name":"","survey_name":"\u5e73\u621019\u5e74\u5ea6\u5c71\u53e3\u8c37\u5ddd\u6a4b\u6881\u8a73\u7d30\u8a2d\u8a08\u696d\u52d9\u59d4\u8a17","client_name":"\u56fd\u571f\u4ea4\u901a\u7701\u56db\u56fd\u5730\u65b9\u6574\u5099\u5c40\u5fb3\u5cf6\u6cb3\u5ddd\u56fd\u9053\u4e8b\u52d9\u6240","boring_xml_url":47,"boring_view_url":1,"soilmap_view_url":null,"soiltest_xml_url":50,"soiltest_view_url":49},{"id":257391,"code":"B4KJ201802002-2871","latitude":"34.036556","longitude":"134.583167","source_code":"SK068830482000190005","project_name":"\u56db\u56fd\u6a2a\u65ad\u81ea\u52d5\u8eca\u9053","survey_name":"\u5e73\u621018-19\u5e74\u5ea6 \u5c0f\u677e\u5cf6\u5fb3\u5cf6\u6771\u9593\u5730\u8cea\u8abf\u67fb(\u305d\u306e3)\u696d\u52d9","client_name":"\u56fd\u571f\u4ea4\u901a\u7701\u56db\u56fd\u5730\u65b9\u6574\u5099\u5c40\u5fb3\u5cf6\u6cb3\u5ddd\u56fd\u9053\u4e8b\u52d9\u6240","boring_xml_url":47,"boring_view_url":1,"soilmap_view_url":null,"soiltest_xml_url":50,"soiltest_view_url":49},{"id":257390,"code":"B4KJ201802002-2870","latitude":"34.037444","longitude":"134.582972","source_code":"SK068830482000190004","project_name":"\u56db\u56fd\u6a2a\u65ad\u81ea\u52d5\u8eca\u9053","survey_name":"\u5e73\u621018-19\u5e74\u5ea6 \u5c0f\u677e\u5cf6\u5fb3\u5cf6\u6771\u9593\u5730\u8cea\u8abf\u67fb(\u305d\u306e3)\u696d\u52d9","client_name":"\u56fd\u571f\u4ea4\u901a\u7701\u56db\u56fd\u5730\u65b9\u6574\u5099\u5c40\u5fb3\u5cf6\u6cb3\u5ddd\u56fd\u9053\u4e8b\u52d9\u6240","boring_xml_url":47,"boring_view_url":1,"soilmap_view_url":null,"soiltest_xml_url":50,"soiltest_view_url":49},{"id":257389,"code":"B4KJ201802002-2869","latitude":"34.038333","longitude":"134.582806","source_code":"SK068830482000190003","project_name":"\u56db\u56fd\u6a2a\u65ad\u81ea\u52d5\u8eca\u9053","survey_name":"\u5e73\u621018-19\u5e74\u5ea6 \u5c0f\u677e\u5cf6\u5fb3\u5cf6\u6771\u9593\u5730\u8cea\u8abf\u67fb(\u305d\u306e3)\u696d\u52d9","client_name":"\u56fd\u571f\u4ea4\u901a\u7701\u56db\u56fd\u5730\u65b9\u6574\u5099\u5c40\u5fb3\u5cf6\u6cb3\u5ddd\u56fd\u9053\u4e8b\u52d9\u6240","boring_xml_url":47,"boring_view_url":1,"soilmap_view_url":null,"soiltest_xml_url":50,"soiltest_view_url":49},{"id":257388,"code":"B4KJ201802002-2868","latitude":"34.03925","longitude":"134.582694","source_code":"SK068830482000190002","project_name":"\u56db\u56fd\u6a2a\u65ad\u81ea\u52d5\u8eca\u9053","survey_name":"\u5e73\u621018-19\u5e74\u5ea6 \u5c0f\u677e\u5cf6\u5fb3\u5cf6\u6771\u9593\u5730\u8cea\u8abf\u67fb(\u305d\u306e3)\u696d\u52d9","client_name":"\u56fd\u571f\u4ea4\u901a\u7701\u56db\u56fd\u5730\u65b9\u6574\u5099\u5c40\u5fb3\u5cf6\u6cb3\u5ddd\u56fd\u9053\u4e8b\u52d9\u6240","boring_xml_url":47,"boring_view_url":1,"soilmap_view_url":null,"soiltest_xml_url":50,"soiltest_view_url":49},{"id":257387,"code":"B4KJ201802002-2867","latitude":"34.040139","longitude":"134.582694","source_code":"SK068830482000190001","project_name":"\u56db\u56fd\u6a2a\u65ad\u81ea\u52d5\u8eca\u9053","survey_name":"\u5e73\u621018-19\u5e74\u5ea6 \u5c0f\u677e\u5cf6\u5fb3\u5cf6\u6771\u9593\u5730\u8cea\u8abf\u67fb(\u305d\u306e3)\u696d\u52d9","client_name":"\u56fd\u571f\u4ea4\u901a\u7701\u56db\u56fd\u5730\u65b9\u6574\u5099\u5c40\u5fb3\u5cf6\u6cb3\u5ddd\u56fd\u9053\u4e8b\u52d9\u6240","boring_xml_url":47,"boring_view_url":1,"soilmap_view_url":null,"soiltest_xml_url":50,"soiltest_view_url":49}]}}