{"header":{"xyz":{"source":[],"mosaic":false},"page":2443,"raw":{"soiltest_result":"0","bbox":"57.598333,109.544722,1.933333,163.806111","page":"2443"},"conditions":{"soiltest_result":0,"north":57.598333,"west":109.544722,"south":1.933333,"east":163.806111},"success":true,"message":""},"data":{"meta":{"total":212844,"page":2443,"pages":7095,"count":30},"values":[{"id":257266,"code":"B4KJ201802002-2746","latitude":"34.084472","longitude":"133.64525","source_code":"SK088840552000100002","project_name":"\u5e73\u621020\u5e74\u5ea6 \u8c4a\u6d5c\u5730\u533a\u5916\u5730\u8cea\u8abf\u67fb\u696d\u52d9","survey_name":"\u5e73\u621020\u5e74\u5ea6 \u8c4a\u6d5c\u5730\u533a\u5916\u5730\u8cea\u8abf\u67fb\u696d\u52d9","client_name":"\u56fd\u571f\u4ea4\u901a\u7701 \u9999\u5ddd\u6cb3\u5ddd\u56fd\u9053\u4e8b\u52d9\u6240","boring_xml_url":47,"boring_view_url":1,"soilmap_view_url":null,"soiltest_xml_url":50,"soiltest_view_url":49},{"id":257265,"code":"B4KJ201802002-2745","latitude":"34.0845","longitude":"133.645472","source_code":"SK088840552000100001","project_name":"\u5e73\u621020\u5e74\u5ea6 \u8c4a\u6d5c\u5730\u533a\u5916\u5730\u8cea\u8abf\u67fb\u696d\u52d9","survey_name":"\u5e73\u621020\u5e74\u5ea6 \u8c4a\u6d5c\u5730\u533a\u5916\u5730\u8cea\u8abf\u67fb\u696d\u52d9","client_name":"\u56fd\u571f\u4ea4\u901a\u7701 \u56db\u56fd\u5730\u65b9\u6574\u5099\u5c40 \u9999\u5ddd\u6cb3\u5ddd\u56fd\u9053\u4e8b\u52d9\u6240","boring_xml_url":47,"boring_view_url":1,"soilmap_view_url":null,"soiltest_xml_url":50,"soiltest_view_url":49},{"id":257264,"code":"B4KJ201802002-2744","latitude":"33.912139","longitude":"133.202972","source_code":"SK058850622000050007","project_name":"","survey_name":"\u5e73\u621017-18\u5e74\u5ea6 \u65b0\u5c45\u6d5cBP\u5730\u8cea\u8abf\u67fb\u696d\u52d9","client_name":"\u56fd\u571f\u4ea4\u901a\u7701 \u56db\u56fd\u5730\u65b9\u6574\u5099\u5c40 \u677e\u5c71\u6cb3\u5ddd\u56fd\u9053\u5de5\u4e8b\u4e8b\u52d9\u6240","boring_xml_url":47,"boring_view_url":1,"soilmap_view_url":null,"soiltest_xml_url":50,"soiltest_view_url":49},{"id":257263,"code":"B4KJ201802002-2743","latitude":"33.928056","longitude":"133.267056","source_code":"SK058850622000050006","project_name":"","survey_name":"\u5e73\u621017-18\u5e74\u5ea6 \u65b0\u5c45\u6d5cBP\u5730\u8cea\u8abf\u67fb\u696d\u52d9","client_name":"\u56fd\u571f\u4ea4\u901a\u7701 \u56db\u56fd\u5730\u65b9\u6574\u5099\u5c40 \u677e\u5c71\u6cb3\u5ddd\u56fd\u9053\u5de5\u4e8b\u4e8b\u52d9\u6240","boring_xml_url":47,"boring_view_url":1,"soilmap_view_url":null,"soiltest_xml_url":0,"soiltest_view_url":0},{"id":257262,"code":"B4KJ201802002-2742","latitude":"33.936389","longitude":"133.279444","source_code":"SK058850622000050005","project_name":"","survey_name":"\u5e73\u621017-18\u5e74\u5ea6 \u65b0\u5c45\u6d5cBP\u5730\u8cea\u8abf\u67fb\u696d\u52d9","client_name":"\u56fd\u571f\u4ea4\u901a\u7701 \u56db\u56fd\u5730\u65b9\u6574\u5099\u5c40 \u677e\u5c71\u6cb3\u5ddd\u56fd\u9053\u5de5\u4e8b\u4e8b\u52d9\u6240","boring_xml_url":47,"boring_view_url":1,"soilmap_view_url":null,"soiltest_xml_url":50,"soiltest_view_url":49},{"id":257261,"code":"B4KJ201802002-2741","latitude":"33.936667","longitude":"133.279444","source_code":"SK058850622000050004","project_name":"","survey_name":"\u5e73\u621017-18\u5e74\u5ea6 \u65b0\u5c45\u6d5cBP\u5730\u8cea\u8abf\u67fb\u696d\u52d9","client_name":"\u56fd\u571f\u4ea4\u901a\u7701 \u56db\u56fd\u5730\u65b9\u6574\u5099\u5c40 \u677e\u5c71\u6cb3\u5ddd\u56fd\u9053\u5de5\u4e8b\u4e8b\u52d9\u6240","boring_xml_url":47,"boring_view_url":1,"soilmap_view_url":null,"soiltest_xml_url":50,"soiltest_view_url":49},{"id":257260,"code":"B4KJ201802002-2740","latitude":"33.936111","longitude":"133.278889","source_code":"SK058850622000050003","project_name":"","survey_name":"\u5e73\u621017-18\u5e74\u5ea6 \u65b0\u5c45\u6d5cBP\u5730\u8cea\u8abf\u67fb\u696d\u52d9","client_name":"\u56fd\u571f\u4ea4\u901a\u7701 \u56db\u56fd\u5730\u65b9\u6574\u5099\u5c40 \u677e\u5c71\u6cb3\u5ddd\u56fd\u9053\u5de5\u4e8b\u4e8b\u52d9\u6240","boring_xml_url":47,"boring_view_url":1,"soilmap_view_url":null,"soiltest_xml_url":0,"soiltest_view_url":0},{"id":257259,"code":"B4KJ201802002-2739","latitude":"33.935833","longitude":"133.277222","source_code":"SK058850622000050002","project_name":"","survey_name":"\u5e73\u621017-18\u5e74\u5ea6 \u65b0\u5c45\u6d5cBP\u5730\u8cea\u8abf\u67fb\u696d\u52d9","client_name":"\u56fd\u571f\u4ea4\u901a\u7701 \u56db\u56fd\u5730\u65b9\u6574\u5099\u5c40 \u677e\u5c71\u6cb3\u5ddd\u56fd\u9053\u5de5\u4e8b\u4e8b\u52d9\u6240","boring_xml_url":47,"boring_view_url":1,"soilmap_view_url":null,"soiltest_xml_url":50,"soiltest_view_url":49},{"id":257258,"code":"B4KJ201802002-2738","latitude":"33.936389","longitude":"133.277222","source_code":"SK058850622000050001","project_name":"","survey_name":"\u5e73\u621017-18\u5e74\u5ea6 \u65b0\u5c45\u6d5cBP\u5730\u8cea\u8abf\u67fb\u696d\u52d9","client_name":"\u56fd\u571f\u4ea4\u901a\u7701 \u56db\u56fd\u5730\u65b9\u6574\u5099\u5c40 \u677e\u5c71\u6cb3\u5ddd\u56fd\u9053\u5de5\u4e8b\u4e8b\u52d9\u6240","boring_xml_url":47,"boring_view_url":1,"soilmap_view_url":null,"soiltest_xml_url":0,"soiltest_view_url":0},{"id":257257,"code":"B4KJ201802002-2737","latitude":"33.45225","longitude":"133.4645","source_code":"SK088860602000260011","project_name":"\u5e73\u621020-21\u5e74\u5ea6  \u9ad8\u77e5\u6d77\u5cb8\u5730\u8cea\u8abf\u67fb\u696d\u52d9","survey_name":"\u5e73\u621020-21\u5e74\u5ea6  \u9ad8\u77e5\u6d77\u5cb8\u5730\u8cea\u8abf\u67fb\u696d\u52d9","client_name":"\u56fd\u571f\u4ea4\u901a\u7701  \u56db\u56fd\u5730\u65b9\u6574\u5099\u5c40  \u9ad8\u77e5\u6cb3\u5ddd\u56fd\u9053\u4e8b\u52d9\u6240","boring_xml_url":47,"boring_view_url":1,"soilmap_view_url":null,"soiltest_xml_url":50,"soiltest_view_url":49},{"id":257256,"code":"B4KJ201802002-2736","latitude":"33.4615","longitude":"133.484778","source_code":"SK088860602000260010","project_name":"\u5e73\u621020-21\u5e74\u5ea6  \u9ad8\u77e5\u6d77\u5cb8\u5730\u8cea\u8abf\u67fb\u696d\u52d9","survey_name":"\u5e73\u621020-21\u5e74\u5ea6  \u9ad8\u77e5\u6d77\u5cb8\u5730\u8cea\u8abf\u67fb\u696d\u52d9","client_name":"\u56fd\u571f\u4ea4\u901a\u7701  \u56db\u56fd\u5730\u65b9\u6574\u5099\u5c40  \u9ad8\u77e5\u6cb3\u5ddd\u56fd\u9053\u4e8b\u52d9\u6240","boring_xml_url":47,"boring_view_url":1,"soilmap_view_url":null,"soiltest_xml_url":50,"soiltest_view_url":49},{"id":257255,"code":"B4KJ201802002-2735","latitude":"33.465417","longitude":"133.495056","source_code":"SK088860602000260009","project_name":"\u5e73\u621020-21\u5e74\u5ea6  \u9ad8\u77e5\u6d77\u5cb8\u5730\u8cea\u8abf\u67fb\u696d\u52d9","survey_name":"\u5e73\u621020-21\u5e74\u5ea6  \u9ad8\u77e5\u6d77\u5cb8\u5730\u8cea\u8abf\u67fb\u696d\u52d9","client_name":"\u56fd\u571f\u4ea4\u901a\u7701  \u56db\u56fd\u5730\u65b9\u6574\u5099\u5c40  \u9ad8\u77e5\u6cb3\u5ddd\u56fd\u9053\u4e8b\u52d9\u6240","boring_xml_url":47,"boring_view_url":1,"soilmap_view_url":null,"soiltest_xml_url":50,"soiltest_view_url":49},{"id":257254,"code":"B4KJ201802002-2734","latitude":"33.482139","longitude":"133.53125","source_code":"SK088860602000260008","project_name":"\u5e73\u621020-21\u5e74\u5ea6  \u9ad8\u77e5\u6d77\u5cb8\u5730\u8cea\u8abf\u67fb\u696d\u52d9","survey_name":"\u5e73\u621020-21\u5e74\u5ea6  \u9ad8\u77e5\u6d77\u5cb8\u5730\u8cea\u8abf\u67fb\u696d\u52d9","client_name":"\u56fd\u571f\u4ea4\u901a\u7701  \u56db\u56fd\u5730\u65b9\u6574\u5099\u5c40  \u9ad8\u77e5\u6cb3\u5ddd\u56fd\u9053\u4e8b\u52d9\u6240","boring_xml_url":47,"boring_view_url":1,"soilmap_view_url":null,"soiltest_xml_url":50,"soiltest_view_url":49},{"id":257253,"code":"B4KJ201802002-2733","latitude":"33.489694","longitude":"133.553056","source_code":"SK088860602000260007","project_name":"\u5e73\u621020-21\u5e74\u5ea6  \u9ad8\u77e5\u6d77\u5cb8\u5730\u8cea\u8abf\u67fb\u696d\u52d9","survey_name":"\u5e73\u621020-21\u5e74\u5ea6  \u9ad8\u77e5\u6d77\u5cb8\u5730\u8cea\u8abf\u67fb\u696d\u52d9","client_name":"\u56fd\u571f\u4ea4\u901a\u7701  \u56db\u56fd\u5730\u65b9\u6574\u5099\u5c40  \u9ad8\u77e5\u6cb3\u5ddd\u56fd\u9053\u4e8b\u52d9\u6240","boring_xml_url":47,"boring_view_url":1,"soilmap_view_url":null,"soiltest_xml_url":50,"soiltest_view_url":49},{"id":257252,"code":"B4KJ201802002-2732","latitude":"33.526028","longitude":"133.632056","source_code":"SK088860602000260006","project_name":"\u5e73\u621020-21\u5e74\u5ea6  \u9ad8\u77e5\u6d77\u5cb8\u5730\u8cea\u8abf\u67fb\u696d\u52d9","survey_name":"\u5e73\u621020-21\u5e74\u5ea6  \u9ad8\u77e5\u6d77\u5cb8\u5730\u8cea\u8abf\u67fb\u696d\u52d9","client_name":"\u56fd\u571f\u4ea4\u901a\u7701  \u56db\u56fd\u5730\u65b9\u6574\u5099\u5c40  \u9ad8\u77e5\u6cb3\u5ddd\u56fd\u9053\u4e8b\u52d9\u6240","boring_xml_url":47,"boring_view_url":1,"soilmap_view_url":null,"soiltest_xml_url":50,"soiltest_view_url":49},{"id":257251,"code":"B4KJ201802002-2731","latitude":"33.456639","longitude":"133.472139","source_code":"SK088860602000260005","project_name":"\u5e73\u621020-21\u5e74\u5ea6  \u9ad8\u77e5\u6d77\u5cb8\u5730\u8cea\u8abf\u67fb\u696d\u52d9","survey_name":"\u5e73\u621020-21\u5e74\u5ea6  \u9ad8\u77e5\u6d77\u5cb8\u5730\u8cea\u8abf\u67fb\u696d\u52d9","client_name":"\u56fd\u571f\u4ea4\u901a\u7701  \u56db\u56fd\u5730\u65b9\u6574\u5099\u5c40  \u9ad8\u77e5\u6cb3\u5ddd\u56fd\u9053\u4e8b\u52d9\u6240","boring_xml_url":47,"boring_view_url":1,"soilmap_view_url":null,"soiltest_xml_url":50,"soiltest_view_url":49},{"id":257250,"code":"B4KJ201802002-2730","latitude":"33.454667","longitude":"133.468556","source_code":"SK088860602000260004","project_name":"\u5e73\u621020-21\u5e74\u5ea6  \u9ad8\u77e5\u6d77\u5cb8\u5730\u8cea\u8abf\u67fb\u696d\u52d9","survey_name":"\u5e73\u621020-21\u5e74\u5ea6  \u9ad8\u77e5\u6d77\u5cb8\u5730\u8cea\u8abf\u67fb\u696d\u52d9","client_name":"\u56fd\u571f\u4ea4\u901a\u7701  \u56db\u56fd\u5730\u65b9\u6574\u5099\u5c40  \u9ad8\u77e5\u6cb3\u5ddd\u56fd\u9053\u4e8b\u52d9\u6240","boring_xml_url":47,"boring_view_url":1,"soilmap_view_url":null,"soiltest_xml_url":50,"soiltest_view_url":49},{"id":257249,"code":"B4KJ201802002-2729","latitude":"33.466361","longitude":"133.494083","source_code":"SK088860602000260003","project_name":"\u5e73\u621020-21\u5e74\u5ea6  \u9ad8\u77e5\u6d77\u5cb8\u5730\u8cea\u8abf\u67fb\u696d\u52d9","survey_name":"\u5e73\u621020-21\u5e74\u5ea6  \u9ad8\u77e5\u6d77\u5cb8\u5730\u8cea\u8abf\u67fb\u696d\u52d9","client_name":"\u56fd\u571f\u4ea4\u901a\u7701  \u56db\u56fd\u5730\u65b9\u6574\u5099\u5c40  \u9ad8\u77e5\u6cb3\u5ddd\u56fd\u9053\u4e8b\u52d9\u6240","boring_xml_url":47,"boring_view_url":1,"soilmap_view_url":null,"soiltest_xml_url":50,"soiltest_view_url":49},{"id":257248,"code":"B4KJ201802002-2728","latitude":"33.4775","longitude":"133.51825","source_code":"SK088860602000260002","project_name":"\u5e73\u621020-21\u5e74\u5ea6  \u9ad8\u77e5\u6d77\u5cb8\u5730\u8cea\u8abf\u67fb\u696d\u52d9","survey_name":"\u5e73\u621020-21\u5e74\u5ea6  \u9ad8\u77e5\u6d77\u5cb8\u5730\u8cea\u8abf\u67fb\u696d\u52d9","client_name":"\u56fd\u571f\u4ea4\u901a\u7701  \u56db\u56fd\u5730\u65b9\u6574\u5099\u5c40  \u9ad8\u77e5\u6cb3\u5ddd\u56fd\u9053\u4e8b\u52d9\u6240","boring_xml_url":47,"boring_view_url":1,"soilmap_view_url":null,"soiltest_xml_url":50,"soiltest_view_url":49},{"id":257247,"code":"B4KJ201802002-2727","latitude":"33.492194","longitude":"133.560111","source_code":"SK088860602000260001","project_name":"\u5e73\u621020-21\u5e74\u5ea6  \u9ad8\u77e5\u6d77\u5cb8\u5730\u8cea\u8abf\u67fb\u696d\u52d9","survey_name":"\u5e73\u621020-21\u5e74\u5ea6  \u9ad8\u77e5\u6d77\u5cb8\u5730\u8cea\u8abf\u67fb\u696d\u52d9","client_name":"\u56fd\u571f\u4ea4\u901a\u7701  \u56db\u56fd\u5730\u65b9\u6574\u5099\u5c40  \u9ad8\u77e5\u6cb3\u5ddd\u56fd\u9053\u4e8b\u52d9\u6240","boring_xml_url":47,"boring_view_url":1,"soilmap_view_url":null,"soiltest_xml_url":50,"soiltest_view_url":49},{"id":257246,"code":"B4KJ201802002-2726","latitude":"33.810537","longitude":"132.734967","source_code":"SK098850622000090008","project_name":"","survey_name":"\u5e73\u621021\u5e74\u5ea6 \u677e\u5c71\u5916\u74b0\u72b6\u9053\u8def\u5730\u8cea\u8abf\u67fb\u696d\u52d9","client_name":"\u56fd\u571f\u4ea4\u901a\u7701\u56db\u56fd\u5730\u65b9\u6574\u5099\u5c40\u677e\u5c71\u6cb3\u5ddd\u56fd\u9053\u4e8b\u52d9\u6240","boring_xml_url":47,"boring_view_url":1,"soilmap_view_url":null,"soiltest_xml_url":0,"soiltest_view_url":0},{"id":257245,"code":"B4KJ201802002-2725","latitude":"33.809704","longitude":"132.735522","source_code":"SK098850622000090007","project_name":"","survey_name":"\u5e73\u621021\u5e74\u5ea6 \u677e\u5c71\u5916\u74b0\u72b6\u9053\u8def\u5730\u8cea\u8abf\u67fb\u696d\u52d9","client_name":"\u56fd\u571f\u4ea4\u901a\u7701\u56db\u56fd\u5730\u65b9\u6574\u5099\u5c40\u677e\u5c71\u6cb3\u5ddd\u56fd\u9053\u4e8b\u52d9\u6240","boring_xml_url":47,"boring_view_url":1,"soilmap_view_url":null,"soiltest_xml_url":0,"soiltest_view_url":0},{"id":257244,"code":"B4KJ201802002-2724","latitude":"33.809982","longitude":"132.7358","source_code":"SK098850622000090006","project_name":"","survey_name":"\u5e73\u621021\u5e74\u5ea6 \u677e\u5c71\u5916\u74b0\u72b6\u9053\u8def\u5730\u8cea\u8abf\u67fb\u696d\u52d9","client_name":"\u56fd\u571f\u4ea4\u901a\u7701\u56db\u56fd\u5730\u65b9\u6574\u5099\u5c40\u677e\u5c71\u6cb3\u5ddd\u56fd\u9053\u4e8b\u52d9\u6240","boring_xml_url":47,"boring_view_url":1,"soilmap_view_url":null,"soiltest_xml_url":0,"soiltest_view_url":0},{"id":257243,"code":"B4KJ201802002-2723","latitude":"33.809704","longitude":"132.736356","source_code":"SK098850622000090005","project_name":"","survey_name":"\u5e73\u621021\u5e74\u5ea6 \u677e\u5c71\u5916\u74b0\u72b6\u9053\u8def\u5730\u8cea\u8abf\u67fb\u696d\u52d9","client_name":"\u56fd\u571f\u4ea4\u901a\u7701\u56db\u56fd\u5730\u65b9\u6574\u5099\u5c40\u677e\u5c71\u6cb3\u5ddd\u56fd\u9053\u4e8b\u52d9\u6240","boring_xml_url":47,"boring_view_url":1,"soilmap_view_url":null,"soiltest_xml_url":0,"soiltest_view_url":0},{"id":257242,"code":"B4KJ201802002-2722","latitude":"33.806372","longitude":"132.753577","source_code":"SK098850622000090004","project_name":"","survey_name":"\u5e73\u621021\u5e74\u5ea6 \u677e\u5c71\u5916\u74b0\u72b6\u9053\u8def\u5730\u8cea\u8abf\u67fb\u696d\u52d9","client_name":"\u56fd\u571f\u4ea4\u901a\u7701\u56db\u56fd\u5730\u65b9\u6574\u5099\u5c40\u677e\u5c71\u6cb3\u5ddd\u56fd\u9053\u4e8b\u52d9\u6240","boring_xml_url":47,"boring_view_url":1,"soilmap_view_url":null,"soiltest_xml_url":0,"soiltest_view_url":0},{"id":257241,"code":"B4KJ201802002-2721","latitude":"33.806927","longitude":"132.753854","source_code":"SK098850622000090003","project_name":"","survey_name":"\u5e73\u621021\u5e74\u5ea6 \u677e\u5c71\u5916\u74b0\u72b6\u9053\u8def\u5730\u8cea\u8abf\u67fb\u696d\u52d9","client_name":"\u56fd\u571f\u4ea4\u901a\u7701\u56db\u56fd\u5730\u65b9\u6574\u5099\u5c40\u677e\u5c71\u6cb3\u5ddd\u56fd\u9053\u4e8b\u52d9\u6240","boring_xml_url":47,"boring_view_url":1,"soilmap_view_url":null,"soiltest_xml_url":0,"soiltest_view_url":0},{"id":257240,"code":"B4KJ201802002-2720","latitude":"33.802206","longitude":"132.76552","source_code":"SK098850622000090002","project_name":"","survey_name":"\u5e73\u621021\u5e74\u5ea6 \u677e\u5c71\u5916\u74b0\u72b6\u9053\u8def\u5730\u8cea\u8abf\u67fb\u696d\u52d9","client_name":"\u56fd\u571f\u4ea4\u901a\u7701\u56db\u56fd\u5730\u65b9\u6574\u5099\u5c40\u677e\u5c71\u6cb3\u5ddd\u56fd\u9053\u4e8b\u52d9\u6240","boring_xml_url":47,"boring_view_url":1,"soilmap_view_url":null,"soiltest_xml_url":0,"soiltest_view_url":0},{"id":257239,"code":"B4KJ201802002-2719","latitude":"33.802483","longitude":"132.76552","source_code":"SK098850622000090001","project_name":"","survey_name":"\u5e73\u621021\u5e74\u5ea6 \u677e\u5c71\u5916\u74b0\u72b6\u9053\u8def\u5730\u8cea\u8abf\u67fb\u696d\u52d9","client_name":"\u56fd\u571f\u4ea4\u901a\u7701\u56db\u56fd\u5730\u65b9\u6574\u5099\u5c40\u677e\u5c71\u6cb3\u5ddd\u56fd\u9053\u4e8b\u52d9\u6240","boring_xml_url":47,"boring_view_url":1,"soilmap_view_url":null,"soiltest_xml_url":0,"soiltest_view_url":0},{"id":257238,"code":"B4KJ201802002-2718","latitude":"33.99433","longitude":"133.031964","source_code":"SK098850622000240010","project_name":"\u5e73\u621021\u5e74\u5ea6","survey_name":"\u4eca\u6cbb\u9053\u8def\u5730\u8cea\u8abf\u67fb\u696d\u52d9","client_name":"\u56fd\u571f\u4ea4\u901a\u7701\u56db\u56fd\u5730\u65b9\u6574\u5099\u5c40\u677e\u5c71\u6cb3\u5ddd\u56fd\u9053\u4e8b\u52d9\u6240","boring_xml_url":47,"boring_view_url":1,"soilmap_view_url":null,"soiltest_xml_url":0,"soiltest_view_url":0},{"id":257237,"code":"B4KJ201802002-2717","latitude":"33.994302","longitude":"133.031825","source_code":"SK098850622000240009","project_name":"\u5e73\u621021\u5e74\u5ea6","survey_name":"\u4eca\u6cbb\u9053\u8def\u5730\u8cea\u8abf\u67fb\u696d\u52d9","client_name":"\u56fd\u571f\u4ea4\u901a\u7701\u56db\u56fd\u5730\u65b9\u6574\u5099\u5c40\u677e\u5c71\u6cb3\u5ddd\u56fd\u9053\u4e8b\u52d9\u6240","boring_xml_url":47,"boring_view_url":1,"soilmap_view_url":null,"soiltest_xml_url":0,"soiltest_view_url":0}]}}