{"header":{"xyz":{"source":[],"mosaic":false},"page":2452,"raw":{"soiltest_result":"0","bbox":"57.598333,109.544722,1.933333,163.806111","page":"2452"},"conditions":{"soiltest_result":0,"north":57.598333,"west":109.544722,"south":1.933333,"east":163.806111},"success":true,"message":""},"data":{"meta":{"total":212844,"page":2452,"pages":7095,"count":30},"values":[{"id":256996,"code":"B4KJ201802002-2476","latitude":"33.808222","longitude":"134.361194","source_code":"SK078834602000190003","project_name":"\u5e73\u621019\u5e74\u5ea6\u9577\u5b89\u53e3\u30c0\u30e0\u5730\u8cea\u8abf\u67fb\u696d\u52d9","survey_name":"\u5e73\u621019\u5e74\u5ea6\u9577\u5b89\u53e3\u30c0\u30e0\u5730\u8cea\u8abf\u67fb\u696d\u52d9","client_name":"\u56db\u56fd\u5730\u65b9\u6574\u5099\u5c40 \u90a3\u8cc0\u5ddd\u6cb3\u5ddd\u4e8b\u52d9\u6240","boring_xml_url":47,"boring_view_url":1,"soilmap_view_url":null,"soiltest_xml_url":0,"soiltest_view_url":0},{"id":256995,"code":"B4KJ201802002-2475","latitude":"33.806917","longitude":"134.361194","source_code":"SK078834602000190002","project_name":"\u5e73\u621019\u5e74\u5ea6\u9577\u5b89\u53e3\u30c0\u30e0\u5730\u8cea\u8abf\u67fb\u696d\u52d9","survey_name":"\u5e73\u621019\u5e74\u5ea6\u9577\u5b89\u53e3\u30c0\u30e0\u5730\u8cea\u8abf\u67fb\u696d\u52d9","client_name":"\u56db\u56fd\u5730\u65b9\u6574\u5099\u5c40 \u90a3\u8cc0\u5ddd\u6cb3\u5ddd\u4e8b\u52d9\u6240","boring_xml_url":47,"boring_view_url":1,"soilmap_view_url":null,"soiltest_xml_url":0,"soiltest_view_url":0},{"id":256994,"code":"B4KJ201802002-2474","latitude":"33.807833","longitude":"134.359917","source_code":"SK078834602000190001","project_name":"\u5e73\u621019\u5e74\u5ea6 \u9577\u5b89\u53e3\u30c0\u30e0\u5730\u8cea\u8abf\u67fb\u696d\u52d9","survey_name":"\u5e73\u621019\u5e74\u5ea6 \u9577\u5b89\u53e3\u30c0\u30e0\u5730\u8cea\u8abf\u67fb\u696d\u52d9","client_name":"\u56db\u56fd\u5730\u65b9\u6574\u5099\u5c40 \u90a3\u8cc0\u5ddd\u6cb3\u5ddd\u4e8b\u52d9\u6240","boring_xml_url":47,"boring_view_url":1,"soilmap_view_url":null,"soiltest_xml_url":0,"soiltest_view_url":0},{"id":256993,"code":"B4KJ201802002-2473","latitude":"33.797639","longitude":"132.954222","source_code":"SK078837402000130003","project_name":"\u5e73\u621019\u5e74\u5ea6 \u5c0f\u8c37\u5830\u5824\u6e2c\u91cf\u8a2d\u8a08\u696d\u52d9\u59d4\u8a17","survey_name":"\u5e73\u621019\u5e74\u5ea6 \u5c0f\u8c37\u5830\u5824\u6e2c\u91cf\u8a2d\u8a08\u696d\u52d9\u59d4\u8a17","client_name":"\u56db\u56fd\u5730\u65b9\u6574\u5099\u5c40 \u5c71\u5730\u7802\u9632\u4e8b\u52d9\u6240 \u5de5\u52d9\u8ab2","boring_xml_url":47,"boring_view_url":1,"soilmap_view_url":null,"soiltest_xml_url":0,"soiltest_view_url":0},{"id":256992,"code":"B4KJ201802002-2472","latitude":"33.797528","longitude":"132.954472","source_code":"SK078837402000130002","project_name":"\u5e73\u621019\u5e74\u5ea6 \u5c0f\u8c37\u5830\u5824\u6e2c\u91cf\u8a2d\u8a08\u696d\u52d9","survey_name":"\u5e73\u621019\u5e74\u5ea6 \u5c0f\u8c37\u5830\u5824\u6e2c\u91cf\u8a2d\u8a08\u696d\u52d9","client_name":"\u56db\u56fd\u5730\u65b9\u6574\u5099\u5c40 \u5c71\u5730\u7802\u9632\u4e8b\u52d9\u6240 \u5de5\u52d9\u8ab2","boring_xml_url":47,"boring_view_url":1,"soilmap_view_url":null,"soiltest_xml_url":0,"soiltest_view_url":0},{"id":256991,"code":"B4KJ201802002-2471","latitude":"33.797583","longitude":"132.954333","source_code":"SK078837402000130001","project_name":"\u5e73\u621019\u5e74\u5ea6 \u5c0f\u8c37\u5830\u5824\u6e2c\u91cf\u8a2d\u8a08\u696d\u52d9","survey_name":"\u5e73\u621019\u5e74\u5ea6 \u5c0f\u8c37\u5830\u5824\u6e2c\u91cf\u8a2d\u8a08\u696d\u52d9","client_name":"\u56db\u56fd\u5730\u65b9\u6574\u5099\u5c40 \u5c71\u5730\u7802\u9632\u4e8b\u52d9\u6240 \u5de5\u52d9\u8ab2","boring_xml_url":47,"boring_view_url":1,"soilmap_view_url":null,"soiltest_xml_url":0,"soiltest_view_url":0},{"id":256990,"code":"B4KJ201802002-2470","latitude":"33.785861","longitude":"133.425917","source_code":"SK078837602000040004","project_name":"\u5e73\u621019\u5e74\u5ea6 \u5dba\u5317\u5730\u533a\u5730\u8cea\u8abf\u67fb\u696d\u52d9","survey_name":"\u5e73\u621019\u5e74\u5ea6 \u5dba\u5317\u5730\u533a\u5730\u8cea\u8abf\u67fb\u696d\u52d9","client_name":"\u56fd\u571f\u4ea4\u901a\u7701\u56db\u56fd\u5730\u65b9\u6574\u5099\u5c40\u56db\u56fd\u5c71\u5730\u7802\u9632\u4e8b\u52d9\u6240","boring_xml_url":47,"boring_view_url":1,"soilmap_view_url":null,"soiltest_xml_url":0,"soiltest_view_url":0},{"id":256989,"code":"B4KJ201802002-2469","latitude":"33.774028","longitude":"133.513389","source_code":"SK078837602000040003","project_name":"\u5e73\u621019\u5e74\u5ea6 \u5dba\u5317\u5730\u533a\u5730\u8cea\u8abf\u67fb\u696d\u52d9","survey_name":"\u5e73\u621019\u5e74\u5ea6 \u5dba\u5317\u5730\u533a\u5730\u8cea\u8abf\u67fb\u696d\u52d9","client_name":"\u56fd\u571f\u4ea4\u901a\u7701\u56db\u56fd\u5730\u65b9\u6574\u5099\u5c40\u56db\u56fd\u5c71\u5730\u7802\u9632\u4e8b\u52d9\u6240","boring_xml_url":47,"boring_view_url":1,"soilmap_view_url":null,"soiltest_xml_url":0,"soiltest_view_url":0},{"id":256988,"code":"B4KJ201802002-2468","latitude":"33.781028","longitude":"133.462667","source_code":"SK078837602000040002","project_name":"\u5e73\u621019\u5e74\u5ea6 \u5dba\u5317\u5730\u533a\u5730\u8cea\u8abf\u67fb\u696d\u52d9","survey_name":"\u5e73\u621019\u5e74\u5ea6 \u5dba\u5317\u5730\u533a\u5730\u8cea\u8abf\u67fb\u696d\u52d9","client_name":"\u56fd\u571f\u4ea4\u901a\u7701\u56db\u56fd\u5730\u65b9\u6574\u5099\u5c40\u56db\u56fd\u5c71\u5730\u7802\u9632\u4e8b\u52d9\u6240","boring_xml_url":47,"boring_view_url":1,"soilmap_view_url":null,"soiltest_xml_url":0,"soiltest_view_url":0},{"id":256987,"code":"B4KJ201802002-2467","latitude":"33.782083","longitude":"133.462472","source_code":"SK078837602000040001","project_name":"\u5e73\u621019\u5e74\u5ea6 \u5dba\u5317\u5730\u533a\u5730\u8cea\u8abf\u67fb\u696d\u52d9","survey_name":"\u5e73\u621019\u5e74\u5ea6 \u5dba\u5317\u5730\u533a\u5730\u8cea\u8abf\u67fb\u696d\u52d9","client_name":"\u56fd\u571f\u4ea4\u901a\u7701\u56db\u56fd\u5730\u65b9\u6574\u5099\u5c40\u56db\u56fd\u5c71\u5730\u7802\u9632\u4e8b\u52d9\u6240","boring_xml_url":47,"boring_view_url":1,"soilmap_view_url":null,"soiltest_xml_url":0,"soiltest_view_url":0},{"id":256986,"code":"B4KJ201802002-2466","latitude":"33.878472","longitude":"133.827806","source_code":"SK078837602000220003","project_name":"","survey_name":"\u5e73\u621019\u5e74\u5ea6 \u5584\u5fb3\u5730\u3059\u3079\u308a\u5730\u8cea\u8abf\u67fb\u696d\u52d9","client_name":"\u56fd\u571f\u4ea4\u901a\u7701\u56db\u56fd\u5730\u65b9\u6574\u5099\u5c40\u56db\u56fd\u5c71\u5730\u7802\u9632\u4e8b\u52d9\u6240","boring_xml_url":47,"boring_view_url":1,"soilmap_view_url":null,"soiltest_xml_url":0,"soiltest_view_url":0},{"id":256985,"code":"B4KJ201802002-2465","latitude":"33.878472","longitude":"133.826806","source_code":"SK078837602000220002","project_name":"","survey_name":"\u5e73\u621019\u5e74\u5ea6 \u5584\u5fb3\u5730\u3059\u3079\u308a\u5730\u8cea\u8abf\u67fb\u696d\u52d9","client_name":"\u56fd\u571f\u4ea4\u901a\u7701\u56db\u56fd\u5730\u65b9\u6574\u5099\u5c40\u56db\u56fd\u5c71\u5730\u7802\u9632\u4e8b\u52d9\u6240","boring_xml_url":47,"boring_view_url":1,"soilmap_view_url":null,"soiltest_xml_url":0,"soiltest_view_url":0},{"id":256984,"code":"B4KJ201802002-2464","latitude":"33.878972","longitude":"133.827194","source_code":"SK078837602000220001","project_name":"","survey_name":"\u5e73\u621019\u5e74\u5ea6 \u5584\u5fb3\u5730\u3059\u3079\u308a\u5730\u8cea\u8abf\u67fb\u696d\u52d9","client_name":"\u56fd\u571f\u4ea4\u901a\u7701\u56db\u56fd\u5730\u65b9\u6574\u5099\u5c40\u56db\u56fd\u5c71\u5730\u7802\u9632\u4e8b\u52d9\u6240","boring_xml_url":47,"boring_view_url":1,"soilmap_view_url":null,"soiltest_xml_url":0,"soiltest_view_url":0},{"id":256983,"code":"B4KJ201802002-2463","latitude":"33.778056","longitude":"133.770833","source_code":"SK078837602000230003","project_name":"","survey_name":"\u5e73\u621019\u5e74\u5ea6 \u6012\u7530\u30fb\u516b\u755d\u5730\u3059\u3079\u308a\u5730\u8cea\u8abf\u67fb\u696d\u52d9","client_name":"\u56fd\u571f\u4ea4\u901a\u7701\u56db\u56fd\u5730\u65b9\u6574\u5099\u5c40\u56db\u56fd\u5c71\u5730\u7802\u9632\u4e8b\u52d9\u6240","boring_xml_url":47,"boring_view_url":1,"soilmap_view_url":null,"soiltest_xml_url":0,"soiltest_view_url":0},{"id":256982,"code":"B4KJ201802002-2462","latitude":"33.778333","longitude":"133.771944","source_code":"SK078837602000230002","project_name":"","survey_name":"\u5e73\u621019\u5e74\u5ea6 \u6012\u7530\u30fb\u516b\u755d\u5730\u3059\u3079\u308a\u5730\u8cea\u8abf\u67fb\u696d\u52d9","client_name":"\u56fd\u571f\u4ea4\u901a\u7701\u56db\u56fd\u5730\u65b9\u6574\u5099\u5c40\u56db\u56fd\u5c71\u5730\u7802\u9632\u4e8b\u52d9\u6240","boring_xml_url":47,"boring_view_url":1,"soilmap_view_url":null,"soiltest_xml_url":0,"soiltest_view_url":0},{"id":256981,"code":"B4KJ201802002-2461","latitude":"33.779167","longitude":"133.773889","source_code":"SK078837602000230001","project_name":"","survey_name":"\u5e73\u621019\u5e74\u5ea6 \u6012\u7530\u30fb\u516b\u755d\u5730\u3059\u3079\u308a\u5730\u8cea\u8abf\u67fb\u696d\u52d9","client_name":"\u56fd\u571f\u4ea4\u901a\u7701\u56db\u56fd\u5730\u65b9\u6574\u5099\u5c40\u56db\u56fd\u5c71\u5730\u7802\u9632\u4e8b\u52d9\u6240","boring_xml_url":47,"boring_view_url":1,"soilmap_view_url":null,"soiltest_xml_url":0,"soiltest_view_url":0},{"id":256980,"code":"B4KJ201802002-2460","latitude":"33.744139","longitude":"133.555278","source_code":"SK078837602000240003","project_name":"\u5e73\u621019\u5e74\u5ea6 \u8c37\u306e\u672c\u8c37\u5830\u5824\u6e2c\u91cf\u8a2d\u8a08\u696d\u52d9\u59d4\u8a17","survey_name":"\u5e73\u621019\u5e74\u5ea6 \u8c37\u306e\u672c\u8c37\u5830\u5824\u6e2c\u91cf\u8a2d\u8a08\u696d\u52d9\u59d4\u8a17","client_name":"\u56fd\u571f\u4ea4\u901a\u7701\u56db\u56fd\u5730\u65b9\u6574\u5099\u5c40\u56db\u56fd\u5c71\u5730\u7802\u9632\u4e8b\u52d9\u6240","boring_xml_url":47,"boring_view_url":1,"soilmap_view_url":null,"soiltest_xml_url":0,"soiltest_view_url":0},{"id":256979,"code":"B4KJ201802002-2459","latitude":"33.744139","longitude":"133.554972","source_code":"SK078837602000240002","project_name":"\u5e73\u621019\u5e74\u5ea6 \u8c37\u306e\u672c\u8c37\u5830\u5824\u6e2c\u91cf\u8a2d\u8a08\u696d\u52d9\u59d4\u8a17","survey_name":"\u5e73\u621019\u5e74\u5ea6 \u8c37\u306e\u672c\u8c37\u5830\u5824\u6e2c\u91cf\u8a2d\u8a08\u696d\u52d9\u59d4\u8a17","client_name":"\u56fd\u571f\u4ea4\u901a\u7701\u56db\u56fd\u5730\u65b9\u6574\u5099\u5c40\u56db\u56fd\u5c71\u5730\u7802\u9632\u4e8b\u52d9\u6240","boring_xml_url":47,"boring_view_url":1,"soilmap_view_url":null,"soiltest_xml_url":0,"soiltest_view_url":0},{"id":256978,"code":"B4KJ201802002-2458","latitude":"33.744278","longitude":"133.555222","source_code":"SK078837602000240001","project_name":"\u5e73\u621019\u5e74\u5ea6 \u8c37\u306e\u672c\u8c37\u5830\u5824\u6e2c\u91cf\u8a2d\u8a08\u696d\u52d9\u59d4\u8a17","survey_name":"\u5e73\u621019\u5e74\u5ea6 \u8c37\u306e\u672c\u8c37\u5830\u5824\u6e2c\u91cf\u8a2d\u8a08\u696d\u52d9\u59d4\u8a17","client_name":"\u56fd\u571f\u4ea4\u901a\u7701\u56db\u56fd\u5730\u65b9\u6574\u5099\u5c40\u56db\u56fd\u5c71\u5730\u7802\u9632\u4e8b\u52d9\u6240","boring_xml_url":47,"boring_view_url":1,"soilmap_view_url":null,"soiltest_xml_url":0,"soiltest_view_url":0},{"id":256977,"code":"B4KJ201802002-2457","latitude":"33.318722","longitude":"133.240306","source_code":"SK078862602000280010","project_name":"","survey_name":"\u5e73\u621019\u5e74\u5ea6 \u713c\u5742\u5730\u533a\u5730\u8cea\u8abf\u67fb\u696d\u52d9","client_name":"\u56fd\u571f\u4ea4\u901a\u7701\u56db\u56fd\u5730\u65b9\u6574\u5099\u5c40\u571f\u4f50\u56fd\u9053\u4e8b\u52d9\u6240","boring_xml_url":47,"boring_view_url":1,"soilmap_view_url":null,"soiltest_xml_url":0,"soiltest_view_url":0},{"id":256976,"code":"B4KJ201802002-2456","latitude":"33.282083","longitude":"133.178361","source_code":"SK078862602000280009","project_name":"","survey_name":"\u5e73\u621019\u5e74\u5ea6 \u713c\u5742\u5730\u533a\u5730\u8cea\u8abf\u67fb\u696d\u52d9","client_name":"\u56fd\u571f\u4ea4\u901a\u7701\u56db\u56fd\u5730\u65b9\u6574\u5099\u5c40\u571f\u4f50\u56fd\u9053\u4e8b\u52d9\u6240","boring_xml_url":47,"boring_view_url":1,"soilmap_view_url":null,"soiltest_xml_url":0,"soiltest_view_url":0},{"id":256975,"code":"B4KJ201802002-2455","latitude":"33.346889","longitude":"133.227361","source_code":"SK078862602000280008","project_name":"","survey_name":"\u5e73\u621019\u5e74\u5ea6 \u713c\u5742\u5730\u533a\u5730\u8cea\u8abf\u67fb\u696d\u52d9","client_name":"\u56fd\u571f\u4ea4\u901a\u7701\u56db\u56fd\u5730\u65b9\u6574\u5099\u5c40\u571f\u4f50\u56fd\u9053\u4e8b\u52d9\u6240","boring_xml_url":47,"boring_view_url":1,"soilmap_view_url":null,"soiltest_xml_url":0,"soiltest_view_url":0},{"id":256974,"code":"B4KJ201802002-2454","latitude":"33.346806","longitude":"133.228889","source_code":"SK078862602000280007","project_name":"","survey_name":"\u5e73\u621019\u5e74\u5ea6 \u713c\u5742\u5730\u533a\u5730\u8cea\u8abf\u67fb\u696d\u52d9","client_name":"\u56fd\u571f\u4ea4\u901a\u7701\u56db\u56fd\u5730\u65b9\u6574\u5099\u5c40\u571f\u4f50\u56fd\u9053\u4e8b\u52d9\u6240","boring_xml_url":47,"boring_view_url":1,"soilmap_view_url":null,"soiltest_xml_url":0,"soiltest_view_url":0},{"id":256973,"code":"B4KJ201802002-2453","latitude":"33.346639","longitude":"133.228917","source_code":"SK078862602000280006","project_name":"","survey_name":"\u5e73\u621019\u5e74\u5ea6 \u713c\u5742\u5730\u533a\u5730\u8cea\u8abf\u67fb\u696d\u52d9","client_name":"\u56fd\u571f\u4ea4\u901a\u7701\u56db\u56fd\u5730\u65b9\u6574\u5099\u5c40\u571f\u4f50\u56fd\u9053\u4e8b\u52d9\u6240","boring_xml_url":47,"boring_view_url":1,"soilmap_view_url":null,"soiltest_xml_url":0,"soiltest_view_url":0},{"id":256972,"code":"B4KJ201802002-2452","latitude":"33.347083","longitude":"133.226861","source_code":"SK078862602000280005","project_name":"","survey_name":"\u5e73\u621019\u5e74\u5ea6 \u713c\u5742\u5730\u533a\u5730\u8cea\u8abf\u67fb\u696d\u52d9","client_name":"\u56fd\u571f\u4ea4\u901a\u7701\u56db\u56fd\u5730\u65b9\u6574\u5099\u5c40\u571f\u4f50\u56fd\u9053\u4e8b\u52d9\u6240","boring_xml_url":47,"boring_view_url":1,"soilmap_view_url":null,"soiltest_xml_url":0,"soiltest_view_url":0},{"id":256971,"code":"B4KJ201802002-2451","latitude":"33.346806","longitude":"133.23025","source_code":"SK078862602000280004","project_name":"","survey_name":"\u5e73\u621019\u5e74\u5ea6 \u713c\u5742\u5730\u533a\u5730\u8cea\u8abf\u67fb\u696d\u52d9","client_name":"\u56fd\u571f\u4ea4\u901a\u7701\u56db\u56fd\u5730\u65b9\u6574\u5099\u5c40\u571f\u4f50\u56fd\u9053\u4e8b\u52d9\u6240","boring_xml_url":47,"boring_view_url":1,"soilmap_view_url":null,"soiltest_xml_url":0,"soiltest_view_url":0},{"id":256970,"code":"B4KJ201802002-2450","latitude":"33.347472","longitude":"133.228056","source_code":"SK078862602000280003","project_name":"","survey_name":"\u5e73\u621019\u5e74\u5ea6 \u713c\u5742\u5730\u533a\u5730\u8cea\u8abf\u67fb\u696d\u52d9","client_name":"\u56fd\u571f\u4ea4\u901a\u7701\u56db\u56fd\u5730\u65b9\u6574\u5099\u5c40\u571f\u4f50\u56fd\u9053\u4e8b\u52d9\u6240","boring_xml_url":47,"boring_view_url":1,"soilmap_view_url":null,"soiltest_xml_url":0,"soiltest_view_url":0},{"id":256969,"code":"B4KJ201802002-2449","latitude":"33.342333","longitude":"133.220278","source_code":"SK078862602000280002","project_name":"","survey_name":"\u5e73\u621019\u5e74\u5ea6 \u713c\u5742\u5730\u533a\u5730\u8cea\u8abf\u67fb\u696d\u52d9","client_name":"\u56fd\u571f\u4ea4\u901a\u7701\u56db\u56fd\u5730\u65b9\u6574\u5099\u5c40\u571f\u4f50\u56fd\u9053\u4e8b\u52d9\u6240","boring_xml_url":47,"boring_view_url":1,"soilmap_view_url":null,"soiltest_xml_url":0,"soiltest_view_url":0},{"id":256968,"code":"B4KJ201802002-2448","latitude":"33.347389","longitude":"133.227778","source_code":"SK078862602000280001","project_name":"","survey_name":"\u5e73\u621019\u5e74\u5ea6 \u713c\u5742\u5730\u533a\u5730\u8cea\u8abf\u67fb\u696d\u52d9","client_name":"\u56fd\u571f\u4ea4\u901a\u7701\u56db\u56fd\u5730\u65b9\u6574\u5099\u5c40\u571f\u4f50\u56fd\u9053\u4e8b\u52d9\u6240","boring_xml_url":47,"boring_view_url":1,"soilmap_view_url":null,"soiltest_xml_url":0,"soiltest_view_url":0},{"id":256967,"code":"B4KJ201802002-2447","latitude":"33.241944","longitude":"132.566111","source_code":"SK078851412000070005","project_name":"\u5e73\u621019\u5e74\u5ea6 \u7533\u751f\u7530\u9ad8\u67b6\u6a4b\u8a73\u7d30\u8a2d\u8a08\u696d\u52d9\u59d4\u8a17","survey_name":"\u5e73\u621019\u5e74\u5ea6 \u7533\u751f\u7530\u9ad8\u67b6\u6a4b\u8a73\u7d30\u8a2d\u8a08\u696d\u52d9\u59d4\u8a17","client_name":"\u56fd\u571f\u4ea4\u901a\u7701 \u56db\u56fd\u5730\u65b9\u6574\u5099\u5c40 \u5927\u6d32\u6cb3\u5ddd\u56fd\u9053\u4e8b\u52d9\u6240","boring_xml_url":47,"boring_view_url":1,"soilmap_view_url":null,"soiltest_xml_url":0,"soiltest_view_url":0}]}}