{"header":{"xyz":{"source":[],"mosaic":false},"page":2463,"raw":{"soiltest_result":"0","bbox":"57.598333,109.544722,1.933333,163.806111","page":"2463"},"conditions":{"soiltest_result":0,"north":57.598333,"west":109.544722,"south":1.933333,"east":163.806111},"success":true,"message":""},"data":{"meta":{"total":212844,"page":2463,"pages":7095,"count":30},"values":[{"id":256666,"code":"B4KJ201802002-2146","latitude":"33.558028","longitude":"133.62775","source_code":"SK058862612000080008","project_name":"","survey_name":"\u5e73\u621017\u5e74\u5ea6 \u9ad8\u77e5\u5357\u56fd\u9053\u8def\u5730\u8cea\u8abf\u67fb\u696d\u52d9","client_name":"\u56fd\u571f\u4ea4\u901a\u7701\u56db\u56fd\u5730\u65b9\u6574\u5099\u5c40\u571f\u4f50\u56fd\u9053\u4e8b\u52d9\u6240","boring_xml_url":47,"boring_view_url":1,"soilmap_view_url":null,"soiltest_xml_url":0,"soiltest_view_url":0},{"id":256665,"code":"B4KJ201802002-2145","latitude":"33.558278","longitude":"133.626278","source_code":"SK058862612000080005","project_name":"","survey_name":"\u5e73\u621017\u5e74\u5ea6 \u9ad8\u77e5\u5357\u56fd\u9053\u8def\u5730\u8cea\u8abf\u67fb\u696d\u52d9","client_name":"\u56fd\u571f\u4ea4\u901a\u7701\u56db\u56fd\u5730\u65b9\u6574\u5099\u5c40\u571f\u4f50\u56fd\u9053\u4e8b\u52d9\u6240","boring_xml_url":47,"boring_view_url":1,"soilmap_view_url":null,"soiltest_xml_url":0,"soiltest_view_url":0},{"id":256664,"code":"B4KJ201802002-2144","latitude":"33.557944","longitude":"133.626472","source_code":"SK058862612000080004","project_name":"","survey_name":"\u5e73\u621017\u5e74\u5ea6 \u9ad8\u77e5\u5357\u56fd\u9053\u8def\u5730\u8cea\u8abf\u67fb\u696d\u52d9","client_name":"\u56fd\u571f\u4ea4\u901a\u7701\u56db\u56fd\u5730\u65b9\u6574\u5099\u5c40\u571f\u4f50\u56fd\u9053\u4e8b\u52d9\u6240","boring_xml_url":47,"boring_view_url":1,"soilmap_view_url":null,"soiltest_xml_url":0,"soiltest_view_url":0},{"id":256663,"code":"B4KJ201802002-2143","latitude":"33.557333","longitude":"133.625083","source_code":"SK058862612000080003","project_name":"","survey_name":"\u5e73\u621017\u5e74\u5ea6 \u9ad8\u77e5\u5357\u56fd\u9053\u8def\u5730\u8cea\u8abf\u67fb\u696d\u52d9","client_name":"\u56fd\u571f\u4ea4\u901a\u7701\u56db\u56fd\u5730\u65b9\u6574\u5099\u5c40\u571f\u4f50\u56fd\u9053\u4e8b\u52d9\u6240","boring_xml_url":47,"boring_view_url":1,"soilmap_view_url":null,"soiltest_xml_url":0,"soiltest_view_url":0},{"id":256662,"code":"B4KJ201802002-2142","latitude":"33.550694","longitude":"133.620583","source_code":"SK058862612000080002","project_name":"","survey_name":"\u5e73\u621017\u5e74\u5ea6 \u9ad8\u77e5\u5357\u56fd\u9053\u8def\u5730\u8cea\u8abf\u67fb\u696d\u52d9","client_name":"\u56fd\u571f\u4ea4\u901a\u7701\u56db\u56fd\u5730\u65b9\u6574\u5099\u5c40\u571f\u4f50\u56fd\u9053\u4e8b\u52d9\u6240","boring_xml_url":47,"boring_view_url":1,"soilmap_view_url":null,"soiltest_xml_url":0,"soiltest_view_url":0},{"id":256661,"code":"B4KJ201802002-2141","latitude":"33.879833","longitude":"133.828722","source_code":"SK058837602000120003","project_name":"","survey_name":"\u5e73\u621017\u5e74\u5ea6 \u5584\u5fb3\u5730\u3059\u3079\u308a\u5730\u8cea\u8abf\u67fb\u696d\u52d9","client_name":"\u56fd\u571f\u4ea4\u901a\u7701 \u56db\u56fd\u5730\u65b9\u6574\u5099\u5c40 \u56db\u56fd\u5c71\u5730\u7802\u9632\u4e8b\u52d9\u6240","boring_xml_url":47,"boring_view_url":1,"soilmap_view_url":null,"soiltest_xml_url":0,"soiltest_view_url":0},{"id":256660,"code":"B4KJ201802002-2140","latitude":"33.525167","longitude":"133.500861","source_code":"SK058837602000300008","project_name":"","survey_name":"\u5e73\u621017\u5e74\u5ea6 \u5584\u5fb3\u5730\u3059\u3079\u308a\u5730\u8cea\u8abf\u67fb\u696d\u52d9(\u305d\u306e3)","client_name":"\u56fd\u571f\u4ea4\u901a\u7701\u56db\u56fd\u5730\u65b9\u6574\u5099\u5c40\u56db\u56fd\u5c71\u5730\u7802\u9632\u4e8b\u52d9\u6240","boring_xml_url":47,"boring_view_url":1,"soilmap_view_url":null,"soiltest_xml_url":0,"soiltest_view_url":0},{"id":256659,"code":"B4KJ201802002-2139","latitude":"33.524528","longitude":"133.501806","source_code":"SK058837602000300007","project_name":"","survey_name":"\u5e73\u621017\u5e74\u5ea6 \u5584\u5fb3\u5730\u3059\u3079\u308a\u5730\u8cea\u8abf\u67fb\u696d\u52d9(\u305d\u306e3)","client_name":"\u56fd\u571f\u4ea4\u901a\u7701\u56db\u56fd\u5730\u65b9\u6574\u5099\u5c40 \u56db\u56fd\u5c71\u5730\u7802\u9632\u4e8b\u52d9\u6240","boring_xml_url":47,"boring_view_url":1,"soilmap_view_url":null,"soiltest_xml_url":0,"soiltest_view_url":0},{"id":256658,"code":"B4KJ201802002-2138","latitude":"33.524306","longitude":"133.500417","source_code":"SK058837602000300006","project_name":"","survey_name":"\u5e73\u621017\u5e74\u5ea6 \u5584\u5fb3\u5730\u3059\u3079\u308a\u5730\u8cea\u8abf\u67fb\u696d\u52d9(\u305d\u306e3)","client_name":"\u56fd\u571f\u4ea4\u901a\u7701\u56db\u56fd\u5730\u65b9\u6574\u5099\u5c40\u56db\u56fd\u5c71\u5730\u7802\u9632\u4e8b\u52d9\u6240","boring_xml_url":47,"boring_view_url":1,"soilmap_view_url":null,"soiltest_xml_url":0,"soiltest_view_url":0},{"id":256657,"code":"B4KJ201802002-2137","latitude":"33.52575","longitude":"133.500861","source_code":"SK058837602000300005","project_name":"","survey_name":"\u5e73\u621017\u5e74\u5ea6 \u5584\u5fb3\u5730\u3059\u3079\u308a\u5730\u8cea\u8abf\u67fb\u696d\u52d9(\u305d\u306e3)","client_name":"\u56fd\u571f\u4ea4\u901a\u7701\u56db\u56fd\u5730\u65b9\u6574\u5099\u5c40\u56db\u56fd\u5c71\u5730\u7802\u9632\u4e8b\u52d9\u6240","boring_xml_url":47,"boring_view_url":1,"soilmap_view_url":null,"soiltest_xml_url":0,"soiltest_view_url":0},{"id":256656,"code":"B4KJ201802002-2136","latitude":"33.530306","longitude":"133.500472","source_code":"SK058837602000300004","project_name":"","survey_name":"\u5e73\u621017\u5e74\u5ea6 \u5584\u5fb3\u5730\u3059\u3079\u308a\u5730\u8cea\u8abf\u67fb\u696d\u52d9(\u305d\u306e3)","client_name":"\u56fd\u571f\u4ea4\u901a\u7701\u56db\u56fd\u5730\u65b9\u6574\u5099\u5c40\u56db\u56fd\u5c71\u5730\u7802\u9632\u4e8b\u52d9\u6240","boring_xml_url":47,"boring_view_url":1,"soilmap_view_url":null,"soiltest_xml_url":0,"soiltest_view_url":0},{"id":256655,"code":"B4KJ201802002-2135","latitude":"33.530472","longitude":"133.500111","source_code":"SK058837602000300003","project_name":"","survey_name":"\u5e73\u621017\u5e74\u5ea6 \u5584\u5fb3\u5730\u3059\u3079\u308a\u5730\u8cea\u8abf\u67fb\u696d\u52d9(\u305d\u306e3)","client_name":"\u56fd\u571f\u4ea4\u901a\u7701\u56db\u56fd\u5730\u65b9\u6574\u5099\u5c40 \u56db\u56fd\u5c71\u5730\u7802\u9632\u4e8b\u52d9\u6240","boring_xml_url":47,"boring_view_url":1,"soilmap_view_url":null,"soiltest_xml_url":0,"soiltest_view_url":0},{"id":256654,"code":"B4KJ201802002-2134","latitude":"33.530611","longitude":"133.49575","source_code":"SK058837602000300002","project_name":"","survey_name":"\u5e73\u621017\u5e74\u5ea6 \u5584\u5fb3\u5730\u3059\u3079\u308a\u5730\u8cea\u8abf\u67fb\u696d\u52d9(\u305d\u306e3)","client_name":"\u56fd\u571f\u4ea4\u901a\u7701\u56db\u56fd\u5730\u65b9\u6574\u5099\u5c40 \u56db\u56fd\u5c71\u5730\u7802\u9632\u4e8b\u52d9\u6240","boring_xml_url":47,"boring_view_url":1,"soilmap_view_url":null,"soiltest_xml_url":0,"soiltest_view_url":0},{"id":256653,"code":"B4KJ201802002-2133","latitude":"33.530139","longitude":"133.49575","source_code":"SK058837602000300001","project_name":"","survey_name":"\u5e73\u621017\u5e74\u5ea6 \u5584\u5fb3\u5730\u3059\u3079\u308a\u5730\u8cea\u8abf\u67fb\u696d\u52d9(\u305d\u306e3)","client_name":"\u56fd\u571f\u4ea4\u901a\u7701\u56db\u56fd\u5730\u65b9\u6574\u5099\u5c40 \u56db\u56fd\u5c71\u5730\u7802\u9632\u4e8b\u52d9\u6240","boring_xml_url":47,"boring_view_url":1,"soilmap_view_url":null,"soiltest_xml_url":0,"soiltest_view_url":0},{"id":256652,"code":"B4KJ201802002-2132","latitude":"33.941667","longitude":"133.354722","source_code":"SK048850622000190005","project_name":"\u5e73\u621016-17\u5e74\u5ea6 \u8239\u6728\u5730\u533a\u5730\u8cea\u8abf\u67fb\u696d\u52d9","survey_name":"\u5e73\u621016-17\u5e74\u5ea6 \u8239\u6728\u5730\u533a\u5730\u8cea\u8abf\u67fb\u696d\u52d9","client_name":"\u56fd\u571f\u4ea4\u901a\u7701\u56db\u56fd\u5730\u65b9\u6574\u5099\u5c40\u677e\u5c71\u6cb3\u5ddd\u56fd\u9053\u4e8b\u52d9\u6240","boring_xml_url":47,"boring_view_url":1,"soilmap_view_url":null,"soiltest_xml_url":0,"soiltest_view_url":0},{"id":256651,"code":"B4KJ201802002-2131","latitude":"34.117778","longitude":"134.536111","source_code":"SK068830402000140018","project_name":"\u5e73\u621018\u5e74\u5ea6 \u4eca\u5207\u5ddd\u5824\u9632\u5730\u8cea\u8abf\u67fb\u696d\u52d9","survey_name":"\u5e73\u621018\u5e74\u5ea6 \u4eca\u5207\u5ddd\u5824\u9632\u5730\u8cea\u8abf\u67fb\u696d\u52d9","client_name":"\u56fd\u571f\u4ea4\u901a\u7701 \u56db\u56fd\u5730\u65b9\u6574\u5099\u5c40 \u5fb3\u5cf6\u6cb3\u5ddd\u56fd\u9053\u4e8b\u52d9\u6240","boring_xml_url":47,"boring_view_url":1,"soilmap_view_url":null,"soiltest_xml_url":50,"soiltest_view_url":49},{"id":256650,"code":"B4KJ201802002-2130","latitude":"34.116778","longitude":"134.536111","source_code":"SK068830402000140007","project_name":"\u5e73\u621018\u5e74\u5ea6 \u4eca\u5207\u5ddd\u5824\u9632\u5730\u8cea\u8abf\u67fb\u696d\u52d9","survey_name":"\u5e73\u621018\u5e74\u5ea6 \u4eca\u5207\u5ddd\u5824\u9632\u5730\u8cea\u8abf\u67fb\u696d\u52d9","client_name":"\u56fd\u571f\u4ea4\u901a\u7701 \u56db\u56fd\u5730\u65b9\u6574\u5099\u5c40 \u5fb3\u5cf6\u6cb3\u5ddd\u56fd\u9053\u4e8b\u52d9\u6240","boring_xml_url":47,"boring_view_url":1,"soilmap_view_url":null,"soiltest_xml_url":50,"soiltest_view_url":49},{"id":256649,"code":"B4KJ201802002-2129","latitude":"33.974056","longitude":"134.584889","source_code":"SK068830482000010027","project_name":"\u5e73\u621018\u5e74\u5ea6 \u7530\u91ce\u30c8\u30f3\u30cd\u30eb\u5916\u5730\u8cea\u8abf\u67fb\u696d\u52d9","survey_name":"\u5e73\u621018\u5e74\u5ea6 \u7530\u91ce\u30c8\u30f3\u30cd\u30eb\u5916\u5730\u8cea\u8abf\u67fb\u696d\u52d9","client_name":"\u56fd\u571f\u4ea4\u901a\u7701\u56db\u56fd\u5730\u65b9\u6574\u5099\u5c40\u5fb3\u5cf6\u6cb3\u5ddd\u56fd\u9053\u4e8b\u52d9\u6240","boring_xml_url":47,"boring_view_url":1,"soilmap_view_url":null,"soiltest_xml_url":50,"soiltest_view_url":49},{"id":256648,"code":"B4KJ201802002-2128","latitude":"33.973806","longitude":"134.585556","source_code":"SK068830482000010026","project_name":"\u5e73\u621018\u5e74\u5ea6 \u7530\u91ce\u30c8\u30f3\u30cd\u30eb\u5916\u5730\u8cea\u8abf\u67fb\u696d\u52d9","survey_name":"\u5e73\u621018\u5e74\u5ea6 \u7530\u91ce\u30c8\u30f3\u30cd\u30eb\u5916\u5730\u8cea\u8abf\u67fb\u696d\u52d9","client_name":"\u56fd\u571f\u4ea4\u901a\u7701\u56db\u56fd\u5730\u65b9\u6574\u5099\u5c40\u5fb3\u5cf6\u6cb3\u5ddd\u56fd\u9053\u4e8b\u52d9\u6240","boring_xml_url":47,"boring_view_url":1,"soilmap_view_url":null,"soiltest_xml_url":50,"soiltest_view_url":49},{"id":256647,"code":"B4KJ201802002-2127","latitude":"33.978639","longitude":"134.580139","source_code":"SK068830482000010025","project_name":"\u5e73\u621018\u5e74\u5ea6 \u7530\u91ce\u30c8\u30f3\u30cd\u30eb\u5916\u5730\u8cea\u8abf\u67fb\u696d\u52d9","survey_name":"\u5e73\u621018\u5e74\u5ea6 \u7530\u91ce\u30c8\u30f3\u30cd\u30eb\u5916\u5730\u8cea\u8abf\u67fb\u696d\u52d9","client_name":"\u56fd\u571f\u4ea4\u901a\u7701\u56db\u56fd\u5730\u65b9\u6574\u5099\u5c40\u5fb3\u5cf6\u6cb3\u5ddd\u56fd\u9053\u4e8b\u52d9\u6240","boring_xml_url":47,"boring_view_url":1,"soilmap_view_url":null,"soiltest_xml_url":0,"soiltest_view_url":0},{"id":256646,"code":"B4KJ201802002-2126","latitude":"33.978917","longitude":"134.579944","source_code":"SK068830482000010024","project_name":"\u5e73\u621018\u5e74\u5ea6 \u7530\u91ce\u30c8\u30f3\u30cd\u30eb\u5916\u5730\u8cea\u8abf\u67fb\u696d\u52d9","survey_name":"\u5e73\u621018\u5e74\u5ea6 \u7530\u91ce\u30c8\u30f3\u30cd\u30eb\u5916\u5730\u8cea\u8abf\u67fb\u696d\u52d9","client_name":"\u56fd\u571f\u4ea4\u901a\u7701\u56db\u56fd\u5730\u65b9\u6574\u5099\u5c40\u5fb3\u5cf6\u6cb3\u5ddd\u56fd\u9053\u4e8b\u52d9\u6240","boring_xml_url":47,"boring_view_url":1,"soilmap_view_url":null,"soiltest_xml_url":0,"soiltest_view_url":0},{"id":256645,"code":"B4KJ201802002-2125","latitude":"33.974444","longitude":"134.584083","source_code":"SK068830482000010023","project_name":"\u5e73\u621018\u5e74\u5ea6 \u7530\u91ce\u30c8\u30f3\u30cd\u30eb\u5916\u5730\u8cea\u8abf\u67fb\u696d\u52d9","survey_name":"\u5e73\u621018\u5e74\u5ea6 \u7530\u91ce\u30c8\u30f3\u30cd\u30eb\u5916\u5730\u8cea\u8abf\u67fb\u696d\u52d9","client_name":"\u56fd\u571f\u4ea4\u901a\u7701\u56db\u56fd\u5730\u65b9\u6574\u5099\u5c40\u5fb3\u5cf6\u6cb3\u5ddd\u56fd\u9053\u4e8b\u52d9\u6240","boring_xml_url":47,"boring_view_url":1,"soilmap_view_url":null,"soiltest_xml_url":0,"soiltest_view_url":0},{"id":256644,"code":"B4KJ201802002-2124","latitude":"33.979194","longitude":"134.579639","source_code":"SK068830482000010019","project_name":"\u5e73\u621018\u5e74\u5ea6 \u7530\u91ce\u30c8\u30f3\u30cd\u30eb\u5916\u5730\u8cea\u8abf\u67fb\u696d\u52d9","survey_name":"\u5e73\u621018\u5e74\u5ea6 \u7530\u91ce\u30c8\u30f3\u30cd\u30eb\u5916\u5730\u8cea\u8abf\u67fb\u696d\u52d9","client_name":"\u56fd\u571f\u4ea4\u901a\u7701\u56db\u56fd\u5730\u65b9\u6574\u5099\u5c40\u5fb3\u5cf6\u6cb3\u5ddd\u56fd\u9053\u4e8b\u52d9\u6240","boring_xml_url":47,"boring_view_url":1,"soilmap_view_url":null,"soiltest_xml_url":0,"soiltest_view_url":0},{"id":256643,"code":"B4KJ201802002-2123","latitude":"33.979389","longitude":"134.579861","source_code":"SK068830482000010018","project_name":"\u5e73\u621018\u5e74\u5ea6 \u7530\u91ce\u30c8\u30f3\u30cd\u30eb\u5916\u5730\u8cea\u8abf\u67fb\u696d\u52d9","survey_name":"\u5e73\u621018\u5e74\u5ea6 \u7530\u91ce\u30c8\u30f3\u30cd\u30eb\u5916\u5730\u8cea\u8abf\u67fb\u696d\u52d9","client_name":"\u56fd\u571f\u4ea4\u901a\u7701\u56db\u56fd\u5730\u65b9\u6574\u5099\u5c40\u5fb3\u5cf6\u6cb3\u5ddd\u56fd\u9053\u4e8b\u52d9\u6240","boring_xml_url":47,"boring_view_url":1,"soilmap_view_url":null,"soiltest_xml_url":0,"soiltest_view_url":0},{"id":256642,"code":"B4KJ201802002-2122","latitude":"33.94","longitude":"134.610722","source_code":"SK068830482000010017","project_name":"\u5e73\u621018\u5e74\u5ea6\u7530\u91ce\u30c8\u30f3\u30cd\u30eb\u5916\u5730\u8cea\u8abf\u67fb\u696d\u52d9","survey_name":"\u5e73\u621018\u5e74\u5ea6\u7530\u91ce\u30c8\u30f3\u30cd\u30eb\u5916\u5730\u8cea\u8abf\u67fb\u696d\u52d9","client_name":"\u56fd\u571f\u4ea4\u901a\u7701\u56db\u56fd\u5730\u65b9\u6574\u5099\u5c40\u5fb3\u5cf6\u6cb3\u5ddd\u56fd\u9053\u4e8b\u52d9\u6240","boring_xml_url":47,"boring_view_url":1,"soilmap_view_url":null,"soiltest_xml_url":50,"soiltest_view_url":49},{"id":256641,"code":"B4KJ201802002-2121","latitude":"33.939028","longitude":"134.611028","source_code":"SK068830482000010016","project_name":"\u5e73\u621018\u5e74\u5ea6\u7530\u91ce\u30c8\u30f3\u30cd\u30eb\u5916\u5730\u8cea\u8abf\u67fb\u696d\u52d9","survey_name":"\u5e73\u621018\u5e74\u5ea6\u7530\u91ce\u30c8\u30f3\u30cd\u30eb\u5916\u5730\u8cea\u8abf\u67fb\u696d\u52d9","client_name":"\u56fd\u571f\u4ea4\u901a\u7701\u56db\u56fd\u5730\u65b9\u6574\u5099\u5c40\u5fb3\u5cf6\u6cb3\u5ddd\u56fd\u9053\u4e8b\u52d9\u6240","boring_xml_url":47,"boring_view_url":1,"soilmap_view_url":null,"soiltest_xml_url":50,"soiltest_view_url":49},{"id":256640,"code":"B4KJ201802002-2120","latitude":"33.978944","longitude":"134.580333","source_code":"SK068830482000010010","project_name":"\u5e73\u621018\u5e74\u5ea6 \u7530\u91ce\u30c8\u30f3\u30cd\u30eb\u5916\u5730\u8cea\u8abf\u67fb\u696d\u52d9","survey_name":"\u5e73\u621018\u5e74\u5ea6 \u7530\u91ce\u30c8\u30f3\u30cd\u30eb\u5916\u5730\u8cea\u8abf\u67fb\u696d\u52d9","client_name":"\u56fd\u571f\u4ea4\u901a\u7701\u56db\u56fd\u5730\u65b9\u6574\u5099\u5c40\u5fb3\u5cf6\u6cb3\u5ddd\u56fd\u9053\u4e8b\u52d9\u6240","boring_xml_url":47,"boring_view_url":1,"soilmap_view_url":null,"soiltest_xml_url":0,"soiltest_view_url":0},{"id":256639,"code":"B4KJ201802002-2119","latitude":"33.974222","longitude":"134.585111","source_code":"SK068830482000010007","project_name":"\u5e73\u621018\u5e74\u5ea6 \u7530\u91ce\u30c8\u30f3\u30cd\u30eb\u5916\u5730\u8cea\u8abf\u67fb\u696d\u52d9","survey_name":"\u5e73\u621018\u5e74\u5ea6 \u7530\u91ce\u30c8\u30f3\u30cd\u30eb\u5916\u5730\u8cea\u8abf\u67fb\u696d\u52d9","client_name":"\u56fd\u571f\u4ea4\u901a\u7701\u56db\u56fd\u5730\u65b9\u6574\u5099\u5c40\u5fb3\u5cf6\u6cb3\u5ddd\u56fd\u9053\u4e8b\u52d9\u6240","boring_xml_url":47,"boring_view_url":1,"soilmap_view_url":null,"soiltest_xml_url":50,"soiltest_view_url":49},{"id":256638,"code":"B4KJ201802002-2118","latitude":"33.89925","longitude":"134.672806","source_code":"SK068830482000010004","project_name":"\u5e73\u621018\u5e74\u5ea6 \u7530\u91ce\u30c8\u30f3\u30cd\u30eb\u5916\u5730\u8cea\u8abf\u67fb\u696d\u52d9","survey_name":"\u5e73\u621018\u5e74\u5ea6 \u7530\u91ce\u30c8\u30f3\u30cd\u30eb\u5916\u5730\u8cea\u8abf\u67fb\u696d\u52d9","client_name":"\u56fd\u571f\u4ea4\u901a\u7701\u56db\u56fd\u5730\u65b9\u6574\u5099\u5c40\u5fb3\u5cf6\u6cb3\u5ddd\u56fd\u9053\u4e8b\u52d9\u6240","boring_xml_url":47,"boring_view_url":1,"soilmap_view_url":null,"soiltest_xml_url":0,"soiltest_view_url":0},{"id":256637,"code":"B4KJ201802002-2117","latitude":"32.987028","longitude":"132.942972","source_code":"SK068861602000090007","project_name":"\u5e73\u621018\u5e74\u5ea6\u56db\u4e07+\u5ddd\u7ba1\u5185\u5730\u8cea\u8abf\u67fb\u696d\u52d9","survey_name":"\u5e73\u621018\u5e74\u5ea6\u56db\u4e07+\u5ddd\u7ba1\u5185\u5730\u8cea\u8abf\u67fb\u696d\u52d9","client_name":"\u56fd\u571f\u4ea4\u901a\u7701 \u56db\u56fd\u5730\u65b9\u6574\u5099\u5c40 \u4e2d\u6751\u6cb3\u5ddd\u56fd\u9053\u4e8b\u52d9\u6240","boring_xml_url":47,"boring_view_url":1,"soilmap_view_url":null,"soiltest_xml_url":50,"soiltest_view_url":49}]}}