{"header":{"xyz":{"source":[],"mosaic":false},"page":2473,"raw":{"soiltest_result":"0","bbox":"57.598333,109.544722,1.933333,163.806111","page":"2473"},"conditions":{"soiltest_result":0,"north":57.598333,"west":109.544722,"south":1.933333,"east":163.806111},"success":true,"message":""},"data":{"meta":{"total":212844,"page":2473,"pages":7095,"count":30},"values":[{"id":256366,"code":"B4KJ201802002-1846","latitude":"34.040556","longitude":"133.835556","source_code":"SK078830472000270003","project_name":"","survey_name":"\u5e73\u621019\u5e74\u5ea6 \u732a\u30ce\u9f3b\u9053\u8def\u5730\u8cea\u8abf\u67fb\u696d\u52d9","client_name":"\u56fd\u571f\u4ea4\u901a\u7701\u56db\u56fd\u5730\u65b9\u6574\u5099\u5c40\u5fb3\u5cf6\u6cb3\u5ddd\u56fd\u9053\u4e8b\u52d9\u6240","boring_xml_url":47,"boring_view_url":1,"soilmap_view_url":null,"soiltest_xml_url":0,"soiltest_view_url":0},{"id":256365,"code":"B4KJ201802002-1845","latitude":"34.040833","longitude":"133.834722","source_code":"SK078830472000270002","project_name":"","survey_name":"\u5e73\u621019\u5e74\u5ea6 \u732a\u30ce\u9f3b\u9053\u8def\u5730\u8cea\u8abf\u67fb\u696d\u52d9","client_name":"\u56fd\u571f\u4ea4\u901a\u7701\u56db\u56fd\u5730\u65b9\u6574\u5099\u5c40\u5fb3\u5cf6\u6cb3\u5ddd\u56fd\u9053\u4e8b\u52d9\u6240","boring_xml_url":47,"boring_view_url":1,"soilmap_view_url":null,"soiltest_xml_url":0,"soiltest_view_url":0},{"id":256364,"code":"B4KJ201802002-1844","latitude":"34.041667","longitude":"133.831111","source_code":"SK078830472000270001","project_name":"","survey_name":"\u5e73\u621019\u5e74\u5ea6 \u732a\u30ce\u9f3b\u9053\u8def\u5730\u8cea\u8abf\u67fb\u696d\u52d9","client_name":"\u56fd\u571f\u4ea4\u901a\u7701\u56db\u56fd\u5730\u65b9\u6574\u5099\u5c40\u5fb3\u5cf6\u6cb3\u5ddd\u56fd\u9053\u4e8b\u52d9\u6240","boring_xml_url":47,"boring_view_url":1,"soilmap_view_url":null,"soiltest_xml_url":0,"soiltest_view_url":0},{"id":256363,"code":"B4KJ201802002-1843","latitude":"34.023417","longitude":"134.576639","source_code":"SK078830482000180014","project_name":"","survey_name":"\u5e73\u621019\u5e74\u5ea6 \u5927\u795e\u5b50\u7b2c\u4e8c\u30c8\u30f3\u30cd\u30eb\u5730\u8cea\u8abf\u67fb\u696d\u52d9","client_name":"\u56fd\u571f\u4ea4\u901a\u7701\u56db\u56fd\u5730\u65b9\u6574\u5099\u5c40\u5fb3\u5cf6\u6cb3\u5ddd\u56fd\u9053\u4e8b\u52d9\u6240","boring_xml_url":47,"boring_view_url":1,"soilmap_view_url":null,"soiltest_xml_url":0,"soiltest_view_url":0},{"id":256362,"code":"B4KJ201802002-1842","latitude":"34.023722","longitude":"134.576389","source_code":"SK078830482000180013","project_name":"","survey_name":"\u5e73\u621019\u5e74\u5ea6 \u5927\u795e\u5b50\u7b2c\u4e8c\u30c8\u30f3\u30cd\u30eb\u5730\u8cea\u8abf\u67fb\u696d\u52d9","client_name":"\u56fd\u571f\u4ea4\u901a\u7701\u56db\u56fd\u5730\u65b9\u6574\u5099\u5c40\u5fb3\u5cf6\u6cb3\u5ddd\u56fd\u9053\u4e8b\u52d9\u6240","boring_xml_url":47,"boring_view_url":1,"soilmap_view_url":null,"soiltest_xml_url":0,"soiltest_view_url":0},{"id":256361,"code":"B4KJ201802002-1841","latitude":"34.024917","longitude":"134.577861","source_code":"SK078830482000180012","project_name":"","survey_name":"\u5e73\u621019\u5e74\u5ea6 \u5927\u795e\u5b50\u7b2c\u4e8c\u30c8\u30f3\u30cd\u30eb\u5730\u8cea\u8abf\u67fb\u696d\u52d9","client_name":"\u56fd\u571f\u4ea4\u901a\u7701\u56db\u56fd\u5730\u65b9\u6574\u5099\u5c40\u5fb3\u5cf6\u6cb3\u5ddd\u56fd\u9053\u4e8b\u52d9\u6240","boring_xml_url":47,"boring_view_url":1,"soilmap_view_url":null,"soiltest_xml_url":0,"soiltest_view_url":0},{"id":256360,"code":"B4KJ201802002-1840","latitude":"33.537639","longitude":"133.604833","source_code":"SK048862612000150025","project_name":"","survey_name":"\u5e73\u621016\u5e74\u5ea6 \u5357\u56fd\u9053\u8def\u5730\u8cea\u8abf\u67fb\u696d\u52d9\u59d4\u8a17","client_name":"\u56fd\u571f\u4ea4\u901a\u7701 \u56db\u56fd\u5730\u65b9\u6574\u5099\u5c40 \u571f\u4f50\u56fd\u9053\u4e8b\u52d9\u6240","boring_xml_url":47,"boring_view_url":1,"soilmap_view_url":null,"soiltest_xml_url":0,"soiltest_view_url":0},{"id":256359,"code":"B4KJ201802002-1839","latitude":"33.536778","longitude":"133.601694","source_code":"SK048862612000150024","project_name":"","survey_name":"\u5e73\u621016\u5e74\u5ea6 \u5357\u56fd\u9053\u8def\u5730\u8cea\u8abf\u67fb\u696d\u52d9\u59d4\u8a17","client_name":"\u56fd\u571f\u4ea4\u901a\u7701 \u56db\u56fd\u5730\u65b9\u6574\u5099\u5c40 \u571f\u4f50\u56fd\u9053\u4e8b\u52d9\u6240","boring_xml_url":47,"boring_view_url":1,"soilmap_view_url":null,"soiltest_xml_url":0,"soiltest_view_url":0},{"id":256358,"code":"B4KJ201802002-1838","latitude":"33.554167","longitude":"133.668694","source_code":"SK048862612000150023","project_name":"","survey_name":"\u5e73\u621016\u5e74\u5ea6 \u5357\u56fd\u9053\u8def\u5730\u8cea\u8abf\u67fb\u696d\u52d9\u59d4\u8a17","client_name":"\u56fd\u571f\u4ea4\u901a\u7701 \u56db\u56fd\u5730\u65b9\u6574\u5099\u5c40 \u571f\u4f50\u56fd\u9053\u4e8b\u52d9\u6240","boring_xml_url":47,"boring_view_url":1,"soilmap_view_url":null,"soiltest_xml_url":0,"soiltest_view_url":0},{"id":256357,"code":"B4KJ201802002-1837","latitude":"33.554694","longitude":"133.66475","source_code":"SK048862612000150022","project_name":"","survey_name":"\u5e73\u621016\u5e74\u5ea6 \u5357\u56fd\u9053\u8def\u5730\u8cea\u8abf\u67fb\u696d\u52d9\u59d4\u8a17","client_name":"\u56fd\u571f\u4ea4\u901a\u7701 \u56db\u56fd\u5730\u65b9\u6574\u5099\u5c40 \u571f\u4f50\u56fd\u9053\u4e8b\u52d9\u6240","boring_xml_url":47,"boring_view_url":1,"soilmap_view_url":null,"soiltest_xml_url":0,"soiltest_view_url":0},{"id":256356,"code":"B4KJ201802002-1836","latitude":"33.554861","longitude":"133.663611","source_code":"SK048862612000150021","project_name":"","survey_name":"\u5e73\u621016\u5e74\u5ea6 \u5357\u56fd\u9053\u8def\u5730\u8cea\u8abf\u67fb\u696d\u52d9\u59d4\u8a17","client_name":"\u56fd\u571f\u4ea4\u901a\u7701 \u56db\u56fd\u5730\u65b9\u6574\u5099\u5c40 \u571f\u4f50\u56fd\u9053\u4e8b\u52d9\u6240","boring_xml_url":47,"boring_view_url":1,"soilmap_view_url":null,"soiltest_xml_url":0,"soiltest_view_url":0},{"id":256355,"code":"B4KJ201802002-1835","latitude":"33.555639","longitude":"133.660167","source_code":"SK048862612000150020","project_name":"","survey_name":"\u5e73\u621016\u5e74\u5ea6 \u5357\u56fd\u9053\u8def\u5730\u8cea\u8abf\u67fb\u696d\u52d9\u59d4\u8a17","client_name":"\u56fd\u571f\u4ea4\u901a\u7701 \u56db\u56fd\u5730\u65b9\u6574\u5099\u5c40 \u571f\u4f50\u56fd\u9053\u4e8b\u52d9\u6240","boring_xml_url":47,"boring_view_url":1,"soilmap_view_url":null,"soiltest_xml_url":0,"soiltest_view_url":0},{"id":256354,"code":"B4KJ201802002-1834","latitude":"33.557","longitude":"133.652694","source_code":"SK048862612000150019","project_name":"","survey_name":"\u5e73\u621016\u5e74\u5ea6 \u5357\u56fd\u9053\u8def\u5730\u8cea\u8abf\u67fb\u696d\u52d9\u59d4\u8a17","client_name":"\u56fd\u571f\u4ea4\u901a\u7701 \u56db\u56fd\u5730\u65b9\u6574\u5099\u5c40 \u571f\u4f50\u56fd\u9053\u4e8b\u52d9\u6240","boring_xml_url":47,"boring_view_url":1,"soilmap_view_url":null,"soiltest_xml_url":0,"soiltest_view_url":0},{"id":256353,"code":"B4KJ201802002-1833","latitude":"33.556667","longitude":"133.651667","source_code":"SK048862612000150018","project_name":"","survey_name":"\u5e73\u621016\u5e74\u5ea6 \u5357\u56fd\u9053\u8def\u5730\u8cea\u8abf\u67fb\u696d\u52d9\u59d4\u8a17","client_name":"\u56fd\u571f\u4ea4\u901a\u7701 \u56db\u56fd\u5730\u65b9\u6574\u5099\u5c40 \u571f\u4f50\u56fd\u9053\u4e8b\u52d9\u6240","boring_xml_url":47,"boring_view_url":1,"soilmap_view_url":null,"soiltest_xml_url":0,"soiltest_view_url":0},{"id":256352,"code":"B4KJ201802002-1832","latitude":"33.556417","longitude":"133.651639","source_code":"SK048862612000150017","project_name":"","survey_name":"\u5e73\u621016\u5e74\u5ea6 \u5357\u56fd\u9053\u8def\u5730\u8cea\u8abf\u67fb\u696d\u52d9\u59d4\u8a17","client_name":"\u56fd\u571f\u4ea4\u901a\u7701 \u56db\u56fd\u5730\u65b9\u6574\u5099\u5c40 \u571f\u4f50\u56fd\u9053\u4e8b\u52d9\u6240","boring_xml_url":47,"boring_view_url":1,"soilmap_view_url":null,"soiltest_xml_url":0,"soiltest_view_url":0},{"id":256351,"code":"B4KJ201802002-1831","latitude":"33.556472","longitude":"133.649528","source_code":"SK048862612000150016","project_name":"","survey_name":"\u5e73\u621016\u5e74\u5ea6 \u5357\u56fd\u9053\u8def\u5730\u8cea\u8abf\u67fb\u696d\u52d9\u59d4\u8a17","client_name":"\u56fd\u571f\u4ea4\u901a\u7701 \u56db\u56fd\u5730\u65b9\u6574\u5099\u5c40 \u571f\u4f50\u56fd\u9053\u4e8b\u52d9\u6240","boring_xml_url":47,"boring_view_url":1,"soilmap_view_url":null,"soiltest_xml_url":0,"soiltest_view_url":0},{"id":256350,"code":"B4KJ201802002-1830","latitude":"33.557333","longitude":"133.630472","source_code":"SK048862612000150015","project_name":"","survey_name":"\u5e73\u621016\u5e74\u5ea6 \u5357\u56fd\u9053\u8def\u5730\u8cea\u8abf\u67fb\u696d\u52d9\u59d4\u8a17","client_name":"\u56fd\u571f\u4ea4\u901a\u7701 \u56db\u56fd\u5730\u65b9\u6574\u5099\u5c40 \u571f\u4f50\u56fd\u9053\u4e8b\u52d9\u6240","boring_xml_url":47,"boring_view_url":1,"soilmap_view_url":null,"soiltest_xml_url":0,"soiltest_view_url":0},{"id":256349,"code":"B4KJ201802002-1829","latitude":"33.558","longitude":"133.630056","source_code":"SK048862612000150014","project_name":"","survey_name":"\u5e73\u621016\u5e74\u5ea6 \u5357\u56fd\u9053\u8def\u5730\u8cea\u8abf\u67fb\u696d\u52d9\u59d4\u8a17","client_name":"\u56fd\u571f\u4ea4\u901a\u7701 \u56db\u56fd\u5730\u65b9\u6574\u5099\u5c40 \u571f\u4f50\u56fd\u9053\u4e8b\u52d9\u6240","boring_xml_url":47,"boring_view_url":1,"soilmap_view_url":null,"soiltest_xml_url":0,"soiltest_view_url":0},{"id":256348,"code":"B4KJ201802002-1828","latitude":"33.545417","longitude":"133.621917","source_code":"SK048862612000150013","project_name":"","survey_name":"\u5e73\u621016\u5e74\u5ea6 \u5357\u56fd\u9053\u8def\u5730\u8cea\u8abf\u67fb\u696d\u52d9\u59d4\u8a17","client_name":"\u56fd\u571f\u4ea4\u901a\u7701 \u56db\u56fd\u5730\u65b9\u6574\u5099\u5c40 \u571f\u4f50\u56fd\u9053\u4e8b\u52d9\u6240","boring_xml_url":47,"boring_view_url":1,"soilmap_view_url":null,"soiltest_xml_url":0,"soiltest_view_url":0},{"id":256347,"code":"B4KJ201802002-1827","latitude":"33.537806","longitude":"133.607722","source_code":"SK048862612000150012","project_name":"","survey_name":"\u5e73\u621016\u5e74\u5ea6 \u5357\u56fd\u9053\u8def\u5730\u8cea\u8abf\u67fb\u696d\u52d9\u59d4\u8a17","client_name":"\u56fd\u571f\u4ea4\u901a\u7701 \u56db\u56fd\u5730\u65b9\u6574\u5099\u5c40 \u571f\u4f50\u56fd\u9053\u4e8b\u52d9\u6240","boring_xml_url":47,"boring_view_url":1,"soilmap_view_url":null,"soiltest_xml_url":0,"soiltest_view_url":0},{"id":256346,"code":"B4KJ201802002-1826","latitude":"33.537778","longitude":"133.607056","source_code":"SK048862612000150011","project_name":"","survey_name":"\u5e73\u621016\u5e74\u5ea6 \u5357\u56fd\u9053\u8def\u5730\u8cea\u8abf\u67fb\u696d\u52d9\u59d4\u8a17","client_name":"\u56fd\u571f\u4ea4\u901a\u7701 \u56db\u56fd\u5730\u65b9\u6574\u5099\u5c40 \u571f\u4f50\u56fd\u9053\u4e8b\u52d9\u6240","boring_xml_url":47,"boring_view_url":1,"soilmap_view_url":null,"soiltest_xml_url":0,"soiltest_view_url":0},{"id":256345,"code":"B4KJ201802002-1825","latitude":"33.537778","longitude":"133.607056","source_code":"SK048862612000150010","project_name":"","survey_name":"\u5e73\u621016\u5e74\u5ea6 \u5357\u56fd\u9053\u8def\u5730\u8cea\u8abf\u67fb\u696d\u52d9\u59d4\u8a17","client_name":"\u56fd\u571f\u4ea4\u901a\u7701 \u56db\u56fd\u5730\u65b9\u6574\u5099\u5c40 \u571f\u4f50\u56fd\u9053\u4e8b\u52d9\u6240","boring_xml_url":47,"boring_view_url":1,"soilmap_view_url":null,"soiltest_xml_url":0,"soiltest_view_url":0},{"id":256344,"code":"B4KJ201802002-1824","latitude":"33.537694","longitude":"133.606472","source_code":"SK048862612000150009","project_name":"","survey_name":"\u5e73\u621016\u5e74\u5ea6 \u5357\u56fd\u9053\u8def\u5730\u8cea\u8abf\u67fb\u696d\u52d9\u59d4\u8a17","client_name":"\u56fd\u571f\u4ea4\u901a\u7701 \u56db\u56fd\u5730\u65b9\u6574\u5099\u5c40 \u571f\u4f50\u56fd\u9053\u4e8b\u52d9\u6240","boring_xml_url":47,"boring_view_url":1,"soilmap_view_url":null,"soiltest_xml_url":0,"soiltest_view_url":0},{"id":256343,"code":"B4KJ201802002-1823","latitude":"33.537694","longitude":"133.606083","source_code":"SK048862612000150008","project_name":"","survey_name":"\u5e73\u621016\u5e74\u5ea6 \u5357\u56fd\u9053\u8def\u5730\u8cea\u8abf\u67fb\u696d\u52d9\u59d4\u8a17","client_name":"\u56fd\u571f\u4ea4\u901a\u7701 \u56db\u56fd\u5730\u65b9\u6574\u5099\u5c40 \u571f\u4f50\u56fd\u9053\u4e8b\u52d9\u6240","boring_xml_url":47,"boring_view_url":1,"soilmap_view_url":null,"soiltest_xml_url":0,"soiltest_view_url":0},{"id":256342,"code":"B4KJ201802002-1822","latitude":"33.537694","longitude":"133.605306","source_code":"SK048862612000150007","project_name":"","survey_name":"\u5e73\u621016\u5e74\u5ea6 \u5357\u56fd\u9053\u8def\u5730\u8cea\u8abf\u67fb\u696d\u52d9\u59d4\u8a17","client_name":"\u56fd\u571f\u4ea4\u901a\u7701 \u56db\u56fd\u5730\u65b9\u6574\u5099\u5c40 \u571f\u4f50\u56fd\u9053\u4e8b\u52d9\u6240","boring_xml_url":47,"boring_view_url":1,"soilmap_view_url":null,"soiltest_xml_url":0,"soiltest_view_url":0},{"id":256341,"code":"B4KJ201802002-1821","latitude":"33.537611","longitude":"133.604833","source_code":"SK048862612000150006","project_name":"","survey_name":"\u5e73\u621016\u5e74\u5ea6 \u5357\u56fd\u9053\u8def\u5730\u8cea\u8abf\u67fb\u696d\u52d9\u59d4\u8a17","client_name":"\u56fd\u571f\u4ea4\u901a\u7701 \u56db\u56fd\u5730\u65b9\u6574\u5099\u5c40 \u571f\u4f50\u56fd\u9053\u4e8b\u52d9\u6240","boring_xml_url":47,"boring_view_url":1,"soilmap_view_url":null,"soiltest_xml_url":0,"soiltest_view_url":0},{"id":256340,"code":"B4KJ201802002-1820","latitude":"33.537472","longitude":"133.604056","source_code":"SK048862612000150005","project_name":"","survey_name":"\u5e73\u621016\u5e74\u5ea6 \u5357\u56fd\u9053\u8def\u5730\u8cea\u8abf\u67fb\u696d\u52d9\u59d4\u8a17","client_name":"\u56fd\u571f\u4ea4\u901a\u7701 \u56db\u56fd\u5730\u65b9\u6574\u5099\u5c40 \u571f\u4f50\u56fd\u9053\u4e8b\u52d9\u6240","boring_xml_url":47,"boring_view_url":1,"soilmap_view_url":null,"soiltest_xml_url":0,"soiltest_view_url":0},{"id":256339,"code":"B4KJ201802002-1819","latitude":"33.536083","longitude":"133.596444","source_code":"SK048862612000150004","project_name":"","survey_name":"\u5e73\u621016\u5e74\u5ea6 \u5357\u56fd\u9053\u8def\u5730\u8cea\u8abf\u67fb\u696d\u52d9\u59d4\u8a17","client_name":"\u56fd\u571f\u4ea4\u901a\u7701 \u56db\u56fd\u5730\u65b9\u6574\u5099\u5c40 \u571f\u4f50\u56fd\u9053\u4e8b\u52d9\u6240","boring_xml_url":47,"boring_view_url":1,"soilmap_view_url":null,"soiltest_xml_url":0,"soiltest_view_url":0},{"id":256338,"code":"B4KJ201802002-1818","latitude":"33.535889","longitude":"133.596444","source_code":"SK048862612000150003","project_name":"","survey_name":"\u5e73\u621016\u5e74\u5ea6 \u5357\u56fd\u9053\u8def\u5730\u8cea\u8abf\u67fb\u696d\u52d9\u59d4\u8a17","client_name":"\u56fd\u571f\u4ea4\u901a\u7701 \u56db\u56fd\u5730\u65b9\u6574\u5099\u5c40 \u571f\u4f50\u56fd\u9053\u4e8b\u52d9\u6240","boring_xml_url":47,"boring_view_url":1,"soilmap_view_url":null,"soiltest_xml_url":0,"soiltest_view_url":0},{"id":256337,"code":"B4KJ201802002-1817","latitude":"33.536028","longitude":"133.593639","source_code":"SK048862612000150002","project_name":"","survey_name":"\u5e73\u621016\u5e74\u5ea6 \u5357\u56fd\u9053\u8def\u5730\u8cea\u8abf\u67fb\u696d\u52d9\u59d4\u8a17","client_name":"\u56fd\u571f\u4ea4\u901a\u7701 \u56db\u56fd\u5730\u65b9\u6574\u5099\u5c40 \u571f\u4f50\u56fd\u9053\u4e8b\u52d9\u6240","boring_xml_url":47,"boring_view_url":1,"soilmap_view_url":null,"soiltest_xml_url":0,"soiltest_view_url":0}]}}