{"header":{"xyz":{"source":[],"mosaic":false},"page":2474,"raw":{"soiltest_result":"0","bbox":"57.598333,109.544722,1.933333,163.806111","page":"2474"},"conditions":{"soiltest_result":0,"north":57.598333,"west":109.544722,"south":1.933333,"east":163.806111},"success":true,"message":""},"data":{"meta":{"total":212844,"page":2474,"pages":7095,"count":30},"values":[{"id":256336,"code":"B4KJ201802002-1816","latitude":"33.535889","longitude":"133.593583","source_code":"SK048862612000150001","project_name":"","survey_name":"\u5e73\u621016\u5e74\u5ea6 \u5357\u56fd\u9053\u8def\u5730\u8cea\u8abf\u67fb\u696d\u52d9\u59d4\u8a17","client_name":"\u56fd\u571f\u4ea4\u901a\u7701 \u56db\u56fd\u5730\u65b9\u6574\u5099\u5c40 \u571f\u4f50\u56fd\u9053\u4e8b\u52d9\u6240","boring_xml_url":47,"boring_view_url":1,"soilmap_view_url":null,"soiltest_xml_url":0,"soiltest_view_url":0},{"id":256335,"code":"B4KJ201802002-1815","latitude":"34.046056","longitude":"134.485278","source_code":"SK048830612000340001","project_name":"\u5fb3\u5cf6\u5357\u74b0\u72b6\u9053\u8def","survey_name":"\u5e73\u621016\u5e74\u5ea6 \u5fb3\u5cf6\u5357\u74b0\u72b6\u9053\u8def\u50e7\u6d25\u5730\u533a\u5730\u8cea\u8abf\u67fb\u696d\u52d9","client_name":"\u56fd\u571f\u4ea4\u901a\u7701\u56db\u56fd\u5730\u65b9\u6574\u5099\u5c40\u5fb3\u5cf6\u6cb3\u5ddd\u56fd\u9053\u4e8b\u52d9\u6240","boring_xml_url":47,"boring_view_url":1,"soilmap_view_url":null,"soiltest_xml_url":50,"soiltest_view_url":49},{"id":256334,"code":"B4KJ201802002-1814","latitude":"34.060917","longitude":"133.812472","source_code":"SK048830612000400011","project_name":"\u5e73\u621016-17\u5e74\u5ea6 \u732a\u30ce\u9f3b\u9053\u8def\u5730\u8cea\u8abf\u67fb\u696d\u52d9","survey_name":"\u5e73\u621016-17\u5e74\u5ea6 \u732a\u30ce\u9f3b\u9053\u8def\u5730\u8cea\u8abf\u67fb\u696d\u52d9","client_name":"\u56fd\u571f\u4ea4\u901a\u7701\u56db\u56fd\u5730\u65b9\u6574\u5099\u5c40\u5fb3\u5cf6\u6cb3\u5ddd\u56fd\u9053\u4e8b\u52d9\u6240 \u8abf\u67fb\u7b2c\u4e8c\u8ab2","boring_xml_url":47,"boring_view_url":1,"soilmap_view_url":null,"soiltest_xml_url":0,"soiltest_view_url":0},{"id":256333,"code":"B4KJ201802002-1813","latitude":"34.060917","longitude":"133.812472","source_code":"SK048830612000400010","project_name":"\u5e73\u621016-17\u5e74\u5ea6 \u732a\u30ce\u9f3b\u9053\u8def\u5730\u8cea\u8abf\u67fb\u696d\u52d9","survey_name":"\u5e73\u621016-17\u5e74\u5ea6 \u732a\u30ce\u9f3b\u9053\u8def\u5730\u8cea\u8abf\u67fb\u696d\u52d9","client_name":"\u56fd\u571f\u4ea4\u901a\u7701\u56db\u56fd\u5730\u65b9\u6574\u5099\u5c40\u5fb3\u5cf6\u6cb3\u5ddd\u56fd\u9053\u4e8b\u52d9\u6240 \u8abf\u67fb\u7b2c\u4e8c\u8ab2","boring_xml_url":47,"boring_view_url":1,"soilmap_view_url":null,"soiltest_xml_url":0,"soiltest_view_url":0},{"id":256332,"code":"B4KJ201802002-1812","latitude":"34.060306","longitude":"133.815722","source_code":"SK048830612000400009","project_name":"\u5e73\u621016-17\u5e74\u5ea6 \u732a\u30ce\u9f3b\u9053\u8def\u5730\u8cea\u8abf\u67fb\u696d\u52d9","survey_name":"\u5e73\u621016-17\u5e74\u5ea6 \u732a\u30ce\u9f3b\u9053\u8def\u5730\u8cea\u8abf\u67fb\u696d\u52d9","client_name":"\u56fd\u571f\u4ea4\u901a\u7701\u56db\u56fd\u5730\u65b9\u6574\u5099\u5c40\u5fb3\u5cf6\u6cb3\u5ddd\u56fd\u9053\u4e8b\u52d9\u6240 \u8abf\u67fb\u7b2c\u4e8c\u8ab2","boring_xml_url":47,"boring_view_url":1,"soilmap_view_url":null,"soiltest_xml_url":0,"soiltest_view_url":0},{"id":256331,"code":"B4KJ201802002-1811","latitude":"34.060444","longitude":"133.815944","source_code":"SK048830612000400008","project_name":"\u5e73\u621016-17\u5e74\u5ea6 \u732a\u30ce\u9f3b\u9053\u8def\u5730\u8cea\u8abf\u67fb\u696d\u52d9","survey_name":"\u5e73\u621016-17\u5e74\u5ea6 \u732a\u30ce\u9f3b\u9053\u8def\u5730\u8cea\u8abf\u67fb\u696d\u52d9","client_name":"\u56fd\u571f\u4ea4\u901a\u7701\u56db\u56fd\u5730\u65b9\u6574\u5099\u5c40\u5fb3\u5cf6\u6cb3\u5ddd\u56fd\u9053\u4e8b\u52d9\u6240 \u8abf\u67fb\u7b2c\u4e8c\u8ab2","boring_xml_url":47,"boring_view_url":1,"soilmap_view_url":null,"soiltest_xml_url":0,"soiltest_view_url":0},{"id":256330,"code":"B4KJ201802002-1810","latitude":"34.038222","longitude":"133.836139","source_code":"SK048830612000400006","project_name":"\u5e73\u621016-17\u5e74\u5ea6 \u732a\u30ce\u9f3b\u9053\u8def\u5730\u8cea\u8abf\u67fb\u696d\u52d9","survey_name":"\u5e73\u621016-17\u5e74\u5ea6 \u732a\u30ce\u9f3b\u9053\u8def\u5730\u8cea\u8abf\u67fb\u696d\u52d9","client_name":"\u56fd\u571f\u4ea4\u901a\u7701\u56db\u56fd\u5730\u65b9\u6574\u5099\u5c40\u5fb3\u5cf6\u6cb3\u5ddd\u56fd\u9053\u4e8b\u52d9\u6240 \u8abf\u67fb\u7b2c\u4e8c\u8ab2","boring_xml_url":47,"boring_view_url":1,"soilmap_view_url":null,"soiltest_xml_url":0,"soiltest_view_url":0},{"id":256329,"code":"B4KJ201802002-1809","latitude":"34.03975","longitude":"133.835861","source_code":"SK048830612000400005","project_name":"\u5e73\u621016-17\u5e74\u5ea6 \u732a\u30ce\u9f3b\u9053\u8def\u5730\u8cea\u8abf\u67fb\u696d\u52d9","survey_name":"\u5e73\u621016-17\u5e74\u5ea6 \u732a\u30ce\u9f3b\u9053\u8def\u5730\u8cea\u8abf\u67fb\u696d\u52d9","client_name":"\u56fd\u571f\u4ea4\u901a\u7701\u56db\u56fd\u5730\u65b9\u6574\u5099\u5c40\u5fb3\u5cf6\u6cb3\u5ddd\u56fd\u9053\u4e8b\u52d9\u6240 \u8abf\u67fb\u7b2c\u4e8c\u8ab2","boring_xml_url":47,"boring_view_url":1,"soilmap_view_url":null,"soiltest_xml_url":0,"soiltest_view_url":0},{"id":256328,"code":"B4KJ201802002-1808","latitude":"34.042889","longitude":"133.828528","source_code":"SK048830612000400002","project_name":"\u5e73\u621016-17\u5e74\u5ea6 \u732a\u30ce\u9f3b\u9053\u8def\u5730\u8cea\u8abf\u67fb\u696d\u52d9","survey_name":"\u5e73\u621016-17\u5e74\u5ea6 \u732a\u30ce\u9f3b\u9053\u8def\u5730\u8cea\u8abf\u67fb\u696d\u52d9","client_name":"\u56fd\u571f\u4ea4\u901a\u7701\u56db\u56fd\u5730\u65b9\u6574\u5099\u5c40\u5fb3\u5cf6\u6cb3\u5ddd\u56fd\u9053\u4e8b\u52d9\u6240 \u8abf\u67fb\u7b2c\u4e8c\u8ab2","boring_xml_url":47,"boring_view_url":1,"soilmap_view_url":null,"soiltest_xml_url":0,"soiltest_view_url":0},{"id":256327,"code":"B4KJ201802002-1807","latitude":"34.060861","longitude":"133.815583","source_code":"SK048830612000400001","project_name":"\u5e73\u621016-17\u5e74\u5ea6 \u732a\u30ce\u9f3b\u9053\u8def\u5730\u8cea\u8abf\u67fb\u696d\u52d9","survey_name":"\u5e73\u621016-17\u5e74\u5ea6 \u732a\u30ce\u9f3b\u9053\u8def\u5730\u8cea\u8abf\u67fb\u696d\u52d9","client_name":"\u56fd\u571f\u4ea4\u901a\u7701\u56db\u56fd\u5730\u65b9\u6574\u5099\u5c40\u5fb3\u5cf6\u6cb3\u5ddd\u56fd\u9053\u4e8b\u52d9\u6240 \u8abf\u67fb\u7b2c\u4e8c\u8ab2","boring_xml_url":47,"boring_view_url":1,"soilmap_view_url":null,"soiltest_xml_url":0,"soiltest_view_url":0},{"id":256326,"code":"B4KJ201802002-1806","latitude":"33.882389","longitude":"133.834","source_code":"SK048837602000030002","project_name":"\u5e73\u621016\u5e74\u5ea6 \u5584\u5fb3\u5730\u3059\u3079\u308a\u5730\u8cea\u8abf\u67fb\u696d\u52d9","survey_name":"\u5e73\u621016\u5e74\u5ea6 \u5584\u5fb3\u5730\u3059\u3079\u308a\u5730\u8cea\u8abf\u67fb\u696d\u52d9","client_name":"\u56fd\u571f\u4ea4\u901a\u7701\u56db\u56fd\u5730\u65b9\u6574\u5099\u5c40 \u56db\u56fd\u5c71\u5730\u7802\u9632\u4e8b\u52d9\u6240","boring_xml_url":47,"boring_view_url":1,"soilmap_view_url":null,"soiltest_xml_url":0,"soiltest_view_url":0},{"id":256325,"code":"B4KJ201802002-1805","latitude":"33.878333","longitude":"133.832222","source_code":"SK048837602000290006","project_name":"","survey_name":"\u5e73\u621016\u5e74\u5ea6 \u5584\u5fb3\u5730\u3059\u3079\u308a\u5730\u8cea\u8abf\u67fb\u696d\u52d9(\u305d\u306e2)","client_name":"\u56fd\u571f\u4ea4\u901a\u7701\u56db\u56fd\u5730\u65b9\u6574\u5099\u5c40\u56db\u56fd\u5c71\u5730\u7802\u9632\u4e8b\u52d9\u6240","boring_xml_url":47,"boring_view_url":1,"soilmap_view_url":null,"soiltest_xml_url":0,"soiltest_view_url":0},{"id":256324,"code":"B4KJ201802002-1804","latitude":"33.878333","longitude":"133.832222","source_code":"SK048837602000290005","project_name":"\u5e73\u621016\u5e74\u5ea6 \u5584\u5fb3\u5730\u3059\u3079\u308a\u5730\u8cea\u8abf\u67fb\u696d\u52d9(\u305d\u306e2)","survey_name":"\u5e73\u621016\u5e74\u5ea6 \u5584\u5fb3\u5730\u3059\u3079\u308a\u5730\u8cea\u8abf\u67fb\u696d\u52d9(\u305d\u306e2)","client_name":"\u56fd\u571f\u4ea4\u901a\u7701\u56db\u56fd\u5730\u65b9\u6574\u5099\u5c40\u56db\u56fd\u5c71\u5730\u7802\u9632\u4e8b\u52d9\u6240","boring_xml_url":47,"boring_view_url":1,"soilmap_view_url":null,"soiltest_xml_url":0,"soiltest_view_url":0},{"id":256323,"code":"B4KJ201802002-1803","latitude":"33.876944","longitude":"133.833333","source_code":"SK048837602000290004","project_name":"\u5e73\u621016\u5e74\u5ea6 \u5584\u5fb3\u5730\u3059\u3079\u308a\u5730\u8cea\u8abf\u67fb\u696d\u52d9(\u305d\u306e2)","survey_name":"\u5e73\u621016\u5e74\u5ea6 \u5584\u5fb3\u5730\u3059\u3079\u308a\u5730\u8cea\u8abf\u67fb\u696d\u52d9(\u305d\u306e2)","client_name":"\u56fd\u571f\u4ea4\u901a\u7701\u56db\u56fd\u5730\u65b9\u6574\u5099\u5c40\u56db\u56fd\u5c71\u5730\u7802\u9632\u4e8b\u52d9\u6240","boring_xml_url":47,"boring_view_url":1,"soilmap_view_url":null,"soiltest_xml_url":0,"soiltest_view_url":0},{"id":256322,"code":"B4KJ201802002-1802","latitude":"33.876111","longitude":"133.833333","source_code":"SK048837602000290003","project_name":"\u5e73\u621016\u5e74\u5ea6 \u5584\u5fb3\u5730\u3059\u3079\u308a\u5730\u8cea\u8abf\u67fb\u696d\u52d9(\u305d\u306e2)","survey_name":"\u5e73\u621016\u5e74\u5ea6 \u5584\u5fb3\u5730\u3059\u3079\u308a\u5730\u8cea\u8abf\u67fb\u696d\u52d9(\u305d\u306e2)","client_name":"\u56fd\u571f\u4ea4\u901a\u7701\u56db\u56fd\u5730\u65b9\u6574\u5099\u5c40\u56db\u56fd\u5c71\u5730\u7802\u9632\u4e8b\u52d9\u6240","boring_xml_url":47,"boring_view_url":1,"soilmap_view_url":null,"soiltest_xml_url":0,"soiltest_view_url":0},{"id":256321,"code":"B4KJ201802002-1801","latitude":"33.876111","longitude":"133.833333","source_code":"SK048837602000290002","project_name":"\u5e73\u621016\u5e74\u5ea6 \u5584\u5fb3\u5730\u3059\u3079\u308a\u5730\u8cea\u8abf\u67fb\u696d\u52d9(\u305d\u306e2)","survey_name":"\u5e73\u621016\u5e74\u5ea6 \u5584\u5fb3\u5730\u3059\u3079\u308a\u5730\u8cea\u8abf\u67fb\u696d\u52d9(\u305d\u306e2)","client_name":"\u56fd\u571f\u4ea4\u901a\u7701\u56db\u56fd\u5730\u65b9\u6574\u5099\u5c40\u56db\u56fd\u5c71\u5730\u7802\u9632\u4e8b\u52d9\u6240","boring_xml_url":47,"boring_view_url":1,"soilmap_view_url":null,"soiltest_xml_url":0,"soiltest_view_url":0},{"id":256320,"code":"B4KJ201802002-1800","latitude":"34.085278","longitude":"134.596667","source_code":"SK048830402000310003","project_name":"","survey_name":"\u5e73\u621016-17\u5e74\u5ea6\u5824\u9632\u5730\u8cea\u8abf\u67fb\u696d\u52d9","client_name":"\u56fd\u571f\u4ea4\u901a\u7701\u56db\u56fd\u5730\u65b9\u6574\u5099\u5c40\u5fb3\u5cf6\u6cb3\u5ddd\u56fd\u9053\u4e8b\u52d9\u6240","boring_xml_url":47,"boring_view_url":1,"soilmap_view_url":null,"soiltest_xml_url":0,"soiltest_view_url":0},{"id":256319,"code":"B4KJ201802002-1799","latitude":"34.085278","longitude":"134.596667","source_code":"SK048830402000310001","project_name":"","survey_name":"\u5e73\u621016-17\u5e74\u5ea6\u5824\u9632\u5730\u8cea\u8abf\u67fb\u696d\u52d9","client_name":"\u56fd\u571f\u4ea4\u901a\u7701\u56db\u56fd\u5730\u65b9\u6574\u5099\u5c40\u5fb3\u5cf6\u6cb3\u5ddd\u56fd\u9053\u4e8b\u52d9\u6240","boring_xml_url":47,"boring_view_url":1,"soilmap_view_url":null,"soiltest_xml_url":0,"soiltest_view_url":0},{"id":256318,"code":"B4KJ201802002-1798","latitude":"34.084056","longitude":"134.354583","source_code":"SK048830402000320017","project_name":"\u5e73\u621016-17\u5e74\u5ea6\u5824\u9632\u5730\u8cea\u8abf\u67fb\u7b2c2\u696d\u52d9","survey_name":"\u5e73\u621016-17\u5e74\u5ea6\u5824\u9632\u5730\u8cea\u8abf\u67fb\u7b2c2\u696d\u52d9","client_name":"\u56fd\u571f\u4ea4\u901a\u7701\u56db\u56fd\u5730\u65b9\u6574\u5099\u5c40\u5fb3\u5cf6\u6cb3\u5ddd\u56fd\u9053\u4e8b\u52d9\u6240","boring_xml_url":47,"boring_view_url":1,"soilmap_view_url":null,"soiltest_xml_url":50,"soiltest_view_url":49},{"id":256317,"code":"B4KJ201802002-1797","latitude":"34.084139","longitude":"134.368139","source_code":"SK048830402000320016","project_name":"\u5e73\u621016-17\u5e74\u5ea6\u5824\u9632\u5730\u8cea\u8abf\u67fb\u7b2c2\u696d\u52d9","survey_name":"\u5e73\u621016-17\u5e74\u5ea6\u5824\u9632\u5730\u8cea\u8abf\u67fb\u7b2c2\u696d\u52d9","client_name":"\u56fd\u571f\u4ea4\u901a\u7701 \u56db\u56fd\u5730\u65b9\u6574\u5099\u5c40 \u5fb3\u5cf6\u6cb3\u5ddd\u56fd\u9053\u4e8b\u52d9\u6240","boring_xml_url":47,"boring_view_url":1,"soilmap_view_url":null,"soiltest_xml_url":50,"soiltest_view_url":49},{"id":256316,"code":"B4KJ201802002-1796","latitude":"34.083083","longitude":"134.374722","source_code":"SK048830402000320015","project_name":"\u5e73\u621016-17\u5e74\u5ea6\u5824\u9632\u5730\u8cea\u8abf\u67fb\u7b2c2\u696d\u52d9","survey_name":"\u5e73\u621016-17\u5e74\u5ea6\u5824\u9632\u5730\u8cea\u8abf\u67fb\u7b2c2\u696d\u52d9","client_name":"\u56fd\u571f\u4ea4\u901a\u7701\u56db\u56fd\u5730\u65b9\u6574\u5099\u5c40\u5fb3\u5cf6\u6cb3\u5ddd\u56fd\u9053\u4e8b\u52d9\u6240","boring_xml_url":47,"boring_view_url":1,"soilmap_view_url":null,"soiltest_xml_url":50,"soiltest_view_url":49},{"id":256315,"code":"B4KJ201802002-1795","latitude":"34.101167","longitude":"134.444889","source_code":"SK048830402000320013","project_name":"\u5e73\u621016-17\u5e74\u5ea6\u5824\u9632\u5730\u8cea\u8abf\u67fb\u7b2c2\u696d\u52d9","survey_name":"\u5e73\u621016-17\u5e74\u5ea6\u5824\u9632\u5730\u8cea\u8abf\u67fb\u7b2c2\u696d\u52d9","client_name":"\u56fd\u571f\u4ea4\u901a\u7701\u56db\u56fd\u5730\u65b9\u6574\u5099\u5c40\u5fb3\u5cf6\u6cb3\u5ddd\u56fd\u9053\u4e8b\u52d9\u6240","boring_xml_url":47,"boring_view_url":1,"soilmap_view_url":null,"soiltest_xml_url":50,"soiltest_view_url":49},{"id":256314,"code":"B4KJ201802002-1794","latitude":"34.101028","longitude":"134.444917","source_code":"SK048830402000320012","project_name":"\u5e73\u621016-17\u5e74\u5ea6\u5824\u9632\u5730\u8cea\u8abf\u67fb\u7b2c2\u696d\u52d9","survey_name":"\u5e73\u621016-17\u5e74\u5ea6\u5824\u9632\u5730\u8cea\u8abf\u67fb\u7b2c2\u696d\u52d9","client_name":"\u56fd\u571f\u4ea4\u901a\u7701\u56db\u56fd\u5730\u65b9\u6574\u5099\u5c40\u5fb3\u5cf6\u6cb3\u5ddd\u56fd\u9053\u4e8b\u52d9\u6240","boring_xml_url":47,"boring_view_url":1,"soilmap_view_url":null,"soiltest_xml_url":50,"soiltest_view_url":49},{"id":256313,"code":"B4KJ201802002-1793","latitude":"34.101278","longitude":"134.446444","source_code":"SK048830402000320011","project_name":"\u5e73\u621016-17\u5e74\u5ea6\u5824\u9632\u5730\u8cea\u8abf\u67fb\u7b2c2\u696d\u52d9","survey_name":"\u5e73\u621016-17\u5e74\u5ea6\u5824\u9632\u5730\u8cea\u8abf\u67fb\u7b2c2\u696d\u52d9","client_name":"\u56fd\u571f\u4ea4\u901a\u7701\u56db\u56fd\u5730\u65b9\u6574\u5099\u5c40\u5fb3\u5cf6\u6cb3\u5ddd\u56fd\u9053\u4e8b\u52d9\u6240","boring_xml_url":47,"boring_view_url":1,"soilmap_view_url":null,"soiltest_xml_url":50,"soiltest_view_url":49},{"id":256312,"code":"B4KJ201802002-1792","latitude":"34.101111","longitude":"134.446417","source_code":"SK048830402000320010","project_name":"\u5e73\u621016-17\u5e74\u5ea6\u5824\u9632\u5730\u8cea\u8abf\u67fb\u7b2c2\u696d\u52d9","survey_name":"\u5e73\u621016-17\u5e74\u5ea6\u5824\u9632\u5730\u8cea\u8abf\u67fb\u7b2c2\u696d\u52d9","client_name":"\u56fd\u571f\u4ea4\u901a\u7701\u56db\u56fd\u5730\u65b9\u6574\u5099\u5c40\u5fb3\u5cf6\u6cb3\u5ddd\u56fd\u9053\u4e8b\u52d9\u6240","boring_xml_url":47,"boring_view_url":1,"soilmap_view_url":null,"soiltest_xml_url":50,"soiltest_view_url":49},{"id":256311,"code":"B4KJ201802002-1791","latitude":"34.103667","longitude":"134.454917","source_code":"SK048830402000320009","project_name":"\u5e73\u621016-17\u5e74\u5ea6\u5824\u9632\u5730\u8cea\u8abf\u67fb\u7b2c2\u696d\u52d9","survey_name":"\u5e73\u621016-17\u5e74\u5ea6\u5824\u9632\u5730\u8cea\u8abf\u67fb\u7b2c2\u696d\u52d9","client_name":"\u56fd\u571f\u4ea4\u901a\u7701\u56db\u56fd\u5730\u65b9\u6574\u5099\u5c40\u5fb3\u5cf6\u6cb3\u5ddd\u56fd\u9053\u4e8b\u52d9\u6240","boring_xml_url":47,"boring_view_url":1,"soilmap_view_url":null,"soiltest_xml_url":50,"soiltest_view_url":49},{"id":256310,"code":"B4KJ201802002-1790","latitude":"34.096583","longitude":"134.401028","source_code":"SK048830402000320008","project_name":"\u5e73\u621016-17\u5e74\u5ea6\u5824\u9632\u5730\u8cea\u8abf\u67fb\u7b2c2\u696d\u52d9","survey_name":"\u5e73\u621016-17\u5e74\u5ea6\u5824\u9632\u5730\u8cea\u8abf\u67fb\u7b2c2\u696d\u52d9","client_name":"\u56fd\u571f\u4ea4\u901a\u7701\u56db\u56fd\u5730\u65b9\u6574\u5099\u5c40\u5fb3\u5cf6\u6cb3\u5ddd\u56fd\u9053\u4e8b\u52d9\u6240","boring_xml_url":47,"boring_view_url":1,"soilmap_view_url":null,"soiltest_xml_url":50,"soiltest_view_url":49},{"id":256309,"code":"B4KJ201802002-1789","latitude":"34.096306","longitude":"134.401056","source_code":"SK048830402000320007","project_name":"\u5e73\u621016-17\u5e74\u5ea6\u5824\u9632\u5730\u8cea\u8abf\u67fb\u7b2c2\u696d\u52d9","survey_name":"\u5e73\u621016-17\u5e74\u5ea6\u5824\u9632\u5730\u8cea\u8abf\u67fb\u7b2c2\u696d\u52d9","client_name":"\u56fd\u571f\u4ea4\u901a\u7701\u56db\u56fd\u5730\u65b9\u6574\u5099\u5c40\u5fb3\u5cf6\u6cb3\u5ddd\u56fd\u9053\u4e8b\u52d9\u6240","boring_xml_url":47,"boring_view_url":1,"soilmap_view_url":null,"soiltest_xml_url":50,"soiltest_view_url":49},{"id":256308,"code":"B4KJ201802002-1788","latitude":"34.096417","longitude":"134.401028","source_code":"SK048830402000320006","project_name":"\u5e73\u621016-17\u5e74\u5ea6\u5824\u9632\u5730\u8cea\u8abf\u67fb\u7b2c2\u696d\u52d9","survey_name":"\u5e73\u621016-17\u5e74\u5ea6\u5824\u9632\u5730\u8cea\u8abf\u67fb\u7b2c2\u696d\u52d9","client_name":"\u56fd\u571f\u4ea4\u901a\u7701\u56db\u56fd\u5730\u65b9\u6574\u5099\u5c40\u5fb3\u5cf6\u6cb3\u5ddd\u56fd\u9053\u4e8b\u52d9\u6240","boring_xml_url":47,"boring_view_url":1,"soilmap_view_url":null,"soiltest_xml_url":50,"soiltest_view_url":49},{"id":256307,"code":"B4KJ201802002-1787","latitude":"34.106389","longitude":"134.4265","source_code":"SK048830402000320005","project_name":"\u5e73\u621016-17\u5e74\u5ea6\u5824\u9632\u5730\u8cea\u8abf\u67fb\u7b2c2\u696d\u52d9","survey_name":"\u5e73\u621016-17\u5e74\u5ea6\u5824\u9632\u5730\u8cea\u8abf\u67fb\u7b2c2\u696d\u52d9","client_name":"\u56fd\u571f\u4ea4\u901a\u7701\u56db\u56fd\u5730\u65b9\u6574\u5099\u5c40\u5fb3\u5cf6\u6cb3\u5ddd\u56fd\u9053\u4e8b\u52d9\u6240","boring_xml_url":47,"boring_view_url":1,"soilmap_view_url":null,"soiltest_xml_url":50,"soiltest_view_url":49}]}}