{"header":{"xyz":{"source":[],"mosaic":false},"page":248,"raw":{"soiltest_result":"0","bbox":"57.598333,109.544722,1.933333,163.806111","page":"248"},"conditions":{"soiltest_result":0,"north":57.598333,"west":109.544722,"south":1.933333,"east":163.806111},"success":true,"message":""},"data":{"meta":{"total":212844,"page":248,"pages":7095,"count":30},"values":[{"id":575750,"code":"NGIC202204905-0006","latitude":"35.908291861111","longitude":"139.54588","source_code":"","project_name":"","survey_name":"R4\u53e4\u8c37\u6a0b\u7ba1\u5824\u9632\u958b\u524a\u8abf\u67fb\u696d\u52d9","client_name":"\u56fd\u571f\u4ea4\u901a\u7701\u95a2\u6771\u5730\u65b9\u6574\u5099\u5c40\u8352\u5ddd\u4e0a\u6d41\u6cb3\u5ddd\u4e8b\u52d9\u6240","boring_xml_url":47,"boring_view_url":1,"soilmap_view_url":null,"soiltest_xml_url":47,"soiltest_view_url":47},{"id":575749,"code":"NGIC202204905-0005","latitude":"35.906732944444","longitude":"139.54780241667","source_code":"","project_name":"","survey_name":"R4\u53e4\u8c37\u6a0b\u7ba1\u5824\u9632\u958b\u524a\u8abf\u67fb\u696d\u52d9","client_name":"\u56fd\u571f\u4ea4\u901a\u7701\u95a2\u6771\u5730\u65b9\u6574\u5099\u5c40\u8352\u5ddd\u4e0a\u6d41\u6cb3\u5ddd\u4e8b\u52d9\u6240","boring_xml_url":47,"boring_view_url":1,"soilmap_view_url":null,"soiltest_xml_url":47,"soiltest_view_url":47},{"id":575748,"code":"NGIC202204905-0004","latitude":"35.906520583333","longitude":"139.54764613889","source_code":"","project_name":"","survey_name":"R4\u53e4\u8c37\u6a0b\u7ba1\u5824\u9632\u958b\u524a\u8abf\u67fb\u696d\u52d9","client_name":"\u56fd\u571f\u4ea4\u901a\u7701\u95a2\u6771\u5730\u65b9\u6574\u5099\u5c40\u8352\u5ddd\u4e0a\u6d41\u6cb3\u5ddd\u4e8b\u52d9\u6240","boring_xml_url":47,"boring_view_url":1,"soilmap_view_url":null,"soiltest_xml_url":47,"soiltest_view_url":47},{"id":575747,"code":"NGIC202204905-0003","latitude":"35.908291861111","longitude":"139.54588","source_code":"","project_name":"","survey_name":"R4\u53e4\u8c37\u6a0b\u7ba1\u5824\u9632\u958b\u524a\u8abf\u67fb\u696d\u52d9","client_name":"\u56fd\u571f\u4ea4\u901a\u7701\u95a2\u6771\u5730\u65b9\u6574\u5099\u5c40\u8352\u5ddd\u4e0a\u6d41\u6cb3\u5ddd\u4e8b\u52d9\u6240","boring_xml_url":47,"boring_view_url":1,"soilmap_view_url":null,"soiltest_xml_url":47,"soiltest_view_url":47},{"id":575746,"code":"NGIC202204905-0002","latitude":"35.906732944444","longitude":"139.54780241667","source_code":"","project_name":"","survey_name":"R4\u53e4\u8c37\u6a0b\u7ba1\u5824\u9632\u958b\u524a\u8abf\u67fb\u696d\u52d9","client_name":"\u56fd\u571f\u4ea4\u901a\u7701\u95a2\u6771\u5730\u65b9\u6574\u5099\u5c40\u8352\u5ddd\u4e0a\u6d41\u6cb3\u5ddd\u4e8b\u52d9\u6240","boring_xml_url":47,"boring_view_url":1,"soilmap_view_url":null,"soiltest_xml_url":47,"soiltest_view_url":47},{"id":575745,"code":"NGIC202204905-0001","latitude":"35.906520583333","longitude":"139.54764613889","source_code":"","project_name":"","survey_name":"R4\u53e4\u8c37\u6a0b\u7ba1\u5824\u9632\u958b\u524a\u8abf\u67fb\u696d\u52d9","client_name":"\u56fd\u571f\u4ea4\u901a\u7701\u95a2\u6771\u5730\u65b9\u6574\u5099\u5c40\u8352\u5ddd\u4e0a\u6d41\u6cb3\u5ddd\u4e8b\u52d9\u6240","boring_xml_url":47,"boring_view_url":1,"soilmap_view_url":null,"soiltest_xml_url":47,"soiltest_view_url":47},{"id":575743,"code":"NGIC202205360-0002","latitude":"31.709880555556","longitude":"131.45454444444","source_code":"","project_name":"","survey_name":"\u4ee4\u548c3\u5e74\u5ea6\u4f0a\u6bd4\u4e95\u5730\u533a\u6a4b\u6881\u8a73\u7d30\u8a2d\u8a08\u696d\u52d9","client_name":"\u56fd\u571f\u4ea4\u901a\u7701\u4e5d\u5dde\u5730\u65b9\u6574\u5099\u5c40\u5bae\u5d0e\u6cb3\u5ddd\u56fd\u9053\u4e8b\u52d9\u6240","boring_xml_url":47,"boring_view_url":1,"soilmap_view_url":null,"soiltest_xml_url":47,"soiltest_view_url":47},{"id":575742,"code":"NGIC202205360-0001","latitude":"31.710311111111","longitude":"131.45485","source_code":"","project_name":"","survey_name":"\u4ee4\u548c3\u5e74\u5ea6\u4f0a\u6bd4\u4e95\u5730\u533a\u6a4b\u6881\u8a73\u7d30\u8a2d\u8a08\u696d\u52d9","client_name":"\u56fd\u571f\u4ea4\u901a\u7701\u4e5d\u5dde\u5730\u65b9\u6574\u5099\u5c40\u5bae\u5d0e\u6cb3\u5ddd\u56fd\u9053\u4e8b\u52d9\u6240","boring_xml_url":47,"boring_view_url":1,"soilmap_view_url":null,"soiltest_xml_url":0,"soiltest_view_url":0},{"id":575727,"code":"NGIC202205160-0002","latitude":"32.617194444444","longitude":"130.48780555556","source_code":"","project_name":"\u4ee4\u548c3\u5e74\u5ea6\u718a\u672c\u5929\u8349\u5e79\u7dda\u9053\u8def\u5730\u8cea\u8abf\u67fb\uff08\u305d\u306e2\uff09\u696d\u52d9","survey_name":"\u4ee4\u548c3\u5e74\u5ea6\u718a\u672c\u5929\u8349\u5e79\u7dda\u9053\u8def\u5730\u8cea\u8abf\u67fb\uff08\u305d\u306e2\uff09\u696d\u52d9","client_name":"\u56fd\u571f\u4ea4\u901a\u7701\u4e5d\u5dde\u5730\u65b9\u6574\u5099\u5c40\u516b\u4ee3\u6cb3\u5ddd\u56fd\u9053\u4e8b\u52d9\u6240","boring_xml_url":47,"boring_view_url":1,"soilmap_view_url":null,"soiltest_xml_url":0,"soiltest_view_url":0},{"id":575726,"code":"NGIC202205160-0001","latitude":"32.613277777778","longitude":"130.47825","source_code":"","project_name":"\u4ee4\u548c3\u5e74\u5ea6\u718a\u672c\u5929\u8349\u5e79\u7dda\u9053\u8def\u5730\u8cea\u8abf\u67fb\uff08\u305d\u306e2\uff09\u696d\u52d9","survey_name":"\u4ee4\u548c3\u5e74\u5ea6\u718a\u672c\u5929\u8349\u5e79\u7dda\u9053\u8def\u5730\u8cea\u8abf\u67fb\uff08\u305d\u306e2\uff09\u696d\u52d9","client_name":"\u56fd\u571f\u4ea4\u901a\u7701\u4e5d\u5dde\u5730\u65b9\u6574\u5099\u5c40\u516b\u4ee3\u6cb3\u5ddd\u56fd\u9053\u4e8b\u52d9\u6240","boring_xml_url":47,"boring_view_url":1,"soilmap_view_url":null,"soiltest_xml_url":0,"soiltest_view_url":0},{"id":575677,"code":"NGIC202205548-0003","latitude":"42.518087944444","longitude":"140.90790619444","source_code":"","project_name":"\u56fd\u55b6\u7dca\u6025\u8fb2\u5730\u518d\u7de8\u6574\u5099\u4e8b\u696d","survey_name":"\u4ee4\u548c4\u5e74\u5ea6\u65bd\u884c\u4f0a\u9054\u5730\u533a\u5927\u5e734\u5de5\u533a\u533a\u753b\u6574\u7406\u8a2d\u8a08\u7b49\u696d\u52d9","client_name":"\u56fd\u571f\u4ea4\u901a\u7701\u5317\u6d77\u9053\u958b\u767a\u5c40\u5ba4\u862d\u958b\u767a\u5efa\u8a2d\u90e8\u3000\u80c6\u632f\u8fb2\u696d\u4e8b\u52d9\u6240","boring_xml_url":47,"boring_view_url":1,"soilmap_view_url":null,"soiltest_xml_url":47,"soiltest_view_url":47},{"id":575676,"code":"NGIC202205548-0002","latitude":"42.518171222222","longitude":"140.90577777778","source_code":"","project_name":"\u56fd\u55b6\u7dca\u6025\u8fb2\u5730\u518d\u7de8\u6574\u5099\u4e8b\u696d","survey_name":"\u4ee4\u548c4\u5e74\u5ea6\u65bd\u884c\u4f0a\u9054\u5730\u533a\u5927\u5e734\u5de5\u533a\u533a\u753b\u6574\u7406\u8a2d\u8a08\u7b49\u696d\u52d9","client_name":"\u56fd\u571f\u4ea4\u901a\u7701\u5317\u6d77\u9053\u958b\u767a\u5c40\u5ba4\u862d\u958b\u767a\u5efa\u8a2d\u90e8\u3000\u80c6\u632f\u8fb2\u696d\u4e8b\u52d9\u6240","boring_xml_url":47,"boring_view_url":1,"soilmap_view_url":null,"soiltest_xml_url":47,"soiltest_view_url":47},{"id":575675,"code":"NGIC202205548-0001","latitude":"42.519027722222","longitude":"140.90588288889","source_code":"","project_name":"\u56fd\u55b6\u7dca\u6025\u8fb2\u5730\u518d\u7de8\u6574\u5099\u4e8b\u696d","survey_name":"\u4ee4\u548c4\u5e74\u5ea6\u65bd\u884c\u4f0a\u9054\u5730\u533a\u5927\u5e734\u5de5\u533a\u533a\u753b\u6574\u7406\u8a2d\u8a08\u7b49\u696d\u52d9","client_name":"\u56fd\u571f\u4ea4\u901a\u7701\u5317\u6d77\u9053\u958b\u767a\u5c40\u5ba4\u862d\u958b\u767a\u5efa\u8a2d\u90e8\u3000\u80c6\u632f\u8fb2\u696d\u4e8b\u52d9\u6240","boring_xml_url":47,"boring_view_url":1,"soilmap_view_url":null,"soiltest_xml_url":47,"soiltest_view_url":47},{"id":575672,"code":"NGIC202205248-0026","latitude":"32.217944444444","longitude":"130.80102777778","source_code":"","project_name":"","survey_name":"\u4ee4\u548c3\u5e74\u5ea6\u7403\u78e8\u5ddd\u6c34\u7cfb\u5730\u8cea\u8abf\u67fb\u7b49\u696d\u52d9","client_name":"\u56fd\u571f\u4ea4\u901a\u7701\u4e5d\u5dde\u5730\u65b9\u6574\u5099\u5c40\u516b\u4ee3\u6cb3\u5ddd\u56fd\u9053\u4e8b\u52d9\u6240","boring_xml_url":47,"boring_view_url":1,"soilmap_view_url":null,"soiltest_xml_url":47,"soiltest_view_url":47},{"id":575671,"code":"NGIC202205248-0025","latitude":"32.214666666667","longitude":"130.80272222222","source_code":"","project_name":"","survey_name":"\u4ee4\u548c3\u5e74\u5ea6\u7403\u78e8\u5ddd\u6c34\u7cfb\u5730\u8cea\u8abf\u67fb\u7b49\u696d\u52d9","client_name":"\u56fd\u571f\u4ea4\u901a\u7701\u4e5d\u5dde\u5730\u65b9\u6574\u5099\u5c40\u516b\u4ee3\u6cb3\u5ddd\u56fd\u9053\u4e8b\u52d9\u6240","boring_xml_url":47,"boring_view_url":1,"soilmap_view_url":null,"soiltest_xml_url":0,"soiltest_view_url":0},{"id":575670,"code":"NGIC202205248-0024","latitude":"32.21475","longitude":"130.80322222222","source_code":"","project_name":"","survey_name":"\u4ee4\u548c3\u5e74\u5ea6\u7403\u78e8\u5ddd\u6c34\u7cfb\u5730\u8cea\u8abf\u67fb\u7b49\u696d\u52d9","client_name":"\u56fd\u571f\u4ea4\u901a\u7701\u4e5d\u5dde\u5730\u65b9\u6574\u5099\u5c40\u516b\u4ee3\u6cb3\u5ddd\u56fd\u9053\u4e8b\u52d9\u6240","boring_xml_url":47,"boring_view_url":1,"soilmap_view_url":null,"soiltest_xml_url":47,"soiltest_view_url":47},{"id":575669,"code":"NGIC202205248-0023","latitude":"32.21175","longitude":"130.80322222222","source_code":"","project_name":"","survey_name":"\u4ee4\u548c3\u5e74\u5ea6\u7403\u78e8\u5ddd\u6c34\u7cfb\u5730\u8cea\u8abf\u67fb\u7b49\u696d\u52d9","client_name":"\u56fd\u571f\u4ea4\u901a\u7701\u4e5d\u5dde\u5730\u65b9\u6574\u5099\u5c40\u516b\u4ee3\u6cb3\u5ddd\u56fd\u9053\u4e8b\u52d9\u6240","boring_xml_url":47,"boring_view_url":1,"soilmap_view_url":null,"soiltest_xml_url":47,"soiltest_view_url":47},{"id":575668,"code":"NGIC202205248-0022","latitude":"32.220194444444","longitude":"130.72388888889","source_code":"","project_name":"","survey_name":"\u4ee4\u548c3\u5e74\u5ea6\u7403\u78e8\u5ddd\u6c34\u7cfb\u5730\u8cea\u8abf\u67fb\u7b49\u696d\u52d9","client_name":"\u56fd\u571f\u4ea4\u901a\u7701\u4e5d\u5dde\u5730\u65b9\u6574\u5099\u5c40\u516b\u4ee3\u6cb3\u5ddd\u56fd\u9053\u4e8b\u52d9\u6240","boring_xml_url":47,"boring_view_url":1,"soilmap_view_url":null,"soiltest_xml_url":47,"soiltest_view_url":47},{"id":575667,"code":"NGIC202205248-0021","latitude":"32.223277777778","longitude":"130.71944444444","source_code":"","project_name":"","survey_name":"\u4ee4\u548c3\u5e74\u5ea6\u7403\u78e8\u5ddd\u6c34\u7cfb\u5730\u8cea\u8abf\u67fb\u7b49\u696d\u52d9","client_name":"\u56fd\u571f\u4ea4\u901a\u7701\u4e5d\u5dde\u5730\u65b9\u6574\u5099\u5c40\u516b\u4ee3\u6cb3\u5ddd\u56fd\u9053\u4e8b\u52d9\u6240","boring_xml_url":47,"boring_view_url":1,"soilmap_view_url":null,"soiltest_xml_url":0,"soiltest_view_url":0},{"id":575666,"code":"NGIC202205248-0020","latitude":"32.221305555556","longitude":"130.71941666667","source_code":"","project_name":"","survey_name":"\u4ee4\u548c3\u5e74\u5ea6\u7403\u78e8\u5ddd\u6c34\u7cfb\u5730\u8cea\u8abf\u67fb\u7b49\u696d\u52d9","client_name":"\u56fd\u571f\u4ea4\u901a\u7701\u4e5d\u5dde\u5730\u65b9\u6574\u5099\u5c40\u516b\u4ee3\u6cb3\u5ddd\u56fd\u9053\u4e8b\u52d9\u6240","boring_xml_url":47,"boring_view_url":1,"soilmap_view_url":null,"soiltest_xml_url":47,"soiltest_view_url":47},{"id":575665,"code":"NGIC202205248-0019","latitude":"32.218972222222","longitude":"130.71811111111","source_code":"","project_name":"","survey_name":"\u4ee4\u548c3\u5e74\u5ea6\u7403\u78e8\u5ddd\u6c34\u7cfb\u5730\u8cea\u8abf\u67fb\u7b49\u696d\u52d9","client_name":"\u56fd\u571f\u4ea4\u901a\u7701\u4e5d\u5dde\u5730\u65b9\u6574\u5099\u5c40\u516b\u4ee3\u6cb3\u5ddd\u56fd\u9053\u4e8b\u52d9\u6240","boring_xml_url":47,"boring_view_url":1,"soilmap_view_url":null,"soiltest_xml_url":47,"soiltest_view_url":47},{"id":575664,"code":"NGIC202205248-0018","latitude":"32.217472222222","longitude":"130.72097222222","source_code":"","project_name":"","survey_name":"\u4ee4\u548c3\u5e74\u5ea6\u7403\u78e8\u5ddd\u6c34\u7cfb\u5730\u8cea\u8abf\u67fb\u7b49\u696d\u52d9","client_name":"\u56fd\u571f\u4ea4\u901a\u7701\u4e5d\u5dde\u5730\u65b9\u6574\u5099\u5c40\u516b\u4ee3\u6cb3\u5ddd\u56fd\u9053\u4e8b\u52d9\u6240","boring_xml_url":47,"boring_view_url":1,"soilmap_view_url":null,"soiltest_xml_url":0,"soiltest_view_url":0},{"id":575663,"code":"NGIC202205248-0017","latitude":"32.22025","longitude":"130.72177777778","source_code":"","project_name":"","survey_name":"\u4ee4\u548c3\u5e74\u5ea6\u7403\u78e8\u5ddd\u6c34\u7cfb\u5730\u8cea\u8abf\u67fb\u7b49\u696d\u52d9","client_name":"\u56fd\u571f\u4ea4\u901a\u7701\u4e5d\u5dde\u5730\u65b9\u6574\u5099\u5c40\u516b\u4ee3\u6cb3\u5ddd\u56fd\u9053\u4e8b\u52d9\u6240","boring_xml_url":47,"boring_view_url":1,"soilmap_view_url":null,"soiltest_xml_url":47,"soiltest_view_url":47},{"id":575662,"code":"NGIC202205248-0016","latitude":"32.22225","longitude":"130.71652777778","source_code":"","project_name":"","survey_name":"\u4ee4\u548c3\u5e74\u5ea6\u7403\u78e8\u5ddd\u6c34\u7cfb\u5730\u8cea\u8abf\u67fb\u7b49\u696d\u52d9","client_name":"\u56fd\u571f\u4ea4\u901a\u7701\u4e5d\u5dde\u5730\u65b9\u6574\u5099\u5c40\u516b\u4ee3\u6cb3\u5ddd\u56fd\u9053\u4e8b\u52d9\u6240","boring_xml_url":47,"boring_view_url":1,"soilmap_view_url":null,"soiltest_xml_url":0,"soiltest_view_url":0},{"id":575661,"code":"NGIC202205248-0015","latitude":"32.229611111111","longitude":"130.70516666667","source_code":"","project_name":"","survey_name":"\u4ee4\u548c3\u5e74\u5ea6\u7403\u78e8\u5ddd\u6c34\u7cfb\u5730\u8cea\u8abf\u67fb\u7b49\u696d\u52d9","client_name":"\u56fd\u571f\u4ea4\u901a\u7701\u4e5d\u5dde\u5730\u65b9\u6574\u5099\u5c40\u516b\u4ee3\u6cb3\u5ddd\u56fd\u9053\u4e8b\u52d9\u6240","boring_xml_url":47,"boring_view_url":1,"soilmap_view_url":null,"soiltest_xml_url":0,"soiltest_view_url":0},{"id":575660,"code":"NGIC202205248-0014","latitude":"32.231277777778","longitude":"130.70136111111","source_code":"","project_name":"","survey_name":"\u4ee4\u548c3\u5e74\u5ea6\u7403\u78e8\u5ddd\u6c34\u7cfb\u5730\u8cea\u8abf\u67fb\u7b49\u696d\u52d9","client_name":"\u56fd\u571f\u4ea4\u901a\u7701\u4e5d\u5dde\u5730\u65b9\u6574\u5099\u5c40\u516b\u4ee3\u6cb3\u5ddd\u56fd\u9053\u4e8b\u52d9\u6240","boring_xml_url":47,"boring_view_url":1,"soilmap_view_url":null,"soiltest_xml_url":0,"soiltest_view_url":0},{"id":575659,"code":"NGIC202205248-0013","latitude":"32.23125","longitude":"130.70502777778","source_code":"","project_name":"","survey_name":"\u4ee4\u548c3\u5e74\u5ea6\u7403\u78e8\u5ddd\u6c34\u7cfb\u5730\u8cea\u8abf\u67fb\u7b49\u696d\u52d9","client_name":"\u56fd\u571f\u4ea4\u901a\u7701\u4e5d\u5dde\u5730\u65b9\u6574\u5099\u5c40\u516b\u4ee3\u6cb3\u5ddd\u56fd\u9053\u4e8b\u52d9\u6240","boring_xml_url":47,"boring_view_url":1,"soilmap_view_url":null,"soiltest_xml_url":47,"soiltest_view_url":47},{"id":575658,"code":"NGIC202205248-0012","latitude":"32.232555555556","longitude":"130.70155555556","source_code":"","project_name":"","survey_name":"\u4ee4\u548c3\u5e74\u5ea6\u7403\u78e8\u5ddd\u6c34\u7cfb\u5730\u8cea\u8abf\u67fb\u7b49\u696d\u52d9","client_name":"\u56fd\u571f\u4ea4\u901a\u7701\u4e5d\u5dde\u5730\u65b9\u6574\u5099\u5c40\u516b\u4ee3\u6cb3\u5ddd\u56fd\u9053\u4e8b\u52d9\u6240","boring_xml_url":47,"boring_view_url":1,"soilmap_view_url":null,"soiltest_xml_url":47,"soiltest_view_url":47},{"id":575657,"code":"NGIC202205248-0011","latitude":"32.233972222222","longitude":"130.69858333333","source_code":"","project_name":"","survey_name":"\u4ee4\u548c3\u5e74\u5ea6\u7403\u78e8\u5ddd\u6c34\u7cfb\u5730\u8cea\u8abf\u67fb\u7b49\u696d\u52d9","client_name":"\u56fd\u571f\u4ea4\u901a\u7701\u4e5d\u5dde\u5730\u65b9\u6574\u5099\u5c40\u516b\u4ee3\u6cb3\u5ddd\u56fd\u9053\u4e8b\u52d9\u6240","boring_xml_url":47,"boring_view_url":1,"soilmap_view_url":null,"soiltest_xml_url":47,"soiltest_view_url":47},{"id":575656,"code":"NGIC202205248-0010","latitude":"32.234027777778","longitude":"130.69722222222","source_code":"","project_name":"","survey_name":"\u4ee4\u548c3\u5e74\u5ea6\u7403\u78e8\u5ddd\u6c34\u7cfb\u5730\u8cea\u8abf\u67fb\u7b49\u696d\u52d9","client_name":"\u56fd\u571f\u4ea4\u901a\u7701\u4e5d\u5dde\u5730\u65b9\u6574\u5099\u5c40\u516b\u4ee3\u6cb3\u5ddd\u56fd\u9053\u4e8b\u52d9\u6240","boring_xml_url":47,"boring_view_url":1,"soilmap_view_url":null,"soiltest_xml_url":47,"soiltest_view_url":47}]}}