{"header":{"xyz":{"source":[],"mosaic":false},"page":2484,"raw":{"soiltest_result":"0","bbox":"57.598333,109.544722,1.933333,163.806111","page":"2484"},"conditions":{"soiltest_result":0,"north":57.598333,"west":109.544722,"south":1.933333,"east":163.806111},"success":true,"message":""},"data":{"meta":{"total":212844,"page":2484,"pages":7095,"count":30},"values":[{"id":256036,"code":"B4KJ201802002-1516","latitude":"33.456581","longitude":"134.240155","source_code":"SK038862512000100017","project_name":"\u5e73\u621015\u5e74\u5ea6 \u571f\u4f50\u7ba1\u5185\u9632\u707d\u5730\u8cea\u8abf\u67fb\u696d\u52d9","survey_name":"\u5e73\u621015\u5e74\u5ea6 \u571f\u4f50\u7ba1\u5185\u9632\u707d\u5730\u8cea\u8abf\u67fb\u696d\u52d9","client_name":"\u56fd\u571f\u4ea4\u901a\u7701 \u571f\u4f50\u56fd\u9053\u4e8b\u52d9\u6240","boring_xml_url":47,"boring_view_url":1,"soilmap_view_url":null,"soiltest_xml_url":0,"soiltest_view_url":0},{"id":256035,"code":"B4KJ201802002-1515","latitude":"33.460553","longitude":"134.240627","source_code":"SK038862512000100016","project_name":"\u5e73\u621015\u5e74\u5ea6 \u571f\u4f50\u7ba1\u5185\u9632\u707d\u5730\u8cea\u8abf\u67fb\u696d\u52d9","survey_name":"\u5e73\u621015\u5e74\u5ea6 \u571f\u4f50\u7ba1\u5185\u9632\u707d\u5730\u8cea\u8abf\u67fb\u696d\u52d9","client_name":"\u56fd\u571f\u4ea4\u901a\u7701 \u571f\u4f50\u56fd\u9053\u4e8b\u52d9\u6240","boring_xml_url":47,"boring_view_url":1,"soilmap_view_url":null,"soiltest_xml_url":0,"soiltest_view_url":0},{"id":256034,"code":"B4KJ201802002-1514","latitude":"33.460553","longitude":"134.240572","source_code":"SK038862512000100015","project_name":"\u5e73\u621015\u5e74\u5ea6 \u571f\u4f50\u7ba1\u5185\u9632\u707d\u5730\u8cea\u8abf\u67fb\u696d\u52d9","survey_name":"\u5e73\u621015\u5e74\u5ea6 \u571f\u4f50\u7ba1\u5185\u9632\u707d\u5730\u8cea\u8abf\u67fb\u696d\u52d9","client_name":"\u56fd\u571f\u4ea4\u901a\u7701 \u571f\u4f50\u56fd\u9053\u4e8b\u52d9\u6240","boring_xml_url":47,"boring_view_url":1,"soilmap_view_url":null,"soiltest_xml_url":0,"soiltest_view_url":0},{"id":256033,"code":"B4KJ201802002-1513","latitude":"33.492354","longitude":"134.262655","source_code":"SK038862512000100014","project_name":"\u5e73\u621015\u5e74\u5ea6 \u571f\u4f50\u7ba1\u5185\u9632\u707d\u5730\u8cea\u8abf\u67fb\u696d\u52d9","survey_name":"\u5e73\u621015\u5e74\u5ea6 \u571f\u4f50\u7ba1\u5185\u9632\u707d\u5730\u8cea\u8abf\u67fb\u696d\u52d9","client_name":"\u56fd\u571f\u4ea4\u901a\u7701 \u571f\u4f50\u56fd\u9053\u4e8b\u52d9\u6240","boring_xml_url":47,"boring_view_url":1,"soilmap_view_url":null,"soiltest_xml_url":0,"soiltest_view_url":0},{"id":256032,"code":"B4KJ201802002-1512","latitude":"33.492382","longitude":"134.262599","source_code":"SK038862512000100013","project_name":"\u5e73\u621015\u5e74\u5ea6 \u571f\u4f50\u7ba1\u5185\u9632\u707d\u5730\u8cea\u8abf\u67fb\u696d\u52d9","survey_name":"\u5e73\u621015\u5e74\u5ea6 \u571f\u4f50\u7ba1\u5185\u9632\u707d\u5730\u8cea\u8abf\u67fb\u696d\u52d9","client_name":"\u56fd\u571f\u4ea4\u901a\u7701 \u571f\u4f50\u56fd\u9053\u4e8b\u52d9\u6240","boring_xml_url":47,"boring_view_url":1,"soilmap_view_url":null,"soiltest_xml_url":0,"soiltest_view_url":0},{"id":256031,"code":"B4KJ201802002-1511","latitude":"33.464067","longitude":"133.347827","source_code":"SK038862512000100012","project_name":"\u4e00\u822c\u56fd\u905356\u53f7\u5bb6\u4fca\u6a4b\u6881\u8abf\u67fb\u30dc\u30fc\u30ea\u30f3\u30b0","survey_name":"\u5e73\u621015\u5e74\u5ea6 \u571f\u4f50\u7ba1\u5185\u9632\u707d\u5730\u8cea\u8abf\u67fb\u696d\u52d9","client_name":"\u56fd\u571f\u4ea4\u901a\u7701 \u571f\u4f50\u56fd\u9053\u4e8b\u52d9\u6240","boring_xml_url":47,"boring_view_url":1,"soilmap_view_url":null,"soiltest_xml_url":0,"soiltest_view_url":0},{"id":256030,"code":"B4KJ201802002-1510","latitude":"33.464428","longitude":"133.348105","source_code":"SK038862512000100011","project_name":"\u4e00\u822c\u56fd\u905356\u53f7\u5bb6\u4fca\u6a4b\u6881\u8abf\u67fb\u30dc\u30fc\u30ea\u30f3\u30b0","survey_name":"\u5e73\u621015\u5e74\u5ea6 \u571f\u4f50\u7ba1\u5185\u9632\u707d\u5730\u8cea\u8abf\u67fb\u696d\u52d9","client_name":"\u56fd\u571f\u4ea4\u901a\u7701 \u571f\u4f50\u56fd\u9053\u4e8b\u52d9\u6240","boring_xml_url":47,"boring_view_url":1,"soilmap_view_url":null,"soiltest_xml_url":0,"soiltest_view_url":0},{"id":256029,"code":"B4KJ201802002-1509","latitude":"33.524734","longitude":"133.760205","source_code":"SK038862512000100010","project_name":"(\u4e00\u822c\u56fd\u905355\u53f7\u624b\u7d50\u5c71\u5730\u533a)","survey_name":"\u5e73\u621015\u5e74\u5ea6 \u571f\u4f50\u7ba1\u5185\u9632\u707d\u5730\u8cea\u8abf\u67fb\u696d\u52d9","client_name":"\u56fd\u571f\u4ea4\u901a\u7701\u56db\u56fd\u5730\u65b9\u6574\u5099\u5c40\u571f\u4f50\u56fd\u9053\u4e8b\u52d9\u6240","boring_xml_url":47,"boring_view_url":1,"soilmap_view_url":null,"soiltest_xml_url":0,"soiltest_view_url":0},{"id":256028,"code":"B4KJ201802002-1508","latitude":"33.52479","longitude":"133.760316","source_code":"SK038862512000100009","project_name":"(\u4e00\u822c\u56fd\u905355\u53f7\u624b\u7d50\u5c71\u5730\u533a)","survey_name":"\u5e73\u621015\u5e74\u5ea6 \u571f\u4f50\u7ba1\u5185\u9632\u707d\u5730\u8cea\u8abf\u67fb\u696d\u52d9","client_name":"\u56fd\u571f\u4ea4\u901a\u7701\u56db\u56fd\u5730\u65b9\u6574\u5099\u5c40\u571f\u4f50\u56fd\u9053\u4e8b\u52d9\u6240","boring_xml_url":47,"boring_view_url":1,"soilmap_view_url":null,"soiltest_xml_url":0,"soiltest_view_url":0},{"id":256027,"code":"B4KJ201802002-1507","latitude":"33.524845","longitude":"133.7604","source_code":"SK038862512000100008","project_name":"(\u4e00\u822c\u56fd\u905355\u53f7\u624b\u7d50\u5c71\u5730\u533a)","survey_name":"\u5e73\u621015\u5e74\u5ea6 \u571f\u4f50\u7ba1\u5185\u9632\u707d\u5730\u8cea\u8abf\u67fb\u696d\u52d9","client_name":"\u56fd\u571f\u4ea4\u901a\u7701\u56db\u56fd\u5730\u65b9\u6574\u5099\u5c40\u571f\u4f50\u56fd\u9053\u4e8b\u52d9\u6240","boring_xml_url":47,"boring_view_url":1,"soilmap_view_url":null,"soiltest_xml_url":0,"soiltest_view_url":0},{"id":256026,"code":"B4KJ201802002-1506","latitude":"33.524206","longitude":"133.760872","source_code":"SK038862512000100007","project_name":"(\u4e00\u822c\u56fd\u905355\u53f7\u624b\u7d50\u5c71\u5730\u533a)","survey_name":"\u5e73\u621015\u5e74\u5ea6 \u571f\u4f50\u7ba1\u5185\u9632\u707d\u5730\u8cea\u8abf\u67fb\u696d\u52d9","client_name":"\u56fd\u571f\u4ea4\u901a\u7701\u56db\u56fd\u5730\u65b9\u6574\u5099\u5c40\u571f\u4f50\u56fd\u9053\u4e8b\u52d9\u6240","boring_xml_url":47,"boring_view_url":1,"soilmap_view_url":null,"soiltest_xml_url":0,"soiltest_view_url":0},{"id":256025,"code":"B4KJ201802002-1505","latitude":"33.524262","longitude":"133.760927","source_code":"SK038862512000100006","project_name":"(\u4e00\u822c\u56fd\u905355\u53f7\u624b\u7d50\u5c71\u5730\u533a)","survey_name":"\u5e73\u621015\u5e74\u5ea6 \u571f\u4f50\u7ba1\u5185\u9632\u707d\u5730\u8cea\u8abf\u67fb\u696d\u52d9","client_name":"\u56fd\u571f\u4ea4\u901a\u7701\u56db\u56fd\u5730\u65b9\u6574\u5099\u5c40\u571f\u4f50\u56fd\u9053\u4e8b\u52d9\u6240","boring_xml_url":47,"boring_view_url":1,"soilmap_view_url":null,"soiltest_xml_url":0,"soiltest_view_url":0},{"id":256024,"code":"B4KJ201802002-1504","latitude":"33.523984","longitude":"133.761233","source_code":"SK038862512000100005","project_name":"(\u4e00\u822c\u56fd\u905355\u53f7\u624b\u7d50\u5c71\u5730\u533a)","survey_name":"\u5e73\u621015\u5e74\u5ea6 \u571f\u4f50\u7ba1\u5185\u9632\u707d\u5730\u8cea\u8abf\u67fb\u696d\u52d9","client_name":"\u56fd\u571f\u4ea4\u901a\u7701\u56db\u56fd\u5730\u65b9\u6574\u5099\u5c40\u571f\u4f50\u56fd\u9053\u4e8b\u52d9\u6240","boring_xml_url":47,"boring_view_url":1,"soilmap_view_url":null,"soiltest_xml_url":0,"soiltest_view_url":0},{"id":256023,"code":"B4KJ201802002-1503","latitude":"33.52404","longitude":"133.761316","source_code":"SK038862512000100004","project_name":"(\u4e00\u822c\u56fd\u905355\u53f7\u624b\u7d50\u5c71\u5730\u533a)","survey_name":"\u5e73\u621015\u5e74\u5ea6 \u571f\u4f50\u7ba1\u5185\u9632\u707d\u5730\u8cea\u8abf\u67fb\u696d\u52d9","client_name":"\u56fd\u571f\u4ea4\u901a\u7701\u56db\u56fd\u5730\u65b9\u6574\u5099\u5c40\u571f\u4f50\u56fd\u9053\u4e8b\u52d9\u6240","boring_xml_url":47,"boring_view_url":1,"soilmap_view_url":null,"soiltest_xml_url":0,"soiltest_view_url":0},{"id":256022,"code":"B4KJ201802002-1502","latitude":"33.540526","longitude":"133.228865","source_code":"SK038862512000100002","project_name":"\u4e00\u822c\u56fd\u905333\u53f734k840\u8abf\u67fb\u30dc\u30fc\u30ea\u30f3\u30b0","survey_name":"\u5e73\u621015\u5e74\u5ea6 \u571f\u4f50\u7ba1\u5185\u9632\u707d\u5730\u8cea\u8abf\u67fb\u696d\u52d9","client_name":"\u56fd\u571f\u4ea4\u901a\u7701\u56db\u56fd\u5730\u65b9\u6574\u5099\u5c40\u571f\u4f50\u56fd\u9053\u4e8b\u52d9\u6240","boring_xml_url":47,"boring_view_url":1,"soilmap_view_url":null,"soiltest_xml_url":0,"soiltest_view_url":0},{"id":256021,"code":"B4KJ201802002-1501","latitude":"33.540553","longitude":"133.229004","source_code":"SK038862512000100001","project_name":"\u4e00\u822c\u56fd\u905333\u53f734k840\u8abf\u67fb\u30dc\u30fc\u30ea\u30f3\u30b0","survey_name":"\u5e73\u621015\u5e74\u5ea6 \u571f\u4f50\u7ba1\u5185\u9632\u707d\u5730\u8cea\u8abf\u67fb","client_name":"\u56fd\u571f\u4ea4\u901a\u7701\u56db\u56fd\u5730\u65b9\u6574\u5099\u5c40\u571f\u4f50\u56fd\u9053\u4e8b\u52d9\u6240","boring_xml_url":47,"boring_view_url":1,"soilmap_view_url":null,"soiltest_xml_url":0,"soiltest_view_url":0},{"id":256020,"code":"B4KJ201802002-1500","latitude":"33.574194","longitude":"133.622417","source_code":"SK038862602000040014","project_name":"\u5e73\u621015\u5e74\u5ea6 \u9ad8\u77e5\u6771\u9053\u8def\u59161\u4ef6\u5730\u8cea\u8abf\u67fb\u696d\u52d9","survey_name":"\u5e73\u621015\u5e74\u5ea6 \u9ad8\u77e5\u6771\u9053\u8def\u59161\u4ef6\u5730\u8cea\u8abf\u67fb\u696d\u52d9","client_name":"\u56fd\u571f\u4ea4\u901a\u7701\u56db\u56fd\u5730\u65b9\u6574\u5099\u5c40\u571f\u4f50\u56fd\u9053\u4e8b\u52d9\u6240","boring_xml_url":47,"boring_view_url":1,"soilmap_view_url":null,"soiltest_xml_url":0,"soiltest_view_url":0},{"id":256019,"code":"B4KJ201802002-1499","latitude":"33.575083","longitude":"133.622444","source_code":"SK038862602000040013","project_name":"\u5e73\u621015\u5e74\u5ea6 \u9ad8\u77e5\u6771\u9053\u8def\u59161\u4ef6\u5730\u8cea\u8abf\u67fb\u696d\u52d9","survey_name":"\u5e73\u621015\u5e74\u5ea6 \u9ad8\u77e5\u6771\u9053\u8def\u59161\u4ef6\u5730\u8cea\u8abf\u67fb\u696d\u52d9","client_name":"\u56fd\u571f\u4ea4\u901a\u7701\u56db\u56fd\u5730\u65b9\u6574\u5099\u5c40\u571f\u4f50\u56fd\u9053\u4e8b\u52d9\u6240","boring_xml_url":47,"boring_view_url":1,"soilmap_view_url":null,"soiltest_xml_url":0,"soiltest_view_url":0},{"id":256018,"code":"B4KJ201802002-1498","latitude":"33.578056","longitude":"133.622583","source_code":"SK038862602000040012","project_name":"\u5e73\u621015\u5e74\u5ea6 \u9ad8\u77e5\u6771\u9053\u8def\u59161\u4ef6\u5730\u8cea\u8abf\u67fb\u696d\u52d9","survey_name":"\u5e73\u621015\u5e74\u5ea6 \u9ad8\u77e5\u6771\u9053\u8def\u59161\u4ef6\u5730\u8cea\u8abf\u67fb\u696d\u52d9","client_name":"\u56fd\u571f\u4ea4\u901a\u7701\u56db\u56fd\u5730\u65b9\u6574\u5099\u5c40\u571f\u4f50\u56fd\u9053\u4e8b\u52d9\u6240","boring_xml_url":47,"boring_view_url":1,"soilmap_view_url":null,"soiltest_xml_url":0,"soiltest_view_url":0},{"id":256017,"code":"B4KJ201802002-1497","latitude":"33.675","longitude":"133.691667","source_code":"SK038862602000040008","project_name":"\u5e73\u621015\u5e74\u5ea6 \u9ad8\u77e5\u6771\u9053\u8def\u59161\u4ef6\u5730\u8cea\u8abf\u67fb\u696d\u52d9","survey_name":"\u5e73\u621015\u5e74\u5ea6 \u9ad8\u77e5\u6771\u9053\u8def\u59161\u4ef6\u5730\u8cea\u8abf\u67fb\u696d\u52d9","client_name":"\u56fd\u571f\u4ea4\u901a\u7701\u56db\u56fd\u5730\u65b9\u6574\u5099\u5c40\u571f\u4f50\u56fd\u9053\u4e8b\u52d9\u6240","boring_xml_url":47,"boring_view_url":1,"soilmap_view_url":null,"soiltest_xml_url":0,"soiltest_view_url":0},{"id":256016,"code":"B4KJ201802002-1496","latitude":"33.675","longitude":"133.691667","source_code":"SK038862602000040007","project_name":"\u5e73\u621015\u5e74\u5ea6 \u9ad8\u77e5\u6771\u9053\u8def\u59161\u4ef6\u5730\u8cea\u8abf\u67fb\u696d\u52d9","survey_name":"\u5e73\u621015\u5e74\u5ea6 \u9ad8\u77e5\u6771\u9053\u8def\u59161\u4ef6\u5730\u8cea\u8abf\u67fb\u696d\u52d9","client_name":"\u56fd\u571f\u4ea4\u901a\u7701\u56db\u56fd\u5730\u65b9\u6574\u5099\u5c40\u571f\u4f50\u56fd\u9053\u4e8b\u52d9\u6240","boring_xml_url":47,"boring_view_url":1,"soilmap_view_url":null,"soiltest_xml_url":0,"soiltest_view_url":0},{"id":256015,"code":"B4KJ201802002-1495","latitude":"33.675","longitude":"133.691667","source_code":"SK038862602000040006","project_name":"\u5e73\u621015\u5e74\u5ea6 \u9ad8\u77e5\u6771\u9053\u8def\u59161\u4ef6\u5730\u8cea\u8abf\u67fb\u696d\u52d9","survey_name":"\u5e73\u621015\u5e74\u5ea6 \u9ad8\u77e5\u6771\u9053\u8def\u59161\u4ef6\u5730\u8cea\u8abf\u67fb\u696d\u52d9","client_name":"\u56fd\u571f\u4ea4\u901a\u7701\u56db\u56fd\u5730\u65b9\u6574\u5099\u5c40\u571f\u4f50\u56fd\u9053\u4e8b\u52d9\u6240","boring_xml_url":47,"boring_view_url":1,"soilmap_view_url":null,"soiltest_xml_url":0,"soiltest_view_url":0},{"id":256014,"code":"B4KJ201802002-1494","latitude":"33.675","longitude":"133.691667","source_code":"SK038862602000040005","project_name":"\u5e73\u621015\u5e74\u5ea6 \u9ad8\u77e5\u6771\u9053\u8def\u59161\u4ef6\u5730\u8cea\u8abf\u67fb\u696d\u52d9","survey_name":"\u5e73\u621015\u5e74\u5ea6 \u9ad8\u77e5\u6771\u9053\u8def\u59161\u4ef6\u5730\u8cea\u8abf\u67fb\u696d\u52d9","client_name":"\u56fd\u571f\u4ea4\u901a\u7701\u56db\u56fd\u5730\u65b9\u6574\u5099\u5c40\u571f\u4f50\u56fd\u9053\u4e8b\u52d9\u6240","boring_xml_url":47,"boring_view_url":1,"soilmap_view_url":null,"soiltest_xml_url":0,"soiltest_view_url":0},{"id":256013,"code":"B4KJ201802002-1493","latitude":"33.674722","longitude":"133.691667","source_code":"SK038862602000040002","project_name":"\u5e73\u621015\u5e74\u5ea6 \u9ad8\u77e5\u6771\u9053\u8def\u59161\u4ef6\u5730\u8cea\u8abf\u67fb\u696d\u52d9","survey_name":"\u5e73\u621015\u5e74\u5ea6 \u9ad8\u77e5\u6771\u9053\u8def\u59161\u4ef6\u5730\u8cea\u8abf\u67fb\u696d\u52d9","client_name":"\u56fd\u571f\u4ea4\u901a\u7701\u56db\u56fd\u5730\u65b9\u6574\u5099\u5c40\u571f\u4f50\u56fd\u9053\u4e8b\u52d9\u6240","boring_xml_url":47,"boring_view_url":1,"soilmap_view_url":null,"soiltest_xml_url":0,"soiltest_view_url":0},{"id":256012,"code":"B4KJ201802002-1492","latitude":"33.674722","longitude":"133.691667","source_code":"SK038862602000040001","project_name":"\u5e73\u621015\u5e74\u5ea6 \u9ad8\u77e5\u6771\u9053\u8def\u59161\u4ef6\u5730\u8cea\u8abf\u67fb\u696d\u52d9","survey_name":"\u5e73\u621015\u5e74\u5ea6 \u9ad8\u77e5\u6771\u9053\u8def\u59161\u4ef6\u5730\u8cea\u8abf\u67fb\u696d\u52d9","client_name":"\u56fd\u571f\u4ea4\u901a\u7701\u56db\u56fd\u5730\u65b9\u6574\u5099\u5c40\u571f\u4f50\u56fd\u9053\u4e8b\u52d9\u6240","boring_xml_url":47,"boring_view_url":1,"soilmap_view_url":null,"soiltest_xml_url":0,"soiltest_view_url":0},{"id":256011,"code":"B4KJ201802002-1491","latitude":"33.556472","longitude":"133.469528","source_code":"SK038862602000050013","project_name":"","survey_name":"\u5e73\u621015\u5e74\u5ea6 \u9ad8\u77e5\u897f\u30d0\u30a4\u30d1\u30b9\u5730\u8cea\u8abf\u67fb\u696d\u52d9","client_name":"\u56fd\u571f\u4ea4\u901a\u7701\u56db\u56fd\u5730\u65b9\u6574\u5099\u5c40\u571f\u4f50\u56fd\u9053\u4e8b\u52d9\u6240","boring_xml_url":47,"boring_view_url":1,"soilmap_view_url":null,"soiltest_xml_url":50,"soiltest_view_url":49},{"id":256010,"code":"B4KJ201802002-1490","latitude":"33.540694","longitude":"133.437806","source_code":"SK038862602000050012","project_name":"","survey_name":"\u5e73\u621015\u5e74 \u9ad8\u77e5\u897f\u30d0\u30a4\u30d1\u30b9\u5730\u8cea\u8abf\u67fb\u696d\u52d9","client_name":"\u56fd\u571f\u4ea4\u901a\u7701\u56db\u56fd\u5730\u65b9\u6574\u5099\u5c40\u571f\u4f50\u56fd\u9053\u4e8b\u52d9\u6240","boring_xml_url":47,"boring_view_url":1,"soilmap_view_url":null,"soiltest_xml_url":0,"soiltest_view_url":0},{"id":256009,"code":"B4KJ201802002-1489","latitude":"33.54075","longitude":"133.438083","source_code":"SK038862602000050011","project_name":"","survey_name":"\u5e73\u621015\u5e74\u5ea6 \u9ad8\u77e5\u897f\u30d0\u30a4\u30d1\u30b9\u5730\u8cea\u8abf\u67fb\u696d\u52d9","client_name":"\u56fd\u571f\u4ea4\u901a\u7701\u56db\u56fd\u5730\u65b9\u6574\u5099\u5c40\u571f\u4f50\u56fd\u9053\u4e8b\u52d9\u6240","boring_xml_url":47,"boring_view_url":1,"soilmap_view_url":null,"soiltest_xml_url":0,"soiltest_view_url":0},{"id":256008,"code":"B4KJ201802002-1488","latitude":"33.542944","longitude":"133.443556","source_code":"SK038862602000050010","project_name":"","survey_name":"\u5e73\u621015\u5e74\u5ea6 \u9ad8\u77e5\u897f\u30d0\u30a4\u30d1\u30b9\u5730\u8cea\u8abf\u67fb\u696d\u52d9","client_name":"\u56fd\u571f\u4ea4\u901a\u7701\u56db\u56fd\u5730\u65b9\u6574\u5099\u5c40\u571f\u4f50\u56fd\u9053\u4e8b\u52d9\u6240","boring_xml_url":47,"boring_view_url":1,"soilmap_view_url":null,"soiltest_xml_url":50,"soiltest_view_url":49},{"id":256007,"code":"B4KJ201802002-1487","latitude":"33.542778","longitude":"133.443611","source_code":"SK038862602000050009","project_name":"","survey_name":"\u5e73\u621015\u5e74\u5ea6 \u9ad8\u77e5\u897f\u30d0\u30a4\u30d1\u30b9\u5730\u8cea\u8abf\u67fb\u696d\u52d9","client_name":"\u56fd\u571f\u4ea4\u901a\u7701\u56db\u56fd\u5730\u65b9\u6574\u5099\u5c40\u571f\u4f50\u56fd\u9053\u4e8b\u52d9\u6240","boring_xml_url":47,"boring_view_url":1,"soilmap_view_url":null,"soiltest_xml_url":50,"soiltest_view_url":49}]}}