{"header":{"xyz":{"source":[],"mosaic":false},"page":2485,"raw":{"soiltest_result":"0","bbox":"57.598333,109.544722,1.933333,163.806111","page":"2485"},"conditions":{"soiltest_result":0,"north":57.598333,"west":109.544722,"south":1.933333,"east":163.806111},"success":true,"message":""},"data":{"meta":{"total":212844,"page":2485,"pages":7095,"count":30},"values":[{"id":256006,"code":"B4KJ201802002-1486","latitude":"33.542444","longitude":"133.449639","source_code":"SK038862602000050008","project_name":"","survey_name":"\u5e73\u621015\u5e74\u5ea6 \u9ad8\u77e5\u897f\u30d0\u30a4\u30d1\u30b9\u5730\u8cea\u8abf\u67fb\u696d\u52d9","client_name":"\u56fd\u571f\u4ea4\u901a\u7701\u56db\u56fd\u5730\u65b9\u6574\u5099\u5c40\u571f\u4f50\u56fd\u9053\u4e8b\u52d9\u6240","boring_xml_url":47,"boring_view_url":1,"soilmap_view_url":null,"soiltest_xml_url":0,"soiltest_view_url":0},{"id":256005,"code":"B4KJ201802002-1485","latitude":"33.542083","longitude":"133.449833","source_code":"SK038862602000050007","project_name":"","survey_name":"\u5e73\u621015\u5e74\u5ea6 \u9ad8\u77e5\u897f\u30d0\u30a4\u30d1\u30b9\u5730\u8cea\u8abf\u67fb\u696d\u52d9","client_name":"\u56fd\u571f\u4ea4\u901a\u7701\u56db\u56fd\u5730\u65b9\u6574\u5099\u5c40\u571f\u4f50\u56fd\u9053\u4e8b\u52d9\u6240","boring_xml_url":47,"boring_view_url":1,"soilmap_view_url":null,"soiltest_xml_url":0,"soiltest_view_url":0},{"id":256004,"code":"B4KJ201802002-1484","latitude":"33.542194","longitude":"133.450056","source_code":"SK038862602000050006","project_name":"","survey_name":"\u5e73\u621015\u5e74\u5ea6 \u9ad8\u77e5\u897f\u30d0\u30a4\u30d1\u30b9\u5730\u8cea\u8abf\u67fb\u696d\u52d9","client_name":"\u56fd\u571f\u4ea4\u901a\u7701\u56db\u56fd\u5730\u65b9\u6574\u5099\u5c40\u571f\u4f50\u56fd\u9053\u4e8b\u52d9\u6240","boring_xml_url":47,"boring_view_url":1,"soilmap_view_url":null,"soiltest_xml_url":0,"soiltest_view_url":0},{"id":256003,"code":"B4KJ201802002-1483","latitude":"33.542472","longitude":"133.449528","source_code":"SK038862602000050005","project_name":"","survey_name":"\u5e73\u621015\u5e74\u5ea6 \u9ad8\u77e5\u897f\u30d0\u30a4\u30d1\u30b9\u5730\u8cea\u8abf\u67fb\u696d\u52d9","client_name":"\u56fd\u571f\u4ea4\u901a\u7701\u56db\u56fd\u5730\u65b9\u6574\u5099\u5c40\u571f\u4f50\u56fd\u9053\u4e8b\u52d9\u6240","boring_xml_url":47,"boring_view_url":1,"soilmap_view_url":null,"soiltest_xml_url":0,"soiltest_view_url":0},{"id":256002,"code":"B4KJ201802002-1482","latitude":"33.542556","longitude":"133.449889","source_code":"SK038862602000050004","project_name":"","survey_name":"\u5e73\u621015\u5e74\u5ea6 \u9ad8\u77e5\u897f\u30d0\u30a4\u30d1\u30b9\u5730\u8cea\u8abf\u67fb\u696d\u52d9","client_name":"\u56fd\u571f\u4ea4\u901a\u7701\u56db\u56fd\u5730\u65b9\u6574\u5099\u5c40\u571f\u4f50\u56fd\u9053\u4e8b\u52d9\u6240","boring_xml_url":47,"boring_view_url":1,"soilmap_view_url":null,"soiltest_xml_url":0,"soiltest_view_url":0},{"id":256001,"code":"B4KJ201802002-1481","latitude":"33.543972","longitude":"133.456833","source_code":"SK038862602000050003","project_name":"","survey_name":"\u5e73\u621015\u5e74\u5ea6 \u9ad8\u77e5\u897f\u30d0\u30a4\u30d1\u30b9\u5730\u8cea\u8abf\u67fb\u696d\u52d9","client_name":"\u56fd\u571f\u4ea4\u901a\u7701\u56db\u56fd\u5730\u65b9\u6574\u5099\u5c40\u571f\u4f50\u56fd\u9053\u4e8b\u52d9\u6240","boring_xml_url":47,"boring_view_url":1,"soilmap_view_url":null,"soiltest_xml_url":0,"soiltest_view_url":0},{"id":256000,"code":"B4KJ201802002-1480","latitude":"33.545056","longitude":"133.456389","source_code":"SK038862602000050002","project_name":"","survey_name":"\u5e73\u621015\u5e74\u5ea6 \u9ad8\u77e5\u897f\u30d0\u30a4\u30d1\u30b9\u5730\u8cea\u8abf\u67fb\u696d\u52d9","client_name":"\u56fd\u571f\u4ea4\u901a\u7701\u56db\u56fd\u5730\u65b9\u6574\u5099\u5c40\u571f\u4f50\u56fd\u9053\u4e8b\u52d9\u6240","boring_xml_url":47,"boring_view_url":1,"soilmap_view_url":null,"soiltest_xml_url":50,"soiltest_view_url":49},{"id":255999,"code":"B4KJ201802002-1479","latitude":"33.556444","longitude":"133.472472","source_code":"SK038862602000050001","project_name":"","survey_name":"\u5e73\u621015\u5e74\u5ea6 \u9ad8\u77e5\u897f\u30d0\u30a4\u30d1\u30b9\u5730\u8cea\u8abf\u67fb\u696d\u52d9","client_name":"\u56fd\u571f\u4ea4\u901a\u7701\u56db\u56fd\u5730\u65b9\u6574\u5099\u5c40\u571f\u4f50\u56fd\u9053\u4e8b\u52d9\u6240","boring_xml_url":47,"boring_view_url":1,"soilmap_view_url":null,"soiltest_xml_url":0,"soiltest_view_url":0},{"id":255998,"code":"B4KJ201802002-1478","latitude":"33.729778","longitude":"133.680444","source_code":"SK038862602000100023","project_name":"","survey_name":"\u5e73\u621015\u5e74\u5ea6\u8352m\u897f\u30d0\u30a4\u30d1\u30b9\u5730\u8cea\u8abf\u67fb\u696d\u52d9(\u305d\u306e2)","client_name":"\u56fd\u571f\u4ea4\u901a\u7701\u56db\u56fd\u5730\u65b9\u6574\u5099\u5c40\u571f\u4f50\u56fd\u9053\u4e8b\u52d9\u6240","boring_xml_url":47,"boring_view_url":1,"soilmap_view_url":null,"soiltest_xml_url":0,"soiltest_view_url":0},{"id":255997,"code":"B4KJ201802002-1477","latitude":"33.729972","longitude":"133.680306","source_code":"SK038862602000100022","project_name":"","survey_name":"\u5e73\u621015\u5e74\u5ea6\u8352m\u897f\u30d0\u30a4\u30d1\u30b9\u5730\u8cea\u8abf\u67fb\u696d\u52d9(\u305d\u306e2)","client_name":"\u56fd\u571f\u4ea4\u901a\u7701\u56db\u56fd\u5730\u65b9\u6574\u5099\u5c40\u571f\u4f50\u56fd\u9053\u4e8b\u52d9\u6240","boring_xml_url":47,"boring_view_url":1,"soilmap_view_url":null,"soiltest_xml_url":0,"soiltest_view_url":0},{"id":255996,"code":"B4KJ201802002-1476","latitude":"33.730083","longitude":"133.680194","source_code":"SK038862602000100021","project_name":"","survey_name":"\u5e73\u621015\u5e74\u5ea6\u8352m\u897f\u30d0\u30a4\u30d1\u30b9\u5730\u8cea\u8abf\u67fb\u696d\u52d9(\u305d\u306e2)","client_name":"\u56fd\u571f\u4ea4\u901a\u7701\u56db\u56fd\u5730\u65b9\u6574\u5099\u5c40\u571f\u4f50\u56fd\u9053\u4e8b\u52d9\u6240","boring_xml_url":47,"boring_view_url":1,"soilmap_view_url":null,"soiltest_xml_url":0,"soiltest_view_url":0},{"id":255995,"code":"B4KJ201802002-1475","latitude":"33.730306","longitude":"133.680167","source_code":"SK038862602000100020","project_name":"","survey_name":"\u5e73\u621015\u5e74\u5ea6\u8352m\u897f\u30d0\u30a4\u30d1\u30b9\u5730\u8cea\u8abf\u67fb\u696d\u52d9(\u305d\u306e2)","client_name":"\u56fd\u571f\u4ea4\u901a\u7701\u56db\u56fd\u5730\u65b9\u6574\u5099\u5c40\u571f\u4f50\u56fd\u9053\u4e8b\u52d9\u6240","boring_xml_url":47,"boring_view_url":1,"soilmap_view_url":null,"soiltest_xml_url":0,"soiltest_view_url":0},{"id":255994,"code":"B4KJ201802002-1474","latitude":"33.540722","longitude":"133.439667","source_code":"SK038862602000100019","project_name":"","survey_name":"\u5e73\u621015\u5e74\u5ea6\u8352m\u897f\u30d0\u30a4\u30d1\u30b9\u5730\u8cea\u8abf\u67fb\u696d\u52d9(\u305d\u306e2)","client_name":"\u56fd\u571f\u4ea4\u901a\u7701\u56db\u56fd\u5730\u65b9\u6574\u5099\u5c40\u571f\u4f50\u56fd\u9053\u4e8b\u52d9\u6240","boring_xml_url":47,"boring_view_url":1,"soilmap_view_url":null,"soiltest_xml_url":0,"soiltest_view_url":0},{"id":255993,"code":"B4KJ201802002-1473","latitude":"33.540944","longitude":"133.44","source_code":"SK038862602000100018","project_name":"","survey_name":"\u5e73\u621015\u5e74\u5ea6\u8352m\u897f\u30d0\u30a4\u30d1\u30b9\u5730\u8cea\u8abf\u67fb\u696d\u52d9(\u305d\u306e2)","client_name":"\u56fd\u571f\u4ea4\u901a\u7701\u56db\u56fd\u5730\u65b9\u6574\u5099\u5c40\u571f\u4f50\u56fd\u9053\u4e8b\u52d9\u6240","boring_xml_url":47,"boring_view_url":1,"soilmap_view_url":null,"soiltest_xml_url":0,"soiltest_view_url":0},{"id":255992,"code":"B4KJ201802002-1472","latitude":"33.541028","longitude":"133.441139","source_code":"SK038862602000100017","project_name":"","survey_name":"\u5e73\u621015\u5e74\u5ea6\u8352m\u897f\u30d0\u30a4\u30d1\u30b9\u5730\u8cea\u8abf\u67fb\u696d\u52d9(\u305d\u306e2)","client_name":"\u56fd\u571f\u4ea4\u901a\u7701\u56db\u56fd\u5730\u65b9\u6574\u5099\u5c40\u571f\u4f50\u56fd\u9053\u4e8b\u52d9\u6240","boring_xml_url":47,"boring_view_url":1,"soilmap_view_url":null,"soiltest_xml_url":0,"soiltest_view_url":0},{"id":255991,"code":"B4KJ201802002-1471","latitude":"33.540778","longitude":"133.441167","source_code":"SK038862602000100016","project_name":"","survey_name":"\u5e73\u621015\u5e74\u5ea6\u8352m\u897f\u30d0\u30a4\u30d1\u30b9\u5730\u8cea\u8abf\u67fb\u696d\u52d9(\u305d\u306e2)","client_name":"\u56fd\u571f\u4ea4\u901a\u7701\u56db\u56fd\u5730\u65b9\u6574\u5099\u5c40\u571f\u4f50\u56fd\u9053\u4e8b\u52d9\u6240","boring_xml_url":47,"boring_view_url":1,"soilmap_view_url":null,"soiltest_xml_url":0,"soiltest_view_url":0},{"id":255990,"code":"B4KJ201802002-1470","latitude":"33.541278","longitude":"133.443833","source_code":"SK038862602000100015","project_name":"","survey_name":"\u5e73\u621015\u5e74\u5ea6\u8352m\u897f\u30d0\u30a4\u30d1\u30b9\u5730\u8cea\u8abf\u67fb\u696d\u52d9(\u305d\u306e2)","client_name":"\u56fd\u571f\u4ea4\u901a\u7701\u56db\u56fd\u5730\u65b9\u6574\u5099\u5c40\u571f\u4f50\u56fd\u9053\u4e8b\u52d9\u6240","boring_xml_url":47,"boring_view_url":1,"soilmap_view_url":null,"soiltest_xml_url":0,"soiltest_view_url":0},{"id":255989,"code":"B4KJ201802002-1469","latitude":"33.54125","longitude":"133.444417","source_code":"SK038862602000100014","project_name":"","survey_name":"\u5e73\u621015\u5e74\u5ea6\u8352m\u897f\u30d0\u30a4\u30d1\u30b9\u5730\u8cea\u8abf\u67fb\u696d\u52d9(\u305d\u306e2)","client_name":"\u56fd\u571f\u4ea4\u901a\u7701\u56db\u56fd\u5730\u65b9\u6574\u5099\u5c40\u571f\u4f50\u56fd\u9053\u4e8b\u52d9\u6240","boring_xml_url":47,"boring_view_url":1,"soilmap_view_url":null,"soiltest_xml_url":0,"soiltest_view_url":0},{"id":255988,"code":"B4KJ201802002-1468","latitude":"33.541667","longitude":"133.444889","source_code":"SK038862602000100013","project_name":"","survey_name":"\u5e73\u621015\u5e74\u5ea6\u8352m\u897f\u30d0\u30a4\u30d1\u30b9\u5730\u8cea\u8abf\u67fb\u696d\u52d9(\u305d\u306e2)","client_name":"\u56fd\u571f\u4ea4\u901a\u7701\u56db\u56fd\u5730\u65b9\u6574\u5099\u5c40\u571f\u4f50\u56fd\u9053\u4e8b\u52d9\u6240","boring_xml_url":47,"boring_view_url":1,"soilmap_view_url":null,"soiltest_xml_url":0,"soiltest_view_url":0},{"id":255987,"code":"B4KJ201802002-1467","latitude":"33.541306","longitude":"133.444917","source_code":"SK038862602000100012","project_name":"","survey_name":"\u5e73\u621015\u5e74\u5ea6\u8352m\u897f\u30d0\u30a4\u30d1\u30b9\u5730\u8cea\u8abf\u67fb\u696d\u52d9(\u305d\u306e2)","client_name":"\u56fd\u571f\u4ea4\u901a\u7701\u56db\u56fd\u5730\u65b9\u6574\u5099\u5c40\u571f\u4f50\u56fd\u9053\u4e8b\u52d9\u6240","boring_xml_url":47,"boring_view_url":1,"soilmap_view_url":null,"soiltest_xml_url":0,"soiltest_view_url":0},{"id":255986,"code":"B4KJ201802002-1466","latitude":"33.541167","longitude":"133.446","source_code":"SK038862602000100011","project_name":"","survey_name":"\u5e73\u621015\u5e74\u5ea6\u8352m\u897f\u30d0\u30a4\u30d1\u30b9\u5730\u8cea\u8abf\u67fb\u696d\u52d9(\u305d\u306e2)","client_name":"\u56fd\u571f\u4ea4\u901a\u7701\u56db\u56fd\u5730\u65b9\u6574\u5099\u5c40\u571f\u4f50\u56fd\u9053\u4e8b\u52d9\u6240","boring_xml_url":47,"boring_view_url":1,"soilmap_view_url":null,"soiltest_xml_url":0,"soiltest_view_url":0},{"id":255985,"code":"B4KJ201802002-1465","latitude":"33.541472","longitude":"133.447083","source_code":"SK038862602000100010","project_name":"","survey_name":"\u5e73\u621015\u5e74\u5ea6\u8352m\u897f\u30d0\u30a4\u30d1\u30b9\u5730\u8cea\u8abf\u67fb\u696d\u52d9(\u305d\u306e2)","client_name":"\u56fd\u571f\u4ea4\u901a\u7701\u56db\u56fd\u5730\u65b9\u6574\u5099\u5c40\u571f\u4f50\u56fd\u9053\u4e8b\u52d9\u6240","boring_xml_url":47,"boring_view_url":1,"soilmap_view_url":null,"soiltest_xml_url":0,"soiltest_view_url":0},{"id":255984,"code":"B4KJ201802002-1464","latitude":"33.542083","longitude":"133.447889","source_code":"SK038862602000100009","project_name":"","survey_name":"\u5e73\u621015\u5e74\u5ea6 \u8352m\u897f\u30d0\u30a4\u30d1\u30b9\u5730\u8cea\u8abf\u67fb\u696d\u52d9(\u305d\u306e2)","client_name":"\u56fd\u571f\u4ea4\u901a\u7701\u56db\u56fd\u5730\u65b9\u6574\u5099\u5c40\u571f\u4f50\u56fd\u9053\u4e8b\u52d9\u6240","boring_xml_url":47,"boring_view_url":1,"soilmap_view_url":null,"soiltest_xml_url":0,"soiltest_view_url":0},{"id":255983,"code":"B4KJ201802002-1463","latitude":"33.541528","longitude":"133.448194","source_code":"SK038862602000100008","project_name":"","survey_name":"\u5e73\u621015\u5e74\u5ea6 \u8352m\u897f\u30d0\u30a4\u30d1\u30b9\u5730\u8cea\u8abf\u67fb\u696d\u52d9(\u305d\u306e2)","client_name":"\u56fd\u571f\u4ea4\u901a\u7701\u56db\u56fd\u5730\u65b9\u6574\u5099\u5c40\u571f\u4f50\u56fd\u9053\u4e8b\u52d9\u6240","boring_xml_url":47,"boring_view_url":1,"soilmap_view_url":null,"soiltest_xml_url":0,"soiltest_view_url":0},{"id":255982,"code":"B4KJ201802002-1462","latitude":"33.541611","longitude":"133.448917","source_code":"SK038862602000100007","project_name":"","survey_name":"\u5e73\u621015\u5e74\u5ea6 \u8352m\u897f\u30d0\u30a4\u30d1\u30b9\u5730\u8cea\u8abf\u67fb\u696d\u52d9(\u305d\u306e2)","client_name":"\u56fd\u571f\u4ea4\u901a\u7701\u56db\u56fd\u5730\u65b9\u6574\u5099\u5c40\u571f\u4f50\u56fd\u9053\u4e8b\u52d9\u6240","boring_xml_url":47,"boring_view_url":1,"soilmap_view_url":null,"soiltest_xml_url":0,"soiltest_view_url":0},{"id":255981,"code":"B4KJ201802002-1461","latitude":"33.547002","longitude":"133.447512","source_code":"SK038862602000100006","project_name":"","survey_name":"\u5e73\u621015\u5e74\u5ea6\u8352m\u897f\u30d0\u30a4\u30d1\u30b9\u5730\u8cea\u8abf\u67fb\u696d\u52d9(\u305d\u306e2)","client_name":"\u56fd\u571f\u4ea4\u901a\u7701\u56db\u56fd\u5730\u65b9\u6574\u5099\u5c40\u571f\u4f50\u56fd\u9053\u4e8b\u52d9\u6240","boring_xml_url":47,"boring_view_url":1,"soilmap_view_url":null,"soiltest_xml_url":0,"soiltest_view_url":0},{"id":255980,"code":"B4KJ201802002-1460","latitude":"33.543389","longitude":"133.450361","source_code":"SK038862602000100005","project_name":"","survey_name":"\u5e73\u621015\u5e74\u5ea6\u8352m\u897f\u30d0\u30a4\u30d1\u30b9\u5730\u8cea\u8abf\u67fb\u696d\u52d9(\u305d\u306e2)","client_name":"\u56fd\u571f\u4ea4\u901a\u7701\u56db\u56fd\u5730\u65b9\u6574\u5099\u5c40\u571f\u4f50\u56fd\u9053\u4e8b\u52d9\u6240","boring_xml_url":47,"boring_view_url":1,"soilmap_view_url":null,"soiltest_xml_url":0,"soiltest_view_url":0},{"id":255979,"code":"B4KJ201802002-1459","latitude":"33.543","longitude":"133.450944","source_code":"SK038862602000100004","project_name":"","survey_name":"\u5e73\u621015\u5e74\u5ea6\u8352m\u897f\u30d0\u30a4\u30d1\u30b9\u5730\u8cea\u8abf\u67fb\u696d\u52d9(\u305d\u306e2)","client_name":"\u56fd\u571f\u4ea4\u901a\u7701\u56db\u56fd\u5730\u65b9\u6574\u5099\u5c40\u571f\u4f50\u56fd\u9053\u4e8b\u52d9\u6240","boring_xml_url":47,"boring_view_url":1,"soilmap_view_url":null,"soiltest_xml_url":0,"soiltest_view_url":0},{"id":255978,"code":"B4KJ201802002-1458","latitude":"33.544333","longitude":"133.453944","source_code":"SK038862602000100003","project_name":"","survey_name":"\u5e73\u621015\u5e74\u5ea6\u8352m\u897f\u30d0\u30a4\u30d1\u30b9\u5730\u8cea\u8abf\u67fb\u696d\u52d9(\u305d\u306e2)","client_name":"\u56fd\u571f\u4ea4\u901a\u7701\u56db\u56fd\u5730\u65b9\u6574\u5099\u5c40\u571f\u4f50\u56fd\u9053\u4e8b\u52d9\u6240","boring_xml_url":47,"boring_view_url":1,"soilmap_view_url":null,"soiltest_xml_url":0,"soiltest_view_url":0},{"id":255977,"code":"B4KJ201802002-1457","latitude":"33.544389","longitude":"133.451139","source_code":"SK038862602000100002","project_name":"","survey_name":"\u5e73\u621015\u5e74\u5ea6\u8352m\u897f\u30d0\u30a4\u30d1\u30b9\u5730\u8cea\u8abf\u67fb\u696d\u52d9(\u305d\u306e2)","client_name":"\u56fd\u9053\u4ea4\u901a\u7701\u56db\u56fd\u5730\u65b9\u6574\u5099\u5c40\u571f\u4f50\u56fd\u9053\u4e8b\u52d9\u6240","boring_xml_url":47,"boring_view_url":1,"soilmap_view_url":null,"soiltest_xml_url":0,"soiltest_view_url":0}]}}