{"header":{"xyz":{"source":[],"mosaic":false},"page":2490,"raw":{"soiltest_result":"0","bbox":"57.598333,109.544722,1.933333,163.806111","page":"2490"},"conditions":{"soiltest_result":0,"north":57.598333,"west":109.544722,"south":1.933333,"east":163.806111},"success":true,"message":""},"data":{"meta":{"total":212844,"page":2490,"pages":7095,"count":30},"values":[{"id":255856,"code":"B4KJ201802002-1336","latitude":"34.389333","longitude":"131.328194","source_code":"CG118760540100200004","project_name":"\u5c71\u53e3\u30fb\u8429\u7ba1\u5185","survey_name":"\u4fee\u7e55\u8a2d\u8a08\u5916\u696d\u52d9","client_name":"\u56fd\u571f\u4ea4\u901a\u7701\u4e2d\u56fd\u5730\u65b9\u6574\u5099\u5c40\u5c71\u53e3\u6cb3\u5ddd\u56fd\u9053\u4e8b\u52d9\u6240","boring_xml_url":47,"boring_view_url":1,"soilmap_view_url":null,"soiltest_xml_url":0,"soiltest_view_url":0},{"id":255855,"code":"B4KJ201802002-1335","latitude":"34.389444","longitude":"131.328111","source_code":"CG118760540100200003","project_name":"\u5c71\u53e3\u30fb\u8429\u7ba1\u5185","survey_name":"\u4fee\u7e55\u8a2d\u8a08\u5916\u696d\u52d9","client_name":"\u56fd\u571f\u4ea4\u901a\u7701\u4e2d\u56fd\u5730\u65b9\u6574\u5099\u5c40\u5c71\u53e3\u6cb3\u5ddd\u56fd\u9053\u4e8b\u52d9\u6240","boring_xml_url":47,"boring_view_url":1,"soilmap_view_url":null,"soiltest_xml_url":0,"soiltest_view_url":0},{"id":255854,"code":"B4KJ201802002-1334","latitude":"34.047028","longitude":"131.365083","source_code":"CG118760540100200002","project_name":"\u5c71\u53e3\u8429\u7ba1\u5185","survey_name":"\u4fee\u7e55\u8a2d\u8a08\u5916\u696d\u52d9","client_name":"\u56fd\u571f\u4ea4\u901a\u7701\u4e2d\u56fd\u5730\u65b9\u6574\u5099\u5c40\u5c71\u53e3\u6cb3\u5ddd\u56fd\u9053\u4e8b\u52d9\u6240","boring_xml_url":47,"boring_view_url":1,"soilmap_view_url":null,"soiltest_xml_url":0,"soiltest_view_url":0},{"id":255853,"code":"B4KJ201802002-1333","latitude":"34.046833","longitude":"131.365389","source_code":"CG118760540100200001","project_name":"\u5c71\u53e3\u8429\u7ba1\u5185","survey_name":"\u4fee\u7e55\u8a2d\u8a08\u5916\u696d\u52d9","client_name":"\u56fd\u571f\u4ea4\u901a\u7701\u4e2d\u56fd\u5730\u65b9\u6574\u5099\u5c40\u5c71\u53e3\u6cb3\u5ddd\u56fd\u9053\u4e8b\u52d9\u6240","boring_xml_url":47,"boring_view_url":1,"soilmap_view_url":null,"soiltest_xml_url":0,"soiltest_view_url":0},{"id":255852,"code":"B4KJ201802002-1332","latitude":"35.142833","longitude":"132.413333","source_code":"CG128735400100200001","project_name":"\u4ec1\u6469\u6e29\u6cc9\u6d25\u9053\u8def\u4ec1\u6469\u30a4\u30f3\u30bf\u30fcE\u30e9\u30f3\u30d7\u6a4b\u4e0b\u90e8\u5de5\u4e8b","survey_name":"\u4ec1\u6469\u6e29\u6cc9\u6d25\u9053\u8def\u4ec1\u6469\u30a4\u30f3\u30bf\u30fcE\u30e9\u30f3\u30d7\u6a4b\u4e0b\u90e8\u5de5\u4e8b","client_name":"\u677e\u6c5f\u56fd\u9053\u4e8b\u52d9\u6240","boring_xml_url":47,"boring_view_url":1,"soilmap_view_url":null,"soiltest_xml_url":0,"soiltest_view_url":0},{"id":255851,"code":"B4KJ201802002-1331","latitude":"35.337778","longitude":"132.743056","source_code":"CG118736400100140002","project_name":"","survey_name":"\u6590\u4f0a\u5ddd\u653e\u6c34\u8def\u65b0\u5bae\u5ddd\u6574\u5099\u5916\u5de5\u4e8b","client_name":"\u56fd\u571f\u4ea4\u901a\u7701\u4e2d\u56fd\u5730\u65b9\u6574\u5099\u5c40\u51fa\u96f2\u6cb3\u5ddd\u4e8b\u52d9\u6240","boring_xml_url":47,"boring_view_url":1,"soilmap_view_url":null,"soiltest_xml_url":0,"soiltest_view_url":0},{"id":255850,"code":"B4KJ201802002-1330","latitude":"35.337778","longitude":"132.743056","source_code":"CG118736400100140001","project_name":"","survey_name":"\u6590\u4f0a\u5ddd\u653e\u6c34\u8def\u65b0\u5bae\u5ddd\u6574\u5099\u5916\u5de5\u4e8b","client_name":"\u56fd\u571f\u4ea4\u901a\u7701\u4e2d\u56fd\u5730\u65b9\u6574\u5099\u5c40\u51fa\u96f2\u6cb3\u5ddd\u4e8b\u52d9\u6240","boring_xml_url":47,"boring_view_url":1,"soilmap_view_url":null,"soiltest_xml_url":0,"soiltest_view_url":0},{"id":255849,"code":"B4KJ201802002-1329","latitude":"35.35","longitude":"132.783333","source_code":"CG088736400100400003","project_name":"","survey_name":"\u6590\u4f0a\u5ddd\u653e\u6c34\u8def\u5206\u6d41\u5830\u5efa\u8a2d\u5de5\u4e8b","client_name":"\u4e2d\u56fd\u5730\u65b9\u6574\u5099\u5c40\u51fa\u96f2\u6cb3\u5ddd\u4e8b\u52d9\u6240","boring_xml_url":47,"boring_view_url":1,"soilmap_view_url":null,"soiltest_xml_url":0,"soiltest_view_url":0},{"id":255848,"code":"B4KJ201802002-1328","latitude":"35.35","longitude":"132.783333","source_code":"CG088736400100400002","project_name":"","survey_name":"\u6590\u4f0a\u5ddd\u653e\u6c34\u8def\u5206\u6d41\u5830\u5efa\u8a2d\u5de5\u4e8b","client_name":"\u4e2d\u56fd\u5730\u65b9\u6574\u5099\u5c40\u51fa\u96f2\u6cb3\u5ddd\u4e8b\u52d9\u6240","boring_xml_url":47,"boring_view_url":1,"soilmap_view_url":null,"soiltest_xml_url":0,"soiltest_view_url":0},{"id":255847,"code":"B4KJ201802002-1327","latitude":"35.35","longitude":"132.783333","source_code":"CG088736400100400001","project_name":"","survey_name":"\u6590\u4f0a\u5ddd\u653e\u6c34\u8def\u5206\u6d41\u5830\u5efa\u8a2d\u5de5\u4e8b","client_name":"\u4e2d\u56fd\u5730\u65b9\u6574\u5099\u5c40\u51fa\u96f2\u6cb3\u5ddd\u4e8b\u52d9\u6240","boring_xml_url":47,"boring_view_url":1,"soilmap_view_url":null,"soiltest_xml_url":0,"soiltest_view_url":0},{"id":255846,"code":"B4KJ201802002-1326","latitude":"35.348611","longitude":"132.689722","source_code":"CG118736400100230005","project_name":"\u6590\u4f0a\u5ddd\u653e\u6c34\u8def\u9577\u6d5c\u5730\u533a\u7bc9\u5824\u5916\u5de5\u4e8b","survey_name":"\u5730\u8cea\u8abf\u67fb","client_name":"\u56fd\u571f\u4ea4\u901a\u7701 \u4e2d\u56fd\u5730\u65b9\u6574\u5099\u5c40 \u51fa\u96f2\u6cb3\u5ddd\u4e8b\u52d9\u6240","boring_xml_url":47,"boring_view_url":1,"soilmap_view_url":null,"soiltest_xml_url":0,"soiltest_view_url":0},{"id":255845,"code":"B4KJ201802002-1325","latitude":"35.344722","longitude":"132.699722","source_code":"CG118736400100230004","project_name":"\u6590\u4f0a\u5ddd\u653e\u6c34\u8def\u9577\u6d5c\u5730\u533a\u5824\u9632\u5916\u5de5\u4e8b","survey_name":"\u6590\u4f0a\u5ddd\u653e\u6c34\u8def\u9577\u6d5c\u5730\u533a\u5824\u9632\u5916\u5de5\u4e8b","client_name":"\u56fd\u571f\u4ea4\u901a\u7701 \u4e2d\u56fd\u5730\u65b9\u6574\u5099\u5c40 \u51fa\u96f2\u6cb3\u5ddd\u4e8b\u52d9\u6240","boring_xml_url":47,"boring_view_url":1,"soilmap_view_url":null,"soiltest_xml_url":0,"soiltest_view_url":0},{"id":255844,"code":"B4KJ201802002-1324","latitude":"35.344722","longitude":"132.699722","source_code":"CG118736400100230003","project_name":"\u6590\u4f0a\u5ddd\u653e\u6c34\u8def\u9577\u6d5c\u5730\u533a\u5824\u9632\u5916\u5de5\u4e8b","survey_name":"\u6590\u4f0a\u5ddd\u653e\u6c34\u8def\u9577\u6d5c\u5730\u533a\u5824\u9632\u5916\u5de5\u4e8b","client_name":"\u56fd\u571f\u4ea4\u901a\u7701 \u4e2d\u56fd\u5730\u65b9\u6574\u5099\u5c40 \u51fa\u96f2\u6cb3\u5ddd\u4e8b\u52d9\u6240","boring_xml_url":47,"boring_view_url":1,"soilmap_view_url":null,"soiltest_xml_url":0,"soiltest_view_url":0},{"id":255843,"code":"B4KJ201802002-1323","latitude":"35.345","longitude":"132.699722","source_code":"CG118736400100230002","project_name":"\u6590\u4f0a\u5ddd\u653e\u6c34\u8def\u9577\u6d5c\u5730\u533a\u5824\u9632\u5916\u5de5\u4e8b","survey_name":"\u6590\u4f0a\u5ddd\u653e\u6c34\u8def\u9577\u6d5c\u5730\u533a\u5824\u9632\u5916\u5de5\u4e8b","client_name":"\u56fd\u571f\u4ea4\u901a\u7701 \u4e2d\u56fd\u5730\u65b9\u6574\u5099\u5c40 \u51fa\u96f2\u6cb3\u5ddd\u4e8b\u52d9\u6240","boring_xml_url":47,"boring_view_url":1,"soilmap_view_url":null,"soiltest_xml_url":0,"soiltest_view_url":0},{"id":255842,"code":"B4KJ201802002-1322","latitude":"35.345","longitude":"132.699722","source_code":"CG118736400100230001","project_name":"\u6590\u4f0a\u5ddd\u653e\u6c34\u8def\u9577\u6d5c\u5730\u533a\u5824\u9632\u5916\u5de5\u4e8b","survey_name":"\u6590\u4f0a\u5ddd\u653e\u6c34\u8def\u9577\u6d5c\u5730\u533a\u5824\u9632\u5916\u5de5\u4e8b","client_name":"\u56fd\u571f\u4ea4\u901a\u7701 \u4e2d\u56fd\u5730\u65b9\u6574\u5099\u5c40 \u51fa\u96f2\u6cb3\u5ddd\u4e8b\u52d9\u6240","boring_xml_url":47,"boring_view_url":1,"soilmap_view_url":null,"soiltest_xml_url":0,"soiltest_view_url":0},{"id":255841,"code":"B4KJ201802002-1321","latitude":"35.481861","longitude":"134.197333","source_code":"CG108730410100160006","project_name":"","survey_name":"\u9ce5\u53d6\u897f\u9053\u8def \u672c\u9ad8\u5730\u533a\u5916\u6539\u826f\u5de5\u4e8b","client_name":"\u56fd\u571f\u4ea4\u901a\u7701\u4e2d\u56fd\u5730\u65b9\u6574\u5099\u5c40\u9ce5\u53d6\u6cb3\u5ddd\u56fd\u9053\u4e8b\u52d9\u6240","boring_xml_url":47,"boring_view_url":1,"soilmap_view_url":null,"soiltest_xml_url":47,"soiltest_view_url":46},{"id":255840,"code":"B4KJ201802002-1320","latitude":"35.482972","longitude":"134.197583","source_code":"CG108730410100160005","project_name":"","survey_name":"\u9ce5\u53d6\u897f\u9053\u8def \u672c\u9ad8\u5730\u533a\u5916\u6539\u826f\u5de5\u4e8b","client_name":"\u56fd\u571f\u4ea4\u901a\u7701\u4e2d\u56fd\u5730\u65b9\u6574\u5099\u5c40\u9ce5\u53d6\u6cb3\u5ddd\u56fd\u9053\u4e8b\u52d9\u6240","boring_xml_url":47,"boring_view_url":1,"soilmap_view_url":null,"soiltest_xml_url":47,"soiltest_view_url":46},{"id":255839,"code":"B4KJ201802002-1319","latitude":"35.482389","longitude":"134.197389","source_code":"CG108730410100160004","project_name":"","survey_name":"\u9ce5\u53d6\u897f\u9053\u8def \u672c\u9ad8\u5730\u533a\u5916\u6539\u826f\u5de5\u4e8b","client_name":"\u56fd\u571f\u4ea4\u901a\u7701\u4e2d\u56fd\u5730\u65b9\u6574\u5099\u5c40\u9ce5\u53d6\u6cb3\u5ddd\u56fd\u9053\u4e8b\u52d9\u6240","boring_xml_url":47,"boring_view_url":1,"soilmap_view_url":null,"soiltest_xml_url":47,"soiltest_view_url":46},{"id":255838,"code":"B4KJ201802002-1318","latitude":"35.481861","longitude":"134.197333","source_code":"CG108730410100160003","project_name":"","survey_name":"\u9ce5\u53d6\u897f\u9053\u8def \u672c\u9ad8\u5730\u533a\u5916\u6539\u826f\u5de5\u4e8b","client_name":"\u56fd\u571f\u4ea4\u901a\u7701\u4e2d\u56fd\u5730\u65b9\u6574\u5099\u5c40\u9ce5\u53d6\u6cb3\u5ddd\u56fd\u9053\u4e8b\u52d9\u6240","boring_xml_url":47,"boring_view_url":1,"soilmap_view_url":null,"soiltest_xml_url":47,"soiltest_view_url":46},{"id":255837,"code":"B4KJ201802002-1317","latitude":"35.481333","longitude":"134.19725","source_code":"CG108730410100160002","project_name":"","survey_name":"\u9ce5\u53d6\u897f\u9053\u8def \u672c\u9ad8\u5730\u533a\u5916\u6539\u826f\u5de5\u4e8b","client_name":"\u56fd\u571f\u4ea4\u901a\u7701\u4e2d\u56fd\u5730\u65b9\u6574\u5099\u5c40\u9ce5\u53d6\u6cb3\u5ddd\u56fd\u9053\u4e8b\u52d9\u6240","boring_xml_url":47,"boring_view_url":1,"soilmap_view_url":null,"soiltest_xml_url":47,"soiltest_view_url":46},{"id":255836,"code":"B4KJ201802002-1316","latitude":"35.480889","longitude":"134.197167","source_code":"CG108730410100160001","project_name":"","survey_name":"\u9ce5\u53d6\u897f\u9053\u8def \u672c\u9ad8\u5730\u533a\u5916\u6539\u826f\u5de5\u4e8b","client_name":"\u56fd\u571f\u4ea4\u901a\u7701\u4e2d\u56fd\u5730\u65b9\u6574\u5099\u5c40\u9ce5\u53d6\u6cb3\u5ddd\u56fd\u9053\u4e8b\u52d9\u6240","boring_xml_url":47,"boring_view_url":1,"soilmap_view_url":null,"soiltest_xml_url":47,"soiltest_view_url":46},{"id":255835,"code":"B4KJ201802002-1315","latitude":"34.34275","longitude":"132.31625","source_code":"CG118755470100040001","project_name":"\u897f\u5e83\u5cf6\u30d0\u30a4\u30d1\u30b9\u5eff\u65e5\u5e02\u9ad8\u67b6\u6a4b\u6a19\u8b58\u5de5\u4e8b","survey_name":"\u897f\u5e83\u5cf6\u30d0\u30a4\u30d1\u30b9\u5eff\u65e5\u5e02\u9ad8\u67b6\u6a4b\u6a19\u8b58\u5de5\u4e8b","client_name":"\u56fd\u571f\u4ea4\u901a\u7701\u4e2d\u56fd\u5730\u65b9\u6574\u5099\u5c40\u5e83\u5cf6\u56fd\u9053\u4e8b\u52d9\u6240","boring_xml_url":47,"boring_view_url":1,"soilmap_view_url":null,"soiltest_xml_url":0,"soiltest_view_url":0},{"id":255834,"code":"B4KJ201802002-1314","latitude":"35.375556","longitude":"132.675833","source_code":"CG118736400100190001","project_name":"\u6590\u4f0a\u5ddd\u653e\u6c34\u8def\u5927\u793e\u5730\u533a\u5824\u9632\u5916\u5de5\u4e8b","survey_name":"\u6590\u4f0a\u5ddd\u653e\u6c34\u8def\u5927\u793e\u5730\u533a\u5824\u9632\u5916\u5de5\u4e8b","client_name":"\u4e2d\u56fd\u5730\u65b9\u6574\u5099\u5c40 \u51fa\u96f2\u6cb3\u5ddd\u4e8b\u52d9\u6240","boring_xml_url":47,"boring_view_url":1,"soilmap_view_url":null,"soiltest_xml_url":0,"soiltest_view_url":0},{"id":255833,"code":"B4KJ201802002-1313","latitude":"35.341667","longitude":"132.700556","source_code":"CG108736400100510008","project_name":"\u6590\u4f0a\u5ddd\u653e\u6c34\u8def\u5927\u5cf6\u5730\u533a\u5730\u76e4\u6539\u826f\u5de5\u4e8b \u5b54\u5185\u50be\u659c\u8a2d\u7f6e","survey_name":"\u6590\u4f0a\u5ddd\u653e\u6c34\u8def\u5927\u5cf6\u5730\u533a\u5730\u76e4\u6539\u826f\u5de5\u4e8b \u5b54\u5185\u50be\u659c\u8a2d\u7f6e","client_name":"\u4e2d\u56fd\u5730\u65b9\u6574\u5099\u5c40 \u51fa\u96f2\u6cb3\u5ddd\u4e8b\u52d9\u6240","boring_xml_url":47,"boring_view_url":1,"soilmap_view_url":null,"soiltest_xml_url":0,"soiltest_view_url":0},{"id":255832,"code":"B4KJ201802002-1312","latitude":"35.341667","longitude":"132.700556","source_code":"CG108736400100510007","project_name":"\u6590\u4f0a\u5ddd\u653e\u6c34\u8def\u5927\u5cf6\u5730\u533a\u5730\u76e4\u6539\u826f\u5de5\u4e8b \u5b54\u5185\u50be\u659c\u8a2d\u7f6e","survey_name":"\u6590\u4f0a\u5ddd\u653e\u6c34\u8def\u5927\u5cf6\u5730\u533a\u5730\u76e4\u6539\u826f\u5de5\u4e8b \u5b54\u5185\u50be\u659c\u8a2d\u7f6e","client_name":"\u4e2d\u56fd\u5730\u65b9\u6574\u5099\u5c40 \u51fa\u96f2\u6cb3\u5ddd\u4e8b\u52d9\u6240","boring_xml_url":47,"boring_view_url":1,"soilmap_view_url":null,"soiltest_xml_url":0,"soiltest_view_url":0},{"id":255831,"code":"B4KJ201802002-1311","latitude":"35.341667","longitude":"132.700556","source_code":"CG108736400100510006","project_name":"\u6590\u4f0a\u5ddd\u653e\u6c34\u8def\u5927\u5cf6\u5730\u533a\u5730\u76e4\u6539\u826f\u5de5\u4e8b \u5b54\u5185\u50be\u659c\u8a2d\u7f6e","survey_name":"\u6590\u4f0a\u5ddd\u653e\u6c34\u8def\u5927\u5cf6\u5730\u533a\u5730\u76e4\u6539\u826f\u5de5\u4e8b \u5b54\u5185\u50be\u659c\u8a2d\u7f6e","client_name":"\u4e2d\u56fd\u5730\u65b9\u6574\u5099\u5c40 \u51fa\u96f2\u6cb3\u5ddd\u4e8b\u52d9\u6240","boring_xml_url":47,"boring_view_url":1,"soilmap_view_url":null,"soiltest_xml_url":0,"soiltest_view_url":0},{"id":255830,"code":"B4KJ201802002-1310","latitude":"35.342778","longitude":"132.700278","source_code":"CG108736400100510005","project_name":"\u6590\u4f0a\u5ddd\u653e\u6c34\u8def\u5927\u5cf6\u5730\u533a\u5730\u76e4\u6539\u826f\u5de5\u4e8b","survey_name":"\u6590\u4f0a\u5ddd\u653e\u6c34\u8def\u5927\u5cf6\u5730\u533a\u5730\u76e4\u6539\u826f\u5de5\u4e8b","client_name":"\u56fd\u571f\u4ea4\u901a\u7701 \u4e2d\u56fd\u5730\u65b9\u6574\u5099\u5c40 \u51fa\u96f2\u6cb3\u5ddd\u4e8b\u52d9\u6240","boring_xml_url":47,"boring_view_url":1,"soilmap_view_url":null,"soiltest_xml_url":0,"soiltest_view_url":0},{"id":255829,"code":"B4KJ201802002-1309","latitude":"35.343056","longitude":"132.7","source_code":"CG108736400100510004","project_name":"\u6590\u4f0a\u5ddd\u653e\u6c34\u8def\u5927\u5cf6\u5730\u533a\u5730\u76e4\u6539\u826f\u5de5\u4e8b","survey_name":"\u6590\u4f0a\u5ddd\u653e\u6c34\u8def\u5927\u5cf6\u5730\u533a\u5730\u76e4\u6539\u826f\u5de5\u4e8b","client_name":"\u56fd\u571f\u4ea4\u901a\u7701 \u4e2d\u56fd\u5730\u65b9\u6574\u5099\u5c40 \u51fa\u96f2\u6cb3\u5ddd\u4e8b\u52d9\u6240","boring_xml_url":47,"boring_view_url":1,"soilmap_view_url":null,"soiltest_xml_url":0,"soiltest_view_url":0},{"id":255828,"code":"B4KJ201802002-1308","latitude":"35.342778","longitude":"132.700278","source_code":"CG108736400100510003","project_name":"\u6590\u4f0a\u5ddd\u653e\u6c34\u8def\u5927\u5cf6\u5730\u533a\u5730\u76e4\u6539\u826f\u5de5\u4e8b","survey_name":"\u6590\u4f0a\u5ddd\u653e\u6c34\u8def\u5927\u5cf6\u5730\u533a\u5730\u76e4\u6539\u826f\u5de5\u4e8b","client_name":"\u56fd\u571f\u4ea4\u901a\u7701 \u4e2d\u56fd\u5730\u65b9\u6574\u5099\u5c40 \u51fa\u96f2\u6cb3\u5ddd\u4e8b\u52d9\u6240","boring_xml_url":47,"boring_view_url":1,"soilmap_view_url":null,"soiltest_xml_url":0,"soiltest_view_url":0},{"id":255827,"code":"B4KJ201802002-1307","latitude":"35.3425","longitude":"132.699722","source_code":"CG108736400100510002","project_name":"\u6590\u4f0a\u5ddd\u653e\u6c34\u8def\u5927\u5cf6\u5730\u533a\u5730\u76e4\u6539\u826f\u5de5\u4e8b","survey_name":"\u6590\u4f0a\u5ddd\u653e\u6c34\u8def\u5927\u5cf6\u5730\u533a\u5730\u76e4\u6539\u826f\u5de5\u4e8b","client_name":"\u56fd\u571f\u4ea4\u901a\u7701 \u4e2d\u56fd\u5730\u65b9\u6574\u5099\u5c40 \u51fa\u96f2\u6cb3\u5ddd\u4e8b\u52d9\u6240","boring_xml_url":47,"boring_view_url":1,"soilmap_view_url":null,"soiltest_xml_url":0,"soiltest_view_url":0}]}}