{"header":{"xyz":{"source":[],"mosaic":false},"page":2495,"raw":{"soiltest_result":"0","bbox":"57.598333,109.544722,1.933333,163.806111","page":"2495"},"conditions":{"soiltest_result":0,"north":57.598333,"west":109.544722,"south":1.933333,"east":163.806111},"success":true,"message":""},"data":{"meta":{"total":212844,"page":2495,"pages":7095,"count":30},"values":[{"id":255706,"code":"B4KJ201802002-1186","latitude":"34.613611","longitude":"133.985889","source_code":"CG128740400200080007","project_name":"","survey_name":"\u767e\u9593\u5ddd\u6cb3\u9053\u6574\u5099\u8a73\u7d30\u8a2d\u8a08\u4ed6\u696d\u52d9","client_name":"\u56fd\u571f\u4ea4\u901a\u7701\u4e2d\u56fd\u5730\u65b9\u6574\u5099\u5c40\u5ca1\u5c71\u6cb3\u5ddd\u4e8b\u52d9\u6240","boring_xml_url":47,"boring_view_url":1,"soilmap_view_url":null,"soiltest_xml_url":47,"soiltest_view_url":46},{"id":255705,"code":"B4KJ201802002-1185","latitude":"34.633667","longitude":"133.986917","source_code":"CG128740400200080006","project_name":"","survey_name":"\u767e\u9593\u5ddd\u6cb3\u9053\u6574\u5099\u8a73\u7d30\u8a2d\u8a08\u4ed6\u696d\u52d9","client_name":"\u56fd\u571f\u4ea4\u901a\u7701\u4e2d\u56fd\u5730\u65b9\u6574\u5099\u5c40\u5ca1\u5c71\u6cb3\u5ddd\u4e8b\u52d9\u6240","boring_xml_url":47,"boring_view_url":1,"soilmap_view_url":null,"soiltest_xml_url":47,"soiltest_view_url":46},{"id":255704,"code":"B4KJ201802002-1184","latitude":"34.623222","longitude":"133.9875","source_code":"CG128740400200080005","project_name":"","survey_name":"\u767e\u9593\u5ddd\u6cb3\u9053\u6574\u5099\u8a73\u7d30\u8a2d\u8a08\u4ed6\u696d\u52d9","client_name":"\u56fd\u571f\u4ea4\u901a\u7701\u4e2d\u56fd\u5730\u65b9\u6574\u5099\u5c40\u5ca1\u5c71\u6cb3\u5ddd\u4e8b\u52d9\u6240","boring_xml_url":47,"boring_view_url":1,"soilmap_view_url":null,"soiltest_xml_url":47,"soiltest_view_url":46},{"id":255703,"code":"B4KJ201802002-1183","latitude":"34.62325","longitude":"133.987222","source_code":"CG128740400200080004","project_name":"","survey_name":"\u767e\u9593\u5ddd\u6cb3\u9053\u6574\u5099\u8a73\u7d30\u8a2d\u8a08\u4ed6\u696d\u52d9","client_name":"\u56fd\u571f\u4ea4\u901a\u7701\u4e2d\u56fd\u5730\u65b9\u6574\u5099\u5c40\u5ca1\u5c71\u6cb3\u5ddd\u4e8b\u52d9\u6240","boring_xml_url":47,"boring_view_url":1,"soilmap_view_url":null,"soiltest_xml_url":47,"soiltest_view_url":46},{"id":255702,"code":"B4KJ201802002-1182","latitude":"34.623222","longitude":"133.987333","source_code":"CG128740400200080003","project_name":"","survey_name":"\u767e\u9593\u5ddd\u6cb3\u9053\u6574\u5099\u8a73\u7d30\u8a2d\u8a08\u4ed6\u696d\u52d9","client_name":"\u56fd\u571f\u4ea4\u901a\u7701\u4e2d\u56fd\u5730\u65b9\u6574\u5099\u5c40\u5ca1\u5c71\u6cb3\u5ddd\u4e8b\u52d9\u6240","boring_xml_url":47,"boring_view_url":1,"soilmap_view_url":null,"soiltest_xml_url":47,"soiltest_view_url":46},{"id":255701,"code":"B4KJ201802002-1181","latitude":"34.619917","longitude":"133.988639","source_code":"CG128740400200080002","project_name":"","survey_name":"\u767e\u9593\u5ddd\u6cb3\u9053\u6574\u5099\u8a73\u7d30\u8a2d\u8a08\u4ed6\u696d\u52d9","client_name":"\u56fd\u571f\u4ea4\u901a\u7701\u4e2d\u56fd\u5730\u65b9\u6574\u5099\u5c40\u5ca1\u5c71\u6cb3\u5ddd\u4e8b\u52d9\u6240","boring_xml_url":47,"boring_view_url":1,"soilmap_view_url":null,"soiltest_xml_url":47,"soiltest_view_url":46},{"id":255700,"code":"B4KJ201802002-1180","latitude":"34.614139","longitude":"133.992417","source_code":"CG128740400200080001","project_name":"","survey_name":"\u767e\u9593\u5ddd\u6cb3\u9053\u6574\u5099\u8a73\u7d30\u8a2d\u8a08\u4ed6\u696d\u52d9","client_name":"\u56fd\u571f\u4ea4\u901a\u7701\u4e2d\u56fd\u5730\u65b9\u6574\u5099\u5c40\u5ca1\u5c71\u6cb3\u5ddd\u4e8b\u52d9\u6240","boring_xml_url":47,"boring_view_url":1,"soilmap_view_url":null,"soiltest_xml_url":47,"soiltest_view_url":46},{"id":255699,"code":"B4KJ201802002-1179","latitude":"34.62275","longitude":"133.728278","source_code":"CG128740630200090004","project_name":"(\u9577\u5927\u6cd5\u9762)","survey_name":"\u5c0f\u7530\u5ddd\u4ed8\u66ff\u8a2d\u8a08\u691c\u8a0e\u696d\u52d9","client_name":"\u56fd\u571f\u4ea4\u901a\u7701 \u4e2d\u56fd\u5730\u65b9\u6574\u5099\u5c40 \u5ca1\u5c71\u6cb3\u5ddd\u4e8b\u52d9\u6240","boring_xml_url":47,"boring_view_url":1,"soilmap_view_url":null,"soiltest_xml_url":0,"soiltest_view_url":0},{"id":255698,"code":"B4KJ201802002-1178","latitude":"34.622889","longitude":"133.727306","source_code":"CG128740630200090003","project_name":"(\u9577\u5927\u6cd5\u9762)","survey_name":"\u5c0f\u7530\u5ddd\u4ed8\u66ff\u8a2d\u8a08\u691c\u8a0e\u696d\u52d9","client_name":"\u56fd\u571f\u4ea4\u901a\u7701 \u4e2d\u56fd\u5730\u65b9\u6574\u5099\u5c40 \u5ca1\u5c71\u6cb3\u5ddd\u4e8b\u52d9\u6240","boring_xml_url":47,"boring_view_url":1,"soilmap_view_url":null,"soiltest_xml_url":0,"soiltest_view_url":0},{"id":255697,"code":"B4KJ201802002-1177","latitude":"34.623306","longitude":"133.727306","source_code":"CG128740630200090002","project_name":"(\u9577\u5927\u6cd5\u9762)","survey_name":"\u5c0f\u7530\u5ddd\u4ed8\u66ff\u8a2d\u8a08\u691c\u8a0e\u696d\u52d9","client_name":"\u56fd\u571f\u4ea4\u901a\u7701 \u4e2d\u56fd\u5730\u65b9\u6574\u5099\u5c40 \u5ca1\u5c71\u6cb3\u5ddd\u4e8b\u52d9\u6240","boring_xml_url":47,"boring_view_url":1,"soilmap_view_url":null,"soiltest_xml_url":0,"soiltest_view_url":0},{"id":255696,"code":"B4KJ201802002-1176","latitude":"34.623556","longitude":"133.727","source_code":"CG128740630200090001","project_name":"(\u9577\u5927\u6cd5\u9762)","survey_name":"\u5c0f\u7530\u5ddd\u4ed8\u66ff\u8a2d\u8a08\u691c\u8a0e\u696d\u52d9","client_name":"\u56fd\u571f\u4ea4\u901a\u7701 \u4e2d\u56fd\u5730\u65b9\u6574\u5099\u5c40 \u5ca1\u5c71\u6cb3\u5ddd\u4e8b\u52d9\u6240","boring_xml_url":47,"boring_view_url":1,"soilmap_view_url":null,"soiltest_xml_url":0,"soiltest_view_url":0},{"id":255695,"code":"B4KJ201802002-1175","latitude":"34.605361","longitude":"133.730139","source_code":"CG128740630200070007","project_name":"\u5c0f\u7530\u5ddd\u4ed8\u66ff\u53d6\u6c34\u65bd\u8a2d\u5f71\u97ff\u691c\u8a0e\u696d\u52d9","survey_name":"\u5c0f\u7530\u5ddd\u4ed8\u66ff\u53d6\u6c34\u65bd\u8a2d\u5f71\u97ff\u691c\u8a0e\u696d\u52d9","client_name":"\u56fd\u571f\u4ea4\u901a\u7701\u4e2d\u56fd\u5730\u65b9\u6574\u5099\u5c40\u5ca1\u5c71\u6cb3\u5ddd\u4e8b\u52d9\u6240","boring_xml_url":47,"boring_view_url":1,"soilmap_view_url":null,"soiltest_xml_url":47,"soiltest_view_url":46},{"id":255694,"code":"B4KJ201802002-1174","latitude":"34.592861","longitude":"133.716833","source_code":"CG128740630200070006","project_name":"\u5c0f\u7530\u5ddd\u4ed8\u66ff\u53d6\u6c34\u65bd\u8a2d\u5f71\u97ff\u691c\u8a0e\u696d\u52d9","survey_name":"\u5c0f\u7530\u5ddd\u4ed8\u66ff\u53d6\u6c34\u65bd\u8a2d\u5f71\u97ff\u691c\u8a0e\u696d\u52d9","client_name":"\u56fd\u571f\u4ea4\u901a\u7701\u4e2d\u56fd\u5730\u65b9\u6574\u5099\u5c40\u5ca1\u5c71\u6cb3\u5ddd\u4e8b\u52d9\u6240","boring_xml_url":47,"boring_view_url":1,"soilmap_view_url":null,"soiltest_xml_url":47,"soiltest_view_url":46},{"id":255693,"code":"B4KJ201802002-1173","latitude":"34.603889","longitude":"133.730639","source_code":"CG128740630200070005","project_name":"\u5c0f\u7530\u5ddd\u4ed8\u66ff\u53d6\u6c34\u65bd\u8a2d\u5f71\u97ff\u691c\u8a0e\u696d\u52d9","survey_name":"\u5c0f\u7530\u5ddd\u4ed8\u66ff\u53d6\u6c34\u65bd\u8a2d\u5f71\u97ff\u691c\u8a0e\u696d\u52d9","client_name":"\u56fd\u571f\u4ea4\u901a\u7701\u4e2d\u56fd\u5730\u65b9\u6574\u5099\u5c40\u5ca1\u5c71\u6cb3\u5ddd\u4e8b\u52d9\u6240","boring_xml_url":47,"boring_view_url":1,"soilmap_view_url":null,"soiltest_xml_url":47,"soiltest_view_url":46},{"id":255692,"code":"B4KJ201802002-1172","latitude":"34.590778","longitude":"133.714972","source_code":"CG128740630200070004","project_name":"\u5c0f\u7530\u5ddd\u4ed8\u66ff\u53d6\u6c34\u65bd\u8a2d\u5f71\u97ff\u691c\u8a0e\u696d\u52d9","survey_name":"\u5c0f\u7530\u5ddd\u4ed8\u66ff\u53d6\u6c34\u65bd\u8a2d\u5f71\u97ff\u691c\u8a0e\u696d\u52d9","client_name":"\u56fd\u571f\u4ea4\u901a\u7701\u4e2d\u56fd\u5730\u65b9\u6574\u5099\u5c40\u5ca1\u5c71\u6cb3\u5ddd\u4e8b\u52d9\u6240","boring_xml_url":47,"boring_view_url":1,"soilmap_view_url":null,"soiltest_xml_url":47,"soiltest_view_url":46},{"id":255691,"code":"B4KJ201802002-1171","latitude":"34.588056","longitude":"133.71725","source_code":"CG128740630200070003","project_name":"\u5c0f\u7530\u5ddd\u4ed8\u66ff\u53d6\u6c34\u65bd\u8a2d\u5f71\u97ff\u691c\u8a0e\u696d\u52d9","survey_name":"\u5c0f\u7530\u5ddd\u4ed8\u66ff\u53d6\u6c34\u65bd\u8a2d\u5f71\u97ff\u691c\u8a0e\u696d\u52d9","client_name":"\u56fd\u571f\u4ea4\u901a\u7701\u4e2d\u56fd\u5730\u65b9\u6574\u5099\u5c40\u5ca1\u5c71\u6cb3\u5ddd\u4e8b\u52d9\u6240","boring_xml_url":47,"boring_view_url":1,"soilmap_view_url":null,"soiltest_xml_url":47,"soiltest_view_url":46},{"id":255690,"code":"B4KJ201802002-1170","latitude":"34.581278","longitude":"133.710306","source_code":"CG128740630200070002","project_name":"\u5c0f\u7530\u5ddd\u4ed8\u66ff\u53d6\u6c34\u65bd\u8a2d\u5f71\u97ff\u691c\u8a0e\u696d\u52d9","survey_name":"\u5c0f\u7530\u5ddd\u4ed8\u66ff\u53d6\u6c34\u65bd\u8a2d\u5f71\u97ff\u691c\u8a0e\u696d\u52d9","client_name":"\u56fd\u571f\u4ea4\u901a\u7701\u4e2d\u56fd\u5730\u65b9\u6574\u5099\u5c40\u5ca1\u5c71\u6cb3\u5ddd\u4e8b\u52d9\u6240","boring_xml_url":47,"boring_view_url":1,"soilmap_view_url":null,"soiltest_xml_url":47,"soiltest_view_url":46},{"id":255689,"code":"B4KJ201802002-1169","latitude":"34.578472","longitude":"133.713222","source_code":"CG128740630200070001","project_name":"\u5c0f\u7530\u5ddd\u4ed8\u66ff\u53d6\u6c34\u65bd\u8a2d\u5f71\u97ff\u691c\u8a0e\u696d\u52d9","survey_name":"\u5c0f\u7530\u5ddd\u4ed8\u66ff\u53d6\u6c34\u65bd\u8a2d\u5f71\u97ff\u691c\u8a0e\u696d\u52d9","client_name":"\u56fd\u571f\u4ea4\u901a\u7701\u4e2d\u56fd\u5730\u65b9\u6574\u5099\u5c40\u5ca1\u5c71\u6cb3\u5ddd\u4e8b\u52d9\u6240","boring_xml_url":47,"boring_view_url":1,"soilmap_view_url":null,"soiltest_xml_url":47,"soiltest_view_url":46},{"id":255688,"code":"B4KJ201802002-1168","latitude":"34.5425","longitude":"133.703889","source_code":"CG128740400200100013","project_name":"","survey_name":"\u9ad8\u6881\u5ddd\u5824\u9632\u5916\u5730\u8cea\u8abf\u67fb\u696d\u52d9","client_name":"\u56fd\u571f\u4ea4\u901a\u7701 \u4e2d\u56fd\u5730\u65b9\u6574\u5099\u5c40 \u5ca1\u5c71\u6cb3\u5ddd\u4e8b\u52d9\u6240","boring_xml_url":47,"boring_view_url":1,"soilmap_view_url":null,"soiltest_xml_url":47,"soiltest_view_url":46},{"id":255687,"code":"B4KJ201802002-1167","latitude":"34.537778","longitude":"133.691111","source_code":"CG128740400200100012","project_name":"","survey_name":"\u9ad8\u6881\u5ddd\u5824\u9632\u5916\u5730\u8cea\u8abf\u67fb\u696d\u52d9","client_name":"\u56fd\u571f\u4ea4\u901a\u7701 \u4e2d\u56fd\u5730\u65b9\u6574\u5099\u5c40 \u5ca1\u5c71\u6cb3\u5ddd\u4e8b\u52d9\u6240","boring_xml_url":47,"boring_view_url":1,"soilmap_view_url":null,"soiltest_xml_url":47,"soiltest_view_url":46},{"id":255686,"code":"B4KJ201802002-1166","latitude":"34.545556","longitude":"133.6925","source_code":"CG128740400200100011","project_name":"","survey_name":"\u9ad8\u6881\u5ddd\u5824\u9632\u5916\u5730\u8cea\u8abf\u67fb\u696d\u52d9","client_name":"\u56fd\u571f\u4ea4\u901a\u7701 \u4e2d\u56fd\u5730\u65b9\u6574\u5099\u5c40 \u5ca1\u5c71\u6cb3\u5ddd\u4e8b\u52d9\u6240","boring_xml_url":47,"boring_view_url":1,"soilmap_view_url":null,"soiltest_xml_url":47,"soiltest_view_url":46},{"id":255685,"code":"B4KJ201802002-1165","latitude":"34.544167","longitude":"133.691944","source_code":"CG128740400200100010","project_name":"","survey_name":"\u9ad8\u6881\u5ddd\u5824\u9632\u5916\u5730\u8cea\u8abf\u67fb\u696d\u52d9","client_name":"\u56fd\u571f\u4ea4\u901a\u7701 \u4e2d\u56fd\u5730\u65b9\u6574\u5099\u5c40 \u5ca1\u5c71\u6cb3\u5ddd\u4e8b\u52d9\u6240","boring_xml_url":47,"boring_view_url":1,"soilmap_view_url":null,"soiltest_xml_url":47,"soiltest_view_url":46},{"id":255684,"code":"B4KJ201802002-1164","latitude":"34.5275","longitude":"133.690833","source_code":"CG128740400200100009","project_name":"","survey_name":"\u9ad8\u6881\u5ddd\u5824\u9632\u5916\u5730\u8cea\u8abf\u67fb\u696d\u52d9","client_name":"\u56fd\u571f\u4ea4\u901a\u7701 \u4e2d\u56fd\u5730\u65b9\u6574\u5099\u5c40 \u5ca1\u5c71\u6cb3\u5ddd\u4e8b\u52d9\u6240","boring_xml_url":47,"boring_view_url":1,"soilmap_view_url":null,"soiltest_xml_url":47,"soiltest_view_url":46},{"id":255683,"code":"B4KJ201802002-1163","latitude":"34.526667","longitude":"133.690833","source_code":"CG128740400200100008","project_name":"","survey_name":"\u9ad8\u6881\u5ddd\u5824\u9632\u5916\u5730\u8cea\u8abf\u67fb\u696d\u52d9","client_name":"\u56fd\u571f\u4ea4\u901a\u7701 \u4e2d\u56fd\u5730\u65b9\u6574\u5099\u5c40 \u5ca1\u5c71\u6cb3\u5ddd\u4e8b\u52d9\u6240","boring_xml_url":47,"boring_view_url":1,"soilmap_view_url":null,"soiltest_xml_url":47,"soiltest_view_url":46},{"id":255682,"code":"B4KJ201802002-1162","latitude":"34.615833","longitude":"133.961667","source_code":"CG128740400200100007","project_name":"","survey_name":"\u9ad8\u6881\u5ddd\u5824\u9632\u5916\u5730\u8cea\u8abf\u67fb\u696d\u52d9","client_name":"\u56fd\u571f\u4ea4\u901a\u7701 \u4e2d\u56fd\u5730\u65b9\u6574\u5099\u5c40 \u5ca1\u5c71\u6cb3\u5ddd\u4e8b\u52d9\u6240","boring_xml_url":47,"boring_view_url":1,"soilmap_view_url":null,"soiltest_xml_url":47,"soiltest_view_url":46},{"id":255681,"code":"B4KJ201802002-1161","latitude":"34.6025","longitude":"133.960278","source_code":"CG128740400200100006","project_name":"","survey_name":"\u9ad8\u6881\u5ddd\u5824\u9632\u5916\u5730\u8cea\u8abf\u67fb\u696d\u52d9","client_name":"\u56fd\u571f\u4ea4\u901a\u7701 \u4e2d\u56fd\u5730\u65b9\u6574\u5099\u5c40 \u5ca1\u5c71\u6cb3\u5ddd\u4e8b\u52d9\u6240","boring_xml_url":47,"boring_view_url":1,"soilmap_view_url":null,"soiltest_xml_url":47,"soiltest_view_url":46},{"id":255680,"code":"B4KJ201802002-1160","latitude":"34.609722","longitude":"133.961389","source_code":"CG128740400200100005","project_name":"","survey_name":"\u9ad8\u6881\u5ddd\u5824\u9632\u5916\u5730\u8cea\u8abf\u67fb\u696d\u52d9","client_name":"\u56fd\u571f\u4ea4\u901a\u7701 \u4e2d\u56fd\u5730\u65b9\u6574\u5099\u5c40 \u5ca1\u5c71\u6cb3\u5ddd\u4e8b\u52d9\u6240","boring_xml_url":47,"boring_view_url":1,"soilmap_view_url":null,"soiltest_xml_url":47,"soiltest_view_url":46},{"id":255679,"code":"B4KJ201802002-1159","latitude":"34.606111","longitude":"133.964167","source_code":"CG128740400200100004","project_name":"","survey_name":"\u9ad8\u6881\u5ddd\u5824\u9632\u5916\u5730\u8cea\u8abf\u67fb\u696d\u52d9","client_name":"\u56fd\u571f\u4ea4\u901a\u7701 \u4e2d\u56fd\u5730\u65b9\u6574\u5099\u5c40 \u5ca1\u5c71\u6cb3\u5ddd\u4e8b\u52d9\u6240","boring_xml_url":47,"boring_view_url":1,"soilmap_view_url":null,"soiltest_xml_url":47,"soiltest_view_url":46},{"id":255678,"code":"B4KJ201802002-1158","latitude":"34.602222","longitude":"133.966944","source_code":"CG128740400200100003","project_name":"","survey_name":"\u9ad8\u6881\u5ddd\u5824\u9632\u5916\u5730\u8cea\u8abf\u67fb\u696d\u52d9","client_name":"\u56fd\u571f\u4ea4\u901a\u7701 \u4e2d\u56fd\u5730\u65b9\u6574\u5099\u5c40 \u5ca1\u5c71\u6cb3\u5ddd\u4e8b\u52d9\u6240","boring_xml_url":47,"boring_view_url":1,"soilmap_view_url":null,"soiltest_xml_url":47,"soiltest_view_url":46},{"id":255677,"code":"B4KJ201802002-1157","latitude":"34.6025","longitude":"133.967222","source_code":"CG128740400200100002","project_name":"","survey_name":"\u9ad8\u6881\u5ddd\u5824\u9632\u5916\u5730\u8cea\u8abf\u67fb\u696d\u52d9","client_name":"\u56fd\u571f\u4ea4\u901a\u7701 \u4e2d\u56fd\u5730\u65b9\u6574\u5099\u5c40 \u5ca1\u5c71\u6cb3\u5ddd\u4e8b\u52d9\u6240","boring_xml_url":47,"boring_view_url":1,"soilmap_view_url":null,"soiltest_xml_url":47,"soiltest_view_url":46}]}}