{"header":{"xyz":{"source":[],"mosaic":false},"page":2498,"raw":{"soiltest_result":"0","bbox":"57.598333,109.544722,1.933333,163.806111","page":"2498"},"conditions":{"soiltest_result":0,"north":57.598333,"west":109.544722,"south":1.933333,"east":163.806111},"success":true,"message":""},"data":{"meta":{"total":212844,"page":2498,"pages":7095,"count":30},"values":[{"id":255616,"code":"B4KJ201802002-1096","latitude":"35.290333","longitude":"132.656306","source_code":"CG128735600200230007","project_name":"","survey_name":"\u6e56\u9675\u30fb\u591a\u4f0e\u9053\u8def \u591a\u4f0e\u5730\u533a\u5730\u8cea\u8abf\u67fb\u696d\u52d9","client_name":"\u56fd\u571f\u4ea4\u901a\u7701\u4e2d\u56fd\u5730\u65b9\u6574\u5099\u5c40\u677e\u6c5f\u56fd\u9053\u4e8b\u52d9\u6240","boring_xml_url":47,"boring_view_url":1,"soilmap_view_url":null,"soiltest_xml_url":0,"soiltest_view_url":0},{"id":255615,"code":"B4KJ201802002-1095","latitude":"35.290222","longitude":"132.657139","source_code":"CG128735600200230006","project_name":"","survey_name":"\u6e56\u9675\u30fb\u591a\u4f0e\u9053\u8def \u591a\u4f0e\u5730\u533a\u5730\u8cea\u8abf\u67fb\u696d\u52d9","client_name":"\u56fd\u571f\u4ea4\u901a\u7701\u4e2d\u56fd\u5730\u65b9\u6574\u5099\u5c40\u677e\u6c5f\u56fd\u9053\u4e8b\u52d9\u6240","boring_xml_url":47,"boring_view_url":1,"soilmap_view_url":null,"soiltest_xml_url":0,"soiltest_view_url":0},{"id":255614,"code":"B4KJ201802002-1094","latitude":"35.290056","longitude":"132.658611","source_code":"CG128735600200230005","project_name":"","survey_name":"\u6e56\u9675\u30fb\u591a\u4f0e\u9053\u8def \u591a\u4f0e\u5730\u533a\u5730\u8cea\u8abf\u67fb\u696d\u52d9","client_name":"\u56fd\u571f\u4ea4\u901a\u7701\u4e2d\u56fd\u5730\u65b9\u6574\u5099\u5c40\u677e\u6c5f\u56fd\u9053\u4e8b\u52d9\u6240","boring_xml_url":47,"boring_view_url":1,"soilmap_view_url":null,"soiltest_xml_url":0,"soiltest_view_url":0},{"id":255613,"code":"B4KJ201802002-1093","latitude":"35.289917","longitude":"132.660028","source_code":"CG128735600200230004","project_name":"","survey_name":"\u6e56\u9675\u30fb\u591a\u4f0e\u9053\u8def \u591a\u4f0e\u5730\u533a\u5730\u8cea\u8abf\u67fb\u696d\u52d9","client_name":"\u56fd\u571f\u4ea4\u901a\u7701\u4e2d\u56fd\u5730\u65b9\u6574\u5099\u5c40\u677e\u6c5f\u56fd\u9053\u4e8b\u52d9\u6240","boring_xml_url":47,"boring_view_url":1,"soilmap_view_url":null,"soiltest_xml_url":0,"soiltest_view_url":0},{"id":255612,"code":"B4KJ201802002-1092","latitude":"35.290278","longitude":"132.659972","source_code":"CG128735600200230003","project_name":"","survey_name":"\u6e56\u9675\u30fb\u591a\u4f0e\u9053\u8def \u591a\u4f0e\u5730\u533a\u5730\u8cea\u8abf\u67fb\u696d\u52d9","client_name":"\u56fd\u571f\u4ea4\u901a\u7701\u4e2d\u56fd\u5730\u65b9\u6574\u5099\u5c40\u677e\u6c5f\u56fd\u9053\u4e8b\u52d9\u6240","boring_xml_url":47,"boring_view_url":1,"soilmap_view_url":null,"soiltest_xml_url":0,"soiltest_view_url":0},{"id":255611,"code":"B4KJ201802002-1091","latitude":"35.289917","longitude":"132.660694","source_code":"CG128735600200230002","project_name":"","survey_name":"\u6e56\u9675\u30fb\u591a\u4f0e\u9053\u8def \u591a\u4f0e\u5730\u533a\u5730\u8cea\u8abf\u67fb\u696d\u52d9","client_name":"\u56fd\u571f\u4ea4\u901a\u7701\u4e2d\u56fd\u5730\u65b9\u6574\u5099\u5c40\u677e\u6c5f\u56fd\u9053\u4e8b\u52d9\u6240","boring_xml_url":47,"boring_view_url":1,"soilmap_view_url":null,"soiltest_xml_url":0,"soiltest_view_url":0},{"id":255610,"code":"B4KJ201802002-1090","latitude":"35.290306","longitude":"132.661056","source_code":"CG128735600200230001","project_name":"","survey_name":"\u6e56\u9675\u30fb\u591a\u4f0e\u9053\u8def \u591a\u4f0e\u5730\u533a\u5730\u8cea\u8abf\u67fb\u696d\u52d9","client_name":"\u56fd\u571f\u4ea4\u901a\u7701\u4e2d\u56fd\u5730\u65b9\u6574\u5099\u5c40\u677e\u6c5f\u56fd\u9053\u4e8b\u52d9\u6240","boring_xml_url":47,"boring_view_url":1,"soilmap_view_url":null,"soiltest_xml_url":0,"soiltest_view_url":0},{"id":255609,"code":"B4KJ201802002-1089","latitude":"35.20025","longitude":"132.458611","source_code":"CG128735600200170013","project_name":"\u5927\u7530\u30fb\u9759\u9593\u9053\u8def\u9759\u9593\u5730\u533a\u5730\u8cea\u8abf\u67fb\u696d\u52d9","survey_name":"\u5927\u7530\u30fb\u9759\u9593\u9053\u8def\u9759\u9593\u5730\u533a\u5730\u8cea\u8abf\u67fb\u696d\u52d9","client_name":"\u56fd\u571f\u4ea4\u901a\u7701\u4e2d\u56fd\u5730\u65b9\u6574\u5099\u5c40\u677e\u6c5f\u56fd\u9053\u5de5\u4e8b\u4e8b\u52d9\u6240\u8abf\u67fb\u8a2d\u8a08\u8ab2","boring_xml_url":47,"boring_view_url":1,"soilmap_view_url":null,"soiltest_xml_url":0,"soiltest_view_url":0},{"id":255608,"code":"B4KJ201802002-1088","latitude":"35.200639","longitude":"132.460056","source_code":"CG128735600200170012","project_name":"\u5927\u7530\u30fb\u9759\u9593\u9053\u8def\u9759\u9593\u5730\u533a\u5730\u8cea\u8abf\u67fb\u696d\u52d9","survey_name":"\u5927\u7530\u30fb\u9759\u9593\u9053\u8def\u9759\u9593\u5730\u533a\u5730\u8cea\u8abf\u67fb\u696d\u52d9","client_name":"\u56fd\u571f\u4ea4\u901a\u7701\u4e2d\u56fd\u5730\u65b9\u6574\u5099\u5c40\u677e\u6c5f\u56fd\u9053\u5de5\u4e8b\u4e8b\u52d9\u6240\u8abf\u67fb\u8a2d\u8a08\u8ab2","boring_xml_url":47,"boring_view_url":1,"soilmap_view_url":null,"soiltest_xml_url":0,"soiltest_view_url":0},{"id":255607,"code":"B4KJ201802002-1087","latitude":"35.201278","longitude":"132.462028","source_code":"CG128735600200170011","project_name":"\u5927\u7530\u30fb\u9759\u9593\u9053\u8def\u9759\u9593\u5730\u533a\u5730\u8cea\u8abf\u67fb\u696d\u52d9","survey_name":"\u5927\u7530\u30fb\u9759\u9593\u9053\u8def\u9759\u9593\u5730\u533a\u5730\u8cea\u8abf\u67fb\u696d\u52d9","client_name":"\u56fd\u571f\u4ea4\u901a\u7701\u4e2d\u56fd\u5730\u65b9\u6574\u5099\u5c40\u677e\u6c5f\u56fd\u9053\u5de5\u4e8b\u4e8b\u52d9\u6240\u8abf\u67fb\u8a2d\u8a08\u8ab2","boring_xml_url":47,"boring_view_url":1,"soilmap_view_url":null,"soiltest_xml_url":0,"soiltest_view_url":0},{"id":255606,"code":"B4KJ201802002-1086","latitude":"35.200972","longitude":"132.462778","source_code":"CG128735600200170010","project_name":"\u5927\u7530\u30fb\u9759\u9593\u9053\u8def\u9759\u9593\u5730\u533a\u5730\u8cea\u8abf\u67fb\u696d\u52d9","survey_name":"\u5927\u7530\u30fb\u9759\u9593\u9053\u8def\u9759\u9593\u5730\u533a\u5730\u8cea\u8abf\u67fb\u696d\u52d9","client_name":"\u56fd\u571f\u4ea4\u901a\u7701\u4e2d\u56fd\u5730\u65b9\u6574\u5099\u5c40\u677e\u6c5f\u56fd\u9053\u5de5\u4e8b\u4e8b\u52d9\u6240\u8abf\u67fb\u8a2d\u8a08\u8ab2","boring_xml_url":47,"boring_view_url":1,"soilmap_view_url":null,"soiltest_xml_url":0,"soiltest_view_url":0},{"id":255605,"code":"B4KJ201802002-1085","latitude":"35.201583","longitude":"132.463722","source_code":"CG128735600200170009","project_name":"\u5927\u7530\u30fb\u9759\u9593\u9053\u8def\u9759\u9593\u5730\u533a\u5730\u8cea\u8abf\u67fb\u696d\u52d9","survey_name":"\u5927\u7530\u30fb\u9759\u9593\u9053\u8def\u9759\u9593\u5730\u533a\u5730\u8cea\u8abf\u67fb\u696d\u52d9","client_name":"\u56fd\u571f\u4ea4\u901a\u7701\u4e2d\u56fd\u5730\u65b9\u6574\u5099\u5c40\u677e\u6c5f\u56fd\u9053\u5de5\u4e8b\u4e8b\u52d9\u6240\u8abf\u67fb\u8a2d\u8a08\u8ab2","boring_xml_url":47,"boring_view_url":1,"soilmap_view_url":null,"soiltest_xml_url":0,"soiltest_view_url":0},{"id":255604,"code":"B4KJ201802002-1084","latitude":"35.202028","longitude":"132.464639","source_code":"CG128735600200170008","project_name":"\u5927\u7530\u30fb\u9759\u9593\u9053\u8def\u9759\u9593\u5730\u533a\u5730\u8cea\u8abf\u67fb\u696d\u52d9","survey_name":"\u5927\u7530\u30fb\u9759\u9593\u9053\u8def\u9759\u9593\u5730\u533a\u5730\u8cea\u8abf\u67fb\u696d\u52d9","client_name":"\u56fd\u571f\u4ea4\u901a\u7701\u4e2d\u56fd\u5730\u65b9\u6574\u5099\u5c40\u677e\u6c5f\u56fd\u9053\u5de5\u4e8b\u4e8b\u52d9\u6240\u8abf\u67fb\u8a2d\u8a08\u8ab2","boring_xml_url":47,"boring_view_url":1,"soilmap_view_url":null,"soiltest_xml_url":0,"soiltest_view_url":0},{"id":255603,"code":"B4KJ201802002-1083","latitude":"35.205861","longitude":"132.470694","source_code":"CG128735600200170007","project_name":"\u5927\u7530\u30fb\u9759\u9593\u9053\u8def\u9759\u9593\u5730\u533a\u5730\u8cea\u8abf\u67fb\u696d\u52d9","survey_name":"\u5927\u7530\u30fb\u9759\u9593\u9053\u8def\u9759\u9593\u5730\u533a\u5730\u8cea\u8abf\u67fb\u696d\u52d9","client_name":"\u56fd\u571f\u4ea4\u901a\u7701\u4e2d\u56fd\u5730\u65b9\u6574\u5099\u5c40\u677e\u6c5f\u56fd\u9053\u5de5\u4e8b\u4e8b\u52d9\u6240\u8abf\u67fb\u8a2d\u8a08\u8ab2","boring_xml_url":47,"boring_view_url":1,"soilmap_view_url":null,"soiltest_xml_url":0,"soiltest_view_url":0},{"id":255602,"code":"B4KJ201802002-1082","latitude":"35.206306","longitude":"132.472","source_code":"CG128735600200170006","project_name":"\u5927\u7530\u30fb\u9759\u9593\u9053\u8def\u9759\u9593\u5730\u533a\u5730\u8cea\u8abf\u67fb\u696d\u52d9","survey_name":"\u5927\u7530\u30fb\u9759\u9593\u9053\u8def\u9759\u9593\u5730\u533a\u5730\u8cea\u8abf\u67fb\u696d\u52d9","client_name":"\u56fd\u571f\u4ea4\u901a\u7701\u4e2d\u56fd\u5730\u65b9\u6574\u5099\u5c40\u677e\u6c5f\u56fd\u9053\u5de5\u4e8b\u4e8b\u52d9\u6240\u8abf\u67fb\u8a2d\u8a08\u8ab2","boring_xml_url":47,"boring_view_url":1,"soilmap_view_url":null,"soiltest_xml_url":0,"soiltest_view_url":0},{"id":255601,"code":"B4KJ201802002-1081","latitude":"35.206472","longitude":"132.473417","source_code":"CG128735600200170005","project_name":"\u5927\u7530\u30fb\u9759\u9593\u9053\u8def\u9759\u9593\u5730\u533a\u5730\u8cea\u8abf\u67fb\u696d\u52d9","survey_name":"\u5927\u7530\u30fb\u9759\u9593\u9053\u8def\u9759\u9593\u5730\u533a\u5730\u8cea\u8abf\u67fb\u696d\u52d9","client_name":"\u56fd\u571f\u4ea4\u901a\u7701\u4e2d\u56fd\u5730\u65b9\u6574\u5099\u5c40\u677e\u6c5f\u56fd\u9053\u5de5\u4e8b\u4e8b\u52d9\u6240\u8abf\u67fb\u8a2d\u8a08\u8ab2","boring_xml_url":47,"boring_view_url":1,"soilmap_view_url":null,"soiltest_xml_url":0,"soiltest_view_url":0},{"id":255600,"code":"B4KJ201802002-1080","latitude":"35.206222","longitude":"132.473472","source_code":"CG128735600200170004","project_name":"\u5927\u7530\u30fb\u9759\u9593\u9053\u8def\u9759\u9593\u5730\u533a\u5730\u8cea\u8abf\u67fb\u696d\u52d9","survey_name":"\u5927\u7530\u30fb\u9759\u9593\u9053\u8def\u9759\u9593\u5730\u533a\u5730\u8cea\u8abf\u67fb\u696d\u52d9","client_name":"\u56fd\u571f\u4ea4\u901a\u7701\u4e2d\u56fd\u5730\u65b9\u6574\u5099\u5c40\u677e\u6c5f\u56fd\u9053\u5de5\u4e8b\u4e8b\u52d9\u6240\u8abf\u67fb\u8a2d\u8a08\u8ab2","boring_xml_url":47,"boring_view_url":1,"soilmap_view_url":null,"soiltest_xml_url":0,"soiltest_view_url":0},{"id":255599,"code":"B4KJ201802002-1079","latitude":"35.206722","longitude":"132.473333","source_code":"CG128735600200170003","project_name":"\u5927\u7530\u30fb\u9759\u9593\u9053\u8def\u9759\u9593\u5730\u533a\u5730\u8cea\u8abf\u67fb\u696d\u52d9","survey_name":"\u5927\u7530\u30fb\u9759\u9593\u9053\u8def\u9759\u9593\u5730\u533a\u5730\u8cea\u8abf\u67fb\u696d\u52d9","client_name":"\u56fd\u571f\u4ea4\u901a\u7701\u4e2d\u56fd\u5730\u65b9\u6574\u5099\u5c40\u677e\u6c5f\u56fd\u9053\u5de5\u4e8b\u4e8b\u52d9\u6240\u8abf\u67fb\u8a2d\u8a08\u8ab2","boring_xml_url":47,"boring_view_url":1,"soilmap_view_url":null,"soiltest_xml_url":0,"soiltest_view_url":0},{"id":255598,"code":"B4KJ201802002-1078","latitude":"35.207833","longitude":"132.478028","source_code":"CG128735600200170002","project_name":"\u5927\u7530\u30fb\u9759\u9593\u9053\u8def\u9759\u9593\u5730\u533a\u5730\u8cea\u8abf\u67fb\u696d\u52d9","survey_name":"\u5927\u7530\u30fb\u9759\u9593\u9053\u8def\u9759\u9593\u5730\u533a\u5730\u8cea\u8abf\u67fb\u696d\u52d9","client_name":"\u56fd\u571f\u4ea4\u901a\u7701\u4e2d\u56fd\u5730\u65b9\u6574\u5099\u5c40\u677e\u6c5f\u56fd\u9053\u5de5\u4e8b\u4e8b\u52d9\u6240\u8abf\u67fb\u8a2d\u8a08\u8ab2","boring_xml_url":47,"boring_view_url":1,"soilmap_view_url":null,"soiltest_xml_url":0,"soiltest_view_url":0},{"id":255597,"code":"B4KJ201802002-1077","latitude":"35.207611","longitude":"132.479333","source_code":"CG128735600200170001","project_name":"\u5927\u7530\u30fb\u9759\u9593\u9053\u8def\u9759\u9593\u5730\u533a\u5730\u8cea\u8abf\u67fb\u696d\u52d9","survey_name":"\u5927\u7530\u30fb\u9759\u9593\u9053\u8def\u9759\u9593\u5730\u533a\u5730\u8cea\u8abf\u67fb\u696d\u52d9","client_name":"\u56fd\u571f\u4ea4\u901a\u7701\u4e2d\u56fd\u5730\u65b9\u6574\u5099\u5c40\u677e\u6c5f\u56fd\u9053\u5de5\u4e8b\u4e8b\u52d9\u6240\u8abf\u67fb\u8a2d\u8a08\u8ab2","boring_xml_url":47,"boring_view_url":1,"soilmap_view_url":null,"soiltest_xml_url":0,"soiltest_view_url":0},{"id":255596,"code":"B4KJ201802002-1076","latitude":"35.207028","longitude":"132.483333","source_code":"CG128735600200160015","project_name":"","survey_name":"\u5927\u7530\u30fb\u9759\u9593\u4e45\u624b\u5730\u533a\u5730\u8cea\u8abf\u67fb\u696d\u52d9","client_name":"\u56fd\u571f\u4ea4\u901a\u7701\u4e2d\u56fd\u5730\u65b9\u6574\u5099\u5c40 \u677e\u6c5f\u56fd\u9053\u4e8b\u52d9\u6240","boring_xml_url":47,"boring_view_url":1,"soilmap_view_url":null,"soiltest_xml_url":0,"soiltest_view_url":0},{"id":255595,"code":"B4KJ201802002-1075","latitude":"35.207194","longitude":"132.483389","source_code":"CG128735600200160014","project_name":"","survey_name":"\u5927\u7530\u30fb\u9759\u9593\u4e45\u624b\u5730\u533a\u5730\u8cea\u8abf\u67fb\u696d\u52d9","client_name":"\u56fd\u571f\u4ea4\u901a\u7701\u4e2d\u56fd\u5730\u65b9\u6574\u5099\u5c40 \u677e\u6c5f\u56fd\u9053\u4e8b\u52d9\u6240","boring_xml_url":47,"boring_view_url":1,"soilmap_view_url":null,"soiltest_xml_url":0,"soiltest_view_url":0},{"id":255594,"code":"B4KJ201802002-1074","latitude":"35.2075","longitude":"132.483556","source_code":"CG128735600200160013","project_name":"","survey_name":"\u5927\u7530\u30fb\u9759\u9593\u4e45\u624b\u5730\u533a\u5730\u8cea\u8abf\u67fb\u696d\u52d9","client_name":"\u56fd\u571f\u4ea4\u901a\u7701\u4e2d\u56fd\u5730\u65b9\u6574\u5099\u5c40 \u677e\u6c5f\u56fd\u9053\u4e8b\u52d9\u6240","boring_xml_url":47,"boring_view_url":1,"soilmap_view_url":null,"soiltest_xml_url":0,"soiltest_view_url":0},{"id":255593,"code":"B4KJ201802002-1073","latitude":"35.207139","longitude":"132.484222","source_code":"CG128735600200160012","project_name":"","survey_name":"\u5927\u7530\u30fb\u9759\u9593\u4e45\u624b\u5730\u533a\u5730\u8cea\u8abf\u67fb\u696d\u52d9","client_name":"\u56fd\u571f\u4ea4\u901a\u7701\u4e2d\u56fd\u5730\u65b9\u6574\u5099\u5c40 \u677e\u6c5f\u56fd\u9053\u4e8b\u52d9\u6240","boring_xml_url":47,"boring_view_url":1,"soilmap_view_url":null,"soiltest_xml_url":0,"soiltest_view_url":0},{"id":255592,"code":"B4KJ201802002-1072","latitude":"35.207472","longitude":"132.484472","source_code":"CG128735600200160011","project_name":"","survey_name":"\u5927\u7530\u30fb\u9759\u9593\u4e45\u624b\u5730\u533a\u5730\u8cea\u8abf\u67fb\u696d\u52d9","client_name":"\u56fd\u571f\u4ea4\u901a\u7701\u4e2d\u56fd\u5730\u65b9\u6574\u5099\u5c40 \u677e\u6c5f\u56fd\u9053\u4e8b\u52d9\u6240","boring_xml_url":47,"boring_view_url":1,"soilmap_view_url":null,"soiltest_xml_url":0,"soiltest_view_url":0},{"id":255591,"code":"B4KJ201802002-1071","latitude":"35.206167","longitude":"132.485722","source_code":"CG128735600200160010","project_name":"","survey_name":"\u5927\u7530\u30fb\u9759\u9593\u4e45\u624b\u5730\u533a\u5730\u8cea\u8abf\u67fb\u696d\u52d9","client_name":"\u56fd\u571f\u4ea4\u901a\u7701\u4e2d\u56fd\u5730\u65b9\u6574\u5099\u5c40 \u677e\u6c5f\u56fd\u9053\u4e8b\u52d9\u6240","boring_xml_url":47,"boring_view_url":1,"soilmap_view_url":null,"soiltest_xml_url":0,"soiltest_view_url":0},{"id":255590,"code":"B4KJ201802002-1070","latitude":"35.207139","longitude":"132.487083","source_code":"CG128735600200160009","project_name":"","survey_name":"\u5927\u7530\u30fb\u9759\u9593\u4e45\u624b\u5730\u533a\u5730\u8cea\u8abf\u67fb\u696d\u52d9","client_name":"\u56fd\u571f\u4ea4\u901a\u7701\u4e2d\u56fd\u5730\u65b9\u6574\u5099\u5c40 \u677e\u6c5f\u56fd\u9053\u4e8b\u52d9\u6240","boring_xml_url":47,"boring_view_url":1,"soilmap_view_url":null,"soiltest_xml_url":0,"soiltest_view_url":0},{"id":255589,"code":"B4KJ201802002-1069","latitude":"35.207194","longitude":"132.488389","source_code":"CG128735600200160008","project_name":"","survey_name":"\u5927\u7530\u30fb\u9759\u9593\u4e45\u624b\u5730\u533a\u5730\u8cea\u8abf\u67fb\u696d\u52d9","client_name":"\u56fd\u571f\u4ea4\u901a\u7701\u4e2d\u56fd\u5730\u65b9\u6574\u5099\u5c40 \u677e\u6c5f\u56fd\u9053\u4e8b\u52d9\u6240","boring_xml_url":47,"boring_view_url":1,"soilmap_view_url":null,"soiltest_xml_url":0,"soiltest_view_url":0},{"id":255588,"code":"B4KJ201802002-1068","latitude":"35.207028","longitude":"132.488417","source_code":"CG128735600200160007","project_name":"","survey_name":"\u5927\u7530\u30fb\u9759\u9593\u4e45\u624b\u5730\u533a\u5730\u8cea\u8abf\u67fb\u696d\u52d9","client_name":"\u56fd\u571f\u4ea4\u901a\u7701\u4e2d\u56fd\u5730\u65b9\u6574\u5099\u5c40 \u677e\u6c5f\u56fd\u9053\u4e8b\u52d9\u6240","boring_xml_url":47,"boring_view_url":1,"soilmap_view_url":null,"soiltest_xml_url":0,"soiltest_view_url":0},{"id":255587,"code":"B4KJ201802002-1067","latitude":"35.206306","longitude":"132.489111","source_code":"CG128735600200160006","project_name":"","survey_name":"\u5927\u7530\u30fb\u9759\u9593\u4e45\u624b\u5730\u533a\u5730\u8cea\u8abf\u67fb\u696d\u52d9","client_name":"\u56fd\u571f\u4ea4\u901a\u7701\u4e2d\u56fd\u5730\u65b9\u6574\u5099\u5c40 \u677e\u6c5f\u56fd\u9053\u4e8b\u52d9\u6240","boring_xml_url":47,"boring_view_url":1,"soilmap_view_url":null,"soiltest_xml_url":0,"soiltest_view_url":0}]}}