{"header":{"xyz":{"source":[],"mosaic":false},"page":2511,"raw":{"soiltest_result":"0","bbox":"57.598333,109.544722,1.933333,163.806111","page":"2511"},"conditions":{"soiltest_result":0,"north":57.598333,"west":109.544722,"south":1.933333,"east":163.806111},"success":true,"message":""},"data":{"meta":{"total":212844,"page":2511,"pages":7095,"count":30},"values":[{"id":255226,"code":"B4KJ201802002-0706","latitude":"34.635472","longitude":"133.941639","source_code":"CG108740400200130009","project_name":"","survey_name":"\u65ed\u5ddd\u5824\u9632\u8010\u9707\u70b9\u691c\u696d\u52d9","client_name":"\u56fd\u571f\u4ea4\u901a\u7701 \u4e2d\u56fd\u5730\u65b9\u6574\u5099\u5c40 \u5ca1\u5c71\u6cb3\u5ddd\u4e8b\u52d9\u6240","boring_xml_url":47,"boring_view_url":1,"soilmap_view_url":null,"soiltest_xml_url":47,"soiltest_view_url":46},{"id":255225,"code":"B4KJ201802002-0705","latitude":"34.635333","longitude":"133.941556","source_code":"CG108740400200130008","project_name":"","survey_name":"\u65ed\u5ddd\u5824\u9632\u8010\u9707\u70b9\u691c\u696d\u52d9","client_name":"\u56fd\u571f\u4ea4\u901a\u7701 \u4e2d\u56fd\u5730\u65b9\u6574\u5099\u5c40 \u5ca1\u5c71\u6cb3\u5ddd\u4e8b\u52d9\u6240","boring_xml_url":47,"boring_view_url":1,"soilmap_view_url":null,"soiltest_xml_url":47,"soiltest_view_url":46},{"id":255224,"code":"B4KJ201802002-0704","latitude":"34.635222","longitude":"133.941472","source_code":"CG108740400200130007","project_name":"","survey_name":"\u65ed\u5ddd\u5824\u9632\u8010\u9707\u70b9\u691c\u696d\u52d9","client_name":"\u56fd\u571f\u4ea4\u901a\u7701 \u4e2d\u56fd\u5730\u65b9\u6574\u5099\u5c40 \u5ca1\u5c71\u6cb3\u5ddd\u4e8b\u52d9\u6240","boring_xml_url":47,"boring_view_url":1,"soilmap_view_url":null,"soiltest_xml_url":47,"soiltest_view_url":46},{"id":255223,"code":"B4KJ201802002-0703","latitude":"34.633167","longitude":"133.945528","source_code":"CG108740400200130006","project_name":"","survey_name":"\u65ed\u5ddd\u5824\u9632\u8010\u9707\u70b9\u691c\u696d\u52d9","client_name":"\u56fd\u571f\u4ea4\u901a\u7701 \u4e2d\u56fd\u5730\u65b9\u6574\u5099\u5c40 \u5ca1\u5c71\u6cb3\u5ddd\u4e8b\u52d9\u6240","boring_xml_url":47,"boring_view_url":1,"soilmap_view_url":null,"soiltest_xml_url":47,"soiltest_view_url":46},{"id":255222,"code":"B4KJ201802002-0702","latitude":"34.633111","longitude":"133.945306","source_code":"CG108740400200130005","project_name":"","survey_name":"\u65ed\u5ddd\u5824\u9632\u8010\u9707\u70b9\u691c\u696d\u52d9","client_name":"\u56fd\u571f\u4ea4\u901a\u7701 \u4e2d\u56fd\u5730\u65b9\u6574\u5099\u5c40 \u5ca1\u5c71\u6cb3\u5ddd\u4e8b\u52d9\u6240","boring_xml_url":47,"boring_view_url":1,"soilmap_view_url":null,"soiltest_xml_url":47,"soiltest_view_url":46},{"id":255221,"code":"B4KJ201802002-0701","latitude":"34.628167","longitude":"133.950222","source_code":"CG108740400200130004","project_name":"","survey_name":"\u65ed\u5ddd\u5824\u9632\u8010\u9707\u70b9\u691c\u696d\u52d9","client_name":"\u56fd\u571f\u4ea4\u901a\u7701 \u4e2d\u56fd\u5730\u65b9\u6574\u5099\u5c40 \u5ca1\u5c71\u6cb3\u5ddd\u4e8b\u52d9\u6240","boring_xml_url":47,"boring_view_url":1,"soilmap_view_url":null,"soiltest_xml_url":47,"soiltest_view_url":46},{"id":255220,"code":"B4KJ201802002-0700","latitude":"34.61375","longitude":"133.9635","source_code":"CG108740400200130003","project_name":"","survey_name":"\u65ed\u5ddd\u5824\u9632\u8010\u9707\u70b9\u691c\u696d\u52d9","client_name":"\u56fd\u571f\u4ea4\u901a\u7701 \u4e2d\u56fd\u5730\u65b9\u6574\u5099\u5c40 \u5ca1\u5c71\u6cb3\u5ddd\u4e8b\u52d9\u6240","boring_xml_url":47,"boring_view_url":1,"soilmap_view_url":null,"soiltest_xml_url":47,"soiltest_view_url":46},{"id":255219,"code":"B4KJ201802002-0699","latitude":"34.613667","longitude":"133.963361","source_code":"CG108740400200130002","project_name":"","survey_name":"\u65ed\u5ddd\u5824\u9632\u8010\u9707\u70b9\u691c\u696d\u52d9","client_name":"\u56fd\u571f\u4ea4\u901a\u7701 \u4e2d\u56fd\u5730\u65b9\u6574\u5099\u5c40 \u5ca1\u5c71\u6cb3\u5ddd\u4e8b\u52d9\u6240","boring_xml_url":47,"boring_view_url":1,"soilmap_view_url":null,"soiltest_xml_url":47,"soiltest_view_url":46},{"id":255218,"code":"B4KJ201802002-0698","latitude":"34.606583","longitude":"133.969833","source_code":"CG108740400200130001","project_name":"","survey_name":"\u65ed\u5ddd\u5824\u9632\u8010\u9707\u70b9\u691c\u696d\u52d9","client_name":"\u56fd\u571f\u4ea4\u901a\u7701 \u4e2d\u56fd\u5730\u65b9\u6574\u5099\u5c40 \u5ca1\u5c71\u6cb3\u5ddd\u4e8b\u52d9\u6240","boring_xml_url":47,"boring_view_url":1,"soilmap_view_url":null,"soiltest_xml_url":47,"soiltest_view_url":46},{"id":255217,"code":"B4KJ201802002-0697","latitude":"35.452139","longitude":"133.102444","source_code":"CG118736600200060001","project_name":"","survey_name":"\u5927\u6a4b\u5ddd\u6e2c\u91cf\u8a2d\u8a08\u696d\u52d9","client_name":"\u56fd\u571f\u4ea4\u901a\u7701 \u4e2d\u56fd\u5730\u65b9\u6574\u5099\u5c40 \u51fa\u96f2\u6cb3\u5ddd\u4e8b\u52d9\u6240","boring_xml_url":47,"boring_view_url":1,"soilmap_view_url":null,"soiltest_xml_url":0,"soiltest_view_url":0},{"id":255216,"code":"B4KJ201802002-0696","latitude":"35.275306","longitude":"132.616889","source_code":"CG118735400200260006","project_name":"","survey_name":"\u591a\u4f0e\u671d\u5c71\u9053\u8def\u5916\u6c34\u6587\u8abf\u67fb\u696d\u52d9","client_name":"\u56fd\u571f\u4ea4\u901a\u7701\u4e2d\u56fd\u5730\u65b9\u6574\u5099\u5c40 \u677e\u6c5f\u56fd\u9053\u4e8b\u52d9\u6240","boring_xml_url":47,"boring_view_url":1,"soilmap_view_url":null,"soiltest_xml_url":0,"soiltest_view_url":0},{"id":255215,"code":"B4KJ201802002-0695","latitude":"35.275306","longitude":"132.619472","source_code":"CG118735400200260005","project_name":"","survey_name":"\u591a\u4f0e\u671d\u5c71\u9053\u8def\u5916\u6c34\u6587\u8abf\u67fb\u696d\u52d9","client_name":"\u56fd\u571f\u4ea4\u901a\u7701\u4e2d\u56fd\u5730\u65b9\u6574\u5099\u5c40 \u677e\u6c5f\u56fd\u9053\u4e8b\u52d9\u6240","boring_xml_url":47,"boring_view_url":1,"soilmap_view_url":null,"soiltest_xml_url":0,"soiltest_view_url":0},{"id":255214,"code":"B4KJ201802002-0694","latitude":"35.256694","longitude":"132.583667","source_code":"CG118735400200260004","project_name":"","survey_name":"\u591a\u4f0e\u671d\u5c71\u9053\u8def\u5916\u6c34\u6587\u8abf\u67fb\u696d\u52d9","client_name":"\u56fd\u571f\u4ea4\u901a\u7701\u4e2d\u56fd\u5730\u65b9\u6574\u5099\u5c40 \u677e\u6c5f\u56fd\u9053\u4e8b\u52d9\u6240","boring_xml_url":47,"boring_view_url":1,"soilmap_view_url":null,"soiltest_xml_url":0,"soiltest_view_url":0},{"id":255213,"code":"B4KJ201802002-0693","latitude":"35.256833","longitude":"132.583472","source_code":"CG118735400200260003","project_name":"","survey_name":"\u591a\u4f0e\u671d\u5c71\u9053\u8def\u5916\u6c34\u6587\u8abf\u67fb\u696d\u52d9","client_name":"\u56fd\u571f\u4ea4\u901a\u7701\u4e2d\u56fd\u5730\u65b9\u6574\u5099\u5c40 \u677e\u6c5f\u56fd\u9053\u4e8b\u52d9\u6240","boring_xml_url":47,"boring_view_url":1,"soilmap_view_url":null,"soiltest_xml_url":0,"soiltest_view_url":0},{"id":255212,"code":"B4KJ201802002-0692","latitude":"35.256639","longitude":"132.583222","source_code":"CG118735400200260002","project_name":"","survey_name":"\u591a\u4f0e\u671d\u5c71\u9053\u8def\u5916\u6c34\u6587\u8abf\u67fb\u696d\u52d9","client_name":"\u56fd\u571f\u4ea4\u901a\u7701\u4e2d\u56fd\u5730\u65b9\u6574\u5099\u5c40 \u677e\u6c5f\u56fd\u9053\u4e8b\u52d9\u6240","boring_xml_url":47,"boring_view_url":1,"soilmap_view_url":null,"soiltest_xml_url":0,"soiltest_view_url":0},{"id":255211,"code":"B4KJ201802002-0691","latitude":"35.256583","longitude":"132.583028","source_code":"CG118735400200260001","project_name":"","survey_name":"\u591a\u4f0e\u671d\u5c71\u9053\u8def\u5916\u6c34\u6587\u8abf\u67fb\u696d\u52d9","client_name":"\u56fd\u571f\u4ea4\u901a\u7701\u4e2d\u56fd\u5730\u65b9\u6574\u5099\u5c40 \u677e\u6c5f\u56fd\u9053\u4e8b\u52d9\u6240","boring_xml_url":47,"boring_view_url":1,"soilmap_view_url":null,"soiltest_xml_url":0,"soiltest_view_url":0},{"id":255210,"code":"B4KJ201802002-0690","latitude":"35.195167","longitude":"132.453194","source_code":"CG10873560020230008","project_name":"","survey_name":"\u9759\u9593\u30fb\u4ec1\u6469\u9053\u8def \u9759\u9593\u8de8\u7dda\u6a4b\u8a73\u7d30\u8a2d\u8a08\u696d\u52d9","client_name":"\u56fd\u571f\u4ea4\u901a\u7701\u4e2d\u56fd\u5730\u65b9\u5efa\u8a2d\u5c40 \u677e\u6c5f\u56fd\u9053\u4e8b\u52d9\u6240","boring_xml_url":46,"boring_view_url":1,"soilmap_view_url":null,"soiltest_xml_url":0,"soiltest_view_url":0},{"id":255209,"code":"B4KJ201802002-0689","latitude":"35.195333","longitude":"132.453917","source_code":"CG10873560020230007","project_name":"","survey_name":"\u9759\u9593\u30fb\u4ec1\u6469\u9053\u8def \u9759\u9593\u8de8\u7dda\u6a4b\u8a73\u7d30\u8a2d\u8a08\u696d\u52d9","client_name":"\u56fd\u571f\u4ea4\u901a\u7701\u4e2d\u56fd\u5730\u65b9\u5efa\u8a2d\u5c40 \u677e\u6c5f\u56fd\u9053\u4e8b\u52d9\u6240","boring_xml_url":46,"boring_view_url":1,"soilmap_view_url":null,"soiltest_xml_url":0,"soiltest_view_url":0},{"id":255208,"code":"B4KJ201802002-0688","latitude":"35.195333","longitude":"132.454861","source_code":"CG10873560020230006","project_name":"","survey_name":"\u9759\u9593\u30fb\u4ec1\u6469\u9053\u8def \u9759\u9593\u8de8\u7dda\u6a4b\u8a73\u7d30\u8a2d\u8a08\u696d\u52d9","client_name":"\u56fd\u571f\u4ea4\u901a\u7701\u4e2d\u56fd\u5730\u65b9\u5efa\u8a2d\u5c40 \u677e\u6c5f\u56fd\u9053\u4e8b\u52d9\u6240","boring_xml_url":46,"boring_view_url":1,"soilmap_view_url":null,"soiltest_xml_url":0,"soiltest_view_url":0},{"id":255207,"code":"B4KJ201802002-0687","latitude":"35.195639","longitude":"132.454861","source_code":"CG10873560020230005","project_name":"","survey_name":"\u9759\u9593\u30fb\u4ec1\u6469\u9053\u8def \u9759\u9593\u8de8\u7dda\u6a4b\u8a73\u7d30\u8a2d\u8a08\u696d\u52d9","client_name":"\u56fd\u571f\u4ea4\u901a\u7701\u4e2d\u56fd\u5730\u65b9\u5efa\u8a2d\u5c40 \u677e\u6c5f\u56fd\u9053\u4e8b\u52d9\u6240","boring_xml_url":46,"boring_view_url":1,"soilmap_view_url":null,"soiltest_xml_url":0,"soiltest_view_url":0},{"id":255206,"code":"B4KJ201802002-0686","latitude":"35.195306","longitude":"132.453889","source_code":"CG10873560020230004","project_name":"","survey_name":"\u9759\u9593\u30fb\u4ec1\u6469\u9053\u8def \u9759\u9593\u8de8\u7dda\u6a4b\u8a73\u7d30\u8a2d\u8a08\u696d\u52d9","client_name":"\u56fd\u571f\u4ea4\u901a\u7701\u4e2d\u56fd\u5730\u65b9\u5efa\u8a2d\u5c40 \u677e\u6c5f\u56fd\u9053\u4e8b\u52d9\u6240","boring_xml_url":46,"boring_view_url":1,"soilmap_view_url":null,"soiltest_xml_url":46,"soiltest_view_url":45},{"id":255205,"code":"B4KJ201802002-0685","latitude":"35.194861","longitude":"132.453639","source_code":"CG10873560020230003","project_name":"","survey_name":"\u9759\u9593\u30fb\u4ec1\u6469\u9053\u8def \u9759\u9593\u8de8\u7dda\u6a4b\u8a73\u7d30\u8a2d\u8a08\u696d\u52d9","client_name":"\u56fd\u571f\u4ea4\u901a\u7701\u4e2d\u56fd\u5730\u65b9\u5efa\u8a2d\u5c40 \u677e\u6c5f\u56fd\u9053\u4e8b\u52d9\u6240","boring_xml_url":46,"boring_view_url":1,"soilmap_view_url":null,"soiltest_xml_url":0,"soiltest_view_url":0},{"id":255204,"code":"B4KJ201802002-0684","latitude":"35.195778","longitude":"132.454083","source_code":"CG10873560020230002","project_name":"","survey_name":"\u9759\u9593\u30fb\u4ec1\u6469\u9053\u8def \u9759\u9593\u8de8\u7dda\u6a4b\u8a73\u7d30\u8a2d\u8a08\u696d\u52d9","client_name":"\u56fd\u571f\u4ea4\u901a\u7701\u4e2d\u56fd\u5730\u65b9\u5efa\u8a2d\u5c40 \u677e\u6c5f\u56fd\u9053\u4e8b\u52d9\u6240","boring_xml_url":46,"boring_view_url":1,"soilmap_view_url":null,"soiltest_xml_url":0,"soiltest_view_url":0},{"id":255203,"code":"B4KJ201802002-0683","latitude":"35.19575","longitude":"132.454194","source_code":"CG10873560020230001","project_name":"","survey_name":"\u9759\u9593\u30fb\u4ec1\u6469\u9053\u8def \u9759\u9593\u8de8\u7dda\u6a4b\u8a73\u7d30\u8a2d\u8a08\u696d\u52d9","client_name":"\u56fd\u571f\u4ea4\u901a\u7701\u4e2d\u56fd\u5730\u65b9\u5efa\u8a2d\u5c40 \u677e\u6c5f\u56fd\u9053\u4e8b\u52d9\u6240","boring_xml_url":46,"boring_view_url":1,"soilmap_view_url":null,"soiltest_xml_url":0,"soiltest_view_url":0},{"id":255202,"code":"B4KJ201802002-0682","latitude":"35.315278","longitude":"132.697056","source_code":"CG108735600200280005","project_name":"","survey_name":"\u51fa\u96f2\u30fb\u6e56\u9675\u9053\u8def\u77e5\u4e95\u5bae\u5730\u533a\u5916\u69cb\u9020\u7269\u8a2d\u8a08\u696d\u52d9","client_name":"\u56fd\u571f\u4ea4\u901a\u7701\u4e2d\u56fd\u5730\u65b9\u6574\u5099\u5c40\u677e\u6c5f\u56fd\u9053\u4e8b\u52d9\u6240","boring_xml_url":47,"boring_view_url":1,"soilmap_view_url":null,"soiltest_xml_url":47,"soiltest_view_url":46},{"id":255201,"code":"B4KJ201802002-0681","latitude":"35.32475","longitude":"132.713139","source_code":"CG108735600200280004","project_name":"","survey_name":"\u51fa\u96f2\u30fb\u6e56\u9675\u9053\u8def\u77e5\u4e95\u5bae\u5730\u533a\u5916\u69cb\u9020\u7269\u8a2d\u8a08\u696d\u52d9","client_name":"\u56fd\u571f\u4ea4\u901a\u7701\u4e2d\u56fd\u5730\u65b9\u6574\u5099\u5c40\u677e\u6c5f\u56fd\u9053\u4e8b\u52d9\u6240","boring_xml_url":47,"boring_view_url":1,"soilmap_view_url":null,"soiltest_xml_url":0,"soiltest_view_url":0},{"id":255200,"code":"B4KJ201802002-0680","latitude":"35.32425","longitude":"132.707583","source_code":"CG108735600200280003","project_name":"","survey_name":"\u51fa\u96f2\u30fb\u6e56\u9675\u9053\u8def\u77e5\u4e95\u5bae\u5730\u533a\u5916\u69cb\u9020\u7269\u8a2d\u8a08\u696d\u52d9","client_name":"\u56fd\u571f\u4ea4\u901a\u7701\u4e2d\u56fd\u5730\u65b9\u6574\u5099\u5c40\u677e\u6c5f\u56fd\u9053\u4e8b\u52d9\u6240","boring_xml_url":47,"boring_view_url":1,"soilmap_view_url":null,"soiltest_xml_url":47,"soiltest_view_url":46},{"id":255199,"code":"B4KJ201802002-0679","latitude":"35.325306","longitude":"132.714167","source_code":"CG108735600200280002","project_name":"","survey_name":"\u51fa\u96f2\u30fb\u6e56\u9675\u9053\u8def\u77e5\u4e95\u5bae\u5730\u533a\u5916\u69cb\u9020\u7269\u8a2d\u8a08\u696d\u52d9","client_name":"\u56fd\u571f\u4ea4\u901a\u7701\u4e2d\u56fd\u5730\u65b9\u6574\u5099\u5c40\u677e\u6c5f\u56fd\u9053\u4e8b\u52d9\u6240","boring_xml_url":47,"boring_view_url":1,"soilmap_view_url":null,"soiltest_xml_url":47,"soiltest_view_url":46},{"id":255198,"code":"B4KJ201802002-0678","latitude":"35.325583","longitude":"132.713611","source_code":"CG108735600200280001","project_name":"","survey_name":"\u51fa\u96f2\u30fb\u6e56\u9675\u9053\u8def\u77e5\u4e95\u5bae\u5730\u533a\u5916\u69cb\u9020\u7269\u8a2d\u8a08\u696d\u52d9","client_name":"\u56fd\u571f\u4ea4\u901a\u7701\u4e2d\u56fd\u5730\u65b9\u6574\u5099\u5c40\u677e\u6c5f\u56fd\u9053\u4e8b\u52d9\u6240","boring_xml_url":47,"boring_view_url":1,"soilmap_view_url":null,"soiltest_xml_url":47,"soiltest_view_url":46},{"id":255197,"code":"B4KJ201802002-0677","latitude":"35.508583","longitude":"133.907111","source_code":"CG118731530200090003","project_name":"","survey_name":"\u5009\u5409\u7ba1\u5185\u9053\u8def\u9632\u707d\u70b9\u691c\u5bfe\u7b56\u696d\u52d9","client_name":"\u56fd\u571f\u4ea4\u901a\u7701 \u4e2d\u56fd\u5730\u65b9\u6574\u5099\u5c40 \u5009\u5409\u6cb3\u5ddd\u56fd\u9053\u4e8b\u52d9\u6240","boring_xml_url":47,"boring_view_url":1,"soilmap_view_url":null,"soiltest_xml_url":0,"soiltest_view_url":0}]}}