{"header":{"xyz":{"source":[],"mosaic":false},"page":2517,"raw":{"soiltest_result":"0","bbox":"57.598333,109.544722,1.933333,163.806111","page":"2517"},"conditions":{"soiltest_result":0,"north":57.598333,"west":109.544722,"south":1.933333,"east":163.806111},"success":true,"message":""},"data":{"meta":{"total":212844,"page":2517,"pages":7095,"count":30},"values":[{"id":255046,"code":"B4KJ201802002-0526","latitude":"34.368806","longitude":"132.2975","source_code":"CG098753640200120006","project_name":"\u5e83\u5cf6\u897f\u90e8\u5c71\u7cfb\u539f\u5730\u533a\u7802\u9632\u5830\u5824\u4e88\u5099\u8a2d\u8a08\u696d\u52d9","survey_name":"\u5e83\u5cf6\u897f\u90e8\u5c71\u7cfb\u539f\u5730\u533a\u7802\u9632\u5830\u5824\u4e88\u5099\u8a2d\u8a08\u696d\u52d9","client_name":"\u56fd\u571f\u4ea4\u901a\u7701\u4e2d\u56fd\u5730\u65b9\u6574\u5099\u5c40\u5927\u7530\u5ddd\u6cb3\u5ddd\u4e8b\u52d9\u6240","boring_xml_url":47,"boring_view_url":1,"soilmap_view_url":null,"soiltest_xml_url":0,"soiltest_view_url":0},{"id":255045,"code":"B4KJ201802002-0525","latitude":"34.368778","longitude":"132.29725","source_code":"CG098753640200120005","project_name":"\u5e83\u5cf6\u897f\u90e8\u5c71\u7cfb\u539f\u5730\u533a\u7802\u9632\u5830\u5824\u4e88\u5099\u8a2d\u8a08\u696d\u52d9","survey_name":"\u5e83\u5cf6\u897f\u90e8\u5c71\u7cfb\u539f\u5730\u533a\u7802\u9632\u5830\u5824\u4e88\u5099\u8a2d\u8a08\u696d\u52d9","client_name":"\u56fd\u571f\u4ea4\u901a\u7701\u4e2d\u56fd\u5730\u65b9\u6574\u5099\u5c40\u5927\u7530\u5ddd\u6cb3\u5ddd\u4e8b\u52d9\u6240","boring_xml_url":47,"boring_view_url":1,"soilmap_view_url":null,"soiltest_xml_url":0,"soiltest_view_url":0},{"id":255044,"code":"B4KJ201802002-0524","latitude":"34.368306","longitude":"132.297389","source_code":"CG098753640200120004","project_name":"\u5e83\u5cf6\u897f\u90e8\u5c71\u7cfb\u539f\u5730\u533a\u7802\u9632\u5830\u5824\u4e88\u5099\u8a2d\u8a08\u696d\u52d9","survey_name":"\u5e83\u5cf6\u897f\u90e8\u5c71\u7cfb\u539f\u5730\u533a\u7802\u9632\u5830\u5824\u4e88\u5099\u8a2d\u8a08\u696d\u52d9","client_name":"\u56fd\u571f\u4ea4\u901a\u7701\u4e2d\u56fd\u5730\u65b9\u6574\u5099\u5c40\u5927\u7530\u5ddd\u6cb3\u5ddd\u4e8b\u52d9\u6240","boring_xml_url":47,"boring_view_url":1,"soilmap_view_url":null,"soiltest_xml_url":0,"soiltest_view_url":0},{"id":255043,"code":"B4KJ201802002-0523","latitude":"34.368528","longitude":"132.297361","source_code":"CG098753640200120003","project_name":"\u5e83\u5cf6\u897f\u90e8\u5c71\u7cfb\u539f\u5730\u533a\u7802\u9632\u5830\u5824\u4e88\u5099\u8a2d\u8a08\u696d\u52d9","survey_name":"\u5e83\u5cf6\u897f\u90e8\u5c71\u7cfb\u539f\u5730\u533a\u7802\u9632\u5830\u5824\u4e88\u5099\u8a2d\u8a08\u696d\u52d9","client_name":"\u56fd\u571f\u4ea4\u901a\u7701\u4e2d\u56fd\u5730\u65b9\u6574\u5099\u5c40\u5927\u7530\u5ddd\u6cb3\u5ddd\u4e8b\u52d9\u6240","boring_xml_url":47,"boring_view_url":1,"soilmap_view_url":null,"soiltest_xml_url":0,"soiltest_view_url":0},{"id":255042,"code":"B4KJ201802002-0522","latitude":"34.368778","longitude":"132.297333","source_code":"CG098753640200120002","project_name":"\u5e83\u5cf6\u897f\u90e8\u5c71\u7cfb\u539f\u5730\u533a\u7802\u9632\u5830\u5824\u4e88\u5099\u8a2d\u8a08\u696d\u52d9","survey_name":"\u5e83\u5cf6\u897f\u90e8\u5c71\u7cfb\u539f\u5730\u533a\u7802\u9632\u5830\u5824\u4e88\u5099\u8a2d\u8a08\u696d\u52d9","client_name":"\u56fd\u571f\u4ea4\u901a\u7701\u4e2d\u56fd\u5730\u65b9\u6574\u5099\u5c40\u592a\u7530\u5ddd\u6cb3\u5ddd\u4e8b\u52d9\u6240","boring_xml_url":47,"boring_view_url":1,"soilmap_view_url":null,"soiltest_xml_url":0,"soiltest_view_url":0},{"id":255041,"code":"B4KJ201802002-0521","latitude":"34.369","longitude":"132.297306","source_code":"CG098753640200120001","project_name":"\u5e83\u5cf6\u897f\u90e8\u5c71\u7cfb\u539f\u5730\u533a\u7802\u9632\u5830\u5824\u4e88\u5099\u8a2d\u8a08\u696d\u52d9","survey_name":"\u5e83\u5cf6\u897f\u90e8\u5c71\u7cfb\u539f\u5730\u533a\u7802\u9632\u5830\u5824\u4e88\u5099\u8a2d\u8a08\u696d\u52d9","client_name":"\u56fd\u571f\u4ea4\u901a\u7701\u4e2d\u56fd\u5730\u65b9\u6574\u5099\u5c40\u5927\u7530\u5ddd\u6cb3\u5ddd\u4e8b\u52d9\u6240","boring_xml_url":47,"boring_view_url":1,"soilmap_view_url":null,"soiltest_xml_url":0,"soiltest_view_url":0},{"id":255040,"code":"B4KJ201802002-0520","latitude":"35.514222","longitude":"133.206972","source_code":"CG108736400200190003","project_name":"(\u8b77\u5cb8\u8a2d\u8a08\u306e\u305f\u3081\u306e\u5730\u8cea\u8abf\u67fb)","survey_name":"\u4e2d\u6d77\u6e21\u5730\u533a\u8b77\u5cb8\u8a73\u7d30\u8a2d\u8a08\u696d\u52d9","client_name":"\u56fd\u571f\u4ea4\u901a\u7701 \u4e2d\u56fd\u5730\u65b9\u6574\u5099\u5c40 \u51fa\u96f2\u6cb3\u5ddd\u4e8b\u52d9\u6240","boring_xml_url":47,"boring_view_url":1,"soilmap_view_url":null,"soiltest_xml_url":47,"soiltest_view_url":46},{"id":255039,"code":"B4KJ201802002-0519","latitude":"35.513361","longitude":"133.207278","source_code":"CG108736400200190002","project_name":"(\u8b77\u5cb8\u8a2d\u8a08\u306e\u305f\u3081\u306e\u5730\u8cea\u8abf\u67fb)","survey_name":"\u4e2d\u6d77\u6e21\u5730\u533a\u8b77\u5cb8\u8a73\u7d30\u8a2d\u8a08\u696d\u52d9","client_name":"\u56fd\u571f\u4ea4\u901a\u7701 \u4e2d\u56fd\u5730\u65b9\u6574\u5099\u5c40 \u51fa\u96f2\u6cb3\u5ddd\u4e8b\u52d9\u6240","boring_xml_url":47,"boring_view_url":1,"soilmap_view_url":null,"soiltest_xml_url":47,"soiltest_view_url":46},{"id":255038,"code":"B4KJ201802002-0518","latitude":"35.5145","longitude":"133.206583","source_code":"CG108736400200190001","project_name":"(\u8b77\u5cb8\u8a2d\u8a08\u306e\u305f\u3081\u306e\u5730\u8cea\u8abf\u67fb)","survey_name":"\u4e2d\u6d77\u6e21\u5730\u533a\u8b77\u5cb8\u8a73\u7d30\u8a2d\u8a08\u696d\u52d9","client_name":"\u56fd\u571f\u4ea4\u901a\u7701 \u4e2d\u56fd\u5730\u65b9\u6574\u5099\u5c40 \u51fa\u96f2\u6cb3\u5ddd\u4e8b\u52d9\u6240","boring_xml_url":47,"boring_view_url":1,"soilmap_view_url":null,"soiltest_xml_url":47,"soiltest_view_url":46},{"id":255037,"code":"B4KJ201802002-0517","latitude":"35.519639","longitude":"133.138833","source_code":"CG108736400200170002","project_name":"","survey_name":"\u5e73\u621022\u5e74\u5ea6 \u4e2d\u6d77\u91ce\u539f\u5730\u533a\u8b77\u5cb8\u8a73\u7d30\u8a2d\u8a08\u5916\u696d\u52d9","client_name":"\u56fd\u571f\u4ea4\u901a\u7701 \u4e2d\u56fd\u5730\u65b9\u6574\u5099\u5c40 \u51fa\u96f2\u6cb3\u5ddd\u4e8b\u52d9\u6240","boring_xml_url":47,"boring_view_url":1,"soilmap_view_url":null,"soiltest_xml_url":0,"soiltest_view_url":0},{"id":255036,"code":"B4KJ201802002-0516","latitude":"35.520222","longitude":"133.142917","source_code":"CG108736400200170001","project_name":"","survey_name":"\u5e73\u621022\u5e74\u5ea6 \u4e2d\u6d77\u91ce\u539f\u5730\u533a\u8b77\u5cb8\u8a73\u7d30\u8a2d\u8a08\u5916\u696d\u52d9","client_name":"\u56fd\u571f\u4ea4\u901a\u7701 \u4e2d\u56fd\u5730\u65b9\u6574\u5099\u5c40 \u51fa\u96f2\u6cb3\u5ddd\u4e8b\u52d9\u6240","boring_xml_url":47,"boring_view_url":1,"soilmap_view_url":null,"soiltest_xml_url":47,"soiltest_view_url":46},{"id":255035,"code":"B4KJ201802002-0515","latitude":"34.389167","longitude":"131.325278","source_code":"CG108760400200190002","project_name":"\u4e0b\u95a2\u5730\u533a\u8a2d\u8a08\u5916\u696d\u52d9","survey_name":"\u4e0b\u95a2\u5730\u533a\u8a2d\u8a08\u5916\u696d\u52d9(\u8429\u30fb\u4e09\u9685\u9053\u8def\u660e\u77f3\u5730\u533a\u5730\u8cea\u8abf\u67fb)","client_name":"\u56fd\u571f\u4ea4\u901a\u7701\u4e2d\u56fd\u5730\u65b9\u6574\u5099\u5c40\u5c71\u53e3\u6cb3\u5ddd\u56fd\u9053\u4e8b\u52d9\u6240","boring_xml_url":47,"boring_view_url":1,"soilmap_view_url":null,"soiltest_xml_url":0,"soiltest_view_url":0},{"id":255034,"code":"B4KJ201802002-0514","latitude":"34.389444","longitude":"131.325556","source_code":"CG108760400200190001","project_name":"\u4e0b\u95a2\u5730\u533a\u8a2d\u8a08\u5916\u696d\u52d9","survey_name":"\u4e0b\u95a2\u5730\u533a\u8a2d\u8a08\u5916\u696d\u52d9(\u8429\u30fb\u4e09\u9685\u9053\u8def\u660e\u77f3\u5730\u533a\u5730\u8cea\u8abf\u67fb)","client_name":"\u56fd\u571f\u4ea4\u901a\u7701\u4e2d\u56fd\u5730\u65b9\u6574\u5099\u5c40\u5c71\u53e3\u6cb3\u5ddd\u56fd\u9053\u4e8b\u52d9\u6240","boring_xml_url":47,"boring_view_url":1,"soilmap_view_url":null,"soiltest_xml_url":0,"soiltest_view_url":0},{"id":255033,"code":"B4KJ201802002-0513","latitude":"35.347389","longitude":"132.802694","source_code":"CG108736400200300005","project_name":"","survey_name":"\u6590\u4f0a\u5ddd\u4eca\u5728\u5bb6\u5916\u5730\u8cea\u8abf\u67fb\u696d\u52d9","client_name":"\u56fd\u571f\u4ea4\u901a\u7701 \u4e2d\u56fd\u5730\u65b9\u6574\u5099\u5c40 \u51fa\u96f2\u6cb3\u5ddd\u4e8b\u52d9\u6240","boring_xml_url":47,"boring_view_url":1,"soilmap_view_url":null,"soiltest_xml_url":47,"soiltest_view_url":46},{"id":255032,"code":"B4KJ201802002-0512","latitude":"35.34725","longitude":"132.802722","source_code":"CG108736400200300004","project_name":"","survey_name":"\u6590\u4f0a\u5ddd\u4eca\u5728\u5bb6\u5916\u5730\u8cea\u8abf\u67fb\u696d\u52d9","client_name":"\u56fd\u571f\u4ea4\u901a\u7701 \u4e2d\u56fd\u5730\u65b9\u6574\u5099\u5c40 \u51fa\u96f2\u6cb3\u5ddd\u4e8b\u52d9\u6240","boring_xml_url":47,"boring_view_url":1,"soilmap_view_url":null,"soiltest_xml_url":47,"soiltest_view_url":46},{"id":255031,"code":"B4KJ201802002-0511","latitude":"35.347167","longitude":"132.802722","source_code":"CG108736400200300003","project_name":"","survey_name":"\u6590\u4f0a\u5ddd\u4eca\u5728\u5bb6\u5916\u5730\u8cea\u8abf\u67fb\u696d\u52d9","client_name":"\u56fd\u571f\u4ea4\u901a\u7701 \u4e2d\u56fd\u5730\u65b9\u6574\u5099\u5c40 \u51fa\u96f2\u6cb3\u5ddd\u4e8b\u52d9\u6240","boring_xml_url":47,"boring_view_url":1,"soilmap_view_url":null,"soiltest_xml_url":47,"soiltest_view_url":46},{"id":255030,"code":"B4KJ201802002-0510","latitude":"35.380972","longitude":"132.784917","source_code":"CG108736400200300002","project_name":"","survey_name":"\u6590\u4f0a\u5ddd\u4eca\u5728\u5bb6\u5916\u5730\u8cea\u8abf\u67fb\u696d\u52d9","client_name":"\u56fd\u571f\u4ea4\u901a\u7701 \u4e2d\u56fd\u5730\u65b9\u6574\u5099\u5c40 \u51fa\u96f2\u6cb3\u5ddd\u4e8b\u52d9\u6240","boring_xml_url":47,"boring_view_url":1,"soilmap_view_url":null,"soiltest_xml_url":47,"soiltest_view_url":46},{"id":255029,"code":"B4KJ201802002-0509","latitude":"35.413306","longitude":"132.811722","source_code":"CG108736400200300001","project_name":"","survey_name":"\u6590\u4f0a\u5ddd\u4eca\u5728\u5bb6\u5916\u5730\u8cea\u8abf\u67fb\u696d\u52d9","client_name":"\u56fd\u571f\u4ea4\u901a\u7701 \u4e2d\u56fd\u5730\u65b9\u6574\u5099\u5c40 \u51fa\u96f2\u6cb3\u5ddd\u4e8b\u52d9\u6240","boring_xml_url":47,"boring_view_url":1,"soilmap_view_url":null,"soiltest_xml_url":47,"soiltest_view_url":46},{"id":255028,"code":"B4KJ201802002-0508","latitude":"34.054252","longitude":"131.057384","source_code":"CG108760600200090023","project_name":"","survey_name":"\u5c71\u53e3\u7ba1\u5185\u6539\u7bc9\u7cfb\u5730\u8cea\u8abf\u67fb\u696d\u52d9","client_name":"\u56fd\u571f\u4ea4\u901a\u7701\u4e2d\u56fd\u5730\u65b9\u6574\u5099\u5c40\u5c71\u53e3\u6cb3\u5ddd\u56fd\u9053\u4e8b\u52d9\u6240","boring_xml_url":47,"boring_view_url":1,"soilmap_view_url":null,"soiltest_xml_url":47,"soiltest_view_url":46},{"id":255027,"code":"B4KJ201802002-0507","latitude":"34.05403","longitude":"131.057606","source_code":"CG108760600200090022","project_name":"","survey_name":"\u5c71\u53e3\u7ba1\u5185\u6539\u7bc9\u7cfb\u5730\u8cea\u8abf\u67fb\u696d\u52d9","client_name":"\u56fd\u571f\u4ea4\u901a\u7701\u4e2d\u56fd\u5730\u65b9\u6574\u5099\u5c40\u5c71\u53e3\u6cb3\u5ddd\u56fd\u9053\u4e8b\u52d9\u6240","boring_xml_url":47,"boring_view_url":1,"soilmap_view_url":null,"soiltest_xml_url":47,"soiltest_view_url":46},{"id":255026,"code":"B4KJ201802002-0506","latitude":"34.053364","longitude":"131.058272","source_code":"CG108760600200090021","project_name":"","survey_name":"\u5c71\u53e3\u7ba1\u5185\u6539\u7bc9\u7cfb\u5730\u8cea\u8abf\u67fb\u696d\u52d9","client_name":"\u56fd\u571f\u4ea4\u901a\u7701\u4e2d\u56fd\u5730\u65b9\u6574\u5099\u5c40\u5c71\u53e3\u6cb3\u5ddd\u56fd\u9053\u4e8b\u52d9\u6240","boring_xml_url":47,"boring_view_url":1,"soilmap_view_url":null,"soiltest_xml_url":47,"soiltest_view_url":46},{"id":255025,"code":"B4KJ201802002-0505","latitude":"34.054141","longitude":"131.057495","source_code":"CG108760600200090020","project_name":"","survey_name":"\u5c71\u53e3\u7ba1\u5185\u6539\u7bc9\u7cfb\u5730\u8cea\u8abf\u67fb\u696d\u52d9","client_name":"\u56fd\u571f\u4ea4\u901a\u7701\u4e2d\u56fd\u5730\u65b9\u6574\u5099\u5c40\u5c71\u53e3\u6cb3\u5ddd\u56fd\u9053\u4e8b\u52d9\u6240","boring_xml_url":47,"boring_view_url":1,"soilmap_view_url":null,"soiltest_xml_url":47,"soiltest_view_url":46},{"id":255024,"code":"B4KJ201802002-0504","latitude":"34.053475","longitude":"131.058161","source_code":"CG108760600200090019","project_name":"","survey_name":"\u5c71\u53e3\u7ba1\u5185\u6539\u7bc9\u7cfb\u5730\u8cea\u8abf\u67fb\u696d\u52d9","client_name":"\u56fd\u571f\u4ea4\u901a\u7701\u4e2d\u56fd\u5730\u65b9\u6574\u5099\u5c40\u5c71\u53e3\u6cb3\u5ddd\u56fd\u9053\u4e8b\u52d9\u6240","boring_xml_url":47,"boring_view_url":1,"soilmap_view_url":null,"soiltest_xml_url":47,"soiltest_view_url":46},{"id":255023,"code":"B4KJ201802002-0503","latitude":"34.054363","longitude":"131.057245","source_code":"CG108760600200090018","project_name":"","survey_name":"\u5c71\u53e3\u7ba1\u5185\u6539\u7bc9\u7cfb\u5730\u8cea\u8abf\u67fb\u696d\u52d9","client_name":"\u56fd\u571f\u4ea4\u901a\u7701\u4e2d\u56fd\u5730\u65b9\u6574\u5099\u5c40\u5c71\u53e3\u6cb3\u5ddd\u56fd\u9053\u4e8b\u52d9\u6240","boring_xml_url":47,"boring_view_url":1,"soilmap_view_url":null,"soiltest_xml_url":47,"soiltest_view_url":46},{"id":255022,"code":"B4KJ201802002-0502","latitude":"34.053808","longitude":"131.057828","source_code":"CG108760600200090017","project_name":"","survey_name":"\u5c71\u53e3\u7ba1\u5185\u6539\u7bc9\u7cfb\u5730\u8cea\u8abf\u67fb\u696d\u52d9","client_name":"\u56fd\u571f\u4ea4\u901a\u7701\u4e2d\u56fd\u5730\u65b9\u6574\u5099\u5c40\u5c71\u53e3\u6cb3\u5ddd\u56fd\u9053\u4e8b\u52d9\u6240","boring_xml_url":47,"boring_view_url":1,"soilmap_view_url":null,"soiltest_xml_url":47,"soiltest_view_url":46},{"id":255021,"code":"B4KJ201802002-0501","latitude":"34.053586","longitude":"131.05805","source_code":"CG108760600200090016","project_name":"","survey_name":"\u5c71\u53e3\u7ba1\u5185\u6539\u7bc9\u7cfb\u5730\u8cea\u8abf\u67fb\u696d\u52d9","client_name":"\u56fd\u571f\u4ea4\u901a\u7701\u4e2d\u56fd\u5730\u65b9\u6574\u5099\u5c40\u5c71\u53e3\u6cb3\u5ddd\u56fd\u9053\u4e8b\u52d9\u6240","boring_xml_url":47,"boring_view_url":1,"soilmap_view_url":null,"soiltest_xml_url":47,"soiltest_view_url":46},{"id":255020,"code":"B4KJ201802002-0500","latitude":"34.054891","longitude":"131.056634","source_code":"CG108760600200090015","project_name":"","survey_name":"\u5c71\u53e3\u7ba1\u5185\u6539\u7bc9\u7cfb\u5730\u8cea\u8abf\u67fb\u696d\u52d9","client_name":"\u56fd\u571f\u4ea4\u901a\u7701\u4e2d\u56fd\u5730\u65b9\u6574\u5099\u5c40\u5c71\u53e3\u6cb3\u5ddd\u56fd\u9053\u4e8b\u52d9\u6240","boring_xml_url":47,"boring_view_url":1,"soilmap_view_url":null,"soiltest_xml_url":47,"soiltest_view_url":46},{"id":255019,"code":"B4KJ201802002-0499","latitude":"34.054586","longitude":"131.057023","source_code":"CG108760600200090014","project_name":"","survey_name":"\u5c71\u53e3\u7ba1\u5185\u6539\u7bc9\u7cfb\u5730\u8cea\u8abf\u67fb\u696d\u52d9","client_name":"\u56fd\u571f\u4ea4\u901a\u7701\u4e2d\u56fd\u5730\u65b9\u6574\u5099\u5c40\u5c71\u53e3\u6cb3\u5ddd\u56fd\u9053\u4e8b\u52d9\u6240","boring_xml_url":47,"boring_view_url":1,"soilmap_view_url":null,"soiltest_xml_url":47,"soiltest_view_url":46},{"id":255018,"code":"B4KJ201802002-0498","latitude":"34.055002","longitude":"131.056522","source_code":"CG108760600200090013","project_name":"","survey_name":"\u5c71\u53e3\u7ba1\u5185\u6539\u7bc9\u7cfb\u5730\u8cea\u8abf\u67fb\u696d\u52d9","client_name":"\u56fd\u571f\u4ea4\u901a\u7701\u4e2d\u56fd\u5730\u65b9\u6574\u5099\u5c40\u5c71\u53e3\u6cb3\u5ddd\u56fd\u9053\u4e8b\u52d9\u6240","boring_xml_url":47,"boring_view_url":1,"soilmap_view_url":null,"soiltest_xml_url":47,"soiltest_view_url":46},{"id":255017,"code":"B4KJ201802002-0497","latitude":"34.05478","longitude":"131.056773","source_code":"CG108760600200090012","project_name":"","survey_name":"\u5c71\u53e3\u7ba1\u5185\u6539\u7bc9\u7cfb\u5730\u8cea\u8abf\u67fb\u696d\u52d9","client_name":"\u56fd\u571f\u4ea4\u901a\u7701\u4e2d\u56fd\u5730\u65b9\u6574\u5099\u5c40\u5c71\u53e3\u6cb3\u5ddd\u56fd\u9053\u4e8b\u52d9\u6240","boring_xml_url":47,"boring_view_url":1,"soilmap_view_url":null,"soiltest_xml_url":47,"soiltest_view_url":46}]}}