{"header":{"xyz":{"source":[],"mosaic":false},"page":2543,"raw":{"soiltest_result":"0","bbox":"57.598333,109.544722,1.933333,163.806111","page":"2543"},"conditions":{"soiltest_result":0,"north":57.598333,"west":109.544722,"south":1.933333,"east":163.806111},"success":true,"message":""},"data":{"meta":{"total":212844,"page":2543,"pages":7095,"count":30},"values":[{"id":254266,"code":"B4KJ201802001-9746","latitude":"34.389111","longitude":"131.399278","source_code":"CG098760600200100007","project_name":"","survey_name":"\u5c71\u53e3\u7ba1\u5185\u5730\u8cea\u8abf\u67fb\u696d\u52d9","client_name":"\u56fd\u571f\u4ea4\u901a\u7701\u4e2d\u56fd\u5730\u65b9\u6574\u5099\u5c40\u5c71\u53e3\u6cb3\u5ddd\u56fd\u9053\u4e8b\u52d9\u6240","boring_xml_url":47,"boring_view_url":1,"soilmap_view_url":null,"soiltest_xml_url":0,"soiltest_view_url":0},{"id":254265,"code":"B4KJ201802001-9745","latitude":"34.3885","longitude":"131.402306","source_code":"CG098760600200100006","project_name":"","survey_name":"\u5c71\u53e3\u7ba1\u5185\u5730\u8cea\u8abf\u67fb\u696d\u52d9","client_name":"\u56fd\u571f\u4ea4\u901a\u7701\u4e2d\u56fd\u5730\u65b9\u6574\u5099\u5c40\u5c71\u53e3\u6cb3\u5ddd\u56fd\u9053\u4e8b\u52d9\u6240","boring_xml_url":47,"boring_view_url":1,"soilmap_view_url":null,"soiltest_xml_url":50,"soiltest_view_url":49},{"id":254264,"code":"B4KJ201802001-9744","latitude":"34.388944","longitude":"131.403694","source_code":"CG098760600200100005","project_name":"","survey_name":"\u5c71\u53e3\u7ba1\u5185\u5730\u8cea\u8abf\u67fb\u696d\u52d9","client_name":"\u56fd\u571f\u4ea4\u901a\u7701\u4e2d\u56fd\u5730\u65b9\u6574\u5099\u5c40\u5c71\u53e3\u6cb3\u5ddd\u56fd\u9053\u4e8b\u52d9\u6240","boring_xml_url":47,"boring_view_url":1,"soilmap_view_url":null,"soiltest_xml_url":50,"soiltest_view_url":49},{"id":254263,"code":"B4KJ201802001-9743","latitude":"34.388139","longitude":"131.4035","source_code":"CG098760600200100004","project_name":"","survey_name":"\u5c71\u53e3\u7ba1\u5185\u5730\u8cea\u8abf\u67fb\u696d\u52d9","client_name":"\u56fd\u571f\u4ea4\u901a\u7701\u4e2d\u56fd\u5730\u65b9\u6574\u5099\u5c40\u5c71\u53e3\u6cb3\u5ddd\u56fd\u9053\u4e8b\u52d9\u6240","boring_xml_url":47,"boring_view_url":1,"soilmap_view_url":null,"soiltest_xml_url":50,"soiltest_view_url":49},{"id":254262,"code":"B4KJ201802001-9742","latitude":"34.38825","longitude":"131.403","source_code":"CG098760600200100003","project_name":"","survey_name":"\u5c71\u53e3\u7ba1\u5185\u5730\u8cea\u8abf\u67fb\u696d\u52d9","client_name":"\u56fd\u571f\u4ea4\u901a\u7701\u4e2d\u56fd\u5730\u65b9\u6574\u5099\u5c40\u5c71\u53e3\u6cb3\u5ddd\u56fd\u9053\u4e8b\u52d9\u6240","boring_xml_url":47,"boring_view_url":1,"soilmap_view_url":null,"soiltest_xml_url":50,"soiltest_view_url":49},{"id":254261,"code":"B4KJ201802001-9741","latitude":"34.389028","longitude":"131.398694","source_code":"CG098760600200100002","project_name":"","survey_name":"\u5c71\u53e3\u7ba1\u5185\u5730\u8cea\u8abf\u67fb\u696d\u52d9","client_name":"\u56fd\u571f\u4ea4\u901a\u7701\u4e2d\u56fd\u5730\u65b9\u6574\u5099\u5c40\u5c71\u53e3\u6cb3\u5ddd\u56fd\u9053\u4e8b\u52d9\u6240","boring_xml_url":47,"boring_view_url":1,"soilmap_view_url":null,"soiltest_xml_url":0,"soiltest_view_url":0},{"id":254260,"code":"B4KJ201802001-9740","latitude":"34.389611","longitude":"131.358694","source_code":"CG098760600200100001","project_name":"","survey_name":"\u5c71\u53e3\u7ba1\u5185\u5730\u8cea\u8abf\u67fb\u696d\u52d9","client_name":"\u56fd\u571f\u4ea4\u901a\u7701\u4e2d\u56fd\u5730\u65b9\u6574\u5099\u5c40\u5c71\u53e3\u6cb3\u5ddd\u56fd\u9053\u4e8b\u52d9\u6240","boring_xml_url":47,"boring_view_url":1,"soilmap_view_url":null,"soiltest_xml_url":0,"soiltest_view_url":0},{"id":254259,"code":"B4KJ201802001-9739","latitude":"34.378667","longitude":"132.473333","source_code":"CG098755550200060001","project_name":"","survey_name":"\u5e83\u5cf6\u30fb\u53ef\u90e8\u4ea4\u901a\u5b89\u5168\u8a2d\u8a08\u696d\u52d9","client_name":"\u56fd\u571f\u4ea4\u901a\u7701 \u4e2d\u56fd\u5730\u65b9\u6574\u5099\u5c40 \u5e83\u5cf6\u56fd\u9053\u4e8b\u52d9\u6240","boring_xml_url":47,"boring_view_url":1,"soilmap_view_url":null,"soiltest_xml_url":50,"soiltest_view_url":49},{"id":254258,"code":"B4KJ201802001-9738","latitude":"34.359417","longitude":"132.731222","source_code":"CG098755400200270005","project_name":"","survey_name":"\u6771\u5e83\u5cf6\u30fb\u5449\u9053\u8def\u99ac\u6728\u5730\u533a\u6cd5\u9762\u5b89\u5b9a\u5bfe\u7b56\u691c\u8a0e\u696d\u52d9","client_name":"\u56fd\u571f\u4ea4\u901a\u7701 \u4e2d\u56fd\u5730\u65b9\u6574\u5099\u5c40 \u5e83\u5cf6\u56fd\u9053\u4e8b\u52d9\u6240","boring_xml_url":47,"boring_view_url":1,"soilmap_view_url":null,"soiltest_xml_url":0,"soiltest_view_url":0},{"id":254257,"code":"B4KJ201802001-9737","latitude":"34.358417","longitude":"132.730056","source_code":"CG098755400200270004","project_name":"","survey_name":"\u6771\u5e83\u5cf6\u30fb\u5449\u9053\u8def\u99ac\u6728\u5730\u533a\u6cd5\u9762\u5b89\u5b9a\u5bfe\u7b56\u691c\u8a0e\u696d\u52d9","client_name":"\u56fd\u571f\u4ea4\u901a\u7701 \u4e2d\u56fd\u5730\u65b9\u6574\u5099\u5c40 \u5e83\u5cf6\u56fd\u9053\u4e8b\u52d9\u6240","boring_xml_url":47,"boring_view_url":1,"soilmap_view_url":null,"soiltest_xml_url":0,"soiltest_view_url":0},{"id":254256,"code":"B4KJ201802001-9736","latitude":"34.357722","longitude":"132.729556","source_code":"CG098755400200270003","project_name":"","survey_name":"\u6771\u5e83\u5cf6\u30fb\u5449\u9053\u8def\u99ac\u6728\u5730\u533a\u6cd5\u9762\u5b89\u5b9a\u5bfe\u7b56\u691c\u8a0e\u696d\u52d9","client_name":"\u56fd\u571f\u4ea4\u901a\u7701 \u4e2d\u56fd\u5730\u65b9\u6574\u5099\u5c40 \u5e83\u5cf6\u56fd\u9053\u4e8b\u52d9\u6240","boring_xml_url":47,"boring_view_url":1,"soilmap_view_url":null,"soiltest_xml_url":0,"soiltest_view_url":0},{"id":254255,"code":"B4KJ201802001-9735","latitude":"34.35825","longitude":"132.729417","source_code":"CG098755400200270002","project_name":"","survey_name":"\u6771\u5e83\u5cf6\u30fb\u5449\u9053\u8def\u99ac\u6728\u5730\u533a\u6cd5\u9762\u5b89\u5b9a\u5bfe\u7b56\u691c\u8a0e\u696d\u52d9","client_name":"\u56fd\u571f\u4ea4\u901a\u7701 \u4e2d\u56fd\u5730\u65b9\u6574\u5099\u5c40 \u5e83\u5cf6\u56fd\u9053\u4e8b\u52d9\u6240","boring_xml_url":47,"boring_view_url":1,"soilmap_view_url":null,"soiltest_xml_url":0,"soiltest_view_url":0},{"id":254254,"code":"B4KJ201802001-9734","latitude":"34.358528","longitude":"132.729611","source_code":"CG098755400200270001","project_name":"","survey_name":"\u6771\u5e83\u5cf6\u30fb\u5449\u9053\u8def\u99ac\u6728\u5730\u533a\u6cd5\u9762\u5b89\u5b9a\u5bfe\u7b56\u691c\u8a0e\u696d\u52d9","client_name":"\u56fd\u571f\u4ea4\u901a\u7701 \u4e2d\u56fd\u5730\u65b9\u6574\u5099\u5c40 \u5e83\u5cf6\u56fd\u9053\u4e8b\u52d9\u6240","boring_xml_url":47,"boring_view_url":1,"soilmap_view_url":null,"soiltest_xml_url":0,"soiltest_view_url":0},{"id":254253,"code":"B4KJ201802001-9733","latitude":"34.575389","longitude":"132.231222","source_code":"CG088753610200210017","project_name":"","survey_name":"\u4e09\u7be0\u5ddd\u5916\u5824\u9632\u8a73\u7d30\u70b9\u691c\u696d\u52d9","client_name":"\u56fd\u571f\u4ea4\u901a\u7701\u4e2d\u56fd\u5730\u65b9\u6574\u5099\u5c40\u592a\u7530\u5ddd\u6cb3\u5ddd\u4e8b\u52d9\u6240","boring_xml_url":47,"boring_view_url":1,"soilmap_view_url":null,"soiltest_xml_url":50,"soiltest_view_url":49},{"id":254252,"code":"B4KJ201802001-9732","latitude":"34.573111","longitude":"132.267472","source_code":"CG088753610200210016","project_name":"","survey_name":"\u4e09\u7be0\u5ddd\u5916\u5824\u9632\u8a73\u7d30\u70b9\u691c\u696d\u52d9","client_name":"\u56fd\u571f\u4ea4\u901a\u7701\u4e2d\u56fd\u5730\u65b9\u6574\u5099\u5c40\u592a\u7530\u5ddd\u6cb3\u5ddd\u4e8b\u52d9\u6240","boring_xml_url":47,"boring_view_url":1,"soilmap_view_url":null,"soiltest_xml_url":50,"soiltest_view_url":49},{"id":254251,"code":"B4KJ201802001-9731","latitude":"34.58175","longitude":"132.281889","source_code":"CG088753610200210015","project_name":"","survey_name":"\u4e09\u7be0\u5ddd\u5916\u5824\u9632\u8a73\u7d30\u70b9\u691c\u696d\u52d9","client_name":"\u56fd\u571f\u4ea4\u901a\u7701\u4e2d\u56fd\u5730\u65b9\u6574\u5099\u5c40\u592a\u7530\u5ddd\u6cb3\u5ddd\u4e8b\u52d9\u6240","boring_xml_url":47,"boring_view_url":1,"soilmap_view_url":null,"soiltest_xml_url":50,"soiltest_view_url":49},{"id":254250,"code":"B4KJ201802001-9730","latitude":"34.570306","longitude":"132.319167","source_code":"CG088753610200210014","project_name":"","survey_name":"\u4e09\u7be0\u5ddd\u5916\u5824\u9632\u8a73\u7d30\u70b9\u691c\u696d\u52d9","client_name":"\u56fd\u571f\u4ea4\u901a\u7701\u4e2d\u56fd\u5730\u65b9\u6574\u5099\u5c40\u592a\u7530\u5ddd\u6cb3\u5ddd\u4e8b\u52d9\u6240","boring_xml_url":47,"boring_view_url":1,"soilmap_view_url":null,"soiltest_xml_url":50,"soiltest_view_url":49},{"id":254249,"code":"B4KJ201802001-9729","latitude":"34.552083","longitude":"132.354889","source_code":"CG088753610200210013","project_name":"","survey_name":"\u4e09\u7be0\u5ddd\u5916\u5824\u9632\u8a73\u7d30\u70b9\u691c\u696d\u52d9","client_name":"\u56fd\u571f\u4ea4\u901a\u7701\u4e2d\u56fd\u5730\u65b9\u6574\u5099\u5c40\u592a\u7530\u5ddd\u6cb3\u5ddd\u4e8b\u52d9\u6240","boring_xml_url":47,"boring_view_url":1,"soilmap_view_url":null,"soiltest_xml_url":50,"soiltest_view_url":49},{"id":254248,"code":"B4KJ201802001-9728","latitude":"34.552139","longitude":"132.354917","source_code":"CG088753610200210012","project_name":"","survey_name":"\u4e09\u7be0\u5ddd\u5916\u5824\u9632\u8a73\u7d30\u70b9\u691c\u696d\u52d9","client_name":"\u56fd\u571f\u4ea4\u901a\u7701\u4e2d\u56fd\u5730\u65b9\u6574\u5099\u5c40\u592a\u7530\u5ddd\u6cb3\u5ddd\u4e8b\u52d9\u6240","boring_xml_url":47,"boring_view_url":1,"soilmap_view_url":null,"soiltest_xml_url":50,"soiltest_view_url":49},{"id":254247,"code":"B4KJ201802001-9727","latitude":"34.552139","longitude":"132.354889","source_code":"CG088753610200210011","project_name":"","survey_name":"\u4e09\u7be0\u5ddd\u5916\u5824\u9632\u8a73\u7d30\u70b9\u691c\u696d\u52d9","client_name":"\u56fd\u571f\u4ea4\u901a\u7701\u4e2d\u56fd\u5730\u65b9\u6574\u5099\u5c40\u592a\u7530\u5ddd\u6cb3\u5ddd\u4e8b\u52d9\u6240","boring_xml_url":47,"boring_view_url":1,"soilmap_view_url":null,"soiltest_xml_url":50,"soiltest_view_url":49},{"id":254246,"code":"B4KJ201802001-9726","latitude":"34.554806","longitude":"132.373556","source_code":"CG088753610200210010","project_name":"","survey_name":"\u4e09\u7be0\u5ddd\u5916\u5824\u9632\u8a73\u7d30\u70b9\u691c\u696d\u52d9","client_name":"\u56fd\u571f\u4ea4\u901a\u7701\u4e2d\u56fd\u5730\u65b9\u6574\u5099\u5c40\u592a\u7530\u5ddd\u6cb3\u5ddd\u4e8b\u52d9\u6240","boring_xml_url":47,"boring_view_url":1,"soilmap_view_url":null,"soiltest_xml_url":50,"soiltest_view_url":49},{"id":254245,"code":"B4KJ201802001-9725","latitude":"34.489722","longitude":"132.578278","source_code":"CG088753610200210009","project_name":"","survey_name":"\u4e09\u7be0\u5ddd\u5916\u5824\u9632\u8a73\u7d30\u70b9\u691c\u696d\u52d9","client_name":"\u56fd\u571f\u4ea4\u901a\u7701\u4e2d\u56fd\u5730\u65b9\u6574\u5099\u5c40\u592a\u7530\u5ddd\u6cb3\u5ddd\u4e8b\u52d9\u6240","boring_xml_url":47,"boring_view_url":1,"soilmap_view_url":null,"soiltest_xml_url":50,"soiltest_view_url":49},{"id":254244,"code":"B4KJ201802001-9724","latitude":"34.489722","longitude":"132.578167","source_code":"CG088753610200210008","project_name":"","survey_name":"\u4e09\u7be0\u5ddd\u5916\u5824\u9632\u8a73\u7d30\u70b9\u691c\u696d\u52d9","client_name":"\u56fd\u571f\u4ea4\u901a\u7701\u4e2d\u56fd\u5730\u65b9\u6574\u5099\u5c40\u592a\u7530\u5ddd\u6cb3\u5ddd\u4e8b\u52d9\u6240","boring_xml_url":47,"boring_view_url":1,"soilmap_view_url":null,"soiltest_xml_url":50,"soiltest_view_url":49},{"id":254243,"code":"B4KJ201802001-9723","latitude":"34.489722","longitude":"132.578194","source_code":"CG088753610200210007","project_name":"","survey_name":"\u4e09\u7be0\u5ddd\u5916\u5824\u9632\u8a73\u7d30\u70b9\u691c\u696d\u52d9","client_name":"\u56fd\u571f\u4ea4\u901a\u7701\u4e2d\u56fd\u5730\u65b9\u6574\u5099\u5c40\u592a\u7530\u5ddd\u6cb3\u5ddd\u4e8b\u52d9\u6240","boring_xml_url":47,"boring_view_url":1,"soilmap_view_url":null,"soiltest_xml_url":50,"soiltest_view_url":49},{"id":254242,"code":"B4KJ201802001-9722","latitude":"34.486806","longitude":"132.577833","source_code":"CG088753610200210006","project_name":"","survey_name":"\u4e09\u7be0\u5ddd\u5916\u5824\u9632\u8a73\u7d30\u70b9\u691c\u696d\u52d9","client_name":"\u56fd\u571f\u4ea4\u901a\u7701\u4e2d\u56fd\u5730\u65b9\u6574\u5099\u5c40\u592a\u7530\u5ddd\u6cb3\u5ddd\u4e8b\u52d9\u6240","boring_xml_url":47,"boring_view_url":1,"soilmap_view_url":null,"soiltest_xml_url":50,"soiltest_view_url":49},{"id":254241,"code":"B4KJ201802001-9721","latitude":"34.48675","longitude":"132.577917","source_code":"CG088753610200210005","project_name":"","survey_name":"\u4e09\u7be0\u5ddd\u5916\u5824\u9632\u8a73\u7d30\u70b9\u691c\u696d\u52d9","client_name":"\u56fd\u571f\u4ea4\u901a\u7701\u4e2d\u56fd\u5730\u65b9\u6574\u5099\u5c40\u592a\u7530\u5ddd\u6cb3\u5ddd\u4e8b\u52d9\u6240","boring_xml_url":47,"boring_view_url":1,"soilmap_view_url":null,"soiltest_xml_url":50,"soiltest_view_url":49},{"id":254240,"code":"B4KJ201802001-9720","latitude":"34.486778","longitude":"132.577889","source_code":"CG088753610200210004","project_name":"","survey_name":"\u4e09\u7be0\u5ddd\u5916\u5824\u9632\u8a73\u7d30\u70b9\u691c\u696d\u52d9","client_name":"\u56fd\u571f\u4ea4\u901a\u7701\u4e2d\u56fd\u5730\u65b9\u6574\u5099\u5c40\u592a\u7530\u5ddd\u6cb3\u5ddd\u4e8b\u52d9\u6240","boring_xml_url":47,"boring_view_url":1,"soilmap_view_url":null,"soiltest_xml_url":50,"soiltest_view_url":49},{"id":254239,"code":"B4KJ201802001-9719","latitude":"34.477583","longitude":"132.559167","source_code":"CG088753610200210003","project_name":"","survey_name":"\u4e09\u7be0\u5ddd\u5916\u5824\u9632\u8a73\u7d30\u70b9\u691c\u696d\u52d9","client_name":"\u56fd\u571f\u4ea4\u901a\u7701\u4e2d\u56fd\u5730\u65b9\u6574\u5099\u5c40\u592a\u7530\u5ddd\u6cb3\u5ddd\u4e8b\u52d9\u6240","boring_xml_url":47,"boring_view_url":1,"soilmap_view_url":null,"soiltest_xml_url":50,"soiltest_view_url":49},{"id":254238,"code":"B4KJ201802001-9718","latitude":"34.4775","longitude":"132.559222","source_code":"CG088753610200210002","project_name":"","survey_name":"\u4e09\u7be0\u5ddd\u5916\u5824\u9632\u8a73\u7d30\u70b9\u691c\u696d\u52d9","client_name":"\u56fd\u571f\u4ea4\u901a\u7701\u4e2d\u56fd\u5730\u65b9\u6574\u5099\u5c40\u592a\u7530\u5ddd\u6cb3\u5ddd\u4e8b\u52d9\u6240","boring_xml_url":47,"boring_view_url":1,"soilmap_view_url":null,"soiltest_xml_url":50,"soiltest_view_url":49},{"id":254237,"code":"B4KJ201802001-9717","latitude":"34.477528","longitude":"132.559194","source_code":"CG088753610200210001","project_name":"","survey_name":"\u4e09\u7be0\u5ddd\u5916\u5824\u9632\u8a73\u7d30\u70b9\u691c\u696d\u52d9","client_name":"\u56fd\u571f\u4ea4\u901a\u7701\u4e2d\u56fd\u5730\u65b9\u6574\u5099\u5c40\u592a\u7530\u5ddd\u6cb3\u5ddd\u4e8b\u52d9\u6240","boring_xml_url":47,"boring_view_url":1,"soilmap_view_url":null,"soiltest_xml_url":50,"soiltest_view_url":49}]}}