{"header":{"xyz":{"source":[],"mosaic":false},"page":2552,"raw":{"soiltest_result":"0","bbox":"57.598333,109.544722,1.933333,163.806111","page":"2552"},"conditions":{"soiltest_result":0,"north":57.598333,"west":109.544722,"south":1.933333,"east":163.806111},"success":true,"message":""},"data":{"meta":{"total":212844,"page":2552,"pages":7095,"count":30},"values":[{"id":253996,"code":"B4KJ201802001-9476","latitude":"34.509556","longitude":"132.44775","source_code":"CG088753640200250004","project_name":"","survey_name":"\u5e83\u5cf6\u897f\u90e8\u5c71\u7cfb\u3042\u3055\u3072\u304c\u4e18\u5317\u5730\u533a\u8a73\u7d30\u8a2d\u8a08\u696d\u52d9","client_name":"\u4e2d\u56fd\u5730\u65b9\u6574\u5099\u5c40 \u592a\u7530\u5ddd\u6cb3\u5ddd\u4e8b\u52d9\u6240","boring_xml_url":47,"boring_view_url":1,"soilmap_view_url":null,"soiltest_xml_url":0,"soiltest_view_url":0},{"id":253995,"code":"B4KJ201802001-9475","latitude":"34.509528","longitude":"132.447333","source_code":"CG088753640200250003","project_name":"","survey_name":"\u5e83\u5cf6\u897f\u90e8\u5c71\u7cfb\u3042\u3055\u3072\u304c\u4e18\u5317\u5730\u533a\u8a73\u7d30\u8a2d\u8a08\u696d\u52d9","client_name":"\u4e2d\u56fd\u5730\u65b9\u6574\u5099\u5c40 \u592a\u7530\u5ddd\u6cb3\u5ddd\u4e8b\u52d9\u6240","boring_xml_url":47,"boring_view_url":1,"soilmap_view_url":null,"soiltest_xml_url":0,"soiltest_view_url":0},{"id":253994,"code":"B4KJ201802001-9474","latitude":"34.509611","longitude":"132.447361","source_code":"CG088753640200250002","project_name":"","survey_name":"\u5e83\u5cf6\u897f\u90e8\u5c71\u7cfb\u3042\u3055\u3072\u304c\u4e18\u5317\u5730\u533a\u8a73\u7d30\u8a2d\u8a08\u696d\u52d9","client_name":"\u4e2d\u56fd\u5730\u65b9\u6574\u5099\u5c40 \u592a\u7530\u5ddd\u6cb3\u5ddd\u4e8b\u52d9\u6240","boring_xml_url":47,"boring_view_url":1,"soilmap_view_url":null,"soiltest_xml_url":0,"soiltest_view_url":0},{"id":253993,"code":"B4KJ201802001-9473","latitude":"34.509778","longitude":"132.447667","source_code":"CG088753640200250001","project_name":"","survey_name":"\u5e83\u5cf6\u897f\u90e8\u5c71\u7cfb\u3042\u3055\u3072\u304c\u4e18\u5317\u5730\u533a\u8a73\u7d30\u8a2d\u8a08\u696d\u52d9","client_name":"\u4e2d\u56fd\u5730\u65b9\u6574\u5099\u5c40 \u592a\u7530\u5ddd\u6cb3\u5ddd\u4e8b\u52d9\u6240","boring_xml_url":47,"boring_view_url":1,"soilmap_view_url":null,"soiltest_xml_url":0,"soiltest_view_url":0},{"id":253992,"code":"B4KJ201802001-9472","latitude":"34.492389","longitude":"132.500083","source_code":"CG088753640200090001","project_name":"","survey_name":"\u5e83\u5cf6\u897f\u90e8\u5c71\u7cfb\u516b\u67284\u53f7\u7802\u9632\u5830\u5824\u8a73\u7d30\u8a2d\u8a08\u696d\u52d9","client_name":"\u56fd\u571f\u4ea4\u901a\u7701\u4e2d\u56fd\u5730\u65b9\u6574\u5099\u5c40\u592a\u7530\u5ddd\u6cb3\u5ddd\u4e8b\u52d9\u6240","boring_xml_url":47,"boring_view_url":1,"soilmap_view_url":null,"soiltest_xml_url":0,"soiltest_view_url":0},{"id":253991,"code":"B4KJ201802001-9471","latitude":"34.545417","longitude":"132.162528","source_code":"CG088753610200220001","project_name":"\u592a\u7530\u5ddd\u6d2a\u6c34\u8abf\u7bc0\u65bd\u8a2d\u57fa\u790e\u8cc7\u6599\u8abf\u67fb\u5916\u696d\u52d9","survey_name":"\u592a\u7530\u5ddd\u6d2a\u6c34\u8abf\u7bc0\u65bd\u8a2d\u57fa\u790e\u8cc7\u6599\u8abf\u67fb\u5916\u696d\u52d9","client_name":"\u56fd\u571f\u4ea4\u901a\u7701\u4e2d\u56fd\u5730\u65b9\u6574\u5099\u5c40\u592a\u7530\u5ddd\u6cb3\u5ddd\u4e8b\u52d9\u6240","boring_xml_url":47,"boring_view_url":1,"soilmap_view_url":null,"soiltest_xml_url":0,"soiltest_view_url":0},{"id":253990,"code":"B4KJ201802001-9470","latitude":"34.207167","longitude":"132.197694","source_code":"CG088753450200050013","project_name":"\u592a\u7530\u5ddd\u5c0f\u702c\u5ddd\u5730\u8cea\u8abf\u67fb\u696d\u52d9","survey_name":"\u592a\u7530\u5ddd\u5c0f\u702c\u5ddd\u5730\u8cea\u8abf\u67fb\u696d\u52d9","client_name":"\u56fd\u571f\u4ea4\u901a\u7701\u4e2d\u56fd\u5730\u65b9\u6574\u5099\u5c40\u592a\u7530\u5ddd\u6cb3\u5ddd\u4e8b\u52d9\u6240","boring_xml_url":47,"boring_view_url":1,"soilmap_view_url":null,"soiltest_xml_url":0,"soiltest_view_url":0},{"id":253989,"code":"B4KJ201802001-9469","latitude":"34.401139","longitude":"132.435611","source_code":"CG088753450200050012","project_name":"\u592a\u7530\u5ddd\u5c0f\u702c\u5ddd\u5730\u8cea\u8abf\u67fb\u696d\u52d9","survey_name":"\u592a\u7530\u5ddd\u5c0f\u702c\u5ddd\u5730\u8cea\u8abf\u67fb\u696d\u52d9","client_name":"\u56fd\u571f\u4ea4\u901a\u7701\u4e2d\u56fd\u5730\u65b9\u6574\u5099\u5c40\u592a\u7530\u5ddd\u6cb3\u5ddd\u4e8b\u52d9\u6240","boring_xml_url":47,"boring_view_url":1,"soilmap_view_url":null,"soiltest_xml_url":0,"soiltest_view_url":0},{"id":253988,"code":"B4KJ201802001-9468","latitude":"34.389806","longitude":"132.428167","source_code":"CG088753450200050011","project_name":"\u592a\u7530\u5ddd\u5c0f\u702c\u5ddd\u5730\u8cea\u8abf\u67fb\u696d\u52d9","survey_name":"\u592a\u7530\u5ddd\u5c0f\u702c\u5ddd\u5730\u8cea\u8abf\u67fb\u696d\u52d9","client_name":"\u56fd\u571f\u4ea4\u901a\u7701\u4e2d\u56fd\u5730\u65b9\u6574\u5099\u5c40\u592a\u7530\u5ddd\u6cb3\u5ddd\u4e8b\u52d9\u6240","boring_xml_url":47,"boring_view_url":1,"soilmap_view_url":null,"soiltest_xml_url":0,"soiltest_view_url":0},{"id":253987,"code":"B4KJ201802001-9467","latitude":"34.389889","longitude":"132.427667","source_code":"CG088753450200050010","project_name":"\u592a\u7530\u5ddd\u5c0f\u702c\u5ddd\u5730\u8cea\u8abf\u67fb\u696d\u52d9","survey_name":"\u592a\u7530\u5ddd\u5c0f\u702c\u5ddd\u5730\u8cea\u8abf\u67fb\u696d\u52d9","client_name":"\u56fd\u571f\u4ea4\u901a\u7701\u4e2d\u56fd\u5730\u65b9\u6574\u5099\u5c40\u592a\u7530\u5ddd\u6cb3\u5ddd\u4e8b\u52d9\u6240","boring_xml_url":47,"boring_view_url":1,"soilmap_view_url":null,"soiltest_xml_url":0,"soiltest_view_url":0},{"id":253986,"code":"B4KJ201802001-9466","latitude":"34.389806","longitude":"132.427861","source_code":"CG088753450200050009","project_name":"\u592a\u7530\u5ddd\u5c0f\u702c\u5ddd\u5730\u8cea\u8abf\u67fb\u696d\u52d9","survey_name":"\u592a\u7530\u5ddd\u5c0f\u702c\u5ddd\u5730\u8cea\u8abf\u67fb\u696d\u52d9","client_name":"\u56fd\u571f\u4ea4\u901a\u7701\u4e2d\u56fd\u5730\u65b9\u6574\u5099\u5c40\u592a\u7530\u5ddd\u6cb3\u5ddd\u4e8b\u52d9\u6240","boring_xml_url":47,"boring_view_url":1,"soilmap_view_url":null,"soiltest_xml_url":0,"soiltest_view_url":0},{"id":253985,"code":"B4KJ201802001-9465","latitude":"34.38975","longitude":"132.428","source_code":"CG088753450200050008","project_name":"\u592a\u7530\u5ddd\u5c0f\u702c\u5ddd\u5730\u8cea\u8abf\u67fb\u696d\u52d9","survey_name":"\u592a\u7530\u5ddd\u5c0f\u702c\u5ddd\u5730\u8cea\u8abf\u67fb\u696d\u52d9","client_name":"\u56fd\u571f\u4ea4\u901a\u7701\u4e2d\u56fd\u5730\u65b9\u6574\u5099\u5c40\u592a\u7530\u5ddd\u6cb3\u5ddd\u4e8b\u52d9\u6240","boring_xml_url":47,"boring_view_url":1,"soilmap_view_url":null,"soiltest_xml_url":0,"soiltest_view_url":0},{"id":253984,"code":"B4KJ201802001-9464","latitude":"34.389694","longitude":"132.428111","source_code":"CG088753450200050007","project_name":"\u592a\u7530\u5ddd\u5c0f\u702c\u5ddd\u5730\u8cea\u8abf\u67fb\u696d\u52d9","survey_name":"\u592a\u7530\u5ddd\u5c0f\u702c\u5ddd\u5730\u8cea\u8abf\u67fb\u696d\u52d9","client_name":"\u56fd\u571f\u4ea4\u901a\u7701\u4e2d\u56fd\u5730\u65b9\u6574\u5099\u5c40\u592a\u7530\u5ddd\u6cb3\u5ddd\u4e8b\u52d9\u6240","boring_xml_url":47,"boring_view_url":1,"soilmap_view_url":null,"soiltest_xml_url":0,"soiltest_view_url":0},{"id":253983,"code":"B4KJ201802001-9463","latitude":"34.388972","longitude":"132.426972","source_code":"CG088753450200050006","project_name":"\u592a\u7530\u5ddd\u5c0f\u702c\u5ddd\u5730\u8cea\u8abf\u67fb\u696d\u52d9","survey_name":"\u592a\u7530\u5ddd\u5c0f\u702c\u5ddd\u5730\u8cea\u8abf\u67fb\u696d\u52d9","client_name":"\u56fd\u571f\u4ea4\u901a\u7701\u4e2d\u56fd\u5730\u65b9\u6574\u5099\u5c40\u592a\u7530\u5ddd\u6cb3\u5ddd\u4e8b\u52d9\u6240","boring_xml_url":47,"boring_view_url":1,"soilmap_view_url":null,"soiltest_xml_url":0,"soiltest_view_url":0},{"id":253982,"code":"B4KJ201802001-9462","latitude":"34.207222","longitude":"132.197472","source_code":"CG088753450200050005","project_name":"\u592a\u7530\u5ddd\u5c0f\u702c\u5ddd\u5730\u8cea\u8abf\u67fb\u696d\u52d9","survey_name":"\u592a\u7530\u5ddd\u5c0f\u702c\u5ddd\u5730\u8cea\u8abf\u67fb\u696d\u52d9","client_name":"\u56fd\u571f\u4ea4\u901a\u7701\u4e2d\u56fd\u5730\u65b9\u6574\u5099\u5c40\u592a\u7530\u5ddd\u6cb3\u5ddd\u4e8b\u52d9\u6240","boring_xml_url":47,"boring_view_url":1,"soilmap_view_url":null,"soiltest_xml_url":0,"soiltest_view_url":0},{"id":253981,"code":"B4KJ201802001-9461","latitude":"34.38875","longitude":"132.427389","source_code":"CG088753450200050004","project_name":"\u592a\u7530\u5ddd\u5c0f\u702c\u5ddd\u5730\u8cea\u8abf\u67fb\u696d\u52d9","survey_name":"\u592a\u7530\u5ddd\u5c0f\u702c\u5ddd\u5730\u8cea\u8abf\u67fb\u696d\u52d9","client_name":"\u56fd\u571f\u4ea4\u901a\u7701\u4e2d\u56fd\u5730\u65b9\u6574\u5099\u5c40\u592a\u7530\u5ddd\u6cb3\u5ddd\u4e8b\u52d9\u6240","boring_xml_url":47,"boring_view_url":1,"soilmap_view_url":null,"soiltest_xml_url":0,"soiltest_view_url":0},{"id":253980,"code":"B4KJ201802001-9460","latitude":"34.207222","longitude":"132.197472","source_code":"CG088753450200050003","project_name":"\u592a\u7530\u5ddd\u5c0f\u702c\u5ddd\u5730\u8cea\u8abf\u67fb\u696d\u52d9","survey_name":"\u592a\u7530\u5ddd\u5c0f\u702c\u5ddd\u5730\u8cea\u8abf\u67fb\u696d\u52d9","client_name":"\u56fd\u571f\u4ea4\u901a\u7701\u4e2d\u56fd\u5730\u65b9\u6574\u5099\u5c40\u592a\u7530\u5ddd\u6cb3\u5ddd\u4e8b\u52d9\u6240","boring_xml_url":47,"boring_view_url":1,"soilmap_view_url":null,"soiltest_xml_url":50,"soiltest_view_url":49},{"id":253979,"code":"B4KJ201802001-9459","latitude":"34.207167","longitude":"132.197694","source_code":"CG088753450200050002","project_name":"\u592a\u7530\u5ddd\u5c0f\u702c\u5ddd\u5730\u8cea\u8abf\u67fb\u696d\u52d9","survey_name":"\u592a\u7530\u5ddd\u5c0f\u702c\u5ddd\u5730\u8cea\u8abf\u67fb\u696d\u52d9","client_name":"\u56fd\u571f\u4ea4\u901a\u7701\u4e2d\u56fd\u5730\u65b9\u6574\u5099\u5c40\u592a\u7530\u5ddd\u6cb3\u5ddd\u4e8b\u52d9\u6240","boring_xml_url":47,"boring_view_url":1,"soilmap_view_url":null,"soiltest_xml_url":50,"soiltest_view_url":49},{"id":253978,"code":"B4KJ201802001-9458","latitude":"34.205083","longitude":"132.196111","source_code":"CG088753450200050001","project_name":"\u592a\u7530\u5ddd\u5c0f\u702c\u5ddd\u5730\u8cea\u8abf\u67fb\u696d\u52d9","survey_name":"\u592a\u7530\u5ddd\u5c0f\u702c\u5ddd\u5730\u8cea\u8abf\u67fb\u696d\u52d9","client_name":"\u56fd\u571f\u4ea4\u901a\u7701\u4e2d\u56fd\u5730\u65b9\u6574\u5099\u5c40\u592a\u7530\u5ddd\u6cb3\u5ddd\u4e8b\u52d9\u6240","boring_xml_url":47,"boring_view_url":1,"soilmap_view_url":null,"soiltest_xml_url":50,"soiltest_view_url":49},{"id":253977,"code":"B4KJ201802001-9457","latitude":"34.551861","longitude":"132.339167","source_code":"CG088753410200090002","project_name":"","survey_name":"\u592a\u7530\u5ddd\u5c0f\u539f\u5730\u533a\u6a0b\u9580\u8a2d\u8a08\u5916\u696d\u52d9","client_name":"\u56fd\u571f\u4ea4\u901a\u7701\u4e2d\u56fd\u5730\u65b9\u6574\u5099\u5c40 \u592a\u7530\u5ddd\u6cb3\u5ddd\u4e8b\u52d9\u6240","boring_xml_url":47,"boring_view_url":1,"soilmap_view_url":null,"soiltest_xml_url":0,"soiltest_view_url":0},{"id":253976,"code":"B4KJ201802001-9456","latitude":"34.550083","longitude":"132.342556","source_code":"CG088753410200090001","project_name":"","survey_name":"\u592a\u7530\u5ddd\u5c0f\u539f\u5730\u533a\u6a0b\u9580\u8a2d\u8a08\u5916\u696d\u52d9","client_name":"\u56fd\u571f\u4ea4\u901a\u7701\u4e2d\u56fd\u5730\u65b9\u6574\u5099\u5c40 \u592a\u7530\u5ddd\u6cb3\u5ddd\u4e8b\u52d9\u6240","boring_xml_url":47,"boring_view_url":1,"soilmap_view_url":null,"soiltest_xml_url":50,"soiltest_view_url":49},{"id":253975,"code":"B4KJ201802001-9455","latitude":"34.538333","longitude":"132.433361","source_code":"CG088753410200060004","project_name":"\u592a\u7530\u5ddd\u59eb\u702c\u30fb\u6bdb\u6728\u5730\u533a\u6a0b\u9580\u8a2d\u8a08\u5916\u696d\u52d9","survey_name":"\u592a\u7530\u5ddd\u59eb\u702c\u30fb\u6bdb\u6728\u5730\u533a\u6a0b\u9580\u8a2d\u8a08\u5916\u696d\u52d9","client_name":"\u56fd\u571f\u4ea4\u901a\u7701\u4e2d\u56fd\u5730\u65b9\u6574\u5099\u5c40\u592a\u7530\u5ddd\u6cb3\u5ddd\u4e8b\u52d9\u6240","boring_xml_url":47,"boring_view_url":1,"soilmap_view_url":null,"soiltest_xml_url":0,"soiltest_view_url":0},{"id":253974,"code":"B4KJ201802001-9454","latitude":"34.536194","longitude":"132.433778","source_code":"CG088753410200060003","project_name":"\u592a\u7530\u5ddd\u59eb\u702c\u30fb\u6bdb\u6728\u5730\u533a\u6a0b\u9580\u8a2d\u8a08\u5916\u696d\u52d9","survey_name":"\u592a\u7530\u5ddd\u59eb\u702c\u30fb\u6bdb\u6728\u5730\u533a\u6a0b\u9580\u8a2d\u8a08\u5916\u696d\u52d9","client_name":"\u56fd\u571f\u4ea4\u901a\u7701\u4e2d\u56fd\u5730\u65b9\u6574\u5099\u5c40\u592a\u7530\u5ddd\u6cb3\u5ddd\u4e8b\u52d9\u6240","boring_xml_url":47,"boring_view_url":1,"soilmap_view_url":null,"soiltest_xml_url":0,"soiltest_view_url":0},{"id":253973,"code":"B4KJ201802001-9453","latitude":"34.533944","longitude":"132.434389","source_code":"CG088753410200060002","project_name":"\u592a\u7530\u5ddd\u59eb\u702c\u30fb\u6bdb\u6728\u5730\u533a\u6a0b\u9580\u8a2d\u8a08\u5916\u696d\u52d9","survey_name":"\u592a\u7530\u5ddd\u59eb\u702c\u30fb\u6bdb\u6728\u5730\u533a\u6a0b\u9580\u8a2d\u8a08\u5916\u696d\u52d9","client_name":"\u56fd\u571f\u4ea4\u901a\u7701\u4e2d\u56fd\u5730\u65b9\u6574\u5099\u5c40\u592a\u7530\u5ddd\u6cb3\u5ddd\u4e8b\u52d9\u6240","boring_xml_url":47,"boring_view_url":1,"soilmap_view_url":null,"soiltest_xml_url":0,"soiltest_view_url":0},{"id":253972,"code":"B4KJ201802001-9452","latitude":"34.532528","longitude":"132.434528","source_code":"CG088753410200060001","project_name":"\u592a\u7530\u5ddd\u59eb\u702c\u30fb\u6bdb\u6728\u5730\u533a\u6a0b\u9580\u8a2d\u8a08\u5916\u696d\u52d9","survey_name":"\u592a\u7530\u5ddd\u59eb\u702c\u30fb\u6bdb\u6728\u5730\u533a\u6a0b\u9580\u8a2d\u8a08\u5916\u696d\u52d9","client_name":"\u56fd\u571f\u4ea4\u901a\u7701\u4e2d\u56fd\u5730\u65b9\u6574\u5099\u5c40\u592a\u7530\u5ddd\u6cb3\u5ddd\u4e8b\u52d9\u6240","boring_xml_url":47,"boring_view_url":1,"soilmap_view_url":null,"soiltest_xml_url":0,"soiltest_view_url":0},{"id":253971,"code":"B4KJ201802001-9451","latitude":"34.587222","longitude":"132.294444","source_code":"CG088753410200050002","project_name":"\u592a\u7530\u5ddd\u7ba1\u5185\u6e2c\u91cf\u8a2d\u8a08\u5916\u696d\u52d9","survey_name":"\u592a\u7530\u5ddd\u7ba1\u5185\u6e2c\u91cf\u8a2d\u8a08\u5916\u696d\u52d9","client_name":"\u56fd\u571f\u4ea4\u901a\u7701 \u592a\u7530\u5ddd\u6cb3\u5ddd\u4e8b\u52d9\u6240","boring_xml_url":47,"boring_view_url":1,"soilmap_view_url":null,"soiltest_xml_url":0,"soiltest_view_url":0},{"id":253970,"code":"B4KJ201802001-9450","latitude":"34.587222","longitude":"132.294167","source_code":"CG088753410200050001","project_name":"","survey_name":"\u592a\u7530\u5ddd\u7ba1\u5185\u6e2c\u91cf\u8a2d\u8a08\u5916\u696d\u52d9","client_name":"\u56fd\u571f\u4ea4\u901a\u7701 \u592a\u7530\u5ddd\u6cb3\u5ddd\u4e8b\u52d9\u6240","boring_xml_url":47,"boring_view_url":1,"soilmap_view_url":null,"soiltest_xml_url":0,"soiltest_view_url":0},{"id":253969,"code":"B4KJ201802001-9449","latitude":"35.0645","longitude":"133.1905","source_code":"CG88752600200300002","project_name":"","survey_name":"\u9375\u639b\u5ce0\u9053\u8def\u74b0\u5883\u8abf\u67fb\u691c\u8a0e\u696d\u52d9","client_name":"\u56fd\u571f\u4ea4\u901a\u7701\u4e09\u6b21\u6cb3\u5ddd\u56fd\u9053\u4e8b\u52d9\u6240","boring_xml_url":46,"boring_view_url":1,"soilmap_view_url":null,"soiltest_xml_url":0,"soiltest_view_url":0},{"id":253968,"code":"B4KJ201802001-9448","latitude":"35.06725","longitude":"133.187917","source_code":"CG88752600200300001","project_name":"","survey_name":"\u9375\u639b\u5ce0\u9053\u8def\u74b0\u5883\u8abf\u67fb\u691c\u8a0e\u696d\u52d9","client_name":"\u56fd\u571f\u4ea4\u901a\u7701\u4e09\u6b21\u6cb3\u5ddd\u56fd\u9053\u4e8b\u52d9\u6240","boring_xml_url":46,"boring_view_url":1,"soilmap_view_url":null,"soiltest_xml_url":49,"soiltest_view_url":48},{"id":253967,"code":"B4KJ201802001-9447","latitude":"34.912694","longitude":"132.778444","source_code":"CG088752400200210003","project_name":"","survey_name":"\u56fd\u905354\u53f7\u4e09\u6b21\u7ba1\u5185\u9053\u8def\u8a2d\u8a08\u696d\u52d9","client_name":"\u56fd\u571f\u4ea4\u901a\u7701\u4e2d\u56fd\u6574\u5099\u5c40\u4e09\u6b21\u6cb3\u5ddd\u56fd\u9053\u4e8b\u52d9\u6240","boring_xml_url":47,"boring_view_url":1,"soilmap_view_url":null,"soiltest_xml_url":0,"soiltest_view_url":0}]}}