{"header":{"xyz":{"source":[],"mosaic":false},"page":2554,"raw":{"soiltest_result":"0","bbox":"57.598333,109.544722,1.933333,163.806111","page":"2554"},"conditions":{"soiltest_result":0,"north":57.598333,"west":109.544722,"south":1.933333,"east":163.806111},"success":true,"message":""},"data":{"meta":{"total":212844,"page":2554,"pages":7095,"count":30},"values":[{"id":253936,"code":"B4KJ201802001-9416","latitude":"34.763444","longitude":"131.923611","source_code":"CG088737530200120004","project_name":"","survey_name":"\u6d5c\u7530\u7ba1\u5185\u9632\u707d\u8a2d\u8a08\u5916\u696d\u52d9","client_name":"\u56fd\u571f\u4ea4\u901a\u7701 \u4e2d\u56fd\u5730\u65b9\u6574\u5099\u5c40 \u6d5c\u7530\u6cb3\u5ddd\u56fd\u9053\u4e8b\u52d9\u6240","boring_xml_url":47,"boring_view_url":1,"soilmap_view_url":null,"soiltest_xml_url":0,"soiltest_view_url":0},{"id":253935,"code":"B4KJ201802001-9415","latitude":"34.763361","longitude":"131.923944","source_code":"CG088737530200120003","project_name":"","survey_name":"\u6d5c\u7530\u7ba1\u5185\u9632\u707d\u8a2d\u8a08\u5916\u696d\u52d9","client_name":"\u56fd\u571f\u4ea4\u901a\u7701 \u4e2d\u56fd\u5730\u65b9\u6574\u5099\u5c40 \u6d5c\u7530\u6cb3\u5ddd\u56fd\u9053\u4e8b\u52d9\u6240","boring_xml_url":47,"boring_view_url":1,"soilmap_view_url":null,"soiltest_xml_url":0,"soiltest_view_url":0},{"id":253934,"code":"B4KJ201802001-9414","latitude":"34.763694","longitude":"131.923917","source_code":"CG088737530200120002","project_name":"","survey_name":"\u6d5c\u7530\u7ba1\u5185\u9632\u707d\u8a2d\u8a08\u5916\u696d\u52d9","client_name":"\u56fd\u571f\u4ea4\u901a\u7701 \u4e2d\u56fd\u5730\u65b9\u6574\u5099\u5c40 \u6d5c\u7530\u6cb3\u5ddd\u56fd\u9053\u4e8b\u52d9\u6240","boring_xml_url":47,"boring_view_url":1,"soilmap_view_url":null,"soiltest_xml_url":0,"soiltest_view_url":0},{"id":253933,"code":"B4KJ201802001-9413","latitude":"34.763694","longitude":"131.924","source_code":"CG088737530200120001","project_name":"","survey_name":"\u6d5c\u7530\u7ba1\u5185\u9632\u707d\u8a2d\u8a08\u5916\u696d\u52d9","client_name":"\u56fd\u571f\u4ea4\u901a\u7701 \u4e2d\u56fd\u5730\u65b9\u6574\u5099\u5c40 \u6d5c\u7530\u6cb3\u5ddd\u56fd\u9053\u4e8b\u52d9\u6240","boring_xml_url":47,"boring_view_url":1,"soilmap_view_url":null,"soiltest_xml_url":0,"soiltest_view_url":0},{"id":253932,"code":"B4KJ201802001-9412","latitude":"34.647333","longitude":"131.811417","source_code":"CG088737520200230003","project_name":"\u6c5f\u306e\u5ddd\u30fb\u9ad8\u6d25\u5ddd\u8a2d\u8a08\u696d\u52d9","survey_name":"\u6c5f\u306e\u5ddd\u30fb\u9ad8\u6d25\u5ddd\u8a2d\u8a08\u696d\u52d9","client_name":"\u56fd\u4ea4\u7701\u4e2d\u56fd\u5730\u65b9\u6574\u5099\u5c40\u6d5c\u7530\u6cb3\u5ddd\u56fd\u9053\u4e8b\u52d9\u6240","boring_xml_url":47,"boring_view_url":1,"soilmap_view_url":null,"soiltest_xml_url":0,"soiltest_view_url":0},{"id":253931,"code":"B4KJ201802001-9411","latitude":"34.647806","longitude":"131.811639","source_code":"CG088737520200230002","project_name":"\u6c5f\u306e\u5ddd\u30fb\u9ad8\u6d25\u5ddd\u8a2d\u8a08\u696d\u52d9","survey_name":"\u6c5f\u306e\u5ddd\u30fb\u9ad8\u6d25\u5ddd\u8a2d\u8a08\u696d\u52d9","client_name":"\u56fd\u4ea4\u7701\u4e2d\u56fd\u5730\u65b9\u6574\u5099\u5c40\u6d5c\u7530\u6cb3\u5ddd\u56fd\u9053\u4e8b\u52d9\u6240","boring_xml_url":47,"boring_view_url":1,"soilmap_view_url":null,"soiltest_xml_url":0,"soiltest_view_url":0},{"id":253930,"code":"B4KJ201802001-9410","latitude":"34.648472","longitude":"131.811944","source_code":"CG088737520200230001","project_name":"\u6c5f\u306e\u5ddd\u30fb\u9ad8\u6d25\u5ddd\u8a2d\u8a08\u696d\u52d9","survey_name":"\u6c5f\u306e\u5ddd\u30fb\u9ad8\u6d25\u5ddd\u8a2d\u8a08\u696d\u52d9","client_name":"\u56fd\u4ea4\u7701\u4e2d\u56fd\u5730\u65b9\u6574\u5099\u5c40\u6d5c\u7530\u6cb3\u5ddd\u56fd\u9053\u4e8b\u52d9\u6240","boring_xml_url":47,"boring_view_url":1,"soilmap_view_url":null,"soiltest_xml_url":0,"soiltest_view_url":0},{"id":253929,"code":"B4KJ201802001-9409","latitude":"34.766556","longitude":"131.923639","source_code":"CG088737390200040029","project_name":"\u6d5c\u7530\u30fb\u4e09\u9685\u9053\u8def\u897f\u6751\u5730\u533a\u5916\u5730\u8cea\u8abf\u67fb\u696d\u52d9","survey_name":"\u6d5c\u7530\u30fb\u4e09\u9685\u9053\u8def\u897f\u6751\u5730\u533a\u5916\u5730\u8cea\u8abf\u67fb\u696d\u52d9","client_name":"\u56fd\u571f\u4ea4\u901a\u7701\u4e2d\u56fd\u5730\u65b9\u6574\u5099\u5c40\u6d5c\u7530\u6cb3\u5ddd\u56fd\u9053\u4e8b\u52d9\u6240","boring_xml_url":47,"boring_view_url":1,"soilmap_view_url":null,"soiltest_xml_url":50,"soiltest_view_url":49},{"id":253928,"code":"B4KJ201802001-9408","latitude":"34.766556","longitude":"131.923639","source_code":"CG088737390200040028","project_name":"\u6d5c\u7530\u30fb\u4e09\u9685\u9053\u8def\u897f\u6751\u5730\u533a\u5916\u5730\u8cea\u8abf\u67fb\u696d\u52d9","survey_name":"\u6d5c\u7530\u30fb\u4e09\u9685\u9053\u8def\u897f\u6751\u5730\u533a\u5916\u5730\u8cea\u8abf\u67fb\u696d\u52d9","client_name":"\u56fd\u571f\u4ea4\u901a\u7701\u4e2d\u56fd\u5730\u65b9\u6574\u5099\u5c40\u6d5c\u7530\u6cb3\u5ddd\u56fd\u9053\u4e8b\u52d9\u6240","boring_xml_url":47,"boring_view_url":1,"soilmap_view_url":null,"soiltest_xml_url":0,"soiltest_view_url":0},{"id":253927,"code":"B4KJ201802001-9407","latitude":"34.886083","longitude":"132.069194","source_code":"CG088737390200040027","project_name":"\u6d5c\u7530\u30fb\u4e09\u9685\u9053\u8def\u897f\u6751\u5730\u533a\u5916\u5730\u8cea\u8abf\u67fb\u696d\u52d9","survey_name":"\u6d5c\u7530\u30fb\u4e09\u9685\u9053\u8def\u897f\u6751\u5730\u533a\u5916\u5730\u8cea\u8abf\u67fb\u696d\u52d9","client_name":"\u56fd\u571f\u4ea4\u901a\u7701\u4e2d\u56fd\u5730\u65b9\u6574\u5099\u5c40\u6d5c\u7530\u6cb3\u5ddd\u56fd\u9053\u4e8b\u52d9\u6240","boring_xml_url":47,"boring_view_url":1,"soilmap_view_url":null,"soiltest_xml_url":0,"soiltest_view_url":0},{"id":253926,"code":"B4KJ201802001-9406","latitude":"34.886722","longitude":"132.069833","source_code":"CG088737390200040026","project_name":"\u6d5c\u7530\u30fb\u4e09\u9685\u9053\u8def\u897f\u6751\u5730\u533a\u5916\u5730\u8cea\u8abf\u67fb\u696d\u52d9","survey_name":"\u6d5c\u7530\u30fb\u4e09\u9685\u9053\u8def\u897f\u6751\u5730\u533a\u5916\u5730\u8cea\u8abf\u67fb\u696d\u52d9","client_name":"\u56fd\u571f\u4ea4\u901a\u7701\u4e2d\u56fd\u5730\u65b9\u6574\u5099\u5c40\u6d5c\u7530\u6cb3\u5ddd\u56fd\u9053\u4e8b\u52d9\u6240","boring_xml_url":47,"boring_view_url":1,"soilmap_view_url":null,"soiltest_xml_url":0,"soiltest_view_url":0},{"id":253925,"code":"B4KJ201802001-9405","latitude":"34.887194","longitude":"132.070306","source_code":"CG088737390200040025","project_name":"\u6d5c\u7530\u30fb\u4e09\u9685\u9053\u8def\u897f\u6751\u5730\u533a\u5916\u5730\u8cea\u8abf\u67fb\u696d\u52d9","survey_name":"\u6d5c\u7530\u30fb\u4e09\u9685\u9053\u8def\u897f\u6751\u5730\u533a\u5916\u5730\u8cea\u8abf\u67fb\u696d\u52d9","client_name":"\u56fd\u571f\u4ea4\u901a\u7701\u4e2d\u56fd\u5730\u65b9\u6574\u5099\u5c40\u6d5c\u7530\u6cb3\u5ddd\u56fd\u9053\u4e8b\u52d9\u6240","boring_xml_url":47,"boring_view_url":1,"soilmap_view_url":null,"soiltest_xml_url":0,"soiltest_view_url":0},{"id":253924,"code":"B4KJ201802001-9404","latitude":"34.799361","longitude":"131.969611","source_code":"CG088737390200040024","project_name":"\u6d5c\u7530\u30fb\u4e09\u9685\u9053\u8def\u897f\u6751\u5730\u533a\u5916\u5730\u8cea\u8abf\u67fb\u696d\u52d9","survey_name":"\u6d5c\u7530\u30fb\u4e09\u9685\u9053\u8def\u897f\u6751\u5730\u533a\u5916\u5730\u8cea\u8abf\u67fb\u696d\u52d9","client_name":"\u56fd\u571f\u4ea4\u901a\u7701\u4e2d\u56fd\u5730\u65b9\u6574\u5099\u5c40\u6d5c\u7530\u6cb3\u5ddd\u56fd\u9053\u4e8b\u52d9\u6240","boring_xml_url":47,"boring_view_url":1,"soilmap_view_url":null,"soiltest_xml_url":0,"soiltest_view_url":0},{"id":253923,"code":"B4KJ201802001-9403","latitude":"34.799694","longitude":"131.969222","source_code":"CG088737390200040023","project_name":"\u6d5c\u7530\u30fb\u4e09\u9685\u9053\u8def\u897f\u6751\u5730\u533a\u5916\u5730\u8cea\u8abf\u67fb\u696d\u52d9","survey_name":"\u6d5c\u7530\u30fb\u4e09\u9685\u9053\u8def\u897f\u6751\u5730\u533a\u5916\u5730\u8cea\u8abf\u67fb\u696d\u52d9","client_name":"\u56fd\u571f\u4ea4\u901a\u7701\u4e2d\u56fd\u5730\u65b9\u6574\u5099\u5c40\u6d5c\u7530\u6cb3\u5ddd\u56fd\u9053\u4e8b\u52d9\u6240","boring_xml_url":47,"boring_view_url":1,"soilmap_view_url":null,"soiltest_xml_url":0,"soiltest_view_url":0},{"id":253922,"code":"B4KJ201802001-9402","latitude":"34.799583","longitude":"131.969583","source_code":"CG088737390200040022","project_name":"\u6d5c\u7530\u30fb\u4e09\u9685\u9053\u8def\u897f\u6751\u5730\u533a\u5916\u5730\u8cea\u8abf\u67fb\u696d\u52d9","survey_name":"\u6d5c\u7530\u30fb\u4e09\u9685\u9053\u8def\u897f\u6751\u5730\u533a\u5916\u5730\u8cea\u8abf\u67fb\u696d\u52d9","client_name":"\u56fd\u571f\u4ea4\u901a\u7701\u4e2d\u56fd\u5730\u65b9\u6574\u5099\u5c40\u6d5c\u7530\u6cb3\u5ddd\u56fd\u9053\u4e8b\u52d9\u6240","boring_xml_url":47,"boring_view_url":1,"soilmap_view_url":null,"soiltest_xml_url":0,"soiltest_view_url":0},{"id":253921,"code":"B4KJ201802001-9401","latitude":"34.799778","longitude":"131.969444","source_code":"CG088737390200040021","project_name":"\u6d5c\u7530\u30fb\u4e09\u9685\u9053\u8def\u897f\u6751\u5730\u533a\u5916\u5730\u8cea\u8abf\u67fb\u696d\u52d9","survey_name":"\u6d5c\u7530\u30fb\u4e09\u9685\u9053\u8def\u897f\u6751\u5730\u533a\u5916\u5730\u8cea\u8abf\u67fb\u696d\u52d9","client_name":"\u56fd\u571f\u4ea4\u901a\u7701\u4e2d\u56fd\u5730\u65b9\u6574\u5099\u5c40\u6d5c\u7530\u6cb3\u5ddd\u56fd\u9053\u4e8b\u52d9\u6240","boring_xml_url":47,"boring_view_url":1,"soilmap_view_url":null,"soiltest_xml_url":0,"soiltest_view_url":0},{"id":253920,"code":"B4KJ201802001-9400","latitude":"34.799917","longitude":"131.969361","source_code":"CG088737390200040020","project_name":"\u6d5c\u7530\u30fb\u4e09\u9685\u9053\u8def\u897f\u6751\u5730\u533a\u5916\u5730\u8cea\u8abf\u67fb\u696d\u52d9","survey_name":"\u6d5c\u7530\u30fb\u4e09\u9685\u9053\u8def\u897f\u6751\u5730\u533a\u5916\u5730\u8cea\u8abf\u67fb\u696d\u52d9","client_name":"\u56fd\u571f\u4ea4\u901a\u7701\u4e2d\u56fd\u5730\u65b9\u6574\u5099\u5c40\u6d5c\u7530\u6cb3\u5ddd\u56fd\u9053\u4e8b\u52d9\u6240","boring_xml_url":47,"boring_view_url":1,"soilmap_view_url":null,"soiltest_xml_url":0,"soiltest_view_url":0},{"id":253919,"code":"B4KJ201802001-9399","latitude":"34.818333","longitude":"131.981","source_code":"CG088737390200040019","project_name":"\u6d5c\u7530\u30fb\u4e09\u9685\u9053\u8def\u897f\u6751\u5730\u533a\u5916\u5730\u8cea\u8abf\u67fb\u696d\u52d9","survey_name":"\u6d5c\u7530\u30fb\u4e09\u9685\u9053\u8def\u897f\u6751\u5730\u533a\u5916\u5730\u8cea\u8abf\u67fb\u696d\u52d9","client_name":"\u56fd\u571f\u4ea4\u901a\u7701\u4e2d\u56fd\u5730\u65b9\u6574\u5099\u5c40\u6d5c\u7530\u6cb3\u5ddd\u56fd\u9053\u4e8b\u52d9\u6240","boring_xml_url":47,"boring_view_url":1,"soilmap_view_url":null,"soiltest_xml_url":0,"soiltest_view_url":0},{"id":253918,"code":"B4KJ201802001-9398","latitude":"34.818528","longitude":"131.98075","source_code":"CG088737390200040018","project_name":"\u6d5c\u7530\u30fb\u4e09\u9685\u9053\u8def\u897f\u6751\u5730\u533a\u5916\u5730\u8cea\u8abf\u67fb\u696d\u52d9","survey_name":"\u6d5c\u7530\u30fb\u4e09\u9685\u9053\u8def\u897f\u6751\u5730\u533a\u5916\u5730\u8cea\u8abf\u67fb\u696d\u52d9","client_name":"\u56fd\u571f\u4ea4\u901a\u7701\u4e2d\u56fd\u5730\u65b9\u6574\u5099\u5c40\u6d5c\u7530\u6cb3\u5ddd\u56fd\u9053\u4e8b\u52d9\u6240","boring_xml_url":47,"boring_view_url":1,"soilmap_view_url":null,"soiltest_xml_url":0,"soiltest_view_url":0},{"id":253917,"code":"B4KJ201802001-9397","latitude":"34.818917","longitude":"131.981389","source_code":"CG088737390200040017","project_name":"\u6d5c\u7530\u30fb\u4e09\u9685\u9053\u8def\u897f\u6751\u5730\u533a\u5916\u5730\u8cea\u8abf\u67fb\u696d\u52d9","survey_name":"\u6d5c\u7530\u30fb\u4e09\u9685\u9053\u8def\u897f\u6751\u5730\u533a\u5916\u5730\u8cea\u8abf\u67fb\u696d\u52d9","client_name":"\u56fd\u571f\u4ea4\u901a\u7701\u4e2d\u56fd\u5730\u65b9\u6574\u5099\u5c40\u6d5c\u7530\u6cb3\u5ddd\u56fd\u9053\u4e8b\u52d9\u6240","boring_xml_url":47,"boring_view_url":1,"soilmap_view_url":null,"soiltest_xml_url":0,"soiltest_view_url":0},{"id":253916,"code":"B4KJ201802001-9396","latitude":"34.819361","longitude":"131.98175","source_code":"CG088737390200040016","project_name":"\u6d5c\u7530\u30fb\u4e09\u9685\u9053\u8def\u897f\u6751\u5730\u533a\u5916\u5730\u8cea\u8abf\u67fb\u696d\u52d9","survey_name":"\u6d5c\u7530\u30fb\u4e09\u9685\u9053\u8def\u897f\u6751\u5730\u533a\u5916\u5730\u8cea\u8abf\u67fb\u696d\u52d9","client_name":"\u56fd\u571f\u4ea4\u901a\u7701\u4e2d\u56fd\u5730\u65b9\u6574\u5099\u5c40\u6d5c\u7530\u6cb3\u5ddd\u56fd\u9053\u4e8b\u52d9\u6240","boring_xml_url":47,"boring_view_url":1,"soilmap_view_url":null,"soiltest_xml_url":0,"soiltest_view_url":0},{"id":253915,"code":"B4KJ201802001-9395","latitude":"34.819667","longitude":"131.982111","source_code":"CG088737390200040015","project_name":"\u6d5c\u7530\u30fb\u4e09\u9685\u9053\u8def\u897f\u6751\u5730\u533a\u5916\u5730\u8cea\u8abf\u67fb\u696d\u52d9","survey_name":"\u6d5c\u7530\u30fb\u4e09\u9685\u9053\u8def\u897f\u6751\u5730\u533a\u5916\u5730\u8cea\u8abf\u67fb\u696d\u52d9","client_name":"\u56fd\u571f\u4ea4\u901a\u7701\u4e2d\u56fd\u5730\u65b9\u6574\u5099\u5c40\u6d5c\u7530\u6cb3\u5ddd\u56fd\u9053\u4e8b\u52d9\u6240","boring_xml_url":47,"boring_view_url":1,"soilmap_view_url":null,"soiltest_xml_url":0,"soiltest_view_url":0},{"id":253914,"code":"B4KJ201802001-9394","latitude":"34.833639","longitude":"131.998444","source_code":"CG088737390200040014","project_name":"\u6d5c\u7530\u30fb\u4e09\u9685\u9053\u8def\u897f\u6751\u5730\u533a\u5916\u5730\u8cea\u8abf\u67fb\u696d\u52d9","survey_name":"\u6d5c\u7530\u30fb\u4e09\u9685\u9053\u8def\u897f\u6751\u5730\u533a\u5916\u5730\u8cea\u8abf\u67fb\u696d\u52d9","client_name":"\u56fd\u571f\u4ea4\u901a\u7701\u4e2d\u56fd\u5730\u65b9\u6574\u5099\u5c40\u6d5c\u7530\u6cb3\u5ddd\u56fd\u9053\u4e8b\u52d9\u6240","boring_xml_url":47,"boring_view_url":1,"soilmap_view_url":null,"soiltest_xml_url":0,"soiltest_view_url":0},{"id":253913,"code":"B4KJ201802001-9393","latitude":"34.833833","longitude":"131.998028","source_code":"CG088737390200040013","project_name":"\u6d5c\u7530\u30fb\u4e09\u9685\u9053\u8def\u897f\u6751\u5730\u533a\u5916\u5730\u8cea\u8abf\u67fb\u696d\u52d9","survey_name":"\u6d5c\u7530\u30fb\u4e09\u9685\u9053\u8def\u897f\u6751\u5730\u533a\u5916\u5730\u8cea\u8abf\u67fb\u696d\u52d9","client_name":"\u56fd\u571f\u4ea4\u901a\u7701\u4e2d\u56fd\u5730\u65b9\u6574\u5099\u5c40\u6d5c\u7530\u6cb3\u5ddd\u56fd\u9053\u4e8b\u52d9\u6240","boring_xml_url":47,"boring_view_url":1,"soilmap_view_url":null,"soiltest_xml_url":0,"soiltest_view_url":0},{"id":253912,"code":"B4KJ201802001-9392","latitude":"34.833944","longitude":"131.997667","source_code":"CG088737390200040012","project_name":"\u6d5c\u7530\u30fb\u4e09\u9685\u9053\u8def\u897f\u6751\u5730\u533a\u5916\u5730\u8cea\u8abf\u67fb\u696d\u52d9","survey_name":"\u6d5c\u7530\u30fb\u4e09\u9685\u9053\u8def\u897f\u6751\u5730\u533a\u5916\u5730\u8cea\u8abf\u67fb\u696d\u52d9","client_name":"\u56fd\u571f\u4ea4\u901a\u7701\u4e2d\u56fd\u5730\u65b9\u6574\u5099\u5c40\u6d5c\u7530\u6cb3\u5ddd\u56fd\u9053\u4e8b\u52d9\u6240","boring_xml_url":47,"boring_view_url":1,"soilmap_view_url":null,"soiltest_xml_url":0,"soiltest_view_url":0},{"id":253911,"code":"B4KJ201802001-9391","latitude":"34.840722","longitude":"132.007889","source_code":"CG088737390200040011","project_name":"\u6d5c\u7530\u30fb\u4e09\u9685\u9053\u8def\u897f\u6751\u5730\u533a\u5916\u5730\u8cea\u8abf\u67fb\u696d\u52d9","survey_name":"\u6d5c\u7530\u30fb\u4e09\u9685\u9053\u8def\u897f\u6751\u5730\u533a\u5916\u5730\u8cea\u8abf\u67fb\u696d\u52d9","client_name":"\u56fd\u571f\u4ea4\u901a\u7701\u4e2d\u56fd\u5730\u65b9\u6574\u5099\u5c40\u6d5c\u7530\u6cb3\u5ddd\u56fd\u9053\u4e8b\u52d9\u6240","boring_xml_url":47,"boring_view_url":1,"soilmap_view_url":null,"soiltest_xml_url":0,"soiltest_view_url":0},{"id":253910,"code":"B4KJ201802001-9390","latitude":"34.841194","longitude":"132.007583","source_code":"CG088737390200040010","project_name":"\u6d5c\u7530\u30fb\u4e09\u9685\u9053\u8def\u897f\u6751\u5730\u533a\u5916\u5730\u8cea\u8abf\u67fb\u696d\u52d9","survey_name":"\u6d5c\u7530\u30fb\u4e09\u9685\u9053\u8def\u897f\u6751\u5730\u533a\u5916\u5730\u8cea\u8abf\u67fb\u696d\u52d9","client_name":"\u56fd\u571f\u4ea4\u901a\u7701\u4e2d\u56fd\u5730\u65b9\u6574\u5099\u5c40\u6d5c\u7530\u6cb3\u5ddd\u56fd\u9053\u4e8b\u52d9\u6240","boring_xml_url":47,"boring_view_url":1,"soilmap_view_url":null,"soiltest_xml_url":0,"soiltest_view_url":0},{"id":253909,"code":"B4KJ201802001-9389","latitude":"34.842","longitude":"132.008222","source_code":"CG088737390200040009","project_name":"\u6d5c\u7530\u30fb\u4e09\u9685\u9053\u8def\u897f\u6751\u5730\u533a\u5916\u5730\u8cea\u8abf\u67fb\u696d\u52d9","survey_name":"\u6d5c\u7530\u30fb\u4e09\u9685\u9053\u8def\u897f\u6751\u5730\u533a\u5916\u5730\u8cea\u8abf\u67fb\u696d\u52d9","client_name":"\u56fd\u571f\u4ea4\u901a\u7701\u4e2d\u56fd\u5730\u65b9\u6574\u5099\u5c40\u6d5c\u7530\u6cb3\u5ddd\u56fd\u9053\u4e8b\u52d9\u6240","boring_xml_url":47,"boring_view_url":1,"soilmap_view_url":null,"soiltest_xml_url":0,"soiltest_view_url":0},{"id":253908,"code":"B4KJ201802001-9388","latitude":"34.842556","longitude":"132.015917","source_code":"CG088737390200040008","project_name":"\u6d5c\u7530\u30fb\u4e09\u9685\u9053\u8def\u897f\u6751\u5730\u533a\u5916\u5730\u8cea\u8abf\u67fb\u696d\u52d9","survey_name":"\u6d5c\u7530\u30fb\u4e09\u9685\u9053\u8def\u897f\u6751\u5730\u533a\u5916\u5730\u8cea\u8abf\u67fb\u696d\u52d9","client_name":"\u56fd\u571f\u4ea4\u901a\u7701\u4e2d\u56fd\u5730\u65b9\u6574\u5099\u5c40\u6d5c\u7530\u6cb3\u5ddd\u56fd\u9053\u4e8b\u52d9\u6240","boring_xml_url":47,"boring_view_url":1,"soilmap_view_url":null,"soiltest_xml_url":0,"soiltest_view_url":0},{"id":253907,"code":"B4KJ201802001-9387","latitude":"34.878528","longitude":"132.066","source_code":"CG088737390200040007","project_name":"\u6d5c\u7530\u30fb\u4e09\u9685\u9053\u8def\u897f\u6751\u5730\u533a\u5916\u5730\u8cea\u8abf\u67fb\u696d\u52d9","survey_name":"\u6d5c\u7530\u30fb\u4e09\u9685\u9053\u8def\u897f\u6751\u5730\u533a\u5916\u5730\u8cea\u8abf\u67fb\u696d\u52d9","client_name":"\u56fd\u571f\u4ea4\u901a\u7701\u4e2d\u56fd\u5730\u65b9\u6574\u5099\u5c40\u6d5c\u7530\u6cb3\u5ddd\u56fd\u9053\u4e8b\u52d9\u6240","boring_xml_url":47,"boring_view_url":1,"soilmap_view_url":null,"soiltest_xml_url":0,"soiltest_view_url":0}]}}