{"header":{"xyz":{"source":[],"mosaic":false},"page":2559,"raw":{"soiltest_result":"0","bbox":"57.598333,109.544722,1.933333,163.806111","page":"2559"},"conditions":{"soiltest_result":0,"north":57.598333,"west":109.544722,"south":1.933333,"east":163.806111},"success":true,"message":""},"data":{"meta":{"total":212844,"page":2559,"pages":7095,"count":30},"values":[{"id":253786,"code":"B4KJ201802001-9266","latitude":"35.456083","longitude":"134.359278","source_code":"CG058732400200070004","project_name":"\u6bbf\u30c0\u30e0\u4ed8\u66ff\u9053\u8def\u8a2d\u8a08\u696d\u52d9","survey_name":"\u6bbf\u30c0\u30e0\u4ed8\u66ff\u9053\u8def\u8a2d\u8a08\u696d\u52d9","client_name":"\u56fd\u571f\u4ea4\u901a\u7701 \u6bbf\u30c0\u30e0\u5de5\u4e8b\u4e8b\u52d9\u6240","boring_xml_url":47,"boring_view_url":1,"soilmap_view_url":null,"soiltest_xml_url":0,"soiltest_view_url":0},{"id":253785,"code":"B4KJ201802001-9265","latitude":"35.455861","longitude":"134.35925","source_code":"CG058732400200070003","project_name":"\u6bbf\u30c0\u30e0\u4ed8\u66ff\u9053\u8def\u8a2d\u8a08\u696d\u52d9","survey_name":"\u6bbf\u30c0\u30e0\u4ed8\u66ff\u9053\u8def\u8a2d\u8a08\u696d\u52d9","client_name":"\u56fd\u571f\u4ea4\u901a\u7701 \u6bbf\u30c0\u30e0\u5de5\u4e8b\u4e8b\u52d9\u6240","boring_xml_url":47,"boring_view_url":1,"soilmap_view_url":null,"soiltest_xml_url":0,"soiltest_view_url":0},{"id":253784,"code":"B4KJ201802001-9264","latitude":"35.440444","longitude":"134.337639","source_code":"CG058732400200070002","project_name":"\u6bbf\u30c0\u30e0\u4ed8\u66ff\u9053\u8def\u8a2d\u8a08\u696d\u52d9","survey_name":"\u6bbf\u30c0\u30e0\u4ed8\u66ff\u9053\u8def\u8a2d\u8a08\u696d\u52d9","client_name":"\u56fd\u571f\u4ea4\u901a\u7701\u4e2d\u56fd\u5730\u65b9\u6574\u5099\u5c40\u6bbf\u30c0\u30e0\u5de5\u4e8b\u4e8b\u52d9\u6240","boring_xml_url":47,"boring_view_url":1,"soilmap_view_url":null,"soiltest_xml_url":0,"soiltest_view_url":0},{"id":253783,"code":"B4KJ201802001-9263","latitude":"35.440306","longitude":"134.337389","source_code":"CG058732400200070001","project_name":"\u6bbf\u30c0\u30e0\u4ed8\u66ff\u9053\u8def\u8a2d\u8a08\u696d\u52d9","survey_name":"\u6bbf\u30c0\u30e0\u4ed8\u66ff\u9053\u8def\u8a2d\u8a08\u696d\u52d9","client_name":"\u56fd\u571f\u4ea4\u901a\u7701\u4e2d\u56fd\u5730\u65b9\u6574\u5099\u5c40\u6bbf\u30c0\u30e0\u5de5\u4e8b\u4e8b\u52d9\u6240","boring_xml_url":47,"boring_view_url":1,"soilmap_view_url":null,"soiltest_xml_url":0,"soiltest_view_url":0},{"id":253782,"code":"B4KJ201802001-9262","latitude":"35.511778","longitude":"133.131639","source_code":"CG058736400200170004","project_name":"","survey_name":"\u4e2d\u6d77\u672c\u5e84\u5730\u533a \u4fc2\u8239\u65bd\u8a2d\u8a73\u7d30\u8a2d\u8a08\u696d\u52d9","client_name":"\u4e2d\u56fd\u5730\u65b9\u6574\u5099\u5c40 \u51fa\u96f2\u6cb3\u5ddd\u4e8b\u52d9\u6240","boring_xml_url":47,"boring_view_url":1,"soilmap_view_url":null,"soiltest_xml_url":50,"soiltest_view_url":49},{"id":253781,"code":"B4KJ201802001-9261","latitude":"35.50725","longitude":"133.130972","source_code":"CG058736400200170003","project_name":"","survey_name":"\u4e2d\u6d77\u672c\u5e84\u5730\u533a \u4fc2\u8239\u65bd\u8a2d\u8a73\u7d30\u8a2d\u8a08\u696d\u52d9","client_name":"\u4e2d\u56fd\u5730\u65b9\u6574\u5099\u5c40 \u51fa\u96f2\u6cb3\u5ddd\u4e8b\u52d9\u6240","boring_xml_url":47,"boring_view_url":1,"soilmap_view_url":null,"soiltest_xml_url":50,"soiltest_view_url":49},{"id":253780,"code":"B4KJ201802001-9260","latitude":"35.509528","longitude":"133.130528","source_code":"CG058736400200170002","project_name":"","survey_name":"\u4e2d\u6d77\u672c\u5e84\u5730\u533a \u4fc2\u8239\u65bd\u8a2d\u8a73\u7d30\u8a2d\u8a08\u696d\u52d9","client_name":"\u4e2d\u56fd\u5730\u65b9\u6574\u5099\u5c40 \u51fa\u96f2\u6cb3\u5ddd\u4e8b\u52d9\u6240","boring_xml_url":47,"boring_view_url":1,"soilmap_view_url":null,"soiltest_xml_url":50,"soiltest_view_url":49},{"id":253779,"code":"B4KJ201802001-9259","latitude":"35.509472","longitude":"133.131111","source_code":"CG058736400200170001","project_name":"","survey_name":"\u4e2d\u6d77\u672c\u5e84\u5730\u533a \u4fc2\u8239\u65bd\u8a2d\u8a73\u7d30\u8a2d\u8a08\u696d\u52d9","client_name":"\u4e2d\u56fd\u5730\u65b9\u6574\u5099\u5c40 \u51fa\u96f2\u6cb3\u5ddd\u4e8b\u52d9\u6240","boring_xml_url":47,"boring_view_url":1,"soilmap_view_url":null,"soiltest_xml_url":50,"soiltest_view_url":49},{"id":253778,"code":"B4KJ201802001-9258","latitude":"35.508333","longitude":"133.604722","source_code":"CG058731610200190007","project_name":"","survey_name":"\u7434\u6d66\u5730\u533a\u5730\u8cea\u8abf\u67fb\u696d\u52d9","client_name":"\u56fd\u571f\u4ea4\u901a\u7701 \u4e2d\u56fd\u5730\u65b9\u6574\u5099\u5c40 \u5009\u5409\u6cb3\u5ddd\u56fd\u9053\u4e8b\u52d9\u6240 \u8abf\u67fb\u8a2d\u8a08\u7b2c\u4e8c\u8ab2","boring_xml_url":47,"boring_view_url":1,"soilmap_view_url":null,"soiltest_xml_url":0,"soiltest_view_url":0},{"id":253777,"code":"B4KJ201802001-9257","latitude":"35.508056","longitude":"133.605","source_code":"CG058731610200190006","project_name":"","survey_name":"\u7434\u6d66\u5730\u533a\u5730\u8cea\u8abf\u67fb\u696d\u52d9","client_name":"\u56fd\u571f\u4ea4\u901a\u7701 \u4e2d\u56fd\u5730\u65b9\u6574\u5099\u5c40 \u5009\u5409\u6cb3\u5ddd\u56fd\u9053\u4e8b\u52d9\u6240 \u8abf\u67fb\u8a2d\u8a08\u7b2c\u4e8c\u8ab2","boring_xml_url":47,"boring_view_url":1,"soilmap_view_url":null,"soiltest_xml_url":0,"soiltest_view_url":0},{"id":253776,"code":"B4KJ201802001-9256","latitude":"35.507778","longitude":"133.606944","source_code":"CG058731610200190005","project_name":"","survey_name":"\u7434\u6d66\u5730\u533a\u5730\u8cea\u8abf\u67fb\u696d\u52d9","client_name":"\u56fd\u571f\u4ea4\u901a\u7701 \u4e2d\u56fd\u5730\u65b9\u6574\u5099\u5c40 \u5009\u5409\u6cb3\u5ddd\u56fd\u9053\u4e8b\u52d9\u6240 \u8abf\u67fb\u8a2d\u8a08\u7b2c\u4e8c\u8ab2","boring_xml_url":47,"boring_view_url":1,"soilmap_view_url":null,"soiltest_xml_url":0,"soiltest_view_url":0},{"id":253775,"code":"B4KJ201802001-9255","latitude":"35.507778","longitude":"133.6075","source_code":"CG058731610200190004","project_name":"","survey_name":"\u7434\u6d66\u5730\u533a\u5730\u8cea\u8abf\u67fb\u696d\u52d9","client_name":"\u56fd\u571f\u4ea4\u901a\u7701 \u4e2d\u56fd\u5730\u65b9\u6574\u5099\u5c40 \u5009\u5409\u6cb3\u5ddd\u56fd\u9053\u4e8b\u52d9\u6240 \u8abf\u67fb\u8a2d\u8a08\u7b2c\u4e8c\u8ab2","boring_xml_url":47,"boring_view_url":1,"soilmap_view_url":null,"soiltest_xml_url":0,"soiltest_view_url":0},{"id":253774,"code":"B4KJ201802001-9254","latitude":"35.507778","longitude":"133.607778","source_code":"CG058731610200190003","project_name":"","survey_name":"\u7434\u6d66\u5730\u533a\u5730\u8cea\u8abf\u67fb\u696d\u52d9","client_name":"\u56fd\u571f\u4ea4\u901a\u7701 \u4e2d\u56fd\u5730\u65b9\u6574\u5099\u5c40 \u5009\u5409\u6cb3\u5ddd\u56fd\u9053\u4e8b\u52d9\u6240 \u8abf\u67fb\u8a2d\u8a08\u7b2c\u4e8c\u8ab2","boring_xml_url":47,"boring_view_url":1,"soilmap_view_url":null,"soiltest_xml_url":0,"soiltest_view_url":0},{"id":253773,"code":"B4KJ201802001-9253","latitude":"35.507222","longitude":"133.620556","source_code":"CG058731610200190002","project_name":"","survey_name":"\u7434\u6d66\u5730\u533a\u5730\u8cea\u8abf\u67fb\u696d\u52d9","client_name":"\u56fd\u571f\u4ea4\u901a\u7701 \u4e2d\u56fd\u5730\u65b9\u6574\u5099\u5c40 \u5009\u5409\u6cb3\u5ddd\u56fd\u9053\u4e8b\u52d9\u6240 \u8abf\u67fb\u8a2d\u8a08\u7b2c\u4e8c\u8ab2","boring_xml_url":47,"boring_view_url":1,"soilmap_view_url":null,"soiltest_xml_url":0,"soiltest_view_url":0},{"id":253772,"code":"B4KJ201802001-9252","latitude":"35.5075","longitude":"133.620833","source_code":"CG058731610200190001","project_name":"","survey_name":"\u7434\u6d66\u5730\u533a\u5730\u8cea\u8abf\u67fb\u696d\u52d9","client_name":"\u56fd\u571f\u4ea4\u901a\u7701 \u4e2d\u56fd\u5730\u65b9\u6574\u5099\u5c40 \u5009\u5409\u6cb3\u5ddd\u56fd\u9053\u4e8b\u52d9\u6240 \u8abf\u67fb\u8a2d\u8a08\u7b2c\u4e8c\u8ab2","boring_xml_url":47,"boring_view_url":1,"soilmap_view_url":null,"soiltest_xml_url":0,"soiltest_view_url":0},{"id":253771,"code":"B4KJ201802001-9251","latitude":"35.495833","longitude":"134.165556","source_code":"CG068730600200300019","project_name":"\u9ce5\u53d6\u897f\u9053\u8def\u53e4\u6d77\u5730\u533a\u5916\u5730\u8cea\u8abf\u67fb\u696d\u52d9","survey_name":"\u9ce5\u53d6\u897f\u9053\u8def\u53e4\u6d77\u5730\u533a\u5916\u5730\u8cea\u8abf\u67fb\u696d\u52d9","client_name":"\u56fd\u571f\u4ea4\u901a\u7701 \u4e2d\u56fd\u5730\u65b9\u6574\u5099\u5c40 \u9ce5\u53d6\u6cb3\u5ddd\u56fd\u9053\u4e8b\u52d9\u6240","boring_xml_url":47,"boring_view_url":1,"soilmap_view_url":null,"soiltest_xml_url":0,"soiltest_view_url":0},{"id":253770,"code":"B4KJ201802001-9250","latitude":"35.495833","longitude":"134.165556","source_code":"CG068730600200300018","project_name":"\u9ce5\u53d6\u897f\u9053\u8def\u53e4\u6d77\u5730\u533a\u5916\u5730\u8cea\u8abf\u67fb\u696d\u52d9","survey_name":"\u9ce5\u53d6\u897f\u9053\u8def\u53e4\u6d77\u5730\u533a\u5916\u5730\u8cea\u8abf\u67fb\u696d\u52d9","client_name":"\u56fd\u571f\u4ea4\u901a\u7701 \u4e2d\u56fd\u5730\u65b9\u6574\u5099\u5c40 \u9ce5\u53d6\u6cb3\u5ddd\u56fd\u9053\u4e8b\u52d9\u6240","boring_xml_url":47,"boring_view_url":1,"soilmap_view_url":null,"soiltest_xml_url":0,"soiltest_view_url":0},{"id":253769,"code":"B4KJ201802001-9249","latitude":"35.495833","longitude":"134.165556","source_code":"CG068730600200300017","project_name":"\u9ce5\u53d6\u897f\u9053\u8def\u53e4\u6d77\u5730\u533a\u5916\u5730\u8cea\u8abf\u67fb\u696d\u52d9","survey_name":"\u9ce5\u53d6\u897f\u9053\u8def\u53e4\u6d77\u5730\u533a\u5916\u5730\u8cea\u8abf\u67fb\u696d\u52d9","client_name":"\u56fd\u571f\u4ea4\u901a\u7701 \u4e2d\u56fd\u5730\u65b9\u6574\u5099\u5c40 \u9ce5\u53d6\u6cb3\u5ddd\u56fd\u9053\u4e8b\u52d9\u6240","boring_xml_url":47,"boring_view_url":1,"soilmap_view_url":null,"soiltest_xml_url":0,"soiltest_view_url":0},{"id":253768,"code":"B4KJ201802001-9248","latitude":"35.495833","longitude":"134.166111","source_code":"CG068730600200300016","project_name":"\u9ce5\u53d6\u897f\u9053\u8def\u53e4\u6d77\u5730\u533a\u5916\u5730\u8cea\u8abf\u67fb\u696d\u52d9","survey_name":"\u9ce5\u53d6\u897f\u9053\u8def\u53e4\u6d77\u5730\u533a\u5916\u5730\u8cea\u8abf\u67fb\u696d\u52d9","client_name":"\u56fd\u571f\u4ea4\u901a\u7701 \u4e2d\u56fd\u5730\u65b9\u6574\u5099\u5c40 \u9ce5\u53d6\u6cb3\u5ddd\u56fd\u9053\u4e8b\u52d9\u6240","boring_xml_url":47,"boring_view_url":1,"soilmap_view_url":null,"soiltest_xml_url":0,"soiltest_view_url":0},{"id":253767,"code":"B4KJ201802001-9247","latitude":"35.496111","longitude":"134.168333","source_code":"CG068730600200300015","project_name":"\u9ce5\u53d6\u897f\u9053\u8def\u53e4\u6d77\u5916\u5730\u8cea\u8abf\u67fb\u696d\u52d9","survey_name":"\u9ce5\u53d6\u897f\u9053\u8def\u53e4\u6d77\u5916\u5730\u8cea\u8abf\u67fb\u696d\u52d9","client_name":"\u56fd\u571f\u4ea4\u901a\u7701 \u4e2d\u56fd\u5730\u65b9\u6574\u5099\u5c40 \u9ce5\u53d6\u6cb3\u5ddd\u56fd\u9053\u4e8b\u52d9\u6240","boring_xml_url":47,"boring_view_url":1,"soilmap_view_url":null,"soiltest_xml_url":0,"soiltest_view_url":0},{"id":253766,"code":"B4KJ201802001-9246","latitude":"35.496389","longitude":"134.170278","source_code":"CG068730600200300014","project_name":"\u9ce5\u53d6\u897f\u9053\u8def\u53e4\u6d77\u5730\u533a\u5916\u5730\u8cea\u8abf\u67fb\u696d\u52d9","survey_name":"\u9ce5\u53d6\u897f\u9053\u8def\u53e4\u6d77\u5730\u533a\u5916\u5730\u8cea\u8abf\u67fb\u696d\u52d9","client_name":"\u56fd\u571f\u4ea4\u901a\u7701 \u4e2d\u56fd\u5730\u65b9\u6574\u5099\u5c40 \u9ce5\u53d6\u6cb3\u5ddd\u56fd\u9053\u4e8b\u52d9\u6240","boring_xml_url":47,"boring_view_url":1,"soilmap_view_url":null,"soiltest_xml_url":0,"soiltest_view_url":0},{"id":253765,"code":"B4KJ201802001-9245","latitude":"35.496111","longitude":"134.172222","source_code":"CG068730600200300013","project_name":"\u9ce5\u53d6\u897f\u9053\u8def\u53e4\u6d77\u5730\u533a\u5916\u5730\u8cea\u8abf\u67fb\u696d\u52d9","survey_name":"\u9ce5\u53d6\u897f\u9053\u8def\u53e4\u6d77\u5730\u533a\u5916\u5730\u8cea\u8abf\u67fb\u696d\u52d9","client_name":"\u56fd\u571f\u4ea4\u901a\u7701 \u4e2d\u56fd\u6574\u5099\u5c40 \u9ce5\u53d6\u6cb3\u5ddd\u56fd\u9053\u4e8b\u52d9\u6240","boring_xml_url":47,"boring_view_url":1,"soilmap_view_url":null,"soiltest_xml_url":0,"soiltest_view_url":0},{"id":253764,"code":"B4KJ201802001-9244","latitude":"35.496111","longitude":"134.172222","source_code":"CG068730600200300012","project_name":"\u9ce5\u53d6\u897f\u9053\u8def\u53e4\u6d77\u5730\u533a\u5916\u5730\u8cea\u8abf\u67fb\u696d\u52d9","survey_name":"\u9ce5\u53d6\u897f\u9053\u8def\u53e4\u6d77\u5730\u533a\u5916\u5730\u8cea\u8abf\u67fb\u696d\u52d9","client_name":"\u56fd\u571f\u4ea4\u901a\u7701 \u4e2d\u56fd\u5730\u65b9\u6574\u5099\u5c40 \u9ce5\u53d6\u6cb3\u5ddd\u56fd\u9053\u4e8b\u52d9\u6240","boring_xml_url":47,"boring_view_url":1,"soilmap_view_url":null,"soiltest_xml_url":0,"soiltest_view_url":0},{"id":253763,"code":"B4KJ201802001-9243","latitude":"35.489972","longitude":"134.195194","source_code":"CG068730600200300011","project_name":"\u9ce5\u53d6\u897f\u9053\u8def\u53e4\u6d77\u5730\u533a\u5916\u5730\u8cea\u8abf\u67fb\u696d\u52d9","survey_name":"\u9ce5\u53d6\u897f\u9053\u8def\u53e4\u6d77\u5730\u533a\u5916\u5730\u8cea\u8abf\u67fb\u696d\u52d9","client_name":"\u56fd\u571f\u4ea4\u901a\u7701 \u4e2d\u56fd\u5730\u65b9\u6574\u5099\u5c40 \u9ce5\u53d6\u6cb3\u5ddd\u56fd\u9053\u4e8b\u52d9\u6240","boring_xml_url":47,"boring_view_url":1,"soilmap_view_url":null,"soiltest_xml_url":0,"soiltest_view_url":0},{"id":253762,"code":"B4KJ201802001-9242","latitude":"35.490528","longitude":"134.195972","source_code":"CG068730600200300010","project_name":"\u9ce5\u53d6\u897f\u9053\u8def\u53e4\u6d77\u5730\u533a\u5916\u5730\u8cea\u8abf\u67fb\u696d\u52d9","survey_name":"\u9ce5\u53d6\u897f\u9053\u8def\u53e4\u6d77\u5730\u533a\u5916\u5730\u8cea\u8abf\u67fb\u696d\u52d9","client_name":"\u56fd\u571f\u4ea4\u901a\u7701 \u4e2d\u56fd\u5730\u65b9\u6574\u5099\u5c40 \u9ce5\u53d6\u6cb3\u5ddd\u56fd\u9053\u4e8b\u52d9\u6240","boring_xml_url":47,"boring_view_url":1,"soilmap_view_url":null,"soiltest_xml_url":0,"soiltest_view_url":0},{"id":253761,"code":"B4KJ201802001-9241","latitude":"35.490361","longitude":"134.195722","source_code":"CG068730600200300009","project_name":"\u9ce5\u53d6\u897f\u9053\u8def\u53e4\u6d77\u5730\u533a\u5916\u5730\u8cea\u8abf\u67fb\u696d\u52d9","survey_name":"\u9ce5\u53d6\u897f\u9053\u8def\u53e4\u6d77\u5730\u533a\u5916\u5730\u8cea\u8abf\u67fb\u696d\u52d9","client_name":"\u56fd\u571f\u4ea4\u901a\u7701 \u4e2d\u56fd\u5730\u65b9\u6574\u5099\u5c40 \u9ce5\u53d6\u6cb3\u5ddd\u56fd\u9053\u4e8b\u52d9\u6240","boring_xml_url":47,"boring_view_url":1,"soilmap_view_url":null,"soiltest_xml_url":0,"soiltest_view_url":0},{"id":253760,"code":"B4KJ201802001-9240","latitude":"35.490194","longitude":"134.1955","source_code":"CG068730600200300008","project_name":"\u9ce5\u53d6\u897f\u9053\u8def\u53e4\u6d77\u5730\u533a\u5916\u5730\u8cea\u8abf\u67fb\u696d\u52d9","survey_name":"\u9ce5\u53d6\u897f\u9053\u8def\u53e4\u6d77\u5730\u533a\u5916\u5730\u8cea\u8abf\u67fb\u696d\u52d9","client_name":"\u56fd\u571f\u4ea4\u901a\u7701\u4e2d\u56fd\u5730\u65b9\u6574\u5099\u5c40\u9ce5\u53d6\u6cb3\u5ddd\u56fd\u9053\u4e8b\u52d9\u6240","boring_xml_url":47,"boring_view_url":1,"soilmap_view_url":null,"soiltest_xml_url":0,"soiltest_view_url":0},{"id":253759,"code":"B4KJ201802001-9239","latitude":"35.489611","longitude":"134.195556","source_code":"CG068730600200300007","project_name":"\u9ce5\u53d6\u897f\u9053\u8def\u53e4\u6d77\u5730\u533a\u5916\u5730\u8cea\u8abf\u67fb\u696d\u52d9","survey_name":"\u9ce5\u53d6\u897f\u9053\u8def\u53e4\u6d77\u5730\u533a\u5916\u5730\u8cea\u8abf\u67fb\u696d\u52d9","client_name":"\u56fd\u571f\u4ea4\u901a\u7701\u4e2d\u56fd\u5730\u65b9\u6574\u5099\u5c40\u9ce5\u53d6\u6cb3\u5ddd\u56fd\u9053\u4e8b\u52d9\u6240","boring_xml_url":47,"boring_view_url":1,"soilmap_view_url":null,"soiltest_xml_url":0,"soiltest_view_url":0},{"id":253758,"code":"B4KJ201802001-9238","latitude":"35.489778","longitude":"134.195889","source_code":"CG068730600200300006","project_name":"\u9ce5\u53d6\u897f\u9053\u8def\u53e4\u6d77\u5730\u533a\u5916\u5730\u8cea\u8abf\u67fb\u696d\u52d9","survey_name":"\u9ce5\u53d6\u897f\u9053\u8def\u53e4\u6d77\u5730\u533a\u5916\u5730\u8cea\u8abf\u67fb\u696d\u52d9","client_name":"\u56fd\u571f\u4ea4\u901a\u7701\u4e2d\u56fd\u5730\u65b9\u6574\u5099\u5c40\u9ce5\u53d6\u6cb3\u5ddd\u56fd\u9053\u4e8b\u52d9\u6240","boring_xml_url":47,"boring_view_url":1,"soilmap_view_url":null,"soiltest_xml_url":0,"soiltest_view_url":0},{"id":253757,"code":"B4KJ201802001-9237","latitude":"35.489889","longitude":"134.196083","source_code":"CG068730600200300005","project_name":"\u9ce5\u53d6\u897f\u9053\u8def\u53e4\u6d77\u5730\u533a\u5916\u5730\u8cea\u8abf\u67fb\u696d\u52d9","survey_name":"\u9ce5\u53d6\u897f\u9053\u8def\u53e4\u6d77\u5730\u533a\u5916\u5730\u8cea\u8abf\u67fb\u696d\u52d9","client_name":"\u56fd\u571f\u4ea4\u901a\u7701 \u4e2d\u56fd\u5730\u65b9\u6574\u5099\u5c40 \u9ce5\u53d6\u6cb3\u5ddd\u56fd\u9053\u4e8b\u52d9\u6240","boring_xml_url":47,"boring_view_url":1,"soilmap_view_url":null,"soiltest_xml_url":0,"soiltest_view_url":0}]}}