{"header":{"xyz":{"source":[],"mosaic":false},"page":2560,"raw":{"soiltest_result":"0","bbox":"57.598333,109.544722,1.933333,163.806111","page":"2560"},"conditions":{"soiltest_result":0,"north":57.598333,"west":109.544722,"south":1.933333,"east":163.806111},"success":true,"message":""},"data":{"meta":{"total":212844,"page":2560,"pages":7095,"count":30},"values":[{"id":253756,"code":"B4KJ201802001-9236","latitude":"35.489056","longitude":"134.196139","source_code":"CG068730600200300004","project_name":"\u9ce5\u53d6\u897f\u9053\u8def\u53e4\u6d77\u5730\u533a\u5916\u5730\u8cea\u8abf\u67fb\u696d\u52d9","survey_name":"\u9ce5\u53d6\u897f\u9053\u8def\u53e4\u6d77\u5730\u533a\u5916\u5730\u8cea\u8abf\u67fb\u696d\u52d9","client_name":"\u56fd\u571f\u4ea4\u901a\u7701 \u4e2d\u56fd\u5730\u65b9\u6574\u5099\u5c40 \u9ce5\u53d6\u6cb3\u5ddd\u56fd\u9053\u4e8b\u52d9\u6240","boring_xml_url":47,"boring_view_url":1,"soilmap_view_url":null,"soiltest_xml_url":0,"soiltest_view_url":0},{"id":253755,"code":"B4KJ201802001-9235","latitude":"35.489167","longitude":"134.196361","source_code":"CG068730600200300003","project_name":"\u9ce5\u53d6\u897f\u9053\u8def\u53e4\u6d77\u5730\u533a\u5916\u5730\u8cea\u8abf\u67fb\u696d\u52d9","survey_name":"\u9ce5\u53d6\u897f\u9053\u8def\u53e4\u6d77\u5730\u533a\u5916\u5730\u8cea\u8abf\u67fb\u696d\u52d9","client_name":"\u56fd\u571f\u4ea4\u901a\u7701 \u4e2d\u56fd\u5730\u65b9\u6574\u5099\u5c40 \u9ce5\u53d6\u6cb3\u5ddd\u56fd\u9053\u4e8b\u52d9\u6240","boring_xml_url":47,"boring_view_url":1,"soilmap_view_url":null,"soiltest_xml_url":0,"soiltest_view_url":0},{"id":253754,"code":"B4KJ201802001-9234","latitude":"35.488528","longitude":"134.19625","source_code":"CG068730600200300002","project_name":"\u9ce5\u53d6\u897f\u9053\u8def\u53e4\u6d77\u5730\u533a\u5916\u5730\u8cea\u8abf\u67fb\u696d\u52d9","survey_name":"\u9ce5\u53d6\u897f\u9053\u8def\u53e4\u6d77\u5730\u533a\u5916\u5730\u8cea\u8abf\u67fb\u696d\u52d9","client_name":"\u56fd\u571f\u4ea4\u901a\u7701 \u4e2d\u56fd\u5730\u65b9\u6574\u5099\u5c40 \u9ce5\u53d6\u6cb3\u5ddd\u56fd\u9053\u4e8b\u52d9\u6240","boring_xml_url":47,"boring_view_url":1,"soilmap_view_url":null,"soiltest_xml_url":0,"soiltest_view_url":0},{"id":253753,"code":"B4KJ201802001-9233","latitude":"35.488667","longitude":"134.196639","source_code":"CG068730600200300001","project_name":"\u9ce5\u53d6\u897f\u9053\u8def\u53e4\u6d77\u5730\u533a\u5916\u5730\u8cea\u8abf\u67fb\u696d\u52d9","survey_name":"\u9ce5\u53d6\u897f\u9053\u8def\u53e4\u6d77\u5730\u533a\u5916\u5730\u8cea\u8abf\u67fb\u696d\u52d9","client_name":"\u56fd\u571f\u4ea4\u901a\u7701 \u4e2d\u56fd\u5730\u65b9\u6574\u5099\u5c40 \u9ce5\u53d6\u6cb3\u5ddd\u56fd\u9053\u4e8b\u52d9\u6240","boring_xml_url":47,"boring_view_url":1,"soilmap_view_url":null,"soiltest_xml_url":0,"soiltest_view_url":0},{"id":253752,"code":"B4KJ201802001-9232","latitude":"34.009611","longitude":"130.916667","source_code":"CG078760620200240041","project_name":"","survey_name":"\u4e0b\u95a2\u5317\u30d0\u30a4\u30d1\u30b9\u5730\u8cea\u8abf\u67fb\u696d\u52d9","client_name":"\u56fd\u571f\u4ea4\u901a\u7701\u4e2d\u56fd\u5730\u65b9\u6574\u5099\u5c40\u5c71\u53e3\u6cb3\u5ddd\u56fd\u9053\u4e8b\u52d9\u6240\u8abf\u67fb\u8a2d\u8a08\u4e8c\u8ab2","boring_xml_url":47,"boring_view_url":1,"soilmap_view_url":null,"soiltest_xml_url":50,"soiltest_view_url":49},{"id":253751,"code":"B4KJ201802001-9231","latitude":"34.009611","longitude":"130.916194","source_code":"CG078760620200240040","project_name":"","survey_name":"\u4e0b\u95a2\u5317\u30d0\u30a4\u30d1\u30b9\u5730\u8cea\u8abf\u67fb\u696d\u52d9","client_name":"\u56fd\u571f\u4ea4\u901a\u7701\u4e2d\u56fd\u5730\u65b9\u6574\u5099\u5c40\u5c71\u53e3\u6cb3\u5ddd\u56fd\u9053\u4e8b\u52d9\u6240\u8abf\u67fb\u8a2d\u8a08\u4e8c\u8ab2","boring_xml_url":47,"boring_view_url":1,"soilmap_view_url":null,"soiltest_xml_url":0,"soiltest_view_url":0},{"id":253750,"code":"B4KJ201802001-9230","latitude":"34.009056","longitude":"130.916333","source_code":"CG078760620200240039","project_name":"","survey_name":"\u4e0b\u95a2\u5317\u30d0\u30a4\u30d1\u30b9\u5730\u8cea\u8abf\u67fb\u696d\u52d9","client_name":"\u56fd\u571f\u4ea4\u901a\u7701\u4e2d\u56fd\u5730\u65b9\u6574\u5099\u5c40\u5c71\u53e3\u6cb3\u5ddd\u56fd\u9053\u4e8b\u52d9\u6240\u8abf\u67fb\u8a2d\u8a08\u4e8c\u8ab2","boring_xml_url":47,"boring_view_url":1,"soilmap_view_url":null,"soiltest_xml_url":0,"soiltest_view_url":0},{"id":253749,"code":"B4KJ201802001-9229","latitude":"34.00875","longitude":"130.916306","source_code":"CG078760620200240038","project_name":"","survey_name":"\u4e0b\u95a2\u5317\u30d0\u30a4\u30d1\u30b9\u5730\u8cea\u8abf\u67fb\u696d\u52d9","client_name":"\u56fd\u571f\u4ea4\u901a\u7701\u4e2d\u56fd\u5730\u65b9\u6574\u5099\u5c40\u5c71\u53e3\u6cb3\u5ddd\u56fd\u9053\u4e8b\u52d9\u6240\u8abf\u67fb\u8a2d\u8a08\u4e8c\u8ab2","boring_xml_url":47,"boring_view_url":1,"soilmap_view_url":null,"soiltest_xml_url":0,"soiltest_view_url":0},{"id":253748,"code":"B4KJ201802001-9228","latitude":"34.0085","longitude":"130.91625","source_code":"CG078760620200240037","project_name":"","survey_name":"\u4e0b\u95a2\u5317\u30d0\u30a4\u30d1\u30b9\u5730\u8cea\u8abf\u67fb\u696d\u52d9","client_name":"\u56fd\u571f\u4ea4\u901a\u7701\u4e2d\u56fd\u5730\u65b9\u6574\u5099\u5c40\u5c71\u53e3\u6cb3\u5ddd\u56fd\u9053\u4e8b\u52d9\u6240\u8abf\u67fb\u8a2d\u8a08\u4e8c\u8ab2","boring_xml_url":47,"boring_view_url":1,"soilmap_view_url":null,"soiltest_xml_url":50,"soiltest_view_url":49},{"id":253747,"code":"B4KJ201802001-9227","latitude":"34.007556","longitude":"130.915972","source_code":"CG078760620200240036","project_name":"","survey_name":"\u4e0b\u95a2\u5317\u30d0\u30a4\u30d1\u30b9\u5730\u8cea\u8abf\u67fb\u696d\u52d9","client_name":"\u56fd\u571f\u4ea4\u901a\u7701\u4e2d\u56fd\u5730\u65b9\u6574\u5099\u5c40\u5c71\u53e3\u6cb3\u5ddd\u56fd\u9053\u4e8b\u52d9\u6240\u8abf\u67fb\u8a2d\u8a08\u4e8c\u8ab2","boring_xml_url":47,"boring_view_url":1,"soilmap_view_url":null,"soiltest_xml_url":0,"soiltest_view_url":0},{"id":253746,"code":"B4KJ201802001-9226","latitude":"34.007333","longitude":"130.915917","source_code":"CG078760620200240035","project_name":"","survey_name":"\u4e0b\u95a2\u5317\u30d0\u30a4\u30d1\u30b9\u5730\u8cea\u8abf\u67fb\u696d\u52d9","client_name":"\u56fd\u571f\u4ea4\u901a\u7701\u4e2d\u56fd\u5730\u65b9\u6574\u5099\u5c40\u5c71\u53e3\u6cb3\u5ddd\u56fd\u9053\u4e8b\u52d9\u6240\u8abf\u67fb\u8a2d\u8a08\u4e8c\u8ab2","boring_xml_url":47,"boring_view_url":1,"soilmap_view_url":null,"soiltest_xml_url":50,"soiltest_view_url":49},{"id":253745,"code":"B4KJ201802001-9225","latitude":"34.006694","longitude":"130.915694","source_code":"CG078760620200240034","project_name":"","survey_name":"\u4e0b\u95a2\u5317\u30d0\u30a4\u30d1\u30b9\u5730\u8cea\u8abf\u67fb\u696d\u52d9","client_name":"\u56fd\u571f\u4ea4\u901a\u7701\u4e2d\u56fd\u5730\u65b9\u6574\u5099\u5c40\u5c71\u53e3\u6cb3\u5ddd\u56fd\u9053\u4e8b\u52d9\u6240\u8abf\u67fb\u8a2d\u8a08\u4e8c\u8ab2","boring_xml_url":47,"boring_view_url":1,"soilmap_view_url":null,"soiltest_xml_url":0,"soiltest_view_url":0},{"id":253744,"code":"B4KJ201802001-9224","latitude":"34.006528","longitude":"130.915639","source_code":"CG078760620200240033","project_name":"","survey_name":"\u4e0b\u95a2\u5317\u30d0\u30a4\u30d1\u30b9\u5730\u8cea\u8abf\u67fb\u696d\u52d9","client_name":"\u56fd\u571f\u4ea4\u901a\u7701\u4e2d\u56fd\u5730\u65b9\u6574\u5099\u5c40\u5c71\u53e3\u6cb3\u5ddd\u56fd\u9053\u4e8b\u52d9\u6240\u8abf\u67fb\u8a2d\u8a08\u4e8c\u8ab2","boring_xml_url":47,"boring_view_url":1,"soilmap_view_url":null,"soiltest_xml_url":0,"soiltest_view_url":0},{"id":253743,"code":"B4KJ201802001-9223","latitude":"34.005861","longitude":"130.915472","source_code":"CG078760620200240032","project_name":"","survey_name":"\u4e0b\u95a2\u5317\u30d0\u30a4\u30d1\u30b9\u5730\u8cea\u8abf\u67fb\u696d\u52d9","client_name":"\u56fd\u571f\u4ea4\u901a\u7701\u4e2d\u56fd\u5730\u65b9\u6574\u5099\u5c40\u5c71\u53e3\u6cb3\u5ddd\u56fd\u9053\u4e8b\u52d9\u6240\u8abf\u67fb\u8a2d\u8a08\u4e8c\u8ab2","boring_xml_url":47,"boring_view_url":1,"soilmap_view_url":null,"soiltest_xml_url":0,"soiltest_view_url":0},{"id":253742,"code":"B4KJ201802001-9222","latitude":"34.005306","longitude":"130.915306","source_code":"CG078760620200240031","project_name":"","survey_name":"\u4e0b\u95a2\u5317\u30d0\u30a4\u30d1\u30b9\u5730\u8cea\u8abf\u67fb\u696d\u52d9","client_name":"\u56fd\u571f\u4ea4\u901a\u7701\u4e2d\u56fd\u5730\u65b9\u6574\u5099\u5c40\u5c71\u53e3\u6cb3\u5ddd\u56fd\u9053\u4e8b\u52d9\u6240\u8abf\u67fb\u8a2d\u8a08\u4e8c\u8ab2","boring_xml_url":47,"boring_view_url":1,"soilmap_view_url":null,"soiltest_xml_url":0,"soiltest_view_url":0},{"id":253741,"code":"B4KJ201802001-9221","latitude":"34.005139","longitude":"130.915222","source_code":"CG078760620200240030","project_name":"","survey_name":"\u4e0b\u95a2\u5317\u30d0\u30a4\u30d1\u30b9\u5730\u8cea\u8abf\u67fb\u696d\u52d9","client_name":"\u56fd\u571f\u4ea4\u901a\u7701\u4e2d\u56fd\u5730\u65b9\u6574\u5099\u5c40\u5c71\u53e3\u6cb3\u5ddd\u56fd\u9053\u4e8b\u52d9\u6240\u8abf\u67fb\u8a2d\u8a08\u4e8c\u8ab2","boring_xml_url":47,"boring_view_url":1,"soilmap_view_url":null,"soiltest_xml_url":50,"soiltest_view_url":49},{"id":253740,"code":"B4KJ201802001-9220","latitude":"34.004389","longitude":"130.915139","source_code":"CG078760620200240029","project_name":"","survey_name":"\u4e0b\u95a2\u5317\u30d0\u30a4\u30d1\u30b9\u5730\u8cea\u8abf\u67fb\u696d\u52d9","client_name":"\u56fd\u571f\u4ea4\u901a\u7701\u4e2d\u56fd\u5730\u65b9\u6574\u5099\u5c40\u5c71\u53e3\u6cb3\u5ddd\u56fd\u9053\u4e8b\u52d9\u6240\u8abf\u67fb\u8a2d\u8a08\u4e8c\u8ab2","boring_xml_url":47,"boring_view_url":1,"soilmap_view_url":null,"soiltest_xml_url":50,"soiltest_view_url":49},{"id":253739,"code":"B4KJ201802001-9219","latitude":"34.004","longitude":"130.915111","source_code":"CG078760620200240028","project_name":"","survey_name":"\u4e0b\u95a2\u5317\u30d0\u30a4\u30d1\u30b9\u5730\u8cea\u8abf\u67fb\u696d\u52d9","client_name":"\u56fd\u571f\u4ea4\u901a\u7701\u4e2d\u56fd\u5730\u65b9\u6574\u5099\u5c40\u5c71\u53e3\u6cb3\u5ddd\u56fd\u9053\u4e8b\u52d9\u6240\u8abf\u67fb\u8a2d\u8a08\u4e8c\u8ab2","boring_xml_url":47,"boring_view_url":1,"soilmap_view_url":null,"soiltest_xml_url":0,"soiltest_view_url":0},{"id":253738,"code":"B4KJ201802001-9218","latitude":"34.003833","longitude":"130.915111","source_code":"CG078760620200240027","project_name":"","survey_name":"\u4e0b\u95a2\u5317\u30d0\u30a4\u30d1\u30b9\u5730\u8cea\u8abf\u67fb\u696d\u52d9","client_name":"\u56fd\u571f\u4ea4\u901a\u7701\u4e2d\u56fd\u5730\u65b9\u6574\u5099\u5c40\u5c71\u53e3\u6cb3\u5ddd\u56fd\u9053\u4e8b\u52d9\u6240\u8abf\u67fb\u8a2d\u8a08\u4e8c\u8ab2","boring_xml_url":47,"boring_view_url":1,"soilmap_view_url":null,"soiltest_xml_url":0,"soiltest_view_url":0},{"id":253737,"code":"B4KJ201802001-9217","latitude":"34.003639","longitude":"130.915111","source_code":"CG078760620200240026","project_name":"","survey_name":"\u4e0b\u95a2\u5317\u30d0\u30a4\u30d1\u30b9\u5730\u8cea\u8abf\u67fb\u696d\u52d9","client_name":"\u56fd\u571f\u4ea4\u901a\u7701\u4e2d\u56fd\u5730\u65b9\u6574\u5099\u5c40\u5c71\u53e3\u6cb3\u5ddd\u56fd\u9053\u4e8b\u52d9\u6240\u8abf\u67fb\u8a2d\u8a08\u4e8c\u8ab2","boring_xml_url":47,"boring_view_url":1,"soilmap_view_url":null,"soiltest_xml_url":0,"soiltest_view_url":0},{"id":253736,"code":"B4KJ201802001-9216","latitude":"34.003472","longitude":"130.915083","source_code":"CG078760620200240025","project_name":"","survey_name":"\u4e0b\u95a2\u5317\u30d0\u30a4\u30d1\u30b9\u5730\u8cea\u8abf\u67fb\u696d\u52d9","client_name":"\u56fd\u571f\u4ea4\u901a\u7701\u4e2d\u56fd\u5730\u65b9\u6574\u5099\u5c40\u5c71\u53e3\u6cb3\u5ddd\u56fd\u9053\u4e8b\u52d9\u6240\u8abf\u67fb\u8a2d\u8a08\u4e8c\u8ab2","boring_xml_url":47,"boring_view_url":1,"soilmap_view_url":null,"soiltest_xml_url":50,"soiltest_view_url":49},{"id":253735,"code":"B4KJ201802001-9215","latitude":"34.003306","longitude":"130.915333","source_code":"CG078760620200240024","project_name":"","survey_name":"\u4e0b\u95a2\u5317\u30d0\u30a4\u30d1\u30b9\u5730\u8cea\u8abf\u67fb\u696d\u52d9","client_name":"\u56fd\u571f\u4ea4\u901a\u7701\u4e2d\u56fd\u5730\u65b9\u6574\u5099\u5c40\u5c71\u53e3\u6cb3\u5ddd\u56fd\u9053\u4e8b\u52d9\u6240\u8abf\u67fb\u8a2d\u8a08\u4e8c\u8ab2","boring_xml_url":47,"boring_view_url":1,"soilmap_view_url":null,"soiltest_xml_url":50,"soiltest_view_url":49},{"id":253734,"code":"B4KJ201802001-9214","latitude":"34.003361","longitude":"130.914806","source_code":"CG078760620200240023","project_name":"","survey_name":"\u4e0b\u95a2\u5317\u30d0\u30a4\u30d1\u30b9\u5730\u8cea\u8abf\u67fb\u696d\u52d9","client_name":"\u56fd\u571f\u4ea4\u901a\u7701\u4e2d\u56fd\u5730\u65b9\u6574\u5099\u5c40\u5c71\u53e3\u6cb3\u5ddd\u56fd\u9053\u4e8b\u52d9\u6240\u8abf\u67fb\u8a2d\u8a08\u4e8c\u8ab2","boring_xml_url":47,"boring_view_url":1,"soilmap_view_url":null,"soiltest_xml_url":50,"soiltest_view_url":49},{"id":253733,"code":"B4KJ201802001-9213","latitude":"34.003194","longitude":"130.914917","source_code":"CG078760620200240022","project_name":"","survey_name":"\u4e0b\u95a2\u5317\u30d0\u30a4\u30d1\u30b9\u5730\u8cea\u8abf\u67fb\u696d\u52d9","client_name":"\u56fd\u571f\u4ea4\u901a\u7701\u4e2d\u56fd\u5730\u65b9\u6574\u5099\u5c40\u5c71\u53e3\u6cb3\u5ddd\u56fd\u9053\u4e8b\u52d9\u6240\u8abf\u67fb\u8a2d\u8a08\u4e8c\u8ab2","boring_xml_url":47,"boring_view_url":1,"soilmap_view_url":null,"soiltest_xml_url":0,"soiltest_view_url":0},{"id":253732,"code":"B4KJ201802001-9212","latitude":"34.003083","longitude":"130.914778","source_code":"CG078760620200240021","project_name":"","survey_name":"\u4e0b\u95a2\u5317\u30d0\u30a4\u30d1\u30b9\u5730\u8cea\u8abf\u67fb\u696d\u52d9","client_name":"\u56fd\u571f\u4ea4\u901a\u7701\u4e2d\u56fd\u5730\u65b9\u6574\u5099\u5c40\u5c71\u53e3\u6cb3\u5ddd\u56fd\u9053\u4e8b\u52d9\u6240\u8abf\u67fb\u8a2d\u8a08\u4e8c\u8ab2","boring_xml_url":47,"boring_view_url":1,"soilmap_view_url":null,"soiltest_xml_url":0,"soiltest_view_url":0},{"id":253731,"code":"B4KJ201802001-9211","latitude":"34.003028","longitude":"130.915361","source_code":"CG078760620200240020","project_name":"","survey_name":"\u4e0b\u95a2\u5317\u30d0\u30a4\u30d1\u30b9\u5730\u8cea\u8abf\u67fb\u696d\u52d9","client_name":"\u56fd\u571f\u4ea4\u901a\u7701\u4e2d\u56fd\u5730\u65b9\u6574\u5099\u5c40\u5c71\u53e3\u6cb3\u5ddd\u56fd\u9053\u4e8b\u52d9\u6240\u8abf\u67fb\u8a2d\u8a08\u4e8c\u8ab2","boring_xml_url":47,"boring_view_url":1,"soilmap_view_url":null,"soiltest_xml_url":0,"soiltest_view_url":0},{"id":253730,"code":"B4KJ201802001-9210","latitude":"34.003","longitude":"130.915028","source_code":"CG078760620200240019","project_name":"","survey_name":"\u4e0b\u95a2\u5317\u30d0\u30a4\u30d1\u30b9\u5730\u8cea\u8abf\u67fb\u696d\u52d9","client_name":"\u56fd\u571f\u4ea4\u901a\u7701\u4e2d\u56fd\u5730\u65b9\u6574\u5099\u5c40\u5c71\u53e3\u6cb3\u5ddd\u56fd\u9053\u4e8b\u52d9\u6240\u8abf\u67fb\u8a2d\u8a08\u4e8c\u8ab2","boring_xml_url":47,"boring_view_url":1,"soilmap_view_url":null,"soiltest_xml_url":0,"soiltest_view_url":0},{"id":253729,"code":"B4KJ201802001-9209","latitude":"34.00275","longitude":"130.915083","source_code":"CG078760620200240018","project_name":"","survey_name":"\u4e0b\u95a2\u5317\u30d0\u30a4\u30d1\u30b9\u5730\u8cea\u8abf\u67fb\u696d\u52d9","client_name":"\u56fd\u571f\u4ea4\u901a\u7701\u4e2d\u56fd\u5730\u65b9\u6574\u5099\u5c40\u5c71\u53e3\u6cb3\u5ddd\u56fd\u9053\u4e8b\u52d9\u6240\u8abf\u67fb\u8a2d\u8a08\u4e8c\u8ab2","boring_xml_url":47,"boring_view_url":1,"soilmap_view_url":null,"soiltest_xml_url":0,"soiltest_view_url":0},{"id":253728,"code":"B4KJ201802001-9208","latitude":"34.00275","longitude":"130.915389","source_code":"CG078760620200240017","project_name":"","survey_name":"\u4e0b\u95a2\u5317\u30d0\u30a4\u30d1\u30b9\u5730\u8cea\u8abf\u67fb\u696d\u52d9","client_name":"\u56fd\u571f\u4ea4\u901a\u7701\u4e2d\u56fd\u5730\u65b9\u6574\u5099\u5c40\u5c71\u53e3\u6cb3\u5ddd\u56fd\u9053\u4e8b\u52d9\u6240\u8abf\u67fb\u8a2d\u8a08\u4e8c\u8ab2","boring_xml_url":47,"boring_view_url":1,"soilmap_view_url":null,"soiltest_xml_url":0,"soiltest_view_url":0},{"id":253727,"code":"B4KJ201802001-9207","latitude":"34.0025","longitude":"130.914778","source_code":"CG078760620200240016","project_name":"","survey_name":"\u4e0b\u95a2\u5317\u30d0\u30a4\u30d1\u30b9\u5730\u8cea\u8abf\u67fb\u696d\u52d9","client_name":"\u56fd\u571f\u4ea4\u901a\u7701\u4e2d\u56fd\u5730\u65b9\u6574\u5099\u5c40\u5c71\u53e3\u6cb3\u5ddd\u56fd\u9053\u4e8b\u52d9\u6240\u8abf\u67fb\u8a2d\u8a08\u4e8c\u8ab2","boring_xml_url":47,"boring_view_url":1,"soilmap_view_url":null,"soiltest_xml_url":0,"soiltest_view_url":0}]}}