{"header":{"xyz":{"source":[],"mosaic":false},"page":2569,"raw":{"soiltest_result":"0","bbox":"57.598333,109.544722,1.933333,163.806111","page":"2569"},"conditions":{"soiltest_result":0,"north":57.598333,"west":109.544722,"south":1.933333,"east":163.806111},"success":true,"message":""},"data":{"meta":{"total":212844,"page":2569,"pages":7095,"count":30},"values":[{"id":253486,"code":"B4KJ201802001-8966","latitude":"35.4745","longitude":"134.22275","source_code":"CG058730410200210003","project_name":"\u6d25\u30ce\u4e95\u30d0\u30a4\u30d1\u30b9\u5bae\u9577\u5730\u533a\u5730\u8cea\u8abf\u67fb\u696d\u52d9","survey_name":"\u6d25\u30ce\u4e95\u30d0\u30a4\u30d1\u30b9\u5bae\u9577\u5730\u533a\u5730\u8cea\u8abf\u67fb\u696d\u52d9","client_name":"\u56fd\u571f\u4ea4\u901a\u7701\u4e2d\u56fd\u5730\u65b9\u6574\u5099\u5c40\u9ce5\u53d6\u6cb3\u5ddd\u56fd\u9053\u4e8b\u52d9\u6240","boring_xml_url":47,"boring_view_url":1,"soilmap_view_url":null,"soiltest_xml_url":50,"soiltest_view_url":49},{"id":253485,"code":"B4KJ201802001-8965","latitude":"35.474306","longitude":"134.223444","source_code":"CG058730410200210002","project_name":"\u6d25\u30ce\u4e95\u30d0\u30a4\u30d1\u30b9\u5bae\u9577\u5730\u533a\u5730\u8cea\u8abf\u67fb\u696d\u52d9","survey_name":"\u6d25\u30ce\u4e95\u30d0\u30a4\u30d1\u30b9\u5bae\u9577\u5730\u533a\u5730\u8cea\u8abf\u67fb\u696d\u52d9","client_name":"\u56fd\u571f\u4ea4\u901a\u7701\u4e2d\u56fd\u5730\u65b9\u6574\u5099\u5c40\u9ce5\u53d6\u6cb3\u5ddd\u56fd\u9053\u4e8b\u52d9\u6240","boring_xml_url":47,"boring_view_url":1,"soilmap_view_url":null,"soiltest_xml_url":50,"soiltest_view_url":49},{"id":253484,"code":"B4KJ201802001-8964","latitude":"35.474139","longitude":"134.223944","source_code":"CG058730410200210001","project_name":"\u6d25\u30ce\u4e95\u30d0\u30a4\u30d1\u30b9\u5bae\u9577\u5730\u533a\u5730\u8cea\u8abf\u67fb\u696d\u52d9","survey_name":"\u6d25\u30ce\u4e95\u30d0\u30a4\u30d1\u30b9\u5bae\u9577\u5730\u533a\u5730\u8cea\u8abf\u67fb\u696d\u52d9","client_name":"\u56fd\u571f\u4ea4\u901a\u7701\u4e2d\u56fd\u5730\u65b9\u6574\u5099\u5c40\u9ce5\u53d6\u6cb3\u5ddd\u56fd\u9053\u4e8b\u52d9\u6240","boring_xml_url":47,"boring_view_url":1,"soilmap_view_url":null,"soiltest_xml_url":50,"soiltest_view_url":49},{"id":253483,"code":"B4KJ201802001-8963","latitude":"35.508639","longitude":"133.130833","source_code":"CG058736400200300002","project_name":"","survey_name":"\u4e2d\u6d77\u672c\u5e84\u5730\u533a\u672c\u5e84\u5ddd\u6a0b\u9580\u8a73\u7d30\u8a2d\u8a08\u696d\u52d9","client_name":"\u56fd\u571f\u4ea4\u901a\u7701\u4e2d\u56fd\u5730\u65b9\u6574\u5099\u5c40\u51fa\u96f2\u6cb3\u5ddd\u4e8b\u52d9\u6240","boring_xml_url":47,"boring_view_url":1,"soilmap_view_url":null,"soiltest_xml_url":50,"soiltest_view_url":49},{"id":253482,"code":"B4KJ201802001-8962","latitude":"35.508639","longitude":"133.130583","source_code":"CG058736400200300001","project_name":"","survey_name":"\u4e2d\u6d77\u672c\u5e84\u5730\u533a\u672c\u5e84\u5ddd\u6a0b\u9580\u8a73\u7d30\u8a2d\u8a08\u696d\u52d9","client_name":"\u56fd\u571f\u4ea4\u901a\u7701\u4e2d\u56fd\u5730\u65b9\u6574\u5099\u5c40\u51fa\u96f2\u6cb3\u5ddd\u4e8b\u52d9\u6240","boring_xml_url":47,"boring_view_url":1,"soilmap_view_url":null,"soiltest_xml_url":50,"soiltest_view_url":49},{"id":253481,"code":"B4KJ201802001-8961","latitude":"34.077222","longitude":"131.776639","source_code":"CG078760540200040002","project_name":"","survey_name":"\u5c71\u53e3\u770c\u6771\u90e8\u5730\u533a\u9632\u707d\u8a2d\u8a08\u696d\u52d9","client_name":"\u56fd\u571f\u4ea4\u901a\u7701\u4e2d\u56fd\u5730\u65b9\u6574\u5099\u5c40\u5c71\u53e3\u6cb3\u5ddd\u56fd\u9053\u4e8b\u52d9\u6240","boring_xml_url":47,"boring_view_url":1,"soilmap_view_url":null,"soiltest_xml_url":0,"soiltest_view_url":0},{"id":253480,"code":"B4KJ201802001-8960","latitude":"34.07725","longitude":"131.776667","source_code":"CG078760540200040001","project_name":"","survey_name":"\u5c71\u53e3\u770c\u6771\u90e8\u5730\u533a\u9632\u707d\u8a2d\u8a08\u696d\u52d9","client_name":"\u56fd\u571f\u4ea4\u901a\u7701\u4e2d\u56fd\u5730\u65b9\u6574\u5099\u5c40\u5c71\u53e3\u6cb3\u5ddd\u56fd\u9053\u4e8b\u52d9\u6240","boring_xml_url":47,"boring_view_url":1,"soilmap_view_url":null,"soiltest_xml_url":0,"soiltest_view_url":0},{"id":253479,"code":"B4KJ201802001-8959","latitude":"34.091167","longitude":"132.035167","source_code":"CG078760550200130002","project_name":"","survey_name":"\u897f\u9577\u91ce\u5730\u533a\u6b69\u9053\u8a2d\u8a08\u5916\u696d\u52d9","client_name":"\u56fd\u571f\u4ea4\u901a\u7701\u4e2d\u56fd\u5730\u65b9\u6574\u5099\u5c40 \u5c71\u53e3\u6cb3\u5ddd\u56fd\u9053\u4e8b\u52d9\u6240","boring_xml_url":47,"boring_view_url":1,"soilmap_view_url":null,"soiltest_xml_url":0,"soiltest_view_url":0},{"id":253478,"code":"B4KJ201802001-8958","latitude":"34.091389","longitude":"132.037194","source_code":"CG078760550200130001","project_name":"","survey_name":"\u897f\u9577\u91ce\u5730\u533a\u6b69\u9053\u8a2d\u8a08\u5916\u696d\u52d9","client_name":"\u56fd\u571f\u4ea4\u901a\u7701\u4e2d\u56fd\u5730\u65b9\u6574\u5099\u5c40 \u5c71\u53e3\u6cb3\u5ddd\u56fd\u9053\u4e8b\u52d9\u6240","boring_xml_url":47,"boring_view_url":1,"soilmap_view_url":null,"soiltest_xml_url":0,"soiltest_view_url":0},{"id":253477,"code":"B4KJ201802001-8957","latitude":"34.452306","longitude":"131.420556","source_code":"CG078760540200030004","project_name":"","survey_name":"\u5c71\u53e3\u770c\u897f\u90e8\u5730\u533a\u9632\u707d\u8a2d\u8a08\u696d\u52d9","client_name":"\u56fd\u571f\u4ea4\u901a\u7701\u4e2d\u56fd\u5730\u65b9\u6574\u5099\u5c40\u5c71\u53e3\u6cb3\u5ddd\u56fd\u9053\u4e8b\u52d9\u6240","boring_xml_url":47,"boring_view_url":1,"soilmap_view_url":null,"soiltest_xml_url":0,"soiltest_view_url":0},{"id":253476,"code":"B4KJ201802001-8956","latitude":"34.452472","longitude":"131.421194","source_code":"CG078760540200030003","project_name":"","survey_name":"\u5c71\u53e3\u770c\u897f\u90e8\u5730\u533a\u9632\u707d\u8a2d\u8a08\u696d\u52d9","client_name":"\u56fd\u571f\u4ea4\u901a\u7701\u4e2d\u56fd\u5730\u65b9\u6574\u5099\u5c40\u5c71\u53e3\u6cb3\u5ddd\u56fd\u9053\u4e8b\u52d9\u6240","boring_xml_url":47,"boring_view_url":1,"soilmap_view_url":null,"soiltest_xml_url":0,"soiltest_view_url":0},{"id":253475,"code":"B4KJ201802001-8955","latitude":"34.361611","longitude":"131.324528","source_code":"CG078760540200030002","project_name":"","survey_name":"\u5c71\u53e3\u770c\u897f\u90e8\u5730\u533a\u9632\u707d\u8a2d\u8a08\u696d\u52d9","client_name":"\u56fd\u571f\u4ea4\u901a\u7701\u4e2d\u56fd\u5730\u65b9\u6574\u5099\u5c40\u5c71\u53e3\u6cb3\u5ddd\u56fd\u9053\u4e8b\u52d9\u6240","boring_xml_url":47,"boring_view_url":1,"soilmap_view_url":null,"soiltest_xml_url":0,"soiltest_view_url":0},{"id":253474,"code":"B4KJ201802001-8954","latitude":"34.361778","longitude":"131.324472","source_code":"CG078760540200030001","project_name":"","survey_name":"\u5c71\u53e3\u770c\u897f\u90e8\u5730\u533a\u9632\u707d\u8a2d\u8a08\u696d\u52d9","client_name":"\u56fd\u571f\u4ea4\u901a\u7701\u4e2d\u56fd\u5730\u65b9\u6574\u5099\u5c40\u5c71\u53e3\u6cb3\u5ddd\u56fd\u9053\u4e8b\u52d9\u6240","boring_xml_url":47,"boring_view_url":1,"soilmap_view_url":null,"soiltest_xml_url":0,"soiltest_view_url":0},{"id":253473,"code":"B4KJ201802001-8953","latitude":"34.663611","longitude":"131.682222","source_code":"CG068760540200130002","project_name":"\u7ba1\u5185\u897f\u90e8\u9632\u707d\u8a2d\u8a08\u696d\u52d9","survey_name":"\u7ba1\u5185\u897f\u90e8\u9632\u707d\u8a2d\u8a08\u696d\u52d9","client_name":"\u56fd\u571f\u4ea4\u901a\u7701 \u4e2d\u56fd\u5730\u65b9\u6574\u5099\u5c40 \u5c71\u53e3\u6cb3\u5ddd\u56fd\u9053\u4e8b\u52d9\u6240","boring_xml_url":47,"boring_view_url":1,"soilmap_view_url":null,"soiltest_xml_url":0,"soiltest_view_url":0},{"id":253472,"code":"B4KJ201802001-8952","latitude":"34.397778","longitude":"131.379167","source_code":"CG068760540200130001","project_name":"\u7ba1\u5185\u897f\u90e8\u9632\u707d\u8a2d\u8a08\u696d\u52d9","survey_name":"\u7ba1\u5185\u897f\u90e8\u9632\u707d\u8a2d\u8a08\u696d\u52d9","client_name":"\u56fd\u571f\u4ea4\u901a\u7701 \u4e2d\u56fd\u5730\u65b9\u6574\u5099\u5c40 \u5c71\u53e3\u6cb3\u5ddd\u56fd\u9053\u4e8b\u52d9\u6240","boring_xml_url":47,"boring_view_url":1,"soilmap_view_url":null,"soiltest_xml_url":0,"soiltest_view_url":0},{"id":253471,"code":"B4KJ201802001-8951","latitude":"33.969722","longitude":"131.231944","source_code":"CG068760700200100003","project_name":"\u5b87\u90e8\u5730\u533a\u96fb\u7dda\u5171\u540c\u6e9d\u8a73\u7d30\u8a2d\u8a08\u696d\u52d9","survey_name":"\u5b87\u90e8\u5730\u533a\u96fb\u7dda\u5171\u540c\u6e9d\u8a73\u7d30\u8a2d\u8a08\u696d\u52d9","client_name":"\u56fd\u571f\u4ea4\u901a\u7701 \u4e2d\u56fd\u5730\u65b9\u6574\u5099\u5c40 \u5c71\u53e3\u6cb3\u5ddd\u56fd\u9053\u4e8b\u52d9\u6240","boring_xml_url":47,"boring_view_url":1,"soilmap_view_url":null,"soiltest_xml_url":50,"soiltest_view_url":49},{"id":253470,"code":"B4KJ201802001-8950","latitude":"33.966111","longitude":"131.231944","source_code":"CG068760700200100002","project_name":"\u5b87\u90e8\u5730\u533a\u96fb\u7dda\u5171\u540c\u6e9d\u8a73\u7d30\u8a2d\u8a08\u696d\u52d9","survey_name":"\u5b87\u90e8\u5730\u533a\u96fb\u7dda\u5171\u540c\u6e9d\u8a73\u7d30\u8a2d\u8a08\u696d\u52d9","client_name":"\u56fd\u571f\u4ea4\u901a\u7701 \u4e2d\u56fd\u5730\u65b9\u6574\u5099\u5c40 \u5c71\u53e3\u6cb3\u5ddd\u56fd\u9053\u4e8b\u52d9\u6240","boring_xml_url":47,"boring_view_url":1,"soilmap_view_url":null,"soiltest_xml_url":0,"soiltest_view_url":0},{"id":253469,"code":"B4KJ201802001-8949","latitude":"33.953056","longitude":"131.241667","source_code":"CG068760700200100001","project_name":"\u5b87\u90e8\u5730\u533a\u96fb\u7dda\u5171\u540c\u6e9d\u8a73\u7d30\u8a2d\u8a08\u696d\u52d9","survey_name":"\u5b87\u90e8\u5730\u533a\u96fb\u7dda\u5171\u540c\u6e9d\u8a73\u7d30\u8a2d\u8a08\u696d\u52d9","client_name":"\u56fd\u571f\u4ea4\u901a\u7701 \u4e2d\u56fd\u5730\u65b9\u6574\u5099\u5c40 \u5c71\u53e3\u6cb3\u5ddd\u56fd\u9053\u4e8b\u52d9\u6240","boring_xml_url":47,"boring_view_url":1,"soilmap_view_url":null,"soiltest_xml_url":50,"soiltest_view_url":49},{"id":253468,"code":"B4KJ201802001-8948","latitude":"34.394722","longitude":"132.929167","source_code":"CG058750530200210001","project_name":"\u4e09\u539f\u5730\u533a\u6b69\u9053\u8a2d\u8a08\u4ed6\u696d\u52d9","survey_name":"\u4e09\u539f\u5730\u533a\u6b69\u9053\u8a2d\u8a08\u4ed6\u696d\u52d9","client_name":"\u56fd\u571f\u4ea4\u901a\u7701 \u4e2d\u56fd\u5730\u65b9\u6574\u5099\u5c40 \u798f\u5c71\u6cb3\u5ddd\u56fd\u9053\u4e8b\u52d9\u6240","boring_xml_url":47,"boring_view_url":1,"soilmap_view_url":null,"soiltest_xml_url":0,"soiltest_view_url":0},{"id":253467,"code":"B4KJ201802001-8947","latitude":"34.485556","longitude":"133.347667","source_code":"CG058750530200080004","project_name":"","survey_name":"\u5357\u672c\u5e84\u4ed6\u6b69\u9053\u8a2d\u7f6e\u691c\u8a0e\u696d\u52d9","client_name":"\u56fd\u571f\u4ea4\u901a\u7701\u4e2d\u56fd\u5730\u65b9\u6574\u5099\u5c40\u798f\u5c71\u6cb3\u5ddd\u56fd\u9053\u4e8b\u52d9\u6240","boring_xml_url":47,"boring_view_url":1,"soilmap_view_url":null,"soiltest_xml_url":0,"soiltest_view_url":0},{"id":253466,"code":"B4KJ201802001-8946","latitude":"34.485556","longitude":"133.348889","source_code":"CG058750530200080003","project_name":"","survey_name":"\u5357\u672c\u5e84\u4ed6\u6b69\u9053\u8a2d\u7f6e\u691c\u8a0e\u696d\u52d9","client_name":"\u56fd\u571f\u4ea4\u901a\u7701\u4e2d\u56fd\u5730\u65b9\u6574\u5099\u5c40\u798f\u5c71\u6cb3\u5ddd\u56fd\u9053\u4e8b\u52d9\u6240","boring_xml_url":47,"boring_view_url":1,"soilmap_view_url":null,"soiltest_xml_url":0,"soiltest_view_url":0},{"id":253465,"code":"B4KJ201802001-8945","latitude":"34.485556","longitude":"133.3475","source_code":"CG058750530200080002","project_name":"","survey_name":"\u5357\u672c\u5e84\u4ed6\u6b69\u9053\u8a2d\u7f6e\u691c\u8a0e\u696d\u52d9","client_name":"\u56fd\u571f\u4ea4\u901a\u7701\u4e2d\u56fd\u5730\u65b9\u6574\u5099\u5c40\u798f\u5c71\u6cb3\u5ddd\u56fd\u9053\u4e8b\u52d9\u6240","boring_xml_url":47,"boring_view_url":1,"soilmap_view_url":null,"soiltest_xml_url":50,"soiltest_view_url":49},{"id":253464,"code":"B4KJ201802001-8944","latitude":"34.485556","longitude":"133.348333","source_code":"CG058750530200080001","project_name":"","survey_name":"\u5357\u672c\u5e84\u4ed6\u6b69\u9053\u8a2d\u7f6e\u691c\u8a0e\u696d\u52d9","client_name":"\u56fd\u571f\u4ea4\u901a\u7701\u4e2d\u56fd\u5730\u65b9\u6574\u5099\u5c40\u798f\u5c71\u6cb3\u5ddd\u56fd\u9053\u4e8b\u52d9\u6240","boring_xml_url":47,"boring_view_url":1,"soilmap_view_url":null,"soiltest_xml_url":50,"soiltest_view_url":49},{"id":253463,"code":"B4KJ201802001-8943","latitude":"34.229444","longitude":"132.198056","source_code":"CG058753600200310021","project_name":"\u592a\u7530\u5ddd\u30fb\u5c0f\u702c\u5ddd\u5824\u574a\u8a73\u7d30\u70b9\u691c\u696d\u52d9","survey_name":"\u592a\u7530\u5ddd\u30fb\u5c0f\u702c\u5ddd\u5824\u9632\u8a73\u7d30\u70b9\u691c\u696d\u52d9","client_name":"\u56fd\u571f\u4ea4\u901a\u7701\u4e2d\u56fd\u5730\u65b9\u6574\u5099\u5c40\u592a\u7530\u5ddd\u6cb3\u5ddd\u4e8b\u52d9\u6240","boring_xml_url":47,"boring_view_url":1,"soilmap_view_url":null,"soiltest_xml_url":50,"soiltest_view_url":49},{"id":253462,"code":"B4KJ201802001-8942","latitude":"34.229444","longitude":"132.198056","source_code":"CG058753600200310020","project_name":"\u592a\u7530\u5ddd\u30fb\u5c0f\u702c\u5ddd\u5824\u574a\u8a73\u7d30\u70b9\u691c\u696d\u52d9","survey_name":"\u592a\u7530\u5ddd\u30fb\u5c0f\u702c\u5ddd\u5824\u9632\u8a73\u7d30\u70b9\u691c\u696d\u52d9","client_name":"\u56fd\u571f\u4ea4\u901a\u7701\u4e2d\u56fd\u5730\u65b9\u6574\u5099\u5c40\u592a\u7530\u5ddd\u6cb3\u5ddd\u4e8b\u52d9\u6240","boring_xml_url":47,"boring_view_url":1,"soilmap_view_url":null,"soiltest_xml_url":50,"soiltest_view_url":49},{"id":253461,"code":"B4KJ201802001-8941","latitude":"34.218889","longitude":"132.200278","source_code":"CG058753600200310019","project_name":"\u592a\u7530\u5ddd\u30fb\u5c0f\u702c\u5ddd\u5824\u574a\u8a73\u7d30\u70b9\u691c\u696d\u52d9","survey_name":"\u592a\u7530\u5ddd\u30fb\u5c0f\u702c\u5ddd\u5824\u9632\u8a73\u7d30\u70b9\u691c\u696d\u52d9","client_name":"\u56fd\u571f\u4ea4\u901a\u7701\u4e2d\u56fd\u5730\u65b9\u6574\u5099\u5c40\u592a\u7530\u5ddd\u6cb3\u5ddd\u4e8b\u52d9\u6240","boring_xml_url":47,"boring_view_url":1,"soilmap_view_url":null,"soiltest_xml_url":50,"soiltest_view_url":49},{"id":253460,"code":"B4KJ201802001-8940","latitude":"34.219167","longitude":"132.2","source_code":"CG058753600200310018","project_name":"\u592a\u7530\u5ddd\u30fb\u5c0f\u702c\u5ddd\u5824\u574a\u8a73\u7d30\u70b9\u691c\u696d\u52d9","survey_name":"\u592a\u7530\u5ddd\u30fb\u5c0f\u702c\u5ddd\u5824\u574a\u8a73\u7d30\u70b9\u691c\u696d\u52d9","client_name":"\u56fd\u571f\u4ea4\u901a\u7701\u4e2d\u56fd\u5730\u65b9\u6574\u5099\u5c40\u592a\u7530\u5ddd\u6cb3\u5ddd\u4e8b\u52d9\u6240","boring_xml_url":47,"boring_view_url":1,"soilmap_view_url":null,"soiltest_xml_url":50,"soiltest_view_url":49},{"id":253459,"code":"B4KJ201802001-8939","latitude":"34.433056","longitude":"132.471111","source_code":"CG058753600200310017","project_name":"\u592a\u7530\u5ddd\u30fb\u5c0f\u702c\u5ddd\u5824\u9632\u8a73\u7d30\u70b9\u691c\u696d\u52d9","survey_name":"\u592a\u7530\u5ddd\u30fb\u5c0f\u702c\u5ddd\u5824\u9632\u8a73\u7d30\u70b9\u691c\u696d\u52d9","client_name":"\u56fd\u571f\u4ea4\u901a\u7701\u4e2d\u56fd\u5730\u65b9\u6574\u5099\u5c40\u592a\u7530\u5ddd\u6cb3\u5ddd\u4e8b\u52d9\u6240","boring_xml_url":47,"boring_view_url":1,"soilmap_view_url":null,"soiltest_xml_url":50,"soiltest_view_url":49},{"id":253458,"code":"B4KJ201802001-8938","latitude":"34.432778","longitude":"132.471389","source_code":"CG058753600200310016","project_name":"\u592a\u7530\u5ddd\u30fb\u5c0f\u702c\u5ddd\u5824\u9632\u8a73\u7d30\u70b9\u691c\u696d\u52d9","survey_name":"\u592a\u7530\u5ddd\u30fb\u5c0f\u702c\u5ddd\u5824\u9632\u8a73\u7d30\u70b9\u691c\u696d\u52d9","client_name":"\u56fd\u571f\u4ea4\u901a\u7701\u4e2d\u56fd\u5730\u65b9\u6574\u5099\u5c40\u592a\u7530\u5ddd\u6cb3\u5ddd\u4e8b\u52d9\u6240","boring_xml_url":47,"boring_view_url":1,"soilmap_view_url":null,"soiltest_xml_url":50,"soiltest_view_url":49},{"id":253457,"code":"B4KJ201802001-8937","latitude":"34.43","longitude":"132.467778","source_code":"CG058753600200310015","project_name":"\u592a\u7530\u5ddd\u30fb\u5c0f\u702c\u5ddd\u5824\u9632\u8a73\u7d30\u70b9\u691c\u696d\u52d9","survey_name":"\u592a\u7530\u5ddd\u30fb\u5c0f\u702c\u5ddd\u5824\u9632\u8a73\u7d30\u70b9\u691c\u696d\u52d9","client_name":"\u56fd\u571f\u4ea4\u901a\u7701\u4e2d\u56fd\u5730\u65b9\u6574\u5099\u5c40\u592a\u7530\u5ddd\u6cb3\u5ddd\u4e8b\u52d9\u6240","boring_xml_url":47,"boring_view_url":1,"soilmap_view_url":null,"soiltest_xml_url":50,"soiltest_view_url":49}]}}