{"header":{"xyz":{"source":[],"mosaic":false},"page":2572,"raw":{"soiltest_result":"0","bbox":"57.598333,109.544722,1.933333,163.806111","page":"2572"},"conditions":{"soiltest_result":0,"north":57.598333,"west":109.544722,"south":1.933333,"east":163.806111},"success":true,"message":""},"data":{"meta":{"total":212844,"page":2572,"pages":7095,"count":30},"values":[{"id":253396,"code":"B4KJ201802001-8876","latitude":"34.588056","longitude":"133.723611","source_code":"CG068740400200060027","project_name":"\u9ad8\u6881\u5ddd\u5824\u9632\u8a73\u7d30\u70b9\u691c\u696d\u52d9","survey_name":"\u9ad8\u6881\u5ddd\u5824\u9632\u8a73\u7d30\u70b9\u691c\u696d\u52d9","client_name":"\u56fd\u571f\u4ea4\u901a\u7701 \u5ca1\u5c71\u6cb3\u5ddd\u4e8b\u52d9\u6240 \u5de5\u52d9\u8ab2","boring_xml_url":47,"boring_view_url":1,"soilmap_view_url":null,"soiltest_xml_url":0,"soiltest_view_url":0},{"id":253395,"code":"B4KJ201802001-8875","latitude":"34.644806","longitude":"133.729722","source_code":"CG068740400200060026","project_name":"\u9ad8\u6881\u5ddd\u5824\u9632\u8a73\u7d30\u70b9\u691c\u696d\u52d9","survey_name":"\u9ad8\u6881\u5ddd\u5824\u9632\u8a73\u7d30\u70b9\u691c\u696d\u52d9","client_name":"\u56fd\u571f\u4ea4\u901a\u7701 \u5ca1\u5c71\u6cb3\u5ddd\u4e8b\u52d9\u6240 \u5de5\u52d9\u8ab2","boring_xml_url":47,"boring_view_url":1,"soilmap_view_url":null,"soiltest_xml_url":50,"soiltest_view_url":49},{"id":253394,"code":"B4KJ201802001-8874","latitude":"34.63075","longitude":"133.716639","source_code":"CG068740400200060025","project_name":"\u9ad8\u6881\u5ddd\u5824\u9632\u8a73\u7d30\u70b9\u691c\u696d\u52d9","survey_name":"\u9ad8\u6881\u5ddd\u5824\u9632\u8a73\u7d30\u70b9\u691c\u696d\u52d9","client_name":"\u56fd\u571f\u4ea4\u901a\u7701 \u5ca1\u5c71\u6cb3\u5ddd\u4e8b\u52d9\u6240 \u5de5\u52d9\u8ab2","boring_xml_url":47,"boring_view_url":1,"soilmap_view_url":null,"soiltest_xml_url":50,"soiltest_view_url":49},{"id":253393,"code":"B4KJ201802001-8873","latitude":"34.626333","longitude":"133.735528","source_code":"CG068740400200060024","project_name":"\u9ad8\u6881\u5ddd\u5824\u9632\u8a73\u7d30\u70b9\u691c\u696d\u52d9","survey_name":"\u9ad8\u6881\u5ddd\u5824\u9632\u8a73\u7d30\u70b9\u691c\u696d\u52d9","client_name":"\u56fd\u571f\u4ea4\u901a\u7701 \u5ca1\u5c71\u6cb3\u5ddd\u4e8b\u52d9\u6240 \u5de5\u52d9\u8ab2","boring_xml_url":47,"boring_view_url":1,"soilmap_view_url":null,"soiltest_xml_url":50,"soiltest_view_url":49},{"id":253392,"code":"B4KJ201802001-8872","latitude":"34.557528","longitude":"133.703056","source_code":"CG068740400200060023","project_name":"\u9ad8\u6881\u5ddd\u5824\u9632\u8a73\u7d30\u70b9\u691c\u696d\u52d9","survey_name":"\u9ad8\u6881\u5ddd\u5824\u9632\u8a73\u7d30\u70b9\u691c\u696d\u52d9","client_name":"\u56fd\u571f\u4ea4\u901a\u7701 \u5ca1\u5c71\u6cb3\u5ddd\u4e8b\u52d9\u6240 \u5de5\u52d9\u8ab2","boring_xml_url":47,"boring_view_url":1,"soilmap_view_url":null,"soiltest_xml_url":50,"soiltest_view_url":49},{"id":253391,"code":"B4KJ201802001-8871","latitude":"34.549083","longitude":"133.702889","source_code":"CG068740400200060022","project_name":"\u9ad8\u6881\u5ddd\u5824\u9632\u8a73\u7d30\u70b9\u691c\u696d\u52d9","survey_name":"\u9ad8\u6881\u5ddd\u5824\u9632\u8a73\u7d30\u70b9\u691c\u696d\u52d9","client_name":"\u56fd\u571f\u4ea4\u901a\u7701 \u5ca1\u5c71\u6cb3\u5ddd\u4e8b\u52d9\u6240 \u5de5\u52d9\u8ab2","boring_xml_url":47,"boring_view_url":1,"soilmap_view_url":null,"soiltest_xml_url":50,"soiltest_view_url":49},{"id":253390,"code":"B4KJ201802001-8870","latitude":"34.549083","longitude":"133.703028","source_code":"CG068740400200060021","project_name":"\u9ad8\u6881\u5ddd\u5824\u9632\u8a73\u7d30\u70b9\u691c\u696d\u52d9","survey_name":"\u9ad8\u6881\u5ddd\u5824\u9632\u8a73\u7d30\u70b9\u691c\u696d\u52d9","client_name":"\u56fd\u571f\u4ea4\u901a\u7701 \u5ca1\u5c71\u6cb3\u5ddd\u4e8b\u52d9\u6240 \u5de5\u52d9\u8ab2","boring_xml_url":47,"boring_view_url":1,"soilmap_view_url":null,"soiltest_xml_url":50,"soiltest_view_url":49},{"id":253389,"code":"B4KJ201802001-8869","latitude":"34.549083","longitude":"133.702917","source_code":"CG068740400200060020","project_name":"\u9ad8\u6881\u5ddd\u5824\u9632\u8a73\u7d30\u70b9\u691c\u696d\u52d9","survey_name":"\u9ad8\u6881\u5ddd\u5824\u9632\u8a73\u7d30\u70b9\u691c\u696d\u52d9","client_name":"\u56fd\u571f\u4ea4\u901a\u7701 \u5ca1\u5c71\u6cb3\u5ddd\u4e8b\u52d9\u6240 \u5de5\u52d9\u8ab2","boring_xml_url":47,"boring_view_url":1,"soilmap_view_url":null,"soiltest_xml_url":50,"soiltest_view_url":49},{"id":253388,"code":"B4KJ201802001-8868","latitude":"34.542361","longitude":"133.703611","source_code":"CG068740400200060019","project_name":"\u9ad8\u6881\u5ddd\u5824\u9632\u8a73\u7d30\u70b9\u691c\u696d\u52d9","survey_name":"\u9ad8\u6881\u5ddd\u5824\u9632\u8a73\u7d30\u70b9\u691c\u696d\u52d9","client_name":"\u56fd\u571f\u4ea4\u901a\u7701 \u5ca1\u5c71\u6cb3\u5ddd\u4e8b\u52d9\u6240 \u5de5\u52d9\u8ab2","boring_xml_url":47,"boring_view_url":1,"soilmap_view_url":null,"soiltest_xml_url":50,"soiltest_view_url":49},{"id":253387,"code":"B4KJ201802001-8867","latitude":"34.648556","longitude":"133.724667","source_code":"CG068740400200060018","project_name":"\u9ad8\u6881\u5ddd\u5824\u9632\u8a73\u7d30\u70b9\u691c\u696d\u52d9","survey_name":"\u9ad8\u6881\u5ddd\u5824\u9632\u8a73\u7d30\u70b9\u691c\u696d\u52d9","client_name":"\u56fd\u571f\u4ea4\u901a\u7701 \u5ca1\u5c71\u6cb3\u5ddd\u4e8b\u52d9\u6240 \u5de5\u52d9\u8ab2","boring_xml_url":47,"boring_view_url":1,"soilmap_view_url":null,"soiltest_xml_url":50,"soiltest_view_url":49},{"id":253386,"code":"B4KJ201802001-8866","latitude":"34.648556","longitude":"133.7245","source_code":"CG068740400200060017","project_name":"\u9ad8\u6881\u5ddd\u5824\u9632\u8a73\u7d30\u70b9\u691c\u696d\u52d9","survey_name":"\u9ad8\u6881\u5ddd\u5824\u9632\u8a73\u7d30\u70b9\u691c\u696d\u52d9","client_name":"\u56fd\u571f\u4ea4\u901a\u7701 \u5ca1\u5c71\u6cb3\u5ddd\u4e8b\u52d9\u6240 \u5de5\u52d9\u8ab2","boring_xml_url":47,"boring_view_url":1,"soilmap_view_url":null,"soiltest_xml_url":50,"soiltest_view_url":49},{"id":253385,"code":"B4KJ201802001-8865","latitude":"34.648583","longitude":"133.724639","source_code":"CG068740400200060016","project_name":"\u9ad8\u6881\u5ddd\u5824\u9632\u8a73\u7d30\u70b9\u691c\u696d\u52d9","survey_name":"\u9ad8\u6881\u5ddd\u5824\u9632\u8a73\u7d30\u70b9\u691c\u696d\u52d9","client_name":"\u56fd\u571f\u4ea4\u901a\u7701 \u5ca1\u5c71\u6cb3\u5ddd\u4e8b\u52d9\u6240 \u5de5\u52d9\u8ab2","boring_xml_url":47,"boring_view_url":1,"soilmap_view_url":null,"soiltest_xml_url":50,"soiltest_view_url":49},{"id":253384,"code":"B4KJ201802001-8864","latitude":"34.634639","longitude":"133.723639","source_code":"CG068740400200060015","project_name":"\u9ad8\u6881\u5ddd\u5824\u9632\u8a73\u7d30\u70b9\u691c\u696d\u52d9","survey_name":"\u9ad8\u6881\u5ddd\u5824\u9632\u8a73\u7d30\u70b9\u691c\u696d\u52d9","client_name":"\u56fd\u571f\u4ea4\u901a\u7701 \u5ca1\u5c71\u6cb3\u5ddd\u4e8b\u52d9\u6240 \u5de5\u52d9\u8ab2","boring_xml_url":47,"boring_view_url":1,"soilmap_view_url":null,"soiltest_xml_url":50,"soiltest_view_url":49},{"id":253383,"code":"B4KJ201802001-8863","latitude":"34.634667","longitude":"133.7235","source_code":"CG068740400200060014","project_name":"\u9ad8\u6881\u5ddd\u5824\u9632\u8a73\u7d30\u70b9\u691c\u696d\u52d9","survey_name":"\u9ad8\u6881\u5ddd\u5824\u9632\u8a73\u7d30\u70b9\u691c\u696d\u52d9","client_name":"\u56fd\u571f\u4ea4\u901a\u7701 \u5ca1\u5c71\u6cb3\u5ddd\u4e8b\u52d9\u6240 \u5de5\u52d9\u8ab2","boring_xml_url":47,"boring_view_url":1,"soilmap_view_url":null,"soiltest_xml_url":50,"soiltest_view_url":49},{"id":253382,"code":"B4KJ201802001-8862","latitude":"34.634639","longitude":"133.723611","source_code":"CG068740400200060013","project_name":"\u9ad8\u6881\u5ddd\u5824\u9632\u8a73\u7d30\u70b9\u691c\u696d\u52d9","survey_name":"\u9ad8\u6881\u5ddd\u5824\u9632\u8a73\u7d30\u70b9\u691c\u696d\u52d9","client_name":"\u56fd\u571f\u4ea4\u901a\u7701 \u5ca1\u5c71\u6cb3\u5ddd\u4e8b\u52d9\u6240 \u5de5\u52d9\u8ab2","boring_xml_url":47,"boring_view_url":1,"soilmap_view_url":null,"soiltest_xml_url":50,"soiltest_view_url":49},{"id":253381,"code":"B4KJ201802001-8861","latitude":"34.576028","longitude":"133.707139","source_code":"CG068740400200060012","project_name":"\u9ad8\u6881\u5ddd\u5824\u9632\u8a73\u7d30\u70b9\u691c\u696d\u52d9","survey_name":"\u9ad8\u6881\u5ddd\u5824\u9632\u8a73\u7d30\u70b9\u691c\u696d\u52d9","client_name":"\u56fd\u571f\u4ea4\u901a\u7701 \u5ca1\u5c71\u6cb3\u5ddd\u4e8b\u52d9\u6240 \u5de5\u52d9\u8ab2","boring_xml_url":47,"boring_view_url":1,"soilmap_view_url":null,"soiltest_xml_url":50,"soiltest_view_url":49},{"id":253380,"code":"B4KJ201802001-8860","latitude":"34.576111","longitude":"133.707","source_code":"CG068740400200060011","project_name":"\u9ad8\u6881\u5ddd\u5824\u9632\u8a73\u7d30\u70b9\u691c\u696d\u52d9","survey_name":"\u9ad8\u6881\u5ddd\u5824\u9632\u8a73\u7d30\u70b9\u691c\u696d\u52d9","client_name":"\u56fd\u571f\u4ea4\u901a\u7701 \u5ca1\u5c71\u6cb3\u5ddd\u4e8b\u52d9\u6240 \u5de5\u52d9\u8ab2","boring_xml_url":47,"boring_view_url":1,"soilmap_view_url":null,"soiltest_xml_url":50,"soiltest_view_url":49},{"id":253379,"code":"B4KJ201802001-8859","latitude":"34.576056","longitude":"133.707111","source_code":"CG068740400200060010","project_name":"\u9ad8\u6881\u5ddd\u5824\u9632\u8a73\u7d30\u70b9\u691c\u696d\u52d9","survey_name":"\u9ad8\u6881\u5ddd\u5824\u9632\u8a73\u7d30\u70b9\u691c\u696d\u52d9","client_name":"\u56fd\u571f\u4ea4\u901a\u7701 \u5ca1\u5c71\u6cb3\u5ddd\u4e8b\u52d9\u6240 \u5de5\u52d9\u8ab2","boring_xml_url":47,"boring_view_url":1,"soilmap_view_url":null,"soiltest_xml_url":50,"soiltest_view_url":49},{"id":253378,"code":"B4KJ201802001-8858","latitude":"34.572","longitude":"133.703778","source_code":"CG068740400200060009","project_name":"\u9ad8\u6881\u5ddd\u5824\u9632\u8a73\u7d30\u70b9\u691c\u696d\u52d9","survey_name":"\u9ad8\u6881\u5ddd\u5824\u9632\u8a73\u7d30\u70b9\u691c\u696d\u52d9","client_name":"\u56fd\u571f\u4ea4\u901a\u7701 \u5ca1\u5c71\u6cb3\u5ddd\u4e8b\u52d9\u6240 \u5de5\u52d9\u8ab2","boring_xml_url":47,"boring_view_url":1,"soilmap_view_url":null,"soiltest_xml_url":50,"soiltest_view_url":49},{"id":253377,"code":"B4KJ201802001-8857","latitude":"34.568167","longitude":"133.700306","source_code":"CG068740400200060008","project_name":"\u9ad8\u6881\u5ddd\u5824\u9632\u8a73\u7d30\u70b9\u691c\u696d\u52d9","survey_name":"\u9ad8\u6881\u5ddd\u5824\u9632\u8a73\u7d30\u70b9\u691c\u696d\u52d9","client_name":"\u56fd\u571f\u4ea4\u901a\u7701 \u5ca1\u5c71\u6cb3\u5ddd\u4e8b\u52d9\u6240 \u5de5\u52d9\u8ab2","boring_xml_url":47,"boring_view_url":1,"soilmap_view_url":null,"soiltest_xml_url":50,"soiltest_view_url":49},{"id":253376,"code":"B4KJ201802001-8856","latitude":"34.56825","longitude":"133.700167","source_code":"CG068740400200060007","project_name":"\u9ad8\u6881\u5ddd\u5824\u9632\u8a73\u7d30\u70b9\u691c\u696d\u52d9","survey_name":"\u9ad8\u6881\u5ddd\u5824\u9632\u8a73\u7d30\u70b9\u691c\u696d\u52d9","client_name":"\u56fd\u571f\u4ea4\u901a\u7701 \u5ca1\u5c71\u6cb3\u5ddd\u4e8b\u52d9\u6240 \u5de5\u52d9\u8ab2","boring_xml_url":47,"boring_view_url":1,"soilmap_view_url":null,"soiltest_xml_url":50,"soiltest_view_url":49},{"id":253375,"code":"B4KJ201802001-8855","latitude":"34.568194","longitude":"133.700306","source_code":"CG068740400200060006","project_name":"\u9ad8\u6881\u5ddd\u5824\u9632\u8a73\u7d30\u70b9\u691c\u696d\u52d9","survey_name":"\u9ad8\u6881\u5ddd\u5824\u9632\u8a73\u7d30\u70b9\u691c\u696d\u52d9","client_name":"\u56fd\u571f\u4ea4\u901a\u7701 \u5ca1\u5c71\u6cb3\u5ddd\u4e8b\u52d9\u6240 \u5de5\u52d9\u8ab2","boring_xml_url":47,"boring_view_url":1,"soilmap_view_url":null,"soiltest_xml_url":50,"soiltest_view_url":49},{"id":253374,"code":"B4KJ201802001-8854","latitude":"34.556056","longitude":"133.695694","source_code":"CG068740400200060005","project_name":"\u9ad8\u6881\u5ddd\u5824\u9632\u8a73\u7d30\u70b9\u691c\u696d\u52d9","survey_name":"\u9ad8\u6881\u5ddd\u5824\u9632\u8a73\u7d30\u70b9\u691c\u696d\u52d9","client_name":"\u56fd\u571f\u4ea4\u901a\u7701 \u5ca1\u5c71\u6cb3\u5ddd\u4e8b\u52d9\u6240 \u5de5\u52d9\u8ab2","boring_xml_url":47,"boring_view_url":1,"soilmap_view_url":null,"soiltest_xml_url":50,"soiltest_view_url":49},{"id":253373,"code":"B4KJ201802001-8853","latitude":"34.547806","longitude":"133.693361","source_code":"CG068740400200060004","project_name":"\u9ad8\u6881\u5ddd\u5824\u9632\u8a73\u7d30\u70b9\u691c\u696d\u52d9","survey_name":"\u9ad8\u6881\u5ddd\u5824\u9632\u8a73\u7d30\u70b9\u691c\u696d\u52d9","client_name":"\u56fd\u571f\u4ea4\u901a\u7701 \u5ca1\u5c71\u6cb3\u5ddd\u4e8b\u52d9\u6240 \u5de5\u52d9\u8ab2","boring_xml_url":47,"boring_view_url":1,"soilmap_view_url":null,"soiltest_xml_url":50,"soiltest_view_url":49},{"id":253372,"code":"B4KJ201802001-8852","latitude":"34.538361","longitude":"133.691194","source_code":"CG068740400200060003","project_name":"\u9ad8\u6881\u5ddd\u5824\u9632\u8a73\u7d30\u70b9\u691c\u696d\u52d9","survey_name":"\u9ad8\u6881\u5ddd\u5824\u9632\u8a73\u7d30\u70b9\u691c\u696d\u52d9","client_name":"\u56fd\u571f\u4ea4\u901a\u7701 \u5ca1\u5c71\u6cb3\u5ddd\u4e8b\u52d9\u6240 \u5de5\u52d9\u8ab2","boring_xml_url":47,"boring_view_url":1,"soilmap_view_url":null,"soiltest_xml_url":50,"soiltest_view_url":49},{"id":253371,"code":"B4KJ201802001-8851","latitude":"34.538361","longitude":"133.691028","source_code":"CG068740400200060002","project_name":"\u9ad8\u6881\u5ddd\u5824\u9632\u8a73\u7d30\u70b9\u691c\u696d\u52d9","survey_name":"\u9ad8\u6881\u5ddd\u5824\u9632\u8a73\u7d30\u70b9\u691c\u696d\u52d9","client_name":"\u56fd\u571f\u4ea4\u901a\u7701 \u5ca1\u5c71\u6cb3\u5ddd\u4e8b\u52d9\u6240 \u5de5\u52d9\u8ab2","boring_xml_url":47,"boring_view_url":1,"soilmap_view_url":null,"soiltest_xml_url":50,"soiltest_view_url":49},{"id":253370,"code":"B4KJ201802001-8850","latitude":"34.538361","longitude":"133.691167","source_code":"CG068740400200060001","project_name":"\u9ad8\u6881\u5ddd\u5824\u9632\u8a73\u7d30\u70b9\u691c\u696d\u52d9","survey_name":"\u9ad8\u6881\u5ddd\u5824\u9632\u8a73\u7d30\u70b9\u691c\u696d\u52d9","client_name":"\u56fd\u571f\u4ea4\u901a\u7701 \u5ca1\u5c71\u6cb3\u5ddd\u4e8b\u52d9\u6240 \u5de5\u52d9\u8ab2","boring_xml_url":47,"boring_view_url":1,"soilmap_view_url":null,"soiltest_xml_url":50,"soiltest_view_url":49},{"id":253369,"code":"B4KJ201802001-8849","latitude":"34.644167","longitude":"133.724417","source_code":"CG068740400200050014","project_name":"\u9ad8\u6881\u5ddd\u4e59\u5cf6\u6e2c\u91cf\u8a2d\u8a08\u5916\u696d\u52d9","survey_name":"\u9ad8\u6881\u5ddd\u4e59\u5cf6\u6e2c\u91cf\u8a2d\u8a08\u5916\u696d\u52d9","client_name":"\u56fd\u571f\u4ea4\u901a\u7701\u4e2d\u56fd\u5730\u65b9\u6574\u5099\u5c40\u5ca1\u5c71\u6cb3\u5ddd\u4e8b\u52d9\u6240\u5de5\u52d9\u8ab2","boring_xml_url":47,"boring_view_url":1,"soilmap_view_url":null,"soiltest_xml_url":50,"soiltest_view_url":49},{"id":253368,"code":"B4KJ201802001-8848","latitude":"34.644111","longitude":"133.72475","source_code":"CG068740400200050013","project_name":"\u9ad8\u6881\u5ddd\u4e59\u5cf6\u6e2c\u91cf\u8a2d\u8a08\u5916\u696d\u52d9","survey_name":"\u9ad8\u6881\u5ddd\u4e59\u5cf6\u6e2c\u91cf\u8a2d\u8a08\u5916\u696d\u52d9","client_name":"\u56fd\u571f\u4ea4\u901a\u7701\u4e2d\u56fd\u5730\u65b9\u6574\u5099\u5c40\u5ca1\u5c71\u6cb3\u5ddd\u4e8b\u52d9\u6240","boring_xml_url":47,"boring_view_url":1,"soilmap_view_url":null,"soiltest_xml_url":0,"soiltest_view_url":0},{"id":253367,"code":"B4KJ201802001-8847","latitude":"34.644056","longitude":"133.725167","source_code":"CG068740400200050012","project_name":"\u9ad8\u6881\u5ddd\u4e59\u5cf6\u6e2c\u91cf\u8a2d\u8a08\u5916\u696d\u52d9","survey_name":"\u9ad8\u6881\u5ddd\u4e59\u5cf6\u6e2c\u91cf\u8a2d\u8a08\u5916\u696d\u52d9","client_name":"\u56fd\u571f\u4ea4\u901a\u7701\u4e2d\u56fd\u5730\u65b9\u6574\u5099\u5c40\u5ca1\u5c71\u6cb3\u5ddd\u4e8b\u52d9\u6240\u5de5\u52d9\u8ab2","boring_xml_url":47,"boring_view_url":1,"soilmap_view_url":null,"soiltest_xml_url":0,"soiltest_view_url":0}]}}