{"header":{"xyz":{"source":[],"mosaic":false},"page":2577,"raw":{"soiltest_result":"0","bbox":"57.598333,109.544722,1.933333,163.806111","page":"2577"},"conditions":{"soiltest_result":0,"north":57.598333,"west":109.544722,"south":1.933333,"east":163.806111},"success":true,"message":""},"data":{"meta":{"total":212844,"page":2577,"pages":7095,"count":30},"values":[{"id":253246,"code":"B4KJ201802001-8726","latitude":"35.334444","longitude":"132.746139","source_code":"CG058736400200280002","project_name":"","survey_name":"\u653e\u6c34\u8def\u65b0\u5bae\u5ddd\u5916\u6e2c\u91cf\u8a2d\u8a08\u696d\u52d9","client_name":"\u56fd\u571f\u4ea4\u901a\u7701 \u51fa\u96f2\u6cb3\u5ddd\u4e8b\u52d9\u6240","boring_xml_url":47,"boring_view_url":1,"soilmap_view_url":null,"soiltest_xml_url":0,"soiltest_view_url":0},{"id":253245,"code":"B4KJ201802001-8725","latitude":"35.334472","longitude":"132.746722","source_code":"CG058736400200280001","project_name":"","survey_name":"\u653e\u6c34\u8def\u65b0\u5bae\u5ddd\u5916\u6e2c\u91cf\u8a2d\u8a08\u696d\u52d9","client_name":"\u56fd\u571f\u4ea4\u901a\u7701 \u51fa\u96f2\u6cb3\u5ddd\u4e8b\u52d9\u6240","boring_xml_url":47,"boring_view_url":1,"soilmap_view_url":null,"soiltest_xml_url":50,"soiltest_view_url":49},{"id":253244,"code":"B4KJ201802001-8724","latitude":"35.553889","longitude":"134.279861","source_code":"CG078730410200230004","project_name":"","survey_name":"\u99df\u99b3\u5c71\u30d0\u30a4\u30d1\u30b9\u672c\u5e84\u5730\u533a\u4ed6\u5730\u8cea\u8abf\u67fb\u696d\u52d9","client_name":"\u56fd\u571f\u4ea4\u901a\u7701\u4e2d\u56fd\u5730\u65b9\u6574\u5099\u5c40\u9ce5\u53d6\u6cb3\u5ddd\u56fd\u9053\u4e8b\u52d9\u6240","boring_xml_url":47,"boring_view_url":1,"soilmap_view_url":null,"soiltest_xml_url":0,"soiltest_view_url":0},{"id":253243,"code":"B4KJ201802001-8723","latitude":"35.567167","longitude":"134.321944","source_code":"CG078730410200230003","project_name":"","survey_name":"\u99df\u99b3\u5c71\u30d0\u30a4\u30d1\u30b9\u672c\u5e84\u5730\u533a\u4ed6\u5730\u8cea\u8abf\u67fb\u696d\u52d9","client_name":"\u56fd\u571f\u4ea4\u901a\u7701\u4e2d\u56fd\u5730\u65b9\u6574\u5099\u5c40\u9ce5\u53d6\u6cb3\u5ddd\u56fd\u9053\u4e8b\u52d9\u6240","boring_xml_url":47,"boring_view_url":1,"soilmap_view_url":null,"soiltest_xml_url":50,"soiltest_view_url":49},{"id":253242,"code":"B4KJ201802001-8722","latitude":"35.567972","longitude":"134.320611","source_code":"CG078730410200230002","project_name":"","survey_name":"\u99df\u99b3\u5c71\u30d0\u30a4\u30d1\u30b9\u672c\u5e84\u5730\u533a\u4ed6\u5730\u8cea\u8abf\u67fb\u696d\u52d9","client_name":"\u56fd\u571f\u4ea4\u901a\u7701\u4e2d\u56fd\u5730\u65b9\u6574\u5099\u5c40\u9ce5\u53d6\u6cb3\u5ddd\u56fd\u9053\u4e8b\u52d9\u6240","boring_xml_url":47,"boring_view_url":1,"soilmap_view_url":null,"soiltest_xml_url":50,"soiltest_view_url":49},{"id":253241,"code":"B4KJ201802001-8721","latitude":"35.568222","longitude":"134.320417","source_code":"CG078730410200230001","project_name":"","survey_name":"\u99df\u99b3\u5c71\u30d0\u30a4\u30d1\u30b9\u672c\u5e84\u5730\u533a\u4ed6\u5730\u8cea\u8abf\u67fb\u696d\u52d9","client_name":"\u56fd\u571f\u4ea4\u901a\u7701\u4e2d\u56fd\u5730\u65b9\u6574\u5099\u5c40\u9ce5\u53d6\u6cb3\u5ddd\u56fd\u9053\u4e8b\u52d9\u6240","boring_xml_url":47,"boring_view_url":1,"soilmap_view_url":null,"soiltest_xml_url":50,"soiltest_view_url":49},{"id":253240,"code":"B4KJ201802001-8720","latitude":"35.384722","longitude":"134.198333","source_code":"CG06873052020090016","project_name":"\u5343\u4ee3\u5ddd\u5824\u9632\u8abf\u67fb\u696d\u52d9","survey_name":"\u5343\u4ee3\u5ddd\u5824\u9632\u8abf\u67fb\u696d\u52d9","client_name":"\u56fd\u571f\u4ea4\u901a\u7701\u4e2d\u56fd\u5730\u65b9\u6574\u5099\u5c40\u9ce5\u53d6\u6cb3\u5ddd\u56fd\u9053\u4e8b\u52d9\u6240","boring_xml_url":46,"boring_view_url":1,"soilmap_view_url":null,"soiltest_xml_url":49,"soiltest_view_url":48},{"id":253239,"code":"B4KJ201802001-8719","latitude":"35.384722","longitude":"134.198333","source_code":"CG06873052020090015","project_name":"\u5343\u4ee3\u5ddd\u5824\u9632\u8abf\u67fb\u696d\u52d9","survey_name":"\u5343\u4ee3\u5ddd\u5824\u9632\u8abf\u67fb\u696d\u52d9","client_name":"\u56fd\u571f\u4ea4\u901a\u7701\u4e2d\u56fd\u5730\u65b9\u6574\u5099\u5c40\u9ce5\u53d6\u6cb3\u5ddd\u56fd\u9053\u4e8b\u52d9\u6240","boring_xml_url":46,"boring_view_url":1,"soilmap_view_url":null,"soiltest_xml_url":49,"soiltest_view_url":48},{"id":253238,"code":"B4KJ201802001-8718","latitude":"35.384722","longitude":"134.198333","source_code":"CG06873052020090014","project_name":"\u5343\u4ee3\u5ddd\u5824\u9632\u8abf\u67fb\u696d\u52d9","survey_name":"\u5343\u4ee3\u5ddd\u5824\u9632\u8abf\u67fb\u696d\u52d9","client_name":"\u56fd\u571f\u4ea4\u901a\u7701\u4e2d\u56fd\u5730\u65b9\u6574\u5099\u5c40\u9ce5\u53d6\u6cb3\u5ddd\u56fd\u9053\u4e8b\u52d9\u6240","boring_xml_url":46,"boring_view_url":1,"soilmap_view_url":null,"soiltest_xml_url":49,"soiltest_view_url":48},{"id":253237,"code":"B4KJ201802001-8717","latitude":"35.460833","longitude":"134.214722","source_code":"CG06873052020090013","project_name":"\u5343\u4ee3\u5ddd\u5824\u9632\u8abf\u67fb\u696d\u52d9","survey_name":"\u5343\u4ee3\u5ddd\u5824\u9632\u8abf\u67fb\u696d\u52d9","client_name":"\u56fd\u571f\u4ea4\u901a\u7701\u4e2d\u56fd\u5730\u65b9\u6574\u5099\u5c40\u9ce5\u53d6\u6cb3\u5ddd\u56fd\u9053\u4e8b\u52d9\u6240","boring_xml_url":46,"boring_view_url":1,"soilmap_view_url":null,"soiltest_xml_url":49,"soiltest_view_url":48},{"id":253236,"code":"B4KJ201802001-8716","latitude":"35.381944","longitude":"134.198333","source_code":"CG06873052020090012","project_name":"\u5343\u4ee3\u5ddd\u5824\u9632\u8abf\u67fb\u696d\u52d9","survey_name":"\u5343\u4ee3\u5ddd\u5824\u9632\u8abf\u67fb\u696d\u52d9","client_name":"\u56fd\u571f\u4ea4\u901a\u7701\u4e2d\u56fd\u5730\u65b9\u6574\u5099\u5c40\u9ce5\u53d6\u6cb3\u5ddd\u56fd\u9053\u4e8b\u52d9\u6240","boring_xml_url":46,"boring_view_url":1,"soilmap_view_url":null,"soiltest_xml_url":49,"soiltest_view_url":48},{"id":253235,"code":"B4KJ201802001-8715","latitude":"35.381944","longitude":"134.198333","source_code":"CG06873052020090011","project_name":"\u5343\u4ee3\u5ddd\u5824\u9632\u8abf\u67fb\u696d\u52d9","survey_name":"\u5343\u4ee3\u5ddd\u5824\u9632\u8abf\u67fb\u696d\u52d9","client_name":"\u56fd\u571f\u4ea4\u901a\u7701\u4e2d\u56fd\u5730\u65b9\u6574\u5099\u5c40\u9ce5\u53d6\u6cb3\u5ddd\u56fd\u9053\u4e8b\u52d9\u6240","boring_xml_url":46,"boring_view_url":1,"soilmap_view_url":null,"soiltest_xml_url":49,"soiltest_view_url":48},{"id":253234,"code":"B4KJ201802001-8714","latitude":"35.385833","longitude":"134.196389","source_code":"CG06873052020090010","project_name":"\u5343\u4ee3\u5ddd\u5824\u9632\u8abf\u67fb\u696d\u52d9","survey_name":"\u5343\u4ee3\u5ddd\u5824\u9632\u8abf\u67fb\u696d\u52d9","client_name":"\u56fd\u571f\u4ea4\u901a\u7701\u4e2d\u56fd\u5730\u65b9\u6574\u5099\u5c40\u9ce5\u53d6\u6cb3\u5ddd\u56fd\u9053\u4e8b\u52d9\u6240","boring_xml_url":46,"boring_view_url":1,"soilmap_view_url":null,"soiltest_xml_url":49,"soiltest_view_url":48},{"id":253233,"code":"B4KJ201802001-8713","latitude":"35.385833","longitude":"134.196111","source_code":"CG06873052020090009","project_name":"\u5343\u4ee3\u5ddd\u5824\u9632\u8abf\u67fb\u696d\u52d9","survey_name":"\u5343\u4ee3\u5ddd\u5824\u9632\u8abf\u67fb\u696d\u52d9","client_name":"\u56fd\u571f\u4ea4\u901a\u7701\u4e2d\u56fd\u5730\u65b9\u6574\u5099\u5c40\u9ce5\u53d6\u6cb3\u5ddd\u56fd\u9053\u4e8b\u52d9\u6240","boring_xml_url":46,"boring_view_url":1,"soilmap_view_url":null,"soiltest_xml_url":49,"soiltest_view_url":48},{"id":253232,"code":"B4KJ201802001-8712","latitude":"35.385833","longitude":"134.196389","source_code":"CG06873052020090008","project_name":"\u5343\u4ee3\u5ddd\u5824\u9632\u8abf\u67fb\u696d\u52d9","survey_name":"\u5343\u4ee3\u5ddd\u5824\u9632\u8abf\u67fb\u696d\u52d9","client_name":"\u56fd\u571f\u4ea4\u901a\u7701\u4e2d\u56fd\u5730\u65b9\u6574\u5099\u5c40\u9ce5\u53d6\u6cb3\u5ddd\u56fd\u9053\u4e8b\u52d9\u6240","boring_xml_url":46,"boring_view_url":1,"soilmap_view_url":null,"soiltest_xml_url":49,"soiltest_view_url":48},{"id":253231,"code":"B4KJ201802001-8711","latitude":"35.390833","longitude":"134.198889","source_code":"CG06873052020090007","project_name":"\u5343\u4ee3\u5ddd\u5824\u9632\u8abf\u67fb\u696d\u52d9","survey_name":"\u5343\u4ee3\u5ddd\u5824\u9632\u8abf\u67fb\u696d\u52d9","client_name":"\u56fd\u571f\u4ea4\u901a\u7701\u4e2d\u56fd\u5730\u65b9\u6574\u5099\u5c40\u9ce5\u53d6\u6cb3\u5ddd\u56fd\u9053\u4e8b\u52d9\u6240","boring_xml_url":46,"boring_view_url":1,"soilmap_view_url":null,"soiltest_xml_url":49,"soiltest_view_url":48},{"id":253230,"code":"B4KJ201802001-8710","latitude":"35.390833","longitude":"134.198889","source_code":"CG06873052020090006","project_name":"\u5343\u4ee3\u5ddd\u5824\u9632\u8abf\u67fb\u696d\u52d9","survey_name":"\u5343\u4ee3\u5ddd\u5824\u9632\u8abf\u67fb\u696d\u52d9","client_name":"\u56fd\u571f\u4ea4\u901a\u7701\u4e2d\u56fd\u5730\u65b9\u6574\u5099\u5c40\u9ce5\u53d6\u6cb3\u5ddd\u56fd\u9053\u4e8b\u52d9\u6240","boring_xml_url":46,"boring_view_url":1,"soilmap_view_url":null,"soiltest_xml_url":49,"soiltest_view_url":48},{"id":253229,"code":"B4KJ201802001-8709","latitude":"35.390833","longitude":"134.198889","source_code":"CG06873052020090005","project_name":"\u5343\u4ee3\u5ddd\u5824\u9632\u8abf\u67fb\u696d\u52d9","survey_name":"\u5343\u4ee3\u5ddd\u5824\u9632\u8abf\u67fb\u696d\u52d9","client_name":"\u56fd\u571f\u4ea4\u901a\u7701\u4e2d\u56fd\u5730\u65b9\u6574\u5099\u5c40\u9ce5\u53d6\u6cb3\u5ddd\u56fd\u9053\u4e8b\u52d9\u6240","boring_xml_url":46,"boring_view_url":1,"soilmap_view_url":null,"soiltest_xml_url":49,"soiltest_view_url":48},{"id":253228,"code":"B4KJ201802001-8708","latitude":"35.421944","longitude":"134.2075","source_code":"CG06873052020090004","project_name":"\u5343\u4ee3\u5ddd\u5824\u9632\u8abf\u67fb\u696d\u52d9","survey_name":"\u5343\u4ee3\u5ddd\u5824\u9632\u8abf\u67fb\u696d\u52d9","client_name":"\u56fd\u571f\u4ea4\u901a\u7701\u4e2d\u56fd\u5730\u65b9\u6574\u5099\u5c40\u9ce5\u53d6\u6cb3\u5ddd\u56fd\u9053\u4e8b\u52d9\u6240","boring_xml_url":46,"boring_view_url":1,"soilmap_view_url":null,"soiltest_xml_url":49,"soiltest_view_url":48},{"id":253227,"code":"B4KJ201802001-8707","latitude":"35.478056","longitude":"134.211944","source_code":"CG06873052020090003","project_name":"\u5343\u4ee3\u5ddd\u5824\u9632\u8abf\u67fb\u696d\u52d9","survey_name":"\u5343\u4ee3\u5ddd\u5824\u9632\u8abf\u67fb\u696d\u52d9","client_name":"\u56fd\u571f\u4ea4\u901a\u7701\u4e2d\u56fd\u5730\u65b9\u6574\u5099\u5c40\u9ce5\u53d6\u6cb3\u5ddd\u56fd\u9053\u4e8b\u52d9\u6240","boring_xml_url":46,"boring_view_url":1,"soilmap_view_url":null,"soiltest_xml_url":49,"soiltest_view_url":48},{"id":253226,"code":"B4KJ201802001-8706","latitude":"35.478056","longitude":"134.211667","source_code":"CG06873052020090002","project_name":"\u5343\u4ee3\u5ddd\u5824\u9632\u8abf\u67fb\u696d\u52d9","survey_name":"\u5343\u4ee3\u5ddd\u5824\u9632\u8abf\u67fb\u696d\u52d9","client_name":"\u56fd\u571f\u4ea4\u901a\u7701\u4e2d\u56fd\u5730\u65b9\u6574\u5099\u5c40\u9ce5\u53d6\u6cb3\u5ddd\u56fd\u9053\u4e8b\u52d9\u6240","boring_xml_url":46,"boring_view_url":1,"soilmap_view_url":null,"soiltest_xml_url":49,"soiltest_view_url":48},{"id":253225,"code":"B4KJ201802001-8705","latitude":"35.361111","longitude":"134.206944","source_code":"CG06873052020090001","project_name":"\u5343\u4ee3\u5ddd\u5824\u9632\u8abf\u67fb\u696d\u52d9","survey_name":"\u5343\u4ee3\u5ddd\u5824\u9632\u8abf\u67fb\u696d\u52d9","client_name":"\u56fd\u571f\u4ea4\u901a\u7701\u4e2d\u56fd\u5730\u65b9\u6574\u5099\u5c40\u9ce5\u53d6\u6cb3\u5ddd\u56fd\u9053\u4e8b\u52d9\u6240","boring_xml_url":46,"boring_view_url":1,"soilmap_view_url":null,"soiltest_xml_url":49,"soiltest_view_url":48},{"id":253224,"code":"B4KJ201802001-8704","latitude":"35.402778","longitude":"134.218056","source_code":"CG068730520200100009","project_name":"","survey_name":"\u888b\u5ddd\u4ed6\u5824\u9632\u8abf\u67fb\u696d\u52d9","client_name":"\u56fd\u571f\u4ea4\u901a\u7701 \u4e2d\u56fd\u5730\u65b9\u6574\u5099\u5c40 \u9ce5\u53d6\u6cb3\u5ddd\u56fd\u9053\u4e8b\u52d9\u6240","boring_xml_url":47,"boring_view_url":1,"soilmap_view_url":null,"soiltest_xml_url":50,"soiltest_view_url":49},{"id":253223,"code":"B4KJ201802001-8703","latitude":"35.406667","longitude":"134.208889","source_code":"CG068730520200100008","project_name":"","survey_name":"\u888b\u5ddd\u4ed6\u5824\u9632\u8abf\u67fb\u696d\u52d9","client_name":"\u56fd\u571f\u4ea4\u901a\u7701 \u4e2d\u56fd\u5730\u65b9\u6574\u5099\u5c40 \u9ce5\u53d6\u6cb3\u5ddd\u56fd\u9053\u4e8b\u52d9\u6240","boring_xml_url":47,"boring_view_url":1,"soilmap_view_url":null,"soiltest_xml_url":50,"soiltest_view_url":49},{"id":253222,"code":"B4KJ201802001-8702","latitude":"35.403611","longitude":"134.213056","source_code":"CG068730520200100007","project_name":"","survey_name":"\u888b\u5ddd\u4ed6\u5824\u9632\u8abf\u67fb\u696d\u52d9","client_name":"\u56fd\u571f\u4ea4\u901a\u7701 \u4e2d\u56fd\u5730\u65b9\u6574\u5099\u5c40 \u9ce5\u53d6\u6cb3\u5ddd\u56fd\u9053\u4e8b\u52d9\u6240","boring_xml_url":47,"boring_view_url":1,"soilmap_view_url":null,"soiltest_xml_url":50,"soiltest_view_url":49},{"id":253221,"code":"B4KJ201802001-8701","latitude":"35.528333","longitude":"134.213056","source_code":"CG068730520200100006","project_name":"","survey_name":"\u888b\u5ddd\u4ed6\u5824\u9632\u8abf\u67fb\u696d\u52d9","client_name":"\u56fd\u571f\u4ea4\u901a\u7701 \u4e2d\u56fd\u5730\u65b9\u6574\u5099\u5c40 \u9ce5\u53d6\u6cb3\u5ddd\u56fd\u9053\u4e8b\u52d9\u6240","boring_xml_url":47,"boring_view_url":1,"soilmap_view_url":null,"soiltest_xml_url":50,"soiltest_view_url":49},{"id":253220,"code":"B4KJ201802001-8700","latitude":"35.515833","longitude":"134.225833","source_code":"CG068730520200100005","project_name":"","survey_name":"\u888b\u5ddd\u4ed6\u5824\u9632\u8abf\u67fb\u696d\u52d9","client_name":"\u56fd\u571f\u4ea4\u901a\u7701 \u4e2d\u56fd\u5730\u65b9\u6574\u5099\u5c40 \u9ce5\u53d6\u6cb3\u5ddd\u56fd\u9053\u4e8b\u52d9\u6240","boring_xml_url":47,"boring_view_url":1,"soilmap_view_url":null,"soiltest_xml_url":50,"soiltest_view_url":49},{"id":253219,"code":"B4KJ201802001-8699","latitude":"35.470278","longitude":"134.280278","source_code":"CG068730520200100004","project_name":"","survey_name":"\u888b\u5ddd\u4ed6\u5824\u9632\u8abf\u67fb\u696d\u52d9","client_name":"\u56fd\u571f\u4ea4\u901a\u7701 \u4e2d\u56fd\u5730\u65b9\u6574\u5099\u5c40 \u9ce5\u53d6\u6cb3\u5ddd\u56fd\u9053\u4e8b\u52d9\u6240","boring_xml_url":47,"boring_view_url":1,"soilmap_view_url":null,"soiltest_xml_url":50,"soiltest_view_url":49},{"id":253218,"code":"B4KJ201802001-8698","latitude":"35.48","longitude":"134.251667","source_code":"CG068730520200100003","project_name":"","survey_name":"\u888b\u5ddd\u4ed6\u5824\u9632\u8abf\u67fb\u696d\u52d9","client_name":"\u56fd\u571f\u4ea4\u901a\u7701 \u4e2d\u56fd\u5730\u65b9\u6574\u5099\u5c40 \u9ce5\u53d6\u6cb3\u5ddd\u56fd\u9053\u4e8b\u52d9\u6240","boring_xml_url":47,"boring_view_url":1,"soilmap_view_url":null,"soiltest_xml_url":50,"soiltest_view_url":49},{"id":253217,"code":"B4KJ201802001-8697","latitude":"35.469167","longitude":"134.281944","source_code":"CG068730520200100002","project_name":"","survey_name":"\u888b\u5ddd\u4ed6\u5824\u9632\u8abf\u67fb\u696d\u52d9","client_name":"\u56fd\u571f\u4ea4\u901a\u7701 \u4e2d\u56fd\u5730\u65b9\u6574\u5099\u5c40 \u9ce5\u53d6\u6cb3\u5ddd\u56fd\u9053\u4e8b\u52d9\u6240","boring_xml_url":47,"boring_view_url":1,"soilmap_view_url":null,"soiltest_xml_url":50,"soiltest_view_url":49}]}}