{"header":{"xyz":{"source":[],"mosaic":false},"page":2579,"raw":{"soiltest_result":"0","bbox":"57.598333,109.544722,1.933333,163.806111","page":"2579"},"conditions":{"soiltest_result":0,"north":57.598333,"west":109.544722,"south":1.933333,"east":163.806111},"success":true,"message":""},"data":{"meta":{"total":212844,"page":2579,"pages":7095,"count":30},"values":[{"id":253186,"code":"B4KJ201802001-8666","latitude":"35.4905","longitude":"134.212306","source_code":"CG058730520200060007","project_name":"\u5343\u4ee3\u5ddd\u672c\u5ddd\u5de6\u5cb8\u5074(\u76f4\u8f44\u7ba1\u7406\u533a\u9593)","survey_name":"\u5343\u4ee3\u5ddd\u5824\u9632\u8abf\u67fb\u696d\u52d9(\u305d\u306e1)","client_name":"\u56fd\u571f\u4ea4\u901a\u7701\u4e2d\u56fd\u5730\u65b9\u6574\u5099\u5c40\u9ce5\u53d6\u6cb3\u5ddd\u56fd\u9053\u4e8b\u52d9\u6240","boring_xml_url":47,"boring_view_url":1,"soilmap_view_url":null,"soiltest_xml_url":0,"soiltest_view_url":0},{"id":253185,"code":"B4KJ201802001-8665","latitude":"35.497583","longitude":"134.212639","source_code":"CG058730520200060006","project_name":"\u5343\u4ee3\u5ddd\u672c\u5ddd\u5de6\u5cb8\u5074(\u76f4\u8f44\u7ba1\u7406\u533a\u9593)","survey_name":"\u5343\u4ee3\u5ddd\u5824\u9632\u8abf\u67fb\u696d\u52d9(\u305d\u306e1)","client_name":"\u56fd\u571f\u4ea4\u901a\u7701\u4e2d\u56fd\u5730\u65b9\u6574\u5099\u5c40\u9ce5\u53d6\u6cb3\u5ddd\u56fd\u9053\u4e8b\u52d9\u6240","boring_xml_url":47,"boring_view_url":1,"soilmap_view_url":null,"soiltest_xml_url":0,"soiltest_view_url":0},{"id":253184,"code":"B4KJ201802001-8664","latitude":"35.507278","longitude":"134.212389","source_code":"CG058730520200060005","project_name":"\u5343\u4ee3\u5ddd\u672c\u5ddd\u5de6\u5cb8\u5074(\u76f4\u8f44\u7ba1\u7406\u533a\u9593)","survey_name":"\u5343\u4ee3\u5ddd\u5824\u9632\u8abf\u67fb\u696d\u52d9(\u305d\u306e1)","client_name":"\u56fd\u571f\u4ea4\u901a\u7701\u4e2d\u56fd\u5730\u65b9\u6574\u5099\u5c40\u9ce5\u53d6\u6cb3\u5ddd\u56fd\u9053\u4e8b\u52d9\u6240","boring_xml_url":47,"boring_view_url":1,"soilmap_view_url":null,"soiltest_xml_url":0,"soiltest_view_url":0},{"id":253183,"code":"B4KJ201802001-8663","latitude":"35.522667","longitude":"134.206389","source_code":"CG058730520200060004","project_name":"\u5343\u4ee3\u5ddd\u672c\u5ddd\u5de6\u5cb8\u5074(\u76f4\u8f44\u7ba1\u7406\u533a\u9593)","survey_name":"\u5343\u4ee3\u5ddd\u5824\u9632\u8abf\u67fb\u696d\u52d9(\u305d\u306e1)","client_name":"\u56fd\u571f\u4ea4\u901a\u7701\u4e2d\u56fd\u5730\u65b9\u6574\u5099\u5c40\u9ce5\u53d6\u6cb3\u5ddd\u56fd\u9053\u4e8b\u52d9\u6240","boring_xml_url":47,"boring_view_url":1,"soilmap_view_url":null,"soiltest_xml_url":0,"soiltest_view_url":0},{"id":253182,"code":"B4KJ201802001-8662","latitude":"35.522722","longitude":"134.2065","source_code":"CG058730520200060003","project_name":"\u5343\u4ee3\u5ddd\u672c\u5ddd\u5de6\u5cb8\u5074(\u76f4\u8f44\u7ba1\u7406\u533a\u9593)","survey_name":"\u5343\u4ee3\u5ddd\u5824\u9632\u8abf\u67fb\u696d\u52d9(\u305d\u306e1)","client_name":"\u56fd\u571f\u4ea4\u901a\u7701\u4e2d\u56fd\u5730\u65b9\u6574\u5099\u5c40\u9ce5\u53d6\u6cb3\u5ddd\u56fd\u9053\u4e8b\u52d9\u6240","boring_xml_url":47,"boring_view_url":1,"soilmap_view_url":null,"soiltest_xml_url":0,"soiltest_view_url":0},{"id":253181,"code":"B4KJ201802001-8661","latitude":"35.522722","longitude":"134.2065","source_code":"CG058730520200060002","project_name":"\u5343\u4ee3\u5ddd\u672c\u5ddd\u5de6\u5cb8\u5074(\u76f4\u8f44\u7ba1\u7406\u533a\u9593)","survey_name":"\u5343\u4ee3\u5ddd\u5824\u9632\u8abf\u67fb\u696d\u52d9(\u305d\u306e1)","client_name":"\u56fd\u571f\u4ea4\u901a\u7701\u4e2d\u56fd\u5730\u65b9\u6574\u5099\u5c40\u9ce5\u53d6\u6cb3\u5ddd\u56fd\u9053\u4e8b\u52d9\u6240","boring_xml_url":47,"boring_view_url":1,"soilmap_view_url":null,"soiltest_xml_url":0,"soiltest_view_url":0},{"id":253180,"code":"B4KJ201802001-8660","latitude":"35.52625","longitude":"134.204083","source_code":"CG058730520200060001","project_name":"\u5343\u4ee3\u5ddd\u672c\u5ddd\u5de6\u5cb8\u5074(\u76f4\u8f44\u7ba1\u7406\u533a\u9593)","survey_name":"\u5343\u4ee3\u5ddd\u5824\u9632\u8abf\u67fb\u696d\u52d9(\u305d\u306e1)","client_name":"\u56fd\u571f\u4ea4\u901a\u7701\u4e2d\u56fd\u5730\u65b9\u6574\u5099\u5c40\u9ce5\u53d6\u6cb3\u5ddd\u56fd\u9053\u4e8b\u52d9\u6240","boring_xml_url":47,"boring_view_url":1,"soilmap_view_url":null,"soiltest_xml_url":0,"soiltest_view_url":0},{"id":253179,"code":"B4KJ201802001-8659","latitude":"34.205833","longitude":"131.512778","source_code":"CG058760550200090004","project_name":"\u56fd\u90539\u53f7\u5bae\u91ce\u65b0\u6a4b\u8a73\u7d30\u8a2d\u8a08\u4ed6\u696d\u52d9","survey_name":"\u56fd\u90539\u53f7\u5bae\u91ce\u65b0\u6a4b\u8a73\u7d30\u8a2d\u8a08\u4ed6\u696d\u52d9","client_name":"\u56fd\u571f\u4ea4\u901a\u7701\u4e2d\u56fd\u5730\u65b9\u6574\u5099\u5c40\u5c71\u53e3\u6cb3\u5ddd\u56fd\u9053\u4e8b\u52d9\u6240","boring_xml_url":47,"boring_view_url":1,"soilmap_view_url":null,"soiltest_xml_url":0,"soiltest_view_url":0},{"id":253178,"code":"B4KJ201802001-8658","latitude":"34.205556","longitude":"131.513056","source_code":"CG058760550200090003","project_name":"\u56fd\u90539\u53f7\u5bae\u91ce\u65b0\u6a4b\u8a73\u7d30\u8a2d\u8a08\u4ed6\u696d\u52d9","survey_name":"\u56fd\u90539\u53f7\u5bae\u91ce\u65b0\u6a4b\u8a73\u7d30\u8a2d\u8a08\u4ed6\u696d\u52d9","client_name":"\u56fd\u571f\u4ea4\u901a\u7701\u4e2d\u56fd\u5730\u65b9\u6574\u5099\u5c40\u5c71\u53e3\u6cb3\u5ddd\u56fd\u9053\u4e8b\u52d9\u6240","boring_xml_url":47,"boring_view_url":1,"soilmap_view_url":null,"soiltest_xml_url":0,"soiltest_view_url":0},{"id":253177,"code":"B4KJ201802001-8657","latitude":"34.205833","longitude":"131.513333","source_code":"CG058760550200090002","project_name":"\u56fd\u90539\u53f7\u5bae\u91ce\u65b0\u6a4b\u8a73\u7d30\u8a2d\u8a08\u4ed6\u696d\u52d9","survey_name":"\u56fd\u90539\u53f7\u5bae\u91ce\u65b0\u6a4b\u8a73\u7d30\u8a2d\u8a08\u4ed6\u696d\u52d9","client_name":"\u56fd\u571f\u4ea4\u901a\u7701\u4e2d\u56fd\u5730\u65b9\u6574\u5099\u5c40\u5c71\u53e3\u6cb3\u5ddd\u56fd\u9053\u4e8b\u52d9\u6240","boring_xml_url":47,"boring_view_url":1,"soilmap_view_url":null,"soiltest_xml_url":0,"soiltest_view_url":0},{"id":253176,"code":"B4KJ201802001-8656","latitude":"34.205556","longitude":"131.513333","source_code":"CG058760550200090001","project_name":"\u56fd\u90539\u53f7\u5bae\u91ce\u65b0\u6a4b\u8a73\u7d30\u8a2d\u8a08\u4ed6\u696d\u52d9","survey_name":"\u56fd\u90539\u53f7\u5bae\u91ce\u65b0\u6a4b\u8a73\u7d30\u8a2d\u8a08\u4ed6\u696d\u52d9","client_name":"\u56fd\u571f\u4ea4\u901a\u7701\u4e2d\u56fd\u5730\u65b9\u6574\u5099\u5c40\u5c71\u53e3\u6cb3\u5ddd\u56fd\u9053\u4e8b\u52d9\u6240","boring_xml_url":47,"boring_view_url":1,"soilmap_view_url":null,"soiltest_xml_url":0,"soiltest_view_url":0},{"id":253175,"code":"B4KJ201802001-8655","latitude":"34.049889","longitude":"131.520778","source_code":"CG058760520200190017","project_name":"\u4f50\u6ce2\u5ddd\u6cb3\u5ddd\u5824\u9632\u5b89\u5168\u6027\u691c\u8a0e\u696d\u52d9","survey_name":"\u4f50\u6ce2\u5ddd\u6cb3\u5ddd\u5824\u9632\u5b89\u5168\u6027\u691c\u8a0e\u696d\u52d9","client_name":"\u56fd\u571f\u4ea4\u901a\u7701 \u4e2d\u56fd\u5730\u65b9\u6574\u5099\u5c40 \u5c71\u53e3\u6cb3\u5ddd\u56fd\u9053\u4e8b\u52d9\u6240","boring_xml_url":47,"boring_view_url":1,"soilmap_view_url":null,"soiltest_xml_url":50,"soiltest_view_url":49},{"id":253174,"code":"B4KJ201802001-8654","latitude":"34.049667","longitude":"131.520917","source_code":"CG058760520200190016","project_name":"\u4f50\u6ce2\u5ddd\u6cb3\u5ddd\u5824\u9632\u5b89\u5168\u6027\u691c\u8a0e\u696d\u52d9","survey_name":"\u4f50\u6ce2\u5ddd\u6cb3\u5ddd\u5824\u9632\u5b89\u5168\u6027\u691c\u8a0e\u696d\u52d9","client_name":"\u56fd\u571f\u4ea4\u901a\u7701 \u4e2d\u56fd\u5730\u65b9\u6574\u5099\u5c40 \u5c71\u53e3\u6cb3\u5ddd\u56fd\u9053\u4e8b\u52d9\u6240","boring_xml_url":47,"boring_view_url":1,"soilmap_view_url":null,"soiltest_xml_url":50,"soiltest_view_url":49},{"id":253173,"code":"B4KJ201802001-8653","latitude":"34.043361","longitude":"131.511389","source_code":"CG058760520200190015","project_name":"\u4f50\u6ce2\u5ddd\u6cb3\u5ddd\u5824\u9632\u5b89\u5168\u6027\u691c\u8a0e\u696d\u52d9","survey_name":"\u4f50\u6ce2\u5ddd\u6cb3\u5ddd\u5824\u9632\u5b89\u5168\u6027\u691c\u8a0e\u696d\u52d9","client_name":"\u56fd\u571f\u4ea4\u901a\u7701 \u4e2d\u56fd\u5730\u65b9\u6574\u5099\u5c40 \u5c71\u53e3\u6cb3\u5ddd\u56fd\u9053\u4e8b\u52d9\u6240","boring_xml_url":47,"boring_view_url":1,"soilmap_view_url":null,"soiltest_xml_url":50,"soiltest_view_url":49},{"id":253172,"code":"B4KJ201802001-8652","latitude":"34.04325","longitude":"131.511389","source_code":"CG058760520200190014","project_name":"\u4f50\u6ce2\u5ddd\u6cb3\u5ddd\u5824\u9632\u5b89\u5168\u6027\u691c\u8a0e\u696d\u52d9","survey_name":"\u4f50\u6ce2\u5ddd\u6cb3\u5ddd\u5824\u9632\u5b89\u5168\u6027\u691c\u8a0e\u696d\u52d9","client_name":"\u56fd\u571f\u4ea4\u901a\u7701 \u4e2d\u56fd\u5730\u65b9\u6574\u5099\u5c40 \u5c71\u53e3\u6cb3\u5ddd\u56fd\u9053\u4e8b\u52d9\u6240","boring_xml_url":47,"boring_view_url":1,"soilmap_view_url":null,"soiltest_xml_url":50,"soiltest_view_url":49},{"id":253171,"code":"B4KJ201802001-8651","latitude":"34.099417","longitude":"131.609306","source_code":"CG058760520200190013","project_name":"\u4f50\u6ce2\u5ddd\u6cb3\u5ddd\u5824\u9632\u5b89\u5168\u6027\u691c\u8a0e\u696d\u52d9","survey_name":"\u4f50\u6ce2\u5ddd\u6cb3\u5ddd\u5824\u9632\u5b89\u5168\u6027\u691c\u8a0e\u696d\u52d9","client_name":"\u56fd\u571f\u4ea4\u901a\u7701 \u4e2d\u56fd\u5730\u65b9\u6574\u5099\u5c40 \u5c71\u53e3\u6cb3\u5ddd\u56fd\u9053\u4e8b\u52d9\u6240","boring_xml_url":47,"boring_view_url":1,"soilmap_view_url":null,"soiltest_xml_url":50,"soiltest_view_url":49},{"id":253170,"code":"B4KJ201802001-8650","latitude":"34.093806","longitude":"131.61425","source_code":"CG058760520200190012","project_name":"\u4f50\u6ce2\u5ddd\u6cb3\u5ddd\u5824\u9632\u5b89\u5168\u6027\u691c\u8a0e\u696d\u52d9","survey_name":"\u4f50\u6ce2\u5ddd\u6cb3\u5ddd\u5824\u9632\u5b89\u5168\u6027\u691c\u8a0e\u696d\u52d9","client_name":"\u56fd\u571f\u4ea4\u901a\u7701 \u4e2d\u56fd\u5730\u65b9\u6574\u5099\u5c40 \u5c71\u53e3\u6cb3\u5ddd\u56fd\u9053\u4e8b\u52d9\u6240","boring_xml_url":47,"boring_view_url":1,"soilmap_view_url":null,"soiltest_xml_url":50,"soiltest_view_url":49},{"id":253169,"code":"B4KJ201802001-8649","latitude":"34.098278","longitude":"131.609944","source_code":"CG058760520200190011","project_name":"\u4f50\u6ce2\u5ddd\u6cb3\u5ddd\u5824\u9632\u5b89\u5168\u6027\u691c\u8a0e\u696d\u52d9","survey_name":"\u4f50\u6ce2\u5ddd\u6cb3\u5ddd\u5824\u9632\u5b89\u5168\u6027\u691c\u8a0e\u696d\u52d9","client_name":"\u56fd\u571f\u4ea4\u901a\u7701 \u4e2d\u56fd\u5730\u65b9\u6574\u5099\u5c40 \u5c71\u53e3\u6cb3\u5ddd\u56fd\u9053\u4e8b\u52d9\u6240","boring_xml_url":47,"boring_view_url":1,"soilmap_view_url":null,"soiltest_xml_url":50,"soiltest_view_url":49},{"id":253168,"code":"B4KJ201802001-8648","latitude":"34.053056","longitude":"131.530194","source_code":"CG058760520200190010","project_name":"\u4f50\u6ce2\u5ddd\u6cb3\u5ddd\u5824\u9632\u5b89\u5168\u6027\u691c\u8a0e\u696d\u52d9","survey_name":"\u4f50\u6ce2\u5ddd\u6cb3\u5ddd\u5824\u9632\u5b89\u5168\u6027\u691c\u8a0e\u696d\u52d9","client_name":"\u56fd\u571f\u4ea4\u901a\u7701 \u4e2d\u56fd\u5730\u65b9\u6574\u5099\u5c40 \u5c71\u53e3\u6cb3\u5ddd\u56fd\u9053\u4e8b\u52d9\u6240","boring_xml_url":47,"boring_view_url":1,"soilmap_view_url":null,"soiltest_xml_url":50,"soiltest_view_url":49},{"id":253167,"code":"B4KJ201802001-8647","latitude":"34.041111","longitude":"131.505639","source_code":"CG058760520200190009","project_name":"\u4f50\u6ce2\u5ddd\u6cb3\u5ddd\u5824\u9632\u5b89\u5168\u6027\u691c\u8a0e\u696d\u52d9","survey_name":"\u4f50\u6ce2\u5ddd\u6cb3\u5ddd\u5824\u9632\u5b89\u5168\u6027\u691c\u8a0e\u696d\u52d9","client_name":"\u56fd\u571f\u4ea4\u901a\u7701 \u4e2d\u56fd\u5730\u65b9\u6574\u5099\u5c40 \u5c71\u53e3\u6cb3\u5ddd\u56fd\u9053\u4e8b\u52d9\u6240","boring_xml_url":47,"boring_view_url":1,"soilmap_view_url":null,"soiltest_xml_url":50,"soiltest_view_url":49},{"id":253166,"code":"B4KJ201802001-8646","latitude":"34.094472","longitude":"131.614222","source_code":"CG058760520200190008","project_name":"\u4f50\u6ce2\u5ddd\u6cb3\u5ddd\u5824\u9632\u5b89\u5168\u6027\u691c\u8a0e\u696d\u52d9","survey_name":"\u4f50\u6ce2\u5ddd\u6cb3\u5ddd\u5824\u9632\u5b89\u5168\u6027\u691c\u8a0e\u696d\u52d9","client_name":"\u56fd\u571f\u4ea4\u901a\u7701 \u4e2d\u56fd\u5730\u65b9\u6574\u5099\u5c40 \u5c71\u53e3\u6cb3\u5ddd\u56fd\u9053\u4e8b\u52d9\u6240","boring_xml_url":47,"boring_view_url":1,"soilmap_view_url":null,"soiltest_xml_url":50,"soiltest_view_url":49},{"id":253165,"code":"B4KJ201802001-8645","latitude":"34.09425","longitude":"131.613944","source_code":"CG058760520200190007","project_name":"\u4f50\u6ce2\u5ddd\u6cb3\u5ddd\u5824\u9632\u5b89\u5168\u6027\u691c\u8a0e\u696d\u52d9","survey_name":"\u4f50\u6ce2\u5ddd\u6cb3\u5ddd\u5824\u9632\u5b89\u5168\u6027\u691c\u8a0e\u696d\u52d9","client_name":"\u56fd\u571f\u4ea4\u901a\u7701 \u4e2d\u56fd\u5730\u65b9\u6574\u5099\u5c40 \u5c71\u53e3\u6cb3\u5ddd\u56fd\u9053\u4e8b\u52d9\u6240","boring_xml_url":47,"boring_view_url":1,"soilmap_view_url":null,"soiltest_xml_url":50,"soiltest_view_url":49},{"id":253164,"code":"B4KJ201802001-8644","latitude":"34.055361","longitude":"131.538528","source_code":"CG058760520200190006","project_name":"\u4f50\u6ce2\u5ddd\u6cb3\u5ddd\u5824\u9632\u5b89\u5168\u6027\u691c\u8a0e\u696d\u52d9","survey_name":"\u4f50\u6ce2\u5ddd\u6cb3\u5ddd\u5824\u9632\u5b89\u5168\u6027\u691c\u8a0e\u696d\u52d9","client_name":"\u56fd\u571f\u4ea4\u901a\u7701 \u4e2d\u56fd\u5730\u65b9\u6574\u5099\u5c40 \u5c71\u53e3\u6cb3\u5ddd\u56fd\u9053\u4e8b\u52d9\u6240","boring_xml_url":47,"boring_view_url":1,"soilmap_view_url":null,"soiltest_xml_url":50,"soiltest_view_url":49},{"id":253163,"code":"B4KJ201802001-8643","latitude":"34.055306","longitude":"131.538528","source_code":"CG058760520200190005","project_name":"\u4f50\u6ce2\u5ddd\u6cb3\u5ddd\u5824\u9632\u5b89\u5168\u6027\u691c\u8a0e\u696d\u52d9","survey_name":"\u4f50\u6ce2\u5ddd\u6cb3\u5ddd\u5824\u9632\u5b89\u5168\u6027\u691c\u8a0e\u696d\u52d9","client_name":"\u56fd\u571f\u4ea4\u901a\u7701 \u4e2d\u56fd\u5730\u65b9\u6574\u5099\u5c40 \u5c71\u53e3\u6cb3\u5ddd\u56fd\u9053\u4e8b\u52d9\u6240","boring_xml_url":47,"boring_view_url":1,"soilmap_view_url":null,"soiltest_xml_url":50,"soiltest_view_url":49},{"id":253162,"code":"B4KJ201802001-8642","latitude":"34.049889","longitude":"131.520778","source_code":"CG058760520200190004","project_name":"\u4f50\u6ce2\u5ddd\u6cb3\u5ddd\u5824\u9632\u5b89\u5168\u6027\u691c\u8a0e\u696d\u52d9","survey_name":"\u4f50\u6ce2\u5ddd\u6cb3\u5ddd\u5824\u9632\u5b89\u5168\u6027\u691c\u8a0e\u696d\u52d9","client_name":"\u56fd\u571f\u4ea4\u901a\u7701 \u4e2d\u56fd\u5730\u65b9\u6574\u5099\u5c40 \u5c71\u53e3\u6cb3\u5ddd\u56fd\u9053\u4e8b\u52d9\u6240","boring_xml_url":47,"boring_view_url":1,"soilmap_view_url":null,"soiltest_xml_url":50,"soiltest_view_url":49},{"id":253161,"code":"B4KJ201802001-8641","latitude":"34.049667","longitude":"131.520917","source_code":"CG058760520200190003","project_name":"\u4f50\u6ce2\u5ddd\u6cb3\u5ddd\u5824\u9632\u5b89\u5168\u6027\u691c\u8a0e\u696d\u52d9","survey_name":"\u4f50\u6ce2\u5ddd\u6cb3\u5ddd\u5824\u9632\u5b89\u5168\u6027\u691c\u8a0e\u696d\u52d9","client_name":"\u56fd\u571f\u4ea4\u901a\u7701 \u4e2d\u56fd\u5730\u65b9\u6574\u5099\u5c40 \u5c71\u53e3\u6cb3\u5ddd\u56fd\u9053\u4e8b\u52d9\u6240","boring_xml_url":47,"boring_view_url":1,"soilmap_view_url":null,"soiltest_xml_url":50,"soiltest_view_url":49},{"id":253160,"code":"B4KJ201802001-8640","latitude":"34.043361","longitude":"131.511389","source_code":"CG058760520200190002","project_name":"\u4f50\u6ce2\u5ddd\u6cb3\u5ddd\u5824\u9632\u5b89\u5168\u6027\u691c\u8a0e\u696d\u52d9","survey_name":"\u4f50\u6ce2\u5ddd\u6cb3\u5ddd\u5824\u9632\u5b89\u5168\u6027\u691c\u8a0e\u696d\u52d9","client_name":"\u56fd\u571f\u4ea4\u901a\u7701 \u4e2d\u56fd\u5730\u65b9\u6574\u5099\u5c40 \u5c71\u53e3\u6cb3\u5ddd\u56fd\u9053\u4e8b\u52d9\u6240","boring_xml_url":47,"boring_view_url":1,"soilmap_view_url":null,"soiltest_xml_url":50,"soiltest_view_url":49},{"id":253159,"code":"B4KJ201802001-8639","latitude":"34.04325","longitude":"131.511389","source_code":"CG058760520200190001","project_name":"\u4f50\u6ce2\u5ddd\u6cb3\u5ddd\u5824\u9632\u5b89\u5168\u6027\u691c\u8a0e\u696d\u52d9","survey_name":"\u4f50\u6ce2\u5ddd\u6cb3\u5ddd\u5824\u9632\u5b89\u5168\u6027\u691c\u8a0e\u696d\u52d9","client_name":"\u56fd\u571f\u4ea4\u901a\u7701 \u4e2d\u56fd\u5730\u65b9\u6574\u5099\u5c40 \u5c71\u53e3\u6cb3\u5ddd\u56fd\u9053\u4e8b\u52d9\u6240","boring_xml_url":47,"boring_view_url":1,"soilmap_view_url":null,"soiltest_xml_url":50,"soiltest_view_url":49},{"id":253158,"code":"B4KJ201802001-8638","latitude":"34.45","longitude":"131.417778","source_code":"CG058760540200100001","project_name":"","survey_name":"\u8429\u5c71\u53e3\u4fee\u7e55\u8a2d\u8a08\u5916\u696d\u52d9","client_name":"\u56fd\u571f\u4ea4\u901a\u7701\u4e2d\u56fd\u5730\u65b9\u6574\u5099\u5c40\u5c71\u53e3\u6cb3\u5ddd\u56fd\u9053\u4e8b\u52d9\u6240","boring_xml_url":47,"boring_view_url":1,"soilmap_view_url":null,"soiltest_xml_url":0,"soiltest_view_url":0},{"id":253157,"code":"B4KJ201802001-8637","latitude":"34.543806","longitude":"131.512","source_code":"CG058760540200180006","project_name":"","survey_name":"\u6728\u4e0e\u5730\u533a\u6cd5\u9762\u76e3\u8996\u8a2d\u5099\u5916\u696d\u52d9","client_name":"\u56fd\u571f\u4ea4\u901a\u7701\u4e2d\u56fd\u5730\u65b9\u6574\u5099\u5c40\u5c71\u53e3\u6cb3\u5ddd\u56fd\u9053\u4e8b\u52d9\u6240","boring_xml_url":47,"boring_view_url":1,"soilmap_view_url":null,"soiltest_xml_url":0,"soiltest_view_url":0}]}}