{"header":{"xyz":{"source":[],"mosaic":false},"page":2587,"raw":{"soiltest_result":"0","bbox":"57.598333,109.544722,1.933333,163.806111","page":"2587"},"conditions":{"soiltest_result":0,"north":57.598333,"west":109.544722,"south":1.933333,"east":163.806111},"success":true,"message":""},"data":{"meta":{"total":212844,"page":2587,"pages":7095,"count":30},"values":[{"id":252946,"code":"B4KJ201802001-8426","latitude":"34.341004","longitude":"132.653853","source_code":"CG78755620200150019","project_name":"\u6771\u5e83\u5cf6\u30fb\u5449\u9053\u8def","survey_name":"\u6771\u5e83\u5cf6\u30fb\u5449\u9053\u8def (\u5ca9\u5c71\u5730\u533a\u5916)\u5730\u8cea\u8abf\u67fb\u696d\u52d9","client_name":"\u56fd\u571f\u4ea4\u901a\u7701\u4e2d\u56fd\u5730\u65b9\u6574\u5099\u5c40 \u5e83\u5cf6\u56fd\u9053\u4e8b\u52d9\u6240\u8abf\u67fb\u8a2d\u8a08\u7b2c2\u8ab2","boring_xml_url":46,"boring_view_url":1,"soilmap_view_url":null,"soiltest_xml_url":0,"soiltest_view_url":0},{"id":252945,"code":"B4KJ201802001-8425","latitude":"34.340671","longitude":"132.653909","source_code":"CG78755620200150018","project_name":"\u6771\u5e83\u5cf6\u30fb\u5449\u9053\u8def","survey_name":"\u6771\u5e83\u5cf6\u30fb\u5449\u9053\u8def (\u5ca9\u5c71\u5730\u533a\u5916)\u5730\u8cea\u8abf\u67fb\u696d\u52d9","client_name":"\u56fd\u571f\u4ea4\u901a\u7701\u4e2d\u56fd\u5730\u65b9\u6574\u5099\u5c40 \u5e83\u5cf6\u56fd\u9053\u4e8b\u52d9\u6240\u8abf\u67fb\u8a2d\u8a08\u7b2c2\u8ab2","boring_xml_url":46,"boring_view_url":1,"soilmap_view_url":null,"soiltest_xml_url":0,"soiltest_view_url":0},{"id":252944,"code":"B4KJ201802001-8424","latitude":"34.34106","longitude":"132.654436","source_code":"CG78755620200150017","project_name":"\u6771\u5e83\u5cf6\u30fb\u5449\u9053\u8def","survey_name":"\u6771\u5e83\u5cf6\u30fb\u5449\u9053\u8def (\u5ca9\u5c71\u5730\u533a\u5916)\u5730\u8cea\u8abf\u67fb\u696d\u52d9","client_name":"\u56fd\u571f\u4ea4\u901a\u7701\u4e2d\u56fd\u5730\u65b9\u6574\u5099\u5c40 \u5e83\u5cf6\u56fd\u9053\u4e8b\u52d9\u6240\u8abf\u67fb\u8a2d\u8a08\u7b2c2\u8ab2","boring_xml_url":46,"boring_view_url":1,"soilmap_view_url":null,"soiltest_xml_url":0,"soiltest_view_url":0},{"id":252943,"code":"B4KJ201802001-8423","latitude":"34.340727","longitude":"132.65452","source_code":"CG78755620200150016","project_name":"\u6771\u5e83\u5cf6\u30fb\u5449\u9053\u8def","survey_name":"\u6771\u5e83\u5cf6\u30fb\u5449\u9053\u8def (\u5ca9\u5c71\u5730\u533a\u5916)\u5730\u8cea\u8abf\u67fb\u696d\u52d9","client_name":"\u56fd\u571f\u4ea4\u901a\u7701\u4e2d\u56fd\u5730\u65b9\u6574\u5099\u5c40 \u5e83\u5cf6\u56fd\u9053\u4e8b\u52d9\u6240\u8abf\u67fb\u8a2d\u8a08\u7b2c2\u8ab2","boring_xml_url":46,"boring_view_url":1,"soilmap_view_url":null,"soiltest_xml_url":0,"soiltest_view_url":0},{"id":252942,"code":"B4KJ201802001-8422","latitude":"34.341477","longitude":"132.656159","source_code":"CG78755620200150015","project_name":"\u6771\u5e83\u5cf6\u30fb\u5449\u9053\u8def","survey_name":"\u6771\u5e83\u5cf6\u30fb\u5449\u9053\u8def (\u5ca9\u5c71\u5730\u533a\u5916)\u5730\u8cea\u8abf\u67fb\u696d\u52d9","client_name":"\u56fd\u571f\u4ea4\u901a\u7701\u4e2d\u56fd\u5730\u65b9\u6574\u5099\u5c40 \u5e83\u5cf6\u56fd\u9053\u4e8b\u52d9\u6240\u8abf\u67fb\u8a2d\u8a08\u7b2c2\u8ab2","boring_xml_url":46,"boring_view_url":1,"soilmap_view_url":null,"soiltest_xml_url":0,"soiltest_view_url":0},{"id":252941,"code":"B4KJ201802001-8421","latitude":"34.341199","longitude":"132.656381","source_code":"CG78755620200150014","project_name":"\u6771\u5e83\u5cf6\u30fb\u5449\u9053\u8def","survey_name":"\u6771\u5e83\u5cf6\u30fb\u5449\u9053\u8def (\u5ca9\u5c71\u5730\u533a\u5916)\u5730\u8cea\u8abf\u67fb\u696d\u52d9","client_name":"\u56fd\u571f\u4ea4\u901a\u7701\u4e2d\u56fd\u5730\u65b9\u6574\u5099\u5c40 \u5e83\u5cf6\u56fd\u9053\u4e8b\u52d9\u6240\u8abf\u67fb\u8a2d\u8a08\u7b2c2\u8ab2","boring_xml_url":46,"boring_view_url":1,"soilmap_view_url":null,"soiltest_xml_url":0,"soiltest_view_url":0},{"id":252940,"code":"B4KJ201802001-8420","latitude":"34.341671","longitude":"132.656408","source_code":"CG78755620200150013","project_name":"\u6771\u5e83\u5cf6\u30fb\u5449\u9053\u8def","survey_name":"\u6771\u5e83\u5cf6\u30fb\u5449\u9053\u8def (\u5ca9\u5c71\u5730\u533a\u5916)\u5730\u8cea\u8abf\u67fb\u696d\u52d9","client_name":"\u56fd\u571f\u4ea4\u901a\u7701\u4e2d\u56fd\u5730\u65b9\u6574\u5099\u5c40 \u5e83\u5cf6\u56fd\u9053\u4e8b\u52d9\u6240\u8abf\u67fb\u8a2d\u8a08\u7b2c2\u8ab2","boring_xml_url":46,"boring_view_url":1,"soilmap_view_url":null,"soiltest_xml_url":0,"soiltest_view_url":0},{"id":252939,"code":"B4KJ201802001-8419","latitude":"34.340921","longitude":"132.657131","source_code":"CG78755620200150012","project_name":"\u6771\u5e83\u5cf6\u30fb\u5449\u9053\u8def","survey_name":"\u6771\u5e83\u5cf6\u30fb\u5449\u9053\u8def (\u5ca9\u5c71\u5730\u533a\u5916)\u5730\u8cea\u8abf\u67fb\u696d\u52d9","client_name":"\u56fd\u571f\u4ea4\u901a\u7701\u4e2d\u56fd\u5730\u65b9\u6574\u5099\u5c40 \u5e83\u5cf6\u56fd\u9053\u4e8b\u52d9\u6240\u8abf\u67fb\u8a2d\u8a08\u7b2c2\u8ab2","boring_xml_url":46,"boring_view_url":1,"soilmap_view_url":null,"soiltest_xml_url":0,"soiltest_view_url":0},{"id":252938,"code":"B4KJ201802001-8418","latitude":"34.342032","longitude":"132.665824","source_code":"CG78755620200150011","project_name":"\u6771\u5e83\u5cf6\u30fb\u5449\u9053\u8def","survey_name":"\u6771\u5e83\u5cf6\u30fb\u5449\u9053\u8def (\u5ca9\u5c71\u5730\u533a\u5916)\u5730\u8cea\u8abf\u67fb\u696d\u52d9","client_name":"\u56fd\u571f\u4ea4\u901a\u7701\u4e2d\u56fd\u5730\u65b9\u6574\u5099\u5c40 \u5e83\u5cf6\u56fd\u9053\u4e8b\u52d9\u6240\u8abf\u67fb\u8a2d\u8a08\u7b2c2\u8ab2","boring_xml_url":46,"boring_view_url":1,"soilmap_view_url":null,"soiltest_xml_url":0,"soiltest_view_url":0},{"id":252937,"code":"B4KJ201802001-8417","latitude":"34.341727","longitude":"132.66613","source_code":"CG78755620200150010","project_name":"\u6771\u5e83\u5cf6\u30fb\u5449\u9053\u8def","survey_name":"\u6771\u5e83\u5cf6\u30fb\u5449\u9053\u8def (\u5ca9\u5c71\u5730\u533a\u5916)\u5730\u8cea\u8abf\u67fb\u696d\u52d9","client_name":"\u56fd\u571f\u4ea4\u901a\u7701\u4e2d\u56fd\u5730\u65b9\u6574\u5099\u5c40 \u5e83\u5cf6\u56fd\u9053\u4e8b\u52d9\u6240\u8abf\u67fb\u8a2d\u8a08\u7b2c2\u8ab2","boring_xml_url":46,"boring_view_url":1,"soilmap_view_url":null,"soiltest_xml_url":0,"soiltest_view_url":0},{"id":252936,"code":"B4KJ201802001-8416","latitude":"34.341505","longitude":"132.668713","source_code":"CG78755620200150009","project_name":"\u6771\u5e83\u5cf6\u30fb\u5449\u9053\u8def","survey_name":"\u6771\u5e83\u5cf6\u30fb\u5449\u9053\u8def (\u5ca9\u5c71\u5730\u533a\u5916)\u5730\u8cea\u8abf\u67fb\u696d\u52d9","client_name":"\u56fd\u571f\u4ea4\u901a\u7701\u4e2d\u56fd\u5730\u65b9\u6574\u5099\u5c40 \u5e83\u5cf6\u56fd\u9053\u4e8b\u52d9\u6240\u8abf\u67fb\u8a2d\u8a08\u7b2c2\u8ab2","boring_xml_url":46,"boring_view_url":1,"soilmap_view_url":null,"soiltest_xml_url":0,"soiltest_view_url":0},{"id":252935,"code":"B4KJ201802001-8415","latitude":"34.342116","longitude":"132.670462","source_code":"CG78755620200150008","project_name":"\u6771\u5e83\u5cf6\u30fb\u5449\u9053\u8def","survey_name":"\u6771\u5e83\u5cf6\u30fb\u5449\u9053\u8def (\u5ca9\u5c71\u5730\u533a\u5916)\u5730\u8cea\u8abf\u67fb\u696d\u52d9","client_name":"\u56fd\u571f\u4ea4\u901a\u7701\u4e2d\u56fd\u5730\u65b9\u6574\u5099\u5c40 \u5e83\u5cf6\u56fd\u9053\u4e8b\u52d9\u6240\u8abf\u67fb\u8a2d\u8a08\u7b2c2\u8ab2","boring_xml_url":46,"boring_view_url":1,"soilmap_view_url":null,"soiltest_xml_url":0,"soiltest_view_url":0},{"id":252934,"code":"B4KJ201802001-8414","latitude":"34.342949","longitude":"132.679406","source_code":"CG78755620200150007","project_name":"\u6771\u5e83\u5cf6\u30fb\u5449\u9053\u8def","survey_name":"\u6771\u5e83\u5cf6\u30fb\u5449\u9053\u8def (\u5ca9\u5c71\u5730\u533a\u5916)\u5730\u8cea\u8abf\u67fb\u696d\u52d9","client_name":"\u56fd\u571f\u4ea4\u901a\u7701\u4e2d\u56fd\u5730\u65b9\u6574\u5099\u5c40 \u5e83\u5cf6\u56fd\u9053\u4e8b\u52d9\u6240\u8abf\u67fb\u8a2d\u8a08\u7b2c2\u8ab2","boring_xml_url":46,"boring_view_url":1,"soilmap_view_url":null,"soiltest_xml_url":0,"soiltest_view_url":0},{"id":252933,"code":"B4KJ201802001-8413","latitude":"34.342949","longitude":"132.679545","source_code":"CG78755620200150006","project_name":"\u6771\u5e83\u5cf6\u30fb\u5449\u9053\u8def","survey_name":"\u6771\u5e83\u5cf6\u30fb\u5449\u9053\u8def (\u5ca9\u5c71\u5730\u533a\u5916)\u5730\u8cea\u8abf\u67fb\u696d\u52d9","client_name":"\u56fd\u571f\u4ea4\u901a\u7701\u4e2d\u56fd\u5730\u65b9\u6574\u5099\u5c40 \u5e83\u5cf6\u56fd\u9053\u4e8b\u52d9\u6240\u8abf\u67fb\u8a2d\u8a08\u7b2c2\u8ab2","boring_xml_url":46,"boring_view_url":1,"soilmap_view_url":null,"soiltest_xml_url":0,"soiltest_view_url":0},{"id":252932,"code":"B4KJ201802001-8412","latitude":"34.342755","longitude":"132.679545","source_code":"CG78755620200150005","project_name":"\u6771\u5e83\u5cf6\u30fb\u5449\u9053\u8def","survey_name":"\u6771\u5e83\u5cf6\u30fb\u5449\u9053\u8def (\u5ca9\u5c71\u5730\u533a\u5916)\u5730\u8cea\u8abf\u67fb\u696d\u52d9","client_name":"\u56fd\u571f\u4ea4\u901a\u7701\u4e2d\u56fd\u5730\u65b9\u6574\u5099\u5c40 \u5e83\u5cf6\u56fd\u9053\u4e8b\u52d9\u6240\u8abf\u67fb\u8a2d\u8a08\u7b2c2\u8ab2","boring_xml_url":46,"boring_view_url":1,"soilmap_view_url":null,"soiltest_xml_url":0,"soiltest_view_url":0},{"id":252931,"code":"B4KJ201802001-8411","latitude":"34.342671","longitude":"132.678073","source_code":"CG78755620200150004","project_name":"\u6771\u5e83\u5cf6\u30fb\u5449\u9053\u8def","survey_name":"\u6771\u5e83\u5cf6\u30fb\u5449\u9053\u8def (\u5ca9\u5c71\u5730\u533a\u5916)\u5730\u8cea\u8abf\u67fb\u696d\u52d9","client_name":"\u56fd\u571f\u4ea4\u901a\u7701\u4e2d\u56fd\u5730\u65b9\u6574\u5099\u5c40 \u5e83\u5cf6\u56fd\u9053\u4e8b\u52d9\u6240\u8abf\u67fb\u8a2d\u8a08\u7b2c2\u8ab2","boring_xml_url":46,"boring_view_url":1,"soilmap_view_url":null,"soiltest_xml_url":0,"soiltest_view_url":0},{"id":252930,"code":"B4KJ201802001-8410","latitude":"34.342505","longitude":"132.678101","source_code":"CG78755620200150003","project_name":"\u6771\u5e83\u5cf6\u30fb\u5449\u9053\u8def","survey_name":"\u6771\u5e83\u5cf6\u30fb\u5449\u9053\u8def (\u5ca9\u5c71\u5730\u533a\u5916)\u5730\u8cea\u8abf\u67fb\u696d\u52d9","client_name":"\u56fd\u571f\u4ea4\u901a\u7701\u4e2d\u56fd\u5730\u65b9\u6574\u5099\u5c40 \u5e83\u5cf6\u56fd\u9053\u4e8b\u52d9\u6240\u8abf\u67fb\u8a2d\u8a08\u7b2c2\u8ab2","boring_xml_url":46,"boring_view_url":1,"soilmap_view_url":null,"soiltest_xml_url":0,"soiltest_view_url":0},{"id":252929,"code":"B4KJ201802001-8409","latitude":"34.342755","longitude":"132.678545","source_code":"CG78755620200150002","project_name":"\u6771\u5e83\u5cf6\u30fb\u5449\u9053\u8def","survey_name":"\u6771\u5e83\u5cf6\u30fb\u5449\u9053\u8def (\u5ca9\u5c71\u5730\u533a\u5916)\u5730\u8cea\u8abf\u67fb\u696d\u52d9","client_name":"\u56fd\u571f\u4ea4\u901a\u7701\u4e2d\u56fd\u5730\u65b9\u6574\u5099\u5c40 \u5e83\u5cf6\u56fd\u9053\u4e8b\u52d9\u6240\u8abf\u67fb\u8a2d\u8a08\u7b2c2\u8ab2","boring_xml_url":46,"boring_view_url":1,"soilmap_view_url":null,"soiltest_xml_url":0,"soiltest_view_url":0},{"id":252928,"code":"B4KJ201802001-8408","latitude":"34.34256","longitude":"132.678601","source_code":"CG78755620200150001","project_name":"\u6771\u5e83\u5cf6\u30fb\u5449\u9053\u8def","survey_name":"\u6771\u5e83\u5cf6\u30fb\u5449\u9053\u8def (\u5ca9\u5c71\u5730\u533a\u5916)\u5730\u8cea\u8abf\u67fb\u696d\u52d9","client_name":"\u56fd\u571f\u4ea4\u901a\u7701\u4e2d\u56fd\u5730\u65b9\u6574\u5099\u5c40 \u5e83\u5cf6\u56fd\u9053\u4e8b\u52d9\u6240\u8abf\u67fb\u8a2d\u8a08\u7b2c2\u8ab2","boring_xml_url":46,"boring_view_url":1,"soilmap_view_url":null,"soiltest_xml_url":0,"soiltest_view_url":0},{"id":252927,"code":"B4KJ201802001-8407","latitude":"34.267778","longitude":"132.626944","source_code":"CG078755400200090005","project_name":"\u6771\u5e83\u5cf6\u30fb\u5449\u9053\u8def(\u90f7\u539f\u5730\u533a)\u6e2c\u91cf\u8a2d\u8a08\u696d\u52d9","survey_name":"\u6771\u5e83\u5cf6\u30fb\u5449\u9053\u8def(\u90f7\u539f\u5730\u533a)\u6e2c\u91cf\u8a2d\u8a08\u696d\u52d9","client_name":"\u56fd\u571f\u4ea4\u901a\u7701 \u4e2d\u56fd\u5730\u65b9\u6574\u5099\u5c40 \u5e83\u5cf6\u56fd\u9053\u4e8b\u52d9\u6240","boring_xml_url":47,"boring_view_url":1,"soilmap_view_url":null,"soiltest_xml_url":0,"soiltest_view_url":0},{"id":252926,"code":"B4KJ201802001-8406","latitude":"34.265278","longitude":"132.630556","source_code":"CG078755400200090004","project_name":"\u6771\u5e83\u5cf6\u30fb\u5449\u9053\u8def(\u90f7\u539f\u5730\u533a)\u6e2c\u91cf\u8a2d\u8a08\u696d\u52d9","survey_name":"\u6771\u5e83\u5cf6\u30fb\u5449\u9053\u8def(\u90f7\u539f\u5730\u533a)\u6e2c\u91cf\u8a2d\u8a08\u696d\u52d9","client_name":"\u56fd\u571f\u4ea4\u901a\u7701 \u4e2d\u56fd\u5730\u65b9\u6574\u5099\u5c40 \u5e83\u5cf6\u56fd\u9053\u4e8b\u52d9\u6240","boring_xml_url":47,"boring_view_url":1,"soilmap_view_url":null,"soiltest_xml_url":0,"soiltest_view_url":0},{"id":252925,"code":"B4KJ201802001-8405","latitude":"34.265139","longitude":"132.630833","source_code":"CG078755400200090003","project_name":"\u6771\u5e83\u5cf6\u30fb\u5449\u9053\u8def(\u90f7\u539f\u5730\u533a)\u6e2c\u91cf\u8a2d\u8a08\u696d\u52d9","survey_name":"\u6771\u5e83\u5cf6\u30fb\u5449\u9053\u8def(\u90f7\u539f\u5730\u533a)\u6e2c\u91cf\u8a2d\u8a08\u696d\u52d9","client_name":"\u56fd\u571f\u4ea4\u901a\u7701 \u4e2d\u56fd\u5730\u65b9\u6574\u5099\u5c40 \u5e83\u5cf6\u56fd\u9053\u4e8b\u52d9\u6240","boring_xml_url":47,"boring_view_url":1,"soilmap_view_url":null,"soiltest_xml_url":0,"soiltest_view_url":0},{"id":252924,"code":"B4KJ201802001-8404","latitude":"34.265","longitude":"132.630972","source_code":"CG078755400200090002","project_name":"\u6771\u5e83\u5cf6\u30fb\u5449\u9053\u8def(\u90f7\u539f\u5730\u533a)\u6e2c\u91cf\u8a2d\u8a08\u696d\u52d9","survey_name":"\u6771\u5e83\u5cf6\u30fb\u5449\u9053\u8def(\u90f7\u539f\u5730\u533a)\u6e2c\u91cf\u8a2d\u8a08\u696d\u52d9","client_name":"\u56fd\u571f\u4ea4\u901a\u7701 \u4e2d\u56fd\u5730\u65b9\u6574\u5099\u5c40 \u5e83\u5cf6\u56fd\u9053\u4e8b\u52d9\u6240","boring_xml_url":47,"boring_view_url":1,"soilmap_view_url":null,"soiltest_xml_url":0,"soiltest_view_url":0},{"id":252923,"code":"B4KJ201802001-8403","latitude":"34.264639","longitude":"132.631139","source_code":"CG078755400200090001","project_name":"\u6771\u5e83\u5cf6\u30fb\u5449\u9053\u8def(\u90f7\u539f\u5730\u533a)\u6e2c\u91cf\u8a2d\u8a08\u696d\u52d9","survey_name":"\u6771\u5e83\u5cf6\u30fb\u5449\u9053\u8def(\u90f7\u539f\u5730\u533a)\u6e2c\u91cf\u8a2d\u8a08\u696d\u52d9","client_name":"\u56fd\u571f\u4ea4\u901a\u7701 \u4e2d\u56fd\u5730\u65b9\u6574\u5099\u5c40 \u5e83\u5cf6\u56fd\u9053\u4e8b\u52d9\u6240","boring_xml_url":47,"boring_view_url":1,"soilmap_view_url":null,"soiltest_xml_url":0,"soiltest_view_url":0},{"id":252922,"code":"B4KJ201802001-8402","latitude":"34.376139","longitude":"132.414417","source_code":"CG078755620200080015","project_name":"\u5e83\u5cf6\u5357\u9053\u8def","survey_name":"\u5e83\u5cf6\u5357\u9053\u8def\u6c5f\u6ce2\u5730\u533a\u5916\u5730\u8cea\u8abf\u67fb\u696d\u52d9","client_name":"\u56fd\u571f\u4ea4\u901a\u7701 \u4e2d\u56fd\u5730\u65b9\u6574\u5099\u5c40 \u5e83\u5cf6\u56fd\u9053\u4e8b\u52d9\u6240","boring_xml_url":47,"boring_view_url":1,"soilmap_view_url":null,"soiltest_xml_url":50,"soiltest_view_url":49},{"id":252921,"code":"B4KJ201802001-8401","latitude":"34.376028","longitude":"132.415417","source_code":"CG078755620200080014","project_name":"\u5e83\u5cf6\u5357\u9053\u8def","survey_name":"\u5e83\u5cf6\u5357\u9053\u8def\u6c5f\u6ce2\u5730\u533a\u5916\u5730\u8cea\u8abf\u67fb\u696d\u52d9","client_name":"\u56fd\u571f\u4ea4\u901a\u7701 \u4e2d\u56fd\u5730\u65b9\u6574\u5099\u5c40 \u5e83\u5cf6\u56fd\u9053\u4e8b\u52d9\u6240","boring_xml_url":47,"boring_view_url":1,"soilmap_view_url":null,"soiltest_xml_url":50,"soiltest_view_url":49},{"id":252920,"code":"B4KJ201802001-8400","latitude":"34.375639","longitude":"132.41725","source_code":"CG078755620200080013","project_name":"\u5e83\u5cf6\u5357\u9053\u8def","survey_name":"\u5e83\u5cf6\u5357\u9053\u8def\u6c5f\u6ce2\u5730\u533a\u5916\u5730\u8cea\u8abf\u67fb\u696d\u52d9","client_name":"\u56fd\u571f\u4ea4\u901a\u7701 \u4e2d\u56fd\u5730\u65b9\u6574\u5099\u5c40 \u5e83\u5cf6\u56fd\u9053\u4e8b\u52d9\u6240","boring_xml_url":47,"boring_view_url":1,"soilmap_view_url":null,"soiltest_xml_url":50,"soiltest_view_url":49},{"id":252919,"code":"B4KJ201802001-8399","latitude":"34.375278","longitude":"132.418333","source_code":"CG078755620200080012","project_name":"\u5e83\u5cf6\u5357\u9053\u8def","survey_name":"\u5e83\u5cf6\u5357\u9053\u8def\u6c5f\u6ce2\u5730\u533a\u5916\u5730\u8cea\u8abf\u67fb\u696d\u52d9","client_name":"\u56fd\u571f\u4ea4\u901a\u7701 \u4e2d\u56fd\u5730\u65b9\u6574\u5099\u5c40 \u5e83\u5cf6\u56fd\u9053\u4e8b\u52d9\u6240","boring_xml_url":47,"boring_view_url":1,"soilmap_view_url":null,"soiltest_xml_url":50,"soiltest_view_url":49},{"id":252918,"code":"B4KJ201802001-8398","latitude":"34.375194","longitude":"132.418583","source_code":"CG078755620200080011","project_name":"\u5e83\u5cf6\u5357\u9053\u8def","survey_name":"\u5e83\u5cf6\u5357\u9053\u8def\u6c5f\u6ce2\u5730\u533a\u5916\u5730\u8cea\u8abf\u67fb\u696d\u52d9","client_name":"\u56fd\u571f\u4ea4\u901a\u7701 \u4e2d\u56fd\u5730\u65b9\u6574\u5099\u5c40 \u5e83\u5cf6\u56fd\u9053\u4e8b\u52d9\u6240","boring_xml_url":47,"boring_view_url":1,"soilmap_view_url":null,"soiltest_xml_url":50,"soiltest_view_url":49},{"id":252917,"code":"B4KJ201802001-8397","latitude":"34.371278","longitude":"132.427306","source_code":"CG078755620200080010","project_name":"\u5e83\u5cf6\u5357\u9053\u8def","survey_name":"\u5e83\u5cf6\u5357\u9053\u8def\u6c5f\u6ce2\u5730\u533a\u5916\u5730\u8cea\u8abf\u67fb\u696d\u52d9","client_name":"\u56fd\u571f\u4ea4\u901a\u7701 \u4e2d\u56fd\u5730\u65b9\u6574\u5099\u5c40 \u5e83\u5cf6\u56fd\u9053\u4e8b\u52d9\u6240","boring_xml_url":47,"boring_view_url":1,"soilmap_view_url":null,"soiltest_xml_url":50,"soiltest_view_url":49}]}}