{"header":{"xyz":{"source":[],"mosaic":false},"page":2593,"raw":{"soiltest_result":"0","bbox":"57.598333,109.544722,1.933333,163.806111","page":"2593"},"conditions":{"soiltest_result":0,"north":57.598333,"west":109.544722,"south":1.933333,"east":163.806111},"success":true,"message":""},"data":{"meta":{"total":212844,"page":2593,"pages":7095,"count":30},"values":[{"id":252766,"code":"B4KJ201802001-8246","latitude":"34.437778","longitude":"132.2525","source_code":"CG058753420200220005","project_name":"\u5e83\u5cf6\u897f\u90e8\u5c71\u7cfb \u8d64\u571f\u57301\u53f7\u7802\u9632\u5830\u5824\u8a2d\u8a08\u4ed6\u696d\u52d9","survey_name":"\u5e83\u5cf6\u897f\u90e8\u5c71\u7cfb \u8d64\u571f\u57301\u53f7\u7802\u9632\u5830\u5824\u8a2d\u8a08\u4ed6\u696d\u52d9","client_name":"\u56fd\u571f\u4ea4\u901a\u7701\u4e2d\u56fd\u5730\u65b9\u6574\u5099\u5c40\u592a\u7530\u5ddd\u6cb3\u5ddd\u4e8b\u52d9\u6240","boring_xml_url":47,"boring_view_url":1,"soilmap_view_url":null,"soiltest_xml_url":0,"soiltest_view_url":0},{"id":252765,"code":"B4KJ201802001-8245","latitude":"34.437778","longitude":"132.253333","source_code":"CG058753420200220004","project_name":"\u5e83\u5cf6\u897f\u90e8\u5c71\u7cfb \u8d64\u571f\u57301\u53f7\u7802\u9632\u5830\u5824\u8a2d\u8a08\u4ed6\u696d\u52d9","survey_name":"\u5e83\u5cf6\u897f\u90e8\u5c71\u7cfb \u8d64\u571f\u57301\u53f7\u7802\u9632\u5830\u5824\u8a2d\u8a08\u4ed6\u696d\u52d9","client_name":"\u56fd\u571f\u4ea4\u901a\u7701\u4e2d\u56fd\u5730\u65b9\u6574\u5099\u5c40\u592a\u7530\u5ddd\u6cb3\u5ddd\u4e8b\u52d9\u6240","boring_xml_url":47,"boring_view_url":1,"soilmap_view_url":null,"soiltest_xml_url":0,"soiltest_view_url":0},{"id":252764,"code":"B4KJ201802001-8244","latitude":"34.437778","longitude":"132.252778","source_code":"CG058753420200220003","project_name":"\u5e83\u5cf6\u897f\u90e8\u5c71\u7cfb \u8d64\u571f\u57301\u53f7\u7802\u9632\u5830\u5824\u8a2d\u8a08\u4ed6\u696d\u52d9","survey_name":"\u5e83\u5cf6\u897f\u90e8\u5c71\u7cfb \u8d64\u571f\u57301\u53f7\u7802\u9632\u5830\u5824\u8a2d\u8a08\u4ed6\u696d\u52d9","client_name":"\u56fd\u571f\u4ea4\u901a\u7701\u4e2d\u56fd\u5730\u65b9\u6574\u5099\u5c40\u592a\u7530\u5ddd\u6cb3\u5ddd\u4e8b\u52d9\u6240","boring_xml_url":47,"boring_view_url":1,"soilmap_view_url":null,"soiltest_xml_url":0,"soiltest_view_url":0},{"id":252763,"code":"B4KJ201802001-8243","latitude":"34.438056","longitude":"132.2525","source_code":"CG058753420200220002","project_name":"\u5e83\u5cf6\u897f\u90e8\u5c71\u7cfb \u8d64\u571f\u57301\u53f7\u7802\u9632\u5830\u5824\u8a2d\u8a08\u4ed6\u696d\u52d9","survey_name":"\u5e83\u5cf6\u897f\u90e8\u5c71\u7cfb \u8d64\u571f\u57301\u53f7\u7802\u9632\u5830\u5824\u8a2d\u8a08\u4ed6\u696d\u52d9","client_name":"\u56fd\u571f\u4ea4\u901a\u7701\u4e2d\u56fd\u5730\u65b9\u6574\u5099\u5c40\u592a\u7530\u5ddd\u6cb3\u5ddd\u4e8b\u52d9\u6240","boring_xml_url":47,"boring_view_url":1,"soilmap_view_url":null,"soiltest_xml_url":0,"soiltest_view_url":0},{"id":252762,"code":"B4KJ201802001-8242","latitude":"34.438056","longitude":"132.252222","source_code":"CG058753420200220001","project_name":"\u5e83\u5cf6\u897f\u90e8\u5c71\u7cfb \u8d64\u571f\u57301\u53f7\u7802\u9632\u5830\u5824\u8a2d\u8a08\u4ed6\u696d\u52d9","survey_name":"\u5e83\u5cf6\u897f\u90e8\u5c71\u7cfb \u8d64\u571f\u57301\u53f7\u7802\u9632\u5830\u5824\u8a2d\u8a08\u4ed6\u696d\u52d9","client_name":"\u56fd\u571f\u4ea4\u901a\u7701\u4e2d\u56fd\u5730\u65b9\u6574\u5099\u5c40\u592a\u7530\u5ddd\u6cb3\u5ddd\u4e8b\u52d9\u6240","boring_xml_url":47,"boring_view_url":1,"soilmap_view_url":null,"soiltest_xml_url":0,"soiltest_view_url":0},{"id":252761,"code":"B4KJ201802001-8241","latitude":"34.587222","longitude":"132.294167","source_code":"CG068753410200100019","project_name":"","survey_name":"\u592a\u7530\u5ddd\u5730\u8cea\u8abf\u67fb\u696d\u52d9","client_name":"\u56fd\u571f\u4ea4\u901a\u7701 \u592a\u7530\u5ddd\u6cb3\u5ddd\u4e8b\u52d9\u6240","boring_xml_url":47,"boring_view_url":1,"soilmap_view_url":null,"soiltest_xml_url":0,"soiltest_view_url":0},{"id":252760,"code":"B4KJ201802001-8240","latitude":"34.586944","longitude":"132.294722","source_code":"CG068753410200100018","project_name":"","survey_name":"\u592a\u7530\u5ddd\u5730\u8cea\u8abf\u67fb\u696d\u52d9","client_name":"\u56fd\u571f\u4ea4\u901a\u7701 \u592a\u7530\u5ddd\u6cb3\u5ddd\u4e8b\u52d9\u6240","boring_xml_url":47,"boring_view_url":1,"soilmap_view_url":null,"soiltest_xml_url":0,"soiltest_view_url":0},{"id":252759,"code":"B4KJ201802001-8239","latitude":"34.5475","longitude":"132.391667","source_code":"CG068753410200100017","project_name":"","survey_name":"\u592a\u7530\u5ddd\u5730\u8cea\u8abf\u67fb\u696d\u52d9","client_name":"\u56fd\u571f\u4ea4\u901a\u7701 \u592a\u7530\u5ddd\u6cb3\u5ddd\u4e8b\u52d9\u6240","boring_xml_url":47,"boring_view_url":1,"soilmap_view_url":null,"soiltest_xml_url":0,"soiltest_view_url":0},{"id":252758,"code":"B4KJ201802001-8238","latitude":"34.5475","longitude":"132.391667","source_code":"CG068753410200100016","project_name":"","survey_name":"\u592a\u7530\u5ddd\u5730\u8cea\u8abf\u67fb\u696d\u52d9","client_name":"\u56fd\u571f\u4ea4\u901a\u7701 \u592a\u7530\u5ddd\u6cb3\u5ddd\u4e8b\u52d9\u6240","boring_xml_url":47,"boring_view_url":1,"soilmap_view_url":null,"soiltest_xml_url":0,"soiltest_view_url":0},{"id":252757,"code":"B4KJ201802001-8237","latitude":"34.547222","longitude":"132.401667","source_code":"CG068753410200100015","project_name":"","survey_name":"\u592a\u7530\u5ddd\u5730\u8cea\u8abf\u67fb\u696d\u52d9","client_name":"\u56fd\u571f\u4ea4\u901a\u7701 \u592a\u7530\u5ddd\u6cb3\u5ddd\u4e8b\u52d9\u6240","boring_xml_url":47,"boring_view_url":1,"soilmap_view_url":null,"soiltest_xml_url":0,"soiltest_view_url":0},{"id":252756,"code":"B4KJ201802001-8236","latitude":"34.547222","longitude":"132.401667","source_code":"CG068753410200100014","project_name":"","survey_name":"\u592a\u7530\u5ddd\u5730\u8cea\u8abf\u67fb\u696d\u52d9","client_name":"\u56fd\u571f\u4ea4\u901a\u7701 \u592a\u7530\u5ddd\u6cb3\u5ddd\u4e8b\u52d9\u6240","boring_xml_url":47,"boring_view_url":1,"soilmap_view_url":null,"soiltest_xml_url":0,"soiltest_view_url":0},{"id":252755,"code":"B4KJ201802001-8235","latitude":"34.529444","longitude":"132.433333","source_code":"CG068753410200100013","project_name":"","survey_name":"\u592a\u7530\u5ddd\u5730\u8cea\u8abf\u67fb\u696d\u52d9","client_name":"\u56fd\u571f\u4ea4\u901a\u7701 \u592a\u7530\u5ddd\u6cb3\u5ddd\u4e8b\u52d9\u6240","boring_xml_url":47,"boring_view_url":1,"soilmap_view_url":null,"soiltest_xml_url":0,"soiltest_view_url":0},{"id":252754,"code":"B4KJ201802001-8234","latitude":"34.529167","longitude":"132.433333","source_code":"CG068753410200100012","project_name":"","survey_name":"\u592a\u7530\u5ddd\u5730\u8cea\u8abf\u67fb\u696d\u52d9","client_name":"\u56fd\u571f\u4ea4\u901a\u7701 \u592a\u7530\u5ddd\u6cb3\u5ddd\u4e8b\u52d9\u6240","boring_xml_url":47,"boring_view_url":1,"soilmap_view_url":null,"soiltest_xml_url":0,"soiltest_view_url":0},{"id":252753,"code":"B4KJ201802001-8233","latitude":"34.521111","longitude":"132.453889","source_code":"CG068753410200100011","project_name":"","survey_name":"\u592a\u7530\u5ddd\u5730\u8cea\u8abf\u67fb\u696d\u52d9","client_name":"\u56fd\u571f\u4ea4\u901a\u7701 \u592a\u7530\u5ddd\u6cb3\u5ddd\u4e8b\u52d9\u6240","boring_xml_url":47,"boring_view_url":1,"soilmap_view_url":null,"soiltest_xml_url":0,"soiltest_view_url":0},{"id":252752,"code":"B4KJ201802001-8232","latitude":"34.521111","longitude":"132.453889","source_code":"CG068753410200100010","project_name":"","survey_name":"\u592a\u7530\u5ddd\u5730\u8cea\u8abf\u67fb\u696d\u52d9","client_name":"\u56fd\u571f\u4ea4\u901a\u7701 \u592a\u7530\u5ddd\u6cb3\u5ddd\u4e8b\u52d9\u6240","boring_xml_url":47,"boring_view_url":1,"soilmap_view_url":null,"soiltest_xml_url":0,"soiltest_view_url":0},{"id":252751,"code":"B4KJ201802001-8231","latitude":"34.540556","longitude":"132.434722","source_code":"CG068753410200100009","project_name":"","survey_name":"\u592a\u7530\u5ddd\u5730\u8cea\u8abf\u67fb\u696d\u52d9","client_name":"\u56fd\u571f\u4ea4\u901a\u7701 \u592a\u7530\u5ddd\u6cb3\u5ddd\u4e8b\u52d9\u6240","boring_xml_url":47,"boring_view_url":1,"soilmap_view_url":null,"soiltest_xml_url":0,"soiltest_view_url":0},{"id":252750,"code":"B4KJ201802001-8230","latitude":"34.540556","longitude":"132.434722","source_code":"CG068753410200100008","project_name":"","survey_name":"\u592a\u7530\u5ddd\u5730\u8cea\u8abf\u67fb\u696d\u52d9","client_name":"\u56fd\u571f\u4ea4\u901a\u7701 \u592a\u7530\u5ddd\u6cb3\u5ddd\u4e8b\u52d9\u6240","boring_xml_url":47,"boring_view_url":1,"soilmap_view_url":null,"soiltest_xml_url":0,"soiltest_view_url":0},{"id":252749,"code":"B4KJ201802001-8229","latitude":"34.518056","longitude":"132.516111","source_code":"CG068753410200100007","project_name":"","survey_name":"\u592a\u7530\u5ddd\u5730\u8cea\u8abf\u67fb\u696d\u52d9","client_name":"\u56fd\u571f\u4ea4\u901a\u7701 \u592a\u7530\u5ddd\u6cb3\u5ddd\u4e8b\u52d9\u6240","boring_xml_url":47,"boring_view_url":1,"soilmap_view_url":null,"soiltest_xml_url":0,"soiltest_view_url":0},{"id":252748,"code":"B4KJ201802001-8228","latitude":"34.555556","longitude":"132.339167","source_code":"CG068753410200100006","project_name":"","survey_name":"\u592a\u7530\u5ddd\u5730\u8cea\u8abf\u67fb\u696d\u52d9","client_name":"\u56fd\u571f\u4ea4\u901a\u7701 \u592a\u7530\u5ddd\u6cb3\u5ddd\u4e8b\u52d9\u6240","boring_xml_url":47,"boring_view_url":1,"soilmap_view_url":null,"soiltest_xml_url":0,"soiltest_view_url":0},{"id":252747,"code":"B4KJ201802001-8227","latitude":"34.555","longitude":"132.341389","source_code":"CG068753410200100005","project_name":"","survey_name":"\u592a\u7530\u5ddd\u5730\u8cea\u8abf\u67fb\u696d\u52d9","client_name":"\u56fd\u571f\u4ea4\u901a\u7701 \u592a\u7530\u5ddd\u6cb3\u5ddd\u4e8b\u52d9\u6240","boring_xml_url":47,"boring_view_url":1,"soilmap_view_url":null,"soiltest_xml_url":0,"soiltest_view_url":0},{"id":252746,"code":"B4KJ201802001-8226","latitude":"34.519444","longitude":"132.467778","source_code":"CG068753410200100004","project_name":"","survey_name":"\u592a\u7530\u5ddd\u5730\u8cea\u8abf\u67fb\u696d\u52d9","client_name":"\u56fd\u571f\u4ea4\u901a\u7701 \u592a\u7530\u5ddd\u6cb3\u5ddd\u4e8b\u52d9\u6240","boring_xml_url":47,"boring_view_url":1,"soilmap_view_url":null,"soiltest_xml_url":0,"soiltest_view_url":0},{"id":252745,"code":"B4KJ201802001-8225","latitude":"34.519722","longitude":"132.4675","source_code":"CG068753410200100003","project_name":"","survey_name":"\u592a\u7530\u5ddd\u5730\u8cea\u8abf\u67fb\u696d\u52d9","client_name":"\u56fd\u571f\u4ea4\u901a\u7701 \u592a\u7530\u5ddd\u6cb3\u5ddd\u4e8b\u52d9\u6240","boring_xml_url":47,"boring_view_url":1,"soilmap_view_url":null,"soiltest_xml_url":0,"soiltest_view_url":0},{"id":252744,"code":"B4KJ201802001-8224","latitude":"34.520278","longitude":"132.467222","source_code":"CG068753410200100002","project_name":"","survey_name":"\u592a\u7530\u5ddd\u5730\u8cea\u8abf\u67fb\u696d\u52d9","client_name":"\u56fd\u571f\u4ea4\u901a\u7701 \u592a\u7530\u5ddd\u6cb3\u5ddd\u4e8b\u52d9\u6240","boring_xml_url":47,"boring_view_url":1,"soilmap_view_url":null,"soiltest_xml_url":0,"soiltest_view_url":0},{"id":252743,"code":"B4KJ201802001-8223","latitude":"34.520833","longitude":"132.465556","source_code":"CG068753410200100001","project_name":"","survey_name":"\u592a\u7530\u5ddd\u5730\u8cea\u8abf\u67fb\u696d\u52d9","client_name":"\u56fd\u571f\u4ea4\u901a\u7701 \u592a\u7530\u5ddd\u6cb3\u5ddd\u4e8b\u52d9\u6240","boring_xml_url":47,"boring_view_url":1,"soilmap_view_url":null,"soiltest_xml_url":0,"soiltest_view_url":0},{"id":252742,"code":"B4KJ201802001-8222","latitude":"34.416194","longitude":"132.449444","source_code":"CG06875341020090005","project_name":"","survey_name":"\u592a\u7530\u5ddd\u5e02\u5185\u6d3e\u5ddd\u5916\u6e2c\u91cf\u8a2d\u8a08\u696d\u52d9","client_name":"\u56fd\u571f\u4ea4\u901a\u7701\u4e2d\u56fd\u5730\u65b9\u6574\u5099\u5c40 \u592a\u7530\u5ddd\u6cb3\u5ddd\u4e8b\u52d9\u6240","boring_xml_url":46,"boring_view_url":1,"soilmap_view_url":null,"soiltest_xml_url":0,"soiltest_view_url":0},{"id":252741,"code":"B4KJ201802001-8221","latitude":"34.4175","longitude":"132.450861","source_code":"CG06875341020090004","project_name":"","survey_name":"\u592a\u7530\u5ddd\u5e02\u5185\u6d3e\u5ddd\u5916\u6e2c\u91cf\u8a2d\u8a08\u696d\u52d9","client_name":"\u56fd\u571f\u4ea4\u901a\u7701\u4e2d\u56fd\u5730\u65b9\u6574\u5099\u5c40 \u592a\u7530\u5ddd\u6cb3\u5ddd\u4e8b\u52d9\u6240","boring_xml_url":46,"boring_view_url":1,"soilmap_view_url":null,"soiltest_xml_url":0,"soiltest_view_url":0},{"id":252740,"code":"B4KJ201802001-8220","latitude":"34.408389","longitude":"132.444167","source_code":"CG06875341020090003","project_name":"","survey_name":"\u592a\u7530\u5ddd\u5e02\u5185\u6d3e\u5ddd\u5916\u6e2c\u91cf\u8a2d\u8a08\u696d\u52d9","client_name":"\u56fd\u571f\u4ea4\u901a\u7701\u4e2d\u56fd\u5730\u65b9\u6574\u5099\u5c40 \u592a\u7530\u5ddd\u6cb3\u5ddd\u4e8b\u52d9\u6240","boring_xml_url":46,"boring_view_url":1,"soilmap_view_url":null,"soiltest_xml_url":0,"soiltest_view_url":0},{"id":252739,"code":"B4KJ201802001-8219","latitude":"34.414556","longitude":"132.446444","source_code":"CG06875341020090002","project_name":"","survey_name":"\u592a\u7530\u5ddd\u5e02\u5185\u6d3e\u5ddd\u5916\u6e2c\u91cf\u8a2d\u8a08\u696d\u52d9","client_name":"\u56fd\u571f\u4ea4\u901a\u7701\u4e2d\u56fd\u5730\u65b9\u6574\u5099\u5c40 \u592a\u7530\u5ddd\u6cb3\u5ddd\u4e8b\u52d9\u6240","boring_xml_url":46,"boring_view_url":1,"soilmap_view_url":null,"soiltest_xml_url":0,"soiltest_view_url":0},{"id":252738,"code":"B4KJ201802001-8218","latitude":"34.420472","longitude":"132.451639","source_code":"CG06875341020090001","project_name":"","survey_name":"\u592a\u7530\u5ddd\u5e02\u5185\u6d3e\u5ddd\u5916\u6e2c\u91cf\u8a2d\u8a08\u696d\u52d9","client_name":"\u56fd\u571f\u4ea4\u901a\u7701\u4e2d\u56fd\u5730\u65b9\u6574\u5099\u5c40 \u592a\u7530\u5ddd\u6cb3\u5ddd\u4e8b\u52d9\u6240","boring_xml_url":46,"boring_view_url":1,"soilmap_view_url":null,"soiltest_xml_url":0,"soiltest_view_url":0},{"id":252737,"code":"B4KJ201802001-8217","latitude":"34.480639","longitude":"132.541361","source_code":"CG068753600200210016","project_name":"\u592a\u7530\u5ddd\u30fb\u5c0f\u702c\u5ddd\u5824\u9632\u8a73\u7d30\u70b9\u691c\u696d\u52d9","survey_name":"\u592a\u7530\u5ddd\u30fb\u5c0f\u702c\u5ddd\u5824\u9632\u8a73\u7d30\u70b9\u691c\u696d\u52d9","client_name":"\u56fd\u571f\u4ea4\u901a\u7701\u4e2d\u56fd\u5730\u65b9\u6574\u5099\u5c40\u592a\u7530\u5ddd\u6cb3\u5ddd\u4e8b\u52d9\u6240","boring_xml_url":47,"boring_view_url":1,"soilmap_view_url":null,"soiltest_xml_url":50,"soiltest_view_url":49}]}}