{"header":{"xyz":{"source":[],"mosaic":false},"page":2595,"raw":{"soiltest_result":"0","bbox":"57.598333,109.544722,1.933333,163.806111","page":"2595"},"conditions":{"soiltest_result":0,"north":57.598333,"west":109.544722,"south":1.933333,"east":163.806111},"success":true,"message":""},"data":{"meta":{"total":212844,"page":2595,"pages":7095,"count":30},"values":[{"id":252706,"code":"B4KJ201802001-8186","latitude":"34.487444","longitude":"132.449056","source_code":"CG058753420200110002","project_name":"","survey_name":"\u5e83\u5cf6\u897f\u90e8\u5c71\u7cfb\u7dd1\u30f6\u4e18\u5730\u533a\u6e2c\u91cf\u4ed6\u696d\u52d9","client_name":"\u56fd\u571f\u4ea4\u901a\u7701 \u4e2d\u56fd\u5730\u65b9\u6574\u5099\u5c40 \u592a\u7530\u5ddd\u6cb3\u5ddd\u4e8b\u52d9\u6240","boring_xml_url":47,"boring_view_url":1,"soilmap_view_url":null,"soiltest_xml_url":0,"soiltest_view_url":0},{"id":252705,"code":"B4KJ201802001-8185","latitude":"34.487444","longitude":"132.449167","source_code":"CG058753420200110001","project_name":"","survey_name":"\u5e83\u5cf6\u897f\u90e8\u5c71\u7cfb\u7dd1\u30f6\u4e18\u5730\u533a\u6e2c\u91cf\u4ed6\u696d\u52d9","client_name":"\u56fd\u571f\u4ea4\u901a\u7701 \u4e2d\u56fd\u5730\u65b9\u6574\u5099\u5c40 \u592a\u7530\u5ddd\u6cb3\u5ddd\u4e8b\u52d9\u6240","boring_xml_url":47,"boring_view_url":1,"soilmap_view_url":null,"soiltest_xml_url":0,"soiltest_view_url":0},{"id":252704,"code":"B4KJ201802001-8184","latitude":"34.41975","longitude":"132.407472","source_code":"CG078753640200150008","project_name":"","survey_name":"\u5e83\u5cf6\u897f\u90e8\u5c71\u7cfb\u4e94\u6708\u304c\u4e18\u5730\u533a\u7802\u9632\u5830\u5824\u8a73\u7d30\u8a2d\u8a08\u696d\u52d9","client_name":"\u56fd\u571f\u4ea4\u901a\u7701 \u4e2d\u56fd\u5730\u65b9\u6574\u5099\u5c40 \u592a\u7530\u5ddd\u6cb3\u5ddd\u4e8b\u52d9\u6240","boring_xml_url":47,"boring_view_url":1,"soilmap_view_url":null,"soiltest_xml_url":0,"soiltest_view_url":0},{"id":252703,"code":"B4KJ201802001-8183","latitude":"34.419861","longitude":"132.407028","source_code":"CG078753640200150007","project_name":"","survey_name":"\u5e83\u5cf6\u897f\u90e8\u5c71\u7cfb\u4e94\u6708\u304c\u4e18\u5730\u533a\u7802\u9632\u5830\u5824\u8a73\u7d30\u8a2d\u8a08\u696d\u52d9","client_name":"\u56fd\u571f\u4ea4\u901a\u7701 \u4e2d\u56fd\u5730\u65b9\u6574\u5099\u5c40 \u592a\u7530\u5ddd\u6cb3\u5ddd\u4e8b\u52d9\u6240","boring_xml_url":47,"boring_view_url":1,"soilmap_view_url":null,"soiltest_xml_url":0,"soiltest_view_url":0},{"id":252702,"code":"B4KJ201802001-8182","latitude":"34.420028","longitude":"132.407","source_code":"CG078753640200150006","project_name":"","survey_name":"\u5e83\u5cf6\u897f\u90e8\u5c71\u7cfb\u4e94\u6708\u304c\u4e18\u5730\u533a\u7802\u9632\u5830\u5824\u8a73\u7d30\u8a2d\u8a08\u696d\u52d9","client_name":"\u56fd\u571f\u4ea4\u901a\u7701 \u4e2d\u56fd\u5730\u65b9\u6574\u5099\u5c40 \u592a\u7530\u5ddd\u6cb3\u5ddd\u4e8b\u52d9\u6240","boring_xml_url":47,"boring_view_url":1,"soilmap_view_url":null,"soiltest_xml_url":0,"soiltest_view_url":0},{"id":252701,"code":"B4KJ201802001-8181","latitude":"34.421222","longitude":"132.406944","source_code":"CG078753640200150005","project_name":"","survey_name":"\u5e83\u5cf6\u897f\u90e8\u5c71\u7cfb\u4e94\u6708\u304c\u4e18\u5730\u533a\u7802\u9632\u5830\u5824\u8a73\u7d30\u8a2d\u8a08\u696d\u52d9","client_name":"\u56fd\u571f\u4ea4\u901a\u7701 \u4e2d\u56fd\u5730\u65b9\u6574\u5099\u5c40 \u592a\u7530\u5ddd\u6cb3\u5ddd\u4e8b\u52d9\u6240","boring_xml_url":47,"boring_view_url":1,"soilmap_view_url":null,"soiltest_xml_url":0,"soiltest_view_url":0},{"id":252700,"code":"B4KJ201802001-8180","latitude":"34.422583","longitude":"132.406639","source_code":"CG078753640200150004","project_name":"","survey_name":"\u5e83\u5cf6\u897f\u90e8\u5c71\u7cfb\u4e94\u6708\u304c\u4e18\u5730\u533a\u7802\u9632\u5830\u5824\u8a73\u7d30\u8a2d\u8a08\u696d\u52d9","client_name":"\u56fd\u571f\u4ea4\u901a\u7701 \u4e2d\u56fd\u5730\u65b9\u6574\u5099\u5c40 \u592a\u7530\u5ddd\u6cb3\u5ddd\u4e8b\u52d9\u6240","boring_xml_url":47,"boring_view_url":1,"soilmap_view_url":null,"soiltest_xml_url":0,"soiltest_view_url":0},{"id":252699,"code":"B4KJ201802001-8179","latitude":"34.422444","longitude":"132.40725","source_code":"CG078753640200150003","project_name":"","survey_name":"\u5e83\u5cf6\u897f\u90e8\u5c71\u7cfb\u4e94\u6708\u304c\u4e18\u5730\u533a\u7802\u9632\u5830\u5824\u8a73\u7d30\u8a2d\u8a08\u696d\u52d9","client_name":"\u56fd\u571f\u4ea4\u901a\u7701 \u4e2d\u56fd\u5730\u65b9\u6574\u5099\u5c40 \u592a\u7530\u5ddd\u6cb3\u5ddd\u4e8b\u52d9\u6240","boring_xml_url":47,"boring_view_url":1,"soilmap_view_url":null,"soiltest_xml_url":0,"soiltest_view_url":0},{"id":252698,"code":"B4KJ201802001-8178","latitude":"34.422139","longitude":"132.406778","source_code":"CG078753640200150002","project_name":"","survey_name":"\u5e83\u5cf6\u897f\u90e8\u5c71\u7cfb\u4e94\u6708\u304c\u4e18\u5730\u533a\u7802\u9632\u5830\u5824\u8a73\u7d30\u8a2d\u8a08\u696d\u52d9","client_name":"\u56fd\u571f\u4ea4\u901a\u7701 \u4e2d\u56fd\u5730\u65b9\u6574\u5099\u5c40 \u592a\u7530\u5ddd\u6cb3\u5ddd\u4e8b\u52d9\u6240","boring_xml_url":47,"boring_view_url":1,"soilmap_view_url":null,"soiltest_xml_url":0,"soiltest_view_url":0},{"id":252697,"code":"B4KJ201802001-8177","latitude":"34.422167","longitude":"132.4065","source_code":"CG078753640200150001","project_name":"","survey_name":"\u5e83\u5cf6\u897f\u90e8\u5c71\u7cfb\u4e94\u6708\u304c\u4e18\u5730\u533a\u7802\u9632\u5830\u5824\u8a73\u7d30\u8a2d\u8a08\u696d\u52d9","client_name":"\u56fd\u571f\u4ea4\u901a\u7701 \u4e2d\u56fd\u5730\u65b9\u6574\u5099\u5c40 \u592a\u7530\u5ddd\u6cb3\u5ddd\u4e8b\u52d9\u6240","boring_xml_url":47,"boring_view_url":1,"soilmap_view_url":null,"soiltest_xml_url":0,"soiltest_view_url":0},{"id":252696,"code":"B4KJ201802001-8176","latitude":"34.561833","longitude":"132.505333","source_code":"CG078753640200180011","project_name":"\u5e83\u5cf6\u897f\u90e8\u5c71\u7cfb\u516b\u6728\u5730\u533a\u4ed6\u7802\u9632\u5830\u5824\u4e88\u5099\u8a2d\u8a08\u696d\u52d9","survey_name":"\u5e83\u5cf6\u897f\u90e8\u5c71\u7cfb\u516b\u6728\u5730\u533a\u4ed6\u7802\u9632\u5830\u5824\u4e88\u5099\u8a2d\u8a08\u696d\u52d9","client_name":"\u4e2d\u56fd\u5730\u65b9\u6574\u5099\u5c40 \u592a\u7530\u5ddd\u6cb3\u5ddd\u4e8b\u52d9\u6240","boring_xml_url":47,"boring_view_url":1,"soilmap_view_url":null,"soiltest_xml_url":0,"soiltest_view_url":0},{"id":252695,"code":"B4KJ201802001-8175","latitude":"34.56175","longitude":"132.505472","source_code":"CG078753640200180010","project_name":"\u5e83\u5cf6\u897f\u90e8\u5c71\u7cfb\u516b\u6728\u5730\u533a\u4ed6\u7802\u9632\u5830\u5824\u4e88\u5099\u8a2d\u8a08\u696d\u52d9","survey_name":"\u5e83\u5cf6\u897f\u90e8\u5c71\u7cfb\u516b\u6728\u5730\u533a\u4ed6\u7802\u9632\u5830\u5824\u4e88\u5099\u8a2d\u8a08\u696d\u52d9","client_name":"\u4e2d\u56fd\u5730\u65b9\u6574\u5099\u5c40 \u592a\u7530\u5ddd\u6cb3\u5ddd\u4e8b\u52d9\u6240","boring_xml_url":47,"boring_view_url":1,"soilmap_view_url":null,"soiltest_xml_url":0,"soiltest_view_url":0},{"id":252694,"code":"B4KJ201802001-8174","latitude":"34.562","longitude":"132.505861","source_code":"CG078753640200180009","project_name":"\u5e83\u5cf6\u897f\u90e8\u5c71\u7cfb\u516b\u6728\u5730\u533a\u4ed6\u7802\u9632\u5830\u5824\u4e88\u5099\u8a2d\u8a08\u696d\u52d9","survey_name":"\u5e83\u5cf6\u897f\u90e8\u5c71\u7cfb\u516b\u6728\u5730\u533a\u4ed6\u7802\u9632\u5830\u5824\u4e88\u5099\u8a2d\u8a08\u696d\u52d9","client_name":"\u4e2d\u56fd\u5730\u65b9\u6574\u5099\u5c40 \u592a\u7530\u5ddd\u6cb3\u5ddd\u4e8b\u52d9\u6240","boring_xml_url":47,"boring_view_url":1,"soilmap_view_url":null,"soiltest_xml_url":0,"soiltest_view_url":0},{"id":252693,"code":"B4KJ201802001-8173","latitude":"34.561889","longitude":"132.506056","source_code":"CG078753640200180008","project_name":"\u5e83\u5cf6\u897f\u90e8\u5c71\u7cfb\u516b\u6728\u5730\u533a\u4ed6\u7802\u9632\u5830\u5824\u4e88\u5099\u8a2d\u8a08\u696d\u52d9","survey_name":"\u5e83\u5cf6\u897f\u90e8\u5c71\u7cfb\u516b\u6728\u5730\u533a\u4ed6\u7802\u9632\u5830\u5824\u4e88\u5099\u8a2d\u8a08\u696d\u52d9","client_name":"\u4e2d\u56fd\u5730\u65b9\u6574\u5099\u5c40 \u592a\u7530\u5ddd\u6cb3\u5ddd\u4e8b\u52d9\u6240","boring_xml_url":47,"boring_view_url":1,"soilmap_view_url":null,"soiltest_xml_url":0,"soiltest_view_url":0},{"id":252692,"code":"B4KJ201802001-8172","latitude":"34.56225","longitude":"132.505722","source_code":"CG078753640200180007","project_name":"\u5e83\u5cf6\u897f\u90e8\u5c71\u7cfb\u516b\u6728\u5730\u533a\u4ed6\u7802\u9632\u5830\u5824\u4e88\u5099\u8a2d\u8a08\u696d\u52d9","survey_name":"\u5e83\u5cf6\u897f\u90e8\u5c71\u7cfb\u516b\u6728\u5730\u533a\u4ed6\u7802\u9632\u5830\u5824\u4e88\u5099\u8a2d\u8a08\u696d\u52d9","client_name":"\u4e2d\u56fd\u5730\u65b9\u6574\u5099\u5c40 \u592a\u7530\u5ddd\u6cb3\u5ddd\u4e8b\u52d9\u6240","boring_xml_url":47,"boring_view_url":1,"soilmap_view_url":null,"soiltest_xml_url":0,"soiltest_view_url":0},{"id":252691,"code":"B4KJ201802001-8171","latitude":"34.562222","longitude":"132.505917","source_code":"CG078753640200180006","project_name":"\u5e83\u5cf6\u897f\u90e8\u5c71\u7cfb\u516b\u6728\u5730\u533a\u4ed6\u7802\u9632\u5830\u5824\u4e88\u5099\u8a2d\u8a08\u696d\u52d9","survey_name":"\u5e83\u5cf6\u897f\u90e8\u5c71\u7cfb\u516b\u6728\u5730\u533a\u4ed6\u7802\u9632\u5830\u5824\u4e88\u5099\u8a2d\u8a08\u696d\u52d9","client_name":"\u4e2d\u56fd\u5730\u65b9\u6574\u5099\u5c40 \u592a\u7530\u5ddd\u6cb3\u5ddd\u4e8b\u52d9\u6240","boring_xml_url":47,"boring_view_url":1,"soilmap_view_url":null,"soiltest_xml_url":0,"soiltest_view_url":0},{"id":252690,"code":"B4KJ201802001-8170","latitude":"34.491417","longitude":"132.501528","source_code":"CG078753640200180005","project_name":"\u5e83\u5cf6\u897f\u90e8\u5c71\u7cfb\u516b\u6728\u5730\u533a\u4ed6\u7802\u9632\u5830\u5824\u4e88\u5099\u8a2d\u8a08\u696d\u52d9","survey_name":"\u5e83\u5cf6\u897f\u90e8\u5c71\u7cfb\u516b\u6728\u5730\u533a\u4ed6\u7802\u9632\u5830\u5824\u4e88\u5099\u8a2d\u8a08\u696d\u52d9","client_name":"\u4e2d\u56fd\u5730\u65b9\u6574\u5099\u5c40 \u592a\u7530\u5ddd\u6cb3\u5ddd\u4e8b\u52d9\u6240","boring_xml_url":47,"boring_view_url":1,"soilmap_view_url":null,"soiltest_xml_url":0,"soiltest_view_url":0},{"id":252689,"code":"B4KJ201802001-8169","latitude":"34.491472","longitude":"132.501306","source_code":"CG078753640200180004","project_name":"\u5e83\u5cf6\u897f\u90e8\u5c71\u7cfb\u516b\u6728\u5730\u533a\u4ed6\u7802\u9632\u5830\u5824\u4e88\u5099\u8a2d\u8a08\u696d\u52d9","survey_name":"\u5e83\u5cf6\u897f\u90e8\u5c71\u7cfb\u516b\u6728\u5730\u533a\u4ed6\u7802\u9632\u5830\u5824\u4e88\u5099\u8a2d\u8a08\u696d\u52d9","client_name":"\u4e2d\u56fd\u5730\u65b9\u6574\u5099\u5c40 \u592a\u7530\u5ddd\u6cb3\u5ddd\u4e8b\u52d9\u6240","boring_xml_url":47,"boring_view_url":1,"soilmap_view_url":null,"soiltest_xml_url":0,"soiltest_view_url":0},{"id":252688,"code":"B4KJ201802001-8168","latitude":"34.491333","longitude":"132.501333","source_code":"CG078753640200180003","project_name":"\u5e83\u5cf6\u897f\u90e8\u5c71\u7cfb\u516b\u6728\u5730\u533a\u4ed6\u7802\u9632\u5830\u5824\u4e88\u5099\u8a2d\u8a08\u696d\u52d9","survey_name":"\u5e83\u5cf6\u897f\u90e8\u5c71\u7cfb\u516b\u6728\u5730\u533a\u4ed6\u7802\u9632\u5830\u5824\u4e88\u5099\u8a2d\u8a08\u696d\u52d9","client_name":"\u4e2d\u56fd\u5730\u65b9\u6574\u5099\u5c40 \u592a\u7530\u5ddd\u6cb3\u5ddd\u4e8b\u52d9\u6240","boring_xml_url":47,"boring_view_url":1,"soilmap_view_url":null,"soiltest_xml_url":0,"soiltest_view_url":0},{"id":252687,"code":"B4KJ201802001-8167","latitude":"34.491583","longitude":"132.501417","source_code":"CG078753640200180002","project_name":"\u5e83\u5cf6\u897f\u90e8\u5c71\u7cfb\u516b\u6728\u5730\u533a\u4ed6\u7802\u9632\u5830\u5824\u4e88\u5099\u8a2d\u8a08\u696d\u52d9","survey_name":"\u5e83\u5cf6\u897f\u90e8\u5c71\u7cfb\u516b\u6728\u5730\u533a\u4ed6\u7802\u9632\u5830\u5824\u4e88\u5099\u8a2d\u8a08\u696d\u52d9","client_name":"\u4e2d\u56fd\u5730\u65b9\u6574\u5099\u5c40 \u592a\u7530\u5ddd\u6cb3\u5ddd\u4e8b\u52d9\u6240","boring_xml_url":47,"boring_view_url":1,"soilmap_view_url":null,"soiltest_xml_url":0,"soiltest_view_url":0},{"id":252686,"code":"B4KJ201802001-8166","latitude":"34.491444","longitude":"132.501361","source_code":"CG078753640200180001","project_name":"\u5e83\u5cf6\u897f\u90e8\u5c71\u7cfb\u516b\u6728\u5730\u533a\u4ed6\u7802\u9632\u5830\u5824\u4e88\u5099\u8a2d\u8a08\u696d\u52d9","survey_name":"\u5e83\u5cf6\u897f\u90e8\u5c71\u7cfb\u516b\u6728\u5730\u533a\u4ed6\u7802\u9632\u5830\u5824\u4e88\u5099\u8a2d\u8a08\u696d\u52d9","client_name":"\u4e2d\u56fd\u5730\u65b9\u6574\u5099\u5c40 \u592a\u7530\u5ddd\u6cb3\u5ddd\u4e8b\u52d9\u6240","boring_xml_url":47,"boring_view_url":1,"soilmap_view_url":null,"soiltest_xml_url":0,"soiltest_view_url":0},{"id":252685,"code":"B4KJ201802001-8165","latitude":"34.721389","longitude":"132.7725","source_code":"CG078752600200260001","project_name":"\u6c5f\u306e\u5ddd\u79cb\u753a\u5730\u533a\u4ed6\u6e2c\u91cf\u8a2d\u8a08\u696d\u52d9","survey_name":"\u6c5f\u306e\u5ddd\u79cb\u753a\u5730\u533a\u4ed6\u6e2c\u91cf\u8a2d\u8a08\u696d\u52d9","client_name":"\u56fd\u571f\u4ea4\u901a\u7701 \u4e09\u6b21\u6cb3\u5ddd\u56fd\u9053\u4e8b\u52d9\u6240 \u8abf\u67fb\u8a2d\u8a08\u8ab2","boring_xml_url":47,"boring_view_url":1,"soilmap_view_url":null,"soiltest_xml_url":0,"soiltest_view_url":0},{"id":252684,"code":"B4KJ201802001-8164","latitude":"34.398333","longitude":"133.104444","source_code":"CG078750400200270001","project_name":"","survey_name":"\u4e09\u539f\u30d0\u30a4\u30d1\u30b9\u7b2c4\u30c8\u30f3\u30cd\u30eb\u8a2d\u8a08\u691c\u8a0e\u696d\u52d9","client_name":"\u56fd\u571f\u4ea4\u901a\u7701\u4e2d\u56fd\u5730\u65b9\u6574\u5099\u5c40\u798f\u5c71\u6cb3\u5ddd\u56fd\u9053\u4e8b\u52d9\u6240","boring_xml_url":47,"boring_view_url":1,"soilmap_view_url":null,"soiltest_xml_url":0,"soiltest_view_url":0},{"id":252683,"code":"B4KJ201802001-8163","latitude":"34.555833","longitude":"133.203333","source_code":"CG078750600200140026","project_name":"","survey_name":"\u82a6\u7530\u5ddd\u30fb\u9ad8\u5c4b\u5ddd\u5824\u9632\u8a73\u7d30\u70b9\u691c\u691c\u8a0e\u696d\u52d9","client_name":"\u56fd\u571f\u4ea4\u901a\u7701\u4e2d\u56fd\u5730\u65b9\u6574\u5099\u5c40\u798f\u5c71\u6cb3\u5ddd\u56fd\u9053\u4e8b\u52d9\u6240","boring_xml_url":47,"boring_view_url":1,"soilmap_view_url":null,"soiltest_xml_url":50,"soiltest_view_url":49},{"id":252682,"code":"B4KJ201802001-8162","latitude":"34.555833","longitude":"133.203333","source_code":"CG078750600200140025","project_name":"","survey_name":"\u82a6\u7530\u5ddd\u30fb\u9ad8\u5c4b\u5ddd\u5824\u9632\u8a73\u7d30\u70b9\u691c\u691c\u8a0e\u696d\u52d9","client_name":"\u56fd\u571f\u4ea4\u901a\u7701\u4e2d\u56fd\u5730\u65b9\u6574\u5099\u5c40\u798f\u5c71\u6cb3\u5ddd\u56fd\u9053\u4e8b\u52d9\u6240","boring_xml_url":47,"boring_view_url":1,"soilmap_view_url":null,"soiltest_xml_url":50,"soiltest_view_url":49},{"id":252681,"code":"B4KJ201802001-8161","latitude":"34.554444","longitude":"133.208611","source_code":"CG078750600200140024","project_name":"","survey_name":"\u82a6\u7530\u5ddd\u30fb\u9ad8\u5c4b\u5ddd\u5824\u9632\u8a73\u7d30\u70b9\u691c\u691c\u8a0e\u696d\u52d9","client_name":"\u56fd\u571f\u4ea4\u901a\u7701\u4e2d\u56fd\u5730\u65b9\u6574\u5099\u5c40\u798f\u5c71\u6cb3\u5ddd\u56fd\u9053\u4e8b\u52d9\u6240","boring_xml_url":47,"boring_view_url":1,"soilmap_view_url":null,"soiltest_xml_url":50,"soiltest_view_url":49},{"id":252680,"code":"B4KJ201802001-8160","latitude":"34.554444","longitude":"133.208611","source_code":"CG078750600200140023","project_name":"","survey_name":"\u82a6\u7530\u5ddd\u30fb\u9ad8\u5c4b\u5ddd\u5824\u9632\u8a73\u7d30\u70b9\u691c\u691c\u8a0e\u696d\u52d9","client_name":"\u56fd\u571f\u4ea4\u901a\u7701\u4e2d\u56fd\u5730\u65b9\u6574\u5099\u5c40\u798f\u5c71\u6cb3\u5ddd\u56fd\u9053\u4e8b\u52d9\u6240","boring_xml_url":47,"boring_view_url":1,"soilmap_view_url":null,"soiltest_xml_url":50,"soiltest_view_url":49},{"id":252679,"code":"B4KJ201802001-8159","latitude":"34.569444","longitude":"133.229444","source_code":"CG078750600200140022","project_name":"","survey_name":"\u82a6\u7530\u5ddd\u30fb\u9ad8\u5c4b\u5ddd\u5824\u9632\u8a73\u7d30\u70b9\u691c\u691c\u8a0e\u696d\u52d9","client_name":"\u56fd\u571f\u4ea4\u901a\u7701\u4e2d\u56fd\u5730\u65b9\u6574\u5099\u5c40\u798f\u5c71\u6cb3\u5ddd\u56fd\u9053\u4e8b\u52d9\u6240","boring_xml_url":47,"boring_view_url":1,"soilmap_view_url":null,"soiltest_xml_url":50,"soiltest_view_url":49},{"id":252678,"code":"B4KJ201802001-8158","latitude":"34.569444","longitude":"133.229444","source_code":"CG078750600200140021","project_name":"","survey_name":"\u82a6\u7530\u5ddd\u30fb\u9ad8\u5c4b\u5ddd\u5824\u9632\u8a73\u7d30\u70b9\u691c\u691c\u8a0e\u696d\u52d9","client_name":"\u56fd\u571f\u4ea4\u901a\u7701\u4e2d\u56fd\u5730\u65b9\u6574\u5099\u5c40\u798f\u5c71\u6cb3\u5ddd\u56fd\u9053\u4e8b\u52d9\u6240","boring_xml_url":47,"boring_view_url":1,"soilmap_view_url":null,"soiltest_xml_url":50,"soiltest_view_url":49},{"id":252677,"code":"B4KJ201802001-8157","latitude":"34.549167","longitude":"133.250833","source_code":"CG078750600200140020","project_name":"","survey_name":"\u82a6\u7530\u5ddd\u30fb\u9ad8\u5c4b\u5ddd\u5824\u9632\u8a73\u7d30\u70b9\u691c\u691c\u8a0e\u696d\u52d9","client_name":"\u56fd\u571f\u4ea4\u901a\u7701\u4e2d\u56fd\u5730\u65b9\u6574\u5099\u5c40\u798f\u5c71\u6cb3\u5ddd\u56fd\u9053\u4e8b\u52d9\u6240","boring_xml_url":47,"boring_view_url":1,"soilmap_view_url":null,"soiltest_xml_url":50,"soiltest_view_url":49}]}}