{"header":{"xyz":{"source":[],"mosaic":false},"page":2598,"raw":{"soiltest_result":"0","bbox":"57.598333,109.544722,1.933333,163.806111","page":"2598"},"conditions":{"soiltest_result":0,"north":57.598333,"west":109.544722,"south":1.933333,"east":163.806111},"success":true,"message":""},"data":{"meta":{"total":212844,"page":2598,"pages":7095,"count":30},"values":[{"id":252616,"code":"B4KJ201802001-8096","latitude":"34.637722","longitude":"132.663833","source_code":"CG068752600201070032","project_name":"\u6c5f\u306e\u5ddd\u4e0a\u6d41\u5824\u9632\u6d78\u900f\u8abf\u67fb\u691c\u8a0e\u696d\u52d9","survey_name":"\u6c5f\u306e\u5ddd\u4e0a\u6d41\u5824\u9632\u6d78\u900f\u8abf\u67fb\u691c\u8a0e\u696d\u52d9","client_name":"\u56fd\u571f\u4ea4\u901a\u7701 \u4e2d\u56fd\u5730\u65b9\u6574\u5099\u5c40 \u4e09\u6b21\u6cb3\u5ddd\u56fd\u9053\u4e8b\u52d9\u6240","boring_xml_url":47,"boring_view_url":1,"soilmap_view_url":null,"soiltest_xml_url":0,"soiltest_view_url":0},{"id":252615,"code":"B4KJ201802001-8095","latitude":"34.637722","longitude":"132.66375","source_code":"CG068752600201070031","project_name":"\u6c5f\u306e\u5ddd\u4e0a\u6d41\u5824\u9632\u6d78\u900f\u8abf\u67fb\u691c\u8a0e\u696d\u52d9","survey_name":"\u6c5f\u306e\u5ddd\u4e0a\u6d41\u5824\u9632\u6d78\u900f\u8abf\u67fb\u691c\u8a0e\u696d\u52d9","client_name":"\u56fd\u571f\u4ea4\u901a\u7701 \u4e2d\u56fd\u5730\u65b9\u6574\u5099\u5c40 \u4e09\u6b21\u6cb3\u5ddd\u56fd\u9053\u4e8b\u52d9\u6240","boring_xml_url":47,"boring_view_url":1,"soilmap_view_url":null,"soiltest_xml_url":0,"soiltest_view_url":0},{"id":252614,"code":"B4KJ201802001-8094","latitude":"34.640556","longitude":"132.665833","source_code":"CG068752600201070030","project_name":"\u6c5f\u306e\u5ddd\u4e0a\u6d41\u5824\u9632\u6d78\u900f\u8abf\u67fb\u691c\u8a0e\u696d\u52d9","survey_name":"\u6c5f\u306e\u5ddd\u4e0a\u6d41\u5824\u9632\u6d78\u900f\u8abf\u67fb\u691c\u8a0e\u696d\u52d9","client_name":"\u56fd\u571f\u4ea4\u901a\u7701 \u4e2d\u56fd\u5730\u65b9\u6574\u5099\u5c40 \u4e09\u6b21\u6cb3\u5ddd\u56fd\u9053\u4e8b\u52d9\u6240","boring_xml_url":47,"boring_view_url":1,"soilmap_view_url":null,"soiltest_xml_url":0,"soiltest_view_url":0},{"id":252613,"code":"B4KJ201802001-8093","latitude":"34.643889","longitude":"132.675833","source_code":"CG068752600201070029","project_name":"\u6c5f\u306e\u5ddd\u4e0a\u6d41\u5824\u9632\u6d78\u900f\u8abf\u67fb\u691c\u8a0e\u696d\u52d9","survey_name":"\u6c5f\u306e\u5ddd\u4e0a\u6d41\u5824\u9632\u6d78\u900f\u8abf\u67fb\u691c\u8a0e\u696d\u52d9","client_name":"\u56fd\u571f\u4ea4\u901a\u7701 \u4e2d\u56fd\u5730\u65b9\u6574\u5099\u5c40 \u4e09\u6b21\u6cb3\u5ddd\u56fd\u9053\u4e8b\u52d9\u6240","boring_xml_url":47,"boring_view_url":1,"soilmap_view_url":null,"soiltest_xml_url":0,"soiltest_view_url":0},{"id":252612,"code":"B4KJ201802001-8092","latitude":"34.651389","longitude":"132.682583","source_code":"CG068752600201070028","project_name":"\u6c5f\u306e\u5ddd\u4e0a\u6d41\u5824\u9632\u6d78\u900f\u8abf\u67fb\u691c\u8a0e\u696d\u52d9","survey_name":"\u6c5f\u306e\u5ddd\u4e0a\u6d41\u5824\u9632\u6d78\u900f\u8abf\u67fb\u691c\u8a0e\u696d\u52d9","client_name":"\u56fd\u571f\u4ea4\u901a\u7701 \u4e2d\u56fd\u5730\u65b9\u6574\u5099\u5c40 \u4e09\u6b21\u6cb3\u5ddd\u56fd\u9053\u4e8b\u52d9\u6240","boring_xml_url":47,"boring_view_url":1,"soilmap_view_url":null,"soiltest_xml_url":0,"soiltest_view_url":0},{"id":252611,"code":"B4KJ201802001-8091","latitude":"34.651333","longitude":"132.682667","source_code":"CG068752600201070027","project_name":"\u6c5f\u306e\u5ddd\u4e0a\u6d41\u5824\u9632\u6d78\u900f\u8abf\u67fb\u691c\u8a0e\u696d\u52d9","survey_name":"\u6c5f\u306e\u5ddd\u4e0a\u6d41\u5824\u9632\u6d78\u900f\u8abf\u67fb\u691c\u8a0e\u696d\u52d9","client_name":"\u56fd\u571f\u4ea4\u901a\u7701 \u4e2d\u56fd\u5730\u65b9\u6574\u5099\u5c40 \u4e09\u6b21\u6cb3\u5ddd\u56fd\u9053\u4e8b\u52d9\u6240","boring_xml_url":47,"boring_view_url":1,"soilmap_view_url":null,"soiltest_xml_url":0,"soiltest_view_url":0},{"id":252610,"code":"B4KJ201802001-8090","latitude":"34.6525","longitude":"132.688889","source_code":"CG068752600201070026","project_name":"\u6c5f\u306e\u5ddd\u4e0a\u6d41\u5824\u9632\u6d78\u900f\u8abf\u67fb\u691c\u8a0e\u696d\u52d9","survey_name":"\u6c5f\u306e\u5ddd\u4e0a\u6d41\u5824\u9632\u6d78\u900f\u8abf\u67fb\u691c\u8a0e\u696d\u52d9","client_name":"\u56fd\u571f\u4ea4\u901a\u7701 \u4e2d\u56fd\u5730\u65b9\u6574\u5099\u5c40 \u4e09\u6b21\u6cb3\u5ddd\u56fd\u9053\u4e8b\u52d9\u6240","boring_xml_url":47,"boring_view_url":1,"soilmap_view_url":null,"soiltest_xml_url":0,"soiltest_view_url":0},{"id":252609,"code":"B4KJ201802001-8089","latitude":"34.69","longitude":"132.756111","source_code":"CG068752600201070025","project_name":"\u6c5f\u306e\u5ddd\u4e0a\u6d41\u5824\u9632\u6d78\u900f\u8abf\u67fb\u691c\u8a0e\u696d\u52d9","survey_name":"\u6c5f\u306e\u5ddd\u4e0a\u6d41\u5824\u9632\u6d78\u900f\u8abf\u67fb\u691c\u8a0e\u696d\u52d9","client_name":"\u56fd\u571f\u4ea4\u901a\u7701 \u4e2d\u56fd\u5730\u65b9\u6574\u5099\u5c40 \u4e09\u6b21\u6cb3\u5ddd\u56fd\u9053\u4e8b\u52d9\u6240","boring_xml_url":47,"boring_view_url":1,"soilmap_view_url":null,"soiltest_xml_url":0,"soiltest_view_url":0},{"id":252608,"code":"B4KJ201802001-8088","latitude":"34.700611","longitude":"132.766972","source_code":"CG068752600201070024","project_name":"\u6c5f\u306e\u5ddd\u4e0a\u6d41\u5824\u9632\u6d78\u900f\u8abf\u67fb\u691c\u8a0e\u696d\u52d9","survey_name":"\u6c5f\u306e\u5ddd\u4e0a\u6d41\u5824\u9632\u6d78\u900f\u8abf\u67fb\u691c\u8a0e\u696d\u52d9","client_name":"\u56fd\u571f\u4ea4\u901a\u7701 \u4e2d\u56fd\u5730\u65b9\u6574\u5099\u5c40 \u4e09\u6b21\u6cb3\u5ddd\u56fd\u9053\u4e8b\u52d9\u6240","boring_xml_url":47,"boring_view_url":1,"soilmap_view_url":null,"soiltest_xml_url":0,"soiltest_view_url":0},{"id":252607,"code":"B4KJ201802001-8087","latitude":"34.7075","longitude":"132.769778","source_code":"CG068752600201070023","project_name":"\u6c5f\u306e\u5ddd\u4e0a\u6d41\u5824\u9632\u6d78\u900f\u8abf\u67fb\u691c\u8a0e\u696d\u52d9","survey_name":"\u6c5f\u306e\u5ddd\u4e0a\u6d41\u5824\u9632\u6d78\u900f\u8abf\u67fb\u691c\u8a0e\u696d\u52d9","client_name":"\u56fd\u571f\u4ea4\u901a\u7701 \u4e2d\u56fd\u5730\u65b9\u6574\u5099\u5c40 \u4e09\u6b21\u6cb3\u5ddd\u56fd\u9053\u4e8b\u52d9\u6240","boring_xml_url":47,"boring_view_url":1,"soilmap_view_url":null,"soiltest_xml_url":0,"soiltest_view_url":0},{"id":252606,"code":"B4KJ201802001-8086","latitude":"34.707472","longitude":"132.769944","source_code":"CG068752600201070022","project_name":"\u6c5f\u306e\u5ddd\u4e0a\u6d41\u5824\u9632\u6d78\u900f\u8abf\u67fb\u691c\u8a0e\u696d\u52d9","survey_name":"\u6c5f\u306e\u5ddd\u4e0a\u6d41\u5824\u9632\u6d78\u900f\u8abf\u67fb\u691c\u8a0e\u696d\u52d9","client_name":"\u56fd\u571f\u4ea4\u901a\u7701 \u4e2d\u56fd\u5730\u65b9\u6574\u5099\u5c40 \u4e09\u6b21\u6cb3\u5ddd\u56fd\u9053\u4e8b\u52d9\u6240","boring_xml_url":47,"boring_view_url":1,"soilmap_view_url":null,"soiltest_xml_url":0,"soiltest_view_url":0},{"id":252605,"code":"B4KJ201802001-8085","latitude":"34.7075","longitude":"132.769889","source_code":"CG068752600201070021","project_name":"\u6c5f\u306e\u5ddd\u4e0a\u6d41\u5824\u9632\u6d78\u900f\u8abf\u67fb\u691c\u8a0e\u696d\u52d9","survey_name":"\u6c5f\u306e\u5ddd\u4e0a\u6d41\u5824\u9632\u6d78\u900f\u8abf\u67fb\u691c\u8a0e\u696d\u52d9","client_name":"\u56fd\u571f\u4ea4\u901a\u7701 \u4e2d\u56fd\u5730\u65b9\u6574\u5099\u5c40 \u4e09\u6b21\u6cb3\u5ddd\u56fd\u9053\u4e8b\u52d9\u6240","boring_xml_url":47,"boring_view_url":1,"soilmap_view_url":null,"soiltest_xml_url":0,"soiltest_view_url":0},{"id":252604,"code":"B4KJ201802001-8084","latitude":"34.723556","longitude":"132.776611","source_code":"CG068752600201070020","project_name":"\u6c5f\u306e\u5ddd\u4e0a\u6d41\u5824\u9632\u6d78\u900f\u8abf\u67fb\u691c\u8a0e\u696d\u52d9","survey_name":"\u6c5f\u306e\u5ddd\u4e0a\u6d41\u5824\u9632\u6d78\u900f\u8abf\u67fb\u691c\u8a0e\u696d\u52d9","client_name":"\u56fd\u571f\u4ea4\u901a\u7701 \u4e2d\u56fd\u5730\u65b9\u6574\u5099\u5c40 \u4e09\u6b21\u6cb3\u5ddd\u56fd\u9053\u4e8b\u52d9\u6240","boring_xml_url":47,"boring_view_url":1,"soilmap_view_url":null,"soiltest_xml_url":0,"soiltest_view_url":0},{"id":252603,"code":"B4KJ201802001-8083","latitude":"34.7395","longitude":"132.785861","source_code":"CG068752600201070019","project_name":"\u6c5f\u306e\u5ddd\u4e0a\u6d41\u5824\u9632\u6d78\u900f\u8abf\u67fb\u691c\u8a0e\u696d\u52d9","survey_name":"\u6c5f\u306e\u5ddd\u4e0a\u6d41\u5824\u9632\u6d78\u900f\u8abf\u67fb\u691c\u8a0e\u696d\u52d9","client_name":"\u56fd\u571f\u4ea4\u901a\u7701 \u4e2d\u56fd\u5730\u65b9\u6574\u5099\u5c40 \u4e09\u6b21\u6cb3\u5ddd\u56fd\u9053\u4e8b\u52d9\u6240","boring_xml_url":47,"boring_view_url":1,"soilmap_view_url":null,"soiltest_xml_url":0,"soiltest_view_url":0},{"id":252602,"code":"B4KJ201802001-8082","latitude":"34.739472","longitude":"132.785972","source_code":"CG068752600201070018","project_name":"\u6c5f\u306e\u5ddd\u4e0a\u6d41\u5824\u9632\u6d78\u900f\u8abf\u67fb\u691c\u8a0e\u696d\u52d9","survey_name":"\u6c5f\u306e\u5ddd\u4e0a\u6d41\u5824\u9632\u6d78\u900f\u8abf\u67fb\u691c\u8a0e\u696d\u52d9","client_name":"\u56fd\u571f\u4ea4\u901a\u7701 \u4e2d\u56fd\u5730\u65b9\u6574\u5099\u5c40 \u4e09\u6b21\u6cb3\u5ddd\u56fd\u9053\u4e8b\u52d9\u6240","boring_xml_url":47,"boring_view_url":1,"soilmap_view_url":null,"soiltest_xml_url":0,"soiltest_view_url":0},{"id":252601,"code":"B4KJ201802001-8081","latitude":"34.739472","longitude":"132.785944","source_code":"CG068752600201070017","project_name":"\u6c5f\u306e\u5ddd\u4e0a\u6d41\u5824\u9632\u6d78\u900f\u8abf\u67fb\u691c\u8a0e\u696d\u52d9","survey_name":"\u6c5f\u306e\u5ddd\u4e0a\u6d41\u5824\u9632\u6d78\u900f\u8abf\u67fb\u691c\u8a0e\u696d\u52d9","client_name":"\u56fd\u571f\u4ea4\u901a\u7701 \u4e2d\u56fd\u5730\u65b9\u6574\u5099\u5c40 \u4e09\u6b21\u6cb3\u5ddd\u56fd\u9053\u4e8b\u52d9\u6240","boring_xml_url":47,"boring_view_url":1,"soilmap_view_url":null,"soiltest_xml_url":0,"soiltest_view_url":0},{"id":252600,"code":"B4KJ201802001-8080","latitude":"34.74075","longitude":"132.799639","source_code":"CG068752600201070016","project_name":"\u6c5f\u306e\u5ddd\u4e0a\u6d41\u5824\u9632\u6d78\u900f\u8abf\u67fb\u691c\u8a0e\u696d\u52d9","survey_name":"\u6c5f\u306e\u5ddd\u4e0a\u6d41\u5824\u9632\u6d78\u900f\u8abf\u67fb\u691c\u8a0e\u696d\u52d9","client_name":"\u56fd\u571f\u4ea4\u901a\u7701 \u4e2d\u56fd\u5730\u65b9\u6574\u5099\u5c40 \u4e09\u6b21\u6cb3\u5ddd\u56fd\u9053\u4e8b\u52d9\u6240","boring_xml_url":47,"boring_view_url":1,"soilmap_view_url":null,"soiltest_xml_url":0,"soiltest_view_url":0},{"id":252599,"code":"B4KJ201802001-8079","latitude":"34.740639","longitude":"132.799694","source_code":"CG068752600201070015","project_name":"\u6c5f\u306e\u5ddd\u4e0a\u6d41\u5824\u9632\u6d78\u900f\u8abf\u67fb\u691c\u8a0e\u696d\u52d9","survey_name":"\u6c5f\u306e\u5ddd\u4e0a\u6d41\u5824\u9632\u6d78\u900f\u8abf\u67fb\u691c\u8a0e\u696d\u52d9","client_name":"\u56fd\u571f\u4ea4\u901a\u7701 \u4e2d\u56fd\u5730\u65b9\u6574\u5099\u5c40 \u4e09\u6b21\u6cb3\u5ddd\u56fd\u9053\u4e8b\u52d9\u6240","boring_xml_url":47,"boring_view_url":1,"soilmap_view_url":null,"soiltest_xml_url":0,"soiltest_view_url":0},{"id":252598,"code":"B4KJ201802001-8078","latitude":"34.748889","longitude":"132.806111","source_code":"CG068752600201070014","project_name":"\u6c5f\u306e\u5ddd\u4e0a\u6d41\u5824\u9632\u6d78\u900f\u8abf\u67fb\u691c\u8a0e\u696d\u52d9","survey_name":"\u6c5f\u306e\u5ddd\u4e0a\u6d41\u5824\u9632\u6d78\u900f\u8abf\u67fb\u691c\u8a0e\u696d\u52d9","client_name":"\u56fd\u571f\u4ea4\u901a\u7701 \u4e2d\u56fd\u5730\u65b9\u6574\u5099\u5c40 \u4e09\u6b21\u6cb3\u5ddd\u56fd\u9053\u4e8b\u52d9\u6240","boring_xml_url":47,"boring_view_url":1,"soilmap_view_url":null,"soiltest_xml_url":0,"soiltest_view_url":0},{"id":252597,"code":"B4KJ201802001-8077","latitude":"34.815667","longitude":"132.836583","source_code":"CG068752600201070013","project_name":"\u6c5f\u306e\u5ddd\u4e0a\u6d41\u5824\u9632\u6d78\u900f\u8abf\u67fb\u691c\u8a0e\u696d\u52d9","survey_name":"\u6c5f\u306e\u5ddd\u4e0a\u6d41\u5824\u9632\u6d78\u900f\u8abf\u67fb\u691c\u8a0e\u696d\u52d9","client_name":"\u56fd\u571f\u4ea4\u901a\u7701 \u4e2d\u56fd\u5730\u65b9\u6574\u5099\u5c40 \u4e09\u6b21\u6cb3\u5ddd\u56fd\u9053\u4e8b\u52d9\u6240","boring_xml_url":47,"boring_view_url":1,"soilmap_view_url":null,"soiltest_xml_url":0,"soiltest_view_url":0},{"id":252596,"code":"B4KJ201802001-8076","latitude":"34.817889","longitude":"132.830556","source_code":"CG068752600201070012","project_name":"\u6c5f\u306e\u5ddd\u4e0a\u6d41\u5824\u9632\u6d78\u900f\u8abf\u67fb\u691c\u8a0e\u696d\u52d9","survey_name":"\u6c5f\u306e\u5ddd\u4e0a\u6d41\u5824\u9632\u6d78\u900f\u8abf\u67fb\u691c\u8a0e\u696d\u52d9","client_name":"\u56fd\u571f\u4ea4\u901a\u7701 \u4e2d\u56fd\u5730\u65b9\u6574\u5099\u5c40 \u4e09\u6b21\u6cb3\u5ddd\u56fd\u9053\u4e8b\u52d9\u6240","boring_xml_url":47,"boring_view_url":1,"soilmap_view_url":null,"soiltest_xml_url":0,"soiltest_view_url":0},{"id":252595,"code":"B4KJ201802001-8075","latitude":"34.818111","longitude":"132.830639","source_code":"CG068752600201070011","project_name":"\u6c5f\u306e\u5ddd\u4e0a\u6d41\u5824\u9632\u6d78\u900f\u8abf\u67fb\u691c\u8a0e\u696d\u52d9","survey_name":"\u6c5f\u306e\u5ddd\u4e0a\u6d41\u5824\u9632\u6d78\u900f\u8abf\u67fb\u691c\u8a0e\u696d\u52d9","client_name":"\u56fd\u571f\u4ea4\u901a\u7701 \u4e2d\u56fd\u5730\u65b9\u6574\u5099\u5c40 \u4e09\u6b21\u6cb3\u5ddd\u56fd\u9053\u4e8b\u52d9\u6240","boring_xml_url":47,"boring_view_url":1,"soilmap_view_url":null,"soiltest_xml_url":0,"soiltest_view_url":0},{"id":252594,"code":"B4KJ201802001-8074","latitude":"34.818","longitude":"132.830611","source_code":"CG068752600201070010","project_name":"\u6c5f\u306e\u5ddd\u4e0a\u6d41\u5824\u9632\u6d78\u900f\u8abf\u67fb\u691c\u8a0e\u696d\u52d9","survey_name":"\u6c5f\u306e\u5ddd\u4e0a\u6d41\u5824\u9632\u6d78\u900f\u8abf\u67fb\u691c\u8a0e\u696d\u52d9","client_name":"\u56fd\u571f\u4ea4\u901a\u7701 \u4e2d\u56fd\u5730\u65b9\u6574\u5099\u5c40 \u4e09\u6b21\u6cb3\u5ddd\u56fd\u9053\u4e8b\u52d9\u6240","boring_xml_url":47,"boring_view_url":1,"soilmap_view_url":null,"soiltest_xml_url":0,"soiltest_view_url":0},{"id":252593,"code":"B4KJ201802001-8073","latitude":"34.644972","longitude":"132.671417","source_code":"CG068752600201070009","project_name":"\u6c5f\u306e\u5ddd\u4e0a\u6d41\u5824\u9632\u6d78\u900f\u8abf\u67fb\u691c\u8a0e\u696d\u52d9","survey_name":"\u6c5f\u306e\u5ddd\u4e0a\u6d41\u5824\u9632\u6d78\u900f\u8abf\u67fb\u691c\u8a0e\u696d\u52d9","client_name":"\u56fd\u571f\u4ea4\u901a\u7701 \u4e2d\u56fd\u5730\u65b9\u6574\u5099\u5c40 \u4e09\u6b21\u6cb3\u5ddd\u56fd\u9053\u4e8b\u52d9\u6240","boring_xml_url":47,"boring_view_url":1,"soilmap_view_url":null,"soiltest_xml_url":0,"soiltest_view_url":0},{"id":252592,"code":"B4KJ201802001-8072","latitude":"34.644972","longitude":"132.671417","source_code":"CG068752600201070008","project_name":"\u6c5f\u306e\u5ddd\u4e0a\u6d41\u5824\u9632\u6d78\u900f\u8abf\u67fb\u691c\u8a0e\u696d\u52d9","survey_name":"\u6c5f\u306e\u5ddd\u4e0a\u6d41\u5824\u9632\u6d78\u900f\u8abf\u67fb\u691c\u8a0e\u696d\u52d9","client_name":"\u56fd\u571f\u4ea4\u901a\u7701 \u4e2d\u56fd\u5730\u65b9\u6574\u5099\u5c40 \u4e09\u6b21\u6cb3\u5ddd\u56fd\u9053\u4e8b\u52d9\u6240","boring_xml_url":47,"boring_view_url":1,"soilmap_view_url":null,"soiltest_xml_url":0,"soiltest_view_url":0},{"id":252591,"code":"B4KJ201802001-8071","latitude":"34.650389","longitude":"132.68","source_code":"CG068752600201070007","project_name":"\u6c5f\u306e\u5ddd\u4e0a\u6d41\u5824\u9632\u6d78\u900f\u8abf\u67fb\u691c\u8a0e\u696d\u52d9","survey_name":"\u6c5f\u306e\u5ddd\u4e0a\u6d41\u5824\u9632\u6d78\u900f\u8abf\u67fb\u691c\u8a0e\u696d\u52d9","client_name":"\u56fd\u571f\u4ea4\u901a\u7701 \u4e2d\u56fd\u5730\u65b9\u6574\u5099\u5c40 \u4e09\u6b21\u6cb3\u5ddd\u56fd\u9053\u4e8b\u52d9\u6240","boring_xml_url":47,"boring_view_url":1,"soilmap_view_url":null,"soiltest_xml_url":0,"soiltest_view_url":0},{"id":252590,"code":"B4KJ201802001-8070","latitude":"34.657938","longitude":"132.683706","source_code":"CG068752600201070006","project_name":"\u6c5f\u306e\u5ddd\u4e0a\u6d41\u5824\u9632\u6d78\u900f\u8abf\u67fb\u691c\u8a0e\u696d\u52d9","survey_name":"\u6c5f\u306e\u5ddd\u4e0a\u6d41\u5824\u9632\u6d78\u900f\u8abf\u67fb\u691c\u8a0e\u696d\u52d9","client_name":"\u56fd\u571f\u4ea4\u901a\u7701 \u4e2d\u56fd\u5730\u65b9\u6574\u5099\u5c40 \u4e09\u6b21\u6cb3\u5ddd\u56fd\u9053\u4e8b\u52d9\u6240","boring_xml_url":47,"boring_view_url":1,"soilmap_view_url":null,"soiltest_xml_url":0,"soiltest_view_url":0},{"id":252589,"code":"B4KJ201802001-8069","latitude":"34.653639","longitude":"132.69575","source_code":"CG068752600201070005","project_name":"\u6c5f\u306e\u5ddd\u4e0a\u6d41\u5824\u9632\u6d78\u900f\u8abf\u67fb\u691c\u8a0e\u696d\u52d9","survey_name":"\u6c5f\u306e\u5ddd\u4e0a\u6d41\u5824\u9632\u6d78\u900f\u8abf\u67fb\u691c\u8a0e\u696d\u52d9","client_name":"\u56fd\u571f\u4ea4\u901a\u7701 \u4e2d\u56fd\u5730\u65b9\u6574\u5099\u5c40 \u4e09\u6b21\u6cb3\u5ddd\u56fd\u9053\u4e8b\u52d9\u6240","boring_xml_url":47,"boring_view_url":1,"soilmap_view_url":null,"soiltest_xml_url":0,"soiltest_view_url":0},{"id":252588,"code":"B4KJ201802001-8068","latitude":"34.660444","longitude":"132.7045","source_code":"CG068752600201070004","project_name":"\u6c5f\u306e\u5ddd\u4e0a\u6d41\u5824\u9632\u6d78\u900f\u8abf\u67fb\u691c\u8a0e\u696d\u52d9","survey_name":"\u6c5f\u306e\u5ddd\u4e0a\u6d41\u5824\u9632\u6d78\u900f\u8abf\u67fb\u691c\u8a0e\u696d\u52d9","client_name":"\u56fd\u571f\u4ea4\u901a\u7701 \u4e2d\u56fd\u5730\u65b9\u6574\u5099\u5c40 \u4e09\u6b21\u6cb3\u5ddd\u56fd\u9053\u4e8b\u52d9\u6240","boring_xml_url":47,"boring_view_url":1,"soilmap_view_url":null,"soiltest_xml_url":0,"soiltest_view_url":0},{"id":252587,"code":"B4KJ201802001-8067","latitude":"34.662222","longitude":"132.709528","source_code":"CG068752600201070003","project_name":"\u6c5f\u306e\u5ddd\u4e0a\u6d41\u5824\u9632\u6d78\u900f\u8abf\u67fb\u691c\u8a0e\u696d\u52d9","survey_name":"\u6c5f\u306e\u5ddd\u4e0a\u6d41\u5824\u9632\u6d78\u900f\u8abf\u67fb\u691c\u8a0e\u696d\u52d9","client_name":"\u56fd\u571f\u4ea4\u901a\u7701 \u4e2d\u56fd\u5730\u65b9\u6574\u5099\u5c40 \u4e09\u6b21\u6cb3\u5ddd\u56fd\u9053\u4e8b\u52d9\u6240","boring_xml_url":47,"boring_view_url":1,"soilmap_view_url":null,"soiltest_xml_url":0,"soiltest_view_url":0}]}}