{"header":{"xyz":{"source":[],"mosaic":false},"page":2609,"raw":{"soiltest_result":"0","bbox":"57.598333,109.544722,1.933333,163.806111","page":"2609"},"conditions":{"soiltest_result":0,"north":57.598333,"west":109.544722,"south":1.933333,"east":163.806111},"success":true,"message":""},"data":{"meta":{"total":212844,"page":2609,"pages":7095,"count":30},"values":[{"id":252286,"code":"B4KJ201802001-7766","latitude":"35.509222","longitude":"133.586667","source_code":"CG088731610200130015","project_name":"","survey_name":"\u540d\u548c\u6dc0\u6c5f\u9053\u8def\u677e\u6cb3\u539f\u5730\u533a\u5916\u5730\u8cea\u8abf\u67fb\u696d\u52d9","client_name":"\u56fd\u571f\u4ea4\u901a\u7701\u4e2d\u56fd\u5730\u65b9\u6574\u5099\u5c40\u5009\u5409\u6cb3\u5ddd\u56fd\u9053\u4e8b\u52d9\u6240","boring_xml_url":47,"boring_view_url":1,"soilmap_view_url":null,"soiltest_xml_url":50,"soiltest_view_url":49},{"id":252285,"code":"B4KJ201802001-7765","latitude":"35.508806","longitude":"133.519361","source_code":"CG088731610200130014","project_name":"","survey_name":"\u540d\u548c\u6dc0\u6c5f\u9053\u8def\u677e\u6cb3\u539f\u5730\u533a\u5916\u5730\u8cea\u8abf\u67fb\u696d\u52d9","client_name":"\u56fd\u571f\u4ea4\u901a\u7701\u4e2d\u56fd\u5730\u65b9\u6574\u5099\u5c40\u5009\u5409\u6cb3\u5ddd\u56fd\u9053\u4e8b\u52d9\u6240","boring_xml_url":47,"boring_view_url":1,"soilmap_view_url":null,"soiltest_xml_url":0,"soiltest_view_url":0},{"id":252284,"code":"B4KJ201802001-7764","latitude":"35.509194","longitude":"133.521944","source_code":"CG088731610200130013","project_name":"","survey_name":"\u540d\u548c\u6dc0\u6c5f\u9053\u8def\u677e\u6cb3\u539f\u5730\u533a\u5916\u5730\u8cea\u8abf\u67fb\u696d\u52d9","client_name":"\u56fd\u571f\u4ea4\u901a\u7701\u4e2d\u56fd\u5730\u65b9\u6574\u5099\u5c40\u5009\u5409\u6cb3\u5ddd\u56fd\u9053\u4e8b\u52d9\u6240","boring_xml_url":47,"boring_view_url":1,"soilmap_view_url":null,"soiltest_xml_url":0,"soiltest_view_url":0},{"id":252283,"code":"B4KJ201802001-7763","latitude":"35.5095","longitude":"133.521889","source_code":"CG088731610200130012","project_name":"","survey_name":"\u540d\u548c\u6dc0\u6c5f\u9053\u8def\u677e\u6cb3\u539f\u5730\u533a\u5916\u5730\u8cea\u8abf\u67fb\u696d\u52d9","client_name":"\u56fd\u571f\u4ea4\u901a\u7701\u4e2d\u56fd\u5730\u65b9\u6574\u5099\u5c40\u5009\u5409\u6cb3\u5ddd\u56fd\u9053\u4e8b\u52d9\u6240","boring_xml_url":47,"boring_view_url":1,"soilmap_view_url":null,"soiltest_xml_url":0,"soiltest_view_url":0},{"id":252282,"code":"B4KJ201802001-7762","latitude":"35.509278","longitude":"133.527028","source_code":"CG088731610200130011","project_name":"","survey_name":"\u540d\u548c\u6dc0\u6c5f\u9053\u8def\u677e\u6cb3\u539f\u5730\u533a\u5916\u5730\u8cea\u8abf\u67fb\u696d\u52d9","client_name":"\u56fd\u571f\u4ea4\u901a\u7701\u4e2d\u56fd\u5730\u65b9\u6574\u5099\u5c40\u5009\u5409\u6cb3\u5ddd\u56fd\u9053\u4e8b\u52d9\u6240","boring_xml_url":47,"boring_view_url":1,"soilmap_view_url":null,"soiltest_xml_url":50,"soiltest_view_url":49},{"id":252281,"code":"B4KJ201802001-7761","latitude":"35.509306","longitude":"133.527583","source_code":"CG088731610200130010","project_name":"","survey_name":"\u540d\u548c\u6dc0\u6c5f\u9053\u8def\u677e\u6cb3\u539f\u5730\u533a\u5916\u5730\u8cea\u8abf\u67fb\u696d\u52d9","client_name":"\u56fd\u571f\u4ea4\u901a\u7701\u4e2d\u56fd\u5730\u65b9\u6574\u5099\u5c40\u5009\u5409\u6cb3\u5ddd\u56fd\u9053\u4e8b\u52d9\u6240","boring_xml_url":47,"boring_view_url":1,"soilmap_view_url":null,"soiltest_xml_url":0,"soiltest_view_url":0},{"id":252280,"code":"B4KJ201802001-7760","latitude":"35.508472","longitude":"133.533111","source_code":"CG088731610200130009","project_name":"","survey_name":"\u540d\u548c\u6dc0\u6c5f\u9053\u8def\u677e\u6cb3\u539f\u5730\u533a\u5916\u5730\u8cea\u8abf\u67fb\u696d\u52d9","client_name":"\u56fd\u571f\u4ea4\u901a\u7701\u4e2d\u56fd\u5730\u65b9\u6574\u5099\u5c40\u5009\u5409\u6cb3\u5ddd\u56fd\u9053\u4e8b\u52d9\u6240","boring_xml_url":47,"boring_view_url":1,"soilmap_view_url":null,"soiltest_xml_url":0,"soiltest_view_url":0},{"id":252279,"code":"B4KJ201802001-7759","latitude":"35.508778","longitude":"133.533167","source_code":"CG088731610200130008","project_name":"","survey_name":"\u540d\u548c\u6dc0\u6c5f\u9053\u8def\u677e\u6cb3\u539f\u5730\u533a\u5916\u5730\u8cea\u8abf\u67fb\u696d\u52d9","client_name":"\u56fd\u571f\u4ea4\u901a\u7701\u4e2d\u56fd\u5730\u65b9\u6574\u5099\u5c40\u5009\u5409\u6cb3\u5ddd\u56fd\u9053\u4e8b\u52d9\u6240","boring_xml_url":47,"boring_view_url":1,"soilmap_view_url":null,"soiltest_xml_url":0,"soiltest_view_url":0},{"id":252278,"code":"B4KJ201802001-7758","latitude":"35.508333","longitude":"133.54775","source_code":"CG088731610200130007","project_name":"","survey_name":"\u540d\u548c\u6dc0\u6c5f\u9053\u8def\u677e\u6cb3\u539f\u5730\u533a\u5916\u5730\u8cea\u8abf\u67fb\u696d\u52d9","client_name":"\u56fd\u571f\u4ea4\u901a\u7701\u4e2d\u56fd\u5730\u65b9\u6574\u5099\u5c40\u5009\u5409\u6cb3\u5ddd\u56fd\u9053\u4e8b\u52d9\u6240","boring_xml_url":47,"boring_view_url":1,"soilmap_view_url":null,"soiltest_xml_url":0,"soiltest_view_url":0},{"id":252277,"code":"B4KJ201802001-7757","latitude":"35.507917","longitude":"133.547778","source_code":"CG088731610200130006","project_name":"","survey_name":"\u540d\u548c\u6dc0\u6c5f\u9053\u8def\u677e\u6cb3\u539f\u5730\u533a\u5916\u5730\u8cea\u8abf\u67fb\u696d\u52d9","client_name":"\u56fd\u571f\u4ea4\u901a\u7701\u4e2d\u56fd\u5730\u65b9\u6574\u5099\u5c40\u5009\u5409\u6cb3\u5ddd\u56fd\u9053\u4e8b\u52d9\u6240","boring_xml_url":47,"boring_view_url":1,"soilmap_view_url":null,"soiltest_xml_url":0,"soiltest_view_url":0},{"id":252276,"code":"B4KJ201802001-7756","latitude":"35.508056","longitude":"133.549","source_code":"CG088731610200130005","project_name":"","survey_name":"\u540d\u548c\u6dc0\u6c5f\u9053\u8def\u677e\u6cb3\u539f\u5730\u533a\u5916\u5730\u8cea\u8abf\u67fb\u696d\u52d9","client_name":"\u56fd\u571f\u4ea4\u901a\u7701\u4e2d\u56fd\u5730\u65b9\u6574\u5099\u5c40\u5009\u5409\u6cb3\u5ddd\u56fd\u9053\u4e8b\u52d9\u6240","boring_xml_url":47,"boring_view_url":1,"soilmap_view_url":null,"soiltest_xml_url":0,"soiltest_view_url":0},{"id":252275,"code":"B4KJ201802001-7755","latitude":"35.508111","longitude":"133.549889","source_code":"CG088731610200130004","project_name":"","survey_name":"\u540d\u548c\u6dc0\u6c5f\u9053\u8def\u677e\u6cb3\u539f\u5730\u533a\u5916\u5730\u8cea\u8abf\u67fb\u696d\u52d9","client_name":"\u56fd\u571f\u4ea4\u901a\u7701\u4e2d\u56fd\u5730\u65b9\u6574\u5099\u5c40\u5009\u5409\u6cb3\u5ddd\u56fd\u9053\u4e8b\u52d9\u6240","boring_xml_url":47,"boring_view_url":1,"soilmap_view_url":null,"soiltest_xml_url":0,"soiltest_view_url":0},{"id":252274,"code":"B4KJ201802001-7754","latitude":"35.508111","longitude":"133.550333","source_code":"CG088731610200130003","project_name":"","survey_name":"\u540d\u548c\u6dc0\u6c5f\u9053\u8def\u677e\u6cb3\u539f\u5730\u533a\u5916\u5730\u8cea\u8abf\u67fb\u696d\u52d9","client_name":"\u56fd\u571f\u4ea4\u901a\u7701\u4e2d\u56fd\u5730\u65b9\u6574\u5099\u5c40\u5009\u5409\u6cb3\u5ddd\u56fd\u9053\u4e8b\u52d9\u6240","boring_xml_url":47,"boring_view_url":1,"soilmap_view_url":null,"soiltest_xml_url":0,"soiltest_view_url":0},{"id":252273,"code":"B4KJ201802001-7753","latitude":"35.509083","longitude":"133.585556","source_code":"CG088731610200130002","project_name":"","survey_name":"\u540d\u548c\u6dc0\u6c5f\u9053\u8def\u677e\u6cb3\u539f\u5730\u533a\u5916\u5730\u8cea\u8abf\u67fb\u696d\u52d9","client_name":"\u56fd\u571f\u4ea4\u901a\u7701\u4e2d\u56fd\u5730\u65b9\u6574\u5099\u5c40\u5009\u5409\u6cb3\u5ddd\u56fd\u9053\u4e8b\u52d9\u6240","boring_xml_url":47,"boring_view_url":1,"soilmap_view_url":null,"soiltest_xml_url":0,"soiltest_view_url":0},{"id":252272,"code":"B4KJ201802001-7752","latitude":"35.509167","longitude":"133.586028","source_code":"CG088731610200130001","project_name":"","survey_name":"\u540d\u548c\u6dc0\u6c5f\u9053\u8def\u677e\u6cb3\u539f\u5730\u533a\u5916\u5730\u8cea\u8abf\u67fb\u696d\u52d9","client_name":"\u56fd\u571f\u4ea4\u901a\u7701\u4e2d\u56fd\u5730\u65b9\u6574\u5099\u5c40\u5009\u5409\u6cb3\u5ddd\u56fd\u9053\u4e8b\u52d9\u6240","boring_xml_url":47,"boring_view_url":1,"soilmap_view_url":null,"soiltest_xml_url":0,"soiltest_view_url":0},{"id":252271,"code":"B4KJ201802001-7751","latitude":"35.509639","longitude":"133.524722","source_code":"CG088731610200260012","project_name":"","survey_name":"\u540d\u548c\u6dc0\u6c5f\u9053\u8def\u8c4a\u6210\u5730\u533a\u5916\u5730\u8cea\u8abf\u67fb\u696d\u52d9","client_name":"\u56fd\u571f\u4ea4\u901a\u7701 \u4e2d\u56fd\u5730\u65b9\u6574\u5099\u5c40 \u5009\u5409\u6cb3\u5ddd\u56fd\u9053\u4e8b\u52d9\u6240","boring_xml_url":47,"boring_view_url":1,"soilmap_view_url":null,"soiltest_xml_url":0,"soiltest_view_url":0},{"id":252270,"code":"B4KJ201802001-7750","latitude":"35.508028","longitude":"133.564528","source_code":"CG088731610200260011","project_name":"","survey_name":"\u540d\u548c\u6dc0\u6c5f\u9053\u8def\u8c4a\u6210\u5730\u533a\u5916\u5730\u8cea\u8abf\u67fb\u696d\u52d9","client_name":"\u56fd\u571f\u4ea4\u901a\u7701 \u4e2d\u56fd\u5730\u65b9\u6574\u5099\u5c40 \u5009\u5409\u6cb3\u5ddd\u56fd\u9053\u4e8b\u52d9\u6240","boring_xml_url":47,"boring_view_url":1,"soilmap_view_url":null,"soiltest_xml_url":0,"soiltest_view_url":0},{"id":252269,"code":"B4KJ201802001-7749","latitude":"35.508528","longitude":"133.534861","source_code":"CG088731610200260010","project_name":"","survey_name":"\u540d\u548c\u6dc0\u6c5f\u9053\u8def\u8c4a\u6210\u5730\u533a\u5916\u5730\u8cea\u8abf\u67fb\u696d\u52d9","client_name":"\u56fd\u571f\u4ea4\u901a\u7701 \u4e2d\u56fd\u5730\u65b9\u6574\u5099\u5c40 \u5009\u5409\u6cb3\u5ddd\u56fd\u9053\u4e8b\u52d9\u6240","boring_xml_url":47,"boring_view_url":1,"soilmap_view_url":null,"soiltest_xml_url":0,"soiltest_view_url":0},{"id":252268,"code":"B4KJ201802001-7748","latitude":"35.508194","longitude":"133.534833","source_code":"CG088731610200260009","project_name":"","survey_name":"\u540d\u548c\u6dc0\u6c5f\u9053\u8def\u8c4a\u6210\u5730\u533a\u5916\u5730\u8cea\u8abf\u67fb\u696d\u52d9","client_name":"\u56fd\u571f\u4ea4\u901a\u7701 \u4e2d\u56fd\u5730\u65b9\u6574\u5099\u5c40 \u5009\u5409\u6cb3\u5ddd\u56fd\u9053\u4e8b\u52d9\u6240","boring_xml_url":47,"boring_view_url":1,"soilmap_view_url":null,"soiltest_xml_url":0,"soiltest_view_url":0},{"id":252267,"code":"B4KJ201802001-7747","latitude":"35.508278","longitude":"133.538667","source_code":"CG088731610200260008","project_name":"","survey_name":"\u540d\u548c\u6dc0\u6c5f\u9053\u8def\u8c4a\u6210\u5730\u533a\u5916\u5730\u8cea\u8abf\u67fb\u696d\u52d9","client_name":"\u56fd\u571f\u4ea4\u901a\u7701 \u4e2d\u56fd\u5730\u65b9\u6574\u5099\u5c40 \u5009\u5409\u6cb3\u5ddd\u56fd\u9053\u4e8b\u52d9\u6240","boring_xml_url":47,"boring_view_url":1,"soilmap_view_url":null,"soiltest_xml_url":0,"soiltest_view_url":0},{"id":252266,"code":"B4KJ201802001-7746","latitude":"35.508028","longitude":"133.538722","source_code":"CG088731610200260007","project_name":"","survey_name":"\u540d\u548c\u6dc0\u6c5f\u9053\u8def\u8c4a\u6210\u5730\u533a\u5916\u5730\u8cea\u8abf\u67fb\u696d\u52d9","client_name":"\u56fd\u571f\u4ea4\u901a\u7701 \u4e2d\u56fd\u5730\u65b9\u6574\u5099\u5c40 \u5009\u5409\u6cb3\u5ddd\u56fd\u9053\u4e8b\u52d9\u6240","boring_xml_url":47,"boring_view_url":1,"soilmap_view_url":null,"soiltest_xml_url":0,"soiltest_view_url":0},{"id":252265,"code":"B4KJ201802001-7745","latitude":"35.508306","longitude":"133.541167","source_code":"CG088731610200260006","project_name":"","survey_name":"\u540d\u548c\u6dc0\u6c5f\u9053\u8def\u8c4a\u6210\u5730\u533a\u5916\u5730\u8cea\u8abf\u67fb\u696d\u52d9","client_name":"\u56fd\u571f\u4ea4\u901a\u7701 \u4e2d\u56fd\u5730\u65b9\u6574\u5099\u5c40 \u5009\u5409\u6cb3\u5ddd\u56fd\u9053\u4e8b\u52d9\u6240","boring_xml_url":47,"boring_view_url":1,"soilmap_view_url":null,"soiltest_xml_url":0,"soiltest_view_url":0},{"id":252264,"code":"B4KJ201802001-7744","latitude":"35.508028","longitude":"133.541333","source_code":"CG088731610200260005","project_name":"","survey_name":"\u540d\u548c\u6dc0\u6c5f\u9053\u8def\u8c4a\u6210\u5730\u533a\u5916\u5730\u8cea\u8abf\u67fb\u696d\u52d9","client_name":"\u56fd\u571f\u4ea4\u901a\u7701 \u4e2d\u56fd\u5730\u65b9\u6574\u5099\u5c40 \u5009\u5409\u6cb3\u5ddd\u56fd\u9053\u4e8b\u52d9\u6240","boring_xml_url":47,"boring_view_url":1,"soilmap_view_url":null,"soiltest_xml_url":0,"soiltest_view_url":0},{"id":252263,"code":"B4KJ201802001-7743","latitude":"35.508028","longitude":"133.54375","source_code":"CG088731610200260004","project_name":"","survey_name":"\u540d\u548c\u6dc0\u6c5f\u9053\u8def\u8c4a\u6210\u5730\u533a\u5916\u5730\u8cea\u8abf\u67fb\u696d\u52d9","client_name":"\u56fd\u571f\u4ea4\u901a\u7701 \u4e2d\u56fd\u5730\u65b9\u6574\u5099\u5c40 \u5009\u5409\u6cb3\u5ddd\u56fd\u9053\u4e8b\u52d9\u6240","boring_xml_url":47,"boring_view_url":1,"soilmap_view_url":null,"soiltest_xml_url":0,"soiltest_view_url":0},{"id":252262,"code":"B4KJ201802001-7742","latitude":"35.508111","longitude":"133.564111","source_code":"CG088731610200260003","project_name":"","survey_name":"\u540d\u548c\u6dc0\u6c5f\u9053\u8def\u8c4a\u6210\u5730\u533a\u5916\u5730\u8cea\u8abf\u67fb\u696d\u52d9","client_name":"\u56fd\u571f\u4ea4\u901a\u7701 \u4e2d\u56fd\u5730\u65b9\u6574\u5099\u5c40 \u5009\u5409\u6cb3\u5ddd\u56fd\u9053\u4e8b\u52d9\u6240","boring_xml_url":47,"boring_view_url":1,"soilmap_view_url":null,"soiltest_xml_url":0,"soiltest_view_url":0},{"id":252261,"code":"B4KJ201802001-7741","latitude":"35.509528","longitude":"133.590722","source_code":"CG088731610200260002","project_name":"","survey_name":"\u540d\u548c\u6dc0\u6c5f\u9053\u8def\u8c4a\u6210\u5730\u533a\u5916\u5730\u8cea\u8abf\u67fb\u696d\u52d9","client_name":"\u56fd\u571f\u4ea4\u901a\u7701 \u4e2d\u56fd\u5730\u65b9\u6574\u5099\u5c40 \u5009\u5409\u6cb3\u5ddd\u56fd\u9053\u4e8b\u52d9\u6240","boring_xml_url":47,"boring_view_url":1,"soilmap_view_url":null,"soiltest_xml_url":0,"soiltest_view_url":0},{"id":252260,"code":"B4KJ201802001-7740","latitude":"35.508833","longitude":"133.599667","source_code":"CG088731610200260001","project_name":"","survey_name":"\u540d\u548c\u6dc0\u6c5f\u9053\u8def\u8c4a\u6210\u5730\u533a\u5916\u5730\u8cea\u8abf\u67fb\u696d\u52d9","client_name":"\u56fd\u571f\u4ea4\u901a\u7701 \u4e2d\u56fd\u5730\u65b9\u6574\u5099\u5c40 \u5009\u5409\u6cb3\u5ddd\u56fd\u9053\u4e8b\u52d9\u6240","boring_xml_url":47,"boring_view_url":1,"soilmap_view_url":null,"soiltest_xml_url":0,"soiltest_view_url":0},{"id":252259,"code":"B4KJ201802001-7739","latitude":"35.529722","longitude":"133.152639","source_code":"CG088736400200270006","project_name":"","survey_name":"\u4e2d\u6d77\u65b0\u5e84\u4ed6\u5730\u8cea\u8abf\u67fb\u696d\u52d9","client_name":"\u56fd\u571f\u4ea4\u901a\u7701 \u4e2d\u56fd\u5730\u65b9\u6574\u5099\u5c40 \u51fa\u96f2\u6cb3\u5ddd\u4e8b\u52d9\u6240","boring_xml_url":47,"boring_view_url":1,"soilmap_view_url":null,"soiltest_xml_url":50,"soiltest_view_url":49},{"id":252258,"code":"B4KJ201802001-7738","latitude":"35.527556","longitude":"133.150417","source_code":"CG088736400200270005","project_name":"","survey_name":"\u4e2d\u6d77\u65b0\u5e84\u4ed6\u5730\u8cea\u8abf\u67fb\u696d\u52d9","client_name":"\u56fd\u571f\u4ea4\u901a\u7701 \u4e2d\u56fd\u5730\u65b9\u6574\u5099\u5c40 \u51fa\u96f2\u6cb3\u5ddd\u4e8b\u52d9\u6240","boring_xml_url":47,"boring_view_url":1,"soilmap_view_url":null,"soiltest_xml_url":50,"soiltest_view_url":49},{"id":252257,"code":"B4KJ201802001-7737","latitude":"35.523222","longitude":"133.146417","source_code":"CG088736400200270004","project_name":"","survey_name":"\u4e2d\u6d77\u65b0\u5e84\u4ed6\u5730\u8cea\u8abf\u67fb\u696d\u52d9","client_name":"\u56fd\u571f\u4ea4\u901a\u7701 \u4e2d\u56fd\u5730\u65b9\u6574\u5099\u5c40 \u51fa\u96f2\u6cb3\u5ddd\u4e8b\u52d9\u6240","boring_xml_url":47,"boring_view_url":1,"soilmap_view_url":null,"soiltest_xml_url":0,"soiltest_view_url":0}]}}