{"header":{"xyz":{"source":[],"mosaic":false},"page":2613,"raw":{"soiltest_result":"0","bbox":"57.598333,109.544722,1.933333,163.806111","page":"2613"},"conditions":{"soiltest_result":0,"north":57.598333,"west":109.544722,"south":1.933333,"east":163.806111},"success":true,"message":""},"data":{"meta":{"total":212844,"page":2613,"pages":7095,"count":30},"values":[{"id":252166,"code":"B4KJ201802001-7646","latitude":"35.494583","longitude":"134.1605","source_code":"CG068730410200250002","project_name":"\u9ce5\u53d6\u897f\u9053\u8def\u9ad8\u4f4f\u5730\u533a\u5916\u5730\u8cea\u8abf\u67fb\u696d\u52d9","survey_name":"\u9ce5\u53d6\u897f\u9053\u8def\u9ad8\u4f4f\u5730\u533a\u5916\u5730\u8cea\u8abf\u67fb\u696d\u52d9","client_name":"\u56fd\u571f\u4ea4\u901a\u7701 \u4e2d\u56fd\u5730\u65b9\u6574\u5099\u5c40 \u9ce5\u53d6\u6cb3\u5ddd\u56fd\u9053\u4e8b\u52d9\u6240","boring_xml_url":47,"boring_view_url":1,"soilmap_view_url":null,"soiltest_xml_url":50,"soiltest_view_url":49},{"id":252165,"code":"B4KJ201802001-7645","latitude":"35.494972","longitude":"134.16225","source_code":"CG068730410200250001","project_name":"\u9ce5\u53d6\u897f\u9053\u8def\u9ad8\u4f4f\u5730\u533a\u5916\u5730\u8cea\u8abf\u67fb\u696d\u52d9","survey_name":"\u9ce5\u53d6\u897f\u9053\u8def\u9ad8\u4f4f\u5730\u533a\u5916\u5730\u8cea\u8abf\u67fb\u696d\u52d9","client_name":"\u56fd\u571f\u4ea4\u901a\u7701 \u4e2d\u56fd\u5730\u65b9\u6574\u5099\u5c40 \u9ce5\u53d6\u6cb3\u5ddd\u56fd\u9053\u4e8b\u52d9\u6240","boring_xml_url":47,"boring_view_url":1,"soilmap_view_url":null,"soiltest_xml_url":50,"soiltest_view_url":49},{"id":252164,"code":"B4KJ201802001-7644","latitude":"34.378696","longitude":"131.305521","source_code":"CG058760400200180008","project_name":"\u8429\u30fb\u4e09\u9685\u9053\u8def\u5730\u8cea\u8abf\u67fb\u4ed6\u696d\u52d9","survey_name":"\u8429\u30fb\u4e09\u9685\u9053\u8def\u5730\u8cea\u8abf\u67fb\u4ed6\u696d\u52d9","client_name":"\u56fd\u571f\u4ea4\u901a\u7701\u5c71\u53e3\u6cb3\u5ddd\u56fd\u9053\u4e8b\u52d9\u6240","boring_xml_url":47,"boring_view_url":1,"soilmap_view_url":null,"soiltest_xml_url":0,"soiltest_view_url":0},{"id":252163,"code":"B4KJ201802001-7643","latitude":"34.378752","longitude":"131.305465","source_code":"CG058760400200180007","project_name":"\u8429\u30fb\u4e09\u9685\u9053\u8def\u5730\u8cea\u8abf\u67fb\u4ed6\u696d\u52d9","survey_name":"\u8429\u30fb\u4e09\u9685\u9053\u8def\u5730\u8cea\u8abf\u67fb\u4ed6\u696d\u52d9","client_name":"\u56fd\u571f\u4ea4\u901a\u7701\u5c71\u53e3\u6cb3\u5ddd\u56fd\u9053\u4e8b\u52d9\u6240","boring_xml_url":47,"boring_view_url":1,"soilmap_view_url":null,"soiltest_xml_url":0,"soiltest_view_url":0},{"id":252162,"code":"B4KJ201802001-7642","latitude":"34.378585","longitude":"131.305188","source_code":"CG058760400200180006","project_name":"\u8429\u30fb\u4e09\u9685\u9053\u8def\u5730\u8cea\u8abf\u67fb\u4ed6\u696d\u52d9","survey_name":"\u8429\u30fb\u4e09\u9685\u9053\u8def\u5730\u8cea\u8abf\u67fb\u4ed6\u696d\u52d9","client_name":"\u56fd\u571f\u4ea4\u901a\u7701\u5c71\u53e3\u6cb3\u5ddd\u56fd\u9053\u4e8b\u52d9\u6240","boring_xml_url":47,"boring_view_url":1,"soilmap_view_url":null,"soiltest_xml_url":0,"soiltest_view_url":0},{"id":252161,"code":"B4KJ201802001-7641","latitude":"34.378419","longitude":"131.304854","source_code":"CG058760400200180005","project_name":"\u8429\u30fb\u4e09\u9685\u9053\u8def\u5730\u8cea\u8abf\u67fb\u4ed6\u696d\u52d9","survey_name":"\u8429\u30fb\u4e09\u9685\u9053\u8def\u5730\u8cea\u8abf\u67fb\u4ed6\u696d\u52d9","client_name":"\u56fd\u571f\u4ea4\u901a\u7701\u5c71\u53e3\u6cb3\u5ddd\u56fd\u9053\u4e8b\u52d9\u6240","boring_xml_url":47,"boring_view_url":1,"soilmap_view_url":null,"soiltest_xml_url":0,"soiltest_view_url":0},{"id":252160,"code":"B4KJ201802001-7640","latitude":"34.37828","longitude":"131.304521","source_code":"CG058760400200180004","project_name":"\u8429\u30fb\u4e09\u9685\u9053\u8def\u5730\u8cea\u8abf\u67fb\u4ed6\u696d\u52d9","survey_name":"\u8429\u30fb\u4e09\u9685\u9053\u8def\u5730\u8cea\u8abf\u67fb\u4ed6\u696d\u52d9","client_name":"\u56fd\u571f\u4ea4\u901a\u7701\u5c71\u53e3\u6cb3\u5ddd\u56fd\u9053\u4e8b\u52d9\u6240","boring_xml_url":47,"boring_view_url":1,"soilmap_view_url":null,"soiltest_xml_url":0,"soiltest_view_url":0},{"id":252159,"code":"B4KJ201802001-7639","latitude":"34.378141","longitude":"131.304215","source_code":"CG058760400200180003","project_name":"\u8429\u30fb\u4e09\u9685\u9053\u8def\u5730\u8cea\u8abf\u67fb\u4ed6\u696d\u52d9","survey_name":"\u8429\u30fb\u4e09\u9685\u9053\u8def\u5730\u8cea\u8abf\u67fb\u4ed6\u696d\u52d9","client_name":"\u56fd\u571f\u4ea4\u901a\u7701\u5c71\u53e3\u6cb3\u5ddd\u56fd\u9053\u4e8b\u52d9\u6240","boring_xml_url":47,"boring_view_url":1,"soilmap_view_url":null,"soiltest_xml_url":0,"soiltest_view_url":0},{"id":252158,"code":"B4KJ201802001-7638","latitude":"34.377974","longitude":"131.30391","source_code":"CG058760400200180002","project_name":"\u8429\u30fb\u4e09\u9685\u9053\u8def\u5730\u8cea\u8abf\u67fb\u4ed6\u696d\u52d9","survey_name":"\u8429\u30fb\u4e09\u9685\u9053\u8def\u5730\u8cea\u8abf\u67fb\u4ed6\u696d\u52d9","client_name":"\u56fd\u571f\u4ea4\u901a\u7701\u5c71\u53e3\u6cb3\u5ddd\u56fd\u9053\u4e8b\u52d9\u6240","boring_xml_url":47,"boring_view_url":1,"soilmap_view_url":null,"soiltest_xml_url":0,"soiltest_view_url":0},{"id":252157,"code":"B4KJ201802001-7637","latitude":"34.37803","longitude":"131.303854","source_code":"CG058760400200180001","project_name":"\u8429\u30fb\u4e09\u9685\u9053\u8def\u5730\u8cea\u8abf\u67fb\u4ed6\u696d\u52d9","survey_name":"\u8429\u30fb\u4e09\u9685\u9053\u8def\u5730\u8cea\u8abf\u67fb\u4ed6\u696d\u52d9","client_name":"\u56fd\u571f\u4ea4\u901a\u7701\u5c71\u53e3\u6cb3\u5ddd\u56fd\u9053\u4e8b\u52d9\u6240","boring_xml_url":47,"boring_view_url":1,"soilmap_view_url":null,"soiltest_xml_url":0,"soiltest_view_url":0},{"id":252156,"code":"B4KJ201802001-7636","latitude":"35.435472","longitude":"134.204361","source_code":"CG058730410200150012","project_name":"","survey_name":"\u9ce5\u53d6\u81ea\u52d5\u8eca\u9053\u7247\u5c71\u5730\u533a\u5730\u8cea\u8abf\u67fb\u696d\u52d9","client_name":"\u56fd\u571f\u4ea4\u901a\u7701\u4e2d\u56fd\u5730\u65b9\u6574\u5099\u5c40\u9ce5\u53d6\u6cb3\u5ddd\u56fd\u9053\u4e8b\u52d9\u6240","boring_xml_url":47,"boring_view_url":1,"soilmap_view_url":null,"soiltest_xml_url":50,"soiltest_view_url":49},{"id":252155,"code":"B4KJ201802001-7635","latitude":"35.434472","longitude":"134.204694","source_code":"CG058730410200150011","project_name":"","survey_name":"\u9ce5\u53d6\u81ea\u52d5\u8eca\u9053\u7247\u5c71\u5730\u533a\u5730\u8cea\u8abf\u67fb\u696d\u52d9","client_name":"\u56fd\u571f\u4ea4\u901a\u7701\u4e2d\u56fd\u5730\u65b9\u6574\u5099\u5c40\u9ce5\u53d6\u6cb3\u5ddd\u56fd\u9053\u4e8b\u52d9\u6240","boring_xml_url":47,"boring_view_url":1,"soilmap_view_url":null,"soiltest_xml_url":50,"soiltest_view_url":49},{"id":252154,"code":"B4KJ201802001-7634","latitude":"35.435861","longitude":"134.204222","source_code":"CG058730410200150010","project_name":"","survey_name":"\u9ce5\u53d6\u81ea\u52d5\u8eca\u9053\u7247\u5c71\u5730\u533a\u5730\u8cea\u8abf\u67fb\u696d\u52d9","client_name":"\u56fd\u571f\u4ea4\u901a\u7701\u4e2d\u56fd\u5730\u65b9\u6574\u5099\u5c40\u9ce5\u53d6\u6cb3\u5ddd\u56fd\u9053\u4e8b\u52d9\u6240","boring_xml_url":47,"boring_view_url":1,"soilmap_view_url":null,"soiltest_xml_url":50,"soiltest_view_url":49},{"id":252153,"code":"B4KJ201802001-7633","latitude":"35.433944","longitude":"134.204806","source_code":"CG058730410200150009","project_name":"","survey_name":"\u9ce5\u53d6\u81ea\u52d5\u8eca\u9053\u7247\u5c71\u5730\u533a\u5730\u8cea\u8abf\u67fb\u696d\u52d9","client_name":"\u56fd\u571f\u4ea4\u901a\u7701\u4e2d\u56fd\u5730\u65b9\u6574\u5099\u5c40\u9ce5\u53d6\u6cb3\u5ddd\u56fd\u9053\u4e8b\u52d9\u6240","boring_xml_url":47,"boring_view_url":1,"soilmap_view_url":null,"soiltest_xml_url":50,"soiltest_view_url":49},{"id":252152,"code":"B4KJ201802001-7632","latitude":"35.415083","longitude":"134.206472","source_code":"CG058730410200150008","project_name":"","survey_name":"\u9ce5\u53d6\u81ea\u52d5\u8eca\u9053\u7247\u5c71\u5730\u533a\u5730\u8cea\u8abf\u67fb\u696d\u52d9","client_name":"\u56fd\u571f\u4ea4\u901a\u7701\u4e2d\u56fd\u5730\u65b9\u6574\u5099\u5c40\u9ce5\u53d6\u6cb3\u5ddd\u56fd\u9053\u4e8b\u52d9\u6240","boring_xml_url":47,"boring_view_url":1,"soilmap_view_url":null,"soiltest_xml_url":0,"soiltest_view_url":0},{"id":252151,"code":"B4KJ201802001-7631","latitude":"35.415056","longitude":"134.206222","source_code":"CG058730410200150007","project_name":"","survey_name":"\u9ce5\u53d6\u81ea\u52d5\u8eca\u9053\u7247\u5c71\u5730\u533a\u5730\u8cea\u8abf\u67fb\u696d\u52d9","client_name":"\u56fd\u571f\u4ea4\u901a\u7701\u4e2d\u56fd\u5730\u65b9\u6574\u5099\u5c40\u9ce5\u53d6\u6cb3\u5ddd\u56fd\u9053\u4e8b\u52d9\u6240","boring_xml_url":47,"boring_view_url":1,"soilmap_view_url":null,"soiltest_xml_url":0,"soiltest_view_url":0},{"id":252150,"code":"B4KJ201802001-7630","latitude":"35.414722","longitude":"134.206472","source_code":"CG058730410200150006","project_name":"","survey_name":"\u9ce5\u53d6\u81ea\u52d5\u8eca\u9053\u7247\u5c71\u5730\u533a\u5730\u8cea\u8abf\u67fb\u696d\u52d9","client_name":"\u56fd\u571f\u4ea4\u901a\u7701\u4e2d\u56fd\u5730\u65b9\u6574\u5099\u5c40\u9ce5\u53d6\u6cb3\u5ddd\u56fd\u9053\u4e8b\u52d9\u6240","boring_xml_url":47,"boring_view_url":1,"soilmap_view_url":null,"soiltest_xml_url":0,"soiltest_view_url":0},{"id":252149,"code":"B4KJ201802001-7629","latitude":"35.414694","longitude":"134.206222","source_code":"CG058730410200150005","project_name":"","survey_name":"\u9ce5\u53d6\u81ea\u52d5\u8eca\u9053\u7247\u5c71\u5730\u533a\u5730\u8cea\u8abf\u67fb\u696d\u52d9","client_name":"\u56fd\u571f\u4ea4\u901a\u7701\u4e2d\u56fd\u5730\u65b9\u6574\u5099\u5c40\u9ce5\u53d6\u6cb3\u5ddd\u56fd\u9053\u4e8b\u52d9\u6240","boring_xml_url":47,"boring_view_url":1,"soilmap_view_url":null,"soiltest_xml_url":0,"soiltest_view_url":0},{"id":252148,"code":"B4KJ201802001-7628","latitude":"35.408861","longitude":"134.207167","source_code":"CG058730410200150004","project_name":"","survey_name":"\u9ce5\u53d6\u81ea\u52d5\u8eca\u9053\u7247\u5c71\u5730\u533a\u5730\u8cea\u8abf\u67fb\u696d\u52d9","client_name":"\u56fd\u571f\u4ea4\u901a\u7701\u4e2d\u56fd\u5730\u65b9\u6574\u5099\u5c40\u9ce5\u53d6\u6cb3\u5ddd\u56fd\u9053\u4e8b\u52d9\u6240","boring_xml_url":47,"boring_view_url":1,"soilmap_view_url":null,"soiltest_xml_url":0,"soiltest_view_url":0},{"id":252147,"code":"B4KJ201802001-7627","latitude":"35.408889","longitude":"134.206944","source_code":"CG058730410200150003","project_name":"","survey_name":"\u9ce5\u53d6\u81ea\u52d5\u8eca\u9053\u7247\u5c71\u5730\u533a\u5730\u8cea\u8abf\u67fb\u696d\u52d9","client_name":"\u56fd\u571f\u4ea4\u901a\u7701\u4e2d\u56fd\u5730\u65b9\u6574\u5099\u5c40\u9ce5\u53d6\u6cb3\u5ddd\u56fd\u9053\u4e8b\u52d9\u6240","boring_xml_url":47,"boring_view_url":1,"soilmap_view_url":null,"soiltest_xml_url":0,"soiltest_view_url":0},{"id":252146,"code":"B4KJ201802001-7626","latitude":"35.4085","longitude":"134.207083","source_code":"CG058730410200150002","project_name":"","survey_name":"\u9ce5\u53d6\u81ea\u52d5\u8eca\u9053\u7247\u5c71\u5730\u533a\u5730\u8cea\u8abf\u67fb\u696d\u52d9","client_name":"\u56fd\u571f\u4ea4\u901a\u7701\u4e2d\u56fd\u5730\u65b9\u6574\u5099\u5c40\u9ce5\u53d6\u6cb3\u5ddd\u56fd\u9053\u4e8b\u52d9\u6240","boring_xml_url":47,"boring_view_url":1,"soilmap_view_url":null,"soiltest_xml_url":0,"soiltest_view_url":0},{"id":252145,"code":"B4KJ201802001-7625","latitude":"35.408528","longitude":"134.206917","source_code":"CG058730410200150001","project_name":"","survey_name":"\u9ce5\u53d6\u81ea\u52d5\u8eca\u9053\u7247\u5c71\u5730\u533a\u5730\u8cea\u8abf\u67fb\u696d\u52d9","client_name":"\u56fd\u571f\u4ea4\u901a\u7701\u4e2d\u56fd\u5730\u65b9\u6574\u5099\u5c40\u9ce5\u53d6\u6cb3\u5ddd\u56fd\u9053\u4e8b\u52d9\u6240","boring_xml_url":47,"boring_view_url":1,"soilmap_view_url":null,"soiltest_xml_url":0,"soiltest_view_url":0},{"id":252144,"code":"B4KJ201802001-7624","latitude":"35.558472","longitude":"134.282889","source_code":"CG058730410200170006","project_name":"","survey_name":"\u99df\u99b3\u5c71\u30d0\u30a4\u30d1\u30b9\u65b0\u5ddd\u5730\u8cea\u8abf\u67fb\u696d\u52d9","client_name":"\u56fd\u571f\u4ea4\u901a\u7701 \u4e2d\u56fd\u5730\u65b9\u6574\u5099\u5c40 \u9ce5\u53d6\u6cb3\u5ddd\u56fd\u9053\u4e8b\u52d9\u6240","boring_xml_url":47,"boring_view_url":1,"soilmap_view_url":null,"soiltest_xml_url":0,"soiltest_view_url":0},{"id":252143,"code":"B4KJ201802001-7623","latitude":"35.55925","longitude":"134.283333","source_code":"CG058730410200170003","project_name":"","survey_name":"\u99df\u99b3\u5c71\u30d0\u30a4\u30d1\u30b9\u65b0\u5ddd\u5730\u8cea\u8abf\u67fb\u696d\u52d9","client_name":"\u56fd\u571f\u4ea4\u901a\u7701 \u4e2d\u56fd\u5730\u65b9\u6574\u5099\u5c40 \u9ce5\u53d6\u6cb3\u5ddd\u56fd\u9053\u4e8b\u52d9\u6240","boring_xml_url":47,"boring_view_url":1,"soilmap_view_url":null,"soiltest_xml_url":50,"soiltest_view_url":49},{"id":252142,"code":"B4KJ201802001-7622","latitude":"35.559111","longitude":"134.283667","source_code":"CG058730410200170002","project_name":"","survey_name":"\u99df\u99b3\u5c71\u30d0\u30a4\u30d1\u30b9\u65b0\u5ddd\u5730\u8cea\u8abf\u67fb\u696d\u52d9","client_name":"\u56fd\u571f\u4ea4\u901a\u7701 \u4e2d\u56fd\u5730\u65b9\u6574\u5099\u5c40 \u9ce5\u53d6\u6cb3\u5ddd\u56fd\u9053\u4e8b\u52d9\u6240","boring_xml_url":47,"boring_view_url":1,"soilmap_view_url":null,"soiltest_xml_url":50,"soiltest_view_url":49},{"id":252141,"code":"B4KJ201802001-7621","latitude":"35.558222","longitude":"134.282639","source_code":"CG058730410200170001","project_name":"","survey_name":"\u99df\u99b3\u5c71\u30d0\u30a4\u30d1\u30b9\u65b0\u5ddd\u5730\u8cea\u8abf\u67fb\u696d\u52d9","client_name":"\u56fd\u571f\u4ea4\u901a\u7701 \u4e2d\u56fd\u5730\u65b9\u6574\u5099\u5c40 \u9ce5\u53d6\u6cb3\u5ddd\u56fd\u9053\u4e8b\u52d9\u6240","boring_xml_url":47,"boring_view_url":1,"soilmap_view_url":null,"soiltest_xml_url":50,"soiltest_view_url":49},{"id":252140,"code":"B4KJ201802001-7620","latitude":"35.494806","longitude":"134.161556","source_code":"CG058730600200190003","project_name":"\u9ce5\u53d6\u897f\u9053\u8def","survey_name":"\u9ce5\u53d6\u897f\u9053\u8def\u6842\u898b\u5730\u533a\u5916\u5730\u8cea\u8abf\u67fb\u696d\u52d9","client_name":"\u56fd\u571f\u4ea4\u901a\u7701 \u4e2d\u56fd\u5730\u65b9\u6574\u5099\u5c40 \u9ce5\u53d6\u6cb3\u5ddd\u56fd\u9053\u4e8b\u52d9\u6240","boring_xml_url":47,"boring_view_url":1,"soilmap_view_url":null,"soiltest_xml_url":50,"soiltest_view_url":49},{"id":252139,"code":"B4KJ201802001-7619","latitude":"35.49575","longitude":"134.174083","source_code":"CG058730600200190002","project_name":"\u9ce5\u53d6\u897f\u9053\u8def","survey_name":"\u9ce5\u53d6\u897f\u9053\u8def\u6842\u898b\u5730\u533a\u5916\u5730\u8cea\u8abf\u67fb\u696d\u52d9","client_name":"\u56fd\u571f\u4ea4\u901a\u7701 \u4e2d\u56fd\u5730\u65b9\u6574\u5099\u5c40 \u9ce5\u53d6\u6cb3\u5ddd\u56fd\u9053\u4e8b\u52d9\u6240","boring_xml_url":47,"boring_view_url":1,"soilmap_view_url":null,"soiltest_xml_url":50,"soiltest_view_url":49},{"id":252138,"code":"B4KJ201802001-7618","latitude":"35.495083","longitude":"134.1785","source_code":"CG058730600200190001","project_name":"\u9ce5\u53d6\u897f\u9053\u8def","survey_name":"\u9ce5\u53d6\u897f\u9053\u8def\u6842\u898b\u5730\u533a\u5916\u5730\u8cea\u8abf\u67fb\u696d\u52d9","client_name":"\u56fd\u571f\u4ea4\u901a\u7701 \u4e2d\u56fd\u5730\u65b9\u6574\u5099\u5c40 \u9ce5\u53d6\u6cb3\u5ddd\u56fd\u9053\u4e8b\u52d9\u6240","boring_xml_url":47,"boring_view_url":1,"soilmap_view_url":null,"soiltest_xml_url":50,"soiltest_view_url":49},{"id":252137,"code":"B4KJ201802001-7617","latitude":"35.346389","longitude":"132.812778","source_code":"CG048736600200460021","project_name":"","survey_name":"\u6590\u4f0a\u5ddd\u5824\u9632\u5730\u8cea\u8abf\u67fb\u696d\u52d9","client_name":"\u56fd\u571f\u4ea4\u901a\u7701\u4e2d\u56fd\u5730\u65b9\u6574\u5099\u5c40\u51fa\u96f2\u6cb3\u5ddd\u4e8b\u52d9\u6240","boring_xml_url":47,"boring_view_url":1,"soilmap_view_url":null,"soiltest_xml_url":50,"soiltest_view_url":49}]}}