{"header":{"xyz":{"source":[],"mosaic":false},"page":2618,"raw":{"soiltest_result":"0","bbox":"57.598333,109.544722,1.933333,163.806111","page":"2618"},"conditions":{"soiltest_result":0,"north":57.598333,"west":109.544722,"south":1.933333,"east":163.806111},"success":true,"message":""},"data":{"meta":{"total":212844,"page":2618,"pages":7095,"count":30},"values":[{"id":252016,"code":"B4KJ201802001-7496","latitude":"34.394889","longitude":"132.587694","source_code":"CG068755620200590020","project_name":"\u4e2d\u91ce\u6771(\u6e05\u9632\u5ddd)\u5730\u533a","survey_name":"\u6771\u5e83\u5cf6\u30fb\u5b89\u82b8\u30d0\u30a4\u30d1\u30b9\u5e73\u539f\u5730\u533a\u4ed6\u5730\u8cea\u8abf\u67fb","client_name":"\u56fd\u571f\u4ea4\u901a\u7701\u4e2d\u56fd\u5730\u65b9\u6574\u5099\u5c40\u5e83\u5cf6\u56fd\u9053\u4e8b\u52d9\u6240","boring_xml_url":47,"boring_view_url":1,"soilmap_view_url":null,"soiltest_xml_url":0,"soiltest_view_url":0},{"id":252015,"code":"B4KJ201802001-7495","latitude":"34.395056","longitude":"132.588","source_code":"CG068755620200590019","project_name":"\u4e2d\u91ce\u6771(\u6e05\u9632\u5ddd)\u5730\u533a","survey_name":"\u6771\u5e83\u5cf6\u30fb\u5b89\u82b8\u30d0\u30a4\u30d1\u30b9\u5e73\u539f\u5730\u533a\u4ed6\u5730\u8cea\u8abf\u67fb","client_name":"\u56fd\u571f\u4ea4\u901a\u7701\u4e2d\u56fd\u5730\u65b9\u6574\u5099\u5c40\u5e83\u5cf6\u56fd\u9053\u4e8b\u52d9\u6240","boring_xml_url":47,"boring_view_url":1,"soilmap_view_url":null,"soiltest_xml_url":0,"soiltest_view_url":0},{"id":252014,"code":"B4KJ201802001-7494","latitude":"34.395222","longitude":"132.588306","source_code":"CG068755620200590018","project_name":"\u4e2d\u91ce\u6771(\u6e05\u9632\u5ddd)\u5730\u533a","survey_name":"\u6771\u5e83\u5cf6\u30fb\u5b89\u82b8\u30d0\u30a4\u30d1\u30b9\u5e73\u539f\u5730\u533a\u4ed6\u5730\u8cea\u8abf\u67fb","client_name":"\u56fd\u571f\u4ea4\u901a\u7701\u4e2d\u56fd\u5730\u65b9\u6574\u5099\u5c40\u5e83\u5cf6\u56fd\u9053\u4e8b\u52d9\u6240","boring_xml_url":47,"boring_view_url":1,"soilmap_view_url":null,"soiltest_xml_url":0,"soiltest_view_url":0},{"id":252013,"code":"B4KJ201802001-7493","latitude":"34.396778","longitude":"132.591194","source_code":"CG068755620200590017","project_name":"\u927e\u53d6\u5ddd\u5730\u533a","survey_name":"\u6771\u5e83\u5cf6\u30fb\u5b89\u82b8\u30d0\u30a4\u30d1\u30b9\u5e73\u539f\u5730\u533a\u4ed6\u5730\u8cea\u8abf\u67fb","client_name":"\u56fd\u571f\u4ea4\u901a\u7701\u4e2d\u56fd\u5730\u65b9\u6574\u5099\u5c40\u5e83\u5cf6\u56fd\u9053\u4e8b\u52d9\u6240","boring_xml_url":47,"boring_view_url":1,"soilmap_view_url":null,"soiltest_xml_url":0,"soiltest_view_url":0},{"id":252012,"code":"B4KJ201802001-7492","latitude":"34.396944","longitude":"132.591083","source_code":"CG068755620200590016","project_name":"\u927e\u53d6\u5ddd\u5730\u533a","survey_name":"\u6771\u5e83\u5cf6\u30fb\u5b89\u82b8\u30d0\u30a4\u30d1\u30b9\u5e73\u539f\u5730\u533a\u4ed6\u5730\u8cea\u8abf\u67fb","client_name":"\u56fd\u571f\u4ea4\u901a\u7701\u4e2d\u56fd\u5730\u65b9\u6574\u5099\u5c40\u5e83\u5cf6\u56fd\u9053\u4e8b\u52d9\u6240","boring_xml_url":47,"boring_view_url":1,"soilmap_view_url":null,"soiltest_xml_url":0,"soiltest_view_url":0},{"id":252011,"code":"B4KJ201802001-7491","latitude":"34.397056","longitude":"132.591194","source_code":"CG068755620200590015","project_name":"\u927e\u53d6\u5ddd\u5730\u533a","survey_name":"\u6771\u5e83\u5cf6\u30fb\u5b89\u82b8\u30d0\u30a4\u30d1\u30b9\u5e73\u539f\u5730\u533a\u4ed6\u5730\u8cea\u8abf\u67fb","client_name":"\u56fd\u571f\u4ea4\u901a\u7701\u4e2d\u56fd\u5730\u65b9\u6574\u5099\u5c40\u5e83\u5cf6\u56fd\u9053\u4e8b\u52d9\u6240","boring_xml_url":47,"boring_view_url":1,"soilmap_view_url":null,"soiltest_xml_url":0,"soiltest_view_url":0},{"id":252010,"code":"B4KJ201802001-7490","latitude":"34.396944","longitude":"132.591389","source_code":"CG068755620200590014","project_name":"\u927e\u53d6\u5ddd\u5730\u533a","survey_name":"\u6771\u5e83\u5cf6\u30fb\u5b89\u82b8\u30d0\u30a4\u30d1\u30b9\u5e73\u539f\u5730\u533a\u4ed6\u5730\u8cea\u8abf\u67fb","client_name":"\u56fd\u571f\u4ea4\u901a\u7701\u4e2d\u56fd\u5730\u65b9\u6574\u5099\u5c40\u5e83\u5cf6\u56fd\u9053\u4e8b\u52d9\u6240","boring_xml_url":47,"boring_view_url":1,"soilmap_view_url":null,"soiltest_xml_url":0,"soiltest_view_url":0},{"id":252009,"code":"B4KJ201802001-7489","latitude":"34.410972","longitude":"132.600389","source_code":"CG068755620200590013","project_name":"\u3072\u3088\u304d\u5730\u533a","survey_name":"\u6771\u5e83\u5cf6\u30fb\u5b89\u82b8\u30d0\u30a4\u30d1\u30b9\u5e73\u539f\u5730\u533a\u4ed6\u5730\u8cea\u8abf\u67fb","client_name":"\u56fd\u571f\u4ea4\u901a\u7701\u4e2d\u56fd\u5730\u65b9\u6574\u5099\u5c40\u5e83\u5cf6\u56fd\u9053\u4e8b\u52d9\u6240","boring_xml_url":47,"boring_view_url":1,"soilmap_view_url":null,"soiltest_xml_url":0,"soiltest_view_url":0},{"id":252008,"code":"B4KJ201802001-7488","latitude":"34.411194","longitude":"132.600583","source_code":"CG068755620200590012","project_name":"\u927e\u53d6\u5ddd\u5730\u533a","survey_name":"\u6771\u5e83\u5cf6\u30fb\u5b89\u82b8\u30d0\u30a4\u30d1\u30b9\u5e73\u539f\u5730\u533a\u4ed6\u5730\u8cea\u8abf\u67fb","client_name":"\u56fd\u571f\u4ea4\u901a\u7701\u4e2d\u56fd\u5730\u65b9\u6574\u5099\u5c40\u5e83\u5cf6\u56fd\u9053\u4e8b\u52d9\u6240","boring_xml_url":47,"boring_view_url":1,"soilmap_view_url":null,"soiltest_xml_url":0,"soiltest_view_url":0},{"id":252007,"code":"B4KJ201802001-7487","latitude":"34.411417","longitude":"132.600778","source_code":"CG068755620200590011","project_name":"\u927e\u53d6\u5ddd\u5730\u533a","survey_name":"\u6771\u5e83\u5cf6\u30fb\u5b89\u82b8\u30d0\u30a4\u30d1\u30b9\u5e73\u539f\u5730\u533a\u4ed6\u5730\u8cea\u8abf\u67fb","client_name":"\u56fd\u571f\u4ea4\u901a\u7701\u4e2d\u56fd\u5730\u65b9\u6574\u5099\u5c40\u5e83\u5cf6\u56fd\u9053\u4e8b\u52d9\u6240","boring_xml_url":47,"boring_view_url":1,"soilmap_view_url":null,"soiltest_xml_url":0,"soiltest_view_url":0},{"id":252006,"code":"B4KJ201802001-7486","latitude":"34.411056","longitude":"132.600333","source_code":"CG068755620200590010","project_name":"\u3072\u3088\u304d\u5ddd\u5730\u533a","survey_name":"\u6771\u5e83\u5cf6\u30fb\u5b89\u82b8\u30d0\u30a4\u30d1\u30b9\u5e73\u539f\u5730\u533a\u4ed6\u5730\u8cea\u8abf\u67fb","client_name":"\u56fd\u571f\u4ea4\u901a\u7701\u4e2d\u56fd\u5730\u65b9\u6574\u5099\u5c40\u5e83\u5cf6\u56fd\u9053\u4e8b\u52d9\u6240","boring_xml_url":47,"boring_view_url":1,"soilmap_view_url":null,"soiltest_xml_url":0,"soiltest_view_url":0},{"id":252005,"code":"B4KJ201802001-7485","latitude":"34.411306","longitude":"132.600556","source_code":"CG068755620200590009","project_name":"\u3072\u3088\u304d\u5730\u533a","survey_name":"\u6771\u5e83\u5cf6\u30fb\u5b89\u82b8\u30d0\u30a4\u30d1\u30b9\u5e73\u539f\u5730\u533a\u4ed6\u5730\u8cea\u8abf\u67fb","client_name":"\u56fd\u571f\u4ea4\u901a\u7701\u4e2d\u56fd\u5730\u65b9\u6574\u5099\u5c40\u5e83\u5cf6\u56fd\u9053\u4e8b\u52d9\u6240","boring_xml_url":47,"boring_view_url":1,"soilmap_view_url":null,"soiltest_xml_url":0,"soiltest_view_url":0},{"id":252004,"code":"B4KJ201802001-7484","latitude":"34.4115","longitude":"132.60075","source_code":"CG068755620200590008","project_name":"\u3072\u3088\u304d\u5730\u533a","survey_name":"\u6771\u5e83\u5cf6\u30fb\u5b89\u82b8\u30d0\u30a4\u30d1\u30b9\u5e73\u539f\u5730\u533a\u4ed6\u5730\u8cea\u8abf\u67fb","client_name":"\u56fd\u571f\u4ea4\u901a\u7701\u4e2d\u56fd\u5730\u65b9\u6574\u5099\u5c40\u5e83\u5cf6\u56fd\u9053\u4e8b\u52d9\u6240","boring_xml_url":47,"boring_view_url":1,"soilmap_view_url":null,"soiltest_xml_url":0,"soiltest_view_url":0},{"id":252003,"code":"B4KJ201802001-7483","latitude":"34.416889","longitude":"132.617917","source_code":"CG068755620200590007","project_name":"\u4e0a\u702c\u91ce\u5730\u533a","survey_name":"\u6771\u5e83\u5cf6\u30fb\u5b89\u82b8\u30d0\u30a4\u30d1\u30b9\u5e73\u539f\u5730\u533a\u4ed6\u5730\u8cea\u8abf\u67fb","client_name":"\u56fd\u571f\u4ea4\u901a\u7701\u4e2d\u56fd\u5730\u65b9\u6574\u5099\u5c40\u5e83\u5cf6\u56fd\u9053\u4e8b\u52d9\u6240","boring_xml_url":47,"boring_view_url":1,"soilmap_view_url":null,"soiltest_xml_url":0,"soiltest_view_url":0},{"id":252002,"code":"B4KJ201802001-7482","latitude":"34.416361","longitude":"132.619306","source_code":"CG068755620200590006","project_name":"\u4e0a\u702c\u91ce\u5730\u533a","survey_name":"\u6771\u5e83\u5cf6\u30fb\u5b89\u82b8\u30d0\u30a4\u30d1\u30b9\u5e73\u539f\u5730\u533a\u4ed6\u5730\u8cea\u8abf\u67fb","client_name":"\u56fd\u571f\u4ea4\u901a\u7701\u4e2d\u56fd\u5730\u65b9\u6574\u5099\u5c40\u5e83\u5cf6\u56fd\u9053\u4e8b\u52d9\u6240","boring_xml_url":47,"boring_view_url":1,"soilmap_view_url":null,"soiltest_xml_url":0,"soiltest_view_url":0},{"id":252001,"code":"B4KJ201802001-7481","latitude":"34.415417","longitude":"132.620472","source_code":"CG068755620200590005","project_name":"\u4e0a\u702c\u91ce\u5730\u533a \u7802\u9632\u5830\u5824","survey_name":"\u6771\u5e83\u5cf6\u30fb\u5b89\u82b8\u30d0\u30a4\u30d1\u30b9\u5e73\u539f\u5730\u533a\u4ed6\u5730\u8cea\u8abf\u67fb","client_name":"\u56fd\u571f\u4ea4\u901a\u7701\u4e2d\u56fd\u5730\u65b9\u6574\u5099\u5c40\u5e83\u5cf6\u56fd\u9053\u4e8b\u52d9\u6240","boring_xml_url":47,"boring_view_url":1,"soilmap_view_url":null,"soiltest_xml_url":0,"soiltest_view_url":0},{"id":252000,"code":"B4KJ201802001-7480","latitude":"34.415444","longitude":"132.620583","source_code":"CG068755620200590004","project_name":"\u4e0a\u702c\u91ce\u5730\u533a \u7802\u9632\u5830\u5824","survey_name":"\u6771\u5e83\u5cf6\u30fb\u5b89\u82b8\u30d0\u30a4\u30d1\u30b9\u5e73\u539f\u5730\u533a\u4ed6\u5730\u8cea\u8abf\u67fb","client_name":"\u56fd\u571f\u4ea4\u901a\u7701\u4e2d\u56fd\u5730\u65b9\u6574\u5099\u5c40\u5e83\u5cf6\u56fd\u9053\u4e8b\u52d9\u6240","boring_xml_url":47,"boring_view_url":1,"soilmap_view_url":null,"soiltest_xml_url":0,"soiltest_view_url":0},{"id":251999,"code":"B4KJ201802001-7479","latitude":"34.415444","longitude":"132.620694","source_code":"CG068755620200590003","project_name":"\u4e0a\u702c\u91ce\u5730\u533a \u7802\u9632\u5830\u5824","survey_name":"\u6771\u5e83\u5cf6\u30fb\u5b89\u82b8\u30d0\u30a4\u30d1\u30b9\u5e73\u539f\u5730\u533a\u4ed6\u5730\u8cea\u8abf\u67fb","client_name":"\u56fd\u571f\u4ea4\u901a\u7701\u4e2d\u56fd\u5730\u65b9\u6574\u5099\u5c40\u5e83\u5cf6\u56fd\u9053\u4e8b\u52d9\u6240","boring_xml_url":47,"boring_view_url":1,"soilmap_view_url":null,"soiltest_xml_url":0,"soiltest_view_url":0},{"id":251998,"code":"B4KJ201802001-7478","latitude":"34.415917","longitude":"132.620917","source_code":"CG068755620200590002","project_name":"\u4e0a\u702c\u91ce\u5730\u533a","survey_name":"\u6771\u5e83\u5cf6\u30fb\u5b89\u82b8\u30d0\u30a4\u30d1\u30b9\u5e73\u539f\u5730\u533a\u4ed6\u5730\u8cea\u8abf\u67fb","client_name":"\u56fd\u571f\u4ea4\u901a\u7701\u4e2d\u56fd\u5730\u65b9\u6574\u5099\u5c40\u5e83\u5cf6\u56fd\u9053\u4e8b\u52d9\u6240","boring_xml_url":47,"boring_view_url":1,"soilmap_view_url":null,"soiltest_xml_url":0,"soiltest_view_url":0},{"id":251997,"code":"B4KJ201802001-7477","latitude":"34.415361","longitude":"132.623694","source_code":"CG068755620200590001","project_name":"\u4e0a\u702c\u91ce\u5730\u533a","survey_name":"\u6771\u5e83\u5cf6\u30fb\u5b89\u82b8\u30d0\u30a4\u30d1\u30b9\u5e73\u539f\u5730\u533a\u4ed6\u5730\u8cea\u8abf\u67fb","client_name":"\u56fd\u571f\u4ea4\u901a\u7701\u4e2d\u56fd\u5730\u65b9\u6574\u5099\u5c40\u5e83\u5cf6\u56fd\u9053\u4e8b\u52d9\u6240","boring_xml_url":47,"boring_view_url":1,"soilmap_view_url":null,"soiltest_xml_url":0,"soiltest_view_url":0},{"id":251996,"code":"B4KJ201802001-7476","latitude":"34.370139","longitude":"132.429583","source_code":"CG068755620200270016","project_name":"\u5e83\u5cf6\u5357\u9053\u8def","survey_name":"\u5e83\u5cf6\u5357\u9053\u8def\u6c5f\u6ce2\u5730\u533a\u5916\u5730\u8cea\u8abf\u67fb\u696d\u52d9","client_name":"\u56fd\u571f\u4ea4\u901a\u7701 \u4e2d\u56fd\u5730\u65b9\u6574\u5099\u5c40 \u5e83\u5cf6\u56fd\u9053\u4e8b\u52d9\u6240","boring_xml_url":47,"boring_view_url":1,"soilmap_view_url":null,"soiltest_xml_url":50,"soiltest_view_url":49},{"id":251995,"code":"B4KJ201802001-7475","latitude":"34.370222","longitude":"132.429111","source_code":"CG068755620200270015","project_name":"\u5e83\u5cf6\u5357\u9053\u8def","survey_name":"\u5e83\u5cf6\u5357\u9053\u8def\u6c5f\u6ce2\u5730\u533a\u5916\u5730\u8cea\u8abf\u67fb\u696d\u52d9","client_name":"\u56fd\u571f\u4ea4\u901a\u7701 \u4e2d\u56fd\u5730\u65b9\u6574\u5099\u5c40 \u5e83\u5cf6\u56fd\u9053\u4e8b\u52d9\u6240","boring_xml_url":47,"boring_view_url":1,"soilmap_view_url":null,"soiltest_xml_url":50,"soiltest_view_url":49},{"id":251994,"code":"B4KJ201802001-7474","latitude":"34.370194","longitude":"132.430083","source_code":"CG068755620200270014","project_name":"\u5e83\u5cf6\u5357\u9053\u8def","survey_name":"\u5e83\u5cf6\u5357\u9053\u8def\u6c5f\u6ce2\u5730\u533a\u5916\u5730\u8cea\u8abf\u67fb\u696d\u52d9","client_name":"\u56fd\u571f\u4ea4\u901a\u7701 \u4e2d\u56fd\u5730\u65b9\u6574\u5099\u5c40 \u5e83\u5cf6\u56fd\u9053\u4e8b\u52d9\u6240","boring_xml_url":47,"boring_view_url":1,"soilmap_view_url":null,"soiltest_xml_url":50,"soiltest_view_url":49},{"id":251993,"code":"B4KJ201802001-7473","latitude":"34.370556","longitude":"132.429333","source_code":"CG068755620200270013","project_name":"\u5e83\u5cf6\u5357\u9053\u8def","survey_name":"\u5e83\u5cf6\u5357\u9053\u8def\u6c5f\u6ce2\u5730\u533a\u5916\u5730\u8cea\u8abf\u67fb\u696d\u52d9","client_name":"\u56fd\u571f\u4ea4\u901a\u7701 \u4e2d\u56fd\u5730\u65b9\u6574\u5099\u5c40 \u5e83\u5cf6\u56fd\u9053\u4e8b\u52d9\u6240","boring_xml_url":47,"boring_view_url":1,"soilmap_view_url":null,"soiltest_xml_url":50,"soiltest_view_url":49},{"id":251992,"code":"B4KJ201802001-7472","latitude":"34.373972","longitude":"132.420222","source_code":"CG068755620200270012","project_name":"\u5e83\u5cf6\u5357\u9053\u8def","survey_name":"\u5e83\u5cf6\u5357\u9053\u8def\u6c5f\u6ce2\u5730\u533a\u5916\u5730\u8cea\u8abf\u67fb\u696d\u52d9","client_name":"\u56fd\u571f\u4ea4\u901a\u7701 \u4e2d\u56fd\u5730\u65b9\u6574\u5099\u5c40 \u5e83\u5cf6\u56fd\u9053\u4e8b\u52d9\u6240","boring_xml_url":47,"boring_view_url":1,"soilmap_view_url":null,"soiltest_xml_url":50,"soiltest_view_url":49},{"id":251991,"code":"B4KJ201802001-7471","latitude":"34.374306","longitude":"132.420444","source_code":"CG068755620200270011","project_name":"\u5e83\u5cf6\u5357\u9053\u8def","survey_name":"\u5e83\u5cf6\u5357\u9053\u8def\u6c5f\u6ce2\u5730\u533a\u5916\u5730\u8cea\u8abf\u67fb\u696d\u52d9","client_name":"\u56fd\u571f\u4ea4\u901a\u7701 \u4e2d\u56fd\u5730\u65b9\u6574\u5099\u5c40 \u5e83\u5cf6\u56fd\u9053\u4e8b\u52d9\u6240","boring_xml_url":47,"boring_view_url":1,"soilmap_view_url":null,"soiltest_xml_url":50,"soiltest_view_url":49},{"id":251990,"code":"B4KJ201802001-7470","latitude":"34.37375","longitude":"132.420694","source_code":"CG068755620200270010","project_name":"\u5e83\u5cf6\u5357\u9053\u8def","survey_name":"\u5e83\u5cf6\u5357\u9053\u8def\u6c5f\u6ce2\u5730\u533a\u5916\u5730\u8cea\u8abf\u67fb\u696d\u52d9","client_name":"\u56fd\u571f\u4ea4\u901a\u7701 \u4e2d\u56fd\u5730\u65b9\u6574\u5099\u5c40 \u5e83\u5cf6\u56fd\u9053\u4e8b\u52d9\u6240","boring_xml_url":47,"boring_view_url":1,"soilmap_view_url":null,"soiltest_xml_url":50,"soiltest_view_url":49},{"id":251989,"code":"B4KJ201802001-7469","latitude":"34.371083","longitude":"132.426333","source_code":"CG068755620200270009","project_name":"\u5e83\u5cf6\u5357\u9053\u8def","survey_name":"\u5e83\u5cf6\u5357\u9053\u8def\u6c5f\u6ce2\u5730\u533a\u5916\u5730\u8cea\u8abf\u67fb\u696d\u52d9","client_name":"\u56fd\u571f\u4ea4\u901a\u7701 \u4e2d\u56fd\u5730\u65b9\u6574\u5099\u5c40 \u5e83\u5cf6\u56fd\u9053\u4e8b\u52d9\u6240","boring_xml_url":47,"boring_view_url":1,"soilmap_view_url":null,"soiltest_xml_url":50,"soiltest_view_url":49},{"id":251988,"code":"B4KJ201802001-7468","latitude":"34.371528","longitude":"132.425278","source_code":"CG068755620200270008","project_name":"\u5e83\u5cf6\u5357\u9053\u8def","survey_name":"\u5e83\u5cf6\u5357\u9053\u8def\u6c5f\u6ce2\u5730\u533a\u5916\u5730\u8cea\u8abf\u67fb\u696d\u52d9","client_name":"\u56fd\u571f\u4ea4\u901a\u7701 \u4e2d\u56fd\u5730\u65b9\u6574\u5099\u5c40 \u5e83\u5cf6\u56fd\u9053\u4e8b\u52d9\u6240","boring_xml_url":47,"boring_view_url":1,"soilmap_view_url":null,"soiltest_xml_url":50,"soiltest_view_url":49},{"id":251987,"code":"B4KJ201802001-7467","latitude":"34.372139","longitude":"132.423917","source_code":"CG068755620200270007","project_name":"\u5e83\u5cf6\u5357\u9053\u8def","survey_name":"\u5e83\u5cf6\u5357\u9053\u8def\u6c5f\u6ce2\u5730\u533a\u5916\u5730\u8cea\u8abf\u67fb\u696d\u52d9","client_name":"\u56fd\u571f\u4ea4\u901a\u7701 \u4e2d\u56fd\u5730\u65b9\u6574\u5099\u5c40 \u5e83\u5cf6\u56fd\u9053\u4e8b\u52d9\u6240","boring_xml_url":47,"boring_view_url":1,"soilmap_view_url":null,"soiltest_xml_url":50,"soiltest_view_url":49}]}}