{"header":{"xyz":{"source":[],"mosaic":false},"page":2635,"raw":{"soiltest_result":"0","bbox":"57.598333,109.544722,1.933333,163.806111","page":"2635"},"conditions":{"soiltest_result":0,"north":57.598333,"west":109.544722,"south":1.933333,"east":163.806111},"success":true,"message":""},"data":{"meta":{"total":212844,"page":2635,"pages":7095,"count":30},"values":[{"id":251506,"code":"B4KJ201802001-6986","latitude":"35.102556","longitude":"133.191556","source_code":"CG068752600200810019","project_name":"\u9375\u639b\u5ce0\u9053\u8def\u591a\u91cc\u5730\u533a\u5916\u5730\u8cea\u8abf\u67fb\u696d\u52d9","survey_name":"\u9375\u639b\u5ce0\u9053\u8def\u591a\u91cc\u5730\u533a\u5916\u5730\u8cea\u8abf\u67fb\u696d\u52d9","client_name":"\u56fd\u571f\u4ea4\u901a\u7701 \u4e2d\u56fd\u5730\u65b9\u6574\u5099\u5c40 \u4e09\u6b21\u6cb3\u5ddd\u56fd\u9053\u4e8b\u52d9\u6240","boring_xml_url":47,"boring_view_url":1,"soilmap_view_url":null,"soiltest_xml_url":0,"soiltest_view_url":0},{"id":251505,"code":"B4KJ201802001-6985","latitude":"35.101583","longitude":"133.191306","source_code":"CG068752600200810018","project_name":"\u9375\u639b\u5ce0\u9053\u8def\u591a\u91cc\u5730\u533a\u5916\u5730\u8cea\u8abf\u67fb\u696d\u52d9","survey_name":"\u9375\u639b\u5ce0\u9053\u8def\u591a\u91cc\u5730\u533a\u5916\u5730\u8cea\u8abf\u67fb\u696d\u52d9","client_name":"\u56fd\u571f\u4ea4\u901a\u7701 \u4e2d\u56fd\u5730\u65b9\u6574\u5099\u5c40 \u4e09\u6b21\u6cb3\u5ddd\u56fd\u9053\u4e8b\u52d9\u6240","boring_xml_url":47,"boring_view_url":1,"soilmap_view_url":null,"soiltest_xml_url":0,"soiltest_view_url":0},{"id":251504,"code":"B4KJ201802001-6984","latitude":"35.101444","longitude":"133.191611","source_code":"CG068752600200810017","project_name":"\u9375\u639b\u5ce0\u9053\u8def\u591a\u91cc\u5730\u533a\u5916\u5730\u8cea\u8abf\u67fb\u696d\u52d9","survey_name":"\u9375\u639b\u5ce0\u9053\u8def\u591a\u91cc\u5730\u533a\u5916\u5730\u8cea\u8abf\u67fb\u696d\u52d9","client_name":"\u56fd\u571f\u4ea4\u901a\u7701 \u4e2d\u56fd\u5730\u65b9\u6574\u5099\u5c40 \u4e09\u6b21\u6cb3\u5ddd\u56fd\u9053\u4e8b\u52d9\u6240","boring_xml_url":47,"boring_view_url":1,"soilmap_view_url":null,"soiltest_xml_url":0,"soiltest_view_url":0},{"id":251503,"code":"B4KJ201802001-6983","latitude":"35.099472","longitude":"133.190833","source_code":"CG068752600200810016","project_name":"\u9375\u639b\u5ce0\u9053\u8def\u591a\u91cc\u5730\u533a\u5916\u5730\u8cea\u8abf\u67fb\u696d\u52d9","survey_name":"\u9375\u639b\u5ce0\u9053\u8def\u591a\u91cc\u5730\u533a\u5916\u5730\u8cea\u8abf\u67fb\u696d\u52d9","client_name":"\u56fd\u571f\u4ea4\u901a\u7701 \u4e2d\u56fd\u5730\u65b9\u6574\u5099\u5c40 \u4e09\u6b21\u6cb3\u5ddd\u56fd\u9053\u4e8b\u52d9\u6240","boring_xml_url":47,"boring_view_url":1,"soilmap_view_url":null,"soiltest_xml_url":0,"soiltest_view_url":0},{"id":251502,"code":"B4KJ201802001-6982","latitude":"35.098889","longitude":"133.191889","source_code":"CG068752600200810015","project_name":"\u9375\u639b\u5ce0\u9053\u8def\u591a\u91cc\u5730\u533a\u5916\u5730\u8cea\u8abf\u67fb\u696d\u52d9","survey_name":"\u9375\u639b\u5ce0\u9053\u8def\u591a\u91cc\u5730\u533a\u5916\u5730\u8cea\u8abf\u67fb\u696d\u52d9","client_name":"\u56fd\u571f\u4ea4\u901a\u7701 \u4e2d\u56fd\u5730\u65b9\u6574\u5099\u5c40 \u4e09\u6b21\u6cb3\u5ddd\u56fd\u9053\u4e8b\u52d9\u6240","boring_xml_url":47,"boring_view_url":1,"soilmap_view_url":null,"soiltest_xml_url":0,"soiltest_view_url":0},{"id":251501,"code":"B4KJ201802001-6981","latitude":"35.098417","longitude":"133.191389","source_code":"CG068752600200810014","project_name":"\u9375\u639b\u5ce0\u9053\u8def\u591a\u91cc\u5730\u533a\u5916\u5730\u8cea\u8abf\u67fb\u696d\u52d9","survey_name":"\u9375\u639b\u5ce0\u9053\u8def\u591a\u91cc\u5730\u533a\u5916\u5730\u8cea\u8abf\u67fb\u696d\u52d9","client_name":"\u56fd\u571f\u4ea4\u901a\u7701 \u4e2d\u56fd\u5730\u65b9\u6574\u5099\u5c40 \u4e09\u6b21\u6cb3\u5ddd\u56fd\u9053\u4e8b\u52d9\u6240","boring_xml_url":47,"boring_view_url":1,"soilmap_view_url":null,"soiltest_xml_url":0,"soiltest_view_url":0},{"id":251500,"code":"B4KJ201802001-6980","latitude":"35.096778","longitude":"133.19125","source_code":"CG068752600200810013","project_name":"\u9375\u639b\u5ce0\u9053\u8def\u591a\u91cc\u5730\u533a\u5916\u5730\u8cea\u8abf\u67fb\u696d\u52d9","survey_name":"\u9375\u639b\u5ce0\u9053\u8def\u591a\u91cc\u5730\u533a\u5916\u5730\u8cea\u8abf\u67fb\u696d\u52d9","client_name":"\u56fd\u571f\u4ea4\u901a\u7701 \u4e2d\u56fd\u5730\u65b9\u6574\u5099\u5c40 \u4e09\u6b21\u6cb3\u5ddd\u56fd\u9053\u4e8b\u52d9\u6240","boring_xml_url":47,"boring_view_url":1,"soilmap_view_url":null,"soiltest_xml_url":0,"soiltest_view_url":0},{"id":251499,"code":"B4KJ201802001-6979","latitude":"35.095917","longitude":"133.191611","source_code":"CG068752600200810012","project_name":"\u9375\u639b\u5ce0\u9053\u8def\u591a\u91cc\u5730\u533a\u5916\u5730\u8cea\u8abf\u67fb\u696d\u52d9","survey_name":"\u9375\u639b\u5ce0\u9053\u8def\u591a\u91cc\u5730\u533a\u5916\u5730\u8cea\u8abf\u67fb\u696d\u52d9","client_name":"\u56fd\u571f\u4ea4\u901a\u7701 \u4e2d\u56fd\u5730\u65b9\u6574\u5099\u5c40 \u4e09\u6b21\u6cb3\u5ddd\u56fd\u9053\u4e8b\u52d9\u6240","boring_xml_url":47,"boring_view_url":1,"soilmap_view_url":null,"soiltest_xml_url":0,"soiltest_view_url":0},{"id":251498,"code":"B4KJ201802001-6978","latitude":"35.095611","longitude":"133.191389","source_code":"CG068752600200810011","project_name":"\u9375\u639b\u5ce0\u9053\u8def\u591a\u91cc\u5730\u533a\u5916\u5730\u8cea\u8abf\u67fb\u696d\u52d9","survey_name":"\u9375\u639b\u5ce0\u9053\u8def\u591a\u91cc\u5730\u533a\u5916\u5730\u8cea\u8abf\u67fb\u696d\u52d9","client_name":"\u56fd\u571f\u4ea4\u901a\u7701 \u4e2d\u56fd\u5730\u65b9\u6574\u5099\u5c40 \u4e09\u6b21\u6cb3\u5ddd\u56fd\u9053\u4e8b\u52d9\u6240","boring_xml_url":47,"boring_view_url":1,"soilmap_view_url":null,"soiltest_xml_url":0,"soiltest_view_url":0},{"id":251497,"code":"B4KJ201802001-6977","latitude":"35.095556","longitude":"133.19125","source_code":"CG068752600200810010","project_name":"\u9375\u639b\u5ce0\u9053\u8def\u591a\u91cc\u5730\u533a\u5916\u5730\u8cea\u8abf\u67fb\u696d\u52d9","survey_name":"\u9375\u639b\u5ce0\u9053\u8def\u591a\u91cc\u5730\u533a\u5916\u5730\u8cea\u8abf\u67fb\u696d\u52d9","client_name":"\u56fd\u571f\u4ea4\u901a\u7701 \u4e2d\u56fd\u5730\u65b9\u6574\u5099\u5c40 \u4e09\u6b21\u6cb3\u5ddd\u56fd\u9053\u4e8b\u52d9\u6240","boring_xml_url":47,"boring_view_url":1,"soilmap_view_url":null,"soiltest_xml_url":0,"soiltest_view_url":0},{"id":251496,"code":"B4KJ201802001-6976","latitude":"35.095083","longitude":"133.190972","source_code":"CG068752600200810009","project_name":"\u9375\u639b\u5ce0\u9053\u8def\u591a\u91cc\u5730\u533a\u5916\u5730\u8cea\u8abf\u67fb\u696d\u52d9","survey_name":"\u9375\u639b\u5ce0\u9053\u8def\u591a\u91cc\u5730\u533a\u5916\u5730\u8cea\u8abf\u67fb\u696d\u52d9","client_name":"\u56fd\u571f\u4ea4\u901a\u7701 \u4e2d\u56fd\u5730\u65b9\u6574\u5099\u5c40 \u4e09\u6b21\u6cb3\u5ddd\u56fd\u9053\u4e8b\u52d9\u6240","boring_xml_url":47,"boring_view_url":1,"soilmap_view_url":null,"soiltest_xml_url":50,"soiltest_view_url":49},{"id":251495,"code":"B4KJ201802001-6975","latitude":"35.094306","longitude":"133.190472","source_code":"CG068752600200810008","project_name":"\u9375\u639b\u5ce0\u9053\u8def\u591a\u91cc\u5730\u533a\u5916\u5730\u8cea\u8abf\u67fb\u696d\u52d9","survey_name":"\u9375\u639b\u5ce0\u9053\u8def\u591a\u91cc\u5730\u533a\u5916\u5730\u8cea\u8abf\u67fb\u696d\u52d9","client_name":"\u56fd\u571f\u4ea4\u901a\u7701 \u4e2d\u56fd\u5730\u65b9\u6574\u5099\u5c40 \u4e09\u6b21\u6cb3\u5ddd\u56fd\u9053\u4e8b\u52d9\u6240","boring_xml_url":47,"boring_view_url":1,"soilmap_view_url":null,"soiltest_xml_url":0,"soiltest_view_url":0},{"id":251494,"code":"B4KJ201802001-6974","latitude":"35.093833","longitude":"133.190333","source_code":"CG068752600200810007","project_name":"\u9375\u639b\u5ce0\u9053\u8def\u591a\u91cc\u5730\u533a\u5916\u5730\u8cea\u8abf\u67fb\u696d\u52d9","survey_name":"\u9375\u639b\u5ce0\u9053\u8def\u591a\u91cc\u5730\u533a\u5916\u5730\u8cea\u8abf\u67fb\u696d\u52d9","client_name":"\u56fd\u571f\u4ea4\u901a\u7701 \u4e2d\u56fd\u5730\u65b9\u6574\u5099\u5c40 \u4e09\u6b21\u6cb3\u5ddd\u56fd\u9053\u4e8b\u52d9\u6240","boring_xml_url":47,"boring_view_url":1,"soilmap_view_url":null,"soiltest_xml_url":0,"soiltest_view_url":0},{"id":251493,"code":"B4KJ201802001-6973","latitude":"35.093722","longitude":"133.190194","source_code":"CG068752600200810006","project_name":"\u9375\u639b\u5ce0\u9053\u8def\u591a\u91cc\u5730\u533a\u5916\u5730\u8cea\u8abf\u67fb\u696d\u52d9","survey_name":"\u9375\u639b\u5ce0\u9053\u8def\u591a\u91cc\u5730\u533a\u5916\u5730\u8cea\u8abf\u67fb\u696d\u52d9","client_name":"\u56fd\u571f\u4ea4\u901a\u7701 \u4e2d\u56fd\u5730\u65b9\u6574\u5099\u5c40 \u4e09\u6b21\u6cb3\u5ddd\u56fd\u9053\u4e8b\u52d9\u6240","boring_xml_url":47,"boring_view_url":1,"soilmap_view_url":null,"soiltest_xml_url":0,"soiltest_view_url":0},{"id":251492,"code":"B4KJ201802001-6972","latitude":"35.093389","longitude":"133.190139","source_code":"CG068752600200810005","project_name":"\u9375\u639b\u5ce0\u9053\u8def\u591a\u91cc\u5730\u533a\u5916\u5730\u8cea\u8abf\u67fb\u696d\u52d9","survey_name":"\u9375\u639b\u5ce0\u9053\u8def\u591a\u91cc\u5730\u533a\u5916\u5730\u8cea\u8abf\u67fb\u696d\u52d9","client_name":"\u56fd\u571f\u4ea4\u901a\u7701 \u4e2d\u56fd\u5730\u65b9\u6574\u5099\u5c40 \u4e09\u6b21\u6cb3\u5ddd\u56fd\u9053\u4e8b\u52d9\u6240","boring_xml_url":47,"boring_view_url":1,"soilmap_view_url":null,"soiltest_xml_url":0,"soiltest_view_url":0},{"id":251491,"code":"B4KJ201802001-6971","latitude":"35.092667","longitude":"133.190306","source_code":"CG068752600200810004","project_name":"\u9375\u639b\u5ce0\u9053\u8def\u591a\u91cc\u5730\u533a\u5916\u5730\u8cea\u8abf\u67fb\u696d\u52d9","survey_name":"\u9375\u639b\u5ce0\u9053\u8def\u591a\u91cc\u5730\u533a\u5916\u5730\u8cea\u8abf\u67fb\u696d\u52d9","client_name":"\u56fd\u571f\u4ea4\u901a\u7701 \u4e2d\u56fd\u5730\u65b9\u6574\u5099\u5c40 \u4e09\u6b21\u6cb3\u5ddd\u56fd\u9053\u4e8b\u52d9\u6240","boring_xml_url":47,"boring_view_url":1,"soilmap_view_url":null,"soiltest_xml_url":0,"soiltest_view_url":0},{"id":251490,"code":"B4KJ201802001-6970","latitude":"35.092611","longitude":"133.190944","source_code":"CG068752600200810003","project_name":"\u9375\u639b\u5ce0\u9053\u8def\u591a\u91cc\u5730\u533a\u5916\u5730\u8cea\u8abf\u67fb\u696d\u52d9","survey_name":"\u9375\u639b\u5ce0\u9053\u8def\u591a\u91cc\u5730\u533a\u5916\u5730\u8cea\u8abf\u67fb\u696d\u52d9","client_name":"\u56fd\u571f\u4ea4\u901a\u7701 \u4e2d\u56fd\u5730\u65b9\u6574\u5099\u5c40 \u4e09\u6b21\u6cb3\u5ddd\u56fd\u9053\u4e8b\u52d9\u6240","boring_xml_url":47,"boring_view_url":1,"soilmap_view_url":null,"soiltest_xml_url":0,"soiltest_view_url":0},{"id":251489,"code":"B4KJ201802001-6969","latitude":"35.090806","longitude":"133.191194","source_code":"CG068752600200810002","project_name":"\u9375\u639b\u5ce0\u9053\u8def\u591a\u91cc\u5730\u533a\u5916\u5730\u8cea\u8abf\u67fb\u696d\u52d9","survey_name":"\u9375\u639b\u5ce0\u9053\u8def\u591a\u91cc\u5730\u533a\u5916\u5730\u8cea\u8abf\u67fb\u696d\u52d9","client_name":"\u56fd\u571f\u4ea4\u901a\u7701 \u4e2d\u56fd\u5730\u65b9\u6574\u5099\u5c40 \u4e09\u6b21\u6cb3\u5ddd\u56fd\u9053\u4e8b\u52d9\u6240","boring_xml_url":47,"boring_view_url":1,"soilmap_view_url":null,"soiltest_xml_url":0,"soiltest_view_url":0},{"id":251488,"code":"B4KJ201802001-6968","latitude":"35.091667","longitude":"133.191583","source_code":"CG068752600200810001","project_name":"\u9375\u639b\u5ce0\u9053\u8def\u591a\u91cc\u5730\u533a\u5916\u5730\u8cea\u8abf\u67fb\u696d\u52d9","survey_name":"\u9375\u639b\u5ce0\u9053\u8def\u591a\u91cc\u5730\u533a\u5916\u5730\u8cea\u8abf\u67fb\u696d\u52d9","client_name":"\u56fd\u571f\u4ea4\u901a\u7701 \u4e2d\u56fd\u5730\u65b9\u6574\u5099\u5c40 \u4e09\u6b21\u6cb3\u5ddd\u56fd\u9053\u4e8b\u52d9\u6240","boring_xml_url":47,"boring_view_url":1,"soilmap_view_url":null,"soiltest_xml_url":0,"soiltest_view_url":0},{"id":251487,"code":"B4KJ201802001-6967","latitude":"35.348327","longitude":"132.689985","source_code":"CG068736400200280022","project_name":"","survey_name":"\u653e\u6c34\u8def\u958b\u524a\u90e8\u5916\u5730\u8cea\u8abf\u67fb\u696d\u52d9","client_name":"\u56fd\u571f\u4ea4\u901a\u7701\u4e2d\u56fd\u5730\u65b9\u6574\u5099\u5c40\u51fa\u96f2\u6cb3\u5ddd\u4e8b\u52d9\u6240","boring_xml_url":47,"boring_view_url":1,"soilmap_view_url":null,"soiltest_xml_url":0,"soiltest_view_url":0},{"id":251486,"code":"B4KJ201802001-6966","latitude":"35.348549","longitude":"132.689985","source_code":"CG068736400200280021","project_name":"","survey_name":"\u653e\u6c34\u8def\u958b\u524a\u90e8\u5916\u5730\u8cea\u8abf\u67fb\u696d\u52d9","client_name":"\u56fd\u571f\u4ea4\u901a\u7701\u4e2d\u56fd\u5730\u65b9\u6574\u5099\u5c40\u51fa\u96f2\u6cb3\u5ddd\u4e8b\u52d9\u6240","boring_xml_url":47,"boring_view_url":1,"soilmap_view_url":null,"soiltest_xml_url":0,"soiltest_view_url":0},{"id":251485,"code":"B4KJ201802001-6965","latitude":"35.354468","longitude":"132.786808","source_code":"CG068736400200280020","project_name":"","survey_name":"\u653e\u6c34\u8def\u958b\u524a\u90e8\u5916\u5730\u8cea\u8abf\u67fb\u696d\u52d9","client_name":"\u56fd\u571f\u4ea4\u901a\u7701\u4e2d\u56fd\u5730\u65b9\u6574\u5099\u5c40\u51fa\u96f2\u6cb3\u5ddd\u4e8b\u52d9\u6240","boring_xml_url":47,"boring_view_url":1,"soilmap_view_url":null,"soiltest_xml_url":0,"soiltest_view_url":0},{"id":251484,"code":"B4KJ201802001-6964","latitude":"35.342605","longitude":"132.697818","source_code":"CG068736400200280019","project_name":"","survey_name":"\u653e\u6c34\u8def\u958b\u524a\u90e8\u5916\u5730\u8cea\u8abf\u67fb\u696d\u52d9","client_name":"\u56fd\u571f\u4ea4\u901a\u7701\u4e2d\u56fd\u5730\u65b9\u6574\u5099\u5c40\u51fa\u96f2\u6cb3\u5ddd\u4e8b\u52d9\u6240","boring_xml_url":47,"boring_view_url":1,"soilmap_view_url":null,"soiltest_xml_url":0,"soiltest_view_url":0},{"id":251483,"code":"B4KJ201802001-6963","latitude":"35.348299","longitude":"132.689791","source_code":"CG068736400200280018","project_name":"","survey_name":"\u653e\u6c34\u8def\u958b\u524a\u90e8\u5916\u5730\u8cea\u8abf\u67fb\u696d\u52d9","client_name":"\u56fd\u571f\u4ea4\u901a\u7701\u4e2d\u56fd\u5730\u65b9\u6574\u5099\u5c40\u51fa\u96f2\u6cb3\u5ddd\u4e8b\u52d9\u6240","boring_xml_url":47,"boring_view_url":1,"soilmap_view_url":null,"soiltest_xml_url":0,"soiltest_view_url":0},{"id":251482,"code":"B4KJ201802001-6962","latitude":"35.348466","longitude":"132.689735","source_code":"CG068736400200280017","project_name":"","survey_name":"\u653e\u6c34\u8def\u958b\u524a\u90e8\u5916\u5730\u8cea\u8abf\u67fb\u696d\u52d9","client_name":"\u56fd\u571f\u4ea4\u901a\u7701\u4e2d\u56fd\u5730\u65b9\u6574\u5099\u5c40\u51fa\u96f2\u6cb3\u5ddd\u4e8b\u52d9\u6240","boring_xml_url":47,"boring_view_url":1,"soilmap_view_url":null,"soiltest_xml_url":0,"soiltest_view_url":0},{"id":251481,"code":"B4KJ201802001-6961","latitude":"35.350301","longitude":"132.774893","source_code":"CG068736400200280016","project_name":"","survey_name":"\u653e\u6c34\u8def\u958b\u524a\u90e8\u5916\u5730\u8cea\u8abf\u67fb\u696d\u52d9","client_name":"\u56fd\u571f\u4ea4\u901a\u7701\u4e2d\u56fd\u5730\u65b9\u6574\u5099\u5c40\u51fa\u96f2\u6cb3\u5ddd\u4e8b\u52d9\u6240","boring_xml_url":47,"boring_view_url":1,"soilmap_view_url":null,"soiltest_xml_url":50,"soiltest_view_url":49},{"id":251480,"code":"B4KJ201802001-6960","latitude":"35.350468","longitude":"132.774588","source_code":"CG068736400200280015","project_name":"","survey_name":"\u653e\u6c34\u8def\u958b\u524a\u90e8\u5916\u5730\u8cea\u8abf\u67fb\u696d\u52d9","client_name":"\u56fd\u571f\u4ea4\u901a\u7701\u4e2d\u56fd\u5730\u65b9\u6574\u5099\u5c40\u51fa\u96f2\u6cb3\u5ddd\u4e8b\u52d9\u6240","boring_xml_url":47,"boring_view_url":1,"soilmap_view_url":null,"soiltest_xml_url":0,"soiltest_view_url":0},{"id":251479,"code":"B4KJ201802001-6959","latitude":"35.350607","longitude":"132.774421","source_code":"CG068736400200280014","project_name":"","survey_name":"\u653e\u6c34\u8def\u958b\u524a\u90e8\u5916\u5730\u8cea\u8abf\u67fb\u696d\u52d9","client_name":"\u56fd\u571f\u4ea4\u901a\u7701\u4e2d\u56fd\u5730\u65b9\u6574\u5099\u5c40\u51fa\u96f2\u6cb3\u5ddd\u4e8b\u52d9\u6240","boring_xml_url":47,"boring_view_url":1,"soilmap_view_url":null,"soiltest_xml_url":0,"soiltest_view_url":0},{"id":251478,"code":"B4KJ201802001-6958","latitude":"35.350885","longitude":"132.774254","source_code":"CG068736400200280013","project_name":"","survey_name":"\u653e\u6c34\u8def\u958b\u524a\u90e8\u5916\u5730\u8cea\u8abf\u67fb\u696d\u52d9","client_name":"\u56fd\u571f\u4ea4\u901a\u7701\u4e2d\u56fd\u5730\u65b9\u6574\u5099\u5c40\u51fa\u96f2\u6cb3\u5ddd\u4e8b\u52d9\u6240","boring_xml_url":47,"boring_view_url":1,"soilmap_view_url":null,"soiltest_xml_url":50,"soiltest_view_url":49},{"id":251477,"code":"B4KJ201802001-6957","latitude":"35.351024","longitude":"132.785281","source_code":"CG068736400200280012","project_name":"","survey_name":"\u653e\u6c34\u8def\u958b\u524a\u90e8\u5916\u5730\u8cea\u8abf\u67fb\u696d\u52d9","client_name":"\u56fd\u571f\u4ea4\u901a\u7701\u4e2d\u56fd\u5730\u65b9\u6574\u5099\u5c40\u51fa\u96f2\u6cb3\u5ddd\u4e8b\u52d9\u6240","boring_xml_url":47,"boring_view_url":1,"soilmap_view_url":null,"soiltest_xml_url":0,"soiltest_view_url":0}]}}