{"header":{"xyz":{"source":[],"mosaic":false},"page":264,"raw":{"soiltest_result":"0","bbox":"57.598333,109.544722,1.933333,163.806111","page":"264"},"conditions":{"soiltest_result":0,"north":57.598333,"west":109.544722,"south":1.933333,"east":163.806111},"success":true,"message":""},"data":{"meta":{"total":212844,"page":264,"pages":7095,"count":30},"values":[{"id":573839,"code":"NGIC202204953-0019","latitude":"42.6510875","longitude":"141.52436194444","source_code":"","project_name":"\u6a3d\u524d\u5c71\u82eb\u5c0f\u7267\u5ddd\u5916\u5730\u8cea\u8abf\u67fb\u696d\u52d9","survey_name":"\u6a3d\u524d\u5c71\u82eb\u5c0f\u7267\u5ddd\u5916\u5730\u8cea\u8abf\u67fb\u696d\u52d9","client_name":"\u56fd\u571f\u4ea4\u901a\u7701\u5317\u6d77\u9053\u958b\u767a\u5c40\u5ba4\u862d\u958b\u767a\u5efa\u8a2d\u90e8\u672c\u90e8","boring_xml_url":47,"boring_view_url":1,"soilmap_view_url":null,"soiltest_xml_url":0,"soiltest_view_url":0},{"id":573838,"code":"NGIC202204953-0018","latitude":"42.6510875","longitude":"141.52436194444","source_code":"","project_name":"\u6a3d\u524d\u5c71\u82eb\u5c0f\u7267\u5ddd\u5916\u5730\u8cea\u8abf\u67fb\u696d\u52d9","survey_name":"\u6a3d\u524d\u5c71\u82eb\u5c0f\u7267\u5ddd\u5916\u5730\u8cea\u8abf\u67fb\u696d\u52d9","client_name":"\u56fd\u571f\u4ea4\u901a\u7701\u5317\u6d77\u9053\u958b\u767a\u5c40\u5ba4\u862d\u958b\u767a\u5efa\u8a2d\u90e8\u672c\u90e8","boring_xml_url":47,"boring_view_url":1,"soilmap_view_url":null,"soiltest_xml_url":0,"soiltest_view_url":0},{"id":573837,"code":"NGIC202204953-0017","latitude":"42.6510875","longitude":"141.52436194444","source_code":"","project_name":"\u6a3d\u524d\u5c71\u82eb\u5c0f\u7267\u5ddd\u5916\u5730\u8cea\u8abf\u67fb\u696d\u52d9","survey_name":"\u6a3d\u524d\u5c71\u82eb\u5c0f\u7267\u5ddd\u5916\u5730\u8cea\u8abf\u67fb\u696d\u52d9","client_name":"\u56fd\u571f\u4ea4\u901a\u7701\u5317\u6d77\u9053\u958b\u767a\u5c40\u5ba4\u862d\u958b\u767a\u5efa\u8a2d\u90e8\u672c\u90e8","boring_xml_url":47,"boring_view_url":1,"soilmap_view_url":null,"soiltest_xml_url":47,"soiltest_view_url":47},{"id":573836,"code":"NGIC202204953-0016","latitude":"42.651641944444","longitude":"141.52541388889","source_code":"","project_name":"\u6a3d\u524d\u5c71\u82eb\u5c0f\u7267\u5ddd\u5916\u5730\u8cea\u8abf\u67fb\u696d\u52d9","survey_name":"\u6a3d\u524d\u5c71\u82eb\u5c0f\u7267\u5ddd\u5916\u5730\u8cea\u8abf\u67fb\u696d\u52d9","client_name":"\u56fd\u571f\u4ea4\u901a\u7701\u5317\u6d77\u9053\u958b\u767a\u5c40\u5ba4\u862d\u958b\u767a\u5efa\u8a2d\u90e8\u672c\u90e8","boring_xml_url":47,"boring_view_url":1,"soilmap_view_url":null,"soiltest_xml_url":0,"soiltest_view_url":0},{"id":573835,"code":"NGIC202204953-0015","latitude":"42.651641944444","longitude":"141.52541388889","source_code":"","project_name":"\u6a3d\u524d\u5c71\u82eb\u5c0f\u7267\u5ddd\u5916\u5730\u8cea\u8abf\u67fb\u696d\u52d9","survey_name":"\u6a3d\u524d\u5c71\u82eb\u5c0f\u7267\u5ddd\u5916\u5730\u8cea\u8abf\u67fb\u696d\u52d9","client_name":"\u56fd\u571f\u4ea4\u901a\u7701\u5317\u6d77\u9053\u958b\u767a\u5c40\u5ba4\u862d\u958b\u767a\u5efa\u8a2d\u90e8\u672c\u90e8","boring_xml_url":47,"boring_view_url":1,"soilmap_view_url":null,"soiltest_xml_url":47,"soiltest_view_url":47},{"id":573834,"code":"NGIC202204953-0014","latitude":"42.656328888889","longitude":"141.5701125","source_code":"","project_name":"\u6a3d\u524d\u5c71\u82eb\u5c0f\u7267\u5ddd\u5916\u5730\u8cea\u8abf\u67fb\u696d\u52d9","survey_name":"\u6a3d\u524d\u5c71\u82eb\u5c0f\u7267\u5ddd\u5916\u5730\u8cea\u8abf\u67fb\u696d\u52d9","client_name":"\u56fd\u571f\u4ea4\u901a\u7701\u5317\u6d77\u9053\u958b\u767a\u5c40\u5ba4\u862d\u958b\u767a\u5efa\u8a2d\u90e8\u672c\u90e8","boring_xml_url":47,"boring_view_url":1,"soilmap_view_url":null,"soiltest_xml_url":47,"soiltest_view_url":47},{"id":573833,"code":"NGIC202204953-0013","latitude":"42.656149166667","longitude":"141.56991111111","source_code":"","project_name":"\u6a3d\u524d\u5c71\u82eb\u5c0f\u7267\u5ddd\u5916\u5730\u8cea\u8abf\u67fb\u696d\u52d9","survey_name":"\u6a3d\u524d\u5c71\u82eb\u5c0f\u7267\u5ddd\u5916\u5730\u8cea\u8abf\u67fb\u696d\u52d9","client_name":"\u56fd\u571f\u4ea4\u901a\u7701\u5317\u6d77\u9053\u958b\u767a\u5c40\u5ba4\u862d\u958b\u767a\u5efa\u8a2d\u90e8\u672c\u90e8","boring_xml_url":47,"boring_view_url":1,"soilmap_view_url":null,"soiltest_xml_url":47,"soiltest_view_url":47},{"id":573832,"code":"NGIC202204953-0012","latitude":"42.656138888889","longitude":"141.56974305556","source_code":"","project_name":"\u6a3d\u524d\u5c71\u82eb\u5c0f\u7267\u5ddd\u5916\u5730\u8cea\u8abf\u67fb\u696d\u52d9","survey_name":"\u6a3d\u524d\u5c71\u82eb\u5c0f\u7267\u5ddd\u5916\u5730\u8cea\u8abf\u67fb\u696d\u52d9","client_name":"\u56fd\u571f\u4ea4\u901a\u7701\u5317\u6d77\u9053\u958b\u767a\u5c40\u5ba4\u862d\u958b\u767a\u5efa\u8a2d\u90e8\u672c\u90e8","boring_xml_url":47,"boring_view_url":1,"soilmap_view_url":null,"soiltest_xml_url":47,"soiltest_view_url":47},{"id":573831,"code":"NGIC202204953-0011","latitude":"42.677981666667","longitude":"141.55813777778","source_code":"","project_name":"\u6a3d\u524d\u5c71\u82eb\u5c0f\u7267\u5ddd\u5916\u5730\u8cea\u8abf\u67fb\u696d\u52d9","survey_name":"\u6a3d\u524d\u5c71\u82eb\u5c0f\u7267\u5ddd\u5916\u5730\u8cea\u8abf\u67fb\u696d\u52d9","client_name":"\u56fd\u571f\u4ea4\u901a\u7701\u5317\u6d77\u9053\u958b\u767a\u5c40\u5ba4\u862d\u958b\u767a\u5efa\u8a2d\u90e8\u672c\u90e8","boring_xml_url":47,"boring_view_url":1,"soilmap_view_url":null,"soiltest_xml_url":0,"soiltest_view_url":0},{"id":573830,"code":"NGIC202204953-0010","latitude":"42.680303055556","longitude":"141.55669444444","source_code":"","project_name":"\u6a3d\u524d\u5c71\u82eb\u5c0f\u7267\u5ddd\u5916\u5730\u8cea\u8abf\u67fb\u696d\u52d9","survey_name":"\u6a3d\u524d\u5c71\u82eb\u5c0f\u7267\u5ddd\u5916\u5730\u8cea\u8abf\u67fb\u696d\u52d9","client_name":"\u56fd\u571f\u4ea4\u901a\u7701\u5317\u6d77\u9053\u958b\u767a\u5c40\u5ba4\u862d\u958b\u767a\u5efa\u8a2d\u90e8\u672c\u90e8","boring_xml_url":47,"boring_view_url":1,"soilmap_view_url":null,"soiltest_xml_url":0,"soiltest_view_url":0},{"id":573829,"code":"NGIC202204953-0009","latitude":"42.679761944444","longitude":"141.55182888889","source_code":"","project_name":"\u6a3d\u524d\u5c71\u82eb\u5c0f\u7267\u5ddd\u5916\u5730\u8cea\u8abf\u67fb\u696d\u52d9","survey_name":"\u6a3d\u524d\u5c71\u82eb\u5c0f\u7267\u5ddd\u5916\u5730\u8cea\u8abf\u67fb\u696d\u52d9","client_name":"\u56fd\u571f\u4ea4\u901a\u7701\u5317\u6d77\u9053\u958b\u767a\u5c40\u5ba4\u862d\u958b\u767a\u5efa\u8a2d\u90e8\u672c\u90e8","boring_xml_url":47,"boring_view_url":1,"soilmap_view_url":null,"soiltest_xml_url":0,"soiltest_view_url":0},{"id":573828,"code":"NGIC202204953-0008","latitude":"42.680655555556","longitude":"141.55569555556","source_code":"","project_name":"\u6a3d\u524d\u5c71\u82eb\u5c0f\u7267\u5ddd\u5916\u5730\u8cea\u8abf\u67fb\u696d\u52d9","survey_name":"\u6a3d\u524d\u5c71\u82eb\u5c0f\u7267\u5ddd\u5916\u5730\u8cea\u8abf\u67fb\u696d\u52d9","client_name":"\u56fd\u571f\u4ea4\u901a\u7701\u5317\u6d77\u9053\u958b\u767a\u5c40\u5ba4\u862d\u958b\u767a\u5efa\u8a2d\u90e8\u672c\u90e8","boring_xml_url":47,"boring_view_url":1,"soilmap_view_url":null,"soiltest_xml_url":47,"soiltest_view_url":47},{"id":573827,"code":"NGIC202204953-0007","latitude":"42.679079166667","longitude":"141.55417055556","source_code":"","project_name":"\u6a3d\u524d\u5c71\u82eb\u5c0f\u7267\u5ddd\u5916\u5730\u8cea\u8abf\u67fb\u696d\u52d9","survey_name":"\u6a3d\u524d\u5c71\u82eb\u5c0f\u7267\u5ddd\u5916\u5730\u8cea\u8abf\u67fb\u696d\u52d9","client_name":"\u56fd\u571f\u4ea4\u901a\u7701\u5317\u6d77\u9053\u958b\u767a\u5c40\u5ba4\u862d\u958b\u767a\u5efa\u8a2d\u90e8\u672c\u90e8","boring_xml_url":47,"boring_view_url":1,"soilmap_view_url":null,"soiltest_xml_url":47,"soiltest_view_url":47},{"id":573826,"code":"NGIC202204953-0006","latitude":"42.679602222222","longitude":"141.5553225","source_code":"","project_name":"\u6a3d\u524d\u5c71\u82eb\u5c0f\u7267\u5ddd\u5916\u5730\u8cea\u8abf\u67fb\u696d\u52d9","survey_name":"\u6a3d\u524d\u5c71\u82eb\u5c0f\u7267\u5ddd\u5916\u5730\u8cea\u8abf\u67fb\u696d\u52d9","client_name":"\u56fd\u571f\u4ea4\u901a\u7701\u5317\u6d77\u9053\u958b\u767a\u5c40\u5ba4\u862d\u958b\u767a\u5efa\u8a2d\u90e8\u672c\u90e8","boring_xml_url":47,"boring_view_url":1,"soilmap_view_url":null,"soiltest_xml_url":47,"soiltest_view_url":47},{"id":573825,"code":"NGIC202204953-0005","latitude":"42.681079166667","longitude":"141.55609972222","source_code":"","project_name":"\u6a3d\u524d\u5c71\u82eb\u5c0f\u7267\u5ddd\u5916\u5730\u8cea\u8abf\u67fb\u696d\u52d9","survey_name":"\u6a3d\u524d\u5c71\u82eb\u5c0f\u7267\u5ddd\u5916\u5730\u8cea\u8abf\u67fb\u696d\u52d9","client_name":"\u56fd\u571f\u4ea4\u901a\u7701\u5317\u6d77\u9053\u958b\u767a\u5c40\u5ba4\u862d\u958b\u767a\u5efa\u8a2d\u90e8\u672c\u90e8","boring_xml_url":47,"boring_view_url":1,"soilmap_view_url":null,"soiltest_xml_url":47,"soiltest_view_url":47},{"id":573824,"code":"NGIC202204953-0004","latitude":"42.681288333333","longitude":"141.55630055556","source_code":"","project_name":"\u6a3d\u524d\u5c71\u82eb\u5c0f\u7267\u5ddd\u5916\u5730\u8cea\u8abf\u67fb\u696d\u52d9","survey_name":"\u6a3d\u524d\u5c71\u82eb\u5c0f\u7267\u5ddd\u5916\u5730\u8cea\u8abf\u67fb\u696d\u52d9","client_name":"\u56fd\u571f\u4ea4\u901a\u7701\u5317\u6d77\u9053\u958b\u767a\u5c40\u5ba4\u862d\u958b\u767a\u5efa\u8a2d\u90e8\u672c\u90e8","boring_xml_url":47,"boring_view_url":1,"soilmap_view_url":null,"soiltest_xml_url":47,"soiltest_view_url":47},{"id":573823,"code":"NGIC202204953-0003","latitude":"42.678650555556","longitude":"141.55375944444","source_code":"","project_name":"\u6a3d\u524d\u5c71\u82eb\u5c0f\u7267\u5ddd\u5916\u5730\u8cea\u8abf\u67fb\u696d\u52d9","survey_name":"\u6a3d\u524d\u5c71\u82eb\u5c0f\u7267\u5ddd\u5916\u5730\u8cea\u8abf\u67fb\u696d\u52d9","client_name":"\u56fd\u571f\u4ea4\u901a\u7701\u5317\u6d77\u9053\u958b\u767a\u5c40\u5ba4\u862d\u958b\u767a\u5efa\u8a2d\u90e8\u672c\u90e8","boring_xml_url":47,"boring_view_url":1,"soilmap_view_url":null,"soiltest_xml_url":47,"soiltest_view_url":47},{"id":573822,"code":"NGIC202204953-0002","latitude":"42.678399444444","longitude":"141.55357388889","source_code":"","project_name":"\u6a3d\u524d\u5c71\u82eb\u5c0f\u7267\u5ddd\u5916\u5730\u8cea\u8abf\u67fb\u696d\u52d9","survey_name":"\u6a3d\u524d\u5c71\u82eb\u5c0f\u7267\u5ddd\u5916\u5730\u8cea\u8abf\u67fb\u696d\u52d9","client_name":"\u56fd\u571f\u4ea4\u901a\u7701\u5317\u6d77\u9053\u958b\u767a\u5c40\u5ba4\u862d\u958b\u767a\u5efa\u8a2d\u90e8\u672c\u90e8","boring_xml_url":47,"boring_view_url":1,"soilmap_view_url":null,"soiltest_xml_url":47,"soiltest_view_url":47},{"id":573821,"code":"NGIC202204953-0001","latitude":"42.679836388889","longitude":"141.55489583333","source_code":"","project_name":"\u6a3d\u524d\u5c71\u82eb\u5c0f\u7267\u5ddd\u5916\u5730\u8cea\u8abf\u67fb\u696d\u52d9","survey_name":"\u6a3d\u524d\u5c71\u82eb\u5c0f\u7267\u5ddd\u5916\u5730\u8cea\u8abf\u67fb\u696d\u52d9","client_name":"\u56fd\u571f\u4ea4\u901a\u7701\u5317\u6d77\u9053\u958b\u767a\u5c40\u5ba4\u862d\u958b\u767a\u5efa\u8a2d\u90e8\u672c\u90e8","boring_xml_url":47,"boring_view_url":1,"soilmap_view_url":null,"soiltest_xml_url":47,"soiltest_view_url":47},{"id":573819,"code":"NGIC202205041-0006","latitude":"42.566566666667","longitude":"141.989125","source_code":"","project_name":"\u4ee4\u548c4\u5e74\u5ea6\u65bd\u884c \u65b0\u9d61\u5ddd\u5730\u533a","survey_name":"\u4ee4\u548c4\u5e74\u5ea6\u65bd\u884c \u65b0\u9d61\u5ddd\u5730\u533a \u5ddd\u6771\u5e79\u7dda\u7528\u6c34\u8def\u4e0b\u6d41\u5de5\u533a\u8a2d\u8a08\u7b49\u696d\u52d9","client_name":"\u56fd\u571f\u4ea4\u901a\u7701\u5317\u6d77\u9053\u958b\u767a\u5c40\u5ba4\u862d\u958b\u767a\u5efa\u8a2d\u90e8\u80c6\u632f\u8fb2\u696d\u4e8b\u52d9\u6240","boring_xml_url":47,"boring_view_url":1,"soilmap_view_url":null,"soiltest_xml_url":0,"soiltest_view_url":0},{"id":573818,"code":"NGIC202205041-0005","latitude":"42.566566666667","longitude":"141.989125","source_code":"","project_name":"\u4ee4\u548c4\u5e74\u5ea6\u65bd\u884c \u65b0\u9d61\u5ddd\u5730\u533a","survey_name":"\u4ee4\u548c4\u5e74\u5ea6\u65bd\u884c \u65b0\u9d61\u5ddd\u5730\u533a \u5ddd\u6771\u5e79\u7dda\u7528\u6c34\u8def\u4e0b\u6d41\u5de5\u533a\u8a2d\u8a08\u7b49\u696d\u52d9","client_name":"\u56fd\u571f\u4ea4\u901a\u7701\u5317\u6d77\u9053\u958b\u767a\u5c40\u5ba4\u862d\u958b\u767a\u5efa\u8a2d\u90e8\u80c6\u632f\u8fb2\u696d\u4e8b\u52d9\u6240","boring_xml_url":47,"boring_view_url":1,"soilmap_view_url":null,"soiltest_xml_url":47,"soiltest_view_url":47},{"id":573817,"code":"NGIC202205041-0004","latitude":"42.564822222222","longitude":"141.99663888889","source_code":"","project_name":"\u4ee4\u548c4\u5e74\u5ea6\u65bd\u884c \u65b0\u9d61\u5ddd\u5730\u533a","survey_name":"\u4ee4\u548c4\u5e74\u5ea6\u65bd\u884c \u65b0\u9d61\u5ddd\u5730\u533a \u5ddd\u6771\u5e79\u7dda\u7528\u6c34\u8def\u4e0b\u6d41\u5de5\u533a\u8a2d\u8a08\u7b49\u696d\u52d9","client_name":"\u56fd\u571f\u4ea4\u901a\u7701\u5317\u6d77\u9053\u958b\u767a\u5c40\u5ba4\u862d\u958b\u767a\u5efa\u8a2d\u90e8\u80c6\u632f\u8fb2\u696d\u4e8b\u52d9\u6240","boring_xml_url":47,"boring_view_url":1,"soilmap_view_url":null,"soiltest_xml_url":0,"soiltest_view_url":0},{"id":573816,"code":"NGIC202205041-0003","latitude":"42.564822222222","longitude":"141.99663888889","source_code":"","project_name":"\u4ee4\u548c4\u5e74\u5ea6\u65bd\u884c \u65b0\u9d61\u5ddd\u5730\u533a","survey_name":"\u4ee4\u548c4\u5e74\u5ea6\u65bd\u884c \u65b0\u9d61\u5ddd\u5730\u533a \u5ddd\u6771\u5e79\u7dda\u7528\u6c34\u8def\u4e0b\u6d41\u5de5\u533a\u8a2d\u8a08\u7b49\u696d\u52d9","client_name":"\u56fd\u571f\u4ea4\u901a\u7701\u5317\u6d77\u9053\u958b\u767a\u5c40\u5ba4\u862d\u958b\u767a\u5efa\u8a2d\u90e8\u80c6\u632f\u8fb2\u696d\u4e8b\u52d9\u6240","boring_xml_url":47,"boring_view_url":1,"soilmap_view_url":null,"soiltest_xml_url":47,"soiltest_view_url":47},{"id":573815,"code":"NGIC202205041-0002","latitude":"42.565019444444","longitude":"142.00263888889","source_code":"","project_name":"\u4ee4\u548c4\u5e74\u5ea6\u65bd\u884c \u65b0\u9d61\u5ddd\u5730\u533a","survey_name":"\u4ee4\u548c4\u5e74\u5ea6\u65bd\u884c \u65b0\u9d61\u5ddd\u5730\u533a \u5ddd\u6771\u5e79\u7dda\u7528\u6c34\u8def\u4e0b\u6d41\u5de5\u533a\u8a2d\u8a08\u7b49\u696d\u52d9","client_name":"\u56fd\u571f\u4ea4\u901a\u7701\u5317\u6d77\u9053\u958b\u767a\u5c40\u5ba4\u862d\u958b\u767a\u5efa\u8a2d\u90e8\u80c6\u632f\u8fb2\u696d\u4e8b\u52d9\u6240","boring_xml_url":47,"boring_view_url":1,"soilmap_view_url":null,"soiltest_xml_url":0,"soiltest_view_url":0},{"id":573814,"code":"NGIC202205041-0001","latitude":"42.565019444444","longitude":"142.00263888889","source_code":"","project_name":"\u4ee4\u548c4\u5e74\u5ea6\u65bd\u884c \u65b0\u9d61\u5ddd\u5730\u533a","survey_name":"\u4ee4\u548c4\u5e74\u5ea6\u65bd\u884c \u65b0\u9d61\u5ddd\u5730\u533a \u5ddd\u6771\u5e79\u7dda\u7528\u6c34\u8def\u4e0b\u6d41\u5de5\u533a\u8a2d\u8a08\u7b49\u696d\u52d9","client_name":"\u56fd\u571f\u4ea4\u901a\u7701\u5317\u6d77\u9053\u958b\u767a\u5c40\u5ba4\u862d\u958b\u767a\u5efa\u8a2d\u90e8\u80c6\u632f\u8fb2\u696d\u4e8b\u52d9\u6240","boring_xml_url":47,"boring_view_url":1,"soilmap_view_url":null,"soiltest_xml_url":47,"soiltest_view_url":47},{"id":573810,"code":"NGIC202205117-0008","latitude":"37.464463888889","longitude":"141.00956111111","source_code":"","project_name":"\u56fd\u90536\u53f7\u53cc\u8449\u5730\u533a\uff08\u51fd\u6e20\u5de5\uff09","survey_name":"\u597d\u9593\u5730\u533a\u5916\u5730\u8cea\u8abf\u67fb\u696d\u52d9","client_name":"\u56fd\u571f\u4ea4\u901a\u7701\u6771\u5317\u5730\u65b9\u6574\u5099\u5c40\u78d0\u57ce\u56fd\u9053\u4e8b\u52d9\u6240","boring_xml_url":47,"boring_view_url":1,"soilmap_view_url":null,"soiltest_xml_url":0,"soiltest_view_url":0},{"id":573809,"code":"NGIC202205117-0007","latitude":"37.469436111111","longitude":"141.00901944444","source_code":"","project_name":"\u56fd\u90536\u53f7\u53cc\u8449\u5730\u533a\uff08\u51fd\u6e20\u5de5\uff09","survey_name":"\u597d\u9593\u5730\u533a\u5916\u5730\u8cea\u8abf\u67fb\u696d\u52d9","client_name":"\u56fd\u571f\u4ea4\u901a\u7701\u6771\u5317\u5730\u65b9\u6574\u5099\u5c40\u78d0\u57ce\u56fd\u9053\u4e8b\u52d9\u6240","boring_xml_url":47,"boring_view_url":1,"soilmap_view_url":null,"soiltest_xml_url":0,"soiltest_view_url":0},{"id":573808,"code":"NGIC202205117-0006","latitude":"37.070575555556","longitude":"140.94990583333","source_code":"","project_name":"\u56fd\u90536\u53f7\u8349\u91ce\u4ea4\u5dee\u70b9\uff08\u8349\u91ce\u6b69\u9053\u6a4b\uff09","survey_name":"\u597d\u9593\u5730\u533a\u5916\u5730\u8cea\u8abf\u67fb\u696d\u52d9","client_name":"\u56fd\u571f\u4ea4\u901a\u7701\u6771\u5317\u5730\u65b9\u6574\u5099\u5c40\u78d0\u57ce\u56fd\u9053\u4e8b\u52d9\u6240","boring_xml_url":47,"boring_view_url":1,"soilmap_view_url":null,"soiltest_xml_url":0,"soiltest_view_url":0},{"id":573807,"code":"NGIC202205117-0005","latitude":"37.070928611111","longitude":"140.94947555556","source_code":"","project_name":"\u56fd\u90536\u53f7\u8349\u91ce\u4ea4\u5dee\u70b9\uff08\u8349\u91ce\u6b69\u9053\u6a4b\uff09","survey_name":"\u597d\u9593\u5730\u533a\u5916\u5730\u8cea\u8abf\u67fb\u696d\u52d9","client_name":"\u56fd\u571f\u4ea4\u901a\u7701\u6771\u5317\u5730\u65b9\u6574\u5099\u5c40\u78d0\u57ce\u56fd\u9053\u4e8b\u52d9\u6240","boring_xml_url":47,"boring_view_url":1,"soilmap_view_url":null,"soiltest_xml_url":0,"soiltest_view_url":0},{"id":573806,"code":"NGIC202205117-0004","latitude":"37.070686111111","longitude":"140.94992277778","source_code":"","project_name":"\u56fd\u90536\u53f7\u8349\u91ce\u4ea4\u5dee\u70b9\uff08\u8349\u91ce\u6b69\u9053\u6a4b\uff09","survey_name":"\u597d\u9593\u5730\u533a\u5916\u5730\u8cea\u8abf\u67fb\u696d\u52d9","client_name":"\u56fd\u571f\u4ea4\u901a\u7701\u6771\u5317\u5730\u65b9\u6574\u5099\u5c40\u78d0\u57ce\u56fd\u9053\u4e8b\u52d9\u6240","boring_xml_url":47,"boring_view_url":1,"soilmap_view_url":null,"soiltest_xml_url":0,"soiltest_view_url":0}]}}