{"header":{"xyz":{"source":[],"mosaic":false},"page":2643,"raw":{"soiltest_result":"0","bbox":"57.598333,109.544722,1.933333,163.806111","page":"2643"},"conditions":{"soiltest_result":0,"north":57.598333,"west":109.544722,"south":1.933333,"east":163.806111},"success":true,"message":""},"data":{"meta":{"total":212844,"page":2643,"pages":7095,"count":30},"values":[{"id":251266,"code":"B4KJ201802001-6746","latitude":"35.15255","longitude":"132.837698","source_code":"CG078735400200340006","project_name":"\u5c3e\u9053\u677e\u6c5f\u7dda\u5730\u8cea\u8abf\u67fb\u696d\u52d9","survey_name":"\u5c3e\u9053\u677e\u6c5f\u7dda\u5730\u8cea\u8abf\u67fb\u696d\u52d9","client_name":"\u56fd\u571f\u4ea4\u901a\u7701\u4e2d\u56fd\u5730\u65b9\u6574\u5099\u5c40 \u677e\u6c5f\u56fd\u9053\u4e8b\u52d9\u6240","boring_xml_url":47,"boring_view_url":1,"soilmap_view_url":null,"soiltest_xml_url":0,"soiltest_view_url":0},{"id":251265,"code":"B4KJ201802001-6745","latitude":"35.152023","longitude":"132.837309","source_code":"CG078735400200340005","project_name":"\u5c3e\u9053\u677e\u6c5f\u7dda\u5730\u8cea\u8abf\u67fb\u696d\u52d9","survey_name":"\u5c3e\u9053\u677e\u6c5f\u7dda\u5730\u8cea\u8abf\u67fb\u696d\u52d9","client_name":"\u56fd\u571f\u4ea4\u901a\u7701\u4e2d\u56fd\u5730\u65b9\u6574\u5099\u5c40 \u677e\u6c5f\u56fd\u9053\u4e8b\u52d9\u6240","boring_xml_url":47,"boring_view_url":1,"soilmap_view_url":null,"soiltest_xml_url":0,"soiltest_view_url":0},{"id":251264,"code":"B4KJ201802001-6744","latitude":"35.151578","longitude":"132.836698","source_code":"CG078735400200340004","project_name":"\u5c3e\u9053\u677e\u6c5f\u7dda\u5730\u8cea\u8abf\u67fb\u696d\u52d9","survey_name":"\u5c3e\u9053\u677e\u6c5f\u7dda\u5730\u8cea\u8abf\u67fb\u696d\u52d9","client_name":"\u56fd\u571f\u4ea4\u901a\u7701\u4e2d\u56fd\u5730\u65b9\u6574\u5099\u5c40 \u677e\u6c5f\u56fd\u9053\u4e8b\u52d9\u6240","boring_xml_url":47,"boring_view_url":1,"soilmap_view_url":null,"soiltest_xml_url":0,"soiltest_view_url":0},{"id":251263,"code":"B4KJ201802001-6743","latitude":"35.151578","longitude":"132.836698","source_code":"CG078735400200340003","project_name":"\u5c3e\u9053\u677e\u6c5f\u7dda\u5730\u8cea\u8abf\u67fb\u696d\u52d9","survey_name":"\u5c3e\u9053\u677e\u6c5f\u7dda\u5730\u8cea\u8abf\u67fb\u696d\u52d9","client_name":"\u56fd\u571f\u4ea4\u901a\u7701\u4e2d\u56fd\u5730\u65b9\u6574\u5099\u5c40 \u677e\u6c5f\u56fd\u9053\u4e8b\u52d9\u6240","boring_xml_url":47,"boring_view_url":1,"soilmap_view_url":null,"soiltest_xml_url":0,"soiltest_view_url":0},{"id":251262,"code":"B4KJ201802001-6742","latitude":"35.141135","longitude":"132.846142","source_code":"CG078735400200340002","project_name":"\u5c3e\u9053\u677e\u6c5f\u7dda\u5730\u8cea\u8abf\u67fb\u696d\u52d9","survey_name":"\u5c3e\u9053\u677e\u6c5f\u7dda\u5730\u8cea\u8abf\u67fb\u696d\u52d9","client_name":"\u56fd\u571f\u4ea4\u901a\u7701\u4e2d\u56fd\u5730\u65b9\u6574\u5099\u5c40 \u677e\u6c5f\u56fd\u9053\u4e8b\u52d9\u6240","boring_xml_url":47,"boring_view_url":1,"soilmap_view_url":null,"soiltest_xml_url":0,"soiltest_view_url":0},{"id":251261,"code":"B4KJ201802001-6741","latitude":"35.140247","longitude":"132.846225","source_code":"CG078735400200340001","project_name":"\u5c3e\u9053\u677e\u6c5f\u7dda\u5730\u8cea\u8abf\u67fb\u696d\u52d9","survey_name":"\u5c3e\u9053\u677e\u6c5f\u7dda\u5730\u8cea\u8abf\u67fb\u696d\u52d9","client_name":"\u56fd\u571f\u4ea4\u901a\u7701\u4e2d\u56fd\u5730\u65b9\u6574\u5099\u5c40 \u677e\u6c5f\u56fd\u9053\u4e8b\u52d9\u6240","boring_xml_url":47,"boring_view_url":1,"soilmap_view_url":null,"soiltest_xml_url":0,"soiltest_view_url":0},{"id":251260,"code":"B4KJ201802001-6740","latitude":"35.075667","longitude":"132.334583","source_code":"CG078735400200350011","project_name":"","survey_name":"\u4ec1\u6469\u5730\u533a\u5916\u5730\u8cea\u8abf\u67fb\u696d\u52d9","client_name":"\u56fd\u571f\u4ea4\u901a\u7701 \u4e2d\u56fd\u5730\u65b9\u6574\u5099\u5c40 \u677e\u6c5f\u56fd\u9053\u4e8b\u52d9\u6240","boring_xml_url":47,"boring_view_url":1,"soilmap_view_url":null,"soiltest_xml_url":0,"soiltest_view_url":0},{"id":251259,"code":"B4KJ201802001-6739","latitude":"35.075722","longitude":"132.334472","source_code":"CG078735400200350010","project_name":"","survey_name":"\u4ec1\u6469\u5730\u533a\u5916\u5730\u8cea\u8abf\u67fb\u696d\u52d9","client_name":"\u56fd\u571f\u4ea4\u901a\u7701 \u4e2d\u56fd\u5730\u65b9\u6574\u5099\u5c40 \u677e\u6c5f\u56fd\u9053\u4e8b\u52d9\u6240","boring_xml_url":47,"boring_view_url":1,"soilmap_view_url":null,"soiltest_xml_url":0,"soiltest_view_url":0},{"id":251258,"code":"B4KJ201802001-6738","latitude":"35.076472","longitude":"132.335167","source_code":"CG078735400200350009","project_name":"","survey_name":"\u4ec1\u6469\u5730\u533a\u5916\u5730\u8cea\u8abf\u67fb\u696d\u52d9","client_name":"\u56fd\u571f\u4ea4\u901a\u7701 \u4e2d\u56fd\u5730\u65b9\u6574\u5099\u5c40 \u677e\u6c5f\u56fd\u9053\u4e8b\u52d9\u6240","boring_xml_url":47,"boring_view_url":1,"soilmap_view_url":null,"soiltest_xml_url":0,"soiltest_view_url":0},{"id":251257,"code":"B4KJ201802001-6737","latitude":"35.0765","longitude":"132.335222","source_code":"CG078735400200350008","project_name":"","survey_name":"\u4ec1\u6469\u5730\u533a\u5916\u5730\u8cea\u8abf\u67fb\u696d\u52d9","client_name":"\u56fd\u571f\u4ea4\u901a\u7701 \u4e2d\u56fd\u5730\u65b9\u6574\u5099\u5c40 \u677e\u6c5f\u56fd\u9053\u4e8b\u52d9\u6240","boring_xml_url":47,"boring_view_url":1,"soilmap_view_url":null,"soiltest_xml_url":0,"soiltest_view_url":0},{"id":251256,"code":"B4KJ201802001-6736","latitude":"35.131944","longitude":"132.393889","source_code":"CG078735400200350007","project_name":"","survey_name":"\u4ec1\u6469\u5730\u533a\u5916\u5730\u8cea\u8abf\u67fb\u696d\u52d9","client_name":"\u56fd\u571f\u4ea4\u901a\u7701 \u4e2d\u56fd\u5730\u65b9\u6574\u5099\u5c40 \u677e\u6c5f\u56fd\u9053\u4e8b\u52d9\u6240","boring_xml_url":47,"boring_view_url":1,"soilmap_view_url":null,"soiltest_xml_url":0,"soiltest_view_url":0},{"id":251255,"code":"B4KJ201802001-6735","latitude":"35.131944","longitude":"132.393833","source_code":"CG078735400200350006","project_name":"","survey_name":"\u4ec1\u6469\u5730\u533a\u5916\u5730\u8cea\u8abf\u67fb\u696d\u52d9","client_name":"\u56fd\u571f\u4ea4\u901a\u7701 \u4e2d\u56fd\u5730\u65b9\u6574\u5099\u5c40 \u677e\u6c5f\u56fd\u9053\u4e8b\u52d9\u6240","boring_xml_url":47,"boring_view_url":1,"soilmap_view_url":null,"soiltest_xml_url":0,"soiltest_view_url":0},{"id":251254,"code":"B4KJ201802001-6734","latitude":"35.131667","longitude":"132.393889","source_code":"CG078735400200350005","project_name":"","survey_name":"\u4ec1\u6469\u5730\u533a\u5916\u5730\u8cea\u8abf\u67fb\u696d\u52d9","client_name":"\u56fd\u571f\u4ea4\u901a\u7701 \u4e2d\u56fd\u5730\u65b9\u6574\u5099\u5c40 \u677e\u6c5f\u56fd\u9053\u4e8b\u52d9\u6240","boring_xml_url":47,"boring_view_url":1,"soilmap_view_url":null,"soiltest_xml_url":0,"soiltest_view_url":0},{"id":251253,"code":"B4KJ201802001-6733","latitude":"35.131667","longitude":"132.394444","source_code":"CG078735400200350004","project_name":"","survey_name":"\u4ec1\u6469\u5730\u533a\u5916\u5730\u8cea\u8abf\u67fb\u696d\u52d9","client_name":"\u56fd\u571f\u4ea4\u901a\u7701 \u4e2d\u56fd\u5730\u65b9\u6574\u5099\u5c40 \u677e\u6c5f\u56fd\u9053\u4e8b\u52d9\u6240","boring_xml_url":47,"boring_view_url":1,"soilmap_view_url":null,"soiltest_xml_url":0,"soiltest_view_url":0},{"id":251252,"code":"B4KJ201802001-6732","latitude":"35.124667","longitude":"132.3925","source_code":"CG078735400200350003","project_name":"","survey_name":"\u4ec1\u6469\u5730\u533a\u5916\u5730\u8cea\u8abf\u67fb\u696d\u52d9","client_name":"\u56fd\u571f\u4ea4\u901a\u7701 \u4e2d\u56fd\u5730\u65b9\u6574\u5099\u5c40 \u677e\u6c5f\u56fd\u9053\u4e8b\u52d9\u6240","boring_xml_url":47,"boring_view_url":1,"soilmap_view_url":null,"soiltest_xml_url":0,"soiltest_view_url":0},{"id":251251,"code":"B4KJ201802001-6731","latitude":"35.124222","longitude":"132.391694","source_code":"CG078735400200350002","project_name":"","survey_name":"\u4ec1\u6469\u5730\u533a\u5916\u5730\u8cea\u8abf\u67fb\u696d\u52d9","client_name":"\u56fd\u571f\u4ea4\u901a\u7701 \u4e2d\u56fd\u5730\u65b9\u6574\u5099\u5c40 \u677e\u6c5f\u56fd\u9053\u4e8b\u52d9\u6240","boring_xml_url":47,"boring_view_url":1,"soilmap_view_url":null,"soiltest_xml_url":0,"soiltest_view_url":0},{"id":251250,"code":"B4KJ201802001-6730","latitude":"35.124028","longitude":"132.39225","source_code":"CG078735400200350001","project_name":"","survey_name":"\u4ec1\u6469\u5730\u533a\u5916\u5730\u8cea\u8abf\u67fb\u696d\u52d9","client_name":"\u56fd\u571f\u4ea4\u901a\u7701 \u4e2d\u56fd\u5730\u65b9\u6574\u5099\u5c40 \u677e\u6c5f\u56fd\u9053\u4e8b\u52d9\u6240","boring_xml_url":47,"boring_view_url":1,"soilmap_view_url":null,"soiltest_xml_url":0,"soiltest_view_url":0},{"id":251249,"code":"B4KJ201802001-6729","latitude":"34.463","longitude":"131.776833","source_code":"CG078737530200260008","project_name":"","survey_name":"\u6d5c\u7530\u7ba1\u5185\u5730\u8cea\u8abf\u67fb\u696d\u52d9","client_name":"\u56fd\u571f\u4ea4\u901a\u7701\u4e2d\u56fd\u5730\u65b9\u6574\u5099\u5c40\u6d5c\u7530\u6cb3\u5ddd\u56fd\u9053\u4e8b\u52d9\u6240","boring_xml_url":47,"boring_view_url":1,"soilmap_view_url":null,"soiltest_xml_url":0,"soiltest_view_url":0},{"id":251248,"code":"B4KJ201802001-6728","latitude":"34.469278","longitude":"131.778667","source_code":"CG078737530200260007","project_name":"","survey_name":"\u6d5c\u7530\u7ba1\u5185\u5730\u8cea\u8abf\u67fb\u696d\u52d9","client_name":"\u56fd\u571f\u4ea4\u901a\u7701\u4e2d\u56fd\u5730\u65b9\u6574\u5099\u5c40\u6d5c\u7530\u6cb3\u5ddd\u56fd\u9053\u4e8b\u52d9\u6240","boring_xml_url":47,"boring_view_url":1,"soilmap_view_url":null,"soiltest_xml_url":0,"soiltest_view_url":0},{"id":251247,"code":"B4KJ201802001-6727","latitude":"34.470056","longitude":"131.778278","source_code":"CG078737530200260006","project_name":"","survey_name":"\u6d5c\u7530\u7ba1\u5185\u5730\u8cea\u8abf\u67fb\u696d\u52d9","client_name":"\u56fd\u571f\u4ea4\u901a\u7701\u4e2d\u56fd\u5730\u65b9\u6574\u5099\u5c40\u6d5c\u7530\u6cb3\u5ddd\u56fd\u9053\u4e8b\u52d9\u6240","boring_xml_url":47,"boring_view_url":1,"soilmap_view_url":null,"soiltest_xml_url":0,"soiltest_view_url":0},{"id":251246,"code":"B4KJ201802001-6726","latitude":"34.666111","longitude":"131.820778","source_code":"CG078737530200260005","project_name":"","survey_name":"\u6d5c\u7530\u7ba1\u5185\u5730\u8cea\u8abf\u67fb\u696d\u52d9","client_name":"\u56fd\u571f\u4ea4\u901a\u7701\u4e2d\u56fd\u5730\u65b9\u6574\u5099\u5c40\u6d5c\u7530\u6cb3\u5ddd\u56fd\u9053\u4e8b\u52d9\u6240","boring_xml_url":47,"boring_view_url":1,"soilmap_view_url":null,"soiltest_xml_url":0,"soiltest_view_url":0},{"id":251245,"code":"B4KJ201802001-6725","latitude":"34.692222","longitude":"131.857528","source_code":"CG078737530200260004","project_name":"","survey_name":"\u6d5c\u7530\u7ba1\u5185\u5730\u8cea\u8abf\u67fb\u696d\u52d9","client_name":"\u56fd\u571f\u4ea4\u901a\u7701\u4e2d\u56fd\u5730\u65b9\u6574\u5099\u5c40\u6d5c\u7530\u6cb3\u5ddd\u56fd\u9053\u4e8b\u52d9\u6240","boring_xml_url":47,"boring_view_url":1,"soilmap_view_url":null,"soiltest_xml_url":50,"soiltest_view_url":49},{"id":251244,"code":"B4KJ201802001-6724","latitude":"34.8505","longitude":"132.011056","source_code":"CG078737530200260003","project_name":"","survey_name":"\u6d5c\u7530\u7ba1\u5185\u5730\u8cea\u8abf\u67fb\u696d\u52d9","client_name":"\u56fd\u571f\u4ea4\u901a\u7701\u4e2d\u56fd\u5730\u65b9\u6574\u5099\u5c40\u6d5c\u7530\u6cb3\u5ddd\u56fd\u9053\u4e8b\u52d9\u6240","boring_xml_url":47,"boring_view_url":1,"soilmap_view_url":null,"soiltest_xml_url":0,"soiltest_view_url":0},{"id":251243,"code":"B4KJ201802001-6723","latitude":"34.975111","longitude":"132.164944","source_code":"CG078737530200260002","project_name":"","survey_name":"\u6d5c\u7530\u7ba1\u5185\u5730\u8cea\u8abf\u67fb\u696d\u52d9","client_name":"\u56fd\u571f\u4ea4\u901a\u7701\u4e2d\u56fd\u5730\u65b9\u6574\u5099\u5c40\u6d5c\u7530\u6cb3\u5ddd\u56fd\u9053\u4e8b\u52d9\u6240","boring_xml_url":47,"boring_view_url":1,"soilmap_view_url":null,"soiltest_xml_url":0,"soiltest_view_url":0},{"id":251242,"code":"B4KJ201802001-6722","latitude":"35.045139","longitude":"132.298889","source_code":"CG078737530200260001","project_name":"","survey_name":"\u6d5c\u7530\u7ba1\u5185\u5730\u8cea\u8abf\u67fb\u696d\u52d9","client_name":"\u56fd\u571f\u4ea4\u901a\u7701\u4e2d\u56fd\u5730\u65b9\u6574\u5099\u5c40\u6d5c\u7530\u6cb3\u5ddd\u56fd\u9053\u4e8b\u52d9\u6240","boring_xml_url":47,"boring_view_url":1,"soilmap_view_url":null,"soiltest_xml_url":0,"soiltest_view_url":0},{"id":251241,"code":"B4KJ201802001-6721","latitude":"34.576222","longitude":"133.70075","source_code":"CG068742400200370008","project_name":"\u6e2c\u70b9No.196k+548.9 R-4.5 X=-157748.604 Y=-58031.132","survey_name":"\u56fd\u90532\u53f7\u8239\u7a42\u5730\u533a\u5730\u8cea\u8abf\u67fb\u696d\u52d9","client_name":"\u56fd\u571f\u4ea4\u901a\u7701 \u4e2d\u56fd\u5730\u65b9\u6574\u5099\u5c40 \u5ca1\u5c71\u56fd\u9053\u4e8b\u52d9\u6240","boring_xml_url":47,"boring_view_url":1,"soilmap_view_url":null,"soiltest_xml_url":0,"soiltest_view_url":0},{"id":251240,"code":"B4KJ201802001-6720","latitude":"34.576722","longitude":"133.701306","source_code":"CG068742400200370007","project_name":"\u6e2c\u70b9No.196k+472.9 R-4.5 X=157693.304 Y=-57979.049","survey_name":"\u56fd\u90532\u53f7\u8239\u7a42\u5730\u533a\u5730\u8cea\u8abf\u67fb\u696d\u52d9","client_name":"\u56fd\u571f\u4ea4\u901a\u7701 \u4e2d\u56fd\u5730\u65b9\u6574\u5099\u5c40 \u5ca1\u5c71\u56fd\u9053\u4e8b\u52d9\u6240","boring_xml_url":47,"boring_view_url":1,"soilmap_view_url":null,"soiltest_xml_url":0,"soiltest_view_url":0},{"id":251239,"code":"B4KJ201802001-6719","latitude":"34.577056","longitude":"133.701694","source_code":"CG068742400200370006","project_name":"\u6e2c\u70b9No.196k+422.0 R-4.5 X-157656.289 Y-57944.079","survey_name":"\u56fd\u90532\u53f7\u8239\u7a42\u5730\u533a\u5730\u8cea\u8abf\u67fb\u696d\u52d9","client_name":"\u56fd\u571f\u4ea4\u901a\u7701 \u4e2d\u56fd\u5730\u65b9\u6574\u5099\u5c40 \u5ca1\u5c71\u56fd\u9053\u4e8b\u52d9\u6240","boring_xml_url":47,"boring_view_url":1,"soilmap_view_url":null,"soiltest_xml_url":0,"soiltest_view_url":0},{"id":251238,"code":"B4KJ201802001-6718","latitude":"34.577472","longitude":"133.702167","source_code":"CG068742400200370005","project_name":"\u6e2c\u70b9No.196k+356.9 R-4.5 X=-157608.830 Y=-57899.418","survey_name":"\u56fd\u90532\u53f7\u8239\u7a42\u5730\u533a\u5730\u8cea\u8abf\u67fb\u696d\u52d9","client_name":"\u56fd\u571f\u4ea4\u901a\u7701 \u4e2d\u56fd\u5730\u65b9\u6574\u5099\u5c40 \u5ca1\u5c71\u56fd\u9053\u4e8b\u52d9\u6240","boring_xml_url":47,"boring_view_url":1,"soilmap_view_url":null,"soiltest_xml_url":0,"soiltest_view_url":0},{"id":251237,"code":"B4KJ201802001-6717","latitude":"34.578028","longitude":"133.702833","source_code":"CG068742400200370004","project_name":"\u6e2c\u70b9No.196k+272.6 R-4.5 X=157549.157 Y=-57839.435","survey_name":"\u56fd\u90532\u53f7\u8239\u7a42\u5730\u533a\u5730\u8cea\u8abf\u67fb\u696d\u52d9","client_name":"\u56fd\u571f\u4ea4\u901a\u7701 \u4e2d\u56fd\u5730\u65b9\u6574\u5099\u5c40 \u5ca1\u5c71\u56fd\u9053\u4e8b\u52d9\u6240","boring_xml_url":47,"boring_view_url":1,"soilmap_view_url":null,"soiltest_xml_url":0,"soiltest_view_url":0}]}}