{"header":{"xyz":{"source":[],"mosaic":false},"page":2645,"raw":{"soiltest_result":"0","bbox":"57.598333,109.544722,1.933333,163.806111","page":"2645"},"conditions":{"soiltest_result":0,"north":57.598333,"west":109.544722,"south":1.933333,"east":163.806111},"success":true,"message":""},"data":{"meta":{"total":212844,"page":2645,"pages":7095,"count":30},"values":[{"id":251206,"code":"B4KJ201802001-6686","latitude":"34.859472","longitude":"132.054194","source_code":"CG068737600200200009","project_name":"\u6d5c\u7530\u30fb\u4e09\u9685\u9053\u8def\u5730\u8cea\u8abf\u67fb\u696d\u52d9","survey_name":"\u6d5c\u7530\u30fb\u4e09\u9685\u9053\u8def\u5730\u8cea\u8abf\u67fb\u696d\u52d9","client_name":"\u56fd\u571f\u4ea4\u901a\u7701\u4e2d\u56fd\u5730\u65b9\u6574\u5099\u5c40\u6d5c\u7530\u6cb3\u5ddd\u56fd\u9053\u4e8b\u52d9\u6240","boring_xml_url":47,"boring_view_url":1,"soilmap_view_url":null,"soiltest_xml_url":50,"soiltest_view_url":49},{"id":251205,"code":"B4KJ201802001-6685","latitude":"34.859389","longitude":"132.052194","source_code":"CG068737600200200008","project_name":"\u6d5c\u7530\u30fb\u4e09\u9685\u9053\u8def\u5730\u8cea\u8abf\u67fb\u696d\u52d9","survey_name":"\u6d5c\u7530\u30fb\u4e09\u9685\u9053\u8def\u5730\u8cea\u8abf\u67fb\u696d\u52d9","client_name":"\u56fd\u571f\u4ea4\u901a\u7701\u4e2d\u56fd\u5730\u65b9\u6574\u5099\u5c40\u6d5c\u7530\u6cb3\u5ddd\u56fd\u9053\u4e8b\u52d9\u6240","boring_xml_url":47,"boring_view_url":1,"soilmap_view_url":null,"soiltest_xml_url":0,"soiltest_view_url":0},{"id":251204,"code":"B4KJ201802001-6684","latitude":"34.859556","longitude":"132.052556","source_code":"CG068737600200200007","project_name":"\u6d5c\u7530\u30fb\u4e09\u9685\u9053\u8def\u5730\u8cea\u8abf\u67fb\u696d\u52d9","survey_name":"\u6d5c\u7530\u30fb\u4e09\u9685\u9053\u8def\u5730\u8cea\u8abf\u67fb\u696d\u52d9","client_name":"\u56fd\u571f\u4ea4\u901a\u7701\u4e2d\u56fd\u5730\u65b9\u6574\u5099\u5c40\u6d5c\u7530\u6cb3\u5ddd\u56fd\u9053\u4e8b\u52d9\u6240","boring_xml_url":47,"boring_view_url":1,"soilmap_view_url":null,"soiltest_xml_url":0,"soiltest_view_url":0},{"id":251203,"code":"B4KJ201802001-6683","latitude":"34.859833","longitude":"132.053333","source_code":"CG068737600200200006","project_name":"\u6d5c\u7530\u30fb\u4e09\u9685\u9053\u8def\u5730\u8cea\u8abf\u67fb\u696d\u52d9","survey_name":"\u6d5c\u7530\u30fb\u4e09\u9685\u9053\u8def\u5730\u8cea\u8abf\u67fb\u696d\u52d9","client_name":"\u56fd\u571f\u4ea4\u901a\u7701\u4e2d\u56fd\u5730\u65b9\u6574\u5099\u5c40\u6d5c\u7530\u6cb3\u5ddd\u56fd\u9053\u4e8b\u52d9\u6240","boring_xml_url":47,"boring_view_url":1,"soilmap_view_url":null,"soiltest_xml_url":0,"soiltest_view_url":0},{"id":251202,"code":"B4KJ201802001-6682","latitude":"34.860333","longitude":"132.054083","source_code":"CG068737600200200005","project_name":"\u6d5c\u7530\u30fb\u4e09\u9685\u9053\u8def\u5730\u8cea\u8abf\u67fb\u696d\u52d9","survey_name":"\u6d5c\u7530\u30fb\u4e09\u9685\u9053\u8def\u5730\u8cea\u8abf\u67fb\u696d\u52d9","client_name":"\u56fd\u571f\u4ea4\u901a\u7701\u4e2d\u56fd\u5730\u65b9\u6574\u5099\u5c40\u6d5c\u7530\u6cb3\u5ddd\u56fd\u9053\u4e8b\u52d9\u6240","boring_xml_url":47,"boring_view_url":1,"soilmap_view_url":null,"soiltest_xml_url":0,"soiltest_view_url":0},{"id":251201,"code":"B4KJ201802001-6681","latitude":"34.8605","longitude":"132.054194","source_code":"CG068737600200200004","project_name":"\u6d5c\u7530\u30fb\u4e09\u9685\u9053\u8def\u5730\u8cea\u8abf\u67fb\u696d\u52d9","survey_name":"\u6d5c\u7530\u30fb\u4e09\u9685\u9053\u8def\u5730\u8cea\u8abf\u67fb\u696d\u52d9","client_name":"\u56fd\u571f\u4ea4\u901a\u7701\u4e2d\u56fd\u5730\u65b9\u6574\u5099\u5c40\u6d5c\u7530\u6cb3\u5ddd\u56fd\u9053\u4e8b\u52d9\u6240","boring_xml_url":47,"boring_view_url":1,"soilmap_view_url":null,"soiltest_xml_url":0,"soiltest_view_url":0},{"id":251200,"code":"B4KJ201802001-6680","latitude":"34.8605","longitude":"132.054194","source_code":"CG068737600200200003","project_name":"\u6d5c\u7530\u30fb\u4e09\u9685\u9053\u8def\u5730\u8cea\u8abf\u67fb\u696d\u52d9","survey_name":"\u6d5c\u7530\u30fb\u4e09\u9685\u9053\u8def\u5730\u8cea\u8abf\u67fb\u696d\u52d9","client_name":"\u56fd\u571f\u4ea4\u901a\u7701\u4e2d\u56fd\u5730\u65b9\u6574\u5099\u5c40\u6d5c\u7530\u6cb3\u5ddd\u56fd\u9053\u4e8b\u52d9\u6240","boring_xml_url":47,"boring_view_url":1,"soilmap_view_url":null,"soiltest_xml_url":0,"soiltest_view_url":0},{"id":251199,"code":"B4KJ201802001-6679","latitude":"34.860528","longitude":"132.054361","source_code":"CG068737600200200002","project_name":"\u6d5c\u7530\u30fb\u4e09\u9685\u9053\u8def\u5730\u8cea\u8abf\u67fb\u696d\u52d9","survey_name":"\u6d5c\u7530\u30fb\u4e09\u9685\u9053\u8def\u5730\u8cea\u8abf\u67fb\u696d\u52d9","client_name":"\u56fd\u571f\u4ea4\u901a\u7701\u4e2d\u56fd\u5730\u65b9\u6574\u5099\u5c40\u6d5c\u7530\u6cb3\u5ddd\u56fd\u9053\u4e8b\u52d9\u6240","boring_xml_url":47,"boring_view_url":1,"soilmap_view_url":null,"soiltest_xml_url":0,"soiltest_view_url":0},{"id":251198,"code":"B4KJ201802001-6678","latitude":"34.860528","longitude":"132.054361","source_code":"CG068737600200200001","project_name":"\u6d5c\u7530\u30fb\u4e09\u9685\u9053\u8def\u5730\u8cea\u8abf\u67fb\u696d\u52d9","survey_name":"\u6d5c\u7530\u30fb\u4e09\u9685\u9053\u8def\u5730\u8cea\u8abf\u67fb\u696d\u52d9","client_name":"\u56fd\u571f\u4ea4\u901a\u7701\u4e2d\u56fd\u5730\u65b9\u6574\u5099\u5c40\u6d5c\u7530\u6cb3\u5ddd\u56fd\u9053\u4e8b\u52d9\u6240","boring_xml_url":47,"boring_view_url":1,"soilmap_view_url":null,"soiltest_xml_url":0,"soiltest_view_url":0},{"id":251197,"code":"B4KJ201802001-6677","latitude":"34.686389","longitude":"133.779444","source_code":"CG068742400200160005","project_name":"","survey_name":"\u7dcf\u793e\u30d0\u30a4\u30d1\u30b9\u5730\u8cea\u8abf\u67fb\u696d\u52d9","client_name":"\u56fd\u571f\u4ea4\u901a\u7701\u5ca1\u5c71\u56fd\u9053\u4e8b\u52d9\u6240","boring_xml_url":47,"boring_view_url":1,"soilmap_view_url":null,"soiltest_xml_url":50,"soiltest_view_url":49},{"id":251196,"code":"B4KJ201802001-6676","latitude":"34.686667","longitude":"133.779444","source_code":"CG068742400200160004","project_name":"","survey_name":"\u7dcf\u793e\u30d0\u30a4\u30d1\u30b9\u5730\u8cea\u8abf\u67fb\u696d\u52d9","client_name":"\u56fd\u571f\u4ea4\u901a\u7701\u5ca1\u5c71\u56fd\u9053\u4e8b\u52d9\u6240","boring_xml_url":47,"boring_view_url":1,"soilmap_view_url":null,"soiltest_xml_url":50,"soiltest_view_url":49},{"id":251195,"code":"B4KJ201802001-6675","latitude":"34.685556","longitude":"133.785278","source_code":"CG068742400200160003","project_name":"","survey_name":"\u7dcf\u793e\u30d0\u30a4\u30d1\u30b9\u5730\u8cea\u8abf\u67fb\u696d\u52d9","client_name":"\u56fd\u571f\u4ea4\u901a\u7701\u5ca1\u5c71\u56fd\u9053\u4e8b\u52d9\u6240","boring_xml_url":47,"boring_view_url":1,"soilmap_view_url":null,"soiltest_xml_url":50,"soiltest_view_url":49},{"id":251194,"code":"B4KJ201802001-6674","latitude":"34.685556","longitude":"133.785833","source_code":"CG068742400200160002","project_name":"","survey_name":"\u7dcf\u793e\u30d0\u30a4\u30d1\u30b9\u5730\u8cea\u8abf\u67fb\u696d\u52d9","client_name":"\u56fd\u571f\u4ea4\u901a\u7701\u5ca1\u5c71\u56fd\u9053\u4e8b\u52d9\u6240","boring_xml_url":47,"boring_view_url":1,"soilmap_view_url":null,"soiltest_xml_url":50,"soiltest_view_url":49},{"id":251193,"code":"B4KJ201802001-6673","latitude":"34.685278","longitude":"133.785278","source_code":"CG068742400200160001","project_name":"","survey_name":"\u7dcf\u793e\u30d0\u30a4\u30d1\u30b9\u5730\u8cea\u8abf\u67fb\u696d\u52d9","client_name":"\u56fd\u571f\u4ea4\u901a\u7701\u5ca1\u5c71\u56fd\u9053\u4e8b\u52d9\u6240","boring_xml_url":47,"boring_view_url":1,"soilmap_view_url":null,"soiltest_xml_url":50,"soiltest_view_url":49},{"id":251192,"code":"B4KJ201802001-6672","latitude":"34.538333","longitude":"133.64","source_code":"CG068742400200200002","project_name":"\u5510\u8239\u4ea4\u5dee\u70b9","survey_name":"\u7b20\u5ca1\u30d0\u30a4\u30d1\u30b9\u81e8\u6e2f\u9053\u8def\u5730\u8cea\u8abf\u67fb\u696d\u52d9","client_name":"\u56fd\u571f\u4ea4\u901a\u7701\u4e2d\u56fd\u5730\u65b9\u6574\u5099\u5c40\u5ca1\u5c71\u56fd\u9053\u4e8b\u52d9\u6240\u516c\u52d9\u8ab2","boring_xml_url":47,"boring_view_url":1,"soilmap_view_url":null,"soiltest_xml_url":50,"soiltest_view_url":49},{"id":251191,"code":"B4KJ201802001-6671","latitude":"34.478611","longitude":"133.473056","source_code":"CG068742400200200001","project_name":"\u81e8\u6e2f\u9053\u8def","survey_name":"\u7b20\u5ca1\u30d0\u30a4\u30d1\u30b9\u81e8\u6e2f\u9053\u8def\u5730\u8cea\u8abf\u67fb\u696d\u52d9","client_name":"\u56fd\u571f\u4ea4\u901a\u7701\u4e2d\u56fd\u5730\u65b9\u6574\u5099\u5c40\u5ca1\u5c71\u56fd\u9053\u4e8b\u52d9\u6240\u5de5\u52d9\u8ab2","boring_xml_url":47,"boring_view_url":1,"soilmap_view_url":null,"soiltest_xml_url":50,"soiltest_view_url":49},{"id":251190,"code":"B4KJ201802001-6670","latitude":"35.424111","longitude":"132.975639","source_code":"CG078735510200040003","project_name":"","survey_name":"\u677e\u6c5f\u4ea4\u5b89\u8a2d\u8a08\u696d\u52d9","client_name":"\u56fd\u571f\u4ea4\u901a\u7701\u4e2d\u56fd\u5730\u65b9\u6574\u5099\u5c40\u677e\u6c5f\u56fd\u9053\u4e8b\u52d9\u6240","boring_xml_url":47,"boring_view_url":1,"soilmap_view_url":null,"soiltest_xml_url":0,"soiltest_view_url":0},{"id":251189,"code":"B4KJ201802001-6669","latitude":"35.425472","longitude":"132.978083","source_code":"CG078735510200040002","project_name":"","survey_name":"\u677e\u6c5f\u4ea4\u5b89\u8a2d\u8a08\u696d\u52d9","client_name":"\u56fd\u571f\u4ea4\u901a\u7701\u4e2d\u56fd\u5730\u65b9\u6574\u5099\u5c40\u677e\u6c5f\u56fd\u9053\u4e8b\u52d9\u6240","boring_xml_url":47,"boring_view_url":1,"soilmap_view_url":null,"soiltest_xml_url":0,"soiltest_view_url":0},{"id":251188,"code":"B4KJ201802001-6668","latitude":"35.426083","longitude":"132.980083","source_code":"CG078735510200040001","project_name":"","survey_name":"\u677e\u6c5f\u4ea4\u5b89\u8a2d\u8a08\u696d\u52d9","client_name":"\u56fd\u571f\u4ea4\u901a\u7701\u4e2d\u56fd\u5730\u65b9\u6574\u5099\u5c40\u677e\u6c5f\u56fd\u9053\u4e8b\u52d9\u6240","boring_xml_url":47,"boring_view_url":1,"soilmap_view_url":null,"soiltest_xml_url":0,"soiltest_view_url":0},{"id":251187,"code":"B4KJ201802001-6667","latitude":"35.3825","longitude":"132.80375","source_code":"CG068735510200040003","project_name":"\u51fa\u96f2\u4ea4\u5b89\u8a2d\u8a08\u696d\u52d9","survey_name":"\u51fa\u96f2\u4ea4\u5b89\u8a2d\u8a08\u696d\u52d9","client_name":"\u56fd\u571f\u4ea4\u901a\u7701\u4e2d\u56fd\u5730\u65b9\u6574\u5099\u5c40\u677e\u6c5f\u56fd\u9053\u4e8b\u52d9\u6240","boring_xml_url":47,"boring_view_url":1,"soilmap_view_url":null,"soiltest_xml_url":0,"soiltest_view_url":0},{"id":251186,"code":"B4KJ201802001-6666","latitude":"35.3825","longitude":"132.803528","source_code":"CG068735510200040002","project_name":"\u51fa\u96f2\u4ea4\u5b89\u8a2d\u8a08\u696d\u52d9","survey_name":"\u51fa\u96f2\u4ea4\u5b89\u8a2d\u8a08\u696d\u52d9","client_name":"\u56fd\u571f\u4ea4\u901a\u7701\u4e2d\u56fd\u5730\u65b9\u6574\u5099\u5c40 \u677e\u6c5f\u56fd\u9053\u4e8b\u52d9\u6240","boring_xml_url":47,"boring_view_url":1,"soilmap_view_url":null,"soiltest_xml_url":0,"soiltest_view_url":0},{"id":251185,"code":"B4KJ201802001-6665","latitude":"35.382667","longitude":"132.803667","source_code":"CG068735510200040001","project_name":"\u51fa\u96f2\u4ea4\u5b89\u8a2d\u8a08\u696d\u52d9","survey_name":"\u51fa\u96f2\u4ea4\u5b89\u8a2d\u8a08\u696d\u52d9","client_name":"\u56fd\u571f\u4ea4\u901a\u7701\u4e2d\u56fd\u5730\u65b9\u6574\u5099\u5c40 \u677e\u6c5f\u56fd\u9053\u4e8b\u52d9\u6240","boring_xml_url":47,"boring_view_url":1,"soilmap_view_url":null,"soiltest_xml_url":0,"soiltest_view_url":0},{"id":251184,"code":"B4KJ201802001-6664","latitude":"35.210194","longitude":"132.816528","source_code":"CG068735510200050002","project_name":"","survey_name":"\u9813\u539f\u4ea4\u5b89\u8a2d\u8a08\u696d\u52d9","client_name":"\u677e\u6c5f\u56fd\u9053\u4e8b\u52d9\u6240","boring_xml_url":47,"boring_view_url":1,"soilmap_view_url":null,"soiltest_xml_url":0,"soiltest_view_url":0},{"id":251183,"code":"B4KJ201802001-6663","latitude":"34.986639","longitude":"132.77375","source_code":"CG068735510200050001","project_name":"","survey_name":"\u9813\u539f\u4ea4\u5b89\u8a2d\u8a08\u696d\u52d9","client_name":"\u4e2d\u56fd\u5730\u65b9\u6574\u5099\u5c40\u677e\u6c5f\u56fd\u9053\u4e8b\u52d9\u6240","boring_xml_url":47,"boring_view_url":1,"soilmap_view_url":null,"soiltest_xml_url":0,"soiltest_view_url":0},{"id":251182,"code":"B4KJ201802001-6662","latitude":"35.174528","longitude":"132.828139","source_code":"CG068735400200510004","project_name":"","survey_name":"\u5c3e\u9053\u30fb\u677e\u6c5f\u81ea\u52d5\u8eca\u9053\u5ddd\u5c3b\u9ad8\u67b6\u6a4b\u8a73\u7d30\u8a2d\u8a08\u696d\u52d9","client_name":"\u56fd\u571f\u4ea4\u901a\u7701 \u4e2d\u56fd\u5730\u65b9\u6574\u5099\u5c40 \u677e\u6c5f\u56fd\u9053\u4e8b\u52d9\u6240","boring_xml_url":47,"boring_view_url":1,"soilmap_view_url":null,"soiltest_xml_url":0,"soiltest_view_url":0},{"id":251181,"code":"B4KJ201802001-6661","latitude":"35.174222","longitude":"132.828056","source_code":"CG068735400200510003","project_name":"","survey_name":"\u5c3e\u9053\u30fb\u677e\u6c5f\u81ea\u52d5\u8eca\u9053\u5ddd\u5c3b\u9ad8\u67b6\u6a4b\u8a73\u7d30\u8a2d\u8a08\u696d\u52d9","client_name":"\u56fd\u571f\u4ea4\u901a\u7701 \u4e2d\u56fd\u5730\u65b9\u6574\u5099\u5c40 \u677e\u6c5f\u56fd\u9053\u4e8b\u52d9\u6240","boring_xml_url":47,"boring_view_url":1,"soilmap_view_url":null,"soiltest_xml_url":0,"soiltest_view_url":0},{"id":251180,"code":"B4KJ201802001-6660","latitude":"35.173917","longitude":"132.827972","source_code":"CG068735400200510002","project_name":"","survey_name":"\u5c3e\u9053\u30fb\u677e\u6c5f\u81ea\u52d5\u8eca\u9053\u5ddd\u5c3b\u9ad8\u67b6\u6a4b\u8a73\u7d30\u8a2d\u8a08\u696d\u52d9","client_name":"\u56fd\u571f\u4ea4\u901a\u7701 \u4e2d\u56fd\u5730\u65b9\u6574\u5099\u5c40 \u677e\u6c5f\u56fd\u9053\u4e8b\u52d9\u6240","boring_xml_url":47,"boring_view_url":1,"soilmap_view_url":null,"soiltest_xml_url":0,"soiltest_view_url":0},{"id":251179,"code":"B4KJ201802001-6659","latitude":"35.173583","longitude":"132.827917","source_code":"CG068735400200510001","project_name":"","survey_name":"\u5c3e\u9053\u30fb\u677e\u6c5f\u81ea\u52d5\u8eca\u9053\u5ddd\u5c3b\u9ad8\u67b6\u6a4b\u8a73\u7d30\u8a2d\u8a08\u696d\u52d9","client_name":"\u56fd\u571f\u4ea4\u901a\u7701 \u4e2d\u56fd\u5730\u65b9\u6574\u5099\u5c40 \u677e\u6c5f\u56fd\u9053\u4e8b\u52d9\u6240","boring_xml_url":47,"boring_view_url":1,"soilmap_view_url":null,"soiltest_xml_url":0,"soiltest_view_url":0},{"id":251178,"code":"B4KJ201802001-6658","latitude":"35.276784","longitude":"132.891189","source_code":"CG078735400101020002","project_name":"\u5c3e\u9053\u30fb\u677e\u6c5f\u81ea\u52d5\u8eca\u9053\u6b63\u7406\u5ddd\u6a4b\u4e0b\u90e8\u5de5\u4e8b\u5730\u8cea\u8abf\u67fb","survey_name":"\u5c3e\u9053\u30fb\u677e\u6c5f\u81ea\u52d5\u8eca\u9053\u6b63\u7406\u5ddd\u6a4b\u4e0b\u90e8\u5de5\u4e8b\u5730\u8cea\u8abf\u67fb","client_name":"\u56fd\u571f\u4ea4\u901a\u7701 \u677e\u6c5f\u56fd\u9053\u4e8b\u52d9\u6240","boring_xml_url":47,"boring_view_url":1,"soilmap_view_url":null,"soiltest_xml_url":0,"soiltest_view_url":0},{"id":251177,"code":"B4KJ201802001-6657","latitude":"35.276757","longitude":"132.891273","source_code":"CG078735400101020001","project_name":"\u5c3e\u9053\u30fb\u677e\u6c5f\u81ea\u52d5\u8eca\u9053\u6b63\u7406\u5ddd\u6a4b\u4e0b\u90e8\u5de5\u4e8b\u5730\u8cea\u8abf\u67fb","survey_name":"\u5c3e\u9053\u30fb\u677e\u6c5f\u81ea\u52d5\u8eca\u9053\u6b63\u7406\u5ddd\u6a4b\u4e0b\u90e8\u5de5\u4e8b\u5730\u8cea\u8abf\u67fb","client_name":"\u56fd\u571f\u4ea4\u901a\u7701 \u677e\u6c5f\u56fd\u9053\u4e8b\u52d9\u6240","boring_xml_url":47,"boring_view_url":1,"soilmap_view_url":null,"soiltest_xml_url":0,"soiltest_view_url":0}]}}