{"header":{"xyz":{"source":[],"mosaic":false},"page":2646,"raw":{"soiltest_result":"0","bbox":"57.598333,109.544722,1.933333,163.806111","page":"2646"},"conditions":{"soiltest_result":0,"north":57.598333,"west":109.544722,"south":1.933333,"east":163.806111},"success":true,"message":""},"data":{"meta":{"total":212844,"page":2646,"pages":7095,"count":30},"values":[{"id":251176,"code":"B4KJ201802001-6656","latitude":"35.337389","longitude":"132.699056","source_code":"CG078735510200050004","project_name":"\u51fa\u96f2\u4ea4\u5b89\u8a2d\u8a08\u696d\u52d9(\u5927\u5cf6\u5de5\u533a)","survey_name":"\u51fa\u96f2\u4ea4\u5b89\u8a2d\u8a08\u696d\u52d9(\u5927\u5cf6\u5de5\u533a)","client_name":"\u4e2d\u56fd\u5730\u65b9\u6574\u5099\u5c40 \u677e\u6c5f\u56fd\u9053\u4e8b\u52d9\u6240","boring_xml_url":47,"boring_view_url":1,"soilmap_view_url":null,"soiltest_xml_url":50,"soiltest_view_url":49},{"id":251175,"code":"B4KJ201802001-6655","latitude":"35.33775","longitude":"132.701444","source_code":"CG078735510200050003","project_name":"\u51fa\u96f2\u4ea4\u5b89\u8a2d\u8a08\u696d\u52d9(\u5927\u5cf6\u5de5\u533a)","survey_name":"\u51fa\u96f2\u4ea4\u5b89\u8a2d\u8a08\u696d\u52d9(\u5927\u5cf6\u5de5\u533a)","client_name":"\u4e2d\u56fd\u5730\u65b9\u6574\u5099\u5c40 \u677e\u6c5f\u56fd\u9053\u4e8b\u52d9\u6240","boring_xml_url":47,"boring_view_url":1,"soilmap_view_url":null,"soiltest_xml_url":50,"soiltest_view_url":49},{"id":251174,"code":"B4KJ201802001-6654","latitude":"35.338056","longitude":"132.703528","source_code":"CG078735510200050002","project_name":"\u51fa\u96f2\u4ea4\u5b89\u8a2d\u8a08\u696d\u52d9(\u5927\u5cf6\u5de5\u533a)","survey_name":"\u51fa\u96f2\u4ea4\u5b89\u8a2d\u8a08\u696d\u52d9(\u5927\u5cf6\u5de5\u533a)","client_name":"\u4e2d\u56fd\u5730\u65b9\u6574\u5099\u5c40 \u677e\u6c5f\u56fd\u9053\u4e8b\u52d9\u6240","boring_xml_url":47,"boring_view_url":1,"soilmap_view_url":null,"soiltest_xml_url":50,"soiltest_view_url":49},{"id":251173,"code":"B4KJ201802001-6653","latitude":"35.338139","longitude":"132.706056","source_code":"CG078735510200050001","project_name":"\u51fa\u96f2\u4ea4\u5b89\u8a2d\u8a08\u696d\u52d9(\u5927\u5cf6\u5de5\u533a)","survey_name":"\u51fa\u96f2\u4ea4\u5b89\u8a2d\u8a08\u696d\u52d9(\u5927\u5cf6\u5de5\u533a)","client_name":"\u4e2d\u56fd\u5730\u65b9\u6574\u5099\u5c40 \u677e\u6c5f\u56fd\u9053\u4e8b\u52d9\u6240","boring_xml_url":47,"boring_view_url":1,"soilmap_view_url":null,"soiltest_xml_url":50,"soiltest_view_url":49},{"id":251172,"code":"B4KJ201802001-6652","latitude":"35.106722","longitude":"132.376056","source_code":"CG088735510200180012","project_name":"\u6e6f\u91cc\u5de5\u533a","survey_name":"\u5e73\u621020\u5e74\u5ea6 \u677e\u6c5f\u56fd\u9053\u7ba1\u5185\u5730\u8cea\u8abf\u67fb\u696d\u52d9","client_name":"\u4e2d\u56fd\u5730\u65b9\u6574\u5099\u5c40 \u677e\u6c5f\u56fd\u9053\u4e8b\u52d9\u6240","boring_xml_url":47,"boring_view_url":1,"soilmap_view_url":null,"soiltest_xml_url":50,"soiltest_view_url":49},{"id":251171,"code":"B4KJ201802001-6651","latitude":"35.106611","longitude":"132.376333","source_code":"CG088735510200180011","project_name":"\u6e6f\u91cc\u5de5\u533a","survey_name":"\u5e73\u621020\u5e74\u5ea6 \u677e\u6c5f\u56fd\u9053\u7ba1\u5185\u5730\u8cea\u8abf\u67fb\u696d\u52d9","client_name":"\u4e2d\u56fd\u5730\u65b9\u6574\u5099\u5c40 \u677e\u6c5f\u56fd\u9053\u4e8b\u52d9\u6240","boring_xml_url":47,"boring_view_url":1,"soilmap_view_url":null,"soiltest_xml_url":50,"soiltest_view_url":49},{"id":251170,"code":"B4KJ201802001-6650","latitude":"35.249639","longitude":"132.562806","source_code":"CG088735510200180010","project_name":"\u671d\u5009\u5de5\u533a","survey_name":"\u5e73\u621020\u5e74\u5ea6 \u677e\u6c5f\u56fd\u9053\u7ba1\u5185\u5730\u8cea\u8abf\u67fb\u696d\u52d9","client_name":"\u4e2d\u56fd\u5730\u65b9\u6574\u5099\u5c40 \u677e\u6c5f\u56fd\u9053\u4e8b\u52d9\u6240","boring_xml_url":47,"boring_view_url":1,"soilmap_view_url":null,"soiltest_xml_url":0,"soiltest_view_url":0},{"id":251169,"code":"B4KJ201802001-6649","latitude":"35.249972","longitude":"132.563028","source_code":"CG088735510200180009","project_name":"\u671d\u5009\u5de5\u533a","survey_name":"\u5e73\u621020\u5e74\u5ea6 \u677e\u6c5f\u56fd\u9053\u7ba1\u5185\u5730\u8cea\u8abf\u67fb\u696d\u52d9","client_name":"\u4e2d\u56fd\u5730\u65b9\u6574\u5099\u5c40 \u677e\u6c5f\u56fd\u9053\u4e8b\u52d9\u6240","boring_xml_url":47,"boring_view_url":1,"soilmap_view_url":null,"soiltest_xml_url":0,"soiltest_view_url":0},{"id":251168,"code":"B4KJ201802001-6648","latitude":"35.249528","longitude":"132.563722","source_code":"CG088735510200180008","project_name":"\u671d\u5009\u5de5\u533a","survey_name":"\u5e73\u621020\u5e74\u5ea6 \u677e\u6c5f\u56fd\u9053\u7ba1\u5185\u5730\u8cea\u8abf\u67fb\u696d\u52d9","client_name":"\u4e2d\u56fd\u5730\u65b9\u6574\u5099\u5c40 \u677e\u6c5f\u56fd\u9053\u4e8b\u52d9\u6240","boring_xml_url":47,"boring_view_url":1,"soilmap_view_url":null,"soiltest_xml_url":50,"soiltest_view_url":49},{"id":251167,"code":"B4KJ201802001-6647","latitude":"35.249417","longitude":"132.56425","source_code":"CG088735510200180007","project_name":"\u671d\u5009\u5de5\u533a","survey_name":"\u5e73\u621020\u5e74\u5ea6 \u677e\u6c5f\u56fd\u9053\u7ba1\u5185\u5730\u8cea\u8abf\u67fb\u696d\u52d9","client_name":"\u4e2d\u56fd\u5730\u65b9\u6574\u5099\u5c40 \u677e\u6c5f\u56fd\u9053\u4e8b\u52d9\u6240","boring_xml_url":47,"boring_view_url":1,"soilmap_view_url":null,"soiltest_xml_url":0,"soiltest_view_url":0},{"id":251166,"code":"B4KJ201802001-6646","latitude":"35.249611","longitude":"132.564528","source_code":"CG088735510200180006","project_name":"\u671d\u5009\u5de5\u533a","survey_name":"\u5e73\u621020\u5e74\u5ea6 \u677e\u6c5f\u56fd\u9053\u7ba1\u5185\u5730\u8cea\u8abf\u67fb\u696d\u52d9","client_name":"\u4e2d\u56fd\u5730\u65b9\u6574\u5099\u5c40 \u677e\u6c5f\u56fd\u9053\u4e8b\u52d9\u6240","boring_xml_url":47,"boring_view_url":1,"soilmap_view_url":null,"soiltest_xml_url":0,"soiltest_view_url":0},{"id":251165,"code":"B4KJ201802001-6645","latitude":"35.395778","longitude":"132.846972","source_code":"CG088735510200180005","project_name":"\u8358\u539f\u5de5\u533a","survey_name":"\u5e73\u621020\u5e74\u5ea6 \u677e\u6c5f\u56fd\u9053\u7ba1\u5185\u5730\u8cea\u8abf\u67fb\u696d\u52d9","client_name":"\u4e2d\u56fd\u5730\u65b9\u6574\u5099\u5c40 \u677e\u6c5f\u56fd\u9053\u4e8b\u52d9\u6240","boring_xml_url":47,"boring_view_url":1,"soilmap_view_url":null,"soiltest_xml_url":0,"soiltest_view_url":0},{"id":251164,"code":"B4KJ201802001-6644","latitude":"35.433056","longitude":"133.247056","source_code":"CG088735510200180004","project_name":"\u98ef\u5cf6\u5de5\u533a","survey_name":"\u5e73\u621020\u5e74\u5ea6 \u677e\u6c5f\u56fd\u9053\u7ba1\u5185\u5730\u8cea\u8abf\u67fb\u696d\u52d9","client_name":"\u4e2d\u56fd\u5730\u65b9\u6574\u5099\u5c40 \u677e\u6c5f\u56fd\u9053\u4e8b\u52d9\u6240","boring_xml_url":47,"boring_view_url":1,"soilmap_view_url":null,"soiltest_xml_url":50,"soiltest_view_url":49},{"id":251163,"code":"B4KJ201802001-6643","latitude":"35.420278","longitude":"133.288556","source_code":"CG088735510200180003","project_name":"\u5cf6\u7530\u5de5\u533a","survey_name":"\u5e73\u621020\u5e74\u5ea6 \u677e\u6c5f\u56fd\u9053\u7ba1\u5185\u5730\u8cea\u8abf\u67fb\u696d\u52d9","client_name":"\u4e2d\u56fd\u5730\u65b9\u6574\u5099\u5c40 \u677e\u6c5f\u56fd\u9053\u4e8b\u52d9\u6240","boring_xml_url":47,"boring_view_url":1,"soilmap_view_url":null,"soiltest_xml_url":50,"soiltest_view_url":49},{"id":251162,"code":"B4KJ201802001-6642","latitude":"35.420972","longitude":"133.288306","source_code":"CG088735510200180002","project_name":"\u5cf6\u7530\u5de5\u533a","survey_name":"\u5e73\u621020\u5e74\u5ea6 \u677e\u6c5f\u56fd\u9053\u7ba1\u5185\u5730\u8cea\u8abf\u67fb\u696d\u52d9","client_name":"\u4e2d\u56fd\u5730\u65b9\u6574\u5099\u5c40 \u677e\u6c5f\u56fd\u9053\u4e8b\u52d9\u6240","boring_xml_url":47,"boring_view_url":1,"soilmap_view_url":null,"soiltest_xml_url":50,"soiltest_view_url":49},{"id":251161,"code":"B4KJ201802001-6641","latitude":"35.420944","longitude":"133.288167","source_code":"CG088735510200180001","project_name":"\u5cf6\u7530\u5de5\u533a","survey_name":"\u5e73\u621020\u5e74\u5ea6 \u677e\u6c5f\u56fd\u9053\u7ba1\u5185\u5730\u8cea\u8abf\u67fb\u696d\u52d9","client_name":"\u4e2d\u56fd\u5730\u65b9\u6574\u5099\u5c40 \u677e\u6c5f\u56fd\u9053\u4e8b\u52d9\u6240","boring_xml_url":47,"boring_view_url":1,"soilmap_view_url":null,"soiltest_xml_url":0,"soiltest_view_url":0},{"id":251160,"code":"B4KJ201802001-6640","latitude":"35.409778","longitude":"133.312778","source_code":"CG078735510200170004","project_name":"","survey_name":"\u5b89\u6765\u5730\u533a\u5916\u8a2d\u8a08\u696d\u52d9\u59d4\u8a17","client_name":"\u56fd\u571f\u4ea4\u901a\u7701\u4e2d\u56fd\u5730\u65b9\u6574\u5099\u5c40\u677e\u6c5f\u56fd\u9053\u4e8b\u52d9\u6240\u7ba1\u7406\u7b2c\u4e8c\u8ab2","boring_xml_url":47,"boring_view_url":1,"soilmap_view_url":null,"soiltest_xml_url":50,"soiltest_view_url":49},{"id":251159,"code":"B4KJ201802001-6639","latitude":"35.409167","longitude":"133.313","source_code":"CG078735510200170003","project_name":"","survey_name":"\u5b89\u6765\u5730\u533a\u5916\u8a2d\u8a08\u696d\u52d9\u59d4\u8a17","client_name":"\u56fd\u571f\u4ea4\u901a\u7701\u4e2d\u56fd\u5730\u65b9\u6574\u5099\u5c40\u677e\u6c5f\u56fd\u9053\u4e8b\u52d9\u6240\u7ba1\u7406\u7b2c\u4e8c\u8ab2","boring_xml_url":47,"boring_view_url":1,"soilmap_view_url":null,"soiltest_xml_url":0,"soiltest_view_url":0},{"id":251158,"code":"B4KJ201802001-6638","latitude":"35.409639","longitude":"133.312222","source_code":"CG078735510200170002","project_name":"","survey_name":"\u5b89\u6765\u5730\u533a\u5916\u8a2d\u8a08\u696d\u52d9\u59d4\u8a17","client_name":"\u56fd\u571f\u4ea4\u901a\u7701\u4e2d\u56fd\u5730\u65b9\u6574\u5099\u5c40\u677e\u6c5f\u56fd\u9053\u4e8b\u52d9\u6240\u7ba1\u7406\u7b2c\u4e8c\u8ab2","boring_xml_url":47,"boring_view_url":1,"soilmap_view_url":null,"soiltest_xml_url":0,"soiltest_view_url":0},{"id":251157,"code":"B4KJ201802001-6637","latitude":"35.409028","longitude":"133.312444","source_code":"CG078735510200170001","project_name":"","survey_name":"\u5b89\u6765\u5730\u533a\u5916\u8a2d\u8a08\u696d\u52d9\u59d4\u8a17","client_name":"\u56fd\u571f\u4ea4\u901a\u7701\u4e2d\u56fd\u5730\u65b9\u6574\u5099\u5c40\u677e\u6c5f\u56fd\u9053\u4e8b\u52d9\u6240\u7ba1\u7406\u7b2c\u4e8c\u8ab2","boring_xml_url":47,"boring_view_url":1,"soilmap_view_url":null,"soiltest_xml_url":50,"soiltest_view_url":49},{"id":251156,"code":"B4KJ201802001-6636","latitude":"35.258861","longitude":"132.585944","source_code":"CG068735600200140021","project_name":"","survey_name":"\u53e3\u7530\u5100\u5730\u533a\u5730\u8cea\u8abf\u67fb\u696d\u52d9","client_name":"\u56fd\u571f\u4ea4\u901a\u7701\u4e2d\u56fd\u5730\u65b9\u6574\u5099\u5c40\u677e\u6c5f\u56fd\u9053\u4e8b\u52d9\u6240","boring_xml_url":47,"boring_view_url":1,"soilmap_view_url":null,"soiltest_xml_url":0,"soiltest_view_url":0},{"id":251155,"code":"B4KJ201802001-6635","latitude":"35.258944","longitude":"132.585611","source_code":"CG068735600200140020","project_name":"","survey_name":"\u53e3\u7530\u5100\u5730\u533a\u5730\u8cea\u8abf\u67fb\u696d\u52d9","client_name":"\u56fd\u571f\u4ea4\u901a\u7701\u4e2d\u56fd\u5730\u65b9\u6574\u5099\u5c40\u677e\u6c5f\u56fd\u9053\u4e8b\u52d9\u6240","boring_xml_url":47,"boring_view_url":1,"soilmap_view_url":null,"soiltest_xml_url":0,"soiltest_view_url":0},{"id":251154,"code":"B4KJ201802001-6634","latitude":"35.259056","longitude":"132.585694","source_code":"CG068735600200140019","project_name":"","survey_name":"\u53e3\u7530\u5100\u5730\u533a\u5730\u8cea\u8abf\u67fb\u696d\u52d9","client_name":"\u56fd\u571f\u4ea4\u901a\u7701\u4e2d\u56fd\u5730\u65b9\u6574\u5099\u5c40\u677e\u6c5f\u56fd\u9053\u4e8b\u52d9\u6240","boring_xml_url":47,"boring_view_url":1,"soilmap_view_url":null,"soiltest_xml_url":0,"soiltest_view_url":0},{"id":251153,"code":"B4KJ201802001-6633","latitude":"35.259194","longitude":"132.585778","source_code":"CG068735600200140018","project_name":"","survey_name":"\u53e3\u7530\u5100\u5730\u533a\u5730\u8cea\u8abf\u67fb\u696d\u52d9","client_name":"\u56fd\u571f\u4ea4\u901a\u7701\u4e2d\u56fd\u5730\u65b9\u6574\u5099\u5c40\u677e\u6c5f\u56fd\u9053\u4e8b\u52d9\u6240","boring_xml_url":47,"boring_view_url":1,"soilmap_view_url":null,"soiltest_xml_url":0,"soiltest_view_url":0},{"id":251152,"code":"B4KJ201802001-6632","latitude":"35.260083","longitude":"132.586444","source_code":"CG068735600200140017","project_name":"","survey_name":"\u53e3\u7530\u5100\u5730\u533a\u5730\u8cea\u8abf\u67fb\u696d\u52d9","client_name":"\u56fd\u571f\u4ea4\u901a\u7701\u4e2d\u56fd\u5730\u65b9\u6574\u5099\u5c40\u677e\u6c5f\u56fd\u9053\u4e8b\u52d9\u6240","boring_xml_url":47,"boring_view_url":1,"soilmap_view_url":null,"soiltest_xml_url":0,"soiltest_view_url":0},{"id":251151,"code":"B4KJ201802001-6631","latitude":"35.260278","longitude":"132.586528","source_code":"CG068735600200140016","project_name":"","survey_name":"\u53e3\u7530\u5100\u5730\u533a\u5730\u8cea\u8abf\u67fb\u696d\u52d9","client_name":"\u56fd\u571f\u4ea4\u901a\u7701\u4e2d\u56fd\u5730\u65b9\u6574\u5099\u5c40\u677e\u6c5f\u56fd\u9053\u4e8b\u52d9\u6240","boring_xml_url":47,"boring_view_url":1,"soilmap_view_url":null,"soiltest_xml_url":0,"soiltest_view_url":0},{"id":251150,"code":"B4KJ201802001-6630","latitude":"35.260167","longitude":"132.586833","source_code":"CG068735600200140015","project_name":"","survey_name":"\u53e3\u7530\u5100\u5730\u533a\u5730\u8cea\u8abf\u67fb\u696d\u52d9","client_name":"\u56fd\u571f\u4ea4\u901a\u7701\u4e2d\u56fd\u5730\u65b9\u6574\u5099\u5c40\u677e\u6c5f\u56fd\u9053\u4e8b\u52d9\u6240","boring_xml_url":47,"boring_view_url":1,"soilmap_view_url":null,"soiltest_xml_url":0,"soiltest_view_url":0},{"id":251149,"code":"B4KJ201802001-6629","latitude":"35.260583","longitude":"132.58675","source_code":"CG068735600200140014","project_name":"","survey_name":"\u53e3\u7530\u5100\u5730\u533a\u5730\u8cea\u8abf\u67fb\u696d\u52d9","client_name":"\u56fd\u571f\u4ea4\u901a\u7701\u4e2d\u56fd\u5730\u65b9\u6574\u5099\u5c40\u677e\u6c5f\u56fd\u9053\u4e8b\u52d9\u6240","boring_xml_url":47,"boring_view_url":1,"soilmap_view_url":null,"soiltest_xml_url":0,"soiltest_view_url":0},{"id":251148,"code":"B4KJ201802001-6628","latitude":"35.261556","longitude":"132.587278","source_code":"CG068735600200140013","project_name":"","survey_name":"\u53e3\u7530\u5100\u5730\u533a\u5730\u8cea\u8abf\u67fb\u696d\u52d9","client_name":"\u56fd\u571f\u4ea4\u901a\u7701\u4e2d\u56fd\u5730\u65b9\u6574\u5099\u5c40\u677e\u6c5f\u56fd\u9053\u4e8b\u52d9\u6240","boring_xml_url":47,"boring_view_url":1,"soilmap_view_url":null,"soiltest_xml_url":0,"soiltest_view_url":0},{"id":251147,"code":"B4KJ201802001-6627","latitude":"35.262111","longitude":"132.587778","source_code":"CG068735600200140012","project_name":"","survey_name":"\u53e3\u7530\u5100\u5730\u533a\u5730\u8cea\u8abf\u67fb\u696d\u52d9","client_name":"\u56fd\u571f\u4ea4\u901a\u7701\u4e2d\u56fd\u5730\u65b9\u6574\u5099\u5c40\u677e\u6c5f\u56fd\u9053\u4e8b\u52d9\u6240","boring_xml_url":47,"boring_view_url":1,"soilmap_view_url":null,"soiltest_xml_url":0,"soiltest_view_url":0}]}}