{"header":{"xyz":{"source":[],"mosaic":false},"page":2651,"raw":{"soiltest_result":"0","bbox":"57.598333,109.544722,1.933333,163.806111","page":"2651"},"conditions":{"soiltest_result":0,"north":57.598333,"west":109.544722,"south":1.933333,"east":163.806111},"success":true,"message":""},"data":{"meta":{"total":212844,"page":2651,"pages":7095,"count":30},"values":[{"id":251026,"code":"B4KJ201802001-6506","latitude":"35.247222","longitude":"132.572306","source_code":"CG068735600200150018","project_name":"\u53e3\u7530\u5100\u30fb\u671d\u5c71\u5730\u533a\u5730\u8cea\u8abf\u67fb\u696d\u52d9","survey_name":"\u53e3\u7530\u5100\u30fb\u671d\u5c71\u5730\u533a\u5730\u8cea\u8abf\u67fb\u696d\u52d9","client_name":"\u56fd\u571f\u4ea4\u901a\u7701 \u4e2d\u56fd\u5730\u65b9\u6574\u5099\u5c40 \u677e\u6c5f\u56fd\u9053\u4e8b\u52d9\u6240","boring_xml_url":47,"boring_view_url":1,"soilmap_view_url":null,"soiltest_xml_url":0,"soiltest_view_url":0},{"id":251025,"code":"B4KJ201802001-6505","latitude":"35.247611","longitude":"132.573333","source_code":"CG068735600200150017","project_name":"\u53e3\u7530\u5100\u30fb\u671d\u5c71\u5730\u533a\u5730\u8cea\u8abf\u67fb\u696d\u52d9","survey_name":"\u53e3\u7530\u5100\u30fb\u671d\u5c71\u5730\u533a\u5730\u8cea\u8abf\u67fb\u696d\u52d9","client_name":"\u56fd\u571f\u4ea4\u901a\u7701\u4e2d\u56fd\u5730\u65b9\u6574\u5099\u5c40\u677e\u6c5f\u56fd\u9053\u4e8b\u52d9\u6240","boring_xml_url":47,"boring_view_url":1,"soilmap_view_url":null,"soiltest_xml_url":0,"soiltest_view_url":0},{"id":251024,"code":"B4KJ201802001-6504","latitude":"35.248028","longitude":"132.573333","source_code":"CG068735600200150016","project_name":"\u53e3\u7530\u5100\u30fb\u671d\u5c71\u5730\u533a\u5730\u8cea\u8abf\u67fb\u696d\u52d9","survey_name":"\u53e3\u7530\u5100\u30fb\u671d\u5c71\u5730\u533a\u5730\u8cea\u8abf\u67fb\u696d\u52d9","client_name":"\u56fd\u571f\u4ea4\u901a\u7701\u4e2d\u56fd\u5730\u65b9\u6574\u5099\u5c40 \u677e\u6c5f\u56fd\u9053\u4e8b\u52d9\u6240","boring_xml_url":47,"boring_view_url":1,"soilmap_view_url":null,"soiltest_xml_url":0,"soiltest_view_url":0},{"id":251023,"code":"B4KJ201802001-6503","latitude":"35.24875","longitude":"132.575278","source_code":"CG068735600200150015","project_name":"\u53e3\u7530\u5100\u30fb\u671d\u5c71\u5730\u533a\u5730\u8cea\u8abf\u67fb\u696d\u52d9","survey_name":"\u53e3\u7530\u5100\u30fb\u671d\u5c71\u5730\u533a\u5730\u8cea\u8abf\u67fb\u696d\u52d9","client_name":"\u56fd\u571f\u4ea4\u901a\u7701\u4e2d\u56fd\u5730\u65b9\u6574\u5099\u5c40 \u677e\u6c5f\u56fd\u9053\u4e8b\u52d9\u6240","boring_xml_url":47,"boring_view_url":1,"soilmap_view_url":null,"soiltest_xml_url":0,"soiltest_view_url":0},{"id":251022,"code":"B4KJ201802001-6502","latitude":"35.248972","longitude":"132.575667","source_code":"CG068735600200150014","project_name":"\u53e3\u7530\u5100\u30fb\u671d\u5c71\u5730\u533a\u5730\u8cea\u8abf\u67fb\u696d\u52d9","survey_name":"\u53e3\u7530\u5100\u30fb\u671d\u5c71\u5730\u533a\u5730\u8cea\u8abf\u67fb\u696d\u52d9","client_name":"\u56fd\u571f\u4ea4\u901a\u7701\u4e2d\u56fd\u5730\u65b9\u6574\u5099\u5c40 \u677e\u6c5f\u56fd\u9053\u4e8b\u52d9\u6240","boring_xml_url":47,"boring_view_url":1,"soilmap_view_url":null,"soiltest_xml_url":0,"soiltest_view_url":0},{"id":251021,"code":"B4KJ201802001-6501","latitude":"35.249222","longitude":"132.575972","source_code":"CG068735600200150013","project_name":"\u53e3\u7530\u5100\u30fb\u671d\u5c71\u5730\u533a\u5730\u8cea\u8abf\u67fb\u696d\u52d9","survey_name":"\u53e3\u7530\u5100\u30fb\u671d\u5c71\u5730\u533a\u5730\u8cea\u8abf\u67fb\u696d\u52d9","client_name":"\u56fd\u571f\u4ea4\u901a\u7701\u4e2d\u56fd\u5730\u65b9\u6574\u5099\u5c40 \u677e\u6c5f\u56fd\u9053\u4e8b\u52d9\u6240","boring_xml_url":47,"boring_view_url":1,"soilmap_view_url":null,"soiltest_xml_url":0,"soiltest_view_url":0},{"id":251020,"code":"B4KJ201802001-6500","latitude":"35.2495","longitude":"132.576333","source_code":"CG068735600200150012","project_name":"\u53e3\u7530\u5100\u30fb\u671d\u5c71\u5730\u533a\u5730\u8cea\u8abf\u67fb\u696d\u52d9","survey_name":"\u53e3\u7530\u5100\u30fb\u671d\u5c71\u5730\u533a\u5730\u8cea\u8abf\u67fb\u696d\u52d9","client_name":"\u56fd\u571f\u4ea4\u901a\u7701\u4e2d\u56fd\u5730\u65b9\u6574\u5099\u5c40 \u677e\u6c5f\u56fd\u9053\u4e8b\u52d9\u6240","boring_xml_url":47,"boring_view_url":1,"soilmap_view_url":null,"soiltest_xml_url":0,"soiltest_view_url":0},{"id":251019,"code":"B4KJ201802001-6499","latitude":"35.249833","longitude":"132.576806","source_code":"CG068735600200150011","project_name":"\u53e3\u7530\u5100\u30fb\u671d\u5c71\u5730\u533a\u5730\u8cea\u8abf\u67fb\u696d\u52d9","survey_name":"\u53e3\u7530\u5100\u30fb\u671d\u5c71\u5730\u533a\u5730\u8cea\u8abf\u67fb\u696d\u52d9","client_name":"\u56fd\u571f\u4ea4\u901a\u7701\u4e2d\u56fd\u5730\u65b9\u6574\u5099\u5c40\u677e\u6c5f\u56fd\u9053\u4e8b\u52d9\u6240","boring_xml_url":47,"boring_view_url":1,"soilmap_view_url":null,"soiltest_xml_url":0,"soiltest_view_url":0},{"id":251018,"code":"B4KJ201802001-6498","latitude":"35.249889","longitude":"132.577389","source_code":"CG068735600200150010","project_name":"\u53e3\u7530\u5100\u30fb\u671d\u5c71\u5730\u533a\u5730\u8cea\u8abf\u67fb\u696d\u52d9","survey_name":"\u53e3\u7530\u5100\u30fb\u671d\u5c71\u5730\u533a\u5730\u8cea\u8abf\u67fb\u696d\u52d9","client_name":"\u56fd\u571f\u4ea4\u901a\u7701\u4e2d\u56fd\u5730\u65b9\u6574\u5099\u5c40\u677e\u6c5f\u56fd\u9053\u4e8b\u52d9\u6240","boring_xml_url":47,"boring_view_url":1,"soilmap_view_url":null,"soiltest_xml_url":0,"soiltest_view_url":0},{"id":251017,"code":"B4KJ201802001-6497","latitude":"35.251833","longitude":"132.577806","source_code":"CG068735600200150009","project_name":"\u53e3\u7530\u5100\u30fb\u671d\u5c71\u5730\u533a\u5730\u8cea\u8abf\u67fb\u696d\u52d9","survey_name":"\u53e3\u7530\u5100\u30fb\u671d\u5c71\u5730\u533a\u5730\u8cea\u8abf\u67fb\u696d\u52d9","client_name":"\u56fd\u571f\u4ea4\u901a\u7701\u4e2d\u56fd\u5730\u65b9\u6574\u5099\u5c40\u677e\u6c5f\u56fd\u9053\u4e8b\u52d9\u6240","boring_xml_url":47,"boring_view_url":1,"soilmap_view_url":null,"soiltest_xml_url":0,"soiltest_view_url":0},{"id":251016,"code":"B4KJ201802001-6496","latitude":"35.252667","longitude":"132.57825","source_code":"CG068735600200150008","project_name":"\u53e3\u7530\u5100\u30fb\u671d\u5c71\u5730\u533a\u5730\u8cea\u8abf\u67fb\u696d\u52d9","survey_name":"\u53e3\u7530\u5100\u30fb\u671d\u5c71\u5730\u533a\u5730\u8cea\u8abf\u67fb\u696d\u52d9","client_name":"\u56fd\u571f\u4ea4\u901a\u7701\u4e2d\u56fd\u5730\u65b9\u6574\u5099\u5c40\u677e\u6c5f\u56fd\u9053\u4e8b\u52d9\u6240","boring_xml_url":47,"boring_view_url":1,"soilmap_view_url":null,"soiltest_xml_url":0,"soiltest_view_url":0},{"id":251015,"code":"B4KJ201802001-6495","latitude":"35.255167","longitude":"132.581333","source_code":"CG068735600200150007","project_name":"\u53e3\u7530\u5100\u30fb\u671d\u5c71\u5730\u533a\u5730\u8cea\u8abf\u67fb\u696d\u52d9","survey_name":"\u53e3\u7530\u5100\u30fb\u671d\u5c71\u5730\u533a\u5730\u8cea\u8abf\u67fb\u696d\u52d9","client_name":"\u56fd\u571f\u4ea4\u901a\u7701\u4e2d\u56fd\u5730\u65b9\u6574\u5099\u5c40\u677e\u6c5f\u56fd\u9053\u4e8b\u52d9\u6240","boring_xml_url":47,"boring_view_url":1,"soilmap_view_url":null,"soiltest_xml_url":0,"soiltest_view_url":0},{"id":251014,"code":"B4KJ201802001-6494","latitude":"35.254833","longitude":"132.581694","source_code":"CG068735600200150006","project_name":"\u53e3\u7530\u5100\u30fb\u671d\u5c71\u5730\u533a\u5730\u8cea\u8abf\u67fb\u696d\u52d9","survey_name":"\u53e3\u7530\u5100\u30fb\u671d\u5c71\u5730\u533a\u5730\u8cea\u8abf\u67fb\u696d\u52d9","client_name":"\u56fd\u571f\u4ea4\u901a\u7701\u4e2d\u56fd\u5730\u65b9\u6574\u5099\u5c40\u677e\u6c5f\u56fd\u9053\u4e8b\u52d9\u6240","boring_xml_url":47,"boring_view_url":1,"soilmap_view_url":null,"soiltest_xml_url":0,"soiltest_view_url":0},{"id":251013,"code":"B4KJ201802001-6493","latitude":"35.255972","longitude":"132.582444","source_code":"CG068735600200150005","project_name":"\u53e3\u7530\u5100\u30fb\u671d\u5c71\u5730\u533a\u5730\u8cea\u8abf\u67fb\u696d\u52d9","survey_name":"\u53e3\u7530\u5100\u30fb\u671d\u5c71\u5730\u533a\u5730\u8cea\u8abf\u67fb\u696d\u52d9","client_name":"\u56fd\u571f\u4ea4\u901a\u7701\u4e2d\u56fd\u5730\u65b9\u6574\u5099\u5c40 \u677e\u6c5f\u56fd\u9053\u4e8b\u52d9\u6240","boring_xml_url":47,"boring_view_url":1,"soilmap_view_url":null,"soiltest_xml_url":0,"soiltest_view_url":0},{"id":251012,"code":"B4KJ201802001-6492","latitude":"35.256611","longitude":"132.58325","source_code":"CG068735600200150004","project_name":"\u53e3\u7530\u5100\u30fb\u671d\u5c71\u5730\u533a\u5730\u8cea\u8abf\u67fb\u696d\u52d9","survey_name":"\u53e3\u7530\u5100\u30fb\u671d\u5c71\u5730\u533a\u5730\u8cea\u8abf\u67fb\u696d\u52d9","client_name":"\u56fd\u571f\u4ea4\u901a\u7701\u4e2d\u56fd\u5730\u65b9\u6574\u5099\u5c40 \u677e\u6c5f\u56fd\u9053\u4e8b\u52d9\u6240","boring_xml_url":47,"boring_view_url":1,"soilmap_view_url":null,"soiltest_xml_url":0,"soiltest_view_url":0},{"id":251011,"code":"B4KJ201802001-6491","latitude":"35.251639","longitude":"132.578139","source_code":"CG068735600200150003","project_name":"\u53e3\u7530\u5100\u30fb\u671d\u5c71\u5730\u533a\u5730\u8cea\u8abf\u67fb\u696d\u52d9","survey_name":"\u53e3\u7530\u5100\u30fb\u671d\u5c71\u5730\u533a\u5730\u8cea\u8abf\u67fb\u696d\u52d9","client_name":"\u56fd\u571f\u4ea4\u901a\u7701\u4e2d\u56fd\u5730\u65b9\u6574\u5099\u5c40 \u677e\u6c5f\u56fd\u9053\u4e8b\u52d9\u6240","boring_xml_url":47,"boring_view_url":1,"soilmap_view_url":null,"soiltest_xml_url":0,"soiltest_view_url":0},{"id":251010,"code":"B4KJ201802001-6490","latitude":"35.257639","longitude":"132.584444","source_code":"CG068735600200150002","project_name":"\u53e3\u7530\u5100\u30fb\u671d\u5c71\u5730\u533a\u5730\u8cea\u8abf\u67fb\u696d\u52d9","survey_name":"\u53e3\u7530\u5100\u30fb\u671d\u5c71\u5730\u533a\u5730\u8cea\u8abf\u67fb\u696d\u52d9","client_name":"\u56fd\u571f\u4ea4\u901a\u7701\u4e2d\u56fd\u5730\u65b9\u6574\u5099\u5c40 \u677e\u6c5f\u56fd\u9053\u4e8b\u52d9\u6240","boring_xml_url":47,"boring_view_url":1,"soilmap_view_url":null,"soiltest_xml_url":0,"soiltest_view_url":0},{"id":251009,"code":"B4KJ201802001-6489","latitude":"35.258333","longitude":"132.585083","source_code":"CG068735600200150001","project_name":"\u53e3\u7530\u5100\u30fb\u671d\u5c71\u5730\u533a\u5730\u8cea\u8abf\u67fb\u696d\u52d9","survey_name":"\u53e3\u7530\u5100\u30fb\u671d\u5c71\u5730\u533a\u5730\u8cea\u8abf\u67fb\u696d\u52d9","client_name":"\u56fd\u571f\u4ea4\u901a\u7701\u4e2d\u56fd\u5730\u65b9\u6574\u5099\u5c40 \u677e\u6c5f\u56fd\u9053\u4e8b\u52d9\u6240","boring_xml_url":47,"boring_view_url":1,"soilmap_view_url":null,"soiltest_xml_url":0,"soiltest_view_url":0},{"id":251008,"code":"B4KJ201802001-6488","latitude":"35.222722","longitude":"132.522583","source_code":"CG088735600200130014","project_name":"","survey_name":"\u671d\u5c71\u30fb\u5927\u7530\u9053\u8def\u5730\u8cea\u8abf\u67fb\u696d\u52d9","client_name":"\u56fd\u571f\u4ea4\u901a\u7701 \u4e2d\u56fd\u5730\u65b9\u6574\u5099\u5c40 \u677e\u6c5f\u56fd\u9053\u4e8b\u52d9\u6240","boring_xml_url":47,"boring_view_url":1,"soilmap_view_url":null,"soiltest_xml_url":50,"soiltest_view_url":49},{"id":251007,"code":"B4KJ201802001-6487","latitude":"35.219194","longitude":"132.517472","source_code":"CG088735600200130013","project_name":"","survey_name":"\u671d\u5c71\u30fb\u5927\u7530\u9053\u8def\u5730\u8cea\u8abf\u67fb\u696d\u52d9","client_name":"\u56fd\u571f\u4ea4\u901a\u7701 \u4e2d\u56fd\u5730\u65b9\u6574\u5099\u5c40 \u677e\u6c5f\u56fd\u9053\u4e8b\u52d9\u6240","boring_xml_url":47,"boring_view_url":1,"soilmap_view_url":null,"soiltest_xml_url":0,"soiltest_view_url":0},{"id":251006,"code":"B4KJ201802001-6486","latitude":"35.217194","longitude":"132.515611","source_code":"CG088735600200130012","project_name":"","survey_name":"\u671d\u5c71\u30fb\u5927\u7530\u9053\u8def\u5730\u8cea\u8abf\u67fb\u696d\u52d9","client_name":"\u56fd\u571f\u4ea4\u901a\u7701 \u4e2d\u56fd\u5730\u65b9\u6574\u5099\u5c40 \u677e\u6c5f\u56fd\u9053\u4e8b\u52d9\u6240","boring_xml_url":47,"boring_view_url":1,"soilmap_view_url":null,"soiltest_xml_url":50,"soiltest_view_url":49},{"id":251005,"code":"B4KJ201802001-6485","latitude":"35.217583","longitude":"132.515972","source_code":"CG088735600200130011","project_name":"","survey_name":"\u671d\u5c71\u30fb\u5927\u7530\u9053\u8def\u5730\u8cea\u8abf\u67fb\u696d\u52d9","client_name":"\u56fd\u571f\u4ea4\u901a\u7701 \u4e2d\u56fd\u5730\u65b9\u6574\u5099\u5c40 \u677e\u6c5f\u56fd\u9053\u4e8b\u52d9\u6240","boring_xml_url":47,"boring_view_url":1,"soilmap_view_url":null,"soiltest_xml_url":0,"soiltest_view_url":0},{"id":251004,"code":"B4KJ201802001-6484","latitude":"35.219222","longitude":"132.517417","source_code":"CG088735600200130010","project_name":"","survey_name":"\u671d\u5c71\u30fb\u5927\u7530\u9053\u8def\u5730\u8cea\u8abf\u67fb\u696d\u52d9","client_name":"\u56fd\u571f\u4ea4\u901a\u7701 \u4e2d\u56fd\u5730\u65b9\u6574\u5099\u5c40 \u677e\u6c5f\u56fd\u9053\u4e8b\u52d9\u6240","boring_xml_url":47,"boring_view_url":1,"soilmap_view_url":null,"soiltest_xml_url":0,"soiltest_view_url":0},{"id":251003,"code":"B4KJ201802001-6483","latitude":"35.2205","longitude":"132.518222","source_code":"CG088735600200130009","project_name":"","survey_name":"\u671d\u5c71\u30fb\u5927\u7530\u9053\u8def\u5730\u8cea\u8abf\u67fb\u696d\u52d9","client_name":"\u56fd\u571f\u4ea4\u901a\u7701 \u4e2d\u56fd\u5730\u65b9\u6574\u5099\u5c40 \u677e\u6c5f\u56fd\u9053\u4e8b\u52d9\u6240","boring_xml_url":47,"boring_view_url":1,"soilmap_view_url":null,"soiltest_xml_url":0,"soiltest_view_url":0},{"id":251002,"code":"B4KJ201802001-6482","latitude":"35.221861","longitude":"132.519917","source_code":"CG088735600200130008","project_name":"","survey_name":"\u671d\u5c71\u30fb\u5927\u7530\u9053\u8def\u5730\u8cea\u8abf\u67fb\u696d\u52d9","client_name":"\u56fd\u571f\u4ea4\u901a\u7701 \u4e2d\u56fd\u5730\u65b9\u6574\u5099\u5c40 \u677e\u6c5f\u56fd\u9053\u4e8b\u52d9\u6240","boring_xml_url":47,"boring_view_url":1,"soilmap_view_url":null,"soiltest_xml_url":0,"soiltest_view_url":0},{"id":251001,"code":"B4KJ201802001-6481","latitude":"35.222944","longitude":"132.522417","source_code":"CG088735600200130007","project_name":"","survey_name":"\u671d\u5c71\u30fb\u5927\u7530\u9053\u8def\u5730\u8cea\u8abf\u67fb\u696d\u52d9","client_name":"\u56fd\u571f\u4ea4\u901a\u7701 \u4e2d\u56fd\u5730\u65b9\u6574\u5099\u5c40 \u677e\u6c5f\u56fd\u9053\u4e8b\u52d9\u6240","boring_xml_url":47,"boring_view_url":1,"soilmap_view_url":null,"soiltest_xml_url":0,"soiltest_view_url":0},{"id":251000,"code":"B4KJ201802001-6480","latitude":"35.238694","longitude":"132.558083","source_code":"CG088735600200130006","project_name":"","survey_name":"\u671d\u5c71\u30fb\u5927\u7530\u9053\u8def\u5730\u8cea\u8abf\u67fb\u696d\u52d9","client_name":"\u56fd\u571f\u4ea4\u901a\u7701 \u4e2d\u56fd\u5730\u65b9\u6574\u5099\u5c40 \u677e\u6c5f\u56fd\u9053\u4e8b\u52d9\u6240","boring_xml_url":47,"boring_view_url":1,"soilmap_view_url":null,"soiltest_xml_url":0,"soiltest_view_url":0},{"id":250999,"code":"B4KJ201802001-6479","latitude":"35.239","longitude":"132.558417","source_code":"CG088735600200130005","project_name":"","survey_name":"\u671d\u5c71\u30fb\u5927\u7530\u9053\u8def\u5730\u8cea\u8abf\u67fb\u696d\u52d9","client_name":"\u56fd\u571f\u4ea4\u901a\u7701 \u4e2d\u56fd\u5730\u65b9\u6574\u5099\u5c40 \u677e\u6c5f\u56fd\u9053\u4e8b\u52d9\u6240","boring_xml_url":47,"boring_view_url":1,"soilmap_view_url":null,"soiltest_xml_url":0,"soiltest_view_url":0},{"id":250998,"code":"B4KJ201802001-6478","latitude":"35.238333","longitude":"132.558806","source_code":"CG088735600200130004","project_name":"","survey_name":"\u671d\u5c71\u30fb\u5927\u7530\u9053\u8def\u5730\u8cea\u8abf\u67fb\u696d\u52d9","client_name":"\u56fd\u571f\u4ea4\u901a\u7701 \u4e2d\u56fd\u5730\u65b9\u6574\u5099\u5c40 \u677e\u6c5f\u56fd\u9053\u4e8b\u52d9\u6240","boring_xml_url":47,"boring_view_url":1,"soilmap_view_url":null,"soiltest_xml_url":0,"soiltest_view_url":0},{"id":250997,"code":"B4KJ201802001-6477","latitude":"35.240583","longitude":"132.560556","source_code":"CG088735600200130003","project_name":"","survey_name":"\u671d\u5c71\u30fb\u5927\u7530\u9053\u8def\u5730\u8cea\u8abf\u67fb\u696d\u52d9","client_name":"\u56fd\u571f\u4ea4\u901a\u7701 \u4e2d\u56fd\u5730\u65b9\u6574\u5099\u5c40 \u677e\u6c5f\u56fd\u9053\u4e8b\u52d9\u6240","boring_xml_url":47,"boring_view_url":1,"soilmap_view_url":null,"soiltest_xml_url":50,"soiltest_view_url":49}]}}