{"header":{"xyz":{"source":[],"mosaic":false},"page":2659,"raw":{"soiltest_result":"0","bbox":"57.598333,109.544722,1.933333,163.806111","page":"2659"},"conditions":{"soiltest_result":0,"north":57.598333,"west":109.544722,"south":1.933333,"east":163.806111},"success":true,"message":""},"data":{"meta":{"total":212844,"page":2659,"pages":7095,"count":30},"values":[{"id":250786,"code":"B4KJ201802001-6266","latitude":"35.425626","longitude":"132.829635","source_code":"CG038736600200470002","project_name":"\u6590\u4f0a\u5ddd\u4e0b\u6d41\u5824\u9632\u6d78\u900f\u8abf\u67fb\u691c\u8a0e\u696d\u52d9","survey_name":"\u6590\u4f0a\u5ddd\u4e0b\u6d41\u5824\u9632\u6d78\u900f\u8abf\u67fb\u691c\u8a0e\u696d\u52d9","client_name":"\u56fd\u571f\u4ea4\u901a\u7701\u4e2d\u56fd\u5730\u65b9\u6574\u5099\u5c40\u51fa\u96f2\u6cb3\u5ddd\u4e8b\u52d9\u6240","boring_xml_url":47,"boring_view_url":1,"soilmap_view_url":null,"soiltest_xml_url":50,"soiltest_view_url":49},{"id":250785,"code":"B4KJ201802001-6265","latitude":"35.425626","longitude":"132.829635","source_code":"CG038736600200470001","project_name":"\u6590\u4f0a\u5ddd\u4e0b\u6d41\u5824\u9632\u6d78\u900f\u8abf\u67fb\u691c\u8a0e\u696d\u52d9","survey_name":"\u6590\u4f0a\u5ddd\u4e0b\u6d41\u5824\u9632\u6d78\u900f\u8abf\u67fb\u691c\u8a0e\u696d\u52d9","client_name":"\u56fd\u571f\u4ea4\u901a\u7701\u4e2d\u56fd\u5730\u65b9\u6574\u5099\u5c40\u51fa\u96f2\u6cb3\u5ddd\u4e8b\u52d9\u6240","boring_xml_url":47,"boring_view_url":1,"soilmap_view_url":null,"soiltest_xml_url":50,"soiltest_view_url":49},{"id":250784,"code":"B4KJ201802001-6264","latitude":"35.455082","longitude":"133.269593","source_code":"CG048736400200050004","project_name":"\u4e2d\u6d77\u5916\u6e2c\u91cf\u8a2d\u8a08\u696d\u52d9","survey_name":"\u4e2d\u6d77\u5916\u6e2c\u91cf\u8a2d\u8a08\u696d\u52d9","client_name":"\u56fd\u571f\u4ea4\u901a\u7701\u51fa\u96f2\u6cb3\u5ddd\u5de5\u4e8b\u4e8b\u52d9\u6240","boring_xml_url":47,"boring_view_url":1,"soilmap_view_url":null,"soiltest_xml_url":0,"soiltest_view_url":0},{"id":250783,"code":"B4KJ201802001-6263","latitude":"35.45036","longitude":"133.273759","source_code":"CG048736400200050003","project_name":"\u4e2d\u6d77\u5916\u6e2c\u91cf\u8a2d\u8a08\u696d\u52d9","survey_name":"\u4e2d\u6d77\u5916\u6e2c\u91cf\u8a2d\u8a08\u696d\u52d9","client_name":"\u56fd\u571f\u4ea4\u901a\u7701\u51fa\u96f2\u6cb3\u5ddd\u5de5\u4e8b\u4e8b\u52d9\u6240","boring_xml_url":47,"boring_view_url":1,"soilmap_view_url":null,"soiltest_xml_url":0,"soiltest_view_url":0},{"id":250782,"code":"B4KJ201802001-6262","latitude":"35.454804","longitude":"133.272093","source_code":"CG048736400200050002","project_name":"\u4e2d\u6d77\u5916\u6e2c\u91cf\u8a2d\u8a08\u696d\u52d9","survey_name":"\u4e2d\u6d77\u5916\u6e2c\u91cf\u8a2d\u8a08\u696d\u52d9","client_name":"\u56fd\u571f\u4ea4\u901a\u7701\u51fa\u96f2\u6cb3\u5ddd\u5de5\u4e8b\u4e8b\u52d9\u6240","boring_xml_url":47,"boring_view_url":1,"soilmap_view_url":null,"soiltest_xml_url":0,"soiltest_view_url":0},{"id":250781,"code":"B4KJ201802001-6261","latitude":"35.450082","longitude":"133.276537","source_code":"CG048736400200050001","project_name":"\u4e2d\u6d77\u5916\u6e2c\u91cf\u8a2d\u8a08\u696d\u52d9","survey_name":"\u4e2d\u6d77\u5916\u6e2c\u91cf\u8a2d\u8a08\u696d\u52d9","client_name":"\u56fd\u571f\u4ea4\u901a\u7701\u51fa\u96f2\u6cb3\u5ddd\u5de5\u4e8b\u4e8b\u52d9\u6240","boring_xml_url":47,"boring_view_url":1,"soilmap_view_url":null,"soiltest_xml_url":0,"soiltest_view_url":0},{"id":250780,"code":"B4KJ201802001-6260","latitude":"34.828389","longitude":"131.981","source_code":"CG048737410200090006","project_name":"","survey_name":"\u56fd\u90539\u53f7\u9053\u8def\u8a2d\u8a08\u696d\u52d9","client_name":"\u56fd\u571f\u4ea4\u901a\u7701\u4e2d\u56fd\u5730\u65b9\u6574\u5099\u5c40\u6d5c\u7530\u6cb3\u5ddd\u56fd\u9053\u4e8b\u52d9\u6240","boring_xml_url":47,"boring_view_url":1,"soilmap_view_url":null,"soiltest_xml_url":0,"soiltest_view_url":0},{"id":250779,"code":"B4KJ201802001-6259","latitude":"34.828472","longitude":"131.981556","source_code":"CG048737410200090005","project_name":"","survey_name":"\u56fd\u90539\u53f7\u9053\u8def\u8a2d\u8a08\u696d\u52d9","client_name":"\u56fd\u571f\u4ea4\u901a\u7701\u4e2d\u56fd\u5730\u65b9\u6574\u5099\u5c40\u6d5c\u7530\u6cb3\u5ddd\u56fd\u9053\u4e8b\u52d9\u6240","boring_xml_url":47,"boring_view_url":1,"soilmap_view_url":null,"soiltest_xml_url":0,"soiltest_view_url":0},{"id":250778,"code":"B4KJ201802001-6258","latitude":"34.711278","longitude":"131.858944","source_code":"CG048737410200090004","project_name":"","survey_name":"\u56fd\u90539\u53f7\u9053\u8def\u8a2d\u8a08\u696d\u52d9","client_name":"\u56fd\u4ea4\u7701\u4e2d\u56fd\u5730\u65b9\u6574\u5099\u5c40\u6d5c\u7530\u6cb3\u5ddd\u56fd\u9053\u4e8b\u52d9\u6240","boring_xml_url":47,"boring_view_url":1,"soilmap_view_url":null,"soiltest_xml_url":0,"soiltest_view_url":0},{"id":250777,"code":"B4KJ201802001-6257","latitude":"34.711778","longitude":"131.85875","source_code":"CG048737410200090003","project_name":"","survey_name":"\u56fd\u90539\u53f7\u9053\u8def\u8a2d\u8a08\u696d\u52d9","client_name":"\u56fd\u4ea4\u7701\u4e2d\u56fd\u5730\u65b9\u6574\u5099\u5c40\u6d5c\u7530\u6cb3\u5ddd\u56fd\u9053\u4e8b\u52d9\u6240","boring_xml_url":47,"boring_view_url":1,"soilmap_view_url":null,"soiltest_xml_url":0,"soiltest_view_url":0},{"id":250776,"code":"B4KJ201802001-6256","latitude":"34.712139","longitude":"131.858722","source_code":"CG048737410200090002","project_name":"","survey_name":"\u56fd\u90539\u53f7\u9053\u8def\u8a2d\u8a08\u696d\u52d9","client_name":"\u56fd\u4ea4\u7701\u4e2d\u56fd\u5730\u65b9\u6574\u5099\u5c40\u6d5c\u7530\u6cb3\u5ddd\u56fd\u9053\u4e8b\u52d9\u6240","boring_xml_url":47,"boring_view_url":1,"soilmap_view_url":null,"soiltest_xml_url":0,"soiltest_view_url":0},{"id":250775,"code":"B4KJ201802001-6255","latitude":"34.712139","longitude":"131.858528","source_code":"CG048737410200090001","project_name":"","survey_name":"\u56fd\u90539\u53f7\u9053\u8def\u8a2d\u8a08\u696d\u52d9","client_name":"\u56fd\u4ea4\u7701\u4e2d\u56fd\u5730\u65b9\u6574\u5099\u5c40\u6d5c\u7530\u6cb3\u5ddd\u56fd\u9053\u4e8b\u52d9\u6240","boring_xml_url":47,"boring_view_url":1,"soilmap_view_url":null,"soiltest_xml_url":0,"soiltest_view_url":0},{"id":250774,"code":"B4KJ201802001-6254","latitude":"34.692667","longitude":"133.9485","source_code":"CG048740600200250009","project_name":"\u65ed\u5ddd\u5824\u9632\u8a73\u7d30\u70b9\u691c\u696d\u52d9","survey_name":"\u65ed\u5ddd\u5824\u9632\u8a73\u7d30\u70b9\u691c\u696d\u52d9","client_name":"\u56fd\u571f\u4ea4\u901a\u7701 \u5ca1\u5c71\u6cb3\u5ddd\u4e8b\u52d9\u6240","boring_xml_url":47,"boring_view_url":1,"soilmap_view_url":null,"soiltest_xml_url":0,"soiltest_view_url":0},{"id":250773,"code":"B4KJ201802001-6253","latitude":"34.692667","longitude":"133.948083","source_code":"CG048740600200250008","project_name":"\u65ed\u5ddd\u5824\u9632\u8a73\u7d30\u70b9\u691c\u696d\u52d9","survey_name":"\u65ed\u5ddd\u5824\u9632\u8a73\u7d30\u70b9\u691c\u696d\u52d9","client_name":"\u56fd\u571f\u4ea4\u901a\u7701 \u5ca1\u5c71\u6cb3\u5ddd\u4e8b\u52d9\u6240","boring_xml_url":47,"boring_view_url":1,"soilmap_view_url":null,"soiltest_xml_url":0,"soiltest_view_url":0},{"id":250772,"code":"B4KJ201802001-6252","latitude":"34.687611","longitude":"133.940972","source_code":"CG048740600200250005","project_name":"\u65ed\u5ddd\u5824\u9632\u8a73\u7d30\u70b9\u691c\u696d\u52d9","survey_name":"\u65ed\u5ddd\u5824\u9632\u8a73\u7d30\u70b9\u691c\u696d\u52d9","client_name":"\u56fd\u571f\u4ea4\u901a\u7701 \u5ca1\u5c71\u6cb3\u5ddd\u4e8b\u52d9\u6240","boring_xml_url":47,"boring_view_url":1,"soilmap_view_url":null,"soiltest_xml_url":0,"soiltest_view_url":0},{"id":250771,"code":"B4KJ201802001-6251","latitude":"34.676139","longitude":"133.933389","source_code":"CG048740600200250002","project_name":"\u65ed\u5ddd\u5824\u9632\u8a73\u7d30\u70b9\u691c\u696d\u52d9","survey_name":"\u65ed\u5ddd\u5824\u9632\u8a73\u7d30\u70b9\u691c\u696d\u52d9","client_name":"\u56fd\u571f\u4ea4\u901a\u7701 \u5ca1\u5c71\u6cb3\u5ddd\u4e8b\u52d9\u6240","boring_xml_url":47,"boring_view_url":1,"soilmap_view_url":null,"soiltest_xml_url":0,"soiltest_view_url":0},{"id":250770,"code":"B4KJ201802001-6250","latitude":"34.58875","longitude":"133.717944","source_code":"CG048740630200140005","project_name":"","survey_name":"\u9ad8\u6881\u5ddd\u8239\u7a42\u5824\u9632\u8a73\u7d30\u70b9\u691c\u696d\u52d9","client_name":"\u56fd\u571f\u4ea4\u901a\u7701\u4e2d\u56fd\u5730\u65b9\u6574\u5099\u5c40\u5ca1\u5c71\u6cb3\u5ddd\u4e8b\u52d9\u6240","boring_xml_url":47,"boring_view_url":1,"soilmap_view_url":null,"soiltest_xml_url":50,"soiltest_view_url":49},{"id":250769,"code":"B4KJ201802001-6249","latitude":"34.583472","longitude":"133.714194","source_code":"CG048740630200140001","project_name":"","survey_name":"\u9ad8\u6881\u5ddd\u8239\u7a42\u5824\u9632\u8a73\u7d30\u70b9\u691c\u696d\u52d9","client_name":"\u56fd\u571f\u4ea4\u901a\u7701\u4e2d\u56fd\u5730\u65b9\u6574\u5099\u5c40\u5ca1\u5c71\u6cb3\u5ddd\u4e8b\u52d9\u6240","boring_xml_url":47,"boring_view_url":1,"soilmap_view_url":null,"soiltest_xml_url":50,"soiltest_view_url":49},{"id":250768,"code":"B4KJ201802001-6248","latitude":"35.433306","longitude":"133.008194","source_code":"CG038735400200400006","project_name":"","survey_name":"\u65b0\u7389\u6e6f\u5927\u6a4b\u8a73\u7d30\u8a2d\u8a08\u696d\u52d9[\u5730\u8cea\u8abf\u67fb]","client_name":"\u56fd\u571f\u4ea4\u901a\u7701\u677e\u6c5f\u56fd\u9053\u4e8b\u52d9\u6240","boring_xml_url":47,"boring_view_url":1,"soilmap_view_url":null,"soiltest_xml_url":50,"soiltest_view_url":49},{"id":250767,"code":"B4KJ201802001-6247","latitude":"35.433639","longitude":"133.008611","source_code":"CG038735400200400005","project_name":"","survey_name":"\u65b0\u7389\u6e6f\u5927\u6a4b\u8a73\u7d30\u8a2d\u8a08\u696d\u52d9[\u5730\u8cea\u8abf\u67fb]","client_name":"\u56fd\u571f\u4ea4\u901a\u7701\u677e\u6c5f\u56fd\u9053\u4e8b\u52d9\u6240","boring_xml_url":47,"boring_view_url":1,"soilmap_view_url":null,"soiltest_xml_url":50,"soiltest_view_url":49},{"id":250766,"code":"B4KJ201802001-6246","latitude":"35.433417","longitude":"133.008861","source_code":"CG038735400200400004","project_name":"","survey_name":"\u65b0\u7389\u6e6f\u5927\u6a4b\u8a73\u7d30\u8a2d\u8a08\u696d\u52d9[\u5730\u8cea\u8abf\u67fb]","client_name":"\u56fd\u571f\u4ea4\u901a\u7701\u677e\u6c5f\u56fd\u9053\u4e8b\u52d9\u6240","boring_xml_url":47,"boring_view_url":1,"soilmap_view_url":null,"soiltest_xml_url":50,"soiltest_view_url":49},{"id":250765,"code":"B4KJ201802001-6245","latitude":"35.433639","longitude":"133.009111","source_code":"CG038735400200400003","project_name":"","survey_name":"\u65b0\u7389\u6e6f\u5927\u6a4b\u8a73\u7d30\u8a2d\u8a08\u696d\u52d9[\u5730\u8cea\u8abf\u67fb]","client_name":"\u56fd\u571f\u4ea4\u901a\u7701\u677e\u6c5f\u56fd\u9053\u4e8b\u52d9\u6240","boring_xml_url":47,"boring_view_url":1,"soilmap_view_url":null,"soiltest_xml_url":50,"soiltest_view_url":49},{"id":250764,"code":"B4KJ201802001-6244","latitude":"35.433722","longitude":"133.009361","source_code":"CG038735400200400002","project_name":"","survey_name":"\u65b0\u7389\u6e6f\u5927\u6a4b\u8a73\u7d30\u8a2d\u8a08\u696d\u52d9[\u5730\u8cea\u8abf\u67fb]","client_name":"\u56fd\u571f\u4ea4\u901a\u7701\u677e\u6c5f\u56fd\u9053\u4e8b\u52d9\u6240","boring_xml_url":47,"boring_view_url":1,"soilmap_view_url":null,"soiltest_xml_url":50,"soiltest_view_url":49},{"id":250763,"code":"B4KJ201802001-6243","latitude":"35.433778","longitude":"133.009611","source_code":"CG038735400200400001","project_name":"","survey_name":"\u65b0\u7389\u6e6f\u5927\u6a4b\u8a73\u7d30\u8a2d\u8a08\u696d\u52d9[\u5730\u8cea\u8abf\u67fb]","client_name":"\u56fd\u571f\u4ea4\u901a\u7701\u677e\u6c5f\u56fd\u9053\u4e8b\u52d9\u6240","boring_xml_url":47,"boring_view_url":1,"soilmap_view_url":null,"soiltest_xml_url":50,"soiltest_view_url":49},{"id":250762,"code":"B4KJ201802001-6242","latitude":"35.256667","longitude":"132.576111","source_code":"CG048735510200130008","project_name":"","survey_name":"\u4ed9\u5c71\u5730\u533a\u8996\u8ddd\u6539\u826f\u624b\u6cd5\u691c\u8a0e\u696d\u52d9","client_name":"\u56fd\u571f\u4ea4\u901a\u7701\u4e2d\u56fd\u5730\u65b9\u6574\u5099\u5c40\u677e\u6c5f\u56fd\u9053\u4e8b\u52d9\u6240","boring_xml_url":47,"boring_view_url":1,"soilmap_view_url":null,"soiltest_xml_url":0,"soiltest_view_url":0},{"id":250761,"code":"B4KJ201802001-6241","latitude":"35.257778","longitude":"132.576389","source_code":"CG048735510200130007","project_name":"","survey_name":"\u4ed9\u5c71\u5730\u533a\u8996\u8ddd\u6539\u826f\u624b\u6cd5\u691c\u8a0e\u696d\u52d9","client_name":"\u56fd\u571f\u4ea4\u901a\u7701\u4e2d\u56fd\u5730\u65b9\u6574\u5099\u5c40\u677e\u6c5f\u56fd\u9053\u4e8b\u52d9\u6240","boring_xml_url":47,"boring_view_url":1,"soilmap_view_url":null,"soiltest_xml_url":0,"soiltest_view_url":0},{"id":250760,"code":"B4KJ201802001-6240","latitude":"35.257778","longitude":"132.576667","source_code":"CG048735510200130006","project_name":"","survey_name":"\u4ed9\u5c71\u5730\u533a\u8996\u8ddd\u6539\u826f\u624b\u6cd5\u691c\u8a0e\u696d\u52d9","client_name":"\u56fd\u571f\u4ea4\u901a\u7701\u4e2d\u56fd\u5730\u65b9\u6574\u5099\u5c40\u677e\u6c5f\u56fd\u9053\u4e8b\u52d9\u6240","boring_xml_url":47,"boring_view_url":1,"soilmap_view_url":null,"soiltest_xml_url":0,"soiltest_view_url":0},{"id":250759,"code":"B4KJ201802001-6239","latitude":"35.259722","longitude":"132.576389","source_code":"CG048735510200130005","project_name":"","survey_name":"\u4ed9\u5c71\u5730\u533a\u8996\u8ddd\u6539\u826f\u624b\u6cd5\u691c\u8a0e\u696d\u52d9","client_name":"\u56fd\u571f\u4ea4\u901a\u7701\u4e2d\u56fd\u5730\u65b9\u6574\u5099\u5c40\u677e\u6c5f\u56fd\u9053\u4e8b\u52d9\u6240","boring_xml_url":47,"boring_view_url":1,"soilmap_view_url":null,"soiltest_xml_url":0,"soiltest_view_url":0},{"id":250758,"code":"B4KJ201802001-6238","latitude":"35.249167","longitude":"132.560556","source_code":"CG048735510200130004","project_name":"","survey_name":"\u4ed9\u5c71\u5730\u533a\u8996\u8ddd\u6539\u826f\u624b\u6cd5\u691c\u8a0e\u696d\u52d9","client_name":"\u56fd\u571f\u4ea4\u901a\u7701\u4e2d\u56fd\u5730\u65b9\u6574\u5099\u5c40\u677e\u6c5f\u56fd\u9053\u4e8b\u52d9\u6240","boring_xml_url":47,"boring_view_url":1,"soilmap_view_url":null,"soiltest_xml_url":0,"soiltest_view_url":0},{"id":250757,"code":"B4KJ201802001-6237","latitude":"35.249444","longitude":"132.561667","source_code":"CG048735510200130003","project_name":"","survey_name":"\u4ed9\u5c71\u5730\u533a\u8996\u8ddd\u6539\u826f\u624b\u6cd5\u691c\u8a0e\u696d\u52d9","client_name":"\u56fd\u571f\u4ea4\u901a\u7701\u4e2d\u56fd\u5730\u65b9\u6574\u5099\u5c40\u677e\u6c5f\u56fd\u9053\u4e8b\u52d9\u6240","boring_xml_url":47,"boring_view_url":1,"soilmap_view_url":null,"soiltest_xml_url":0,"soiltest_view_url":0}]}}