{"header":{"xyz":{"source":[],"mosaic":false},"page":2680,"raw":{"soiltest_result":"0","bbox":"57.598333,109.544722,1.933333,163.806111","page":"2680"},"conditions":{"soiltest_result":0,"north":57.598333,"west":109.544722,"south":1.933333,"east":163.806111},"success":true,"message":""},"data":{"meta":{"total":212844,"page":2680,"pages":7095,"count":30},"values":[{"id":250156,"code":"B4KJ201802001-5636","latitude":"35.404833","longitude":"133.373778","source_code":"CG048733600200190008","project_name":"\u65e5\u91ce\u5ddd\u5824\u9632\u5730\u8cea\u89e3\u6790\u305d\u306e2\u696d\u52d9","survey_name":"\u65e5\u91ce\u5ddd\u5824\u9632\u5730\u8cea\u89e3\u6790\u305d\u306e2\u696d\u52d9","client_name":"\u56fd\u571f\u4ea4\u901a\u7701\u4e2d\u56fd\u5730\u65b9\u6574\u5099\u5c40\u65e5\u91ce\u5ddd\u6cb3\u5ddd\u4e8b\u52d9\u6240","boring_xml_url":47,"boring_view_url":1,"soilmap_view_url":null,"soiltest_xml_url":0,"soiltest_view_url":0},{"id":250155,"code":"B4KJ201802001-5635","latitude":"35.404611","longitude":"133.3735","source_code":"CG048733600200190007","project_name":"\u65e5\u91ce\u5ddd\u5824\u9632\u5730\u8cea\u89e3\u6790\u305d\u306e2\u696d\u52d9","survey_name":"\u65e5\u91ce\u5ddd\u5824\u9632\u5730\u8cea\u89e3\u6790\u305d\u306e2\u696d\u52d9","client_name":"\u56fd\u571f\u4ea4\u901a\u7701\u4e2d\u56fd\u5730\u65b9\u6574\u5099\u5c40\u65e5\u91ce\u5ddd\u6cb3\u5ddd\u4e8b\u52d9\u6240","boring_xml_url":47,"boring_view_url":1,"soilmap_view_url":null,"soiltest_xml_url":0,"soiltest_view_url":0},{"id":250154,"code":"B4KJ201802001-5634","latitude":"35.404722","longitude":"133.373639","source_code":"CG048733600200190006","project_name":"\u65e5\u91ce\u5ddd\u5824\u9632\u5730\u8cea\u89e3\u6790\u305d\u306e2\u696d\u52d9","survey_name":"\u65e5\u91ce\u5ddd\u5824\u9632\u5730\u8cea\u89e3\u6790\u305d\u306e2\u696d\u52d9","client_name":"\u56fd\u571f\u4ea4\u901a\u7701\u4e2d\u56fd\u5730\u65b9\u6574\u5099\u5c40\u65e5\u91ce\u5ddd\u6cb3\u5ddd\u4e8b\u52d9\u6240","boring_xml_url":47,"boring_view_url":1,"soilmap_view_url":null,"soiltest_xml_url":0,"soiltest_view_url":0},{"id":250153,"code":"B4KJ201802001-5633","latitude":"35.437056","longitude":"133.368861","source_code":"CG048733600200190005","project_name":"\u65e5\u91ce\u5ddd\u5824\u9632\u5730\u8cea\u89e3\u6790\u305d\u306e2\u696d\u52d9","survey_name":"\u65e5\u91ce\u5ddd\u5824\u9632\u5730\u8cea\u89e3\u6790\u305d\u306e2\u696d\u52d9","client_name":"\u56fd\u571f\u4ea4\u901a\u7701\u4e2d\u56fd\u5730\u65b9\u6574\u5099\u5c40\u65e5\u91ce\u5ddd\u6cb3\u5ddd\u4e8b\u52d9\u6240","boring_xml_url":47,"boring_view_url":1,"soilmap_view_url":null,"soiltest_xml_url":0,"soiltest_view_url":0},{"id":250152,"code":"B4KJ201802001-5632","latitude":"35.437167","longitude":"133.368583","source_code":"CG048733600200190004","project_name":"\u65e5\u91ce\u5ddd\u5824\u9632\u5730\u8cea\u89e3\u6790\u305d\u306e2\u696d\u52d9","survey_name":"\u65e5\u91ce\u5ddd\u5824\u9632\u5730\u8cea\u89e3\u6790\u305d\u306e2\u696d\u52d9","client_name":"\u56fd\u571f\u4ea4\u901a\u7701\u4e2d\u56fd\u5730\u65b9\u6574\u5099\u5c40\u65e5\u91ce\u5ddd\u6cb3\u5ddd\u4e8b\u52d9\u6240","boring_xml_url":47,"boring_view_url":1,"soilmap_view_url":null,"soiltest_xml_url":0,"soiltest_view_url":0},{"id":250151,"code":"B4KJ201802001-5631","latitude":"35.444139","longitude":"133.372","source_code":"CG048733600200190003","project_name":"\u65e5\u91ce\u5ddd\u5824\u9632\u5730\u8cea\u89e3\u6790\u305d\u306e2\u696d\u52d9","survey_name":"\u65e5\u91ce\u5ddd\u5824\u9632\u5730\u8cea\u89e3\u6790\u305d\u306e2\u696d\u52d9","client_name":"\u56fd\u571f\u4ea4\u901a\u7701\u4e2d\u56fd\u5730\u65b9\u6574\u5099\u5c40\u65e5\u91ce\u5ddd\u6cb3\u5ddd\u4e8b\u52d9\u6240","boring_xml_url":47,"boring_view_url":1,"soilmap_view_url":null,"soiltest_xml_url":0,"soiltest_view_url":0},{"id":250150,"code":"B4KJ201802001-5630","latitude":"35.444361","longitude":"133.371583","source_code":"CG048733600200190002","project_name":"\u65e5\u91ce\u5ddd\u5824\u9632\u5730\u8cea\u89e3\u6790\u305d\u306e2\u696d\u52d9","survey_name":"\u65e5\u91ce\u5ddd\u5824\u9632\u5730\u8cea\u89e3\u6790\u305d\u306e2\u696d\u52d9","client_name":"\u56fd\u571f\u4ea4\u901a\u7701\u4e2d\u56fd\u5730\u65b9\u6574\u5099\u5c40\u65e5\u91ce\u5ddd\u6cb3\u5ddd\u4e8b\u52d9\u6240","boring_xml_url":47,"boring_view_url":1,"soilmap_view_url":null,"soiltest_xml_url":0,"soiltest_view_url":0},{"id":250149,"code":"B4KJ201802001-5629","latitude":"35.44425","longitude":"133.371722","source_code":"CG048733600200190001","project_name":"\u65e5\u91ce\u5ddd\u5824\u9632\u5730\u8cea\u89e3\u6790\u305d\u306e2\u696d\u52d9","survey_name":"\u65e5\u91ce\u5ddd\u5824\u9632\u5730\u8cea\u89e3\u6790\u305d\u306e2\u696d\u52d9","client_name":"\u56fd\u571f\u4ea4\u901a\u7701\u4e2d\u56fd\u5730\u65b9\u6574\u5099\u5c40\u65e5\u91ce\u5ddd\u6cb3\u5ddd\u4e8b\u52d9\u6240","boring_xml_url":47,"boring_view_url":1,"soilmap_view_url":null,"soiltest_xml_url":0,"soiltest_view_url":0},{"id":250148,"code":"B4KJ201802001-5628","latitude":"35.203326","longitude":"133.001068","source_code":"CG038738610200080009","project_name":"\u5c3e\u539f\u30c0\u30e0\u4e0a\u6d41\u8b77\u5cb8\u5730\u8cea\u8abf\u67fb\u696d\u52d9","survey_name":"\u5c3e\u539f\u30c0\u30e0\u4e0a\u6d41\u8b77\u5cb8\u5730\u8cea\u8abf\u67fb\u696d\u52d9","client_name":"\u56fd\u571f\u4ea4\u901a\u7701\u4e2d\u56fd\u5730\u65b9\u6574\u5099\u5c40\u6590\u4f0a\u5ddd\u30fb\u795e\u6238\u5ddd\u7dcf\u5408\u958b\u767a\u5de5\u4e8b\u4e8b\u52d9\u6240","boring_xml_url":47,"boring_view_url":1,"soilmap_view_url":null,"soiltest_xml_url":50,"soiltest_view_url":49},{"id":250147,"code":"B4KJ201802001-5627","latitude":"35.203631","longitude":"133.00004","source_code":"CG038738610200080008","project_name":"\u5c3e\u539f\u30c0\u30e0\u4e0a\u6d41\u8b77\u5cb8\u5730\u8cea\u8abf\u67fb\u696d\u52d9","survey_name":"\u5c3e\u539f\u30c0\u30e0\u4e0a\u6d41\u8b77\u5cb8\u5730\u8cea\u8abf\u67fb\u696d\u52d9","client_name":"\u56fd\u571f\u4ea4\u901a\u7701\u4e2d\u56fd\u5730\u65b9\u6574\u5099\u5c40\u6590\u4f0a\u5ddd\u30fb\u795e\u6238\u5ddd\u7dcf\u5408\u958b\u767a\u5de5\u4e8b\u4e8b\u52d9\u6240","boring_xml_url":47,"boring_view_url":1,"soilmap_view_url":null,"soiltest_xml_url":50,"soiltest_view_url":49},{"id":250146,"code":"B4KJ201802001-5626","latitude":"35.206159","longitude":"132.998846","source_code":"CG038738610200080007","project_name":"\u5c3e\u539f\u30c0\u30e0\u4e0a\u6d41\u8b77\u5cb8\u5730\u8cea\u8abf\u67fb\u696d\u52d9","survey_name":"\u5c3e\u539f\u30c0\u30e0\u4e0a\u6d41\u8b77\u5cb8\u5730\u8cea\u8abf\u67fb\u696d\u52d9","client_name":"\u56fd\u571f\u4ea4\u901a\u7701\u4e2d\u56fd\u5730\u65b9\u6574\u5099\u5c40\u6590\u4f0a\u5ddd\u30fb\u795e\u6238\u5ddd\u7dcf\u5408\u958b\u767a\u5de5\u4e8b\u4e8b\u52d9\u6240","boring_xml_url":47,"boring_view_url":1,"soilmap_view_url":null,"soiltest_xml_url":50,"soiltest_view_url":49},{"id":250145,"code":"B4KJ201802001-5625","latitude":"35.206048","longitude":"132.997512","source_code":"CG038738610200080006","project_name":"\u5c3e\u539f\u30c0\u30e0\u4e0a\u6d41\u8b77\u5cb8\u5730\u8cea\u8abf\u67fb\u696d\u52d9","survey_name":"\u5c3e\u539f\u30c0\u30e0\u4e0a\u6d41\u8b77\u5cb8\u5730\u8cea\u8abf\u67fb\u696d\u52d9","client_name":"\u56fd\u571f\u4ea4\u901a\u7701\u4e2d\u56fd\u5730\u65b9\u6574\u5099\u5c40\u6590\u4f0a\u5ddd\u30fb\u795e\u6238\u5ddd\u7dcf\u5408\u958b\u767a\u5de5\u4e8b\u4e8b\u52d9\u6240","boring_xml_url":47,"boring_view_url":1,"soilmap_view_url":null,"soiltest_xml_url":50,"soiltest_view_url":49},{"id":250144,"code":"B4KJ201802001-5624","latitude":"35.207436","longitude":"132.993763","source_code":"CG038738610200080005","project_name":"\u5c3e\u539f\u30c0\u30e0\u4e0a\u6d41\u8b77\u5cb8\u5730\u8cea\u8abf\u67fb\u696d\u52d9","survey_name":"\u5c3e\u539f\u30c0\u30e0\u4e0a\u6d41\u8b77\u5cb8\u5730\u8cea\u8abf\u67fb\u696d\u52d9","client_name":"\u56fd\u571f\u4ea4\u901a\u7701\u4e2d\u56fd\u5730\u65b9\u6574\u5099\u5c40\u6590\u4f0a\u5ddd\u30fb\u795e\u6238\u5ddd\u7dcf\u5408\u958b\u767a\u5de5\u4e8b\u4e8b\u52d9\u6240","boring_xml_url":47,"boring_view_url":1,"soilmap_view_url":null,"soiltest_xml_url":50,"soiltest_view_url":49},{"id":250143,"code":"B4KJ201802001-5623","latitude":"35.207325","longitude":"132.991319","source_code":"CG038738610200080004","project_name":"\u5c3e\u539f\u30c0\u30e0\u4e0a\u6d41\u8b77\u5cb8\u5730\u8cea\u8abf\u67fb\u696d\u52d9","survey_name":"\u5c3e\u539f\u30c0\u30e0\u4e0a\u6d41\u8b77\u5cb8\u5730\u8cea\u8abf\u67fb\u696d\u52d9","client_name":"\u56fd\u571f\u4ea4\u901a\u7701\u4e2d\u56fd\u5730\u65b9\u6574\u5099\u5c40\u6590\u4f0a\u5ddd\u30fb\u795e\u6238\u5ddd\u7dcf\u5408\u958b\u767a\u5de5\u4e8b\u4e8b\u52d9\u6240","boring_xml_url":47,"boring_view_url":1,"soilmap_view_url":null,"soiltest_xml_url":50,"soiltest_view_url":49},{"id":250142,"code":"B4KJ201802001-5622","latitude":"35.207881","longitude":"132.989374","source_code":"CG038738610200080003","project_name":"\u5c3e\u539f\u30c0\u30e0\u4e0a\u6d41\u8b77\u5cb8\u5730\u8cea\u8abf\u67fb\u696d\u52d9","survey_name":"\u5c3e\u539f\u30c0\u30e0\u4e0a\u6d41\u8b77\u5cb8\u5730\u8cea\u8abf\u67fb\u696d\u52d9","client_name":"\u56fd\u571f\u4ea4\u901a\u7701\u4e2d\u56fd\u5730\u65b9\u6574\u5099\u5c40\u6590\u4f0a\u5ddd\u30fb\u795e\u6238\u5ddd\u7dcf\u5408\u958b\u767a\u5de5\u4e8b\u4e8b\u52d9\u6240","boring_xml_url":47,"boring_view_url":1,"soilmap_view_url":null,"soiltest_xml_url":50,"soiltest_view_url":49},{"id":250141,"code":"B4KJ201802001-5621","latitude":"35.210019","longitude":"132.986625","source_code":"CG038738610200080002","project_name":"\u5c3e\u539f\u30c0\u30e0\u4e0a\u6d41\u8b77\u5cb8\u5730\u8cea\u8abf\u67fb\u696d\u52d9","survey_name":"\u5c3e\u539f\u30c0\u30e0\u4e0a\u6d41\u8b77\u5cb8\u5730\u8cea\u8abf\u67fb\u696d\u52d9","client_name":"\u56fd\u571f\u4ea4\u901a\u7701\u4e2d\u56fd\u5730\u65b9\u6574\u5099\u5c40\u6590\u4f0a\u5ddd\u30fb\u795e\u6238\u5ddd\u7dcf\u5408\u958b\u767a\u5de5\u4e8b\u4e8b\u52d9\u6240","boring_xml_url":47,"boring_view_url":1,"soilmap_view_url":null,"soiltest_xml_url":50,"soiltest_view_url":49},{"id":250140,"code":"B4KJ201802001-5620","latitude":"35.209241","longitude":"132.985791","source_code":"CG038738610200080001","project_name":"\u5c3e\u539f\u30c0\u30e0\u4e0a\u6d41\u8b77\u5cb8\u5730\u8cea\u8abf\u67fb\u696d\u52d9","survey_name":"\u5c3e\u539f\u30c0\u30e0\u4e0a\u6d41\u8b77\u5cb8\u5730\u8cea\u8abf\u67fb\u696d\u52d9","client_name":"\u56fd\u571f\u4ea4\u901a\u7701\u4e2d\u56fd\u5730\u65b9\u6574\u5099\u5c40\u6590\u4f0a\u5ddd\u30fb\u795e\u6238\u5ddd\u7dcf\u5408\u958b\u767a\u5de5\u4e8b\u4e8b\u52d9\u6240","boring_xml_url":47,"boring_view_url":1,"soilmap_view_url":null,"soiltest_xml_url":50,"soiltest_view_url":49},{"id":250139,"code":"B4KJ201802001-5619","latitude":"35.237402","longitude":"132.952684","source_code":"CG018738410200170017","project_name":"","survey_name":"\u5c3e\u539f\u30c0\u30e0\u4ed8\u66ff\u9053\u8def\u5730\u8cea\u8abf\u67fb\u696d\u52d9","client_name":"\u56fd\u571f\u4ea4\u901a\u7701\u4e2d\u56fd\u5730\u65b9\u6574\u5099\u5c40\u6590\u4f0a\u5ddd\u795e\u6238\u5ddd\u7dcf\u5408\u958b\u767a\u5de5\u4e8b\u4e8b\u52d9\u6240\u5de5\u52d92\u8ab2","boring_xml_url":47,"boring_view_url":1,"soilmap_view_url":null,"soiltest_xml_url":0,"soiltest_view_url":0},{"id":250138,"code":"B4KJ201802001-5618","latitude":"35.237791","longitude":"132.953711","source_code":"CG018738410200170016","project_name":"","survey_name":"\u5c3e\u539f\u30c0\u30e0\u4ed8\u66ff\u9053\u8def\u5730\u8cea\u8abf\u67fb\u696d\u52d9","client_name":"\u56fd\u571f\u4ea4\u901a\u7701\u4e2d\u56fd\u5730\u65b9\u6574\u5099\u5c40\u6590\u4f0a\u5ddd\u795e\u6238\u5ddd\u7dcf\u5408\u958b\u767a\u5de5\u4e8b\u4e8b\u52d9\u6240\u5de5\u52d92\u8ab2","boring_xml_url":47,"boring_view_url":1,"soilmap_view_url":null,"soiltest_xml_url":0,"soiltest_view_url":0},{"id":250137,"code":"B4KJ201802001-5617","latitude":"35.239791","longitude":"132.945545","source_code":"CG018738410200170015","project_name":"","survey_name":"\u5c3e\u539f\u30c0\u30e0\u4ed8\u66ff\u9053\u8def\u5730\u8cea\u8abf\u67fb\u696d\u52d9","client_name":"\u56fd\u571f\u4ea4\u901a\u7701\u4e2d\u56fd\u5730\u65b9\u6574\u5099\u5c40\u6590\u4f0a\u5ddd\u795e\u6238\u5ddd\u7dcf\u5408\u958b\u767a\u5de5\u4e8b\u4e8b\u52d9\u6240\u5de5\u52d92\u8ab2","boring_xml_url":47,"boring_view_url":1,"soilmap_view_url":null,"soiltest_xml_url":0,"soiltest_view_url":0},{"id":250136,"code":"B4KJ201802001-5616","latitude":"35.240152","longitude":"132.945934","source_code":"CG018738410200170014","project_name":"","survey_name":"\u5c3e\u539f\u30c0\u30e0\u4ed8\u66ff\u9053\u8def\u5730\u8cea\u8abf\u67fb\u696d\u52d9","client_name":"\u56fd\u571f\u4ea4\u901a\u7701\u4e2d\u56fd\u5730\u65b9\u6574\u5099\u5c40\u6590\u4f0a\u5ddd\u795e\u6238\u5ddd\u7dcf\u5408\u958b\u767a\u5de5\u4e8b\u4e8b\u52d9\u6240\u5de5\u52d92\u8ab2","boring_xml_url":47,"boring_view_url":1,"soilmap_view_url":null,"soiltest_xml_url":0,"soiltest_view_url":0},{"id":250135,"code":"B4KJ201802001-5615","latitude":"35.238263","longitude":"132.953461","source_code":"CG018738410200170012","project_name":"","survey_name":"\u5c3e\u539f\u30c0\u30e0\u4ed8\u66ff\u9053\u8def\u5730\u8cea\u8abf\u67fb\u696d\u52d9","client_name":"\u56fd\u571f\u4ea4\u901a\u7701\u4e2d\u56fd\u5730\u65b9\u6574\u5099\u5c40\u6590\u4f0a\u5ddd\u795e\u6238\u5ddd\u7dcf\u5408\u958b\u767a\u5de5\u4e8b\u4e8b\u52d9\u6240\u5de5\u52d92\u8ab2","boring_xml_url":47,"boring_view_url":1,"soilmap_view_url":null,"soiltest_xml_url":0,"soiltest_view_url":0},{"id":250134,"code":"B4KJ201802001-5614","latitude":"35.235373","longitude":"132.882553","source_code":"CG018738410200170009","project_name":"","survey_name":"\u5c3e\u539f\u30c0\u30e0\u4ed8\u66ff\u9053\u8def\u5730\u8cea\u8abf\u67fb\u696d\u52d9","client_name":"\u56fd\u571f\u4ea4\u901a\u7701\u4e2d\u56fd\u5730\u65b9\u6574\u5099\u5c40\u6590\u4f0a\u5ddd\u795e\u6238\u5ddd\u7dcf\u5408\u958b\u767a\u5de5\u4e8b\u4e8b\u52d9\u6240\u5de5\u52d92\u8ab2","boring_xml_url":47,"boring_view_url":1,"soilmap_view_url":null,"soiltest_xml_url":0,"soiltest_view_url":0},{"id":250133,"code":"B4KJ201802001-5613","latitude":"35.235373","longitude":"132.881581","source_code":"CG018738410200170008","project_name":"","survey_name":"\u5c3e\u539f\u30c0\u30e0\u4ed8\u66ff\u9053\u8def\u5730\u8cea\u8abf\u67fb\u696d\u52d9","client_name":"\u56fd\u571f\u4ea4\u901a\u7701\u4e2d\u56fd\u5730\u65b9\u6574\u5099\u5c40\u6590\u4f0a\u5ddd\u795e\u6238\u5ddd\u7dcf\u5408\u958b\u767a\u5de5\u4e8b\u4e8b\u52d9\u6240\u5de5\u52d92\u8ab2","boring_xml_url":47,"boring_view_url":1,"soilmap_view_url":null,"soiltest_xml_url":0,"soiltest_view_url":0},{"id":250132,"code":"B4KJ201802001-5612","latitude":"35.234818","longitude":"132.882553","source_code":"CG018738410200170007","project_name":"","survey_name":"\u5c3e\u539f\u30c0\u30e0\u4ed8\u66ff\u9053\u8def\u5730\u8cea\u8abf\u67fb\u696d\u52d9","client_name":"\u56fd\u571f\u4ea4\u901a\u7701\u4e2d\u56fd\u5730\u65b9\u6574\u5099\u5c40\u6590\u4f0a\u5ddd\u795e\u6238\u5ddd\u7dcf\u5408\u958b\u767a\u5de5\u4e8b\u4e8b\u52d9\u6240\u5de5\u52d92\u8ab2","boring_xml_url":47,"boring_view_url":1,"soilmap_view_url":null,"soiltest_xml_url":0,"soiltest_view_url":0},{"id":250131,"code":"B4KJ201802001-5611","latitude":"35.234818","longitude":"132.881581","source_code":"CG018738410200170006","project_name":"","survey_name":"\u5c3e\u539f\u30c0\u30e0\u4ed8\u66ff\u9053\u8def\u5730\u8cea\u8abf\u67fb\u696d\u52d9","client_name":"\u56fd\u571f\u4ea4\u901a\u7701\u4e2d\u56fd\u5730\u65b9\u6574\u5099\u5c40\u6590\u4f0a\u5ddd\u795e\u6238\u5ddd\u7dcf\u5408\u958b\u767a\u5de5\u4e8b\u4e8b\u52d9\u6240\u5de5\u52d92\u8ab2","boring_xml_url":47,"boring_view_url":1,"soilmap_view_url":null,"soiltest_xml_url":0,"soiltest_view_url":0},{"id":250130,"code":"B4KJ201802001-5610","latitude":"35.219265","longitude":"132.881025","source_code":"CG018738410200170005","project_name":"","survey_name":"\u5c3e\u539f\u30c0\u30e0\u4ed8\u66ff\u9053\u8def\u5730\u8cea\u8abf\u67fb\u696d\u52d9","client_name":"\u56fd\u571f\u4ea4\u901a\u7701\u4e2d\u56fd\u5730\u65b9\u6574\u5099\u5c40\u6590\u4f0a\u5ddd\u795e\u6238\u5ddd\u7dcf\u5408\u958b\u767a\u5de5\u4e8b\u4e8b\u52d9\u6240\u5de5\u52d9\u7b2c2\u8ab2","boring_xml_url":47,"boring_view_url":1,"soilmap_view_url":null,"soiltest_xml_url":0,"soiltest_view_url":0},{"id":250129,"code":"B4KJ201802001-5609","latitude":"35.219265","longitude":"132.881442","source_code":"CG018738410200170004","project_name":"","survey_name":"\u5c3e\u539f\u30c0\u30e0\u4ed8\u66ff\u9053\u8def\u5730\u8cea\u8abf\u67fb\u696d\u52d9","client_name":"\u56fd\u571f\u4ea4\u901a\u7701\u4e2d\u56fd\u5730\u65b9\u6574\u5099\u5c40\u6590\u4f0a\u5ddd\u795e\u6238\u5ddd\u7dcf\u5408\u958b\u767a\u5de5\u4e8b\u4e8b\u52d9\u6240\u5de5\u52d9\u7b2c2\u8ab2","boring_xml_url":47,"boring_view_url":1,"soilmap_view_url":null,"soiltest_xml_url":0,"soiltest_view_url":0},{"id":250128,"code":"B4KJ201802001-5608","latitude":"35.219959","longitude":"132.881025","source_code":"CG018738410200170003","project_name":"","survey_name":"\u5c3e\u539f\u30c0\u30e0\u4ed8\u66ff\u9053\u8def\u5730\u8cea\u8abf\u67fb\u696d\u52d9","client_name":"\u56fd\u571f\u4ea4\u901a\u7701\u4e2d\u56fd\u5730\u65b9\u6574\u5099\u5c40\u6590\u4f0a\u5ddd\u795e\u6238\u5ddd\u7dcf\u5408\u958b\u767a\u5de5\u4e8b\u4e8b\u52d9\u6240\u5de5\u52d9\u7b2c2\u8ab2","boring_xml_url":47,"boring_view_url":1,"soilmap_view_url":null,"soiltest_xml_url":0,"soiltest_view_url":0},{"id":250127,"code":"B4KJ201802001-5607","latitude":"35.219959","longitude":"132.881719","source_code":"CG018738410200170002","project_name":"","survey_name":"\u5c3e\u539f\u30c0\u30e0\u4ed8\u66ff\u9053\u8def\u5730\u8cea\u8abf\u67fb\u696d\u52d9","client_name":"\u56fd\u571f\u4ea4\u901a\u7701\u4e2d\u56fd\u5730\u65b9\u6574\u5099\u5c40\u6590\u4f0a\u5ddd\u795e\u6238\u5ddd\u7dcf\u5408\u958b\u767a\u5de5\u4e8b\u4e8b\u52d9\u6240\u5de5\u52d9\u7b2c2\u8ab2","boring_xml_url":47,"boring_view_url":1,"soilmap_view_url":null,"soiltest_xml_url":0,"soiltest_view_url":0}]}}