{"header":{"xyz":{"source":[],"mosaic":false},"page":2688,"raw":{"soiltest_result":"0","bbox":"57.598333,109.544722,1.933333,163.806111","page":"2688"},"conditions":{"soiltest_result":0,"north":57.598333,"west":109.544722,"south":1.933333,"east":163.806111},"success":true,"message":""},"data":{"meta":{"total":212844,"page":2688,"pages":7095,"count":30},"values":[{"id":249916,"code":"B4KJ201802001-5396","latitude":"34.086329","longitude":"132.218619","source_code":"CG018753630200450001","project_name":"","survey_name":"\u5e83\u5cf6\u897f\u90e8\u5c71\u7cfb\u6e6f\u821f\u5730\u533a\u5730\u8cea\u8abf\u67fb\u696d\u52d9","client_name":"\u56fd\u571f\u4ea4\u901a\u7701\u4e2d\u56fd\u5730\u65b9\u6574\u5099\u5c40 \u592a\u7530\u5ddd\u5de5\u4e8b\u4e8b\u52d9\u6240\u8abf\u67fb\u8a2d\u8a08\u8ab2","boring_xml_url":47,"boring_view_url":1,"soilmap_view_url":null,"soiltest_xml_url":0,"soiltest_view_url":0},{"id":249915,"code":"B4KJ201802001-5395","latitude":"35.16525","longitude":"132.678111","source_code":"CG028738400200150010","project_name":"\u5fd7\u6d25\u898b\u30c0\u30e0","survey_name":"\u89d2\u4e95\u5730\u533a\u4ed6\u5730\u8cea\u8abf\u67fb\u696d\u52d9","client_name":"\u56fd\u571f\u4ea4\u901a\u7701 \u4e2d\u56fd\u5730\u65b9\u6574\u5099\u5c40 \u6590\u4f0a\u5ddd\u30fb\u795e\u6238\u5ddd\u7dcf\u5408\u958b\u767a\u5de5\u4e8b\u4e8b\u52d9\u6240","boring_xml_url":47,"boring_view_url":1,"soilmap_view_url":null,"soiltest_xml_url":0,"soiltest_view_url":0},{"id":249914,"code":"B4KJ201802001-5394","latitude":"35.165611","longitude":"132.678","source_code":"CG028738400200150008","project_name":"\u5fd7\u6d25\u898b\u30c0\u30e0","survey_name":"\u89d2\u4e95\u5730\u533a\u4ed6\u5730\u8cea\u8abf\u67fb\u696d\u52d9","client_name":"\u56fd\u571f\u4ea4\u901a\u7701 \u4e2d\u56fd\u5730\u65b9\u6574\u5099\u5c40 \u6590\u4f0a\u5ddd\u30fb\u795e\u6238\u5ddd\u7dcf\u5408\u958b\u767a\u5de5\u4e8b\u4e8b\u52d9\u6240","boring_xml_url":47,"boring_view_url":1,"soilmap_view_url":null,"soiltest_xml_url":0,"soiltest_view_url":0},{"id":249913,"code":"B4KJ201802001-5393","latitude":"35.171917","longitude":"132.678667","source_code":"CG028738400200150007","project_name":"\u5fd7\u6d25\u898b\u30c0\u30e0","survey_name":"\u89d2\u4e95\u5730\u533a\u4ed6\u5730\u8cea\u8abf\u67fb\u696d\u52d9","client_name":"\u56fd\u571f\u4ea4\u901a\u7701 \u4e2d\u56fd\u5730\u65b9\u6574\u5099\u5c40 \u6590\u4f0a\u5ddd\u30fb\u795e\u6238\u5ddd\u7dcf\u5408\u958b\u767a\u5de5\u4e8b\u4e8b\u52d9\u6240","boring_xml_url":47,"boring_view_url":1,"soilmap_view_url":null,"soiltest_xml_url":0,"soiltest_view_url":0},{"id":249912,"code":"B4KJ201802001-5392","latitude":"35.172361","longitude":"132.678361","source_code":"CG028738400200150006","project_name":"\u5fd7\u6d25\u898b\u30c0\u30e0","survey_name":"\u89d2\u4e95\u5730\u533a\u4ed6\u5730\u8cea\u8abf\u67fb\u696d\u52d9","client_name":"\u56fd\u571f\u4ea4\u901a\u7701 \u4e2d\u56fd\u5730\u65b9\u6574\u5099\u5c40 \u6590\u4f0a\u5ddd\u30fb\u795e\u6238\u5ddd\u7dcf\u5408\u958b\u767a\u5de5\u4e8b\u4e8b\u52d9\u6240","boring_xml_url":47,"boring_view_url":1,"soilmap_view_url":null,"soiltest_xml_url":0,"soiltest_view_url":0},{"id":249911,"code":"B4KJ201802001-5391","latitude":"34.239056","longitude":"132.610556","source_code":"CG028755600200960017","project_name":"\u5449\u5730\u533a\u5730\u8cea\u8abf\u67fb\u696d\u52d9","survey_name":"\u5449\u5730\u533a\u5730\u8cea\u8abf\u67fb\u696d\u52d9","client_name":"\u56fd\u571f\u4ea4\u901a\u7701\u5e83\u5cf6\u56fd\u9053\u4e8b\u52d9\u6240","boring_xml_url":47,"boring_view_url":1,"soilmap_view_url":null,"soiltest_xml_url":0,"soiltest_view_url":0},{"id":249910,"code":"B4KJ201802001-5390","latitude":"34.239444","longitude":"132.610583","source_code":"CG028755600200960016","project_name":"\u5449\u5730\u533a\u5730\u8cea\u8abf\u67fb\u696d\u52d9","survey_name":"\u5449\u5730\u533a\u5730\u8cea\u8abf\u67fb\u696d\u52d9","client_name":"\u56fd\u571f\u4ea4\u901a\u7701\u5e83\u5cf6\u56fd\u9053\u4e8b\u52d9\u6240","boring_xml_url":47,"boring_view_url":1,"soilmap_view_url":null,"soiltest_xml_url":0,"soiltest_view_url":0},{"id":249909,"code":"B4KJ201802001-5389","latitude":"34.239444","longitude":"132.610583","source_code":"CG028755600200960015","project_name":"\u5449\u5730\u533a\u5730\u8cea\u8abf\u67fb\u696d\u52d9","survey_name":"\u5449\u5730\u533a\u5730\u8cea\u8abf\u67fb\u696d\u52d9","client_name":"\u56fd\u571f\u4ea4\u901a\u7701\u5e83\u5cf6\u56fd\u9053\u4e8b\u52d9\u6240","boring_xml_url":47,"boring_view_url":1,"soilmap_view_url":null,"soiltest_xml_url":0,"soiltest_view_url":0},{"id":249908,"code":"B4KJ201802001-5388","latitude":"34.240139","longitude":"132.610722","source_code":"CG028755600200960014","project_name":"\u5449\u5730\u533a\u5730\u8cea\u8abf\u67fb\u696d\u52d9","survey_name":"\u5449\u5730\u533a\u5730\u8cea\u8abf\u67fb\u696d\u52d9","client_name":"\u56fd\u571f\u4ea4\u901a\u7701\u5e83\u5cf6\u56fd\u9053\u4e8b\u52d9\u6240","boring_xml_url":47,"boring_view_url":1,"soilmap_view_url":null,"soiltest_xml_url":0,"soiltest_view_url":0},{"id":249907,"code":"B4KJ201802001-5387","latitude":"34.2405","longitude":"132.610778","source_code":"CG028755600200960013","project_name":"\u5449\u5730\u533a\u5730\u8cea\u8abf\u67fb\u696d\u52d9","survey_name":"\u5449\u5730\u533a\u5730\u8cea\u8abf\u67fb\u696d\u52d9","client_name":"\u56fd\u571f\u4ea4\u901a\u7701\u5e83\u5cf6\u56fd\u9053\u4e8b\u52d9\u6240","boring_xml_url":47,"boring_view_url":1,"soilmap_view_url":null,"soiltest_xml_url":0,"soiltest_view_url":0},{"id":249906,"code":"B4KJ201802001-5386","latitude":"34.240861","longitude":"132.610861","source_code":"CG028755600200960012","project_name":"\u5449\u5730\u533a\u5730\u8cea\u8abf\u67fb\u696d\u52d9","survey_name":"\u5449\u5730\u533a\u5730\u8cea\u8abf\u67fb\u696d\u52d9","client_name":"\u56fd\u571f\u4ea4\u901a\u7701\u5e83\u5cf6\u56fd\u9053\u4e8b\u52d9\u6240","boring_xml_url":47,"boring_view_url":1,"soilmap_view_url":null,"soiltest_xml_url":0,"soiltest_view_url":0},{"id":249905,"code":"B4KJ201802001-5385","latitude":"34.284982","longitude":"132.628106","source_code":"CG028755600200960011","project_name":"\u5449\u5730\u533a\u5730\u8cea\u8abf\u67fb\u696d\u52d9","survey_name":"\u5449\u5730\u533a\u5730\u8cea\u8abf\u67fb\u696d\u52d9","client_name":"\u56fd\u571f\u4ea4\u901a\u7701\u5e83\u5cf6\u56fd\u9053\u4e8b\u52d9\u6240","boring_xml_url":47,"boring_view_url":1,"soilmap_view_url":null,"soiltest_xml_url":0,"soiltest_view_url":0},{"id":249904,"code":"B4KJ201802001-5384","latitude":"34.282028","longitude":"132.630417","source_code":"CG028755600200960010","project_name":"\u5449\u5730\u533a\u5730\u8cea\u8abf\u67fb\u696d\u52d9","survey_name":"\u5449\u5730\u533a\u5730\u8cea\u8abf\u67fb\u696d\u52d9","client_name":"\u56fd\u571f\u4ea4\u901a\u7701\u5e83\u5cf6\u56fd\u9053\u4e8b\u52d9\u6240","boring_xml_url":47,"boring_view_url":1,"soilmap_view_url":null,"soiltest_xml_url":0,"soiltest_view_url":0},{"id":249903,"code":"B4KJ201802001-5383","latitude":"34.285593","longitude":"132.62769","source_code":"CG028755600200960009","project_name":"\u5449\u5730\u533a\u5730\u8cea\u8abf\u67fb\u696d\u52d9","survey_name":"\u5449\u5730\u533a\u5730\u8cea\u8abf\u67fb\u696d\u52d9","client_name":"\u56fd\u571f\u4ea4\u901a\u7701\u5e83\u5cf6\u56fd\u9053\u4e8b\u52d9\u6240","boring_xml_url":47,"boring_view_url":1,"soilmap_view_url":null,"soiltest_xml_url":0,"soiltest_view_url":0},{"id":249902,"code":"B4KJ201802001-5382","latitude":"34.285787","longitude":"132.627412","source_code":"CG028755600200960008","project_name":"\u5449\u5730\u533a\u5730\u8cea\u8abf\u67fb\u696d\u52d9","survey_name":"\u5449\u5730\u533a\u5730\u8cea\u8abf\u67fb\u696d\u52d9","client_name":"\u56fd\u571f\u4ea4\u901a\u7701\u5e83\u5cf6\u56fd\u9053\u4e8b\u52d9\u6240","boring_xml_url":47,"boring_view_url":1,"soilmap_view_url":null,"soiltest_xml_url":0,"soiltest_view_url":0},{"id":249901,"code":"B4KJ201802001-5381","latitude":"34.286037","longitude":"132.627245","source_code":"CG028755600200960007","project_name":"\u5449\u5730\u533a\u5730\u8cea\u8abf\u67fb\u696d\u52d9","survey_name":"\u5449\u5730\u533a\u5730\u8cea\u8abf\u67fb\u696d\u52d9","client_name":"\u56fd\u571f\u4ea4\u901a\u7701\u5e83\u5cf6\u56fd\u9053\u4e8b\u52d9\u6240","boring_xml_url":47,"boring_view_url":1,"soilmap_view_url":null,"soiltest_xml_url":0,"soiltest_view_url":0},{"id":249900,"code":"B4KJ201802001-5380","latitude":"34.286259","longitude":"132.62694","source_code":"CG028755600200960006","project_name":"\u5449\u5730\u533a\u5730\u8cea\u8abf\u67fb\u696d\u52d9","survey_name":"\u5449\u5730\u533a\u5730\u8cea\u8abf\u67fb\u696d\u52d9","client_name":"\u56fd\u571f\u4ea4\u901a\u7701\u5e83\u5cf6\u56fd\u9053\u4e8b\u52d9\u6240","boring_xml_url":47,"boring_view_url":1,"soilmap_view_url":null,"soiltest_xml_url":0,"soiltest_view_url":0},{"id":249899,"code":"B4KJ201802001-5379","latitude":"34.286565","longitude":"132.626829","source_code":"CG028755600200960005","project_name":"\u5449\u5730\u533a\u5730\u8cea\u8abf\u67fb\u696d\u52d9","survey_name":"\u5449\u5730\u533a\u5730\u8cea\u8abf\u67fb\u696d\u52d9","client_name":"\u56fd\u571f\u4ea4\u901a\u7701\u5e83\u5cf6\u56fd\u9053\u4e8b\u52d9\u6240","boring_xml_url":47,"boring_view_url":1,"soilmap_view_url":null,"soiltest_xml_url":0,"soiltest_view_url":0},{"id":249898,"code":"B4KJ201802001-5378","latitude":"34.286676","longitude":"132.626718","source_code":"CG028755600200960004","project_name":"\u5449\u5730\u533a\u5730\u8cea\u8abf\u67fb\u696d\u52d9","survey_name":"\u5449\u5730\u533a\u5730\u8cea\u8abf\u67fb\u696d\u52d9","client_name":"\u56fd\u571f\u4ea4\u901a\u7701\u5e83\u5cf6\u56fd\u9053\u4e8b\u52d9\u6240","boring_xml_url":47,"boring_view_url":1,"soilmap_view_url":null,"soiltest_xml_url":0,"soiltest_view_url":0},{"id":249897,"code":"B4KJ201802001-5377","latitude":"34.286833","longitude":"132.627583","source_code":"CG028755600200960003","project_name":"\u5449\u5730\u533a\u5730\u8cea\u8abf\u67fb\u696d\u52d9","survey_name":"\u5449\u5730\u533a\u5730\u8cea\u8abf\u67fb\u696d\u52d9","client_name":"\u56fd\u571f\u4ea4\u901a\u7701\u5e83\u5cf6\u56fd\u9053\u4e8b\u52d9\u6240","boring_xml_url":47,"boring_view_url":1,"soilmap_view_url":null,"soiltest_xml_url":0,"soiltest_view_url":0},{"id":249896,"code":"B4KJ201802001-5376","latitude":"34.287528","longitude":"132.627472","source_code":"CG028755600200960002","project_name":"\u5449\u5730\u533a\u5730\u8cea\u8abf\u67fb\u696d\u52d9","survey_name":"\u5449\u5730\u533a\u5730\u8cea\u8abf\u67fb\u696d\u52d9","client_name":"\u56fd\u571f\u4ea4\u901a\u7701\u5e83\u5cf6\u56fd\u9053\u4e8b\u52d9\u6240","boring_xml_url":47,"boring_view_url":1,"soilmap_view_url":null,"soiltest_xml_url":0,"soiltest_view_url":0},{"id":249895,"code":"B4KJ201802001-5375","latitude":"34.287889","longitude":"132.627417","source_code":"CG028755600200960001","project_name":"\u5449\u5730\u533a\u5730\u8cea\u8abf\u67fb\u696d\u52d9","survey_name":"\u5449\u5730\u533a\u5730\u8cea\u8abf\u67fb\u696d\u52d9","client_name":"\u56fd\u571f\u4ea4\u901a\u7701\u5e83\u5cf6\u56fd\u9053\u4e8b\u52d9\u6240","boring_xml_url":47,"boring_view_url":1,"soilmap_view_url":null,"soiltest_xml_url":0,"soiltest_view_url":0},{"id":249894,"code":"B4KJ201802001-5374","latitude":"35.230944","longitude":"132.965889","source_code":"CG028738410200270022","project_name":"\u5c3e\u539f\u30c0\u30e0","survey_name":"\u5c3e\u539f\u30c0\u30e0\u4ed8\u66ff\u9053\u8def\u5730\u8cea\u8abf\u67fb\u305d\u306e3\u696d\u52d9","client_name":"\u56fd\u571f\u4ea4\u901a\u7701\u4e2d\u56fd\u5730\u65b9\u6574\u5099\u5c40\u6590\u4f0a\u5ddd\u30fb\u795e\u6238\u5ddd\u7dcf\u5408\u958b\u767a\u5de5\u4e8b\u4e8b\u52d9\u6240","boring_xml_url":47,"boring_view_url":1,"soilmap_view_url":null,"soiltest_xml_url":0,"soiltest_view_url":0},{"id":249893,"code":"B4KJ201802001-5373","latitude":"35.234306","longitude":"132.950278","source_code":"CG028738410200270021","project_name":"\u5c3e\u539f\u30c0\u30e0","survey_name":"\u5c3e\u539f\u30c0\u30e0\u4ed8\u66ff\u9053\u8def\u5730\u8cea\u8abf\u67fb\u305d\u306e3\u696d\u52d9","client_name":"\u56fd\u571f\u4ea4\u901a\u7701\u4e2d\u56fd\u5730\u65b9\u6574\u5099\u5c40\u6590\u4f0a\u5ddd\u30fb\u795e\u6238\u5ddd\u7dcf\u5408\u958b\u767a\u5de5\u4e8b\u4e8b\u52d9\u6240","boring_xml_url":47,"boring_view_url":1,"soilmap_view_url":null,"soiltest_xml_url":0,"soiltest_view_url":0},{"id":249892,"code":"B4KJ201802001-5372","latitude":"35.235722","longitude":"132.948306","source_code":"CG028738410200270020","project_name":"\u5c3e\u539f\u30c0\u30e0","survey_name":"\u5c3e\u539f\u30c0\u30e0\u4ed8\u66ff\u9053\u8def\u5730\u8cea\u8abf\u67fb\u305d\u306e3\u696d\u52d9","client_name":"\u56fd\u571f\u4ea4\u901a\u7701\u4e2d\u56fd\u5730\u65b9\u6574\u5099\u5c40\u6590\u4f0a\u5ddd\u30fb\u795e\u6238\u5ddd\u7dcf\u5408\u958b\u767a\u5de5\u4e8b\u4e8b\u52d9\u6240","boring_xml_url":47,"boring_view_url":1,"soilmap_view_url":null,"soiltest_xml_url":0,"soiltest_view_url":0},{"id":249891,"code":"B4KJ201802001-5371","latitude":"35.236417","longitude":"132.94725","source_code":"CG028738410200270019","project_name":"\u5c3e\u539f\u30c0\u30e0","survey_name":"\u5c3e\u539f\u30c0\u30e0\u4ed8\u66ff\u9053\u8def\u5730\u8cea\u8abf\u67fb\u305d\u306e3\u696d\u52d9","client_name":"\u56fd\u571f\u4ea4\u901a\u7701\u4e2d\u56fd\u5730\u65b9\u6574\u5099\u5c40\u6590\u4f0a\u5ddd\u30fb\u795e\u6238\u5ddd\u7dcf\u5408\u958b\u767a\u5de5\u4e8b\u4e8b\u52d9\u6240","boring_xml_url":47,"boring_view_url":1,"soilmap_view_url":null,"soiltest_xml_url":0,"soiltest_view_url":0},{"id":249890,"code":"B4KJ201802001-5370","latitude":"35.223278","longitude":"132.973833","source_code":"CG028738410200270003","project_name":"\u5c3e\u539f\u30c0\u30e0","survey_name":"\u5c3e\u539f\u30c0\u30e0\u4ed8\u66ff\u9053\u8def\u5730\u8cea\u8abf\u67fb\u305d\u306e3\u696d\u52d9","client_name":"\u56fd\u571f\u4ea4\u901a\u7701\u4e2d\u56fd\u5730\u65b9\u6574\u5099\u5c40\u6590\u4f0a\u5ddd\u30fb\u795e\u6238\u5ddd\u7dcf\u5408\u958b\u767a\u5de5\u4e8b\u4e8b\u52d9\u6240","boring_xml_url":47,"boring_view_url":1,"soilmap_view_url":null,"soiltest_xml_url":0,"soiltest_view_url":0},{"id":249889,"code":"B4KJ201802001-5369","latitude":"35.223056","longitude":"132.976167","source_code":"CG028738410200270001","project_name":"\u5c3e\u539f\u30c0\u30e0","survey_name":"\u5c3e\u539f\u30c0\u30e0\u4ed8\u66ff\u9053\u8def\u5730\u8cea\u8abf\u67fb\u305d\u306e3\u696d\u52d9","client_name":"\u56fd\u571f\u4ea4\u901a\u7701\u4e2d\u56fd\u5730\u65b9\u6574\u5099\u5c40\u6590\u4f0a\u5ddd\u30fb\u795e\u6238\u5ddd\u7dcf\u5408\u958b\u767a\u5de5\u4e8b\u4e8b\u52d9\u6240","boring_xml_url":47,"boring_view_url":1,"soilmap_view_url":null,"soiltest_xml_url":0,"soiltest_view_url":0},{"id":249888,"code":"B4KJ201802001-5368","latitude":"34.242902","longitude":"132.605082","source_code":"CG018755600200800009","project_name":"\u6771\u5e83\u5cf6\u5449\u81ea\u52d5\u8eca\u9053","survey_name":"\u63da\u5c71\u5730\u8cea\u8abf\u67fb\u696d\u52d9","client_name":"\u56fd\u571f\u4ea4\u901a\u7701 \u4e2d\u56fd\u5730\u65b9\u6574\u5099\u5c40 \u5e83\u5cf6\u56fd\u9053\u5de5\u4e8b\u4e8b\u52d9\u6240","boring_xml_url":47,"boring_view_url":1,"soilmap_view_url":null,"soiltest_xml_url":0,"soiltest_view_url":0},{"id":249887,"code":"B4KJ201802001-5367","latitude":"34.271705","longitude":"132.625135","source_code":"CG018755600200800008","project_name":"\u6771\u5e83\u5cf6\u5449\u81ea\u52d5\u8eca\u9053","survey_name":"\u63da\u5c71\u5730\u8cea\u8abf\u67fb\u696d\u52d9","client_name":"\u56fd\u571f\u4ea4\u901a\u7701 \u4e2d\u56fd\u5730\u65b9\u6574\u5099\u5c40 \u5e83\u5cf6\u56fd\u9053\u5de5\u4e8b\u4e8b\u52d9\u6240","boring_xml_url":47,"boring_view_url":1,"soilmap_view_url":null,"soiltest_xml_url":0,"soiltest_view_url":0}]}}