{"header":{"xyz":{"source":[],"mosaic":false},"page":2693,"raw":{"soiltest_result":"0","bbox":"57.598333,109.544722,1.933333,163.806111","page":"2693"},"conditions":{"soiltest_result":0,"north":57.598333,"west":109.544722,"south":1.933333,"east":163.806111},"success":true,"message":""},"data":{"meta":{"total":212844,"page":2693,"pages":7095,"count":30},"values":[{"id":249766,"code":"B4KJ201802001-5246","latitude":"34.971375","longitude":"132.474603","source_code":"CG028737400200330009","project_name":"","survey_name":"\u6c5f\u306e\u5ddd\u5c3e\u539f\u5730\u533a\u5916\u5730\u8cea\u8abf\u67fb\u696d\u52d9","client_name":"\u56fd\u571f\u4ea4\u901a\u7701\u4e2d\u56fd\u5730\u65b9\u6574\u5099\u5c40\u6d5c\u7530\u5de5\u4e8b\u4e8b\u52d9\u6240","boring_xml_url":47,"boring_view_url":1,"soilmap_view_url":null,"soiltest_xml_url":0,"soiltest_view_url":0},{"id":249765,"code":"B4KJ201802001-5245","latitude":"35.052448","longitude":"132.570675","source_code":"CG028737400200330008","project_name":"","survey_name":"\u6c5f\u306e\u5ddd\u5c3e\u539f\u5730\u533a\u5916\u5730\u8cea\u8abf\u67fb\u696d\u52d9","client_name":"\u56fd\u571f\u4ea4\u901a\u7701\u4e2d\u56fd\u5730\u65b9\u6574\u5099\u5c40\u6d5c\u7530\u5de5\u4e8b\u4e8b\u52d9\u6240","boring_xml_url":47,"boring_view_url":1,"soilmap_view_url":null,"soiltest_xml_url":0,"soiltest_view_url":0},{"id":249764,"code":"B4KJ201802001-5244","latitude":"35.052365","longitude":"132.571147","source_code":"CG028737400200330007","project_name":"","survey_name":"\u6c5f\u306e\u5ddd\u5c3e\u539f\u5730\u533a\u5916\u5730\u8cea\u8abf\u67fb\u696d\u52d9","client_name":"\u56fd\u571f\u4ea4\u901a\u7701\u4e2d\u56fd\u5730\u65b9\u6574\u5099\u5c40\u6d5c\u7530\u5de5\u4e8b\u4e8b\u52d9\u6240","boring_xml_url":47,"boring_view_url":1,"soilmap_view_url":null,"soiltest_xml_url":0,"soiltest_view_url":0},{"id":249763,"code":"B4KJ201802001-5243","latitude":"35.05281","longitude":"132.570814","source_code":"CG028737400200330006","project_name":"","survey_name":"\u6c5f\u306e\u5ddd\u5c3e\u539f\u5730\u533a\u5916\u5730\u8cea\u8abf\u67fb\u696d\u52d9","client_name":"\u56fd\u571f\u4ea4\u901a\u7701\u4e2d\u56fd\u5730\u65b9\u6574\u5099\u5c40\u6d5c\u7530\u5de5\u4e8b\u4e8b\u52d9\u6240","boring_xml_url":47,"boring_view_url":1,"soilmap_view_url":null,"soiltest_xml_url":0,"soiltest_view_url":0},{"id":249762,"code":"B4KJ201802001-5242","latitude":"35.053226","longitude":"132.570536","source_code":"CG028737400200330005","project_name":"","survey_name":"\u6c5f\u306e\u5ddd\u5c3e\u539f\u5730\u533a\u5916\u5730\u8cea\u8abf\u67fb\u696d\u52d9","client_name":"\u56fd\u571f\u4ea4\u901a\u7701\u4e2d\u56fd\u5730\u65b9\u6574\u5099\u5c40\u6d5c\u7530\u5de5\u4e8b\u4e8b\u52d9\u6240","boring_xml_url":47,"boring_view_url":1,"soilmap_view_url":null,"soiltest_xml_url":0,"soiltest_view_url":0},{"id":249761,"code":"B4KJ201802001-5241","latitude":"34.964431","longitude":"132.465937","source_code":"CG028737400200330004","project_name":"","survey_name":"\u6c5f\u306e\u5ddd\u5c3e\u539f\u5730\u533a\u5916\u5730\u8cea\u8abf\u67fb\u696d\u52d9","client_name":"\u56fd\u571f\u4ea4\u901a\u7701\u4e2d\u56fd\u5730\u65b9\u6574\u5099\u5c40\u6d5c\u7530\u5de5\u4e8b\u4e8b\u52d9\u6240","boring_xml_url":47,"boring_view_url":1,"soilmap_view_url":null,"soiltest_xml_url":0,"soiltest_view_url":0},{"id":249760,"code":"B4KJ201802001-5240","latitude":"34.962487","longitude":"132.462021","source_code":"CG028737400200330003","project_name":"","survey_name":"\u6c5f\u306e\u5ddd\u5c3e\u539f\u5730\u533a\u5916\u5730\u8cea\u8abf\u67fb\u696d\u52d9","client_name":"\u56fd\u571f\u4ea4\u901a\u7701\u4e2d\u56fd\u5730\u65b9\u6574\u5099\u5c40\u6d5c\u7530\u5de5\u4e8b\u4e8b\u52d9\u6240","boring_xml_url":47,"boring_view_url":1,"soilmap_view_url":null,"soiltest_xml_url":0,"soiltest_view_url":0},{"id":249759,"code":"B4KJ201802001-5239","latitude":"34.962209","longitude":"132.462215","source_code":"CG028737400200330002","project_name":"","survey_name":"\u6c5f\u306e\u5ddd\u5c3e\u539f\u5730\u533a\u5916\u5730\u8cea\u8abf\u67fb\u696d\u52d9","client_name":"\u56fd\u571f\u4ea4\u901a\u7701\u4e2d\u56fd\u5730\u65b9\u6574\u5099\u5c40\u6d5c\u7530\u5de5\u4e8b\u4e8b\u52d9\u6240","boring_xml_url":47,"boring_view_url":1,"soilmap_view_url":null,"soiltest_xml_url":50,"soiltest_view_url":49},{"id":249758,"code":"B4KJ201802001-5238","latitude":"34.952486","longitude":"132.411831","source_code":"CG028737400200330001","project_name":"","survey_name":"\u6c5f\u306e\u5ddd\u5c3e\u539f\u5730\u533a\u5916\u5730\u8cea\u8abf\u67fb\u696d\u52d9","client_name":"\u56fd\u571f\u4ea4\u901a\u7701\u4e2d\u56fd\u5730\u65b9\u6574\u5099\u5c40\u6d5c\u7530\u5de5\u4e8b\u4e8b\u52d9\u6240","boring_xml_url":47,"boring_view_url":1,"soilmap_view_url":null,"soiltest_xml_url":0,"soiltest_view_url":0},{"id":249757,"code":"B4KJ201802001-5237","latitude":"34.586861","longitude":"131.801917","source_code":"CG02873753020010002","project_name":"\u6d5c\u7530\u7ba1\u5185\u5730\u8cea\u8abf\u67fb\u696d\u52d9","survey_name":"\u6d5c\u7530\u7ba1\u5185\u5730\u8cea\u8abf\u67fb\u696d\u52d9","client_name":"\u56fd\u571f\u4ea4\u901a\u7701 \u4e2d\u56fd\u5730\u65b9\u6574\u5099\u5c40 \u6d5c\u7530\u5de5\u4e8b\u4e8b\u52d9\u6240","boring_xml_url":46,"boring_view_url":1,"soilmap_view_url":null,"soiltest_xml_url":0,"soiltest_view_url":0},{"id":249756,"code":"B4KJ201802001-5236","latitude":"34.465667","longitude":"133.317","source_code":"CG038750610200450009","project_name":"","survey_name":"\u798f\u5c71\u9053\u8def\u702c\u6238\u5730\u533a\u5730\u8cea\u8abf\u67fb\u696d\u52d9","client_name":"\u56fd\u571f\u4ea4\u901a\u7701\u4e2d\u56fd\u5730\u65b9\u6574\u5099\u5c40\u798f\u5c71\u6cb3\u5ddd\u56fd\u9053\u4e8b\u52d9\u6240\u8abf\u67fb\u8a2d\u8a08\u4e8c\u8ab2","boring_xml_url":47,"boring_view_url":1,"soilmap_view_url":null,"soiltest_xml_url":0,"soiltest_view_url":0},{"id":249755,"code":"B4KJ201802001-5235","latitude":"34.264643","longitude":"132.231946","source_code":"CG028753420200530004","project_name":"\u5e83\u5cf6\u897f\u90e8\u5c71\u7cfb\u7396\u6ce2\u5730\u533a\u5730\u8cea\u8abf\u67fb\u30fb\u7802\u9632\u5830\u5824\u8a2d\u8a08\u696d\u52d9","survey_name":"\u5e83\u5cf6\u897f\u90e8\u5c71\u7cfb\u7396\u6ce2\u5730\u533a\u5730\u8cea\u8abf\u67fb\u30fb\u7802\u9632\u5830\u5824\u8a2d\u8a08\u696d\u52d9","client_name":"\u4e2d\u56fd\u5730\u65b9\u6574\u5099\u5c40\u592a\u7530\u5ddd\u6cb3\u5ddd\u4e8b\u52d9\u6240","boring_xml_url":47,"boring_view_url":1,"soilmap_view_url":null,"soiltest_xml_url":0,"soiltest_view_url":0},{"id":249754,"code":"B4KJ201802001-5234","latitude":"34.264643","longitude":"132.231668","source_code":"CG028753420200530003","project_name":"\u5e83\u5cf6\u897f\u90e8\u5c71\u7cfb\u7396\u6ce2\u5730\u533a\u5730\u8cea\u8abf\u67fb\u30fb\u7802\u9632\u5830\u5824\u8a2d\u8a08\u696d\u52d9","survey_name":"\u5e83\u5cf6\u897f\u90e8\u5c71\u7cfb\u7396\u6ce2\u5730\u533a\u5730\u8cea\u8abf\u67fb\u30fb\u7802\u9632\u5830\u5824\u8a2d\u8a08\u696d\u52d9","client_name":"\u4e2d\u56fd\u5730\u65b9\u6574\u5099\u5c40\u592a\u7530\u5ddd\u6cb3\u5ddd\u4e8b\u52d9\u6240","boring_xml_url":47,"boring_view_url":1,"soilmap_view_url":null,"soiltest_xml_url":0,"soiltest_view_url":0},{"id":249753,"code":"B4KJ201802001-5233","latitude":"34.264921","longitude":"132.231946","source_code":"CG028753420200530002","project_name":"\u5e83\u5cf6\u897f\u90e8\u5c71\u7cfb\u7396\u6ce2\u5730\u533a\u5730\u8cea\u8abf\u67fb\u30fb\u7802\u9632\u5830\u5824\u8a2d\u8a08\u696d\u52d9","survey_name":"\u5e83\u5cf6\u897f\u90e8\u5c71\u7cfb\u7396\u6ce2\u5730\u533a\u5730\u8cea\u8abf\u67fb\u30fb\u7802\u9632\u5830\u5824\u8a2d\u8a08\u696d\u52d9","client_name":"\u4e2d\u56fd\u5730\u65b9\u6574\u5099\u5c40\u592a\u7530\u5ddd\u6cb3\u5ddd\u4e8b\u52d9\u6240","boring_xml_url":47,"boring_view_url":1,"soilmap_view_url":null,"soiltest_xml_url":0,"soiltest_view_url":0},{"id":249752,"code":"B4KJ201802001-5232","latitude":"34.264921","longitude":"132.232224","source_code":"CG028753420200530001","project_name":"\u5e83\u5cf6\u897f\u90e8\u5c71\u7cfb\u7396\u6ce2\u5730\u533a\u5730\u8cea\u8abf\u67fb\u30fb\u7802\u9632\u5830\u5824\u8a2d\u8a08\u696d\u52d9","survey_name":"\u5e83\u5cf6\u897f\u90e8\u5c71\u7cfb\u7396\u6ce2\u5730\u533a\u5730\u8cea\u8abf\u67fb\u30fb\u7802\u9632\u5830\u5824\u8a2d\u8a08\u696d\u52d9","client_name":"\u4e2d\u56fd\u5730\u65b9\u6574\u5099\u5c40\u592a\u7530\u5ddd\u6cb3\u5ddd\u4e8b\u52d9\u6240","boring_xml_url":47,"boring_view_url":1,"soilmap_view_url":null,"soiltest_xml_url":0,"soiltest_view_url":0},{"id":249751,"code":"B4KJ201802001-5231","latitude":"35.349522","longitude":"132.732426","source_code":"CG038736400200090010","project_name":"","survey_name":"\u653e\u6c34\u8def\u5730\u8cea\u8abf\u67fb\u696d\u52d9","client_name":"\u56fd\u571f\u4ea4\u901a\u7701\u4e2d\u56fd\u5730\u65b9\u6574\u5099\u5c40\u51fa\u96f2\u6cb3\u5ddd\u4e8b\u52d9\u6240","boring_xml_url":47,"boring_view_url":1,"soilmap_view_url":null,"soiltest_xml_url":0,"soiltest_view_url":0},{"id":249750,"code":"B4KJ201802001-5230","latitude":"35.348689","longitude":"132.73187","source_code":"CG038736400200090009","project_name":"","survey_name":"\u653e\u6c34\u8def\u5730\u8cea\u8abf\u67fb\u696d\u52d9","client_name":"\u56fd\u571f\u4ea4\u901a\u7701\u4e2d\u56fd\u5730\u65b9\u6574\u5099\u5c40\u51fa\u96f2\u6cb3\u5ddd\u4e8b\u52d9\u6240","boring_xml_url":47,"boring_view_url":1,"soilmap_view_url":null,"soiltest_xml_url":0,"soiltest_view_url":0},{"id":249749,"code":"B4KJ201802001-5229","latitude":"35.350889","longitude":"132.784694","source_code":"CG038736400200160017","project_name":"\u653e\u6c34\u8def\u958b\u524a\u90e8\u5730\u8cea\u8abf\u67fb\u696d\u52d9","survey_name":"\u653e\u6c34\u8def\u958b\u524a\u90e8\u5730\u8cea\u8abf\u67fb\u696d\u52d9","client_name":"\u56fd\u4ea4\u7701\u4ea4\u901a\u7701 \u4e2d\u56fd\u5730\u65b9\u6574\u5099\u5c40 \u51fa\u96f2\u6cb3\u5ddd\u4e8b\u52d9\u6240","boring_xml_url":47,"boring_view_url":1,"soilmap_view_url":null,"soiltest_xml_url":0,"soiltest_view_url":0},{"id":249748,"code":"B4KJ201802001-5228","latitude":"35.351583","longitude":"132.783861","source_code":"CG038736400200160016","project_name":"\u653e\u6c34\u8def\u958b\u524a\u90e8\u5730\u8cea\u8abf\u67fb\u696d\u52d9","survey_name":"\u653e\u6c34\u8def\u958b\u524a\u90e8\u5730\u8cea\u8abf\u67fb\u696d\u52d9","client_name":"\u56fd\u571f\u4ea4\u901a\u7701 \u4e2d\u56fd\u5730\u65b9\u6574\u5099\u5c40 \u51fa\u96f2\u6cb3\u5ddd\u4e8b\u52d9\u6240","boring_xml_url":47,"boring_view_url":1,"soilmap_view_url":null,"soiltest_xml_url":0,"soiltest_view_url":0},{"id":249747,"code":"B4KJ201802001-5227","latitude":"35.348139","longitude":"132.737917","source_code":"CG038736400200160011","project_name":"\u653e\u6c34\u8def\u958b\u524a\u90e8\u5730\u8cea\u8abf\u67fb\u696d\u52d9","survey_name":"\u653e\u6c34\u8def\u958b\u524a\u90e8\u5730\u8cea\u8abf\u67fb\u696d\u52d9","client_name":"\u56fd\u571f\u4ea4\u901a\u7701 \u4e2d\u56fd\u5730\u65b9\u6574\u5099\u5c40 \u51fa\u96f2\u6cb3\u5ddd\u4e8b\u52d9\u6240","boring_xml_url":47,"boring_view_url":1,"soilmap_view_url":null,"soiltest_xml_url":0,"soiltest_view_url":0},{"id":249746,"code":"B4KJ201802001-5226","latitude":"35.353056","longitude":"132.782694","source_code":"CG038736400200160004","project_name":"\u653e\u6c34\u8def\u958b\u524a\u90e8\u5730\u8cea\u8abf\u67fb\u696d\u52d9","survey_name":"\u653e\u6c34\u8def\u958b\u524a\u90e8\u5730\u8cea\u8abf\u67fb\u696d\u52d9","client_name":"\u56fd\u571f\u4ea4\u901a\u7701 \u4e2d\u56fd\u5730\u65b9\u6574\u5099\u5c40 \u51fa\u96f2\u6cb3\u5ddd\u4e8b\u52d9\u6240","boring_xml_url":47,"boring_view_url":1,"soilmap_view_url":null,"soiltest_xml_url":0,"soiltest_view_url":0},{"id":249745,"code":"B4KJ201802001-5225","latitude":"35.354722","longitude":"132.782417","source_code":"CG038736400200160003","project_name":"\u653e\u6c34\u8def\u958b\u524a\u90e8\u5730\u8cea\u8abf\u67fb\u696d\u52d9","survey_name":"\u653e\u6c34\u8def\u958b\u524a\u90e8\u5730\u8cea\u8abf\u67fb\u696d\u52d9","client_name":"\u56fd\u571f\u4ea4\u901a\u7701 \u4e2d\u56fd\u5730\u65b9\u6574\u5099\u5c40 \u51fa\u96f2\u6cb3\u5ddd\u4e8b\u52d9\u6240","boring_xml_url":47,"boring_view_url":1,"soilmap_view_url":null,"soiltest_xml_url":0,"soiltest_view_url":0},{"id":249744,"code":"B4KJ201802001-5224","latitude":"35.354639","longitude":"132.784694","source_code":"CG038736400200160002","project_name":"\u653e\u6c34\u8def\u958b\u524a\u90e8\u5730\u8cea\u8abf\u67fb\u696d\u52d9","survey_name":"\u653e\u6c34\u8def\u958b\u524a\u90e8\u5730\u8cea\u8abf\u67fb\u696d\u52d9","client_name":"\u56fd\u571f\u4ea4\u901a\u7701 \u4e2d\u56fd\u5730\u65b9\u6574\u5099\u5c40 \u51fa\u96f2\u6cb3\u5ddd\u4e8b\u52d9\u6240","boring_xml_url":47,"boring_view_url":1,"soilmap_view_url":null,"soiltest_xml_url":0,"soiltest_view_url":0},{"id":249743,"code":"B4KJ201802001-5223","latitude":"35.501028","longitude":"133.132167","source_code":"CG038736600200270015","project_name":"","survey_name":"\u672c\u5e84\u5730\u533a \u5730\u8cea\u8abf\u67fb\u696d\u52d9","client_name":"\u56fd\u571f\u4ea4\u901a\u7701 \u4e2d\u56fd\u5730\u65b9\u6574\u5099\u5c40 \u51fa\u96f2\u6cb3\u5ddd\u4e8b\u52d9\u6240                    \u8abf\u67fb\u8a2d\u8a08\u8ab2","boring_xml_url":47,"boring_view_url":1,"soilmap_view_url":null,"soiltest_xml_url":0,"soiltest_view_url":0},{"id":249742,"code":"B4KJ201802001-5222","latitude":"35.5015","longitude":"133.131528","source_code":"CG038736600200270014","project_name":"","survey_name":"\u672c\u5e84\u5730\u533a \u5730\u8cea\u8abf\u67fb\u696d\u52d9","client_name":"\u56fd\u571f\u4ea4\u901a\u7701 \u4e2d\u56fd\u5730\u65b9\u6574\u5099\u5c40 \u51fa\u96f2\u6cb3\u5ddd\u4e8b\u52d9\u6240                    \u8abf\u67fb\u8a2d\u8a08\u8ab2","boring_xml_url":47,"boring_view_url":1,"soilmap_view_url":null,"soiltest_xml_url":0,"soiltest_view_url":0},{"id":249741,"code":"B4KJ201802001-5221","latitude":"35.502278","longitude":"133.131306","source_code":"CG038736600200270013","project_name":"","survey_name":"\u672c\u5e84\u5730\u533a \u5730\u8cea\u8abf\u67fb\u696d\u52d9","client_name":"\u56fd\u571f\u4ea4\u901a\u7701 \u4e2d\u56fd\u5730\u65b9\u6574\u5099\u5c40 \u51fa\u96f2\u6cb3\u5ddd\u4e8b\u52d9\u6240                    \u8abf\u67fb\u8a2d\u8a08\u8ab2","boring_xml_url":47,"boring_view_url":1,"soilmap_view_url":null,"soiltest_xml_url":0,"soiltest_view_url":0},{"id":249740,"code":"B4KJ201802001-5220","latitude":"35.502944","longitude":"133.130917","source_code":"CG038736600200270012","project_name":"","survey_name":"\u672c\u5e84\u5730\u533a \u5730\u8cea\u8abf\u67fb\u696d\u52d9","client_name":"\u56fd\u571f\u4ea4\u901a\u7701 \u4e2d\u56fd\u5730\u65b9\u6574\u5099\u5c40 \u51fa\u96f2\u6cb3\u5ddd\u4e8b\u52d9\u6240                    \u8abf\u67fb\u8a2d\u8a08\u8ab2","boring_xml_url":47,"boring_view_url":1,"soilmap_view_url":null,"soiltest_xml_url":0,"soiltest_view_url":0},{"id":249739,"code":"B4KJ201802001-5219","latitude":"35.503444","longitude":"133.130722","source_code":"CG038736600200270011","project_name":"","survey_name":"\u672c\u5e84\u5730\u533a \u5730\u8cea\u8abf\u67fb\u696d\u52d9","client_name":"\u56fd\u571f\u4ea4\u901a\u7701 \u4e2d\u56fd\u5730\u65b9\u6574\u5099\u5c40 \u51fa\u96f2\u6cb3\u5ddd\u4e8b\u52d9\u6240                    \u8abf\u67fb\u8a2d\u8a08\u8ab2","boring_xml_url":47,"boring_view_url":1,"soilmap_view_url":null,"soiltest_xml_url":0,"soiltest_view_url":0},{"id":249738,"code":"B4KJ201802001-5218","latitude":"35.504083","longitude":"133.130694","source_code":"CG038736600200270010","project_name":"","survey_name":"\u672c\u5e84\u5730\u533a \u5730\u8cea\u8abf\u67fb\u696d\u52d9","client_name":"\u56fd\u571f\u4ea4\u901a\u7701 \u4e2d\u56fd\u5730\u65b9\u6574\u5099\u5c40 \u51fa\u96f2\u6cb3\u5ddd\u4e8b\u52d9\u6240                    \u8abf\u67fb\u8a2d\u8a08\u8ab2","boring_xml_url":47,"boring_view_url":1,"soilmap_view_url":null,"soiltest_xml_url":0,"soiltest_view_url":0},{"id":249737,"code":"B4KJ201802001-5217","latitude":"35.505028","longitude":"133.130667","source_code":"CG038736600200270009","project_name":"","survey_name":"\u672c\u5e84\u5730\u533a \u5730\u8cea\u8abf\u67fb\u696d\u52d9","client_name":"\u56fd\u571f\u4ea4\u901a\u7701 \u4e2d\u56fd\u5730\u65b9\u6574\u5099\u5c40 \u51fa\u96f2\u6cb3\u5ddd\u4e8b\u52d9\u6240                    \u8abf\u67fb\u8a2d\u8a08\u8ab2","boring_xml_url":47,"boring_view_url":1,"soilmap_view_url":null,"soiltest_xml_url":0,"soiltest_view_url":0}]}}