{"header":{"xyz":{"source":[],"mosaic":false},"page":2695,"raw":{"soiltest_result":"0","bbox":"57.598333,109.544722,1.933333,163.806111","page":"2695"},"conditions":{"soiltest_result":0,"north":57.598333,"west":109.544722,"south":1.933333,"east":163.806111},"success":true,"message":""},"data":{"meta":{"total":212844,"page":2695,"pages":7095,"count":30},"values":[{"id":249706,"code":"B4KJ201802001-5186","latitude":"35.076056","longitude":"132.334861","source_code":"CG048735600200080002","project_name":"\u798f\u6ce2\u5730\u533a\u5730\u8cea\u8abf\u67fb\u696d\u52d9","survey_name":"\u798f\u6ce2\u5730\u533a\u5730\u8cea\u8abf\u67fb\u696d\u52d9","client_name":"\u56fd\u571f\u4ea4\u901a\u7701\u4e2d\u56fd\u5730\u65b9\u6574\u5099\u5c40\u677e\u6c5f\u56fd\u9053\u4e8b\u52d9\u6240","boring_xml_url":47,"boring_view_url":1,"soilmap_view_url":null,"soiltest_xml_url":50,"soiltest_view_url":49},{"id":249705,"code":"B4KJ201802001-5185","latitude":"35.076583","longitude":"132.335361","source_code":"CG048735600200080001","project_name":"\u798f\u6ce2\u5730\u533a\u5730\u8cea\u8abf\u67fb\u696d\u52d9","survey_name":"\u798f\u6ce2\u5730\u533a\u5730\u8cea\u8abf\u67fb\u696d\u52d9","client_name":"\u56fd\u571f\u4ea4\u901a\u7701\u4e2d\u56fd\u5730\u65b9\u6574\u5099\u5c40\u677e\u6c5f\u56fd\u9053\u4e8b\u52d9\u6240","boring_xml_url":47,"boring_view_url":1,"soilmap_view_url":null,"soiltest_xml_url":0,"soiltest_view_url":0},{"id":249704,"code":"B4KJ201802001-5184","latitude":"35.455694","longitude":"133.049889","source_code":"CG028735600200170011","project_name":"","survey_name":"\u4e09\u5200\u5c4b\u5730\u533a\u5916\u5730\u8cea\u8abf\u67fb\u696d\u52d9","client_name":"\u56fd\u571f\u4ea4\u901a\u7701\u4e2d\u56fd\u5730\u65b9\u6574\u5099\u5c40\u677e\u6c5f\u56fd\u9053\u4e8b\u52d9\u6240","boring_xml_url":47,"boring_view_url":1,"soilmap_view_url":null,"soiltest_xml_url":50,"soiltest_view_url":49},{"id":249703,"code":"B4KJ201802001-5183","latitude":"35.282722","longitude":"132.864861","source_code":"CG028735600200170009","project_name":"","survey_name":"\u4e09\u5200\u5c4b\u5730\u533a\u5916\u5730\u8cea\u8abf\u67fb\u696d\u52d9","client_name":"\u56fd\u571f\u4ea4\u901a\u7701\u4e2d\u56fd\u5730\u65b9\u6574\u5099\u5c40\u677e\u6c5f\u56fd\u9053\u4e8b\u52d9\u6240","boring_xml_url":47,"boring_view_url":1,"soilmap_view_url":null,"soiltest_xml_url":0,"soiltest_view_url":0},{"id":249702,"code":"B4KJ201802001-5182","latitude":"35.282778","longitude":"132.864833","source_code":"CG028735600200170007","project_name":"","survey_name":"\u4e09\u5200\u5c4b\u5730\u533a\u5916\u5730\u8cea\u8abf\u67fb\u696d\u52d9","client_name":"\u56fd\u571f\u4ea4\u901a\u7701\u4e2d\u56fd\u5730\u65b9\u6574\u5099\u5c40\u677e\u6c5f\u56fd\u9053\u4e8b\u52d9\u6240","boring_xml_url":47,"boring_view_url":1,"soilmap_view_url":null,"soiltest_xml_url":0,"soiltest_view_url":0},{"id":249701,"code":"B4KJ201802001-5181","latitude":"35.28225","longitude":"132.864","source_code":"CG028735600200170006","project_name":"","survey_name":"\u4e09\u5200\u5c4b\u5730\u533a\u5916\u5730\u8cea\u8abf\u67fb\u696d\u52d9","client_name":"\u56fd\u571f\u4ea4\u901a\u7701\u4e2d\u56fd\u5730\u65b9\u6574\u5099\u5c40\u677e\u6c5f\u56fd\u9053\u4e8b\u52d9\u6240","boring_xml_url":47,"boring_view_url":1,"soilmap_view_url":null,"soiltest_xml_url":0,"soiltest_view_url":0},{"id":249700,"code":"B4KJ201802001-5180","latitude":"35.282278","longitude":"132.864","source_code":"CG028735600200170005","project_name":"","survey_name":"\u4e09\u5200\u5c4b\u5730\u533a\u5916\u5730\u8cea\u8abf\u67fb\u696d\u52d9","client_name":"\u56fd\u571f\u4ea4\u901a\u7701\u4e2d\u56fd\u5730\u65b9\u6574\u5099\u5c40\u677e\u6c5f\u56fd\u9053\u4e8b\u52d9\u6240","boring_xml_url":47,"boring_view_url":1,"soilmap_view_url":null,"soiltest_xml_url":0,"soiltest_view_url":0},{"id":249699,"code":"B4KJ201802001-5179","latitude":"35.282306","longitude":"132.863944","source_code":"CG028735600200170004","project_name":"","survey_name":"\u4e09\u5200\u5c4b\u5730\u533a\u5916\u5730\u8cea\u8abf\u67fb\u696d\u52d9","client_name":"\u56fd\u571f\u4ea4\u901a\u7701\u4e2d\u56fd\u5730\u65b9\u6574\u5099\u5c40\u677e\u6c5f\u56fd\u9053\u4e8b\u52d9\u6240","boring_xml_url":47,"boring_view_url":1,"soilmap_view_url":null,"soiltest_xml_url":0,"soiltest_view_url":0},{"id":249698,"code":"B4KJ201802001-5178","latitude":"35.281778","longitude":"132.863111","source_code":"CG028735600200170003","project_name":"","survey_name":"\u4e09\u5200\u5c4b\u5730\u533a\u5916\u5730\u8cea\u8abf\u67fb\u696d\u52d9","client_name":"\u56fd\u571f\u4ea4\u901a\u7701\u4e2d\u56fd\u5730\u65b9\u6574\u5099\u5c40\u677e\u6c5f\u56fd\u9053\u4e8b\u52d9\u6240","boring_xml_url":47,"boring_view_url":1,"soilmap_view_url":null,"soiltest_xml_url":0,"soiltest_view_url":0},{"id":249697,"code":"B4KJ201802001-5177","latitude":"35.281861","longitude":"132.863083","source_code":"CG028735600200170001","project_name":"","survey_name":"\u4e09\u5200\u5c4b\u5730\u533a\u5916\u5730\u8cea\u8abf\u67fb\u696d\u52d9","client_name":"\u56fd\u571f\u4ea4\u901a\u7701\u4e2d\u56fd\u5730\u65b9\u6574\u5099\u5c40\u677e\u6c5f\u56fd\u9053\u4e8b\u52d9\u6240","boring_xml_url":47,"boring_view_url":1,"soilmap_view_url":null,"soiltest_xml_url":0,"soiltest_view_url":0},{"id":249696,"code":"B4KJ201802001-5176","latitude":"35.281194","longitude":"132.862556","source_code":"CG038735600200300008","project_name":"","survey_name":"\u4e09\u5200\u5c4b\u5730\u533a\u5730\u8cea\u8abf\u67fb\u696d\u52d9","client_name":"\u56fd\u571f\u4ea4\u901a\u7701\u4e2d\u56fd\u5730\u65b9\u6574\u5099\u5c40\u677e\u6c5f\u56fd\u9053\u4e8b\u52d9\u6240","boring_xml_url":47,"boring_view_url":1,"soilmap_view_url":null,"soiltest_xml_url":0,"soiltest_view_url":0},{"id":249695,"code":"B4KJ201802001-5175","latitude":"35.281028","longitude":"132.862278","source_code":"CG038735600200300007","project_name":"","survey_name":"\u4e09\u5200\u5c4b\u5730\u533a\u5730\u8cea\u8abf\u67fb\u696d\u52d9","client_name":"\u56fd\u571f\u4ea4\u901a\u7701\u4e2d\u56fd\u5730\u65b9\u6574\u5099\u5c40\u677e\u6c5f\u56fd\u9053\u4e8b\u52d9\u6240","boring_xml_url":47,"boring_view_url":1,"soilmap_view_url":null,"soiltest_xml_url":0,"soiltest_view_url":0},{"id":249694,"code":"B4KJ201802001-5174","latitude":"35.280778","longitude":"132.861611","source_code":"CG038735600200300006","project_name":"","survey_name":"\u4e09\u5200\u5c4b\u5730\u533a\u5730\u8cea\u8abf\u67fb\u696d\u52d9","client_name":"\u56fd\u571f\u4ea4\u901a\u7701\u4e2d\u56fd\u5730\u65b9\u6574\u5099\u5c40\u677e\u6c5f\u56fd\u9053\u4e8b\u52d9\u6240","boring_xml_url":47,"boring_view_url":1,"soilmap_view_url":null,"soiltest_xml_url":0,"soiltest_view_url":0},{"id":249693,"code":"B4KJ201802001-5173","latitude":"35.283139","longitude":"132.865833","source_code":"CG038735600200300005","project_name":"","survey_name":"\u4e09\u5200\u5c4b\u5730\u533a\u5730\u8cea\u8abf\u67fb\u696d\u52d9","client_name":"\u56fd\u571f\u4ea4\u901a\u7701\u4e2d\u56fd\u5730\u65b9\u6574\u5099\u5c40\u677e\u6c5f\u56fd\u9053\u4e8b\u52d9\u6240","boring_xml_url":47,"boring_view_url":1,"soilmap_view_url":null,"soiltest_xml_url":0,"soiltest_view_url":0},{"id":249692,"code":"B4KJ201802001-5172","latitude":"35.282889","longitude":"132.8655","source_code":"CG038735600200300004","project_name":"","survey_name":"\u4e09\u5200\u5c4b\u5730\u533a\u5730\u8cea\u8abf\u67fb\u696d\u52d9","client_name":"\u56fd\u571f\u4ea4\u901a\u7701\u4e2d\u56fd\u5730\u65b9\u6574\u5099\u5c40\u677e\u6c5f\u56fd\u9053\u4e8b\u52d9\u6240","boring_xml_url":47,"boring_view_url":1,"soilmap_view_url":null,"soiltest_xml_url":0,"soiltest_view_url":0},{"id":249691,"code":"B4KJ201802001-5171","latitude":"34.765278","longitude":"133.020556","source_code":"CG038754600200270005","project_name":"\u7070\u585a\u30c0\u30e0\u8caf\u6c34\u6c60\u5185\u5730\u8cea\u8abf\u67fb\u696d\u52d9","survey_name":"\u7070\u585a\u30c0\u30e0\u8caf\u6c34\u6c60\u5185\u5730\u8cea\u8abf\u67fb\u696d\u52d9","client_name":"\u56fd\u571f\u4ea4\u901a\u7701\u4e2d\u56fd\u5730\u65b9\u6574\u5099\u5c40\u6c5f\u306e\u5ddd\u7dcf\u5408\u958b\u767a\u5de5\u4e8b\u4e8b\u52d9\u6240","boring_xml_url":47,"boring_view_url":1,"soilmap_view_url":null,"soiltest_xml_url":0,"soiltest_view_url":0},{"id":249690,"code":"B4KJ201802001-5170","latitude":"34.77","longitude":"133.026111","source_code":"CG038754600200270004","project_name":"\u7070\u585a\u30c0\u30e0\u8caf\u6c34\u6c60\u5185\u5730\u8cea\u8abf\u67fb\u696d\u52d9","survey_name":"\u7070\u585a\u30c0\u30e0\u8caf\u6c34\u6c60\u5185\u5730\u8cea\u8abf\u67fb\u696d\u52d9","client_name":"\u56fd\u571f\u4ea4\u901a\u7701\u4e2d\u56fd\u5730\u65b9\u6574\u5099\u5c40\u6c5f\u306e\u5ddd\u7dcf\u5408\u958b\u767a\u5de5\u4e8b\u4e8b\u52d9\u6240","boring_xml_url":47,"boring_view_url":1,"soilmap_view_url":null,"soiltest_xml_url":0,"soiltest_view_url":0},{"id":249689,"code":"B4KJ201802001-5169","latitude":"34.772778","longitude":"133.002222","source_code":"CG038754600200270003","project_name":"\u7070\u585a\u30c0\u30e0\u8caf\u6c34\u6c60\u5185\u5730\u8cea\u8abf\u67fb\u696d\u52d9","survey_name":"\u7070\u585a\u30c0\u30e0\u8caf\u6c34\u6c60\u5185\u5730\u8cea\u8abf\u67fb\u696d\u52d9","client_name":"\u56fd\u571f\u4ea4\u901a\u7701\u4e2d\u56fd\u5730\u65b9\u6574\u5099\u5c40\u6c5f\u306e\u5ddd\u7dcf\u5408\u958b\u767a\u5de5\u4e8b\u4e8b\u52d9\u6240","boring_xml_url":47,"boring_view_url":1,"soilmap_view_url":null,"soiltest_xml_url":0,"soiltest_view_url":0},{"id":249688,"code":"B4KJ201802001-5168","latitude":"34.772222","longitude":"133.002222","source_code":"CG038754600200270002","project_name":"\u7070\u585a\u30c0\u30e0\u8caf\u6c34\u6c60\u5185\u5730\u8cea\u8abf\u67fb\u696d\u52d9","survey_name":"\u7070\u585a\u30c0\u30e0\u8caf\u6c34\u6c60\u5185\u5730\u8cea\u8abf\u67fb\u696d\u52d9","client_name":"\u56fd\u571f\u4ea4\u901a\u7701\u4e2d\u56fd\u5730\u65b9\u6574\u5099\u5c40\u6c5f\u306e\u5ddd\u7dcf\u5408\u958b\u767a\u5de5\u4e8b\u4e8b\u52d9\u6240","boring_xml_url":47,"boring_view_url":1,"soilmap_view_url":null,"soiltest_xml_url":0,"soiltest_view_url":0},{"id":249687,"code":"B4KJ201802001-5167","latitude":"34.772778","longitude":"133.002778","source_code":"CG038754600200270001","project_name":"\u7070\u585a\u30c0\u30e0\u8caf\u6c34\u6c60\u5185\u5730\u8cea\u8abf\u67fb\u696d\u52d9","survey_name":"\u7070\u585a\u30c0\u30e0\u8caf\u6c34\u6c60\u5185\u5730\u8cea\u8abf\u67fb\u696d\u52d9","client_name":"\u56fd\u571f\u4ea4\u901a\u7701\u4e2d\u56fd\u5730\u65b9\u6574\u5099\u5c40\u6c5f\u306e\u5ddd\u7dcf\u5408\u958b\u767a\u5de5\u4e8b\u4e8b\u52d9\u6240","boring_xml_url":47,"boring_view_url":1,"soilmap_view_url":null,"soiltest_xml_url":0,"soiltest_view_url":0},{"id":249686,"code":"B4KJ201802001-5166","latitude":"34.443521","longitude":"132.67346","source_code":"CG028755600200950018","project_name":"\u5b89\u82b8\u30d0\u30a4\u30d1\u30b9\u5730\u8cea\u8abf\u67fb\u305d\u306e2\u696d\u52d9","survey_name":"\u5b89\u82b8\u30d0\u30a4\u30d1\u30b9\u5730\u8cea\u8abf\u67fb\u305d\u306e2\u696d\u52d9","client_name":"\u56fd\u571f\u4ea4\u901a\u7701\u4e2d\u56fd\u5730\u65b9\u6574\u5099\u5c40 \u5e83\u5cf6\u56fd\u9053\u4e8b\u52d9\u6240","boring_xml_url":47,"boring_view_url":1,"soilmap_view_url":null,"soiltest_xml_url":0,"soiltest_view_url":0},{"id":249685,"code":"B4KJ201802001-5165","latitude":"34.382028","longitude":"132.566806","source_code":"CG028755600200950017","project_name":"\u5b89\u82b8\u30d0\u30a4\u30d1\u30b9\u5730\u8cea\u8abf\u67fb\u305d\u306e2\u696d\u52d9","survey_name":"\u5b89\u82b8\u30d0\u30a4\u30d1\u30b9\u5730\u8cea\u8abf\u67fb\u305d\u306e2\u696d\u52d9","client_name":"\u56fd\u9053\u4ea4\u901a\u7701\u4e2d\u56fd\u5730\u65b9\u6574\u5099\u5c40 \u5e83\u5cf6\u56fd\u9053\u4e8b\u52d9\u6240","boring_xml_url":47,"boring_view_url":1,"soilmap_view_url":null,"soiltest_xml_url":0,"soiltest_view_url":0},{"id":249684,"code":"B4KJ201802001-5164","latitude":"34.382222","longitude":"132.567028","source_code":"CG028755600200950016","project_name":"\u5b89\u82b8\u30d0\u30a4\u30d1\u30b9\u5730\u8cea\u8abf\u67fb\u305d\u306e2\u696d\u52d9","survey_name":"\u5b89\u82b8\u30d0\u30a4\u30d1\u30b9\u5730\u8cea\u8abf\u67fb\u305d\u306e2\u696d\u52d9","client_name":"\u56fd\u9053\u4ea4\u901a\u7701\u4e2d\u56fd\u5730\u65b9\u6574\u5099\u5c40 \u5e83\u5cf6\u56fd\u9053\u4e8b\u52d9\u6240","boring_xml_url":47,"boring_view_url":1,"soilmap_view_url":null,"soiltest_xml_url":0,"soiltest_view_url":0},{"id":249683,"code":"B4KJ201802001-5163","latitude":"34.439611","longitude":"132.677417","source_code":"CG028755600200950015","project_name":"\u5b89\u82b8\u30d0\u30a4\u30d1\u30b9\u5730\u8cea\u8abf\u67fb\u305d\u306e2\u696d\u52d9","survey_name":"\u5b89\u82b8\u30d0\u30a4\u30d1\u30b9\u5730\u8cea\u8abf\u67fb\u305d\u306e2\u696d\u52d9","client_name":"\u56fd\u9053\u4ea4\u901a\u7701\u4e2d\u56fd\u5730\u65b9\u6574\u5099\u5c40 \u5e83\u5cf6\u56fd\u9053\u4e8b\u52d9\u6240","boring_xml_url":47,"boring_view_url":1,"soilmap_view_url":null,"soiltest_xml_url":0,"soiltest_view_url":0},{"id":249682,"code":"B4KJ201802001-5162","latitude":"34.439806","longitude":"132.677333","source_code":"CG028755600200950014","project_name":"\u5b89\u82b8\u30d0\u30a4\u30d1\u30b9\u5730\u8cea\u8abf\u67fb\u305d\u306e2\u696d\u52d9","survey_name":"\u5b89\u82b8\u30d0\u30a4\u30d1\u30b9\u5730\u8cea\u8abf\u67fb\u305d\u306e2\u696d\u52d9","client_name":"\u56fd\u571f\u4ea4\u901a\u7701\u4e2d\u56fd\u5730\u65b9\u6574\u5099\u5c40 \u5e83\u5cf6\u56fd\u9053\u4e8b\u52d9\u6240","boring_xml_url":47,"boring_view_url":1,"soilmap_view_url":null,"soiltest_xml_url":0,"soiltest_view_url":0},{"id":249681,"code":"B4KJ201802001-5161","latitude":"34.440194","longitude":"132.677472","source_code":"CG028755600200950013","project_name":"\u5b89\u82b8\u30d0\u30a4\u30d1\u30b9\u5730\u8cea\u8abf\u67fb\u305d\u306e2\u696d\u52d9","survey_name":"\u5b89\u82b8\u30d0\u30a4\u30d1\u30b9\u5730\u8cea\u8abf\u67fb\u305d\u306e2\u696d\u52d9","client_name":"\u56fd\u571f\u4ea4\u901a\u7701\u4e2d\u56fd\u5730\u65b9\u6574\u5099\u5c40 \u5e83\u5cf6\u56fd\u9053\u4e8b\u52d9\u6240","boring_xml_url":47,"boring_view_url":1,"soilmap_view_url":null,"soiltest_xml_url":0,"soiltest_view_url":0},{"id":249680,"code":"B4KJ201802001-5160","latitude":"34.43125","longitude":"132.655","source_code":"CG028755600200950012","project_name":"\u5b89\u82b8\u30d0\u30a4\u30d1\u30b9\u5730\u8cea\u8abf\u67fb\u305d\u306e2\u696d\u52d9","survey_name":"\u5b89\u82b8\u30d0\u30a4\u30d1\u30b9\u5730\u8cea\u8abf\u67fb\u305d\u306e2\u696d\u52d9","client_name":"\u56fd\u9053\u4ea4\u901a\u7701\u4e2d\u56fd\u5730\u65b9\u6574\u5099\u5c40 \u5e83\u5cf6\u56fd\u9053\u4e8b\u52d9\u6240","boring_xml_url":47,"boring_view_url":1,"soilmap_view_url":null,"soiltest_xml_url":0,"soiltest_view_url":0},{"id":249679,"code":"B4KJ201802001-5159","latitude":"34.431444","longitude":"132.654889","source_code":"CG028755600200950011","project_name":"\u5b89\u82b8\u30d0\u30a4\u30d1\u30b9\u5730\u8cea\u8abf\u67fb\u305d\u306e2\u696d\u52d9","survey_name":"\u5b89\u82b8\u30d0\u30a4\u30d1\u30b9\u5730\u8cea\u8abf\u67fb\u305d\u306e2\u696d\u52d9","client_name":"\u56fd\u9053\u4ea4\u901a\u7701\u4e2d\u56fd\u5730\u65b9\u6574\u5099\u5c40 \u5e83\u5cf6\u56fd\u9053\u4e8b\u52d9\u6240","boring_xml_url":47,"boring_view_url":1,"soilmap_view_url":null,"soiltest_xml_url":0,"soiltest_view_url":0},{"id":249678,"code":"B4KJ201802001-5158","latitude":"34.430833","longitude":"132.654","source_code":"CG028755600200950010","project_name":"\u5b89\u82b8\u30d0\u30a4\u30d1\u30b9\u5730\u8cea\u8abf\u67fb\u305d\u306e2\u696d\u52d9","survey_name":"\u5b89\u82b8\u30d0\u30a4\u30d1\u30b9\u5730\u8cea\u8abf\u67fb\u305d\u306e2\u696d\u52d9","client_name":"\u56fd\u571f\u4ea4\u901a\u7701\u4e2d\u56fd\u5730\u65b9\u6574\u5099\u5c40 \u5e83\u5cf6\u56fd\u9053\u4e8b\u52d9\u6240","boring_xml_url":47,"boring_view_url":1,"soilmap_view_url":null,"soiltest_xml_url":0,"soiltest_view_url":0},{"id":249677,"code":"B4KJ201802001-5157","latitude":"34.431556","longitude":"132.654667","source_code":"CG028755600200950009","project_name":"\u5b89\u82b8\u30d0\u30a4\u30d1\u30b9\u5730\u8cea\u8abf\u67fb\u305d\u306e2\u696d\u52d9","survey_name":"\u5b89\u82b8\u30d0\u30a4\u30d1\u30b9\u5730\u8cea\u8abf\u67fb\u305d\u306e2\u696d\u52d9","client_name":"\u56fd\u571f\u4ea4\u901a\u7701\u4e2d\u56fd\u5730\u65b9\u6574\u5099\u5c40 \u5e83\u5cf6\u56fd\u9053\u4e8b\u52d9\u6240","boring_xml_url":47,"boring_view_url":1,"soilmap_view_url":null,"soiltest_xml_url":0,"soiltest_view_url":0}]}}