{"header":{"xyz":{"source":[],"mosaic":false},"page":2697,"raw":{"soiltest_result":"0","bbox":"57.598333,109.544722,1.933333,163.806111","page":"2697"},"conditions":{"soiltest_result":0,"north":57.598333,"west":109.544722,"south":1.933333,"east":163.806111},"success":true,"message":""},"data":{"meta":{"total":212844,"page":2697,"pages":7095,"count":30},"values":[{"id":249646,"code":"B4KJ201802001-5126","latitude":"34.239097","longitude":"132.607471","source_code":"CG038755620200220005","project_name":"\u6771\u5e83\u5cf6\u30fb\u5449\u9053\u8def\u5730\u8cea\u8abf\u67fb\u696d\u52d9","survey_name":"\u6771\u5e83\u5cf6\u30fb\u5449\u9053\u8def\u5730\u8cea\u8abf\u67fb\u696d\u52d9","client_name":"\u4e2d\u56fd\u5730\u65b9\u6574\u5099\u5c40\u5e83\u5cf6\u56fd\u9053\u4e8b\u52d9\u6240","boring_xml_url":47,"boring_view_url":1,"soilmap_view_url":null,"soiltest_xml_url":0,"soiltest_view_url":0},{"id":249645,"code":"B4KJ201802001-5125","latitude":"34.238264","longitude":"132.607748","source_code":"CG038755620200220004","project_name":"\u6771\u5e83\u5cf6\u30fb\u5449\u9053\u8def\u5730\u8cea\u8abf\u67fb\u696d\u52d9","survey_name":"\u6771\u5e83\u5cf6\u30fb\u5449\u9053\u8def\u5730\u8cea\u8abf\u67fb\u696d\u52d9","client_name":"\u4e2d\u56fd\u5730\u65b9\u6574\u5099\u5c40\u5e83\u5cf6\u56fd\u9053\u4e8b\u52d9\u6240","boring_xml_url":47,"boring_view_url":1,"soilmap_view_url":null,"soiltest_xml_url":0,"soiltest_view_url":0},{"id":249644,"code":"B4KJ201802001-5124","latitude":"34.237153","longitude":"132.607748","source_code":"CG038755620200220003","project_name":"\u6771\u5e83\u5cf6\u30fb\u5449\u9053\u8def\u5730\u8cea\u8abf\u67fb\u696d\u52d9","survey_name":"\u6771\u5e83\u5cf6\u30fb\u5449\u9053\u8def\u5730\u8cea\u8abf\u67fb\u696d\u52d9","client_name":"\u4e2d\u56fd\u5730\u65b9\u6574\u5099\u5c40\u5e83\u5cf6\u56fd\u9053\u4e8b\u52d9\u6240","boring_xml_url":47,"boring_view_url":1,"soilmap_view_url":null,"soiltest_xml_url":0,"soiltest_view_url":0},{"id":249643,"code":"B4KJ201802001-5123","latitude":"34.429356","longitude":"132.804114","source_code":"CG038755620200220002","project_name":"\u6771\u5e83\u5cf6\u30fb\u5449\u9053\u8def\u5730\u8cea\u8abf\u67fb\u696d\u52d9","survey_name":"\u6771\u5e83\u5cf6\u30fb\u5449\u9053\u8def\u5730\u8cea\u8abf\u67fb\u696d\u52d9","client_name":"\u4e2d\u56fd\u5730\u65b9\u6574\u5099\u5c40\u5e83\u5cf6\u56fd\u9053\u4e8b\u52d9\u6240","boring_xml_url":47,"boring_view_url":1,"soilmap_view_url":null,"soiltest_xml_url":0,"soiltest_view_url":0},{"id":249642,"code":"B4KJ201802001-5122","latitude":"34.429356","longitude":"132.803559","source_code":"CG038755620200220001","project_name":"\u6771\u5e83\u5cf6\u30fb\u5449\u9053\u8def\u5730\u8cea\u8abf\u67fb\u696d\u52d9","survey_name":"\u6771\u5e83\u5cf6\u30fb\u5449\u9053\u8def\u5730\u8cea\u8abf\u67fb\u696d\u52d9","client_name":"\u4e2d\u56fd\u5730\u65b9\u6574\u5099\u5c40\u5e83\u5cf6\u56fd\u9053\u4e8b\u52d9\u6240","boring_xml_url":47,"boring_view_url":1,"soilmap_view_url":null,"soiltest_xml_url":0,"soiltest_view_url":0},{"id":249641,"code":"B4KJ201802001-5121","latitude":"34.351833","longitude":"132.522306","source_code":"CG028755600200310019","project_name":"\u4e00\u822c\u56fd\u90532\u53f7\u5e83\u5cf6\u5357\u9053\u8def","survey_name":"\u5e83\u5cf6\u5357\u9053\u8def(\u660e\u795e\u5730\u533a)\u5730\u8cea\u8abf\u67fb\u696d\u52d9","client_name":"\u56fd\u571f\u4ea4\u901a\u7701\u4e2d\u56fd\u5730\u65b9\u6574\u5099\u5c40\u5e83\u5cf6\u56fd\u9053\u5de5\u4e8b\u4e8b\u52d9\u6240","boring_xml_url":47,"boring_view_url":1,"soilmap_view_url":null,"soiltest_xml_url":0,"soiltest_view_url":0},{"id":249640,"code":"B4KJ201802001-5120","latitude":"34.351611","longitude":"132.52175","source_code":"CG028755600200310018","project_name":"\u4e00\u822c\u56fd\u90532\u53f7\u5e83\u5cf6\u5357\u9053\u8def","survey_name":"\u5e83\u5cf6\u5357\u9053\u8def(\u660e\u795e\u5730\u533a)\u5730\u8cea\u8abf\u67fb\u696d\u52d9","client_name":"\u56fd\u571f\u4ea4\u901a\u7701\u4e2d\u56fd\u5730\u65b9\u6574\u5099\u5c40\u5e83\u5cf6\u56fd\u9053\u5de5\u4e8b\u4e8b\u52d9\u6240","boring_xml_url":47,"boring_view_url":1,"soilmap_view_url":null,"soiltest_xml_url":0,"soiltest_view_url":0},{"id":249639,"code":"B4KJ201802001-5119","latitude":"34.351389","longitude":"132.521194","source_code":"CG028755600200310017","project_name":"\u4e00\u822c\u56fd\u90532\u53f7\u5e83\u5cf6\u5357\u9053\u8def","survey_name":"\u5e83\u5cf6\u5357\u9053\u8def(\u660e\u795e\u5730\u533a)\u5730\u8cea\u8abf\u67fb\u696d\u52d9","client_name":"\u56fd\u571f\u4ea4\u901a\u7701\u4e2d\u56fd\u5730\u65b9\u6574\u5099\u5c40\u5e83\u5cf6\u56fd\u9053\u5de5\u4e8b\u4e8b\u52d9\u6240","boring_xml_url":47,"boring_view_url":1,"soilmap_view_url":null,"soiltest_xml_url":0,"soiltest_view_url":0},{"id":249638,"code":"B4KJ201802001-5118","latitude":"34.351167","longitude":"132.520667","source_code":"CG028755600200310016","project_name":"\u4e00\u822c\u56fd\u90532\u53f7\u5e83\u5cf6\u5357\u9053\u8def","survey_name":"\u5e83\u5cf6\u5357\u9053\u8def(\u660e\u795e\u5730\u533a)\u5730\u8cea\u8abf\u67fb\u696d\u52d9","client_name":"\u56fd\u571f\u4ea4\u901a\u7701\u4e2d\u56fd\u5730\u65b9\u6574\u5099\u5c40\u5e83\u5cf6\u56fd\u9053\u5de5\u4e8b\u4e8b\u52d9\u6240","boring_xml_url":47,"boring_view_url":1,"soilmap_view_url":null,"soiltest_xml_url":0,"soiltest_view_url":0},{"id":249637,"code":"B4KJ201802001-5117","latitude":"34.352056","longitude":"132.522028","source_code":"CG028755600200310015","project_name":"\u4e00\u822c\u56fd\u90532\u53f7\u5e83\u5cf6\u5357\u9053\u8def","survey_name":"\u5e83\u5cf6\u5357\u9053\u8def(\u660e\u795e\u5730\u533a)\u5730\u8cea\u8abf\u67fb\u696d\u52d9","client_name":"\u56fd\u571f\u4ea4\u901a\u7701\u4e2d\u56fd\u5730\u65b9\u6574\u5099\u5c40\u5e83\u5cf6\u56fd\u9053\u5de5\u4e8b\u4e8b\u52d9\u6240","boring_xml_url":47,"boring_view_url":1,"soilmap_view_url":null,"soiltest_xml_url":0,"soiltest_view_url":0},{"id":249636,"code":"B4KJ201802001-5116","latitude":"34.355082","longitude":"132.518949","source_code":"CG028755600200310014","project_name":"\u4e00\u822c\u56fd\u90532\u53f7\u5e83\u5cf6\u5357\u9053\u8def","survey_name":"\u5e83\u5cf6\u5357\u9053\u8def(\u660e\u795e\u5730\u533a)\u5730\u8cea\u8abf\u67fb\u696d\u52d9","client_name":"\u56fd\u571f\u4ea4\u901a\u7701\u4e2d\u56fd\u5730\u65b9\u6574\u5099\u5c40\u5e83\u5cf6\u56fd\u9053\u5de5\u4e8b\u4e8b\u52d9\u6240","boring_xml_url":47,"boring_view_url":1,"soilmap_view_url":null,"soiltest_xml_url":0,"soiltest_view_url":0},{"id":249635,"code":"B4KJ201802001-5115","latitude":"34.35486","longitude":"132.518393","source_code":"CG028755600200310013","project_name":"\u4e00\u822c\u56fd\u90532\u53f7\u5e83\u5cf6\u5357\u9053\u8def","survey_name":"\u5e83\u5cf6\u5357\u9053\u8def(\u660e\u795e\u5730\u533a)\u5730\u8cea\u8abf\u67fb\u696d\u52d9","client_name":"\u56fd\u571f\u4ea4\u901a\u7701\u4e2d\u56fd\u5730\u65b9\u6574\u5099\u5c40\u5e83\u5cf6\u56fd\u9053\u5de5\u4e8b\u4e8b\u52d9\u6240","boring_xml_url":47,"boring_view_url":1,"soilmap_view_url":null,"soiltest_xml_url":0,"soiltest_view_url":0},{"id":249634,"code":"B4KJ201802001-5114","latitude":"34.351389","longitude":"132.520389","source_code":"CG028755600200310012","project_name":"\u4e00\u822c\u56fd\u90532\u53f7\u5e83\u5cf6\u5357\u9053\u8def","survey_name":"\u5e83\u5cf6\u5357\u9053\u8def(\u660e\u795e\u5730\u533a)\u5730\u8cea\u8abf\u67fb\u696d\u52d9","client_name":"\u56fd\u571f\u4ea4\u901a\u7701\u4e2d\u56fd\u5730\u65b9\u6574\u5099\u5c40\u5e83\u5cf6\u56fd\u9053\u5de5\u4e8b\u4e8b\u52d9\u6240","boring_xml_url":47,"boring_view_url":1,"soilmap_view_url":null,"soiltest_xml_url":0,"soiltest_view_url":0},{"id":249633,"code":"B4KJ201802001-5113","latitude":"34.352278","longitude":"132.52175","source_code":"CG028755600200310011","project_name":"\u4e00\u822c\u56fd\u90532\u53f7\u5e83\u5cf6\u5357\u9053\u8def","survey_name":"\u5e83\u5cf6\u5357\u9053\u8def(\u660e\u795e\u5730\u533a)\u5730\u8cea\u8abf\u67fb\u696d\u52d9","client_name":"\u56fd\u571f\u4ea4\u901a\u7701\u4e2d\u56fd\u5730\u65b9\u6574\u5099\u5c40\u5e83\u5cf6\u56fd\u9053\u5de5\u4e8b\u4e8b\u52d9\u6240","boring_xml_url":47,"boring_view_url":1,"soilmap_view_url":null,"soiltest_xml_url":0,"soiltest_view_url":0},{"id":249632,"code":"B4KJ201802001-5112","latitude":"34.352056","longitude":"132.521472","source_code":"CG028755600200310010","project_name":"\u4e00\u822c\u56fd\u90532\u53f7\u5e83\u5cf6\u5357\u9053\u8def","survey_name":"\u5e83\u5cf6\u5357\u9053\u8def(\u660e\u795e\u5730\u533a)\u5730\u8cea\u8abf\u67fb\u696d\u52d9","client_name":"\u56fd\u571f\u4ea4\u901a\u7701\u4e2d\u56fd\u5730\u65b9\u6574\u5099\u5c40\u5e83\u5cf6\u56fd\u9053\u5de5\u4e8b\u4e8b\u52d9\u6240","boring_xml_url":47,"boring_view_url":1,"soilmap_view_url":null,"soiltest_xml_url":0,"soiltest_view_url":0},{"id":249631,"code":"B4KJ201802001-5111","latitude":"34.351833","longitude":"132.520917","source_code":"CG028755600200310009","project_name":"\u4e00\u822c\u56fd\u90532\u53f7\u5e83\u5cf6\u5357\u9053\u8def","survey_name":"\u5e83\u5cf6\u5357\u9053\u8def(\u660e\u795e\u5730\u533a)\u5730\u8cea\u8abf\u67fb\u696d\u52d9","client_name":"\u56fd\u571f\u4ea4\u901a\u7701\u4e2d\u56fd\u5730\u65b9\u6574\u5099\u5c40\u5e83\u5cf6\u56fd\u9053\u5de5\u4e8b\u4e8b\u52d9\u6240","boring_xml_url":47,"boring_view_url":1,"soilmap_view_url":null,"soiltest_xml_url":0,"soiltest_view_url":0},{"id":249630,"code":"B4KJ201802001-5110","latitude":"34.351611","longitude":"132.520389","source_code":"CG028755600200310008","project_name":"\u4e00\u822c\u56fd\u90532\u53f7\u5e83\u5cf6\u5357\u9053\u8def","survey_name":"\u5e83\u5cf6\u5357\u9053\u8def(\u660e\u795e\u5730\u533a)\u5730\u8cea\u8abf\u67fb\u696d\u52d9","client_name":"\u56fd\u571f\u4ea4\u901a\u7701\u4e2d\u56fd\u5730\u65b9\u6574\u5099\u5c40\u5e83\u5cf6\u56fd\u9053\u5de5\u4e8b\u4e8b\u52d9\u6240","boring_xml_url":47,"boring_view_url":1,"soilmap_view_url":null,"soiltest_xml_url":0,"soiltest_view_url":0},{"id":249629,"code":"B4KJ201802001-5109","latitude":"34.3525","longitude":"132.521472","source_code":"CG028755600200310007","project_name":"\u4e00\u822c\u56fd\u90532\u53f7\u5e83\u5cf6\u5357\u9053\u8def","survey_name":"\u5e83\u5cf6\u5357\u9053\u8def(\u660e\u795e\u5730\u533a)\u5730\u8cea\u8abf\u67fb\u696d\u52d9","client_name":"\u56fd\u571f\u4ea4\u901a\u7701\u4e2d\u56fd\u5730\u65b9\u6574\u5099\u5c40\u5e83\u5cf6\u56fd\u9053\u5de5\u4e8b\u4e8b\u52d9\u6240","boring_xml_url":47,"boring_view_url":1,"soilmap_view_url":null,"soiltest_xml_url":0,"soiltest_view_url":0},{"id":249628,"code":"B4KJ201802001-5108","latitude":"34.352278","longitude":"132.520917","source_code":"CG028755600200310006","project_name":"\u4e00\u822c\u56fd\u90532\u53f7\u5e83\u5cf6\u5357\u9053\u8def","survey_name":"\u5e83\u5cf6\u5357\u9053\u8def(\u660e\u795e\u5730\u533a)\u5730\u8cea\u8abf\u67fb\u696d\u52d9","client_name":"\u56fd\u571f\u4ea4\u901a\u7701\u4e2d\u56fd\u5730\u65b9\u6574\u5099\u5c40\u5e83\u5cf6\u56fd\u9053\u5de5\u4e8b\u4e8b\u52d9\u6240","boring_xml_url":47,"boring_view_url":1,"soilmap_view_url":null,"soiltest_xml_url":0,"soiltest_view_url":0},{"id":249627,"code":"B4KJ201802001-5107","latitude":"34.352056","longitude":"132.520389","source_code":"CG028755600200310005","project_name":"\u4e00\u822c\u56fd\u90532\u53f7\u5e83\u5cf6\u5357\u9053\u8def","survey_name":"\u5e83\u5cf6\u5357\u9053\u8def(\u660e\u795e\u5730\u533a)\u5730\u8cea\u8abf\u67fb\u696d\u52d9","client_name":"\u56fd\u571f\u4ea4\u901a\u7701\u4e2d\u56fd\u5730\u65b9\u6574\u5099\u5c40\u5e83\u5cf6\u56fd\u9053\u5de5\u4e8b\u4e8b\u52d9\u6240","boring_xml_url":47,"boring_view_url":1,"soilmap_view_url":null,"soiltest_xml_url":0,"soiltest_view_url":0},{"id":249626,"code":"B4KJ201802001-5106","latitude":"34.352722","longitude":"132.521472","source_code":"CG028755600200310004","project_name":"\u4e00\u822c\u56fd\u90532\u53f7\u5e83\u5cf6\u5357\u9053\u8def","survey_name":"\u5e83\u5cf6\u5357\u9053\u8def(\u660e\u795e\u5730\u533a)\u5730\u8cea\u8abf\u67fb\u696d\u52d9","client_name":"\u56fd\u571f\u4ea4\u901a\u7701\u4e2d\u56fd\u5730\u65b9\u6574\u5099\u5c40\u5e83\u5cf6\u56fd\u9053\u5de5\u4e8b\u4e8b\u52d9\u6240","boring_xml_url":47,"boring_view_url":1,"soilmap_view_url":null,"soiltest_xml_url":0,"soiltest_view_url":0},{"id":249625,"code":"B4KJ201802001-5105","latitude":"34.3525","longitude":"132.520917","source_code":"CG028755600200310003","project_name":"\u4e00\u822c\u56fd\u90532\u53f7\u5e83\u5cf6\u5357\u9053\u8def","survey_name":"\u5e83\u5cf6\u5357\u9053\u8def(\u660e\u795e\u5730\u533a)\u5730\u8cea\u8abf\u67fb\u696d\u52d9","client_name":"\u56fd\u571f\u4ea4\u901a\u7701\u4e2d\u56fd\u5730\u65b9\u6574\u5099\u5c40\u5e83\u5cf6\u56fd\u9053\u5de5\u4e8b\u4e8b\u52d9\u6240","boring_xml_url":47,"boring_view_url":1,"soilmap_view_url":null,"soiltest_xml_url":0,"soiltest_view_url":0},{"id":249624,"code":"B4KJ201802001-5104","latitude":"34.352278","longitude":"132.520389","source_code":"CG028755600200310002","project_name":"\u4e00\u822c\u56fd\u90532\u53f7\u5e83\u5cf6\u5357\u9053\u8def","survey_name":"\u5e83\u5cf6\u5357\u9053\u8def(\u660e\u795e\u5730\u533a)\u5730\u8cea\u8abf\u67fb\u696d\u52d9","client_name":"\u56fd\u571f\u4ea4\u901a\u7701\u4e2d\u56fd\u5730\u65b9\u6574\u5099\u5c40\u5e83\u5cf6\u56fd\u9053\u5de5\u4e8b\u4e8b\u52d9\u6240","boring_xml_url":47,"boring_view_url":1,"soilmap_view_url":null,"soiltest_xml_url":0,"soiltest_view_url":0},{"id":249623,"code":"B4KJ201802001-5103","latitude":"34.352056","longitude":"132.520111","source_code":"CG028755600200310001","project_name":"\u4e00\u822c\u56fd\u90532\u53f7\u5e83\u5cf6\u5357\u9053\u8def","survey_name":"\u5e83\u5cf6\u5357\u9053\u8def(\u660e\u795e\u5730\u533a)\u5730\u8cea\u8abf\u67fb\u696d\u52d9","client_name":"\u56fd\u571f\u4ea4\u901a\u7701\u4e2d\u56fd\u5730\u65b9\u6574\u5099\u5c40\u5e83\u5cf6\u56fd\u9053\u5de5\u4e8b\u4e8b\u52d9\u6240","boring_xml_url":47,"boring_view_url":1,"soilmap_view_url":null,"soiltest_xml_url":0,"soiltest_view_url":0},{"id":249622,"code":"B4KJ201802001-5102","latitude":"34.377746","longitude":"132.556111","source_code":"CG018755600200460019","project_name":"\u5b89\u82b8\u30d0\u30a4\u30d1\u30b9(\u4e0a\u702c\u91ce\u5730\u533a)\u4ed6\u5730\u8cea\u8abf\u67fb\u696d\u52d9","survey_name":"\u5b89\u82b8\u30d0\u30a4\u30d1\u30b9(\u4e0a\u702c\u91ce\u5730\u533a)\u4ed6\u5730\u8cea\u8abf\u67fb\u696d\u52d9","client_name":"\u56fd\u571f\u4ea4\u901a\u7701\u4e2d\u56fd\u5730\u65b9\u6574\u5099\u5c40\u5e83\u5cf6\u56fd\u9053\u5de5\u4e8b\u4e8b\u52d9\u6240","boring_xml_url":47,"boring_view_url":1,"soilmap_view_url":null,"soiltest_xml_url":0,"soiltest_view_url":0},{"id":249621,"code":"B4KJ201802001-5101","latitude":"34.37833","longitude":"132.556167","source_code":"CG018755600200460018","project_name":"\u5b89\u82b8\u30d0\u30a4\u30d1\u30b9(\u4e0a\u702c\u91ce\u5730\u533a)\u4ed6\u5730\u8cea\u8abf\u67fb\u696d\u52d9","survey_name":"\u5b89\u82b8\u30d0\u30a4\u30d1\u30b9(\u4e0a\u702c\u91ce\u5730\u533a)\u4ed6\u5730\u8cea\u8abf\u67fb\u696d\u52d9","client_name":"\u56fd\u571f\u4ea4\u901a\u7701\u4e2d\u56fd\u5730\u65b9\u6574\u5099\u5c40\u5e83\u5cf6\u56fd\u9053\u5de5\u4e8b\u4e8b\u52d9\u6240","boring_xml_url":47,"boring_view_url":1,"soilmap_view_url":null,"soiltest_xml_url":0,"soiltest_view_url":0},{"id":249620,"code":"B4KJ201802001-5100","latitude":"34.436021","longitude":"132.654129","source_code":"CG018755600200460017","project_name":"\u5b89\u82b8\u30d0\u30a4\u30d1\u30b9(\u4e0a\u702c\u91ce\u5730\u533a)\u4ed6\u5730\u8cea\u8abf\u67fb\u696d\u52d9","survey_name":"\u5b89\u82b8\u30d0\u30a4\u30d1\u30b9(\u4e0a\u702c\u91ce\u5730\u533a)\u4ed6\u5730\u8cea\u8abf\u67fb\u696d\u52d9","client_name":"\u56fd\u571f\u4ea4\u901a\u7701\u4e2d\u56fd\u5730\u65b9\u6574\u5099\u5c40\u5e83\u5cf6\u56fd\u9053\u5de5\u4e8b\u4e8b\u52d9\u6240","boring_xml_url":47,"boring_view_url":1,"soilmap_view_url":null,"soiltest_xml_url":0,"soiltest_view_url":0},{"id":249619,"code":"B4KJ201802001-5099","latitude":"34.43691","longitude":"132.654851","source_code":"CG018755600200460016","project_name":"\u5b89\u82b8\u30d0\u30a4\u30d1\u30b9(\u4e0a\u702c\u91ce\u5730\u533a)\u4ed6\u5730\u8cea\u8abf\u67fb\u696d\u52d9","survey_name":"\u5b89\u82b8\u30d0\u30a4\u30d1\u30b9(\u4e0a\u702c\u91ce\u5730\u533a)\u4ed6\u5730\u8cea\u8abf\u67fb\u696d\u52d9","client_name":"\u56fd\u571f\u4ea4\u901a\u7701\u4e2d\u56fd\u5730\u65b9\u6574\u5099\u5c40\u5e83\u5cf6\u56fd\u9053\u5de5\u4e8b\u4e8b\u52d9\u6240","boring_xml_url":47,"boring_view_url":1,"soilmap_view_url":null,"soiltest_xml_url":0,"soiltest_view_url":0},{"id":249618,"code":"B4KJ201802001-5098","latitude":"34.437354","longitude":"132.655295","source_code":"CG018755600200460015","project_name":"\u5b89\u82b8\u30d0\u30a4\u30d1\u30b9(\u4e0a\u702c\u91ce\u5730\u533a)\u4ed6\u5730\u8cea\u8abf\u67fb\u696d\u52d9","survey_name":"\u5b89\u82b8\u30d0\u30a4\u30d1\u30b9(\u4e0a\u702c\u91ce\u5730\u533a)\u4ed6\u5730\u8cea\u8abf\u67fb\u696d\u52d9","client_name":"\u56fd\u571f\u4ea4\u901a\u7701\u4e2d\u56fd\u5730\u65b9\u6574\u5099\u5c40\u5e83\u5cf6\u56fd\u9053\u5de5\u4e8b\u4e8b\u52d9\u6240","boring_xml_url":47,"boring_view_url":1,"soilmap_view_url":null,"soiltest_xml_url":0,"soiltest_view_url":0},{"id":249617,"code":"B4KJ201802001-5097","latitude":"34.437549","longitude":"132.655545","source_code":"CG018755600200460014","project_name":"\u5b89\u82b8\u30d0\u30a4\u30d1\u30b9(\u4e0a\u702c\u91ce\u5730\u533a)\u4ed6\u5730\u8cea\u8abf\u67fb\u696d\u52d9","survey_name":"\u5b89\u82b8\u30d0\u30a4\u30d1\u30b9(\u4e0a\u702c\u91ce\u5730\u533a)\u4ed6\u5730\u8cea\u8abf\u67fb\u696d\u52d9","client_name":"\u56fd\u571f\u4ea4\u901a\u7701\u4e2d\u56fd\u5730\u65b9\u6574\u5099\u5c40\u5e83\u5cf6\u56fd\u9053\u5de5\u4e8b\u4e8b\u52d9\u6240","boring_xml_url":47,"boring_view_url":1,"soilmap_view_url":null,"soiltest_xml_url":0,"soiltest_view_url":0}]}}