{"header":{"xyz":{"source":[],"mosaic":false},"page":2707,"raw":{"soiltest_result":"0","bbox":"57.598333,109.544722,1.933333,163.806111","page":"2707"},"conditions":{"soiltest_result":0,"north":57.598333,"west":109.544722,"south":1.933333,"east":163.806111},"success":true,"message":""},"data":{"meta":{"total":212844,"page":2707,"pages":7095,"count":30},"values":[{"id":249346,"code":"B4KJ201802001-4826","latitude":"35.484944","longitude":"133.692194","source_code":"CG038731610200400010","project_name":"\u5e73\u621015\u5e74\u5ea6 \u4e00\u822c\u56fd\u90539\u53f7 \u540d\u548c\u30fb\u6dc0\u6c5f\u9053\u8def","survey_name":"\u9580\u524d\u5730\u533a\u4ed6\u5730\u8cea\u8abf\u67fb\u696d\u52d9","client_name":"\u56fd\u571f\u4ea4\u901a\u7701 \u4e2d\u56fd\u5730\u65b9\u6574\u5099\u5c40 \u5009\u5409\u6cb3\u5ddd\u56fd\u9053\u4e8b\u52d9\u6240","boring_xml_url":47,"boring_view_url":1,"soilmap_view_url":null,"soiltest_xml_url":0,"soiltest_view_url":0},{"id":249345,"code":"B4KJ201802001-4825","latitude":"35.484861","longitude":"133.692722","source_code":"CG038731610200400009","project_name":"\u5e73\u621015\u5e74\u5ea6 \u4e00\u822c\u56fd\u90539\u53f7 \u540d\u548c\u30fb\u6dc0\u6c5f\u9053\u8def","survey_name":"\u9580\u524d\u5730\u533a\u4ed6\u5730\u8cea\u8abf\u67fb\u696d\u52d9","client_name":"\u56fd\u571f\u4ea4\u901a\u7701 \u4e2d\u56fd\u5730\u65b9\u6574\u5099\u5c40 \u5009\u5409\u6cb3\u5ddd\u56fd\u9053\u4e8b\u52d9\u6240","boring_xml_url":47,"boring_view_url":1,"soilmap_view_url":null,"soiltest_xml_url":0,"soiltest_view_url":0},{"id":249344,"code":"B4KJ201802001-4824","latitude":"35.492583","longitude":"133.494722","source_code":"CG038731610200400007","project_name":"\u5e73\u621015\u5e74\u5ea6 \u4e00\u822c\u56fd\u90539\u53f7 \u540d\u548c\u30fb\u6dc0\u6c5f\u9053\u8def","survey_name":"\u9580\u524d\u5730\u533a\u4ed6\u5730\u8cea\u8abf\u67fb\u696d\u52d9","client_name":"\u56fd\u571f\u4ea4\u901a\u7701 \u4e2d\u56fd\u5730\u65b9\u6574\u5099\u5c40 \u5009\u5409\u6cb3\u5ddd\u56fd\u9053\u4e8b\u52d9\u6240","boring_xml_url":47,"boring_view_url":1,"soilmap_view_url":null,"soiltest_xml_url":0,"soiltest_view_url":0},{"id":249343,"code":"B4KJ201802001-4823","latitude":"35.520451","longitude":"134.221425","source_code":"CG038730400200110001","project_name":"\u4e38\u5c71\u5730\u533a\u5824\u9632\u5730\u76e4\u89e3\u6790\u696d\u52d9","survey_name":"\u4e38\u5c71\u5730\u533a\u5824\u9632\u5730\u76e4\u89e3\u6790\u696d\u52d9","client_name":"\u56fd\u571f\u4ea4\u901a\u7701\u9ce5\u53d6\u6cb3\u5ddd\u56fd\u9053\u4e8b\u52d9\u6240","boring_xml_url":47,"boring_view_url":1,"soilmap_view_url":null,"soiltest_xml_url":0,"soiltest_view_url":0},{"id":249342,"code":"B4KJ201802001-4822","latitude":"35.444546","longitude":"134.335389","source_code":"CG028732400200080009","project_name":"\u6bbf\u30c0\u30e0\u6e90\u9580\u5bfa\u5730\u533a\u5916\u5730\u8cea\u8abf\u67fb\u696d\u52d9","survey_name":"\u6bbf\u30c0\u30e0\u6e90\u9580\u5bfa\u5730\u533a\u5916\u5730\u8cea\u8abf\u67fb\u696d\u52d9","client_name":"\u56fd\u571f\u4ea4\u901a\u7701\u4e2d\u56fd\u5730\u65b9\u6574\u5099\u5c40\u6bbf\u30c0\u30e0\u5de5\u4e8b\u4e8b\u52d9\u6240","boring_xml_url":47,"boring_view_url":1,"soilmap_view_url":null,"soiltest_xml_url":0,"soiltest_view_url":0},{"id":249341,"code":"B4KJ201802001-4821","latitude":"35.446407","longitude":"134.336694","source_code":"CG028732400200080008","project_name":"\u6bbf\u30c0\u30e0\u6e90\u9580\u5bfa\u5730\u533a\u5916\u5730\u8cea\u8abf\u67fb\u696d\u52d9","survey_name":"\u6bbf\u30c0\u30e0\u6e90\u9580\u5bfa\u5730\u533a\u5916\u5730\u8cea\u8abf\u67fb\u696d\u52d9","client_name":"\u56fd\u571f\u4ea4\u901a\u7701\u4e2d\u56fd\u5730\u65b9\u6574\u5099\u5c40\u6bbf\u30c0\u30e0\u5de5\u4e8b\u4e8b\u52d9\u6240","boring_xml_url":47,"boring_view_url":1,"soilmap_view_url":null,"soiltest_xml_url":0,"soiltest_view_url":0},{"id":249340,"code":"B4KJ201802001-4820","latitude":"35.445046","longitude":"134.335694","source_code":"CG028732400200080007","project_name":"\u6bbf\u30c0\u30e0\u6e90\u9580\u5bfa\u5730\u533a\u5916\u5730\u8cea\u8abf\u67fb\u696d\u52d9","survey_name":"\u6bbf\u30c0\u30e0\u6e90\u9580\u5bfa\u5730\u533a\u5916\u5730\u8cea\u8abf\u67fb\u696d\u52d9","client_name":"\u56fd\u571f\u4ea4\u901a\u7701\u4e2d\u56fd\u5730\u65b9\u6574\u5099\u5c40\u6bbf\u30c0\u30e0\u5de5\u4e8b\u4e8b\u52d9\u6240","boring_xml_url":47,"boring_view_url":1,"soilmap_view_url":null,"soiltest_xml_url":0,"soiltest_view_url":0},{"id":249339,"code":"B4KJ201802001-4819","latitude":"35.444851","longitude":"134.335861","source_code":"CG028732400200080006","project_name":"\u6bbf\u30c0\u30e0\u6e90\u9580\u5bfa\u5730\u533a\u5916\u5730\u8cea\u8abf\u67fb\u696d\u52d9","survey_name":"\u6bbf\u30c0\u30e0\u6e90\u9580\u5bfa\u5730\u533a\u5916\u5730\u8cea\u8abf\u67fb\u696d\u52d9","client_name":"\u56fd\u571f\u4ea4\u901a\u7701\u4e2d\u56fd\u5730\u65b9\u6574\u5099\u5c40\u6bbf\u30c0\u30e0\u5de5\u4e8b\u4e8b\u52d9\u6240","boring_xml_url":47,"boring_view_url":1,"soilmap_view_url":null,"soiltest_xml_url":0,"soiltest_view_url":0},{"id":249338,"code":"B4KJ201802001-4818","latitude":"35.444379","longitude":"134.336222","source_code":"CG028732400200080005","project_name":"\u6bbf\u30c0\u30e0\u6e90\u9580\u5bfa\u5730\u533a\u5916\u5730\u8cea\u8abf\u67fb\u696d\u52d9","survey_name":"\u6bbf\u30c0\u30e0\u6e90\u9580\u5bfa\u5730\u533a\u5916\u5730\u8cea\u8abf\u67fb\u696d\u52d9","client_name":"\u56fd\u571f\u4ea4\u901a\u7701\u4e2d\u56fd\u5730\u65b9\u6574\u5099\u5c40\u6bbf\u30c0\u30e0\u5de5\u4e8b\u4e8b\u52d9\u6240","boring_xml_url":47,"boring_view_url":1,"soilmap_view_url":null,"soiltest_xml_url":0,"soiltest_view_url":0},{"id":249337,"code":"B4KJ201802001-4817","latitude":"35.444129","longitude":"134.335389","source_code":"CG028732400200080004","project_name":"\u6bbf\u30c0\u30e0\u6e90\u9580\u5bfa\u5730\u533a\u5916\u5730\u8cea\u8abf\u67fb\u696d\u52d9","survey_name":"\u6bbf\u30c0\u30e0\u6e90\u9580\u5bfa\u5730\u533a\u5916\u5730\u8cea\u8abf\u67fb\u696d\u52d9","client_name":"\u56fd\u571f\u4ea4\u901a\u7701\u4e2d\u56fd\u5730\u65b9\u6574\u5099\u5c40\u6bbf\u30c0\u30e0\u5de5\u4e8b\u4e8b\u52d9\u6240","boring_xml_url":47,"boring_view_url":1,"soilmap_view_url":null,"soiltest_xml_url":0,"soiltest_view_url":0},{"id":249336,"code":"B4KJ201802001-4816","latitude":"35.46035","longitude":"134.353221","source_code":"CG028732400200080003","project_name":"\u6bbf\u30c0\u30e0\u6e90\u9580\u5bfa\u5730\u533a\u5916\u5730\u8cea\u8abf\u67fb\u696d\u52d9","survey_name":"\u6bbf\u30c0\u30e0\u6e90\u9580\u5bfa\u5730\u533a\u5916\u5730\u8cea\u8abf\u67fb\u696d\u52d9","client_name":"\u56fd\u571f\u4ea4\u901a\u7701\u4e2d\u56fd\u5730\u65b9\u6574\u5099\u5c40\u6bbf\u30c0\u30e0\u5de5\u4e8b\u4e8b\u52d9\u6240","boring_xml_url":47,"boring_view_url":1,"soilmap_view_url":null,"soiltest_xml_url":0,"soiltest_view_url":0},{"id":249335,"code":"B4KJ201802001-4815","latitude":"35.459989","longitude":"134.353165","source_code":"CG028732400200080002","project_name":"\u6bbf\u30c0\u30e0\u6e90\u9580\u5bfa\u5730\u533a\u5916\u5730\u8cea\u8abf\u67fb\u696d\u52d9","survey_name":"\u6bbf\u30c0\u30e0\u6e90\u9580\u5bfa\u5730\u533a\u5916\u5730\u8cea\u8abf\u67fb\u696d\u52d9","client_name":"\u56fd\u571f\u4ea4\u901a\u7701\u4e2d\u56fd\u5730\u65b9\u6574\u5099\u5c40\u6bbf\u30c0\u30e0\u5de5\u4e8b\u4e8b\u52d9\u6240","boring_xml_url":47,"boring_view_url":1,"soilmap_view_url":null,"soiltest_xml_url":0,"soiltest_view_url":0},{"id":249334,"code":"B4KJ201802001-4814","latitude":"35.459905","longitude":"134.353304","source_code":"CG028732400200080001","project_name":"\u6bbf\u30c0\u30e0\u6e90\u9580\u5bfa\u5730\u533a\u5916\u5730\u8cea\u8abf\u67fb\u696d\u52d9","survey_name":"\u6bbf\u30c0\u30e0\u6e90\u9580\u5bfa\u5730\u533a\u5916\u5730\u8cea\u8abf\u67fb\u696d\u52d9","client_name":"\u56fd\u571f\u4ea4\u901a\u7701\u4e2d\u56fd\u5730\u65b9\u6574\u5099\u5c40\u6bbf\u30c0\u30e0\u5de5\u4e8b\u4e8b\u52d9\u6240","boring_xml_url":47,"boring_view_url":1,"soilmap_view_url":null,"soiltest_xml_url":0,"soiltest_view_url":0},{"id":249333,"code":"B4KJ201802001-4813","latitude":"34.032551","longitude":"131.90023","source_code":"CG028760400200020002","project_name":"","survey_name":"\u82b1\u5ca1\u5730\u533a\u9053\u8def\u8a73\u7d30\u4ed6\u8a2d\u8a08\u696d\u52d9","client_name":"\u56fd\u571f\u4ea4\u901a\u7701\u4e2d\u56fd\u5730\u65b9\u6574\u5099\u5c40\u5c71\u53e3\u5de5\u4e8b\u4e8b\u52d9\u6240","boring_xml_url":47,"boring_view_url":1,"soilmap_view_url":null,"soiltest_xml_url":0,"soiltest_view_url":0},{"id":249332,"code":"B4KJ201802001-4812","latitude":"34.031218","longitude":"131.899619","source_code":"CG028760400200020001","project_name":"","survey_name":"\u82b1\u5ca1\u5730\u533a\u9053\u8def\u8a73\u7d30\u4ed6\u8a2d\u8a08\u696d\u52d9","client_name":"\u56fd\u571f\u4ea4\u901a\u7701\u4e2d\u56fd\u5730\u65b9\u6574\u5099\u5c40\u5c71\u53e3\u5de5\u4e8b\u4e8b\u52d9\u6240","boring_xml_url":47,"boring_view_url":1,"soilmap_view_url":null,"soiltest_xml_url":0,"soiltest_view_url":0},{"id":249331,"code":"B4KJ201802001-4811","latitude":"34.235083","longitude":"132.214361","source_code":"CG028760600200140003","project_name":"\u56fd\u90532\u53f7\u7dda\u5ca9\u56fd\u5927\u7af9\u9053\u8def\u6539\u7bc9\u4e8b\u696d","survey_name":"\u5ca9\u56fd\u5927\u7af9\u5730\u533a\u5916\u9053\u8def\u8a2d\u8a08\u696d\u52d9","client_name":"\u56fd\u571f\u4ea4\u901a\u7701\u4e2d\u56fd\u5730\u65b9\u6574\u5099\u5c40\u5c71\u53e3\u5de5\u4e8b\u4e8b\u52d9\u6240\u8abf\u67fb\u8a2d\u8a08\u8ab2","boring_xml_url":47,"boring_view_url":1,"soilmap_view_url":null,"soiltest_xml_url":0,"soiltest_view_url":0},{"id":249330,"code":"B4KJ201802001-4810","latitude":"34.236861","longitude":"132.214417","source_code":"CG028760600200140002","project_name":"\u56fd\u90532\u53f7\u7dda\u5ca9\u56fd\u5927\u7af9\u9053\u8def\u6539\u7bc9\u4e8b\u696d","survey_name":"\u5ca9\u56fd\u5927\u7af9\u5730\u533a\u5916\u9053\u8def\u8a2d\u8a08\u696d\u52d9","client_name":"\u56fd\u571f\u4ea4\u901a\u7701\u4e2d\u56fd\u5730\u65b9\u6574\u5099\u5c40\u5c71\u53e3\u5de5\u4e8b\u4e8b\u52d9\u6240\u8abf\u67fb\u8a2d\u8a08\u8ab2","boring_xml_url":47,"boring_view_url":1,"soilmap_view_url":null,"soiltest_xml_url":0,"soiltest_view_url":0},{"id":249329,"code":"B4KJ201802001-4809","latitude":"34.235917","longitude":"132.213222","source_code":"CG028760600200140001","project_name":"\u56fd\u90532\u53f7\u7dda\u5ca9\u56fd\u5927\u7af9\u9053\u8def\u6539\u7bc9\u4e8b\u696d","survey_name":"\u5ca9\u56fd\u5927\u7af9\u5730\u533a\u5916\u9053\u8def\u8a2d\u8a08\u696d\u52d9","client_name":"\u56fd\u571f\u4ea4\u901a\u7701\u4e2d\u56fd\u5730\u65b9\u6574\u5099\u5c40\u5c71\u53e3\u5de5\u4e8b\u4e8b\u52d9\u6240\u8abf\u67fb\u8a2d\u8a08\u8ab2","boring_xml_url":47,"boring_view_url":1,"soilmap_view_url":null,"soiltest_xml_url":0,"soiltest_view_url":0},{"id":249328,"code":"B4KJ201802001-4808","latitude":"34.639732","longitude":"133.882401","source_code":"CG028742600200110016","project_name":"\u7530\u4e2d\u91ce\u75301\u53f7\u516c\u5712\u524d\u6c88\u4e0b\u691c\u8a0e","survey_name":"\u5ca1\u5c71\u897f\u30d0\u30a4\u30d1\u30b9(2\u5de5\u533a)\u8edf\u5f31\u5730\u76e4\u5bfe\u7b56\u696d\u52d9","client_name":"\u56fd\u571f\u4ea4\u901a\u7701\u4e2d\u56fd\u5730\u65b9\u6574\u5099\u5c40 \u5ca1\u5c71\u56fd\u9053\u4e8b\u52d9\u6240","boring_xml_url":47,"boring_view_url":1,"soilmap_view_url":null,"soiltest_xml_url":0,"soiltest_view_url":0},{"id":249327,"code":"B4KJ201802001-4807","latitude":"34.640232","longitude":"133.882401","source_code":"CG028742600200110015","project_name":"\u7530\u4e2d\u91ce\u75301\u53f7\u516c\u5712\u524d\u6c88\u4e0b\u691c\u8a0e","survey_name":"\u5ca1\u5c71\u897f\u30d0\u30a4\u30d1\u30b9(2\u5de5\u533a)\u8edf\u5f31\u5730\u76e4\u5bfe\u7b56\u696d\u52d9","client_name":"\u56fd\u571f\u4ea4\u901a\u7701\u4e2d\u56fd\u5730\u65b9\u6574\u5099\u5c40 \u5ca1\u5c71\u56fd\u9053\u4e8b\u52d9\u6240","boring_xml_url":47,"boring_view_url":1,"soilmap_view_url":null,"soiltest_xml_url":0,"soiltest_view_url":0},{"id":249326,"code":"B4KJ201802001-4806","latitude":"34.63987","longitude":"133.88129","source_code":"CG028742600200110014","project_name":"\u7530\u4e2d\u91ce\u75301\u53f7\u516c\u5712\u524d\u6c88\u4e0b\u691c\u8a0e","survey_name":"\u5ca1\u5c71\u897f\u30d0\u30a4\u30d1\u30b9(2\u5de5\u533a)\u8edf\u5f31\u5730\u76e4\u5bfe\u7b56\u696d\u52d9","client_name":"\u56fd\u571f\u4ea4\u901a\u7701\u4e2d\u56fd\u5730\u65b9\u6574\u5099\u5c40 \u5ca1\u5c71\u56fd\u9053\u4e8b\u52d9\u6240","boring_xml_url":47,"boring_view_url":1,"soilmap_view_url":null,"soiltest_xml_url":0,"soiltest_view_url":0},{"id":249325,"code":"B4KJ201802001-4805","latitude":"34.639537","longitude":"133.880596","source_code":"CG028742600200110013","project_name":"\u7530\u4e2d\u91ce\u75301\u53f7\u516c\u5712\u524d\u6c88\u4e0b\u691c\u8a0e","survey_name":"\u5ca1\u5c71\u897f\u30d0\u30a4\u30d1\u30b9(2\u5de5\u533a)\u8edf\u5f31\u5730\u76e4\u5bfe\u7b56\u696d\u52d9","client_name":"\u56fd\u571f\u4ea4\u901a\u7701\u4e2d\u56fd\u5730\u65b9\u6574\u5099\u5c40 \u5ca1\u5c71\u56fd\u9053\u4e8b\u52d9\u6240","boring_xml_url":47,"boring_view_url":1,"soilmap_view_url":null,"soiltest_xml_url":0,"soiltest_view_url":0},{"id":249324,"code":"B4KJ201802001-4804","latitude":"34.64012","longitude":"133.880596","source_code":"CG028742600200110012","project_name":"\u7530\u4e2d\u91ce\u75301\u53f7\u516c\u5712\u524d\u6c88\u4e0b\u691c\u8a0e","survey_name":"\u5ca1\u5c71\u897f\u30d0\u30a4\u30d1\u30b9(2\u5de5\u533a)\u8edf\u5f31\u5730\u76e4\u5bfe\u7b56\u696d\u52d9","client_name":"\u56fd\u571f\u4ea4\u901a\u7701\u4e2d\u56fd\u5730\u65b9\u6574\u5099\u5c40 \u5ca1\u5c71\u56fd\u9053\u4e8b\u52d9\u6240","boring_xml_url":47,"boring_view_url":1,"soilmap_view_url":null,"soiltest_xml_url":0,"soiltest_view_url":0},{"id":249323,"code":"B4KJ201802001-4803","latitude":"34.64487","longitude":"133.88154","source_code":"CG028742600200110011","project_name":"1\u5de5\u533a\u5e02\u9053\u30fb\u770c\u9053\u4ea4\u5dee\u90e8\u30dc\u30fc\u30ea\u30f3\u30b0\u8abf\u67fb","survey_name":"\u5ca1\u5c71\u897f\u30d0\u30a4\u30d1\u30b9(2\u5de5\u533a)\u8edf\u5f31\u5730\u76e4\u5bfe\u7b56\u696d\u52d9","client_name":"\u56fd\u571f\u4ea4\u901a\u7701\u4e2d\u56fd\u5730\u65b9\u6574\u5099\u5c40 \u5ca1\u5c71\u56fd\u9053\u4e8b\u52d9\u6240","boring_xml_url":47,"boring_view_url":1,"soilmap_view_url":null,"soiltest_xml_url":0,"soiltest_view_url":0},{"id":249322,"code":"B4KJ201802001-4802","latitude":"34.642259","longitude":"133.881763","source_code":"CG028742600200110010","project_name":"1\u5de5\u533a\u5e02\u9053\u30fb\u770c\u9053\u4ea4\u5dee\u90e8\u30dc\u30fc\u30ea\u30f3\u30b0\u8abf\u67fb","survey_name":"\u5ca1\u5c71\u897f\u30d0\u30a4\u30d1\u30b9(2\u5de5\u533a)\u8edf\u5f31\u5730\u76e4\u5bfe\u7b56\u696d\u52d9","client_name":"\u56fd\u571f\u4ea4\u901a\u7701\u4e2d\u56fd\u5730\u65b9\u6574\u5099\u5c40 \u5ca1\u5c71\u56fd\u9053\u4e8b\u52d9\u6240","boring_xml_url":47,"boring_view_url":1,"soilmap_view_url":null,"soiltest_xml_url":0,"soiltest_view_url":0},{"id":249321,"code":"B4KJ201802001-4801","latitude":"34.638621","longitude":"133.882679","source_code":"CG028742600200110009","project_name":"1\u5de5\u533a\u5e02\u9053\u30fb\u770c\u9053\u4ea4\u5dee\u90e8\u30dc\u30fc\u30ea\u30f3\u30b0\u8abf\u67fb","survey_name":"\u5ca1\u5c71\u897f\u30d0\u30a4\u30d1\u30b9(2\u5de5\u533a)\u8edf\u5f31\u5730\u76e4\u5bfe\u7b56\u696d\u52d9","client_name":"\u56fd\u571f\u4ea4\u901a\u7701\u4e2d\u56fd\u5730\u65b9\u6574\u5099\u5c40 \u5ca1\u5c71\u56fd\u9053\u4e8b\u52d9\u6240","boring_xml_url":47,"boring_view_url":1,"soilmap_view_url":null,"soiltest_xml_url":0,"soiltest_view_url":0},{"id":249320,"code":"B4KJ201802001-4800","latitude":"34.635316","longitude":"133.88479","source_code":"CG028742600200110008","project_name":"1\u5de5\u533a\u5e02\u9053\u30fb\u770c\u9053\u4ea4\u5dee\u90e8\u30dc\u30fc\u30ea\u30f3\u30b0\u8abf\u67fb","survey_name":"\u5ca1\u5c71\u897f\u30d0\u30a4\u30d1\u30b9(2\u5de5\u533a)\u8edf\u5f31\u5730\u76e4\u5bfe\u7b56\u696d\u52d9","client_name":"\u56fd\u571f\u4ea4\u901a\u7701\u4e2d\u56fd\u5730\u65b9\u6574\u5099\u5c40 \u5ca1\u5c71\u56fd\u9053\u4e8b\u52d9\u6240","boring_xml_url":47,"boring_view_url":1,"soilmap_view_url":null,"soiltest_xml_url":0,"soiltest_view_url":0},{"id":249319,"code":"B4KJ201802001-4799","latitude":"34.661729","longitude":"133.879706","source_code":"CG028742600200110007","project_name":"\u5ca1\u5c71\u897f\u30d0\u30a4\u30d1\u30b9(2\u5de5\u533a)\u8edf\u5f31\u5730\u76e4\u5bfe\u7b56\u696d\u52d9","survey_name":"\u5ca1\u5c71\u897f\u30d0\u30a4\u30d1\u30b9(2\u5de5\u533a)\u8edf\u5f31\u5730\u76e4\u5bfe\u7b56\u696d\u52d9","client_name":"\u56fd\u571f\u4ea4\u901a\u7701\u4e2d\u56fd\u5730\u65b9\u6574\u5099\u5c40 \u5ca1\u5c71\u56fd\u9053\u4e8b\u52d9\u6240","boring_xml_url":47,"boring_view_url":1,"soilmap_view_url":null,"soiltest_xml_url":0,"soiltest_view_url":0},{"id":249318,"code":"B4KJ201802001-4798","latitude":"34.660618","longitude":"133.879901","source_code":"CG028742600200110006","project_name":"\u5ca1\u5c71\u897f\u30d0\u30a4\u30d1\u30b9(2\u5de5\u533a)\u8edf\u5f31\u5730\u76e4\u5bfe\u7b56\u696d\u52d9","survey_name":"\u5ca1\u5c71\u897f\u30d0\u30a4\u30d1\u30b9(2\u5de5\u533a)\u8edf\u5f31\u5730\u76e4\u5bfe\u7b56\u696d\u52d9","client_name":"\u56fd\u571f\u4ea4\u901a\u7701\u4e2d\u56fd\u5730\u65b9\u6574\u5099\u5c40 \u5ca1\u5c71\u56fd\u9053\u4e8b\u52d9\u6240","boring_xml_url":47,"boring_view_url":1,"soilmap_view_url":null,"soiltest_xml_url":0,"soiltest_view_url":0},{"id":249317,"code":"B4KJ201802001-4797","latitude":"34.660563","longitude":"133.879179","source_code":"CG028742600200110005","project_name":"\u5ca1\u5c71\u897f\u30d0\u30a4\u30d1\u30b9(2\u5de5\u533a)\u8edf\u5f31\u5730\u76e4\u5bfe\u7b56\u696d\u52d9","survey_name":"\u5ca1\u5c71\u897f\u30d0\u30a4\u30d1\u30b9(2\u5de5\u533a)\u8edf\u5f31\u5730\u76e4\u5bfe\u7b56\u696d\u52d9","client_name":"\u56fd\u571f\u4ea4\u901a\u7701\u4e2d\u56fd\u5730\u65b9\u6574\u5099\u5c40 \u5ca1\u5c71\u56fd\u9053\u4e8b\u52d9\u6240","boring_xml_url":47,"boring_view_url":1,"soilmap_view_url":null,"soiltest_xml_url":0,"soiltest_view_url":0}]}}