{"header":{"xyz":{"source":[],"mosaic":false},"page":2712,"raw":{"soiltest_result":"0","bbox":"57.598333,109.544722,1.933333,163.806111","page":"2712"},"conditions":{"soiltest_result":0,"north":57.598333,"west":109.544722,"south":1.933333,"east":163.806111},"success":true,"message":""},"data":{"meta":{"total":212844,"page":2712,"pages":7095,"count":30},"values":[{"id":249196,"code":"B4KJ201802001-4676","latitude":"35.154464","longitude":"132.672245","source_code":"CG028738400200050005","project_name":"\u8abf\u67fb\u30dc\u30fc\u30ea\u30f3\u30b0","survey_name":"\u5fd7\u6d25\u898b\u30c0\u30e0\u6797\u9053\u4f0a\u6bd4\u5883\u7dda\u5730\u8cea\u8abf\u67fb\u696d\u52d9","client_name":"\u56fd\u571f\u4ea4\u901a\u7701\u4e2d\u56fd\u5730\u65b9\u6574\u5099\u5c40\u6590\u4f0a\u5ddd\u30fb\u795e\u6238\u5ddd\u7dcf\u5408\u958b\u767a\u5de5\u4e8b\u4e8b\u52d9\u6240","boring_xml_url":47,"boring_view_url":1,"soilmap_view_url":null,"soiltest_xml_url":0,"soiltest_view_url":0},{"id":249195,"code":"B4KJ201802001-4675","latitude":"35.154797","longitude":"132.673162","source_code":"CG028738400200050004","project_name":"\u8abf\u67fb\u30dc\u30fc\u30ea\u30f3\u30b0","survey_name":"\u5fd7\u6d25\u898b\u30c0\u30e0\u6797\u9053\u4f0a\u6bd4\u5883\u7dda\u5730\u8cea\u8abf\u67fb\u696d\u52d9","client_name":"\u56fd\u571f\u4ea4\u901a\u7701\u4e2d\u56fd\u5730\u65b9\u6574\u5099\u5c40\u6590\u4f0a\u5ddd\u30fb\u795e\u6238\u5ddd\u7dcf\u5408\u958b\u767a\u5de5\u4e8b\u4e8b\u52d9\u6240","boring_xml_url":47,"boring_view_url":1,"soilmap_view_url":null,"soiltest_xml_url":0,"soiltest_view_url":0},{"id":249194,"code":"B4KJ201802001-4674","latitude":"35.155269","longitude":"132.674245","source_code":"CG028738400200050003","project_name":"\u8abf\u67fb\u30dc\u30fc\u30ea\u30f3\u30b0","survey_name":"\u5fd7\u6d25\u898b\u30c0\u30e0\u6797\u9053\u4f0a\u6bd4\u5883\u7dda\u5730\u8cea\u8abf\u67fb\u696d\u52d9","client_name":"\u56fd\u571f\u4ea4\u901a\u7701\u4e2d\u56fd\u5730\u65b9\u6574\u5099\u5c40\u6590\u4f0a\u5ddd\u30fb\u795e\u6238\u5ddd\u7dcf\u5408\u958b\u767a\u5de5\u4e8b\u4e8b\u52d9\u6240","boring_xml_url":47,"boring_view_url":1,"soilmap_view_url":null,"soiltest_xml_url":0,"soiltest_view_url":0},{"id":249193,"code":"B4KJ201802001-4673","latitude":"35.155325","longitude":"132.675384","source_code":"CG028738400200050002","project_name":"\u8abf\u67fb\u30dc\u30fc\u30ea\u30f3\u30b0","survey_name":"\u5fd7\u6d25\u898b\u30c0\u30e0\u6797\u9053\u4f0a\u6bd4\u5883\u7dda\u5730\u8cea\u8abf\u67fb\u696d\u52d9","client_name":"\u56fd\u571f\u4ea4\u901a\u7701\u4e2d\u56fd\u5730\u65b9\u6574\u5099\u5c40\u6590\u4f0a\u5ddd\u30fb\u795e\u6238\u5ddd\u7dcf\u5408\u958b\u767a\u5de5\u4e8b\u4e8b\u52d9\u6240","boring_xml_url":47,"boring_view_url":1,"soilmap_view_url":null,"soiltest_xml_url":0,"soiltest_view_url":0},{"id":249192,"code":"B4KJ201802001-4672","latitude":"35.15563","longitude":"132.675689","source_code":"CG028738400200050001","project_name":"\u8abf\u67fb\u30dc\u30fc\u30ea\u30f3\u30b0","survey_name":"\u5fd7\u6d25\u898b\u30c0\u30e0\u6797\u9053\u4f0a\u6bd4\u5883\u7dda\u5730\u8cea\u8abf\u67fb\u696d\u52d9","client_name":"\u56fd\u571f\u4ea4\u901a\u7701\u4e2d\u56fd\u5730\u65b9\u6574\u5099\u5c40\u6590\u4f0a\u5ddd\u30fb\u795e\u6238\u5ddd\u7dcf\u5408\u958b\u767a\u5de5\u4e8b\u4e8b\u52d9\u6240","boring_xml_url":47,"boring_view_url":1,"soilmap_view_url":null,"soiltest_xml_url":0,"soiltest_view_url":0},{"id":249191,"code":"B4KJ201802001-4671","latitude":"35.131828","longitude":"132.6878","source_code":"CG028738400200060012","project_name":"","survey_name":"\u5fd7\u6d25\u898b\u30c0\u30e0\u6797\u9053\u68ee\u8107\u7dda\u5730\u8cea\u8abf\u67fb(\u305d\u306e1)\u696d\u52d9","client_name":"\u56fd\u571f\u4ea4\u901a\u7701\u4e2d\u56fd\u5730\u65b9\u6574\u5099\u5c40\u6590\u4f0a\u5ddd\u30fb\u795e\u6238\u5ddd\u7dcf\u5408\u958b\u767a\u5de5\u4e8b\u4e8b\u52d9\u6240","boring_xml_url":47,"boring_view_url":1,"soilmap_view_url":null,"soiltest_xml_url":0,"soiltest_view_url":0},{"id":249190,"code":"B4KJ201802001-4670","latitude":"35.131301","longitude":"132.688383","source_code":"CG028738400200060011","project_name":"","survey_name":"\u5fd7\u6d25\u898b\u30c0\u30e0\u6797\u9053\u68ee\u8107\u7dda\u5730\u8cea\u8abf\u67fb(\u305d\u306e1)\u696d\u52d9","client_name":"\u56fd\u571f\u4ea4\u901a\u7701\u4e2d\u56fd\u5730\u65b9\u6574\u5099\u5c40\u6590\u4f0a\u5ddd\u30fb\u795e\u6238\u5ddd\u7dcf\u5408\u958b\u767a\u5de5\u4e8b\u4e8b\u52d9\u6240","boring_xml_url":47,"boring_view_url":1,"soilmap_view_url":null,"soiltest_xml_url":0,"soiltest_view_url":0},{"id":249189,"code":"B4KJ201802001-4669","latitude":"35.131634","longitude":"132.68755","source_code":"CG028738400200060010","project_name":"","survey_name":"\u5fd7\u6d25\u898b\u30c0\u30e0\u6797\u9053\u68ee\u8107\u7dda\u5730\u8cea\u8abf\u67fb(\u305d\u306e1)\u696d\u52d9","client_name":"\u56fd\u571f\u4ea4\u901a\u7701\u4e2d\u56fd\u5730\u65b9\u6574\u5099\u5c40\u6590\u4f0a\u5ddd\u30fb\u795e\u6238\u5ddd\u7dcf\u5408\u958b\u767a\u5de5\u4e8b\u4e8b\u52d9\u6240","boring_xml_url":47,"boring_view_url":1,"soilmap_view_url":null,"soiltest_xml_url":0,"soiltest_view_url":0},{"id":249188,"code":"B4KJ201802001-4668","latitude":"35.131939","longitude":"132.687411","source_code":"CG028738400200060009","project_name":"","survey_name":"\u5fd7\u6d25\u898b\u30c0\u30e0\u6797\u9053\u68ee\u8107\u7dda\u5730\u8cea\u8abf\u67fb(\u305d\u306e1)\u696d\u52d9","client_name":"\u56fd\u571f\u4ea4\u901a\u7701\u4e2d\u56fd\u5730\u65b9\u6574\u5099\u5c40\u6590\u4f0a\u5ddd\u30fb\u795e\u6238\u5ddd\u7dcf\u5408\u958b\u767a\u5de5\u4e8b\u4e8b\u52d9\u6240","boring_xml_url":47,"boring_view_url":1,"soilmap_view_url":null,"soiltest_xml_url":0,"soiltest_view_url":0},{"id":249187,"code":"B4KJ201802001-4667","latitude":"35.132245","longitude":"132.686828","source_code":"CG028738400200060008","project_name":"","survey_name":"\u5fd7\u6d25\u898b\u30c0\u30e0\u6797\u9053\u68ee\u8107\u7dda\u5730\u8cea\u8abf\u67fb(\u305d\u306e1)\u696d\u52d9","client_name":"\u56fd\u571f\u4ea4\u901a\u7701\u4e2d\u56fd\u5730\u65b9\u6574\u5099\u5c40\u6590\u4f0a\u5ddd\u30fb\u795e\u6238\u5ddd\u7dcf\u5408\u958b\u767a\u5de5\u4e8b\u4e8b\u52d9\u6240","boring_xml_url":47,"boring_view_url":1,"soilmap_view_url":null,"soiltest_xml_url":0,"soiltest_view_url":0},{"id":249186,"code":"B4KJ201802001-4666","latitude":"35.132939","longitude":"132.686606","source_code":"CG028738400200060007","project_name":"","survey_name":"\u5fd7\u6d25\u898b\u30c0\u30e0\u6797\u9053\u68ee\u8107\u7dda\u5730\u8cea\u8abf\u67fb(\u305d\u306e1)\u696d\u52d9","client_name":"\u56fd\u571f\u4ea4\u901a\u7701\u4e2d\u56fd\u5730\u65b9\u6574\u5099\u5c40\u6590\u4f0a\u5ddd\u30fb\u795e\u6238\u5ddd\u7dcf\u5408\u958b\u767a\u5de5\u4e8b\u4e8b\u52d9\u6240","boring_xml_url":47,"boring_view_url":1,"soilmap_view_url":null,"soiltest_xml_url":0,"soiltest_view_url":0},{"id":249185,"code":"B4KJ201802001-4665","latitude":"35.133522","longitude":"132.6863","source_code":"CG028738400200060006","project_name":"","survey_name":"\u5fd7\u6d25\u898b\u30c0\u30e0\u6797\u9053\u68ee\u8107\u7dda\u5730\u8cea\u8abf\u67fb(\u305d\u306e1)\u696d\u52d9","client_name":"\u56fd\u571f\u4ea4\u901a\u7701\u4e2d\u56fd\u5730\u65b9\u6574\u5099\u5c40\u6590\u4f0a\u5ddd\u30fb\u795e\u6238\u5ddd\u7dcf\u5408\u958b\u767a\u5de5\u4e8b\u4e8b\u52d9\u6240","boring_xml_url":47,"boring_view_url":1,"soilmap_view_url":null,"soiltest_xml_url":0,"soiltest_view_url":0},{"id":249184,"code":"B4KJ201802001-4664","latitude":"35.135328","longitude":"132.686022","source_code":"CG028738400200060005","project_name":"","survey_name":"\u5fd7\u6d25\u898b\u30c0\u30e0\u6797\u9053\u68ee\u8107\u7dda\u5730\u8cea\u8abf\u67fb(\u305d\u306e1)\u696d\u52d9","client_name":"\u56fd\u571f\u4ea4\u901a\u7701\u4e2d\u56fd\u5730\u65b9\u6574\u5099\u5c40\u6590\u4f0a\u5ddd\u30fb\u795e\u6238\u5ddd\u7dcf\u5408\u958b\u767a\u5de5\u4e8b\u4e8b\u52d9\u6240","boring_xml_url":47,"boring_view_url":1,"soilmap_view_url":null,"soiltest_xml_url":0,"soiltest_view_url":0},{"id":249183,"code":"B4KJ201802001-4663","latitude":"35.135883","longitude":"132.6858","source_code":"CG028738400200060004","project_name":"","survey_name":"\u5fd7\u6d25\u898b\u30c0\u30e0\u6797\u9053\u68ee\u8107\u7dda\u5730\u8cea\u8abf\u67fb(\u305d\u306e1)\u696d\u52d9","client_name":"\u56fd\u571f\u4ea4\u901a\u7701\u4e2d\u56fd\u5730\u65b9\u6574\u5099\u5c40\u6590\u4f0a\u5ddd\u30fb\u795e\u6238\u5ddd\u7dcf\u5408\u958b\u767a\u5de5\u4e8b\u4e8b\u52d9\u6240","boring_xml_url":47,"boring_view_url":1,"soilmap_view_url":null,"soiltest_xml_url":0,"soiltest_view_url":0},{"id":249182,"code":"B4KJ201802001-4662","latitude":"35.136522","longitude":"132.68605","source_code":"CG028738400200060003","project_name":"","survey_name":"\u5fd7\u6d25\u898b\u30c0\u30e0\u6797\u9053\u68ee\u8107\u7dda\u5730\u8cea\u8abf\u67fb(\u305d\u306e1)\u696d\u52d9","client_name":"\u56fd\u571f\u4ea4\u901a\u7701\u4e2d\u56fd\u5730\u65b9\u6574\u5099\u5c40\u6590\u4f0a\u5ddd\u30fb\u795e\u6238\u5ddd\u7dcf\u5408\u958b\u767a\u5de5\u4e8b\u4e8b\u52d9\u6240","boring_xml_url":47,"boring_view_url":1,"soilmap_view_url":null,"soiltest_xml_url":0,"soiltest_view_url":0},{"id":249181,"code":"B4KJ201802001-4661","latitude":"35.137938","longitude":"132.686133","source_code":"CG028738400200060002","project_name":"","survey_name":"\u5fd7\u6d25\u898b\u30c0\u30e0\u6797\u9053\u68ee\u8107\u7dda\u5730\u8cea\u8abf\u67fb(\u305d\u306e1)\u696d\u52d9","client_name":"\u56fd\u571f\u4ea4\u901a\u7701\u4e2d\u56fd\u5730\u65b9\u6574\u5099\u5c40\u6590\u4f0a\u5ddd\u30fb\u795e\u6238\u5ddd\u7dcf\u5408\u958b\u767a\u5de5\u4e8b\u4e8b\u52d9\u6240","boring_xml_url":47,"boring_view_url":1,"soilmap_view_url":null,"soiltest_xml_url":0,"soiltest_view_url":0},{"id":249180,"code":"B4KJ201802001-4660","latitude":"35.142188","longitude":"132.685577","source_code":"CG028738400200060001","project_name":"","survey_name":"\u5fd7\u6d25\u898b\u30c0\u30e0\u6797\u9053\u68ee\u8107\u7dda\u5730\u8cea\u8abf\u67fb(\u305d\u306e1)\u696d\u52d9","client_name":"\u56fd\u571f\u4ea4\u901a\u7701\u4e2d\u56fd\u5730\u65b9\u6574\u5099\u5c40\u6590\u4f0a\u5ddd\u30fb\u795e\u6238\u5ddd\u7dcf\u5408\u958b\u767a\u5de5\u4e8b\u4e8b\u52d9\u6240","boring_xml_url":47,"boring_view_url":1,"soilmap_view_url":null,"soiltest_xml_url":0,"soiltest_view_url":0},{"id":249179,"code":"B4KJ201802001-4659","latitude":"34.268567","longitude":"132.62769","source_code":"CG028755600200500008","project_name":"\u90f7\u539f\u5730\u8cea\u8abf\u67fb\u696d\u52d9","survey_name":"\u90f7\u539f\u5730\u8cea\u8abf\u67fb\u696d\u52d9","client_name":"\u56fd\u571f\u4ea4\u901a\u7701\u4e2d\u56fd\u5730\u65b9\u6574\u5099\u5c40\u5e83\u5cf6\u56fd\u9053\u5de5\u4e8b\u4e8b\u52d9\u6240\u8abf\u67fb\u8a2d\u8a08\u8ab2","boring_xml_url":47,"boring_view_url":1,"soilmap_view_url":null,"soiltest_xml_url":0,"soiltest_view_url":0},{"id":249178,"code":"B4KJ201802001-4658","latitude":"34.272483","longitude":"132.631273","source_code":"CG028755600200500007","project_name":"\u90f7\u539f\u5730\u8cea\u8abf\u67fb\u696d\u52d9","survey_name":"\u90f7\u539f\u5730\u8cea\u8abf\u67fb\u696d\u52d9","client_name":"\u56fd\u571f\u4ea4\u901a\u7701\u4e2d\u56fd\u5730\u65b9\u6574\u5099\u5c40\u5e83\u5cf6\u56fd\u9053\u5de5\u4e8b\u4e8b\u52d9\u6240\u8abf\u67fb\u8a2d\u8a08\u8ab2","boring_xml_url":47,"boring_view_url":1,"soilmap_view_url":null,"soiltest_xml_url":0,"soiltest_view_url":0},{"id":249177,"code":"B4KJ201802001-4657","latitude":"34.292203","longitude":"132.624745","source_code":"CG028755600200500005","project_name":"\u90f7\u539f\u5730\u8cea\u8abf\u67fb\u696d\u52d9","survey_name":"\u90f7\u539f\u5730\u8cea\u8abf\u67fb\u696d\u52d9","client_name":"\u56fd\u571f\u4ea4\u901a\u7701\u4e2d\u56fd\u5730\u65b9\u6574\u5099\u5c40\u5e83\u5cf6\u56fd\u9053\u5de5\u4e8b\u4e8b\u52d9\u6240","boring_xml_url":47,"boring_view_url":1,"soilmap_view_url":null,"soiltest_xml_url":0,"soiltest_view_url":0},{"id":249176,"code":"B4KJ201802001-4656","latitude":"34.268539","longitude":"132.627774","source_code":"CG028755600200500004","project_name":"\u90f7\u539f\u5730\u8cea\u8abf\u67fb\u696d\u52d9","survey_name":"\u90f7\u539f\u5730\u8cea\u8abf\u67fb\u696d\u52d9","client_name":"\u56fd\u571f\u4ea4\u901a\u7701\u4e2d\u56fd\u5730\u65b9\u6574\u5099\u5c40\u5e83\u5cf6\u56fd\u9053\u5de5\u4e8b\u4e8b\u52d9\u6240","boring_xml_url":47,"boring_view_url":1,"soilmap_view_url":null,"soiltest_xml_url":0,"soiltest_view_url":0},{"id":249175,"code":"B4KJ201802001-4655","latitude":"34.26865","longitude":"132.627913","source_code":"CG028755600200500003","project_name":"\u90f7\u539f\u5730\u8cea\u8abf\u67fb\u696d\u52d9","survey_name":"\u90f7\u539f\u5730\u8cea\u8abf\u67fb\u696d\u52d9","client_name":"\u56fd\u571f\u4ea4\u901a\u7701\u4e2d\u56fd\u5730\u65b9\u6574\u5099\u5c40\u5e83\u5cf6\u56fd\u9053\u5de5\u4e8b\u4e8b\u52d9\u6240\u8abf\u67fb\u8a2d\u8a08\u8ab2","boring_xml_url":47,"boring_view_url":1,"soilmap_view_url":null,"soiltest_xml_url":0,"soiltest_view_url":0},{"id":249174,"code":"B4KJ201802001-4654","latitude":"34.272539","longitude":"132.63119","source_code":"CG028755600200500002","project_name":"\u90f7\u539f\u5730\u8cea\u8abf\u67fb\u696d\u52d9","survey_name":"\u90f7\u539f\u5730\u8cea\u8abf\u67fb\u696d\u52d9","client_name":"\u56fd\u571f\u4ea4\u901a\u7701\u4e2d\u56fd\u5730\u65b9\u6574\u5099\u5c40\u5e83\u5cf6\u56fd\u9053\u5de5\u4e8b\u4e8b\u52d9\u6240\u8abf\u67fb\u8a2d\u8a08\u8ab2","boring_xml_url":47,"boring_view_url":1,"soilmap_view_url":null,"soiltest_xml_url":0,"soiltest_view_url":0},{"id":249173,"code":"B4KJ201802001-4653","latitude":"34.272178","longitude":"132.63094","source_code":"CG028755600200500001","project_name":"\u90f7\u539f\u5730\u8cea\u8abf\u67fb\u696d\u52d9","survey_name":"\u90f7\u539f\u5730\u8cea\u8abf\u67fb\u696d\u52d9","client_name":"\u56fd\u571f\u4ea4\u901a\u7701\u4e2d\u56fd\u5730\u65b9\u6574\u5099\u5c40\u5e83\u5cf6\u56fd\u9053\u5de5\u4e8b\u4e8b\u52d9\u6240\u8abf\u67fb\u8a2d\u8a08\u8ab2","boring_xml_url":47,"boring_view_url":1,"soilmap_view_url":null,"soiltest_xml_url":0,"soiltest_view_url":0},{"id":249172,"code":"B4KJ201802001-4652","latitude":"35.140944","longitude":"132.689611","source_code":"CG018738400200080004","project_name":"\u5fd7\u6d25\u898b\u30c0\u30e0\u7b2c2\u5fd7\u6d25\u898b\u6a4b\u4ed6\u5730\u8cea\u8abf\u67fb\u696d\u52d9","survey_name":"\u5fd7\u6d25\u898b\u30c0\u30e0\u7b2c2\u5fd7\u6d25\u898b\u6a4b\u4ed6\u5730\u8cea\u8abf\u67fb\u696d\u52d9","client_name":"\u56fd\u571f\u4ea4\u901a\u7701 \u6590\u4f0a\u5ddd\u795e\u6238\u5ddd\u7dcf\u5408\u958b\u767a\u5de5\u4e8b\u4e8b\u52d9\u6240","boring_xml_url":47,"boring_view_url":1,"soilmap_view_url":null,"soiltest_xml_url":0,"soiltest_view_url":0},{"id":249171,"code":"B4KJ201802001-4651","latitude":"35.164","longitude":"132.678306","source_code":"CG018738400200080003","project_name":"\u5fd7\u6d25\u898b\u30c0\u30e0\u7b2c2\u5fd7\u6d25\u898b\u6a4b\u4ed6\u5730\u8cea\u8abf\u67fb\u696d\u52d9","survey_name":"\u5fd7\u6d25\u898b\u30c0\u30e0\u7b2c2\u5fd7\u6d25\u898b\u6a4b\u4ed6\u5730\u8cea\u8abf\u67fb\u696d\u52d9","client_name":"\u56fd\u571f\u4ea4\u901a\u7701 \u6590\u4f0a\u5ddd\u795e\u6238\u5ddd\u7dcf\u5408\u958b\u767a\u5de5\u4e8b\u4e8b\u52d9\u6240","boring_xml_url":47,"boring_view_url":1,"soilmap_view_url":null,"soiltest_xml_url":0,"soiltest_view_url":0},{"id":249170,"code":"B4KJ201802001-4650","latitude":"35.163917","longitude":"132.678361","source_code":"CG018738400200080002","project_name":"\u5fd7\u6d25\u898b\u30c0\u30e0\u7b2c2\u5fd7\u6d25\u898b\u6a4b\u4ed6\u5730\u8cea\u8abf\u67fb\u696d\u52d9","survey_name":"\u5fd7\u6d25\u898b\u30c0\u30e0\u7b2c2\u5fd7\u6d25\u898b\u6a4b\u4ed6\u5730\u8cea\u8abf\u67fb\u696d\u52d9","client_name":"\u56fd\u571f\u4ea4\u901a\u7701 \u6590\u4f0a\u5ddd\u795e\u6238\u5ddd\u7dcf\u5408\u958b\u767a\u5de5\u4e8b\u4e8b\u52d9\u6240","boring_xml_url":47,"boring_view_url":1,"soilmap_view_url":null,"soiltest_xml_url":0,"soiltest_view_url":0},{"id":249169,"code":"B4KJ201802001-4649","latitude":"35.164056","longitude":"132.6785","source_code":"CG018738400200080001","project_name":"\u5fd7\u6d25\u898b\u30c0\u30e0\u7b2c2\u5fd7\u6d25\u898b\u6a4b\u4ed6\u5730\u8cea\u8abf\u67fb\u696d\u52d9","survey_name":"\u5fd7\u6d25\u898b\u30c0\u30e0\u7b2c2\u5fd7\u6d25\u898b\u6a4b\u4ed6\u5730\u8cea\u8abf\u67fb\u696d\u52d9","client_name":"\u56fd\u571f\u4ea4\u901a\u7701 \u6590\u4f0a\u5ddd\u795e\u6238\u5ddd\u7dcf\u5408\u958b\u767a\u5de5\u4e8b\u4e8b\u52d9\u6240","boring_xml_url":47,"boring_view_url":1,"soilmap_view_url":null,"soiltest_xml_url":0,"soiltest_view_url":0},{"id":249168,"code":"B4KJ201802001-4648","latitude":"35.229444","longitude":"132.954722","source_code":"CG028738610200190010","project_name":"","survey_name":"\u5c3e\u539f\u30c0\u30e0\u539f\u77f3\u5c71\u5730\u8cea\u8abf\u67fb\u696d\u52d9","client_name":"\u4e2d\u56fd\u5730\u65b9\u5efa\u8a2d\u5c40\u6590\u4f0a\u5ddd\u795e\u6238\u5ddd\u7dcf\u5408\u958b\u767a\u5de5\u4e8b\u4e8b\u52d9\u6240","boring_xml_url":47,"boring_view_url":1,"soilmap_view_url":null,"soiltest_xml_url":0,"soiltest_view_url":0},{"id":249167,"code":"B4KJ201802001-4647","latitude":"35.230556","longitude":"132.955","source_code":"CG028738610200190009","project_name":"","survey_name":"\u5c3e\u539f\u30c0\u30e0\u539f\u77f3\u5c71\u5730\u8cea\u8abf\u67fb\u696d\u52d9","client_name":"\u4e2d\u56fd\u5730\u65b9\u5efa\u8a2d\u5c40\u6590\u4f0a\u5ddd\u795e\u6238\u5ddd\u7dcf\u5408\u958b\u767a\u5de5\u4e8b\u4e8b\u52d9\u6240","boring_xml_url":47,"boring_view_url":1,"soilmap_view_url":null,"soiltest_xml_url":0,"soiltest_view_url":0}]}}