{"header":{"xyz":{"source":[],"mosaic":false},"page":2716,"raw":{"soiltest_result":"0","bbox":"57.598333,109.544722,1.933333,163.806111","page":"2716"},"conditions":{"soiltest_result":0,"north":57.598333,"west":109.544722,"south":1.933333,"east":163.806111},"success":true,"message":""},"data":{"meta":{"total":212844,"page":2716,"pages":7095,"count":30},"values":[{"id":249076,"code":"B4KJ201802001-4556","latitude":"35.349855","longitude":"132.724871","source_code":"CG018735400200190005","project_name":"\u795e\u9580\u5730\u533a\u5730\u8cea\u8abf\u67fb\u696d\u52d9","survey_name":"\u795e\u9580\u5730\u533a\u5730\u8cea\u8abf\u67fb\u696d\u52d9","client_name":"\u56fd\u571f\u4ea4\u901a\u7701 \u4e2d\u56fd\u5730\u65b9\u6574\u5099\u5c40 \u677e\u6c5f\u56fd\u9053\u5de5\u4e8b\u4e8b\u52d9\u6240","boring_xml_url":47,"boring_view_url":1,"soilmap_view_url":null,"soiltest_xml_url":0,"soiltest_view_url":0},{"id":249075,"code":"B4KJ201802001-4555","latitude":"35.350188","longitude":"132.724871","source_code":"CG018735400200190004","project_name":"\u795e\u9580\u5730\u533a\u5730\u8cea\u8abf\u67fb\u696d\u52d9","survey_name":"\u795e\u9580\u5730\u533a\u5730\u8cea\u8abf\u67fb\u696d\u52d9","client_name":"\u56fd\u571f\u4ea4\u901a\u7701 \u4e2d\u56fd\u5730\u65b9\u6574\u5099\u5c40 \u677e\u6c5f\u56fd\u9053\u5de5\u4e8b\u4e8b\u52d9\u6240","boring_xml_url":47,"boring_view_url":1,"soilmap_view_url":null,"soiltest_xml_url":0,"soiltest_view_url":0},{"id":249074,"code":"B4KJ201802001-4554","latitude":"35.350577","longitude":"132.724843","source_code":"CG018735400200190003","project_name":"\u795e\u9580\u5730\u533a\u5730\u8cea\u8abf\u67fb\u696d\u52d9","survey_name":"\u795e\u9580\u5730\u533a\u5730\u8cea\u8abf\u67fb\u696d\u52d9","client_name":"\u56fd\u571f\u4ea4\u901a\u7701 \u4e2d\u56fd\u5730\u65b9\u6574\u5099\u5c40 \u677e\u6c5f\u56fd\u9053\u5de5\u4e8b\u4e8b\u52d9\u6240","boring_xml_url":47,"boring_view_url":1,"soilmap_view_url":null,"soiltest_xml_url":0,"soiltest_view_url":0},{"id":249073,"code":"B4KJ201802001-4553","latitude":"35.350994","longitude":"132.724787","source_code":"CG018735400200190002","project_name":"\u795e\u9580\u5730\u533a\u5730\u8cea\u8abf\u67fb\u696d\u52d9","survey_name":"\u795e\u9580\u5730\u533a\u5730\u8cea\u8abf\u67fb\u696d\u52d9","client_name":"\u56fd\u571f\u4ea4\u901a\u7701 \u4e2d\u56fd\u5730\u65b9\u6574\u5099\u5c40 \u677e\u6c5f\u56fd\u9053\u5de5\u4e8b\u4e8b\u52d9\u6240","boring_xml_url":47,"boring_view_url":1,"soilmap_view_url":null,"soiltest_xml_url":0,"soiltest_view_url":0},{"id":249072,"code":"B4KJ201802001-4552","latitude":"35.351299","longitude":"132.724732","source_code":"CG018735400200190001","project_name":"\u795e\u9580\u5730\u533a\u5730\u8cea\u8abf\u67fb\u696d\u52d9","survey_name":"\u795e\u9580\u5730\u533a\u5730\u8cea\u8abf\u67fb\u696d\u52d9","client_name":"\u56fd\u571f\u4ea4\u901a\u7701 \u4e2d\u56fd\u5730\u65b9\u6574\u5099\u5c40 \u677e\u6c5f\u56fd\u9053\u5de5\u4e8b\u4e8b\u52d9\u6240","boring_xml_url":47,"boring_view_url":1,"soilmap_view_url":null,"soiltest_xml_url":0,"soiltest_view_url":0},{"id":249071,"code":"B4KJ201802001-4551","latitude":"34.418833","longitude":"132.627917","source_code":"CG028755600200700011","project_name":"","survey_name":"\u5b89\u82b8\u30d0\u30a4\u30d1\u30b9\u4ed6\u5730\u8cea\u8abf\u67fb\u696d\u52d9","client_name":"\u56fd\u571f\u4ea4\u901a\u7701 \u4e2d\u56fd\u5730\u65b9\u6574\u5099\u5c40 \u5e83\u5cf6\u56fd\u9053\u4e8b\u52d9\u6240","boring_xml_url":47,"boring_view_url":1,"soilmap_view_url":null,"soiltest_xml_url":0,"soiltest_view_url":0},{"id":249070,"code":"B4KJ201802001-4550","latitude":"34.418528","longitude":"132.627139","source_code":"CG028755600200700010","project_name":"","survey_name":"\u5b89\u82b8\u30d0\u30a4\u30d1\u30b9\u4ed6\u5730\u8cea\u8abf\u67fb\u696d\u52d9","client_name":"\u56fd\u571f\u4ea4\u901a\u7701 \u4e2d\u56fd\u5730\u65b9\u6574\u5099\u5c40 \u5e83\u5cf6\u56fd\u9053\u4e8b\u52d9\u6240","boring_xml_url":47,"boring_view_url":1,"soilmap_view_url":null,"soiltest_xml_url":0,"soiltest_view_url":0},{"id":249069,"code":"B4KJ201802001-4549","latitude":"34.418167","longitude":"132.625917","source_code":"CG028755600200700009","project_name":"","survey_name":"\u5b89\u82b8\u30d0\u30a4\u30d1\u30b9\u4ed6\u5730\u8cea\u8abf\u67fb\u696d\u52d9","client_name":"\u56fd\u571f\u4ea4\u901a\u7701 \u4e2d\u56fd\u5730\u65b9\u6574\u5099\u5c40 \u5e83\u5cf6\u56fd\u9053\u4e8b\u52d9\u6240","boring_xml_url":47,"boring_view_url":1,"soilmap_view_url":null,"soiltest_xml_url":0,"soiltest_view_url":0},{"id":249068,"code":"B4KJ201802001-4548","latitude":"34.417972","longitude":"132.624306","source_code":"CG028755600200700008","project_name":"","survey_name":"\u5b89\u82b8\u30d0\u30a4\u30d1\u30b9\u4ed6\u5730\u8cea\u8abf\u67fb\u696d\u52d9","client_name":"\u56fd\u571f\u4ea4\u901a\u7701 \u4e2d\u56fd\u5730\u65b9\u6574\u5099\u5c40 \u5e83\u5cf6\u56fd\u9053\u4e8b\u52d9\u6240","boring_xml_url":47,"boring_view_url":1,"soilmap_view_url":null,"soiltest_xml_url":0,"soiltest_view_url":0},{"id":249067,"code":"B4KJ201802001-4547","latitude":"34.417806","longitude":"132.623083","source_code":"CG028755600200700007","project_name":"","survey_name":"\u5b89\u82b8\u30d0\u30a4\u30d1\u30b9\u4ed6\u5730\u8cea\u8abf\u67fb\u696d\u52d9","client_name":"\u56fd\u571f\u4ea4\u901a\u7701 \u4e2d\u56fd\u5730\u65b9\u6574\u5099\u5c40 \u5e83\u5cf6\u56fd\u9053\u4e8b\u52d9\u6240","boring_xml_url":47,"boring_view_url":1,"soilmap_view_url":null,"soiltest_xml_url":0,"soiltest_view_url":0},{"id":249066,"code":"B4KJ201802001-4546","latitude":"34.418194","longitude":"132.623111","source_code":"CG028755600200700006","project_name":"","survey_name":"\u5b89\u82b8\u30d0\u30a4\u30d1\u30b9\u4ed6\u5730\u8cea\u8abf\u67fb\u696d\u52d9","client_name":"\u56fd\u571f\u4ea4\u901a\u7701 \u4e2d\u56fd\u5730\u65b9\u6574\u5099\u5c40 \u5e83\u5cf6\u56fd\u9053\u4e8b\u52d9\u6240","boring_xml_url":47,"boring_view_url":1,"soilmap_view_url":null,"soiltest_xml_url":0,"soiltest_view_url":0},{"id":249065,"code":"B4KJ201802001-4545","latitude":"34.418","longitude":"132.620194","source_code":"CG028755600200700005","project_name":"","survey_name":"\u5b89\u82b8\u30d0\u30a4\u30d1\u30b9\u4ed6\u5730\u8cea\u8abf\u67fb\u696d\u52d9","client_name":"\u56fd\u571f\u4ea4\u901a\u7701 \u4e2d\u56fd\u5730\u65b9\u6574\u5099\u5c40 \u5e83\u5cf6\u56fd\u9053\u4e8b\u52d9\u6240","boring_xml_url":47,"boring_view_url":1,"soilmap_view_url":null,"soiltest_xml_url":0,"soiltest_view_url":0},{"id":249064,"code":"B4KJ201802001-4544","latitude":"34.418694","longitude":"132.620417","source_code":"CG028755600200700004","project_name":"","survey_name":"\u5b89\u82b8\u30d0\u30a4\u30d1\u30b9\u4ed6\u5730\u8cea\u8abf\u67fb\u696d\u52d9","client_name":"\u56fd\u571f\u4ea4\u901a\u7701 \u4e2d\u56fd\u5730\u65b9\u6574\u5099\u5c40 \u5e83\u5cf6\u56fd\u9053\u4e8b\u52d9\u6240","boring_xml_url":47,"boring_view_url":1,"soilmap_view_url":null,"soiltest_xml_url":0,"soiltest_view_url":0},{"id":249063,"code":"B4KJ201802001-4543","latitude":"34.392135","longitude":"132.579692","source_code":"CG028755600200070023","project_name":"","survey_name":"\u6771\u5e83\u5cf6\u30d0\u30a4\u30d1\u30b9(\u4e2d\u91ce\u6771\u5730\u533a\u4ed6)\u5730\u8cea\u8abf\u67fb\u696d\u52d9","client_name":"\u56fd\u571f\u4ea4\u901a\u7701 \u4e2d\u56fd\u5730\u65b9\u6574\u5099\u5c40 \u5e83\u5cf6\u56fd\u9053\u5de5\u4e8b\u4e8b\u52d9\u6240","boring_xml_url":47,"boring_view_url":1,"soilmap_view_url":null,"soiltest_xml_url":0,"soiltest_view_url":0},{"id":249062,"code":"B4KJ201802001-4542","latitude":"34.384079","longitude":"132.56386","source_code":"CG028755600200070021","project_name":"","survey_name":"\u6771\u5e83\u5cf6\u30d0\u30a4\u30d1\u30b9(\u4e2d\u91ce\u6771\u5730\u533a\u4ed6)\u5730\u8cea\u8abf\u67fb\u696d\u52d9","client_name":"\u56fd\u571f\u4ea4\u901a\u7701 \u4e2d\u56fd\u5730\u65b9\u6574\u5099\u5c40 \u5e83\u5cf6\u56fd\u9053\u5de5\u4e8b\u4e8b\u52d9\u6240","boring_xml_url":47,"boring_view_url":1,"soilmap_view_url":null,"soiltest_xml_url":0,"soiltest_view_url":0},{"id":249061,"code":"B4KJ201802001-4541","latitude":"34.396301","longitude":"132.583303","source_code":"CG028755600200070020","project_name":"","survey_name":"\u6771\u5e83\u5cf6\u30d0\u30a4\u30d1\u30b9(\u4e2d\u91ce\u6771\u5730\u533a\u4ed6)\u5730\u8cea\u8abf\u67fb\u696d\u52d9","client_name":"\u56fd\u571f\u4ea4\u901a\u7701 \u4e2d\u56fd\u5730\u65b9\u6574\u5099\u5c40 \u5e83\u5cf6\u56fd\u9053\u5de5\u4e8b\u4e8b\u52d9\u6240","boring_xml_url":47,"boring_view_url":1,"soilmap_view_url":null,"soiltest_xml_url":0,"soiltest_view_url":0},{"id":249060,"code":"B4KJ201802001-4540","latitude":"34.396579","longitude":"132.583581","source_code":"CG028755600200070019","project_name":"","survey_name":"\u6771\u5e83\u5cf6\u30d0\u30a4\u30d1\u30b9(\u4e2d\u91ce\u6771\u5730\u533a\u4ed6)\u5730\u8cea\u8abf\u67fb\u696d\u52d9","client_name":"\u56fd\u571f\u4ea4\u901a\u7701 \u4e2d\u56fd\u5730\u65b9\u6574\u5099\u5c40 \u5e83\u5cf6\u56fd\u9053\u5de5\u4e8b\u4e8b\u52d9\u6240","boring_xml_url":47,"boring_view_url":1,"soilmap_view_url":null,"soiltest_xml_url":0,"soiltest_view_url":0},{"id":249059,"code":"B4KJ201802001-4539","latitude":"34.396857","longitude":"132.583581","source_code":"CG028755600200070018","project_name":"","survey_name":"\u6771\u5e83\u5cf6\u30d0\u30a4\u30d1\u30b9(\u4e2d\u91ce\u6771\u5730\u533a\u4ed6)\u5730\u8cea\u8abf\u67fb\u696d\u52d9","client_name":"\u56fd\u571f\u4ea4\u901a\u7701 \u4e2d\u56fd\u5730\u65b9\u6574\u5099\u5c40 \u5e83\u5cf6\u56fd\u9053\u5de5\u4e8b\u4e8b\u52d9\u6240","boring_xml_url":47,"boring_view_url":1,"soilmap_view_url":null,"soiltest_xml_url":0,"soiltest_view_url":0},{"id":249058,"code":"B4KJ201802001-4538","latitude":"34.397968","longitude":"132.585525","source_code":"CG028755600200070017","project_name":"","survey_name":"\u6771\u5e83\u5cf6\u30d0\u30a4\u30d1\u30b9(\u4e2d\u91ce\u6771\u5730\u533a\u4ed6)\u5730\u8cea\u8abf\u67fb\u696d\u52d9","client_name":"\u56fd\u571f\u4ea4\u901a\u7701 \u4e2d\u56fd\u5730\u65b9\u6574\u5099\u5c40 \u5e83\u5cf6\u56fd\u9053\u5de5\u4e8b\u4e8b\u52d9\u6240","boring_xml_url":47,"boring_view_url":1,"soilmap_view_url":null,"soiltest_xml_url":0,"soiltest_view_url":0},{"id":249057,"code":"B4KJ201802001-4537","latitude":"34.397968","longitude":"132.585525","source_code":"CG028755600200070016","project_name":"","survey_name":"\u6771\u5e83\u5cf6\u30d0\u30a4\u30d1\u30b9(\u4e2d\u91ce\u6771\u5730\u533a\u4ed6)\u5730\u8cea\u8abf\u67fb\u696d\u52d9","client_name":"\u56fd\u571f\u4ea4\u901a\u7701 \u4e2d\u56fd\u5730\u65b9\u6574\u5099\u5c40 \u5e83\u5cf6\u56fd\u9053\u5de5\u4e8b\u4e8b\u52d9\u6240","boring_xml_url":47,"boring_view_url":1,"soilmap_view_url":null,"soiltest_xml_url":0,"soiltest_view_url":0},{"id":249056,"code":"B4KJ201802001-4536","latitude":"34.398246","longitude":"132.585802","source_code":"CG028755600200070015","project_name":"","survey_name":"\u6771\u5e83\u5cf6\u30d0\u30a4\u30d1\u30b9(\u4e2d\u91ce\u6771\u5730\u533a\u4ed6)\u5730\u8cea\u8abf\u67fb\u696d\u52d9","client_name":"\u56fd\u571f\u4ea4\u901a\u7701 \u4e2d\u56fd\u5730\u65b9\u6574\u5099\u5c40 \u5e83\u5cf6\u56fd\u9053\u5de5\u4e8b\u4e8b\u52d9\u6240","boring_xml_url":47,"boring_view_url":1,"soilmap_view_url":null,"soiltest_xml_url":0,"soiltest_view_url":0},{"id":249055,"code":"B4KJ201802001-4535","latitude":"34.400745","longitude":"132.588302","source_code":"CG028755600200070014","project_name":"","survey_name":"\u6771\u5e83\u5cf6\u30d0\u30a4\u30d1\u30b9(\u4e2d\u91ce\u6771\u5730\u533a\u4ed6)\u5730\u8cea\u8abf\u67fb\u696d\u52d9","client_name":"\u56fd\u571f\u4ea4\u901a\u7701 \u4e2d\u56fd\u5730\u65b9\u6574\u5099\u5c40 \u5e83\u5cf6\u56fd\u9053\u5de5\u4e8b\u4e8b\u52d9\u6240","boring_xml_url":47,"boring_view_url":1,"soilmap_view_url":null,"soiltest_xml_url":0,"soiltest_view_url":0},{"id":249054,"code":"B4KJ201802001-4534","latitude":"34.400745","longitude":"132.589136","source_code":"CG028755600200070013","project_name":"","survey_name":"\u6771\u5e83\u5cf6\u30d0\u30a4\u30d1\u30b9(\u4e2d\u91ce\u6771\u5730\u533a\u4ed6)\u5730\u8cea\u8abf\u67fb\u696d\u52d9","client_name":"\u56fd\u571f\u4ea4\u901a\u7701 \u4e2d\u56fd\u5730\u65b9\u6574\u5099\u5c40 \u5e83\u5cf6\u56fd\u9053\u5de5\u4e8b\u4e8b\u52d9\u6240","boring_xml_url":47,"boring_view_url":1,"soilmap_view_url":null,"soiltest_xml_url":0,"soiltest_view_url":0},{"id":249053,"code":"B4KJ201802001-4533","latitude":"34.409633","longitude":"132.594135","source_code":"CG028755600200070007","project_name":"","survey_name":"\u6771\u5e83\u5cf6\u30d0\u30a4\u30d1\u30b9(\u4e2d\u91ce\u6771\u5730\u533a\u4ed6)\u5730\u8cea\u8abf\u67fb\u696d\u52d9","client_name":"\u56fd\u571f\u4ea4\u901a\u7701 \u4e2d\u56fd\u5730\u65b9\u6574\u5099\u5c40 \u5e83\u5cf6\u56fd\u9053\u5de5\u4e8b\u4e8b\u52d9\u6240","boring_xml_url":47,"boring_view_url":1,"soilmap_view_url":null,"soiltest_xml_url":0,"soiltest_view_url":0},{"id":249052,"code":"B4KJ201802001-4532","latitude":"34.409356","longitude":"132.59469","source_code":"CG028755600200070006","project_name":"","survey_name":"\u6771\u5e83\u5cf6\u30d0\u30a4\u30d1\u30b9(\u4e2d\u91ce\u6771\u5730\u533a\u4ed6)\u5730\u8cea\u8abf\u67fb\u696d\u52d9","client_name":"\u56fd\u571f\u4ea4\u901a\u7701 \u4e2d\u56fd\u5730\u65b9\u6574\u5099\u5c40 \u5e83\u5cf6\u56fd\u9053\u5de5\u4e8b\u4e8b\u52d9\u6240","boring_xml_url":47,"boring_view_url":1,"soilmap_view_url":null,"soiltest_xml_url":0,"soiltest_view_url":0},{"id":249051,"code":"B4KJ201802001-4531","latitude":"34.162709","longitude":"132.204729","source_code":"CG028760400200360004","project_name":"","survey_name":"\u4eca\u6d25\u5ddd\u6a4b \u5730\u8cea\u8abf\u67fb\u696d\u52d9","client_name":"\u56fd\u571f\u4ea4\u901a\u7701\u4e2d\u56fd\u5730\u65b9\u6574\u5099\u5c40\u5c71\u53e3\u5de5\u4e8b\u4e8b\u52d9\u6240","boring_xml_url":47,"boring_view_url":1,"soilmap_view_url":null,"soiltest_xml_url":0,"soiltest_view_url":0},{"id":249050,"code":"B4KJ201802001-4530","latitude":"34.162431","longitude":"132.204729","source_code":"CG028760400200360003","project_name":"","survey_name":"\u4eca\u6d25\u5ddd\u6a4b \u5730\u8cea\u8abf\u67fb\u696d\u52d9","client_name":"\u56fd\u571f\u4ea4\u901a\u7701\u4e2d\u56fd\u5730\u65b9\u6574\u5099\u5c40\u5c71\u53e3\u5de5\u4e8b\u4e8b\u52d9\u6240","boring_xml_url":47,"boring_view_url":1,"soilmap_view_url":null,"soiltest_xml_url":0,"soiltest_view_url":0},{"id":249049,"code":"B4KJ201802001-4529","latitude":"34.161875","longitude":"132.204729","source_code":"CG028760400200360002","project_name":"","survey_name":"\u4eca\u6d25\u5ddd\u6a4b \u5730\u8cea\u8abf\u67fb\u696d\u52d9","client_name":"\u56fd\u571f\u4ea4\u901a\u7701\u4e2d\u56fd\u5730\u65b9\u6574\u5099\u5c40\u5c71\u53e3\u5de5\u4e8b\u4e8b\u52d9\u6240","boring_xml_url":47,"boring_view_url":1,"soilmap_view_url":null,"soiltest_xml_url":0,"soiltest_view_url":0},{"id":249048,"code":"B4KJ201802001-4528","latitude":"34.161598","longitude":"132.204729","source_code":"CG028760400200360001","project_name":"","survey_name":"\u4eca\u6d25\u5ddd\u6a4b \u5730\u8cea\u8abf\u67fb\u696d\u52d9","client_name":"\u56fd\u571f\u4ea4\u901a\u7701\u4e2d\u56fd\u5730\u65b9\u6574\u5099\u5c40\u5c71\u53e3\u5de5\u4e8b\u4e8b\u52d9\u6240","boring_xml_url":47,"boring_view_url":1,"soilmap_view_url":null,"soiltest_xml_url":0,"soiltest_view_url":0},{"id":249047,"code":"B4KJ201802001-4527","latitude":"34.149542","longitude":"132.106044","source_code":"CG028760540200290004","project_name":"","survey_name":"\u6771\u90e8\u7ba1\u5185\u5730\u8cea\u8abf\u67fb\u696d\u52d9","client_name":"\u56fd\u571f\u4ea4\u901a\u7701\u4e2d\u56fd\u5730\u65b9\u6574\u5099\u5c40\u5c71\u53e3\u5de5\u4e8b\u4e8b\u52d9\u6240","boring_xml_url":47,"boring_view_url":1,"soilmap_view_url":null,"soiltest_xml_url":0,"soiltest_view_url":0}]}}