{"header":{"xyz":{"source":[],"mosaic":false},"page":2721,"raw":{"soiltest_result":"0","bbox":"57.598333,109.544722,1.933333,163.806111","page":"2721"},"conditions":{"soiltest_result":0,"north":57.598333,"west":109.544722,"south":1.933333,"east":163.806111},"success":true,"message":""},"data":{"meta":{"total":212844,"page":2721,"pages":7095,"count":30},"values":[{"id":248926,"code":"B4KJ201802001-4406","latitude":"34.563667","longitude":"132.551028","source_code":"CG0187526000200400016","project_name":"","survey_name":"\u53ef\u90e8\u30d0\u30a4\u30d1\u30b9\u5927\u6797\u5730\u533a\u5730\u8cea\u8abf\u67fb\u696d\u52d9","client_name":"\u56fd\u571f\u4ea4\u901a\u7701 \u4e2d\u56fd\u5730\u65b9\u5efa\u8a2d\u5c40 \u4e09\u6b21\u5de5\u4e8b\u4e8b\u52d9\u6240","boring_xml_url":48,"boring_view_url":1,"soilmap_view_url":null,"soiltest_xml_url":0,"soiltest_view_url":0},{"id":248925,"code":"B4KJ201802001-4405","latitude":"34.562778","longitude":"132.549972","source_code":"CG0187526000200400015","project_name":"","survey_name":"\u53ef\u90e8\u30d0\u30a4\u30d1\u30b9\u5927\u6797\u5730\u533a\u5730\u8cea\u8abf\u67fb\u696d\u52d9","client_name":"\u56fd\u571f\u4ea4\u901a\u7701 \u4e2d\u56fd\u5730\u65b9\u5efa\u8a2d\u5c40 \u4e09\u6b21\u5de5\u4e8b\u4e8b\u52d9\u6240","boring_xml_url":48,"boring_view_url":1,"soilmap_view_url":null,"soiltest_xml_url":0,"soiltest_view_url":0},{"id":248924,"code":"B4KJ201802001-4404","latitude":"34.56175","longitude":"132.54875","source_code":"CG0187526000200400014","project_name":"","survey_name":"\u53ef\u90e8\u30d0\u30a4\u30d1\u30b9\u5927\u6797\u5730\u533a\u5730\u8cea\u8abf\u67fb\u696d\u52d9","client_name":"\u56fd\u571f\u4ea4\u901a\u7701 \u4e2d\u56fd\u5730\u65b9\u5efa\u8a2d\u5c40 \u4e09\u6b21\u5de5\u4e8b\u4e8b\u52d9\u6240","boring_xml_url":48,"boring_view_url":1,"soilmap_view_url":null,"soiltest_xml_url":0,"soiltest_view_url":0},{"id":248923,"code":"B4KJ201802001-4403","latitude":"34.560806","longitude":"132.547889","source_code":"CG0187526000200400013","project_name":"","survey_name":"\u53ef\u90e8\u30d0\u30a4\u30d1\u30b9\u5927\u6797\u5730\u533a\u5730\u8cea\u8abf\u67fb\u696d\u52d9","client_name":"\u56fd\u571f\u4ea4\u901a\u7701 \u4e2d\u56fd\u5730\u65b9\u5efa\u8a2d\u5c40 \u4e09\u6b21\u5de5\u4e8b\u4e8b\u52d9\u6240","boring_xml_url":48,"boring_view_url":1,"soilmap_view_url":null,"soiltest_xml_url":0,"soiltest_view_url":0},{"id":248922,"code":"B4KJ201802001-4402","latitude":"34.559972","longitude":"132.548083","source_code":"CG0187526000200400012","project_name":"","survey_name":"\u53ef\u90e8\u30d0\u30a4\u30d1\u30b9\u5927\u6797\u5730\u533a\u5730\u8cea\u8abf\u67fb\u696d\u52d9","client_name":"\u56fd\u571f\u4ea4\u901a\u7701 \u4e2d\u56fd\u5730\u65b9\u5efa\u8a2d\u5c40 \u4e09\u6b21\u5de5\u4e8b\u4e8b\u52d9\u6240","boring_xml_url":48,"boring_view_url":1,"soilmap_view_url":null,"soiltest_xml_url":0,"soiltest_view_url":0},{"id":248921,"code":"B4KJ201802001-4401","latitude":"34.559","longitude":"132.546917","source_code":"CG0187526000200400011","project_name":"","survey_name":"\u53ef\u90e8\u30d0\u30a4\u30d1\u30b9\u5927\u6797\u5730\u533a\u5730\u8cea\u8abf\u67fb\u696d\u52d9","client_name":"\u56fd\u571f\u4ea4\u901a\u7701 \u4e2d\u56fd\u5730\u65b9\u5efa\u8a2d\u5c40 \u4e09\u6b21\u5de5\u4e8b\u4e8b\u52d9\u6240","boring_xml_url":48,"boring_view_url":1,"soilmap_view_url":null,"soiltest_xml_url":0,"soiltest_view_url":0},{"id":248920,"code":"B4KJ201802001-4400","latitude":"34.558389","longitude":"132.546194","source_code":"CG0187526000200400010","project_name":"","survey_name":"\u53ef\u90e8\u30d0\u30a4\u30d1\u30b9\u5927\u6797\u5730\u533a\u5730\u8cea\u8abf\u67fb\u696d\u52d9","client_name":"\u56fd\u571f\u4ea4\u901a\u7701 \u4e2d\u56fd\u5730\u65b9\u5efa\u8a2d\u5c40 \u4e09\u6b21\u5de5\u4e8b\u4e8b\u52d9\u6240","boring_xml_url":48,"boring_view_url":1,"soilmap_view_url":null,"soiltest_xml_url":0,"soiltest_view_url":0},{"id":248919,"code":"B4KJ201802001-4399","latitude":"34.5575","longitude":"132.546028","source_code":"CG0187526000200400009","project_name":"","survey_name":"\u53ef\u90e8\u30d0\u30a4\u30d1\u30b9\u5927\u6797\u5730\u533a\u5730\u8cea\u8abf\u67fb\u696d\u52d9","client_name":"\u56fd\u571f\u4ea4\u901a\u7701 \u4e2d\u56fd\u5730\u65b9\u5efa\u8a2d\u5c40 \u4e09\u6b21\u5de5\u4e8b\u4e8b\u52d9\u6240","boring_xml_url":48,"boring_view_url":1,"soilmap_view_url":null,"soiltest_xml_url":0,"soiltest_view_url":0},{"id":248918,"code":"B4KJ201802001-4398","latitude":"34.556556","longitude":"132.544111","source_code":"CG0187526000200400008","project_name":"","survey_name":"\u53ef\u90e8\u30d0\u30a4\u30d1\u30b9\u5927\u6797\u5730\u533a\u5730\u8cea\u8abf\u67fb\u696d\u52d9","client_name":"\u56fd\u571f\u4ea4\u901a\u7701 \u4e2d\u56fd\u5730\u65b9\u5efa\u8a2d\u5c40 \u4e09\u6b21\u5de5\u4e8b\u4e8b\u52d9\u6240","boring_xml_url":48,"boring_view_url":1,"soilmap_view_url":null,"soiltest_xml_url":0,"soiltest_view_url":0},{"id":248917,"code":"B4KJ201802001-4397","latitude":"34.555694","longitude":"132.544","source_code":"CG0187526000200400007","project_name":"","survey_name":"\u53ef\u90e8\u30d0\u30a4\u30d1\u30b9\u5927\u6797\u5730\u533a\u5730\u8cea\u8abf\u67fb\u696d\u52d9","client_name":"\u56fd\u571f\u4ea4\u901a\u7701 \u4e2d\u56fd\u5730\u65b9\u5efa\u8a2d\u5c40 \u4e09\u6b21\u5de5\u4e8b\u4e8b\u52d9\u6240","boring_xml_url":48,"boring_view_url":1,"soilmap_view_url":null,"soiltest_xml_url":0,"soiltest_view_url":0},{"id":248916,"code":"B4KJ201802001-4396","latitude":"34.554889","longitude":"132.541361","source_code":"CG0187526000200400006","project_name":"","survey_name":"\u53ef\u90e8\u30d0\u30a4\u30d1\u30b9\u5927\u6797\u5730\u533a\u5730\u8cea\u8abf\u67fb\u696d\u52d9","client_name":"\u56fd\u571f\u4ea4\u901a\u7701 \u4e2d\u56fd\u5730\u65b9\u5efa\u8a2d\u5c40 \u4e09\u6b21\u5de5\u4e8b\u4e8b\u52d9\u6240","boring_xml_url":48,"boring_view_url":1,"soilmap_view_url":null,"soiltest_xml_url":0,"soiltest_view_url":0},{"id":248915,"code":"B4KJ201802001-4395","latitude":"34.554667","longitude":"132.541528","source_code":"CG0187526000200400005","project_name":"","survey_name":"\u53ef\u90e8\u30d0\u30a4\u30d1\u30b9\u5927\u6797\u5730\u533a\u5730\u8cea\u8abf\u67fb\u696d\u52d9","client_name":"\u56fd\u571f\u4ea4\u901a\u7701 \u4e2d\u56fd\u5730\u65b9\u5efa\u8a2d\u5c40 \u4e09\u6b21\u5de5\u4e8b\u4e8b\u52d9\u6240","boring_xml_url":48,"boring_view_url":1,"soilmap_view_url":null,"soiltest_xml_url":0,"soiltest_view_url":0},{"id":248914,"code":"B4KJ201802001-4394","latitude":"34.554222","longitude":"132.540833","source_code":"CG0187526000200400004","project_name":"","survey_name":"\u53ef\u90e8\u30d0\u30a4\u30d1\u30b9\u5927\u6797\u5730\u533a\u5730\u8cea\u8abf\u67fb\u696d\u52d9","client_name":"\u56fd\u571f\u4ea4\u901a\u7701 \u4e2d\u56fd\u5730\u65b9\u5efa\u8a2d\u5c40 \u4e09\u6b21\u5de5\u4e8b\u4e8b\u52d9\u6240","boring_xml_url":48,"boring_view_url":1,"soilmap_view_url":null,"soiltest_xml_url":0,"soiltest_view_url":0},{"id":248913,"code":"B4KJ201802001-4393","latitude":"34.554222","longitude":"132.540833","source_code":"CG0187526000200400003","project_name":"","survey_name":"\u53ef\u90e8\u30d0\u30a4\u30d1\u30b9\u5927\u6797\u5730\u533a\u5730\u8cea\u8abf\u67fb\u696d\u52d9","client_name":"\u56fd\u571f\u4ea4\u901a\u7701 \u4e2d\u56fd\u5730\u65b9\u5efa\u8a2d\u5c40 \u4e09\u6b21\u5de5\u4e8b\u4e8b\u52d9\u6240","boring_xml_url":48,"boring_view_url":1,"soilmap_view_url":null,"soiltest_xml_url":0,"soiltest_view_url":0},{"id":248912,"code":"B4KJ201802001-4392","latitude":"34.551722","longitude":"132.537611","source_code":"CG0187526000200400002","project_name":"","survey_name":"\u53ef\u90e8\u30d0\u30a4\u30d1\u30b9\u5927\u6797\u5730\u533a\u5730\u8cea\u8abf\u67fb\u696d\u52d9","client_name":"\u56fd\u571f\u4ea4\u901a\u7701 \u4e2d\u56fd\u5730\u65b9\u5efa\u8a2d\u5c40 \u4e09\u6b21\u5de5\u4e8b\u4e8b\u52d9\u6240","boring_xml_url":48,"boring_view_url":1,"soilmap_view_url":null,"soiltest_xml_url":0,"soiltest_view_url":0},{"id":248911,"code":"B4KJ201802001-4391","latitude":"34.551778","longitude":"132.536722","source_code":"CG0187526000200400001","project_name":"","survey_name":"\u53ef\u90e8\u30d0\u30a4\u30d1\u30b9\u5927\u6797\u5730\u533a\u5730\u8cea\u8abf\u67fb\u696d\u52d9","client_name":"\u56fd\u571f\u4ea4\u901a\u7701 \u4e2d\u56fd\u5730\u65b9\u5efa\u8a2d\u5c40 \u4e09\u6b21\u5de5\u4e8b\u4e8b\u52d9\u6240","boring_xml_url":48,"boring_view_url":1,"soilmap_view_url":null,"soiltest_xml_url":0,"soiltest_view_url":0},{"id":248910,"code":"B4KJ201802001-4390","latitude":"34.546756","longitude":"132.523053","source_code":"CG018752600200520009","project_name":"","survey_name":"\u53ef\u90e8\u30d0\u30a4\u30d1\u30b9\u5357\u539f\u5730\u533a\u4ed6\u5730\u8cea\u8abf\u67fb\u696d\u52d9","client_name":"\u56fd\u571f\u4ea4\u901a\u7701\u4e2d\u56fd\u5730\u65b9\u6574\u5099\u5c40\u4e09\u6b21\u5de5\u4e8b\u4e8b\u52d9\u6240","boring_xml_url":47,"boring_view_url":1,"soilmap_view_url":null,"soiltest_xml_url":0,"soiltest_view_url":0},{"id":248909,"code":"B4KJ201802001-4389","latitude":"34.547145","longitude":"132.522637","source_code":"CG018752600200520008","project_name":"","survey_name":"\u53ef\u90e8\u30d0\u30a4\u30d1\u30b9\u5357\u539f\u5730\u533a\u4ed6\u5730\u8cea\u8abf\u67fb\u696d\u52d9","client_name":"\u56fd\u571f\u4ea4\u901a\u7701\u4e2d\u56fd\u5730\u65b9\u6574\u5099\u5c40\u4e09\u6b21\u5de5\u4e8b\u4e8b\u52d9\u6240","boring_xml_url":47,"boring_view_url":1,"soilmap_view_url":null,"soiltest_xml_url":0,"soiltest_view_url":0},{"id":248908,"code":"B4KJ201802001-4388","latitude":"34.546173","longitude":"132.522081","source_code":"CG018752600200520007","project_name":"","survey_name":"\u53ef\u90e8\u30d0\u30a4\u30d1\u30b9\u5357\u539f\u5730\u533a\u4ed6\u5730\u8cea\u8abf\u67fb\u696d\u52d9","client_name":"\u56fd\u571f\u4ea4\u901a\u7701\u4e2d\u56fd\u5730\u65b9\u6574\u5099\u5c40\u4e09\u6b21\u5de5\u4e8b\u4e8b\u52d9\u6240","boring_xml_url":47,"boring_view_url":1,"soilmap_view_url":null,"soiltest_xml_url":0,"soiltest_view_url":0},{"id":248907,"code":"B4KJ201802001-4387","latitude":"34.546451","longitude":"132.521804","source_code":"CG018752600200520006","project_name":"","survey_name":"\u53ef\u90e8\u30d0\u30a4\u30d1\u30b9\u5357\u539f\u5730\u533a\u4ed6\u5730\u8cea\u8abf\u67fb\u696d\u52d9","client_name":"\u56fd\u571f\u4ea4\u901a\u7701\u4e2d\u56fd\u5730\u65b9\u6574\u5099\u5c40\u4e09\u6b21\u5de5\u4e8b\u4e8b\u52d9\u6240","boring_xml_url":47,"boring_view_url":1,"soilmap_view_url":null,"soiltest_xml_url":0,"soiltest_view_url":0},{"id":248906,"code":"B4KJ201802001-4386","latitude":"34.542645","longitude":"132.512749","source_code":"CG018752600200520005","project_name":"","survey_name":"\u53ef\u90e8\u30d0\u30a4\u30d1\u30b9\u5357\u539f\u5730\u533a\u4ed6\u5730\u8cea\u8abf\u67fb\u696d\u52d9","client_name":"\u56fd\u571f\u4ea4\u901a\u7701\u4e2d\u56fd\u5730\u65b9\u6574\u5099\u5c40\u4e09\u6b21\u5de5\u4e8b\u4e8b\u52d9\u6240","boring_xml_url":47,"boring_view_url":1,"soilmap_view_url":null,"soiltest_xml_url":0,"soiltest_view_url":0},{"id":248905,"code":"B4KJ201802001-4385","latitude":"34.542784","longitude":"132.512527","source_code":"CG018752600200520004","project_name":"","survey_name":"\u53ef\u90e8\u30d0\u30a4\u30d1\u30b9\u5357\u539f\u5730\u533a\u4ed6\u5730\u8cea\u8abf\u67fb\u696d\u52d9","client_name":"\u56fd\u571f\u4ea4\u901a\u7701\u4e2d\u56fd\u5730\u65b9\u6574\u5099\u5c40\u4e09\u6b21\u5de5\u4e8b\u4e8b\u52d9\u6240","boring_xml_url":47,"boring_view_url":1,"soilmap_view_url":null,"soiltest_xml_url":0,"soiltest_view_url":0},{"id":248904,"code":"B4KJ201802001-4384","latitude":"34.542229","longitude":"132.511943","source_code":"CG018752600200520003","project_name":"","survey_name":"\u53ef\u90e8\u30d0\u30a4\u30d1\u30b9\u5357\u539f\u5730\u533a\u4ed6\u5730\u8cea\u8abf\u67fb\u696d\u52d9","client_name":"\u56fd\u571f\u4ea4\u901a\u7701\u4e2d\u56fd\u5730\u65b9\u6574\u5099\u5c40\u4e09\u6b21\u5de5\u4e8b\u4e8b\u52d9\u6240","boring_xml_url":47,"boring_view_url":1,"soilmap_view_url":null,"soiltest_xml_url":0,"soiltest_view_url":0},{"id":248903,"code":"B4KJ201802001-4383","latitude":"34.538868","longitude":"132.510944","source_code":"CG018752600200520002","project_name":"","survey_name":"\u53ef\u90e8\u30d0\u30a4\u30d1\u30b9\u5357\u539f\u5730\u533a\u4ed6\u5730\u8cea\u8abf\u67fb\u696d\u52d9","client_name":"\u56fd\u571f\u4ea4\u901a\u7701\u4e2d\u56fd\u5730\u65b9\u6574\u5099\u5c40\u4e09\u6b21\u5de5\u4e8b\u4e8b\u52d9\u6240","boring_xml_url":47,"boring_view_url":1,"soilmap_view_url":null,"soiltest_xml_url":0,"soiltest_view_url":0},{"id":248902,"code":"B4KJ201802001-4382","latitude":"34.538424","longitude":"132.510832","source_code":"CG018752600200520001","project_name":"","survey_name":"\u53ef\u90e8\u30d0\u30a4\u30d1\u30b9\u5357\u539f\u5730\u533a\u4ed6\u5730\u8cea\u8abf\u67fb\u696d\u52d9","client_name":"\u56fd\u571f\u4ea4\u901a\u7701\u4e2d\u56fd\u5730\u65b9\u6574\u5099\u5c40\u4e09\u6b21\u5de5\u4e8b\u4e8b\u52d9\u6240","boring_xml_url":47,"boring_view_url":1,"soilmap_view_url":null,"soiltest_xml_url":0,"soiltest_view_url":0},{"id":248901,"code":"B4KJ201802001-4381","latitude":"35.231014","longitude":"132.935324","source_code":"CG018738410200080009","project_name":"","survey_name":"\u5c3e\u539f\u30c0\u30e0\u5e73\u7530\u4f50\u767d\u7dda\u4ed6\u5730\u8cea\u8abf\u67fb\u696d\u52d9","client_name":"\u56fd\u571f\u4ea4\u901a\u7701 \u4e2d\u56fd\u5730\u65b9\u6574\u5099\u5c40 \u6590\u4f0a\u5ddd\u30fb\u795e\u6238\u5ddd\u7dcf\u5408\u958b\u767a\u5de5\u4e8b\u4e8b\u52d9\u6240","boring_xml_url":47,"boring_view_url":1,"soilmap_view_url":null,"soiltest_xml_url":0,"soiltest_view_url":0},{"id":248900,"code":"B4KJ201802001-4380","latitude":"35.231626","longitude":"132.960599","source_code":"CG018738410200080006","project_name":"","survey_name":"\u5c3e\u539f\u30c0\u30e0\u5e73\u7530\u4f50\u767d\u7dda\u4ed6\u5730\u8cea\u8abf\u67fb\u696d\u52d9","client_name":"\u56fd\u571f\u4ea4\u901a\u7701 \u4e2d\u56fd\u5730\u65b9\u6574\u5099\u5c40 \u6590\u4f0a\u5ddd\u30fb\u795e\u6238\u5ddd\u7dcf\u5408\u958b\u767a\u5de5\u4e8b\u4e8b\u52d9\u6240","boring_xml_url":47,"boring_view_url":1,"soilmap_view_url":null,"soiltest_xml_url":0,"soiltest_view_url":0},{"id":248899,"code":"B4KJ201802001-4379","latitude":"35.231598","longitude":"132.960461","source_code":"CG018738410200080005","project_name":"","survey_name":"\u5c3e\u539f\u30c0\u30e0\u5e73\u7530\u4f50\u767d\u7dda\u4ed6\u5730\u8cea\u8abf\u67fb\u696d\u52d9","client_name":"\u56fd\u571f\u4ea4\u901a\u7701 \u4e2d\u56fd\u5730\u65b9\u6574\u5099\u5c40 \u6590\u4f0a\u5ddd\u30fb\u795e\u6238\u5ddd\u7dcf\u5408\u958b\u767a\u5de5\u4e8b\u4e8b\u52d9\u6240","boring_xml_url":47,"boring_view_url":1,"soilmap_view_url":null,"soiltest_xml_url":0,"soiltest_view_url":0},{"id":248898,"code":"B4KJ201802001-4378","latitude":"35.232125","longitude":"132.953739","source_code":"CG018738410200330009","project_name":"","survey_name":"\u5c3e\u539f\u30c0\u30e0\u5e73\u7530\u4f50\u767d\u7dda\u6a4b\u6881\u5730\u8cea\u8abf\u67fb\u696d\u52d9","client_name":"\u56fd\u571f\u4ea4\u901a\u7701 \u6590\u4f0a\u5ddd\u30fb\u795e\u6238\u5ddd\u7dcf\u5408\u958b\u767a\u5de5\u4e8b\u4e8b\u52d9\u6240","boring_xml_url":47,"boring_view_url":1,"soilmap_view_url":null,"soiltest_xml_url":0,"soiltest_view_url":0},{"id":248897,"code":"B4KJ201802001-4377","latitude":"35.230181","longitude":"132.949989","source_code":"CG018738410200330002","project_name":"","survey_name":"\u5c3e\u539f\u30c0\u30e0\u5e73\u7530\u4f50\u767d\u7dda\u6a4b\u6881\u5730\u8cea\u8abf\u67fb\u696d\u52d9","client_name":"\u56fd\u571f\u4ea4\u901a\u7701 \u6590\u4f0a\u5ddd\u30fb\u795e\u6238\u5ddd\u7dcf\u5408\u958b\u767a\u5de5\u4e8b\u4e8b\u52d9\u6240","boring_xml_url":47,"boring_view_url":1,"soilmap_view_url":null,"soiltest_xml_url":0,"soiltest_view_url":0}]}}