{"header":{"xyz":{"source":[],"mosaic":false},"page":2722,"raw":{"soiltest_result":"0","bbox":"57.598333,109.544722,1.933333,163.806111","page":"2722"},"conditions":{"soiltest_result":0,"north":57.598333,"west":109.544722,"south":1.933333,"east":163.806111},"success":true,"message":""},"data":{"meta":{"total":212844,"page":2722,"pages":7095,"count":30},"values":[{"id":248896,"code":"B4KJ201802001-4376","latitude":"35.230264","longitude":"132.949934","source_code":"CG018738410200330001","project_name":"","survey_name":"\u5c3e\u539f\u30c0\u30e0\u5e73\u7530\u4f50\u767d\u7dda\u6a4b\u6881\u5730\u8cea\u8abf\u67fb\u696d\u52d9","client_name":"\u56fd\u571f\u4ea4\u901a\u7701 \u6590\u4f0a\u5ddd\u30fb\u795e\u6238\u5ddd\u7dcf\u5408\u958b\u767a\u5de5\u4e8b\u4e8b\u52d9\u6240","boring_xml_url":47,"boring_view_url":1,"soilmap_view_url":null,"soiltest_xml_url":0,"soiltest_view_url":0},{"id":248895,"code":"B4KJ201802001-4375","latitude":"35.224266","longitude":"132.953795","source_code":"CG018738610200020011","project_name":"\u5c3e\u539f\u30c0\u30e0\u30b5\u30a4\u30c8\u5730\u8cea\u8abf\u67fb\u696d\u52d9","survey_name":"\u5c3e\u539f\u30c0\u30e0\u30b5\u30a4\u30c8\u5730\u8cea\u8abf\u67fb\u696d\u52d9","client_name":"\u56fd\u571f\u4ea4\u901a\u7701 \u4e2d\u56fd\u5730\u65b9\u6574\u5099\u5c40 \u6590\u4f0a\u5ddd\u30fb\u795e\u6238\u5ddd\u7dcf\u5408\u958b\u767a","boring_xml_url":47,"boring_view_url":1,"soilmap_view_url":null,"soiltest_xml_url":0,"soiltest_view_url":0},{"id":248894,"code":"B4KJ201802001-4374","latitude":"35.224266","longitude":"132.95185","source_code":"CG018738610200020010","project_name":"\u5c3e\u539f\u30c0\u30e0\u30b5\u30a4\u30c8\u5730\u8cea\u8abf\u67fb\u696d\u52d9","survey_name":"\u5c3e\u539f\u30c0\u30e0\u30b5\u30a4\u30c8\u5730\u8cea\u8abf\u67fb\u696d\u52d9","client_name":"\u56fd\u571f\u4ea4\u901a\u7701 \u4e2d\u56fd\u5730\u65b9\u6574\u5099\u5c40 \u6590\u4f0a\u5ddd\u30fb\u795e\u6238\u5ddd\u7dcf\u5408\u958b\u767a","boring_xml_url":47,"boring_view_url":1,"soilmap_view_url":null,"soiltest_xml_url":0,"soiltest_view_url":0},{"id":248893,"code":"B4KJ201802001-4373","latitude":"35.223988","longitude":"132.954072","source_code":"CG018738610200020009","project_name":"\u5c3e\u539f\u30c0\u30e0\u30b5\u30a4\u30c8\u5730\u8cea\u8abf\u67fb\u696d\u52d9","survey_name":"\u5c3e\u539f\u30c0\u30e0\u30b5\u30a4\u30c8\u5730\u8cea\u8abf\u67fb\u696d\u52d9","client_name":"\u56fd\u571f\u4ea4\u901a\u7701 \u4e2d\u56fd\u5730\u65b9\u6574\u5099\u5c40 \u6590\u4f0a\u5ddd\u30fb\u795e\u6238\u5ddd\u7dcf\u5408\u958b\u767a","boring_xml_url":47,"boring_view_url":1,"soilmap_view_url":null,"soiltest_xml_url":0,"soiltest_view_url":0},{"id":248892,"code":"B4KJ201802001-4372","latitude":"35.223988","longitude":"132.954628","source_code":"CG018738610200020008","project_name":"\u5c3e\u539f\u30c0\u30e0\u30b5\u30a4\u30c8\u5730\u8cea\u8abf\u67fb\u696d\u52d9","survey_name":"\u5c3e\u539f\u30c0\u30e0\u30b5\u30a4\u30c8\u5730\u8cea\u8abf\u67fb\u696d\u52d9","client_name":"\u56fd\u571f\u4ea4\u901a\u7701 \u4e2d\u56fd\u5730\u65b9\u6574\u5099\u5c40 \u6590\u4f0a\u5ddd\u30fb\u795e\u6238\u5ddd\u7dcf\u5408\u958b\u767a","boring_xml_url":47,"boring_view_url":1,"soilmap_view_url":null,"soiltest_xml_url":0,"soiltest_view_url":0},{"id":248891,"code":"B4KJ201802001-4371","latitude":"35.223988","longitude":"132.951572","source_code":"CG018738610200020007","project_name":"\u5c3e\u539f\u30c0\u30e0\u30b5\u30a4\u30c8\u5730\u8cea\u8abf\u67fb\u696d\u52d9","survey_name":"\u5c3e\u539f\u30c0\u30e0\u30b5\u30a4\u30c8\u5730\u8cea\u8abf\u67fb\u696d\u52d9","client_name":"\u56fd\u571f\u4ea4\u901a\u7701 \u4e2d\u56fd\u5730\u65b9\u6574\u5099\u5c40 \u6590\u4f0a\u5ddd\u30fb\u795e\u6238\u5ddd\u7dcf\u5408\u958b\u767a","boring_xml_url":47,"boring_view_url":1,"soilmap_view_url":null,"soiltest_xml_url":0,"soiltest_view_url":0},{"id":248890,"code":"B4KJ201802001-4370","latitude":"35.223988","longitude":"132.952128","source_code":"CG018738610200020006","project_name":"\u5c3e\u539f\u30c0\u30e0\u30b5\u30a4\u30c8\u5730\u8cea\u8abf\u67fb\u696d\u52d9","survey_name":"\u5c3e\u539f\u30c0\u30e0\u30b5\u30a4\u30c8\u5730\u8cea\u8abf\u67fb\u696d\u52d9","client_name":"\u56fd\u571f\u4ea4\u901a\u7701 \u4e2d\u56fd\u5730\u65b9\u6574\u5099\u5c40 \u6590\u4f0a\u5ddd\u30fb\u795e\u6238\u5ddd\u7dcf\u5408\u958b\u767a","boring_xml_url":47,"boring_view_url":1,"soilmap_view_url":null,"soiltest_xml_url":0,"soiltest_view_url":0},{"id":248889,"code":"B4KJ201802001-4369","latitude":"35.223988","longitude":"132.952128","source_code":"CG018738610200020005","project_name":"\u5c3e\u539f\u30c0\u30e0\u30b5\u30a4\u30c8\u5730\u8cea\u8abf\u67fb\u696d\u52d9","survey_name":"\u5c3e\u539f\u30c0\u30e0\u30b5\u30a4\u30c8\u5730\u8cea\u8abf\u67fb\u696d\u52d9","client_name":"\u56fd\u571f\u4ea4\u901a\u7701 \u4e2d\u56fd\u5730\u65b9\u6574\u5099\u5c40 \u6590\u4f0a\u5ddd\u30fb\u795e\u6238\u5ddd\u7dcf\u5408\u958b\u767a","boring_xml_url":47,"boring_view_url":1,"soilmap_view_url":null,"soiltest_xml_url":0,"soiltest_view_url":0},{"id":248888,"code":"B4KJ201802001-4368","latitude":"35.224266","longitude":"132.953239","source_code":"CG018738610200020004","project_name":"\u5c3e\u539f\u30c0\u30e0\u30b5\u30a4\u30c8\u5730\u8cea\u8abf\u67fb\u696d\u52d9","survey_name":"\u5c3e\u539f\u30c0\u30e0\u30b5\u30a4\u30c8\u5730\u8cea\u8abf\u67fb\u696d\u52d9","client_name":"\u56fd\u571f\u4ea4\u901a\u7701 \u4e2d\u56fd\u5730\u65b9\u6574\u5099\u5c40 \u6590\u4f0a\u5ddd\u30fb\u795e\u6238\u5ddd\u7dcf\u5408\u958b\u767a","boring_xml_url":47,"boring_view_url":1,"soilmap_view_url":null,"soiltest_xml_url":0,"soiltest_view_url":0},{"id":248887,"code":"B4KJ201802001-4367","latitude":"35.224266","longitude":"132.953239","source_code":"CG018738610200020003","project_name":"\u5c3e\u539f\u30c0\u30e0\u30b5\u30a4\u30c8\u5730\u8cea\u8abf\u67fb\u696d\u52d9","survey_name":"\u5c3e\u539f\u30c0\u30e0\u30b5\u30a4\u30c8\u5730\u8cea\u8abf\u67fb\u696d\u52d9","client_name":"\u56fd\u571f\u4ea4\u901a\u7701 \u4e2d\u56fd\u5730\u65b9\u6574\u5099\u5c40 \u6590\u4f0a\u5ddd\u30fb\u795e\u6238\u5ddd\u7dcf\u5408\u958b\u767a\u5de5\u4e8b\u4e8b\u52d9\u6240","boring_xml_url":47,"boring_view_url":1,"soilmap_view_url":null,"soiltest_xml_url":0,"soiltest_view_url":0},{"id":248886,"code":"B4KJ201802001-4366","latitude":"35.224543","longitude":"132.952961","source_code":"CG018738610200020002","project_name":"\u5c3e\u539f\u30c0\u30e0\u30b5\u30a4\u30c8\u5730\u8cea\u8abf\u67fb\u696d\u52d9","survey_name":"\u5c3e\u539f\u30c0\u30e0\u30b5\u30a4\u30c8\u5730\u8cea\u8abf\u67fb\u696d\u52d9","client_name":"\u56fd\u571f\u4ea4\u901a\u7701 \u4e2d\u56fd\u5730\u65b9\u6574\u5099\u5c40 \u6590\u4f0a\u5ddd\u30fb\u795e\u6238\u5ddd\u7dcf\u5408\u958b\u767a","boring_xml_url":47,"boring_view_url":1,"soilmap_view_url":null,"soiltest_xml_url":0,"soiltest_view_url":0},{"id":248885,"code":"B4KJ201802001-4365","latitude":"35.224543","longitude":"132.951295","source_code":"CG018738610200020001","project_name":"\u5c3e\u539f\u30c0\u30e0\u30b5\u30a4\u30c8\u5730\u8cea\u8abf\u67fb\u696d\u52d9","survey_name":"\u5c3e\u539f\u30c0\u30e0\u30b5\u30a4\u30c8\u5730\u8cea\u8abf\u67fb\u696d\u52d9","client_name":"\u56fd\u571f\u4ea4\u901a\u7701 \u4e2d\u56fd\u5730\u65b9\u6574\u5099\u5c40 \u6590\u4f0a\u5ddd\u30fb\u795e\u6238\u5ddd\u7dcf\u5408\u958b\u767a\u5de5\u4e8b\u4e8b\u52d9\u6240","boring_xml_url":47,"boring_view_url":1,"soilmap_view_url":null,"soiltest_xml_url":0,"soiltest_view_url":0},{"id":248884,"code":"B4KJ201802001-4364","latitude":"34.349167","longitude":"132.287222","source_code":"CG028753420200190012","project_name":"","survey_name":"\u5e83\u5cf6\u897f\u90e8\u5c71\u7cfb\u5bae\u5712\u30fb\u56db\u5b63\u304c\u4e18\u5730\u533a\u5730\u8cea\u8abf\u67fb\u696d\u52d9","client_name":"\u56fd\u571f\u4ea4\u901a\u7701\u4e2d\u56fd\u5730\u65b9\u6574\u5099\u5c40\u592a\u7530\u5ddd\u5de5\u4e8b\u4e8b\u52d9\u6240","boring_xml_url":47,"boring_view_url":1,"soilmap_view_url":null,"soiltest_xml_url":0,"soiltest_view_url":0},{"id":248883,"code":"B4KJ201802001-4363","latitude":"34.349222","longitude":"132.287306","source_code":"CG028753420200190011","project_name":"","survey_name":"\u5e83\u5cf6\u897f\u90e8\u5c71\u7cfb\u5bae\u5712\u30fb\u56db\u5b63\u304c\u4e18\u5730\u533a\u5730\u8cea\u8abf\u67fb\u696d\u52d9","client_name":"\u56fd\u571f\u4ea4\u901a\u7701\u4e2d\u56fd\u5730\u65b9\u6574\u5099\u5c40\u592a\u7530\u5ddd\u5de5\u4e8b\u4e8b\u52d9\u6240","boring_xml_url":47,"boring_view_url":1,"soilmap_view_url":null,"soiltest_xml_url":0,"soiltest_view_url":0},{"id":248882,"code":"B4KJ201802001-4362","latitude":"34.3495","longitude":"132.28675","source_code":"CG028753420200190010","project_name":"","survey_name":"\u5e83\u5cf6\u897f\u90e8\u5c71\u7cfb\u5bae\u5712\u30fb\u56db\u5b63\u304c\u4e18\u5730\u533a\u5730\u8cea\u8abf\u67fb\u696d\u52d9","client_name":"\u56fd\u571f\u4ea4\u901a\u7701\u4e2d\u56fd\u5730\u65b9\u6574\u5099\u5c40\u592a\u7530\u5ddd\u5de5\u4e8b\u4e8b\u52d9\u6240","boring_xml_url":47,"boring_view_url":1,"soilmap_view_url":null,"soiltest_xml_url":0,"soiltest_view_url":0},{"id":248881,"code":"B4KJ201802001-4361","latitude":"34.349583","longitude":"132.286472","source_code":"CG028753420200190009","project_name":"","survey_name":"\u5e83\u5cf6\u897f\u90e8\u5c71\u7cfb\u5bae\u5712\u30fb\u56db\u5b63\u304c\u4e18\u5730\u533a\u5730\u8cea\u8abf\u67fb\u696d\u52d9","client_name":"\u56fd\u571f\u4ea4\u901a\u7701\u4e2d\u56fd\u5730\u65b9\u6574\u5099\u5c40\u592a\u7530\u5ddd\u5de5\u4e8b\u4e8b\u52d9\u6240","boring_xml_url":47,"boring_view_url":1,"soilmap_view_url":null,"soiltest_xml_url":0,"soiltest_view_url":0},{"id":248880,"code":"B4KJ201802001-4360","latitude":"34.349667","longitude":"132.286639","source_code":"CG028753420200190008","project_name":"","survey_name":"\u5e83\u5cf6\u897f\u90e8\u5c71\u7cfb\u5bae\u5712\u30fb\u56db\u5b63\u304c\u4e18\u5730\u533a\u5730\u8cea\u8abf\u67fb\u696d\u52d9","client_name":"\u56fd\u571f\u4ea4\u901a\u7701\u4e2d\u56fd\u5730\u65b9\u6574\u5099\u5c40\u592a\u7530\u5ddd\u5de5\u4e8b\u4e8b\u52d9\u6240","boring_xml_url":47,"boring_view_url":1,"soilmap_view_url":null,"soiltest_xml_url":0,"soiltest_view_url":0},{"id":248879,"code":"B4KJ201802001-4359","latitude":"34.349417","longitude":"132.2865","source_code":"CG028753420200190007","project_name":"","survey_name":"\u5e83\u5cf6\u897f\u90e8\u5c71\u7cfb\u5bae\u5712\u30fb\u56db\u5b63\u304c\u4e18\u5730\u533a\u5730\u8cea\u8abf\u67fb\u696d\u52d9","client_name":"\u56fd\u571f\u4ea4\u901a\u7701\u4e2d\u56fd\u5730\u65b9\u6574\u5099\u5c40\u592a\u7530\u5ddd\u5de5\u4e8b\u4e8b\u52d9\u6240","boring_xml_url":47,"boring_view_url":1,"soilmap_view_url":null,"soiltest_xml_url":0,"soiltest_view_url":0},{"id":248878,"code":"B4KJ201802001-4358","latitude":"34.349556","longitude":"132.286583","source_code":"CG028753420200190006","project_name":"","survey_name":"\u5e83\u5cf6\u897f\u90e8\u5c71\u7cfb\u5bae\u5712\u30fb\u56db\u5b63\u304c\u4e18\u5730\u533a\u5730\u8cea\u8abf\u67fb\u696d\u52d9","client_name":"\u56fd\u571f\u4ea4\u901a\u7701\u4e2d\u56fd\u5730\u65b9\u6574\u5099\u5c40\u592a\u7530\u5ddd\u5de5\u4e8b\u4e8b\u52d9\u6240","boring_xml_url":47,"boring_view_url":1,"soilmap_view_url":null,"soiltest_xml_url":0,"soiltest_view_url":0},{"id":248877,"code":"B4KJ201802001-4357","latitude":"34.351611","longitude":"132.291","source_code":"CG028753420200190005","project_name":"","survey_name":"\u5e83\u5cf6\u897f\u90e8\u5c71\u7cfb\u5bae\u5712\u30fb\u56db\u5b63\u304c\u4e18\u5730\u533a\u5730\u8cea\u8abf\u67fb\u696d\u52d9","client_name":"\u56fd\u571f\u4ea4\u901a\u7701\u4e2d\u56fd\u5730\u65b9\u6574\u5099\u5c40\u592a\u7530\u5ddd\u5de5\u4e8b\u4e8b\u52d9\u6240","boring_xml_url":47,"boring_view_url":1,"soilmap_view_url":null,"soiltest_xml_url":0,"soiltest_view_url":0},{"id":248876,"code":"B4KJ201802001-4356","latitude":"34.351778","longitude":"132.290806","source_code":"CG028753420200190004","project_name":"","survey_name":"\u5e83\u5cf6\u897f\u90e8\u5c71\u7cfb\u5bae\u5712\u30fb\u56db\u5b63\u304c\u4e18\u5730\u533a\u5730\u8cea\u8abf\u67fb\u696d\u52d9","client_name":"\u56fd\u571f\u4ea4\u901a\u7701\u4e2d\u56fd\u5730\u65b9\u6574\u5099\u5c40\u592a\u7530\u5ddd\u5de5\u4e8b\u4e8b\u52d9\u6240","boring_xml_url":47,"boring_view_url":1,"soilmap_view_url":null,"soiltest_xml_url":0,"soiltest_view_url":0},{"id":248875,"code":"B4KJ201802001-4355","latitude":"34.351806","longitude":"132.291","source_code":"CG028753420200190003","project_name":"","survey_name":"\u5e83\u5cf6\u897f\u90e8\u5c71\u7cfb\u5bae\u5712\u30fb\u56db\u5b63\u304c\u4e18\u5730\u533a\u5730\u8cea\u8abf\u67fb\u696d\u52d9","client_name":"\u56fd\u571f\u4ea4\u901a\u7701\u4e2d\u56fd\u5730\u65b9\u6574\u5099\u5c40\u592a\u7530\u5ddd\u5de5\u4e8b\u4e8b\u52d9\u6240","boring_xml_url":47,"boring_view_url":1,"soilmap_view_url":null,"soiltest_xml_url":0,"soiltest_view_url":0},{"id":248874,"code":"B4KJ201802001-4354","latitude":"34.351639","longitude":"132.29075","source_code":"CG028753420200190002","project_name":"","survey_name":"\u5e83\u5cf6\u897f\u90e8\u5c71\u7cfb\u5bae\u5712\u30fb\u56db\u5b63\u304c\u4e18\u5730\u533a\u5730\u8cea\u8abf\u67fb\u696d\u52d9","client_name":"\u56fd\u571f\u4ea4\u901a\u7701\u4e2d\u56fd\u5730\u65b9\u6574\u5099\u5c40\u592a\u7530\u5ddd\u5de5\u4e8b\u4e8b\u52d9\u6240","boring_xml_url":47,"boring_view_url":1,"soilmap_view_url":null,"soiltest_xml_url":0,"soiltest_view_url":0},{"id":248873,"code":"B4KJ201802001-4353","latitude":"34.351722","longitude":"132.290889","source_code":"CG028753420200190001","project_name":"","survey_name":"\u5e83\u5cf6\u897f\u90e8\u5c71\u7cfb\u5bae\u5712\u30fb\u56db\u5b63\u304c\u4e18\u5730\u533a\u5730\u8cea\u8abf\u67fb\u696d\u52d9","client_name":"\u56fd\u571f\u4ea4\u901a\u7701\u4e2d\u56fd\u5730\u65b9\u6574\u5099\u5c40\u592a\u7530\u5ddd\u5de5\u4e8b\u4e8b\u52d9\u6240","boring_xml_url":47,"boring_view_url":1,"soilmap_view_url":null,"soiltest_xml_url":0,"soiltest_view_url":0},{"id":248872,"code":"B4KJ201802001-4352","latitude":"34.352944","longitude":"132.285889","source_code":"CG028753420200200024","project_name":"","survey_name":"\u5e83\u5cf6\u897f\u90e8\u5c71\u7cfb\u5bae\u5712\u30fb\u56db\u5b63\u304c\u4e18\u5730\u533a\u5730\u8cea\u8abf\u67fb(\u305d\u306e2)\u696d\u52d9","client_name":"\u56fd\u571f\u4ea4\u901a\u7701\u4e2d\u56fd\u5730\u65b9\u6574\u5099\u5c40\u592a\u7530\u5ddd\u5de5\u4e8b\u4e8b\u52d9\u6240","boring_xml_url":47,"boring_view_url":1,"soilmap_view_url":null,"soiltest_xml_url":0,"soiltest_view_url":0},{"id":248871,"code":"B4KJ201802001-4351","latitude":"34.353139","longitude":"132.285861","source_code":"CG028753420200200023","project_name":"","survey_name":"\u5e83\u5cf6\u897f\u90e8\u5c71\u7cfb\u5bae\u5712\u30fb\u56db\u5b63\u304c\u4e18\u5730\u533a\u5730\u8cea\u8abf\u67fb(\u305d\u306e2)\u696d\u52d9","client_name":"\u56fd\u571f\u4ea4\u901a\u7701\u4e2d\u56fd\u5730\u65b9\u6574\u5099\u5c40\u592a\u7530\u5ddd\u5de5\u4e8b\u4e8b\u52d9\u6240","boring_xml_url":47,"boring_view_url":1,"soilmap_view_url":null,"soiltest_xml_url":0,"soiltest_view_url":0},{"id":248870,"code":"B4KJ201802001-4350","latitude":"34.352972","longitude":"132.285667","source_code":"CG028753420200200022","project_name":"","survey_name":"\u5e83\u5cf6\u897f\u90e8\u5c71\u7cfb\u5bae\u5712\u30fb\u56db\u5b63\u304c\u4e18\u5730\u533a\u5730\u8cea\u8abf\u67fb(\u305d\u306e2)\u696d\u52d9","client_name":"\u56fd\u571f\u4ea4\u901a\u7701\u4e2d\u56fd\u5730\u65b9\u6574\u5099\u5c40\u592a\u7530\u5ddd\u5de5\u4e8b\u4e8b\u52d9\u6240","boring_xml_url":47,"boring_view_url":1,"soilmap_view_url":null,"soiltest_xml_url":0,"soiltest_view_url":0},{"id":248869,"code":"B4KJ201802001-4349","latitude":"34.353056","longitude":"132.285778","source_code":"CG028753420200200021","project_name":"","survey_name":"\u5e83\u5cf6\u897f\u90e8\u5c71\u7cfb\u5bae\u5712\u30fb\u56db\u5b63\u304c\u4e18\u5730\u533a\u5730\u8cea\u8abf\u67fb(\u305d\u306e2)\u696d\u52d9","client_name":"\u56fd\u571f\u4ea4\u901a\u7701\u4e2d\u56fd\u5730\u65b9\u6574\u5099\u5c40\u592a\u7530\u5ddd\u5de5\u4e8b\u4e8b\u52d9\u6240","boring_xml_url":47,"boring_view_url":1,"soilmap_view_url":null,"soiltest_xml_url":0,"soiltest_view_url":0},{"id":248868,"code":"B4KJ201802001-4348","latitude":"34.353611","longitude":"132.285778","source_code":"CG028753420200200020","project_name":"","survey_name":"\u5e83\u5cf6\u897f\u90e8\u5c71\u7cfb\u5bae\u5712\u30fb\u56db\u5b63\u304c\u4e18\u5730\u533a\u5730\u8cea\u8abf\u67fb(\u305d\u306e2)\u696d\u52d9","client_name":"\u56fd\u571f\u4ea4\u901a\u7701\u4e2d\u56fd\u5730\u65b9\u6574\u5099\u5c40\u592a\u7530\u5ddd\u5de5\u4e8b\u4e8b\u52d9\u6240","boring_xml_url":47,"boring_view_url":1,"soilmap_view_url":null,"soiltest_xml_url":0,"soiltest_view_url":0},{"id":248867,"code":"B4KJ201802001-4347","latitude":"34.353694","longitude":"132.285944","source_code":"CG028753420200200019","project_name":"","survey_name":"\u5e83\u5cf6\u897f\u90e8\u5c71\u7cfb\u5bae\u5712\u30fb\u56db\u5b63\u304c\u4e18\u5730\u533a\u5730\u8cea\u8abf\u67fb(\u305d\u306e2)\u696d\u52d9","client_name":"\u56fd\u571f\u4ea4\u901a\u7701\u4e2d\u56fd\u5730\u65b9\u6574\u5099\u5c40\u592a\u7530\u5ddd\u5de5\u4e8b\u4e8b\u52d9\u6240","boring_xml_url":47,"boring_view_url":1,"soilmap_view_url":null,"soiltest_xml_url":0,"soiltest_view_url":0}]}}