{"header":{"xyz":{"source":[],"mosaic":false},"page":274,"raw":{"soiltest_result":"0","bbox":"57.598333,109.544722,1.933333,163.806111","page":"274"},"conditions":{"soiltest_result":0,"north":57.598333,"west":109.544722,"south":1.933333,"east":163.806111},"success":true,"message":""},"data":{"meta":{"total":212844,"page":274,"pages":7095,"count":30},"values":[{"id":572859,"code":"NGIC202204354-0001","latitude":"36.683775","longitude":"137.19226666667","source_code":"","project_name":"","survey_name":"\u4ee4\u548c4\u5e74\u5ea6\u6cb3\u5ddd\u4e8b\u696d\u7ba1\u5185\u5730\u8cea\u8abf\u67fb\u696d\u52d9","client_name":"\u56fd\u571f\u4ea4\u901a\u7701\u5317\u9678\u5730\u65b9\u6574\u5099\u5c40\u5bcc\u5c71\u6cb3\u5ddd\u56fd\u9053\u4e8b\u52d9\u6240","boring_xml_url":47,"boring_view_url":1,"soilmap_view_url":null,"soiltest_xml_url":47,"soiltest_view_url":47},{"id":572831,"code":"NGIC202204867-0002","latitude":"37.986844444444","longitude":"140.14381388889","source_code":"","project_name":"","survey_name":"\u4ee4\u548c3\u5e74\u5ea6 \u6700\u4e0a\u5ddd\u4e0a\u6d41\u5824\u9632\u5f37\u5316\u8a73\u7d30\u8a2d\u8a08\u696d\u52d9","client_name":"\u56fd\u571f\u4ea4\u901a\u7701\u6771\u5317\u5730\u65b9\u6574\u5099\u5c40\u5c71\u5f62\u6cb3\u5ddd\u56fd\u9053\u4e8b\u52d9\u6240","boring_xml_url":47,"boring_view_url":1,"soilmap_view_url":null,"soiltest_xml_url":47,"soiltest_view_url":47},{"id":572830,"code":"NGIC202204867-0001","latitude":"37.989566666667","longitude":"140.14015","source_code":"","project_name":"","survey_name":"\u4ee4\u548c3\u5e74\u5ea6 \u6700\u4e0a\u5ddd\u4e0a\u6d41\u5824\u9632\u5f37\u5316\u8a73\u7d30\u8a2d\u8a08\u696d\u52d9","client_name":"\u56fd\u571f\u4ea4\u901a\u7701\u6771\u5317\u5730\u65b9\u6574\u5099\u5c40\u5c71\u5f62\u6cb3\u5ddd\u56fd\u9053\u4e8b\u52d9\u6240","boring_xml_url":47,"boring_view_url":1,"soilmap_view_url":null,"soiltest_xml_url":47,"soiltest_view_url":47},{"id":572827,"code":"NGIC202204776-0002","latitude":"36.683707472222","longitude":"137.20686786111","source_code":"","project_name":"","survey_name":"\u5bcc\u5c71\u5730\u5bb6\u88c1(22)\u6577\u5730\u8abf\u67fb\u696d\u52d9","client_name":"\u56fd\u571f\u4ea4\u901a\u7701\u5317\u9678\u5730\u65b9\u6574\u5099\u5c40\u55b6\u7e55\u90e8","boring_xml_url":47,"boring_view_url":1,"soilmap_view_url":null,"soiltest_xml_url":47,"soiltest_view_url":47},{"id":572826,"code":"NGIC202204776-0001","latitude":"36.683403388889","longitude":"137.207141","source_code":"","project_name":"","survey_name":"\u5bcc\u5c71\u5730\u5bb6\u88c1(22)\u6577\u5730\u8abf\u67fb\u696d\u52d9","client_name":"\u56fd\u571f\u4ea4\u901a\u7701\u5317\u9678\u5730\u65b9\u6574\u5099\u5c40\u55b6\u7e55\u90e8","boring_xml_url":47,"boring_view_url":1,"soilmap_view_url":null,"soiltest_xml_url":47,"soiltest_view_url":47},{"id":572821,"code":"NGIC202204856-0007","latitude":"35.3812835","longitude":"139.51322113889","source_code":"","project_name":"\u9ad8\u901f\u6a2a\u6d5c\u74b0\u72b6\u5357\u7dda","survey_name":"R4\u570f\u592e\u9053\u5730\u8cea\u8abf\u67fb\u696d\u52d9","client_name":"\u56fd\u571f\u4ea4\u901a\u7701\u95a2\u6771\u5730\u65b9\u6574\u5099\u5c40\u6a2a\u6d5c\u56fd\u9053\u4e8b\u52d9\u6240","boring_xml_url":47,"boring_view_url":1,"soilmap_view_url":null,"soiltest_xml_url":47,"soiltest_view_url":47},{"id":572820,"code":"NGIC202204856-0006","latitude":"35.380262416667","longitude":"139.51335063889","source_code":"","project_name":"\u9ad8\u901f\u6a2a\u6d5c\u74b0\u72b6\u5357\u7dda","survey_name":"R4\u570f\u592e\u9053\u5730\u8cea\u8abf\u67fb\u696d\u52d9","client_name":"\u56fd\u571f\u4ea4\u901a\u7701\u95a2\u6771\u5730\u65b9\u6574\u5099\u5c40\u6a2a\u6d5c\u56fd\u9053\u4e8b\u52d9\u6240","boring_xml_url":47,"boring_view_url":1,"soilmap_view_url":null,"soiltest_xml_url":0,"soiltest_view_url":0},{"id":572819,"code":"NGIC202204856-0005","latitude":"35.379675694444","longitude":"139.51083225","source_code":"","project_name":"\u9ad8\u901f\u6a2a\u6d5c\u74b0\u72b6\u5357\u7dda","survey_name":"R4\u570f\u592e\u9053\u5730\u8cea\u8abf\u67fb\u696d\u52d9","client_name":"\u56fd\u571f\u4ea4\u901a\u7701\u95a2\u6771\u5730\u65b9\u6574\u5099\u5c40\u6a2a\u6d5c\u56fd\u9053\u4e8b\u52d9\u6240","boring_xml_url":47,"boring_view_url":1,"soilmap_view_url":null,"soiltest_xml_url":0,"soiltest_view_url":0},{"id":572818,"code":"NGIC202204856-0004","latitude":"35.379925972222","longitude":"139.51127736111","source_code":"","project_name":"\u9ad8\u901f\u6a2a\u6d5c\u74b0\u72b6\u5357\u7dda","survey_name":"R4\u570f\u592e\u9053\u5730\u8cea\u8abf\u67fb\u696d\u52d9","client_name":"\u56fd\u571f\u4ea4\u901a\u7701\u95a2\u6771\u5730\u65b9\u6574\u5099\u5c40\u6a2a\u6d5c\u56fd\u9053\u4e8b\u52d9\u6240","boring_xml_url":47,"boring_view_url":1,"soilmap_view_url":null,"soiltest_xml_url":0,"soiltest_view_url":0},{"id":572817,"code":"NGIC202204856-0003","latitude":"35.372665222222","longitude":"139.52009411111","source_code":"","project_name":"\u9ad8\u901f\u6a2a\u6d5c\u74b0\u72b6\u5357\u7dda","survey_name":"R4\u570f\u592e\u9053\u5730\u8cea\u8abf\u67fb\u696d\u52d9","client_name":"\u56fd\u571f\u4ea4\u901a\u7701\u95a2\u6771\u5730\u65b9\u6574\u5099\u5c40\u6a2a\u6d5c\u56fd\u9053\u4e8b\u52d9\u6240","boring_xml_url":47,"boring_view_url":1,"soilmap_view_url":null,"soiltest_xml_url":0,"soiltest_view_url":0},{"id":572816,"code":"NGIC202204856-0002","latitude":"35.372375527778","longitude":"139.52034133333","source_code":"","project_name":"\u9ad8\u901f\u6a2a\u6d5c\u74b0\u72b6\u5357\u7dda","survey_name":"R4\u570f\u592e\u9053\u5730\u8cea\u8abf\u67fb\u696d\u52d9","client_name":"\u56fd\u571f\u4ea4\u901a\u7701\u95a2\u6771\u5730\u65b9\u6574\u5099\u5c40\u6a2a\u6d5c\u56fd\u9053\u4e8b\u52d9\u6240","boring_xml_url":47,"boring_view_url":1,"soilmap_view_url":null,"soiltest_xml_url":0,"soiltest_view_url":0},{"id":572815,"code":"NGIC202204856-0001","latitude":"35.372055777778","longitude":"139.52053113889","source_code":"","project_name":"\u9ad8\u901f\u6a2a\u6d5c\u74b0\u72b6\u5357\u7dda","survey_name":"R4\u570f\u592e\u9053\u5730\u8cea\u8abf\u67fb\u696d\u52d9","client_name":"\u56fd\u571f\u4ea4\u901a\u7701\u95a2\u6771\u5730\u65b9\u6574\u5099\u5c40\u6a2a\u6d5c\u56fd\u9053\u4e8b\u52d9\u6240","boring_xml_url":47,"boring_view_url":1,"soilmap_view_url":null,"soiltest_xml_url":0,"soiltest_view_url":0},{"id":572810,"code":"NGIC202204636-0002","latitude":"26.327386111111","longitude":"127.86450833333","source_code":"","project_name":"","survey_name":"\u4ee4\u548c4\u5e74\u5ea6\u4e2d\u57ce\u6e7e\u6e2f\u571f\u8cea\u8abf\u67fb\u696d\u52d9","client_name":"\u5185\u95a3\u5e9c\u6c96\u7e04\u7dcf\u5408\u4e8b\u52d9\u5c40\u958b\u767a\u5efa\u8a2d\u90e8\u90a3\u8987\u6e2f\u6e7e\u30fb\u7a7a\u6e2f\u6574\u5099\u4e8b\u52d9\u6240","boring_xml_url":47,"boring_view_url":1,"soilmap_view_url":null,"soiltest_xml_url":0,"soiltest_view_url":0},{"id":572809,"code":"NGIC202204636-0001","latitude":"26.329072222222","longitude":"127.86284166667","source_code":"","project_name":"","survey_name":"\u4ee4\u548c4\u5e74\u5ea6\u4e2d\u57ce\u6e7e\u6e2f\u571f\u8cea\u8abf\u67fb\u696d\u52d9","client_name":"\u5185\u95a3\u5e9c\u6c96\u7e04\u7dcf\u5408\u4e8b\u52d9\u5c40\u958b\u767a\u5efa\u8a2d\u90e8\u90a3\u8987\u6e2f\u6e7e\u30fb\u7a7a\u6e2f\u6574\u5099\u4e8b\u52d9\u6240","boring_xml_url":47,"boring_view_url":1,"soilmap_view_url":null,"soiltest_xml_url":0,"soiltest_view_url":0},{"id":572800,"code":"NGIC202204615-0002","latitude":"32.339771111111","longitude":"130.84782055556","source_code":"","project_name":"","survey_name":"\u4ee4\u548c4\u5e74\u5ea6\u85e4\u7530\u5730\u533a\u5730\u8cea\u8abf\u67fb(\u305d\u306e1)\u696d\u52d9","client_name":"\u56fd\u571f\u4ea4\u901a\u7701\u4e5d\u5dde\u5730\u65b9\u6574\u5099\u5c40\u5ddd\u8fba\u5ddd\u30c0\u30e0\u7802\u9632\u4e8b\u52d9\u6240","boring_xml_url":47,"boring_view_url":1,"soilmap_view_url":null,"soiltest_xml_url":0,"soiltest_view_url":0},{"id":572799,"code":"NGIC202204615-0001","latitude":"32.34025","longitude":"130.84840777778","source_code":"","project_name":"","survey_name":"\u4ee4\u548c4\u5e74\u5ea6\u85e4\u7530\u5730\u533a\u5730\u8cea\u8abf\u67fb(\u305d\u306e1)\u696d\u52d9","client_name":"\u56fd\u571f\u4ea4\u901a\u7701\u4e5d\u5dde\u5730\u65b9\u6574\u5099\u5c40\u5ddd\u8fba\u5ddd\u30c0\u30e0\u7802\u9632\u4e8b\u52d9\u6240","boring_xml_url":47,"boring_view_url":1,"soilmap_view_url":null,"soiltest_xml_url":0,"soiltest_view_url":0},{"id":572798,"code":"NGIC202204623-0010","latitude":"26.202207861111","longitude":"127.73663922222","source_code":"","project_name":"\u5357\u98a8\u539f\u30d0\u30a4\u30d1\u30b9\u300c\u5317\u4e18\u9ad8\u67b6\u6a4b\u88dc\u5f37\u571f\u58c1\u571f\u8cea\u8abf\u67fb\u300d","survey_name":"\u4ee4\u548c4\u5e74\u5ea6 \u5357\u90e8\u56fd\u9053\u7ba1\u5185\u6e2c\u91cf\u8abf\u67fb\u8a2d\u8a08\u696d\u52d9","client_name":"\u5185\u95a3\u5e9c\u6c96\u7e04\u7dcf\u5408\u4e8b\u52d9\u5c40\u958b\u767a\u5efa\u8a2d\u90e8\u5357\u90e8\u56fd\u9053\u4e8b\u52d9\u6240","boring_xml_url":47,"boring_view_url":1,"soilmap_view_url":null,"soiltest_xml_url":0,"soiltest_view_url":0},{"id":572797,"code":"NGIC202204623-0009","latitude":"26.202262222222","longitude":"127.73648313889","source_code":"","project_name":"\u5357\u98a8\u539f\u30d0\u30a4\u30d1\u30b9\u300c\u5317\u4e18\u9ad8\u67b6\u6a4b\u88dc\u5f37\u571f\u58c1\u571f\u8cea\u8abf\u67fb\u300d","survey_name":"\u4ee4\u548c4\u5e74\u5ea6 \u5357\u90e8\u56fd\u9053\u7ba1\u5185\u6e2c\u91cf\u8abf\u67fb\u8a2d\u8a08\u696d\u52d9","client_name":"\u5185\u95a3\u5e9c\u6c96\u7e04\u7dcf\u5408\u4e8b\u52d9\u5c40\u958b\u767a\u5efa\u8a2d\u90e8\u5357\u90e8\u56fd\u9053\u4e8b\u52d9\u6240","boring_xml_url":47,"boring_view_url":1,"soilmap_view_url":null,"soiltest_xml_url":47,"soiltest_view_url":47},{"id":572796,"code":"NGIC202204623-0008","latitude":"26.184691888889","longitude":"127.65546197222","source_code":"","project_name":"\u5c0f\u7984\u9053\u8def\u300c\u76db\u571f\u64c1\u58c1\u90e8\u571f\u8cea\u8abf\u67fb\u300d","survey_name":"\u4ee4\u548c4\u5e74\u5ea6 \u5357\u90e8\u56fd\u9053\u7ba1\u5185\u6e2c\u91cf\u8abf\u67fb\u8a2d\u8a08\u696d\u52d9","client_name":"\u5185\u95a3\u5e9c\u6c96\u7e04\u7dcf\u5408\u4e8b\u52d9\u5c40\u958b\u767a\u5efa\u8a2d\u90e8\u5357\u90e8\u56fd\u9053\u4e8b\u52d9\u6240","boring_xml_url":47,"boring_view_url":1,"soilmap_view_url":null,"soiltest_xml_url":47,"soiltest_view_url":47},{"id":572795,"code":"NGIC202204623-0007","latitude":"26.186035416667","longitude":"127.65568344444","source_code":"","project_name":"\u5c0f\u7984\u9053\u8def\u300c\u76db\u571f\u64c1\u58c1\u90e8\u571f\u8cea\u8abf\u67fb\u300d","survey_name":"\u4ee4\u548c4\u5e74\u5ea6 \u5357\u90e8\u56fd\u9053\u7ba1\u5185\u6e2c\u91cf\u8abf\u67fb\u8a2d\u8a08\u696d\u52d9","client_name":"\u5185\u95a3\u5e9c\u6c96\u7e04\u7dcf\u5408\u4e8b\u52d9\u5c40\u958b\u767a\u5efa\u8a2d\u90e8\u5357\u90e8\u56fd\u9053\u4e8b\u52d9\u6240","boring_xml_url":47,"boring_view_url":1,"soilmap_view_url":null,"soiltest_xml_url":47,"soiltest_view_url":47},{"id":572794,"code":"NGIC202204623-0006","latitude":"26.184960083333","longitude":"127.6555035","source_code":"","project_name":"\u5c0f\u7984\u9053\u8def\u300c\u76db\u571f\u64c1\u58c1\u90e8\u571f\u8cea\u8abf\u67fb\u300d","survey_name":"\u4ee4\u548c4\u5e74\u5ea6 \u5357\u90e8\u56fd\u9053\u7ba1\u5185\u6e2c\u91cf\u8abf\u67fb\u8a2d\u8a08\u696d\u52d9","client_name":"\u5185\u95a3\u5e9c\u6c96\u7e04\u7dcf\u5408\u4e8b\u52d9\u5c40\u958b\u767a\u5efa\u8a2d\u90e8\u5357\u90e8\u56fd\u9053\u4e8b\u52d9\u6240","boring_xml_url":47,"boring_view_url":1,"soilmap_view_url":null,"soiltest_xml_url":47,"soiltest_view_url":47},{"id":572793,"code":"NGIC202204623-0005","latitude":"26.185317694444","longitude":"127.65555888889","source_code":"","project_name":"\u5c0f\u7984\u9053\u8def\u300c\u76db\u571f\u64c1\u58c1\u90e8\u571f\u8cea\u8abf\u67fb\u300d","survey_name":"\u4ee4\u548c4\u5e74\u5ea6 \u5357\u90e8\u56fd\u9053\u7ba1\u5185\u6e2c\u91cf\u8abf\u67fb\u8a2d\u8a08\u696d\u52d9","client_name":"\u5185\u95a3\u5e9c\u6c96\u7e04\u7dcf\u5408\u4e8b\u52d9\u5c40\u958b\u767a\u5efa\u8a2d\u90e8\u5357\u90e8\u56fd\u9053\u4e8b\u52d9\u6240","boring_xml_url":47,"boring_view_url":1,"soilmap_view_url":null,"soiltest_xml_url":47,"soiltest_view_url":47},{"id":572792,"code":"NGIC202204623-0004","latitude":"26.201209444444","longitude":"127.71596080556","source_code":"","project_name":"\u5357\u98a8\u539f\u30d0\u30a4\u30d1\u30b9\u300c\u8b58\u540d\u5927\u6a4b\u571f\u8cea\u8abf\u67fb\u300d","survey_name":"\u4ee4\u548c4\u5e74\u5ea6 \u5357\u90e8\u56fd\u9053\u7ba1\u5185\u6e2c\u91cf\u8abf\u67fb\u8a2d\u8a08\u696d\u52d9","client_name":"\u5185\u95a3\u5e9c\u6c96\u7e04\u7dcf\u5408\u4e8b\u52d9\u5c40\u958b\u767a\u5efa\u8a2d\u90e8\u5357\u90e8\u56fd\u9053\u4e8b\u52d9\u6240","boring_xml_url":47,"boring_view_url":1,"soilmap_view_url":null,"soiltest_xml_url":47,"soiltest_view_url":47},{"id":572791,"code":"NGIC202204623-0003","latitude":"26.201445","longitude":"127.71584591667","source_code":"","project_name":"\u5357\u98a8\u539f\u30d0\u30a4\u30d1\u30b9\u300c\u8b58\u540d\u5927\u6a4b\u571f\u8cea\u8abf\u67fb\u300d","survey_name":"\u4ee4\u548c4\u5e74\u5ea6\u5357\u90e8\u56fd\u9053\u7ba1\u5185\u6e2c\u91cf\u8abf\u67fb\u8a2d\u8a08\u696d\u52d9","client_name":"\u5185\u95a3\u5e9c\u6c96\u7e04\u7dcf\u5408\u4e8b\u52d9\u5c40\u958b\u767a\u5efa\u8a2d\u90e8\u5357\u90e8\u56fd\u9053\u4e8b\u52d9\u6240","boring_xml_url":47,"boring_view_url":1,"soilmap_view_url":null,"soiltest_xml_url":47,"soiltest_view_url":47},{"id":572790,"code":"NGIC202204623-0002","latitude":"26.201628888889","longitude":"127.71795758333","source_code":"","project_name":"\u5357\u98a8\u539f\u30d0\u30a4\u30d1\u30b9\u300c\u8b58\u540d\u5927\u6a4b\u571f\u8cea\u8abf\u67fb\u300d","survey_name":"\u4ee4\u548c4\u5e74\u5ea6\u5357\u90e8\u56fd\u9053\u7ba1\u5185\u6e2c\u91cf\u8abf\u67fb\u8a2d\u8a08\u696d\u52d9","client_name":"\u5185\u95a3\u5e9c\u6c96\u7e04\u7dcf\u5408\u4e8b\u52d9\u5c40\u958b\u767a\u5efa\u8a2d\u90e8\u5357\u90e8\u56fd\u9053\u4e8b\u52d9\u6240","boring_xml_url":47,"boring_view_url":1,"soilmap_view_url":null,"soiltest_xml_url":47,"soiltest_view_url":47},{"id":572789,"code":"NGIC202204623-0001","latitude":"26.201899388889","longitude":"127.71790458333","source_code":"","project_name":"\u5357\u98a8\u539f\u30d0\u30a4\u30d1\u30b9\u300c\u8b58\u540d\u5927\u6a4b\u571f\u8cea\u8abf\u67fb\u300d","survey_name":"\u4ee4\u548c4\u5e74\u5ea6\u5357\u90e8\u56fd\u9053\u7ba1\u5185\u6e2c\u91cf\u8abf\u67fb\u8a2d\u8a08\u696d\u52d9","client_name":"\u5185\u95a3\u5e9c\u6c96\u7e04\u7dcf\u5408\u4e8b\u52d9\u5c40\u958b\u767a\u5efa\u8a2d\u90e8\u5357\u90e8\u56fd\u9053\u4e8b\u52d9\u6240","boring_xml_url":47,"boring_view_url":1,"soilmap_view_url":null,"soiltest_xml_url":47,"soiltest_view_url":47},{"id":572784,"code":"NGIC202204864-0003","latitude":"36.130203888889","longitude":"136.75706725","source_code":"","project_name":"","survey_name":"\u4ee4\u548c3\u5e74\u5ea6\u751a\u4e4b\u52a9\u8c37\u5730\u3059\u3079\u308a\u9632\u6b62\u65bd\u8a2d\u5730\u8cea\u8abf\u67fb\u305d\u306e2\u696d\u52d9","client_name":"\u56fd\u571f\u4ea4\u901a\u7701\u5317\u9678\u5730\u65b9\u6574\u5099\u5c40\u91d1\u6ca2\u6cb3\u5ddd\u56fd\u9053\u4e8b\u52d9\u6240","boring_xml_url":47,"boring_view_url":1,"soilmap_view_url":null,"soiltest_xml_url":0,"soiltest_view_url":0},{"id":572783,"code":"NGIC202204864-0002","latitude":"36.129261722222","longitude":"136.75547605556","source_code":"","project_name":"","survey_name":"\u4ee4\u548c3\u5e74\u5ea6\u751a\u4e4b\u52a9\u8c37\u5730\u3059\u3079\u308a\u9632\u6b62\u65bd\u8a2d\u5730\u8cea\u8abf\u67fb\u305d\u306e2\u696d\u52d9","client_name":"\u56fd\u571f\u4ea4\u901a\u7701\u5317\u9678\u5730\u65b9\u6574\u5099\u5c40\u91d1\u6ca2\u6cb3\u5ddd\u56fd\u9053\u4e8b\u52d9\u6240","boring_xml_url":47,"boring_view_url":1,"soilmap_view_url":null,"soiltest_xml_url":0,"soiltest_view_url":0},{"id":572782,"code":"NGIC202204864-0001","latitude":"36.129231444444","longitude":"136.75546638889","source_code":"","project_name":"","survey_name":"\u4ee4\u548c3\u5e74\u5ea6\u751a\u4e4b\u52a9\u8c37\u5730\u3059\u3079\u308a\u9632\u6b62\u65bd\u8a2d\u5730\u8cea\u8abf\u67fb\u305d\u306e2\u696d\u52d9","client_name":"\u56fd\u571f\u4ea4\u901a\u7701\u5317\u9678\u5730\u65b9\u6574\u5099\u5c40\u91d1\u6ca2\u6cb3\u5ddd\u56fd\u9053\u4e8b\u52d9\u6240","boring_xml_url":47,"boring_view_url":1,"soilmap_view_url":null,"soiltest_xml_url":0,"soiltest_view_url":0},{"id":572776,"code":"NGIC202204622-0004","latitude":"33.787391944444","longitude":"133.78600538889","source_code":"","project_name":"","survey_name":"\u4ee4\u548c3-4\u5e74\u5ea6\u56db\u56fd\u5c71\u5730\u7ba1\u5185\u5730\u3059\u3079\u308a\u5730\u8cea\u8abf\u67fb\u696d\u52d9","client_name":"\u56fd\u571f\u4ea4\u901a\u7701\u56db\u56fd\u5730\u65b9\u6574\u5099\u5c40\u56db\u56fd\u5c71\u5730\u7802\u9632\u4e8b\u52d9\u6240","boring_xml_url":47,"boring_view_url":1,"soilmap_view_url":null,"soiltest_xml_url":0,"soiltest_view_url":0}]}}