{"header":{"xyz":{"source":[],"mosaic":false},"page":2744,"raw":{"soiltest_result":"0","bbox":"57.598333,109.544722,1.933333,163.806111","page":"2744"},"conditions":{"soiltest_result":0,"north":57.598333,"west":109.544722,"south":1.933333,"east":163.806111},"success":true,"message":""},"data":{"meta":{"total":212844,"page":2744,"pages":7095,"count":30},"values":[{"id":248233,"code":"B4KJ201802001-3713","latitude":"34.85425","longitude":"135.760806","source_code":"KK128636330400100006","project_name":"\u57ce\u967dIC\u95a2\u9023\u5bfa\u7530\u5730\u533a\u6539\u826f\u5730\u8cea\u8abf\u67fb\u696d\u52d9","survey_name":"\u57ce\u967dIC\u95a2\u9023\u5bfa\u7530\u5730\u533a\u6539\u826f\u5730\u8cea\u8abf\u67fb\u696d\u52d9","client_name":"\u56fd\u571f\u4ea4\u901a\u7701 \u8fd1\u757f\u5730\u65b9\u6574\u5099\u5c40 \u4eac\u90fd\u56fd\u9053\u4e8b\u52d9\u6240","boring_xml_url":47,"boring_view_url":1,"soilmap_view_url":null,"soiltest_xml_url":0,"soiltest_view_url":0},{"id":248232,"code":"B4KJ201802001-3712","latitude":"34.854278","longitude":"135.760583","source_code":"KK128636330400100005","project_name":"\u57ce\u967dIC\u95a2\u9023\u5bfa\u7530\u5730\u533a\u6539\u826f\u5730\u8cea\u8abf\u67fb\u696d\u52d9","survey_name":"\u57ce\u967dIC\u95a2\u9023\u5bfa\u7530\u5730\u533a\u6539\u826f\u5730\u8cea\u8abf\u67fb\u696d\u52d9","client_name":"\u56fd\u571f\u4ea4\u901a\u7701 \u8fd1\u757f\u5730\u65b9\u6574\u5099\u5c40 \u4eac\u90fd\u56fd\u9053\u4e8b\u52d9\u6240","boring_xml_url":47,"boring_view_url":1,"soilmap_view_url":null,"soiltest_xml_url":0,"soiltest_view_url":0},{"id":248231,"code":"B4KJ201802001-3711","latitude":"34.853972","longitude":"135.760861","source_code":"KK128636330400100004","project_name":"\u57ce\u967dIC\u95a2\u9023\u5bfa\u7530\u5730\u533a\u6539\u826f\u5730\u8cea\u8abf\u67fb\u696d\u52d9","survey_name":"\u57ce\u967dIC\u95a2\u9023\u5bfa\u7530\u5730\u533a\u6539\u826f\u5730\u8cea\u8abf\u67fb\u696d\u52d9","client_name":"\u56fd\u571f\u4ea4\u901a\u7701 \u8fd1\u757f\u5730\u65b9\u6574\u5099\u5c40 \u4eac\u90fd\u56fd\u9053\u4e8b\u52d9\u6240","boring_xml_url":47,"boring_view_url":1,"soilmap_view_url":null,"soiltest_xml_url":0,"soiltest_view_url":0},{"id":248230,"code":"B4KJ201802001-3710","latitude":"34.853972","longitude":"135.7605","source_code":"KK128636330400100003","project_name":"\u57ce\u967dIC\u95a2\u9023\u5bfa\u7530\u5730\u533a\u6539\u826f\u5730\u8cea\u8abf\u67fb\u696d\u52d9","survey_name":"\u57ce\u967dIC\u95a2\u9023\u5bfa\u7530\u5730\u533a\u6539\u826f\u5730\u8cea\u8abf\u67fb\u696d\u52d9","client_name":"\u56fd\u571f\u4ea4\u901a\u7701 \u8fd1\u757f\u5730\u65b9\u6574\u5099\u5c40 \u4eac\u90fd\u56fd\u9053\u4e8b\u52d9\u6240","boring_xml_url":47,"boring_view_url":1,"soilmap_view_url":null,"soiltest_xml_url":0,"soiltest_view_url":0},{"id":248229,"code":"B4KJ201802001-3709","latitude":"34.853583","longitude":"135.760861","source_code":"KK128636330400100002","project_name":"\u57ce\u967dIC\u95a2\u9023\u5bfa\u7530\u5730\u533a\u6539\u826f\u5730\u8cea\u8abf\u67fb\u696d\u52d9","survey_name":"\u57ce\u967dIC\u95a2\u9023\u5bfa\u7530\u5730\u533a\u6539\u826f\u5730\u8cea\u8abf\u67fb\u696d\u52d9","client_name":"\u56fd\u571f\u4ea4\u901a\u7701 \u8fd1\u757f\u5730\u65b9\u6574\u5099\u5c40 \u4eac\u90fd\u56fd\u9053\u4e8b\u52d9\u6240","boring_xml_url":47,"boring_view_url":1,"soilmap_view_url":null,"soiltest_xml_url":47,"soiltest_view_url":46},{"id":248228,"code":"B4KJ201802001-3708","latitude":"34.852694","longitude":"135.761028","source_code":"KK128636330400100001","project_name":"\u57ce\u967dIC\u95a2\u9023\u5bfa\u7530\u5730\u533a\u6539\u826f\u5730\u8cea\u8abf\u67fb\u696d\u52d9","survey_name":"\u57ce\u967dIC\u95a2\u9023\u5bfa\u7530\u5730\u533a\u6539\u826f\u5730\u8cea\u8abf\u67fb\u696d\u52d9","client_name":"\u56fd\u571f\u4ea4\u901a\u7701 \u8fd1\u757f\u5730\u65b9\u6574\u5099\u5c40 \u4eac\u90fd\u56fd\u9053\u4e8b\u52d9\u6240","boring_xml_url":47,"boring_view_url":1,"soilmap_view_url":null,"soiltest_xml_url":47,"soiltest_view_url":46},{"id":248227,"code":"B4KJ201802001-3707","latitude":"34.454722","longitude":"135.799444","source_code":"KK118689210400020005","project_name":"\u30ad\u30c8\u30e9\u53e4\u58b3\u5468\u8fba\u5730\u533a\u5730\u76e4\u5909\u52d5\u8abf\u67fb\u89e3\u6790\u696d\u52d9","survey_name":"\u30ad\u30c8\u30e9\u53e4\u58b3\u5468\u8fba\u5730\u533a\u5730\u76e4\u5909\u52d5\u8abf\u67fb\u89e3\u6790\u696d\u52d9","client_name":"\u56fd\u571f\u4ea4\u901a\u7701 \u8fd1\u757f\u5730\u65b9\u6574\u5099\u5c40 \u56fd\u55b6\u98db\u9ce5\u6b74\u53f2\u516c\u5712\u4e8b\u52d9\u6240","boring_xml_url":47,"boring_view_url":1,"soilmap_view_url":null,"soiltest_xml_url":0,"soiltest_view_url":0},{"id":248226,"code":"B4KJ201802001-3706","latitude":"34.454722","longitude":"135.799444","source_code":"KK118689210400020004","project_name":"\u30ad\u30c8\u30e9\u53e4\u58b3\u5468\u8fba\u5730\u533a\u5730\u76e4\u5909\u52d5\u8abf\u67fb\u89e3\u6790\u696d\u52d9","survey_name":"\u30ad\u30c8\u30e9\u53e4\u58b3\u5468\u8fba\u5730\u533a\u5730\u76e4\u5909\u52d5\u8abf\u67fb\u89e3\u6790\u696d\u52d9","client_name":"\u56fd\u571f\u4ea4\u901a\u7701 \u8fd1\u757f\u5730\u65b9\u6574\u5099\u5c40 \u56fd\u55b6\u98db\u9ce5\u6b74\u53f2\u516c\u5712\u4e8b\u52d9\u6240","boring_xml_url":47,"boring_view_url":1,"soilmap_view_url":null,"soiltest_xml_url":0,"soiltest_view_url":0},{"id":248225,"code":"B4KJ201802001-3705","latitude":"34.338056","longitude":"135.799444","source_code":"KK118689210400020003","project_name":"\u30ad\u30c8\u30e9\u53e4\u58b3\u5468\u8fba\u5730\u533a\u5730\u76e4\u5909\u52d5\u8abf\u67fb\u89e3\u6790\u696d\u52d9","survey_name":"\u30ad\u30c8\u30e9\u53e4\u58b3\u5468\u8fba\u5730\u533a\u5730\u76e4\u5909\u52d5\u8abf\u67fb\u89e3\u6790\u696d\u52d9","client_name":"\u56fd\u571f\u4ea4\u901a\u7701 \u8fd1\u757f\u5730\u65b9\u6574\u5099\u5c40 \u56fd\u55b6\u98db\u9ce5\u6b74\u53f2\u516c\u5712\u4e8b\u52d9\u6240","boring_xml_url":47,"boring_view_url":1,"soilmap_view_url":null,"soiltest_xml_url":0,"soiltest_view_url":0},{"id":248224,"code":"B4KJ201802001-3704","latitude":"34.454722","longitude":"135.799444","source_code":"KK118689210400020002","project_name":"\u30ad\u30c8\u30e9\u53e4\u58b3\u5468\u8fba\u5730\u533a\u5730\u76e4\u5909\u52d5\u8abf\u67fb\u89e3\u6790\u696d\u52d9","survey_name":"\u30ad\u30c8\u30e9\u53e4\u58b3\u5468\u8fba\u5730\u533a\u5730\u76e4\u5909\u52d5\u8abf\u67fb\u89e3\u6790\u696d\u52d9","client_name":"\u56fd\u571f\u4ea4\u901a\u7701 \u8fd1\u757f\u5730\u65b9\u6574\u5099\u5c40 \u56fd\u55b6\u98db\u9ce5\u6b74\u53f2\u4e8b\u52d9\u6240","boring_xml_url":47,"boring_view_url":1,"soilmap_view_url":null,"soiltest_xml_url":0,"soiltest_view_url":0},{"id":248223,"code":"B4KJ201802001-3703","latitude":"34.454722","longitude":"135.799444","source_code":"KK118689210400020001","project_name":"\u30ad\u30c8\u30e9\u53e4\u58b3\u5468\u8fba\u5730\u533a\u5730\u76e4\u5909\u52d5\u8abf\u67fb\u89e3\u6790\u696d\u52d9","survey_name":"\u30ad\u30c8\u30e9\u53e4\u58b3\u5468\u8fba\u5730\u533a\u5730\u76e4\u5909\u52d5\u8abf\u67fb\u89e3\u6790\u696d\u52d9","client_name":"\u56fd\u571f\u4ea4\u901a\u7701 \u8fd1\u757f\u5730\u65b9\u6574\u5099\u5c40 \u56fd\u55b6\u98db\u9ce5\u6b74\u53f2\u4e8b\u52d9\u6240","boring_xml_url":47,"boring_view_url":1,"soilmap_view_url":null,"soiltest_xml_url":0,"soiltest_view_url":0},{"id":248222,"code":"B4KJ201802001-3702","latitude":"34.266056","longitude":"135.165972","source_code":"KK108665220400230001","project_name":"","survey_name":"\u548c\u6b4c\u5c71\u5cac\u9053\u8def\u5e73\u4e95\u6a4b\u8a73\u7d30\u8a2d\u8a08\u696d\u52d9","client_name":"\u548c\u6b4c\u5c71\u6cb3\u5ddd\u56fd\u9053\u4e8b\u52d9\u6240","boring_xml_url":47,"boring_view_url":1,"soilmap_view_url":null,"soiltest_xml_url":0,"soiltest_view_url":0},{"id":248221,"code":"B4KJ201802001-3701","latitude":"34.455111","longitude":"135.799528","source_code":"KK108689210400010004","project_name":"\u30ad\u30c8\u30e9\u53e4\u58b3\u5468\u8fba\u5730\u533a\u5730\u8cea\u8abf\u67fb\u696d\u52d9","survey_name":"\u30ad\u30c8\u30e9\u53e4\u58b3\u5468\u8fba\u5730\u533a\u5730\u8cea\u8abf\u67fb\u696d\u52d9","client_name":"\u56fd\u571f\u4ea4\u901a\u7701\u8fd1\u757f\u5730\u65b9\u6574\u5099\u5c40\u56fd\u55b6\u98db\u9ce5\u516c\u5712\u4e8b\u52d9\u6240","boring_xml_url":47,"boring_view_url":1,"soilmap_view_url":null,"soiltest_xml_url":0,"soiltest_view_url":0},{"id":248220,"code":"B4KJ201802001-3700","latitude":"34.455278","longitude":"135.7995","source_code":"KK108689210400010003","project_name":"\u30ad\u30c8\u30e9\u53e4\u58b3\u5468\u8fba\u5730\u533a\u5730\u8cea\u8abf\u67fb\u696d\u52d9","survey_name":"\u30ad\u30c8\u30e9\u53e4\u58b3\u5468\u8fba\u5730\u533a\u5730\u8cea\u8abf\u67fb\u696d\u52d9","client_name":"\u56fd\u571f\u4ea4\u901a\u7701\u8fd1\u757f\u5730\u65b9\u6574\u5099\u5c40\u56fd\u55b6\u98db\u9ce5\u516c\u5712\u4e8b\u52d9\u6240","boring_xml_url":47,"boring_view_url":1,"soilmap_view_url":null,"soiltest_xml_url":0,"soiltest_view_url":0},{"id":248219,"code":"B4KJ201802001-3699","latitude":"34.455028","longitude":"135.799556","source_code":"KK108689210400010002","project_name":"\u30ad\u30c8\u30e9\u53e4\u58b3\u5468\u8fba\u5730\u533a\u5730\u8cea\u8abf\u67fb\u696d\u52d9","survey_name":"\u30ad\u30c8\u30e9\u53e4\u58b3\u5468\u8fba\u5730\u533a\u5730\u8cea\u8abf\u67fb\u696d\u52d9","client_name":"\u56fd\u571f\u4ea4\u901a\u7701\u8fd1\u757f\u5730\u65b9\u6574\u5099\u5c40\u56fd\u55b6\u98db\u9ce5\u516c\u5712\u4e8b\u52d9\u6240","boring_xml_url":47,"boring_view_url":1,"soilmap_view_url":null,"soiltest_xml_url":0,"soiltest_view_url":0},{"id":248218,"code":"B4KJ201802001-3698","latitude":"34.455083","longitude":"135.799722","source_code":"KK108689210400010001","project_name":"\u30ad\u30c8\u30e9\u53e4\u58b3\u5468\u8fba\u5730\u533a\u5730\u8cea\u8abf\u67fb\u696d\u52d9","survey_name":"\u30ad\u30c8\u30e9\u53e4\u58b3\u5468\u8fba\u5730\u533a\u5730\u8cea\u8abf\u67fb\u696d\u52d9","client_name":"\u56fd\u571f\u4ea4\u901a\u7701\u8fd1\u757f\u5730\u65b9\u6574\u5099\u5c40\u56fd\u55b6\u98db\u9ce5\u516c\u5712\u4e8b\u52d9\u6240","boring_xml_url":47,"boring_view_url":1,"soilmap_view_url":null,"soiltest_xml_url":0,"soiltest_view_url":0},{"id":248217,"code":"B4KJ201802001-3697","latitude":"34.306389","longitude":"135.5325","source_code":"KK108665220400180004","project_name":"\u7d00\u5317\u6771\u9053\u8def3\u5de5\u533a\u4ed6\u5730\u4e0b\u6c34\u8abf\u67fb\u696d\u52d9","survey_name":"\u7d00\u5317\u6771\u9053\u8def3\u5de5\u533a\u4ed6\u5730\u4e0b\u6c34\u8abf\u67fb\u696d\u52d9","client_name":"\u56fd\u571f\u4ea4\u901a\u7701\u8fd1\u757f\u5730\u65b9\u6574\u5099\u5c40\u548c\u6b4c\u5c71\u5de5\u4e8b\u4e8b\u52d9\u6240","boring_xml_url":47,"boring_view_url":1,"soilmap_view_url":null,"soiltest_xml_url":0,"soiltest_view_url":0},{"id":248216,"code":"B4KJ201802001-3696","latitude":"34.306111","longitude":"135.531389","source_code":"KK108665220400180003","project_name":"\u7d00\u5317\u6771\u9053\u8def3\u5de5\u533a\u4ed6\u5730\u4e0b\u6c34\u8abf\u67fb\u696d\u52d9","survey_name":"\u7d00\u5317\u6771\u9053\u8def3\u5de5\u533a\u4ed6\u5730\u4e0b\u6c34\u8abf\u67fb\u696d\u52d9","client_name":"\u56fd\u571f\u4ea4\u901a\u7701\u8fd1\u757f\u5730\u65b9\u6574\u5099\u5c40\u548c\u6b4c\u5c71\u5de5\u4e8b\u4e8b\u52d9\u6240","boring_xml_url":47,"boring_view_url":1,"soilmap_view_url":null,"soiltest_xml_url":0,"soiltest_view_url":0},{"id":248215,"code":"B4KJ201802001-3695","latitude":"34.303333","longitude":"135.533056","source_code":"KK108665220400180002","project_name":"\u7d00\u5317\u6771\u9053\u8def3\u5de5\u533a\u4ed6\u5730\u4e0b\u6c34\u8abf\u67fb\u696d\u52d9","survey_name":"\u7d00\u5317\u6771\u9053\u8def3\u5de5\u533a\u4ed6\u5730\u4e0b\u6c34\u8abf\u67fb\u696d\u52d9","client_name":"\u56fd\u571f\u4ea4\u901a\u7701\u8fd1\u757f\u5730\u65b9\u6574\u5099\u5c40\u548c\u6b4c\u5c71\u5de5\u4e8b\u4e8b\u52d9\u6240","boring_xml_url":47,"boring_view_url":1,"soilmap_view_url":null,"soiltest_xml_url":0,"soiltest_view_url":0},{"id":248214,"code":"B4KJ201802001-3694","latitude":"34.303611","longitude":"135.533056","source_code":"KK108665220400180001","project_name":"\u7d00\u5317\u6771\u9053\u8def3\u5de5\u533a\u4ed6\u5730\u4e0b\u6c34\u8abf\u67fb\u696d\u52d9","survey_name":"\u7d00\u5317\u6771\u9053\u8def3\u5de5\u533a\u4ed6\u5730\u4e0b\u6c34\u8abf\u67fb\u696d\u52d9","client_name":"\u56fd\u571f\u4ea4\u901a\u7701\u8fd1\u757f\u5730\u65b9\u6574\u5099\u5c40\u548c\u6b4c\u5c71\u5de5\u4e8b\u4e8b\u52d9\u6240","boring_xml_url":47,"boring_view_url":1,"soilmap_view_url":null,"soiltest_xml_url":0,"soiltest_view_url":0},{"id":248213,"code":"B4KJ201802001-3693","latitude":"34.285972","longitude":"135.366917","source_code":"KK098665220400110003","project_name":"\u7d00\u5317\u6771\u9053\u8def5\u5de5\u533a\u69cb\u9020\u7269\u4fee\u6b63\u8a2d\u8a08\u696d\u52d9 \u5ca9\u5ba4\u6c60\u5824\u4f53\u73fe\u6cc1\u5730\u76e4\u8abf\u67fb","survey_name":"\u7d00\u5317\u6771\u9053\u8def5\u5de5\u533a\u69cb\u9020\u7269\u4fee\u6b63\u8a2d\u8a08\u696d\u52d9 \u5ca9\u5ba4\u6c60\u5824\u4f53\u73fe\u6cc1\u5730\u76e4\u8abf\u67fb","client_name":"\u56fd\u571f\u4ea4\u901a\u7701\u8fd1\u757f\u5730\u65b9\u6574\u5099\u5c40\u548c\u6b4c\u5c71\u6cb3\u5ddd\u56fd\u9053\u4e8b\u52d9\u6240","boring_xml_url":47,"boring_view_url":1,"soilmap_view_url":null,"soiltest_xml_url":0,"soiltest_view_url":0},{"id":248212,"code":"B4KJ201802001-3692","latitude":"34.285778","longitude":"135.366861","source_code":"KK098665220400110002","project_name":"\u7d00\u5317\u6771\u9053\u8def5\u5de5\u533a\u69cb\u9020\u7269\u4fee\u6b63\u8a2d\u8a08\u696d\u52d9 \u5ca9\u5ba4\u6c60\u5824\u4f53\u73fe\u6cc1\u5730\u76e4\u8abf\u67fb","survey_name":"\u7d00\u5317\u6771\u9053\u8def5\u5de5\u533a\u69cb\u9020\u7269\u4fee\u6b63\u8a2d\u8a08\u696d\u52d9 \u5ca9\u5ba4\u6c60\u5824\u4f53\u73fe\u6cc1\u5730\u76e4\u8abf\u67fb","client_name":"\u56fd\u571f\u4ea4\u901a\u7701\u8fd1\u757f\u5730\u65b9\u6574\u5099\u5c40\u548c\u6b4c\u5c71\u6cb3\u5ddd\u56fd\u9053\u4e8b\u52d9\u6240","boring_xml_url":47,"boring_view_url":1,"soilmap_view_url":null,"soiltest_xml_url":0,"soiltest_view_url":0},{"id":248211,"code":"B4KJ201802001-3691","latitude":"34.285861","longitude":"135.366861","source_code":"KK098665220400110001","project_name":"\u7d00\u5317\u6771\u9053\u8def5\u5de5\u533a\u69cb\u9020\u7269\u4fee\u6b63\u8a2d\u8a08\u696d\u52d9 \u5ca9\u5ba4\u6c60\u5824\u4f53\u73fe\u6cc1\u5730\u76e4\u8abf\u67fb","survey_name":"\u7d00\u5317\u6771\u9053\u8def5\u5de5\u533a\u69cb\u9020\u7269\u4fee\u6b63\u8a2d\u8a08\u696d\u52d9 \u5ca9\u5ba4\u6c60\u5824\u4f53\u73fe\u6cc1\u5730\u76e4\u8abf\u67fb","client_name":"\u56fd\u571f\u4ea4\u901a\u7701\u8fd1\u757f\u5730\u65b9\u6574\u5099\u5c40\u548c\u6b4c\u5c71\u6cb3\u5ddd\u56fd\u9053\u4e8b\u52d9\u6240","boring_xml_url":47,"boring_view_url":1,"soilmap_view_url":null,"soiltest_xml_url":47,"soiltest_view_url":46},{"id":248210,"code":"B4KJ201802001-3690","latitude":"34.112083","longitude":"135.158028","source_code":"KK098665350400160020","project_name":"\u6709\u7530\u6d77\u5357\u9053\u8def\u4e0b\u6d25\u753a\u57df\u5730\u8cea\u8abf\u67fb\u696d\u52d9","survey_name":"\u6709\u7530\u6d77\u5357\u9053\u8def\u4e0b\u6d25\u753a\u57df\u5730\u8cea\u8abf\u67fb\u696d\u52d9","client_name":"\u56fd\u571f\u4ea4\u901a\u7701 \u8fd1\u757f\u5730\u65b9\u6574\u5099\u5c40 \u548c\u6b4c\u5c71\u6cb3\u5ddd\u56fd\u9053\u4e8b\u52d9\u6240 \u8abf\u67fb\u7b2c\u4e8c\u8ab2","boring_xml_url":47,"boring_view_url":1,"soilmap_view_url":null,"soiltest_xml_url":0,"soiltest_view_url":0},{"id":248209,"code":"B4KJ201802001-3689","latitude":"34.101","longitude":"135.140722","source_code":"KK098665350400160019","project_name":"\u6709\u7530\u6d77\u5357\u9053\u8def\u4e0b\u6d25\u753a\u57df\u5730\u8cea\u8abf\u67fb\u696d\u52d9","survey_name":"\u6709\u7530\u6d77\u5357\u9053\u8def\u4e0b\u6d25\u753a\u57df\u5730\u8cea\u8abf\u67fb\u696d\u52d9","client_name":"\u56fd\u571f\u4ea4\u901a\u7701 \u8fd1\u757f\u5730\u65b9\u6574\u5099\u5c40 \u548c\u6b4c\u5c71\u6cb3\u5ddd\u56fd\u9053\u4e8b\u52d9\u6240 \u8abf\u67fb\u7b2c\u4e8c\u8ab2","boring_xml_url":47,"boring_view_url":1,"soilmap_view_url":null,"soiltest_xml_url":0,"soiltest_view_url":0},{"id":248208,"code":"B4KJ201802001-3688","latitude":"34.101389","longitude":"135.140306","source_code":"KK098665350400160018","project_name":"\u6709\u7530\u6d77\u5357\u9053\u8def\u4e0b\u6d25\u753a\u57df\u5730\u8cea\u8abf\u67fb\u696d\u52d9","survey_name":"\u6709\u7530\u6d77\u5357\u9053\u8def\u4e0b\u6d25\u753a\u57df\u5730\u8cea\u8abf\u67fb\u696d\u52d9","client_name":"\u56fd\u571f\u4ea4\u901a\u7701 \u8fd1\u757f\u5730\u65b9\u6574\u5099\u5c40 \u548c\u6b4c\u5c71\u6cb3\u5ddd\u56fd\u9053\u4e8b\u52d9\u6240 \u8abf\u67fb\u7b2c\u4e8c\u8ab2","boring_xml_url":47,"boring_view_url":1,"soilmap_view_url":null,"soiltest_xml_url":0,"soiltest_view_url":0},{"id":248207,"code":"B4KJ201802001-3687","latitude":"34.100222","longitude":"135.139694","source_code":"KK098665350400160017","project_name":"\u6709\u7530\u6d77\u5357\u9053\u8def\u4e0b\u6d25\u753a\u57df\u5730\u8cea\u8abf\u67fb\u696d\u52d9","survey_name":"\u6709\u7530\u6d77\u5357\u9053\u8def\u4e0b\u6d25\u753a\u57df\u5730\u8cea\u8abf\u67fb\u696d\u52d9","client_name":"\u56fd\u571f\u4ea4\u901a\u7701 \u8fd1\u757f\u5730\u65b9\u6574\u5099\u5c40 \u548c\u6b4c\u5c71\u6cb3\u5ddd\u56fd\u9053\u4e8b\u52d9\u6240 \u8abf\u67fb\u7b2c\u4e8c\u8ab2","boring_xml_url":47,"boring_view_url":1,"soilmap_view_url":null,"soiltest_xml_url":0,"soiltest_view_url":0},{"id":248206,"code":"B4KJ201802001-3686","latitude":"34.1175","longitude":"135.162167","source_code":"KK098665350400160016","project_name":"\u6709\u7530\u6d77\u5357\u9053\u8def\u4e0b\u6d25\u753a\u57df\u5730\u8cea\u8abf\u67fb\u696d\u52d9","survey_name":"\u6709\u7530\u6d77\u5357\u9053\u8def\u4e0b\u6d25\u753a\u57df\u5730\u8cea\u8abf\u67fb\u696d\u52d9","client_name":"\u56fd\u571f\u4ea4\u901a\u7701 \u8fd1\u757f\u5730\u65b9\u6574\u5099\u5c40 \u548c\u6b4c\u5c71\u6cb3\u5ddd\u56fd\u9053\u4e8b\u52d9\u6240 \u8abf\u67fb\u7b2c\u4e8c\u8ab2","boring_xml_url":47,"boring_view_url":1,"soilmap_view_url":null,"soiltest_xml_url":0,"soiltest_view_url":0},{"id":248205,"code":"B4KJ201802001-3685","latitude":"34.111833","longitude":"135.157833","source_code":"KK098665350400160015","project_name":"\u6709\u7530\u6d77\u5357\u9053\u8def\u4e0b\u6d25\u753a\u57df\u5730\u8cea\u8abf\u67fb\u696d\u52d9","survey_name":"\u6709\u7530\u6d77\u5357\u9053\u8def\u4e0b\u6d25\u753a\u57df\u5730\u8cea\u8abf\u67fb\u696d\u52d9","client_name":"\u56fd\u571f\u4ea4\u901a\u7701 \u8fd1\u757f\u5730\u65b9\u6574\u5099\u5c40 \u548c\u6b4c\u5c71\u6cb3\u5ddd\u56fd\u9053\u4e8b\u52d9\u6240 \u8abf\u67fb\u7b2c\u4e8c\u8ab2","boring_xml_url":47,"boring_view_url":1,"soilmap_view_url":null,"soiltest_xml_url":0,"soiltest_view_url":0},{"id":248204,"code":"B4KJ201802001-3684","latitude":"34.106778","longitude":"135.153944","source_code":"KK098665350400160014","project_name":"\u6709\u7530\u6d77\u5357\u9053\u8def\u4e0b\u6d25\u753a\u57df\u5730\u8cea\u8abf\u67fb\u696d\u52d9","survey_name":"\u6709\u7530\u6d77\u5357\u9053\u8def\u4e0b\u6d25\u753a\u57df\u5730\u8cea\u8abf\u67fb\u696d\u52d9","client_name":"\u56fd\u571f\u4ea4\u901a\u7701 \u8fd1\u757f\u5730\u65b9\u6574\u5099\u5c40 \u548c\u6b4c\u5c71\u6cb3\u5ddd\u56fd\u9053\u4e8b\u52d9\u6240 \u8abf\u67fb\u7b2c\u4e8c\u8ab2","boring_xml_url":47,"boring_view_url":1,"soilmap_view_url":null,"soiltest_xml_url":0,"soiltest_view_url":0}]}}