{"header":{"xyz":{"source":[],"mosaic":false},"page":275,"raw":{"soiltest_result":"0","bbox":"57.598333,109.544722,1.933333,163.806111","page":"275"},"conditions":{"soiltest_result":0,"north":57.598333,"west":109.544722,"south":1.933333,"east":163.806111},"success":true,"message":""},"data":{"meta":{"total":212844,"page":275,"pages":7095,"count":30},"values":[{"id":572775,"code":"NGIC202204622-0003","latitude":"33.779779805556","longitude":"133.77852255556","source_code":"","project_name":"","survey_name":"\u4ee4\u548c3-4\u5e74\u5ea6\u56db\u56fd\u5c71\u5730\u7ba1\u5185\u5730\u3059\u3079\u308a\u5730\u8cea\u8abf\u67fb\u696d\u52d9","client_name":"\u56fd\u571f\u4ea4\u901a\u7701\u56db\u56fd\u5730\u65b9\u6574\u5099\u5c40\u56db\u56fd\u5c71\u5730\u7802\u9632\u4e8b\u52d9\u6240","boring_xml_url":47,"boring_view_url":1,"soilmap_view_url":null,"soiltest_xml_url":0,"soiltest_view_url":0},{"id":572774,"code":"NGIC202204622-0002","latitude":"33.874595472222","longitude":"133.83072433333","source_code":"","project_name":"","survey_name":"\u4ee4\u548c3-4\u5e74\u5ea6\u56db\u56fd\u5c71\u5730\u7ba1\u5185\u5730\u3059\u3079\u308a\u5730\u8cea\u8abf\u67fb\u696d\u52d9","client_name":"\u56fd\u571f\u4ea4\u901a\u7701\u56db\u56fd\u5730\u65b9\u6574\u5099\u5c40\u56db\u56fd\u5c71\u5730\u7802\u9632\u4e8b\u52d9\u6240","boring_xml_url":47,"boring_view_url":1,"soilmap_view_url":null,"soiltest_xml_url":0,"soiltest_view_url":0},{"id":572773,"code":"NGIC202204622-0001","latitude":"33.874294111111","longitude":"133.82988705556","source_code":"","project_name":"","survey_name":"\u4ee4\u548c3-4\u5e74\u5ea6\u56db\u56fd\u5c71\u5730\u7ba1\u5185\u5730\u3059\u3079\u308a\u5730\u8cea\u8abf\u67fb\u696d\u52d9","client_name":"\u56fd\u571f\u4ea4\u901a\u7701\u56db\u56fd\u5730\u65b9\u6574\u5099\u5c40\u56db\u56fd\u5c71\u5730\u7802\u9632\u4e8b\u52d9\u6240","boring_xml_url":47,"boring_view_url":1,"soilmap_view_url":null,"soiltest_xml_url":0,"soiltest_view_url":0},{"id":572772,"code":"NGIC202204610-0006","latitude":"33.799431111111","longitude":"134.34417719444","source_code":"","project_name":"","survey_name":"\u4ee4\u548c4\u5e74\u5ea6\u90a3\u8cc0\u5ddd\u4e0a\u6d41\u57df\u5730\u8cea\u8abf\u67fb\u696d\u52d9","client_name":"\u56fd\u571f\u4ea4\u901a\u7701\u56db\u56fd\u5730\u65b9\u6574\u5099\u5c40\u90a3\u8cc0\u5ddd\u6cb3\u5ddd\u4e8b\u52d9\u6240","boring_xml_url":47,"boring_view_url":1,"soilmap_view_url":null,"soiltest_xml_url":0,"soiltest_view_url":0},{"id":572771,"code":"NGIC202204610-0005","latitude":"33.799438472222","longitude":"134.34418341667","source_code":"","project_name":"","survey_name":"\u4ee4\u548c4\u5e74\u5ea6\u90a3\u8cc0\u5ddd\u4e0a\u6d41\u57df\u5730\u8cea\u8abf\u67fb\u696d\u52d9","client_name":"\u56fd\u571f\u4ea4\u901a\u7701\u56db\u56fd\u5730\u65b9\u6574\u5099\u5c40\u90a3\u8cc0\u5ddd\u6cb3\u5ddd\u4e8b\u52d9\u6240","boring_xml_url":47,"boring_view_url":1,"soilmap_view_url":null,"soiltest_xml_url":0,"soiltest_view_url":0},{"id":572770,"code":"NGIC202204610-0004","latitude":"33.796084277778","longitude":"134.33696930556","source_code":"","project_name":"","survey_name":"\u4ee4\u548c4\u5e74\u5ea6\u90a3\u8cc0\u5ddd\u4e0a\u6d41\u57df\u5730\u8cea\u8abf\u67fb\u696d\u52d9","client_name":"\u56fd\u571f\u4ea4\u901a\u7701\u56db\u56fd\u5730\u65b9\u6574\u5099\u5c40\u90a3\u8cc0\u5ddd\u6cb3\u5ddd\u4e8b\u52d9\u6240","boring_xml_url":47,"boring_view_url":1,"soilmap_view_url":null,"soiltest_xml_url":0,"soiltest_view_url":0},{"id":572769,"code":"NGIC202204610-0003","latitude":"33.796084277778","longitude":"134.33696930556","source_code":"","project_name":"","survey_name":"\u4ee4\u548c4\u5e74\u5ea6\u90a3\u8cc0\u5ddd\u4e0a\u6d41\u57df\u5730\u8cea\u8abf\u67fb\u696d\u52d9","client_name":"\u56fd\u571f\u4ea4\u901a\u7701\u56db\u56fd\u5730\u65b9\u6574\u5099\u5c40\u90a3\u8cc0\u5ddd\u6cb3\u5ddd\u4e8b\u52d9\u6240","boring_xml_url":47,"boring_view_url":1,"soilmap_view_url":null,"soiltest_xml_url":0,"soiltest_view_url":0},{"id":572768,"code":"NGIC202204610-0002","latitude":"33.797607805556","longitude":"134.30124197222","source_code":"","project_name":"","survey_name":"\u4ee4\u548c4\u5e74\u5ea6\u90a3\u8cc0\u5ddd\u4e0a\u6d41\u57df\u5730\u8cea\u8abf\u67fb\u696d\u52d9","client_name":"\u56fd\u571f\u4ea4\u901a\u7701\u56db\u56fd\u5730\u65b9\u6574\u5099\u5c40\u90a3\u8cc0\u5ddd\u6cb3\u5ddd\u4e8b\u52d9\u6240","boring_xml_url":47,"boring_view_url":1,"soilmap_view_url":null,"soiltest_xml_url":0,"soiltest_view_url":0},{"id":572767,"code":"NGIC202204610-0001","latitude":"33.797735527778","longitude":"134.30111261111","source_code":"","project_name":"","survey_name":"\u4ee4\u548c4\u5e74\u5ea6\u90a3\u8cc0\u5ddd\u4e0a\u6d41\u57df\u5730\u8cea\u8abf\u67fb\u696d\u52d9","client_name":"\u56fd\u571f\u4ea4\u901a\u7701\u56db\u56fd\u5730\u65b9\u6574\u5099\u5c40\u90a3\u8cc0\u5ddd\u6cb3\u5ddd\u4e8b\u52d9\u6240","boring_xml_url":47,"boring_view_url":1,"soilmap_view_url":null,"soiltest_xml_url":0,"soiltest_view_url":0},{"id":572757,"code":"NGIC202204598-0014","latitude":"34.654222611111","longitude":"131.66895075","source_code":"","project_name":"","survey_name":"\u4ee4\u548c3\u5e74\u5ea6 \u76ca\u7530\u7530\u4e07\u5ddd\u9053\u8def\u30c8\u30f3\u30cd\u30eb\u5730\u8cea\u89e3\u6790\u305d\u306e1\u696d\u52d9","client_name":"\u56fd\u571f\u4ea4\u901a\u7701\u4e2d\u56fd\u5730\u65b9\u6574\u5099\u5c40\u5c71\u9670\u897f\u90e8\u56fd\u9053\u4e8b\u52d9\u6240","boring_xml_url":47,"boring_view_url":1,"soilmap_view_url":null,"soiltest_xml_url":0,"soiltest_view_url":0},{"id":572756,"code":"NGIC202204598-0013","latitude":"34.65432225","longitude":"131.66886186111","source_code":"","project_name":"","survey_name":"\u4ee4\u548c3\u5e74\u5ea6 \u76ca\u7530\u7530\u4e07\u5ddd\u9053\u8def\u30c8\u30f3\u30cd\u30eb\u5730\u8cea\u89e3\u6790\u305d\u306e1\u696d\u52d9","client_name":"\u56fd\u571f\u4ea4\u901a\u7701\u4e2d\u56fd\u5730\u65b9\u6574\u5099\u5c40\u5c71\u9670\u897f\u90e8\u56fd\u9053\u4e8b\u52d9\u6240","boring_xml_url":47,"boring_view_url":1,"soilmap_view_url":null,"soiltest_xml_url":0,"soiltest_view_url":0},{"id":572755,"code":"NGIC202204598-0012","latitude":"34.654378694444","longitude":"131.66911480556","source_code":"","project_name":"","survey_name":"\u4ee4\u548c3\u5e74\u5ea6 \u76ca\u7530\u7530\u4e07\u5ddd\u9053\u8def\u30c8\u30f3\u30cd\u30eb\u5730\u8cea\u89e3\u6790\u305d\u306e1\u696d\u52d9","client_name":"\u56fd\u571f\u4ea4\u901a\u7701\u4e2d\u56fd\u5730\u65b9\u6574\u5099\u5c40\u5c71\u9670\u897f\u90e8\u56fd\u9053\u4e8b\u52d9\u6240","boring_xml_url":47,"boring_view_url":1,"soilmap_view_url":null,"soiltest_xml_url":0,"soiltest_view_url":0},{"id":572754,"code":"NGIC202204598-0011","latitude":"34.654854611111","longitude":"131.66977444444","source_code":"","project_name":"","survey_name":"\u4ee4\u548c3\u5e74\u5ea6 \u76ca\u7530\u7530\u4e07\u5ddd\u9053\u8def\u30c8\u30f3\u30cd\u30eb\u5730\u8cea\u89e3\u6790\u305d\u306e1\u696d\u52d9","client_name":"\u56fd\u571f\u4ea4\u901a\u7701\u4e2d\u56fd\u5730\u65b9\u6574\u5099\u5c40\u5c71\u9670\u897f\u90e8\u56fd\u9053\u4e8b\u52d9\u6240","boring_xml_url":47,"boring_view_url":1,"soilmap_view_url":null,"soiltest_xml_url":0,"soiltest_view_url":0},{"id":572753,"code":"NGIC202204598-0010","latitude":"34.656287222222","longitude":"131.67178652778","source_code":"","project_name":"","survey_name":"\u4ee4\u548c3\u5e74\u5ea6 \u76ca\u7530\u7530\u4e07\u5ddd\u9053\u8def\u30c8\u30f3\u30cd\u30eb\u5730\u8cea\u89e3\u6790\u305d\u306e1\u696d\u52d9","client_name":"\u56fd\u571f\u4ea4\u901a\u7701\u4e2d\u56fd\u5730\u65b9\u6574\u5099\u5c40\u5c71\u9670\u897f\u90e8\u56fd\u9053\u4e8b\u52d9\u6240","boring_xml_url":47,"boring_view_url":1,"soilmap_view_url":null,"soiltest_xml_url":0,"soiltest_view_url":0},{"id":572752,"code":"NGIC202204598-0009","latitude":"34.656389361111","longitude":"131.67199227778","source_code":"","project_name":"","survey_name":"\u4ee4\u548c3\u5e74\u5ea6 \u76ca\u7530\u7530\u4e07\u5ddd\u9053\u8def\u30c8\u30f3\u30cd\u30eb\u5730\u8cea\u89e3\u6790\u305d\u306e1\u696d\u52d9","client_name":"\u56fd\u571f\u4ea4\u901a\u7701\u4e2d\u56fd\u5730\u65b9\u6574\u5099\u5c40\u5c71\u9670\u897f\u90e8\u56fd\u9053\u4e8b\u52d9\u6240","boring_xml_url":47,"boring_view_url":1,"soilmap_view_url":null,"soiltest_xml_url":0,"soiltest_view_url":0},{"id":572751,"code":"NGIC202204598-0008","latitude":"34.656403","longitude":"131.67202052778","source_code":"","project_name":"","survey_name":"\u4ee4\u548c3\u5e74\u5ea6 \u76ca\u7530\u7530\u4e07\u5ddd\u9053\u8def\u30c8\u30f3\u30cd\u30eb\u5730\u8cea\u89e3\u6790\u305d\u306e1\u696d\u52d9","client_name":"\u56fd\u571f\u4ea4\u901a\u7701\u4e2d\u56fd\u5730\u65b9\u6574\u5099\u5c40\u5c71\u9670\u897f\u90e8\u56fd\u9053\u4e8b\u52d9\u6240","boring_xml_url":47,"boring_view_url":1,"soilmap_view_url":null,"soiltest_xml_url":0,"soiltest_view_url":0},{"id":572750,"code":"NGIC202204598-0007","latitude":"34.657597722222","longitude":"131.67911","source_code":"","project_name":"","survey_name":"\u4ee4\u548c3\u5e74\u5ea6 \u76ca\u7530\u7530\u4e07\u5ddd\u9053\u8def\u30c8\u30f3\u30cd\u30eb\u5730\u8cea\u89e3\u6790\u305d\u306e1\u696d\u52d9","client_name":"\u56fd\u571f\u4ea4\u901a\u7701\u4e2d\u56fd\u5730\u65b9\u6574\u5099\u5c40\u5c71\u9670\u897f\u90e8\u56fd\u9053\u4e8b\u52d9\u6240","boring_xml_url":47,"boring_view_url":1,"soilmap_view_url":null,"soiltest_xml_url":0,"soiltest_view_url":0},{"id":572749,"code":"NGIC202204598-0006","latitude":"34.657587416667","longitude":"131.67961261111","source_code":"","project_name":"","survey_name":"\u4ee4\u548c3\u5e74\u5ea6 \u76ca\u7530\u7530\u4e07\u5ddd\u9053\u8def\u30c8\u30f3\u30cd\u30eb\u5730\u8cea\u89e3\u6790\u305d\u306e1\u696d\u52d9","client_name":"\u56fd\u571f\u4ea4\u901a\u7701\u4e2d\u56fd\u5730\u65b9\u6574\u5099\u5c40\u5c71\u9670\u897f\u90e8\u56fd\u9053\u4e8b\u52d9\u6240","boring_xml_url":47,"boring_view_url":1,"soilmap_view_url":null,"soiltest_xml_url":0,"soiltest_view_url":0},{"id":572748,"code":"NGIC202204598-0005","latitude":"34.657657888889","longitude":"131.68011683333","source_code":"","project_name":"","survey_name":"\u4ee4\u548c3\u5e74\u5ea6 \u76ca\u7530\u7530\u4e07\u5ddd\u9053\u8def\u30c8\u30f3\u30cd\u30eb\u5730\u8cea\u89e3\u6790\u305d\u306e1\u696d\u52d9","client_name":"\u56fd\u571f\u4ea4\u901a\u7701\u4e2d\u56fd\u5730\u65b9\u6574\u5099\u5c40\u5c71\u9670\u897f\u90e8\u56fd\u9053\u4e8b\u52d9\u6240","boring_xml_url":47,"boring_view_url":1,"soilmap_view_url":null,"soiltest_xml_url":0,"soiltest_view_url":0},{"id":572747,"code":"NGIC202204598-0004","latitude":"34.6589625","longitude":"131.68973483333","source_code":"","project_name":"","survey_name":"\u4ee4\u548c3\u5e74\u5ea6 \u76ca\u7530\u7530\u4e07\u5ddd\u9053\u8def\u30c8\u30f3\u30cd\u30eb\u5730\u8cea\u89e3\u6790\u305d\u306e1\u696d\u52d9","client_name":"\u56fd\u571f\u4ea4\u901a\u7701\u4e2d\u56fd\u5730\u65b9\u6574\u5099\u5c40\u5c71\u9670\u897f\u90e8\u56fd\u9053\u4e8b\u52d9\u6240","boring_xml_url":47,"boring_view_url":1,"soilmap_view_url":null,"soiltest_xml_url":0,"soiltest_view_url":0},{"id":572746,"code":"NGIC202204598-0003","latitude":"34.659564611111","longitude":"131.69083111111","source_code":"","project_name":"","survey_name":"\u4ee4\u548c3\u5e74\u5ea6 \u76ca\u7530\u7530\u4e07\u5ddd\u9053\u8def\u30c8\u30f3\u30cd\u30eb\u5730\u8cea\u89e3\u6790\u305d\u306e1\u696d\u52d9","client_name":"\u56fd\u571f\u4ea4\u901a\u7701\u4e2d\u56fd\u5730\u65b9\u6574\u5099\u5c40\u5c71\u9670\u897f\u90e8\u56fd\u9053\u4e8b\u52d9\u6240","boring_xml_url":47,"boring_view_url":1,"soilmap_view_url":null,"soiltest_xml_url":0,"soiltest_view_url":0},{"id":572745,"code":"NGIC202204598-0002","latitude":"34.659663583333","longitude":"131.69102641667","source_code":"","project_name":"","survey_name":"\u4ee4\u548c3\u5e74\u5ea6 \u76ca\u7530\u7530\u4e07\u5ddd\u9053\u8def\u30c8\u30f3\u30cd\u30eb\u5730\u8cea\u89e3\u6790\u305d\u306e1\u696d\u52d9","client_name":"\u56fd\u571f\u4ea4\u901a\u7701\u4e2d\u56fd\u5730\u65b9\u6574\u5099\u5c40\u5c71\u9670\u897f\u90e8\u56fd\u9053\u4e8b\u52d9\u6240","boring_xml_url":47,"boring_view_url":1,"soilmap_view_url":null,"soiltest_xml_url":0,"soiltest_view_url":0},{"id":572744,"code":"NGIC202204598-0001","latitude":"34.659682583333","longitude":"131.6910635","source_code":"","project_name":"","survey_name":"\u4ee4\u548c3\u5e74\u5ea6 \u76ca\u7530\u7530\u4e07\u5ddd\u9053\u8def\u30c8\u30f3\u30cd\u30eb\u5730\u8cea\u89e3\u6790\u305d\u306e1\u696d\u52d9","client_name":"\u56fd\u571f\u4ea4\u901a\u7701\u4e2d\u56fd\u5730\u65b9\u6574\u5099\u5c40\u5c71\u9670\u897f\u90e8\u56fd\u9053\u4e8b\u52d9\u6240","boring_xml_url":47,"boring_view_url":1,"soilmap_view_url":null,"soiltest_xml_url":0,"soiltest_view_url":0},{"id":572740,"code":"NGIC202204857-0001","latitude":"40.039927777778","longitude":"141.23733888889","source_code":"","project_name":"","survey_name":"\u4ee4\u548c3\u301c4\u5e74\u5ea6\u5ca9\u624b\u7ba1\u5185\u5317\u90e8\u9053\u8def\u70b9\u691c\u30fb\u88dc\u4fee\u8a2d\u8a08\u696d\u52d9","client_name":"\u56fd\u571f\u4ea4\u901a\u7701\u6771\u5317\u5730\u65b9\u6574\u5099\u5c40\u5ca9\u624b\u6cb3\u5ddd\u56fd\u9053\u4e8b\u52d9\u6240","boring_xml_url":47,"boring_view_url":1,"soilmap_view_url":null,"soiltest_xml_url":0,"soiltest_view_url":0},{"id":572730,"code":"NGIC202204596-0020","latitude":"33.524344444444","longitude":"134.27484722222","source_code":"","project_name":"","survey_name":"\u4ee4\u548c4\u5e74\u5ea6\u6d77\u90e8\u91ce\u6839\u9053\u8def\uff08\u571f\u4f50\u7ba1\u5185\uff09\u5730\u8cea\u8abf\u67fb\u696d\u52d9","client_name":"\u56fd\u571f\u4ea4\u901a\u7701\u56db\u56fd\u5730\u65b9\u6574\u5099\u5c40\u571f\u4f50\u56fd\u9053\u4e8b\u52d9\u6240","boring_xml_url":47,"boring_view_url":1,"soilmap_view_url":null,"soiltest_xml_url":47,"soiltest_view_url":47},{"id":572729,"code":"NGIC202204596-0019","latitude":"33.528838888889","longitude":"134.27756111111","source_code":"","project_name":"","survey_name":"\u4ee4\u548c4\u5e74\u5ea6\u6d77\u90e8\u91ce\u6839\u9053\u8def\uff08\u571f\u4f50\u7ba1\u5185\uff09\u5730\u8cea\u8abf\u67fb\u696d\u52d9","client_name":"\u56fd\u571f\u4ea4\u901a\u7701\u56db\u56fd\u5730\u65b9\u6574\u5099\u5c40\u571f\u4f50\u56fd\u9053\u4e8b\u52d9\u6240","boring_xml_url":47,"boring_view_url":1,"soilmap_view_url":null,"soiltest_xml_url":47,"soiltest_view_url":47},{"id":572728,"code":"NGIC202204596-0018","latitude":"33.549902777778","longitude":"134.28639722222","source_code":"","project_name":"","survey_name":"\u4ee4\u548c4\u5e74\u5ea6\u6d77\u90e8\u91ce\u6839\u9053\u8def\uff08\u571f\u4f50\u7ba1\u5185\uff09\u5730\u8cea\u8abf\u67fb\u696d\u52d9","client_name":"\u56fd\u571f\u4ea4\u901a\u7701\u56db\u56fd\u5730\u65b9\u6574\u5099\u5c40\u571f\u4f50\u56fd\u9053\u4e8b\u52d9\u6240","boring_xml_url":47,"boring_view_url":1,"soilmap_view_url":null,"soiltest_xml_url":47,"soiltest_view_url":47},{"id":572727,"code":"NGIC202204596-0017","latitude":"33.516694444444","longitude":"134.26781944444","source_code":"","project_name":"","survey_name":"\u4ee4\u548c4\u5e74\u5ea6\u6d77\u90e8\u91ce\u6839\u9053\u8def\uff08\u571f\u4f50\u7ba1\u5185\uff09\u5730\u8cea\u8abf\u67fb\u696d\u52d9","client_name":"\u56fd\u571f\u4ea4\u901a\u7701\u56db\u56fd\u5730\u65b9\u6574\u5099\u5c40\u571f\u4f50\u56fd\u9053\u4e8b\u52d9\u6240","boring_xml_url":47,"boring_view_url":1,"soilmap_view_url":null,"soiltest_xml_url":0,"soiltest_view_url":0},{"id":572726,"code":"NGIC202204596-0016","latitude":"33.516842166667","longitude":"134.26797241667","source_code":"","project_name":"","survey_name":"\u4ee4\u548c4\u5e74\u5ea6\u6d77\u90e8\u91ce\u6839\u9053\u8def\uff08\u571f\u4f50\u7ba1\u5185\uff09\u5730\u8cea\u8abf\u67fb\u696d\u52d9","client_name":"\u56fd\u571f\u4ea4\u901a\u7701\u56db\u56fd\u5730\u65b9\u6574\u5099\u5c40\u571f\u4f50\u56fd\u9053\u4e8b\u52d9\u6240","boring_xml_url":47,"boring_view_url":1,"soilmap_view_url":null,"soiltest_xml_url":0,"soiltest_view_url":0},{"id":572725,"code":"NGIC202204596-0015","latitude":"33.516905555556","longitude":"134.26804722222","source_code":"","project_name":"","survey_name":"\u4ee4\u548c4\u5e74\u5ea6\u6d77\u90e8\u91ce\u6839\u9053\u8def\uff08\u571f\u4f50\u7ba1\u5185\uff09\u5730\u8cea\u8abf\u67fb\u696d\u52d9","client_name":"\u56fd\u571f\u4ea4\u901a\u7701\u56db\u56fd\u5730\u65b9\u6574\u5099\u5c40\u571f\u4f50\u56fd\u9053\u4e8b\u52d9\u6240","boring_xml_url":47,"boring_view_url":1,"soilmap_view_url":null,"soiltest_xml_url":47,"soiltest_view_url":47}]}}