{"header":{"xyz":{"source":[],"mosaic":false},"page":276,"raw":{"soiltest_result":"0","bbox":"57.598333,109.544722,1.933333,163.806111","page":"276"},"conditions":{"soiltest_result":0,"north":57.598333,"west":109.544722,"south":1.933333,"east":163.806111},"success":true,"message":""},"data":{"meta":{"total":212844,"page":276,"pages":7095,"count":30},"values":[{"id":572724,"code":"NGIC202204596-0014","latitude":"33.523761111111","longitude":"134.27434444444","source_code":"","project_name":"","survey_name":"\u4ee4\u548c4\u5e74\u5ea6\u6d77\u90e8\u91ce\u6839\u9053\u8def\uff08\u571f\u4f50\u7ba1\u5185\uff09\u5730\u8cea\u8abf\u67fb\u696d\u52d9","client_name":"\u56fd\u571f\u4ea4\u901a\u7701\u56db\u56fd\u5730\u65b9\u6574\u5099\u5c40\u571f\u4f50\u56fd\u9053\u4e8b\u52d9\u6240","boring_xml_url":47,"boring_view_url":1,"soilmap_view_url":null,"soiltest_xml_url":0,"soiltest_view_url":0},{"id":572723,"code":"NGIC202204596-0013","latitude":"33.545855555556","longitude":"134.28525833333","source_code":"","project_name":"","survey_name":"\u4ee4\u548c4\u5e74\u5ea6\u6d77\u90e8\u91ce\u6839\u9053\u8def\uff08\u571f\u4f50\u7ba1\u5185\uff09\u5730\u8cea\u8abf\u67fb\u696d\u52d9","client_name":"\u56fd\u571f\u4ea4\u901a\u7701\u56db\u56fd\u5730\u65b9\u6574\u5099\u5c40\u571f\u4f50\u56fd\u9053\u4e8b\u52d9\u6240","boring_xml_url":47,"boring_view_url":1,"soilmap_view_url":null,"soiltest_xml_url":47,"soiltest_view_url":47},{"id":572722,"code":"NGIC202204596-0012","latitude":"33.546658333333","longitude":"134.28551388889","source_code":"","project_name":"","survey_name":"\u4ee4\u548c4\u5e74\u5ea6\u6d77\u90e8\u91ce\u6839\u9053\u8def\uff08\u571f\u4f50\u7ba1\u5185\uff09\u5730\u8cea\u8abf\u67fb\u696d\u52d9","client_name":"\u56fd\u571f\u4ea4\u901a\u7701\u56db\u56fd\u5730\u65b9\u6574\u5099\u5c40\u571f\u4f50\u56fd\u9053\u4e8b\u52d9\u6240","boring_xml_url":47,"boring_view_url":1,"soilmap_view_url":null,"soiltest_xml_url":0,"soiltest_view_url":0},{"id":572721,"code":"NGIC202204596-0011","latitude":"33.547527777778","longitude":"134.28531944444","source_code":"","project_name":"","survey_name":"\u4ee4\u548c4\u5e74\u5ea6\u6d77\u90e8\u91ce\u6839\u9053\u8def\uff08\u571f\u4f50\u7ba1\u5185\uff09\u5730\u8cea\u8abf\u67fb\u696d\u52d9","client_name":"\u56fd\u571f\u4ea4\u901a\u7701\u56db\u56fd\u5730\u65b9\u6574\u5099\u5c40\u571f\u4f50\u56fd\u9053\u4e8b\u52d9\u6240","boring_xml_url":47,"boring_view_url":1,"soilmap_view_url":null,"soiltest_xml_url":47,"soiltest_view_url":47},{"id":572720,"code":"NGIC202204596-0010","latitude":"33.547313888889","longitude":"134.2857","source_code":"","project_name":"","survey_name":"\u4ee4\u548c4\u5e74\u5ea6\u6d77\u90e8\u91ce\u6839\u9053\u8def\uff08\u571f\u4f50\u7ba1\u5185\uff09\u5730\u8cea\u8abf\u67fb\u696d\u52d9","client_name":"\u56fd\u571f\u4ea4\u901a\u7701\u56db\u56fd\u5730\u65b9\u6574\u5099\u5c40\u571f\u4f50\u56fd\u9053\u4e8b\u52d9\u6240","boring_xml_url":47,"boring_view_url":1,"soilmap_view_url":null,"soiltest_xml_url":47,"soiltest_view_url":47},{"id":572719,"code":"NGIC202204596-0009","latitude":"33.547094444444","longitude":"134.28609444444","source_code":"","project_name":"","survey_name":"\u4ee4\u548c4\u5e74\u5ea6\u6d77\u90e8\u91ce\u6839\u9053\u8def\uff08\u571f\u4f50\u7ba1\u5185\uff09\u5730\u8cea\u8abf\u67fb\u696d\u52d9","client_name":"\u56fd\u571f\u4ea4\u901a\u7701\u56db\u56fd\u5730\u65b9\u6574\u5099\u5c40\u571f\u4f50\u56fd\u9053\u4e8b\u52d9\u6240","boring_xml_url":47,"boring_view_url":1,"soilmap_view_url":null,"soiltest_xml_url":47,"soiltest_view_url":47},{"id":572718,"code":"NGIC202204596-0008","latitude":"33.549105555556","longitude":"134.28590555556","source_code":"","project_name":"","survey_name":"\u4ee4\u548c4\u5e74\u5ea6\u6d77\u90e8\u91ce\u6839\u9053\u8def\uff08\u571f\u4f50\u7ba1\u5185\uff09\u5730\u8cea\u8abf\u67fb\u696d\u52d9","client_name":"\u56fd\u571f\u4ea4\u901a\u7701\u56db\u56fd\u5730\u65b9\u6574\u5099\u5c40\u571f\u4f50\u56fd\u9053\u4e8b\u52d9\u6240","boring_xml_url":47,"boring_view_url":1,"soilmap_view_url":null,"soiltest_xml_url":0,"soiltest_view_url":0},{"id":572717,"code":"NGIC202204596-0007","latitude":"33.548955555556","longitude":"134.28641388889","source_code":"","project_name":"","survey_name":"\u4ee4\u548c4\u5e74\u5ea6\u6d77\u90e8\u91ce\u6839\u9053\u8def\uff08\u571f\u4f50\u7ba1\u5185\uff09\u5730\u8cea\u8abf\u67fb\u696d\u52d9","client_name":"\u56fd\u571f\u4ea4\u901a\u7701\u56db\u56fd\u5730\u65b9\u6574\u5099\u5c40\u571f\u4f50\u56fd\u9053\u4e8b\u52d9\u6240","boring_xml_url":47,"boring_view_url":1,"soilmap_view_url":null,"soiltest_xml_url":0,"soiltest_view_url":0},{"id":572716,"code":"NGIC202204596-0006","latitude":"33.548588888889","longitude":"134.28697222222","source_code":"","project_name":"","survey_name":"\u4ee4\u548c4\u5e74\u5ea6\u6d77\u90e8\u91ce\u6839\u9053\u8def\uff08\u571f\u4f50\u7ba1\u5185\uff09\u5730\u8cea\u8abf\u67fb\u696d\u52d9","client_name":"\u56fd\u571f\u4ea4\u901a\u7701\u56db\u56fd\u5730\u65b9\u6574\u5099\u5c40\u571f\u4f50\u56fd\u9053\u4e8b\u52d9\u6240","boring_xml_url":47,"boring_view_url":1,"soilmap_view_url":null,"soiltest_xml_url":0,"soiltest_view_url":0},{"id":572715,"code":"NGIC202204596-0005","latitude":"33.549333333333","longitude":"134.28595","source_code":"","project_name":"","survey_name":"\u4ee4\u548c4\u5e74\u5ea6\u6d77\u90e8\u91ce\u6839\u9053\u8def\uff08\u571f\u4f50\u7ba1\u5185\uff09\u5730\u8cea\u8abf\u67fb\u696d\u52d9","client_name":"\u56fd\u571f\u4ea4\u901a\u7701\u56db\u56fd\u5730\u65b9\u6574\u5099\u5c40\u571f\u4f50\u56fd\u9053\u4e8b\u52d9\u6240","boring_xml_url":47,"boring_view_url":1,"soilmap_view_url":null,"soiltest_xml_url":47,"soiltest_view_url":47},{"id":572714,"code":"NGIC202204596-0004","latitude":"33.54915","longitude":"134.28648055556","source_code":"","project_name":"","survey_name":"\u4ee4\u548c4\u5e74\u5ea6\u6d77\u90e8\u91ce\u6839\u9053\u8def\uff08\u571f\u4f50\u7ba1\u5185\uff09\u5730\u8cea\u8abf\u67fb\u696d\u52d9","client_name":"\u56fd\u571f\u4ea4\u901a\u7701\u56db\u56fd\u5730\u65b9\u6574\u5099\u5c40\u571f\u4f50\u56fd\u9053\u4e8b\u52d9\u6240","boring_xml_url":47,"boring_view_url":1,"soilmap_view_url":null,"soiltest_xml_url":47,"soiltest_view_url":47},{"id":572713,"code":"NGIC202204596-0003","latitude":"33.548811111111","longitude":"134.28711111111","source_code":"","project_name":"","survey_name":"\u4ee4\u548c4\u5e74\u5ea6\u6d77\u90e8\u91ce\u6839\u9053\u8def\uff08\u571f\u4f50\u7ba1\u5185\uff09\u5730\u8cea\u8abf\u67fb\u696d\u52d9","client_name":"\u56fd\u571f\u4ea4\u901a\u7701\u56db\u56fd\u5730\u65b9\u6574\u5099\u5c40\u571f\u4f50\u56fd\u9053\u4e8b\u52d9\u6240","boring_xml_url":47,"boring_view_url":1,"soilmap_view_url":null,"soiltest_xml_url":47,"soiltest_view_url":47},{"id":572712,"code":"NGIC202204596-0002","latitude":"33.549194444444","longitude":"134.28708611111","source_code":"","project_name":"","survey_name":"\u4ee4\u548c4\u5e74\u5ea6\u6d77\u90e8\u91ce\u6839\u9053\u8def\uff08\u571f\u4f50\u7ba1\u5185\uff09\u5730\u8cea\u8abf\u67fb\u696d\u52d9","client_name":"\u56fd\u571f\u4ea4\u901a\u7701\u56db\u56fd\u5730\u65b9\u6574\u5099\u5c40\u571f\u4f50\u56fd\u9053\u4e8b\u52d9\u6240","boring_xml_url":47,"boring_view_url":1,"soilmap_view_url":null,"soiltest_xml_url":47,"soiltest_view_url":47},{"id":572711,"code":"NGIC202204596-0001","latitude":"33.552155555556","longitude":"134.28700555556","source_code":"","project_name":"","survey_name":"\u4ee4\u548c4\u5e74\u5ea6\u6d77\u90e8\u91ce\u6839\u9053\u8def\uff08\u571f\u4f50\u7ba1\u5185\uff09\u5730\u8cea\u8abf\u67fb\u696d\u52d9","client_name":"\u56fd\u571f\u4ea4\u901a\u7701\u56db\u56fd\u5730\u65b9\u6574\u5099\u5c40\u571f\u4f50\u56fd\u9053\u4e8b\u52d9\u6240","boring_xml_url":47,"boring_view_url":1,"soilmap_view_url":null,"soiltest_xml_url":47,"soiltest_view_url":47},{"id":572685,"code":"NGIC202204851-0012","latitude":"35.524043027778","longitude":"138.0827905","source_code":"","project_name":"","survey_name":"\u4ee4\u548c4\u5e74\u5ea6\u5929\u7adc\u5ddd\u6c34\u7cfb\u4e0b\u4f0a\u90a3\u7ba1\u5185\u5730\u8cea\u8abf\u67fb\u696d\u52d9","client_name":"\u56fd\u571f\u4ea4\u901a\u7701\u4e2d\u90e8\u5730\u65b9\u6574\u5099\u5c40\u5929\u7adc\u5ddd\u4e0a\u6d41\u6cb3\u5ddd\u4e8b\u52d9\u6240","boring_xml_url":47,"boring_view_url":1,"soilmap_view_url":null,"soiltest_xml_url":0,"soiltest_view_url":0},{"id":572684,"code":"NGIC202204851-0011","latitude":"35.524285416667","longitude":"138.08351558333","source_code":"","project_name":"","survey_name":"\u4ee4\u548c4\u5e74\u5ea6\u5929\u7adc\u5ddd\u6c34\u7cfb\u4e0b\u4f0a\u90a3\u7ba1\u5185\u5730\u8cea\u8abf\u67fb\u696d\u52d9","client_name":"\u56fd\u571f\u4ea4\u901a\u7701\u4e2d\u90e8\u5730\u65b9\u6574\u5099\u5c40\u5929\u7adc\u5ddd\u4e0a\u6d41\u6cb3\u5ddd\u4e8b\u52d9\u6240","boring_xml_url":47,"boring_view_url":1,"soilmap_view_url":null,"soiltest_xml_url":0,"soiltest_view_url":0},{"id":572683,"code":"NGIC202204851-0010","latitude":"35.524443777778","longitude":"138.08397947222","source_code":"","project_name":"","survey_name":"\u4ee4\u548c4\u5e74\u5ea6\u5929\u7adc\u5ddd\u6c34\u7cfb\u4e0b\u4f0a\u90a3\u7ba1\u5185\u5730\u8cea\u8abf\u67fb\u696d\u52d9","client_name":"\u56fd\u571f\u4ea4\u901a\u7701\u4e2d\u90e8\u5730\u65b9\u6574\u5099\u5c40\u5929\u7adc\u5ddd\u4e0a\u6d41\u6cb3\u5ddd\u4e8b\u52d9\u6240","boring_xml_url":47,"boring_view_url":1,"soilmap_view_url":null,"soiltest_xml_url":0,"soiltest_view_url":0},{"id":572682,"code":"NGIC202204851-0009","latitude":"35.524714611111","longitude":"138.08377752778","source_code":"","project_name":"","survey_name":"\u4ee4\u548c4\u5e74\u5ea6\u5929\u7adc\u5ddd\u6c34\u7cfb\u4e0b\u4f0a\u90a3\u7ba1\u5185\u5730\u8cea\u8abf\u67fb\u696d\u52d9","client_name":"\u56fd\u571f\u4ea4\u901a\u7701\u4e2d\u90e8\u5730\u65b9\u6574\u5099\u5c40\u5929\u7adc\u5ddd\u4e0a\u6d41\u6cb3\u5ddd\u4e8b\u52d9\u6240","boring_xml_url":47,"boring_view_url":1,"soilmap_view_url":null,"soiltest_xml_url":0,"soiltest_view_url":0},{"id":572681,"code":"NGIC202204851-0008","latitude":"35.525213972222","longitude":"138.08420233333","source_code":"","project_name":"","survey_name":"\u4ee4\u548c4\u5e74\u5ea6\u5929\u7adc\u5ddd\u6c34\u7cfb\u4e0b\u4f0a\u90a3\u7ba1\u5185\u5730\u8cea\u8abf\u67fb\u696d\u52d9","client_name":"\u56fd\u571f\u4ea4\u901a\u7701\u4e2d\u90e8\u5730\u65b9\u6574\u5099\u5c40\u5929\u7adc\u5ddd\u4e0a\u6d41\u6cb3\u5ddd\u4e8b\u52d9\u6240","boring_xml_url":47,"boring_view_url":1,"soilmap_view_url":null,"soiltest_xml_url":0,"soiltest_view_url":0},{"id":572680,"code":"NGIC202204851-0007","latitude":"35.589428444444","longitude":"138.04688822222","source_code":"","project_name":"","survey_name":"\u4ee4\u548c4\u5e74\u5ea6\u5929\u7adc\u5ddd\u6c34\u7cfb\u4e0b\u4f0a\u90a3\u7ba1\u5185\u5730\u8cea\u8abf\u67fb\u696d\u52d9","client_name":"\u56fd\u571f\u4ea4\u901a\u7701\u4e2d\u90e8\u5730\u65b9\u6574\u5099\u5c40\u5929\u7adc\u5ddd\u4e0a\u6d41\u6cb3\u5ddd\u4e8b\u52d9\u6240","boring_xml_url":47,"boring_view_url":1,"soilmap_view_url":null,"soiltest_xml_url":0,"soiltest_view_url":0},{"id":572679,"code":"NGIC202204851-0006","latitude":"35.589386472222","longitude":"138.04710416667","source_code":"","project_name":"","survey_name":"\u4ee4\u548c4\u5e74\u5ea6\u5929\u7adc\u5ddd\u6c34\u7cfb\u4e0b\u4f0a\u90a3\u7ba1\u5185\u5730\u8cea\u8abf\u67fb\u696d\u52d9","client_name":"\u56fd\u571f\u4ea4\u901a\u7701\u4e2d\u90e8\u5730\u65b9\u6574\u5099\u5c40\u5929\u7adc\u5ddd\u4e0a\u6d41\u6cb3\u5ddd\u4e8b\u52d9\u6240","boring_xml_url":47,"boring_view_url":1,"soilmap_view_url":null,"soiltest_xml_url":0,"soiltest_view_url":0},{"id":572678,"code":"NGIC202204851-0005","latitude":"35.589482444444","longitude":"138.04671919444","source_code":"","project_name":"","survey_name":"\u4ee4\u548c4\u5e74\u5ea6\u5929\u7adc\u5ddd\u6c34\u7cfb\u4e0b\u4f0a\u90a3\u7ba1\u5185\u5730\u8cea\u8abf\u67fb\u696d\u52d9","client_name":"\u56fd\u571f\u4ea4\u901a\u7701\u4e2d\u90e8\u5730\u65b9\u6574\u5099\u5c40\u5929\u7adc\u5ddd\u4e0a\u6d41\u6cb3\u5ddd\u4e8b\u52d9\u6240","boring_xml_url":47,"boring_view_url":1,"soilmap_view_url":null,"soiltest_xml_url":0,"soiltest_view_url":0},{"id":572677,"code":"NGIC202204851-0004","latitude":"35.529932638889","longitude":"138.03085986111","source_code":"","project_name":"","survey_name":"\u4ee4\u548c4\u5e74\u5ea6\u5929\u7adc\u5ddd\u6c34\u7cfb\u4e0b\u4f0a\u90a3\u7ba1\u5185\u5730\u8cea\u8abf\u67fb\u696d\u52d9","client_name":"\u56fd\u571f\u4ea4\u901a\u7701\u4e2d\u90e8\u5730\u65b9\u6574\u5099\u5c40\u5929\u7adc\u5ddd\u4e0a\u6d41\u6cb3\u5ddd\u4e8b\u52d9\u6240","boring_xml_url":47,"boring_view_url":1,"soilmap_view_url":null,"soiltest_xml_url":0,"soiltest_view_url":0},{"id":572676,"code":"NGIC202204851-0003","latitude":"35.527476305556","longitude":"138.02940177778","source_code":"","project_name":"","survey_name":"\u4ee4\u548c4\u5e74\u5ea6\u5929\u7adc\u5ddd\u6c34\u7cfb\u4e0b\u4f0a\u90a3\u7ba1\u5185\u5730\u8cea\u8abf\u67fb\u696d\u52d9","client_name":"\u56fd\u571f\u4ea4\u901a\u7701\u4e2d\u90e8\u5730\u65b9\u6574\u5099\u5c40\u5929\u7adc\u5ddd\u4e0a\u6d41\u6cb3\u5ddd\u4e8b\u52d9\u6240","boring_xml_url":47,"boring_view_url":1,"soilmap_view_url":null,"soiltest_xml_url":0,"soiltest_view_url":0},{"id":572675,"code":"NGIC202204851-0002","latitude":"35.527697","longitude":"138.02959008333","source_code":"","project_name":"","survey_name":"\u4ee4\u548c4\u5e74\u5ea6\u5929\u7adc\u5ddd\u6c34\u7cfb\u4e0b\u4f0a\u90a3\u7ba1\u5185\u5730\u8cea\u8abf\u67fb\u696d\u52d9","client_name":"\u56fd\u571f\u4ea4\u901a\u7701\u4e2d\u90e8\u5730\u65b9\u6574\u5099\u5c40\u5929\u7adc\u5ddd\u4e0a\u6d41\u6cb3\u5ddd\u4e8b\u52d9\u6240","boring_xml_url":47,"boring_view_url":1,"soilmap_view_url":null,"soiltest_xml_url":0,"soiltest_view_url":0},{"id":572674,"code":"NGIC202204851-0001","latitude":"35.528201194444","longitude":"138.02899697222","source_code":"","project_name":"","survey_name":"\u4ee4\u548c4\u5e74\u5ea6\u5929\u7adc\u5ddd\u6c34\u7cfb\u4e0b\u4f0a\u90a3\u7ba1\u5185\u5730\u8cea\u8abf\u67fb\u696d\u52d9","client_name":"\u56fd\u571f\u4ea4\u901a\u7701\u4e2d\u90e8\u5730\u65b9\u6574\u5099\u5c40\u5929\u7adc\u5ddd\u4e0a\u6d41\u6cb3\u5ddd\u4e8b\u52d9\u6240","boring_xml_url":47,"boring_view_url":1,"soilmap_view_url":null,"soiltest_xml_url":0,"soiltest_view_url":0},{"id":572671,"code":"NGIC202204500-0006","latitude":"34.676644833333","longitude":"136.07587455556","source_code":"","project_name":"","survey_name":"\u6728\u6d25\u5ddd\u6c34\u7cfb\u5948\u826f\u770c\u57df\u571f\u77f3\u6d41\u5bfe\u7b56\u65bd\u8a2d\u4e88\u5099\u8a2d\u8a08\u696d\u52d9","client_name":"\u56fd\u571f\u4ea4\u901a\u7701\u8fd1\u757f\u5730\u65b9\u6574\u5099\u5c40\u7d00\u4f0a\u5c71\u5730\u7802\u9632\u4e8b\u52d9\u6240","boring_xml_url":47,"boring_view_url":1,"soilmap_view_url":null,"soiltest_xml_url":0,"soiltest_view_url":0},{"id":572670,"code":"NGIC202204500-0005","latitude":"34.676846666667","longitude":"136.07498025","source_code":"","project_name":"","survey_name":"\u6728\u6d25\u5ddd\u6c34\u7cfb\u5948\u826f\u770c\u57df\u571f\u77f3\u6d41\u5bfe\u7b56\u65bd\u8a2d\u4e88\u5099\u8a2d\u8a08\u696d\u52d9","client_name":"\u56fd\u571f\u4ea4\u901a\u7701\u8fd1\u757f\u5730\u65b9\u6574\u5099\u5c40\u7d00\u4f0a\u5c71\u5730\u7802\u9632\u4e8b\u52d9\u6240","boring_xml_url":47,"boring_view_url":1,"soilmap_view_url":null,"soiltest_xml_url":0,"soiltest_view_url":0},{"id":572669,"code":"NGIC202204500-0004","latitude":"34.677026611111","longitude":"136.07504130556","source_code":"","project_name":"","survey_name":"\u6728\u6d25\u5ddd\u6c34\u7cfb\u5948\u826f\u770c\u57df\u571f\u77f3\u6d41\u5bfe\u7b56\u65bd\u8a2d\u4e88\u5099\u8a2d\u8a08\u696d\u52d9","client_name":"\u56fd\u571f\u4ea4\u901a\u7701\u8fd1\u757f\u5730\u65b9\u6574\u5099\u5c40\u7d00\u4f0a\u5c71\u5730\u7802\u9632\u4e8b\u52d9\u6240","boring_xml_url":47,"boring_view_url":1,"soilmap_view_url":null,"soiltest_xml_url":0,"soiltest_view_url":0},{"id":572668,"code":"NGIC202204500-0003","latitude":"34.676808638889","longitude":"136.07434844444","source_code":"","project_name":"","survey_name":"\u6728\u6d25\u5ddd\u6c34\u7cfb\u5948\u826f\u770c\u57df\u571f\u77f3\u6d41\u5bfe\u7b56\u65bd\u8a2d\u4e88\u5099\u8a2d\u8a08\u696d\u52d9","client_name":"\u56fd\u571f\u4ea4\u901a\u7701\u8fd1\u757f\u5730\u65b9\u6574\u5099\u5c40\u7d00\u4f0a\u5c71\u5730\u7802\u9632\u4e8b\u52d9\u6240","boring_xml_url":47,"boring_view_url":1,"soilmap_view_url":null,"soiltest_xml_url":0,"soiltest_view_url":0}]}}