{"header":{"xyz":{"source":[],"mosaic":false},"page":2769,"raw":{"soiltest_result":"0","bbox":"57.598333,109.544722,1.933333,163.806111","page":"2769"},"conditions":{"soiltest_result":0,"north":57.598333,"west":109.544722,"south":1.933333,"east":163.806111},"success":true,"message":""},"data":{"meta":{"total":212844,"page":2769,"pages":7095,"count":30},"values":[{"id":247483,"code":"B4KJ201802001-2963","latitude":"33.748917","longitude":"135.393444","source_code":"KK088666200400100003","project_name":"\u5e73\u621020\u5e74\u5ea6\u7d00\u52e2\u7dda\u79cb\u6d25\u5730\u533a\u5730\u8cea\u8abf\u67fb\u696d\u52d9","survey_name":"\u5e73\u621020\u5e74\u5ea6\u7d00\u52e2\u7dda\u79cb\u6d25\u5730\u533a\u5730\u8cea\u8abf\u67fb\u696d\u52d9","client_name":"\u56fd\u571f\u4ea4\u901a\u7701\u8fd1\u757f\u5730\u65b9\u6574\u5099\u5c40\u7d00\u5357\u6cb3\u5ddd\u56fd\u9053\u4e8b\u52d9\u6240\u5de5\u52d9\u8ab2","boring_xml_url":47,"boring_view_url":1,"soilmap_view_url":null,"soiltest_xml_url":50,"soiltest_view_url":49},{"id":247482,"code":"B4KJ201802001-2962","latitude":"33.7495","longitude":"135.391361","source_code":"KK088666200400100002","project_name":"\u5e73\u621020\u5e74\u5ea6\u7d00\u52e2\u7dda\u79cb\u6d25\u5730\u533a\u5730\u8cea\u8abf\u67fb\u696d\u52d9","survey_name":"\u5e73\u621020\u5e74\u5ea6\u7d00\u52e2\u7dda\u79cb\u6d25\u5730\u533a\u5730\u8cea\u8abf\u67fb\u696d\u52d9","client_name":"\u56fd\u571f\u4ea4\u901a\u7701\u8fd1\u757f\u5730\u65b9\u6574\u5099\u5c40\u7d00\u5357\u6cb3\u5ddd\u56fd\u9053\u4e8b\u52d9\u6240\u5de5\u52d9\u8ab2","boring_xml_url":47,"boring_view_url":1,"soilmap_view_url":null,"soiltest_xml_url":50,"soiltest_view_url":49},{"id":247481,"code":"B4KJ201802001-2961","latitude":"33.749611","longitude":"135.390889","source_code":"KK088666200400100001","project_name":"\u5e73\u621020\u5e74\u5ea6\u7d00\u52e2\u7dda\u79cb\u6d25\u5730\u533a\u5730\u8cea\u8abf\u67fb\u696d\u52d9","survey_name":"\u5e73\u621020\u5e74\u5ea6\u7d00\u52e2\u7dda\u79cb\u6d25\u5730\u533a\u5730\u8cea\u8abf\u67fb\u696d\u52d9","client_name":"\u56fd\u571f\u4ea4\u901a\u7701\u8fd1\u757f\u5730\u65b9\u6574\u5099\u5c40\u7d00\u5357\u6cb3\u5ddd\u56fd\u9053\u4e8b\u52d9\u6240\u5de5\u52d9\u8ab2","boring_xml_url":47,"boring_view_url":1,"soilmap_view_url":null,"soiltest_xml_url":50,"soiltest_view_url":49},{"id":247480,"code":"B4KJ201802001-2960","latitude":"33.553194","longitude":"135.512083","source_code":"KK088666200400180026","project_name":"\u7d00\u52e2\u7dda\u3059\u3055\u307f\u753a\u897f\u90e8\u5730\u533a\u5730\u8cea\u8abf\u67fb\u696d\u52d9","survey_name":"\u7d00\u52e2\u7dda\u3059\u3055\u307f\u753a\u897f\u90e8\u5730\u533a\u5730\u8cea\u8abf\u67fb\u696d\u52d9","client_name":"\u56fd\u571f\u4ea4\u901a\u7701\u8fd1\u757f\u5730\u65b9\u6574\u5099\u5c40\u7d00\u5357\u6cb3\u5ddd\u56fd\u9053\u4e8b\u52d9\u6240","boring_xml_url":47,"boring_view_url":1,"soilmap_view_url":null,"soiltest_xml_url":0,"soiltest_view_url":0},{"id":247479,"code":"B4KJ201802001-2959","latitude":"33.553056","longitude":"135.511917","source_code":"KK088666200400180025","project_name":"\u7d00\u52e2\u7dda\u3059\u3055\u307f\u753a\u897f\u90e8\u5730\u533a\u5730\u8cea\u8abf\u67fb\u696d\u52d9","survey_name":"\u7d00\u52e2\u7dda\u3059\u3055\u307f\u753a\u897f\u90e8\u5730\u533a\u5730\u8cea\u8abf\u67fb\u696d\u52d9","client_name":"\u56fd\u571f\u4ea4\u901a\u7701\u8fd1\u757f\u5730\u65b9\u6574\u5099\u5c40\u7d00\u5357\u6cb3\u5ddd\u56fd\u9053\u4e8b\u52d9\u6240","boring_xml_url":47,"boring_view_url":1,"soilmap_view_url":null,"soiltest_xml_url":0,"soiltest_view_url":0},{"id":247478,"code":"B4KJ201802001-2958","latitude":"33.553778","longitude":"135.51225","source_code":"KK088666200400180024","project_name":"\u7d00\u52e2\u7dda\u3059\u3055\u307f\u753a\u897f\u90e8\u5730\u533a\u5730\u8cea\u8abf\u67fb\u696d\u52d9","survey_name":"\u7d00\u52e2\u7dda\u3059\u3055\u307f\u753a\u897f\u90e8\u5730\u533a\u5730\u8cea\u8abf\u67fb\u696d\u52d9","client_name":"\u56fd\u571f\u4ea4\u901a\u7701\u8fd1\u757f\u5730\u65b9\u6574\u5099\u5c40\u7d00\u5357\u6cb3\u5ddd\u56fd\u9053\u4e8b\u52d9\u6240","boring_xml_url":47,"boring_view_url":1,"soilmap_view_url":null,"soiltest_xml_url":0,"soiltest_view_url":0},{"id":247477,"code":"B4KJ201802001-2957","latitude":"33.553472","longitude":"135.511639","source_code":"KK088666200400180023","project_name":"\u7d00\u52e2\u7dda\u3059\u3055\u307f\u753a\u897f\u90e8\u5730\u533a\u5730\u8cea\u8abf\u67fb\u696d\u52d9","survey_name":"\u7d00\u52e2\u7dda\u3059\u3055\u307f\u753a\u897f\u90e8\u5730\u533a\u5730\u8cea\u8abf\u67fb\u696d\u52d9","client_name":"\u56fd\u571f\u4ea4\u901a\u7701\u8fd1\u757f\u5730\u65b9\u6574\u5099\u5c40\u7d00\u5357\u6cb3\u5ddd\u56fd\u9053\u4e8b\u52d9\u6240","boring_xml_url":47,"boring_view_url":1,"soilmap_view_url":null,"soiltest_xml_url":0,"soiltest_view_url":0},{"id":247476,"code":"B4KJ201802001-2956","latitude":"33.554389","longitude":"135.511528","source_code":"KK088666200400180022","project_name":"\u7d00\u52e2\u7dda\u3059\u3055\u307f\u753a\u897f\u90e8\u5730\u533a\u5730\u8cea\u8abf\u67fb\u696d\u52d9","survey_name":"\u7d00\u52e2\u7dda\u3059\u3055\u307f\u753a\u897f\u90e8\u5730\u533a\u5730\u8cea\u8abf\u67fb\u696d\u52d9","client_name":"\u56fd\u571f\u4ea4\u901a\u7701\u8fd1\u757f\u5730\u65b9\u6574\u5099\u5c40\u7d00\u5357\u6cb3\u5ddd\u56fd\u9053\u4e8b\u52d9\u6240","boring_xml_url":47,"boring_view_url":1,"soilmap_view_url":null,"soiltest_xml_url":50,"soiltest_view_url":49},{"id":247475,"code":"B4KJ201802001-2955","latitude":"33.55475","longitude":"135.510639","source_code":"KK088666200400180021","project_name":"\u7d00\u52e2\u7dda\u3059\u3055\u307f\u753a\u897f\u90e8\u5730\u533a\u5730\u8cea\u8abf\u67fb\u696d\u52d9","survey_name":"\u7d00\u52e2\u7dda\u3059\u3055\u307f\u753a\u897f\u90e8\u5730\u533a\u5730\u8cea\u8abf\u67fb\u696d\u52d9","client_name":"\u56fd\u571f\u4ea4\u901a\u7701\u8fd1\u757f\u5730\u65b9\u6574\u5099\u5c40\u7d00\u5357\u6cb3\u5ddd\u56fd\u9053\u4e8b\u52d9\u6240","boring_xml_url":47,"boring_view_url":1,"soilmap_view_url":null,"soiltest_xml_url":0,"soiltest_view_url":0},{"id":247474,"code":"B4KJ201802001-2954","latitude":"33.554917","longitude":"135.510111","source_code":"KK088666200400180020","project_name":"\u7d00\u52e2\u7dda\u3059\u3055\u307f\u753a\u897f\u90e8\u5730\u533a\u5730\u8cea\u8abf\u67fb\u696d\u52d9","survey_name":"\u7d00\u52e2\u7dda\u3059\u3055\u307f\u753a\u897f\u90e8\u5730\u533a\u5730\u8cea\u8abf\u67fb\u696d\u52d9","client_name":"\u56fd\u571f\u4ea4\u901a\u7701\u8fd1\u757f\u5730\u65b9\u6574\u5099\u5c40\u7d00\u5357\u6cb3\u5ddd\u56fd\u9053\u4e8b\u52d9\u6240","boring_xml_url":47,"boring_view_url":1,"soilmap_view_url":null,"soiltest_xml_url":0,"soiltest_view_url":0},{"id":247473,"code":"B4KJ201802001-2953","latitude":"33.556333","longitude":"135.509611","source_code":"KK088666200400180019","project_name":"\u7d00\u52e2\u7dda\u3059\u3055\u307f\u753a\u897f\u90e8\u5730\u533a\u5730\u8cea\u8abf\u67fb\u696d\u52d9","survey_name":"\u7d00\u52e2\u7dda\u3059\u3055\u307f\u753a\u897f\u90e8\u5730\u533a\u5730\u8cea\u8abf\u67fb\u696d\u52d9","client_name":"\u56fd\u571f\u4ea4\u901a\u7701\u8fd1\u757f\u5730\u65b9\u6574\u5099\u5c40\u7d00\u5357\u6cb3\u5ddd\u56fd\u9053\u4e8b\u52d9\u6240","boring_xml_url":47,"boring_view_url":1,"soilmap_view_url":null,"soiltest_xml_url":0,"soiltest_view_url":0},{"id":247472,"code":"B4KJ201802001-2952","latitude":"33.556889","longitude":"135.509056","source_code":"KK088666200400180018","project_name":"\u7d00\u52e2\u7dda\u3059\u3055\u307f\u753a\u897f\u90e8\u5730\u533a\u5730\u8cea\u8abf\u67fb\u696d\u52d9","survey_name":"\u7d00\u52e2\u7dda\u3059\u3055\u307f\u753a\u897f\u90e8\u5730\u533a\u5730\u8cea\u8abf\u67fb\u696d\u52d9","client_name":"\u56fd\u571f\u4ea4\u901a\u7701\u8fd1\u757f\u5730\u65b9\u6574\u5099\u5c40\u7d00\u5357\u6cb3\u5ddd\u56fd\u9053\u4e8b\u52d9\u6240","boring_xml_url":47,"boring_view_url":1,"soilmap_view_url":null,"soiltest_xml_url":0,"soiltest_view_url":0},{"id":247471,"code":"B4KJ201802001-2951","latitude":"33.556611","longitude":"135.508583","source_code":"KK088666200400180017","project_name":"\u7d00\u52e2\u7dda\u3059\u3055\u307f\u753a\u897f\u90e8\u5730\u533a\u5730\u8cea\u8abf\u67fb\u696d\u52d9","survey_name":"\u7d00\u52e2\u7dda\u3059\u3055\u307f\u753a\u897f\u90e8\u5730\u533a\u5730\u8cea\u8abf\u67fb\u696d\u52d9","client_name":"\u56fd\u571f\u4ea4\u901a\u7701\u8fd1\u757f\u5730\u65b9\u6574\u5099\u5c40\u7d00\u5357\u6cb3\u5ddd\u56fd\u9053\u4e8b\u52d9\u6240","boring_xml_url":47,"boring_view_url":1,"soilmap_view_url":null,"soiltest_xml_url":0,"soiltest_view_url":0},{"id":247470,"code":"B4KJ201802001-2950","latitude":"33.557194","longitude":"135.508472","source_code":"KK088666200400180016","project_name":"\u7d00\u52e2\u7dda\u3059\u3055\u307f\u753a\u897f\u90e8\u5730\u533a\u5730\u8cea\u8abf\u67fb\u696d\u52d9","survey_name":"\u7d00\u52e2\u7dda\u3059\u3055\u307f\u753a\u897f\u90e8\u5730\u533a\u5730\u8cea\u8abf\u67fb\u696d\u52d9","client_name":"\u56fd\u571f\u4ea4\u901a\u7701\u8fd1\u757f\u5730\u65b9\u6574\u5099\u5c40\u7d00\u5357\u6cb3\u5ddd\u56fd\u9053\u4e8b\u52d9\u6240","boring_xml_url":47,"boring_view_url":1,"soilmap_view_url":null,"soiltest_xml_url":0,"soiltest_view_url":0},{"id":247469,"code":"B4KJ201802001-2949","latitude":"33.557944","longitude":"135.508611","source_code":"KK088666200400180015","project_name":"\u7d00\u52e2\u7dda\u3059\u3055\u307f\u753a\u897f\u90e8\u5730\u533a\u5730\u8cea\u8abf\u67fb\u696d\u52d9","survey_name":"\u7d00\u52e2\u7dda\u3059\u3055\u307f\u753a\u897f\u90e8\u5730\u533a\u5730\u8cea\u8abf\u67fb\u696d\u52d9","client_name":"\u56fd\u571f\u4ea4\u901a\u7701\u8fd1\u757f\u5730\u65b9\u6574\u5099\u5c40\u7d00\u5357\u6cb3\u5ddd\u56fd\u9053\u4e8b\u52d9\u6240","boring_xml_url":47,"boring_view_url":1,"soilmap_view_url":null,"soiltest_xml_url":0,"soiltest_view_url":0},{"id":247468,"code":"B4KJ201802001-2948","latitude":"33.557444","longitude":"135.507722","source_code":"KK088666200400180014","project_name":"\u7d00\u52e2\u7dda\u3059\u3055\u307f\u753a\u897f\u90e8\u5730\u533a\u5730\u8cea\u8abf\u67fb\u696d\u52d9","survey_name":"\u7d00\u52e2\u7dda\u3059\u3055\u307f\u753a\u897f\u90e8\u5730\u533a\u5730\u8cea\u8abf\u67fb\u696d\u52d9","client_name":"\u56fd\u571f\u4ea4\u901a\u7701\u8fd1\u757f\u5730\u65b9\u6574\u5099\u5c40\u7d00\u5357\u6cb3\u5ddd\u56fd\u9053\u4e8b\u52d9\u6240","boring_xml_url":47,"boring_view_url":1,"soilmap_view_url":null,"soiltest_xml_url":0,"soiltest_view_url":0},{"id":247467,"code":"B4KJ201802001-2947","latitude":"33.558083","longitude":"135.507778","source_code":"KK088666200400180013","project_name":"\u7d00\u52e2\u7dda\u3059\u3055\u307f\u753a\u897f\u90e8\u5730\u533a\u5730\u8cea\u8abf\u67fb\u696d\u52d9","survey_name":"\u7d00\u52e2\u7dda\u3059\u3055\u307f\u753a\u897f\u90e8\u5730\u533a\u5730\u8cea\u8abf\u67fb\u696d\u52d9","client_name":"\u56fd\u571f\u4ea4\u901a\u7701\u8fd1\u757f\u5730\u65b9\u6574\u5099\u5c40\u7d00\u5357\u6cb3\u5ddd\u56fd\u9053\u4e8b\u52d9\u6240","boring_xml_url":47,"boring_view_url":1,"soilmap_view_url":null,"soiltest_xml_url":0,"soiltest_view_url":0},{"id":247466,"code":"B4KJ201802001-2946","latitude":"33.558361","longitude":"135.507278","source_code":"KK088666200400180012","project_name":"\u7d00\u52e2\u7dda\u3059\u3055\u307f\u753a\u897f\u90e8\u5730\u533a\u5730\u8cea\u8abf\u67fb\u696d\u52d9","survey_name":"\u7d00\u52e2\u7dda\u3059\u3055\u307f\u753a\u897f\u90e8\u5730\u533a\u5730\u8cea\u8abf\u67fb\u696d\u52d9","client_name":"\u56fd\u571f\u4ea4\u901a\u7701\u8fd1\u757f\u5730\u65b9\u6574\u5099\u5c40\u7d00\u5357\u6cb3\u5ddd\u56fd\u9053\u4e8b\u52d9\u6240","boring_xml_url":47,"boring_view_url":1,"soilmap_view_url":null,"soiltest_xml_url":0,"soiltest_view_url":0},{"id":247465,"code":"B4KJ201802001-2945","latitude":"33.559111","longitude":"135.508083","source_code":"KK088666200400180011","project_name":"\u7d00\u52e2\u7dda\u3059\u3055\u307f\u753a\u897f\u90e8\u5730\u533a\u5730\u8cea\u8abf\u67fb\u696d\u52d9","survey_name":"\u7d00\u52e2\u7dda\u3059\u3055\u307f\u753a\u897f\u90e8\u5730\u533a\u5730\u8cea\u8abf\u67fb\u696d\u52d9","client_name":"\u56fd\u571f\u4ea4\u901a\u7701\u8fd1\u757f\u5730\u65b9\u6574\u5099\u5c40\u7d00\u5357\u6cb3\u5ddd\u56fd\u9053\u4e8b\u52d9\u6240","boring_xml_url":47,"boring_view_url":1,"soilmap_view_url":null,"soiltest_xml_url":0,"soiltest_view_url":0},{"id":247464,"code":"B4KJ201802001-2944","latitude":"33.558917","longitude":"135.507778","source_code":"KK088666200400180010","project_name":"\u7d00\u52e2\u7dda\u3059\u3055\u307f\u753a\u897f\u90e8\u5730\u533a\u5730\u8cea\u8abf\u67fb\u696d\u52d9","survey_name":"\u7d00\u52e2\u7dda\u3059\u3055\u307f\u753a\u897f\u90e8\u5730\u533a\u5730\u8cea\u8abf\u67fb\u696d\u52d9","client_name":"\u56fd\u571f\u4ea4\u901a\u7701\u8fd1\u757f\u5730\u65b9\u6574\u5099\u5c40\u7d00\u5357\u6cb3\u5ddd\u56fd\u9053\u4e8b\u52d9\u6240","boring_xml_url":47,"boring_view_url":1,"soilmap_view_url":null,"soiltest_xml_url":0,"soiltest_view_url":0},{"id":247463,"code":"B4KJ201802001-2943","latitude":"33.559222","longitude":"135.507306","source_code":"KK088666200400180009","project_name":"\u7d00\u52e2\u7dda\u3059\u3055\u307f\u753a\u897f\u90e8\u5730\u533a\u5730\u8cea\u8abf\u67fb\u696d\u52d9","survey_name":"\u7d00\u52e2\u7dda\u3059\u3055\u307f\u753a\u897f\u90e8\u5730\u533a\u5730\u8cea\u8abf\u67fb\u696d\u52d9","client_name":"\u56fd\u571f\u4ea4\u901a\u7701\u8fd1\u757f\u5730\u65b9\u6574\u5099\u5c40\u7d00\u5357\u6cb3\u5ddd\u56fd\u9053\u4e8b\u52d9\u6240","boring_xml_url":47,"boring_view_url":1,"soilmap_view_url":null,"soiltest_xml_url":0,"soiltest_view_url":0},{"id":247462,"code":"B4KJ201802001-2942","latitude":"33.558722","longitude":"135.506917","source_code":"KK088666200400180008","project_name":"\u7d00\u52e2\u7dda\u3059\u3055\u307f\u753a\u897f\u90e8\u5730\u533a\u5730\u8cea\u8abf\u67fb\u696d\u52d9","survey_name":"\u7d00\u52e2\u7dda\u3059\u3055\u307f\u753a\u897f\u90e8\u5730\u533a\u5730\u8cea\u8abf\u67fb\u696d\u52d9","client_name":"\u56fd\u571f\u4ea4\u901a\u7701\u8fd1\u757f\u5730\u65b9\u6574\u5099\u5c40\u7d00\u5357\u6cb3\u5ddd\u56fd\u9053\u4e8b\u52d9\u6240","boring_xml_url":47,"boring_view_url":1,"soilmap_view_url":null,"soiltest_xml_url":0,"soiltest_view_url":0},{"id":247461,"code":"B4KJ201802001-2941","latitude":"33.559722","longitude":"135.507056","source_code":"KK088666200400180007","project_name":"\u7d00\u52e2\u7dda\u3059\u3055\u307f\u753a\u897f\u90e8\u5730\u533a\u5730\u8cea\u8abf\u67fb\u696d\u52d9","survey_name":"\u7d00\u52e2\u7dda\u3059\u3055\u307f\u753a\u897f\u90e8\u5730\u533a\u5730\u8cea\u8abf\u67fb\u696d\u52d9","client_name":"\u56fd\u571f\u4ea4\u901a\u7701\u8fd1\u757f\u5730\u65b9\u6574\u5099\u5c40\u7d00\u5357\u6cb3\u5ddd\u56fd\u9053\u4e8b\u52d9\u6240","boring_xml_url":47,"boring_view_url":1,"soilmap_view_url":null,"soiltest_xml_url":0,"soiltest_view_url":0},{"id":247460,"code":"B4KJ201802001-2940","latitude":"33.559278","longitude":"135.506389","source_code":"KK088666200400180006","project_name":"\u7d00\u52e2\u7dda\u3059\u3055\u307f\u753a\u897f\u90e8\u5730\u533a\u5730\u8cea\u8abf\u67fb\u696d\u52d9","survey_name":"\u7d00\u52e2\u7dda\u3059\u3055\u307f\u753a\u897f\u90e8\u5730\u533a\u5730\u8cea\u8abf\u67fb\u696d\u52d9","client_name":"\u56fd\u571f\u4ea4\u901a\u7701\u8fd1\u757f\u5730\u65b9\u6574\u5099\u5c40\u7d00\u5357\u6cb3\u5ddd\u56fd\u9053\u4e8b\u52d9\u6240","boring_xml_url":47,"boring_view_url":1,"soilmap_view_url":null,"soiltest_xml_url":0,"soiltest_view_url":0},{"id":247459,"code":"B4KJ201802001-2939","latitude":"33.565583","longitude":"135.495278","source_code":"KK088666200400180005","project_name":"\u7d00\u52e2\u7dda\u3059\u3055\u307f\u753a\u897f\u90e8\u5730\u533a\u5730\u8cea\u8abf\u67fb\u696d\u52d9","survey_name":"\u7d00\u52e2\u7dda\u3059\u3055\u307f\u753a\u897f\u90e8\u5730\u533a\u5730\u8cea\u8abf\u67fb\u696d\u52d9","client_name":"\u56fd\u571f\u4ea4\u901a\u7701\u8fd1\u757f\u5730\u65b9\u6574\u5099\u5c40\u7d00\u5357\u6cb3\u5ddd\u56fd\u9053\u4e8b\u52d9\u6240","boring_xml_url":47,"boring_view_url":1,"soilmap_view_url":null,"soiltest_xml_url":0,"soiltest_view_url":0},{"id":247458,"code":"B4KJ201802001-2938","latitude":"33.565694","longitude":"135.494972","source_code":"KK088666200400180004","project_name":"\u7d00\u52e2\u7dda\u3059\u3055\u307f\u753a\u897f\u90e8\u5730\u533a\u5730\u8cea\u8abf\u67fb\u696d\u52d9","survey_name":"\u7d00\u52e2\u7dda\u3059\u3055\u307f\u753a\u897f\u90e8\u5730\u533a\u5730\u8cea\u8abf\u67fb\u696d\u52d9","client_name":"\u56fd\u571f\u4ea4\u901a\u7701\u8fd1\u757f\u5730\u65b9\u6574\u5099\u5c40\u7d00\u5357\u6cb3\u5ddd\u56fd\u9053\u4e8b\u52d9\u6240","boring_xml_url":47,"boring_view_url":1,"soilmap_view_url":null,"soiltest_xml_url":0,"soiltest_view_url":0},{"id":247457,"code":"B4KJ201802001-2937","latitude":"33.566306","longitude":"135.494722","source_code":"KK088666200400180003","project_name":"\u7d00\u52e2\u7dda\u3059\u3055\u307f\u753a\u897f\u90e8\u5730\u533a\u5730\u8cea\u8abf\u67fb\u696d\u52d9","survey_name":"\u7d00\u52e2\u7dda\u3059\u3055\u307f\u753a\u897f\u90e8\u5730\u533a\u5730\u8cea\u8abf\u67fb\u696d\u52d9","client_name":"\u56fd\u571f\u4ea4\u901a\u7701\u8fd1\u757f\u5730\u65b9\u6574\u5099\u5c40\u7d00\u5357\u6cb3\u5ddd\u56fd\u9053\u4e8b\u52d9\u6240","boring_xml_url":47,"boring_view_url":1,"soilmap_view_url":null,"soiltest_xml_url":0,"soiltest_view_url":0},{"id":247456,"code":"B4KJ201802001-2936","latitude":"33.5665","longitude":"135.494472","source_code":"KK088666200400180002","project_name":"\u7d00\u52e2\u7dda\u3059\u3055\u307f\u753a\u897f\u90e8\u5730\u533a\u5730\u8cea\u8abf\u67fb\u696d\u52d9","survey_name":"\u7d00\u52e2\u7dda\u3059\u3055\u307f\u753a\u897f\u90e8\u5730\u533a\u5730\u8cea\u8abf\u67fb\u696d\u52d9","client_name":"\u56fd\u571f\u4ea4\u901a\u7701\u8fd1\u757f\u5730\u65b9\u6574\u5099\u5c40\u7d00\u5357\u6cb3\u5ddd\u56fd\u9053\u4e8b\u52d9\u6240","boring_xml_url":47,"boring_view_url":1,"soilmap_view_url":null,"soiltest_xml_url":0,"soiltest_view_url":0},{"id":247455,"code":"B4KJ201802001-2935","latitude":"33.565944","longitude":"135.493833","source_code":"KK088666200400180001","project_name":"\u7d00\u52e2\u7dda\u3059\u3055\u307f\u753a\u897f\u90e8\u5730\u533a\u5730\u8cea\u8abf\u67fb\u696d\u52d9","survey_name":"\u7d00\u52e2\u7dda\u3059\u3055\u307f\u753a\u897f\u90e8\u5730\u533a\u5730\u8cea\u8abf\u67fb\u696d\u52d9","client_name":"\u56fd\u571f\u4ea4\u901a\u7701\u8fd1\u757f\u5730\u65b9\u6574\u5099\u5c40\u7d00\u5357\u6cb3\u5ddd\u56fd\u9053\u4e8b\u52d9\u6240","boring_xml_url":47,"boring_view_url":1,"soilmap_view_url":null,"soiltest_xml_url":0,"soiltest_view_url":0},{"id":247454,"code":"B4KJ201802001-2934","latitude":"33.673361","longitude":"135.402833","source_code":"KK088666320400270024","project_name":"","survey_name":"\u5e73\u621020\u5e74\u5ea6 \u5e73\u5730\u533a\u5916\u5730\u8cea\u8abf\u67fb\u696d\u52d9","client_name":"\u56fd\u571f\u4ea4\u901a\u7701\u8fd1\u757f\u5730\u65b9\u6574\u5099\u5c40\u7d00\u5357\u6cb3\u5ddd\u56fd\u9053\u4e8b\u52d9\u6240","boring_xml_url":47,"boring_view_url":1,"soilmap_view_url":null,"soiltest_xml_url":0,"soiltest_view_url":0}]}}