{"header":{"xyz":{"source":[],"mosaic":false},"page":277,"raw":{"soiltest_result":"0","bbox":"57.598333,109.544722,1.933333,163.806111","page":"277"},"conditions":{"soiltest_result":0,"north":57.598333,"west":109.544722,"south":1.933333,"east":163.806111},"success":true,"message":""},"data":{"meta":{"total":212844,"page":277,"pages":7095,"count":30},"values":[{"id":572667,"code":"NGIC202204500-0002","latitude":"34.6768455","longitude":"136.07420880556","source_code":"","project_name":"","survey_name":"\u6728\u6d25\u5ddd\u6c34\u7cfb\u5948\u826f\u770c\u57df\u571f\u77f3\u6d41\u5bfe\u7b56\u65bd\u8a2d\u4e88\u5099\u8a2d\u8a08\u696d\u52d9","client_name":"\u56fd\u571f\u4ea4\u901a\u7701\u8fd1\u757f\u5730\u65b9\u6574\u5099\u5c40\u7d00\u4f0a\u5c71\u5730\u7802\u9632\u4e8b\u52d9\u6240","boring_xml_url":47,"boring_view_url":1,"soilmap_view_url":null,"soiltest_xml_url":0,"soiltest_view_url":0},{"id":572666,"code":"NGIC202204500-0001","latitude":"34.676580527778","longitude":"136.07424530556","source_code":"","project_name":"","survey_name":"\u6728\u6d25\u5ddd\u6c34\u7cfb\u5948\u826f\u770c\u57df\u571f\u77f3\u6d41\u5bfe\u7b56\u65bd\u8a2d\u4e88\u5099\u8a2d\u8a08\u696d\u52d9","client_name":"\u56fd\u571f\u4ea4\u901a\u7701\u8fd1\u757f\u5730\u65b9\u6574\u5099\u5c40\u7d00\u4f0a\u5c71\u5730\u7802\u9632\u4e8b\u52d9\u6240","boring_xml_url":47,"boring_view_url":1,"soilmap_view_url":null,"soiltest_xml_url":0,"soiltest_view_url":0},{"id":572665,"code":"NGIC202204826-0014","latitude":"39.205146277778","longitude":"141.10900538889","source_code":"","project_name":"\u91d1\u30b1\u5d0e\u5730\u533a\u5730\u8cea\u8abf\u67fb\u696d\u52d9","survey_name":"\u91d1\u30b1\u5d0e\u5730\u533a\u5730\u8cea\u8abf\u67fb\u696d\u52d9","client_name":"\u56fd\u571f\u4ea4\u901a\u7701\u6771\u5317\u5730\u65b9\u6574\u5099\u5c40\u5ca9\u624b\u6cb3\u5ddd\u56fd\u9053\u4e8b\u52d9\u6240","boring_xml_url":47,"boring_view_url":1,"soilmap_view_url":null,"soiltest_xml_url":47,"soiltest_view_url":47},{"id":572664,"code":"NGIC202204826-0013","latitude":"39.205041222222","longitude":"141.10870130556","source_code":"","project_name":"\u91d1\u30b1\u5d0e\u5730\u533a\u5730\u8cea\u8abf\u67fb\u696d\u52d9","survey_name":"\u91d1\u30b1\u5d0e\u5730\u533a\u5730\u8cea\u8abf\u67fb\u696d\u52d9","client_name":"\u56fd\u571f\u4ea4\u901a\u7701\u6771\u5317\u5730\u65b9\u6574\u5099\u5c40\u5ca9\u624b\u6cb3\u5ddd\u56fd\u9053\u4e8b\u52d9\u6240","boring_xml_url":47,"boring_view_url":1,"soilmap_view_url":null,"soiltest_xml_url":47,"soiltest_view_url":47},{"id":572663,"code":"NGIC202204826-0012","latitude":"39.204662222222","longitude":"141.10918675","source_code":"","project_name":"\u91d1\u30b1\u5d0e\u5730\u533a\u5730\u8cea\u8abf\u67fb\u696d\u52d9","survey_name":"\u91d1\u30b1\u5d0e\u5730\u533a\u5730\u8cea\u8abf\u67fb\u696d\u52d9","client_name":"\u56fd\u571f\u4ea4\u901a\u7701\u6771\u5317\u5730\u65b9\u6574\u5099\u5c40\u5ca9\u624b\u6cb3\u5ddd\u56fd\u9053\u4e8b\u52d9\u6240","boring_xml_url":47,"boring_view_url":1,"soilmap_view_url":null,"soiltest_xml_url":47,"soiltest_view_url":47},{"id":572662,"code":"NGIC202204826-0011","latitude":"39.21979125","longitude":"141.09954191667","source_code":"","project_name":"\u91d1\u30b1\u5d0e\u5730\u533a\u5730\u8cea\u8abf\u67fb\u696d\u52d9","survey_name":"\u91d1\u30b1\u5d0e\u5730\u533a\u5730\u8cea\u8abf\u67fb\u696d\u52d9","client_name":"\u56fd\u571f\u4ea4\u901a\u7701\u6771\u5317\u5730\u65b9\u6574\u5099\u5c40\u5ca9\u624b\u6cb3\u5ddd\u56fd\u9053\u4e8b\u52d9\u6240","boring_xml_url":47,"boring_view_url":1,"soilmap_view_url":null,"soiltest_xml_url":47,"soiltest_view_url":47},{"id":572661,"code":"NGIC202204826-0010","latitude":"39.218481583333","longitude":"141.10045525","source_code":"","project_name":"\u91d1\u30b1\u5d0e\u5730\u533a\u5730\u8cea\u8abf\u67fb\u696d\u52d9","survey_name":"\u91d1\u30b1\u5d0e\u5730\u533a\u5730\u8cea\u8abf\u67fb\u696d\u52d9","client_name":"\u56fd\u571f\u4ea4\u901a\u7701\u6771\u5317\u5730\u65b9\u6574\u5099\u5c40\u5ca9\u624b\u6cb3\u5ddd\u56fd\u9053\u4e8b\u52d9\u6240","boring_xml_url":47,"boring_view_url":1,"soilmap_view_url":null,"soiltest_xml_url":47,"soiltest_view_url":47},{"id":572660,"code":"NGIC202204826-0009","latitude":"39.205789916667","longitude":"141.10835775","source_code":"","project_name":"\u91d1\u30b1\u5d0e\u5730\u533a\u5730\u8cea\u8abf\u67fb\u696d\u52d9","survey_name":"\u91d1\u30b1\u5d0e\u5730\u533a\u5730\u8cea\u8abf\u67fb\u696d\u52d9","client_name":"\u56fd\u571f\u4ea4\u901a\u7701\u6771\u5317\u5730\u65b9\u6574\u5099\u5c40\u5ca9\u624b\u6cb3\u5ddd\u56fd\u9053\u4e8b\u52d9\u6240","boring_xml_url":47,"boring_view_url":1,"soilmap_view_url":null,"soiltest_xml_url":47,"soiltest_view_url":47},{"id":572659,"code":"NGIC202204826-0008","latitude":"39.205486138889","longitude":"141.10886472222","source_code":"","project_name":"\u91d1\u30b1\u5d0e\u5730\u533a\u5730\u8cea\u8abf\u67fb\u696d\u52d9","survey_name":"\u91d1\u30b1\u5d0e\u5730\u533a\u5730\u8cea\u8abf\u67fb\u696d\u52d9","client_name":"\u56fd\u571f\u4ea4\u901a\u7701\u6771\u5317\u5730\u65b9\u6574\u5099\u5c40\u5ca9\u624b\u6cb3\u5ddd\u56fd\u9053\u4e8b\u52d9\u6240","boring_xml_url":47,"boring_view_url":1,"soilmap_view_url":null,"soiltest_xml_url":47,"soiltest_view_url":47},{"id":572658,"code":"NGIC202204826-0007","latitude":"39.205285805556","longitude":"141.10857627778","source_code":"","project_name":"\u91d1\u30b1\u5d0e\u5730\u533a\u5730\u8cea\u8abf\u67fb\u696d\u52d9","survey_name":"\u91d1\u30b1\u5d0e\u5730\u533a\u5730\u8cea\u8abf\u67fb\u696d\u52d9","client_name":"\u56fd\u571f\u4ea4\u901a\u7701\u6771\u5317\u5730\u65b9\u6574\u5099\u5c40\u5ca9\u624b\u6cb3\u5ddd\u56fd\u9053\u4e8b\u52d9\u6240","boring_xml_url":47,"boring_view_url":1,"soilmap_view_url":null,"soiltest_xml_url":47,"soiltest_view_url":47},{"id":572657,"code":"NGIC202204826-0006","latitude":"39.204908666667","longitude":"141.10904730556","source_code":"","project_name":"\u91d1\u30b1\u5d0e\u5730\u533a\u5730\u8cea\u8abf\u67fb\u696d\u52d9","survey_name":"\u91d1\u30b1\u5d0e\u5730\u533a\u5730\u8cea\u8abf\u67fb\u696d\u52d9","client_name":"\u56fd\u571f\u4ea4\u901a\u7701\u6771\u5317\u5730\u65b9\u6574\u5099\u5c40\u5ca9\u624b\u6cb3\u5ddd\u56fd\u9053\u4e8b\u52d9\u6240","boring_xml_url":47,"boring_view_url":1,"soilmap_view_url":null,"soiltest_xml_url":47,"soiltest_view_url":47},{"id":572656,"code":"NGIC202204826-0005","latitude":"39.203388472222","longitude":"141.10916855556","source_code":"","project_name":"\u91d1\u30b1\u5d0e\u5730\u533a\u5730\u8cea\u8abf\u67fb\u696d\u52d9","survey_name":"\u91d1\u30b1\u5d0e\u5730\u533a\u5730\u8cea\u8abf\u67fb\u696d\u52d9","client_name":"\u56fd\u571f\u4ea4\u901a\u7701\u6771\u5317\u5730\u65b9\u6574\u5099\u5c40\u5ca9\u624b\u6cb3\u5ddd\u56fd\u9053\u4e8b\u52d9\u6240","boring_xml_url":47,"boring_view_url":1,"soilmap_view_url":null,"soiltest_xml_url":47,"soiltest_view_url":47},{"id":572655,"code":"NGIC202204826-0004","latitude":"39.202862333333","longitude":"141.10923680556","source_code":"","project_name":"\u91d1\u30b1\u5d0e\u5730\u533a\u5730\u8cea\u8abf\u67fb\u696d\u52d9","survey_name":"\u91d1\u30b1\u5d0e\u5730\u533a\u5730\u8cea\u8abf\u67fb\u696d\u52d9","client_name":"\u56fd\u571f\u4ea4\u901a\u7701\u6771\u5317\u5730\u65b9\u6574\u5099\u5c40\u5ca9\u624b\u6cb3\u5ddd\u56fd\u9053\u4e8b\u52d9\u6240","boring_xml_url":47,"boring_view_url":1,"soilmap_view_url":null,"soiltest_xml_url":47,"soiltest_view_url":47},{"id":572654,"code":"NGIC202204826-0003","latitude":"39.202695416667","longitude":"141.10985058333","source_code":"","project_name":"\u91d1\u30b1\u5d0e\u5730\u533a\u5730\u8cea\u8abf\u67fb\u696d\u52d9","survey_name":"\u91d1\u30b1\u5d0e\u5730\u533a\u5730\u8cea\u8abf\u67fb\u696d\u52d9","client_name":"\u56fd\u571f\u4ea4\u901a\u7701\u6771\u5317\u5730\u65b9\u6574\u5099\u5c40\u5ca9\u624b\u6cb3\u5ddd\u56fd\u9053\u4e8b\u52d9\u6240","boring_xml_url":47,"boring_view_url":1,"soilmap_view_url":null,"soiltest_xml_url":47,"soiltest_view_url":47},{"id":572653,"code":"NGIC202204826-0002","latitude":"39.202499416667","longitude":"141.10932475","source_code":"","project_name":"\u91d1\u30b1\u5d0e\u5730\u533a\u5730\u8cea\u8abf\u67fb\u696d\u52d9","survey_name":"\u91d1\u30b1\u5d0e\u5730\u533a\u5730\u8cea\u8abf\u67fb\u696d\u52d9","client_name":"\u56fd\u571f\u4ea4\u901a\u7701\u6771\u5317\u5730\u65b9\u6574\u5099\u5c40\u5ca9\u624b\u6cb3\u5ddd\u56fd\u9053\u4e8b\u52d9\u6240","boring_xml_url":47,"boring_view_url":1,"soilmap_view_url":null,"soiltest_xml_url":47,"soiltest_view_url":47},{"id":572652,"code":"NGIC202204826-0001","latitude":"39.196223416667","longitude":"141.11232072222","source_code":"","project_name":"\u91d1\u30b1\u5d0e\u5730\u533a\u5730\u8cea\u8abf\u67fb\u696d\u52d9","survey_name":"\u91d1\u30b1\u5d0e\u5730\u533a\u5730\u8cea\u8abf\u67fb\u696d\u52d9","client_name":"\u56fd\u571f\u4ea4\u901a\u7701\u6771\u5317\u5730\u65b9\u6574\u5099\u5c40\u5ca9\u624b\u6cb3\u5ddd\u56fd\u9053\u4e8b\u52d9\u6240","boring_xml_url":47,"boring_view_url":1,"soilmap_view_url":null,"soiltest_xml_url":47,"soiltest_view_url":47},{"id":572578,"code":"NGIC202204453-0002","latitude":"34.490336111111","longitude":"133.40144166667","source_code":"","project_name":"","survey_name":"\u4ee4\u548c3\u5e74\u5ea6\u56fd\u90532\u53f7\u5f15\u91ce\u5730\u533a\u6b69\u9053\u8a73\u7d30\u8a2d\u8a08\u5916\u696d\u52d9","client_name":"\u56fd\u571f\u4ea4\u901a\u7701\u4e2d\u56fd\u5730\u65b9\u6574\u5099\u5c40\u798f\u5c71\u6cb3\u5ddd\u56fd\u9053\u4e8b\u52d9\u6240","boring_xml_url":47,"boring_view_url":1,"soilmap_view_url":null,"soiltest_xml_url":47,"soiltest_view_url":47},{"id":572577,"code":"NGIC202204453-0001","latitude":"34.490275","longitude":"133.40120277778","source_code":"","project_name":"","survey_name":"\u4ee4\u548c3\u5e74\u5ea6\u56fd\u90532\u53f7\u5f15\u91ce\u5730\u533a\u6b69\u9053\u8a73\u7d30\u8a2d\u8a08\u5916\u696d\u52d9","client_name":"\u56fd\u571f\u4ea4\u901a\u7701\u4e2d\u56fd\u5730\u65b9\u6574\u5099\u5c40\u798f\u5c71\u6cb3\u5ddd\u56fd\u9053\u4e8b\u52d9\u6240","boring_xml_url":47,"boring_view_url":1,"soilmap_view_url":null,"soiltest_xml_url":47,"soiltest_view_url":47},{"id":572575,"code":"NGIC202204811-0001","latitude":"43.324614666667","longitude":"141.777459","source_code":"","project_name":"\u56fd\u55b6\u7dca\u6025\u8fb2\u5730\u518d\u7de8\u6574\u5099\u4e8b\u696d","survey_name":"\u4ee4\u548c4\u5e74\u5ea6\u65bd\u884c\u7f8e\u5504\u5730\u533a150\u30fb159\u5317\u5de5\u533a\u533a\u753b\u6574\u7406\u8a2d\u8a08\u7b49\u696d\u52d9","client_name":"\u56fd\u571f\u4ea4\u901a\u7701\u5317\u6d77\u9053\u958b\u767a\u5c40\u672d\u5e4c\u958b\u767a\u5efa\u8a2d\u90e8 \u5ca9\u898b\u6ca2\u8fb2\u696d\u4e8b\u52d9\u6240","boring_xml_url":47,"boring_view_url":1,"soilmap_view_url":null,"soiltest_xml_url":47,"soiltest_view_url":47},{"id":572574,"code":"NGIC202204753-0006","latitude":"43.918935888889","longitude":"144.72067683333","source_code":"","project_name":"\u56fd\u55b6\u304b\u3093\u304c\u3044\u6392\u6c34\u4e8b\u696d","survey_name":"\u659c\u91cc\u98fd\u5bd2\u5225\u5730\u533a \u98fd\u5bd2\u5225\u6392\u6c34\u8def\u8a2d\u8a08\u7b49\u696d\u52d9","client_name":"\u56fd\u571f\u4ea4\u901a\u7701\u5317\u6d77\u9053\u958b\u767a\u5c40\u7db2\u8d70\u958b\u767a\u5efa\u8a2d\u90e8\u3000\u7db2\u8d70\u8fb2\u696d\u4e8b\u52d9\u6240","boring_xml_url":47,"boring_view_url":1,"soilmap_view_url":null,"soiltest_xml_url":47,"soiltest_view_url":47},{"id":572573,"code":"NGIC202204753-0005","latitude":"43.913434694444","longitude":"144.71951133333","source_code":"","project_name":"\u56fd\u55b6\u304b\u3093\u304c\u3044\u6392\u6c34\u4e8b\u696d","survey_name":"\u659c\u91cc\u98fd\u5bd2\u5225\u5730\u533a \u98fd\u5bd2\u5225\u6392\u6c34\u8def\u8a2d\u8a08\u7b49\u696d\u52d9","client_name":"\u56fd\u571f\u4ea4\u901a\u7701\u5317\u6d77\u9053\u958b\u767a\u5c40\u7db2\u8d70\u958b\u767a\u5efa\u8a2d\u90e8\u3000\u7db2\u8d70\u8fb2\u696d\u4e8b\u52d9\u6240","boring_xml_url":47,"boring_view_url":1,"soilmap_view_url":null,"soiltest_xml_url":47,"soiltest_view_url":47},{"id":572572,"code":"NGIC202204753-0004","latitude":"43.913305722222","longitude":"144.71888486111","source_code":"","project_name":"\u56fd\u55b6\u304b\u3093\u304c\u3044\u6392\u6c34\u4e8b\u696d","survey_name":"\u659c\u91cc\u98fd\u5bd2\u5225\u5730\u533a \u98fd\u5bd2\u5225\u6392\u6c34\u8def\u8a2d\u8a08\u7b49\u696d\u52d9","client_name":"\u56fd\u571f\u4ea4\u901a\u7701\u5317\u6d77\u9053\u958b\u767a\u5c40\u7db2\u8d70\u958b\u767a\u5efa\u8a2d\u90e8\u3000\u7db2\u8d70\u8fb2\u696d\u4e8b\u52d9\u6240","boring_xml_url":47,"boring_view_url":1,"soilmap_view_url":null,"soiltest_xml_url":47,"soiltest_view_url":47},{"id":572571,"code":"NGIC202204753-0003","latitude":"43.914257","longitude":"144.71983577778","source_code":"","project_name":"\u56fd\u55b6\u304b\u3093\u304c\u3044\u6392\u6c34\u4e8b\u696d","survey_name":"\u659c\u91cc\u98fd\u5bd2\u5225\u5730\u533a \u98fd\u5bd2\u5225\u6392\u6c34\u8def\u8a2d\u8a08\u7b49\u696d\u52d9","client_name":"\u56fd\u571f\u4ea4\u901a\u7701\u5317\u6d77\u9053\u958b\u767a\u5c40\u7db2\u8d70\u958b\u767a\u5efa\u8a2d\u90e8\u3000\u7db2\u8d70\u8fb2\u696d\u4e8b\u52d9\u6240","boring_xml_url":47,"boring_view_url":1,"soilmap_view_url":null,"soiltest_xml_url":47,"soiltest_view_url":47},{"id":572570,"code":"NGIC202204753-0002","latitude":"43.914979861111","longitude":"144.7189825","source_code":"","project_name":"\u56fd\u55b6\u304b\u3093\u304c\u3044\u6392\u6c34\u4e8b\u696d","survey_name":"\u659c\u91cc\u98fd\u5bd2\u5225\u5730\u533a \u98fd\u5bd2\u5225\u6392\u6c34\u8def\u8a2d\u8a08\u7b49\u696d\u52d9","client_name":"\u56fd\u571f\u4ea4\u901a\u7701\u5317\u6d77\u9053\u958b\u767a\u5c40\u7db2\u8d70\u958b\u767a\u5efa\u8a2d\u90e8\u3000\u7db2\u8d70\u8fb2\u696d\u4e8b\u52d9\u6240","boring_xml_url":47,"boring_view_url":1,"soilmap_view_url":null,"soiltest_xml_url":47,"soiltest_view_url":47},{"id":572569,"code":"NGIC202204753-0001","latitude":"43.914666111111","longitude":"144.71894652778","source_code":"","project_name":"\u56fd\u55b6\u304b\u3093\u304c\u3044\u6392\u6c34\u4e8b\u696d","survey_name":"\u659c\u91cc\u98fd\u5bd2\u5225\u5730\u533a \u98fd\u5bd2\u5225\u6392\u6c34\u8def\u8a2d\u8a08\u7b49\u696d\u52d9","client_name":"\u56fd\u571f\u4ea4\u901a\u7701\u5317\u6d77\u9053\u958b\u767a\u5c40\u7db2\u8d70\u958b\u767a\u5efa\u8a2d\u90e8\u3000\u7db2\u8d70\u8fb2\u696d\u4e8b\u52d9\u6240","boring_xml_url":47,"boring_view_url":1,"soilmap_view_url":null,"soiltest_xml_url":47,"soiltest_view_url":47},{"id":572558,"code":"NGIC202204788-0009","latitude":"38.733788888889","longitude":"140.13755833333","source_code":"","project_name":"","survey_name":"\u4ee4\u548c4\u5e74\u5ea6 \u53e4\u53e3\u5730\u533a\u5730\u76e4\u8abf\u67fb\u696d\u52d9","client_name":"\u56fd\u571f\u4ea4\u901a\u7701\u6771\u5317\u5730\u65b9\u6574\u5099\u5c40\u5c71\u5f62\u6cb3\u5ddd\u56fd\u9053\u4e8b\u52d9\u6240","boring_xml_url":47,"boring_view_url":1,"soilmap_view_url":null,"soiltest_xml_url":47,"soiltest_view_url":47},{"id":572557,"code":"NGIC202204788-0008","latitude":"38.733702777778","longitude":"140.13804166667","source_code":"","project_name":"","survey_name":"\u4ee4\u548c4\u5e74\u5ea6 \u53e4\u53e3\u5730\u533a\u5730\u76e4\u8abf\u67fb\u696d\u52d9","client_name":"\u56fd\u571f\u4ea4\u901a\u7701\u6771\u5317\u5730\u65b9\u6574\u5099\u5c40\u5c71\u5f62\u6cb3\u5ddd\u56fd\u9053\u4e8b\u52d9\u6240","boring_xml_url":47,"boring_view_url":1,"soilmap_view_url":null,"soiltest_xml_url":47,"soiltest_view_url":47},{"id":572556,"code":"NGIC202204788-0007","latitude":"38.7464","longitude":"140.11119166667","source_code":"","project_name":"","survey_name":"\u4ee4\u548c4\u5e74\u5ea6 \u53e4\u53e3\u5730\u533a\u5730\u76e4\u8abf\u67fb\u696d\u52d9","client_name":"\u56fd\u571f\u4ea4\u901a\u7701\u6771\u5317\u5730\u65b9\u6574\u5099\u5c40\u5c71\u5f62\u6cb3\u5ddd\u56fd\u9053\u4e8b\u52d9\u6240","boring_xml_url":47,"boring_view_url":1,"soilmap_view_url":null,"soiltest_xml_url":0,"soiltest_view_url":0},{"id":572555,"code":"NGIC202204788-0006","latitude":"38.745625","longitude":"140.112975","source_code":"","project_name":"","survey_name":"\u4ee4\u548c4\u5e74\u5ea6 \u53e4\u53e3\u5730\u533a\u5730\u76e4\u8abf\u67fb\u696d\u52d9","client_name":"\u56fd\u571f\u4ea4\u901a\u7701\u6771\u5317\u5730\u65b9\u6574\u5099\u5c40\u5c71\u5f62\u6cb3\u5ddd\u56fd\u9053\u4e8b\u52d9\u6240","boring_xml_url":47,"boring_view_url":1,"soilmap_view_url":null,"soiltest_xml_url":0,"soiltest_view_url":0},{"id":572554,"code":"NGIC202204788-0005","latitude":"38.745191666667","longitude":"140.11423888889","source_code":"","project_name":"","survey_name":"\u4ee4\u548c4\u5e74\u5ea6 \u53e4\u53e3\u5730\u533a\u5730\u76e4\u8abf\u67fb\u696d\u52d9","client_name":"\u56fd\u571f\u4ea4\u901a\u7701\u6771\u5317\u5730\u65b9\u6574\u5099\u5c40\u5c71\u5f62\u6cb3\u5ddd\u56fd\u9053\u4e8b\u52d9\u6240","boring_xml_url":47,"boring_view_url":1,"soilmap_view_url":null,"soiltest_xml_url":0,"soiltest_view_url":0}]}}