{"header":{"xyz":{"source":[],"mosaic":false},"page":2782,"raw":{"soiltest_result":"0","bbox":"57.598333,109.544722,1.933333,163.806111","page":"2782"},"conditions":{"soiltest_result":0,"north":57.598333,"west":109.544722,"south":1.933333,"east":163.806111},"success":true,"message":""},"data":{"meta":{"total":212844,"page":2782,"pages":7095,"count":30},"values":[{"id":247093,"code":"B4KJ201802001-2573","latitude":"34.306472","longitude":"135.531556","source_code":"KK078665220400650002","project_name":"\u7d00\u5317\u6771\u9053\u8def","survey_name":"\u4e2d\u8c37\u5ddd\u7b2c\u4e00\u9ad8\u67b6\u6a4b\u8a2d\u8a08\u696d\u52d9","client_name":"\u8fd1\u757f\u5730\u65b9\u6574\u5099\u5c40\u548c\u6b4c\u5c71\u6cb3\u5ddd\u56fd\u9053\u4e8b\u52d9\u6240","boring_xml_url":47,"boring_view_url":1,"soilmap_view_url":null,"soiltest_xml_url":0,"soiltest_view_url":0},{"id":247092,"code":"B4KJ201802001-2572","latitude":"34.306972","longitude":"135.533417","source_code":"KK078665220400650001","project_name":"\u7d00\u5317\u6771\u9053\u8def","survey_name":"\u4e2d\u8c37\u5ddd\u7b2c\u4e00\u9ad8\u67b6\u6a4b\u8a2d\u8a08\u696d\u52d9","client_name":"\u8fd1\u757f\u5730\u65b9\u6574\u5099\u5c40\u548c\u6b4c\u5c71\u6cb3\u5ddd\u56fd\u9053\u4e8b\u52d9\u6240","boring_xml_url":47,"boring_view_url":1,"soilmap_view_url":null,"soiltest_xml_url":0,"soiltest_view_url":0},{"id":247091,"code":"B4KJ201802001-2571","latitude":"34.666056","longitude":"135.127528","source_code":"KK068652300400600004","project_name":"\u4e00\u91cc\u5c71\u6771\u5730\u533a\u4ed6\u659c\u9762\u5bfe\u7b56\u8a2d\u8a08\u696d\u52d9","survey_name":"\u4e00\u91cc\u5c71\u6771\u5730\u533a\u4ed6\u659c\u9762\u5bfe\u7b56\u8a2d\u8a08\u696d\u52d9","client_name":"\u56fd\u571f\u4ea4\u901a\u7701 \u8fd1\u757f\u5730\u65b9\u6574\u5099\u5c40 \u516d\u7532\u7802\u9632\u4e8b\u52d9\u6240","boring_xml_url":47,"boring_view_url":1,"soilmap_view_url":null,"soiltest_xml_url":0,"soiltest_view_url":0},{"id":247090,"code":"B4KJ201802001-2570","latitude":"34.666528","longitude":"135.127111","source_code":"KK068652300400600003","project_name":"\u4e00\u91cc\u5c71\u6771\u5730\u533a\u4ed6\u659c\u9762\u5bfe\u7b56\u8a2d\u8a08\u696d\u52d9","survey_name":"\u4e00\u91cc\u5c71\u6771\u5730\u533a\u4ed6\u659c\u9762\u5bfe\u7b56\u8a2d\u8a08\u696d\u52d9","client_name":"\u56fd\u571f\u4ea4\u901a\u7701 \u8fd1\u757f\u5730\u65b9\u6574\u5099\u5c40 \u516d\u7532\u7802\u9632\u4e8b\u52d9\u6240","boring_xml_url":47,"boring_view_url":1,"soilmap_view_url":null,"soiltest_xml_url":0,"soiltest_view_url":0},{"id":247089,"code":"B4KJ201802001-2569","latitude":"34.666917","longitude":"135.127361","source_code":"KK068652300400600002","project_name":"\u4e00\u91cc\u5c71\u6771\u5730\u533a\u4ed6\u659c\u9762\u5bfe\u7b56\u8a2d\u8a08\u696d\u52d9","survey_name":"\u4e00\u91cc\u5c71\u6771\u5730\u533a\u4ed6\u659c\u9762\u5bfe\u7b56\u8a2d\u8a08\u696d\u52d9","client_name":"\u56fd\u571f\u4ea4\u901a\u7701 \u8fd1\u757f\u5730\u65b9\u6574\u5099\u5c40 \u516d\u7532\u7802\u9632\u4e8b\u52d9\u6240","boring_xml_url":47,"boring_view_url":1,"soilmap_view_url":null,"soiltest_xml_url":0,"soiltest_view_url":0},{"id":247088,"code":"B4KJ201802001-2568","latitude":"34.6725","longitude":"135.1325","source_code":"KK78652300400190003","project_name":"\u5e73\u621019\u5e74\u5ea6 \u706b\u30ce\u8c37\u5730\u533a\u4ed6\u659c\u9762\u5bfe\u7b56\u8a2d\u8a08\u696d\u52d9","survey_name":"\u5e73\u621019\u5e74\u5ea6 \u706b\u30ce\u8c37\u5730\u533a\u4ed6\u659c\u9762\u5bfe\u7b56\u8a2d\u8a08\u696d\u52d9","client_name":"\u56fd\u571f\u4ea4\u901a\u7701\u8fd1\u757f\u5730\u65b9\u6574\u5099\u5c40\u516d\u7532\u7802\u9632\u5de5\u4e8b\u4e8b\u52d9\u6240\u8abf\u67fb\u8ab2","boring_xml_url":46,"boring_view_url":1,"soilmap_view_url":null,"soiltest_xml_url":0,"soiltest_view_url":0},{"id":247087,"code":"B4KJ201802001-2567","latitude":"34.659722","longitude":"135.125","source_code":"KK78652300400190002","project_name":"\u5e73\u621019\u5e74\u5ea6 \u706b\u30ce\u8c37\u5730\u533a\u4ed6\u659c\u9762\u5bfe\u7b56\u8a2d\u8a08\u696d\u52d9","survey_name":"\u5e73\u621019\u5e74\u5ea6 \u706b\u30ce\u8c37\u5730\u533a\u4ed6\u659c\u9762\u5bfe\u7b56\u8a2d\u8a08\u696d\u52d9","client_name":"\u56fd\u571f\u4ea4\u901a\u7701\u8fd1\u757f\u5730\u65b9\u6574\u5099\u5c40\u516d\u7532\u7802\u9632\u5de5\u4e8b\u4e8b\u52d9\u6240\u8abf\u67fb\u8ab2","boring_xml_url":46,"boring_view_url":1,"soilmap_view_url":null,"soiltest_xml_url":0,"soiltest_view_url":0},{"id":247086,"code":"B4KJ201802001-2566","latitude":"34.697056","longitude":"135.160444","source_code":"KK78652300400200008","project_name":"\u9577\u8005\u5830\u5824\u4ed6\u4e88\u5099\u8a2d\u8a08\u696d\u52d9","survey_name":"\u9577\u8005\u5830\u5824\u4ed61\u4ef6\u4e88\u5099\u8a2d\u8a08\u696d\u52d9 (I-99 \u5ddd\u737a\u5ddd\u5830\u5824)","client_name":"\u56fd\u571f\u4ea4\u901a\u7701 \u8fd1\u757f\u5730\u65b9\u6574\u5099\u5c40 \u516d\u7532\u7802\u9632\u4e8b\u52d9\u6240","boring_xml_url":46,"boring_view_url":1,"soilmap_view_url":null,"soiltest_xml_url":0,"soiltest_view_url":0},{"id":247085,"code":"B4KJ201802001-2565","latitude":"34.697083","longitude":"135.160778","source_code":"KK78652300400200007","project_name":"\u9577\u8005\u5830\u5824\u4ed6\u4e88\u5099\u8a2d\u8a08\u696d\u52d9","survey_name":"\u9577\u8005\u5830\u5824\u4ed61\u4ef6\u4e88\u5099\u8a2d\u8a08\u696d\u52d9 (I-99 \u5ddd\u737a\u5ddd\u5830\u5824)","client_name":"\u56fd\u571f\u4ea4\u901a\u7701 \u8fd1\u757f\u5730\u65b9\u6574\u5099\u5c40 \u516d\u7532\u7802\u9632\u4e8b\u52d9\u6240","boring_xml_url":46,"boring_view_url":1,"soilmap_view_url":null,"soiltest_xml_url":0,"soiltest_view_url":0},{"id":247084,"code":"B4KJ201802001-2564","latitude":"34.697111","longitude":"135.161028","source_code":"KK78652300400200006","project_name":"\u9577\u8005\u5830\u5824\u4ed6\u4e88\u5099\u8a2d\u8a08\u696d\u52d9","survey_name":"\u9577\u8005\u5830\u5824\u4ed61\u4ef6\u4e88\u5099\u8a2d\u8a08\u696d\u52d9 (I-99 \u5ddd\u737a\u5ddd\u5830\u5824)","client_name":"\u56fd\u571f\u4ea4\u901a\u7701 \u8fd1\u757f\u5730\u65b9\u6574\u5099\u5c40 \u516d\u7532\u7802\u9632\u4e8b\u52d9\u6240","boring_xml_url":46,"boring_view_url":1,"soilmap_view_url":null,"soiltest_xml_url":0,"soiltest_view_url":0},{"id":247083,"code":"B4KJ201802001-2563","latitude":"34.679639","longitude":"135.138389","source_code":"KK78652300400200005","project_name":"\u9577\u8005\u5830\u5824\u4ed6\u4e88\u5099\u8a2d\u8a08\u696d\u52d9","survey_name":"\u9577\u8005\u5830\u5824\u4ed61\u4ef6\u4e88\u5099\u8a2d\u8a08\u696d\u52d9 (I-63 \u9577\u8005\u5830\u5824)","client_name":"\u56fd\u571f\u4ea4\u901a\u7701 \u8fd1\u757f\u5730\u65b9\u6574\u5099\u5c40 \u516d\u7532\u7802\u9632\u4e8b\u52d9\u6240","boring_xml_url":46,"boring_view_url":1,"soilmap_view_url":null,"soiltest_xml_url":0,"soiltest_view_url":0},{"id":247082,"code":"B4KJ201802001-2562","latitude":"34.679806","longitude":"135.138028","source_code":"KK78652300400200001","project_name":"\u9577\u8005\u5830\u5824\u4ed6\u4e88\u5099\u8a2d\u8a08\u696d\u52d9","survey_name":"\u9577\u8005\u5830\u5824\u4ed61\u4ef6\u4e88\u5099\u8a2d\u8a08\u696d\u52d9 (I-63 \u9577\u8005\u5830\u5824)","client_name":"\u56fd\u571f\u4ea4\u901a\u7701 \u8fd1\u757f\u5730\u65b9\u6574\u5099\u5c40 \u516d\u7532\u7802\u9632\u4e8b\u52d9\u6240","boring_xml_url":46,"boring_view_url":1,"soilmap_view_url":null,"soiltest_xml_url":0,"soiltest_view_url":0},{"id":247081,"code":"B4KJ201802001-2561","latitude":"34.750188","longitude":"135.293873","source_code":"KK068652300400530005","project_name":"\u6025\u50be\u659c\u5730\u5d29\u58ca\u5bfe\u7b56","survey_name":"\u9ad8\u53d6\u6771\u5730\u533a\u4ed6\u659c\u9762\u5bfe\u7b56\u8a2d\u8a08\u696d\u52d9","client_name":"\u56fd\u571f\u4ea4\u901a\u7701\u8fd1\u757f\u5730\u65b9\u6574\u5099\u5c40\u516d\u7532\u7802\u9632\u4e8b\u52d9\u6240","boring_xml_url":47,"boring_view_url":1,"soilmap_view_url":null,"soiltest_xml_url":0,"soiltest_view_url":0},{"id":247080,"code":"B4KJ201802001-2560","latitude":"34.684916","longitude":"135.130278","source_code":"KK068652300400530004","project_name":"\u6025\u50be\u659c\u5730\u5d29\u58ca\u5bfe\u7b56","survey_name":"\u9ad8\u53d6\u6771\u5730\u533a\u4ed6\u659c\u9762\u5bfe\u7b56\u8a2d\u8a08\u696d\u52d9","client_name":"\u56fd\u571f\u4ea4\u901a\u7701\u8fd1\u757f\u5730\u65b9\u6574\u5099\u5c40\u516d\u7532\u7802\u9632\u4e8b\u52d9\u6240","boring_xml_url":47,"boring_view_url":1,"soilmap_view_url":null,"soiltest_xml_url":0,"soiltest_view_url":0},{"id":247079,"code":"B4KJ201802001-2559","latitude":"34.685193","longitude":"135.130555","source_code":"KK068652300400530003","project_name":"\u6025\u50be\u659c\u5730\u5d29\u58ca\u5bfe\u7b56","survey_name":"\u9ad8\u53d6\u6771\u5730\u533a\u4ed6\u659c\u9762\u5bfe\u7b56\u8a2d\u8a08\u696d\u52d9","client_name":"\u56fd\u571f\u4ea4\u901a\u7701\u8fd1\u757f\u5730\u65b9\u6574\u5099\u5c40\u516d\u7532\u7802\u9632\u4e8b\u52d9\u6240","boring_xml_url":47,"boring_view_url":1,"soilmap_view_url":null,"soiltest_xml_url":0,"soiltest_view_url":0},{"id":247078,"code":"B4KJ201802001-2558","latitude":"34.685193","longitude":"135.130833","source_code":"KK068652300400530002","project_name":"\u6025\u50be\u659c\u5730\u5d29\u58ca\u5bfe\u7b56","survey_name":"\u9ad8\u53d6\u6771\u5730\u533a\u4ed6\u659c\u9762\u5bfe\u7b56\u8a2d\u8a08\u696d\u52d9","client_name":"\u56fd\u571f\u4ea4\u901a\u7701\u8fd1\u757f\u5730\u65b9\u6574\u5099\u5c40\u516d\u7532\u7802\u9632\u4e8b\u52d9\u6240","boring_xml_url":47,"boring_view_url":1,"soilmap_view_url":null,"soiltest_xml_url":0,"soiltest_view_url":0},{"id":247077,"code":"B4KJ201802001-2557","latitude":"34.746022","longitude":"135.250822","source_code":"KK068652300400530001","project_name":"\u6025\u50be\u659c\u5730\u5d29\u58ca\u5bfe\u7b56","survey_name":"\u9ad8\u53d6\u6771\u5730\u533a\u4ed6\u659c\u9762\u5bfe\u7b56\u8a2d\u8a08\u696d\u52d9","client_name":"\u56fd\u571f\u4ea4\u901a\u7701\u8fd1\u757f\u5730\u65b9\u6574\u5099\u5c40\u516d\u7532\u7802\u9632\u4e8b\u52d9\u6240","boring_xml_url":47,"boring_view_url":1,"soilmap_view_url":null,"soiltest_xml_url":0,"soiltest_view_url":0},{"id":247076,"code":"B4KJ201802001-2556","latitude":"34.685916","longitude":"135.153887","source_code":"KK058652300400580009","project_name":"\u70cf\u539f\u5730\u533a\u659c\u9762\u5bfe\u7b56\u8a2d\u8a08\u696d\u52d9","survey_name":"\u70cf\u539f\u5730\u533a\u659c\u9762\u5bfe\u7b56\u8a2d\u8a08\u696d\u52d9","client_name":"\u56fd\u571f\u4ea4\u901a\u7701 \u8fd1\u757f\u5730\u65b9\u6574\u5099\u5c40 \u516d\u7532\u7802\u9632\u4e8b\u52d9\u6240","boring_xml_url":47,"boring_view_url":1,"soilmap_view_url":null,"soiltest_xml_url":0,"soiltest_view_url":0},{"id":247075,"code":"B4KJ201802001-2555","latitude":"34.685916","longitude":"135.153609","source_code":"KK058652300400580004","project_name":"\u70cf\u539f\u5730\u533a\u659c\u9762\u5bfe\u7b56\u8a2d\u8a08\u696d\u52d9","survey_name":"\u70cf\u539f\u5730\u533a\u659c\u9762\u5bfe\u7b56\u8a2d\u8a08\u696d\u52d9","client_name":"\u56fd\u571f\u4ea4\u901a\u7701 \u8fd1\u757f\u5730\u65b9\u6574\u5099\u5c40 \u516d\u7532\u7802\u9632\u4e8b\u52d9\u6240","boring_xml_url":47,"boring_view_url":1,"soilmap_view_url":null,"soiltest_xml_url":0,"soiltest_view_url":0},{"id":247074,"code":"B4KJ201802001-2554","latitude":"34.768611","longitude":"135.269722","source_code":"KK068652300400360001","project_name":"\u672c\u5e84\u5830\u5824\u88dc\u5f37\u8a73\u7d30\u8a2d\u8a08\u696d\u52d9","survey_name":"\u672c\u5e84\u5830\u5824\u88dc\u5f37\u8a73\u7d30\u8a2d\u8a08\u696d\u52d9","client_name":"\u56fd\u571f\u4ea4\u901a\u7701 \u8fd1\u757f\u5730\u65b9\u6574\u5099\u5c40 \u516d\u7532\u7802\u9632\u4e8b\u52d9\u6240","boring_xml_url":47,"boring_view_url":1,"soilmap_view_url":null,"soiltest_xml_url":0,"soiltest_view_url":0},{"id":247073,"code":"B4KJ201802001-2553","latitude":"34.736556","longitude":"135.187167","source_code":"KK068652300400380002","project_name":"\u516b\u6d32\u5dba\u5830\u5824\u88dc\u5f37\u8a73\u7d30\u8a2d\u8a08\u696d\u52d9","survey_name":"\u516b\u6d32\u5dba\u5830\u5824\u88dc\u5f37\u8a73\u7d30\u8a2d\u8a08\u696d\u52d9","client_name":"\u56fd\u571f\u4ea4\u901a\u7701 \u8fd1\u757f\u5730\u65b9\u6574\u5099\u5c40 \u516d\u7532\u7802\u9632\u4e8b\u52d9\u6240","boring_xml_url":47,"boring_view_url":1,"soilmap_view_url":null,"soiltest_xml_url":0,"soiltest_view_url":0},{"id":247072,"code":"B4KJ201802001-2552","latitude":"34.736667","longitude":"135.187222","source_code":"KK068652300400380001","project_name":"\u516b\u6d32\u5dba\u5830\u5824\u88dc\u5f37\u8a73\u7d30\u8a2d\u8a08\u696d\u52d9","survey_name":"\u516b\u6d32\u5dba\u5830\u5824\u88dc\u5f37\u8a73\u7d30\u8a2d\u8a08\u696d\u52d9","client_name":"\u56fd\u571f\u4ea4\u901a\u7701 \u8fd1\u757f\u5730\u65b9\u6574\u5099\u5c40 \u516d\u7532\u7802\u9632\u4e8b\u52d9\u6240","boring_xml_url":47,"boring_view_url":1,"soilmap_view_url":null,"soiltest_xml_url":0,"soiltest_view_url":0},{"id":247071,"code":"B4KJ201802001-2551","latitude":"34.641056","longitude":"135.099167","source_code":"KK058652300400400008","project_name":"\u5e73\u621017\u5e74\u5ea6\u4e09\u306e\u8c37\u5ddd\u5830\u5824\u7fa4\u4e88\u5099\u8a2d\u8a08\u696d\u52d9","survey_name":"\u5e73\u621017\u5e74\u5ea6\u4e09\u306e\u8c37\u5ddd\u5830\u5824\u7fa4\u4e88\u5099\u8a2d\u8a08\u696d\u52d9","client_name":"\u56fd\u571f\u4ea4\u901a\u7701\u8fd1\u757f\u5730\u65b9\u6574\u5099\u5c40 \u516d\u7532\u7802\u9632\u4e8b\u52d9\u6240 \u8abf\u67fb\u8ab2\u8a08\u753b\u4fc2","boring_xml_url":47,"boring_view_url":1,"soilmap_view_url":null,"soiltest_xml_url":0,"soiltest_view_url":0},{"id":247070,"code":"B4KJ201802001-2550","latitude":"34.641056","longitude":"135.098944","source_code":"KK058652300400400007","project_name":"\u5e73\u621017\u5e74\u5ea6\u4e09\u306e\u8c37\u5ddd\u5830\u5824\u7fa4\u4e88\u5099\u8a2d\u8a08\u696d\u52d9","survey_name":"\u5e73\u621017\u5e74\u5ea6\u4e09\u306e\u8c37\u5ddd\u5830\u5824\u7fa4\u4e88\u5099\u8a2d\u8a08\u696d\u52d9","client_name":"\u56fd\u571f\u4ea4\u901a\u7701\u8fd1\u757f\u5730\u65b9\u6574\u5099\u5c40 \u516d\u7532\u7802\u9632\u4e8b\u52d9\u6240 \u8abf\u67fb\u8ab2\u8a08\u753b\u4fc2","boring_xml_url":47,"boring_view_url":1,"soilmap_view_url":null,"soiltest_xml_url":0,"soiltest_view_url":0},{"id":247069,"code":"B4KJ201802001-2549","latitude":"34.641194","longitude":"135.099278","source_code":"KK058652300400400006","project_name":"\u5e73\u621017\u5e74\u5ea6\u4e09\u306e\u8c37\u5ddd\u5830\u5824\u7fa4\u4e88\u5099\u8a2d\u8a08\u696d\u52d9","survey_name":"\u5e73\u621017\u5e74\u5ea6\u4e09\u306e\u8c37\u5ddd\u5830\u5824\u7fa4\u4e88\u5099\u8a2d\u8a08\u696d\u52d9","client_name":"\u56fd\u571f\u4ea4\u901a\u7701\u8fd1\u757f\u5730\u65b9\u6574\u5099\u5c40 \u516d\u7532\u7802\u9632\u4e8b\u52d9\u6240 \u8abf\u67fb\u8ab2\u8a08\u753b\u4fc2","boring_xml_url":47,"boring_view_url":1,"soilmap_view_url":null,"soiltest_xml_url":0,"soiltest_view_url":0},{"id":247068,"code":"B4KJ201802001-2548","latitude":"34.641139","longitude":"135.099111","source_code":"KK058652300400400005","project_name":"\u5e73\u621017\u5e74\u5ea6\u4e09\u306e\u8c37\u5ddd\u5830\u5824\u7fa4\u4e88\u5099\u8a2d\u8a08\u696d\u52d9","survey_name":"\u5e73\u621017\u5e74\u5ea6\u4e09\u306e\u8c37\u5ddd\u5830\u5824\u7fa4\u4e88\u5099\u8a2d\u8a08\u696d\u52d9","client_name":"\u56fd\u571f\u4ea4\u901a\u7701\u8fd1\u757f\u5730\u65b9\u6574\u5099\u5c40 \u516d\u7532\u7802\u9632\u4e8b\u52d9\u6240 \u8abf\u67fb\u8ab2\u8a08\u753b\u4fc2","boring_xml_url":47,"boring_view_url":1,"soilmap_view_url":null,"soiltest_xml_url":0,"soiltest_view_url":0},{"id":247067,"code":"B4KJ201802001-2547","latitude":"34.640306","longitude":"135.098639","source_code":"KK058652300400400004","project_name":"\u5e73\u621017\u5e74\u5ea6\u4e09\u306e\u8c37\u5ddd\u5830\u5824\u7fa4\u4e88\u5099\u8a2d\u8a08\u696d\u52d9","survey_name":"\u5e73\u621017\u5e74\u5ea6\u4e09\u306e\u8c37\u5ddd\u5830\u5824\u7fa4\u4e88\u5099\u8a2d\u8a08\u696d\u52d9","client_name":"\u56fd\u571f\u4ea4\u901a\u7701\u8fd1\u757f\u5730\u65b9\u6574\u5099\u5c40 \u516d\u7532\u7802\u9632\u4e8b\u52d9\u6240 \u8abf\u67fb\u8ab2\u8a08\u753b\u4fc2","boring_xml_url":47,"boring_view_url":1,"soilmap_view_url":null,"soiltest_xml_url":0,"soiltest_view_url":0},{"id":247066,"code":"B4KJ201802001-2546","latitude":"34.64025","longitude":"135.098389","source_code":"KK058652300400400003","project_name":"\u5e73\u621017\u5e74\u5ea6\u4e09\u306e\u8c37\u5ddd\u5830\u5824\u7fa4\u4e88\u5099\u8a2d\u8a08\u696d\u52d9","survey_name":"\u5e73\u621017\u5e74\u5ea6\u4e09\u306e\u8c37\u5ddd\u5830\u5824\u7fa4\u4e88\u5099\u8a2d\u8a08\u696d\u52d9","client_name":"\u56fd\u571f\u4ea4\u901a\u7701\u8fd1\u757f\u5730\u65b9\u6574\u5099\u5c40 \u516d\u7532\u7802\u9632\u4e8b\u52d9\u6240 \u8abf\u67fb\u8ab2\u8a08\u753b\u4fc2","boring_xml_url":47,"boring_view_url":1,"soilmap_view_url":null,"soiltest_xml_url":0,"soiltest_view_url":0},{"id":247065,"code":"B4KJ201802001-2545","latitude":"34.6405","longitude":"135.098694","source_code":"KK058652300400400002","project_name":"\u5e73\u621017\u5e74\u5ea6\u4e09\u306e\u8c37\u5ddd\u5830\u5824\u7fa4\u4e88\u5099\u8a2d\u8a08\u696d\u52d9","survey_name":"\u5e73\u621017\u5e74\u5ea6\u4e09\u306e\u8c37\u5ddd\u5830\u5824\u7fa4\u4e88\u5099\u8a2d\u8a08\u696d\u52d9","client_name":"\u56fd\u571f\u4ea4\u901a\u7701\u8fd1\u757f\u5730\u65b9\u6574\u5099\u5c40 \u516d\u7532\u7802\u9632\u4e8b\u52d9\u6240 \u8abf\u67fb\u8ab2\u8a08\u753b\u4fc2","boring_xml_url":47,"boring_view_url":1,"soilmap_view_url":null,"soiltest_xml_url":0,"soiltest_view_url":0},{"id":247064,"code":"B4KJ201802001-2544","latitude":"34.640361","longitude":"135.098528","source_code":"KK058652300400400001","project_name":"\u5e73\u621017\u5e74\u5ea6\u4e09\u306e\u8c37\u5ddd\u5830\u5824\u7fa4\u4e88\u5099\u8a2d\u8a08\u696d\u52d9","survey_name":"\u5e73\u621017\u5e74\u5ea6\u4e09\u306e\u8c37\u5ddd\u5830\u5824\u7fa4\u4e88\u5099\u8a2d\u8a08\u696d\u52d9","client_name":"\u56fd\u571f\u4ea4\u901a\u7701\u8fd1\u757f\u5730\u65b9\u6574\u5099\u5c40\u516d\u7532\u7802\u9632\u4e8b\u52d9\u6240\u8abf\u67fb\u8ab2\u8a08\u753b\u4fc2","boring_xml_url":47,"boring_view_url":1,"soilmap_view_url":null,"soiltest_xml_url":0,"soiltest_view_url":0}]}}