{"header":{"xyz":{"source":[],"mosaic":false},"page":2783,"raw":{"soiltest_result":"0","bbox":"57.598333,109.544722,1.933333,163.806111","page":"2783"},"conditions":{"soiltest_result":0,"north":57.598333,"west":109.544722,"south":1.933333,"east":163.806111},"success":true,"message":""},"data":{"meta":{"total":212844,"page":2783,"pages":7095,"count":30},"values":[{"id":247063,"code":"B4KJ201802001-2543","latitude":"35.88427","longitude":"136.376809","source_code":"KK078671360400210002","project_name":"","survey_name":"\u5e73\u621019\u5e74\u5ea6 \u8db3\u7fbd\u5ddd\u30c0\u30e0\u5206\u6c34\u65bd\u8a2d\u8a66\u9310\u8abf\u67fb\u696d\u52d9","client_name":"\u8fd1\u757f\u5730\u65b9\u6574\u5099\u5c40 \u8db3\u7fbd\u5ddd\u30c0\u30e0\u5de5\u4e8b\u4e8b\u52d9\u6240","boring_xml_url":47,"boring_view_url":1,"soilmap_view_url":null,"soiltest_xml_url":0,"soiltest_view_url":0},{"id":247062,"code":"B4KJ201802001-2542","latitude":"35.880354","longitude":"136.379031","source_code":"KK078671360400210001","project_name":"","survey_name":"\u5e73\u621019\u5e74\u5ea6 \u8db3\u7fbd\u5ddd\u30c0\u30e0\u5206\u6c34\u65bd\u8a2d\u8a66\u9310\u8abf\u67fb\u696d\u52d9","client_name":"\u8fd1\u757f\u5730\u65b9\u6574\u5099\u5c40 \u8db3\u7fbd\u5ddd\u30c0\u30e0\u5de5\u4e8b\u4e8b\u52d9\u6240","boring_xml_url":47,"boring_view_url":1,"soilmap_view_url":null,"soiltest_xml_url":0,"soiltest_view_url":0},{"id":247061,"code":"B4KJ201802001-2541","latitude":"35.849833","longitude":"136.369056","source_code":"KK078671360400060001","project_name":"","survey_name":"\u5e73\u621019\u5e74\u5ea6\u8db3\u7fbd\u5ddd\u30c0\u30e0\u5c0e\u6c34\u8def\u5730\u8cea\u8abf\u67fb\u696d\u52d9","client_name":"\u56fd\u571f\u4ea4\u901a\u7701\u8fd1\u757f\u5730\u65b9\u6574\u5099\u5c40\u8db3\u7fbd\u5ddd\u30c0\u30e0\u5de5\u4e8b\u4e8b\u52d9\u6240","boring_xml_url":47,"boring_view_url":1,"soilmap_view_url":null,"soiltest_xml_url":0,"soiltest_view_url":0},{"id":247060,"code":"B4KJ201802001-2540","latitude":"35.238333","longitude":"135.943333","source_code":"KK068632200400080002","project_name":"\u5fd7\u8cc0BP\u5317\u6bd4\u826f\u5730\u533a\u6cd5\u9762\u8a2d\u8a08\u305d\u306e\u4ed6\u696d\u52d9\u59d4\u8a17","survey_name":"\u5fd7\u8cc0BP\u5317\u6bd4\u826f\u5730\u533a\u6cd5\u9762\u8a2d\u8a08\u305d\u306e\u4ed6\u696d\u52d9\u59d4\u8a17","client_name":"\u56fd\u571f\u4ea4\u901a\u7701\u8fd1\u757f\u5730\u65b9\u6574\u5099\u5c40\u6ecb\u8cc0\u56fd\u9053\u4e8b\u52d9\u6240","boring_xml_url":47,"boring_view_url":1,"soilmap_view_url":null,"soiltest_xml_url":0,"soiltest_view_url":0},{"id":247059,"code":"B4KJ201802001-2539","latitude":"35.238056","longitude":"135.943611","source_code":"KK068632200400080001","project_name":"\u5fd7\u8cc0BP\u5317\u6bd4\u826f\u5730\u533a\u6cd5\u9762\u8a2d\u8a08\u305d\u306e\u4ed6\u696d\u52d9\u59d4\u8a17","survey_name":"\u5fd7\u8cc0BP\u5317\u6bd4\u826f\u5730\u533a\u6cd5\u9762\u8a2d\u8a08\u305d\u306e\u4ed6\u696d\u52d9\u59d4\u8a17","client_name":"\u56fd\u571f\u4ea4\u901a\u7701\u8fd1\u757f\u5730\u65b9\u6574\u5099\u5c40\u6ecb\u8cc0\u56fd\u9053\u4e8b\u52d9\u6240","boring_xml_url":47,"boring_view_url":1,"soilmap_view_url":null,"soiltest_xml_url":0,"soiltest_view_url":0},{"id":247058,"code":"B4KJ201802001-2538","latitude":"35.008694","longitude":"136.009389","source_code":"KK068632320400100007","project_name":"","survey_name":"\u5e73\u621018\u5e74\u5ea6 \u6817\u6771\u6c34\u53e3\u9053\u8def1 \u4e0a\u7825\u5c71\u5730\u533a\u5730\u8cea\u8abf\u67fb\u696d\u52d9","client_name":"\u56fd\u571f\u4ea4\u901a\u7701 \u8fd1\u757f\u5730\u65b9\u6574\u5099\u5c40 \u6ecb\u8cc0\u56fd\u9053\u4e8b\u52d9\u6240","boring_xml_url":47,"boring_view_url":1,"soilmap_view_url":null,"soiltest_xml_url":0,"soiltest_view_url":0},{"id":247057,"code":"B4KJ201802001-2537","latitude":"35.010111","longitude":"136.0115","source_code":"KK068632320400100006","project_name":"","survey_name":"\u5e73\u621018\u5e74\u5ea6 \u6817\u6771\u6c34\u53e3\u9053\u8def1 \u4e0a\u7825\u5c71\u5730\u533a\u5730\u8cea\u8abf\u67fb\u696d\u52d9","client_name":"\u56fd\u571f\u4ea4\u901a\u7701 \u8fd1\u757f\u5730\u65b9\u6574\u5099\u5c40 \u6ecb\u8cc0\u56fd\u9053\u4e8b\u52d9\u6240","boring_xml_url":47,"boring_view_url":1,"soilmap_view_url":null,"soiltest_xml_url":0,"soiltest_view_url":0},{"id":247056,"code":"B4KJ201802001-2536","latitude":"35.851722","longitude":"136.355444","source_code":"KK068671360400190004","project_name":"\u5e73\u621018\u5e74\u5ea6 \u8db3\u7fbd\u5ddd\u30c0\u30e0\u5c0e\u6c34\u8def\u5730\u8cea\u8abf\u67fb\u696d\u52d9","survey_name":"\u5e73\u621018\u5e74\u5ea6 \u8db3\u7fbd\u5ddd\u30c0\u30e0\u5c0e\u6c34\u8def\u5730\u8cea\u8abf\u67fb\u696d\u52d9","client_name":"\u56fd\u571f\u4ea4\u901a\u7701 \u8fd1\u757f\u5730\u65b9\u6574\u5099\u5c40 \u8db3\u7fbd\u5ddd\u30c0\u30e0\u5de5\u4e8b\u4e8b\u52d9\u6240","boring_xml_url":47,"boring_view_url":1,"soilmap_view_url":null,"soiltest_xml_url":0,"soiltest_view_url":0},{"id":247055,"code":"B4KJ201802001-2535","latitude":"35.85675","longitude":"136.385806","source_code":"KK068671360400190003","project_name":"\u5e73\u621018\u5e74\u5ea6 \u8db3\u7fbd\u5ddd\u30c0\u30e0\u5c0e\u6c34\u8def\u5730\u8cea\u8abf\u67fb\u696d\u52d9 \u5e73\u621018\u5e74\u5ea6 \u8db3\u7fbd\u5ddd\u30c0\u30e0\u5c0e\u6c34\u8def\u5730\u8cea\u8abf\u67fb\u696d\u52d9","survey_name":"\u5e73\u621018\u5e74\u5ea6 \u8db3\u7fbd\u5ddd\u30c0\u30e0\u5c0e\u6c34\u8def\u5730\u8cea\u8abf\u67fb\u696d\u52d9 \u5e73\u621018\u5e74\u5ea6 \u8db3\u7fbd\u5ddd\u30c0\u30e0\u5c0e\u6c34\u8def\u5730\u8cea\u8abf\u67fb\u696d\u52d9","client_name":"\u56fd\u571f\u4ea4\u901a\u7701 \u8fd1\u757f\u5730\u65b9\u6574\u5099\u5c40 \u8db3\u7fbd\u5ddd\u30c0\u30e0\u5de5\u4e8b\u4e8b\u52d9\u6240","boring_xml_url":47,"boring_view_url":1,"soilmap_view_url":null,"soiltest_xml_url":0,"soiltest_view_url":0},{"id":247054,"code":"B4KJ201802001-2534","latitude":"35.88025","longitude":"136.387","source_code":"KK068671360400190002","project_name":"\u5e73\u621018\u5e74\u5ea6 \u8db3\u7fbd\u5ddd\u30c0\u30e0\u5c0e\u6c34\u8def\u5730\u8cea\u8abf\u67fb\u696d\u52d9","survey_name":"\u5e73\u621018\u5e74\u5ea6 \u8db3\u7fbd\u5ddd\u30c0\u30e0\u5c0e\u6c34\u8def\u5730\u8cea\u8abf\u67fb\u696d\u52d9","client_name":"\u56fd\u571f\u4ea4\u901a\u7701 \u8fd1\u757f\u5730\u65b9\u6574\u5099\u5c40 \u8db3\u7fbd\u5ddd\u30c0\u30e0\u5de5\u4e8b\u4e8b\u52d9\u6240","boring_xml_url":47,"boring_view_url":1,"soilmap_view_url":null,"soiltest_xml_url":0,"soiltest_view_url":0},{"id":247053,"code":"B4KJ201802001-2533","latitude":"35.883889","longitude":"136.379722","source_code":"KK068671360400190001","project_name":"\u5e73\u621018\u5e74\u5ea6 \u8db3\u7fbd\u5ddd\u30c0\u30e0\u5c0e\u6c34\u8def\u5730\u8cea\u8abf\u67fb\u696d\u52d9","survey_name":"\u5e73\u621018\u5e74\u5ea6 \u8db3\u7fbd\u5ddd\u30c0\u30e0\u5c0e\u6c34\u8def\u5730\u8cea\u8abf\u67fb\u696d\u52d9","client_name":"\u56fd\u571f\u4ea4\u901a\u7701 \u8fd1\u757f\u5730\u65b9\u6574\u5099\u5c40 \u8db3\u7fbd\u5ddd\u30c0\u30e0\u5de5\u4e8b\u4e8b\u52d9\u6240","boring_xml_url":47,"boring_view_url":1,"soilmap_view_url":null,"soiltest_xml_url":0,"soiltest_view_url":0},{"id":247052,"code":"B4KJ201802001-2532","latitude":"34.813236","longitude":"135.269152","source_code":"KK068652200400090005","project_name":"\u767d\u6c34\u7b2c\u4e09\u5830\u5824\u5de5\u4e8b\u7528\u9053\u8def\u5fa9\u65e7\u8a2d\u8a08\u696d\u52d9","survey_name":"\u767d\u6c34\u7b2c\u4e09\u5830\u5824","client_name":"\u56fd\u571f\u4ea4\u901a\u7701\u8fd1\u757f\u5730\u65b9\u6574\u5099\u5c40 \u516d\u7532\u7802\u9632\u4e8b\u52d9\u6240","boring_xml_url":47,"boring_view_url":1,"soilmap_view_url":null,"soiltest_xml_url":0,"soiltest_view_url":0},{"id":247051,"code":"B4KJ201802001-2531","latitude":"34.813236","longitude":"135.269152","source_code":"KK068652200400090004","project_name":"\u767d\u6c34\u7b2c\u4e09\u5830\u5824\u5de5\u4e8b\u7528\u9053\u8def\u5fa9\u65e7\u8a2d\u8a08\u696d\u52d9","survey_name":"\u767d\u6c34\u7b2c\u4e09\u5830\u5824","client_name":"\u56fd\u571f\u4ea4\u901a\u7701\u8fd1\u757f\u5730\u65b9\u6574\u5099\u5c40 \u516d\u7532\u7802\u9632\u4e8b\u52d9\u6240","boring_xml_url":47,"boring_view_url":1,"soilmap_view_url":null,"soiltest_xml_url":0,"soiltest_view_url":0},{"id":247050,"code":"B4KJ201802001-2530","latitude":"34.812681","longitude":"135.268319","source_code":"KK068652200400090003","project_name":"\u767d\u6c34\u7b2c\u4e09\u5830\u5824\u5de5\u4e8b\u7528\u9053\u8def\u5fa9\u65e7\u8a2d\u8a08\u696d\u52d9","survey_name":"\u767d\u6c34\u7b2c\u4e09\u5830\u5824","client_name":"\u56fd\u571f\u4ea4\u901a\u7701\u8fd1\u757f\u5730\u65b9\u6574\u5099\u5c40 \u516d\u7532\u7802\u9632\u4e8b\u52d9\u6240","boring_xml_url":47,"boring_view_url":1,"soilmap_view_url":null,"soiltest_xml_url":0,"soiltest_view_url":0},{"id":247049,"code":"B4KJ201802001-2529","latitude":"34.812958","longitude":"135.268319","source_code":"KK068652200400090002","project_name":"\u767d\u6c34\u7b2c\u4e09\u5830\u5824\u5de5\u4e8b\u7528\u9053\u8def\u5fa9\u65e7\u8a2d\u8a08\u696d\u52d9","survey_name":"\u767d\u6c34\u7b2c\u4e09\u5830\u5824","client_name":"\u56fd\u571f\u4ea4\u901a\u7701\u8fd1\u757f\u5730\u65b9\u6574\u5099\u5c40 \u516d\u7532\u7802\u9632\u4e8b\u52d9\u6240","boring_xml_url":47,"boring_view_url":1,"soilmap_view_url":null,"soiltest_xml_url":0,"soiltest_view_url":0},{"id":247048,"code":"B4KJ201802001-2528","latitude":"34.813236","longitude":"135.268319","source_code":"KK068652200400090001","project_name":"\u767d\u6c34\u7b2c\u4e09\u5830\u5824\u5de5\u4e8b\u7528\u9053\u8def\u5fa9\u65e7\u8a2d\u8a08\u696d\u52d9","survey_name":"\u767d\u6c34\u7b2c\u4e09\u5830\u5824","client_name":"\u56fd\u571f\u4ea4\u901a\u7701\u8fd1\u757f\u5730\u65b9\u6574\u5099\u5c40 \u516d\u7532\u7802\u9632\u4e8b\u52d9\u6240","boring_xml_url":47,"boring_view_url":1,"soilmap_view_url":null,"soiltest_xml_url":0,"soiltest_view_url":0},{"id":247047,"code":"B4KJ201802001-2527","latitude":"35.853667","longitude":"136.382667","source_code":"KK058671360400250006","project_name":"\u5e73\u621017\u5e74\u5ea6\u8db3\u7fbd\u5ddd\u30c0\u30e0\u5206\u6c34\u65bd\u8a2d\u5730\u8cea\u8abf\u67fb\u696d\u52d9","survey_name":"\u5e73\u621017\u5e74\u5ea6\u8db3\u7fbd\u5ddd\u30c0\u30e0\u5206\u6c34\u65bd\u8a2d\u5730\u8cea\u8abf\u67fb\u696d\u52d9","client_name":"\u56fd\u571f\u4ea4\u901a\u7701\u8fd1\u757f\u5730\u65b9\u6574\u5099\u5c40\u8db3\u7fbd\u5ddd\u30c0\u30e0\u5de5\u4e8b\u4e8b\u52d9\u6240","boring_xml_url":47,"boring_view_url":1,"soilmap_view_url":null,"soiltest_xml_url":0,"soiltest_view_url":0},{"id":247046,"code":"B4KJ201802001-2526","latitude":"35.852139","longitude":"136.35475","source_code":"KK058671360400250005","project_name":"\u5e73\u621017\u5e74\u5ea6\u8db3\u7fbd\u5ddd\u30c0\u30e0\u5206\u6c34\u65bd\u8a2d\u5730\u8cea\u8abf\u67fb\u696d\u52d9","survey_name":"\u5e73\u621017\u5e74\u5ea6\u8db3\u7fbd\u5ddd\u30c0\u30e0\u5206\u6c34\u65bd\u8a2d\u5730\u8cea\u8abf\u67fb\u696d\u52d9","client_name":"\u56fd\u571f\u4ea4\u901a\u7701\u8fd1\u757f\u5730\u65b9\u6574\u5099\u5c40\u8db3\u7fbd\u5ddd\u30c0\u30e0\u5de5\u4e8b\u4e8b\u52d9\u6240","boring_xml_url":47,"boring_view_url":1,"soilmap_view_url":null,"soiltest_xml_url":0,"soiltest_view_url":0},{"id":247045,"code":"B4KJ201802001-2525","latitude":"35.877944","longitude":"136.382278","source_code":"KK058671360400250004","project_name":"\u5e73\u621017\u5e74\u5ea6\u8db3\u7fbd\u5ddd\u30c0\u30e0\u5206\u6c34\u65bd\u8a2d\u5730\u8cea\u8abf\u67fb\u696d\u52d9","survey_name":"\u5e73\u621017\u5e74\u5ea6\u8db3\u7fbd\u5ddd\u30c0\u30e0\u5206\u6c34\u65bd\u8a2d\u5730\u8cea\u8abf\u67fb\u696d\u52d9","client_name":"\u56fd\u571f\u4ea4\u901a\u7701\u8fd1\u757f\u5730\u65b9\u6574\u5099\u5c40\u8db3\u7fbd\u5ddd\u30c0\u30e0\u5de5\u4e8b\u4e8b\u52d9\u6240","boring_xml_url":47,"boring_view_url":1,"soilmap_view_url":null,"soiltest_xml_url":0,"soiltest_view_url":0},{"id":247044,"code":"B4KJ201802001-2524","latitude":"35.8775","longitude":"136.381833","source_code":"KK058671360400250003","project_name":"\u5e73\u621017\u5e74\u5ea6\u8db3\u7fbd\u5ddd\u30c0\u30e0\u5206\u6c34\u65bd\u8a2d\u5730\u8cea\u8abf\u67fb\u696d\u52d9","survey_name":"\u5e73\u621017\u5e74\u5ea6\u8db3\u7fbd\u5ddd\u30c0\u30e0\u5206\u6c34\u65bd\u8a2d\u5730\u8cea\u8abf\u67fb\u696d\u52d9","client_name":"\u56fd\u571f\u4ea4\u901a\u7701\u8fd1\u757f\u5730\u65b9\u6574\u5099\u5c40\u8db3\u7fbd\u5ddd\u30c0\u30e0\u5de5\u4e8b\u4e8b\u52d9\u6240","boring_xml_url":47,"boring_view_url":1,"soilmap_view_url":null,"soiltest_xml_url":0,"soiltest_view_url":0},{"id":247043,"code":"B4KJ201802001-2523","latitude":"35.877778","longitude":"136.381639","source_code":"KK058671360400250002","project_name":"\u5e73\u621017\u5e74\u5ea6\u8db3\u7fbd\u5ddd\u30c0\u30e0\u5206\u6c34\u65bd\u8a2d\u5730\u8cea\u8abf\u67fb\u696d\u52d9","survey_name":"\u5e73\u621017\u5e74\u5ea6\u8db3\u7fbd\u5ddd\u30c0\u30e0\u5206\u6c34\u65bd\u8a2d\u5730\u8cea\u8abf\u67fb\u696d\u52d9","client_name":"\u56fd\u571f\u4ea4\u901a\u7701\u8fd1\u757f\u5730\u65b9\u6574\u5099\u5c40\u8db3\u7fbd\u5ddd\u30c0\u30e0\u5de5\u4e8b\u4e8b\u52d9\u6240","boring_xml_url":47,"boring_view_url":1,"soilmap_view_url":null,"soiltest_xml_url":0,"soiltest_view_url":0},{"id":247042,"code":"B4KJ201802001-2522","latitude":"35.849222","longitude":"136.368222","source_code":"KK058671360400250001","project_name":"\u5e73\u621017\u5e74\u5ea6\u8db3\u7fbd\u5ddd\u30c0\u30e0\u5206\u6c34\u65bd\u8a2d\u5730\u8cea\u8abf\u67fb\u696d\u52d9","survey_name":"\u5e73\u621017\u5e74\u5ea6\u8db3\u7fbd\u5ddd\u30c0\u30e0\u5206\u6c34\u65bd\u8a2d\u5730\u8cea\u8abf\u67fb\u696d\u52d9","client_name":"\u56fd\u571f\u4ea4\u901a\u7701\u8fd1\u757f\u5730\u65b9\u6574\u5099\u5c40\u8db3\u7fbd\u5ddd\u30c0\u30e0\u5de5\u4e8b\u4e8b\u52d9\u6240","boring_xml_url":47,"boring_view_url":1,"soilmap_view_url":null,"soiltest_xml_url":0,"soiltest_view_url":0},{"id":247041,"code":"B4KJ201802001-2521","latitude":"35.244563","longitude":"135.953811","source_code":"KK058632200400120005","project_name":"\u5fd7\u8cc0BP\u8fd1\u6c5f\u821e\u5b50\u6a4b\u4ed63\u6a4b\u4fee\u6b63\u8a2d\u8a08\u696d\u52d9","survey_name":"\u5fd7\u8cc0BP\u8fd1\u6c5f\u821e\u5b50\u6a4b\u4ed63\u6a4b\u4fee\u6b63\u8a2d\u8a08\u696d\u52d9","client_name":"\u56fd\u571f\u4ea4\u901a\u7701 \u8fd1\u757f\u5730\u65b9\u6574\u5099\u5c40 \u6ecb\u8cc0\u56fd\u9053\u4e8b\u52d9\u6240","boring_xml_url":47,"boring_view_url":1,"soilmap_view_url":null,"soiltest_xml_url":50,"soiltest_view_url":49},{"id":247040,"code":"B4KJ201802001-2520","latitude":"35.244424","longitude":"135.953811","source_code":"KK058632200400120004","project_name":"\u5fd7\u8cc0BP\u8fd1\u6c5f\u821e\u5b50\u6a4b\u4ed63\u6a4b\u4fee\u6b63\u8a2d\u8a08\u696d\u52d9","survey_name":"\u5fd7\u8cc0BP\u8fd1\u6c5f\u821e\u5b50\u6a4b\u4ed63\u6a4b\u4fee\u6b63\u8a2d\u8a08\u696d\u52d9","client_name":"\u56fd\u571f\u4ea4\u901a\u7701 \u8fd1\u757f\u5730\u65b9\u6574\u5099\u5c40 \u6ecb\u8cc0\u56fd\u9053\u4e8b\u52d9\u6240","boring_xml_url":47,"boring_view_url":1,"soilmap_view_url":null,"soiltest_xml_url":50,"soiltest_view_url":49},{"id":247039,"code":"B4KJ201802001-2519","latitude":"35.244701","longitude":"135.954089","source_code":"KK058632200400120003","project_name":"\u5fd7\u8cc0BP\u8fd1\u6c5f\u821e\u5b50\u6a4b\u4ed63\u6a4b\u4fee\u6b63\u8a2d\u8a08\u696d\u52d9","survey_name":"\u5fd7\u8cc0BP\u8fd1\u6c5f\u821e\u5b50\u6a4b\u4ed63\u6a4b\u4fee\u6b63\u8a2d\u8a08\u696d\u52d9","client_name":"\u56fd\u571f\u4ea4\u901a\u7701 \u8fd1\u757f\u5730\u65b9\u6574\u5099\u5c40 \u6ecb\u8cc0\u56fd\u9053\u4e8b\u52d9\u6240","boring_xml_url":47,"boring_view_url":1,"soilmap_view_url":null,"soiltest_xml_url":50,"soiltest_view_url":49},{"id":247038,"code":"B4KJ201802001-2518","latitude":"35.247007","longitude":"135.956311","source_code":"KK058632200400120002","project_name":"\u5fd7\u8cc0BP\u8fd1\u6c5f\u821e\u5b50\u6a4b\u4ed63\u6a4b\u4fee\u6b63\u8a2d\u8a08\u696d\u52d9","survey_name":"\u5fd7\u8cc0BP\u8fd1\u6c5f\u821e\u5b50\u6a4b\u4ed63\u6a4b\u4fee\u6b63\u8a2d\u8a08\u696d\u52d9","client_name":"\u56fd\u571f\u4ea4\u901a\u7701 \u8fd1\u757f\u5730\u65b9\u6574\u5099\u5c40 \u6ecb\u8cc0\u56fd\u9053\u4e8b\u52d9\u6240","boring_xml_url":47,"boring_view_url":1,"soilmap_view_url":null,"soiltest_xml_url":50,"soiltest_view_url":49},{"id":247037,"code":"B4KJ201802001-2517","latitude":"35.246951","longitude":"135.956589","source_code":"KK058632200400120001","project_name":"\u5fd7\u8cc0BP\u8fd1\u6c5f\u821e\u5b50\u6a4b\u4ed63\u6a4b\u4fee\u6b63\u8a2d\u8a08\u696d\u52d9","survey_name":"\u5fd7\u8cc0BP\u8fd1\u6c5f\u821e\u5b50\u6a4b\u4ed63\u6a4b\u4fee\u6b63\u8a2d\u8a08\u696d\u52d9","client_name":"\u56fd\u571f\u4ea4\u901a\u7701 \u8fd1\u757f\u5730\u65b9\u6574\u5099\u5c40 \u6ecb\u8cc0\u56fd\u9053\u4e8b\u52d9\u6240","boring_xml_url":47,"boring_view_url":1,"soilmap_view_url":null,"soiltest_xml_url":50,"soiltest_view_url":49},{"id":247036,"code":"B4KJ201802001-2516","latitude":"34.355278","longitude":"134.898333","source_code":"KK058653530400130023","project_name":"28\u53f7\u6d32\u672c\u7ba1\u5185\u8def\u9762\u7a7a\u6d1e\u63a2\u67fb\u696d\u52d9","survey_name":"28\u53f7\u6d32\u672c\u7ba1\u5185\u8def\u9762\u7a7a\u6d1e\u63a2\u67fb\u696d\u52d9","client_name":"\u56fd\u571f\u4ea4\u901a\u7701 \u8fd1\u757f\u5730\u65b9\u6574\u5099\u5c40 \u5175\u5eab\u56fd\u9053\u4e8b\u52d9\u6240","boring_xml_url":47,"boring_view_url":1,"soilmap_view_url":null,"soiltest_xml_url":0,"soiltest_view_url":0},{"id":247035,"code":"B4KJ201802001-2515","latitude":"34.395556","longitude":"134.896944","source_code":"KK058653530400130022","project_name":"\u5e73\u621017\u5e74\u5ea6 28\u53f7\u6d32\u672c\u7ba1\u5185\u8def\u9762\u7a7a\u6d1e\u63a2\u67fb\u696d\u52d9","survey_name":"\u5e73\u621017\u5e74\u5ea6 28\u53f7\u6d32\u672c\u7ba1\u5185\u8def\u9762\u7a7a\u6d1e\u63a2\u67fb\u696d\u52d9","client_name":"\u56fd\u571f\u4ea4\u901a\u7701 \u8fd1\u757f\u5730\u65b9\u6574\u5099\u5c40 \u5175\u5eab\u56fd\u9053\u4e8b\u52d9\u6240","boring_xml_url":47,"boring_view_url":1,"soilmap_view_url":null,"soiltest_xml_url":0,"soiltest_view_url":0},{"id":247034,"code":"B4KJ201802001-2514","latitude":"34.395556","longitude":"134.896944","source_code":"KK058653530400130021","project_name":"\u5e73\u621017\u5e74\u5ea6 28\u53f7\u6d32\u672c\u7ba1\u5185\u8def\u9762\u7a7a\u6d1e\u63a2\u67fb\u696d\u52d9","survey_name":"\u5e73\u621017\u5e74\u5ea6 28\u53f7\u6d32\u672c\u7ba1\u5185\u8def\u9762\u7a7a\u6d1e\u63a2\u67fb\u696d\u52d9","client_name":"\u56fd\u571f\u4ea4\u901a\u7701 \u8fd1\u757f\u5730\u65b9\u6574\u5099\u5c40 \u5175\u5eab\u56fd\u9053\u4e8b\u52d9\u6240","boring_xml_url":47,"boring_view_url":1,"soilmap_view_url":null,"soiltest_xml_url":0,"soiltest_view_url":0}]}}