{"header":{"xyz":{"source":[],"mosaic":false},"page":2785,"raw":{"soiltest_result":"0","bbox":"57.598333,109.544722,1.933333,163.806111","page":"2785"},"conditions":{"soiltest_result":0,"north":57.598333,"west":109.544722,"south":1.933333,"east":163.806111},"success":true,"message":""},"data":{"meta":{"total":212844,"page":2785,"pages":7095,"count":30},"values":[{"id":247003,"code":"B4KJ201802001-2483","latitude":"34.731194","longitude":"135.160417","source_code":"KK058652300400310002","project_name":"\u5999\u8cc0\u5c71\u5830\u5824\u4e88\u5099\u8a2d\u8a08\u696d\u52d9","survey_name":"\u5999\u8cc0\u5c71\u5830\u5824\u4e88\u5099\u8a2d\u8a08\u696d\u52d9","client_name":"\u56fd\u571f\u4ea4\u901a\u7701\u8fd1\u757f\u5730\u65b9\u6574\u5099\u5c40\u516d\u7532\u7802\u9632\u5de5\u4e8b\u4e8b\u52d9\u6240","boring_xml_url":47,"boring_view_url":1,"soilmap_view_url":null,"soiltest_xml_url":0,"soiltest_view_url":0},{"id":247002,"code":"B4KJ201802001-2482","latitude":"34.731333","longitude":"135.160222","source_code":"KK058652300400310001","project_name":"\u5999\u8cc0\u5c71\u5830\u5824\u4e88\u5099\u8a2d\u8a08\u696d\u52d9","survey_name":"\u5999\u8cc0\u5c71\u5830\u5824\u4e88\u5099\u8a2d\u8a08\u696d\u52d9","client_name":"\u56fd\u571f\u4ea4\u901a\u7701\u8fd1\u757f\u5730\u65b9\u6574\u5099\u5c40\u516d\u7532\u7802\u9632\u5de5\u4e8b\u4e8b\u52d9\u6240","boring_xml_url":47,"boring_view_url":1,"soilmap_view_url":null,"soiltest_xml_url":0,"soiltest_view_url":0},{"id":247001,"code":"B4KJ201802001-2481","latitude":"35.696972","longitude":"136.081389","source_code":"KK058670600400360010","project_name":"","survey_name":"8\u53f7\u8d64\u5d0e\u4ed65\u571f\u8cea\u8abf\u67fb\u696d\u52d9","client_name":"\u56fd\u571f\u4ea4\u901a\u7701\u8fd1\u757f\u5730\u65b9\u6574\u5099\u5c40\u798f\u4e95\u6cb3\u5ddd\u56fd\u9053\u4e8b\u52d9\u6240","boring_xml_url":47,"boring_view_url":1,"soilmap_view_url":null,"soiltest_xml_url":0,"soiltest_view_url":0},{"id":247000,"code":"B4KJ201802001-2480","latitude":"35.703889","longitude":"136.079167","source_code":"KK058670600400360005","project_name":"","survey_name":"8\u53f7\u8d64\u5d0e\u4ed65\u571f\u8cea\u8abf\u67fb\u696d\u52d9","client_name":"\u56fd\u571f\u4ea4\u901a\u7701\u8fd1\u757f\u5730\u65b9\u6574\u5099\u5c40\u798f\u4e95\u6cb3\u5ddd\u56fd\u9053\u4e8b\u52d9\u6240","boring_xml_url":47,"boring_view_url":1,"soilmap_view_url":null,"soiltest_xml_url":0,"soiltest_view_url":0},{"id":246999,"code":"B4KJ201802001-2479","latitude":"35.703889","longitude":"136.079167","source_code":"KK058670600400360004","project_name":"","survey_name":"8\u53f7\u8d64\u5d0e\u4ed65\u571f\u8cea\u8abf\u67fb\u696d\u52d9","client_name":"\u56fd\u571f\u4ea4\u901a\u7701\u8fd1\u757f\u5730\u65b9\u6574\u5099\u5c40\u798f\u4e95\u6cb3\u5ddd\u56fd\u9053\u4e8b\u52d9\u6240","boring_xml_url":47,"boring_view_url":1,"soilmap_view_url":null,"soiltest_xml_url":0,"soiltest_view_url":0},{"id":246998,"code":"B4KJ201802001-2478","latitude":"35.729611","longitude":"136.096556","source_code":"KK058670600400360003","project_name":"","survey_name":"8\u53f7\u8d64\u5d0e\u4ed65\u571f\u8cea\u8abf\u67fb\u696d\u52d9","client_name":"\u56fd\u571f\u4ea4\u901a\u7701\u8fd1\u757f\u5730\u65b9\u6574\u5099\u5c40\u798f\u4e95\u6cb3\u5ddd\u56fd\u9053\u4e8b\u52d9\u6240","boring_xml_url":47,"boring_view_url":1,"soilmap_view_url":null,"soiltest_xml_url":0,"soiltest_view_url":0},{"id":246997,"code":"B4KJ201802001-2477","latitude":"35.729889","longitude":"136.096556","source_code":"KK058670600400360002","project_name":"","survey_name":"8\u53f7\u8d64\u5d0e\u4ed65\u571f\u8cea\u8abf\u67fb\u696d\u52d9","client_name":"\u56fd\u571f\u4ea4\u901a\u7701\u8fd1\u757f\u5730\u65b9\u6574\u5099\u5c40\u798f\u4e95\u6cb3\u5ddd\u56fd\u9053\u4e8b\u52d9\u6240","boring_xml_url":47,"boring_view_url":1,"soilmap_view_url":null,"soiltest_xml_url":0,"soiltest_view_url":0},{"id":246996,"code":"B4KJ201802001-2476","latitude":"35.729889","longitude":"136.096444","source_code":"KK058670600400360001","project_name":"","survey_name":"8\u53f7\u8d64\u5d0e\u4ed65\u571f\u8cea\u8abf\u67fb\u696d\u52d9","client_name":"\u56fd\u571f\u4ea4\u901a\u7701\u8fd1\u757f\u5730\u65b9\u6574\u5099\u5c40\u798f\u4e95\u6cb3\u5ddd\u56fd\u9053\u4e8b\u52d9\u6240","boring_xml_url":47,"boring_view_url":1,"soilmap_view_url":null,"soiltest_xml_url":0,"soiltest_view_url":0},{"id":246995,"code":"B4KJ201802001-2475","latitude":"34.310278","longitude":"135.541389","source_code":"KK068665220400200003","project_name":"\u4e00\u822c\u56fd\u905324\u53f7 \u4eac\u5948\u548c\u81ea\u52d5\u8eca\u9053 \u7d00\u5317\u6771\u9053\u8def","survey_name":"\u7d00\u5317\u6771\u9053\u8def\u5d6f\u5ce8\u8c37\u5ddd\u9ad8\u67b6\u6a4b\u57fa\u672c\u8a2d\u8a08\u696d\u52d9","client_name":"\u56fd\u571f\u4ea4\u901a\u7701 \u8fd1\u757f\u5730\u65b9\u6574\u5099\u5c40 \u548c\u6b4c\u5c71\u6cb3\u5ddd\u56fd\u9053\u4e8b\u52d9\u6240","boring_xml_url":47,"boring_view_url":1,"soilmap_view_url":null,"soiltest_xml_url":0,"soiltest_view_url":0},{"id":246994,"code":"B4KJ201802001-2474","latitude":"34.310278","longitude":"135.542222","source_code":"KK068665220400200002","project_name":"\u4e00\u822c\u56fd\u905324\u53f7 \u4eac\u5948\u548c\u81ea\u52d5\u8eca\u9053 \u7d00\u5317\u6771\u9053\u8def","survey_name":"\u7d00\u5317\u6771\u9053\u8def\u5d6f\u5ce8\u8c37\u5ddd\u9ad8\u67b6\u6a4b\u57fa\u672c\u8a2d\u8a08\u696d\u52d9","client_name":"\u56fd\u571f\u4ea4\u901a\u7701 \u8fd1\u757f\u5730\u65b9\u6574\u5099\u5c40 \u548c\u6b4c\u5c71\u6cb3\u5ddd\u56fd\u9053\u4e8b\u52d9\u6240","boring_xml_url":47,"boring_view_url":1,"soilmap_view_url":null,"soiltest_xml_url":0,"soiltest_view_url":0},{"id":246993,"code":"B4KJ201802001-2473","latitude":"34.290556","longitude":"135.315278","source_code":"KK048665320400120010","project_name":"\u5e73\u621016\u5e74\u5ea6 \u7d00\u5317\u897f\u9053\u8def\u5730\u8cea\u8abf\u67fb\u696d\u52d9","survey_name":"\u5e73\u621016\u5e74\u5ea6 \u7d00\u5317\u897f\u9053\u8def\u5730\u8cea\u8abf\u67fb\u696d\u52d9","client_name":"\u56fd\u571f\u4ea4\u901a\u7701 \u548c\u6b4c\u5c71\u6cb3\u5ddd\u56fd\u9053\u4e8b\u52d9\u6240","boring_xml_url":47,"boring_view_url":1,"soilmap_view_url":null,"soiltest_xml_url":0,"soiltest_view_url":0},{"id":246992,"code":"B4KJ201802001-2472","latitude":"34.290556","longitude":"135.315556","source_code":"KK048665320400120009","project_name":"\u5e73\u621016\u5e74\u5ea6 \u7d00\u5317\u897f\u9053\u8def\u5730\u8cea\u8abf\u67fb\u696d\u52d9","survey_name":"\u5e73\u621016\u5e74\u5ea6 \u7d00\u5317\u897f\u9053\u8def\u5730\u8cea\u8abf\u67fb\u696d\u52d9","client_name":"\u56fd\u571f\u4ea4\u901a\u7701 \u548c\u6b4c\u5c71\u6cb3\u5ddd\u56fd\u9053\u4e8b\u52d9\u6240","boring_xml_url":47,"boring_view_url":1,"soilmap_view_url":null,"soiltest_xml_url":0,"soiltest_view_url":0},{"id":246991,"code":"B4KJ201802001-2471","latitude":"34.293333","longitude":"135.339167","source_code":"KK048665320400120008","project_name":"\u5e73\u621016\u5e74\u5ea6 \u7d00\u5317\u897f\u9053\u8def\u5730\u8cea\u8abf\u67fb\u696d\u52d9","survey_name":"\u5e73\u621016\u5e74\u5ea6 \u7d00\u5317\u897f\u9053\u8def\u5730\u8cea\u8abf\u67fb\u696d\u52d9","client_name":"\u56fd\u571f\u4ea4\u901a\u7701 \u548c\u6b4c\u5c71\u6cb3\u5ddd\u56fd\u9053\u4e8b\u52d9\u6240","boring_xml_url":47,"boring_view_url":1,"soilmap_view_url":null,"soiltest_xml_url":0,"soiltest_view_url":0},{"id":246990,"code":"B4KJ201802001-2470","latitude":"34.293333","longitude":"135.339444","source_code":"KK048665320400120007","project_name":"\u5e73\u621016\u5e74\u5ea6 \u7d00\u5317\u897f\u9053\u8def\u5730\u8cea\u8abf\u67fb\u696d\u52d9","survey_name":"\u5e73\u621016\u5e74\u5ea6 \u7d00\u5317\u897f\u9053\u8def\u5730\u8cea\u8abf\u67fb\u696d\u52d9","client_name":"\u56fd\u571f\u4ea4\u901a\u7701 \u548c\u6b4c\u5c71\u6cb3\u5ddd\u56fd\u9053\u4e8b\u52d9\u6240","boring_xml_url":47,"boring_view_url":1,"soilmap_view_url":null,"soiltest_xml_url":0,"soiltest_view_url":0},{"id":246989,"code":"B4KJ201802001-2469","latitude":"34.293333","longitude":"135.341944","source_code":"KK048665320400120006","project_name":"\u5e73\u621016\u5e74\u5ea6 \u7d00\u5317\u897f\u9053\u8def\u5730\u8cea\u8abf\u67fb\u696d\u52d9","survey_name":"\u5e73\u621016\u5e74\u5ea6 \u7d00\u5317\u897f\u9053\u8def\u5730\u8cea\u8abf\u67fb\u696d\u52d9","client_name":"\u56fd\u571f\u4ea4\u901a\u7701 \u548c\u6b4c\u5c71\u6cb3\u5ddd\u56fd\u9053\u4e8b\u52d9\u6240","boring_xml_url":47,"boring_view_url":1,"soilmap_view_url":null,"soiltest_xml_url":0,"soiltest_view_url":0},{"id":246988,"code":"B4KJ201802001-2468","latitude":"34.293333","longitude":"136.342778","source_code":"KK048665320400120005","project_name":"\u5e73\u621016\u5e74\u5ea6 \u7d00\u5317\u897f\u9053\u8def\u5730\u8cea\u8abf\u67fb\u696d\u52d9","survey_name":"\u5e73\u621016\u5e74\u5ea6 \u7d00\u5317\u897f\u9053\u8def\u5730\u8cea\u8abf\u67fb\u696d\u52d9","client_name":"\u56fd\u571f\u4ea4\u901a\u7701 \u548c\u6b4c\u5c71\u6cb3\u5ddd\u56fd\u9053\u4e8b\u52d9\u6240","boring_xml_url":47,"boring_view_url":1,"soilmap_view_url":null,"soiltest_xml_url":0,"soiltest_view_url":0},{"id":246987,"code":"B4KJ201802001-2467","latitude":"34.293361","longitude":"136.344167","source_code":"KK048665320400120004","project_name":"\u5e73\u621016\u5e74\u5ea6 \u7d00\u5317\u897f\u9053\u8def\u5730\u8cea\u8abf\u67fb\u696d\u52d9","survey_name":"\u5e73\u621016\u5e74\u5ea6 \u7d00\u5317\u897f\u9053\u8def\u5730\u8cea\u8abf\u67fb\u696d\u52d9","client_name":"\u56fd\u571f\u4ea4\u901a\u7701 \u548c\u6b4c\u5c71\u6cb3\u5ddd\u56fd\u9053\u4e8b\u52d9\u6240","boring_xml_url":47,"boring_view_url":1,"soilmap_view_url":null,"soiltest_xml_url":0,"soiltest_view_url":0},{"id":246986,"code":"B4KJ201802001-2466","latitude":"34.293333","longitude":"135.344444","source_code":"KK048665320400120003","project_name":"\u5e73\u621016\u5e74\u5ea6 \u7d00\u5317\u897f\u9053\u8def\u5730\u8cea\u8abf\u67fb\u696d\u52d9","survey_name":"\u5e73\u621016\u5e74\u5ea6 \u7d00\u5317\u897f\u9053\u8def\u5730\u8cea\u8abf\u67fb\u696d\u52d9","client_name":"\u56fd\u571f\u4ea4\u901a\u7701 \u548c\u6b4c\u5c71\u6cb3\u5ddd\u56fd\u9053\u4e8b\u52d9\u6240","boring_xml_url":47,"boring_view_url":1,"soilmap_view_url":null,"soiltest_xml_url":0,"soiltest_view_url":0},{"id":246985,"code":"B4KJ201802001-2465","latitude":"34.293056","longitude":"135.345833","source_code":"KK048665320400120002","project_name":"\u5e73\u621016\u5e74\u5ea6\u7d00\u5317\u897f\u9053\u8def\u5730\u8cea\u8abf\u67fb\u696d\u52d9","survey_name":"\u5e73\u621016\u5e74\u5ea6\u7d00\u5317\u897f\u9053\u8def\u5730\u8cea\u8abf\u67fb\u696d\u52d9","client_name":"\u56fd\u571f\u4ea4\u901a\u7701 \u548c\u6b4c\u5c71\u6cb3\u5ddd\u56fd\u9053\u4e8b\u52d9\u6240","boring_xml_url":47,"boring_view_url":1,"soilmap_view_url":null,"soiltest_xml_url":0,"soiltest_view_url":0},{"id":246984,"code":"B4KJ201802001-2464","latitude":"34.293056","longitude":"135.347222","source_code":"KK048665320400120001","project_name":"\u5e73\u621016\u5e74\u5ea6\u7d00\u5317\u897f\u9053\u8def\u5730\u8cea\u8abf\u67fb\u696d\u52d9","survey_name":"\u5e73\u621016\u5e74\u5ea6\u7d00\u5317\u897f\u9053\u8def\u5730\u8cea\u8abf\u67fb\u696d\u52d9","client_name":"\u56fd\u571f\u4ea4\u901a\u7701 \u548c\u6b4c\u5c71\u6cb3\u5ddd\u56fd\u9053\u4e8b\u52d9\u6240","boring_xml_url":47,"boring_view_url":1,"soilmap_view_url":null,"soiltest_xml_url":0,"soiltest_view_url":0},{"id":246983,"code":"B4KJ201802001-2463","latitude":"33.751278","longitude":"135.35475","source_code":"KK048666200400320007","project_name":"\u7530\u8fba\u897f\u30d0\u30a4\u30d1\u30b9","survey_name":"\u7530\u8fba\u897f\u30d0\u30a4\u30d1\u30b9\u85e4\u539f\u5730\u533a\u5730\u8cea\u8abf\u67fb\u696d\u52d9","client_name":"\u56fd\u571f\u4ea4\u901a\u7701\u8fd1\u757f\u5730\u65b9\u6574\u5099\u5c40\u7d00\u5357\u6cb3\u5ddd\u56fd\u9053\u4e8b\u52d9\u6240","boring_xml_url":47,"boring_view_url":1,"soilmap_view_url":null,"soiltest_xml_url":0,"soiltest_view_url":0},{"id":246982,"code":"B4KJ201802001-2462","latitude":"33.7515","longitude":"135.355667","source_code":"KK048666200400320006","project_name":"\u7530\u8fba\u897f\u30d0\u30a4\u30d1\u30b9","survey_name":"\u7530\u8fba\u897f\u30d0\u30a4\u30d1\u30b9\u85e4\u539f\u5730\u533a\u5730\u8cea\u8abf\u67fb\u696d\u52d9","client_name":"\u56fd\u571f\u4ea4\u901a\u7701\u8fd1\u757f\u5730\u65b9\u6574\u5099\u5c40\u7d00\u5357\u6cb3\u5ddd\u56fd\u9053\u4e8b\u52d9\u6240","boring_xml_url":47,"boring_view_url":1,"soilmap_view_url":null,"soiltest_xml_url":50,"soiltest_view_url":49},{"id":246981,"code":"B4KJ201802001-2461","latitude":"33.750639","longitude":"135.356389","source_code":"KK048666200400320005","project_name":"\u7530\u8fba\u897f\u30d0\u30a4\u30d1\u30b9","survey_name":"\u7530\u8fba\u897f\u30d0\u30a4\u30d1\u30b9\u85e4\u539f\u5730\u533a\u5730\u8cea\u8abf\u67fb\u696d\u52d9","client_name":"\u56fd\u571f\u4ea4\u901a\u7701\u8fd1\u757f\u5730\u65b9\u6574\u5099\u5c40\u7d00\u5357\u6cb3\u5ddd\u56fd\u9053\u4e8b\u52d9\u6240","boring_xml_url":47,"boring_view_url":1,"soilmap_view_url":null,"soiltest_xml_url":0,"soiltest_view_url":0},{"id":246980,"code":"B4KJ201802001-2460","latitude":"33.750472","longitude":"135.35925","source_code":"KK048666200400320004","project_name":"\u7530\u8fba\u897f\u30d0\u30a4\u30d1\u30b9","survey_name":"\u7530\u8fba\u897f\u30d0\u30a4\u30d1\u30b9\u85e4\u539f\u5730\u533a\u5730\u8cea\u8abf\u67fb\u696d\u52d9","client_name":"\u56fd\u571f\u4ea4\u901a\u7701\u8fd1\u757f\u5730\u65b9\u6574\u5099\u5c40\u7d00\u5357\u6cb3\u5ddd\u56fd\u9053\u4e8b\u52d9\u6240","boring_xml_url":47,"boring_view_url":1,"soilmap_view_url":null,"soiltest_xml_url":0,"soiltest_view_url":0},{"id":246979,"code":"B4KJ201802001-2459","latitude":"33.749389","longitude":"135.358972","source_code":"KK048666200400320003","project_name":"\u7530\u8fba\u897f\u30d0\u30a4\u30d1\u30b9","survey_name":"\u7530\u8fba\u897f\u30d0\u30a4\u30d1\u30b9\u85e4\u539f\u5730\u533a\u5730\u8cea\u8abf\u67fb\u696d\u52d9","client_name":"\u56fd\u571f\u4ea4\u901a\u7701\u8fd1\u757f\u5730\u65b9\u6574\u5099\u5c40\u7d00\u5357\u6cb3\u5ddd\u56fd\u9053\u4e8b\u52d9\u6240","boring_xml_url":47,"boring_view_url":1,"soilmap_view_url":null,"soiltest_xml_url":0,"soiltest_view_url":0},{"id":246978,"code":"B4KJ201802001-2458","latitude":"33.748611","longitude":"135.362139","source_code":"KK048666200400320002","project_name":"\u7530\u8fba\u897f\u30d0\u30a4\u30d1\u30b9","survey_name":"\u7530\u8fba\u897f\u30d0\u30a4\u30d1\u30b9\u85e4\u539f\u5730\u533a\u5730\u8cea\u8abf\u67fb\u696d\u52d9","client_name":"\u56fd\u571f\u4ea4\u901a\u7701\u8fd1\u757f\u5730\u65b9\u6574\u5099\u5c40\u7d00\u5357\u6cb3\u5ddd\u56fd\u9053\u4e8b\u52d9\u6240","boring_xml_url":47,"boring_view_url":1,"soilmap_view_url":null,"soiltest_xml_url":0,"soiltest_view_url":0},{"id":246977,"code":"B4KJ201802001-2457","latitude":"33.7485","longitude":"135.362417","source_code":"KK048666200400320001","project_name":"\u7530\u8fba\u897f\u30d0\u30a4\u30d1\u30b9","survey_name":"\u7530\u8fba\u897f\u30d0\u30a4\u30d1\u30b9\u85e4\u539f\u5730\u533a\u5730\u8cea\u8abf\u67fb\u696d\u52d9","client_name":"\u56fd\u571f\u4ea4\u901a\u7701\u8fd1\u757f\u5730\u65b9\u6574\u5099\u5c40\u7d00\u5357\u6cb3\u5ddd\u56fd\u9053\u4e8b\u52d9\u6240","boring_xml_url":47,"boring_view_url":1,"soilmap_view_url":null,"soiltest_xml_url":0,"soiltest_view_url":0},{"id":246976,"code":"B4KJ201802001-2456","latitude":"34.775444","longitude":"133.439","source_code":"KK048652300400270002","project_name":"","survey_name":"\u4ed9\u4eba\u8c37\u5830\u5824\u88dc\u5f37\u8a73\u7d30\u8a2d\u8a08\u696d\u52d9","client_name":"\u56fd\u571f\u4ea4\u901a\u7701 \u8fd1\u757f\u5730\u65b9\u6574\u5099\u5c40 \u516d\u7532\u7802\u9632\u4e8b\u52d9\u6240","boring_xml_url":47,"boring_view_url":1,"soilmap_view_url":null,"soiltest_xml_url":0,"soiltest_view_url":0},{"id":246975,"code":"B4KJ201802001-2455","latitude":"33.775278","longitude":"135.986389","source_code":"KK038666300400300010","project_name":"\u718a\u91ce\u5ddd\u7ba1\u5185\u5730\u8cea\u8abf\u67fb\u696d\u52d9","survey_name":"\u718a\u91ce\u5ddd\u7ba1\u5185\u5730\u8cea\u8abf\u67fb\u696d\u52d9","client_name":"\u56fd\u571f\u4ea4\u901a\u7701\u8fd1\u757f\u5730\u65b9\u6574\u5099\u5c40\u7d00\u5357\u6cb3\u5ddd\u56fd\u9053\u4e8b\u52d9\u6240","boring_xml_url":47,"boring_view_url":1,"soilmap_view_url":null,"soiltest_xml_url":0,"soiltest_view_url":0},{"id":246974,"code":"B4KJ201802001-2454","latitude":"33.774722","longitude":"135.985556","source_code":"KK038666300400300009","project_name":"\u718a\u91ce\u5ddd\u7ba1\u5185\u5730\u8cea\u8abf\u67fb\u696d\u52d9","survey_name":"\u718a\u91ce\u5ddd\u7ba1\u5185\u5730\u8cea\u8abf\u67fb\u696d\u52d9","client_name":"\u56fd\u571f\u4ea4\u901a\u7701\u8fd1\u757f\u5730\u65b9\u6574\u5099\u5c40\u7d00\u5357\u6cb3\u5ddd\u56fd\u9053\u4e8b\u52d9\u6240","boring_xml_url":47,"boring_view_url":1,"soilmap_view_url":null,"soiltest_xml_url":0,"soiltest_view_url":0}]}}