{"header":{"xyz":{"source":[],"mosaic":false},"page":2787,"raw":{"soiltest_result":"0","bbox":"57.598333,109.544722,1.933333,163.806111","page":"2787"},"conditions":{"soiltest_result":0,"north":57.598333,"west":109.544722,"south":1.933333,"east":163.806111},"success":true,"message":""},"data":{"meta":{"total":212844,"page":2787,"pages":7095,"count":30},"values":[{"id":246943,"code":"B4KJ201802001-2423","latitude":"33.738889","longitude":"135.980833","source_code":"KK028666900400180001","project_name":"\u76f8\u91ce\u8c37\u5ddd\u6c34\u9632\u707d\u5bfe\u7b56\u7279\u5b9a\u6cb3\u5ddd\u4e8b\u696d","survey_name":"\u5e73\u621014\u5e74\u5ea6 \u9b92\u7530\u5730\u533a\u571f\u8cea\u8abf\u67fb\u4f5c\u696d","client_name":"\u56fd\u571f\u4ea4\u901a\u7701\u8fd1\u757f\u5730\u65b9\u6574\u5099\u5c40\u7d00\u5357\u5de5\u4e8b\u4e8b\u52d9\u6240\u8abf\u67fb\u8ab2\u8a08\u753b\u4fc2","boring_xml_url":47,"boring_view_url":1,"soilmap_view_url":null,"soiltest_xml_url":0,"soiltest_view_url":0},{"id":246942,"code":"B4KJ201802001-2422","latitude":"38.02055","longitude":"139.818893","source_code":"HR0284566020110002","project_name":"\u4ed8\u66ff\u753a\u9053\u5e02\u91ce\u3005\u9ed2\u6ca2\u5ce0\u7dda","survey_name":"\u6a4b\u6881\u5730\u8cea\u8abf\u67fb\u696d\u52d9","client_name":"\u56fd\u571f\u4ea4\u901a\u7701\u5317\u9678\u5730\u65b9\u6574\u5099\u5c40\u6a2a\u5ddd\u30c0\u30e0\u5de5\u4e8b\u4e8b\u52d9\u6240","boring_xml_url":45,"boring_view_url":1,"soilmap_view_url":null,"soiltest_xml_url":0,"soiltest_view_url":0},{"id":246941,"code":"B4KJ201802001-2421","latitude":"38.020994","longitude":"139.818615","source_code":"HR0284566020110004","project_name":"\u4ed8\u66ff\u753a\u9053\u5e02\u91ce\u3005\u9ed2\u6ca2\u5ce0\u7dda","survey_name":"\u6a4b\u6881\u5730\u8cea\u8abf\u67fb\u696d\u52d9","client_name":"\u56fd\u571f\u4ea4\u901a\u7701\u5317\u9678\u5730\u65b9\u6574\u5099\u5c40\u6a2a\u5ddd\u30c0\u30e0\u5de5\u4e8b\u4e8b\u52d9\u6240","boring_xml_url":45,"boring_view_url":1,"soilmap_view_url":null,"soiltest_xml_url":0,"soiltest_view_url":0},{"id":246940,"code":"B4KJ201802001-2420","latitude":"37.654111","longitude":"139.63615","source_code":"HR0184316020330001","project_name":"","survey_name":"\u5e73\u621013\u5e74\u5ea6\u6edd\u5742\u5730\u3059\u3079\u308a\u5730\u8cea\u8abf\u67fb\u305d\u306e4\u4f5c\u696d","client_name":"\u56fd\u571f\u4ea4\u901a\u7701 \u5317\u9678\u5730\u65b9\u6574\u5099\u5c40 \u963f\u8cc0\u91ce\u5ddd\u5de5\u4e8b\u4e8b\u52d9\u6240","boring_xml_url":45,"boring_view_url":1,"soilmap_view_url":null,"soiltest_xml_url":0,"soiltest_view_url":0},{"id":246939,"code":"B4KJ201802001-2419","latitude":"38.0725","longitude":"139.5925","source_code":"HR0784374120240002","project_name":"\u9df9\u30ce\u5de3\u9053\u8def1\u53f7\u30c8\u30f3\u30cd\u30eb","survey_name":"\u5e73\u621019\u5e74\u5ea6 \u9df9\u30ce\u5de3\u9053\u8def1\u53f7\u30c8\u30f3\u30cd\u30eb\u5730\u8cea\u8abf\u67fb\u696d\u52d9\u59d4\u8a17","client_name":"\u56fd\u571f\u4ea4\u901a\u7701\u5317\u9678\u5730\u65b9\u6574\u5099\u5c40\u7fbd\u8d8a\u6cb3\u5ddd\u56fd\u9053\u4e8b\u52d9\u6240","boring_xml_url":45,"boring_view_url":1,"soilmap_view_url":null,"soiltest_xml_url":0,"soiltest_view_url":0},{"id":246938,"code":"B4KJ201802001-2418","latitude":"38.107615","longitude":"139.464752","source_code":"HR1584857820200022","project_name":"\u4e0d\u660e","survey_name":"\u82b1\u7acb\u53ca\u91d1\u4e38\u30dc\u30fc\u30ea\u30f3\u30b0\u4f5c\u696d(\u82b1\u7acb\u5730\u533a)","client_name":"\u5efa\u8a2d\u7701\u7fbd\u8d8a\u5de5\u4e8b\u4e8b\u52d9\u6240","boring_xml_url":45,"boring_view_url":1,"soilmap_view_url":null,"soiltest_xml_url":0,"soiltest_view_url":0},{"id":246937,"code":"B4KJ201802001-2417","latitude":"38.068924","longitude":"139.441424","source_code":"HR1584857820200025","project_name":"\u4e0d\u660e","survey_name":"\u65b0\u3005\u53ca\u9ed2\u5ddd\u30d0\u30a4\u30d1\u30b9\u30dc\u30fc\u30ea\u30f3\u30b0\u4f5c\u696d","client_name":"\u5efa\u8a2d\u7701\u65b0\u6f5f\u56fd\u9053\u5de5\u4e8b\u4e8b\u52d9\u6240","boring_xml_url":45,"boring_view_url":1,"soilmap_view_url":null,"soiltest_xml_url":0,"soiltest_view_url":0},{"id":246936,"code":"B4KJ201802001-2416","latitude":"38.18516","longitude":"139.440861","source_code":"HR1584857820200017","project_name":"\u4e0d\u660e","survey_name":"\u6751\u4e0a\u6d77\u54e1\u5b66\u6821\u6577\u5730\u5730\u76e4\u8abf\u67fb","client_name":"\u5efa\u8a2d\u7701\u65b0\u6f5f\u55b6\u7e55\u5de5\u4e8b\u4e8b\u52d9\u6240","boring_xml_url":45,"boring_view_url":1,"soilmap_view_url":null,"soiltest_xml_url":0,"soiltest_view_url":0},{"id":246935,"code":"B4KJ201802001-2415","latitude":"38.185827","longitude":"139.440861","source_code":"HR1584857820200011","project_name":"\u4e0d\u660e","survey_name":"\u6751\u4e0a\u6d77\u54e1\u5b66\u6821\u6577\u5730\u5730\u76e4\u8abf\u67fb","client_name":"\u5efa\u8a2d\u7701\u65b0\u6f5f\u55b6\u7e55\u5de5\u4e8b\u4e8b\u52d9\u6240","boring_xml_url":45,"boring_view_url":1,"soilmap_view_url":null,"soiltest_xml_url":0,"soiltest_view_url":0},{"id":246934,"code":"B4KJ201802001-2414","latitude":"38.185521","longitude":"139.440583","source_code":"HR1584857820200014","project_name":"\u4e0d\u660e","survey_name":"\u6751\u4e0a\u6d77\u54e1\u5b66\u6821\u6577\u5730\u5730\u76e4\u8abf\u67fb","client_name":"\u5efa\u8a2d\u7701\u65b0\u6f5f\u55b6\u7e55\u5de5\u4e8b\u4e8b\u52d9\u6240","boring_xml_url":45,"boring_view_url":1,"soilmap_view_url":null,"soiltest_xml_url":0,"soiltest_view_url":0},{"id":246933,"code":"B4KJ201802001-2413","latitude":"38.074507","longitude":"139.440313","source_code":"HR1584857820200023","project_name":"\u4e0d\u660e","survey_name":"\u9ed2\u5ddd\u4ed6\u5730\u8cea\u8abf\u67fb","client_name":"\u5efa\u8a2d\u7701\u65b0\u6f5f\u56fd\u9053\u5de5\u4e8b\u4e8b\u52d9\u6240","boring_xml_url":45,"boring_view_url":1,"soilmap_view_url":null,"soiltest_xml_url":0,"soiltest_view_url":0},{"id":246932,"code":"B4KJ201802001-2412","latitude":"37.700028","longitude":"139.382222","source_code":"HR0984324120240001","project_name":"H21\u63da\u5ddd\u6539\u826f\u9ed2\u5ca9\u5730\u533a \u5730\u8cea\u8abf\u67fb\u4f5c\u696d","survey_name":"H21\u63da\u5ddd\u6539\u826f\u9ed2\u5ca9\u5730\u533a \u5730\u8cea\u8abf\u67fb\u4f5c\u696d","client_name":"\u56fd\u571f\u4ea4\u901a\u7701 \u5317\u9678\u5730\u65b9\u6574\u5099\u5c40 \u65b0\u6f5f\u56fd\u9053\u4e8b\u52d9\u6240","boring_xml_url":45,"boring_view_url":1,"soilmap_view_url":null,"soiltest_xml_url":0,"soiltest_view_url":0},{"id":246931,"code":"B4KJ201802001-2411","latitude":"37.700194","longitude":"139.382111","source_code":"HR0984324120240002","project_name":"H21\u63da\u5ddd\u6539\u826f\u9ed2\u5ca9\u5730\u533a \u5730\u8cea\u8abf\u67fb\u4f5c\u696d","survey_name":"H21\u63da\u5ddd\u6539\u826f\u9ed2\u5ca9\u5730\u533a \u5730\u8cea\u8abf\u67fb\u4f5c\u696d","client_name":"\u56fd\u571f\u4ea4\u901a\u7701 \u5317\u9678\u5730\u65b9\u6574\u5099\u5c40 \u65b0\u6f5f\u56fd\u9053\u4e8b\u52d9\u6240","boring_xml_url":45,"boring_view_url":1,"soilmap_view_url":null,"soiltest_xml_url":0,"soiltest_view_url":0},{"id":246930,"code":"B4KJ201802001-2410","latitude":"37.700139","longitude":"139.381944","source_code":"HR0984324120240003","project_name":"H21\u63da\u5ddd\u6539\u826f\u9ed2\u5ca9\u5730\u533a \u5730\u8cea\u8abf\u67fb\u4f5c\u696d","survey_name":"H21\u63da\u5ddd\u6539\u826f\u9ed2\u5ca9\u5730\u533a \u5730\u8cea\u8abf\u67fb\u4f5c\u696d","client_name":"\u56fd\u571f\u4ea4\u901a\u7701 \u5317\u9678\u5730\u65b9\u6574\u5099\u5c40 \u65b0\u6f5f\u56fd\u9053\u4e8b\u52d9\u6240","boring_xml_url":45,"boring_view_url":1,"soilmap_view_url":null,"soiltest_xml_url":0,"soiltest_view_url":0},{"id":246929,"code":"B4KJ201802001-2409","latitude":"37.700833","longitude":"139.381861","source_code":"HR0984324120240006","project_name":"H21\u63da\u5ddd\u6539\u826f\u9ed2\u5ca9\u5730\u533a \u5730\u8cea\u8abf\u67fb\u4f5c\u696d","survey_name":"H21\u63da\u5ddd\u6539\u826f\u9ed2\u5ca9\u5730\u533a \u5730\u8cea\u8abf\u67fb\u4f5c\u696d","client_name":"\u56fd\u571f\u4ea4\u901a\u7701 \u5317\u9678\u5730\u65b9\u6574\u5099\u5c40 \u65b0\u6f5f\u56fd\u9053\u4e8b\u52d9\u6240","boring_xml_url":45,"boring_view_url":1,"soilmap_view_url":null,"soiltest_xml_url":0,"soiltest_view_url":0},{"id":246928,"code":"B4KJ201802001-2408","latitude":"37.700667","longitude":"139.381806","source_code":"HR0984324120240004","project_name":"H21\u63da\u5ddd\u6539\u826f\u9ed2\u5ca9\u5730\u533a \u5730\u8cea\u8abf\u67fb\u4f5c\u696d","survey_name":"H21\u63da\u5ddd\u6539\u826f\u9ed2\u5ca9\u5730\u533a \u5730\u8cea\u8abf\u67fb\u4f5c\u696d","client_name":"\u56fd\u571f\u4ea4\u901a\u7701 \u5317\u9678\u5730\u65b9\u6574\u5099\u5c40 \u65b0\u6f5f\u56fd\u9053\u4e8b\u52d9\u6240","boring_xml_url":45,"boring_view_url":1,"soilmap_view_url":null,"soiltest_xml_url":0,"soiltest_view_url":0},{"id":246927,"code":"B4KJ201802001-2407","latitude":"37.700806","longitude":"139.38175","source_code":"HR0984324120240010","project_name":"H21\u63da\u5ddd\u6539\u826f\u9ed2\u5ca9\u5730\u533a \u5730\u8cea\u8abf\u67fb\u4f5c\u696d","survey_name":"H21\u63da\u5ddd\u6539\u826f\u9ed2\u5ca9\u5730\u533a \u5730\u8cea\u8abf\u67fb\u4f5c\u696d","client_name":"\u56fd\u571f\u4ea4\u901a\u7701 \u5317\u9678\u5730\u65b9\u6574\u5099\u5c40 \u65b0\u6f5f\u56fd\u9053\u4e8b\u52d9\u6240","boring_xml_url":45,"boring_view_url":1,"soilmap_view_url":null,"soiltest_xml_url":0,"soiltest_view_url":0},{"id":246926,"code":"B4KJ201802001-2406","latitude":"37.700611","longitude":"139.381694","source_code":"HR0984324120240005","project_name":"H21\u63da\u5ddd\u6539\u826f\u9ed2\u5ca9\u5730\u533a \u5730\u8cea\u8abf\u67fb\u4f5c\u696d","survey_name":"H21\u63da\u5ddd\u6539\u826f\u9ed2\u5ca9\u5730\u533a \u5730\u8cea\u8abf\u67fb\u4f5c\u696d","client_name":"\u56fd\u571f\u4ea4\u901a\u7701 \u5317\u9678\u5730\u65b9\u6574\u5099\u5c40 \u65b0\u6f5f\u56fd\u9053\u4e8b\u52d9\u6240","boring_xml_url":45,"boring_view_url":1,"soilmap_view_url":null,"soiltest_xml_url":0,"soiltest_view_url":0},{"id":246925,"code":"B4KJ201802001-2405","latitude":"37.70075","longitude":"139.381639","source_code":"HR0984324120240007","project_name":"H21\u63da\u5ddd\u6539\u826f\u9ed2\u5ca9\u5730\u533a \u5730\u8cea\u8abf\u67fb\u4f5c\u696d","survey_name":"H21\u63da\u5ddd\u6539\u826f\u9ed2\u5ca9\u5730\u533a \u5730\u8cea\u8abf\u67fb\u4f5c\u696d","client_name":"\u56fd\u571f\u4ea4\u901a\u7701 \u5317\u9678\u5730\u65b9\u6574\u5099\u5c40 \u65b0\u6f5f\u56fd\u9053\u4e8b\u52d9\u6240","boring_xml_url":45,"boring_view_url":1,"soilmap_view_url":null,"soiltest_xml_url":0,"soiltest_view_url":0},{"id":246924,"code":"B4KJ201802001-2404","latitude":"37.701056","longitude":"139.381583","source_code":"HR0984324120240009","project_name":"H21\u63da\u5ddd\u6539\u826f\u9ed2\u5ca9\u5730\u533a \u5730\u8cea\u8abf\u67fb\u4f5c\u696d","survey_name":"H21\u63da\u5ddd\u6539\u826f\u9ed2\u5ca9\u5730\u533a \u5730\u8cea\u8abf\u67fb\u4f5c\u696d","client_name":"\u56fd\u571f\u4ea4\u901a\u7701 \u5317\u9678\u5730\u65b9\u6574\u5099\u5c40 \u65b0\u6f5f\u56fd\u9053\u4e8b\u52d9\u6240","boring_xml_url":45,"boring_view_url":1,"soilmap_view_url":null,"soiltest_xml_url":0,"soiltest_view_url":0},{"id":246923,"code":"B4KJ201802001-2403","latitude":"37.700944","longitude":"139.381583","source_code":"HR0984324120240008","project_name":"H21\u63da\u5ddd\u6539\u826f\u9ed2\u5ca9\u5730\u533a \u5730\u8cea\u8abf\u67fb\u4f5c\u696d","survey_name":"H21\u63da\u5ddd\u6539\u826f\u9ed2\u5ca9\u5730\u533a \u5730\u8cea\u8abf\u67fb\u4f5c\u696d","client_name":"\u56fd\u571f\u4ea4\u901a\u7701 \u5317\u9678\u5730\u65b9\u6574\u5099\u5c40 \u65b0\u6f5f\u56fd\u9053\u4e8b\u52d9\u6240","boring_xml_url":45,"boring_view_url":1,"soilmap_view_url":null,"soiltest_xml_url":0,"soiltest_view_url":0},{"id":246922,"code":"B4KJ201802001-2402","latitude":"37.951682","longitude":"139.258952","source_code":"HR1584857820200109","project_name":"\u4e0d\u660e","survey_name":"\u9707\u707d\u5bfe\u7b56\u6a4b\u6881\u8abf\u67fb\u696d\u52d9\u59d4\u8a17(\u5730\u8cea\u8abf\u67fb)","client_name":"\u5efa\u8a2d\u7701\u65b0\u6f5f\u56fd\u9053\u5de5\u4e8b\u4e8b\u52d9\u6240","boring_xml_url":45,"boring_view_url":1,"soilmap_view_url":null,"soiltest_xml_url":0,"soiltest_view_url":0},{"id":246921,"code":"B4KJ201802001-2401","latitude":"37.959819","longitude":"139.233954","source_code":"HR1584857820200094","project_name":"\u4e0d\u660e","survey_name":"\u65b0\u3005\u30d0\u30a4\u30d1\u30b9\u5730\u8cea\u8abf\u67fb\u4f5c\u696d","client_name":"\u5efa\u8a2d\u7701\u65b0\u6f5f\u56fd\u9053\u5de5\u4e8b\u4e8b\u52d9\u6240","boring_xml_url":45,"boring_view_url":1,"soilmap_view_url":null,"soiltest_xml_url":0,"soiltest_view_url":0},{"id":246920,"code":"B4KJ201802001-2400","latitude":"37.959653","longitude":"139.233676","source_code":"HR1584857820200093","project_name":"\u4e0d\u660e","survey_name":"\u65b0\u3005\u30d0\u30a4\u30d1\u30b9\u5730\u8cea\u8abf\u67fb\u4f5c\u696d","client_name":"\u5efa\u8a2d\u7701\u65b0\u6f5f\u56fd\u9053\u5de5\u4e8b\u4e8b\u52d9\u6240","boring_xml_url":45,"boring_view_url":1,"soilmap_view_url":null,"soiltest_xml_url":0,"soiltest_view_url":0},{"id":246919,"code":"B4KJ201802001-2399","latitude":"37.959458","longitude":"139.233398","source_code":"HR1584857820200092","project_name":"\u4e0d\u660e","survey_name":"\u65b0\u3005\u30d0\u30a4\u30d1\u30b9\u5730\u8cea\u8abf\u67fb\u4f5c\u696d","client_name":"\u5efa\u8a2d\u7701\u65b0\u6f5f\u56fd\u9053\u5de5\u4e8b\u4e8b\u52d9\u6240","boring_xml_url":45,"boring_view_url":1,"soilmap_view_url":null,"soiltest_xml_url":0,"soiltest_view_url":0},{"id":246918,"code":"B4KJ201802001-2398","latitude":"37.422694","longitude":"139.224111","source_code":"HR1084346020210001","project_name":"","survey_name":"\u56fd\u9053289\u53f7\u516b+\u91cc\u8d8a\u5730\u8cea\u8abf\u67fb\u305d\u306e2\u696d\u52d9","client_name":"\u5317\u9678\u5730\u65b9\u6574\u5099\u5c40\u9577\u5ca1\u56fd\u9053\u4e8b\u52d9\u6240","boring_xml_url":45,"boring_view_url":1,"soilmap_view_url":null,"soiltest_xml_url":0,"soiltest_view_url":0},{"id":246917,"code":"B4KJ201802001-2397","latitude":"37.422889","longitude":"139.223778","source_code":"HR1084346020210003","project_name":"","survey_name":"\u56fd\u9053289\u53f7\u516b+\u91cc\u8d8a\u5730\u8cea\u8abf\u67fb\u305d\u306e2\u696d\u52d9","client_name":"\u5317\u9678\u5730\u65b9\u6574\u5099\u5c40\u9577\u5ca1\u56fd\u9053\u4e8b\u52d9\u6240","boring_xml_url":45,"boring_view_url":1,"soilmap_view_url":null,"soiltest_xml_url":0,"soiltest_view_url":0},{"id":246916,"code":"B4KJ201802001-2396","latitude":"37.422167","longitude":"139.223667","source_code":"HR1084346020210005","project_name":"","survey_name":"\u56fd\u9053289\u53f7\u516b+\u91cc\u8d8a\u5730\u8cea\u8abf\u67fb\u305d\u306e2\u696d\u52d9","client_name":"\u5317\u9678\u5730\u65b9\u6574\u5099\u5c40\u9577\u5ca1\u56fd\u9053\u4e8b\u52d9\u6240","boring_xml_url":45,"boring_view_url":1,"soilmap_view_url":null,"soiltest_xml_url":0,"soiltest_view_url":0},{"id":246915,"code":"B4KJ201802001-2395","latitude":"37.422417","longitude":"139.223278","source_code":"HR1084346020210004","project_name":"","survey_name":"\u56fd\u9053289\u53f7\u516b+\u91cc\u8d8a\u5730\u8cea\u8abf\u67fb\u305d\u306e2\u696d\u52d9","client_name":"\u5317\u9678\u5730\u65b9\u6574\u5099\u5c40\u9577\u5ca1\u56fd\u9053\u4e8b\u52d9\u6240","boring_xml_url":45,"boring_view_url":1,"soilmap_view_url":null,"soiltest_xml_url":0,"soiltest_view_url":0},{"id":246914,"code":"B4KJ201802001-2394","latitude":"37.422694","longitude":"139.223222","source_code":"HR1084346020210002","project_name":"","survey_name":"\u56fd\u9053289\u53f7\u516b+\u91cc\u8d8a\u5730\u8cea\u8abf\u67fb\u305d\u306e2\u696d\u52d9","client_name":"\u5317\u9678\u5730\u65b9\u6574\u5099\u5c40\u9577\u5ca1\u56fd\u9053\u4e8b\u52d9\u6240","boring_xml_url":45,"boring_view_url":1,"soilmap_view_url":null,"soiltest_xml_url":0,"soiltest_view_url":0}]}}