{"header":{"xyz":{"source":[],"mosaic":false},"page":2788,"raw":{"soiltest_result":"0","bbox":"57.598333,109.544722,1.933333,163.806111","page":"2788"},"conditions":{"soiltest_result":0,"north":57.598333,"west":109.544722,"south":1.933333,"east":163.806111},"success":true,"message":""},"data":{"meta":{"total":212844,"page":2788,"pages":7095,"count":30},"values":[{"id":246913,"code":"B4KJ201802001-2393","latitude":"37.422611","longitude":"139.223056","source_code":"HR1184345120050002","project_name":"\u5e73\u621023\u5e74\u5ea6\u9577\u5ca1\u56fd\u9053\u5730\u8cea\u8abf\u67fb\u696d\u52d9(\u5358\u4fa1\u5951\u7d04)","survey_name":"\u56fd\u9053289\u53f74\u53f7\u30b9\u30ce\u30fc\u30b7\u30a7\u30c3\u30c9\u6cd5\u9762\u5730\u8cea\u8abf\u67fb\u305d\u306e1\u4f5c\u696d","client_name":"\u5317\u9678\u5730\u65b9\u6574\u5099\u5c40\u9577\u5ca1\u56fd\u9053\u4e8b\u52d9\u6240","boring_xml_url":45,"boring_view_url":1,"soilmap_view_url":null,"soiltest_xml_url":0,"soiltest_view_url":0},{"id":246912,"code":"B4KJ201802001-2392","latitude":"37.422361","longitude":"139.222917","source_code":"HR1084346020210006","project_name":"","survey_name":"\u56fd\u9053289\u53f7\u516b+\u91cc\u8d8a\u5730\u8cea\u8abf\u67fb\u305d\u306e2\u696d\u52d9","client_name":"\u5317\u9678\u5730\u65b9\u6574\u5099\u5c40\u9577\u5ca1\u56fd\u9053\u4e8b\u52d9\u6240","boring_xml_url":45,"boring_view_url":1,"soilmap_view_url":null,"soiltest_xml_url":0,"soiltest_view_url":0},{"id":246911,"code":"B4KJ201802001-2391","latitude":"37.422222","longitude":"139.222861","source_code":"HR1184345120050008","project_name":"\u5e73\u621023\u5e74\u5ea6\u9577\u5ca1\u56fd\u9053\u5730\u8cea\u8abf\u67fb\u696d\u52d9(\u5358\u4fa1\u5951\u7d04)","survey_name":"\u56fd\u9053289\u53f74\u53f7\u30b9\u30ce\u30fc\u30b7\u30a7\u30c3\u30c9\u5730\u3059\u3079\u308a\u8abf\u67fb\u4f5c\u696d","client_name":"\u5317\u9678\u5730\u65b9\u6574\u5099\u5c40\u9577\u5ca1\u56fd\u9053\u4e8b\u52d9\u6240","boring_xml_url":45,"boring_view_url":1,"soilmap_view_url":null,"soiltest_xml_url":0,"soiltest_view_url":0},{"id":246910,"code":"B4KJ201802001-2390","latitude":"37.422639","longitude":"139.222833","source_code":"HR1184345120050011","project_name":"\u5e73\u621023\u5e74\u5ea6\u9577\u5ca1\u56fd\u9053\u5730\u8cea\u8abf\u67fb\u696d\u52d9(\u5358\u4fa1\u5951\u7d04)","survey_name":"\u56fd\u9053289\u53f74\u53f7\u30b9\u30ce\u30fc\u30b7\u30a7\u30c3\u30c9\u6cd5\u9762\u5730\u8cea\u8abf\u67fb\u305d\u306e3\u4f5c\u696d","client_name":"\u5317\u9678\u5730\u65b9\u6574\u5099\u5c40\u9577\u5ca1\u56fd\u9053\u4e8b\u52d9\u6240","boring_xml_url":45,"boring_view_url":1,"soilmap_view_url":null,"soiltest_xml_url":0,"soiltest_view_url":0},{"id":246909,"code":"B4KJ201802001-2389","latitude":"37.422333","longitude":"139.222806","source_code":"HR1184345120050009","project_name":"\u5e73\u621023\u5e74\u5ea6\u9577\u5ca1\u56fd\u9053\u5730\u8cea\u8abf\u67fb\u696d\u52d9(\u5358\u4fa1\u5951\u7d04)","survey_name":"\u56fd\u9053289\u53f74\u53f7\u30b9\u30ce\u30fc\u30b7\u30a7\u30c3\u30c9\u5730\u3059\u3079\u308a\u8abf\u67fb\u4f5c\u696d","client_name":"\u5317\u9678\u5730\u65b9\u6574\u5099\u5c40\u9577\u5ca1\u56fd\u9053\u4e8b\u52d9\u6240","boring_xml_url":45,"boring_view_url":1,"soilmap_view_url":null,"soiltest_xml_url":0,"soiltest_view_url":0},{"id":246908,"code":"B4KJ201802001-2388","latitude":"37.422528","longitude":"139.22275","source_code":"HR1184345120050010","project_name":"\u5e73\u621023\u5e74\u5ea6\u9577\u5ca1\u56fd\u9053\u5730\u8cea\u8abf\u67fb\u696d\u52d9(\u5358\u4fa1\u5951\u7d04)","survey_name":"\u56fd\u9053289\u53f74\u53f7\u30b9\u30ce\u30fc\u30b7\u30a7\u30c3\u30c9\u5730\u3059\u3079\u308a\u8abf\u67fb\u4f5c\u696d","client_name":"\u5317\u9678\u5730\u65b9\u6574\u5099\u5c40\u9577\u5ca1\u56fd\u9053\u4e8b\u52d9\u6240","boring_xml_url":45,"boring_view_url":1,"soilmap_view_url":null,"soiltest_xml_url":0,"soiltest_view_url":0},{"id":246907,"code":"B4KJ201802001-2387","latitude":"37.948514","longitude":"139.199791","source_code":"HR1584857820200105","project_name":"\u4e0d\u660e","survey_name":"\u65b0\u3005BP(2\u5de5\u533a)\u30dc\u30fc\u30ea\u30f3\u30b0\u4f5c\u696d","client_name":"\u5efa\u8a2d\u7701\u65b0\u6f5f\u56fd\u9053\u5de5\u4e8b\u4e8b\u52d9\u6240","boring_xml_url":45,"boring_view_url":1,"soilmap_view_url":null,"soiltest_xml_url":0,"soiltest_view_url":0},{"id":246906,"code":"B4KJ201802001-2386","latitude":"37.947737","longitude":"139.197847","source_code":"HR1584857820200104","project_name":"\u4e0d\u660e","survey_name":"\u65b0\u3005\u30d0\u30a4\u30d1\u30b9\u5730\u8cea\u8abf\u67fb\u4f5c\u696d","client_name":"\u5efa\u8a2d\u7701\u65b0\u6f5f\u56fd\u9053\u5de5\u4e8b\u4e8b\u52d9\u6240","boring_xml_url":45,"boring_view_url":1,"soilmap_view_url":null,"soiltest_xml_url":0,"soiltest_view_url":0},{"id":246905,"code":"B4KJ201802001-2385","latitude":"37.947681","longitude":"139.197847","source_code":"HR1584857820200103","project_name":"\u4e0d\u660e","survey_name":"\u65b0\u4e95\u90f7\u5ddd\u5730\u533a\u5730\u8cea\u8abf\u67fb\u4f5c\u696d","client_name":"\u5efa\u8a2d\u7701\u65b0\u6f5f\u56fd\u9053\u5de5\u4e8b\u4e8b\u52d9\u6240","boring_xml_url":45,"boring_view_url":1,"soilmap_view_url":null,"soiltest_xml_url":48,"soiltest_view_url":47},{"id":246904,"code":"B4KJ201802001-2384","latitude":"37.947653","longitude":"139.197569","source_code":"HR1584857820200102","project_name":"\u4e0d\u660e","survey_name":"\u65b0\u3005\u30d0\u30a4\u30d1\u30b9\u5730\u8cea\u8abf\u67fb\u4f5c\u696d","client_name":"\u5efa\u8a2d\u7701\u65b0\u6f5f\u56fd\u9053\u5de5\u4e8b\u4e8b\u52d9\u6240","boring_xml_url":45,"boring_view_url":1,"soilmap_view_url":null,"soiltest_xml_url":0,"soiltest_view_url":0},{"id":246903,"code":"B4KJ201802001-2383","latitude":"37.939932","longitude":"139.178405","source_code":"HR1584857820200064","project_name":"\u4e0d\u660e","survey_name":"\u65b0\u3005\u30d0\u30a4\u30d1\u30b9(\u7b2c\u4e00\u5de5\u533a)\u571f\u8cea\u8abf\u67fb\u4f5c\u696d","client_name":"\u5efa\u8a2d\u7701\u65b0\u6f5f\u56fd\u9053\u5de5\u4e8b\u4e8b\u52d9\u6240","boring_xml_url":45,"boring_view_url":1,"soilmap_view_url":null,"soiltest_xml_url":0,"soiltest_view_url":0},{"id":246902,"code":"B4KJ201802001-2382","latitude":"37.444194","longitude":"139.181444","source_code":"HR1084346020200006","project_name":"","survey_name":"\u56fd\u9053289\u53f7\u516b+\u91cc\u8d8a\u5730\u8cea\u8abf\u67fb\u305d\u306e1\u696d\u52d9","client_name":"\u56fd\u571f\u4ea4\u901a\u7701\u5317\u9678\u5730\u65b9\u6574\u5099\u5c40\u9577\u5ca1\u56fd\u9053\u4e8b\u52d9\u6240","boring_xml_url":45,"boring_view_url":1,"soilmap_view_url":null,"soiltest_xml_url":0,"soiltest_view_url":0},{"id":246901,"code":"B4KJ201802001-2381","latitude":"37.442528","longitude":"139.180194","source_code":"HR1084346020200007","project_name":"","survey_name":"\u56fd\u9053289\u53f7\u516b+\u91cc\u8d8a\u5730\u8cea\u8abf\u67fb\u305d\u306e1\u696d\u52d9","client_name":"\u56fd\u571f\u4ea4\u901a\u7701\u5317\u9678\u5730\u65b9\u6574\u5099\u5c40\u9577\u5ca1\u56fd\u9053\u4e8b\u52d9\u6240","boring_xml_url":45,"boring_view_url":1,"soilmap_view_url":null,"soiltest_xml_url":0,"soiltest_view_url":0},{"id":246900,"code":"B4KJ201802001-2380","latitude":"37.439639","longitude":"139.179528","source_code":"HR1084346020200002","project_name":"","survey_name":"\u56fd\u9053289\u53f7\u516b+\u91cc\u8d8a\u5730\u8cea\u8abf\u67fb\u305d\u306e1\u696d\u52d9","client_name":"\u56fd\u571f\u4ea4\u901a\u7701\u5317\u9678\u5730\u65b9\u6574\u5099\u5c40\u9577\u5ca1\u56fd\u9053\u4e8b\u52d9\u6240","boring_xml_url":45,"boring_view_url":1,"soilmap_view_url":null,"soiltest_xml_url":0,"soiltest_view_url":0},{"id":246899,"code":"B4KJ201802001-2379","latitude":"37.44025","longitude":"139.178611","source_code":"HR1084346020200004","project_name":"","survey_name":"\u56fd\u9053289\u53f7\u516b+\u91cc\u8d8a\u5730\u8cea\u8abf\u67fb\u305d\u306e1\u696d\u52d9","client_name":"\u56fd\u571f\u4ea4\u901a\u7701\u5317\u9678\u5730\u65b9\u6574\u5099\u5c40\u9577\u5ca1\u56fd\u9053\u4e8b\u52d9\u6240","boring_xml_url":45,"boring_view_url":1,"soilmap_view_url":null,"soiltest_xml_url":0,"soiltest_view_url":0},{"id":246898,"code":"B4KJ201802001-2378","latitude":"37.44025","longitude":"139.178611","source_code":"HR1084346020200003","project_name":"","survey_name":"\u56fd\u9053289\u53f7\u516b+\u91cc\u8d8a\u5730\u8cea\u8abf\u67fb\u305d\u306e1\u696d\u52d9","client_name":"\u56fd\u571f\u4ea4\u901a\u7701\u5317\u9678\u5730\u65b9\u6574\u5099\u5c40\u9577\u5ca1\u56fd\u9053\u4e8b\u52d9\u6240","boring_xml_url":45,"boring_view_url":1,"soilmap_view_url":null,"soiltest_xml_url":0,"soiltest_view_url":0},{"id":246897,"code":"B4KJ201802001-2377","latitude":"37.938654","longitude":"139.175072","source_code":"HR1584857820200065","project_name":"\u4e0d\u660e","survey_name":"\u65b0\u3005\u30d0\u30a4\u30d1\u30b9(\u7b2c\u4e00\u5de5\u533a)\u571f\u8cea\u8abf\u67fb\u4f5c\u696d","client_name":"\u5efa\u8a2d\u7701\u65b0\u6f5f\u56fd\u9053\u5de5\u4e8b\u4e8b\u52d9\u6240","boring_xml_url":45,"boring_view_url":1,"soilmap_view_url":null,"soiltest_xml_url":0,"soiltest_view_url":0},{"id":246896,"code":"B4KJ201802001-2376","latitude":"37.44075","longitude":"139.177944","source_code":"HR1084346020200005","project_name":"","survey_name":"\u56fd\u9053289\u53f7\u516b+\u91cc\u8d8a\u5730\u8cea\u8abf\u67fb\u305d\u306e1\u696d\u52d9","client_name":"\u56fd\u571f\u4ea4\u901a\u7701\u5317\u9678\u5730\u65b9\u6574\u5099\u5c40\u9577\u5ca1\u56fd\u9053\u4e8b\u52d9\u6240","boring_xml_url":45,"boring_view_url":1,"soilmap_view_url":null,"soiltest_xml_url":0,"soiltest_view_url":0},{"id":246895,"code":"B4KJ201802001-2375","latitude":"37.441194","longitude":"139.176278","source_code":"HR1084346020200001","project_name":"","survey_name":"\u56fd\u9053289\u53f7\u516b+\u91cc\u8d8a\u5730\u8cea\u8abf\u67fb\u305d\u306e1\u696d\u52d9","client_name":"\u56fd\u571f\u4ea4\u901a\u7701\u5317\u9678\u5730\u65b9\u6574\u5099\u5c40\u9577\u5ca1\u56fd\u9053\u4e8b\u52d9\u6240","boring_xml_url":45,"boring_view_url":1,"soilmap_view_url":null,"soiltest_xml_url":0,"soiltest_view_url":0},{"id":246894,"code":"B4KJ201802001-2374","latitude":"37.930461","longitude":"139.169796","source_code":"HR1584857820200087","project_name":"\u4e0d\u660e","survey_name":"\u9707\u707d\u5bfe\u7b56\u6a4b\u6881\u8abf\u67fb\u696d\u52d9\u59d4\u8a17(\u5730\u8cea\u8abf\u67fb)","client_name":"\u5efa\u8a2d\u7701\u65b0\u6f5f\u56fd\u9053\u5de5\u4e8b\u4e8b\u52d9\u6240","boring_xml_url":45,"boring_view_url":1,"soilmap_view_url":null,"soiltest_xml_url":0,"soiltest_view_url":0},{"id":246893,"code":"B4KJ201802001-2373","latitude":"37.936432","longitude":"139.169795","source_code":"HR1584857820200085","project_name":"\u4e0d\u660e","survey_name":"\u65b0\u3005\u30d0\u30a4\u30d1\u30b9(\u7b2c\u4e00\u5de5\u533a)\u571f\u8cea\u8abf\u67fb\u4f5c\u696d","client_name":"\u5efa\u8a2d\u7701\u65b0\u6f5f\u56fd\u9053\u5de5\u4e8b\u4e8b\u52d9\u6240","boring_xml_url":45,"boring_view_url":1,"soilmap_view_url":null,"soiltest_xml_url":0,"soiltest_view_url":0},{"id":246892,"code":"B4KJ201802001-2372","latitude":"37.935682","longitude":"139.16674","source_code":"HR1584857820200084","project_name":"\u4e0d\u660e","survey_name":"\u65b0\u3005\u30d0\u30a4\u30d1\u30b9(\u7b2c\u4e00\u5de5\u533a)\u571f\u8cea\u8abf\u67fb\u4f5c\u696d","client_name":"\u5efa\u8a2d\u7701\u65b0\u6f5f\u56fd\u9053\u5de5\u4e8b\u4e8b\u52d9\u6240","boring_xml_url":45,"boring_view_url":1,"soilmap_view_url":null,"soiltest_xml_url":0,"soiltest_view_url":0},{"id":246891,"code":"B4KJ201802001-2371","latitude":"37.459583","longitude":"139.168417","source_code":"HR1184345120050021","project_name":"2\u53f7\u76db\u571f\u4ed8\u8fd1\u5730\u3059\u3079\u308a\u8abf\u67fb","survey_name":"(\u5358\u5951)\u56fd\u9053289\u53f72\u53f7\u76db\u571f\u4ed8\u8fd1\u5730\u3059\u3079\u308a\u8abf\u67fb\u4f5c\u696d","client_name":"\u56fd\u571f\u4ea4\u901a\u7701\u9577\u5ca1\u56fd\u9053\u4e8b\u52d9\u6240\u5de5\u52d9\u8ab2","boring_xml_url":45,"boring_view_url":1,"soilmap_view_url":null,"soiltest_xml_url":0,"soiltest_view_url":0},{"id":246890,"code":"B4KJ201802001-2370","latitude":"37.935627","longitude":"139.162574","source_code":"HR1584857820200083","project_name":"\u4e0d\u660e","survey_name":"\u65b0\u3005\u30d0\u30a4\u30d1\u30b9(\u7b2c\u4e00\u5de5\u533a)\u571f\u8cea\u8abf\u67fb\u4f5c\u696d","client_name":"\u5efa\u8a2d\u7701\u65b0\u6f5f\u56fd\u9053\u5de5\u4e8b\u4e8b\u52d9\u6240","boring_xml_url":45,"boring_view_url":1,"soilmap_view_url":null,"soiltest_xml_url":0,"soiltest_view_url":0},{"id":246889,"code":"B4KJ201802001-2369","latitude":"37.927711","longitude":"139.161741","source_code":"HR1584857820200088","project_name":"\u4e0d\u660e","survey_name":"\u9707\u707d\u5bfe\u7b56\u6a4b\u6881\u8abf\u67fb\u696d\u52d9\u59d4\u8a17(\u5730\u8cea\u8abf\u67fb)","client_name":"\u5efa\u8a2d\u7701\u65b0\u6f5f\u56fd\u9053\u5de5\u4e8b\u4e8b\u52d9\u6240","boring_xml_url":45,"boring_view_url":1,"soilmap_view_url":null,"soiltest_xml_url":0,"soiltest_view_url":0},{"id":246888,"code":"B4KJ201802001-2368","latitude":"37.939265","longitude":"139.161185","source_code":"HR1584857820200063","project_name":"\u4e0d\u660e","survey_name":"\u65b0\u3005\u30d0\u30a4\u30d1\u30b9\u5730\u8cea\u8abf\u67fb","client_name":"\u5efa\u8a2d\u7701\u65b0\u6f5f\u56fd\u9053\u5de5\u4e8b\u4e8b\u52d9\u6240","boring_xml_url":45,"boring_view_url":1,"soilmap_view_url":null,"soiltest_xml_url":0,"soiltest_view_url":0},{"id":246887,"code":"B4KJ201802001-2367","latitude":"37.936127","longitude":"139.160074","source_code":"HR1584857820200082","project_name":"\u4e0d\u660e","survey_name":"\u65b0\u4e95\u90f7\u5ddd\u5730\u533a\u5730\u8cea\u8abf\u67fb\u4f5c\u696d","client_name":"\u5efa\u8a2d\u7701\u65b0\u6f5f\u56fd\u9053\u5de5\u4e8b\u4e8b\u52d9\u6240","boring_xml_url":45,"boring_view_url":1,"soilmap_view_url":null,"soiltest_xml_url":0,"soiltest_view_url":0},{"id":246886,"code":"B4KJ201802001-2366","latitude":"37.935932","longitude":"139.159796","source_code":"HR1584857820200081","project_name":"\u4e0d\u660e","survey_name":"\u65b0\u4e95\u90f7\u5ddd\u5730\u533a\u5730\u8cea\u8abf\u67fb\u4f5c\u696d","client_name":"\u5efa\u8a2d\u7701\u65b0\u6f5f\u56fd\u9053\u5de5\u4e8b\u4e8b\u52d9\u6240","boring_xml_url":45,"boring_view_url":1,"soilmap_view_url":null,"soiltest_xml_url":0,"soiltest_view_url":0},{"id":246885,"code":"B4KJ201802001-2365","latitude":"37.850108","longitude":"139.156189","source_code":"HR1584857820200279","project_name":"\u4e0d\u660e","survey_name":"\u4e00\u822c\u56fd\u905349\u53f7\u6a2a\u96f2\u6a4b\u30dc\u30fc\u30ea\u30f3\u30b0\u4f5c\u696d","client_name":"\u5efa\u8a2d\u7701\u65b0\u6f5f\u56fd\u9053\u5de5\u4e8b\u4e8b\u52d9\u6240","boring_xml_url":45,"boring_view_url":1,"soilmap_view_url":null,"soiltest_xml_url":48,"soiltest_view_url":47},{"id":246884,"code":"B4KJ201802001-2364","latitude":"37.829444","longitude":"139.158333","source_code":"HR0884314020030001","project_name":"","survey_name":"\u6a2a\u8d8a\u5730\u533a\u74b0\u5883\u8b77\u5cb8\u7b49\u8a2d\u8a08\u696d\u52d9","client_name":"\u56fd\u571f\u4ea4\u901a\u7701\u5317\u9678\u5730\u65b9\u6574\u5099\u5c40 \u963f\u8cc0\u91ce\u5ddd\u6cb3\u5ddd\u4e8b\u52d9\u6240","boring_xml_url":45,"boring_view_url":1,"soilmap_view_url":null,"soiltest_xml_url":48,"soiltest_view_url":47}]}}