{"header":{"xyz":{"source":[],"mosaic":false},"page":2793,"raw":{"soiltest_result":"0","bbox":"57.598333,109.544722,1.933333,163.806111","page":"2793"},"conditions":{"soiltest_result":0,"north":57.598333,"west":109.544722,"south":1.933333,"east":163.806111},"success":true,"message":""},"data":{"meta":{"total":212844,"page":2793,"pages":7095,"count":30},"values":[{"id":246763,"code":"B4KJ201802001-2243","latitude":"37.913861","longitude":"139.048944","source_code":"HR1284306020080005","project_name":"\u4fe1\u6fc3\u5ddd\u4e0b\u6d41\u5824\u9632\u8010\u9707\u5730\u8cea\u8abf\u67fb\u696d\u52d9","survey_name":"\u4fe1\u6fc3\u5ddd\u4e0b\u6d41\u5824\u9632\u8010\u9707\u5730\u8cea\u8abf\u67fb\u696d\u52d9","client_name":"\u56fd\u571f\u4ea4\u901a\u7701 \u5317\u9678\u5730\u65b9\u6574\u5099\u5c40 \u4fe1\u6fc3\u5ddd\u4e0b\u6d41\u6cb3\u5ddd\u4e8b\u52d9\u6240","boring_xml_url":45,"boring_view_url":1,"soilmap_view_url":null,"soiltest_xml_url":0,"soiltest_view_url":0},{"id":246762,"code":"B4KJ201802001-2242","latitude":"37.892778","longitude":"139.048611","source_code":"HR0984325120190005","project_name":"\u65b0\u6f5f\u30d0\u30a4\u30d1\u30b9(\u5973\u6c60\uff5e\u685c\u6728)\u5730\u8cea\u8abf\u67fb\u4f5c\u696d","survey_name":"\u65b0\u6f5f\u30d0\u30a4\u30d1\u30b9(\u5973\u6c60\uff5e\u685c\u6728)\u5730\u8cea\u8abf\u67fb\u4f5c\u696d","client_name":"\u56fd\u571f\u4ea4\u901a\u7701 \u65b0\u6f5f\u56fd\u9053\u4e8b\u52d9\u6240","boring_xml_url":45,"boring_view_url":1,"soilmap_view_url":null,"soiltest_xml_url":48,"soiltest_view_url":47},{"id":246761,"code":"B4KJ201802001-2241","latitude":"37.913444","longitude":"139.048333","source_code":"HR1284306020080006","project_name":"\u4fe1\u6fc3\u5ddd\u4e0b\u6d41\u5824\u9632\u8010\u9707\u5730\u8cea\u8abf\u67fb\u696d\u52d9","survey_name":"\u4fe1\u6fc3\u5ddd\u4e0b\u6d41\u5824\u9632\u8010\u9707\u5730\u8cea\u8abf\u67fb\u696d\u52d9","client_name":"\u56fd\u571f\u4ea4\u901a\u7701 \u5317\u9678\u5730\u65b9\u6574\u5099\u5c40 \u4fe1\u6fc3\u5ddd\u4e0b\u6d41\u6cb3\u5ddd\u4e8b\u52d9\u6240","boring_xml_url":45,"boring_view_url":1,"soilmap_view_url":null,"soiltest_xml_url":0,"soiltest_view_url":0},{"id":246760,"code":"B4KJ201802001-2240","latitude":"37.912833","longitude":"139.047389","source_code":"HR1284306020080007","project_name":"\u4fe1\u6fc3\u5ddd\u4e0b\u6d41\u5824\u9632\u8010\u9707\u5730\u8cea\u8abf\u67fb\u696d\u52d9","survey_name":"\u4fe1\u6fc3\u5ddd\u4e0b\u6d41\u5824\u9632\u8010\u9707\u5730\u8cea\u8abf\u67fb\u696d\u52d9","client_name":"\u56fd\u571f\u4ea4\u901a\u7701 \u5317\u9678\u5730\u65b9\u6574\u5099\u5c40 \u4fe1\u6fc3\u5ddd\u4e0b\u6d41\u6cb3\u5ddd\u4e8b\u52d9\u6240","boring_xml_url":45,"boring_view_url":1,"soilmap_view_url":null,"soiltest_xml_url":0,"soiltest_view_url":0},{"id":246759,"code":"B4KJ201802001-2239","latitude":"37.921903","longitude":"139.043973","source_code":"HR1584857820200042","project_name":"\u4e0d\u660e","survey_name":"\u65b0\u6f5f\u5e02\u5185\u6b69\u9053\u6a4b\u53ca\u3073\u8de8\u7dda\u6a4b\u5730\u8cea\u8abf\u67fb","client_name":"\u5efa\u8a2d\u7701\u65b0\u6f5f\u56fd\u9053\u5de5\u4e8b\u4e8b\u52d9\u6240","boring_xml_url":45,"boring_view_url":1,"soilmap_view_url":null,"soiltest_xml_url":0,"soiltest_view_url":0},{"id":246758,"code":"B4KJ201802001-2238","latitude":"37.912611","longitude":"139.047222","source_code":"HR0884306020170002","project_name":"","survey_name":"\u4fe1\u6fc3\u5ddd(\u672c\u5ddd\u4e0b\u6d41)\u5824\u9632\u8a73\u7d30\u8abf\u67fb\u696d\u52d9\u59d4\u8a17","client_name":"\u56fd\u571f\u4ea4\u901a\u7701\u5317\u9678\u5730\u65b9\u6574\u5099\u5c40\u4fe1\u6fc3\u5ddd\u4e0b\u6d41\u6cb3\u5ddd\u4e8b\u52d9\u6240","boring_xml_url":45,"boring_view_url":1,"soilmap_view_url":null,"soiltest_xml_url":48,"soiltest_view_url":47},{"id":246757,"code":"B4KJ201802001-2237","latitude":"37.912861","longitude":"139.047028","source_code":"HR0884306020170001","project_name":"","survey_name":"\u4fe1\u6fc3\u5ddd(\u672c\u5ddd\u4e0b\u6d41)\u5824\u9632\u8a73\u7d30\u8abf\u67fb\u696d\u52d9\u59d4\u8a17","client_name":"\u56fd\u571f\u4ea4\u901a\u7701\u5317\u9678\u5730\u65b9\u6574\u5099\u5c40\u4fe1\u6fc3\u5ddd\u4e0b\u6d41\u6cb3\u5ddd\u4e8b\u52d9\u6240","boring_xml_url":45,"boring_view_url":1,"soilmap_view_url":null,"soiltest_xml_url":48,"soiltest_view_url":47},{"id":246756,"code":"B4KJ201802001-2236","latitude":"37.912167","longitude":"139.046167","source_code":"HR1184304020170009","project_name":"\u5824\u9632\u8010\u9707\u8abf\u67fb","survey_name":"\u7ba1\u5185\u5730\u8cea\u8abf\u67fb\u696d\u52d9","client_name":"\u56fd\u571f\u4ea4\u901a\u7701 \u5317\u9678\u5730\u65b9\u6574\u5099\u5c40 \u4fe1\u6fc3\u5ddd\u4e0b\u6d41\u6cb3\u5ddd\u4e8b\u52d9\u6240","boring_xml_url":45,"boring_view_url":1,"soilmap_view_url":null,"soiltest_xml_url":0,"soiltest_view_url":0},{"id":246755,"code":"B4KJ201802001-2235","latitude":"37.912278","longitude":"139.046111","source_code":"HR1184304020170008","project_name":"\u5824\u9632\u8010\u9707\u8abf\u67fb","survey_name":"\u7ba1\u5185\u5730\u8cea\u8abf\u67fb\u696d\u52d9","client_name":"\u56fd\u571f\u4ea4\u901a\u7701 \u5317\u9678\u5730\u65b9\u6574\u5099\u5c40 \u4fe1\u6fc3\u5ddd\u4e0b\u6d41\u6cb3\u5ddd\u4e8b\u52d9\u6240","boring_xml_url":45,"boring_view_url":1,"soilmap_view_url":null,"soiltest_xml_url":0,"soiltest_view_url":0},{"id":246754,"code":"B4KJ201802001-2234","latitude":"37.911778","longitude":"139.045333","source_code":"HR1284306020080008","project_name":"\u4fe1\u6fc3\u5ddd\u4e0b\u6d41\u5824\u9632\u8010\u9707\u5730\u8cea\u8abf\u67fb\u696d\u52d9","survey_name":"\u4fe1\u6fc3\u5ddd\u4e0b\u6d41\u5824\u9632\u8010\u9707\u5730\u8cea\u8abf\u67fb\u696d\u52d9","client_name":"\u56fd\u571f\u4ea4\u901a\u7701 \u5317\u9678\u5730\u65b9\u6574\u5099\u5c40 \u4fe1\u6fc3\u5ddd\u4e0b\u6d41\u6cb3\u5ddd\u4e8b\u52d9\u6240","boring_xml_url":45,"boring_view_url":1,"soilmap_view_url":null,"soiltest_xml_url":0,"soiltest_view_url":0},{"id":246753,"code":"B4KJ201802001-2233","latitude":"37.914028","longitude":"139.044861","source_code":"HR1184304020170001","project_name":"\u5824\u9632\u8010\u9707\u8abf\u67fb","survey_name":"\u7ba1\u5185\u5730\u8cea\u8abf\u67fb\u696d\u52d9","client_name":"\u56fd\u571f\u4ea4\u901a\u7701 \u5317\u9678\u5730\u65b9\u6574\u5099\u5c40 \u4fe1\u6fc3\u5ddd\u4e0b\u6d41\u6cb3\u5ddd\u4e8b\u52d9\u6240","boring_xml_url":45,"boring_view_url":1,"soilmap_view_url":null,"soiltest_xml_url":0,"soiltest_view_url":0},{"id":246752,"code":"B4KJ201802001-2232","latitude":"37.914083","longitude":"139.04475","source_code":"HR1184304020170002","project_name":"\u5824\u9632\u8010\u9707\u8abf\u67fb","survey_name":"\u7ba1\u5185\u5730\u8cea\u8abf\u67fb\u696d\u52d9","client_name":"\u56fd\u571f\u4ea4\u901a\u7701 \u5317\u9678\u5730\u65b9\u6574\u5099\u5c40 \u4fe1\u6fc3\u5ddd\u4e0b\u6d41\u6cb3\u5ddd\u4e8b\u52d9\u6240","boring_xml_url":45,"boring_view_url":1,"soilmap_view_url":null,"soiltest_xml_url":0,"soiltest_view_url":0},{"id":246751,"code":"B4KJ201802001-2231","latitude":"37.911444","longitude":"139.044528","source_code":"HR1284306020080009","project_name":"\u4fe1\u6fc3\u5ddd\u4e0b\u6d41\u5824\u9632\u8010\u9707\u5730\u8cea\u8abf\u67fb\u696d\u52d9","survey_name":"\u4fe1\u6fc3\u5ddd\u4e0b\u6d41\u5824\u9632\u8010\u9707\u5730\u8cea\u8abf\u67fb\u696d\u52d9","client_name":"\u56fd\u571f\u4ea4\u901a\u7701 \u5317\u9678\u5730\u65b9\u6574\u5099\u5c40 \u4fe1\u6fc3\u5ddd\u4e0b\u6d41\u6cb3\u5ddd\u4e8b\u52d9\u6240","boring_xml_url":45,"boring_view_url":1,"soilmap_view_url":null,"soiltest_xml_url":0,"soiltest_view_url":0},{"id":246750,"code":"B4KJ201802001-2230","latitude":"37.89","longitude":"139.0425","source_code":"HR0984325120190003","project_name":"\u65b0\u6f5f\u30d0\u30a4\u30d1\u30b9(\u5973\u6c60\uff5e\u685c\u6728)\u5730\u8cea\u8abf\u67fb\u4f5c\u696d","survey_name":"\u65b0\u6f5f\u30d0\u30a4\u30d1\u30b9(\u5973\u6c60\uff5e\u685c\u6728)\u5730\u8cea\u8abf\u67fb\u4f5c\u696d","client_name":"\u56fd\u571f\u4ea4\u901a\u7701 \u65b0\u6f5f\u56fd\u9053\u4e8b\u52d9\u6240","boring_xml_url":45,"boring_view_url":1,"soilmap_view_url":null,"soiltest_xml_url":48,"soiltest_view_url":47},{"id":246749,"code":"B4KJ201802001-2229","latitude":"37.916487","longitude":"139.038974","source_code":"HR1584857820200168","project_name":"\u4e0d\u660e","survey_name":"\u65b0\u6f5f\u5730\u65b9\u88c1\u5224\u6240\u5e81\u820e\u5730\u76e4\u8abf\u67fb","client_name":"\u5efa\u8a2d\u7701\u65b0\u6f5f\u55b6\u7e55\u5de5\u4e8b\u4e8b\u52d9\u6240","boring_xml_url":45,"boring_view_url":1,"soilmap_view_url":null,"soiltest_xml_url":0,"soiltest_view_url":0},{"id":246748,"code":"B4KJ201802001-2228","latitude":"37.916959","longitude":"139.038974","source_code":"HR1584857820200167","project_name":"\u4e0d\u660e","survey_name":"\u65b0\u6f5f\u5730\u65b9\u88c1\u5224\u6240\u5e81\u820e\u5730\u76e4\u8abf\u67fb\u5de5\u4e8b","client_name":"\u5efa\u8a2d\u7701\u65b0\u6f5f\u55b6\u7e55\u5de5\u4e8b\u4e8b\u52d9\u6240","boring_xml_url":45,"boring_view_url":1,"soilmap_view_url":null,"soiltest_xml_url":0,"soiltest_view_url":0},{"id":246747,"code":"B4KJ201802001-2227","latitude":"37.890278","longitude":"139.042222","source_code":"HR0984325120190002","project_name":"\u65b0\u6f5f\u30d0\u30a4\u30d1\u30b9(\u5973\u6c60\uff5e\u685c\u6728)\u5730\u8cea\u8abf\u67fb\u4f5c\u696d","survey_name":"\u65b0\u6f5f\u30d0\u30a4\u30d1\u30b9(\u5973\u6c60\uff5e\u685c\u6728)\u5730\u8cea\u8abf\u67fb\u4f5c\u696d","client_name":"\u56fd\u571f\u4ea4\u901a\u7701 \u65b0\u6f5f\u56fd\u9053\u4e8b\u52d9\u6240","boring_xml_url":45,"boring_view_url":1,"soilmap_view_url":null,"soiltest_xml_url":48,"soiltest_view_url":47},{"id":246746,"code":"B4KJ201802001-2226","latitude":"37.890556","longitude":"139.041944","source_code":"HR0984325120190004","project_name":"\u65b0\u6f5f\u30d0\u30a4\u30d1\u30b9(\u5973\u6c60\uff5e\u685c\u6728)\u5730\u8cea\u8abf\u67fb\u4f5c\u696d","survey_name":"\u65b0\u6f5f\u30d0\u30a4\u30d1\u30b9(\u5973\u6c60\uff5e\u685c\u6728)\u5730\u8cea\u8abf\u67fb\u4f5c\u696d","client_name":"\u56fd\u571f\u4ea4\u901a\u7701 \u65b0\u6f5f\u56fd\u9053\u4e8b\u52d9\u6240","boring_xml_url":45,"boring_view_url":1,"soilmap_view_url":null,"soiltest_xml_url":48,"soiltest_view_url":47},{"id":246745,"code":"B4KJ201802001-2225","latitude":"37.912667","longitude":"139.041889","source_code":"HR1284306020380001","project_name":"\u8010\u9707\u5bfe\u7b56\u4e8b\u5f8c\u30c1\u30a7\u30c3\u30af\u30dc\u30fc\u30ea\u30f3\u30b0","survey_name":"\u8010\u9707\u5bfe\u7b56\u4e8b\u5f8c\u30c1\u30a7\u30c3\u30af\u30dc\u30fc\u30ea\u30f3\u30b0","client_name":"\u56fd\u571f\u4ea4\u901a\u7701 \u5317\u9678\u5730\u65b9\u6574\u5099\u5c40 \u4fe1\u6fc3\u5ddd\u4e0b\u6d41\u6cb3\u5ddd\u4e8b\u52d9\u6240","boring_xml_url":45,"boring_view_url":1,"soilmap_view_url":null,"soiltest_xml_url":45,"soiltest_view_url":44},{"id":246744,"code":"B4KJ201802001-2224","latitude":"37.91275","longitude":"139.041806","source_code":"HR1284306020380002","project_name":"\u8010\u9707\u5bfe\u7b56\u4e8b\u5f8c\u30c1\u30a7\u30c3\u30af\u30dc\u30fc\u30ea\u30f3\u30b0","survey_name":"\u8010\u9707\u5bfe\u7b56\u4e8b\u5f8c\u30c1\u30a7\u30c3\u30af\u30dc\u30fc\u30ea\u30f3\u30b0","client_name":"\u56fd\u571f\u4ea4\u901a\u7701 \u5317\u9678\u5730\u65b9\u6574\u5099\u5c40 \u4fe1\u6fc3\u5ddd\u4e0b\u6d41\u6cb3\u5ddd\u4e8b\u52d9\u6240","boring_xml_url":45,"boring_view_url":1,"soilmap_view_url":null,"soiltest_xml_url":45,"soiltest_view_url":44},{"id":246743,"code":"B4KJ201802001-2223","latitude":"37.916487","longitude":"139.038418","source_code":"HR1584857820200169","project_name":"\u4e0d\u660e","survey_name":"\u65b0\u6f5f\u5730\u65b9\u88c1\u5224\u6240\u5e81\u820e\u5730\u76e4\u8abf\u67fb\u5de5\u4e8b","client_name":"\u5efa\u8a2d\u7701\u65b0\u6f5f\u55b6\u7e55\u5de5\u4e8b\u4e8b\u52d9\u6240","boring_xml_url":45,"boring_view_url":1,"soilmap_view_url":null,"soiltest_xml_url":0,"soiltest_view_url":0},{"id":246742,"code":"B4KJ201802001-2222","latitude":"37.41","longitude":"139.041278","source_code":"HR1184304020170010","project_name":"\u5824\u9632\u8010\u9707\u8abf\u67fb","survey_name":"\u7ba1\u5185\u5730\u8cea\u8abf\u67fb\u696d\u52d9","client_name":"\u56fd\u571f\u4ea4\u901a\u7701 \u5317\u9678\u5730\u65b9\u6574\u5099\u5c40 \u4fe1\u6fc3\u5ddd\u4e0b\u6d41\u6cb3\u5ddd\u4e8b\u52d9\u6240","boring_xml_url":45,"boring_view_url":1,"soilmap_view_url":null,"soiltest_xml_url":0,"soiltest_view_url":0},{"id":246741,"code":"B4KJ201802001-2221","latitude":"37.912222","longitude":"139.040583","source_code":"HR1284306020370001","project_name":"\u4fe1\u6fc3\u5ddd\u4e0b\u6d41\u6cb3\u5ddd\u7ba1\u5185\u5730\u8cea\u8abf\u67fb\u696d\u52d9","survey_name":"\u5ddd\u5cb8\u753a\u3084\u3059\u3089\u304e\u5824\u54c1\u8cea\u78ba\u8a8d\u8abf\u67fb","client_name":"\u56fd\u571f\u4ea4\u901a\u7701 \u5317\u9678\u5730\u65b9\u6574\u5099\u5c40 \u4fe1\u6fc3\u5ddd\u4e0b\u6d41\u6cb3\u5ddd\u4e8b\u52d9\u6240","boring_xml_url":45,"boring_view_url":1,"soilmap_view_url":null,"soiltest_xml_url":0,"soiltest_view_url":0},{"id":246740,"code":"B4KJ201802001-2220","latitude":"37.889167","longitude":"139.04","source_code":"HR0984325120190001","project_name":"\u65b0\u6f5f\u30d0\u30a4\u30d1\u30b9(\u5973\u6c60\uff5e\u685c\u6728)\u5730\u8cea\u8abf\u67fb\u4f5c\u696d","survey_name":"\u65b0\u6f5f\u30d0\u30a4\u30d1\u30b9(\u5973\u6c60\uff5e\u685c\u6728)\u5730\u8cea\u8abf\u67fb\u4f5c\u696d","client_name":"\u56fd\u571f\u4ea4\u901a\u7701 \u65b0\u6f5f\u56fd\u9053\u4e8b\u52d9\u6240","boring_xml_url":45,"boring_view_url":1,"soilmap_view_url":null,"soiltest_xml_url":48,"soiltest_view_url":47},{"id":246739,"code":"B4KJ201802001-2219","latitude":"37.911722","longitude":"139.039806","source_code":"HR1184304020170003","project_name":"\u5824\u9632\u8010\u9707\u8abf\u67fb","survey_name":"\u7ba1\u5185\u5730\u8cea\u8abf\u67fb\u696d\u52d9","client_name":"\u56fd\u571f\u4ea4\u901a\u7701 \u5317\u9678\u5730\u65b9\u6574\u5099\u5c40 \u4fe1\u6fc3\u5ddd\u4e0b\u6d41\u6cb3\u5ddd\u4e8b\u52d9\u6240","boring_xml_url":45,"boring_view_url":1,"soilmap_view_url":null,"soiltest_xml_url":0,"soiltest_view_url":0},{"id":246738,"code":"B4KJ201802001-2218","latitude":"37.911556","longitude":"139.039472","source_code":"HR1284306020380003","project_name":"\u8010\u9707\u5bfe\u7b56\u4e8b\u5f8c\u30c1\u30a7\u30c3\u30af\u30dc\u30fc\u30ea\u30f3\u30b0","survey_name":"\u8010\u9707\u5bfe\u7b56\u4e8b\u5f8c\u30c1\u30a7\u30c3\u30af\u30dc\u30fc\u30ea\u30f3\u30b0","client_name":"\u56fd\u571f\u4ea4\u901a\u7701 \u5317\u9678\u5730\u65b9\u6574\u5099\u5c40 \u4fe1\u6fc3\u5ddd\u4e0b\u6d41\u6cb3\u5ddd\u4e8b\u52d9\u6240","boring_xml_url":45,"boring_view_url":1,"soilmap_view_url":null,"soiltest_xml_url":45,"soiltest_view_url":44},{"id":246737,"code":"B4KJ201802001-2217","latitude":"37.911694","longitude":"139.039472","source_code":"HR0884306020170005","project_name":"","survey_name":"\u4fe1\u6fc3\u5ddd(\u672c\u5ddd\u4e0b\u6d41)\u5824\u9632\u8a73\u7d30\u8abf\u67fb\u696d\u52d9\u59d4\u8a17","client_name":"\u56fd\u571f\u4ea4\u901a\u7701\u5317\u9678\u5730\u65b9\u6574\u5099\u5c40\u4fe1\u6fc3\u5ddd\u4e0b\u6d41\u6cb3\u5ddd\u4e8b\u52d9\u6240","boring_xml_url":45,"boring_view_url":1,"soilmap_view_url":null,"soiltest_xml_url":48,"soiltest_view_url":47},{"id":246736,"code":"B4KJ201802001-2216","latitude":"37.911611","longitude":"139.039417","source_code":"HR1284306020380004","project_name":"\u8010\u9707\u5bfe\u7b56\u4e8b\u5f8c\u30c1\u30a7\u30c3\u30af\u30dc\u30fc\u30ea\u30f3\u30b0","survey_name":"\u8010\u9707\u5bfe\u7b56\u4e8b\u5f8c\u30c1\u30a7\u30c3\u30af\u30dc\u30fc\u30ea\u30f3\u30b0","client_name":"\u56fd\u571f\u4ea4\u901a\u7701 \u5317\u9678\u5730\u65b9\u6574\u5099\u5c40 \u4fe1\u6fc3\u5ddd\u4e0b\u6d41\u6cb3\u5ddd\u4e8b\u52d9\u6240","boring_xml_url":45,"boring_view_url":1,"soilmap_view_url":null,"soiltest_xml_url":45,"soiltest_view_url":44},{"id":246735,"code":"B4KJ201802001-2215","latitude":"37.909056","longitude":"139.039389","source_code":"HR1284306020080040","project_name":"\u4fe1\u6fc3\u5ddd\u4e0b\u6d41\u5824\u9632\u8010\u9707\u5730\u8cea\u8abf\u67fb\u696d\u52d9","survey_name":"\u4fe1\u6fc3\u5ddd\u4e0b\u6d41\u5824\u9632\u8010\u9707\u5730\u8cea\u8abf\u67fb\u696d\u52d9","client_name":"\u56fd\u571f\u4ea4\u901a\u7701 \u5317\u9678\u5730\u65b9\u6574\u5099\u5c40 \u4fe1\u6fc3\u5ddd\u4e0b\u6d41\u6cb3\u5ddd\u4e8b\u52d9\u6240","boring_xml_url":45,"boring_view_url":1,"soilmap_view_url":null,"soiltest_xml_url":0,"soiltest_view_url":0},{"id":246734,"code":"B4KJ201802001-2214","latitude":"37.911833","longitude":"139.039389","source_code":"HR0884306020170006","project_name":"","survey_name":"\u4fe1\u6fc3\u5ddd(\u672c\u5ddd\u4e0b\u6d41)\u5824\u9632\u8a73\u7d30\u8abf\u67fb\u696d\u52d9\u59d4\u8a17","client_name":"\u56fd\u571f\u4ea4\u901a\u7701\u5317\u9678\u5730\u65b9\u6574\u5099\u5c40\u4fe1\u6fc3\u5ddd\u4e0b\u6d41\u6cb3\u5ddd\u4e8b\u52d9\u6240","boring_xml_url":45,"boring_view_url":1,"soilmap_view_url":null,"soiltest_xml_url":48,"soiltest_view_url":47}]}}