{"header":{"xyz":{"source":[],"mosaic":false},"page":2797,"raw":{"soiltest_result":"0","bbox":"57.598333,109.544722,1.933333,163.806111","page":"2797"},"conditions":{"soiltest_result":0,"north":57.598333,"west":109.544722,"south":1.933333,"east":163.806111},"success":true,"message":""},"data":{"meta":{"total":212844,"page":2797,"pages":7095,"count":30},"values":[{"id":246643,"code":"B4KJ201802001-2123","latitude":"37.906444","longitude":"139.022","source_code":"HR1184306020150007","project_name":"","survey_name":"\u672c\u5ddd\u4e0b\u6d41\u5824\u9632\u6574\u5099\u691c\u8a0e\u696d\u52d9","client_name":"\u5317\u9678\u5730\u65b9\u6574\u5099\u5c40\u4fe1\u6fc3\u5ddd\u4e0b\u6d41\u6cb3\u5ddd\u4e8b\u52d9\u6240","boring_xml_url":45,"boring_view_url":1,"soilmap_view_url":null,"soiltest_xml_url":0,"soiltest_view_url":0},{"id":246642,"code":"B4KJ201802001-2122","latitude":"37.749194","longitude":"139.022","source_code":"HR0984325120030002","project_name":"\u5e73\u621021\u5e74\u5ea6\u7ba1\u5185\u5730\u8cea\u8abf\u67fb\u696d\u52d9\u5358\u4fa1\u5951\u7d04","survey_name":"\u767d\u6839\u30d0\u30a4\u30d1\u30b9\u5730\u76e4\u6539\u826f\u30dc\u30fc\u30ea\u30f3\u30b0\u8abf\u67fb\u696d\u52d9(NO.227+13.0)","client_name":"\u56fd\u571f\u4ea4\u901a\u7701\u5317\u9678\u5730\u65b9\u6574\u5099\u5c40\u65b0\u6f5f\u56fd\u9053\u4e8b\u52d9\u6240","boring_xml_url":45,"boring_view_url":1,"soilmap_view_url":null,"soiltest_xml_url":0,"soiltest_view_url":0},{"id":246641,"code":"B4KJ201802001-2121","latitude":"37.90625","longitude":"139.021972","source_code":"HR1184306020150001","project_name":"","survey_name":"\u672c\u5ddd\u4e0b\u6d41\u5824\u9632\u6574\u5099\u691c\u8a0e\u696d\u52d9","client_name":"\u5317\u9678\u5730\u65b9\u6574\u5099\u5c40\u4fe1\u6fc3\u5ddd\u4e0b\u6d41\u6cb3\u5ddd\u4e8b\u52d9\u6240","boring_xml_url":45,"boring_view_url":1,"soilmap_view_url":null,"soiltest_xml_url":0,"soiltest_view_url":0},{"id":246640,"code":"B4KJ201802001-2120","latitude":"37.906833","longitude":"139.021944","source_code":"HR1084325120110001","project_name":"","survey_name":"\u5343\u6b73\u5927\u6a4b\u571f\u58cc\u5bfe\u7b56\u691c\u8a0e\u696d\u52d9","client_name":"\u5317\u9678\u5730\u65b9\u6574\u5099\u5c40\u65b0\u6f5f\u56fd\u9053\u4e8b\u52d9\u6240","boring_xml_url":45,"boring_view_url":1,"soilmap_view_url":null,"soiltest_xml_url":0,"soiltest_view_url":0},{"id":246639,"code":"B4KJ201802001-2119","latitude":"37.906528","longitude":"139.021917","source_code":"HR1184306020150006","project_name":"","survey_name":"\u672c\u5ddd\u4e0b\u6d41\u5824\u9632\u6574\u5099\u691c\u8a0e\u696d\u52d9","client_name":"\u5317\u9678\u5730\u65b9\u6574\u5099\u5c40\u4fe1\u6fc3\u5ddd\u4e0b\u6d41\u6cb3\u5ddd\u4e8b\u52d9\u6240","boring_xml_url":45,"boring_view_url":1,"soilmap_view_url":null,"soiltest_xml_url":0,"soiltest_view_url":0},{"id":246638,"code":"B4KJ201802001-2118","latitude":"37.906389","longitude":"139.021917","source_code":"HR1184306020150005","project_name":"","survey_name":"\u672c\u5ddd\u4e0b\u6d41\u5824\u9632\u6574\u5099\u691c\u8a0e\u696d\u52d9","client_name":"\u5317\u9678\u5730\u65b9\u6574\u5099\u5c40\u4fe1\u6fc3\u5ddd\u4e0b\u6d41\u6cb3\u5ddd\u4e8b\u52d9\u6240","boring_xml_url":45,"boring_view_url":1,"soilmap_view_url":null,"soiltest_xml_url":0,"soiltest_view_url":0},{"id":246637,"code":"B4KJ201802001-2117","latitude":"37.906333","longitude":"139.021889","source_code":"HR1184306020150016","project_name":"","survey_name":"\u672c\u5ddd\u4e0b\u6d41\u5824\u9632\u6574\u5099\u691c\u8a0e\u696d\u52d9","client_name":"\u5317\u9678\u5730\u65b9\u6574\u5099\u5c40\u4fe1\u6fc3\u5ddd\u4e0b\u6d41\u6cb3\u5ddd\u4e8b\u52d9\u6240","boring_xml_url":45,"boring_view_url":1,"soilmap_view_url":null,"soiltest_xml_url":0,"soiltest_view_url":0},{"id":246636,"code":"B4KJ201802001-2116","latitude":"37.906472","longitude":"139.021861","source_code":"HR1184306020150024","project_name":"","survey_name":"\u672c\u5ddd\u4e0b\u6d41\u5824\u9632\u6574\u5099\u691c\u8a0e\u696d\u52d9","client_name":"\u5317\u9678\u5730\u65b9\u6574\u5099\u5c40\u4fe1\u6fc3\u5ddd\u4e0b\u6d41\u6cb3\u5ddd\u4e8b\u52d9\u6240","boring_xml_url":45,"boring_view_url":1,"soilmap_view_url":null,"soiltest_xml_url":0,"soiltest_view_url":0},{"id":246635,"code":"B4KJ201802001-2115","latitude":"37.906389","longitude":"139.021861","source_code":"HR1184306020150015","project_name":"","survey_name":"\u672c\u5ddd\u4e0b\u6d41\u5824\u9632\u6574\u5099\u691c\u8a0e\u696d\u52d9","client_name":"\u5317\u9678\u5730\u65b9\u6574\u5099\u5c40\u4fe1\u6fc3\u5ddd\u4e0b\u6d41\u6cb3\u5ddd\u4e8b\u52d9\u6240","boring_xml_url":45,"boring_view_url":1,"soilmap_view_url":null,"soiltest_xml_url":0,"soiltest_view_url":0},{"id":246634,"code":"B4KJ201802001-2114","latitude":"37.906361","longitude":"139.021861","source_code":"HR1184306020150014","project_name":"","survey_name":"\u672c\u5ddd\u4e0b\u6d41\u5824\u9632\u6574\u5099\u691c\u8a0e\u696d\u52d9","client_name":"\u5317\u9678\u5730\u65b9\u6574\u5099\u5c40\u4fe1\u6fc3\u5ddd\u4e0b\u6d41\u6cb3\u5ddd\u4e8b\u52d9\u6240","boring_xml_url":45,"boring_view_url":1,"soilmap_view_url":null,"soiltest_xml_url":0,"soiltest_view_url":0},{"id":246633,"code":"B4KJ201802001-2113","latitude":"37.906194","longitude":"139.021833","source_code":"HR1184306020150026","project_name":"","survey_name":"\u672c\u5ddd\u4e0b\u6d41\u5824\u9632\u6574\u5099\u691c\u8a0e\u696d\u52d9","client_name":"\u5317\u9678\u5730\u65b9\u6574\u5099\u5c40\u4fe1\u6fc3\u5ddd\u4e0b\u6d41\u6cb3\u5ddd\u4e8b\u52d9\u6240","boring_xml_url":45,"boring_view_url":1,"soilmap_view_url":null,"soiltest_xml_url":0,"soiltest_view_url":0},{"id":246632,"code":"B4KJ201802001-2112","latitude":"37.9065","longitude":"139.021833","source_code":"HR1184306020150021","project_name":"","survey_name":"\u672c\u5ddd\u4e0b\u6d41\u5824\u9632\u6574\u5099\u691c\u8a0e\u696d\u52d9","client_name":"\u5317\u9678\u5730\u65b9\u6574\u5099\u5c40\u4fe1\u6fc3\u5ddd\u4e0b\u6d41\u6cb3\u5ddd\u4e8b\u52d9\u6240","boring_xml_url":45,"boring_view_url":1,"soilmap_view_url":null,"soiltest_xml_url":0,"soiltest_view_url":0},{"id":246631,"code":"B4KJ201802001-2111","latitude":"37.906361","longitude":"139.021806","source_code":"HR1184306020150013","project_name":"","survey_name":"\u672c\u5ddd\u4e0b\u6d41\u5824\u9632\u6574\u5099\u691c\u8a0e\u696d\u52d9","client_name":"\u5317\u9678\u5730\u65b9\u6574\u5099\u5c40\u4fe1\u6fc3\u5ddd\u4e0b\u6d41\u6cb3\u5ddd\u4e8b\u52d9\u6240","boring_xml_url":45,"boring_view_url":1,"soilmap_view_url":null,"soiltest_xml_url":0,"soiltest_view_url":0},{"id":246630,"code":"B4KJ201802001-2110","latitude":"37.906444","longitude":"139.021806","source_code":"HR1184306020150012","project_name":"","survey_name":"\u672c\u5ddd\u4e0b\u6d41\u5824\u9632\u6574\u5099\u691c\u8a0e\u696d\u52d9","client_name":"\u5317\u9678\u5730\u65b9\u6574\u5099\u5c40\u4fe1\u6fc3\u5ddd\u4e0b\u6d41\u6cb3\u5ddd\u4e8b\u52d9\u6240","boring_xml_url":45,"boring_view_url":1,"soilmap_view_url":null,"soiltest_xml_url":0,"soiltest_view_url":0},{"id":246629,"code":"B4KJ201802001-2109","latitude":"37.906444","longitude":"139.021778","source_code":"HR1184306020150011","project_name":"","survey_name":"\u672c\u5ddd\u4e0b\u6d41\u5824\u9632\u6574\u5099\u691c\u8a0e\u696d\u52d9","client_name":"\u5317\u9678\u5730\u65b9\u6574\u5099\u5c40\u4fe1\u6fc3\u5ddd\u4e0b\u6d41\u6cb3\u5ddd\u4e8b\u52d9\u6240","boring_xml_url":45,"boring_view_url":1,"soilmap_view_url":null,"soiltest_xml_url":0,"soiltest_view_url":0},{"id":246628,"code":"B4KJ201802001-2108","latitude":"37.906417","longitude":"139.021778","source_code":"HR1184306020150004","project_name":"","survey_name":"\u672c\u5ddd\u4e0b\u6d41\u5824\u9632\u6574\u5099\u691c\u8a0e\u696d\u52d9","client_name":"\u5317\u9678\u5730\u65b9\u6574\u5099\u5c40\u4fe1\u6fc3\u5ddd\u4e0b\u6d41\u6cb3\u5ddd\u4e8b\u52d9\u6240","boring_xml_url":45,"boring_view_url":1,"soilmap_view_url":null,"soiltest_xml_url":0,"soiltest_view_url":0},{"id":246627,"code":"B4KJ201802001-2107","latitude":"37.906333","longitude":"139.021778","source_code":"HR1184306020150003","project_name":"","survey_name":"\u672c\u5ddd\u4e0b\u6d41\u5824\u9632\u6574\u5099\u691c\u8a0e\u696d\u52d9","client_name":"\u5317\u9678\u5730\u65b9\u6574\u5099\u5c40\u4fe1\u6fc3\u5ddd\u4e0b\u6d41\u6cb3\u5ddd\u4e8b\u52d9\u6240","boring_xml_url":45,"boring_view_url":1,"soilmap_view_url":null,"soiltest_xml_url":0,"soiltest_view_url":0},{"id":246626,"code":"B4KJ201802001-2106","latitude":"37.906861","longitude":"139.021778","source_code":"HR1084325120110002","project_name":"","survey_name":"\u5343\u6b73\u5927\u6a4b\u571f\u58cc\u5bfe\u7b56\u691c\u8a0e\u696d\u52d9","client_name":"\u5317\u9678\u5730\u65b9\u6574\u5099\u5c40\u65b0\u6f5f\u56fd\u9053\u4e8b\u52d9\u6240","boring_xml_url":45,"boring_view_url":1,"soilmap_view_url":null,"soiltest_xml_url":0,"soiltest_view_url":0},{"id":246625,"code":"B4KJ201802001-2105","latitude":"37.88049","longitude":"139.018421","source_code":"HR1584857820200201","project_name":"\u4e0d\u660e","survey_name":"\u65b0\u6f5f\u30d0\u30a4\u30d1\u30b9\u53ca\u307349\u53f7\u7dda\u9577\u5927\u6a4b\u57fa\u790e\u8abf\u67fb","client_name":"\u5efa\u8a2d\u7701\u65b0\u6f5f\u56fd\u9053\u5de5\u4e8b\u4e8b\u52d9\u6240","boring_xml_url":45,"boring_view_url":1,"soilmap_view_url":null,"soiltest_xml_url":0,"soiltest_view_url":0},{"id":246624,"code":"B4KJ201802001-2104","latitude":"37.906417","longitude":"139.02175","source_code":"HR1184306020150010","project_name":"","survey_name":"\u672c\u5ddd\u4e0b\u6d41\u5824\u9632\u6574\u5099\u691c\u8a0e\u696d\u52d9","client_name":"\u5317\u9678\u5730\u65b9\u6574\u5099\u5c40\u4fe1\u6fc3\u5ddd\u4e0b\u6d41\u6cb3\u5ddd\u4e8b\u52d9\u6240","boring_xml_url":45,"boring_view_url":1,"soilmap_view_url":null,"soiltest_xml_url":0,"soiltest_view_url":0},{"id":246623,"code":"B4KJ201802001-2103","latitude":"37.749278","longitude":"139.02175","source_code":"HR0984325120030001","project_name":"\u5e73\u621021\u5e74\u5ea6\u7ba1\u5185\u5730\u8cea\u8abf\u67fb\u4f5c\u696d\u5358\u4fa1\u5951\u7d04","survey_name":"\u767d\u6839\u30d0\u30a4\u30d1\u30b9\u5730\u76e4\u6539\u826f\u30dc\u30fc\u30ea\u30f3\u30b0\u8abf\u67fb\u696d\u52d9(NO.227+13.0)","client_name":"\u56fd\u571f\u4ea4\u901a\u7701\u5317\u9678\u5730\u65b9\u6574\u5099\u5c40\u65b0\u6f5f\u56fd\u9053\u4e8b\u52d9\u6240","boring_xml_url":45,"boring_view_url":1,"soilmap_view_url":null,"soiltest_xml_url":0,"soiltest_view_url":0},{"id":246622,"code":"B4KJ201802001-2102","latitude":"37.906389","longitude":"139.021722","source_code":"HR1184306020150009","project_name":"","survey_name":"\u672c\u5ddd\u4e0b\u6d41\u5824\u9632\u6574\u5099\u691c\u8a0e\u696d\u52d9","client_name":"\u5317\u9678\u5730\u65b9\u6574\u5099\u5c40\u4fe1\u6fc3\u5ddd\u4e0b\u6d41\u6cb3\u5ddd\u4e8b\u52d9\u6240","boring_xml_url":45,"boring_view_url":1,"soilmap_view_url":null,"soiltest_xml_url":0,"soiltest_view_url":0},{"id":246621,"code":"B4KJ201802001-2101","latitude":"37.906111","longitude":"139.021694","source_code":"HR1184306020150025","project_name":"","survey_name":"\u672c\u5ddd\u4e0b\u6d41\u5824\u9632\u6574\u5099\u691c\u8a0e\u696d\u52d9","client_name":"\u5317\u9678\u5730\u65b9\u6574\u5099\u5c40\u4fe1\u6fc3\u5ddd\u4e0b\u6d41\u6cb3\u5ddd\u4e8b\u52d9\u6240","boring_xml_url":45,"boring_view_url":1,"soilmap_view_url":null,"soiltest_xml_url":0,"soiltest_view_url":0},{"id":246620,"code":"B4KJ201802001-2100","latitude":"37.869306","longitude":"139.021694","source_code":"HR0584306020410005","project_name":"\u5e73\u621017\u5e74\u5ea6\u5927\u90f7\u6a4b\u4e0b\u6d41\u5de6\u5cb8\u5824\u9632\u69cb\u9020\u691c\u8a0e\u696d\u52d9\u59d4\u8a17","survey_name":"\u5e73\u621017\u5e74\u5ea6\u5927\u90f7\u6a4b\u4e0b\u6d41\u5de6\u5cb8\u5824\u9632\u69cb\u9020\u691c\u8a0e\u696d\u52d9\u59d4\u8a17","client_name":"\u56fd\u571f\u4ea4\u901a\u7701\u4fe1\u6fc3\u5ddd\u4e0b\u6d41\u6cb3\u5ddd\u4e8b\u52d9\u6240","boring_xml_url":45,"boring_view_url":1,"soilmap_view_url":null,"soiltest_xml_url":48,"soiltest_view_url":47},{"id":246619,"code":"B4KJ201802001-2099","latitude":"37.906333","longitude":"139.021667","source_code":"HR1184306020150023","project_name":"","survey_name":"\u672c\u5ddd\u4e0b\u6d41\u5824\u9632\u6574\u5099\u691c\u8a0e\u696d\u52d9","client_name":"\u5317\u9678\u5730\u65b9\u6574\u5099\u5c40\u4fe1\u6fc3\u5ddd\u4e0b\u6d41\u6cb3\u5ddd\u4e8b\u52d9\u6240","boring_xml_url":45,"boring_view_url":1,"soilmap_view_url":null,"soiltest_xml_url":0,"soiltest_view_url":0},{"id":246618,"code":"B4KJ201802001-2098","latitude":"37.906417","longitude":"139.021667","source_code":"HR1184306020150020","project_name":"","survey_name":"\u672c\u5ddd\u4e0b\u6d41\u5824\u9632\u6574\u5099\u691c\u8a0e\u696d\u52d9","client_name":"\u5317\u9678\u5730\u65b9\u6574\u5099\u5c40\u4fe1\u6fc3\u5ddd\u4e0b\u6d41\u6cb3\u5ddd\u4e8b\u52d9\u6240","boring_xml_url":45,"boring_view_url":1,"soilmap_view_url":null,"soiltest_xml_url":0,"soiltest_view_url":0},{"id":246617,"code":"B4KJ201802001-2097","latitude":"37.906806","longitude":"139.021667","source_code":"HR1084325120110003","project_name":"","survey_name":"\u5343\u6b73\u5927\u6a4b\u571f\u58cc\u5bfe\u7b56\u691c\u8a0e\u696d\u52d9","client_name":"\u5317\u9678\u5730\u65b9\u6574\u5099\u5c40\u65b0\u6f5f\u56fd\u9053\u4e8b\u52d9\u6240","boring_xml_url":45,"boring_view_url":1,"soilmap_view_url":null,"soiltest_xml_url":0,"soiltest_view_url":0},{"id":246616,"code":"B4KJ201802001-2096","latitude":"37.906667","longitude":"139.021639","source_code":"HR1084325120110004","project_name":"","survey_name":"\u5343\u6b73\u5927\u6a4b\u571f\u58cc\u5bfe\u7b56\u691c\u8a0e\u696d\u52d9","client_name":"\u5317\u9678\u5730\u65b9\u6574\u5099\u5c40\u65b0\u6f5f\u56fd\u9053\u4e8b\u52d9\u6240","boring_xml_url":45,"boring_view_url":1,"soilmap_view_url":null,"soiltest_xml_url":0,"soiltest_view_url":0},{"id":246615,"code":"B4KJ201802001-2095","latitude":"37.906389","longitude":"139.021611","source_code":"HR1184306020150019","project_name":"","survey_name":"\u672c\u5ddd\u4e0b\u6d41\u5824\u9632\u6574\u5099\u691c\u8a0e\u696d\u52d9","client_name":"\u5317\u9678\u5730\u65b9\u6574\u5099\u5c40\u4fe1\u6fc3\u5ddd\u4e0b\u6d41\u6cb3\u5ddd\u4e8b\u52d9\u6240","boring_xml_url":45,"boring_view_url":1,"soilmap_view_url":null,"soiltest_xml_url":0,"soiltest_view_url":0},{"id":246614,"code":"B4KJ201802001-2094","latitude":"37.880657","longitude":"139.018421","source_code":"HR1584857820200197","project_name":"\u4e0d\u660e","survey_name":"\u65b0\u6f5f\u5927\u6a4b\u30dc\u30fc\u30ea\u30f3\u30b0\u4f5c\u696d","client_name":"\u5efa\u8a2d\u7701\u65b0\u6f5f\u56fd\u9053\u5de5\u4e8b\u4e8b\u52d9\u6240","boring_xml_url":45,"boring_view_url":1,"soilmap_view_url":null,"soiltest_xml_url":0,"soiltest_view_url":0}]}}