{"header":{"xyz":{"source":[],"mosaic":false},"page":28,"raw":{"soiltest_result":"0","bbox":"57.598333,109.544722,1.933333,163.806111","page":"28"},"conditions":{"soiltest_result":0,"north":57.598333,"west":109.544722,"south":1.933333,"east":163.806111},"success":true,"message":""},"data":{"meta":{"total":212844,"page":28,"pages":7095,"count":30},"values":[{"id":701806,"code":"NGIC202305636-0009","latitude":"34.691737944444","longitude":"131.83138355556","source_code":"","project_name":"","survey_name":"\u4ee4\u548c5\u5e74\u5ea6\u76ca\u7530\u9053\u8def\u5730\u8cea\u8abf\u67fb\u696d\u52d9","client_name":"\u56fd\u571f\u4ea4\u901a\u7701\u4e2d\u56fd\u5730\u65b9\u6574\u5099\u5c40\u6d5c\u7530\u6cb3\u5ddd\u56fd\u9053\u4e8b\u52d9\u6240","boring_xml_url":47,"boring_view_url":1,"soilmap_view_url":null,"soiltest_xml_url":0,"soiltest_view_url":0},{"id":701805,"code":"NGIC202305636-0008","latitude":"34.692035027778","longitude":"131.83321547222","source_code":"","project_name":"","survey_name":"\u4ee4\u548c5\u5e74\u5ea6\u76ca\u7530\u9053\u8def\u5730\u8cea\u8abf\u67fb\u696d\u52d9","client_name":"\u56fd\u571f\u4ea4\u901a\u7701\u4e2d\u56fd\u5730\u65b9\u6574\u5099\u5c40\u6d5c\u7530\u6cb3\u5ddd\u56fd\u9053\u4e8b\u52d9\u6240","boring_xml_url":47,"boring_view_url":1,"soilmap_view_url":null,"soiltest_xml_url":0,"soiltest_view_url":0},{"id":701804,"code":"NGIC202305636-0007","latitude":"34.692213666667","longitude":"131.835692","source_code":"","project_name":"","survey_name":"\u4ee4\u548c5\u5e74\u5ea6\u76ca\u7530\u9053\u8def\u5730\u8cea\u8abf\u67fb\u696d\u52d9","client_name":"\u56fd\u571f\u4ea4\u901a\u7701\u4e2d\u56fd\u5730\u65b9\u6574\u5099\u5c40\u6d5c\u7530\u6cb3\u5ddd\u56fd\u9053\u4e8b\u52d9\u6240","boring_xml_url":47,"boring_view_url":1,"soilmap_view_url":null,"soiltest_xml_url":0,"soiltest_view_url":0},{"id":701803,"code":"NGIC202305636-0006","latitude":"34.692230666667","longitude":"131.83803936111","source_code":"","project_name":"","survey_name":"\u4ee4\u548c5\u5e74\u5ea6\u76ca\u7530\u9053\u8def\u5730\u8cea\u8abf\u67fb\u696d\u52d9","client_name":"\u56fd\u571f\u4ea4\u901a\u7701\u4e2d\u56fd\u5730\u65b9\u6574\u5099\u5c40\u6d5c\u7530\u6cb3\u5ddd\u56fd\u9053\u4e8b\u52d9\u6240","boring_xml_url":47,"boring_view_url":1,"soilmap_view_url":null,"soiltest_xml_url":47,"soiltest_view_url":47},{"id":701802,"code":"NGIC202305636-0005","latitude":"34.693051","longitude":"131.84055483333","source_code":"","project_name":"","survey_name":"\u4ee4\u548c5\u5e74\u5ea6\u76ca\u7530\u9053\u8def\u5730\u8cea\u8abf\u67fb\u696d\u52d9","client_name":"\u56fd\u571f\u4ea4\u901a\u7701\u4e2d\u56fd\u5730\u65b9\u6574\u5099\u5c40\u6d5c\u7530\u6cb3\u5ddd\u56fd\u9053\u4e8b\u52d9\u6240","boring_xml_url":47,"boring_view_url":1,"soilmap_view_url":null,"soiltest_xml_url":0,"soiltest_view_url":0},{"id":701801,"code":"NGIC202305636-0004","latitude":"34.693921333333","longitude":"131.84287638889","source_code":"","project_name":"","survey_name":"\u4ee4\u548c5\u5e74\u5ea6\u76ca\u7530\u9053\u8def\u5730\u8cea\u8abf\u67fb\u696d\u52d9","client_name":"\u56fd\u571f\u4ea4\u901a\u7701\u4e2d\u56fd\u5730\u65b9\u6574\u5099\u5c40\u6d5c\u7530\u6cb3\u5ddd\u56fd\u9053\u4e8b\u52d9\u6240","boring_xml_url":47,"boring_view_url":1,"soilmap_view_url":null,"soiltest_xml_url":0,"soiltest_view_url":0},{"id":701800,"code":"NGIC202305636-0003","latitude":"34.694336666667","longitude":"131.84390072222","source_code":"","project_name":"","survey_name":"\u4ee4\u548c5\u5e74\u5ea6\u76ca\u7530\u9053\u8def\u5730\u8cea\u8abf\u67fb\u696d\u52d9","client_name":"\u56fd\u571f\u4ea4\u901a\u7701\u4e2d\u56fd\u5730\u65b9\u6574\u5099\u5c40\u6d5c\u7530\u6cb3\u5ddd\u56fd\u9053\u4e8b\u52d9\u6240","boring_xml_url":47,"boring_view_url":1,"soilmap_view_url":null,"soiltest_xml_url":0,"soiltest_view_url":0},{"id":701799,"code":"NGIC202305636-0002","latitude":"34.696613027778","longitude":"131.84883175","source_code":"","project_name":"","survey_name":"\u4ee4\u548c5\u5e74\u5ea6\u76ca\u7530\u9053\u8def\u5730\u8cea\u8abf\u67fb\u696d\u52d9","client_name":"\u56fd\u571f\u4ea4\u901a\u7701\u4e2d\u56fd\u5730\u65b9\u6574\u5099\u5c40\u6d5c\u7530\u6cb3\u5ddd\u56fd\u9053\u4e8b\u52d9\u6240","boring_xml_url":47,"boring_view_url":1,"soilmap_view_url":null,"soiltest_xml_url":0,"soiltest_view_url":0},{"id":701798,"code":"NGIC202305636-0001","latitude":"34.696891944444","longitude":"131.84932861111","source_code":"","project_name":"","survey_name":"\u4ee4\u548c5\u5e74\u5ea6\u76ca\u7530\u9053\u8def\u5730\u8cea\u8abf\u67fb\u696d\u52d9","client_name":"\u56fd\u571f\u4ea4\u901a\u7701\u4e2d\u56fd\u5730\u65b9\u6574\u5099\u5c40\u6d5c\u7530\u6cb3\u5ddd\u56fd\u9053\u4e8b\u52d9\u6240","boring_xml_url":47,"boring_view_url":1,"soilmap_view_url":null,"soiltest_xml_url":0,"soiltest_view_url":0},{"id":701716,"code":"NGIC202306069-0009","latitude":"37.221213888889","longitude":"138.77625833333","source_code":"","project_name":"\u4ee4\u548c5\u5e74\u5ea6\u4fe1\u6fc3\u5ddd\u6cb3\u5ddd\u4e8b\u52d9\u6240\u7ba1\u5185\u5730\u8cea\u8abf\u67fb\u696d\u52d9 \u5c0f\u5343\u8c37\u5e02\u771f\u4eba\u5730\u533a\u5730\u8cea\u8abf\u67fb","survey_name":"\u4ee4\u548c5\u5e74\u5ea6\u4fe1\u6fc3\u5ddd\u6cb3\u5ddd\u4e8b\u52d9\u6240\u7ba1\u5185\u5730\u8cea\u8abf\u67fb\u696d\u52d9 \u5c0f\u5343\u8c37\u5e02\u771f\u4eba\u5730\u533a\u5730\u8cea\u8abf\u67fb","client_name":"\u56fd\u571f\u4ea4\u901a\u7701\u5317\u9678\u5730\u65b9\u6574\u5099\u5c40\u4fe1\u6fc3\u5ddd\u6cb3\u5ddd\u4e8b\u52d9\u6240","boring_xml_url":47,"boring_view_url":1,"soilmap_view_url":null,"soiltest_xml_url":0,"soiltest_view_url":0},{"id":701715,"code":"NGIC202306069-0008","latitude":"37.223505555556","longitude":"138.77778333333","source_code":"","project_name":"\u4ee4\u548c5\u5e74\u5ea6\u4fe1\u6fc3\u5ddd\u6cb3\u5ddd\u4e8b\u52d9\u6240\u7ba1\u5185\u5730\u8cea\u8abf\u67fb\u696d\u52d9 \u5c0f\u5343\u8c37\u5e02\u771f\u4eba\u5730\u533a\u5730\u8cea\u8abf\u67fb","survey_name":"\u4ee4\u548c5\u5e74\u5ea6\u4fe1\u6fc3\u5ddd\u6cb3\u5ddd\u4e8b\u52d9\u6240\u7ba1\u5185\u5730\u8cea\u8abf\u67fb\u696d\u52d9 \u5c0f\u5343\u8c37\u5e02\u771f\u4eba\u5730\u533a\u5730\u8cea\u8abf\u67fb","client_name":"\u56fd\u571f\u4ea4\u901a\u7701\u5317\u9678\u5730\u65b9\u6574\u5099\u5c40\u4fe1\u6fc3\u5ddd\u6cb3\u5ddd\u4e8b\u52d9\u6240","boring_xml_url":47,"boring_view_url":1,"soilmap_view_url":null,"soiltest_xml_url":0,"soiltest_view_url":0},{"id":701714,"code":"NGIC202306069-0007","latitude":"37.225022222222","longitude":"138.77852777778","source_code":"","project_name":"\u4ee4\u548c5\u5e74\u5ea6\u4fe1\u6fc3\u5ddd\u6cb3\u5ddd\u4e8b\u52d9\u6240\u7ba1\u5185\u5730\u8cea\u8abf\u67fb\u696d\u52d9 \u5c0f\u5343\u8c37\u5e02\u771f\u4eba\u5730\u533a\u5730\u8cea\u8abf\u67fb","survey_name":"\u4ee4\u548c5\u5e74\u5ea6\u4fe1\u6fc3\u5ddd\u6cb3\u5ddd\u4e8b\u52d9\u6240\u7ba1\u5185\u5730\u8cea\u8abf\u67fb\u696d\u52d9 \u5c0f\u5343\u8c37\u5e02\u771f\u4eba\u5730\u533a\u5730\u8cea\u8abf\u67fb","client_name":"\u56fd\u571f\u4ea4\u901a\u7701\u5317\u9678\u5730\u65b9\u6574\u5099\u5c40\u4fe1\u6fc3\u5ddd\u6cb3\u5ddd\u4e8b\u52d9\u6240","boring_xml_url":47,"boring_view_url":1,"soilmap_view_url":null,"soiltest_xml_url":0,"soiltest_view_url":0},{"id":701713,"code":"NGIC202306069-0006","latitude":"37.227044444444","longitude":"138.77899722222","source_code":"","project_name":"\u4ee4\u548c5\u5e74\u5ea6\u4fe1\u6fc3\u5ddd\u6cb3\u5ddd\u4e8b\u52d9\u6240\u7ba1\u5185\u5730\u8cea\u8abf\u67fb\u696d\u52d9 \u5c0f\u5343\u8c37\u5e02\u771f\u4eba\u5730\u533a\u5730\u8cea\u8abf\u67fb","survey_name":"\u4ee4\u548c5\u5e74\u5ea6\u4fe1\u6fc3\u5ddd\u6cb3\u5ddd\u4e8b\u52d9\u6240\u7ba1\u5185\u5730\u8cea\u8abf\u67fb\u696d\u52d9 \u5c0f\u5343\u8c37\u5e02\u771f\u4eba\u5730\u533a\u5730\u8cea\u8abf\u67fb","client_name":"\u56fd\u571f\u4ea4\u901a\u7701\u5317\u9678\u5730\u65b9\u6574\u5099\u5c40\u4fe1\u6fc3\u5ddd\u6cb3\u5ddd\u4e8b\u52d9\u6240","boring_xml_url":47,"boring_view_url":1,"soilmap_view_url":null,"soiltest_xml_url":0,"soiltest_view_url":0},{"id":701712,"code":"NGIC202306069-0005","latitude":"37.228736111111","longitude":"138.77868333333","source_code":"","project_name":"\u4ee4\u548c5\u5e74\u5ea6\u4fe1\u6fc3\u5ddd\u6cb3\u5ddd\u4e8b\u52d9\u6240\u7ba1\u5185\u5730\u8cea\u8abf\u67fb\u696d\u52d9 \u5c0f\u5343\u8c37\u5e02\u771f\u4eba\u5730\u533a\u5730\u8cea\u8abf\u67fb","survey_name":"\u4ee4\u548c5\u5e74\u5ea6\u4fe1\u6fc3\u5ddd\u6cb3\u5ddd\u4e8b\u52d9\u6240\u7ba1\u5185\u5730\u8cea\u8abf\u67fb\u696d\u52d9 \u5c0f\u5343\u8c37\u5e02\u771f\u4eba\u5730\u533a\u5730\u8cea\u8abf\u67fb","client_name":"\u56fd\u571f\u4ea4\u901a\u7701\u5317\u9678\u5730\u65b9\u6574\u5099\u5c40\u4fe1\u6fc3\u5ddd\u6cb3\u5ddd\u4e8b\u52d9\u6240","boring_xml_url":47,"boring_view_url":1,"soilmap_view_url":null,"soiltest_xml_url":0,"soiltest_view_url":0},{"id":701711,"code":"NGIC202306069-0004","latitude":"37.230294444444","longitude":"138.77777777778","source_code":"","project_name":"\u4ee4\u548c5\u5e74\u5ea6\u4fe1\u6fc3\u5ddd\u6cb3\u5ddd\u4e8b\u52d9\u6240\u7ba1\u5185\u5730\u8cea\u8abf\u67fb\u696d\u52d9 \u5c0f\u5343\u8c37\u5e02\u771f\u4eba\u5730\u533a\u5730\u8cea\u8abf\u67fb","survey_name":"\u4ee4\u548c5\u5e74\u5ea6\u4fe1\u6fc3\u5ddd\u6cb3\u5ddd\u4e8b\u52d9\u6240\u7ba1\u5185\u5730\u8cea\u8abf\u67fb\u696d\u52d9 \u5c0f\u5343\u8c37\u5e02\u771f\u4eba\u5730\u533a\u5730\u8cea\u8abf\u67fb","client_name":"\u56fd\u571f\u4ea4\u901a\u7701\u5317\u9678\u5730\u65b9\u6574\u5099\u5c40\u4fe1\u6fc3\u5ddd\u6cb3\u5ddd\u4e8b\u52d9\u6240","boring_xml_url":47,"boring_view_url":1,"soilmap_view_url":null,"soiltest_xml_url":0,"soiltest_view_url":0},{"id":701710,"code":"NGIC202306069-0003","latitude":"37.231041666667","longitude":"138.77792777778","source_code":"","project_name":"\u4ee4\u548c5\u5e74\u5ea6\u4fe1\u6fc3\u5ddd\u6cb3\u5ddd\u4e8b\u52d9\u6240\u7ba1\u5185\u5730\u8cea\u8abf\u67fb\u696d\u52d9 \u5c0f\u5343\u8c37\u5e02\u771f\u4eba\u5730\u533a\u5730\u8cea\u8abf\u67fb","survey_name":"\u4ee4\u548c5\u5e74\u5ea6\u4fe1\u6fc3\u5ddd\u6cb3\u5ddd\u4e8b\u52d9\u6240\u7ba1\u5185\u5730\u8cea\u8abf\u67fb\u696d\u52d9 \u5c0f\u5343\u8c37\u5e02\u771f\u4eba\u5730\u533a\u5730\u8cea\u8abf\u67fb","client_name":"\u56fd\u571f\u4ea4\u901a\u7701\u5317\u9678\u5730\u65b9\u6574\u5099\u5c40\u4fe1\u6fc3\u5ddd\u6cb3\u5ddd\u4e8b\u52d9\u6240","boring_xml_url":47,"boring_view_url":1,"soilmap_view_url":null,"soiltest_xml_url":47,"soiltest_view_url":47},{"id":701709,"code":"NGIC202306069-0002","latitude":"37.231130555556","longitude":"138.77698333333","source_code":"","project_name":"\u4ee4\u548c5\u5e74\u5ea6\u4fe1\u6fc3\u5ddd\u6cb3\u5ddd\u4e8b\u52d9\u6240\u7ba1\u5185\u5730\u8cea\u8abf\u67fb\u696d\u52d9 \u5c0f\u5343\u8c37\u5e02\u771f\u4eba\u5730\u533a\u5730\u8cea\u8abf\u67fb","survey_name":"\u4ee4\u548c5\u5e74\u5ea6\u4fe1\u6fc3\u5ddd\u6cb3\u5ddd\u4e8b\u52d9\u6240\u7ba1\u5185\u5730\u8cea\u8abf\u67fb\u696d\u52d9 \u5c0f\u5343\u8c37\u5e02\u771f\u4eba\u5730\u533a\u5730\u8cea\u8abf\u67fb","client_name":"\u56fd\u571f\u4ea4\u901a\u7701\u5317\u9678\u5730\u65b9\u6574\u5099\u5c40\u4fe1\u6fc3\u5ddd\u6cb3\u5ddd\u4e8b\u52d9\u6240","boring_xml_url":47,"boring_view_url":1,"soilmap_view_url":null,"soiltest_xml_url":47,"soiltest_view_url":47},{"id":701708,"code":"NGIC202306069-0001","latitude":"37.229688888889","longitude":"138.77646944444","source_code":"","project_name":"\u4ee4\u548c5\u5e74\u5ea6\u4fe1\u6fc3\u5ddd\u6cb3\u5ddd\u4e8b\u52d9\u6240\u7ba1\u5185\u5730\u8cea\u8abf\u67fb\u696d\u52d9 \u5c0f\u5343\u8c37\u5e02\u771f\u4eba\u5730\u533a\u5730\u8cea\u8abf\u67fb","survey_name":"\u4ee4\u548c5\u5e74\u5ea6\u4fe1\u6fc3\u5ddd\u6cb3\u5ddd\u4e8b\u52d9\u6240\u7ba1\u5185\u5730\u8cea\u8abf\u67fb\u696d\u52d9 \u5c0f\u5343\u8c37\u5e02\u771f\u4eba\u5730\u533a\u5730\u8cea\u8abf\u67fb","client_name":"\u56fd\u571f\u4ea4\u901a\u7701\u5317\u9678\u5730\u65b9\u6574\u5099\u5c40\u4fe1\u6fc3\u5ddd\u6cb3\u5ddd\u4e8b\u52d9\u6240","boring_xml_url":47,"boring_view_url":1,"soilmap_view_url":null,"soiltest_xml_url":47,"soiltest_view_url":47},{"id":701703,"code":"NGIC202305772-0024","latitude":"33.514833583333","longitude":"135.81670875","source_code":"","project_name":"","survey_name":"\u4e32\u672c\u592a\u5730\u9053\u8def\u4e32\u672c\u897f\u5730\u533a\u4ed6\u5730\u8cea\u8abf\u67fb\u696d\u52d9","client_name":"\u56fd\u571f\u4ea4\u901a\u7701\u8fd1\u757f\u5730\u65b9\u6574\u5099\u5c40\u7d00\u5357\u6cb3\u5ddd\u56fd\u9053\u4e8b\u52d9\u6240","boring_xml_url":47,"boring_view_url":1,"soilmap_view_url":null,"soiltest_xml_url":47,"soiltest_view_url":47},{"id":701702,"code":"NGIC202305772-0023","latitude":"33.514712722222","longitude":"135.812567","source_code":"","project_name":"","survey_name":"\u4e32\u672c\u592a\u5730\u9053\u8def\u4e32\u672c\u897f\u5730\u533a\u4ed6\u5730\u8cea\u8abf\u67fb\u696d\u52d9","client_name":"\u56fd\u571f\u4ea4\u901a\u7701\u8fd1\u757f\u5730\u65b9\u6574\u5099\u5c40\u7d00\u5357\u6cb3\u5ddd\u56fd\u9053\u4e8b\u52d9\u6240","boring_xml_url":47,"boring_view_url":1,"soilmap_view_url":null,"soiltest_xml_url":47,"soiltest_view_url":47},{"id":701701,"code":"NGIC202305772-0022","latitude":"33.514261416667","longitude":"135.81291263889","source_code":"","project_name":"","survey_name":"\u4e32\u672c\u592a\u5730\u9053\u8def\u4e32\u672c\u897f\u5730\u533a\u4ed6\u5730\u8cea\u8abf\u67fb\u696d\u52d9","client_name":"\u56fd\u571f\u4ea4\u901a\u7701\u8fd1\u757f\u5730\u65b9\u6574\u5099\u5c40\u7d00\u5357\u6cb3\u5ddd\u56fd\u9053\u4e8b\u52d9\u6240","boring_xml_url":47,"boring_view_url":1,"soilmap_view_url":null,"soiltest_xml_url":47,"soiltest_view_url":47},{"id":701700,"code":"NGIC202305772-0021","latitude":"33.515675361111","longitude":"135.81396947222","source_code":"","project_name":"","survey_name":"\u4e32\u672c\u592a\u5730\u9053\u8def\u4e32\u672c\u897f\u5730\u533a\u4ed6\u5730\u8cea\u8abf\u67fb\u696d\u52d9","client_name":"\u56fd\u571f\u4ea4\u901a\u7701\u8fd1\u757f\u5730\u65b9\u6574\u5099\u5c40\u7d00\u5357\u6cb3\u5ddd\u56fd\u9053\u4e8b\u52d9\u6240","boring_xml_url":47,"boring_view_url":1,"soilmap_view_url":null,"soiltest_xml_url":0,"soiltest_view_url":0},{"id":701699,"code":"NGIC202305772-0020","latitude":"33.515316777778","longitude":"135.81395269444","source_code":"","project_name":"","survey_name":"\u4e32\u672c\u592a\u5730\u9053\u8def\u4e32\u672c\u897f\u5730\u533a\u4ed6\u5730\u8cea\u8abf\u67fb\u696d\u52d9","client_name":"\u56fd\u571f\u4ea4\u901a\u7701\u8fd1\u757f\u5730\u65b9\u6574\u5099\u5c40\u7d00\u5357\u6cb3\u5ddd\u56fd\u9053\u4e8b\u52d9\u6240","boring_xml_url":47,"boring_view_url":1,"soilmap_view_url":null,"soiltest_xml_url":0,"soiltest_view_url":0},{"id":701698,"code":"NGIC202305772-0019","latitude":"33.514607611111","longitude":"135.81392102778","source_code":"","project_name":"","survey_name":"\u4e32\u672c\u592a\u5730\u9053\u8def\u4e32\u672c\u897f\u5730\u533a\u4ed6\u5730\u8cea\u8abf\u67fb\u696d\u52d9","client_name":"\u56fd\u571f\u4ea4\u901a\u7701\u8fd1\u757f\u5730\u65b9\u6574\u5099\u5c40\u7d00\u5357\u6cb3\u5ddd\u56fd\u9053\u4e8b\u52d9\u6240","boring_xml_url":47,"boring_view_url":1,"soilmap_view_url":null,"soiltest_xml_url":47,"soiltest_view_url":47},{"id":701697,"code":"NGIC202305772-0018","latitude":"33.514470305556","longitude":"135.81372075","source_code":"","project_name":"","survey_name":"\u4e32\u672c\u592a\u5730\u9053\u8def\u4e32\u672c\u897f\u5730\u533a\u4ed6\u5730\u8cea\u8abf\u67fb\u696d\u52d9","client_name":"\u56fd\u571f\u4ea4\u901a\u7701\u8fd1\u757f\u5730\u65b9\u6574\u5099\u5c40\u7d00\u5357\u6cb3\u5ddd\u56fd\u9053\u4e8b\u52d9\u6240","boring_xml_url":47,"boring_view_url":1,"soilmap_view_url":null,"soiltest_xml_url":47,"soiltest_view_url":47},{"id":701696,"code":"NGIC202305772-0017","latitude":"33.514088277778","longitude":"135.81376038889","source_code":"","project_name":"","survey_name":"\u4e32\u672c\u592a\u5730\u9053\u8def\u4e32\u672c\u897f\u5730\u533a\u4ed6\u5730\u8cea\u8abf\u67fb\u696d\u52d9","client_name":"\u56fd\u571f\u4ea4\u901a\u7701\u8fd1\u757f\u5730\u65b9\u6574\u5099\u5c40\u7d00\u5357\u6cb3\u5ddd\u56fd\u9053\u4e8b\u52d9\u6240","boring_xml_url":47,"boring_view_url":1,"soilmap_view_url":null,"soiltest_xml_url":0,"soiltest_view_url":0},{"id":701695,"code":"NGIC202305772-0016","latitude":"33.510979861111","longitude":"135.81417158333","source_code":"","project_name":"","survey_name":"\u4e32\u672c\u592a\u5730\u9053\u8def\u4e32\u672c\u897f\u5730\u533a\u4ed6\u5730\u8cea\u8abf\u67fb\u696d\u52d9","client_name":"\u56fd\u571f\u4ea4\u901a\u7701\u8fd1\u757f\u5730\u65b9\u6574\u5099\u5c40\u7d00\u5357\u6cb3\u5ddd\u56fd\u9053\u4e8b\u52d9\u6240","boring_xml_url":47,"boring_view_url":1,"soilmap_view_url":null,"soiltest_xml_url":47,"soiltest_view_url":47},{"id":701694,"code":"NGIC202305772-0015","latitude":"33.510949138889","longitude":"135.81499391667","source_code":"","project_name":"","survey_name":"\u4e32\u672c\u592a\u5730\u9053\u8def\u4e32\u672c\u897f\u5730\u533a\u4ed6\u5730\u8cea\u8abf\u67fb\u696d\u52d9","client_name":"\u56fd\u571f\u4ea4\u901a\u7701\u8fd1\u757f\u5730\u65b9\u6574\u5099\u5c40\u7d00\u5357\u6cb3\u5ddd\u56fd\u9053\u4e8b\u52d9\u6240","boring_xml_url":47,"boring_view_url":1,"soilmap_view_url":null,"soiltest_xml_url":47,"soiltest_view_url":47},{"id":701693,"code":"NGIC202305772-0014","latitude":"33.512118027778","longitude":"135.81316338889","source_code":"","project_name":"","survey_name":"\u4e32\u672c\u592a\u5730\u9053\u8def\u4e32\u672c\u897f\u5730\u533a\u4ed6\u5730\u8cea\u8abf\u67fb\u696d\u52d9","client_name":"\u56fd\u571f\u4ea4\u901a\u7701\u8fd1\u757f\u5730\u65b9\u6574\u5099\u5c40\u7d00\u5357\u6cb3\u5ddd\u56fd\u9053\u4e8b\u52d9\u6240","boring_xml_url":47,"boring_view_url":1,"soilmap_view_url":null,"soiltest_xml_url":0,"soiltest_view_url":0},{"id":701692,"code":"NGIC202305772-0013","latitude":"33.51145425","longitude":"135.81270491667","source_code":"","project_name":"","survey_name":"\u4e32\u672c\u592a\u5730\u9053\u8def\u4e32\u672c\u897f\u5730\u533a\u4ed6\u5730\u8cea\u8abf\u67fb\u696d\u52d9","client_name":"\u56fd\u571f\u4ea4\u901a\u7701\u8fd1\u757f\u5730\u65b9\u6574\u5099\u5c40\u7d00\u5357\u6cb3\u5ddd\u56fd\u9053\u4e8b\u52d9\u6240","boring_xml_url":47,"boring_view_url":1,"soilmap_view_url":null,"soiltest_xml_url":47,"soiltest_view_url":47}]}}