{"header":{"xyz":{"source":[],"mosaic":false},"page":280,"raw":{"soiltest_result":"0","bbox":"57.598333,109.544722,1.933333,163.806111","page":"280"},"conditions":{"soiltest_result":0,"north":57.598333,"west":109.544722,"south":1.933333,"east":163.806111},"success":true,"message":""},"data":{"meta":{"total":212844,"page":280,"pages":7095,"count":30},"values":[{"id":572338,"code":"NGIC202204702-0006","latitude":"43.160247222222","longitude":"143.79255","source_code":"","project_name":"","survey_name":"\u91e7\u8def\u9053\u8def\u4e8b\u52d9\u6240\u7ba1\u5185\u5916\u5730\u8cea\u8abf\u67fb\u696d\u52d9","client_name":"\u56fd\u571f\u4ea4\u901a\u7701\u5317\u6d77\u9053\u958b\u767a\u5c40\u91e7\u8def\u958b\u767a\u5efa\u8a2d\u90e8\u672c\u90e8","boring_xml_url":47,"boring_view_url":1,"soilmap_view_url":null,"soiltest_xml_url":0,"soiltest_view_url":0},{"id":572337,"code":"NGIC202204702-0005","latitude":"43.4411","longitude":"144.048675","source_code":"","project_name":"","survey_name":"\u91e7\u8def\u9053\u8def\u4e8b\u52d9\u6240\u7ba1\u5185\u5916\u5730\u8cea\u8abf\u67fb\u696d\u52d9","client_name":"\u56fd\u571f\u4ea4\u901a\u7701\u5317\u6d77\u9053\u958b\u767a\u5c40\u91e7\u8def\u958b\u767a\u5efa\u8a2d\u90e8\u672c\u90e8","boring_xml_url":47,"boring_view_url":1,"soilmap_view_url":null,"soiltest_xml_url":0,"soiltest_view_url":0},{"id":572336,"code":"NGIC202204702-0004","latitude":"43.440413888889","longitude":"144.04997222222","source_code":"","project_name":"","survey_name":"\u91e7\u8def\u9053\u8def\u4e8b\u52d9\u6240\u7ba1\u5185\u5916\u5730\u8cea\u8abf\u67fb\u696d\u52d9","client_name":"\u56fd\u571f\u4ea4\u901a\u7701\u5317\u6d77\u9053\u958b\u767a\u5c40\u91e7\u8def\u958b\u767a\u5efa\u8a2d\u90e8\u672c\u90e8","boring_xml_url":47,"boring_view_url":1,"soilmap_view_url":null,"soiltest_xml_url":0,"soiltest_view_url":0},{"id":572335,"code":"NGIC202204702-0003","latitude":"43.438858333333","longitude":"144.05372222222","source_code":"","project_name":"","survey_name":"\u91e7\u8def\u9053\u8def\u4e8b\u52d9\u6240\u7ba1\u5185\u5916\u5730\u8cea\u8abf\u67fb\u696d\u52d9","client_name":"\u56fd\u571f\u4ea4\u901a\u7701\u5317\u6d77\u9053\u958b\u767a\u5c40\u91e7\u8def\u958b\u767a\u5efa\u8a2d\u90e8\u672c\u90e8","boring_xml_url":47,"boring_view_url":1,"soilmap_view_url":null,"soiltest_xml_url":0,"soiltest_view_url":0},{"id":572334,"code":"NGIC202204702-0002","latitude":"43.350930555556","longitude":"144.13149166667","source_code":"","project_name":"","survey_name":"\u91e7\u8def\u9053\u8def\u4e8b\u52d9\u6240\u7ba1\u5185\u5916\u5730\u8cea\u8abf\u67fb\u696d\u52d9","client_name":"\u56fd\u571f\u4ea4\u901a\u7701\u5317\u6d77\u9053\u958b\u767a\u5c40\u91e7\u8def\u958b\u767a\u5efa\u8a2d\u90e8\u672c\u90e8","boring_xml_url":47,"boring_view_url":1,"soilmap_view_url":null,"soiltest_xml_url":0,"soiltest_view_url":0},{"id":572333,"code":"NGIC202204702-0001","latitude":"43.002877777778","longitude":"144.41885555556","source_code":"","project_name":"","survey_name":"\u91e7\u8def\u9053\u8def\u4e8b\u52d9\u6240\u7ba1\u5185\u5916\u5730\u8cea\u8abf\u67fb\u696d\u52d9","client_name":"\u56fd\u571f\u4ea4\u901a\u7701\u5317\u6d77\u9053\u958b\u767a\u5c40\u91e7\u8def\u958b\u767a\u5efa\u8a2d\u90e8\u672c\u90e8","boring_xml_url":47,"boring_view_url":1,"soilmap_view_url":null,"soiltest_xml_url":47,"soiltest_view_url":47},{"id":572327,"code":"NGIC202204498-0005","latitude":"33.851175222222","longitude":"135.76467952778","source_code":"","project_name":"","survey_name":"\u7d00\u4f0a\u5c71\u7cfb\u571f\u7802\u30fb\u6d2a\u6c34\u6c3e\u6feb\u5bfe\u7b56\u65bd\u8a2d\u4ed6\u8a2d\u8a08\u696d\u52d9","client_name":"\u56fd\u571f\u4ea4\u901a\u7701\u8fd1\u757f\u5730\u65b9\u6574\u5099\u5c40\u7d00\u4f0a\u5c71\u7cfb\u7802\u9632\u4e8b\u52d9\u6240","boring_xml_url":47,"boring_view_url":1,"soilmap_view_url":null,"soiltest_xml_url":0,"soiltest_view_url":0},{"id":572326,"code":"NGIC202204498-0004","latitude":"33.851869777778","longitude":"135.76345666667","source_code":"","project_name":"","survey_name":"\u7d00\u4f0a\u5c71\u7cfb\u571f\u7802\u30fb\u6d2a\u6c34\u6c3e\u6feb\u5bfe\u7b56\u65bd\u8a2d\u4ed6\u8a2d\u8a08\u696d\u52d9","client_name":"\u56fd\u571f\u4ea4\u901a\u7701\u8fd1\u757f\u5730\u65b9\u6574\u5099\u5c40\u7d00\u4f0a\u5c71\u7cfb\u7802\u9632\u4e8b\u52d9\u6240","boring_xml_url":47,"boring_view_url":1,"soilmap_view_url":null,"soiltest_xml_url":0,"soiltest_view_url":0},{"id":572325,"code":"NGIC202204498-0003","latitude":"33.852093472222","longitude":"135.76375791667","source_code":"","project_name":"","survey_name":"\u7d00\u4f0a\u5c71\u7cfb\u571f\u7802\u30fb\u6d2a\u6c34\u6c3e\u6feb\u5bfe\u7b56\u65bd\u8a2d\u4ed6\u8a2d\u8a08\u696d\u52d9","client_name":"\u56fd\u571f\u4ea4\u901a\u7701\u8fd1\u757f\u5730\u65b9\u6574\u5099\u5c40\u7d00\u4f0a\u5c71\u7cfb\u7802\u9632\u4e8b\u52d9\u6240","boring_xml_url":47,"boring_view_url":1,"soilmap_view_url":null,"soiltest_xml_url":0,"soiltest_view_url":0},{"id":572324,"code":"NGIC202204498-0002","latitude":"33.852200277778","longitude":"135.76329066667","source_code":"","project_name":"","survey_name":"\u7d00\u4f0a\u5c71\u7cfb\u571f\u7802\u30fb\u6d2a\u6c34\u6c3e\u6feb\u5bfe\u7b56\u65bd\u8a2d\u4ed6\u8a2d\u8a08\u696d\u52d9","client_name":"\u56fd\u571f\u4ea4\u901a\u7701\u8fd1\u757f\u5730\u65b9\u6574\u5099\u5c40\u7d00\u4f0a\u5c71\u7cfb\u7802\u9632\u4e8b\u52d9\u6240","boring_xml_url":47,"boring_view_url":1,"soilmap_view_url":null,"soiltest_xml_url":0,"soiltest_view_url":0},{"id":572323,"code":"NGIC202204498-0001","latitude":"33.852128777778","longitude":"135.76352919444","source_code":"","project_name":"","survey_name":"\u7d00\u4f0a\u5c71\u7cfb\u571f\u7802\u30fb\u6d2a\u6c34\u6c3e\u6feb\u5bfe\u7b56\u65bd\u8a2d\u4ed6\u8a2d\u8a08\u696d\u52d9","client_name":"\u56fd\u571f\u4ea4\u901a\u7701\u8fd1\u757f\u5730\u65b9\u6574\u5099\u5c40\u7d00\u4f0a\u5c71\u7cfb\u7802\u9632\u4e8b\u52d9\u6240","boring_xml_url":47,"boring_view_url":1,"soilmap_view_url":null,"soiltest_xml_url":0,"soiltest_view_url":0},{"id":572319,"code":"NGIC202204716-0001","latitude":"43.810866666667","longitude":"143.78905833333","source_code":"","project_name":"\u56fd\u55b6\u304b\u3093\u304c\u3044\u6392\u6c34\u4e8b\u696d","survey_name":"\u4ee4\u548c4\u5e74\u5ea6\u65bd\u884c\u5317\u898b\u4e8c\u671f\u5730\u533a\u76f8\u5185\u9001\u6c34\u5e79\u7dda\u7528\u6c34\u8def\u8a2d\u8a08\u7b49\u696d\u52d9","client_name":"\u56fd\u571f\u4ea4\u901a\u7701\u5317\u6d77\u9053\u958b\u767a\u5c40\u7db2\u8d70\u958b\u767a\u5efa\u8a2d\u90e8\u5317\u898b\u8fb2\u696d\u4e8b\u52d9\u6240","boring_xml_url":47,"boring_view_url":1,"soilmap_view_url":null,"soiltest_xml_url":47,"soiltest_view_url":47},{"id":572300,"code":"NGIC202204546-0005","latitude":"34.736344444444","longitude":"135.7179575","source_code":"","project_name":"","survey_name":"\u6e05\u6edd\u751f\u99d2\u9053\u8def\u5357\u5927\u89d2\u5730\u533a\u4ed6\u9053\u8def\u8a73\u7d30\u4fee\u6b63\u8a2d\u8a08\u696d\u52d9","client_name":"\u56fd\u571f\u4ea4\u901a\u7701\u8fd1\u757f\u5730\u65b9\u6574\u5099\u5c40\u6d6a\u901f\u56fd\u9053\u4e8b\u52d9\u6240","boring_xml_url":47,"boring_view_url":1,"soilmap_view_url":null,"soiltest_xml_url":0,"soiltest_view_url":0},{"id":572299,"code":"NGIC202204546-0004","latitude":"34.736599166667","longitude":"135.71829888889","source_code":"","project_name":"","survey_name":"\u6e05\u6edd\u751f\u99d2\u9053\u8def\u5357\u5927\u89d2\u5730\u533a\u4ed6\u9053\u8def\u8a73\u7d30\u4fee\u6b63\u8a2d\u8a08\u696d\u52d9","client_name":"\u56fd\u571f\u4ea4\u901a\u7701\u8fd1\u757f\u5730\u65b9\u6574\u5099\u5c40\u6d6a\u901f\u56fd\u9053\u4e8b\u52d9\u6240","boring_xml_url":47,"boring_view_url":1,"soilmap_view_url":null,"soiltest_xml_url":0,"soiltest_view_url":0},{"id":572298,"code":"NGIC202204546-0003","latitude":"34.730069166667","longitude":"135.72648166667","source_code":"","project_name":"","survey_name":"\u6e05\u6edd\u751f\u99d2\u9053\u8def\u5357\u5927\u89d2\u5730\u533a\u4ed6\u9053\u8def\u8a73\u7d30\u4fee\u6b63\u8a2d\u8a08\u696d\u52d9","client_name":"\u56fd\u571f\u4ea4\u901a\u7701\u8fd1\u757f\u5730\u65b9\u6574\u5099\u5c40\u6d6a\u901f\u56fd\u9053\u4e8b\u52d9\u6240","boring_xml_url":47,"boring_view_url":1,"soilmap_view_url":null,"soiltest_xml_url":0,"soiltest_view_url":0},{"id":572297,"code":"NGIC202204546-0002","latitude":"34.729936388889","longitude":"135.72516083333","source_code":"","project_name":"","survey_name":"\u6e05\u6edd\u751f\u99d2\u9053\u8def\u5357\u5927\u89d2\u5730\u533a\u4ed6\u9053\u8def\u8a73\u7d30\u4fee\u6b63\u8a2d\u8a08\u696d\u52d9","client_name":"\u56fd\u571f\u4ea4\u901a\u7701\u8fd1\u757f\u5730\u65b9\u6574\u5099\u5c40\u6d6a\u901f\u56fd\u9053\u4e8b\u52d9\u6240","boring_xml_url":47,"boring_view_url":1,"soilmap_view_url":null,"soiltest_xml_url":0,"soiltest_view_url":0},{"id":572296,"code":"NGIC202204546-0001","latitude":"34.730182777778","longitude":"135.72474027778","source_code":"","project_name":"","survey_name":"\u6e05\u6edd\u751f\u99d2\u9053\u8def\u5357\u5927\u89d2\u5730\u533a\u4ed6\u9053\u8def\u8a73\u7d30\u4fee\u6b63\u8a2d\u8a08\u696d\u52d9","client_name":"\u56fd\u571f\u4ea4\u901a\u7701\u8fd1\u757f\u5730\u65b9\u6574\u5099\u5c40\u6d6a\u901f\u56fd\u9053\u4e8b\u52d9\u6240","boring_xml_url":47,"boring_view_url":1,"soilmap_view_url":null,"soiltest_xml_url":0,"soiltest_view_url":0},{"id":572279,"code":"NGIC202204651-0022","latitude":"43.100037222222","longitude":"144.86247175","source_code":"","project_name":"","survey_name":"\u4e00\u822c\u56fd\u905344\u53f7\u539a\u5cb8\u753a\u5927\u5225\u5730\u8cea\u8abf\u67fb\u696d\u52d9","client_name":"\u56fd\u571f\u4ea4\u901a\u7701\u5317\u6d77\u9053\u958b\u767a\u5c40\u91e7\u8def\u958b\u767a\u5efa\u8a2d\u90e8\u672c\u90e8","boring_xml_url":47,"boring_view_url":1,"soilmap_view_url":null,"soiltest_xml_url":0,"soiltest_view_url":0},{"id":572278,"code":"NGIC202204651-0021","latitude":"43.098708527778","longitude":"144.86084516667","source_code":"","project_name":"","survey_name":"\u4e00\u822c\u56fd\u905344\u53f7\u539a\u5cb8\u753a\u5927\u5225\u5730\u8cea\u8abf\u67fb\u696d\u52d9","client_name":"\u56fd\u571f\u4ea4\u901a\u7701\u5317\u6d77\u9053\u958b\u767a\u5c40\u91e7\u8def\u958b\u767a\u5efa\u8a2d\u90e8\u672c\u90e8","boring_xml_url":47,"boring_view_url":1,"soilmap_view_url":null,"soiltest_xml_url":0,"soiltest_view_url":0},{"id":572277,"code":"NGIC202204651-0020","latitude":"43.09839375","longitude":"144.86044880556","source_code":"","project_name":"","survey_name":"\u4e00\u822c\u56fd\u905344\u53f7\u539a\u5cb8\u753a\u5927\u5225\u5730\u8cea\u8abf\u67fb\u696d\u52d9","client_name":"\u56fd\u571f\u4ea4\u901a\u7701\u5317\u6d77\u9053\u958b\u767a\u5c40\u91e7\u8def\u958b\u767a\u5efa\u8a2d\u90e8\u672c\u90e8","boring_xml_url":47,"boring_view_url":1,"soilmap_view_url":null,"soiltest_xml_url":0,"soiltest_view_url":0},{"id":572276,"code":"NGIC202204651-0019","latitude":"43.099114305556","longitude":"144.86134275","source_code":"","project_name":"","survey_name":"\u4e00\u822c\u56fd\u905344\u53f7\u539a\u5cb8\u753a\u5927\u5225\u5730\u8cea\u8abf\u67fb\u696d\u52d9","client_name":"\u56fd\u571f\u4ea4\u901a\u7701\u5317\u6d77\u9053\u958b\u767a\u5c40\u91e7\u8def\u958b\u767a\u5efa\u8a2d\u90e8\u672c\u90e8","boring_xml_url":47,"boring_view_url":1,"soilmap_view_url":null,"soiltest_xml_url":0,"soiltest_view_url":0},{"id":572275,"code":"NGIC202204651-0018","latitude":"43.099644583333","longitude":"144.86213594444","source_code":"","project_name":"","survey_name":"\u4e00\u822c\u56fd\u905344\u53f7\u539a\u5cb8\u753a\u5927\u5225\u5730\u8cea\u8abf\u67fb\u696d\u52d9","client_name":"\u56fd\u571f\u4ea4\u901a\u7701\u5317\u6d77\u9053\u958b\u767a\u5c40\u91e7\u8def\u958b\u767a\u5efa\u8a2d\u90e8\u672c\u90e8","boring_xml_url":47,"boring_view_url":1,"soilmap_view_url":null,"soiltest_xml_url":0,"soiltest_view_url":0},{"id":572274,"code":"NGIC202204651-0017","latitude":"43.099243694444","longitude":"144.86117191667","source_code":"","project_name":"","survey_name":"\u4e00\u822c\u56fd\u905344\u53f7\u539a\u5cb8\u753a\u5927\u5225\u5730\u8cea\u8abf\u67fb\u696d\u52d9","client_name":"\u56fd\u571f\u4ea4\u901a\u7701\u5317\u6d77\u9053\u958b\u767a\u5c40\u91e7\u8def\u958b\u767a\u5efa\u8a2d\u90e8\u672c\u90e8","boring_xml_url":47,"boring_view_url":1,"soilmap_view_url":null,"soiltest_xml_url":0,"soiltest_view_url":0},{"id":572273,"code":"NGIC202204651-0016","latitude":"43.099532972222","longitude":"144.86196111111","source_code":"","project_name":"","survey_name":"\u4e00\u822c\u56fd\u905344\u53f7\u539a\u5cb8\u753a\u5927\u5225\u5730\u8cea\u8abf\u67fb\u696d\u52d9","client_name":"\u56fd\u571f\u4ea4\u901a\u7701\u5317\u6d77\u9053\u958b\u767a\u5c40\u91e7\u8def\u958b\u767a\u5efa\u8a2d\u90e8\u672c\u90e8","boring_xml_url":47,"boring_view_url":1,"soilmap_view_url":null,"soiltest_xml_url":0,"soiltest_view_url":0},{"id":572272,"code":"NGIC202204651-0015","latitude":"43.099671638889","longitude":"144.86186002778","source_code":"","project_name":"","survey_name":"\u4e00\u822c\u56fd\u905344\u53f7\u539a\u5cb8\u753a\u5927\u5225\u5730\u8cea\u8abf\u67fb\u696d\u52d9","client_name":"\u56fd\u571f\u4ea4\u901a\u7701\u5317\u6d77\u9053\u958b\u767a\u5c40\u91e7\u8def\u958b\u767a\u5efa\u8a2d\u90e8\u672c\u90e8","boring_xml_url":47,"boring_view_url":1,"soilmap_view_url":null,"soiltest_xml_url":47,"soiltest_view_url":47},{"id":572271,"code":"NGIC202204651-0014","latitude":"43.098989111111","longitude":"144.8611685","source_code":"","project_name":"","survey_name":"\u4e00\u822c\u56fd\u905344\u53f7\u539a\u5cb8\u753a\u5927\u5225\u5730\u8cea\u8abf\u67fb\u696d\u52d9","client_name":"\u56fd\u571f\u4ea4\u901a\u7701\u5317\u6d77\u9053\u958b\u767a\u5c40\u91e7\u8def\u958b\u767a\u5efa\u8a2d\u90e8\u672c\u90e8","boring_xml_url":47,"boring_view_url":1,"soilmap_view_url":null,"soiltest_xml_url":47,"soiltest_view_url":47},{"id":572270,"code":"NGIC202204651-0013","latitude":"43.098549694444","longitude":"144.86021061111","source_code":"","project_name":"","survey_name":"\u4e00\u822c\u56fd\u905344\u53f7\u539a\u5cb8\u753a\u5927\u5225\u5730\u8cea\u8abf\u67fb\u696d\u52d9","client_name":"\u56fd\u571f\u4ea4\u901a\u7701\u5317\u6d77\u9053\u958b\u767a\u5c40\u91e7\u8def\u958b\u767a\u5efa\u8a2d\u90e8\u672c\u90e8","boring_xml_url":47,"boring_view_url":1,"soilmap_view_url":null,"soiltest_xml_url":0,"soiltest_view_url":0},{"id":572269,"code":"NGIC202204651-0012","latitude":"43.098219388889","longitude":"144.86023988889","source_code":"","project_name":"","survey_name":"\u4e00\u822c\u56fd\u905344\u53f7\u539a\u5cb8\u753a\u5927\u5225\u5730\u8cea\u8abf\u67fb\u696d\u52d9","client_name":"\u56fd\u571f\u4ea4\u901a\u7701\u5317\u6d77\u9053\u958b\u767a\u5c40\u91e7\u8def\u958b\u767a\u5efa\u8a2d\u90e8\u672c\u90e8","boring_xml_url":47,"boring_view_url":1,"soilmap_view_url":null,"soiltest_xml_url":47,"soiltest_view_url":47},{"id":572268,"code":"NGIC202204651-0011","latitude":"43.097730972222","longitude":"144.85928780556","source_code":"","project_name":"","survey_name":"\u4e00\u822c\u56fd\u905344\u53f7\u539a\u5cb8\u753a\u5927\u5225\u5730\u8cea\u8abf\u67fb\u696d\u52d9","client_name":"\u56fd\u571f\u4ea4\u901a\u7701\u5317\u6d77\u9053\u958b\u767a\u5c40\u91e7\u8def\u958b\u767a\u5efa\u8a2d\u90e8\u672c\u90e8","boring_xml_url":47,"boring_view_url":1,"soilmap_view_url":null,"soiltest_xml_url":0,"soiltest_view_url":0},{"id":572267,"code":"NGIC202204651-0010","latitude":"43.097765111111","longitude":"144.85972838889","source_code":"","project_name":"","survey_name":"\u4e00\u822c\u56fd\u905344\u53f7\u539a\u5cb8\u753a\u5927\u5225\u5730\u8cea\u8abf\u67fb\u696d\u52d9","client_name":"\u56fd\u571f\u4ea4\u901a\u7701\u5317\u6d77\u9053\u958b\u767a\u5c40\u91e7\u8def\u958b\u767a\u5efa\u8a2d\u90e8\u672c\u90e8","boring_xml_url":47,"boring_view_url":1,"soilmap_view_url":null,"soiltest_xml_url":47,"soiltest_view_url":47}]}}