{"header":{"xyz":{"source":[],"mosaic":false},"page":2806,"raw":{"soiltest_result":"0","bbox":"57.598333,109.544722,1.933333,163.806111","page":"2806"},"conditions":{"soiltest_result":0,"north":57.598333,"west":109.544722,"south":1.933333,"east":163.806111},"success":true,"message":""},"data":{"meta":{"total":212844,"page":2806,"pages":7095,"count":30},"values":[{"id":246373,"code":"B4KJ201802001-1853","latitude":"37.318417","longitude":"138.912833","source_code":"HR0484356020400023","project_name":"\u828b\u5ddd\u707d\u5bb3\u95a2\u9023\u7dca\u6025(\u305d\u306e1)\u5730\u8cea\u8abf\u67fb\u4f5c\u696d","survey_name":"\u828b\u5ddd\u707d\u5bb3\u95a2\u9023\u7dca\u6025(\u305d\u306e1)\u5730\u8cea\u8abf\u67fb\u4f5c\u696d","client_name":"\u56fd\u571f\u4ea4\u901a\u7701 \u5317\u9678\u5730\u65b9\u6574\u5099\u5c40 \u6e6f\u6ca2\u7802\u9632\u4e8b\u52d9\u6240","boring_xml_url":45,"boring_view_url":1,"soilmap_view_url":null,"soiltest_xml_url":0,"soiltest_view_url":0},{"id":246372,"code":"B4KJ201802001-1852","latitude":"37.318917","longitude":"138.912667","source_code":"HR0484356020400025","project_name":"\u828b\u5ddd\u707d\u5bb3\u95a2\u9023\u7dca\u6025(\u305d\u306e1)\u5730\u8cea\u8abf\u67fb\u4f5c\u696d","survey_name":"\u828b\u5ddd\u707d\u5bb3\u95a2\u9023\u7dca\u6025(\u305d\u306e1)\u5730\u8cea\u8abf\u67fb\u4f5c\u696d","client_name":"\u56fd\u571f\u4ea4\u901a\u7701 \u5317\u9678\u5730\u65b9\u6574\u5099\u5c40 \u6e6f\u6ca2\u7802\u9632\u4e8b\u52d9\u6240","boring_xml_url":45,"boring_view_url":1,"soilmap_view_url":null,"soiltest_xml_url":0,"soiltest_view_url":0},{"id":246371,"code":"B4KJ201802001-1851","latitude":"37.59125","longitude":"138.912306","source_code":"HR1184345120050018","project_name":"","survey_name":"\u5e73\u621023\u5e74\u5ea6\u9577\u5ca1\u56fd\u9053\u5730\u8cea\u8abf\u67fb\u696d\u52d9(\u5358\u4fa1\u5951\u7d04)\u56fd\u90538\u53f7\u5584\u4e45\u5bfa\u4ea4\u5dee\u70b9\u6539\u826f\u5730\u8cea\u8abf\u67fb\u4f5c\u696d","client_name":"\u56fd\u571f\u4ea4\u901a\u7701\u5317\u9678\u5730\u65b9\u6574\u5099\u5c40\u9577\u5ca1\u56fd\u9053\u4e8b\u52d9\u6240","boring_xml_url":45,"boring_view_url":1,"soilmap_view_url":null,"soiltest_xml_url":0,"soiltest_view_url":0},{"id":246370,"code":"B4KJ201802001-1850","latitude":"37.590417","longitude":"138.912111","source_code":"HR1184345120050019","project_name":"","survey_name":"\u5e73\u621023\u5e74\u5ea6\u9577\u5ca1\u56fd\u9053\u5730\u8cea\u8abf\u67fb\u696d\u52d9(\u5358\u4fa1\u5951\u7d04)\u56fd\u90538\u53f7\u5584\u4e45\u5bfa\u4ea4\u5dee\u70b9\u6539\u826f\u5730\u8cea\u8abf\u67fb\u4f5c\u696d","client_name":"\u56fd\u571f\u4ea4\u901a\u7701\u5317\u9678\u5730\u65b9\u6574\u5099\u5c40\u9577\u5ca1\u56fd\u9053\u4e8b\u52d9\u6240","boring_xml_url":45,"boring_view_url":1,"soilmap_view_url":null,"soiltest_xml_url":0,"soiltest_view_url":0},{"id":246369,"code":"B4KJ201802001-1849","latitude":"37.309722","longitude":"138.911944","source_code":"HR0884356520020005","project_name":"\u6728\u7c60\u5bfe\u5cb8\u5730\u533a\u5730\u3059\u3079\u308a\u5bfe\u7b56\u5730\u8cea\u8abf\u67fb\u696d\u52d9\u59d4\u8a17","survey_name":"\u6728\u7c60\u5bfe\u5cb8\u5730\u533a\u5730\u3059\u3079\u308a\u5bfe\u7b56\u5730\u8cea\u8abf\u67fb\u696d\u52d9\u59d4\u8a17","client_name":"\u56fd\u571f\u4ea4\u901a\u7701\u5317\u9678\u5730\u65b9\u6574\u5099\u5c40 \u6e6f\u6ca2\u7802\u9632\u4e8b\u52d9\u6240","boring_xml_url":45,"boring_view_url":1,"soilmap_view_url":null,"soiltest_xml_url":0,"soiltest_view_url":0},{"id":246368,"code":"B4KJ201802001-1848","latitude":"37.323167","longitude":"138.911889","source_code":"HR0784356520280004","project_name":"\u5e73\u621019\u5e74\u5ea6 \u5927\u4e45\u4fdd\u5730\u8535\u30fb\u6962\u6728\u5730\u533a\u5730\u3059\u3079\u308a\u5bfe\u7b56\u5730\u8cea\u8abf\u67fb\u696d\u52d9\u59d4\u8a17","survey_name":"\u5e73\u621019\u5e74\u5ea6 \u5927\u4e45\u4fdd\u5730\u8535\u30fb\u6962\u6728\u5730\u533a\u5730\u3059\u3079\u308a\u5bfe\u7b56\u5730\u8cea\u8abf\u67fb\u696d\u52d9\u59d4\u8a17","client_name":"\u56fd\u571f\u4ea4\u901a\u7701\u5317\u9678\u5730\u65b9\u6574\u5099\u5c40\u6e6f\u6ca2\u7802\u9632\u4e8b\u52d9\u6240","boring_xml_url":45,"boring_view_url":1,"soilmap_view_url":null,"soiltest_xml_url":0,"soiltest_view_url":0},{"id":246367,"code":"B4KJ201802001-1847","latitude":"37.303583","longitude":"138.911833","source_code":"HR0784356520130007","project_name":"\u5e73\u621019\u5e74\u5ea6\u5bfa\u91ce\u5730\u533a\u4ed6\u5730\u8cea\u8abf\u67fb\u4f5c\u696d","survey_name":"\u5e73\u621019\u5e74\u5ea6\u5bfa\u91ce\u5730\u533a\u4ed6\u5730\u8cea\u8abf\u67fb\u4f5c\u696d","client_name":"\u56fd\u571f\u4ea4\u901a\u7701\u6e6f\u6ca2\u7802\u9632\u4e8b\u52d9\u6240","boring_xml_url":45,"boring_view_url":1,"soilmap_view_url":null,"soiltest_xml_url":0,"soiltest_view_url":0},{"id":246366,"code":"B4KJ201802001-1846","latitude":"37.310278","longitude":"138.911667","source_code":"HR0884356520020004","project_name":"\u6728\u7c60\u5bfe\u5cb8\u5730\u533a\u5730\u3059\u3079\u308a\u5bfe\u7b56\u5730\u8cea\u8abf\u67fb\u696d\u52d9\u59d4\u8a17","survey_name":"\u6728\u7c60\u5bfe\u5cb8\u5730\u533a\u5730\u3059\u3079\u308a\u5bfe\u7b56\u5730\u8cea\u8abf\u67fb\u696d\u52d9\u59d4\u8a17","client_name":"\u56fd\u571f\u4ea4\u901a\u7701\u5317\u9678\u5730\u65b9\u6574\u5099\u5c40 \u6e6f\u6ca2\u7802\u9632\u4e8b\u52d9\u6240","boring_xml_url":45,"boring_view_url":1,"soilmap_view_url":null,"soiltest_xml_url":0,"soiltest_view_url":0},{"id":246365,"code":"B4KJ201802001-1845","latitude":"37.327746","longitude":"138.908178","source_code":"HR1184356520080007","project_name":"\u828b\u5ddd\u5730\u533a\u5730\u3059\u3079\u308a\u52d5\u614b\u89b3\u6e2c\u6a5f\u5668\u8a2d\u7f6e\u696d\u52d9","survey_name":"\u828b\u5ddd\u5730\u533a\u5730\u3059\u3079\u308a\u52d5\u614b\u89b3\u6e2c\u6a5f\u5668\u8a2d\u7f6e\u696d\u52d9","client_name":"\u56fd\u571f\u4ea4\u901a\u7701 \u5317\u9678\u5730\u65b9\u6574\u5099\u5c40 \u6e6f\u6ca2\u7802\u9632\u4e8b\u52d9\u6240 \u6d41\u57df\u5bfe\u7b56\u8ab2","boring_xml_url":45,"boring_view_url":1,"soilmap_view_url":null,"soiltest_xml_url":0,"soiltest_view_url":0},{"id":246364,"code":"B4KJ201802001-1844","latitude":"37.324889","longitude":"138.911333","source_code":"HR0784356520280006","project_name":"\u5e73\u621019\u5e74\u5ea6 \u5927\u4e45\u4fdd\u5730\u8535\u30fb\u6962\u6728\u5730\u533a\u5730\u3059\u3079\u308a\u5bfe\u7b56\u5730\u8cea\u8abf\u67fb\u696d\u52d9\u59d4\u8a17","survey_name":"\u5e73\u621019\u5e74\u5ea6 \u5927\u4e45\u4fdd\u5730\u8535\u30fb\u6962\u6728\u5730\u533a\u5730\u3059\u3079\u308a\u5bfe\u7b56\u5730\u8cea\u8abf\u67fb\u696d\u52d9\u59d4\u8a17","client_name":"\u56fd\u571f\u4ea4\u901a\u7701\u5317\u9678\u5730\u65b9\u6574\u5099\u5c40\u6e6f\u6ca2\u7802\u9632\u4e8b\u52d9\u6240","boring_xml_url":45,"boring_view_url":1,"soilmap_view_url":null,"soiltest_xml_url":0,"soiltest_view_url":0},{"id":246363,"code":"B4KJ201802001-1843","latitude":"37.308722","longitude":"138.910889","source_code":"HR1284356520080013","project_name":"","survey_name":"\u828b\u5ddd\u5730\u533a\u5730\u3059\u3079\u308a\u52d5\u614b\u89b3\u6e2c\u6a5f\u5668\u8a2d\u7f6e\u696d\u52d9","client_name":"\u56fd\u571f\u4ea4\u901a\u7701\u5317\u9678\u5730\u65b9\u6574\u5099\u5c40\u6e6f\u6ca2\u7802\u9632\u4e8b\u52d9\u6240","boring_xml_url":45,"boring_view_url":1,"soilmap_view_url":null,"soiltest_xml_url":0,"soiltest_view_url":0},{"id":246362,"code":"B4KJ201802001-1842","latitude":"37.322167","longitude":"138.910583","source_code":"HR0784356520280003","project_name":"\u5e73\u621019\u5e74\u5ea6 \u5927\u4e45\u4fdd\u5730\u8535\u30fb\u6962\u6728\u5730\u533a\u5730\u3059\u3079\u308a\u5bfe\u7b56\u5730\u8cea\u8abf\u67fb\u696d\u52d9\u59d4\u8a17","survey_name":"\u5e73\u621019\u5e74\u5ea6 \u5927\u4e45\u4fdd\u5730\u8535\u30fb\u6962\u6728\u5730\u533a\u5730\u3059\u3079\u308a\u5bfe\u7b56\u5730\u8cea\u8abf\u67fb\u696d\u52d9\u59d4\u8a17","client_name":"\u56fd\u571f\u4ea4\u901a\u7701\u5317\u9678\u5730\u65b9\u6574\u5099\u5c40\u6e6f\u6ca2\u7802\u9632\u4e8b\u52d9\u6240","boring_xml_url":45,"boring_view_url":1,"soilmap_view_url":null,"soiltest_xml_url":0,"soiltest_view_url":0},{"id":246361,"code":"B4KJ201802001-1841","latitude":"37.324969","longitude":"138.907345","source_code":"HR1184356520080006","project_name":"\u828b\u5ddd\u5730\u533a\u5730\u3059\u3079\u308a\u52d5\u614b\u89b3\u6e2c\u6a5f\u5668\u8a2d\u7f6e\u696d\u52d9","survey_name":"\u828b\u5ddd\u5730\u533a\u5730\u3059\u3079\u308a\u52d5\u614b\u89b3\u6e2c\u6a5f\u5668\u8a2d\u7f6e\u696d\u52d9","client_name":"\u56fd\u571f\u4ea4\u901a\u7701 \u5317\u9678\u5730\u65b9\u6574\u5099\u5c40 \u6e6f\u6ca2\u7802\u9632\u4e8b\u52d9\u6240 \u6d41\u57df\u5bfe\u7b56\u8ab2","boring_xml_url":45,"boring_view_url":1,"soilmap_view_url":null,"soiltest_xml_url":0,"soiltest_view_url":0},{"id":246360,"code":"B4KJ201802001-1840","latitude":"37.332556","longitude":"138.910194","source_code":"HR1284356520080002","project_name":"","survey_name":"\u828b\u5ddd\u5730\u533a\u5730\u3059\u3079\u308a\u52d5\u614b\u89b3\u6e2c\u6a5f\u5668\u8a2d\u7f6e\u696d\u52d9","client_name":"\u56fd\u571f\u4ea4\u901a\u7701\u5317\u9678\u5730\u65b9\u6574\u5099\u5c40\u6e6f\u6ca2\u7802\u9632\u4e8b\u52d9\u6240","boring_xml_url":45,"boring_view_url":1,"soilmap_view_url":null,"soiltest_xml_url":0,"soiltest_view_url":0},{"id":246359,"code":"B4KJ201802001-1839","latitude":"37.325028","longitude":"138.910194","source_code":"HR0784356520280005","project_name":"\u5e73\u621019\u5e74\u5ea6 \u5927\u4e45\u4fdd\u5730\u8535\u30fb\u6962\u6728\u5730\u533a\u5730\u3059\u3079\u308a\u5bfe\u7b56\u5730\u8cea\u8abf\u67fb\u696d\u52d9","survey_name":"\u5e73\u621019\u5e74\u5ea6 \u5927\u4e45\u4fdd\u5730\u8535\u30fb\u6962\u6728\u5730\u533a\u5730\u3059\u3079\u308a\u5bfe\u7b56\u5730\u8cea\u8abf\u67fb\u696d\u52d9\u59d4\u8a17","client_name":"\u56fd\u571f\u4ea4\u901a\u7701\u5317\u9678\u5730\u65b9\u6574\u5099\u5c40\u6e6f\u6ca2\u7802\u9632\u4e8b\u52d9\u6240","boring_xml_url":45,"boring_view_url":1,"soilmap_view_url":null,"soiltest_xml_url":0,"soiltest_view_url":0},{"id":246358,"code":"B4KJ201802001-1838","latitude":"37.308889","longitude":"138.91","source_code":"HR0884356520020003","project_name":"\u6728\u7c60\u5bfe\u5cb8\u5730\u533a\u5730\u3059\u3079\u308a\u5bfe\u7b56\u5730\u8cea\u8abf\u67fb\u696d\u52d9\u59d4\u8a17","survey_name":"\u6728\u7c60\u5bfe\u5cb8\u5730\u533a\u5730\u3059\u3079\u308a\u5bfe\u7b56\u5730\u8cea\u8abf\u67fb\u696d\u52d9\u59d4\u8a17","client_name":"\u56fd\u571f\u4ea4\u901a\u7701\u5317\u9678\u5730\u65b9\u6574\u5099\u5c40 \u6e6f\u6ca2\u7802\u9632\u4e8b\u52d9\u6240","boring_xml_url":45,"boring_view_url":1,"soilmap_view_url":null,"soiltest_xml_url":0,"soiltest_view_url":0},{"id":246357,"code":"B4KJ201802001-1837","latitude":"37.319472","longitude":"138.909833","source_code":"HR1284356520080018","project_name":"","survey_name":"\u828b\u5ddd\u5730\u533a\u5730\u3059\u3079\u308a\u52d5\u614b\u89b3\u6e2c\u6a5f\u5668\u8a2d\u7f6e\u696d\u52d9","client_name":"\u56fd\u571f\u4ea4\u901a\u7701\u5317\u9678\u5730\u65b9\u6574\u5099\u5c40\u6e6f\u6ca2\u7802\u9632\u4e8b\u52d9\u6240","boring_xml_url":45,"boring_view_url":1,"soilmap_view_url":null,"soiltest_xml_url":0,"soiltest_view_url":0},{"id":246356,"code":"B4KJ201802001-1836","latitude":"37.336361","longitude":"138.908861","source_code":"HR0684356520500007","project_name":"","survey_name":"\u6c60\u8c37\u5730\u533a\u5730\u3059\u3079\u308a\u5bfe\u7b56\u8a2d\u8a08\u696d\u52d9","client_name":"\u56fd\u571f\u4ea4\u901a\u7701\u5317\u9678\u5730\u65b9\u6574\u5099\u5c40\u6e6f\u6ca2\u7802\u9632\u4e8b\u52d9\u6240","boring_xml_url":45,"boring_view_url":1,"soilmap_view_url":null,"soiltest_xml_url":0,"soiltest_view_url":0},{"id":246355,"code":"B4KJ201802001-1835","latitude":"37.308333","longitude":"138.908611","source_code":"HR0884356520020002","project_name":"\u6728\u7c60\u5bfe\u5cb8\u5730\u533a\u5730\u3059\u3079\u308a\u5bfe\u7b56\u5730\u8cea\u8abf\u67fb\u696d\u52d9\u59d4\u8a17","survey_name":"\u6728\u7c60\u5bfe\u5cb8\u5730\u533a\u5730\u3059\u3079\u308a\u5bfe\u7b56\u5730\u8cea\u8abf\u67fb\u696d\u52d9\u59d4\u8a17","client_name":"\u56fd\u571f\u4ea4\u901a\u7701\u5317\u9678\u5730\u65b9\u6574\u5099\u5c40 \u6e6f\u6ca2\u7802\u9632\u4e8b\u52d9\u6240","boring_xml_url":45,"boring_view_url":1,"soilmap_view_url":null,"soiltest_xml_url":0,"soiltest_view_url":0},{"id":246354,"code":"B4KJ201802001-1834","latitude":"37.336222","longitude":"138.908417","source_code":"HR0684356520500006","project_name":"","survey_name":"\u6c60\u8c37\u5730\u533a\u5730\u3059\u3079\u308a\u5bfe\u7b56\u8a2d\u8a08\u696d\u52d9","client_name":"\u56fd\u571f\u4ea4\u901a\u7701\u5317\u9678\u5730\u65b9\u6574\u5099\u5c40\u6e6f\u6ca2\u7802\u9632\u4e8b\u52d9\u6240","boring_xml_url":45,"boring_view_url":1,"soilmap_view_url":null,"soiltest_xml_url":0,"soiltest_view_url":0},{"id":246353,"code":"B4KJ201802001-1833","latitude":"37.339134","longitude":"138.905123","source_code":"HR1184356520080002","project_name":"\u828b\u5ddd\u5730\u533a\u5730\u3059\u3079\u308a\u52d5\u614b\u89b3\u6e2c\u6a5f\u5668\u8a2d\u7f6e\u696d\u52d9","survey_name":"\u828b\u5ddd\u5730\u533a\u5730\u3059\u3079\u308a\u52d5\u614b\u89b3\u6e2c\u6a5f\u5668\u8a2d\u7f6e\u696d\u52d9","client_name":"\u56fd\u571f\u4ea4\u901a\u7701 \u5317\u9678\u5730\u65b9\u6574\u5099\u5c40 \u6e6f\u6ca2\u7802\u9632\u4e8b\u52d9\u6240 \u6d41\u57df\u5bfe\u7b56\u8ab2","boring_xml_url":45,"boring_view_url":1,"soilmap_view_url":null,"soiltest_xml_url":0,"soiltest_view_url":0},{"id":246352,"code":"B4KJ201802001-1832","latitude":"37.308611","longitude":"138.908056","source_code":"HR0884356520020001","project_name":"\u6728\u7c60\u5bfe\u5cb8\u5730\u533a\u5730\u3059\u3079\u308a\u5bfe\u7b56\u5730\u8cea\u8abf\u67fb\u696d\u52d9\u59d4\u8a17","survey_name":"\u6728\u7c60\u5bfe\u5cb8\u5730\u533a\u5730\u3059\u3079\u308a\u5bfe\u7b56\u5730\u8cea\u8abf\u67fb\u696d\u52d9\u59d4\u8a17","client_name":"\u56fd\u571f\u4ea4\u901a\u7701\u5317\u9678\u5730\u65b9\u6574\u5099\u5c40 \u6e6f\u6ca2\u7802\u9632\u4e8b\u52d9\u6240","boring_xml_url":45,"boring_view_url":1,"soilmap_view_url":null,"soiltest_xml_url":0,"soiltest_view_url":0},{"id":246351,"code":"B4KJ201802001-1831","latitude":"37.295417","longitude":"138.907917","source_code":"HR1284356520080017","project_name":"","survey_name":"\u828b\u5ddd\u5730\u533a\u5730\u3059\u3079\u308a\u52d5\u614b\u89b3\u6e2c\u6a5f\u5668\u8a2d\u7f6e\u696d\u52d9","client_name":"\u56fd\u571f\u4ea4\u901a\u7701\u5317\u9678\u5730\u65b9\u6574\u5099\u5c40\u6e6f\u6ca2\u7802\u9632\u4e8b\u52d9\u6240","boring_xml_url":45,"boring_view_url":1,"soilmap_view_url":null,"soiltest_xml_url":0,"soiltest_view_url":0},{"id":246350,"code":"B4KJ201802001-1830","latitude":"37.337361","longitude":"138.907","source_code":"HR1284356520080005","project_name":"","survey_name":"\u828b\u5ddd\u5730\u533a\u5730\u3059\u3079\u308a\u52d5\u614b\u89b3\u6e2c\u6a5f\u5668\u8a2d\u7f6e\u696d\u52d9","client_name":"\u56fd\u571f\u4ea4\u901a\u7701\u5317\u9678\u5730\u65b9\u6574\u5099\u5c40\u6e6f\u6ca2\u7802\u9632\u4e8b\u52d9\u6240","boring_xml_url":45,"boring_view_url":1,"soilmap_view_url":null,"soiltest_xml_url":0,"soiltest_view_url":0},{"id":246349,"code":"B4KJ201802001-1829","latitude":"37.305528","longitude":"138.90675","source_code":"HR0784356520130008","project_name":"\u5e73\u621019\u5e74\u5ea6\u5bfa\u91ce\u5730\u533a\u4ed6\u5730\u8cea\u8abf\u67fb\u4f5c\u696d","survey_name":"\u5e73\u621019\u5e74\u5ea6\u5bfa\u91ce\u5730\u533a\u4ed6\u5730\u8cea\u8abf\u67fb\u4f5c\u696d","client_name":"\u56fd\u571f\u4ea4\u901a\u7701\u6e6f\u6ca2\u7802\u9632\u4e8b\u52d9\u6240","boring_xml_url":45,"boring_view_url":1,"soilmap_view_url":null,"soiltest_xml_url":0,"soiltest_view_url":0},{"id":246348,"code":"B4KJ201802001-1828","latitude":"37.293056","longitude":"138.906667","source_code":"HR0884356020220004","project_name":"\u828b\u5ddd\u6ca2","survey_name":"\u828b\u5ddd\u6d41\u57df\u7802\u9632\u5830\u5824\u7b49\u8a2d\u8a08\u696d\u52d9\u59d4\u8a17","client_name":"\u56fd\u571f\u4ea4\u901a\u7701 \u5317\u9678\u5730\u65b9\u6574\u5099\u5c40 \u6e6f\u6ca2\u7802\u9632\u4e8b\u52d9\u6240 \u8abf\u67fb\u8ab2","boring_xml_url":45,"boring_view_url":1,"soilmap_view_url":null,"soiltest_xml_url":0,"soiltest_view_url":0},{"id":246347,"code":"B4KJ201802001-1827","latitude":"37.292778","longitude":"138.906667","source_code":"HR0884356020220003","project_name":"\u828b\u5ddd\u6ca2","survey_name":"\u828b\u5ddd\u6d41\u57df\u7802\u9632\u5830\u5824\u7b49\u8a2d\u8a08\u696d\u52d9\u59d4\u8a17","client_name":"\u56fd\u571f\u4ea4\u901a\u7701 \u5317\u9678\u5730\u65b9\u6574\u5099\u5c40 \u6e6f\u6ca2\u7802\u9632\u4e8b\u52d9\u6240 \u8abf\u67fb\u8ab2","boring_xml_url":45,"boring_view_url":1,"soilmap_view_url":null,"soiltest_xml_url":0,"soiltest_view_url":0},{"id":246346,"code":"B4KJ201802001-1826","latitude":"37.293056","longitude":"138.906667","source_code":"HR0884356020220002","project_name":"\u828b\u5ddd\u6ca2","survey_name":"\u828b\u5ddd\u6d41\u57df\u7802\u9632\u5830\u5824\u7b49\u8a2d\u8a08\u696d\u52d9\u59d4\u8a17","client_name":"\u56fd\u571f\u4ea4\u901a\u7701 \u5317\u9678\u5730\u65b9\u6574\u5099\u5c40 \u6e6f\u6ca2\u7802\u9632\u4e8b\u52d9\u6240 \u8abf\u67fb\u8ab2","boring_xml_url":45,"boring_view_url":1,"soilmap_view_url":null,"soiltest_xml_url":0,"soiltest_view_url":0},{"id":246345,"code":"B4KJ201802001-1825","latitude":"37.293056","longitude":"138.906667","source_code":"HR0884356020220001","project_name":"\u828b\u5ddd\u6ca2","survey_name":"\u828b\u5ddd\u6d41\u57df\u7802\u9632\u5830\u5824\u7b49\u8a2d\u8a08\u696d\u52d9\u59d4\u8a17","client_name":"\u56fd\u571f\u4ea4\u901a\u7701 \u5317\u9678\u5730\u65b9\u6574\u5099\u5c40 \u6e6f\u6ca2\u7802\u9632\u4e8b\u52d9\u6240 \u8abf\u67fb\u8ab2","boring_xml_url":45,"boring_view_url":1,"soilmap_view_url":null,"soiltest_xml_url":0,"soiltest_view_url":0},{"id":246344,"code":"B4KJ201802001-1824","latitude":"37.336944","longitude":"138.906583","source_code":"HR0684356520500005","project_name":"","survey_name":"\u6c60\u8c37\u5730\u533a\u5730\u3059\u3079\u308a\u5bfe\u7b56\u8a2d\u8a08\u696d\u52d9","client_name":"\u56fd\u571f\u4ea4\u901a\u7701\u5317\u9678\u5730\u65b9\u6574\u5099\u5c40\u6e6f\u6ca2\u7802\u9632\u4e8b\u52d9\u6240","boring_xml_url":45,"boring_view_url":1,"soilmap_view_url":null,"soiltest_xml_url":0,"soiltest_view_url":0}]}}