{"header":{"xyz":{"source":[],"mosaic":false},"page":2807,"raw":{"soiltest_result":"0","bbox":"57.598333,109.544722,1.933333,163.806111","page":"2807"},"conditions":{"soiltest_result":0,"north":57.598333,"west":109.544722,"south":1.933333,"east":163.806111},"success":true,"message":""},"data":{"meta":{"total":212844,"page":2807,"pages":7095,"count":30},"values":[{"id":246343,"code":"B4KJ201802001-1823","latitude":"37.305583","longitude":"138.906333","source_code":"HR0784356520130004","project_name":"\u5e73\u621019\u5e74\u5ea6\u5bfa\u91ce\u5730\u533a\u4ed6\u5730\u8cea\u8abf\u67fb\u4f5c\u696d","survey_name":"\u5e73\u621019\u5e74\u5ea6\u5bfa\u91ce\u5730\u533a\u4ed6\u5730\u8cea\u8abf\u67fb\u4f5c\u696d","client_name":"\u56fd\u571f\u4ea4\u901a\u7701\u6e6f\u6ca2\u7802\u9632\u4e8b\u52d9\u6240","boring_xml_url":45,"boring_view_url":1,"soilmap_view_url":null,"soiltest_xml_url":0,"soiltest_view_url":0},{"id":246342,"code":"B4KJ201802001-1822","latitude":"37.305361","longitude":"138.906222","source_code":"HR0784356520130006","project_name":"\u5e73\u621019\u5e74\u5ea6\u5bfa\u91ce\u5730\u533a\u4ed6\u5730\u8cea\u8abf\u67fb\u4f5c\u696d","survey_name":"\u5e73\u621019\u5e74\u5ea6\u5bfa\u91ce\u5730\u533a\u4ed6\u5730\u8cea\u8abf\u67fb\u4f5c\u696d","client_name":"\u56fd\u571f\u4ea4\u901a\u7701\u6e6f\u6ca2\u7802\u9632\u4e8b\u52d9\u6240","boring_xml_url":45,"boring_view_url":1,"soilmap_view_url":null,"soiltest_xml_url":0,"soiltest_view_url":0},{"id":246341,"code":"B4KJ201802001-1821","latitude":"37.305444","longitude":"138.906222","source_code":"HR0784356520130005","project_name":"\u5e73\u621019\u5e74\u5ea6\u5bfa\u91ce\u5730\u533a\u5730\u8cea\u8abf\u67fb\u4f5c\u696d","survey_name":"\u5e73\u621019\u5e74\u5ea6\u5bfa\u91ce\u5730\u533a\u4ed6\u5730\u8cea\u8abf\u67fb\u4f5c\u696d","client_name":"\u56fd\u571f\u4ea4\u901a\u7701\u6e6f\u6ca2\u7802\u9632\u4e8b\u52d9\u6240","boring_xml_url":45,"boring_view_url":1,"soilmap_view_url":null,"soiltest_xml_url":0,"soiltest_view_url":0},{"id":246340,"code":"B4KJ201802001-1820","latitude":"37.336667","longitude":"138.906222","source_code":"HR0684356520500004","project_name":"","survey_name":"\u6c60\u8c37\u5730\u533a\u5730\u3059\u3079\u308a\u5bfe\u7b56\u8a2d\u8a08\u696d\u52d9","client_name":"\u56fd\u571f\u4ea4\u901a\u7701\u5317\u9678\u5730\u65b9\u6574\u5099\u5c40\u6e6f\u6ca2\u7802\u9632\u4e8b\u52d9\u6240","boring_xml_url":45,"boring_view_url":1,"soilmap_view_url":null,"soiltest_xml_url":0,"soiltest_view_url":0},{"id":246339,"code":"B4KJ201802001-1819","latitude":"37.290389","longitude":"138.905722","source_code":"HR1284356520080014","project_name":"","survey_name":"\u828b\u5ddd\u5730\u533a\u5730\u3059\u3079\u308a\u52d5\u614b\u89b3\u6e2c\u6a5f\u5668\u8a2d\u7f6e\u696d\u52d9","client_name":"\u56fd\u571f\u4ea4\u901a\u7701\u5317\u9678\u5730\u65b9\u6574\u5099\u5c40\u6e6f\u6ca2\u7802\u9632\u4e8b\u52d9\u6240","boring_xml_url":45,"boring_view_url":1,"soilmap_view_url":null,"soiltest_xml_url":0,"soiltest_view_url":0},{"id":246338,"code":"B4KJ201802001-1818","latitude":"37.339194","longitude":"138.905444","source_code":"HR0684356520500003","project_name":"","survey_name":"\u6c60\u8c37\u5730\u533a\u5730\u3059\u3079\u308a\u5bfe\u7b56\u8a2d\u8a08\u696d\u52d9","client_name":"\u56fd\u571f\u4ea4\u901a\u7701\u5317\u9678\u5730\u65b9\u6574\u5099\u5c40\u6e6f\u6ca2\u7802\u9632\u4e8b\u52d9\u6240","boring_xml_url":45,"boring_view_url":1,"soilmap_view_url":null,"soiltest_xml_url":0,"soiltest_view_url":0},{"id":246337,"code":"B4KJ201802001-1817","latitude":"37.298333","longitude":"138.905333","source_code":"HR0784356520040003","project_name":"","survey_name":"+\u4e8c\u5e73\u5730\u533a\u5730\u3059\u3079\u308a\u5bfe\u7b56\u5730\u8cea\u8abf\u67fb\u696d\u52d9","client_name":"\u56fd\u571f\u4ea4\u901a\u7701\u5317\u9678\u5730\u65b9\u6574\u5099\u5c40\u6e6f\u6ca2\u7802\u9632\u4e8b\u52d9\u6240","boring_xml_url":45,"boring_view_url":1,"soilmap_view_url":null,"soiltest_xml_url":0,"soiltest_view_url":0},{"id":246336,"code":"B4KJ201802001-1816","latitude":"37.339417","longitude":"138.905083","source_code":"HR0684356520500002","project_name":"","survey_name":"\u6c60\u8c37\u5730\u533a\u5730\u3059\u3079\u308a\u5bfe\u7b56\u8a2d\u8a08\u696d\u52d9","client_name":"\u56fd\u571f\u4ea4\u901a\u7701\u5317\u9678\u5730\u65b9\u6574\u5099\u5c40\u6e6f\u6ca2\u7802\u9632\u4e8b\u52d9\u6240","boring_xml_url":45,"boring_view_url":1,"soilmap_view_url":null,"soiltest_xml_url":0,"soiltest_view_url":0},{"id":246335,"code":"B4KJ201802001-1815","latitude":"37.339417","longitude":"138.905056","source_code":"HR1284356520080004","project_name":"","survey_name":"\u828b\u5ddd\u5730\u533a\u5730\u3059\u3079\u308a\u52d5\u614b\u89b3\u6e2c\u6a5f\u5668\u8a2d\u7f6e\u696d\u52d9","client_name":"\u56fd\u571f\u4ea4\u901a\u7701\u5317\u9678\u5730\u65b9\u6574\u5099\u5c40\u6e6f\u6ca2\u7802\u9632\u4e8b\u52d9\u6240","boring_xml_url":45,"boring_view_url":1,"soilmap_view_url":null,"soiltest_xml_url":0,"soiltest_view_url":0},{"id":246334,"code":"B4KJ201802001-1814","latitude":"37.332778","longitude":"138.905","source_code":"HR0884356520120002","project_name":"\u5927\u4e45\u4fdd\u5730\u533a\u5730\u3059\u3079\u308a\u5bfe\u7b56\u5730\u8cea\u8abf\u67fb\u696d\u52d9\u59d4\u8a17","survey_name":"\u5927\u4e45\u4fdd\u5730\u533a\u5730\u3059\u3079\u308a\u5bfe\u7b56\u5730\u8cea\u8abf\u67fb\u696d\u52d9\u59d4\u8a17","client_name":"\u56fd\u4ea4\u7701 \u5317\u9678\u5730\u65b9\u6574\u5099\u5c40 \u6e6f\u6ca2\u7802\u9632\u4e8b\u52d9\u6240","boring_xml_url":45,"boring_view_url":1,"soilmap_view_url":null,"soiltest_xml_url":0,"soiltest_view_url":0},{"id":246333,"code":"B4KJ201802001-1813","latitude":"37.317222","longitude":"138.905","source_code":"HR0784356520150003","project_name":"","survey_name":"\u68b6\u91d1\u5317\u30fb\u4e8c\u4e01\u91ce\u5730\u533a\u5730\u3059\u3079\u308a\u5bfe\u7b56\u5730\u8cea\u8abf\u67fb\u696d\u52d9","client_name":"\u56fd\u571f\u4ea4\u901a\u7701 \u6e6f\u6ca2\u7802\u9632\u4e8b\u52d9\u6240","boring_xml_url":45,"boring_view_url":1,"soilmap_view_url":null,"soiltest_xml_url":0,"soiltest_view_url":0},{"id":246332,"code":"B4KJ201802001-1812","latitude":"37.298361","longitude":"138.904917","source_code":"HR0784356520040004","project_name":"","survey_name":"+\u4e8c\u5e73\u5730\u533a\u5730\u3059\u3079\u308a\u5bfe\u7b56\u5730\u8cea\u8abf\u67fb\u696d\u52d9","client_name":"\u56fd\u571f\u4ea4\u901a\u7701\u5317\u9678\u5730\u65b9\u6574\u5099\u5c40\u6e6f\u6ca2\u7802\u9632\u4e8b\u52d9\u6240","boring_xml_url":45,"boring_view_url":1,"soilmap_view_url":null,"soiltest_xml_url":0,"soiltest_view_url":0},{"id":246331,"code":"B4KJ201802001-1811","latitude":"37.317222","longitude":"138.904722","source_code":"HR0784356520150004","project_name":"","survey_name":"\u68b6\u91d1\u5317\u30fb\u4e8c\u4e01\u91ce\u5730\u533a\u5730\u3059\u3079\u308a\u5bfe\u7b56\u5730\u8cea\u8abf\u67fb\u696d\u52d9","client_name":"\u56fd\u571f\u4ea4\u901a\u7701 \u6e6f\u6ca2\u7802\u9632\u4e8b\u52d9\u6240","boring_xml_url":45,"boring_view_url":1,"soilmap_view_url":null,"soiltest_xml_url":0,"soiltest_view_url":0},{"id":246330,"code":"B4KJ201802001-1810","latitude":"37.32","longitude":"138.904722","source_code":"HR0784356520150001","project_name":"","survey_name":"\u68b6\u91d1\u5317\u30fb\u4e8c\u4e01\u91ce\u5730\u533a\u5730\u3059\u3079\u308a\u5bfe\u7b56\u5730\u8cea\u8abf\u67fb\u696d\u52d9","client_name":"\u56fd\u571f\u4ea4\u901a\u7701 \u6e6f\u6ca2\u7802\u9632\u4e8b\u52d9\u6240","boring_xml_url":45,"boring_view_url":1,"soilmap_view_url":null,"soiltest_xml_url":0,"soiltest_view_url":0},{"id":246329,"code":"B4KJ201802001-1809","latitude":"37.339639","longitude":"138.904667","source_code":"HR0684356520500001","project_name":"","survey_name":"\u6c60\u8c37\u5730\u533a\u5730\u3059\u3079\u308a\u5bfe\u7b56\u8a2d\u8a08\u696d\u52d9","client_name":"\u56fd\u571f\u4ea4\u901a\u7701\u5317\u9678\u5730\u65b9\u6574\u5099\u5c40\u6e6f\u6ca2\u7802\u9632\u4e8b\u52d9\u6240","boring_xml_url":45,"boring_view_url":1,"soilmap_view_url":null,"soiltest_xml_url":0,"soiltest_view_url":0},{"id":246328,"code":"B4KJ201802001-1808","latitude":"37.331667","longitude":"138.904444","source_code":"HR0884356520120001","project_name":"\u5927\u4e45\u4fdd\u5730\u533a\u5730\u3059\u3079\u308a\u5bfe\u7b56\u5730\u8cea\u8abf\u67fb\u696d\u52d9\u59d4\u8a17","survey_name":"\u5927\u4e45\u4fdd\u5730\u533a\u5730\u3059\u3079\u308a\u5bfe\u7b56\u5730\u8cea\u8abf\u67fb\u696d\u52d9\u59d4\u8a17","client_name":"\u56fd\u4ea4\u7701 \u5317\u9678\u5730\u65b9\u6574\u5099\u5c40 \u6e6f\u6ca2\u7802\u9632\u4e8b\u52d9\u6240","boring_xml_url":45,"boring_view_url":1,"soilmap_view_url":null,"soiltest_xml_url":0,"soiltest_view_url":0},{"id":246327,"code":"B4KJ201802001-1807","latitude":"37.32","longitude":"138.904444","source_code":"HR0784356520150002","project_name":"","survey_name":"\u68b6\u91d1\u5317\u30fb\u4e8c\u4e01\u91ce\u5730\u533a\u5730\u3059\u3079\u308a\u5bfe\u7b56\u5730\u8cea\u8abf\u67fb\u696d\u52d9","client_name":"\u56fd\u571f\u4ea4\u901a\u7701 \u6e6f\u6ca2\u7802\u9632\u4e8b\u52d9\u6240","boring_xml_url":45,"boring_view_url":1,"soilmap_view_url":null,"soiltest_xml_url":0,"soiltest_view_url":0},{"id":246326,"code":"B4KJ201802001-1806","latitude":"37.290306","longitude":"138.904306","source_code":"HR0784356520040007","project_name":"","survey_name":"+\u4e8c\u5e73\u5730\u533a\u5730\u3059\u3079\u308a\u5bfe\u7b56\u5730\u8cea\u8abf\u67fb\u696d\u52d9","client_name":"\u56fd\u571f\u4ea4\u901a\u7701\u5317\u9678\u5730\u65b9\u6574\u5099\u5c40\u6e6f\u6ca2\u7802\u9632\u4e8b\u52d9\u6240","boring_xml_url":45,"boring_view_url":1,"soilmap_view_url":null,"soiltest_xml_url":0,"soiltest_view_url":0},{"id":246325,"code":"B4KJ201802001-1805","latitude":"37.298639","longitude":"138.904278","source_code":"HR0784356520040002","project_name":"","survey_name":"+\u4e8c\u5e73\u5730\u533a\u5730\u3059\u3079\u308a\u5bfe\u7b56\u5730\u8cea\u8abf\u67fb\u696d\u52d9","client_name":"\u56fd\u571f\u4ea4\u901a\u7701\u5317\u9678\u5730\u65b9\u6574\u5099\u5c40\u6e6f\u6ca2\u7802\u9632\u4e8b\u52d9\u6240","boring_xml_url":45,"boring_view_url":1,"soilmap_view_url":null,"soiltest_xml_url":0,"soiltest_view_url":0},{"id":246324,"code":"B4KJ201802001-1804","latitude":"37.33469","longitude":"138.900956","source_code":"HR1184356520080014","project_name":"\u828b\u5ddd\u5730\u533a\u5730\u3059\u3079\u308a\u52d5\u614b\u89b3\u6e2c\u6a5f\u5668\u8a2d\u7f6e\u696d\u52d9","survey_name":"\u828b\u5ddd\u5730\u533a\u5730\u3059\u3079\u308a\u52d5\u614b\u89b3\u6e2c\u6a5f\u5668\u8a2d\u7f6e\u696d\u52d9","client_name":"\u56fd\u571f\u4ea4\u901a\u7701 \u5317\u9678\u5730\u65b9\u6574\u5099\u5c40 \u6e6f\u6ca2\u7802\u9632\u4e8b\u52d9\u6240 \u6d41\u57df\u5bfe\u7b56\u8ab2","boring_xml_url":45,"boring_view_url":1,"soilmap_view_url":null,"soiltest_xml_url":0,"soiltest_view_url":0},{"id":246323,"code":"B4KJ201802001-1803","latitude":"37.335523","longitude":"138.900956","source_code":"HR1184356520080013","project_name":"\u828b\u5ddd\u5730\u533a\u5730\u3059\u3079\u308a\u52d5\u614b\u89b3\u6e2c\u6a5f\u5668\u8a2d\u7f6e\u696d\u52d9","survey_name":"\u828b\u5ddd\u5730\u533a\u5730\u3059\u3079\u308a\u52d5\u614b\u89b3\u6e2c\u6a5f\u5668\u8a2d\u7f6e\u696d\u52d9","client_name":"\u56fd\u571f\u4ea4\u901a\u7701 \u5317\u9678\u5730\u65b9\u6574\u5099\u5c40 \u6e6f\u6ca2\u7802\u9632\u4e8b\u52d9\u6240 \u6d41\u57df\u5bfe\u7b56\u8ab2","boring_xml_url":45,"boring_view_url":1,"soilmap_view_url":null,"soiltest_xml_url":0,"soiltest_view_url":0},{"id":246322,"code":"B4KJ201802001-1802","latitude":"37.327222","longitude":"138.904167","source_code":"HR0884356520070001","project_name":"","survey_name":"\u5e73\u621020\u5e74\u5ea6 \u5927\u4e45\u4fdd\u5730\u8535\u5730\u533a\u5730\u3059\u3079\u308a\u5bfe\u7b56\u5730\u8cea\u8abf\u67fb\u696d\u52d9\u59d4\u8a17","client_name":"\u56fd\u571f\u4ea4\u901a\u7701 \u5317\u9678\u5730\u65b9\u6574\u5099\u5c40 \u6e6f\u6ca2\u7802\u9632\u4e8b\u52d9\u6240","boring_xml_url":45,"boring_view_url":1,"soilmap_view_url":null,"soiltest_xml_url":0,"soiltest_view_url":0},{"id":246321,"code":"B4KJ201802001-1801","latitude":"37.624045","longitude":"138.900946","source_code":"HR1584857820200345","project_name":"\u4e0d\u660e","survey_name":"\u5206\u6c34\u753a\u5730\u8cea\u8abf\u67fb","client_name":"\u5efa\u8a2d\u7701\u4fe1\u6fc3\u5ddd\u4e0b\u6d41\u5de5\u4e8b\u4e8b\u52d9\u6240","boring_xml_url":45,"boring_view_url":1,"soilmap_view_url":null,"soiltest_xml_url":0,"soiltest_view_url":0},{"id":246320,"code":"B4KJ201802001-1800","latitude":"37.298278","longitude":"138.904139","source_code":"HR0784356520040001","project_name":"","survey_name":"+\u4e8c\u5e73\u5730\u533a\u5730\u3059\u3079\u308a\u5bfe\u7b56\u5730\u8cea\u8abf\u67fb\u696d\u52d9","client_name":"\u56fd\u571f\u4ea4\u901a\u7701\u5317\u9678\u5730\u65b9\u6574\u5099\u5c40\u6e6f\u6ca2\u7802\u9632\u4e8b\u52d9\u6240","boring_xml_url":45,"boring_view_url":1,"soilmap_view_url":null,"soiltest_xml_url":0,"soiltest_view_url":0},{"id":246319,"code":"B4KJ201802001-1799","latitude":"37.294861","longitude":"138.904111","source_code":"HR0784356520040005","project_name":"","survey_name":"+\u4e8c\u5e73\u5730\u533a\u5730\u3059\u3079\u308a\u5bfe\u7b56\u5730\u8cea\u8abf\u67fb\u696d\u52d9","client_name":"\u56fd\u571f\u4ea4\u901a\u7701\u5317\u9678\u5730\u65b9\u6574\u5099\u5c40\u6e6f\u6ca2\u7802\u9632\u4e8b\u52d9\u6240","boring_xml_url":45,"boring_view_url":1,"soilmap_view_url":null,"soiltest_xml_url":0,"soiltest_view_url":0},{"id":246318,"code":"B4KJ201802001-1798","latitude":"37.002028","longitude":"138.904","source_code":"HR1284356020070007","project_name":"","survey_name":"\u7802\u9632\u5830\u5824\u7b49\u5730\u8cea\u8abf\u67fb(\u305d\u306e1)\u696d\u52d9","client_name":"\u56fd\u571f\u4ea4\u901a\u7701\u5317\u9678\u5730\u65b9\u6574\u5099\u5c40\u6e6f\u6ca2\u7802\u9632\u4e8b\u52d9\u6240","boring_xml_url":45,"boring_view_url":1,"soilmap_view_url":null,"soiltest_xml_url":0,"soiltest_view_url":0},{"id":246317,"code":"B4KJ201802001-1797","latitude":"37.00225","longitude":"138.903972","source_code":"HR1284356020070008","project_name":"","survey_name":"\u7802\u9632\u5830\u5824\u7b49\u5730\u8cea\u8abf\u67fb(\u305d\u306e1)\u696d\u52d9","client_name":"\u56fd\u571f\u4ea4\u901a\u7701\u5317\u9678\u5730\u65b9\u6574\u5099\u5c40\u6e6f\u6ca2\u7802\u9632\u4e8b\u52d9\u6240","boring_xml_url":45,"boring_view_url":1,"soilmap_view_url":null,"soiltest_xml_url":0,"soiltest_view_url":0},{"id":246316,"code":"B4KJ201802001-1796","latitude":"37.00225","longitude":"138.903972","source_code":"HR1284356020070006","project_name":"","survey_name":"\u7802\u9632\u5830\u5824\u7b49\u5730\u8cea\u8abf\u67fb(\u305d\u306e1)\u696d\u52d9","client_name":"\u56fd\u571f\u4ea4\u901a\u7701\u5317\u9678\u5730\u65b9\u6574\u5099\u5c40\u6e6f\u6ca2\u7802\u9632\u4e8b\u52d9\u6240","boring_xml_url":45,"boring_view_url":1,"soilmap_view_url":null,"soiltest_xml_url":0,"soiltest_view_url":0},{"id":246315,"code":"B4KJ201802001-1795","latitude":"37.295611","longitude":"138.903917","source_code":"HR1284356520080015","project_name":"","survey_name":"\u828b\u5ddd\u5730\u533a\u5730\u3059\u3079\u308a\u52d5\u614b\u89b3\u6e2c\u6a5f\u5668\u8a2d\u7f6e\u696d\u52d9","client_name":"\u56fd\u571f\u4ea4\u901a\u7701\u5317\u9678\u5730\u65b9\u6574\u5099\u5c40\u6e6f\u6ca2\u7802\u9632\u4e8b\u52d9\u6240","boring_xml_url":45,"boring_view_url":1,"soilmap_view_url":null,"soiltest_xml_url":0,"soiltest_view_url":0},{"id":246314,"code":"B4KJ201802001-1794","latitude":"37.333023","longitude":"138.900679","source_code":"HR1184356520080015","project_name":"\u828b\u5ddd\u5730\u533a\u5730\u3059\u3079\u308a\u52d5\u614b\u89b3\u6e2c\u6a5f\u5668\u8a2d\u7f6e\u696d\u52d9","survey_name":"\u828b\u5ddd\u5730\u533a\u5730\u3059\u3079\u308a\u52d5\u614b\u89b3\u6e2c\u6a5f\u5668\u8a2d\u7f6e\u696d\u52d9","client_name":"\u56fd\u571f\u4ea4\u901a\u7701 \u5317\u9678\u5730\u65b9\u6574\u5099\u5c40 \u6e6f\u6ca2\u7802\u9632\u4e8b\u52d9\u6240 \u6d41\u57df\u5bfe\u7b56\u8ab2","boring_xml_url":45,"boring_view_url":1,"soilmap_view_url":null,"soiltest_xml_url":0,"soiltest_view_url":0}]}}