{"header":{"xyz":{"source":[],"mosaic":false},"page":281,"raw":{"soiltest_result":"0","bbox":"57.598333,109.544722,1.933333,163.806111","page":"281"},"conditions":{"soiltest_result":0,"north":57.598333,"west":109.544722,"south":1.933333,"east":163.806111},"success":true,"message":""},"data":{"meta":{"total":212844,"page":281,"pages":7095,"count":30},"values":[{"id":572266,"code":"NGIC202204651-0009","latitude":"43.096997555556","longitude":"144.85894672222","source_code":"","project_name":"","survey_name":"\u4e00\u822c\u56fd\u905344\u53f7\u539a\u5cb8\u753a\u5927\u5225\u5730\u8cea\u8abf\u67fb\u696d\u52d9","client_name":"\u56fd\u571f\u4ea4\u901a\u7701\u5317\u6d77\u9053\u958b\u767a\u5c40\u91e7\u8def\u958b\u767a\u5efa\u8a2d\u90e8\u672c\u90e8","boring_xml_url":47,"boring_view_url":1,"soilmap_view_url":null,"soiltest_xml_url":47,"soiltest_view_url":47},{"id":572265,"code":"NGIC202204651-0008","latitude":"43.096957666667","longitude":"144.85851555556","source_code":"","project_name":"","survey_name":"\u4e00\u822c\u56fd\u905344\u53f7\u539a\u5cb8\u753a\u5927\u5225\u5730\u8cea\u8abf\u67fb\u696d\u52d9","client_name":"\u56fd\u571f\u4ea4\u901a\u7701\u5317\u6d77\u9053\u958b\u767a\u5c40\u91e7\u8def\u958b\u767a\u5efa\u8a2d\u90e8\u672c\u90e8","boring_xml_url":47,"boring_view_url":1,"soilmap_view_url":null,"soiltest_xml_url":47,"soiltest_view_url":47},{"id":572264,"code":"NGIC202204651-0007","latitude":"43.096205194444","longitude":"144.85817958333","source_code":"","project_name":"","survey_name":"\u4e00\u822c\u56fd\u905344\u53f7\u539a\u5cb8\u753a\u5927\u5225\u5730\u8cea\u8abf\u67fb\u696d\u52d9","client_name":"\u56fd\u571f\u4ea4\u901a\u7701\u5317\u6d77\u9053\u958b\u767a\u5c40\u91e7\u8def\u958b\u767a\u5efa\u8a2d\u90e8\u672c\u90e8","boring_xml_url":47,"boring_view_url":1,"soilmap_view_url":null,"soiltest_xml_url":47,"soiltest_view_url":47},{"id":572263,"code":"NGIC202204651-0006","latitude":"43.096164138889","longitude":"144.85774855556","source_code":"","project_name":"","survey_name":"\u4e00\u822c\u56fd\u905344\u53f7\u539a\u5cb8\u753a\u5927\u5225\u5730\u8cea\u8abf\u67fb\u696d\u52d9","client_name":"\u56fd\u571f\u4ea4\u901a\u7701\u5317\u6d77\u9053\u958b\u767a\u5c40\u91e7\u8def\u958b\u767a\u5efa\u8a2d\u90e8\u672c\u90e8","boring_xml_url":47,"boring_view_url":1,"soilmap_view_url":null,"soiltest_xml_url":0,"soiltest_view_url":0},{"id":572262,"code":"NGIC202204651-0005","latitude":"43.095426444444","longitude":"144.85742713889","source_code":"","project_name":"","survey_name":"\u4e00\u822c\u56fd\u905344\u53f7\u539a\u5cb8\u753a\u5927\u5225\u5730\u8cea\u8abf\u67fb\u696d\u52d9","client_name":"\u56fd\u571f\u4ea4\u901a\u7701\u5317\u6d77\u9053\u958b\u767a\u5c40\u91e7\u8def\u958b\u767a\u5efa\u8a2d\u90e8\u672c\u90e8","boring_xml_url":47,"boring_view_url":1,"soilmap_view_url":null,"soiltest_xml_url":0,"soiltest_view_url":0},{"id":572261,"code":"NGIC202204651-0004","latitude":"43.094735527778","longitude":"144.85665425","source_code":"","project_name":"","survey_name":"\u4e00\u822c\u56fd\u905344\u53f7\u539a\u5cb8\u753a\u5927\u5225\u5730\u8cea\u8abf\u67fb\u696d\u52d9","client_name":"\u56fd\u571f\u4ea4\u901a\u7701\u5317\u6d77\u9053\u958b\u767a\u5c40\u91e7\u8def\u958b\u767a\u5efa\u8a2d\u90e8\u672c\u90e8","boring_xml_url":47,"boring_view_url":1,"soilmap_view_url":null,"soiltest_xml_url":0,"soiltest_view_url":0},{"id":572260,"code":"NGIC202204651-0003","latitude":"43.094739166667","longitude":"144.85647716667","source_code":"","project_name":"","survey_name":"\u4e00\u822c\u56fd\u905344\u53f7\u539a\u5cb8\u753a\u5927\u5225\u5730\u8cea\u8abf\u67fb\u696d\u52d9","client_name":"\u56fd\u571f\u4ea4\u901a\u7701\u5317\u6d77\u9053\u958b\u767a\u5c40\u91e7\u8def\u958b\u767a\u5efa\u8a2d\u90e8\u672c\u90e8","boring_xml_url":47,"boring_view_url":1,"soilmap_view_url":null,"soiltest_xml_url":0,"soiltest_view_url":0},{"id":572259,"code":"NGIC202204651-0002","latitude":"43.094504083333","longitude":"144.85625002778","source_code":"","project_name":"","survey_name":"\u4e00\u822c\u56fd\u905344\u53f7\u539a\u5cb8\u753a\u5927\u5225\u5730\u8cea\u8abf\u67fb\u696d\u52d9","client_name":"\u56fd\u571f\u4ea4\u901a\u7701\u5317\u6d77\u9053\u958b\u767a\u5c40\u91e7\u8def\u958b\u767a\u5efa\u8a2d\u90e8\u672c\u90e8","boring_xml_url":47,"boring_view_url":1,"soilmap_view_url":null,"soiltest_xml_url":0,"soiltest_view_url":0},{"id":572258,"code":"NGIC202204651-0001","latitude":"43.094220611111","longitude":"144.85594605556","source_code":"","project_name":"","survey_name":"\u4e00\u822c\u56fd\u905344\u53f7\u539a\u5cb8\u753a\u5927\u5225\u5730\u8cea\u8abf\u67fb\u696d\u52d9","client_name":"\u56fd\u571f\u4ea4\u901a\u7701\u5317\u6d77\u9053\u958b\u767a\u5c40\u91e7\u8def\u958b\u767a\u5efa\u8a2d\u90e8\u672c\u90e8","boring_xml_url":47,"boring_view_url":1,"soilmap_view_url":null,"soiltest_xml_url":0,"soiltest_view_url":0},{"id":572253,"code":"NGIC202204626-0010","latitude":"33.220565555556","longitude":"133.15796919444","source_code":"","project_name":"\u4ee4\u548c4\u5e74\u5ea6 \u4f50\u8cc0\u5927\u65b9\u9053\u8def\u5916\u5730\u8cea\u8abf\u67fb\u696d\u52d9","survey_name":"\u4ee4\u548c4\u5e74\u5ea6 \u4f50\u8cc0\u5927\u65b9\u9053\u8def\u5916\u5730\u8cea\u8abf\u67fb\u696d\u52d9","client_name":"\u56fd\u571f\u4ea4\u901a\u7701\u56db\u56fd\u5730\u65b9\u6574\u5099\u5c40\u4e2d\u6751\u6cb3\u5ddd\u56fd\u9053\u4e8b\u52d9\u6240","boring_xml_url":47,"boring_view_url":1,"soilmap_view_url":null,"soiltest_xml_url":0,"soiltest_view_url":0},{"id":572252,"code":"NGIC202204626-0009","latitude":"33.068577722222","longitude":"133.0889555","source_code":"","project_name":"\u4ee4\u548c4\u5e74\u5ea6 \u4f50\u8cc0\u5927\u65b9\u9053\u8def\u5916\u5730\u8cea\u8abf\u67fb\u696d\u52d9","survey_name":"\u4ee4\u548c4\u5e74\u5ea6 \u4f50\u8cc0\u5927\u65b9\u9053\u8def\u5916\u5730\u8cea\u8abf\u67fb\u696d\u52d9","client_name":"\u56fd\u571f\u4ea4\u901a\u7701\u56db\u56fd\u5730\u65b9\u6574\u5099\u5c40\u4e2d\u6751\u6cb3\u5ddd\u56fd\u9053\u4e8b\u52d9\u6240","boring_xml_url":47,"boring_view_url":1,"soilmap_view_url":null,"soiltest_xml_url":0,"soiltest_view_url":0},{"id":572251,"code":"NGIC202204626-0008","latitude":"33.038777138889","longitude":"133.02329155556","source_code":"","project_name":"\u4ee4\u548c4\u5e74\u5ea6 \u4f50\u8cc0\u5927\u65b9\u9053\u8def\u5916\u5730\u8cea\u8abf\u67fb\u696d\u52d9","survey_name":"\u4ee4\u548c4\u5e74\u5ea6 \u4f50\u8cc0\u5927\u65b9\u9053\u8def\u5916\u5730\u8cea\u8abf\u67fb\u696d\u52d9","client_name":"\u56fd\u571f\u4ea4\u901a\u7701\u56db\u56fd\u5730\u65b9\u6574\u5099\u5c40\u4e2d\u6751\u6cb3\u5ddd\u56fd\u9053\u4e8b\u52d9\u6240","boring_xml_url":47,"boring_view_url":1,"soilmap_view_url":null,"soiltest_xml_url":0,"soiltest_view_url":0},{"id":572250,"code":"NGIC202204626-0007","latitude":"33.038889361111","longitude":"133.02323416667","source_code":"","project_name":"\u4ee4\u548c4\u5e74\u5ea6 \u4f50\u8cc0\u5927\u65b9\u9053\u8def\u5916\u5730\u8cea\u8abf\u67fb\u696d\u52d9","survey_name":"\u4ee4\u548c4\u5e74\u5ea6 \u4f50\u8cc0\u5927\u65b9\u9053\u8def\u5916\u5730\u8cea\u8abf\u67fb\u696d\u52d9","client_name":"\u56fd\u571f\u4ea4\u901a\u7701\u56db\u56fd\u5730\u65b9\u6574\u5099\u5c40\u4e2d\u6751\u6cb3\u5ddd\u56fd\u9053\u4e8b\u52d9\u6240","boring_xml_url":47,"boring_view_url":1,"soilmap_view_url":null,"soiltest_xml_url":0,"soiltest_view_url":0},{"id":572249,"code":"NGIC202204626-0006","latitude":"33.043829083333","longitude":"133.05143566667","source_code":"","project_name":"\u4ee4\u548c4\u5e74\u5ea6 \u4f50\u8cc0\u5927\u65b9\u9053\u8def\u5916\u5730\u8cea\u8abf\u67fb\u696d\u52d9","survey_name":"\u4ee4\u548c4\u5e74\u5ea6 \u4f50\u8cc0\u5927\u65b9\u9053\u8def\u5916\u5730\u8cea\u8abf\u67fb\u696d\u52d9","client_name":"\u56fd\u571f\u4ea4\u901a\u7701\u56db\u56fd\u5730\u65b9\u6574\u5099\u5c40\u4e2d\u6751\u6cb3\u5ddd\u56fd\u9053\u4e8b\u52d9\u6240","boring_xml_url":47,"boring_view_url":1,"soilmap_view_url":null,"soiltest_xml_url":47,"soiltest_view_url":47},{"id":572248,"code":"NGIC202204626-0005","latitude":"33.051776833333","longitude":"133.07175861111","source_code":"","project_name":"\u4ee4\u548c4\u5e74\u5ea6 \u4f50\u8cc0\u5927\u65b9\u9053\u8def\u5916\u5730\u8cea\u8abf\u67fb\u696d\u52d9","survey_name":"\u4ee4\u548c4\u5e74\u5ea6 \u4f50\u8cc0\u5927\u65b9\u9053\u8def\u5916\u5730\u8cea\u8abf\u67fb\u696d\u52d9","client_name":"\u56fd\u571f\u4ea4\u901a\u7701\u56db\u56fd\u5730\u65b9\u6574\u5099\u5c40\u4e2d\u6751\u6cb3\u5ddd\u56fd\u9053\u4e8b\u52d9\u6240","boring_xml_url":47,"boring_view_url":1,"soilmap_view_url":null,"soiltest_xml_url":47,"soiltest_view_url":47},{"id":572247,"code":"NGIC202204626-0004","latitude":"33.052303694444","longitude":"133.07377325","source_code":"","project_name":"\u4ee4\u548c4\u5e74\u5ea6 \u4f50\u8cc0\u5927\u65b9\u9053\u8def\u5916\u5730\u8cea\u8abf\u67fb\u696d\u52d9","survey_name":"\u4ee4\u548c4\u5e74\u5ea6 \u4f50\u8cc0\u5927\u65b9\u9053\u8def\u5916\u5730\u8cea\u8abf\u67fb\u696d\u52d9","client_name":"\u56fd\u571f\u4ea4\u901a\u7701\u56db\u56fd\u5730\u65b9\u6574\u5099\u5c40\u4e2d\u6751\u6cb3\u5ddd\u56fd\u9053\u4e8b\u52d9\u6240","boring_xml_url":47,"boring_view_url":1,"soilmap_view_url":null,"soiltest_xml_url":0,"soiltest_view_url":0},{"id":572246,"code":"NGIC202204626-0003","latitude":"33.052344694444","longitude":"133.07340269444","source_code":"","project_name":"\u4ee4\u548c4\u5e74\u5ea6 \u4f50\u8cc0\u5927\u65b9\u9053\u8def\u5916\u5730\u8cea\u8abf\u67fb\u696d\u52d9","survey_name":"\u4ee4\u548c4\u5e74\u5ea6 \u4f50\u8cc0\u5927\u65b9\u9053\u8def\u5916\u5730\u8cea\u8abf\u67fb\u696d\u52d9","client_name":"\u56fd\u571f\u4ea4\u901a\u7701\u56db\u56fd\u5730\u65b9\u6574\u5099\u5c40\u4e2d\u6751\u6cb3\u5ddd\u56fd\u9053\u4e8b\u52d9\u6240","boring_xml_url":47,"boring_view_url":1,"soilmap_view_url":null,"soiltest_xml_url":0,"soiltest_view_url":0},{"id":572245,"code":"NGIC202204626-0002","latitude":"33.052461111111","longitude":"133.07424127778","source_code":"","project_name":"\u4ee4\u548c4\u5e74\u5ea6 \u4f50\u8cc0\u5927\u65b9\u9053\u8def\u5916\u5730\u8cea\u8abf\u67fb\u696d\u52d9","survey_name":"\u4ee4\u548c4\u5e74\u5ea6 \u4f50\u8cc0\u5927\u65b9\u9053\u8def\u5916\u5730\u8cea\u8abf\u67fb\u696d\u52d9","client_name":"\u56fd\u571f\u4ea4\u901a\u7701\u56db\u56fd\u5730\u65b9\u6574\u5099\u5c40\u4e2d\u6751\u6cb3\u5ddd\u56fd\u9053\u4e8b\u52d9\u6240","boring_xml_url":47,"boring_view_url":1,"soilmap_view_url":null,"soiltest_xml_url":0,"soiltest_view_url":0},{"id":572244,"code":"NGIC202204626-0001","latitude":"33.052565305556","longitude":"133.07342908333","source_code":"","project_name":"\u4ee4\u548c4\u5e74\u5ea6 \u4f50\u8cc0\u5927\u65b9\u9053\u8def\u5916\u5730\u8cea\u8abf\u67fb\u696d\u52d9","survey_name":"\u4ee4\u548c4\u5e74\u5ea6 \u4f50\u8cc0\u5927\u65b9\u9053\u8def\u5916\u5730\u8cea\u8abf\u67fb\u696d\u52d9","client_name":"\u56fd\u571f\u4ea4\u901a\u7701\u56db\u56fd\u5730\u65b9\u6574\u5099\u5c40\u4e2d\u6751\u6cb3\u5ddd\u56fd\u9053\u4e8b\u52d9\u6240","boring_xml_url":47,"boring_view_url":1,"soilmap_view_url":null,"soiltest_xml_url":0,"soiltest_view_url":0},{"id":572239,"code":"NGIC202204507-0016","latitude":"32.946897222222","longitude":"131.22753611111","source_code":"","project_name":"\u4ee4\u548c3\u5e74\u5ea6\u4e2d\u4e5d\u5dde\u6a2a\u65ad\u9053\u8def\u5730\u8cea\u8abf\u67fb\u696d\u52d9","survey_name":"\u4ee4\u548c3\u5e74\u5ea6\u4e2d\u4e5d\u5dde\u6a2a\u65ad\u9053\u8def\u5730\u8cea\u8abf\u67fb\u696d\u52d9","client_name":"\u56fd\u571f\u4ea4\u901a\u7701\u4e5d\u5dde\u5730\u65b9\u6574\u5099\u5c40\u718a\u672c\u6cb3\u5ddd\u56fd\u9053\u4e8b\u52d9\u6240","boring_xml_url":47,"boring_view_url":1,"soilmap_view_url":null,"soiltest_xml_url":47,"soiltest_view_url":47},{"id":572238,"code":"NGIC202204507-0015","latitude":"32.946569444444","longitude":"131.22793055556","source_code":"","project_name":"\u4ee4\u548c3\u5e74\u5ea6\u4e2d\u4e5d\u5dde\u6a2a\u65ad\u9053\u8def\u5730\u8cea\u8abf\u67fb\u696d\u52d9","survey_name":"\u4ee4\u548c3\u5e74\u5ea6\u4e2d\u4e5d\u5dde\u6a2a\u65ad\u9053\u8def\u5730\u8cea\u8abf\u67fb\u696d\u52d9","client_name":"\u56fd\u571f\u4ea4\u901a\u7701\u4e5d\u5dde\u5730\u65b9\u6574\u5099\u5c40\u718a\u672c\u6cb3\u5ddd\u56fd\u9053\u4e8b\u52d9\u6240","boring_xml_url":47,"boring_view_url":1,"soilmap_view_url":null,"soiltest_xml_url":0,"soiltest_view_url":0},{"id":572237,"code":"NGIC202204507-0014","latitude":"32.946141666667","longitude":"131.22893055556","source_code":"","project_name":"\u4ee4\u548c3\u5e74\u5ea6\u4e2d\u4e5d\u5dde\u6a2a\u65ad\u9053\u8def\u5730\u8cea\u8abf\u67fb\u696d\u52d9","survey_name":"\u4ee4\u548c3\u5e74\u5ea6\u4e2d\u4e5d\u5dde\u6a2a\u65ad\u9053\u8def\u5730\u8cea\u8abf\u67fb\u696d\u52d9","client_name":"\u56fd\u571f\u4ea4\u901a\u7701\u4e5d\u5dde\u5730\u65b9\u6574\u5099\u5c40\u718a\u672c\u6cb3\u5ddd\u56fd\u9053\u4e8b\u52d9\u6240","boring_xml_url":47,"boring_view_url":1,"soilmap_view_url":null,"soiltest_xml_url":0,"soiltest_view_url":0},{"id":572236,"code":"NGIC202204507-0013","latitude":"32.945597222222","longitude":"131.23101944444","source_code":"","project_name":"\u4ee4\u548c3\u5e74\u5ea6\u4e2d\u4e5d\u5dde\u6a2a\u65ad\u9053\u8def\u5730\u8cea\u8abf\u67fb\u696d\u52d9","survey_name":"\u4ee4\u548c3\u5e74\u5ea6\u4e2d\u4e5d\u5dde\u6a2a\u65ad\u9053\u8def\u5730\u8cea\u8abf\u67fb\u696d\u52d9","client_name":"\u56fd\u571f\u4ea4\u901a\u7701\u4e5d\u5dde\u5730\u65b9\u6574\u5099\u5c40\u718a\u672c\u6cb3\u5ddd\u56fd\u9053\u4e8b\u52d9\u6240","boring_xml_url":47,"boring_view_url":1,"soilmap_view_url":null,"soiltest_xml_url":0,"soiltest_view_url":0},{"id":572235,"code":"NGIC202204507-0012","latitude":"32.945358333333","longitude":"131.23120277778","source_code":"","project_name":"\u4ee4\u548c3\u5e74\u5ea6\u4e2d\u4e5d\u5dde\u6a2a\u65ad\u9053\u8def\u5730\u8cea\u8abf\u67fb\u696d\u52d9","survey_name":"\u4ee4\u548c3\u5e74\u5ea6\u4e2d\u4e5d\u5dde\u6a2a\u65ad\u9053\u8def\u5730\u8cea\u8abf\u67fb\u696d\u52d9","client_name":"\u56fd\u571f\u4ea4\u901a\u7701\u4e5d\u5dde\u5730\u65b9\u6574\u5099\u5c40\u718a\u672c\u6cb3\u5ddd\u56fd\u9053\u4e8b\u52d9\u6240","boring_xml_url":47,"boring_view_url":1,"soilmap_view_url":null,"soiltest_xml_url":47,"soiltest_view_url":47},{"id":572234,"code":"NGIC202204507-0011","latitude":"32.944080555556","longitude":"131.23781944444","source_code":"","project_name":"\u4ee4\u548c3\u5e74\u5ea6\u4e2d\u4e5d\u5dde\u6a2a\u65ad\u9053\u8def\u5730\u8cea\u8abf\u67fb\u696d\u52d9","survey_name":"\u4ee4\u548c3\u5e74\u5ea6\u4e2d\u4e5d\u5dde\u6a2a\u65ad\u9053\u8def\u5730\u8cea\u8abf\u67fb\u696d\u52d9","client_name":"\u56fd\u571f\u4ea4\u901a\u7701\u4e5d\u5dde\u5730\u65b9\u6574\u5099\u5c40\u718a\u672c\u6cb3\u5ddd\u56fd\u9053\u4e8b\u52d9\u6240","boring_xml_url":47,"boring_view_url":1,"soilmap_view_url":null,"soiltest_xml_url":47,"soiltest_view_url":47},{"id":572233,"code":"NGIC202204507-0010","latitude":"32.944036111111","longitude":"131.23814166667","source_code":"","project_name":"\u4ee4\u548c3\u5e74\u5ea6\u4e2d\u4e5d\u5dde\u6a2a\u65ad\u9053\u8def\u5730\u8cea\u8abf\u67fb\u696d\u52d9","survey_name":"\u4ee4\u548c3\u5e74\u5ea6\u4e2d\u4e5d\u5dde\u6a2a\u65ad\u9053\u8def\u5730\u8cea\u8abf\u67fb\u696d\u52d9","client_name":"\u56fd\u571f\u4ea4\u901a\u7701\u4e5d\u5dde\u5730\u65b9\u6574\u5099\u5c40\u718a\u672c\u6cb3\u5ddd\u56fd\u9053\u4e8b\u52d9\u6240","boring_xml_url":47,"boring_view_url":1,"soilmap_view_url":null,"soiltest_xml_url":0,"soiltest_view_url":0},{"id":572232,"code":"NGIC202204507-0009","latitude":"32.94395","longitude":"131.23909444444","source_code":"","project_name":"\u4ee4\u548c3\u5e74\u5ea6\u4e2d\u4e5d\u5dde\u6a2a\u65ad\u9053\u8def\u5730\u8cea\u8abf\u67fb\u696d\u52d9","survey_name":"\u4ee4\u548c3\u5e74\u5ea6\u4e2d\u4e5d\u5dde\u6a2a\u65ad\u9053\u8def\u5730\u8cea\u8abf\u67fb\u696d\u52d9","client_name":"\u56fd\u571f\u4ea4\u901a\u7701\u4e5d\u5dde\u5730\u65b9\u6574\u5099\u5c40\u718a\u672c\u6cb3\u5ddd\u56fd\u9053\u4e8b\u52d9\u6240","boring_xml_url":47,"boring_view_url":1,"soilmap_view_url":null,"soiltest_xml_url":0,"soiltest_view_url":0},{"id":572231,"code":"NGIC202204507-0008","latitude":"32.943788888889","longitude":"131.239925","source_code":"","project_name":"\u4ee4\u548c3\u5e74\u5ea6\u4e2d\u4e5d\u5dde\u6a2a\u65ad\u9053\u8def\u5730\u8cea\u8abf\u67fb\u696d\u52d9","survey_name":"\u4ee4\u548c3\u5e74\u5ea6\u4e2d\u4e5d\u5dde\u6a2a\u65ad\u9053\u8def\u5730\u8cea\u8abf\u67fb\u696d\u52d9","client_name":"\u56fd\u571f\u4ea4\u901a\u7701\u4e5d\u5dde\u5730\u65b9\u6574\u5099\u5c40\u718a\u672c\u6cb3\u5ddd\u56fd\u9053\u4e8b\u52d9\u6240","boring_xml_url":47,"boring_view_url":1,"soilmap_view_url":null,"soiltest_xml_url":0,"soiltest_view_url":0},{"id":572230,"code":"NGIC202204507-0007","latitude":"32.943472222222","longitude":"131.240975","source_code":"","project_name":"\u4ee4\u548c3\u5e74\u5ea6\u4e2d\u4e5d\u5dde\u6a2a\u65ad\u9053\u8def\u5730\u8cea\u8abf\u67fb\u696d\u52d9","survey_name":"\u4ee4\u548c3\u5e74\u5ea6\u4e2d\u4e5d\u5dde\u6a2a\u65ad\u9053\u8def\u5730\u8cea\u8abf\u67fb\u696d\u52d9","client_name":"\u56fd\u571f\u4ea4\u901a\u7701\u4e5d\u5dde\u5730\u65b9\u6574\u5099\u5c40\u718a\u672c\u6cb3\u5ddd\u56fd\u9053\u4e8b\u52d9\u6240","boring_xml_url":47,"boring_view_url":1,"soilmap_view_url":null,"soiltest_xml_url":47,"soiltest_view_url":47},{"id":572229,"code":"NGIC202204507-0006","latitude":"32.942036111111","longitude":"131.24764444444","source_code":"","project_name":"\u4ee4\u548c3\u5e74\u5ea6\u4e2d\u4e5d\u5dde\u6a2a\u65ad\u9053\u8def\u5730\u8cea\u8abf\u67fb\u696d\u52d9","survey_name":"\u4ee4\u548c3\u5e74\u5ea6\u4e2d\u4e5d\u5dde\u6a2a\u65ad\u9053\u8def\u5730\u8cea\u8abf\u67fb\u696d\u52d9","client_name":"\u56fd\u571f\u4ea4\u901a\u7701\u4e5d\u5dde\u5730\u65b9\u6574\u5099\u5c40\u718a\u672c\u6cb3\u5ddd\u56fd\u9053\u4e8b\u52d9\u6240","boring_xml_url":47,"boring_view_url":1,"soilmap_view_url":null,"soiltest_xml_url":0,"soiltest_view_url":0}]}}