{"header":{"xyz":{"source":[],"mosaic":false},"page":2812,"raw":{"soiltest_result":"0","bbox":"57.598333,109.544722,1.933333,163.806111","page":"2812"},"conditions":{"soiltest_result":0,"north":57.598333,"west":109.544722,"south":1.933333,"east":163.806111},"success":true,"message":""},"data":{"meta":{"total":212844,"page":2812,"pages":7095,"count":30},"values":[{"id":246193,"code":"B4KJ201802001-1673","latitude":"37.309972","longitude":"138.886722","source_code":"HR0784356520120004","project_name":"","survey_name":"\u5869\u8c37\u795e\u6ca2\u5ddd\u30fb\u5ce0\u5869\u8c37\u5ddd\u5730\u533a\u5730\u3059\u3079\u308a\u5bfe\u7b56\u5730\u8cea\u8abf\u67fb\u696d\u52d9","client_name":"\u56fd\u571f\u4ea4\u901a\u7701\u5317\u9678\u5730\u65b9\u6574\u5099\u5c40\u6e6f\u6ca2\u7802\u9632\u4e8b\u52d9\u6240","boring_xml_url":45,"boring_view_url":1,"soilmap_view_url":null,"soiltest_xml_url":0,"soiltest_view_url":0},{"id":246192,"code":"B4KJ201802001-1672","latitude":"36.918556","longitude":"138.886528","source_code":"HR1184356020300006","project_name":"\u5927\u6e90\u592a\u6e56\u5730\u8cea\u7b49\u8abf\u67fb\u696d\u52d9","survey_name":"\u5927\u6e90\u592a\u6e56\u5730\u8cea\u7b49\u8abf\u67fb\u696d\u52d9","client_name":"\u56fd\u571f\u4ea4\u901a\u7701 \u5317\u9678\u5730\u65b9\u6574\u5099\u5c40 \u6e6f\u6ca2\u7802\u9632\u4e8b\u52d9\u6240","boring_xml_url":45,"boring_view_url":1,"soilmap_view_url":null,"soiltest_xml_url":45,"soiltest_view_url":44},{"id":246191,"code":"B4KJ201802001-1671","latitude":"36.918861","longitude":"138.886083","source_code":"HR1184356020300004","project_name":"\u5927\u6e90\u592a\u6e56\u5730\u8cea\u7b49\u8abf\u67fb\u696d\u52d9","survey_name":"\u5927\u6e90\u592a\u6e56\u5730\u8cea\u7b49\u8abf\u67fb\u696d\u52d9","client_name":"\u56fd\u571f\u4ea4\u901a\u7701 \u5317\u9678\u5730\u65b9\u6574\u5099\u5c40 \u6e6f\u6ca2\u7802\u9632\u4e8b\u52d9\u6240","boring_xml_url":45,"boring_view_url":1,"soilmap_view_url":null,"soiltest_xml_url":45,"soiltest_view_url":44},{"id":246190,"code":"B4KJ201802001-1670","latitude":"37.68487","longitude":"138.88289","source_code":"HR1584857820200300","project_name":"\u4e0d\u660e","survey_name":"\u65b0\u6f5f\u5730\u65b9\u6cd5\u52d9\u5c40\u5409\u7530\u51fa\u5f35\u6240\u5e81\u820e\u6577\u5730\u8abf\u67fb","client_name":"\u5efa\u8a2d\u5c40\u65b0\u6f5f\u55b6\u7e55\u5de5\u4e8b\u4e8b\u52d9\u6240","boring_xml_url":45,"boring_view_url":1,"soilmap_view_url":null,"soiltest_xml_url":0,"soiltest_view_url":0},{"id":246189,"code":"B4KJ201802001-1669","latitude":"36.919139","longitude":"138.885639","source_code":"HR1184356020300003","project_name":"\u5927\u6e90\u592a\u6e56\u5730\u8cea\u7b49\u8abf\u67fb\u696d\u52d9","survey_name":"\u5927\u6e90\u592a\u6e56\u5730\u8cea\u7b49\u8abf\u67fb\u696d\u52d9","client_name":"\u56fd\u571f\u4ea4\u901a\u7701 \u5317\u9678\u5730\u65b9\u6574\u5099\u5c40 \u6e6f\u6ca2\u7802\u9632\u4e8b\u52d9\u6240","boring_xml_url":45,"boring_view_url":1,"soilmap_view_url":null,"soiltest_xml_url":45,"soiltest_view_url":44},{"id":246188,"code":"B4KJ201802001-1668","latitude":"36.919361","longitude":"138.885361","source_code":"HR1184356020300005","project_name":"\u5927\u6e90\u592a\u6e56\u5730\u8cea\u7b49\u8abf\u67fb\u696d\u52d9","survey_name":"\u5927\u6e90\u592a\u6e56\u5730\u8cea\u7b49\u8abf\u67fb\u696d\u52d9","client_name":"\u56fd\u571f\u4ea4\u901a\u7701\u5317\u9678\u5730\u65b9\u6574\u5099\u5c40\u6e6f\u6ca2\u7802\u9632\u4e8b\u52d9\u6240","boring_xml_url":45,"boring_view_url":1,"soilmap_view_url":null,"soiltest_xml_url":45,"soiltest_view_url":44},{"id":246187,"code":"B4KJ201802001-1667","latitude":"36.919444","longitude":"138.885306","source_code":"HR1184356020300001","project_name":"\u5927\u6e90\u592a\u6e56\u5730\u8cea\u7b49\u8abf\u67fb\u696d\u52d9","survey_name":"\u5927\u6e90\u592a\u6e56\u5730\u8cea\u7b49\u8abf\u67fb\u696d\u52d9","client_name":"\u56fd\u571f\u4ea4\u901a\u7701 \u5317\u9678\u5730\u65b9\u6574\u5099\u5c40 \u6e6f\u6ca2\u7802\u9632\u4e8b\u52d9\u6240","boring_xml_url":45,"boring_view_url":1,"soilmap_view_url":null,"soiltest_xml_url":45,"soiltest_view_url":44},{"id":246186,"code":"B4KJ201802001-1666","latitude":"36.919389","longitude":"138.885306","source_code":"HR0884356020720002","project_name":"","survey_name":"\u6e6f\u6ca2\u7802\u9632\u4e8b\u52d9\u6240\u7ba1\u5185\u8001\u673d\u5316\u3048\u3093\u5824\u8abf\u67fb\u8a66\u9a13\u696d\u52d9","client_name":"\u56fd\u571f\u4ea4\u901a\u7701\u5317\u9678\u5730\u65b9\u6574\u5099\u5c40\u6e6f\u6ca2\u7802\u9632\u4e8b\u52d9\u6240","boring_xml_url":45,"boring_view_url":1,"soilmap_view_url":null,"soiltest_xml_url":0,"soiltest_view_url":0},{"id":246185,"code":"B4KJ201802001-1665","latitude":"37.262778","longitude":"138.885278","source_code":"HR0984346020280002","project_name":"\u5e73\u621021\u5e74\u5ea6\u548c\u5357\u6d25\u5730\u533a\u5730\u8cea\u8abf\u67fb\u4f5c\u696d","survey_name":"\u548c\u5357\u6d25\u30c8\u30f3\u30cd\u30eb\u5730\u8cea\u8abf\u67fb","client_name":"\u56fd\u571f\u4ea4\u901a\u7701\u5317\u9678\u5730\u65b9\u6574\u5099\u5c40\u9577\u5ca1\u56fd\u9053\u4e8b\u52d9\u6240","boring_xml_url":45,"boring_view_url":1,"soilmap_view_url":null,"soiltest_xml_url":45,"soiltest_view_url":44},{"id":246184,"code":"B4KJ201802001-1664","latitude":"36.919333","longitude":"138.885278","source_code":"HR0884356020720005","project_name":"","survey_name":"\u6e6f\u6ca2\u7802\u9632\u4e8b\u52d9\u6240\u7ba1\u5185\u8001\u673d\u5316\u3048\u3093\u5824\u8abf\u67fb\u8a66\u9a13\u696d\u52d9","client_name":"\u56fd\u571f\u4ea4\u901a\u7701\u5317\u9678\u5730\u65b9\u6574\u5099\u5c40\u6e6f\u6ca2\u7802\u9632\u4e8b\u52d9\u6240","boring_xml_url":45,"boring_view_url":1,"soilmap_view_url":null,"soiltest_xml_url":0,"soiltest_view_url":0},{"id":246183,"code":"B4KJ201802001-1663","latitude":"36.919278","longitude":"138.88525","source_code":"HR0884356020720006","project_name":"","survey_name":"\u6e6f\u6ca2\u7802\u9632\u4e8b\u52d9\u6240\u7ba1\u5185\u8001\u673d\u5316\u3048\u3093\u5824\u8abf\u67fb\u8a66\u9a13\u696d\u52d9","client_name":"\u56fd\u571f\u4ea4\u901a\u7701\u5317\u9678\u5730\u65b9\u6574\u5099\u5c40\u6e6f\u6ca2\u7802\u9632\u4e8b\u52d9\u6240","boring_xml_url":45,"boring_view_url":1,"soilmap_view_url":null,"soiltest_xml_url":0,"soiltest_view_url":0},{"id":246182,"code":"B4KJ201802001-1662","latitude":"36.919278","longitude":"138.885222","source_code":"HR1184356020300007","project_name":"\u5927\u6e90\u592a\u6e56\u5730\u8cea\u7b49\u8abf\u67fb\u696d\u52d9","survey_name":"\u5927\u6e90\u592a\u6e56\u5730\u8cea\u7b49\u8abf\u67fb\u696d\u52d9","client_name":"\u56fd\u571f\u4ea4\u901a\u7701\u5317\u9678\u5730\u65b9\u6574\u5099\u5c40\u6e6f\u6ca2\u7802\u9632\u4e8b\u52d9\u6240","boring_xml_url":45,"boring_view_url":1,"soilmap_view_url":null,"soiltest_xml_url":45,"soiltest_view_url":44},{"id":246181,"code":"B4KJ201802001-1661","latitude":"36.919306","longitude":"138.885194","source_code":"HR0884356020720004","project_name":"","survey_name":"\u6e6f\u6ca2\u7802\u9632\u4e8b\u52d9\u6240\u7ba1\u5185\u8001\u673d\u5316\u3048\u3093\u5824\u8abf\u67fb\u8a66\u9a13\u696d\u52d9","client_name":"\u56fd\u571f\u4ea4\u901a\u7701\u5317\u9678\u5730\u65b9\u6574\u5099\u5c40\u6e6f\u6ca2\u7802\u9632\u4e8b\u52d9\u6240","boring_xml_url":45,"boring_view_url":1,"soilmap_view_url":null,"soiltest_xml_url":0,"soiltest_view_url":0},{"id":246180,"code":"B4KJ201802001-1660","latitude":"36.919278","longitude":"138.885167","source_code":"HR0884356020720003","project_name":"","survey_name":"\u6e6f\u6ca2\u7802\u9632\u4e8b\u52d9\u6240\u7ba1\u5185\u8001\u673d\u5316\u3048\u3093\u5824\u8abf\u67fb\u8a66\u9a13\u696d\u52d9","client_name":"\u56fd\u571f\u4ea4\u901a\u7701\u5317\u9678\u5730\u65b9\u6574\u5099\u5c40\u6e6f\u6ca2\u7802\u9632\u4e8b\u52d9\u6240","boring_xml_url":45,"boring_view_url":1,"soilmap_view_url":null,"soiltest_xml_url":0,"soiltest_view_url":0},{"id":246179,"code":"B4KJ201802001-1659","latitude":"36.919306","longitude":"138.885139","source_code":"HR1184356020300002","project_name":"\u5927\u6e90\u592a\u6e56\u5730\u8cea\u7b49\u8abf\u67fb\u696d\u52d9","survey_name":"\u5927\u6e90\u592a\u6e56\u5730\u8cea\u7b49\u8abf\u67fb\u696d\u52d9","client_name":"\u56fd\u571f\u4ea4\u901a\u7701\u5317\u9678\u5730\u65b9\u6574\u5099\u5c40\u6e6f\u6ca2\u7802\u9632\u4e8b\u52d9\u6240","boring_xml_url":45,"boring_view_url":1,"soilmap_view_url":null,"soiltest_xml_url":0,"soiltest_view_url":0},{"id":246178,"code":"B4KJ201802001-1658","latitude":"36.91925","longitude":"138.885083","source_code":"HR0884356020720001","project_name":"","survey_name":"\u6e6f\u6ca2\u7802\u9632\u4e8b\u52d9\u6240\u7ba1\u5185\u8001\u673d\u5316\u3048\u3093\u5824\u8abf\u67fb\u8a66\u9a13\u696d\u52d9","client_name":"\u56fd\u571f\u4ea4\u901a\u7701\u5317\u9678\u5730\u65b9\u6574\u5099\u5c40\u6e6f\u6ca2\u7802\u9632\u4e8b\u52d9\u6240","boring_xml_url":45,"boring_view_url":1,"soilmap_view_url":null,"soiltest_xml_url":0,"soiltest_view_url":0},{"id":246177,"code":"B4KJ201802001-1657","latitude":"36.919333","longitude":"138.885028","source_code":"HR1284356020110009","project_name":"\u5e73\u621024\u5e74\u5ea6 \u767b\u5ddd\u6d41\u57df\u7802\u9632\u5830\u5824\u7b49\u5730\u8cea\u8abf\u67fb\u696d\u52d9 (\u5927\u6e90\u592a\u7b2c1\u53f7\u7802\u9632\u5830\u5824)","survey_name":"\u5e73\u621024\u5e74\u5ea6 \u767b\u5ddd\u6d41\u57df\u7802\u9632\u5830\u5824\u7b49\u5730\u8cea\u8abf\u67fb\u696d\u52d9 (\u5927\u6e90\u592a\u7b2c1\u53f7\u7802\u9632\u5830\u5824)","client_name":"\u56fd\u571f\u4ea4\u901a\u7701\u5317\u9678\u5730\u65b9\u6574\u5099\u5c40\u6e6f\u6ca2\u7802\u9632\u4e8b\u52d9\u6240","boring_xml_url":45,"boring_view_url":1,"soilmap_view_url":null,"soiltest_xml_url":0,"soiltest_view_url":0},{"id":246176,"code":"B4KJ201802001-1656","latitude":"37.296194","longitude":"138.885028","source_code":"HR0684356520060001","project_name":"-","survey_name":"\u5ce0\u5869\u8c37\u5ddd\u5730\u533a\u5730\u3059\u3079\u308a\u5bfe\u7b56\u8a2d\u8a08","client_name":"\u56fd\u571f\u4ea4\u901a\u7701\u5317\u9678\u5730\u65b9\u6574\u5099\u5c40\u6e6f\u6ca2\u7802\u9632\u4e8b\u52d9\u6240","boring_xml_url":45,"boring_view_url":1,"soilmap_view_url":null,"soiltest_xml_url":0,"soiltest_view_url":0},{"id":246175,"code":"B4KJ201802001-1655","latitude":"37.295556","longitude":"138.884972","source_code":"HR0684356520060005","project_name":"-","survey_name":"\u5ce0\u5869\u8c37\u5ddd\u5730\u533a\u5730\u3059\u3079\u308a\u5bfe\u7b56\u8a2d\u8a08","client_name":"\u56fd\u571f\u4ea4\u901a\u7701\u5317\u9678\u5730\u65b9\u6574\u5099\u5c40\u6e6f\u6ca2\u7802\u9632\u4e8b\u52d9\u6240","boring_xml_url":45,"boring_view_url":1,"soilmap_view_url":null,"soiltest_xml_url":0,"soiltest_view_url":0},{"id":246174,"code":"B4KJ201802001-1654","latitude":"36.919306","longitude":"138.884861","source_code":"HR1284356020110010","project_name":"\u5e73\u621024\u5e74\u5ea6 \u767b\u5ddd\u6d41\u57df\u7802\u9632\u5830\u5824\u7b49\u5730\u8cea\u8abf\u67fb\u696d\u52d9 (\u5927\u6e90\u592a\u7b2c1\u53f7\u7802\u9632\u5830\u5824)","survey_name":"\u5e73\u621024\u5e74\u5ea6 \u767b\u5ddd\u6d41\u57df\u7802\u9632\u5830\u5824\u7b49\u5730\u8cea\u8abf\u67fb\u696d\u52d9 (\u5927\u6e90\u592a\u7b2c1\u53f7\u7802\u9632\u5830\u5824)","client_name":"\u56fd\u571f\u4ea4\u901a\u7701\u5317\u9678\u5730\u65b9\u6574\u5099\u5c40\u6e6f\u6ca2\u7802\u9632\u4e8b\u52d9\u6240","boring_xml_url":45,"boring_view_url":1,"soilmap_view_url":null,"soiltest_xml_url":0,"soiltest_view_url":0},{"id":246173,"code":"B4KJ201802001-1653","latitude":"37.264444","longitude":"138.884722","source_code":"HR1184346020090001","project_name":"","survey_name":"\u56fd\u905317\u53f7\u548c\u5357\u6d25\u6539\u826f\u5730\u8cea\u8abf\u67fb\u696d\u52d9","client_name":"\u56fd\u571f\u4ea4\u901a\u7701\u5317\u9678\u5730\u65b9\u6574\u5099\u5c40\u9577\u5ca1\u56fd\u9053\u4e8b\u52d9\u6240\u8abf\u67fb\u8ab2","boring_xml_url":45,"boring_view_url":1,"soilmap_view_url":null,"soiltest_xml_url":0,"soiltest_view_url":0},{"id":246172,"code":"B4KJ201802001-1652","latitude":"37.295444","longitude":"138.884417","source_code":"HR1284356520080011","project_name":"","survey_name":"\u828b\u5ddd\u5730\u533a\u5730\u3059\u3079\u308a\u52d5\u614b\u89b3\u6e2c\u6a5f\u5668\u8a2d\u7f6e\u696d\u52d9","client_name":"\u56fd\u571f\u4ea4\u901a\u7701\u5317\u9678\u5730\u65b9\u6574\u5099\u5c40\u6e6f\u6ca2\u7802\u9632\u4e8b\u52d9\u6240","boring_xml_url":45,"boring_view_url":1,"soilmap_view_url":null,"soiltest_xml_url":0,"soiltest_view_url":0},{"id":246171,"code":"B4KJ201802001-1651","latitude":"37.29625","longitude":"138.884139","source_code":"HR0684356520060002","project_name":"-","survey_name":"\u5ce0\u5869\u8c37\u5ddd\u5730\u533a\u5730\u3059\u3079\u308a\u5bfe\u7b56\u8a2d\u8a08","client_name":"\u56fd\u571f\u4ea4\u901a\u7701\u5317\u9678\u5730\u65b9\u6574\u5099\u5c40\u6e6f\u6ca2\u7802\u9632\u4e8b\u52d9\u6240","boring_xml_url":45,"boring_view_url":1,"soilmap_view_url":null,"soiltest_xml_url":0,"soiltest_view_url":0},{"id":246170,"code":"B4KJ201802001-1650","latitude":"37.295833","longitude":"138.884083","source_code":"HR0684356520060007","project_name":"-","survey_name":"\u5ce0\u5869\u8c37\u5ddd\u5730\u533a\u5730\u3059\u3079\u308a\u5bfe\u7b56\u8a2d\u8a08","client_name":"\u56fd\u571f\u4ea4\u901a\u7701\u5317\u9678\u5730\u65b9\u6574\u5099\u5c40\u6e6f\u6ca2\u7802\u9632\u4e8b\u52d9\u6240","boring_xml_url":45,"boring_view_url":1,"soilmap_view_url":null,"soiltest_xml_url":0,"soiltest_view_url":0},{"id":246169,"code":"B4KJ201802001-1649","latitude":"37.295444","longitude":"138.884083","source_code":"HR0684356520060006","project_name":"-","survey_name":"\u5ce0\u5869\u8c37\u5ddd\u5730\u533a\u5730\u3059\u3079\u308a\u5bfe\u7b56\u8a2d\u8a08","client_name":"\u56fd\u571f\u4ea4\u901a\u7701\u5317\u9678\u5730\u65b9\u6574\u5099\u5c40\u6e6f\u6ca2\u7802\u9632\u4e8b\u52d9\u6240","boring_xml_url":45,"boring_view_url":1,"soilmap_view_url":null,"soiltest_xml_url":0,"soiltest_view_url":0},{"id":246168,"code":"B4KJ201802001-1648","latitude":"37.263611","longitude":"138.883611","source_code":"HR1184346020090002","project_name":"","survey_name":"\u56fd\u905317\u53f7\u548c\u5357\u6d25\u6539\u826f\u5730\u8cea\u8abf\u67fb\u696d\u52d9","client_name":"\u56fd\u571f\u4ea4\u901a\u7701\u5317\u9678\u5730\u65b9\u6574\u5099\u5c40\u9577\u5ca1\u56fd\u9053\u4e8b\u52d9\u6240","boring_xml_url":45,"boring_view_url":1,"soilmap_view_url":null,"soiltest_xml_url":0,"soiltest_view_url":0},{"id":246167,"code":"B4KJ201802001-1647","latitude":"37.076528","longitude":"138.883528","source_code":"HR1184345120050012","project_name":"","survey_name":"\u5e73\u621023\u5e74\u5ea6\u9577\u5ca1\u56fd\u9053\u5730\u8cea\u8abf\u67fb\u696d\u52d9(\u5358\u4fa1\u5951\u7d04)\u56fd\u905317\u53f7\u7f8e\u4f50\u5cf6\u5730\u533a\u5730\u8cea\u8abf\u67fb\u4f5c\u696d","client_name":"\u56fd\u571f\u4ea4\u901a\u7701\u5317\u9678\u5730\u65b9\u6574\u5099\u5c40\u9577\u5ca1\u56fd\u9053\u4e8b\u52d9\u6240","boring_xml_url":45,"boring_view_url":1,"soilmap_view_url":null,"soiltest_xml_url":0,"soiltest_view_url":0},{"id":246166,"code":"B4KJ201802001-1646","latitude":"37.29625","longitude":"138.883306","source_code":"HR0684356520060003","project_name":"-","survey_name":"\u5ce0\u5869\u8c37\u5ddd\u5730\u533a\u5730\u3059\u3079\u308a\u5bfe\u7b56\u8a2d\u8a08","client_name":"\u56fd\u571f\u4ea4\u901a\u7701\u5317\u9678\u5730\u65b9\u6574\u5099\u5c40\u6e6f\u6ca2\u7802\u9632\u4e8b\u52d9\u6240","boring_xml_url":45,"boring_view_url":1,"soilmap_view_url":null,"soiltest_xml_url":0,"soiltest_view_url":0},{"id":246165,"code":"B4KJ201802001-1645","latitude":"37.262778","longitude":"138.883056","source_code":"HR1184346020090003","project_name":"","survey_name":"\u56fd\u905317\u53f7\u548c\u5357\u6d25\u6539\u826f\u5730\u8cea\u8abf\u67fb\u696d\u52d9","client_name":"\u56fd\u571f\u4ea4\u901a\u7701\u5317\u9678\u5730\u65b9\u6574\u5099\u5c40\u9577\u5ca1\u56fd\u9053\u4e8b\u52d9\u6240","boring_xml_url":45,"boring_view_url":1,"soilmap_view_url":null,"soiltest_xml_url":0,"soiltest_view_url":0},{"id":246164,"code":"B4KJ201802001-1644","latitude":"37.264167","longitude":"138.883056","source_code":"HR0984346020280004","project_name":"\u5e73\u621021\u5e74\u5ea6\u548c\u5357\u6d25\u5730\u533a\u5730\u8cea\u8abf\u67fb\u4f5c\u696d","survey_name":"\u548c\u5357\u6d25\u30c8\u30f3\u30cd\u30eb\u5730\u8cea\u8abf\u67fb","client_name":"\u56fd\u571f\u4ea4\u901a\u7701\u5317\u9678\u5730\u65b9\u6574\u5099\u5c40\u9577\u5ca1\u56fd\u9053\u4e8b\u52d9\u6240","boring_xml_url":45,"boring_view_url":1,"soilmap_view_url":null,"soiltest_xml_url":45,"soiltest_view_url":44}]}}