{"header":{"xyz":{"source":[],"mosaic":false},"page":2815,"raw":{"soiltest_result":"0","bbox":"57.598333,109.544722,1.933333,163.806111","page":"2815"},"conditions":{"soiltest_result":0,"north":57.598333,"west":109.544722,"south":1.933333,"east":163.806111},"success":true,"message":""},"data":{"meta":{"total":212844,"page":2815,"pages":7095,"count":30},"values":[{"id":246103,"code":"B4KJ201802001-1583","latitude":"36.867361","longitude":"138.855361","source_code":"HR0784356020190010","project_name":"\u6bdb\u6e21\u6ca2\u7b2c2\u53f7\u7802\u9632\u5830\u5824","survey_name":"\u6e6f\u6ca2\u7802\u9632\u4e8b\u52d9\u6240\u7ba1\u5185\u7802\u9632\u5830\u5824\u7b49\u5730\u8cea\u8abf\u67fb(\u305d\u306e2)\u4f5c\u696d","client_name":"\u56fd\u571f\u4ea4\u901a\u7701\u5317\u9678\u5730\u65b9\u5efa\u8a2d\u5c40\u6e6f\u6ca2\u7802\u9632\u4e8b\u52d9\u6240","boring_xml_url":45,"boring_view_url":1,"soilmap_view_url":null,"soiltest_xml_url":0,"soiltest_view_url":0},{"id":246102,"code":"B4KJ201802001-1582","latitude":"37.208306","longitude":"138.852389","source_code":"HR0784356020140004","project_name":"","survey_name":"\u76f8\u5ddd\u5ddd\u6d41\u57df\u7802\u9632\u5830\u5824\u7b49\u5730\u8cea\u8abf\u67fb\u4f5c\u696d","client_name":"\u56fd\u571f\u4ea4\u901a\u7701 \u5317\u9678\u5730\u65b9\u6574\u5099\u5c40 \u6e6f\u6ca2\u7802\u9632\u4e8b\u52d9\u6240","boring_xml_url":45,"boring_view_url":1,"soilmap_view_url":null,"soiltest_xml_url":0,"soiltest_view_url":0},{"id":246101,"code":"B4KJ201802001-1581","latitude":"37.207333","longitude":"138.852028","source_code":"HR0784356020140002","project_name":"","survey_name":"\u76f8\u5ddd\u5ddd\u6d41\u57df\u7802\u9632\u5830\u5824\u7b49\u5730\u8cea\u8abf\u67fb\u4f5c\u696d","client_name":"\u56fd\u571f\u4ea4\u901a\u7701 \u5317\u9678\u5730\u65b9\u6574\u5099\u5c40 \u6e6f\u6ca2\u7802\u9632\u4e8b\u52d9\u6240","boring_xml_url":45,"boring_view_url":1,"soilmap_view_url":null,"soiltest_xml_url":0,"soiltest_view_url":0},{"id":246100,"code":"B4KJ201802001-1580","latitude":"37.094417","longitude":"138.851444","source_code":"HR0984344729010012","project_name":"\u5e73\u621021\u5e74\u5ea6 \u56fd\u9053253\u53f7\u516b\u7b87\u5ce0\u9053\u8def\u5730\u8cea\u8abf\u67fb\u305d\u306e2\u4f5c\u696d","survey_name":"\u5e73\u621021\u5e74\u5ea6 \u56fd\u9053253\u53f7\u516b\u7b87\u5ce0\u9053\u8def\u5730\u8cea\u8abf\u67fb\u305d\u306e2\u4f5c\u696d","client_name":"\u56fd\u4ea4\u7701 \u5317\u9678\u5730\u65b9\u6574\u5099\u5c40 \u9577\u5ca1\u56fd\u9053\u4e8b\u52d9\u6240","boring_xml_url":45,"boring_view_url":1,"soilmap_view_url":null,"soiltest_xml_url":0,"soiltest_view_url":0},{"id":246099,"code":"B4KJ201802001-1579","latitude":"37.094056","longitude":"138.851389","source_code":"HR0984344729010010","project_name":"\u5e73\u621021\u5e74\u5ea6 \u56fd\u9053253\u53f7\u516b\u7b87\u5ce0\u9053\u8def\u5730\u8cea\u8abf\u67fb\u305d\u306e2\u4f5c\u696d","survey_name":"\u5e73\u621021\u5e74\u5ea6 \u56fd\u9053253\u53f7\u516b\u7b87\u5ce0\u9053\u8def\u5730\u8cea\u8abf\u67fb\u305d\u306e2\u4f5c\u696d","client_name":"\u56fd\u4ea4\u7701 \u5317\u9678\u5730\u65b9\u6574\u5099\u5c40 \u9577\u5ca1\u56fd\u9053\u4e8b\u52d9\u6240","boring_xml_url":45,"boring_view_url":1,"soilmap_view_url":null,"soiltest_xml_url":0,"soiltest_view_url":0},{"id":246098,"code":"B4KJ201802001-1578","latitude":"37.093861","longitude":"138.851194","source_code":"HR0984344729010011","project_name":"\u5e73\u621021\u5e74\u5ea6 \u56fd\u9053253\u53f7\u516b\u7b87\u5ce0\u9053\u8def\u5730\u8cea\u8abf\u67fb\u305d\u306e2\u4f5c\u696d","survey_name":"\u5e73\u621021\u5e74\u5ea6 \u56fd\u9053253\u53f7\u516b\u7b87\u5ce0\u9053\u8def\u5730\u8cea\u8abf\u67fb\u305d\u306e2\u4f5c\u696d","client_name":"\u56fd\u4ea4\u7701 \u5317\u9678\u5730\u65b9\u6574\u5099\u5c40 \u9577\u5ca1\u56fd\u9053\u4e8b\u52d9\u6240","boring_xml_url":45,"boring_view_url":1,"soilmap_view_url":null,"soiltest_xml_url":0,"soiltest_view_url":0},{"id":246097,"code":"B4KJ201802001-1577","latitude":"37.093861","longitude":"138.850944","source_code":"HR0984344729010009","project_name":"\u5e73\u621021\u5e74\u5ea6 \u56fd\u9053253\u53f7\u516b\u7b87\u5ce0\u9053\u8def\u5730\u8cea\u8abf\u67fb\u305d\u306e2\u4f5c\u696d","survey_name":"\u5e73\u621021\u5e74\u5ea6 \u56fd\u9053253\u53f7\u516b\u7b87\u5ce0\u9053\u8def\u5730\u8cea\u8abf\u67fb\u305d\u306e2\u4f5c\u696d","client_name":"\u56fd\u4ea4\u7701 \u5317\u9678\u5730\u65b9\u6574\u5099\u5c40 \u9577\u5ca1\u56fd\u9053\u4e8b\u52d9\u6240","boring_xml_url":45,"boring_view_url":1,"soilmap_view_url":null,"soiltest_xml_url":0,"soiltest_view_url":0},{"id":246096,"code":"B4KJ201802001-1576","latitude":"37.09375","longitude":"138.85025","source_code":"HR0984344729010008","project_name":"\u5e73\u621021\u5e74\u5ea6 \u56fd\u9053253\u53f7\u516b\u7b87\u5ce0\u9053\u8def\u5730\u8cea\u8abf\u67fb\u305d\u306e2\u4f5c\u696d","survey_name":"\u5e73\u621021\u5e74\u5ea6 \u56fd\u9053253\u7dda\u516b\u7b87\u5ce0\u9053\u8def\u5730\u8cea\u8abf\u67fb\u305d\u306e2\u4f5c\u696d","client_name":"\u56fd\u4ea4\u7701 \u5317\u9678\u5730\u65b9\u6574\u5099\u5c40 \u9577\u5ca1\u56fd\u9053\u4e8b\u52d9\u6240","boring_xml_url":45,"boring_view_url":1,"soilmap_view_url":null,"soiltest_xml_url":0,"soiltest_view_url":0},{"id":246095,"code":"B4KJ201802001-1575","latitude":"37.612389","longitude":"138.85025","source_code":"HR0984306020150006","project_name":"","survey_name":"\u5927\u6cb3\u6d25\u5730\u533a\u5730\u8cea\u8abf\u67fb\u696d\u52d9\u59d4\u8a17","client_name":"\u56fd\u571f\u4ea4\u901a\u7701\u5317\u9678\u5730\u65b9\u6574\u5099\u5c40 \u4fe1\u6fc3\u5ddd\u4e0b\u6d41\u6cb3\u5ddd\u4e8b\u52d9\u6240","boring_xml_url":45,"boring_view_url":1,"soilmap_view_url":null,"soiltest_xml_url":0,"soiltest_view_url":0},{"id":246094,"code":"B4KJ201802001-1574","latitude":"37.6125","longitude":"138.850139","source_code":"HR0984306020150005","project_name":"","survey_name":"\u5927\u6cb3\u6d25\u5730\u533a\u5730\u8cea\u8abf\u67fb\u696d\u52d9\u59d4\u8a17","client_name":"\u56fd\u571f\u4ea4\u901a\u7701\u5317\u9678\u5730\u65b9\u6574\u5099\u5c40 \u4fe1\u6fc3\u5ddd\u4e0b\u6d41\u6cb3\u5ddd\u4e8b\u52d9\u6240","boring_xml_url":45,"boring_view_url":1,"soilmap_view_url":null,"soiltest_xml_url":0,"soiltest_view_url":0},{"id":246093,"code":"B4KJ201802001-1573","latitude":"37.205417","longitude":"138.85","source_code":"HR0784356020140001","project_name":"","survey_name":"\u76f8\u5ddd\u5ddd\u6d41\u57df\u7802\u9632\u5830\u5824\u7b49\u5730\u8cea\u8abf\u67fb\u4f5c\u696d","client_name":"\u56fd\u571f\u4ea4\u901a\u7701 \u5317\u9678\u5730\u65b9\u6574\u5099\u5c40 \u6e6f\u6ca2\u7802\u9632\u4e8b\u52d9\u6240","boring_xml_url":45,"boring_view_url":1,"soilmap_view_url":null,"soiltest_xml_url":0,"soiltest_view_url":0},{"id":246092,"code":"B4KJ201802001-1572","latitude":"37.205333","longitude":"138.849889","source_code":"HR0784356020140003","project_name":"","survey_name":"\u76f8\u5ddd\u5ddd\u6d41\u57df\u7802\u9632\u5830\u5824\u7b49\u5730\u8cea\u8abf\u67fb\u4f5c\u696d","client_name":"\u56fd\u571f\u4ea4\u901a\u7701 \u5317\u9678\u5730\u65b9\u6574\u5099\u5c40 \u6e6f\u6ca2\u7802\u9632\u4e8b\u52d9\u6240","boring_xml_url":45,"boring_view_url":1,"soilmap_view_url":null,"soiltest_xml_url":0,"soiltest_view_url":0},{"id":246091,"code":"B4KJ201802001-1571","latitude":"37.094028","longitude":"138.849778","source_code":"HR0884346020100013","project_name":"\u5e73\u621020\u5e74\u5ea6 \u4e00\u822c\u56fd\u9053253\u53f7\u516b\u7b87\u5ce0\u9053\u8def\u5730\u8cea\u8abf\u67fb\u4f5c\u696d","survey_name":"\u5e73\u621020\u5e74\u5ea6 \u4e00\u822c\u56fd\u9053253\u53f7\u516b\u7b87\u5ce0\u9053\u8def\u5730\u8cea\u8abf\u67fb\u4f5c\u696d","client_name":"\u56fd\u571f\u4ea4\u901a\u7701\u5317\u9678\u5730\u65b9\u6574\u5099\u5c40\u9577\u5ca1\u56fd\u9053\u4e8b\u52d9\u6240","boring_xml_url":45,"boring_view_url":1,"soilmap_view_url":null,"soiltest_xml_url":0,"soiltest_view_url":0},{"id":246090,"code":"B4KJ201802001-1570","latitude":"37.210972","longitude":"138.849722","source_code":"HR0784356020140011","project_name":"","survey_name":"\u76f8\u5ddd\u5ddd\u6d41\u57df\u7802\u9632\u5830\u5824\u7b49\u5730\u8cea\u8abf\u67fb\u4f5c\u696d","client_name":"\u56fd\u571f\u4ea4\u901a\u7701 \u5317\u9678\u5730\u65b9\u6574\u5099\u5c40 \u6e6f\u6ca2\u7802\u9632\u4e8b\u52d9\u6240","boring_xml_url":45,"boring_view_url":1,"soilmap_view_url":null,"soiltest_xml_url":0,"soiltest_view_url":0},{"id":246089,"code":"B4KJ201802001-1569","latitude":"37.211139","longitude":"138.849639","source_code":"HR0784356020140013","project_name":"","survey_name":"\u76f8\u5ddd\u5ddd\u6d41\u57df\u7802\u9632\u5830\u5824\u7b49\u5730\u8cea\u8abf\u67fb\u4f5c\u696d","client_name":"\u56fd\u571f\u4ea4\u901a\u7701 \u5317\u9678\u5730\u65b9\u6574\u5099\u5c40 \u6e6f\u6ca2\u7802\u9632\u4e8b\u52d9\u6240","boring_xml_url":45,"boring_view_url":1,"soilmap_view_url":null,"soiltest_xml_url":0,"soiltest_view_url":0},{"id":246088,"code":"B4KJ201802001-1568","latitude":"37.211139","longitude":"138.849583","source_code":"HR0784356020140014","project_name":"","survey_name":"\u76f8\u5ddd\u5ddd\u6d41\u57df\u7802\u9632\u5830\u5824\u7b49\u5730\u8cea\u8abf\u67fb\u4f5c\u696d","client_name":"\u56fd\u571f\u4ea4\u901a\u7701 \u5317\u9678\u5730\u65b9\u6574\u5099\u5c40 \u6e6f\u6ca2\u7802\u9632\u4e8b\u52d9\u6240","boring_xml_url":45,"boring_view_url":1,"soilmap_view_url":null,"soiltest_xml_url":0,"soiltest_view_url":0},{"id":246087,"code":"B4KJ201802001-1567","latitude":"37.211083","longitude":"138.8495","source_code":"HR0784356020140012","project_name":"","survey_name":"\u76f8\u5ddd\u5ddd\u6d41\u57df\u7802\u9632\u5830\u5824\u7b49\u5730\u8cea\u8abf\u67fb\u4f5c\u696d","client_name":"\u56fd\u571f\u4ea4\u901a\u7701 \u5317\u9678\u5730\u65b9\u6574\u5099\u5c40 \u6e6f\u6ca2\u7802\u9632\u4e8b\u52d9\u6240","boring_xml_url":45,"boring_view_url":1,"soilmap_view_url":null,"soiltest_xml_url":0,"soiltest_view_url":0},{"id":246086,"code":"B4KJ201802001-1566","latitude":"37.094028","longitude":"138.849167","source_code":"HR0884346020100012","project_name":"\u5e73\u621020\u5e74\u5ea6 \u4e00\u822c\u56fd\u9053253\u53f7\u516b\u7b87\u5ce0\u9053\u8def\u5730\u8cea\u8abf\u67fb\u4f5c\u696d","survey_name":"\u5e73\u621020\u5e74\u5ea6 \u4e00\u822c\u56fd\u9053253\u53f7\u516b\u7b87\u5ce0\u9053\u8def\u5730\u8cea\u8abf\u67fb\u4f5c\u696d","client_name":"\u56fd\u571f\u4ea4\u901a\u7701\u5317\u9678\u5730\u65b9\u6574\u5099\u5c40\u9577\u5ca1\u56fd\u9053\u4e8b\u52d9\u6240","boring_xml_url":45,"boring_view_url":1,"soilmap_view_url":null,"soiltest_xml_url":0,"soiltest_view_url":0},{"id":246085,"code":"B4KJ201802001-1565","latitude":"37.23325","longitude":"138.848889","source_code":"HR0784356020140023","project_name":"","survey_name":"\u76f8\u5ddd\u5ddd\u6d41\u57df\u7802\u9632\u5830\u5824\u7b49\u5730\u8cea\u8abf\u67fb\u4f5c\u696d","client_name":"\u56fd\u571f\u4ea4\u901a\u7701 \u5317\u9678\u5730\u65b9\u6574\u5099\u5c40 \u6e6f\u6ca2\u7802\u9632\u4e8b\u52d9\u6240","boring_xml_url":45,"boring_view_url":1,"soilmap_view_url":null,"soiltest_xml_url":0,"soiltest_view_url":0},{"id":246084,"code":"B4KJ201802001-1564","latitude":"37.232917","longitude":"138.848861","source_code":"HR0784356020140025","project_name":"","survey_name":"\u76f8\u5ddd\u5ddd\u6d41\u57df\u7802\u9632\u5830\u5824\u7b49\u5730\u8cea\u8abf\u67fb\u4f5c\u696d","client_name":"\u56fd\u571f\u4ea4\u901a\u7701 \u5317\u9678\u5730\u65b9\u6574\u5099\u5c40 \u6e6f\u6ca2\u7802\u9632\u4e8b\u52d9\u6240","boring_xml_url":45,"boring_view_url":1,"soilmap_view_url":null,"soiltest_xml_url":0,"soiltest_view_url":0},{"id":246083,"code":"B4KJ201802001-1563","latitude":"37.233167","longitude":"138.848861","source_code":"HR0784356020140024","project_name":"","survey_name":"\u76f8\u5ddd\u5ddd\u6d41\u57df\u7802\u9632\u5830\u5824\u7b49\u5730\u8cea\u8abf\u67fb\u4f5c\u696d","client_name":"\u56fd\u571f\u4ea4\u901a\u7701 \u5317\u9678\u5730\u65b9\u6574\u5099\u5c40 \u6e6f\u6ca2\u7802\u9632\u4e8b\u52d9\u6240","boring_xml_url":45,"boring_view_url":1,"soilmap_view_url":null,"soiltest_xml_url":0,"soiltest_view_url":0},{"id":246082,"code":"B4KJ201802001-1562","latitude":"37.094056","longitude":"138.848611","source_code":"HR0884346020100011","project_name":"\u5e73\u621020\u5e74\u5ea6 \u4e00\u822c\u56fd\u9053253\u53f7\u516b\u7b87\u5ce0\u9053\u8def\u5730\u8cea\u8abf\u67fb\u4f5c\u696d","survey_name":"\u5e73\u621020\u5e74\u5ea6 \u4e00\u822c\u56fd\u9053253\u53f7\u516b\u7b87\u5ce0\u9053\u8def\u5730\u8cea\u8abf\u67fb\u4f5c\u696d","client_name":"\u56fd\u571f\u4ea4\u901a\u7701\u5317\u9678\u5730\u65b9\u6574\u5099\u5c40\u9577\u5ca1\u56fd\u9053\u4e8b\u52d9\u6240","boring_xml_url":45,"boring_view_url":1,"soilmap_view_url":null,"soiltest_xml_url":0,"soiltest_view_url":0},{"id":246081,"code":"B4KJ201802001-1561","latitude":"37.093833","longitude":"138.848556","source_code":"HR0884346020100010","project_name":"\u5e73\u621020\u5e74\u5ea6 \u4e00\u822c\u56fd\u9053253\u53f7\u516b\u7b87\u5ce0\u9053\u8def\u5730\u8cea\u8abf\u67fb\u4f5c\u696d","survey_name":"\u5e73\u621020\u5e74\u5ea6 \u4e00\u822c\u56fd\u9053253\u53f7\u516b\u7b87\u5ce0\u9053\u8def\u5730\u8cea\u8abf\u67fb\u4f5c\u696d","client_name":"\u5317\u9678\u5730\u65b9\u6574\u5099\u5c40 \u9577\u5ca1\u56fd\u9053\u4e8b\u52d9\u6240","boring_xml_url":45,"boring_view_url":1,"soilmap_view_url":null,"soiltest_xml_url":0,"soiltest_view_url":0},{"id":246080,"code":"B4KJ201802001-1560","latitude":"37.233194","longitude":"138.8485","source_code":"HR0784356020140026","project_name":"","survey_name":"\u76f8\u5ddd\u5ddd\u6d41\u57df\u7802\u9632\u5830\u5824\u7b49\u5730\u8cea\u8abf\u67fb\u4f5c\u696d","client_name":"\u56fd\u571f\u4ea4\u901a\u7701 \u5317\u9678\u5730\u65b9\u6574\u5099\u5c40 \u6e6f\u6ca2\u7802\u9632\u4e8b\u52d9\u6240","boring_xml_url":45,"boring_view_url":1,"soilmap_view_url":null,"soiltest_xml_url":0,"soiltest_view_url":0},{"id":246079,"code":"B4KJ201802001-1559","latitude":"37.205556","longitude":"138.848333","source_code":"HR0784356020140005","project_name":"","survey_name":"\u76f8\u5ddd\u5ddd\u6d41\u57df\u7802\u9632\u5830\u5824\u7b49\u5730\u8cea\u8abf\u67fb\u4f5c\u696d","client_name":"\u56fd\u571f\u4ea4\u901a\u7701 \u5317\u9678\u5730\u65b9\u6574\u5099\u5c40 \u6e6f\u6ca2\u7802\u9632\u4e8b\u52d9\u6240","boring_xml_url":45,"boring_view_url":1,"soilmap_view_url":null,"soiltest_xml_url":0,"soiltest_view_url":0},{"id":246078,"code":"B4KJ201802001-1558","latitude":"37.093667","longitude":"138.848306","source_code":"HR0984344729010007","project_name":"\u5e73\u621021\u5e74\u5ea6 \u56fd\u9053253\u53f7\u516b\u7b87\u5ce0\u9053\u8def\u5730\u8cea\u8abf\u67fb\u305d\u306e2\u4f5c\u696d","survey_name":"\u5e73\u621021\u5e74\u5ea6 \u56fd\u9053253\u53f7\u516b\u7b87\u5ce0\u9053\u8def\u5730\u8cea\u8abf\u67fb\u305d\u306e2\u4f5c\u696d","client_name":"\u56fd\u4ea4\u7701 \u5317\u9678\u5730\u65b9\u6574\u5099\u5c40 \u9577\u5ca1\u56fd\u9053\u4e8b\u52d9\u6240","boring_xml_url":45,"boring_view_url":1,"soilmap_view_url":null,"soiltest_xml_url":0,"soiltest_view_url":0},{"id":246077,"code":"B4KJ201802001-1557","latitude":"37.094417","longitude":"138.848306","source_code":"HR0884346020100019","project_name":"\u5e73\u621020\u5e74\u5ea6 \u4e00\u822c\u56fd\u9053253\u53f7\u516b\u7b87\u5ce0\u9053\u8def\u5730\u8cea\u8abf\u67fb\u4f5c\u696d","survey_name":"\u5e73\u621020\u5e74\u5ea6 \u4e00\u822c\u56fd\u9053253\u53f7\u516b\u7b87\u5ce0\u9053\u8def\u5730\u8cea\u8abf\u67fb\u4f5c\u696d","client_name":"\u56fd\u571f\u4ea4\u901a\u7701\u5317\u9678\u5730\u65b9\u6574\u5099\u5c40\u9577\u5ca1\u56fd\u9053\u4e8b\u52d9\u6240","boring_xml_url":45,"boring_view_url":1,"soilmap_view_url":null,"soiltest_xml_url":0,"soiltest_view_url":0},{"id":246076,"code":"B4KJ201802001-1556","latitude":"37.093","longitude":"138.846361","source_code":"HR0984344729010006","project_name":"\u5e73\u621021\u5e74\u5ea6 \u56fd\u9053253\u53f7\u516b\u7b87\u5ce0\u9053\u8def\u5730\u8cea\u8abf\u67fb\u305d\u306e2\u4f5c\u696d","survey_name":"\u5e73\u621021\u5e74\u5ea6 \u56fd\u9053253\u53f7\u516b\u7b87\u5ce0\u9053\u8def\u5730\u8cea\u8abf\u67fb\u305d\u306e2\u4f5c\u696d","client_name":"\u56fd\u4ea4\u7701 \u5317\u9678\u5730\u65b9\u6574\u5099\u5c40 \u9577\u5ca1\u56fd\u9053\u4e8b\u52d9\u6240","boring_xml_url":45,"boring_view_url":1,"soilmap_view_url":null,"soiltest_xml_url":0,"soiltest_view_url":0},{"id":246075,"code":"B4KJ201802001-1555","latitude":"37.092556","longitude":"138.84625","source_code":"HR0884346020100003","project_name":"\u5e73\u621020\u5e74\u5ea6 \u4e00\u822c\u56fd\u9053253\u53f7\u516b\u7b87\u5ce0\u9053\u8def\u5730\u8cea\u8abf\u67fb\u4f5c\u696d","survey_name":"\u5e73\u621020\u5e74\u5ea6 \u4e00\u822c\u56fd\u9053253\u53f7\u516b\u7b87\u5ce0\u9053\u8def\u5730\u8cea\u8abf\u67fb\u4f5c\u696d","client_name":"\u56fd\u571f\u4ea4\u901a\u7701\u5317\u9678\u5730\u65b9\u6574\u5099\u5c40\u9577\u5ca1\u56fd\u9053\u4e8b\u52d9\u6240","boring_xml_url":45,"boring_view_url":1,"soilmap_view_url":null,"soiltest_xml_url":0,"soiltest_view_url":0},{"id":246074,"code":"B4KJ201802001-1554","latitude":"37.092833","longitude":"138.845944","source_code":"HR0984344729010005","project_name":"\u5e73\u621021\u5e74\u5ea6 \u56fd\u9053253\u53f7\u516b\u7b87\u5ce0\u9053\u8def\u5730\u8cea\u8abf\u67fb\u305d\u306e2\u4f5c\u696d","survey_name":"\u5e73\u621021\u5e74\u5ea6 \u56fd\u9053253\u53f7\u516b\u7b87\u5ce0\u9053\u8def\u5730\u8cea\u8abf\u67fb\u305d\u306e2\u4f5c\u696d","client_name":"\u56fd\u4ea4\u7701 \u5317\u9678\u5730\u65b9\u6574\u5099\u5c40 \u9577\u5ca1\u56fd\u9053\u4e8b\u52d9\u6240","boring_xml_url":45,"boring_view_url":1,"soilmap_view_url":null,"soiltest_xml_url":0,"soiltest_view_url":0}]}}