{"header":{"xyz":{"source":[],"mosaic":false},"page":2820,"raw":{"soiltest_result":"0","bbox":"57.598333,109.544722,1.933333,163.806111","page":"2820"},"conditions":{"soiltest_result":0,"north":57.598333,"west":109.544722,"south":1.933333,"east":163.806111},"success":true,"message":""},"data":{"meta":{"total":212844,"page":2820,"pages":7095,"count":30},"values":[{"id":245953,"code":"B4KJ201802001-1433","latitude":"37.081889","longitude":"138.807583","source_code":"HR0884346020100001","project_name":"\u5e73\u621020\u5e74\u5ea6 \u4e00\u822c\u56fd\u9053253\u53f7\u516b\u7b87\u5ce0\u9053\u8def\u5730\u8cea\u8abf\u67fb\u4f5c\u696d","survey_name":"\u5e73\u621020\u5e74\u5ea6 \u4e00\u822c\u56fd\u9053253\u53f7\u516b\u7b87\u5ce0\u9053\u8def\u5730\u8cea\u8abf\u67fb\u4f5c\u696d","client_name":"\u56fd\u571f\u4ea4\u901a\u7701\u5317\u9678\u5730\u65b9\u6574\u5099\u5c40\u9577\u5ca1\u56fd\u9053\u4e8b\u52d9\u6240","boring_xml_url":45,"boring_view_url":1,"soilmap_view_url":null,"soiltest_xml_url":0,"soiltest_view_url":0},{"id":245952,"code":"B4KJ201802001-1432","latitude":"37.08175","longitude":"138.807556","source_code":"HR0884346020100002","project_name":"\u5e73\u621020\u5e74\u5ea6 \u4e00\u822c\u56fd\u9053253\u53f7\u516b\u7b87\u5ce0\u9053\u8def\u5730\u8cea\u8abf\u67fb\u4f5c\u696d","survey_name":"\u5e73\u621020\u5e74\u5ea6 \u4e00\u822c\u56fd\u9053253\u53f7\u516b\u7b87\u5ce0\u9053\u8def\u5730\u8cea\u8abf\u67fb\u4f5c\u696d","client_name":"\u56fd\u571f\u4ea4\u901a\u7701\u5317\u9678\u5730\u65b9\u6574\u5099\u5c40\u9577\u5ca1\u56fd\u9053\u4e8b\u52d9\u6240","boring_xml_url":45,"boring_view_url":1,"soilmap_view_url":null,"soiltest_xml_url":0,"soiltest_view_url":0},{"id":245951,"code":"B4KJ201802001-1431","latitude":"37.081917","longitude":"138.807361","source_code":"HR0984344720110004","project_name":"\u516b\u7b87\u5ce0\u9053\u8def+\u65e5\u753a\u5074\u57fa\u790e\u5730\u76e4\u8abf\u67fb(No.85)","survey_name":"\u5e73\u621021\u5e74\u5ea6\u56fd\u9053253\u53f7\u516b\u7b87\u5ce0\u9053\u8def\u5730\u8cea\u8abf\u67fb\u305d\u306e3\u4f5c\u696d","client_name":"\u56fd\u571f\u4ea4\u901a\u7701\u5317\u9678\u5730\u65b9\u5efa\u8a2d\u5c40\u9577\u5ca1\u56fd\u9053\u4e8b\u52d9\u6240\u8a2d\u8a08\u8ab2","boring_xml_url":45,"boring_view_url":1,"soilmap_view_url":null,"soiltest_xml_url":0,"soiltest_view_url":0},{"id":245950,"code":"B4KJ201802001-1430","latitude":"37.081694","longitude":"138.80725","source_code":"HR0984344720110007","project_name":"\u516b\u7b87\u5ce0\u9053\u8def+\u65e5\u753a\u5074\u57fa\u790e\u5730\u76e4\u8abf\u67fb(No.85)","survey_name":"\u5e73\u621021\u5e74\u5ea6\u56fd\u9053253\u53f7\u516b\u7b87\u5ce0\u9053\u8def\u5730\u8cea\u8abf\u67fb\u305d\u306e3\u4f5c\u696d","client_name":"\u56fd\u571f\u4ea4\u901a\u7701\u5317\u9678\u5730\u65b9\u5efa\u8a2d\u5c40\u9577\u5ca1\u56fd\u9053\u4e8b\u52d9\u6240\u8a2d\u8a08\u8ab2","boring_xml_url":45,"boring_view_url":1,"soilmap_view_url":null,"soiltest_xml_url":0,"soiltest_view_url":0},{"id":245949,"code":"B4KJ201802001-1429","latitude":"37.081972","longitude":"138.807083","source_code":"HR0984344720110003","project_name":"\u516b\u7b87\u5ce0\u9053\u8def+\u65e5\u753a\u5074\u57fa\u790e\u5730\u76e4\u8abf\u67fb(No.83+15)","survey_name":"\u5e73\u621021\u5e74\u5ea6\u56fd\u9053253\u53f7\u516b\u7b87\u5ce0\u9053\u8def\u5730\u8cea\u8abf\u67fb\u305d\u306e3\u4f5c\u696d","client_name":"\u56fd\u571f\u4ea4\u901a\u7701\u5317\u9678\u5730\u65b9\u5efa\u8a2d\u5c40\u9577\u5ca1\u56fd\u9053\u4e8b\u52d9\u6240\u8a2d\u8a08\u8ab2","boring_xml_url":45,"boring_view_url":1,"soilmap_view_url":null,"soiltest_xml_url":0,"soiltest_view_url":0},{"id":245948,"code":"B4KJ201802001-1428","latitude":"37.08175","longitude":"138.807","source_code":"HR0984344720110006","project_name":"\u516b\u7b87\u5ce0\u9053\u8def+\u65e5\u753a\u5074\u57fa\u790e\u5730\u76e4\u8abf\u67fb(No.83+15)","survey_name":"\u5e73\u621021\u5e74\u5ea6\u56fd\u9053253\u53f7\u516b\u7b87\u5ce0\u9053\u8def\u5730\u8cea\u8abf\u67fb\u305d\u306e3\u4f5c\u696d","client_name":"\u56fd\u571f\u4ea4\u901a\u7701\u5317\u9678\u5730\u65b9\u5efa\u8a2d\u5c40\u9577\u5ca1\u56fd\u9053\u4e8b\u52d9\u6240\u8a2d\u8a08\u8ab2","boring_xml_url":45,"boring_view_url":1,"soilmap_view_url":null,"soiltest_xml_url":0,"soiltest_view_url":0},{"id":245947,"code":"B4KJ201802001-1427","latitude":"36.781389","longitude":"138.806861","source_code":"HR1284356020070010","project_name":"","survey_name":"\u7802\u9632\u5830\u5824\u7b49\u5730\u8cea\u8abf\u67fb(\u305d\u306e1)\u696d\u52d9","client_name":"\u56fd\u571f\u4ea4\u901a\u7701\u5317\u9678\u5730\u65b9\u6574\u5099\u5c40\u6e6f\u6ca2\u7802\u9632\u4e8b\u52d9\u6240","boring_xml_url":45,"boring_view_url":1,"soilmap_view_url":null,"soiltest_xml_url":0,"soiltest_view_url":0},{"id":245946,"code":"B4KJ201802001-1426","latitude":"36.781528","longitude":"138.806861","source_code":"HR1284356020070009","project_name":"","survey_name":"\u7802\u9632\u5830\u5824\u7b49\u5730\u8cea\u8abf\u67fb(\u305d\u306e1)\u696d\u52d9","client_name":"\u56fd\u571f\u4ea4\u901a\u7701\u5317\u9678\u5730\u65b9\u6574\u5099\u5c40\u6e6f\u6ca2\u7802\u9632\u4e8b\u52d9\u6240","boring_xml_url":45,"boring_view_url":1,"soilmap_view_url":null,"soiltest_xml_url":0,"soiltest_view_url":0},{"id":245945,"code":"B4KJ201802001-1425","latitude":"37.082139","longitude":"138.8065","source_code":"HR0984344720110002","project_name":"\u516b\u7b87\u5ce0\u9053\u8def+\u65e5\u753a\u5074\u5730\u3059\u3079\u308a\u8abf\u67fb(No.81\u4ed8\u8fd1)","survey_name":"\u5e73\u621021\u5e74\u5ea6\u56fd\u9053253\u53f7\u516b\u7b87\u5ce0\u9053\u8def\u5730\u8cea\u8abf\u67fb\u305d\u306e3\u4f5c\u696d","client_name":"\u56fd\u571f\u4ea4\u901a\u7701\u5317\u9678\u5730\u65b9\u5efa\u8a2d\u5c40\u9577\u5ca1\u56fd\u9053\u4e8b\u52d9\u6240\u8a2d\u8a08\u8ab2","boring_xml_url":45,"boring_view_url":1,"soilmap_view_url":null,"soiltest_xml_url":0,"soiltest_view_url":0},{"id":245944,"code":"B4KJ201802001-1424","latitude":"37.0825","longitude":"138.806472","source_code":"HR0984344720110001","project_name":"\u516b\u7b87\u5ce0\u9053\u8def+\u65e5\u753a\u5074\u5730\u3059\u3079\u308a\u8abf\u67fb(No.81\u4ed8\u8fd1)","survey_name":"\u5e73\u621021\u5e74\u5ea6\u56fd\u9053253\u53f7\u516b\u7b87\u5ce0\u9053\u8def\u5730\u8cea\u8abf\u67fb\u305d\u306e3\u4f5c\u696d","client_name":"\u56fd\u571f\u4ea4\u901a\u7701\u5317\u9678\u5730\u65b9\u6574\u5099\u5c40\u9577\u5ca1\u56fd\u9053\u4e8b\u52d9\u6240\u8a2d\u8a08\u8ab2","boring_xml_url":45,"boring_view_url":1,"soilmap_view_url":null,"soiltest_xml_url":0,"soiltest_view_url":0},{"id":245943,"code":"B4KJ201802001-1423","latitude":"37.083583","longitude":"138.804917","source_code":"HR0884346020100021","project_name":"\u5e73\u621020\u5e74\u5ea6 \u4e00\u822c\u56fd\u9053253\u53f7\u516b\u7b87\u5ce0\u9053\u8def\u5730\u8cea\u8abf\u67fb\u4f5c\u696d","survey_name":"\u5e73\u621020\u5e74\u5ea6 \u4e00\u822c\u56fd\u9053253\u53f7\u516b\u7b87\u5ce0\u9053\u8def\u5730\u8cea\u8abf\u67fb\u4f5c\u696d","client_name":"\u56fd\u571f\u4ea4\u901a\u7701\u5317\u9678\u5730\u65b9\u6574\u5099\u5c40\u9577\u5ca1\u56fd\u9053\u4e8b\u52d9\u6240","boring_xml_url":45,"boring_view_url":1,"soilmap_view_url":null,"soiltest_xml_url":0,"soiltest_view_url":0},{"id":245942,"code":"B4KJ201802001-1422","latitude":"37.0835","longitude":"138.804917","source_code":"HR0884346020100020","project_name":"\u5e73\u621020\u5e74\u5ea6 \u4e00\u822c\u56fd\u9053253\u53f7\u516b\u7b87\u5ce0\u9053\u8def\u5730\u8cea\u8abf\u67fb\u4f5c\u696d","survey_name":"\u5e73\u621020\u5e74\u5ea6 \u4e00\u822c\u56fd\u9053253\u53f7\u516b\u7b87\u5ce0\u9053\u8def\u5730\u8cea\u8abf\u67fb\u4f5c\u696d","client_name":"\u56fd\u571f\u4ea4\u901a\u7701\u5317\u9678\u5730\u65b9\u6574\u5099\u5c40\u9577\u5ca1\u56fd\u9053\u4e8b\u52d9\u6240","boring_xml_url":45,"boring_view_url":1,"soilmap_view_url":null,"soiltest_xml_url":0,"soiltest_view_url":0},{"id":245941,"code":"B4KJ201802001-1421","latitude":"36.790806","longitude":"138.798167","source_code":"HR1184356020170009","project_name":"\u6d45\u8c9d\u7b2c1\u7802\u9632\u5830\u5824","survey_name":"\u7802\u9632\u5830\u5824\u7b49\u5730\u8cea\u8abf\u67fb(\u305d\u306e2)\u696d\u52d9","client_name":"\u56fd\u571f\u4ea4\u901a\u7701 \u5317\u9678\u5730\u65b9\u6574\u5099\u5c40 \u6e6f\u6ca2\u7802\u9632\u4e8b\u52d9\u6240","boring_xml_url":45,"boring_view_url":1,"soilmap_view_url":null,"soiltest_xml_url":0,"soiltest_view_url":0},{"id":245940,"code":"B4KJ201802001-1420","latitude":"36.908444","longitude":"138.798028","source_code":"HR1184345120050014","project_name":"\u5e73\u621023\u5e74\u5ea6\u9577\u5ca1\u56fd\u9053\u5730\u8cea\u8abf\u67fb\u696d\u52d9(\u5358\u4fa1\u5951\u7d04)","survey_name":"\u56fd\u905317\u53f7\u829d\u539f\u62e1\u5e45\u5730\u8cea\u8abf\u67fb\u4f5c\u696d","client_name":"\u5317\u9678\u5730\u65b9\u6574\u5099\u5c40\u9577\u5ca1\u56fd\u9053\u4e8b\u52d9\u6240","boring_xml_url":45,"boring_view_url":1,"soilmap_view_url":null,"soiltest_xml_url":0,"soiltest_view_url":0},{"id":245939,"code":"B4KJ201802001-1419","latitude":"36.79075","longitude":"138.797806","source_code":"HR1184356020170008","project_name":"\u6d45\u8c9d\u7b2c1\u7802\u9632\u5830\u5824","survey_name":"\u6e6f\u6ca2\u7802\u9632\u5830\u5824\u7b49\u5730\u8cea\u8abf\u67fb(\u305d\u306e2)\u696d\u52d9","client_name":"\u56fd\u571f\u4ea4\u901a\u7701 \u5317\u9678\u5730\u65b9\u6574\u5099\u5c40 \u6e6f\u6ca2\u7802\u9632\u4e8b\u52d9\u6240","boring_xml_url":45,"boring_view_url":1,"soilmap_view_url":null,"soiltest_xml_url":0,"soiltest_view_url":0},{"id":245938,"code":"B4KJ201802001-1418","latitude":"36.790889","longitude":"138.797611","source_code":"HR1184356020170007","project_name":"\u6d45\u8c9d\u7b2c1\u7802\u9632\u5830\u5824","survey_name":"\u6e6f\u6ca2\u7802\u9632\u5830\u5824\u7b49\u5730\u8cea\u8abf\u67fb(\u305d\u306e2)\u696d\u52d9","client_name":"\u56fd\u571f\u4ea4\u901a\u7701 \u5317\u9678\u5730\u65b9\u6574\u5099\u5c40 \u6e6f\u6ca2\u7802\u9632\u4e8b\u52d9\u6240","boring_xml_url":45,"boring_view_url":1,"soilmap_view_url":null,"soiltest_xml_url":0,"soiltest_view_url":0},{"id":245937,"code":"B4KJ201802001-1417","latitude":"36.790778","longitude":"138.797528","source_code":"HR1184356020170010","project_name":"\u6d45\u8c9d\u7b2c1\u7802\u9632\u5830\u5824","survey_name":"\u6e6f\u6ca2\u7802\u9632\u5830\u5824\u7b49\u5730\u8cea\u8abf\u67fb(\u305d\u306e2)\u696d\u52d9","client_name":"\u56fd\u571f\u4ea4\u901a\u7701 \u5317\u9678\u5730\u65b9\u6574\u5099\u5c40 \u6e6f\u6ca2\u7802\u9632\u4e8b\u52d9\u6240","boring_xml_url":45,"boring_view_url":1,"soilmap_view_url":null,"soiltest_xml_url":0,"soiltest_view_url":0},{"id":245936,"code":"B4KJ201802001-1416","latitude":"36.791056","longitude":"138.797306","source_code":"HR1184356020170006","project_name":"\u6d45\u8c9d\u7b2c1\u7802\u9632\u5830\u5824","survey_name":"\u6e6f\u6ca2\u7802\u9632\u5830\u5824\u7b49\u5730\u8cea\u8abf\u67fb(\u305d\u306e2)\u696d\u52d9","client_name":"\u56fd\u571f\u4ea4\u901a\u7701 \u5317\u9678\u5730\u65b9\u6574\u5099\u5c40 \u6e6f\u6ca2\u7802\u9632\u4e8b\u52d9\u6240","boring_xml_url":45,"boring_view_url":1,"soilmap_view_url":null,"soiltest_xml_url":0,"soiltest_view_url":0},{"id":245935,"code":"B4KJ201802001-1415","latitude":"36.7965","longitude":"138.796028","source_code":"HR1184356020170004","project_name":"\u767d\u6a3a\u5e73\u7802\u9632\u5830\u5824","survey_name":"\u7802\u9632\u5830\u5824\u7b49\u5730\u8cea\u8abf\u67fb(\u305d\u306e2)\u696d\u52d9","client_name":"\u56fd\u571f\u4ea4\u901a\u7701 \u5317\u9678\u5730\u65b9\u6574\u5099\u5c40 \u6e6f\u6ca2\u7802\u9632\u4e8b\u52d9\u6240","boring_xml_url":45,"boring_view_url":1,"soilmap_view_url":null,"soiltest_xml_url":0,"soiltest_view_url":0},{"id":245934,"code":"B4KJ201802001-1414","latitude":"36.796639","longitude":"138.79575","source_code":"HR1184356020170003","project_name":"\u767d\u6a3a\u5e73\u7802\u9632\u5830\u5824","survey_name":"\u7802\u9632\u5830\u5824\u7b49\u5730\u8cea\u8abf\u67fb(\u305d\u306e2)\u696d\u52d9","client_name":"\u56fd\u571f\u4ea4\u901a\u7701 \u5317\u9678\u5730\u65b9\u6574\u5099\u5c40 \u6e6f\u6ca2\u7802\u9632\u4e8b\u52d9\u6240","boring_xml_url":45,"boring_view_url":1,"soilmap_view_url":null,"soiltest_xml_url":0,"soiltest_view_url":0},{"id":245933,"code":"B4KJ201802001-1413","latitude":"36.7965","longitude":"138.795583","source_code":"HR1184356020170005","project_name":"\u767d\u6a3a\u5e73\u7802\u9632\u5830\u5824","survey_name":"\u7802\u9632\u5830\u5824\u7b49\u5730\u8cea\u8abf\u67fb(\u305d\u306e2)\u696d\u52d9","client_name":"\u56fd\u571f\u4ea4\u901a\u7701 \u5317\u9678\u5730\u65b9\u6574\u5099\u5c40 \u6e6f\u6ca2\u7802\u9632\u4e8b\u52d9\u6240","boring_xml_url":45,"boring_view_url":1,"soilmap_view_url":null,"soiltest_xml_url":0,"soiltest_view_url":0},{"id":245932,"code":"B4KJ201802001-1412","latitude":"36.796722","longitude":"138.795583","source_code":"HR1184356020170002","project_name":"\u767d\u6a3a\u5e73\u7802\u9632\u5830\u5824","survey_name":"\u7802\u9632\u5830\u5824\u7b49\u5730\u8cea\u8abf\u67fb(\u305d\u306e2)\u696d\u52d9","client_name":"\u56fd\u571f\u4ea4\u901a\u7701 \u5317\u9678\u5730\u65b9\u6574\u5099\u5c40 \u6e6f\u6ca2\u7802\u9632\u4e8b\u52d9\u6240","boring_xml_url":45,"boring_view_url":1,"soilmap_view_url":null,"soiltest_xml_url":0,"soiltest_view_url":0},{"id":245931,"code":"B4KJ201802001-1411","latitude":"36.786528","longitude":"138.795556","source_code":"HR1284356020070011","project_name":"","survey_name":"\u7802\u9632\u5830\u5824\u7b49\u5730\u8cea\u8abf\u67fb(\u305d\u306e1)\u696d\u52d9","client_name":"\u56fd\u571f\u4ea4\u901a\u7701\u5317\u9678\u5730\u65b9\u6574\u5099\u5c40\u6e6f\u6ca2\u7802\u9632\u4e8b\u52d9\u6240","boring_xml_url":45,"boring_view_url":1,"soilmap_view_url":null,"soiltest_xml_url":0,"soiltest_view_url":0},{"id":245930,"code":"B4KJ201802001-1410","latitude":"36.786306","longitude":"138.795444","source_code":"HR1284356020070012","project_name":"","survey_name":"\u7802\u9632\u5830\u5824\u7b49\u5730\u8cea\u8abf\u67fb(\u305d\u306e1)\u696d\u52d9","client_name":"\u56fd\u571f\u4ea4\u901a\u7701\u5317\u9678\u5730\u65b9\u6574\u5099\u5c40\u6e6f\u6ca2\u7802\u9632\u4e8b\u52d9\u6240","boring_xml_url":45,"boring_view_url":1,"soilmap_view_url":null,"soiltest_xml_url":0,"soiltest_view_url":0},{"id":245929,"code":"B4KJ201802001-1409","latitude":"36.796861","longitude":"138.795306","source_code":"HR1184356020170001","project_name":"\u767d\u6a3a\u5e73\u7802\u9632\u5830\u5824","survey_name":"\u7802\u9632\u5830\u5824\u7b49\u5730\u8cea\u8abf\u67fb(\u305d\u306e2)\u696d\u52d9","client_name":"\u56fd\u571f\u4ea4\u901a\u7701 \u5317\u9678\u5730\u65b9\u6574\u5099\u5c40 \u6e6f\u6ca2\u7802\u9632\u4e8b\u52d9\u6240","boring_xml_url":45,"boring_view_url":1,"soilmap_view_url":null,"soiltest_xml_url":0,"soiltest_view_url":0},{"id":245928,"code":"B4KJ201802001-1408","latitude":"36.911806","longitude":"138.79475","source_code":"HR1184345120050013","project_name":"\u5e73\u621023\u5e74\u5ea6\u9577\u5ca1\u56fd\u9053\u5730\u8cea\u8abf\u67fb\u696d\u52d9(\u5358\u4fa1\u5951\u7d04)","survey_name":"\u56fd\u905317\u53f7\u829d\u539f\u30c8\u30f3\u30cd\u30eb\u9632\u96ea\u65bd\u8a2d\u5730\u8cea\u8abf\u67fb\u4f5c\u696d","client_name":"\u5317\u9678\u5730\u65b9\u6574\u5099\u5c40\u9577\u5ca1\u56fd\u9053\u4e8b\u52d9\u6240","boring_xml_url":45,"boring_view_url":1,"soilmap_view_url":null,"soiltest_xml_url":0,"soiltest_view_url":0},{"id":245927,"code":"B4KJ201802001-1407","latitude":"37.595239","longitude":"138.789292","source_code":"HR1584857820200301","project_name":"\u4e0d\u660e","survey_name":"\u51fa\u96f2\u5d0e\uff5e\u5bfa\u6cca\u5730\u533a\u5730\u8cea\u8abf\u67fb\u4f5c\u696d","client_name":"\u5efa\u8a2d\u7701\u4e0a\u8d8a\u56fd\u9053\u5de5\u4e8b\u4e8b\u52d9\u6240","boring_xml_url":45,"boring_view_url":1,"soilmap_view_url":null,"soiltest_xml_url":48,"soiltest_view_url":47},{"id":245926,"code":"B4KJ201802001-1406","latitude":"37.179012","longitude":"138.778475","source_code":"HR1584857820200407","project_name":"\u4e0d\u660e","survey_name":"117\u53f7\u7dda\u304a\u3088\u3073252\u53f7\u7dda\u5730\u8cea\u8abf\u67fb","client_name":"\u5efa\u8a2d\u7701\u9577\u5ca1\u56fd\u9053\u5de5\u4e8b\u4e8b\u52d9\u6240","boring_xml_url":45,"boring_view_url":1,"soilmap_view_url":null,"soiltest_xml_url":0,"soiltest_view_url":0},{"id":245925,"code":"B4KJ201802001-1405","latitude":"36.887611","longitude":"138.776667","source_code":"HR1184345120050017","project_name":"\u5e73\u621023\u5e74\u5ea6\u9577\u5ca1\u56fd\u9053\u5730\u8cea\u8abf\u67fb\u696d\u52d9(\u5358\u4fa1\u5951\u7d04)","survey_name":"\u56fd\u905317\u53f7\u4e09\u4fe3\u5730\u533a\u9632\u96ea\u65bd\u8a2d\u8abf\u67fb","client_name":"\u5317\u9678\u5730\u65b9\u6574\u5099\u5c40\u9577\u5ca1\u56fd\u9053\u4e8b\u52d9\u6240","boring_xml_url":45,"boring_view_url":1,"soilmap_view_url":null,"soiltest_xml_url":0,"soiltest_view_url":0},{"id":245924,"code":"B4KJ201802001-1404","latitude":"36.888833","longitude":"138.776139","source_code":"HR1184345120050016","project_name":"\u5e73\u621023\u5e74\u5ea6\u9577\u5ca1\u56fd\u9053\u5730\u8cea\u8abf\u67fb\u696d\u52d9(\u5358\u4fa1\u5951\u7d04)","survey_name":"\u56fd\u905317\u53f7\u4e09\u4fe3\u5730\u533a\u9632\u96ea\u65bd\u8a2d\u8abf\u67fb","client_name":"\u5317\u9678\u5730\u65b9\u6574\u5099\u5c40\u9577\u5ca1\u56fd\u9053\u4e8b\u52d9\u6240","boring_xml_url":45,"boring_view_url":1,"soilmap_view_url":null,"soiltest_xml_url":0,"soiltest_view_url":0}]}}