{"header":{"xyz":{"source":[],"mosaic":false},"page":2823,"raw":{"soiltest_result":"0","bbox":"57.598333,109.544722,1.933333,163.806111","page":"2823"},"conditions":{"soiltest_result":0,"north":57.598333,"west":109.544722,"south":1.933333,"east":163.806111},"success":true,"message":""},"data":{"meta":{"total":212844,"page":2823,"pages":7095,"count":30},"values":[{"id":245863,"code":"B4KJ201802001-1343","latitude":"37.345403","longitude":"138.486829","source_code":"HR0384345120170001","project_name":"\u7c73\u5c71\u5927\u6a4b\u88dc\u5f37\u5de5\u4e8b\u5730\u8cea\u8abf\u67fb","survey_name":"\u5e73\u621015\u5e74\u5ea6\u7ba1\u5185\u5730\u8cea\u8abf\u67fb\u4f5c\u696d\u5358\u4fa1\u5951\u7d04","client_name":"\u56fd\u571f\u4ea4\u901a\u7701\u5317\u9678\u5730\u65b9\u6574\u5099\u5c40\u9577\u5ca1\u56fd\u9053\u4e8b\u52d9\u6240","boring_xml_url":45,"boring_view_url":1,"soilmap_view_url":null,"soiltest_xml_url":0,"soiltest_view_url":0},{"id":245862,"code":"B4KJ201802001-1342","latitude":"37.345292","longitude":"138.486552","source_code":"HR0384345120170003","project_name":"\u7c73\u5c71\u5927\u6a4b\u88dc\u5f37\u5de5\u4e8b\u5730\u8cea\u8abf\u67fb","survey_name":"\u5e73\u621015\u5e74\u5ea6\u7ba1\u5185\u5730\u8cea\u8abf\u67fb\u4f5c\u696d\u5358\u4fa1\u5951\u7d04","client_name":"\u56fd\u571f\u4ea4\u901a\u7701\u5317\u9678\u5730\u65b9\u6574\u5099\u5c40\u9577\u5ca1\u56fd\u9053\u4e8b\u52d9\u6240","boring_xml_url":45,"boring_view_url":1,"soilmap_view_url":null,"soiltest_xml_url":0,"soiltest_view_url":0},{"id":245861,"code":"B4KJ201802001-1341","latitude":"37.351764","longitude":"138.479886","source_code":"HR0384345120180001","project_name":"\u7ba1\u5185\u9752\u6d77\u5ddd\u5de5\u533a\u5730\u8cea\u8abf\u67fb","survey_name":"\u5e73\u621015\u5e74\u5ea6\u7ba1\u5185\u5730\u8cea\u8abf\u67fb\u4f5c\u696d\u5358\u4fa1\u5951\u7d04","client_name":"\u56fd\u571f\u4ea4\u901a\u7701\u5317\u9678\u5730\u65b9\u6574\u5099\u5c40\u9577\u5ca1\u56fd\u9053\u4e8b\u52d9\u6240","boring_xml_url":45,"boring_view_url":1,"soilmap_view_url":null,"soiltest_xml_url":0,"soiltest_view_url":0},{"id":245860,"code":"B4KJ201802001-1340","latitude":"37.316111","longitude":"138.435417","source_code":"HR1184345120050003","project_name":"\u5358\u4fa1\u5951\u7d04\u56fd\u90538\u53f7\u67cf\u5d0e\u5e02\u7c73\u5c71\u753a\u5730\u5148","survey_name":"\u5e73\u621023\u5e74\u5ea6\u9577\u5ca1\u56fd\u9053\u5730\u8cea\u8abf\u67fb\u4f5c\u696d","client_name":"\u56fd\u571f\u4ea4\u901a\u7701\u9577\u5ca1\u56fd\u9053\u4e8b\u52d9\u6240","boring_xml_url":45,"boring_view_url":1,"soilmap_view_url":null,"soiltest_xml_url":0,"soiltest_view_url":0},{"id":245859,"code":"B4KJ201802001-1339","latitude":"37.316111","longitude":"138.433056","source_code":"HR1184345120050006","project_name":"\u5358\u4fa1\u5951\u7d04\u56fd\u90538\u53f7\u67cf\u5d0e\u5e02\u7c73\u5c71\u753a\u5730\u5148(\u69cb\u9020\u7269\u57fa\u790e\u8abf\u67fb)","survey_name":"\u5e73\u621023\u5e74\u5ea6\u9577\u5ca1\u56fd\u9053\u5730\u8cea\u8abf\u67fb\u4f5c\u696d","client_name":"\u56fd\u571f\u4ea4\u901a\u7701\u9577\u5ca1\u56fd\u9053\u4e8b\u52d9\u6240","boring_xml_url":45,"boring_view_url":1,"soilmap_view_url":null,"soiltest_xml_url":0,"soiltest_view_url":0},{"id":245858,"code":"B4KJ201802001-1338","latitude":"37.316111","longitude":"138.432778","source_code":"HR1184345120050007","project_name":"\u5358\u4fa1\u5951\u7d04\u56fd\u90538\u53f7\u67cf\u5d0e\u5e02\u7c73\u5c71\u753a\u5730\u5148(\u69cb\u9020\u7269\u57fa\u790e\u8abf\u67fb)","survey_name":"\u5e73\u621023\u5e74\u5ea6\u9577\u5ca1\u56fd\u9053\u5730\u8cea\u8abf\u67fb\u4f5c\u696d","client_name":"\u56fd\u571f\u4ea4\u901a\u7701\u9577\u5ca1\u56fd\u9053\u4e8b\u52d9\u6240","boring_xml_url":45,"boring_view_url":1,"soilmap_view_url":null,"soiltest_xml_url":0,"soiltest_view_url":0},{"id":245857,"code":"B4KJ201802001-1337","latitude":"37.304306","longitude":"138.417472","source_code":"HR0784396029030001","project_name":"\u5730\u8cea\u8abf\u67fb\u4f5c\u696d\u5358\u4fa1\u5951\u7d04","survey_name":"\u5e73\u621019\u5e74\u5ea6 \u5730\u8cea\u8abf\u67fb\u4f5c\u696d\u5358\u4fa1\u5951\u7d04 \u7af9\u9f3b\u5730\u5148\u5730\u8cea\u8abf\u67fb\u4f5c\u696d","client_name":"\u56fd\u571f\u4ea4\u901a\u7701 \u5317\u9678\u5730\u65b9\u6574\u5099\u5c40 \u9ad8\u7530\u6cb3\u5ddd\u56fd\u9053\u4e8b\u52d9\u6240","boring_xml_url":45,"boring_view_url":1,"soilmap_view_url":null,"soiltest_xml_url":0,"soiltest_view_url":0},{"id":245856,"code":"B4KJ201802001-1336","latitude":"37.304472","longitude":"138.417444","source_code":"HR0784396029030004","project_name":"\u5e73\u621019\u5e74\u5ea6 \u5730\u8cea\u8abf\u67fb\u4f5c\u696d\u5358\u4fa1\u5951\u7d04","survey_name":"\u5e73\u621019\u5e74\u5ea6 \u5730\u8cea\u8abf\u67fb\u4f5c\u696d\u5358\u4fa1\u5951\u7d04 \u7af9\u9f3b\u5730\u5148\u5730\u8cea\u8abf\u67fb\u4f5c\u696d","client_name":"\u56fd\u571f\u4ea4\u901a\u7701 \u5317\u9678\u5730\u65b9\u6574\u5099\u5c40 \u9ad8\u7530\u6cb3\u5ddd\u56fd\u9053\u4e8b\u52d9\u6240","boring_xml_url":45,"boring_view_url":1,"soilmap_view_url":null,"soiltest_xml_url":0,"soiltest_view_url":0},{"id":245855,"code":"B4KJ201802001-1335","latitude":"37.304583","longitude":"138.417389","source_code":"HR0784396029030005","project_name":"","survey_name":"\u5e73\u621019\u5e74\u5ea6 \u5730\u8cea\u8abf\u67fb\u4f5c\u696d\u5358\u4fa1\u5951\u7d04 \u7af9\u9f3b\u5730\u5148\u5730\u8cea\u8abf\u67fb\u4f5c\u696d","client_name":"\u56fd\u571f\u4ea4\u901a\u7701 \u5317\u9678\u5730\u65b9\u6574\u5099\u5c40 \u9ad8\u7530\u6cb3\u5ddd\u56fd\u9053\u4e8b\u52d9\u6240","boring_xml_url":45,"boring_view_url":1,"soilmap_view_url":null,"soiltest_xml_url":0,"soiltest_view_url":0},{"id":245854,"code":"B4KJ201802001-1334","latitude":"37.304361","longitude":"138.417361","source_code":"HR0784396029030002","project_name":"\u5e73\u621019\u5e74\u5ea6 \u5730\u8cea\u8abf\u67fb\u4f5c\u696d\u5358\u4fa1\u5951\u7d04","survey_name":"\u5e73\u621019\u5e74\u5ea6 \u5730\u8cea\u8abf\u67fb\u4f5c\u696d\u5358\u4fa1\u5951\u7d04 \u7af9\u9f3b\u5730\u5148\u5730\u8cea\u8abf\u67fb\u4f5c\u696d","client_name":"\u56fd\u571f\u4ea4\u901a\u7701 \u5317\u9678\u5730\u65b9\u6574\u5099\u5c40 \u9ad8\u7530\u6cb3\u5ddd\u56fd\u9053\u4e8b\u52d9\u6240","boring_xml_url":45,"boring_view_url":1,"soilmap_view_url":null,"soiltest_xml_url":0,"soiltest_view_url":0},{"id":245853,"code":"B4KJ201802001-1333","latitude":"37.304528","longitude":"138.417194","source_code":"HR0784396029030003","project_name":"\u5e73\u621019\u5e74\u5ea6 \u5730\u8cea\u8abf\u67fb\u4f5c\u696d\u5358\u4fa1\u5951\u7d04","survey_name":"\u5e73\u621019\u5e74\u5ea6 \u5730\u8cea\u8abf\u67fb\u4f5c\u696d\u5358\u4fa1\u5951\u7d04 \u7af9\u9f3b\u5730\u5148\u5730\u8cea\u8abf\u67fb\u4f5c\u696d","client_name":"\u56fd\u571f\u4ea4\u901a\u7701 \u5317\u9678\u5730\u65b9\u6574\u5099\u5c40 \u9ad8\u7530\u6cb3\u5ddd\u56fd\u9053\u4e8b\u52d9\u6240","boring_xml_url":45,"boring_view_url":1,"soilmap_view_url":null,"soiltest_xml_url":0,"soiltest_view_url":0},{"id":245852,"code":"B4KJ201802001-1332","latitude":"37.287222","longitude":"138.400278","source_code":"HR0784396029010004","project_name":"\u67ff\u5d0e\u5730\u5148(113.9kp)\u5730\u8cea\u8abf\u67fb\u4f5c\u696d","survey_name":"\u5e73\u621019\u5e74\u5ea6 \u5730\u8cea\u8abf\u67fb\u4f5c\u696d\u5358\u4fa1\u5951\u7d04 \u6307\u793a\u756a\u53f7\u9053\u4e8c\u7b2c1\u53f7","client_name":"\u56fd\u571f\u4ea4\u901a\u7701\u5317\u9678\u5730\u65b9\u6574\u5099\u5c40\u9ad8\u7530\u6cb3\u5ddd\u56fd\u9053\u4e8b\u52d9\u6240","boring_xml_url":45,"boring_view_url":1,"soilmap_view_url":null,"soiltest_xml_url":0,"soiltest_view_url":0},{"id":245851,"code":"B4KJ201802001-1331","latitude":"37.287222","longitude":"138.399722","source_code":"HR0784396029010001","project_name":"\u67ff\u5d0e\u5730\u5148(113.9kp)\u5730\u8cea\u8abf\u67fb\u4f5c\u696d","survey_name":"\u5e73\u621019\u5e74\u5ea6 \u5730\u8cea\u8abf\u67fb\u4f5c\u696d\u5358\u4fa1\u5951\u7d04 \u6307\u793a\u756a\u53f7\u9053\u4e8c\u7b2c1\u53f7","client_name":"\u56fd\u571f\u4ea4\u901a\u7701\u5317\u9678\u5730\u65b9\u6574\u5099\u5c40\u9ad8\u7530\u6cb3\u5ddd\u56fd\u9053\u4e8b\u52d9\u6240","boring_xml_url":45,"boring_view_url":1,"soilmap_view_url":null,"soiltest_xml_url":0,"soiltest_view_url":0},{"id":245850,"code":"B4KJ201802001-1330","latitude":"37.2875","longitude":"138.399444","source_code":"HR0784396029010003","project_name":"\u67ff\u5d0e\u5730\u5148(113.9kp)\u5730\u8cea\u8abf\u67fb\u4f5c\u696d","survey_name":"\u5e73\u621019\u5e74\u5ea6 \u5730\u8cea\u8abf\u67fb\u4f5c\u696d\u5358\u4fa1\u5951\u7d04 \u6307\u793a\u756a\u53f7\u9053\u4e8c\u7b2c1\u53f7","client_name":"\u56fd\u571f\u4ea4\u901a\u7701\u5317\u9678\u5730\u65b9\u6574\u5099\u5c40\u9ad8\u7530\u6cb3\u5ddd\u56fd\u9053\u4e8b\u52d9\u6240","boring_xml_url":45,"boring_view_url":1,"soilmap_view_url":null,"soiltest_xml_url":0,"soiltest_view_url":0},{"id":245849,"code":"B4KJ201802001-1329","latitude":"37.2875","longitude":"138.399444","source_code":"HR0784396029010002","project_name":"\u67ff\u5d0e\u5730\u5148(113.9kp)\u5730\u8cea\u8abf\u67fb\u4f5c\u696d","survey_name":"\u5e73\u621019\u5e74\u5ea6 \u5730\u8cea\u8abf\u67fb\u4f5c\u696d\u5358\u4fa1\u5951\u7d04 \u6307\u793a\u756a\u53f7\u9053\u4e8c\u7b2c1\u53f7","client_name":"\u56fd\u571f\u4ea4\u901a\u7701\u5317\u9678\u5730\u65b9\u6574\u5099\u5c40\u9ad8\u7530\u6cb3\u5ddd\u56fd\u9053\u4e8b\u52d9\u6240","boring_xml_url":45,"boring_view_url":1,"soilmap_view_url":null,"soiltest_xml_url":0,"soiltest_view_url":0},{"id":245848,"code":"B4KJ201802001-1328","latitude":"37.143083","longitude":"138.341917","source_code":"HR0284396120110066","project_name":"\u4e0a\u8d8a\u4e09\u548c\u9053\u8def\u8edf\u5f31\u5730\u76e4\u5bfe\u7b56\u691c\u8a0e\u305d\u306e2\u696d\u52d9\u59d4\u8a17","survey_name":"\u4e0a\u8d8a\u4e09\u548c\u9053\u8def\u8edf\u5f31\u5730\u76e4\u5bfe\u7b56\u691c\u8a0e\u305d\u306e2\u696d\u52d9\u59d4\u8a17","client_name":"\u56fd\u571f\u4ea4\u901a\u7701\u5317\u9678\u5730\u65b9\u6574\u5099\u5c40\u9ad8\u7530\u6cb3\u5ddd\u56fd\u9053\u4e8b\u52d9\u6240","boring_xml_url":45,"boring_view_url":1,"soilmap_view_url":null,"soiltest_xml_url":0,"soiltest_view_url":0},{"id":245847,"code":"B4KJ201802001-1327","latitude":"37.236972","longitude":"138.341222","source_code":"HR0584396029130001","project_name":"\u5e73\u621017\u5e74\u5ea6 \u5730\u8cea\u8abf\u67fb\u4f5c\u696d\u5358\u4fa1\u5951\u7d04","survey_name":"\u4e5d\u6238\u6d5c\u5730\u5148\u5730\u8cea\u8abf\u67fb\u4f5c\u696d","client_name":"\u5317\u9678\u5730\u65b9\u6574\u5099\u5c40\u9ad8\u7530\u6cb3\u5ddd\u56fd\u9053\u4e8b\u52d9\u6240","boring_xml_url":45,"boring_view_url":1,"soilmap_view_url":null,"soiltest_xml_url":0,"soiltest_view_url":0},{"id":245846,"code":"B4KJ201802001-1326","latitude":"37.142306","longitude":"138.340222","source_code":"HR0284396120110022","project_name":"\u4e0a\u8d8a\u4e09\u548c\u9053\u8def\u8edf\u5f31\u5730\u76e4\u5bfe\u7b56\u691c\u8a0e\u305d\u306e2\u696d\u52d9\u59d4\u8a17","survey_name":"\u4e0a\u8d8a\u4e09\u548c\u9053\u8def\u8edf\u5f31\u5730\u76e4\u5bfe\u7b56\u691c\u8a0e\u305d\u306e2\u696d\u52d9\u59d4\u8a17","client_name":"\u56fd\u571f\u4ea4\u901a\u7701\u5317\u9678\u5730\u65b9\u6574\u5099\u5c40\u9ad8\u7530\u6cb3\u5ddd\u56fd\u9053\u4e8b\u52d9\u6240","boring_xml_url":45,"boring_view_url":1,"soilmap_view_url":null,"soiltest_xml_url":0,"soiltest_view_url":0},{"id":245845,"code":"B4KJ201802001-1325","latitude":"37.142333","longitude":"138.340222","source_code":"HR0284396120110021","project_name":"\u4e0a\u8d8a\u4e09\u548c\u9053\u8def\u8edf\u5f31\u5730\u76e4\u5bfe\u7b56\u691c\u8a0e\u305d\u306e2\u696d\u52d9\u59d4\u8a17","survey_name":"\u4e0a\u8d8a\u4e09\u548c\u9053\u8def\u8edf\u5f31\u5730\u76e4\u5bfe\u7b56\u691c\u8a0e\u305d\u306e2\u696d\u52d9\u59d4\u8a17","client_name":"\u56fd\u571f\u4ea4\u901a\u7701\u5317\u9678\u5730\u65b9\u6574\u5099\u5c40\u9ad8\u7530\u6cb3\u5ddd\u56fd\u9053\u4e8b\u52d9\u6240","boring_xml_url":45,"boring_view_url":1,"soilmap_view_url":null,"soiltest_xml_url":0,"soiltest_view_url":0},{"id":245844,"code":"B4KJ201802001-1324","latitude":"37.142361","longitude":"138.340194","source_code":"HR0284396120110020","project_name":"\u4e0a\u8d8a\u4e09\u548c\u9053\u8def\u8edf\u5f31\u5730\u76e4\u5bfe\u7b56\u691c\u8a0e\u305d\u306e2\u696d\u52d9\u59d4\u8a17","survey_name":"\u4e0a\u8d8a\u4e09\u548c\u9053\u8def\u8edf\u5f31\u5730\u76e4\u5bfe\u7b56\u691c\u8a0e\u305d\u306e2\u696d\u52d9\u59d4\u8a17","client_name":"\u56fd\u571f\u4ea4\u901a\u7701\u5317\u9678\u5730\u65b9\u6574\u5099\u5c40\u9ad8\u7530\u6cb3\u5ddd\u56fd\u9053\u4e8b\u52d9\u6240","boring_xml_url":45,"boring_view_url":1,"soilmap_view_url":null,"soiltest_xml_url":0,"soiltest_view_url":0},{"id":245843,"code":"B4KJ201802001-1323","latitude":"37.142333","longitude":"138.340194","source_code":"HR0284396120110019","project_name":"\u4e0a\u8d8a\u4e09\u548c\u9053\u8def\u8edf\u5f31\u5730\u76e4\u5bfe\u7b56\u691c\u8a0e\u305d\u306e2\u696d\u52d9\u59d4\u8a17","survey_name":"\u4e0a\u8d8a\u4e09\u548c\u9053\u8def\u8edf\u5f31\u5730\u76e4\u5bfe\u7b56\u691c\u8a0e\u305d\u306e2\u696d\u52d9\u59d4\u8a17","client_name":"\u56fd\u571f\u4ea4\u901a\u7701\u5317\u9678\u5730\u65b9\u6574\u5099\u5c40\u9ad8\u7530\u6cb3\u5ddd\u56fd\u9053\u4e8b\u52d9\u6240","boring_xml_url":45,"boring_view_url":1,"soilmap_view_url":null,"soiltest_xml_url":0,"soiltest_view_url":0},{"id":245842,"code":"B4KJ201802001-1322","latitude":"37.141722","longitude":"138.33925","source_code":"HR0984396120110006","project_name":"\u4e0a\u8d8a\u4e09\u548c\u9053\u8def(\u4e09\u548c\u5730\u533a)\u5730\u8cea\u8abf\u67fb\u4f5c\u696d","survey_name":"\u4e0a\u8d8a\u4e09\u548c\u9053\u8def(\u4e09\u548c\u5730\u533a)\u5730\u8cea\u8abf\u67fb\u4f5c\u696d","client_name":"\u56fd\u571f\u4ea4\u901a\u7701 \u5317\u9678\u5730\u65b9\u6574\u5099\u5c40 \u9ad8\u7530\u6cb3\u5ddd\u56fd\u9053\u4e8b\u52d9\u6240","boring_xml_url":45,"boring_view_url":1,"soilmap_view_url":null,"soiltest_xml_url":45,"soiltest_view_url":44},{"id":245841,"code":"B4KJ201802001-1321","latitude":"37.136944","longitude":"138.331972","source_code":"HR0984396120110004","project_name":"\u4e0a\u8d8a\u4e09\u548c\u9053\u8def(\u4e09\u548c\u5730\u533a)\u5730\u8cea\u8abf\u67fb\u4f5c\u696d","survey_name":"\u4e0a\u8d8a\u4e09\u548c\u9053\u8def(\u4e09\u548c\u5730\u533a)\u5730\u8cea\u8abf\u67fb\u4f5c\u696d","client_name":"\u56fd\u571f\u4ea4\u901a\u7701 \u5317\u9678\u5730\u65b9\u6574\u5099\u5c40 \u9ad8\u7530\u6cb3\u5ddd\u56fd\u9053\u4e8b\u52d9\u6240","boring_xml_url":45,"boring_view_url":1,"soilmap_view_url":null,"soiltest_xml_url":45,"soiltest_view_url":44},{"id":245840,"code":"B4KJ201802001-1320","latitude":"37.136056","longitude":"138.330778","source_code":"HR0984396120110003","project_name":"\u4e0a\u8d8a\u4e09\u548c\u9053\u8def(\u4e09\u548c\u5730\u533a)\u5730\u8cea\u8abf\u67fb\u4f5c\u696d","survey_name":"\u4e0a\u8d8a\u4e09\u548c\u9053\u8def(\u4e09\u548c\u5730\u533a)\u5730\u8cea\u8abf\u67fb\u4f5c\u696d","client_name":"\u56fd\u571f\u4ea4\u901a\u7701 \u5317\u9678\u5730\u65b9\u6574\u5099\u5c40 \u9ad8\u7530\u6cb3\u5ddd\u56fd\u9053\u4e8b\u52d9\u6240","boring_xml_url":45,"boring_view_url":1,"soilmap_view_url":null,"soiltest_xml_url":45,"soiltest_view_url":44},{"id":245839,"code":"B4KJ201802001-1319","latitude":"37.135083","longitude":"138.329306","source_code":"HR0984396120110005","project_name":"\u4e0a\u8d8a\u4e09\u548c\u9053\u8def(\u4e09\u548c\u5730\u533a)\u5730\u8cea\u8abf\u67fb\u4f5c\u696d","survey_name":"\u4e0a\u8d8a\u4e09\u548c\u9053\u8def(\u4e09\u548c\u5730\u533a)\u5730\u8cea\u8abf\u67fb\u4f5c\u696d","client_name":"\u56fd\u571f\u4ea4\u901a\u7701 \u5317\u9678\u5730\u65b9\u6574\u5099\u5c40 \u9ad8\u7530\u6cb3\u5ddd\u56fd\u9053\u4e8b\u52d9\u6240","boring_xml_url":45,"boring_view_url":1,"soilmap_view_url":null,"soiltest_xml_url":45,"soiltest_view_url":44},{"id":245838,"code":"B4KJ201802001-1318","latitude":"37.214222","longitude":"138.3285","source_code":"HR0584396029060003","project_name":"\u5e73\u621017\u5e74\u5ea6\u5730\u8cea\u8abf\u67fb\u4f5c\u696d\u5358\u4fa1\u5951\u7d04","survey_name":"\u5317\u9678\u81ea\u52d5\u8eca\u9053\u5927\u6f5fPA\u5185\u5730\u8cea\u8abf\u67fb\u4f5c\u696d","client_name":"\u56fd\u571f\u4ea4\u901a\u7701\u5317\u9678\u5730\u65b9\u6574\u5099\u5c40\u9ad8\u7530\u6cb3\u5ddd\u56fd\u9053\u4e8b\u52d9\u6240","boring_xml_url":45,"boring_view_url":1,"soilmap_view_url":null,"soiltest_xml_url":0,"soiltest_view_url":0},{"id":245837,"code":"B4KJ201802001-1317","latitude":"37.21425","longitude":"138.328389","source_code":"HR0584396029060002","project_name":"\u5e73\u621017\u5e74\u5ea6\u5730\u8cea\u8abf\u67fb\u4f5c\u696d\u5358\u4fa1\u5951\u7d04","survey_name":"\u5317\u9678\u81ea\u52d5\u8eca\u9053\u5927\u6f5fPA\u5185\u5730\u8cea\u8abf\u67fb\u4f5c\u696d","client_name":"\u56fd\u571f\u4ea4\u901a\u7701\u5317\u9678\u5730\u65b9\u6574\u5099\u5c40\u9ad8\u7530\u6cb3\u5ddd\u56fd\u9053\u4e8b\u52d9\u6240","boring_xml_url":45,"boring_view_url":1,"soilmap_view_url":null,"soiltest_xml_url":0,"soiltest_view_url":0},{"id":245836,"code":"B4KJ201802001-1316","latitude":"37.214028","longitude":"138.327889","source_code":"HR0584396029060001","project_name":"\u5e73\u621017\u5e74\u5ea6\u5730\u8cea\u8abf\u67fb\u4f5c\u696d\u5358\u4fa1\u5951\u7d04","survey_name":"\u5317\u9678\u81ea\u52d5\u8eca\u9053\u5927\u6f5fPA\u5185\u5730\u8cea\u8abf\u67fb\u4f5c\u696d","client_name":"\u56fd\u571f\u4ea4\u901a\u7701\u5317\u9678\u5730\u65b9\u6574\u5099\u5c40\u9ad8\u7530\u6cb3\u5ddd\u56fd\u9053\u4e8b\u52d9\u6240","boring_xml_url":45,"boring_view_url":1,"soilmap_view_url":null,"soiltest_xml_url":48,"soiltest_view_url":47},{"id":245835,"code":"B4KJ201802001-1315","latitude":"37.132611","longitude":"138.324722","source_code":"HR0984396120110002","project_name":"\u4e0a\u8d8a\u4e09\u548c\u9053\u8def(\u4e09\u548c\u5730\u533a)\u5730\u8cea\u8abf\u67fb\u4f5c\u696d","survey_name":"\u4e0a\u8d8a\u4e09\u548c\u9053\u8def(\u4e09\u548c\u5730\u533a)\u5730\u8cea\u8abf\u67fb\u4f5c\u696d","client_name":"\u56fd\u571f\u4ea4\u901a\u7701 \u5317\u9678\u5730\u65b9\u6574\u5099\u5c40 \u9ad8\u7530\u6cb3\u5ddd\u56fd\u9053\u4e8b\u52d9\u6240","boring_xml_url":45,"boring_view_url":1,"soilmap_view_url":null,"soiltest_xml_url":45,"soiltest_view_url":44},{"id":245834,"code":"B4KJ201802001-1314","latitude":"37.132417","longitude":"138.3245","source_code":"HR0984396120110001","project_name":"\u4e0a\u8d8a\u4e09\u548c\u9053\u8def(\u4e09\u548c\u5730\u533a)\u5730\u8cea\u8abf\u67fb\u4f5c\u696d","survey_name":"\u4e0a\u8d8a\u4e09\u548c\u9053\u8def(\u4e09\u548c\u5730\u533a)\u5730\u8cea\u8abf\u67fb\u4f5c\u696d","client_name":"\u56fd\u571f\u4ea4\u901a\u7701 \u5317\u9678\u5730\u65b9\u6574\u5099\u5c40 \u9ad8\u7530\u6cb3\u5ddd\u56fd\u9053\u4e8b\u52d9\u6240","boring_xml_url":45,"boring_view_url":1,"soilmap_view_url":null,"soiltest_xml_url":45,"soiltest_view_url":44}]}}