{"header":{"xyz":{"source":[],"mosaic":false},"page":2826,"raw":{"soiltest_result":"0","bbox":"57.598333,109.544722,1.933333,163.806111","page":"2826"},"conditions":{"soiltest_result":0,"north":57.598333,"west":109.544722,"south":1.933333,"east":163.806111},"success":true,"message":""},"data":{"meta":{"total":212844,"page":2826,"pages":7095,"count":30},"values":[{"id":245773,"code":"B4KJ201802001-1253","latitude":"37.096694","longitude":"138.269361","source_code":"HR0484396020280007","project_name":"","survey_name":"\u7ba1\u5185\u5824\u9632\u8cea\u7684\u5f37\u5316\u8a73\u7d30\u70b9\u691c\u5730\u8cea\u8abf\u67fb\u305d\u306e3\u696d\u52d9","client_name":"\u56fd\u571f\u4ea4\u901a\u7701\u5317\u9678\u5730\u65b9\u6574\u5099\u5c40\u9ad8\u7530\u6cb3\u5ddd\u56fd\u9053\u4e8b\u52d9\u6240","boring_xml_url":45,"boring_view_url":1,"soilmap_view_url":null,"soiltest_xml_url":0,"soiltest_view_url":0},{"id":245772,"code":"B4KJ201802001-1252","latitude":"37.096667","longitude":"138.269306","source_code":"HR0484396020280008","project_name":"","survey_name":"\u7ba1\u5185\u5824\u9632\u8cea\u7684\u5f37\u5316\u8a73\u7d30\u70b9\u691c\u5730\u8cea\u8abf\u67fb\u305d\u306e3\u696d\u52d9","client_name":"\u56fd\u571f\u4ea4\u901a\u7701\u5317\u9678\u5730\u65b9\u6574\u5099\u5c40\u9ad8\u7530\u6cb3\u5ddd\u56fd\u9053\u4e8b\u52d9\u6240","boring_xml_url":45,"boring_view_url":1,"soilmap_view_url":null,"soiltest_xml_url":0,"soiltest_view_url":0},{"id":245771,"code":"B4KJ201802001-1251","latitude":"37.103167","longitude":"138.269306","source_code":"HR0384396029010003","project_name":"\u5e73\u621015\u5e74\u5ea6 \u5730\u8cea\u8abf\u67fb\u4f5c\u696d\u5358\u4fa1\u5951\u7d04","survey_name":"\u6adb\u6c60\u5ddd\u7ba1\u7406\u6a4b\u5730\u8cea\u8abf\u67fb\u4f5c\u696d","client_name":"\u56fd\u571f\u4ea4\u901a\u7701\u5317\u9678\u5730\u65b9\u6574\u5099\u5c40\u9ad8\u7530\u6cb3\u5ddd\u56fd\u9053\u4e8b\u52d9\u6240","boring_xml_url":45,"boring_view_url":1,"soilmap_view_url":null,"soiltest_xml_url":0,"soiltest_view_url":0},{"id":245770,"code":"B4KJ201802001-1250","latitude":"37.102833","longitude":"138.269056","source_code":"HR0384396029010002","project_name":"\u5e73\u621015\u5e74\u5ea6 \u5730\u8cea\u8abf\u67fb\u4f5c\u696d\u5358\u4fa1\u5951\u7d04","survey_name":"\u6adb\u6c60\u5ddd\u7ba1\u7406\u6a4b\u5730\u8cea\u8abf\u67fb\u4f5c\u696d","client_name":"\u56fd\u571f\u4ea4\u901a\u7701\u5317\u9678\u5730\u65b9\u6574\u5099\u5c40\u9ad8\u7530\u6cb3\u5ddd\u56fd\u9053\u4e8b\u52d9\u6240","boring_xml_url":45,"boring_view_url":1,"soilmap_view_url":null,"soiltest_xml_url":0,"soiltest_view_url":0},{"id":245769,"code":"B4KJ201802001-1249","latitude":"37.094694","longitude":"138.268944","source_code":"HR0484396020280023","project_name":"","survey_name":"\u7ba1\u5185\u5824\u9632\u8cea\u7684\u5f37\u5316\u8a73\u7d30\u70b9\u691c\u5730\u8cea\u8abf\u67fb\u305d\u306e3\u696d\u52d9","client_name":"\u56fd\u571f\u4ea4\u901a\u7701\u5317\u9678\u5730\u65b9\u6574\u5099\u5c40\u9ad8\u7530\u6cb3\u5ddd\u56fd\u9053\u4e8b\u52d9\u6240","boring_xml_url":45,"boring_view_url":1,"soilmap_view_url":null,"soiltest_xml_url":0,"soiltest_view_url":0},{"id":245768,"code":"B4KJ201802001-1248","latitude":"37.094639","longitude":"138.268861","source_code":"HR0484396020280022","project_name":"","survey_name":"\u7ba1\u5185\u5824\u9632\u8cea\u7684\u5f37\u5316\u8a73\u7d30\u70b9\u691c\u5730\u8cea\u8abf\u67fb\u305d\u306e3\u696d\u52d9","client_name":"\u56fd\u571f\u4ea4\u901a\u7701\u5317\u9678\u5730\u65b9\u6574\u5099\u5c40\u9ad8\u7530\u6cb3\u5ddd\u56fd\u9053\u4e8b\u52d9\u6240","boring_xml_url":45,"boring_view_url":1,"soilmap_view_url":null,"soiltest_xml_url":0,"soiltest_view_url":0},{"id":245767,"code":"B4KJ201802001-1247","latitude":"37.102556","longitude":"138.268861","source_code":"HR0384396029010001","project_name":"\u5e73\u621015\u5e74\u5ea6 \u5730\u8cea\u8abf\u67fb\u4f5c\u696d\u5358\u4fa1\u5951\u7d04","survey_name":"\u6adb\u6c60\u5ddd\u7ba1\u7406\u6a4b\u5730\u8cea\u8abf\u67fb\u4f5c\u696d","client_name":"\u56fd\u571f\u4ea4\u901a\u7701\u5317\u9678\u5730\u65b9\u6574\u5099\u5c40\u9ad8\u7530\u6cb3\u5ddd\u56fd\u9053\u4e8b\u52d9\u6240","boring_xml_url":45,"boring_view_url":1,"soilmap_view_url":null,"soiltest_xml_url":48,"soiltest_view_url":47},{"id":245766,"code":"B4KJ201802001-1246","latitude":"37.094583","longitude":"138.268778","source_code":"HR0484396020280024","project_name":"","survey_name":"\u7ba1\u5185\u5824\u9632\u8cea\u7684\u5f37\u5316\u8a73\u7d30\u70b9\u691c\u5730\u8cea\u8abf\u67fb\u305d\u306e3\u696d\u52d9","client_name":"\u56fd\u571f\u4ea4\u901a\u7701\u5317\u9678\u5730\u65b9\u6574\u5099\u5c40\u9ad8\u7530\u6cb3\u5ddd\u56fd\u9053\u4e8b\u52d9\u6240","boring_xml_url":45,"boring_view_url":1,"soilmap_view_url":null,"soiltest_xml_url":0,"soiltest_view_url":0},{"id":245765,"code":"B4KJ201802001-1245","latitude":"37.10425","longitude":"138.268778","source_code":"HR0484396020280003","project_name":"","survey_name":"\u7ba1\u5185\u5824\u9632\u8cea\u7684\u5f37\u5316\u8a73\u7d30\u70b9\u691c\u5730\u8cea\u8abf\u67fb\u305d\u306e3\u696d\u52d9","client_name":"\u56fd\u571f\u4ea4\u901a\u7701\u5317\u9678\u5730\u65b9\u6574\u5099\u5c40\u9ad8\u7530\u6cb3\u5ddd\u56fd\u9053\u4e8b\u52d9\u6240","boring_xml_url":45,"boring_view_url":1,"soilmap_view_url":null,"soiltest_xml_url":0,"soiltest_view_url":0},{"id":245764,"code":"B4KJ201802001-1244","latitude":"37.104167","longitude":"138.268639","source_code":"HR0484396020280001","project_name":"","survey_name":"\u7ba1\u5185\u5824\u9632\u8cea\u7684\u5f37\u5316\u8a73\u7d30\u70b9\u691c\u5730\u8cea\u8abf\u67fb\u305d\u306e3\u696d\u52d9","client_name":"\u56fd\u571f\u4ea4\u901a\u7701\u5317\u9678\u5730\u65b9\u6574\u5099\u5c40\u9ad8\u7530\u6cb3\u5ddd\u56fd\u9053\u4e8b\u52d9\u6240","boring_xml_url":45,"boring_view_url":1,"soilmap_view_url":null,"soiltest_xml_url":0,"soiltest_view_url":0},{"id":245763,"code":"B4KJ201802001-1243","latitude":"37.104139","longitude":"138.268611","source_code":"HR0484396020280002","project_name":"","survey_name":"\u7ba1\u5185\u5824\u9632\u8cea\u7684\u5f37\u5316\u8a73\u7d30\u70b9\u691c\u5730\u8cea\u8abf\u67fb\u305d\u306e3\u696d\u52d9","client_name":"\u56fd\u571f\u4ea4\u901a\u7701\u5317\u9678\u5730\u65b9\u6574\u5099\u5c40\u9ad8\u7530\u6cb3\u5ddd\u56fd\u9053\u4e8b\u52d9\u6240","boring_xml_url":45,"boring_view_url":1,"soilmap_view_url":null,"soiltest_xml_url":0,"soiltest_view_url":0},{"id":245762,"code":"B4KJ201802001-1242","latitude":"37.10125","longitude":"138.268333","source_code":"HR0484396020280006","project_name":"","survey_name":"\u7ba1\u5185\u5824\u9632\u8cea\u7684\u5f37\u5316\u8a73\u7d30\u70b9\u691c\u5730\u8cea\u8abf\u67fb\u305d\u306e3\u696d\u52d9","client_name":"\u56fd\u571f\u4ea4\u901a\u7701\u5317\u9678\u5730\u65b9\u6574\u5099\u5c40\u9ad8\u7530\u6cb3\u5ddd\u56fd\u9053\u4e8b\u52d9\u6240","boring_xml_url":45,"boring_view_url":1,"soilmap_view_url":null,"soiltest_xml_url":0,"soiltest_view_url":0},{"id":245761,"code":"B4KJ201802001-1241","latitude":"37.10125","longitude":"138.268222","source_code":"HR0484396020280004","project_name":"","survey_name":"\u7ba1\u5185\u5824\u9632\u8cea\u7684\u5f37\u5316\u8a73\u7d30\u70b9\u691c\u5730\u8cea\u8abf\u67fb\u305d\u306e3\u696d\u52d9","client_name":"\u56fd\u571f\u4ea4\u901a\u7701\u5317\u9678\u5730\u65b9\u6574\u5099\u5c40\u9ad8\u7530\u6cb3\u5ddd\u56fd\u9053\u4e8b\u52d9\u6240","boring_xml_url":45,"boring_view_url":1,"soilmap_view_url":null,"soiltest_xml_url":0,"soiltest_view_url":0},{"id":245760,"code":"B4KJ201802001-1240","latitude":"37.10125","longitude":"138.268167","source_code":"HR0484396020280005","project_name":"","survey_name":"\u7ba1\u5185\u5824\u9632\u8cea\u7684\u5f37\u5316\u8a73\u7d30\u70b9\u691c\u5730\u8cea\u8abf\u67fb\u305d\u306e3\u696d\u52d9","client_name":"\u56fd\u571f\u4ea4\u901a\u7701\u5317\u9678\u5730\u65b9\u6574\u5099\u5c40\u9ad8\u7530\u6cb3\u5ddd\u56fd\u9053\u4e8b\u52d9\u6240","boring_xml_url":45,"boring_view_url":1,"soilmap_view_url":null,"soiltest_xml_url":0,"soiltest_view_url":0},{"id":245759,"code":"B4KJ201802001-1239","latitude":"37.111972","longitude":"138.267667","source_code":"HR0484396020270012","project_name":"","survey_name":"\u7ba1\u5185\u5824\u9632\u8cea\u7684\u5f37\u5316\u8a73\u7d30\u70b9\u691c\u5730\u8cea\u8abf\u67fb\u305d\u306e2\u696d\u52d9","client_name":"\u56fd\u571f\u4ea4\u901a\u7701\u5317\u9678\u5730\u65b9\u6574\u5099\u5c40\u9ad8\u7530\u6cb3\u5ddd\u56fd\u9053\u4e8b\u52d9\u6240","boring_xml_url":45,"boring_view_url":1,"soilmap_view_url":null,"soiltest_xml_url":48,"soiltest_view_url":47},{"id":245758,"code":"B4KJ201802001-1238","latitude":"37.111972","longitude":"138.267583","source_code":"HR0484396020270010","project_name":"","survey_name":"\u7ba1\u5185\u5824\u9632\u8cea\u7684\u5f37\u5316\u8a73\u7d30\u70b9\u691c\u5730\u8cea\u8abf\u67fb\u305d\u306e2\u696d\u52d9","client_name":"\u56fd\u571f\u4ea4\u901a\u7701\u5317\u9678\u5730\u65b9\u6574\u5099\u5c40\u9ad8\u7530\u6cb3\u5ddd\u56fd\u9053\u4e8b\u52d9\u6240","boring_xml_url":45,"boring_view_url":1,"soilmap_view_url":null,"soiltest_xml_url":0,"soiltest_view_url":0},{"id":245757,"code":"B4KJ201802001-1237","latitude":"37.106972","longitude":"138.267528","source_code":"HR0484396020270015","project_name":"","survey_name":"\u7ba1\u5185\u5824\u9632\u8cea\u7684\u5f37\u5316\u8a73\u7d30\u70b9\u691c\u5730\u8cea\u8abf\u67fb\u305d\u306e2\u696d\u52d9","client_name":"\u56fd\u571f\u4ea4\u901a\u7701\u5317\u9678\u5730\u65b9\u6574\u5099\u5c40\u9ad8\u7530\u6cb3\u5ddd\u56fd\u9053\u4e8b\u52d9\u6240","boring_xml_url":45,"boring_view_url":1,"soilmap_view_url":null,"soiltest_xml_url":48,"soiltest_view_url":47},{"id":245756,"code":"B4KJ201802001-1236","latitude":"37.111972","longitude":"138.267528","source_code":"HR0484396020270011","project_name":"","survey_name":"\u7ba1\u5185\u5824\u9632\u8cea\u7684\u5f37\u5316\u8a73\u7d30\u70b9\u691c\u5730\u8cea\u8abf\u67fb\u305d\u306e2\u696d\u52d9","client_name":"\u56fd\u571f\u4ea4\u901a\u7701\u5317\u9678\u5730\u65b9\u6574\u5099\u5c40\u9ad8\u7530\u6cb3\u5ddd\u56fd\u9053\u4e8b\u52d9\u6240","boring_xml_url":45,"boring_view_url":1,"soilmap_view_url":null,"soiltest_xml_url":48,"soiltest_view_url":47},{"id":245755,"code":"B4KJ201802001-1235","latitude":"37.106944","longitude":"138.267389","source_code":"HR0484396020270013","project_name":"","survey_name":"\u7ba1\u5185\u5824\u9632\u8cea\u7684\u5f37\u5316\u8a73\u7d30\u70b9\u691c\u5730\u8cea\u8abf\u67fb\u305d\u306e2\u696d\u52d9","client_name":"\u56fd\u571f\u4ea4\u901a\u7701\u5317\u9678\u5730\u65b9\u6574\u5099\u5c40\u9ad8\u7530\u6cb3\u5ddd\u56fd\u9053\u4e8b\u52d9\u6240","boring_xml_url":45,"boring_view_url":1,"soilmap_view_url":null,"soiltest_xml_url":0,"soiltest_view_url":0},{"id":245754,"code":"B4KJ201802001-1234","latitude":"37.106944","longitude":"138.267361","source_code":"HR0484396020270014","project_name":"","survey_name":"\u7ba1\u5185\u5824\u9632\u8cea\u7684\u5f37\u5316\u8a73\u7d30\u70b9\u691c\u5730\u8cea\u8abf\u67fb\u305d\u306e2\u696d\u52d9","client_name":"\u56fd\u571f\u4ea4\u901a\u7701\u5317\u9678\u5730\u65b9\u6574\u5099\u5c40\u9ad8\u7530\u6cb3\u5ddd\u56fd\u9053\u4e8b\u52d9\u6240","boring_xml_url":45,"boring_view_url":1,"soilmap_view_url":null,"soiltest_xml_url":48,"soiltest_view_url":47},{"id":245753,"code":"B4KJ201802001-1233","latitude":"37.179972","longitude":"138.265778","source_code":"HR1084396020150014","project_name":"\u5e73\u621022\u5e74\u5ea6\u95a2\u5ddd\u7ba1\u5185\u6cb3\u5e8a\u6750\u6599\u8abf\u67fb\u4f5c\u696d","survey_name":"\u5e73\u621022\u5e74\u5ea6\u95a2\u5ddd\u7ba1\u5185\u6cb3\u5e8a\u6750\u6599\u8abf\u67fb\u4f5c\u696d","client_name":"\u56fd\u571f\u4ea4\u901a\u7701\u5317\u9678\u5730\u65b9\u6574\u5099\u5c40\u9ad8\u7530\u6cb3\u5ddd\u56fd\u9053\u4e8b\u52d9\u6240","boring_xml_url":45,"boring_view_url":1,"soilmap_view_url":null,"soiltest_xml_url":45,"soiltest_view_url":44},{"id":245752,"code":"B4KJ201802001-1232","latitude":"37.17975","longitude":"138.26575","source_code":"HR1084396020150012","project_name":"\u5e73\u621022\u5e74\u5ea6\u95a2\u5ddd\u7ba1\u5185\u6cb3\u5e8a\u6750\u6599\u8abf\u67fb\u4f5c\u696d","survey_name":"\u5e73\u621022\u5e74\u5ea6\u95a2\u5ddd\u7ba1\u5185\u6cb3\u5e8a\u6750\u6599\u8abf\u67fb\u4f5c\u696d","client_name":"\u56fd\u571f\u4ea4\u901a\u7701\u5317\u9678\u5730\u65b9\u6574\u5099\u5c40\u9ad8\u7530\u6cb3\u5ddd\u56fd\u9053\u4e8b\u52d9\u6240","boring_xml_url":45,"boring_view_url":1,"soilmap_view_url":null,"soiltest_xml_url":45,"soiltest_view_url":44},{"id":245751,"code":"B4KJ201802001-1231","latitude":"37.179528","longitude":"138.265694","source_code":"HR1084396020150013","project_name":"\u5e73\u621022\u5e74\u5ea6\u95a2\u5ddd\u7ba1\u5185\u6cb3\u5e8a\u6750\u6599\u8abf\u67fb\u4f5c\u696d","survey_name":"\u5e73\u621022\u5e74\u5ea6\u95a2\u5ddd\u7ba1\u5185\u6cb3\u5e8a\u6750\u6599\u8abf\u67fb\u4f5c\u696d","client_name":"\u56fd\u571f\u4ea4\u901a\u7701\u5317\u9678\u5730\u65b9\u6574\u5099\u5c40\u9ad8\u7530\u6cb3\u5ddd\u56fd\u9053\u4e8b\u52d9\u6240","boring_xml_url":45,"boring_view_url":1,"soilmap_view_url":null,"soiltest_xml_url":45,"soiltest_view_url":44},{"id":245750,"code":"B4KJ201802001-1230","latitude":"37.167446","longitude":"138.262413","source_code":"HR0884396029060001","project_name":"\u5e73\u621020\u5e74\u5ea6 \u5730\u8cea\u8abf\u67fb\u4f5c\u696d\u5358\u4fa1\u5951\u7d04 \u76f4\u6c5f\u6d25\u30d0\u30a4\u30d1\u30b9\u5730\u8cea\u8abf\u67fb\u4f5c\u696d","survey_name":"\u5e73\u621020\u5e74\u5ea6 \u5730\u8cea\u8abf\u67fb\u4f5c\u696d\u5358\u4fa1\u5951\u7d04 \u76f4\u6c5f\u6d25\u30d0\u30a4\u30d1\u30b9\u5730\u8cea\u8abf\u67fb\u4f5c\u696d","client_name":"\u56fd\u571f\u4ea4\u901a\u7701\u5317\u9678\u5730\u65b9\u6574\u5099\u5c40 \u9ad8\u7530\u6cb3\u5ddd\u56fd\u9053\u4e8b\u52d9\u6240","boring_xml_url":45,"boring_view_url":1,"soilmap_view_url":null,"soiltest_xml_url":0,"soiltest_view_url":0},{"id":245749,"code":"B4KJ201802001-1229","latitude":"37.179306","longitude":"138.265167","source_code":"HR0484396020270024","project_name":"","survey_name":"\u7ba1\u5185\u5824\u9632\u8cea\u7684\u5f37\u5316\u8a73\u7d30\u70b9\u691c\u5730\u8cea\u8abf\u67fb\u305d\u306e2\u696d\u52d9","client_name":"\u56fd\u571f\u4ea4\u901a\u7701\u5317\u9678\u5730\u65b9\u6574\u5099\u5c40\u9ad8\u7530\u6cb3\u5ddd\u56fd\u9053\u4e8b\u52d9\u6240","boring_xml_url":45,"boring_view_url":1,"soilmap_view_url":null,"soiltest_xml_url":48,"soiltest_view_url":47},{"id":245748,"code":"B4KJ201802001-1228","latitude":"37.179389","longitude":"138.265083","source_code":"HR0484396020270023","project_name":"","survey_name":"\u7ba1\u5185\u5824\u9632\u8cea\u7684\u5f37\u5316\u8a73\u7d30\u70b9\u691c\u5730\u8cea\u8abf\u67fb\u305d\u306e2\u696d\u52d9","client_name":"\u56fd\u571f\u4ea4\u901a\u7701\u5317\u9678\u5730\u65b9\u6574\u5099\u5c40\u9ad8\u7530\u6cb3\u5ddd\u56fd\u9053\u4e8b\u52d9\u6240","boring_xml_url":45,"boring_view_url":1,"soilmap_view_url":null,"soiltest_xml_url":48,"soiltest_view_url":47},{"id":245747,"code":"B4KJ201802001-1227","latitude":"37.179389","longitude":"138.265083","source_code":"HR0484396020270022","project_name":"","survey_name":"\u7ba1\u5185\u5824\u9632\u8cea\u7684\u5f37\u5316\u8a73\u7d30\u70b9\u691c\u5730\u8cea\u8abf\u67fb\u305d\u306e2\u696d\u52d9","client_name":"\u56fd\u571f\u4ea4\u901a\u7701\u5317\u9678\u5730\u65b9\u6574\u5099\u5c40\u9ad8\u7530\u6cb3\u5ddd\u56fd\u9053\u4e8b\u52d9\u6240","boring_xml_url":45,"boring_view_url":1,"soilmap_view_url":null,"soiltest_xml_url":0,"soiltest_view_url":0},{"id":245746,"code":"B4KJ201802001-1226","latitude":"37.167224","longitude":"138.261857","source_code":"HR0884396029060002","project_name":"\u5e73\u621020\u5e74\u5ea6 \u5730\u8cea\u8abf\u67fb\u4f5c\u696d\u5358\u4fa1\u5951\u7d04 \u76f4\u6c5f\u6d25\u30d0\u30a4\u30d1\u30b9\u5730\u8cea\u8abf\u67fb\u4f5c\u696d","survey_name":"\u5e73\u621020\u5e74\u5ea6 \u5730\u8cea\u8abf\u67fb\u4f5c\u696d\u5358\u4fa1\u5951\u7d04 \u76f4\u6c5f\u6d25\u30d0\u30a4\u30d1\u30b9\u5730\u8cea\u8abf\u67fb\u4f5c\u696d","client_name":"\u56fd\u571f\u4ea4\u901a\u7701\u5317\u9678\u5730\u65b9\u6574\u5099\u5c40 \u9ad8\u7530\u6cb3\u5ddd\u56fd\u9053\u4e8b\u52d9\u6240","boring_xml_url":45,"boring_view_url":1,"soilmap_view_url":null,"soiltest_xml_url":0,"soiltest_view_url":0},{"id":245745,"code":"B4KJ201802001-1225","latitude":"37.106417","longitude":"138.264778","source_code":"HR0484396020280026","project_name":"","survey_name":"\u7ba1\u5185\u5824\u9632\u8cea\u7684\u5f37\u5316\u8a73\u7d30\u70b9\u691c\u5730\u8cea\u8abf\u67fb\u305d\u306e3\u696d\u52d9","client_name":"\u56fd\u571f\u4ea4\u901a\u7701\u5317\u9678\u5730\u65b9\u6574\u5099\u5c40\u9ad8\u7530\u6cb3\u5ddd\u56fd\u9053\u4e8b\u52d9\u6240","boring_xml_url":45,"boring_view_url":1,"soilmap_view_url":null,"soiltest_xml_url":0,"soiltest_view_url":0},{"id":245744,"code":"B4KJ201802001-1224","latitude":"37.106444","longitude":"138.264639","source_code":"HR0484396020280025","project_name":"","survey_name":"\u7ba1\u5185\u5824\u9632\u8cea\u7684\u5f37\u5316\u8a73\u7d30\u70b9\u691c\u5730\u8cea\u8abf\u67fb\u305d\u306e3\u696d\u52d9","client_name":"\u56fd\u571f\u4ea4\u901a\u7701\u5317\u9678\u5730\u65b9\u6574\u5099\u5c40\u9ad8\u7530\u6cb3\u5ddd\u56fd\u9053\u4e8b\u52d9\u6240","boring_xml_url":45,"boring_view_url":1,"soilmap_view_url":null,"soiltest_xml_url":0,"soiltest_view_url":0}]}}