{"header":{"xyz":{"source":[],"mosaic":false},"page":2832,"raw":{"soiltest_result":"0","bbox":"57.598333,109.544722,1.933333,163.806111","page":"2832"},"conditions":{"soiltest_result":0,"north":57.598333,"west":109.544722,"south":1.933333,"east":163.806111},"success":true,"message":""},"data":{"meta":{"total":212844,"page":2832,"pages":7095,"count":30},"values":[{"id":245593,"code":"B4KJ201802001-1073","latitude":"37.006592","longitude":"137.867181","source_code":"HR0484396020290021","project_name":"\u7ba1\u5185\u5824\u9632\u8cea\u7684\u5f37\u5316\u8a73\u7d30\u70b9\u691c\u5730\u8cea\u8abf\u67fb\u305d\u306e4\u696d\u52d9","survey_name":"\u7ba1\u5185\u5824\u9632\u8cea\u7684\u5f37\u5316\u8a73\u7d30\u70b9\u691c\u5730\u8cea\u8abf\u67fb\u305d\u306e4\u696d\u52d9","client_name":"\u56fd\u571f\u4ea4\u901a\u7701 \u5317\u9678\u5730\u65b9\u6574\u5099\u5c40 \u9ad8\u7530\u6cb3\u5ddd\u56fd\u9053\u4e8b\u52d9\u6240","boring_xml_url":45,"boring_view_url":1,"soilmap_view_url":null,"soiltest_xml_url":48,"soiltest_view_url":47},{"id":245592,"code":"B4KJ201802001-1072","latitude":"37.006565","longitude":"137.866903","source_code":"HR0484396020290022","project_name":"\u7ba1\u5185\u5824\u9632\u8cea\u7684\u5f37\u5316\u8a73\u7d30\u70b9\u691c\u5730\u8cea\u8abf\u67fb\u305d\u306e4\u696d\u52d9","survey_name":"\u7ba1\u5185\u5824\u9632\u8cea\u7684\u5f37\u5316\u8a73\u7d30\u70b9\u691c\u5730\u8cea\u8abf\u67fb\u305d\u306e4\u696d\u52d9","client_name":"\u56fd\u571f\u4ea4\u901a\u7701 \u5317\u9678\u5730\u65b9\u6574\u5099\u5c40 \u9ad8\u7530\u6cb3\u5ddd\u56fd\u9053\u4e8b\u52d9\u6240","boring_xml_url":45,"boring_view_url":1,"soilmap_view_url":null,"soiltest_xml_url":48,"soiltest_view_url":47},{"id":245591,"code":"B4KJ201802001-1071","latitude":"36.997361","longitude":"137.869861","source_code":"HR0684396020160005","project_name":"-","survey_name":"\u59eb\u5ddd\u5824\u9632\u7b49\u5730\u8cea\u8abf\u67fb\u4f5c\u696d","client_name":"\u56fd\u571f\u4ea4\u901a\u7701\u5317\u9678\u5730\u65b9\u6574\u5099\u5c40\u9ad8\u7530\u6cb3\u5ddd\u56fd\u9053\u4e8b\u52d9\u6240","boring_xml_url":45,"boring_view_url":1,"soilmap_view_url":null,"soiltest_xml_url":0,"soiltest_view_url":0},{"id":245590,"code":"B4KJ201802001-1070","latitude":"36.997361","longitude":"137.869667","source_code":"HR0684396020160006","project_name":"-","survey_name":"\u59eb\u5ddd\u5824\u9632\u7b49\u5730\u8cea\u8abf\u67fb\u4f5c\u696d","client_name":"\u56fd\u571f\u4ea4\u901a\u7701\u5317\u9678\u5730\u65b9\u6574\u5099\u5c40\u9ad8\u7530\u6cb3\u5ddd\u56fd\u9053\u4e8b\u52d9\u6240","boring_xml_url":45,"boring_view_url":1,"soilmap_view_url":null,"soiltest_xml_url":0,"soiltest_view_url":0},{"id":245589,"code":"B4KJ201802001-1069","latitude":"36.997333","longitude":"137.869639","source_code":"HR0684396020160004","project_name":"-","survey_name":"\u59eb\u5ddd\u5824\u9632\u7b49\u5730\u8cea\u8abf\u67fb\u4f5c\u696d","client_name":"\u56fd\u571f\u4ea4\u901a\u7701\u5317\u9678\u5730\u65b9\u6574\u5099\u5c40\u9ad8\u7530\u6cb3\u5ddd\u56fd\u9053\u4e8b\u52d9\u6240","boring_xml_url":45,"boring_view_url":1,"soilmap_view_url":null,"soiltest_xml_url":0,"soiltest_view_url":0},{"id":245588,"code":"B4KJ201802001-1068","latitude":"37.012258","longitude":"137.863292","source_code":"HR0484396020290020","project_name":"\u7ba1\u5185\u5824\u9632\u8cea\u7684\u5f37\u5316\u8a73\u7d30\u70b9\u691c\u5730\u8cea\u8abf\u67fb\u305d\u306e4\u696d\u52d9","survey_name":"\u7ba1\u5185\u5824\u9632\u8cea\u7684\u5f37\u5316\u8a73\u7d30\u70b9\u691c\u5730\u8cea\u8abf\u67fb\u305d\u306e4\u696d\u52d9","client_name":"\u56fd\u571f\u4ea4\u901a\u7701 \u5317\u9678\u5730\u65b9\u6574\u5099\u5c40 \u9ad8\u7530\u6cb3\u5ddd\u56fd\u9053\u4e8b\u52d9\u6240","boring_xml_url":45,"boring_view_url":1,"soilmap_view_url":null,"soiltest_xml_url":48,"soiltest_view_url":47},{"id":245587,"code":"B4KJ201802001-1067","latitude":"37.012231","longitude":"137.863292","source_code":"HR0484396020290018","project_name":"\u7ba1\u5185\u5824\u9632\u8cea\u7684\u5f37\u5316\u8a73\u7d30\u70b9\u691c\u5730\u8cea\u8abf\u67fb\u305d\u306e4\u696d\u52d9","survey_name":"\u7ba1\u5185\u5824\u9632\u8cea\u7684\u5f37\u5316\u8a73\u7d30\u70b9\u691c\u5730\u8cea\u8abf\u67fb\u305d\u306e4\u696d\u52d9","client_name":"\u56fd\u571f\u4ea4\u901a\u7701 \u5317\u9678\u5730\u65b9\u6574\u5099\u5c40 \u9ad8\u7530\u6cb3\u5ddd\u56fd\u9053\u4e8b\u52d9\u6240","boring_xml_url":45,"boring_view_url":1,"soilmap_view_url":null,"soiltest_xml_url":48,"soiltest_view_url":47},{"id":245586,"code":"B4KJ201802001-1066","latitude":"37.012231","longitude":"137.863292","source_code":"HR0484396020290019","project_name":"\u7ba1\u5185\u5824\u9632\u8cea\u7684\u5f37\u5316\u8a73\u7d30\u70b9\u691c\u5730\u8cea\u8abf\u67fb\u305d\u306e4\u696d\u52d9","survey_name":"\u7ba1\u5185\u5824\u9632\u8cea\u7684\u5f37\u5316\u8a73\u7d30\u70b9\u691c\u5730\u8cea\u8abf\u67fb\u305d\u306e4\u696d\u52d9","client_name":"\u56fd\u571f\u4ea4\u901a\u7701 \u5317\u9678\u5730\u65b9\u6574\u5099\u5c40 \u9ad8\u7530\u6cb3\u5ddd\u56fd\u9053\u4e8b\u52d9\u6240","boring_xml_url":45,"boring_view_url":1,"soilmap_view_url":null,"soiltest_xml_url":48,"soiltest_view_url":47},{"id":245585,"code":"B4KJ201802001-1065","latitude":"37.002278","longitude":"137.866333","source_code":"HR0684396020160002","project_name":"-","survey_name":"\u59eb\u5ddd\u5824\u9632\u7b49\u5730\u8cea\u8abf\u67fb\u4f5c\u696d","client_name":"\u56fd\u571f\u4ea4\u901a\u7701\u5317\u9678\u5730\u65b9\u6574\u5099\u5c40\u9ad8\u7530\u6cb3\u5ddd\u56fd\u9053\u4e8b\u52d9\u6240","boring_xml_url":45,"boring_view_url":1,"soilmap_view_url":null,"soiltest_xml_url":0,"soiltest_view_url":0},{"id":245584,"code":"B4KJ201802001-1064","latitude":"37.00225","longitude":"137.866278","source_code":"HR0684396020160001","project_name":"-","survey_name":"\u59eb\u5ddd\u5824\u9632\u7b49\u5730\u8cea\u8abf\u67fb\u4f5c\u696d","client_name":"\u56fd\u571f\u4ea4\u901a\u7701\u5317\u9678\u5730\u65b9\u6574\u5099\u5c40\u9ad8\u7530\u6cb3\u5ddd\u56fd\u9053\u4e8b\u52d9\u6240","boring_xml_url":45,"boring_view_url":1,"soilmap_view_url":null,"soiltest_xml_url":0,"soiltest_view_url":0},{"id":245583,"code":"B4KJ201802001-1063","latitude":"37.00225","longitude":"137.866222","source_code":"HR0684396020160003","project_name":"-","survey_name":"\u59eb\u5ddd\u5824\u9632\u7b49\u5730\u8cea\u8abf\u67fb\u4f5c\u696d","client_name":"\u56fd\u571f\u4ea4\u901a\u7701\u5317\u9678\u5730\u65b9\u6574\u5099\u5c40\u9ad8\u7530\u6cb3\u5ddd\u56fd\u9053\u4e8b\u52d9\u6240","boring_xml_url":45,"boring_view_url":1,"soilmap_view_url":null,"soiltest_xml_url":0,"soiltest_view_url":0},{"id":245582,"code":"B4KJ201802001-1062","latitude":"37.007676","longitude":"137.861348","source_code":"HR0484396020290010","project_name":"\u7ba1\u5185\u5824\u9632\u8cea\u7684\u5f37\u5316\u8a73\u7d30\u70b9\u691c\u5730\u8cea\u8abf\u67fb\u305d\u306e4\u696d\u52d9","survey_name":"\u7ba1\u5185\u5824\u9632\u8cea\u7684\u5f37\u5316\u8a73\u7d30\u70b9\u691c\u5730\u8cea\u8abf\u67fb\u305d\u306e4\u696d\u52d9","client_name":"\u56fd\u571f\u4ea4\u901a\u7701 \u5317\u9678\u5730\u65b9\u6574\u5099\u5c40 \u9ad8\u7530\u6cb3\u5ddd\u56fd\u9053\u4e8b\u52d9\u6240","boring_xml_url":45,"boring_view_url":1,"soilmap_view_url":null,"soiltest_xml_url":0,"soiltest_view_url":0},{"id":245581,"code":"B4KJ201802001-1061","latitude":"37.007676","longitude":"137.86107","source_code":"HR0484396020290009","project_name":"\u7ba1\u5185\u5824\u9632\u8cea\u7684\u5f37\u5316\u8a73\u7d30\u70b9\u691c\u5730\u8cea\u8abf\u67fb\u305d\u306e4\u696d\u52d9","survey_name":"\u7ba1\u5185\u5824\u9632\u8cea\u7684\u5f37\u5316\u8a73\u7d30\u70b9\u691c\u5730\u8cea\u8abf\u67fb\u305d\u306e4\u696d\u52d9","client_name":"\u56fd\u571f\u4ea4\u901a\u7701 \u5317\u9678\u5730\u65b9\u6574\u5099\u5c40 \u9ad8\u7530\u6cb3\u5ddd\u56fd\u9053\u4e8b\u52d9\u6240","boring_xml_url":45,"boring_view_url":1,"soilmap_view_url":null,"soiltest_xml_url":48,"soiltest_view_url":47},{"id":245580,"code":"B4KJ201802001-1060","latitude":"37.007648","longitude":"137.86107","source_code":"HR0484396020290011","project_name":"\u7ba1\u5185\u5824\u9632\u8cea\u7684\u5f37\u5316\u8a73\u7d30\u70b9\u691c\u5730\u8cea\u8abf\u67fb\u305d\u306e4\u696d\u52d9","survey_name":"\u7ba1\u5185\u5824\u9632\u8cea\u7684\u5f37\u5316\u8a73\u7d30\u70b9\u691c\u5730\u8cea\u8abf\u67fb\u305d\u306e4\u696d\u52d9","client_name":"\u56fd\u571f\u4ea4\u901a\u7701 \u5317\u9678\u5730\u65b9\u6574\u5099\u5c40 \u9ad8\u7530\u6cb3\u5ddd\u56fd\u9053\u4e8b\u52d9\u6240","boring_xml_url":45,"boring_view_url":1,"soilmap_view_url":null,"soiltest_xml_url":0,"soiltest_view_url":0},{"id":245579,"code":"B4KJ201802001-1059","latitude":"37.016563","longitude":"137.860792","source_code":"HR0484396020290017","project_name":"\u7ba1\u5185\u5824\u9632\u8cea\u7684\u5f37\u5316\u8a73\u7d30\u70b9\u691c\u5730\u8cea\u8abf\u67fb\u305d\u306e4\u696d\u52d9","survey_name":"\u7ba1\u5185\u5824\u9632\u8cea\u7684\u5f37\u5316\u8a73\u7d30\u70b9\u691c\u5730\u8cea\u8abf\u67fb\u305d\u306e4\u696d\u52d9","client_name":"\u56fd\u571f\u4ea4\u901a\u7701 \u5317\u9678\u5730\u65b9\u6574\u5099\u5c40 \u9ad8\u7530\u6cb3\u5ddd\u56fd\u9053\u4e8b\u52d9\u6240","boring_xml_url":45,"boring_view_url":1,"soilmap_view_url":null,"soiltest_xml_url":0,"soiltest_view_url":0},{"id":245578,"code":"B4KJ201802001-1058","latitude":"37.016508","longitude":"137.860792","source_code":"HR0484396020290015","project_name":"\u7ba1\u5185\u5824\u9632\u8cea\u7684\u5f37\u5316\u8a73\u7d30\u70b9\u691c\u5730\u8cea\u8abf\u67fb\u305d\u306e4\u696d\u52d9","survey_name":"\u7ba1\u5185\u5824\u9632\u8cea\u7684\u5f37\u5316\u8a73\u7d30\u70b9\u691c\u5730\u8cea\u8abf\u67fb\u305d\u306e4\u696d\u52d9","client_name":"\u56fd\u571f\u4ea4\u901a\u7701 \u5317\u9678\u5730\u65b9\u6574\u5099\u5c40 \u9ad8\u7530\u6cb3\u5ddd\u56fd\u9053\u4e8b\u52d9\u6240","boring_xml_url":45,"boring_view_url":1,"soilmap_view_url":null,"soiltest_xml_url":48,"soiltest_view_url":47},{"id":245577,"code":"B4KJ201802001-1057","latitude":"37.01648","longitude":"137.860792","source_code":"HR0484396020290016","project_name":"\u7ba1\u5185\u5824\u9632\u8cea\u7684\u5f37\u5316\u8a73\u7d30\u70b9\u691c\u5730\u8cea\u8abf\u67fb\u305d\u306e4\u696d\u52d9","survey_name":"\u7ba1\u5185\u5824\u9632\u8cea\u7684\u5f37\u5316\u8a73\u7d30\u70b9\u691c\u5730\u8cea\u8abf\u67fb\u305d\u306e4\u696d\u52d9","client_name":"\u56fd\u571f\u4ea4\u901a\u7701 \u5317\u9678\u5730\u65b9\u6574\u5099\u5c40 \u9ad8\u7530\u6cb3\u5ddd\u56fd\u9053\u4e8b\u52d9\u6240","boring_xml_url":45,"boring_view_url":1,"soilmap_view_url":null,"soiltest_xml_url":48,"soiltest_view_url":47},{"id":245576,"code":"B4KJ201802001-1056","latitude":"36.954222","longitude":"137.863528","source_code":"HR0684396020160009","project_name":"-","survey_name":"\u59eb\u5ddd\u5824\u9632\u7b49\u5730\u8cea\u8abf\u67fb\u4f5c\u696d","client_name":"\u56fd\u571f\u4ea4\u901a\u7701\u5317\u9678\u5730\u65b9\u6574\u5099\u5c40\u9ad8\u7530\u6cb3\u5ddd\u56fd\u9053\u4e8b\u52d9\u6240","boring_xml_url":45,"boring_view_url":1,"soilmap_view_url":null,"soiltest_xml_url":0,"soiltest_view_url":0},{"id":245575,"code":"B4KJ201802001-1055","latitude":"36.95425","longitude":"137.863417","source_code":"HR0684396020160007","project_name":"-","survey_name":"\u59eb\u5ddd\u5824\u9632\u7b49\u5730\u8cea\u8abf\u67fb\u4f5c\u696d","client_name":"\u56fd\u571f\u4ea4\u901a\u7701\u5317\u9678\u5730\u65b9\u6574\u5099\u5c40\u9ad8\u7530\u6cb3\u5ddd\u56fd\u9053\u4e8b\u52d9\u6240","boring_xml_url":45,"boring_view_url":1,"soilmap_view_url":null,"soiltest_xml_url":0,"soiltest_view_url":0},{"id":245574,"code":"B4KJ201802001-1054","latitude":"36.954278","longitude":"137.863306","source_code":"HR0684396020160008","project_name":"-","survey_name":"\u59eb\u5ddd\u5824\u9632\u7b49\u5730\u8cea\u8abf\u67fb\u4f5c\u696d","client_name":"\u56fd\u571f\u4ea4\u901a\u7701\u5317\u9678\u5730\u65b9\u6574\u5099\u5c40\u9ad8\u7530\u6cb3\u5ddd\u56fd\u9053\u4e8b\u52d9\u6240","boring_xml_url":45,"boring_view_url":1,"soilmap_view_url":null,"soiltest_xml_url":0,"soiltest_view_url":0},{"id":245573,"code":"B4KJ201802001-1053","latitude":"37.019785","longitude":"137.857737","source_code":"HR0484396020290014","project_name":"\u7ba1\u5185\u5824\u9632\u8cea\u7684\u5f37\u5316\u8a73\u7d30\u70b9\u691c\u5730\u8cea\u8abf\u67fb\u305d\u306e4\u696d\u52d9","survey_name":"\u7ba1\u5185\u5824\u9632\u8cea\u7684\u5f37\u5316\u8a73\u7d30\u70b9\u691c\u5730\u8cea\u8abf\u67fb\u305d\u306e4\u696d\u52d9","client_name":"\u56fd\u571f\u4ea4\u901a\u7701 \u5317\u9678\u5730\u65b9\u6574\u5099\u5c40 \u9ad8\u7530\u6cb3\u5ddd\u56fd\u9053\u4e8b\u52d9\u6240","boring_xml_url":45,"boring_view_url":1,"soilmap_view_url":null,"soiltest_xml_url":48,"soiltest_view_url":47},{"id":245572,"code":"B4KJ201802001-1052","latitude":"37.01973","longitude":"137.857737","source_code":"HR0484396020290012","project_name":"\u7ba1\u5185\u5824\u9632\u8cea\u7684\u5f37\u5316\u8a73\u7d30\u70b9\u691c\u5730\u8cea\u8abf\u67fb\u305d\u306e4\u696d\u52d9","survey_name":"\u7ba1\u5185\u5824\u9632\u8cea\u7684\u5f37\u5316\u8a73\u7d30\u70b9\u691c\u5730\u8cea\u8abf\u67fb\u305d\u306e4\u696d\u52d9","client_name":"\u56fd\u571f\u4ea4\u901a\u7701 \u5317\u9678\u5730\u65b9\u6574\u5099\u5c40 \u9ad8\u7530\u6cb3\u5ddd\u56fd\u9053\u4e8b\u52d9\u6240","boring_xml_url":45,"boring_view_url":1,"soilmap_view_url":null,"soiltest_xml_url":48,"soiltest_view_url":47},{"id":245571,"code":"B4KJ201802001-1051","latitude":"37.019674","longitude":"137.857737","source_code":"HR0484396020290013","project_name":"\u7ba1\u5185\u5824\u9632\u8cea\u7684\u5f37\u5316\u8a73\u7d30\u70b9\u691c\u5730\u8cea\u8abf\u67fb\u305d\u306e4\u696d\u52d9","survey_name":"\u7ba1\u5185\u5824\u9632\u8cea\u7684\u5f37\u5316\u8a73\u7d30\u70b9\u691c\u5730\u8cea\u8abf\u67fb\u305d\u306e4\u696d\u52d9","client_name":"\u56fd\u571f\u4ea4\u901a\u7701 \u5317\u9678\u5730\u65b9\u6574\u5099\u5c40 \u9ad8\u7530\u6cb3\u5ddd\u56fd\u9053\u4e8b\u52d9\u6240","boring_xml_url":45,"boring_view_url":1,"soilmap_view_url":null,"soiltest_xml_url":48,"soiltest_view_url":47},{"id":245570,"code":"B4KJ201802001-1050","latitude":"37.013258","longitude":"137.857459","source_code":"HR0484396020290007","project_name":"\u7ba1\u5185\u5824\u9632\u8cea\u7684\u5f37\u5316\u8a73\u7d30\u70b9\u691c\u5730\u8cea\u8abf\u67fb\u305d\u306e4\u696d\u52d9","survey_name":"\u7ba1\u5185\u5824\u9632\u8cea\u7684\u5f37\u5316\u8a73\u7d30\u70b9\u691c\u5730\u8cea\u8abf\u67fb\u305d\u306e4\u696d\u52d9","client_name":"\u56fd\u571f\u4ea4\u901a\u7701 \u5317\u9678\u5730\u65b9\u6574\u5099\u5c40 \u9ad8\u7530\u6cb3\u5ddd\u56fd\u9053\u4e8b\u52d9\u6240","boring_xml_url":45,"boring_view_url":1,"soilmap_view_url":null,"soiltest_xml_url":0,"soiltest_view_url":0},{"id":245569,"code":"B4KJ201802001-1049","latitude":"37.01323","longitude":"137.857459","source_code":"HR0484396020290006","project_name":"\u7ba1\u5185\u5824\u9632\u8cea\u7684\u5f37\u5316\u8a73\u7d30\u70b9\u691c\u5730\u8cea\u8abf\u67fb\u305d\u306e4\u696d\u52d9","survey_name":"\u7ba1\u5185\u5824\u9632\u8cea\u7684\u5f37\u5316\u8a73\u7d30\u70b9\u691c\u5730\u8cea\u8abf\u67fb\u305d\u306e4\u696d\u52d9","client_name":"\u56fd\u571f\u4ea4\u901a\u7701 \u5317\u9678\u5730\u65b9\u6574\u5099\u5c40 \u9ad8\u7530\u6cb3\u5ddd\u56fd\u9053\u4e8b\u52d9\u6240","boring_xml_url":45,"boring_view_url":1,"soilmap_view_url":null,"soiltest_xml_url":48,"soiltest_view_url":47},{"id":245568,"code":"B4KJ201802001-1048","latitude":"37.013203","longitude":"137.857459","source_code":"HR0484396020290008","project_name":"\u7ba1\u5185\u5824\u9632\u8cea\u7684\u5f37\u5316\u8a73\u7d30\u70b9\u691c\u5730\u8cea\u8abf\u67fb\u305d\u306e4\u696d\u52d9","survey_name":"\u7ba1\u5185\u5824\u9632\u8cea\u7684\u5f37\u5316\u8a73\u7d30\u70b9\u691c\u5730\u8cea\u8abf\u67fb\u305d\u306e4\u696d\u52d9","client_name":"\u56fd\u571f\u4ea4\u901a\u7701 \u5317\u9678\u5730\u65b9\u6574\u5099\u5c40 \u9ad8\u7530\u6cb3\u5ddd\u56fd\u9053\u4e8b\u52d9\u6240","boring_xml_url":45,"boring_view_url":1,"soilmap_view_url":null,"soiltest_xml_url":0,"soiltest_view_url":0},{"id":245567,"code":"B4KJ201802001-1047","latitude":"36.887083","longitude":"137.855972","source_code":"HR0984666020410006","project_name":"\u5e73\u621021\u5e74\u5ea6 \u59eb\u5ddd\u6d41\u57df\u5730\u8cea\u8abf\u67fb\u696d\u52d9\u59d4\u8a17","survey_name":"\u5e73\u621021\u5e74\u5ea6 \u59eb\u5ddd\u6d41\u57df\u5730\u8cea\u8abf\u67fb\u696d\u52d9\u59d4\u8a17","client_name":"\u56fd\u571f\u4ea4\u901a\u7701 \u5317\u9678\u5730\u65b9\u6574\u5099\u5c40 \u677e\u672c\u7802\u9632\u4e8b\u52d9\u6240","boring_xml_url":45,"boring_view_url":1,"soilmap_view_url":null,"soiltest_xml_url":0,"soiltest_view_url":0},{"id":245566,"code":"B4KJ201802001-1046","latitude":"36.887361","longitude":"137.855861","source_code":"HR0984666020410005","project_name":"\u5e73\u621021\u5e74\u5ea6 \u59eb\u5ddd\u6d41\u57df\u5730\u8cea\u8abf\u67fb\u696d\u52d9\u59d4\u8a17","survey_name":"\u5e73\u621021\u5e74\u5ea6 \u59eb\u5ddd\u6d41\u57df\u5730\u8cea\u8abf\u67fb\u696d\u52d9\u59d4\u8a17","client_name":"\u56fd\u571f\u4ea4\u901a\u7701 \u5317\u9678\u5730\u65b9\u6574\u5099\u5c40 \u677e\u672c\u7802\u9632\u4e8b\u52d9\u6240","boring_xml_url":45,"boring_view_url":1,"soilmap_view_url":null,"soiltest_xml_url":0,"soiltest_view_url":0},{"id":245565,"code":"B4KJ201802001-1045","latitude":"37.019361","longitude":"137.854333","source_code":"HR0384396029030003","project_name":"\u5e73\u621015\u5e74\u5ea6 \u5730\u8cea\u8abf\u67fb\u4f5c\u696d\u5358\u4fa1\u5951\u7d04\u696d\u52d9","survey_name":"\u59eb\u5ddd\u6cb3\u53e3\u5730\u8cea\u8abf\u67fb","client_name":"\u9ad8\u7530\u6cb3\u5ddd\u56fd\u9053\u4e8b\u52d9\u6240","boring_xml_url":45,"boring_view_url":1,"soilmap_view_url":null,"soiltest_xml_url":48,"soiltest_view_url":47},{"id":245564,"code":"B4KJ201802001-1044","latitude":"37.020119","longitude":"137.850793","source_code":"HR0484396020290004","project_name":"\u7ba1\u5185\u5824\u9632\u8cea\u7684\u5f37\u5316\u8a73\u7d30\u70b9\u691c\u5730\u8cea\u8abf\u67fb\u305d\u306e4\u696d\u52d9","survey_name":"\u7ba1\u5185\u5824\u9632\u8cea\u7684\u5f37\u5316\u8a73\u7d30\u70b9\u691c\u5730\u8cea\u8abf\u67fb\u305d\u306e4\u696d\u52d9","client_name":"\u56fd\u571f\u4ea4\u901a\u7701 \u5317\u9678\u5730\u65b9\u6574\u5099\u5c40 \u9ad8\u7530\u6cb3\u5ddd\u56fd\u9053\u4e8b\u52d9\u6240","boring_xml_url":45,"boring_view_url":1,"soilmap_view_url":null,"soiltest_xml_url":48,"soiltest_view_url":47}]}}