{"header":{"xyz":{"source":[],"mosaic":false},"page":2852,"raw":{"soiltest_result":"0","bbox":"57.598333,109.544722,1.933333,163.806111","page":"2852"},"conditions":{"soiltest_result":0,"north":57.598333,"west":109.544722,"south":1.933333,"east":163.806111},"success":true,"message":""},"data":{"meta":{"total":212844,"page":2852,"pages":7095,"count":30},"values":[{"id":244993,"code":"B4KJ201802001-0473","latitude":"36.132806","longitude":"136.7605","source_code":"HR791830001","project_name":"\u5e73\u621023\u5e74\u5ea6\u751a\u4e4b\u52a9\u8c37\u4e0a\u6d41\u7802\u9632\u5830\u5824\u30dc\u30fc\u30ea\u30f3\u30b0\u8abf\u67fb\u696d\u52d9","survey_name":"\u5e73\u621023\u5e74\u5ea6\u751a\u4e4b\u52a9\u8c37\u4e0a\u6d41\u7802\u9632\u5830\u5824\u30dc\u30fc\u30ea\u30f3\u30b0\u8abf\u67fb\u696d\u52d9","client_name":"\u56fd\u571f\u4ea4\u901a\u7701 \u5317\u9678\u5730\u65b9\u6574\u5099\u5c40 \u91d1\u6ca2\u6cb3\u5ddd\u56fd\u9053\u4e8b\u52d9\u6240  \u6d41\u57df\u5bfe\u7b56\u8ab2","boring_xml_url":38,"boring_view_url":1,"soilmap_view_url":null,"soiltest_xml_url":0,"soiltest_view_url":0},{"id":244992,"code":"B4KJ201802001-0472","latitude":"36.132472","longitude":"136.760083","source_code":"HR791830002","project_name":"\u5e73\u621023\u5e74\u5ea6\u751a\u4e4b\u52a9\u8c37\u4e0a\u6d41\u7802\u9632\u5830\u5824\u30dc\u30fc\u30ea\u30f3\u30b0\u8abf\u67fb\u696d\u52d9","survey_name":"\u5e73\u621023\u5e74\u5ea6\u751a\u4e4b\u52a9\u8c37\u4e0a\u6d41\u7802\u9632\u5830\u5824\u30dc\u30fc\u30ea\u30f3\u30b0\u8abf\u67fb\u696d\u52d9","client_name":"\u56fd\u571f\u4ea4\u901a\u7701 \u5317\u9678\u5730\u65b9\u6574\u5099\u5c40 \u91d1\u6ca2\u6cb3\u5ddd\u56fd\u9053\u4e8b\u52d9\u6240  \u6d41\u57df\u5bfe\u7b56\u8ab2","boring_xml_url":38,"boring_view_url":1,"soilmap_view_url":null,"soiltest_xml_url":0,"soiltest_view_url":0},{"id":244991,"code":"B4KJ201802001-0471","latitude":"36.799194","longitude":"136.755081","source_code":"HR1584857820200916","project_name":"\u4e0d\u660e","survey_name":"\u62bc\u6c34\u30d0\u30a4\u30d1\u30b9\u69cb\u9020\u7269\u57fa\u790e\u8abf\u67fb","client_name":"\u5efa\u8a2d\u7701\u91d1\u6ca2\u5de5\u4e8b\u4e8b\u52d9\u6240\u8abf\u67fb\u4e8c\u8ab2","boring_xml_url":45,"boring_view_url":1,"soilmap_view_url":null,"soiltest_xml_url":0,"soiltest_view_url":0},{"id":244990,"code":"B4KJ201802001-0470","latitude":"36.798721","longitude":"136.754803","source_code":"HR1584857820200917","project_name":"\u4e0d\u660e","survey_name":"\u62bc\u6c34\u30d0\u30a4\u30d1\u30b9\u69cb\u9020\u7269\u57fa\u790e\u8abf\u67fb","client_name":"\u5efa\u8a2d\u7701\u91d1\u6ca2\u5de5\u4e8b\u4e8b\u52d9\u6240\u8abf\u67fb\u4e8c\u8ab2","boring_xml_url":45,"boring_view_url":1,"soilmap_view_url":null,"soiltest_xml_url":0,"soiltest_view_url":0},{"id":244989,"code":"B4KJ201802001-0469","latitude":"36.796944","longitude":"136.753137","source_code":"HR1584857820200918","project_name":"\u4e0d\u660e","survey_name":"\u62bc\u6c34\u30d0\u30a4\u30d1\u30b9\u69cb\u9020\u7269\u57fa\u790e\u8abf\u67fb","client_name":"\u5efa\u8a2d\u7701\u91d1\u6ca2\u5de5\u4e8b\u4e8b\u52d9\u6240\u8abf\u67fb\u4e8c\u8ab2","boring_xml_url":45,"boring_view_url":1,"soilmap_view_url":null,"soiltest_xml_url":48,"soiltest_view_url":47},{"id":244988,"code":"B4KJ201802001-0468","latitude":"36.128611","longitude":"136.755556","source_code":"HR1084506520110003","project_name":"","survey_name":"\u5e73\u621022\u5e74\u5ea6 \u751a\u4e4b\u52a9\u8c37\u5730\u3059\u3079\u308a\u30dc\u30fc\u30ea\u30f3\u30b0\u8abf\u67fb\u4f5c\u696d","client_name":"\u56fd\u571f\u4ea4\u901a\u7701\u5317\u9678\u5730\u65b9\u6574\u5099\u5c40\u91d1\u6ca2\u6cb3\u5ddd\u56fd\u9053\u4e8b\u52d9\u6240","boring_xml_url":45,"boring_view_url":1,"soilmap_view_url":null,"soiltest_xml_url":0,"soiltest_view_url":0},{"id":244987,"code":"B4KJ201802001-0467","latitude":"36.128667","longitude":"136.755528","source_code":"HR1084506520110002","project_name":"","survey_name":"\u5e73\u621022\u5e74\u5ea6 \u751a\u4e4b\u52a9\u8c37\u5730\u3059\u3079\u308a\u30dc\u30fc\u30ea\u30f3\u30b0\u8abf\u67fb\u4f5c\u696d","client_name":"\u56fd\u571f\u4ea4\u901a\u7701\u5317\u9678\u5730\u65b9\u6574\u5099\u5c40\u91d1\u6ca2\u6cb3\u5ddd\u56fd\u9053\u4e8b\u52d9\u6240","boring_xml_url":45,"boring_view_url":1,"soilmap_view_url":null,"soiltest_xml_url":0,"soiltest_view_url":0},{"id":244986,"code":"B4KJ201802001-0466","latitude":"36.131167","longitude":"136.755111","source_code":"HR1184506520080002","project_name":"","survey_name":"\u5e73\u621023\u5e74\u5ea6 \u751a\u4e4b\u52a9\u8c37\u5730\u3059\u3079\u308a\u30dc\u30fc\u30ea\u30f3\u30b0\u8abf\u67fb\u696d\u52d9","client_name":"\u56fd\u571f\u4ea4\u901a\u7701 \u5317\u9678\u5730\u65b9\u6574\u5099\u5c40 \u91d1\u6ca2\u6cb3\u5ddd\u56fd\u9053\u4e8b\u52d9\u6240","boring_xml_url":45,"boring_view_url":1,"soilmap_view_url":null,"soiltest_xml_url":0,"soiltest_view_url":0},{"id":244985,"code":"B4KJ201802001-0465","latitude":"36.131111","longitude":"136.755083","source_code":"HR1184506520080001","project_name":"","survey_name":"\u5e73\u621023\u5e74\u5ea6 \u751a\u4e4b\u52a9\u8c37\u5730\u3059\u3079\u308a\u30dc\u30fc\u30ea\u30f3\u30b0\u8abf\u67fb\u696d\u52d9","client_name":"\u56fd\u571f\u4ea4\u901a\u7701 \u5317\u9678\u5730\u65b9\u6574\u5099\u5c40 \u91d1\u6ca2\u6cb3\u5ddd\u56fd\u9053\u4e8b\u52d9\u6240","boring_xml_url":45,"boring_view_url":1,"soilmap_view_url":null,"soiltest_xml_url":0,"soiltest_view_url":0},{"id":244984,"code":"B4KJ201802001-0464","latitude":"36.795721","longitude":"136.752026","source_code":"HR1584857820200920","project_name":"\u4e0d\u660e","survey_name":"\u62bc\u6c34\u30d0\u30a4\u30d1\u30b9\u69cb\u9020\u7269\u57fa\u790e\u305d\u306e2\u4f5c\u696d","client_name":"\u5efa\u8a2d\u7701\u91d1\u6ca2\u5de5\u4e8b\u4e8b\u52d9\u6240\u8abf\u67fb\u4e8c\u8ab2","boring_xml_url":45,"boring_view_url":1,"soilmap_view_url":null,"soiltest_xml_url":0,"soiltest_view_url":0},{"id":244983,"code":"B4KJ201802001-0463","latitude":"36.244667","longitude":"136.754389","source_code":"HR1184506520160001","project_name":"\u5e73\u621023\u5e74\u5ea6 \u4e2d\u30ce\u5ddd\u4e0b\u6d41\u7b2c2\u53f7\u7802\u9632\u5830\u5824\u59161\u4ef6\u5730\u8cea\u8abf\u67fb\u696d\u52d9","survey_name":"\u5e73\u621023\u5e74\u5ea6 \u4e2d\u30ce\u5ddd\u4e0b\u6d41\u7b2c2\u53f7\u7802\u9632\u5830\u5824\u59161\u4ef6\u5730\u8cea\u8abf\u67fb\u696d\u52d9","client_name":"\u56fd\u571f\u4ea4\u901a\u7701 \u5317\u9678\u5730\u65b9\u6574\u5099\u5c40 \u91d1\u6ca2\u6cb3\u5ddd\u56fd\u9053\u4e8b\u52d9\u6240","boring_xml_url":45,"boring_view_url":1,"soilmap_view_url":null,"soiltest_xml_url":0,"soiltest_view_url":0},{"id":244982,"code":"B4KJ201802001-0462","latitude":"36.244833","longitude":"136.754083","source_code":"HR1184506520160002","project_name":"\u5e73\u621023\u5e74\u5ea6 \u4e2d\u30ce\u5ddd\u4e0b\u6d41\u7b2c2\u53f7\u7802\u9632\u5830\u5824\u59161\u4ef6\u5730\u8cea\u8abf\u67fb\u696d\u52d9","survey_name":"\u5e73\u621023\u5e74\u5ea6 \u4e2d\u30ce\u5ddd\u4e0b\u6d41\u7b2c2\u53f7\u7802\u9632\u5830\u5824\u59161\u4ef6\u5730\u8cea\u8abf\u67fb\u696d\u52d9","client_name":"\u56fd\u571f\u4ea4\u901a\u7701 \u5317\u9678\u5730\u65b9\u6574\u5099\u5c40 \u91d1\u6ca2\u6cb3\u5ddd\u56fd\u9053\u4e8b\u52d9\u6240","boring_xml_url":45,"boring_view_url":1,"soilmap_view_url":null,"soiltest_xml_url":0,"soiltest_view_url":0},{"id":244981,"code":"B4KJ201802001-0461","latitude":"36.128806","longitude":"136.753667","source_code":"HR1084506520110004","project_name":"","survey_name":"\u5e73\u621022\u5e74\u5ea6 \u751a\u4e4b\u52a9\u8c37\u5730\u3059\u3079\u308a\u30dc\u30fc\u30ea\u30f3\u30b0\u8abf\u67fb\u4f5c\u696d","client_name":"\u56fd\u571f\u4ea4\u901a\u7701\u5317\u9678\u5730\u65b9\u6574\u5099\u5c40\u91d1\u6ca2\u6cb3\u5ddd\u56fd\u9053\u4e8b\u52d9\u6240","boring_xml_url":45,"boring_view_url":1,"soilmap_view_url":null,"soiltest_xml_url":0,"soiltest_view_url":0},{"id":244980,"code":"B4KJ201802001-0460","latitude":"36.128861","longitude":"136.753611","source_code":"HR1084506520110001","project_name":"","survey_name":"\u5e73\u621022\u5e74\u5ea6 \u751a\u4e4b\u52a9\u8c37\u5730\u3059\u3079\u308a\u30dc\u30fc\u30ea\u30f3\u30b0\u8abf\u67fb\u4f5c\u696d","client_name":"\u56fd\u571f\u4ea4\u901a\u7701\u5317\u9678\u5730\u65b9\u6574\u5099\u5c40\u91d1\u6ca2\u6cb3\u5ddd\u56fd\u9053\u4e8b\u52d9\u6240","boring_xml_url":45,"boring_view_url":1,"soilmap_view_url":null,"soiltest_xml_url":0,"soiltest_view_url":0},{"id":244979,"code":"B4KJ201802001-0459","latitude":"36.715204","longitude":"136.701755","source_code":"HR1584857820200922","project_name":"\u4e0d\u660e","survey_name":"\u6d25\u5e61\u30fb\u5c0f\u677e\u30d0\u30a4\u30d1\u30b9\u571f\u8cea\u8abf\u67fb","client_name":"\u5efa\u8a2d\u7701\u91d1\u6ca2\u5de5\u4e8b\u4e8b\u52d9\u6240\u8abf\u67fb\u4e8c\u8ab2","boring_xml_url":45,"boring_view_url":1,"soilmap_view_url":null,"soiltest_xml_url":0,"soiltest_view_url":0},{"id":244978,"code":"B4KJ201802001-0458","latitude":"36.714038","longitude":"136.701477","source_code":"HR1584857820200923","project_name":"\u4e0d\u660e","survey_name":"\u69cb\u9020\u7269\u57fa\u790e\u8abf\u67fb(\u68ee\u672c\u5ddd\u3001\u67f3\u6a4b\u5ddd\u3001\u5b87\u30ce\u6c17\u5ddd\u3001\u65e7\u5b87\u30ce\u6c17\u5ddd)","client_name":"\u5efa\u8a2d\u7701\u91d1\u6ca2\u5de5\u4e8b\u4e8b\u52d9\u6240\u8abf\u67fb\u4e8c\u8ab2","boring_xml_url":45,"boring_view_url":1,"soilmap_view_url":null,"soiltest_xml_url":0,"soiltest_view_url":0},{"id":244977,"code":"B4KJ201802001-0457","latitude":"36.279667","longitude":"136.687306","source_code":"HR1184506520160004","project_name":"\u5e73\u621023\u5e74\u5ea6 \u4e2d\u30ce\u5ddd\u4e0b\u6d41\u7b2c2\u53f7\u7802\u9632\u5830\u5824\u59161\u4ef6\u5730\u8cea\u8abf\u67fb\u696d\u52d9","survey_name":"\u5e73\u621023\u5e74\u5ea6 \u4e2d\u30ce\u5ddd\u4e0b\u6d41\u7b2c2\u53f7\u7802\u9632\u5830\u5824\u59161\u4ef6\u5730\u8cea\u8abf\u67fb\u696d\u52d9","client_name":"\u56fd\u571f\u4ea4\u901a\u7701 \u5317\u9678\u5730\u65b9\u6574\u5099\u5c40 \u91d1\u6ca2\u6cb3\u5ddd\u56fd\u9053\u4e8b\u52d9\u6240","boring_xml_url":45,"boring_view_url":1,"soilmap_view_url":null,"soiltest_xml_url":0,"soiltest_view_url":0},{"id":244976,"code":"B4KJ201802001-0456","latitude":"36.279694","longitude":"136.687167","source_code":"HR1184506520160003","project_name":"\u5e73\u621023\u5e74\u5ea6 \u4e2d\u30ce\u5ddd\u4e0b\u6d41\u7b2c2\u53f7\u7802\u9632\u5830\u5824\u59161\u4ef6\u5730\u8cea\u8abf\u67fb\u696d\u52d9","survey_name":"\u5e73\u621023\u5e74\u5ea6 \u4e2d\u30ce\u5ddd\u4e0b\u6d41\u7b2c2\u53f7\u7802\u9632\u5830\u5824\u59161\u4ef6\u5730\u8cea\u8abf\u67fb\u696d\u52d9","client_name":"\u56fd\u571f\u4ea4\u901a\u7701 \u5317\u9678\u5730\u65b9\u6574\u5099\u5c40 \u91d1\u6ca2\u6cb3\u5ddd\u56fd\u9053\u4e8b\u52d9\u6240","boring_xml_url":45,"boring_view_url":1,"soilmap_view_url":null,"soiltest_xml_url":0,"soiltest_view_url":0},{"id":244975,"code":"B4KJ201802001-0455","latitude":"36.279722","longitude":"136.687","source_code":"HR1184506520160005","project_name":"\u5e73\u621023\u5e74\u5ea6 \u4e2d\u30ce\u5ddd\u4e0b\u6d41\u7b2c2\u53f7\u7802\u9632\u5830\u5824\u59161\u4ef6\u5730\u8cea\u8abf\u67fb\u696d\u52d9","survey_name":"\u5e73\u621023\u5e74\u5ea6 \u4e2d\u30ce\u5ddd\u4e0b\u6d41\u7b2c2\u53f7\u7802\u9632\u5830\u5824\u59161\u4ef6\u5730\u8cea\u8abf\u67fb\u696d\u52d9","client_name":"\u56fd\u571f\u4ea4\u901a\u7701 \u5317\u9678\u5730\u65b9\u6574\u5099\u5c40 \u91d1\u6ca2\u6cb3\u5ddd\u56fd\u9053\u4e8b\u52d9\u6240","boring_xml_url":45,"boring_view_url":1,"soilmap_view_url":null,"soiltest_xml_url":0,"soiltest_view_url":0},{"id":244974,"code":"B4KJ201802001-0454","latitude":"36.574665","longitude":"136.660096","source_code":"HR1584857820201021","project_name":"\u4e0d\u660e","survey_name":"\u91d1\u6ca2\u7a0e\u52d9\u7f72\u5e81\u820e\u5730\u76e4\u8abf\u67fb","client_name":"\u5efa\u8a2d\u7701\u91d1\u6ca2\u55b6\u7e55\u5de5\u4e8b\u4e8b\u52d9\u6240","boring_xml_url":45,"boring_view_url":1,"soilmap_view_url":null,"soiltest_xml_url":0,"soiltest_view_url":0},{"id":244973,"code":"B4KJ201802001-0453","latitude":"36.574665","longitude":"136.65954","source_code":"HR1584857820201020","project_name":"\u4e0d\u660e","survey_name":"\u91d1\u6ca2\u7a0e\u52d9\u7f72\u5e81\u820e\u5730\u76e4\u8abf\u67fb","client_name":"\u5efa\u8a2d\u7701\u91d1\u6ca2\u55b6\u7e55\u5de5\u4e8b\u4e8b\u52d9\u6240","boring_xml_url":45,"boring_view_url":1,"soilmap_view_url":null,"soiltest_xml_url":0,"soiltest_view_url":0},{"id":244972,"code":"B4KJ201802001-0452","latitude":"36.574804","longitude":"136.65954","source_code":"HR1584857820201019","project_name":"\u4e0d\u660e","survey_name":"\u91d1\u6ca2\u7a0e\u52d9\u7f72\u5e81\u820e\u5730\u76e4\u8abf\u67fb","client_name":"\u5efa\u8a2d\u7701\u91d1\u6ca2\u55b6\u7e55\u5de5\u4e8b\u4e8b\u52d9\u6240","boring_xml_url":45,"boring_view_url":1,"soilmap_view_url":null,"soiltest_xml_url":0,"soiltest_view_url":0},{"id":244971,"code":"B4KJ201802001-0451","latitude":"36.574887","longitude":"136.659263","source_code":"HR1584857820201018","project_name":"\u4e0d\u660e","survey_name":"\u91d1\u6ca2\u7a0e\u52d9\u7f72\u5e81\u820e\u5730\u76e4\u8abf\u67fb","client_name":"\u5efa\u8a2d\u7701\u91d1\u6ca2\u55b6\u7e55\u5de5\u4e8b\u4e8b\u52d9\u6240","boring_xml_url":45,"boring_view_url":1,"soilmap_view_url":null,"soiltest_xml_url":0,"soiltest_view_url":0},{"id":244970,"code":"B4KJ201802001-0450","latitude":"36.564472","longitude":"136.65593","source_code":"HR1584857820201033","project_name":"\u4e0d\u660e","survey_name":"49-\u91d1\u6ca2\u7b2c2\u5730\u65b9\u5408\u540c\u5e81\u820e\u5730\u8cea\u8abf\u67fb","client_name":"\u5efa\u8a2d\u7701\u91d1\u6ca2\u55b6\u7e55\u5de5\u4e8b\u4e8b\u52d9\u6240","boring_xml_url":45,"boring_view_url":1,"soilmap_view_url":null,"soiltest_xml_url":0,"soiltest_view_url":0},{"id":244969,"code":"B4KJ201802001-0449","latitude":"36.564472","longitude":"136.65593","source_code":"HR1584857820201032","project_name":"\u4e0d\u660e","survey_name":"49-\u91d1\u6ca2\u7b2c2\u5730\u65b9\u5408\u540c\u5e81\u820e\u5730\u76e4\u8abf\u67fb","client_name":"\u5efa\u8a2d\u7701\u91d1\u6ca2\u55b6\u7e55\u5de5\u4e8b\u4e8b\u52d9\u6240","boring_xml_url":45,"boring_view_url":1,"soilmap_view_url":null,"soiltest_xml_url":0,"soiltest_view_url":0},{"id":244968,"code":"B4KJ201802001-0448","latitude":"36.423322","longitude":"136.546498","source_code":"HR1584857820201080","project_name":"\u4e0d\u660e","survey_name":"\u56fd\u9020\u8fb2\u5354\u5009\u5eab\u5730\u76e4\u8abf\u67fb","client_name":"\u5efa\u8a2d\u7701\u91d1\u6ca2\u5de5\u4e8b\u4e8b\u52d9\u6240\u8abf\u67fb\u4e8c\u8ab2","boring_xml_url":45,"boring_view_url":1,"soilmap_view_url":null,"soiltest_xml_url":0,"soiltest_view_url":0},{"id":244967,"code":"B4KJ201802001-0447","latitude":"36.4061","longitude":"136.507891","source_code":"HR1584857820201166","project_name":"\u4e0d\u660e","survey_name":"\u5c0f\u677e\u30d0\u30a4\u30d1\u30b9\u5730\u8cea\u8abf\u67fb","client_name":"\u5efa\u8a2d\u7701\u91d1\u6ca2\u5de5\u4e8b\u4e8b\u52d9\u6240\u8abf\u67fb\u4e8c\u8ab2","boring_xml_url":45,"boring_view_url":1,"soilmap_view_url":null,"soiltest_xml_url":0,"soiltest_view_url":0},{"id":244966,"code":"B4KJ201802001-0446","latitude":"36.406156","longitude":"136.507891","source_code":"HR1584857820201165","project_name":"\u4e0d\u660e","survey_name":"\u5c0f\u677e\u30d0\u30a4\u30d1\u30b9\u5730\u8cea\u8abf\u67fb","client_name":"\u5efa\u8a2d\u7701\u91d1\u6ca2\u5de5\u4e8b\u4e8b\u52d9\u6240\u8abf\u67fb\u4e8c\u8ab2","boring_xml_url":45,"boring_view_url":1,"soilmap_view_url":null,"soiltest_xml_url":0,"soiltest_view_url":0},{"id":244965,"code":"B4KJ201802001-0445","latitude":"36.406239","longitude":"136.507891","source_code":"HR1584857820201164","project_name":"\u4e0d\u660e","survey_name":"\u5c0f\u677e\u30d0\u30a4\u30d1\u30b9\u5730\u8cea\u8abf\u67fb","client_name":"\u5efa\u8a2d\u7701\u91d1\u6ca2\u5de5\u4e8b\u4e8b\u52d9\u6240\u8abf\u67fb\u4e8c\u8ab2","boring_xml_url":45,"boring_view_url":1,"soilmap_view_url":null,"soiltest_xml_url":0,"soiltest_view_url":0},{"id":244964,"code":"B4KJ201802001-0444","latitude":"36.400461","longitude":"136.495115","source_code":"HR1584857820201133","project_name":"\u4e0d\u660e","survey_name":"\u5c0f\u677e\u5e02\u7acb\u897f\u6d77\u4fdd\u80b2\u6240\u65b0\u7bc9\u5de5\u4e8b\u306b\u4f34\u3046\u5730\u8cea\u8abf\u67fb","client_name":"\u5efa\u8a2d\u7701\u91d1\u6ca2\u5de5\u4e8b\u4e8b\u52d9\u6240\u8abf\u67fb\u4e8c\u8ab2","boring_xml_url":45,"boring_view_url":1,"soilmap_view_url":null,"soiltest_xml_url":0,"soiltest_view_url":0}]}}