{"header":{"xyz":{"source":[],"mosaic":false},"page":2863,"raw":{"soiltest_result":"0","bbox":"57.598333,109.544722,1.933333,163.806111","page":"2863"},"conditions":{"soiltest_result":0,"north":57.598333,"west":109.544722,"south":1.933333,"east":163.806111},"success":true,"message":""},"data":{"meta":{"total":212844,"page":2863,"pages":7095,"count":30},"values":[{"id":244663,"code":"B4KJ201802001-0143","latitude":"36.422417","longitude":"137.944694","source_code":"KT200883706020200001","project_name":"H20\u9577\u91ce\u56fd\u9053\u7ba1\u5185\u9632\u707d\u5730\u8cea\u8abf\u67fb(\u305d\u306e2)\u696d\u52d9","survey_name":"H20\u9577\u91ce\u56fd\u9053\u7ba1\u5185\u9632\u707d\u5730\u8cea\u8abf\u67fb(\u305d\u306e2)\u696d\u52d9","client_name":"\u56fd\u571f\u4ea4\u901a\u7701 \u95a2\u6771\u6574\u5099\u5c40 \u9577\u91ce\u56fd\u9053\u4e8b\u52d9\u6240 \u8abf\u67fb\u8ab2","boring_xml_url":47,"boring_view_url":1,"soilmap_view_url":null,"soiltest_xml_url":0,"soiltest_view_url":0},{"id":244662,"code":"B4KJ201802001-0142","latitude":"36.014444","longitude":"138.013889","source_code":"KT200883706020100002","project_name":"H20 \u9577\u91ce\u7ba1\u5185\u8abf\u67fb\u8a2d\u8a08\u652f\u63f4\u696d\u52d9","survey_name":"\u5e73\u621020\u5e74\u5ea6 \u5742\u5ba4\u30c8\u30f3\u30cd\u30eb\u6398\u524a\u6b8b\u571f\u51e6\u7406\u6e2c\u91cf\u30fb\u8abf\u67fb","client_name":"\u56fd\u571f\u4ea4\u901a\u7701 \u95a2\u6771\u5730\u65b9\u6574\u5099\u5c40 \u9577\u91ce\u56fd\u9053\u4e8b\u52d9\u6240","boring_xml_url":47,"boring_view_url":1,"soilmap_view_url":null,"soiltest_xml_url":50,"soiltest_view_url":49},{"id":244661,"code":"B4KJ201802001-0141","latitude":"36.014444","longitude":"138.180556","source_code":"KT200883706020100001","project_name":"H20 \u9577\u91ce\u7ba1\u5185\u8abf\u67fb\u8a2d\u8a08\u652f\u63f4\u696d\u52d9","survey_name":"\u5e73\u621020\u5e74\u5ea6 \u5742\u5ba4\u30c8\u30f3\u30cd\u30eb\u6398\u524a\u6b8b\u571f\u51e6\u7406\u6e2c\u91cf\u30fb\u8abf\u67fb","client_name":"\u56fd\u571f\u4ea4\u901a\u7701 \u95a2\u6771\u5730\u65b9\u6574\u5099\u5c40 \u9577\u91ce\u56fd\u9053\u4e8b\u52d9\u6240","boring_xml_url":47,"boring_view_url":1,"soilmap_view_url":null,"soiltest_xml_url":50,"soiltest_view_url":49},{"id":244660,"code":"B4KJ201802001-0140","latitude":"36.078984","longitude":"138.033024","source_code":"KT200783706020010003","project_name":"H19\u9577\u91ce\u56fd\u9053\u8abf\u67fb\u8a2d\u8a08\u652f\u63f4\u696d\u52d9","survey_name":"H19\u9577\u91ce\u56fd\u9053\u8abf\u67fb\u8a2d\u8a08\u652f\u63f4\u696d\u52d9","client_name":"\u56fd\u571f\u4ea4\u901a\u7701\u95a2\u6771\u5730\u65b9\u6574\u5099\u5c40\u9577\u91ce\u56fd\u9053\u4e8b\u52d9\u6240","boring_xml_url":47,"boring_view_url":1,"soilmap_view_url":null,"soiltest_xml_url":0,"soiltest_view_url":0},{"id":244659,"code":"B4KJ201802001-0139","latitude":"36.078984","longitude":"138.032468","source_code":"KT200783706020010002","project_name":"H19\u9577\u91ce\u56fd\u9053\u8abf\u67fb\u8a2d\u8a08\u652f\u63f4\u696d\u52d9","survey_name":"H19\u9577\u91ce\u56fd\u9053\u8abf\u67fb\u8a2d\u8a08\u652f\u63f4\u696d\u52d9","client_name":"\u56fd\u571f\u4ea4\u901a\u7701\u95a2\u6771\u5730\u65b9\u6574\u5099\u5c40\u9577\u91ce\u56fd\u9053\u4e8b\u52d9\u6240","boring_xml_url":47,"boring_view_url":1,"soilmap_view_url":null,"soiltest_xml_url":0,"soiltest_view_url":0},{"id":244658,"code":"B4KJ201802001-0138","latitude":"36.076111","longitude":"138.035833","source_code":"KT200783706020010001","project_name":"H19\u9577\u91ce\u56fd\u9053\u8abf\u67fb\u8a2d\u8a08\u652f\u63f4\u696d\u52d9","survey_name":"H19\u9577\u91ce\u56fd\u9053\u8abf\u67fb\u8a2d\u8a08\u652f\u63f4\u696d\u52d9","client_name":"\u56fd\u571f\u4ea4\u901a\u7701\u95a2\u6771\u5730\u65b9\u6574\u5099\u5c40\u9577\u91ce\u56fd\u9053\u4e8b\u52d9\u6240","boring_xml_url":47,"boring_view_url":1,"soilmap_view_url":null,"soiltest_xml_url":0,"soiltest_view_url":0},{"id":244657,"code":"B4KJ201802001-0137","latitude":"35.960472","longitude":"140.132611","source_code":"KT200883344820030006","project_name":"\u725b\u4e45\u5730\u533a\u5730\u8cea\u8abf\u67fb20K22","survey_name":"\u725b\u4e45\u5730\u533a\u5730\u8cea\u8abf\u67fb20K22","client_name":"\u56fd\u571f\u4ea4\u901a\u7701\u95a2\u6771\u5730\u65b9\u6574\u5099\u5c40\u5e38\u7dcf\u56fd\u9053\u4e8b\u52d9\u6240","boring_xml_url":47,"boring_view_url":1,"soilmap_view_url":null,"soiltest_xml_url":50,"soiltest_view_url":49},{"id":244656,"code":"B4KJ201802001-0136","latitude":"35.958861","longitude":"140.135056","source_code":"KT200883344820030005","project_name":"\u725b\u4e45\u5730\u533a\u5730\u8cea\u8abf\u67fb20K22","survey_name":"\u725b\u4e45\u5730\u533a\u5730\u8cea\u8abf\u67fb20K22","client_name":"\u56fd\u571f\u4ea4\u901a\u7701\u95a2\u6771\u5730\u65b9\u6574\u5099\u5c40\u5e38\u7dcf\u56fd\u9053\u4e8b\u52d9\u6240","boring_xml_url":47,"boring_view_url":1,"soilmap_view_url":null,"soiltest_xml_url":50,"soiltest_view_url":49},{"id":244655,"code":"B4KJ201802001-0135","latitude":"35.958056","longitude":"140.135833","source_code":"KT200883344820030004","project_name":"\u725b\u4e45\u5730\u533a\u5730\u8cea\u8abf\u67fb20K22","survey_name":"\u725b\u4e45\u5730\u533a\u5730\u8cea\u8abf\u67fb20K22","client_name":"\u56fd\u571f\u4ea4\u901a\u7701\u95a2\u6771\u5730\u65b9\u6574\u5099\u5c40\u5e38\u7dcf\u56fd\u9053\u4e8b\u52d9\u6240","boring_xml_url":47,"boring_view_url":1,"soilmap_view_url":null,"soiltest_xml_url":50,"soiltest_view_url":49},{"id":244654,"code":"B4KJ201802001-0134","latitude":"35.959821","longitude":"140.133667","source_code":"KT200883344820030003","project_name":"\u725b\u4e45\u5730\u533a\u5730\u8cea\u8abf\u67fb20K22","survey_name":"\u725b\u4e45\u5730\u533a\u5730\u8cea\u8abf\u67fb20K22","client_name":"\u56fd\u571f\u4ea4\u901a\u7701\u95a2\u6771\u5730\u65b9\u6574\u5099\u5c40\u5e38\u7dcf\u56fd\u9053\u4e8b\u52d9\u6240","boring_xml_url":47,"boring_view_url":1,"soilmap_view_url":null,"soiltest_xml_url":50,"soiltest_view_url":49},{"id":244653,"code":"B4KJ201802001-0133","latitude":"35.954639","longitude":"140.137722","source_code":"KT200883344820030002","project_name":"\u725b\u4e45\u5730\u533a\u5730\u8cea\u8abf\u67fb20K22","survey_name":"\u725b\u4e45\u5730\u533a\u5730\u8cea\u8abf\u67fb20K22","client_name":"\u56fd\u571f\u4ea4\u901a\u7701\u95a2\u6771\u5730\u65b9\u6574\u5099\u5c40\u5e38\u7dcf\u56fd\u9053\u4e8b\u52d9\u6240","boring_xml_url":47,"boring_view_url":1,"soilmap_view_url":null,"soiltest_xml_url":50,"soiltest_view_url":49},{"id":244652,"code":"B4KJ201802001-0132","latitude":"35.953194","longitude":"140.138","source_code":"KT200883344820030001","project_name":"\u725b\u4e45\u5730\u533a\u5730\u8cea\u8abf\u67fb20K22","survey_name":"\u725b\u4e45\u5730\u533a\u5730\u8cea\u8abf\u67fb20K22","client_name":"\u56fd\u571f\u4ea4\u901a\u7701\u95a2\u6771\u5730\u65b9\u6574\u5099\u5c40\u5e38\u7dcf\u56fd\u9053\u4e8b\u52d9\u6240","boring_xml_url":47,"boring_view_url":1,"soilmap_view_url":null,"soiltest_xml_url":50,"soiltest_view_url":49},{"id":244651,"code":"B4KJ201802001-0131","latitude":"36.389722","longitude":"139.248611","source_code":"KT200683406020080003","project_name":"","survey_name":"\u524d\u6a4b\u7b20\u61f8\u9053\u8def\u5730\u8cea\u8abf\u67fb","client_name":"\u56fd\u571f\u4ea4\u901a\u7701\u95a2\u6771\u5730\u65b9\u6574\u5099\u5c40 \u9ad8\u5d0e\u6cb3\u5ddd\u56fd\u9053\u4e8b\u52d9\u6240","boring_xml_url":47,"boring_view_url":1,"soilmap_view_url":null,"soiltest_xml_url":0,"soiltest_view_url":0},{"id":244650,"code":"B4KJ201802001-0130","latitude":"36.384444","longitude":"139.226389","source_code":"KT200683406020080002","project_name":"","survey_name":"\u524d\u6a4b\u7b20\u61f8\u9053\u8def\u5730\u8cea\u8abf\u67fb","client_name":"\u56fd\u571f\u4ea4\u901a\u7701\u95a2\u6771\u5730\u65b9\u6574\u5099\u5c40 \u9ad8\u5d0e\u6cb3\u5ddd\u56fd\u9053\u4e8b\u52d9\u6240","boring_xml_url":47,"boring_view_url":1,"soilmap_view_url":null,"soiltest_xml_url":0,"soiltest_view_url":0},{"id":244649,"code":"B4KJ201802001-0129","latitude":"36.385","longitude":"139.221667","source_code":"KT200683406020080001","project_name":"","survey_name":"\u524d\u6a4b\u7b20\u61f8\u9053\u8def\u5730\u8cea\u8abf\u67fb","client_name":"\u56fd\u9053\u4ea4\u901a\u7701 \u9ad8\u5d0e\u6cb3\u5ddd\u56fd\u9053\u4e8b\u52d9\u6240","boring_xml_url":47,"boring_view_url":1,"soilmap_view_url":null,"soiltest_xml_url":0,"soiltest_view_url":0},{"id":244648,"code":"B4KJ201802001-0128","latitude":"36.017056","longitude":"139.5475","source_code":"KT200783476120100025","project_name":"","survey_name":"\u5e73\u621019\u5e74\u5ea6\u570f\u592e\u9053\u6876\u5ddd\u30fb\u5317\u672c\u5730\u533a\u5730\u4e0b\u6c34\u8abf\u67fb\u305d\u306e1","client_name":"\u56fd\u571f\u4ea4\u901a\u7701\u95a2\u6771\u5730\u65b9\u6574\u5099\u5c40\u5927\u5bae\u56fd\u9053\u4e8b\u52d9\u6240","boring_xml_url":47,"boring_view_url":1,"soilmap_view_url":null,"soiltest_xml_url":50,"soiltest_view_url":49},{"id":244647,"code":"B4KJ201802001-0127","latitude":"36.01325","longitude":"139.548722","source_code":"KT200783476120100024","project_name":"","survey_name":"\u5e73\u621019\u5e74\u5ea6\u570f\u592e\u9053\u6876\u5ddd\u30fb\u5317\u672c\u5730\u533a\u5730\u4e0b\u6c34\u8abf\u67fb\u305d\u306e1","client_name":"\u56fd\u571f\u4ea4\u901a\u7701\u95a2\u6771\u5730\u65b9\u6574\u5099\u5c40\u5927\u5bae\u56fd\u9053\u4e8b\u52d9\u6240","boring_xml_url":47,"boring_view_url":1,"soilmap_view_url":null,"soiltest_xml_url":50,"soiltest_view_url":49},{"id":244646,"code":"B4KJ201802001-0126","latitude":"36.011333","longitude":"139.55225","source_code":"KT200783476120100023","project_name":"","survey_name":"\u5e73\u621019\u5e74\u5ea6\u570f\u592e\u9053\u6876\u5ddd\u30fb\u5317\u672c\u5730\u533a\u5730\u4e0b\u6c34\u8abf\u67fb\u305d\u306e1","client_name":"\u56fd\u571f\u4ea4\u901a\u7701\u95a2\u6771\u5730\u65b9\u6574\u5099\u5c40\u5927\u5bae\u56fd\u9053\u4e8b\u52d9\u6240","boring_xml_url":47,"boring_view_url":1,"soilmap_view_url":null,"soiltest_xml_url":50,"soiltest_view_url":49},{"id":244645,"code":"B4KJ201802001-0125","latitude":"36.009972","longitude":"139.5545","source_code":"KT200783476120100022","project_name":"","survey_name":"\u5e73\u621019\u5e74\u5ea6\u570f\u592e\u9053\u6876\u5ddd\u30fb\u5317\u672c\u5730\u533a\u5730\u4e0b\u6c34\u8abf\u67fb\u305d\u306e1","client_name":"\u56fd\u571f\u4ea4\u901a\u7701\u95a2\u6771\u5730\u65b9\u6574\u5099\u5c40\u5927\u5bae\u56fd\u9053\u4e8b\u52d9\u6240","boring_xml_url":47,"boring_view_url":1,"soilmap_view_url":null,"soiltest_xml_url":50,"soiltest_view_url":49},{"id":244644,"code":"B4KJ201802001-0124","latitude":"36.015333","longitude":"139.54425","source_code":"KT200783476120100021","project_name":"","survey_name":"\u5e73\u621019\u5e74\u5ea6\u570f\u592e\u9053\u6876\u5ddd\u30fb\u5317\u672c\u5730\u533a\u5730\u4e0b\u6c34\u8abf\u67fb\u305d\u306e1","client_name":"\u56fd\u571f\u4ea4\u901a\u7701\u95a2\u6771\u5730\u65b9\u6574\u5099\u5c40\u5927\u5bae\u56fd\u9053\u4e8b\u52d9\u6240","boring_xml_url":47,"boring_view_url":1,"soilmap_view_url":null,"soiltest_xml_url":50,"soiltest_view_url":49},{"id":244643,"code":"B4KJ201802001-0123","latitude":"36.012194","longitude":"139.545583","source_code":"KT200783476120100020","project_name":"","survey_name":"\u5e73\u621019\u5e74\u5ea6\u570f\u592e\u9053\u6876\u5ddd\u30fb\u5317\u672c\u5730\u533a\u5730\u4e0b\u6c34\u8abf\u67fb\u305d\u306e1","client_name":"\u56fd\u571f\u4ea4\u901a\u7701\u95a2\u6771\u5730\u65b9\u6574\u5099\u5c40\u5927\u5bae\u56fd\u9053\u4e8b\u52d9\u6240","boring_xml_url":47,"boring_view_url":1,"soilmap_view_url":null,"soiltest_xml_url":50,"soiltest_view_url":49},{"id":244642,"code":"B4KJ201802001-0122","latitude":"36.009111","longitude":"139.547028","source_code":"KT200783476120100019","project_name":"","survey_name":"\u5e73\u621019\u5e74\u5ea6\u570f\u592e\u9053\u6876\u5ddd\u30fb\u5317\u672c\u5730\u533a\u5730\u4e0b\u6c34\u8abf\u67fb\u305d\u306e1","client_name":"\u56fd\u571f\u4ea4\u901a\u7701\u95a2\u6771\u5730\u65b9\u6574\u5099\u5c40\u5927\u5bae\u56fd\u9053\u4e8b\u52d9\u6240","boring_xml_url":47,"boring_view_url":1,"soilmap_view_url":null,"soiltest_xml_url":50,"soiltest_view_url":49},{"id":244641,"code":"B4KJ201802001-0121","latitude":"36.005972","longitude":"139.54525","source_code":"KT200783476120100018","project_name":"","survey_name":"\u5e73\u621019\u5e74\u5ea6\u570f\u592e\u9053\u6876\u5ddd\u30fb\u5317\u672c\u5730\u533a\u5730\u4e0b\u6c34\u8abf\u67fb\u305d\u306e1","client_name":"\u56fd\u571f\u4ea4\u901a\u7701\u95a2\u6771\u5730\u65b9\u6574\u5099\u5c40\u5927\u5bae\u56fd\u9053\u4e8b\u52d9\u6240","boring_xml_url":47,"boring_view_url":1,"soilmap_view_url":null,"soiltest_xml_url":50,"soiltest_view_url":49},{"id":244640,"code":"B4KJ201802001-0120","latitude":"36.016333","longitude":"139.541806","source_code":"KT200783476120100017","project_name":"","survey_name":"\u5e73\u621019\u5e74\u5ea6\u570f\u592e\u9053\u6876\u5ddd\u30fb\u5317\u672c\u5730\u533a\u5730\u4e0b\u6c34\u8abf\u67fb\u305d\u306e1","client_name":"\u56fd\u571f\u4ea4\u901a\u7701\u95a2\u6771\u5730\u65b9\u6574\u5099\u5c40\u5927\u5bae\u56fd\u9053\u4e8b\u52d9\u6240","boring_xml_url":47,"boring_view_url":1,"soilmap_view_url":null,"soiltest_xml_url":50,"soiltest_view_url":49},{"id":244639,"code":"B4KJ201802001-0119","latitude":"36.012333","longitude":"139.540028","source_code":"KT200783476120100016","project_name":"","survey_name":"\u5e73\u621019\u5e74\u5ea6\u570f\u592e\u9053\u6876\u5ddd\u30fb\u5317\u672c\u5730\u533a\u5730\u4e0b\u6c34\u8abf\u67fb\u305d\u306e1","client_name":"\u56fd\u571f\u4ea4\u901a\u7701\u95a2\u6771\u5730\u65b9\u6574\u5099\u5c40\u5927\u5bae\u56fd\u9053\u4e8b\u52d9\u6240","boring_xml_url":47,"boring_view_url":1,"soilmap_view_url":null,"soiltest_xml_url":50,"soiltest_view_url":49},{"id":244638,"code":"B4KJ201802001-0118","latitude":"36.008917","longitude":"139.538611","source_code":"KT200783476120100015","project_name":"","survey_name":"\u5e73\u621019\u5e74\u5ea6\u570f\u592e\u9053\u6876\u5ddd\u30fb\u5317\u672c\u5730\u533a\u5730\u4e0b\u6c34\u8abf\u67fb\u305d\u306e1","client_name":"\u56fd\u571f\u4ea4\u901a\u7701\u95a2\u6771\u5730\u65b9\u6574\u5099\u5c40\u5927\u5bae\u56fd\u9053\u4e8b\u52d9\u6240","boring_xml_url":47,"boring_view_url":1,"soilmap_view_url":null,"soiltest_xml_url":50,"soiltest_view_url":49},{"id":244637,"code":"B4KJ201802001-0117","latitude":"36.005944","longitude":"139.539861","source_code":"KT200783476120100014","project_name":"","survey_name":"\u5e73\u621019\u5e74\u5ea6\u570f\u592e\u9053\u6876\u5ddd\u30fb\u5317\u672c\u5730\u533a\u5730\u4e0b\u6c34\u8abf\u67fb\u305d\u306e1","client_name":"\u56fd\u571f\u4ea4\u901a\u7701\u95a2\u6771\u5730\u65b9\u6574\u5099\u5c40\u5927\u5bae\u56fd\u9053\u4e8b\u52d9\u6240","boring_xml_url":47,"boring_view_url":1,"soilmap_view_url":null,"soiltest_xml_url":50,"soiltest_view_url":49},{"id":244636,"code":"B4KJ201802001-0116","latitude":"36.011194","longitude":"139.547806","source_code":"KT200783476120100013","project_name":"","survey_name":"\u5e73\u621019\u5e74\u5ea6\u570f\u592e\u9053\u6876\u5ddd\u30fb\u5317\u672c\u5730\u533a\u5730\u4e0b\u6c34\u8abf\u67fb\u305d\u306e1","client_name":"\u56fd\u571f\u4ea4\u901a\u7701\u95a2\u6771\u5730\u65b9\u6574\u5099\u5c40\u5927\u5bae\u56fd\u9053\u4e8b\u52d9\u6240","boring_xml_url":47,"boring_view_url":1,"soilmap_view_url":null,"soiltest_xml_url":0,"soiltest_view_url":0},{"id":244635,"code":"B4KJ201802001-0115","latitude":"36.011083","longitude":"139.547056","source_code":"KT200783476120100012","project_name":"","survey_name":"\u5e73\u621019\u5e74\u5ea6\u570f\u592e\u9053\u6876\u5ddd\u30fb\u5317\u672c\u5730\u533a\u5730\u4e0b\u6c34\u8abf\u67fb\u305d\u306e1","client_name":"\u56fd\u571f\u4ea4\u901a\u7701\u95a2\u6771\u5730\u65b9\u6574\u5099\u5c40\u5927\u5bae\u56fd\u9053\u4e8b\u52d9\u6240","boring_xml_url":47,"boring_view_url":1,"soilmap_view_url":null,"soiltest_xml_url":50,"soiltest_view_url":49},{"id":244634,"code":"B4KJ201802001-0114","latitude":"36.010667","longitude":"139.537417","source_code":"KT200783476120100011","project_name":"","survey_name":"\u5e73\u621019\u5e74\u5ea6\u570f\u592e\u9053\u6876\u5ddd\u30fb\u5317\u672c\u5730\u533a\u5730\u4e0b\u6c34\u8abf\u67fb\u305d\u306e1","client_name":"\u56fd\u571f\u4ea4\u901a\u7701\u95a2\u6771\u5730\u65b9\u6574\u5099\u5c40\u5927\u5bae\u56fd\u9053\u4e8b\u52d9\u6240","boring_xml_url":47,"boring_view_url":1,"soilmap_view_url":null,"soiltest_xml_url":0,"soiltest_view_url":0}]}}