{"header":{"xyz":{"source":[],"mosaic":false},"page":2868,"raw":{"soiltest_result":"0","bbox":"57.598333,109.544722,1.933333,163.806111","page":"2868"},"conditions":{"soiltest_result":0,"north":57.598333,"west":109.544722,"south":1.933333,"east":163.806111},"success":true,"message":""},"data":{"meta":{"total":212844,"page":2868,"pages":7095,"count":30},"values":[{"id":244513,"code":"B4KJ201802000-9993","latitude":"35.693889","longitude":"139.358056","source_code":"KT200583606020670021","project_name":"","survey_name":"\u591a\u6469\u5ddd\u6cb3\u9053\u5730\u8cea\u8abf\u67fb\u696d\u52d9","client_name":"\u56fd\u571f\u4ea4\u901a\u7701\u95a2\u6771\u5730\u65b9\u6574\u5099\u5c40\u4eac\u6d5c\u6cb3\u5ddd\u4e8b\u52d9\u6240","boring_xml_url":47,"boring_view_url":1,"soilmap_view_url":null,"soiltest_xml_url":50,"soiltest_view_url":49},{"id":244512,"code":"B4KJ201802000-9992","latitude":"35.695556","longitude":"139.357778","source_code":"KT200583606020670020","project_name":"","survey_name":"\u591a\u6469\u5ddd\u6cb3\u9053\u5730\u8cea\u8abf\u67fb\u696d\u52d9","client_name":"\u56fd\u571f\u4ea4\u901a\u7701\u95a2\u6771\u5730\u65b9\u6574\u5099\u5c40\u4eac\u6d5c\u6cb3\u5ddd\u4e8b\u52d9\u6240","boring_xml_url":47,"boring_view_url":1,"soilmap_view_url":null,"soiltest_xml_url":50,"soiltest_view_url":49},{"id":244511,"code":"B4KJ201802000-9991","latitude":"35.694167","longitude":"139.358889","source_code":"KT200583606020670019","project_name":"","survey_name":"\u591a\u6469\u5ddd\u6cb3\u9053\u5730\u8cea\u8abf\u67fb\u696d\u52d9","client_name":"\u56fd\u571f\u4ea4\u901a\u7701\u95a2\u6771\u5730\u65b9\u6574\u5099\u5c40\u4eac\u6d5c\u6cb3\u5ddd\u4e8b\u52d9\u6240","boring_xml_url":47,"boring_view_url":1,"soilmap_view_url":null,"soiltest_xml_url":50,"soiltest_view_url":49},{"id":244510,"code":"B4KJ201802000-9990","latitude":"35.651667","longitude":"139.470278","source_code":"KT200583606020670018","project_name":"","survey_name":"\u591a\u6469\u5ddd\u6cb3\u9053\u5730\u8cea\u8abf\u67fb\u696d\u52d9","client_name":"\u56fd\u571f\u4ea4\u901a\u7701\u95a2\u6771\u5730\u65b9\u6574\u5099\u5c40\u4eac\u6d5c\u6cb3\u5ddd\u4e8b\u52d9\u6240","boring_xml_url":47,"boring_view_url":1,"soilmap_view_url":null,"soiltest_xml_url":50,"soiltest_view_url":49},{"id":244509,"code":"B4KJ201802000-9989","latitude":"35.651389","longitude":"139.474167","source_code":"KT200583606020670017","project_name":"","survey_name":"\u591a\u6469\u5ddd\u6cb3\u9053\u5730\u8cea\u8abf\u67fb\u696d\u52d9","client_name":"\u56fd\u571f\u4ea4\u901a\u7701\u95a2\u6771\u5730\u65b9\u6574\u5099\u5c40\u4eac\u6d5c\u6cb3\u5ddd\u4e8b\u52d9\u6240","boring_xml_url":47,"boring_view_url":1,"soilmap_view_url":null,"soiltest_xml_url":50,"soiltest_view_url":49},{"id":244508,"code":"B4KJ201802000-9988","latitude":"35.652778","longitude":"139.475556","source_code":"KT200583606020670016","project_name":"","survey_name":"\u591a\u6469\u5ddd\u6cb3\u9053\u5730\u8cea\u8abf\u67fb\u696d\u52d9","client_name":"\u56fd\u571f\u4ea4\u901a\u7701\u95a2\u6771\u5730\u65b9\u6574\u5099\u5c40\u4eac\u6d5c\u6cb3\u5ddd\u4e8b\u52d9\u6240","boring_xml_url":47,"boring_view_url":1,"soilmap_view_url":null,"soiltest_xml_url":50,"soiltest_view_url":49},{"id":244507,"code":"B4KJ201802000-9987","latitude":"35.650278","longitude":"139.478333","source_code":"KT200583606020670015","project_name":"","survey_name":"\u591a\u6469\u5ddd\u6cb3\u9053\u5730\u8cea\u8abf\u67fb\u696d\u52d9","client_name":"\u56fd\u571f\u4ea4\u901a\u7701\u95a2\u6771\u5730\u65b9\u6574\u5099\u5c40\u4eac\u6d5c\u6cb3\u5ddd\u4e8b\u52d9\u6240","boring_xml_url":47,"boring_view_url":1,"soilmap_view_url":null,"soiltest_xml_url":50,"soiltest_view_url":49},{"id":244506,"code":"B4KJ201802000-9986","latitude":"35.651944","longitude":"139.477778","source_code":"KT200583606020670014","project_name":"","survey_name":"\u591a\u6469\u5ddd\u6cb3\u9053\u5730\u8cea\u8abf\u67fb\u696d\u52d9","client_name":"\u56fd\u571f\u4ea4\u901a\u7701\u95a2\u6771\u5730\u65b9\u6574\u5099\u5c40\u4eac\u6d5c\u6cb3\u5ddd\u4e8b\u52d9\u6240","boring_xml_url":47,"boring_view_url":1,"soilmap_view_url":null,"soiltest_xml_url":50,"soiltest_view_url":49},{"id":244505,"code":"B4KJ201802000-9985","latitude":"35.653056","longitude":"139.477222","source_code":"KT200583606020670013","project_name":"","survey_name":"\u591a\u6469\u5ddd\u6cb3\u9053\u5730\u8cea\u8abf\u67fb\u696d\u52d9","client_name":"\u56fd\u571f\u4ea4\u901a\u7701\u95a2\u6771\u5730\u65b9\u6574\u5099\u5c40\u4eac\u6d5c\u6cb3\u5ddd\u4e8b\u52d9\u6240","boring_xml_url":47,"boring_view_url":1,"soilmap_view_url":null,"soiltest_xml_url":50,"soiltest_view_url":49},{"id":244504,"code":"B4KJ201802000-9984","latitude":"35.653333","longitude":"139.478056","source_code":"KT200583606020670012","project_name":"","survey_name":"\u591a\u6469\u5ddd\u6cb3\u9053\u5730\u8cea\u8abf\u67fb\u696d\u52d9","client_name":"\u56fd\u571f\u4ea4\u901a\u7701\u95a2\u6771\u5730\u65b9\u6574\u5099\u5c40\u4eac\u6d5c\u6cb3\u5ddd\u4e8b\u52d9\u6240","boring_xml_url":47,"boring_view_url":1,"soilmap_view_url":null,"soiltest_xml_url":50,"soiltest_view_url":49},{"id":244503,"code":"B4KJ201802000-9983","latitude":"35.653056","longitude":"139.479722","source_code":"KT200583606020670011","project_name":"","survey_name":"\u591a\u6469\u5ddd\u6cb3\u9053\u5730\u8cea\u8abf\u67fb\u696d\u52d9","client_name":"\u56fd\u571f\u4ea4\u901a\u7701\u95a2\u6771\u5730\u65b9\u6574\u5099\u5c40\u4eac\u6d5c\u6cb3\u5ddd\u4e8b\u52d9\u6240","boring_xml_url":47,"boring_view_url":1,"soilmap_view_url":null,"soiltest_xml_url":50,"soiltest_view_url":49},{"id":244502,"code":"B4KJ201802000-9982","latitude":"35.635278","longitude":"139.544167","source_code":"KT200583606020670010","project_name":"","survey_name":"\u591a\u6469\u5ddd\u6cb3\u9053\u5730\u8cea\u8abf\u67fb\u696d\u52d9","client_name":"\u56fd\u571f\u4ea4\u901a\u7701\u95a2\u6771\u5730\u65b9\u6574\u5099\u5c40\u4eac\u6d5c\u6cb3\u5ddd\u4e8b\u52d9\u6240","boring_xml_url":47,"boring_view_url":1,"soilmap_view_url":null,"soiltest_xml_url":50,"soiltest_view_url":49},{"id":244501,"code":"B4KJ201802000-9981","latitude":"35.638889","longitude":"139.545833","source_code":"KT200583606020670009","project_name":"","survey_name":"\u591a\u6469\u5ddd\u6cb3\u9053\u5730\u8cea\u8abf\u67fb\u696d\u52d9","client_name":"\u56fd\u571f\u4ea4\u901a\u7701\u95a2\u6771\u5730\u65b9\u6574\u5099\u5c40\u4eac\u6d5c\u6cb3\u5ddd\u4e8b\u52d9\u6240","boring_xml_url":47,"boring_view_url":1,"soilmap_view_url":null,"soiltest_xml_url":50,"soiltest_view_url":49},{"id":244500,"code":"B4KJ201802000-9980","latitude":"35.639167","longitude":"139.536944","source_code":"KT200583606020670008","project_name":"","survey_name":"\u591a\u6469\u5ddd\u6cb3\u9053\u5730\u8cea\u8abf\u67fb\u696d\u52d9","client_name":"\u56fd\u571f\u4ea4\u901a\u7701\u95a2\u6771\u5730\u65b9\u6574\u5099\u5c40\u4eac\u6d5c\u6cb3\u5ddd\u4e8b\u52d9\u6240","boring_xml_url":47,"boring_view_url":1,"soilmap_view_url":null,"soiltest_xml_url":50,"soiltest_view_url":49},{"id":244499,"code":"B4KJ201802000-9979","latitude":"35.636389","longitude":"139.540556","source_code":"KT200583606020670007","project_name":"","survey_name":"\u591a\u6469\u5ddd\u6cb3\u9053\u5730\u8cea\u8abf\u67fb\u696d\u52d9","client_name":"\u56fd\u571f\u4ea4\u901a\u7701\u95a2\u6771\u5730\u65b9\u6574\u5099\u5c40\u4eac\u6d5c\u6cb3\u5ddd\u4e8b\u52d9\u6240","boring_xml_url":47,"boring_view_url":1,"soilmap_view_url":null,"soiltest_xml_url":50,"soiltest_view_url":49},{"id":244498,"code":"B4KJ201802000-9978","latitude":"35.639444","longitude":"139.544444","source_code":"KT200583606020670006","project_name":"","survey_name":"\u591a\u6469\u5ddd\u6cb3\u9053\u5730\u8cea\u8abf\u67fb\u696d\u52d9","client_name":"\u56fd\u571f\u4ea4\u901a\u7701\u95a2\u6771\u5730\u65b9\u6574\u5099\u5c40\u4eac\u6d5c\u6cb3\u5ddd\u4e8b\u52d9\u6240","boring_xml_url":47,"boring_view_url":1,"soilmap_view_url":null,"soiltest_xml_url":50,"soiltest_view_url":49},{"id":244497,"code":"B4KJ201802000-9977","latitude":"35.637778","longitude":"139.544722","source_code":"KT200583606020670005","project_name":"","survey_name":"\u591a\u6469\u5ddd\u6cb3\u9053\u5730\u8cea\u8abf\u67fb\u696d\u52d9","client_name":"\u56fd\u571f\u4ea4\u901a\u7701\u95a2\u6771\u5730\u65b9\u6574\u5099\u5c40\u4eac\u6d5c\u6cb3\u5ddd\u4e8b\u52d9\u6240","boring_xml_url":47,"boring_view_url":1,"soilmap_view_url":null,"soiltest_xml_url":50,"soiltest_view_url":49},{"id":244496,"code":"B4KJ201802000-9976","latitude":"35.635833","longitude":"139.542778","source_code":"KT200583606020670004","project_name":"","survey_name":"\u591a\u6469\u5ddd\u6cb3\u9053\u5730\u8cea\u8abf\u67fb\u696d\u52d9","client_name":"\u56fd\u571f\u4ea4\u901a\u7701\u95a2\u6771\u5730\u65b9\u6574\u5099\u5c40\u4eac\u6d5c\u6cb3\u5ddd\u4e8b\u52d9\u6240","boring_xml_url":47,"boring_view_url":1,"soilmap_view_url":null,"soiltest_xml_url":50,"soiltest_view_url":49},{"id":244495,"code":"B4KJ201802000-9975","latitude":"35.638611","longitude":"139.546389","source_code":"KT200583606020670003","project_name":"","survey_name":"\u591a\u6469\u5ddd\u6cb3\u9053\u5730\u8cea\u8abf\u67fb\u696d\u52d9","client_name":"\u56fd\u571f\u4ea4\u901a\u7701\u95a2\u6771\u5730\u65b9\u6574\u5099\u5c40\u4eac\u6d5c\u6cb3\u5ddd\u4e8b\u52d9\u6240","boring_xml_url":47,"boring_view_url":1,"soilmap_view_url":null,"soiltest_xml_url":50,"soiltest_view_url":49},{"id":244494,"code":"B4KJ201802000-9974","latitude":"35.635278","longitude":"139.544722","source_code":"KT200583606020670002","project_name":"","survey_name":"\u591a\u6469\u5ddd\u6cb3\u9053\u5730\u8cea\u8abf\u67fb\u696d\u52d9","client_name":"\u56fd\u571f\u4ea4\u901a\u7701\u95a2\u6771\u5730\u65b9\u6574\u5099\u5c40\u4eac\u6d5c\u6cb3\u5ddd\u4e8b\u52d9\u6240","boring_xml_url":47,"boring_view_url":1,"soilmap_view_url":null,"soiltest_xml_url":50,"soiltest_view_url":49},{"id":244493,"code":"B4KJ201802000-9973","latitude":"35.634722","longitude":"139.547778","source_code":"KT200583606020670001","project_name":"","survey_name":"\u591a\u6469\u5ddd\u6cb3\u9053\u5730\u8cea\u8abf\u67fb\u696d\u52d9","client_name":"\u56fd\u571f\u4ea4\u901a\u7701\u95a2\u6771\u5730\u65b9\u6574\u5099\u5c40\u4eac\u6d5c\u6cb3\u5ddd\u4e8b\u52d9\u6240","boring_xml_url":47,"boring_view_url":1,"soilmap_view_url":null,"soiltest_xml_url":50,"soiltest_view_url":49},{"id":244492,"code":"B4KJ201802000-9972","latitude":"35.503806","longitude":"139.678583","source_code":"KT200883606720030003","project_name":"","survey_name":"\u9db4\u898b\u5ddd\u4e0b\u6d41\u90e8\u5730\u8cea\u8abf\u67fb\u696d\u52d9","client_name":"\u56fd\u571f\u4ea4\u901a\u7701 \u95a2\u6771\u5730\u65b9\u6574\u5099\u5c40 \u4eac\u6d5c\u6cb3\u5ddd\u4e8b\u52d9\u6240","boring_xml_url":47,"boring_view_url":1,"soilmap_view_url":null,"soiltest_xml_url":0,"soiltest_view_url":0},{"id":244491,"code":"B4KJ201802000-9971","latitude":"35.503806","longitude":"139.678583","source_code":"KT200883606720030002","project_name":"","survey_name":"\u9db4\u898b\u5ddd\u4e0b\u6d41\u90e8\u5730\u8cea\u8abf\u67fb\u696d\u52d9","client_name":"\u56fd\u571f\u4ea4\u901a\u7701 \u95a2\u6771\u5730\u65b9\u6574\u5099\u5c40 \u4eac\u6d5c\u6cb3\u5ddd\u4e8b\u52d9\u6240","boring_xml_url":47,"boring_view_url":1,"soilmap_view_url":null,"soiltest_xml_url":0,"soiltest_view_url":0},{"id":244490,"code":"B4KJ201802000-9970","latitude":"35.504139","longitude":"139.679","source_code":"KT200883606720030001","project_name":"","survey_name":"\u9db4\u898b\u5ddd\u4e0b\u6d41\u90e8\u5730\u8cea\u8abf\u67fb\u696d\u52d9","client_name":"\u56fd\u571f\u4ea4\u901a\u7701 \u95a2\u6771\u5730\u65b9\u6574\u5099\u5c40 \u4eac\u6d5c\u6cb3\u5ddd\u4e8b\u52d9\u6240","boring_xml_url":47,"boring_view_url":1,"soilmap_view_url":null,"soiltest_xml_url":0,"soiltest_view_url":0},{"id":244489,"code":"B4KJ201802000-9969","latitude":"36.076111","longitude":"138.035889","source_code":"KT200683706020470008","project_name":"","survey_name":"\u5e73\u621018\u5e74\u5ea6 H18\u5ca1\u8c37\u5869\u5c3b\u6539\u826f\u8a2d\u8a08\u696d\u52d9\u59d4\u8a17","client_name":"\u56fd\u571f\u4ea4\u901a\u7701\u95a2\u6771\u5730\u65b9\u6574\u5099\u5c40\u9577\u91ce\u56fd\u9053\u4e8b\u52d9\u6240","boring_xml_url":47,"boring_view_url":1,"soilmap_view_url":null,"soiltest_xml_url":0,"soiltest_view_url":0},{"id":244488,"code":"B4KJ201802000-9968","latitude":"36.076361","longitude":"138.036361","source_code":"KT200683706020470007","project_name":"","survey_name":"\u5e73\u621018\u5e74\u5ea6 H18\u5ca1\u8c37\u5869\u5c3b\u6539\u826f\u8a2d\u8a08\u696d\u52d9\u59d4\u8a17","client_name":"\u56fd\u571f\u4ea4\u901a\u7701\u95a2\u6771\u5730\u65b9\u6574\u5099\u5c40\u9577\u91ce\u56fd\u9053\u4e8b\u52d9\u6240","boring_xml_url":47,"boring_view_url":1,"soilmap_view_url":null,"soiltest_xml_url":0,"soiltest_view_url":0},{"id":244487,"code":"B4KJ201802000-9967","latitude":"36.074389","longitude":"138.037944","source_code":"KT200683706020470006","project_name":"","survey_name":"\u5e73\u621018\u5e74\u5ea6 H18\u5ca1\u8c37\u5869\u5c3b\u6539\u826f\u8a2d\u8a08\u696d\u52d9\u59d4\u8a17","client_name":"\u56fd\u571f\u4ea4\u901a\u7701\u95a2\u6771\u5730\u65b9\u6574\u5099\u5c40\u9577\u91ce\u56fd\u9053\u4e8b\u52d9\u6240","boring_xml_url":47,"boring_view_url":1,"soilmap_view_url":null,"soiltest_xml_url":50,"soiltest_view_url":49},{"id":244486,"code":"B4KJ201802000-9966","latitude":"36.074611","longitude":"138.037972","source_code":"KT200683706020470005","project_name":"","survey_name":"\u5e73\u621018\u5e74\u5ea6 H18\u5ca1\u8c37\u5869\u5c3b\u6539\u826f\u8a2d\u8a08\u696d\u52d9\u59d4\u8a17","client_name":"\u56fd\u571f\u4ea4\u901a\u7701\u95a2\u6771\u5730\u65b9\u6574\u5099\u5c40\u9577\u91ce\u56fd\u9053\u4e8b\u52d9\u6240","boring_xml_url":47,"boring_view_url":1,"soilmap_view_url":null,"soiltest_xml_url":50,"soiltest_view_url":49},{"id":244485,"code":"B4KJ201802000-9965","latitude":"36.074917","longitude":"138.036639","source_code":"KT200683706020470004","project_name":"","survey_name":"\u5e73\u621018\u5e74\u5ea6 H18\u5ca1\u8c37\u5869\u5c3b\u6539\u826f\u8a2d\u8a08\u696d\u52d9\u59d4\u8a17","client_name":"\u56fd\u571f\u4ea4\u901a\u7701\u95a2\u6771\u5730\u65b9\u6574\u5099\u5c40\u9577\u91ce\u56fd\u9053\u4e8b\u52d9\u6240","boring_xml_url":47,"boring_view_url":1,"soilmap_view_url":null,"soiltest_xml_url":50,"soiltest_view_url":49},{"id":244484,"code":"B4KJ201802000-9964","latitude":"36.075083","longitude":"138.036944","source_code":"KT200683706020470003","project_name":"","survey_name":"\u5e73\u621018\u5e74\u5ea6 H18\u5ca1\u8c37\u5869\u5c3b\u6539\u826f\u8a2d\u8a08\u696d\u52d9\u59d4\u8a17","client_name":"\u56fd\u571f\u4ea4\u901a\u7701\u95a2\u6771\u5730\u65b9\u6574\u5099\u5c40\u9577\u91ce\u56fd\u9053\u4e8b\u52d9\u6240","boring_xml_url":47,"boring_view_url":1,"soilmap_view_url":null,"soiltest_xml_url":50,"soiltest_view_url":49}]}}