{"header":{"xyz":{"source":[],"mosaic":false},"page":2872,"raw":{"soiltest_result":"0","bbox":"57.598333,109.544722,1.933333,163.806111","page":"2872"},"conditions":{"soiltest_result":0,"north":57.598333,"west":109.544722,"south":1.933333,"east":163.806111},"success":true,"message":""},"data":{"meta":{"total":212844,"page":2872,"pages":7095,"count":30},"values":[{"id":244393,"code":"B4KJ201802000-9873","latitude":"36.053694","longitude":"140.075389","source_code":"KT200683346020340018","project_name":"\u5e73\u621018\u5e74\u5ea6\u570f\u592e\u9053(\u3064\u304f\u3070\u5e02\u5cf6\u540d\uff5e\u67f3\u6a4b)\u5730\u8cea\u8abf\u67fb18K34","survey_name":"\u5e73\u621018\u5e74\u5ea6\u570f\u592e\u9053(\u3064\u304f\u3070\u5e02\u5cf6\u540d\uff5e\u67f3\u6a4b)\u5730\u8cea\u8abf\u67fb18K34","client_name":"\u56fd\u571f\u4ea4\u901a\u7701\u95a2\u6771\u5730\u65b9\u6574\u5099\u5c40 \u5e38\u7dcf\u56fd\u9053\u4e8b\u52d9\u6240","boring_xml_url":47,"boring_view_url":1,"soilmap_view_url":null,"soiltest_xml_url":50,"soiltest_view_url":49},{"id":244392,"code":"B4KJ201802000-9872","latitude":"36.053472","longitude":"140.073306","source_code":"KT200683346020340017","project_name":"\u5e73\u621018\u5e74\u5ea6\u570f\u592e\u9053(\u3064\u304f\u3070\u5e02\u5cf6\u540d\uff5e\u67f3\u6a4b)\u5730\u8cea\u8abf\u67fb18K34","survey_name":"\u5e73\u621018\u5e74\u5ea6\u570f\u592e\u9053(\u3064\u304f\u3070\u5e02\u5cf6\u540d\uff5e\u67f3\u6a4b)\u5730\u8cea\u8abf\u67fb18K34","client_name":"\u56fd\u571f\u4ea4\u901a\u7701\u95a2\u6771\u5730\u65b9\u6574\u5099\u5c40 \u5e38\u7dcf\u56fd\u9053\u4e8b\u52d9\u6240","boring_xml_url":47,"boring_view_url":1,"soilmap_view_url":null,"soiltest_xml_url":50,"soiltest_view_url":49},{"id":244391,"code":"B4KJ201802000-9871","latitude":"36.054722","longitude":"140.087028","source_code":"KT200683346020340016","project_name":"\u5e73\u621018\u5e74\u5ea6\u570f\u592e\u9053(\u3064\u304f\u3070\u5e02\u5cf6\u540d\uff5e\u67f3\u6a4b)\u5730\u8cea\u8abf\u67fb18K34","survey_name":"\u5e73\u621018\u5e74\u5ea6\u570f\u592e\u9053(\u3064\u304f\u3070\u5e02\u5cf6\u540d\uff5e\u67f3\u6a4b)\u5730\u8cea\u8abf\u67fb18K34","client_name":"\u56fd\u571f\u4ea4\u901a\u7701\u95a2\u6771\u5730\u65b9\u6574\u5099\u5c40 \u5e38\u7dcf\u56fd\u9053\u4e8b\u52d9\u6240","boring_xml_url":47,"boring_view_url":1,"soilmap_view_url":null,"soiltest_xml_url":50,"soiltest_view_url":49},{"id":244390,"code":"B4KJ201802000-9870","latitude":"36.054722","longitude":"140.086222","source_code":"KT200683346020340015","project_name":"\u5e73\u621018\u5e74\u5ea6\u570f\u592e\u9053(\u3064\u304f\u3070\u5e02\u5cf6\u540d\uff5e\u67f3\u6a4b)\u5730\u8cea\u8abf\u67fb18K34","survey_name":"\u5e73\u621018\u5e74\u5ea6\u570f\u592e\u9053(\u3064\u304f\u3070\u5e02\u5cf6\u540d\uff5e\u67f3\u6a4b)\u5730\u8cea\u8abf\u67fb18K34","client_name":"\u56fd\u571f\u4ea4\u901a\u7701\u95a2\u6771\u5730\u65b9\u6574\u5099\u5c40 \u5e38\u7dcf\u56fd\u9053\u4e8b\u52d9\u6240","boring_xml_url":47,"boring_view_url":1,"soilmap_view_url":null,"soiltest_xml_url":50,"soiltest_view_url":49},{"id":244389,"code":"B4KJ201802000-9869","latitude":"36.054694","longitude":"140.084972","source_code":"KT200683346020340014","project_name":"\u5e73\u621018\u5e74\u5ea6\u570f\u592e\u9053(\u3064\u304f\u3070\u5e02\u5cf6\u540d\uff5e\u67f3\u6a4b)\u5730\u8cea\u8abf\u67fb18K34","survey_name":"\u5e73\u621018\u5e74\u5ea6\u570f\u592e\u9053(\u3064\u304f\u3070\u5e02\u5cf6\u540d\uff5e\u67f3\u6a4b)\u5730\u8cea\u8abf\u67fb18K34","client_name":"\u56fd\u571f\u4ea4\u901a\u7701\u95a2\u6771\u5730\u65b9\u6574\u5099\u5c40 \u5e38\u7dcf\u56fd\u9053\u4e8b\u52d9\u6240","boring_xml_url":47,"boring_view_url":1,"soilmap_view_url":null,"soiltest_xml_url":50,"soiltest_view_url":49},{"id":244388,"code":"B4KJ201802000-9868","latitude":"36.054361","longitude":"140.0815","source_code":"KT200683346020340013","project_name":"\u5e73\u621018\u5e74\u5ea6\u570f\u592e\u9053(\u3064\u304f\u3070\u5e02\u5cf6\u540d\uff5e\u67f3\u6a4b)\u5730\u8cea\u8abf\u67fb18K34","survey_name":"\u5e73\u621018\u5e74\u5ea6\u570f\u592e\u9053(\u3064\u304f\u3070\u5e02\u5cf6\u540d\uff5e\u67f3\u6a4b)\u5730\u8cea\u8abf\u67fb18K34","client_name":"\u56fd\u571f\u4ea4\u901a\u7701\u95a2\u6771\u5730\u65b9\u6574\u5099\u5c40 \u5e38\u7dcf\u56fd\u9053\u4e8b\u52d9\u6240","boring_xml_url":47,"boring_view_url":1,"soilmap_view_url":null,"soiltest_xml_url":50,"soiltest_view_url":49},{"id":244387,"code":"B4KJ201802000-9867","latitude":"36.054333","longitude":"140.081056","source_code":"KT200683346020340012","project_name":"\u5e73\u621018\u5e74\u5ea6\u570f\u592e\u9053(\u3064\u304f\u3070\u5e02\u5cf6\u540d\uff5e\u67f3\u6a4b)\u5730\u8cea\u8abf\u67fb18K34","survey_name":"\u5e73\u621018\u5e74\u5ea6\u570f\u592e\u9053(\u3064\u304f\u3070\u5e02\u5cf6\u540d\uff5e\u67f3\u6a4b)\u5730\u8cea\u8abf\u67fb18K34","client_name":"\u56fd\u571f\u4ea4\u901a\u7701\u95a2\u6771\u5730\u65b9\u6574\u5099\u5c40 \u5e38\u7dcf\u56fd\u9053\u4e8b\u52d9\u6240","boring_xml_url":47,"boring_view_url":1,"soilmap_view_url":null,"soiltest_xml_url":50,"soiltest_view_url":49},{"id":244386,"code":"B4KJ201802000-9866","latitude":"36.054278","longitude":"140.080583","source_code":"KT200683346020340011","project_name":"\u5e73\u621018\u5e74\u5ea6\u570f\u592e\u9053(\u3064\u304f\u3070\u5e02\u5cf6\u540d\uff5e\u67f3\u6a4b)\u5730\u8cea\u8abf\u67fb18K34","survey_name":"\u5e73\u621018\u5e74\u5ea6\u570f\u592e\u9053(\u3064\u304f\u3070\u5e02\u5cf6\u540d\uff5e\u67f3\u6a4b)\u5730\u8cea\u8abf\u67fb18K34","client_name":"\u56fd\u571f\u4ea4\u901a\u7701\u95a2\u6771\u5730\u65b9\u6574\u5099\u5c40 \u5e38\u7dcf\u56fd\u9053\u4e8b\u52d9\u6240","boring_xml_url":47,"boring_view_url":1,"soilmap_view_url":null,"soiltest_xml_url":50,"soiltest_view_url":49},{"id":244385,"code":"B4KJ201802000-9865","latitude":"36.054139","longitude":"140.080139","source_code":"KT200683346020340010","project_name":"\u5e73\u621018\u5e74\u5ea6\u570f\u592e\u9053(\u3064\u304f\u3070\u5e02\u5cf6\u540d\uff5e\u67f3\u6a4b)\u5730\u8cea\u8abf\u67fb18K34","survey_name":"\u5e73\u621018\u5e74\u5ea6\u570f\u592e\u9053(\u3064\u304f\u3070\u5e02\u5cf6\u540d\uff5e\u67f3\u6a4b)\u5730\u8cea\u8abf\u67fb18K34","client_name":"\u56fd\u571f\u4ea4\u901a\u7701\u95a2\u6771\u5730\u65b9\u6574\u5099\u5c40 \u5e38\u7dcf\u56fd\u9053\u4e8b\u52d9\u6240","boring_xml_url":47,"boring_view_url":1,"soilmap_view_url":null,"soiltest_xml_url":50,"soiltest_view_url":49},{"id":244384,"code":"B4KJ201802000-9864","latitude":"36.054028","longitude":"140.079222","source_code":"KT200683346020340009","project_name":"\u5e73\u621018\u5e74\u5ea6\u570f\u592e\u9053(\u3064\u304f\u3070\u5e02\u5cf6\u540d\uff5e\u67f3\u6a4b)\u5730\u8cea\u8abf\u67fb18K34","survey_name":"\u5e73\u621018\u5e74\u5ea6\u570f\u592e\u9053(\u3064\u304f\u3070\u5e02\u5cf6\u540d\uff5e\u67f3\u6a4b)\u5730\u8cea\u8abf\u67fb18K34","client_name":"\u56fd\u571f\u4ea4\u901a\u7701\u95a2\u6771\u5730\u65b9\u6574\u5099\u5c40 \u5e38\u7dcf\u56fd\u9053\u4e8b\u52d9\u6240","boring_xml_url":47,"boring_view_url":1,"soilmap_view_url":null,"soiltest_xml_url":50,"soiltest_view_url":49},{"id":244383,"code":"B4KJ201802000-9863","latitude":"36.054028","longitude":"140.078278","source_code":"KT200683346020340008","project_name":"\u5e73\u621018\u5e74\u5ea6\u570f\u592e\u9053(\u3064\u304f\u3070\u5e02\u5cf6\u540d\uff5e\u67f3\u6a4b)\u5730\u8cea\u8abf\u67fb18K34","survey_name":"\u5e73\u621018\u5e74\u5ea6\u570f\u592e\u9053(\u3064\u304f\u3070\u5e02\u5cf6\u540d\uff5e\u67f3\u6a4b)\u5730\u8cea\u8abf\u67fb18K34","client_name":"\u56fd\u571f\u4ea4\u901a\u7701\u95a2\u6771\u5730\u65b9\u6574\u5099\u5c40 \u5e38\u7dcf\u56fd\u9053\u4e8b\u52d9\u6240","boring_xml_url":47,"boring_view_url":1,"soilmap_view_url":null,"soiltest_xml_url":50,"soiltest_view_url":49},{"id":244382,"code":"B4KJ201802000-9862","latitude":"36.053972","longitude":"140.077833","source_code":"KT200683346020340007","project_name":"\u5e73\u621018\u5e74\u5ea6\u570f\u592e\u9053(\u3064\u304f\u3070\u5e02\u5cf6\u540d\uff5e\u67f3\u6a4b)\u5730\u8cea\u8abf\u67fb18K34","survey_name":"\u5e73\u621018\u5e74\u5ea6\u570f\u592e\u9053(\u3064\u304f\u3070\u5e02\u5cf6\u540d\uff5e\u67f3\u6a4b)\u5730\u8cea\u8abf\u67fb18K34","client_name":"\u56fd\u571f\u4ea4\u901a\u7701\u95a2\u6771\u5730\u65b9\u6574\u5099\u5c40 \u5e38\u7dcf\u56fd\u9053\u4e8b\u52d9\u6240","boring_xml_url":47,"boring_view_url":1,"soilmap_view_url":null,"soiltest_xml_url":0,"soiltest_view_url":0},{"id":244381,"code":"B4KJ201802000-9861","latitude":"36.053861","longitude":"140.076889","source_code":"KT200683346020340006","project_name":"\u5e73\u621018\u5e74\u5ea6\u570f\u592e\u9053(\u3064\u304f\u3070\u5e02\u5cf6\u540d\uff5e\u67f3\u6a4b)\u5730\u8cea\u8abf\u67fb18K34","survey_name":"\u5e73\u621018\u5e74\u5ea6\u570f\u592e\u9053(\u3064\u304f\u3070\u5e02\u5cf6\u540d\uff5e\u67f3\u6a4b)\u5730\u8cea\u8abf\u67fb18K34","client_name":"\u56fd\u571f\u4ea4\u901a\u7701\u95a2\u6771\u5730\u65b9\u6574\u5099\u5c40 \u5e38\u7dcf\u56fd\u9053\u4e8b\u52d9\u6240","boring_xml_url":47,"boring_view_url":1,"soilmap_view_url":null,"soiltest_xml_url":50,"soiltest_view_url":49},{"id":244380,"code":"B4KJ201802000-9860","latitude":"36.052694","longitude":"140.066333","source_code":"KT200683346020340005","project_name":"\u5e73\u621018\u5e74\u5ea6\u570f\u592e\u9053(\u3064\u304f\u3070\u5e02\u5cf6\u540d\uff5e\u67f3\u6a4b)\u5730\u8cea\u8abf\u67fb18K34","survey_name":"\u5e73\u621018\u5e74\u5ea6\u570f\u592e\u9053(\u3064\u304f\u3070\u5e02\u5cf6\u540d\uff5e\u67f3\u6a4b)\u5730\u8cea\u8abf\u67fb18K34","client_name":"\u56fd\u571f\u4ea4\u901a\u7701\u95a2\u6771\u5730\u65b9\u6574\u5099\u5c40 \u5e38\u7dcf\u56fd\u9053\u4e8b\u52d9\u6240","boring_xml_url":47,"boring_view_url":1,"soilmap_view_url":null,"soiltest_xml_url":50,"soiltest_view_url":49},{"id":244379,"code":"B4KJ201802000-9859","latitude":"36.052667","longitude":"140.065944","source_code":"KT200683346020340004","project_name":"\u5e73\u621018\u5e74\u5ea6\u570f\u592e\u9053(\u3064\u304f\u3070\u5e02\u5cf6\u540d\uff5e\u67f3\u6a4b)\u5730\u8cea\u8abf\u67fb18K34","survey_name":"\u5e73\u621018\u5e74\u5ea6\u570f\u592e\u9053(\u3064\u304f\u3070\u5e02\u5cf6\u540d\uff5e\u67f3\u6a4b)\u5730\u8cea\u8abf\u67fb18K34","client_name":"\u56fd\u571f\u4ea4\u901a\u7701\u95a2\u6771\u5730\u65b9\u6574\u5099\u5c40 \u5e38\u7dcf\u56fd\u9053\u4e8b\u52d9\u6240","boring_xml_url":47,"boring_view_url":1,"soilmap_view_url":null,"soiltest_xml_url":0,"soiltest_view_url":0},{"id":244378,"code":"B4KJ201802000-9858","latitude":"36.052333","longitude":"140.062778","source_code":"KT200683346020340003","project_name":"\u5e73\u621018\u5e74\u5ea6\u570f\u592e\u9053(\u3064\u304f\u3070\u5e02\u5cf6\u540d\uff5e\u67f3\u6a4b)\u5730\u8cea\u8abf\u67fb18K34","survey_name":"\u5e73\u621018\u5e74\u5ea6\u570f\u592e\u9053(\u3064\u304f\u3070\u5e02\u5cf6\u540d\uff5e\u67f3\u6a4b)\u5730\u8cea\u8abf\u67fb18K34","client_name":"\u56fd\u571f\u4ea4\u901a\u7701\u95a2\u6771\u5730\u65b9\u6574\u5099\u5c40 \u5e38\u7dcf\u56fd\u9053\u4e8b\u52d9\u6240","boring_xml_url":47,"boring_view_url":1,"soilmap_view_url":null,"soiltest_xml_url":50,"soiltest_view_url":49},{"id":244377,"code":"B4KJ201802000-9857","latitude":"36.052306","longitude":"140.061861","source_code":"KT200683346020340002","project_name":"\u5e73\u621018\u5e74\u5ea6\u570f\u592e\u9053(\u3064\u304f\u3070\u5e02\u5cf6\u540d\uff5e\u67f3\u6a4b)\u5730\u8cea\u8abf\u67fb18K34","survey_name":"\u5e73\u621018\u5e74\u5ea6\u570f\u592e\u9053(\u3064\u304f\u3070\u5e02\u5cf6\u540d\uff5e\u67f3\u6a4b)\u5730\u8cea\u8abf\u67fb18K34","client_name":"\u56fd\u571f\u4ea4\u901a\u7701\u95a2\u6771\u5730\u65b9\u6574\u5099\u5c40 \u5e38\u7dcf\u56fd\u9053\u4e8b\u52d9\u6240","boring_xml_url":47,"boring_view_url":1,"soilmap_view_url":null,"soiltest_xml_url":50,"soiltest_view_url":49},{"id":244376,"code":"B4KJ201802000-9856","latitude":"36.052278","longitude":"140.061861","source_code":"KT200683346020340001","project_name":"\u5e73\u621018\u5e74\u5ea6\u570f\u592e\u9053(\u3064\u304f\u3070\u5e02\u5cf6\u540d\uff5e\u67f3\u6a4b)\u5730\u8cea\u8abf\u67fb18K34","survey_name":"\u5e73\u621018\u5e74\u5ea6\u570f\u592e\u9053(\u3064\u304f\u3070\u5e02\u5cf6\u540d\uff5e\u67f3\u6a4b)\u5730\u8cea\u8abf\u67fb18K34","client_name":"\u56fd\u571f\u4ea4\u901a\u7701\u95a2\u6771\u5730\u65b9\u6574\u5099\u5c40 \u5e38\u7dcf\u56fd\u9053\u4e8b\u52d9\u6240","boring_xml_url":47,"boring_view_url":1,"soilmap_view_url":null,"soiltest_xml_url":0,"soiltest_view_url":0},{"id":244375,"code":"B4KJ201802000-9855","latitude":"35.978583","longitude":"139.893111","source_code":"KT200783456420100008","project_name":"","survey_name":"H19\u76ee\u5439\u5730\u533a\u9ad8\u898f\u683c\u5824\u9632\u5730\u8cea\u8abf\u67fb\u696d\u52d9","client_name":"\u56fd\u571f\u4ea4\u901a\u7701\u95a2\u6771\u5730\u65b9\u6574\u5099\u5c40\u5229\u6839\u5ddd\u4e0a\u6d41\u6cb3\u5ddd\u4e8b\u52d9\u6240","boring_xml_url":47,"boring_view_url":1,"soilmap_view_url":null,"soiltest_xml_url":50,"soiltest_view_url":49},{"id":244374,"code":"B4KJ201802000-9854","latitude":"35.976861","longitude":"139.895778","source_code":"KT200783456420100007","project_name":"","survey_name":"H19\u76ee\u5439\u5730\u533a\u9ad8\u898f\u683c\u5824\u9632\u5730\u8cea\u8abf\u67fb\u696d\u52d9","client_name":"\u56fd\u571f\u4ea4\u901a\u7701\u95a2\u6771\u5730\u65b9\u6574\u5099\u5c40\u5229\u6839\u5ddd\u4e0a\u6d41\u6cb3\u5ddd\u4e8b\u52d9\u6240","boring_xml_url":47,"boring_view_url":1,"soilmap_view_url":null,"soiltest_xml_url":50,"soiltest_view_url":49},{"id":244373,"code":"B4KJ201802000-9853","latitude":"35.977083","longitude":"139.891694","source_code":"KT200783456420100006","project_name":"","survey_name":"H19\u76ee\u5439\u5730\u533a\u9ad8\u898f\u683c\u5824\u9632\u5730\u8cea\u8abf\u67fb\u696d\u52d9","client_name":"\u56fd\u571f\u4ea4\u901a\u7701\u95a2\u6771\u5730\u65b9\u6574\u5099\u5c40\u5229\u6839\u5ddd\u4e0a\u6d41\u6cb3\u5ddd\u4e8b\u52d9\u6240","boring_xml_url":47,"boring_view_url":1,"soilmap_view_url":null,"soiltest_xml_url":50,"soiltest_view_url":49},{"id":244372,"code":"B4KJ201802000-9852","latitude":"35.975389","longitude":"139.894389","source_code":"KT200783456420100005","project_name":"","survey_name":"H19\u76ee\u5439\u5730\u533a\u9ad8\u898f\u683c\u5824\u9632\u5730\u8cea\u8abf\u67fb\u696d\u52d9","client_name":"\u56fd\u571f\u4ea4\u901a\u7701\u95a2\u6771\u5730\u65b9\u6574\u5099\u5c40\u5229\u6839\u5ddd\u4e0a\u6d41\u6cb3\u5ddd\u4e8b\u52d9\u6240","boring_xml_url":47,"boring_view_url":1,"soilmap_view_url":null,"soiltest_xml_url":50,"soiltest_view_url":49},{"id":244371,"code":"B4KJ201802000-9851","latitude":"35.979167","longitude":"139.893778","source_code":"KT200783456420100004","project_name":"","survey_name":"H19\u76ee\u5439\u5730\u533a\u9ad8\u898f\u683c\u5824\u9632\u5730\u8cea\u8abf\u67fb\u696d\u52d9","client_name":"\u56fd\u571f\u4ea4\u901a\u7701\u95a2\u6771\u5730\u65b9\u6574\u5099\u5c40\u5229\u6839\u5ddd\u4e0a\u6d41\u6cb3\u5ddd\u4e8b\u52d9\u6240","boring_xml_url":47,"boring_view_url":1,"soilmap_view_url":null,"soiltest_xml_url":50,"soiltest_view_url":49},{"id":244370,"code":"B4KJ201802000-9850","latitude":"35.977444","longitude":"139.896333","source_code":"KT200783456420100003","project_name":"","survey_name":"H19\u76ee\u5439\u5730\u533a\u9ad8\u898f\u683c\u5824\u9632\u5730\u8cea\u8abf\u67fb\u696d\u52d9","client_name":"\u56fd\u571f\u4ea4\u901a\u7701\u95a2\u6771\u5730\u65b9\u6574\u5099\u5c40\u5229\u6839\u5ddd\u4e0a\u6d41\u6cb3\u5ddd\u4e8b\u52d9\u6240","boring_xml_url":47,"boring_view_url":1,"soilmap_view_url":null,"soiltest_xml_url":50,"soiltest_view_url":49},{"id":244369,"code":"B4KJ201802000-9849","latitude":"35.946556","longitude":"139.932028","source_code":"KT200783456420100002","project_name":"","survey_name":"H19\u76ee\u5439\u5730\u533a\u9ad8\u898f\u683c\u5824\u9632\u5730\u8cea\u8abf\u67fb\u696d\u52d9","client_name":"\u56fd\u571f\u4ea4\u901a\u7701\u95a2\u6771\u5730\u65b9\u6574\u5099\u5c40\u5229\u6839\u5ddd\u4e0a\u6d41\u6cb3\u5ddd\u4e8b\u52d9\u6240","boring_xml_url":47,"boring_view_url":1,"soilmap_view_url":null,"soiltest_xml_url":0,"soiltest_view_url":0},{"id":244368,"code":"B4KJ201802000-9848","latitude":"35.942111","longitude":"139.935222","source_code":"KT200783456420100001","project_name":"","survey_name":"H19\u76ee\u5439\u5730\u533a\u9ad8\u898f\u683c\u5824\u9632\u5730\u8cea\u8abf\u67fb\u696d\u52d9","client_name":"\u56fd\u571f\u4ea4\u901a\u7701\u95a2\u6771\u5730\u65b9\u6574\u5099\u5c40\u5229\u6839\u5ddd\u4e0a\u6d41\u6cb3\u5ddd\u4e8b\u52d9\u6240","boring_xml_url":47,"boring_view_url":1,"soilmap_view_url":null,"soiltest_xml_url":0,"soiltest_view_url":0},{"id":244367,"code":"B4KJ201802000-9847","latitude":"36.101139","longitude":"139.776194","source_code":"KT200783456420080009","project_name":"H19 \u6c5f\u6238\u5ddd\u6e21\u6cb3\u6a4b\u6881 \u5730\u8cea\u8abf\u67fb\u696d\u52d9","survey_name":"H19 \u6c5f\u6238\u5ddd\u6e21\u6cb3\u6a4b\u6881 \u5730\u8cea\u8abf\u67fb\u696d\u52d9","client_name":"\u56fd\u571f\u4ea4\u901a\u7701 \u95a2\u6771\u5730\u65b9\u6574\u5099\u5c40 \u5229\u6839\u5ddd\u4e0a\u6d41\u6cb3\u5ddd\u4e8b\u52d9\u6240","boring_xml_url":47,"boring_view_url":1,"soilmap_view_url":null,"soiltest_xml_url":0,"soiltest_view_url":0},{"id":244366,"code":"B4KJ201802000-9846","latitude":"36.101028","longitude":"139.776444","source_code":"KT200783456420080008","project_name":"H19 \u6c5f\u6238\u5ddd\u6e21\u6cb3\u6a4b\u6881 \u5730\u8cea\u8abf\u67fb\u696d\u52d9","survey_name":"H19 \u6c5f\u6238\u5ddd\u6e21\u6cb3\u6a4b\u6881 \u5730\u8cea\u8abf\u67fb\u696d\u52d9","client_name":"\u56fd\u571f\u4ea4\u901a\u7701 \u95a2\u6771\u5730\u65b9\u6574\u5099\u5c40 \u5229\u6839\u5ddd\u4e0a\u6d41\u6cb3\u5ddd\u4e8b\u52d9\u6240","boring_xml_url":47,"boring_view_url":1,"soilmap_view_url":null,"soiltest_xml_url":0,"soiltest_view_url":0},{"id":244365,"code":"B4KJ201802000-9845","latitude":"36.100917","longitude":"139.776694","source_code":"KT200783456420080007","project_name":"H19 \u6c5f\u6238\u5ddd\u6e21\u6cb3\u6a4b\u6881 \u5730\u8cea\u8abf\u67fb\u696d\u52d9","survey_name":"H19 \u6c5f\u6238\u5ddd\u6e21\u6cb3\u6a4b\u6881 \u5730\u8cea\u8abf\u67fb\u696d\u52d9","client_name":"\u56fd\u571f\u4ea4\u901a\u7701 \u95a2\u6771\u5730\u65b9\u6574\u5099\u5c40 \u5229\u6839\u5ddd\u4e0a\u6d41\u6cb3\u5ddd\u4e8b\u52d9\u6240","boring_xml_url":47,"boring_view_url":1,"soilmap_view_url":null,"soiltest_xml_url":0,"soiltest_view_url":0},{"id":244364,"code":"B4KJ201802000-9844","latitude":"36.100917","longitude":"139.776889","source_code":"KT200783456420080006","project_name":"H19 \u6c5f\u6238\u5ddd\u6e21\u6cb3\u6a4b\u6881 \u5730\u8cea\u8abf\u67fb\u696d\u52d9","survey_name":"H19 \u6c5f\u6238\u5ddd\u6e21\u6cb3\u6a4b\u6881 \u5730\u8cea\u8abf\u67fb\u696d\u52d9","client_name":"\u56fd\u571f\u4ea4\u901a\u7701 \u95a2\u6771\u5730\u65b9\u6574\u5099\u5c40 \u5229\u6839\u5ddd\u4e0a\u6d41\u6cb3\u5ddd\u4e8b\u52d9\u6240","boring_xml_url":47,"boring_view_url":1,"soilmap_view_url":null,"soiltest_xml_url":0,"soiltest_view_url":0}]}}