{"header":{"xyz":{"source":[],"mosaic":false},"page":2881,"raw":{"soiltest_result":"0","bbox":"57.598333,109.544722,1.933333,163.806111","page":"2881"},"conditions":{"soiltest_result":0,"north":57.598333,"west":109.544722,"south":1.933333,"east":163.806111},"success":true,"message":""},"data":{"meta":{"total":212844,"page":2881,"pages":7095,"count":30},"values":[{"id":244123,"code":"B4KJ201802000-9603","latitude":"36.2975","longitude":"139.52","source_code":"KT200583376020240013","project_name":"","survey_name":"H17\u6e21\u826f\u702c\u5ddd\u652f\u5ddd\u5824\u9632\u5730\u8cea\u8abf\u67fb","client_name":"\u56fd\u571f\u4ea4\u901a\u7701 \u95a2\u6771\u5730\u65b9\u6574\u5099\u5c40 \u6e21\u826f\u702c\u5ddd\u6cb3\u5ddd\u4e8b\u52d9\u6240","boring_xml_url":47,"boring_view_url":1,"soilmap_view_url":null,"soiltest_xml_url":0,"soiltest_view_url":0},{"id":244122,"code":"B4KJ201802000-9602","latitude":"36.2875","longitude":"139.572222","source_code":"KT200583376020240012","project_name":"","survey_name":"H17\u6e21\u826f\u702c\u5ddd\u652f\u5ddd\u5824\u9632\u5730\u8cea\u8abf\u67fb","client_name":"\u56fd\u571f\u4ea4\u901a\u7701 \u95a2\u6771\u5730\u65b9\u6574\u5099\u5c40 \u6e21\u826f\u702c\u5ddd\u6cb3\u5ddd\u4e8b\u52d9\u6240","boring_xml_url":47,"boring_view_url":1,"soilmap_view_url":null,"soiltest_xml_url":0,"soiltest_view_url":0},{"id":244121,"code":"B4KJ201802000-9601","latitude":"36.287222","longitude":"139.572222","source_code":"KT200583376020240011","project_name":"","survey_name":"H17\u6e21\u826f\u702c\u5ddd\u652f\u5ddd\u5824\u9632\u5730\u8cea\u8abf\u67fb","client_name":"\u56fd\u571f\u4ea4\u901a\u7701 \u95a2\u6771\u5730\u65b9\u6574\u5099\u5c40 \u6e21\u826f\u702c\u5ddd\u6cb3\u5ddd\u4e8b\u52d9\u6240","boring_xml_url":47,"boring_view_url":1,"soilmap_view_url":null,"soiltest_xml_url":0,"soiltest_view_url":0},{"id":244120,"code":"B4KJ201802000-9600","latitude":"36.287222","longitude":"139.572222","source_code":"KT200583376020240010","project_name":"","survey_name":"H17\u6e21\u826f\u702c\u5ddd\u652f\u5ddd\u5824\u9632\u5730\u8cea\u8abf\u67fb","client_name":"\u56fd\u571f\u4ea4\u901a\u7701 \u95a2\u6771\u5730\u65b9\u6574\u5099\u5c40 \u6e21\u826f\u702c\u5ddd\u6cb3\u5ddd\u4e8b\u52d9\u6240","boring_xml_url":47,"boring_view_url":1,"soilmap_view_url":null,"soiltest_xml_url":0,"soiltest_view_url":0},{"id":244119,"code":"B4KJ201802000-9599","latitude":"36.282222","longitude":"139.575833","source_code":"KT200583376020240009","project_name":"","survey_name":"H17\u6e21\u826f\u702c\u5ddd\u652f\u5ddd\u5824\u9632\u5730\u8cea\u8abf\u67fb","client_name":"\u56fd\u571f\u4ea4\u901a\u7701 \u95a2\u6771\u5730\u65b9\u6574\u5099\u5c40 \u6e21\u826f\u702c\u5ddd\u6cb3\u5ddd\u4e8b\u52d9\u6240","boring_xml_url":47,"boring_view_url":1,"soilmap_view_url":null,"soiltest_xml_url":0,"soiltest_view_url":0},{"id":244118,"code":"B4KJ201802000-9598","latitude":"36.282222","longitude":"139.575833","source_code":"KT200583376020240008","project_name":"","survey_name":"H17\u6e21\u826f\u702c\u5ddd\u652f\u5ddd\u5824\u9632\u5730\u8cea\u8abf\u67fb","client_name":"\u56fd\u571f\u4ea4\u901a\u7701 \u95a2\u6771\u5730\u65b9\u6574\u5099\u5c40 \u6e21\u826f\u702c\u5ddd\u6cb3\u5ddd\u4e8b\u52d9\u6240","boring_xml_url":47,"boring_view_url":1,"soilmap_view_url":null,"soiltest_xml_url":0,"soiltest_view_url":0},{"id":244117,"code":"B4KJ201802000-9597","latitude":"36.282222","longitude":"139.576111","source_code":"KT200583376020240007","project_name":"","survey_name":"H17\u6e21\u826f\u702c\u5ddd\u652f\u5ddd\u5824\u9632\u5730\u8cea\u8abf\u67fb","client_name":"\u56fd\u571f\u4ea4\u901a\u7701 \u95a2\u6771\u5730\u65b9\u6574\u5099\u5c40 \u6e21\u826f\u702c\u5ddd\u6cb3\u5ddd\u4e8b\u52d9\u6240","boring_xml_url":47,"boring_view_url":1,"soilmap_view_url":null,"soiltest_xml_url":0,"soiltest_view_url":0},{"id":244116,"code":"B4KJ201802000-9596","latitude":"36.272778","longitude":"139.583889","source_code":"KT200583376020240006","project_name":"","survey_name":"H17\u6e21\u826f\u702c\u5ddd\u652f\u5ddd\u5824\u9632\u5730\u8cea\u8abf\u67fb","client_name":"\u56fd\u571f\u4ea4\u901a\u7701 \u95a2\u6771\u5730\u65b9\u6574\u5099\u5c40 \u6e21\u826f\u702c\u5ddd\u6cb3\u5ddd\u4e8b\u52d9\u6240","boring_xml_url":47,"boring_view_url":1,"soilmap_view_url":null,"soiltest_xml_url":0,"soiltest_view_url":0},{"id":244115,"code":"B4KJ201802000-9595","latitude":"36.272778","longitude":"139.583611","source_code":"KT200583376020240005","project_name":"","survey_name":"H17\u6e21\u826f\u702c\u5ddd\u652f\u5ddd\u5824\u9632\u5730\u8cea\u8abf\u67fb","client_name":"\u56fd\u571f\u4ea4\u901a\u7701 \u95a2\u6771\u5730\u65b9\u6574\u5099\u5c40 \u6e21\u826f\u702c\u5ddd\u6cb3\u5ddd\u4e8b\u52d9\u6240","boring_xml_url":47,"boring_view_url":1,"soilmap_view_url":null,"soiltest_xml_url":0,"soiltest_view_url":0},{"id":244114,"code":"B4KJ201802000-9594","latitude":"36.2725","longitude":"139.583333","source_code":"KT200583376020240004","project_name":"","survey_name":"H17\u6e21\u826f\u702c\u5ddd\u652f\u5ddd\u5824\u9632\u5730\u8cea\u8abf\u67fb","client_name":"\u56fd\u571f\u4ea4\u901a\u7701 \u95a2\u6771\u5730\u65b9\u6574\u5099\u5c40 \u6e21\u826f\u702c\u5ddd\u6cb3\u5ddd\u4e8b\u52d9\u6240","boring_xml_url":47,"boring_view_url":1,"soilmap_view_url":null,"soiltest_xml_url":0,"soiltest_view_url":0},{"id":244113,"code":"B4KJ201802000-9593","latitude":"36.272222","longitude":"139.582778","source_code":"KT200583376020240003","project_name":"","survey_name":"H17\u6e21\u826f\u702c\u5ddd\u652f\u5ddd\u5824\u9632\u5730\u8cea\u8abf\u67fb","client_name":"\u56fd\u571f\u4ea4\u901a\u7701 \u95a2\u6771\u5730\u65b9\u6574\u5099\u5c40 \u6e21\u826f\u702c\u5ddd\u6cb3\u5ddd\u4e8b\u52d9\u6240","boring_xml_url":47,"boring_view_url":1,"soilmap_view_url":null,"soiltest_xml_url":0,"soiltest_view_url":0},{"id":244112,"code":"B4KJ201802000-9592","latitude":"36.272222","longitude":"139.583056","source_code":"KT200583376020240002","project_name":"","survey_name":"H17\u6e21\u826f\u702c\u5ddd\u652f\u5ddd\u5824\u9632\u5730\u8cea\u8abf\u67fb","client_name":"\u56fd\u571f\u4ea4\u901a\u7701 \u95a2\u6771\u5730\u65b9\u6574\u5099\u5c40 \u6e21\u826f\u702c\u5ddd\u6cb3\u5ddd\u4e8b\u52d9\u6240","boring_xml_url":47,"boring_view_url":1,"soilmap_view_url":null,"soiltest_xml_url":0,"soiltest_view_url":0},{"id":244111,"code":"B4KJ201802000-9591","latitude":"36.2725","longitude":"139.583056","source_code":"KT200583376020240001","project_name":"","survey_name":"H17\u6e21\u826f\u702c\u5ddd\u652f\u5ddd\u5824\u9632\u5730\u8cea\u8abf\u67fb","client_name":"\u56fd\u571f\u4ea4\u901a\u7701 \u95a2\u6771\u5730\u65b9\u6574\u5099\u5c40 \u6e21\u826f\u702c\u5ddd\u6cb3\u5ddd\u4e8b\u52d9\u6240","boring_xml_url":47,"boring_view_url":1,"soilmap_view_url":null,"soiltest_xml_url":0,"soiltest_view_url":0},{"id":244110,"code":"B4KJ201802000-9590","latitude":"36.305278","longitude":"139.367222","source_code":"KT200583376020200019","project_name":"H17 \u6e21\u826f\u702c\u5ddd\u5824\u9632\u5730\u8cea\u8abf\u67fb","survey_name":"H17 \u6e21\u826f\u702c\u5ddd\u5824\u9632\u5730\u8cea\u8abf\u67fb","client_name":"\u56fd\u571f\u4ea4\u901a\u7701 \u95a2\u6771\u5730\u65b9\u6574\u5099\u5c40 \u6e21\u826f\u702c\u5ddd\u6cb3\u5ddd\u4e8b\u52d9\u6240","boring_xml_url":47,"boring_view_url":1,"soilmap_view_url":null,"soiltest_xml_url":0,"soiltest_view_url":0},{"id":244109,"code":"B4KJ201802000-9589","latitude":"36.272778","longitude":"139.611944","source_code":"KT200583376020200018","project_name":"H17 \u6e21\u826f\u702c\u5ddd\u5824\u9632\u5730\u8cea\u8abf\u67fb","survey_name":"H17 \u6e21\u826f\u702c\u5ddd\u5824\u9632\u5730\u8cea\u8abf\u67fb","client_name":"\u56fd\u571f\u4ea4\u901a\u7701 \u95a2\u6771\u5730\u65b9\u6574\u5099\u5c40 \u6e21\u826f\u702c\u5ddd\u6cb3\u5ddd\u4e8b\u52d9\u6240","boring_xml_url":47,"boring_view_url":1,"soilmap_view_url":null,"soiltest_xml_url":50,"soiltest_view_url":49},{"id":244108,"code":"B4KJ201802000-9588","latitude":"36.272778","longitude":"139.611944","source_code":"KT200583376020200017","project_name":"H17 \u6e21\u826f\u702c\u5ddd\u5824\u9632\u5730\u8cea\u8abf\u67fb","survey_name":"H17 \u6e21\u826f\u702c\u5ddd\u5824\u9632\u5730\u8cea\u8abf\u67fb","client_name":"\u56fd\u571f\u4ea4\u901a\u7701 \u95a2\u6771\u5730\u65b9\u6574\u5099\u5c40 \u6e21\u826f\u702c\u5ddd\u6cb3\u5ddd\u4e8b\u52d9\u6240","boring_xml_url":47,"boring_view_url":1,"soilmap_view_url":null,"soiltest_xml_url":50,"soiltest_view_url":49},{"id":244107,"code":"B4KJ201802000-9587","latitude":"36.272778","longitude":"139.611944","source_code":"KT200583376020200016","project_name":"H17 \u6e21\u826f\u702c\u5ddd\u5824\u9632\u5730\u8cea\u8abf\u67fb","survey_name":"H17 \u6e21\u826f\u702c\u5ddd\u5824\u9632\u5730\u8cea\u8abf\u67fb","client_name":"\u56fd\u571f\u4ea4\u901a\u7701 \u95a2\u6771\u5730\u65b9\u6574\u5099\u5c40 \u6e21\u826f\u702c\u5ddd\u6cb3\u5ddd\u4e8b\u52d9\u6240","boring_xml_url":47,"boring_view_url":1,"soilmap_view_url":null,"soiltest_xml_url":50,"soiltest_view_url":49},{"id":244106,"code":"B4KJ201802000-9586","latitude":"36.265556","longitude":"139.644167","source_code":"KT200583376020200015","project_name":"H17 \u6e21\u826f\u702c\u5ddd\u5824\u9632\u5730\u8cea\u8abf\u67fb","survey_name":"H17 \u6e21\u826f\u702c\u5ddd\u5824\u9632\u5730\u8cea\u8abf\u67fb","client_name":"\u56fd\u571f\u4ea4\u901a\u7701\u95a2\u6771\u5730\u65b9\u6574\u5099\u5c40 \u6e21\u826f\u702c\u5ddd\u6cb3\u5ddd\u4e8b\u52d9\u6240","boring_xml_url":47,"boring_view_url":1,"soilmap_view_url":null,"soiltest_xml_url":50,"soiltest_view_url":49},{"id":244105,"code":"B4KJ201802000-9585","latitude":"36.265556","longitude":"139.644167","source_code":"KT200583376020200014","project_name":"H17 \u6e21\u826f\u702c\u5ddd\u5824\u9632\u5730\u8cea\u8abf\u67fb","survey_name":"H17 \u6e21\u826f\u702c\u5ddd\u5824\u9632\u5730\u8cea\u8abf\u67fb","client_name":"\u56fd\u571f\u4ea4\u901a\u7701\u95a2\u6771\u5730\u65b9\u6574\u5099\u5c40 \u6e21\u826f\u702c\u5ddd\u6cb3\u5ddd\u4e8b\u52d9\u6240","boring_xml_url":47,"boring_view_url":1,"soilmap_view_url":null,"soiltest_xml_url":50,"soiltest_view_url":49},{"id":244104,"code":"B4KJ201802000-9584","latitude":"36.265556","longitude":"139.644167","source_code":"KT200583376020200013","project_name":"H17 \u6e21\u826f\u702c\u5ddd\u5824\u9632\u5730\u8cea\u8abf\u67fb","survey_name":"H17 \u6e21\u826f\u702c\u5ddd\u5824\u9632\u5730\u8cea\u8abf\u67fb","client_name":"\u56fd\u571f\u4ea4\u901a\u7701\u95a2\u6771\u5730\u65b9\u6574\u5099\u5c40 \u6e21\u826f\u702c\u5ddd\u6cb3\u5ddd\u4e8b\u52d9\u6240","boring_xml_url":47,"boring_view_url":1,"soilmap_view_url":null,"soiltest_xml_url":50,"soiltest_view_url":49},{"id":244103,"code":"B4KJ201802000-9583","latitude":"36.321111","longitude":"139.454444","source_code":"KT200583376020200012","project_name":"H17 \u6e21\u826f\u702c\u5ddd\u5824\u9632\u5730\u8cea\u8abf\u67fb","survey_name":"H17 \u6e21\u826f\u702c\u5ddd\u5824\u9632\u5730\u8cea\u8abf\u67fb","client_name":"\u56fd\u571f\u4ea4\u901a\u7701 \u95a2\u6771\u5730\u65b9\u6574\u5099\u5c40 \u6e21\u826f\u702c\u5ddd\u6cb3\u5ddd\u4e8b\u52d9\u6240","boring_xml_url":47,"boring_view_url":1,"soilmap_view_url":null,"soiltest_xml_url":50,"soiltest_view_url":49},{"id":244102,"code":"B4KJ201802000-9582","latitude":"36.321111","longitude":"139.454444","source_code":"KT200583376020200011","project_name":"H17 \u6e21\u826f\u702c\u5ddd\u5824\u9632\u5730\u8cea\u8abf\u67fb","survey_name":"H17 \u6e21\u826f\u702c\u5ddd\u5824\u9632\u5730\u8cea\u8abf\u67fb","client_name":"\u56fd\u571f\u4ea4\u901a\u7701\u95a2\u6771\u5730\u65b9\u6574\u5099\u5c40 \u6e21\u826f\u702c\u5ddd\u6cb3\u5ddd\u4e8b\u52d9\u6240","boring_xml_url":47,"boring_view_url":1,"soilmap_view_url":null,"soiltest_xml_url":50,"soiltest_view_url":49},{"id":244101,"code":"B4KJ201802000-9581","latitude":"36.321111","longitude":"139.454444","source_code":"KT200583376020200010","project_name":"H17 \u6e21\u826f\u702c\u5ddd\u5824\u9632\u5730\u8cea\u8abf\u67fb","survey_name":"H17 \u6e21\u826f\u702c\u5ddd\u5824\u9632\u5730\u8cea\u8abf\u67fb","client_name":"\u56fd\u571f\u4ea4\u901a\u7701\u95a2\u6771\u5730\u65b9\u6574\u5099\u5c40 \u6e21\u826f\u702c\u5ddd\u6cb3\u5ddd\u4e8b\u52d9\u6240","boring_xml_url":47,"boring_view_url":1,"soilmap_view_url":null,"soiltest_xml_url":50,"soiltest_view_url":49},{"id":244100,"code":"B4KJ201802000-9580","latitude":"36.268333","longitude":"139.614444","source_code":"KT200583376020200009","project_name":"H17 \u6e21\u826f\u702c\u5ddd\u5824\u9632\u5730\u8cea\u8abf\u67fb","survey_name":"H17 \u6e21\u826f\u702c\u5ddd\u5824\u9632\u5730\u8cea\u8abf\u67fb","client_name":"\u56fd\u571f\u4ea4\u901a\u7701\u95a2\u6771\u5730\u65b9\u6574\u5099\u5c40 \u6e21\u826f\u702c\u5ddd\u6cb3\u5ddd\u4e8b\u52d9\u6240","boring_xml_url":47,"boring_view_url":1,"soilmap_view_url":null,"soiltest_xml_url":50,"soiltest_view_url":49},{"id":244099,"code":"B4KJ201802000-9579","latitude":"36.268333","longitude":"139.614444","source_code":"KT200583376020200008","project_name":"H17 \u6e21\u826f\u702c\u5ddd\u5824\u9632\u5730\u8cea\u8abf\u67fb","survey_name":"H17 \u6e21\u826f\u702c\u5ddd\u5824\u9632\u5730\u8cea\u8abf\u67fb","client_name":"\u56fd\u571f\u4ea4\u901a\u7701\u95a2\u6771\u5730\u65b9\u6574\u5099\u5c40 \u6e21\u826f\u702c\u5ddd\u6cb3\u5ddd\u4e8b\u52d9\u6240","boring_xml_url":47,"boring_view_url":1,"soilmap_view_url":null,"soiltest_xml_url":50,"soiltest_view_url":49},{"id":244098,"code":"B4KJ201802000-9578","latitude":"36.268333","longitude":"139.614444","source_code":"KT200583376020200007","project_name":"H17 \u6e21\u826f\u702c\u5ddd\u5824\u9632\u5730\u8cea\u8abf\u67fb","survey_name":"H17 \u6e21\u826f\u702c\u5ddd\u5824\u9632\u5730\u8cea\u8abf\u67fb","client_name":"\u56fd\u571f\u4ea4\u901a\u7701\u95a2\u6771\u5730\u65b9\u6574\u5099\u5c40 \u6e21\u826f\u702c\u5ddd\u6cb3\u5ddd\u4e8b\u52d9\u6240","boring_xml_url":47,"boring_view_url":1,"soilmap_view_url":null,"soiltest_xml_url":50,"soiltest_view_url":49},{"id":244097,"code":"B4KJ201802000-9577","latitude":"36.261111","longitude":"139.6375","source_code":"KT200583376020200006","project_name":"H17 \u6e21\u826f\u702c\u5ddd\u5824\u9632\u5730\u8cea\u8abf\u67fb","survey_name":"H17 \u6e21\u826f\u702c\u5ddd\u5824\u9632\u5730\u8cea\u8abf\u67fb","client_name":"\u56fd\u571f\u4ea4\u901a\u7701\u95a2\u6771\u5730\u65b9\u6574\u5099\u5c40 \u6e21\u826f\u702c\u5ddd\u6cb3\u5ddd\u4e8b\u52d9\u6240","boring_xml_url":47,"boring_view_url":1,"soilmap_view_url":null,"soiltest_xml_url":50,"soiltest_view_url":49},{"id":244096,"code":"B4KJ201802000-9576","latitude":"36.261111","longitude":"139.6375","source_code":"KT200583376020200005","project_name":"H17 \u6e21\u826f\u702c\u5ddd\u5824\u9632\u5730\u8cea\u8abf\u67fb","survey_name":"H17 \u6e21\u826f\u702c\u5ddd\u5824\u9632\u5730\u8cea\u8abf\u67fb","client_name":"\u56fd\u571f\u4ea4\u901a\u7701\u95a2\u6771\u5730\u65b9\u6574\u5099\u5c40 \u6e21\u826f\u702c\u5ddd\u6cb3\u5ddd\u4e8b\u52d9\u6240","boring_xml_url":47,"boring_view_url":1,"soilmap_view_url":null,"soiltest_xml_url":50,"soiltest_view_url":49},{"id":244095,"code":"B4KJ201802000-9575","latitude":"36.261111","longitude":"139.6375","source_code":"KT200583376020200004","project_name":"H17 \u6e21\u826f\u702c\u5ddd\u5824\u9632\u5730\u8cea\u8abf\u67fb","survey_name":"H17 \u6e21\u826f\u702c\u5ddd\u5824\u9632\u5730\u8cea\u8abf\u67fb","client_name":"\u56fd\u571f\u4ea4\u901a\u7701 \u95a2\u6771\u5730\u65b9\u6574\u5099\u5c40 \u6e21\u826f\u702c\u5ddd\u6cb3\u5ddd\u4e8b\u52d9\u6240","boring_xml_url":47,"boring_view_url":1,"soilmap_view_url":null,"soiltest_xml_url":50,"soiltest_view_url":49},{"id":244094,"code":"B4KJ201802000-9574","latitude":"36.262222","longitude":"139.6425","source_code":"KT200583376020200003","project_name":"H17 \u6e21\u826f\u702c\u5ddd\u5824\u9632\u5730\u8cea\u8abf\u67fb","survey_name":"H17 \u6e21\u826f\u702c\u5ddd\u5824\u9632\u5730\u8cea\u8abf\u67fb","client_name":"\u56fd\u571f\u4ea4\u901a\u7701 \u95a2\u6771\u5730\u65b9\u6574\u5099\u5c40 \u6e21\u826f\u702c\u5ddd\u6cb3\u5ddd\u4e8b\u52d9\u6240","boring_xml_url":47,"boring_view_url":1,"soilmap_view_url":null,"soiltest_xml_url":50,"soiltest_view_url":49}]}}