{"header":{"xyz":{"source":[],"mosaic":false},"page":2883,"raw":{"soiltest_result":"0","bbox":"57.598333,109.544722,1.933333,163.806111","page":"2883"},"conditions":{"soiltest_result":0,"north":57.598333,"west":109.544722,"south":1.933333,"east":163.806111},"success":true,"message":""},"data":{"meta":{"total":212844,"page":2883,"pages":7095,"count":30},"values":[{"id":244063,"code":"B4KJ201802000-9543","latitude":"35.461361","longitude":"138.450222","source_code":"KT200683656120280036","project_name":"","survey_name":"\u4e2d\u90e8\u6a2a\u65ad\u81ea\u52d5\u8eca\u9053 \u5730\u8cea\u8abf\u67fb\u305d\u306e4","client_name":"\u56fd\u571f\u4ea4\u901a\u7701\u95a2\u6771\u5730\u65b9\u6574\u5099\u5c40 \u7532\u5e9c\u6cb3\u5ddd\u56fd\u9053\u4e8b\u52d9\u6240","boring_xml_url":47,"boring_view_url":1,"soilmap_view_url":null,"soiltest_xml_url":0,"soiltest_view_url":0},{"id":244062,"code":"B4KJ201802000-9542","latitude":"35.460806","longitude":"138.450306","source_code":"KT200683656120280035","project_name":"","survey_name":"\u4e2d\u90e8\u6a2a\u65ad\u81ea\u52d5\u8eca\u9053 \u5730\u8cea\u8abf\u67fb\u305d\u306e4","client_name":"\u56fd\u571f\u4ea4\u901a\u7701\u95a2\u6771\u5730\u65b9\u6574\u5099\u5c40 \u7532\u5e9c\u6cb3\u5ddd\u56fd\u9053\u4e8b\u52d9\u6240","boring_xml_url":47,"boring_view_url":1,"soilmap_view_url":null,"soiltest_xml_url":0,"soiltest_view_url":0},{"id":244061,"code":"B4KJ201802000-9541","latitude":"35.460111","longitude":"138.4505","source_code":"KT200683656120280034","project_name":"","survey_name":"\u4e2d\u90e8\u6a2a\u65ad\u81ea\u52d5\u8eca\u9053 \u5730\u8cea\u8abf\u67fb\u305d\u306e4","client_name":"\u56fd\u571f\u4ea4\u901a\u7701\u95a2\u6771\u5730\u65b9\u6574\u5099\u5c40 \u7532\u5e9c\u6cb3\u5ddd\u56fd\u9053\u4e8b\u52d9\u6240","boring_xml_url":47,"boring_view_url":1,"soilmap_view_url":null,"soiltest_xml_url":0,"soiltest_view_url":0},{"id":244060,"code":"B4KJ201802000-9540","latitude":"35.459278","longitude":"138.450639","source_code":"KT200683656120280033","project_name":"","survey_name":"\u4e2d\u90e8\u6a2a\u65ad\u81ea\u52d5\u8eca\u9053 \u5730\u8cea\u8abf\u67fb\u305d\u306e4","client_name":"\u56fd\u571f\u4ea4\u901a\u7701\u95a2\u6771\u5730\u65b9\u6574\u5099\u5c40 \u7532\u5e9c\u6cb3\u5ddd\u56fd\u9053\u4e8b\u52d9\u6240","boring_xml_url":47,"boring_view_url":1,"soilmap_view_url":null,"soiltest_xml_url":0,"soiltest_view_url":0},{"id":244059,"code":"B4KJ201802000-9539","latitude":"35.458833","longitude":"138.450889","source_code":"KT200683656120280032","project_name":"","survey_name":"\u4e2d\u90e8\u6a2a\u65ad\u81ea\u52d5\u8eca\u9053 \u5730\u8cea\u8abf\u67fb\u305d\u306e4","client_name":"\u56fd\u571f\u4ea4\u901a\u7701\u95a2\u6771\u5730\u65b9\u6574\u5099\u5c40 \u7532\u5e9c\u6cb3\u5ddd\u56fd\u9053\u4e8b\u52d9\u6240","boring_xml_url":47,"boring_view_url":1,"soilmap_view_url":null,"soiltest_xml_url":0,"soiltest_view_url":0},{"id":244058,"code":"B4KJ201802000-9538","latitude":"35.45875","longitude":"138.450806","source_code":"KT200683656120280031","project_name":"","survey_name":"\u4e2d\u90e8\u6a2a\u65ad\u81ea\u52d5\u8eca\u9053 \u5730\u8cea\u8abf\u67fb\u305d\u306e4","client_name":"\u56fd\u571f\u4ea4\u901a\u7701\u95a2\u6771\u5730\u65b9\u6574\u5099\u5c40 \u7532\u5e9c\u6cb3\u5ddd\u56fd\u9053\u4e8b\u52d9\u6240","boring_xml_url":47,"boring_view_url":1,"soilmap_view_url":null,"soiltest_xml_url":0,"soiltest_view_url":0},{"id":244057,"code":"B4KJ201802000-9537","latitude":"35.458583","longitude":"138.45075","source_code":"KT200683656120280030","project_name":"","survey_name":"\u4e2d\u90e8\u6a2a\u65ad\u81ea\u52d5\u8eca\u9053 \u5730\u8cea\u8abf\u67fb\u305d\u306e4","client_name":"\u56fd\u571f\u4ea4\u901a\u7701\u95a2\u6771\u5730\u65b9\u6574\u5099\u5c40 \u7532\u5e9c\u6cb3\u5ddd\u56fd\u9053\u4e8b\u52d9\u6240","boring_xml_url":47,"boring_view_url":1,"soilmap_view_url":null,"soiltest_xml_url":0,"soiltest_view_url":0},{"id":244056,"code":"B4KJ201802000-9536","latitude":"35.457361","longitude":"138.451417","source_code":"KT200683656120280029","project_name":"","survey_name":"\u4e2d\u90e8\u6a2a\u65ad\u81ea\u52d5\u8eca\u9053 \u5730\u8cea\u8abf\u67fb\u305d\u306e4","client_name":"\u56fd\u571f\u4ea4\u901a\u7701\u95a2\u6771\u5730\u65b9\u6574\u5099\u5c40 \u7532\u5e9c\u6cb3\u5ddd\u56fd\u9053\u4e8b\u52d9\u6240","boring_xml_url":47,"boring_view_url":1,"soilmap_view_url":null,"soiltest_xml_url":0,"soiltest_view_url":0},{"id":244055,"code":"B4KJ201802000-9535","latitude":"35.445583","longitude":"138.453333","source_code":"KT200683656120280028","project_name":"","survey_name":"\u4e2d\u90e8\u6a2a\u65ad\u81ea\u52d5\u8eca\u9053 \u5730\u8cea\u8abf\u67fb\u305d\u306e4","client_name":"\u56fd\u571f\u4ea4\u901a\u7701\u95a2\u6771\u5730\u65b9\u6574\u5099\u5c40 \u7532\u5e9c\u6cb3\u5ddd\u56fd\u9053\u4e8b\u52d9\u6240","boring_xml_url":47,"boring_view_url":1,"soilmap_view_url":null,"soiltest_xml_url":0,"soiltest_view_url":0},{"id":244054,"code":"B4KJ201802000-9534","latitude":"35.444972","longitude":"138.4535","source_code":"KT200683656120280027","project_name":"","survey_name":"\u4e2d\u90e8\u6a2a\u65ad\u81ea\u52d5\u8eca\u9053 \u5730\u8cea\u8abf\u67fb\u305d\u306e4","client_name":"\u56fd\u571f\u4ea4\u901a\u7701\u95a2\u6771\u5730\u65b9\u6574\u5099\u5c40 \u7532\u5e9c\u6cb3\u5ddd\u56fd\u9053\u4e8b\u52d9\u6240","boring_xml_url":47,"boring_view_url":1,"soilmap_view_url":null,"soiltest_xml_url":0,"soiltest_view_url":0},{"id":244053,"code":"B4KJ201802000-9533","latitude":"35.444806","longitude":"138.453417","source_code":"KT200683656120280026","project_name":"","survey_name":"\u4e2d\u90e8\u6a2a\u65ad\u81ea\u52d5\u8eca\u9053 \u5730\u8cea\u8abf\u67fb\u305d\u306e4","client_name":"\u56fd\u571f\u4ea4\u901a\u7701\u95a2\u6771\u5730\u65b9\u6574\u5099\u5c40 \u7532\u5e9c\u6cb3\u5ddd\u56fd\u9053\u4e8b\u52d9\u6240","boring_xml_url":47,"boring_view_url":1,"soilmap_view_url":null,"soiltest_xml_url":0,"soiltest_view_url":0},{"id":244052,"code":"B4KJ201802000-9532","latitude":"35.444639","longitude":"138.453472","source_code":"KT200683656120280025","project_name":"","survey_name":"\u4e2d\u90e8\u6a2a\u65ad\u81ea\u52d5\u8eca\u9053 \u5730\u8cea\u8abf\u67fb\u305d\u306e4","client_name":"\u56fd\u571f\u4ea4\u901a\u7701\u95a2\u6771\u5730\u65b9\u6574\u5099\u5c40 \u7532\u5e9c\u6cb3\u5ddd\u56fd\u9053\u4e8b\u52d9\u6240","boring_xml_url":47,"boring_view_url":1,"soilmap_view_url":null,"soiltest_xml_url":0,"soiltest_view_url":0},{"id":244051,"code":"B4KJ201802000-9531","latitude":"35.444139","longitude":"138.453611","source_code":"KT200683656120280024","project_name":"","survey_name":"\u4e2d\u90e8\u6a2a\u65ad\u81ea\u52d5\u8eca\u9053 \u5730\u8cea\u8abf\u67fb\u305d\u306e4","client_name":"\u56fd\u571f\u4ea4\u901a\u7701\u95a2\u6771\u5730\u65b9\u6574\u5099\u5c40 \u7532\u5e9c\u6cb3\u5ddd\u56fd\u9053\u4e8b\u52d9\u6240","boring_xml_url":47,"boring_view_url":1,"soilmap_view_url":null,"soiltest_xml_url":0,"soiltest_view_url":0},{"id":244050,"code":"B4KJ201802000-9530","latitude":"35.444","longitude":"138.453639","source_code":"KT200683656120280023","project_name":"","survey_name":"\u4e2d\u90e8\u6a2a\u65ad\u81ea\u52d5\u8eca\u9053 \u5730\u8cea\u8abf\u67fb\u305d\u306e4","client_name":"\u56fd\u571f\u4ea4\u901a\u7701\u95a2\u6771\u5730\u65b9\u6574\u5099\u5c40 \u7532\u5e9c\u6cb3\u5ddd\u56fd\u9053\u4e8b\u52d9\u6240","boring_xml_url":47,"boring_view_url":1,"soilmap_view_url":null,"soiltest_xml_url":0,"soiltest_view_url":0},{"id":244049,"code":"B4KJ201802000-9529","latitude":"35.443639","longitude":"138.45375","source_code":"KT200683656120280022","project_name":"","survey_name":"\u4e2d\u90e8\u6a2a\u65ad\u81ea\u52d5\u8eca\u9053 \u5730\u8cea\u8abf\u67fb\u305d\u306e4","client_name":"\u56fd\u571f\u4ea4\u901a\u7701\u95a2\u6771\u5730\u65b9\u6574\u5099\u5c40 \u7532\u5e9c\u6cb3\u5ddd\u56fd\u9053\u4e8b\u52d9\u6240","boring_xml_url":47,"boring_view_url":1,"soilmap_view_url":null,"soiltest_xml_url":0,"soiltest_view_url":0},{"id":244048,"code":"B4KJ201802000-9528","latitude":"35.443167","longitude":"138.454222","source_code":"KT200683656120280021","project_name":"","survey_name":"\u4e2d\u90e8\u6a2a\u65ad\u81ea\u52d5\u8eca\u9053 \u5730\u8cea\u8abf\u67fb\u305d\u306e4","client_name":"\u56fd\u571f\u4ea4\u901a\u7701\u95a2\u6771\u5730\u65b9\u6574\u5099\u5c40 \u7532\u5e9c\u6cb3\u5ddd\u56fd\u9053\u4e8b\u52d9\u6240","boring_xml_url":47,"boring_view_url":1,"soilmap_view_url":null,"soiltest_xml_url":0,"soiltest_view_url":0},{"id":244047,"code":"B4KJ201802000-9527","latitude":"35.443139","longitude":"138.453972","source_code":"KT200683656120280020","project_name":"","survey_name":"\u4e2d\u90e8\u6a2a\u65ad\u81ea\u52d5\u8eca\u9053 \u5730\u8cea\u8abf\u67fb\u305d\u306e4","client_name":"\u56fd\u571f\u4ea4\u901a\u7701\u95a2\u6771\u5730\u65b9\u6574\u5099\u5c40 \u7532\u5e9c\u6cb3\u5ddd\u56fd\u9053\u4e8b\u52d9\u6240","boring_xml_url":47,"boring_view_url":1,"soilmap_view_url":null,"soiltest_xml_url":0,"soiltest_view_url":0},{"id":244046,"code":"B4KJ201802000-9526","latitude":"35.442972","longitude":"138.454","source_code":"KT200683656120280019","project_name":"","survey_name":"\u4e2d\u90e8\u6a2a\u65ad\u81ea\u52d5\u8eca\u9053 \u5730\u8cea\u8abf\u67fb\u305d\u306e4","client_name":"\u56fd\u571f\u4ea4\u901a\u7701\u95a2\u6771\u5730\u65b9\u6574\u5099\u5c40 \u7532\u5e9c\u6cb3\u5ddd\u56fd\u9053\u4e8b\u52d9\u6240","boring_xml_url":47,"boring_view_url":1,"soilmap_view_url":null,"soiltest_xml_url":0,"soiltest_view_url":0},{"id":244045,"code":"B4KJ201802000-9525","latitude":"35.4425","longitude":"138.454056","source_code":"KT200683656120280018","project_name":"","survey_name":"\u4e2d\u90e8\u6a2a\u65ad\u81ea\u52d5\u8eca\u9053 \u5730\u8cea\u8abf\u67fb\u305d\u306e4","client_name":"\u56fd\u571f\u4ea4\u901a\u7701\u95a2\u6771\u5730\u65b9\u6574\u5099\u5c40 \u7532\u5e9c\u6cb3\u5ddd\u56fd\u9053\u4e8b\u52d9\u6240","boring_xml_url":47,"boring_view_url":1,"soilmap_view_url":null,"soiltest_xml_url":0,"soiltest_view_url":0},{"id":244044,"code":"B4KJ201802000-9524","latitude":"35.442028","longitude":"138.454194","source_code":"KT200683656120280017","project_name":"","survey_name":"\u4e2d\u90e8\u6a2a\u65ad\u81ea\u52d5\u8eca\u9053 \u5730\u8cea\u8abf\u67fb\u305d\u306e4","client_name":"\u56fd\u571f\u4ea4\u901a\u7701\u95a2\u6771\u5730\u65b9\u6574\u5099\u5c40 \u7532\u5e9c\u6cb3\u5ddd\u56fd\u9053\u4e8b\u52d9\u6240","boring_xml_url":47,"boring_view_url":1,"soilmap_view_url":null,"soiltest_xml_url":0,"soiltest_view_url":0},{"id":244043,"code":"B4KJ201802000-9523","latitude":"35.441917","longitude":"138.454306","source_code":"KT200683656120280016","project_name":"","survey_name":"\u4e2d\u90e8\u6a2a\u65ad\u81ea\u52d5\u8eca\u9053 \u5730\u8cea\u8abf\u67fb\u305d\u306e4","client_name":"\u56fd\u571f\u4ea4\u901a\u7701\u95a2\u6771\u5730\u65b9\u6574\u5099\u5c40 \u7532\u5e9c\u6cb3\u5ddd\u56fd\u9053\u4e8b\u52d9\u6240","boring_xml_url":47,"boring_view_url":1,"soilmap_view_url":null,"soiltest_xml_url":0,"soiltest_view_url":0},{"id":244042,"code":"B4KJ201802000-9522","latitude":"35.421306","longitude":"138.461667","source_code":"KT200683656120280015","project_name":"","survey_name":"\u4e2d\u90e8\u6a2a\u65ad\u81ea\u52d5\u8eca\u9053 \u5730\u8cea\u8abf\u67fb\u305d\u306e4","client_name":"\u56fd\u571f\u4ea4\u901a\u7701\u95a2\u6771\u5730\u65b9\u6574\u5099\u5c40 \u7532\u5e9c\u6cb3\u5ddd\u56fd\u9053\u4e8b\u52d9\u6240","boring_xml_url":47,"boring_view_url":1,"soilmap_view_url":null,"soiltest_xml_url":0,"soiltest_view_url":0},{"id":244041,"code":"B4KJ201802000-9521","latitude":"35.421083","longitude":"138.461667","source_code":"KT200683656120280014","project_name":"","survey_name":"\u4e2d\u90e8\u6a2a\u65ad\u81ea\u52d5\u8eca\u9053 \u5730\u8cea\u8abf\u67fb\u305d\u306e4","client_name":"\u56fd\u571f\u4ea4\u901a\u7701\u95a2\u6771\u5730\u65b9\u6574\u5099\u5c40 \u7532\u5e9c\u6cb3\u5ddd\u56fd\u9053\u4e8b\u52d9\u6240","boring_xml_url":47,"boring_view_url":1,"soilmap_view_url":null,"soiltest_xml_url":0,"soiltest_view_url":0},{"id":244040,"code":"B4KJ201802000-9520","latitude":"35.420889","longitude":"138.461722","source_code":"KT200683656120280013","project_name":"","survey_name":"\u4e2d\u90e8\u6a2a\u65ad\u81ea\u52d5\u8eca\u9053 \u5730\u8cea\u8abf\u67fb\u305d\u306e4","client_name":"\u56fd\u571f\u4ea4\u901a\u7701\u95a2\u6771\u5730\u65b9\u6574\u5099\u5c40 \u7532\u5e9c\u6cb3\u5ddd\u56fd\u9053\u4e8b\u52d9\u6240","boring_xml_url":47,"boring_view_url":1,"soilmap_view_url":null,"soiltest_xml_url":0,"soiltest_view_url":0},{"id":244039,"code":"B4KJ201802000-9519","latitude":"35.419444","longitude":"138.462056","source_code":"KT200683656120280012","project_name":"","survey_name":"\u4e2d\u90e8\u6a2a\u65ad\u81ea\u52d5\u8eca\u9053 \u5730\u8cea\u8abf\u67fb\u305d\u306e4","client_name":"\u56fd\u571f\u4ea4\u901a\u7701\u95a2\u6771\u5730\u65b9\u6574\u5099\u5c40 \u7532\u5e9c\u6cb3\u5ddd\u56fd\u9053\u4e8b\u52d9\u6240","boring_xml_url":47,"boring_view_url":1,"soilmap_view_url":null,"soiltest_xml_url":0,"soiltest_view_url":0},{"id":244038,"code":"B4KJ201802000-9518","latitude":"35.418917","longitude":"138.462167","source_code":"KT200683656120280011","project_name":"","survey_name":"\u4e2d\u90e8\u6a2a\u65ad\u81ea\u52d5\u8eca\u9053 \u5730\u8cea\u8abf\u67fb\u305d\u306e4","client_name":"\u56fd\u571f\u4ea4\u901a\u7701\u95a2\u6771\u5730\u65b9\u6574\u5099\u5c40 \u7532\u5e9c\u6cb3\u5ddd\u56fd\u9053\u4e8b\u52d9\u6240","boring_xml_url":47,"boring_view_url":1,"soilmap_view_url":null,"soiltest_xml_url":0,"soiltest_view_url":0},{"id":244037,"code":"B4KJ201802000-9517","latitude":"35.417806","longitude":"138.462861","source_code":"KT200683656120280010","project_name":"","survey_name":"\u4e2d\u90e8\u6a2a\u65ad\u81ea\u52d5\u8eca\u9053 \u5730\u8cea\u8abf\u67fb\u305d\u306e4","client_name":"\u56fd\u571f\u4ea4\u901a\u7701\u95a2\u6771\u5730\u65b9\u6574\u5099\u5c40 \u7532\u5e9c\u6cb3\u5ddd\u56fd\u9053\u4e8b\u52d9\u6240","boring_xml_url":47,"boring_view_url":1,"soilmap_view_url":null,"soiltest_xml_url":0,"soiltest_view_url":0},{"id":244036,"code":"B4KJ201802000-9516","latitude":"35.417806","longitude":"138.462333","source_code":"KT200683656120280009","project_name":"","survey_name":"\u4e2d\u90e8\u6a2a\u65ad\u81ea\u52d5\u8eca\u9053 \u5730\u8cea\u8abf\u67fb\u305d\u306e4","client_name":"\u56fd\u571f\u4ea4\u901a\u7701\u95a2\u6771\u5730\u65b9\u6574\u5099\u5c40 \u7532\u5e9c\u6cb3\u5ddd\u56fd\u9053\u4e8b\u52d9\u6240","boring_xml_url":47,"boring_view_url":1,"soilmap_view_url":null,"soiltest_xml_url":0,"soiltest_view_url":0},{"id":244035,"code":"B4KJ201802000-9515","latitude":"35.416833","longitude":"138.4635","source_code":"KT200683656120280008","project_name":"","survey_name":"\u4e2d\u90e8\u6a2a\u65ad\u81ea\u52d5\u8eca\u9053 \u5730\u8cea\u8abf\u67fb\u305d\u306e4","client_name":"\u56fd\u571f\u4ea4\u901a\u7701\u95a2\u6771\u5730\u65b9\u6574\u5099\u5c40 \u7532\u5e9c\u6cb3\u5ddd\u56fd\u9053\u4e8b\u52d9\u6240","boring_xml_url":47,"boring_view_url":1,"soilmap_view_url":null,"soiltest_xml_url":0,"soiltest_view_url":0},{"id":244034,"code":"B4KJ201802000-9514","latitude":"35.417","longitude":"138.46325","source_code":"KT200683656120280007","project_name":"","survey_name":"\u4e2d\u90e8\u6a2a\u65ad\u81ea\u52d5\u8eca\u9053 \u5730\u8cea\u8abf\u67fb\u305d\u306e4","client_name":"\u56fd\u571f\u4ea4\u901a\u7701\u95a2\u6771\u5730\u65b9\u6574\u5099\u5c40 \u7532\u5e9c\u6cb3\u5ddd\u56fd\u9053\u4e8b\u52d9\u6240","boring_xml_url":47,"boring_view_url":1,"soilmap_view_url":null,"soiltest_xml_url":0,"soiltest_view_url":0}]}}