{"header":{"xyz":{"source":[],"mosaic":false},"page":289,"raw":{"soiltest_result":"0","bbox":"57.598333,109.544722,1.933333,163.806111","page":"289"},"conditions":{"soiltest_result":0,"north":57.598333,"west":109.544722,"south":1.933333,"east":163.806111},"success":true,"message":""},"data":{"meta":{"total":212844,"page":289,"pages":7095,"count":30},"values":[{"id":564335,"code":"NGIC202204366-0012","latitude":"31.561187916667","longitude":"131.37132447222","source_code":"","project_name":"","survey_name":"\u4ee4\u548c3\u5e74\u5ea6 \u6cb9\u6d25\u30fb\u590f\u4e95\u9053\u8def\uff08\u6cb9\u6d25\u301c\u5357\u90f7\uff09\u5730\u8cea\u8abf\u67fb\u696d\u52d9","client_name":"\u56fd\u571f\u4ea4\u901a\u7701\u4e5d\u5dde\u5730\u65b9\u6574\u5099\u5c40\u5bae\u5d0e\u6cb3\u5ddd\u56fd\u9053\u4e8b\u52d9\u6240","boring_xml_url":47,"boring_view_url":1,"soilmap_view_url":null,"soiltest_xml_url":47,"soiltest_view_url":47},{"id":564334,"code":"NGIC202204366-0011","latitude":"31.574493666667","longitude":"131.37212177778","source_code":"","project_name":"","survey_name":"\u4ee4\u548c3\u5e74\u5ea6 \u6cb9\u6d25\u30fb\u590f\u4e95\u9053\u8def\uff08\u6cb9\u6d25\u301c\u5357\u90f7\uff09\u5730\u8cea\u8abf\u67fb\u696d\u52d9","client_name":"\u56fd\u571f\u4ea4\u901a\u7701\u4e5d\u5dde\u5730\u65b9\u6574\u5099\u5c40\u5bae\u5d0e\u6cb3\u5ddd\u56fd\u9053\u4e8b\u52d9\u6240","boring_xml_url":47,"boring_view_url":1,"soilmap_view_url":null,"soiltest_xml_url":0,"soiltest_view_url":0},{"id":564333,"code":"NGIC202204366-0010","latitude":"31.574473861111","longitude":"131.37244402778","source_code":"","project_name":"","survey_name":"\u4ee4\u548c3\u5e74\u5ea6 \u6cb9\u6d25\u30fb\u590f\u4e95\u9053\u8def\uff08\u6cb9\u6d25\u301c\u5357\u90f7\uff09\u5730\u8cea\u8abf\u67fb\u696d\u52d9","client_name":"\u56fd\u571f\u4ea4\u901a\u7701\u4e5d\u5dde\u5730\u65b9\u6574\u5099\u5c40\u5bae\u5d0e\u6cb3\u5ddd\u56fd\u9053\u4e8b\u52d9\u6240","boring_xml_url":47,"boring_view_url":1,"soilmap_view_url":null,"soiltest_xml_url":0,"soiltest_view_url":0},{"id":564332,"code":"NGIC202204366-0009","latitude":"31.57589375","longitude":"131.37217186111","source_code":"","project_name":"","survey_name":"\u4ee4\u548c3\u5e74\u5ea6 \u6cb9\u6d25\u30fb\u590f\u4e95\u9053\u8def\uff08\u6cb9\u6d25\u301c\u5357\u90f7\uff09\u5730\u8cea\u8abf\u67fb\u696d\u52d9","client_name":"\u56fd\u571f\u4ea4\u901a\u7701\u4e5d\u5dde\u5730\u65b9\u6574\u5099\u5c40\u5bae\u5d0e\u6cb3\u5ddd\u56fd\u9053\u4e8b\u52d9\u6240","boring_xml_url":47,"boring_view_url":1,"soilmap_view_url":null,"soiltest_xml_url":47,"soiltest_view_url":47},{"id":564331,"code":"NGIC202204366-0008","latitude":"31.576114583333","longitude":"131.37288961111","source_code":"","project_name":"","survey_name":"\u4ee4\u548c3\u5e74\u5ea6 \u6cb9\u6d25\u30fb\u590f\u4e95\u9053\u8def\uff08\u6cb9\u6d25\u301c\u5357\u90f7\uff09\u5730\u8cea\u8abf\u67fb\u696d\u52d9","client_name":"\u56fd\u571f\u4ea4\u901a\u7701\u4e5d\u5dde\u5730\u65b9\u6574\u5099\u5c40\u5bae\u5d0e\u6cb3\u5ddd\u56fd\u9053\u4e8b\u52d9\u6240","boring_xml_url":47,"boring_view_url":1,"soilmap_view_url":null,"soiltest_xml_url":47,"soiltest_view_url":47},{"id":564330,"code":"NGIC202204366-0007","latitude":"31.576373333333","longitude":"131.37255288889","source_code":"","project_name":"","survey_name":"\u4ee4\u548c3\u5e74\u5ea6 \u6cb9\u6d25\u30fb\u590f\u4e95\u9053\u8def\uff08\u6cb9\u6d25\u301c\u5357\u90f7\uff09\u5730\u8cea\u8abf\u67fb\u696d\u52d9","client_name":"\u56fd\u571f\u4ea4\u901a\u7701\u4e5d\u5dde\u5730\u65b9\u6574\u5099\u5c40\u5bae\u5d0e\u6cb3\u5ddd\u56fd\u9053\u4e8b\u52d9\u6240","boring_xml_url":47,"boring_view_url":1,"soilmap_view_url":null,"soiltest_xml_url":47,"soiltest_view_url":47},{"id":564329,"code":"NGIC202204366-0006","latitude":"31.577837972222","longitude":"131.37349033333","source_code":"","project_name":"","survey_name":"\u4ee4\u548c3\u5e74\u5ea6 \u6cb9\u6d25\u30fb\u590f\u4e95\u9053\u8def\uff08\u6cb9\u6d25\u301c\u5357\u90f7\uff09\u5730\u8cea\u8abf\u67fb\u696d\u52d9","client_name":"\u56fd\u571f\u4ea4\u901a\u7701\u4e5d\u5dde\u5730\u65b9\u6574\u5099\u5c40\u5bae\u5d0e\u6cb3\u5ddd\u56fd\u9053\u4e8b\u52d9\u6240","boring_xml_url":47,"boring_view_url":1,"soilmap_view_url":null,"soiltest_xml_url":0,"soiltest_view_url":0},{"id":564328,"code":"NGIC202204366-0005","latitude":"31.578225388889","longitude":"131.37335605556","source_code":"","project_name":"","survey_name":"\u4ee4\u548c3\u5e74\u5ea6 \u6cb9\u6d25\u30fb\u590f\u4e95\u9053\u8def\uff08\u6cb9\u6d25\u301c\u5357\u90f7\uff09\u5730\u8cea\u8abf\u67fb\u696d\u52d9","client_name":"\u56fd\u571f\u4ea4\u901a\u7701\u4e5d\u5dde\u5730\u65b9\u6574\u5099\u5c40\u5bae\u5d0e\u6cb3\u5ddd\u56fd\u9053\u4e8b\u52d9\u6240","boring_xml_url":47,"boring_view_url":1,"soilmap_view_url":null,"soiltest_xml_url":0,"soiltest_view_url":0},{"id":564327,"code":"NGIC202204366-0004","latitude":"31.59270775","longitude":"131.38615827778","source_code":"","project_name":"","survey_name":"\u4ee4\u548c3\u5e74\u5ea6 \u6cb9\u6d25\u30fb\u590f\u4e95\u9053\u8def\uff08\u6cb9\u6d25\u301c\u5357\u90f7\uff09\u5730\u8cea\u8abf\u67fb\u696d\u52d9","client_name":"\u56fd\u571f\u4ea4\u901a\u7701\u4e5d\u5dde\u5730\u65b9\u6574\u5099\u5c40\u5bae\u5d0e\u6cb3\u5ddd\u56fd\u9053\u4e8b\u52d9\u6240","boring_xml_url":47,"boring_view_url":1,"soilmap_view_url":null,"soiltest_xml_url":0,"soiltest_view_url":0},{"id":564326,"code":"NGIC202204366-0003","latitude":"31.595298305556","longitude":"131.38846194444","source_code":"","project_name":"","survey_name":"\u4ee4\u548c3\u5e74\u5ea6 \u6cb9\u6d25\u30fb\u590f\u4e95\u9053\u8def\uff08\u6cb9\u6d25\u301c\u5357\u90f7\uff09\u5730\u8cea\u8abf\u67fb\u696d\u52d9","client_name":"\u56fd\u571f\u4ea4\u901a\u7701\u4e5d\u5dde\u5730\u65b9\u6574\u5099\u5c40\u5bae\u5d0e\u6cb3\u5ddd\u56fd\u9053\u4e8b\u52d9\u6240","boring_xml_url":47,"boring_view_url":1,"soilmap_view_url":null,"soiltest_xml_url":47,"soiltest_view_url":47},{"id":564325,"code":"NGIC202204366-0002","latitude":"31.594922972222","longitude":"131.38917713889","source_code":"","project_name":"","survey_name":"\u4ee4\u548c3\u5e74\u5ea6 \u6cb9\u6d25\u30fb\u590f\u4e95\u9053\u8def\uff08\u6cb9\u6d25\u301c\u5357\u90f7\uff09\u5730\u8cea\u8abf\u67fb\u696d\u52d9","client_name":"\u56fd\u571f\u4ea4\u901a\u7701\u4e5d\u5dde\u5730\u65b9\u6574\u5099\u5c40\u5bae\u5d0e\u6cb3\u5ddd\u56fd\u9053\u4e8b\u52d9\u6240","boring_xml_url":47,"boring_view_url":1,"soilmap_view_url":null,"soiltest_xml_url":47,"soiltest_view_url":47},{"id":564324,"code":"NGIC202204366-0001","latitude":"31.596056972222","longitude":"131.38993822222","source_code":"","project_name":"","survey_name":"\u4ee4\u548c3\u5e74\u5ea6 \u6cb9\u6d25\u30fb\u590f\u4e95\u9053\u8def\uff08\u6cb9\u6d25\u301c\u5357\u90f7\uff09\u5730\u8cea\u8abf\u67fb\u696d\u52d9","client_name":"\u56fd\u571f\u4ea4\u901a\u7701\u4e5d\u5dde\u5730\u65b9\u6574\u5099\u5c40\u5bae\u5d0e\u6cb3\u5ddd\u56fd\u9053\u4e8b\u52d9\u6240","boring_xml_url":47,"boring_view_url":1,"soilmap_view_url":null,"soiltest_xml_url":47,"soiltest_view_url":47},{"id":564323,"code":"NGIC202204597-0002","latitude":"36.805077","longitude":"139.03470869444","source_code":"","project_name":"","survey_name":"R4\u85e4\u539f\u30c0\u30e0\u7ba1\u7406\u7528\u901a\u8def\u4ed6\u6574\u5099\u5de5\u4e8b","client_name":"\u56fd\u571f\u4ea4\u901a\u7701\u95a2\u6771\u5730\u65b9\u6574\u5099\u5c40\u5229\u6839\u5ddd\u30c0\u30e0\u7d71\u5408\u7ba1\u7406\u4e8b\u52d9\u6240","boring_xml_url":47,"boring_view_url":1,"soilmap_view_url":null,"soiltest_xml_url":0,"soiltest_view_url":0},{"id":564322,"code":"NGIC202204597-0001","latitude":"36.804882305556","longitude":"139.03540430556","source_code":"","project_name":"","survey_name":"R4\u85e4\u539f\u30c0\u30e0\u7ba1\u7406\u7528\u901a\u8def\u4ed6\u6574\u5099\u5de5\u4e8b","client_name":"\u56fd\u571f\u4ea4\u901a\u7701\u95a2\u6771\u5730\u65b9\u6574\u5099\u5c40\u5229\u6839\u5ddd\u30c0\u30e0\u7d71\u5408\u7ba1\u7406\u4e8b\u52d9\u6240","boring_xml_url":47,"boring_view_url":1,"soilmap_view_url":null,"soiltest_xml_url":0,"soiltest_view_url":0},{"id":564293,"code":"NGIC202204487-0007","latitude":"42.3822685","longitude":"143.06083844444","source_code":"","project_name":"","survey_name":"\u4e00\u822c\u56fd\u9053236\u53f7\u5e83\u5c3e\u753a\u5ddd\u898b\u30c8\u30f3\u30cd\u30eb\u5730\u8cea\u8abf\u67fb\u696d\u52d9","client_name":"\u56fd\u571f\u4ea4\u901a\u7701\u5317\u6d77\u9053\u958b\u767a\u5c40\u5e2f\u5e83\u958b\u767a\u5efa\u8a2d\u90e8\u672c\u90e8","boring_xml_url":47,"boring_view_url":1,"soilmap_view_url":null,"soiltest_xml_url":0,"soiltest_view_url":0},{"id":564292,"code":"NGIC202204487-0006","latitude":"42.382499055556","longitude":"143.061532","source_code":"","project_name":"","survey_name":"\u4e00\u822c\u56fd\u9053236\u53f7\u5e83\u5c3e\u753a\u5ddd\u898b\u30c8\u30f3\u30cd\u30eb\u5730\u8cea\u8abf\u67fb\u696d\u52d9","client_name":"\u56fd\u571f\u4ea4\u901a\u7701\u5317\u6d77\u9053\u958b\u767a\u5c40\u5e2f\u5e83\u958b\u767a\u5efa\u8a2d\u90e8\u672c\u90e8","boring_xml_url":47,"boring_view_url":1,"soilmap_view_url":null,"soiltest_xml_url":0,"soiltest_view_url":0},{"id":564291,"code":"NGIC202204487-0005","latitude":"42.382560555556","longitude":"143.06120644444","source_code":"","project_name":"","survey_name":"\u4e00\u822c\u56fd\u9053236\u53f7\u5e83\u5c3e\u753a\u5ddd\u898b\u30c8\u30f3\u30cd\u30eb\u5730\u8cea\u8abf\u67fb\u696d\u52d9","client_name":"\u56fd\u571f\u4ea4\u901a\u7701\u5317\u6d77\u9053\u958b\u767a\u5c40\u5e2f\u5e83\u958b\u767a\u5efa\u8a2d\u90e8\u672c\u90e8","boring_xml_url":47,"boring_view_url":1,"soilmap_view_url":null,"soiltest_xml_url":0,"soiltest_view_url":0},{"id":564290,"code":"NGIC202204487-0004","latitude":"42.382914055556","longitude":"143.06109866667","source_code":"","project_name":"","survey_name":"\u4e00\u822c\u56fd\u9053236\u53f7\u5e83\u5c3e\u753a\u5ddd\u898b\u30c8\u30f3\u30cd\u30eb\u5730\u8cea\u8abf\u67fb\u696d\u52d9","client_name":"\u56fd\u571f\u4ea4\u901a\u7701\u5317\u6d77\u9053\u958b\u767a\u5c40\u5e2f\u5e83\u958b\u767a\u5efa\u8a2d\u90e8\u672c\u90e8","boring_xml_url":47,"boring_view_url":1,"soilmap_view_url":null,"soiltest_xml_url":0,"soiltest_view_url":0},{"id":564289,"code":"NGIC202204487-0003","latitude":"42.379218777778","longitude":"143.08958638889","source_code":"","project_name":"","survey_name":"\u4e00\u822c\u56fd\u9053236\u53f7\u5e83\u5c3e\u753a\u5ddd\u898b\u30c8\u30f3\u30cd\u30eb\u5730\u8cea\u8abf\u67fb\u696d\u52d9","client_name":"\u56fd\u571f\u4ea4\u901a\u7701\u5317\u6d77\u9053\u958b\u767a\u5c40\u5e2f\u5e83\u958b\u767a\u5efa\u8a2d\u90e8\u672c\u90e8","boring_xml_url":47,"boring_view_url":1,"soilmap_view_url":null,"soiltest_xml_url":0,"soiltest_view_url":0},{"id":564288,"code":"NGIC202204487-0002","latitude":"42.382650916667","longitude":"143.06126811111","source_code":"","project_name":"","survey_name":"\u4e00\u822c\u56fd\u9053236\u53f7\u5e83\u5c3e\u753a\u5ddd\u898b\u30c8\u30f3\u30cd\u30eb\u5730\u8cea\u8abf\u67fb\u696d\u52d9","client_name":"\u56fd\u571f\u4ea4\u901a\u7701\u5317\u6d77\u9053\u958b\u767a\u5c40\u5e2f\u5e83\u958b\u767a\u5efa\u8a2d\u90e8\u672c\u90e8","boring_xml_url":47,"boring_view_url":1,"soilmap_view_url":null,"soiltest_xml_url":0,"soiltest_view_url":0},{"id":564287,"code":"NGIC202204487-0001","latitude":"42.379307166667","longitude":"143.0895405","source_code":"","project_name":"","survey_name":"\u4e00\u822c\u56fd\u9053236\u53f7\u5e83\u5c3e\u753a\u5ddd\u898b\u30c8\u30f3\u30cd\u30eb\u5730\u8cea\u8abf\u67fb\u696d\u52d9","client_name":"\u56fd\u571f\u4ea4\u901a\u7701\u5317\u6d77\u9053\u958b\u767a\u5c40\u5e2f\u5e83\u958b\u767a\u5efa\u8a2d\u90e8\u672c\u90e8","boring_xml_url":47,"boring_view_url":1,"soilmap_view_url":null,"soiltest_xml_url":0,"soiltest_view_url":0},{"id":564275,"code":"NGIC202204582-0005","latitude":"35.663365888889","longitude":"139.91779697222","source_code":"","project_name":"","survey_name":"R3\u56fd\u9053357\u53f7\u9053\u8def\u69cb\u9020\u7269\u4ed6\u8a73\u7d30\u8a2d\u8a08\u696d\u52d9","client_name":"\u56fd\u571f\u4ea4\u901a\u7701\u95a2\u6771\u5730\u65b9\u6574\u5099\u5c40\u9996\u90fd\u56fd\u9053\u4e8b\u52d9\u6240","boring_xml_url":47,"boring_view_url":1,"soilmap_view_url":null,"soiltest_xml_url":0,"soiltest_view_url":0},{"id":564274,"code":"NGIC202204582-0004","latitude":"35.663074611111","longitude":"139.91753108333","source_code":"","project_name":"","survey_name":"R3\u56fd\u9053357\u53f7\u9053\u8def\u69cb\u9020\u7269\u4ed6\u8a73\u7d30\u8a2d\u8a08\u696d\u52d9","client_name":"\u56fd\u571f\u4ea4\u901a\u7701\u95a2\u6771\u5730\u65b9\u6574\u5099\u5c40\u9996\u90fd\u56fd\u9053\u4e8b\u52d9\u6240","boring_xml_url":47,"boring_view_url":1,"soilmap_view_url":null,"soiltest_xml_url":0,"soiltest_view_url":0},{"id":564273,"code":"NGIC202204582-0003","latitude":"35.646845944444","longitude":"139.89937441667","source_code":"","project_name":"","survey_name":"R3\u56fd\u9053357\u53f7\u9053\u8def\u69cb\u9020\u7269\u4ed6\u8a73\u7d30\u8a2d\u8a08\u696d\u52d9","client_name":"\u56fd\u571f\u4ea4\u901a\u7701\u95a2\u6771\u5730\u65b9\u6574\u5099\u5c40\u9996\u90fd\u56fd\u9053\u4e8b\u52d9\u6240","boring_xml_url":47,"boring_view_url":1,"soilmap_view_url":null,"soiltest_xml_url":0,"soiltest_view_url":0},{"id":564272,"code":"NGIC202204582-0002","latitude":"35.639828833333","longitude":"139.89026119444","source_code":"","project_name":"","survey_name":"R3\u56fd\u9053357\u53f7\u9053\u8def\u69cb\u9020\u7269\u4ed6\u8a73\u7d30\u8a2d\u8a08\u696d\u52d9","client_name":"\u56fd\u571f\u4ea4\u901a\u7701\u95a2\u6771\u5730\u65b9\u6574\u5099\u5c40\u9996\u90fd\u56fd\u9053\u4e8b\u52d9\u6240","boring_xml_url":47,"boring_view_url":1,"soilmap_view_url":null,"soiltest_xml_url":0,"soiltest_view_url":0},{"id":564271,"code":"NGIC202204582-0001","latitude":"35.640105","longitude":"139.89059575","source_code":"","project_name":"","survey_name":"R3\u56fd\u9053357\u53f7\u9053\u8def\u69cb\u9020\u7269\u4ed6\u8a73\u7d30\u8a2d\u8a08\u696d\u52d9","client_name":"\u56fd\u571f\u4ea4\u901a\u7701\u95a2\u6771\u5730\u65b9\u6574\u5099\u5c40\u9996\u90fd\u56fd\u9053\u4e8b\u52d9\u6240","boring_xml_url":47,"boring_view_url":1,"soilmap_view_url":null,"soiltest_xml_url":0,"soiltest_view_url":0},{"id":564252,"code":"NGIC202204283-0003","latitude":"45.0651","longitude":"141.74006944444","source_code":"","project_name":"\u56fd\u55b6\u7dcf\u5408\u8fb2\u5730\u9632\u707d\u4e8b\u696d\u5e4c\u5ef6\u5730\u533a\u4e8b\u696d\u8a08\u753b","survey_name":"\u4ee4\u548c4\u5e74\u5ea6\u65bd\u884c\u5e4c\u5ef6\u5730\u533a\u8fb2\u5730\u4fdd\u5168\u5916\u8a2d\u8a08\u7b49\u696d\u52d9","client_name":"\u56fd\u571f\u4ea4\u901a\u7701\u5317\u6d77\u9053\u958b\u767a\u5c40\u7a1a\u5185\u958b\u767a\u5efa\u8a2d\u90e8\u7a1a\u5185\u8fb2\u696d\u4e8b\u52d9\u6240","boring_xml_url":47,"boring_view_url":1,"soilmap_view_url":null,"soiltest_xml_url":47,"soiltest_view_url":47},{"id":564251,"code":"NGIC202204283-0002","latitude":"45.060188888889","longitude":"141.74106944444","source_code":"","project_name":"\u56fd\u55b6\u7dcf\u5408\u8fb2\u5730\u9632\u707d\u4e8b\u696d\u5e4c\u5ef6\u5730\u533a\u4e8b\u696d\u8a08\u753b","survey_name":"\u4ee4\u548c4\u5e74\u5ea6\u65bd\u884c\u5e4c\u5ef6\u5730\u533a\u8fb2\u5730\u4fdd\u5168\u5916\u8a2d\u8a08\u7b49\u696d\u52d9","client_name":"\u56fd\u571f\u4ea4\u901a\u7701\u5317\u6d77\u9053\u958b\u767a\u5c40\u7a1a\u5185\u958b\u767a\u5efa\u8a2d\u90e8\u7a1a\u5185\u8fb2\u696d\u4e8b\u52d9\u6240","boring_xml_url":47,"boring_view_url":1,"soilmap_view_url":null,"soiltest_xml_url":47,"soiltest_view_url":47},{"id":564250,"code":"NGIC202204283-0001","latitude":"45.021575","longitude":"141.85614722222","source_code":"","project_name":"\u56fd\u55b6\u7dcf\u5408\u8fb2\u5730\u9632\u707d\u4e8b\u696d\u5e4c\u5ef6\u5730\u533a\u4e8b\u696d\u8a08\u753b","survey_name":"\u4ee4\u548c4\u5e74\u5ea6\u65bd\u884c\u5e4c\u5ef6\u5730\u533a\u8fb2\u5730\u4fdd\u5168\u5916\u8a2d\u8a08\u7b49\u696d\u52d9","client_name":"\u56fd\u571f\u4ea4\u901a\u7701\u5317\u6d77\u9053\u958b\u767a\u5c40\u7a1a\u5185\u958b\u767a\u5efa\u8a2d\u90e8\u7a1a\u5185\u8fb2\u696d\u4e8b\u52d9\u6240","boring_xml_url":47,"boring_view_url":1,"soilmap_view_url":null,"soiltest_xml_url":47,"soiltest_view_url":47},{"id":564249,"code":"NGIC202204508-0005","latitude":"35.239016583333","longitude":"137.83617894444","source_code":"","project_name":"","survey_name":"\u4ee4\u548c4\u5e74\u5ea6 \u5929\u7adc\u5ddd\u6c34\u7cfb\u4e2d\u6d41\u5730\u533a\u5730\u3059\u3079\u308a\u5730\u8cea\u8abf\u67fb\u696d\u52d9","client_name":"\u56fd\u571f\u4ea4\u901a\u7701\u4e2d\u90e8\u5730\u65b9\u6574\u5099\u5c40\u5929\u7adc\u5ddd\u4e0a\u6d41\u6cb3\u5ddd\u4e8b\u52d9\u6240","boring_xml_url":47,"boring_view_url":1,"soilmap_view_url":null,"soiltest_xml_url":0,"soiltest_view_url":0}]}}