{"header":{"xyz":{"source":[],"mosaic":false},"page":2903,"raw":{"soiltest_result":"0","bbox":"57.598333,109.544722,1.933333,163.806111","page":"2903"},"conditions":{"soiltest_result":0,"north":57.598333,"west":109.544722,"south":1.933333,"east":163.806111},"success":true,"message":""},"data":{"meta":{"total":212844,"page":2903,"pages":7095,"count":30},"values":[{"id":243463,"code":"B4KJ201802000-8943","latitude":"36.4226","longitude":"138.821272","source_code":"KT200483416020250005","project_name":"","survey_name":"\u5e73\u621016\u5e74\u5ea6 \u699b\u540d\u5ddd\u7802\u9632\u5830\u5824\u7fa4\u6539\u7bc9\u691c\u8a0e\u696d\u52d9","client_name":"\u56fd\u571f\u4ea4\u901a\u7701 \u95a2\u6771\u5730\u65b9\u6574\u5099\u5c40 \u5229\u6839\u5ddd\u6c34\u7cfb\u7802\u9632\u4e8b\u52d9\u6240","boring_xml_url":47,"boring_view_url":1,"soilmap_view_url":null,"soiltest_xml_url":0,"soiltest_view_url":0},{"id":243462,"code":"B4KJ201802000-8942","latitude":"36.422156","longitude":"138.820995","source_code":"KT200483416020250004","project_name":"","survey_name":"\u5e73\u621016\u5e74\u5ea6 \u699b\u540d\u5ddd\u7802\u9632\u5830\u5824\u7fa4\u6539\u7bc9\u691c\u8a0e\u696d\u52d9","client_name":"\u56fd\u571f\u4ea4\u901a\u7701 \u95a2\u6771\u5730\u65b9\u6574\u5099\u5c40 \u5229\u6839\u5ddd\u6c34\u7cfb\u7802\u9632\u4e8b\u52d9\u6240","boring_xml_url":47,"boring_view_url":1,"soilmap_view_url":null,"soiltest_xml_url":0,"soiltest_view_url":0},{"id":243461,"code":"B4KJ201802000-8941","latitude":"36.43682","longitude":"138.825438","source_code":"KT200483416020250003","project_name":"","survey_name":"\u5e73\u621016\u5e74\u5ea6 \u699b\u540d\u5ddd\u7802\u9632\u5830\u5824\u7fa4\u6539\u7bc9\u691c\u8a0e\u696d\u52d9","client_name":"\u56fd\u571f\u4ea4\u901a\u7701 \u95a2\u6771\u5730\u65b9\u6574\u5099\u5c40 \u5229\u6839\u5ddd\u6c34\u7cfb\u7802\u9632\u4e8b\u52d9\u6240","boring_xml_url":47,"boring_view_url":1,"soilmap_view_url":null,"soiltest_xml_url":0,"soiltest_view_url":0},{"id":243460,"code":"B4KJ201802000-8940","latitude":"36.436543","longitude":"138.825161","source_code":"KT200483416020250002","project_name":"","survey_name":"\u5e73\u621016\u5e74\u5ea6 \u699b\u540d\u5ddd\u7802\u9632\u5830\u5824\u7fa4\u6539\u7bc9\u691c\u8a0e\u696d\u52d9","client_name":"\u56fd\u571f\u4ea4\u901a\u7701 \u95a2\u6771\u5730\u65b9\u6574\u5099\u5c40 \u5229\u6839\u5ddd\u6c34\u7cfb\u7802\u9632\u4e8b\u52d9\u6240","boring_xml_url":47,"boring_view_url":1,"soilmap_view_url":null,"soiltest_xml_url":0,"soiltest_view_url":0},{"id":243459,"code":"B4KJ201802000-8939","latitude":"36.43607","longitude":"138.824883","source_code":"KT200483416020250001","project_name":"","survey_name":"\u5e73\u621016\u5e74\u5ea6 \u699b\u540d\u5ddd\u7802\u9632\u5830\u5824\u7fa4\u6539\u7bc9\u691c\u8a0e\u696d\u52d9","client_name":"\u56fd\u571f\u4ea4\u901a\u7701 \u95a2\u6771\u5730\u65b9\u6574\u5099\u5c40 \u5229\u6839\u5ddd\u6c34\u7cfb\u7802\u9632\u4e8b\u52d9\u6240","boring_xml_url":47,"boring_view_url":1,"soilmap_view_url":null,"soiltest_xml_url":0,"soiltest_view_url":0},{"id":243458,"code":"B4KJ201802000-8938","latitude":"36.081111","longitude":"138.845833","source_code":"KT200483416020070002","project_name":"\u4f4f\u5c45\u9644\u6ca2\u7802\u9632\u5830\u5824\u8a73\u7d30\u8a2d\u8a08\u696d\u52d9","survey_name":"\u4f4f\u5c45\u9644\u6ca2\u7802\u9632\u5830\u5824\u8a73\u7d30\u8a2d\u8a08\u696d\u52d9","client_name":"\u56fd\u571f\u4ea4\u901a\u7701\u95a2\u6771\u5730\u65b9\u6574\u5099\u5c40 \u5229\u6839\u5ddd\u6c34\u7cfb\u7802\u9632\u4e8b\u52d9\u6240","boring_xml_url":47,"boring_view_url":1,"soilmap_view_url":null,"soiltest_xml_url":0,"soiltest_view_url":0},{"id":243457,"code":"B4KJ201802000-8937","latitude":"36.081111","longitude":"138.845833","source_code":"KT200483416020070001","project_name":"\u4f4f\u5c45\u9644\u6ca2\u7802\u9632\u5830\u5824\u8a73\u7d30\u8a2d\u8a08\u696d\u52d9","survey_name":"\u4f4f\u5c45\u9644\u6ca2\u7802\u9632\u5830\u5824\u8a73\u7d30\u8a2d\u8a08\u696d\u52d9","client_name":"\u56fd\u571f\u4ea4\u901a\u7701\u95a2\u6771\u5730\u65b9\u6574\u5099\u5c40 \u5229\u6839\u5ddd\u6c34\u7cfb\u7802\u9632\u4e8b\u52d9\u6240","boring_xml_url":47,"boring_view_url":1,"soilmap_view_url":null,"soiltest_xml_url":0,"soiltest_view_url":0},{"id":243456,"code":"B4KJ201802000-8936","latitude":"35.943278","longitude":"140.071389","source_code":"KT200483316020750008","project_name":"","survey_name":"\u7b95\u8f2a\u5730\u5148\u59162\u7b87\u6240\u5730\u8cea\u8abf\u67fb","client_name":"\u56fd\u571f\u4ea4\u901a\u7701 \u95a2\u6771\u5730\u65b9\u6574\u5099\u5c40 \u4e0b\u9928\u6cb3\u5ddd\u4e8b\u52d9\u6240","boring_xml_url":47,"boring_view_url":1,"soilmap_view_url":null,"soiltest_xml_url":0,"soiltest_view_url":0},{"id":243455,"code":"B4KJ201802000-8935","latitude":"35.942694","longitude":"140.071667","source_code":"KT200483316020750007","project_name":"","survey_name":"\u7b95\u8f2a\u5730\u5148\u59162\u7b87\u6240\u5730\u8cea\u8abf\u67fb","client_name":"\u56fd\u571f\u4ea4\u901a\u7701 \u95a2\u6771\u5730\u65b9\u6574\u5099\u5c40 \u4e0b\u9928\u6cb3\u5ddd\u4e8b\u52d9\u6240","boring_xml_url":47,"boring_view_url":1,"soilmap_view_url":null,"soiltest_xml_url":0,"soiltest_view_url":0},{"id":243454,"code":"B4KJ201802000-8934","latitude":"36.014222","longitude":"139.997833","source_code":"KT200483316020750006","project_name":"","survey_name":"\u7b95\u8f2a\u5730\u5148\u59162\u7b87\u6240\u5730\u8cea\u8abf\u67fb","client_name":"\u56fd\u571f\u4ea4\u901a\u7701 \u95a2\u6771\u5730\u65b9\u6574\u5099\u5c40 \u4e0b\u9928\u6cb3\u5ddd\u4e8b\u52d9\u6240","boring_xml_url":47,"boring_view_url":1,"soilmap_view_url":null,"soiltest_xml_url":0,"soiltest_view_url":0},{"id":243453,"code":"B4KJ201802000-8933","latitude":"36.014444","longitude":"139.997694","source_code":"KT200483316020750005","project_name":"","survey_name":"\u7b95\u8f2a\u5730\u5148\u59162\u7b87\u6240\u5730\u8cea\u8abf\u67fb","client_name":"\u56fd\u571f\u4ea4\u901a\u7701 \u95a2\u6771\u5730\u65b9\u6574\u5099\u5c40 \u4e0b\u9928\u6cb3\u5ddd\u4e8b\u52d9\u6240","boring_xml_url":47,"boring_view_url":1,"soilmap_view_url":null,"soiltest_xml_url":0,"soiltest_view_url":0},{"id":243452,"code":"B4KJ201802000-8932","latitude":"36.014667","longitude":"139.997556","source_code":"KT200483316020750004","project_name":"","survey_name":"\u7b95\u8f2a\u5730\u5148\u59162\u7b87\u6240\u5730\u8cea\u8abf\u67fb","client_name":"\u56fd\u571f\u4ea4\u901a\u7701 \u95a2\u6771\u5730\u65b9\u6574\u5099\u5c40 \u4e0b\u9928\u6cb3\u5ddd\u4e8b\u52d9\u6240","boring_xml_url":47,"boring_view_url":1,"soilmap_view_url":null,"soiltest_xml_url":50,"soiltest_view_url":49},{"id":243451,"code":"B4KJ201802000-8931","latitude":"36.029889","longitude":"140.021111","source_code":"KT200483316020750003","project_name":"","survey_name":"\u7b95\u8f2a\u5730\u5148\u59162\u7b87\u6240\u5730\u8cea\u8abf\u67fb","client_name":"\u56fd\u571f\u4ea4\u901a\u7701 \u95a2\u6771\u5730\u65b9\u6574\u5099\u5c40 \u4e0b\u9928\u6cb3\u5ddd\u4e8b\u52d9\u6240","boring_xml_url":47,"boring_view_url":1,"soilmap_view_url":null,"soiltest_xml_url":50,"soiltest_view_url":49},{"id":243450,"code":"B4KJ201802000-8930","latitude":"36.029639","longitude":"140.02125","source_code":"KT200483316020750002","project_name":"","survey_name":"\u7b95\u8f2a\u5730\u5148\u59162\u7b87\u6240\u5730\u8cea\u8abf\u67fb","client_name":"\u56fd\u571f\u4ea4\u901a\u7701 \u95a2\u6771\u5730\u65b9\u6574\u5099\u5c40 \u4e0b\u9928\u6cb3\u5ddd\u4e8b\u52d9\u6240","boring_xml_url":47,"boring_view_url":1,"soilmap_view_url":null,"soiltest_xml_url":50,"soiltest_view_url":49},{"id":243449,"code":"B4KJ201802000-8929","latitude":"36.029083","longitude":"140.021528","source_code":"KT200483316020750001","project_name":"","survey_name":"\u7b95\u8f2a\u5730\u5148\u59162\u7b87\u6240\u5730\u8cea\u8abf\u67fb","client_name":"\u56fd\u571f\u4ea4\u901a\u7701 \u95a2\u6771\u5730\u65b9\u6574\u5099\u5c40 \u4e0b\u9928\u6cb3\u5ddd\u4e8b\u52d9\u6240","boring_xml_url":47,"boring_view_url":1,"soilmap_view_url":null,"soiltest_xml_url":50,"soiltest_view_url":49},{"id":243448,"code":"B4KJ201802000-8928","latitude":"35.358839","longitude":"140.109246","source_code":"KT200483536120320010","project_name":"","survey_name":"\u9053\u8def\u6e2c\u91cf\u696d\u52d916G\u30fbX\u30fb10","client_name":"\u56fd\u571f\u4ea4\u901a\u7701 \u95a2\u6771\u5730\u65b9\u6574\u5099\u5c40 \u5343\u8449\u56fd\u9053\u4e8b\u52d9\u6240","boring_xml_url":47,"boring_view_url":1,"soilmap_view_url":null,"soiltest_xml_url":0,"soiltest_view_url":0},{"id":243447,"code":"B4KJ201802000-8927","latitude":"35.369394","longitude":"140.092857","source_code":"KT200483536120320009","project_name":"","survey_name":"\u9053\u8def\u6e2c\u91cf\u696d\u52d916G\u30fbX\u30fb10","client_name":"\u56fd\u571f\u4ea4\u901a\u7701 \u95a2\u6771\u5730\u65b9\u6574\u5099\u5c40 \u5343\u8449\u56fd\u9053\u4e8b\u52d9\u6240","boring_xml_url":47,"boring_view_url":1,"soilmap_view_url":null,"soiltest_xml_url":0,"soiltest_view_url":0},{"id":243446,"code":"B4KJ201802000-8926","latitude":"35.372726","longitude":"140.082024","source_code":"KT200483536120320008","project_name":"","survey_name":"\u9053\u8def\u6e2c\u91cf\u696d\u52d916G\u30fbX\u30fb10","client_name":"\u56fd\u571f\u4ea4\u901a\u7701 \u95a2\u6771\u5730\u65b9\u6574\u5099\u5c40 \u5343\u8449\u56fd\u9053\u4e8b\u52d9\u6240","boring_xml_url":47,"boring_view_url":1,"soilmap_view_url":null,"soiltest_xml_url":0,"soiltest_view_url":0},{"id":243445,"code":"B4KJ201802000-8925","latitude":"35.373004","longitude":"140.077858","source_code":"KT200483536120320007","project_name":"","survey_name":"\u9053\u8def\u6e2c\u91cf\u696d\u52d916G\u30fbX\u30fb10","client_name":"\u56fd\u571f\u4ea4\u901a\u7701 \u95a2\u6771\u5730\u65b9\u6574\u5099\u5c40 \u5343\u8449\u56fd\u9053\u4e8b\u52d9\u6240","boring_xml_url":47,"boring_view_url":1,"soilmap_view_url":null,"soiltest_xml_url":0,"soiltest_view_url":0},{"id":243444,"code":"B4KJ201802000-8924","latitude":"35.373004","longitude":"140.07758","source_code":"KT200483536120320006","project_name":"","survey_name":"\u9053\u8def\u6e2c\u91cf\u696d\u52d916G\u30fbX\u30fb10","client_name":"\u56fd\u571f\u4ea4\u901a\u7701 \u95a2\u6771\u5730\u65b9\u6574\u5099\u5c40 \u5343\u8449\u56fd\u9053\u4e8b\u52d9\u6240","boring_xml_url":47,"boring_view_url":1,"soilmap_view_url":null,"soiltest_xml_url":0,"soiltest_view_url":0},{"id":243443,"code":"B4KJ201802000-8923","latitude":"35.362448","longitude":"140.002587","source_code":"KT200483536120320005","project_name":"","survey_name":"\u9053\u8def\u6e2c\u91cf\u696d\u52d916G\u30fbX\u30fb10","client_name":"\u56fd\u571f\u4ea4\u901a\u7701 \u95a2\u6771\u5730\u65b9\u6574\u5099\u5c40 \u5343\u8449\u56fd\u9053\u4e8b\u52d9\u6240","boring_xml_url":47,"boring_view_url":1,"soilmap_view_url":null,"soiltest_xml_url":0,"soiltest_view_url":0},{"id":243442,"code":"B4KJ201802000-8922","latitude":"35.362448","longitude":"140.003143","source_code":"KT200483536120320004","project_name":"","survey_name":"\u9053\u8def\u6e2c\u91cf\u696d\u52d916G\u30fbX\u30fb10","client_name":"\u56fd\u571f\u4ea4\u901a\u7701 \u95a2\u6771\u5730\u65b9\u6574\u5099\u5c40 \u5343\u8449\u56fd\u9053\u4e8b\u52d9\u6240","boring_xml_url":47,"boring_view_url":1,"soilmap_view_url":null,"soiltest_xml_url":0,"soiltest_view_url":0},{"id":243441,"code":"B4KJ201802000-8921","latitude":"35.361615","longitude":"140.003143","source_code":"KT200483536120320003","project_name":"","survey_name":"\u9053\u8def\u6e2c\u91cf\u696d\u52d916G\u30fbX\u30fb10","client_name":"\u56fd\u571f\u4ea4\u901a\u7701 \u95a2\u6771\u5730\u65b9\u6574\u5099\u5c40 \u5343\u8449\u56fd\u9053\u4e8b\u52d9\u6240","boring_xml_url":47,"boring_view_url":1,"soilmap_view_url":null,"soiltest_xml_url":0,"soiltest_view_url":0},{"id":243440,"code":"B4KJ201802000-8920","latitude":"35.361893","longitude":"140.003698","source_code":"KT200483536120320002","project_name":"","survey_name":"\u9053\u8def\u6e2c\u91cf\u696d\u52d916G\u30fbX\u30fb10","client_name":"\u56fd\u571f\u4ea4\u901a\u7701 \u95a2\u6771\u5730\u65b9\u6574\u5099\u5c40 \u5343\u8449\u56fd\u9053\u4e8b\u52d9\u6240","boring_xml_url":47,"boring_view_url":1,"soilmap_view_url":null,"soiltest_xml_url":0,"soiltest_view_url":0},{"id":243439,"code":"B4KJ201802000-8919","latitude":"35.36106","longitude":"140.005642","source_code":"KT200483536120320001","project_name":"","survey_name":"\u9053\u8def\u6e2c\u91cf\u696d\u52d916G\u30fbX\u30fb10","client_name":"\u56fd\u571f\u4ea4\u901a\u7701 \u95a2\u6771\u5730\u65b9\u6574\u5099\u5c40 \u5343\u8449\u56fd\u9053\u4e8b\u52d9\u6240","boring_xml_url":47,"boring_view_url":1,"soilmap_view_url":null,"soiltest_xml_url":0,"soiltest_view_url":0},{"id":243438,"code":"B4KJ201802000-8918","latitude":"35.40882","longitude":"139.324866","source_code":"KT200183636120220009","project_name":"","survey_name":"\u7ba1\u5185\u5730\u8cea\u8abf\u67fb\u696d\u52d9\u59d4\u8a17","client_name":"\u56fd\u571f\u4ea4\u901a\u7701\u95a2\u6771\u5730\u65b9\u6574\u5099\u5c40\u6a2a\u6d5c\u56fd\u9053\u5de5\u4e8b\u4e8b\u52d9\u6240\u8abf\u67fb\u7b2c\u4e8c\u8ab2","boring_xml_url":47,"boring_view_url":1,"soilmap_view_url":null,"soiltest_xml_url":0,"soiltest_view_url":0},{"id":243437,"code":"B4KJ201802000-8917","latitude":"35.408654","longitude":"139.324589","source_code":"KT200183636120220008","project_name":"","survey_name":"\u7ba1\u5185\u5730\u8cea\u8abf\u67fb\u696d\u52d9\u59d4\u8a17","client_name":"\u56fd\u571f\u4ea4\u901a\u7701\u95a2\u6771\u5730\u65b9\u6574\u5099\u5c40\u6a2a\u6d5c\u56fd\u9053\u5de5\u4e8b\u4e8b\u52d9\u6240\u8abf\u67fb\u7b2c\u4e8c\u8ab2","boring_xml_url":47,"boring_view_url":1,"soilmap_view_url":null,"soiltest_xml_url":0,"soiltest_view_url":0},{"id":243436,"code":"B4KJ201802000-8916","latitude":"35.241338","longitude":"139.124891","source_code":"KT200183636120220007","project_name":"","survey_name":"\u7ba1\u5185\u5730\u8cea\u8abf\u67fb\u696d\u52d9\u59d4\u8a17","client_name":"\u56fd\u571f\u4ea4\u901a\u7701\u95a2\u6771\u5730\u65b9\u6574\u5099\u5c40\u6a2a\u6d5c\u56fd\u9053\u5de5\u4e8b\u4e8b\u52d9\u6240\u8abf\u67fb\u7b2c\u4e8c\u8ab2","boring_xml_url":47,"boring_view_url":1,"soilmap_view_url":null,"soiltest_xml_url":0,"soiltest_view_url":0},{"id":243435,"code":"B4KJ201802000-8915","latitude":"35.241449","longitude":"139.124891","source_code":"KT200183636120220006","project_name":"","survey_name":"\u7ba1\u5185\u5730\u8cea\u8abf\u67fb\u696d\u52d9\u59d4\u8a17","client_name":"\u56fd\u571f\u4ea4\u901a\u7701\u95a2\u6771\u5730\u65b9\u6574\u5099\u5c40\u6a2a\u6d5c\u56fd\u9053\u5de5\u4e8b\u4e8b\u52d9\u6240\u8abf\u67fb\u7b2c\u4e8c\u8ab2","boring_xml_url":47,"boring_view_url":1,"soilmap_view_url":null,"soiltest_xml_url":0,"soiltest_view_url":0},{"id":243434,"code":"B4KJ201802000-8914","latitude":"35.453486","longitude":"139.556794","source_code":"KT200183636120220005","project_name":"","survey_name":"\u7ba1\u5185\u5730\u8cea\u8abf\u67fb\u696d\u52d9\u59d4\u8a17","client_name":"\u56fd\u571f\u4ea4\u901a\u7701\u95a2\u6771\u5730\u65b9\u6574\u5099\u5c40\u6a2a\u6d5c\u56fd\u9053\u5de5\u4e8b\u4e8b\u52d9\u6240\u8abf\u67fb\u7b2c\u4e8c\u8ab2","boring_xml_url":47,"boring_view_url":1,"soilmap_view_url":null,"soiltest_xml_url":0,"soiltest_view_url":0}]}}