{"header":{"xyz":{"source":[],"mosaic":false},"page":2918,"raw":{"soiltest_result":"0","bbox":"57.598333,109.544722,1.933333,163.806111","page":"2918"},"conditions":{"soiltest_result":0,"north":57.598333,"west":109.544722,"south":1.933333,"east":163.806111},"success":true,"message":""},"data":{"meta":{"total":212844,"page":2918,"pages":7095,"count":30},"values":[{"id":243013,"code":"B4KJ201802000-8493","latitude":"35.617939","longitude":"139.757047","source_code":"KT200283626120300002","project_name":"","survey_name":"\u6771\u4eac\u6e2f\u30c8\u30f3\u30cd\u30eb\u5730\u8cea\u8abf\u67fb(\u305d\u306e1)","client_name":"\u56fd\u571f\u4ea4\u901a\u7701 \u95a2\u6771\u5730\u65b9\u6574\u5099\u5c40 \u5ddd\u5d0e\u56fd\u9053\u5de5\u4e8b\u4e8b\u52d9\u6240","boring_xml_url":47,"boring_view_url":1,"soilmap_view_url":null,"soiltest_xml_url":0,"soiltest_view_url":0},{"id":243012,"code":"B4KJ201802000-8492","latitude":"35.617356","longitude":"139.755103","source_code":"KT200283626120300001","project_name":"","survey_name":"\u6771\u4eac\u6e2f\u30c8\u30f3\u30cd\u30eb\u5730\u8cea\u8abf\u67fb(\u305d\u306e1)","client_name":"\u56fd\u571f\u4ea4\u901a\u7701 \u95a2\u6771\u5730\u65b9\u6574\u5099\u5c40 \u5ddd\u5d0e\u56fd\u9053\u5de5\u4e8b\u4e8b\u52d9\u6240","boring_xml_url":47,"boring_view_url":1,"soilmap_view_url":null,"soiltest_xml_url":0,"soiltest_view_url":0},{"id":243011,"code":"B4KJ201802000-8491","latitude":"35.62375","longitude":"139.770556","source_code":"KT200283626120310003","project_name":"\u6771\u4eac\u6e2f\u30c8\u30f3\u30cd\u30eb","survey_name":"\u6771\u4eac\u6e2f\u30c8\u30f3\u30cd\u30eb\u5730\u8cea\u8abf\u67fb(\u305d\u306e2)","client_name":"\u56fd\u571f\u4ea4\u901a\u7701 \u95a2\u6771\u5730\u65b9\u6574\u5099\u5c40 \u5ddd\u5d0e\u56fd\u9053\u4e8b\u52d9\u6240","boring_xml_url":47,"boring_view_url":1,"soilmap_view_url":null,"soiltest_xml_url":50,"soiltest_view_url":49},{"id":243010,"code":"B4KJ201802000-8490","latitude":"35.622083","longitude":"139.769722","source_code":"KT200283626120310002","project_name":"\u6771\u4eac\u6e2f\u30c8\u30f3\u30cd\u30eb","survey_name":"\u6771\u4eac\u6e2f\u30c8\u30f3\u30cd\u30eb\u5730\u8cea\u8abf\u67fb(\u305d\u306e2)","client_name":"\u56fd\u571f\u4ea4\u901a\u7701 \u95a2\u6771\u5730\u65b9\u6574\u5099\u5c40 \u5ddd\u5d0e\u56fd\u9053\u4e8b\u52d9\u6240","boring_xml_url":47,"boring_view_url":1,"soilmap_view_url":null,"soiltest_xml_url":50,"soiltest_view_url":49},{"id":243009,"code":"B4KJ201802000-8489","latitude":"35.620694","longitude":"139.768194","source_code":"KT200283626120310001","project_name":"\u6771\u4eac\u6e2f\u30c8\u30f3\u30cd\u30eb","survey_name":"\u6771\u4eac\u6e2f\u30c8\u30f3\u30cd\u30eb\u5730\u8cea\u8abf\u67fb(\u305d\u306e2)","client_name":"\u56fd\u571f\u4ea4\u901a\u7701 \u95a2\u6771\u5730\u65b9\u6574\u5099\u5c40 \u5ddd\u5d0e\u56fd\u9053\u4e8b\u52d9\u6240","boring_xml_url":47,"boring_view_url":1,"soilmap_view_url":null,"soiltest_xml_url":50,"soiltest_view_url":49},{"id":243008,"code":"B4KJ201802000-8488","latitude":"35.573889","longitude":"139.758333","source_code":"KT200283626120510006","project_name":"\u6771\u4eac\u6e7e\u5cb8\u9053\u8def\u5730\u8cea\u8abf\u67fb(\u305d\u306e2)","survey_name":"\u6771\u4eac\u6e7e\u5cb8\u9053\u8def\u5730\u8cea\u8abf\u67fb(\u305d\u306e2)","client_name":"\u56fd\u571f\u4ea4\u901a\u7701\u5ddd\u5d0e\u56fd\u9053\u4e8b\u52d9\u6240","boring_xml_url":47,"boring_view_url":1,"soilmap_view_url":null,"soiltest_xml_url":50,"soiltest_view_url":49},{"id":243007,"code":"B4KJ201802000-8487","latitude":"35.573333","longitude":"139.758333","source_code":"KT200283626120510005","project_name":"\u6771\u4eac\u6e7e\u5cb8\u9053\u8def\u5730\u8cea\u8abf\u67fb(\u305d\u306e2)","survey_name":"\u6771\u4eac\u6e7e\u5cb8\u9053\u8def\u5730\u8cea\u8abf\u67fb(\u305d\u306e2)","client_name":"\u56fd\u571f\u4ea4\u901a\u7701\u5ddd\u5d0e\u56fd\u9053\u4e8b\u52d9\u6240","boring_xml_url":47,"boring_view_url":1,"soilmap_view_url":null,"soiltest_xml_url":0,"soiltest_view_url":0},{"id":243006,"code":"B4KJ201802000-8486","latitude":"35.572778","longitude":"139.758611","source_code":"KT200283626120510004","project_name":"\u6771\u4eac\u6e7e\u5cb8\u9053\u8def\u5730\u8cea\u8abf\u67fb(\u305d\u306e2)","survey_name":"\u6771\u4eac\u6e7e\u5cb8\u9053\u8def\u5730\u8cea\u8abf\u67fb(\u305d\u306e2)","client_name":"\u56fd\u571f\u4ea4\u901a\u7701\u5ddd\u5d0e\u56fd\u9053\u4e8b\u52d9\u6240","boring_xml_url":47,"boring_view_url":1,"soilmap_view_url":null,"soiltest_xml_url":50,"soiltest_view_url":49},{"id":243005,"code":"B4KJ201802000-8485","latitude":"35.571944","longitude":"139.758889","source_code":"KT200283626120510003","project_name":"\u6771\u4eac\u6e7e\u5cb8\u9053\u8def\u5730\u8cea\u8abf\u67fb(\u305d\u306e2)","survey_name":"\u6771\u4eac\u6e7e\u5cb8\u9053\u8def\u5730\u8cea\u8abf\u67fb(\u305d\u306e2)","client_name":"\u56fd\u571f\u4ea4\u901a\u7701\u5ddd\u5d0e\u56fd\u9053\u4e8b\u52d9\u6240","boring_xml_url":47,"boring_view_url":1,"soilmap_view_url":null,"soiltest_xml_url":50,"soiltest_view_url":49},{"id":243004,"code":"B4KJ201802000-8484","latitude":"35.571389","longitude":"139.759167","source_code":"KT200283626120510002","project_name":"\u6771\u4eac\u6e7e\u5cb8\u9053\u8def\u5730\u8cea\u8abf\u67fb(\u305d\u306e2)","survey_name":"\u6771\u4eac\u6e7e\u5cb8\u9053\u8def\u5730\u8cea\u8abf\u67fb(\u305d\u306e2)","client_name":"\u56fd\u571f\u4ea4\u901a\u7701\u5ddd\u5d0e\u56fd\u9053\u4e8b\u52d9\u6240","boring_xml_url":47,"boring_view_url":1,"soilmap_view_url":null,"soiltest_xml_url":50,"soiltest_view_url":49},{"id":243003,"code":"B4KJ201802000-8483","latitude":"35.570278","longitude":"139.759444","source_code":"KT200283626120510001","project_name":"\u6771\u4eac\u6e7e\u5cb8\u9053\u8def\u5730\u8cea\u8abf\u67fb(\u305d\u306e2)","survey_name":"\u6771\u4eac\u6e7e\u5cb8\u9053\u8def\u5730\u8cea\u8abf\u67fb(\u305d\u306e2","client_name":"\u56fd\u571f\u4ea4\u901a\u7701\u5ddd\u5d0e\u56fd\u9053\u4e8b\u52d9\u6240","boring_xml_url":47,"boring_view_url":1,"soilmap_view_url":null,"soiltest_xml_url":50,"soiltest_view_url":49},{"id":243002,"code":"B4KJ201802000-8482","latitude":"35.516833","longitude":"139.360528","source_code":"KT200383636120020024","project_name":"\u3055\u304c\u307f\u539a\u6728\u4e0a\u4f9d\u77e5\u4ed6\u5730\u8cea\u8abf\u67fb\u696d\u52d9","survey_name":"\u3055\u304c\u307f\u7e26\u8cab\u9053\u8def\u539a\u6728\u4e0a\u4f9d\u77e5\u5730\u533a\u6a4b\u6881\u5de5\u4e8b","client_name":"\u56fd\u571f\u4ea4\u901a\u7701 \u95a2\u6771\u5730\u65b9\u6574\u5099\u5c40 \u6a2a\u6d5c\u56fd\u9053\u4e8b\u52d9\u6240 \u8abf\u67fb\u7b2c\u4e8c\u8ab2","boring_xml_url":47,"boring_view_url":1,"soilmap_view_url":null,"soiltest_xml_url":0,"soiltest_view_url":0},{"id":243001,"code":"B4KJ201802000-8481","latitude":"35.5165","longitude":"139.360889","source_code":"KT200383636120020023","project_name":"\u3055\u304c\u307f\u539a\u6728\u4e0a\u4f9d\u77e5\u4ed6\u5730\u8cea\u8abf\u67fb\u696d\u52d9","survey_name":"\u3055\u304c\u307f\u7e26\u8cab\u9053\u8def\u539a\u6728\u4e0a\u4f9d\u77e5\u5730\u533a\u6a4b\u6881\u5de5\u4e8b","client_name":"\u56fd\u571f\u4ea4\u901a\u7701 \u95a2\u6771\u5730\u65b9\u6574\u5099\u5c40 \u6a2a\u6d5c\u56fd\u9053\u4e8b\u52d9\u6240 \u8abf\u67fb\u7b2c\u4e8c\u8ab2","boring_xml_url":47,"boring_view_url":1,"soilmap_view_url":null,"soiltest_xml_url":0,"soiltest_view_url":0},{"id":243000,"code":"B4KJ201802000-8480","latitude":"35.51675","longitude":"139.360444","source_code":"KT200383636120020022","project_name":"\u3055\u304c\u307f\u539a\u6728\u4e0a\u4f9d\u77e5\u4ed6\u5730\u8cea\u8abf\u67fb\u696d\u52d9","survey_name":"\u3055\u304c\u307f\u7e26\u8cab\u9053\u8def\u539a\u6728\u4e0a\u4f9d\u77e5\u5730\u533a\u6a4b\u6881\u5de5\u4e8b","client_name":"\u56fd\u571f\u4ea4\u901a\u7701 \u95a2\u6771\u5730\u65b9\u6574\u5099\u5c40 \u6a2a\u6d5c\u56fd\u9053\u4e8b\u52d9\u6240 \u8abf\u67fb\u7b2c\u4e8c\u8ab2","boring_xml_url":47,"boring_view_url":1,"soilmap_view_url":null,"soiltest_xml_url":0,"soiltest_view_url":0},{"id":242999,"code":"B4KJ201802000-8479","latitude":"35.519613","longitude":"139.357641","source_code":"KT200383636120020021","project_name":"\u3055\u304c\u307f\u539a\u6728\u4e0a\u4f9d\u77e5\u4ed6\u5730\u8cea\u8abf\u67fb\u696d\u52d9","survey_name":"\u3055\u304c\u307f\u7e26\u8cab\u9053\u8def\u539a\u6728\u4e0a\u4f9d\u77e5\u5730\u533a\u6a4b\u6881\u5de5\u4e8b","client_name":"\u56fd\u571f\u4ea4\u901a\u7701 \u95a2\u6771\u5730\u65b9\u6574\u5099\u5c40 \u6a2a\u6d5c\u56fd\u9053\u4e8b\u52d9\u6240 \u8abf\u67fb\u7b2c\u4e8c\u8ab2","boring_xml_url":47,"boring_view_url":1,"soilmap_view_url":null,"soiltest_xml_url":0,"soiltest_view_url":0},{"id":242998,"code":"B4KJ201802000-8478","latitude":"35.521083","longitude":"139.35475","source_code":"KT200383636120020020","project_name":"\u3055\u304c\u307f\u539a\u6728\u4e0a\u4f9d\u77e5\u4ed6\u5730\u8cea\u8abf\u67fb\u696d\u52d9","survey_name":"\u3055\u304c\u307f\u7e26\u8cab\u9053\u8def\u539a\u6728\u4e0a\u4f9d\u77e5\u5730\u533a\u6a4b\u6881\u5de5\u4e8b","client_name":"\u56fd\u571f\u4ea4\u901a\u7701 \u95a2\u6771\u5730\u65b9\u6574\u5099\u5c40 \u6a2a\u6d5c\u56fd\u9053\u4e8b\u52d9\u6240 \u8abf\u67fb\u7b2c\u4e8c\u8ab2","boring_xml_url":47,"boring_view_url":1,"soilmap_view_url":null,"soiltest_xml_url":0,"soiltest_view_url":0},{"id":242997,"code":"B4KJ201802000-8477","latitude":"35.520611","longitude":"139.355389","source_code":"KT200383636120020019","project_name":"\u3055\u304c\u307f\u539a\u6728\u4e0a\u4f9d\u77e5\u4ed6\u5730\u8cea\u8abf\u67fb\u696d\u52d9","survey_name":"\u3055\u304c\u307f\u7e26\u8cab\u9053\u8def\u539a\u6728\u4e0a\u4f9d\u77e5\u5730\u533a\u6a4b\u6881\u5de5\u4e8b","client_name":"\u56fd\u571f\u4ea4\u901a\u7701 \u95a2\u6771\u5730\u65b9\u6574\u5099\u5c40 \u6a2a\u6d5c\u56fd\u9053\u4e8b\u52d9\u6240 \u8abf\u67fb\u7b2c\u4e8c\u8ab2","boring_xml_url":47,"boring_view_url":1,"soilmap_view_url":null,"soiltest_xml_url":0,"soiltest_view_url":0},{"id":242996,"code":"B4KJ201802000-8476","latitude":"35.519667","longitude":"139.357278","source_code":"KT200383636120020018","project_name":"\u3055\u304c\u307f\u539a\u6728\u4e0a\u4f9d\u77e5\u4ed6\u5730\u8cea\u8abf\u67fb\u696d\u52d9","survey_name":"\u3055\u304c\u307f\u7e26\u8cab\u9053\u8def\u539a\u6728\u4e0a\u4f9d\u77e5\u5730\u533a\u6a4b\u6881\u5de5\u4e8b","client_name":"\u56fd\u571f\u4ea4\u901a\u7701 \u95a2\u6771\u5730\u65b9\u6574\u5099\u5c40 \u6a2a\u6d5c\u56fd\u9053\u4e8b\u52d9\u6240 \u8abf\u67fb\u7b2c\u4e8c\u8ab2","boring_xml_url":47,"boring_view_url":1,"soilmap_view_url":null,"soiltest_xml_url":0,"soiltest_view_url":0},{"id":242995,"code":"B4KJ201802000-8475","latitude":"35.518528","longitude":"139.358833","source_code":"KT200383636120020017","project_name":"\u3055\u304c\u307f\u539a\u6728\u4e0a\u4f9d\u77e5\u4ed6\u5730\u8cea\u8abf\u67fb\u696d\u52d9","survey_name":"\u3055\u304c\u307f\u7e26\u8cab\u9053\u8def\u539a\u6728\u4e0a\u4f9d\u77e5\u5730\u533a\u6a4b\u6881\u5de5\u4e8b","client_name":"\u56fd\u571f\u4ea4\u901a\u7701 \u95a2\u6771\u5730\u65b9\u6574\u5099\u5c40 \u6a2a\u6d5c\u56fd\u9053\u4e8b\u52d9\u6240 \u8abf\u67fb\u7b2c\u4e8c\u8ab2","boring_xml_url":47,"boring_view_url":1,"soilmap_view_url":null,"soiltest_xml_url":0,"soiltest_view_url":0},{"id":242994,"code":"B4KJ201802000-8474","latitude":"35.517361","longitude":"139.360194","source_code":"KT200383636120020016","project_name":"\u3055\u304c\u307f\u539a\u6728\u4e0a\u4f9d\u77e5\u4ed6\u5730\u8cea\u8abf\u67fb\u696d\u52d9","survey_name":"\u3055\u304c\u307f\u7e26\u8cab\u9053\u8def\u539a\u6728\u4e0a\u4f9d\u77e5\u5730\u533a\u6a4b\u6881\u5de5\u4e8b","client_name":"\u56fd\u571f\u4ea4\u901a\u7701 \u95a2\u6771\u5730\u65b9\u6574\u5099\u5c40 \u6a2a\u6d5c\u56fd\u9053\u4e8b\u52d9\u6240 \u8abf\u67fb\u7b2c\u4e8c\u8ab2","boring_xml_url":47,"boring_view_url":1,"soilmap_view_url":null,"soiltest_xml_url":0,"soiltest_view_url":0},{"id":242993,"code":"B4KJ201802000-8473","latitude":"35.521056","longitude":"139.355389","source_code":"KT200383636120020015","project_name":"\u3055\u304c\u307f\u539a\u6728\u4e0a\u4f9d\u77e5\u4ed6\u5730\u8cea\u8abf\u67fb\u696d\u52d9","survey_name":"\u3055\u304c\u307f\u7e26\u8cab\u9053\u8def\u539a\u6728\u4e0a\u4f9d\u77e5\u5730\u533a\u6a4b\u6881\u5de5\u4e8b","client_name":"\u56fd\u571f\u4ea4\u901a\u7701 \u95a2\u6771\u5730\u65b9\u6574\u5099\u5c40 \u6a2a\u6d5c\u56fd\u9053\u4e8b\u52d9\u6240 \u8abf\u67fb\u7b2c\u4e8c\u8ab2","boring_xml_url":47,"boring_view_url":1,"soilmap_view_url":null,"soiltest_xml_url":0,"soiltest_view_url":0},{"id":242992,"code":"B4KJ201802000-8472","latitude":"35.520833","longitude":"139.355056","source_code":"KT200383636120020014","project_name":"\u3055\u304c\u307f\u539a\u6728\u4e0a\u4f9d\u77e5\u4ed6\u5730\u8cea\u8abf\u67fb\u696d\u52d9","survey_name":"\u3055\u304c\u307f\u7e26\u8cab\u9053\u8def\u539a\u6728\u4e0a\u4f9d\u77e5\u5730\u533a\u6a4b\u6881\u5de5\u4e8b","client_name":"\u56fd\u571f\u4ea4\u901a\u7701 \u95a2\u6771\u5730\u65b9\u6574\u5099\u5c40 \u6a2a\u6d5c\u56fd\u9053\u4e8b\u52d9\u6240 \u8abf\u67fb\u7b2c\u4e8c\u8ab2","boring_xml_url":47,"boring_view_url":1,"soilmap_view_url":null,"soiltest_xml_url":0,"soiltest_view_url":0},{"id":242991,"code":"B4KJ201802000-8471","latitude":"35.520611","longitude":"139.356","source_code":"KT200383636120020013","project_name":"\u3055\u304c\u307f\u539a\u6728\u4e0a\u4f9d\u77e5\u4ed6\u5730\u8cea\u8abf\u67fb\u696d\u52d9","survey_name":"\u3055\u304c\u307f\u7e26\u8cab\u9053\u8def\u539a\u6728\u4e0a\u4f9d\u77e5\u5730\u533a\u6a4b\u6881\u5de5\u4e8b","client_name":"\u56fd\u571f\u4ea4\u901a\u7701 \u95a2\u6771\u5730\u65b9\u6574\u5099\u5c40 \u6a2a\u6d5c\u56fd\u9053\u4e8b\u52d9\u6240 \u8abf\u67fb\u7b2c\u4e8c\u8ab2","boring_xml_url":47,"boring_view_url":1,"soilmap_view_url":null,"soiltest_xml_url":0,"soiltest_view_url":0},{"id":242990,"code":"B4KJ201802000-8470","latitude":"35.520083","longitude":"139.356417","source_code":"KT200383636120020012","project_name":"\u3055\u304c\u307f\u539a\u6728\u4e0a\u4f9d\u77e5\u4ed6\u5730\u8cea\u8abf\u67fb\u696d\u52d9","survey_name":"\u3055\u304c\u307f\u7e26\u8cab\u9053\u8def\u539a\u6728\u4e0a\u4f9d\u77e5\u5730\u533a\u6a4b\u6881\u5de5\u4e8b","client_name":"\u56fd\u571f\u4ea4\u901a\u7701 \u95a2\u6771\u5730\u65b9\u6574\u5099\u5c40 \u6a2a\u6d5c\u56fd\u9053\u4e8b\u52d9\u6240 \u8abf\u67fb\u7b2c\u4e8c\u8ab2","boring_xml_url":47,"boring_view_url":1,"soilmap_view_url":null,"soiltest_xml_url":0,"soiltest_view_url":0},{"id":242989,"code":"B4KJ201802000-8469","latitude":"35.520611","longitude":"139.357333","source_code":"KT200383636120020011","project_name":"\u3055\u304c\u307f\u539a\u6728\u4e0a\u4f9d\u77e5\u4ed6\u5730\u8cea\u8abf\u67fb\u696d\u52d9","survey_name":"\u3055\u304c\u307f\u7e26\u8cab\u9053\u8def\u539a\u6728\u4e0a\u4f9d\u77e5\u5730\u533a\u6a4b\u6881\u5de5\u4e8b","client_name":"\u56fd\u571f\u4ea4\u901a\u7701 \u95a2\u6771\u5730\u65b9\u6574\u5099\u5c40 \u6a2a\u6d5c\u56fd\u9053\u4e8b\u52d9\u6240 \u8abf\u67fb\u7b2c\u4e8c\u8ab2","boring_xml_url":47,"boring_view_url":1,"soilmap_view_url":null,"soiltest_xml_url":0,"soiltest_view_url":0},{"id":242988,"code":"B4KJ201802000-8468","latitude":"35.520306","longitude":"139.357222","source_code":"KT200383636120020010","project_name":"\u3055\u304c\u307f\u539a\u6728\u4e0a\u4f9d\u77e5\u4ed6\u5730\u8cea\u8abf\u67fb\u696d\u52d9","survey_name":"\u3055\u304c\u307f\u7e26\u8cab\u9053\u8def\u539a\u6728\u4e0a\u4f9d\u77e5\u5730\u533a\u6a4b\u6881\u5de5\u4e8b","client_name":"\u56fd\u571f\u4ea4\u901a\u7701 \u95a2\u6771\u5730\u65b9\u6574\u5099\u5c40 \u6a2a\u6d5c\u56fd\u9053\u4e8b\u52d9\u6240 \u8abf\u67fb\u7b2c\u4e8c\u8ab2","boring_xml_url":47,"boring_view_url":1,"soilmap_view_url":null,"soiltest_xml_url":0,"soiltest_view_url":0},{"id":242987,"code":"B4KJ201802000-8467","latitude":"35.519917","longitude":"139.356889","source_code":"KT200383636120020009","project_name":"\u3055\u304c\u307f\u539a\u6728\u4e0a\u4f9d\u77e5\u4ed6\u5730\u8cea\u8abf\u67fb\u696d\u52d9","survey_name":"\u3055\u304c\u307f\u7e26\u8cab\u9053\u8def\u539a\u6728\u4e0a\u4f9d\u77e5\u5730\u533a\u6a4b\u6881\u5de5\u4e8b","client_name":"\u56fd\u571f\u4ea4\u901a\u7701 \u95a2\u6771\u5730\u65b9\u6574\u5099\u5c40 \u6a2a\u6d5c\u56fd\u9053\u4e8b\u52d9\u6240 \u8abf\u67fb\u7b2c\u4e8c\u8ab2","boring_xml_url":47,"boring_view_url":1,"soilmap_view_url":null,"soiltest_xml_url":0,"soiltest_view_url":0},{"id":242986,"code":"B4KJ201802000-8466","latitude":"35.519528","longitude":"139.357389","source_code":"KT200383636120020008","project_name":"\u3055\u304c\u307f\u539a\u6728\u4e0a\u4f9d\u77e5\u4ed6\u5730\u8cea\u8abf\u67fb\u696d\u52d9","survey_name":"\u3055\u304c\u307f\u7e26\u8cab\u9053\u8def\u539a\u6728\u4e0a\u4f9d\u77e5\u5730\u533a\u6a4b\u6881\u5de5\u4e8b","client_name":"\u56fd\u571f\u4ea4\u901a\u7701 \u95a2\u6771\u5730\u65b9\u6574\u5099\u5c40 \u6a2a\u6d5c\u56fd\u9053\u4e8b\u52d9\u6240 \u8abf\u67fb\u7b2c\u4e8c\u8ab2","boring_xml_url":47,"boring_view_url":1,"soilmap_view_url":null,"soiltest_xml_url":0,"soiltest_view_url":0},{"id":242985,"code":"B4KJ201802000-8465","latitude":"35.519806","longitude":"139.357833","source_code":"KT200383636120020007","project_name":"\u3055\u304c\u307f\u539a\u6728\u4e0a\u4f9d\u77e5\u4ed6\u5730\u8cea\u8abf\u67fb\u696d\u52d9","survey_name":"\u3055\u304c\u307f\u7e26\u8cab\u9053\u8def\u539a\u6728\u4e0a\u4f9d\u77e5\u5730\u533a\u6a4b\u6881\u5de5\u4e8b","client_name":"\u56fd\u571f\u4ea4\u901a\u7701 \u95a2\u6771\u5730\u65b9\u6574\u5099\u5c40 \u6a2a\u6d5c\u56fd\u9053\u4e8b\u52d9\u6240 \u8abf\u67fb\u7b2c\u4e8c\u8ab2","boring_xml_url":47,"boring_view_url":1,"soilmap_view_url":null,"soiltest_xml_url":0,"soiltest_view_url":0},{"id":242984,"code":"B4KJ201802000-8464","latitude":"35.51925","longitude":"139.35775","source_code":"KT200383636120020006","project_name":"\u3055\u304c\u307f\u539a\u6728\u4e0a\u4f9d\u77e5\u4ed6\u5730\u8cea\u8abf\u67fb\u696d\u52d9","survey_name":"\u3055\u304c\u307f\u7e26\u8cab\u9053\u8def\u539a\u6728\u4e0a\u4f9d\u77e5\u5730\u533a\u6a4b\u6881\u5de5\u4e8b","client_name":"\u56fd\u571f\u4ea4\u901a\u7701 \u95a2\u6771\u5730\u65b9\u6574\u5099\u5c40 \u6a2a\u6d5c\u56fd\u9053\u4e8b\u52d9\u6240 \u8abf\u67fb\u7b2c\u4e8c\u8ab2","boring_xml_url":47,"boring_view_url":1,"soilmap_view_url":null,"soiltest_xml_url":0,"soiltest_view_url":0}]}}