{"header":{"xyz":{"source":[],"mosaic":false},"page":292,"raw":{"soiltest_result":"0","bbox":"57.598333,109.544722,1.933333,163.806111","page":"292"},"conditions":{"soiltest_result":0,"north":57.598333,"west":109.544722,"south":1.933333,"east":163.806111},"success":true,"message":""},"data":{"meta":{"total":212844,"page":292,"pages":7095,"count":30},"values":[{"id":564013,"code":"NGIC202204415-0013","latitude":"35.860450611111","longitude":"138.09128663889","source_code":"","project_name":"","survey_name":"\u4ee4\u548c4\u5e74\u5ea6 \u5929\u7adc\u5ddd\u6c34\u7cfb\u4e09\u5cf0\u5ddd\u7802\u9632\u7ba1\u5185\u5730\u8cea\u8abf\u67fb\u696d\u52d9","client_name":"\u56fd\u571f\u4ea4\u901a\u7701\u4e2d\u90e8\u5730\u65b9\u6574\u5099\u5c40\u5929\u7adc\u5ddd\u4e0a\u6d41\u6cb3\u5ddd\u4e8b\u52d9\u6240","boring_xml_url":47,"boring_view_url":1,"soilmap_view_url":null,"soiltest_xml_url":0,"soiltest_view_url":0},{"id":564012,"code":"NGIC202204415-0012","latitude":"35.860521388889","longitude":"138.09133530556","source_code":"","project_name":"","survey_name":"\u4ee4\u548c4\u5e74\u5ea6 \u5929\u7adc\u5ddd\u6c34\u7cfb\u4e09\u5cf0\u5ddd\u7802\u9632\u7ba1\u5185\u5730\u8cea\u8abf\u67fb\u696d\u52d9","client_name":"\u56fd\u571f\u4ea4\u901a\u7701\u4e2d\u90e8\u5730\u65b9\u6574\u5099\u5c40\u5929\u7adc\u5ddd\u4e0a\u6d41\u6cb3\u5ddd\u4e8b\u52d9\u6240","boring_xml_url":47,"boring_view_url":1,"soilmap_view_url":null,"soiltest_xml_url":0,"soiltest_view_url":0},{"id":564011,"code":"NGIC202204415-0011","latitude":"35.864299666667","longitude":"138.088572","source_code":"","project_name":"","survey_name":"\u4ee4\u548c4\u5e74\u5ea6 \u5929\u7adc\u5ddd\u6c34\u7cfb\u4e09\u5cf0\u5ddd\u7802\u9632\u7ba1\u5185\u5730\u8cea\u8abf\u67fb\u696d\u52d9","client_name":"\u56fd\u571f\u4ea4\u901a\u7701\u4e2d\u90e8\u5730\u65b9\u6574\u5099\u5c40\u5929\u7adc\u5ddd\u4e0a\u6d41\u6cb3\u5ddd\u4e8b\u52d9\u6240","boring_xml_url":47,"boring_view_url":1,"soilmap_view_url":null,"soiltest_xml_url":0,"soiltest_view_url":0},{"id":564010,"code":"NGIC202204415-0010","latitude":"35.864340472222","longitude":"138.08818847222","source_code":"","project_name":"","survey_name":"\u4ee4\u548c4\u5e74\u5ea6 \u5929\u7adc\u5ddd\u6c34\u7cfb\u4e09\u5cf0\u5ddd\u7802\u9632\u7ba1\u5185\u5730\u8cea\u8abf\u67fb\u696d\u52d9","client_name":"\u56fd\u571f\u4ea4\u901a\u7701\u4e2d\u90e8\u5730\u65b9\u6574\u5099\u5c40\u5929\u7adc\u5ddd\u4e0a\u6d41\u6cb3\u5ddd\u4e8b\u52d9\u6240","boring_xml_url":47,"boring_view_url":1,"soilmap_view_url":null,"soiltest_xml_url":0,"soiltest_view_url":0},{"id":564009,"code":"NGIC202204415-0009","latitude":"35.864613666667","longitude":"138.08854380556","source_code":"","project_name":"","survey_name":"\u4ee4\u548c4\u5e74\u5ea6 \u5929\u7adc\u5ddd\u6c34\u7cfb\u4e09\u5cf0\u5ddd\u7802\u9632\u7ba1\u5185\u5730\u8cea\u8abf\u67fb\u696d\u52d9","client_name":"\u56fd\u571f\u4ea4\u901a\u7701\u4e2d\u90e8\u5730\u65b9\u6574\u5099\u5c40\u5929\u7adc\u5ddd\u4e0a\u6d41\u6cb3\u5ddd\u4e8b\u52d9\u6240","boring_xml_url":47,"boring_view_url":1,"soilmap_view_url":null,"soiltest_xml_url":0,"soiltest_view_url":0},{"id":564008,"code":"NGIC202204415-0008","latitude":"35.862269222222","longitude":"138.09455886111","source_code":"","project_name":"","survey_name":"\u4ee4\u548c4\u5e74\u5ea6 \u5929\u7adc\u5ddd\u6c34\u7cfb\u4e09\u5cf0\u5ddd\u7802\u9632\u7ba1\u5185\u5730\u8cea\u8abf\u67fb\u696d\u52d9","client_name":"\u56fd\u571f\u4ea4\u901a\u7701\u4e2d\u90e8\u5730\u65b9\u6574\u5099\u5c40\u5929\u7adc\u5ddd\u4e0a\u6d41\u6cb3\u5ddd\u4e8b\u52d9\u6240","boring_xml_url":47,"boring_view_url":1,"soilmap_view_url":null,"soiltest_xml_url":0,"soiltest_view_url":0},{"id":564007,"code":"NGIC202204415-0007","latitude":"35.862118472222","longitude":"138.09470027778","source_code":"","project_name":"","survey_name":"\u4ee4\u548c4\u5e74\u5ea6 \u5929\u7adc\u5ddd\u6c34\u7cfb\u4e09\u5cf0\u5ddd\u7802\u9632\u7ba1\u5185\u5730\u8cea\u8abf\u67fb\u696d\u52d9","client_name":"\u56fd\u571f\u4ea4\u901a\u7701\u4e2d\u90e8\u5730\u65b9\u6574\u5099\u5c40\u5929\u7adc\u5ddd\u4e0a\u6d41\u6cb3\u5ddd\u4e8b\u52d9\u6240","boring_xml_url":47,"boring_view_url":1,"soilmap_view_url":null,"soiltest_xml_url":0,"soiltest_view_url":0},{"id":564006,"code":"NGIC202204415-0006","latitude":"35.862444","longitude":"138.09496866667","source_code":"","project_name":"","survey_name":"\u4ee4\u548c4\u5e74\u5ea6 \u5929\u7adc\u5ddd\u6c34\u7cfb\u4e09\u5cf0\u5ddd\u7802\u9632\u7ba1\u5185\u5730\u8cea\u8abf\u67fb\u696d\u52d9","client_name":"\u56fd\u571f\u4ea4\u901a\u7701\u4e2d\u90e8\u5730\u65b9\u6574\u5099\u5c40\u5929\u7adc\u5ddd\u4e0a\u6d41\u6cb3\u5ddd\u4e8b\u52d9\u6240","boring_xml_url":47,"boring_view_url":1,"soilmap_view_url":null,"soiltest_xml_url":0,"soiltest_view_url":0},{"id":564005,"code":"NGIC202204415-0005","latitude":"35.862369166667","longitude":"138.09490694444","source_code":"","project_name":"","survey_name":"\u4ee4\u548c4\u5e74\u5ea6 \u5929\u7adc\u5ddd\u6c34\u7cfb\u4e09\u5cf0\u5ddd\u7802\u9632\u7ba1\u5185\u5730\u8cea\u8abf\u67fb\u696d\u52d9","client_name":"\u56fd\u571f\u4ea4\u901a\u7701\u4e2d\u90e8\u5730\u65b9\u6574\u5099\u5c40\u5929\u7adc\u5ddd\u4e0a\u6d41\u6cb3\u5ddd\u4e8b\u52d9\u6240","boring_xml_url":47,"boring_view_url":1,"soilmap_view_url":null,"soiltest_xml_url":0,"soiltest_view_url":0},{"id":564004,"code":"NGIC202204415-0004","latitude":"35.863581694444","longitude":"138.09526452778","source_code":"","project_name":"","survey_name":"\u4ee4\u548c4\u5e74\u5ea6 \u5929\u7adc\u5ddd\u6c34\u7cfb\u4e09\u5cf0\u5ddd\u7802\u9632\u7ba1\u5185\u5730\u8cea\u8abf\u67fb\u696d\u52d9","client_name":"\u56fd\u571f\u4ea4\u901a\u7701\u4e2d\u90e8\u5730\u65b9\u6574\u5099\u5c40\u5929\u7adc\u5ddd\u4e0a\u6d41\u6cb3\u5ddd\u4e8b\u52d9\u6240","boring_xml_url":47,"boring_view_url":1,"soilmap_view_url":null,"soiltest_xml_url":0,"soiltest_view_url":0},{"id":564003,"code":"NGIC202204415-0003","latitude":"35.863759777778","longitude":"138.09554347222","source_code":"","project_name":"","survey_name":"\u4ee4\u548c4\u5e74\u5ea6 \u5929\u7adc\u5ddd\u6c34\u7cfb\u4e09\u5cf0\u5ddd\u7802\u9632\u7ba1\u5185\u5730\u8cea\u8abf\u67fb\u696d\u52d9","client_name":"\u56fd\u571f\u4ea4\u901a\u7701\u4e2d\u90e8\u5730\u65b9\u6574\u5099\u5c40\u5929\u7adc\u5ddd\u4e0a\u6d41\u6cb3\u5ddd\u4e8b\u52d9\u6240","boring_xml_url":47,"boring_view_url":1,"soilmap_view_url":null,"soiltest_xml_url":0,"soiltest_view_url":0},{"id":564002,"code":"NGIC202204415-0002","latitude":"35.862941166667","longitude":"138.09530702778","source_code":"","project_name":"","survey_name":"\u4ee4\u548c4\u5e74\u5ea6 \u5929\u7adc\u5ddd\u6c34\u7cfb\u4e09\u5cf0\u5ddd\u7802\u9632\u7ba1\u5185\u5730\u8cea\u8abf\u67fb\u696d\u52d9","client_name":"\u56fd\u571f\u4ea4\u901a\u7701\u4e2d\u90e8\u5730\u65b9\u6574\u5099\u5c40\u5929\u7adc\u5ddd\u4e0a\u6d41\u6cb3\u5ddd\u4e8b\u52d9\u6240","boring_xml_url":47,"boring_view_url":1,"soilmap_view_url":null,"soiltest_xml_url":0,"soiltest_view_url":0},{"id":564001,"code":"NGIC202204415-0001","latitude":"35.863057861111","longitude":"138.09534072222","source_code":"","project_name":"","survey_name":"\u4ee4\u548c4\u5e74\u5ea6 \u5929\u7adc\u5ddd\u6c34\u7cfb\u4e09\u5cf0\u5ddd\u7802\u9632\u7ba1\u5185\u5730\u8cea\u8abf\u67fb\u696d\u52d9","client_name":"\u56fd\u571f\u4ea4\u901a\u7701\u4e2d\u90e8\u5730\u65b9\u6574\u5099\u5c40\u5929\u7adc\u5ddd\u4e0a\u6d41\u6cb3\u5ddd\u4e8b\u52d9\u6240","boring_xml_url":47,"boring_view_url":1,"soilmap_view_url":null,"soiltest_xml_url":0,"soiltest_view_url":0},{"id":563994,"code":"NGIC202204365-0002","latitude":"35.482990722222","longitude":"134.81158813889","source_code":"","project_name":"","survey_name":"\u5186\u5c71\u5ddd\u4e2d\u90f7\u904a\u6c34\u5730\u6c34\u9053\u65bd\u8a2d\u8a73\u7d30\u8a2d\u8a08\u4ed6\u696d\u52d9","client_name":"\u56fd\u571f\u4ea4\u901a\u7701\u8fd1\u757f\u5730\u65b9\u6574\u5099\u5c40\u8c4a\u5ca1\u6cb3\u5ddd\u56fd\u9053\u4e8b\u52d9\u6240","boring_xml_url":47,"boring_view_url":1,"soilmap_view_url":null,"soiltest_xml_url":47,"soiltest_view_url":47},{"id":563993,"code":"NGIC202204365-0001","latitude":"35.483358638889","longitude":"134.81082125","source_code":"","project_name":"","survey_name":"\u5186\u5c71\u5ddd\u4e2d\u90f7\u904a\u6c34\u5730\u6c34\u9053\u65bd\u8a2d\u8a73\u7d30\u8a2d\u8a08\u4ed6\u696d\u52d9","client_name":"\u56fd\u571f\u4ea4\u901a\u7701\u8fd1\u757f\u5730\u65b9\u6574\u5099\u5c40\u8c4a\u5ca1\u6cb3\u5ddd\u56fd\u9053\u4e8b\u52d9\u6240","boring_xml_url":47,"boring_view_url":1,"soilmap_view_url":null,"soiltest_xml_url":47,"soiltest_view_url":47},{"id":563973,"code":"NGIC202204455-0014","latitude":"44.201033333333","longitude":"142.05140722222","source_code":"","project_name":"","survey_name":"\u4e00\u822c\u56fd\u9053239\u53f7\u82eb\u524d\u753a\u9727\u7acb\u5ce0\u5730\u8cea\u8abf\u67fb\u5916\u4e00\u9023\u696d\u52d9","client_name":"\u56fd\u571f\u4ea4\u901a\u7701\u5317\u6d77\u9053\u958b\u767a\u5c40\u7559\u840c\u958b\u767a\u5efa\u8a2d\u90e8\u672c\u90e8","boring_xml_url":47,"boring_view_url":1,"soilmap_view_url":null,"soiltest_xml_url":0,"soiltest_view_url":0},{"id":563972,"code":"NGIC202204455-0013","latitude":"44.206593138889","longitude":"142.02749722222","source_code":"","project_name":"","survey_name":"\u4e00\u822c\u56fd\u9053239\u53f7\u82eb\u524d\u753a\u9727\u7acb\u5ce0\u5730\u8cea\u8abf\u67fb\u5916\u4e00\u9023\u696d\u52d9","client_name":"\u56fd\u571f\u4ea4\u901a\u7701\u5317\u6d77\u9053\u958b\u767a\u5c40\u7559\u840c\u958b\u767a\u5efa\u8a2d\u90e8\u672c\u90e8","boring_xml_url":47,"boring_view_url":1,"soilmap_view_url":null,"soiltest_xml_url":0,"soiltest_view_url":0},{"id":563971,"code":"NGIC202204455-0012","latitude":"44.206673333333","longitude":"142.02751","source_code":"","project_name":"","survey_name":"\u4e00\u822c\u56fd\u9053239\u53f7\u82eb\u524d\u753a\u9727\u7acb\u5ce0\u5730\u8cea\u8abf\u67fb\u5916\u4e00\u9023\u696d\u52d9","client_name":"\u56fd\u571f\u4ea4\u901a\u7701\u5317\u6d77\u9053\u958b\u767a\u5c40\u7559\u840c\u958b\u767a\u5efa\u8a2d\u90e8\u672c\u90e8","boring_xml_url":47,"boring_view_url":1,"soilmap_view_url":null,"soiltest_xml_url":0,"soiltest_view_url":0},{"id":563970,"code":"NGIC202204455-0011","latitude":"44.200892361111","longitude":"142.03904705556","source_code":"","project_name":"","survey_name":"\u4e00\u822c\u56fd\u9053239\u53f7\u82eb\u524d\u753a\u9727\u7acb\u5ce0\u5730\u8cea\u8abf\u67fb\u5916\u4e00\u9023\u696d\u52d9","client_name":"\u56fd\u571f\u4ea4\u901a\u7701\u5317\u6d77\u9053\u958b\u767a\u5c40\u7559\u840c\u958b\u767a\u5efa\u8a2d\u90e8\u672c\u90e8","boring_xml_url":47,"boring_view_url":1,"soilmap_view_url":null,"soiltest_xml_url":0,"soiltest_view_url":0},{"id":563969,"code":"NGIC202204455-0010","latitude":"44.20084675","longitude":"142.03931991667","source_code":"","project_name":"","survey_name":"\u4e00\u822c\u56fd\u9053239\u53f7\u82eb\u524d\u753a\u9727\u7acb\u5ce0\u5730\u8cea\u8abf\u67fb\u5916\u4e00\u9023\u696d\u52d9","client_name":"\u56fd\u571f\u4ea4\u901a\u7701\u5317\u6d77\u9053\u958b\u767a\u5c40\u7559\u840c\u958b\u767a\u5efa\u8a2d\u90e8\u672c\u90e8","boring_xml_url":47,"boring_view_url":1,"soilmap_view_url":null,"soiltest_xml_url":0,"soiltest_view_url":0},{"id":563968,"code":"NGIC202204455-0009","latitude":"44.200693027778","longitude":"142.03936494444","source_code":"","project_name":"","survey_name":"\u4e00\u822c\u56fd\u9053239\u53f7\u82eb\u524d\u753a\u9727\u7acb\u5ce0\u5730\u8cea\u8abf\u67fb\u5916\u4e00\u9023\u696d\u52d9","client_name":"\u56fd\u571f\u4ea4\u901a\u7701\u5317\u6d77\u9053\u958b\u767a\u5c40\u7559\u840c\u958b\u767a\u5efa\u8a2d\u90e8\u672c\u90e8","boring_xml_url":47,"boring_view_url":1,"soilmap_view_url":null,"soiltest_xml_url":0,"soiltest_view_url":0},{"id":563967,"code":"NGIC202204455-0008","latitude":"44.200609833333","longitude":"142.03914113889","source_code":"","project_name":"","survey_name":"\u4e00\u822c\u56fd\u9053239\u53f7\u82eb\u524d\u753a\u9727\u7acb\u5ce0\u5730\u8cea\u8abf\u67fb\u5916\u4e00\u9023\u696d\u52d9","client_name":"\u56fd\u571f\u4ea4\u901a\u7701\u5317\u6d77\u9053\u958b\u767a\u5c40\u7559\u840c\u958b\u767a\u5efa\u8a2d\u90e8\u672c\u90e8","boring_xml_url":47,"boring_view_url":1,"soilmap_view_url":null,"soiltest_xml_url":0,"soiltest_view_url":0},{"id":563966,"code":"NGIC202204455-0007","latitude":"44.200541972222","longitude":"142.03938841667","source_code":"","project_name":"","survey_name":"\u4e00\u822c\u56fd\u9053239\u53f7\u82eb\u524d\u753a\u9727\u7acb\u5ce0\u5730\u8cea\u8abf\u67fb\u5916\u4e00\u9023\u696d\u52d9","client_name":"\u56fd\u571f\u4ea4\u901a\u7701\u5317\u6d77\u9053\u958b\u767a\u5c40\u7559\u840c\u958b\u767a\u5efa\u8a2d\u90e8\u672c\u90e8","boring_xml_url":47,"boring_view_url":1,"soilmap_view_url":null,"soiltest_xml_url":0,"soiltest_view_url":0},{"id":563965,"code":"NGIC202204455-0006","latitude":"44.198804444444","longitude":"142.03733472222","source_code":"","project_name":"","survey_name":"\u4e00\u822c\u56fd\u9053239\u53f7\u82eb\u524d\u753a\u9727\u7acb\u5ce0\u5730\u8cea\u8abf\u67fb\u5916\u4e00\u9023\u696d\u52d9","client_name":"\u56fd\u571f\u4ea4\u901a\u7701\u5317\u6d77\u9053\u958b\u767a\u5c40\u7559\u840c\u958b\u767a\u5efa\u8a2d\u90e8\u672c\u90e8","boring_xml_url":47,"boring_view_url":1,"soilmap_view_url":null,"soiltest_xml_url":0,"soiltest_view_url":0},{"id":563964,"code":"NGIC202204455-0005","latitude":"44.198690277778","longitude":"142.03725166667","source_code":"","project_name":"","survey_name":"\u4e00\u822c\u56fd\u9053239\u53f7\u82eb\u524d\u753a\u9727\u7acb\u5ce0\u5730\u8cea\u8abf\u67fb\u5916\u4e00\u9023\u696d\u52d9","client_name":"\u56fd\u571f\u4ea4\u901a\u7701\u5317\u6d77\u9053\u958b\u767a\u5c40\u7559\u840c\u958b\u767a\u5efa\u8a2d\u90e8\u672c\u90e8","boring_xml_url":47,"boring_view_url":1,"soilmap_view_url":null,"soiltest_xml_url":0,"soiltest_view_url":0},{"id":563963,"code":"NGIC202204455-0004","latitude":"44.198575944444","longitude":"142.03725872222","source_code":"","project_name":"","survey_name":"\u4e00\u822c\u56fd\u9053239\u53f7\u82eb\u524d\u753a\u9727\u7acb\u5ce0\u5730\u8cea\u8abf\u67fb\u5916\u4e00\u9023\u696d\u52d9","client_name":"\u56fd\u571f\u4ea4\u901a\u7701\u5317\u6d77\u9053\u958b\u767a\u5c40\u7559\u840c\u958b\u767a\u5efa\u8a2d\u90e8\u672c\u90e8","boring_xml_url":47,"boring_view_url":1,"soilmap_view_url":null,"soiltest_xml_url":0,"soiltest_view_url":0},{"id":563962,"code":"NGIC202204455-0003","latitude":"44.200474472222","longitude":"142.05753972222","source_code":"","project_name":"","survey_name":"\u4e00\u822c\u56fd\u9053239\u53f7 \u82eb\u524d\u753a \u9727\u7acb\u5ce0\u5730\u8cea\u8abf\u67fb\u5916\u4e00\u9023\u696d\u52d9","client_name":"\u56fd\u571f\u4ea4\u901a\u7701\u5317\u6d77\u9053\u958b\u767a\u5c40\u7559\u840c\u958b\u767a\u5efa\u8a2d\u90e8\u672c\u90e8","boring_xml_url":47,"boring_view_url":1,"soilmap_view_url":null,"soiltest_xml_url":0,"soiltest_view_url":0},{"id":563961,"code":"NGIC202204455-0002","latitude":"44.200450805556","longitude":"142.05738391667","source_code":"","project_name":"","survey_name":"\u4e00\u822c\u56fd\u9053239\u53f7\u82eb\u524d\u753a\u9727\u7acb\u5ce0\u5730\u8cea\u8abf\u67fb\u5916\u4e00\u9023\u696d\u52d9","client_name":"\u56fd\u571f\u4ea4\u901a\u7701\u5317\u6d77\u9053\u958b\u767a\u5c40\u7559\u840c\u958b\u767a\u5efa\u8a2d\u90e8\u672c\u90e8","boring_xml_url":47,"boring_view_url":1,"soilmap_view_url":null,"soiltest_xml_url":0,"soiltest_view_url":0},{"id":563960,"code":"NGIC202204455-0001","latitude":"44.200519527778","longitude":"142.0574495","source_code":"","project_name":"","survey_name":"\u4e00\u822c\u56fd\u9053239\u53f7\u82eb\u524d\u753a\u9727\u7acb\u5ce0\u5730\u8cea\u8abf\u67fb\u5916\u4e00\u9023\u696d\u52d9","client_name":"\u56fd\u571f\u4ea4\u901a\u7701\u5317\u6d77\u9053\u958b\u767a\u5c40\u7559\u840c\u958b\u767a\u5efa\u8a2d\u90e8\u672c\u90e8","boring_xml_url":47,"boring_view_url":1,"soilmap_view_url":null,"soiltest_xml_url":0,"soiltest_view_url":0},{"id":563881,"code":"NGIC202204467-0007","latitude":"43.490977222222","longitude":"143.72415583333","source_code":"","project_name":"\u5317\u6d77\u9053\u6a2a\u65ad\u81ea\u52d5\u8eca\u9053\u9678\u5225\u753a\u5c0f\u5229\u5225\u5916\u5730\u8cea\u8abf\u67fb\u696d\u52d9","survey_name":"\u5317\u6d77\u9053\u6a2a\u65ad\u81ea\u52d5\u8eca\u9053\u9678\u5225\u753a\u5c0f\u5229\u5225\u5916\u5730\u8cea\u8abf\u67fb\u696d\u52d9","client_name":"\u56fd\u571f\u4ea4\u901a\u7701\u5317\u6d77\u9053\u958b\u767a\u5c40\u5e2f\u5e83\u958b\u767a\u5efa\u8a2d\u90e8\u672c\u90e8","boring_xml_url":47,"boring_view_url":1,"soilmap_view_url":null,"soiltest_xml_url":47,"soiltest_view_url":47}]}}