{"header":{"xyz":{"source":[],"mosaic":false},"page":2920,"raw":{"soiltest_result":"0","bbox":"57.598333,109.544722,1.933333,163.806111","page":"2920"},"conditions":{"soiltest_result":0,"north":57.598333,"west":109.544722,"south":1.933333,"east":163.806111},"success":true,"message":""},"data":{"meta":{"total":212844,"page":2920,"pages":7095,"count":30},"values":[{"id":242953,"code":"B4KJ201802000-8433","latitude":"36.292778","longitude":"139.082083","source_code":"KT200383405220080011","project_name":"\u70cf\u30fb\u795e\u6d41\u5ddd\u5824\u9632\u5730\u8cea\u8abf\u67fb\u696d\u52d9","survey_name":"\u70cf\u30fb\u795e\u6d41\u5ddd\u5824\u9632\u5730\u8cea\u8abf\u67fb\u696d\u52d9","client_name":"\u56fd\u571f\u4ea4\u901a\u7701 \u95a2\u6771\u5730\u65b9\u6574\u5099\u5c40 \u9ad8\u5d0e\u6cb3\u5ddd\u56fd\u9053\u4e8b\u52d9\u6240","boring_xml_url":47,"boring_view_url":1,"soilmap_view_url":null,"soiltest_xml_url":50,"soiltest_view_url":49},{"id":242952,"code":"B4KJ201802000-8432","latitude":"36.284444","longitude":"139.142222","source_code":"KT200383405220080010","project_name":"\u70cf\u30fb\u795e\u6d41\u5ddd\u5824\u9632\u5730\u8cea\u8abf\u67fb\u696d\u52d9","survey_name":"\u70cf\u30fb\u795e\u6d41\u5ddd\u5824\u9632\u5730\u8cea\u8abf\u67fb\u696d\u52d9","client_name":"\u56fd\u571f\u4ea4\u901a\u7701 \u95a2\u6771\u5730\u65b9\u6574\u5099\u5c40 \u9ad8\u5d0e\u6cb3\u5ddd\u56fd\u9053\u4e8b\u52d9\u6240","boring_xml_url":47,"boring_view_url":1,"soilmap_view_url":null,"soiltest_xml_url":50,"soiltest_view_url":49},{"id":242951,"code":"B4KJ201802000-8431","latitude":"36.284444","longitude":"139.142222","source_code":"KT200383405220080009","project_name":"\u70cf\u30fb\u795e\u6d41\u5ddd\u5824\u9632\u5730\u8cea\u8abf\u67fb\u696d\u52d9","survey_name":"\u70cf\u30fb\u795e\u6d41\u5ddd\u5824\u9632\u5730\u8cea\u8abf\u67fb\u696d\u52d9","client_name":"\u56fd\u571f\u4ea4\u901a\u7701 \u95a2\u6771\u5730\u65b9\u6574\u5099\u5c40 \u9ad8\u5d0e\u6cb3\u5ddd\u56fd\u9053\u4e8b\u52d9\u6240","boring_xml_url":47,"boring_view_url":1,"soilmap_view_url":null,"soiltest_xml_url":50,"soiltest_view_url":49},{"id":242950,"code":"B4KJ201802000-8430","latitude":"36.283306","longitude":"139.14625","source_code":"KT200383405220080008","project_name":"\u70cf\u30fb\u795e\u6d41\u5ddd\u5824\u9632\u5730\u8cea\u8abf\u67fb\u696d\u52d9","survey_name":"\u70cf\u30fb\u795e\u6d41\u5ddd\u5824\u9632\u5730\u8cea\u8abf\u67fb\u696d\u52d9","client_name":"\u56fd\u571f\u4ea4\u901a\u7701 \u95a2\u6771\u5730\u65b9\u6574\u5099\u5c40 \u9ad8\u5d0e\u6cb3\u5ddd\u56fd\u9053\u4e8b\u52d9\u6240","boring_xml_url":47,"boring_view_url":1,"soilmap_view_url":null,"soiltest_xml_url":50,"soiltest_view_url":49},{"id":242949,"code":"B4KJ201802000-8429","latitude":"36.283306","longitude":"139.14625","source_code":"KT200383405220080007","project_name":"\u70cf\u30fb\u795e\u6d41\u5ddd\u5824\u9632\u5730\u8cea\u8abf\u67fb\u696d\u52d9","survey_name":"\u70cf\u30fb\u795e\u6d41\u5ddd\u5824\u9632\u5730\u8cea\u8abf\u67fb\u696d\u52d9","client_name":"\u56fd\u571f\u4ea4\u901a\u7701 \u95a2\u6771\u5730\u65b9\u6574\u5099\u5c40 \u9ad8\u5d0e\u6cb3\u5ddd\u56fd\u9053\u4e8b\u52d9\u6240","boring_xml_url":47,"boring_view_url":1,"soilmap_view_url":null,"soiltest_xml_url":50,"soiltest_view_url":49},{"id":242948,"code":"B4KJ201802000-8428","latitude":"36.280278","longitude":"139.155417","source_code":"KT200383405220080006","project_name":"\u70cf\u30fb\u795e\u6d41\u5ddd\u5824\u9632\u5730\u8cea\u8abf\u67fb\u696d\u52d9","survey_name":"\u70cf\u30fb\u795e\u6d41\u5ddd\u5824\u9632\u5730\u8cea\u8abf\u67fb\u696d\u52d9","client_name":"\u56fd\u571f\u4ea4\u901a\u7701 \u95a2\u6771\u5730\u65b9\u6574\u5099\u5c40 \u9ad8\u5d0e\u6cb3\u5ddd\u56fd\u9053\u4e8b\u52d9\u6240","boring_xml_url":47,"boring_view_url":1,"soilmap_view_url":null,"soiltest_xml_url":50,"soiltest_view_url":49},{"id":242947,"code":"B4KJ201802000-8427","latitude":"36.280278","longitude":"139.155417","source_code":"KT200383405220080005","project_name":"\u70cf\u30fb\u795e\u6d41\u5ddd\u5824\u9632\u5730\u8cea\u8abf\u67fb\u696d\u52d9","survey_name":"\u70cf\u30fb\u795e\u6d41\u5ddd\u5824\u9632\u5730\u8cea\u8abf\u67fb\u696d\u52d9","client_name":"\u56fd\u571f\u4ea4\u901a\u7701 \u95a2\u6771\u5730\u65b9\u6574\u5099\u5c40 \u9ad8\u5d0e\u6cb3\u5ddd\u56fd\u9053\u4e8b\u52d9\u6240","boring_xml_url":47,"boring_view_url":1,"soilmap_view_url":null,"soiltest_xml_url":50,"soiltest_view_url":49},{"id":242946,"code":"B4KJ201802000-8426","latitude":"36.291083","longitude":"139.051806","source_code":"KT200383405220080004","project_name":"\u70cf\u30fb\u795e\u6d41\u5ddd\u5824\u9632\u5730\u8cea\u8abf\u67fb\u696d\u52d9","survey_name":"\u70cf\u30fb\u795e\u6d41\u5ddd\u5824\u9632\u5730\u8cea\u8abf\u67fb\u696d\u52d9","client_name":"\u56fd\u571f\u4ea4\u901a\u7701 \u95a2\u6771\u5730\u65b9\u6574\u5099\u5c40 \u9ad8\u5d0e\u6cb3\u5ddd\u56fd\u9053\u4e8b\u52d9\u6240","boring_xml_url":47,"boring_view_url":1,"soilmap_view_url":null,"soiltest_xml_url":50,"soiltest_view_url":49},{"id":242945,"code":"B4KJ201802000-8425","latitude":"36.290083","longitude":"139.05625","source_code":"KT200383405220080003","project_name":"\u70cf\u30fb\u795e\u6d41\u5ddd\u5824\u9632\u5730\u8cea\u8abf\u67fb\u696d\u52d9","survey_name":"\u70cf\u30fb\u795e\u6d41\u5ddd\u5824\u9632\u5730\u8cea\u8abf\u67fb\u696d\u52d9","client_name":"\u56fd\u571f\u4ea4\u901a\u7701 \u95a2\u6771\u5730\u65b9\u6574\u5099\u5c40 \u9ad8\u5d0e\u6cb3\u5ddd\u56fd\u9053\u4e8b\u52d9\u6240","boring_xml_url":47,"boring_view_url":1,"soilmap_view_url":null,"soiltest_xml_url":50,"soiltest_view_url":49},{"id":242944,"code":"B4KJ201802000-8424","latitude":"36.27925","longitude":"139.120694","source_code":"KT200383405220080002","project_name":"\u70cf\u30fb\u795e\u6d41\u5ddd\u5824\u9632\u5730\u8cea\u8abf\u67fb\u696d\u52d9","survey_name":"\u70cf\u30fb\u795e\u6d41\u5ddd\u5824\u9632\u5730\u8cea\u8abf\u67fb\u696d\u52d9","client_name":"\u56fd\u571f\u4ea4\u901a\u7701 \u95a2\u6771\u5730\u65b9\u6574\u5099\u5c40 \u9ad8\u5d0e\u6cb3\u5ddd\u56fd\u9053\u4e8b\u52d9\u6240","boring_xml_url":47,"boring_view_url":1,"soilmap_view_url":null,"soiltest_xml_url":0,"soiltest_view_url":0},{"id":242943,"code":"B4KJ201802000-8423","latitude":"36.278639","longitude":"139.126528","source_code":"KT200383405220080001","project_name":"\u70cf\u30fb\u795e\u6d41\u5ddd\u5824\u9632\u5730\u8cea\u8abf\u67fb\u696d\u52d9","survey_name":"\u70cf\u30fb\u795e\u6d41\u5ddd\u5824\u9632\u5730\u8cea\u8abf\u67fb\u696d\u52d9","client_name":"\u56fd\u571f\u4ea4\u901a\u7701 \u95a2\u6771\u5730\u65b9\u6574\u5099\u5c40 \u9ad8\u5d0e\u6cb3\u5ddd\u56fd\u9053\u4e8b\u52d9\u6240","boring_xml_url":47,"boring_view_url":1,"soilmap_view_url":null,"soiltest_xml_url":0,"soiltest_view_url":0},{"id":242942,"code":"B4KJ201802000-8422","latitude":"36.384722","longitude":"139.067722","source_code":"KT200283406020190050","project_name":"\u4e0a\u6b66\u9053\u8def8\u5de5\u533a\u305d\u306e\u4ed6\u5730\u8cea\u8abf\u67fb","survey_name":"\u4e0a\u6b66\u9053\u8def8\u5de5\u533a\u305d\u306e\u4ed6\u5730\u8cea\u8abf\u67fb","client_name":"\u56fd\u571f\u4ea4\u901a\u7701\u95a2\u6771\u5730\u65b9\u6574\u5099\u5c40\u9ad8\u5d0e\u5de5\u4e8b\u4e8b\u52d9\u6240","boring_xml_url":47,"boring_view_url":1,"soilmap_view_url":null,"soiltest_xml_url":50,"soiltest_view_url":49},{"id":242941,"code":"B4KJ201802000-8421","latitude":"36.53273","longitude":"139.020417","source_code":"KT200283406020190049","project_name":"\u4e0a\u6b66\u9053\u8def8\u5de5\u533a\u305d\u306e\u4ed6\u5730\u8cea\u8abf\u67fb","survey_name":"\u4e0a\u6b66\u9053\u8def8\u5de5\u533a\u305d\u306e\u4ed6\u5730\u8cea\u8abf\u67fb","client_name":"\u56fd\u571f\u4ea4\u901a\u7701\u95a2\u6771\u5730\u65b9\u6574\u5099\u5c40\u9ad8\u5d0e\u5de5\u4e8b\u4e8b\u52d9\u6240","boring_xml_url":47,"boring_view_url":1,"soilmap_view_url":null,"soiltest_xml_url":0,"soiltest_view_url":0},{"id":242940,"code":"B4KJ201802000-8420","latitude":"36.532952","longitude":"139.019861","source_code":"KT200283406020190048","project_name":"\u4e0a\u6b66\u9053\u8def8\u5de5\u533a\u305d\u306e\u4ed6\u5730\u8cea\u8abf\u67fb","survey_name":"\u4e0a\u6b66\u9053\u8def8\u5de5\u533a\u305d\u306e\u4ed6\u5730\u8cea\u8abf\u67fb","client_name":"\u56fd\u571f\u4ea4\u901a\u7701\u95a2\u6771\u5730\u65b9\u6574\u5099\u5c40\u9ad8\u5d0e\u5de5\u4e8b\u4e8b\u52d9\u6240","boring_xml_url":47,"boring_view_url":1,"soilmap_view_url":null,"soiltest_xml_url":0,"soiltest_view_url":0},{"id":242939,"code":"B4KJ201802000-8419","latitude":"36.529203","longitude":"139.018195","source_code":"KT200283406020190047","project_name":"\u4e0a\u6b66\u9053\u8def8\u5de5\u533a\u305d\u306e\u4ed6\u5730\u8cea\u8abf\u67fb","survey_name":"\u4e0a\u6b66\u9053\u8def8\u5de5\u533a\u305d\u306e\u4ed6\u5730\u8cea\u8abf\u67fb","client_name":"\u56fd\u571f\u4ea4\u901a\u7701\u95a2\u6771\u5730\u65b9\u6574\u5099\u5c40\u9ad8\u5d0e\u5de5\u4e8b\u4e8b\u52d9\u6240","boring_xml_url":47,"boring_view_url":1,"soilmap_view_url":null,"soiltest_xml_url":0,"soiltest_view_url":0},{"id":242938,"code":"B4KJ201802000-8418","latitude":"36.52898","longitude":"139.019028","source_code":"KT200283406020190046","project_name":"\u4e0a\u6b66\u9053\u8def8\u5de5\u533a\u305d\u306e\u4ed6\u5730\u8cea\u8abf\u67fb","survey_name":"\u4e0a\u6b66\u9053\u8def8\u5de5\u533a\u305d\u306e\u4ed6\u5730\u8cea\u8abf\u67fb","client_name":"\u56fd\u571f\u4ea4\u901a\u7701\u95a2\u6771\u5730\u65b9\u6574\u5099\u5c40\u9ad8\u5d0e\u5de5\u4e8b\u4e8b\u52d9\u6240","boring_xml_url":47,"boring_view_url":1,"soilmap_view_url":null,"soiltest_xml_url":0,"soiltest_view_url":0},{"id":242937,"code":"B4KJ201802000-8417","latitude":"36.524536","longitude":"139.019584","source_code":"KT200283406020190045","project_name":"\u4e0a\u6b66\u9053\u8def8\u5de5\u533a\u305d\u306e\u4ed6\u5730\u8cea\u8abf\u67fb","survey_name":"\u4e0a\u6b66\u9053\u8def8\u5de5\u533a\u305d\u306e\u4ed6\u5730\u8cea\u8abf\u67fb","client_name":"\u56fd\u571f\u4ea4\u901a\u7701\u95a2\u6771\u5730\u65b9\u6574\u5099\u5c40\u9ad8\u5d0e\u5de5\u4e8b\u4e8b\u52d9\u6240","boring_xml_url":47,"boring_view_url":1,"soilmap_view_url":null,"soiltest_xml_url":0,"soiltest_view_url":0},{"id":242936,"code":"B4KJ201802000-8416","latitude":"36.524425","longitude":"139.019306","source_code":"KT200283406020190044","project_name":"\u4e0a\u6b66\u9053\u8def8\u5de5\u533a\u305d\u306e\u4ed6\u5730\u8cea\u8abf\u67fb","survey_name":"\u4e0a\u6b66\u9053\u8def8\u5de5\u533a\u305d\u306e\u4ed6\u5730\u8cea\u8abf\u67fb","client_name":"\u56fd\u571f\u4ea4\u901a\u7701\u95a2\u6771\u5730\u65b9\u6574\u5099\u5c40\u9ad8\u5d0e\u5de5\u4e8b\u4e8b\u52d9\u6240","boring_xml_url":47,"boring_view_url":1,"soilmap_view_url":null,"soiltest_xml_url":0,"soiltest_view_url":0},{"id":242935,"code":"B4KJ201802000-8415","latitude":"36.461611","longitude":"139.031833","source_code":"KT200283406020190043","project_name":"\u4e0a\u6b66\u9053\u8def8\u5de5\u533a\u305d\u306e\u4ed6\u5730\u8cea\u8abf\u67fb","survey_name":"\u4e0a\u6b66\u9053\u8def8\u5de5\u533a\u305d\u306e\u4ed6\u5730\u8cea\u8abf\u67fb","client_name":"\u56fd\u571f\u4ea4\u901a\u7701\u95a2\u6771\u5730\u65b9\u6574\u5099\u5c40\u9ad8\u5d0e\u5de5\u4e8b\u4e8b\u52d9\u6240","boring_xml_url":47,"boring_view_url":1,"soilmap_view_url":null,"soiltest_xml_url":0,"soiltest_view_url":0},{"id":242934,"code":"B4KJ201802000-8414","latitude":"36.461611","longitude":"139.031833","source_code":"KT200283406020190042","project_name":"\u4e0a\u6b66\u9053\u8def8\u5de5\u533a\u305d\u306e\u4ed6\u5730\u8cea\u8abf\u67fb","survey_name":"\u4e0a\u6b66\u9053\u8def8\u5de5\u533a\u305d\u306e\u4ed6\u5730\u8cea\u8abf\u67fb","client_name":"\u56fd\u571f\u4ea4\u901a\u7701\u95a2\u6771\u5730\u65b9\u6574\u5099\u5c40\u9ad8\u5d0e\u5de5\u4e8b\u4e8b\u52d9\u6240","boring_xml_url":47,"boring_view_url":1,"soilmap_view_url":null,"soiltest_xml_url":0,"soiltest_view_url":0},{"id":242933,"code":"B4KJ201802000-8413","latitude":"36.4645","longitude":"139.029528","source_code":"KT200283406020190041","project_name":"\u4e0a\u6b66\u9053\u8def8\u5de5\u533a\u305d\u306e\u4ed6\u5730\u8cea\u8abf\u67fb","survey_name":"\u4e0a\u6b66\u9053\u8def8\u5de5\u533a\u305d\u306e\u4ed6\u5730\u8cea\u8abf\u67fb","client_name":"\u56fd\u571f\u4ea4\u901a\u7701\u95a2\u6771\u5730\u65b9\u6574\u5099\u5c40\u9ad8\u5d0e\u5de5\u4e8b\u4e8b\u52d9\u6240","boring_xml_url":47,"boring_view_url":1,"soilmap_view_url":null,"soiltest_xml_url":0,"soiltest_view_url":0},{"id":242932,"code":"B4KJ201802000-8412","latitude":"36.464028","longitude":"139.029278","source_code":"KT200283406020190040","project_name":"\u4e0a\u6b66\u9053\u8def8\u5de5\u533a\u305d\u306e\u4ed6\u5730\u8cea\u8abf\u67fb","survey_name":"\u4e0a\u6b66\u9053\u8def8\u5de5\u533a\u305d\u306e\u4ed6\u5730\u8cea\u8abf\u67fb","client_name":"\u56fd\u571f\u4ea4\u901a\u7701\u95a2\u6771\u5730\u65b9\u6574\u5099\u5c40\u9ad8\u5d0e\u5de5\u4e8b\u4e8b\u52d9\u6240","boring_xml_url":47,"boring_view_url":1,"soilmap_view_url":null,"soiltest_xml_url":0,"soiltest_view_url":0},{"id":242931,"code":"B4KJ201802000-8411","latitude":"36.462583","longitude":"139.031083","source_code":"KT200283406020190039","project_name":"\u4e0a\u6b66\u9053\u8def8\u5de5\u533a\u305d\u306e\u4ed6\u5730\u8cea\u8abf\u67fb","survey_name":"\u4e0a\u6b66\u9053\u8def8\u5de5\u533a\u305d\u306e\u4ed6\u5730\u8cea\u8abf\u67fb","client_name":"\u56fd\u571f\u4ea4\u901a\u7701\u95a2\u6771\u5730\u65b9\u6574\u5099\u5c40\u9ad8\u5d0e\u5de5\u4e8b\u4e8b\u52d9\u6240","boring_xml_url":47,"boring_view_url":1,"soilmap_view_url":null,"soiltest_xml_url":0,"soiltest_view_url":0},{"id":242930,"code":"B4KJ201802000-8410","latitude":"36.462583","longitude":"139.031083","source_code":"KT200283406020190038","project_name":"\u4e0a\u6b66\u9053\u8def8\u5de5\u533a\u305d\u306e\u4ed6\u5730\u8cea\u8abf\u67fb","survey_name":"\u4e0a\u6b66\u9053\u8def8\u5de5\u533a\u305d\u306e\u4ed6\u5730\u8cea\u8abf\u67fb","client_name":"\u56fd\u571f\u4ea4\u901a\u7701\u95a2\u6771\u5730\u65b9\u6574\u5099\u5c40\u9ad8\u5d0e\u5de5\u4e8b\u4e8b\u52d9\u6240","boring_xml_url":47,"boring_view_url":1,"soilmap_view_url":null,"soiltest_xml_url":0,"soiltest_view_url":0},{"id":242929,"code":"B4KJ201802000-8409","latitude":"36.4625","longitude":"139.030944","source_code":"KT200283406020190037","project_name":"\u4e0a\u6b66\u9053\u8def8\u5de5\u533a\u305d\u306e\u4ed6\u5730\u8cea\u8abf\u67fb","survey_name":"\u4e0a\u6b66\u9053\u8def8\u5de5\u533a\u305d\u306e\u4ed6\u5730\u8cea\u8abf\u67fb","client_name":"\u56fd\u571f\u4ea4\u901a\u7701\u95a2\u6771\u5730\u65b9\u6574\u5099\u5c40\u9ad8\u5d0e\u5de5\u4e8b\u4e8b\u52d9\u6240","boring_xml_url":47,"boring_view_url":1,"soilmap_view_url":null,"soiltest_xml_url":0,"soiltest_view_url":0},{"id":242928,"code":"B4KJ201802000-8408","latitude":"36.461694","longitude":"139.921972","source_code":"KT200283406020190036","project_name":"\u4e0a\u6b66\u9053\u8def8\u5de5\u533a\u305d\u306e\u4ed6\u5730\u8cea\u8abf\u67fb","survey_name":"\u4e0a\u6b66\u9053\u8def8\u5de5\u533a\u305d\u306e\u4ed6\u5730\u8cea\u8abf\u67fb","client_name":"\u56fd\u571f\u4ea4\u901a\u7701\u95a2\u6771\u5730\u65b9\u6574\u5099\u5c40\u9ad8\u5d0e\u5de5\u4e8b\u4e8b\u52d9\u6240","boring_xml_url":47,"boring_view_url":1,"soilmap_view_url":null,"soiltest_xml_url":0,"soiltest_view_url":0},{"id":242927,"code":"B4KJ201802000-8407","latitude":"36.461639","longitude":"139.031722","source_code":"KT200283406020190035","project_name":"\u4e0a\u6b66\u9053\u8def8\u5de5\u533a\u305d\u306e\u4ed6\u5730\u8cea\u8abf\u67fb","survey_name":"\u4e0a\u6b66\u9053\u8def8\u5de5\u533a\u305d\u306e\u4ed6\u5730\u8cea\u8abf\u67fb","client_name":"\u56fd\u571f\u4ea4\u901a\u7701\u95a2\u6771\u5730\u65b9\u6574\u5099\u5c40\u9ad8\u5d0e\u5de5\u4e8b\u4e8b\u52d9\u6240","boring_xml_url":47,"boring_view_url":1,"soilmap_view_url":null,"soiltest_xml_url":0,"soiltest_view_url":0},{"id":242926,"code":"B4KJ201802000-8406","latitude":"36.461167","longitude":"139.032472","source_code":"KT200283406020190034","project_name":"\u4e0a\u6b66\u9053\u8def8\u5de5\u533a\u305d\u306e\u4ed6\u5730\u8cea\u8abf\u67fb","survey_name":"\u4e0a\u6b66\u9053\u8def8\u5de5\u533a\u305d\u306e\u4ed6\u5730\u8cea\u8abf\u67fb","client_name":"\u56fd\u571f\u4ea4\u901a\u7701\u95a2\u6771\u5730\u65b9\u6574\u5099\u5c40\u9ad8\u5d0e\u5de5\u4e8b\u4e8b\u52d9\u6240","boring_xml_url":47,"boring_view_url":1,"soilmap_view_url":null,"soiltest_xml_url":0,"soiltest_view_url":0},{"id":242925,"code":"B4KJ201802000-8405","latitude":"36.461028","longitude":"139.032444","source_code":"KT200283406020190033","project_name":"\u4e0a\u6b66\u9053\u8def8\u5de5\u533a\u305d\u306e\u4ed6\u5730\u8cea\u8abf\u67fb","survey_name":"\u4e0a\u6b66\u9053\u8def8\u5de5\u533a\u305d\u306e\u4ed6\u5730\u8cea\u8abf\u67fb","client_name":"\u56fd\u571f\u4ea4\u901a\u7701\u95a2\u6771\u5730\u65b9\u6574\u5099\u5c40\u9ad8\u5d0e\u5de5\u4e8b\u4e8b\u52d9\u6240","boring_xml_url":47,"boring_view_url":1,"soilmap_view_url":null,"soiltest_xml_url":0,"soiltest_view_url":0},{"id":242924,"code":"B4KJ201802000-8404","latitude":"36.459861","longitude":"139.033389","source_code":"KT200283406020190032","project_name":"\u4e0a\u6b66\u9053\u8def8\u5de5\u533a\u305d\u306e\u4ed6\u5730\u8cea\u8abf\u67fb","survey_name":"\u4e0a\u6b66\u9053\u8def8\u5de5\u533a\u305d\u306e\u4ed6\u5730\u8cea\u8abf\u67fb","client_name":"\u56fd\u571f\u4ea4\u901a\u7701\u95a2\u6771\u5730\u65b9\u6574\u5099\u5c40\u9ad8\u5d0e\u5de5\u4e8b\u4e8b\u52d9\u6240","boring_xml_url":47,"boring_view_url":1,"soilmap_view_url":null,"soiltest_xml_url":0,"soiltest_view_url":0}]}}