{"header":{"xyz":{"source":[],"mosaic":false},"page":2925,"raw":{"soiltest_result":"0","bbox":"57.598333,109.544722,1.933333,163.806111","page":"2925"},"conditions":{"soiltest_result":0,"north":57.598333,"west":109.544722,"south":1.933333,"east":163.806111},"success":true,"message":""},"data":{"meta":{"total":212844,"page":2925,"pages":7095,"count":30},"values":[{"id":242803,"code":"B4KJ201802000-8283","latitude":"35.839278","longitude":"140.150417","source_code":"KT200383506020480011","project_name":"\u5b89\u98df\u7ba1\u5185\u4e0a\u6d41\u5824\u9632\u8a73\u7d30\u8abf\u67fb\u696d\u52d9","survey_name":"\u5b89\u98df\u7ba1\u5185\u4e0a\u6d41\u5824\u9632\u8a73\u7d30\u8abf\u67fb\u696d\u52d9","client_name":"\u56fd\u571f\u4ea4\u901a\u7701 \u5229\u6839\u5ddd\u4e0b\u6d41\u6cb3\u5ddd\u4e8b\u52d9\u6240","boring_xml_url":47,"boring_view_url":1,"soilmap_view_url":null,"soiltest_xml_url":50,"soiltest_view_url":49},{"id":242802,"code":"B4KJ201802000-8282","latitude":"35.839167","longitude":"140.150222","source_code":"KT200383506020480010","project_name":"\u5b89\u98df\u7ba1\u5185\u4e0a\u6d41\u5824\u9632\u8a73\u7d30\u8abf\u67fb\u696d\u52d9","survey_name":"\u5b89\u98df\u7ba1\u5185\u4e0a\u6d41\u5824\u9632\u8a73\u7d30\u8abf\u67fb\u696d\u52d9","client_name":"\u56fd\u571f\u4ea4\u901a\u7701 \u5229\u6839\u5ddd\u4e0b\u6d41\u6cb3\u5ddd\u4e8b\u52d9\u6240","boring_xml_url":47,"boring_view_url":1,"soilmap_view_url":null,"soiltest_xml_url":50,"soiltest_view_url":49},{"id":242801,"code":"B4KJ201802000-8281","latitude":"35.841389","longitude":"140.177194","source_code":"KT200383506020480009","project_name":"\u5b89\u98df\u7ba1\u5185\u4e0a\u6d41\u5824\u9632\u8a73\u7d30\u8abf\u67fb\u696d\u52d9","survey_name":"\u5b89\u98df\u7ba1\u5185\u4e0a\u6d41\u5824\u9632\u8a73\u7d30\u8abf\u67fb\u696d\u52d9","client_name":"\u56fd\u571f\u4ea4\u901a\u7701 \u5229\u6839\u5ddd\u4e0b\u6d41\u6cb3\u5ddd\u4e8b\u52d9\u6240","boring_xml_url":47,"boring_view_url":1,"soilmap_view_url":null,"soiltest_xml_url":50,"soiltest_view_url":49},{"id":242800,"code":"B4KJ201802000-8280","latitude":"35.841639","longitude":"140.177167","source_code":"KT200383506020480008","project_name":"\u5b89\u98df\u7ba1\u5185\u4e0a\u6d41\u5824\u9632\u8a73\u7d30\u8abf\u67fb\u696d\u52d9","survey_name":"\u5b89\u98df\u7ba1\u5185\u4e0a\u6d41\u5824\u9632\u8a73\u7d30\u8abf\u67fb\u696d\u52d9","client_name":"\u56fd\u571f\u4ea4\u901a\u7701 \u5229\u6839\u5ddd\u4e0b\u6d41\u6cb3\u5ddd\u4e8b\u52d9\u6240","boring_xml_url":47,"boring_view_url":1,"soilmap_view_url":null,"soiltest_xml_url":50,"soiltest_view_url":49},{"id":242799,"code":"B4KJ201802000-8279","latitude":"35.841556","longitude":"140.177167","source_code":"KT200383506020480007","project_name":"\u5b89\u98df\u7ba1\u5185\u4e0a\u6d41\u5824\u9632\u8a73\u7d30\u8abf\u67fb\u696d\u52d9","survey_name":"\u5b89\u98df\u7ba1\u5185\u4e0a\u6d41\u5824\u9632\u8a73\u7d30\u8abf\u67fb\u696d\u52d9","client_name":"\u56fd\u571f\u4ea4\u901a\u7701 \u5229\u6839\u5ddd\u4e0b\u6d41\u6cb3\u5ddd\u4e8b\u52d9\u6240","boring_xml_url":47,"boring_view_url":1,"soilmap_view_url":null,"soiltest_xml_url":50,"soiltest_view_url":49},{"id":242798,"code":"B4KJ201802000-8278","latitude":"35.8535","longitude":"140.206167","source_code":"KT200383506020480006","project_name":"\u5b89\u98df\u7ba1\u5185\u4e0a\u6d41\u5824\u9632\u8a73\u7d30\u8abf\u67fb\u696d\u52d9","survey_name":"\u5b89\u98df\u7ba1\u5185\u4e0a\u6d41\u5824\u9632\u8a73\u7d30\u8abf\u67fb\u696d\u52d9","client_name":"\u56fd\u571f\u4ea4\u901a\u7701 \u5229\u6839\u5ddd\u4e0b\u6d41\u6cb3\u5ddd\u4e8b\u52d9\u6240","boring_xml_url":47,"boring_view_url":1,"soilmap_view_url":null,"soiltest_xml_url":50,"soiltest_view_url":49},{"id":242797,"code":"B4KJ201802000-8277","latitude":"35.85375","longitude":"140.206028","source_code":"KT200383506020480005","project_name":"\u5b89\u98df\u7ba1\u5185\u4e0a\u6d41\u5824\u9632\u8a73\u7d30\u8abf\u67fb\u696d\u52d9","survey_name":"\u5b89\u98df\u7ba1\u5185\u4e0a\u6d41\u5824\u9632\u8a73\u7d30\u8abf\u67fb\u696d\u52d9","client_name":"\u56fd\u571f\u4ea4\u901a\u7701 \u5229\u6839\u5ddd\u4e0b\u6d41\u6cb3\u5ddd\u4e8b\u52d9\u6240","boring_xml_url":47,"boring_view_url":1,"soilmap_view_url":null,"soiltest_xml_url":50,"soiltest_view_url":49},{"id":242796,"code":"B4KJ201802000-8276","latitude":"35.853667","longitude":"140.356028","source_code":"KT200383506020480004","project_name":"\u5b89\u98df\u7ba1\u5185\u4e0a\u6d41\u5824\u9632\u8a73\u7d30\u8abf\u67fb\u696d\u52d9","survey_name":"\u5b89\u98df\u7ba1\u5185\u4e0a\u6d41\u5824\u9632\u8a73\u7d30\u8abf\u67fb\u696d\u52d9","client_name":"\u56fd\u571f\u4ea4\u901a\u7701 \u5229\u6839\u5ddd\u4e0b\u6d41\u6cb3\u5ddd\u4e8b\u52d9\u6240","boring_xml_url":47,"boring_view_url":1,"soilmap_view_url":null,"soiltest_xml_url":50,"soiltest_view_url":49},{"id":242795,"code":"B4KJ201802000-8275","latitude":"35.849472","longitude":"140.236472","source_code":"KT200383506020480003","project_name":"\u5b89\u98df\u7ba1\u5185\u4e0a\u6d41\u5824\u9632\u8a73\u7d30\u8abf\u67fb\u696d\u52d9","survey_name":"\u5b89\u98df\u7ba1\u5185\u4e0a\u6d41\u5824\u9632\u8a73\u7d30\u8abf\u67fb\u696d\u52d9","client_name":"\u56fd\u571f\u4ea4\u901a\u7701 \u5229\u6839\u5ddd\u4e0b\u6d41\u6cb3\u5ddd\u4e8b\u52d9\u6240","boring_xml_url":47,"boring_view_url":1,"soilmap_view_url":null,"soiltest_xml_url":50,"soiltest_view_url":49},{"id":242794,"code":"B4KJ201802000-8274","latitude":"35.849806","longitude":"140.236472","source_code":"KT200383506020480002","project_name":"\u5b89\u98df\u7ba1\u5185\u4e0a\u6d41\u5824\u9632\u8a73\u7d30\u8abf\u67fb\u696d\u52d9","survey_name":"\u5b89\u98df\u7ba1\u5185\u4e0a\u6d41\u5824\u9632\u8a73\u7d30\u8abf\u67fb\u696d\u52d9","client_name":"\u56fd\u571f\u4ea4\u901a\u7701 \u5229\u6839\u5ddd\u4e0b\u6d41\u6cb3\u5ddd\u4e8b\u52d9\u6240","boring_xml_url":47,"boring_view_url":1,"soilmap_view_url":null,"soiltest_xml_url":50,"soiltest_view_url":49},{"id":242793,"code":"B4KJ201802000-8273","latitude":"35.849694","longitude":"140.236472","source_code":"KT200383506020480001","project_name":"\u5b89\u98df\u7ba1\u5185\u4e0a\u6d41\u5824\u9632\u8a73\u7d30\u8abf\u67fb\u696d\u52d9","survey_name":"\u5b89\u98df\u7ba1\u5185\u4e0a\u6d41\u5824\u9632\u8a73\u7d30\u8abf\u67fb\u696d\u52d9","client_name":"\u56fd\u571f\u4ea4\u901a\u7701 \u5229\u6839\u5ddd\u4e0b\u6d41\u6cb3\u5ddd\u4e8b\u52d9\u6240","boring_xml_url":47,"boring_view_url":1,"soilmap_view_url":null,"soiltest_xml_url":50,"soiltest_view_url":49},{"id":242792,"code":"B4KJ201802000-8272","latitude":"35.910278","longitude":"140.424444","source_code":"KT200383506020500014","project_name":"","survey_name":"\u4f50\u539f\u7ba1\u5185\u5de6\u5cb8\u5824\u9632\u8a73\u7d30\u8abf\u67fb\u696d\u52d9","client_name":"\u56fd\u571f\u4ea4\u901a\u7701\u95a2\u6771\u5730\u65b9\u6574\u5099\u5c40 \u5229\u6839\u5ddd\u4e0b\u6d41\u6cb3\u5ddd\u4e8b\u52d9\u6240","boring_xml_url":47,"boring_view_url":1,"soilmap_view_url":null,"soiltest_xml_url":0,"soiltest_view_url":0},{"id":242791,"code":"B4KJ201802000-8271","latitude":"35.909722","longitude":"140.424722","source_code":"KT200383506020500013","project_name":"","survey_name":"\u4f50\u539f\u7ba1\u5185\u5de6\u5cb8\u5824\u9632\u8a73\u7d30\u8abf\u67fb\u696d\u52d9","client_name":"\u56fd\u571f\u4ea4\u901a\u7701\u95a2\u6771\u5730\u65b9\u6574\u5099\u5c40 \u5229\u6839\u5ddd\u4e0b\u6d41\u6cb3\u5ddd\u4e8b\u52d9\u6240","boring_xml_url":47,"boring_view_url":1,"soilmap_view_url":null,"soiltest_xml_url":0,"soiltest_view_url":0},{"id":242790,"code":"B4KJ201802000-8270","latitude":"35.91","longitude":"140.424722","source_code":"KT200383506020500012","project_name":"","survey_name":"\u4f50\u539f\u7ba1\u5185\u5de6\u5cb8\u5824\u9632\u8a73\u7d30\u8abf\u67fb\u696d\u52d9","client_name":"\u56fd\u571f\u4ea4\u901a\u7701\u95a2\u6771\u5730\u65b9\u6574\u5099\u5c40 \u5229\u6839\u5ddd\u4e0b\u6d41\u6cb3\u5ddd\u4e8b\u52d9\u6240","boring_xml_url":47,"boring_view_url":1,"soilmap_view_url":null,"soiltest_xml_url":0,"soiltest_view_url":0},{"id":242789,"code":"B4KJ201802000-8269","latitude":"35.919722","longitude":"140.463333","source_code":"KT200383506020500011","project_name":"","survey_name":"\u4f50\u539f\u7ba1\u5185\u5de6\u5cb8\u5824\u9632\u8a73\u7d30\u8abf\u67fb\u696d\u52d9","client_name":"\u56fd\u571f\u4ea4\u901a\u7701\u95a2\u6771\u5730\u65b9\u6574\u5099\u5c40 \u5229\u6839\u5ddd\u4e0b\u6d41\u6cb3\u5ddd\u4e8b\u52d9\u6240","boring_xml_url":47,"boring_view_url":1,"soilmap_view_url":null,"soiltest_xml_url":0,"soiltest_view_url":0},{"id":242788,"code":"B4KJ201802000-8268","latitude":"35.92","longitude":"140.463333","source_code":"KT200383506020500010","project_name":"","survey_name":"\u4f50\u539f\u7ba1\u5185\u5de6\u5cb8\u5824\u9632\u8a73\u7d30\u8abf\u67fb\u696d\u52d9","client_name":"\u56fd\u571f\u4ea4\u901a\u7701\u95a2\u6771\u5730\u65b9\u6574\u5099\u5c40 \u5229\u6839\u5ddd\u4e0b\u6d41\u6cb3\u5ddd\u4e8b\u52d9\u6240","boring_xml_url":47,"boring_view_url":1,"soilmap_view_url":null,"soiltest_xml_url":0,"soiltest_view_url":0},{"id":242787,"code":"B4KJ201802000-8267","latitude":"35.92","longitude":"140.466389","source_code":"KT200383506020500009","project_name":"","survey_name":"\u4f50\u539f\u7ba1\u5185\u5de6\u5cb8\u5824\u9632\u8a73\u7d30\u8abf\u67fb\u696d\u52d9","client_name":"\u56fd\u571f\u4ea4\u901a\u7701\u95a2\u6771\u5730\u65b9\u6574\u5099\u5c40 \u5229\u6839\u5ddd\u4e0b\u6d41\u6cb3\u5ddd\u4e8b\u52d9\u6240","boring_xml_url":47,"boring_view_url":1,"soilmap_view_url":null,"soiltest_xml_url":0,"soiltest_view_url":0},{"id":242786,"code":"B4KJ201802000-8266","latitude":"35.919444","longitude":"140.466389","source_code":"KT200383506020500008","project_name":"","survey_name":"\u4f50\u539f\u7ba1\u5185\u5de6\u5cb8\u5824\u9632\u8a73\u7d30\u8abf\u67fb\u696d\u52d9","client_name":"\u56fd\u571f\u4ea4\u901a\u7701\u95a2\u6771\u5730\u65b9\u6574\u5099\u5c40 \u5229\u6839\u5ddd\u4e0b\u6d41\u6cb3\u5ddd\u4e8b\u52d9\u6240","boring_xml_url":47,"boring_view_url":1,"soilmap_view_url":null,"soiltest_xml_url":0,"soiltest_view_url":0},{"id":242785,"code":"B4KJ201802000-8265","latitude":"35.919722","longitude":"140.466389","source_code":"KT200383506020500007","project_name":"","survey_name":"\u4f50\u539f\u7ba1\u5185\u5de6\u5cb8\u5824\u9632\u8a73\u7d30\u8abf\u67fb\u696d\u52d9","client_name":"\u56fd\u571f\u4ea4\u901a\u7701\u95a2\u6771\u5730\u65b9\u6574\u5099\u5c40 \u5229\u6839\u5ddd\u4e0b\u6d41\u6cb3\u5ddd\u4e8b\u52d9\u6240","boring_xml_url":47,"boring_view_url":1,"soilmap_view_url":null,"soiltest_xml_url":0,"soiltest_view_url":0},{"id":242784,"code":"B4KJ201802000-8264","latitude":"35.916944","longitude":"140.475833","source_code":"KT200383506020500006","project_name":"","survey_name":"\u4f50\u539f\u7ba1\u5185\u5de6\u5cb8\u5824\u9632\u8a73\u7d30\u8abf\u67fb\u696d\u52d9","client_name":"\u56fd\u571f\u4ea4\u901a\u7701\u95a2\u6771\u5730\u65b9\u6574\u5099\u5c40 \u5229\u6839\u5ddd\u4e0b\u6d41\u6cb3\u5ddd\u4e8b\u52d9\u6240","boring_xml_url":47,"boring_view_url":1,"soilmap_view_url":null,"soiltest_xml_url":0,"soiltest_view_url":0},{"id":242783,"code":"B4KJ201802000-8263","latitude":"35.916667","longitude":"140.475278","source_code":"KT200383506020500005","project_name":"","survey_name":"\u4f50\u539f\u7ba1\u5185\u5de6\u5cb8\u5824\u9632\u8a73\u7d30\u8abf\u67fb\u696d\u52d9","client_name":"\u56fd\u571f\u4ea4\u901a\u7701\u95a2\u6771\u5730\u65b9\u6574\u5099\u5c40 \u5229\u6839\u5ddd\u4e0b\u6d41\u6cb3\u5ddd\u4e8b\u52d9\u6240","boring_xml_url":47,"boring_view_url":1,"soilmap_view_url":null,"soiltest_xml_url":0,"soiltest_view_url":0},{"id":242782,"code":"B4KJ201802000-8262","latitude":"35.916667","longitude":"140.475556","source_code":"KT200383506020500004","project_name":"","survey_name":"\u4f50\u539f\u7ba1\u5185\u5de6\u5cb8\u5824\u9632\u8a73\u7d30\u8abf\u67fb\u696d\u52d9","client_name":"\u56fd\u571f\u4ea4\u901a\u7701\u95a2\u6771\u5730\u65b9\u6574\u5099\u5c40 \u5229\u6839\u5ddd\u4e0b\u6d41\u6cb3\u5ddd\u4e8b\u52d9\u6240","boring_xml_url":47,"boring_view_url":1,"soilmap_view_url":null,"soiltest_xml_url":0,"soiltest_view_url":0},{"id":242781,"code":"B4KJ201802000-8261","latitude":"35.907778","longitude":"140.544167","source_code":"KT200383506020500003","project_name":"","survey_name":"\u4f50\u539f\u7ba1\u5185\u5de6\u5cb8\u5824\u9632\u8a73\u7d30\u8abf\u67fb\u696d\u52d9","client_name":"\u56fd\u571f\u4ea4\u901a\u7701\u95a2\u6771\u5730\u65b9\u6574\u5099\u5c40 \u5229\u6839\u5ddd\u4e0b\u6d41\u6cb3\u5ddd\u4e8b\u52d9\u6240","boring_xml_url":47,"boring_view_url":1,"soilmap_view_url":null,"soiltest_xml_url":0,"soiltest_view_url":0},{"id":242780,"code":"B4KJ201802000-8260","latitude":"35.907222","longitude":"140.544167","source_code":"KT200383506020500002","project_name":"","survey_name":"\u4f50\u539f\u7ba1\u5185\u5de6\u5cb8\u5824\u9632\u8a73\u7d30\u8abf\u67fb\u696d\u52d9","client_name":"\u56fd\u571f\u4ea4\u901a\u7701\u95a2\u6771\u5730\u65b9\u6574\u5099\u5c40 \u5229\u6839\u5ddd\u4e0b\u6d41\u6cb3\u5ddd\u4e8b\u52d9\u6240","boring_xml_url":47,"boring_view_url":1,"soilmap_view_url":null,"soiltest_xml_url":0,"soiltest_view_url":0},{"id":242779,"code":"B4KJ201802000-8259","latitude":"35.9075","longitude":"140.543889","source_code":"KT200383506020500001","project_name":"","survey_name":"\u4f50\u539f\u7ba1\u5185\u5de6\u5cb8\u5824\u9632\u8a73\u7d30\u8abf\u67fb\u696d\u52d9","client_name":"\u56fd\u571f\u4ea4\u901a\u7701\u95a2\u6771\u5730\u65b9\u6574\u5099\u5c40 \u5229\u6839\u5ddd\u4e0b\u6d41\u6cb3\u5ddd\u4e8b\u52d9\u6240","boring_xml_url":47,"boring_view_url":1,"soilmap_view_url":null,"soiltest_xml_url":0,"soiltest_view_url":0},{"id":242778,"code":"B4KJ201802000-8258","latitude":"35.899861","longitude":"140.503333","source_code":"KT200383506020520012","project_name":"\u4f50\u539f\u7ba1\u5185\u53f3\u5cb8\u4e0b\u6d41\u5824\u9632\u8a73\u7d30\u8abf\u67fb\u696d\u52d9","survey_name":"\u4f50\u539f\u7ba1\u5185\u53f3\u5cb8\u4e0b\u6d41\u5824\u9632\u8a73\u7d30\u8abf\u67fb\u696d\u52d9","client_name":"\u56fd\u571f\u4ea4\u901a\u7701 \u95a2\u6771\u5730\u65b9\u6574\u5099\u5c40 \u5229\u6839\u5ddd\u4e0b\u6d41\u6cb3\u5ddd\u4e8b\u52d9\u6240","boring_xml_url":47,"boring_view_url":1,"soilmap_view_url":null,"soiltest_xml_url":50,"soiltest_view_url":49},{"id":242777,"code":"B4KJ201802000-8257","latitude":"35.899972","longitude":"140.503389","source_code":"KT200383506020520011","project_name":"\u4f50\u539f\u7ba1\u5185\u53f3\u5cb8\u4e0b\u6d41\u5824\u9632\u8a73\u7d30\u8abf\u67fb\u696d\u52d9","survey_name":"\u4f50\u539f\u7ba1\u5185\u53f3\u5cb8\u4e0b\u6d41\u5824\u9632\u8a73\u7d30\u8abf\u67fb\u696d\u52d9","client_name":"\u56fd\u571f\u4ea4\u901a\u7701 \u95a2\u6771\u5730\u65b9\u6574\u5099\u5c40 \u5229\u6839\u5ddd\u4e0b\u6d41\u6cb3\u5ddd\u4e8b\u52d9\u6240","boring_xml_url":47,"boring_view_url":1,"soilmap_view_url":null,"soiltest_xml_url":50,"soiltest_view_url":49},{"id":242776,"code":"B4KJ201802000-8256","latitude":"35.899889","longitude":"140.503361","source_code":"KT200383506020520010","project_name":"\u4f50\u539f\u7ba1\u5185\u53f3\u5cb8\u4e0b\u6d41\u5824\u9632\u8a73\u7d30\u8abf\u67fb\u696d\u52d9","survey_name":"\u4f50\u539f\u7ba1\u5185\u53f3\u5cb8\u4e0b\u6d41\u5824\u9632\u8a73\u7d30\u8abf\u67fb\u696d\u52d9","client_name":"\u56fd\u571f\u4ea4\u901a\u7701 \u95a2\u6771\u5730\u65b9\u6574\u5099\u5c40 \u5229\u6839\u5ddd\u4e0b\u6d41\u6cb3\u5ddd\u4e8b\u52d9\u6240","boring_xml_url":47,"boring_view_url":1,"soilmap_view_url":null,"soiltest_xml_url":50,"soiltest_view_url":49},{"id":242775,"code":"B4KJ201802000-8255","latitude":"35.898694","longitude":"140.518806","source_code":"KT200383506020520009","project_name":"\u4f50\u539f\u7ba1\u5185\u53f3\u5cb8\u4e0b\u6d41\u5824\u9632\u8a73\u7d30\u8abf\u67fb\u696d\u52d9","survey_name":"\u4f50\u539f\u7ba1\u5185\u53f3\u5cb8\u4e0b\u6d41\u5824\u9632\u8a73\u7d30\u8abf\u67fb\u696d\u52d9","client_name":"\u56fd\u571f\u4ea4\u901a\u7701 \u95a2\u6771\u5730\u65b9\u6574\u5099\u5c40 \u5229\u6839\u5ddd\u4e0b\u6d41\u6cb3\u5ddd\u4e8b\u52d9\u6240","boring_xml_url":47,"boring_view_url":1,"soilmap_view_url":null,"soiltest_xml_url":50,"soiltest_view_url":49},{"id":242774,"code":"B4KJ201802000-8254","latitude":"35.898528","longitude":"140.51875","source_code":"KT200383506020520008","project_name":"\u4f50\u539f\u7ba1\u5185\u53f3\u5cb8\u4e0b\u6d41\u5824\u9632\u8a73\u7d30\u8abf\u67fb\u696d\u52d9","survey_name":"\u4f50\u539f\u7ba1\u5185\u53f3\u5cb8\u4e0b\u6d41\u5824\u9632\u8a73\u7d30\u8abf\u67fb\u696d\u52d9","client_name":"\u56fd\u571f\u4ea4\u901a\u7701 \u95a2\u6771\u5730\u65b9\u6574\u5099\u5c40 \u5229\u6839\u5ddd\u4e0b\u6d41\u6cb3\u5ddd\u4e8b\u52d9\u6240","boring_xml_url":47,"boring_view_url":1,"soilmap_view_url":null,"soiltest_xml_url":50,"soiltest_view_url":49}]}}