{"header":{"xyz":{"source":[],"mosaic":false},"page":2928,"raw":{"soiltest_result":"0","bbox":"57.598333,109.544722,1.933333,163.806111","page":"2928"},"conditions":{"soiltest_result":0,"north":57.598333,"west":109.544722,"south":1.933333,"east":163.806111},"success":true,"message":""},"data":{"meta":{"total":212844,"page":2928,"pages":7095,"count":30},"values":[{"id":242713,"code":"B4KJ201802000-8193","latitude":"35.839833","longitude":"139.619611","source_code":"KT200383465820060005","project_name":"\u7530\u5cf6\u5730\u533a\u9ad8\u898f\u683c\u5824\u9632","survey_name":"\u5e73\u621015\u5e74\u5ea6\u7530\u5cf6\u5730\u533a\u4ed6\u5730\u8cea\u8abf\u67fb\u696d\u52d9","client_name":"\u56fd\u571f\u4ea4\u901a\u7701\u95a2\u6771\u5730\u65b9\u6574\u5099\u5c40\u8352\u5ddd\u4e0a\u6d41\u6cb3\u5ddd\u4e8b\u52d9\u6240","boring_xml_url":47,"boring_view_url":1,"soilmap_view_url":null,"soiltest_xml_url":50,"soiltest_view_url":49},{"id":242712,"code":"B4KJ201802000-8192","latitude":"35.84075","longitude":"139.619556","source_code":"KT200383465820060004","project_name":"\u7530\u5cf6\u5730\u533a\u9ad8\u898f\u683c\u5824\u9632","survey_name":"\u5e73\u621015\u5e74\u5ea6\u7530\u5cf6\u5730\u533a\u4ed6\u5730\u8cea\u8abf\u67fb\u696d\u52d9","client_name":"\u56fd\u571f\u4ea4\u901a\u7701\u95a2\u6771\u5730\u65b9\u6574\u5099\u5c40\u8352\u5ddd\u4e0a\u6d41\u6cb3\u5ddd\u4e8b\u52d9\u6240","boring_xml_url":47,"boring_view_url":1,"soilmap_view_url":null,"soiltest_xml_url":50,"soiltest_view_url":49},{"id":242711,"code":"B4KJ201802000-8191","latitude":"35.840639","longitude":"139.620861","source_code":"KT200383465820060003","project_name":"\u7530\u5cf6\u5730\u533a\u9ad8\u898f\u683c\u5824\u9632","survey_name":"\u5e73\u621015\u5e74\u5ea6\u7530\u5cf6\u5730\u533a\u4ed6\u5730\u8cea\u8abf\u67fb\u696d\u52d9","client_name":"\u56fd\u571f\u4ea4\u901a\u7701\u95a2\u6771\u5730\u65b9\u6574\u5099\u5c40\u8352\u5ddd\u4e0a\u6d41\u6cb3\u5ddd\u4e8b\u52d9\u6240","boring_xml_url":47,"boring_view_url":1,"soilmap_view_url":null,"soiltest_xml_url":50,"soiltest_view_url":49},{"id":242710,"code":"B4KJ201802000-8190","latitude":"35.840861","longitude":"139.62075","source_code":"KT200383465820060002","project_name":"\u7530\u5cf6\u5730\u533a\u9ad8\u898f\u683c\u5824\u9632","survey_name":"\u5e73\u621015\u5e74\u5ea6\u7530\u5cf6\u5730\u533a\u4ed6\u5730\u8cea\u8abf\u67fb\u696d\u52d9","client_name":"\u56fd\u571f\u4ea4\u901a\u7701\u95a2\u6771\u5730\u65b9\u6574\u5099\u5c40\u8352\u5ddd\u4e0a\u6d41\u6cb3\u5ddd\u4e8b\u52d9\u6240","boring_xml_url":47,"boring_view_url":1,"soilmap_view_url":null,"soiltest_xml_url":50,"soiltest_view_url":49},{"id":242709,"code":"B4KJ201802000-8189","latitude":"35.841111","longitude":"139.620694","source_code":"KT200383465820060001","project_name":"\u7530\u5cf6\u5730\u533a\u9ad8\u898f\u683c\u5824\u9632","survey_name":"\u5e73\u621015\u5e74\u5ea6\u7530\u5cf6\u5730\u533a\u4ed6\u5730\u8cea\u8abf\u67fb\u696d\u52d9","client_name":"\u56fd\u571f\u4ea4\u901a\u7701\u95a2\u6771\u5730\u65b9\u6574\u5099\u5c40\u8352\u5ddd\u4e0a\u6d41\u6cb3\u5ddd\u4e8b\u52d9\u6240","boring_xml_url":47,"boring_view_url":1,"soilmap_view_url":null,"soiltest_xml_url":50,"soiltest_view_url":49},{"id":242708,"code":"B4KJ201802000-8188","latitude":"35.932083","longitude":"139.537778","source_code":"KT200383466020310007","project_name":"","survey_name":"\u5165\u9593\u5ddd\u53f3\u5cb8\u5730\u8cea\u8abf\u67fb(\u305d\u306e1)\u696d\u52d9","client_name":"\u56fd\u571f\u4ea4\u901a\u7701\u95a2\u6771\u5730\u65b9\u6574\u5099\u5c40\u8352\u5ddd\u4e0a\u6d41\u6cb3\u5ddd\u4e8b\u52d9\u6240","boring_xml_url":47,"boring_view_url":1,"soilmap_view_url":null,"soiltest_xml_url":0,"soiltest_view_url":0},{"id":242707,"code":"B4KJ201802000-8187","latitude":"35.932111","longitude":"139.538","source_code":"KT200383466020310006","project_name":"","survey_name":"\u5165\u9593\u5ddd\u53f3\u5cb8\u5730\u8cea\u8abf\u67fb(\u305d\u306e1)\u696d\u52d9","client_name":"\u56fd\u571f\u4ea4\u901a\u7701\u95a2\u6771\u5730\u65b9\u6574\u5099\u5c40\u8352\u5ddd\u4e0a\u6d41\u6cb3\u5ddd\u4e8b\u52d9\u6240","boring_xml_url":47,"boring_view_url":1,"soilmap_view_url":null,"soiltest_xml_url":0,"soiltest_view_url":0},{"id":242706,"code":"B4KJ201802000-8186","latitude":"35.927284","longitude":"139.535389","source_code":"KT200383466020310005","project_name":"","survey_name":"\u5165\u9593\u5ddd\u53f3\u5cb8\u5730\u8cea\u8abf\u67fb(\u305d\u306e1)\u696d\u52d9","client_name":"\u56fd\u571f\u4ea4\u901a\u7701\u95a2\u6771\u5730\u65b9\u6574\u5099\u5c40\u8352\u5ddd\u4e0a\u6d41\u6cb3\u5ddd\u4e8b\u52d9\u6240","boring_xml_url":47,"boring_view_url":1,"soilmap_view_url":null,"soiltest_xml_url":0,"soiltest_view_url":0},{"id":242705,"code":"B4KJ201802000-8185","latitude":"35.924028","longitude":"139.538861","source_code":"KT200383466020310004","project_name":"","survey_name":"\u5165\u9593\u5ddd\u53f3\u5cb8\u5730\u8cea\u8abf\u67fb(\u305d\u306e1)\u696d\u52d9","client_name":"\u56fd\u571f\u4ea4\u901a\u7701\u95a2\u6771\u5730\u65b9\u6574\u5099\u5c40\u8352\u5ddd\u4e0a\u6d41\u6cb3\u5ddd\u4e8b\u52d9\u6240","boring_xml_url":47,"boring_view_url":1,"soilmap_view_url":null,"soiltest_xml_url":0,"soiltest_view_url":0},{"id":242704,"code":"B4KJ201802000-8184","latitude":"35.927284","longitude":"139.535944","source_code":"KT200383466020310003","project_name":"","survey_name":"\u5165\u9593\u5ddd\u53f3\u5cb8\u5730\u8cea\u8abf\u67fb(\u305d\u306e1)","client_name":"\u56fd\u571f\u4ea4\u901a\u7701\u95a2\u6771\u5730\u65b9\u6574\u5099\u5c40\u8352\u5ddd\u4e0a\u6d41\u6cb3\u5ddd\u4e8b\u52d9\u6240","boring_xml_url":47,"boring_view_url":1,"soilmap_view_url":null,"soiltest_xml_url":0,"soiltest_view_url":0},{"id":242703,"code":"B4KJ201802000-8183","latitude":"35.928812","longitude":"139.535389","source_code":"KT200383466020310002","project_name":"","survey_name":"\u5165\u9593\u5ddd\u53f3\u5cb8\u5730\u8cea\u8abf\u67fb(\u305d\u306e1)\u696d\u52d9","client_name":"\u56fd\u571f\u4ea4\u901a\u7701\u95a2\u6771\u5730\u65b9\u6574\u5099\u5c40\u8352\u5ddd\u4e0a\u6d41\u6cb3\u5ddd\u4e8b\u52d9\u6240","boring_xml_url":47,"boring_view_url":1,"soilmap_view_url":null,"soiltest_xml_url":0,"soiltest_view_url":0},{"id":242702,"code":"B4KJ201802000-8182","latitude":"35.925611","longitude":"139.538639","source_code":"KT200383466020310001","project_name":"","survey_name":"\u5165\u9593\u5ddd\u53f3\u5cb8\u5730\u8cea\u8abf\u67fb(\u305d\u306e1)\u696d\u52d9","client_name":"\u56fd\u571f\u4ea4\u901a\u7701\u95a2\u6771\u5730\u65b9\u6574\u5099\u5c40\u8352\u5ddd\u4e0a\u6d41\u6cb3\u5ddd\u4e8b\u52d9\u6240","boring_xml_url":47,"boring_view_url":1,"soilmap_view_url":null,"soiltest_xml_url":0,"soiltest_view_url":0},{"id":242701,"code":"B4KJ201802000-8181","latitude":"36.309167","longitude":"139.485","source_code":"KT200283376020280012","project_name":"","survey_name":"\u6e21\u826f\u702c\u5ddd\u7bc9\u5824\u6e2c\u91cf\u8a2d\u8a08\u696d\u52d9","client_name":"\u56fd\u571f\u4ea4\u901a\u7701\u95a2\u6771\u5730\u65b9\u6574\u5099\u5c40\u6e21\u826f\u702c\u5ddd\u6cb3\u5ddd\u4e8b\u52d9\u6240","boring_xml_url":47,"boring_view_url":1,"soilmap_view_url":null,"soiltest_xml_url":50,"soiltest_view_url":49},{"id":242700,"code":"B4KJ201802000-8180","latitude":"36.312597","longitude":"139.482046","source_code":"KT200283376020280011","project_name":"","survey_name":"\u6e21\u826f\u702c\u5ddd\u7bc9\u5824\u6e2c\u91cf\u8a2d\u8a08\u696d\u52d9","client_name":"\u56fd\u571f\u4ea4\u901a\u7701\u95a2\u6771\u5730\u65b9\u6574\u5099\u5c40\u6e21\u826f\u702c\u5ddd\u6cb3\u5ddd\u4e8b\u52d9\u6240","boring_xml_url":47,"boring_view_url":1,"soilmap_view_url":null,"soiltest_xml_url":50,"soiltest_view_url":49},{"id":242699,"code":"B4KJ201802000-8179","latitude":"36.309444","longitude":"139.485","source_code":"KT200283376020280010","project_name":"","survey_name":"\u6e21\u826f\u702c\u5ddd\u7bc9\u5824\u6e2c\u91cf\u8a2d\u8a08\u696d\u52d9","client_name":"\u56fd\u571f\u4ea4\u901a\u7701\u95a2\u6771\u5730\u65b9\u6574\u5099\u5c40\u6e21\u826f\u702c\u5ddd\u6cb3\u5ddd\u4e8b\u52d9\u6240","boring_xml_url":47,"boring_view_url":1,"soilmap_view_url":null,"soiltest_xml_url":50,"soiltest_view_url":49},{"id":242698,"code":"B4KJ201802000-8178","latitude":"36.294528","longitude":"139.510694","source_code":"KT200283376020280009","project_name":"","survey_name":"\u6e21\u826f\u702c\u5ddd\u7bc9\u5824\u6e2c\u91cf\u8a2d\u8a08\u696d\u52d9","client_name":"\u56fd\u571f\u4ea4\u901a\u7701\u95a2\u6771\u5730\u65b9\u6574\u5099\u5c40\u6e21\u826f\u702c\u5ddd\u6cb3\u5ddd\u4e8b\u52d9\u6240","boring_xml_url":47,"boring_view_url":1,"soilmap_view_url":null,"soiltest_xml_url":50,"soiltest_view_url":49},{"id":242697,"code":"B4KJ201802000-8177","latitude":"36.294722","longitude":"139.510833","source_code":"KT200283376020280008","project_name":"","survey_name":"\u6e21\u826f\u702c\u5ddd\u7bc9\u5824\u6e2c\u91cf\u8a2d\u8a08\u696d\u52d9","client_name":"\u56fd\u571f\u4ea4\u901a\u7701\u95a2\u6771\u5730\u65b9\u6574\u5099\u5c40\u6e21\u826f\u702c\u5ddd\u6cb3\u5ddd\u4e8b\u52d9\u6240","boring_xml_url":47,"boring_view_url":1,"soilmap_view_url":null,"soiltest_xml_url":50,"soiltest_view_url":49},{"id":242696,"code":"B4KJ201802000-8176","latitude":"36.294722","longitude":"139.510833","source_code":"KT200283376020280007","project_name":"","survey_name":"\u6e21\u826f\u702c\u5ddd\u7bc9\u5824\u6e2c\u91cf\u8a2d\u8a08\u696d\u52d9","client_name":"\u56fd\u571f\u4ea4\u901a\u7701\u95a2\u6771\u5730\u65b9\u6574\u5099\u5c40\u6e21\u826f\u702c\u5ddd\u6cb3\u5ddd\u4e8b\u52d9\u6240","boring_xml_url":47,"boring_view_url":1,"soilmap_view_url":null,"soiltest_xml_url":50,"soiltest_view_url":49},{"id":242695,"code":"B4KJ201802000-8175","latitude":"36.266389","longitude":"139.579722","source_code":"KT200283376020280006","project_name":"","survey_name":"\u6e21\u826f\u702c\u5ddd\u7bc9\u5824\u6e2c\u91cf\u8a2d\u8a08\u696d\u52d9","client_name":"\u56fd\u571f\u4ea4\u901a\u7701\u95a2\u6771\u5730\u65b9\u6574\u5099\u5c40\u6e21\u826f\u702c\u5ddd\u6cb3\u5ddd\u4e8b\u52d9\u6240","boring_xml_url":47,"boring_view_url":1,"soilmap_view_url":null,"soiltest_xml_url":50,"soiltest_view_url":49},{"id":242694,"code":"B4KJ201802000-8174","latitude":"36.269965","longitude":"139.576484","source_code":"KT200283376020280005","project_name":"","survey_name":"\u6e21\u826f\u702c\u5ddd\u7bc9\u5824\u6e2c\u91cf\u8a2d\u8a08\u696d\u52d9","client_name":"\u56fd\u571f\u4ea4\u901a\u7701\u95a2\u6771\u5730\u65b9\u6574\u5099\u5c40\u6e21\u826f\u702c\u5ddd\u6cb3\u5ddd\u4e8b\u52d9\u6240","boring_xml_url":47,"boring_view_url":1,"soilmap_view_url":null,"soiltest_xml_url":50,"soiltest_view_url":49},{"id":242693,"code":"B4KJ201802000-8173","latitude":"36.266667","longitude":"139.579722","source_code":"KT200283376020280004","project_name":"","survey_name":"\u6e21\u826f\u702c\u5ddd\u7bc9\u5824\u6e2c\u91cf\u8a2d\u8a08\u696d\u52d9","client_name":"\u56fd\u571f\u4ea4\u901a\u7701\u95a2\u6771\u5730\u65b9\u6574\u5099\u5c40\u6e21\u826f\u702c\u5ddd\u6cb3\u5ddd\u4e8b\u52d9\u6240","boring_xml_url":47,"boring_view_url":1,"soilmap_view_url":null,"soiltest_xml_url":50,"soiltest_view_url":49},{"id":242692,"code":"B4KJ201802000-8172","latitude":"36.270278","longitude":"139.624444","source_code":"KT200283376020280003","project_name":"","survey_name":"\u6e21\u826f\u702c\u5ddd\u7bc9\u5824\u6e2c\u91cf\u8a2d\u8a08\u696d\u52d9","client_name":"\u56fd\u571f\u4ea4\u901a\u7701\u95a2\u6771\u5730\u65b9\u6574\u5099\u5c40\u6e21\u826f\u702c\u5ddd\u6cb3\u5ddd\u4e8b\u52d9\u6240","boring_xml_url":47,"boring_view_url":1,"soilmap_view_url":null,"soiltest_xml_url":50,"soiltest_view_url":49},{"id":242691,"code":"B4KJ201802000-8171","latitude":"36.270556","longitude":"139.624722","source_code":"KT200283376020280002","project_name":"","survey_name":"\u6e21\u826f\u702c\u5ddd\u7bc9\u5824\u6e2c\u91cf\u8a2d\u8a08\u696d\u52d9","client_name":"\u56fd\u571f\u4ea4\u901a\u7701\u95a2\u6771\u5730\u65b9\u6574\u5099\u5c40\u6e21\u826f\u702c\u5ddd\u6cb3\u5ddd\u4e8b\u52d9\u6240","boring_xml_url":47,"boring_view_url":1,"soilmap_view_url":null,"soiltest_xml_url":50,"soiltest_view_url":49},{"id":242690,"code":"B4KJ201802000-8170","latitude":"36.270556","longitude":"139.625","source_code":"KT200283376020280001","project_name":"\u6e21\u826f\u702c\u5ddd\u7bc9\u5824\u6e2c\u91cf\u8a2d\u8a08\u696d\u52d9","survey_name":"\u6e21\u826f\u702c\u5ddd\u7bc9\u5824\u6e2c\u91cf\u8a2d\u8a08\u696d\u52d9","client_name":"\u56fd\u571f\u4ea4\u901a\u7701\u95a2\u6771\u5730\u65b9\u6574\u5099\u5c40\u6e21\u826f\u702c\u5ddd\u6cb3\u5ddd\u4e8b\u52d9\u6240","boring_xml_url":47,"boring_view_url":1,"soilmap_view_url":null,"soiltest_xml_url":50,"soiltest_view_url":49},{"id":242689,"code":"B4KJ201802000-8169","latitude":"36.305278","longitude":"139.497917","source_code":"KT200483376020220021","project_name":"\u6e21\u826f\u702c\u5ddd\u5824\u9632\u8a73\u7d30\u70b9\u691c\u696d\u52d9","survey_name":"\u6e21\u826f\u702c\u5ddd\u5824\u9632\u8a73\u7d30\u70b9\u691c\u696d\u52d9","client_name":"\u56fd\u571f\u4ea4\u901a\u7701\u95a2\u6771\u5730\u65b9\u6574\u5099\u5c40\u6e21\u826f\u702c\u5ddd\u6cb3\u5ddd\u4e8b\u52d9\u6240","boring_xml_url":47,"boring_view_url":1,"soilmap_view_url":null,"soiltest_xml_url":50,"soiltest_view_url":49},{"id":242688,"code":"B4KJ201802000-8168","latitude":"36.305278","longitude":"139.497778","source_code":"KT200483376020220020","project_name":"\u6e21\u826f\u702c\u5ddd\u5824\u9632\u8a73\u7d30\u70b9\u691c\u696d\u52d9","survey_name":"\u6e21\u826f\u702c\u5ddd\u5824\u9632\u8a73\u7d30\u70b9\u691c\u696d\u52d9","client_name":"\u56fd\u571f\u4ea4\u901a\u7701\u95a2\u6771\u5730\u65b9\u6574\u5099\u5c40\u6e21\u826f\u702c\u5ddd\u6cb3\u5ddd\u4e8b\u52d9\u6240","boring_xml_url":47,"boring_view_url":1,"soilmap_view_url":null,"soiltest_xml_url":50,"soiltest_view_url":49},{"id":242687,"code":"B4KJ201802000-8167","latitude":"36.305139","longitude":"139.497639","source_code":"KT200483376020220019","project_name":"\u6e21\u826f\u702c\u5ddd\u5824\u9632\u8a73\u7d30\u70b9\u691c\u696d\u52d9","survey_name":"\u6e21\u826f\u702c\u5ddd\u5824\u9632\u8a73\u7d30\u70b9\u691c\u696d\u52d9","client_name":"\u56fd\u571f\u4ea4\u901a\u7701\u95a2\u6771\u5730\u65b9\u6574\u5099\u5c40\u6e21\u826f\u702c\u5ddd\u6cb3\u5ddd\u4e8b\u52d9\u6240","boring_xml_url":47,"boring_view_url":1,"soilmap_view_url":null,"soiltest_xml_url":50,"soiltest_view_url":49},{"id":242686,"code":"B4KJ201802000-8166","latitude":"36.290417","longitude":"139.527917","source_code":"KT200483376020220018","project_name":"\u6e21\u826f\u702c\u5ddd\u5824\u9632\u8a73\u7d30\u70b9\u691c\u696d\u52d9","survey_name":"\u6e21\u826f\u702c\u5ddd\u5824\u9632\u8a73\u7d30\u70b9\u691c\u696d\u52d9","client_name":"\u56fd\u571f\u4ea4\u901a\u7701\u95a2\u6771\u5730\u65b9\u6574\u5099\u5c40\u6e21\u826f\u702c\u5ddd\u6cb3\u5ddd\u4e8b\u52d9\u6240","boring_xml_url":47,"boring_view_url":1,"soilmap_view_url":null,"soiltest_xml_url":50,"soiltest_view_url":49},{"id":242685,"code":"B4KJ201802000-8165","latitude":"36.290278","longitude":"139.527778","source_code":"KT200483376020220017","project_name":"\u6e21\u826f\u702c\u5ddd\u5824\u9632\u8a73\u7d30\u70b9\u691c\u696d\u52d9","survey_name":"\u6e21\u826f\u702c\u5ddd\u5824\u9632\u8a73\u7d30\u70b9\u691c\u696d\u52d9","client_name":"\u56fd\u571f\u4ea4\u901a\u7701\u95a2\u6771\u5730\u65b9\u6574\u5099\u5c40\u6e21\u826f\u702c\u5ddd\u6cb3\u5ddd\u4e8b\u52d9\u6240","boring_xml_url":47,"boring_view_url":1,"soilmap_view_url":null,"soiltest_xml_url":50,"soiltest_view_url":49},{"id":242684,"code":"B4KJ201802000-8164","latitude":"36.290139","longitude":"139.527639","source_code":"KT200483376020220016","project_name":"\u6e21\u826f\u702c\u5ddd\u5824\u9632\u8a73\u7d30\u70b9\u691c\u696d\u52d9","survey_name":"\u6e21\u826f\u702c\u5ddd\u5824\u9632\u8a73\u7d30\u70b9\u691c\u696d\u52d9","client_name":"\u56fd\u571f\u4ea4\u901a\u7701\u95a2\u6771\u5730\u65b9\u6574\u5099\u5c40\u6e21\u826f\u702c\u5ddd\u6cb3\u5ddd\u4e8b\u52d9\u6240","boring_xml_url":47,"boring_view_url":1,"soilmap_view_url":null,"soiltest_xml_url":50,"soiltest_view_url":49}]}}