{"header":{"xyz":{"source":[],"mosaic":false},"page":2933,"raw":{"soiltest_result":"0","bbox":"57.598333,109.544722,1.933333,163.806111","page":"2933"},"conditions":{"soiltest_result":0,"north":57.598333,"west":109.544722,"south":1.933333,"east":163.806111},"success":true,"message":""},"data":{"meta":{"total":212844,"page":2933,"pages":7095,"count":30},"values":[{"id":242563,"code":"B4KJ201802000-8043","latitude":"35.684694","longitude":"139.952722","source_code":"KT200383526020290006","project_name":"\u5e73\u621015\u5e74\u5ea6\u9ad8\u8c37\u5730\u533a\u5730\u8cea\u8abf\u67fb(\u305d\u306e2)\u696d\u52d9","survey_name":"\u5e73\u621015\u5e74\u5ea6\u9ad8\u8c37\u5730\u533a\u5730\u8cea\u8abf\u67fb(\u305d\u306e2)\u696d\u52d9","client_name":"\u56fd\u571f\u4ea4\u901a\u7701\u95a2\u6771\u5730\u65b9\u6574\u5099\u5c40\u9996\u90fd\u56fd\u9053\u4e8b\u52d9\u6240","boring_xml_url":47,"boring_view_url":1,"soilmap_view_url":null,"soiltest_xml_url":0,"soiltest_view_url":0},{"id":242562,"code":"B4KJ201802000-8042","latitude":"35.684806","longitude":"139.953167","source_code":"KT200383526020290005","project_name":"\u5e73\u621015\u5e74\u5ea6\u9ad8\u8c37\u5730\u533a\u5730\u8cea\u8abf\u67fb(\u305d\u306e2)\u696d\u52d9","survey_name":"\u5e73\u621015\u5e74\u5ea6\u9ad8\u8c37\u5730\u533a\u5730\u8cea\u8abf\u67fb(\u305d\u306e2)\u696d\u52d9","client_name":"\u56fd\u571f\u4ea4\u901a\u7701\u95a2\u6771\u5730\u65b9\u6574\u5099\u5c40\u9996\u90fd\u56fd\u9053\u4e8b\u52d9\u6240","boring_xml_url":47,"boring_view_url":1,"soilmap_view_url":null,"soiltest_xml_url":0,"soiltest_view_url":0},{"id":242561,"code":"B4KJ201802000-8041","latitude":"35.685","longitude":"139.953194","source_code":"KT200383526020290004","project_name":"\u5e73\u621015\u5e74\u5ea6\u9ad8\u8c37\u5730\u533a\u5730\u8cea\u8abf\u67fb(\u305d\u306e2)\u696d\u52d9","survey_name":"\u5e73\u621015\u5e74\u5ea6\u9ad8\u8c37\u5730\u533a\u5730\u8cea\u8abf\u67fb(\u305d\u306e2)\u696d\u52d9","client_name":"\u56fd\u571f\u4ea4\u901a\u7701\u95a2\u6771\u5730\u65b9\u6574\u5099\u5c40\u9996\u90fd\u56fd\u9053\u4e8b\u52d9\u6240","boring_xml_url":47,"boring_view_url":1,"soilmap_view_url":null,"soiltest_xml_url":0,"soiltest_view_url":0},{"id":242560,"code":"B4KJ201802000-8040","latitude":"35.684917","longitude":"139.953333","source_code":"KT200383526020290003","project_name":"\u5e73\u621015\u5e74\u5ea6\u9ad8\u8c37\u5730\u533a\u5730\u8cea\u8abf\u67fb(\u305d\u306e2)\u696d\u52d9","survey_name":"\u5e73\u621015\u5e74\u5ea6\u9ad8\u8c37\u5730\u533a\u5730\u8cea\u8abf\u67fb(\u305d\u306e2)\u696d\u52d9","client_name":"\u56fd\u571f\u4ea4\u901a\u7701\u95a2\u6771\u5730\u65b9\u6574\u5099\u5c40\u9996\u90fd\u56fd\u9053\u4e8b\u52d9\u6240","boring_xml_url":47,"boring_view_url":1,"soilmap_view_url":null,"soiltest_xml_url":0,"soiltest_view_url":0},{"id":242559,"code":"B4KJ201802000-8039","latitude":"35.685111","longitude":"139.953611","source_code":"KT200383526020290002","project_name":"\u5e73\u621015\u5e74\u5ea6\u9ad8\u8c37\u5730\u533a\u5730\u8cea\u8abf\u67fb(\u305d\u306e2)\u696d\u52d9","survey_name":"\u5e73\u621015\u5e74\u5ea6\u9ad8\u8c37\u5730\u533a\u5730\u8cea\u8abf\u67fb(\u305d\u306e2)\u696d\u52d9","client_name":"\u56fd\u571f\u4ea4\u901a\u7701\u95a2\u6771\u5730\u65b9\u6574\u5099\u5c40\u9996\u90fd\u56fd\u9053\u4e8b\u52d9\u6240","boring_xml_url":47,"boring_view_url":1,"soilmap_view_url":null,"soiltest_xml_url":0,"soiltest_view_url":0},{"id":242558,"code":"B4KJ201802000-8038","latitude":"35.685361","longitude":"139.953972","source_code":"KT200383526020290001","project_name":"\u5e73\u621015\u5e74\u5ea6\u9ad8\u8c37\u5730\u533a\u5730\u8cea\u8abf\u67fb(\u305d\u306e2)\u696d\u52d9","survey_name":"\u5e73\u621015\u5e74\u5ea6\u9ad8\u8c37\u5730\u533a\u5730\u8cea\u8abf\u67fb(\u305d\u306e2)\u696d\u52d9","client_name":"\u56fd\u571f\u4ea4\u901a\u7701\u95a2\u6771\u5730\u65b9\u6574\u5099\u5c40\u9996\u90fd\u56fd\u9053\u4e8b\u52d9\u6240","boring_xml_url":47,"boring_view_url":1,"soilmap_view_url":null,"soiltest_xml_url":0,"soiltest_view_url":0},{"id":242557,"code":"B4KJ201802000-8037","latitude":"36.4","longitude":"138.85","source_code":"KT200483416020080006","project_name":"","survey_name":"\u5800\u306e\u6ca2\u7802\u9632\u5830\u5824\u7fa4\u8a73\u7d30\u8a2d\u8a08\u696d\u52d9","client_name":"\u56fd\u571f\u4ea4\u901a\u7701 \u95a2\u6771\u5730\u65b9\u6574\u5099\u5c40 \u5229\u6839\u5ddd\u6c34\u7cfb\u7802\u9632\u4e8b\u52d9\u6240 \u8abf\u67fb\u8ab2","boring_xml_url":47,"boring_view_url":1,"soilmap_view_url":null,"soiltest_xml_url":0,"soiltest_view_url":0},{"id":242556,"code":"B4KJ201802000-8036","latitude":"36.4","longitude":"138.85","source_code":"KT200483416020080005","project_name":"","survey_name":"\u5800\u306e\u6ca2\u7802\u9632\u5830\u5824\u7fa4\u8a73\u7d30\u8a2d\u8a08\u696d\u52d9","client_name":"\u56fd\u571f\u4ea4\u901a\u7701 \u95a2\u6771\u5730\u65b9\u6574\u5099\u5c40 \u5229\u6839\u5ddd\u6c34\u7cfb\u7802\u9632\u4e8b\u52d9\u6240 \u8abf\u67fb\u8ab2","boring_xml_url":47,"boring_view_url":1,"soilmap_view_url":null,"soiltest_xml_url":0,"soiltest_view_url":0},{"id":242555,"code":"B4KJ201802000-8035","latitude":"36.4","longitude":"138.85","source_code":"KT200483416020080004","project_name":"","survey_name":"\u5800\u306e\u6ca2\u7802\u9632\u5830\u5824\u7fa4\u8a73\u7d30\u8a2d\u8a08\u696d\u52d9","client_name":"\u56fd\u571f\u4ea4\u901a\u7701 \u95a2\u6771\u5730\u65b9\u6574\u5099\u5c40 \u5229\u6839\u5ddd\u6c34\u7cfb\u7802\u9632\u4e8b\u52d9\u6240 \u8abf\u67fb\u8ab2","boring_xml_url":47,"boring_view_url":1,"soilmap_view_url":null,"soiltest_xml_url":0,"soiltest_view_url":0},{"id":242554,"code":"B4KJ201802000-8034","latitude":"36.4","longitude":"138.85","source_code":"KT200483416020080003","project_name":"","survey_name":"\u5800\u306e\u6ca2\u7802\u9632\u5830\u5824\u7fa4\u8a73\u7d30\u8a2d\u8a08\u696d\u52d9","client_name":"\u56fd\u571f\u4ea4\u901a\u7701 \u95a2\u6771\u5730\u65b9\u6574\u5099\u5c40 \u5229\u6839\u5ddd\u6c34\u7cfb\u7802\u9632\u4e8b\u52d9\u6240 \u8abf\u67fb\u8ab2","boring_xml_url":47,"boring_view_url":1,"soilmap_view_url":null,"soiltest_xml_url":0,"soiltest_view_url":0},{"id":242553,"code":"B4KJ201802000-8033","latitude":"36.4","longitude":"138.85","source_code":"KT200483416020080002","project_name":"","survey_name":"\u5800\u306e\u6ca2\u7802\u9632\u5830\u5824\u7fa4\u8a73\u7d30\u8a2d\u8a08\u696d\u52d9","client_name":"\u56fd\u571f\u4ea4\u901a\u7701 \u95a2\u6771\u5730\u65b9\u6574\u5099\u5c40 \u5229\u6839\u5ddd\u6c34\u7cfb\u7802\u9632\u4e8b\u52d9\u6240 \u8abf\u67fb\u8ab2","boring_xml_url":47,"boring_view_url":1,"soilmap_view_url":null,"soiltest_xml_url":0,"soiltest_view_url":0},{"id":242552,"code":"B4KJ201802000-8032","latitude":"36.4","longitude":"138.85","source_code":"KT200483416020080001","project_name":"","survey_name":"\u5800\u306e\u6ca2\u7802\u9632\u5830\u5824\u7fa4\u8a73\u7d30\u8a2d\u8a08\u696d\u52d9","client_name":"\u56fd\u571f\u4ea4\u901a\u7701 \u95a2\u6771\u5730\u65b9\u6574\u5099\u5c40 \u5229\u6839\u5ddd\u6c34\u7cfb\u7802\u9632\u4e8b\u52d9\u6240 \u8abf\u67fb\u8ab2","boring_xml_url":47,"boring_view_url":1,"soilmap_view_url":null,"soiltest_xml_url":0,"soiltest_view_url":0},{"id":242551,"code":"B4KJ201802000-8031","latitude":"36.143556","longitude":"139.713528","source_code":"KT200283356020230012","project_name":"\u4e00\u822c\u56fd\u90534\u53f7","survey_name":"\u5e73\u621014\u5e74\u5ea6 \u4e00\u822c\u56fd\u90534\u53f7\u53e4\u6cb3\u5730\u533a\u5730\u8cea\u8abf\u67fb","client_name":"\u56fd\u571f\u4ea4\u901a\u7701 \u95a2\u6771\u5730\u65b9\u6574\u5099\u5c40 \u5b87\u90fd\u5bae\u56fd\u9053\u5de5\u4e8b\u4e8b\u52d9\u6240","boring_xml_url":47,"boring_view_url":1,"soilmap_view_url":null,"soiltest_xml_url":0,"soiltest_view_url":0},{"id":242550,"code":"B4KJ201802000-8030","latitude":"36.143083","longitude":"139.714139","source_code":"KT200283356020230011","project_name":"\u4e00\u822c\u56fd\u90534\u53f7","survey_name":"\u5e73\u621014\u5e74\u5ea6 \u4e00\u822c\u56fd\u90534\u53f7\u53e4\u6cb3\u5730\u533a\u5730\u8cea\u8abf\u67fb","client_name":"\u56fd\u571f\u4ea4\u901a\u7701 \u95a2\u6771\u5730\u65b9\u6574\u5099\u5c40 \u5b87\u90fd\u5bae\u56fd\u9053\u5de5\u4e8b\u4e8b\u52d9\u6240","boring_xml_url":47,"boring_view_url":1,"soilmap_view_url":null,"soiltest_xml_url":0,"soiltest_view_url":0},{"id":242549,"code":"B4KJ201802000-8029","latitude":"36.142194","longitude":"139.712778","source_code":"KT200283356020230010","project_name":"\u4e00\u822c\u56fd\u90534\u53f7","survey_name":"\u5e73\u621014\u5e74\u5ea6 \u4e00\u822c\u56fd\u90534\u53f7\u53e4\u6cb3\u5730\u533a\u5730\u8cea\u8abf\u67fb","client_name":"\u56fd\u571f\u4ea4\u901a\u7701 \u95a2\u6771\u5730\u65b9\u6574\u5099\u5c40 \u5b87\u90fd\u5bae\u56fd\u9053\u5de5\u4e8b\u4e8b\u52d9\u6240","boring_xml_url":47,"boring_view_url":1,"soilmap_view_url":null,"soiltest_xml_url":0,"soiltest_view_url":0},{"id":242548,"code":"B4KJ201802000-8028","latitude":"36.141889","longitude":"139.712556","source_code":"KT200283356020230009","project_name":"\u4e00\u822c\u56fd\u90534\u53f7","survey_name":"\u5e73\u621014\u5e74\u5ea6 \u4e00\u822c\u56fd\u90534\u53f7\u53e4\u6cb3\u5730\u533a\u5730\u8cea\u8abf\u67fb","client_name":"\u56fd\u571f\u4ea4\u901a\u7701 \u95a2\u6771\u5730\u65b9\u6574\u5099\u5c40 \u5b87\u90fd\u5bae\u56fd\u9053\u5de5\u4e8b\u4e8b\u52d9\u6240","boring_xml_url":47,"boring_view_url":1,"soilmap_view_url":null,"soiltest_xml_url":0,"soiltest_view_url":0},{"id":242547,"code":"B4KJ201802000-8027","latitude":"36.1415","longitude":"139.711861","source_code":"KT200283356020230008","project_name":"\u4e00\u822c\u56fd\u90534\u53f7","survey_name":"\u5e73\u621014\u5e74\u5ea6 \u4e00\u822c\u56fd\u90534\u53f7\u53e4\u6cb3\u5730\u533a\u5730\u8cea\u8abf\u67fb","client_name":"\u56fd\u571f\u4ea4\u901a\u7701 \u95a2\u6771\u5730\u65b9\u6574\u5099\u5c40 \u5b87\u90fd\u5bae\u56fd\u9053\u5de5\u4e8b\u4e8b\u52d9\u6240","boring_xml_url":47,"boring_view_url":1,"soilmap_view_url":null,"soiltest_xml_url":0,"soiltest_view_url":0},{"id":242546,"code":"B4KJ201802000-8026","latitude":"36.140861","longitude":"139.710917","source_code":"KT200283356020230007","project_name":"\u4e00\u822c\u56fd\u90534\u53f7","survey_name":"\u5e73\u621014\u5e74\u5ea6 \u4e00\u822c\u56fd\u90534\u53f7\u53e4\u6cb3\u5730\u533a\u5730\u8cea\u8abf\u67fb","client_name":"\u56fd\u571f\u4ea4\u901a\u7701 \u95a2\u6771\u5730\u65b9\u6574\u5099\u5c40 \u5b87\u90fd\u5bae\u56fd\u9053\u5de5\u4e8b\u4e8b\u52d9\u6240","boring_xml_url":47,"boring_view_url":1,"soilmap_view_url":null,"soiltest_xml_url":0,"soiltest_view_url":0},{"id":242545,"code":"B4KJ201802000-8025","latitude":"36.140556","longitude":"139.7105","source_code":"KT200283356020230006","project_name":"\u4e00\u822c\u56fd\u90534\u53f7","survey_name":"\u5e73\u621014\u5e74\u5ea6 \u4e00\u822c\u56fd\u90534\u53f7\u53e4\u6cb3\u5730\u533a\u5730\u8cea\u8abf\u67fb","client_name":"\u56fd\u571f\u4ea4\u901a\u7701 \u95a2\u6771\u5730\u65b9\u6574\u5099\u5c40 \u5b87\u90fd\u5bae\u56fd\u9053\u5de5\u4e8b\u4e8b\u52d9\u6240","boring_xml_url":47,"boring_view_url":1,"soilmap_view_url":null,"soiltest_xml_url":0,"soiltest_view_url":0},{"id":242544,"code":"B4KJ201802000-8024","latitude":"36.140222","longitude":"139.710111","source_code":"KT200283356020230005","project_name":"\u4e00\u822c\u56fd\u90534\u53f7","survey_name":"\u5e73\u621014\u5e74\u5ea6 \u4e00\u822c\u56fd\u90534\u53f7\u53e4\u6cb3\u5730\u533a\u5730\u8cea\u8abf\u67fb","client_name":"\u56fd\u571f\u4ea4\u901a\u7701 \u95a2\u6771\u5730\u65b9\u6574\u5099\u5c40 \u5b87\u90fd\u5bae\u56fd\u9053\u5de5\u4e8b\u4e8b\u52d9\u6240","boring_xml_url":47,"boring_view_url":1,"soilmap_view_url":null,"soiltest_xml_url":0,"soiltest_view_url":0},{"id":242543,"code":"B4KJ201802000-8023","latitude":"36.139639","longitude":"139.709111","source_code":"KT200283356020230004","project_name":"\u4e00\u822c\u56fd\u90534\u53f7","survey_name":"\u5e73\u621014\u5e74\u5ea6 \u4e00\u822c\u56fd\u90534\u53f7\u53e4\u6cb3\u5730\u533a\u5730\u8cea\u8abf\u67fb","client_name":"\u56fd\u571f\u4ea4\u901a\u7701 \u95a2\u6771\u5730\u65b9\u6574\u5099\u5c40 \u5b87\u90fd\u5bae\u56fd\u9053\u5de5\u4e8b\u4e8b\u52d9\u6240","boring_xml_url":47,"boring_view_url":1,"soilmap_view_url":null,"soiltest_xml_url":0,"soiltest_view_url":0},{"id":242542,"code":"B4KJ201802000-8022","latitude":"36.139083","longitude":"139.708278","source_code":"KT200283356020230003","project_name":"\u4e00\u822c\u56fd\u90534\u53f7","survey_name":"\u5e73\u621014\u5e74\u5ea6 \u4e00\u822c\u56fd\u90534\u53f7\u53e4\u6cb3\u5730\u533a\u5730\u8cea\u8abf\u67fb","client_name":"\u56fd\u571f\u4ea4\u901a\u7701 \u95a2\u6771\u5730\u65b9\u6574\u5099\u5c40 \u5b87\u90fd\u5bae\u56fd\u9053\u5de5\u4e8b\u4e8b\u52d9\u6240","boring_xml_url":47,"boring_view_url":1,"soilmap_view_url":null,"soiltest_xml_url":0,"soiltest_view_url":0},{"id":242541,"code":"B4KJ201802000-8021","latitude":"36.138806","longitude":"139.707861","source_code":"KT200283356020230002","project_name":"\u4e00\u822c\u56fd\u90534\u53f7","survey_name":"\u5e73\u621014\u5e74\u5ea6 \u4e00\u822c\u56fd\u90534\u53f7\u53e4\u6cb3\u5730\u533a\u5730\u8cea\u8abf\u67fb","client_name":"\u56fd\u571f\u4ea4\u901a\u7701 \u95a2\u6771\u5730\u65b9\u6574\u5099\u5c40 \u5b87\u90fd\u5bae\u56fd\u9053\u5de5\u4e8b\u4e8b\u52d9\u6240","boring_xml_url":47,"boring_view_url":1,"soilmap_view_url":null,"soiltest_xml_url":0,"soiltest_view_url":0},{"id":242540,"code":"B4KJ201802000-8020","latitude":"36.138389","longitude":"139.707139","source_code":"KT200283356020230001","project_name":"\u4e00\u822c\u56fd\u90534\u53f7","survey_name":"\u5e73\u621014\u5e74\u5ea6 \u4e00\u822c\u56fd\u90534\u53f7\u53e4\u6cb3\u5730\u533a\u5730\u8cea\u8abf\u67fb","client_name":"\u56fd\u571f\u4ea4\u901a\u7701 \u95a2\u6771\u5730\u65b9\u6574\u5099\u5c40 \u5b87\u90fd\u5bae\u56fd\u9053\u5de5\u4e8b\u4e8b\u52d9\u6240","boring_xml_url":47,"boring_view_url":1,"soilmap_view_url":null,"soiltest_xml_url":0,"soiltest_view_url":0},{"id":242539,"code":"B4KJ201802000-8019","latitude":"36.512406","longitude":"138.096893","source_code":"KT200283706020200009","project_name":"\u5742\u57ce\u66f4\u57f4\u30d0\u30a4\u30d1\u30b9\u5730\u8cea\u8abf\u67fb\u696d\u52d9\u59d4\u8a17","survey_name":"\u5742\u57ce\u66f4\u57f4\u30d0\u30a4\u30d1\u30b9\u5de5\u4e8b","client_name":"\u56fd\u571f\u4ea4\u901a\u7701 \u9577\u91ce\u56fd\u9053\u5de5\u4e8b\u4e8b\u52d9\u6240","boring_xml_url":47,"boring_view_url":1,"soilmap_view_url":null,"soiltest_xml_url":0,"soiltest_view_url":0},{"id":242538,"code":"B4KJ201802000-8018","latitude":"36.51285","longitude":"138.097171","source_code":"KT200283706020200008","project_name":"\u5742\u57ce\u66f4\u57f4\u30d0\u30a4\u30d1\u30b9\u5730\u8cea\u8abf\u67fb\u696d\u52d9\u59d4\u8a17","survey_name":"\u5742\u57ce\u66f4\u57f4\u30d0\u30a4\u30d1\u30b9\u5de5\u4e8b","client_name":"\u56fd\u571f\u4ea4\u901a\u7701 \u9577\u91ce\u56fd\u9053\u5de5\u4e8b\u4e8b\u52d9\u6240","boring_xml_url":47,"boring_view_url":1,"soilmap_view_url":null,"soiltest_xml_url":0,"soiltest_view_url":0},{"id":242537,"code":"B4KJ201802000-8017","latitude":"36.512378","longitude":"138.097448","source_code":"KT200283706020200007","project_name":"\u5742\u57ce\u66f4\u57f4\u30d0\u30a4\u30d1\u30b9\u5730\u8cea\u8abf\u67fb\u696d\u52d9\u59d4\u8a17","survey_name":"\u5742\u57ce\u66f4\u57f4\u30d0\u30a4\u30d1\u30b9\u5de5\u4e8b","client_name":"\u56fd\u571f\u4ea4\u901a\u7701 \u9577\u91ce\u56fd\u9053\u5de5\u4e8b\u4e8b\u52d9\u6240","boring_xml_url":47,"boring_view_url":1,"soilmap_view_url":null,"soiltest_xml_url":0,"soiltest_view_url":0},{"id":242536,"code":"B4KJ201802000-8016","latitude":"36.528932","longitude":"138.097171","source_code":"KT200283706020200006","project_name":"\u5742\u57ce\u66f4\u57f4\u30d0\u30a4\u30d1\u30b9\u5730\u8cea\u8abf\u67fb\u696d\u52d9\u59d4\u8a17","survey_name":"\u5742\u57ce\u66f4\u57f4\u30d0\u30a4\u30d1\u30b9\u5de5\u4e8b","client_name":"\u56fd\u571f\u4ea4\u901a\u7701 \u9577\u91ce\u56fd\u9053\u5de5\u4e8b\u4e8b\u52d9\u6240","boring_xml_url":47,"boring_view_url":1,"soilmap_view_url":null,"soiltest_xml_url":0,"soiltest_view_url":0},{"id":242535,"code":"B4KJ201802000-8015","latitude":"36.530209","longitude":"138.097449","source_code":"KT200283706020200005","project_name":"\u5742\u57ce\u66f4\u57f4\u30d0\u30a4\u30d1\u30b9\u5730\u8cea\u8abf\u67fb\u696d\u52d9\u59d4\u8a17","survey_name":"\u5742\u57ce\u66f4\u57f4\u30d0\u30a4\u30d1\u30b9\u5de5\u4e8b","client_name":"\u56fd\u571f\u4ea4\u901a\u7701 \u9577\u91ce\u56fd\u9053\u5de5\u4e8b\u4e8b\u52d9\u6240","boring_xml_url":47,"boring_view_url":1,"soilmap_view_url":null,"soiltest_xml_url":0,"soiltest_view_url":0},{"id":242534,"code":"B4KJ201802000-8014","latitude":"36.528682","longitude":"138.097727","source_code":"KT200283706020200004","project_name":"\u5742\u57ce\u66f4\u57f4\u30d0\u30a4\u30d1\u30b9\u5730\u8cea\u8abf\u67fb\u696d\u52d9\u59d4\u8a17","survey_name":"\u5742\u57ce\u66f4\u57f4\u30d0\u30a4\u30d1\u30b9\u5de5\u4e8b","client_name":"\u56fd\u571f\u4ea4\u901a\u7701 \u9577\u91ce\u56fd\u9053\u5de5\u4e8b\u4e8b\u52d9\u6240","boring_xml_url":47,"boring_view_url":1,"soilmap_view_url":null,"soiltest_xml_url":0,"soiltest_view_url":0}]}}