{"header":{"xyz":{"source":[],"mosaic":false},"page":2937,"raw":{"soiltest_result":"0","bbox":"57.598333,109.544722,1.933333,163.806111","page":"2937"},"conditions":{"soiltest_result":0,"north":57.598333,"west":109.544722,"south":1.933333,"east":163.806111},"success":true,"message":""},"data":{"meta":{"total":212844,"page":2937,"pages":7095,"count":30},"values":[{"id":242443,"code":"B4KJ201802000-7923","latitude":"35.502361","longitude":"139.365806","source_code":"KT200283636120070017","project_name":"\u3055\u304c\u307f\u7e26\u8cab\u9053\u8def","survey_name":"\u539a\u79e6\u539a\u6728\u5730\u533a(\u4e2d\u4f9d\u77e5\u30fb\u4e09\u7530)\u4ed6\u5730\u8cea\u8abf\u67fb\u696d\u52d9","client_name":"\u56fd\u571f\u4ea4\u901a\u7701\u95a2\u6771\u5730\u65b9\u6574\u5099\u5c40 \u6a2a\u6d5c\u56fd\u9053\u5de5\u4e8b\u4e8b\u52d9\u6240","boring_xml_url":47,"boring_view_url":1,"soilmap_view_url":null,"soiltest_xml_url":0,"soiltest_view_url":0},{"id":242442,"code":"B4KJ201802000-7922","latitude":"35.501361","longitude":"139.365583","source_code":"KT200283636120070016","project_name":"\u3055\u304c\u307f\u7e26\u8cab\u9053\u8def","survey_name":"\u539a\u79e6\u539a\u6728\u5730\u533a(\u4e2d\u4f9d\u77e5\u30fb\u4e09\u7530)\u4ed6\u5730\u8cea\u8abf\u67fb\u696d\u52d9","client_name":"\u56fd\u571f\u4ea4\u901a\u7701\u95a2\u6771\u5730\u65b9\u6574\u5099\u5c40 \u6a2a\u6d5c\u56fd\u9053\u5de5\u4e8b\u4e8b\u52d9\u6240","boring_xml_url":47,"boring_view_url":1,"soilmap_view_url":null,"soiltest_xml_url":0,"soiltest_view_url":0},{"id":242441,"code":"B4KJ201802000-7921","latitude":"35.473528","longitude":"139.356389","source_code":"KT200283636120070015","project_name":"\u4e00\u822c\u56fd\u9053246\u53f7\u30d0\u30a4\u30d1\u30b9 \u539a\u6728\u79e6\u91ce\u9053\u8def","survey_name":"\u539a\u79e6\u539a\u6728\u5730\u533a(\u4e2d\u4f9d\u77e5\u30fb\u4e09\u7530)\u4ed6\u5730\u8cea\u8abf\u67fb\u696d\u52d9","client_name":"\u56fd\u571f\u4ea4\u901a\u7701\u95a2\u6771\u5730\u65b9\u6574\u5099\u5c40 \u6a2a\u6d5c\u56fd\u9053\u5de5\u4e8b\u4e8b\u52d9\u6240","boring_xml_url":47,"boring_view_url":1,"soilmap_view_url":null,"soiltest_xml_url":0,"soiltest_view_url":0},{"id":242440,"code":"B4KJ201802000-7920","latitude":"35.473833","longitude":"139.357333","source_code":"KT200283636120070014","project_name":"\u4e00\u822c\u56fd\u9053246\u53f7\u30d0\u30a4\u30d1\u30b9 \u539a\u6728\u79e6\u91ce\u9053\u8def","survey_name":"\u539a\u79e6\u539a\u6728\u5730\u533a(\u4e2d\u4f9d\u77e5\u30fb\u4e09\u7530)\u4ed6\u5730\u8cea\u8abf\u67fb\u696d\u52d9","client_name":"\u56fd\u571f\u4ea4\u901a\u7701\u95a2\u6771\u5730\u65b9\u6574\u5099\u5c40 \u6a2a\u6d5c\u56fd\u9053\u5de5\u4e8b\u4e8b\u52d9\u6240","boring_xml_url":47,"boring_view_url":1,"soilmap_view_url":null,"soiltest_xml_url":0,"soiltest_view_url":0},{"id":242439,"code":"B4KJ201802000-7919","latitude":"35.47425","longitude":"139.358417","source_code":"KT200283636120070013","project_name":"\u4e00\u822c\u56fd\u9053246\u53f7\u30d0\u30a4\u30d1\u30b9 \u539a\u6728\u79e6\u91ce\u9053\u8def","survey_name":"\u539a\u79e6\u539a\u6728\u5730\u533a(\u4e2d\u4f9d\u77e5\u30fb\u4e09\u7530)\u4ed6\u5730\u8cea\u8abf\u67fb\u696d\u52d9","client_name":"\u56fd\u571f\u4ea4\u901a\u7701\u95a2\u6771\u5730\u65b9\u6574\u5099\u5c40 \u6a2a\u6d5c\u56fd\u9053\u5de5\u4e8b\u4e8b\u52d9\u6240","boring_xml_url":47,"boring_view_url":1,"soilmap_view_url":null,"soiltest_xml_url":0,"soiltest_view_url":0},{"id":242438,"code":"B4KJ201802000-7918","latitude":"35.474528","longitude":"139.359306","source_code":"KT200283636120070012","project_name":"\u4e00\u822c\u56fd\u9053246\u53f7\u30d0\u30a4\u30d1\u30b9 \u539a\u6728\u79e6\u91ce\u9053\u8def","survey_name":"\u539a\u79e6\u539a\u6728\u5730\u533a(\u4e2d\u4f9d\u77e5\u30fb\u4e09\u7530)\u4ed6\u5730\u8cea\u8abf\u67fb\u696d\u52d9","client_name":"\u56fd\u571f\u4ea4\u901a\u7701\u95a2\u6771\u5730\u65b9\u6574\u5099\u5c40 \u6a2a\u6d5c\u56fd\u9053\u5de5\u4e8b\u4e8b\u52d9\u6240","boring_xml_url":47,"boring_view_url":1,"soilmap_view_url":null,"soiltest_xml_url":0,"soiltest_view_url":0},{"id":242437,"code":"B4KJ201802000-7917","latitude":"35.474833","longitude":"139.360167","source_code":"KT200283636120070011","project_name":"\u4e00\u822c\u56fd\u9053246\u53f7\u30d0\u30a4\u30d1\u30b9 \u539a\u6728\u79e6\u91ce\u9053\u8def","survey_name":"\u539a\u79e6\u539a\u6728\u5730\u533a(\u4e2d\u4f9d\u77e5\u30fb\u4e09\u7530)\u4ed6\u5730\u8cea\u8abf\u67fb\u696d\u52d9","client_name":"\u56fd\u571f\u4ea4\u901a\u7701\u95a2\u6771\u5730\u65b9\u6574\u5099\u5c40 \u6a2a\u6d5c\u56fd\u9053\u5de5\u4e8b\u4e8b\u52d9\u6240","boring_xml_url":47,"boring_view_url":1,"soilmap_view_url":null,"soiltest_xml_url":0,"soiltest_view_url":0},{"id":242436,"code":"B4KJ201802000-7916","latitude":"35.474917","longitude":"139.360806","source_code":"KT200283636120070010","project_name":"\u4e00\u822c\u56fd\u9053246\u53f7\u30d0\u30a4\u30d1\u30b9 \u539a\u6728\u79e6\u91ce\u9053\u8def","survey_name":"\u539a\u79e6\u539a\u6728\u5730\u533a(\u4e2d\u4f9d\u77e5\u30fb\u4e09\u7530)\u4ed6\u5730\u8cea\u8abf\u67fb\u696d\u52d9","client_name":"\u56fd\u571f\u4ea4\u901a\u7701\u95a2\u6771\u5730\u65b9\u6574\u5099\u5c40 \u6a2a\u6d5c\u56fd\u9053\u5de5\u4e8b\u4e8b\u52d9\u6240","boring_xml_url":47,"boring_view_url":1,"soilmap_view_url":null,"soiltest_xml_url":0,"soiltest_view_url":0},{"id":242435,"code":"B4KJ201802000-7915","latitude":"35.475222","longitude":"139.361806","source_code":"KT200283636120070009","project_name":"\u4e00\u822c\u56fd\u9053246\u53f7\u30d0\u30a4\u30d1\u30b9 \u539a\u6728\u79e6\u91ce\u9053\u8def","survey_name":"\u539a\u79e6\u539a\u6728\u5730\u533a(\u4e2d\u4f9d\u77e5\u30fb\u4e09\u7530)\u4ed6\u5730\u8cea\u8abf\u67fb\u696d\u52d9","client_name":"\u56fd\u571f\u4ea4\u901a\u7701\u95a2\u6771\u5730\u65b9\u6574\u5099\u5c40 \u6a2a\u6d5c\u56fd\u9053\u5de5\u4e8b\u4e8b\u52d9\u6240","boring_xml_url":47,"boring_view_url":1,"soilmap_view_url":null,"soiltest_xml_url":0,"soiltest_view_url":0},{"id":242434,"code":"B4KJ201802000-7914","latitude":"35.475389","longitude":"139.362722","source_code":"KT200283636120070008","project_name":"\u4e00\u822c\u56fd\u9053246\u53f7\u30d0\u30a4\u30d1\u30b9 \u539a\u6728\u79e6\u91ce\u9053\u8def","survey_name":"\u539a\u79e6\u539a\u6728\u5730\u533a(\u4e2d\u4f9d\u77e5\u30fb\u4e09\u7530)\u4ed6\u5730\u8cea\u8abf\u67fb\u696d\u52d9","client_name":"\u56fd\u571f\u4ea4\u901a\u7701\u95a2\u6771\u5730\u65b9\u6574\u5099\u5c40 \u6a2a\u6d5c\u56fd\u9053\u5de5\u4e8b\u4e8b\u52d9\u6240","boring_xml_url":47,"boring_view_url":1,"soilmap_view_url":null,"soiltest_xml_url":0,"soiltest_view_url":0},{"id":242433,"code":"B4KJ201802000-7913","latitude":"35.475556","longitude":"139.363667","source_code":"KT200283636120070007","project_name":"\u4e00\u822c\u56fd\u9053246\u53f7\u30d0\u30a4\u30d1\u30b9 \u539a\u6728\u79e6\u91ce\u9053\u8def","survey_name":"\u539a\u79e6\u539a\u6728\u5730\u533a(\u4e2d\u4f9d\u77e5\u30fb\u4e09\u7530)\u4ed6\u5730\u8cea\u8abf\u67fb\u696d\u52d9","client_name":"\u56fd\u571f\u4ea4\u901a\u7701\u95a2\u6771\u5730\u65b9\u6574\u5099\u5c40 \u6a2a\u6d5c\u56fd\u9053\u5de5\u4e8b\u4e8b\u52d9\u6240","boring_xml_url":47,"boring_view_url":1,"soilmap_view_url":null,"soiltest_xml_url":0,"soiltest_view_url":0},{"id":242432,"code":"B4KJ201802000-7912","latitude":"35.475667","longitude":"139.3645","source_code":"KT200283636120070006","project_name":"\u4e00\u822c\u56fd\u9053246\u53f7\u30d0\u30a4\u30d1\u30b9 \u539a\u6728\u79e6\u91ce\u9053\u8def","survey_name":"\u539a\u79e6\u539a\u6728\u5730\u533a(\u4e2d\u4f9d\u77e5\u30fb\u4e09\u7530)\u4ed6\u5730\u8cea\u8abf\u67fb\u696d\u52d9","client_name":"\u56fd\u571f\u4ea4\u901a\u7701\u95a2\u6771\u5730\u65b9\u6574\u5099\u5c40 \u6a2a\u6d5c\u56fd\u9053\u5de5\u4e8b\u4e8b\u52d9\u6240","boring_xml_url":47,"boring_view_url":1,"soilmap_view_url":null,"soiltest_xml_url":0,"soiltest_view_url":0},{"id":242431,"code":"B4KJ201802000-7911","latitude":"35.475556","longitude":"139.365028","source_code":"KT200283636120070005","project_name":"\u4e00\u822c\u56fd\u9053246\u53f7\u30d0\u30a4\u30d1\u30b9 \u539a\u6728\u79e6\u91ce\u9053\u8def","survey_name":"\u539a\u79e6\u539a\u6728\u5730\u533a(\u4e2d\u4f9d\u77e5\u30fb\u4e09\u7530)\u4ed6\u5730\u8cea\u8abf\u67fb\u696d\u52d9","client_name":"\u56fd\u571f\u4ea4\u901a\u7701\u95a2\u6771\u5730\u65b9\u6574\u5099\u5c40 \u6a2a\u6d5c\u56fd\u9053\u5de5\u4e8b\u4e8b\u52d9\u6240","boring_xml_url":47,"boring_view_url":1,"soilmap_view_url":null,"soiltest_xml_url":0,"soiltest_view_url":0},{"id":242430,"code":"B4KJ201802000-7910","latitude":"35.475917","longitude":"139.365028","source_code":"KT200283636120070004","project_name":"\u4e00\u822c\u56fd\u9053246\u53f7\u30d0\u30a4\u30d1\u30b9 \u539a\u6728\u79e6\u91ce\u9053\u8def","survey_name":"\u539a\u79e6\u539a\u6728\u5730\u533a(\u4e2d\u4f9d\u77e5\u30fb\u4e09\u7530)\u4ed6\u5730\u8cea\u8abf\u67fb\u696d\u52d9","client_name":"\u56fd\u571f\u4ea4\u901a\u7701\u95a2\u6771\u5730\u65b9\u6574\u5099\u5c40 \u6a2a\u6d5c\u56fd\u9053\u5de5\u4e8b\u4e8b\u52d9\u6240","boring_xml_url":47,"boring_view_url":1,"soilmap_view_url":null,"soiltest_xml_url":0,"soiltest_view_url":0},{"id":242429,"code":"B4KJ201802000-7909","latitude":"35.475861","longitude":"139.366","source_code":"KT200283636120070003","project_name":"\u4e00\u822c\u56fd\u9053246\u53f7\u30d0\u30a4\u30d1\u30b9 \u539a\u6728\u79e6\u91ce\u9053\u8def","survey_name":"\u539a\u79e6\u539a\u6728\u5730\u533a(\u4e2d\u4f9d\u77e5\u30fb\u4e09\u7530)\u4ed6\u5730\u8cea\u8abf\u67fb\u696d\u52d9","client_name":"\u56fd\u571f\u4ea4\u901a\u7701\u95a2\u6771\u5730\u65b9\u6574\u5099\u5c40 \u6a2a\u6d5c\u56fd\u9053\u5de5\u4e8b\u4e8b\u52d9\u6240","boring_xml_url":47,"boring_view_url":1,"soilmap_view_url":null,"soiltest_xml_url":0,"soiltest_view_url":0},{"id":242428,"code":"B4KJ201802000-7908","latitude":"35.476028","longitude":"139.366472","source_code":"KT200283636120070002","project_name":"\u4e00\u822c\u56fd\u9053246\u53f7\u30d0\u30a4\u30d1\u30b9 \u539a\u6728\u79e6\u91ce\u9053\u8def","survey_name":"\u539a\u79e6\u539a\u6728\u5730\u533a(\u4e2d\u4f9d\u77e5\u30fb\u4e09\u7530)\u4ed6\u5730\u8cea\u8abf\u67fb\u696d\u52d9","client_name":"\u56fd\u571f\u4ea4\u901a\u7701\u95a2\u6771\u5730\u65b9\u6574\u5099\u5c40 \u6a2a\u6d5c\u56fd\u9053\u5de5\u4e8b\u4e8b\u52d9\u6240","boring_xml_url":47,"boring_view_url":1,"soilmap_view_url":null,"soiltest_xml_url":0,"soiltest_view_url":0},{"id":242427,"code":"B4KJ201802000-7907","latitude":"35.475889","longitude":"139.366806","source_code":"KT200283636120070001","project_name":"\u4e00\u822c\u56fd\u9053246\u53f7\u30d0\u30a4\u30d1\u30b9 \u539a\u6728\u79e6\u91ce\u9053\u8def","survey_name":"\u539a\u79e6\u539a\u6728\u5730\u533a(\u4e2d\u4f9d\u77e5\u30fb\u4e09\u7530)\u4ed6\u5730\u8cea\u8abf\u67fb\u696d\u52d9","client_name":"\u56fd\u571f\u4ea4\u901a\u7701\u95a2\u6771\u5730\u65b9\u6574\u5099\u5c40 \u6a2a\u6d5c\u56fd\u9053\u5de5\u4e8b\u4e8b\u52d9\u6240 \u8abf\u67fb\u7b2c\u4e8c\u8ab2","boring_xml_url":47,"boring_view_url":1,"soilmap_view_url":null,"soiltest_xml_url":0,"soiltest_view_url":0},{"id":242426,"code":"B4KJ201802000-7906","latitude":"35.904583","longitude":"140.410417","source_code":"KT200183506020550024","project_name":"\u6d25\u30ce\u5bae\u5824\u9632\u5b89\u5168\u6027\u691c\u8a0e\u5730\u8cea\u8abf\u67fb\u696d\u52d9","survey_name":"\u6d25\u30ce\u5bae\u5824\u9632\u5b89\u5168\u6027\u691c\u8a0e\u5730\u8cea\u8abf\u67fb\u696d\u52d9","client_name":"\u56fd\u571f\u4ea4\u901a\u7701  \u95a2\u6771\u5730\u65b9\u6574\u5099\u5c40  \u5229\u6839\u5ddd\u4e0b\u6d41\u5de5\u4e8b\u4e8b\u52d9\u6240","boring_xml_url":47,"boring_view_url":1,"soilmap_view_url":null,"soiltest_xml_url":0,"soiltest_view_url":0},{"id":242425,"code":"B4KJ201802000-7905","latitude":"35.904806","longitude":"140.410583","source_code":"KT200183506020550023","project_name":"\u6d25\u30ce\u5bae\u5824\u9632\u5b89\u5168\u6027\u691c\u8a0e\u5730\u8cea\u8abf\u67fb\u696d\u52d9","survey_name":"\u6d25\u30ce\u5bae\u5824\u9632\u5b89\u5168\u6027\u691c\u8a0e\u5730\u8cea\u8abf\u67fb\u696d\u52d9","client_name":"\u56fd\u571f\u4ea4\u901a\u7701  \u95a2\u6771\u5730\u65b9\u6574\u5099\u5c40  \u5229\u6839\u5ddd\u4e0b\u6d41\u5de5\u4e8b\u4e8b\u52d9\u6240","boring_xml_url":47,"boring_view_url":1,"soilmap_view_url":null,"soiltest_xml_url":0,"soiltest_view_url":0},{"id":242424,"code":"B4KJ201802000-7904","latitude":"35.905056","longitude":"140.410778","source_code":"KT200183506020550022","project_name":"\u6d25\u30ce\u5bae\u5824\u9632\u5b89\u5168\u6027\u691c\u8a0e\u5730\u8cea\u8abf\u67fb\u696d\u52d9","survey_name":"\u6d25\u30ce\u5bae\u5824\u9632\u5b89\u5168\u6027\u691c\u8a0e\u5730\u8cea\u8abf\u67fb\u696d\u52d9","client_name":"\u56fd\u571f\u4ea4\u901a\u7701  \u95a2\u6771\u5730\u65b9\u6574\u5099\u5c40  \u5229\u6839\u5ddd\u4e0b\u6d41\u5de5\u4e8b\u4e8b\u52d9\u6240","boring_xml_url":47,"boring_view_url":1,"soilmap_view_url":null,"soiltest_xml_url":0,"soiltest_view_url":0},{"id":242423,"code":"B4KJ201802000-7903","latitude":"35.903417","longitude":"140.415917","source_code":"KT200183506020550021","project_name":"\u6d25\u30ce\u5bae\u5824\u9632\u5b89\u5168\u6027\u691c\u8a0e\u5730\u8cea\u8abf\u67fb\u696d\u52d9","survey_name":"\u6d25\u30ce\u5bae\u5824\u9632\u5b89\u5168\u6027\u691c\u8a0e\u5730\u8cea\u8abf\u67fb\u696d\u52d9","client_name":"\u56fd\u571f\u4ea4\u901a\u7701  \u95a2\u6771\u5730\u65b9\u6574\u5099\u5c40  \u5229\u6839\u5ddd\u4e0b\u6d41\u5de5\u4e8b\u4e8b\u52d9\u6240","boring_xml_url":47,"boring_view_url":1,"soilmap_view_url":null,"soiltest_xml_url":0,"soiltest_view_url":0},{"id":242422,"code":"B4KJ201802000-7902","latitude":"35.903667","longitude":"140.415944","source_code":"KT200183506020550020","project_name":"\u6d25\u30ce\u5bae\u5824\u9632\u5b89\u5168\u6027\u691c\u8a0e\u5730\u8cea\u8abf\u67fb\u696d\u52d9","survey_name":"\u6d25\u30ce\u5bae\u5824\u9632\u5b89\u5168\u6027\u691c\u8a0e\u5730\u8cea\u8abf\u67fb\u696d\u52d9","client_name":"\u56fd\u571f\u4ea4\u901a\u7701  \u95a2\u6771\u5730\u65b9\u6574\u5099\u5c40  \u5229\u6839\u5ddd\u4e0b\u6d41\u5de5\u4e8b\u4e8b\u52d9\u6240","boring_xml_url":47,"boring_view_url":1,"soilmap_view_url":null,"soiltest_xml_url":0,"soiltest_view_url":0},{"id":242421,"code":"B4KJ201802000-7901","latitude":"35.903944","longitude":"140.415944","source_code":"KT200183506020550019","project_name":"\u6d25\u30ce\u5bae\u5824\u9632\u5b89\u5168\u6027\u691c\u8a0e\u5730\u8cea\u8abf\u67fb\u696d\u52d9","survey_name":"\u6d25\u30ce\u5bae\u5824\u9632\u5b89\u5168\u6027\u691c\u8a0e\u5730\u8cea\u8abf\u67fb\u696d\u52d9","client_name":"\u56fd\u571f\u4ea4\u901a\u7701  \u95a2\u6771\u5730\u65b9\u6574\u5099\u5c40  \u5229\u6839\u5ddd\u4e0b\u6d41\u5de5\u4e8b\u4e8b\u52d9\u6240","boring_xml_url":47,"boring_view_url":1,"soilmap_view_url":null,"soiltest_xml_url":0,"soiltest_view_url":0},{"id":242420,"code":"B4KJ201802000-7900","latitude":"35.904361","longitude":"140.4215","source_code":"KT200183506020550018","project_name":"\u6d25\u30ce\u5bae\u5824\u9632\u5b89\u5168\u6027\u691c\u8a0e\u5730\u8cea\u8abf\u67fb\u696d\u52d9","survey_name":"\u6d25\u30ce\u5bae\u5824\u9632\u5b89\u5168\u6027\u691c\u8a0e\u5730\u8cea\u8abf\u67fb\u696d\u52d9","client_name":"\u56fd\u571f\u4ea4\u901a\u7701  \u95a2\u6771\u5730\u65b9\u6574\u5099\u5c40  \u5229\u6839\u5ddd\u4e0b\u6d41\u5de5\u4e8b\u4e8b\u52d9\u6240","boring_xml_url":47,"boring_view_url":1,"soilmap_view_url":null,"soiltest_xml_url":0,"soiltest_view_url":0},{"id":242419,"code":"B4KJ201802000-7899","latitude":"35.904083","longitude":"140.421444","source_code":"KT200183506020550017","project_name":"\u6d25\u30ce\u5bae\u5824\u9632\u5b89\u5168\u6027\u691c\u8a0e\u5730\u8cea\u8abf\u67fb\u696d\u52d9","survey_name":"\u6d25\u30ce\u5bae\u5824\u9632\u5b89\u5168\u6027\u691c\u8a0e\u5730\u8cea\u8abf\u67fb\u696d\u52d9","client_name":"\u56fd\u571f\u4ea4\u901a\u7701  \u95a2\u6771\u5730\u65b9\u6574\u5099\u5c40  \u5229\u6839\u5ddd\u4e0b\u6d41\u5de5\u4e8b\u4e8b\u52d9\u6240","boring_xml_url":47,"boring_view_url":1,"soilmap_view_url":null,"soiltest_xml_url":0,"soiltest_view_url":0},{"id":242418,"code":"B4KJ201802000-7898","latitude":"35.903833","longitude":"140.421389","source_code":"KT200183506020550016","project_name":"\u6d25\u30ce\u5bae\u5824\u9632\u5b89\u5168\u6027\u691c\u8a0e\u5730\u8cea\u8abf\u67fb\u696d\u52d9","survey_name":"\u6d25\u30ce\u5bae\u5824\u9632\u5b89\u5168\u6027\u691c\u8a0e\u5730\u8cea\u8abf\u67fb\u696d\u52d9","client_name":"\u56fd\u571f\u4ea4\u901a\u7701  \u95a2\u6771\u5730\u65b9\u6574\u5099\u5c40  \u5229\u6839\u5ddd\u4e0b\u6d41\u5de5\u4e8b\u4e8b\u52d9\u6240","boring_xml_url":47,"boring_view_url":1,"soilmap_view_url":null,"soiltest_xml_url":0,"soiltest_view_url":0},{"id":242417,"code":"B4KJ201802000-7897","latitude":"35.905806","longitude":"140.42675","source_code":"KT200183506020550015","project_name":"\u6d25\u30ce\u5bae\u5824\u9632\u5b89\u5168\u6027\u691c\u8a0e\u5730\u8cea\u8abf\u67fb\u696d\u52d9","survey_name":"\u6d25\u30ce\u5bae\u5824\u9632\u5b89\u5168\u6027\u691c\u8a0e\u5730\u8cea\u8abf\u67fb\u696d\u52d9","client_name":"\u56fd\u571f\u4ea4\u901a\u7701  \u95a2\u6771\u5730\u65b9\u6574\u5099\u5c40  \u5229\u6839\u5ddd\u4e0b\u6d41\u5de5\u4e8b\u4e8b\u52d9\u6240","boring_xml_url":47,"boring_view_url":1,"soilmap_view_url":null,"soiltest_xml_url":0,"soiltest_view_url":0},{"id":242416,"code":"B4KJ201802000-7896","latitude":"35.905556","longitude":"140.426667","source_code":"KT200183506020550014","project_name":"\u6d25\u30ce\u5bae\u5824\u9632\u5b89\u5168\u6027\u691c\u8a0e\u5730\u8cea\u8abf\u67fb\u696d\u52d9","survey_name":"\u6d25\u30ce\u5bae\u5824\u9632\u5b89\u5168\u6027\u691c\u8a0e\u5730\u8cea\u8abf\u67fb\u696d\u52d9","client_name":"\u56fd\u571f\u4ea4\u901a\u7701  \u95a2\u6771\u5730\u65b9\u6574\u5099\u5c40  \u5229\u6839\u5ddd\u4e0b\u6d41\u5de5\u4e8b\u4e8b\u52d9\u6240","boring_xml_url":47,"boring_view_url":1,"soilmap_view_url":null,"soiltest_xml_url":0,"soiltest_view_url":0},{"id":242415,"code":"B4KJ201802000-7895","latitude":"35.905333","longitude":"140.426556","source_code":"KT200183506020550013","project_name":"\u6d25\u30ce\u5bae\u5824\u9632\u5b89\u5168\u6027\u691c\u8a0e\u5730\u8cea\u8abf\u67fb\u696d\u52d9","survey_name":"\u6d25\u30ce\u5bae\u5824\u9632\u5b89\u5168\u6027\u691c\u8a0e\u5730\u8cea\u8abf\u67fb\u696d\u52d9","client_name":"\u56fd\u571f\u4ea4\u901a\u7701  \u95a2\u6771\u5730\u65b9\u6574\u5099\u5c40  \u5229\u6839\u5ddd\u4e0b\u6d41\u5de5\u4e8b\u4e8b\u52d9\u6240","boring_xml_url":47,"boring_view_url":1,"soilmap_view_url":null,"soiltest_xml_url":0,"soiltest_view_url":0},{"id":242414,"code":"B4KJ201802000-7894","latitude":"35.907556","longitude":"140.431917","source_code":"KT200183506020550012","project_name":"\u6d25\u30ce\u5bae\u5824\u9632\u5b89\u5168\u6027\u691c\u8a0e\u5730\u8cea\u8abf\u67fb\u696d\u52d9","survey_name":"\u6d25\u30ce\u5bae\u5824\u9632\u5b89\u5168\u6027\u691c\u8a0e\u5730\u8cea\u8abf\u67fb\u696d\u52d9","client_name":"\u56fd\u571f\u4ea4\u901a\u7701  \u95a2\u6771\u5730\u65b9\u6574\u5099\u5c40  \u5229\u6839\u5ddd\u4e0b\u6d41\u5de5\u4e8b\u4e8b\u52d9\u6240","boring_xml_url":47,"boring_view_url":1,"soilmap_view_url":null,"soiltest_xml_url":0,"soiltest_view_url":0}]}}