{"header":{"xyz":{"source":[],"mosaic":false},"page":2954,"raw":{"soiltest_result":"0","bbox":"57.598333,109.544722,1.933333,163.806111","page":"2954"},"conditions":{"soiltest_result":0,"north":57.598333,"west":109.544722,"south":1.933333,"east":163.806111},"success":true,"message":""},"data":{"meta":{"total":212844,"page":2954,"pages":7095,"count":30},"values":[{"id":241933,"code":"B4KJ201802000-7413","latitude":"37.253611","longitude":"139.880472","source_code":"TH20128267600200030003","project_name":"","survey_name":"\u5e73\u621024\u5e74\u5ea6 \u6e6f\u91ce\u4e0a\u30d0\u30a4\u30d1\u30b9\u5730\u76e4\u8abf\u67fb\u696d\u52d9","client_name":"\u56fd\u571f\u4ea4\u901a\u7701 \u6771\u5317\u5730\u65b9\u6574\u5099\u5c40 \u90e1\u5c71\u56fd\u9053\u4e8b\u52d9\u6240","boring_xml_url":49,"boring_view_url":1,"soilmap_view_url":null,"soiltest_xml_url":0,"soiltest_view_url":0},{"id":241932,"code":"B4KJ201802000-7412","latitude":"37.257361","longitude":"139.881444","source_code":"TH20128267600200030002","project_name":"","survey_name":"\u5e73\u621024\u5e74\u5ea6 \u6e6f\u91ce\u4e0a\u30d0\u30a4\u30d1\u30b9\u5730\u76e4\u8abf\u67fb\u696d\u52d9","client_name":"\u56fd\u571f\u4ea4\u901a\u7701 \u6771\u5317\u5730\u65b9\u6574\u5099\u5c40 \u90e1\u5c71\u56fd\u9053\u4e8b\u52d9\u6240","boring_xml_url":49,"boring_view_url":1,"soilmap_view_url":null,"soiltest_xml_url":0,"soiltest_view_url":0},{"id":241931,"code":"B4KJ201802000-7411","latitude":"37.263417","longitude":"139.896111","source_code":"TH20128267600200030001","project_name":"","survey_name":"\u5e73\u621024\u5e74\u5ea6 \u6e6f\u91ce\u4e0a\u30d0\u30a4\u30d1\u30b9\u5730\u76e4\u8abf\u67fb\u696d\u52d9","client_name":"\u56fd\u571f\u4ea4\u901a\u7701 \u6771\u5317\u5730\u65b9\u6574\u5099\u5c40 \u90e1\u5c71\u56fd\u9053\u4e8b\u52d9\u6240","boring_xml_url":49,"boring_view_url":1,"soilmap_view_url":null,"soiltest_xml_url":0,"soiltest_view_url":0},{"id":241930,"code":"B4KJ201802000-7410","latitude":"38.54","longitude":"141.304722","source_code":"TH20108240540200020007","project_name":"","survey_name":"\u4ed9\u53f0\u6cb3\u5ddd\u56fd\u9053\u4e8b\u52d9\u6240\u7ba1\u5185\u9053\u8def\u9632\u707d\u70b9\u691c\u8a2d\u8a08\u696d\u52d9","client_name":"\u56fd\u571f\u4ea4\u901a\u7701 \u6771\u5317\u5730\u65b9\u6574\u5099\u5c40 \u4ed9\u53f0\u6cb3\u5ddd\u56fd\u9053\u4e8b\u52d9\u6240","boring_xml_url":49,"boring_view_url":1,"soilmap_view_url":null,"soiltest_xml_url":0,"soiltest_view_url":0},{"id":241929,"code":"B4KJ201802000-7409","latitude":"38.531667","longitude":"141.308889","source_code":"TH20108240540200020006","project_name":"","survey_name":"\u4ed9\u53f0\u6cb3\u5ddd\u56fd\u9053\u4e8b\u52d9\u6240\u7ba1\u5185\u9053\u8def\u9632\u707d\u70b9\u691c\u8a2d\u8a08\u696d\u52d9","client_name":"\u56fd\u571f\u4ea4\u901a\u7701 \u6771\u5317\u5730\u65b9\u6574\u5099\u5c40 \u4ed9\u53f0\u6cb3\u5ddd\u56fd\u9053\u4e8b\u52d9\u6240","boring_xml_url":49,"boring_view_url":1,"soilmap_view_url":null,"soiltest_xml_url":0,"soiltest_view_url":0},{"id":241928,"code":"B4KJ201802000-7408","latitude":"38.673056","longitude":"140.863611","source_code":"TH20108240540200020005","project_name":"","survey_name":"\u4ed9\u53f0\u6cb3\u5ddd\u56fd\u9053\u4e8b\u52d9\u6240\u7ba1\u5185\u9053\u8def\u9632\u707d\u70b9\u691c\u8a2d\u8a08\u696d\u52d9","client_name":"\u56fd\u571f\u4ea4\u901a\u7701\u6771\u5317\u5730\u65b9\u6574\u5099\u5c40\u4ed9\u53f0\u6cb3\u5ddd\u56fd\u9053\u4e8b\u52d9\u6240","boring_xml_url":49,"boring_view_url":1,"soilmap_view_url":null,"soiltest_xml_url":0,"soiltest_view_url":0},{"id":241927,"code":"B4KJ201802000-7407","latitude":"38.934167","longitude":"141.616111","source_code":"TH20108240540200020004","project_name":"","survey_name":"\u4ed9\u53f0\u6cb3\u5ddd\u56fd\u9053\u4e8b\u52d9\u6240\u7ba1\u5185\u9053\u8def\u9632\u707d\u70b9\u691c\u8a2d\u8a08\u696d\u52d9","client_name":"\u56fd\u571f\u4ea4\u901a\u7701 \u6771\u5317\u5730\u65b9\u6574\u5099\u5c40 \u4ed9\u53f0\u6cb3\u5ddd\u56fd\u9053\u4e8b\u52d9\u6240","boring_xml_url":49,"boring_view_url":1,"soilmap_view_url":null,"soiltest_xml_url":0,"soiltest_view_url":0},{"id":241926,"code":"B4KJ201802000-7406","latitude":"38.721667","longitude":"141.023889","source_code":"TH20108240540200020003","project_name":"","survey_name":"\u4ed9\u53f0\u6cb3\u5ddd\u56fd\u9053\u4e8b\u52d9\u6240\u7ba1\u5185\u9053\u8def\u9632\u707d\u70b9\u691c\u8a2d\u8a08\u696d\u52d9","client_name":"\u56fd\u571f\u4ea4\u901a\u7701 \u6771\u5317\u5730\u65b9\u6574\u5099\u5c40 \u4ed9\u53f0\u6cb3\u5ddd\u56fd\u9053\u4e8b\u52d9\u6240","boring_xml_url":49,"boring_view_url":1,"soilmap_view_url":null,"soiltest_xml_url":0,"soiltest_view_url":0},{"id":241925,"code":"B4KJ201802000-7405","latitude":"38.721389","longitude":"141.024167","source_code":"TH20108240540200020002","project_name":"","survey_name":"\u4ed9\u53f0\u6cb3\u5ddd\u56fd\u9053\u4e8b\u52d9\u6240\u7ba1\u5185\u9053\u8def\u9632\u707d\u70b9\u691c\u8a2d\u8a08\u696d\u52d9","client_name":"\u56fd\u571f\u4ea4\u901a\u7701 \u6771\u5317\u5730\u65b9\u6574\u5099\u5c40 \u4ed9\u53f0\u6cb3\u5ddd\u56fd\u9053\u4e8b\u52d9\u6240","boring_xml_url":49,"boring_view_url":1,"soilmap_view_url":null,"soiltest_xml_url":0,"soiltest_view_url":0},{"id":241924,"code":"B4KJ201802000-7404","latitude":"38.804389","longitude":"141.067361","source_code":"TH20108240540200020001","project_name":"","survey_name":"\u4ed9\u53f0\u6cb3\u5ddd\u56fd\u9053\u4e8b\u52d9\u6240\u7ba1\u5185\u9053\u8def\u9632\u707d\u70b9\u691c\u8a2d\u8a08\u696d\u52d9","client_name":"\u56fd\u571f\u4ea4\u901a\u7701\u6771\u5317\u5730\u65b9\u6574\u5099\u5c40\u4ed9\u53f0\u6cb3\u5ddd\u56fd\u9053\u4e8b\u52d9\u6240","boring_xml_url":49,"boring_view_url":1,"soilmap_view_url":null,"soiltest_xml_url":0,"soiltest_view_url":0},{"id":241923,"code":"B4KJ201802000-7403","latitude":"38.172583","longitude":"140.89","source_code":"TH20118240550200110001","project_name":"","survey_name":"\u5897\u7530\u5730\u533a\u4ea4\u5dee\u70b9\u4ed6\u8a2d\u8a08\u696d\u52d9","client_name":"\u56fd\u571f\u4ea4\u901a\u7701 \u6771\u5317\u5730\u65b9\u6574\u5099\u5c40 \u4ed9\u53f0\u6cb3\u5ddd\u56fd\u9053\u4e8b\u52d9\u6240","boring_xml_url":49,"boring_view_url":1,"soilmap_view_url":null,"soiltest_xml_url":49,"soiltest_view_url":48},{"id":241922,"code":"B4KJ201802000-7402","latitude":"38.375278","longitude":"141.068056","source_code":"TH20108240550200040002","project_name":"","survey_name":"\u4ed9\u5357\u5730\u533a\u9053\u8def\u69cb\u9020\u7269\u4ed6\u8a2d\u8a08\u696d\u52d9","client_name":"\u56fd\u4ea4\u7701 \u6771\u5317\u5730\u65b9\u6574\u5099\u5c40 \u4ed9\u53f0\u6cb3\u5ddd\u56fd\u9053\u4e8b\u52d9\u6240","boring_xml_url":49,"boring_view_url":1,"soilmap_view_url":null,"soiltest_xml_url":0,"soiltest_view_url":0},{"id":241921,"code":"B4KJ201802000-7401","latitude":"38.458333","longitude":"140.878889","source_code":"TH20108240550200040001","project_name":"","survey_name":"\u4ed9\u5357\u5730\u533a\u9053\u8def\u69cb\u9020\u7269\u4ed6\u8a2d\u8a08\u696d\u52d9","client_name":"\u56fd\u4ea4\u7701 \u6771\u5317\u5730\u65b9\u6574\u5099\u5c40 \u4ed9\u53f0\u6cb3\u5ddd\u56fd\u9053\u4e8b\u52d9\u6240","boring_xml_url":49,"boring_view_url":1,"soilmap_view_url":null,"soiltest_xml_url":0,"soiltest_view_url":0},{"id":241920,"code":"B4KJ201802000-7400","latitude":"38.582472","longitude":"140.955111","source_code":"TH20098240550200030001","project_name":"\u56fd\u9053108\u53f7 \u8acf\u8a2a\u6a4b","survey_name":"\u5e73\u621021\u5e74\u5ea6 \u53e4\u5ddd\u30fb\u9cf4\u5b50\u7ba1\u5185\u4ea4\u5dee\u70b9\u4ed6\u6e2c\u91cf\u8a2d\u8a08\u696d\u52d9","client_name":"\u56fd\u571f\u4ea4\u901a\u7701\u6771\u5317\u5730\u65b9\u6574\u5099\u5c40\u4ed9\u53f0\u6cb3\u5ddd\u56fd\u9053\u4e8b\u52d9\u6240","boring_xml_url":49,"boring_view_url":1,"soilmap_view_url":null,"soiltest_xml_url":49,"soiltest_view_url":48},{"id":241919,"code":"B4KJ201802000-7399","latitude":"39.559083","longitude":"140.325806","source_code":"TH20108246400200090001","project_name":"+\u4e8c\u306e\u6728\u6a0b\u9580 \u5730\u8cea\u8abf\u67fb","survey_name":"\u5e73\u621022\u5e74\u5ea6 \u96c4\u7269\u5ddd\u4e0a\u6d41+\u4e8c\u306e\u6728\u6a0b\u9580\u8a73\u7d30\u8a2d\u8a08\u696d\u52d9","client_name":"\u56fd\u571f\u4ea4\u901a\u7701 \u6771\u5317\u5730\u65b9\u6574\u5099\u5c40 \u6e6f\u6ca2\u6cb3\u5ddd\u56fd\u9053\u4e8b\u52d9\u6240","boring_xml_url":49,"boring_view_url":1,"soilmap_view_url":null,"soiltest_xml_url":49,"soiltest_view_url":48},{"id":241918,"code":"B4KJ201802000-7398","latitude":"39.544944","longitude":"140.275111","source_code":"TH20108246400200060002","project_name":"\u5f37\u9996\u7b2c\u4e00\u6a0b\u9580 \u5730\u8cea\u8abf\u67fb","survey_name":"\u5e73\u621022\u5e74\u5ea6 \u96c4\u7269\u5ddd\u4e0a\u6d41\u5f37\u9996\u7b2c\u4e00\u6a0b\u9580\u8a73\u7d30\u8a2d\u8a08\u696d\u52d9","client_name":"\u56fd\u571f\u4ea4\u901a\u7701 \u6771\u5317\u5730\u65b9\u6574\u5099\u5c40 \u6e6f\u6ca2\u6cb3\u5ddd\u56fd\u9053\u4e8b\u52d9\u6240","boring_xml_url":49,"boring_view_url":1,"soilmap_view_url":null,"soiltest_xml_url":49,"soiltest_view_url":48},{"id":241917,"code":"B4KJ201802000-7397","latitude":"39.544944","longitude":"140.274472","source_code":"TH20108246400200060001","project_name":"\u5f37\u9996\u7b2c\u4e00\u6a0b\u9580 \u5730\u8cea\u8abf\u67fb","survey_name":"\u5e73\u621022\u5e74\u5ea6 \u96c4\u7269\u5ddd\u4e0a\u6d41\u5f37\u9996\u7b2c\u4e00\u6a0b\u9580\u8a73\u7d30\u8a2d\u8a08\u696d\u52d9","client_name":"\u56fd\u571f\u4ea4\u901a\u7701 \u6771\u5317\u5730\u65b9\u6574\u5099\u5c40 \u6e6f\u6ca2\u6cb3\u5ddd\u56fd\u9053\u4e8b\u52d9\u6240","boring_xml_url":49,"boring_view_url":1,"soilmap_view_url":null,"soiltest_xml_url":49,"soiltest_view_url":48},{"id":241916,"code":"B4KJ201802000-7396","latitude":"39.732528","longitude":"140.742167","source_code":"TH20108246600200050005","project_name":"\u5e73\u621022\u5e74\u5ea6 \u516b\u5e61\u5e73\u5c71\u7cfb\u6867\u6728\u5185\u5ddd\u7b2c2\u7802\u9632\u5830\u5824\u4e88\u5099\u8a2d\u8a08\u696d\u52d9","survey_name":"\u5e73\u621022\u5e74\u5ea6 \u516b\u5e61\u5e73\u5c71\u7cfb\u6867\u6728\u5185\u5ddd\u7b2c2\u7802\u9632\u5830\u5824\u4e88\u5099\u8a2d\u8a08\u696d\u52d9","client_name":"\u56fd\u571f\u4ea4\u901a\u7701\u6771\u5317\u5730\u65b9\u6574\u5099\u5c40 \u6e6f\u6ca2\u6cb3\u5ddd\u56fd\u9053\u4e8b\u52d9\u6240","boring_xml_url":49,"boring_view_url":1,"soilmap_view_url":null,"soiltest_xml_url":0,"soiltest_view_url":0},{"id":241915,"code":"B4KJ201802000-7395","latitude":"39.732167","longitude":"140.742972","source_code":"TH20108246600200050004","project_name":"\u5e73\u621022\u5e74\u5ea6 \u516b\u5e61\u5e73\u5c71\u7cfb\u6867\u6728\u5185\u5ddd\u7b2c2\u7802\u9632\u5830\u5824\u4e88\u5099\u8a2d\u8a08\u696d\u52d9","survey_name":"\u5e73\u621022\u5e74\u5ea6 \u516b\u5e61\u5e73\u5c71\u7cfb\u6867\u6728\u5185\u5ddd\u7b2c2\u7802\u9632\u5830\u5824\u4e88\u5099\u8a2d\u8a08\u696d\u52d9","client_name":"\u56fd\u571f\u4ea4\u901a\u7701\u6771\u5317\u5730\u65b9\u6574\u5099\u5c40 \u6e6f\u6ca2\u6cb3\u5ddd\u56fd\u9053\u4e8b\u52d9\u6240","boring_xml_url":49,"boring_view_url":1,"soilmap_view_url":null,"soiltest_xml_url":0,"soiltest_view_url":0},{"id":241914,"code":"B4KJ201802000-7394","latitude":"39.732361","longitude":"140.742778","source_code":"TH20108246600200050003","project_name":"\u5e73\u621022\u5e74\u5ea6 \u516b\u5e61\u5e73\u5c71\u7cfb\u6867\u6728\u5185\u5ddd\u7b2c2\u7802\u9632\u5830\u5824\u4e88\u5099\u8a2d\u8a08\u696d\u52d9","survey_name":"\u5e73\u621022\u5e74\u5ea6 \u516b\u5e61\u5e73\u5c71\u7cfb\u6867\u6728\u5185\u5ddd\u7b2c2\u7802\u9632\u5830\u5824\u4e88\u5099\u8a2d\u8a08\u696d\u52d9","client_name":"\u56fd\u571f\u4ea4\u901a\u7701\u6771\u5317\u5730\u65b9\u6574\u5099\u5c40 \u6e6f\u6ca2\u6cb3\u5ddd\u56fd\u9053\u4e8b\u52d9\u6240","boring_xml_url":49,"boring_view_url":1,"soilmap_view_url":null,"soiltest_xml_url":0,"soiltest_view_url":0},{"id":241913,"code":"B4KJ201802000-7393","latitude":"39.732778","longitude":"140.742389","source_code":"TH20108246600200050002","project_name":"\u5e73\u621022\u5e74\u5ea6 \u516b\u5e61\u5e73\u5c71\u7cfb\u6867\u6728\u5185\u5ddd\u7b2c2\u7802\u9632\u5830\u5824\u4e88\u5099\u8a2d\u8a08\u696d\u52d9","survey_name":"\u5e73\u621022\u5e74\u5ea6 \u516b\u5e61\u5e73\u5c71\u7cfb\u6867\u6728\u5185\u5ddd\u7b2c2\u7802\u9632\u5830\u5824\u4e88\u5099\u8a2d\u8a08\u696d\u52d9","client_name":"\u56fd\u571f\u4ea4\u901a\u7701\u6771\u5317\u5730\u65b9\u6574\u5099\u5c40 \u6e6f\u6ca2\u6cb3\u5ddd\u56fd\u9053\u4e8b\u52d9\u6240","boring_xml_url":49,"boring_view_url":1,"soilmap_view_url":null,"soiltest_xml_url":0,"soiltest_view_url":0},{"id":241912,"code":"B4KJ201802000-7392","latitude":"39.733028","longitude":"140.742111","source_code":"TH20108246600200050001","project_name":"\u5e73\u621022\u5e74\u5ea6 \u516b\u5e61\u5e73\u5c71\u7cfb\u6867\u6728\u5185\u5ddd\u7b2c2\u7802\u9632\u5830\u5824\u4e88\u5099\u8a2d\u8a08\u696d\u52d9","survey_name":"\u5e73\u621022\u5e74\u5ea6 \u516b\u5e61\u5e73\u5c71\u7cfb\u6867\u6728\u5185\u5ddd\u7b2c2\u7802\u9632\u5830\u5824\u4e88\u5099\u8a2d\u8a08\u696d\u52d9","client_name":"\u56fd\u571f\u4ea4\u901a\u7701\u6771\u5317\u5730\u65b9\u6574\u5099\u5c40 \u6e6f\u6ca2\u6cb3\u5ddd\u56fd\u9053\u4e8b\u52d9\u6240","boring_xml_url":49,"boring_view_url":1,"soilmap_view_url":null,"soiltest_xml_url":0,"soiltest_view_url":0},{"id":241911,"code":"B4KJ201802000-7391","latitude":"39.246056","longitude":"140.532667","source_code":"TH20108246530200070006","project_name":"","survey_name":"\u6e6f\u6ca2\u6a2a\u624b\u5730\u533a\u5730\u8cea\u8abf\u67fb\u696d\u52d9","client_name":"\u56fd\u571f\u4ea4\u901a\u7701 \u6e6f\u6ca2\u6cb3\u5ddd\u56fd\u9053\u4e8b\u52d9\u6240","boring_xml_url":49,"boring_view_url":1,"soilmap_view_url":null,"soiltest_xml_url":0,"soiltest_view_url":0},{"id":241910,"code":"B4KJ201802000-7390","latitude":"39.246028","longitude":"140.532889","source_code":"TH20108246530200070005","project_name":"","survey_name":"\u6e6f\u6ca2\u6a2a\u624b\u5730\u533a\u5730\u8cea\u8abf\u67fb\u696d\u52d9","client_name":"\u56fd\u571f\u4ea4\u901a\u7701 \u6e6f\u6ca2\u6cb3\u5ddd\u56fd\u9053\u4e8b\u52d9\u6240","boring_xml_url":49,"boring_view_url":1,"soilmap_view_url":null,"soiltest_xml_url":0,"soiltest_view_url":0},{"id":241909,"code":"B4KJ201802000-7389","latitude":"39.181361","longitude":"140.495833","source_code":"TH20108246530200070004","project_name":"","survey_name":"\u6e6f\u6ca2\u6a2a\u624b\u5730\u533a\u5730\u8cea\u8abf\u67fb\u696d\u52d9","client_name":"\u56fd\u571f\u4ea4\u901a\u7701 \u6e6f\u6ca2\u6cb3\u5ddd\u56fd\u9053\u4e8b\u52d9\u6240","boring_xml_url":49,"boring_view_url":1,"soilmap_view_url":null,"soiltest_xml_url":0,"soiltest_view_url":0},{"id":241908,"code":"B4KJ201802000-7388","latitude":"39.181361","longitude":"140.496139","source_code":"TH20108246530200070003","project_name":"","survey_name":"\u6e6f\u6ca2\u6a2a\u624b\u5730\u533a\u5730\u8cea\u8abf\u67fb\u696d\u52d9","client_name":"\u56fd\u571f\u4ea4\u901a\u7701 \u6e6f\u6ca2\u6cb3\u5ddd\u56fd\u9053\u4e8b\u52d9\u6240","boring_xml_url":49,"boring_view_url":1,"soilmap_view_url":null,"soiltest_xml_url":0,"soiltest_view_url":0},{"id":241907,"code":"B4KJ201802000-7387","latitude":"39.094722","longitude":"140.477917","source_code":"TH20108246530200070002","project_name":"","survey_name":"\u6e6f\u6ca2\u6a2a\u624b\u5730\u533a\u5730\u8cea\u8abf\u67fb\u696d\u52d9","client_name":"\u56fd\u571f\u4ea4\u901a\u7701 \u6e6f\u6ca2\u6cb3\u5ddd\u56fd\u9053\u4e8b\u52d9\u6240","boring_xml_url":49,"boring_view_url":1,"soilmap_view_url":null,"soiltest_xml_url":0,"soiltest_view_url":0},{"id":241906,"code":"B4KJ201802000-7386","latitude":"39.088833","longitude":"140.474722","source_code":"TH20108246530200070001","project_name":"","survey_name":"\u6e6f\u6ca2\u6a2a\u624b\u5730\u533a\u5730\u8cea\u8abf\u67fb\u696d\u52d9","client_name":"\u56fd\u571f\u4ea4\u901a\u7701 \u6e6f\u6ca2\u6cb3\u5ddd\u56fd\u9053\u4e8b\u52d9\u6240","boring_xml_url":49,"boring_view_url":1,"soilmap_view_url":null,"soiltest_xml_url":0,"soiltest_view_url":0},{"id":241905,"code":"B4KJ201802000-7385","latitude":"40.889306","longitude":"141.384806","source_code":"TH20118231400200060001","project_name":"\u9ad8\u702c\u5ddd\u5e73\u6cbc\u5730\u533a\u8010\u9707\u8a3a\u65ad\u696d\u52d9","survey_name":"\u9ad8\u702c\u5ddd\u5e73\u6cbc\u5730\u533a\u8010\u9707\u8a3a\u65ad\u696d\u52d9","client_name":"\u56fd\u571f\u4ea4\u901a\u7701\u6771\u5317\u5730\u65b9\u6574\u5099\u5c40\u9ad8\u702c\u5ddd\u6cb3\u5ddd\u4e8b\u52d9\u6240","boring_xml_url":49,"boring_view_url":1,"soilmap_view_url":null,"soiltest_xml_url":0,"soiltest_view_url":0},{"id":241904,"code":"B4KJ201802000-7384","latitude":"40.786472","longitude":"140.266361","source_code":"TH20118230610200240003","project_name":"","survey_name":"\u6d25\u8efd\u5730\u533a\u5730\u8cea\u8abf\u67fb","client_name":"\u56fd\u571f\u4ea4\u901a\u7701\u6771\u5317\u5730\u65b9\u6574\u5099\u5c40\u9752\u68ee\u6cb3\u5ddd\u56fd\u9053\u4e8b\u52d9\u6240","boring_xml_url":49,"boring_view_url":1,"soilmap_view_url":null,"soiltest_xml_url":49,"soiltest_view_url":48}]}}