{"header":{"xyz":{"source":[],"mosaic":false},"page":2958,"raw":{"soiltest_result":"0","bbox":"57.598333,109.544722,1.933333,163.806111","page":"2958"},"conditions":{"soiltest_result":0,"north":57.598333,"west":109.544722,"south":1.933333,"east":163.806111},"success":true,"message":""},"data":{"meta":{"total":212844,"page":2958,"pages":7095,"count":30},"values":[{"id":241813,"code":"B4KJ201802000-7293","latitude":"40.64875","longitude":"141.353861","source_code":"TH20108230410200040001","project_name":"\u5e73\u621022\u5e74\u5ea6 \u4e0a\u5317\u9053\u8def\u8a73\u7d30\u8a2d\u8a08\u696d\u52d9","survey_name":"\u5e73\u621022\u5e74\u5ea6 \u4e0a\u5317\u9053\u8def\u8a73\u7d30\u8a2d\u8a08\u696d\u52d9","client_name":"\u56fd\u571f\u4ea4\u901a\u7701\u6771\u5317\u5730\u65b9\u6574\u5099\u5c40 \u9752\u68ee\u6cb3\u5ddd\u56fd\u9053\u4e8b\u52d9\u6240","boring_xml_url":49,"boring_view_url":1,"soilmap_view_url":null,"soiltest_xml_url":0,"soiltest_view_url":0},{"id":241812,"code":"B4KJ201802000-7292","latitude":"40.798972","longitude":"140.434417","source_code":"TH20108230400200170002","project_name":"","survey_name":"\u5e73\u621022\u5e74\u5ea6 \u5ca9\u6728\u5ddd\u7ba1\u5185\u6a0b\u9580\u7b49\u6e2c\u91cf\u8a2d\u8a08\u696d\u52d9","client_name":"\u56fd\u571f\u4ea4\u901a\u7701 \u6771\u5317\u5730\u65b9\u6574\u5099\u5c40 \u9752\u68ee\u6cb3\u5ddd\u56fd\u9053\u4e8b\u52d9\u6240","boring_xml_url":49,"boring_view_url":1,"soilmap_view_url":null,"soiltest_xml_url":49,"soiltest_view_url":48},{"id":241811,"code":"B4KJ201802000-7291","latitude":"40.798861","longitude":"140.43475","source_code":"TH20108230400200170001","project_name":"","survey_name":"\u5e73\u621022\u5e74\u5ea6 \u5ca9\u6728\u5ddd\u7ba1\u5185\u6a0b\u9580\u7b49\u6e2c\u91cf\u8a2d\u8a08\u696d\u52d9","client_name":"\u56fd\u571f\u4ea4\u901a\u7701 \u6771\u5317\u5730\u65b9\u6574\u5099\u5c40 \u9752\u68ee\u6cb3\u5ddd\u56fd\u9053\u4e8b\u52d9\u6240","boring_xml_url":49,"boring_view_url":1,"soilmap_view_url":null,"soiltest_xml_url":0,"soiltest_view_url":0},{"id":241810,"code":"B4KJ201802000-7290","latitude":"37.636667","longitude":"139.89","source_code":"TH20108267400200100005","project_name":"","survey_name":"\u5e73\u621022\u5e74\u5ea6 \u4f1a\u6d25\u7ba1\u5185\u5730\u8cea\u8abf\u67fb\u696d\u52d9","client_name":"\u56fd\u571f\u4ea4\u901a\u7701\u6771\u5317\u5730\u65b9\u6574\u5099\u5c40\u90e1\u5c71\u56fd\u9053\u4e8b\u52d9\u6240","boring_xml_url":49,"boring_view_url":1,"soilmap_view_url":null,"soiltest_xml_url":0,"soiltest_view_url":0},{"id":241809,"code":"B4KJ201802000-7289","latitude":"37.6375","longitude":"139.889722","source_code":"TH20108267400200100004","project_name":"","survey_name":"\u5e73\u621022\u5e74\u5ea6 \u4f1a\u6d25\u7ba1\u5185\u5730\u8cea\u8abf\u67fb\u696d\u52d9","client_name":"\u56fd\u571f\u4ea4\u901a\u7701\u6771\u5317\u5730\u65b9\u6574\u5099\u5c40\u90e1\u5c71\u56fd\u9053\u4e8b\u52d9\u6240","boring_xml_url":49,"boring_view_url":1,"soilmap_view_url":null,"soiltest_xml_url":0,"soiltest_view_url":0},{"id":241808,"code":"B4KJ201802000-7288","latitude":"37.536111","longitude":"140.098889","source_code":"TH20108267400200100003","project_name":"","survey_name":"\u5e73\u621022\u5e74\u5ea6 \u4f1a\u6d25\u7ba1\u5185\u5730\u8cea\u8abf\u67fb\u696d\u52d9","client_name":"\u56fd\u571f\u4ea4\u901a\u7701\u6771\u5317\u5730\u65b9\u6574\u5099\u5c40\u90e1\u5c71\u56fd\u9053\u4e8b\u52d9\u6240","boring_xml_url":49,"boring_view_url":1,"soilmap_view_url":null,"soiltest_xml_url":0,"soiltest_view_url":0},{"id":241807,"code":"B4KJ201802000-7287","latitude":"37.536111","longitude":"140.099444","source_code":"TH20108267400200100002","project_name":"","survey_name":"\u5e73\u621022\u5e74\u5ea6 \u4f1a\u6d25\u7ba1\u5185\u5730\u8cea\u8abf\u67fb\u696d\u52d9","client_name":"\u56fd\u571f\u4ea4\u901a\u7701\u6771\u5317\u5730\u65b9\u6574\u5099\u5c40\u90e1\u5c71\u56fd\u9053\u4e8b\u52d9\u6240","boring_xml_url":49,"boring_view_url":1,"soilmap_view_url":null,"soiltest_xml_url":0,"soiltest_view_url":0},{"id":241806,"code":"B4KJ201802000-7286","latitude":"37.536111","longitude":"140.099722","source_code":"TH20108267400200100001","project_name":"","survey_name":"\u5e73\u621022\u5e74\u5ea6 \u4f1a\u6d25\u7ba1\u5185\u5730\u8cea\u8abf\u67fb\u696d\u52d9","client_name":"\u56fd\u571f\u4ea4\u901a\u7701\u6771\u5317\u5730\u65b9\u6574\u5099\u5c40\u90e1\u5c71\u56fd\u9053\u4e8b\u52d9\u6240","boring_xml_url":49,"boring_view_url":1,"soilmap_view_url":null,"soiltest_xml_url":0,"soiltest_view_url":0},{"id":241805,"code":"B4KJ201802000-7285","latitude":"40.7205","longitude":"141.290944","source_code":"TH20108231400200030002","project_name":"","survey_name":"\u9ad8\u702c\u5ddd\u5824\u9632\u6d78\u900f\u8abf\u67fb\u696d\u52d9","client_name":"\u6771\u5317\u5730\u65b9\u6574\u5099\u5c40\u9ad8\u702c\u5ddd\u6cb3\u5ddd\u4e8b\u52d9\u6240","boring_xml_url":49,"boring_view_url":1,"soilmap_view_url":null,"soiltest_xml_url":0,"soiltest_view_url":0},{"id":241804,"code":"B4KJ201802000-7284","latitude":"40.7205","longitude":"141.290972","source_code":"TH20108231400200030001","project_name":"","survey_name":"\u9ad8\u702c\u5ddd\u5824\u9632\u6d78\u900f\u8abf\u67fb\u696d\u52d9","client_name":"\u6771\u5317\u5730\u65b9\u6574\u5099\u5c40\u9ad8\u702c\u5ddd\u6cb3\u5ddd\u4e8b\u52d9\u6240","boring_xml_url":49,"boring_view_url":1,"soilmap_view_url":null,"soiltest_xml_url":0,"soiltest_view_url":0},{"id":241803,"code":"B4KJ201802000-7283","latitude":"40.732083","longitude":"141.212278","source_code":"TH20108230610200240014","project_name":"\u5e73\u621022\u5e74\u5ea6 \u5927\u6d66\u5730\u533a\u5730\u8cea\u8abf\u67fb","survey_name":"\u5e73\u621022\u5e74\u5ea6 \u5927\u6d66\u5730\u533a\u5730\u8cea\u8abf\u67fb","client_name":"\u56fd\u571f\u4ea4\u901a\u7701 \u6771\u5317\u5730\u65b9\u6574\u5099\u5c40 \u9752\u68ee\u6cb3\u5ddd\u56fd\u9053\u4e8b\u52d9\u6240","boring_xml_url":49,"boring_view_url":1,"soilmap_view_url":null,"soiltest_xml_url":49,"soiltest_view_url":48},{"id":241802,"code":"B4KJ201802000-7282","latitude":"40.716528","longitude":"141.238472","source_code":"TH20108230610200240013","project_name":"\u5e73\u621022\u5e74\u5ea6 \u5927\u6d66\u5730\u533a\u5730\u8cea\u8abf\u67fb","survey_name":"\u5e73\u621022\u5e74\u5ea6 \u5927\u6d66\u5730\u533a\u5730\u8cea\u8abf\u67fb","client_name":"\u56fd\u571f\u4ea4\u901a\u7701 \u6771\u5317\u5730\u65b9\u6574\u5099\u5c40 \u9752\u68ee\u6cb3\u5ddd\u56fd\u9053\u4e8b\u52d9\u6240","boring_xml_url":49,"boring_view_url":1,"soilmap_view_url":null,"soiltest_xml_url":0,"soiltest_view_url":0},{"id":241801,"code":"B4KJ201802000-7281","latitude":"40.730167","longitude":"141.217833","source_code":"TH20108230610200240012","project_name":"\u5e73\u621022\u5e74\u5ea6 \u5927\u6d66\u5730\u533a\u5730\u8cea\u8abf\u67fb","survey_name":"\u5e73\u621022\u5e74\u5ea6 \u5927\u6d66\u5730\u533a\u5730\u8cea\u8abf\u67fb","client_name":"\u56fd\u571f\u4ea4\u901a\u7701 \u6771\u5317\u5730\u65b9\u6574\u5099\u5c40 \u9752\u68ee\u6cb3\u5ddd\u56fd\u9053\u4e8b\u52d9\u6240","boring_xml_url":49,"boring_view_url":1,"soilmap_view_url":null,"soiltest_xml_url":49,"soiltest_view_url":48},{"id":241800,"code":"B4KJ201802000-7280","latitude":"40.725833","longitude":"141.226944","source_code":"TH20108230610200240011","project_name":"\u5e73\u621022\u5e74\u5ea6 \u5927\u6d66\u5730\u533a\u5730\u8cea\u8abf\u67fb","survey_name":"\u5e73\u621022\u5e74\u5ea6 \u5927\u6d66\u5730\u533a\u5730\u8cea\u8abf\u67fb","client_name":"\u56fd\u571f\u4ea4\u901a\u7701 \u6771\u5317\u5730\u65b9\u6574\u5099\u5c40 \u9752\u68ee\u6cb3\u5ddd\u56fd\u9053\u4e8b\u52d9\u6240","boring_xml_url":49,"boring_view_url":1,"soilmap_view_url":null,"soiltest_xml_url":49,"soiltest_view_url":48},{"id":241799,"code":"B4KJ201802000-7279","latitude":"40.724667","longitude":"141.22875","source_code":"TH20108230610200240010","project_name":"\u5e73\u621022\u5e74\u5ea6 \u5927\u6d66\u5730\u533a\u5730\u8cea\u8abf\u67fb","survey_name":"\u5e73\u621022\u5e74\u5ea6 \u5927\u6d66\u5730\u533a\u5730\u8cea\u8abf\u67fb","client_name":"\u56fd\u571f\u4ea4\u901a\u7701 \u6771\u5317\u5730\u65b9\u6574\u5099\u5c40 \u9752\u68ee\u6cb3\u5ddd\u56fd\u9053\u4e8b\u52d9\u6240","boring_xml_url":49,"boring_view_url":1,"soilmap_view_url":null,"soiltest_xml_url":0,"soiltest_view_url":0},{"id":241798,"code":"B4KJ201802000-7278","latitude":"40.716472","longitude":"141.237861","source_code":"TH20108230610200240009","project_name":"\u5e73\u621022\u5e74\u5ea6 \u5927\u6d66\u5730\u533a\u5730\u8cea\u8abf\u67fb","survey_name":"\u5e73\u621022\u5e74\u5ea6 \u5927\u6d66\u5730\u533a\u5730\u8cea\u8abf\u67fb","client_name":"\u56fd\u571f\u4ea4\u901a\u7701 \u6771\u5317\u5730\u65b9\u6574\u5099\u5c40 \u9752\u68ee\u6cb3\u5ddd\u56fd\u9053\u4e8b\u52d9\u6240","boring_xml_url":49,"boring_view_url":1,"soilmap_view_url":null,"soiltest_xml_url":0,"soiltest_view_url":0},{"id":241797,"code":"B4KJ201802000-7277","latitude":"40.712528","longitude":"141.241222","source_code":"TH20108230610200240008","project_name":"\u5e73\u621022\u5e74\u5ea6 \u5927\u6d66\u5730\u533a\u5730\u8cea\u8abf\u67fb","survey_name":"\u5e73\u621022\u5e74\u5ea6 \u5927\u6d66\u5730\u533a\u5730\u8cea\u8abf\u67fb","client_name":"\u56fd\u571f\u4ea4\u901a\u7701 \u6771\u5317\u5730\u65b9\u6574\u5099\u5c40 \u9752\u68ee\u6cb3\u5ddd\u56fd\u9053\u4e8b\u52d9\u6240","boring_xml_url":49,"boring_view_url":1,"soilmap_view_url":null,"soiltest_xml_url":49,"soiltest_view_url":48},{"id":241796,"code":"B4KJ201802000-7276","latitude":"40.702611","longitude":"141.256111","source_code":"TH20108230610200240007","project_name":"\u5e73\u621022\u5e74\u5ea6 \u5927\u6d66\u5730\u533a\u5730\u8cea\u8abf\u67fb","survey_name":"\u5e73\u621022\u5e74\u5ea6 \u5927\u6d66\u5730\u533a\u5730\u8cea\u8abf\u67fb","client_name":"\u56fd\u571f\u4ea4\u901a\u7701 \u6771\u5317\u5730\u65b9\u6574\u5099\u5c40 \u9752\u68ee\u6cb3\u5ddd\u56fd\u9053\u4e8b\u52d9\u6240","boring_xml_url":49,"boring_view_url":1,"soilmap_view_url":null,"soiltest_xml_url":0,"soiltest_view_url":0},{"id":241795,"code":"B4KJ201802000-7275","latitude":"40.700694","longitude":"141.26325","source_code":"TH20108230610200240006","project_name":"\u5e73\u621022\u5e74\u5ea6 \u5927\u6d66\u5730\u533a\u5730\u8cea\u8abf\u67fb","survey_name":"\u5e73\u621022\u5e74\u5ea6 \u5927\u6d66\u5730\u533a\u5730\u8cea\u8abf\u67fb","client_name":"\u56fd\u571f\u4ea4\u901a\u7701 \u6771\u5317\u5730\u65b9\u6574\u5099\u5c40 \u9752\u68ee\u6cb3\u5ddd\u56fd\u9053\u4e8b\u52d9\u6240","boring_xml_url":49,"boring_view_url":1,"soilmap_view_url":null,"soiltest_xml_url":49,"soiltest_view_url":48},{"id":241794,"code":"B4KJ201802000-7274","latitude":"40.699361","longitude":"141.266361","source_code":"TH20108230610200240005","project_name":"\u5e73\u621022\u5e74\u5ea6 \u5927\u6d66\u5730\u533a\u5730\u8cea\u8abf\u67fb","survey_name":"\u5e73\u621022\u5e74\u5ea6 \u5927\u6d66\u5730\u533a\u5730\u8cea\u8abf\u67fb","client_name":"\u56fd\u571f\u4ea4\u901a\u7701 \u6771\u5317\u5730\u65b9\u6574\u5099\u5c40 \u9752\u68ee\u6cb3\u5ddd\u56fd\u9053\u4e8b\u52d9\u6240","boring_xml_url":49,"boring_view_url":1,"soilmap_view_url":null,"soiltest_xml_url":0,"soiltest_view_url":0},{"id":241793,"code":"B4KJ201802000-7273","latitude":"40.699","longitude":"141.267528","source_code":"TH20108230610200240004","project_name":"\u5e73\u621022\u5e74\u5ea6 \u5927\u6d66\u5730\u533a\u5730\u8cea\u8abf\u67fb","survey_name":"\u5e73\u621022\u5e74\u5ea6 \u5927\u6d66\u5730\u533a\u5730\u8cea\u8abf\u67fb","client_name":"\u56fd\u571f\u4ea4\u901a\u7701 \u6771\u5317\u5730\u65b9\u6574\u5099\u5c40 \u9752\u68ee\u6cb3\u5ddd\u56fd\u9053\u4e8b\u52d9\u6240","boring_xml_url":49,"boring_view_url":1,"soilmap_view_url":null,"soiltest_xml_url":0,"soiltest_view_url":0},{"id":241792,"code":"B4KJ201802000-7272","latitude":"40.691806","longitude":"141.275","source_code":"TH20108230610200240003","project_name":"\u5e73\u621022\u5e74\u5ea6 \u5927\u6d66\u5730\u533a\u5730\u8cea\u8abf\u67fb","survey_name":"\u5e73\u621022\u5e74\u5ea6 \u5927\u6d66\u5730\u533a\u5730\u8cea\u8abf\u67fb","client_name":"\u56fd\u571f\u4ea4\u901a\u7701 \u6771\u5317\u5730\u65b9\u6574\u5099\u5c40 \u9752\u68ee\u6cb3\u5ddd\u56fd\u9053\u4e8b\u52d9\u6240","boring_xml_url":49,"boring_view_url":1,"soilmap_view_url":null,"soiltest_xml_url":0,"soiltest_view_url":0},{"id":241791,"code":"B4KJ201802000-7271","latitude":"40.691806","longitude":"141.274972","source_code":"TH20108230610200240002","project_name":"\u5e73\u621022\u5e74\u5ea6 \u5927\u6d66\u5730\u533a\u5730\u8cea\u8abf\u67fb","survey_name":"\u5e73\u621022\u5e74\u5ea6 \u5927\u6d66\u5730\u533a\u5730\u8cea\u8abf\u67fb","client_name":"\u56fd\u571f\u4ea4\u901a\u7701 \u6771\u5317\u5730\u65b9\u6574\u5099\u5c40 \u9752\u68ee\u6cb3\u5ddd\u56fd\u9053\u4e8b\u52d9\u6240","boring_xml_url":49,"boring_view_url":1,"soilmap_view_url":null,"soiltest_xml_url":0,"soiltest_view_url":0},{"id":241790,"code":"B4KJ201802000-7270","latitude":"40.692083","longitude":"141.275417","source_code":"TH20108230610200240001","project_name":"\u5e73\u621022\u5e74\u5ea6 \u5927\u6d66\u5730\u533a\u5730\u8cea\u8abf\u67fb","survey_name":"\u5e73\u621022\u5e74\u5ea6 \u5927\u6d66\u5730\u533a\u5730\u8cea\u8abf\u67fb","client_name":"\u56fd\u571f\u4ea4\u901a\u7701 \u6771\u5317\u5730\u65b9\u6574\u5099\u5c40 \u9752\u68ee\u6cb3\u5ddd\u56fd\u9053\u4e8b\u52d9\u6240","boring_xml_url":49,"boring_view_url":1,"soilmap_view_url":null,"soiltest_xml_url":0,"soiltest_view_url":0},{"id":241789,"code":"B4KJ201802000-7269","latitude":"40.782861","longitude":"140.243722","source_code":"TH20108230610200220007","project_name":"","survey_name":"\u9c3a\u30f6\u6ca2\u5730\u533a\u5730\u8cea\u8abf\u67fb","client_name":"\u56fd\u571f\u4ea4\u901a\u7701 \u6771\u5317\u5730\u65b9\u6574\u5099\u5c40 \u9752\u68ee\u6cb3\u5ddd\u56fd\u9053\u4e8b\u52d9\u6240","boring_xml_url":49,"boring_view_url":1,"soilmap_view_url":null,"soiltest_xml_url":49,"soiltest_view_url":48},{"id":241788,"code":"B4KJ201802000-7268","latitude":"40.782861","longitude":"140.24575","source_code":"TH20108230610200220006","project_name":"","survey_name":"\u9bf5\u30f6\u6ca2\u5730\u533a\u5730\u8cea\u8abf\u67fb","client_name":"\u56fd\u571f\u4ea4\u901a\u7701 \u6771\u5317\u5730\u65b9\u6574\u5099\u5c40 \u9752\u68ee\u6cb3\u5ddd\u56fd\u9053\u4e8b\u52d9\u6240","boring_xml_url":49,"boring_view_url":1,"soilmap_view_url":null,"soiltest_xml_url":0,"soiltest_view_url":0},{"id":241787,"code":"B4KJ201802000-7267","latitude":"40.782667","longitude":"140.246861","source_code":"TH20108230610200220005","project_name":"","survey_name":"\u9c3a\u30f6\u6ca2\u5730\u533a\u5730\u8cea\u8abf\u67fb","client_name":"\u56fd\u571f\u4ea4\u901a\u7701 \u6771\u5317\u5730\u65b9\u6574\u5099\u5c40 \u9752\u68ee\u6cb3\u5ddd\u56fd\u9053\u4e8b\u52d9\u6240","boring_xml_url":49,"boring_view_url":1,"soilmap_view_url":null,"soiltest_xml_url":49,"soiltest_view_url":48},{"id":241786,"code":"B4KJ201802000-7266","latitude":"40.781972","longitude":"140.249972","source_code":"TH20108230610200220004","project_name":"","survey_name":"\u9c3a\u30f6\u6ca2\u5730\u533a\u5730\u8cea\u8abf\u67fb","client_name":"\u56fd\u571f\u4ea4\u901a\u7701 \u6771\u5317\u5730\u65b9\u6574\u5099\u5c40 \u9752\u68ee\u6cb3\u5ddd\u56fd\u9053\u4e8b\u52d9\u6240","boring_xml_url":49,"boring_view_url":1,"soilmap_view_url":null,"soiltest_xml_url":49,"soiltest_view_url":48},{"id":241785,"code":"B4KJ201802000-7265","latitude":"40.781472","longitude":"140.256194","source_code":"TH20108230610200220003","project_name":"","survey_name":"\u9c3a\u30f6\u6ca2\u5730\u533a\u5730\u8cea\u8abf\u67fb","client_name":"\u56fd\u571f\u4ea4\u901a\u7701 \u6771\u5317\u5730\u65b9\u6574\u5099\u5c40 \u9752\u68ee\u6cb3\u5ddd\u56fd\u9053\u4e8b\u52d9\u6240","boring_xml_url":49,"boring_view_url":1,"soilmap_view_url":null,"soiltest_xml_url":49,"soiltest_view_url":48},{"id":241784,"code":"B4KJ201802000-7264","latitude":"40.782194","longitude":"140.25875","source_code":"TH20108230610200220002","project_name":"","survey_name":"\u9bf5\u30f6\u6ca2\u5730\u533a\u5730\u8cea\u8abf\u67fb","client_name":"\u56fd\u571f\u4ea4\u901a\u7701 \u6771\u5317\u5730\u65b9\u6574\u5099\u5c40 \u9752\u68ee\u6cb3\u5ddd\u56fd\u9053\u4e8b\u52d9\u6240","boring_xml_url":49,"boring_view_url":1,"soilmap_view_url":null,"soiltest_xml_url":49,"soiltest_view_url":48}]}}