{"header":{"xyz":{"source":[],"mosaic":false},"page":2960,"raw":{"soiltest_result":"0","bbox":"57.598333,109.544722,1.933333,163.806111","page":"2960"},"conditions":{"soiltest_result":0,"north":57.598333,"west":109.544722,"south":1.933333,"east":163.806111},"success":true,"message":""},"data":{"meta":{"total":212844,"page":2960,"pages":7095,"count":30},"values":[{"id":241753,"code":"B4KJ201802000-7233","latitude":"40.782833","longitude":"140.237778","source_code":"TH20088230610200180008","project_name":"\u5e73\u621020\u5e74\u5ea6 \u9cf4\u6ca2\u5730\u533a\u5730\u8cea\u8abf\u67fb","survey_name":"\u5e73\u621020\u5e74\u5ea6 \u9cf4\u6ca2\u5730\u533a\u5730\u8cea\u8abf\u67fb","client_name":"\u56fd\u571f\u4ea4\u901a\u7701\u6771\u5317\u5730\u65b9\u6574\u5099\u5c40\u9752\u68ee\u6cb3\u5ddd\u56fd\u9053\u4e8b\u52d9\u6240","boring_xml_url":49,"boring_view_url":1,"soilmap_view_url":null,"soiltest_xml_url":49,"soiltest_view_url":48},{"id":241752,"code":"B4KJ201802000-7232","latitude":"40.782722","longitude":"140.237306","source_code":"TH20088230610200180007","project_name":"\u5e73\u621020\u5e74\u5ea6 \u9cf4\u6ca2\u5730\u533a\u5730\u8cea\u8abf\u67fb","survey_name":"\u5e73\u621020\u5e74\u5ea6 \u9cf4\u6ca2\u5730\u533a\u5730\u8cea\u8abf\u67fb","client_name":"\u56fd\u571f\u4ea4\u901a\u7701\u6771\u5317\u5730\u65b9\u6574\u5099\u5c40\u9752\u68ee\u6cb3\u5ddd\u56fd\u9053\u4e8b\u52d9\u6240","boring_xml_url":49,"boring_view_url":1,"soilmap_view_url":null,"soiltest_xml_url":0,"soiltest_view_url":0},{"id":241751,"code":"B4KJ201802000-7231","latitude":"40.782694","longitude":"140.236083","source_code":"TH20088230610200180006","project_name":"\u5e73\u621020\u5e74\u5ea6 \u9cf4\u6ca2\u5730\u533a\u5730\u8cea\u8abf\u67fb","survey_name":"\u5e73\u621020\u5e74\u5ea6 \u9cf4\u6ca2\u5730\u533a\u5730\u8cea\u8abf\u67fb","client_name":"\u56fd\u571f\u4ea4\u901a\u7701\u6771\u5317\u5730\u65b9\u6574\u5099\u5c40\u9752\u68ee\u6cb3\u5ddd\u56fd\u9053\u4e8b\u52d9\u6240","boring_xml_url":49,"boring_view_url":1,"soilmap_view_url":null,"soiltest_xml_url":0,"soiltest_view_url":0},{"id":241750,"code":"B4KJ201802000-7230","latitude":"40.78275","longitude":"140.235472","source_code":"TH20088230610200180005","project_name":"\u5e73\u621020\u5e74\u5ea6 \u9cf4\u6ca2\u5730\u533a\u5730\u8cea\u8abf\u67fb","survey_name":"\u5e73\u621020\u5e74\u5ea6 \u9cf4\u6ca2\u5730\u533a\u5730\u8cea\u8abf\u67fb","client_name":"\u56fd\u571f\u4ea4\u901a\u7701\u6771\u5317\u5730\u65b9\u6574\u5099\u5c40\u9752\u68ee\u6cb3\u5ddd\u56fd\u9053\u4e8b\u52d9\u6240","boring_xml_url":49,"boring_view_url":1,"soilmap_view_url":null,"soiltest_xml_url":49,"soiltest_view_url":48},{"id":241745,"code":"B4KJ201802000-7225","latitude":"40.632472","longitude":"140.471028","source_code":"TH20108230400100020001","project_name":"\u5ca9\u6728\u5ddd\u4e2d\u6d41\u90e8\u5916\u8b77\u5cb8\u5de5\u4e8b","survey_name":"\u5ca9\u6728\u5ddd\u4e2d\u6d41\u90e8\u5916\u8b77\u5cb8\u5de5\u4e8b\u306b\u4f34\u3046\u5730\u8cea\u8abf\u67fb","client_name":"\u56fd\u571f\u4ea4\u901a\u7701\u6771\u5317\u5730\u65b9\u6574\u5099\u5c40\u9752\u68ee\u6cb3\u5ddd\u56fd\u9053\u4e8b\u52d9\u6240","boring_xml_url":49,"boring_view_url":1,"soilmap_view_url":null,"soiltest_xml_url":0,"soiltest_view_url":0},{"id":241744,"code":"B4KJ201802000-7224","latitude":"38.373917","longitude":"140.576583","source_code":"TH60005","project_name":"\u5e73\u621018\u5e74\u5ea6 \u7ba1\u5185\u9632\u707d\u70b9\u691c\u8a2d\u8a08\u696d\u52d9","survey_name":"\u5e73\u621018\u5e74\u5ea6 \u7ba1\u5185\u9632\u707d\u70b9\u691c\u8a2d\u8a08\u696d\u52d9","client_name":"\u56fd\u571f\u4ea4\u901a\u7701\u6771\u5317\u5730\u65b9\u6574\u5099\u5c40 \u4ed9\u53f0\u6cb3\u5ddd\u56fd\u9053\u4e8b\u52d9\u6240","boring_xml_url":34,"boring_view_url":1,"soilmap_view_url":null,"soiltest_xml_url":0,"soiltest_view_url":0},{"id":241743,"code":"B4KJ201802000-7223","latitude":"38.373556","longitude":"140.576389","source_code":"TH60004","project_name":"\u5e73\u621018\u5e74\u5ea6 \u7ba1\u5185\u9632\u707d\u70b9\u691c\u8a2d\u8a08\u696d\u52d9","survey_name":"\u5e73\u621018\u5e74\u5ea6 \u7ba1\u5185\u9632\u707d\u70b9\u691c\u8a2d\u8a08\u696d\u52d9","client_name":"\u56fd\u571f\u4ea4\u901a\u7701\u6771\u5317\u5730\u65b9\u6574\u5099\u5c40 \u4ed9\u53f0\u6cb3\u5ddd\u56fd\u9053\u4e8b\u52d9\u6240","boring_xml_url":34,"boring_view_url":1,"soilmap_view_url":null,"soiltest_xml_url":0,"soiltest_view_url":0},{"id":241742,"code":"B4KJ201802000-7222","latitude":"38.373444","longitude":"140.576639","source_code":"TH60003","project_name":"\u5e73\u621018\u5e74\u5ea6 \u7ba1\u5185\u9632\u707d\u70b9\u691c\u8a2d\u8a08\u696d\u52d9","survey_name":"\u5e73\u621018\u5e74\u5ea6 \u7ba1\u5185\u9632\u707d\u70b9\u691c\u8a2d\u8a08\u696d\u52d9","client_name":"\u56fd\u571f\u4ea4\u901a\u7701\u6771\u5317\u5730\u65b9\u6574\u5099\u5c40 \u4ed9\u53f0\u6cb3\u5ddd\u56fd\u9053\u4e8b\u52d9\u6240","boring_xml_url":34,"boring_view_url":1,"soilmap_view_url":null,"soiltest_xml_url":0,"soiltest_view_url":0},{"id":241741,"code":"B4KJ201802000-7221","latitude":"38.373694","longitude":"140.577111","source_code":"TH60002","project_name":"\u5e73\u621018\u5e74\u5ea6 \u7ba1\u5185\u9632\u707d\u70b9\u691c\u8a2d\u8a08\u696d\u52d9","survey_name":"\u5e73\u621018\u5e74\u5ea6 \u7ba1\u5185\u9632\u707d\u70b9\u691c\u8a2d\u8a08\u696d\u52d9","client_name":"\u56fd\u571f\u4ea4\u901a\u7701\u6771\u5317\u5730\u65b9\u6574\u5099\u5c40 \u4ed9\u53f0\u6cb3\u5ddd\u56fd\u9053\u4e8b\u52d9\u6240","boring_xml_url":34,"boring_view_url":1,"soilmap_view_url":null,"soiltest_xml_url":0,"soiltest_view_url":0},{"id":241740,"code":"B4KJ201802000-7220","latitude":"38.3735","longitude":"140.577972","source_code":"TH60001","project_name":"\u5e73\u621018\u5e74\u5ea6 \u7ba1\u5185\u9632\u707d\u70b9\u691c\u8a2d\u8a08\u696d\u52d9","survey_name":"\u5e73\u621018\u5e74\u5ea6 \u7ba1\u5185\u9632\u707d\u70b9\u691c\u8a2d\u8a08\u696d\u52d9","client_name":"\u56fd\u571f\u4ea4\u901a\u7701\u6771\u5317\u5730\u65b9\u6574\u5099\u5c40 \u4ed9\u53f0\u6cb3\u5ddd\u56fd\u9053\u4e8b\u52d9\u6240","boring_xml_url":34,"boring_view_url":1,"soilmap_view_url":null,"soiltest_xml_url":0,"soiltest_view_url":0},{"id":241739,"code":"B4KJ201802000-7219","latitude":"38.366006","longitude":"140.584644","source_code":"TH20058240540200010009","project_name":"","survey_name":"\u5e73\u621017\u5e74\u5ea6 \u7ba1\u5185\u9632\u707d\u70b9\u691c\u8a2d\u8a08\u696d\u52d9","client_name":"\u56fd\u571f\u4ea4\u901a\u7701\u4ed9\u53f0\u6cb3\u5ddd\u56fd\u9053\u4e8b\u52d9\u6240","boring_xml_url":49,"boring_view_url":1,"soilmap_view_url":null,"soiltest_xml_url":0,"soiltest_view_url":0},{"id":241738,"code":"B4KJ201802000-7218","latitude":"38.07","longitude":"140.7975","source_code":"TH20058240540200010008","project_name":"","survey_name":"\u5e73\u621017\u5e74\u5ea6 \u7ba1\u5185\u9632\u707d\u70b9\u691c\u8a2d\u8a08\u696d\u52d9","client_name":"\u56fd\u571f\u4ea4\u901a\u7701\u4ed9\u53f0\u6cb3\u5ddd\u56fd\u9053\u4e8b\u52d9\u6240","boring_xml_url":49,"boring_view_url":1,"soilmap_view_url":null,"soiltest_xml_url":0,"soiltest_view_url":0},{"id":241737,"code":"B4KJ201802000-7217","latitude":"37.951389","longitude":"140.890556","source_code":"TH20058240540200010007","project_name":"","survey_name":"\u5e73\u621017\u5e74\u5ea6 \u7ba1\u5185\u9632\u707d\u70b9\u691c\u8a2d\u8a08\u696d\u52d9","client_name":"\u56fd\u571f\u4ea4\u901a\u7701\u4ed9\u53f0\u6cb3\u5ddd\u56fd\u9053\u4e8b\u52d9\u6240","boring_xml_url":49,"boring_view_url":1,"soilmap_view_url":null,"soiltest_xml_url":0,"soiltest_view_url":0},{"id":241736,"code":"B4KJ201802000-7216","latitude":"37.987778","longitude":"140.610278","source_code":"TH20058240540200010006","project_name":"","survey_name":"\u5e73\u621017\u5e74\u5ea6 \u7ba1\u5185\u9632\u707d\u70b9\u691c\u8a2d\u8a08\u696d\u52d9","client_name":"\u56fd\u571f\u4ea4\u901a\u7701\u4ed9\u53f0\u6cb3\u5ddd\u56fd\u9053\u4e8b\u52d9\u6240","boring_xml_url":49,"boring_view_url":1,"soilmap_view_url":null,"soiltest_xml_url":0,"soiltest_view_url":0},{"id":241735,"code":"B4KJ201802000-7215","latitude":"37.987778","longitude":"140.610278","source_code":"TH20058240540200010005","project_name":"","survey_name":"\u5e73\u621017\u5e74\u5ea6 \u7ba1\u5185\u9632\u707d\u70b9\u691c\u8a2d\u8a08\u696d\u52d9","client_name":"\u56fd\u571f\u4ea4\u901a\u7701\u4ed9\u53f0\u6cb3\u5ddd\u56fd\u9053\u4e8b\u52d9\u6240","boring_xml_url":49,"boring_view_url":1,"soilmap_view_url":null,"soiltest_xml_url":0,"soiltest_view_url":0},{"id":241734,"code":"B4KJ201802000-7214","latitude":"38.405556","longitude":"141.146667","source_code":"TH20058240540200010004","project_name":"","survey_name":"\u5e73\u621017\u5e74\u5ea6 \u7ba1\u5185\u9632\u707d\u70b9\u691c\u8a2d\u8a08\u696d\u52d9","client_name":"\u56fd\u571f\u4ea4\u901a\u7701\u4ed9\u53f0\u6cb3\u5ddd\u56fd\u9053\u4e8b\u52d9\u6240","boring_xml_url":49,"boring_view_url":1,"soilmap_view_url":null,"soiltest_xml_url":0,"soiltest_view_url":0},{"id":241733,"code":"B4KJ201802000-7213","latitude":"38.739167","longitude":"140.695","source_code":"TH20058240540200010003","project_name":"","survey_name":"\u5e73\u621017\u5e74\u5ea6 \u7ba1\u5185\u9632\u707d\u70b9\u691c\u8a2d\u8a08\u696d\u52d9","client_name":"\u56fd\u571f\u4ea4\u901a\u7701\u4ed9\u53f0\u6cb3\u5ddd\u56fd\u9053\u4e8b\u52d9\u6240","boring_xml_url":49,"boring_view_url":1,"soilmap_view_url":null,"soiltest_xml_url":0,"soiltest_view_url":0},{"id":241732,"code":"B4KJ201802000-7212","latitude":"38.833056","longitude":"141.578056","source_code":"TH20058240540200010002","project_name":"","survey_name":"\u5e73\u621017\u5e74\u5ea6 \u7ba1\u5185\u9632\u707d\u70b9\u691c\u8a2d\u8a08\u696d\u52d9","client_name":"\u56fd\u571f\u4ea4\u901a\u7701\u4ed9\u53f0\u6cb3\u5ddd\u56fd\u9053\u4e8b\u52d9\u6240","boring_xml_url":49,"boring_view_url":1,"soilmap_view_url":null,"soiltest_xml_url":0,"soiltest_view_url":0},{"id":241731,"code":"B4KJ201802000-7211","latitude":"38.645278","longitude":"141.395833","source_code":"TH20058240540200010001","project_name":"","survey_name":"\u5e73\u621017\u5e74\u5ea6 \u7ba1\u5185\u9632\u707d\u70b9\u691c\u8a2d\u8a08\u696d\u52d9","client_name":"\u56fd\u571f\u4ea4\u901a\u7701\u4ed9\u53f0\u6cb3\u5ddd\u56fd\u9053\u4e8b\u52d9\u6240","boring_xml_url":49,"boring_view_url":1,"soilmap_view_url":null,"soiltest_xml_url":0,"soiltest_view_url":0},{"id":241730,"code":"B4KJ201802000-7210","latitude":"38.850639","longitude":"141.096194","source_code":"TH20088240540200180006","project_name":"","survey_name":"\u5e73\u621020\u5e74\u5ea6 \u4ed9\u53f0\u6cb3\u5ddd\u56fd\u9053\u4e8b\u52d9\u6240\u7ba1\u5185\u9632\u96ea\u65bd\u8a2d\u8a2d\u8a08\u696d\u52d9","client_name":"\u56fd\u571f\u4ea4\u901a\u7701\u6771\u5317\u5730\u65b9\u6574\u5099\u5c40\u4ed9\u53f0\u6cb3\u5ddd\u56fd\u9053\u4e8b\u52d9\u6240","boring_xml_url":49,"boring_view_url":1,"soilmap_view_url":null,"soiltest_xml_url":0,"soiltest_view_url":0},{"id":241729,"code":"B4KJ201802000-7209","latitude":"38.802556","longitude":"141.062222","source_code":"TH20088240540200180005","project_name":"","survey_name":"\u5e73\u621020\u5e74\u5ea6 \u4ed9\u53f0\u6cb3\u5ddd\u56fd\u9053\u4e8b\u52d9\u6240\u7ba1\u5185\u9632\u96ea\u65bd\u8a2d\u8a2d\u8a08\u696d\u52d9","client_name":"\u56fd\u571f\u4ea4\u901a\u7701\u6771\u5317\u5730\u65b9\u6574\u5099\u5c40\u4ed9\u53f0\u6cb3\u5ddd\u56fd\u9053\u4e8b\u52d9\u6240","boring_xml_url":49,"boring_view_url":1,"soilmap_view_url":null,"soiltest_xml_url":0,"soiltest_view_url":0},{"id":241728,"code":"B4KJ201802000-7208","latitude":"38.648028","longitude":"141.004056","source_code":"TH20088240540200180004","project_name":"","survey_name":"\u5e73\u621020\u5e74\u5ea6 \u4ed9\u53f0\u6cb3\u5ddd\u56fd\u9053\u4e8b\u52d9\u6240\u7ba1\u5185\u9632\u96ea\u65bd\u8a2d\u8a2d\u8a08\u696d\u52d9","client_name":"\u56fd\u571f\u4ea4\u901a\u7701\u6771\u5317\u5730\u65b9\u6574\u5099\u5c40\u4ed9\u53f0\u6cb3\u5ddd\u56fd\u9053\u4e8b\u52d9\u6240","boring_xml_url":49,"boring_view_url":1,"soilmap_view_url":null,"soiltest_xml_url":0,"soiltest_view_url":0},{"id":241727,"code":"B4KJ201802000-7207","latitude":"38.545028","longitude":"140.950472","source_code":"TH20088240540200180003","project_name":"","survey_name":"\u5e73\u621020\u5e74\u5ea6 \u4ed9\u53f0\u6cb3\u5ddd\u56fd\u9053\u4e8b\u52d9\u6240\u7ba1\u5185\u9632\u96ea\u65bd\u8a2d\u8a2d\u8a08\u696d\u52d9","client_name":"\u56fd\u571f\u4ea4\u901a\u7701\u6771\u5317\u5730\u65b9\u6574\u5099\u5c40\u4ed9\u53f0\u6cb3\u5ddd\u56fd\u9053\u4e8b\u52d9\u6240","boring_xml_url":49,"boring_view_url":1,"soilmap_view_url":null,"soiltest_xml_url":0,"soiltest_view_url":0},{"id":241726,"code":"B4KJ201802000-7206","latitude":"38.528028","longitude":"140.939361","source_code":"TH20088240540200180002","project_name":"","survey_name":"\u5e73\u621020\u5e74\u5ea6 \u4ed9\u53f0\u6cb3\u5ddd\u56fd\u9053\u4e8b\u52d9\u6240\u7ba1\u5185\u9632\u96ea\u65bd\u8a2d\u8a2d\u8a08\u696d\u52d9","client_name":"\u56fd\u571f\u4ea4\u901a\u7701\u6771\u5317\u5730\u65b9\u6574\u5099\u5c40\u4ed9\u53f0\u6cb3\u5ddd\u56fd\u9053\u4e8b\u52d9\u6240","boring_xml_url":49,"boring_view_url":1,"soilmap_view_url":null,"soiltest_xml_url":0,"soiltest_view_url":0},{"id":241725,"code":"B4KJ201802000-7205","latitude":"38.556306","longitude":"141.069667","source_code":"TH20088240540200180001","project_name":"","survey_name":"\u5e73\u621020\u5e74\u5ea6 \u4ed9\u53f0\u6cb3\u5ddd\u56fd\u9053\u4e8b\u52d9\u6240\u7ba1\u5185\u9632\u96ea\u65bd\u8a2d\u8a2d\u8a08\u696d\u52d9","client_name":"\u56fd\u571f\u4ea4\u901a\u7701\u6771\u5317\u5730\u65b9\u6574\u5099\u5c40\u4ed9\u53f0\u6cb3\u5ddd\u56fd\u9053\u4e8b\u52d9\u6240","boring_xml_url":49,"boring_view_url":1,"soilmap_view_url":null,"soiltest_xml_url":0,"soiltest_view_url":0},{"id":241724,"code":"B4KJ201802000-7204","latitude":"38.314028","longitude":"140.974417","source_code":"TH20058240480200150015","project_name":"","survey_name":"\u5e73\u621017\u5e74\u5ea6 \u4ed9\u53f0\u5317\u90e8\u9053\u8def\u5229\u5e9c\u5730\u533a\u5730\u8cea\u8abf\u67fb","client_name":"\u56fd\u571f\u4ea4\u901a\u7701\u6771\u5317\u5730\u65b9\u6574\u5099\u5c40\u4ed9\u53f0\u6cb3\u5ddd\u56fd\u9053\u4e8b\u52d9\u6240","boring_xml_url":49,"boring_view_url":1,"soilmap_view_url":null,"soiltest_xml_url":52,"soiltest_view_url":51},{"id":241723,"code":"B4KJ201802000-7203","latitude":"38.313972","longitude":"140.974861","source_code":"TH20058240480200150014","project_name":"","survey_name":"\u5e73\u621017\u5e74\u5ea6 \u4ed9\u53f0\u5317\u90e8\u9053\u8def\u5229\u5e9c\u5730\u533a\u5730\u8cea\u8abf\u67fb","client_name":"\u56fd\u571f\u4ea4\u901a\u7701\u6771\u5317\u5730\u65b9\u6574\u5099\u5c40\u4ed9\u53f0\u6cb3\u5ddd\u56fd\u9053\u4e8b\u52d9\u6240","boring_xml_url":49,"boring_view_url":1,"soilmap_view_url":null,"soiltest_xml_url":0,"soiltest_view_url":0},{"id":241722,"code":"B4KJ201802000-7202","latitude":"38.313917","longitude":"140.975306","source_code":"TH20058240480200150013","project_name":"","survey_name":"\u5e73\u621017\u5e74\u5ea6 \u4ed9\u53f0\u5317\u90e8\u9053\u8def\u5229\u5e9c\u5730\u533a\u5730\u8cea\u8abf\u67fb","client_name":"\u56fd\u571f\u4ea4\u901a\u7701\u6771\u5317\u5730\u65b9\u6574\u5099\u5c40\u4ed9\u53f0\u6cb3\u5ddd\u56fd\u9053\u4e8b\u52d9\u6240","boring_xml_url":49,"boring_view_url":1,"soilmap_view_url":null,"soiltest_xml_url":52,"soiltest_view_url":51},{"id":241721,"code":"B4KJ201802000-7201","latitude":"38.313861","longitude":"140.97575","source_code":"TH20058240480200150012","project_name":"","survey_name":"\u5e73\u621017\u5e74\u5ea6 \u4ed9\u53f0\u5317\u90e8\u9053\u8def\u5229\u5e9c\u5730\u533a\u5730\u8cea\u8abf\u67fb","client_name":"\u56fd\u571f\u4ea4\u901a\u7701\u6771\u5317\u5730\u65b9\u6574\u5099\u5c40\u4ed9\u53f0\u6cb3\u5ddd\u56fd\u9053\u4e8b\u52d9\u6240","boring_xml_url":49,"boring_view_url":1,"soilmap_view_url":null,"soiltest_xml_url":52,"soiltest_view_url":51},{"id":241720,"code":"B4KJ201802000-7200","latitude":"38.313944","longitude":"140.97675","source_code":"TH20058240480200150011","project_name":"","survey_name":"\u5e73\u621017\u5e74\u5ea6 \u4ed9\u53f0\u5317\u90e8\u9053\u8def\u5229\u5e9c\u5730\u533a\u5730\u8cea\u8abf\u67fb","client_name":"\u56fd\u571f\u4ea4\u901a\u7701\u6771\u5317\u5730\u65b9\u6574\u5099\u5c40\u4ed9\u53f0\u6cb3\u5ddd\u56fd\u9053\u4e8b\u52d9\u6240","boring_xml_url":49,"boring_view_url":1,"soilmap_view_url":null,"soiltest_xml_url":0,"soiltest_view_url":0}]}}