{"header":{"xyz":{"source":[],"mosaic":false},"page":2962,"raw":{"soiltest_result":"0","bbox":"57.598333,109.544722,1.933333,163.806111","page":"2962"},"conditions":{"soiltest_result":0,"north":57.598333,"west":109.544722,"south":1.933333,"east":163.806111},"success":true,"message":""},"data":{"meta":{"total":212844,"page":2962,"pages":7095,"count":30},"values":[{"id":241689,"code":"B4KJ201802000-7169","latitude":"38.702667","longitude":"141.384","source_code":"TH20088240480200150015","project_name":"\u767b\u7c73\u5fd7\u6d25\u5ddd\u9053\u8def\u6c34\u754c\u5730\u533a\u4ed6\u5730\u8cea\u8abf\u67fb","survey_name":"\u767b\u7c73\u5fd7\u6d25\u5ddd\u9053\u8def\u6c34\u754c\u5730\u533a\u4ed6\u5730\u8cea\u8abf\u67fb","client_name":"\u56fd\u571f\u4ea4\u901a\u7701 \u6771\u5317\u5730\u65b9\u6574\u5099\u5c40 \u4ed9\u53f0\u6cb3\u5ddd\u56fd\u9053\u4e8b\u52d9\u6240","boring_xml_url":49,"boring_view_url":1,"soilmap_view_url":null,"soiltest_xml_url":0,"soiltest_view_url":0},{"id":241688,"code":"B4KJ201802000-7168","latitude":"38.701194","longitude":"141.382056","source_code":"TH20088240480200150014","project_name":"\u767b\u7c73\u5fd7\u6d25\u5ddd\u9053\u8def\u6c34\u754c\u5730\u533a\u4ed6\u5730\u8cea\u8abf\u67fb","survey_name":"\u767b\u7c73\u5fd7\u6d25\u5ddd\u9053\u8def\u6c34\u754c\u5730\u533a\u4ed6\u5730\u8cea\u8abf\u67fb","client_name":"\u56fd\u571f\u4ea4\u901a\u7701 \u6771\u5317\u5730\u65b9\u6574\u5099\u5c40 \u4ed9\u53f0\u6cb3\u5ddd\u56fd\u9053\u4e8b\u52d9\u6240","boring_xml_url":49,"boring_view_url":1,"soilmap_view_url":null,"soiltest_xml_url":0,"soiltest_view_url":0},{"id":241687,"code":"B4KJ201802000-7167","latitude":"38.701056","longitude":"141.381972","source_code":"TH20088240480200150013","project_name":"\u767b\u7c73\u5fd7\u6d25\u5ddd\u9053\u8def\u6c34\u754c\u5730\u533a\u4ed6\u5730\u8cea\u8abf\u67fb","survey_name":"\u767b\u7c73\u5fd7\u6d25\u5ddd\u9053\u8def\u6c34\u754c\u5730\u533a\u4ed6\u5730\u8cea\u8abf\u67fb","client_name":"\u56fd\u571f\u4ea4\u901a\u7701 \u6771\u5317\u5730\u65b9\u6574\u5099\u5c40 \u4ed9\u53f0\u6cb3\u5ddd\u56fd\u9053\u4e8b\u52d9\u6240","boring_xml_url":49,"boring_view_url":1,"soilmap_view_url":null,"soiltest_xml_url":0,"soiltest_view_url":0},{"id":241686,"code":"B4KJ201802000-7166","latitude":"38.700472","longitude":"141.380222","source_code":"TH20088240480200150012","project_name":"\u767b\u7c73\u5fd7\u6d25\u5ddd\u9053\u8def\u6c34\u754c\u5730\u533a\u4ed6\u5730\u8cea\u8abf\u67fb","survey_name":"\u767b\u7c73\u5fd7\u6d25\u5ddd\u9053\u8def\u6c34\u754c\u5730\u533a\u4ed6\u5730\u8cea\u8abf\u67fb","client_name":"\u56fd\u571f\u4ea4\u901a\u7701 \u6771\u5317\u5730\u65b9\u6574\u5099\u5c40 \u4ed9\u53f0\u6cb3\u5ddd\u56fd\u9053\u4e8b\u52d9\u6240","boring_xml_url":49,"boring_view_url":1,"soilmap_view_url":null,"soiltest_xml_url":0,"soiltest_view_url":0},{"id":241685,"code":"B4KJ201802000-7165","latitude":"38.701139","longitude":"141.367722","source_code":"TH20088240480200150011","project_name":"\u767b\u7c73\u5fd7\u6d25\u5ddd\u9053\u8def\u6c34\u754c\u5730\u533a\u4ed6\u5730\u8cea\u8abf\u67fb","survey_name":"\u767b\u7c73\u5fd7\u6d25\u5ddd\u9053\u8def\u6c34\u754c\u5730\u533a\u4ed6\u5730\u8cea\u8abf\u67fb","client_name":"\u56fd\u571f\u4ea4\u901a\u7701 \u6771\u5317\u5730\u65b9\u6574\u5099\u5c40 \u4ed9\u53f0\u6cb3\u5ddd\u56fd\u9053\u4e8b\u52d9\u6240","boring_xml_url":49,"boring_view_url":1,"soilmap_view_url":null,"soiltest_xml_url":0,"soiltest_view_url":0},{"id":241684,"code":"B4KJ201802000-7164","latitude":"38.701389","longitude":"141.35925","source_code":"TH20088240480200150010","project_name":"\u767b\u7c73\u5fd7\u6d25\u5ddd\u9053\u8def\u6c34\u754c\u5730\u533a\u4ed6\u5730\u8cea\u8abf\u67fb","survey_name":"\u767b\u7c73\u5fd7\u6d25\u5ddd\u9053\u8def\u6c34\u754c\u5730\u533a\u4ed6\u5730\u8cea\u8abf\u67fb","client_name":"\u56fd\u571f\u4ea4\u901a\u7701 \u6771\u5317\u5730\u65b9\u6574\u5099\u5c40 \u4ed9\u53f0\u6cb3\u5ddd\u56fd\u9053\u4e8b\u52d9\u6240","boring_xml_url":49,"boring_view_url":1,"soilmap_view_url":null,"soiltest_xml_url":0,"soiltest_view_url":0},{"id":241683,"code":"B4KJ201802000-7163","latitude":"38.701389","longitude":"141.357472","source_code":"TH20088240480200150009","project_name":"\u767b\u7c73\u5fd7\u6d25\u5ddd\u9053\u8def\u6c34\u754c\u5730\u533a\u4ed6\u5730\u8cea\u8abf\u67fb","survey_name":"\u767b\u7c73\u5fd7\u6d25\u5ddd\u9053\u8def\u6c34\u754c\u5730\u533a\u4ed6\u5730\u8cea\u8abf\u67fb","client_name":"\u56fd\u571f\u4ea4\u901a\u7701 \u6771\u5317\u5730\u65b9\u6574\u5099\u5c40 \u4ed9\u53f0\u6cb3\u5ddd\u56fd\u9053\u4e8b\u52d9\u6240","boring_xml_url":49,"boring_view_url":1,"soilmap_view_url":null,"soiltest_xml_url":0,"soiltest_view_url":0},{"id":241682,"code":"B4KJ201802000-7162","latitude":"38.701917","longitude":"141.352333","source_code":"TH20088240480200150008","project_name":"\u767b\u7c73\u5fd7\u6d25\u5ddd\u9053\u8def\u6c34\u754c\u5730\u533a\u4ed6\u5730\u8cea\u8abf\u67fb","survey_name":"\u767b\u7c73\u5fd7\u6d25\u5ddd\u9053\u8def\u6c34\u754c\u5730\u533a\u4ed6\u5730\u8cea\u8abf\u67fb","client_name":"\u56fd\u571f\u4ea4\u901a\u7701 \u6771\u5317\u5730\u65b9\u6574\u5099\u5c40 \u4ed9\u53f0\u6cb3\u5ddd\u56fd\u9053\u4e8b\u52d9\u6240","boring_xml_url":49,"boring_view_url":1,"soilmap_view_url":null,"soiltest_xml_url":0,"soiltest_view_url":0},{"id":241681,"code":"B4KJ201802000-7161","latitude":"38.702083","longitude":"141.351917","source_code":"TH20088240480200150007","project_name":"\u767b\u7c73\u5fd7\u6d25\u5ddd\u9053\u8def\u6c34\u754c\u5730\u533a\u4ed6\u5730\u8cea\u8abf\u67fb","survey_name":"\u767b\u7c73\u5fd7\u6d25\u5ddd\u9053\u8def\u6c34\u754c\u5730\u533a\u4ed6\u5730\u8cea\u8abf\u67fb","client_name":"\u56fd\u571f\u4ea4\u901a\u7701 \u6771\u5317\u5730\u65b9\u6574\u5099\u5c40 \u4ed9\u53f0\u6cb3\u5ddd\u56fd\u9053\u4e8b\u52d9\u6240","boring_xml_url":49,"boring_view_url":1,"soilmap_view_url":null,"soiltest_xml_url":0,"soiltest_view_url":0},{"id":241680,"code":"B4KJ201802000-7160","latitude":"38.702778","longitude":"141.351889","source_code":"TH20088240480200150006","project_name":"\u767b\u7c73\u5fd7\u6d25\u5ddd\u9053\u8def\u6c34\u754c\u5730\u533a\u4ed6\u5730\u8cea\u8abf\u67fb","survey_name":"\u767b\u7c73\u5fd7\u6d25\u5ddd\u9053\u8def\u6c34\u754c\u5730\u533a\u4ed6\u5730\u8cea\u8abf\u67fb","client_name":"\u56fd\u571f\u4ea4\u901a\u7701 \u6771\u5317\u5730\u65b9\u6574\u5099\u5c40 \u4ed9\u53f0\u6cb3\u5ddd\u56fd\u9053\u4e8b\u52d9\u6240","boring_xml_url":49,"boring_view_url":1,"soilmap_view_url":null,"soiltest_xml_url":0,"soiltest_view_url":0},{"id":241679,"code":"B4KJ201802000-7159","latitude":"38.702917","longitude":"141.35075","source_code":"TH20088240480200150005","project_name":"\u767b\u7c73\u5fd7\u6d25\u5ddd\u9053\u8def\u6c34\u754c\u5730\u533a\u4ed6\u5730\u8cea\u8abf\u67fb","survey_name":"\u767b\u7c73\u5fd7\u6d25\u5ddd\u9053\u8def\u6c34\u754c\u5730\u533a\u4ed6\u5730\u8cea\u8abf\u67fb","client_name":"\u56fd\u571f\u4ea4\u901a\u7701 \u6771\u5317\u5730\u65b9\u6574\u5099\u5c40 \u4ed9\u53f0\u6cb3\u5ddd\u56fd\u9053\u4e8b\u52d9\u6240","boring_xml_url":49,"boring_view_url":1,"soilmap_view_url":null,"soiltest_xml_url":0,"soiltest_view_url":0},{"id":241678,"code":"B4KJ201802000-7158","latitude":"38.705583","longitude":"141.34775","source_code":"TH20088240480200150004","project_name":"\u767b\u7c73\u5fd7\u6d25\u5ddd\u9053\u8def\u6c34\u754c\u5730\u533a\u4ed6\u5730\u8cea\u8abf\u67fb","survey_name":"\u767b\u7c73\u5fd7\u6d25\u5ddd\u9053\u8def\u6c34\u754c\u5730\u533a\u4ed6\u5730\u8cea\u8abf\u67fb","client_name":"\u56fd\u571f\u4ea4\u901a\u7701 \u6771\u5317\u5730\u65b9\u6574\u5099\u5c40 \u4ed9\u53f0\u6cb3\u5ddd\u56fd\u9053\u4e8b\u52d9\u6240","boring_xml_url":49,"boring_view_url":1,"soilmap_view_url":null,"soiltest_xml_url":0,"soiltest_view_url":0},{"id":241677,"code":"B4KJ201802000-7157","latitude":"38.704417","longitude":"141.343667","source_code":"TH20088240480200150003","project_name":"\u767b\u7c73\u5fd7\u6d25\u5ddd\u9053\u8def\u6c34\u754c\u5730\u533a\u4ed6\u5730\u8cea\u8abf\u67fb","survey_name":"\u767b\u7c73\u5fd7\u6d25\u5ddd\u9053\u8def\u6c34\u754c\u5730\u533a\u4ed6\u5730\u8cea\u8abf\u67fb","client_name":"\u56fd\u571f\u4ea4\u901a\u7701 \u6771\u5317\u5730\u65b9\u6574\u5099\u5c40 \u4ed9\u53f0\u6cb3\u5ddd\u56fd\u9053\u4e8b\u52d9\u6240","boring_xml_url":49,"boring_view_url":1,"soilmap_view_url":null,"soiltest_xml_url":0,"soiltest_view_url":0},{"id":241676,"code":"B4KJ201802000-7156","latitude":"38.704472","longitude":"141.343167","source_code":"TH20088240480200150002","project_name":"\u767b\u7c73\u5fd7\u6d25\u5ddd\u9053\u8def\u6c34\u754c\u5730\u533a\u4ed6\u5730\u8cea\u8abf\u67fb","survey_name":"\u767b\u7c73\u5fd7\u6d25\u5ddd\u9053\u8def\u6c34\u754c\u5730\u533a\u4ed6\u5730\u8cea\u8abf\u67fb","client_name":"\u56fd\u571f\u4ea4\u901a\u7701 \u6771\u5317\u5730\u65b9\u6574\u5099\u5c40 \u4ed9\u53f0\u6cb3\u5ddd\u56fd\u9053\u4e8b\u52d9\u6240","boring_xml_url":49,"boring_view_url":1,"soilmap_view_url":null,"soiltest_xml_url":0,"soiltest_view_url":0},{"id":241675,"code":"B4KJ201802000-7155","latitude":"38.70425","longitude":"141.338444","source_code":"TH20088240480200150001","project_name":"\u767b\u7c73\u5fd7\u6d25\u5ddd\u9053\u8def\u6c34\u754c\u5730\u533a\u4ed6\u5730\u8cea\u8abf\u67fb","survey_name":"\u767b\u7c73\u5fd7\u6d25\u5ddd\u9053\u8def\u6c34\u754c\u5730\u533a\u4ed6\u5730\u8cea\u8abf\u67fb","client_name":"\u56fd\u571f\u4ea4\u901a\u7701 \u6771\u5317\u5730\u65b9\u6574\u5099\u5c40 \u4ed9\u53f0\u6cb3\u5ddd\u56fd\u9053\u4e8b\u52d9\u6240","boring_xml_url":49,"boring_view_url":1,"soilmap_view_url":null,"soiltest_xml_url":0,"soiltest_view_url":0},{"id":241674,"code":"B4KJ201802000-7154","latitude":"39.118972","longitude":"140.152389","source_code":"TH20058250600200090002","project_name":"\u5e73\u621017\u5e74\u5ea6 \u9ce5\u6d77\u30c0\u30e0\u5730\u8cea\u8abf\u67fb","survey_name":"\u5e73\u621017\u5e74\u5ea6 \u9ce5\u6d77\u30c0\u30e0\u5730\u8cea\u8abf\u67fb","client_name":"\u56fd\u571f\u4ea4\u901a\u7701\u6771\u5317\u5730\u65b9\u6574\u5099\u5c40\u9ce5\u6d77\u30c0\u30e0\u8abf\u67fb\u4e8b\u52d9\u6240","boring_xml_url":49,"boring_view_url":1,"soilmap_view_url":null,"soiltest_xml_url":0,"soiltest_view_url":0},{"id":241673,"code":"B4KJ201802000-7153","latitude":"39.125611","longitude":"140.155389","source_code":"TH20058250600200090001","project_name":"\u5e73\u621017\u5e74\u5ea6 \u9ce5\u6d77\u30c0\u30e0\u5730\u8cea\u8abf\u67fb","survey_name":"\u5e73\u621017\u5e74\u5ea6 \u9ce5\u6d77\u30c0\u30e0\u5730\u8cea\u8abf\u67fb","client_name":"\u56fd\u571f\u4ea4\u901a\u7701\u6771\u5317\u5730\u65b9\u6574\u5099\u5c40\u9ce5\u6d77\u30c0\u30e0\u8abf\u67fb\u4e8b\u52d9\u6240","boring_xml_url":49,"boring_view_url":1,"soilmap_view_url":null,"soiltest_xml_url":0,"soiltest_view_url":0},{"id":241672,"code":"B4KJ201802000-7152","latitude":"38.691611","longitude":"141.464833","source_code":"TH20088240610200480019","project_name":"\u5357\u4e09\u9678\u9053\u8def","survey_name":"\u5e73\u621020\u5e74\u5ea6 \u5357\u4e09\u9678\u5730\u533a\u5730\u8cea\u8abf\u67fb","client_name":"\u56fd\u571f\u4ea4\u901a\u7701\u6771\u5317\u5730\u65b9\u6574\u5099\u5c40\u4ed9\u53f0\u6cb3\u5ddd\u56fd\u9053\u4e8b\u52d9\u6240","boring_xml_url":49,"boring_view_url":1,"soilmap_view_url":null,"soiltest_xml_url":52,"soiltest_view_url":51},{"id":241671,"code":"B4KJ201802000-7151","latitude":"38.692917","longitude":"141.462611","source_code":"TH20088240610200480018","project_name":"\u5357\u4e09\u9678\u9053\u8def","survey_name":"\u5e73\u621020\u5e74\u5ea6 \u5357\u4e09\u9678\u5730\u533a\u5730\u8cea\u8abf\u67fb","client_name":"\u56fd\u571f\u4ea4\u901a\u7701\u6771\u5317\u5730\u65b9\u6574\u5099\u5c40\u4ed9\u53f0\u6cb3\u5ddd\u56fd\u9053\u4e8b\u52d9\u6240","boring_xml_url":49,"boring_view_url":1,"soilmap_view_url":null,"soiltest_xml_url":52,"soiltest_view_url":51},{"id":241670,"code":"B4KJ201802000-7150","latitude":"38.690722","longitude":"141.459472","source_code":"TH20088240610200480017","project_name":"\u5357\u4e09\u9678\u9053\u8def","survey_name":"\u5e73\u621020\u5e74\u5ea6 \u5357\u4e09\u9678\u5730\u533a\u5730\u8cea\u8abf\u67fb","client_name":"\u56fd\u571f\u4ea4\u901a\u7701\u6771\u5317\u5730\u65b9\u6574\u5099\u5c40\u4ed9\u53f0\u6cb3\u5ddd\u56fd\u9053\u4e8b\u52d9\u6240","boring_xml_url":49,"boring_view_url":1,"soilmap_view_url":null,"soiltest_xml_url":0,"soiltest_view_url":0},{"id":241669,"code":"B4KJ201802000-7149","latitude":"38.690444","longitude":"141.458944","source_code":"TH20088240610200480016","project_name":"\u5357\u4e09\u9678\u9053\u8def","survey_name":"\u5e73\u621020\u5e74\u5ea6 \u5357\u4e09\u9678\u5730\u533a\u5730\u8cea\u8abf\u67fb","client_name":"\u56fd\u571f\u4ea4\u901a\u7701\u6771\u5317\u5730\u65b9\u6574\u5099\u5c40\u4ed9\u53f0\u6cb3\u5ddd\u56fd\u9053\u4e8b\u52d9\u6240","boring_xml_url":49,"boring_view_url":1,"soilmap_view_url":null,"soiltest_xml_url":0,"soiltest_view_url":0},{"id":241668,"code":"B4KJ201802000-7148","latitude":"38.689861","longitude":"141.457778","source_code":"TH20088240610200480015","project_name":"\u5357\u4e09\u9678\u9053\u8def","survey_name":"\u5e73\u621020\u5e74\u5ea6 \u5357\u4e09\u9678\u5730\u533a\u5730\u8cea\u8abf\u67fb","client_name":"\u56fd\u571f\u4ea4\u901a\u7701\u6771\u5317\u5730\u65b9\u6574\u5099\u5c40\u4ed9\u53f0\u6cb3\u5ddd\u56fd\u9053\u4e8b\u52d9\u6240","boring_xml_url":49,"boring_view_url":1,"soilmap_view_url":null,"soiltest_xml_url":0,"soiltest_view_url":0},{"id":241667,"code":"B4KJ201802000-7147","latitude":"38.689667","longitude":"141.457278","source_code":"TH20088240610200480014","project_name":"\u5357\u4e09\u9678\u9053\u8def","survey_name":"\u5e73\u621020\u5e74\u5ea6 \u5357\u4e09\u9678\u5730\u533a\u5730\u8cea\u8abf\u67fb","client_name":"\u56fd\u571f\u4ea4\u901a\u7701\u6771\u5317\u5730\u65b9\u6574\u5099\u5c40\u4ed9\u53f0\u6cb3\u5ddd\u56fd\u9053\u4e8b\u52d9\u6240","boring_xml_url":49,"boring_view_url":1,"soilmap_view_url":null,"soiltest_xml_url":0,"soiltest_view_url":0},{"id":241666,"code":"B4KJ201802000-7146","latitude":"38.689028","longitude":"141.455167","source_code":"TH20088240610200480013","project_name":"\u5357\u4e09\u9678\u9053\u8def","survey_name":"\u5e73\u621020\u5e74\u5ea6 \u5357\u4e09\u9678\u5730\u533a\u5730\u8cea\u8abf\u67fb","client_name":"\u56fd\u571f\u4ea4\u901a\u7701\u6771\u5317\u5730\u65b9\u6574\u5099\u5c40\u4ed9\u53f0\u6cb3\u5ddd\u56fd\u9053\u4e8b\u52d9\u6240","boring_xml_url":49,"boring_view_url":1,"soilmap_view_url":null,"soiltest_xml_url":0,"soiltest_view_url":0},{"id":241665,"code":"B4KJ201802000-7145","latitude":"38.688694","longitude":"141.453472","source_code":"TH20088240610200480012","project_name":"\u5357\u4e09\u9678\u9053\u8def","survey_name":"\u5e73\u621020\u5e74\u5ea6 \u5357\u4e09\u9678\u5730\u533a\u5730\u8cea\u8abf\u67fb","client_name":"\u56fd\u571f\u4ea4\u901a\u7701\u6771\u5317\u5730\u65b9\u6574\u5099\u5c40\u4ed9\u53f0\u6cb3\u5ddd\u56fd\u9053\u4e8b\u52d9\u6240","boring_xml_url":49,"boring_view_url":1,"soilmap_view_url":null,"soiltest_xml_url":0,"soiltest_view_url":0},{"id":241664,"code":"B4KJ201802000-7144","latitude":"38.688667","longitude":"141.451278","source_code":"TH20088240610200480011","project_name":"\u5357\u4e09\u9678\u9053\u8def","survey_name":"\u5e73\u621020\u5e74\u5ea6 \u5357\u4e09\u9678\u5730\u533a\u5730\u8cea\u8abf\u67fb","client_name":"\u56fd\u571f\u4ea4\u901a\u7701\u6771\u5317\u5730\u65b9\u6574\u5099\u5c40\u4ed9\u53f0\u6cb3\u5ddd\u56fd\u9053\u4e8b\u52d9\u6240","boring_xml_url":49,"boring_view_url":1,"soilmap_view_url":null,"soiltest_xml_url":0,"soiltest_view_url":0},{"id":241663,"code":"B4KJ201802000-7143","latitude":"38.688556","longitude":"141.448472","source_code":"TH20088240610200480010","project_name":"\u5357\u4e09\u9678\u9053\u8def","survey_name":"\u5e73\u621020\u5e74\u5ea6 \u5357\u4e09\u9678\u5730\u533a\u5730\u8cea\u8abf\u67fb","client_name":"\u56fd\u571f\u4ea4\u901a\u7701\u6771\u5317\u5730\u65b9\u6574\u5099\u5c40\u4ed9\u53f0\u6cb3\u5ddd\u56fd\u9053\u4e8b\u52d9\u6240","boring_xml_url":49,"boring_view_url":1,"soilmap_view_url":null,"soiltest_xml_url":0,"soiltest_view_url":0},{"id":241662,"code":"B4KJ201802000-7142","latitude":"38.688528","longitude":"141.447194","source_code":"TH20088240610200480009","project_name":"\u5357\u4e09\u9678\u9053\u8def","survey_name":"\u5e73\u621020\u5e74\u5ea6 \u5357\u4e09\u9678\u5730\u533a\u5730\u8cea\u8abf\u67fb","client_name":"\u56fd\u571f\u4ea4\u901a\u7701\u6771\u5317\u5730\u65b9\u6574\u5099\u5c40\u4ed9\u53f0\u6cb3\u5ddd\u56fd\u9053\u4e8b\u52d9\u6240","boring_xml_url":49,"boring_view_url":1,"soilmap_view_url":null,"soiltest_xml_url":0,"soiltest_view_url":0},{"id":241661,"code":"B4KJ201802000-7141","latitude":"38.688556","longitude":"141.441833","source_code":"TH20088240610200480008","project_name":"\u5357\u4e09\u9678\u9053\u8def","survey_name":"\u5e73\u621020\u5e74\u5ea6 \u5357\u4e09\u9678\u5730\u533a\u5730\u8cea\u8abf\u67fb","client_name":"\u56fd\u571f\u4ea4\u901a\u7701\u6771\u5317\u5730\u65b9\u6574\u5099\u5c40\u4ed9\u53f0\u6cb3\u5ddd\u56fd\u9053\u4e8b\u52d9\u6240","boring_xml_url":49,"boring_view_url":1,"soilmap_view_url":null,"soiltest_xml_url":0,"soiltest_view_url":0},{"id":241660,"code":"B4KJ201802000-7140","latitude":"38.688556","longitude":"141.440194","source_code":"TH20088240610200480007","project_name":"\u5357\u4e09\u9678\u9053\u8def","survey_name":"\u5e73\u621020\u5e74\u5ea6 \u5357\u4e09\u9678\u5730\u533a\u5730\u8cea\u8abf\u67fb","client_name":"\u56fd\u571f\u4ea4\u901a\u7701\u6771\u5317\u5730\u65b9\u6574\u5099\u5c40\u4ed9\u53f0\u6cb3\u5ddd\u56fd\u9053\u4e8b\u52d9\u6240","boring_xml_url":49,"boring_view_url":1,"soilmap_view_url":null,"soiltest_xml_url":0,"soiltest_view_url":0}]}}