{"header":{"xyz":{"source":[],"mosaic":false},"page":2971,"raw":{"soiltest_result":"0","bbox":"57.598333,109.544722,1.933333,163.806111","page":"2971"},"conditions":{"soiltest_result":0,"north":57.598333,"west":109.544722,"south":1.933333,"east":163.806111},"success":true,"message":""},"data":{"meta":{"total":212844,"page":2971,"pages":7095,"count":30},"values":[{"id":241419,"code":"B4KJ201802000-6899","latitude":"39.596667","longitude":"141.194444","source_code":"TH20078235600200090015","project_name":"","survey_name":"\u76db\u5ca1\u7ba1\u5185\u5824\u9632\u6d78\u900f\u306b\u95a2\u3059\u308b\u8abf\u67fb\u696d\u52d9","client_name":"\u56fd\u571f\u4ea4\u901a\u7701\u6771\u5317\u5730\u65b9\u6574\u5099\u5c40\u5ca9\u624b\u6cb3\u5ddd\u56fd\u9053\u4e8b\u52d9\u6240","boring_xml_url":49,"boring_view_url":1,"soilmap_view_url":null,"soiltest_xml_url":52,"soiltest_view_url":51},{"id":241418,"code":"B4KJ201802000-6898","latitude":"39.596667","longitude":"141.194722","source_code":"TH20078235600200090014","project_name":"","survey_name":"\u76db\u5ca1\u7ba1\u5185\u5824\u9632\u6d78\u900f\u306b\u95a2\u3059\u308b\u8abf\u67fb\u696d\u52d9","client_name":"\u56fd\u571f\u4ea4\u901a\u7701\u6771\u5317\u5730\u65b9\u6574\u5099\u5c40\u5ca9\u624b\u6cb3\u5ddd\u56fd\u9053\u4e8b\u52d9\u6240","boring_xml_url":49,"boring_view_url":1,"soilmap_view_url":null,"soiltest_xml_url":52,"soiltest_view_url":51},{"id":241417,"code":"B4KJ201802000-6897","latitude":"39.595833","longitude":"141.194722","source_code":"TH20078235600200090013","project_name":"","survey_name":"\u76db\u5ca1\u7ba1\u5185\u5824\u9632\u6d78\u900f\u306b\u95a2\u3059\u308b\u8abf\u67fb\u696d\u52d9","client_name":"\u56fd\u571f\u4ea4\u901a\u7701\u6771\u5317\u5730\u65b9\u6574\u5099\u5c40\u5ca9\u624b\u6cb3\u5ddd\u56fd\u9053\u4e8b\u52d9\u6240","boring_xml_url":49,"boring_view_url":1,"soilmap_view_url":null,"soiltest_xml_url":52,"soiltest_view_url":51},{"id":241416,"code":"B4KJ201802000-6896","latitude":"39.592778","longitude":"141.193611","source_code":"TH20078235600200090012","project_name":"","survey_name":"\u76db\u5ca1\u7ba1\u5185\u5824\u9632\u6d78\u900f\u306b\u95a2\u3059\u308b\u8abf\u67fb\u696d\u52d9","client_name":"\u56fd\u571f\u4ea4\u901a\u7701\u6771\u5317\u5730\u65b9\u6574\u5099\u5c40\u5ca9\u624b\u6cb3\u5ddd\u56fd\u9053\u4e8b\u52d9\u6240","boring_xml_url":49,"boring_view_url":1,"soilmap_view_url":null,"soiltest_xml_url":52,"soiltest_view_url":51},{"id":241415,"code":"B4KJ201802000-6895","latitude":"39.592778","longitude":"141.193889","source_code":"TH20078235600200090011","project_name":"","survey_name":"\u76db\u5ca1\u7ba1\u5185\u5824\u9632\u6d78\u900f\u306b\u95a2\u3059\u308b\u8abf\u67fb\u696d\u52d9","client_name":"\u56fd\u571f\u4ea4\u901a\u7701\u6771\u5317\u5730\u65b9\u6574\u5099\u5c40\u5ca9\u624b\u6cb3\u5ddd\u56fd\u9053\u4e8b\u52d9\u6240","boring_xml_url":49,"boring_view_url":1,"soilmap_view_url":null,"soiltest_xml_url":52,"soiltest_view_url":51},{"id":241414,"code":"B4KJ201802000-6894","latitude":"39.557222","longitude":"141.173889","source_code":"TH20078235600200090010","project_name":"","survey_name":"\u76db\u5ca1\u7ba1\u5185\u5824\u9632\u6d78\u900f\u306b\u95a2\u3059\u308b\u8abf\u67fb\u696d\u52d9","client_name":"\u56fd\u571f\u4ea4\u901a\u7701\u6771\u5317\u5730\u65b9\u6574\u5099\u5c40\u5ca9\u624b\u6cb3\u5ddd\u56fd\u9053\u4e8b\u52d9\u6240","boring_xml_url":49,"boring_view_url":1,"soilmap_view_url":null,"soiltest_xml_url":52,"soiltest_view_url":51},{"id":241413,"code":"B4KJ201802000-6893","latitude":"39.557222","longitude":"141.174167","source_code":"TH20078235600200090009","project_name":"","survey_name":"\u76db\u5ca1\u7ba1\u5185\u5824\u9632\u6d78\u900f\u306b\u95a2\u3059\u308b\u8abf\u67fb\u696d\u52d9","client_name":"\u56fd\u571f\u4ea4\u901a\u7701\u6771\u5317\u5730\u65b9\u6574\u5099\u5c40\u5ca9\u624b\u6cb3\u5ddd\u56fd\u9053\u4e8b\u52d9\u6240","boring_xml_url":49,"boring_view_url":1,"soilmap_view_url":null,"soiltest_xml_url":52,"soiltest_view_url":51},{"id":241412,"code":"B4KJ201802000-6892","latitude":"39.608333","longitude":"141.191944","source_code":"TH20078235600200090008","project_name":"","survey_name":"\u76db\u5ca1\u7ba1\u5185\u5824\u9632\u6d78\u900f\u306b\u95a2\u3059\u308b\u8abf\u67fb\u696d\u52d9","client_name":"\u56fd\u571f\u4ea4\u901a\u7701\u6771\u5317\u5730\u65b9\u6574\u5099\u5c40\u5ca9\u624b\u6cb3\u5ddd\u56fd\u9053\u4e8b\u52d9\u6240","boring_xml_url":49,"boring_view_url":1,"soilmap_view_url":null,"soiltest_xml_url":52,"soiltest_view_url":51},{"id":241411,"code":"B4KJ201802000-6891","latitude":"39.608056","longitude":"141.191667","source_code":"TH20078235600200090007","project_name":"","survey_name":"\u76db\u5ca1\u7ba1\u5185\u5824\u9632\u6d78\u900f\u306b\u95a2\u3059\u308b\u8abf\u67fb\u696d\u52d9","client_name":"\u56fd\u571f\u4ea4\u901a\u7701\u6771\u5317\u5730\u65b9\u6574\u5099\u5c40\u5ca9\u624b\u6cb3\u5ddd\u56fd\u9053\u4e8b\u52d9\u6240","boring_xml_url":49,"boring_view_url":1,"soilmap_view_url":null,"soiltest_xml_url":52,"soiltest_view_url":51},{"id":241410,"code":"B4KJ201802000-6890","latitude":"39.583611","longitude":"141.185833","source_code":"TH20078235600200090006","project_name":"","survey_name":"\u76db\u5ca1\u7ba1\u5185\u5824\u9632\u6d78\u900f\u306b\u95a2\u3059\u308b\u8abf\u67fb\u696d\u52d9","client_name":"\u56fd\u571f\u4ea4\u901a\u7701\u6771\u5317\u5730\u65b9\u6574\u5099\u5c40\u5ca9\u624b\u6cb3\u5ddd\u56fd\u9053\u4e8b\u52d9\u6240","boring_xml_url":49,"boring_view_url":1,"soilmap_view_url":null,"soiltest_xml_url":52,"soiltest_view_url":51},{"id":241409,"code":"B4KJ201802000-6889","latitude":"39.583611","longitude":"141.185556","source_code":"TH20078235600200090005","project_name":"","survey_name":"\u76db\u5ca1\u7ba1\u5185\u5824\u9632\u6d78\u900f\u306b\u95a2\u3059\u308b\u8abf\u67fb\u696d\u52d9","client_name":"\u56fd\u571f\u4ea4\u901a\u7701\u6771\u5317\u5730\u65b9\u6574\u5099\u5c40\u5ca9\u624b\u6cb3\u5ddd\u56fd\u9053\u4e8b\u52d9\u6240","boring_xml_url":49,"boring_view_url":1,"soilmap_view_url":null,"soiltest_xml_url":52,"soiltest_view_url":51},{"id":241408,"code":"B4KJ201802000-6888","latitude":"39.578611","longitude":"141.180833","source_code":"TH20078235600200090004","project_name":"","survey_name":"\u76db\u5ca1\u7ba1\u5185\u5824\u9632\u6d78\u900f\u306b\u95a2\u3059\u308b\u8abf\u67fb\u696d\u52d9","client_name":"\u56fd\u571f\u4ea4\u901a\u7701\u6771\u5317\u5730\u65b9\u6574\u5099\u5c40\u5ca9\u624b\u6cb3\u5ddd\u56fd\u9053\u4e8b\u52d9\u6240","boring_xml_url":49,"boring_view_url":1,"soilmap_view_url":null,"soiltest_xml_url":52,"soiltest_view_url":51},{"id":241407,"code":"B4KJ201802000-6887","latitude":"39.578611","longitude":"141.180556","source_code":"TH20078235600200090003","project_name":"","survey_name":"\u76db\u5ca1\u7ba1\u5185\u5824\u9632\u6d78\u900f\u306b\u95a2\u3059\u308b\u8abf\u67fb\u696d\u52d9","client_name":"\u56fd\u571f\u4ea4\u901a\u7701\u6771\u5317\u5730\u65b9\u6574\u5099\u5c40\u5ca9\u624b\u6cb3\u5ddd\u56fd\u9053\u4e8b\u52d9\u6240","boring_xml_url":49,"boring_view_url":1,"soilmap_view_url":null,"soiltest_xml_url":52,"soiltest_view_url":51},{"id":241406,"code":"B4KJ201802000-6886","latitude":"39.528889","longitude":"141.177222","source_code":"TH20078235600200090002","project_name":"","survey_name":"\u76db\u5ca1\u7ba1\u5185\u5824\u9632\u6d78\u900f\u306b\u95a2\u3059\u308b\u8abf\u67fb\u696d\u52d9","client_name":"\u56fd\u571f\u4ea4\u901a\u7701\u6771\u5317\u5730\u65b9\u6574\u5099\u5c40\u5ca9\u624b\u6cb3\u5ddd\u56fd\u9053\u4e8b\u52d9\u6240","boring_xml_url":49,"boring_view_url":1,"soilmap_view_url":null,"soiltest_xml_url":52,"soiltest_view_url":51},{"id":241405,"code":"B4KJ201802000-6885","latitude":"39.528611","longitude":"141.176944","source_code":"TH20078235600200090001","project_name":"","survey_name":"\u76db\u5ca1\u7ba1\u5185\u5824\u9632\u6d78\u900f\u306b\u95a2\u3059\u308b\u8abf\u67fb\u696d\u52d9","client_name":"\u56fd\u571f\u4ea4\u901a\u7701\u6771\u5317\u5730\u65b9\u6574\u5099\u5c40\u5ca9\u624b\u6cb3\u5ddd\u56fd\u9053\u4e8b\u52d9\u6240","boring_xml_url":49,"boring_view_url":1,"soilmap_view_url":null,"soiltest_xml_url":52,"soiltest_view_url":51},{"id":241404,"code":"B4KJ201802000-6884","latitude":"39.143611","longitude":"141.175","source_code":"TH20078235600200080019","project_name":"","survey_name":"\u6c34\u6ca2\u7ba1\u5185\u5824\u9632\u6d78\u900f\u306b\u95a2\u3059\u308b\u8abf\u67fb\u696d\u52d9","client_name":"\u56fd\u571f\u4ea4\u901a\u7701\u6771\u5317\u5730\u65b9\u6574\u5099\u5c40\u5ca9\u624b\u6cb3\u5ddd\u56fd\u9053\u4e8b\u52d9\u6240","boring_xml_url":49,"boring_view_url":1,"soilmap_view_url":null,"soiltest_xml_url":0,"soiltest_view_url":0},{"id":241403,"code":"B4KJ201802000-6883","latitude":"39.1425","longitude":"141.175556","source_code":"TH20078235600200080018","project_name":"","survey_name":"\u6c34\u6ca2\u7ba1\u5185\u5824\u9632\u6d78\u900f\u306b\u95a2\u3059\u308b\u8abf\u67fb\u696d\u52d9","client_name":"\u56fd\u571f\u4ea4\u901a\u7701\u6771\u5317\u5730\u65b9\u6574\u5099\u5c40\u5ca9\u624b\u6cb3\u5ddd\u56fd\u9053\u4e8b\u52d9\u6240","boring_xml_url":49,"boring_view_url":1,"soilmap_view_url":null,"soiltest_xml_url":0,"soiltest_view_url":0},{"id":241402,"code":"B4KJ201802000-6882","latitude":"39.143056","longitude":"141.176389","source_code":"TH20078235600200080017","project_name":"","survey_name":"\u6c34\u6ca2\u7ba1\u5185\u5824\u9632\u6d78\u900f\u306b\u95a2\u3059\u308b\u8abf\u67fb\u696d\u52d9","client_name":"\u56fd\u571f\u4ea4\u901a\u7701\u6771\u5317\u5730\u65b9\u6574\u5099\u5c40\u5ca9\u624b\u6cb3\u5ddd\u56fd\u9053\u4e8b\u52d9\u6240","boring_xml_url":49,"boring_view_url":1,"soilmap_view_url":null,"soiltest_xml_url":0,"soiltest_view_url":0},{"id":241401,"code":"B4KJ201802000-6881","latitude":"39.077778","longitude":"141.174444","source_code":"TH20078235600200080016","project_name":"","survey_name":"\u6c34\u6ca2\u7ba1\u5185\u5824\u9632\u6d78\u900f\u306b\u95a2\u3059\u308b\u8abf\u67fb\u696d\u52d9","client_name":"\u56fd\u571f\u4ea4\u901a\u7701\u6771\u5317\u5730\u65b9\u6574\u5099\u5c40\u5ca9\u624b\u6cb3\u5ddd\u56fd\u9053\u4e8b\u52d9\u6240","boring_xml_url":49,"boring_view_url":1,"soilmap_view_url":null,"soiltest_xml_url":0,"soiltest_view_url":0},{"id":241400,"code":"B4KJ201802000-6880","latitude":"39.076111","longitude":"141.171667","source_code":"TH20078235600200080015","project_name":"","survey_name":"\u6c34\u6ca2\u7ba1\u5185\u5824\u9632\u6d78\u900f\u306b\u95a2\u3059\u308b\u8abf\u67fb\u696d\u52d9","client_name":"\u56fd\u571f\u4ea4\u901a\u7701\u6771\u5317\u5730\u65b9\u6574\u5099\u5c40\u5ca9\u624b\u6cb3\u5ddd\u56fd\u9053\u4e8b\u52d9\u6240","boring_xml_url":49,"boring_view_url":1,"soilmap_view_url":null,"soiltest_xml_url":0,"soiltest_view_url":0},{"id":241399,"code":"B4KJ201802000-6879","latitude":"39.075556","longitude":"141.168333","source_code":"TH20078235600200080014","project_name":"","survey_name":"\u6c34\u6ca2\u7ba1\u5185\u5824\u9632\u6d78\u900f\u306b\u95a2\u3059\u308b\u8abf\u67fb\u696d\u52d9","client_name":"\u56fd\u571f\u4ea4\u901a\u7701\u6771\u5317\u5730\u65b9\u6574\u5099\u5c40\u5ca9\u624b\u6cb3\u5ddd\u56fd\u9053\u4e8b\u52d9\u6240","boring_xml_url":49,"boring_view_url":1,"soilmap_view_url":null,"soiltest_xml_url":0,"soiltest_view_url":0},{"id":241398,"code":"B4KJ201802000-6878","latitude":"39.381389","longitude":"141.123056","source_code":"TH20078235600200080013","project_name":"","survey_name":"\u6c34\u6ca2\u7ba1\u5185\u5824\u9632\u6d78\u900f\u306b\u95a2\u3059\u308b\u8abf\u67fb\u696d\u52d9","client_name":"\u56fd\u571f\u4ea4\u901a\u7701\u6771\u5317\u5730\u65b9\u6574\u5099\u5c40\u5ca9\u624b\u6cb3\u5ddd\u56fd\u9053\u4e8b\u52d9\u6240","boring_xml_url":49,"boring_view_url":1,"soilmap_view_url":null,"soiltest_xml_url":52,"soiltest_view_url":51},{"id":241397,"code":"B4KJ201802000-6877","latitude":"39.148889","longitude":"141.182778","source_code":"TH20078235600200080012","project_name":"","survey_name":"\u6c34\u6ca2\u7ba1\u5185\u5824\u9632\u6d78\u900f\u306b\u95a2\u3059\u308b\u8abf\u67fb\u696d\u52d9","client_name":"\u56fd\u571f\u4ea4\u901a\u7701\u6771\u5317\u5730\u65b9\u6574\u5099\u5c40\u5ca9\u624b\u6cb3\u5ddd\u56fd\u9053\u4e8b\u52d9\u6240","boring_xml_url":49,"boring_view_url":1,"soilmap_view_url":null,"soiltest_xml_url":52,"soiltest_view_url":51},{"id":241396,"code":"B4KJ201802000-6876","latitude":"39.149167","longitude":"141.179722","source_code":"TH20078235600200080011","project_name":"","survey_name":"\u6c34\u6ca2\u7ba1\u5185\u5824\u9632\u6d78\u900f\u306b\u95a2\u3059\u308b\u8abf\u67fb\u696d\u52d9","client_name":"\u56fd\u571f\u4ea4\u901a\u7701\u6771\u5317\u5730\u65b9\u6574\u5099\u5c40\u5ca9\u624b\u6cb3\u5ddd\u56fd\u9053\u4e8b\u52d9\u6240","boring_xml_url":49,"boring_view_url":1,"soilmap_view_url":null,"soiltest_xml_url":52,"soiltest_view_url":51},{"id":241395,"code":"B4KJ201802000-6875","latitude":"39.215833","longitude":"141.124722","source_code":"TH20078235600200080010","project_name":"","survey_name":"\u6c34\u6ca2\u7ba1\u5185\u5824\u9632\u6d78\u900f\u306b\u95a2\u3059\u308b\u8abf\u67fb\u696d\u52d9","client_name":"\u56fd\u571f\u4ea4\u901a\u7701\u6771\u5317\u5730\u65b9\u6574\u5099\u5c40\u5ca9\u624b\u6cb3\u5ddd\u56fd\u9053\u4e8b\u52d9\u6240","boring_xml_url":49,"boring_view_url":1,"soilmap_view_url":null,"soiltest_xml_url":52,"soiltest_view_url":51},{"id":241394,"code":"B4KJ201802000-6874","latitude":"39.216111","longitude":"141.125","source_code":"TH20078235600200080009","project_name":"","survey_name":"\u6c34\u6ca2\u7ba1\u5185\u5824\u9632\u6d78\u900f\u306b\u95a2\u3059\u308b\u8abf\u67fb\u696d\u52d9","client_name":"\u56fd\u571f\u4ea4\u901a\u7701\u6771\u5317\u5730\u65b9\u6574\u5099\u5c40\u5ca9\u624b\u6cb3\u5ddd\u56fd\u9053\u4e8b\u52d9\u6240","boring_xml_url":49,"boring_view_url":1,"soilmap_view_url":null,"soiltest_xml_url":52,"soiltest_view_url":51},{"id":241393,"code":"B4KJ201802000-6873","latitude":"39.126667","longitude":"141.176111","source_code":"TH20078235600200080008","project_name":"","survey_name":"\u6c34\u6ca2\u7ba1\u5185\u5824\u9632\u6d78\u900f\u306b\u95a2\u3059\u308b\u8abf\u67fb\u696d\u52d9","client_name":"\u56fd\u571f\u4ea4\u901a\u7701\u6771\u5317\u5730\u65b9\u6574\u5099\u5c40\u5ca9\u624b\u6cb3\u5ddd\u56fd\u9053\u4e8b\u52d9\u6240","boring_xml_url":49,"boring_view_url":1,"soilmap_view_url":null,"soiltest_xml_url":52,"soiltest_view_url":51},{"id":241392,"code":"B4KJ201802000-6872","latitude":"39.126667","longitude":"141.176389","source_code":"TH20078235600200080007","project_name":"","survey_name":"\u6c34\u6ca2\u7ba1\u5185\u5824\u9632\u6d78\u900f\u306b\u95a2\u3059\u308b\u8abf\u67fb\u696d\u52d9","client_name":"\u56fd\u571f\u4ea4\u901a\u7701\u6771\u5317\u5730\u65b9\u6574\u5099\u5c40\u5ca9\u624b\u6cb3\u5ddd\u56fd\u9053\u4e8b\u52d9\u6240","boring_xml_url":49,"boring_view_url":1,"soilmap_view_url":null,"soiltest_xml_url":52,"soiltest_view_url":51},{"id":241391,"code":"B4KJ201802000-6871","latitude":"39.112778","longitude":"141.178889","source_code":"TH20078235600200080006","project_name":"","survey_name":"\u6c34\u6ca2\u7ba1\u5185\u5824\u9632\u6d78\u900f\u306b\u95a2\u3059\u308b\u8abf\u67fb\u696d\u52d9","client_name":"\u56fd\u571f\u4ea4\u901a\u7701\u6771\u5317\u5730\u65b9\u6574\u5099\u5c40\u5ca9\u624b\u6cb3\u5ddd\u56fd\u9053\u4e8b\u52d9\u6240","boring_xml_url":49,"boring_view_url":1,"soilmap_view_url":null,"soiltest_xml_url":52,"soiltest_view_url":51},{"id":241390,"code":"B4KJ201802000-6870","latitude":"39.112778","longitude":"141.179167","source_code":"TH20078235600200080005","project_name":"","survey_name":"\u6c34\u6ca2\u7ba1\u5185\u5824\u9632\u6d78\u900f\u306b\u95a2\u3059\u308b\u8abf\u67fb\u696d\u52d9","client_name":"\u56fd\u571f\u4ea4\u901a\u7701\u6771\u5317\u5730\u65b9\u6574\u5099\u5c40\u5ca9\u624b\u6cb3\u5ddd\u56fd\u9053\u4e8b\u52d9\u6240","boring_xml_url":49,"boring_view_url":1,"soilmap_view_url":null,"soiltest_xml_url":52,"soiltest_view_url":51}]}}