{"header":{"xyz":{"source":[],"mosaic":false},"page":2977,"raw":{"soiltest_result":"0","bbox":"57.598333,109.544722,1.933333,163.806111","page":"2977"},"conditions":{"soiltest_result":0,"north":57.598333,"west":109.544722,"south":1.933333,"east":163.806111},"success":true,"message":""},"data":{"meta":{"total":212844,"page":2977,"pages":7095,"count":30},"values":[{"id":241239,"code":"B4KJ201802000-6719","latitude":"40.306389","longitude":"140.571222","source_code":"TH20068247620200080005","project_name":"\u5e73\u621018\u5e74\u5ea6 \u5927\u9928\u897f\u9053\u8def(\u91c8\u8fe6\u5185\u5730\u533a)\u5730\u8cea\u8abf\u67fb\u696d\u52d9","survey_name":"\u5e73\u621018\u5e74\u5ea6 \u5927\u9928\u897f\u9053\u8def(\u91c8\u8fe6\u5185\u5730\u533a)\u5730\u8cea\u8abf\u67fb\u696d\u52d9","client_name":"\u56fd\u571f\u4ea4\u901a\u7701 \u80fd\u4ee3\u6cb3\u5ddd\u56fd\u9053\u4e8b\u52d9\u6240","boring_xml_url":49,"boring_view_url":1,"soilmap_view_url":null,"soiltest_xml_url":52,"soiltest_view_url":51},{"id":241238,"code":"B4KJ201802000-6718","latitude":"40.30575","longitude":"140.569639","source_code":"TH20068247620200080004","project_name":"\u5e73\u621018\u5e74\u5ea6 \u5927\u9928\u897f\u9053\u8def(\u91c8\u8fe6\u5185\u5730\u533a)\u5730\u8cea\u8abf\u67fb\u696d\u52d9","survey_name":"\u5e73\u621018\u5e74\u5ea6 \u5927\u9928\u897f\u9053\u8def(\u91c8\u8fe6\u5185\u5730\u533a)\u5730\u8cea\u8abf\u67fb\u696d\u52d9","client_name":"\u56fd\u571f\u4ea4\u901a\u7701 \u80fd\u4ee3\u6cb3\u5ddd\u56fd\u9053\u4e8b\u52d9\u6240","boring_xml_url":49,"boring_view_url":1,"soilmap_view_url":null,"soiltest_xml_url":52,"soiltest_view_url":51},{"id":241237,"code":"B4KJ201802000-6717","latitude":"40.303917","longitude":"140.564444","source_code":"TH20068247620200080003","project_name":"\u5e73\u621018\u5e74\u5ea6 \u5927\u9928\u897f\u9053\u8def(\u91c8\u8fe6\u5185\u5730\u533a)\u5730\u8cea\u8abf\u67fb\u696d\u52d9","survey_name":"\u5e73\u621018\u5e74\u5ea6 \u5927\u9928\u897f\u9053\u8def(\u91c8\u8fe6\u5185\u5730\u533a)\u5730\u8cea\u8abf\u67fb\u696d\u52d9","client_name":"\u56fd\u571f\u4ea4\u901a\u7701 \u80fd\u4ee3\u6cb3\u5ddd\u56fd\u9053\u4e8b\u52d9\u6240","boring_xml_url":49,"boring_view_url":1,"soilmap_view_url":null,"soiltest_xml_url":52,"soiltest_view_url":51},{"id":241236,"code":"B4KJ201802000-6716","latitude":"40.303694","longitude":"140.563861","source_code":"TH20068247620200080002","project_name":"\u5e73\u621018\u5e74\u5ea6 \u5927\u9928\u897f\u9053\u8def(\u91c8\u8fe6\u5185\u5730\u533a)\u5730\u8cea\u8abf\u67fb\u696d\u52d9","survey_name":"\u5e73\u621018\u5e74\u5ea6 \u5927\u9928\u897f\u9053\u8def(\u91c8\u8fe6\u5185\u5730\u533a)\u5730\u8cea\u8abf\u67fb\u696d\u52d9","client_name":"\u56fd\u571f\u4ea4\u901a\u7701 \u80fd\u4ee3\u6cb3\u5ddd\u56fd\u9053\u4e8b\u52d9\u6240","boring_xml_url":49,"boring_view_url":1,"soilmap_view_url":null,"soiltest_xml_url":52,"soiltest_view_url":51},{"id":241235,"code":"B4KJ201802000-6715","latitude":"40.3035","longitude":"140.563222","source_code":"TH20068247620200080001","project_name":"\u5e73\u621018\u5e74\u5ea6 \u5927\u9928\u897f\u9053\u8def(\u91c8\u8fe6\u5185\u5730\u533a)\u5730\u8cea\u8abf\u67fb\u696d\u52d9","survey_name":"\u5e73\u621018\u5e74\u5ea6 \u5927\u9928\u897f\u9053\u8def(\u91c8\u8fe6\u5185\u5730\u533a)\u5730\u8cea\u8abf\u67fb\u696d\u52d9","client_name":"\u56fd\u571f\u4ea4\u901a\u7701 \u80fd\u4ee3\u6cb3\u5ddd\u56fd\u9053\u4e8b\u52d9\u6240","boring_xml_url":49,"boring_view_url":1,"soilmap_view_url":null,"soiltest_xml_url":52,"soiltest_view_url":51},{"id":241234,"code":"B4KJ201802000-6714","latitude":"39.516083","longitude":"140.377694","source_code":"TH8246530200180003","project_name":"\u5e73\u621018\u5e74\u5ea6 \u7ba1\u5185\u6cd5\u9762\u5de5\u7b49\u8a2d\u8a08\u696d\u52d9(\u5927\u66f2\u5730\u533a)","survey_name":"\u5e73\u621018\u5e74\u5ea6 \u7ba1\u5185\u6cd5\u9762\u5de5\u7b49\u8a2d\u8a08\u696d\u52d9(\u5927\u66f2\u5730\u533a)","client_name":"\u56fd\u571f\u4ea4\u901a\u7701 \u6771\u5317\u5730\u65b9\u6574\u5099\u5c40 \u6e6f\u6ca2\u6cb3\u5ddd\u56fd\u9053\u4e8b\u52d9\u6240","boring_xml_url":45,"boring_view_url":1,"soilmap_view_url":null,"soiltest_xml_url":0,"soiltest_view_url":0},{"id":241233,"code":"B4KJ201802000-6713","latitude":"39.050333","longitude":"140.409028","source_code":"TH8246530200180002","project_name":"\u5e73\u621018\u5e74\u5ea6 \u7ba1\u5185\u6cd5\u9762\u5de5\u7b49\u8a2d\u8a08\u696d\u52d9","survey_name":"\u5e73\u621018\u5e74\u5ea6 \u7ba1\u5185\u6cd5\u9762\u5de5\u7b49\u8a2d\u8a08\u696d\u52d9","client_name":"\u56fd\u571f\u4ea4\u901a\u7701 \u6771\u5317\u5730\u65b9\u6574\u5099\u5c40 \u6e6f\u6ca2\u6cb3\u5ddd\u56fd\u9053\u4e8b\u52d9\u6240","boring_xml_url":45,"boring_view_url":1,"soilmap_view_url":null,"soiltest_xml_url":0,"soiltest_view_url":0},{"id":241232,"code":"B4KJ201802000-6712","latitude":"39.050417","longitude":"140.409056","source_code":"TH8246530200180001","project_name":"\u5e73\u621018\u5e74\u5ea6 \u7ba1\u5185\u6cd5\u9762\u5de5\u7b49\u8a2d\u8a08\u696d\u52d9","survey_name":"\u5e73\u621018\u5e74\u5ea6 \u7ba1\u5185\u6cd5\u9762\u5de5\u7b49\u8a2d\u8a08\u696d\u52d9","client_name":"\u56fd\u571f\u4ea4\u901a\u7701 \u6771\u5317\u5730\u65b9\u6574\u5099\u5c40 \u6e6f\u6ca2\u6cb3\u5ddd\u56fd\u9053\u4e8b\u52d9\u6240","boring_xml_url":45,"boring_view_url":1,"soilmap_view_url":null,"soiltest_xml_url":0,"soiltest_view_url":0},{"id":241231,"code":"B4KJ201802000-6711","latitude":"39.559722","longitude":"140.352778","source_code":"TH20068246530200130002","project_name":"","survey_name":"\u7ba1\u5185\u9632\u707d\u70b9\u691c\u696d\u52d9","client_name":"\u56fd\u571f\u4ea4\u901a\u7701\u6771\u5317\u5730\u65b9\u6574\u5099\u5c40\u6e6f\u6ca2\u6cb3\u5ddd\u56fd\u9053\u4e8b\u52d9\u6240","boring_xml_url":49,"boring_view_url":1,"soilmap_view_url":null,"soiltest_xml_url":0,"soiltest_view_url":0},{"id":241230,"code":"B4KJ201802000-6710","latitude":"39.561111","longitude":"140.349444","source_code":"TH20068246530200130001","project_name":"","survey_name":"\u7ba1\u5185\u9632\u707d\u70b9\u691c\u696d\u52d9","client_name":"\u56fd\u571f\u4ea4\u901a\u7701\u6771\u5317\u5730\u65b9\u6574\u5099\u5c40\u6e6f\u6ca2\u6cb3\u5ddd\u56fd\u9053\u4e8b\u52d9\u6240","boring_xml_url":49,"boring_view_url":1,"soilmap_view_url":null,"soiltest_xml_url":0,"soiltest_view_url":0},{"id":241229,"code":"B4KJ201802000-6709","latitude":"39.514528","longitude":"140.378639","source_code":"TH2006824653020000002","project_name":"0","survey_name":"\u5927\u66f2\u56fd\u9053\u7ba1\u5185\u6b69\u9053\u7b49\u8a2d\u8a08\u696d\u52d9","client_name":"\u56fd\u571f\u4ea4\u901a\u7701 \u6e6f\u6ca2\u6cb3\u5ddd\u56fd\u9053\u4e8b\u52d9\u6240","boring_xml_url":48,"boring_view_url":1,"soilmap_view_url":null,"soiltest_xml_url":0,"soiltest_view_url":0},{"id":241228,"code":"B4KJ201802000-6708","latitude":"39.508111","longitude":"140.387639","source_code":"TH2006824653020000001","project_name":"0","survey_name":"\u5927\u66f2\u56fd\u9053\u7ba1\u5185\u6b69\u9053\u7b49\u8a2d\u8a08\u696d\u52d9","client_name":"\u56fd\u571f\u4ea4\u901a\u7701 \u6e6f\u6ca2\u6cb3\u5ddd\u56fd\u9053\u4e8b\u52d9\u6240","boring_xml_url":48,"boring_view_url":1,"soilmap_view_url":null,"soiltest_xml_url":0,"soiltest_view_url":0},{"id":241227,"code":"B4KJ201802000-6707","latitude":"39.520833","longitude":"140.380556","source_code":"TH20068246410200070003","project_name":"","survey_name":"\u5e73\u621018\u5e74\u5ea6 \u795e\u5ca1\u5730\u533a\u9053\u8def\u8a2d\u8a08\u696d\u52d9","client_name":"\u56fd\u571f\u4ea4\u901a\u7701\u6e6f\u6ca2\u6cb3\u5ddd\u56fd\u9053\u4e8b\u52d9\u6240","boring_xml_url":49,"boring_view_url":1,"soilmap_view_url":null,"soiltest_xml_url":0,"soiltest_view_url":0},{"id":241226,"code":"B4KJ201802000-6706","latitude":"39.513056","longitude":"140.381667","source_code":"TH20068246410200070002","project_name":"","survey_name":"\u5e73\u621018\u5e74\u5ea6 \u795e\u5ca1\u5730\u533a\u9053\u8def\u8a2d\u8a08\u696d\u52d9","client_name":"\u56fd\u571f\u4ea4\u901a\u7701\u6e6f\u6ca2\u6cb3\u5ddd\u56fd\u9053\u4e8b\u52d9\u6240","boring_xml_url":49,"boring_view_url":1,"soilmap_view_url":null,"soiltest_xml_url":0,"soiltest_view_url":0},{"id":241225,"code":"B4KJ201802000-6705","latitude":"39.507222","longitude":"140.386667","source_code":"TH20068246410200070001","project_name":"","survey_name":"\u5e73\u621018\u5e74\u5ea6 \u795e\u5ca1\u5730\u533a\u9053\u8def\u8a2d\u8a08\u696d\u52d9","client_name":"\u56fd\u571f\u4ea4\u901a\u7701\u6e6f\u6ca2\u6cb3\u5ddd\u56fd\u9053\u4e8b\u52d9\u6240","boring_xml_url":49,"boring_view_url":1,"soilmap_view_url":null,"soiltest_xml_url":0,"soiltest_view_url":0},{"id":241224,"code":"B4KJ201802000-6704","latitude":"39.045833","longitude":"140.411389","source_code":"TH20068246410200020004","project_name":"","survey_name":"H18\u5e74\u5ea6\u4e0a\u9662\u5185\u5730\u533a\u5730\u8cea\u8abf\u67fb\u696d\u52d9","client_name":"\u56fd\u571f\u4ea4\u901a\u7701\u6771\u5317\u5730\u65b9\u6574\u5099\u5c40\u6e6f\u6ca2\u6cb3\u5ddd\u56fd\u9053\u4e8b\u52d9\u6240","boring_xml_url":49,"boring_view_url":1,"soilmap_view_url":null,"soiltest_xml_url":0,"soiltest_view_url":0},{"id":241223,"code":"B4KJ201802000-6703","latitude":"39.046111","longitude":"140.411944","source_code":"TH20068246410200020003","project_name":"","survey_name":"H18\u5e74\u5ea6\u4e0a\u9662\u5185\u5730\u533a\u5730\u8cea\u8abf\u67fb\u696d\u52d9","client_name":"\u56fd\u571f\u4ea4\u901a\u7701\u6771\u5317\u5730\u65b9\u6574\u5099\u5c40\u6e6f\u6ca2\u6cb3\u5ddd\u56fd\u9053\u4e8b\u52d9\u6240","boring_xml_url":49,"boring_view_url":1,"soilmap_view_url":null,"soiltest_xml_url":0,"soiltest_view_url":0},{"id":241222,"code":"B4KJ201802000-6702","latitude":"39.040833","longitude":"140.398333","source_code":"TH20068246410200020002","project_name":"","survey_name":"H18\u5e74\u5ea6\u4e0a\u9662\u5185\u5730\u533a\u5730\u8cea\u8abf\u67fb\u696d\u52d9","client_name":"\u56fd\u571f\u4ea4\u901a\u7701\u6771\u5317\u5730\u65b9\u6574\u5099\u5c40\u6e6f\u6ca2\u6cb3\u5ddd\u56fd\u9053\u4e8b\u52d9\u6240","boring_xml_url":49,"boring_view_url":1,"soilmap_view_url":null,"soiltest_xml_url":0,"soiltest_view_url":0},{"id":241221,"code":"B4KJ201802000-6701","latitude":"39.039444","longitude":"140.396111","source_code":"TH20068246410200020001","project_name":"","survey_name":"H18\u5e74\u5ea6\u4e0a\u9662\u5185\u5730\u533a\u5730\u8cea\u8abf\u67fb\u696d\u52d9","client_name":"\u56fd\u571f\u4ea4\u901a\u7701\u6771\u5317\u5730\u65b9\u6574\u5099\u5c40\u6e6f\u6ca2\u6cb3\u5ddd\u56fd\u9053\u4e8b\u52d9\u6240","boring_xml_url":49,"boring_view_url":1,"soilmap_view_url":null,"soiltest_xml_url":0,"soiltest_view_url":0},{"id":241220,"code":"B4KJ201802000-6700","latitude":"39.1375","longitude":"140.48","source_code":"TH20058246600200350028","project_name":"\u5e73\u621017\u5e74\u5ea6 \u96c4\u7269\u5ddd\u4e0a\u6d41\u5927\u4ed9\u5730\u533a\u5824\u9632\u6d78\u900f\u8abf\u67fb","survey_name":"\u5e73\u621017\u5e74\u5ea6 \u96c4\u7269\u5ddd\u4e0a\u6d41\u5927\u4ed9\u5730\u533a\u5824\u9632\u6d78\u900f\u8abf\u67fb","client_name":"\u56fd\u571f\u4ea4\u901a\u7701 \u6771\u5317\u5730\u65b9\u6574\u5099\u5c40 \u6e6f\u6ca2\u6cb3\u5ddd\u56fd\u9053\u4e8b\u52d9\u6240","boring_xml_url":49,"boring_view_url":1,"soilmap_view_url":null,"soiltest_xml_url":0,"soiltest_view_url":0},{"id":241219,"code":"B4KJ201802000-6699","latitude":"39.1375","longitude":"140.477778","source_code":"TH20058246600200350027","project_name":"\u5e73\u621017\u5e74\u5ea6 \u96c4\u7269\u5ddd\u4e0a\u6d41\u5927\u4ed9\u5730\u533a\u5824\u9632\u6d78\u900f\u8abf\u67fb","survey_name":"\u5e73\u621017\u5e74\u5ea6 \u96c4\u7269\u5ddd\u4e0a\u6d41\u5927\u4ed9\u5730\u533a\u5824\u9632\u6d78\u900f\u8abf\u67fb","client_name":"\u56fd\u571f\u4ea4\u901a\u7701 \u6771\u5317\u5730\u65b9\u6574\u5099\u5c40 \u6e6f\u6ca2\u6cb3\u5ddd\u56fd\u9053\u4e8b\u52d9\u6240","boring_xml_url":49,"boring_view_url":1,"soilmap_view_url":null,"soiltest_xml_url":52,"soiltest_view_url":51},{"id":241218,"code":"B4KJ201802000-6698","latitude":"39.138056","longitude":"140.480556","source_code":"TH20058246600200350026","project_name":"\u5e73\u621017\u5e74\u5ea6 \u96c4\u7269\u5ddd\u4e0a\u6d41\u5927\u4ed9\u5730\u533a\u5824\u9632\u6d78\u900f\u8abf\u67fb","survey_name":"\u5e73\u621017\u5e74\u5ea6 \u96c4\u7269\u5ddd\u4e0a\u6d41\u5927\u4ed9\u5730\u533a\u5824\u9632\u6d78\u900f\u8abf\u67fb","client_name":"\u56fd\u571f\u4ea4\u901a\u7701 \u6771\u5317\u5730\u65b9\u6574\u5099\u5c40 \u6e6f\u6ca2\u6cb3\u5ddd\u56fd\u9053\u4e8b\u52d9\u6240","boring_xml_url":49,"boring_view_url":1,"soilmap_view_url":null,"soiltest_xml_url":0,"soiltest_view_url":0},{"id":241217,"code":"B4KJ201802000-6697","latitude":"39.138056","longitude":"140.476389","source_code":"TH20058246600200350025","project_name":"\u5e73\u621017\u5e74\u5ea6 \u96c4\u7269\u5ddd\u4e0a\u6d41\u5927\u4ed9\u5730\u533a\u5824\u9632\u6d78\u900f\u8abf\u67fb","survey_name":"\u5e73\u621017\u5e74\u5ea6 \u96c4\u7269\u5ddd\u4e0a\u6d41\u5927\u4ed9\u5730\u533a\u5824\u9632\u6d78\u900f\u8abf\u67fb","client_name":"\u56fd\u571f\u4ea4\u901a\u7701 \u6771\u5317\u5730\u65b9\u6574\u5099\u5c40 \u6e6f\u6ca2\u6cb3\u5ddd\u56fd\u9053\u4e8b\u52d9\u6240","boring_xml_url":49,"boring_view_url":1,"soilmap_view_url":null,"soiltest_xml_url":0,"soiltest_view_url":0},{"id":241216,"code":"B4KJ201802000-6696","latitude":"39.411111","longitude":"140.486111","source_code":"TH20058246600200350024","project_name":"\u5e73\u621017\u5e74\u5ea6 \u96c4\u7269\u5ddd\u4e0a\u6d41\u5927\u4ed9\u5730\u533a\u5824\u9632\u6d78\u900f\u8abf\u67fb","survey_name":"\u5e73\u621017\u5e74\u5ea6 \u96c4\u7269\u5ddd\u4e0a\u6d41\u5927\u4ed9\u5730\u533a\u5824\u9632\u6d78\u900f\u8abf\u67fb","client_name":"\u56fd\u571f\u4ea4\u901a\u7701 \u6771\u5317\u5730\u65b9\u6574\u5099\u5c40 \u6e6f\u6ca2\u6cb3\u5ddd\u56fd\u9053\u4e8b\u52d9\u6240","boring_xml_url":49,"boring_view_url":1,"soilmap_view_url":null,"soiltest_xml_url":52,"soiltest_view_url":51},{"id":241215,"code":"B4KJ201802000-6695","latitude":"39.464222","longitude":"140.469778","source_code":"TH20058246600200350023","project_name":"\u5e73\u621017\u5e74\u5ea6 \u96c4\u7269\u5ddd\u4e0a\u6d41\u5927\u4ed9\u5730\u533a\u5824\u9632\u6d78\u900f\u8abf\u67fb","survey_name":"\u5e73\u621017\u5e74\u5ea6 \u96c4\u7269\u5ddd\u4e0a\u6d41\u5927\u4ed9\u5730\u533a\u5824\u9632\u6d78\u900f\u8abf\u67fb","client_name":"\u56fd\u571f\u4ea4\u901a\u7701 \u6771\u5317\u5730\u65b9\u6574\u5099\u5c40 \u6e6f\u6ca2\u6cb3\u5ddd\u56fd\u9053\u4e8b\u52d9\u6240","boring_xml_url":49,"boring_view_url":1,"soilmap_view_url":null,"soiltest_xml_url":52,"soiltest_view_url":51},{"id":241214,"code":"B4KJ201802000-6694","latitude":"39.464167","longitude":"140.469722","source_code":"TH20058246600200350022","project_name":"\u5e73\u621017\u5e74\u5ea6 \u96c4\u7269\u5ddd\u4e0a\u6d41\u5927\u4ed9\u5730\u533a\u5824\u9632\u6d78\u900f\u8abf\u67fb","survey_name":"\u5e73\u621017\u5e74\u5ea6 \u96c4\u7269\u5ddd\u4e0a\u6d41\u5927\u4ed9\u5730\u533a\u5824\u9632\u6d78\u900f\u8abf\u67fb","client_name":"\u56fd\u571f\u4ea4\u901a\u7701 \u6771\u5317\u5730\u65b9\u6574\u5099\u5c40 \u6e6f\u6ca2\u6cb3\u5ddd\u56fd\u9053\u4e8b\u52d9\u6240","boring_xml_url":49,"boring_view_url":1,"soilmap_view_url":null,"soiltest_xml_url":52,"soiltest_view_url":51},{"id":241213,"code":"B4KJ201802000-6693","latitude":"39.4225","longitude":"140.483889","source_code":"TH20058246600200350021","project_name":"\u5e73\u621017\u5e74\u5ea6 \u96c4\u7269\u5ddd\u4e0a\u6d41\u5927\u4ed9\u5730\u533a\u5824\u9632\u6d78\u900f\u8abf\u67fb","survey_name":"\u5e73\u621017\u5e74\u5ea6 \u96c4\u7269\u5ddd\u4e0a\u6d41\u5927\u4ed9\u5730\u533a\u5824\u9632\u6d78\u900f\u8abf\u67fb","client_name":"\u56fd\u571f\u4ea4\u901a\u7701 \u6771\u5317\u5730\u65b9\u6574\u5099\u5c40 \u6e6f\u6ca2\u6cb3\u5ddd\u56fd\u9053\u4e8b\u52d9\u6240","boring_xml_url":49,"boring_view_url":1,"soilmap_view_url":null,"soiltest_xml_url":52,"soiltest_view_url":51},{"id":241212,"code":"B4KJ201802000-6692","latitude":"39.4225","longitude":"140.483611","source_code":"TH20058246600200350020","project_name":"\u5e73\u621017\u5e74\u5ea6 \u96c4\u7269\u5ddd\u4e0a\u6d41\u5927\u4ed9\u5730\u533a\u5824\u9632\u6d78\u900f\u8abf\u67fb","survey_name":"\u5e73\u621017\u5e74\u5ea6 \u96c4\u7269\u5ddd\u4e0a\u6d41\u5927\u4ed9\u5730\u533a\u5824\u9632\u6d78\u900f\u8abf\u67fb","client_name":"\u56fd\u571f\u4ea4\u901a\u7701 \u6771\u5317\u5730\u65b9\u6574\u5099\u5c40 \u6e6f\u6ca2\u6cb3\u5ddd\u56fd\u9053\u4e8b\u52d9\u6240","boring_xml_url":49,"boring_view_url":1,"soilmap_view_url":null,"soiltest_xml_url":52,"soiltest_view_url":51},{"id":241211,"code":"B4KJ201802000-6691","latitude":"39.204167","longitude":"140.573611","source_code":"TH20058246600200350019","project_name":"\u5e73\u621017\u5e74\u5ea6 \u96c4\u7269\u5ddd\u4e0a\u6d41\u5927\u4ed9\u5730\u533a\u5824\u9632\u6d78\u900f\u8abf\u67fb","survey_name":"\u5e73\u621017\u5e74\u5ea6 \u96c4\u7269\u5ddd\u4e0a\u6d41\u5927\u4ed9\u5730\u533a\u5824\u9632\u6d78\u900f\u8abf\u67fb","client_name":"\u56fd\u571f\u4ea4\u901a\u7701 \u6771\u5317\u5730\u65b9\u6574\u5099\u5c40 \u6e6f\u6ca2\u6cb3\u5ddd\u56fd\u9053\u4e8b\u52d9\u6240","boring_xml_url":49,"boring_view_url":1,"soilmap_view_url":null,"soiltest_xml_url":52,"soiltest_view_url":51},{"id":241210,"code":"B4KJ201802000-6690","latitude":"39.204167","longitude":"140.573333","source_code":"TH20058246600200350018","project_name":"\u5e73\u621017\u5e74\u5ea6 \u96c4\u7269\u5ddd\u4e0a\u6d41\u5927\u4ed9\u5730\u533a\u5824\u9632\u6d78\u900f\u8abf\u67fb","survey_name":"\u5e73\u621017\u5e74\u5ea6 \u96c4\u7269\u5ddd\u4e0a\u6d41\u5927\u4ed9\u5730\u533a\u5824\u9632\u6d78\u900f\u8abf\u67fb","client_name":"\u56fd\u571f\u4ea4\u901a\u7701 \u6771\u5317\u5730\u65b9\u6574\u5099\u5c40 \u6e6f\u6ca2\u6cb3\u5ddd\u56fd\u9053\u4e8b\u52d9\u6240","boring_xml_url":49,"boring_view_url":1,"soilmap_view_url":null,"soiltest_xml_url":52,"soiltest_view_url":51}]}}