{"header":{"xyz":{"source":[],"mosaic":false},"page":2990,"raw":{"soiltest_result":"0","bbox":"57.598333,109.544722,1.933333,163.806111","page":"2990"},"conditions":{"soiltest_result":0,"north":57.598333,"west":109.544722,"south":1.933333,"east":163.806111},"success":true,"message":""},"data":{"meta":{"total":212844,"page":2990,"pages":7095,"count":30},"values":[{"id":240849,"code":"B4KJ201802000-6329","latitude":"38.664694","longitude":"141.268806","source_code":"TH20048240480200110003","project_name":"\u4e09\u9678\u7e26\u8cab\u81ea\u52d5\u8eca\u9053","survey_name":"\u6843\u751f\u767b\u7c73\u9053\u8def\u767b\u7c73\u5730\u533a\u5730\u8cea\u8abf\u67fb","client_name":"\u56fd\u571f\u4ea4\u901a\u7701 \u6771\u5317\u5730\u65b9\u6574\u5099\u5c40 \u4ed9\u53f0\u6cb3\u5ddd\u56fd\u9053\u4e8b\u52d9\u6240","boring_xml_url":49,"boring_view_url":1,"soilmap_view_url":null,"soiltest_xml_url":0,"soiltest_view_url":0},{"id":240848,"code":"B4KJ201802000-6328","latitude":"38.664361","longitude":"141.269056","source_code":"TH20048240480200110002","project_name":"\u4e09\u9678\u7e26\u8cab\u81ea\u52d5\u8eca\u9053","survey_name":"\u6843\u751f\u767b\u7c73\u9053\u8def\u6843\u751f\u5730\u533a\u5730\u8cea\u8abf\u67fb","client_name":"\u56fd\u571f\u4ea4\u901a\u7701 \u6771\u5317\u5730\u65b9\u6574\u5099\u5c40 \u4ed9\u53f0\u6cb3\u5ddd\u56fd\u9053\u4e8b\u52d9\u6240","boring_xml_url":49,"boring_view_url":1,"soilmap_view_url":null,"soiltest_xml_url":0,"soiltest_view_url":0},{"id":240847,"code":"B4KJ201802000-6327","latitude":"38.664139","longitude":"141.268778","source_code":"TH20048240480200110001","project_name":"\u4e09\u9678\u7e26\u8cab\u81ea\u52d5\u8eca\u9053","survey_name":"\u6843\u751f\u767b\u7c73\u9053\u8def\u767b\u7c73\u5730\u533a\u5730\u8cea\u8abf\u67fb(\u767b\u7c73\u5730\u533a)","client_name":"\u56fd\u571f\u4ea4\u901a\u7701 \u6771\u5317\u5730\u65b9\u6574\u5099\u5c40 \u4ed9\u53f0\u6cb3\u5ddd\u56fd\u9053\u4e8b\u52d9\u6240","boring_xml_url":49,"boring_view_url":1,"soilmap_view_url":null,"soiltest_xml_url":0,"soiltest_view_url":0},{"id":240846,"code":"B4KJ201802000-6326","latitude":"38.089444","longitude":"140.869444","source_code":"TH20048240600200230012","project_name":"","survey_name":"\u540d\u53d6\u5ddd\u30fb\u963f\u6b66\u9688\u5ddd\u5824\u9632\u8a73\u7d30\u8abf\u67fb","client_name":"\u56fd\u571f\u4ea4\u901a\u7701\u6771\u5317\u5730\u65b9\u6574\u5099\u5c40\u4ed9\u53f0\u6cb3\u5ddd\u56fd\u9053\u4e8b\u52d9\u6240","boring_xml_url":49,"boring_view_url":1,"soilmap_view_url":null,"soiltest_xml_url":0,"soiltest_view_url":0},{"id":240845,"code":"B4KJ201802000-6325","latitude":"38.089444","longitude":"140.869444","source_code":"TH20048240600200230011","project_name":"","survey_name":"\u540d\u53d6\u5ddd\u30fb\u963f\u6b66\u9688\u5ddd\u5824\u9632\u8a73\u7d30\u8abf\u67fb","client_name":"\u56fd\u571f\u4ea4\u901a\u7701\u6771\u5317\u5730\u65b9\u6574\u5099\u5c40\u4ed9\u53f0\u6cb3\u5ddd\u56fd\u9053\u4e8b\u52d9\u6240","boring_xml_url":49,"boring_view_url":1,"soilmap_view_url":null,"soiltest_xml_url":0,"soiltest_view_url":0},{"id":240844,"code":"B4KJ201802000-6324","latitude":"38.089444","longitude":"140.869444","source_code":"TH20048240600200230010","project_name":"","survey_name":"\u540d\u53d6\u5ddd\u30fb\u963f\u6b66\u9688\u5ddd\u5824\u9632\u8a73\u7d30\u8abf\u67fb","client_name":"\u56fd\u571f\u4ea4\u901a\u7701\u6771\u5317\u5730\u65b9\u6574\u5099\u5c40\u4ed9\u53f0\u6cb3\u5ddd\u56fd\u9053\u4e8b\u52d9\u6240","boring_xml_url":49,"boring_view_url":1,"soilmap_view_url":null,"soiltest_xml_url":0,"soiltest_view_url":0},{"id":240843,"code":"B4KJ201802000-6323","latitude":"38.089444","longitude":"140.869444","source_code":"TH20048240600200230009","project_name":"","survey_name":"\u540d\u53d6\u5ddd\u30fb\u963f\u6b66\u9688\u5ddd\u5824\u9632\u8a73\u7d30\u8abf\u67fb","client_name":"\u56fd\u571f\u4ea4\u901a\u7701\u6771\u5317\u5730\u65b9\u6574\u5099\u5c40\u4ed9\u53f0\u6cb3\u5ddd\u56fd\u9053\u4e8b\u52d9\u6240","boring_xml_url":49,"boring_view_url":1,"soilmap_view_url":null,"soiltest_xml_url":0,"soiltest_view_url":0},{"id":240842,"code":"B4KJ201802000-6322","latitude":"38.089444","longitude":"140.869444","source_code":"TH20048240600200230008","project_name":"","survey_name":"\u540d\u53d6\u5ddd\u30fb\u963f\u6b66\u9688\u5ddd\u5824\u9632\u8a73\u7d30\u8abf\u67fb","client_name":"\u56fd\u571f\u4ea4\u901a\u7701\u6771\u5317\u5730\u65b9\u6574\u5099\u5c40\u4ed9\u53f0\u6cb3\u5ddd\u56fd\u9053\u4e8b\u52d9\u6240","boring_xml_url":49,"boring_view_url":1,"soilmap_view_url":null,"soiltest_xml_url":0,"soiltest_view_url":0},{"id":240841,"code":"B4KJ201802000-6321","latitude":"37.977778","longitude":"140.806111","source_code":"TH20048240600200230007","project_name":"","survey_name":"\u540d\u53d6\u5ddd\u30fb\u963f\u6b66\u9688\u5ddd\u5824\u9632\u8a73\u7d30\u8abf\u67fb","client_name":"\u56fd\u571f\u4ea4\u901a\u7701\u6771\u5317\u5730\u65b9\u6574\u5099\u5c40\u4ed9\u53f0\u6cb3\u5ddd\u56fd\u9053\u4e8b\u52d9\u6240","boring_xml_url":49,"boring_view_url":1,"soilmap_view_url":null,"soiltest_xml_url":52,"soiltest_view_url":51},{"id":240840,"code":"B4KJ201802000-6320","latitude":"37.977778","longitude":"140.806111","source_code":"TH20048240600200230006","project_name":"","survey_name":"\u540d\u53d6\u5ddd\u30fb\u963f\u6b66\u9688\u5ddd\u5824\u9632\u8a73\u7d30\u8abf\u67fb","client_name":"\u56fd\u571f\u4ea4\u901a\u7701\u6771\u5317\u5730\u65b9\u6574\u5099\u5c40\u4ed9\u53f0\u6cb3\u5ddd\u56fd\u9053\u4e8b\u52d9\u6240","boring_xml_url":49,"boring_view_url":1,"soilmap_view_url":null,"soiltest_xml_url":52,"soiltest_view_url":51},{"id":240839,"code":"B4KJ201802000-6319","latitude":"38.055","longitude":"140.813333","source_code":"TH20048240600200230005","project_name":"","survey_name":"\u540d\u53d6\u5ddd\u30fb\u963f\u6b66\u9688\u5ddd\u5824\u9632\u8a73\u7d30\u8abf\u67fb","client_name":"\u56fd\u571f\u4ea4\u901a\u7701\u6771\u5317\u5730\u65b9\u6574\u5099\u5c40\u4ed9\u53f0\u6cb3\u5ddd\u56fd\u9053\u4e8b\u52d9\u6240","boring_xml_url":49,"boring_view_url":1,"soilmap_view_url":null,"soiltest_xml_url":52,"soiltest_view_url":51},{"id":240838,"code":"B4KJ201802000-6318","latitude":"38.055","longitude":"140.813611","source_code":"TH20048240600200230004","project_name":"","survey_name":"\u540d\u53d6\u5ddd\u30fb\u963f\u6b66\u9688\u5ddd\u5824\u9632\u8a73\u7d30\u8abf\u67fb","client_name":"\u56fd\u571f\u4ea4\u901a\u7701\u6771\u5317\u5730\u65b9\u6574\u5099\u5c40\u4ed9\u53f0\u6cb3\u5ddd\u56fd\u9053\u4e8b\u52d9\u6240","boring_xml_url":49,"boring_view_url":1,"soilmap_view_url":null,"soiltest_xml_url":52,"soiltest_view_url":51},{"id":240837,"code":"B4KJ201802000-6317","latitude":"38.057222","longitude":"140.808333","source_code":"TH20048240600200230003","project_name":"","survey_name":"\u540d\u53d6\u5ddd\u30fb\u963f\u6b66\u9688\u5ddd\u5824\u9632\u8a73\u7d30\u8abf\u67fb","client_name":"\u56fd\u571f\u4ea4\u901a\u7701\u6771\u5317\u5730\u65b9\u6574\u5099\u5c40\u4ed9\u53f0\u6cb3\u5ddd\u56fd\u9053\u4e8b\u52d9\u6240","boring_xml_url":49,"boring_view_url":1,"soilmap_view_url":null,"soiltest_xml_url":52,"soiltest_view_url":51},{"id":240836,"code":"B4KJ201802000-6316","latitude":"38.057222","longitude":"140.808056","source_code":"TH20048240600200230002","project_name":"","survey_name":"\u540d\u53d6\u5ddd\u30fb\u963f\u6b66\u9688\u5ddd\u5824\u9632\u8a73\u7d30\u8abf\u67fb","client_name":"\u56fd\u571f\u4ea4\u901a\u7701\u6771\u5317\u5730\u65b9\u6574\u5099\u5c40\u4ed9\u53f0\u6cb3\u5ddd\u56fd\u9053\u4e8b\u52d9\u6240","boring_xml_url":49,"boring_view_url":1,"soilmap_view_url":null,"soiltest_xml_url":52,"soiltest_view_url":51},{"id":240835,"code":"B4KJ201802000-6315","latitude":"38.089444","longitude":"140.869444","source_code":"TH20048240600200230001","project_name":"","survey_name":"\u540d\u53d6\u5ddd\u30fb\u963f\u6b66\u9688\u5ddd\u5824\u9632\u8a73\u7d30\u8abf\u67fb","client_name":"\u56fd\u571f\u4ea4\u901a\u7701\u6771\u5317\u5730\u65b9\u6574\u5099\u5c40\u4ed9\u53f0\u6cb3\u5ddd\u56fd\u9053\u4e8b\u52d9\u6240","boring_xml_url":49,"boring_view_url":1,"soilmap_view_url":null,"soiltest_xml_url":52,"soiltest_view_url":51},{"id":240834,"code":"B4KJ201802000-6314","latitude":"38.901222","longitude":"141.549722","source_code":"TH20048240550200080002","project_name":"","survey_name":"\u6c17\u4ed9\u6cbc\u5730\u533a\u4ea4\u5dee\u70b9\u8a2d\u8a08\u696d\u52d9(\u5730\u8cea\u8abf\u67fb)","client_name":"\u56fd\u4ea4\u7701 \u6771\u5317\u5730\u65b9\u6574\u5099\u5c40 \u4ed9\u53f0\u6cb3\u5ddd\u56fd\u9053\u4e8b\u52d9\u6240","boring_xml_url":49,"boring_view_url":1,"soilmap_view_url":null,"soiltest_xml_url":0,"soiltest_view_url":0},{"id":240833,"code":"B4KJ201802000-6313","latitude":"38.8285","longitude":"141.577111","source_code":"TH20048240550200080001","project_name":"","survey_name":"\u6c17\u4ed9\u6cbc\u5730\u533a\u4ea4\u5dee\u70b9\u8a2d\u8a08\u696d\u52d9(\u5730\u8cea\u8abf\u67fb)","client_name":"\u56fd\u4ea4\u7701 \u6771\u5317\u5730\u65b9\u6574\u5099\u5c40 \u4ed9\u53f0\u6cb3\u5ddd\u56fd\u9053\u4e8b\u52d9\u6240","boring_xml_url":49,"boring_view_url":1,"soilmap_view_url":null,"soiltest_xml_url":0,"soiltest_view_url":0},{"id":240832,"code":"B4KJ201802000-6312","latitude":"37.849278","longitude":"140.926889","source_code":"TH20048268600200270021","project_name":"\u5e73\u621016\u5e74\u5ea6 \u76f8\u99ac\u30d0\u30a4\u30d1\u30b9\u5730\u8cea\u8abf\u67fb","survey_name":"\u5e73\u621016\u5e74\u5ea6 \u76f8\u99ac\u30d0\u30a4\u30d1\u30b9\u5730\u8cea\u8abf\u67fb","client_name":"\u6771\u5317\u5730\u65b9\u6574\u5099\u5c40 \u78d0\u57ce\u56fd\u9053\u4e8b\u52d9\u6240","boring_xml_url":49,"boring_view_url":1,"soilmap_view_url":null,"soiltest_xml_url":52,"soiltest_view_url":51},{"id":240831,"code":"B4KJ201802000-6311","latitude":"37.848889","longitude":"140.927389","source_code":"TH20048268600200270020","project_name":"\u5e73\u621016\u5e74\u5ea6 \u76f8\u99ac\u30d0\u30a4\u30d1\u30b9\u5730\u8cea\u8abf\u67fb","survey_name":"\u5e73\u621016\u5e74\u5ea6 \u76f8\u99ac\u30d0\u30a4\u30d1\u30b9\u5730\u8cea\u8abf\u67fb","client_name":"\u6771\u5317\u5730\u65b9\u6574\u5099\u5c40 \u78d0\u57ce\u56fd\u9053\u4e8b\u52d9\u6240","boring_xml_url":49,"boring_view_url":1,"soilmap_view_url":null,"soiltest_xml_url":52,"soiltest_view_url":51},{"id":240830,"code":"B4KJ201802000-6310","latitude":"37.841361","longitude":"140.938028","source_code":"TH20048268600200270019","project_name":"\u5e73\u621016\u5e74\u5ea6 \u76f8\u99ac\u30d0\u30a4\u30d1\u30b9\u5730\u8cea\u8abf\u67fb","survey_name":"\u5e73\u621016\u5e74\u5ea6 \u76f8\u99ac\u30d0\u30a4\u30d1\u30b9\u5730\u8cea\u8abf\u67fb","client_name":"\u6771\u5317\u5730\u65b9\u6574\u5099\u5c40 \u78d0\u57ce\u56fd\u9053\u4e8b\u52d9\u6240","boring_xml_url":49,"boring_view_url":1,"soilmap_view_url":null,"soiltest_xml_url":0,"soiltest_view_url":0},{"id":240829,"code":"B4KJ201802000-6309","latitude":"37.848639","longitude":"140.927944","source_code":"TH20048268600200270018","project_name":"\u5e73\u621016\u5e74\u5ea6 \u76f8\u99ac\u30d0\u30a4\u30d1\u30b9\u5730\u8cea\u8abf\u67fb","survey_name":"\u5e73\u621016\u5e74\u5ea6 \u76f8\u99ac\u30d0\u30a4\u30d1\u30b9\u5730\u8cea\u8abf\u67fb","client_name":"\u6771\u5317\u5730\u65b9\u6574\u5099\u5c40 \u78d0\u57ce\u56fd\u9053\u4e8b\u52d9\u6240","boring_xml_url":49,"boring_view_url":1,"soilmap_view_url":null,"soiltest_xml_url":0,"soiltest_view_url":0},{"id":240828,"code":"B4KJ201802000-6308","latitude":"37.848528","longitude":"140.92825","source_code":"TH20048268600200270017","project_name":"\u5e73\u621016\u5e74\u5ea6 \u76f8\u99ac\u30d0\u30a4\u30d1\u30b9\u5730\u8cea\u8abf\u67fb","survey_name":"\u5e73\u621016\u5e74\u5ea6 \u76f8\u99ac\u30d0\u30a4\u30d1\u30b9\u5730\u8cea\u8abf\u67fb","client_name":"\u6771\u5317\u5730\u65b9\u6574\u5099\u5c40 \u78d0\u57ce\u56fd\u9053\u4e8b\u52d9\u6240","boring_xml_url":49,"boring_view_url":1,"soilmap_view_url":null,"soiltest_xml_url":0,"soiltest_view_url":0},{"id":240827,"code":"B4KJ201802000-6307","latitude":"37.848417","longitude":"140.928278","source_code":"TH20048268600200270016","project_name":"\u5e73\u621016\u5e74\u5ea6 \u76f8\u99ac\u30d0\u30a4\u30d1\u30b9\u5730\u8cea\u8abf\u67fb","survey_name":"\u5e73\u621016\u5e74\u5ea6 \u76f8\u99ac\u30d0\u30a4\u30d1\u30b9\u5730\u8cea\u8abf\u67fb","client_name":"\u6771\u5317\u5730\u65b9\u6574\u5099\u5c40 \u78d0\u57ce\u56fd\u9053\u4e8b\u52d9\u6240","boring_xml_url":49,"boring_view_url":1,"soilmap_view_url":null,"soiltest_xml_url":0,"soiltest_view_url":0},{"id":240826,"code":"B4KJ201802000-6306","latitude":"37.848278","longitude":"140.9285","source_code":"TH20048268600200270015","project_name":"\u5e73\u621016\u5e74\u5ea6 \u76f8\u99ac\u30d0\u30a4\u30d1\u30b9\u5730\u8cea\u8abf\u67fb","survey_name":"\u5e73\u621016\u5e74\u5ea6 \u76f8\u99ac\u30d0\u30a4\u30d1\u30b9\u5730\u8cea\u8abf\u67fb","client_name":"\u6771\u5317\u5730\u65b9\u6574\u5099\u5c40 \u78d0\u57ce\u56fd\u9053\u4e8b\u52d9\u6240","boring_xml_url":49,"boring_view_url":1,"soilmap_view_url":null,"soiltest_xml_url":0,"soiltest_view_url":0},{"id":240825,"code":"B4KJ201802000-6305","latitude":"37.848333","longitude":"140.928639","source_code":"TH20048268600200270014","project_name":"\u5e73\u621016\u5e74\u5ea6 \u76f8\u99ac\u30d0\u30a4\u30d1\u30b9\u5730\u8cea\u8abf\u67fb","survey_name":"\u5e73\u621016\u5e74\u5ea6 \u76f8\u99ac\u30d0\u30a4\u30d1\u30b9\u5730\u8cea\u8abf\u67fb","client_name":"\u6771\u5317\u5730\u65b9\u6574\u5099\u5c40 \u78d0\u57ce\u56fd\u9053\u4e8b\u52d9\u6240","boring_xml_url":49,"boring_view_url":1,"soilmap_view_url":null,"soiltest_xml_url":0,"soiltest_view_url":0},{"id":240824,"code":"B4KJ201802000-6304","latitude":"37.848194","longitude":"140.928861","source_code":"TH20048268600200270013","project_name":"\u5e73\u621016\u5e74\u5ea6 \u76f8\u99ac\u30d0\u30a4\u30d1\u30b9\u5730\u8cea\u8abf\u67fb","survey_name":"\u5e73\u621016\u5e74\u5ea6 \u76f8\u99ac\u30d0\u30a4\u30d1\u30b9\u5730\u8cea\u8abf\u67fb","client_name":"\u6771\u5317\u5730\u65b9\u6574\u5099\u5c40 \u78d0\u57ce\u56fd\u9053\u4e8b\u52d9\u6240","boring_xml_url":49,"boring_view_url":1,"soilmap_view_url":null,"soiltest_xml_url":0,"soiltest_view_url":0},{"id":240823,"code":"B4KJ201802000-6303","latitude":"37.848056","longitude":"140.928861","source_code":"TH20048268600200270012","project_name":"\u5e73\u621016\u5e74\u5ea6 \u76f8\u99ac\u30d0\u30a4\u30d1\u30b9\u5730\u8cea\u8abf\u67fb","survey_name":"\u5e73\u621016\u5e74\u5ea6 \u76f8\u99ac\u30d0\u30a4\u30d1\u30b9\u5730\u8cea\u8abf\u67fb","client_name":"\u6771\u5317\u5730\u65b9\u6574\u5099\u5c40 \u78d0\u57ce\u56fd\u9053\u4e8b\u52d9\u6240","boring_xml_url":49,"boring_view_url":1,"soilmap_view_url":null,"soiltest_xml_url":0,"soiltest_view_url":0},{"id":240822,"code":"B4KJ201802000-6302","latitude":"37.847889","longitude":"140.929167","source_code":"TH20048268600200270011","project_name":"\u5e73\u621016\u5e74\u5ea6 \u76f8\u99ac\u30d0\u30a4\u30d1\u30b9\u5730\u8cea\u8abf\u67fb","survey_name":"\u5e73\u621016\u5e74\u5ea6 \u76f8\u99ac\u30d0\u30a4\u30d1\u30b9\u5730\u8cea\u8abf\u67fb","client_name":"\u6771\u5317\u5730\u65b9\u6574\u5099\u5c40 \u78d0\u57ce\u56fd\u9053\u4e8b\u52d9\u6240","boring_xml_url":49,"boring_view_url":1,"soilmap_view_url":null,"soiltest_xml_url":0,"soiltest_view_url":0},{"id":240821,"code":"B4KJ201802000-6301","latitude":"37.847778","longitude":"140.929389","source_code":"TH20048268600200270010","project_name":"\u5e73\u621016\u5e74\u5ea6 \u76f8\u99ac\u30d0\u30a4\u30d1\u30b9\u5730\u8cea\u8abf\u67fb","survey_name":"\u5e73\u621016\u5e74\u5ea6 \u76f8\u99ac\u30d0\u30a4\u30d1\u30b9\u5730\u8cea\u8abf\u67fb","client_name":"\u6771\u5317\u5730\u65b9\u6574\u5099\u5c40 \u78d0\u57ce\u56fd\u9053\u4e8b\u52d9\u6240","boring_xml_url":49,"boring_view_url":1,"soilmap_view_url":null,"soiltest_xml_url":0,"soiltest_view_url":0},{"id":240820,"code":"B4KJ201802000-6300","latitude":"37.846972","longitude":"140.931","source_code":"TH20048268600200270009","project_name":"\u5e73\u621016\u5e74\u5ea6 \u76f8\u99ac\u30d0\u30a4\u30d1\u30b9\u5730\u8cea\u8abf\u67fb","survey_name":"\u5e73\u621016\u5e74\u5ea6 \u76f8\u99ac\u30d0\u30a4\u30d1\u30b9\u5730\u8cea\u8abf\u67fb","client_name":"\u6771\u5317\u5730\u65b9\u6574\u5099\u5c40 \u78d0\u57ce\u56fd\u9053\u4e8b\u52d9\u6240","boring_xml_url":49,"boring_view_url":1,"soilmap_view_url":null,"soiltest_xml_url":0,"soiltest_view_url":0}]}}