{"header":{"xyz":{"source":[],"mosaic":false},"page":30,"raw":{"soiltest_result":"0","bbox":"57.598333,109.544722,1.933333,163.806111","page":"30"},"conditions":{"soiltest_result":0,"north":57.598333,"west":109.544722,"south":1.933333,"east":163.806111},"success":true,"message":""},"data":{"meta":{"total":212844,"page":30,"pages":7095,"count":30},"values":[{"id":701646,"code":"NGIC202306090-0005","latitude":"36.183113888889","longitude":"140.00157138889","source_code":"","project_name":"","survey_name":"R5\u4e0b\u9928\u7ba1\u5185\u5730\u8cea\u7b49\u8abf\u67fb\u696d\u52d9","client_name":"\u56fd\u571f\u4ea4\u901a\u7701\u95a2\u6771\u5730\u65b9\u6574\u5099\u5c40\u4e0b\u9928\u6cb3\u5ddd\u4e8b\u52d9\u6240","boring_xml_url":47,"boring_view_url":1,"soilmap_view_url":null,"soiltest_xml_url":47,"soiltest_view_url":47},{"id":701645,"code":"NGIC202306090-0004","latitude":"36.1832025","longitude":"140.00163916667","source_code":"","project_name":"","survey_name":"R5\u4e0b\u9928\u7ba1\u5185\u5730\u8cea\u7b49\u8abf\u67fb\u696d\u52d9","client_name":"\u56fd\u571f\u4ea4\u901a\u7701\u95a2\u6771\u5730\u65b9\u6574\u5099\u5c40\u4e0b\u9928\u6cb3\u5ddd\u4e8b\u52d9\u6240","boring_xml_url":47,"boring_view_url":1,"soilmap_view_url":null,"soiltest_xml_url":47,"soiltest_view_url":47},{"id":701644,"code":"NGIC202306090-0003","latitude":"36.158532777778","longitude":"140.00581833333","source_code":"","project_name":"","survey_name":"R5\u4e0b\u9928\u7ba1\u5185\u5730\u8cea\u7b49\u8abf\u67fb\u696d\u52d9","client_name":"\u56fd\u571f\u4ea4\u901a\u7701\u95a2\u6771\u5730\u65b9\u6574\u5099\u5c40\u4e0b\u9928\u6cb3\u5ddd\u4e8b\u52d9\u6240","boring_xml_url":47,"boring_view_url":1,"soilmap_view_url":null,"soiltest_xml_url":47,"soiltest_view_url":47},{"id":701643,"code":"NGIC202306090-0002","latitude":"36.15859","longitude":"140.00565555556","source_code":"","project_name":"","survey_name":"R5\u4e0b\u9928\u7ba1\u5185\u5730\u8cea\u7b49\u8abf\u67fb\u696d\u52d9","client_name":"\u56fd\u571f\u4ea4\u901a\u7701\u95a2\u6771\u5730\u65b9\u6574\u5099\u5c40\u4e0b\u9928\u6cb3\u5ddd\u4e8b\u52d9\u6240","boring_xml_url":47,"boring_view_url":1,"soilmap_view_url":null,"soiltest_xml_url":47,"soiltest_view_url":47},{"id":701642,"code":"NGIC202306090-0001","latitude":"36.158625277778","longitude":"140.00557666667","source_code":"","project_name":"","survey_name":"R5\u4e0b\u9928\u7ba1\u5185\u5730\u8cea\u7b49\u8abf\u67fb\u696d\u52d9","client_name":"\u56fd\u571f\u4ea4\u901a\u7701\u95a2\u6771\u5730\u65b9\u6574\u5099\u5c40\u4e0b\u9928\u6cb3\u5ddd\u4e8b\u52d9\u6240","boring_xml_url":47,"boring_view_url":1,"soilmap_view_url":null,"soiltest_xml_url":47,"soiltest_view_url":47},{"id":701593,"code":"NGIC202306057-0002","latitude":"35.234986555556","longitude":"137.41331675","source_code":"","project_name":"","survey_name":"\u4ee4\u548c5\u5e74\u5ea6\u77e2\u4f5c\u30c0\u30e0\u518d\u751f\u4e8b\u696d\u9591\u7f85\u702c\u5730\u533a\u5730\u8cea\u8abf\u67fb\u696d\u52d9","client_name":"\u56fd\u571f\u4ea4\u901a\u7701\u4e2d\u90e8\u5730\u65b9\u6574\u5099\u5c40\u8c4a\u6a4b\u6cb3\u5ddd\u4e8b\u52d9\u6240","boring_xml_url":47,"boring_view_url":1,"soilmap_view_url":null,"soiltest_xml_url":0,"soiltest_view_url":0},{"id":701592,"code":"NGIC202306057-0001","latitude":"35.234898388889","longitude":"137.41379163889","source_code":"","project_name":"","survey_name":"\u4ee4\u548c5\u5e74\u5ea6\u77e2\u4f5c\u30c0\u30e0\u518d\u751f\u4e8b\u696d\u9591\u7f85\u702c\u5730\u533a\u5730\u8cea\u8abf\u67fb\u696d\u52d9","client_name":"\u56fd\u571f\u4ea4\u901a\u7701\u4e2d\u90e8\u5730\u65b9\u6574\u5099\u5c40\u8c4a\u6a4b\u6cb3\u5ddd\u4e8b\u52d9\u6240","boring_xml_url":47,"boring_view_url":1,"soilmap_view_url":null,"soiltest_xml_url":0,"soiltest_view_url":0},{"id":701585,"code":"NGIC202305971-0002","latitude":"37.169933333333","longitude":"138.122825","source_code":"","project_name":"","survey_name":"\u4ee4\u548c5\u5e74\u5ea6\u9ad8\u7530\u6cb3\u5ddd\u56fd\u9053\u4e8b\u52d9\u6240\u7ba1\u5185\u5730\u8cea\u8abf\u67fb\u696d\u52d9 \u4e0a\u8d8a\u5e02\u8336\u5c4b\u30f6\u539f\u5730\u5148 \u30d1\u30fc\u30ad\u30f3\u30b0\u30a8\u30ea\u30a2\u5d29\u843d\u90e8\u5730\u8cea\u8abf\u67fb","client_name":"\u56fd\u571f\u4ea4\u901a\u7701\u5317\u9678\u5730\u65b9\u6574\u5099\u5c40\u9ad8\u7530\u6cb3\u5ddd\u56fd\u9053\u4e8b\u52d9\u6240","boring_xml_url":47,"boring_view_url":1,"soilmap_view_url":null,"soiltest_xml_url":0,"soiltest_view_url":0},{"id":701584,"code":"NGIC202305971-0001","latitude":"37.169833333333","longitude":"138.12304722222","source_code":"","project_name":"","survey_name":"\u4ee4\u548c5\u5e74\u5ea6\u9ad8\u7530\u6cb3\u5ddd\u56fd\u9053\u4e8b\u52d9\u6240\u7ba1\u5185\u5730\u8cea\u8abf\u67fb\u696d\u52d9 \u4e0a\u8d8a\u5e02\u8336\u5c4b\u30f6\u539f\u5730\u5148 \u30d1\u30fc\u30ad\u30f3\u30b0\u30a8\u30ea\u30a2\u5d29\u843d\u90e8\u5730\u8cea\u8abf\u67fb","client_name":"\u56fd\u571f\u4ea4\u901a\u7701\u5317\u9678\u5730\u65b9\u6574\u5099\u5c40\u9ad8\u7530\u6cb3\u5ddd\u56fd\u9053\u4e8b\u52d9\u6240","boring_xml_url":47,"boring_view_url":1,"soilmap_view_url":null,"soiltest_xml_url":0,"soiltest_view_url":0},{"id":701566,"code":"NGIC202305799-0019","latitude":"35.512575194444","longitude":"139.7896135","source_code":"","project_name":"\u56fd\u9053357\u53f7 \u6771\u4eac\u6e7e\u5cb8\u9053\u8def\uff08\u591a\u6469\u5ddd\u30c8\u30f3\u30cd\u30eb\uff09","survey_name":"R4\u591a\u6469\u5ddd\u30c8\u30f3\u30cd\u30eb\u5730\u8cea\u88dc\u8db3\u8abf\u67fb\u696d\u52d9","client_name":"\u56fd\u571f\u4ea4\u901a\u7701\u95a2\u6771\u5730\u65b9\u6574\u5099\u5c40\u5ddd\u5d0e\u56fd\u9053\u4e8b\u52d9\u6240","boring_xml_url":47,"boring_view_url":1,"soilmap_view_url":null,"soiltest_xml_url":0,"soiltest_view_url":0},{"id":701565,"code":"NGIC202305799-0018","latitude":"35.512519","longitude":"139.78955883333","source_code":"","project_name":"\u56fd\u9053357\u53f7 \u6771\u4eac\u6e7e\u5cb8\u9053\u8def\uff08\u591a\u6469\u5ddd\u30c8\u30f3\u30cd\u30eb\uff09","survey_name":"R4\u591a\u6469\u5ddd\u30c8\u30f3\u30cd\u30eb\u5730\u8cea\u88dc\u8db3\u8abf\u67fb\u696d\u52d9","client_name":"\u56fd\u571f\u4ea4\u901a\u7701\u95a2\u6771\u5730\u65b9\u6574\u5099\u5c40\u5ddd\u5d0e\u56fd\u9053\u4e8b\u52d9\u6240","boring_xml_url":47,"boring_view_url":1,"soilmap_view_url":null,"soiltest_xml_url":0,"soiltest_view_url":0},{"id":701564,"code":"NGIC202305799-0017","latitude":"35.512462416667","longitude":"139.78950355556","source_code":"","project_name":"\u56fd\u9053357\u53f7 \u6771\u4eac\u6e7e\u5cb8\u9053\u8def\uff08\u591a\u6469\u5ddd\u30c8\u30f3\u30cd\u30eb\uff09","survey_name":"R4\u591a\u6469\u5ddd\u30c8\u30f3\u30cd\u30eb\u5730\u8cea\u88dc\u8db3\u8abf\u67fb\u696d\u52d9","client_name":"\u56fd\u571f\u4ea4\u901a\u7701\u95a2\u6771\u5730\u65b9\u6574\u5099\u5c40\u5ddd\u5d0e\u56fd\u9053\u4e8b\u52d9\u6240","boring_xml_url":47,"boring_view_url":1,"soilmap_view_url":null,"soiltest_xml_url":0,"soiltest_view_url":0},{"id":701563,"code":"NGIC202305799-0016","latitude":"35.512406111111","longitude":"139.78944886111","source_code":"","project_name":"\u56fd\u9053357\u53f7 \u6771\u4eac\u6e7e\u5cb8\u9053\u8def\uff08\u591a\u6469\u5ddd\u30c8\u30f3\u30cd\u30eb\uff09","survey_name":"R4\u591a\u6469\u5ddd\u30c8\u30f3\u30cd\u30eb\u5730\u8cea\u88dc\u8db3\u8abf\u67fb\u696d\u52d9","client_name":"\u56fd\u571f\u4ea4\u901a\u7701\u95a2\u6771\u5730\u65b9\u6574\u5099\u5c40\u5ddd\u5d0e\u56fd\u9053\u4e8b\u52d9\u6240","boring_xml_url":47,"boring_view_url":1,"soilmap_view_url":null,"soiltest_xml_url":0,"soiltest_view_url":0},{"id":701562,"code":"NGIC202305799-0015","latitude":"35.51235125","longitude":"139.78939605556","source_code":"","project_name":"\u56fd\u9053357\u53f7 \u6771\u4eac\u6e7e\u5cb8\u9053\u8def\uff08\u591a\u6469\u5ddd\u30c8\u30f3\u30cd\u30eb\uff09","survey_name":"R4\u591a\u6469\u5ddd\u30c8\u30f3\u30cd\u30eb\u5730\u8cea\u88dc\u8db3\u8abf\u67fb\u696d\u52d9","client_name":"\u56fd\u571f\u4ea4\u901a\u7701\u95a2\u6771\u5730\u65b9\u6574\u5099\u5c40\u5ddd\u5d0e\u56fd\u9053\u4e8b\u52d9\u6240","boring_xml_url":47,"boring_view_url":1,"soilmap_view_url":null,"soiltest_xml_url":0,"soiltest_view_url":0},{"id":701561,"code":"NGIC202305799-0014","latitude":"35.511101388889","longitude":"139.78293222222","source_code":"","project_name":"\u56fd\u9053357\u53f7 \u6771\u4eac\u6e7e\u5cb8\u9053\u8def\uff08\u591a\u6469\u5ddd\u30c8\u30f3\u30cd\u30eb\uff09","survey_name":"R4\u591a\u6469\u5ddd\u30c8\u30f3\u30cd\u30eb\u5730\u8cea\u88dc\u8db3\u8abf\u67fb\u696d\u52d9","client_name":"\u56fd\u571f\u4ea4\u901a\u7701\u95a2\u6771\u5730\u65b9\u6574\u5099\u5c40\u5ddd\u5d0e\u56fd\u9053\u4e8b\u52d9\u6240","boring_xml_url":47,"boring_view_url":1,"soilmap_view_url":null,"soiltest_xml_url":47,"soiltest_view_url":47},{"id":701560,"code":"NGIC202305799-0013","latitude":"35.513036111111","longitude":"139.78420611111","source_code":"","project_name":"\u56fd\u9053357\u53f7 \u6771\u4eac\u6e7e\u5cb8\u9053\u8def\uff08\u591a\u6469\u5ddd\u30c8\u30f3\u30cd\u30eb\uff09","survey_name":"R4\u591a\u6469\u5ddd\u30c8\u30f3\u30cd\u30eb\u5730\u8cea\u88dc\u8db3\u8abf\u67fb\u696d\u52d9","client_name":"\u56fd\u571f\u4ea4\u901a\u7701\u95a2\u6771\u5730\u65b9\u6574\u5099\u5c40\u5ddd\u5d0e\u56fd\u9053\u4e8b\u52d9\u6240","boring_xml_url":47,"boring_view_url":1,"soilmap_view_url":null,"soiltest_xml_url":47,"soiltest_view_url":47},{"id":701559,"code":"NGIC202305799-0012","latitude":"35.512448888889","longitude":"139.78530722222","source_code":"","project_name":"\u56fd\u9053357\u53f7 \u6771\u4eac\u6e7e\u5cb8\u9053\u8def\uff08\u591a\u6469\u5ddd\u30c8\u30f3\u30cd\u30eb\uff09","survey_name":"R4\u591a\u6469\u5ddd\u30c8\u30f3\u30cd\u30eb\u5730\u8cea\u88dc\u8db3\u8abf\u67fb\u696d\u52d9","client_name":"\u56fd\u571f\u4ea4\u901a\u7701\u95a2\u6771\u5730\u65b9\u6574\u5099\u5c40\u5ddd\u5d0e\u56fd\u9053\u4e8b\u52d9\u6240","boring_xml_url":47,"boring_view_url":1,"soilmap_view_url":null,"soiltest_xml_url":47,"soiltest_view_url":47},{"id":701558,"code":"NGIC202305799-0011","latitude":"35.512924722222","longitude":"139.78588055556","source_code":"","project_name":"\u56fd\u9053357\u53f7 \u6771\u4eac\u6e7e\u5cb8\u9053\u8def\uff08\u591a\u6469\u5ddd\u30c8\u30f3\u30cd\u30eb\uff09","survey_name":"R4\u591a\u6469\u5ddd\u30c8\u30f3\u30cd\u30eb\u5730\u8cea\u88dc\u8db3\u8abf\u67fb\u696d\u52d9","client_name":"\u56fd\u571f\u4ea4\u901a\u7701\u95a2\u6771\u5730\u65b9\u6574\u5099\u5c40\u5ddd\u5d0e\u56fd\u9053\u4e8b\u52d9\u6240","boring_xml_url":47,"boring_view_url":1,"soilmap_view_url":null,"soiltest_xml_url":47,"soiltest_view_url":47},{"id":701557,"code":"NGIC202305799-0010","latitude":"35.513720555556","longitude":"139.78419416667","source_code":"","project_name":"\u56fd\u9053357\u53f7 \u6771\u4eac\u6e7e\u5cb8\u9053\u8def\uff08\u591a\u6469\u5ddd\u30c8\u30f3\u30cd\u30eb\uff09","survey_name":"R4\u591a\u6469\u5ddd\u30c8\u30f3\u30cd\u30eb\u5730\u8cea\u88dc\u8db3\u8abf\u67fb\u696d\u52d9","client_name":"\u56fd\u571f\u4ea4\u901a\u7701\u95a2\u6771\u5730\u65b9\u6574\u5099\u5c40\u5ddd\u5d0e\u56fd\u9053\u4e8b\u52d9\u6240","boring_xml_url":47,"boring_view_url":1,"soilmap_view_url":null,"soiltest_xml_url":47,"soiltest_view_url":47},{"id":701556,"code":"NGIC202305799-0009","latitude":"35.525016944444","longitude":"139.79293025","source_code":"","project_name":"\u56fd\u9053357\u53f7 \u6771\u4eac\u6e7e\u5cb8\u9053\u8def\uff08\u591a\u6469\u5ddd\u30c8\u30f3\u30cd\u30eb\uff09","survey_name":"R4\u591a\u6469\u5ddd\u30c8\u30f3\u30cd\u30eb\u5730\u8cea\u88dc\u8db3\u8abf\u67fb\u696d\u52d9","client_name":"\u56fd\u571f\u4ea4\u901a\u7701\u95a2\u6771\u5730\u65b9\u6574\u5099\u5c40\u5ddd\u5d0e\u56fd\u9053\u4e8b\u52d9\u6240","boring_xml_url":47,"boring_view_url":1,"soilmap_view_url":null,"soiltest_xml_url":47,"soiltest_view_url":47},{"id":701555,"code":"NGIC202305799-0008","latitude":"35.525940805556","longitude":"139.79318163889","source_code":"","project_name":"\u56fd\u9053357\u53f7 \u6771\u4eac\u6e7e\u5cb8\u9053\u8def\uff08\u591a\u6469\u5ddd\u30c8\u30f3\u30cd\u30eb\uff09","survey_name":"R4\u591a\u6469\u5ddd\u30c8\u30f3\u30cd\u30eb\u5730\u8cea\u88dc\u8db3\u8abf\u67fb\u696d\u52d9","client_name":"\u56fd\u571f\u4ea4\u901a\u7701\u95a2\u6771\u5730\u65b9\u6574\u5099\u5c40\u5ddd\u5d0e\u56fd\u9053\u4e8b\u52d9\u6240","boring_xml_url":47,"boring_view_url":1,"soilmap_view_url":null,"soiltest_xml_url":47,"soiltest_view_url":47},{"id":701554,"code":"NGIC202305799-0007","latitude":"35.527315722222","longitude":"139.79357330556","source_code":"","project_name":"\u56fd\u9053357\u53f7 \u6771\u4eac\u6e7e\u5cb8\u9053\u8def\uff08\u591a\u6469\u5ddd\u30c8\u30f3\u30cd\u30eb\uff09","survey_name":"R4\u591a\u6469\u5ddd\u30c8\u30f3\u30cd\u30eb\u5730\u8cea\u88dc\u8db3\u8abf\u67fb\u696d\u52d9","client_name":"\u56fd\u571f\u4ea4\u901a\u7701\u95a2\u6771\u5730\u65b9\u6574\u5099\u5c40\u5ddd\u5d0e\u56fd\u9053\u4e8b\u52d9\u6240","boring_xml_url":47,"boring_view_url":1,"soilmap_view_url":null,"soiltest_xml_url":47,"soiltest_view_url":47},{"id":701553,"code":"NGIC202305799-0006","latitude":"35.528690111111","longitude":"139.79395525","source_code":"","project_name":"\u56fd\u9053357\u53f7 \u6771\u4eac\u6e7e\u5cb8\u9053\u8def\uff08\u591a\u6469\u5ddd\u30c8\u30f3\u30cd\u30eb\uff09","survey_name":"R4\u591a\u6469\u5ddd\u30c8\u30f3\u30cd\u30eb\u5730\u8cea\u88dc\u8db3\u8abf\u67fb\u696d\u52d9","client_name":"\u56fd\u571f\u4ea4\u901a\u7701\u95a2\u6771\u5730\u65b9\u6574\u5099\u5c40\u5ddd\u5d0e\u56fd\u9053\u4e8b\u52d9\u6240","boring_xml_url":47,"boring_view_url":1,"soilmap_view_url":null,"soiltest_xml_url":47,"soiltest_view_url":47},{"id":701552,"code":"NGIC202305799-0005","latitude":"35.529669583333","longitude":"139.79425966667","source_code":"","project_name":"\u56fd\u9053357\u53f7 \u6771\u4eac\u6e7e\u5cb8\u9053\u8def\uff08\u591a\u6469\u5ddd\u30c8\u30f3\u30cd\u30eb\uff09","survey_name":"R4\u591a\u6469\u5ddd\u30c8\u30f3\u30cd\u30eb\u5730\u8cea\u88dc\u8db3\u8abf\u67fb\u696d\u52d9","client_name":"\u56fd\u571f\u4ea4\u901a\u7701\u95a2\u6771\u5730\u65b9\u6574\u5099\u5c40\u5ddd\u5d0e\u56fd\u9053\u4e8b\u52d9\u6240","boring_xml_url":47,"boring_view_url":1,"soilmap_view_url":null,"soiltest_xml_url":47,"soiltest_view_url":47},{"id":701551,"code":"NGIC202305799-0004","latitude":"35.531421722222","longitude":"139.79470808333","source_code":"","project_name":"\u56fd\u9053357\u53f7 \u6771\u4eac\u6e7e\u5cb8\u9053\u8def\uff08\u591a\u6469\u5ddd\u30c8\u30f3\u30cd\u30eb\uff09","survey_name":"R4\u591a\u6469\u5ddd\u30c8\u30f3\u30cd\u30eb\u5730\u8cea\u88dc\u8db3\u8abf\u67fb\u696d\u52d9","client_name":"\u56fd\u571f\u4ea4\u901a\u7701\u95a2\u6771\u5730\u65b9\u6574\u5099\u5c40\u5ddd\u5d0e\u56fd\u9053\u4e8b\u52d9\u6240","boring_xml_url":47,"boring_view_url":1,"soilmap_view_url":null,"soiltest_xml_url":47,"soiltest_view_url":47},{"id":701550,"code":"NGIC202305799-0003","latitude":"35.533092388889","longitude":"139.79490844444","source_code":"","project_name":"\u56fd\u9053357\u53f7 \u6771\u4eac\u6e7e\u5cb8\u9053\u8def\uff08\u591a\u6469\u5ddd\u30c8\u30f3\u30cd\u30eb\uff09","survey_name":"R4\u591a\u6469\u5ddd\u30c8\u30f3\u30cd\u30eb\u5730\u8cea\u88dc\u8db3\u8abf\u67fb\u696d\u52d9","client_name":"\u56fd\u571f\u4ea4\u901a\u7701\u95a2\u6771\u5730\u65b9\u6574\u5099\u5c40\u5ddd\u5d0e\u56fd\u9053\u4e8b\u52d9\u6240","boring_xml_url":47,"boring_view_url":1,"soilmap_view_url":null,"soiltest_xml_url":47,"soiltest_view_url":47},{"id":701549,"code":"NGIC202305799-0002","latitude":"35.533921166667","longitude":"139.79476908333","source_code":"","project_name":"\u56fd\u9053357\u53f7 \u6771\u4eac\u6e7e\u5cb8\u9053\u8def\uff08\u591a\u6469\u5ddd\u30c8\u30f3\u30cd\u30eb\uff09","survey_name":"R4\u591a\u6469\u5ddd\u30c8\u30f3\u30cd\u30eb\u5730\u8cea\u88dc\u8db3\u8abf\u67fb\u696d\u52d9","client_name":"\u56fd\u571f\u4ea4\u901a\u7701\u95a2\u6771\u5730\u65b9\u6574\u5099\u5c40\u5ddd\u5d0e\u56fd\u9053\u4e8b\u52d9\u6240","boring_xml_url":47,"boring_view_url":1,"soilmap_view_url":null,"soiltest_xml_url":47,"soiltest_view_url":47},{"id":701548,"code":"NGIC202305799-0001","latitude":"35.535789722222","longitude":"139.7946035","source_code":"","project_name":"\u56fd\u9053357\u53f7 \u6771\u4eac\u6e7e\u5cb8\u9053\u8def\uff08\u591a\u6469\u5ddd\u30c8\u30f3\u30cd\u30eb\uff09","survey_name":"R4\u591a\u6469\u5ddd\u30c8\u30f3\u30cd\u30eb\u5730\u8cea\u88dc\u8db3\u8abf\u67fb\u696d\u52d9","client_name":"\u56fd\u571f\u4ea4\u901a\u7701\u95a2\u6771\u5730\u65b9\u6574\u5099\u5c40\u5ddd\u5d0e\u56fd\u9053\u4e8b\u52d9\u6240","boring_xml_url":47,"boring_view_url":1,"soilmap_view_url":null,"soiltest_xml_url":47,"soiltest_view_url":47},{"id":701545,"code":"NGIC202306030-0007","latitude":"35.238915972222","longitude":"137.83853583333","source_code":"","project_name":"\u4ee4\u548c5\u5e74\u5ea6\u5929\u7adc\u5ddd\u4e2d\u6d41\u5730\u3059\u3079\u308a\u5730\u8cea\u8abf\u67fb\u696d\u52d9","survey_name":"\u4ee4\u548c5\u5e74\u5ea6\u5929\u7adc\u5ddd\u4e2d\u6d41\u5730\u3059\u3079\u308a\u5730\u8cea\u8abf\u67fb\u696d\u52d9","client_name":"\u56fd\u571f\u4ea4\u901a\u7701\u4e2d\u90e8\u5730\u65b9\u6574\u5099\u5c40\u5929\u7adc\u5ddd\u4e0a\u6d41\u6cb3\u5ddd\u4e8b\u52d9\u6240","boring_xml_url":47,"boring_view_url":1,"soilmap_view_url":null,"soiltest_xml_url":0,"soiltest_view_url":0},{"id":701544,"code":"NGIC202306030-0006","latitude":"35.239919861111","longitude":"137.83807913889","source_code":"","project_name":"\u4ee4\u548c5\u5e74\u5ea6\u5929\u7adc\u5ddd\u4e2d\u6d41\u5730\u3059\u3079\u308a\u5730\u8cea\u8abf\u67fb\u696d\u52d9","survey_name":"\u4ee4\u548c5\u5e74\u5ea6\u5929\u7adc\u5ddd\u4e2d\u6d41\u5730\u3059\u3079\u308a\u5730\u8cea\u8abf\u67fb\u696d\u52d9","client_name":"\u56fd\u571f\u4ea4\u901a\u7701\u4e2d\u90e8\u5730\u65b9\u6574\u5099\u5c40\u5929\u7adc\u5ddd\u4e0a\u6d41\u6cb3\u5ddd\u4e8b\u52d9\u6240","boring_xml_url":47,"boring_view_url":1,"soilmap_view_url":null,"soiltest_xml_url":0,"soiltest_view_url":0}]}}