{"header":{"xyz":{"source":[],"mosaic":false},"page":3003,"raw":{"soiltest_result":"0","bbox":"57.598333,109.544722,1.933333,163.806111","page":"3003"},"conditions":{"soiltest_result":0,"north":57.598333,"west":109.544722,"south":1.933333,"east":163.806111},"success":true,"message":""},"data":{"meta":{"total":212844,"page":3003,"pages":7095,"count":30},"values":[{"id":240459,"code":"B4KJ201802000-5939","latitude":"43.860556","longitude":"141.74925","source_code":"HK20073020540006","project_name":"","survey_name":"\u6df1\u5ddd\u7559\u840c\u81ea\u52d5\u8eca\u9053 \u7559\u840c\u5e02 \u5fa1\u6599\u5730\u8cea\u8abf\u67fb\u696d\u52d9","client_name":"\u7559\u840c\u958b\u767a\u5efa\u8a2d\u90e8","boring_xml_url":43,"boring_view_url":1,"soilmap_view_url":null,"soiltest_xml_url":0,"soiltest_view_url":0},{"id":240458,"code":"B4KJ201802000-5938","latitude":"43.859944","longitude":"141.748194","source_code":"HK20073020540005","project_name":"","survey_name":"\u6df1\u5ddd\u7559\u840c\u81ea\u52d5\u8eca\u9053 \u7559\u840c\u5e02 \u5fa1\u6599\u5730\u8cea\u8abf\u67fb\u696d\u52d9","client_name":"\u7559\u840c\u958b\u767a\u5efa\u8a2d\u90e8","boring_xml_url":43,"boring_view_url":1,"soilmap_view_url":null,"soiltest_xml_url":0,"soiltest_view_url":0},{"id":240457,"code":"B4KJ201802000-5937","latitude":"43.859917","longitude":"141.748972","source_code":"HK20073020540004","project_name":"","survey_name":"\u6df1\u5ddd\u7559\u840c\u81ea\u52d5\u8eca\u9053 \u7559\u840c\u5e02 \u5fa1\u6599\u5730\u8cea\u8abf\u67fb\u696d\u52d9","client_name":"\u7559\u840c\u958b\u767a\u5efa\u8a2d\u90e8","boring_xml_url":43,"boring_view_url":1,"soilmap_view_url":null,"soiltest_xml_url":0,"soiltest_view_url":0},{"id":240456,"code":"B4KJ201802000-5936","latitude":"43.859917","longitude":"141.748972","source_code":"HK20073020540003","project_name":"","survey_name":"\u6df1\u5ddd\u7559\u840c\u81ea\u52d5\u8eca\u9053 \u7559\u840c\u5e02 \u5fa1\u6599\u5730\u8cea\u8abf\u67fb\u696d\u52d9","client_name":"\u7559\u840c\u958b\u767a\u5efa\u8a2d\u90e8","boring_xml_url":43,"boring_view_url":1,"soilmap_view_url":null,"soiltest_xml_url":0,"soiltest_view_url":0},{"id":240455,"code":"B4KJ201802000-5935","latitude":"43.859611","longitude":"141.748694","source_code":"HK20073020540002","project_name":"","survey_name":"\u6df1\u5ddd\u7559\u840c\u81ea\u52d5\u8eca\u9053 \u7559\u840c\u5e02 \u5fa1\u6599\u5730\u8cea\u8abf\u67fb\u696d\u52d9","client_name":"\u7559\u840c\u958b\u767a\u5efa\u8a2d\u90e8","boring_xml_url":43,"boring_view_url":1,"soilmap_view_url":null,"soiltest_xml_url":0,"soiltest_view_url":0},{"id":240454,"code":"B4KJ201802000-5934","latitude":"43.859611","longitude":"141.749222","source_code":"HK20073020540001","project_name":"","survey_name":"\u6df1\u5ddd\u7559\u840c\u81ea\u52d5\u8eca\u9053 \u7559\u840c\u5e02 \u5fa1\u6599\u5730\u8cea\u8abf\u67fb\u696d\u52d9","client_name":"\u7559\u840c\u958b\u767a\u5efa\u8a2d\u90e8","boring_xml_url":43,"boring_view_url":1,"soilmap_view_url":null,"soiltest_xml_url":0,"soiltest_view_url":0},{"id":240453,"code":"B4KJ201802000-5933","latitude":"44.993417","longitude":"141.816139","source_code":"HK20123006420054","project_name":"\u7fbd\u5e4c\u9053\u8def\u4e8b\u52d9\u6240\u7ba1\u5185 \u5730\u8cea\u8abf\u67fb\u696d\u52d9","survey_name":"\u7fbd\u5e4c\u9053\u8def\u4e8b\u52d9\u6240\u7ba1\u5185 \u5730\u8cea\u8abf\u67fb\u696d\u52d9","client_name":"\u7559\u840c\u958b\u767a\u5efa\u8a2d\u90e8","boring_xml_url":43,"boring_view_url":1,"soilmap_view_url":null,"soiltest_xml_url":0,"soiltest_view_url":0},{"id":240452,"code":"B4KJ201802000-5932","latitude":"44.289667","longitude":"141.654167","source_code":"HK20123006420053","project_name":"\u7fbd\u5e4c\u9053\u8def\u4e8b\u52d9\u6240\u7ba1\u5185 \u5730\u8cea\u8abf\u67fb\u696d\u52d9","survey_name":"\u7fbd\u5e4c\u9053\u8def\u4e8b\u52d9\u6240\u7ba1\u5185 \u5730\u8cea\u8abf\u67fb\u696d\u52d9","client_name":"\u7559\u840c\u958b\u767a\u5efa\u8a2d\u90e8","boring_xml_url":43,"boring_view_url":1,"soilmap_view_url":null,"soiltest_xml_url":0,"soiltest_view_url":0},{"id":240451,"code":"B4KJ201802000-5931","latitude":"44.300778","longitude":"141.652639","source_code":"HK20123006420052","project_name":"\u7fbd\u5e4c\u9053\u8def\u4e8b\u52d9\u6240\u7ba1\u5185 \u5730\u8cea\u8abf\u67fb\u696d\u52d9","survey_name":"\u7fbd\u5e4c\u9053\u8def\u4e8b\u52d9\u6240\u7ba1\u5185 \u5730\u8cea\u8abf\u67fb\u696d\u52d9","client_name":"\u7559\u840c\u958b\u767a\u5efa\u8a2d\u90e8","boring_xml_url":43,"boring_view_url":1,"soilmap_view_url":null,"soiltest_xml_url":0,"soiltest_view_url":0},{"id":240450,"code":"B4KJ201802000-5930","latitude":"44.302444","longitude":"141.652889","source_code":"HK20123006420051","project_name":"\u7fbd\u5e4c\u9053\u8def\u4e8b\u52d9\u6240\u7ba1\u5185 \u5730\u8cea\u8abf\u67fb\u696d\u52d9","survey_name":"\u7fbd\u5e4c\u9053\u8def\u4e8b\u52d9\u6240\u7ba1\u5185 \u5730\u8cea\u8abf\u67fb\u696d\u52d9","client_name":"\u7559\u840c\u958b\u767a\u5efa\u8a2d\u90e8","boring_xml_url":43,"boring_view_url":1,"soilmap_view_url":null,"soiltest_xml_url":0,"soiltest_view_url":0},{"id":240449,"code":"B4KJ201802000-5929","latitude":"44.284944","longitude":"141.657472","source_code":"HK20123006420050","project_name":"\u7fbd\u5e4c\u9053\u8def\u4e8b\u52d9\u6240\u7ba1\u5185 \u5730\u8cea\u8abf\u67fb\u696d\u52d9","survey_name":"\u7fbd\u5e4c\u9053\u8def\u4e8b\u52d9\u6240\u7ba1\u5185 \u5730\u8cea\u8abf\u67fb\u696d\u52d9","client_name":"\u7559\u840c\u958b\u767a\u5efa\u8a2d\u90e8","boring_xml_url":43,"boring_view_url":1,"soilmap_view_url":null,"soiltest_xml_url":0,"soiltest_view_url":0},{"id":240448,"code":"B4KJ201802000-5928","latitude":"44.285083","longitude":"141.657222","source_code":"HK20123006420049","project_name":"\u7fbd\u5e4c\u9053\u8def\u4e8b\u52d9\u6240\u7ba1\u5185 \u5730\u8cea\u8abf\u67fb\u696d\u52d9","survey_name":"\u7fbd\u5e4c\u9053\u8def\u4e8b\u52d9\u6240\u7ba1\u5185 \u5730\u8cea\u8abf\u67fb\u696d\u52d9","client_name":"\u7559\u840c\u958b\u767a\u5efa\u8a2d\u90e8","boring_xml_url":43,"boring_view_url":1,"soilmap_view_url":null,"soiltest_xml_url":0,"soiltest_view_url":0},{"id":240447,"code":"B4KJ201802000-5927","latitude":"44.937","longitude":"141.758083","source_code":"HK20123006420048","project_name":"\u7fbd\u5e4c\u9053\u8def\u4e8b\u52d9\u6240\u7ba1\u5185 \u5730\u8cea\u8abf\u67fb\u696d\u52d9","survey_name":"\u7fbd\u5e4c\u9053\u8def\u4e8b\u52d9\u6240\u7ba1\u5185 \u5730\u8cea\u8abf\u67fb\u696d\u52d9","client_name":"\u7559\u840c\u958b\u767a\u5efa\u8a2d\u90e8","boring_xml_url":43,"boring_view_url":1,"soilmap_view_url":null,"soiltest_xml_url":0,"soiltest_view_url":0},{"id":240446,"code":"B4KJ201802000-5926","latitude":"44.256222","longitude":"141.656361","source_code":"HK20123006420047","project_name":"\u7fbd\u5e4c\u9053\u8def\u4e8b\u52d9\u6240\u7ba1\u5185 \u5730\u8cea\u8abf\u67fb\u696d\u52d9","survey_name":"\u7fbd\u5e4c\u9053\u8def\u4e8b\u52d9\u6240\u7ba1\u5185 \u5730\u8cea\u8abf\u67fb\u696d\u52d9","client_name":"\u7559\u840c\u958b\u767a\u5efa\u8a2d\u90e8","boring_xml_url":43,"boring_view_url":1,"soilmap_view_url":null,"soiltest_xml_url":0,"soiltest_view_url":0},{"id":240445,"code":"B4KJ201802000-5925","latitude":"44.295278","longitude":"141.653556","source_code":"HK20123006420046","project_name":"\u7fbd\u5e4c\u9053\u8def\u4e8b\u52d9\u6240\u7ba1\u5185 \u5730\u8cea\u8abf\u67fb\u696d\u52d9","survey_name":"\u7fbd\u5e4c\u9053\u8def\u4e8b\u52d9\u6240\u7ba1\u5185 \u5730\u8cea\u8abf\u67fb\u696d\u52d9","client_name":"\u7559\u840c\u958b\u767a\u5efa\u8a2d\u90e8","boring_xml_url":43,"boring_view_url":1,"soilmap_view_url":null,"soiltest_xml_url":0,"soiltest_view_url":0},{"id":240444,"code":"B4KJ201802000-5924","latitude":"44.457056","longitude":"141.760083","source_code":"HK20123006420045","project_name":"\u7fbd\u5e4c\u9053\u8def\u4e8b\u52d9\u6240\u7ba1\u5185 \u5730\u8cea\u8abf\u67fb\u696d\u52d9","survey_name":"\u7fbd\u5e4c\u9053\u8def\u4e8b\u52d9\u6240\u7ba1\u5185 \u5730\u8cea\u8abf\u67fb\u696d\u52d9","client_name":"\u7559\u840c\u958b\u767a\u5efa\u8a2d\u90e8","boring_xml_url":43,"boring_view_url":1,"soilmap_view_url":null,"soiltest_xml_url":0,"soiltest_view_url":0},{"id":240443,"code":"B4KJ201802000-5923","latitude":"44.318528","longitude":"141.666028","source_code":"HK20123006420044","project_name":"\u7fbd\u5e4c\u9053\u8def\u4e8b\u52d9\u6240\u7ba1\u5185 \u5730\u8cea\u8abf\u67fb\u696d\u52d9","survey_name":"\u7fbd\u5e4c\u9053\u8def\u4e8b\u52d9\u6240\u7ba1\u5185 \u5730\u8cea\u8abf\u67fb\u696d\u52d9","client_name":"\u7559\u840c\u958b\u767a\u5efa\u8a2d\u90e8","boring_xml_url":43,"boring_view_url":1,"soilmap_view_url":null,"soiltest_xml_url":0,"soiltest_view_url":0},{"id":240442,"code":"B4KJ201802000-5922","latitude":"44.319028","longitude":"141.666639","source_code":"HK20123006420043","project_name":"\u7fbd\u5e4c\u9053\u8def\u4e8b\u52d9\u6240\u7ba1\u5185 \u5730\u8cea\u8abf\u67fb\u696d\u52d9","survey_name":"\u7fbd\u5e4c\u9053\u8def\u4e8b\u52d9\u6240\u7ba1\u5185 \u5730\u8cea\u8abf\u67fb\u696d\u52d9","client_name":"\u7559\u840c\u958b\u767a\u5efa\u8a2d\u90e8","boring_xml_url":43,"boring_view_url":1,"soilmap_view_url":null,"soiltest_xml_url":0,"soiltest_view_url":0},{"id":240441,"code":"B4KJ201802000-5921","latitude":"44.72875","longitude":"141.798667","source_code":"HK20123006420042","project_name":"\u7fbd\u5e4c\u9053\u8def\u4e8b\u52d9\u6240\u7ba1\u5185 \u5730\u8cea\u8abf\u67fb\u696d\u52d9","survey_name":"\u7fbd\u5e4c\u9053\u8def\u4e8b\u52d9\u6240\u7ba1\u5185 \u5730\u8cea\u8abf\u67fb\u696d\u52d9","client_name":"\u7559\u840c\u958b\u767a\u5efa\u8a2d\u90e8","boring_xml_url":43,"boring_view_url":1,"soilmap_view_url":null,"soiltest_xml_url":0,"soiltest_view_url":0},{"id":240440,"code":"B4KJ201802000-5920","latitude":"44.729028","longitude":"141.798583","source_code":"HK20123006420041","project_name":"\u7fbd\u5e4c\u9053\u8def\u4e8b\u52d9\u6240\u7ba1\u5185 \u5730\u8cea\u8abf\u67fb\u696d\u52d9","survey_name":"\u7fbd\u5e4c\u9053\u8def\u4e8b\u52d9\u6240\u7ba1\u5185 \u5730\u8cea\u8abf\u67fb\u696d\u52d9","client_name":"\u7559\u840c\u958b\u767a\u5efa\u8a2d\u90e8","boring_xml_url":43,"boring_view_url":1,"soilmap_view_url":null,"soiltest_xml_url":0,"soiltest_view_url":0},{"id":240439,"code":"B4KJ201802000-5919","latitude":"44.367778","longitude":"141.704611","source_code":"HK20123006420040","project_name":"\u7fbd\u5e4c\u9053\u8def\u4e8b\u52d9\u6240\u7ba1\u5185 \u5730\u8cea\u8abf\u67fb\u696d\u52d9","survey_name":"\u7fbd\u5e4c\u9053\u8def\u4e8b\u52d9\u6240\u7ba1\u5185 \u5730\u8cea\u8abf\u67fb\u696d\u52d9","client_name":"\u7559\u840c\u958b\u767a\u5efa\u8a2d\u90e8","boring_xml_url":43,"boring_view_url":1,"soilmap_view_url":null,"soiltest_xml_url":0,"soiltest_view_url":0},{"id":240438,"code":"B4KJ201802000-5918","latitude":"44.3685","longitude":"141.705528","source_code":"HK20123006420039","project_name":"\u7fbd\u5e4c\u9053\u8def\u4e8b\u52d9\u6240\u7ba1\u5185 \u5730\u8cea\u8abf\u67fb\u696d\u52d9","survey_name":"\u7fbd\u5e4c\u9053\u8def\u4e8b\u52d9\u6240\u7ba1\u5185 \u5730\u8cea\u8abf\u67fb\u696d\u52d9","client_name":"\u7559\u840c\u958b\u767a\u5efa\u8a2d\u90e8","boring_xml_url":43,"boring_view_url":1,"soilmap_view_url":null,"soiltest_xml_url":0,"soiltest_view_url":0},{"id":240437,"code":"B4KJ201802000-5917","latitude":"44.546361","longitude":"141.767194","source_code":"HK20123006420038","project_name":"\u7fbd\u5e4c\u9053\u8def\u4e8b\u52d9\u6240\u7ba1\u5185 \u5730\u8cea\u8abf\u67fb\u696d\u52d9","survey_name":"\u7fbd\u5e4c\u9053\u8def\u4e8b\u52d9\u6240\u7ba1\u5185 \u5730\u8cea\u8abf\u67fb\u696d\u52d9","client_name":"\u7559\u840c\u958b\u767a\u5efa\u8a2d\u90e8","boring_xml_url":43,"boring_view_url":1,"soilmap_view_url":null,"soiltest_xml_url":0,"soiltest_view_url":0},{"id":240436,"code":"B4KJ201802000-5916","latitude":"44.546667","longitude":"141.767778","source_code":"HK20123006420037","project_name":"\u7fbd\u5e4c\u9053\u8def\u4e8b\u52d9\u6240\u7ba1\u5185 \u5730\u8cea\u8abf\u67fb\u696d\u52d9","survey_name":"\u7fbd\u5e4c\u9053\u8def\u4e8b\u52d9\u6240\u7ba1\u5185 \u5730\u8cea\u8abf\u67fb\u696d\u52d9","client_name":"\u7559\u840c\u958b\u767a\u5efa\u8a2d\u90e8","boring_xml_url":43,"boring_view_url":1,"soilmap_view_url":null,"soiltest_xml_url":0,"soiltest_view_url":0},{"id":240435,"code":"B4KJ201802000-5915","latitude":"44.289722","longitude":"141.654472","source_code":"HK20123006420036","project_name":"\u7fbd\u5e4c\u9053\u8def\u4e8b\u52d9\u6240\u7ba1\u5185 \u5730\u8cea\u8abf\u67fb\u696d\u52d9","survey_name":"\u7fbd\u5e4c\u9053\u8def\u4e8b\u52d9\u6240\u7ba1\u5185 \u5730\u8cea\u8abf\u67fb\u696d\u52d9","client_name":"\u7559\u840c\u958b\u767a\u5efa\u8a2d\u90e8","boring_xml_url":43,"boring_view_url":1,"soilmap_view_url":null,"soiltest_xml_url":0,"soiltest_view_url":0},{"id":240434,"code":"B4KJ201802000-5914","latitude":"44.43425","longitude":"141.75025","source_code":"HK20123006420035","project_name":"\u7fbd\u5e4c\u9053\u8def\u4e8b\u52d9\u6240\u7ba1\u5185 \u5730\u8cea\u8abf\u67fb\u696d\u52d9","survey_name":"\u7fbd\u5e4c\u9053\u8def\u4e8b\u52d9\u6240\u7ba1\u5185 \u5730\u8cea\u8abf\u67fb\u696d\u52d9","client_name":"\u7559\u840c\u958b\u767a\u5efa\u8a2d\u90e8","boring_xml_url":43,"boring_view_url":1,"soilmap_view_url":null,"soiltest_xml_url":0,"soiltest_view_url":0},{"id":240433,"code":"B4KJ201802000-5913","latitude":"44.435389","longitude":"141.750667","source_code":"HK20123006420034","project_name":"\u7fbd\u5e4c\u9053\u8def\u4e8b\u52d9\u6240\u7ba1\u5185 \u5730\u8cea\u8abf\u67fb\u696d\u52d9","survey_name":"\u7fbd\u5e4c\u9053\u8def\u4e8b\u52d9\u6240\u7ba1\u5185 \u5730\u8cea\u8abf\u67fb\u696d\u52d9","client_name":"\u7559\u840c\u958b\u767a\u5efa\u8a2d\u90e8","boring_xml_url":43,"boring_view_url":1,"soilmap_view_url":null,"soiltest_xml_url":0,"soiltest_view_url":0},{"id":240432,"code":"B4KJ201802000-5912","latitude":"44.442833","longitude":"141.753778","source_code":"HK20123006420033","project_name":"\u7fbd\u5e4c\u9053\u8def\u4e8b\u52d9\u6240\u7ba1\u5185 \u5730\u8cea\u8abf\u67fb\u696d\u52d9","survey_name":"\u7fbd\u5e4c\u9053\u8def\u4e8b\u52d9\u6240\u7ba1\u5185 \u5730\u8cea\u8abf\u67fb\u696d\u52d9","client_name":"\u7559\u840c\u958b\u767a\u5efa\u8a2d\u90e8","boring_xml_url":43,"boring_view_url":1,"soilmap_view_url":null,"soiltest_xml_url":0,"soiltest_view_url":0},{"id":240431,"code":"B4KJ201802000-5911","latitude":"44.443917","longitude":"141.754444","source_code":"HK20123006420032","project_name":"\u7fbd\u5e4c\u9053\u8def\u4e8b\u52d9\u6240\u7ba1\u5185 \u5730\u8cea\u8abf\u67fb\u696d\u52d9","survey_name":"\u7fbd\u5e4c\u9053\u8def\u4e8b\u52d9\u6240\u7ba1\u5185 \u5730\u8cea\u8abf\u67fb\u696d\u52d9","client_name":"\u7559\u840c\u958b\u767a\u5efa\u8a2d\u90e8","boring_xml_url":43,"boring_view_url":1,"soilmap_view_url":null,"soiltest_xml_url":0,"soiltest_view_url":0},{"id":240430,"code":"B4KJ201802000-5910","latitude":"44.444694","longitude":"141.755111","source_code":"HK20123006420031","project_name":"\u7fbd\u5e4c\u9053\u8def\u4e8b\u52d9\u6240\u7ba1\u5185 \u5730\u8cea\u8abf\u67fb\u696d\u52d9","survey_name":"\u7fbd\u5e4c\u9053\u8def\u4e8b\u52d9\u6240\u7ba1\u5185 \u5730\u8cea\u8abf\u67fb\u696d\u52d9","client_name":"\u7559\u840c\u958b\u767a\u5efa\u8a2d\u90e8","boring_xml_url":43,"boring_view_url":1,"soilmap_view_url":null,"soiltest_xml_url":0,"soiltest_view_url":0}]}}