{"header":{"xyz":{"source":[],"mosaic":false},"page":3009,"raw":{"soiltest_result":"0","bbox":"57.598333,109.544722,1.933333,163.806111","page":"3009"},"conditions":{"soiltest_result":0,"north":57.598333,"west":109.544722,"south":1.933333,"east":163.806111},"success":true,"message":""},"data":{"meta":{"total":212844,"page":3009,"pages":7095,"count":30},"values":[{"id":240279,"code":"B4KJ201802000-5759","latitude":"44.100194","longitude":"143.867028","source_code":"HK20092923500005","project_name":"","survey_name":"\u4e00\u822c\u56fd\u9053238\u53f7 \u4f50\u5442\u9593\u753a \u5e4c\u5ca9\u5730\u8cea\u8abf\u67fb\u696d\u52d9","client_name":"\u7db2\u8d70\u958b\u767a\u5efa\u8a2d\u90e8\u9060\u8efd\u9053\u8def\u4e8b\u52d9\u6240(\u7dad\u6301\u8ab2)","boring_xml_url":43,"boring_view_url":1,"soilmap_view_url":null,"soiltest_xml_url":0,"soiltest_view_url":0},{"id":240278,"code":"B4KJ201802000-5758","latitude":"44.099611","longitude":"143.869639","source_code":"HK20092923500004","project_name":"","survey_name":"\u4e00\u822c\u56fd\u9053238\u53f7 \u4f50\u5442\u9593\u753a \u5e4c\u5ca9\u5730\u8cea\u8abf\u67fb\u696d\u52d9","client_name":"\u7db2\u8d70\u958b\u767a\u5efa\u8a2d\u90e8\u9060\u8efd\u9053\u8def\u4e8b\u52d9\u6240(\u7dad\u6301\u8ab2)","boring_xml_url":43,"boring_view_url":1,"soilmap_view_url":null,"soiltest_xml_url":0,"soiltest_view_url":0},{"id":240277,"code":"B4KJ201802000-5757","latitude":"44.100222","longitude":"143.865278","source_code":"HK20092923500003","project_name":"","survey_name":"\u4e00\u822c\u56fd\u9053238\u53f7 \u4f50\u5442\u9593\u753a \u5e4c\u5ca9\u5730\u8cea\u8abf\u67fb\u696d\u52d9","client_name":"\u7db2\u8d70\u958b\u767a\u5efa\u8a2d\u90e8\u9060\u8efd\u9053\u8def\u4e8b\u52d9\u6240(\u7dad\u6301\u8ab2)","boring_xml_url":43,"boring_view_url":1,"soilmap_view_url":null,"soiltest_xml_url":0,"soiltest_view_url":0},{"id":240276,"code":"B4KJ201802000-5756","latitude":"44.099222","longitude":"143.871083","source_code":"HK20092923500002","project_name":"","survey_name":"\u4e00\u822c\u56fd\u9053238\u53f7 \u4f50\u5442\u9593\u753a \u5e4c\u5ca9\u5730\u8cea\u8abf\u67fb\u696d\u52d9","client_name":"\u7db2\u8d70\u958b\u767a\u5efa\u8a2d\u90e8\u9060\u8efd\u9053\u8def\u4e8b\u52d9\u6240(\u7dad\u6301\u8ab2)","boring_xml_url":43,"boring_view_url":1,"soilmap_view_url":null,"soiltest_xml_url":0,"soiltest_view_url":0},{"id":240275,"code":"B4KJ201802000-5755","latitude":"44.099917","longitude":"143.868528","source_code":"HK20092923500001","project_name":"","survey_name":"\u4e00\u822c\u56fd\u9053238\u53f7 \u4f50\u5442\u9593\u753a \u5e4c\u5ca9\u5730\u8cea\u8abf\u67fb\u696d\u52d9","client_name":"\u7db2\u8d70\u958b\u767a\u5efa\u8a2d\u90e8\u9060\u8efd\u9053\u8def\u4e8b\u52d9\u6240(\u7dad\u6301\u8ab2)","boring_xml_url":43,"boring_view_url":1,"soilmap_view_url":null,"soiltest_xml_url":43,"soiltest_view_url":42},{"id":240274,"code":"B4KJ201802000-5754","latitude":"43.9375","longitude":"143.263083","source_code":"HK20102923160002","project_name":"","survey_name":"\u4e00\u822c\u56fd\u9053333\u53f7\u9060\u8efd\u753a\u767d\u6edd\u5730\u8cea\u8abf\u67fb\u5916\u4e00\u9023\u696d\u52d9","client_name":"\u7db2\u8d70\u958b\u767a\u5efa\u8a2d\u90e8 \u9060\u8efd\u9053\u8def\u4e8b\u52d9\u6240","boring_xml_url":43,"boring_view_url":1,"soilmap_view_url":null,"soiltest_xml_url":0,"soiltest_view_url":0},{"id":240273,"code":"B4KJ201802000-5753","latitude":"43.936667","longitude":"143.260806","source_code":"HK20112923190002","project_name":"","survey_name":"\u4e00\u822c\u56fd\u9053333\u53f7 \u9060\u8efd\u753a \u767d\u6edd\u5730\u8cea\u8abf\u67fb\u696d\u52d9","client_name":"\u7db2\u8d70\u958b\u767a\u5efa\u8a2d\u90e8 \u9060\u8efd\u9053\u8def\u4e8b\u52d9\u6240","boring_xml_url":43,"boring_view_url":1,"soilmap_view_url":null,"soiltest_xml_url":0,"soiltest_view_url":0},{"id":240272,"code":"B4KJ201802000-5752","latitude":"43.936222","longitude":"143.260028","source_code":"HK20112923190001","project_name":"","survey_name":"\u4e00\u822c\u56fd\u9053333\u53f7 \u9060\u8efd\u753a \u767d\u6edd\u5730\u8cea\u8abf\u67fb\u696d\u52d9","client_name":"\u7db2\u8d70\u958b\u767a\u5efa\u8a2d\u90e8 \u9060\u8efd\u9053\u8def\u4e8b\u52d9\u6240","boring_xml_url":43,"boring_view_url":1,"soilmap_view_url":null,"soiltest_xml_url":0,"soiltest_view_url":0},{"id":240271,"code":"B4KJ201802000-5751","latitude":"44.127861","longitude":"143.557222","source_code":"HK20092923530004","project_name":"\u4e00\u822c\u56fd\u9053242\u53f7\u6e67\u5225\u753a\u4e0a\u6e67\u5225\u5730\u8cea\u8abf\u67fb\u696d\u52d9","survey_name":"\u4e00\u822c\u56fd\u9053242\u53f7\u6e67\u5225\u753a\u4e0a\u6e67\u5225\u5730\u8cea\u8abf\u67fb\u696d\u52d9","client_name":"\u7db2\u8d70\u958b\u767a\u5efa\u8a2d\u90e8 \u9060\u8efd\u9053\u8def\u4e8b\u52d9\u6240","boring_xml_url":43,"boring_view_url":1,"soilmap_view_url":null,"soiltest_xml_url":0,"soiltest_view_url":0},{"id":240270,"code":"B4KJ201802000-5750","latitude":"44.131778","longitude":"143.55975","source_code":"HK20092923530003","project_name":"\u4e00\u822c\u56fd\u9053242\u53f7\u6e67\u5225\u753a\u4e0a\u6e67\u5225\u5730\u8cea\u8abf\u67fb\u696d\u52d9","survey_name":"\u4e00\u822c\u56fd\u9053242\u53f7\u6e67\u5225\u753a\u4e0a\u6e67\u5225\u5730\u8cea\u8abf\u67fb\u696d\u52d9","client_name":"\u7db2\u8d70\u958b\u767a\u5efa\u8a2d\u90e8 \u9060\u8efd\u9053\u8def\u4e8b\u52d9\u6240","boring_xml_url":43,"boring_view_url":1,"soilmap_view_url":null,"soiltest_xml_url":0,"soiltest_view_url":0},{"id":240269,"code":"B4KJ201802000-5749","latitude":"44.157167","longitude":"143.575111","source_code":"HK20092923530002","project_name":"\u4e00\u822c\u56fd\u9053242\u53f7\u6e67\u5225\u753a\u4e0a\u6e67\u5225\u5730\u8cea\u8abf\u67fb\u696d\u52d9","survey_name":"\u4e00\u822c\u56fd\u9053242\u53f7\u6e67\u5225\u753a\u4e0a\u6e67\u5225\u5730\u8cea\u8abf\u67fb\u696d\u52d9","client_name":"\u7db2\u8d70\u958b\u767a\u5efa\u8a2d\u90e8 \u9060\u8efd\u9053\u8def\u4e8b\u52d9\u6240","boring_xml_url":43,"boring_view_url":1,"soilmap_view_url":null,"soiltest_xml_url":0,"soiltest_view_url":0},{"id":240268,"code":"B4KJ201802000-5748","latitude":"44.162944","longitude":"143.578667","source_code":"HK20092923530001","project_name":"\u4e00\u822c\u56fd\u9053242\u53f7\u6e67\u5225\u753a\u4e0a\u6e67\u5225\u5730\u8cea\u8abf\u67fb\u696d\u52d9","survey_name":"\u4e00\u822c\u56fd\u9053242\u53f7\u6e67\u5225\u753a\u4e0a\u6e67\u5225\u5730\u8cea\u8abf\u67fb\u696d\u52d9","client_name":"\u7db2\u8d70\u958b\u767a\u5efa\u8a2d\u90e8 \u9060\u8efd\u9053\u8def\u4e8b\u52d9\u6240","boring_xml_url":43,"boring_view_url":1,"soilmap_view_url":null,"soiltest_xml_url":0,"soiltest_view_url":0},{"id":240267,"code":"B4KJ201802000-5747","latitude":"43.958611","longitude":"143.529944","source_code":"HK20092923550003","project_name":"\u4e00\u822c\u56fd\u9053242\u53f7\u9060\u8efd\u753a\u8c4a\u539f\u5730\u8cea\u8abf\u67fb\u696d\u52d9","survey_name":"\u4e00\u822c\u56fd\u9053242\u53f7\u9060\u8efd\u753a\u8c4a\u539f\u5730\u8cea\u8abf\u67fb\u696d\u52d9","client_name":"\u7db2\u8d70\u958b\u767a\u5efa\u8a2d\u90e8 \u9060\u8efd\u9053\u8def\u4e8b\u52d9\u6240","boring_xml_url":43,"boring_view_url":1,"soilmap_view_url":null,"soiltest_xml_url":0,"soiltest_view_url":0},{"id":240266,"code":"B4KJ201802000-5746","latitude":"43.961861","longitude":"143.532056","source_code":"HK20092923550002","project_name":"\u4e00\u822c\u56fd\u9053242\u53f7\u9060\u8efd\u753a\u8c4a\u539f\u5730\u8cea\u8abf\u67fb\u696d\u52d9","survey_name":"\u4e00\u822c\u56fd\u9053242\u53f7\u9060\u8efd\u753a\u8c4a\u539f\u5730\u8cea\u8abf\u67fb\u696d\u52d9","client_name":"\u7db2\u8d70\u958b\u767a\u5efa\u8a2d\u90e8 \u9060\u8efd\u9053\u8def\u4e8b\u52d9\u6240","boring_xml_url":43,"boring_view_url":1,"soilmap_view_url":null,"soiltest_xml_url":0,"soiltest_view_url":0},{"id":240265,"code":"B4KJ201802000-5745","latitude":"43.967806","longitude":"143.534389","source_code":"HK20092923550001","project_name":"\u4e00\u822c\u56fd\u9053242\u53f7\u9060\u8efd\u753a\u8c4a\u539f\u5730\u8cea\u8abf\u67fb\u696d\u52d9","survey_name":"\u4e00\u822c\u56fd\u9053242\u53f7\u9060\u8efd\u753a\u8c4a\u539f\u5730\u8cea\u8abf\u67fb\u696d\u52d9","client_name":"\u7db2\u8d70\u958b\u767a\u5efa\u8a2d\u90e8 \u9060\u8efd\u9053\u8def\u4e8b\u52d9\u6240","boring_xml_url":43,"boring_view_url":1,"soilmap_view_url":null,"soiltest_xml_url":0,"soiltest_view_url":0},{"id":240264,"code":"B4KJ201802000-5744","latitude":"43.938","longitude":"143.260444","source_code":"HK20122923300002","project_name":"\u5e73\u621024\u5e74\u5ea6 \u4e00\u822c\u56fd\u9053333\u53f7 \u9060\u8efd\u753a \u6cd5\u9762\u5730\u8cea\u8abf\u67fb\u696d\u52d9","survey_name":"\u5e73\u621024\u5e74\u5ea6 \u4e00\u822c\u56fd\u9053333\u53f7 \u9060\u8efd\u753a \u6cd5\u9762\u5730\u8cea\u8abf\u67fb\u696d\u52d9","client_name":"\u7db2\u8d70\u958b\u767a\u5efa\u8a2d\u90e8 \u9060\u8efd\u958b\u767a\u4e8b\u52d9\u6240","boring_xml_url":43,"boring_view_url":1,"soilmap_view_url":null,"soiltest_xml_url":0,"soiltest_view_url":0},{"id":240263,"code":"B4KJ201802000-5743","latitude":"43.936944","longitude":"143.2615","source_code":"HK20122923300001","project_name":"\u5e73\u621024\u5e74\u5ea6 \u4e00\u822c\u56fd\u9053333\u53f7 \u9060\u8efd\u753a \u6cd5\u9762\u5730\u8cea\u8abf\u67fb\u696d\u52d9","survey_name":"\u5e73\u621024\u5e74\u5ea6 \u4e00\u822c\u56fd\u9053333\u53f7 \u9060\u8efd\u753a \u6cd5\u9762\u5730\u8cea\u8abf\u67fb\u696d\u52d9","client_name":"\u7db2\u8d70\u958b\u767a\u5efa\u8a2d\u90e8 \u9060\u8efd\u958b\u767a\u4e8b\u52d9\u6240","boring_xml_url":43,"boring_view_url":1,"soilmap_view_url":null,"soiltest_xml_url":0,"soiltest_view_url":0},{"id":240262,"code":"B4KJ201802000-5742","latitude":"44.177639","longitude":"143.658556","source_code":"HK20132920140018","project_name":"","survey_name":"\u4e00\u822c\u56fd\u9053242\u53f7\u9060\u8efd\u753a\u4f0a\u5439\u5730\u8cea\u8abf\u67fb\u5916\u4e00\u9023\u696d\u52d9","client_name":"\u7db2\u8d70\u958b\u767a\u5efa\u8a2d\u90e8 \u9060\u8efd\u958b\u767a\u4e8b\u52d9\u6240","boring_xml_url":43,"boring_view_url":1,"soilmap_view_url":null,"soiltest_xml_url":0,"soiltest_view_url":0},{"id":240261,"code":"B4KJ201802000-5741","latitude":"44.177639","longitude":"143.658556","source_code":"HK20132920140017","project_name":"","survey_name":"\u4e00\u822c\u56fd\u9053242\u53f7\u9060\u8efd\u753a\u4f0a\u5439\u5730\u8cea\u8abf\u67fb\u5916\u4e00\u9023\u696d\u52d9","client_name":"\u7db2\u8d70\u958b\u767a\u5efa\u8a2d\u90e8 \u9060\u8efd\u958b\u767a\u4e8b\u52d9\u6240","boring_xml_url":43,"boring_view_url":1,"soilmap_view_url":null,"soiltest_xml_url":43,"soiltest_view_url":42},{"id":240260,"code":"B4KJ201802000-5740","latitude":"44.177639","longitude":"143.658556","source_code":"HK20132920140016","project_name":"","survey_name":"\u4e00\u822c\u56fd\u9053242\u53f7\u9060\u8efd\u753a\u4f0a\u5439\u5730\u8cea\u8abf\u67fb\u5916\u4e00\u9023\u696d\u52d9","client_name":"\u7db2\u8d70\u958b\u767a\u5efa\u8a2d\u90e8 \u9060\u8efd\u958b\u767a\u4e8b\u52d9\u6240","boring_xml_url":43,"boring_view_url":1,"soilmap_view_url":null,"soiltest_xml_url":0,"soiltest_view_url":0},{"id":240259,"code":"B4KJ201802000-5739","latitude":"44.1775","longitude":"143.659306","source_code":"HK20132920140012","project_name":"","survey_name":"\u4e00\u822c\u56fd\u9053242\u53f7\u9060\u8efd\u753a\u4f0a\u5439\u5730\u8cea\u8abf\u67fb\u5916\u4e00\u9023\u696d\u52d9","client_name":"\u7db2\u8d70\u958b\u767a\u5efa\u8a2d\u90e8 \u9060\u8efd\u958b\u767a\u4e8b\u52d9\u6240","boring_xml_url":43,"boring_view_url":1,"soilmap_view_url":null,"soiltest_xml_url":43,"soiltest_view_url":42},{"id":240258,"code":"B4KJ201802000-5738","latitude":"44.1775","longitude":"143.659306","source_code":"HK20132920140011","project_name":"","survey_name":"\u4e00\u822c\u56fd\u9053242\u53f7\u9060\u8efd\u753a\u4f0a\u5439\u5730\u8cea\u8abf\u67fb\u5916\u4e00\u9023\u696d\u52d9","client_name":"\u7db2\u8d70\u958b\u767a\u5efa\u8a2d\u90e8 \u9060\u8efd\u958b\u767a\u4e8b\u52d9\u6240","boring_xml_url":43,"boring_view_url":1,"soilmap_view_url":null,"soiltest_xml_url":0,"soiltest_view_url":0},{"id":240257,"code":"B4KJ201802000-5737","latitude":"44.1775","longitude":"143.659306","source_code":"HK20132920140010","project_name":"","survey_name":"\u4e00\u822c\u56fd\u9053242\u53f7\u9060\u8efd\u753a\u4f0a\u5439\u5730\u8cea\u8abf\u67fb\u5916\u4e00\u9023\u696d\u52d9","client_name":"\u7db2\u8d70\u958b\u767a\u5efa\u8a2d\u90e8 \u9060\u8efd\u958b\u767a\u4e8b\u52d9\u6240","boring_xml_url":43,"boring_view_url":1,"soilmap_view_url":null,"soiltest_xml_url":43,"soiltest_view_url":42},{"id":240256,"code":"B4KJ201802000-5736","latitude":"44.1775","longitude":"143.659306","source_code":"HK20132920140009","project_name":"","survey_name":"\u4e00\u822c\u56fd\u9053242\u53f7\u9060\u8efd\u753a\u4f0a\u5439\u5730\u8cea\u8abf\u67fb\u5916\u4e00\u9023\u696d\u52d9","client_name":"\u7db2\u8d70\u958b\u767a\u5efa\u8a2d\u90e8 \u9060\u8efd\u958b\u767a\u4e8b\u52d9\u6240","boring_xml_url":43,"boring_view_url":1,"soilmap_view_url":null,"soiltest_xml_url":0,"soiltest_view_url":0},{"id":240255,"code":"B4KJ201802000-5735","latitude":"43.964722","longitude":"143.534111","source_code":"HK20132920140004","project_name":"\u4e00\u822c\u56fd\u9053242\u53f7\u9060\u8efd\u753a\u4f0a\u5439\u5730\u8cea\u8abf\u67fb\u5916\u4e00\u9023\u696d\u52d9","survey_name":"\u4e00\u822c\u56fd\u9053242\u53f7\u9060\u8efd\u753a\u4f0a\u5439\u5730\u8cea\u8abf\u67fb\u5916\u4e00\u9023\u696d\u52d9","client_name":"\u7db2\u8d70\u958b\u767a\u5efa\u8a2d\u90e8 \u9060\u8efd\u958b\u767a\u4e8b\u52d9\u6240","boring_xml_url":43,"boring_view_url":1,"soilmap_view_url":null,"soiltest_xml_url":0,"soiltest_view_url":0},{"id":240254,"code":"B4KJ201802000-5734","latitude":"43.969861","longitude":"143.532806","source_code":"HK20132920140003","project_name":"","survey_name":"\u4e00\u822c\u56fd\u9053242\u53f7\u9060\u8efd\u753a\u4f0a\u5439\u5730\u8cea\u8abf\u67fb\u5916\u4e00\u9023\u696d\u52d9","client_name":"\u7db2\u8d70\u958b\u767a\u5efa\u8a2d\u90e8 \u9060\u8efd\u958b\u767a\u4e8b\u52d9\u6240","boring_xml_url":43,"boring_view_url":1,"soilmap_view_url":null,"soiltest_xml_url":0,"soiltest_view_url":0},{"id":240253,"code":"B4KJ201802000-5733","latitude":"44.102972","longitude":"143.970333","source_code":"HK20122922130015","project_name":"","survey_name":"\u4e00\u822c\u56fd\u9053238\u53f7 \u7db2\u8d70\u5e02 \u80fd\u53d6\u5730\u8cea\u8abf\u67fb\u5916\u4e00\u9023\u696d\u52d9","client_name":"\u7db2\u8d70\u958b\u767a\u5efa\u8a2d\u90e8","boring_xml_url":43,"boring_view_url":1,"soilmap_view_url":null,"soiltest_xml_url":0,"soiltest_view_url":0},{"id":240252,"code":"B4KJ201802000-5732","latitude":"44.102806","longitude":"143.976056","source_code":"HK20122922130014","project_name":"","survey_name":"\u4e00\u822c\u56fd\u9053238\u53f7 \u7db2\u8d70\u5e02 \u80fd\u53d6\u5730\u8cea\u8abf\u67fb\u5916\u4e00\u9023\u696d\u52d9","client_name":"\u7db2\u8d70\u958b\u767a\u5efa\u8a2d\u90e8","boring_xml_url":43,"boring_view_url":1,"soilmap_view_url":null,"soiltest_xml_url":0,"soiltest_view_url":0},{"id":240251,"code":"B4KJ201802000-5731","latitude":"44.102806","longitude":"143.98","source_code":"HK20122922130013","project_name":"","survey_name":"\u4e00\u822c\u56fd\u9053238\u53f7 \u7db2\u8d70\u5e02 \u80fd\u53d6\u5730\u8cea\u8abf\u67fb\u5916\u4e00\u9023\u696d\u52d9","client_name":"\u7db2\u8d70\u958b\u767a\u5efa\u8a2d\u90e8","boring_xml_url":43,"boring_view_url":1,"soilmap_view_url":null,"soiltest_xml_url":0,"soiltest_view_url":0},{"id":240250,"code":"B4KJ201802000-5730","latitude":"44.102639","longitude":"143.984028","source_code":"HK20122922130012","project_name":"","survey_name":"\u4e00\u822c\u56fd\u9053238\u53f7 \u7db2\u8d70\u5e02 \u80fd\u53d6\u5730\u8cea\u8abf\u67fb\u5916\u4e00\u9023\u696d\u52d9","client_name":"\u7db2\u8d70\u958b\u767a\u5efa\u8a2d\u90e8","boring_xml_url":43,"boring_view_url":1,"soilmap_view_url":null,"soiltest_xml_url":0,"soiltest_view_url":0}]}}