{"header":{"xyz":{"source":[],"mosaic":false},"page":3016,"raw":{"soiltest_result":"0","bbox":"57.598333,109.544722,1.933333,163.806111","page":"3016"},"conditions":{"soiltest_result":0,"north":57.598333,"west":109.544722,"south":1.933333,"east":163.806111},"success":true,"message":""},"data":{"meta":{"total":212844,"page":3016,"pages":7095,"count":30},"values":[{"id":240069,"code":"B4KJ201802000-5549","latitude":"44.288222","longitude":"141.654806","source_code":"HK20103005560016","project_name":"","survey_name":"\u4e00\u822c\u56fd\u9053232\u53f7 \u82eb\u524d\u753a \u82eb\u524d\u5730\u8cea\u8abf\u67fb\u5916\u4e00\u9023\u696d\u52d9","client_name":"\u5317\u6d77\u9053\u958b\u767a\u5c40 \u7559\u840c\u958b\u767a\u5efa\u8a2d\u90e8","boring_xml_url":43,"boring_view_url":1,"soilmap_view_url":null,"soiltest_xml_url":0,"soiltest_view_url":0},{"id":240068,"code":"B4KJ201802000-5548","latitude":"44.290722","longitude":"141.654361","source_code":"HK20103005560015","project_name":"","survey_name":"\u4e00\u822c\u56fd\u9053232\u53f7 \u82eb\u524d\u753a \u82eb\u524d\u5730\u8cea\u8abf\u67fb\u5916\u4e00\u9023\u696d\u52d9","client_name":"\u5317\u6d77\u9053\u958b\u767a\u5c40 \u7559\u840c\u958b\u767a\u5efa\u8a2d\u90e8","boring_xml_url":43,"boring_view_url":1,"soilmap_view_url":null,"soiltest_xml_url":0,"soiltest_view_url":0},{"id":240067,"code":"B4KJ201802000-5547","latitude":"44.291167","longitude":"141.654306","source_code":"HK20103005560014","project_name":"","survey_name":"\u4e00\u822c\u56fd\u9053232\u53f7 \u82eb\u524d\u753a \u82eb\u524d\u5730\u8cea\u8abf\u67fb\u5916\u4e00\u9023\u696d\u52d9","client_name":"\u5317\u6d77\u9053\u958b\u767a\u5c40 \u7559\u840c\u958b\u767a\u5efa\u8a2d\u90e8","boring_xml_url":43,"boring_view_url":1,"soilmap_view_url":null,"soiltest_xml_url":0,"soiltest_view_url":0},{"id":240066,"code":"B4KJ201802000-5546","latitude":"44.292417","longitude":"141.654083","source_code":"HK20103005560013","project_name":"","survey_name":"\u4e00\u822c\u56fd\u9053232\u53f7 \u82eb\u524d\u753a \u82eb\u524d\u5730\u8cea\u8abf\u67fb\u5916\u4e00\u9023\u696d\u52d9","client_name":"\u5317\u6d77\u9053\u958b\u767a\u5c40 \u7559\u840c\u958b\u767a\u5efa\u8a2d\u90e8","boring_xml_url":43,"boring_view_url":1,"soilmap_view_url":null,"soiltest_xml_url":0,"soiltest_view_url":0},{"id":240065,"code":"B4KJ201802000-5545","latitude":"44.293389","longitude":"141.653944","source_code":"HK20103005560012","project_name":"","survey_name":"\u4e00\u822c\u56fd\u9053232\u53f7 \u82eb\u524d\u753a \u82eb\u524d\u5730\u8cea\u8abf\u67fb\u5916\u4e00\u9023\u696d\u52d9","client_name":"\u5317\u6d77\u9053\u958b\u767a\u5c40 \u7559\u840c\u958b\u767a\u5efa\u8a2d\u90e8","boring_xml_url":43,"boring_view_url":1,"soilmap_view_url":null,"soiltest_xml_url":0,"soiltest_view_url":0},{"id":240064,"code":"B4KJ201802000-5544","latitude":"44.293806","longitude":"141.653861","source_code":"HK20103005560011","project_name":"","survey_name":"\u4e00\u822c\u56fd\u9053232\u53f7 \u82eb\u524d\u753a \u82eb\u524d\u5730\u8cea\u8abf\u67fb\u5916\u4e00\u9023\u696d\u52d9","client_name":"\u5317\u6d77\u9053\u958b\u767a\u5c40 \u7559\u840c\u958b\u767a\u5efa\u8a2d\u90e8","boring_xml_url":43,"boring_view_url":1,"soilmap_view_url":null,"soiltest_xml_url":0,"soiltest_view_url":0},{"id":240063,"code":"B4KJ201802000-5543","latitude":"44.294861","longitude":"141.653694","source_code":"HK20103005560010","project_name":"","survey_name":"\u4e00\u822c\u56fd\u9053232\u53f7 \u82eb\u524d\u753a \u82eb\u524d\u5730\u8cea\u8abf\u67fb\u5916\u4e00\u9023\u696d\u52d9","client_name":"\u5317\u6d77\u9053\u958b\u767a\u5c40 \u7559\u840c\u958b\u767a\u5efa\u8a2d\u90e8","boring_xml_url":43,"boring_view_url":1,"soilmap_view_url":null,"soiltest_xml_url":0,"soiltest_view_url":0},{"id":240062,"code":"B4KJ201802000-5542","latitude":"44.295611","longitude":"141.653583","source_code":"HK20103005560009","project_name":"","survey_name":"\u4e00\u822c\u56fd\u9053232\u53f7 \u82eb\u524d\u753a \u82eb\u524d\u5730\u8cea\u8abf\u67fb\u5916\u4e00\u9023\u696d\u52d9","client_name":"\u5317\u6d77\u9053\u958b\u767a\u5c40 \u7559\u840c\u958b\u767a\u5efa\u8a2d\u90e8","boring_xml_url":43,"boring_view_url":1,"soilmap_view_url":null,"soiltest_xml_url":0,"soiltest_view_url":0},{"id":240061,"code":"B4KJ201802000-5541","latitude":"44.296222","longitude":"141.653139","source_code":"HK20103005560008","project_name":"","survey_name":"\u4e00\u822c\u56fd\u9053232\u53f7 \u82eb\u524d\u753a \u82eb\u524d\u5730\u8cea\u8abf\u67fb\u5916\u4e00\u9023\u696d\u52d9","client_name":"\u5317\u6d77\u9053\u958b\u767a\u5c40 \u7559\u840c\u958b\u767a\u5efa\u8a2d\u90e8","boring_xml_url":43,"boring_view_url":1,"soilmap_view_url":null,"soiltest_xml_url":0,"soiltest_view_url":0},{"id":240060,"code":"B4KJ201802000-5540","latitude":"44.300306","longitude":"141.652611","source_code":"HK20103005560007","project_name":"","survey_name":"\u4e00\u822c\u56fd\u9053232\u53f7 \u82eb\u524d\u753a \u82eb\u524d\u5730\u8cea\u8abf\u67fb\u5916\u4e00\u9023\u696d\u52d9","client_name":"\u5317\u6d77\u9053\u958b\u767a\u5c40 \u7559\u840c\u958b\u767a\u5efa\u8a2d\u90e8","boring_xml_url":43,"boring_view_url":1,"soilmap_view_url":null,"soiltest_xml_url":0,"soiltest_view_url":0},{"id":240059,"code":"B4KJ201802000-5539","latitude":"44.301139","longitude":"141.652778","source_code":"HK20103005560006","project_name":"","survey_name":"\u4e00\u822c\u56fd\u9053232\u53f7 \u82eb\u524d\u753a \u82eb\u524d\u5730\u8cea\u8abf\u67fb\u5916\u4e00\u9023\u696d\u52d9","client_name":"\u5317\u6d77\u9053\u958b\u767a\u5c40 \u7559\u840c\u958b\u767a\u5efa\u8a2d\u90e8","boring_xml_url":43,"boring_view_url":1,"soilmap_view_url":null,"soiltest_xml_url":0,"soiltest_view_url":0},{"id":240058,"code":"B4KJ201802000-5538","latitude":"44.301944","longitude":"141.652917","source_code":"HK20103005560005","project_name":"","survey_name":"\u4e00\u822c\u56fd\u9053232\u53f7 \u82eb\u524d\u753a \u82eb\u524d\u5730\u8cea\u8abf\u67fb\u5916\u4e00\u9023\u696d\u52d9","client_name":"\u5317\u6d77\u9053\u958b\u767a\u5c40 \u7559\u840c\u958b\u767a\u5efa\u8a2d\u90e8","boring_xml_url":43,"boring_view_url":1,"soilmap_view_url":null,"soiltest_xml_url":0,"soiltest_view_url":0},{"id":240057,"code":"B4KJ201802000-5537","latitude":"44.30275","longitude":"141.653056","source_code":"HK20103005560004","project_name":"","survey_name":"\u4e00\u822c\u56fd\u9053232\u53f7 \u82eb\u524d\u753a \u82eb\u524d\u5730\u8cea\u8abf\u67fb\u5916\u4e00\u9023\u696d\u52d9","client_name":"\u5317\u6d77\u9053\u958b\u767a\u5c40 \u7559\u840c\u958b\u767a\u5efa\u8a2d\u90e8","boring_xml_url":43,"boring_view_url":1,"soilmap_view_url":null,"soiltest_xml_url":0,"soiltest_view_url":0},{"id":240056,"code":"B4KJ201802000-5536","latitude":"44.303389","longitude":"141.653028","source_code":"HK20103005560003","project_name":"","survey_name":"\u4e00\u822c\u56fd\u9053232\u53f7 \u82eb\u524d\u753a \u82eb\u524d\u5730\u8cea\u8abf\u67fb\u5916\u4e00\u9023\u696d\u52d9","client_name":"\u5317\u6d77\u9053\u958b\u767a\u5c40 \u7559\u840c\u958b\u767a\u5efa\u8a2d\u90e8","boring_xml_url":43,"boring_view_url":1,"soilmap_view_url":null,"soiltest_xml_url":0,"soiltest_view_url":0},{"id":240055,"code":"B4KJ201802000-5535","latitude":"44.303917","longitude":"141.653111","source_code":"HK20103005560002","project_name":"","survey_name":"\u4e00\u822c\u56fd\u9053232\u53f7 \u82eb\u524d\u753a \u82eb\u524d\u5730\u8cea\u8abf\u67fb\u5916\u4e00\u9023\u696d\u52d9","client_name":"\u5317\u6d77\u9053\u958b\u767a\u5c40 \u7559\u840c\u958b\u767a\u5efa\u8a2d\u90e8","boring_xml_url":43,"boring_view_url":1,"soilmap_view_url":null,"soiltest_xml_url":0,"soiltest_view_url":0},{"id":240054,"code":"B4KJ201802000-5534","latitude":"44.304528","longitude":"141.65325","source_code":"HK20103005560001","project_name":"","survey_name":"\u4e00\u822c\u56fd\u9053232\u53f7 \u82eb\u524d\u753a \u82eb\u524d\u5730\u8cea\u8abf\u67fb\u5916\u4e00\u9023\u696d\u52d9","client_name":"\u5317\u6d77\u9053\u958b\u767a\u5c40 \u7559\u840c\u958b\u767a\u5efa\u8a2d\u90e8","boring_xml_url":43,"boring_view_url":1,"soilmap_view_url":null,"soiltest_xml_url":0,"soiltest_view_url":0},{"id":240053,"code":"B4KJ201802000-5533","latitude":"44.786333","longitude":"141.789972","source_code":"HK20083031120012","project_name":"\u4e00\u822c\u56fd\u9053232\u53f7 \u5929\u5869\u753a \u66f4\u5cb8\u9632\u96ea\u67f5\u8a2d\u8a08\u5916\u4e00\u9023\u696d\u52d9","survey_name":"\u4e00\u822c\u56fd\u9053232\u53f7 \u5929\u5869\u753a \u66f4\u5cb8\u9632\u96ea\u67f5\u8a2d\u8a08\u5916\u4e00\u9023\u696d\u52d9","client_name":"\u5317\u6d77\u9053\u958b\u767a\u5c40 \u7559\u840c\u958b\u767a\u5efa\u8a2d\u90e8","boring_xml_url":43,"boring_view_url":1,"soilmap_view_url":null,"soiltest_xml_url":0,"soiltest_view_url":0},{"id":240052,"code":"B4KJ201802000-5532","latitude":"44.78725","longitude":"141.79","source_code":"HK20083031120011","project_name":"\u4e00\u822c\u56fd\u9053232\u53f7 \u5929\u5869\u753a \u66f4\u5cb8\u9632\u96ea\u67f5\u8a2d\u8a08\u5916\u4e00\u9023\u696d\u52d9","survey_name":"\u4e00\u822c\u56fd\u9053232\u53f7 \u5929\u5869\u753a \u66f4\u5cb8\u9632\u96ea\u67f5\u8a2d\u8a08\u5916\u4e00\u9023\u696d\u52d9","client_name":"\u5317\u6d77\u9053\u958b\u767a\u5c40 \u7559\u840c\u958b\u767a\u5efa\u8a2d\u90e8","boring_xml_url":43,"boring_view_url":1,"soilmap_view_url":null,"soiltest_xml_url":0,"soiltest_view_url":0},{"id":240051,"code":"B4KJ201802000-5531","latitude":"44.811694","longitude":"141.783389","source_code":"HK20083031120010","project_name":"\u4e00\u822c\u56fd\u9053232\u53f7 \u5929\u5869\u753a \u66f4\u5cb8\u9632\u96ea\u67f5\u8a2d\u8a08\u5916\u4e00\u9023\u696d\u52d9","survey_name":"\u4e00\u822c\u56fd\u9053232\u53f7 \u5929\u5869\u753a \u66f4\u5cb8\u9632\u96ea\u67f5\u8a2d\u8a08\u5916\u4e00\u9023\u696d\u52d9","client_name":"\u5317\u6d77\u9053\u958b\u767a\u5c40 \u7559\u840c\u958b\u767a\u5efa\u8a2d\u90e8","boring_xml_url":43,"boring_view_url":1,"soilmap_view_url":null,"soiltest_xml_url":0,"soiltest_view_url":0},{"id":240050,"code":"B4KJ201802000-5530","latitude":"44.813417","longitude":"141.782639","source_code":"HK20083031120009","project_name":"\u4e00\u822c\u56fd\u9053232\u53f7 \u5929\u5869\u753a \u66f4\u5cb8\u9632\u96ea\u67f5\u8a2d\u8a08\u5916\u4e00\u9023\u696d\u52d9","survey_name":"\u4e00\u822c\u56fd\u9053232\u53f7 \u5929\u5869\u753a \u66f4\u5cb8\u9632\u96ea\u67f5\u8a2d\u8a08\u5916\u4e00\u9023\u696d\u52d9","client_name":"\u5317\u6d77\u9053\u958b\u767a\u5c40 \u7559\u840c\u958b\u767a\u5efa\u8a2d\u90e8","boring_xml_url":43,"boring_view_url":1,"soilmap_view_url":null,"soiltest_xml_url":0,"soiltest_view_url":0},{"id":240049,"code":"B4KJ201802000-5529","latitude":"44.818806","longitude":"141.780972","source_code":"HK20083031120008","project_name":"\u4e00\u822c\u56fd\u9053232\u53f7 \u5929\u5869\u753a \u66f4\u5cb8\u9632\u96ea\u67f5\u8a2d\u8a08\u5916\u4e00\u9023\u696d\u52d9","survey_name":"\u4e00\u822c\u56fd\u9053232\u53f7 \u5929\u5869\u753a \u66f4\u5cb8\u9632\u96ea\u67f5\u8a2d\u8a08\u5916\u4e00\u9023\u696d\u52d9","client_name":"\u5317\u6d77\u9053\u958b\u767a\u5c40 \u7559\u840c\u958b\u767a\u5efa\u8a2d\u90e8","boring_xml_url":43,"boring_view_url":1,"soilmap_view_url":null,"soiltest_xml_url":0,"soiltest_view_url":0},{"id":240048,"code":"B4KJ201802000-5528","latitude":"44.819444","longitude":"141.780667","source_code":"HK20083031120007","project_name":"\u4e00\u822c\u56fd\u9053232\u53f7 \u5929\u5869\u753a \u66f4\u5cb8\u9632\u96ea\u67f5\u8a2d\u8a08\u5916\u4e00\u9023\u696d\u52d9","survey_name":"\u4e00\u822c\u56fd\u9053232\u53f7 \u5929\u5869\u753a \u66f4\u5cb8\u9632\u96ea\u67f5\u8a2d\u8a08\u5916\u4e00\u9023\u696d\u52d9","client_name":"\u5317\u6d77\u9053\u958b\u767a\u5c40 \u7559\u840c\u958b\u767a\u5efa\u8a2d\u90e8","boring_xml_url":43,"boring_view_url":1,"soilmap_view_url":null,"soiltest_xml_url":0,"soiltest_view_url":0},{"id":240047,"code":"B4KJ201802000-5527","latitude":"44.826778","longitude":"141.771278","source_code":"HK20083031120006","project_name":"\u4e00\u822c\u56fd\u9053232\u53f7 \u5929\u5869\u753a \u66f4\u5cb8\u9632\u96ea\u67f5\u8a2d\u8a08\u5916\u4e00\u9023\u696d\u52d9","survey_name":"\u4e00\u822c\u56fd\u9053232\u53f7 \u5929\u5869\u753a \u66f4\u5cb8\u9632\u96ea\u67f5\u8a2d\u8a08\u5916\u4e00\u9023\u696d\u52d9","client_name":"\u5317\u6d77\u9053\u958b\u767a\u5c40 \u7559\u840c\u958b\u767a\u5efa\u8a2d\u90e8","boring_xml_url":43,"boring_view_url":1,"soilmap_view_url":null,"soiltest_xml_url":0,"soiltest_view_url":0},{"id":240046,"code":"B4KJ201802000-5526","latitude":"44.827611","longitude":"141.770778","source_code":"HK20083031120005","project_name":"\u4e00\u822c\u56fd\u9053232\u53f7 \u5929\u5869\u753a \u66f4\u5cb8\u9632\u96ea\u67f5\u8a2d\u8a08\u5916\u4e00\u9023\u696d\u52d9","survey_name":"\u4e00\u822c\u56fd\u9053232\u53f7 \u5929\u5869\u753a \u66f4\u5cb8\u9632\u96ea\u67f5\u8a2d\u8a08\u5916\u4e00\u9023\u696d\u52d9","client_name":"\u5317\u6d77\u9053\u958b\u767a\u5c40 \u7559\u840c\u958b\u767a\u5efa\u8a2d\u90e8","boring_xml_url":43,"boring_view_url":1,"soilmap_view_url":null,"soiltest_xml_url":0,"soiltest_view_url":0},{"id":240045,"code":"B4KJ201802000-5525","latitude":"44.8285","longitude":"141.770444","source_code":"HK20083031120004","project_name":"\u4e00\u822c\u56fd\u9053232\u53f7 \u5929\u5869\u753a \u66f4\u5cb8\u9632\u96ea\u67f5\u8a2d\u8a08\u5916\u4e00\u9023\u696d\u52d9","survey_name":"\u4e00\u822c\u56fd\u9053232\u53f7 \u5929\u5869\u753a \u66f4\u5cb8\u9632\u96ea\u67f5\u8a2d\u8a08\u5916\u4e00\u9023\u696d\u52d9","client_name":"\u5317\u6d77\u9053\u958b\u767a\u5c40 \u7559\u840c\u958b\u767a\u5efa\u8a2d\u90e8","boring_xml_url":43,"boring_view_url":1,"soilmap_view_url":null,"soiltest_xml_url":0,"soiltest_view_url":0},{"id":240044,"code":"B4KJ201802000-5524","latitude":"44.829361","longitude":"141.770139","source_code":"HK20083031120003","project_name":"\u4e00\u822c\u56fd\u9053232\u53f7 \u5929\u5869\u753a \u66f4\u5cb8\u9632\u96ea\u67f5\u8a2d\u8a08\u5916\u4e00\u9023\u696d\u52d9","survey_name":"\u4e00\u822c\u56fd\u9053232\u53f7 \u5929\u5869\u753a \u66f4\u5cb8\u9632\u96ea\u67f5\u8a2d\u8a08\u5916\u4e00\u9023\u696d\u52d9","client_name":"\u5317\u6d77\u9053\u958b\u767a\u5c40 \u7559\u840c\u958b\u767a\u5efa\u8a2d\u90e8","boring_xml_url":43,"boring_view_url":1,"soilmap_view_url":null,"soiltest_xml_url":0,"soiltest_view_url":0},{"id":240043,"code":"B4KJ201802000-5523","latitude":"44.830222","longitude":"141.769833","source_code":"HK20083031120002","project_name":"\u4e00\u822c\u56fd\u9053232\u53f7 \u5929\u5869\u753a \u66f4\u5cb8\u9632\u96ea\u67f5\u8a2d\u8a08\u5916\u4e00\u9023\u696d\u52d9","survey_name":"\u4e00\u822c\u56fd\u9053232\u53f7 \u5929\u5869\u753a \u66f4\u5cb8\u9632\u96ea\u67f5\u8a2d\u8a08\u5916\u4e00\u9023\u696d\u52d9","client_name":"\u5317\u6d77\u9053\u958b\u767a\u5c40 \u7559\u840c\u958b\u767a\u5efa\u8a2d\u90e8","boring_xml_url":43,"boring_view_url":1,"soilmap_view_url":null,"soiltest_xml_url":0,"soiltest_view_url":0},{"id":240042,"code":"B4KJ201802000-5522","latitude":"44.831083","longitude":"141.769556","source_code":"HK20083031120001","project_name":"\u4e00\u822c\u56fd\u9053232\u53f7 \u5929\u5869\u753a \u66f4\u5cb8\u9632\u96ea\u67f5\u8a2d\u8a08\u5916\u4e00\u9023\u696d\u52d9","survey_name":"\u4e00\u822c\u56fd\u9053232\u53f7 \u5929\u5869\u753a \u66f4\u5cb8\u9632\u96ea\u67f5\u8a2d\u8a08\u5916\u4e00\u9023\u696d\u52d9","client_name":"\u5317\u6d77\u9053\u958b\u767a\u5c40 \u7559\u840c\u958b\u767a\u5efa\u8a2d\u90e8","boring_xml_url":43,"boring_view_url":1,"soilmap_view_url":null,"soiltest_xml_url":0,"soiltest_view_url":0},{"id":240041,"code":"B4KJ201802000-5521","latitude":"43.799472","longitude":"141.379556","source_code":"HK20093008100008","project_name":"\u4e00\u822c\u56fd\u9053231\u53f7 \u5897\u6bdb\u753a\u6691\u5bd2\u9053\u8def\u5730\u8cea\u8abf\u67fb\u696d\u52d9","survey_name":"\u4e00\u822c\u56fd\u9053231\u53f7 \u5897\u6bdb\u753a\u6691\u5bd2\u9053\u8def\u5730\u8cea\u8abf\u67fb\u696d\u52d9","client_name":"\u5317\u6d77\u9053\u958b\u767a\u5c40 \u7559\u840c\u958b\u767a\u5efa\u8a2d\u90e8","boring_xml_url":43,"boring_view_url":1,"soilmap_view_url":null,"soiltest_xml_url":0,"soiltest_view_url":0},{"id":240040,"code":"B4KJ201802000-5520","latitude":"43.799528","longitude":"141.379444","source_code":"HK20093008100007","project_name":"\u4e00\u822c\u56fd\u9053231\u53f7 \u5897\u6bdb\u753a\u6691\u5bd2\u9053\u8def\u5730\u8cea\u8abf\u67fb\u696d\u52d9","survey_name":"\u4e00\u822c\u56fd\u9053231\u53f7 \u5897\u6bdb\u753a\u6691\u5bd2\u9053\u8def\u5730\u8cea\u8abf\u67fb\u696d\u52d9","client_name":"\u5317\u6d77\u9053\u958b\u767a\u5c40 \u7559\u840c\u958b\u767a\u5efa\u8a2d\u90e8","boring_xml_url":43,"boring_view_url":1,"soilmap_view_url":null,"soiltest_xml_url":0,"soiltest_view_url":0}]}}