{"header":{"xyz":{"source":[],"mosaic":false},"page":3018,"raw":{"soiltest_result":"0","bbox":"57.598333,109.544722,1.933333,163.806111","page":"3018"},"conditions":{"soiltest_result":0,"north":57.598333,"west":109.544722,"south":1.933333,"east":163.806111},"success":true,"message":""},"data":{"meta":{"total":212844,"page":3018,"pages":7095,"count":30},"values":[{"id":240009,"code":"B4KJ201802000-5489","latitude":"43.864444","longitude":"144.435278","source_code":"HK20132923110003","project_name":"\u7db2\u8d70\u9053\u8def\u4e8b\u52d9\u6240\u7ba1\u5185 \u5730\u8cea\u8abf\u67fb\u696d\u52d9","survey_name":"\u7db2\u8d70\u9053\u8def\u4e8b\u52d9\u6240\u7ba1\u5185 \u5730\u8cea\u8abf\u67fb\u696d\u52d9","client_name":"\u5317\u6d77\u9053\u958b\u767a\u5c40\u7db2\u8d70\u958b\u767a\u5efa\u8a2d\u90e8 \u7db2\u8d70\u9053\u8def\u4e8b\u52d9\u6240 \u8a08\u753b\u8ab2","boring_xml_url":43,"boring_view_url":1,"soilmap_view_url":null,"soiltest_xml_url":0,"soiltest_view_url":0},{"id":240008,"code":"B4KJ201802000-5488","latitude":"43.860833","longitude":"144.445","source_code":"HK20132923110002","project_name":"\u7db2\u8d70\u9053\u8def\u4e8b\u52d9\u6240\u7ba1\u5185 \u5730\u8cea\u8abf\u67fb\u696d\u52d9","survey_name":"\u7db2\u8d70\u9053\u8def\u4e8b\u52d9\u6240\u7ba1\u5185 \u5730\u8cea\u8abf\u67fb\u696d\u52d9","client_name":"\u5317\u6d77\u9053\u958b\u767a\u5c40\u7db2\u8d70\u958b\u767a\u5efa\u8a2d\u90e8 \u7db2\u8d70\u9053\u8def\u4e8b\u52d9\u6240 \u8a08\u753b\u8ab2","boring_xml_url":43,"boring_view_url":1,"soilmap_view_url":null,"soiltest_xml_url":0,"soiltest_view_url":0},{"id":240007,"code":"B4KJ201802000-5487","latitude":"43.860833","longitude":"144.4475","source_code":"HK20132923110001","project_name":"\u7db2\u8d70\u9053\u8def\u4e8b\u52d9\u6240\u7ba1\u5185 \u5730\u8cea\u8abf\u67fb\u696d\u52d9","survey_name":"\u7db2\u8d70\u9053\u8def\u4e8b\u52d9\u6240\u7ba1\u5185 \u5730\u8cea\u8abf\u67fb\u696d\u52d9","client_name":"\u5317\u6d77\u9053\u958b\u767a\u5c40\u7db2\u8d70\u958b\u767a\u5efa\u8a2d\u90e8 \u7db2\u8d70\u9053\u8def\u4e8b\u52d9\u6240 \u8a08\u753b\u8ab2","boring_xml_url":43,"boring_view_url":1,"soilmap_view_url":null,"soiltest_xml_url":0,"soiltest_view_url":0},{"id":240006,"code":"B4KJ201802000-5486","latitude":"43.926694","longitude":"144.783417","source_code":"HK20072922140001","project_name":"\u4e00\u822c\u56fd\u9053334\u53f7\u659c\u91cc\u753a\u5cf0\u6d5c\u9053\u8def\u8a2d\u8a08\u696d\u52d9","survey_name":"\u4e00\u822c\u56fd\u9053334\u53f7\u659c\u91cc\u753a\u5cf0\u6d5c\u9053\u8def\u8a2d\u8a08\u696d\u52d9","client_name":"\u5317\u6d77\u9053\u958b\u767a\u5c40\u7db2\u8d70\u958b\u767a\u5efa\u8a2d\u90e8\u7db2\u8d70\u9053\u8def\u4e8b\u52d9\u6240","boring_xml_url":43,"boring_view_url":1,"soilmap_view_url":null,"soiltest_xml_url":46,"soiltest_view_url":45},{"id":240005,"code":"B4KJ201802000-5485","latitude":"44.086389","longitude":"145.015","source_code":"HK20122922120007","project_name":"\u4e00\u822c\u56fd\u9053334\u53f7 \u659c\u91cc\u753a\u771f\u9bc9\u5730\u8cea\u8abf\u67fb\u696d\u52d9","survey_name":"\u4e00\u822c\u56fd\u9053334\u53f7 \u659c\u91cc\u753a\u771f\u9bc9\u5730\u8cea\u8abf\u67fb\u696d\u52d9","client_name":"\u5317\u6d77\u9053\u958b\u767a\u5c40\u7db2\u8d70\u958b\u767a\u5efa\u8a2d\u90e8 \u7db2\u8d70\u9053\u8def\u4e8b\u52d9\u6240","boring_xml_url":43,"boring_view_url":1,"soilmap_view_url":null,"soiltest_xml_url":0,"soiltest_view_url":0},{"id":240004,"code":"B4KJ201802000-5484","latitude":"44.086667","longitude":"145.013333","source_code":"HK20122922120006","project_name":"\u4e00\u822c\u56fd\u9053334\u53f7 \u659c\u91cc\u753a\u771f\u9bc9\u5730\u8cea\u8abf\u67fb\u696d\u52d9","survey_name":"\u4e00\u822c\u56fd\u9053334\u53f7 \u659c\u91cc\u753a\u771f\u9bc9\u5730\u8cea\u8abf\u67fb\u696d\u52d9","client_name":"\u5317\u6d77\u9053\u958b\u767a\u5c40\u7db2\u8d70\u958b\u767a\u5efa\u8a2d\u90e8 \u7db2\u8d70\u9053\u8def\u4e8b\u52d9\u6240","boring_xml_url":43,"boring_view_url":1,"soilmap_view_url":null,"soiltest_xml_url":0,"soiltest_view_url":0},{"id":240003,"code":"B4KJ201802000-5483","latitude":"44.087222","longitude":"145.011389","source_code":"HK20122922120005","project_name":"\u4e00\u822c\u56fd\u9053334\u53f7 \u659c\u91cc\u753a\u771f\u9bc9\u5730\u8cea\u8abf\u67fb\u696d\u52d9","survey_name":"\u4e00\u822c\u56fd\u9053334\u53f7 \u659c\u91cc\u753a\u771f\u9bc9\u5730\u8cea\u8abf\u67fb\u696d\u52d9","client_name":"\u5317\u6d77\u9053\u958b\u767a\u5c40\u7db2\u8d70\u958b\u767a\u5efa\u8a2d\u90e8 \u7db2\u8d70\u9053\u8def\u4e8b\u52d9\u6240","boring_xml_url":43,"boring_view_url":1,"soilmap_view_url":null,"soiltest_xml_url":0,"soiltest_view_url":0},{"id":240002,"code":"B4KJ201802000-5482","latitude":"43.771472","longitude":"144.798778","source_code":"HK20082922220022","project_name":"\u4e00\u822c\u56fd\u9053244\u53f7 \u659c\u91cc\u753a \u7f8e\u54b2\u5730\u8cea\u8abf\u67fb\u5916\u4e00\u9023\u696d\u52d9","survey_name":"\u4e00\u822c\u56fd\u9053244\u53f7 \u659c\u91cc\u753a \u7f8e\u54b2\u5730\u8cea\u8abf\u67fb\u5916\u4e00\u9023\u696d\u52d9","client_name":"\u5317\u6d77\u9053\u958b\u767a\u5c40 \u7db2\u8d70\u958b\u767a\u5efa\u8a2d\u90e8 \u7db2\u8d70\u9053\u8def\u4e8b\u52d9\u6240","boring_xml_url":43,"boring_view_url":1,"soilmap_view_url":null,"soiltest_xml_url":0,"soiltest_view_url":0},{"id":240001,"code":"B4KJ201802000-5481","latitude":"43.772111","longitude":"144.798222","source_code":"HK20082922220021","project_name":"\u4e00\u822c\u56fd\u9053244\u53f7 \u659c\u91cc\u753a \u7f8e\u54b2\u5730\u8cea\u8abf\u67fb\u5916\u4e00\u9023\u696d\u52d9","survey_name":"\u4e00\u822c\u56fd\u9053244\u53f7 \u659c\u91cc\u753a \u7f8e\u54b2\u5730\u8cea\u8abf\u67fb\u5916\u4e00\u9023\u696d\u52d9","client_name":"\u5317\u6d77\u9053\u958b\u767a\u5c40 \u7db2\u8d70\u958b\u767a\u5efa\u8a2d\u90e8 \u7db2\u8d70\u9053\u8def\u4e8b\u52d9\u6240","boring_xml_url":43,"boring_view_url":1,"soilmap_view_url":null,"soiltest_xml_url":0,"soiltest_view_url":0},{"id":240000,"code":"B4KJ201802000-5480","latitude":"43.772667","longitude":"144.797389","source_code":"HK20082922220020","project_name":"\u4e00\u822c\u56fd\u9053244\u53f7 \u659c\u91cc\u753a \u7f8e\u54b2\u5730\u8cea\u8abf\u67fb\u5916\u4e00\u9023\u696d\u52d9","survey_name":"\u4e00\u822c\u56fd\u9053244\u53f7 \u659c\u91cc\u753a \u7f8e\u54b2\u5730\u8cea\u8abf\u67fb\u5916\u4e00\u9023\u696d\u52d9","client_name":"\u5317\u6d77\u9053\u958b\u767a\u5c40 \u7db2\u8d70\u958b\u767a\u5efa\u8a2d\u90e8 \u7db2\u8d70\u9053\u8def\u4e8b\u52d9\u6240","boring_xml_url":43,"boring_view_url":1,"soilmap_view_url":null,"soiltest_xml_url":0,"soiltest_view_url":0},{"id":239999,"code":"B4KJ201802000-5479","latitude":"43.876583","longitude":"144.058667","source_code":"HK20082922220019","project_name":"\u4e00\u822c\u56fd\u9053244\u53f7 \u659c\u91cc\u753a \u7f8e\u54b2\u5730\u8cea\u8abf\u67fb\u5916\u4e00\u9023\u696d\u52d9","survey_name":"\u4e00\u822c\u56fd\u9053244\u53f7 \u659c\u91cc\u753a \u7f8e\u54b2\u5730\u8cea\u8abf\u67fb\u5916\u4e00\u9023\u696d\u52d9","client_name":"\u5317\u6d77\u9053\u958b\u767a\u5c40 \u7db2\u8d70\u958b\u767a\u5efa\u8a2d\u90e8 \u7db2\u8d70\u9053\u8def\u4e8b\u52d9\u6240","boring_xml_url":43,"boring_view_url":1,"soilmap_view_url":null,"soiltest_xml_url":0,"soiltest_view_url":0},{"id":239998,"code":"B4KJ201802000-5478","latitude":"43.899111","longitude":"144.623389","source_code":"HK20082922220018","project_name":"\u4e00\u822c\u56fd\u9053244\u53f7 \u659c\u91cc\u753a \u7f8e\u54b2\u5730\u8cea\u8abf\u67fb\u5916\u4e00\u9023\u696d\u52d9","survey_name":"\u4e00\u822c\u56fd\u9053244\u53f7 \u659c\u91cc\u753a \u7f8e\u54b2\u5730\u8cea\u8abf\u67fb\u5916\u4e00\u9023\u696d\u52d9","client_name":"\u5317\u6d77\u9053\u958b\u767a\u5c40 \u7db2\u8d70\u958b\u767a\u5efa\u8a2d\u90e8 \u7db2\u8d70\u9053\u8def\u4e8b\u52d9\u6240","boring_xml_url":43,"boring_view_url":1,"soilmap_view_url":null,"soiltest_xml_url":0,"soiltest_view_url":0},{"id":239997,"code":"B4KJ201802000-5477","latitude":"43.899","longitude":"144.619361","source_code":"HK20082922220017","project_name":"\u4e00\u822c\u56fd\u9053244\u53f7 \u659c\u91cc\u753a \u7f8e\u54b2\u5730\u8cea\u8abf\u67fb\u5916\u4e00\u9023\u696d\u52d9","survey_name":"\u4e00\u822c\u56fd\u9053244\u53f7 \u659c\u91cc\u753a \u7f8e\u54b2\u5730\u8cea\u8abf\u67fb\u5916\u4e00\u9023\u696d\u52d9","client_name":"\u5317\u6d77\u9053\u958b\u767a\u5c40 \u7db2\u8d70\u958b\u767a\u5efa\u8a2d\u90e8 \u7db2\u8d70\u9053\u8def\u4e8b\u52d9\u6240","boring_xml_url":43,"boring_view_url":1,"soilmap_view_url":null,"soiltest_xml_url":0,"soiltest_view_url":0},{"id":239996,"code":"B4KJ201802000-5476","latitude":"44.109306","longitude":"144.120806","source_code":"HK20082922220016","project_name":"\u4e00\u822c\u56fd\u9053244\u53f7 \u659c\u91cc\u753a \u7f8e\u54b2\u5730\u8cea\u8abf\u67fb\u5916\u4e00\u9023\u696d\u52d9","survey_name":"\u4e00\u822c\u56fd\u9053244\u53f7 \u659c\u91cc\u753a \u7f8e\u54b2\u5730\u8cea\u8abf\u67fb\u5916\u4e00\u9023\u696d\u52d9","client_name":"\u5317\u6d77\u9053\u958b\u767a\u5c40 \u7db2\u8d70\u958b\u767a\u5efa\u8a2d\u90e8 \u7db2\u8d70\u9053\u8def\u4e8b\u52d9\u6240","boring_xml_url":43,"boring_view_url":1,"soilmap_view_url":null,"soiltest_xml_url":0,"soiltest_view_url":0},{"id":239995,"code":"B4KJ201802000-5475","latitude":"44.109111","longitude":"144.121944","source_code":"HK20082922220015","project_name":"\u4e00\u822c\u56fd\u9053244\u53f7 \u659c\u91cc\u753a \u7f8e\u54b2\u5730\u8cea\u8abf\u67fb\u5916\u4e00\u9023\u696d\u52d9","survey_name":"\u4e00\u822c\u56fd\u9053244\u53f7 \u659c\u91cc\u753a \u7f8e\u54b2\u5730\u8cea\u8abf\u67fb\u5916\u4e00\u9023\u696d\u52d9","client_name":"\u5317\u6d77\u9053\u958b\u767a\u5c40 \u7db2\u8d70\u958b\u767a\u5efa\u8a2d\u90e8 \u7db2\u8d70\u9053\u8def\u4e8b\u52d9\u6240","boring_xml_url":43,"boring_view_url":1,"soilmap_view_url":null,"soiltest_xml_url":0,"soiltest_view_url":0},{"id":239994,"code":"B4KJ201802000-5474","latitude":"44.109167","longitude":"144.123194","source_code":"HK20082922220014","project_name":"\u4e00\u822c\u56fd\u9053244\u53f7 \u659c\u91cc\u753a \u7f8e\u54b2\u5730\u8cea\u8abf\u67fb\u5916\u4e00\u9023\u696d\u52d9","survey_name":"\u4e00\u822c\u56fd\u9053244\u53f7 \u659c\u91cc\u753a \u7f8e\u54b2\u5730\u8cea\u8abf\u67fb\u5916\u4e00\u9023\u696d\u52d9","client_name":"\u5317\u6d77\u9053\u958b\u767a\u5c40 \u7db2\u8d70\u958b\u767a\u5efa\u8a2d\u90e8 \u7db2\u8d70\u9053\u8def\u4e8b\u52d9\u6240","boring_xml_url":43,"boring_view_url":1,"soilmap_view_url":null,"soiltest_xml_url":0,"soiltest_view_url":0},{"id":239993,"code":"B4KJ201802000-5473","latitude":"43.888944","longitude":"144.734111","source_code":"HK20082922220013","project_name":"\u4e00\u822c\u56fd\u9053244\u53f7 \u659c\u91cc\u753a \u7f8e\u54b2\u5730\u8cea\u8abf\u67fb\u5916\u4e00\u9023\u696d\u52d9","survey_name":"\u4e00\u822c\u56fd\u9053244\u53f7 \u659c\u91cc\u753a \u7f8e\u54b2\u5730\u8cea\u8abf\u67fb\u5916\u4e00\u9023\u696d\u52d9","client_name":"\u5317\u6d77\u9053\u958b\u767a\u5c40 \u7db2\u8d70\u958b\u767a\u5efa\u8a2d\u90e8 \u7db2\u8d70\u9053\u8def\u4e8b\u52d9\u6240","boring_xml_url":43,"boring_view_url":1,"soilmap_view_url":null,"soiltest_xml_url":0,"soiltest_view_url":0},{"id":239992,"code":"B4KJ201802000-5472","latitude":"43.888806","longitude":"144.731611","source_code":"HK20082922220012","project_name":"\u4e00\u822c\u56fd\u9053244\u53f7 \u659c\u91cc\u753a \u7f8e\u54b2\u5730\u8cea\u8abf\u67fb\u5916\u4e00\u9023\u696d\u52d9","survey_name":"\u4e00\u822c\u56fd\u9053244\u53f7 \u659c\u91cc\u753a \u7f8e\u54b2\u5730\u8cea\u8abf\u67fb\u5916\u4e00\u9023\u696d\u52d9","client_name":"\u5317\u6d77\u9053\u958b\u767a\u5c40 \u7db2\u8d70\u958b\u767a\u5efa\u8a2d\u90e8 \u7db2\u8d70\u9053\u8def\u4e8b\u52d9\u6240","boring_xml_url":43,"boring_view_url":1,"soilmap_view_url":null,"soiltest_xml_url":0,"soiltest_view_url":0},{"id":239991,"code":"B4KJ201802000-5471","latitude":"43.887833","longitude":"144.708639","source_code":"HK20082922220011","project_name":"\u4e00\u822c\u56fd\u9053244\u53f7 \u659c\u91cc\u753a \u7f8e\u54b2\u5730\u8cea\u8abf\u67fb\u5916\u4e00\u9023\u696d\u52d9","survey_name":"\u4e00\u822c\u56fd\u9053244\u53f7 \u659c\u91cc\u753a \u7f8e\u54b2\u5730\u8cea\u8abf\u67fb\u5916\u4e00\u9023\u696d\u52d9","client_name":"\u5317\u6d77\u9053\u958b\u767a\u5c40 \u7db2\u8d70\u958b\u767a\u5efa\u8a2d\u90e8 \u7db2\u8d70\u9053\u8def\u4e8b\u52d9\u6240","boring_xml_url":43,"boring_view_url":1,"soilmap_view_url":null,"soiltest_xml_url":0,"soiltest_view_url":0},{"id":239990,"code":"B4KJ201802000-5470","latitude":"43.887722","longitude":"144.706889","source_code":"HK20082922220010","project_name":"\u4e00\u822c\u56fd\u9053244\u53f7 \u659c\u91cc\u753a \u7f8e\u54b2\u5730\u8cea\u8abf\u67fb\u5916\u4e00\u9023\u696d\u52d9","survey_name":"\u4e00\u822c\u56fd\u9053244\u53f7 \u659c\u91cc\u753a \u7f8e\u54b2\u5730\u8cea\u8abf\u67fb\u5916\u4e00\u9023\u696d\u52d9","client_name":"\u5317\u6d77\u9053\u958b\u767a\u5c40 \u7db2\u8d70\u958b\u767a\u5efa\u8a2d\u90e8 \u7db2\u8d70\u9053\u8def\u4e8b\u52d9\u6240","boring_xml_url":43,"boring_view_url":1,"soilmap_view_url":null,"soiltest_xml_url":0,"soiltest_view_url":0},{"id":239989,"code":"B4KJ201802000-5469","latitude":"43.887722","longitude":"144.705833","source_code":"HK20082922220009","project_name":"\u4e00\u822c\u56fd\u9053244\u53f7 \u659c\u91cc\u753a \u7f8e\u54b2\u5730\u8cea\u8abf\u67fb\u5916\u4e00\u9023\u696d\u52d9","survey_name":"\u4e00\u822c\u56fd\u9053244\u53f7 \u659c\u91cc\u753a \u7f8e\u54b2\u5730\u8cea\u8abf\u67fb\u5916\u4e00\u9023\u696d\u52d9","client_name":"\u5317\u6d77\u9053\u958b\u767a\u5c40 \u7db2\u8d70\u958b\u767a\u5efa\u8a2d\u90e8 \u7db2\u8d70\u9053\u8def\u4e8b\u52d9\u6240","boring_xml_url":43,"boring_view_url":1,"soilmap_view_url":null,"soiltest_xml_url":0,"soiltest_view_url":0},{"id":239988,"code":"B4KJ201802000-5468","latitude":"43.887667","longitude":"144.704417","source_code":"HK20082922220008","project_name":"\u4e00\u822c\u56fd\u9053244\u53f7 \u659c\u91cc\u753a \u7f8e\u54b2\u5730\u8cea\u8abf\u67fb\u5916\u4e00\u9023\u696d\u52d9","survey_name":"\u4e00\u822c\u56fd\u9053244\u53f7 \u659c\u91cc\u753a \u7f8e\u54b2\u5730\u8cea\u8abf\u67fb\u5916\u4e00\u9023\u696d\u52d9","client_name":"\u5317\u6d77\u9053\u958b\u767a\u5c40 \u7db2\u8d70\u958b\u767a\u5efa\u8a2d\u90e8 \u7db2\u8d70\u9053\u8def\u4e8b\u52d9\u6240","boring_xml_url":43,"boring_view_url":1,"soilmap_view_url":null,"soiltest_xml_url":0,"soiltest_view_url":0},{"id":239987,"code":"B4KJ201802000-5467","latitude":"43.839444","longitude":"144.281083","source_code":"HK20082922220007","project_name":"\u4e00\u822c\u56fd\u9053244\u53f7 \u659c\u91cc\u753a \u7f8e\u54b2\u5730\u8cea\u8abf\u67fb\u5916\u4e00\u9023\u696d\u52d9","survey_name":"\u4e00\u822c\u56fd\u9053244\u53f7 \u659c\u91cc\u753a \u7f8e\u54b2\u5730\u8cea\u8abf\u67fb\u5916\u4e00\u9023\u696d\u52d9","client_name":"\u5317\u6d77\u9053\u958b\u767a\u5c40 \u7db2\u8d70\u958b\u767a\u5efa\u8a2d\u90e8 \u7db2\u8d70\u9053\u8def\u4e8b\u52d9\u6240","boring_xml_url":43,"boring_view_url":1,"soilmap_view_url":null,"soiltest_xml_url":0,"soiltest_view_url":0},{"id":239986,"code":"B4KJ201802000-5466","latitude":"43.841778","longitude":"144.285056","source_code":"HK20082922220006","project_name":"\u4e00\u822c\u56fd\u9053244\u53f7 \u659c\u91cc\u753a \u7f8e\u54b2\u5730\u8cea\u8abf\u67fb\u5916\u4e00\u9023\u696d\u52d9","survey_name":"\u4e00\u822c\u56fd\u9053244\u53f7 \u659c\u91cc\u753a \u7f8e\u54b2\u5730\u8cea\u8abf\u67fb\u5916\u4e00\u9023\u696d\u52d9","client_name":"\u5317\u6d77\u9053\u958b\u767a\u5c40 \u7db2\u8d70\u958b\u767a\u5efa\u8a2d\u90e8 \u7db2\u8d70\u9053\u8def\u4e8b\u52d9\u6240","boring_xml_url":43,"boring_view_url":1,"soilmap_view_url":null,"soiltest_xml_url":0,"soiltest_view_url":0},{"id":239985,"code":"B4KJ201802000-5465","latitude":"43.824833","longitude":"144.223","source_code":"HK20082922220005","project_name":"\u4e00\u822c\u56fd\u9053244\u53f7 \u659c\u91cc\u753a \u7f8e\u54b2\u5730\u8cea\u8abf\u67fb\u5916\u4e00\u9023\u696d\u52d9","survey_name":"\u4e00\u822c\u56fd\u9053244\u53f7 \u659c\u91cc\u753a \u7f8e\u54b2\u5730\u8cea\u8abf\u67fb\u5916\u4e00\u9023\u696d\u52d9","client_name":"\u5317\u6d77\u9053\u958b\u767a\u5c40 \u7db2\u8d70\u958b\u767a\u5efa\u8a2d\u90e8 \u7db2\u8d70\u9053\u8def\u4e8b\u52d9\u6240","boring_xml_url":43,"boring_view_url":1,"soilmap_view_url":null,"soiltest_xml_url":0,"soiltest_view_url":0},{"id":239984,"code":"B4KJ201802000-5464","latitude":"43.83325","longitude":"144.239667","source_code":"HK20082922220004","project_name":"\u4e00\u822c\u56fd\u9053244\u53f7 \u659c\u91cc\u753a \u7f8e\u54b2\u5730\u8cea\u8abf\u67fb\u5916\u4e00\u9023\u696d\u52d9","survey_name":"\u4e00\u822c\u56fd\u9053244\u53f7 \u659c\u91cc\u753a \u7f8e\u54b2\u5730\u8cea\u8abf\u67fb\u5916\u4e00\u9023\u696d\u52d9","client_name":"\u5317\u6d77\u9053\u958b\u767a\u5c40 \u7db2\u8d70\u958b\u767a\u5efa\u8a2d\u90e8 \u7db2\u8d70\u9053\u8def\u4e8b\u52d9\u6240","boring_xml_url":43,"boring_view_url":1,"soilmap_view_url":null,"soiltest_xml_url":0,"soiltest_view_url":0},{"id":239983,"code":"B4KJ201802000-5463","latitude":"43.853389","longitude":"144.347833","source_code":"HK20082922220003","project_name":"\u4e00\u822c\u56fd\u9053244\u53f7 \u659c\u91cc\u753a \u7f8e\u54b2\u5730\u8cea\u8abf\u67fb\u5916\u4e00\u9023\u696d\u52d9","survey_name":"\u4e00\u822c\u56fd\u9053244\u53f7 \u659c\u91cc\u753a \u7f8e\u54b2\u5730\u8cea\u8abf\u67fb\u5916\u4e00\u9023\u696d\u52d9","client_name":"\u5317\u6d77\u9053\u958b\u767a\u5c40 \u7db2\u8d70\u958b\u767a\u5efa\u8a2d\u90e8 \u7db2\u8d70\u9053\u8def\u4e8b\u52d9\u6240","boring_xml_url":43,"boring_view_url":1,"soilmap_view_url":null,"soiltest_xml_url":0,"soiltest_view_url":0},{"id":239982,"code":"B4KJ201802000-5462","latitude":"43.848806","longitude":"144.35425","source_code":"HK20082922220002","project_name":"\u4e00\u822c\u56fd\u9053244\u53f7 \u659c\u91cc\u753a \u7f8e\u54b2\u5730\u8cea\u8abf\u67fb\u5916\u4e00\u9023\u696d\u52d9","survey_name":"\u4e00\u822c\u56fd\u9053244\u53f7 \u659c\u91cc\u753a \u7f8e\u54b2\u5730\u8cea\u8abf\u67fb\u5916\u4e00\u9023\u696d\u52d9","client_name":"\u5317\u6d77\u9053\u958b\u767a\u5c40 \u7db2\u8d70\u958b\u767a\u5efa\u8a2d\u90e8 \u7db2\u8d70\u9053\u8def\u4e8b\u52d9\u6240","boring_xml_url":43,"boring_view_url":1,"soilmap_view_url":null,"soiltest_xml_url":0,"soiltest_view_url":0},{"id":239981,"code":"B4KJ201802000-5461","latitude":"43.926222","longitude":"144.783333","source_code":"HK20082922220001","project_name":"\u4e00\u822c\u56fd\u9053244\u53f7 \u659c\u91cc\u753a \u7f8e\u54b2\u5730\u8cea\u8abf\u67fb\u5916\u4e00\u9023\u696d\u52d9","survey_name":"\u4e00\u822c\u56fd\u9053244\u53f7 \u659c\u91cc\u753a \u7f8e\u54b2\u5730\u8cea\u8abf\u67fb\u5916\u4e00\u9023\u696d\u52d9","client_name":"\u5317\u6d77\u9053\u958b\u767a\u5c40 \u7db2\u8d70\u958b\u767a\u5efa\u8a2d\u90e8 \u7db2\u8d70\u9053\u8def\u4e8b\u52d9\u6240","boring_xml_url":43,"boring_view_url":1,"soilmap_view_url":null,"soiltest_xml_url":0,"soiltest_view_url":0},{"id":239980,"code":"B4KJ201802000-5460","latitude":"43.807972","longitude":"143.932722","source_code":"HK20112921040020","project_name":"\u5317\u6d77\u9053\u6a2a\u65ad\u81ea\u52d5\u8eca\u9053 \u8a13\u5b50\u5e9c\u753a\u5916 \u5e38\u76e4\u5730\u533a\u5916\u5730\u8cea\u8abf\u67fb\u696d\u52d9","survey_name":"\u5317\u6d77\u9053\u6a2a\u65ad\u81ea\u52d5\u8eca\u9053 \u8a13\u5b50\u5e9c\u753a\u5916 \u5e38\u76e4\u5730\u533a\u5916\u5730\u8cea\u8abf\u67fb\u696d\u52d9","client_name":"\u5317\u6d77\u9053\u958b\u767a\u5c40\u7db2\u8d70\u958b\u767a\u5efa\u8a2d\u90e8\u5317\u898b\u9053\u8def\u4e8b\u52d9\u6240","boring_xml_url":43,"boring_view_url":1,"soilmap_view_url":null,"soiltest_xml_url":0,"soiltest_view_url":0}]}}