{"header":{"xyz":{"source":[],"mosaic":false},"page":3019,"raw":{"soiltest_result":"0","bbox":"57.598333,109.544722,1.933333,163.806111","page":"3019"},"conditions":{"soiltest_result":0,"north":57.598333,"west":109.544722,"south":1.933333,"east":163.806111},"success":true,"message":""},"data":{"meta":{"total":212844,"page":3019,"pages":7095,"count":30},"values":[{"id":239979,"code":"B4KJ201802000-5459","latitude":"43.808028","longitude":"143.932722","source_code":"HK20112921040019","project_name":"\u5317\u6d77\u9053\u6a2a\u65ad\u81ea\u52d5\u8eca\u9053 \u8a13\u5b50\u5e9c\u753a\u5916 \u5e38\u76e4\u5730\u533a\u5916\u5730\u8cea\u8abf\u67fb\u696d\u52d9","survey_name":"\u5317\u6d77\u9053\u6a2a\u65ad\u81ea\u52d5\u8eca\u9053 \u8a13\u5b50\u5e9c\u753a\u5916 \u5e38\u76e4\u5730\u533a\u5916\u5730\u8cea\u8abf\u67fb\u696d\u52d9","client_name":"\u5317\u6d77\u9053\u958b\u767a\u5c40\u7db2\u8d70\u958b\u767a\u5efa\u8a2d\u90e8\u5317\u898b\u9053\u8def\u4e8b\u52d9\u6240","boring_xml_url":43,"boring_view_url":1,"soilmap_view_url":null,"soiltest_xml_url":0,"soiltest_view_url":0},{"id":239978,"code":"B4KJ201802000-5458","latitude":"43.874639","longitude":"144.044972","source_code":"HK20112921040016","project_name":"\u5317\u6d77\u9053\u6a2a\u65ad\u81ea\u52d5\u8eca\u9053 \u8a13\u5b50\u5e9c\u753a\u5916 \u5e38\u76e4\u5730\u533a\u5916\u5730\u8cea\u8abf\u67fb\u696d\u52d9","survey_name":"\u5317\u6d77\u9053\u6a2a\u65ad\u81ea\u52d5\u8eca\u9053 \u8a13\u5b50\u5e9c\u753a\u5916 \u5e38\u76e4\u5730\u533a\u5916\u5730\u8cea\u8abf\u67fb\u696d\u52d9","client_name":"\u5317\u6d77\u9053\u958b\u767a\u5c40\u7db2\u8d70\u958b\u767a\u5efa\u8a2d\u90e8\u5317\u898b\u9053\u8def\u4e8b\u52d9\u6240","boring_xml_url":43,"boring_view_url":1,"soilmap_view_url":null,"soiltest_xml_url":0,"soiltest_view_url":0},{"id":239977,"code":"B4KJ201802000-5457","latitude":"43.873528","longitude":"144.042639","source_code":"HK20112921040015","project_name":"\u5317\u6d77\u9053\u6a2a\u65ad\u81ea\u52d5\u8eca\u9053 \u8a13\u5b50\u5e9c\u753a\u5916 \u5e38\u76e4\u5730\u533a\u5916\u5730\u8cea\u8abf\u67fb\u696d\u52d9","survey_name":"\u5317\u6d77\u9053\u6a2a\u65ad\u81ea\u52d5\u8eca\u9053 \u8a13\u5b50\u5e9c\u753a\u5916 \u5e38\u76e4\u5730\u533a\u5916\u5730\u8cea\u8abf\u67fb\u696d\u52d9","client_name":"\u5317\u6d77\u9053\u958b\u767a\u5c40\u7db2\u8d70\u958b\u767a\u5efa\u8a2d\u90e8\u5317\u898b\u9053\u8def\u4e8b\u52d9\u6240","boring_xml_url":43,"boring_view_url":1,"soilmap_view_url":null,"soiltest_xml_url":0,"soiltest_view_url":0},{"id":239976,"code":"B4KJ201802000-5456","latitude":"43.87625","longitude":"144.008278","source_code":"HK20112921040014","project_name":"\u5317\u6d77\u9053\u6a2a\u65ad\u81ea\u52d5\u8eca\u9053 \u8a13\u5b50\u5e9c\u753a\u5916 \u5e38\u76e4\u5730\u533a\u5916\u5730\u8cea\u8abf\u67fb\u696d\u52d9","survey_name":"\u5317\u6d77\u9053\u6a2a\u65ad\u81ea\u52d5\u8eca\u9053 \u8a13\u5b50\u5e9c\u753a\u5916 \u5e38\u76e4\u5730\u533a\u5916\u5730\u8cea\u8abf\u67fb\u696d\u52d9","client_name":"\u5317\u6d77\u9053\u958b\u767a\u5c40\u7db2\u8d70\u958b\u767a\u5efa\u8a2d\u90e8\u5317\u898b\u9053\u8def\u4e8b\u52d9\u6240","boring_xml_url":43,"boring_view_url":1,"soilmap_view_url":null,"soiltest_xml_url":0,"soiltest_view_url":0},{"id":239975,"code":"B4KJ201802000-5455","latitude":"43.878806","longitude":"144.005444","source_code":"HK20112921040013","project_name":"\u5317\u6d77\u9053\u6a2a\u65ad\u81ea\u52d5\u8eca\u9053 \u8a13\u5b50\u5e9c\u753a\u5916 \u5e38\u76e4\u5730\u533a\u5916\u5730\u8cea\u8abf\u67fb\u696d\u52d9","survey_name":"\u5317\u6d77\u9053\u6a2a\u65ad\u81ea\u52d5\u8eca\u9053 \u8a13\u5b50\u5e9c\u753a\u5916 \u5e38\u76e4\u5730\u533a\u5916\u5730\u8cea\u8abf\u67fb\u696d\u52d9","client_name":"\u5317\u6d77\u9053\u958b\u767a\u5c40\u7db2\u8d70\u958b\u767a\u5efa\u8a2d\u90e8\u5317\u898b\u9053\u8def\u4e8b\u52d9\u6240","boring_xml_url":43,"boring_view_url":1,"soilmap_view_url":null,"soiltest_xml_url":0,"soiltest_view_url":0},{"id":239974,"code":"B4KJ201802000-5454","latitude":"43.792917","longitude":"143.918222","source_code":"HK20112921040012","project_name":"\u5317\u6d77\u9053\u6a2a\u65ad\u81ea\u52d5\u8eca\u9053 \u8a13\u5b50\u5e9c\u753a\u5916 \u5e38\u76e4\u5730\u533a\u5916\u5730\u8cea\u8abf\u67fb\u696d\u52d9","survey_name":"\u5317\u6d77\u9053\u6a2a\u65ad\u81ea\u52d5\u8eca\u9053 \u8a13\u5b50\u5e9c\u753a\u5916 \u5e38\u76e4\u5730\u533a\u5916\u5730\u8cea\u8abf\u67fb\u696d\u52d9","client_name":"\u5317\u6d77\u9053\u958b\u767a\u5c40\u7db2\u8d70\u958b\u767a\u5efa\u8a2d\u90e8\u5317\u898b\u9053\u8def\u4e8b\u52d9\u6240","boring_xml_url":43,"boring_view_url":1,"soilmap_view_url":null,"soiltest_xml_url":0,"soiltest_view_url":0},{"id":239973,"code":"B4KJ201802000-5453","latitude":"43.79375","longitude":"143.919083","source_code":"HK20112921040011","project_name":"\u5317\u6d77\u9053\u6a2a\u65ad\u81ea\u52d5\u8eca\u9053 \u8a13\u5b50\u5e9c\u753a\u5916 \u5e38\u76e4\u5730\u533a\u5916\u5730\u8cea\u8abf\u67fb\u696d\u52d9","survey_name":"\u5317\u6d77\u9053\u6a2a\u65ad\u81ea\u52d5\u8eca\u9053 \u8a13\u5b50\u5e9c\u753a\u5916 \u5e38\u76e4\u5730\u533a\u5916\u5730\u8cea\u8abf\u67fb\u696d\u52d9","client_name":"\u5317\u6d77\u9053\u958b\u767a\u5c40\u7db2\u8d70\u958b\u767a\u5efa\u8a2d\u90e8\u5317\u898b\u9053\u8def\u4e8b\u52d9\u6240","boring_xml_url":43,"boring_view_url":1,"soilmap_view_url":null,"soiltest_xml_url":0,"soiltest_view_url":0},{"id":239972,"code":"B4KJ201802000-5452","latitude":"43.794139","longitude":"143.919333","source_code":"HK20112921040010","project_name":"\u5317\u6d77\u9053\u6a2a\u65ad\u81ea\u52d5\u8eca\u9053 \u8a13\u5b50\u5e9c\u753a\u5916 \u5e38\u76e4\u5730\u533a\u5916\u5730\u8cea\u8abf\u67fb\u696d\u52d9","survey_name":"\u5317\u6d77\u9053\u6a2a\u65ad\u81ea\u52d5\u8eca\u9053 \u8a13\u5b50\u5e9c\u753a\u5916 \u5e38\u76e4\u5730\u533a\u5916\u5730\u8cea\u8abf\u67fb\u696d\u52d9","client_name":"\u5317\u6d77\u9053\u958b\u767a\u5c40\u7db2\u8d70\u958b\u767a\u5efa\u8a2d\u90e8\u5317\u898b\u9053\u8def\u4e8b\u52d9\u6240","boring_xml_url":43,"boring_view_url":1,"soilmap_view_url":null,"soiltest_xml_url":0,"soiltest_view_url":0},{"id":239971,"code":"B4KJ201802000-5451","latitude":"43.793333","longitude":"143.915556","source_code":"HK20072921120003","project_name":"\u4e00\u822c\u56fd\u905339\u53f7 \u5317\u898b\u5e02 \u5317\u898b\u9053\u8def\u5730\u8cea\u8abf\u67fb\u5916\u4e00\u9023\u696d\u52d9","survey_name":"\u4e00\u822c\u56fd\u905339\u53f7 \u5317\u898b\u5e02 \u5317\u898b\u9053\u8def\u5730\u8cea\u8abf\u67fb\u5916\u4e00\u9023\u696d\u52d9","client_name":"\u5317\u6d77\u9053\u958b\u767a\u5c40\u7db2\u8d70\u958b\u767a\u5efa\u8a2d\u90e8\u5317\u898b\u9053\u8def\u4e8b\u52d9\u6240","boring_xml_url":43,"boring_view_url":1,"soilmap_view_url":null,"soiltest_xml_url":0,"soiltest_view_url":0},{"id":239970,"code":"B4KJ201802000-5450","latitude":"43.794167","longitude":"143.915556","source_code":"HK20072921120002","project_name":"\u4e00\u822c\u56fd\u905339\u53f7 \u5317\u898b\u5e02 \u5317\u898b\u9053\u8def\u5730\u8cea\u8abf\u67fb\u5916\u4e00\u9023\u696d\u52d9","survey_name":"\u4e00\u822c\u56fd\u905339\u53f7 \u5317\u898b\u5e02 \u5317\u898b\u9053\u8def\u5730\u8cea\u8abf\u67fb\u5916\u4e00\u9023\u696d\u52d9","client_name":"\u5317\u6d77\u9053\u958b\u767a\u5c40\u7db2\u8d70\u958b\u767a\u5efa\u8a2d\u90e8\u5317\u898b\u9053\u8def\u4e8b\u52d9\u6240","boring_xml_url":43,"boring_view_url":1,"soilmap_view_url":null,"soiltest_xml_url":0,"soiltest_view_url":0},{"id":239969,"code":"B4KJ201802000-5449","latitude":"43.803333","longitude":"143.926389","source_code":"HK20072921120001","project_name":"\u4e00\u822c\u56fd\u905339\u53f7 \u5317\u898b\u5e02 \u5317\u898b\u9053\u8def\u5730\u8cea\u8abf\u67fb\u5916\u4e00\u9023\u696d\u52d9","survey_name":"\u4e00\u822c\u56fd\u905339\u53f7 \u5317\u898b\u5e02 \u5317\u898b\u9053\u8def\u5730\u8cea\u8abf\u67fb\u5916\u4e00\u9023\u696d\u52d9","client_name":"\u5317\u6d77\u9053\u958b\u767a\u5c40\u7db2\u8d70\u958b\u767a\u5efa\u8a2d\u90e8\u5317\u898b\u9053\u8def\u4e8b\u52d9\u6240","boring_xml_url":43,"boring_view_url":1,"soilmap_view_url":null,"soiltest_xml_url":0,"soiltest_view_url":0},{"id":239968,"code":"B4KJ201802000-5448","latitude":"43.937778","longitude":"144.126139","source_code":"HK20092920090015","project_name":"\u7db2\u8d70\u5ddd\u8c4a\u91cc\u5730\u533a\u5916\u5730\u8cea\u8abf\u67fb\u696d\u52d9","survey_name":"\u7db2\u8d70\u5ddd\u8c4a\u91cc\u5730\u533a\u5916\u5730\u8cea\u8abf\u67fb\u696d\u52d9","client_name":"\u5317\u6d77\u9053\u958b\u767a\u5c40 \u7db2\u8d70\u958b\u767a\u5efa\u8a2d\u90e8 \u5317\u898b\u6cb3\u5ddd\u4e8b\u52d9\u6240","boring_xml_url":43,"boring_view_url":1,"soilmap_view_url":null,"soiltest_xml_url":0,"soiltest_view_url":0},{"id":239967,"code":"B4KJ201802000-5447","latitude":"43.72","longitude":"144.015083","source_code":"HK20092920090014","project_name":"\u7db2\u8d70\u5ddd\u8c4a\u91cc\u5730\u533a\u5916\u5730\u8cea\u8abf\u67fb\u696d\u52d9","survey_name":"\u7db2\u8d70\u5ddd\u8c4a\u91cc\u5730\u533a\u5916\u5730\u8cea\u8abf\u67fb\u696d\u52d9","client_name":"\u5317\u6d77\u9053\u958b\u767a\u5c40 \u7db2\u8d70\u958b\u767a\u5efa\u8a2d\u90e8 \u5317\u898b\u6cb3\u5ddd\u4e8b\u52d9\u6240","boring_xml_url":43,"boring_view_url":1,"soilmap_view_url":null,"soiltest_xml_url":0,"soiltest_view_url":0},{"id":239966,"code":"B4KJ201802000-5446","latitude":"43.823389","longitude":"144.126139","source_code":"HK20092920090013","project_name":"\u7db2\u8d70\u5ddd\u8c4a\u91cc\u5730\u533a\u5916\u5730\u8cea\u8abf\u67fb\u696d\u52d9","survey_name":"\u7db2\u8d70\u5ddd\u8c4a\u91cc\u5730\u533a\u5916\u5730\u8cea\u8abf\u67fb\u696d\u52d9","client_name":"\u5317\u6d77\u9053\u958b\u767a\u5c40 \u7db2\u8d70\u958b\u767a\u5efa\u8a2d\u90e8 \u5317\u898b\u6cb3\u5ddd\u4e8b\u52d9\u6240","boring_xml_url":43,"boring_view_url":1,"soilmap_view_url":null,"soiltest_xml_url":43,"soiltest_view_url":42},{"id":239965,"code":"B4KJ201802000-5445","latitude":"43.830389","longitude":"144.121667","source_code":"HK20092920090012","project_name":"\u7db2\u8d70\u5ddd\u8c4a\u91cc\u5730\u533a\u5916\u5730\u8cea\u8abf\u67fb\u696d\u52d9","survey_name":"\u7db2\u8d70\u5ddd\u8c4a\u91cc\u5730\u533a\u5916\u5730\u8cea\u8abf\u67fb\u696d\u52d9","client_name":"\u5317\u6d77\u9053\u958b\u767a\u5c40 \u7db2\u8d70\u958b\u767a\u5efa\u8a2d\u90e8 \u5317\u898b\u6cb3\u5ddd\u4e8b\u52d9\u6240","boring_xml_url":43,"boring_view_url":1,"soilmap_view_url":null,"soiltest_xml_url":43,"soiltest_view_url":42},{"id":239964,"code":"B4KJ201802000-5444","latitude":"43.834444","longitude":"144.116778","source_code":"HK20092920090011","project_name":"\u7db2\u8d70\u5ddd\u8c4a\u91cc\u5730\u533a\u5916\u5730\u8cea\u8abf\u67fb\u696d\u52d9","survey_name":"\u7db2\u8d70\u5ddd\u8c4a\u91cc\u5730\u533a\u5916\u5730\u8cea\u8abf\u67fb\u696d\u52d9","client_name":"\u5317\u6d77\u9053\u958b\u767a\u5c40 \u7db2\u8d70\u958b\u767a\u5efa\u8a2d\u90e8 \u5317\u898b\u6cb3\u5ddd\u4e8b\u52d9\u6240","boring_xml_url":43,"boring_view_url":1,"soilmap_view_url":null,"soiltest_xml_url":43,"soiltest_view_url":42},{"id":239963,"code":"B4KJ201802000-5443","latitude":"43.846556","longitude":"144.115194","source_code":"HK20092920090010","project_name":"\u7db2\u8d70\u5ddd\u8c4a\u91cc\u5730\u533a\u5916\u5730\u8cea\u8abf\u67fb\u696d\u52d9","survey_name":"\u7db2\u8d70\u5ddd\u8c4a\u91cc\u5730\u533a\u5916\u5730\u8cea\u8abf\u67fb\u696d\u52d9","client_name":"\u5317\u6d77\u9053\u958b\u767a\u5c40 \u7db2\u8d70\u958b\u767a\u5efa\u8a2d\u90e8 \u5317\u898b\u6cb3\u5ddd\u4e8b\u52d9\u6240","boring_xml_url":43,"boring_view_url":1,"soilmap_view_url":null,"soiltest_xml_url":43,"soiltest_view_url":42},{"id":239962,"code":"B4KJ201802000-5442","latitude":"43.848528","longitude":"144.115222","source_code":"HK20092920090009","project_name":"\u7db2\u8d70\u5ddd\u8c4a\u91cc\u5730\u533a\u5916\u5730\u8cea\u8abf\u67fb\u696d\u52d9","survey_name":"\u7db2\u8d70\u5ddd\u8c4a\u91cc\u5730\u533a\u5916\u5730\u8cea\u8abf\u67fb\u696d\u52d9","client_name":"\u5317\u6d77\u9053\u958b\u767a\u5c40 \u7db2\u8d70\u958b\u767a\u5efa\u8a2d\u90e8 \u5317\u898b\u6cb3\u5ddd\u4e8b\u52d9\u6240","boring_xml_url":43,"boring_view_url":1,"soilmap_view_url":null,"soiltest_xml_url":43,"soiltest_view_url":42},{"id":239961,"code":"B4KJ201802000-5441","latitude":"43.856722","longitude":"144.118167","source_code":"HK20092920090008","project_name":"\u7db2\u8d70\u5ddd\u8c4a\u91cc\u5730\u533a\u5916\u5730\u8cea\u8abf\u67fb\u696d\u52d9","survey_name":"\u7db2\u8d70\u5ddd\u8c4a\u91cc\u5730\u533a\u5916\u5730\u8cea\u8abf\u67fb\u696d\u52d9","client_name":"\u5317\u6d77\u9053\u958b\u767a\u5c40 \u7db2\u8d70\u958b\u767a\u5efa\u8a2d\u90e8 \u5317\u898b\u6cb3\u5ddd\u4e8b\u52d9\u6240","boring_xml_url":43,"boring_view_url":1,"soilmap_view_url":null,"soiltest_xml_url":43,"soiltest_view_url":42},{"id":239960,"code":"B4KJ201802000-5440","latitude":"43.858556","longitude":"144.117194","source_code":"HK20092920090007","project_name":"\u7db2\u8d70\u5ddd\u8c4a\u91cc\u5730\u533a\u5916\u5730\u8cea\u8abf\u67fb\u696d\u52d9","survey_name":"\u7db2\u8d70\u5ddd\u8c4a\u91cc\u5730\u533a\u5916\u5730\u8cea\u8abf\u67fb\u696d\u52d9","client_name":"\u5317\u6d77\u9053\u958b\u767a\u5c40 \u7db2\u8d70\u958b\u767a\u5efa\u8a2d\u90e8 \u5317\u898b\u6cb3\u5ddd\u4e8b\u52d9\u6240","boring_xml_url":43,"boring_view_url":1,"soilmap_view_url":null,"soiltest_xml_url":43,"soiltest_view_url":42},{"id":239959,"code":"B4KJ201802000-5439","latitude":"43.86625","longitude":"144.123361","source_code":"HK20092920090006","project_name":"\u7db2\u8d70\u5ddd\u8c4a\u91cc\u5730\u533a\u5916\u5730\u8cea\u8abf\u67fb\u696d\u52d9","survey_name":"\u7db2\u8d70\u5ddd\u8c4a\u91cc\u5730\u533a\u5916\u5730\u8cea\u8abf\u67fb\u696d\u52d9","client_name":"\u5317\u6d77\u9053\u958b\u767a\u5c40 \u7db2\u8d70\u958b\u767a\u5efa\u8a2d\u90e8 \u5317\u898b\u6cb3\u5ddd\u4e8b\u52d9\u6240","boring_xml_url":43,"boring_view_url":1,"soilmap_view_url":null,"soiltest_xml_url":43,"soiltest_view_url":42},{"id":239958,"code":"B4KJ201802000-5438","latitude":"43.870556","longitude":"144.12775","source_code":"HK20092920090005","project_name":"\u7db2\u8d70\u5ddd\u8c4a\u91cc\u5730\u533a\u5916\u5730\u8cea\u8abf\u67fb\u696d\u52d9","survey_name":"\u7db2\u8d70\u5ddd\u8c4a\u91cc\u5730\u533a\u5916\u5730\u8cea\u8abf\u67fb\u696d\u52d9","client_name":"\u5317\u6d77\u9053\u958b\u767a\u5c40 \u7db2\u8d70\u958b\u767a\u5efa\u8a2d\u90e8 \u5317\u898b\u6cb3\u5ddd\u4e8b\u52d9\u6240","boring_xml_url":43,"boring_view_url":1,"soilmap_view_url":null,"soiltest_xml_url":43,"soiltest_view_url":42},{"id":239957,"code":"B4KJ201802000-5437","latitude":"43.881194","longitude":"144.130278","source_code":"HK20092920090004","project_name":"\u7db2\u8d70\u5ddd\u8c4a\u91cc\u5730\u533a\u5916\u5730\u8cea\u8abf\u67fb\u696d\u52d9","survey_name":"\u7db2\u8d70\u5ddd\u8c4a\u91cc\u5730\u533a\u5916\u5730\u8cea\u8abf\u67fb\u696d\u52d9","client_name":"\u5317\u6d77\u9053\u958b\u767a\u5c40 \u7db2\u8d70\u958b\u767a\u5efa\u8a2d\u90e8 \u5317\u898b\u6cb3\u5ddd\u4e8b\u52d9\u6240","boring_xml_url":43,"boring_view_url":1,"soilmap_view_url":null,"soiltest_xml_url":43,"soiltest_view_url":42},{"id":239956,"code":"B4KJ201802000-5436","latitude":"43.891972","longitude":"144.127917","source_code":"HK20092920090003","project_name":"\u7db2\u8d70\u5ddd\u8c4a\u91cc\u5730\u533a\u5916\u5730\u8cea\u8abf\u67fb\u696d\u52d9","survey_name":"\u7db2\u8d70\u5ddd\u8c4a\u91cc\u5730\u533a\u5916\u5730\u8cea\u8abf\u67fb\u696d\u52d9","client_name":"\u5317\u6d77\u9053\u958b\u767a\u5c40 \u7db2\u8d70\u958b\u767a\u5efa\u8a2d\u90e8 \u5317\u898b\u6cb3\u5ddd\u4e8b\u52d9\u6240","boring_xml_url":43,"boring_view_url":1,"soilmap_view_url":null,"soiltest_xml_url":43,"soiltest_view_url":42},{"id":239955,"code":"B4KJ201802000-5435","latitude":"43.89175","longitude":"144.138194","source_code":"HK20092920090002","project_name":"\u7db2\u8d70\u5ddd\u8c4a\u91cc\u5730\u533a\u5916\u5730\u8cea\u8abf\u67fb\u696d\u52d9","survey_name":"\u7db2\u8d70\u5ddd\u8c4a\u91cc\u5730\u533a\u5916\u5730\u8cea\u8abf\u67fb\u696d\u52d9","client_name":"\u5317\u6d77\u9053\u958b\u767a\u5c40 \u7db2\u8d70\u958b\u767a\u5efa\u8a2d\u90e8 \u5317\u898b\u6cb3\u5ddd\u4e8b\u52d9\u6240","boring_xml_url":43,"boring_view_url":1,"soilmap_view_url":null,"soiltest_xml_url":43,"soiltest_view_url":42},{"id":239954,"code":"B4KJ201802000-5434","latitude":"43.929417","longitude":"144.158","source_code":"HK20092920090001","project_name":"\u7db2\u8d70\u5ddd\u8c4a\u91cc\u5730\u533a\u5916\u5730\u8cea\u8abf\u67fb\u696d\u52d9","survey_name":"\u7db2\u8d70\u5ddd\u8c4a\u91cc\u5730\u533a\u5916\u5730\u8cea\u8abf\u67fb\u696d\u52d9","client_name":"\u5317\u6d77\u9053\u958b\u767a\u5c40 \u7db2\u8d70\u958b\u767a\u5efa\u8a2d\u90e8 \u5317\u898b\u6cb3\u5ddd\u4e8b\u52d9\u6240","boring_xml_url":43,"boring_view_url":1,"soilmap_view_url":null,"soiltest_xml_url":43,"soiltest_view_url":42},{"id":239953,"code":"B4KJ201802000-5433","latitude":"43.982611","longitude":"143.954278","source_code":"HK20102920180025","project_name":"","survey_name":"\u5317\u898b\u6cb3\u5ddd\u4e8b\u52d9\u6240\u7ba1\u5185 \u5730\u8cea\u8abf\u67fb\u696d\u52d9","client_name":"\u5317\u6d77\u9053\u958b\u767a\u5c40 \u7db2\u8d70\u958b\u767a\u5efa\u8a2d\u90e8 \u5317\u898b\u6cb3\u5ddd\u4e8b\u52d9\u6240","boring_xml_url":43,"boring_view_url":1,"soilmap_view_url":null,"soiltest_xml_url":43,"soiltest_view_url":42},{"id":239952,"code":"B4KJ201802000-5432","latitude":"43.974194","longitude":"143.95175","source_code":"HK20102920180024","project_name":"","survey_name":"\u5317\u898b\u6cb3\u5ddd\u4e8b\u52d9\u6240\u7ba1\u5185 \u5730\u8cea\u8abf\u67fb\u696d\u52d9","client_name":"\u5317\u6d77\u9053\u958b\u767a\u5c40 \u7db2\u8d70\u958b\u767a\u5efa\u8a2d\u90e8 \u5317\u898b\u6cb3\u5ddd\u4e8b\u52d9\u6240","boring_xml_url":43,"boring_view_url":1,"soilmap_view_url":null,"soiltest_xml_url":43,"soiltest_view_url":42},{"id":239951,"code":"B4KJ201802000-5431","latitude":"43.976333","longitude":"143.952083","source_code":"HK20102920180023","project_name":"","survey_name":"\u5317\u898b\u6cb3\u5ddd\u4e8b\u52d9\u6240\u7ba1\u5185 \u5730\u8cea\u8abf\u67fb\u696d\u52d9","client_name":"\u5317\u6d77\u9053\u958b\u767a\u5c40 \u7db2\u8d70\u958b\u767a\u5efa\u8a2d\u90e8 \u5317\u898b\u6cb3\u5ddd\u4e8b\u52d9\u6240","boring_xml_url":43,"boring_view_url":1,"soilmap_view_url":null,"soiltest_xml_url":43,"soiltest_view_url":42},{"id":239950,"code":"B4KJ201802000-5430","latitude":"43.977944","longitude":"143.953306","source_code":"HK20102920180022","project_name":"","survey_name":"\u5317\u898b\u6cb3\u5ddd\u4e8b\u52d9\u6240\u7ba1\u5185 \u5730\u8cea\u8abf\u67fb\u696d\u52d9","client_name":"\u5317\u6d77\u9053\u958b\u767a\u5c40 \u7db2\u8d70\u958b\u767a\u5efa\u8a2d\u90e8 \u5317\u898b\u6cb3\u5ddd\u4e8b\u52d9\u6240","boring_xml_url":43,"boring_view_url":1,"soilmap_view_url":null,"soiltest_xml_url":43,"soiltest_view_url":42}]}}