{"header":{"xyz":{"source":[],"mosaic":false},"page":3027,"raw":{"soiltest_result":"0","bbox":"57.598333,109.544722,1.933333,163.806111","page":"3027"},"conditions":{"soiltest_result":0,"north":57.598333,"west":109.544722,"south":1.933333,"east":163.806111},"success":true,"message":""},"data":{"meta":{"total":212844,"page":3027,"pages":7095,"count":30},"values":[{"id":239739,"code":"B4KJ201802000-5219","latitude":"41.927139","longitude":"140.201722","source_code":"HK20112301650002","project_name":"_","survey_name":"\u539a\u6ca2\u90e8\u5ddd\u5824\u9632\u69cb\u9020\u8abf\u67fb\u696d\u52d9","client_name":"\u5317\u6d77\u9053\u958b\u767a\u5c40 \u51fd\u9928\u958b\u767a\u5efa\u8a2d\u90e8","boring_xml_url":43,"boring_view_url":1,"soilmap_view_url":null,"soiltest_xml_url":0,"soiltest_view_url":0},{"id":239738,"code":"B4KJ201802000-5218","latitude":"41.927194","longitude":"140.201694","source_code":"HK20112301650001","project_name":"_","survey_name":"\u539a\u6ca2\u90e8\u5ddd\u5824\u9632\u69cb\u9020\u8abf\u67fb\u696d\u52d9","client_name":"\u5317\u6d77\u9053\u958b\u767a\u5c40 \u51fd\u9928\u958b\u767a\u5efa\u8a2d\u90e8","boring_xml_url":43,"boring_view_url":1,"soilmap_view_url":null,"soiltest_xml_url":0,"soiltest_view_url":0},{"id":239737,"code":"B4KJ201802000-5217","latitude":"42.418056","longitude":"139.855556","source_code":"HK20082301630001","project_name":"_","survey_name":"\u5f8c\u5fd7\u5229\u5225\u5ddd \u6cb3\u5ddd\u8a08\u753b\u691c\u8a0e\u696d\u52d9","client_name":"\u5317\u6d77\u9053\u958b\u767a\u5c40\u51fd\u9928\u958b\u767a\u5efa\u8a2d\u90e8","boring_xml_url":43,"boring_view_url":1,"soilmap_view_url":null,"soiltest_xml_url":0,"soiltest_view_url":0},{"id":239736,"code":"B4KJ201802000-5216","latitude":"44.924361","longitude":"142.575833","source_code":"HK20083105130028","project_name":"\u4e00\u822c\u56fd\u9053238\u53f7\u6d5c\u9813\u5225\u753a\u8c4a\u6d5c\u5730\u8cea\u8abf\u67fb\u5916\u4e00\u9023\u696d\u52d9","survey_name":"\u4e00\u822c\u56fd\u9053238\u53f7\u6d5c\u9813\u5225\u753a\u8c4a\u6d5c\u5730\u8cea\u8abf\u67fb\u5916\u4e00\u9023\u696d\u52d9","client_name":"\u5317\u6d77\u9053\u958b\u767a\u5c40 \u7a1a\u5185\u958b\u767a\u5efa\u8a2d\u90e8 \u6d5c\u9813\u5225\u9053\u8def\u4e8b\u52d9\u6240","boring_xml_url":43,"boring_view_url":1,"soilmap_view_url":null,"soiltest_xml_url":46,"soiltest_view_url":45},{"id":239735,"code":"B4KJ201802000-5215","latitude":"45.096944","longitude":"142.4375","source_code":"HK20083105130007","project_name":"\u4e00\u822c\u56fd\u9053238\u53f7\u6d5c\u9813\u5225\u753a\u8c4a\u6d5c\u5730\u8cea\u8abf\u67fb\u5916\u4e00\u9023\u696d\u52d9","survey_name":"\u4e00\u822c\u56fd\u9053238\u53f7\u6d5c\u9813\u5225\u753a\u8c4a\u6d5c\u5730\u8cea\u8abf\u67fb\u5916\u4e00\u9023\u696d\u52d9","client_name":"\u5317\u6d77\u9053\u958b\u767a\u5c40 \u7a1a\u5185\u958b\u767a\u5efa\u8a2d\u90e8 \u6d5c\u9813\u5225\u9053\u8def\u4e8b\u52d9\u6240","boring_xml_url":43,"boring_view_url":1,"soilmap_view_url":null,"soiltest_xml_url":0,"soiltest_view_url":0},{"id":239734,"code":"B4KJ201802000-5214","latitude":"45.094722","longitude":"142.440833","source_code":"HK20083105130006","project_name":"\u4e00\u822c\u56fd\u9053238\u53f7\u6d5c\u9813\u5225\u753a\u8c4a\u6d5c\u5730\u8cea\u8abf\u67fb\u5916\u4e00\u9023\u696d\u52d9","survey_name":"\u4e00\u822c\u56fd\u9053238\u53f7\u6d5c\u9813\u5225\u753a\u8c4a\u6d5c\u5730\u8cea\u8abf\u67fb\u5916\u4e00\u9023\u696d\u52d9","client_name":"\u5317\u6d77\u9053\u958b\u767a\u5c40 \u7a1a\u5185\u958b\u767a\u5efa\u8a2d\u90e8 \u6d5c\u9813\u5225\u9053\u8def\u4e8b\u52d9\u6240","boring_xml_url":43,"boring_view_url":1,"soilmap_view_url":null,"soiltest_xml_url":0,"soiltest_view_url":0},{"id":239733,"code":"B4KJ201802000-5213","latitude":"45.09","longitude":"142.446111","source_code":"HK20083105130005","project_name":"\u4e00\u822c\u56fd\u9053238\u53f7\u6d5c\u9813\u5225\u753a\u8c4a\u6d5c\u5730\u8cea\u8abf\u67fb\u5916\u4e00\u9023\u696d\u52d9","survey_name":"\u4e00\u822c\u56fd\u9053238\u53f7\u6d5c\u9813\u5225\u753a\u8c4a\u6d5c\u5730\u8cea\u8abf\u67fb\u5916\u4e00\u9023\u696d\u52d9","client_name":"\u5317\u6d77\u9053\u958b\u767a\u5c40 \u7a1a\u5185\u958b\u767a\u5efa\u8a2d\u90e8 \u6d5c\u9813\u5225\u9053\u8def\u4e8b\u52d9\u6240","boring_xml_url":43,"boring_view_url":1,"soilmap_view_url":null,"soiltest_xml_url":0,"soiltest_view_url":0},{"id":239732,"code":"B4KJ201802000-5212","latitude":"45.087778","longitude":"142.449167","source_code":"HK20083105130004","project_name":"\u4e00\u822c\u56fd\u9053238\u53f7\u6d5c\u9813\u5225\u753a\u8c4a\u6d5c\u5730\u8cea\u8abf\u67fb\u5916\u4e00\u9023\u696d\u52d9","survey_name":"\u4e00\u822c\u56fd\u9053238\u53f7\u6d5c\u9813\u5225\u753a\u8c4a\u6d5c\u5730\u8cea\u8abf\u67fb\u5916\u4e00\u9023\u696d\u52d9","client_name":"\u5317\u6d77\u9053\u958b\u767a\u5c40 \u7a1a\u5185\u958b\u767a\u5efa\u8a2d\u90e8 \u6d5c\u9813\u5225\u9053\u8def\u4e8b\u52d9\u6240","boring_xml_url":43,"boring_view_url":1,"soilmap_view_url":null,"soiltest_xml_url":0,"soiltest_view_url":0},{"id":239731,"code":"B4KJ201802000-5211","latitude":"45.085556","longitude":"142.451389","source_code":"HK20083105130003","project_name":"\u4e00\u822c\u56fd\u9053238\u53f7\u6d5c\u9813\u5225\u753a\u8c4a\u6d5c\u5730\u8cea\u8abf\u67fb\u5916\u4e00\u9023\u696d\u52d9","survey_name":"\u4e00\u822c\u56fd\u9053238\u53f7\u6d5c\u9813\u5225\u753a\u8c4a\u6d5c\u5730\u8cea\u8abf\u67fb\u5916\u4e00\u9023\u696d\u52d9","client_name":"\u5317\u6d77\u9053\u958b\u767a\u5c40 \u7a1a\u5185\u958b\u767a\u5efa\u8a2d\u90e8 \u6d5c\u9813\u5225\u9053\u8def\u4e8b\u52d9\u6240","boring_xml_url":43,"boring_view_url":1,"soilmap_view_url":null,"soiltest_xml_url":0,"soiltest_view_url":0},{"id":239730,"code":"B4KJ201802000-5210","latitude":"45.081944","longitude":"142.456111","source_code":"HK20083105130002","project_name":"\u4e00\u822c\u56fd\u9053238\u53f7\u6d5c\u9813\u5225\u753a\u8c4a\u6d5c\u5730\u8cea\u8abf\u67fb\u5916\u4e00\u9023\u696d\u52d9","survey_name":"\u4e00\u822c\u56fd\u9053238\u53f7\u6d5c\u9813\u5225\u753a\u8c4a\u6d5c\u5730\u8cea\u8abf\u67fb\u5916\u4e00\u9023\u696d\u52d9","client_name":"\u5317\u6d77\u9053\u958b\u767a\u5c40 \u7a1a\u5185\u958b\u767a\u5efa\u8a2d\u90e8 \u6d5c\u9813\u5225\u9053\u8def\u4e8b\u52d9\u6240","boring_xml_url":43,"boring_view_url":1,"soilmap_view_url":null,"soiltest_xml_url":0,"soiltest_view_url":0},{"id":239729,"code":"B4KJ201802000-5209","latitude":"45.080833","longitude":"142.4575","source_code":"HK20083105130001","project_name":"\u4e00\u822c\u56fd\u9053238\u53f7\u6d5c\u9813\u5225\u753a\u8c4a\u6d5c\u5730\u8cea\u8abf\u67fb\u5916\u4e00\u9023\u696d\u52d9","survey_name":"\u4e00\u822c\u56fd\u9053238\u53f7\u6d5c\u9813\u5225\u753a\u8c4a\u6d5c\u5730\u8cea\u8abf\u67fb\u5916\u4e00\u9023\u696d\u52d9","client_name":"\u5317\u6d77\u9053\u958b\u767a\u5c40 \u7a1a\u5185\u958b\u767a\u5efa\u8a2d\u90e8 \u6d5c\u9813\u5225\u9053\u8def\u4e8b\u52d9\u6240","boring_xml_url":43,"boring_view_url":1,"soilmap_view_url":null,"soiltest_xml_url":0,"soiltest_view_url":0},{"id":239728,"code":"B4KJ201802000-5208","latitude":"45.251972","longitude":"142.23225","source_code":"HK20133105020011","project_name":"\u4e00\u822c\u56fd\u9053238\u53f7 \u733f\u6255\u6751 \u6d45\u8305\u91ce\u5730\u8cea\u8abf\u67fb\u5916\u4e00\u9023\u696d\u52d9","survey_name":"\u4e00\u822c\u56fd\u9053238\u53f7 \u733f\u6255\u6751 \u6d45\u8305\u91ce\u5730\u8cea\u8abf\u67fb\u5916\u4e00\u9023\u696d\u52d9","client_name":"\u5317\u6d77\u9053\u958b\u767a\u5c40\u7a1a\u5185\u958b\u767a\u5efa\u8a2d\u90e8\u6d5c\u9813\u5225\u9053\u8def\u4e8b\u52d9\u6240","boring_xml_url":43,"boring_view_url":1,"soilmap_view_url":null,"soiltest_xml_url":0,"soiltest_view_url":0},{"id":239727,"code":"B4KJ201802000-5207","latitude":"45.249722","longitude":"142.231861","source_code":"HK20133105020010","project_name":"\u4e00\u822c\u56fd\u9053238\u53f7 \u733f\u6255\u6751 \u6d45\u8305\u91ce\u5730\u8cea\u8abf\u67fb\u5916\u4e00\u9023\u696d\u52d9","survey_name":"\u4e00\u822c\u56fd\u9053238\u53f7 \u733f\u6255\u6751 \u6d45\u8305\u91ce\u5730\u8cea\u8abf\u67fb\u5916\u4e00\u9023\u696d\u52d9","client_name":"\u5317\u6d77\u9053\u958b\u767a\u5c40\u7a1a\u5185\u958b\u767a\u5efa\u8a2d\u90e8\u6d5c\u9813\u5225\u9053\u8def\u4e8b\u52d9\u6240","boring_xml_url":43,"boring_view_url":1,"soilmap_view_url":null,"soiltest_xml_url":0,"soiltest_view_url":0},{"id":239726,"code":"B4KJ201802000-5206","latitude":"45.258194","longitude":"142.233361","source_code":"HK20083105070005","project_name":"\u4e00\u822c\u56fd\u9053238\u53f7 \u733f\u6255\u6751 \u6d45\u8305\u91ce\u5730\u8cea\u8abf\u67fb\u5916\u4e00\u9023\u696d\u52d9","survey_name":"\u4e00\u822c\u56fd\u9053238\u53f7 \u733f\u6255\u6751 \u6d45\u8305\u91ce\u5730\u8cea\u8abf\u67fb\u5916\u4e00\u9023\u696d\u52d9","client_name":"\u5317\u6d77\u9053\u958b\u767a\u5c40 \u7a1a\u5185\u958b\u767a\u5efa\u8a2d\u90e8 \u6d5c\u9813\u5225\u9053\u8def\u4e8b\u52d9\u6240","boring_xml_url":43,"boring_view_url":1,"soilmap_view_url":null,"soiltest_xml_url":0,"soiltest_view_url":0},{"id":239725,"code":"B4KJ201802000-5205","latitude":"45.230306","longitude":"142.224139","source_code":"HK20083105070003","project_name":"\u4e00\u822c\u56fd\u9053238\u53f7 \u733f\u6255\u6751 \u6d45\u8305\u91ce\u5730\u8cea\u8abf\u67fb\u5916\u4e00\u9023\u696d\u52d9","survey_name":"\u4e00\u822c\u56fd\u9053238\u53f7 \u733f\u6255\u6751 \u6d45\u8305\u91ce\u5730\u8cea\u8abf\u67fb\u5916\u4e00\u9023\u696d\u52d9","client_name":"\u5317\u6d77\u9053\u958b\u767a\u5c40 \u7a1a\u5185\u958b\u767a\u5efa\u8a2d\u90e8 \u6d5c\u9813\u5225\u9053\u8def\u4e8b\u52d9\u6240","boring_xml_url":43,"boring_view_url":1,"soilmap_view_url":null,"soiltest_xml_url":46,"soiltest_view_url":45},{"id":239724,"code":"B4KJ201802000-5204","latitude":"45.229361","longitude":"142.22425","source_code":"HK20083105070002","project_name":"\u4e00\u822c\u56fd\u9053238\u53f7 \u733f\u6255\u6751 \u6d45\u8305\u91ce\u5730\u8cea\u8abf\u67fb\u5916\u4e00\u9023\u696d\u52d9","survey_name":"\u4e00\u822c\u56fd\u9053238\u53f7 \u733f\u6255\u6751 \u6d45\u8305\u91ce\u5730\u8cea\u8abf\u67fb\u5916\u4e00\u9023\u696d\u52d9","client_name":"\u5317\u6d77\u9053\u958b\u767a\u5c40 \u7a1a\u5185\u958b\u767a\u5efa\u8a2d\u90e8 \u6d5c\u9813\u5225\u9053\u8def\u4e8b\u52d9\u6240","boring_xml_url":43,"boring_view_url":1,"soilmap_view_url":null,"soiltest_xml_url":46,"soiltest_view_url":45},{"id":239723,"code":"B4KJ201802000-5203","latitude":"45.2275","longitude":"142.224333","source_code":"HK20083105070001","project_name":"\u4e00\u822c\u56fd\u9053238\u53f7 \u733f\u6255\u6751 \u6d45\u8305\u91ce\u5730\u8cea\u8abf\u67fb\u5916\u4e00\u9023\u696d\u52d9","survey_name":"\u4e00\u822c\u56fd\u9053238\u53f7 \u733f\u6255\u6751 \u6d45\u8305\u91ce\u5730\u8cea\u8abf\u67fb\u5916\u4e00\u9023\u696d\u52d9","client_name":"\u5317\u6d77\u9053\u958b\u767a\u5c40 \u7a1a\u5185\u958b\u767a\u5efa\u8a2d\u90e8 \u6d5c\u9813\u5225\u9053\u8def\u4e8b\u52d9\u6240","boring_xml_url":43,"boring_view_url":1,"soilmap_view_url":null,"soiltest_xml_url":46,"soiltest_view_url":45},{"id":239722,"code":"B4KJ201802000-5202","latitude":"45.308139","longitude":"141.723389","source_code":"HK20123104030004","project_name":"\u4e00\u822c\u56fd\u905340\u53f7 \u7a1a\u5185\u5e02 \u66f4\u559c\u82eb\u5185\u5730\u8cea\u8abf\u67fb\u5916\u4e00\u9023\u696d\u52d9","survey_name":"\u4e00\u822c\u56fd\u905340\u53f7 \u7a1a\u5185\u5e02 \u66f4\u559c\u82eb\u5185\u5730\u8cea\u8abf\u67fb\u5916\u4e00\u9023\u696d\u52d9","client_name":"\u5317\u6d77\u9053\u958b\u767a\u5c40 \u7a1a\u5185\u958b\u767a\u5efa\u8a2d\u90e8 \u7a1a\u5185\u9053\u8def\u4e8b\u52d9\u6240","boring_xml_url":43,"boring_view_url":1,"soilmap_view_url":null,"soiltest_xml_url":0,"soiltest_view_url":0},{"id":239721,"code":"B4KJ201802000-5201","latitude":"45.242861","longitude":"141.751694","source_code":"HK20123104030002","project_name":"\u4e00\u822c\u56fd\u905340\u53f7 \u7a1a\u5185\u5e02 \u66f4\u559c\u82eb\u5185\u5730\u8cea\u8abf\u67fb\u5916\u4e00\u9023\u696d\u52d9","survey_name":"\u4e00\u822c\u56fd\u905340\u53f7 \u7a1a\u5185\u5e02 \u66f4\u559c\u82eb\u5185\u5730\u8cea\u8abf\u67fb\u5916\u4e00\u9023\u696d\u52d9","client_name":"\u5317\u6d77\u9053\u958b\u767a\u5c40 \u7a1a\u5185\u958b\u767a\u5efa\u8a2d\u90e8 \u7a1a\u5185\u9053\u8def\u4e8b\u52d9\u6240","boring_xml_url":43,"boring_view_url":1,"soilmap_view_url":null,"soiltest_xml_url":0,"soiltest_view_url":0},{"id":239720,"code":"B4KJ201802000-5200","latitude":"45.242722","longitude":"141.751722","source_code":"HK20123104030001","project_name":"\u4e00\u822c\u56fd\u905340\u53f7 \u7a1a\u5185\u5e02 \u66f4\u559c\u82eb\u5185\u5730\u8cea\u8abf\u67fb\u5916\u4e00\u9023\u696d\u52d9","survey_name":"\u4e00\u822c\u56fd\u905340\u53f7 \u7a1a\u5185\u5e02 \u66f4\u559c\u82eb\u5185\u5730\u8cea\u8abf\u67fb\u5916\u4e00\u9023\u696d\u52d9","client_name":"\u5317\u6d77\u9053\u958b\u767a\u5c40 \u7a1a\u5185\u958b\u767a\u5efa\u8a2d\u90e8 \u7a1a\u5185\u9053\u8def\u4e8b\u52d9\u6240","boring_xml_url":43,"boring_view_url":1,"soilmap_view_url":null,"soiltest_xml_url":0,"soiltest_view_url":0},{"id":239719,"code":"B4KJ201802000-5199","latitude":"45.451861","longitude":"142.005444","source_code":"HK20113104120009","project_name":"\u4e00\u822c\u56fd\u9053238\u53f7 \u733f\u6255\u6751 \u30b7\u30cd\u30b7\u30f3\u30b3\u5730\u8cea\u8abf\u67fb\u5916\u4e00\u9023\u696d\u52d9","survey_name":"\u4e00\u822c\u56fd\u9053238\u53f7 \u733f\u6255\u6751 \u30b7\u30cd\u30b7\u30f3\u30b3\u5730\u8cea\u8abf\u67fb\u5916\u4e00\u9023\u696d\u52d9","client_name":"\u5317\u6d77\u9053\u958b\u767a\u5c40 \u7a1a\u5185\u958b\u767a\u5efa\u8a2d\u90e8 \u7a1a\u5185\u9053\u8def\u4e8b\u52d9\u6240","boring_xml_url":43,"boring_view_url":1,"soilmap_view_url":null,"soiltest_xml_url":0,"soiltest_view_url":0},{"id":239718,"code":"B4KJ201802000-5198","latitude":"45.255528","longitude":"141.745056","source_code":"HK20083104260004","project_name":"","survey_name":"\u4e00\u822c\u56fd\u905340\u53f7 \u8c4a\u5bcc\u753a \u958b\u6e90\u3053\u9053\u6a4b\u5916\u5730\u8cea\u8abf\u67fb\u696d\u52d9","client_name":"\u5317\u6d77\u9053\u958b\u767a\u5c40 \u7a1a\u5185\u958b\u767a\u5efa\u8a2d\u90e8 \u7a1a\u5185\u958b\u767a\u4e8b\u52d9\u6240","boring_xml_url":43,"boring_view_url":1,"soilmap_view_url":null,"soiltest_xml_url":46,"soiltest_view_url":45},{"id":239717,"code":"B4KJ201802000-5197","latitude":"45.255417","longitude":"141.744722","source_code":"HK20083104260003","project_name":"","survey_name":"\u4e00\u822c\u56fd\u905340\u53f7 \u8c4a\u5bcc\u753a \u958b\u6e90\u3053\u9053\u6a4b\u5916\u5730\u8cea\u8abf\u67fb\u696d\u52d9","client_name":"\u5317\u6d77\u9053\u958b\u767a\u5c40 \u7a1a\u5185\u958b\u767a\u5efa\u8a2d\u90e8 \u7a1a\u5185\u958b\u767a\u4e8b\u52d9\u6240","boring_xml_url":43,"boring_view_url":1,"soilmap_view_url":null,"soiltest_xml_url":46,"soiltest_view_url":45},{"id":239716,"code":"B4KJ201802000-5196","latitude":"45.242722","longitude":"141.751722","source_code":"HK20083104260002","project_name":"","survey_name":"\u4e00\u822c\u56fd\u905340\u53f7 \u8c4a\u5bcc\u753a \u958b\u6e90\u3053\u9053\u6a4b\u5916\u5730\u8cea\u8abf\u67fb\u696d\u52d9","client_name":"\u5317\u6d77\u9053\u958b\u767a\u5c40 \u7a1a\u5185\u958b\u767a\u5efa\u8a2d\u90e8 \u7a1a\u5185\u958b\u767a\u4e8b\u52d9\u6240","boring_xml_url":43,"boring_view_url":1,"soilmap_view_url":null,"soiltest_xml_url":46,"soiltest_view_url":45},{"id":239715,"code":"B4KJ201802000-5195","latitude":"45.242667","longitude":"141.751472","source_code":"HK20083104260001","project_name":"","survey_name":"\u4e00\u822c\u56fd\u905340\u53f7 \u8c4a\u5bcc\u753a \u958b\u6e90\u3053\u9053\u6a4b\u5916\u5730\u8cea\u8abf\u67fb\u696d\u52d9","client_name":"\u5317\u6d77\u9053\u958b\u767a\u5c40 \u7a1a\u5185\u958b\u767a\u5efa\u8a2d\u90e8 \u7a1a\u5185\u958b\u767a\u4e8b\u52d9\u6240","boring_xml_url":43,"boring_view_url":1,"soilmap_view_url":null,"soiltest_xml_url":46,"soiltest_view_url":45},{"id":239714,"code":"B4KJ201802000-5194","latitude":"45.119361","longitude":"142.354917","source_code":"HK20133103460009","project_name":"","survey_name":"\u7a1a\u5185\u958b\u767a\u5efa\u8a2d\u90e8\u7ba1\u5185 \u9053\u8def\u9664\u96ea\u65bd\u8a2d \u5730\u8cea\u8abf\u67fb\u696d\u52d9","client_name":"\u5317\u6d77\u9053\u958b\u767a\u5c40 \u7a1a\u5185\u958b\u767a\u5efa\u8a2d\u90e8","boring_xml_url":43,"boring_view_url":1,"soilmap_view_url":null,"soiltest_xml_url":0,"soiltest_view_url":0},{"id":239713,"code":"B4KJ201802000-5193","latitude":"44.962278","longitude":"142.261722","source_code":"HK20133103460008","project_name":"","survey_name":"\u7a1a\u5185\u958b\u767a\u5efa\u8a2d\u90e8\u7ba1\u5185 \u9053\u8def\u9664\u96ea\u65bd\u8a2d \u5730\u8cea\u8abf\u67fb\u696d\u52d9","client_name":"\u5317\u6d77\u9053\u958b\u767a\u5c40 \u7a1a\u5185\u958b\u767a\u5efa\u8a2d\u90e8","boring_xml_url":43,"boring_view_url":1,"soilmap_view_url":null,"soiltest_xml_url":0,"soiltest_view_url":0},{"id":239712,"code":"B4KJ201802000-5192","latitude":"45.098528","longitude":"141.797056","source_code":"HK20133103460007","project_name":"","survey_name":"\u7a1a\u5185\u958b\u767a\u5efa\u8a2d\u90e8\u7ba1\u5185 \u9053\u8def\u9664\u96ea\u65bd\u8a2d \u5730\u8cea\u8abf\u67fb\u696d\u52d9","client_name":"\u5317\u6d77\u9053\u958b\u767a\u5c40 \u7a1a\u5185\u958b\u767a\u5efa\u8a2d\u90e8","boring_xml_url":43,"boring_view_url":1,"soilmap_view_url":null,"soiltest_xml_url":0,"soiltest_view_url":0},{"id":239711,"code":"B4KJ201802000-5191","latitude":"45.3955","longitude":"141.710472","source_code":"HK20133103460006","project_name":"","survey_name":"\u7a1a\u5185\u958b\u767a\u5efa\u8a2d\u90e8\u7ba1\u5185 \u9053\u8def\u9664\u96ea\u65bd\u8a2d \u5730\u8cea\u8abf\u67fb\u696d\u52d9","client_name":"\u5317\u6d77\u9053\u958b\u767a\u5c40 \u7a1a\u5185\u958b\u767a\u5efa\u8a2d\u90e8","boring_xml_url":43,"boring_view_url":1,"soilmap_view_url":null,"soiltest_xml_url":0,"soiltest_view_url":0},{"id":239710,"code":"B4KJ201802000-5190","latitude":"45.513889","longitude":"141.956028","source_code":"HK20133103460005","project_name":"","survey_name":"\u7a1a\u5185\u958b\u767a\u5efa\u8a2d\u90e8\u7ba1\u5185 \u9053\u8def\u9664\u96ea\u65bd\u8a2d \u5730\u8cea\u8abf\u67fb\u696d\u52d9","client_name":"\u5317\u6d77\u9053\u958b\u767a\u5c40 \u7a1a\u5185\u958b\u767a\u5efa\u8a2d\u90e8","boring_xml_url":43,"boring_view_url":1,"soilmap_view_url":null,"soiltest_xml_url":0,"soiltest_view_url":0}]}}