{"header":{"xyz":{"source":[],"mosaic":false},"page":3038,"raw":{"soiltest_result":"0","bbox":"57.598333,109.544722,1.933333,163.806111","page":"3038"},"conditions":{"soiltest_result":0,"north":57.598333,"west":109.544722,"south":1.933333,"east":163.806111},"success":true,"message":""},"data":{"meta":{"total":212844,"page":3038,"pages":7095,"count":30},"values":[{"id":239409,"code":"B4KJ201802000-4889","latitude":"42.922278","longitude":"143.446694","source_code":"HK20072806220013","project_name":"","survey_name":"\u5e73\u621019\u5e74\u5ea6\u65bd\u884c \u6c60\u7530\u6cb3\u5ddd\u4e8b\u52d9\u6240\u7ba1\u5185 \u5824\u9632\u8a73\u7d30\u70b9\u691c\u696d\u52d9","client_name":"\u5317\u6d77\u9053\u958b\u767a\u5c40 \u5e2f\u5e83\u958b\u767a\u5efa\u8a2d\u90e8","boring_xml_url":43,"boring_view_url":1,"soilmap_view_url":null,"soiltest_xml_url":46,"soiltest_view_url":45},{"id":239408,"code":"B4KJ201802000-4888","latitude":"42.90325","longitude":"143.456417","source_code":"HK20072806220012","project_name":"","survey_name":"\u5e73\u621019\u5e74\u5ea6\u65bd\u884c \u6c60\u7530\u6cb3\u5ddd\u4e8b\u52d9\u6240\u7ba1\u5185 \u5824\u9632\u8a73\u7d30\u70b9\u691c\u696d\u52d9","client_name":"\u5317\u6d77\u9053\u958b\u767a\u5c40 \u5e2f\u5e83\u958b\u767a\u5efa\u8a2d\u90e8","boring_xml_url":43,"boring_view_url":1,"soilmap_view_url":null,"soiltest_xml_url":46,"soiltest_view_url":45},{"id":239407,"code":"B4KJ201802000-4887","latitude":"42.903278","longitude":"143.456111","source_code":"HK20072806220011","project_name":"","survey_name":"\u5e73\u621019\u5e74\u5ea6\u65bd\u884c \u6c60\u7530\u6cb3\u5ddd\u4e8b\u52d9\u6240\u7ba1\u5185 \u5824\u9632\u8a73\u7d30\u70b9\u691c\u696d\u52d9","client_name":"\u5317\u6d77\u9053\u958b\u767a\u5c40 \u5e2f\u5e83\u958b\u767a\u5efa\u8a2d\u90e8","boring_xml_url":43,"boring_view_url":1,"soilmap_view_url":null,"soiltest_xml_url":46,"soiltest_view_url":45},{"id":239406,"code":"B4KJ201802000-4886","latitude":"42.896139","longitude":"143.4555","source_code":"HK20072806220010","project_name":"","survey_name":"\u5e73\u621019\u5e74\u5ea6\u65bd\u884c \u6c60\u7530\u6cb3\u5ddd\u4e8b\u52d9\u6240\u7ba1\u5185 \u5824\u9632\u8a73\u7d30\u70b9\u691c\u696d\u52d9","client_name":"\u5317\u6d77\u9053\u958b\u767a\u5c40 \u5e2f\u5e83\u958b\u767a\u5efa\u8a2d\u90e8","boring_xml_url":43,"boring_view_url":1,"soilmap_view_url":null,"soiltest_xml_url":46,"soiltest_view_url":45},{"id":239405,"code":"B4KJ201802000-4885","latitude":"42.896167","longitude":"143.455222","source_code":"HK20072806220009","project_name":"","survey_name":"\u5e73\u621019\u5e74\u5ea6\u65bd\u884c \u6c60\u7530\u6cb3\u5ddd\u4e8b\u52d9\u6240\u7ba1\u5185 \u5824\u9632\u8a73\u7d30\u70b9\u691c\u696d\u52d9","client_name":"\u5317\u6d77\u9053\u958b\u767a\u5c40 \u5e2f\u5e83\u958b\u767a\u5efa\u8a2d\u90e8","boring_xml_url":43,"boring_view_url":1,"soilmap_view_url":null,"soiltest_xml_url":46,"soiltest_view_url":45},{"id":239404,"code":"B4KJ201802000-4884","latitude":"42.887139","longitude":"143.454306","source_code":"HK20072806220008","project_name":"","survey_name":"\u5e73\u621019\u5e74\u5ea6\u65bd\u884c \u6c60\u7530\u6cb3\u5ddd\u4e8b\u52d9\u6240\u7ba1\u5185 \u5824\u9632\u8a73\u7d30\u70b9\u691c\u696d\u52d9","client_name":"\u5317\u6d77\u9053\u958b\u767a\u5c40 \u5e2f\u5e83\u958b\u767a\u5efa\u8a2d\u90e8","boring_xml_url":43,"boring_view_url":1,"soilmap_view_url":null,"soiltest_xml_url":46,"soiltest_view_url":45},{"id":239403,"code":"B4KJ201802000-4883","latitude":"42.887139","longitude":"143.454083","source_code":"HK20072806220007","project_name":"","survey_name":"\u5e73\u621019\u5e74\u5ea6\u65bd\u884c \u6c60\u7530\u6cb3\u5ddd\u4e8b\u52d9\u6240\u7ba1\u5185 \u5824\u9632\u8a73\u7d30\u70b9\u691c\u696d\u52d9","client_name":"\u5317\u6d77\u9053\u958b\u767a\u5c40 \u5e2f\u5e83\u958b\u767a\u5efa\u8a2d\u90e8","boring_xml_url":43,"boring_view_url":1,"soilmap_view_url":null,"soiltest_xml_url":46,"soiltest_view_url":45},{"id":239402,"code":"B4KJ201802000-4882","latitude":"42.916417","longitude":"143.443278","source_code":"HK20072806220006","project_name":"","survey_name":"\u5e73\u621019\u5e74\u5ea6\u65bd\u884c \u6c60\u7530\u6cb3\u5ddd\u4e8b\u52d9\u6240\u7ba1\u5185 \u5824\u9632\u8a73\u7d30\u70b9\u691c\u696d\u52d9","client_name":"\u5317\u6d77\u9053\u958b\u767a\u5c40 \u5e2f\u5e83\u958b\u767a\u5efa\u8a2d\u90e8","boring_xml_url":43,"boring_view_url":1,"soilmap_view_url":null,"soiltest_xml_url":46,"soiltest_view_url":45},{"id":239401,"code":"B4KJ201802000-4881","latitude":"42.916556","longitude":"143.443417","source_code":"HK20072806220005","project_name":"","survey_name":"\u5e73\u621019\u5e74\u5ea6\u65bd\u884c \u6c60\u7530\u6cb3\u5ddd\u4e8b\u52d9\u6240\u7ba1\u5185 \u5824\u9632\u8a73\u7d30\u70b9\u691c\u696d\u52d9","client_name":"\u5317\u6d77\u9053\u958b\u767a\u5c40 \u5e2f\u5e83\u958b\u767a\u5efa\u8a2d\u90e8","boring_xml_url":43,"boring_view_url":1,"soilmap_view_url":null,"soiltest_xml_url":46,"soiltest_view_url":45},{"id":239400,"code":"B4KJ201802000-4880","latitude":"42.909306","longitude":"143.448833","source_code":"HK20072806220004","project_name":"","survey_name":"\u5e73\u621019\u5e74\u5ea6\u65bd\u884c \u6c60\u7530\u6cb3\u5ddd\u4e8b\u52d9\u6240\u7ba1\u5185 \u5824\u9632\u8a73\u7d30\u70b9\u691c\u696d\u52d9","client_name":"\u5317\u6d77\u9053\u958b\u767a\u5c40 \u5e2f\u5e83\u958b\u767a\u5efa\u8a2d\u90e8","boring_xml_url":43,"boring_view_url":1,"soilmap_view_url":null,"soiltest_xml_url":46,"soiltest_view_url":45},{"id":239399,"code":"B4KJ201802000-4879","latitude":"42.909333","longitude":"143.449","source_code":"HK20072806220003","project_name":"","survey_name":"\u5e73\u621019\u5e74\u5ea6\u65bd\u884c \u6c60\u7530\u6cb3\u5ddd\u4e8b\u52d9\u6240\u7ba1\u5185 \u5824\u9632\u8a73\u7d30\u70b9\u691c\u696d\u52d9","client_name":"\u5317\u6d77\u9053\u958b\u767a\u5c40 \u5e2f\u5e83\u958b\u767a\u5efa\u8a2d\u90e8","boring_xml_url":43,"boring_view_url":1,"soilmap_view_url":null,"soiltest_xml_url":46,"soiltest_view_url":45},{"id":239398,"code":"B4KJ201802000-4878","latitude":"42.881083","longitude":"143.449","source_code":"HK20072806220002","project_name":"","survey_name":"\u5e73\u621019\u5e74\u5ea6\u65bd\u884c \u6c60\u7530\u6cb3\u5ddd\u4e8b\u52d9\u6240\u7ba1\u5185 \u5824\u9632\u8a73\u7d30\u70b9\u691c\u696d\u52d9","client_name":"\u5317\u6d77\u9053\u958b\u767a\u5c40 \u5e2f\u5e83\u958b\u767a\u5efa\u8a2d\u90e8","boring_xml_url":43,"boring_view_url":1,"soilmap_view_url":null,"soiltest_xml_url":46,"soiltest_view_url":45},{"id":239397,"code":"B4KJ201802000-4877","latitude":"42.881111","longitude":"143.449222","source_code":"HK20072806220001","project_name":"","survey_name":"\u5e73\u621019\u5e74\u5ea6\u65bd\u884c \u6c60\u7530\u6cb3\u5ddd\u4e8b\u52d9\u6240\u7ba1\u5185 \u5824\u9632\u8a73\u7d30\u70b9\u691c\u696d\u52d9","client_name":"\u5317\u6d77\u9053\u958b\u767a\u5c40 \u5e2f\u5e83\u958b\u767a\u5efa\u8a2d\u90e8","boring_xml_url":43,"boring_view_url":1,"soilmap_view_url":null,"soiltest_xml_url":46,"soiltest_view_url":45},{"id":239396,"code":"B4KJ201802000-4876","latitude":"42.578222","longitude":"143.256","source_code":"HK20122808390008","project_name":"\u5e2f\u5e83\u5e83\u5c3e\u81ea\u52d5\u8eca\u9053\u5e55\u5225\u753a\u5fe0\u985e\u5317\u6539\u826f\u5de5\u4e8b","survey_name":"\u5e2f\u5e83\u5e83\u5c3e\u81ea\u52d5\u8eca\u9053\u5e55\u5225\u753a\u5fe0\u985e\u5317\u6539\u826f\u5de5\u4e8b","client_name":"\u5317\u6d77\u9053\u958b\u767a\u5c40 \u5e2f\u5e83\u958b\u767a\u5efa\u8a2d\u90e8","boring_xml_url":43,"boring_view_url":1,"soilmap_view_url":null,"soiltest_xml_url":0,"soiltest_view_url":0},{"id":239395,"code":"B4KJ201802000-4875","latitude":"42.577944","longitude":"143.253667","source_code":"HK20122808390007","project_name":"\u5e2f\u5e83\u5e83\u5c3e\u81ea\u52d5\u8eca\u9053\u5e55\u5225\u753a\u5fe0\u985e\u5317\u6539\u826f\u5de5\u4e8b","survey_name":"\u5e2f\u5e83\u5e83\u5c3e\u81ea\u52d5\u8eca\u9053\u5e55\u5225\u753a\u5fe0\u985e\u5317\u6539\u826f\u5de5\u4e8b","client_name":"\u5317\u6d77\u9053\u958b\u767a\u5c40 \u5e2f\u5e83\u958b\u767a\u5efa\u8a2d\u90e8","boring_xml_url":43,"boring_view_url":1,"soilmap_view_url":null,"soiltest_xml_url":0,"soiltest_view_url":0},{"id":239394,"code":"B4KJ201802000-4874","latitude":"42.575028","longitude":"143.261806","source_code":"HK20122808390006","project_name":"\u5e2f\u5e83\u5e83\u5c3e\u81ea\u52d5\u8eca\u9053\u5e55\u5225\u753a\u5fe0\u985e\u5317\u6539\u826f\u5de5\u4e8b","survey_name":"\u5e2f\u5e83\u5e83\u5c3e\u81ea\u52d5\u8eca\u9053\u5e55\u5225\u753a\u5fe0\u985e\u5317\u6539\u826f\u5de5\u4e8b","client_name":"\u5317\u6d77\u9053\u958b\u767a\u5c40 \u5e2f\u5e83\u958b\u767a\u5efa\u8a2d\u90e8","boring_xml_url":43,"boring_view_url":1,"soilmap_view_url":null,"soiltest_xml_url":0,"soiltest_view_url":0},{"id":239393,"code":"B4KJ201802000-4873","latitude":"42.576417","longitude":"143.262722","source_code":"HK20122808390005","project_name":"\u5e2f\u5e83\u5e83\u5c3e\u81ea\u52d5\u8eca\u9053\u5e55\u5225\u753a\u5fe0\u985e\u5317\u6539\u826f\u5de5\u4e8b","survey_name":"\u5e2f\u5e83\u5e83\u5c3e\u81ea\u52d5\u8eca\u9053\u5e55\u5225\u753a\u5fe0\u985e\u5317\u6539\u826f\u5de5\u4e8b","client_name":"\u5317\u6d77\u9053\u958b\u767a\u5c40 \u5e2f\u5e83\u958b\u767a\u5efa\u8a2d\u90e8","boring_xml_url":43,"boring_view_url":1,"soilmap_view_url":null,"soiltest_xml_url":0,"soiltest_view_url":0},{"id":239392,"code":"B4KJ201802000-4872","latitude":"42.575944","longitude":"143.259556","source_code":"HK20122808390004","project_name":"\u5e2f\u5e83\u5e83\u5c3e\u81ea\u52d5\u8eca\u9053\u5e55\u5225\u753a\u5fe0\u985e\u5317\u6539\u826f\u5de5\u4e8b","survey_name":"\u5e2f\u5e83\u5e83\u5c3e\u81ea\u52d5\u8eca\u9053\u5e55\u5225\u753a\u5fe0\u985e\u5317\u6539\u826f\u5de5\u4e8b","client_name":"\u5317\u6d77\u9053\u958b\u767a\u5c40 \u5e2f\u5e83\u958b\u767a\u5efa\u8a2d\u90e8","boring_xml_url":43,"boring_view_url":1,"soilmap_view_url":null,"soiltest_xml_url":0,"soiltest_view_url":0},{"id":239391,"code":"B4KJ201802000-4871","latitude":"43.577139","longitude":"143.260444","source_code":"HK20122808390003","project_name":"\u5e2f\u5e83\u5e83\u5c3e\u81ea\u52d5\u8eca\u9053\u5e55\u5225\u753a\u5fe0\u985e\u5317\u6539\u826f\u5de5\u4e8b","survey_name":"\u5e2f\u5e83\u5e83\u5c3e\u81ea\u52d5\u8eca\u9053\u5e55\u5225\u753a\u5fe0\u985e\u5317\u6539\u826f\u5de5\u4e8b","client_name":"\u5317\u6d77\u9053\u958b\u767a\u5c40 \u5e2f\u5e83\u958b\u767a\u5efa\u8a2d\u90e8","boring_xml_url":43,"boring_view_url":1,"soilmap_view_url":null,"soiltest_xml_url":0,"soiltest_view_url":0},{"id":239390,"code":"B4KJ201802000-4870","latitude":"42.576944","longitude":"143.256389","source_code":"HK20122808390002","project_name":"\u5e2f\u5e83\u5e83\u5c3e\u81ea\u52d5\u8eca\u9053\u5e55\u5225\u753a\u5fe0\u985e\u5317\u6539\u826f\u5de5\u4e8b","survey_name":"\u5e2f\u5e83\u5e83\u5c3e\u81ea\u52d5\u8eca\u9053\u5e55\u5225\u753a\u5fe0\u985e\u5317\u6539\u826f\u5de5\u4e8b","client_name":"\u5317\u6d77\u9053\u958b\u767a\u5c40 \u5e2f\u5e83\u958b\u767a\u5efa\u8a2d\u90e8","boring_xml_url":43,"boring_view_url":1,"soilmap_view_url":null,"soiltest_xml_url":0,"soiltest_view_url":0},{"id":239389,"code":"B4KJ201802000-4869","latitude":"42.578472","longitude":"143.257556","source_code":"HK20122808390001","project_name":"\u5e2f\u5e83\u5e83\u5c3e\u81ea\u52d5\u8eca\u9053\u5e55\u5225\u753a\u5fe0\u985e\u5317\u6539\u826f\u5de5\u4e8b","survey_name":"\u5e2f\u5e83\u5e83\u5c3e\u81ea\u52d5\u8eca\u9053\u5e55\u5225\u753a\u5fe0\u985e\u5317\u6539\u826f\u5de5\u4e8b","client_name":"\u5317\u6d77\u9053\u958b\u767a\u5c40 \u5e2f\u5e83\u958b\u767a\u5efa\u8a2d\u90e8","boring_xml_url":43,"boring_view_url":1,"soilmap_view_url":null,"soiltest_xml_url":0,"soiltest_view_url":0},{"id":239388,"code":"B4KJ201802000-4868","latitude":"42.576333","longitude":"143.259833","source_code":"HK20122808400006","project_name":"\u5e2f\u5e83\u5e83\u5c3e\u81ea\u52d5\u8eca\u9053 \u5e55\u5225\u753a\u671d\u65e532\u53f7\u6539\u826f\u5de5\u4e8b","survey_name":"\u5e2f\u5e83\u5e83\u5c3e\u81ea\u52d5\u8eca\u9053 \u5e55\u5225\u753a\u671d\u65e532\u53f7\u6539\u826f\u5de5\u4e8b","client_name":"\u5317\u6d77\u9053\u958b\u767a\u5c40 \u5e2f\u5e83\u958b\u767a\u5efa\u8a2d\u90e8","boring_xml_url":43,"boring_view_url":1,"soilmap_view_url":null,"soiltest_xml_url":0,"soiltest_view_url":0},{"id":239387,"code":"B4KJ201802000-4867","latitude":"42.575694","longitude":"143.261361","source_code":"HK20122808400005","project_name":"\u5e2f\u5e83\u5e83\u5c3e\u81ea\u52d5\u8eca\u9053 \u5e55\u5225\u753a\u671d\u65e532\u53f7\u6539\u826f\u5de5\u4e8b","survey_name":"\u5e2f\u5e83\u5e83\u5c3e\u81ea\u52d5\u8eca\u9053 \u5e55\u5225\u753a\u671d\u65e532\u53f7\u6539\u826f\u5de5\u4e8b","client_name":"\u5317\u6d77\u9053\u958b\u767a\u5c40 \u5e2f\u5e83\u958b\u767a\u5efa\u8a2d\u90e8","boring_xml_url":43,"boring_view_url":1,"soilmap_view_url":null,"soiltest_xml_url":0,"soiltest_view_url":0},{"id":239386,"code":"B4KJ201802000-4866","latitude":"42.575","longitude":"143.263028","source_code":"HK20122808400004","project_name":"\u5e2f\u5e83\u5e83\u5c3e\u81ea\u52d5\u8eca\u9053 \u5e55\u5225\u753a\u671d\u65e532\u53f7\u6539\u826f\u5de5\u4e8b","survey_name":"\u5e2f\u5e83\u5e83\u5c3e\u81ea\u52d5\u8eca\u9053 \u5e55\u5225\u753a\u671d\u65e532\u53f7\u6539\u826f\u5de5\u4e8b","client_name":"\u5317\u6d77\u9053\u958b\u767a\u5c40 \u5e2f\u5e83\u958b\u767a\u5efa\u8a2d\u90e8","boring_xml_url":43,"boring_view_url":1,"soilmap_view_url":null,"soiltest_xml_url":0,"soiltest_view_url":0},{"id":239385,"code":"B4KJ201802000-4865","latitude":"42.576111","longitude":"143.263833","source_code":"HK20122808400003","project_name":"\u5e2f\u5e83\u5e83\u5c3e\u81ea\u52d5\u8eca\u9053 \u5e55\u5225\u753a\u671d\u65e532\u53f7\u6539\u826f\u5de5\u4e8b","survey_name":"\u5e2f\u5e83\u5e83\u5c3e\u81ea\u52d5\u8eca\u9053 \u5e55\u5225\u753a\u671d\u65e532\u53f7\u6539\u826f\u5de5\u4e8b","client_name":"\u5317\u6d77\u9053\u958b\u767a\u5c40 \u5e2f\u5e83\u958b\u767a\u5efa\u8a2d\u90e8","boring_xml_url":43,"boring_view_url":1,"soilmap_view_url":null,"soiltest_xml_url":0,"soiltest_view_url":0},{"id":239384,"code":"B4KJ201802000-4864","latitude":"42.576667","longitude":"143.262333","source_code":"HK20122808400002","project_name":"\u5e2f\u5e83\u5e83\u5c3e\u81ea\u52d5\u8eca\u9053 \u5e55\u5225\u753a\u671d\u65e532\u53f7\u6539\u826f\u5de5\u4e8b","survey_name":"\u5e2f\u5e83\u5e83\u5c3e\u81ea\u52d5\u8eca\u9053 \u5e55\u5225\u753a\u671d\u65e532\u53f7\u6539\u826f\u5de5\u4e8b","client_name":"\u5317\u6d77\u9053\u958b\u767a\u5c40 \u5e2f\u5e83\u958b\u767a\u5efa\u8a2d\u90e8","boring_xml_url":43,"boring_view_url":1,"soilmap_view_url":null,"soiltest_xml_url":0,"soiltest_view_url":0},{"id":239383,"code":"B4KJ201802000-4863","latitude":"42.57725","longitude":"143.260667","source_code":"HK20122808400001","project_name":"\u5e2f\u5e83\u5e83\u5c3e\u81ea\u52d5\u8eca\u9053 \u5e55\u5225\u753a\u671d\u65e532\u53f7\u6539\u826f\u5de5\u4e8b","survey_name":"\u5e2f\u5e83\u5e83\u5c3e\u81ea\u52d5\u8eca\u9053 \u5e55\u5225\u753a\u671d\u65e532\u53f7\u6539\u826f\u5de5\u4e8b","client_name":"\u5317\u6d77\u9053\u958b\u767a\u5c40 \u5e2f\u5e83\u958b\u767a\u5efa\u8a2d\u90e8","boring_xml_url":43,"boring_view_url":1,"soilmap_view_url":null,"soiltest_xml_url":0,"soiltest_view_url":0},{"id":239382,"code":"B4KJ201802000-4862","latitude":"42.784139","longitude":"143.137667","source_code":"HK20072806180028","project_name":"\u5e2f\u5e83\u6cb3\u5ddd\u4e8b\u52d9\u6240\u7ba1\u5185 \u5824\u9632\u8a73\u7d30\u70b9\u691c\u696d\u52d9","survey_name":"\u5e2f\u5e83\u6cb3\u5ddd\u4e8b\u52d9\u6240\u7ba1\u5185 \u5824\u9632\u8a73\u7d30\u70b9\u691c\u696d\u52d9","client_name":"\u5317\u6d77\u9053\u958b\u767a\u5c40 \u5e2f\u5e83\u958b\u767a\u5efa\u8a2d\u90e8","boring_xml_url":43,"boring_view_url":1,"soilmap_view_url":null,"soiltest_xml_url":46,"soiltest_view_url":45},{"id":239381,"code":"B4KJ201802000-4861","latitude":"42.852194","longitude":"143.196889","source_code":"HK20072806180027","project_name":"\u5e2f\u5e83\u6cb3\u5ddd\u4e8b\u52d9\u6240\u7ba1\u5185 \u5824\u9632\u8a73\u7d30\u70b9\u691c\u696d\u52d9","survey_name":"\u5e2f\u5e83\u6cb3\u5ddd\u4e8b\u52d9\u6240\u7ba1\u5185 \u5824\u9632\u8a73\u7d30\u70b9\u691c\u696d\u52d9","client_name":"\u5317\u6d77\u9053\u958b\u767a\u5c40 \u5e2f\u5e83\u958b\u767a\u5efa\u8a2d\u90e8","boring_xml_url":43,"boring_view_url":1,"soilmap_view_url":null,"soiltest_xml_url":46,"soiltest_view_url":45},{"id":239380,"code":"B4KJ201802000-4860","latitude":"42.907111","longitude":"143.227028","source_code":"HK20072806180026","project_name":"\u5e2f\u5e83\u6cb3\u5ddd\u4e8b\u52d9\u6240\u7ba1\u5185 \u5824\u9632\u8a73\u7d30\u70b9\u691c\u696d\u52d9","survey_name":"\u5e2f\u5e83\u6cb3\u5ddd\u4e8b\u52d9\u6240\u7ba1\u5185 \u5824\u9632\u8a73\u7d30\u70b9\u691c\u696d\u52d9","client_name":"\u5317\u6d77\u9053\u958b\u767a\u5c40 \u5e2f\u5e83\u958b\u767a\u5efa\u8a2d\u90e8","boring_xml_url":43,"boring_view_url":1,"soilmap_view_url":null,"soiltest_xml_url":46,"soiltest_view_url":45}]}}