{"header":{"xyz":{"source":[],"mosaic":false},"page":3042,"raw":{"soiltest_result":"0","bbox":"57.598333,109.544722,1.933333,163.806111","page":"3042"},"conditions":{"soiltest_result":0,"north":57.598333,"west":109.544722,"south":1.933333,"east":163.806111},"success":true,"message":""},"data":{"meta":{"total":212844,"page":3042,"pages":7095,"count":30},"values":[{"id":239289,"code":"B4KJ201802000-4769","latitude":"42.669444","longitude":"143.101389","source_code":"HK20072806510020","project_name":"+\u52dd\u5ddd\u5916\u5824\u9632\u8a73\u7d30\u70b9\u691c\u696d\u52d9","survey_name":"+\u52dd\u5ddd\u5916\u5824\u9632\u8a73\u7d30\u70b9\u691c\u696d\u52d9","client_name":"\u5317\u6d77\u9053\u958b\u767a\u5c40 \u5e2f\u5e83\u958b\u767a\u5efa\u8a2d\u90e8","boring_xml_url":43,"boring_view_url":1,"soilmap_view_url":null,"soiltest_xml_url":46,"soiltest_view_url":45},{"id":239288,"code":"B4KJ201802000-4768","latitude":"42.669444","longitude":"143.101389","source_code":"HK20072806510019","project_name":"+\u52dd\u5ddd\u5916\u5824\u9632\u8a73\u7d30\u70b9\u691c\u696d\u52d9","survey_name":"+\u52dd\u5ddd\u5916\u5824\u9632\u8a73\u7d30\u70b9\u691c\u696d\u52d9","client_name":"\u5317\u6d77\u9053\u958b\u767a\u5c40 \u5e2f\u5e83\u958b\u767a\u5efa\u8a2d\u90e8","boring_xml_url":43,"boring_view_url":1,"soilmap_view_url":null,"soiltest_xml_url":46,"soiltest_view_url":45},{"id":239287,"code":"B4KJ201802000-4767","latitude":"42.912778","longitude":"143.205556","source_code":"HK20072806510017","project_name":"+\u52dd\u5ddd\u5916\u5824\u9632\u8a73\u7d30\u70b9\u691c\u696d\u52d9","survey_name":"+\u52dd\u5ddd\u5916\u5824\u9632\u8a73\u7d30\u70b9\u691c\u696d\u52d9","client_name":"\u5317\u6d77\u9053\u958b\u767a\u5c40 \u5e2f\u5e83\u958b\u767a\u5efa\u8a2d\u90e8","boring_xml_url":43,"boring_view_url":1,"soilmap_view_url":null,"soiltest_xml_url":46,"soiltest_view_url":45},{"id":239286,"code":"B4KJ201802000-4766","latitude":"42.813333","longitude":"143.536667","source_code":"HK20072806510016","project_name":"+\u52dd\u5ddd\u5916\u5824\u9632\u8a73\u7d30\u70b9\u691c\u696d\u52d9","survey_name":"+\u52dd\u5ddd\u5916\u5824\u9632\u8a73\u7d30\u70b9\u691c\u696d\u52d9","client_name":"\u5317\u6d77\u9053\u958b\u767a\u5c40 \u5e2f\u5e83\u958b\u767a\u5efa\u8a2d\u90e8","boring_xml_url":43,"boring_view_url":1,"soilmap_view_url":null,"soiltest_xml_url":46,"soiltest_view_url":45},{"id":239285,"code":"B4KJ201802000-4765","latitude":"42.813333","longitude":"143.536667","source_code":"HK20072806510015","project_name":"+\u52dd\u5ddd\u5916\u5824\u9632\u8a73\u7d30\u70b9\u691c\u696d\u52d9","survey_name":"+\u52dd\u5ddd\u5916\u5824\u9632\u8a73\u7d30\u70b9\u691c\u696d\u52d9","client_name":"\u5317\u6d77\u9053\u958b\u767a\u5c40 \u5e2f\u5e83\u958b\u767a\u5efa\u8a2d\u90e8","boring_xml_url":43,"boring_view_url":1,"soilmap_view_url":null,"soiltest_xml_url":46,"soiltest_view_url":45},{"id":239284,"code":"B4KJ201802000-4764","latitude":"42.911111","longitude":"143.276667","source_code":"HK20072806510014","project_name":"+\u52dd\u5ddd\u5916\u5824\u9632\u8a73\u7d30\u70b9\u691c\u696d\u52d9","survey_name":"+\u52dd\u5ddd\u5916\u5824\u9632\u8a73\u7d30\u70b9\u691c\u696d\u52d9","client_name":"\u5317\u6d77\u9053\u958b\u767a\u5c40 \u5e2f\u5e83\u958b\u767a\u5efa\u8a2d\u90e8","boring_xml_url":43,"boring_view_url":1,"soilmap_view_url":null,"soiltest_xml_url":46,"soiltest_view_url":45},{"id":239283,"code":"B4KJ201802000-4763","latitude":"42.911111","longitude":"143.276667","source_code":"HK20072806510013","project_name":"+\u52dd\u5ddd\u5916\u5824\u9632\u8a73\u7d30\u70b9\u691c\u696d\u52d9","survey_name":"+\u52dd\u5ddd\u5916\u5824\u9632\u8a73\u7d30\u70b9\u691c\u696d\u52d9","client_name":"\u5317\u6d77\u9053\u958b\u767a\u5c40 \u5e2f\u5e83\u958b\u767a\u5efa\u8a2d\u90e8","boring_xml_url":43,"boring_view_url":1,"soilmap_view_url":null,"soiltest_xml_url":46,"soiltest_view_url":45},{"id":239282,"code":"B4KJ201802000-4762","latitude":"42.910556","longitude":"143.777222","source_code":"HK20072806510011","project_name":"+\u52dd\u5ddd\u5916\u5824\u9632\u8a73\u7d30\u70b9\u691c\u696d\u52d9","survey_name":"+\u52dd\u5ddd\u5916\u5824\u9632\u8a73\u7d30\u70b9\u691c\u696d\u52d9","client_name":"\u5317\u6d77\u9053\u958b\u767a\u5c40 \u5e2f\u5e83\u958b\u767a\u5efa\u8a2d\u90e8","boring_xml_url":43,"boring_view_url":1,"soilmap_view_url":null,"soiltest_xml_url":46,"soiltest_view_url":45},{"id":239281,"code":"B4KJ201802000-4761","latitude":"42.920556","longitude":"143.304444","source_code":"HK20072806510010","project_name":"+\u52dd\u5ddd\u5916\u5824\u9632\u8a73\u7d30\u70b9\u691c\u696d\u52d9","survey_name":"+\u52dd\u5ddd\u5916\u5824\u9632\u8a73\u7d30\u70b9\u691c\u696d\u52d9","client_name":"\u5317\u6d77\u9053\u958b\u767a\u5c40 \u5e2f\u5e83\u958b\u767a\u5efa\u8a2d\u90e8","boring_xml_url":43,"boring_view_url":1,"soilmap_view_url":null,"soiltest_xml_url":46,"soiltest_view_url":45},{"id":239280,"code":"B4KJ201802000-4760","latitude":"42.920556","longitude":"143.304444","source_code":"HK20072806510009","project_name":"+\u52dd\u5ddd\u5916\u5824\u9632\u8a73\u7d30\u70b9\u691c\u696d\u52d9","survey_name":"+\u52dd\u5ddd\u5916\u5824\u9632\u8a73\u7d30\u70b9\u691c\u696d\u52d9","client_name":"\u5317\u6d77\u9053\u958b\u767a\u5c40 \u5e2f\u5e83\u958b\u767a\u5efa\u8a2d\u90e8","boring_xml_url":43,"boring_view_url":1,"soilmap_view_url":null,"soiltest_xml_url":46,"soiltest_view_url":45},{"id":239279,"code":"B4KJ201802000-4759","latitude":"42.741389","longitude":"143.601389","source_code":"HK20072806510008","project_name":"+\u52dd\u5ddd\u5916\u5824\u9632\u8a73\u7d30\u70b9\u691c\u696d\u52d9","survey_name":"+\u52dd\u5ddd\u5916\u5824\u9632\u8a73\u7d30\u70b9\u691c\u696d\u52d9","client_name":"\u5317\u6d77\u9053\u958b\u767a\u5c40 \u5e2f\u5e83\u958b\u767a\u5efa\u8a2d\u90e8","boring_xml_url":43,"boring_view_url":1,"soilmap_view_url":null,"soiltest_xml_url":46,"soiltest_view_url":45},{"id":239278,"code":"B4KJ201802000-4758","latitude":"42.741389","longitude":"143.601389","source_code":"HK20072806510007","project_name":"+\u52dd\u5ddd\u5916\u5824\u9632\u8a73\u7d30\u70b9\u691c\u696d\u52d9","survey_name":"+\u52dd\u5ddd\u5916\u5824\u9632\u8a73\u7d30\u70b9\u691c\u696d\u52d9","client_name":"\u5317\u6d77\u9053\u958b\u767a\u5c40 \u5e2f\u5e83\u958b\u767a\u5efa\u8a2d\u90e8","boring_xml_url":43,"boring_view_url":1,"soilmap_view_url":null,"soiltest_xml_url":46,"soiltest_view_url":45},{"id":239277,"code":"B4KJ201802000-4757","latitude":"42.83","longitude":"143.480833","source_code":"HK20072806510006","project_name":"+\u52dd\u5ddd\u5916\u5824\u9632\u8a73\u7d30\u70b9\u691c\u696d\u52d9","survey_name":"+\u52dd\u5ddd\u5916\u5824\u9632\u8a73\u7d30\u70b9\u691c\u696d\u52d9","client_name":"\u5317\u6d77\u9053\u958b\u767a\u5c40 \u5e2f\u5e83\u958b\u767a\u5efa\u8a2d\u90e8","boring_xml_url":43,"boring_view_url":1,"soilmap_view_url":null,"soiltest_xml_url":46,"soiltest_view_url":45},{"id":239276,"code":"B4KJ201802000-4756","latitude":"42.83","longitude":"143.480833","source_code":"HK20072806510005","project_name":"+\u52dd\u5ddd\u5916\u5824\u9632\u8a73\u7d30\u70b9\u691c\u696d\u52d9","survey_name":"+\u52dd\u5ddd\u5916\u5824\u9632\u8a73\u7d30\u70b9\u691c\u696d\u52d9","client_name":"\u5317\u6d77\u9053\u958b\u767a\u5c40\u5e2f\u5e83\u958b\u767a\u5efa\u8a2d\u90e8","boring_xml_url":43,"boring_view_url":1,"soilmap_view_url":null,"soiltest_xml_url":46,"soiltest_view_url":45},{"id":239275,"code":"B4KJ201802000-4755","latitude":"42.831667","longitude":"143.477222","source_code":"HK20072806510004","project_name":"+\u52dd\u5ddd\u5916\u5824\u9632\u8a73\u7d30\u70b9\u691c\u696d\u52d9","survey_name":"+\u52dd\u5ddd\u5916\u5824\u9632\u8a73\u7d30\u70b9\u691c\u696d\u52d9","client_name":"\u5317\u6d77\u9053\u958b\u767a\u5c40 \u5e2f\u5e83\u958b\u767a\u5efa\u8a2d\u90e8","boring_xml_url":43,"boring_view_url":1,"soilmap_view_url":null,"soiltest_xml_url":46,"soiltest_view_url":45},{"id":239274,"code":"B4KJ201802000-4754","latitude":"42.831667","longitude":"143.477222","source_code":"HK20072806510003","project_name":"+\u52dd\u5ddd\u5916\u5824\u9632\u8a73\u7d30\u70b9\u691c\u696d\u52d9","survey_name":"+\u52dd\u5ddd\u5916\u5824\u9632\u8a73\u7d30\u70b9\u691c\u696d\u52d9","client_name":"\u5317\u6d77\u9053\u958b\u767a\u5c40\u5e2f\u5e83\u958b\u767a\u5efa\u8a2d\u90e8","boring_xml_url":43,"boring_view_url":1,"soilmap_view_url":null,"soiltest_xml_url":46,"soiltest_view_url":45},{"id":239273,"code":"B4KJ201802000-4753","latitude":"42.830556","longitude":"143.477222","source_code":"HK20072806510002","project_name":"+\u52dd\u5ddd\u5916\u5824\u9632\u8a73\u7d30\u70b9\u691c\u696d\u52d9","survey_name":"+\u52dd\u5ddd\u5916\u5824\u9632\u8a73\u7d30\u70b9\u691c\u696d\u52d9","client_name":"\u5317\u6d77\u9053\u958b\u767a\u5c40 \u5e2f\u5e83\u958b\u767a\u5efa\u8a2d\u90e8","boring_xml_url":43,"boring_view_url":1,"soilmap_view_url":null,"soiltest_xml_url":46,"soiltest_view_url":45},{"id":239272,"code":"B4KJ201802000-4752","latitude":"42.830556","longitude":"143.472222","source_code":"HK20072806510001","project_name":"+\u52dd\u5ddd\u5916\u5824\u9632\u8a73\u7d30\u70b9\u691c\u696d\u52d9","survey_name":"+\u52dd\u5ddd\u5916\u5824\u9632\u8a73\u7d30\u70b9\u691c\u696d\u52d9","client_name":"\u5317\u6d77\u9053\u958b\u767a\u5c40\u5e2f\u5e83\u958b\u767a\u5efa\u8a2d\u90e8","boring_xml_url":43,"boring_view_url":1,"soilmap_view_url":null,"soiltest_xml_url":46,"soiltest_view_url":45},{"id":239271,"code":"B4KJ201802000-4751","latitude":"42.723056","longitude":"143.523222","source_code":"HK20132800780012","project_name":"","survey_name":"+\u52dd\u5ddd\u4e0b\u6d41\u5916\u6a0b\u9580\u88dc\u4fee\u5730\u8cea\u8abf\u67fb\u696d\u52d9","client_name":"\u5317\u6d77\u9053\u958b\u767a\u5c40 \u5e2f\u5e83\u958b\u767a\u5efa\u8a2d\u90e8","boring_xml_url":43,"boring_view_url":1,"soilmap_view_url":null,"soiltest_xml_url":0,"soiltest_view_url":0},{"id":239270,"code":"B4KJ201802000-4750","latitude":"42.722972","longitude":"143.523111","source_code":"HK20132800780011","project_name":"","survey_name":"+\u52dd\u5ddd\u4e0b\u6d41\u5916\u6a0b\u9580\u88dc\u4fee\u5730\u8cea\u8abf\u67fb\u696d\u52d9","client_name":"\u5317\u6d77\u9053\u958b\u767a\u5c40 \u5e2f\u5e83\u958b\u767a\u5efa\u8a2d\u90e8","boring_xml_url":43,"boring_view_url":1,"soilmap_view_url":null,"soiltest_xml_url":0,"soiltest_view_url":0},{"id":239269,"code":"B4KJ201802000-4749","latitude":"42.722861","longitude":"143.522972","source_code":"HK20132800780010","project_name":"","survey_name":"+\u52dd\u5ddd\u4e0b\u6d41\u5916\u6a0b\u9580\u88dc\u4fee\u5730\u8cea\u8abf\u67fb\u696d\u52d9","client_name":"\u5317\u6d77\u9053\u958b\u767a\u5c40 \u5e2f\u5e83\u958b\u767a\u5efa\u8a2d\u90e8","boring_xml_url":43,"boring_view_url":1,"soilmap_view_url":null,"soiltest_xml_url":0,"soiltest_view_url":0},{"id":239268,"code":"B4KJ201802000-4748","latitude":"42.774472","longitude":"143.596056","source_code":"HK20132800780009","project_name":"","survey_name":"+\u52dd\u5ddd\u4e0b\u6d41\u5916\u6a0b\u9580\u88dc\u4fee\u5730\u8cea\u8abf\u67fb\u696d\u52d9","client_name":"\u5317\u6d77\u9053\u958b\u767a\u5c40 \u5e2f\u5e83\u958b\u767a\u5efa\u8a2d\u90e8","boring_xml_url":43,"boring_view_url":1,"soilmap_view_url":null,"soiltest_xml_url":0,"soiltest_view_url":0},{"id":239267,"code":"B4KJ201802000-4747","latitude":"42.774528","longitude":"143.596139","source_code":"HK20132800780008","project_name":"","survey_name":"+\u52dd\u5ddd\u4e0b\u6d41\u5916\u6a0b\u9580\u88dc\u4fee\u5730\u8cea\u8abf\u67fb\u696d\u52d9","client_name":"\u5317\u6d77\u9053\u958b\u767a\u5c40 \u5e2f\u5e83\u958b\u767a\u5efa\u8a2d\u90e8","boring_xml_url":43,"boring_view_url":1,"soilmap_view_url":null,"soiltest_xml_url":0,"soiltest_view_url":0},{"id":239266,"code":"B4KJ201802000-4746","latitude":"42.774583","longitude":"143.596306","source_code":"HK20132800780007","project_name":"","survey_name":"+\u52dd\u5ddd\u4e0b\u6d41\u5916\u6a0b\u9580\u88dc\u4fee\u5730\u8cea\u8abf\u67fb\u696d\u52d9","client_name":"\u5317\u6d77\u9053\u958b\u767a\u5c40 \u5e2f\u5e83\u958b\u767a\u5efa\u8a2d\u90e8","boring_xml_url":43,"boring_view_url":1,"soilmap_view_url":null,"soiltest_xml_url":0,"soiltest_view_url":0},{"id":239265,"code":"B4KJ201802000-4745","latitude":"43.008833","longitude":"143.451861","source_code":"HK20132800780006","project_name":"","survey_name":"+\u52dd\u5ddd\u4e0b\u6d41\u5916\u6a0b\u9580\u88dc\u4fee\u5730\u8cea\u8abf\u67fb\u696d\u52d9","client_name":"\u5317\u6d77\u9053\u958b\u767a\u5c40 \u5e2f\u5e83\u958b\u767a\u5efa\u8a2d\u90e8","boring_xml_url":43,"boring_view_url":1,"soilmap_view_url":null,"soiltest_xml_url":0,"soiltest_view_url":0},{"id":239264,"code":"B4KJ201802000-4744","latitude":"43.008833","longitude":"143.451806","source_code":"HK20132800780005","project_name":"","survey_name":"+\u52dd\u5ddd\u4e0b\u6d41\u5916\u6a0b\u9580\u88dc\u4fee\u5730\u8cea\u8abf\u67fb\u696d\u52d9","client_name":"\u5317\u6d77\u9053\u958b\u767a\u5c40 \u5e2f\u5e83\u958b\u767a\u5efa\u8a2d\u90e8","boring_xml_url":43,"boring_view_url":1,"soilmap_view_url":null,"soiltest_xml_url":0,"soiltest_view_url":0},{"id":239263,"code":"B4KJ201802000-4743","latitude":"43.008833","longitude":"143.45175","source_code":"HK20132800780004","project_name":"","survey_name":"+\u52dd\u5ddd\u4e0b\u6d41\u5916\u6a0b\u9580\u88dc\u4fee\u5730\u8cea\u8abf\u67fb\u696d\u52d9","client_name":"\u5317\u6d77\u9053\u958b\u767a\u5c40 \u5e2f\u5e83\u958b\u767a\u5efa\u8a2d\u90e8","boring_xml_url":43,"boring_view_url":1,"soilmap_view_url":null,"soiltest_xml_url":0,"soiltest_view_url":0},{"id":239262,"code":"B4KJ201802000-4742","latitude":"42.833111","longitude":"143.477861","source_code":"HK20132800780003","project_name":"","survey_name":"+\u52dd\u5ddd\u4e0b\u6d41\u5916\u6a0b\u9580\u88dc\u4fee\u5730\u8cea\u8abf\u67fb\u696d\u52d9","client_name":"\u5317\u6d77\u9053\u958b\u767a\u5c40 \u5e2f\u5e83\u958b\u767a\u5efa\u8a2d\u90e8","boring_xml_url":43,"boring_view_url":1,"soilmap_view_url":null,"soiltest_xml_url":0,"soiltest_view_url":0},{"id":239261,"code":"B4KJ201802000-4741","latitude":"42.833056","longitude":"143.477722","source_code":"HK20132800780002","project_name":"","survey_name":"+\u52dd\u5ddd\u4e0b\u6d41\u5916\u6a0b\u9580\u88dc\u4fee\u5730\u8cea\u8abf\u67fb\u696d\u52d9","client_name":"\u5317\u6d77\u9053\u958b\u767a\u5c40 \u5e2f\u5e83\u958b\u767a\u5efa\u8a2d\u90e8","boring_xml_url":43,"boring_view_url":1,"soilmap_view_url":null,"soiltest_xml_url":0,"soiltest_view_url":0},{"id":239260,"code":"B4KJ201802000-4740","latitude":"42.833","longitude":"143.477583","source_code":"HK20132800780001","project_name":"","survey_name":"+\u52dd\u5ddd\u4e0b\u6d41\u5916\u6a0b\u9580\u88dc\u4fee\u5730\u8cea\u8abf\u67fb\u696d\u52d9","client_name":"\u5317\u6d77\u9053\u958b\u767a\u5c40 \u5e2f\u5e83\u958b\u767a\u5efa\u8a2d\u90e8","boring_xml_url":43,"boring_view_url":1,"soilmap_view_url":null,"soiltest_xml_url":0,"soiltest_view_url":0}]}}