{"header":{"xyz":{"source":[],"mosaic":false},"page":3068,"raw":{"soiltest_result":"0","bbox":"57.598333,109.544722,1.933333,163.806111","page":"3068"},"conditions":{"soiltest_result":0,"north":57.598333,"west":109.544722,"south":1.933333,"east":163.806111},"success":true,"message":""},"data":{"meta":{"total":212844,"page":3068,"pages":7095,"count":30},"values":[{"id":238509,"code":"B4KJ201802000-3989","latitude":"42.917667","longitude":"142.586722","source_code":"HK20092615170002","project_name":"","survey_name":"\u5e73\u621021\u5e74\u5ea6 \u4e00\u822c\u56fd\u9053274\u53f7 \u65e5\u9ad8\u753a\u5343\u6804\u5730\u8cea\u8abf\u67fb","client_name":"\u5317\u6d77\u9053\u958b\u767a\u5c40 \u5ba4\u862d\u958b\u767a\u5efa\u8a2d\u90e8","boring_xml_url":43,"boring_view_url":1,"soilmap_view_url":null,"soiltest_xml_url":0,"soiltest_view_url":0},{"id":238508,"code":"B4KJ201802000-3988","latitude":"42.917694","longitude":"142.586556","source_code":"HK20092615170001","project_name":"","survey_name":"\u5e73\u621021\u5e74\u5ea6 \u4e00\u822c\u56fd\u9053274\u53f7 \u65e5\u9ad8\u753a\u5343\u6804\u5730\u8cea\u8abf\u67fb","client_name":"\u5317\u6d77\u9053\u958b\u767a\u5c40 \u5ba4\u862d\u958b\u767a\u5efa\u8a2d\u90e8","boring_xml_url":43,"boring_view_url":1,"soilmap_view_url":null,"soiltest_xml_url":0,"soiltest_view_url":0},{"id":238507,"code":"B4KJ201802000-3987","latitude":"42.092694","longitude":"142.99875","source_code":"HK20072603190006","project_name":"\u5e73\u621019\u5e74\u5e74\u5ea6\u4e00\u822c\u56fd\u9053336\u53f7\u69d8\u4f3c\u753a\u6771\u51ac\u5cf6\u30c8\u30f3\u30cd\u30eb\u5751\u53e3\u5730\u8cea\u8abf\u67fb\u5916\u4e00\u9023\u696d\u52d9","survey_name":"\u5e73\u621019\u5e74\u5e74\u5ea6\u4e00\u822c\u56fd\u9053336\u53f7\u69d8\u4f3c\u753a\u6771\u51ac\u5cf6\u30c8\u30f3\u30cd\u30eb\u5751\u53e3\u5730\u8cea\u8abf\u67fb\u5916\u4e00\u9023\u696d\u52d9","client_name":"\u5317\u6d77\u9053\u958b\u767a\u5c40 \u5ba4\u862d\u958b\u767a\u5efa\u8a2d\u90e8","boring_xml_url":43,"boring_view_url":1,"soilmap_view_url":null,"soiltest_xml_url":0,"soiltest_view_url":0},{"id":238506,"code":"B4KJ201802000-3986","latitude":"42.657778","longitude":"141.569167","source_code":"HK20072601800007","project_name":"\u5e73\u621019\u5e74\u5ea6 \u82eb\u5c0f\u7267\u5ddd\u738b\u5b50\u5c0e\u6c34\u8def\u8edf\u5f31\u5730\u76e4\u5bfe\u7b56\u691c\u8a0e\u696d\u52d9","survey_name":"\u5e73\u621019\u5e74\u5ea6 \u82eb\u5c0f\u7267\u5ddd\u738b\u5b50\u5c0e\u6c34\u8def\u8edf\u5f31\u5730\u76e4\u5bfe\u7b56\u691c\u8a0e\u696d\u52d9","client_name":"\u5317\u6d77\u9053\u958b\u767a\u5c40 \u5ba4\u862d\u958b\u767a\u5efa\u8a2d\u90e8","boring_xml_url":43,"boring_view_url":1,"soilmap_view_url":null,"soiltest_xml_url":0,"soiltest_view_url":0},{"id":238505,"code":"B4KJ201802000-3985","latitude":"42.656389","longitude":"141.570833","source_code":"HK20072601800006","project_name":"\u5e73\u621019\u5e74\u5ea6 \u82eb\u5c0f\u7267\u5ddd\u738b\u5b50\u5c0e\u6c34\u8def\u8edf\u5f31\u5730\u76e4\u5bfe\u7b56\u691c\u8a0e\u696d\u52d9","survey_name":"\u5e73\u621019\u5e74\u5ea6 \u82eb\u5c0f\u7267\u5ddd\u738b\u5b50\u5c0e\u6c34\u8def\u8edf\u5f31\u5730\u76e4\u5bfe\u7b56\u691c\u8a0e\u696d\u52d9","client_name":"\u5317\u6d77\u9053\u958b\u767a\u5c40 \u5ba4\u862d\u958b\u767a\u5efa\u8a2d\u90e8","boring_xml_url":43,"boring_view_url":1,"soilmap_view_url":null,"soiltest_xml_url":0,"soiltest_view_url":0},{"id":238504,"code":"B4KJ201802000-3984","latitude":"42.6575","longitude":"141.568611","source_code":"HK20072601800005","project_name":"\u5e73\u621019\u5e74\u5ea6 \u82eb\u5c0f\u7267\u5ddd\u738b\u5b50\u5c0e\u6c34\u8def\u8edf\u5f31\u5730\u76e4\u5bfe\u7b56\u691c\u8a0e\u696d\u52d9","survey_name":"\u5e73\u621019\u5e74\u5ea6 \u82eb\u5c0f\u7267\u5ddd\u738b\u5b50\u5c0e\u6c34\u8def\u8edf\u5f31\u5730\u76e4\u5bfe\u7b56\u691c\u8a0e\u696d\u52d9","client_name":"\u5317\u6d77\u9053\u958b\u767a\u5c40 \u5ba4\u862d\u958b\u767a\u5efa\u8a2d\u90e8","boring_xml_url":43,"boring_view_url":1,"soilmap_view_url":null,"soiltest_xml_url":0,"soiltest_view_url":0},{"id":238503,"code":"B4KJ201802000-3983","latitude":"42.657222","longitude":"141.568333","source_code":"HK20072601800004","project_name":"\u5e73\u621019\u5e74\u5ea6 \u82eb\u5c0f\u7267\u5ddd\u738b\u5b50\u5c0e\u6c34\u8def\u8edf\u5f31\u5730\u76e4\u5bfe\u7b56\u691c\u8a0e\u696d\u52d9","survey_name":"\u5e73\u621019\u5e74\u5ea6 \u82eb\u5c0f\u7267\u5ddd\u738b\u5b50\u5c0e\u6c34\u8def\u8edf\u5f31\u5730\u76e4\u5bfe\u7b56\u691c\u8a0e\u696d\u52d9","client_name":"\u5317\u6d77\u9053\u958b\u767a\u5c40 \u5ba4\u862d\u958b\u767a\u5efa\u8a2d\u90e8","boring_xml_url":43,"boring_view_url":1,"soilmap_view_url":null,"soiltest_xml_url":0,"soiltest_view_url":0},{"id":238502,"code":"B4KJ201802000-3982","latitude":"42.656389","longitude":"141.569722","source_code":"HK20072601800003","project_name":"\u5e73\u621019\u5e74\u5ea6 \u82eb\u5c0f\u7267\u5ddd\u738b\u5b50\u5c0e\u6c34\u8def\u8edf\u5f31\u5730\u76e4\u5bfe\u7b56\u691c\u8a0e\u696d\u52d9","survey_name":"\u5e73\u621019\u5e74\u5ea6 \u82eb\u5c0f\u7267\u5ddd\u738b\u5b50\u5c0e\u6c34\u8def\u8edf\u5f31\u5730\u76e4\u5bfe\u7b56\u691c\u8a0e\u696d\u52d9","client_name":"\u5317\u6d77\u9053\u958b\u767a\u5c40 \u5ba4\u862d\u958b\u767a\u5efa\u8a2d\u90e8","boring_xml_url":43,"boring_view_url":1,"soilmap_view_url":null,"soiltest_xml_url":0,"soiltest_view_url":0},{"id":238501,"code":"B4KJ201802000-3981","latitude":"42.656111","longitude":"141.57","source_code":"HK20072601800002","project_name":"\u5e73\u621019\u5e74\u5ea6 \u82eb\u5c0f\u7267\u5ddd\u738b\u5b50\u5c0e\u6c34\u8def\u8edf\u5f31\u5730\u76e4\u5bfe\u7b56\u691c\u8a0e\u696d\u52d9","survey_name":"\u5e73\u621019\u5e74\u5ea6 \u82eb\u5c0f\u7267\u5ddd\u738b\u5b50\u5c0e\u6c34\u8def\u8edf\u5f31\u5730\u76e4\u5bfe\u7b56\u691c\u8a0e\u696d\u52d9","client_name":"\u5317\u6d77\u9053\u958b\u767a\u5c40 \u5ba4\u862d\u958b\u767a\u5efa\u8a2d\u90e8","boring_xml_url":43,"boring_view_url":1,"soilmap_view_url":null,"soiltest_xml_url":0,"soiltest_view_url":0},{"id":238500,"code":"B4KJ201802000-3980","latitude":"42.655833","longitude":"141.570278","source_code":"HK20072601800001","project_name":"\u5e73\u621019\u5e74\u5ea6 \u82eb\u5c0f\u7267\u5ddd\u738b\u5b50\u5c0e\u6c34\u8def\u8edf\u5f31\u5730\u76e4\u5bfe\u7b56\u691c\u8a0e\u696d\u52d9","survey_name":"\u5e73\u621019\u5e74\u5ea6 \u82eb\u5c0f\u7267\u5ddd\u738b\u5b50\u5c0e\u6c34\u8def\u8edf\u5f31\u5730\u76e4\u5bfe\u7b56\u691c\u8a0e\u696d\u52d9","client_name":"\u5317\u6d77\u9053\u958b\u767a\u5c40 \u5ba4\u862d\u958b\u767a\u5efa\u8a2d\u90e8","boring_xml_url":43,"boring_view_url":1,"soilmap_view_url":null,"soiltest_xml_url":0,"soiltest_view_url":0},{"id":238499,"code":"B4KJ201802000-3979","latitude":"42.634806","longitude":"141.409611","source_code":"HK20102602110016","project_name":"","survey_name":"\u6a3d\u524d\u5ddd\u5730\u8cea\u8abf\u67fb\u89e3\u6790\u696d\u52d9","client_name":"\u5317\u6d77\u9053\u958b\u767a\u5c40 \u5ba4\u862d\u958b\u767a\u5efa\u8a2d\u90e8","boring_xml_url":43,"boring_view_url":1,"soilmap_view_url":null,"soiltest_xml_url":0,"soiltest_view_url":0},{"id":238498,"code":"B4KJ201802000-3978","latitude":"42.634667","longitude":"141.40625","source_code":"HK20102602110015","project_name":"","survey_name":"\u6a3d\u524d\u5ddd\u5730\u8cea\u8abf\u67fb\u89e3\u6790\u696d\u52d9","client_name":"\u5317\u6d77\u9053\u958b\u767a\u5c40 \u5ba4\u862d\u958b\u767a\u5efa\u8a2d\u90e8","boring_xml_url":43,"boring_view_url":1,"soilmap_view_url":null,"soiltest_xml_url":0,"soiltest_view_url":0},{"id":238497,"code":"B4KJ201802000-3977","latitude":"42.63425","longitude":"141.412583","source_code":"HK20102602110014","project_name":"","survey_name":"\u6a3d\u524d\u5ddd\u5730\u8cea\u8abf\u67fb\u89e3\u6790\u696d\u52d9","client_name":"\u5317\u6d77\u9053\u958b\u767a\u5c40\u5ba4 \u862d\u958b\u767a\u5efa\u8a2d\u90e8","boring_xml_url":43,"boring_view_url":1,"soilmap_view_url":null,"soiltest_xml_url":0,"soiltest_view_url":0},{"id":238496,"code":"B4KJ201802000-3976","latitude":"42.63375","longitude":"141.415417","source_code":"HK20102602110013","project_name":"","survey_name":"\u6a3d\u524d\u5ddd\u5730\u8cea\u8abf\u67fb\u89e3\u6790\u696d\u52d9","client_name":"\u5317\u6d77\u9053\u958b\u767a\u5c40 \u5ba4\u862d\u958b\u767a\u5efa\u8a2d\u90e8","boring_xml_url":43,"boring_view_url":1,"soilmap_view_url":null,"soiltest_xml_url":0,"soiltest_view_url":0},{"id":238495,"code":"B4KJ201802000-3975","latitude":"42.63225","longitude":"141.414194","source_code":"HK20102602110012","project_name":"","survey_name":"\u6a3d\u524d\u5ddd\u5730\u8cea\u8abf\u67fb\u89e3\u6790\u696d\u52d9","client_name":"\u5317\u6d77\u9053\u958b\u767a\u5c40 \u5ba4\u862d\u958b\u767a\u5efa\u8a2d\u90e8","boring_xml_url":43,"boring_view_url":1,"soilmap_view_url":null,"soiltest_xml_url":0,"soiltest_view_url":0},{"id":238494,"code":"B4KJ201802000-3974","latitude":"42.630167","longitude":"141.413222","source_code":"HK20102602110011","project_name":"","survey_name":"\u6a3d\u524d\u5ddd\u5730\u8cea\u8abf\u67fb\u89e3\u6790\u696d\u52d9","client_name":"\u5317\u6d77\u9053\u958b\u767a\u5c40 \u5ba4\u862d\u958b\u767a\u5efa\u8a2d\u90e8","boring_xml_url":43,"boring_view_url":1,"soilmap_view_url":null,"soiltest_xml_url":0,"soiltest_view_url":0},{"id":238493,"code":"B4KJ201802000-3973","latitude":"42.628972","longitude":"141.411611","source_code":"HK20102602110010","project_name":"","survey_name":"\u6a3d\u524d\u5ddd\u5730\u8cea\u8abf\u67fb\u89e3\u6790\u696d\u52d9","client_name":"\u5317\u6d77\u9053\u958b\u767a\u5c40 \u5ba4\u862d\u958b\u767a\u5efa\u8a2d\u90e8","boring_xml_url":43,"boring_view_url":1,"soilmap_view_url":null,"soiltest_xml_url":0,"soiltest_view_url":0},{"id":238492,"code":"B4KJ201802000-3972","latitude":"42.62725","longitude":"141.409528","source_code":"HK20102602110009","project_name":"","survey_name":"\u6a3d\u524d\u5ddd\u5730\u8cea\u8abf\u67fb\u89e3\u6790\u696d\u52d9","client_name":"\u5317\u6d77\u9053\u958b\u767a\u5c40 \u5ba4\u862d\u958b\u767a\u5efa\u8a2d\u90e8","boring_xml_url":43,"boring_view_url":1,"soilmap_view_url":null,"soiltest_xml_url":0,"soiltest_view_url":0},{"id":238491,"code":"B4KJ201802000-3971","latitude":"42.623306","longitude":"141.40625","source_code":"HK20102602110008","project_name":"","survey_name":"\u6a3d\u524d\u5ddd\u5730\u8cea\u8abf\u67fb\u89e3\u6790\u696d\u52d9","client_name":"\u5317\u6d77\u9053\u958b\u767a\u5c40 \u5ba4\u862d\u958b\u767a\u5efa\u8a2d\u90e8","boring_xml_url":43,"boring_view_url":1,"soilmap_view_url":null,"soiltest_xml_url":0,"soiltest_view_url":0},{"id":238490,"code":"B4KJ201802000-3970","latitude":"42.624306","longitude":"141.407278","source_code":"HK20102602110007","project_name":"","survey_name":"\u6a3d\u524d\u5ddd\u5730\u8cea\u8abf\u67fb\u89e3\u6790\u696d\u52d9","client_name":"\u5317\u6d77\u9053\u958b\u767a\u5c40 \u5ba4\u862d\u958b\u767a\u5efa\u8a2d\u90e8","boring_xml_url":43,"boring_view_url":1,"soilmap_view_url":null,"soiltest_xml_url":0,"soiltest_view_url":0},{"id":238489,"code":"B4KJ201802000-3969","latitude":"42.625528","longitude":"141.408389","source_code":"HK20102602110006","project_name":"","survey_name":"\u6a3d\u524d\u5ddd\u5730\u8cea\u8abf\u67fb\u89e3\u6790\u696d\u52d9","client_name":"\u5317\u6d77\u9053\u958b\u767a\u5c40 \u5ba4\u862d\u958b\u767a\u5efa\u8a2d\u90e8","boring_xml_url":43,"boring_view_url":1,"soilmap_view_url":null,"soiltest_xml_url":0,"soiltest_view_url":0},{"id":238488,"code":"B4KJ201802000-3968","latitude":"42.63","longitude":"141.389806","source_code":"HK20102602110005","project_name":"","survey_name":"\u6a3d\u524d\u5ddd\u5730\u8cea\u8abf\u67fb\u89e3\u6790\u696d\u52d9","client_name":"\u5317\u6d77\u9053\u958b\u767a\u5c40 \u5ba4\u862d\u958b\u767a\u5efa\u8a2d\u90e8","boring_xml_url":43,"boring_view_url":1,"soilmap_view_url":null,"soiltest_xml_url":0,"soiltest_view_url":0},{"id":238487,"code":"B4KJ201802000-3967","latitude":"42.629389","longitude":"141.389111","source_code":"HK20102602110004","project_name":"","survey_name":"\u6a3d\u524d\u5ddd\u5730\u8cea\u8abf\u67fb\u89e3\u6790\u696d\u52d9","client_name":"\u5317\u6d77\u9053\u958b\u767a\u5c40 \u5ba4\u862d\u958b\u767a\u5efa\u8a2d\u90e8","boring_xml_url":43,"boring_view_url":1,"soilmap_view_url":null,"soiltest_xml_url":0,"soiltest_view_url":0},{"id":238486,"code":"B4KJ201802000-3966","latitude":"42.628528","longitude":"141.388028","source_code":"HK20102602110003","project_name":"","survey_name":"\u6a3d\u524d\u5ddd\u5730\u8cea\u8abf\u67fb\u89e3\u6790\u696d\u52d9","client_name":"\u5317\u6d77\u9053\u958b\u767a\u5c40 \u5ba4\u862d\u958b\u767a\u5efa\u8a2d\u90e8","boring_xml_url":43,"boring_view_url":1,"soilmap_view_url":null,"soiltest_xml_url":0,"soiltest_view_url":0},{"id":238485,"code":"B4KJ201802000-3965","latitude":"42.627194","longitude":"141.389056","source_code":"HK20102602110002","project_name":"","survey_name":"\u6a3d\u524d\u5ddd\u5730\u8cea\u8abf\u67fb\u89e3\u6790\u696d\u52d9","client_name":"\u5317\u6d77\u9053\u958b\u767a\u5c40 \u5ba4\u862d\u958b\u767a\u5efa\u8a2d\u90e8","boring_xml_url":43,"boring_view_url":1,"soilmap_view_url":null,"soiltest_xml_url":0,"soiltest_view_url":0},{"id":238484,"code":"B4KJ201802000-3964","latitude":"42.624528","longitude":"141.388583","source_code":"HK20102602110001","project_name":"","survey_name":"\u6a3d\u524d\u5ddd\u5730\u8cea\u8abf\u67fb\u89e3\u6790\u696d\u52d9","client_name":"\u5317\u6d77\u9053\u958b\u767a\u5c40 \u5ba4\u862d\u958b\u767a\u5efa\u8a2d\u90e8","boring_xml_url":43,"boring_view_url":1,"soilmap_view_url":null,"soiltest_xml_url":0,"soiltest_view_url":0},{"id":238483,"code":"B4KJ201802000-3963","latitude":"42.644972","longitude":"141.511361","source_code":"HK20072605690013","project_name":"\u5c0f\u6cc9\u306e\u6ca2\u5ddd1\u53f7\u3048\u3093\u5824\u5916\u5730\u8cea\u8abf\u67fb\u696d\u52d9","survey_name":"\u5c0f\u6cc9\u306e\u6ca2\u5ddd1\u53f7\u3048\u3093\u5824\u5916\u5730\u8cea\u8abf\u67fb\u696d\u52d9","client_name":"\u5317\u6d77\u9053\u958b\u767a\u5c40 \u5ba4\u862d\u958b\u767a\u5efa\u8a2d\u90e8","boring_xml_url":43,"boring_view_url":1,"soilmap_view_url":null,"soiltest_xml_url":46,"soiltest_view_url":45},{"id":238482,"code":"B4KJ201802000-3962","latitude":"42.644806","longitude":"141.511806","source_code":"HK20072605690012","project_name":"\u5c0f\u6cc9\u306e\u6ca2\u5ddd1\u53f7\u3048\u3093\u5824\u5916\u5730\u8cea\u8abf\u67fb\u696d\u52d9","survey_name":"\u5c0f\u6cc9\u306e\u6ca2\u5ddd1\u53f7\u3048\u3093\u5824\u5916\u5730\u8cea\u8abf\u67fb\u696d\u52d9","client_name":"\u5317\u6d77\u9053\u958b\u767a\u5c40 \u5ba4\u862d\u958b\u767a\u5efa\u8a2d\u90e8","boring_xml_url":43,"boring_view_url":1,"soilmap_view_url":null,"soiltest_xml_url":46,"soiltest_view_url":45},{"id":238481,"code":"B4KJ201802000-3961","latitude":"42.644694","longitude":"141.511583","source_code":"HK20072605690011","project_name":"\u5c0f\u6cc9\u306e\u6ca2\u5ddd1\u53f7\u3048\u3093\u5824\u5916\u5730\u8cea\u8abf\u67fb\u696d\u52d9","survey_name":"\u5c0f\u6cc9\u306e\u6ca2\u5ddd1\u53f7\u3048\u3093\u5824\u5916\u5730\u8cea\u8abf\u67fb\u696d\u52d9","client_name":"\u5317\u6d77\u9053\u958b\u767a\u5c40 \u5ba4\u862d\u958b\u767a\u5efa\u8a2d\u90e8","boring_xml_url":43,"boring_view_url":1,"soilmap_view_url":null,"soiltest_xml_url":46,"soiltest_view_url":45},{"id":238480,"code":"B4KJ201802000-3960","latitude":"42.644556","longitude":"141.511361","source_code":"HK20072605690010","project_name":"\u5c0f\u6cc9\u306e\u6ca2\u5ddd1\u53f7\u3048\u3093\u5824\u5916\u5730\u8cea\u8abf\u67fb\u696d\u52d9","survey_name":"\u5c0f\u6cc9\u306e\u6ca2\u5ddd1\u53f7\u3048\u3093\u5824\u5916\u5730\u8cea\u8abf\u67fb\u696d\u52d9","client_name":"\u5317\u6d77\u9053\u958b\u767a\u5c40 \u5ba4\u862d\u958b\u767a\u5efa\u8a2d\u90e8","boring_xml_url":43,"boring_view_url":1,"soilmap_view_url":null,"soiltest_xml_url":46,"soiltest_view_url":45}]}}