{"header":{"xyz":{"source":[],"mosaic":false},"page":3069,"raw":{"soiltest_result":"0","bbox":"57.598333,109.544722,1.933333,163.806111","page":"3069"},"conditions":{"soiltest_result":0,"north":57.598333,"west":109.544722,"south":1.933333,"east":163.806111},"success":true,"message":""},"data":{"meta":{"total":212844,"page":3069,"pages":7095,"count":30},"values":[{"id":238479,"code":"B4KJ201802000-3959","latitude":"42.644278","longitude":"141.511944","source_code":"HK20072605690008","project_name":"\u5c0f\u6cc9\u306e\u6ca2\u5ddd1\u53f7\u3048\u3093\u5824\u5916\u5730\u8cea\u8abf\u67fb\u696d\u52d9","survey_name":"\u5c0f\u6cc9\u306e\u6ca2\u5ddd1\u53f7\u3048\u3093\u5824\u5916\u5730\u8cea\u8abf\u67fb\u696d\u52d9","client_name":"\u5317\u6d77\u9053\u958b\u767a\u5c40 \u5ba4\u862d\u958b\u767a\u5efa\u8a2d\u90e8","boring_xml_url":43,"boring_view_url":1,"soilmap_view_url":null,"soiltest_xml_url":0,"soiltest_view_url":0},{"id":238478,"code":"B4KJ201802000-3958","latitude":"42.814194","longitude":"141.538","source_code":"HK20072605690007","project_name":"\u5c0f\u6cc9\u306e\u6ca2\u5ddd1\u53f7\u3048\u3093\u5824\u5916\u5730\u8cea\u8abf\u67fb\u696d\u52d9","survey_name":"\u5c0f\u6cc9\u306e\u6ca2\u5ddd1\u53f7\u3048\u3093\u5824\u5916\u5730\u8cea\u8abf\u67fb\u696d\u52d9","client_name":"\u5317\u6d77\u9053\u958b\u767a\u5c40 \u5ba4\u862d\u958b\u767a\u5efa\u8a2d\u90e8","boring_xml_url":43,"boring_view_url":1,"soilmap_view_url":null,"soiltest_xml_url":46,"soiltest_view_url":45},{"id":238477,"code":"B4KJ201802000-3957","latitude":"42.647861","longitude":"141.521167","source_code":"HK20072605690006","project_name":"\u5c0f\u6cc9\u306e\u6ca2\u5ddd1\u53f7\u3048\u3093\u5824\u5916\u5730\u8cea\u8abf\u67fb\u696d\u52d9","survey_name":"\u5c0f\u6cc9\u306e\u6ca2\u5ddd1\u53f7\u3048\u3093\u5824\u5916\u5730\u8cea\u8abf\u67fb\u696d\u52d9","client_name":"\u5317\u6d77\u9053\u958b\u767a\u5c40 \u5ba4\u862d\u958b\u767a\u5efa\u8a2d\u90e8","boring_xml_url":43,"boring_view_url":1,"soilmap_view_url":null,"soiltest_xml_url":46,"soiltest_view_url":45},{"id":238476,"code":"B4KJ201802000-3956","latitude":"42.647944","longitude":"141.521667","source_code":"HK20072605690005","project_name":"\u5c0f\u6cc9\u306e\u6ca2\u5ddd1\u53f7\u3048\u3093\u5824\u5916\u5730\u8cea\u8abf\u67fb\u696d\u52d9","survey_name":"\u5c0f\u6cc9\u306e\u6ca2\u5ddd1\u53f7\u3048\u3093\u5824\u5916\u5730\u8cea\u8abf\u67fb\u696d\u52d9","client_name":"\u5317\u6d77\u9053\u958b\u767a\u5c40 \u5ba4\u862d\u958b\u767a\u5efa\u8a2d\u90e8","boring_xml_url":43,"boring_view_url":1,"soilmap_view_url":null,"soiltest_xml_url":46,"soiltest_view_url":45},{"id":238475,"code":"B4KJ201802000-3955","latitude":"42.647361","longitude":"141.521222","source_code":"HK20072605690003","project_name":"\u5c0f\u6cc9\u306e\u6ca2\u5ddd1\u53f7\u3048\u3093\u5824\u5916\u5730\u8cea\u8abf\u67fb\u696d\u52d9","survey_name":"\u5c0f\u6cc9\u306e\u6ca2\u5ddd1\u53f7\u3048\u3093\u5824\u5916\u5730\u8cea\u8abf\u67fb\u696d\u52d9","client_name":"\u5317\u6d77\u9053\u958b\u767a\u5c40 \u5ba4\u862d\u958b\u767a\u5efa\u8a2d\u90e8","boring_xml_url":43,"boring_view_url":1,"soilmap_view_url":null,"soiltest_xml_url":46,"soiltest_view_url":45},{"id":238474,"code":"B4KJ201802000-3954","latitude":"42.647556","longitude":"141.521778","source_code":"HK20072605690002","project_name":"\u5c0f\u6cc9\u306e\u6ca2\u5ddd1\u53f7\u3048\u3093\u5824\u5916\u5730\u8cea\u8abf\u67fb\u696d\u52d9","survey_name":"\u5c0f\u6cc9\u306e\u6ca2\u5ddd1\u53f7\u3048\u3093\u5824\u5916\u5730\u8cea\u8abf\u67fb\u696d\u52d9","client_name":"\u5317\u6d77\u9053\u958b\u767a\u5c40 \u5ba4\u862d\u958b\u767a\u5efa\u8a2d\u90e8","boring_xml_url":43,"boring_view_url":1,"soilmap_view_url":null,"soiltest_xml_url":46,"soiltest_view_url":45},{"id":238473,"code":"B4KJ201802000-3953","latitude":"42.647389","longitude":"141.522139","source_code":"HK20072605690001","project_name":"\u5c0f\u6cc9\u306e\u6ca2\u5ddd1\u53f7\u3048\u3093\u5824\u5916\u5730\u8cea\u8abf\u67fb\u696d\u52d9","survey_name":"\u5c0f\u6cc9\u306e\u6ca2\u5ddd1\u53f7\u3048\u3093\u5824\u5916\u5730\u8cea\u8abf\u67fb\u696d\u52d9","client_name":"\u5317\u6d77\u9053\u958b\u767a\u5c40 \u5ba4\u862d\u958b\u767a\u5efa\u8a2d\u90e8","boring_xml_url":43,"boring_view_url":1,"soilmap_view_url":null,"soiltest_xml_url":46,"soiltest_view_url":45},{"id":238472,"code":"B4KJ201802000-3952","latitude":"42.6935","longitude":"142.415889","source_code":"HK20132604000005","project_name":"","survey_name":"\u6c99\u6d41\u5ddd\u7dcf\u5408\u958b\u767a\u4e8b\u696d\u306e\u5185\u5e73\u53d6\u30c0\u30e0\u8caf\u6c34\u6c60\u5730\u3059\u3079\u308a\u5730\u8cea\u8abf\u67fb\u696d\u52d9","client_name":"\u5317\u6d77\u9053\u958b\u767a\u5c40 \u5ba4\u862d\u958b\u767a\u5efa\u8a2d\u90e8","boring_xml_url":43,"boring_view_url":1,"soilmap_view_url":null,"soiltest_xml_url":0,"soiltest_view_url":0},{"id":238471,"code":"B4KJ201802000-3951","latitude":"42.676333","longitude":"142.399389","source_code":"HK20132604000004","project_name":"","survey_name":"\u6c99\u6d41\u5ddd\u7dcf\u5408\u958b\u767a\u4e8b\u696d\u306e\u5185\u5e73\u53d6\u30c0\u30e0\u8caf\u6c34\u6c60\u5730\u3059\u3079\u308a\u5730\u8cea\u8abf\u67fb\u696d\u52d9","client_name":"\u5317\u6d77\u9053\u958b\u767a\u5c40 \u5ba4\u862d\u958b\u767a\u5efa\u8a2d\u90e8","boring_xml_url":43,"boring_view_url":1,"soilmap_view_url":null,"soiltest_xml_url":0,"soiltest_view_url":0},{"id":238470,"code":"B4KJ201802000-3950","latitude":"42.691056","longitude":"142.41","source_code":"HK20132604000003","project_name":"","survey_name":"\u6c99\u6d41\u5ddd\u7dcf\u5408\u958b\u767a\u4e8b\u696d\u306e\u5185\u5e73\u53d6\u30c0\u30e0\u8caf\u6c34\u6c60\u5730\u3059\u3079\u308a\u5730\u8cea\u8abf\u67fb\u696d\u52d9","client_name":"\u5317\u6d77\u9053\u958b\u767a\u5c40 \u5ba4\u862d\u958b\u767a\u5efa\u8a2d\u90e8","boring_xml_url":43,"boring_view_url":1,"soilmap_view_url":null,"soiltest_xml_url":0,"soiltest_view_url":0},{"id":238469,"code":"B4KJ201802000-3949","latitude":"42.691139","longitude":"142.410333","source_code":"HK20132604000002","project_name":"","survey_name":"\u6c99\u6d41\u5ddd\u7dcf\u5408\u958b\u767a\u4e8b\u696d\u306e\u5185\u5e73\u53d6\u30c0\u30e0\u8caf\u6c34\u6c60\u5730\u3059\u3079\u308a\u5730\u8cea\u8abf\u67fb\u696d\u52d9","client_name":"\u5317\u6d77\u9053\u958b\u767a\u5c40 \u5ba4\u862d\u958b\u767a\u5efa\u8a2d\u90e8","boring_xml_url":43,"boring_view_url":1,"soilmap_view_url":null,"soiltest_xml_url":0,"soiltest_view_url":0},{"id":238468,"code":"B4KJ201802000-3948","latitude":"42.691056","longitude":"142.411139","source_code":"HK20132604000001","project_name":"","survey_name":"\u6c99\u6d41\u5ddd\u7dcf\u5408\u958b\u767a\u4e8b\u696d\u306e\u5185\u5e73\u53d6\u30c0\u30e0\u8caf\u6c34\u6c60\u5730\u3059\u3079\u308a\u5730\u8cea\u8abf\u67fb\u696d\u52d9","client_name":"\u5317\u6d77\u9053\u958b\u767a\u5c40 \u5ba4\u862d\u958b\u767a\u5efa\u8a2d\u90e8","boring_xml_url":43,"boring_view_url":1,"soilmap_view_url":null,"soiltest_xml_url":0,"soiltest_view_url":0},{"id":238467,"code":"B4KJ201802000-3947","latitude":"42.680833","longitude":"142.411528","source_code":"HK20132602330008","project_name":"","survey_name":"\u6c99\u6d41\u5ddd\u7dcf\u5408\u958b\u767a\u4e8b\u696d\u306e\u5185 \u5e73\u53d6\u30c0\u30e0\u8caf\u6c34\u6c60\u5468\u8fba\u5730\u8cea\u8abf\u67fb\u696d\u52d9","client_name":"\u5317\u6d77\u9053\u958b\u767a\u5c40\u5ba4\u862d\u958b\u767a\u5efa\u8a2d\u90e8","boring_xml_url":43,"boring_view_url":1,"soilmap_view_url":null,"soiltest_xml_url":0,"soiltest_view_url":0},{"id":238466,"code":"B4KJ201802000-3946","latitude":"42.680833","longitude":"142.4115","source_code":"HK20132602330007","project_name":"","survey_name":"\u6c99\u6d41\u5ddd\u7dcf\u5408\u958b\u767a\u4e8b\u696d\u306e\u5185 \u5e73\u53d6\u30c0\u30e0\u8caf\u6c34\u6c60\u5468\u8fba\u5730\u8cea\u8abf\u67fb\u696d\u52d9","client_name":"\u5317\u6d77\u9053\u958b\u767a\u5c40\u5ba4\u862d\u958b\u767a\u5efa\u8a2d\u90e8","boring_xml_url":43,"boring_view_url":1,"soilmap_view_url":null,"soiltest_xml_url":0,"soiltest_view_url":0},{"id":238465,"code":"B4KJ201802000-3945","latitude":"42.672194","longitude":"142.414","source_code":"HK20132602330006","project_name":"","survey_name":"\u6c99\u6d41\u5ddd\u7dcf\u5408\u958b\u767a\u4e8b\u696d\u306e\u5185 \u5e73\u53d6\u30c0\u30e0\u8caf\u6c34\u6c60\u5468\u8fba\u5730\u8cea\u8abf\u67fb\u696d\u52d9","client_name":"\u5317\u6d77\u9053\u958b\u767a\u5c40\u5ba4\u862d\u958b\u767a\u5efa\u8a2d\u90e8","boring_xml_url":43,"boring_view_url":1,"soilmap_view_url":null,"soiltest_xml_url":0,"soiltest_view_url":0},{"id":238464,"code":"B4KJ201802000-3944","latitude":"42.672361","longitude":"142.413444","source_code":"HK20132602330005","project_name":"","survey_name":"\u6c99\u6d41\u5ddd\u7dcf\u5408\u958b\u767a\u4e8b\u696d\u306e\u5185 \u5e73\u53d6\u30c0\u30e0\u8caf\u6c34\u6c60\u5468\u8fba\u5730\u8cea\u8abf\u67fb\u696d\u52d9","client_name":"\u5317\u6d77\u9053\u958b\u767a\u5c40\u5ba4\u862d\u958b\u767a\u5efa\u8a2d\u90e8","boring_xml_url":43,"boring_view_url":1,"soilmap_view_url":null,"soiltest_xml_url":0,"soiltest_view_url":0},{"id":238463,"code":"B4KJ201802000-3943","latitude":"42.672778","longitude":"142.414278","source_code":"HK20132602330004","project_name":"","survey_name":"\u6c99\u6d41\u5ddd\u7dcf\u5408\u958b\u767a\u4e8b\u696d\u306e\u5185 \u5e73\u53d6\u30c0\u30e0\u8caf\u6c34\u6c60\u5468\u8fba\u5730\u8cea\u8abf\u67fb\u696d\u52d9","client_name":"\u5317\u6d77\u9053\u958b\u767a\u5c40\u5ba4\u862d\u958b\u767a\u5efa\u8a2d\u90e8","boring_xml_url":43,"boring_view_url":1,"soilmap_view_url":null,"soiltest_xml_url":0,"soiltest_view_url":0},{"id":238462,"code":"B4KJ201802000-3942","latitude":"42.672944","longitude":"142.413722","source_code":"HK20132602330003","project_name":"","survey_name":"\u6c99\u6d41\u5ddd\u7dcf\u5408\u958b\u767a\u4e8b\u696d\u306e\u5185 \u5e73\u53d6\u30c0\u30e0\u8caf\u6c34\u6c60\u5468\u8fba\u5730\u8cea\u8abf\u67fb\u696d\u52d9","client_name":"\u5317\u6d77\u9053\u958b\u767a\u5c40\u5ba4\u862d\u958b\u767a\u5efa\u8a2d\u90e8","boring_xml_url":43,"boring_view_url":1,"soilmap_view_url":null,"soiltest_xml_url":0,"soiltest_view_url":0},{"id":238461,"code":"B4KJ201802000-3941","latitude":"42.694194","longitude":"142.416667","source_code":"HK20132602330002","project_name":"","survey_name":"\u6c99\u6d41\u5ddd\u7dcf\u5408\u958b\u767a\u4e8b\u696d\u306e\u5185 \u5e73\u53d6\u30c0\u30e0\u8caf\u6c34\u6c60\u5468\u8fba\u5730\u8cea\u8abf\u67fb\u696d\u52d9","client_name":"\u5317\u6d77\u9053\u958b\u767a\u5c40\u5ba4\u862d\u958b\u767a\u5efa\u8a2d\u90e8","boring_xml_url":43,"boring_view_url":1,"soilmap_view_url":null,"soiltest_xml_url":0,"soiltest_view_url":0},{"id":238460,"code":"B4KJ201802000-3940","latitude":"42.694417","longitude":"142.416167","source_code":"HK20132602330001","project_name":"","survey_name":"\u6c99\u6d41\u5ddd\u7dcf\u5408\u958b\u767a\u4e8b\u696d\u306e\u5185 \u5e73\u53d6\u30c0\u30e0\u8caf\u6c34\u6c60\u5468\u8fba\u5730\u8cea\u8abf\u67fb\u696d\u52d9","client_name":"\u5317\u6d77\u9053\u958b\u767a\u5c40\u5ba4\u862d\u958b\u767a\u5efa\u8a2d\u90e8","boring_xml_url":43,"boring_view_url":1,"soilmap_view_url":null,"soiltest_xml_url":0,"soiltest_view_url":0},{"id":238459,"code":"B4KJ201802000-3939","latitude":"42.625833","longitude":"141.450444","source_code":"HK20092603440025","project_name":"\u718a\u306e\u6ca2\u5ddd\u5730\u8cea\u8abf\u67fb\u696d\u52d9","survey_name":"\u718a\u306e\u6ca2\u5ddd\u5730\u8cea\u8abf\u67fb\u696d\u52d9","client_name":"\u5317\u6d77\u9053\u958b\u767a\u5c40 \u5ba4\u862d\u958b\u767a\u5efa\u8a2d\u90e8","boring_xml_url":43,"boring_view_url":1,"soilmap_view_url":null,"soiltest_xml_url":0,"soiltest_view_url":0},{"id":238458,"code":"B4KJ201802000-3938","latitude":"42.627722","longitude":"141.450222","source_code":"HK20092603440024","project_name":"\u718a\u306e\u6ca2\u5ddd\u5730\u8cea\u8abf\u67fb\u696d\u52d9","survey_name":"\u718a\u306e\u6ca2\u5ddd\u5730\u8cea\u8abf\u67fb\u696d\u52d9","client_name":"\u5317\u6d77\u9053\u958b\u767a\u5c40 \u5ba4\u862d\u958b\u767a\u5efa\u8a2d\u90e8","boring_xml_url":43,"boring_view_url":1,"soilmap_view_url":null,"soiltest_xml_url":0,"soiltest_view_url":0},{"id":238457,"code":"B4KJ201802000-3937","latitude":"42.633472","longitude":"141.448389","source_code":"HK20092603440023","project_name":"\u718a\u306e\u6ca2\u5ddd\u5730\u8cea\u8abf\u67fb\u696d\u52d9","survey_name":"\u718a\u306e\u6ca2\u5ddd\u5730\u8cea\u8abf\u67fb\u696d\u52d9","client_name":"\u5317\u6d77\u9053\u958b\u767a\u5c40 \u5ba4\u862d\u958b\u767a\u5efa\u8a2d\u90e8","boring_xml_url":43,"boring_view_url":1,"soilmap_view_url":null,"soiltest_xml_url":0,"soiltest_view_url":0},{"id":238456,"code":"B4KJ201802000-3936","latitude":"42.633222","longitude":"141.447222","source_code":"HK20092603440022","project_name":"\u718a\u306e\u6ca2\u5ddd\u5730\u8cea\u8abf\u67fb\u696d\u52d9","survey_name":"\u718a\u306e\u6ca2\u5ddd\u5730\u8cea\u8abf\u67fb\u696d\u52d9","client_name":"\u5317\u6d77\u9053\u958b\u767a\u5c40 \u5ba4\u862d\u958b\u767a\u5efa\u8a2d\u90e8","boring_xml_url":43,"boring_view_url":1,"soilmap_view_url":null,"soiltest_xml_url":0,"soiltest_view_url":0},{"id":238455,"code":"B4KJ201802000-3935","latitude":"42.633361","longitude":"141.447806","source_code":"HK20092603440021","project_name":"\u718a\u306e\u6ca2\u5ddd\u5730\u8cea\u8abf\u67fb\u696d\u52d9","survey_name":"\u718a\u306e\u6ca2\u5ddd\u5730\u8cea\u8abf\u67fb\u696d\u52d9","client_name":"\u5317\u6d77\u9053\u958b\u767a\u5c40 \u5ba4\u862d\u958b\u767a\u5efa\u8a2d\u90e8","boring_xml_url":43,"boring_view_url":1,"soilmap_view_url":null,"soiltest_xml_url":0,"soiltest_view_url":0},{"id":238454,"code":"B4KJ201802000-3934","latitude":"42.627778","longitude":"141.447083","source_code":"HK20092603440020","project_name":"\u718a\u306e\u6ca2\u5ddd\u5730\u8cea\u8abf\u67fb\u696d\u52d9","survey_name":"\u718a\u306e\u6ca2\u5ddd\u5730\u8cea\u8abf\u67fb\u696d\u52d9","client_name":"\u5317\u6d77\u9053\u958b\u767a\u5c40 \u5ba4\u862d\u958b\u767a\u5efa\u8a2d\u90e8","boring_xml_url":43,"boring_view_url":1,"soilmap_view_url":null,"soiltest_xml_url":0,"soiltest_view_url":0},{"id":238453,"code":"B4KJ201802000-3933","latitude":"42.627","longitude":"141.446778","source_code":"HK20092603440019","project_name":"\u718a\u306e\u6ca2\u5ddd\u5730\u8cea\u8abf\u67fb\u696d\u52d9","survey_name":"\u718a\u306e\u6ca2\u5ddd\u5730\u8cea\u8abf\u67fb\u696d\u52d9","client_name":"\u5317\u6d77\u9053\u958b\u767a\u5c40 \u5ba4\u862d\u958b\u767a\u5efa\u8a2d\u90e8","boring_xml_url":43,"boring_view_url":1,"soilmap_view_url":null,"soiltest_xml_url":0,"soiltest_view_url":0},{"id":238452,"code":"B4KJ201802000-3932","latitude":"42.627861","longitude":"141.446389","source_code":"HK20092603440018","project_name":"\u718a\u306e\u6ca2\u5ddd\u5730\u8cea\u8abf\u67fb\u696d\u52d9","survey_name":"\u718a\u306e\u6ca2\u5ddd\u5730\u8cea\u8abf\u67fb\u696d\u52d9","client_name":"\u5317\u6d77\u9053\u958b\u767a\u5c40 \u5ba4\u862d\u958b\u767a\u5efa\u8a2d\u90e8","boring_xml_url":43,"boring_view_url":1,"soilmap_view_url":null,"soiltest_xml_url":0,"soiltest_view_url":0},{"id":238451,"code":"B4KJ201802000-3931","latitude":"42.628861","longitude":"141.450444","source_code":"HK20092603440017","project_name":"\u718a\u306e\u6ca2\u5ddd\u5730\u8cea\u8abf\u67fb\u696d\u52d9","survey_name":"\u718a\u306e\u6ca2\u5ddd\u5730\u8cea\u8abf\u67fb\u696d\u52d9","client_name":"\u5317\u6d77\u9053\u958b\u767a\u5c40 \u5ba4\u862d\u958b\u767a\u5efa\u8a2d\u90e8","boring_xml_url":43,"boring_view_url":1,"soilmap_view_url":null,"soiltest_xml_url":0,"soiltest_view_url":0},{"id":238450,"code":"B4KJ201802000-3930","latitude":"42.6295","longitude":"141.450167","source_code":"HK20092603440016","project_name":"\u718a\u306e\u6ca2\u5ddd\u5730\u8cea\u8abf\u67fb\u696d\u52d9","survey_name":"\u718a\u306e\u6ca2\u5ddd\u5730\u8cea\u8abf\u67fb\u696d\u52d9","client_name":"\u5317\u6d77\u9053\u958b\u767a\u5c40 \u5ba4\u862d\u958b\u767a\u5efa\u8a2d\u90e8","boring_xml_url":43,"boring_view_url":1,"soilmap_view_url":null,"soiltest_xml_url":0,"soiltest_view_url":0}]}}