{"header":{"xyz":{"source":[],"mosaic":false},"page":3085,"raw":{"soiltest_result":"0","bbox":"57.598333,109.544722,1.933333,163.806111","page":"3085"},"conditions":{"soiltest_result":0,"north":57.598333,"west":109.544722,"south":1.933333,"east":163.806111},"success":true,"message":""},"data":{"meta":{"total":212844,"page":3085,"pages":7095,"count":30},"values":[{"id":237999,"code":"B4KJ201802000-3479","latitude":"43.783611","longitude":"141.966722","source_code":"HK20112159130010","project_name":"\u6df1\u5ddd\u7559\u840c\u81ea\u52d5\u8eca\u9053\u76db\u571f\u5730\u8cea\u8abf\u67fb\u5916\u4e00\u9023\u696d\u52d9","survey_name":"\u6df1\u5ddd\u7559\u840c\u81ea\u52d5\u8eca\u9053\u76db\u571f\u5730\u8cea\u8abf\u67fb\u5916\u4e00\u9023\u696d\u52d9","client_name":"\u5317\u6d77\u9053\u958b\u767a\u5c40 \u672d\u5e4c\u958b\u767a\u5efa\u8a2d\u90e8 \u6df1\u5ddd\u9053\u8def\u4e8b\u52d9\u6240","boring_xml_url":43,"boring_view_url":1,"soilmap_view_url":null,"soiltest_xml_url":43,"soiltest_view_url":42},{"id":237998,"code":"B4KJ201802000-3478","latitude":"43.773806","longitude":"141.975556","source_code":"HK20112159130009","project_name":"\u6df1\u5ddd\u7559\u840c\u81ea\u52d5\u8eca\u9053\u76db\u571f\u5730\u8cea\u8abf\u67fb\u5916\u4e00\u9023\u696d\u52d9","survey_name":"\u6df1\u5ddd\u7559\u840c\u81ea\u52d5\u8eca\u9053\u76db\u571f\u5730\u8cea\u8abf\u67fb\u5916\u4e00\u9023\u696d\u52d9","client_name":"\u5317\u6d77\u9053\u958b\u767a\u5c40 \u672d\u5e4c\u958b\u767a\u5efa\u8a2d\u90e8 \u6df1\u5ddd\u9053\u8def\u4e8b\u52d9\u6240","boring_xml_url":43,"boring_view_url":1,"soilmap_view_url":null,"soiltest_xml_url":43,"soiltest_view_url":42},{"id":237997,"code":"B4KJ201802000-3477","latitude":"43.750722","longitude":"141.983889","source_code":"HK20112159130008","project_name":"\u6df1\u5ddd\u7559\u840c\u81ea\u52d5\u8eca\u9053\u76db\u571f\u5730\u8cea\u8abf\u67fb\u5916\u4e00\u9023\u696d\u52d9","survey_name":"\u6df1\u5ddd\u7559\u840c\u81ea\u52d5\u8eca\u9053\u76db\u571f\u5730\u8cea\u8abf\u67fb\u5916\u4e00\u9023\u696d\u52d9","client_name":"\u5317\u6d77\u9053\u958b\u767a\u5c40 \u672d\u5e4c\u958b\u767a\u5efa\u8a2d\u90e8 \u6df1\u5ddd\u9053\u8def\u4e8b\u52d9\u6240","boring_xml_url":43,"boring_view_url":1,"soilmap_view_url":null,"soiltest_xml_url":43,"soiltest_view_url":42},{"id":237996,"code":"B4KJ201802000-3476","latitude":"43.747583","longitude":"141.984222","source_code":"HK20112159130007","project_name":"\u6df1\u5ddd\u7559\u840c\u81ea\u52d5\u8eca\u9053\u76db\u571f\u5730\u8cea\u8abf\u67fb\u5916\u4e00\u9023\u696d\u52d9","survey_name":"\u6df1\u5ddd\u7559\u840c\u81ea\u52d5\u8eca\u9053\u76db\u571f\u5730\u8cea\u8abf\u67fb\u5916\u4e00\u9023\u696d\u52d9","client_name":"\u5317\u6d77\u9053\u958b\u767a\u5c40 \u672d\u5e4c\u958b\u767a\u5efa\u8a2d\u90e8 \u6df1\u5ddd\u9053\u8def\u4e8b\u52d9\u6240","boring_xml_url":43,"boring_view_url":1,"soilmap_view_url":null,"soiltest_xml_url":43,"soiltest_view_url":42},{"id":237995,"code":"B4KJ201802000-3475","latitude":"43.745333","longitude":"141.984472","source_code":"HK20112159130006","project_name":"\u6df1\u5ddd\u7559\u840c\u81ea\u52d5\u8eca\u9053\u76db\u571f\u5730\u8cea\u8abf\u67fb\u5916\u4e00\u9023\u696d\u52d9","survey_name":"\u6df1\u5ddd\u7559\u840c\u81ea\u52d5\u8eca\u9053\u76db\u571f\u5730\u8cea\u8abf\u67fb\u5916\u4e00\u9023\u696d\u52d9","client_name":"\u5317\u6d77\u9053\u958b\u767a\u5c40 \u672d\u5e4c\u958b\u767a\u5efa\u8a2d\u90e8 \u6df1\u5ddd\u9053\u8def\u4e8b\u52d9\u6240","boring_xml_url":43,"boring_view_url":1,"soilmap_view_url":null,"soiltest_xml_url":43,"soiltest_view_url":42},{"id":237994,"code":"B4KJ201802000-3474","latitude":"43.740861","longitude":"141.984972","source_code":"HK20112159130005","project_name":"\u6df1\u5ddd\u7559\u840c\u81ea\u52d5\u8eca\u9053\u76db\u571f\u5730\u8cea\u8abf\u67fb\u5916\u4e00\u9023\u696d\u52d9","survey_name":"\u6df1\u5ddd\u7559\u840c\u81ea\u52d5\u8eca\u9053\u76db\u571f\u5730\u8cea\u8abf\u67fb\u5916\u4e00\u9023\u696d\u52d9","client_name":"\u5317\u6d77\u9053\u958b\u767a\u5c40 \u672d\u5e4c\u958b\u767a\u5efa\u8a2d\u90e8 \u6df1\u5ddd\u9053\u8def\u4e8b\u52d9\u6240","boring_xml_url":43,"boring_view_url":1,"soilmap_view_url":null,"soiltest_xml_url":43,"soiltest_view_url":42},{"id":237993,"code":"B4KJ201802000-3473","latitude":"43.737694","longitude":"141.985306","source_code":"HK20112159130004","project_name":"\u6df1\u5ddd\u7559\u840c\u81ea\u52d5\u8eca\u9053\u76db\u571f\u5730\u8cea\u8abf\u67fb\u5916\u4e00\u9023\u696d\u52d9","survey_name":"\u6df1\u5ddd\u7559\u840c\u81ea\u52d5\u8eca\u9053\u76db\u571f\u5730\u8cea\u8abf\u67fb\u5916\u4e00\u9023\u696d\u52d9","client_name":"\u5317\u6d77\u9053\u958b\u767a\u5c40 \u672d\u5e4c\u958b\u767a\u5efa\u8a2d\u90e8 \u6df1\u5ddd\u9053\u8def\u4e8b\u52d9\u6240","boring_xml_url":43,"boring_view_url":1,"soilmap_view_url":null,"soiltest_xml_url":43,"soiltest_view_url":42},{"id":237992,"code":"B4KJ201802000-3472","latitude":"43.735889","longitude":"141.985806","source_code":"HK20112159130003","project_name":"\u6df1\u5ddd\u7559\u840c\u81ea\u52d5\u8eca\u9053\u76db\u571f\u5730\u8cea\u8abf\u67fb\u5916\u4e00\u9023\u696d\u52d9","survey_name":"\u6df1\u5ddd\u7559\u840c\u81ea\u52d5\u8eca\u9053\u76db\u571f\u5730\u8cea\u8abf\u67fb\u5916\u4e00\u9023\u696d\u52d9","client_name":"\u5317\u6d77\u9053\u958b\u767a\u5c40 \u672d\u5e4c\u958b\u767a\u5efa\u8a2d\u90e8 \u6df1\u5ddd\u9053\u8def\u4e8b\u52d9\u6240","boring_xml_url":43,"boring_view_url":1,"soilmap_view_url":null,"soiltest_xml_url":43,"soiltest_view_url":42},{"id":237991,"code":"B4KJ201802000-3471","latitude":"43.727528","longitude":"141.990306","source_code":"HK20112159130002","project_name":"\u6df1\u5ddd\u7559\u840c\u81ea\u52d5\u8eca\u9053\u76db\u571f\u5730\u8cea\u8abf\u67fb\u5916\u4e00\u9023\u696d\u52d9","survey_name":"\u6df1\u5ddd\u7559\u840c\u81ea\u52d5\u8eca\u9053\u76db\u571f\u5730\u8cea\u8abf\u67fb\u5916\u4e00\u9023\u696d\u52d9","client_name":"\u5317\u6d77\u9053\u958b\u767a\u5c40 \u672d\u5e4c\u958b\u767a\u5efa\u8a2d\u90e8 \u6df1\u5ddd\u9053\u8def\u4e8b\u52d9\u6240","boring_xml_url":43,"boring_view_url":1,"soilmap_view_url":null,"soiltest_xml_url":43,"soiltest_view_url":42},{"id":237990,"code":"B4KJ201802000-3470","latitude":"43.715972","longitude":"141.997111","source_code":"HK20112159130001","project_name":"\u6df1\u5ddd\u7559\u840c\u81ea\u52d5\u8eca\u9053\u76db\u571f\u5730\u8cea\u8abf\u67fb\u5916\u4e00\u9023\u696d\u52d9","survey_name":"\u6df1\u5ddd\u7559\u840c\u81ea\u52d5\u8eca\u9053\u76db\u571f\u5730\u8cea\u8abf\u67fb\u5916\u4e00\u9023\u696d\u52d9","client_name":"\u5317\u6d77\u9053\u958b\u767a\u5c40 \u672d\u5e4c\u958b\u767a\u5efa\u8a2d\u90e8 \u6df1\u5ddd\u9053\u8def\u4e8b\u52d9\u6240","boring_xml_url":43,"boring_view_url":1,"soilmap_view_url":null,"soiltest_xml_url":43,"soiltest_view_url":42},{"id":237989,"code":"B4KJ201802000-3469","latitude":"43.843056","longitude":"141.774444","source_code":"HK20112159090003","project_name":"\u6df1\u5ddd\u7559\u840c\u81ea\u52d5\u8eca\u9053 \u5317\u7adc\u753a \u5730\u8cea\u8abf\u67fb\u696d\u52d9","survey_name":"\u6df1\u5ddd\u7559\u840c\u81ea\u52d5\u8eca\u9053 \u5317\u7adc\u753a \u5730\u8cea\u8abf\u67fb\u696d\u52d9","client_name":"\u5317\u6d77\u9053\u958b\u767a\u5c40 \u672d\u5e4c\u958b\u767a\u5efa\u8a2d\u90e8 \u6df1\u5ddd\u9053\u8def\u4e8b\u52d9\u6240","boring_xml_url":43,"boring_view_url":1,"soilmap_view_url":null,"soiltest_xml_url":43,"soiltest_view_url":42},{"id":237988,"code":"B4KJ201802000-3468","latitude":"43.798889","longitude":"141.865833","source_code":"HK20112159090002","project_name":"\u6df1\u5ddd\u7559\u840c\u81ea\u52d5\u8eca\u9053 \u5317\u7adc\u753a \u5730\u8cea\u8abf\u67fb\u696d\u52d9","survey_name":"\u6df1\u5ddd\u7559\u840c\u81ea\u52d5\u8eca\u9053 \u5317\u7adc\u753a \u5730\u8cea\u8abf\u67fb\u696d\u52d9","client_name":"\u5317\u6d77\u9053\u958b\u767a\u5c40 \u672d\u5e4c\u958b\u767a\u5efa\u8a2d\u90e8 \u6df1\u5ddd\u9053\u8def\u4e8b\u52d9\u6240","boring_xml_url":43,"boring_view_url":1,"soilmap_view_url":null,"soiltest_xml_url":43,"soiltest_view_url":42},{"id":237987,"code":"B4KJ201802000-3467","latitude":"43.799444","longitude":"141.866111","source_code":"HK20112159090001","project_name":"\u6df1\u5ddd\u7559\u840c\u81ea\u52d5\u8eca\u9053 \u5317\u7adc\u753a \u5730\u8cea\u8abf\u67fb\u696d\u52d9","survey_name":"\u6df1\u5ddd\u7559\u840c\u81ea\u52d5\u8eca\u9053 \u5317\u7adc\u753a \u5730\u8cea\u8abf\u67fb\u696d\u52d9","client_name":"\u5317\u6d77\u9053\u958b\u767a\u5c40 \u672d\u5e4c\u958b\u767a\u5efa\u8a2d\u90e8 \u6df1\u5ddd\u9053\u8def\u4e8b\u52d9\u6240","boring_xml_url":43,"boring_view_url":1,"soilmap_view_url":null,"soiltest_xml_url":43,"soiltest_view_url":42},{"id":237986,"code":"B4KJ201802000-3466","latitude":"43.889639","longitude":"141.70925","source_code":"HK20132159100015","project_name":"\u6df1\u5ddd\u81ea\u52d5\u8eca\u9053\u5e4c\u7ce0\u5730\u8cea\u8abf\u67fb\u5916\u4e00\u9023\u696d\u52d9","survey_name":"\u6df1\u5ddd\u81ea\u52d5\u8eca\u9053\u5e4c\u7ce0\u5730\u8cea\u8abf\u67fb\u5916\u4e00\u9023\u696d\u52d9","client_name":"\u5317\u6d77\u9053\u958b\u767a\u5c40 \u672d\u5e4c\u958b\u767a\u5efa\u8a2d\u90e8 \u6df1\u5ddd\u9053\u8def\u4e8b\u52d9\u6240","boring_xml_url":43,"boring_view_url":1,"soilmap_view_url":null,"soiltest_xml_url":43,"soiltest_view_url":42},{"id":237985,"code":"B4KJ201802000-3465","latitude":"43.916667","longitude":"142.125556","source_code":"HK20082130100003","project_name":"\u4e00\u822c\u56fd\u9053275\u53f7\u6df1\u5ddd\u5e02\u5e4c\u52a0\u5185\u9053\u8def\u5730\u3059\u3079\u308a\u89b3\u6e2c\u8abf\u67fb\u696d\u52d9","survey_name":"\u4e00\u822c\u56fd\u9053275\u53f7\u6df1\u5ddd\u5e02\u5e4c\u52a0\u5185\u9053\u8def\u5730\u3059\u3079\u308a\u89b3\u6e2c\u8abf\u67fb\u696d\u52d9","client_name":"\u5317\u6d77\u9053\u958b\u767a\u5c40 \u672d\u5e4c\u958b\u767a\u5efa\u8a2d\u90e8 \u6df1\u5ddd\u9053\u8def\u4e8b\u52d9\u6240","boring_xml_url":43,"boring_view_url":1,"soilmap_view_url":null,"soiltest_xml_url":0,"soiltest_view_url":0},{"id":237984,"code":"B4KJ201802000-3464","latitude":"43.805583","longitude":"141.920167","source_code":"HK20132159150022","project_name":"\u4e00\u822c\u56fd\u9053233\u53f7\u6df1\u5ddd\u5e02\u5e83\u91cc\u5730\u8cea\u8abf\u67fb\u5916\u4e00\u9023\u696d\u52d9","survey_name":"\u4e00\u822c\u56fd\u9053233\u53f7\u6df1\u5ddd\u5e02\u5e83\u91cc\u5730\u8cea\u8abf\u67fb\u5916\u4e00\u9023\u696d\u52d9","client_name":"\u5317\u6d77\u9053\u958b\u767a\u5c40 \u672d\u5e4c\u958b\u767a\u5efa\u8a2d\u90e8 \u6df1\u5ddd\u9053\u8def\u4e8b\u52d9\u6240","boring_xml_url":43,"boring_view_url":1,"soilmap_view_url":null,"soiltest_xml_url":0,"soiltest_view_url":0},{"id":237983,"code":"B4KJ201802000-3463","latitude":"43.703194","longitude":"142.083833","source_code":"HK20132159150021","project_name":"\u4e00\u822c\u56fd\u9053233\u53f7\u6df1\u5ddd\u5e02\u5e83\u91cc\u5730\u8cea\u8abf\u67fb\u5916\u4e00\u9023\u696d\u52d9","survey_name":"\u4e00\u822c\u56fd\u9053233\u53f7\u6df1\u5ddd\u5e02\u5e83\u91cc\u5730\u8cea\u8abf\u67fb\u5916\u4e00\u9023\u696d\u52d9","client_name":"\u5317\u6d77\u9053\u958b\u767a\u5c40 \u672d\u5e4c\u958b\u767a\u5efa\u8a2d\u90e8 \u6df1\u5ddd\u9053\u8def\u4e8b\u52d9\u6240","boring_xml_url":43,"boring_view_url":1,"soilmap_view_url":null,"soiltest_xml_url":0,"soiltest_view_url":0},{"id":237982,"code":"B4KJ201802000-3462","latitude":"43.703472","longitude":"142.0795","source_code":"HK20132159150020","project_name":"\u4e00\u822c\u56fd\u9053233\u53f7\u6df1\u5ddd\u5e02\u5e83\u91cc\u5730\u8cea\u8abf\u67fb\u5916\u4e00\u9023\u696d\u52d9","survey_name":"\u4e00\u822c\u56fd\u9053233\u53f7\u6df1\u5ddd\u5e02\u5e83\u91cc\u5730\u8cea\u8abf\u67fb\u5916\u4e00\u9023\u696d\u52d9","client_name":"\u5317\u6d77\u9053\u958b\u767a\u5c40 \u672d\u5e4c\u958b\u767a\u5efa\u8a2d\u90e8 \u6df1\u5ddd\u9053\u8def\u4e8b\u52d9\u6240","boring_xml_url":43,"boring_view_url":1,"soilmap_view_url":null,"soiltest_xml_url":0,"soiltest_view_url":0},{"id":237981,"code":"B4KJ201802000-3461","latitude":"43.703167","longitude":"142.083194","source_code":"HK20132159150019","project_name":"\u4e00\u822c\u56fd\u9053233\u53f7\u6df1\u5ddd\u5e02\u5e83\u91cc\u5730\u8cea\u8abf\u67fb\u5916\u4e00\u9023\u696d\u52d9","survey_name":"\u4e00\u822c\u56fd\u9053233\u53f7\u6df1\u5ddd\u5e02\u5e83\u91cc\u5730\u8cea\u8abf\u67fb\u5916\u4e00\u9023\u696d\u52d9","client_name":"\u5317\u6d77\u9053\u958b\u767a\u5c40 \u672d\u5e4c\u958b\u767a\u5efa\u8a2d\u90e8 \u6df1\u5ddd\u9053\u8def\u4e8b\u52d9\u6240","boring_xml_url":43,"boring_view_url":1,"soilmap_view_url":null,"soiltest_xml_url":0,"soiltest_view_url":0},{"id":237980,"code":"B4KJ201802000-3460","latitude":"43.703167","longitude":"142.082611","source_code":"HK20132159150018","project_name":"\u4e00\u822c\u56fd\u9053233\u53f7\u6df1\u5ddd\u5e02\u5e83\u91cc\u5730\u8cea\u8abf\u67fb\u5916\u4e00\u9023\u696d\u52d9","survey_name":"\u4e00\u822c\u56fd\u9053233\u53f7\u6df1\u5ddd\u5e02\u5e83\u91cc\u5730\u8cea\u8abf\u67fb\u5916\u4e00\u9023\u696d\u52d9","client_name":"\u5317\u6d77\u9053\u958b\u767a\u5c40 \u672d\u5e4c\u958b\u767a\u5efa\u8a2d\u90e8 \u6df1\u5ddd\u9053\u8def\u4e8b\u52d9\u6240","boring_xml_url":43,"boring_view_url":1,"soilmap_view_url":null,"soiltest_xml_url":0,"soiltest_view_url":0},{"id":237979,"code":"B4KJ201802000-3459","latitude":"43.703222","longitude":"142.082","source_code":"HK20132159150017","project_name":"\u4e00\u822c\u56fd\u9053233\u53f7\u6df1\u5ddd\u5e02\u5e83\u91cc\u5730\u8cea\u8abf\u67fb\u5916\u4e00\u9023\u696d\u52d9","survey_name":"\u4e00\u822c\u56fd\u9053233\u53f7\u6df1\u5ddd\u5e02\u5e83\u91cc\u5730\u8cea\u8abf\u67fb\u5916\u4e00\u9023\u696d\u52d9","client_name":"\u5317\u6d77\u9053\u958b\u767a\u5c40 \u672d\u5e4c\u958b\u767a\u5efa\u8a2d\u90e8 \u6df1\u5ddd\u9053\u8def\u4e8b\u52d9\u6240","boring_xml_url":43,"boring_view_url":1,"soilmap_view_url":null,"soiltest_xml_url":0,"soiltest_view_url":0},{"id":237978,"code":"B4KJ201802000-3458","latitude":"43.703278","longitude":"142.081389","source_code":"HK20132159150016","project_name":"\u4e00\u822c\u56fd\u9053233\u53f7\u6df1\u5ddd\u5e02\u5e83\u91cc\u5730\u8cea\u8abf\u67fb\u5916\u4e00\u9023\u696d\u52d9","survey_name":"\u4e00\u822c\u56fd\u9053233\u53f7\u6df1\u5ddd\u5e02\u5e83\u91cc\u5730\u8cea\u8abf\u67fb\u5916\u4e00\u9023\u696d\u52d9","client_name":"\u5317\u6d77\u9053\u958b\u767a\u5c40 \u672d\u5e4c\u958b\u767a\u5efa\u8a2d\u90e8 \u6df1\u5ddd\u9053\u8def\u4e8b\u52d9\u6240","boring_xml_url":43,"boring_view_url":1,"soilmap_view_url":null,"soiltest_xml_url":0,"soiltest_view_url":0},{"id":237977,"code":"B4KJ201802000-3457","latitude":"43.703333","longitude":"142.08075","source_code":"HK20132159150015","project_name":"\u4e00\u822c\u56fd\u9053233\u53f7\u6df1\u5ddd\u5e02\u5e83\u91cc\u5730\u8cea\u8abf\u67fb\u5916\u4e00\u9023\u696d\u52d9","survey_name":"\u4e00\u822c\u56fd\u9053233\u53f7\u6df1\u5ddd\u5e02\u5e83\u91cc\u5730\u8cea\u8abf\u67fb\u5916\u4e00\u9023\u696d\u52d9","client_name":"\u5317\u6d77\u9053\u958b\u767a\u5c40 \u672d\u5e4c\u958b\u767a\u5efa\u8a2d\u90e8 \u6df1\u5ddd\u9053\u8def\u4e8b\u52d9\u6240","boring_xml_url":43,"boring_view_url":1,"soilmap_view_url":null,"soiltest_xml_url":0,"soiltest_view_url":0},{"id":237976,"code":"B4KJ201802000-3456","latitude":"43.703361","longitude":"142.080139","source_code":"HK20132159150014","project_name":"\u4e00\u822c\u56fd\u9053233\u53f7\u6df1\u5ddd\u5e02\u5e83\u91cc\u5730\u8cea\u8abf\u67fb\u5916\u4e00\u9023\u696d\u52d9","survey_name":"\u4e00\u822c\u56fd\u9053233\u53f7\u6df1\u5ddd\u5e02\u5e83\u91cc\u5730\u8cea\u8abf\u67fb\u5916\u4e00\u9023\u696d\u52d9","client_name":"\u5317\u6d77\u9053\u958b\u767a\u5c40 \u672d\u5e4c\u958b\u767a\u5efa\u8a2d\u90e8 \u6df1\u5ddd\u9053\u8def\u4e8b\u52d9\u6240","boring_xml_url":43,"boring_view_url":1,"soilmap_view_url":null,"soiltest_xml_url":0,"soiltest_view_url":0},{"id":237975,"code":"B4KJ201802000-3455","latitude":"43.771167","longitude":"141.888194","source_code":"HK20132159150008","project_name":"\u4e00\u822c\u56fd\u9053233\u53f7\u6df1\u5ddd\u5e02\u5e83\u91cc\u5730\u8cea\u8abf\u67fb\u5916\u4e00\u9023\u696d\u52d9","survey_name":"\u4e00\u822c\u56fd\u9053233\u53f7\u6df1\u5ddd\u5e02\u5e83\u91cc\u5730\u8cea\u8abf\u67fb\u5916\u4e00\u9023\u696d\u52d9","client_name":"\u5317\u6d77\u9053\u958b\u767a\u5c40 \u672d\u5e4c\u958b\u767a\u5efa\u8a2d\u90e8 \u6df1\u5ddd\u9053\u8def\u4e8b\u52d9\u6240","boring_xml_url":43,"boring_view_url":1,"soilmap_view_url":null,"soiltest_xml_url":0,"soiltest_view_url":0},{"id":237974,"code":"B4KJ201802000-3454","latitude":"43.711306","longitude":"142.048806","source_code":"HK20082130230002","project_name":"\u4e00\u822c\u56fd\u9053233\u53f7 \u6df1\u5ddd\u5e02 \u6df1\u5ddd\u5e02\u8857\u6b69\u9053\u62e1\u5e45\u8a2d\u8a08\u696d\u52d9","survey_name":"\u4e00\u822c\u56fd\u9053233\u53f7 \u6df1\u5ddd\u5e02 \u6df1\u5ddd\u5e02\u8857\u6b69\u9053\u62e1\u5e45\u8a2d\u8a08\u696d\u52d9","client_name":"\u5317\u6d77\u9053\u958b\u767a\u5c40 \u672d\u5e4c\u958b\u767a\u5efa\u8a2d\u90e8 \u6df1\u5ddd\u9053\u8def\u4e8b\u52d9\u6240","boring_xml_url":43,"boring_view_url":1,"soilmap_view_url":null,"soiltest_xml_url":0,"soiltest_view_url":0},{"id":237973,"code":"B4KJ201802000-3453","latitude":"43.711167","longitude":"142.048556","source_code":"HK20082130230001","project_name":"\u4e00\u822c\u56fd\u9053233\u53f7 \u6df1\u5ddd\u5e02 \u6df1\u5ddd\u5e02\u8857\u6b69\u9053\u62e1\u5e45\u8a2d\u8a08\u696d\u52d9","survey_name":"\u4e00\u822c\u56fd\u9053233\u53f7 \u6df1\u5ddd\u5e02 \u6df1\u5ddd\u5e02\u8857\u6b69\u9053\u62e1\u5e45\u8a2d\u8a08\u696d\u52d9","client_name":"\u5317\u6d77\u9053\u958b\u767a\u5c40 \u672d\u5e4c\u958b\u767a\u5efa\u8a2d\u90e8 \u6df1\u5ddd\u9053\u8def\u4e8b\u52d9\u6240","boring_xml_url":43,"boring_view_url":1,"soilmap_view_url":null,"soiltest_xml_url":0,"soiltest_view_url":0},{"id":237972,"code":"B4KJ201802000-3452","latitude":"43.831083","longitude":"142.093167","source_code":"HK20132159150013","project_name":"\u4e00\u822c\u56fd\u9053233\u53f7 \u6df1\u5ddd\u5e02 \u5e83\u91cc\u5730\u8cea\u8abf\u67fb\u5916\u4e00\u9023\u696d\u52d9","survey_name":"\u4e00\u822c\u56fd\u9053233\u53f7 \u6df1\u5ddd\u5e02 \u5e83\u91cc\u5730\u8cea\u8abf\u67fb\u5916\u4e00\u9023\u696d\u52d9","client_name":"\u5317\u6d77\u9053\u958b\u767a\u5c40 \u672d\u5e4c\u958b\u767a\u5efa\u8a2d\u90e8 \u6df1\u5ddd\u9053\u8def\u4e8b\u52d9\u6240","boring_xml_url":43,"boring_view_url":1,"soilmap_view_url":null,"soiltest_xml_url":0,"soiltest_view_url":0},{"id":237971,"code":"B4KJ201802000-3451","latitude":"43.834611","longitude":"142.077583","source_code":"HK20132159150012","project_name":"\u4e00\u822c\u56fd\u9053233\u53f7 \u6df1\u5ddd\u5e02 \u5e83\u91cc\u5730\u8cea\u8abf\u67fb\u5916\u4e00\u9023\u696d\u52d9","survey_name":"\u4e00\u822c\u56fd\u9053233\u53f7 \u6df1\u5ddd\u5e02 \u5e83\u91cc\u5730\u8cea\u8abf\u67fb\u5916\u4e00\u9023\u696d\u52d9","client_name":"\u5317\u6d77\u9053\u958b\u767a\u5c40 \u672d\u5e4c\u958b\u767a\u5efa\u8a2d\u90e8 \u6df1\u5ddd\u9053\u8def\u4e8b\u52d9\u6240","boring_xml_url":43,"boring_view_url":1,"soilmap_view_url":null,"soiltest_xml_url":0,"soiltest_view_url":0},{"id":237970,"code":"B4KJ201802000-3450","latitude":"43.835778","longitude":"142.073417","source_code":"HK20132159150011","project_name":"\u4e00\u822c\u56fd\u9053233\u53f7 \u6df1\u5ddd\u5e02 \u5e83\u91cc\u5730\u8cea\u8abf\u67fb\u5916\u4e00\u9023\u696d\u52d9","survey_name":"\u4e00\u822c\u56fd\u9053233\u53f7 \u6df1\u5ddd\u5e02 \u5e83\u91cc\u5730\u8cea\u8abf\u67fb\u5916\u4e00\u9023\u696d\u52d9","client_name":"\u5317\u6d77\u9053\u958b\u767a\u5c40 \u672d\u5e4c\u958b\u767a\u5efa\u8a2d\u90e8 \u6df1\u5ddd\u9053\u8def\u4e8b\u52d9\u6240","boring_xml_url":43,"boring_view_url":1,"soilmap_view_url":null,"soiltest_xml_url":0,"soiltest_view_url":0}]}}