{"header":{"xyz":{"source":[],"mosaic":false},"page":3097,"raw":{"soiltest_result":"0","bbox":"57.598333,109.544722,1.933333,163.806111","page":"3097"},"conditions":{"soiltest_result":0,"north":57.598333,"west":109.544722,"south":1.933333,"east":163.806111},"success":true,"message":""},"data":{"meta":{"total":212844,"page":3097,"pages":7095,"count":30},"values":[{"id":237639,"code":"B4KJ201802000-3119","latitude":"43.217861","longitude":"141.660639","source_code":"HK20122111060001","project_name":"","survey_name":"\u77f3\u72e9\u5ddd\u5de6\u5cb8\u4e0b\u6d41\u6cb3\u9053\u6398\u524a\u5916\u5730\u8cea\u8abf\u67fb\u696d\u52d9","client_name":"\u5317\u6d77\u9053\u958b\u767a\u5c40 \u672d\u5e4c\u958b\u767a\u5efa\u8a2d\u90e8 \u5ca9\u898b\u6ca2\u6cb3\u5ddd\u4e8b\u52d9\u6240","boring_xml_url":43,"boring_view_url":1,"soilmap_view_url":null,"soiltest_xml_url":43,"soiltest_view_url":42},{"id":237638,"code":"B4KJ201802000-3118","latitude":"43.31025","longitude":"141.782889","source_code":"HK20122111050045","project_name":"","survey_name":"\u77f3\u72e9\u5ddd\u53f3\u5cb8\u4e0b\u6d41\u6cb3\u9053\u6398\u524a\u5916\u5730\u8cea\u8abf\u67fb\u696d\u52d9","client_name":"\u5317\u6d77\u9053\u958b\u767a\u5c40\u672d\u5e4c\u958b\u767a\u5efa\u8a2d\u90e8\u5ca9\u898b\u6ca2\u6cb3\u5ddd\u4e8b\u52d9\u6240","boring_xml_url":43,"boring_view_url":1,"soilmap_view_url":null,"soiltest_xml_url":43,"soiltest_view_url":42},{"id":237637,"code":"B4KJ201802000-3117","latitude":"43.334722","longitude":"141.673528","source_code":"HK20132111240009","project_name":"\u9808\u90e8\u90fd\u5ddd\u9577\u8c37\u5ddd\u6a0b\u9580\u5916\u5730\u8cea\u8abf\u67fb\u696d\u52d9","survey_name":"\u9808\u90e8\u90fd\u5ddd\u9577\u8c37\u5ddd\u6a0b\u9580\u5916\u5730\u8cea\u8abf\u67fb\u696d\u52d9","client_name":"\u5317\u6d77\u9053\u958b\u767a\u5c40 \u672d\u5e4c\u958b\u767a\u5efa\u8a2d\u90e8 \u5ca9\u898b\u6ca2\u6cb3\u5ddd\u4e8b\u52d9\u6240","boring_xml_url":43,"boring_view_url":1,"soilmap_view_url":null,"soiltest_xml_url":43,"soiltest_view_url":42},{"id":237636,"code":"B4KJ201802000-3116","latitude":"43.293694","longitude":"141.765194","source_code":"HK20132111240008","project_name":"\u9808\u90e8\u90fd\u5ddd\u9577\u8c37\u5ddd\u6a0b\u9580\u5916\u5730\u8cea\u8abf\u67fb\u696d\u52d9","survey_name":"\u9808\u90e8\u90fd\u5ddd\u9577\u8c37\u5ddd\u6a0b\u9580\u5916\u5730\u8cea\u8abf\u67fb\u696d\u52d9","client_name":"\u5317\u6d77\u9053\u958b\u767a\u5c40 \u672d\u5e4c\u958b\u767a\u5efa\u8a2d\u90e8 \u5ca9\u898b\u6ca2\u6cb3\u5ddd\u4e8b\u52d9\u6240","boring_xml_url":43,"boring_view_url":1,"soilmap_view_url":null,"soiltest_xml_url":43,"soiltest_view_url":42},{"id":237635,"code":"B4KJ201802000-3115","latitude":"43.295722","longitude":"141.757444","source_code":"HK20132111240007","project_name":"\u9808\u90e8\u90fd\u5ddd\u9577\u8c37\u5ddd\u6a0b\u9580\u5916\u5730\u8cea\u8abf\u67fb\u696d\u52d9","survey_name":"\u9808\u90e8\u90fd\u5ddd\u9577\u8c37\u5ddd\u6a0b\u9580\u5916\u5730\u8cea\u8abf\u67fb\u696d\u52d9","client_name":"\u5317\u6d77\u9053\u958b\u767a\u5c40 \u672d\u5e4c\u958b\u767a\u5efa\u8a2d\u90e8 \u5ca9\u898b\u6ca2\u6cb3\u5ddd\u4e8b\u52d9\u6240","boring_xml_url":43,"boring_view_url":1,"soilmap_view_url":null,"soiltest_xml_url":43,"soiltest_view_url":42},{"id":237634,"code":"B4KJ201802000-3114","latitude":"43.315667","longitude":"141.799472","source_code":"HK20132111240006","project_name":"\u9808\u90e8\u90fd\u5ddd\u9577\u8c37\u5ddd\u6a0b\u9580\u5916\u5730\u8cea\u8abf\u67fb\u696d\u52d9","survey_name":"\u9808\u90e8\u90fd\u5ddd\u9577\u8c37\u5ddd\u6a0b\u9580\u5916\u5730\u8cea\u8abf\u67fb\u696d\u52d9","client_name":"\u5317\u6d77\u9053\u958b\u767a\u5c40 \u672d\u5e4c\u958b\u767a\u5efa\u8a2d\u90e8 \u5ca9\u898b\u6ca2\u6cb3\u5ddd\u4e8b\u52d9\u6240","boring_xml_url":43,"boring_view_url":1,"soilmap_view_url":null,"soiltest_xml_url":43,"soiltest_view_url":42},{"id":237633,"code":"B4KJ201802000-3113","latitude":"43.313417","longitude":"141.792361","source_code":"HK20132111240005","project_name":"\u9808\u90e8\u90fd\u5ddd\u9577\u8c37\u5ddd\u6a0b\u9580\u5916\u5730\u8cea\u8abf\u67fb\u696d\u52d9","survey_name":"\u9808\u90e8\u90fd\u5ddd\u9577\u8c37\u5ddd\u6a0b\u9580\u5916\u5730\u8cea\u8abf\u67fb\u696d\u52d9","client_name":"\u5317\u6d77\u9053\u958b\u767a\u5c40 \u672d\u5e4c\u958b\u767a\u5efa\u8a2d\u90e8 \u5ca9\u898b\u6ca2\u6cb3\u5ddd\u4e8b\u52d9\u6240","boring_xml_url":43,"boring_view_url":1,"soilmap_view_url":null,"soiltest_xml_url":43,"soiltest_view_url":42},{"id":237632,"code":"B4KJ201802000-3112","latitude":"43.304056","longitude":"141.76075","source_code":"HK20132111240004","project_name":"\u9808\u90e8\u90fd\u5ddd\u9577\u8c37\u5ddd\u6a0b\u9580\u5916\u5730\u8cea\u8abf\u67fb\u696d\u52d9","survey_name":"\u9808\u90e8\u90fd\u5ddd\u9577\u8c37\u5ddd\u6a0b\u9580\u5916\u5730\u8cea\u8abf\u67fb\u696d\u52d9","client_name":"\u5317\u6d77\u9053\u958b\u767a\u5c40 \u672d\u5e4c\u958b\u767a\u5efa\u8a2d\u90e8 \u5ca9\u898b\u6ca2\u6cb3\u5ddd\u4e8b\u52d9\u6240","boring_xml_url":43,"boring_view_url":1,"soilmap_view_url":null,"soiltest_xml_url":43,"soiltest_view_url":42},{"id":237631,"code":"B4KJ201802000-3111","latitude":"43.336694","longitude":"141.674556","source_code":"HK20132111240003","project_name":"\u9808\u90e8\u90fd\u5ddd\u9577\u8c37\u5ddd\u6a0b\u9580\u5916\u5730\u8cea\u8abf\u67fb\u696d\u52d9","survey_name":"\u9808\u90e8\u90fd\u5ddd\u9577\u8c37\u5ddd\u6a0b\u9580\u5916\u5730\u8cea\u8abf\u67fb\u696d\u52d9","client_name":"\u5317\u6d77\u9053\u958b\u767a\u5c40 \u672d\u5e4c\u958b\u767a\u5efa\u8a2d\u90e8 \u5ca9\u898b\u6ca2\u6cb3\u5ddd\u4e8b\u52d9\u6240","boring_xml_url":43,"boring_view_url":1,"soilmap_view_url":null,"soiltest_xml_url":43,"soiltest_view_url":42},{"id":237630,"code":"B4KJ201802000-3110","latitude":"43.335361","longitude":"141.671333","source_code":"HK20132111240002","project_name":"\u9808\u90e8\u90fd\u5ddd\u9577\u8c37\u5ddd\u6a0b\u9580\u5916\u5730\u8cea\u8abf\u67fb\u696d\u52d9","survey_name":"\u9808\u90e8\u90fd\u5ddd\u9577\u8c37\u5ddd\u6a0b\u9580\u5916\u5730\u8cea\u8abf\u67fb\u696d\u52d9","client_name":"\u5317\u6d77\u9053\u958b\u767a\u5c40 \u672d\u5e4c\u958b\u767a\u5efa\u8a2d\u90e8 \u5ca9\u898b\u6ca2\u6cb3\u5ddd\u4e8b\u52d9\u6240","boring_xml_url":43,"boring_view_url":1,"soilmap_view_url":null,"soiltest_xml_url":43,"soiltest_view_url":42},{"id":237629,"code":"B4KJ201802000-3109","latitude":"43.335028","longitude":"141.673694","source_code":"HK20132111240001","project_name":"\u9808\u90e8\u90fd\u5ddd\u9577\u8c37\u5ddd\u6a0b\u9580\u5916\u5730\u8cea\u8abf\u67fb\u696d\u52d9","survey_name":"\u9808\u90e8\u90fd\u5ddd\u9577\u8c37\u5ddd\u6a0b\u9580\u5916\u5730\u8cea\u8abf\u67fb\u696d\u52d9","client_name":"\u5317\u6d77\u9053\u958b\u767a\u5c40 \u672d\u5e4c\u958b\u767a\u5efa\u8a2d\u90e8 \u5ca9\u898b\u6ca2\u6cb3\u5ddd\u4e8b\u52d9\u6240","boring_xml_url":43,"boring_view_url":1,"soilmap_view_url":null,"soiltest_xml_url":43,"soiltest_view_url":42},{"id":237628,"code":"B4KJ201802000-3108","latitude":"43.348361","longitude":"141.794639","source_code":"HK20122111260008","project_name":"\u7523\u5316\u7f8e\u5504\u5ddd\u5916\u5730\u8cea\u8abf\u67fb\u696d\u52d9","survey_name":"\u7523\u5316\u7f8e\u5504\u5ddd\u5916\u5730\u8cea\u8abf\u67fb\u696d\u52d9","client_name":"\u5317\u6d77\u9053\u958b\u767a\u5c40 \u672d\u5e4c\u958b\u767a\u5efa\u8a2d\u90e8 \u5ca9\u898b\u6ca2\u6cb3\u5ddd\u4e8b\u52d9\u6240","boring_xml_url":43,"boring_view_url":1,"soilmap_view_url":null,"soiltest_xml_url":43,"soiltest_view_url":42},{"id":237627,"code":"B4KJ201802000-3107","latitude":"43.369306","longitude":"141.840639","source_code":"HK20122111260007","project_name":"\u7523\u5316\u7f8e\u5504\u5ddd\u5916\u5730\u8cea\u8abf\u67fb\u696d\u52d9","survey_name":"\u7523\u5316\u7f8e\u5504\u5ddd\u5916\u5730\u8cea\u8abf\u67fb\u696d\u52d9","client_name":"\u5317\u6d77\u9053\u958b\u767a\u5c40 \u672d\u5e4c\u958b\u767a\u5efa\u8a2d\u90e8 \u5ca9\u898b\u6ca2\u6cb3\u5ddd\u4e8b\u52d9\u6240","boring_xml_url":43,"boring_view_url":1,"soilmap_view_url":null,"soiltest_xml_url":43,"soiltest_view_url":42},{"id":237626,"code":"B4KJ201802000-3106","latitude":"43.369917","longitude":"141.840472","source_code":"HK20122111260006","project_name":"\u7523\u5316\u7f8e\u5504\u5ddd\u5916\u5730\u8cea\u8abf\u67fb\u696d\u52d9","survey_name":"\u7523\u5316\u7f8e\u5504\u5ddd\u5916\u5730\u8cea\u8abf\u67fb\u696d\u52d9","client_name":"\u5317\u6d77\u9053\u958b\u767a\u5c40 \u672d\u5e4c\u958b\u767a\u5efa\u8a2d\u90e8 \u5ca9\u898b\u6ca2\u6cb3\u5ddd\u4e8b\u52d9\u6240","boring_xml_url":43,"boring_view_url":1,"soilmap_view_url":null,"soiltest_xml_url":43,"soiltest_view_url":42},{"id":237625,"code":"B4KJ201802000-3105","latitude":"43.371222","longitude":"141.832083","source_code":"HK20122111260005","project_name":"\u7523\u5316\u7f8e\u5504\u5ddd\u5916\u5730\u8cea\u8abf\u67fb\u696d\u52d9","survey_name":"\u7523\u5316\u7f8e\u5504\u5ddd\u5916\u5730\u8cea\u8abf\u67fb\u696d\u52d9","client_name":"\u5317\u6d77\u9053\u958b\u767a\u5c40 \u672d\u5e4c\u958b\u767a\u5efa\u8a2d\u90e8 \u5ca9\u898b\u6ca2\u6cb3\u5ddd\u4e8b\u52d9\u6240","boring_xml_url":43,"boring_view_url":1,"soilmap_view_url":null,"soiltest_xml_url":43,"soiltest_view_url":42},{"id":237624,"code":"B4KJ201802000-3104","latitude":"43.371694","longitude":"141.831056","source_code":"HK20122111260004","project_name":"\u7523\u5316\u7f8e\u5504\u5ddd\u5916\u5730\u8cea\u8abf\u67fb\u696d\u52d9","survey_name":"\u7523\u5316\u7f8e\u5504\u5ddd\u5916\u5730\u8cea\u8abf\u67fb\u696d\u52d9","client_name":"\u5317\u6d77\u9053\u958b\u767a\u5c40 \u672d\u5e4c\u958b\u767a\u5efa\u8a2d\u90e8 \u5ca9\u898b\u6ca2\u6cb3\u5ddd\u4e8b\u52d9\u6240","boring_xml_url":43,"boring_view_url":1,"soilmap_view_url":null,"soiltest_xml_url":43,"soiltest_view_url":42},{"id":237623,"code":"B4KJ201802000-3103","latitude":"43.371972","longitude":"141.829889","source_code":"HK20122111260003","project_name":"\u7523\u5316\u7f8e\u5504\u5ddd\u5916\u5730\u8cea\u8abf\u67fb\u696d\u52d9","survey_name":"\u7523\u5316\u7f8e\u5504\u5ddd\u5916\u5730\u8cea\u8abf\u67fb\u696d\u52d9","client_name":"\u5317\u6d77\u9053\u958b\u767a\u5c40 \u672d\u5e4c\u958b\u767a\u5efa\u8a2d\u90e8 \u5ca9\u898b\u6ca2\u6cb3\u5ddd\u4e8b\u52d9\u6240","boring_xml_url":43,"boring_view_url":1,"soilmap_view_url":null,"soiltest_xml_url":43,"soiltest_view_url":42},{"id":237622,"code":"B4KJ201802000-3102","latitude":"43.37225","longitude":"141.828722","source_code":"HK20122111260002","project_name":"\u7523\u5316\u7f8e\u5504\u5ddd\u5916\u5730\u8cea\u8abf\u67fb\u696d\u52d9","survey_name":"\u7523\u5316\u7f8e\u5504\u5ddd\u5916\u5730\u8cea\u8abf\u67fb\u696d\u52d9","client_name":"\u5317\u6d77\u9053\u958b\u767a\u5c40 \u672d\u5e4c\u958b\u767a\u5efa\u8a2d\u90e8 \u5ca9\u898b\u6ca2\u6cb3\u5ddd\u4e8b\u52d9\u6240","boring_xml_url":43,"boring_view_url":1,"soilmap_view_url":null,"soiltest_xml_url":43,"soiltest_view_url":42},{"id":237621,"code":"B4KJ201802000-3101","latitude":"43.372528","longitude":"141.827556","source_code":"HK20122111260001","project_name":"\u7523\u5316\u7f8e\u5504\u5ddd\u5916\u5730\u8cea\u8abf\u67fb\u696d\u52d9","survey_name":"\u7523\u5316\u7f8e\u5504\u5ddd\u5916\u5730\u8cea\u8abf\u67fb\u696d\u52d9","client_name":"\u5317\u6d77\u9053\u958b\u767a\u5c40 \u672d\u5e4c\u958b\u767a\u5efa\u8a2d\u90e8 \u5ca9\u898b\u6ca2\u6cb3\u5ddd\u4e8b\u52d9\u6240","boring_xml_url":43,"boring_view_url":1,"soilmap_view_url":null,"soiltest_xml_url":43,"soiltest_view_url":42},{"id":237620,"code":"B4KJ201802000-3100","latitude":"43.289806","longitude":"141.715306","source_code":"HK20132111170013","project_name":"\u65e7\u7f8e\u5504\u5ddd\u5409\u5ca1\u6a0b\u9580\u5916\u5730\u8cea\u8abf\u67fb\u696d\u52d9","survey_name":"\u65e7\u7f8e\u5504\u5ddd\u5409\u5ca1\u6a0b\u9580\u5916\u5730\u8cea\u8abf\u67fb\u696d\u52d9","client_name":"\u5317\u6d77\u9053\u958b\u767a\u5c40 \u672d\u5e4c\u958b\u767a\u5efa\u8a2d\u90e8 \u5ca9\u898b\u6ca2\u6cb3\u5ddd\u4e8b\u52d9\u6240","boring_xml_url":43,"boring_view_url":1,"soilmap_view_url":null,"soiltest_xml_url":43,"soiltest_view_url":42},{"id":237619,"code":"B4KJ201802000-3099","latitude":"43.289972","longitude":"141.718","source_code":"HK20132111170012","project_name":"\u65e7\u7f8e\u5504\u5ddd\u5409\u5ca1\u6a0b\u9580\u5916\u5730\u8cea\u8abf\u67fb\u696d\u52d9","survey_name":"\u65e7\u7f8e\u5504\u5ddd\u5409\u5ca1\u6a0b\u9580\u5916\u5730\u8cea\u8abf\u67fb\u696d\u52d9","client_name":"\u5317\u6d77\u9053\u958b\u767a\u5c40 \u672d\u5e4c\u958b\u767a\u5efa\u8a2d\u90e8 \u5ca9\u898b\u6ca2\u6cb3\u5ddd\u4e8b\u52d9\u6240","boring_xml_url":43,"boring_view_url":1,"soilmap_view_url":null,"soiltest_xml_url":43,"soiltest_view_url":42},{"id":237618,"code":"B4KJ201802000-3098","latitude":"43.284111","longitude":"141.711528","source_code":"HK20132111170011","project_name":"\u65e7\u7f8e\u5504\u5ddd\u5409\u5ca1\u6a0b\u9580\u5916\u5730\u8cea\u8abf\u67fb\u696d\u52d9","survey_name":"\u65e7\u7f8e\u5504\u5ddd\u5409\u5ca1\u6a0b\u9580\u5916\u5730\u8cea\u8abf\u67fb\u696d\u52d9","client_name":"\u5317\u6d77\u9053\u958b\u767a\u5c40 \u672d\u5e4c\u958b\u767a\u5efa\u8a2d\u90e8 \u5ca9\u898b\u6ca2\u6cb3\u5ddd\u4e8b\u52d9\u6240","boring_xml_url":43,"boring_view_url":1,"soilmap_view_url":null,"soiltest_xml_url":43,"soiltest_view_url":42},{"id":237617,"code":"B4KJ201802000-3097","latitude":"43.276778","longitude":"141.698389","source_code":"HK20132111170010","project_name":"\u65e7\u7f8e\u5504\u5ddd\u5409\u5ca1\u6a0b\u9580\u5916\u5730\u8cea\u8abf\u67fb\u696d\u52d9","survey_name":"\u65e7\u7f8e\u5504\u5ddd\u5409\u5ca1\u6a0b\u9580\u5916\u5730\u8cea\u8abf\u67fb\u696d\u52d9","client_name":"\u5317\u6d77\u9053\u958b\u767a\u5c40 \u672d\u5e4c\u958b\u767a\u5efa\u8a2d\u90e8 \u5ca9\u898b\u6ca2\u6cb3\u5ddd\u4e8b\u52d9\u6240","boring_xml_url":43,"boring_view_url":1,"soilmap_view_url":null,"soiltest_xml_url":43,"soiltest_view_url":42},{"id":237616,"code":"B4KJ201802000-3096","latitude":"43.269528","longitude":"141.692833","source_code":"HK20132111170009","project_name":"\u65e7\u7f8e\u5504\u5ddd\u5409\u5ca1\u6a0b\u9580\u5916\u5730\u8cea\u8abf\u67fb\u696d\u52d9","survey_name":"\u65e7\u7f8e\u5504\u5ddd\u5409\u5ca1\u6a0b\u9580\u5916\u5730\u8cea\u8abf\u67fb\u696d\u52d9","client_name":"\u5317\u6d77\u9053\u958b\u767a\u5c40 \u672d\u5e4c\u958b\u767a\u5efa\u8a2d\u90e8 \u5ca9\u898b\u6ca2\u6cb3\u5ddd\u4e8b\u52d9\u6240","boring_xml_url":43,"boring_view_url":1,"soilmap_view_url":null,"soiltest_xml_url":43,"soiltest_view_url":42},{"id":237615,"code":"B4KJ201802000-3095","latitude":"43.265944","longitude":"141.688778","source_code":"HK20132111170008","project_name":"\u65e7\u7f8e\u5504\u5ddd\u5409\u5ca1\u6a0b\u9580\u5916\u5730\u8cea\u8abf\u67fb\u696d\u52d9","survey_name":"\u65e7\u7f8e\u5504\u5ddd\u5409\u5ca1\u6a0b\u9580\u5916\u5730\u8cea\u8abf\u67fb\u696d\u52d9","client_name":"\u5317\u6d77\u9053\u958b\u767a\u5c40 \u672d\u5e4c\u958b\u767a\u5efa\u8a2d\u90e8 \u5ca9\u898b\u6ca2\u6cb3\u5ddd\u4e8b\u52d9\u6240","boring_xml_url":43,"boring_view_url":1,"soilmap_view_url":null,"soiltest_xml_url":43,"soiltest_view_url":42},{"id":237614,"code":"B4KJ201802000-3094","latitude":"43.289611","longitude":"141.715472","source_code":"HK20132111170007","project_name":"\u65e7\u7f8e\u5504\u5ddd\u5409\u5ca1\u6a0b\u9580\u5916\u5730\u8cea\u8abf\u67fb\u696d\u52d9","survey_name":"\u65e7\u7f8e\u5504\u5ddd\u5409\u5ca1\u6a0b\u9580\u5916\u5730\u8cea\u8abf\u67fb\u696d\u52d9","client_name":"\u5317\u6d77\u9053\u958b\u767a\u5c40 \u672d\u5e4c\u958b\u767a\u5efa\u8a2d\u90e8 \u5ca9\u898b\u6ca2\u6cb3\u5ddd\u4e8b\u52d9\u6240","boring_xml_url":43,"boring_view_url":1,"soilmap_view_url":null,"soiltest_xml_url":43,"soiltest_view_url":42},{"id":237613,"code":"B4KJ201802000-3093","latitude":"43.290083","longitude":"141.717833","source_code":"HK20132111170006","project_name":"\u65e7\u7f8e\u5504\u5ddd\u5409\u5ca1\u6a0b\u9580\u5916\u5730\u8cea\u8abf\u67fb\u696d\u52d9","survey_name":"\u65e7\u7f8e\u5504\u5ddd\u5409\u5ca1\u6a0b\u9580\u5916\u5730\u8cea\u8abf\u67fb\u696d\u52d9","client_name":"\u5317\u6d77\u9053\u958b\u767a\u5c40 \u672d\u5e4c\u958b\u767a\u5efa\u8a2d\u90e8 \u5ca9\u898b\u6ca2\u6cb3\u5ddd\u4e8b\u52d9\u6240","boring_xml_url":43,"boring_view_url":1,"soilmap_view_url":null,"soiltest_xml_url":43,"soiltest_view_url":42},{"id":237612,"code":"B4KJ201802000-3092","latitude":"43.284222","longitude":"141.711389","source_code":"HK20132111170005","project_name":"\u65e7\u7f8e\u5504\u5ddd\u5409\u5ca1\u6a0b\u9580\u5916\u5730\u8cea\u8abf\u67fb\u696d\u52d9","survey_name":"\u65e7\u7f8e\u5504\u5ddd\u5409\u5ca1\u6a0b\u9580\u5916\u5730\u8cea\u8abf\u67fb\u696d\u52d9","client_name":"\u5317\u6d77\u9053\u958b\u767a\u5c40 \u672d\u5e4c\u958b\u767a\u5efa\u8a2d\u90e8 \u5ca9\u898b\u6ca2\u6cb3\u5ddd\u4e8b\u52d9\u6240","boring_xml_url":43,"boring_view_url":1,"soilmap_view_url":null,"soiltest_xml_url":43,"soiltest_view_url":42},{"id":237611,"code":"B4KJ201802000-3091","latitude":"43.276917","longitude":"141.698222","source_code":"HK20132111170004","project_name":"\u65e7\u7f8e\u5504\u5ddd\u5409\u5ca1\u6a0b\u9580\u5916\u5730\u8cea\u8abf\u67fb\u696d\u52d9","survey_name":"\u65e7\u7f8e\u5504\u5ddd\u5409\u5ca1\u6a0b\u9580\u5916\u5730\u8cea\u8abf\u67fb\u696d\u52d9","client_name":"\u5317\u6d77\u9053\u958b\u767a\u5c40 \u672d\u5e4c\u958b\u767a\u5efa\u8a2d\u90e8 \u5ca9\u898b\u6ca2\u6cb3\u5ddd\u4e8b\u52d9\u6240","boring_xml_url":43,"boring_view_url":1,"soilmap_view_url":null,"soiltest_xml_url":43,"soiltest_view_url":42},{"id":237610,"code":"B4KJ201802000-3090","latitude":"43.269667","longitude":"141.692694","source_code":"HK20132111170003","project_name":"\u65e7\u7f8e\u5504\u5ddd\u5409\u5ca1\u6a0b\u9580\u5916\u5730\u8cea\u8abf\u67fb\u696d\u52d9","survey_name":"\u65e7\u7f8e\u5504\u5ddd\u5409\u5ca1\u6a0b\u9580\u5916\u5730\u8cea\u8abf\u67fb\u696d\u52d9","client_name":"\u5317\u6d77\u9053\u958b\u767a\u5c40 \u672d\u5e4c\u958b\u767a\u5efa\u8a2d\u90e8 \u5ca9\u898b\u6ca2\u6cb3\u5ddd\u4e8b\u52d9\u6240","boring_xml_url":43,"boring_view_url":1,"soilmap_view_url":null,"soiltest_xml_url":43,"soiltest_view_url":42}]}}