{"header":{"xyz":{"source":[],"mosaic":false},"page":3099,"raw":{"soiltest_result":"0","bbox":"57.598333,109.544722,1.933333,163.806111","page":"3099"},"conditions":{"soiltest_result":0,"north":57.598333,"west":109.544722,"south":1.933333,"east":163.806111},"success":true,"message":""},"data":{"meta":{"total":212844,"page":3099,"pages":7095,"count":30},"values":[{"id":237579,"code":"B4KJ201802000-3059","latitude":"43.254722","longitude":"141.9395","source_code":"HK20112111240010","project_name":"\u5e7e\u6625\u5225\u5ddd\u5916\u5730\u8cea\u8abf\u67fb\u696d\u52d9","survey_name":"\u5e7e\u6625\u5225\u5ddd\u5916\u5730\u8cea\u8abf\u67fb\u696d\u52d9","client_name":"\u5317\u6d77\u9053\u958b\u767a\u5c40 \u672d\u5e4c\u958b\u767a\u5efa\u8a2d\u90e8 \u5ca9\u898b\u6ca2\u6cb3\u5ddd\u4e8b\u52d9\u6240","boring_xml_url":43,"boring_view_url":1,"soilmap_view_url":null,"soiltest_xml_url":0,"soiltest_view_url":0},{"id":237578,"code":"B4KJ201802000-3058","latitude":"43.254722","longitude":"141.9395","source_code":"HK20112111240009","project_name":"\u5e7e\u6625\u5225\u5ddd\u5916\u5730\u8cea\u8abf\u67fb\u696d\u52d9","survey_name":"\u5e7e\u6625\u5225\u5ddd\u5916\u5730\u8cea\u8abf\u67fb\u696d\u52d9","client_name":"\u5317\u6d77\u9053\u958b\u767a\u5c40 \u672d\u5e4c\u958b\u767a\u5efa\u8a2d\u90e8 \u5ca9\u898b\u6ca2\u6cb3\u5ddd\u4e8b\u52d9\u6240","boring_xml_url":43,"boring_view_url":1,"soilmap_view_url":null,"soiltest_xml_url":43,"soiltest_view_url":42},{"id":237577,"code":"B4KJ201802000-3057","latitude":"43.256361","longitude":"141.934306","source_code":"HK20112111240008","project_name":"\u5e7e\u6625\u5225\u5ddd\u5916\u5730\u8cea\u8abf\u67fb\u696d\u52d9","survey_name":"\u5e7e\u6625\u5225\u5ddd\u5916\u5730\u8cea\u8abf\u67fb\u696d\u52d9","client_name":"\u5317\u6d77\u9053\u958b\u767a\u5c40 \u672d\u5e4c\u958b\u767a\u5efa\u8a2d\u90e8 \u5ca9\u898b\u6ca2\u6cb3\u5ddd\u4e8b\u52d9\u6240","boring_xml_url":43,"boring_view_url":1,"soilmap_view_url":null,"soiltest_xml_url":43,"soiltest_view_url":42},{"id":237576,"code":"B4KJ201802000-3056","latitude":"43.257278","longitude":"141.930556","source_code":"HK20112111240007","project_name":"\u5e7e\u6625\u5225\u5ddd\u5916\u5730\u8cea\u8abf\u67fb\u696d\u52d9","survey_name":"\u5e7e\u6625\u5225\u5ddd\u5916\u5730\u8cea\u8abf\u67fb\u696d\u52d9","client_name":"\u5317\u6d77\u9053\u958b\u767a\u5c40 \u672d\u5e4c\u958b\u767a\u5efa\u8a2d\u90e8 \u5ca9\u898b\u6ca2\u6cb3\u5ddd\u4e8b\u52d9\u6240","boring_xml_url":43,"boring_view_url":1,"soilmap_view_url":null,"soiltest_xml_url":0,"soiltest_view_url":0},{"id":237575,"code":"B4KJ201802000-3055","latitude":"43.257278","longitude":"141.930556","source_code":"HK20112111240006","project_name":"\u5e7e\u6625\u5225\u5ddd\u5916\u5730\u8cea\u8abf\u67fb\u696d\u52d9","survey_name":"\u5e7e\u6625\u5225\u5ddd\u5916\u5730\u8cea\u8abf\u67fb\u696d\u52d9","client_name":"\u5317\u6d77\u9053\u958b\u767a\u5c40 \u672d\u5e4c\u958b\u767a\u5efa\u8a2d\u90e8 \u5ca9\u898b\u6ca2\u6cb3\u5ddd\u4e8b\u52d9\u6240","boring_xml_url":43,"boring_view_url":1,"soilmap_view_url":null,"soiltest_xml_url":43,"soiltest_view_url":42},{"id":237574,"code":"B4KJ201802000-3054","latitude":"43.254306","longitude":"141.915167","source_code":"HK20112111240005","project_name":"\u5e7e\u6625\u5225\u5ddd\u5916\u5730\u8cea\u8abf\u67fb\u696d\u52d9","survey_name":"\u5e7e\u6625\u5225\u5ddd\u5916\u5730\u8cea\u8abf\u67fb\u696d\u52d9","client_name":"\u5317\u6d77\u9053\u958b\u767a\u5c40 \u672d\u5e4c\u958b\u767a\u5efa\u8a2d\u90e8 \u5ca9\u898b\u6ca2\u6cb3\u5ddd\u4e8b\u52d9\u6240","boring_xml_url":43,"boring_view_url":1,"soilmap_view_url":null,"soiltest_xml_url":0,"soiltest_view_url":0},{"id":237573,"code":"B4KJ201802000-3053","latitude":"43.254306","longitude":"141.915167","source_code":"HK20112111240004","project_name":"\u5e7e\u6625\u5225\u5ddd\u5916\u5730\u8cea\u8abf\u67fb\u696d\u52d9","survey_name":"\u5e7e\u6625\u5225\u5ddd\u5916\u5730\u8cea\u8abf\u67fb\u696d\u52d9","client_name":"\u5317\u6d77\u9053\u958b\u767a\u5c40 \u672d\u5e4c\u958b\u767a\u5efa\u8a2d\u90e8 \u5ca9\u898b\u6ca2\u6cb3\u5ddd\u4e8b\u52d9\u6240","boring_xml_url":43,"boring_view_url":1,"soilmap_view_url":null,"soiltest_xml_url":43,"soiltest_view_url":42},{"id":237572,"code":"B4KJ201802000-3052","latitude":"43.250139","longitude":"141.908306","source_code":"HK20112111240003","project_name":"\u5e7e\u6625\u5225\u5ddd\u5916\u5730\u8cea\u8abf\u67fb\u696d\u52d9","survey_name":"\u5e7e\u6625\u5225\u5ddd\u5916\u5730\u8cea\u8abf\u67fb\u696d\u52d9","client_name":"\u5317\u6d77\u9053\u958b\u767a\u5c40 \u672d\u5e4c\u958b\u767a\u5efa\u8a2d\u90e8 \u5ca9\u898b\u6ca2\u6cb3\u5ddd\u4e8b\u52d9\u6240","boring_xml_url":43,"boring_view_url":1,"soilmap_view_url":null,"soiltest_xml_url":0,"soiltest_view_url":0},{"id":237571,"code":"B4KJ201802000-3051","latitude":"43.250139","longitude":"141.908306","source_code":"HK20112111240002","project_name":"\u5e7e\u6625\u5225\u5ddd\u5916\u5730\u8cea\u8abf\u67fb\u696d\u52d9","survey_name":"\u5e7e\u6625\u5225\u5ddd\u5916\u5730\u8cea\u8abf\u67fb\u696d\u52d9","client_name":"\u5317\u6d77\u9053\u958b\u767a\u5c40 \u672d\u5e4c\u958b\u767a\u5efa\u8a2d\u90e8 \u5ca9\u898b\u6ca2\u6cb3\u5ddd\u4e8b\u52d9\u6240","boring_xml_url":43,"boring_view_url":1,"soilmap_view_url":null,"soiltest_xml_url":43,"soiltest_view_url":42},{"id":237570,"code":"B4KJ201802000-3050","latitude":"43.245361","longitude":"141.890889","source_code":"HK20112111240001","project_name":"\u5e7e\u6625\u5225\u5ddd\u5916\u5730\u8cea\u8abf\u67fb\u696d\u52d9","survey_name":"\u5e7e\u6625\u5225\u5ddd\u5916\u5730\u8cea\u8abf\u67fb\u696d\u52d9","client_name":"\u5317\u6d77\u9053\u958b\u767a\u5c40 \u672d\u5e4c\u958b\u767a\u5efa\u8a2d\u90e8 \u5ca9\u898b\u6ca2\u6cb3\u5ddd\u4e8b\u52d9\u6240","boring_xml_url":43,"boring_view_url":1,"soilmap_view_url":null,"soiltest_xml_url":43,"soiltest_view_url":42},{"id":237569,"code":"B4KJ201802000-3049","latitude":"43.341417","longitude":"141.694306","source_code":"HK20132111060002","project_name":"\u5ca9\u898b\u6ca2\u6cb3\u5ddd\u4e8b\u52d9\u6240\u7ba1\u5185\u8edf\u5f31\u5730\u76e4\u5bfe\u7b56\u5de5\u691c\u8a0e\u696d\u52d9","survey_name":"\u5ca9\u898b\u6ca2\u6cb3\u5ddd\u4e8b\u52d9\u6240\u7ba1\u5185\u8edf\u5f31\u5730\u76e4\u5bfe\u7b56\u5de5\u691c\u8a0e\u696d\u52d9","client_name":"\u5317\u6d77\u9053\u958b\u767a\u5c40 \u672d\u5e4c\u958b\u767a\u5efa\u8a2d\u90e8 \u5ca9\u898b\u6ca2\u6cb3\u5ddd\u4e8b\u52d9\u6240","boring_xml_url":43,"boring_view_url":1,"soilmap_view_url":null,"soiltest_xml_url":0,"soiltest_view_url":0},{"id":237568,"code":"B4KJ201802000-3048","latitude":"43.341361","longitude":"141.694444","source_code":"HK20132111060001","project_name":"\u5ca9\u898b\u6ca2\u6cb3\u5ddd\u4e8b\u52d9\u6240\u7ba1\u5185\u8edf\u5f31\u5730\u76e4\u5bfe\u7b56\u5de5\u691c\u8a0e\u696d\u52d9","survey_name":"\u5ca9\u898b\u6ca2\u6cb3\u5ddd\u4e8b\u52d9\u6240\u7ba1\u5185\u8edf\u5f31\u5730\u76e4\u5bfe\u7b56\u5de5\u691c\u8a0e\u696d\u52d9","client_name":"\u5317\u6d77\u9053\u958b\u767a\u5c40 \u672d\u5e4c\u958b\u767a\u5efa\u8a2d\u90e8 \u5ca9\u898b\u6ca2\u6cb3\u5ddd\u4e8b\u52d9\u6240","boring_xml_url":43,"boring_view_url":1,"soilmap_view_url":null,"soiltest_xml_url":0,"soiltest_view_url":0},{"id":237567,"code":"B4KJ201802000-3047","latitude":"43.068056","longitude":"142.103778","source_code":"HK20072125190011","project_name":"\u4e00\u822c\u56fd\u9053452\u53f7","survey_name":"\u5915\u5f35\u5e02 \u30b7\u30e5\u30fc\u30d1\u30ed\u30c0\u30e0\u95a2\u9023\u5730\u8cea\u8abf\u67fb\u696d\u52d9","client_name":"\u5317\u6d77\u9053\u958b\u767a\u5c40 \u672d\u5e4c\u958b\u767a\u5efa\u8a2d\u90e8","boring_xml_url":43,"boring_view_url":1,"soilmap_view_url":null,"soiltest_xml_url":0,"soiltest_view_url":0},{"id":237566,"code":"B4KJ201802000-3046","latitude":"43.067778","longitude":"142.103389","source_code":"HK20072125190010","project_name":"\u4e00\u822c\u56fd\u9053452\u53f7","survey_name":"\u5915\u5f35\u5e02 \u30b7\u30e5\u30fc\u30d1\u30ed\u30c0\u30e0\u95a2\u9023\u5730\u8cea\u8abf\u67fb\u696d\u52d9","client_name":"\u5317\u6d77\u9053\u958b\u767a\u5c40 \u672d\u5e4c\u958b\u767a\u5efa\u8a2d\u90e8","boring_xml_url":43,"boring_view_url":1,"soilmap_view_url":null,"soiltest_xml_url":0,"soiltest_view_url":0},{"id":237565,"code":"B4KJ201802000-3045","latitude":"43.067472","longitude":"142.103194","source_code":"HK20072125190009","project_name":"\u4e00\u822c\u56fd\u9053452\u53f7","survey_name":"\u5915\u5f35\u5e02 \u30b7\u30e5\u30fc\u30d1\u30ed\u30c0\u30e0\u95a2\u9023\u5730\u8cea\u8abf\u67fb\u696d\u52d9","client_name":"\u5317\u6d77\u9053\u958b\u767a\u5c40 \u672d\u5e4c\u958b\u767a\u5efa\u8a2d\u90e8","boring_xml_url":43,"boring_view_url":1,"soilmap_view_url":null,"soiltest_xml_url":0,"soiltest_view_url":0},{"id":237564,"code":"B4KJ201802000-3044","latitude":"43.055111","longitude":"142.143528","source_code":"HK20112125260003","project_name":"","survey_name":"\u5915\u5f35\u30b7\u30e5\u30fc\u30d1\u30ed\u30c0\u30e0\u57fa\u790e\u5ca9\u76e4\u8a55\u4fa1\u89e3\u6790\u691c\u8a0e\u5916\u4e00\u9023\u696d\u52d9","client_name":"\u5317\u6d77\u9053\u958b\u767a\u5c40\u672d\u5e4c\u958b\u767a\u5efa\u8a2d\u90e8","boring_xml_url":43,"boring_view_url":1,"soilmap_view_url":null,"soiltest_xml_url":0,"soiltest_view_url":0},{"id":237563,"code":"B4KJ201802000-3043","latitude":"43.055139","longitude":"142.143278","source_code":"HK20112125260002","project_name":"","survey_name":"\u5915\u5f35\u30b7\u30e5\u30fc\u30d1\u30ed\u30c0\u30e0\u57fa\u790e\u5ca9\u76e4\u8a55\u4fa1\u89e3\u6790\u691c\u8a0e\u5916\u4e00\u9023\u696d\u52d9","client_name":"\u5317\u6d77\u9053\u958b\u767a\u5c40\u672d\u5e4c\u958b\u767a\u5efa\u8a2d\u90e8","boring_xml_url":43,"boring_view_url":1,"soilmap_view_url":null,"soiltest_xml_url":0,"soiltest_view_url":0},{"id":237562,"code":"B4KJ201802000-3042","latitude":"43.055028","longitude":"142.143278","source_code":"HK20112125260001","project_name":"","survey_name":"\u5915\u5f35\u30b7\u30e5\u30fc\u30d1\u30ed\u30c0\u30e0\u57fa\u790e\u5ca9\u76e4\u8a55\u4fa1\u89e3\u6790\u691c\u8a0e\u5916\u4e00\u9023\u696d\u52d9","client_name":"\u5317\u6d77\u9053\u958b\u767a\u5c40\u672d\u5e4c\u958b\u767a\u5efa\u8a2d\u90e8","boring_xml_url":43,"boring_view_url":1,"soilmap_view_url":null,"soiltest_xml_url":0,"soiltest_view_url":0},{"id":237561,"code":"B4KJ201802000-3041","latitude":"43.037861","longitude":"142.138722","source_code":"HK20112100090010","project_name":"\u5915\u5f35\u30b7\u30e5\u30fc\u30d1\u30ed\u30c0\u30e0 \u30ab\u30cd\u30aa\u30d9\u30c4\u5ddd\u4e0a\u6d41\u6cd5\u9762\u8abf\u67fb\u696d\u52d9","survey_name":"\u5915\u5f35\u30b7\u30e5\u30fc\u30d1\u30ed\u30c0\u30e0 \u30ab\u30cd\u30aa\u30d9\u30c4\u5ddd\u4e0a\u6d41\u6cd5\u9762\u8abf\u67fb\u696d\u52d9","client_name":"\u5317\u6d77\u9053\u958b\u767a\u5c40 \u672d\u5e4c\u958b\u767a\u5efa\u8a2d\u90e8","boring_xml_url":43,"boring_view_url":1,"soilmap_view_url":null,"soiltest_xml_url":0,"soiltest_view_url":0},{"id":237560,"code":"B4KJ201802000-3040","latitude":"43.038556","longitude":"142.13875","source_code":"HK20112100090009","project_name":"\u5915\u5f35\u30b7\u30e5\u30fc\u30d1\u30ed\u30c0\u30e0 \u30ab\u30cd\u30aa\u30d9\u30c4\u5ddd\u4e0a\u6d41\u6cd5\u9762\u8abf\u67fb\u696d\u52d9","survey_name":"\u5915\u5f35\u30b7\u30e5\u30fc\u30d1\u30ed\u30c0\u30e0 \u30ab\u30cd\u30aa\u30d9\u30c4\u5ddd\u4e0a\u6d41\u6cd5\u9762\u8abf\u67fb\u696d\u52d9","client_name":"\u5317\u6d77\u9053\u958b\u767a\u5c40 \u672d\u5e4c\u958b\u767a\u5efa\u8a2d\u90e8","boring_xml_url":43,"boring_view_url":1,"soilmap_view_url":null,"soiltest_xml_url":0,"soiltest_view_url":0},{"id":237559,"code":"B4KJ201802000-3039","latitude":"43.03925","longitude":"142.138806","source_code":"HK20112100090008","project_name":"\u5915\u5f35\u30b7\u30e5\u30fc\u30d1\u30ed\u30c0\u30e0 \u30ab\u30cd\u30aa\u30d9\u30c4\u5ddd\u4e0a\u6d41\u6cd5\u9762\u8abf\u67fb\u696d\u52d9","survey_name":"\u5915\u5f35\u30b7\u30e5\u30fc\u30d1\u30ed\u30c0\u30e0 \u30ab\u30cd\u30aa\u30d9\u30c4\u5ddd\u4e0a\u6d41\u6cd5\u9762\u8abf\u67fb\u696d\u52d9","client_name":"\u5317\u6d77\u9053\u958b\u767a\u5c40 \u672d\u5e4c\u958b\u767a\u5efa\u8a2d\u90e8","boring_xml_url":43,"boring_view_url":1,"soilmap_view_url":null,"soiltest_xml_url":0,"soiltest_view_url":0},{"id":237558,"code":"B4KJ201802000-3038","latitude":"43.040278","longitude":"142.138861","source_code":"HK20112100090007","project_name":"\u5915\u5f35\u30b7\u30e5\u30fc\u30d1\u30ed\u30c0\u30e0 \u30ab\u30cd\u30aa\u30d9\u30c4\u5ddd\u4e0a\u6d41\u6cd5\u9762\u8abf\u67fb\u696d\u52d9","survey_name":"\u5915\u5f35\u30b7\u30e5\u30fc\u30d1\u30ed\u30c0\u30e0 \u30ab\u30cd\u30aa\u30d9\u30c4\u5ddd\u4e0a\u6d41\u6cd5\u9762\u8abf\u67fb\u696d\u52d9","client_name":"\u5317\u6d77\u9053\u958b\u767a\u5c40 \u672d\u5e4c\u958b\u767a\u5efa\u8a2d\u90e8","boring_xml_url":43,"boring_view_url":1,"soilmap_view_url":null,"soiltest_xml_url":0,"soiltest_view_url":0},{"id":237557,"code":"B4KJ201802000-3037","latitude":"43.041361","longitude":"142.138889","source_code":"HK20112100090006","project_name":"\u5915\u5f35\u30b7\u30e5\u30fc\u30d1\u30ed\u30c0\u30e0 \u30ab\u30cd\u30aa\u30d9\u30c4\u5ddd\u4e0a\u6d41\u6cd5\u9762\u8abf\u67fb\u696d\u52d9","survey_name":"\u5915\u5f35\u30b7\u30e5\u30fc\u30d1\u30ed\u30c0\u30e0 \u30ab\u30cd\u30aa\u30d9\u30c4\u5ddd\u4e0a\u6d41\u6cd5\u9762\u8abf\u67fb\u696d\u52d9","client_name":"\u5317\u6d77\u9053\u958b\u767a\u5c40 \u672d\u5e4c\u958b\u767a\u5efa\u8a2d\u90e8","boring_xml_url":43,"boring_view_url":1,"soilmap_view_url":null,"soiltest_xml_url":0,"soiltest_view_url":0},{"id":237556,"code":"B4KJ201802000-3036","latitude":"43.039333","longitude":"142.137","source_code":"HK20112100090005","project_name":"\u5915\u5f35\u30b7\u30e5\u30fc\u30d1\u30ed\u30c0\u30e0 \u30ab\u30cd\u30aa\u30d9\u30c4\u5ddd\u4e0a\u6d41\u6cd5\u9762\u8abf\u67fb\u696d\u52d9","survey_name":"\u5915\u5f35\u30b7\u30e5\u30fc\u30d1\u30ed\u30c0\u30e0 \u30ab\u30cd\u30aa\u30d9\u30c4\u5ddd\u4e0a\u6d41\u6cd5\u9762\u8abf\u67fb\u696d\u52d9","client_name":"\u5317\u6d77\u9053\u958b\u767a\u5c40 \u672d\u5e4c\u958b\u767a\u5efa\u8a2d\u90e8","boring_xml_url":43,"boring_view_url":1,"soilmap_view_url":null,"soiltest_xml_url":0,"soiltest_view_url":0},{"id":237555,"code":"B4KJ201802000-3035","latitude":"43.040306","longitude":"142.137583","source_code":"HK20112100090004","project_name":"","survey_name":"\u5915\u5f35\u30b7\u30e5\u30fc\u30d1\u30ed\u30c0\u30e0 \u30ab\u30cd\u30aa\u30d9\u30c4\u5ddd\u4e0a\u6d41\u6cd5\u9762\u8abf\u67fb\u696d\u52d9","client_name":"\u5317\u6d77\u9053\u958b\u767a\u5c40 \u672d\u5e4c\u958b\u767a\u5efa\u8a2d\u90e8","boring_xml_url":43,"boring_view_url":1,"soilmap_view_url":null,"soiltest_xml_url":0,"soiltest_view_url":0},{"id":237554,"code":"B4KJ201802000-3034","latitude":"43.041417","longitude":"142.138333","source_code":"HK20112100090003","project_name":"\u5915\u5f35\u30b7\u30e5\u30fc\u30d1\u30ed\u30c0\u30e0 \u30ab\u30cd\u30aa\u30d9\u30c4\u5ddd\u4e0a\u6d41\u6cd5\u9762\u8abf\u67fb\u696d\u52d9","survey_name":"\u5915\u5f35\u30b7\u30e5\u30fc\u30d1\u30ed\u30c0\u30e0 \u30ab\u30cd\u30aa\u30d9\u30c4\u5ddd\u4e0a\u6d41\u6cd5\u9762\u8abf\u67fb\u696d\u52d9","client_name":"\u5317\u6d77\u9053\u958b\u767a\u5c40 \u672d\u5e4c\u958b\u767a\u5efa\u8a2d\u90e8","boring_xml_url":43,"boring_view_url":1,"soilmap_view_url":null,"soiltest_xml_url":0,"soiltest_view_url":0},{"id":237553,"code":"B4KJ201802000-3033","latitude":"43.024306","longitude":"142.103167","source_code":"HK20112100090002","project_name":"\u5915\u5f35\u30b7\u30e5\u30fc\u30d1\u30ed\u30c0\u30e0 \u30ab\u30cd\u30aa\u30d9\u30c4\u5ddd\u4e0a\u6d41\u6cd5\u9762\u8abf\u67fb\u696d\u52d9","survey_name":"\u5915\u5f35\u30b7\u30e5\u30fc\u30d1\u30ed\u30c0\u30e0 \u30ab\u30cd\u30aa\u30d9\u30c4\u5ddd\u4e0a\u6d41\u6cd5\u9762\u8abf\u67fb\u696d\u52d9","client_name":"\u5317\u6d77\u9053\u958b\u767a\u5c40 \u672d\u5e4c\u958b\u767a\u5efa\u8a2d\u90e8","boring_xml_url":43,"boring_view_url":1,"soilmap_view_url":null,"soiltest_xml_url":0,"soiltest_view_url":0},{"id":237552,"code":"B4KJ201802000-3032","latitude":"43.346611","longitude":"142.372306","source_code":"HK20132126370001","project_name":"","survey_name":"\u5e73\u621025\u5e74\u5ea6 \u5927\u898f\u6a21\u571f\u7802\u79fb\u52d5\u691c\u77e5\u30b7\u30b9\u30c6\u30e0\u6574\u5099\u691c\u8a0e\u696d\u52d9","client_name":"\u5317\u6d77\u9053\u958b\u767a\u5c40 \u672d\u5e4c\u958b\u767a\u5efa\u8a2d\u90e8","boring_xml_url":43,"boring_view_url":1,"soilmap_view_url":null,"soiltest_xml_url":0,"soiltest_view_url":0},{"id":237551,"code":"B4KJ201802000-3031","latitude":"43.500167","longitude":"142.1875","source_code":"HK20132156660004","project_name":"","survey_name":"\u5e73\u621025\u5e74\u5ea6 \u4e00\u822c\u56fd\u9053452\u53f7 \u82a6\u5225\u5e02 \u76db\u571f\u5909\u72b6\u8abf\u67fb\u696d\u52d9","client_name":"\u5317\u6d77\u9053\u958b\u767a\u5c40 \u672d\u5e4c\u958b\u767a\u5efa\u8a2d\u90e8","boring_xml_url":43,"boring_view_url":1,"soilmap_view_url":null,"soiltest_xml_url":0,"soiltest_view_url":0},{"id":237550,"code":"B4KJ201802000-3030","latitude":"43.500056","longitude":"142.187361","source_code":"HK20132156660003","project_name":"","survey_name":"\u5e73\u621025\u5e74\u5ea6 \u4e00\u822c\u56fd\u9053452\u53f7 \u82a6\u5225\u5e02 \u76db\u571f\u5909\u72b6\u8abf\u67fb\u696d\u52d9","client_name":"\u5317\u6d77\u9053\u958b\u767a\u5c40 \u672d\u5e4c\u958b\u767a\u5efa\u8a2d\u90e8","boring_xml_url":43,"boring_view_url":1,"soilmap_view_url":null,"soiltest_xml_url":0,"soiltest_view_url":0}]}}