{"header":{"xyz":{"source":[],"mosaic":false},"page":310,"raw":{"soiltest_result":"0","bbox":"57.598333,109.544722,1.933333,163.806111","page":"310"},"conditions":{"soiltest_result":0,"north":57.598333,"west":109.544722,"south":1.933333,"east":163.806111},"success":true,"message":""},"data":{"meta":{"total":212844,"page":310,"pages":7095,"count":30},"values":[{"id":561997,"code":"NGIC202203714-0001","latitude":"42.825469166667","longitude":"143.09539630556","source_code":"","project_name":"\u56fd\u55b6\u304b\u3093\u304c\u3044\u6392\u6c34\u4e8b\u696d","survey_name":"\u82bd\u5ba4\u5ddd\u897f\u5730\u533a\u7a32\u7530\u5e79\u7dda\u7528\u6c34\u8def\u5357\u57fa\u677e7\u53f7\u5de5\u533a\u5b9f\u65bd\u8a2d\u8a08\u7b49\u696d\u52d9","client_name":"\u56fd\u571f\u4ea4\u901a\u7701\u5317\u6d77\u9053\u958b\u767a\u5c40\u5e2f\u5e83\u958b\u767a\u5efa\u8a2d\u90e8\u5e2f\u5e83\u8fb2\u696d\u4e8b\u52d9\u6240","boring_xml_url":47,"boring_view_url":1,"soilmap_view_url":null,"soiltest_xml_url":47,"soiltest_view_url":47},{"id":561930,"code":"NGIC202203995-0016","latitude":"35.892531916667","longitude":"139.56337836111","source_code":"","project_name":"","survey_name":"R3\u8352\u5ddd\u7b2c\u4e8c\u8abf\u7bc0\u6c60\u5730\u8cea\u8abf\u67fb\uff08\u4e0b\u5927\u4e45\u4fdd\u5730\u5148\u5916\uff09\u696d\u52d9","client_name":"\u56fd\u571f\u4ea4\u901a\u7701\u95a2\u6771\u5730\u65b9\u6574\u5099\u5c40\u8352\u5ddd\u8abf\u7bc0\u6c60\u5de5\u4e8b\u4e8b\u52d9\u6240","boring_xml_url":47,"boring_view_url":1,"soilmap_view_url":null,"soiltest_xml_url":47,"soiltest_view_url":47},{"id":561929,"code":"NGIC202203995-0015","latitude":"35.892531916667","longitude":"139.56337836111","source_code":"","project_name":"","survey_name":"R3\u8352\u5ddd\u7b2c\u4e8c\u8abf\u7bc0\u6c60\u5730\u8cea\u8abf\u67fb\uff08\u4e0b\u5927\u4e45\u4fdd\u5730\u5148\u5916\uff09\u696d\u52d9","client_name":"\u56fd\u571f\u4ea4\u901a\u7701\u95a2\u6771\u5730\u65b9\u6574\u5099\u5c40\u8352\u5ddd\u8abf\u7bc0\u6c60\u5de5\u4e8b\u4e8b\u52d9\u6240","boring_xml_url":47,"boring_view_url":1,"soilmap_view_url":null,"soiltest_xml_url":47,"soiltest_view_url":47},{"id":561928,"code":"NGIC202203995-0014","latitude":"35.89241125","longitude":"139.56401722222","source_code":"","project_name":"","survey_name":"R3\u8352\u5ddd\u7b2c\u4e8c\u8abf\u7bc0\u6c60\u5730\u8cea\u8abf\u67fb\uff08\u4e0b\u5927\u4e45\u4fdd\u5730\u5148\u5916\uff09\u696d\u52d9","client_name":"\u56fd\u571f\u4ea4\u901a\u7701\u95a2\u6771\u5730\u65b9\u6574\u5099\u5c40\u8352\u5ddd\u8abf\u7bc0\u6c60\u5de5\u4e8b\u4e8b\u52d9\u6240","boring_xml_url":47,"boring_view_url":1,"soilmap_view_url":null,"soiltest_xml_url":47,"soiltest_view_url":47},{"id":561927,"code":"NGIC202203995-0013","latitude":"35.89241125","longitude":"139.56401722222","source_code":"","project_name":"","survey_name":"R3\u8352\u5ddd\u7b2c\u4e8c\u8abf\u7bc0\u6c60\u5730\u8cea\u8abf\u67fb\uff08\u4e0b\u5927\u4e45\u4fdd\u5730\u5148\u5916\uff09\u696d\u52d9","client_name":"\u56fd\u571f\u4ea4\u901a\u7701\u95a2\u6771\u5730\u65b9\u6574\u5099\u5c40\u8352\u5ddd\u8abf\u7bc0\u6c60\u5de5\u4e8b\u4e8b\u52d9\u6240","boring_xml_url":47,"boring_view_url":1,"soilmap_view_url":null,"soiltest_xml_url":47,"soiltest_view_url":47},{"id":561926,"code":"NGIC202203995-0012","latitude":"35.8925255","longitude":"139.56478316667","source_code":"","project_name":"","survey_name":"R3\u8352\u5ddd\u7b2c\u4e8c\u8abf\u7bc0\u6c60\u5730\u8cea\u8abf\u67fb\uff08\u4e0b\u5927\u4e45\u4fdd\u5730\u5148\u5916\uff09\u696d\u52d9","client_name":"\u56fd\u571f\u4ea4\u901a\u7701\u95a2\u6771\u5730\u65b9\u6574\u5099\u5c40\u8352\u5ddd\u8abf\u7bc0\u6c60\u5de5\u4e8b\u4e8b\u52d9\u6240","boring_xml_url":47,"boring_view_url":1,"soilmap_view_url":null,"soiltest_xml_url":47,"soiltest_view_url":47},{"id":561925,"code":"NGIC202203995-0011","latitude":"35.8925255","longitude":"139.56478316667","source_code":"","project_name":"","survey_name":"R3\u8352\u5ddd\u7b2c\u4e8c\u8abf\u7bc0\u6c60\u5730\u8cea\u8abf\u67fb\uff08\u4e0b\u5927\u4e45\u4fdd\u5730\u5148\u5916\uff09\u696d\u52d9","client_name":"\u56fd\u571f\u4ea4\u901a\u7701\u95a2\u6771\u5730\u65b9\u6574\u5099\u5c40\u8352\u5ddd\u8abf\u7bc0\u6c60\u5de5\u4e8b\u4e8b\u52d9\u6240","boring_xml_url":47,"boring_view_url":1,"soilmap_view_url":null,"soiltest_xml_url":47,"soiltest_view_url":47},{"id":561924,"code":"NGIC202203995-0010","latitude":"35.892889388889","longitude":"139.56481963889","source_code":"","project_name":"","survey_name":"R3\u8352\u5ddd\u7b2c\u4e8c\u8abf\u7bc0\u6c60\u5730\u8cea\u8abf\u67fb\uff08\u4e0b\u5927\u4e45\u4fdd\u5730\u5148\u5916\uff09\u696d\u52d9","client_name":"\u56fd\u571f\u4ea4\u901a\u7701\u95a2\u6771\u5730\u65b9\u6574\u5099\u5c40\u8352\u5ddd\u8abf\u7bc0\u6c60\u5de5\u4e8b\u4e8b\u52d9\u6240","boring_xml_url":47,"boring_view_url":1,"soilmap_view_url":null,"soiltest_xml_url":47,"soiltest_view_url":47},{"id":561923,"code":"NGIC202203995-0009","latitude":"35.892889388889","longitude":"139.56481963889","source_code":"","project_name":"","survey_name":"R3\u8352\u5ddd\u7b2c\u4e8c\u8abf\u7bc0\u6c60\u5730\u8cea\u8abf\u67fb\uff08\u4e0b\u5927\u4e45\u4fdd\u5730\u5148\u5916\uff09\u696d\u52d9","client_name":"\u56fd\u571f\u4ea4\u901a\u7701\u95a2\u6771\u5730\u65b9\u6574\u5099\u5c40\u8352\u5ddd\u8abf\u7bc0\u6c60\u5de5\u4e8b\u4e8b\u52d9\u6240","boring_xml_url":47,"boring_view_url":1,"soilmap_view_url":null,"soiltest_xml_url":47,"soiltest_view_url":47},{"id":561922,"code":"NGIC202203995-0008","latitude":"35.891257805556","longitude":"139.56542402778","source_code":"","project_name":"","survey_name":"R3\u8352\u5ddd\u7b2c\u4e8c\u8abf\u7bc0\u6c60\u5730\u8cea\u8abf\u67fb\uff08\u4e0b\u5927\u4e45\u4fdd\u5730\u5148\u5916\uff09\u696d\u52d9","client_name":"\u56fd\u571f\u4ea4\u901a\u7701\u95a2\u6771\u5730\u65b9\u6574\u5099\u5c40\u8352\u5ddd\u8abf\u7bc0\u6c60\u5de5\u4e8b\u4e8b\u52d9\u6240","boring_xml_url":47,"boring_view_url":1,"soilmap_view_url":null,"soiltest_xml_url":47,"soiltest_view_url":47},{"id":561921,"code":"NGIC202203995-0007","latitude":"35.891257805556","longitude":"139.56542402778","source_code":"","project_name":"","survey_name":"R3\u8352\u5ddd\u7b2c\u4e8c\u8abf\u7bc0\u6c60\u5730\u8cea\u8abf\u67fb\uff08\u4e0b\u5927\u4e45\u4fdd\u5730\u5148\u5916\uff09\u696d\u52d9","client_name":"\u56fd\u571f\u4ea4\u901a\u7701\u95a2\u6771\u5730\u65b9\u6574\u5099\u5c40\u8352\u5ddd\u8abf\u7bc0\u6c60\u5de5\u4e8b\u4e8b\u52d9\u6240","boring_xml_url":47,"boring_view_url":1,"soilmap_view_url":null,"soiltest_xml_url":47,"soiltest_view_url":47},{"id":561920,"code":"NGIC202203995-0006","latitude":"35.882699972222","longitude":"139.57023863889","source_code":"","project_name":"","survey_name":"R3\u8352\u5ddd\u7b2c\u4e8c\u8abf\u7bc0\u6c60\u5730\u8cea\u8abf\u67fb\uff08\u4e0b\u5927\u4e45\u4fdd\u5730\u5148\u5916\uff09\u696d\u52d9","client_name":"\u56fd\u571f\u4ea4\u901a\u7701\u95a2\u6771\u5730\u65b9\u6574\u5099\u5c40\u8352\u5ddd\u8abf\u7bc0\u6c60\u5de5\u4e8b\u4e8b\u52d9\u6240","boring_xml_url":47,"boring_view_url":1,"soilmap_view_url":null,"soiltest_xml_url":47,"soiltest_view_url":47},{"id":561919,"code":"NGIC202203995-0005","latitude":"35.882699972222","longitude":"139.57023863889","source_code":"","project_name":"","survey_name":"R3\u8352\u5ddd\u7b2c\u4e8c\u8abf\u7bc0\u6c60\u5730\u8cea\u8abf\u67fb\uff08\u4e0b\u5927\u4e45\u4fdd\u5730\u5148\u5916\uff09\u696d\u52d9","client_name":"\u56fd\u571f\u4ea4\u901a\u7701\u95a2\u6771\u5730\u65b9\u6574\u5099\u5c40\u8352\u5ddd\u8abf\u7bc0\u6c60\u5de5\u4e8b\u4e8b\u52d9\u6240","boring_xml_url":47,"boring_view_url":1,"soilmap_view_url":null,"soiltest_xml_url":47,"soiltest_view_url":47},{"id":561918,"code":"NGIC202203995-0004","latitude":"35.861892472222","longitude":"139.58406344444","source_code":"","project_name":"","survey_name":"R3\u8352\u5ddd\u7b2c\u4e8c\u8abf\u7bc0\u6c60\u5730\u8cea\u8abf\u67fb\uff08\u4e0b\u5927\u4e45\u4fdd\u5730\u5148\u5916\uff09\u696d\u52d9","client_name":"\u56fd\u571f\u4ea4\u901a\u7701\u95a2\u6771\u5730\u65b9\u6574\u5099\u5c40\u8352\u5ddd\u8abf\u7bc0\u6c60\u5de5\u4e8b\u4e8b\u52d9\u6240","boring_xml_url":47,"boring_view_url":1,"soilmap_view_url":null,"soiltest_xml_url":47,"soiltest_view_url":47},{"id":561917,"code":"NGIC202203995-0003","latitude":"35.861892472222","longitude":"139.58406344444","source_code":"","project_name":"","survey_name":"R3\u8352\u5ddd\u7b2c\u4e8c\u8abf\u7bc0\u6c60\u5730\u8cea\u8abf\u67fb\uff08\u4e0b\u5927\u4e45\u4fdd\u5730\u5148\u5916\uff09\u696d\u52d9","client_name":"\u56fd\u571f\u4ea4\u901a\u7701\u95a2\u6771\u5730\u65b9\u6574\u5099\u5c40\u8352\u5ddd\u8abf\u7bc0\u6c60\u5de5\u4e8b\u4e8b\u52d9\u6240","boring_xml_url":47,"boring_view_url":1,"soilmap_view_url":null,"soiltest_xml_url":47,"soiltest_view_url":47},{"id":561916,"code":"NGIC202203995-0002","latitude":"35.860682166667","longitude":"139.58632269444","source_code":"","project_name":"","survey_name":"R3\u8352\u5ddd\u7b2c\u4e8c\u8abf\u7bc0\u6c60\u5730\u8cea\u8abf\u67fb\uff08\u4e0b\u5927\u4e45\u4fdd\u5730\u5148\u5916\uff09\u696d\u52d9","client_name":"\u56fd\u571f\u4ea4\u901a\u7701\u95a2\u6771\u5730\u65b9\u6574\u5099\u5c40\u8352\u5ddd\u8abf\u7bc0\u6c60\u5de5\u4e8b\u4e8b\u52d9\u6240","boring_xml_url":47,"boring_view_url":1,"soilmap_view_url":null,"soiltest_xml_url":47,"soiltest_view_url":47},{"id":561915,"code":"NGIC202203995-0001","latitude":"35.860682166667","longitude":"139.58632269444","source_code":"","project_name":"","survey_name":"R3\u8352\u5ddd\u7b2c\u4e8c\u8abf\u7bc0\u6c60\u5730\u8cea\u8abf\u67fb\uff08\u4e0b\u5927\u4e45\u4fdd\u5730\u5148\u5916\uff09\u696d\u52d9","client_name":"\u56fd\u571f\u4ea4\u901a\u7701\u95a2\u6771\u5730\u65b9\u6574\u5099\u5c40\u8352\u5ddd\u8abf\u7bc0\u6c60\u5de5\u4e8b\u4e8b\u52d9\u6240","boring_xml_url":47,"boring_view_url":1,"soilmap_view_url":null,"soiltest_xml_url":47,"soiltest_view_url":47},{"id":561854,"code":"NGIC202203868-0002","latitude":"33.616084416667","longitude":"130.57812436111","source_code":"","project_name":"\u56fd\u9053201\u53f7\u516b\u6728\u5c71\u30d0\u30a4\u30d1\u30b94\u8eca\u7dda\u5316\u4e8b\u696d","survey_name":"\u4ee4\u548c3\u5e74\u5ea6\u798f\u5ca1\u5317\u90e8\u5730\u533a\u9053\u8def\u8a73\u7d30\u8a2d\u8a08\u5916\u696d\u52d9","client_name":"\u56fd\u571f\u4ea4\u901a\u7701\u4e5d\u5dde\u5730\u65b9\u6574\u5099\u5c40\u798f\u5ca1\u56fd\u9053\u4e8b\u52d9\u6240","boring_xml_url":47,"boring_view_url":1,"soilmap_view_url":null,"soiltest_xml_url":0,"soiltest_view_url":0},{"id":561853,"code":"NGIC202203868-0001","latitude":"33.615996805556","longitude":"130.57776933333","source_code":"","project_name":"\u56fd\u9053201\u53f7\u516b\u6728\u5c71\u30d0\u30a4\u30d1\u30b94\u8eca\u7dda\u5316\u4e8b\u696d","survey_name":"\u4ee4\u548c3\u5e74\u5ea6\u798f\u5ca1\u5317\u90e8\u5730\u533a\u9053\u8def\u8a73\u7d30\u8a2d\u8a08\u5916\u696d\u52d9","client_name":"\u56fd\u571f\u4ea4\u901a\u7701\u4e5d\u5dde\u5730\u65b9\u6574\u5099\u5c40\u798f\u5ca1\u56fd\u9053\u4e8b\u52d9\u6240","boring_xml_url":47,"boring_view_url":1,"soilmap_view_url":null,"soiltest_xml_url":0,"soiltest_view_url":0},{"id":561827,"code":"NGIC202203959-0004","latitude":"36.653833333333","longitude":"139.18650277778","source_code":"","project_name":"","survey_name":"R3\u5229\u6839\u5ddd\u30c0\u30e0\u7ba1\u5185\uff08\u8597\u539f\u30c0\u30e0\uff09\u5730\u8cea\u8abf\u67fb\u696d\u52d9","client_name":"\u56fd\u571f\u4ea4\u901a\u7701\u95a2\u6771\u5730\u65b9\u6574\u5099\u5c40\u5229\u6839\u5ddd\u30c0\u30e0\u7d71\u5408\u7ba1\u7406\u4e8b\u52d9\u6240","boring_xml_url":47,"boring_view_url":1,"soilmap_view_url":null,"soiltest_xml_url":47,"soiltest_view_url":47},{"id":561826,"code":"NGIC202203959-0003","latitude":"36.653705555556","longitude":"139.18488888889","source_code":"","project_name":"","survey_name":"R3\u5229\u6839\u5ddd\u30c0\u30e0\u7ba1\u5185\uff08\u8597\u539f\u30c0\u30e0\uff09\u5730\u8cea\u8abf\u67fb\u696d\u52d9","client_name":"\u56fd\u571f\u4ea4\u901a\u7701\u95a2\u6771\u5730\u65b9\u6574\u5099\u5c40\u5229\u6839\u5ddd\u30c0\u30e0\u7d71\u5408\u7ba1\u7406\u4e8b\u52d9\u6240","boring_xml_url":47,"boring_view_url":1,"soilmap_view_url":null,"soiltest_xml_url":0,"soiltest_view_url":0},{"id":561825,"code":"NGIC202203959-0002","latitude":"36.653138888889","longitude":"139.18561388889","source_code":"","project_name":"","survey_name":"R3\u5229\u6839\u5ddd\u30c0\u30e0\u7ba1\u5185\uff08\u8597\u539f\u30c0\u30e0\uff09\u5730\u8cea\u8abf\u67fb\u696d\u52d9","client_name":"\u56fd\u571f\u4ea4\u901a\u7701\u95a2\u6771\u5730\u65b9\u6574\u5099\u5c40\u5229\u6839\u5ddd\u30c0\u30e0\u7d71\u5408\u7ba1\u7406\u4e8b\u52d9\u6240","boring_xml_url":47,"boring_view_url":1,"soilmap_view_url":null,"soiltest_xml_url":47,"soiltest_view_url":47},{"id":561824,"code":"NGIC202203959-0001","latitude":"36.653455555556","longitude":"139.18499444444","source_code":"","project_name":"","survey_name":"R3\u5229\u6839\u5ddd\u30c0\u30e0\u7ba1\u5185\uff08\u8597\u539f\u30c0\u30e0\uff09\u5730\u8cea\u8abf\u67fb\u696d\u52d9","client_name":"\u56fd\u571f\u4ea4\u901a\u7701\u95a2\u6771\u5730\u65b9\u6574\u5099\u5c40\u5229\u6839\u5ddd\u30c0\u30e0\u7d71\u5408\u7ba1\u7406\u4e8b\u52d9\u6240","boring_xml_url":47,"boring_view_url":1,"soilmap_view_url":null,"soiltest_xml_url":0,"soiltest_view_url":0},{"id":561823,"code":"NGIC202203914-0001","latitude":"43.685238888889","longitude":"142.53846944444","source_code":"","project_name":"\u56fd\u55b6\u7dca\u6025\u8fb2\u5730\u518d\u7de8\u6574\u5099\u4e8b\u696d","survey_name":"\u4ee4\u548c4\u5e74\u5ea6\u65bd\u884c\u5927\u96ea\u6771\u5ddd\u7b2c\u4e00\u5730\u533a57\u8fb2\u533a\u533a\u753b\u6574\u7406\u8a2d\u8a08\u7b49\u696d\u52d9","client_name":"\u56fd\u571f\u4ea4\u901a\u7701\u5317\u6d77\u9053\u958b\u767a\u5c40\u65ed\u5ddd\u958b\u767a\u5efa\u8a2d\u90e8\u65ed\u5ddd\u8fb2\u696d\u4e8b\u52d9\u6240","boring_xml_url":47,"boring_view_url":1,"soilmap_view_url":null,"soiltest_xml_url":0,"soiltest_view_url":0},{"id":561822,"code":"NGIC202203919-0002","latitude":"33.671694444444","longitude":"130.39858333333","source_code":"","project_name":"","survey_name":"\u4ee4\u548c4\u5e74\u5ea6\u798f\u5ca1\u7a7a\u6e2f\u6392\u6c34\u65bd\u8a2d\u571f\u8cea\u8abf\u67fb","client_name":"\u56fd\u571f\u4ea4\u901a\u7701\u4e5d\u5dde\u5730\u65b9\u6574\u5099\u5c40\u535a\u591a\u6e2f\u6e7e\u30fb\u7a7a\u6e2f\u6574\u5099\u4e8b\u52d9\u6240","boring_xml_url":47,"boring_view_url":1,"soilmap_view_url":71,"soiltest_xml_url":47,"soiltest_view_url":47},{"id":561821,"code":"NGIC202203919-0001","latitude":"33.670305555556","longitude":"130.39975","source_code":"","project_name":"","survey_name":"\u4ee4\u548c4\u5e74\u5ea6\u798f\u5ca1\u7a7a\u6e2f\u6392\u6c34\u65bd\u8a2d\u571f\u8cea\u8abf\u67fb","client_name":"\u56fd\u571f\u4ea4\u901a\u7701\u4e5d\u5dde\u5730\u65b9\u6574\u5099\u5c40\u535a\u591a\u6e2f\u6e7e\u30fb\u7a7a\u6e2f\u6574\u5099\u4e8b\u52d9\u6240","boring_xml_url":47,"boring_view_url":1,"soilmap_view_url":71,"soiltest_xml_url":47,"soiltest_view_url":47},{"id":561797,"code":"NGIC202203941-0002","latitude":"35.237242555556","longitude":"137.41622419444","source_code":"","project_name":"\u4ee4\u548c3\u5e74\u5ea6\u77e2\u4f5c\u30c0\u30e0\u518d\u751f\u4e8b\u696d\u65ed\u5730\u533a\u5730\u8cea\u8abf\u67fb\u696d\u52d9","survey_name":"\u4ee4\u548c3\u5e74\u5ea6\u77e2\u4f5c\u30c0\u30e0\u518d\u751f\u4e8b\u696d\u65ed\u5730\u533a\u5730\u8cea\u8abf\u67fb\u696d\u52d9","client_name":"\u56fd\u571f\u4ea4\u901a\u7701\u4e2d\u90e8\u5730\u65b9\u6574\u5099\u5c40\u8c4a\u6a4b\u6cb3\u5ddd\u4e8b\u52d9\u6240","boring_xml_url":47,"boring_view_url":1,"soilmap_view_url":null,"soiltest_xml_url":0,"soiltest_view_url":0},{"id":561796,"code":"NGIC202203941-0001","latitude":"35.235116388889","longitude":"137.41610077778","source_code":"","project_name":"\u4ee4\u548c3\u5e74\u5ea6\u77e2\u4f5c\u30c0\u30e0\u518d\u751f\u4e8b\u696d\u65ed\u5730\u533a\u5730\u8cea\u8abf\u67fb\u696d\u52d9","survey_name":"\u4ee4\u548c3\u5e74\u5ea6\u77e2\u4f5c\u30c0\u30e0\u518d\u751f\u4e8b\u696d\u65ed\u5730\u533a\u5730\u8cea\u8abf\u67fb\u696d\u52d9","client_name":"\u56fd\u571f\u4ea4\u901a\u7701\u4e2d\u90e8\u5730\u65b9\u6574\u5099\u5c40\u8c4a\u6a4b\u6cb3\u5ddd\u4e8b\u52d9\u6240","boring_xml_url":47,"boring_view_url":1,"soilmap_view_url":null,"soiltest_xml_url":0,"soiltest_view_url":0},{"id":561782,"code":"NGIC202203847-0027","latitude":"42.914572222222","longitude":"140.71885555556","source_code":"","project_name":"\u4e00\u822c\u56fd\u90535\u53f7\u5036\u77e5\u5b89\u753a\u5036\u77e5\u5b89\u5730\u8cea\u8abf\u67fb\u696d\u52d9","survey_name":"\u4e00\u822c\u56fd\u90535\u53f7\u5036\u77e5\u5b89\u753a\u5036\u77e5\u5b89\u5730\u8cea\u8abf\u67fb\u696d\u52d9","client_name":"\u56fd\u571f\u4ea4\u901a\u7701\u5317\u6d77\u9053\u958b\u767a\u5c40\u5c0f\u6a3d\u958b\u767a\u5efa\u8a2d\u90e8\u672c\u90e8","boring_xml_url":47,"boring_view_url":1,"soilmap_view_url":null,"soiltest_xml_url":0,"soiltest_view_url":0},{"id":561781,"code":"NGIC202203847-0026","latitude":"42.914572222222","longitude":"140.71885555556","source_code":"","project_name":"\u4e00\u822c\u56fd\u90535\u53f7\u5036\u77e5\u5b89\u753a\u5036\u77e5\u5b89\u5730\u8cea\u8abf\u67fb\u696d\u52d9","survey_name":"\u4e00\u822c\u56fd\u90535\u53f7\u5036\u77e5\u5b89\u753a\u5036\u77e5\u5b89\u5730\u8cea\u8abf\u67fb\u696d\u52d9","client_name":"\u56fd\u571f\u4ea4\u901a\u7701\u5317\u6d77\u9053\u958b\u767a\u5c40\u5c0f\u6a3d\u958b\u767a\u5efa\u8a2d\u90e8\u672c\u90e8","boring_xml_url":47,"boring_view_url":1,"soilmap_view_url":null,"soiltest_xml_url":47,"soiltest_view_url":47}]}}