{"header":{"xyz":{"source":[],"mosaic":false},"page":3100,"raw":{"soiltest_result":"0","bbox":"57.598333,109.544722,1.933333,163.806111","page":"3100"},"conditions":{"soiltest_result":0,"north":57.598333,"west":109.544722,"south":1.933333,"east":163.806111},"success":true,"message":""},"data":{"meta":{"total":212844,"page":3100,"pages":7095,"count":30},"values":[{"id":237549,"code":"B4KJ201802000-3029","latitude":"43.349167","longitude":"141.705889","source_code":"HK20122111050044","project_name":"","survey_name":"\u5e73\u621024\u5e74\u5ea6 \u77f3\u72e9\u5ddd\u53f3\u5cb8\u4e0b\u6d41\u6cb3\u9053\u6398\u524a\u5916\u5730\u8cea\u8abf\u67fb\u696d\u52d9","client_name":"\u5317\u6d77\u9053\u958b\u767a\u5c40 \u672d\u5e4c\u958b\u767a\u5efa\u8a2d\u90e8","boring_xml_url":43,"boring_view_url":1,"soilmap_view_url":null,"soiltest_xml_url":43,"soiltest_view_url":42},{"id":237548,"code":"B4KJ201802000-3028","latitude":"43.348","longitude":"141.703444","source_code":"HK20122111050043","project_name":"","survey_name":"\u5e73\u621024\u5e74\u5ea6 \u77f3\u72e9\u5ddd\u53f3\u5cb8\u4e0b\u6d41\u6cb3\u9053\u6398\u524a\u5916\u5730\u8cea\u8abf\u67fb\u696d\u52d9","client_name":"\u5317\u6d77\u9053\u958b\u767a\u5c40 \u672d\u5e4c\u958b\u767a\u5efa\u8a2d\u90e8","boring_xml_url":43,"boring_view_url":1,"soilmap_view_url":null,"soiltest_xml_url":43,"soiltest_view_url":42},{"id":237547,"code":"B4KJ201802000-3027","latitude":"43.346083","longitude":"141.700833","source_code":"HK20122111050042","project_name":"","survey_name":"\u5e73\u621024\u5e74\u5ea6 \u77f3\u72e9\u5ddd\u53f3\u5cb8\u4e0b\u6d41\u6cb3\u9053\u6398\u524a\u5916\u5730\u8cea\u8abf\u67fb\u696d\u52d9","client_name":"\u5317\u6d77\u9053\u958b\u767a\u5c40 \u672d\u5e4c\u958b\u767a\u5efa\u8a2d\u90e8","boring_xml_url":43,"boring_view_url":1,"soilmap_view_url":null,"soiltest_xml_url":43,"soiltest_view_url":42},{"id":237546,"code":"B4KJ201802000-3026","latitude":"43.345028","longitude":"141.699028","source_code":"HK20122111050041","project_name":"","survey_name":"\u5e73\u621024\u5e74\u5ea6 \u77f3\u72e9\u5ddd\u53f3\u5cb8\u4e0b\u6d41\u6cb3\u9053\u6398\u524a\u5916\u5730\u8cea\u8abf\u67fb\u696d\u52d9","client_name":"\u5317\u6d77\u9053\u958b\u767a\u5c40 \u672d\u5e4c\u958b\u767a\u5efa\u8a2d\u90e8","boring_xml_url":43,"boring_view_url":1,"soilmap_view_url":null,"soiltest_xml_url":43,"soiltest_view_url":42},{"id":237545,"code":"B4KJ201802000-3025","latitude":"43.342083","longitude":"141.697722","source_code":"HK20122111050040","project_name":"","survey_name":"\u5e73\u621024\u5e74\u5ea6 \u77f3\u72e9\u5ddd\u53f3\u5cb8\u4e0b\u6d41\u6cb3\u9053\u6398\u524a\u5916\u5730\u8cea\u8abf\u67fb\u696d\u52d9","client_name":"\u5317\u6d77\u9053\u958b\u767a\u5c40 \u672d\u5e4c\u958b\u767a\u5efa\u8a2d\u90e8","boring_xml_url":43,"boring_view_url":1,"soilmap_view_url":null,"soiltest_xml_url":43,"soiltest_view_url":42},{"id":237544,"code":"B4KJ201802000-3024","latitude":"43.340472","longitude":"141.696056","source_code":"HK20122111050039","project_name":"","survey_name":"\u5e73\u621024\u5e74\u5ea6 \u77f3\u72e9\u5ddd\u53f3\u5cb8\u4e0b\u6d41\u6cb3\u9053\u6398\u524a\u5916\u5730\u8cea\u8abf\u67fb\u696d\u52d9","client_name":"\u5317\u6d77\u9053\u958b\u767a\u5c40 \u672d\u5e4c\u958b\u767a\u5efa\u8a2d\u90e8","boring_xml_url":43,"boring_view_url":1,"soilmap_view_url":null,"soiltest_xml_url":43,"soiltest_view_url":42},{"id":237543,"code":"B4KJ201802000-3023","latitude":"43.336222","longitude":"141.694917","source_code":"HK20122111050038","project_name":"","survey_name":"\u5e73\u621024\u5e74\u5ea6 \u77f3\u72e9\u5ddd\u53f3\u5cb8\u4e0b\u6d41\u6cb3\u9053\u6398\u524a\u5916\u5730\u8cea\u8abf\u67fb\u696d\u52d9","client_name":"\u5317\u6d77\u9053\u958b\u767a\u5c40 \u672d\u5e4c\u958b\u767a\u5efa\u8a2d\u90e8","boring_xml_url":43,"boring_view_url":1,"soilmap_view_url":null,"soiltest_xml_url":43,"soiltest_view_url":42},{"id":237542,"code":"B4KJ201802000-3022","latitude":"43.33225","longitude":"141.692444","source_code":"HK20122111050037","project_name":"","survey_name":"\u5e73\u621024\u5e74\u5ea6 \u77f3\u72e9\u5ddd\u53f3\u5cb8\u4e0b\u6d41\u6cb3\u9053\u6398\u524a\u5916\u5730\u8cea\u8abf\u67fb\u696d\u52d9","client_name":"\u5317\u6d77\u9053\u958b\u767a\u5c40 \u672d\u5e4c\u958b\u767a\u5efa\u8a2d\u90e8","boring_xml_url":43,"boring_view_url":1,"soilmap_view_url":null,"soiltest_xml_url":43,"soiltest_view_url":42},{"id":237541,"code":"B4KJ201802000-3021","latitude":"43.327028","longitude":"141.687722","source_code":"HK20122111050036","project_name":"","survey_name":"\u5e73\u621024\u5e74\u5ea6 \u77f3\u72e9\u5ddd\u53f3\u5cb8\u4e0b\u6d41\u6cb3\u9053\u6398\u524a\u5916\u5730\u8cea\u8abf\u67fb\u696d\u52d9","client_name":"\u5317\u6d77\u9053\u958b\u767a\u5c40 \u672d\u5e4c\u958b\u767a\u5efa\u8a2d\u90e8","boring_xml_url":43,"boring_view_url":1,"soilmap_view_url":null,"soiltest_xml_url":43,"soiltest_view_url":42},{"id":237540,"code":"B4KJ201802000-3020","latitude":"43.3245","longitude":"141.686583","source_code":"HK20122111050035","project_name":"","survey_name":"\u5e73\u621024\u5e74\u5ea6 \u77f3\u72e9\u5ddd\u53f3\u5cb8\u4e0b\u6d41\u6cb3\u9053\u6398\u524a\u5916\u5730\u8cea\u8abf\u67fb\u696d\u52d9","client_name":"\u5317\u6d77\u9053\u958b\u767a\u5c40 \u672d\u5e4c\u958b\u767a\u5efa\u8a2d\u90e8","boring_xml_url":43,"boring_view_url":1,"soilmap_view_url":null,"soiltest_xml_url":43,"soiltest_view_url":42},{"id":237539,"code":"B4KJ201802000-3019","latitude":"43.322222","longitude":"141.682194","source_code":"HK20122111050034","project_name":"","survey_name":"\u5e73\u621024\u5e74\u5ea6 \u77f3\u72e9\u5ddd\u53f3\u5cb8\u4e0b\u6d41\u6cb3\u9053\u6398\u524a\u5916\u5730\u8cea\u8abf\u67fb\u696d\u52d9","client_name":"\u5317\u6d77\u9053\u958b\u767a\u5c40 \u672d\u5e4c\u958b\u767a\u5efa\u8a2d\u90e8","boring_xml_url":43,"boring_view_url":1,"soilmap_view_url":null,"soiltest_xml_url":43,"soiltest_view_url":42},{"id":237538,"code":"B4KJ201802000-3018","latitude":"43.319194","longitude":"141.677583","source_code":"HK20122111050033","project_name":"","survey_name":"\u5e73\u621024\u5e74\u5ea6 \u77f3\u72e9\u5ddd\u53f3\u5cb8\u4e0b\u6d41\u6cb3\u9053\u6398\u524a\u5916\u5730\u8cea\u8abf\u67fb\u696d\u52d9","client_name":"\u5317\u6d77\u9053\u958b\u767a\u5c40 \u672d\u5e4c\u958b\u767a\u5efa\u8a2d\u90e8","boring_xml_url":43,"boring_view_url":1,"soilmap_view_url":null,"soiltest_xml_url":43,"soiltest_view_url":42},{"id":237537,"code":"B4KJ201802000-3017","latitude":"43.315972","longitude":"141.673722","source_code":"HK20122111050032","project_name":"","survey_name":"\u5e73\u621024\u5e74\u5ea6 \u77f3\u72e9\u5ddd\u53f3\u5cb8\u4e0b\u6d41\u6cb3\u9053\u6398\u524a\u5916\u5730\u8cea\u8abf\u67fb\u696d\u52d9","client_name":"\u5317\u6d77\u9053\u958b\u767a\u5c40 \u672d\u5e4c\u958b\u767a\u5efa\u8a2d\u90e8","boring_xml_url":43,"boring_view_url":1,"soilmap_view_url":null,"soiltest_xml_url":43,"soiltest_view_url":42},{"id":237536,"code":"B4KJ201802000-3016","latitude":"43.312528","longitude":"141.668861","source_code":"HK20122111050031","project_name":"","survey_name":"\u5e73\u621024\u5e74\u5ea6 \u77f3\u72e9\u5ddd\u53f3\u5cb8\u4e0b\u6d41\u6cb3\u9053\u6398\u524a\u5916\u5730\u8cea\u8abf\u67fb\u696d\u52d9","client_name":"\u5317\u6d77\u9053\u958b\u767a\u5c40 \u672d\u5e4c\u958b\u767a\u5efa\u8a2d\u90e8","boring_xml_url":43,"boring_view_url":1,"soilmap_view_url":null,"soiltest_xml_url":43,"soiltest_view_url":42},{"id":237535,"code":"B4KJ201802000-3015","latitude":"43.309917","longitude":"141.664722","source_code":"HK20122111050030","project_name":"","survey_name":"\u5e73\u621024\u5e74\u5ea6 \u77f3\u72e9\u5ddd\u53f3\u5cb8\u4e0b\u6d41\u6cb3\u9053\u6398\u524a\u5916\u5730\u8cea\u8abf\u67fb\u696d\u52d9","client_name":"\u5317\u6d77\u9053\u958b\u767a\u5c40 \u672d\u5e4c\u958b\u767a\u5efa\u8a2d\u90e8","boring_xml_url":43,"boring_view_url":1,"soilmap_view_url":null,"soiltest_xml_url":43,"soiltest_view_url":42},{"id":237534,"code":"B4KJ201802000-3014","latitude":"43.30675","longitude":"141.659722","source_code":"HK20122111050029","project_name":"","survey_name":"\u5e73\u621024\u5e74\u5ea6 \u77f3\u72e9\u5ddd\u53f3\u5cb8\u4e0b\u6d41\u6cb3\u9053\u6398\u524a\u5916\u5730\u8cea\u8abf\u67fb\u696d\u52d9","client_name":"\u5317\u6d77\u9053\u958b\u767a\u5c40 \u672d\u5e4c\u958b\u767a\u5efa\u8a2d\u90e8","boring_xml_url":43,"boring_view_url":1,"soilmap_view_url":null,"soiltest_xml_url":43,"soiltest_view_url":42},{"id":237533,"code":"B4KJ201802000-3013","latitude":"43.302528","longitude":"141.656194","source_code":"HK20122111050028","project_name":"","survey_name":"\u5e73\u621024\u5e74\u5ea6 \u77f3\u72e9\u5ddd\u53f3\u5cb8\u4e0b\u6d41\u6cb3\u9053\u6398\u524a\u5916\u5730\u8cea\u8abf\u67fb\u696d\u52d9","client_name":"\u5317\u6d77\u9053\u958b\u767a\u5c40 \u672d\u5e4c\u958b\u767a\u5efa\u8a2d\u90e8","boring_xml_url":43,"boring_view_url":1,"soilmap_view_url":null,"soiltest_xml_url":43,"soiltest_view_url":42},{"id":237532,"code":"B4KJ201802000-3012","latitude":"43.297972","longitude":"141.654361","source_code":"HK20122111050027","project_name":"","survey_name":"\u5e73\u621024\u5e74\u5ea6 \u77f3\u72e9\u5ddd\u53f3\u5cb8\u4e0b\u6d41\u6cb3\u9053\u6398\u524a\u5916\u5730\u8cea\u8abf\u67fb\u696d\u52d9","client_name":"\u5317\u6d77\u9053\u958b\u767a\u5c40 \u672d\u5e4c\u958b\u767a\u5efa\u8a2d\u90e8","boring_xml_url":43,"boring_view_url":1,"soilmap_view_url":null,"soiltest_xml_url":43,"soiltest_view_url":42},{"id":237531,"code":"B4KJ201802000-3011","latitude":"43.2935","longitude":"141.653167","source_code":"HK20122111050026","project_name":"","survey_name":"\u5e73\u621024\u5e74\u5ea6 \u77f3\u72e9\u5ddd\u53f3\u5cb8\u4e0b\u6d41\u6cb3\u9053\u6398\u524a\u5916\u5730\u8cea\u8abf\u67fb\u696d\u52d9","client_name":"\u5317\u6d77\u9053\u958b\u767a\u5c40 \u672d\u5e4c\u958b\u767a\u5efa\u8a2d\u90e8","boring_xml_url":43,"boring_view_url":1,"soilmap_view_url":null,"soiltest_xml_url":43,"soiltest_view_url":42},{"id":237530,"code":"B4KJ201802000-3010","latitude":"43.288889","longitude":"141.653056","source_code":"HK20122111050025","project_name":"","survey_name":"\u5e73\u621024\u5e74\u5ea6 \u77f3\u72e9\u5ddd\u53f3\u5cb8\u4e0b\u6d41\u6cb3\u9053\u6398\u524a\u5916\u5730\u8cea\u8abf\u67fb\u696d\u52d9","client_name":"\u5317\u6d77\u9053\u958b\u767a\u5c40 \u672d\u5e4c\u958b\u767a\u5efa\u8a2d\u90e8","boring_xml_url":43,"boring_view_url":1,"soilmap_view_url":null,"soiltest_xml_url":43,"soiltest_view_url":42},{"id":237529,"code":"B4KJ201802000-3009","latitude":"43.284528","longitude":"141.652611","source_code":"HK20122111050024","project_name":"","survey_name":"\u5e73\u621024\u5e74\u5ea6 \u77f3\u72e9\u5ddd\u53f3\u5cb8\u4e0b\u6d41\u6cb3\u9053\u6398\u524a\u5916\u5730\u8cea\u8abf\u67fb\u696d\u52d9","client_name":"\u5317\u6d77\u9053\u958b\u767a\u5c40 \u672d\u5e4c\u958b\u767a\u5efa\u8a2d\u90e8","boring_xml_url":43,"boring_view_url":1,"soilmap_view_url":null,"soiltest_xml_url":43,"soiltest_view_url":42},{"id":237528,"code":"B4KJ201802000-3008","latitude":"43.281944","longitude":"141.653389","source_code":"HK20122111050023","project_name":"","survey_name":"\u5e73\u621024\u5e74\u5ea6 \u77f3\u72e9\u5ddd\u53f3\u5cb8\u4e0b\u6d41\u6cb3\u9053\u6398\u524a\u5916\u5730\u8cea\u8abf\u67fb\u696d\u52d9","client_name":"\u5317\u6d77\u9053\u958b\u767a\u5c40 \u672d\u5e4c\u958b\u767a\u5efa\u8a2d\u90e8","boring_xml_url":43,"boring_view_url":1,"soilmap_view_url":null,"soiltest_xml_url":43,"soiltest_view_url":42},{"id":237527,"code":"B4KJ201802000-3007","latitude":"43.280556","longitude":"141.654","source_code":"HK20122111050022","project_name":"","survey_name":"\u5e73\u621024\u5e74\u5ea6 \u77f3\u72e9\u5ddd\u53f3\u5cb8\u4e0b\u6d41\u6cb3\u9053\u6398\u524a\u5916\u5730\u8cea\u8abf\u67fb\u696d\u52d9","client_name":"\u5317\u6d77\u9053\u958b\u767a\u5c40 \u672d\u5e4c\u958b\u767a\u5efa\u8a2d\u90e8","boring_xml_url":43,"boring_view_url":1,"soilmap_view_url":null,"soiltest_xml_url":43,"soiltest_view_url":42},{"id":237526,"code":"B4KJ201802000-3006","latitude":"43.277306","longitude":"141.654306","source_code":"HK20122111050021","project_name":"","survey_name":"\u5e73\u621024\u5e74\u5ea6 \u77f3\u72e9\u5ddd\u53f3\u5cb8\u4e0b\u6d41\u6cb3\u9053\u6398\u524a\u5916\u5730\u8cea\u8abf\u67fb\u696d\u52d9","client_name":"\u5317\u6d77\u9053\u958b\u767a\u5c40 \u672d\u5e4c\u958b\u767a\u5efa\u8a2d\u90e8","boring_xml_url":43,"boring_view_url":1,"soilmap_view_url":null,"soiltest_xml_url":43,"soiltest_view_url":42},{"id":237525,"code":"B4KJ201802000-3005","latitude":"43.276028","longitude":"141.654444","source_code":"HK20122111050020","project_name":"","survey_name":"\u5e73\u621024\u5e74\u5ea6 \u77f3\u72e9\u5ddd\u53f3\u5cb8\u4e0b\u6d41\u6cb3\u9053\u6398\u524a\u5916\u5730\u8cea\u8abf\u67fb\u696d\u52d9","client_name":"\u5317\u6d77\u9053\u958b\u767a\u5c40 \u672d\u5e4c\u958b\u767a\u5efa\u8a2d\u90e8","boring_xml_url":43,"boring_view_url":1,"soilmap_view_url":null,"soiltest_xml_url":43,"soiltest_view_url":42},{"id":237524,"code":"B4KJ201802000-3004","latitude":"43.273278","longitude":"141.654222","source_code":"HK20122111050019","project_name":"","survey_name":"\u5e73\u621024\u5e74\u5ea6 \u77f3\u72e9\u5ddd\u53f3\u5cb8\u4e0b\u6d41\u6cb3\u9053\u6398\u524a\u5916\u5730\u8cea\u8abf\u67fb\u696d\u52d9","client_name":"\u5317\u6d77\u9053\u958b\u767a\u5c40 \u672d\u5e4c\u958b\u767a\u5efa\u8a2d\u90e8","boring_xml_url":43,"boring_view_url":1,"soilmap_view_url":null,"soiltest_xml_url":43,"soiltest_view_url":42},{"id":237523,"code":"B4KJ201802000-3003","latitude":"43.271306","longitude":"141.654278","source_code":"HK20122111050018","project_name":"","survey_name":"\u5e73\u621024\u5e74\u5ea6 \u77f3\u72e9\u5ddd\u53f3\u5cb8\u4e0b\u6d41\u6cb3\u9053\u6398\u524a\u5916\u5730\u8cea\u8abf\u67fb\u696d\u52d9","client_name":"\u5317\u6d77\u9053\u958b\u767a\u5c40 \u672d\u5e4c\u958b\u767a\u5efa\u8a2d\u90e8","boring_xml_url":43,"boring_view_url":1,"soilmap_view_url":null,"soiltest_xml_url":43,"soiltest_view_url":42},{"id":237522,"code":"B4KJ201802000-3002","latitude":"43.268583","longitude":"141.653583","source_code":"HK20122111050017","project_name":"","survey_name":"\u5e73\u621024\u5e74\u5ea6 \u77f3\u72e9\u5ddd\u53f3\u5cb8\u4e0b\u6d41\u6cb3\u9053\u6398\u524a\u5916\u5730\u8cea\u8abf\u67fb\u696d\u52d9","client_name":"\u5317\u6d77\u9053\u958b\u767a\u5c40 \u672d\u5e4c\u958b\u767a\u5efa\u8a2d\u90e8","boring_xml_url":43,"boring_view_url":1,"soilmap_view_url":null,"soiltest_xml_url":43,"soiltest_view_url":42},{"id":237521,"code":"B4KJ201802000-3001","latitude":"43.267","longitude":"141.654028","source_code":"HK20122111050016","project_name":"","survey_name":"\u5e73\u621024\u5e74\u5ea6 \u77f3\u72e9\u5ddd\u53f3\u5cb8\u4e0b\u6d41\u6cb3\u9053\u6398\u524a\u5916\u5730\u8cea\u8abf\u67fb\u696d\u52d9","client_name":"\u5317\u6d77\u9053\u958b\u767a\u5c40 \u672d\u5e4c\u958b\u767a\u5efa\u8a2d\u90e8","boring_xml_url":43,"boring_view_url":1,"soilmap_view_url":null,"soiltest_xml_url":43,"soiltest_view_url":42},{"id":237520,"code":"B4KJ201802000-3000","latitude":"43.262306","longitude":"141.654556","source_code":"HK20122111050015","project_name":"","survey_name":"\u5e73\u621024\u5e74\u5ea6 \u77f3\u72e9\u5ddd\u53f3\u5cb8\u4e0b\u6d41\u6cb3\u9053\u6398\u524a\u5916\u5730\u8cea\u8abf\u67fb\u696d\u52d9","client_name":"\u5317\u6d77\u9053\u958b\u767a\u5c40 \u672d\u5e4c\u958b\u767a\u5efa\u8a2d\u90e8","boring_xml_url":43,"boring_view_url":1,"soilmap_view_url":null,"soiltest_xml_url":43,"soiltest_view_url":42}]}}