{"header":{"xyz":{"source":[],"mosaic":false},"page":3104,"raw":{"soiltest_result":"0","bbox":"57.598333,109.544722,1.933333,163.806111","page":"3104"},"conditions":{"soiltest_result":0,"north":57.598333,"west":109.544722,"south":1.933333,"east":163.806111},"success":true,"message":""},"data":{"meta":{"total":212844,"page":3104,"pages":7095,"count":30},"values":[{"id":237429,"code":"B4KJ201802000-2909","latitude":"43.276222","longitude":"141.980722","source_code":"HK20132100300003","project_name":"\u4e09\u7b20\u307d\u3093\u3079\u3064\u30c0\u30e0\u5730\u8cea\u8abf\u67fb\u696d\u52d9","survey_name":"\u4e09\u7b20\u307d\u3093\u3079\u3064\u30c0\u30e0\u5730\u8cea\u8abf\u67fb\u696d\u52d9","client_name":"\u5317\u6d77\u9053\u958b\u767a\u5c40 \u672d\u5e4c\u958b\u767a\u5efa\u8a2d\u90e8","boring_xml_url":43,"boring_view_url":1,"soilmap_view_url":null,"soiltest_xml_url":0,"soiltest_view_url":0},{"id":237428,"code":"B4KJ201802000-2908","latitude":"43.2775","longitude":"141.976583","source_code":"HK20132100300002","project_name":"\u4e09\u7b20\u307d\u3093\u3079\u3064\u30c0\u30e0\u5730\u8cea\u8abf\u67fb\u696d\u52d9","survey_name":"\u4e09\u7b20\u307d\u3093\u3079\u3064\u30c0\u30e0\u5730\u8cea\u8abf\u67fb\u696d\u52d9","client_name":"\u5317\u6d77\u9053\u958b\u767a\u5c40 \u672d\u5e4c\u958b\u767a\u5efa\u8a2d\u90e8","boring_xml_url":43,"boring_view_url":1,"soilmap_view_url":null,"soiltest_xml_url":0,"soiltest_view_url":0},{"id":237427,"code":"B4KJ201802000-2907","latitude":"43.274222","longitude":"141.978","source_code":"HK20132100300001","project_name":"\u4e09\u7b20\u307d\u3093\u3079\u3064\u30c0\u30e0\u5730\u8cea\u8abf\u67fb\u696d\u52d9","survey_name":"\u4e09\u7b20\u307d\u3093\u3079\u3064\u30c0\u30e0\u5730\u8cea\u8abf\u67fb\u696d\u52d9","client_name":"\u5317\u6d77\u9053\u958b\u767a\u5c40 \u672d\u5e4c\u958b\u767a\u5efa\u8a2d\u90e8","boring_xml_url":43,"boring_view_url":1,"soilmap_view_url":null,"soiltest_xml_url":0,"soiltest_view_url":0},{"id":237426,"code":"B4KJ201802000-2906","latitude":"43.200222","longitude":"142.023028","source_code":"HK20102100120002","project_name":"\u5e7e\u6625\u5225\u5ddd\u7dcf\u5408\u958b\u767a\u4e8b\u696d\u306e\u5185\u4ed8\u66ff\u6797\u9053\u6a4b\u5730\u8cea\u8abf\u67fb\u5916\u696d\u52d9","survey_name":"\u5e7e\u6625\u5225\u5ddd\u7dcf\u5408\u958b\u767a\u4e8b\u696d\u306e\u5185\u4ed8\u66ff\u6797\u9053\u6a4b\u5730\u8cea\u8abf\u67fb\u5916\u696d\u52d9","client_name":"\u5317\u6d77\u9053\u958b\u767a\u5c40 \u672d\u5e4c\u958b\u767a\u5efa\u8a2d\u90e8","boring_xml_url":43,"boring_view_url":1,"soilmap_view_url":null,"soiltest_xml_url":0,"soiltest_view_url":0},{"id":237425,"code":"B4KJ201802000-2905","latitude":"43.200444","longitude":"142.023333","source_code":"HK20102100120001","project_name":"\u5e7e\u6625\u5225\u5ddd\u7dcf\u5408\u958b\u767a\u4e8b\u696d\u306e\u5185\u4ed8\u66ff\u6797\u9053\u6a4b\u5730\u8cea\u8abf\u67fb\u5916\u696d\u52d9","survey_name":"\u5e7e\u6625\u5225\u5ddd\u7dcf\u5408\u958b\u767a\u4e8b\u696d\u306e\u5185\u4ed8\u66ff\u6797\u9053\u6a4b\u5730\u8cea\u8abf\u67fb\u5916\u696d\u52d9","client_name":"\u5317\u6d77\u9053\u958b\u767a\u5c40 \u672d\u5e4c\u958b\u767a\u5efa\u8a2d\u90e8","boring_xml_url":43,"boring_view_url":1,"soilmap_view_url":null,"soiltest_xml_url":0,"soiltest_view_url":0},{"id":237424,"code":"B4KJ201802000-2904","latitude":"43.989806","longitude":"142.106333","source_code":"HK20132114090004","project_name":"\u96e8\u7adc\u5ddd\u5e4c\u52a0\u5185\u5730\u533a\u5730\u8cea\u8abf\u67fb","survey_name":"\u96e8\u7adc\u5ddd\u5e4c\u52a0\u5185\u5730\u533a\u5730\u8cea\u8abf\u67fb\u696d\u52d9","client_name":"\u5317\u6d77\u9053\u958b\u767a\u5c40\u672d\u5e4c\u958b\u767a\u5efa\u8a2d\u90e8","boring_xml_url":43,"boring_view_url":1,"soilmap_view_url":null,"soiltest_xml_url":0,"soiltest_view_url":0},{"id":237423,"code":"B4KJ201802000-2903","latitude":"43.989972","longitude":"142.106472","source_code":"HK20132114090003","project_name":"\u96e8\u7adc\u5ddd\u5e4c\u52a0\u5185\u5730\u533a\u5730\u8cea\u8abf\u67fb","survey_name":"\u96e8\u7adc\u5ddd\u5e4c\u52a0\u5185\u5730\u533a\u5730\u8cea\u8abf\u67fb\u696d\u52d9","client_name":"\u5317\u6d77\u9053\u958b\u767a\u5c40\u672d\u5e4c\u958b\u767a\u5efa\u8a2d\u90e8","boring_xml_url":43,"boring_view_url":1,"soilmap_view_url":null,"soiltest_xml_url":0,"soiltest_view_url":0},{"id":237422,"code":"B4KJ201802000-2902","latitude":"43.990278","longitude":"142.10575","source_code":"HK20132114090002","project_name":"\u96e8\u7adc\u5ddd\u5e4c\u52a0\u5185\u5730\u533a\u5730\u8cea\u8abf\u67fb","survey_name":"\u96e8\u7adc\u5ddd\u5e4c\u52a0\u5185\u5730\u533a\u5730\u8cea\u8abf\u67fb\u696d\u52d9","client_name":"\u5317\u6d77\u9053\u958b\u767a\u5c40\u672d\u5e4c\u958b\u767a\u5efa\u8a2d\u90e8","boring_xml_url":43,"boring_view_url":1,"soilmap_view_url":null,"soiltest_xml_url":0,"soiltest_view_url":0},{"id":237421,"code":"B4KJ201802000-2901","latitude":"43.990444","longitude":"142.105944","source_code":"HK20132114090001","project_name":"\u96e8\u7adc\u5ddd\u5e4c\u52a0\u5185\u5730\u533a\u5730\u8cea\u8abf\u67fb","survey_name":"\u96e8\u7adc\u5ddd\u5e4c\u52a0\u5185\u5730\u533a\u5730\u8cea\u8abf\u67fb\u696d\u52d9","client_name":"\u5317\u6d77\u9053\u958b\u767a\u5c40\u672d\u5e4c\u958b\u767a\u5efa\u8a2d\u90e8","boring_xml_url":43,"boring_view_url":1,"soilmap_view_url":null,"soiltest_xml_url":0,"soiltest_view_url":0},{"id":237420,"code":"B4KJ201802000-2900","latitude":"42.804167","longitude":"141.333611","source_code":"HK20122158230007","project_name":"\u4e00\u822c\u56fd\u9053453\u53f7 \u5343\u6b73\u5e02 \u652f\u7b0f\u571f\u7802\u9632\u8b77\u67f5\u8a2d\u8a08\u5916\u4e00\u9023\u696d\u52d9","survey_name":"\u4e00\u822c\u56fd\u9053453\u53f7 \u5343\u6b73\u5e02 \u652f\u7b0f\u571f\u7802\u9632\u8b77\u67f5\u8a2d\u8a08\u5916\u4e00\u9023\u696d\u52d9","client_name":"\u5317\u6d77\u9053\u958b\u767a\u5c40\u672d\u5e4c\u958b\u767a\u5efa\u8a2d\u90e8","boring_xml_url":43,"boring_view_url":1,"soilmap_view_url":null,"soiltest_xml_url":0,"soiltest_view_url":0},{"id":237419,"code":"B4KJ201802000-2899","latitude":"42.802111","longitude":"141.325861","source_code":"HK20122158230006","project_name":"\u4e00\u822c\u56fd\u9053453\u53f7 \u5343\u6b73\u5e02 \u652f\u7b0f\u571f\u7802\u9632\u8b77\u67f5\u8a2d\u8a08\u5916\u4e00\u9023\u696d\u52d9","survey_name":"\u4e00\u822c\u56fd\u9053453\u53f7 \u5343\u6b73\u5e02 \u652f\u7b0f\u571f\u7802\u9632\u8b77\u67f5\u8a2d\u8a08\u5916\u4e00\u9023\u696d\u52d9","client_name":"\u5317\u6d77\u9053\u958b\u767a\u5c40\u672d\u5e4c\u958b\u767a\u5efa\u8a2d\u90e8","boring_xml_url":43,"boring_view_url":1,"soilmap_view_url":null,"soiltest_xml_url":0,"soiltest_view_url":0},{"id":237418,"code":"B4KJ201802000-2898","latitude":"42.801722","longitude":"141.324944","source_code":"HK20122158230005","project_name":"\u4e00\u822c\u56fd\u9053453\u53f7 \u5343\u6b73\u5e02 \u652f\u7b0f\u571f\u7802\u9632\u8b77\u67f5\u8a2d\u8a08\u5916\u4e00\u9023\u696d\u52d9","survey_name":"\u4e00\u822c\u56fd\u9053453\u53f7 \u5343\u6b73\u5e02 \u652f\u7b0f\u571f\u7802\u9632\u8b77\u67f5\u8a2d\u8a08\u5916\u4e00\u9023\u696d\u52d9","client_name":"\u5317\u6d77\u9053\u958b\u767a\u5c40\u672d\u5e4c\u958b\u767a\u5efa\u8a2d\u90e8","boring_xml_url":43,"boring_view_url":1,"soilmap_view_url":null,"soiltest_xml_url":0,"soiltest_view_url":0},{"id":237417,"code":"B4KJ201802000-2897","latitude":"42.800833","longitude":"141.323694","source_code":"HK20122158230004","project_name":"\u4e00\u822c\u56fd\u9053453\u53f7 \u5343\u6b73\u5e02 \u652f\u7b0f\u571f\u7802\u9632\u8b77\u67f5\u8a2d\u8a08\u5916\u4e00\u9023\u696d\u52d9","survey_name":"\u4e00\u822c\u56fd\u9053453\u53f7 \u5343\u6b73\u5e02 \u652f\u7b0f\u571f\u7802\u9632\u8b77\u67f5\u8a2d\u8a08\u5916\u4e00\u9023\u696d\u52d9","client_name":"\u5317\u6d77\u9053\u958b\u767a\u5c40\u672d\u5e4c\u958b\u767a\u5efa\u8a2d\u90e8","boring_xml_url":43,"boring_view_url":1,"soilmap_view_url":null,"soiltest_xml_url":0,"soiltest_view_url":0},{"id":237416,"code":"B4KJ201802000-2896","latitude":"42.800583","longitude":"141.322889","source_code":"HK20122158230003","project_name":"\u4e00\u822c\u56fd\u9053453\u53f7 \u5343\u6b73\u5e02 \u652f\u7b0f\u571f\u7802\u9632\u8b77\u67f5\u8a2d\u8a08\u5916\u4e00\u9023\u696d\u52d9","survey_name":"\u4e00\u822c\u56fd\u9053453\u53f7 \u5343\u6b73\u5e02 \u652f\u7b0f\u571f\u7802\u9632\u8b77\u67f5\u8a2d\u8a08\u5916\u4e00\u9023\u696d\u52d9","client_name":"\u5317\u6d77\u9053\u958b\u767a\u5c40\u672d\u5e4c\u958b\u767a\u5efa\u8a2d\u90e8","boring_xml_url":43,"boring_view_url":1,"soilmap_view_url":null,"soiltest_xml_url":0,"soiltest_view_url":0},{"id":237415,"code":"B4KJ201802000-2895","latitude":"42.818306","longitude":"141.286083","source_code":"HK20122158230002","project_name":"\u4e00\u822c\u56fd\u9053453\u53f7 \u5343\u6b73\u5e02 \u652f\u7b0f\u571f\u7802\u9632\u8b77\u67f5\u8a2d\u8a08\u5916\u4e00\u9023\u696d\u52d9","survey_name":"\u4e00\u822c\u56fd\u9053453\u53f7 \u5343\u6b73\u5e02 \u652f\u7b0f\u571f\u7802\u9632\u8b77\u67f5\u8a2d\u8a08\u5916\u4e00\u9023\u696d\u52d9","client_name":"\u5317\u6d77\u9053\u958b\u767a\u5c40\u672d\u5e4c\u958b\u767a\u5efa\u8a2d\u90e8","boring_xml_url":43,"boring_view_url":1,"soilmap_view_url":null,"soiltest_xml_url":0,"soiltest_view_url":0},{"id":237414,"code":"B4KJ201802000-2894","latitude":"42.819167","longitude":"141.284944","source_code":"HK20122158230001","project_name":"\u4e00\u822c\u56fd\u9053453\u53f7 \u5343\u6b73\u5e02 \u652f\u7b0f\u571f\u7802\u9632\u8b77\u67f5\u8a2d\u8a08\u5916\u4e00\u9023\u696d\u52d9","survey_name":"\u4e00\u822c\u56fd\u9053453\u53f7 \u5343\u6b73\u5e02 \u652f\u7b0f\u571f\u7802\u9632\u8b77\u67f5\u8a2d\u8a08\u5916\u4e00\u9023\u696d\u52d9","client_name":"\u5317\u6d77\u9053\u958b\u767a\u5c40\u672d\u5e4c\u958b\u767a\u5efa\u8a2d\u90e8","boring_xml_url":43,"boring_view_url":1,"soilmap_view_url":null,"soiltest_xml_url":0,"soiltest_view_url":0},{"id":237413,"code":"B4KJ201802000-2893","latitude":"43.65325","longitude":"141.351361","source_code":"HK20132156640017","project_name":"","survey_name":"\u4e00\u822c\u56fd\u9053451\u53f7 \u65b0+\u6d25\u5ddd\u753a \u5e4c\u52a0\u5730\u8cea\u8abf\u67fb\u5916\u4e00\u9023\u696d\u52d9","client_name":"\u5317\u6d77\u9053\u958b\u767a\u5c40 \u672d\u5e4c\u958b\u767a\u5efa\u8a2d\u90e8","boring_xml_url":43,"boring_view_url":1,"soilmap_view_url":null,"soiltest_xml_url":0,"soiltest_view_url":0},{"id":237412,"code":"B4KJ201802000-2892","latitude":"43.560972","longitude":"141.895667","source_code":"HK20132156640016","project_name":"","survey_name":"\u4e00\u822c\u56fd\u9053451\u53f7 \u65b0+\u6d25\u5ddd\u753a \u5e4c\u52a0\u5730\u8cea\u8abf\u67fb\u5916\u4e00\u9023\u696d\u52d9","client_name":"\u5317\u6d77\u9053\u958b\u767a\u5c40 \u672d\u5e4c\u958b\u767a\u5efa\u8a2d\u90e8","boring_xml_url":43,"boring_view_url":1,"soilmap_view_url":null,"soiltest_xml_url":0,"soiltest_view_url":0},{"id":237411,"code":"B4KJ201802000-2891","latitude":"43.555","longitude":"141.665611","source_code":"HK20132156640013","project_name":"","survey_name":"\u4e00\u822c\u56fd\u9053451\u53f7 \u65b0+\u6d25\u5ddd\u753a \u5e4c\u52a0\u5730\u8cea\u8abf\u67fb\u5916\u4e00\u9023\u696d\u52d9","client_name":"\u5317\u6d77\u9053\u958b\u767a\u5c40 \u672d\u5e4c\u958b\u767a\u5efa\u8a2d\u90e8","boring_xml_url":43,"boring_view_url":1,"soilmap_view_url":null,"soiltest_xml_url":0,"soiltest_view_url":0},{"id":237410,"code":"B4KJ201802000-2890","latitude":"43.554667","longitude":"141.66575","source_code":"HK20132156640012","project_name":"","survey_name":"\u4e00\u822c\u56fd\u9053451\u53f7 \u65b0+\u6d25\u5ddd\u753a \u5e4c\u52a0\u5730\u8cea\u8abf\u67fb\u5916\u4e00\u9023\u696d\u52d9","client_name":"\u5317\u6d77\u9053\u958b\u767a\u5c40 \u672d\u5e4c\u958b\u767a\u5efa\u8a2d\u90e8","boring_xml_url":43,"boring_view_url":1,"soilmap_view_url":null,"soiltest_xml_url":0,"soiltest_view_url":0},{"id":237409,"code":"B4KJ201802000-2889","latitude":"43.554639","longitude":"141.665583","source_code":"HK20132156640011","project_name":"","survey_name":"\u4e00\u822c\u56fd\u9053451\u53f7 \u65b0+\u6d25\u5ddd\u753a \u5e4c\u52a0\u5730\u8cea\u8abf\u67fb\u5916\u4e00\u9023\u696d\u52d9","client_name":"\u5317\u6d77\u9053\u958b\u767a\u5c40 \u672d\u5e4c\u958b\u767a\u5efa\u8a2d\u90e8","boring_xml_url":43,"boring_view_url":1,"soilmap_view_url":null,"soiltest_xml_url":0,"soiltest_view_url":0},{"id":237408,"code":"B4KJ201802000-2888","latitude":"43.554444","longitude":"141.665361","source_code":"HK20132156640009","project_name":"","survey_name":"\u4e00\u822c\u56fd\u9053451\u53f7 \u65b0+\u6d25\u5ddd\u753a \u5e4c\u52a0\u5730\u8cea\u8abf\u67fb\u5916\u4e00\u9023\u696d\u52d9","client_name":"\u5317\u6d77\u9053\u958b\u767a\u5c40 \u672d\u5e4c\u958b\u767a\u5efa\u8a2d\u90e8","boring_xml_url":43,"boring_view_url":1,"soilmap_view_url":null,"soiltest_xml_url":0,"soiltest_view_url":0},{"id":237407,"code":"B4KJ201802000-2887","latitude":"43.552","longitude":"141.610917","source_code":"HK20132156640008","project_name":"","survey_name":"\u4e00\u822c\u56fd\u9053451\u53f7 \u65b0+\u6d25\u5ddd\u753a \u5e4c\u52a0\u5730\u8cea\u8abf\u67fb\u5916\u4e00\u9023\u696d\u52d9","client_name":"\u5317\u6d77\u9053\u958b\u767a\u5c40 \u672d\u5e4c\u958b\u767a\u5efa\u8a2d\u90e8","boring_xml_url":43,"boring_view_url":1,"soilmap_view_url":null,"soiltest_xml_url":0,"soiltest_view_url":0},{"id":237406,"code":"B4KJ201802000-2886","latitude":"43.552056","longitude":"141.660083","source_code":"HK20132156640007","project_name":"","survey_name":"\u4e00\u822c\u56fd\u9053451\u53f7 \u65b0+\u6d25\u5ddd\u753a \u5e4c\u52a0\u5730\u8cea\u8abf\u67fb\u5916\u4e00\u9023\u696d\u52d9","client_name":"\u5317\u6d77\u9053\u958b\u767a\u5c40 \u672d\u5e4c\u958b\u767a\u5efa\u8a2d\u90e8","boring_xml_url":43,"boring_view_url":1,"soilmap_view_url":null,"soiltest_xml_url":0,"soiltest_view_url":0},{"id":237405,"code":"B4KJ201802000-2885","latitude":"43.55925","longitude":"141.56175","source_code":"HK20132156640006","project_name":"","survey_name":"\u4e00\u822c\u56fd\u9053451\u53f7 \u65b0+\u6d25\u5ddd\u753a \u5e4c\u52a0\u5730\u8cea\u8abf\u67fb\u5916\u4e00\u9023\u696d\u52d9","client_name":"\u5317\u6d77\u9053\u958b\u767a\u5c40 \u672d\u5e4c\u958b\u767a\u5efa\u8a2d\u90e8","boring_xml_url":43,"boring_view_url":1,"soilmap_view_url":null,"soiltest_xml_url":0,"soiltest_view_url":0},{"id":237404,"code":"B4KJ201802000-2884","latitude":"43.559417","longitude":"141.561917","source_code":"HK20132156640005","project_name":"","survey_name":"\u4e00\u822c\u56fd\u9053451\u53f7 \u65b0+\u6d25\u5ddd\u753a \u5e4c\u52a0\u5730\u8cea\u8abf\u67fb\u5916\u4e00\u9023\u696d\u52d9","client_name":"\u5317\u6d77\u9053\u958b\u767a\u5c40 \u672d\u5e4c\u958b\u767a\u5efa\u8a2d\u90e8","boring_xml_url":43,"boring_view_url":1,"soilmap_view_url":null,"soiltest_xml_url":0,"soiltest_view_url":0},{"id":237403,"code":"B4KJ201802000-2883","latitude":"43.559389","longitude":"141.561861","source_code":"HK20132156640004","project_name":"","survey_name":"\u4e00\u822c\u56fd\u9053451\u53f7 \u65b0+\u6d25\u5ddd\u753a \u5e4c\u52a0\u5730\u8cea\u8abf\u67fb\u5916\u4e00\u9023\u696d\u52d9","client_name":"\u5317\u6d77\u9053\u958b\u767a\u5c40 \u672d\u5e4c\u958b\u767a\u5efa\u8a2d\u90e8","boring_xml_url":43,"boring_view_url":1,"soilmap_view_url":null,"soiltest_xml_url":0,"soiltest_view_url":0},{"id":237402,"code":"B4KJ201802000-2882","latitude":"43.573417","longitude":"141.556417","source_code":"HK20132156640003","project_name":"","survey_name":"\u4e00\u822c\u56fd\u9053451\u53f7 \u65b0+\u6d25\u5ddd\u753a \u5e4c\u52a0\u5730\u8cea\u8abf\u67fb\u5916\u4e00\u9023\u696d\u52d9","client_name":"\u5317\u6d77\u9053\u958b\u767a\u5c40 \u672d\u5e4c\u958b\u767a\u5efa\u8a2d\u90e8","boring_xml_url":43,"boring_view_url":1,"soilmap_view_url":null,"soiltest_xml_url":0,"soiltest_view_url":0},{"id":237401,"code":"B4KJ201802000-2881","latitude":"43.592361","longitude":"141.551806","source_code":"HK20132156640002","project_name":"","survey_name":"\u4e00\u822c\u56fd\u9053451\u53f7 \u65b0+\u6d25\u5ddd\u753a \u5e4c\u52a0\u5730\u8cea\u8abf\u67fb\u5916\u4e00\u9023\u696d\u52d9","client_name":"\u5317\u6d77\u9053\u958b\u767a\u5c40 \u672d\u5e4c\u958b\u767a\u5efa\u8a2d\u90e8","boring_xml_url":43,"boring_view_url":1,"soilmap_view_url":null,"soiltest_xml_url":0,"soiltest_view_url":0},{"id":237400,"code":"B4KJ201802000-2880","latitude":"43.592222","longitude":"141.551667","source_code":"HK20132156640001","project_name":"","survey_name":"\u4e00\u822c\u56fd\u9053451\u53f7 \u65b0+\u6d25\u5ddd\u753a \u5e4c\u52a0\u5730\u8cea\u8abf\u67fb\u5916\u4e00\u9023\u696d\u52d9","client_name":"\u5317\u6d77\u9053\u958b\u767a\u5c40 \u672d\u5e4c\u958b\u767a\u5efa\u8a2d\u90e8","boring_xml_url":43,"boring_view_url":1,"soilmap_view_url":null,"soiltest_xml_url":0,"soiltest_view_url":0}]}}