{"header":{"xyz":{"source":[],"mosaic":false},"page":3111,"raw":{"soiltest_result":"0","bbox":"57.598333,109.544722,1.933333,163.806111","page":"3111"},"conditions":{"soiltest_result":0,"north":57.598333,"west":109.544722,"south":1.933333,"east":163.806111},"success":true,"message":""},"data":{"meta":{"total":212844,"page":3111,"pages":7095,"count":30},"values":[{"id":237219,"code":"B4KJ201802000-2699","latitude":"43.338056","longitude":"144.12","source_code":"HK20092712840002","project_name":"","survey_name":"\u5f1f\u5b50\u5c48\u9053\u8def\u4e8b\u52d9\u6240\u7ba1\u5185\u5730\u8cea\u8abf\u67fb\u696d\u52d9","client_name":"\u5317\u6d77\u9053\u958b\u767a\u5c40 \u91e7\u8def\u958b\u767a\u5efa\u8a2d\u90e8","boring_xml_url":43,"boring_view_url":1,"soilmap_view_url":null,"soiltest_xml_url":0,"soiltest_view_url":0},{"id":237218,"code":"B4KJ201802000-2698","latitude":"43.336667","longitude":"144.113889","source_code":"HK20092712840001","project_name":"","survey_name":"\u5f1f\u5b50\u5c48\u9053\u8def\u4e8b\u52d9\u6240\u7ba1\u5185\u5730\u8cea\u8abf\u67fb\u696d\u52d9","client_name":"\u5317\u6d77\u9053\u958b\u767a\u5c40 \u91e7\u8def\u958b\u767a\u5efa\u8a2d\u90e8","boring_xml_url":43,"boring_view_url":1,"soilmap_view_url":null,"soiltest_xml_url":0,"soiltest_view_url":0},{"id":237217,"code":"B4KJ201802000-2697","latitude":"43.022333","longitude":"144.54325","source_code":"HK20112712610002","project_name":"","survey_name":"\u91e7\u8def\u4e2d\u6a19\u6d25\u9053\u8def \u91e7\u8def\u753a\u5916 \u8edf\u5f31\u5730\u76e4\u89e3\u6790\u691c\u8a0e\u5916\u4e00\u9023\u696d\u52d9","client_name":"\u5317\u6d77\u9053\u958b\u767a\u5c40 \u91e7\u8def\u958b\u767a\u5efa\u8a2d\u90e8","boring_xml_url":43,"boring_view_url":1,"soilmap_view_url":null,"soiltest_xml_url":0,"soiltest_view_url":0},{"id":237216,"code":"B4KJ201802000-2696","latitude":"43.022667","longitude":"144.543333","source_code":"HK20112712610001","project_name":"","survey_name":"\u91e7\u8def\u4e2d\u6a19\u6d25\u9053\u8def \u91e7\u8def\u753a\u5916 \u8edf\u5f31\u5730\u76e4\u89e3\u6790\u691c\u8a0e\u5916\u4e00\u9023\u696d\u52d9","client_name":"\u5317\u6d77\u9053\u958b\u767a\u5c40 \u91e7\u8def\u958b\u767a\u5efa\u8a2d\u90e8","boring_xml_url":43,"boring_view_url":1,"soilmap_view_url":null,"soiltest_xml_url":0,"soiltest_view_url":0},{"id":237215,"code":"B4KJ201802000-2695","latitude":"43.036583","longitude":"144.565417","source_code":"HK20072706750017","project_name":"\u91e7\u8def\u4e2d\u6a19\u6d25\u9053\u8def","survey_name":"\u91e7\u8def\u4e2d\u6a19\u6d25\u9053\u8def \u91e7\u8def\u753a \u4e0a\u5225\u4fdd\u9053\u8def\u5730\u8cea\u8abf\u67fb\u696d\u52d9","client_name":"\u5317\u6d77\u9053\u958b\u767a\u5c40 \u91e7\u8def\u958b\u767a\u5efa\u8a2d\u90e8","boring_xml_url":43,"boring_view_url":1,"soilmap_view_url":null,"soiltest_xml_url":46,"soiltest_view_url":45},{"id":237214,"code":"B4KJ201802000-2694","latitude":"43.036444","longitude":"144.565611","source_code":"HK20072706750016","project_name":"\u91e7\u8def\u4e2d\u6a19\u6d25\u9053\u8def","survey_name":"\u91e7\u8def\u4e2d\u6a19\u6d25\u9053\u8def \u91e7\u8def\u753a \u4e0a\u5225\u4fdd\u9053\u8def\u5730\u8cea\u8abf\u67fb\u696d\u52d9","client_name":"\u5317\u6d77\u9053\u958b\u767a\u5c40 \u91e7\u8def\u958b\u767a\u5efa\u8a2d\u90e8","boring_xml_url":43,"boring_view_url":1,"soilmap_view_url":null,"soiltest_xml_url":46,"soiltest_view_url":45},{"id":237213,"code":"B4KJ201802000-2693","latitude":"43.032972","longitude":"144.559472","source_code":"HK20072706750015","project_name":"\u91e7\u8def\u4e2d\u6a19\u6d25\u9053\u8def","survey_name":"\u91e7\u8def\u4e2d\u6a19\u6d25\u9053\u8def \u91e7\u8def\u753a \u4e0a\u5225\u4fdd\u9053\u8def\u5730\u8cea\u8abf\u67fb\u696d\u52d9","client_name":"\u5317\u6d77\u9053\u958b\u767a\u5c40 \u91e7\u8def\u958b\u767a\u5efa\u8a2d\u90e8","boring_xml_url":43,"boring_view_url":1,"soilmap_view_url":null,"soiltest_xml_url":0,"soiltest_view_url":0},{"id":237212,"code":"B4KJ201802000-2692","latitude":"43.032694","longitude":"144.559694","source_code":"HK20072706750014","project_name":"\u91e7\u8def\u4e2d\u6a19\u6d25\u9053\u8def","survey_name":"\u91e7\u8def\u4e2d\u6a19\u6d25\u9053\u8def \u91e7\u8def\u753a \u4e0a\u5225\u4fdd\u9053\u8def\u5730\u8cea\u8abf\u67fb\u696d\u52d9","client_name":"\u5317\u6d77\u9053\u958b\u767a\u5c40 \u91e7\u8def\u958b\u767a\u5efa\u8a2d\u90e8","boring_xml_url":43,"boring_view_url":1,"soilmap_view_url":null,"soiltest_xml_url":46,"soiltest_view_url":45},{"id":237211,"code":"B4KJ201802000-2691","latitude":"43.00825","longitude":"144.510222","source_code":"HK20072706750013","project_name":"\u91e7\u8def\u4e2d\u6a19\u6d25\u9053\u8def","survey_name":"\u91e7\u8def\u4e2d\u6a19\u6d25\u9053\u8def \u91e7\u8def\u753a \u4e0a\u5225\u4fdd\u9053\u8def\u5730\u8cea\u8abf\u67fb\u696d\u52d9","client_name":"\u5317\u6d77\u9053\u958b\u767a\u5c40 \u91e7\u8def\u958b\u767a\u5efa\u8a2d\u90e8","boring_xml_url":43,"boring_view_url":1,"soilmap_view_url":null,"soiltest_xml_url":46,"soiltest_view_url":45},{"id":237210,"code":"B4KJ201802000-2690","latitude":"43.008056","longitude":"144.509889","source_code":"HK20072706750012","project_name":"\u91e7\u8def\u4e2d\u6a19\u6d25\u9053\u8def","survey_name":"\u91e7\u8def\u4e2d\u6a19\u6d25\u9053\u8def \u91e7\u8def\u753a \u4e0a\u5225\u4fdd\u9053\u8def\u5730\u8cea\u8abf\u67fb\u696d\u52d9","client_name":"\u5317\u6d77\u9053\u958b\u767a\u5c40 \u91e7\u8def\u958b\u767a\u5efa\u8a2d\u90e8","boring_xml_url":43,"boring_view_url":1,"soilmap_view_url":null,"soiltest_xml_url":46,"soiltest_view_url":45},{"id":237209,"code":"B4KJ201802000-2689","latitude":"43.006194","longitude":"144.506528","source_code":"HK20072706750011","project_name":"\u91e7\u8def\u4e2d\u6a19\u6d25\u9053\u8def","survey_name":"\u91e7\u8def\u4e2d\u6a19\u6d25\u9053\u8def \u91e7\u8def\u753a \u4e0a\u5225\u4fdd\u9053\u8def\u5730\u8cea\u8abf\u67fb\u696d\u52d9","client_name":"\u5317\u6d77\u9053\u958b\u767a\u5c40 \u91e7\u8def\u958b\u767a\u5efa\u8a2d\u90e8","boring_xml_url":43,"boring_view_url":1,"soilmap_view_url":null,"soiltest_xml_url":46,"soiltest_view_url":45},{"id":237208,"code":"B4KJ201802000-2688","latitude":"43.005972","longitude":"144.505778","source_code":"HK20072706750010","project_name":"\u91e7\u8def\u4e2d\u6a19\u6d25\u9053\u8def","survey_name":"\u91e7\u8def\u4e2d\u6a19\u6d25\u9053\u8def \u91e7\u8def\u753a \u4e0a\u5225\u4fdd\u9053\u8def\u5730\u8cea\u8abf\u67fb\u696d\u52d9","client_name":"\u5317\u6d77\u9053\u958b\u767a\u5c40 \u91e7\u8def\u958b\u767a\u5efa\u8a2d\u90e8","boring_xml_url":43,"boring_view_url":1,"soilmap_view_url":null,"soiltest_xml_url":46,"soiltest_view_url":45},{"id":237207,"code":"B4KJ201802000-2687","latitude":"43.021944","longitude":"144.541444","source_code":"HK20072706750009","project_name":"\u91e7\u8def\u4e2d\u6a19\u6d25\u9053\u8def","survey_name":"\u91e7\u8def\u4e2d\u6a19\u6d25\u9053\u8def \u91e7\u8def\u753a \u4e0a\u5225\u4fdd\u9053\u8def\u5730\u8cea\u8abf\u67fb\u696d\u52d9","client_name":"\u5317\u6d77\u9053\u958b\u767a\u5c40 \u91e7\u8def\u958b\u767a\u5efa\u8a2d\u90e8","boring_xml_url":43,"boring_view_url":1,"soilmap_view_url":null,"soiltest_xml_url":46,"soiltest_view_url":45},{"id":237206,"code":"B4KJ201802000-2686","latitude":"43.02125","longitude":"144.540306","source_code":"HK20072706750008","project_name":"\u91e7\u8def\u4e2d\u6a19\u6d25\u9053\u8def","survey_name":"\u91e7\u8def\u4e2d\u6a19\u6d25\u9053\u8def \u91e7\u8def\u753a \u4e0a\u5225\u4fdd\u9053\u8def\u5730\u8cea\u8abf\u67fb\u696d\u52d9","client_name":"\u5317\u6d77\u9053\u958b\u767a\u5c40 \u91e7\u8def\u958b\u767a\u5efa\u8a2d\u90e8","boring_xml_url":43,"boring_view_url":1,"soilmap_view_url":null,"soiltest_xml_url":0,"soiltest_view_url":0},{"id":237205,"code":"B4KJ201802000-2685","latitude":"43.020861","longitude":"144.535111","source_code":"HK20072706750007","project_name":"\u91e7\u8def\u4e2d\u6a19\u6d25\u9053\u8def","survey_name":"\u91e7\u8def\u4e2d\u6a19\u6d25\u9053\u8def \u91e7\u8def\u753a \u4e0a\u5225\u4fdd\u9053\u8def\u5730\u8cea\u8abf\u67fb\u696d\u52d9","client_name":"\u5317\u6d77\u9053\u958b\u767a\u5c40 \u91e7\u8def\u958b\u767a\u5efa\u8a2d\u90e8","boring_xml_url":43,"boring_view_url":1,"soilmap_view_url":null,"soiltest_xml_url":0,"soiltest_view_url":0},{"id":237204,"code":"B4KJ201802000-2684","latitude":"43.006472","longitude":"144.507417","source_code":"HK20072706750006","project_name":"\u91e7\u8def\u4e2d\u6a19\u6d25\u9053\u8def","survey_name":"\u91e7\u8def\u4e2d\u6a19\u6d25\u9053\u8def \u91e7\u8def\u753a \u4e0a\u5225\u4fdd\u9053\u8def\u5730\u8cea\u8abf\u67fb\u696d\u52d9","client_name":"\u5317\u6d77\u9053\u958b\u767a\u5c40 \u91e7\u8def\u958b\u767a\u5efa\u8a2d\u90e8","boring_xml_url":43,"boring_view_url":1,"soilmap_view_url":null,"soiltest_xml_url":46,"soiltest_view_url":45},{"id":237203,"code":"B4KJ201802000-2683","latitude":"43.006278","longitude":"144.507583","source_code":"HK20072706750005","project_name":"\u91e7\u8def\u4e2d\u6a19\u6d25\u9053\u8def","survey_name":"\u91e7\u8def\u4e2d\u6a19\u6d25\u9053\u8def \u91e7\u8def\u753a \u4e0a\u5225\u4fdd\u9053\u8def\u5730\u8cea\u8abf\u67fb\u696d\u52d9","client_name":"\u5317\u6d77\u9053\u958b\u767a\u5c40 \u91e7\u8def\u958b\u767a\u5efa\u8a2d\u90e8","boring_xml_url":43,"boring_view_url":1,"soilmap_view_url":null,"soiltest_xml_url":46,"soiltest_view_url":45},{"id":237202,"code":"B4KJ201802000-2682","latitude":"43.005583","longitude":"144.505028","source_code":"HK20072706750004","project_name":"\u91e7\u8def\u4e2d\u6a19\u6d25\u9053\u8def","survey_name":"\u91e7\u8def\u4e2d\u6a19\u6d25\u9053\u8def \u91e7\u8def\u753a \u4e0a\u5225\u4fdd\u9053\u8def\u5730\u8cea\u8abf\u67fb\u696d\u52d9","client_name":"\u5317\u6d77\u9053\u958b\u767a\u5c40 \u91e7\u8def\u958b\u767a\u5efa\u8a2d\u90e8","boring_xml_url":43,"boring_view_url":1,"soilmap_view_url":null,"soiltest_xml_url":46,"soiltest_view_url":45},{"id":237201,"code":"B4KJ201802000-2681","latitude":"43.005222","longitude":"144.504167","source_code":"HK20072706750003","project_name":"\u91e7\u8def\u4e2d\u6a19\u6d25\u9053\u8def","survey_name":"\u91e7\u8def\u4e2d\u6a19\u6d25\u9053\u8def \u91e7\u8def\u753a \u4e0a\u5225\u4fdd\u9053\u8def\u5730\u8cea\u8abf\u67fb\u696d\u52d9","client_name":"\u5317\u6d77\u9053\u958b\u767a\u5c40 \u91e7\u8def\u958b\u767a\u5efa\u8a2d\u90e8","boring_xml_url":43,"boring_view_url":1,"soilmap_view_url":null,"soiltest_xml_url":0,"soiltest_view_url":0},{"id":237200,"code":"B4KJ201802000-2680","latitude":"43.005389","longitude":"144.503778","source_code":"HK20072706750002","project_name":"\u91e7\u8def\u4e2d\u6a19\u6d25\u9053\u8def","survey_name":"\u91e7\u8def\u4e2d\u6a19\u6d25\u9053\u8def \u91e7\u8def\u753a \u4e0a\u5225\u4fdd\u9053\u8def\u5730\u8cea\u8abf\u67fb\u696d\u52d9","client_name":"\u5317\u6d77\u9053\u958b\u767a\u5c40 \u91e7\u8def\u958b\u767a\u5efa\u8a2d\u90e8","boring_xml_url":43,"boring_view_url":1,"soilmap_view_url":null,"soiltest_xml_url":0,"soiltest_view_url":0},{"id":237199,"code":"B4KJ201802000-2679","latitude":"43.004917","longitude":"144.503556","source_code":"HK20072706750001","project_name":"\u91e7\u8def\u4e2d\u6a19\u6d25\u9053\u8def","survey_name":"\u91e7\u8def\u4e2d\u6a19\u6d25\u9053\u8def \u91e7\u8def\u753a \u4e0a\u5225\u4fdd\u9053\u8def\u5730\u8cea\u8abf\u67fb\u696d\u52d9","client_name":"\u5317\u6d77\u9053\u958b\u767a\u5c40 \u91e7\u8def\u958b\u767a\u5efa\u8a2d\u90e8","boring_xml_url":43,"boring_view_url":1,"soilmap_view_url":null,"soiltest_xml_url":0,"soiltest_view_url":0},{"id":237198,"code":"B4KJ201802000-2678","latitude":"43.029472","longitude":"144.401389","source_code":"HK20112705940010","project_name":"","survey_name":"\u4e00\u822c\u56fd\u905344\u53f7\u91e7\u8def\u753a\u5916\u5225\u4fdd\u5730\u533a\u5916\u5730\u8cea\u8abf\u67fb\u696d\u52d9","client_name":"\u5317\u6d77\u9053\u958b\u767a\u5c40 \u91e7\u8def\u958b\u767a\u5efa\u8a2d\u90e8","boring_xml_url":43,"boring_view_url":1,"soilmap_view_url":null,"soiltest_xml_url":43,"soiltest_view_url":42},{"id":237197,"code":"B4KJ201802000-2677","latitude":"43.02625","longitude":"144.399389","source_code":"HK20112705940009","project_name":"","survey_name":"\u4e00\u822c\u56fd\u905344\u53f7\u91e7\u8def\u753a\u5916\u5225\u4fdd\u5730\u533a\u5916\u5730\u8cea\u8abf\u67fb\u696d\u52d9","client_name":"\u5317\u6d77\u9053\u958b\u767a\u5c40 \u91e7\u8def\u958b\u767a\u5efa\u8a2d\u90e8","boring_xml_url":43,"boring_view_url":1,"soilmap_view_url":null,"soiltest_xml_url":43,"soiltest_view_url":42},{"id":237196,"code":"B4KJ201802000-2676","latitude":"42.995972","longitude":"144.197722","source_code":"HK20112705940005","project_name":"","survey_name":"\u4e00\u822c\u56fd\u905344\u53f7\u91e7\u8def\u753a\u5916\u5225\u4fdd\u5730\u533a\u5916\u5730\u8cea\u8abf\u67fb\u696d\u52d9","client_name":"\u5317\u6d77\u9053\u958b\u767a\u5c40 \u91e7\u8def\u958b\u767a\u5efa\u8a2d\u90e8","boring_xml_url":43,"boring_view_url":1,"soilmap_view_url":null,"soiltest_xml_url":43,"soiltest_view_url":42},{"id":237195,"code":"B4KJ201802000-2675","latitude":"42.99975","longitude":"144.479528","source_code":"HK20112705940004","project_name":"","survey_name":"\u4e00\u822c\u56fd\u905344\u53f7\u91e7\u8def\u753a\u5916\u5225\u4fdd\u5730\u533a\u5916\u5730\u8cea\u8abf\u67fb\u696d\u52d9","client_name":"\u5317\u6d77\u9053\u958b\u767a\u5c40 \u91e7\u8def\u958b\u767a\u5efa\u8a2d\u90e8","boring_xml_url":43,"boring_view_url":1,"soilmap_view_url":null,"soiltest_xml_url":0,"soiltest_view_url":0},{"id":237194,"code":"B4KJ201802000-2674","latitude":"42.999639","longitude":"144.479972","source_code":"HK20112705940003","project_name":"","survey_name":"\u4e00\u822c\u56fd\u905344\u53f7\u91e7\u8def\u753a\u5916\u5225\u4fdd\u5730\u533a\u5916\u5730\u8cea\u8abf\u67fb\u696d\u52d9","client_name":"\u5317\u6d77\u9053\u958b\u767a\u5c40 \u91e7\u8def\u958b\u767a\u5efa\u8a2d\u90e8","boring_xml_url":43,"boring_view_url":1,"soilmap_view_url":null,"soiltest_xml_url":0,"soiltest_view_url":0},{"id":237193,"code":"B4KJ201802000-2673","latitude":"42.999444","longitude":"144.48","source_code":"HK20112705940002","project_name":"","survey_name":"\u4e00\u822c\u56fd\u905344\u53f7\u91e7\u8def\u753a\u5916\u5225\u4fdd\u5730\u533a\u5916\u5730\u8cea\u8abf\u67fb\u696d\u52d9","client_name":"\u5317\u6d77\u9053\u958b\u767a\u5c40 \u91e7\u8def\u958b\u767a\u5efa\u8a2d\u90e8","boring_xml_url":43,"boring_view_url":1,"soilmap_view_url":null,"soiltest_xml_url":0,"soiltest_view_url":0},{"id":237192,"code":"B4KJ201802000-2672","latitude":"42.999528","longitude":"144.480028","source_code":"HK20112705940001","project_name":"","survey_name":"\u4e00\u822c\u56fd\u905344\u53f7\u91e7\u8def\u753a\u5916\u5225\u4fdd\u5730\u533a\u5916\u5730\u8cea\u8abf\u67fb\u696d\u52d9","client_name":"\u5317\u6d77\u9053\u958b\u767a\u5c40 \u91e7\u8def\u958b\u767a\u5efa\u8a2d\u90e8","boring_xml_url":43,"boring_view_url":1,"soilmap_view_url":null,"soiltest_xml_url":0,"soiltest_view_url":0},{"id":237191,"code":"B4KJ201802000-2671","latitude":"43.240028","longitude":"145.277667","source_code":"HK20112723380001","project_name":"","survey_name":"\u4e00\u822c\u56fd\u905344\u53f7 \u6839\u5ba4\u5e02 \u6839\u5ba4\u9632\u96ea\u9053\u8def\u8a73\u7d30\u8a2d\u8a08\u5916\u4e00\u9023\u696d\u52d9","client_name":"\u5317\u6d77\u9053\u958b\u767a\u5c40 \u91e7\u8def\u958b\u767a\u5efa\u8a2d\u90e8","boring_xml_url":43,"boring_view_url":1,"soilmap_view_url":null,"soiltest_xml_url":43,"soiltest_view_url":42},{"id":237190,"code":"B4KJ201802000-2670","latitude":"43.059833","longitude":"143.844056","source_code":"HK20112705940008","project_name":"","survey_name":"\u4e00\u822c\u56fd\u905344\u53f7 \u91e7\u8def\u753a\u5916 \u5225\u4fdd\u5730\u533a\u5916\u5730\u8cea\u8abf\u67fb\u696d\u52d9","client_name":"\u5317\u6d77\u9053\u958b\u767a\u5c40 \u91e7\u8def\u958b\u767a\u5efa\u8a2d\u90e8","boring_xml_url":43,"boring_view_url":1,"soilmap_view_url":null,"soiltest_xml_url":0,"soiltest_view_url":0}]}}