{"header":{"xyz":{"source":[],"mosaic":false},"page":3113,"raw":{"soiltest_result":"0","bbox":"57.598333,109.544722,1.933333,163.806111","page":"3113"},"conditions":{"soiltest_result":0,"north":57.598333,"west":109.544722,"south":1.933333,"east":163.806111},"success":true,"message":""},"data":{"meta":{"total":212844,"page":3113,"pages":7095,"count":30},"values":[{"id":237159,"code":"B4KJ201802000-2639","latitude":"44.524417","longitude":"142.3255","source_code":"HK20122514220016","project_name":"","survey_name":"\u5929\u5869\u5ddd\u4e0a\u6d41\u540d\u5bc4\u6cb3\u5ddd\u4e8b\u52d9\u6240\u7ba1\u5185\u5730\u8cea\u8abf\u67fb\u696d\u52d9","client_name":"\u5317\u6d77\u9053\u958b\u767a\u5c40 \u65ed\u5ddd\u958b\u767a\u5efa\u8a2d\u90e8 \u540d\u5bc4\u6cb3\u5ddd\u4e8b\u52d9\u6240","boring_xml_url":43,"boring_view_url":1,"soilmap_view_url":null,"soiltest_xml_url":43,"soiltest_view_url":42},{"id":237158,"code":"B4KJ201802000-2638","latitude":"44.524611","longitude":"142.325444","source_code":"HK20122514220015","project_name":"","survey_name":"\u5929\u5869\u5ddd\u4e0a\u6d41\u540d\u5bc4\u6cb3\u5ddd\u4e8b\u52d9\u6240\u7ba1\u5185\u5730\u8cea\u8abf\u67fb\u696d\u52d9","client_name":"\u5317\u6d77\u9053\u958b\u767a\u5c40 \u65ed\u5ddd\u958b\u767a\u5efa\u8a2d\u90e8 \u540d\u5bc4\u6cb3\u5ddd\u4e8b\u52d9\u6240","boring_xml_url":43,"boring_view_url":1,"soilmap_view_url":null,"soiltest_xml_url":43,"soiltest_view_url":42},{"id":237157,"code":"B4KJ201802000-2637","latitude":"44.52475","longitude":"142.325417","source_code":"HK20122514220014","project_name":"","survey_name":"\u5929\u5869\u5ddd\u4e0a\u6d41\u540d\u5bc4\u6cb3\u5ddd\u4e8b\u52d9\u6240\u7ba1\u5185\u5730\u8cea\u8abf\u67fb\u696d\u52d9","client_name":"\u5317\u6d77\u9053\u958b\u767a\u5c40 \u65ed\u5ddd\u958b\u767a\u5efa\u8a2d\u90e8 \u540d\u5bc4\u6cb3\u5ddd\u4e8b\u52d9\u6240","boring_xml_url":43,"boring_view_url":1,"soilmap_view_url":null,"soiltest_xml_url":43,"soiltest_view_url":42},{"id":237156,"code":"B4KJ201802000-2636","latitude":"44.525361","longitude":"142.329722","source_code":"HK20122514220013","project_name":"","survey_name":"\u5929\u5869\u5ddd\u4e0a\u6d41\u540d\u5bc4\u6cb3\u5ddd\u4e8b\u52d9\u6240\u7ba1\u5185\u5730\u8cea\u8abf\u67fb\u696d\u52d9","client_name":"\u5317\u6d77\u9053\u958b\u767a\u5c40 \u65ed\u5ddd\u958b\u767a\u5efa\u8a2d\u90e8 \u540d\u5bc4\u6cb3\u5ddd\u4e8b\u52d9\u6240","boring_xml_url":43,"boring_view_url":1,"soilmap_view_url":null,"soiltest_xml_url":43,"soiltest_view_url":42},{"id":237155,"code":"B4KJ201802000-2635","latitude":"44.5255","longitude":"142.329639","source_code":"HK20122514220012","project_name":"","survey_name":"\u5929\u5869\u5ddd\u4e0a\u6d41\u540d\u5bc4\u6cb3\u5ddd\u4e8b\u52d9\u6240\u7ba1\u5185\u5730\u8cea\u8abf\u67fb\u696d\u52d9","client_name":"\u5317\u6d77\u9053\u958b\u767a\u5c40 \u65ed\u5ddd\u958b\u767a\u5efa\u8a2d\u90e8 \u540d\u5bc4\u6cb3\u5ddd\u4e8b\u52d9\u6240","boring_xml_url":43,"boring_view_url":1,"soilmap_view_url":null,"soiltest_xml_url":43,"soiltest_view_url":42},{"id":237154,"code":"B4KJ201802000-2634","latitude":"44.525639","longitude":"142.329556","source_code":"HK20122514220011","project_name":"","survey_name":"\u5929\u5869\u5ddd\u4e0a\u6d41\u540d\u5bc4\u6cb3\u5ddd\u4e8b\u52d9\u6240\u7ba1\u5185\u5730\u8cea\u8abf\u67fb\u696d\u52d9","client_name":"\u5317\u6d77\u9053\u958b\u767a\u5c40 \u65ed\u5ddd\u958b\u767a\u5efa\u8a2d\u90e8 \u540d\u5bc4\u6cb3\u5ddd\u4e8b\u52d9\u6240","boring_xml_url":43,"boring_view_url":1,"soilmap_view_url":null,"soiltest_xml_url":43,"soiltest_view_url":42},{"id":237153,"code":"B4KJ201802000-2633","latitude":"44.528444","longitude":"142.337139","source_code":"HK20122514220010","project_name":"","survey_name":"\u5929\u5869\u5ddd\u4e0a\u6d41\u540d\u5bc4\u6cb3\u5ddd\u4e8b\u52d9\u6240\u7ba1\u5185\u5730\u8cea\u8abf\u67fb\u696d\u52d9","client_name":"\u5317\u6d77\u9053\u958b\u767a\u5c40 \u65ed\u5ddd\u958b\u767a\u5efa\u8a2d\u90e8 \u540d\u5bc4\u6cb3\u5ddd\u4e8b\u52d9\u6240","boring_xml_url":43,"boring_view_url":1,"soilmap_view_url":null,"soiltest_xml_url":43,"soiltest_view_url":42},{"id":237152,"code":"B4KJ201802000-2632","latitude":"44.528639","longitude":"142.337056","source_code":"HK20122514220009","project_name":"","survey_name":"\u5929\u5869\u5ddd\u4e0a\u6d41\u540d\u5bc4\u6cb3\u5ddd\u4e8b\u52d9\u6240\u7ba1\u5185\u5730\u8cea\u8abf\u67fb\u696d\u52d9","client_name":"\u5317\u6d77\u9053\u958b\u767a\u5c40 \u65ed\u5ddd\u958b\u767a\u5efa\u8a2d\u90e8 \u540d\u5bc4\u6cb3\u5ddd\u4e8b\u52d9\u6240","boring_xml_url":43,"boring_view_url":1,"soilmap_view_url":null,"soiltest_xml_url":43,"soiltest_view_url":42},{"id":237151,"code":"B4KJ201802000-2631","latitude":"44.528806","longitude":"142.336972","source_code":"HK20122514220008","project_name":"","survey_name":"\u5929\u5869\u5ddd\u4e0a\u6d41\u540d\u5bc4\u6cb3\u5ddd\u4e8b\u52d9\u6240\u7ba1\u5185\u5730\u8cea\u8abf\u67fb\u696d\u52d9","client_name":"\u5317\u6d77\u9053\u958b\u767a\u5c40 \u65ed\u5ddd\u958b\u767a\u5efa\u8a2d\u90e8 \u540d\u5bc4\u6cb3\u5ddd\u4e8b\u52d9\u6240","boring_xml_url":43,"boring_view_url":1,"soilmap_view_url":null,"soiltest_xml_url":43,"soiltest_view_url":42},{"id":237150,"code":"B4KJ201802000-2630","latitude":"44.541222","longitude":"142.327833","source_code":"HK20122514220007","project_name":"","survey_name":"\u5929\u5869\u5ddd\u4e0a\u6d41\u540d\u5bc4\u6cb3\u5ddd\u4e8b\u52d9\u6240\u7ba1\u5185\u5730\u8cea\u8abf\u67fb\u696d\u52d9","client_name":"\u5317\u6d77\u9053\u958b\u767a\u5c40 \u65ed\u5ddd\u958b\u767a\u5efa\u8a2d\u90e8 \u540d\u5bc4\u6cb3\u5ddd\u4e8b\u52d9\u6240","boring_xml_url":43,"boring_view_url":1,"soilmap_view_url":null,"soiltest_xml_url":43,"soiltest_view_url":42},{"id":237149,"code":"B4KJ201802000-2629","latitude":"44.5435","longitude":"142.327667","source_code":"HK20122514220006","project_name":"","survey_name":"\u5929\u5869\u5ddd\u4e0a\u6d41\u540d\u5bc4\u6cb3\u5ddd\u4e8b\u52d9\u6240\u7ba1\u5185\u5730\u8cea\u8abf\u67fb\u696d\u52d9","client_name":"\u5317\u6d77\u9053\u958b\u767a\u5c40 \u65ed\u5ddd\u958b\u767a\u5efa\u8a2d\u90e8 \u540d\u5bc4\u6cb3\u5ddd\u4e8b\u52d9\u6240","boring_xml_url":43,"boring_view_url":1,"soilmap_view_url":null,"soiltest_xml_url":43,"soiltest_view_url":42},{"id":237148,"code":"B4KJ201802000-2628","latitude":"44.557889","longitude":"142.330194","source_code":"HK20122514220005","project_name":"","survey_name":"\u5929\u5869\u5ddd\u4e0a\u6d41\u540d\u5bc4\u6cb3\u5ddd\u4e8b\u52d9\u6240\u7ba1\u5185\u5730\u8cea\u8abf\u67fb\u696d\u52d9","client_name":"\u5317\u6d77\u9053\u958b\u767a\u5c40 \u65ed\u5ddd\u958b\u767a\u5efa\u8a2d\u90e8 \u540d\u5bc4\u6cb3\u5ddd\u4e8b\u52d9\u6240","boring_xml_url":43,"boring_view_url":1,"soilmap_view_url":null,"soiltest_xml_url":43,"soiltest_view_url":42},{"id":237147,"code":"B4KJ201802000-2627","latitude":"44.559583","longitude":"142.329722","source_code":"HK20122514220004","project_name":"","survey_name":"\u5929\u5869\u5ddd\u4e0a\u6d41\u540d\u5bc4\u6cb3\u5ddd\u4e8b\u52d9\u6240\u7ba1\u5185\u5730\u8cea\u8abf\u67fb\u696d\u52d9","client_name":"\u5317\u6d77\u9053\u958b\u767a\u5c40 \u65ed\u5ddd\u958b\u767a\u5efa\u8a2d\u90e8 \u540d\u5bc4\u6cb3\u5ddd\u4e8b\u52d9\u6240","boring_xml_url":43,"boring_view_url":1,"soilmap_view_url":null,"soiltest_xml_url":43,"soiltest_view_url":42},{"id":237146,"code":"B4KJ201802000-2626","latitude":"44.762528","longitude":"142.052611","source_code":"HK20122514220003","project_name":"","survey_name":"\u5929\u5869\u5ddd\u4e0a\u6d41\u540d\u5bc4\u6cb3\u5ddd\u4e8b\u52d9\u6240\u7ba1\u5185\u5730\u8cea\u8abf\u67fb\u696d\u52d9","client_name":"\u5317\u6d77\u9053\u958b\u767a\u5c40 \u65ed\u5ddd\u958b\u767a\u5efa\u8a2d\u90e8 \u540d\u5bc4\u6cb3\u5ddd\u4e8b\u52d9\u6240","boring_xml_url":43,"boring_view_url":1,"soilmap_view_url":null,"soiltest_xml_url":43,"soiltest_view_url":42},{"id":237145,"code":"B4KJ201802000-2625","latitude":"44.762389","longitude":"142.052833","source_code":"HK20122514220002","project_name":"","survey_name":"\u5929\u5869\u5ddd\u4e0a\u6d41\u540d\u5bc4\u6cb3\u5ddd\u4e8b\u52d9\u6240\u7ba1\u5185\u5730\u8cea\u8abf\u67fb\u696d\u52d9","client_name":"\u5317\u6d77\u9053\u958b\u767a\u5c40 \u65ed\u5ddd\u958b\u767a\u5efa\u8a2d\u90e8 \u540d\u5bc4\u6cb3\u5ddd\u4e8b\u52d9\u6240","boring_xml_url":43,"boring_view_url":1,"soilmap_view_url":null,"soiltest_xml_url":43,"soiltest_view_url":42},{"id":237144,"code":"B4KJ201802000-2624","latitude":"44.762278","longitude":"142.052917","source_code":"HK20122514220001","project_name":"","survey_name":"\u5929\u5869\u5ddd\u4e0a\u6d41\u540d\u5bc4\u6cb3\u5ddd\u4e8b\u52d9\u6240\u7ba1\u5185\u5730\u8cea\u8abf\u67fb\u696d\u52d9","client_name":"\u5317\u6d77\u9053\u958b\u767a\u5c40 \u65ed\u5ddd\u958b\u767a\u5efa\u8a2d\u90e8 \u540d\u5bc4\u6cb3\u5ddd\u4e8b\u52d9\u6240","boring_xml_url":43,"boring_view_url":1,"soilmap_view_url":null,"soiltest_xml_url":43,"soiltest_view_url":42},{"id":237143,"code":"B4KJ201802000-2623","latitude":"44.844444","longitude":"142.074444","source_code":"HK20082514040001","project_name":"\u5929\u5869\u5ddd\u4e0a\u6d41\u30d1\u30f3\u30b1\u30ca\u30a4\u5ddd\u4f4e\u6c34\u8def\u4fdd\u8b77\u5de5\u8a2d\u8a08\u696d\u52d9","survey_name":"\u5929\u5869\u5ddd\u4e0a\u6d41\u30d1\u30f3\u30b1\u30ca\u30a4\u5ddd\u4f4e\u6c34\u8def\u4fdd\u8b77\u5de5\u8a2d\u8a08\u696d\u52d9","client_name":"\u5317\u6d77\u9053\u958b\u767a\u5c40\u65ed\u5ddd\u958b\u767a\u5efa\u8a2d\u90e8\u540d\u5bc4\u6cb3\u5ddd\u4e8b\u52d9\u6240","boring_xml_url":43,"boring_view_url":1,"soilmap_view_url":null,"soiltest_xml_url":46,"soiltest_view_url":45},{"id":237142,"code":"B4KJ201802000-2622","latitude":"44.190667","longitude":"142.415722","source_code":"HK20072514130026","project_name":"\u6cb3\u5ddd\u6574\u5099\u4e8b\u696d","survey_name":"\u5929\u5869\u5ddd\u4e0a\u6d41 \u540d\u5bc4\u6cb3\u5ddd\u4e8b\u52d9\u6240\u7ba1\u5185\u5730\u8cea\u8abf\u67fb\u696d\u52d9","client_name":"\u5317\u6d77\u9053\u958b\u767a\u5c40 \u65ed\u5ddd\u958b\u767a\u5efa\u8a2d\u90e8 \u540d\u5bc4\u6cb3\u5ddd\u4e8b\u52d9\u6240","boring_xml_url":43,"boring_view_url":1,"soilmap_view_url":null,"soiltest_xml_url":0,"soiltest_view_url":0},{"id":237141,"code":"B4KJ201802000-2621","latitude":"44.190556","longitude":"142.415306","source_code":"HK20072514130025","project_name":"\u6cb3\u5ddd\u6574\u5099\u4e8b\u696d","survey_name":"\u5929\u5869\u5ddd\u4e0a\u6d41 \u540d\u5bc4\u6cb3\u5ddd\u4e8b\u52d9\u6240\u7ba1\u5185\u5730\u8cea\u8abf\u67fb\u696d\u52d9","client_name":"\u5317\u6d77\u9053\u958b\u767a\u5c40 \u65ed\u5ddd\u958b\u767a\u5efa\u8a2d\u90e8 \u540d\u5bc4\u6cb3\u5ddd\u4e8b\u52d9\u6240","boring_xml_url":43,"boring_view_url":1,"soilmap_view_url":null,"soiltest_xml_url":46,"soiltest_view_url":45},{"id":237140,"code":"B4KJ201802000-2620","latitude":"44.190583","longitude":"142.415472","source_code":"HK20072514130024","project_name":"\u6cb3\u5ddd\u6574\u5099\u4e8b\u696d","survey_name":"\u5929\u5869\u5ddd\u4e0a\u6d41 \u540d\u5bc4\u6cb3\u5ddd\u4e8b\u52d9\u6240\u7ba1\u5185\u5730\u8cea\u8abf\u67fb\u696d\u52d9","client_name":"\u5317\u6d77\u9053\u958b\u767a\u5c40 \u65ed\u5ddd\u958b\u767a\u5efa\u8a2d\u90e8 \u540d\u5bc4\u6cb3\u5ddd\u4e8b\u52d9\u6240","boring_xml_url":43,"boring_view_url":1,"soilmap_view_url":null,"soiltest_xml_url":46,"soiltest_view_url":45},{"id":237139,"code":"B4KJ201802000-2619","latitude":"44.482472","longitude":"142.333528","source_code":"HK20072514130023","project_name":"\u6cb3\u5ddd\u6574\u5099\u4e8b\u696d","survey_name":"\u5929\u5869\u5ddd\u4e0a\u6d41 \u540d\u5bc4\u6cb3\u5ddd\u4e8b\u52d9\u6240\u7ba1\u5185\u5730\u8cea\u8abf\u67fb\u696d\u52d9","client_name":"\u5317\u6d77\u9053\u958b\u767a\u5c40 \u65ed\u5ddd\u958b\u767a\u5efa\u8a2d\u90e8 \u540d\u5bc4\u6cb3\u5ddd\u4e8b\u52d9\u6240","boring_xml_url":43,"boring_view_url":1,"soilmap_view_url":null,"soiltest_xml_url":46,"soiltest_view_url":45},{"id":237138,"code":"B4KJ201802000-2618","latitude":"44.487417","longitude":"142.331944","source_code":"HK20072514130022","project_name":"\u6cb3\u5ddd\u6574\u5099\u4e8b\u696d","survey_name":"\u5929\u5869\u5ddd\u4e0a\u6d41 \u540d\u5bc4\u6cb3\u5ddd\u4e8b\u52d9\u6240\u7ba1\u5185\u5730\u8cea\u8abf\u67fb\u696d\u52d9","client_name":"\u5317\u6d77\u9053\u958b\u767a\u5c40 \u65ed\u5ddd\u958b\u767a\u5efa\u8a2d\u90e8 \u540d\u5bc4\u6cb3\u5ddd\u4e8b\u52d9\u6240","boring_xml_url":43,"boring_view_url":1,"soilmap_view_url":null,"soiltest_xml_url":46,"soiltest_view_url":45},{"id":237137,"code":"B4KJ201802000-2617","latitude":"44.492139","longitude":"142.330917","source_code":"HK20072514130021","project_name":"\u6cb3\u5ddd\u6574\u5099\u4e8b\u696d","survey_name":"\u5929\u5869\u5ddd\u4e0a\u6d41 \u540d\u5bc4\u6cb3\u5ddd\u4e8b\u52d9\u6240\u7ba1\u5185\u5730\u8cea\u8abf\u67fb\u696d\u52d9","client_name":"\u5317\u6d77\u9053\u958b\u767a\u5c40 \u65ed\u5ddd\u958b\u767a\u5efa\u8a2d\u90e8 \u540d\u5bc4\u6cb3\u5ddd\u4e8b\u52d9\u6240","boring_xml_url":43,"boring_view_url":1,"soilmap_view_url":null,"soiltest_xml_url":46,"soiltest_view_url":45},{"id":237136,"code":"B4KJ201802000-2616","latitude":"44.580722","longitude":"142.314333","source_code":"HK20072514130020","project_name":"\u6cb3\u5ddd\u6574\u5099\u4e8b\u696d","survey_name":"\u5929\u5869\u5ddd\u4e0a\u6d41 \u540d\u5bc4\u6cb3\u5ddd\u4e8b\u52d9\u6240\u7ba1\u5185\u5730\u8cea\u8abf\u67fb\u696d\u52d9","client_name":"\u5317\u6d77\u9053\u958b\u767a\u5c40 \u65ed\u5ddd\u958b\u767a\u5efa\u8a2d\u90e8 \u540d\u5bc4\u6cb3\u5ddd\u4e8b\u52d9\u6240","boring_xml_url":43,"boring_view_url":1,"soilmap_view_url":null,"soiltest_xml_url":46,"soiltest_view_url":45},{"id":237135,"code":"B4KJ201802000-2615","latitude":"44.582528","longitude":"142.313694","source_code":"HK20072514130019","project_name":"\u6cb3\u5ddd\u6574\u5099\u4e8b\u696d","survey_name":"\u5929\u5869\u5ddd\u4e0a\u6d41 \u540d\u5bc4\u6cb3\u5ddd\u4e8b\u52d9\u6240\u7ba1\u5185\u5730\u8cea\u8abf\u67fb\u696d\u52d9","client_name":"\u5317\u6d77\u9053\u958b\u767a\u5c40 \u65ed\u5ddd\u958b\u767a\u5efa\u8a2d\u90e8 \u540d\u5bc4\u6cb3\u5ddd\u4e8b\u52d9\u6240","boring_xml_url":43,"boring_view_url":1,"soilmap_view_url":null,"soiltest_xml_url":46,"soiltest_view_url":45},{"id":237134,"code":"B4KJ201802000-2614","latitude":"44.729667","longitude":"142.255028","source_code":"HK20072514130018","project_name":"\u6cb3\u5ddd\u6574\u5099\u4e8b\u696d","survey_name":"\u5929\u5869\u5ddd\u4e0a\u6d41 \u540d\u5bc4\u6cb3\u5ddd\u4e8b\u52d9\u6240\u7ba1\u5185\u5730\u8cea\u8abf\u67fb\u696d\u52d9","client_name":"\u5317\u6d77\u9053\u958b\u767a\u5c40 \u65ed\u5ddd\u958b\u767a\u5efa\u8a2d\u90e8 \u540d\u5bc4\u6cb3\u5ddd\u4e8b\u52d9\u6240","boring_xml_url":43,"boring_view_url":1,"soilmap_view_url":null,"soiltest_xml_url":46,"soiltest_view_url":45},{"id":237133,"code":"B4KJ201802000-2613","latitude":"44.729278","longitude":"142.25575","source_code":"HK20072514130017","project_name":"\u6cb3\u5ddd\u6574\u5099\u4e8b\u696d","survey_name":"\u5929\u5869\u5ddd\u4e0a\u6d41 \u540d\u5bc4\u6cb3\u5ddd\u4e8b\u52d9\u6240\u7ba1\u5185\u5730\u8cea\u8abf\u67fb\u696d\u52d9","client_name":"\u5317\u6d77\u9053\u958b\u767a\u5c40 \u65ed\u5ddd\u958b\u767a\u5efa\u8a2d\u90e8 \u540d\u5bc4\u6cb3\u5ddd\u4e8b\u52d9\u6240","boring_xml_url":43,"boring_view_url":1,"soilmap_view_url":null,"soiltest_xml_url":46,"soiltest_view_url":45},{"id":237132,"code":"B4KJ201802000-2612","latitude":"44.728611","longitude":"142.256083","source_code":"HK20072514130016","project_name":"\u6cb3\u5ddd\u6574\u5099\u4e8b\u696d","survey_name":"\u5929\u5869\u5ddd\u4e0a\u6d41 \u540d\u5bc4\u6cb3\u5ddd\u4e8b\u52d9\u6240\u7ba1\u5185\u5730\u8cea\u8abf\u67fb\u696d\u52d9","client_name":"\u5317\u6d77\u9053\u958b\u767a\u5c40 \u65ed\u5ddd\u958b\u767a\u5efa\u8a2d\u90e8 \u540d\u5bc4\u6cb3\u5ddd\u4e8b\u52d9\u6240","boring_xml_url":43,"boring_view_url":1,"soilmap_view_url":null,"soiltest_xml_url":46,"soiltest_view_url":45},{"id":237131,"code":"B4KJ201802000-2611","latitude":"44.590222","longitude":"142.307361","source_code":"HK20072514130015","project_name":"\u6cb3\u5ddd\u6574\u5099\u4e8b\u696d","survey_name":"\u5929\u5869\u5ddd\u4e0a\u6d41 \u540d\u5bc4\u6cb3\u5ddd\u4e8b\u52d9\u6240\u7ba1\u5185\u5730\u8cea\u8abf\u67fb\u696d\u52d9","client_name":"\u5317\u6d77\u9053\u958b\u767a\u5c40 \u65ed\u5ddd\u958b\u767a\u5efa\u8a2d\u90e8 \u540d\u5bc4\u6cb3\u5ddd\u4e8b\u52d9\u6240","boring_xml_url":43,"boring_view_url":1,"soilmap_view_url":null,"soiltest_xml_url":0,"soiltest_view_url":0},{"id":237130,"code":"B4KJ201802000-2610","latitude":"44.589833","longitude":"142.307139","source_code":"HK20072514130014","project_name":"\u6cb3\u5ddd\u6574\u5099\u4e8b\u696d","survey_name":"\u5929\u5869\u5ddd\u4e0a\u6d41 \u540d\u5bc4\u6cb3\u5ddd\u4e8b\u52d9\u6240\u7ba1\u5185\u5730\u8cea\u8abf\u67fb\u696d\u52d9","client_name":"\u5317\u6d77\u9053\u958b\u767a\u5c40 \u65ed\u5ddd\u958b\u767a\u5efa\u8a2d\u90e8 \u540d\u5bc4\u6cb3\u5ddd\u4e8b\u52d9\u6240","boring_xml_url":43,"boring_view_url":1,"soilmap_view_url":null,"soiltest_xml_url":0,"soiltest_view_url":0}]}}