{"header":{"xyz":{"source":[],"mosaic":false},"page":3119,"raw":{"soiltest_result":"0","bbox":"57.598333,109.544722,1.933333,163.806111","page":"3119"},"conditions":{"soiltest_result":0,"north":57.598333,"west":109.544722,"south":1.933333,"east":163.806111},"success":true,"message":""},"data":{"meta":{"total":212844,"page":3119,"pages":7095,"count":30},"values":[{"id":236979,"code":"B4KJ201802000-2459","latitude":"44.830306","longitude":"142.072306","source_code":"HK20112514110008","project_name":"","survey_name":"\u5929\u5869\u5ddd\u4e0a\u6d41\u7f8e\u6df1\u6c34\u9632\u62e0\u70b9\u5916\u5730\u8cea\u8abf\u67fb\u696d\u52d9","client_name":"\u5317\u6d77\u9053\u958b\u767a\u5c40\u65ed\u5ddd\u958b\u767a\u5efa\u8a2d\u90e8","boring_xml_url":43,"boring_view_url":1,"soilmap_view_url":null,"soiltest_xml_url":0,"soiltest_view_url":0},{"id":236978,"code":"B4KJ201802000-2458","latitude":"44.126167","longitude":"142.487306","source_code":"HK20112514110007","project_name":"","survey_name":"\u5929\u5869\u5ddd\u4e0a\u6d41\u7f8e\u6df1\u6c34\u9632\u62e0\u70b9\u5916\u5730\u8cea\u8abf\u67fb\u696d\u52d9","client_name":"\u5317\u6d77\u9053\u958b\u767a\u5c40\u65ed\u5ddd\u958b\u767a\u5efa\u8a2d\u90e8","boring_xml_url":43,"boring_view_url":1,"soilmap_view_url":null,"soiltest_xml_url":0,"soiltest_view_url":0},{"id":236977,"code":"B4KJ201802000-2457","latitude":"44.322556","longitude":"142.550472","source_code":"HK20112514110006","project_name":"","survey_name":"\u5929\u5869\u5ddd\u4e0a\u6d41\u7f8e\u6df1\u6c34\u9632\u62e0\u70b9\u5916\u5730\u8cea\u8abf\u67fb\u696d\u52d9","client_name":"\u5317\u6d77\u9053\u958b\u767a\u5c40\u65ed\u5ddd\u958b\u767a\u5efa\u8a2d\u90e8","boring_xml_url":43,"boring_view_url":1,"soilmap_view_url":null,"soiltest_xml_url":0,"soiltest_view_url":0},{"id":236976,"code":"B4KJ201802000-2456","latitude":"44.360167","longitude":"142.445306","source_code":"HK20112514110005","project_name":"","survey_name":"\u5929\u5869\u5ddd\u4e0a\u6d41\u7f8e\u6df1\u6c34\u9632\u62e0\u70b9\u5916\u5730\u8cea\u8abf\u67fb\u696d\u52d9","client_name":"\u5317\u6d77\u9053\u958b\u767a\u5c40\u65ed\u5ddd\u958b\u767a\u5efa\u8a2d\u90e8","boring_xml_url":43,"boring_view_url":1,"soilmap_view_url":null,"soiltest_xml_url":0,"soiltest_view_url":0},{"id":236975,"code":"B4KJ201802000-2455","latitude":"44.560222","longitude":"142.321722","source_code":"HK20112514110004","project_name":"","survey_name":"\u5929\u5869\u5ddd\u4e0a\u6d41\u7f8e\u6df1\u6c34\u9632\u62e0\u70b9\u5916\u5730\u8cea\u8abf\u67fb\u696d\u52d9","client_name":"\u5317\u6d77\u9053\u958b\u767a\u5c40\u65ed\u5ddd\u958b\u767a\u5efa\u8a2d\u90e8","boring_xml_url":43,"boring_view_url":1,"soilmap_view_url":null,"soiltest_xml_url":43,"soiltest_view_url":42},{"id":236974,"code":"B4KJ201802000-2454","latitude":"44.559472","longitude":"142.321194","source_code":"HK20112514110003","project_name":"","survey_name":"\u5929\u5869\u5ddd\u4e0a\u6d41\u7f8e\u6df1\u6c34\u9632\u62e0\u70b9\u5916\u5730\u8cea\u8abf\u67fb\u696d\u52d9","client_name":"\u5317\u6d77\u9053\u958b\u767a\u5c40\u65ed\u5ddd\u958b\u767a\u5efa\u8a2d\u90e8","boring_xml_url":43,"boring_view_url":1,"soilmap_view_url":null,"soiltest_xml_url":43,"soiltest_view_url":42},{"id":236973,"code":"B4KJ201802000-2453","latitude":"44.497194","longitude":"142.337306","source_code":"HK20112514110002","project_name":"","survey_name":"\u5929\u5869\u5ddd\u4e0a\u6d41\u7f8e\u6df1\u6c34\u9632\u62e0\u70b9\u5916\u5730\u8cea\u8abf\u67fb\u696d\u52d9","client_name":"\u5317\u6d77\u9053\u958b\u767a\u5c40\u65ed\u5ddd\u958b\u767a\u5efa\u8a2d\u90e8","boring_xml_url":43,"boring_view_url":1,"soilmap_view_url":null,"soiltest_xml_url":43,"soiltest_view_url":42},{"id":236972,"code":"B4KJ201802000-2452","latitude":"44.497333","longitude":"142.33775","source_code":"HK20112514110001","project_name":"","survey_name":"\u5929\u5869\u5ddd\u4e0a\u6d41\u7f8e\u6df1\u6c34\u9632\u62e0\u70b9\u5916\u5730\u8cea\u8abf\u67fb\u696d\u52d9","client_name":"\u5317\u6d77\u9053\u958b\u767a\u5c40\u65ed\u5ddd\u958b\u767a\u5efa\u8a2d\u90e8","boring_xml_url":43,"boring_view_url":1,"soilmap_view_url":null,"soiltest_xml_url":43,"soiltest_view_url":42},{"id":236971,"code":"B4KJ201802000-2451","latitude":"43.640722","longitude":"142.601972","source_code":"HK20122512370013","project_name":"\u77f3\u72e9\u5ddd\u4e0a\u6d41 \u5e38\u76e4\u5730\u533a\u5916\u5730\u8cea\u8abf\u67fb\u696d\u52d9","survey_name":"\u77f3\u72e9\u5ddd\u4e0a\u6d41 \u5e38\u76e4\u5730\u533a\u5916\u5730\u8cea\u8abf\u67fb\u696d\u52d9","client_name":"\u5317\u6d77\u9053\u958b\u767a\u5c40\u65ed\u5ddd\u958b\u767a\u5efa\u8a2d\u90e8","boring_xml_url":43,"boring_view_url":1,"soilmap_view_url":null,"soiltest_xml_url":0,"soiltest_view_url":0},{"id":236970,"code":"B4KJ201802000-2450","latitude":"43.640806","longitude":"142.602028","source_code":"HK20122512370012","project_name":"\u77f3\u72e9\u5ddd\u4e0a\u6d41 \u5e38\u76e4\u5730\u533a\u5916\u5730\u8cea\u8abf\u67fb\u696d\u52d9","survey_name":"\u77f3\u72e9\u5ddd\u4e0a\u6d41 \u5e38\u76e4\u5730\u533a\u5916\u5730\u8cea\u8abf\u67fb\u696d\u52d9","client_name":"\u5317\u6d77\u9053\u958b\u767a\u5c40\u65ed\u5ddd\u958b\u767a\u5efa\u8a2d\u90e8","boring_xml_url":43,"boring_view_url":1,"soilmap_view_url":null,"soiltest_xml_url":0,"soiltest_view_url":0},{"id":236969,"code":"B4KJ201802000-2449","latitude":"43.640889","longitude":"142.602111","source_code":"HK20122512370011","project_name":"\u77f3\u72e9\u5ddd\u4e0a\u6d41 \u5e38\u76e4\u5730\u533a\u5916\u5730\u8cea\u8abf\u67fb\u696d\u52d9","survey_name":"\u77f3\u72e9\u5ddd\u4e0a\u6d41 \u5e38\u76e4\u5730\u533a\u5916\u5730\u8cea\u8abf\u67fb\u696d\u52d9","client_name":"\u5317\u6d77\u9053\u958b\u767a\u5c40\u65ed\u5ddd\u958b\u767a\u5efa\u8a2d\u90e8","boring_xml_url":43,"boring_view_url":1,"soilmap_view_url":null,"soiltest_xml_url":0,"soiltest_view_url":0},{"id":236968,"code":"B4KJ201802000-2448","latitude":"43.777278","longitude":"142.35275","source_code":"HK20122512370004","project_name":"\u77f3\u72e9\u5ddd\u4e0a\u6d41 \u5e38\u76e4\u5730\u533a\u5916\u5730\u8cea\u8abf\u67fb\u696d\u52d9","survey_name":"\u77f3\u72e9\u5ddd\u4e0a\u6d41 \u5e38\u76e4\u5730\u533a\u5916\u5730\u8cea\u8abf\u67fb\u696d\u52d9","client_name":"\u5317\u6d77\u9053\u958b\u767a\u5c40\u65ed\u5ddd\u958b\u767a\u5efa\u8a2d\u90e8","boring_xml_url":43,"boring_view_url":1,"soilmap_view_url":null,"soiltest_xml_url":0,"soiltest_view_url":0},{"id":236967,"code":"B4KJ201802000-2447","latitude":"43.777194","longitude":"142.352694","source_code":"HK20122512370003","project_name":"\u77f3\u72e9\u5ddd\u4e0a\u6d41 \u5e38\u76e4\u5730\u533a\u5916\u5730\u8cea\u8abf\u67fb\u696d\u52d9","survey_name":"\u77f3\u72e9\u5ddd\u4e0a\u6d41 \u5e38\u76e4\u5730\u533a\u5916\u5730\u8cea\u8abf\u67fb\u696d\u52d9","client_name":"\u5317\u6d77\u9053\u958b\u767a\u5c40\u65ed\u5ddd\u958b\u767a\u5efa\u8a2d\u90e8","boring_xml_url":43,"boring_view_url":1,"soilmap_view_url":null,"soiltest_xml_url":0,"soiltest_view_url":0},{"id":236966,"code":"B4KJ201802000-2446","latitude":"43.777889","longitude":"142.350111","source_code":"HK20122512370002","project_name":"\u77f3\u72e9\u5ddd\u4e0a\u6d41 \u5e38\u76e4\u5730\u533a\u5916\u5730\u8cea\u8abf\u67fb\u696d\u52d9","survey_name":"\u77f3\u72e9\u5ddd\u4e0a\u6d41 \u5e38\u76e4\u5730\u533a\u5916\u5730\u8cea\u8abf\u67fb\u696d\u52d9","client_name":"\u5317\u6d77\u9053\u958b\u767a\u5c40\u65ed\u5ddd\u958b\u767a\u5efa\u8a2d\u90e8","boring_xml_url":43,"boring_view_url":1,"soilmap_view_url":null,"soiltest_xml_url":0,"soiltest_view_url":0},{"id":236965,"code":"B4KJ201802000-2445","latitude":"43.777917","longitude":"142.35","source_code":"HK20122512370001","project_name":"\u77f3\u72e9\u5ddd\u4e0a\u6d41 \u5e38\u76e4\u5730\u533a\u5916\u5730\u8cea\u8abf\u67fb\u696d\u52d9","survey_name":"\u77f3\u72e9\u5ddd\u4e0a\u6d41 \u5e38\u76e4\u5730\u533a\u5916\u5730\u8cea\u8abf\u67fb\u696d\u52d9","client_name":"\u5317\u6d77\u9053\u958b\u767a\u5c40\u65ed\u5ddd\u958b\u767a\u5efa\u8a2d\u90e8","boring_xml_url":43,"boring_view_url":1,"soilmap_view_url":null,"soiltest_xml_url":0,"soiltest_view_url":0},{"id":236964,"code":"B4KJ201802000-2444","latitude":"43.725056","longitude":"142.942833","source_code":"HK20092512350010","project_name":"","survey_name":"\u77f3\u72e9\u5ddd\u7802\u9632\u5de5\u4e8b\u306e\u5185\u5c0f\u5b66\u6821\u306e\u6ca2\u5730\u8cea\u8abf\u67fb\u696d\u52d9","client_name":"\u5317\u6d77\u9053\u958b\u767a\u5c40 \u65ed\u5ddd\u958b\u767a\u5efa\u8a2d\u90e8","boring_xml_url":43,"boring_view_url":1,"soilmap_view_url":null,"soiltest_xml_url":0,"soiltest_view_url":0},{"id":236963,"code":"B4KJ201802000-2443","latitude":"44.540778","longitude":"142.323472","source_code":"HK20132517320013","project_name":"","survey_name":"\u58eb\u5225\u9053\u8def\u4e8b\u52d9\u6240\u7ba1\u5185\u69cb\u9020\u7269\u5730\u8cea\u8abf\u67fb\u696d\u52d9","client_name":"\u5317\u6d77\u9053\u958b\u767a\u5c40\u65ed\u5ddd\u958b\u767a\u5efa\u8a2d\u90e8","boring_xml_url":43,"boring_view_url":1,"soilmap_view_url":null,"soiltest_xml_url":0,"soiltest_view_url":0},{"id":236962,"code":"B4KJ201802000-2442","latitude":"44.52425","longitude":"142.325833","source_code":"HK20132517320012","project_name":"","survey_name":"\u58eb\u5225\u9053\u8def\u4e8b\u52d9\u6240\u7ba1\u5185\u69cb\u9020\u7269\u5730\u8cea\u8abf\u67fb\u696d\u52d9","client_name":"\u5317\u6d77\u9053\u958b\u767a\u5c40\u65ed\u5ddd\u958b\u767a\u5efa\u8a2d\u90e8","boring_xml_url":43,"boring_view_url":1,"soilmap_view_url":null,"soiltest_xml_url":0,"soiltest_view_url":0},{"id":236961,"code":"B4KJ201802000-2441","latitude":"44.518639","longitude":"142.328389","source_code":"HK20132517320011","project_name":"","survey_name":"\u58eb\u5225\u9053\u8def\u4e8b\u52d9\u6240\u7ba1\u5185\u69cb\u9020\u7269\u5730\u8cea\u8abf\u67fb\u696d\u52d9","client_name":"\u5317\u6d77\u9053\u958b\u767a\u5c40\u65ed\u5ddd\u958b\u767a\u5efa\u8a2d\u90e8","boring_xml_url":43,"boring_view_url":1,"soilmap_view_url":null,"soiltest_xml_url":0,"soiltest_view_url":0},{"id":236960,"code":"B4KJ201802000-2440","latitude":"44.526944","longitude":"142.325361","source_code":"HK20132517320010","project_name":"","survey_name":"\u58eb\u5225\u9053\u8def\u4e8b\u52d9\u6240\u7ba1\u5185\u69cb\u9020\u7269\u5730\u8cea\u8abf\u67fb\u696d\u52d9","client_name":"\u5317\u6d77\u9053\u958b\u767a\u5c40\u65ed\u5ddd\u958b\u767a\u5efa\u8a2d\u90e8","boring_xml_url":43,"boring_view_url":1,"soilmap_view_url":null,"soiltest_xml_url":0,"soiltest_view_url":0},{"id":236959,"code":"B4KJ201802000-2439","latitude":"44.525444","longitude":"142.325778","source_code":"HK20132517320009","project_name":"","survey_name":"\u58eb\u5225\u9053\u8def\u4e8b\u52d9\u6240\u7ba1\u5185\u69cb\u9020\u7269\u5730\u8cea\u8abf\u67fb\u696d\u52d9","client_name":"\u5317\u6d77\u9053\u958b\u767a\u5c40\u65ed\u5ddd\u958b\u767a\u5efa\u8a2d\u90e8","boring_xml_url":43,"boring_view_url":1,"soilmap_view_url":null,"soiltest_xml_url":0,"soiltest_view_url":0},{"id":236958,"code":"B4KJ201802000-2438","latitude":"44.771083","longitude":"142.059111","source_code":"HK20132517320008","project_name":"","survey_name":"\u58eb\u5225\u9053\u8def\u4e8b\u52d9\u6240\u7ba1\u5185\u69cb\u9020\u7269\u5730\u8cea\u8abf\u67fb\u696d\u52d9","client_name":"\u5317\u6d77\u9053\u958b\u767a\u5c40\u65ed\u5ddd\u958b\u767a\u5efa\u8a2d\u90e8","boring_xml_url":43,"boring_view_url":1,"soilmap_view_url":null,"soiltest_xml_url":0,"soiltest_view_url":0},{"id":236957,"code":"B4KJ201802000-2437","latitude":"43.988972","longitude":"142.450472","source_code":"HK20132517320007","project_name":"","survey_name":"\u58eb\u5225\u9053\u8def\u4e8b\u52d9\u6240\u7ba1\u5185\u69cb\u9020\u7269\u5730\u8cea\u8abf\u67fb\u696d\u52d9","client_name":"\u5317\u6d77\u9053\u958b\u767a\u5c40\u65ed\u5ddd\u958b\u767a\u5efa\u8a2d\u90e8","boring_xml_url":43,"boring_view_url":1,"soilmap_view_url":null,"soiltest_xml_url":0,"soiltest_view_url":0},{"id":236956,"code":"B4KJ201802000-2436","latitude":"44.430028","longitude":"142.379944","source_code":"HK20132517320006","project_name":"","survey_name":"\u58eb\u5225\u9053\u8def\u4e8b\u52d9\u6240\u7ba1\u5185\u69cb\u9020\u7269\u5730\u8cea\u8abf\u67fb\u696d\u52d9","client_name":"\u5317\u6d77\u9053\u958b\u767a\u5c40\u65ed\u5ddd\u958b\u767a\u5efa\u8a2d\u90e8","boring_xml_url":43,"boring_view_url":1,"soilmap_view_url":null,"soiltest_xml_url":0,"soiltest_view_url":0},{"id":236955,"code":"B4KJ201802000-2435","latitude":"44.429806","longitude":"142.379694","source_code":"HK20132517320005","project_name":"","survey_name":"\u58eb\u5225\u9053\u8def\u4e8b\u52d9\u6240\u7ba1\u5185\u69cb\u9020\u7269\u5730\u8cea\u8abf\u67fb\u696d\u52d9","client_name":"\u5317\u6d77\u9053\u958b\u767a\u5c40\u65ed\u5ddd\u958b\u767a\u5efa\u8a2d\u90e8","boring_xml_url":43,"boring_view_url":1,"soilmap_view_url":null,"soiltest_xml_url":0,"soiltest_view_url":0},{"id":236954,"code":"B4KJ201802000-2434","latitude":"44.4295","longitude":"142.378694","source_code":"HK20132517320004","project_name":"","survey_name":"\u58eb\u5225\u9053\u8def\u4e8b\u52d9\u6240\u7ba1\u5185\u69cb\u9020\u7269\u5730\u8cea\u8abf\u67fb\u696d\u52d9","client_name":"\u5317\u6d77\u9053\u958b\u767a\u5c40\u65ed\u5ddd\u958b\u767a\u5efa\u8a2d\u90e8","boring_xml_url":43,"boring_view_url":1,"soilmap_view_url":null,"soiltest_xml_url":0,"soiltest_view_url":0},{"id":236953,"code":"B4KJ201802000-2433","latitude":"44.820444","longitude":"142.27925","source_code":"HK20132517320003","project_name":"","survey_name":"\u58eb\u5225\u9053\u8def\u4e8b\u52d9\u6240\u7ba1\u5185\u69cb\u9020\u7269\u5730\u8cea\u8abf\u67fb\u696d\u52d9","client_name":"\u5317\u6d77\u9053\u958b\u767a\u5c40\u65ed\u5ddd\u958b\u767a\u5efa\u8a2d\u90e8","boring_xml_url":43,"boring_view_url":1,"soilmap_view_url":null,"soiltest_xml_url":0,"soiltest_view_url":0},{"id":236952,"code":"B4KJ201802000-2432","latitude":"44.820611","longitude":"142.279667","source_code":"HK20132517320002","project_name":"","survey_name":"\u58eb\u5225\u9053\u8def\u4e8b\u52d9\u6240\u7ba1\u5185\u69cb\u9020\u7269\u5730\u8cea\u8abf\u67fb\u696d\u52d9","client_name":"\u5317\u6d77\u9053\u958b\u767a\u5c40\u65ed\u5ddd\u958b\u767a\u5efa\u8a2d\u90e8","boring_xml_url":43,"boring_view_url":1,"soilmap_view_url":null,"soiltest_xml_url":0,"soiltest_view_url":0},{"id":236951,"code":"B4KJ201802000-2431","latitude":"44.731694","longitude":"142.205472","source_code":"HK20132517320001","project_name":"","survey_name":"\u58eb\u5225\u9053\u8def\u4e8b\u52d9\u6240\u7ba1\u5185\u69cb\u9020\u7269\u5730\u8cea\u8abf\u67fb\u696d\u52d9","client_name":"\u5317\u6d77\u9053\u958b\u767a\u5c40\u65ed\u5ddd\u958b\u767a\u5efa\u8a2d\u90e8","boring_xml_url":43,"boring_view_url":1,"soilmap_view_url":null,"soiltest_xml_url":0,"soiltest_view_url":0},{"id":236950,"code":"B4KJ201802000-2430","latitude":"44.111194","longitude":"142.139611","source_code":"HK20112523730030","project_name":"","survey_name":"\u4e00\u822c\u56fd\u905340\u53f7\u540d\u5bc4\u5e02\u540d\u5bc4\u30d0\u30a4\u30d1\u30b9\u5730\u8cea\u8abf\u67fb\u5916\u4e00\u9023\u696d\u52d9","client_name":"\u5317\u6d77\u9053\u958b\u767a\u5c40 \u65ed\u5ddd\u958b\u767a\u5efa\u8a2d\u90e8","boring_xml_url":43,"boring_view_url":1,"soilmap_view_url":null,"soiltest_xml_url":0,"soiltest_view_url":0}]}}