{"header":{"xyz":{"source":[],"mosaic":false},"page":3122,"raw":{"soiltest_result":"0","bbox":"57.598333,109.544722,1.933333,163.806111","page":"3122"},"conditions":{"soiltest_result":0,"north":57.598333,"west":109.544722,"south":1.933333,"east":163.806111},"success":true,"message":""},"data":{"meta":{"total":212844,"page":3122,"pages":7095,"count":30},"values":[{"id":236889,"code":"B4KJ201802000-2369","latitude":"42.218333","longitude":"140.172222","source_code":"HK20082317340003","project_name":"\u4e00\u822c\u56fd\u90535\u53f7 \u9577\u4e07\u90e8\u753a \u8c4a\u6d25\u5730\u8cea\u8abf\u67fb\u5916\u4e00\u9023\u696d\u52d9","survey_name":"\u4e00\u822c\u56fd\u90535\u53f7 \u9577\u4e07\u90e8\u753a \u8c4a\u6d25\u5730\u8cea\u8abf\u67fb\u5916\u4e00\u9023\u696d\u52d9","client_name":"\u51fd\u9928\u958b\u767a\u5efa\u8a2d\u90e8 \u516b\u96f2\u9053\u8def\u4e8b\u52d9\u6240","boring_xml_url":43,"boring_view_url":1,"soilmap_view_url":null,"soiltest_xml_url":0,"soiltest_view_url":0},{"id":236888,"code":"B4KJ201802000-2368","latitude":"42.217778","longitude":"140.172222","source_code":"HK20082317340002","project_name":"\u4e00\u822c\u56fd\u90535\u53f7 \u9577\u4e07\u90e8\u753a \u8c4a\u6d25\u5730\u8cea\u8abf\u67fb\u5916\u4e00\u9023\u696d\u52d9","survey_name":"\u4e00\u822c\u56fd\u90535\u53f7 \u9577\u4e07\u90e8\u753a \u8c4a\u6d25\u5730\u8cea\u8abf\u67fb\u5916\u4e00\u9023\u696d\u52d9","client_name":"\u51fd\u9928\u958b\u767a\u5efa\u8a2d\u90e8 \u516b\u96f2\u9053\u8def\u4e8b\u52d9\u6240","boring_xml_url":43,"boring_view_url":1,"soilmap_view_url":null,"soiltest_xml_url":0,"soiltest_view_url":0},{"id":236887,"code":"B4KJ201802000-2367","latitude":"42.2175","longitude":"140.171944","source_code":"HK20082317340001","project_name":"\u4e00\u822c\u56fd\u90535\u53f7 \u9577\u4e07\u90e8\u753a \u8c4a\u6d25\u5730\u8cea\u8abf\u67fb\u5916\u4e00\u9023\u696d\u52d9","survey_name":"\u4e00\u822c\u56fd\u90535\u53f7 \u9577\u4e07\u90e8\u753a \u8c4a\u6d25\u5730\u8cea\u8abf\u67fb\u5916\u4e00\u9023\u696d\u52d9","client_name":"\u51fd\u9928\u958b\u767a\u5efa\u8a2d\u90e8 \u516b\u96f2\u9053\u8def\u4e8b\u52d9\u6240","boring_xml_url":43,"boring_view_url":1,"soilmap_view_url":null,"soiltest_xml_url":0,"soiltest_view_url":0},{"id":236886,"code":"B4KJ201802000-2366","latitude":"42.4225","longitude":"140.059722","source_code":"HK20092317200004","project_name":"\u4e00\u822c\u56fd\u9053278\u53f7 \u68ee\u753a\u7802\u539f\u9632\u96ea\u67f5\u8abf\u67fb\u8a2d\u8a08\u5916\u4e00\u9023\u696d\u52d9","survey_name":"\u4e00\u822c\u56fd\u9053278\u53f7 \u68ee\u753a\u7802\u539f\u9632\u96ea\u67f5\u8abf\u67fb\u8a2d\u8a08\u5916\u4e00\u9023\u696d\u52d9","client_name":"\u51fd\u9928\u958b\u767a\u5efa\u8a2d\u90e8 \u516b\u96f2\u9053\u8def\u4e8b\u52d9\u6240","boring_xml_url":43,"boring_view_url":1,"soilmap_view_url":null,"soiltest_xml_url":0,"soiltest_view_url":0},{"id":236885,"code":"B4KJ201802000-2365","latitude":"42.420833","longitude":"140.061111","source_code":"HK20092317200003","project_name":"\u4e00\u822c\u56fd\u9053278\u53f7 \u68ee\u753a\u7802\u539f\u9632\u96ea\u67f5\u8abf\u67fb\u8a2d\u8a08\u5916\u4e00\u9023\u696d\u52d9","survey_name":"\u4e00\u822c\u56fd\u9053278\u53f7 \u68ee\u753a\u7802\u539f\u9632\u96ea\u67f5\u8abf\u67fb\u8a2d\u8a08\u5916\u4e00\u9023\u696d\u52d9","client_name":"\u51fd\u9928\u958b\u767a\u5efa\u8a2d\u90e8 \u516b\u96f2\u9053\u8def\u4e8b\u52d9\u6240","boring_xml_url":43,"boring_view_url":1,"soilmap_view_url":null,"soiltest_xml_url":0,"soiltest_view_url":0},{"id":236884,"code":"B4KJ201802000-2364","latitude":"42.111111","longitude":"140.757222","source_code":"HK20092317200002","project_name":"\u4e00\u822c\u56fd\u9053278\u53f7 \u68ee\u753a\u7802\u539f\u9632\u96ea\u67f5\u8abf\u67fb\u8a2d\u8a08\u5916\u4e00\u9023\u696d\u52d9","survey_name":"\u4e00\u822c\u56fd\u9053278\u53f7 \u68ee\u753a\u7802\u539f\u9632\u96ea\u67f5\u8abf\u67fb\u8a2d\u8a08\u5916\u4e00\u9023\u696d\u52d9","client_name":"\u51fd\u9928\u958b\u767a\u5efa\u8a2d\u90e8 \u516b\u96f2\u9053\u8def\u4e8b\u52d9\u6240","boring_xml_url":43,"boring_view_url":1,"soilmap_view_url":null,"soiltest_xml_url":0,"soiltest_view_url":0},{"id":236883,"code":"B4KJ201802000-2363","latitude":"42.108056","longitude":"140.7575","source_code":"HK20092317200001","project_name":"\u4e00\u822c\u56fd\u9053278\u53f7 \u68ee\u753a\u7802\u539f\u9632\u96ea\u67f5\u8abf\u67fb\u8a2d\u8a08\u5916\u4e00\u9023\u696d\u52d9","survey_name":"\u4e00\u822c\u56fd\u9053278\u53f7 \u68ee\u753a\u7802\u539f\u9632\u96ea\u67f5\u8abf\u67fb\u8a2d\u8a08\u5916\u4e00\u9023\u696d\u52d9","client_name":"\u51fd\u9928\u958b\u767a\u5efa\u8a2d\u90e8 \u516b\u96f2\u9053\u8def\u4e8b\u52d9\u6240","boring_xml_url":43,"boring_view_url":1,"soilmap_view_url":null,"soiltest_xml_url":0,"soiltest_view_url":0},{"id":236882,"code":"B4KJ201802000-2362","latitude":"42.447778","longitude":"140.329722","source_code":"HK20082317180006","project_name":"\u4e00\u822c\u56fd\u9053277\u53f7 \u516b\u96f2\u753a\u925b\u5ddd\u6cd5\u9762\u5730\u8cea\u8abf\u67fb\u5916\u4e00\u9023\u696d\u52d9","survey_name":"\u4e00\u822c\u56fd\u9053277\u53f7 \u516b\u96f2\u753a\u925b\u5ddd\u6cd5\u9762\u5730\u8cea\u8abf\u67fb\u5916\u4e00\u9023\u696d\u52d9","client_name":"\u51fd\u9928\u958b\u767a\u5efa\u8a2d\u90e8 \u516b\u96f2\u9053\u8def\u4e8b\u52d9\u6240","boring_xml_url":43,"boring_view_url":1,"soilmap_view_url":null,"soiltest_xml_url":0,"soiltest_view_url":0},{"id":236881,"code":"B4KJ201802000-2361","latitude":"42.119167","longitude":"140.534444","source_code":"HK20082317180001","project_name":"\u4e00\u822c\u56fd\u9053277\u53f7 \u516b\u96f2\u753a\u925b\u5ddd\u6cd5\u9762\u5730\u8cea\u8abf\u67fb\u5916\u4e00\u9023\u696d\u52d9","survey_name":"\u4e00\u822c\u56fd\u9053277\u53f7 \u516b\u96f2\u753a\u925b\u5ddd\u6cd5\u9762\u5730\u8cea\u8abf\u67fb\u5916\u4e00\u9023\u696d\u52d9","client_name":"\u51fd\u9928\u958b\u767a\u5efa\u8a2d\u90e8 \u516b\u96f2\u9053\u8def\u4e8b\u52d9\u6240","boring_xml_url":43,"boring_view_url":1,"soilmap_view_url":null,"soiltest_xml_url":0,"soiltest_view_url":0},{"id":236880,"code":"B4KJ201802000-2360","latitude":"42.322222","longitude":"140.275556","source_code":"HK20082317180005","project_name":"\u4e00\u822c\u56fd\u9053277\u53f7 \u516b\u96f2\u753a \u925b\u5ddd\u6cd5\u9762\u5730\u8cea\u8abf\u67fb\u5916\u4e00\u9023\u696d\u52d9","survey_name":"\u4e00\u822c\u56fd\u9053277\u53f7 \u516b\u96f2\u753a \u925b\u5ddd\u6cd5\u9762\u5730\u8cea\u8abf\u67fb\u5916\u4e00\u9023\u696d\u52d9","client_name":"\u51fd\u9928\u958b\u767a\u5efa\u8a2d\u90e8 \u516b\u96f2\u9053\u8def\u4e8b\u52d9\u6240","boring_xml_url":43,"boring_view_url":1,"soilmap_view_url":null,"soiltest_xml_url":0,"soiltest_view_url":0},{"id":236879,"code":"B4KJ201802000-2359","latitude":"42.591111","longitude":"139.826111","source_code":"HK20092317070005","project_name":"","survey_name":"\u4e00\u822c\u56fd\u9053229\u53f7\u305b\u305f\u306a\u753a\u9808\u7bc9\u6cd5\u9762\u5730\u8cea\u8abf\u67fb\u5916\u4e00\u9023\u696d\u52d9","client_name":"\u51fd\u9928\u958b\u767a\u5efa\u8a2d\u90e8 \u516b\u96f2\u9053\u8def\u4e8b\u52d9\u6240","boring_xml_url":43,"boring_view_url":1,"soilmap_view_url":null,"soiltest_xml_url":0,"soiltest_view_url":0},{"id":236878,"code":"B4KJ201802000-2358","latitude":"42.588056","longitude":"139.828056","source_code":"HK20092317070006","project_name":"","survey_name":"\u4e00\u822c\u56fd\u9053229\u53f7 \u305b\u305f\u306a\u753a\u9808\u7bc9\u6cd5\u9762\u5730\u8cea\u8abf\u67fb\u5916\u4e00\u9023\u696d\u52d9","client_name":"\u51fd\u9928\u958b\u767a\u5efa\u8a2d\u90e8 \u516b\u96f2\u9053\u8def\u4e8b\u52d9\u6240","boring_xml_url":43,"boring_view_url":1,"soilmap_view_url":null,"soiltest_xml_url":0,"soiltest_view_url":0},{"id":236877,"code":"B4KJ201802000-2357","latitude":"42.591667","longitude":"139.826111","source_code":"HK20092317070004","project_name":"","survey_name":"\u4e00\u822c\u56fd\u9053229\u53f7 \u305b\u305f\u306a\u753a \u9808\u7bc9\u6cd5\u9762\u5730\u8cea\u8abf\u67fb\u5916\u4e00\u9023\u696d\u52d9","client_name":"\u51fd\u9928\u958b\u767a\u5efa\u8a2d\u90e8 \u516b\u96f2\u9053\u8def\u4e8b\u52d9\u6240","boring_xml_url":43,"boring_view_url":1,"soilmap_view_url":null,"soiltest_xml_url":0,"soiltest_view_url":0},{"id":236876,"code":"B4KJ201802000-2356","latitude":"42.575556","longitude":"139.8325","source_code":"HK20092317070003","project_name":"","survey_name":"\u4e00\u822c\u56fd\u9053229\u53f7 \u305b\u305f\u306a\u753a \u9808\u7bc9\u6cd5\u9762\u5730\u8cea\u8abf\u67fb\u5916\u4e00\u9023\u696d\u52d9","client_name":"\u51fd\u9928\u958b\u767a\u5efa\u8a2d\u90e8 \u516b\u96f2\u9053\u8def\u4e8b\u52d9\u6240","boring_xml_url":43,"boring_view_url":1,"soilmap_view_url":null,"soiltest_xml_url":0,"soiltest_view_url":0},{"id":236875,"code":"B4KJ201802000-2355","latitude":"42.575556","longitude":"139.8325","source_code":"HK20092317070002","project_name":"","survey_name":"\u4e00\u822c\u56fd\u9053229\u53f7 \u305b\u305f\u306a\u753a \u9808\u7bc9\u6cd5\u9762\u5730\u8cea\u8abf\u67fb\u5916\u4e00\u9023\u696d\u52d9","client_name":"\u51fd\u9928\u958b\u767a\u5efa\u8a2d\u90e8 \u516b\u96f2\u9053\u8def\u4e8b\u52d9\u6240","boring_xml_url":43,"boring_view_url":1,"soilmap_view_url":null,"soiltest_xml_url":0,"soiltest_view_url":0},{"id":236874,"code":"B4KJ201802000-2354","latitude":"42.575556","longitude":"139.8325","source_code":"HK20092317070001","project_name":"","survey_name":"\u4e00\u822c\u56fd\u9053229\u53f7 \u305b\u305f\u306a\u753a \u9808\u7bc9\u6cd5\u9762\u5730\u8cea\u8abf\u67fb\u5916\u4e00\u9023\u696d\u52d9","client_name":"\u51fd\u9928\u958b\u767a\u5efa\u8a2d\u90e8 \u516b\u96f2\u9053\u8def\u4e8b\u52d9\u6240","boring_xml_url":43,"boring_view_url":1,"soilmap_view_url":null,"soiltest_xml_url":0,"soiltest_view_url":0},{"id":236873,"code":"B4KJ201802000-2353","latitude":"41.89","longitude":"141.024444","source_code":"HK20092310320006","project_name":"\u4e00\u822c\u56fd\u9053278\u53f7 \u51fd\u9928\u5e02 \u6238\u4e95\u30c8\u30f3\u30cd\u30eb\u88dc\u4fee\u8abf\u67fb\u696d\u52d9","survey_name":"\u4e00\u822c\u56fd\u9053278\u53f7 \u51fd\u9928\u5e02 \u6238\u4e95\u30c8\u30f3\u30cd\u30eb\u88dc\u4fee\u8abf\u67fb\u696d\u52d9","client_name":"\u51fd\u9928\u958b\u767a\u5efa\u8a2d\u90e8 \u51fd\u9928\u9053\u8def\u4e8b\u52d9\u6240","boring_xml_url":43,"boring_view_url":1,"soilmap_view_url":null,"soiltest_xml_url":0,"soiltest_view_url":0},{"id":236872,"code":"B4KJ201802000-2352","latitude":"41.890556","longitude":"141.025556","source_code":"HK20092310320005","project_name":"\u4e00\u822c\u56fd\u9053278\u53f7 \u51fd\u9928\u5e02 \u6238\u4e95\u30c8\u30f3\u30cd\u30eb\u88dc\u4fee\u8abf\u67fb\u696d\u52d9","survey_name":"\u4e00\u822c\u56fd\u9053278\u53f7 \u51fd\u9928\u5e02 \u6238\u4e95\u30c8\u30f3\u30cd\u30eb\u88dc\u4fee\u8abf\u67fb\u696d\u52d9","client_name":"\u51fd\u9928\u958b\u767a\u5efa\u8a2d\u90e8 \u51fd\u9928\u9053\u8def\u4e8b\u52d9\u6240","boring_xml_url":43,"boring_view_url":1,"soilmap_view_url":null,"soiltest_xml_url":0,"soiltest_view_url":0},{"id":236871,"code":"B4KJ201802000-2351","latitude":"41.890556","longitude":"141.025","source_code":"HK20092310320004","project_name":"\u4e00\u822c\u56fd\u9053278\u53f7 \u51fd\u9928\u5e02 \u6238\u4e95\u30c8\u30f3\u30cd\u30eb\u88dc\u4fee\u8abf\u67fb\u696d\u52d9","survey_name":"\u4e00\u822c\u56fd\u9053278\u53f7 \u51fd\u9928\u5e02 \u6238\u4e95\u30c8\u30f3\u30cd\u30eb\u88dc\u4fee\u8abf\u67fb\u696d\u52d9","client_name":"\u51fd\u9928\u958b\u767a\u5efa\u8a2d\u90e8 \u51fd\u9928\u9053\u8def\u4e8b\u52d9\u6240","boring_xml_url":43,"boring_view_url":1,"soilmap_view_url":null,"soiltest_xml_url":0,"soiltest_view_url":0},{"id":236870,"code":"B4KJ201802000-2350","latitude":"41.718611","longitude":"141.032778","source_code":"HK20092310320003","project_name":"\u4e00\u822c\u56fd\u9053278\u53f7 \u51fd\u9928\u5e02 \u6238\u4e95\u30c8\u30f3\u30cd\u30eb\u88dc\u4fee\u8abf\u67fb\u696d\u52d9","survey_name":"\u4e00\u822c\u56fd\u9053278\u53f7 \u51fd\u9928\u5e02 \u6238\u4e95\u30c8\u30f3\u30cd\u30eb\u88dc\u4fee\u8abf\u67fb\u696d\u52d9","client_name":"\u51fd\u9928\u958b\u767a\u5efa\u8a2d\u90e8 \u51fd\u9928\u9053\u8def\u4e8b\u52d9\u6240","boring_xml_url":43,"boring_view_url":1,"soilmap_view_url":null,"soiltest_xml_url":0,"soiltest_view_url":0},{"id":236869,"code":"B4KJ201802000-2349","latitude":"41.718333","longitude":"141.0325","source_code":"HK20092310320002","project_name":"\u4e00\u822c\u56fd\u9053278\u53f7 \u51fd\u9928\u5e02 \u6238\u4e95\u30c8\u30f3\u30cd\u30eb\u88dc\u4fee\u8abf\u67fb\u696d\u52d9","survey_name":"\u4e00\u822c\u56fd\u9053278\u53f7 \u51fd\u9928\u5e02 \u6238\u4e95\u30c8\u30f3\u30cd\u30eb\u88dc\u4fee\u8abf\u67fb\u696d\u52d9","client_name":"\u51fd\u9928\u958b\u767a\u5efa\u8a2d\u90e8 \u51fd\u9928\u9053\u8def\u4e8b\u52d9\u6240","boring_xml_url":43,"boring_view_url":1,"soilmap_view_url":null,"soiltest_xml_url":0,"soiltest_view_url":0},{"id":236868,"code":"B4KJ201802000-2348","latitude":"41.718056","longitude":"141.032222","source_code":"HK20092310320001","project_name":"\u4e00\u822c\u56fd\u9053278\u53f7 \u51fd\u9928\u5e02 \u6238\u4e95\u30c8\u30f3\u30cd\u30eb\u88dc\u4fee\u8abf\u67fb\u696d\u52d9","survey_name":"\u4e00\u822c\u56fd\u9053278\u53f7 \u51fd\u9928\u5e02 \u6238\u4e95\u30c8\u30f3\u30cd\u30eb\u88dc\u4fee\u8abf\u67fb\u696d\u52d9","client_name":"\u51fd\u9928\u958b\u767a\u5efa\u8a2d\u90e8 \u51fd\u9928\u9053\u8def\u4e8b\u52d9\u6240","boring_xml_url":43,"boring_view_url":1,"soilmap_view_url":null,"soiltest_xml_url":0,"soiltest_view_url":0},{"id":236867,"code":"B4KJ201802000-2347","latitude":"42.415278","longitude":"140.090556","source_code":"HK20072318060001","project_name":"","survey_name":"\u9234\u91d1\u7bc9\u5824\u4f4e\u6c34\u8b77\u5cb8\u8a73\u7d30\u8a2d\u8a08\u5916\u696d\u52d9","client_name":"\u51fd\u9928\u958b\u767a\u5efa\u8a2d\u90e8 \u4eca\u91d1\u6cb3\u5ddd\u4e8b\u52d9\u6240","boring_xml_url":43,"boring_view_url":1,"soilmap_view_url":null,"soiltest_xml_url":0,"soiltest_view_url":0},{"id":236866,"code":"B4KJ201802000-2346","latitude":"41.922528","longitude":"140.185389","source_code":"HK20132312050001","project_name":"\u6c5f\u5dee\u9053\u8def\u4e8b\u52d9\u6240\u7ba1\u5185\u9053\u8def\u7dad\u6301\u8abf\u67fb\u8a2d\u8a08\u5916\u4e00\u9023\u696d\u52d9","survey_name":"\u6c5f\u5dee\u9053\u8def\u4e8b\u52d9\u6240\u7ba1\u5185\u9053\u8def\u7dad\u6301\u8abf\u67fb\u8a2d\u8a08\u5916\u4e00\u9023\u696d\u52d9","client_name":"\u51fd\u9928\u958b\u767a\u5efa\u8a2d\u90e8 \u6c5f\u5dee\u9053\u8def\u4e8b\u52d9\u6240","boring_xml_url":43,"boring_view_url":1,"soilmap_view_url":null,"soiltest_xml_url":0,"soiltest_view_url":0},{"id":236865,"code":"B4KJ201802000-2345","latitude":"42.174167","longitude":"140.071417","source_code":"HK20112312180001","project_name":"\u4e00\u822c\u56fd\u9053277\u53f7\u516b\u96f2\u753a\u96f2\u77f3\u9053\u8def\u65bd\u5de5\u691c\u8a0e\u696d\u52d9","survey_name":"\u4e00\u822c\u56fd\u9053277\u53f7\u516b\u96f2\u753a\u96f2\u77f3\u9053\u8def\u65bd\u5de5\u691c\u8a0e\u696d\u52d9","client_name":"\u51fd\u9928\u958b\u767a\u5efa\u8a2d\u90e8 \u6c5f\u5dee\u9053\u8def\u4e8b\u52d9\u6240","boring_xml_url":43,"boring_view_url":1,"soilmap_view_url":null,"soiltest_xml_url":0,"soiltest_view_url":0},{"id":236864,"code":"B4KJ201802000-2344","latitude":"41.881944","longitude":"140.133889","source_code":"HK20072312060011","project_name":"\u4e00\u822c\u56fd\u9053227\u53f7\u6c5f\u5dee\u753a\u5927\u6f97\u4e2d\u592e\u5206\u96e2\u5e2f\u8a2d\u8a08\u696d\u52d9","survey_name":"\u4e00\u822c\u56fd\u9053227\u53f7\u6c5f\u5dee\u753a\u5927\u6f97\u4e2d\u592e\u5206\u96e2\u5e2f\u8a2d\u8a08\u696d\u52d9","client_name":"\u51fd\u9928\u958b\u767a\u5efa\u8a2d\u90e8 \u6c5f\u5dee\u9053\u8def\u4e8b\u52d9\u6240","boring_xml_url":43,"boring_view_url":1,"soilmap_view_url":null,"soiltest_xml_url":0,"soiltest_view_url":0},{"id":236863,"code":"B4KJ201802000-2343","latitude":"41.881944","longitude":"140.133611","source_code":"HK20072312060010","project_name":"\u4e00\u822c\u56fd\u9053227\u53f7\u6c5f\u5dee\u753a\u5927\u6f97\u4e2d\u592e\u5206\u96e2\u5e2f\u8a2d\u8a08\u696d\u52d9","survey_name":"\u4e00\u822c\u56fd\u9053227\u53f7\u6c5f\u5dee\u753a\u5927\u6f97\u4e2d\u592e\u5206\u96e2\u5e2f\u8a2d\u8a08\u696d\u52d9","client_name":"\u51fd\u9928\u958b\u767a\u5efa\u8a2d\u90e8 \u6c5f\u5dee\u9053\u8def\u4e8b\u52d9\u6240","boring_xml_url":43,"boring_view_url":1,"soilmap_view_url":null,"soiltest_xml_url":0,"soiltest_view_url":0},{"id":236862,"code":"B4KJ201802000-2342","latitude":"41.882222","longitude":"140.133611","source_code":"HK20072312060009","project_name":"\u4e00\u822c\u56fd\u9053227\u53f7\u6c5f\u5dee\u753a\u5927\u6f97\u4e2d\u592e\u5206\u96e2\u5e2f\u8a2d\u8a08\u696d\u52d9","survey_name":"\u4e00\u822c\u56fd\u9053227\u53f7\u6c5f\u5dee\u753a\u5927\u6f97\u4e2d\u592e\u5206\u96e2\u5e2f\u8a2d\u8a08\u696d\u52d9","client_name":"\u51fd\u9928\u958b\u767a\u5efa\u8a2d\u90e8 \u6c5f\u5dee\u9053\u8def\u4e8b\u52d9\u6240","boring_xml_url":43,"boring_view_url":1,"soilmap_view_url":null,"soiltest_xml_url":0,"soiltest_view_url":0},{"id":236861,"code":"B4KJ201802000-2341","latitude":"41.882222","longitude":"140.133889","source_code":"HK20072312060008","project_name":"\u4e00\u822c\u56fd\u9053227\u53f7\u6c5f\u5dee\u753a\u5927\u6f97\u4e2d\u592e\u5206\u96e2\u5e2f\u8a2d\u8a08\u696d\u52d9","survey_name":"\u4e00\u822c\u56fd\u9053227\u53f7\u6c5f\u5dee\u753a\u5927\u6f97\u4e2d\u592e\u5206\u96e2\u5e2f\u8a2d\u8a08\u696d\u52d9","client_name":"\u51fd\u9928\u958b\u767a\u5efa\u8a2d\u90e8 \u6c5f\u5dee\u9053\u8def\u4e8b\u52d9\u6240","boring_xml_url":43,"boring_view_url":1,"soilmap_view_url":null,"soiltest_xml_url":0,"soiltest_view_url":0},{"id":236860,"code":"B4KJ201802000-2340","latitude":"41.882222","longitude":"140.133611","source_code":"HK20072312060007","project_name":"\u4e00\u822c\u56fd\u9053227\u53f7\u6c5f\u5dee\u753a\u5927\u6f97\u4e2d\u592e\u5206\u96e2\u5e2f\u8a2d\u8a08\u696d\u52d9","survey_name":"\u4e00\u822c\u56fd\u9053227\u53f7\u6c5f\u5dee\u753a\u5927\u6f97\u4e2d\u592e\u5206\u96e2\u5e2f\u8a2d\u8a08\u696d\u52d9","client_name":"\u51fd\u9928\u958b\u767a\u5efa\u8a2d\u90e8 \u6c5f\u5dee\u9053\u8def\u4e8b\u52d9\u6240","boring_xml_url":43,"boring_view_url":1,"soilmap_view_url":null,"soiltest_xml_url":0,"soiltest_view_url":0}]}}