{"header":{"xyz":{"source":[],"mosaic":false},"page":3131,"raw":{"soiltest_result":"0","bbox":"57.598333,109.544722,1.933333,163.806111","page":"3131"},"conditions":{"soiltest_result":0,"north":57.598333,"west":109.544722,"south":1.933333,"east":163.806111},"success":true,"message":""},"data":{"meta":{"total":212844,"page":3131,"pages":7095,"count":30},"values":[{"id":236619,"code":"B4KJ201802000-2099","latitude":"42.904028","longitude":"141.303","source_code":"HK20092201170017","project_name":"\u771f\u99d2\u5185\u5ddd\u5916\u5730\u8cea\u8abf\u67fb\u696d\u52d9","survey_name":"\u771f\u99d2\u5185\u5ddd\u5916\u5730\u8cea\u8abf\u67fb\u696d\u52d9","client_name":"\u77f3\u72e9\u5ddd\u958b\u767a\u5efa\u8a2d\u90e8 \u672d\u5e4c\u6cb3\u5ddd\u4e8b\u52d9\u6240","boring_xml_url":43,"boring_view_url":1,"soilmap_view_url":null,"soiltest_xml_url":0,"soiltest_view_url":0},{"id":236618,"code":"B4KJ201802000-2098","latitude":"42.905722","longitude":"141.306","source_code":"HK20092201170016","project_name":"\u771f\u99d2\u5185\u5ddd\u5916\u5730\u8cea\u8abf\u67fb\u696d\u52d9","survey_name":"\u771f\u99d2\u5185\u5ddd\u5916\u5730\u8cea\u8abf\u67fb\u696d\u52d9","client_name":"\u77f3\u72e9\u5ddd\u958b\u767a\u5efa\u8a2d\u90e8 \u672d\u5e4c\u6cb3\u5ddd\u4e8b\u52d9\u6240","boring_xml_url":43,"boring_view_url":1,"soilmap_view_url":null,"soiltest_xml_url":0,"soiltest_view_url":0},{"id":236617,"code":"B4KJ201802000-2097","latitude":"42.898639","longitude":"141.328028","source_code":"HK20092201170015","project_name":"\u771f\u99d2\u5185\u5ddd\u5916\u5730\u8cea\u8abf\u67fb\u696d\u52d9","survey_name":"\u771f\u99d2\u5185\u5ddd\u5916\u5730\u8cea\u8abf\u67fb\u696d\u52d9","client_name":"\u77f3\u72e9\u5ddd\u958b\u767a\u5efa\u8a2d\u90e8 \u672d\u5e4c\u6cb3\u5ddd\u4e8b\u52d9\u6240","boring_xml_url":43,"boring_view_url":1,"soilmap_view_url":null,"soiltest_xml_url":0,"soiltest_view_url":0},{"id":236616,"code":"B4KJ201802000-2096","latitude":"42.903167","longitude":"141.327528","source_code":"HK20092201170014","project_name":"\u771f\u99d2\u5185\u5ddd\u5916\u5730\u8cea\u8abf\u67fb\u696d\u52d9","survey_name":"\u771f\u99d2\u5185\u5ddd\u5916\u5730\u8cea\u8abf\u67fb\u696d\u52d9","client_name":"\u77f3\u72e9\u5ddd\u958b\u767a\u5efa\u8a2d\u90e8 \u672d\u5e4c\u6cb3\u5ddd\u4e8b\u52d9\u6240","boring_xml_url":43,"boring_view_url":1,"soilmap_view_url":null,"soiltest_xml_url":0,"soiltest_view_url":0},{"id":236615,"code":"B4KJ201802000-2095","latitude":"42.907667","longitude":"141.3275","source_code":"HK20092201170013","project_name":"\u771f\u99d2\u5185\u5ddd\u5916\u5730\u8cea\u8abf\u67fb\u696d\u52d9","survey_name":"\u771f\u99d2\u5185\u5ddd\u5916\u5730\u8cea\u8abf\u67fb\u696d\u52d9","client_name":"\u77f3\u72e9\u5ddd\u958b\u767a\u5efa\u8a2d\u90e8 \u672d\u5e4c\u6cb3\u5ddd\u4e8b\u52d9\u6240","boring_xml_url":43,"boring_view_url":1,"soilmap_view_url":null,"soiltest_xml_url":0,"soiltest_view_url":0},{"id":236614,"code":"B4KJ201802000-2094","latitude":"42.910722","longitude":"141.323056","source_code":"HK20092201170012","project_name":"\u771f\u99d2\u5185\u5ddd\u5916\u5730\u8cea\u8abf\u67fb\u696d\u52d9","survey_name":"\u771f\u99d2\u5185\u5ddd\u5916\u5730\u8cea\u8abf\u67fb\u696d\u52d9","client_name":"\u77f3\u72e9\u5ddd\u958b\u767a\u5efa\u8a2d\u90e8 \u672d\u5e4c\u6cb3\u5ddd\u4e8b\u52d9\u6240","boring_xml_url":43,"boring_view_url":1,"soilmap_view_url":null,"soiltest_xml_url":0,"soiltest_view_url":0},{"id":236613,"code":"B4KJ201802000-2093","latitude":"42.914056","longitude":"141.323306","source_code":"HK20092201170011","project_name":"\u771f\u99d2\u5185\u5ddd\u5916\u5730\u8cea\u8abf\u67fb\u696d\u52d9","survey_name":"\u771f\u99d2\u5185\u5ddd\u5916\u5730\u8cea\u8abf\u67fb\u696d\u52d9","client_name":"\u77f3\u72e9\u5ddd\u958b\u767a\u5efa\u8a2d\u90e8 \u672d\u5e4c\u6cb3\u5ddd\u4e8b\u52d9\u6240","boring_xml_url":43,"boring_view_url":1,"soilmap_view_url":null,"soiltest_xml_url":0,"soiltest_view_url":0},{"id":236612,"code":"B4KJ201802000-2092","latitude":"42.912111","longitude":"141.303583","source_code":"HK20092201170010","project_name":"\u771f\u99d2\u5185\u5ddd\u5916\u5730\u8cea\u8abf\u67fb\u696d\u52d9","survey_name":"\u771f\u99d2\u5185\u5ddd\u5916\u5730\u8cea\u8abf\u67fb\u696d\u52d9","client_name":"\u77f3\u72e9\u5ddd\u958b\u767a\u5efa\u8a2d\u90e8 \u672d\u5e4c\u6cb3\u5ddd\u4e8b\u52d9\u6240","boring_xml_url":43,"boring_view_url":1,"soilmap_view_url":null,"soiltest_xml_url":0,"soiltest_view_url":0},{"id":236611,"code":"B4KJ201802000-2091","latitude":"42.91175","longitude":"141.308167","source_code":"HK20092201170009","project_name":"\u771f\u99d2\u5185\u5ddd\u5916\u5730\u8cea\u8abf\u67fb\u696d\u52d9","survey_name":"\u771f\u99d2\u5185\u5ddd\u5916\u5730\u8cea\u8abf\u67fb\u696d\u52d9","client_name":"\u77f3\u72e9\u5ddd\u958b\u767a\u5efa\u8a2d\u90e8 \u672d\u5e4c\u6cb3\u5ddd\u4e8b\u52d9\u6240","boring_xml_url":43,"boring_view_url":1,"soilmap_view_url":null,"soiltest_xml_url":0,"soiltest_view_url":0},{"id":236610,"code":"B4KJ201802000-2090","latitude":"42.91175","longitude":"141.31225","source_code":"HK20092201170008","project_name":"\u771f\u99d2\u5185\u5ddd\u5916\u5730\u8cea\u8abf\u67fb\u696d\u52d9","survey_name":"\u771f\u99d2\u5185\u5ddd\u5916\u5730\u8cea\u8abf\u67fb\u696d\u52d9","client_name":"\u77f3\u72e9\u5ddd\u958b\u767a\u5efa\u8a2d\u90e8 \u672d\u5e4c\u6cb3\u5ddd\u4e8b\u52d9\u6240","boring_xml_url":43,"boring_view_url":1,"soilmap_view_url":null,"soiltest_xml_url":0,"soiltest_view_url":0},{"id":236609,"code":"B4KJ201802000-2089","latitude":"42.912444","longitude":"141.314972","source_code":"HK20092201170007","project_name":"\u771f\u99d2\u5185\u5ddd\u5916\u5730\u8cea\u8abf\u67fb\u696d\u52d9","survey_name":"\u771f\u99d2\u5185\u5ddd\u5916\u5730\u8cea\u8abf\u67fb\u696d\u52d9","client_name":"\u77f3\u72e9\u5ddd\u958b\u767a\u5efa\u8a2d\u90e8 \u672d\u5e4c\u6cb3\u5ddd\u4e8b\u52d9\u6240","boring_xml_url":43,"boring_view_url":1,"soilmap_view_url":null,"soiltest_xml_url":0,"soiltest_view_url":0},{"id":236608,"code":"B4KJ201802000-2088","latitude":"42.909139","longitude":"141.322806","source_code":"HK20092201170003","project_name":"\u771f\u99d2\u5185\u5ddd\u5916\u5730\u8cea\u8abf\u67fb\u696d\u52d9","survey_name":"\u771f\u99d2\u5185\u5ddd\u5916\u5730\u8cea\u8abf\u67fb\u696d\u52d9","client_name":"\u77f3\u72e9\u5ddd\u958b\u767a\u5efa\u8a2d\u90e8 \u672d\u5e4c\u6cb3\u5ddd\u4e8b\u52d9\u6240","boring_xml_url":43,"boring_view_url":1,"soilmap_view_url":null,"soiltest_xml_url":0,"soiltest_view_url":0},{"id":236607,"code":"B4KJ201802000-2087","latitude":"42.922083","longitude":"141.342139","source_code":"HK20092201170001","project_name":"\u771f\u99d2\u5185\u5ddd\u5916\u5730\u8cea\u8abf\u67fb\u696d\u52d9","survey_name":"\u771f\u99d2\u5185\u5ddd\u5916\u5730\u8cea\u8abf\u67fb\u696d\u52d9","client_name":"\u77f3\u72e9\u5ddd\u958b\u767a\u5efa\u8a2d\u90e8 \u672d\u5e4c\u6cb3\u5ddd\u4e8b\u52d9\u6240","boring_xml_url":43,"boring_view_url":1,"soilmap_view_url":null,"soiltest_xml_url":0,"soiltest_view_url":0},{"id":236606,"code":"B4KJ201802000-2086","latitude":"43.125944","longitude":"141.704917","source_code":"HK20082212270001","project_name":"\u5e73\u621020\u5e74\u5ea6\u65bd\u884c \u6e05\u771f\u5e03\u5ddd\u7bc9\u5824\u57fa\u76e4\u51e6\u7406\u5de5\u6cd5\u691c\u8a0e\u696d\u52d9","survey_name":"\u5e73\u621020\u5e74\u5ea6\u65bd\u884c \u6e05\u771f\u5e03\u5ddd\u7bc9\u5824\u57fa\u76e4\u51e6\u7406\u5de5\u6cd5\u691c\u8a0e\u696d\u52d9","client_name":"\u77f3\u72e9\u5ddd\u958b\u767a\u5efa\u8a2d\u90e8 \u6c5f\u5225\u6cb3\u5ddd\u4e8b\u52d9\u6240","boring_xml_url":43,"boring_view_url":1,"soilmap_view_url":null,"soiltest_xml_url":0,"soiltest_view_url":0},{"id":236605,"code":"B4KJ201802000-2085","latitude":"43.124444","longitude":"141.557778","source_code":"HK20072212100011","project_name":"","survey_name":"\u77f3\u72e9\u5ddd\u8c4a\u5e4c\u7bc9\u5824\u5df4\u8fb2\u5834\u6a0b\u9580\u5916\u5730\u8cea\u8abf\u67fb\u696d\u52d9","client_name":"\u77f3\u72e9\u5ddd\u958b\u767a\u5efa\u8a2d\u90e8\u6c5f\u5225\u6cb3\u5ddd\u4e8b\u52d9\u6240","boring_xml_url":43,"boring_view_url":1,"soilmap_view_url":null,"soiltest_xml_url":46,"soiltest_view_url":45},{"id":236604,"code":"B4KJ201802000-2084","latitude":"43.127222","longitude":"141.557778","source_code":"HK20072212100010","project_name":"","survey_name":"\u77f3\u72e9\u5ddd\u8c4a\u5e4c\u7bc9\u5824\u5df4\u8fb2\u5834\u6a0b\u9580\u5916\u5730\u8cea\u8abf\u67fb\u696d\u52d9","client_name":"\u77f3\u72e9\u5ddd\u958b\u767a\u5efa\u8a2d\u90e8\u6c5f\u5225\u6cb3\u5ddd\u4e8b\u52d9\u6240","boring_xml_url":43,"boring_view_url":1,"soilmap_view_url":null,"soiltest_xml_url":46,"soiltest_view_url":45},{"id":236603,"code":"B4KJ201802000-2083","latitude":"43.091389","longitude":"141.673889","source_code":"HK20072212100009","project_name":"","survey_name":"\u77f3\u72e9\u5ddd\u8c4a\u5e4c\u7bc9\u5824\u5df4\u8fb2\u5834\u6a0b\u9580\u5916\u5730\u8cea\u8abf\u67fb\u696d\u52d9","client_name":"\u77f3\u72e9\u5ddd\u958b\u767a\u5efa\u8a2d\u90e8\u6c5f\u5225\u6cb3\u5ddd\u4e8b\u52d9\u6240","boring_xml_url":43,"boring_view_url":1,"soilmap_view_url":null,"soiltest_xml_url":0,"soiltest_view_url":0},{"id":236602,"code":"B4KJ201802000-2082","latitude":"43.115","longitude":"141.560833","source_code":"HK20072212100008","project_name":"","survey_name":"\u77f3\u72e9\u5ddd\u8c4a\u5e4c\u7bc9\u5824\u5df4\u8fb2\u5834\u6a0b\u9580\u5916\u5730\u8cea\u8abf\u67fb\u696d\u52d9","client_name":"\u77f3\u72e9\u5ddd\u958b\u767a\u5efa\u8a2d\u90e8\u6c5f\u5225\u6cb3\u5ddd\u4e8b\u52d9\u6240","boring_xml_url":43,"boring_view_url":1,"soilmap_view_url":null,"soiltest_xml_url":0,"soiltest_view_url":0},{"id":236601,"code":"B4KJ201802000-2081","latitude":"43.151944","longitude":"141.6225","source_code":"HK20072212100007","project_name":"","survey_name":"\u77f3\u72e9\u5ddd\u8c4a\u5e4c\u7bc9\u5824\u5df4\u8fb2\u5834\u6a0b\u9580\u5916\u5730\u8cea\u8abf\u67fb\u696d\u52d9","client_name":"\u77f3\u72e9\u5ddd\u958b\u767a\u5efa\u8a2d\u90e8\u6c5f\u5225\u6cb3\u5ddd\u4e8b\u52d9\u6240","boring_xml_url":43,"boring_view_url":1,"soilmap_view_url":null,"soiltest_xml_url":46,"soiltest_view_url":45},{"id":236600,"code":"B4KJ201802000-2080","latitude":"43.151944","longitude":"141.621944","source_code":"HK20072212100006","project_name":"","survey_name":"\u77f3\u72e9\u5ddd\u8c4a\u5e4c\u7bc9\u5824\u5df4\u8fb2\u5834\u6a0b\u9580\u5916\u5730\u8cea\u8abf\u67fb\u696d\u52d9","client_name":"\u77f3\u72e9\u5ddd\u958b\u767a\u5efa\u8a2d\u90e8\u6c5f\u5225\u6cb3\u5ddd\u4e8b\u52d9\u6240","boring_xml_url":43,"boring_view_url":1,"soilmap_view_url":null,"soiltest_xml_url":46,"soiltest_view_url":45},{"id":236599,"code":"B4KJ201802000-2079","latitude":"43.151944","longitude":"141.621389","source_code":"HK20072212100005","project_name":"","survey_name":"\u77f3\u72e9\u5ddd\u8c4a\u5e4c\u7bc9\u5824\u5df4\u8fb2\u5834\u6a0b\u9580\u5916\u5730\u8cea\u8abf\u67fb\u696d\u52d9","client_name":"\u77f3\u72e9\u5ddd\u958b\u767a\u5efa\u8a2d\u90e8\u6c5f\u5225\u6cb3\u5ddd\u4e8b\u52d9\u6240","boring_xml_url":43,"boring_view_url":1,"soilmap_view_url":null,"soiltest_xml_url":46,"soiltest_view_url":45},{"id":236598,"code":"B4KJ201802000-2078","latitude":"43.1525","longitude":"141.620556","source_code":"HK20072212100004","project_name":"","survey_name":"\u77f3\u72e9\u5ddd\u8c4a\u5e4c\u7bc9\u5824\u5df4\u8fb2\u5834\u6a0b\u9580\u5916\u5730\u8cea\u8abf\u67fb\u696d\u52d9","client_name":"\u77f3\u72e9\u5ddd\u958b\u767a\u5efa\u8a2d\u90e8\u6c5f\u5225\u6cb3\u5ddd\u4e8b\u52d9\u6240","boring_xml_url":43,"boring_view_url":1,"soilmap_view_url":null,"soiltest_xml_url":46,"soiltest_view_url":45},{"id":236597,"code":"B4KJ201802000-2077","latitude":"43.152222","longitude":"141.620833","source_code":"HK20072212100003","project_name":"","survey_name":"\u77f3\u72e9\u5ddd\u8c4a\u5e4c\u7bc9\u5824\u5df4\u8fb2\u5834\u6a0b\u9580\u5916\u5730\u8cea\u8abf\u67fb\u696d\u52d9","client_name":"\u77f3\u72e9\u5ddd\u958b\u767a\u5efa\u8a2d\u90e8\u6c5f\u5225\u6cb3\u5ddd\u4e8b\u52d9\u6240","boring_xml_url":43,"boring_view_url":1,"soilmap_view_url":null,"soiltest_xml_url":46,"soiltest_view_url":45},{"id":236596,"code":"B4KJ201802000-2076","latitude":"43.096389","longitude":"141.572222","source_code":"HK20072212100002","project_name":"","survey_name":"\u77f3\u72e9\u5ddd\u8c4a\u5e4c\u7bc9\u5824\u5df4\u8fb2\u5834\u6a0b\u9580\u5916\u5730\u8cea\u8abf\u67fb\u696d\u52d9","client_name":"\u77f3\u72e9\u5ddd\u958b\u767a\u5efa\u8a2d\u90e8\u6c5f\u5225\u6cb3\u5ddd\u4e8b\u52d9\u6240","boring_xml_url":43,"boring_view_url":1,"soilmap_view_url":null,"soiltest_xml_url":46,"soiltest_view_url":45},{"id":236595,"code":"B4KJ201802000-2075","latitude":"43.096944","longitude":"141.572222","source_code":"HK20072212100001","project_name":"","survey_name":"\u77f3\u72e9\u5ddd\u8c4a\u5e4c\u7bc9\u5824\u5df4\u8fb2\u5834\u6a0b\u9580\u5916\u5730\u8cea\u8abf\u67fb\u696d\u52d9","client_name":"\u77f3\u72e9\u5ddd\u958b\u767a\u5efa\u8a2d\u90e8\u6c5f\u5225\u6cb3\u5ddd\u4e8b\u52d9\u6240","boring_xml_url":43,"boring_view_url":1,"soilmap_view_url":null,"soiltest_xml_url":46,"soiltest_view_url":45},{"id":236594,"code":"B4KJ201802000-2074","latitude":"43.3395","longitude":"141.696056","source_code":"HK20092211280034","project_name":"","survey_name":"\u77f3\u72e9\u5ddd\u5317\u6751\u5730\u533a\u63da\u6c34\u6a5f\u5834\u5916\u5730\u8cea\u8abf\u67fb\u696d\u52d9","client_name":"\u77f3\u72e9\u5ddd\u958b\u767a\u5efa\u8a2d\u90e8 \u5ca9\u898b\u6ca2\u6cb3\u5ddd\u4e8b\u52d9\u6240 \u8a08\u753b\u8ab2","boring_xml_url":43,"boring_view_url":1,"soilmap_view_url":null,"soiltest_xml_url":46,"soiltest_view_url":45},{"id":236593,"code":"B4KJ201802000-2073","latitude":"43.337889","longitude":"141.69525","source_code":"HK20092211280033","project_name":"","survey_name":"\u77f3\u72e9\u5ddd\u5317\u6751\u5730\u533a\u63da\u6c34\u6a5f\u5834\u5916\u5730\u8cea\u8abf\u67fb\u696d\u52d9","client_name":"\u77f3\u72e9\u5ddd\u958b\u767a\u5efa\u8a2d\u90e8 \u5ca9\u898b\u6ca2\u6cb3\u5ddd\u4e8b\u52d9\u6240 \u8a08\u753b\u8ab2","boring_xml_url":43,"boring_view_url":1,"soilmap_view_url":null,"soiltest_xml_url":46,"soiltest_view_url":45},{"id":236592,"code":"B4KJ201802000-2072","latitude":"43.336361","longitude":"141.694167","source_code":"HK20092211280032","project_name":"","survey_name":"\u77f3\u72e9\u5ddd\u5317\u6751\u5730\u533a\u63da\u6c34\u6a5f\u5834\u5916\u5730\u8cea\u8abf\u67fb\u696d\u52d9","client_name":"\u77f3\u72e9\u5ddd\u958b\u767a\u5efa\u8a2d\u90e8 \u5ca9\u898b\u6ca2\u6cb3\u5ddd\u4e8b\u52d9\u6240 \u8a08\u753b\u8ab2","boring_xml_url":43,"boring_view_url":1,"soilmap_view_url":null,"soiltest_xml_url":46,"soiltest_view_url":45},{"id":236591,"code":"B4KJ201802000-2071","latitude":"43.25025","longitude":"141.661278","source_code":"HK20092211280031","project_name":"","survey_name":"\u77f3\u72e9\u5ddd\u5317\u6751\u5730\u533a\u63da\u6c34\u6a5f\u5834\u5916\u5730\u8cea\u8abf\u67fb\u696d\u52d9","client_name":"\u77f3\u72e9\u5ddd\u958b\u767a\u5efa\u8a2d\u90e8 \u5ca9\u898b\u6ca2\u6cb3\u5ddd\u4e8b\u52d9\u6240 \u8a08\u753b\u8ab2","boring_xml_url":43,"boring_view_url":1,"soilmap_view_url":null,"soiltest_xml_url":46,"soiltest_view_url":45},{"id":236590,"code":"B4KJ201802000-2070","latitude":"43.247806","longitude":"141.661694","source_code":"HK20092211280030","project_name":"","survey_name":"\u77f3\u72e9\u5ddd\u5317\u6751\u5730\u533a\u63da\u6c34\u6a5f\u5834\u5916\u5730\u8cea\u8abf\u67fb\u696d\u52d9","client_name":"\u77f3\u72e9\u5ddd\u958b\u767a\u5efa\u8a2d\u90e8 \u5ca9\u898b\u6ca2\u6cb3\u5ddd\u4e8b\u52d9\u6240 \u8a08\u753b\u8ab2","boring_xml_url":43,"boring_view_url":1,"soilmap_view_url":null,"soiltest_xml_url":46,"soiltest_view_url":45}]}}