{"header":{"xyz":{"source":[],"mosaic":false},"page":3146,"raw":{"soiltest_result":"0","bbox":"57.598333,109.544722,1.933333,163.806111","page":"3146"},"conditions":{"soiltest_result":0,"north":57.598333,"west":109.544722,"south":1.933333,"east":163.806111},"success":true,"message":""},"data":{"meta":{"total":212844,"page":3146,"pages":7095,"count":30},"values":[{"id":236169,"code":"B4KJ201802000-1649","latitude":"43.852611","longitude":"141.756583","source_code":"HK20103005970001","project_name":"","survey_name":"\u6df1\u5ddd\u7559\u840c\u81ea\u52d5\u8eca\u9053 \u7559\u840c\u5e02 \u5e4c\u7ce0\u7559\u840c\u9593\u5730\u8cea\u8abf\u67fb\u696d\u52d9","client_name":"\u56fd\u571f\u4ea4\u901a\u7701\u5317\u6d77\u9053\u958b\u767a\u5c40\u7559\u840c\u958b\u767a\u5efa\u8a2d\u90e8","boring_xml_url":43,"boring_view_url":1,"soilmap_view_url":null,"soiltest_xml_url":43,"soiltest_view_url":42},{"id":236168,"code":"B4KJ201802000-1648","latitude":"44.205556","longitude":"141.910278","source_code":"HK20123007330004","project_name":"_","survey_name":"\u4e00\u822c\u56fd\u9053239\u53f7\u82eb\u524d\u753a\u9727\u7acb\u9053\u8def\u5730\u8cea\u8abf\u67fb\u696d\u52d9","client_name":"\u56fd\u571f\u4ea4\u901a\u7701 \u5317\u6d77\u9053\u958b\u767a\u5c40 \u7559\u840c\u958b\u767a\u5efa\u8a2d\u90e8","boring_xml_url":43,"boring_view_url":1,"soilmap_view_url":null,"soiltest_xml_url":0,"soiltest_view_url":0},{"id":236167,"code":"B4KJ201802000-1647","latitude":"44.195","longitude":"141.923333","source_code":"HK20123007330003","project_name":"","survey_name":"\u4e00\u822c\u56fd\u9053239\u53f7\u82eb\u524d\u753a\u9727\u7acb\u9053\u8def\u5730\u8cea\u8abf\u67fb\u696d\u52d9","client_name":"\u56fd\u571f\u4ea4\u901a\u7701 \u5317\u6d77\u9053\u958b\u767a\u5c40 \u7559\u840c\u958b\u767a\u5efa\u8a2d\u90e8","boring_xml_url":43,"boring_view_url":1,"soilmap_view_url":null,"soiltest_xml_url":0,"soiltest_view_url":0},{"id":236166,"code":"B4KJ201802000-1646","latitude":"44.195556","longitude":"141.923056","source_code":"HK20123007330002","project_name":"_","survey_name":"\u4e00\u822c\u56fd\u9053239\u53f7\u82eb\u524d\u753a\u9727\u7acb\u9053\u8def\u5730\u8cea\u8abf\u67fb\u696d\u52d9","client_name":"\u56fd\u571f\u4ea4\u901a\u7701 \u5317\u6d77\u9053\u958b\u767a\u5c40 \u7559\u840c\u958b\u767a\u5efa\u8a2d\u90e8","boring_xml_url":43,"boring_view_url":1,"soilmap_view_url":null,"soiltest_xml_url":0,"soiltest_view_url":0},{"id":236165,"code":"B4KJ201802000-1645","latitude":"44.199444","longitude":"141.923889","source_code":"HK20123007330001","project_name":"_","survey_name":"\u4e00\u822c\u56fd\u9053239\u53f7\u82eb\u524d\u753a\u9727\u7acb\u9053\u8def\u5730\u8cea\u8abf\u67fb\u696d\u52d9","client_name":"\u56fd\u571f\u4ea4\u901a\u7701 \u5317\u6d77\u9053\u958b\u767a\u5c40 \u7559\u840c\u958b\u767a\u5efa\u8a2d\u90e8","boring_xml_url":43,"boring_view_url":1,"soilmap_view_url":null,"soiltest_xml_url":0,"soiltest_view_url":0},{"id":236164,"code":"B4KJ201802000-1644","latitude":"44.226917","longitude":"141.813722","source_code":"HK20123006480021","project_name":"\u4e00\u822c\u56fd\u9053239\u53f7\u82eb\u524d\u753a\u9727\u7acb\u5730\u8cea\u8abf\u67fb\u696d\u52d9","survey_name":"\u4e00\u822c\u56fd\u9053239\u53f7\u82eb\u524d\u753a\u9727\u7acb\u5730\u8cea\u8abf\u67fb\u696d\u52d9","client_name":"\u56fd\u571f\u4ea4\u901a\u7701 \u5317\u6d77\u9053\u958b\u767a\u5c40 \u7559\u840c\u958b\u767a\u5efa\u8a2d\u90e8","boring_xml_url":43,"boring_view_url":1,"soilmap_view_url":null,"soiltest_xml_url":0,"soiltest_view_url":0},{"id":236163,"code":"B4KJ201802000-1643","latitude":"44.226917","longitude":"141.813833","source_code":"HK20123006480020","project_name":"\u4e00\u822c\u56fd\u9053239\u53f7\u82eb\u524d\u753a\u9727\u7acb\u5730\u8cea\u8abf\u67fb\u696d\u52d9","survey_name":"\u4e00\u822c\u56fd\u9053239\u53f7\u82eb\u524d\u753a\u9727\u7acb\u5730\u8cea\u8abf\u67fb\u696d\u52d9","client_name":"\u56fd\u571f\u4ea4\u901a\u7701 \u5317\u6d77\u9053\u958b\u767a\u5c40 \u7559\u840c\u958b\u767a\u5efa\u8a2d\u90e8","boring_xml_url":43,"boring_view_url":1,"soilmap_view_url":null,"soiltest_xml_url":0,"soiltest_view_url":0},{"id":236162,"code":"B4KJ201802000-1642","latitude":"44.226972","longitude":"141.813694","source_code":"HK20123006480019","project_name":"\u4e00\u822c\u56fd\u9053239\u53f7\u82eb\u524d\u753a\u9727\u7acb\u5730\u8cea\u8abf\u67fb\u696d\u52d9","survey_name":"\u4e00\u822c\u56fd\u9053239\u53f7\u82eb\u524d\u753a\u9727\u7acb\u5730\u8cea\u8abf\u67fb\u696d\u52d9","client_name":"\u56fd\u571f\u4ea4\u901a\u7701 \u5317\u6d77\u9053\u958b\u767a\u5c40 \u7559\u840c\u958b\u767a\u5efa\u8a2d\u90e8","boring_xml_url":43,"boring_view_url":1,"soilmap_view_url":null,"soiltest_xml_url":0,"soiltest_view_url":0},{"id":236161,"code":"B4KJ201802000-1641","latitude":"44.227","longitude":"141.813833","source_code":"HK20123006480018","project_name":"\u4e00\u822c\u56fd\u9053239\u53f7\u82eb\u524d\u753a\u9727\u7acb\u5730\u8cea\u8abf\u67fb\u696d\u52d9","survey_name":"\u4e00\u822c\u56fd\u9053239\u53f7\u82eb\u524d\u753a\u9727\u7acb\u5730\u8cea\u8abf\u67fb\u696d\u52d9","client_name":"\u56fd\u571f\u4ea4\u901a\u7701 \u5317\u6d77\u9053\u958b\u767a\u5c40 \u7559\u840c\u958b\u767a\u5efa\u8a2d\u90e8","boring_xml_url":43,"boring_view_url":1,"soilmap_view_url":null,"soiltest_xml_url":0,"soiltest_view_url":0},{"id":236160,"code":"B4KJ201802000-1640","latitude":"44.226889","longitude":"141.832194","source_code":"HK20123006480017","project_name":"\u4e00\u822c\u56fd\u9053239\u53f7\u82eb\u524d\u753a\u9727\u7acb\u5730\u8cea\u8abf\u67fb\u696d\u52d9","survey_name":"\u4e00\u822c\u56fd\u9053239\u53f7\u82eb\u524d\u753a\u9727\u7acb\u5730\u8cea\u8abf\u67fb\u696d\u52d9","client_name":"\u56fd\u571f\u4ea4\u901a\u7701 \u5317\u6d77\u9053\u958b\u767a\u5c40 \u7559\u840c\u958b\u767a\u5efa\u8a2d\u90e8","boring_xml_url":43,"boring_view_url":1,"soilmap_view_url":null,"soiltest_xml_url":0,"soiltest_view_url":0},{"id":236159,"code":"B4KJ201802000-1639","latitude":"44.226861","longitude":"141.832194","source_code":"HK20123006480016","project_name":"\u4e00\u822c\u56fd\u9053239\u53f7\u82eb\u524d\u753a\u9727\u7acb\u5730\u8cea\u8abf\u67fb\u696d\u52d9","survey_name":"\u4e00\u822c\u56fd\u9053239\u53f7\u82eb\u524d\u753a\u9727\u7acb\u5730\u8cea\u8abf\u67fb\u696d\u52d9","client_name":"\u56fd\u571f\u4ea4\u901a\u7701 \u5317\u6d77\u9053\u958b\u767a\u5c40 \u7559\u840c\u958b\u767a\u5efa\u8a2d\u90e8","boring_xml_url":43,"boring_view_url":1,"soilmap_view_url":null,"soiltest_xml_url":0,"soiltest_view_url":0},{"id":236158,"code":"B4KJ201802000-1638","latitude":"44.226917","longitude":"141.832722","source_code":"HK20123006480015","project_name":"\u4e00\u822c\u56fd\u9053239\u53f7\u82eb\u524d\u753a\u9727\u7acb\u5730\u8cea\u8abf\u67fb\u696d\u52d9","survey_name":"\u4e00\u822c\u56fd\u9053239\u53f7\u82eb\u524d\u753a\u9727\u7acb\u5730\u8cea\u8abf\u67fb\u696d\u52d9","client_name":"\u56fd\u571f\u4ea4\u901a\u7701 \u5317\u6d77\u9053\u958b\u767a\u5c40 \u7559\u840c\u958b\u767a\u5efa\u8a2d\u90e8","boring_xml_url":43,"boring_view_url":1,"soilmap_view_url":null,"soiltest_xml_url":0,"soiltest_view_url":0},{"id":236157,"code":"B4KJ201802000-1637","latitude":"44.222611","longitude":"141.855444","source_code":"HK20123006480014","project_name":"\u4e00\u822c\u56fd\u9053239\u53f7\u82eb\u524d\u753a\u9727\u7acb\u5730\u8cea\u8abf\u67fb\u696d\u52d9","survey_name":"\u4e00\u822c\u56fd\u9053239\u53f7\u82eb\u524d\u753a\u9727\u7acb\u5730\u8cea\u8abf\u67fb\u696d\u52d9","client_name":"\u56fd\u571f\u4ea4\u901a\u7701 \u5317\u6d77\u9053\u958b\u767a\u5c40 \u7559\u840c\u958b\u767a\u5efa\u8a2d\u90e8","boring_xml_url":43,"boring_view_url":1,"soilmap_view_url":null,"soiltest_xml_url":0,"soiltest_view_url":0},{"id":236156,"code":"B4KJ201802000-1636","latitude":"44.222556","longitude":"141.855417","source_code":"HK20123006480013","project_name":"\u4e00\u822c\u56fd\u9053239\u53f7\u82eb\u524d\u753a\u9727\u7acb\u5730\u8cea\u8abf\u67fb\u696d\u52d9","survey_name":"\u4e00\u822c\u56fd\u9053239\u53f7\u82eb\u524d\u753a\u9727\u7acb\u5730\u8cea\u8abf\u67fb\u696d\u52d9","client_name":"\u56fd\u571f\u4ea4\u901a\u7701 \u5317\u6d77\u9053\u958b\u767a\u5c40 \u7559\u840c\u958b\u767a\u5efa\u8a2d\u90e8","boring_xml_url":43,"boring_view_url":1,"soilmap_view_url":null,"soiltest_xml_url":0,"soiltest_view_url":0},{"id":236155,"code":"B4KJ201802000-1635","latitude":"44.2225","longitude":"141.855944","source_code":"HK20123006480012","project_name":"\u4e00\u822c\u56fd\u9053239\u53f7\u82eb\u524d\u753a\u9727\u7acb\u5730\u8cea\u8abf\u67fb\u696d\u52d9","survey_name":"\u4e00\u822c\u56fd\u9053239\u53f7\u82eb\u524d\u753a\u9727\u7acb\u5730\u8cea\u8abf\u67fb\u696d\u52d9","client_name":"\u56fd\u571f\u4ea4\u901a\u7701 \u5317\u6d77\u9053\u958b\u767a\u5c40 \u7559\u840c\u958b\u767a\u5efa\u8a2d\u90e8","boring_xml_url":43,"boring_view_url":1,"soilmap_view_url":null,"soiltest_xml_url":0,"soiltest_view_url":0},{"id":236154,"code":"B4KJ201802000-1634","latitude":"44.222417","longitude":"141.855889","source_code":"HK20123006480011","project_name":"\u4e00\u822c\u56fd\u9053239\u53f7\u82eb\u524d\u753a\u9727\u7acb\u5730\u8cea\u8abf\u67fb\u696d\u52d9","survey_name":"\u4e00\u822c\u56fd\u9053239\u53f7\u82eb\u524d\u753a\u9727\u7acb\u5730\u8cea\u8abf\u67fb\u696d\u52d9","client_name":"\u56fd\u571f\u4ea4\u901a\u7701 \u5317\u6d77\u9053\u958b\u767a\u5c40 \u7559\u840c\u958b\u767a\u5efa\u8a2d\u90e8","boring_xml_url":43,"boring_view_url":1,"soilmap_view_url":null,"soiltest_xml_url":0,"soiltest_view_url":0},{"id":236153,"code":"B4KJ201802000-1633","latitude":"44.181861","longitude":"141.989778","source_code":"HK20123006480010","project_name":"\u4e00\u822c\u56fd\u9053239\u53f7\u82eb\u524d\u753a\u9727\u7acb\u5730\u8cea\u8abf\u67fb\u696d\u52d9","survey_name":"\u4e00\u822c\u56fd\u9053239\u53f7\u82eb\u524d\u753a\u9727\u7acb\u5730\u8cea\u8abf\u67fb\u696d\u52d9","client_name":"\u56fd\u571f\u4ea4\u901a\u7701 \u5317\u6d77\u9053\u958b\u767a\u5c40 \u7559\u840c\u958b\u767a\u5efa\u8a2d\u90e8","boring_xml_url":43,"boring_view_url":1,"soilmap_view_url":null,"soiltest_xml_url":0,"soiltest_view_url":0},{"id":236152,"code":"B4KJ201802000-1632","latitude":"44.181917","longitude":"141.989722","source_code":"HK20123006480009","project_name":"\u4e00\u822c\u56fd\u9053239\u53f7\u82eb\u524d\u753a\u9727\u7acb\u5730\u8cea\u8abf\u67fb\u696d\u52d9","survey_name":"\u4e00\u822c\u56fd\u9053239\u53f7\u82eb\u524d\u753a\u9727\u7acb\u5730\u8cea\u8abf\u67fb\u696d\u52d9","client_name":"\u56fd\u571f\u4ea4\u901a\u7701 \u5317\u6d77\u9053\u958b\u767a\u5c40 \u7559\u840c\u958b\u767a\u5efa\u8a2d\u90e8","boring_xml_url":43,"boring_view_url":1,"soilmap_view_url":null,"soiltest_xml_url":0,"soiltest_view_url":0},{"id":236151,"code":"B4KJ201802000-1631","latitude":"44.181972","longitude":"141.989861","source_code":"HK20123006480008","project_name":"\u4e00\u822c\u56fd\u9053239\u53f7\u82eb\u524d\u753a\u9727\u7acb\u5730\u8cea\u8abf\u67fb\u696d\u52d9","survey_name":"\u4e00\u822c\u56fd\u9053239\u53f7\u82eb\u524d\u753a\u9727\u7acb\u5730\u8cea\u8abf\u67fb\u696d\u52d9","client_name":"\u56fd\u571f\u4ea4\u901a\u7701 \u5317\u6d77\u9053\u958b\u767a\u5c40 \u7559\u840c\u958b\u767a\u5efa\u8a2d\u90e8","boring_xml_url":43,"boring_view_url":1,"soilmap_view_url":null,"soiltest_xml_url":0,"soiltest_view_url":0},{"id":236150,"code":"B4KJ201802000-1630","latitude":"44.184278","longitude":"141.993","source_code":"HK20123006480007","project_name":"\u4e00\u822c\u56fd\u9053239\u53f7\u82eb\u524d\u753a\u9727\u7acb\u5730\u8cea\u8abf\u67fb\u696d\u52d9","survey_name":"\u4e00\u822c\u56fd\u9053239\u53f7\u82eb\u524d\u753a\u9727\u7acb\u5730\u8cea\u8abf\u67fb\u696d\u52d9","client_name":"\u56fd\u571f\u4ea4\u901a\u7701 \u5317\u6d77\u9053\u958b\u767a\u5c40 \u7559\u840c\u958b\u767a\u5efa\u8a2d\u90e8","boring_xml_url":43,"boring_view_url":1,"soilmap_view_url":null,"soiltest_xml_url":0,"soiltest_view_url":0},{"id":236149,"code":"B4KJ201802000-1629","latitude":"44.184528","longitude":"141.993083","source_code":"HK20123006480006","project_name":"\u4e00\u822c\u56fd\u9053239\u53f7\u82eb\u524d\u753a\u9727\u7acb\u5730\u8cea\u8abf\u67fb\u696d\u52d9","survey_name":"\u4e00\u822c\u56fd\u9053239\u53f7\u82eb\u524d\u753a\u9727\u7acb\u5730\u8cea\u8abf\u67fb\u696d\u52d9","client_name":"\u56fd\u571f\u4ea4\u901a\u7701 \u5317\u6d77\u9053\u958b\u767a\u5c40 \u7559\u840c\u958b\u767a\u5efa\u8a2d\u90e8","boring_xml_url":43,"boring_view_url":1,"soilmap_view_url":null,"soiltest_xml_url":0,"soiltest_view_url":0},{"id":236148,"code":"B4KJ201802000-1628","latitude":"44.184333","longitude":"141.992806","source_code":"HK20123006480005","project_name":"\u4e00\u822c\u56fd\u9053239\u53f7\u82eb\u524d\u753a\u9727\u7acb\u5730\u8cea\u8abf\u67fb\u696d\u52d9","survey_name":"\u4e00\u822c\u56fd\u9053239\u53f7\u82eb\u524d\u753a\u9727\u7acb\u5730\u8cea\u8abf\u67fb\u696d\u52d9","client_name":"\u56fd\u571f\u4ea4\u901a\u7701 \u5317\u6d77\u9053\u958b\u767a\u5c40 \u7559\u840c\u958b\u767a\u5efa\u8a2d\u90e8","boring_xml_url":43,"boring_view_url":1,"soilmap_view_url":null,"soiltest_xml_url":0,"soiltest_view_url":0},{"id":236147,"code":"B4KJ201802000-1627","latitude":"44.184444","longitude":"141.992778","source_code":"HK20123006480004","project_name":"\u4e00\u822c\u56fd\u9053239\u53f7\u82eb\u524d\u753a\u9727\u7acb\u5730\u8cea\u8abf\u67fb\u696d\u52d9","survey_name":"\u4e00\u822c\u56fd\u9053239\u53f7\u82eb\u524d\u753a\u9727\u7acb\u5730\u8cea\u8abf\u67fb\u696d\u52d9","client_name":"\u56fd\u571f\u4ea4\u901a\u7701 \u5317\u6d77\u9053\u958b\u767a\u5c40 \u7559\u840c\u958b\u767a\u5efa\u8a2d\u90e8","boring_xml_url":43,"boring_view_url":1,"soilmap_view_url":null,"soiltest_xml_url":0,"soiltest_view_url":0},{"id":236146,"code":"B4KJ201802000-1626","latitude":"44.199333","longitude":"142.009889","source_code":"HK20123006480003","project_name":"\u4e00\u822c\u56fd\u9053239\u53f7\u82eb\u524d\u753a\u9727\u7acb\u5730\u8cea\u8abf\u67fb\u696d\u52d9","survey_name":"\u4e00\u822c\u56fd\u9053239\u53f7\u82eb\u524d\u753a\u9727\u7acb\u5730\u8cea\u8abf\u67fb\u696d\u52d9","client_name":"\u56fd\u571f\u4ea4\u901a\u7701 \u5317\u6d77\u9053\u958b\u767a\u5c40 \u7559\u840c\u958b\u767a\u5efa\u8a2d\u90e8","boring_xml_url":43,"boring_view_url":1,"soilmap_view_url":null,"soiltest_xml_url":0,"soiltest_view_url":0},{"id":236145,"code":"B4KJ201802000-1625","latitude":"44.199306","longitude":"142.009972","source_code":"HK20123006480002","project_name":"\u4e00\u822c\u56fd\u9053239\u53f7\u82eb\u524d\u753a\u9727\u7acb\u5730\u8cea\u8abf\u67fb\u696d\u52d9","survey_name":"\u4e00\u822c\u56fd\u9053239\u53f7\u82eb\u524d\u753a\u9727\u7acb\u5730\u8cea\u8abf\u67fb\u696d\u52d9","client_name":"\u56fd\u571f\u4ea4\u901a\u7701 \u5317\u6d77\u9053\u958b\u767a\u5c40 \u7559\u840c\u958b\u767a\u5efa\u8a2d\u90e8","boring_xml_url":43,"boring_view_url":1,"soilmap_view_url":null,"soiltest_xml_url":0,"soiltest_view_url":0},{"id":236144,"code":"B4KJ201802000-1624","latitude":"44.199194","longitude":"142.010194","source_code":"HK20123006480001","project_name":"\u4e00\u822c\u56fd\u9053239\u53f7\u82eb\u524d\u753a\u9727\u7acb\u5730\u8cea\u8abf\u67fb\u696d\u52d9","survey_name":"\u4e00\u822c\u56fd\u9053239\u53f7\u82eb\u524d\u753a\u9727\u7acb\u5730\u8cea\u8abf\u67fb\u696d\u52d9","client_name":"\u56fd\u571f\u4ea4\u901a\u7701 \u5317\u6d77\u9053\u958b\u767a\u5c40 \u7559\u840c\u958b\u767a\u5efa\u8a2d\u90e8","boring_xml_url":43,"boring_view_url":1,"soilmap_view_url":null,"soiltest_xml_url":0,"soiltest_view_url":0},{"id":236143,"code":"B4KJ201802000-1623","latitude":"44.224861","longitude":"141.655917","source_code":"HK20103005680003","project_name":"\u4e00\u822c\u56fd\u9053232\u53f7 \u82eb\u524d\u753a\u529b\u663c\u5730\u8cea\u8abf\u67fb\u696d\u52d9","survey_name":"\u4e00\u822c\u56fd\u9053232\u53f7 \u82eb\u524d\u753a\u529b\u663c\u5730\u8cea\u8abf\u67fb\u696d\u52d9","client_name":"\u56fd\u571f\u4ea4\u901a\u7701\u5317\u6d77\u9053\u958b\u767a\u5c40\u7559\u840c\u958b\u767a\u5efa\u8a2d\u90e8","boring_xml_url":43,"boring_view_url":1,"soilmap_view_url":null,"soiltest_xml_url":0,"soiltest_view_url":0},{"id":236142,"code":"B4KJ201802000-1622","latitude":"44.224444","longitude":"141.655833","source_code":"HK20103005680002","project_name":"\u4e00\u822c\u56fd\u9053232\u53f7 \u82eb\u524d\u753a \u529b\u663c\u5730\u8cea\u8abf\u67fb\u696d\u52d9","survey_name":"\u4e00\u822c\u56fd\u9053232\u53f7 \u82eb\u524d\u753a \u529b\u663c\u5730\u8cea\u8abf\u67fb\u696d\u52d9","client_name":"\u56fd\u571f\u4ea4\u901a\u7701\u5317\u6d77\u9053\u958b\u767a\u5c40\u7559\u840c\u958b\u767a\u5efa\u8a2d\u90e8","boring_xml_url":43,"boring_view_url":1,"soilmap_view_url":null,"soiltest_xml_url":0,"soiltest_view_url":0},{"id":236141,"code":"B4KJ201802000-1621","latitude":"44.224444","longitude":"141.656111","source_code":"HK20103005680001","project_name":"\u4e00\u822c\u56fd\u9053232\u53f7 \u82eb\u524d\u753a \u529b\u663c\u5730\u8cea\u8abf\u67fb\u696d\u52d9","survey_name":"\u4e00\u822c\u56fd\u9053232\u53f7 \u82eb\u524d\u753a \u529b\u663c\u5730\u8cea\u8abf\u67fb\u696d\u52d9","client_name":"\u56fd\u571f\u4ea4\u901a\u7701\u5317\u6d77\u9053\u958b\u767a\u5c40\u7559\u840c\u958b\u767a\u5efa\u8a2d\u90e8","boring_xml_url":43,"boring_view_url":1,"soilmap_view_url":null,"soiltest_xml_url":0,"soiltest_view_url":0},{"id":236140,"code":"B4KJ201802000-1620","latitude":"43.778833","longitude":"141.371472","source_code":"HK20093008100018","project_name":"\u4e00\u822c\u56fd\u9053231\u53f7\u5897\u6bdb\u753a\u6691\u5bd2\u9053\u8def\u5730\u8cea\u8abf\u67fb\u696d\u52d9","survey_name":"\u4e00\u822c\u56fd\u9053231\u53f7\u5897\u6bdb\u753a\u6691\u5bd2\u9053\u8def\u5730\u8cea\u8abf\u67fb\u696d\u52d9","client_name":"\u56fd\u571f\u4ea4\u901a\u7701 \u5317\u6d77\u9053\u958b\u767a\u5c40 \u7559\u840c\u958b\u767a\u5efa\u8a2d\u90e8","boring_xml_url":43,"boring_view_url":1,"soilmap_view_url":null,"soiltest_xml_url":0,"soiltest_view_url":0}]}}