{"header":{"xyz":{"source":[],"mosaic":false},"page":3152,"raw":{"soiltest_result":"0","bbox":"57.598333,109.544722,1.933333,163.806111","page":"3152"},"conditions":{"soiltest_result":0,"north":57.598333,"west":109.544722,"south":1.933333,"east":163.806111},"success":true,"message":""},"data":{"meta":{"total":212844,"page":3152,"pages":7095,"count":30},"values":[{"id":235989,"code":"B4KJ201802000-1469","latitude":"42.414583","longitude":"139.9405","source_code":"HK20112301860008","project_name":"\u5f8c\u5fd7\u5229\u5225\u5ddd\u6a0b\u9580\u8010\u9707\u6027\u80fd\u7167\u67fb\u696d\u52d9","survey_name":"\u5f8c\u5fd7\u5229\u5225\u5ddd\u6a0b\u9580\u8010\u9707\u6027\u80fd\u7167\u67fb\u696d\u52d9","client_name":"\u56fd\u571f\u4ea4\u901a\u7701 \u5317\u6d77\u9053\u958b\u767a\u5c40 \u51fd\u9928\u958b\u767a\u5efa\u8a2d\u90e8","boring_xml_url":43,"boring_view_url":1,"soilmap_view_url":null,"soiltest_xml_url":0,"soiltest_view_url":0},{"id":235988,"code":"B4KJ201802000-1468","latitude":"42.414417","longitude":"139.940611","source_code":"HK20112301860007","project_name":"\u5f8c\u5fd7\u5229\u5225\u5ddd\u6a0b\u9580\u8010\u9707\u6027\u80fd\u7167\u67fb\u696d\u52d9","survey_name":"\u5f8c\u5fd7\u5229\u5225\u5ddd\u6a0b\u9580\u8010\u9707\u6027\u80fd\u7167\u67fb\u696d\u52d9","client_name":"\u56fd\u571f\u4ea4\u901a\u7701 \u5317\u6d77\u9053\u958b\u767a\u5c40 \u51fd\u9928\u958b\u767a\u5efa\u8a2d\u90e8","boring_xml_url":43,"boring_view_url":1,"soilmap_view_url":null,"soiltest_xml_url":0,"soiltest_view_url":0},{"id":235987,"code":"B4KJ201802000-1467","latitude":"42.410611","longitude":"139.8645","source_code":"HK20112301860006","project_name":"\u5f8c\u5fd7\u5229\u5225\u5ddd\u6a0b\u9580\u8010\u9707\u6027\u80fd\u7167\u67fb\u696d\u52d9","survey_name":"\u5f8c\u5fd7\u5229\u5225\u5ddd\u6a0b\u9580\u8010\u9707\u6027\u80fd\u7167\u67fb\u696d\u52d9","client_name":"\u56fd\u571f\u4ea4\u901a\u7701 \u5317\u6d77\u9053\u958b\u767a\u5c40 \u51fd\u9928\u958b\u767a\u5efa\u8a2d\u90e8","boring_xml_url":43,"boring_view_url":1,"soilmap_view_url":null,"soiltest_xml_url":0,"soiltest_view_url":0},{"id":235986,"code":"B4KJ201802000-1466","latitude":"42.410472","longitude":"139.864444","source_code":"HK20112301860005","project_name":"\u5f8c\u5fd7\u5229\u5225\u5ddd\u6a0b\u9580\u8010\u9707\u6027\u80fd\u7167\u67fb\u696d\u52d9","survey_name":"\u5f8c\u5fd7\u5229\u5225\u5ddd\u6a0b\u9580\u8010\u9707\u6027\u80fd\u7167\u67fb\u696d\u52d9","client_name":"\u56fd\u571f\u4ea4\u901a\u7701 \u5317\u6d77\u9053\u958b\u767a\u5c40 \u51fd\u9928\u958b\u767a\u5efa\u8a2d\u90e8","boring_xml_url":43,"boring_view_url":1,"soilmap_view_url":null,"soiltest_xml_url":0,"soiltest_view_url":0},{"id":235985,"code":"B4KJ201802000-1465","latitude":"42.410361","longitude":"139.864333","source_code":"HK20112301860004","project_name":"\u5f8c\u5fd7\u5229\u5225\u5ddd\u6a0b\u9580\u8010\u9707\u6027\u80fd\u7167\u67fb\u696d\u52d9","survey_name":"\u5f8c\u5fd7\u5229\u5225\u5ddd\u6a0b\u9580\u8010\u9707\u6027\u80fd\u7167\u67fb\u696d\u52d9","client_name":"\u56fd\u571f\u4ea4\u901a\u7701 \u5317\u6d77\u9053\u958b\u767a\u5c40 \u51fd\u9928\u958b\u767a\u5efa\u8a2d\u90e8","boring_xml_url":43,"boring_view_url":1,"soilmap_view_url":null,"soiltest_xml_url":0,"soiltest_view_url":0},{"id":235984,"code":"B4KJ201802000-1464","latitude":"42.425917","longitude":"139.846889","source_code":"HK20112301860003","project_name":"\u5f8c\u5fd7\u5229\u5225\u5ddd\u6a0b\u9580\u8010\u9707\u6027\u80fd\u7167\u67fb\u696d\u52d9","survey_name":"\u5f8c\u5fd7\u5229\u5225\u5ddd\u6a0b\u9580\u8010\u9707\u6027\u80fd\u7167\u67fb\u696d\u52d9","client_name":"\u56fd\u571f\u4ea4\u901a\u7701 \u5317\u6d77\u9053\u958b\u767a\u5c40 \u51fd\u9928\u958b\u767a\u5efa\u8a2d\u90e8","boring_xml_url":43,"boring_view_url":1,"soilmap_view_url":null,"soiltest_xml_url":0,"soiltest_view_url":0},{"id":235983,"code":"B4KJ201802000-1463","latitude":"42.425778","longitude":"139.846944","source_code":"HK20112301860002","project_name":"\u5f8c\u5fd7\u5229\u5225\u5ddd\u6a0b\u9580\u8010\u9707\u6027\u80fd\u7167\u67fb\u696d\u52d9","survey_name":"\u5f8c\u5fd7\u5229\u5225\u5ddd\u6a0b\u9580\u8010\u9707\u6027\u80fd\u7167\u67fb\u696d\u52d9","client_name":"\u56fd\u571f\u4ea4\u901a\u7701 \u5317\u6d77\u9053\u958b\u767a\u5c40 \u51fd\u9928\u958b\u767a\u5efa\u8a2d\u90e8","boring_xml_url":43,"boring_view_url":1,"soilmap_view_url":null,"soiltest_xml_url":0,"soiltest_view_url":0},{"id":235982,"code":"B4KJ201802000-1462","latitude":"42.425722","longitude":"139.846861","source_code":"HK20112301860001","project_name":"\u5f8c\u5fd7\u5229\u5225\u5ddd\u6a0b\u9580\u8010\u9707\u6027\u80fd\u7167\u67fb\u696d\u52d9","survey_name":"\u5f8c\u5fd7\u5229\u5225\u5ddd\u6a0b\u9580\u8010\u9707\u6027\u80fd\u7167\u67fb\u696d\u52d9","client_name":"\u56fd\u571f\u4ea4\u901a\u7701 \u5317\u6d77\u9053\u958b\u767a\u5c40 \u51fd\u9928\u958b\u767a\u5efa\u8a2d\u90e8","boring_xml_url":43,"boring_view_url":1,"soilmap_view_url":null,"soiltest_xml_url":0,"soiltest_view_url":0},{"id":235981,"code":"B4KJ201802000-1461","latitude":"42.170694","longitude":"140.071861","source_code":"HK20112312170001","project_name":"\u4e00\u822c\u56fd\u9053277\u53f7 \u516b\u96f2\u753a \u96f2\u77f3\u9053\u8def\u5730\u6ed1\u308a\u89b3\u6e2c\u8abf\u67fb\u696d\u52d9","survey_name":"\u4e00\u822c\u56fd\u9053277\u53f7 \u516b\u96f2\u753a \u96f2\u77f3\u9053\u8def\u5730\u6ed1\u308a\u89b3\u6e2c\u8abf\u67fb\u696d\u52d9","client_name":"\u56fd\u571f\u4ea4\u901a\u7701 \u5317\u6d77\u9053\u958b\u767a\u5c40 \u51fd\u9928\u958b\u767a\u5efa\u8a2d\u90e8","boring_xml_url":43,"boring_view_url":1,"soilmap_view_url":null,"soiltest_xml_url":0,"soiltest_view_url":0},{"id":235980,"code":"B4KJ201802000-1460","latitude":"45.462222","longitude":"141.879444","source_code":"HK20093104350013","project_name":"","survey_name":"\u4e00\u822c\u56fd\u905340\u53f7\u8c4a\u5bcc\u753a \u65b0\u751f\u5730\u8cea\u8abf\u67fb\u5916\u4e00\u9023\u696d\u52d9","client_name":"\u56fd\u571f\u4ea4\u901a\u7701\u5317\u6d77\u9053\u958b\u767a\u5c40\u7a1a\u5185\u958b\u767a\u5efa\u8a2d\u90e8\u7a1a\u5185\u958b\u767a\u4e8b\u52d9\u6240","boring_xml_url":43,"boring_view_url":1,"soilmap_view_url":null,"soiltest_xml_url":0,"soiltest_view_url":0},{"id":235979,"code":"B4KJ201802000-1459","latitude":"45.4625","longitude":"141.878889","source_code":"HK20093104350012","project_name":"","survey_name":"\u4e00\u822c\u56fd\u905340\u53f7\u8c4a\u5bcc\u753a \u65b0\u751f\u5730\u8cea\u8abf\u67fb\u5916\u4e00\u9023\u696d\u52d9","client_name":"\u56fd\u571f\u4ea4\u901a\u7701\u5317\u6d77\u9053\u958b\u767a\u5c40\u7a1a\u5185\u958b\u767a\u5efa\u8a2d\u90e8\u7a1a\u5185\u958b\u767a\u4e8b\u52d9\u6240","boring_xml_url":43,"boring_view_url":1,"soilmap_view_url":null,"soiltest_xml_url":43,"soiltest_view_url":42},{"id":235978,"code":"B4KJ201802000-1458","latitude":"45.274167","longitude":"141.734167","source_code":"HK20093104350011","project_name":"","survey_name":"\u4e00\u822c\u56fd\u905340\u53f7\u8c4a\u5bcc\u753a \u65b0\u751f\u5730\u8cea\u8abf\u67fb\u5916\u4e00\u9023\u696d\u52d9","client_name":"\u56fd\u571f\u4ea4\u901a\u7701\u5317\u6d77\u9053\u958b\u767a\u5c40\u7a1a\u5185\u958b\u767a\u5efa\u8a2d\u90e8\u7a1a\u5185\u958b\u767a\u4e8b\u52d9\u6240","boring_xml_url":43,"boring_view_url":1,"soilmap_view_url":null,"soiltest_xml_url":0,"soiltest_view_url":0},{"id":235977,"code":"B4KJ201802000-1457","latitude":"45.467222","longitude":"141.875278","source_code":"HK20093104350010","project_name":"","survey_name":"\u4e00\u822c\u56fd\u905340\u53f7\u8c4a\u5bcc\u753a \u65b0\u751f\u5730\u8cea\u8abf\u67fb\u5916\u4e00\u9023\u696d\u52d9","client_name":"\u56fd\u571f\u4ea4\u901a\u7701\u5317\u6d77\u9053\u958b\u767a\u5c40\u7a1a\u5185\u958b\u767a\u5efa\u8a2d\u90e8\u7a1a\u5185\u958b\u767a\u4e8b\u52d9\u6240","boring_xml_url":43,"boring_view_url":1,"soilmap_view_url":null,"soiltest_xml_url":0,"soiltest_view_url":0},{"id":235976,"code":"B4KJ201802000-1456","latitude":"45.33","longitude":"141.720556","source_code":"HK20093104350009","project_name":"","survey_name":"\u4e00\u822c\u56fd\u905340\u53f7\u8c4a\u5bcc\u753a \u65b0\u751f\u5730\u8cea\u8abf\u67fb\u5916\u4e00\u9023\u696d\u52d9","client_name":"\u56fd\u571f\u4ea4\u901a\u7701\u5317\u6d77\u9053\u958b\u767a\u5c40\u7a1a\u5185\u958b\u767a\u5efa\u8a2d\u90e8\u7a1a\u5185\u958b\u767a\u4e8b\u52d9\u6240","boring_xml_url":43,"boring_view_url":1,"soilmap_view_url":null,"soiltest_xml_url":43,"soiltest_view_url":42},{"id":235975,"code":"B4KJ201802000-1455","latitude":"45.329444","longitude":"141.720278","source_code":"HK20093104350008","project_name":"","survey_name":"\u4e00\u822c\u56fd\u905340\u53f7\u8c4a\u5bcc\u753a \u65b0\u751f\u5730\u8cea\u8abf\u67fb\u5916\u4e00\u9023\u696d\u52d9","client_name":"\u56fd\u571f\u4ea4\u901a\u7701\u5317\u6d77\u9053\u958b\u767a\u5c40\u7a1a\u5185\u958b\u767a\u5efa\u8a2d\u90e8\u7a1a\u5185\u958b\u767a\u4e8b\u52d9\u6240","boring_xml_url":43,"boring_view_url":1,"soilmap_view_url":null,"soiltest_xml_url":0,"soiltest_view_url":0},{"id":235974,"code":"B4KJ201802000-1454","latitude":"45.315","longitude":"141.721111","source_code":"HK20093104350007","project_name":"","survey_name":"\u4e00\u822c\u56fd\u905340\u53f7\u8c4a\u5bcc\u753a \u65b0\u751f\u5730\u8cea\u8abf\u67fb\u5916\u4e00\u9023\u696d\u52d9","client_name":"\u56fd\u571f\u4ea4\u901a\u7701\u5317\u6d77\u9053\u958b\u767a\u5c40\u7a1a\u5185\u958b\u767a\u5efa\u8a2d\u90e8\u7a1a\u5185\u958b\u767a\u4e8b\u52d9\u6240","boring_xml_url":43,"boring_view_url":1,"soilmap_view_url":null,"soiltest_xml_url":0,"soiltest_view_url":0},{"id":235973,"code":"B4KJ201802000-1453","latitude":"45.314722","longitude":"141.721111","source_code":"HK20093104350006","project_name":"","survey_name":"\u4e00\u822c\u56fd\u905340\u53f7\u8c4a\u5bcc\u753a \u65b0\u751f\u5730\u8cea\u8abf\u67fb\u5916\u4e00\u9023\u696d\u52d9","client_name":"\u56fd\u571f\u4ea4\u901a\u7701\u5317\u6d77\u9053\u958b\u767a\u5c40\u7a1a\u5185\u958b\u767a\u5efa\u8a2d\u90e8\u7a1a\u5185\u958b\u767a\u4e8b\u52d9\u6240","boring_xml_url":43,"boring_view_url":1,"soilmap_view_url":null,"soiltest_xml_url":43,"soiltest_view_url":42},{"id":235972,"code":"B4KJ201802000-1452","latitude":"45.232222","longitude":"141.750278","source_code":"HK20093104350005","project_name":"","survey_name":"\u4e00\u822c\u56fd\u905340\u53f7\u8c4a\u5bcc\u753a \u65b0\u751f\u5730\u8cea\u8abf\u67fb\u5916\u4e00\u9023\u696d\u52d9","client_name":"\u56fd\u571f\u4ea4\u901a\u7701\u5317\u6d77\u9053\u958b\u767a\u5c40\u7a1a\u5185\u958b\u767a\u5efa\u8a2d\u90e8\u7a1a\u5185\u958b\u767a\u4e8b\u52d9\u6240","boring_xml_url":43,"boring_view_url":1,"soilmap_view_url":null,"soiltest_xml_url":0,"soiltest_view_url":0},{"id":235971,"code":"B4KJ201802000-1451","latitude":"45.232278","longitude":"141.750139","source_code":"HK20093104350004","project_name":"","survey_name":"\u4e00\u822c\u56fd\u905340\u53f7\u8c4a\u5bcc\u753a \u65b0\u751f\u5730\u8cea\u8abf\u67fb\u5916\u4e00\u9023\u696d\u52d9","client_name":"\u56fd\u571f\u4ea4\u901a\u7701\u5317\u6d77\u9053\u958b\u767a\u5c40\u7a1a\u5185\u958b\u767a\u5efa\u8a2d\u90e8\u7a1a\u5185\u958b\u767a\u4e8b\u52d9\u6240","boring_xml_url":43,"boring_view_url":1,"soilmap_view_url":null,"soiltest_xml_url":0,"soiltest_view_url":0},{"id":235970,"code":"B4KJ201802000-1450","latitude":"45.232361","longitude":"141.75","source_code":"HK20093104350003","project_name":"","survey_name":"\u4e00\u822c\u56fd\u905340\u53f7\u8c4a\u5bcc\u753a \u65b0\u751f\u5730\u8cea\u8abf\u67fb\u5916\u4e00\u9023\u696d\u52d9","client_name":"\u56fd\u571f\u4ea4\u901a\u7701\u5317\u6d77\u9053\u958b\u767a\u5c40\u7a1a\u5185\u958b\u767a\u5efa\u8a2d\u90e8\u7a1a\u5185\u958b\u767a\u4e8b\u52d9\u6240","boring_xml_url":43,"boring_view_url":1,"soilmap_view_url":null,"soiltest_xml_url":0,"soiltest_view_url":0},{"id":235969,"code":"B4KJ201802000-1449","latitude":"45.092778","longitude":"141.773333","source_code":"HK20093104350002","project_name":"","survey_name":"\u4e00\u822c\u56fd\u905340\u53f7\u8c4a\u5bcc\u753a \u65b0\u751f\u5730\u8cea\u8abf\u67fb\u5916\u4e00\u9023\u696d\u52d9","client_name":"\u56fd\u571f\u4ea4\u901a\u7701\u5317\u6d77\u9053\u958b\u767a\u5c40\u7a1a\u5185\u958b\u767a\u5efa\u8a2d\u90e8\u7a1a\u5185\u958b\u767a\u4e8b\u52d9\u6240","boring_xml_url":43,"boring_view_url":1,"soilmap_view_url":null,"soiltest_xml_url":43,"soiltest_view_url":42},{"id":235968,"code":"B4KJ201802000-1448","latitude":"45.090556","longitude":"141.769167","source_code":"HK20093104350001","project_name":"","survey_name":"\u4e00\u822c\u56fd\u905340\u53f7\u8c4a\u5bcc\u753a \u65b0\u751f\u5730\u8cea\u8abf\u67fb\u5916\u4e00\u9023\u696d\u52d9","client_name":"\u56fd\u571f\u4ea4\u901a\u7701\u5317\u6d77\u9053\u958b\u767a\u5c40\u7a1a\u5185\u958b\u767a\u5efa\u8a2d\u90e8\u7a1a\u5185\u958b\u767a\u4e8b\u52d9\u6240","boring_xml_url":43,"boring_view_url":1,"soilmap_view_url":null,"soiltest_xml_url":43,"soiltest_view_url":42},{"id":235967,"code":"B4KJ201802000-1447","latitude":"42.815556","longitude":"143.513611","source_code":"HK20072812200003","project_name":"","survey_name":"\u4e00\u822c\u56fd\u905338\u53f7\u8c4a\u9803\u753a\u5730\u4e0b\u6c34\u4f4d\u89b3\u6e2c\u5916\u696d\u52d9","client_name":"\u56fd\u571f\u4ea4\u901a\u7701\u5317\u6d77\u9053\u958b\u767a\u5c40\u5e2f\u5e83\u958b\u767a\u5efa\u8a2d\u90e8\u5e2f\u5e83\u9053\u8def\u4e8b\u52d9\u6240","boring_xml_url":43,"boring_view_url":1,"soilmap_view_url":null,"soiltest_xml_url":0,"soiltest_view_url":0},{"id":235966,"code":"B4KJ201802000-1446","latitude":"42.823333","longitude":"143.477222","source_code":"HK20072812200002","project_name":"","survey_name":"\u4e00\u822c\u56fd\u905338\u53f7\u8c4a\u9803\u753a\u5730\u4e0b\u6c34\u4f4d\u89b3\u6e2c\u5916\u696d\u52d9","client_name":"\u56fd\u571f\u4ea4\u901a\u7701\u5317\u6d77\u9053\u958b\u767a\u5c40\u5e2f\u5e83\u958b\u767a\u5efa\u8a2d\u90e8\u5e2f\u5e83\u9053\u8def\u4e8b\u52d9\u6240","boring_xml_url":43,"boring_view_url":1,"soilmap_view_url":null,"soiltest_xml_url":0,"soiltest_view_url":0},{"id":235965,"code":"B4KJ201802000-1445","latitude":"42.831111","longitude":"143.468611","source_code":"HK20072812200001","project_name":"","survey_name":"\u4e00\u822c\u56fd\u905338\u53f7\u8c4a\u9803\u753a\u5730\u4e0b\u6c34\u4f4d\u89b3\u6e2c\u5916\u696d\u52d9","client_name":"\u56fd\u571f\u4ea4\u901a\u7701\u5317\u6d77\u9053\u958b\u767a\u5c40\u5e2f\u5e83\u958b\u767a\u5efa\u8a2d\u90e8\u5e2f\u5e83\u9053\u8def\u4e8b\u52d9\u6240","boring_xml_url":43,"boring_view_url":1,"soilmap_view_url":null,"soiltest_xml_url":0,"soiltest_view_url":0},{"id":235964,"code":"B4KJ201802000-1444","latitude":"42.876556","longitude":"143.198167","source_code":"HK20072812150004","project_name":"\u4e00\u822c\u56fd\u9053236\u53f7","survey_name":"\u4e00\u822c\u56fd\u9053236\u53f7 \u4e2d\u672d\u5185\u6751\u5916 \u5730\u8cea\u8abf\u67fb\u696d\u52d9","client_name":"\u56fd\u571f\u4ea4\u901a\u7701\u5317\u6d77\u9053\u958b\u767a\u5c40\u5e2f\u5e83\u958b\u767a\u5efa\u8a2d\u90e8\u5e2f\u5e83\u9053\u8def\u4e8b\u52d9\u6240","boring_xml_url":43,"boring_view_url":1,"soilmap_view_url":null,"soiltest_xml_url":46,"soiltest_view_url":45},{"id":235963,"code":"B4KJ201802000-1443","latitude":"42.878056","longitude":"143.198944","source_code":"HK20072812150003","project_name":"\u4e00\u822c\u56fd\u9053236\u53f7","survey_name":"\u4e00\u822c\u56fd\u9053236\u53f7 \u4e2d\u672d\u5185\u6751\u5916 \u5730\u8cea\u8abf\u67fb\u696d\u52d9","client_name":"\u56fd\u571f\u4ea4\u901a\u7701\u5317\u6d77\u9053\u958b\u767a\u5c40\u5e2f\u5e83\u958b\u767a\u5efa\u8a2d\u90e8\u5e2f\u5e83\u9053\u8def\u4e8b\u52d9\u6240","boring_xml_url":43,"boring_view_url":1,"soilmap_view_url":null,"soiltest_xml_url":0,"soiltest_view_url":0},{"id":235962,"code":"B4KJ201802000-1442","latitude":"42.880917","longitude":"143.200472","source_code":"HK20072812150002","project_name":"\u4e00\u822c\u56fd\u9053236\u53f7","survey_name":"\u4e00\u822c\u56fd\u9053236\u53f7 \u4e2d\u672d\u5185\u6751\u5916 \u5730\u8cea\u8abf\u67fb\u696d\u52d9","client_name":"\u56fd\u571f\u4ea4\u901a\u7701\u5317\u6d77\u9053\u958b\u767a\u5c40\u5e2f\u5e83\u958b\u767a\u5efa\u8a2d\u90e8\u5e2f\u5e83\u9053\u8def\u4e8b\u52d9\u6240","boring_xml_url":43,"boring_view_url":1,"soilmap_view_url":null,"soiltest_xml_url":0,"soiltest_view_url":0},{"id":235961,"code":"B4KJ201802000-1441","latitude":"42.881417","longitude":"143.200722","source_code":"HK20072812150001","project_name":"\u4e00\u822c\u56fd\u9053236\u53f7","survey_name":"\u4e00\u822c\u56fd\u9053236\u53f7 \u4e2d\u672d\u5185\u6751\u5916 \u5730\u8cea\u8abf\u67fb\u696d\u52d9","client_name":"\u56fd\u571f\u4ea4\u901a\u7701\u5317\u6d77\u9053\u958b\u767a\u5c40\u5e2f\u5e83\u958b\u767a\u5efa\u8a2d\u90e8\u5e2f\u5e83\u9053\u8def\u4e8b\u52d9\u6240","boring_xml_url":43,"boring_view_url":1,"soilmap_view_url":null,"soiltest_xml_url":46,"soiltest_view_url":45},{"id":235960,"code":"B4KJ201802000-1440","latitude":"43.010833","longitude":"143.196667","source_code":"HK20112806120005","project_name":"\u97f3\u66f4\u6a0b\u9580\u5916\u8a73\u7d30\u8a2d\u8a08\u696d\u52d9","survey_name":"\u97f3\u66f4\u6a0b\u9580\u5916\u8a73\u7d30\u8a2d\u8a08\u696d\u52d9","client_name":"\u56fd\u571f\u4ea4\u901a\u7701 \u5317\u6d77\u9053\u958b\u767a\u5c40 \u5e2f\u5e83\u958b\u767a\u5efa\u8a2d\u90e8 \u5e2f\u5e83\u6cb3\u5ddd\u4e8b\u52d9\u6240","boring_xml_url":43,"boring_view_url":1,"soilmap_view_url":null,"soiltest_xml_url":0,"soiltest_view_url":0}]}}