{"header":{"xyz":{"source":[],"mosaic":false},"page":3161,"raw":{"soiltest_result":"0","bbox":"57.598333,109.544722,1.933333,163.806111","page":"3161"},"conditions":{"soiltest_result":0,"north":57.598333,"west":109.544722,"south":1.933333,"east":163.806111},"success":true,"message":""},"data":{"meta":{"total":212844,"page":3161,"pages":7095,"count":30},"values":[{"id":235719,"code":"B4KJ201802000-1199","latitude":"43.117306","longitude":"141.420389","source_code":"HK20092226290006","project_name":"\u96c1\u6765\u5c0e\u6c34\u8def\u8a73\u7d30\u8a2d\u8a08\u5916\u696d\u52d9","survey_name":"\u96c1\u6765\u5c0e\u6c34\u8def\u8a73\u7d30\u8a2d\u8a08\u5916\u696d\u52d9","client_name":"\u56fd\u571f\u4ea4\u901a\u7701 \u5317\u6d77\u9053\u958b\u767a\u5c40 \u77f3\u72e9\u5ddd\u958b\u767a\u5efa\u8a2d\u90e8 \u672d\u5e4c\u6cb3\u5ddd\u4e8b\u52d9\u6240","boring_xml_url":43,"boring_view_url":1,"soilmap_view_url":null,"soiltest_xml_url":43,"soiltest_view_url":42},{"id":235718,"code":"B4KJ201802000-1198","latitude":"43.112583","longitude":"141.425139","source_code":"HK20092226290005","project_name":"\u96c1\u6765\u5c0e\u6c34\u8def\u8a73\u7d30\u8a2d\u8a08\u5916\u696d\u52d9","survey_name":"\u96c1\u6765\u5c0e\u6c34\u8def\u8a73\u7d30\u8a2d\u8a08\u5916\u696d\u52d9","client_name":"\u56fd\u571f\u4ea4\u901a\u7701 \u5317\u6d77\u9053\u958b\u767a\u5c40 \u77f3\u72e9\u5ddd\u958b\u767a\u5efa\u8a2d\u90e8 \u672d\u5e4c\u6cb3\u5ddd\u4e8b\u52d9\u6240","boring_xml_url":43,"boring_view_url":1,"soilmap_view_url":null,"soiltest_xml_url":43,"soiltest_view_url":42},{"id":235717,"code":"B4KJ201802000-1197","latitude":"43.111222","longitude":"141.427167","source_code":"HK20092226290004","project_name":"\u96c1\u6765\u5c0e\u6c34\u8def\u8a73\u7d30\u8a2d\u8a08\u5916\u696d\u52d9","survey_name":"\u96c1\u6765\u5c0e\u6c34\u8def\u8a73\u7d30\u8a2d\u8a08\u5916\u696d\u52d9","client_name":"\u56fd\u571f\u4ea4\u901a\u7701 \u5317\u6d77\u9053\u958b\u767a\u5c40 \u77f3\u72e9\u5ddd\u958b\u767a\u5efa\u8a2d\u90e8 \u672d\u5e4c\u6cb3\u5ddd\u4e8b\u52d9\u6240","boring_xml_url":43,"boring_view_url":1,"soilmap_view_url":null,"soiltest_xml_url":43,"soiltest_view_url":42},{"id":235716,"code":"B4KJ201802000-1196","latitude":"43.107778","longitude":"141.432","source_code":"HK20092226290003","project_name":"\u96c1\u6765\u5c0e\u6c34\u8def\u8a73\u7d30\u8a2d\u8a08\u5916\u696d\u52d9","survey_name":"\u96c1\u6765\u5c0e\u6c34\u8def\u8a73\u7d30\u8a2d\u8a08\u5916\u696d\u52d9","client_name":"\u56fd\u571f\u4ea4\u901a\u7701 \u5317\u6d77\u9053\u958b\u767a\u5c40 \u77f3\u72e9\u5ddd\u958b\u767a\u5efa\u8a2d\u90e8 \u672d\u5e4c\u6cb3\u5ddd\u4e8b\u52d9\u6240","boring_xml_url":43,"boring_view_url":1,"soilmap_view_url":null,"soiltest_xml_url":0,"soiltest_view_url":0},{"id":235715,"code":"B4KJ201802000-1195","latitude":"43.104944","longitude":"141.435806","source_code":"HK20092226290002","project_name":"\u96c1\u6765\u5c0e\u6c34\u8def\u8a73\u7d30\u8a2d\u8a08\u5916\u696d\u52d9","survey_name":"\u96c1\u6765\u5c0e\u6c34\u8def\u8a73\u7d30\u8a2d\u8a08\u5916\u696d\u52d9","client_name":"\u56fd\u571f\u4ea4\u901a\u7701 \u5317\u6d77\u9053\u958b\u767a\u5c40 \u77f3\u72e9\u5ddd\u958b\u767a\u5efa\u8a2d\u90e8 \u672d\u5e4c\u6cb3\u5ddd\u4e8b\u52d9\u6240","boring_xml_url":43,"boring_view_url":1,"soilmap_view_url":null,"soiltest_xml_url":43,"soiltest_view_url":42},{"id":235714,"code":"B4KJ201802000-1194","latitude":"43.101861","longitude":"141.440306","source_code":"HK20092226290001","project_name":"\u96c1\u6765\u5c0e\u6c34\u8def\u8a73\u7d30\u8a2d\u8a08\u5916\u696d\u52d9","survey_name":"\u96c1\u6765\u5c0e\u6c34\u8def\u8a73\u7d30\u8a2d\u8a08\u5916\u696d\u52d9","client_name":"\u56fd\u571f\u4ea4\u901a\u7701 \u5317\u6d77\u9053\u958b\u767a\u5c40 \u77f3\u72e9\u5ddd\u958b\u767a\u5efa\u8a2d\u90e8 \u672d\u5e4c\u6cb3\u5ddd\u4e8b\u52d9\u6240","boring_xml_url":43,"boring_view_url":1,"soilmap_view_url":null,"soiltest_xml_url":0,"soiltest_view_url":0},{"id":235713,"code":"B4KJ201802000-1193","latitude":"43.094111","longitude":"141.577056","source_code":"HK20092212180007","project_name":"","survey_name":"\u7be0\u6d25\u5ddd\u7bc9\u5824\u5916\u571f\u8cea\u8abf\u67fb\u696d\u52d9","client_name":"\u56fd\u571f\u4ea4\u901a\u7701\u5317\u6d77\u9053\u958b\u767a\u5c40\u77f3\u72e9\u5ddd\u958b\u767a\u5efa\u8a2d\u90e8\u6c5f\u5225\u6cb3\u5ddd\u4e8b\u52d9\u6240","boring_xml_url":43,"boring_view_url":1,"soilmap_view_url":null,"soiltest_xml_url":43,"soiltest_view_url":42},{"id":235712,"code":"B4KJ201802000-1192","latitude":"43.093861","longitude":"141.576694","source_code":"HK20092212180006","project_name":"","survey_name":"\u7be0\u6d25\u5ddd\u7bc9\u5824\u5916\u571f\u8cea\u8abf\u67fb\u696d\u52d9","client_name":"\u56fd\u571f\u4ea4\u901a\u7701\u5317\u6d77\u9053\u958b\u767a\u5c40\u77f3\u72e9\u5ddd\u958b\u767a\u5efa\u8a2d\u90e8\u6c5f\u5225\u6cb3\u5ddd\u4e8b\u52d9\u6240","boring_xml_url":43,"boring_view_url":1,"soilmap_view_url":null,"soiltest_xml_url":43,"soiltest_view_url":42},{"id":235711,"code":"B4KJ201802000-1191","latitude":"43.111944","longitude":"141.621056","source_code":"HK20092212180005","project_name":"","survey_name":"\u7be0\u6d25\u5ddd\u7bc9\u5824\u5916\u571f\u8cea\u8abf\u67fb\u696d\u52d9","client_name":"\u56fd\u571f\u4ea4\u901a\u7701\u5317\u6d77\u9053\u958b\u767a\u5c40\u77f3\u72e9\u5ddd\u958b\u767a\u5efa\u8a2d\u90e8\u6c5f\u5225\u6cb3\u5ddd\u4e8b\u52d9\u6240","boring_xml_url":43,"boring_view_url":1,"soilmap_view_url":null,"soiltest_xml_url":43,"soiltest_view_url":42},{"id":235710,"code":"B4KJ201802000-1190","latitude":"43.111667","longitude":"141.620778","source_code":"HK20092212180004","project_name":"","survey_name":"\u7be0\u6d25\u5ddd\u7bc9\u5824\u5916\u571f\u8cea\u8abf\u67fb\u696d\u52d9","client_name":"\u56fd\u571f\u4ea4\u901a\u7701\u5317\u6d77\u9053\u958b\u767a\u5c40\u77f3\u72e9\u5ddd\u958b\u767a\u5efa\u8a2d\u90e8\u6c5f\u5225\u6cb3\u5ddd\u4e8b\u52d9\u6240","boring_xml_url":43,"boring_view_url":1,"soilmap_view_url":null,"soiltest_xml_url":43,"soiltest_view_url":42},{"id":235709,"code":"B4KJ201802000-1189","latitude":"43.158389","longitude":"141.495528","source_code":"HK20092212180003","project_name":"","survey_name":"\u7be0\u6d25\u5ddd\u7bc9\u5824\u5916\u571f\u8cea\u8abf\u67fb\u696d\u52d9","client_name":"\u56fd\u571f\u4ea4\u901a\u7701\u5317\u6d77\u9053\u958b\u767a\u5c40\u77f3\u72e9\u5ddd\u958b\u767a\u5efa\u8a2d\u90e8\u6c5f\u5225\u6cb3\u5ddd\u4e8b\u52d9\u6240","boring_xml_url":43,"boring_view_url":1,"soilmap_view_url":null,"soiltest_xml_url":43,"soiltest_view_url":42},{"id":235708,"code":"B4KJ201802000-1188","latitude":"43.158167","longitude":"141.4955","source_code":"HK20092212180002","project_name":"","survey_name":"\u7be0\u6d25\u5ddd\u7bc9\u5824\u5916\u571f\u8cea\u8abf\u67fb\u696d\u52d9","client_name":"\u56fd\u571f\u4ea4\u901a\u7701\u5317\u6d77\u9053\u958b\u767a\u5c40\u77f3\u72e9\u5ddd\u958b\u767a\u5efa\u8a2d\u90e8\u6c5f\u5225\u6cb3\u5ddd\u4e8b\u52d9\u6240","boring_xml_url":43,"boring_view_url":1,"soilmap_view_url":null,"soiltest_xml_url":43,"soiltest_view_url":42},{"id":235707,"code":"B4KJ201802000-1187","latitude":"43.158583","longitude":"141.495556","source_code":"HK20092212180001","project_name":"","survey_name":"\u7be0\u6d25\u5ddd\u7bc9\u5824\u5916\u571f\u8cea\u8abf\u67fb\u696d\u52d9","client_name":"\u56fd\u571f\u4ea4\u901a\u7701\u5317\u6d77\u9053\u958b\u767a\u5c40\u77f3\u72e9\u5ddd\u958b\u767a\u5efa\u8a2d\u90e8\u6c5f\u5225\u6cb3\u5ddd\u4e8b\u52d9\u6240","boring_xml_url":43,"boring_view_url":1,"soilmap_view_url":null,"soiltest_xml_url":43,"soiltest_view_url":42},{"id":235706,"code":"B4KJ201802000-1186","latitude":"43.107444","longitude":"141.565889","source_code":"HK20082212200009","project_name":"\u65e7\u8c4a\u5e73\u5ddd\u6a0b\u9580\u5916\u571f\u8cea\u8abf\u67fb","survey_name":"\u65e7\u8c4a\u5e73\u5ddd\u6a0b\u9580\u5916\u571f\u8cea\u8abf\u67fb\u696d\u52d9","client_name":"\u56fd\u571f\u4ea4\u901a\u7701 \u5317\u6d77\u9053\u958b\u767a\u5c40 \u77f3\u72e9\u5ddd\u958b\u767a\u5efa\u8a2d\u90e8 \u6c5f\u5225\u6cb3\u5ddd\u4e8b\u52d9\u6240","boring_xml_url":43,"boring_view_url":1,"soilmap_view_url":null,"soiltest_xml_url":46,"soiltest_view_url":45},{"id":235705,"code":"B4KJ201802000-1185","latitude":"43.107667","longitude":"141.566111","source_code":"HK20082212200008","project_name":"\u65e7\u8c4a\u5e73\u5ddd\u6a0b\u9580\u5916\u571f\u8cea\u8abf\u67fb","survey_name":"\u65e7\u8c4a\u5e73\u5ddd\u6a0b\u9580\u5916\u571f\u8cea\u8abf\u67fb\u696d\u52d9","client_name":"\u56fd\u571f\u4ea4\u901a\u7701 \u5317\u6d77\u9053\u958b\u767a\u5c40 \u77f3\u72e9\u5ddd\u958b\u767a\u5efa\u8a2d\u90e8 \u6c5f\u5225\u6cb3\u5ddd\u4e8b\u52d9\u6240","boring_xml_url":43,"boring_view_url":1,"soilmap_view_url":null,"soiltest_xml_url":0,"soiltest_view_url":0},{"id":235704,"code":"B4KJ201802000-1184","latitude":"43.110778","longitude":"141.562972","source_code":"HK20082212200007","project_name":"\u65e7\u8c4a\u5e73\u5ddd\u6a0b\u9580\u5916\u571f\u8cea\u8abf\u67fb","survey_name":"\u65e7\u8c4a\u5e73\u5ddd\u6a0b\u9580\u5916\u571f\u8cea\u8abf\u67fb\u696d\u52d9","client_name":"\u56fd\u571f\u4ea4\u901a\u7701 \u5317\u6d77\u9053\u958b\u767a\u5c40 \u77f3\u72e9\u5ddd\u958b\u767a\u5efa\u8a2d\u90e8 \u6c5f\u5225\u6cb3\u5ddd\u4e8b\u52d9\u6240","boring_xml_url":43,"boring_view_url":1,"soilmap_view_url":null,"soiltest_xml_url":46,"soiltest_view_url":45},{"id":235703,"code":"B4KJ201802000-1183","latitude":"43.110722","longitude":"141.563333","source_code":"HK20082212200006","project_name":"\u65e7\u8c4a\u5e73\u5ddd\u6a0b\u9580\u5916\u571f\u8cea\u8abf\u67fb","survey_name":"\u65e7\u8c4a\u5e73\u5ddd\u6a0b\u9580\u5916\u571f\u8cea\u8abf\u67fb\u696d\u52d9","client_name":"\u56fd\u571f\u4ea4\u901a\u7701 \u5317\u6d77\u9053\u958b\u767a\u5c40 \u77f3\u72e9\u5ddd\u958b\u767a\u5efa\u8a2d\u90e8 \u6c5f\u5225\u6cb3\u5ddd\u4e8b\u52d9\u6240","boring_xml_url":43,"boring_view_url":1,"soilmap_view_url":null,"soiltest_xml_url":0,"soiltest_view_url":0},{"id":235702,"code":"B4KJ201802000-1182","latitude":"43.130111","longitude":"141.514389","source_code":"HK20082212200005","project_name":"\u65e7\u8c4a\u5e73\u5ddd\u6a0b\u9580\u5916\u571f\u8cea\u8abf\u67fb","survey_name":"\u65e7\u8c4a\u5e73\u5ddd\u6a0b\u9580\u5916\u571f\u8cea\u8abf\u67fb\u696d\u52d9","client_name":"\u56fd\u571f\u4ea4\u901a\u7701 \u5317\u6d77\u9053\u958b\u767a\u5c40 \u77f3\u72e9\u5ddd\u958b\u767a\u5efa\u8a2d\u90e8 \u6c5f\u5225\u6cb3\u5ddd\u4e8b\u52d9\u6240","boring_xml_url":43,"boring_view_url":1,"soilmap_view_url":null,"soiltest_xml_url":46,"soiltest_view_url":45},{"id":235701,"code":"B4KJ201802000-1181","latitude":"43.129944","longitude":"141.5145","source_code":"HK20082212200004","project_name":"\u65e7\u8c4a\u5e73\u5ddd\u6a0b\u9580\u5916\u571f\u8cea\u8abf\u67fb","survey_name":"\u65e7\u8c4a\u5e73\u5ddd\u6a0b\u9580\u5916\u571f\u8cea\u8abf\u67fb\u696d\u52d9","client_name":"\u56fd\u571f\u4ea4\u901a\u7701 \u5317\u6d77\u9053\u958b\u767a\u5c40 \u77f3\u72e9\u5ddd\u958b\u767a\u5efa\u8a2d\u90e8 \u6c5f\u5225\u6cb3\u5ddd\u4e8b\u52d9\u6240","boring_xml_url":43,"boring_view_url":1,"soilmap_view_url":null,"soiltest_xml_url":46,"soiltest_view_url":45},{"id":235700,"code":"B4KJ201802000-1180","latitude":"43.129778","longitude":"141.515","source_code":"HK20082212200003","project_name":"\u65e7\u8c4a\u5e73\u5ddd\u6a0b\u9580\u5916\u571f\u8cea\u8abf\u67fb","survey_name":"\u65e7\u8c4a\u5e73\u5ddd\u6a0b\u9580\u5916\u571f\u8cea\u8abf\u67fb\u696d\u52d9","client_name":"\u56fd\u571f\u4ea4\u901a\u7701 \u5317\u6d77\u9053\u958b\u767a\u5c40 \u77f3\u72e9\u5ddd\u958b\u767a\u5efa\u8a2d\u90e8 \u6c5f\u5225\u6cb3\u5ddd\u4e8b\u52d9\u6240","boring_xml_url":43,"boring_view_url":1,"soilmap_view_url":null,"soiltest_xml_url":46,"soiltest_view_url":45},{"id":235699,"code":"B4KJ201802000-1179","latitude":"43.130333","longitude":"141.513722","source_code":"HK20082212200002","project_name":"\u65e7\u8c4a\u5e73\u5ddd\u6a0b\u9580\u5916\u571f\u8cea\u8abf\u67fb","survey_name":"\u65e7\u8c4a\u5e73\u5ddd\u6a0b\u9580\u5916\u571f\u8cea\u8abf\u67fb\u696d\u52d9","client_name":"\u56fd\u571f\u4ea4\u901a\u7701 \u5317\u6d77\u9053\u958b\u767a\u5c40 \u77f3\u72e9\u5ddd\u958b\u767a\u5efa\u8a2d\u90e8 \u6c5f\u5225\u6cb3\u5ddd\u4e8b\u52d9\u6240","boring_xml_url":43,"boring_view_url":1,"soilmap_view_url":null,"soiltest_xml_url":46,"soiltest_view_url":45},{"id":235698,"code":"B4KJ201802000-1178","latitude":"43.129083","longitude":"141.513417","source_code":"HK20082212200001","project_name":"\u65e7\u8c4a\u5e73\u5ddd\u6a0b\u9580\u5916\u571f\u8cea\u8abf\u67fb","survey_name":"\u65e7\u8c4a\u5e73\u5ddd\u6a0b\u9580\u5916\u571f\u8cea\u8abf\u67fb\u696d\u52d9","client_name":"\u56fd\u571f\u4ea4\u901a\u7701 \u5317\u6d77\u9053\u958b\u767a\u5c40 \u77f3\u72e9\u5ddd\u958b\u767a\u5efa\u8a2d\u90e8 \u6c5f\u5225\u6cb3\u5ddd\u4e8b\u52d9\u6240","boring_xml_url":43,"boring_view_url":1,"soilmap_view_url":null,"soiltest_xml_url":46,"soiltest_view_url":45},{"id":235697,"code":"B4KJ201802000-1177","latitude":"43.173194","longitude":"141.611278","source_code":"HK20092212100006","project_name":"","survey_name":"\u4e0b\u65b0\u7be0\u6d25\u4e0a\u6d41\u7bc9\u5824\u5916\u5730\u8cea\u8abf\u67fb\u696d\u52d9","client_name":"\u56fd\u571f\u4ea4\u901a\u7701\u5317\u6d77\u9053\u958b\u767a\u5c40\u77f3\u72e9\u5ddd\u958b\u767a\u5efa\u8a2d\u90e8\u6c5f\u5225\u6cb3\u5ddd\u4e8b\u52d9\u6240","boring_xml_url":43,"boring_view_url":1,"soilmap_view_url":null,"soiltest_xml_url":46,"soiltest_view_url":45},{"id":235696,"code":"B4KJ201802000-1176","latitude":"43.173167","longitude":"141.611528","source_code":"HK20092212100005","project_name":"","survey_name":"\u4e0b\u65b0\u7be0\u6d25\u4e0a\u6d41\u7bc9\u5824\u5916\u5730\u8cea\u8abf\u67fb\u696d\u52d9","client_name":"\u56fd\u571f\u4ea4\u901a\u7701\u5317\u6d77\u9053\u958b\u767a\u5c40\u77f3\u72e9\u5ddd\u958b\u767a\u5efa\u8a2d\u90e8\u6c5f\u5225\u6cb3\u5ddd\u4e8b\u52d9\u6240","boring_xml_url":43,"boring_view_url":1,"soilmap_view_url":null,"soiltest_xml_url":46,"soiltest_view_url":45},{"id":235695,"code":"B4KJ201802000-1175","latitude":"43.160139","longitude":"141.610639","source_code":"HK20092212100004","project_name":"","survey_name":"\u4e0b\u65b0\u7be0\u6d25\u4e0a\u6d41\u7bc9\u5824\u5916\u5730\u8cea\u8abf\u67fb\u696d\u52d9","client_name":"\u56fd\u571f\u4ea4\u901a\u7701\u5317\u6d77\u9053\u958b\u767a\u5c40\u77f3\u72e9\u5ddd\u958b\u767a\u5efa\u8a2d\u90e8\u6c5f\u5225\u6cb3\u5ddd\u4e8b\u52d9\u6240","boring_xml_url":43,"boring_view_url":1,"soilmap_view_url":null,"soiltest_xml_url":46,"soiltest_view_url":45},{"id":235694,"code":"B4KJ201802000-1174","latitude":"43.160139","longitude":"141.610861","source_code":"HK20092212100003","project_name":"","survey_name":"\u4e0b\u65b0\u7be0\u6d25\u4e0a\u6d41\u7bc9\u5824\u5916\u5730\u8cea\u8abf\u67fb\u696d\u52d9","client_name":"\u56fd\u571f\u4ea4\u901a\u7701\u5317\u6d77\u9053\u958b\u767a\u5c40\u77f3\u72e9\u5ddd\u958b\u767a\u5efa\u8a2d\u90e8\u6c5f\u5225\u6cb3\u5ddd\u4e8b\u52d9\u6240","boring_xml_url":43,"boring_view_url":1,"soilmap_view_url":null,"soiltest_xml_url":46,"soiltest_view_url":45},{"id":235693,"code":"B4KJ201802000-1173","latitude":"43.133361","longitude":"141.595833","source_code":"HK20092212100002","project_name":"","survey_name":"\u4e0b\u65b0\u7be0\u6d25\u4e0a\u6d41\u7bc9\u5824\u5916\u5730\u8cea\u8abf\u67fb\u696d\u52d9","client_name":"\u56fd\u571f\u4ea4\u901a\u7701\u5317\u6d77\u9053\u958b\u767a\u5c40\u77f3\u72e9\u5ddd\u958b\u767a\u5efa\u8a2d\u90e8\u6c5f\u5225\u6cb3\u5ddd\u4e8b\u52d9\u6240","boring_xml_url":43,"boring_view_url":1,"soilmap_view_url":null,"soiltest_xml_url":46,"soiltest_view_url":45},{"id":235692,"code":"B4KJ201802000-1172","latitude":"43.133222","longitude":"141.595972","source_code":"HK20092212100001","project_name":"","survey_name":"\u4e0b\u65b0\u7be0\u6d25\u4e0a\u6d41\u7bc9\u5824\u5916\u5730\u8cea\u8abf\u67fb\u696d\u52d9","client_name":"\u56fd\u571f\u4ea4\u901a\u7701\u5317\u6d77\u9053\u958b\u767a\u5c40\u77f3\u72e9\u5ddd\u958b\u767a\u5efa\u8a2d\u90e8\u6c5f\u5225\u6cb3\u5ddd\u4e8b\u52d9\u6240","boring_xml_url":43,"boring_view_url":1,"soilmap_view_url":null,"soiltest_xml_url":46,"soiltest_view_url":45},{"id":235691,"code":"B4KJ201802000-1171","latitude":"43.357333","longitude":"141.844139","source_code":"HK20092211210010","project_name":"\u7b2c\u4e8c\u5e79\u5ddd\u6a0b\u53e3\u6a0b\u9580\u5916\u5730\u8cea\u8abf\u67fb\u696d\u52d9","survey_name":"\u7b2c\u4e8c\u5e79\u5ddd\u6a0b\u53e3\u6a0b\u9580\u5916\u5730\u8cea\u8abf\u67fb\u696d\u52d9","client_name":"\u56fd\u571f\u4ea4\u901a\u7701 \u5317\u6d77\u9053\u958b\u767a\u5c40 \u77f3\u72e9\u5ddd\u958b\u767a\u5efa\u8a2d\u90e8 \u5ca9\u898b\u6ca2\u6cb3\u5ddd\u4e8b\u52d9\u6240","boring_xml_url":43,"boring_view_url":1,"soilmap_view_url":null,"soiltest_xml_url":43,"soiltest_view_url":42},{"id":235690,"code":"B4KJ201802000-1170","latitude":"43.35775","longitude":"141.844528","source_code":"HK20092211210009","project_name":"\u7b2c\u4e8c\u5e79\u5ddd\u6a0b\u53e3\u6a0b\u9580\u5916\u5730\u8cea\u8abf\u67fb\u696d\u52d9","survey_name":"\u7b2c\u4e8c\u5e79\u5ddd\u6a0b\u53e3\u6a0b\u9580\u5916\u5730\u8cea\u8abf\u67fb\u696d\u52d9","client_name":"\u56fd\u571f\u4ea4\u901a\u7701 \u5317\u6d77\u9053\u958b\u767a\u5c40 \u77f3\u72e9\u5ddd\u958b\u767a\u5efa\u8a2d\u90e8 \u5ca9\u898b\u6ca2\u6cb3\u5ddd\u4e8b\u52d9\u6240","boring_xml_url":43,"boring_view_url":1,"soilmap_view_url":null,"soiltest_xml_url":43,"soiltest_view_url":42}]}}