{"header":{"xyz":{"source":[],"mosaic":false},"page":3176,"raw":{"soiltest_result":"0","bbox":"57.598333,109.544722,1.933333,163.806111","page":"3176"},"conditions":{"soiltest_result":0,"north":57.598333,"west":109.544722,"south":1.933333,"east":163.806111},"success":true,"message":""},"data":{"meta":{"total":212844,"page":3176,"pages":7095,"count":30},"values":[{"id":235269,"code":"B4KJ201802000-0749","latitude":"43.123139","longitude":"141.621722","source_code":"HK20102100160004","project_name":"\u5e4c\u5411\u5ddd\u897f5\u53f7\u6a4b\u571f\u8cea\u8abf\u67fb\u696d\u52d9","survey_name":"\u5e4c\u5411\u5ddd\u897f5\u53f7\u6a4b\u571f\u8cea\u8abf\u67fb\u696d\u52d9","client_name":"\u56fd\u571f\u4ea4\u901a\u7701 \u5317\u6d77\u9053\u958b\u767a\u5c40 \u672d\u5e4c\u958b\u767a\u5efa\u8a2d\u90e8 \u6c5f\u5225\u6cb3\u5ddd\u4e8b\u52d9\u6240","boring_xml_url":43,"boring_view_url":1,"soilmap_view_url":null,"soiltest_xml_url":0,"soiltest_view_url":0},{"id":235268,"code":"B4KJ201802000-0748","latitude":"43.122667","longitude":"141.622167","source_code":"HK20102100160003","project_name":"\u5e4c\u5411\u5ddd\u897f5\u53f7\u6a4b\u571f\u8cea\u8abf\u67fb\u696d\u52d9","survey_name":"\u5e4c\u5411\u5ddd\u897f5\u53f7\u6a4b\u571f\u8cea\u8abf\u67fb\u696d\u52d9","client_name":"\u56fd\u571f\u4ea4\u901a\u7701 \u5317\u6d77\u9053\u958b\u767a\u5c40 \u672d\u5e4c\u958b\u767a\u5efa\u8a2d\u90e8 \u6c5f\u5225\u6cb3\u5ddd\u4e8b\u52d9\u6240","boring_xml_url":43,"boring_view_url":1,"soilmap_view_url":null,"soiltest_xml_url":0,"soiltest_view_url":0},{"id":235267,"code":"B4KJ201802000-0747","latitude":"43.121944","longitude":"141.622833","source_code":"HK20102100160002","project_name":"\u5e4c\u5411\u5ddd\u897f5\u53f7\u6a4b\u571f\u8cea\u8abf\u67fb\u696d\u52d9","survey_name":"\u5e4c\u5411\u5ddd\u897f5\u53f7\u6a4b\u571f\u8cea\u8abf\u67fb\u696d\u52d9","client_name":"\u56fd\u571f\u4ea4\u901a\u7701 \u5317\u6d77\u9053\u958b\u767a\u5c40 \u672d\u5e4c\u958b\u767a\u5efa\u8a2d\u90e8 \u6c5f\u5225\u6cb3\u5ddd\u4e8b\u52d9\u6240","boring_xml_url":43,"boring_view_url":1,"soilmap_view_url":null,"soiltest_xml_url":0,"soiltest_view_url":0},{"id":235266,"code":"B4KJ201802000-0746","latitude":"43.121472","longitude":"141.623278","source_code":"HK20102100160001","project_name":"\u5e4c\u5411\u5ddd\u897f5\u53f7\u6a4b\u571f\u8cea\u8abf\u67fb\u696d\u52d9","survey_name":"\u5e4c\u5411\u5ddd\u897f5\u53f7\u6a4b\u571f\u8cea\u8abf\u67fb\u696d\u52d9","client_name":"\u56fd\u571f\u4ea4\u901a\u7701 \u5317\u6d77\u9053\u958b\u767a\u5c40 \u672d\u5e4c\u958b\u767a\u5efa\u8a2d\u90e8 \u6c5f\u5225\u6cb3\u5ddd\u4e8b\u52d9\u6240","boring_xml_url":43,"boring_view_url":1,"soilmap_view_url":null,"soiltest_xml_url":0,"soiltest_view_url":0},{"id":235265,"code":"B4KJ201802000-0745","latitude":"43.08725","longitude":"141.578889","source_code":"HK20122112070005","project_name":"","survey_name":"\u5343\u6b73\u5ddd\u6c5f\u5225\u592a\u5730\u533a\u904a\u6c34\u5730\u6392\u6c34\u9580\u5916\u5730\u8cea\u8abf\u67fb\u696d\u52d9","client_name":"\u56fd\u571f\u4ea4\u901a\u7701\u5317\u6d77\u9053\u958b\u767a\u5c40\u672d\u5e4c\u958b\u767a\u5efa\u8a2d\u90e8\u6c5f\u5225\u6cb3\u5ddd\u4e8b\u52d9\u6240","boring_xml_url":43,"boring_view_url":1,"soilmap_view_url":null,"soiltest_xml_url":43,"soiltest_view_url":42},{"id":235264,"code":"B4KJ201802000-0744","latitude":"43.087917","longitude":"141.579056","source_code":"HK20122112070004","project_name":"","survey_name":"\u5343\u6b73\u5ddd\u6c5f\u5225\u592a\u5730\u533a\u904a\u6c34\u5730\u6392\u6c34\u9580\u5916\u5730\u8cea\u8abf\u67fb\u696d\u52d9","client_name":"\u56fd\u571f\u4ea4\u901a\u7701\u5317\u6d77\u9053\u958b\u767a\u5c40\u672d\u5e4c\u958b\u767a\u5efa\u8a2d\u90e8\u6c5f\u5225\u6cb3\u5ddd\u4e8b\u52d9\u6240","boring_xml_url":43,"boring_view_url":1,"soilmap_view_url":null,"soiltest_xml_url":43,"soiltest_view_url":42},{"id":235263,"code":"B4KJ201802000-0743","latitude":"43.087611","longitude":"141.578806","source_code":"HK20122112070003","project_name":"","survey_name":"\u5343\u6b73\u5ddd\u6c5f\u5225\u592a\u5730\u533a\u904a\u6c34\u5730\u6392\u6c34\u9580\u5916\u5730\u8cea\u8abf\u67fb\u696d\u52d9","client_name":"\u56fd\u571f\u4ea4\u901a\u7701\u5317\u6d77\u9053\u958b\u767a\u5c40\u672d\u5e4c\u958b\u767a\u5efa\u8a2d\u90e8\u6c5f\u5225\u6cb3\u5ddd\u4e8b\u52d9\u6240","boring_xml_url":43,"boring_view_url":1,"soilmap_view_url":null,"soiltest_xml_url":43,"soiltest_view_url":42},{"id":235262,"code":"B4KJ201802000-0742","latitude":"43.087667","longitude":"141.578333","source_code":"HK20122112070002","project_name":"","survey_name":"\u5343\u6b73\u5ddd\u6c5f\u5225\u592a\u5730\u533a\u904a\u6c34\u5730\u6392\u6c34\u9580\u5916\u5730\u8cea\u8abf\u67fb\u696d\u52d9","client_name":"\u56fd\u571f\u4ea4\u901a\u7701\u5317\u6d77\u9053\u958b\u767a\u5c40\u672d\u5e4c\u958b\u767a\u5efa\u8a2d\u90e8\u6c5f\u5225\u6cb3\u5ddd\u4e8b\u52d9\u6240","boring_xml_url":43,"boring_view_url":1,"soilmap_view_url":null,"soiltest_xml_url":43,"soiltest_view_url":42},{"id":235261,"code":"B4KJ201802000-0741","latitude":"43.087722","longitude":"141.578028","source_code":"HK20122112070001","project_name":"","survey_name":"\u5343\u6b73\u5ddd\u6c5f\u5225\u592a\u5730\u533a\u904a\u6c34\u5730\u6392\u6c34\u9580\u5916\u5730\u8cea\u8abf\u67fb\u696d\u52d9","client_name":"\u56fd\u571f\u4ea4\u901a\u7701\u5317\u6d77\u9053\u958b\u767a\u5c40\u672d\u5e4c\u958b\u767a\u5efa\u8a2d\u90e8\u6c5f\u5225\u6cb3\u5ddd\u4e8b\u52d9\u6240","boring_xml_url":43,"boring_view_url":1,"soilmap_view_url":null,"soiltest_xml_url":43,"soiltest_view_url":42},{"id":235260,"code":"B4KJ201802000-0740","latitude":"43.122944","longitude":"143.716306","source_code":"HK20102112180002","project_name":"\u6e05\u771f\u5e03\u5ddd\u7bc9\u5824\u571f\u8cea\u8abf\u67fb\u696d\u52d9","survey_name":"\u6e05\u771f\u5e03\u5ddd\u7bc9\u5824\u571f\u8cea\u8abf\u67fb\u696d\u52d9","client_name":"\u56fd\u571f\u4ea4\u901a\u7701 \u5317\u6d77\u9053\u958b\u767a\u5c40 \u672d\u5e4c\u958b\u767a\u5efa\u8a2d\u90e8 \u6c5f\u5225\u6cb3\u5ddd\u4e8b\u52d9\u6240","boring_xml_url":43,"boring_view_url":1,"soilmap_view_url":null,"soiltest_xml_url":0,"soiltest_view_url":0},{"id":235259,"code":"B4KJ201802000-0739","latitude":"43.128972","longitude":"143.698389","source_code":"HK20102112180001","project_name":"\u6e05\u771f\u5e03\u5ddd\u7bc9\u5824\u571f\u8cea\u8abf\u67fb\u696d\u52d9","survey_name":"\u6e05\u771f\u5e03\u5ddd\u7bc9\u5824\u571f\u8cea\u8abf\u67fb\u696d\u52d9","client_name":"\u56fd\u571f\u4ea4\u901a\u7701 \u5317\u6d77\u9053\u958b\u767a\u5c40 \u672d\u5e4c\u958b\u767a\u5efa\u8a2d\u90e8 \u6c5f\u5225\u6cb3\u5ddd\u4e8b\u52d9\u6240","boring_xml_url":43,"boring_view_url":1,"soilmap_view_url":null,"soiltest_xml_url":0,"soiltest_view_url":0},{"id":235258,"code":"B4KJ201802000-0738","latitude":"43.087","longitude":"141.516","source_code":"HK20072125340006","project_name":"","survey_name":"\u5e73\u621019\u5e74\u5ea6\u65bd\u884c \u5ca9\u898b\u6ca2\u9053\u8def\u4e8b\u52d9\u6240\u7ba1\u5185 \u6cd5\u9762\u88dc\u4fee\u8a2d\u8a08\u5916\u4e00\u9023\u696d\u52d9","client_name":"\u56fd\u571f\u4ea4\u901a\u7701 \u5317\u6d77\u9053\u958b\u767a\u5c40\u672d\u5e4c\u958b\u767a\u5efa\u8a2d\u90e8\u5ca9\u898b\u6ca2\u9053\u8def\u4e8b\u52d9\u6240","boring_xml_url":43,"boring_view_url":1,"soilmap_view_url":null,"soiltest_xml_url":0,"soiltest_view_url":0},{"id":235257,"code":"B4KJ201802000-0737","latitude":"43.262778","longitude":"142.029444","source_code":"HK20072125340005","project_name":"","survey_name":"\u5e73\u621019\u5e74\u5ea6\u65bd\u884c \u5ca9\u898b\u6ca2\u9053\u8def\u4e8b\u52d9\u6240\u7ba1\u5185 \u6cd5\u9762\u88dc\u4fee\u8a2d\u8a08\u5916\u4e00\u9023\u696d\u52d9","client_name":"\u56fd\u571f\u4ea4\u901a\u7701 \u5317\u6d77\u9053\u958b\u767a\u5c40\u672d\u5e4c\u958b\u767a\u5efa\u8a2d\u90e8\u5ca9\u898b\u6ca2\u9053\u8def\u4e8b\u52d9\u6240","boring_xml_url":43,"boring_view_url":1,"soilmap_view_url":null,"soiltest_xml_url":0,"soiltest_view_url":0},{"id":235256,"code":"B4KJ201802000-0736","latitude":"43.262778","longitude":"142.029444","source_code":"HK20072125340004","project_name":"","survey_name":"\u5e73\u621019\u5e74\u5ea6\u65bd\u884c \u5ca9\u898b\u6ca2\u9053\u8def\u4e8b\u52d9\u6240\u7ba1\u5185 \u6cd5\u9762\u88dc\u4fee\u8a2d\u8a08\u5916\u4e00\u9023\u696d\u52d9","client_name":"\u56fd\u571f\u4ea4\u901a\u7701 \u5317\u6d77\u9053\u958b\u767a\u5c40\u672d\u5e4c\u958b\u767a\u5efa\u8a2d\u90e8\u5ca9\u898b\u6ca2\u9053\u8def\u4e8b\u52d9\u6240","boring_xml_url":43,"boring_view_url":1,"soilmap_view_url":null,"soiltest_xml_url":0,"soiltest_view_url":0},{"id":235255,"code":"B4KJ201802000-0735","latitude":"43.258333","longitude":"142.026667","source_code":"HK20072125340003","project_name":"","survey_name":"\u5e73\u621019\u5e74\u5ea6\u65bd\u884c \u5ca9\u898b\u6ca2\u9053\u8def\u4e8b\u52d9\u6240\u7ba1\u5185 \u6cd5\u9762\u88dc\u4fee\u8a2d\u8a08\u5916\u4e00\u9023\u696d\u52d9","client_name":"\u56fd\u571f\u4ea4\u901a\u7701 \u5317\u6d77\u9053\u958b\u767a\u5c40\u672d\u5e4c\u958b\u767a\u5efa\u8a2d\u90e8\u5ca9\u898b\u6ca2\u9053\u8def\u4e8b\u52d9\u6240","boring_xml_url":43,"boring_view_url":1,"soilmap_view_url":null,"soiltest_xml_url":0,"soiltest_view_url":0},{"id":235254,"code":"B4KJ201802000-0734","latitude":"43.258333","longitude":"142.026667","source_code":"HK20072125340002","project_name":"","survey_name":"\u5e73\u621019\u5e74\u5ea6\u65bd\u884c \u5ca9\u898b\u6ca2\u9053\u8def\u4e8b\u52d9\u6240\u7ba1\u5185 \u6cd5\u9762\u88dc\u4fee\u8a2d\u8a08\u5916\u4e00\u9023\u696d\u52d9","client_name":"\u56fd\u571f\u4ea4\u901a\u7701 \u5317\u6d77\u9053\u958b\u767a\u5c40\u672d\u5e4c\u958b\u767a\u5efa\u8a2d\u90e8\u5ca9\u898b\u6ca2\u9053\u8def\u4e8b\u52d9\u6240","boring_xml_url":43,"boring_view_url":1,"soilmap_view_url":null,"soiltest_xml_url":0,"soiltest_view_url":0},{"id":235253,"code":"B4KJ201802000-0733","latitude":"43.258333","longitude":"142.026667","source_code":"HK20072125340001","project_name":"","survey_name":"\u5e73\u621019\u5e74\u5ea6\u65bd\u884c \u5ca9\u898b\u6ca2\u9053\u8def\u4e8b\u52d9\u6240\u7ba1\u5185 \u6cd5\u9762\u88dc\u4fee\u8a2d\u8a08\u5916\u4e00\u9023\u696d\u52d9","client_name":"\u56fd\u571f\u4ea4\u901a\u7701 \u5317\u6d77\u9053\u958b\u767a\u5c40\u672d\u5e4c\u958b\u767a\u5efa\u8a2d\u90e8\u5ca9\u898b\u6ca2\u9053\u8def\u4e8b\u52d9\u6240","boring_xml_url":43,"boring_view_url":1,"soilmap_view_url":null,"soiltest_xml_url":0,"soiltest_view_url":0},{"id":235252,"code":"B4KJ201802000-0732","latitude":"43.048611","longitude":"142.096944","source_code":"HK20082126100005","project_name":"","survey_name":"\u4e00\u822c\u56fd\u9053452\u53f7 \u5915\u5f35\u5e02 \u30b7\u30e5\u30fc\u30d1\u30ed\u30c0\u30e0\u95a2\u9023\u6cd5\u9762\u8abf\u67fb\u696d\u52d9","client_name":"\u56fd\u571f\u4ea4\u901a\u7701\u5317\u6d77\u9053\u958b\u767a\u5c40\u672d\u5e4c\u958b\u767a\u5efa\u8a2d\u90e8\u5ca9\u898b\u6ca2\u9053\u8def\u4e8b\u52d9\u6240","boring_xml_url":43,"boring_view_url":1,"soilmap_view_url":null,"soiltest_xml_url":0,"soiltest_view_url":0},{"id":235251,"code":"B4KJ201802000-0731","latitude":"43.054167","longitude":"142.0975","source_code":"HK20082126100003","project_name":"","survey_name":"\u4e00\u822c\u56fd\u9053452\u53f7 \u5915\u5f35\u5e02 \u30b7\u30e5\u30fc\u30d1\u30ed\u30c0\u30e0\u95a2\u9023\u6cd5\u9762\u8abf\u67fb\u696d\u52d9","client_name":"\u56fd\u571f\u4ea4\u901a\u7701\u5317\u6d77\u9053\u958b\u767a\u5c40\u672d\u5e4c\u958b\u767a\u5efa\u8a2d\u90e8\u5ca9\u898b\u6ca2\u9053\u8def\u4e8b\u52d9\u6240","boring_xml_url":43,"boring_view_url":1,"soilmap_view_url":null,"soiltest_xml_url":0,"soiltest_view_url":0},{"id":235250,"code":"B4KJ201802000-0730","latitude":"43.053333","longitude":"142.098056","source_code":"HK20082126100002","project_name":"","survey_name":"\u4e00\u822c\u56fd\u9053452\u53f7 \u5915\u5f35\u5e02 \u30b7\u30e5\u30fc\u30d1\u30ed\u30c0\u30e0\u95a2\u9023\u6cd5\u9762\u8abf\u67fb\u696d\u52d9","client_name":"\u56fd\u571f\u4ea4\u901a\u7701\u5317\u6d77\u9053\u958b\u767a\u5c40\u672d\u5e4c\u958b\u767a\u5efa\u8a2d\u90e8\u5ca9\u898b\u6ca2\u9053\u8def\u4e8b\u52d9\u6240","boring_xml_url":43,"boring_view_url":1,"soilmap_view_url":null,"soiltest_xml_url":0,"soiltest_view_url":0},{"id":235249,"code":"B4KJ201802000-0729","latitude":"43.051111","longitude":"142.097222","source_code":"HK20082126100001","project_name":"","survey_name":"\u4e00\u822c\u56fd\u9053452\u53f7 \u5915\u5f35\u5e02 \u30b7\u30e5\u30fc\u30d1\u30ed\u30c0\u30e0\u95a2\u9023\u6cd5\u9762\u8abf\u67fb\u696d\u52d9","client_name":"\u56fd\u571f\u4ea4\u901a\u7701\u5317\u6d77\u9053\u958b\u767a\u5c40\u672d\u5e4c\u958b\u767a\u5efa\u8a2d\u90e8\u5ca9\u898b\u6ca2\u9053\u8def\u4e8b\u52d9\u6240","boring_xml_url":43,"boring_view_url":1,"soilmap_view_url":null,"soiltest_xml_url":0,"soiltest_view_url":0},{"id":235248,"code":"B4KJ201802000-0728","latitude":"42.928889","longitude":"142.064167","source_code":"HK20082126200004","project_name":"","survey_name":"\u4e00\u822c\u56fd\u9053274\u53f7 \u5915\u5f35\u5e02\u7d05\u8449\u5c71\u6cd5\u9762\u88dc\u4fee\u8a2d\u8a08\u5916\u4e00\u9023\u696d\u52d9","client_name":"\u56fd\u571f\u4ea4\u901a\u7701\u5317\u6d77\u9053\u958b\u767a\u5c40\u672d\u5e4c\u958b\u767a\u5efa\u8a2d\u90e8\u5ca9\u898b\u6ca2\u9053\u8def\u4e8b\u52d9\u6240","boring_xml_url":43,"boring_view_url":1,"soilmap_view_url":null,"soiltest_xml_url":0,"soiltest_view_url":0},{"id":235247,"code":"B4KJ201802000-0727","latitude":"42.928889","longitude":"142.064167","source_code":"HK20082126200003","project_name":"","survey_name":"\u4e00\u822c\u56fd\u9053274\u53f7 \u5915\u5f35\u5e02\u7d05\u8449\u5c71\u6cd5\u9762\u88dc\u4fee\u8a2d\u8a08\u5916\u4e00\u9023\u696d\u52d9","client_name":"\u56fd\u571f\u4ea4\u901a\u7701\u5317\u6d77\u9053\u958b\u767a\u5c40\u672d\u5e4c\u958b\u767a\u5efa\u8a2d\u90e8\u5ca9\u898b\u6ca2\u9053\u8def\u4e8b\u52d9\u6240","boring_xml_url":43,"boring_view_url":1,"soilmap_view_url":null,"soiltest_xml_url":0,"soiltest_view_url":0},{"id":235246,"code":"B4KJ201802000-0726","latitude":"42.913333","longitude":"141.966667","source_code":"HK20082126200002","project_name":"","survey_name":"\u4e00\u822c\u56fd\u9053274\u53f7 \u5915\u5f35\u5e02\u7d05\u8449\u5c71\u6cd5\u9762\u88dc\u4fee\u8a2d\u8a08\u5916\u4e00\u9023\u696d\u52d9","client_name":"\u56fd\u571f\u4ea4\u901a\u7701\u5317\u6d77\u9053\u958b\u767a\u5c40\u672d\u5e4c\u958b\u767a\u5efa\u8a2d\u90e8\u5ca9\u898b\u6ca2\u9053\u8def\u4e8b\u52d9\u6240","boring_xml_url":43,"boring_view_url":1,"soilmap_view_url":null,"soiltest_xml_url":0,"soiltest_view_url":0},{"id":235245,"code":"B4KJ201802000-0725","latitude":"42.913333","longitude":"141.966111","source_code":"HK20082126200001","project_name":"","survey_name":"\u4e00\u822c\u56fd\u9053274\u53f7 \u5915\u5f35\u5e02\u7d05\u8449\u5c71\u6cd5\u9762\u88dc\u4fee\u8a2d\u8a08\u5916\u4e00\u9023\u696d\u52d9","client_name":"\u56fd\u571f\u4ea4\u901a\u7701\u5317\u6d77\u9053\u958b\u767a\u5c40\u672d\u5e4c\u958b\u767a\u5efa\u8a2d\u90e8\u5ca9\u898b\u6ca2\u9053\u8def\u4e8b\u52d9\u6240","boring_xml_url":43,"boring_view_url":1,"soilmap_view_url":null,"soiltest_xml_url":0,"soiltest_view_url":0},{"id":235244,"code":"B4KJ201802000-0724","latitude":"43.347","longitude":"141.697167","source_code":"HK20102111150020","project_name":"\u5954\u7f8e\u5504\u5ddd9\u7dda\u6a0b\u9580\u5916\u5730\u8cea\u8abf\u67fb\u696d\u52d9","survey_name":"\u5954\u7f8e\u5504\u5ddd9\u7dda\u6a0b\u9580\u5916\u5730\u8cea\u8abf\u67fb\u696d\u52d9","client_name":"\u56fd\u571f\u4ea4\u901a\u7701 \u5317\u6d77\u9053\u958b\u767a\u5c40 \u672d\u5e4c\u958b\u767a\u5efa\u8a2d\u90e8 \u5ca9\u898b\u6ca2\u6cb3\u5ddd\u4e8b\u52d9\u6240","boring_xml_url":43,"boring_view_url":1,"soilmap_view_url":null,"soiltest_xml_url":43,"soiltest_view_url":42},{"id":235243,"code":"B4KJ201802000-0723","latitude":"43.347","longitude":"141.697306","source_code":"HK20102111150019","project_name":"\u5954\u7f8e\u5504\u5ddd9\u7dda\u6a0b\u9580\u5916\u5730\u8cea\u8abf\u67fb\u696d\u52d9","survey_name":"\u5954\u7f8e\u5504\u5ddd9\u7dda\u6a0b\u9580\u5916\u5730\u8cea\u8abf\u67fb\u696d\u52d9","client_name":"\u56fd\u571f\u4ea4\u901a\u7701 \u5317\u6d77\u9053\u958b\u767a\u5c40 \u672d\u5e4c\u958b\u767a\u5efa\u8a2d\u90e8 \u5ca9\u898b\u6ca2\u6cb3\u5ddd\u4e8b\u52d9\u6240","boring_xml_url":43,"boring_view_url":1,"soilmap_view_url":null,"soiltest_xml_url":43,"soiltest_view_url":42},{"id":235242,"code":"B4KJ201802000-0722","latitude":"43.347","longitude":"141.697306","source_code":"HK20102111150018","project_name":"\u5954\u7f8e\u5504\u5ddd9\u7dda\u6a0b\u9580\u5916\u5730\u8cea\u8abf\u67fb\u696d\u52d9","survey_name":"\u5954\u7f8e\u5504\u5ddd9\u7dda\u6a0b\u9580\u5916\u5730\u8cea\u8abf\u67fb\u696d\u52d9","client_name":"\u56fd\u571f\u4ea4\u901a\u7701 \u5317\u6d77\u9053\u958b\u767a\u5c40 \u672d\u5e4c\u958b\u767a\u5efa\u8a2d\u90e8 \u5ca9\u898b\u6ca2\u6cb3\u5ddd\u4e8b\u52d9\u6240","boring_xml_url":43,"boring_view_url":1,"soilmap_view_url":null,"soiltest_xml_url":43,"soiltest_view_url":42},{"id":235241,"code":"B4KJ201802000-0721","latitude":"43.346861","longitude":"141.697917","source_code":"HK20102111150017","project_name":"\u5954\u7f8e\u5504\u5ddd9\u7dda\u6a0b\u9580\u5916\u5730\u8cea\u8abf\u67fb\u696d\u52d9","survey_name":"\u5954\u7f8e\u5504\u5ddd9\u7dda\u6a0b\u9580\u5916\u5730\u8cea\u8abf\u67fb\u696d\u52d9","client_name":"\u56fd\u571f\u4ea4\u901a\u7701 \u5317\u6d77\u9053\u958b\u767a\u5c40 \u672d\u5e4c\u958b\u767a\u5efa\u8a2d\u90e8 \u5ca9\u898b\u6ca2\u6cb3\u5ddd\u4e8b\u52d9\u6240","boring_xml_url":43,"boring_view_url":1,"soilmap_view_url":null,"soiltest_xml_url":43,"soiltest_view_url":42},{"id":235240,"code":"B4KJ201802000-0720","latitude":"43.346861","longitude":"141.697917","source_code":"HK20102111150016","project_name":"\u5954\u7f8e\u5504\u5ddd9\u7dda\u6a0b\u9580\u5916\u5730\u8cea\u8abf\u67fb\u696d\u52d9","survey_name":"\u5954\u7f8e\u5504\u5ddd9\u7dda\u6a0b\u9580\u5916\u5730\u8cea\u8abf\u67fb\u696d\u52d9","client_name":"\u56fd\u571f\u4ea4\u901a\u7701 \u5317\u6d77\u9053\u958b\u767a\u5c40 \u672d\u5e4c\u958b\u767a\u5efa\u8a2d\u90e8 \u5ca9\u898b\u6ca2\u6cb3\u5ddd\u4e8b\u52d9\u6240","boring_xml_url":43,"boring_view_url":1,"soilmap_view_url":null,"soiltest_xml_url":43,"soiltest_view_url":42}]}}