{"header":{"xyz":{"source":[],"mosaic":false},"page":318,"raw":{"soiltest_result":"0","bbox":"57.598333,109.544722,1.933333,163.806111","page":"318"},"conditions":{"soiltest_result":0,"north":57.598333,"west":109.544722,"south":1.933333,"east":163.806111},"success":true,"message":""},"data":{"meta":{"total":212844,"page":318,"pages":7095,"count":30},"values":[{"id":561076,"code":"NGIC202203752-0007","latitude":"33.869836555556","longitude":"133.98925833333","source_code":"","project_name":"\u4ee4\u548c3\u5e74\u5ea6\u5409\u91ce\u5ddd\u6c34\u7cfb\u83c5\u751f\u852d\u8c37\u7802\u9632\u5830\u5824\u8a2d\u8a08\u5916\u696d\u52d9","survey_name":"\u4ee4\u548c3\u5e74\u5ea6\u5409\u91ce\u5ddd\u6c34\u7cfb\u83c5\u751f\u852d\u8c37\u7802\u9632\u5830\u5824\u8a2d\u8a08\u5916\u696d\u52d9","client_name":"\u56fd\u571f\u4ea4\u901a\u7701\u56db\u56fd\u5730\u65b9\u6574\u5099\u5c40\u56db\u56fd\u5c71\u5730\u7802\u9632\u4e8b\u52d9\u6240","boring_xml_url":47,"boring_view_url":1,"soilmap_view_url":null,"soiltest_xml_url":0,"soiltest_view_url":0},{"id":561075,"code":"NGIC202203752-0006","latitude":"33.869171305556","longitude":"133.98927355556","source_code":"","project_name":"\u4ee4\u548c3\u5e74\u5ea6\u5409\u91ce\u5ddd\u6c34\u7cfb\u83c5\u751f\u852d\u8c37\u7802\u9632\u5830\u5824\u8a2d\u8a08\u5916\u696d\u52d9","survey_name":"\u4ee4\u548c3\u5e74\u5ea6\u5409\u91ce\u5ddd\u6c34\u7cfb\u83c5\u751f\u852d\u8c37\u7802\u9632\u5830\u5824\u8a2d\u8a08\u5916\u696d\u52d9","client_name":"\u56fd\u571f\u4ea4\u901a\u7701\u56db\u56fd\u5730\u65b9\u6574\u5099\u5c40\u56db\u56fd\u5c71\u5730\u7802\u9632\u4e8b\u52d9\u6240","boring_xml_url":47,"boring_view_url":1,"soilmap_view_url":null,"soiltest_xml_url":0,"soiltest_view_url":0},{"id":561074,"code":"NGIC202203752-0005","latitude":"33.964894138889","longitude":"133.77283122222","source_code":"","project_name":"\u4ee4\u548c3\u5e74\u5ea6\u5409\u91ce\u5ddd\u6c34\u7cfb\u83c5\u751f\u852d\u8c37\u7802\u9632\u5830\u5824\u8a2d\u8a08\u5916\u696d\u52d9","survey_name":"\u4ee4\u548c3\u5e74\u5ea6\u5409\u91ce\u5ddd\u6c34\u7cfb\u83c5\u751f\u852d\u8c37\u7802\u9632\u5830\u5824\u8a2d\u8a08\u5916\u696d\u52d9","client_name":"\u56fd\u571f\u4ea4\u901a\u7701\u56db\u56fd\u5730\u65b9\u6574\u5099\u5c40\u56db\u56fd\u5c71\u5730\u7802\u9632\u4e8b\u52d9\u6240","boring_xml_url":47,"boring_view_url":1,"soilmap_view_url":null,"soiltest_xml_url":0,"soiltest_view_url":0},{"id":561073,"code":"NGIC202203752-0004","latitude":"33.869647222222","longitude":"133.98751688889","source_code":"","project_name":"\u4ee4\u548c3\u5e74\u5ea6\u5409\u91ce\u5ddd\u6c34\u7cfb\u83c5\u751f\u852d\u8c37\u7802\u9632\u5830\u5824\u8a2d\u8a08\u5916\u696d\u52d9","survey_name":"\u4ee4\u548c3\u5e74\u5ea6\u5409\u91ce\u5ddd\u6c34\u7cfb\u83c5\u751f\u852d\u8c37\u7802\u9632\u5830\u5824\u8a2d\u8a08\u5916\u696d\u52d9","client_name":"\u56fd\u571f\u4ea4\u901a\u7701\u56db\u56fd\u5730\u65b9\u6574\u5099\u5c40\u56db\u56fd\u5c71\u5730\u7802\u9632\u4e8b\u52d9\u6240","boring_xml_url":47,"boring_view_url":1,"soilmap_view_url":null,"soiltest_xml_url":0,"soiltest_view_url":0},{"id":561072,"code":"NGIC202203752-0003","latitude":"33.868327722222","longitude":"133.98850205556","source_code":"","project_name":"\u4ee4\u548c3\u5e74\u5ea6\u5409\u91ce\u5ddd\u6c34\u7cfb\u83c5\u751f\u852d\u8c37\u7802\u9632\u5830\u5824\u8a2d\u8a08\u5916\u696d\u52d9","survey_name":"\u4ee4\u548c3\u5e74\u5ea6\u5409\u91ce\u5ddd\u6c34\u7cfb\u83c5\u751f\u852d\u8c37\u7802\u9632\u5830\u5824\u8a2d\u8a08\u5916\u696d\u52d9","client_name":"\u56fd\u571f\u4ea4\u901a\u7701\u56db\u56fd\u5730\u65b9\u6574\u5099\u5c40\u56db\u56fd\u5c71\u5730\u7802\u9632\u4e8b\u52d9\u6240","boring_xml_url":47,"boring_view_url":1,"soilmap_view_url":null,"soiltest_xml_url":0,"soiltest_view_url":0},{"id":561071,"code":"NGIC202203752-0002","latitude":"33.868163222222","longitude":"133.98810894444","source_code":"","project_name":"\u4ee4\u548c3\u5e74\u5ea6\u5409\u91ce\u5ddd\u6c34\u7cfb\u83c5\u751f\u852d\u8c37\u7802\u9632\u5830\u5824\u8a2d\u8a08\u5916\u696d\u52d9","survey_name":"\u4ee4\u548c3\u5e74\u5ea6\u5409\u91ce\u5ddd\u6c34\u7cfb\u83c5\u751f\u852d\u8c37\u7802\u9632\u5830\u5824\u8a2d\u8a08\u5916\u696d\u52d9","client_name":"\u56fd\u571f\u4ea4\u901a\u7701\u56db\u56fd\u5730\u65b9\u6574\u5099\u5c40\u56db\u56fd\u5c71\u5730\u7802\u9632\u4e8b\u52d9\u6240","boring_xml_url":47,"boring_view_url":1,"soilmap_view_url":null,"soiltest_xml_url":0,"soiltest_view_url":0},{"id":561070,"code":"NGIC202203752-0001","latitude":"33.868177083333","longitude":"133.988364","source_code":"","project_name":"\u4ee4\u548c3\u5e74\u5ea6\u5409\u91ce\u5ddd\u6c34\u7cfb\u83c5\u751f\u852d\u8c37\u7802\u9632\u5830\u5824\u8a2d\u8a08\u5916\u696d\u52d9","survey_name":"\u4ee4\u548c3\u5e74\u5ea6\u5409\u91ce\u5ddd\u6c34\u7cfb\u83c5\u751f\u852d\u8c37\u7802\u9632\u5830\u5824\u8a2d\u8a08\u5916\u696d\u52d9","client_name":"\u56fd\u571f\u4ea4\u901a\u7701\u56db\u56fd\u5730\u65b9\u6574\u5099\u5c40\u56db\u56fd\u5c71\u5730\u7802\u9632\u4e8b\u52d9\u6240","boring_xml_url":47,"boring_view_url":1,"soilmap_view_url":null,"soiltest_xml_url":0,"soiltest_view_url":0},{"id":561069,"code":"NGIC202203755-0003","latitude":"34.471083333333","longitude":"133.49740833333","source_code":"","project_name":"\u4ee4\u548c3\u5e74\u5ea6\u7b20\u5ca1\u30d0\u30a4\u30d1\u30b9\u30ab\u30d6\u30c8\u5357\u5730\u533a\u7b2c13\u6539\u826f\u5de5\u4e8b","survey_name":"\u4ee4\u548c3\u5e74\u5ea6\u7b20\u5ca1\u30d0\u30a4\u30d1\u30b9\u30ab\u30d6\u30c8\u5357\u5730\u533a\u7b2c13\u6539\u826f\u5de5\u4e8b","client_name":"\u56fd\u571f\u4ea4\u901a\u7701\u4e2d\u56fd\u5730\u65b9\u6574\u5099\u5c40\u5ca1\u5c71\u56fd\u9053\u4e8b\u52d9\u6240","boring_xml_url":47,"boring_view_url":1,"soilmap_view_url":null,"soiltest_xml_url":0,"soiltest_view_url":0},{"id":561068,"code":"NGIC202203755-0002","latitude":"34.470913888889","longitude":"133.49756388889","source_code":"","project_name":"\u4ee4\u548c3\u5e74\u5ea6\u7b20\u5ca1\u30d0\u30a4\u30d1\u30b9\u30ab\u30d6\u30c8\u5357\u5730\u533a\u7b2c13\u6539\u826f\u5de5\u4e8b","survey_name":"\u4ee4\u548c3\u5e74\u5ea6\u7b20\u5ca1\u30d0\u30a4\u30d1\u30b9\u30ab\u30d6\u30c8\u5357\u5730\u533a\u7b2c13\u6539\u826f\u5de5\u4e8b","client_name":"\u56fd\u571f\u4ea4\u901a\u7701\u4e2d\u56fd\u5730\u65b9\u6574\u5099\u5c40\u5ca1\u5c71\u56fd\u9053\u4e8b\u52d9\u6240","boring_xml_url":47,"boring_view_url":1,"soilmap_view_url":null,"soiltest_xml_url":0,"soiltest_view_url":0},{"id":561067,"code":"NGIC202203755-0001","latitude":"34.471772222222","longitude":"133.49895","source_code":"","project_name":"\u4ee4\u548c3\u5e74\u5ea6\u7b20\u5ca1\u30d0\u30a4\u30d1\u30b9\u30ab\u30d6\u30c8\u5357\u5730\u533a\u7b2c13\u6539\u826f\u5de5\u4e8b","survey_name":"\u4ee4\u548c3\u5e74\u5ea6\u7b20\u5ca1\u30d0\u30a4\u30d1\u30b9\u30ab\u30d6\u30c8\u5357\u5730\u533a\u7b2c13\u6539\u826f\u5de5\u4e8b","client_name":"\u56fd\u571f\u4ea4\u901a\u7701\u4e2d\u56fd\u5730\u65b9\u6574\u5099\u5c40\u5ca1\u5c71\u56fd\u9053\u4e8b\u52d9\u6240","boring_xml_url":47,"boring_view_url":1,"soilmap_view_url":null,"soiltest_xml_url":0,"soiltest_view_url":0},{"id":561064,"code":"NGIC202203751-0013","latitude":"33.456581916667","longitude":"132.70313275","source_code":"","project_name":"","survey_name":"\u4ee4\u548c4\u5e74\u5ea6\u5c71\u9ce5\u5742\u30c0\u30e0\u7ba1\u5185\u5730\u8cea\u8abf\u67fb\u696d\u52d9","client_name":"\u56fd\u571f\u4ea4\u901a\u7701\u56db\u56fd\u5730\u65b9\u6574\u5099\u5c40\u5c71\u9ce5\u5742\u30c0\u30e0\u5de5\u4e8b\u4e8b\u52d9\u6240","boring_xml_url":47,"boring_view_url":1,"soilmap_view_url":null,"soiltest_xml_url":0,"soiltest_view_url":0},{"id":561063,"code":"NGIC202203751-0012","latitude":"33.456913444444","longitude":"132.70206316667","source_code":"","project_name":"","survey_name":"\u4ee4\u548c4\u5e74\u5ea6\u5c71\u9ce5\u5742\u30c0\u30e0\u7ba1\u5185\u5730\u8cea\u8abf\u67fb\u696d\u52d9","client_name":"\u56fd\u571f\u4ea4\u901a\u7701\u56db\u56fd\u5730\u65b9\u6574\u5099\u5c40\u5c71\u9ce5\u5742\u30c0\u30e0\u5de5\u4e8b\u4e8b\u52d9\u6240","boring_xml_url":47,"boring_view_url":1,"soilmap_view_url":null,"soiltest_xml_url":0,"soiltest_view_url":0},{"id":561062,"code":"NGIC202203751-0011","latitude":"33.45694875","longitude":"132.70313186111","source_code":"","project_name":"","survey_name":"\u4ee4\u548c4\u5e74\u5ea6\u5c71\u9ce5\u5742\u30c0\u30e0\u7ba1\u5185\u5730\u8cea\u8abf\u67fb\u696d\u52d9","client_name":"\u56fd\u571f\u4ea4\u901a\u7701\u56db\u56fd\u5730\u65b9\u6574\u5099\u5c40\u5c71\u9ce5\u5742\u30c0\u30e0\u5de5\u4e8b\u4e8b\u52d9\u6240","boring_xml_url":47,"boring_view_url":1,"soilmap_view_url":null,"soiltest_xml_url":0,"soiltest_view_url":0},{"id":561061,"code":"NGIC202203751-0010","latitude":"33.456937861111","longitude":"132.70269075","source_code":"","project_name":"","survey_name":"\u4ee4\u548c4\u5e74\u5ea6\u5c71\u9ce5\u5742\u30c0\u30e0\u7ba1\u5185\u5730\u8cea\u8abf\u67fb\u696d\u52d9","client_name":"\u56fd\u571f\u4ea4\u901a\u7701\u56db\u56fd\u5730\u65b9\u6574\u5099\u5c40\u5c71\u9ce5\u5742\u30c0\u30e0\u5de5\u4e8b\u4e8b\u52d9\u6240","boring_xml_url":47,"boring_view_url":1,"soilmap_view_url":null,"soiltest_xml_url":0,"soiltest_view_url":0},{"id":561060,"code":"NGIC202203751-0009","latitude":"33.46156625","longitude":"132.70206038889","source_code":"","project_name":"","survey_name":"\u4ee4\u548c4\u5e74\u5ea6\u5c71\u9ce5\u5742\u30c0\u30e0\u7ba1\u5185\u5730\u8cea\u8abf\u67fb\u696d\u52d9","client_name":"\u56fd\u571f\u4ea4\u901a\u7701\u56db\u56fd\u5730\u65b9\u6574\u5099\u5c40\u5c71\u9ce5\u5742\u30c0\u30e0\u5de5\u4e8b\u4e8b\u52d9\u6240","boring_xml_url":47,"boring_view_url":1,"soilmap_view_url":null,"soiltest_xml_url":0,"soiltest_view_url":0},{"id":561059,"code":"NGIC202203751-0008","latitude":"33.4618135","longitude":"132.70289644444","source_code":"","project_name":"","survey_name":"\u4ee4\u548c4\u5e74\u5ea6\u5c71\u9ce5\u5742\u30c0\u30e0\u7ba1\u5185\u5730\u8cea\u8abf\u67fb\u696d\u52d9","client_name":"\u56fd\u571f\u4ea4\u901a\u7701\u56db\u56fd\u5730\u65b9\u6574\u5099\u5c40\u5c71\u9ce5\u5742\u30c0\u30e0\u5de5\u4e8b\u4e8b\u52d9\u6240","boring_xml_url":47,"boring_view_url":1,"soilmap_view_url":null,"soiltest_xml_url":0,"soiltest_view_url":0},{"id":561058,"code":"NGIC202203751-0007","latitude":"33.4614555","longitude":"132.70287888889","source_code":"","project_name":"","survey_name":"\u4ee4\u548c4\u5e74\u5ea6\u5c71\u9ce5\u5742\u30c0\u30e0\u7ba1\u5185\u5730\u8cea\u8abf\u67fb\u696d\u52d9","client_name":"\u56fd\u571f\u4ea4\u901a\u7701\u56db\u56fd\u5730\u65b9\u6574\u5099\u5c40\u5c71\u9ce5\u5742\u30c0\u30e0\u5de5\u4e8b\u4e8b\u52d9\u6240","boring_xml_url":47,"boring_view_url":1,"soilmap_view_url":null,"soiltest_xml_url":0,"soiltest_view_url":0},{"id":561057,"code":"NGIC202203751-0006","latitude":"33.456827111111","longitude":"132.70171455556","source_code":"","project_name":"","survey_name":"\u4ee4\u548c4\u5e74\u5ea6\u5c71\u9ce5\u5742\u30c0\u30e0\u7ba1\u5185\u5730\u8cea\u8abf\u67fb\u696d\u52d9","client_name":"\u56fd\u571f\u4ea4\u901a\u7701\u56db\u56fd\u5730\u65b9\u6574\u5099\u5c40\u5c71\u9ce5\u5742\u30c0\u30e0\u5de5\u4e8b\u4e8b\u52d9\u6240","boring_xml_url":47,"boring_view_url":1,"soilmap_view_url":null,"soiltest_xml_url":0,"soiltest_view_url":0},{"id":561056,"code":"NGIC202203751-0005","latitude":"33.457031472222","longitude":"132.70141916667","source_code":"","project_name":"","survey_name":"\u4ee4\u548c4\u5e74\u5ea6\u5c71\u9ce5\u5742\u30c0\u30e0\u7ba1\u5185\u5730\u8cea\u8abf\u67fb\u696d\u52d9","client_name":"\u56fd\u571f\u4ea4\u901a\u7701\u56db\u56fd\u5730\u65b9\u6574\u5099\u5c40\u5c71\u9ce5\u5742\u30c0\u30e0\u5de5\u4e8b\u4e8b\u52d9\u6240","boring_xml_url":47,"boring_view_url":1,"soilmap_view_url":null,"soiltest_xml_url":0,"soiltest_view_url":0},{"id":561055,"code":"NGIC202203751-0004","latitude":"33.456582111111","longitude":"132.70147122222","source_code":"","project_name":"","survey_name":"\u4ee4\u548c4\u5e74\u5ea6\u5c71\u9ce5\u5742\u30c0\u30e0\u7ba1\u5185\u5730\u8cea\u8abf\u67fb\u696d\u52d9","client_name":"\u56fd\u571f\u4ea4\u901a\u7701\u56db\u56fd\u5730\u65b9\u6574\u5099\u5c40\u5c71\u9ce5\u5742\u30c0\u30e0\u5de5\u4e8b\u4e8b\u52d9\u6240","boring_xml_url":47,"boring_view_url":1,"soilmap_view_url":null,"soiltest_xml_url":0,"soiltest_view_url":0},{"id":561054,"code":"NGIC202203751-0003","latitude":"33.457011666667","longitude":"132.70115308333","source_code":"","project_name":"","survey_name":"\u4ee4\u548c4\u5e74\u5ea6\u5c71\u9ce5\u5742\u30c0\u30e0\u7ba1\u5185\u5730\u8cea\u8abf\u67fb\u696d\u52d9","client_name":"\u56fd\u571f\u4ea4\u901a\u7701\u56db\u56fd\u5730\u65b9\u6574\u5099\u5c40\u5c71\u9ce5\u5742\u30c0\u30e0\u5de5\u4e8b\u4e8b\u52d9\u6240","boring_xml_url":47,"boring_view_url":1,"soilmap_view_url":null,"soiltest_xml_url":0,"soiltest_view_url":0},{"id":561053,"code":"NGIC202203751-0002","latitude":"33.456560472222","longitude":"132.70120338889","source_code":"","project_name":"","survey_name":"\u4ee4\u548c4\u5e74\u5ea6\u5c71\u9ce5\u5742\u30c0\u30e0\u7ba1\u5185\u5730\u8cea\u8abf\u67fb\u696d\u52d9","client_name":"\u56fd\u571f\u4ea4\u901a\u7701\u56db\u56fd\u5730\u65b9\u6574\u5099\u5c40\u5c71\u9ce5\u5742\u30c0\u30e0\u5de5\u4e8b\u4e8b\u52d9\u6240","boring_xml_url":47,"boring_view_url":1,"soilmap_view_url":null,"soiltest_xml_url":0,"soiltest_view_url":0},{"id":561052,"code":"NGIC202203751-0001","latitude":"33.456741222222","longitude":"132.70064233333","source_code":"","project_name":"","survey_name":"\u4ee4\u548c4\u5e74\u5ea6\u5c71\u9ce5\u5742\u30c0\u30e0\u7ba1\u5185\u5730\u8cea\u8abf\u67fb\u696d\u52d9","client_name":"\u56fd\u571f\u4ea4\u901a\u7701\u56db\u56fd\u5730\u65b9\u6574\u5099\u5c40\u5c71\u9ce5\u5742\u30c0\u30e0\u5de5\u4e8b\u4e8b\u52d9\u6240","boring_xml_url":47,"boring_view_url":1,"soilmap_view_url":null,"soiltest_xml_url":0,"soiltest_view_url":0},{"id":561033,"code":"NGIC202203736-0002","latitude":"34.704688888889","longitude":"135.54351388889","source_code":"","project_name":"","survey_name":"\u57ce\u6771\u7a0e\u52d9\u7f72\u6577\u5730\u8abf\u67fb\u7b49\u696d\u52d9","client_name":"\u56fd\u571f\u4ea4\u901a\u7701\u8fd1\u757f\u5730\u65b9\u6574\u5099\u5c40\u55b6\u7e55\u90e8","boring_xml_url":47,"boring_view_url":1,"soilmap_view_url":null,"soiltest_xml_url":47,"soiltest_view_url":47},{"id":561032,"code":"NGIC202203736-0001","latitude":"34.704602777778","longitude":"135.54376666667","source_code":"","project_name":"","survey_name":"\u57ce\u6771\u7a0e\u52d9\u7f72\u6577\u5730\u8abf\u67fb\u7b49\u696d\u52d9","client_name":"\u56fd\u571f\u4ea4\u901a\u7701\u8fd1\u757f\u5730\u65b9\u6574\u5099\u5c40\u55b6\u7e55\u90e8","boring_xml_url":47,"boring_view_url":1,"soilmap_view_url":null,"soiltest_xml_url":0,"soiltest_view_url":0},{"id":560914,"code":"NGIC202203718-0002","latitude":"35.369566666667","longitude":"133.41676111111","source_code":"","project_name":"\u4ee4\u548c4\u5e74\u5ea6\u65e5\u91ce\u5ddd\u6cb3\u5ddd\u4e8b\u52d9\u6240\u7ba1\u5185\u6e2c\u91cf\u8a2d\u8a08\u696d\u52d9","survey_name":"\u4ee4\u548c4\u5e74\u5ea6\u65e5\u91ce\u5ddd\u6cb3\u5ddd\u4e8b\u52d9\u6240\u7ba1\u5185\u6e2c\u91cf\u8a2d\u8a08\u696d\u52d9","client_name":"\u56fd\u571f\u4ea4\u901a\u7701\u4e2d\u56fd\u5730\u65b9\u6574\u5099\u5c40\u65e5\u91ce\u5ddd\u6cb3\u5ddd\u4e8b\u52d9\u6240","boring_xml_url":47,"boring_view_url":1,"soilmap_view_url":null,"soiltest_xml_url":0,"soiltest_view_url":0},{"id":560913,"code":"NGIC202203718-0001","latitude":"35.369405555556","longitude":"133.41658888889","source_code":"","project_name":"\u4ee4\u548c4\u5e74\u5ea6\u65e5\u91ce\u5ddd\u6cb3\u5ddd\u4e8b\u52d9\u6240\u7ba1\u5185\u6e2c\u91cf\u8a2d\u8a08\u696d\u52d9","survey_name":"\u4ee4\u548c4\u5e74\u5ea6\u65e5\u91ce\u5ddd\u6cb3\u5ddd\u4e8b\u52d9\u6240\u7ba1\u5185\u6e2c\u91cf\u8a2d\u8a08\u696d\u52d9","client_name":"\u56fd\u571f\u4ea4\u901a\u7701\u4e2d\u56fd\u5730\u65b9\u6574\u5099\u5c40\u65e5\u91ce\u5ddd\u6cb3\u5ddd\u4e8b\u52d9\u6240","boring_xml_url":47,"boring_view_url":1,"soilmap_view_url":null,"soiltest_xml_url":0,"soiltest_view_url":0},{"id":560895,"code":"NGIC202203576-0002","latitude":"38.304602777778","longitude":"140.28671388889","source_code":"","project_name":"","survey_name":"\u4e2d\u5c71\u5730\u533a\u5730\u8cea\u8abf\u67fb\u696d\u52d9","client_name":"\u56fd\u571f\u4ea4\u901a\u7701\u6771\u5317\u5730\u65b9\u6574\u5099\u5c40\u5c71\u5f62\u6cb3\u5ddd\u56fd\u9053\u4e8b\u52d9\u6240","boring_xml_url":47,"boring_view_url":1,"soilmap_view_url":null,"soiltest_xml_url":47,"soiltest_view_url":47},{"id":560894,"code":"NGIC202203576-0001","latitude":"38.303897222222","longitude":"140.28756388889","source_code":"","project_name":"","survey_name":"\u4e2d\u5c71\u5730\u533a\u5730\u8cea\u8abf\u67fb\u696d\u52d9","client_name":"\u56fd\u571f\u4ea4\u901a\u7701\u6771\u5317\u5730\u65b9\u6574\u5099\u5c40\u5c71\u5f62\u6cb3\u5ddd\u56fd\u9053\u4e8b\u52d9\u6240","boring_xml_url":47,"boring_view_url":1,"soilmap_view_url":null,"soiltest_xml_url":47,"soiltest_view_url":47},{"id":560889,"code":"NGIC202203672-0005","latitude":"42.127086388889","longitude":"139.98189666667","source_code":"","project_name":"\u718a\u77f3\u6f01\u6e2f\u5730\u8cea\u8abf\u67fb\u696d\u52d9","survey_name":"\u718a\u77f3\u6f01\u6e2f\u5730\u8cea\u8abf\u67fb\u696d\u52d9","client_name":"\u56fd\u571f\u4ea4\u901a\u7701\u5317\u6d77\u9053\u958b\u767a\u5c40\u51fd\u9928\u958b\u767a\u5efa\u8a2d\u90e8\u672c\u90e8","boring_xml_url":47,"boring_view_url":1,"soilmap_view_url":null,"soiltest_xml_url":47,"soiltest_view_url":47}]}}