{"header":{"xyz":{"source":[],"mosaic":false},"page":3184,"raw":{"soiltest_result":"0","bbox":"57.598333,109.544722,1.933333,163.806111","page":"3184"},"conditions":{"soiltest_result":0,"north":57.598333,"west":109.544722,"south":1.933333,"east":163.806111},"success":true,"message":""},"data":{"meta":{"total":212844,"page":3184,"pages":7095,"count":30},"values":[{"id":235029,"code":"B4KJ201802000-0509","latitude":"43.799111","longitude":"142.312583","source_code":"HK20082512450009","project_name":"","survey_name":"\u77f3\u72e9\u5ddd\u4e0a\u6d41 \u65ed\u5ddd\u6cb3\u5ddd\u4e8b\u52d9\u6240\u7ba1\u5185\u5de5\u4e8b\u7b87\u6240\u5730\u8cea\u8abf\u67fb\u696d\u52d9","client_name":"\u56fd\u571f\u4ea4\u901a\u7701\u5317\u6d77\u9053\u958b\u767a\u5c40\u65ed\u5ddd\u958b\u767a\u5efa\u8a2d\u90e8\u65ed\u5ddd\u6cb3\u5ddd\u4e8b\u52d9\u6240","boring_xml_url":43,"boring_view_url":1,"soilmap_view_url":null,"soiltest_xml_url":0,"soiltest_view_url":0},{"id":235028,"code":"B4KJ201802000-0508","latitude":"43.799222","longitude":"142.312528","source_code":"HK20082512450008","project_name":"","survey_name":"\u77f3\u72e9\u5ddd\u4e0a\u6d41 \u65ed\u5ddd\u6cb3\u5ddd\u4e8b\u52d9\u6240\u7ba1\u5185\u5de5\u4e8b\u7b87\u6240\u5730\u8cea\u8abf\u67fb\u696d\u52d9","client_name":"\u56fd\u571f\u4ea4\u901a\u7701\u5317\u6d77\u9053\u958b\u767a\u5c40\u65ed\u5ddd\u958b\u767a\u5efa\u8a2d\u90e8\u65ed\u5ddd\u6cb3\u5ddd\u4e8b\u52d9\u6240","boring_xml_url":43,"boring_view_url":1,"soilmap_view_url":null,"soiltest_xml_url":0,"soiltest_view_url":0},{"id":235027,"code":"B4KJ201802000-0507","latitude":"43.800083","longitude":"142.312472","source_code":"HK20082512450007","project_name":"","survey_name":"\u77f3\u72e9\u5ddd\u4e0a\u6d41 \u65ed\u5ddd\u6cb3\u5ddd\u4e8b\u52d9\u6240\u7ba1\u5185\u5de5\u4e8b\u7b87\u6240\u5730\u8cea\u8abf\u67fb\u696d\u52d9","client_name":"\u56fd\u571f\u4ea4\u901a\u7701\u5317\u6d77\u9053\u958b\u767a\u5c40\u65ed\u5ddd\u958b\u767a\u5efa\u8a2d\u90e8\u65ed\u5ddd\u6cb3\u5ddd\u4e8b\u52d9\u6240","boring_xml_url":43,"boring_view_url":1,"soilmap_view_url":null,"soiltest_xml_url":0,"soiltest_view_url":0},{"id":235026,"code":"B4KJ201802000-0506","latitude":"43.797056","longitude":"142.308639","source_code":"HK20082512450006","project_name":"","survey_name":"\u77f3\u72e9\u5ddd\u4e0a\u6d41 \u65ed\u5ddd\u6cb3\u5ddd\u4e8b\u52d9\u6240\u7ba1\u5185\u5de5\u4e8b\u7b87\u6240\u5730\u8cea\u8abf\u67fb\u696d\u52d9","client_name":"\u56fd\u571f\u4ea4\u901a\u7701\u5317\u6d77\u9053\u958b\u767a\u5c40\u65ed\u5ddd\u958b\u767a\u5efa\u8a2d\u90e8\u65ed\u5ddd\u6cb3\u5ddd\u4e8b\u52d9\u6240","boring_xml_url":43,"boring_view_url":1,"soilmap_view_url":null,"soiltest_xml_url":0,"soiltest_view_url":0},{"id":235025,"code":"B4KJ201802000-0505","latitude":"43.797194","longitude":"142.308583","source_code":"HK20082512450005","project_name":"","survey_name":"\u77f3\u72e9\u5ddd\u4e0a\u6d41 \u65ed\u5ddd\u6cb3\u5ddd\u4e8b\u52d9\u6240\u7ba1\u5185\u5de5\u4e8b\u7b87\u6240\u5730\u8cea\u8abf\u67fb\u696d\u52d9","client_name":"\u56fd\u571f\u4ea4\u901a\u7701\u5317\u6d77\u9053\u958b\u767a\u5c40\u65ed\u5ddd\u958b\u767a\u5efa\u8a2d\u90e8\u65ed\u5ddd\u6cb3\u5ddd\u4e8b\u52d9\u6240","boring_xml_url":43,"boring_view_url":1,"soilmap_view_url":null,"soiltest_xml_url":0,"soiltest_view_url":0},{"id":235024,"code":"B4KJ201802000-0504","latitude":"43.797333","longitude":"142.308583","source_code":"HK20082512450004","project_name":"","survey_name":"\u77f3\u72e9\u5ddd\u4e0a\u6d41 \u65ed\u5ddd\u6cb3\u5ddd\u4e8b\u52d9\u6240\u7ba1\u5185\u5de5\u4e8b\u7b87\u6240\u5730\u8cea\u8abf\u67fb\u696d\u52d9","client_name":"\u56fd\u571f\u4ea4\u901a\u7701\u5317\u6d77\u9053\u958b\u767a\u5c40\u65ed\u5ddd\u958b\u767a\u5efa\u8a2d\u90e8\u65ed\u5ddd\u6cb3\u5ddd\u4e8b\u52d9\u6240","boring_xml_url":43,"boring_view_url":1,"soilmap_view_url":null,"soiltest_xml_url":0,"soiltest_view_url":0},{"id":235023,"code":"B4KJ201802000-0503","latitude":"43.88225","longitude":"142.514222","source_code":"HK20082512450003","project_name":"","survey_name":"\u77f3\u72e9\u5ddd\u4e0a\u6d41 \u65ed\u5ddd\u6cb3\u5ddd\u4e8b\u52d9\u6240\u7ba1\u5185\u5de5\u4e8b\u7b87\u6240\u5730\u8cea\u8abf\u67fb\u696d\u52d9","client_name":"\u56fd\u571f\u4ea4\u901a\u7701\u5317\u6d77\u9053\u958b\u767a\u5c40\u65ed\u5ddd\u958b\u767a\u5efa\u8a2d\u90e8\u65ed\u5ddd\u6cb3\u5ddd\u4e8b\u52d9\u6240","boring_xml_url":43,"boring_view_url":1,"soilmap_view_url":null,"soiltest_xml_url":0,"soiltest_view_url":0},{"id":235022,"code":"B4KJ201802000-0502","latitude":"43.88225","longitude":"142.514056","source_code":"HK20082512450002","project_name":"","survey_name":"\u77f3\u72e9\u5ddd\u4e0a\u6d41 \u65ed\u5ddd\u6cb3\u5ddd\u4e8b\u52d9\u6240\u7ba1\u5185\u5de5\u4e8b\u7b87\u6240\u5730\u8cea\u8abf\u67fb\u696d\u52d9","client_name":"\u56fd\u571f\u4ea4\u901a\u7701\u5317\u6d77\u9053\u958b\u767a\u5c40\u65ed\u5ddd\u958b\u767a\u5efa\u8a2d\u90e8\u65ed\u5ddd\u6cb3\u5ddd\u4e8b\u52d9\u6240","boring_xml_url":43,"boring_view_url":1,"soilmap_view_url":null,"soiltest_xml_url":0,"soiltest_view_url":0},{"id":235021,"code":"B4KJ201802000-0501","latitude":"43.882278","longitude":"142.513944","source_code":"HK20082512450001","project_name":"","survey_name":"\u77f3\u72e9\u5ddd\u4e0a\u6d41 \u65ed\u5ddd\u6cb3\u5ddd\u4e8b\u52d9\u6240\u7ba1\u5185\u5de5\u4e8b\u7b87\u6240\u5730\u8cea\u8abf\u67fb\u696d\u52d9","client_name":"\u56fd\u571f\u4ea4\u901a\u7701\u5317\u6d77\u9053\u958b\u767a\u5c40\u65ed\u5ddd\u958b\u767a\u5efa\u8a2d\u90e8\u65ed\u5ddd\u6cb3\u5ddd\u4e8b\u52d9\u6240","boring_xml_url":43,"boring_view_url":1,"soilmap_view_url":null,"soiltest_xml_url":0,"soiltest_view_url":0},{"id":235020,"code":"B4KJ201802000-0500","latitude":"43.631111","longitude":"142.659167","source_code":"HK20102521770006","project_name":"\u5e73\u621022\u5e74\u5ea6 \u5830\u5824\u7dad\u6301\u306e\u5185 \u5fe0\u5225\u30c0\u30e0\u8caf\u6c34\u6c60\u53f3\u5cb8\u6cd5\u9762\u8abf\u67fb\u696d\u52d9","survey_name":"\u5e73\u621022\u5e74\u5ea6 \u5830\u5824\u7dad\u6301\u306e\u5185 \u5fe0\u5225\u30c0\u30e0\u8caf\u6c34\u6c60\u53f3\u5cb8\u6cd5\u9762\u8abf\u67fb\u696d\u52d9","client_name":"\u56fd\u571f\u4ea4\u901a\u7701\u5317\u6d77\u9053\u958b\u767a\u5c40\u65ed\u5ddd\u958b\u767a\u5efa\u8a2d\u90e8","boring_xml_url":43,"boring_view_url":1,"soilmap_view_url":null,"soiltest_xml_url":0,"soiltest_view_url":0},{"id":235019,"code":"B4KJ201802000-0499","latitude":"43.630833","longitude":"142.658889","source_code":"HK20102521770005","project_name":"\u5e73\u621022\u5e74\u5ea6 \u5830\u5824\u7dad\u6301\u306e\u5185 \u5fe0\u5225\u30c0\u30e0\u8caf\u6c34\u6c60\u53f3\u5cb8\u6cd5\u9762\u8abf\u67fb\u696d\u52d9","survey_name":"\u5e73\u621022\u5e74\u5ea6 \u5830\u5824\u7dad\u6301\u306e\u5185 \u5fe0\u5225\u30c0\u30e0\u8caf\u6c34\u6c60\u53f3\u5cb8\u6cd5\u9762\u8abf\u67fb\u696d\u52d9","client_name":"\u56fd\u571f\u4ea4\u901a\u7701\u5317\u6d77\u9053\u958b\u767a\u5c40\u65ed\u5ddd\u958b\u767a\u5efa\u8a2d\u90e8","boring_xml_url":43,"boring_view_url":1,"soilmap_view_url":null,"soiltest_xml_url":0,"soiltest_view_url":0},{"id":235018,"code":"B4KJ201802000-0498","latitude":"43.630833","longitude":"142.66","source_code":"HK20102521770004","project_name":"\u5e73\u621022\u5e74\u5ea6 \u5830\u5824\u7dad\u6301\u306e\u5185 \u5fe0\u5225\u30c0\u30e0\u8caf\u6c34\u6c60\u53f3\u5cb8\u6cd5\u9762\u8abf\u67fb\u696d\u52d9","survey_name":"\u5e73\u621022\u5e74\u5ea6 \u5830\u5824\u7dad\u6301\u306e\u5185 \u5fe0\u5225\u30c0\u30e0\u8caf\u6c34\u6c60\u53f3\u5cb8\u6cd5\u9762\u8abf\u67fb\u696d\u52d9","client_name":"\u56fd\u571f\u4ea4\u901a\u7701\u5317\u6d77\u9053\u958b\u767a\u5c40\u65ed\u5ddd\u958b\u767a\u5efa\u8a2d\u90e8","boring_xml_url":43,"boring_view_url":1,"soilmap_view_url":null,"soiltest_xml_url":0,"soiltest_view_url":0},{"id":235017,"code":"B4KJ201802000-0497","latitude":"43.630833","longitude":"142.658333","source_code":"HK20102521770003","project_name":"\u5e73\u621022\u5e74\u5ea6 \u5830\u5824\u7dad\u6301\u306e\u5185 \u5fe0\u5225\u30c0\u30e0\u8caf\u6c34\u6c60\u53f3\u5cb8\u6cd5\u9762\u8abf\u67fb\u696d\u52d9","survey_name":"\u5e73\u621022\u5e74\u5ea6 \u5830\u5824\u7dad\u6301\u306e\u5185 \u5fe0\u5225\u30c0\u30e0\u8caf\u6c34\u6c60\u53f3\u5cb8\u6cd5\u9762\u8abf\u67fb\u696d\u52d9","client_name":"\u56fd\u571f\u4ea4\u901a\u7701\u5317\u6d77\u9053\u958b\u767a\u5c40\u65ed\u5ddd\u958b\u767a\u5efa\u8a2d\u90e8","boring_xml_url":43,"boring_view_url":1,"soilmap_view_url":null,"soiltest_xml_url":0,"soiltest_view_url":0},{"id":235016,"code":"B4KJ201802000-0496","latitude":"43.631111","longitude":"142.659167","source_code":"HK20102521770002","project_name":"\u5e73\u621022\u5e74\u5ea6 \u5830\u5824\u7dad\u6301\u306e\u5185 \u5fe0\u5225\u30c0\u30e0\u8caf\u6c34\u6c60\u53f3\u5cb8\u6cd5\u9762\u8abf\u67fb\u696d\u52d9","survey_name":"\u5e73\u621022\u5e74\u5ea6 \u5830\u5824\u7dad\u6301\u306e\u5185 \u5fe0\u5225\u30c0\u30e0\u8caf\u6c34\u6c60\u53f3\u5cb8\u6cd5\u9762\u8abf\u67fb\u696d\u52d9","client_name":"\u56fd\u571f\u4ea4\u901a\u7701\u5317\u6d77\u9053\u958b\u767a\u5c40\u65ed\u5ddd\u958b\u767a\u5efa\u8a2d\u90e8","boring_xml_url":43,"boring_view_url":1,"soilmap_view_url":null,"soiltest_xml_url":0,"soiltest_view_url":0},{"id":235015,"code":"B4KJ201802000-0495","latitude":"43.630833","longitude":"142.658889","source_code":"HK20102521770001","project_name":"\u5e73\u621022\u5e74\u5ea6 \u5830\u5824\u7dad\u6301\u306e\u5185 \u5fe0\u5225\u30c0\u30e0\u8caf\u6c34\u6c60\u53f3\u5cb8\u6cd5\u9762\u8abf\u67fb\u696d\u52d9","survey_name":"\u5e73\u621022\u5e74\u5ea6 \u5830\u5824\u7dad\u6301\u306e\u5185 \u5fe0\u5225\u30c0\u30e0\u8caf\u6c34\u6c60\u53f3\u5cb8\u6cd5\u9762\u8abf\u67fb\u696d\u52d9","client_name":"\u56fd\u571f\u4ea4\u901a\u7701\u5317\u6d77\u9053\u958b\u767a\u5c40\u65ed\u5ddd\u958b\u767a\u5efa\u8a2d\u90e8","boring_xml_url":43,"boring_view_url":1,"soilmap_view_url":null,"soiltest_xml_url":0,"soiltest_view_url":0},{"id":235014,"code":"B4KJ201802000-0494","latitude":"43.196333","longitude":"142.582917","source_code":"HK20112523350006","project_name":"\u4e00\u822c\u56fd\u905338\u53f7 \u5357\u5bcc\u826f\u91ce\u753a \u72e9\u52dd\u76db\u571f\u6cd5\u9762\u70b9\u691c\u5916\u4e00\u9023\u696d\u52d9","survey_name":"\u4e00\u822c\u56fd\u905338\u53f7 \u5357\u5bcc\u826f\u91ce\u753a\u72e9\u52dd\u76db\u571f\u6cd5\u9762\u70b9\u691c\u5916\u4e00\u9023\u696d\u52d9","client_name":"\u56fd\u571f\u4ea4\u901a\u7701 \u5317\u6d77\u9053\u958b\u767a\u5c40 \u65ed\u5ddd\u958b\u767a\u5efa\u8a2d\u90e8","boring_xml_url":43,"boring_view_url":1,"soilmap_view_url":null,"soiltest_xml_url":0,"soiltest_view_url":0},{"id":235013,"code":"B4KJ201802000-0493","latitude":"43.367639","longitude":"142.389361","source_code":"HK20112523350005","project_name":"\u4e00\u822c\u56fd\u905338\u53f7 \u5357\u5bcc\u826f\u91ce\u753a \u72e9\u52dd\u76db\u571f\u6cd5\u9762\u70b9\u691c\u5916\u4e00\u9023\u696d\u52d9","survey_name":"\u4e00\u822c\u56fd\u905338\u53f7 \u5357\u5bcc\u826f\u91ce\u753a\u72e9\u52dd\u76db\u571f\u6cd5\u9762\u70b9\u691c\u5916\u4e00\u9023\u696d\u52d9","client_name":"\u56fd\u571f\u4ea4\u901a\u7701 \u5317\u6d77\u9053\u958b\u767a\u5c40 \u65ed\u5ddd\u958b\u767a\u5efa\u8a2d\u90e8","boring_xml_url":43,"boring_view_url":1,"soilmap_view_url":null,"soiltest_xml_url":43,"soiltest_view_url":42},{"id":235012,"code":"B4KJ201802000-0492","latitude":"43.076667","longitude":"141.427222","source_code":"HK20122110100002","project_name":"","survey_name":"\u5e73\u621024\u5e74\u5ea6\u65bd\u884c \u6708\u5bd2\u5ddd\u5824\u9632\u5916\u8abf\u67fb\u691c\u8a0e\u696d\u52d9","client_name":"\u56fd\u571f\u4ea4\u901a\u7701\u958b\u767a\u5c40\u672d\u5e4c\u958b\u767a\u5efa\u8a2d\u90e8\u672d\u5e4c\u6cb3\u5ddd\u4e8b\u52d9\u6240","boring_xml_url":43,"boring_view_url":1,"soilmap_view_url":null,"soiltest_xml_url":0,"soiltest_view_url":0},{"id":235011,"code":"B4KJ201802000-0491","latitude":"43.076667","longitude":"141.427222","source_code":"HK20122110100001","project_name":"","survey_name":"\u5e73\u621024\u5e74\u5ea6\u65bd\u884c \u6708\u5bd2\u5ddd\u5824\u9632\u5916\u8abf\u67fb\u691c\u8a0e\u696d\u52d9","client_name":"\u56fd\u571f\u4ea4\u901a\u7701\u958b\u767a\u5c40\u672d\u5e4c\u958b\u767a\u5efa\u8a2d\u90e8\u672d\u5e4c\u6cb3\u5ddd\u4e8b\u52d9\u6240","boring_xml_url":43,"boring_view_url":1,"soilmap_view_url":null,"soiltest_xml_url":0,"soiltest_view_url":0},{"id":235010,"code":"B4KJ201802000-0490","latitude":"43.623028","longitude":"142.675833","source_code":"HK20102512290003","project_name":"","survey_name":"\u5830\u5824\u7dad\u6301\u306e\u5185 \u5fe0\u5225\u30c0\u30e0\u8caf\u6c34\u6c60\u4e0a\u6d41\u5730\u8cea\u8abf\u67fb\u696d\u52d9","client_name":"\u56fd\u571f\u4ea4\u901a\u7701\u65ed\u5ddd\u958b\u767a\u5efa\u8a2d\u90e8\u65ed\u5ddd\u6cb3\u5ddd\u4e8b\u52d9\u6240\u5fe0\u5225\u30c0\u30e0\u7ba1\u7406\u652f\u6240","boring_xml_url":43,"boring_view_url":1,"soilmap_view_url":null,"soiltest_xml_url":0,"soiltest_view_url":0},{"id":235009,"code":"B4KJ201802000-0489","latitude":"43.632083","longitude":"142.675722","source_code":"HK20102512290002","project_name":"","survey_name":"\u5830\u5824\u7dad\u6301\u306e\u5185 \u5fe0\u5225\u30c0\u30e0\u8caf\u6c34\u6c60\u4e0a\u6d41\u5730\u8cea\u8abf\u67fb\u696d\u52d9","client_name":"\u56fd\u571f\u4ea4\u901a\u7701\u65ed\u5ddd\u958b\u767a\u5efa\u8a2d\u90e8\u65ed\u5ddd\u6cb3\u5ddd\u4e8b\u52d9\u6240\u5fe0\u5225\u30c0\u30e0\u7ba1\u7406\u652f\u6240","boring_xml_url":43,"boring_view_url":1,"soilmap_view_url":null,"soiltest_xml_url":0,"soiltest_view_url":0},{"id":235008,"code":"B4KJ201802000-0488","latitude":"43.632167","longitude":"142.675333","source_code":"HK20102512290001","project_name":"","survey_name":"\u5830\u5824\u7dad\u6301\u306e\u5185 \u5fe0\u5225\u30c0\u30e0\u8caf\u6c34\u6c60\u4e0a\u6d41\u5730\u8cea\u8abf\u67fb\u696d\u52d9","client_name":"\u56fd\u571f\u4ea4\u901a\u7701\u65ed\u5ddd\u958b\u767a\u5efa\u8a2d\u90e8\u65ed\u5ddd\u6cb3\u5ddd\u4e8b\u52d9\u6240\u5fe0\u5225\u30c0\u30e0\u7ba1\u7406\u652f\u6240","boring_xml_url":43,"boring_view_url":1,"soilmap_view_url":null,"soiltest_xml_url":0,"soiltest_view_url":0},{"id":235007,"code":"B4KJ201802000-0487","latitude":"43.102278","longitude":"144.35975","source_code":"HK20132723430020","project_name":"\u91e7\u8def\u5ddd\u6d25\u6ce2\u5bfe\u7b56\u691c\u8a0e\u696d\u52d9","survey_name":"\u91e7\u8def\u5ddd\u6d25\u6ce2\u5bfe\u7b56\u691c\u8a0e\u696d\u52d9","client_name":"\u91e7\u8def\u5ddd\u6cb3\u5ddd\u4e8b\u52d9\u6240","boring_xml_url":43,"boring_view_url":1,"soilmap_view_url":null,"soiltest_xml_url":0,"soiltest_view_url":0},{"id":235006,"code":"B4KJ201802000-0486","latitude":"43.311111","longitude":"144.41","source_code":"HK20092712840046","project_name":"","survey_name":"\u5f1f\u5b50\u5c48\u9053\u8def\u4e8b\u52d9\u6240\u7ba1\u5185\u5730\u8cea\u8abf\u67fb\u696d\u52d9","client_name":"\u91e7\u8def\u958b\u767a\u5efa\u8a2d\u90e8 \u5f1f\u5b50\u5c48\u9053\u8def\u4e8b\u52d9\u6240","boring_xml_url":43,"boring_view_url":1,"soilmap_view_url":null,"soiltest_xml_url":0,"soiltest_view_url":0},{"id":235005,"code":"B4KJ201802000-0485","latitude":"43.311389","longitude":"144.409444","source_code":"HK20092712840045","project_name":"","survey_name":"\u5f1f\u5b50\u5c48\u9053\u8def\u4e8b\u52d9\u6240\u7ba1\u5185\u5730\u8cea\u8abf\u67fb\u696d\u52d9","client_name":"\u91e7\u8def\u958b\u767a\u5efa\u8a2d\u90e8 \u5f1f\u5b50\u5c48\u9053\u8def\u4e8b\u52d9\u6240","boring_xml_url":43,"boring_view_url":1,"soilmap_view_url":null,"soiltest_xml_url":0,"soiltest_view_url":0},{"id":235004,"code":"B4KJ201802000-0484","latitude":"43.298611","longitude":"144.398056","source_code":"HK20092712840044","project_name":"","survey_name":"\u5f1f\u5b50\u5c48\u9053\u8def\u4e8b\u52d9\u6240\u7ba1\u5185\u5730\u8cea\u8abf\u67fb\u696d\u52d9","client_name":"\u91e7\u8def\u958b\u767a\u5efa\u8a2d\u90e8 \u5f1f\u5b50\u5c48\u9053\u8def\u4e8b\u52d9\u6240","boring_xml_url":43,"boring_view_url":1,"soilmap_view_url":null,"soiltest_xml_url":0,"soiltest_view_url":0},{"id":235003,"code":"B4KJ201802000-0483","latitude":"43.298611","longitude":"144.398333","source_code":"HK20092712840043","project_name":"","survey_name":"\u5f1f\u5b50\u5c48\u9053\u8def\u4e8b\u52d9\u6240\u7ba1\u5185\u5730\u8cea\u8abf\u67fb\u696d\u52d9","client_name":"\u91e7\u8def\u958b\u767a\u5efa\u8a2d\u90e8 \u5f1f\u5b50\u5c48\u9053\u8def\u4e8b\u52d9\u6240","boring_xml_url":43,"boring_view_url":1,"soilmap_view_url":null,"soiltest_xml_url":0,"soiltest_view_url":0},{"id":235002,"code":"B4KJ201802000-0482","latitude":"43.298611","longitude":"144.398333","source_code":"HK20092712840042","project_name":"","survey_name":"\u5f1f\u5b50\u5c48\u9053\u8def\u4e8b\u52d9\u6240\u7ba1\u5185\u5730\u8cea\u8abf\u67fb\u696d\u52d9","client_name":"\u91e7\u8def\u958b\u767a\u5efa\u8a2d\u90e8 \u5f1f\u5b50\u5c48\u9053\u8def\u4e8b\u52d9\u6240","boring_xml_url":43,"boring_view_url":1,"soilmap_view_url":null,"soiltest_xml_url":0,"soiltest_view_url":0},{"id":235001,"code":"B4KJ201802000-0481","latitude":"43.298611","longitude":"144.397222","source_code":"HK20092712840041","project_name":"","survey_name":"\u5f1f\u5b50\u5c48\u9053\u8def\u4e8b\u52d9\u6240\u7ba1\u5185\u5730\u8cea\u8abf\u67fb\u696d\u52d9","client_name":"\u91e7\u8def\u958b\u767a\u5efa\u8a2d\u90e8 \u5f1f\u5b50\u5c48\u9053\u8def\u4e8b\u52d9\u6240","boring_xml_url":43,"boring_view_url":1,"soilmap_view_url":null,"soiltest_xml_url":0,"soiltest_view_url":0},{"id":235000,"code":"B4KJ201802000-0480","latitude":"43.298889","longitude":"144.396389","source_code":"HK20092712840040","project_name":"","survey_name":"\u5f1f\u5b50\u5c48\u9053\u8def\u4e8b\u52d9\u6240\u7ba1\u5185\u5730\u8cea\u8abf\u67fb\u696d\u52d9","client_name":"\u91e7\u8def\u958b\u767a\u5efa\u8a2d\u90e8 \u5f1f\u5b50\u5c48\u9053\u8def\u4e8b\u52d9\u6240","boring_xml_url":43,"boring_view_url":1,"soilmap_view_url":null,"soiltest_xml_url":0,"soiltest_view_url":0}]}}