{"header":{"xyz":{"source":[],"mosaic":false},"page":3199,"raw":{"soiltest_result":"0","bbox":"57.598333,109.544722,1.933333,163.806111","page":"3199"},"conditions":{"soiltest_result":0,"north":57.598333,"west":109.544722,"south":1.933333,"east":163.806111},"success":true,"message":""},"data":{"meta":{"total":212844,"page":3199,"pages":7095,"count":30},"values":[{"id":234579,"code":"B4KJ201802000-0059","latitude":"44.741144","longitude":"142.046126","source_code":"HK20072521970034","project_name":"","survey_name":"\u5e73\u621019\u5e74\u5ea6\u65bd\u884c \u5929\u5869\u5ddd\u4e0a\u6d41\u4e2d\u5ddd\u5730\u533a\u5916\u5824\u9632\u8cea\u7684\u6574\u5099\u691c\u8a0e\u696d\u52d9","client_name":"\u56fd\u571f\u4ea4\u901a\u7701 \u5317\u6d77\u9053\u958b\u767a\u5c40 \u65ed\u5ddd\u958b\u767a\u5efa\u8a2d\u90e8 \u6cbb\u6c34\u8ab2","boring_xml_url":43,"boring_view_url":1,"soilmap_view_url":null,"soiltest_xml_url":46,"soiltest_view_url":45},{"id":234578,"code":"B4KJ201802000-0058","latitude":"44.741116","longitude":"142.045987","source_code":"HK20072521970033","project_name":"","survey_name":"\u5e73\u621019\u5e74\u5ea6\u65bd\u884c \u5929\u5869\u5ddd\u4e0a\u6d41\u4e2d\u5ddd\u5730\u533a\u5916\u5824\u9632\u8cea\u7684\u6574\u5099\u691c\u8a0e\u696d\u52d9","client_name":"\u56fd\u571f\u4ea4\u901a\u7701 \u5317\u6d77\u9053\u958b\u767a\u5c40 \u65ed\u5ddd\u958b\u767a\u5efa\u8a2d\u90e8 \u6cbb\u6c34\u8ab2","boring_xml_url":43,"boring_view_url":1,"soilmap_view_url":null,"soiltest_xml_url":46,"soiltest_view_url":45},{"id":234577,"code":"B4KJ201802000-0057","latitude":"44.751699","longitude":"142.049347","source_code":"HK20072521970032","project_name":"","survey_name":"\u5e73\u621019\u5e74\u5ea6\u65bd\u884c \u5929\u5869\u5ddd\u4e0a\u6d41\u4e2d\u5ddd\u5730\u533a\u5916\u5824\u9632\u8cea\u7684\u6574\u5099\u691c\u8a0e\u696d\u52d9","client_name":"\u56fd\u571f\u4ea4\u901a\u7701 \u5317\u6d77\u9053\u958b\u767a\u5c40 \u65ed\u5ddd\u958b\u767a\u5efa\u8a2d\u90e8 \u6cbb\u6c34\u8ab2","boring_xml_url":43,"boring_view_url":1,"soilmap_view_url":null,"soiltest_xml_url":46,"soiltest_view_url":45},{"id":234576,"code":"B4KJ201802000-0056","latitude":"44.751615","longitude":"142.049569","source_code":"HK20072521970031","project_name":"","survey_name":"\u5e73\u621019\u5e74\u5ea6\u65bd\u884c \u5929\u5869\u5ddd\u4e0a\u6d41\u4e2d\u5ddd\u5730\u533a\u5916\u5824\u9632\u8cea\u7684\u6574\u5099\u691c\u8a0e\u696d\u52d9","client_name":"\u56fd\u571f\u4ea4\u901a\u7701 \u5317\u6d77\u9053\u958b\u767a\u5c40 \u65ed\u5ddd\u958b\u767a\u5efa\u8a2d\u90e8 \u6cbb\u6c34\u8ab2","boring_xml_url":43,"boring_view_url":1,"soilmap_view_url":null,"soiltest_xml_url":46,"soiltest_view_url":45},{"id":234575,"code":"B4KJ201802000-0055","latitude":"44.751671","longitude":"142.049458","source_code":"HK20072521970030","project_name":"","survey_name":"\u5e73\u621019\u5e74\u5ea6\u65bd\u884c \u5929\u5869\u5ddd\u4e0a\u6d41\u4e2d\u5ddd\u5730\u533a\u5916\u5824\u9632\u8cea\u7684\u6574\u5099\u691c\u8a0e\u696d\u52d9","client_name":"\u56fd\u571f\u4ea4\u901a\u7701 \u5317\u6d77\u9053\u958b\u767a\u5c40 \u65ed\u5ddd\u958b\u767a\u5efa\u8a2d\u90e8 \u6cbb\u6c34\u8ab2","boring_xml_url":43,"boring_view_url":1,"soilmap_view_url":null,"soiltest_xml_url":46,"soiltest_view_url":45},{"id":234574,"code":"B4KJ201802000-0054","latitude":"44.780779","longitude":"142.063788","source_code":"HK20072521970029","project_name":"","survey_name":"\u5e73\u621019\u5e74\u5ea6\u65bd\u884c \u5929\u5869\u5ddd\u4e0a\u6d41\u4e2d\u5ddd\u5730\u533a\u5916\u5824\u9632\u8cea\u7684\u6574\u5099\u691c\u8a0e\u696d\u52d9","client_name":"\u56fd\u571f\u4ea4\u901a\u7701 \u5317\u6d77\u9053\u958b\u767a\u5c40 \u65ed\u5ddd\u958b\u767a\u5efa\u8a2d\u90e8 \u6cbb\u6c34\u8ab2","boring_xml_url":43,"boring_view_url":1,"soilmap_view_url":null,"soiltest_xml_url":46,"soiltest_view_url":45},{"id":234573,"code":"B4KJ201802000-0053","latitude":"44.780807","longitude":"142.063677","source_code":"HK20072521970028","project_name":"","survey_name":"\u5e73\u621019\u5e74\u5ea6\u65bd\u884c \u5929\u5869\u5ddd\u4e0a\u6d41\u4e2d\u5ddd\u5730\u533a\u5916\u5824\u9632\u8cea\u7684\u6574\u5099\u691c\u8a0e\u696d\u52d9","client_name":"\u56fd\u571f\u4ea4\u901a\u7701 \u5317\u6d77\u9053\u958b\u767a\u5c40 \u65ed\u5ddd\u958b\u767a\u5efa\u8a2d\u90e8 \u6cbb\u6c34\u8ab2","boring_xml_url":43,"boring_view_url":1,"soilmap_view_url":null,"soiltest_xml_url":46,"soiltest_view_url":45},{"id":234572,"code":"B4KJ201802000-0052","latitude":"44.813692","longitude":"142.070757","source_code":"HK20072521970027","project_name":"","survey_name":"\u5e73\u621019\u5e74\u5ea6\u65bd\u884c \u5929\u5869\u5ddd\u4e0a\u6d41\u4e2d\u5ddd\u5730\u533a\u5916\u5824\u9632\u8cea\u7684\u6574\u5099\u691c\u8a0e\u696d\u52d9","client_name":"\u56fd\u571f\u4ea4\u901a\u7701 \u5317\u6d77\u9053\u958b\u767a\u5c40 \u65ed\u5ddd\u958b\u767a\u5efa\u8a2d\u90e8 \u6cbb\u6c34\u8ab2","boring_xml_url":43,"boring_view_url":1,"soilmap_view_url":null,"soiltest_xml_url":46,"soiltest_view_url":45},{"id":234571,"code":"B4KJ201802000-0051","latitude":"44.813692","longitude":"142.071034","source_code":"HK20072521970026","project_name":"","survey_name":"\u5e73\u621019\u5e74\u5ea6\u65bd\u884c \u5929\u5869\u5ddd\u4e0a\u6d41\u4e2d\u5ddd\u5730\u533a\u5916\u5824\u9632\u8cea\u7684\u6574\u5099\u691c\u8a0e\u696d\u52d9","client_name":"\u56fd\u571f\u4ea4\u901a\u7701 \u5317\u6d77\u9053\u958b\u767a\u5c40 \u65ed\u5ddd\u958b\u767a\u5efa\u8a2d\u90e8 \u6cbb\u6c34\u8ab2","boring_xml_url":43,"boring_view_url":1,"soilmap_view_url":null,"soiltest_xml_url":46,"soiltest_view_url":45},{"id":234570,"code":"B4KJ201802000-0050","latitude":"44.813692","longitude":"142.070923","source_code":"HK20072521970025","project_name":"","survey_name":"\u5e73\u621019\u5e74\u5ea6\u65bd\u884c \u5929\u5869\u5ddd\u4e0a\u6d41\u4e2d\u5ddd\u5730\u533a\u5916\u5824\u9632\u8cea\u7684\u6574\u5099\u691c\u8a0e\u696d\u52d9","client_name":"\u56fd\u571f\u4ea4\u901a\u7701 \u5317\u6d77\u9053\u958b\u767a\u5c40 \u65ed\u5ddd\u958b\u767a\u5efa\u8a2d\u90e8 \u6cbb\u6c34\u8ab2","boring_xml_url":43,"boring_view_url":1,"soilmap_view_url":null,"soiltest_xml_url":46,"soiltest_view_url":45},{"id":234569,"code":"B4KJ201802000-0049","latitude":"44.852938","longitude":"142.065421","source_code":"HK20072521970024","project_name":"","survey_name":"\u5e73\u621019\u5e74\u5ea6\u65bd\u884c \u5929\u5869\u5ddd\u4e0a\u6d41\u4e2d\u5ddd\u5730\u533a\u5916\u5824\u9632\u8cea\u7684\u6574\u5099\u691c\u8a0e\u696d\u52d9","client_name":"\u56fd\u571f\u4ea4\u901a\u7701 \u5317\u6d77\u9053\u958b\u767a\u5c40 \u65ed\u5ddd\u958b\u767a\u5efa\u8a2d\u90e8 \u6cbb\u6c34\u8ab2","boring_xml_url":43,"boring_view_url":1,"soilmap_view_url":null,"soiltest_xml_url":46,"soiltest_view_url":45},{"id":234568,"code":"B4KJ201802000-0048","latitude":"44.85291","longitude":"142.065587","source_code":"HK20072521970023","project_name":"","survey_name":"\u5e73\u621019\u5e74\u5ea6\u65bd\u884c \u5929\u5869\u5ddd\u4e0a\u6d41\u4e2d\u5ddd\u5730\u533a\u5916\u5824\u9632\u8cea\u7684\u6574\u5099\u691c\u8a0e\u696d\u52d9","client_name":"\u56fd\u571f\u4ea4\u901a\u7701 \u5317\u6d77\u9053\u958b\u767a\u5c40 \u65ed\u5ddd\u958b\u767a\u5efa\u8a2d\u90e8 \u6cbb\u6c34\u8ab2","boring_xml_url":43,"boring_view_url":1,"soilmap_view_url":null,"soiltest_xml_url":46,"soiltest_view_url":45},{"id":234567,"code":"B4KJ201802000-0047","latitude":"44.85291","longitude":"142.065532","source_code":"HK20072521970022","project_name":"","survey_name":"\u5e73\u621019\u5e74\u5ea6\u65bd\u884c \u5929\u5869\u5ddd\u4e0a\u6d41\u4e2d\u5ddd\u5730\u533a\u5916\u5824\u9632\u8cea\u7684\u6574\u5099\u691c\u8a0e\u696d\u52d9","client_name":"\u56fd\u571f\u4ea4\u901a\u7701 \u5317\u6d77\u9053\u958b\u767a\u5c40 \u65ed\u5ddd\u958b\u767a\u5efa\u8a2d\u90e8 \u6cbb\u6c34\u8ab2","boring_xml_url":43,"boring_view_url":1,"soilmap_view_url":null,"soiltest_xml_url":46,"soiltest_view_url":45},{"id":234566,"code":"B4KJ201802000-0046","latitude":"44.877823","longitude":"142.05042","source_code":"HK20072521970021","project_name":"","survey_name":"\u5e73\u621019\u5e74\u5ea6\u65bd\u884c \u5929\u5869\u5ddd\u4e0a\u6d41\u4e2d\u5ddd\u5730\u533a\u5916\u5824\u9632\u8cea\u7684\u6574\u5099\u691c\u8a0e\u696d\u52d9","client_name":"\u56fd\u571f\u4ea4\u901a\u7701 \u5317\u6d77\u9053\u958b\u767a\u5c40 \u65ed\u5ddd\u958b\u767a\u5efa\u8a2d\u90e8 \u6cbb\u6c34\u8ab2","boring_xml_url":43,"boring_view_url":1,"soilmap_view_url":null,"soiltest_xml_url":46,"soiltest_view_url":45},{"id":234565,"code":"B4KJ201802000-0045","latitude":"44.877934","longitude":"142.050476","source_code":"HK20072521970020","project_name":"","survey_name":"\u5e73\u621019\u5e74\u5ea6\u65bd\u884c \u5929\u5869\u5ddd\u4e0a\u6d41\u4e2d\u5ddd\u5730\u533a\u5916\u5824\u9632\u8cea\u7684\u6574\u5099\u691c\u8a0e\u696d\u52d9","client_name":"\u56fd\u571f\u4ea4\u901a\u7701 \u5317\u6d77\u9053\u958b\u767a\u5c40 \u65ed\u5ddd\u958b\u767a\u5efa\u8a2d\u90e8 \u6cbb\u6c34\u8ab2","boring_xml_url":43,"boring_view_url":1,"soilmap_view_url":null,"soiltest_xml_url":46,"soiltest_view_url":45},{"id":234564,"code":"B4KJ201802000-0044","latitude":"44.877906","longitude":"142.050476","source_code":"HK20072521970019","project_name":"","survey_name":"\u5e73\u621019\u5e74\u5ea6\u65bd\u884c \u5929\u5869\u5ddd\u4e0a\u6d41\u4e2d\u5ddd\u5730\u533a\u5916\u5824\u9632\u8cea\u7684\u6574\u5099\u691c\u8a0e\u696d\u52d9","client_name":"\u56fd\u571f\u4ea4\u901a\u7701 \u5317\u6d77\u9053\u958b\u767a\u5c40 \u65ed\u5ddd\u958b\u767a\u5efa\u8a2d\u90e8 \u6cbb\u6c34\u8ab2","boring_xml_url":43,"boring_view_url":1,"soilmap_view_url":null,"soiltest_xml_url":46,"soiltest_view_url":45},{"id":234563,"code":"B4KJ201802000-0043","latitude":"44.755421","longitude":"142.047708","source_code":"HK20072521970018","project_name":"","survey_name":"\u5e73\u621019\u5e74\u5ea6\u65bd\u884c \u5929\u5869\u5ddd\u4e0a\u6d41\u4e2d\u5ddd\u5730\u533a\u5916\u5824\u9632\u8cea\u7684\u6574\u5099\u691c\u8a0e\u696d\u52d9","client_name":"\u56fd\u571f\u4ea4\u901a\u7701 \u5317\u6d77\u9053\u958b\u767a\u5c40 \u65ed\u5ddd\u958b\u767a\u5efa\u8a2d\u90e8 \u6cbb\u6c34\u8ab2","boring_xml_url":43,"boring_view_url":1,"soilmap_view_url":null,"soiltest_xml_url":46,"soiltest_view_url":45},{"id":234562,"code":"B4KJ201802000-0042","latitude":"44.755504","longitude":"142.047458","source_code":"HK20072521970017","project_name":"","survey_name":"\u5e73\u621019\u5e74\u5ea6\u65bd\u884c \u5929\u5869\u5ddd\u4e0a\u6d41\u4e2d\u5ddd\u5730\u533a\u5916\u5824\u9632\u8cea\u7684\u6574\u5099\u691c\u8a0e\u696d\u52d9","client_name":"\u56fd\u571f\u4ea4\u901a\u7701 \u5317\u6d77\u9053\u958b\u767a\u5c40 \u65ed\u5ddd\u958b\u767a\u5efa\u8a2d\u90e8 \u6cbb\u6c34\u8ab2","boring_xml_url":43,"boring_view_url":1,"soilmap_view_url":null,"soiltest_xml_url":46,"soiltest_view_url":45},{"id":234561,"code":"B4KJ201802000-0041","latitude":"44.755504","longitude":"142.047514","source_code":"HK20072521970016","project_name":"","survey_name":"\u5e73\u621019\u5e74\u5ea6\u65bd\u884c \u5929\u5869\u5ddd\u4e0a\u6d41\u4e2d\u5ddd\u5730\u533a\u5916\u5824\u9632\u8cea\u7684\u6574\u5099\u691c\u8a0e\u696d\u52d9","client_name":"\u56fd\u571f\u4ea4\u901a\u7701 \u5317\u6d77\u9053\u958b\u767a\u5c40 \u65ed\u5ddd\u958b\u767a\u5efa\u8a2d\u90e8 \u6cbb\u6c34\u8ab2","boring_xml_url":43,"boring_view_url":1,"soilmap_view_url":null,"soiltest_xml_url":46,"soiltest_view_url":45},{"id":234560,"code":"B4KJ201802000-0040","latitude":"44.766892","longitude":"142.059817","source_code":"HK20072521970015","project_name":"","survey_name":"\u5e73\u621019\u5e74\u5ea6\u65bd\u884c \u5929\u5869\u5ddd\u4e0a\u6d41\u4e2d\u5ddd\u5730\u533a\u5916\u5824\u9632\u8cea\u7684\u6574\u5099\u691c\u8a0e\u696d\u52d9","client_name":"\u56fd\u571f\u4ea4\u901a\u7701 \u5317\u6d77\u9053\u958b\u767a\u5c40 \u65ed\u5ddd\u958b\u767a\u5efa\u8a2d\u90e8 \u6cbb\u6c34\u8ab2","boring_xml_url":43,"boring_view_url":1,"soilmap_view_url":null,"soiltest_xml_url":46,"soiltest_view_url":45},{"id":234559,"code":"B4KJ201802000-0039","latitude":"44.767003","longitude":"142.059678","source_code":"HK20072521970014","project_name":"","survey_name":"\u5e73\u621019\u5e74\u5ea6\u65bd\u884c \u5929\u5869\u5ddd\u4e0a\u6d41\u4e2d\u5ddd\u5730\u533a\u5916\u5824\u9632\u8cea\u7684\u6574\u5099\u691c\u8a0e\u696d\u52d9","client_name":"\u56fd\u571f\u4ea4\u901a\u7701 \u5317\u6d77\u9053\u958b\u767a\u5c40 \u65ed\u5ddd\u958b\u767a\u5efa\u8a2d\u90e8 \u6cbb\u6c34\u8ab2","boring_xml_url":43,"boring_view_url":1,"soilmap_view_url":null,"soiltest_xml_url":46,"soiltest_view_url":45},{"id":234558,"code":"B4KJ201802000-0038","latitude":"44.766975","longitude":"142.059734","source_code":"HK20072521970013","project_name":"","survey_name":"\u5e73\u621019\u5e74\u5ea6\u65bd\u884c \u5929\u5869\u5ddd\u4e0a\u6d41\u4e2d\u5ddd\u5730\u533a\u5916\u5824\u9632\u8cea\u7684\u6574\u5099\u691c\u8a0e\u696d\u52d9","client_name":"\u56fd\u571f\u4ea4\u901a\u7701 \u5317\u6d77\u9053\u958b\u767a\u5c40 \u65ed\u5ddd\u958b\u767a\u5efa\u8a2d\u90e8 \u6cbb\u6c34\u8ab2","boring_xml_url":43,"boring_view_url":1,"soilmap_view_url":null,"soiltest_xml_url":46,"soiltest_view_url":45},{"id":234557,"code":"B4KJ201802000-0037","latitude":"44.820997","longitude":"142.068506","source_code":"HK20072521970012","project_name":"","survey_name":"\u5e73\u621019\u5e74\u5ea6\u65bd\u884c \u5929\u5869\u5ddd\u4e0a\u6d41\u4e2d\u5ddd\u5730\u533a\u5916\u5824\u9632\u8cea\u7684\u6574\u5099\u691c\u8a0e\u696d\u52d9","client_name":"\u56fd\u571f\u4ea4\u901a\u7701 \u5317\u6d77\u9053\u958b\u767a\u5c40 \u65ed\u5ddd\u958b\u767a\u5efa\u8a2d\u90e8 \u6cbb\u6c34\u8ab2","boring_xml_url":43,"boring_view_url":1,"soilmap_view_url":null,"soiltest_xml_url":46,"soiltest_view_url":45},{"id":234556,"code":"B4KJ201802000-0036","latitude":"44.821025","longitude":"142.068312","source_code":"HK20072521970011","project_name":"","survey_name":"\u5e73\u621019\u5e74\u5ea6\u65bd\u884c \u5929\u5869\u5ddd\u4e0a\u6d41\u4e2d\u5ddd\u5730\u533a\u5916\u5824\u9632\u8cea\u7684\u6574\u5099\u691c\u8a0e\u696d\u52d9","client_name":"\u56fd\u571f\u4ea4\u901a\u7701 \u5317\u6d77\u9053\u958b\u767a\u5c40 \u65ed\u5ddd\u958b\u767a\u5efa\u8a2d\u90e8 \u6cbb\u6c34\u8ab2","boring_xml_url":43,"boring_view_url":1,"soilmap_view_url":null,"soiltest_xml_url":46,"soiltest_view_url":45},{"id":234555,"code":"B4KJ201802000-0035","latitude":"44.821025","longitude":"142.068367","source_code":"HK20072521970010","project_name":"","survey_name":"\u5e73\u621019\u5e74\u5ea6\u65bd\u884c \u5929\u5869\u5ddd\u4e0a\u6d41\u4e2d\u5ddd\u5730\u533a\u5916\u5824\u9632\u8cea\u7684\u6574\u5099\u691c\u8a0e\u696d\u52d9","client_name":"\u56fd\u571f\u4ea4\u901a\u7701 \u5317\u6d77\u9053\u958b\u767a\u5c40 \u65ed\u5ddd\u958b\u767a\u5efa\u8a2d\u90e8 \u6cbb\u6c34\u8ab2","boring_xml_url":43,"boring_view_url":1,"soilmap_view_url":null,"soiltest_xml_url":46,"soiltest_view_url":45},{"id":234554,"code":"B4KJ201802000-0034","latitude":"44.841772","longitude":"142.070199","source_code":"HK20072521970009","project_name":"","survey_name":"\u5e73\u621019\u5e74\u5ea6\u65bd\u884c \u5929\u5869\u5ddd\u4e0a\u6d41\u4e2d\u5ddd\u5730\u533a\u5916\u5824\u9632\u8cea\u7684\u6574\u5099\u691c\u8a0e\u696d\u52d9","client_name":"\u56fd\u571f\u4ea4\u901a\u7701 \u5317\u6d77\u9053\u958b\u767a\u5c40 \u65ed\u5ddd\u958b\u767a\u5efa\u8a2d\u90e8 \u6cbb\u6c34\u8ab2","boring_xml_url":43,"boring_view_url":1,"soilmap_view_url":null,"soiltest_xml_url":46,"soiltest_view_url":45},{"id":234553,"code":"B4KJ201802000-0033","latitude":"44.841634","longitude":"142.07006","source_code":"HK20072521970008","project_name":"","survey_name":"\u5e73\u621019\u5e74\u5ea6\u65bd\u884c \u5929\u5869\u5ddd\u4e0a\u6d41\u4e2d\u5ddd\u5730\u533a\u5916\u5824\u9632\u8cea\u7684\u6574\u5099\u691c\u8a0e\u696d\u52d9","client_name":"\u56fd\u571f\u4ea4\u901a\u7701 \u5317\u6d77\u9053\u958b\u767a\u5c40 \u65ed\u5ddd\u958b\u767a\u5efa\u8a2d\u90e8 \u6cbb\u6c34\u8ab2","boring_xml_url":43,"boring_view_url":1,"soilmap_view_url":null,"soiltest_xml_url":46,"soiltest_view_url":45},{"id":234552,"code":"B4KJ201802000-0032","latitude":"44.841689","longitude":"142.070116","source_code":"HK20072521970007","project_name":"","survey_name":"\u5e73\u621019\u5e74\u5ea6\u65bd\u884c \u5929\u5869\u5ddd\u4e0a\u6d41\u4e2d\u5ddd\u5730\u533a\u5916\u5824\u9632\u8cea\u7684\u6574\u5099\u691c\u8a0e\u696d\u52d9","client_name":"\u56fd\u571f\u4ea4\u901a\u7701 \u5317\u6d77\u9053\u958b\u767a\u5c40 \u65ed\u5ddd\u958b\u767a\u5efa\u8a2d\u90e8 \u6cbb\u6c34\u8ab2","boring_xml_url":43,"boring_view_url":1,"soilmap_view_url":null,"soiltest_xml_url":46,"soiltest_view_url":45},{"id":234551,"code":"B4KJ201802000-0031","latitude":"44.87074","longitude":"142.04781","source_code":"HK20072521970006","project_name":"","survey_name":"\u5e73\u621019\u5e74\u5ea6\u65bd\u884c \u5929\u5869\u5ddd\u4e0a\u6d41\u4e2d\u5ddd\u5730\u533a\u5916\u5824\u9632\u8cea\u7684\u6574\u5099\u691c\u8a0e\u696d\u52d9","client_name":"\u56fd\u571f\u4ea4\u901a\u7701 \u5317\u6d77\u9053\u958b\u767a\u5c40 \u65ed\u5ddd\u958b\u767a\u5efa\u8a2d\u90e8 \u6cbb\u6c34\u8ab2","boring_xml_url":43,"boring_view_url":1,"soilmap_view_url":null,"soiltest_xml_url":46,"soiltest_view_url":45},{"id":234550,"code":"B4KJ201802000-0030","latitude":"44.870768","longitude":"142.04756","source_code":"HK20072521970005","project_name":"","survey_name":"\u5e73\u621019\u5e74\u5ea6\u65bd\u884c \u5929\u5869\u5ddd\u4e0a\u6d41\u4e2d\u5ddd\u5730\u533a\u5916\u5824\u9632\u8cea\u7684\u6574\u5099\u691c\u8a0e\u696d\u52d9","client_name":"\u56fd\u571f\u4ea4\u901a\u7701 \u5317\u6d77\u9053\u958b\u767a\u5c40 \u65ed\u5ddd\u958b\u767a\u5efa\u8a2d\u90e8 \u6cbb\u6c34\u8ab2","boring_xml_url":43,"boring_view_url":1,"soilmap_view_url":null,"soiltest_xml_url":46,"soiltest_view_url":45}]}}