{"header":{"xyz":{"source":[],"mosaic":false},"page":32,"raw":{"soiltest_result":"0","bbox":"57.598333,109.544722,1.933333,163.806111","page":"32"},"conditions":{"soiltest_result":0,"north":57.598333,"west":109.544722,"south":1.933333,"east":163.806111},"success":true,"message":""},"data":{"meta":{"total":212844,"page":32,"pages":7095,"count":30},"values":[{"id":701467,"code":"NGIC202305675-0005","latitude":"35.351636111111","longitude":"132.72364916667","source_code":"","project_name":"","survey_name":"\u4ee4\u548c4\u5e74\u5ea6\u795e\u6238\u5ddd\u9ad8\u677e\u5730\u533a\u5916\u5730\u8cea\u8abf\u67fb\u696d\u52d9","client_name":"\u56fd\u571f\u4ea4\u901a\u7701\u4e2d\u56fd\u5730\u65b9\u6574\u5099\u5c40\u51fa\u96f2\u6cb3\u5ddd\u4e8b\u52d9\u6240","boring_xml_url":47,"boring_view_url":1,"soilmap_view_url":null,"soiltest_xml_url":47,"soiltest_view_url":47},{"id":701466,"code":"NGIC202305675-0004","latitude":"35.351562222222","longitude":"132.72235555556","source_code":"","project_name":"","survey_name":"\u4ee4\u548c4\u5e74\u5ea6\u795e\u6238\u5ddd\u9ad8\u677e\u5730\u533a\u5916\u5730\u8cea\u8abf\u67fb\u696d\u52d9","client_name":"\u56fd\u571f\u4ea4\u901a\u7701\u4e2d\u56fd\u5730\u65b9\u6574\u5099\u5c40\u51fa\u96f2\u6cb3\u5ddd\u4e8b\u52d9\u6240","boring_xml_url":47,"boring_view_url":1,"soilmap_view_url":null,"soiltest_xml_url":47,"soiltest_view_url":47},{"id":701465,"code":"NGIC202305675-0003","latitude":"35.351601666667","longitude":"132.72099388889","source_code":"","project_name":"","survey_name":"\u4ee4\u548c4\u5e74\u5ea6\u795e\u6238\u5ddd\u9ad8\u677e\u5730\u533a\u5916\u5730\u8cea\u8abf\u67fb\u696d\u52d9","client_name":"\u56fd\u571f\u4ea4\u901a\u7701\u4e2d\u56fd\u5730\u65b9\u6574\u5099\u5c40\u51fa\u96f2\u6cb3\u5ddd\u4e8b\u52d9\u6240","boring_xml_url":47,"boring_view_url":1,"soilmap_view_url":null,"soiltest_xml_url":47,"soiltest_view_url":47},{"id":701464,"code":"NGIC202305675-0002","latitude":"35.347610833333","longitude":"132.70805361111","source_code":"","project_name":"","survey_name":"\u4ee4\u548c4\u5e74\u5ea6\u795e\u6238\u5ddd\u9ad8\u677e\u5730\u533a\u5916\u5730\u8cea\u8abf\u67fb\u696d\u52d9","client_name":"\u56fd\u571f\u4ea4\u901a\u7701\u4e2d\u56fd\u5730\u65b9\u6574\u5099\u5c40\u51fa\u96f2\u6cb3\u5ddd\u4e8b\u52d9\u6240","boring_xml_url":47,"boring_view_url":1,"soilmap_view_url":null,"soiltest_xml_url":47,"soiltest_view_url":47},{"id":701463,"code":"NGIC202305675-0001","latitude":"35.347265555556","longitude":"132.70706138889","source_code":"","project_name":"","survey_name":"\u4ee4\u548c4\u5e74\u5ea6\u795e\u6238\u5ddd\u9ad8\u677e\u5730\u533a\u5916\u5730\u8cea\u8abf\u67fb\u696d\u52d9","client_name":"\u56fd\u571f\u4ea4\u901a\u7701\u4e2d\u56fd\u5730\u65b9\u6574\u5099\u5c40\u51fa\u96f2\u6cb3\u5ddd\u4e8b\u52d9\u6240","boring_xml_url":47,"boring_view_url":1,"soilmap_view_url":null,"soiltest_xml_url":47,"soiltest_view_url":47},{"id":701430,"code":"NGIC202306011-0011","latitude":"35.409305555556","longitude":"137.19213888889","source_code":"","project_name":"","survey_name":"\u4ee4\u548c4\u5e74\u5ea6\u591a\u6cbb\u898b\u56fd\u9053\u9632\u707d\u70b9\u691c\u696d\u52d9","client_name":"\u56fd\u571f\u4ea4\u901a\u7701\u4e2d\u90e8\u5730\u65b9\u6574\u5099\u5c40\u591a\u6cbb\u898b\u7802\u9632\u56fd\u9053\u4e8b\u52d9\u6240","boring_xml_url":47,"boring_view_url":1,"soilmap_view_url":null,"soiltest_xml_url":0,"soiltest_view_url":0},{"id":701429,"code":"NGIC202306011-0010","latitude":"35.532555555556","longitude":"137.53736111111","source_code":"","project_name":"","survey_name":"\u4ee4\u548c4\u5e74\u5ea6\u591a\u6cbb\u898b\u56fd\u9053\u9632\u707d\u70b9\u691c\u696d\u52d9","client_name":"\u56fd\u571f\u4ea4\u901a\u7701\u4e2d\u90e8\u5730\u65b9\u6574\u5099\u5c40\u591a\u6cbb\u898b\u7802\u9632\u56fd\u9053\u4e8b\u52d9\u6240","boring_xml_url":47,"boring_view_url":1,"soilmap_view_url":null,"soiltest_xml_url":0,"soiltest_view_url":0},{"id":701428,"code":"NGIC202306011-0009","latitude":"35.532527777778","longitude":"137.53741666667","source_code":"","project_name":"","survey_name":"\u4ee4\u548c4\u5e74\u5ea6\u591a\u6cbb\u898b\u56fd\u9053\u9632\u707d\u70b9\u691c\u696d\u52d9","client_name":"\u56fd\u571f\u4ea4\u901a\u7701\u4e2d\u90e8\u5730\u65b9\u6574\u5099\u5c40\u591a\u6cbb\u898b\u7802\u9632\u56fd\u9053\u4e8b\u52d9\u6240","boring_xml_url":47,"boring_view_url":1,"soilmap_view_url":null,"soiltest_xml_url":0,"soiltest_view_url":0},{"id":701427,"code":"NGIC202306011-0008","latitude":"35.531472222222","longitude":"137.53741666667","source_code":"","project_name":"","survey_name":"\u4ee4\u548c4\u5e74\u5ea6\u591a\u6cbb\u898b\u56fd\u9053\u9632\u707d\u70b9\u691c\u696d\u52d9","client_name":"\u56fd\u571f\u4ea4\u901a\u7701\u4e2d\u90e8\u5730\u65b9\u6574\u5099\u5c40\u591a\u6cbb\u898b\u7802\u9632\u56fd\u9053\u4e8b\u52d9\u6240","boring_xml_url":47,"boring_view_url":1,"soilmap_view_url":null,"soiltest_xml_url":0,"soiltest_view_url":0},{"id":701426,"code":"NGIC202306011-0007","latitude":"35.531472222222","longitude":"137.53744444444","source_code":"","project_name":"","survey_name":"\u4ee4\u548c4\u5e74\u5ea6\u591a\u6cbb\u898b\u56fd\u9053\u9632\u707d\u70b9\u691c\u696d\u52d9","client_name":"\u56fd\u571f\u4ea4\u901a\u7701\u4e2d\u90e8\u5730\u65b9\u6574\u5099\u5c40\u591a\u6cbb\u898b\u7802\u9632\u56fd\u9053\u4e8b\u52d9\u6240","boring_xml_url":47,"boring_view_url":1,"soilmap_view_url":null,"soiltest_xml_url":0,"soiltest_view_url":0},{"id":701425,"code":"NGIC202306011-0006","latitude":"35.556625","longitude":"137.54333333333","source_code":"","project_name":"","survey_name":"\u4ee4\u548c4\u5e74\u5ea6\u591a\u6cbb\u898b\u56fd\u9053\u9632\u707d\u70b9\u691c\u696d\u52d9","client_name":"\u56fd\u571f\u4ea4\u901a\u7701\u4e2d\u90e8\u5730\u65b9\u6574\u5099\u5c40\u591a\u6cbb\u898b\u7802\u9632\u56fd\u9053\u4e8b\u52d9\u6240","boring_xml_url":47,"boring_view_url":1,"soilmap_view_url":null,"soiltest_xml_url":0,"soiltest_view_url":0},{"id":701424,"code":"NGIC202306011-0005","latitude":"35.556616666667","longitude":"137.54327777778","source_code":"","project_name":"","survey_name":"\u4ee4\u548c4\u5e74\u5ea6\u591a\u6cbb\u898b\u56fd\u9053\u9632\u707d\u70b9\u691c\u696d\u52d9","client_name":"\u56fd\u571f\u4ea4\u901a\u7701\u4e2d\u90e8\u5730\u65b9\u6574\u5099\u5c40\u591a\u6cbb\u898b\u7802\u9632\u56fd\u9053\u4e8b\u52d9\u6240","boring_xml_url":47,"boring_view_url":1,"soilmap_view_url":null,"soiltest_xml_url":0,"soiltest_view_url":0},{"id":701423,"code":"NGIC202306011-0004","latitude":"35.511544444444","longitude":"137.52155833333","source_code":"","project_name":"","survey_name":"\u4ee4\u548c4\u5e74\u5ea6\u591a\u6cbb\u898b\u56fd\u9053\u9632\u707d\u70b9\u691c\u696d\u52d9","client_name":"\u56fd\u571f\u4ea4\u901a\u7701\u4e2d\u90e8\u5730\u65b9\u6574\u5099\u5c40\u591a\u6cbb\u898b\u7802\u9632\u56fd\u9053\u4e8b\u52d9\u6240","boring_xml_url":47,"boring_view_url":1,"soilmap_view_url":null,"soiltest_xml_url":0,"soiltest_view_url":0},{"id":701422,"code":"NGIC202306011-0003","latitude":"35.511544444444","longitude":"137.52159722222","source_code":"","project_name":"","survey_name":"\u4ee4\u548c4\u5e74\u5ea6\u591a\u6cbb\u898b\u56fd\u9053\u9632\u707d\u70b9\u691c\u696d\u52d9","client_name":"\u56fd\u571f\u4ea4\u901a\u7701\u4e2d\u90e8\u5730\u65b9\u6574\u5099\u5c40\u591a\u6cbb\u898b\u7802\u9632\u56fd\u9053\u4e8b\u52d9\u6240","boring_xml_url":47,"boring_view_url":1,"soilmap_view_url":null,"soiltest_xml_url":0,"soiltest_view_url":0},{"id":701421,"code":"NGIC202306011-0002","latitude":"35.511683333333","longitude":"137.52153888889","source_code":"","project_name":"","survey_name":"\u4ee4\u548c4\u5e74\u5ea6\u591a\u6cbb\u898b\u56fd\u9053\u9632\u707d\u70b9\u691c\u696d\u52d9","client_name":"\u56fd\u571f\u4ea4\u901a\u7701\u4e2d\u90e8\u5730\u65b9\u6574\u5099\u5c40\u591a\u6cbb\u898b\u7802\u9632\u56fd\u9053\u4e8b\u52d9\u6240","boring_xml_url":47,"boring_view_url":1,"soilmap_view_url":null,"soiltest_xml_url":0,"soiltest_view_url":0},{"id":701420,"code":"NGIC202306011-0001","latitude":"35.511686111111","longitude":"137.52158055556","source_code":"","project_name":"","survey_name":"\u4ee4\u548c4\u5e74\u5ea6\u591a\u6cbb\u898b\u56fd\u9053\u9632\u707d\u70b9\u691c\u696d\u52d9","client_name":"\u56fd\u571f\u4ea4\u901a\u7701\u4e2d\u90e8\u5730\u65b9\u6574\u5099\u5c40\u591a\u6cbb\u898b\u7802\u9632\u56fd\u9053\u4e8b\u52d9\u6240","boring_xml_url":47,"boring_view_url":1,"soilmap_view_url":null,"soiltest_xml_url":0,"soiltest_view_url":0},{"id":701419,"code":"NGIC202306010-0008","latitude":"35.557641666667","longitude":"139.75738888889","source_code":"","project_name":"","survey_name":"\u4ee4\u548c5\u5e74\u5ea6\u6771\u4eac\u56fd\u969b\u7a7a\u6e2f\u65e7\u6574\u5099\u5834\u5730\u533a\u571f\u8cea\u8abf\u67fb\uff08\u305d\u306e2\uff09","client_name":"\u56fd\u571f\u4ea4\u901a\u7701\u95a2\u6771\u5730\u65b9\u6574\u5099\u5c40\u6771\u4eac\u7a7a\u6e2f\u6574\u5099\u4e8b\u52d9\u6240","boring_xml_url":47,"boring_view_url":1,"soilmap_view_url":null,"soiltest_xml_url":47,"soiltest_view_url":47},{"id":701418,"code":"NGIC202306010-0007","latitude":"35.557666666667","longitude":"139.75736944444","source_code":"","project_name":"","survey_name":"\u4ee4\u548c5\u5e74\u5ea6\u6771\u4eac\u56fd\u969b\u7a7a\u6e2f\u65e7\u6574\u5099\u5834\u5730\u533a\u571f\u8cea\u8abf\u67fb\uff08\u305d\u306e2\uff09","client_name":"\u56fd\u571f\u4ea4\u901a\u7701\u95a2\u6771\u5730\u65b9\u6574\u5099\u5c40\u6771\u4eac\u7a7a\u6e2f\u6574\u5099\u4e8b\u52d9\u6240","boring_xml_url":47,"boring_view_url":1,"soilmap_view_url":null,"soiltest_xml_url":47,"soiltest_view_url":47},{"id":701417,"code":"NGIC202306010-0006","latitude":"35.556863888889","longitude":"139.75804722222","source_code":"","project_name":"","survey_name":"\u4ee4\u548c5\u5e74\u5ea6\u6771\u4eac\u56fd\u969b\u7a7a\u6e2f\u65e7\u6574\u5099\u5834\u5730\u533a\u571f\u8cea\u8abf\u67fb\uff08\u305d\u306e2\uff09","client_name":"\u56fd\u571f\u4ea4\u901a\u7701\u95a2\u6771\u5730\u65b9\u6574\u5099\u5c40\u6771\u4eac\u7a7a\u6e2f\u6574\u5099\u4e8b\u52d9\u6240","boring_xml_url":47,"boring_view_url":1,"soilmap_view_url":null,"soiltest_xml_url":47,"soiltest_view_url":47},{"id":701416,"code":"NGIC202306010-0005","latitude":"35.556886111111","longitude":"139.75802777778","source_code":"","project_name":"","survey_name":"\u4ee4\u548c5\u5e74\u5ea6\u6771\u4eac\u56fd\u969b\u7a7a\u6e2f\u65e7\u6574\u5099\u5834\u5730\u533a\u571f\u8cea\u8abf\u67fb\uff08\u305d\u306e2\uff09","client_name":"\u56fd\u571f\u4ea4\u901a\u7701\u95a2\u6771\u5730\u65b9\u6574\u5099\u5c40\u6771\u4eac\u7a7a\u6e2f\u6574\u5099\u4e8b\u52d9\u6240","boring_xml_url":47,"boring_view_url":1,"soilmap_view_url":null,"soiltest_xml_url":47,"soiltest_view_url":47},{"id":701415,"code":"NGIC202306010-0004","latitude":"35.556722222222","longitude":"139.75933611111","source_code":"","project_name":"","survey_name":"\u4ee4\u548c5\u5e74\u5ea6\u6771\u4eac\u56fd\u969b\u7a7a\u6e2f\u65e7\u6574\u5099\u5834\u5730\u533a\u571f\u8cea\u8abf\u67fb\uff08\u305d\u306e2\uff09","client_name":"\u56fd\u571f\u4ea4\u901a\u7701\u95a2\u6771\u5730\u65b9\u6574\u5099\u5c40\u6771\u4eac\u7a7a\u6e2f\u6574\u5099\u4e8b\u52d9\u6240","boring_xml_url":47,"boring_view_url":1,"soilmap_view_url":null,"soiltest_xml_url":47,"soiltest_view_url":47},{"id":701414,"code":"NGIC202306010-0003","latitude":"35.556705555556","longitude":"139.75930833333","source_code":"","project_name":"","survey_name":"\u4ee4\u548c5\u5e74\u5ea6\u6771\u4eac\u56fd\u969b\u7a7a\u6e2f\u65e7\u6574\u5099\u5834\u5730\u533a\u571f\u8cea\u8abf\u67fb\uff08\u305d\u306e2\uff09","client_name":"\u56fd\u571f\u4ea4\u901a\u7701\u95a2\u6771\u5730\u65b9\u6574\u5099\u5c40\u6771\u4eac\u7a7a\u6e2f\u6574\u5099\u4e8b\u52d9\u6240","boring_xml_url":47,"boring_view_url":1,"soilmap_view_url":null,"soiltest_xml_url":47,"soiltest_view_url":47},{"id":701413,"code":"NGIC202306010-0002","latitude":"35.556427777778","longitude":"139.75930277778","source_code":"","project_name":"","survey_name":"\u4ee4\u548c5\u5e74\u5ea6\u6771\u4eac\u56fd\u969b\u7a7a\u6e2f\u65e7\u6574\u5099\u5834\u5730\u533a\u571f\u8cea\u8abf\u67fb\uff08\u305d\u306e2\uff09","client_name":"\u56fd\u571f\u4ea4\u901a\u7701\u95a2\u6771\u5730\u65b9\u6574\u5099\u5c40\u6771\u4eac\u7a7a\u6e2f\u6574\u5099\u4e8b\u52d9\u6240","boring_xml_url":47,"boring_view_url":1,"soilmap_view_url":null,"soiltest_xml_url":47,"soiltest_view_url":47},{"id":701412,"code":"NGIC202306010-0001","latitude":"35.556444444444","longitude":"139.75932777778","source_code":"","project_name":"","survey_name":"\u4ee4\u548c5\u5e74\u5ea6\u6771\u4eac\u56fd\u969b\u7a7a\u6e2f\u65e7\u6574\u5099\u5834\u5730\u533a\u571f\u8cea\u8abf\u67fb\uff08\u305d\u306e2\uff09","client_name":"\u56fd\u571f\u4ea4\u901a\u7701\u95a2\u6771\u5730\u65b9\u6574\u5099\u5c40\u6771\u4eac\u7a7a\u6e2f\u6574\u5099\u4e8b\u52d9\u6240","boring_xml_url":47,"boring_view_url":1,"soilmap_view_url":null,"soiltest_xml_url":47,"soiltest_view_url":47},{"id":701341,"code":"NGIC202305506-0007","latitude":"34.021457472222","longitude":"134.57357313889","source_code":"","project_name":"","survey_name":"\u4ee4\u548c5\u5e74\u5ea6\u5927\u539f\u5730\u533a\u5730\u8cea\u8abf\u67fb\uff08\u305d\u306e2\uff09\u696d\u52d9","client_name":"\u56fd\u571f\u4ea4\u901a\u7701\u56db\u56fd\u5730\u65b9\u6574\u5099\u5c40\u5fb3\u5cf6\u6cb3\u5ddd\u56fd\u9053\u4e8b\u52d9\u6240","boring_xml_url":47,"boring_view_url":1,"soilmap_view_url":null,"soiltest_xml_url":0,"soiltest_view_url":0},{"id":701340,"code":"NGIC202305506-0006","latitude":"34.021592472222","longitude":"134.57402719444","source_code":"","project_name":"","survey_name":"\u4ee4\u548c5\u5e74\u5ea6\u5927\u539f\u5730\u533a\u5730\u8cea\u8abf\u67fb\uff08\u305d\u306e2\uff09\u696d\u52d9","client_name":"\u56fd\u571f\u4ea4\u901a\u7701\u56db\u56fd\u5730\u65b9\u6574\u5099\u5c40\u5fb3\u5cf6\u6cb3\u5ddd\u56fd\u9053\u4e8b\u52d9\u6240","boring_xml_url":47,"boring_view_url":1,"soilmap_view_url":null,"soiltest_xml_url":0,"soiltest_view_url":0},{"id":701339,"code":"NGIC202305506-0005","latitude":"34.021401277778","longitude":"134.57561766667","source_code":"","project_name":"","survey_name":"\u4ee4\u548c5\u5e74\u5ea6\u5927\u539f\u5730\u533a\u5730\u8cea\u8abf\u67fb\uff08\u305d\u306e2\uff09\u696d\u52d9","client_name":"\u56fd\u571f\u4ea4\u901a\u7701\u56db\u56fd\u5730\u65b9\u6574\u5099\u5c40\u5fb3\u5cf6\u6cb3\u5ddd\u56fd\u9053\u4e8b\u52d9\u6240","boring_xml_url":47,"boring_view_url":1,"soilmap_view_url":null,"soiltest_xml_url":0,"soiltest_view_url":0},{"id":701338,"code":"NGIC202305506-0004","latitude":"34.021617611111","longitude":"134.57429325","source_code":"","project_name":"","survey_name":"\u4ee4\u548c5\u5e74\u5ea6\u5927\u539f\u5730\u533a\u5730\u8cea\u8abf\u67fb\uff08\u305d\u306e2\uff09\u696d\u52d9","client_name":"\u56fd\u571f\u4ea4\u901a\u7701\u56db\u56fd\u5730\u65b9\u6574\u5099\u5c40\u5fb3\u5cf6\u6cb3\u5ddd\u56fd\u9053\u4e8b\u52d9\u6240","boring_xml_url":47,"boring_view_url":1,"soilmap_view_url":null,"soiltest_xml_url":0,"soiltest_view_url":0},{"id":701337,"code":"NGIC202305506-0003","latitude":"34.021214555556","longitude":"134.57446197222","source_code":"","project_name":"","survey_name":"\u4ee4\u548c5\u5e74\u5ea6\u5927\u539f\u5730\u533a\u5730\u8cea\u8abf\u67fb\uff08\u305d\u306e2\uff09\u696d\u52d9","client_name":"\u56fd\u571f\u4ea4\u901a\u7701\u56db\u56fd\u5730\u65b9\u6574\u5099\u5c40\u5fb3\u5cf6\u6cb3\u5ddd\u56fd\u9053\u4e8b\u52d9\u6240","boring_xml_url":47,"boring_view_url":1,"soilmap_view_url":null,"soiltest_xml_url":0,"soiltest_view_url":0},{"id":701336,"code":"NGIC202305506-0002","latitude":"34.021898361111","longitude":"134.57488988889","source_code":"","project_name":"","survey_name":"\u4ee4\u548c5\u5e74\u5ea6\u5927\u539f\u5730\u533a\u5730\u8cea\u8abf\u67fb\uff08\u305d\u306e2\uff09\u696d\u52d9","client_name":"\u56fd\u571f\u4ea4\u901a\u7701\u56db\u56fd\u5730\u65b9\u6574\u5099\u5c40\u5fb3\u5cf6\u6cb3\u5ddd\u56fd\u9053\u4e8b\u52d9\u6240","boring_xml_url":47,"boring_view_url":1,"soilmap_view_url":null,"soiltest_xml_url":0,"soiltest_view_url":0}]}}