{"header":{"xyz":{"source":[],"mosaic":false},"page":3207,"raw":{"soiltest_result":"0","bbox":"57.598333,109.544722,1.933333,163.806111","page":"3207"},"conditions":{"soiltest_result":0,"north":57.598333,"west":109.544722,"south":1.933333,"east":163.806111},"success":true,"message":""},"data":{"meta":{"total":212844,"page":3207,"pages":7095,"count":30},"values":[{"id":234332,"code":"NGIC201900029-0024","latitude":"34.552563888889","longitude":"131.52743333333","source_code":"","project_name":"","survey_name":"\u6728\u4e0e\u9632\u707d\u5730\u8cea\u89e3\u6790\u8abf\u67fb\u696d\u52d9","client_name":"\u56fd\u571f\u4ea4\u901a\u7701\u4e2d\u56fd\u5730\u65b9\u6574\u5099\u5c40\u5c71\u53e3\u6cb3\u5ddd\u56fd\u9053\u4e8b\u52d9\u6240","boring_xml_url":47,"boring_view_url":1,"soilmap_view_url":null,"soiltest_xml_url":0,"soiltest_view_url":0},{"id":234331,"code":"NGIC201900029-0023","latitude":"34.552227777778","longitude":"131.52285555556","source_code":"","project_name":"","survey_name":"\u6728\u4e0e\u9632\u707d\u5730\u8cea\u89e3\u6790\u8abf\u67fb\u696d\u52d9","client_name":"\u56fd\u571f\u4ea4\u901a\u7701\u4e2d\u56fd\u5730\u65b9\u6574\u5099\u5c40\u5c71\u53e3\u6cb3\u5ddd\u56fd\u9053\u4e8b\u52d9\u6240","boring_xml_url":47,"boring_view_url":1,"soilmap_view_url":null,"soiltest_xml_url":0,"soiltest_view_url":0},{"id":234330,"code":"NGIC201900029-0022","latitude":"34.552386111111","longitude":"131.52267777778","source_code":"","project_name":"","survey_name":"\u6728\u4e0e\u9632\u707d\u5730\u8cea\u89e3\u6790\u8abf\u67fb\u696d\u52d9","client_name":"\u56fd\u571f\u4ea4\u901a\u7701\u4e2d\u56fd\u5730\u65b9\u6574\u5099\u5c40\u5c71\u53e3\u6cb3\u5ddd\u56fd\u9053\u4e8b\u52d9\u6240","boring_xml_url":47,"boring_view_url":1,"soilmap_view_url":null,"soiltest_xml_url":0,"soiltest_view_url":0},{"id":234329,"code":"NGIC201900029-0021","latitude":"34.552586111111","longitude":"131.52236388889","source_code":"","project_name":"","survey_name":"\u6728\u4e0e\u9632\u707d\u5730\u8cea\u89e3\u6790\u8abf\u67fb\u696d\u52d9","client_name":"\u56fd\u571f\u4ea4\u901a\u7701\u4e2d\u56fd\u5730\u65b9\u6574\u5099\u5c40\u5c71\u53e3\u6cb3\u5ddd\u56fd\u9053\u4e8b\u52d9\u6240","boring_xml_url":47,"boring_view_url":1,"soilmap_view_url":null,"soiltest_xml_url":0,"soiltest_view_url":0},{"id":234328,"code":"NGIC201900029-0020","latitude":"34.534975","longitude":"131.50918611111","source_code":"","project_name":"","survey_name":"\u6728\u4e0e\u9632\u707d\u5730\u8cea\u89e3\u6790\u8abf\u67fb\u696d\u52d9","client_name":"\u56fd\u571f\u4ea4\u901a\u7701\u4e2d\u56fd\u5730\u65b9\u6574\u5099\u5c40\u5c71\u53e3\u6cb3\u5ddd\u56fd\u9053\u4e8b\u52d9\u6240","boring_xml_url":47,"boring_view_url":1,"soilmap_view_url":null,"soiltest_xml_url":0,"soiltest_view_url":0},{"id":234327,"code":"NGIC201900029-0019","latitude":"34.535077777778","longitude":"131.50934722222","source_code":"","project_name":"","survey_name":"\u6728\u4e0e\u9632\u707d\u5730\u8cea\u89e3\u6790\u8abf\u67fb\u696d\u52d9","client_name":"\u56fd\u571f\u4ea4\u901a\u7701\u4e2d\u56fd\u5730\u65b9\u6574\u5099\u5c40\u5c71\u53e3\u6cb3\u5ddd\u56fd\u9053\u4e8b\u52d9\u6240","boring_xml_url":47,"boring_view_url":1,"soilmap_view_url":null,"soiltest_xml_url":0,"soiltest_view_url":0},{"id":234326,"code":"NGIC201900029-0018","latitude":"34.536277777778","longitude":"131.51043055556","source_code":"","project_name":"","survey_name":"\u6728\u4e0e\u9632\u707d\u5730\u8cea\u89e3\u6790\u8abf\u67fb\u696d\u52d9","client_name":"\u56fd\u571f\u4ea4\u901a\u7701\u4e2d\u56fd\u5730\u65b9\u6574\u5099\u5c40\u5c71\u53e3\u6cb3\u5ddd\u56fd\u9053\u4e8b\u52d9\u6240","boring_xml_url":47,"boring_view_url":1,"soilmap_view_url":null,"soiltest_xml_url":0,"soiltest_view_url":0},{"id":234325,"code":"NGIC201900029-0017","latitude":"34.536377777778","longitude":"131.51036388889","source_code":"","project_name":"","survey_name":"\u6728\u4e0e\u9632\u707d\u5730\u8cea\u89e3\u6790\u8abf\u67fb\u696d\u52d9","client_name":"\u56fd\u571f\u4ea4\u901a\u7701\u4e2d\u56fd\u5730\u65b9\u6574\u5099\u5c40\u5c71\u53e3\u6cb3\u5ddd\u56fd\u9053\u4e8b\u52d9\u6240","boring_xml_url":47,"boring_view_url":1,"soilmap_view_url":null,"soiltest_xml_url":0,"soiltest_view_url":0},{"id":234324,"code":"NGIC201900029-0016","latitude":"34.536741666667","longitude":"131.50781944444","source_code":"","project_name":"","survey_name":"\u6728\u4e0e\u9632\u707d\u5730\u8cea\u89e3\u6790\u8abf\u67fb\u696d\u52d9","client_name":"\u56fd\u571f\u4ea4\u901a\u7701\u4e2d\u56fd\u5730\u65b9\u6574\u5099\u5c40\u5c71\u53e3\u6cb3\u5ddd\u56fd\u9053\u4e8b\u52d9\u6240","boring_xml_url":47,"boring_view_url":1,"soilmap_view_url":null,"soiltest_xml_url":0,"soiltest_view_url":0},{"id":234323,"code":"NGIC201900029-0015","latitude":"34.537091666667","longitude":"131.50751666667","source_code":"","project_name":"","survey_name":"\u6728\u4e0e\u9632\u707d\u5730\u8cea\u89e3\u6790\u8abf\u67fb\u696d\u52d9","client_name":"\u56fd\u571f\u4ea4\u901a\u7701\u4e2d\u56fd\u5730\u65b9\u6574\u5099\u5c40\u5c71\u53e3\u6cb3\u5ddd\u56fd\u9053\u4e8b\u52d9\u6240","boring_xml_url":47,"boring_view_url":1,"soilmap_view_url":null,"soiltest_xml_url":0,"soiltest_view_url":0},{"id":234322,"code":"NGIC201900029-0014","latitude":"34.537147222222","longitude":"131.507275","source_code":"","project_name":"","survey_name":"\u6728\u4e0e\u9632\u707d\u5730\u8cea\u89e3\u6790\u8abf\u67fb\u696d\u52d9","client_name":"\u56fd\u571f\u4ea4\u901a\u7701\u4e2d\u56fd\u5730\u65b9\u6574\u5099\u5c40\u5c71\u53e3\u6cb3\u5ddd\u56fd\u9053\u4e8b\u52d9\u6240","boring_xml_url":47,"boring_view_url":1,"soilmap_view_url":null,"soiltest_xml_url":0,"soiltest_view_url":0},{"id":234321,"code":"NGIC201900029-0013","latitude":"34.537683333333","longitude":"131.50668888889","source_code":"","project_name":"","survey_name":"\u6728\u4e0e\u9632\u707d\u5730\u8cea\u89e3\u6790\u8abf\u67fb\u696d\u52d9","client_name":"\u56fd\u571f\u4ea4\u901a\u7701\u4e2d\u56fd\u5730\u65b9\u6574\u5099\u5c40\u5c71\u53e3\u6cb3\u5ddd\u56fd\u9053\u4e8b\u52d9\u6240","boring_xml_url":47,"boring_view_url":1,"soilmap_view_url":null,"soiltest_xml_url":0,"soiltest_view_url":0},{"id":234320,"code":"NGIC201900029-0012","latitude":"34.537708333333","longitude":"131.506475","source_code":"","project_name":"","survey_name":"\u6728\u4e0e\u9632\u707d\u5730\u8cea\u89e3\u6790\u8abf\u67fb\u696d\u52d9","client_name":"\u56fd\u571f\u4ea4\u901a\u7701\u4e2d\u56fd\u5730\u65b9\u6574\u5099\u5c40\u5c71\u53e3\u6cb3\u5ddd\u56fd\u9053\u4e8b\u52d9\u6240","boring_xml_url":47,"boring_view_url":1,"soilmap_view_url":null,"soiltest_xml_url":0,"soiltest_view_url":0},{"id":234319,"code":"NGIC201900029-0011","latitude":"34.538647222222","longitude":"131.50661111111","source_code":"","project_name":"","survey_name":"\u6728\u4e0e\u9632\u707d\u5730\u8cea\u89e3\u6790\u8abf\u67fb\u696d\u52d9","client_name":"\u56fd\u571f\u4ea4\u901a\u7701\u4e2d\u56fd\u5730\u65b9\u6574\u5099\u5c40\u5c71\u53e3\u6cb3\u5ddd\u56fd\u9053\u4e8b\u52d9\u6240","boring_xml_url":47,"boring_view_url":1,"soilmap_view_url":null,"soiltest_xml_url":0,"soiltest_view_url":0},{"id":234318,"code":"NGIC201900029-0010","latitude":"34.539186111111","longitude":"131.50713611111","source_code":"","project_name":"","survey_name":"\u6728\u4e0e\u9632\u707d\u5730\u8cea\u89e3\u6790\u8abf\u67fb\u696d\u52d9","client_name":"\u56fd\u571f\u4ea4\u901a\u7701\u4e2d\u56fd\u5730\u65b9\u6574\u5099\u5c40\u5c71\u53e3\u6cb3\u5ddd\u56fd\u9053\u4e8b\u52d9\u6240","boring_xml_url":47,"boring_view_url":1,"soilmap_view_url":null,"soiltest_xml_url":0,"soiltest_view_url":0},{"id":234317,"code":"NGIC201900029-0009","latitude":"34.539277777778","longitude":"131.50695833333","source_code":"","project_name":"","survey_name":"\u6728\u4e0e\u9632\u707d\u5730\u8cea\u89e3\u6790\u8abf\u67fb\u696d\u52d9","client_name":"\u56fd\u571f\u4ea4\u901a\u7701\u4e2d\u56fd\u5730\u65b9\u6574\u5099\u5c40\u5c71\u53e3\u6cb3\u5ddd\u56fd\u9053\u4e8b\u52d9\u6240","boring_xml_url":47,"boring_view_url":1,"soilmap_view_url":null,"soiltest_xml_url":0,"soiltest_view_url":0},{"id":234316,"code":"NGIC201900029-0008","latitude":"34.527761111111","longitude":"131.49478888889","source_code":"","project_name":"","survey_name":"\u6728\u4e0e\u9632\u707d\u5730\u8cea\u89e3\u6790\u8abf\u67fb\u696d\u52d9","client_name":"\u56fd\u571f\u4ea4\u901a\u7701\u4e2d\u56fd\u5730\u65b9\u6574\u5099\u5c40\u5c71\u53e3\u6cb3\u5ddd\u56fd\u9053\u4e8b\u52d9\u6240","boring_xml_url":47,"boring_view_url":1,"soilmap_view_url":null,"soiltest_xml_url":47,"soiltest_view_url":47},{"id":234315,"code":"NGIC201900029-0007","latitude":"34.528313888889","longitude":"131.49536388889","source_code":"","project_name":"","survey_name":"\u6728\u4e0e\u9632\u707d\u5730\u8cea\u89e3\u6790\u8abf\u67fb\u696d\u52d9","client_name":"\u56fd\u571f\u4ea4\u901a\u7701\u4e2d\u56fd\u5730\u65b9\u6574\u5099\u5c40\u5c71\u53e3\u6cb3\u5ddd\u56fd\u9053\u4e8b\u52d9\u6240","boring_xml_url":47,"boring_view_url":1,"soilmap_view_url":null,"soiltest_xml_url":47,"soiltest_view_url":47},{"id":234314,"code":"NGIC201900029-0006","latitude":"34.534352777778","longitude":"131.50670277778","source_code":"","project_name":"","survey_name":"\u6728\u4e0e\u9632\u707d\u5730\u8cea\u89e3\u6790\u8abf\u67fb\u696d\u52d9","client_name":"\u56fd\u571f\u4ea4\u901a\u7701\u4e2d\u56fd\u5730\u65b9\u6574\u5099\u5c40\u5c71\u53e3\u6cb3\u5ddd\u56fd\u9053\u4e8b\u52d9\u6240","boring_xml_url":47,"boring_view_url":1,"soilmap_view_url":null,"soiltest_xml_url":0,"soiltest_view_url":0},{"id":234313,"code":"NGIC201900029-0005","latitude":"34.534372222222","longitude":"131.51045555556","source_code":"","project_name":"","survey_name":"\u6728\u4e0e\u9632\u707d\u5730\u8cea\u89e3\u6790\u8abf\u67fb\u696d\u52d9","client_name":"\u56fd\u571f\u4ea4\u901a\u7701\u4e2d\u56fd\u5730\u65b9\u6574\u5099\u5c40\u5c71\u53e3\u6cb3\u5ddd\u56fd\u9053\u4e8b\u52d9\u6240","boring_xml_url":47,"boring_view_url":1,"soilmap_view_url":null,"soiltest_xml_url":0,"soiltest_view_url":0},{"id":234312,"code":"NGIC201900029-0004","latitude":"34.534980555556","longitude":"131.51139444444","source_code":"","project_name":"","survey_name":"\u6728\u4e0e\u9632\u707d\u5730\u8cea\u89e3\u6790\u8abf\u67fb\u696d\u52d9","client_name":"\u56fd\u571f\u4ea4\u901a\u7701\u4e2d\u56fd\u5730\u65b9\u6574\u5099\u5c40\u5c71\u53e3\u6cb3\u5ddd\u56fd\u9053\u4e8b\u52d9\u6240","boring_xml_url":47,"boring_view_url":1,"soilmap_view_url":null,"soiltest_xml_url":0,"soiltest_view_url":0},{"id":234311,"code":"NGIC201900029-0003","latitude":"34.550097222222","longitude":"131.52420277778","source_code":"","project_name":"","survey_name":"\u6728\u4e0e\u9632\u707d\u5730\u8cea\u89e3\u6790\u8abf\u67fb\u696d\u52d9","client_name":"\u56fd\u571f\u4ea4\u901a\u7701\u4e2d\u56fd\u5730\u65b9\u6574\u5099\u5c40\u5c71\u53e3\u6cb3\u5ddd\u56fd\u9053\u4e8b\u52d9\u6240","boring_xml_url":47,"boring_view_url":1,"soilmap_view_url":null,"soiltest_xml_url":0,"soiltest_view_url":0},{"id":234310,"code":"NGIC201900029-0002","latitude":"34.556277777778","longitude":"131.52770555556","source_code":"","project_name":"","survey_name":"\u6728\u4e0e\u9632\u707d\u5730\u8cea\u89e3\u6790\u8abf\u67fb\u696d\u52d9","client_name":"\u56fd\u571f\u4ea4\u901a\u7701\u4e2d\u56fd\u5730\u65b9\u6574\u5099\u5c40\u5c71\u53e3\u6cb3\u5ddd\u56fd\u9053\u4e8b\u52d9\u6240","boring_xml_url":47,"boring_view_url":1,"soilmap_view_url":null,"soiltest_xml_url":0,"soiltest_view_url":0},{"id":234309,"code":"NGIC201900029-0001","latitude":"34.556813888889","longitude":"131.52763611111","source_code":"","project_name":"","survey_name":"\u6728\u4e0e\u9632\u707d\u5730\u8cea\u89e3\u6790\u8abf\u67fb\u696d\u52d9","client_name":"\u56fd\u571f\u4ea4\u901a\u7701\u4e2d\u56fd\u5730\u65b9\u6574\u5099\u5c40\u5c71\u53e3\u6cb3\u5ddd\u56fd\u9053\u4e8b\u52d9\u6240","boring_xml_url":47,"boring_view_url":1,"soilmap_view_url":null,"soiltest_xml_url":0,"soiltest_view_url":0},{"id":234308,"code":"NGIC201900033-0005","latitude":"34.785972222222","longitude":"138.02544444444","source_code":"","project_name":"","survey_name":"\u5e73\u621030\u5e74\u5ea6\u6d5c\u677e\u7ba1\u5185\u9632\u707d\u70b9\u691c\u696d\u52d9","client_name":"\u56fd\u571f\u4ea4\u901a\u7701\u4e2d\u90e8\u5730\u65b9\u6574\u5099\u5c40\u6d5c\u677e\u6cb3\u5ddd\u56fd\u9053\u4e8b\u52d9\u6240","boring_xml_url":47,"boring_view_url":1,"soilmap_view_url":null,"soiltest_xml_url":0,"soiltest_view_url":0},{"id":234307,"code":"NGIC201900033-0004","latitude":"34.785647222222","longitude":"138.02548611111","source_code":"","project_name":"","survey_name":"\u5e73\u621030\u5e74\u5ea6\u6d5c\u677e\u7ba1\u5185\u9632\u707d\u70b9\u691c\u696d\u52d9","client_name":"\u56fd\u571f\u4ea4\u901a\u7701\u4e2d\u90e8\u5730\u65b9\u6574\u5099\u5c40\u6d5c\u677e\u6cb3\u5ddd\u56fd\u9053\u4e8b\u52d9\u6240","boring_xml_url":47,"boring_view_url":1,"soilmap_view_url":null,"soiltest_xml_url":0,"soiltest_view_url":0},{"id":234306,"code":"NGIC201900033-0003","latitude":"34.785852777778","longitude":"138.02536944444","source_code":"","project_name":"","survey_name":"\u5e73\u621030\u5e74\u5ea6\u6d5c\u677e\u7ba1\u5185\u9632\u707d\u70b9\u691c\u696d\u52d9","client_name":"\u56fd\u571f\u4ea4\u901a\u7701\u4e2d\u90e8\u5730\u65b9\u6574\u5099\u5c40\u6d5c\u677e\u6cb3\u5ddd\u56fd\u9053\u4e8b\u52d9\u6240","boring_xml_url":47,"boring_view_url":1,"soilmap_view_url":null,"soiltest_xml_url":0,"soiltest_view_url":0},{"id":234305,"code":"NGIC201900033-0002","latitude":"34.785791666667","longitude":"138.02539444444","source_code":"","project_name":"","survey_name":"\u5e73\u621030\u5e74\u5ea6\u6d5c\u677e\u7ba1\u5185\u9632\u707d\u70b9\u691c\u696d\u52d9","client_name":"\u56fd\u571f\u4ea4\u901a\u7701\u4e2d\u90e8\u5730\u65b9\u6574\u5099\u5c40\u6d5c\u677e\u6cb3\u5ddd\u56fd\u9053\u4e8b\u52d9\u6240","boring_xml_url":47,"boring_view_url":1,"soilmap_view_url":null,"soiltest_xml_url":0,"soiltest_view_url":0},{"id":234304,"code":"NGIC201900033-0001","latitude":"34.785722222222","longitude":"138.02535277778","source_code":"","project_name":"","survey_name":"\u5e73\u621030\u5e74\u5ea6\u6d5c\u677e\u7ba1\u5185\u9632\u707d\u70b9\u691c\u696d\u52d9","client_name":"\u56fd\u571f\u4ea4\u901a\u7701\u4e2d\u90e8\u5730\u65b9\u6574\u5099\u5c40\u6d5c\u677e\u6cb3\u5ddd\u56fd\u9053\u4e8b\u52d9\u6240","boring_xml_url":47,"boring_view_url":1,"soilmap_view_url":null,"soiltest_xml_url":0,"soiltest_view_url":0},{"id":234303,"code":"NGIC201900028-0025","latitude":"35.274808333333","longitude":"136.57184166667","source_code":"","project_name":"\u6771\u6d77\u74b0\u72b6\u81ea\u52d5\u8eca\u9053","survey_name":"\u5e73\u621030\u5e74\u5ea6 \u6771\u6d77\u74b0\u72b6(\u990a\u8001\u304b\u3089\u770c\u5883)\u990a\u8001\u5730\u533a\u5730\u8cea\u8abf\u67fb","client_name":"\u56fd\u571f\u4ea4\u901a\u7701\u4e2d\u90e8\u5730\u65b9\u6574\u5099\u5c40\u5c90\u961c\u56fd\u9053\u4e8b\u52d9\u6240","boring_xml_url":47,"boring_view_url":1,"soilmap_view_url":null,"soiltest_xml_url":0,"soiltest_view_url":0}]}}