{"header":{"xyz":{"source":[],"mosaic":false},"page":3210,"raw":{"soiltest_result":"0","bbox":"57.598333,109.544722,1.933333,163.806111","page":"3210"},"conditions":{"soiltest_result":0,"north":57.598333,"west":109.544722,"south":1.933333,"east":163.806111},"success":true,"message":""},"data":{"meta":{"total":212844,"page":3210,"pages":7095,"count":30},"values":[{"id":234242,"code":"NGIC201900012-0001","latitude":"34.297166666667","longitude":"135.47683333333","source_code":"","project_name":"","survey_name":"\u4eac\u5948\u548c\u81ea\u52d5\u8eca\u6c34\u8def\u6574\u5099\u4ed6\u5de5\u4e8b\uff08\u5730\u76e4\u6539\u826f\u5de5\uff09","client_name":"\u56fd\u571f\u4ea4\u901a\u7701\u8fd1\u757f\u5730\u65b9\u6574\u5099\u5c40\u548c\u6b4c\u5c71\u6cb3\u5ddd\u56fd\u9053\u4e8b\u52d9\u6240\u5de5\u52d92\u8ab2","boring_xml_url":47,"boring_view_url":1,"soilmap_view_url":null,"soiltest_xml_url":0,"soiltest_view_url":0},{"id":234241,"code":"NGIC201800523-0005","latitude":"31.443910833333","longitude":"130.93982730556","source_code":"","project_name":"\u5e73\u621030\u5e74\u5ea6\u6771\u4e5d\u5dde\u9053\u6c34\u6587\u8abf\u67fb\u30fb\u691c\u8a0e\u5916\u696d\u52d9","survey_name":"\u5e73\u621030\u5e74\u5ea6\u6771\u4e5d\u5dde\u9053\u6c34\u6587\u8abf\u67fb\u30fb\u691c\u8a0e\u5916\u696d\u52d9","client_name":"\u56fd\u571f\u4ea4\u901a\u7701\u4e5d\u5dde\u5730\u65b9\u6574\u5099\u5c40\u5927\u9685\u6cb3\u5ddd\u56fd\u9053\u4e8b\u52d9\u6240","boring_xml_url":47,"boring_view_url":1,"soilmap_view_url":null,"soiltest_xml_url":0,"soiltest_view_url":0},{"id":234240,"code":"NGIC201800523-0004","latitude":"31.443909194444","longitude":"130.93993252778","source_code":"","project_name":"\u5e73\u621030\u5e74\u5ea6\u6771\u4e5d\u5dde\u9053\u6c34\u6587\u8abf\u67fb\u30fb\u691c\u8a0e\u5916\u696d\u52d9","survey_name":"\u5e73\u621030\u5e74\u5ea6\u6771\u4e5d\u5dde\u9053\u6c34\u6587\u8abf\u67fb\u30fb\u691c\u8a0e\u5916\u696d\u52d9","client_name":"\u56fd\u571f\u4ea4\u901a\u7701\u4e5d\u5dde\u5730\u65b9\u6574\u5099\u5c40\u5927\u9685\u6cb3\u5ddd\u56fd\u9053\u4e8b\u52d9\u6240","boring_xml_url":47,"boring_view_url":1,"soilmap_view_url":null,"soiltest_xml_url":0,"soiltest_view_url":0},{"id":234239,"code":"NGIC201800523-0003","latitude":"31.44631575","longitude":"130.90851536111","source_code":"","project_name":"\u5e73\u621030\u5e74\u5ea6\u6771\u4e5d\u5dde\u9053\u6c34\u6587\u8abf\u67fb\u30fb\u691c\u8a0e\u5916\u696d\u52d9","survey_name":"\u5e73\u621030\u5e74\u5ea6\u6771\u4e5d\u5dde\u9053\u6c34\u6587\u8abf\u67fb\u30fb\u691c\u8a0e\u5916\u696d\u52d9","client_name":"\u56fd\u571f\u4ea4\u901a\u7701\u4e5d\u5dde\u5730\u65b9\u6574\u5099\u5c40\u5927\u9685\u6cb3\u5ddd\u56fd\u9053\u4e8b\u52d9\u6240","boring_xml_url":47,"boring_view_url":1,"soilmap_view_url":null,"soiltest_xml_url":0,"soiltest_view_url":0},{"id":234238,"code":"NGIC201800523-0002","latitude":"31.445262611111","longitude":"130.91607555556","source_code":"","project_name":"\u5e73\u621030\u5e74\u5ea6\u6771\u4e5d\u5dde\u9053\u6c34\u6587\u8abf\u67fb\u30fb\u691c\u8a0e\u5916\u696d\u52d9","survey_name":"\u5e73\u621030\u5e74\u5ea6\u6771\u4e5d\u5dde\u9053\u6c34\u6587\u8abf\u67fb\u30fb\u691c\u8a0e\u5916\u696d\u52d9","client_name":"\u56fd\u571f\u4ea4\u901a\u7701\u4e5d\u5dde\u5730\u65b9\u6574\u5099\u5c40\u5927\u9685\u6cb3\u5ddd\u56fd\u9053\u4e8b\u52d9\u6240","boring_xml_url":47,"boring_view_url":1,"soilmap_view_url":null,"soiltest_xml_url":0,"soiltest_view_url":0},{"id":234237,"code":"NGIC201800523-0001","latitude":"31.445078722222","longitude":"130.91615163889","source_code":"","project_name":"\u5e73\u621030\u5e74\u5ea6\u6771\u4e5d\u5dde\u9053\u6c34\u6587\u8abf\u67fb\u30fb\u691c\u8a0e\u5916\u696d\u52d9","survey_name":"\u5e73\u621030\u5e74\u5ea6\u6771\u4e5d\u5dde\u9053\u6c34\u6587\u8abf\u67fb\u30fb\u691c\u8a0e\u5916\u696d\u52d9","client_name":"\u56fd\u571f\u4ea4\u901a\u7701\u4e5d\u5dde\u5730\u65b9\u6574\u5099\u5c40\u5927\u9685\u6cb3\u5ddd\u56fd\u9053\u4e8b\u52d9\u6240","boring_xml_url":47,"boring_view_url":1,"soilmap_view_url":null,"soiltest_xml_url":47,"soiltest_view_url":47},{"id":234236,"code":"NGIC201900017-0002","latitude":"35.117536666667","longitude":"136.538305","source_code":"","project_name":"","survey_name":"\u5e73\u621030\u5e74\u5ea6 \u6771\u6d77\u74b0\u72b6\u5927\u5b89\u9ad8\u67b6\u6a4b\u4e2d\u4e2d\u4e0b\u90e8\u5de5\u4e8b","client_name":"\u56fd\u571f\u4ea4\u901a\u7701\u4e2d\u90e8\u5730\u65b9\u6574\u5099\u5c40\u5317\u52e2\u56fd\u9053\u4e8b\u52d9\u6240","boring_xml_url":47,"boring_view_url":1,"soilmap_view_url":null,"soiltest_xml_url":0,"soiltest_view_url":0},{"id":234235,"code":"NGIC201900017-0001","latitude":"35.117492777778","longitude":"136.53820305556","source_code":"","project_name":"","survey_name":"\u5e73\u621030\u5e74\u5ea6 \u6771\u6d77\u74b0\u72b6\u5927\u5b89\u9ad8\u67b6\u6a4b\u4e2d\u4e2d\u4e0b\u90e8\u5de5\u4e8b","client_name":"\u56fd\u571f\u4ea4\u901a\u7701\u4e2d\u90e8\u5730\u65b9\u6574\u5099\u5c40\u5317\u52e2\u56fd\u9053\u4e8b\u52d9\u6240","boring_xml_url":47,"boring_view_url":1,"soilmap_view_url":null,"soiltest_xml_url":0,"soiltest_view_url":0},{"id":234234,"code":"NGIC201900013-0028","latitude":"33.324727777778","longitude":"130.90637777778","source_code":"","project_name":"","survey_name":"\u5e73\u621030\u5e74\u5ea6 \u7b51\u5f8c\u5ddd\u30fb\u77e2\u90e8\u5ddd\u7ba1\u5185\u5730\u8cea\u8abf\u67fb\u696d\u52d9","client_name":"\u56fd\u571f\u4ea4\u901a\u7701\u4e5d\u5dde\u5730\u65b9\u6574\u5099\u5c40\u7b51\u5f8c\u5ddd\u6cb3\u5ddd\u4e8b\u52d9\u6240","boring_xml_url":47,"boring_view_url":1,"soilmap_view_url":null,"soiltest_xml_url":47,"soiltest_view_url":47},{"id":234233,"code":"NGIC201900013-0027","latitude":"33.324716666667","longitude":"130.906425","source_code":"","project_name":"","survey_name":"\u5e73\u621030\u5e74\u5ea6 \u7b51\u5f8c\u5ddd\u30fb\u77e2\u90e8\u5ddd\u7ba1\u5185\u5730\u8cea\u8abf\u67fb\u696d\u52d9","client_name":"\u56fd\u571f\u4ea4\u901a\u7701\u4e5d\u5dde\u5730\u65b9\u6574\u5099\u5c40\u7b51\u5f8c\u5ddd\u6cb3\u5ddd\u4e8b\u52d9\u6240","boring_xml_url":47,"boring_view_url":1,"soilmap_view_url":null,"soiltest_xml_url":47,"soiltest_view_url":47},{"id":234232,"code":"NGIC201900013-0026","latitude":"33.378722222222","longitude":"130.65843888889","source_code":"","project_name":"","survey_name":"\u5e73\u621030\u5e74\u5ea6 \u7b51\u5f8c\u5ddd\u30fb\u77e2\u90e8\u5ddd\u7ba1\u5185\u5730\u8cea\u8abf\u67fb\u696d\u52d9","client_name":"\u56fd\u571f\u4ea4\u901a\u7701\u4e5d\u5dde\u5730\u65b9\u6574\u5099\u5c40\u7b51\u5f8c\u5ddd\u6cb3\u5ddd\u4e8b\u52d9\u6240","boring_xml_url":47,"boring_view_url":1,"soilmap_view_url":null,"soiltest_xml_url":47,"soiltest_view_url":47},{"id":234231,"code":"NGIC201900013-0025","latitude":"33.378813888889","longitude":"130.65835277778","source_code":"","project_name":"","survey_name":"\u5e73\u621030\u5e74\u5ea6 \u7b51\u5f8c\u5ddd\u30fb\u77e2\u90e8\u5ddd\u7ba1\u5185\u5730\u8cea\u8abf\u67fb\u696d\u52d9","client_name":"\u56fd\u571f\u4ea4\u901a\u7701\u4e5d\u5dde\u5730\u65b9\u6574\u5099\u5c40\u7b51\u5f8c\u5ddd\u6cb3\u5ddd\u4e8b\u52d9\u6240","boring_xml_url":47,"boring_view_url":1,"soilmap_view_url":null,"soiltest_xml_url":47,"soiltest_view_url":47},{"id":234230,"code":"NGIC201900013-0024","latitude":"33.375591666667","longitude":"130.65590555556","source_code":"","project_name":"","survey_name":"\u5e73\u621030\u5e74\u5ea6 \u7b51\u5f8c\u5ddd\u30fb\u77e2\u90e8\u5ddd\u7ba1\u5185\u5730\u8cea\u8abf\u67fb\u696d\u52d9","client_name":"\u56fd\u571f\u4ea4\u901a\u7701\u4e5d\u5dde\u5730\u65b9\u6574\u5099\u5c40\u7b51\u5f8c\u5ddd\u6cb3\u5ddd\u4e8b\u52d9\u6240","boring_xml_url":47,"boring_view_url":1,"soilmap_view_url":null,"soiltest_xml_url":47,"soiltest_view_url":47},{"id":234229,"code":"NGIC201900013-0023","latitude":"33.377183333333","longitude":"130.65661666667","source_code":"","project_name":"","survey_name":"\u5e73\u621030\u5e74\u5ea6 \u7b51\u5f8c\u5ddd\u30fb\u77e2\u90e8\u5ddd\u7ba1\u5185\u5730\u8cea\u8abf\u67fb\u696d\u52d9","client_name":"\u56fd\u571f\u4ea4\u901a\u7701\u4e5d\u5dde\u5730\u65b9\u6574\u5099\u5c40\u7b51\u5f8c\u5ddd\u6cb3\u5ddd\u4e8b\u52d9\u6240","boring_xml_url":47,"boring_view_url":1,"soilmap_view_url":null,"soiltest_xml_url":47,"soiltest_view_url":47},{"id":234228,"code":"NGIC201900013-0022","latitude":"33.379688888889","longitude":"130.65951111111","source_code":"","project_name":"","survey_name":"\u5e73\u621030\u5e74\u5ea6 \u7b51\u5f8c\u5ddd\u30fb\u77e2\u90e8\u5ddd\u7ba1\u5185\u5730\u8cea\u8abf\u67fb\u696d\u52d9","client_name":"\u56fd\u571f\u4ea4\u901a\u7701\u4e5d\u5dde\u5730\u65b9\u6574\u5099\u5c40\u7b51\u5f8c\u5ddd\u6cb3\u5ddd\u4e8b\u52d9\u6240","boring_xml_url":47,"boring_view_url":1,"soilmap_view_url":null,"soiltest_xml_url":47,"soiltest_view_url":47},{"id":234227,"code":"NGIC201900013-0021","latitude":"33.377219444444","longitude":"130.65651388889","source_code":"","project_name":"","survey_name":"\u5e73\u621030\u5e74\u5ea6 \u7b51\u5f8c\u5ddd\u30fb\u77e2\u90e8\u5ddd\u7ba1\u5185\u5730\u8cea\u8abf\u67fb\u696d\u52d9","client_name":"\u56fd\u571f\u4ea4\u901a\u7701\u4e5d\u5dde\u5730\u65b9\u6574\u5099\u5c40\u7b51\u5f8c\u5ddd\u6cb3\u5ddd\u4e8b\u52d9\u6240","boring_xml_url":47,"boring_view_url":1,"soilmap_view_url":null,"soiltest_xml_url":47,"soiltest_view_url":47},{"id":234226,"code":"NGIC201900013-0020","latitude":"33.372375","longitude":"130.65553333333","source_code":"","project_name":"","survey_name":"\u5e73\u621030\u5e74\u5ea6 \u7b51\u5f8c\u5ddd\u30fb\u77e2\u90e8\u5ddd\u7ba1\u5185\u5730\u8cea\u8abf\u67fb\u696d\u52d9","client_name":"\u56fd\u571f\u4ea4\u901a\u7701\u4e5d\u5dde\u5730\u65b9\u6574\u5099\u5c40\u7b51\u5f8c\u5ddd\u6cb3\u5ddd\u4e8b\u52d9\u6240","boring_xml_url":47,"boring_view_url":1,"soilmap_view_url":null,"soiltest_xml_url":47,"soiltest_view_url":47},{"id":234225,"code":"NGIC201900013-0019","latitude":"33.338775","longitude":"130.64328611111","source_code":"","project_name":"","survey_name":"\u5e73\u621030\u5e74\u5ea6 \u7b51\u5f8c\u5ddd\u30fb\u77e2\u90e8\u5ddd\u7ba1\u5185\u5730\u8cea\u8abf\u67fb\u696d\u52d9","client_name":"\u56fd\u571f\u4ea4\u901a\u7701\u4e5d\u5dde\u5730\u65b9\u6574\u5099\u5c40\u7b51\u5f8c\u5ddd\u6cb3\u5ddd\u4e8b\u52d9\u6240","boring_xml_url":47,"boring_view_url":1,"soilmap_view_url":null,"soiltest_xml_url":47,"soiltest_view_url":47},{"id":234224,"code":"NGIC201900013-0018","latitude":"33.338763888889","longitude":"130.64318055556","source_code":"","project_name":"","survey_name":"\u5e73\u621030\u5e74\u5ea6 \u7b51\u5f8c\u5ddd\u30fb\u77e2\u90e8\u5ddd\u7ba1\u5185\u5730\u8cea\u8abf\u67fb\u696d\u52d9","client_name":"\u56fd\u571f\u4ea4\u901a\u7701\u4e5d\u5dde\u5730\u65b9\u6574\u5099\u5c40\u7b51\u5f8c\u5ddd\u6cb3\u5ddd\u4e8b\u52d9\u6240","boring_xml_url":47,"boring_view_url":1,"soilmap_view_url":null,"soiltest_xml_url":47,"soiltest_view_url":47},{"id":234223,"code":"NGIC201900013-0017","latitude":"33.338666666667","longitude":"130.64153611111","source_code":"","project_name":"","survey_name":"\u5e73\u621030\u5e74\u5ea6 \u7b51\u5f8c\u5ddd\u30fb\u77e2\u90e8\u5ddd\u7ba1\u5185\u5730\u8cea\u8abf\u67fb\u696d\u52d9","client_name":"\u56fd\u571f\u4ea4\u901a\u7701\u4e5d\u5dde\u5730\u65b9\u6574\u5099\u5c40\u7b51\u5f8c\u5ddd\u6cb3\u5ddd\u4e8b\u52d9\u6240","boring_xml_url":47,"boring_view_url":1,"soilmap_view_url":null,"soiltest_xml_url":47,"soiltest_view_url":47},{"id":234222,"code":"NGIC201900013-0016","latitude":"33.338736111111","longitude":"130.64078888889","source_code":"","project_name":"","survey_name":"\u5e73\u621030\u5e74\u5ea6 \u7b51\u5f8c\u5ddd\u30fb\u77e2\u90e8\u5ddd\u7ba1\u5185\u5730\u8cea\u8abf\u67fb\u696d\u52d9","client_name":"\u56fd\u571f\u4ea4\u901a\u7701\u4e5d\u5dde\u5730\u65b9\u6574\u5099\u5c40\u7b51\u5f8c\u5ddd\u6cb3\u5ddd\u4e8b\u52d9\u6240","boring_xml_url":47,"boring_view_url":1,"soilmap_view_url":null,"soiltest_xml_url":47,"soiltest_view_url":47},{"id":234221,"code":"NGIC201900013-0015","latitude":"33.339094444444","longitude":"130.63981666667","source_code":"","project_name":"","survey_name":"\u5e73\u621030\u5e74\u5ea6 \u7b51\u5f8c\u5ddd\u30fb\u77e2\u90e8\u5ddd\u7ba1\u5185\u5730\u8cea\u8abf\u67fb\u696d\u52d9","client_name":"\u56fd\u571f\u4ea4\u901a\u7701\u4e5d\u5dde\u5730\u65b9\u6574\u5099\u5c40\u7b51\u5f8c\u5ddd\u6cb3\u5ddd\u4e8b\u52d9\u6240","boring_xml_url":47,"boring_view_url":1,"soilmap_view_url":null,"soiltest_xml_url":47,"soiltest_view_url":47},{"id":234220,"code":"NGIC201900013-0014","latitude":"33.346405555556","longitude":"130.62015277778","source_code":"","project_name":"","survey_name":"\u5e73\u621030\u5e74\u5ea6 \u7b51\u5f8c\u5ddd\u30fb\u77e2\u90e8\u5ddd\u7ba1\u5185\u5730\u8cea\u8abf\u67fb\u696d\u52d9","client_name":"\u56fd\u571f\u4ea4\u901a\u7701\u4e5d\u5dde\u5730\u65b9\u6574\u5099\u5c40\u7b51\u5f8c\u5ddd\u6cb3\u5ddd\u4e8b\u52d9\u6240","boring_xml_url":47,"boring_view_url":1,"soilmap_view_url":null,"soiltest_xml_url":47,"soiltest_view_url":47},{"id":234219,"code":"NGIC201900013-0013","latitude":"33.346227777778","longitude":"130.61991944444","source_code":"","project_name":"","survey_name":"\u5e73\u621030\u5e74\u5ea6 \u7b51\u5f8c\u5ddd\u30fb\u77e2\u90e8\u5ddd\u7ba1\u5185\u5730\u8cea\u8abf\u67fb\u696d\u52d9","client_name":"\u56fd\u571f\u4ea4\u901a\u7701\u4e5d\u5dde\u5730\u65b9\u6574\u5099\u5c40\u7b51\u5f8c\u5ddd\u6cb3\u5ddd\u4e8b\u52d9\u6240","boring_xml_url":47,"boring_view_url":1,"soilmap_view_url":null,"soiltest_xml_url":47,"soiltest_view_url":47},{"id":234218,"code":"NGIC201900013-0012","latitude":"33.340941666667","longitude":"130.60801388889","source_code":"","project_name":"","survey_name":"\u5e73\u621030\u5e74\u5ea6 \u7b51\u5f8c\u5ddd\u30fb\u77e2\u90e8\u5ddd\u7ba1\u5185\u5730\u8cea\u8abf\u67fb\u696d\u52d9","client_name":"\u56fd\u571f\u4ea4\u901a\u7701\u4e5d\u5dde\u5730\u65b9\u6574\u5099\u5c40\u7b51\u5f8c\u5ddd\u6cb3\u5ddd\u4e8b\u52d9\u6240","boring_xml_url":47,"boring_view_url":1,"soilmap_view_url":null,"soiltest_xml_url":47,"soiltest_view_url":47},{"id":234217,"code":"NGIC201900013-0011","latitude":"33.341302777778","longitude":"130.60800277778","source_code":"","project_name":"","survey_name":"\u5e73\u621030\u5e74\u5ea6 \u7b51\u5f8c\u5ddd\u30fb\u77e2\u90e8\u5ddd\u7ba1\u5185\u5730\u8cea\u8abf\u67fb\u696d\u52d9","client_name":"\u56fd\u571f\u4ea4\u901a\u7701\u4e5d\u5dde\u5730\u65b9\u6574\u5099\u5c40\u7b51\u5f8c\u5ddd\u6cb3\u5ddd\u4e8b\u52d9\u6240","boring_xml_url":47,"boring_view_url":1,"soilmap_view_url":null,"soiltest_xml_url":47,"soiltest_view_url":47},{"id":234216,"code":"NGIC201900013-0010","latitude":"33.341580555556","longitude":"130.60799444444","source_code":"","project_name":"","survey_name":"\u5e73\u621030\u5e74\u5ea6 \u7b51\u5f8c\u5ddd\u30fb\u77e2\u90e8\u5ddd\u7ba1\u5185\u5730\u8cea\u8abf\u67fb\u696d\u52d9","client_name":"\u56fd\u571f\u4ea4\u901a\u7701\u4e5d\u5dde\u5730\u65b9\u6574\u5099\u5c40\u7b51\u5f8c\u5ddd\u6cb3\u5ddd\u4e8b\u52d9\u6240","boring_xml_url":47,"boring_view_url":1,"soilmap_view_url":null,"soiltest_xml_url":47,"soiltest_view_url":47},{"id":234215,"code":"NGIC201900013-0009","latitude":"33.235866666667","longitude":"130.37125277778","source_code":"","project_name":"","survey_name":"\u5e73\u621030\u5e74\u5ea6 \u7b51\u5f8c\u5ddd\u30fb\u77e2\u90e8\u5ddd\u7ba1\u5185\u5730\u8cea\u8abf\u67fb\u696d\u52d9","client_name":"\u56fd\u571f\u4ea4\u901a\u7701\u4e5d\u5dde\u5730\u65b9\u6574\u5099\u5c40\u7b51\u5f8c\u5ddd\u6cb3\u5ddd\u4e8b\u52d9\u6240","boring_xml_url":47,"boring_view_url":1,"soilmap_view_url":null,"soiltest_xml_url":47,"soiltest_view_url":47},{"id":234214,"code":"NGIC201900013-0008","latitude":"33.196402777778","longitude":"130.33715277778","source_code":"","project_name":"","survey_name":"\u5e73\u621030\u5e74\u5ea6 \u7b51\u5f8c\u5ddd\u30fb\u77e2\u90e8\u5ddd\u7ba1\u5185\u5730\u8cea\u8abf\u67fb\u696d\u52d9","client_name":"\u56fd\u571f\u4ea4\u901a\u7701\u4e5d\u5dde\u5730\u65b9\u6574\u5099\u5c40\u7b51\u5f8c\u5ddd\u6cb3\u5ddd\u4e8b\u52d9\u6240","boring_xml_url":47,"boring_view_url":1,"soilmap_view_url":null,"soiltest_xml_url":47,"soiltest_view_url":47},{"id":234213,"code":"NGIC201900013-0007","latitude":"33.104619444444","longitude":"130.43881944444","source_code":"","project_name":"","survey_name":"\u5e73\u621030\u5e74\u5ea6 \u7b51\u5f8c\u5ddd\u30fb\u77e2\u90e8\u5ddd\u7ba1\u5185\u5730\u8cea\u8abf\u67fb\u696d\u52d9","client_name":"\u56fd\u571f\u4ea4\u901a\u7701\u4e5d\u5dde\u5730\u65b9\u6574\u5099\u5c40\u7b51\u5f8c\u5ddd\u6cb3\u5ddd\u4e8b\u52d9\u6240","boring_xml_url":47,"boring_view_url":1,"soilmap_view_url":null,"soiltest_xml_url":47,"soiltest_view_url":47}]}}