{"header":{"xyz":{"source":[],"mosaic":false},"page":3212,"raw":{"soiltest_result":"0","bbox":"57.598333,109.544722,1.933333,163.806111","page":"3212"},"conditions":{"soiltest_result":0,"north":57.598333,"west":109.544722,"south":1.933333,"east":163.806111},"success":true,"message":""},"data":{"meta":{"total":212844,"page":3212,"pages":7095,"count":30},"values":[{"id":234179,"code":"NGIC201800505-0014","latitude":"35.037966666667","longitude":"138.47899166667","source_code":"","project_name":"","survey_name":"\u5e73\u621030\u5e74\u5ea6 1\u53f7\u6e05\u6c34\u7acb\u4f53\u516b\u5742\u5730\u533a\u5730\u8cea\u8abf\u67fb\u696d\u52d9","client_name":"\u56fd\u571f\u4ea4\u901a\u7701\u4e2d\u90e8\u5730\u65b9\u6574\u5099\u5c40\u9759\u5ca1\u56fd\u9053\u4e8b\u52d9\u6240","boring_xml_url":47,"boring_view_url":1,"soilmap_view_url":null,"soiltest_xml_url":47,"soiltest_view_url":47},{"id":234178,"code":"NGIC201800505-0013","latitude":"35.037925","longitude":"138.47883055556","source_code":"","project_name":"","survey_name":"\u5e73\u621030\u5e74\u5ea6 1\u53f7\u6e05\u6c34\u7acb\u4f53\u516b\u5742\u5730\u533a\u5730\u8cea\u8abf\u67fb\u696d\u52d9","client_name":"\u56fd\u571f\u4ea4\u901a\u7701\u4e2d\u90e8\u5730\u65b9\u6574\u5099\u5c40\u9759\u5ca1\u56fd\u9053\u4e8b\u52d9\u6240","boring_xml_url":47,"boring_view_url":1,"soilmap_view_url":null,"soiltest_xml_url":0,"soiltest_view_url":0},{"id":234177,"code":"NGIC201800505-0012","latitude":"35.037952777778","longitude":"138.4788","source_code":"","project_name":"","survey_name":"\u5e73\u621030\u5e74\u5ea6 1\u53f7\u6e05\u6c34\u7acb\u4f53\u516b\u5742\u5730\u533a\u5730\u8cea\u8abf\u67fb\u696d\u52d9","client_name":"\u56fd\u571f\u4ea4\u901a\u7701\u4e2d\u90e8\u5730\u65b9\u6574\u5099\u5c40\u9759\u5ca1\u56fd\u9053\u4e8b\u52d9\u6240","boring_xml_url":47,"boring_view_url":1,"soilmap_view_url":null,"soiltest_xml_url":0,"soiltest_view_url":0},{"id":234176,"code":"NGIC201800505-0011","latitude":"35.037969444444","longitude":"138.47874722222","source_code":"","project_name":"","survey_name":"\u5e73\u621030\u5e74\u5ea6 1\u53f7\u6e05\u6c34\u7acb\u4f53\u516b\u5742\u5730\u533a\u5730\u8cea\u8abf\u67fb\u696d\u52d9","client_name":"\u56fd\u571f\u4ea4\u901a\u7701\u4e2d\u90e8\u5730\u65b9\u6574\u5099\u5c40\u9759\u5ca1\u56fd\u9053\u4e8b\u52d9\u6240","boring_xml_url":47,"boring_view_url":1,"soilmap_view_url":null,"soiltest_xml_url":47,"soiltest_view_url":47},{"id":234175,"code":"NGIC201800505-0010","latitude":"35.038036111111","longitude":"138.47888888889","source_code":"","project_name":"","survey_name":"\u5e73\u621030\u5e74\u5ea6 1\u53f7\u6e05\u6c34\u7acb\u4f53\u516b\u5742\u5730\u533a\u5730\u8cea\u8abf\u67fb\u696d\u52d9","client_name":"\u56fd\u571f\u4ea4\u901a\u7701\u4e2d\u90e8\u5730\u65b9\u6574\u5099\u5c40\u9759\u5ca1\u56fd\u9053\u4e8b\u52d9\u6240","boring_xml_url":47,"boring_view_url":1,"soilmap_view_url":null,"soiltest_xml_url":47,"soiltest_view_url":47},{"id":234174,"code":"NGIC201800505-0009","latitude":"35.038275","longitude":"138.47858333333","source_code":"","project_name":"","survey_name":"\u5e73\u621030\u5e74\u5ea6 1\u53f7\u6e05\u6c34\u7acb\u4f53\u516b\u5742\u5730\u533a\u5730\u8cea\u8abf\u67fb\u696d\u52d9","client_name":"\u56fd\u571f\u4ea4\u901a\u7701\u4e2d\u90e8\u5730\u65b9\u6574\u5099\u5c40\u9759\u5ca1\u56fd\u9053\u4e8b\u52d9\u6240","boring_xml_url":47,"boring_view_url":1,"soilmap_view_url":null,"soiltest_xml_url":47,"soiltest_view_url":47},{"id":234173,"code":"NGIC201800505-0008","latitude":"35.038219444444","longitude":"138.4785","source_code":"","project_name":"","survey_name":"\u5e73\u621030\u5e74\u5ea6 1\u53f7\u6e05\u6c34\u7acb\u4f53\u516b\u5742\u5730\u533a\u5730\u8cea\u8abf\u67fb\u696d\u52d9","client_name":"\u56fd\u571f\u4ea4\u901a\u7701\u4e2d\u90e8\u5730\u65b9\u6574\u5099\u5c40\u9759\u5ca1\u56fd\u9053\u4e8b\u52d9\u6240","boring_xml_url":47,"boring_view_url":1,"soilmap_view_url":null,"soiltest_xml_url":47,"soiltest_view_url":47},{"id":234172,"code":"NGIC201800505-0007","latitude":"35.036583333333","longitude":"138.47748333333","source_code":"","project_name":"","survey_name":"\u5e73\u621030\u5e74\u5ea6 1\u53f7\u6e05\u6c34\u7acb\u4f53\u516b\u5742\u5730\u533a\u5730\u8cea\u8abf\u67fb\u696d\u52d9","client_name":"\u56fd\u571f\u4ea4\u901a\u7701\u4e2d\u90e8\u5730\u65b9\u6574\u5099\u5c40\u9759\u5ca1\u56fd\u9053\u4e8b\u52d9\u6240","boring_xml_url":47,"boring_view_url":1,"soilmap_view_url":null,"soiltest_xml_url":47,"soiltest_view_url":47},{"id":234171,"code":"NGIC201800505-0006","latitude":"35.036830555556","longitude":"138.4778","source_code":"","project_name":"","survey_name":"\u5e73\u621030\u5e74\u5ea6 1\u53f7\u6e05\u6c34\u7acb\u4f53\u516b\u5742\u5730\u533a\u5730\u8cea\u8abf\u67fb\u696d\u52d9","client_name":"\u56fd\u571f\u4ea4\u901a\u7701\u4e2d\u90e8\u5730\u65b9\u6574\u5099\u5c40\u9759\u5ca1\u56fd\u9053\u4e8b\u52d9\u6240","boring_xml_url":47,"boring_view_url":1,"soilmap_view_url":null,"soiltest_xml_url":47,"soiltest_view_url":47},{"id":234170,"code":"NGIC201800505-0005","latitude":"35.037041666667","longitude":"138.47804444444","source_code":"","project_name":"","survey_name":"\u5e73\u621030\u5e74\u5ea6 1\u53f7\u6e05\u6c34\u7acb\u4f53\u516b\u5742\u5730\u533a\u5730\u8cea\u8abf\u67fb\u696d\u52d9","client_name":"\u56fd\u571f\u4ea4\u901a\u7701\u4e2d\u90e8\u5730\u65b9\u6574\u5099\u5c40\u9759\u5ca1\u56fd\u9053\u4e8b\u52d9\u6240","boring_xml_url":47,"boring_view_url":1,"soilmap_view_url":null,"soiltest_xml_url":47,"soiltest_view_url":47},{"id":234169,"code":"NGIC201800505-0004","latitude":"35.037366666667","longitude":"138.47809166667","source_code":"","project_name":"","survey_name":"\u5e73\u621030\u5e74\u5ea6 1\u53f7\u6e05\u6c34\u7acb\u4f53\u516b\u5742\u5730\u533a\u5730\u8cea\u8abf\u67fb\u696d\u52d9","client_name":"\u56fd\u571f\u4ea4\u901a\u7701\u4e2d\u90e8\u5730\u65b9\u6574\u5099\u5c40\u9759\u5ca1\u56fd\u9053\u4e8b\u52d9\u6240","boring_xml_url":47,"boring_view_url":1,"soilmap_view_url":null,"soiltest_xml_url":47,"soiltest_view_url":47},{"id":234168,"code":"NGIC201800505-0003","latitude":"35.037402777778","longitude":"138.47819444444","source_code":"","project_name":"","survey_name":"\u5e73\u621030\u5e74\u5ea6 1\u53f7\u6e05\u6c34\u7acb\u4f53\u516b\u5742\u5730\u533a\u5730\u8cea\u8abf\u67fb\u696d\u52d9","client_name":"\u56fd\u571f\u4ea4\u901a\u7701\u4e2d\u90e8\u5730\u65b9\u6574\u5099\u5c40\u9759\u5ca1\u56fd\u9053\u4e8b\u52d9\u6240","boring_xml_url":47,"boring_view_url":1,"soilmap_view_url":null,"soiltest_xml_url":47,"soiltest_view_url":47},{"id":234167,"code":"NGIC201800505-0002","latitude":"35.037847222222","longitude":"138.47808888889","source_code":"","project_name":"","survey_name":"\u5e73\u621030\u5e74\u5ea6 1\u53f7\u6e05\u6c34\u7acb\u4f53\u516b\u5742\u5730\u533a\u5730\u8cea\u8abf\u67fb\u696d\u52d9","client_name":"\u56fd\u571f\u4ea4\u901a\u7701\u4e2d\u90e8\u5730\u65b9\u6574\u5099\u5c40\u9759\u5ca1\u56fd\u9053\u4e8b\u52d9\u6240","boring_xml_url":47,"boring_view_url":1,"soilmap_view_url":null,"soiltest_xml_url":47,"soiltest_view_url":47},{"id":234166,"code":"NGIC201800505-0001","latitude":"35.037675","longitude":"138.47792777778","source_code":"","project_name":"","survey_name":"\u5e73\u621030\u5e74\u5ea6 1\u53f7\u6e05\u6c34\u7acb\u4f53\u516b\u5742\u5730\u533a\u5730\u8cea\u8abf\u67fb\u696d\u52d9","client_name":"\u56fd\u571f\u4ea4\u901a\u7701\u4e2d\u90e8\u5730\u65b9\u6574\u5099\u5c40\u9759\u5ca1\u56fd\u9053\u4e8b\u52d9\u6240","boring_xml_url":47,"boring_view_url":1,"soilmap_view_url":null,"soiltest_xml_url":47,"soiltest_view_url":47},{"id":234165,"code":"NGIC201900009-0002","latitude":"33.993155555556","longitude":"130.99600277778","source_code":"","project_name":"\u5e73\u621030\u5e74\u5ea6 \u4e0b\u95a2\u6e2f\u6d77\u5cb8(\u5c71\u967d\u5730\u533a)\u57fa\u672c\u8a2d\u8a08(9\u5de5\u533a)","survey_name":"\u5e73\u621030\u5e74\u5ea6 \u4e0b\u95a2\u6e2f\u6d77\u5cb8(\u5c71\u967d\u5730\u533a)\u57fa\u672c\u8a2d\u8a08(9\u5de5\u533a)","client_name":"\u56fd\u571f\u4ea4\u901a\u7701\u4e5d\u5dde\u5730\u65b9\u6574\u5099\u5c40\u4e0b\u95a2\u6e2f\u6e7e\u4e8b\u52d9\u6240","boring_xml_url":47,"boring_view_url":1,"soilmap_view_url":71,"soiltest_xml_url":47,"soiltest_view_url":47},{"id":234164,"code":"NGIC201900009-0001","latitude":"33.993394444444","longitude":"130.9961","source_code":"","project_name":"\u5e73\u621030\u5e74\u5ea6 \u4e0b\u95a2\u6e2f\u6d77\u5cb8(\u5c71\u967d\u5730\u533a)\u57fa\u672c\u8a2d\u8a08(9\u5de5\u533a)","survey_name":"\u5e73\u621030\u5e74\u5ea6 \u4e0b\u95a2\u6e2f\u6d77\u5cb8(\u5c71\u967d\u5730\u533a)\u57fa\u672c\u8a2d\u8a08(9\u5de5\u533a)","client_name":"\u56fd\u571f\u4ea4\u901a\u7701\u4e5d\u5dde\u5730\u65b9\u6574\u5099\u5c40\u4e0b\u95a2\u6e2f\u6e7e\u4e8b\u52d9\u6240","boring_xml_url":47,"boring_view_url":1,"soilmap_view_url":71,"soiltest_xml_url":47,"soiltest_view_url":47},{"id":234157,"code":"NGIC201900004-0022","latitude":"33.358525","longitude":"130.82421388889","source_code":"","project_name":"","survey_name":"\u8d64\u8c37\u5ddd\u6d41\u57df\u6e2c\u91cf\u8a2d\u8a08\u5916(\u305d\u306e2)\u696d\u52d9","client_name":"\u56fd\u571f\u4ea4\u901a\u7701\u4e5d\u5dde\u5730\u65b9\u6574\u5099\u5c40\u7b51\u5f8c\u5ddd\u6cb3\u5ddd\u4e8b\u52d9\u6240","boring_xml_url":47,"boring_view_url":1,"soilmap_view_url":null,"soiltest_xml_url":0,"soiltest_view_url":0},{"id":234156,"code":"NGIC201900004-0021","latitude":"33.356980555556","longitude":"130.82365833333","source_code":"","project_name":"","survey_name":"\u8d64\u8c37\u5ddd\u6d41\u57df\u6e2c\u91cf\u8a2d\u8a08\u5916(\u305d\u306e2)\u696d\u52d9","client_name":"\u56fd\u571f\u4ea4\u901a\u7701\u4e5d\u5dde\u5730\u65b9\u6574\u5099\u5c40\u7b51\u5f8c\u5ddd\u6cb3\u5ddd\u4e8b\u52d9\u6240","boring_xml_url":47,"boring_view_url":1,"soilmap_view_url":null,"soiltest_xml_url":0,"soiltest_view_url":0},{"id":234155,"code":"NGIC201900004-0020","latitude":"33.356980555556","longitude":"130.82365833333","source_code":"","project_name":"","survey_name":"\u8d64\u8c37\u5ddd\u6d41\u57df\u6e2c\u91cf\u8a2d\u8a08\u5916(\u305d\u306e2)\u696d\u52d9","client_name":"\u56fd\u571f\u4ea4\u901a\u7701\u4e5d\u5dde\u5730\u65b9\u6574\u5099\u5c40\u7b51\u5f8c\u5ddd\u6cb3\u5ddd\u4e8b\u52d9\u6240","boring_xml_url":47,"boring_view_url":1,"soilmap_view_url":null,"soiltest_xml_url":0,"soiltest_view_url":0},{"id":234154,"code":"NGIC201900004-0019","latitude":"33.360588888889","longitude":"130.82453055556","source_code":"","project_name":"","survey_name":"\u8d64\u8c37\u5ddd\u6d41\u57df\u6e2c\u91cf\u8a2d\u8a08\u5916(\u305d\u306e2)\u696d\u52d9","client_name":"\u56fd\u571f\u4ea4\u901a\u7701\u4e5d\u5dde\u5730\u65b9\u6574\u5099\u5c40\u7b51\u5f8c\u5ddd\u6cb3\u5ddd\u4e8b\u52d9\u6240","boring_xml_url":47,"boring_view_url":1,"soilmap_view_url":null,"soiltest_xml_url":0,"soiltest_view_url":0},{"id":234153,"code":"NGIC201900004-0018","latitude":"33.359491666667","longitude":"130.82387777778","source_code":"","project_name":"","survey_name":"\u8d64\u8c37\u5ddd\u6d41\u57df\u6e2c\u91cf\u8a2d\u8a08\u5916(\u305d\u306e2)\u696d\u52d9","client_name":"\u56fd\u571f\u4ea4\u901a\u7701\u4e5d\u5dde\u5730\u65b9\u6574\u5099\u5c40\u7b51\u5f8c\u5ddd\u6cb3\u5ddd\u4e8b\u52d9\u6240","boring_xml_url":47,"boring_view_url":1,"soilmap_view_url":null,"soiltest_xml_url":0,"soiltest_view_url":0},{"id":234152,"code":"NGIC201900004-0017","latitude":"33.358083333333","longitude":"130.82401111111","source_code":"","project_name":"","survey_name":"\u8d64\u8c37\u5ddd\u6d41\u57df\u6e2c\u91cf\u8a2d\u8a08\u5916(\u305d\u306e2)\u696d\u52d9","client_name":"\u56fd\u571f\u4ea4\u901a\u7701\u4e5d\u5dde\u5730\u65b9\u6574\u5099\u5c40\u7b51\u5f8c\u5ddd\u6cb3\u5ddd\u4e8b\u52d9\u6240","boring_xml_url":47,"boring_view_url":1,"soilmap_view_url":null,"soiltest_xml_url":0,"soiltest_view_url":0},{"id":234151,"code":"NGIC201900004-0016","latitude":"33.357444444444","longitude":"130.82321388889","source_code":"","project_name":"","survey_name":"\u8d64\u8c37\u5ddd\u6d41\u57df\u6e2c\u91cf\u8a2d\u8a08\u5916(\u305d\u306e2)\u696d\u52d9","client_name":"\u56fd\u571f\u4ea4\u901a\u7701\u4e5d\u5dde\u5730\u65b9\u6574\u5099\u5c40\u7b51\u5f8c\u5ddd\u6cb3\u5ddd\u4e8b\u52d9\u6240","boring_xml_url":47,"boring_view_url":1,"soilmap_view_url":null,"soiltest_xml_url":0,"soiltest_view_url":0},{"id":234150,"code":"NGIC201900004-0015","latitude":"33.357441666667","longitude":"130.82322222222","source_code":"","project_name":"","survey_name":"\u8d64\u8c37\u5ddd\u6d41\u57df\u6e2c\u91cf\u8a2d\u8a08\u5916(\u305d\u306e2)\u696d\u52d9","client_name":"\u56fd\u571f\u4ea4\u901a\u7701\u4e5d\u5dde\u5730\u65b9\u6574\u5099\u5c40\u7b51\u5f8c\u5ddd\u6cb3\u5ddd\u4e8b\u52d9\u6240","boring_xml_url":47,"boring_view_url":1,"soilmap_view_url":null,"soiltest_xml_url":0,"soiltest_view_url":0},{"id":234149,"code":"NGIC201900004-0014","latitude":"33.360161111111","longitude":"130.82501666667","source_code":"","project_name":"","survey_name":"\u8d64\u8c37\u5ddd\u6d41\u57df\u6e2c\u91cf\u8a2d\u8a08\u5916(\u305d\u306e2)\u696d\u52d9","client_name":"\u56fd\u571f\u4ea4\u901a\u7701\u4e5d\u5dde\u5730\u65b9\u6574\u5099\u5c40\u7b51\u5f8c\u5ddd\u6cb3\u5ddd\u4e8b\u52d9\u6240","boring_xml_url":47,"boring_view_url":1,"soilmap_view_url":null,"soiltest_xml_url":0,"soiltest_view_url":0},{"id":234148,"code":"NGIC201900004-0013","latitude":"33.360163888889","longitude":"130.82500833333","source_code":"","project_name":"","survey_name":"\u8d64\u8c37\u5ddd\u6d41\u57df\u6e2c\u91cf\u8a2d\u8a08\u5916(\u305d\u306e2)\u696d\u52d9","client_name":"\u56fd\u571f\u4ea4\u901a\u7701\u4e5d\u5dde\u5730\u65b9\u6574\u5099\u5c40\u7b51\u5f8c\u5ddd\u6cb3\u5ddd\u4e8b\u52d9\u6240","boring_xml_url":47,"boring_view_url":1,"soilmap_view_url":null,"soiltest_xml_url":0,"soiltest_view_url":0},{"id":234147,"code":"NGIC201900004-0012","latitude":"33.357447222222","longitude":"130.82418611111","source_code":"","project_name":"","survey_name":"\u8d64\u8c37\u5ddd\u6d41\u57df\u6e2c\u91cf\u8a2d\u8a08\u5916(\u305d\u306e2)\u696d\u52d9","client_name":"\u56fd\u571f\u4ea4\u901a\u7701\u4e5d\u5dde\u5730\u65b9\u6574\u5099\u5c40\u7b51\u5f8c\u5ddd\u6cb3\u5ddd\u4e8b\u52d9\u6240","boring_xml_url":47,"boring_view_url":1,"soilmap_view_url":null,"soiltest_xml_url":0,"soiltest_view_url":0},{"id":234146,"code":"NGIC201900004-0011","latitude":"33.357458333333","longitude":"130.82418888889","source_code":"","project_name":"","survey_name":"\u8d64\u8c37\u5ddd\u6d41\u57df\u6e2c\u91cf\u8a2d\u8a08\u5916(\u305d\u306e2)\u696d\u52d9","client_name":"\u56fd\u571f\u4ea4\u901a\u7701\u4e5d\u5dde\u5730\u65b9\u6574\u5099\u5c40\u7b51\u5f8c\u5ddd\u6cb3\u5ddd\u4e8b\u52d9\u6240","boring_xml_url":47,"boring_view_url":1,"soilmap_view_url":null,"soiltest_xml_url":0,"soiltest_view_url":0},{"id":234145,"code":"NGIC201900004-0010","latitude":"33.358538888889","longitude":"130.82560833333","source_code":"","project_name":"","survey_name":"\u8d64\u8c37\u5ddd\u6d41\u57df\u6e2c\u91cf\u8a2d\u8a08\u5916(\u305d\u306e2)\u696d\u52d9","client_name":"\u56fd\u571f\u4ea4\u901a\u7701\u4e5d\u5dde\u5730\u65b9\u6574\u5099\u5c40\u7b51\u5f8c\u5ddd\u6cb3\u5ddd\u4e8b\u52d9\u6240","boring_xml_url":47,"boring_view_url":1,"soilmap_view_url":null,"soiltest_xml_url":0,"soiltest_view_url":0},{"id":234144,"code":"NGIC201900004-0009","latitude":"33.358533333333","longitude":"130.8256","source_code":"","project_name":"","survey_name":"\u8d64\u8c37\u5ddd\u6d41\u57df\u6e2c\u91cf\u8a2d\u8a08\u5916(\u305d\u306e2)\u696d\u52d9","client_name":"\u56fd\u571f\u4ea4\u901a\u7701\u4e5d\u5dde\u5730\u65b9\u6574\u5099\u5c40\u7b51\u5f8c\u5ddd\u6cb3\u5ddd\u4e8b\u52d9\u6240","boring_xml_url":47,"boring_view_url":1,"soilmap_view_url":null,"soiltest_xml_url":0,"soiltest_view_url":0}]}}