{"header":{"xyz":{"source":[],"mosaic":false},"page":3214,"raw":{"soiltest_result":"0","bbox":"57.598333,109.544722,1.933333,163.806111","page":"3214"},"conditions":{"soiltest_result":0,"north":57.598333,"west":109.544722,"south":1.933333,"east":163.806111},"success":true,"message":""},"data":{"meta":{"total":212844,"page":3214,"pages":7095,"count":30},"values":[{"id":234113,"code":"NGIC201800502-0011","latitude":"36.998258333333","longitude":"137.71638611111","source_code":"","project_name":"","survey_name":"\u5e73\u621030\u5e74\u5ea6\u7ba1\u5185\u5730\u8cea\u8abf\u67fb\u305d\u306e2\u696d\u52d9","client_name":"\u56fd\u571f\u4ea4\u901a\u7701\u5317\u9678\u5730\u65b9\u6574\u5099\u5c40\u9ad8\u7530\u6cb3\u5ddd\u56fd\u9053\u4e8b\u52d9\u6240","boring_xml_url":47,"boring_view_url":1,"soilmap_view_url":null,"soiltest_xml_url":0,"soiltest_view_url":0},{"id":234112,"code":"NGIC201800502-0010","latitude":"36.998355555556","longitude":"137.71626111111","source_code":"","project_name":"","survey_name":"\u5e73\u621030\u5e74\u5ea6\u7ba1\u5185\u5730\u8cea\u8abf\u67fb\u305d\u306e2\u696d\u52d9","client_name":"\u56fd\u571f\u4ea4\u901a\u7701\u5317\u9678\u5730\u65b9\u6574\u5099\u5c40\u9ad8\u7530\u6cb3\u5ddd\u56fd\u9053\u4e8b\u52d9\u6240","boring_xml_url":47,"boring_view_url":1,"soilmap_view_url":null,"soiltest_xml_url":0,"soiltest_view_url":0},{"id":234111,"code":"NGIC201800502-0009","latitude":"36.978416666667","longitude":"137.63473055556","source_code":"","project_name":"","survey_name":"\u5e73\u621030\u5e74\u5ea6\u7ba1\u5185\u5730\u8cea\u8abf\u67fb\u305d\u306e2\u696d\u52d9","client_name":"\u56fd\u571f\u4ea4\u901a\u7701\u5317\u9678\u5730\u65b9\u6574\u5099\u5c40\u9ad8\u7530\u6cb3\u5ddd\u56fd\u9053\u4e8b\u52d9\u6240","boring_xml_url":47,"boring_view_url":1,"soilmap_view_url":null,"soiltest_xml_url":0,"soiltest_view_url":0},{"id":234110,"code":"NGIC201800502-0008","latitude":"36.97845","longitude":"137.63559444444","source_code":"","project_name":"","survey_name":"\u5e73\u621030\u5e74\u5ea6\u7ba1\u5185\u5730\u8cea\u8abf\u67fb\u305d\u306e2\u696d\u52d9","client_name":"\u56fd\u571f\u4ea4\u901a\u7701\u5317\u9678\u5730\u65b9\u6574\u5099\u5c40\u9ad8\u7530\u6cb3\u5ddd\u56fd\u9053\u4e8b\u52d9\u6240","boring_xml_url":47,"boring_view_url":1,"soilmap_view_url":null,"soiltest_xml_url":0,"soiltest_view_url":0},{"id":234109,"code":"NGIC201800502-0007","latitude":"36.978461111111","longitude":"137.63583055556","source_code":"","project_name":"","survey_name":"\u5e73\u621030\u5e74\u5ea6\u7ba1\u5185\u5730\u8cea\u8abf\u67fb\u305d\u306e2\u696d\u52d9","client_name":"\u56fd\u571f\u4ea4\u901a\u7701\u5317\u9678\u5730\u65b9\u6574\u5099\u5c40\u9ad8\u7530\u6cb3\u5ddd\u56fd\u9053\u4e8b\u52d9\u6240","boring_xml_url":47,"boring_view_url":1,"soilmap_view_url":null,"soiltest_xml_url":0,"soiltest_view_url":0},{"id":234108,"code":"NGIC201800502-0006","latitude":"36.978633333333","longitude":"137.636075","source_code":"","project_name":"","survey_name":"\u5e73\u621030\u5e74\u5ea6\u7ba1\u5185\u5730\u8cea\u8abf\u67fb\u305d\u306e2\u696d\u52d9","client_name":"\u56fd\u571f\u4ea4\u901a\u7701\u5317\u9678\u5730\u65b9\u6574\u5099\u5c40\u9ad8\u7530\u6cb3\u5ddd\u56fd\u9053\u4e8b\u52d9\u6240","boring_xml_url":47,"boring_view_url":1,"soilmap_view_url":null,"soiltest_xml_url":0,"soiltest_view_url":0},{"id":234107,"code":"NGIC201800502-0005","latitude":"36.980694444444","longitude":"137.65577777778","source_code":"","project_name":"","survey_name":"\u5e73\u621030\u5e74\u5ea6\u7ba1\u5185\u5730\u8cea\u8abf\u67fb\u305d\u306e2\u696d\u52d9","client_name":"\u56fd\u571f\u4ea4\u901a\u7701\u5317\u9678\u5730\u65b9\u6574\u5099\u5c40\u9ad8\u7530\u6cb3\u5ddd\u56fd\u9053\u4e8b\u52d9\u6240","boring_xml_url":47,"boring_view_url":1,"soilmap_view_url":null,"soiltest_xml_url":0,"soiltest_view_url":0},{"id":234106,"code":"NGIC201800502-0004","latitude":"37.018527777778","longitude":"137.77355555556","source_code":"","project_name":"","survey_name":"\u5e73\u621030\u5e74\u5ea6\u7ba1\u5185\u5730\u8cea\u8abf\u67fb\u305d\u306e2\u696d\u52d9","client_name":"\u56fd\u571f\u4ea4\u901a\u7701\u5317\u9678\u5730\u65b9\u6574\u5099\u5c40\u9ad8\u7530\u6cb3\u5ddd\u56fd\u9053\u4e8b\u52d9\u6240","boring_xml_url":47,"boring_view_url":1,"soilmap_view_url":null,"soiltest_xml_url":0,"soiltest_view_url":0},{"id":234105,"code":"NGIC201800502-0003","latitude":"37.021336111111","longitude":"137.78344444444","source_code":"","project_name":"","survey_name":"\u5e73\u621030\u5e74\u5ea6\u7ba1\u5185\u5730\u8cea\u8abf\u67fb\u305d\u306e2\u696d\u52d9","client_name":"\u56fd\u571f\u4ea4\u901a\u7701\u5317\u9678\u5730\u65b9\u6574\u5099\u5c40\u9ad8\u7530\u6cb3\u5ddd\u56fd\u9053\u4e8b\u52d9\u6240","boring_xml_url":47,"boring_view_url":1,"soilmap_view_url":null,"soiltest_xml_url":0,"soiltest_view_url":0},{"id":234104,"code":"NGIC201800502-0002","latitude":"37.168502777778","longitude":"138.12597222222","source_code":"","project_name":"","survey_name":"\u5e73\u621030\u5e74\u5ea6\u7ba1\u5185\u5730\u8cea\u8abf\u67fb\u305d\u306e2\u696d\u52d9","client_name":"\u56fd\u571f\u4ea4\u901a\u7701\u5317\u9678\u5730\u65b9\u6574\u5099\u5c40\u9ad8\u7530\u6cb3\u5ddd\u56fd\u9053\u4e8b\u52d9\u6240","boring_xml_url":47,"boring_view_url":1,"soilmap_view_url":null,"soiltest_xml_url":0,"soiltest_view_url":0},{"id":234103,"code":"NGIC201800502-0001","latitude":"37.168525","longitude":"138.12551111111","source_code":"","project_name":"","survey_name":"\u5e73\u621030\u5e74\u5ea6\u7ba1\u5185\u5730\u8cea\u8abf\u67fb\u305d\u306e2\u696d\u52d9","client_name":"\u56fd\u571f\u4ea4\u901a\u7701\u5317\u9678\u5730\u65b9\u6574\u5099\u5c40\u9ad8\u7530\u6cb3\u5ddd\u56fd\u9053\u4e8b\u52d9\u6240","boring_xml_url":47,"boring_view_url":1,"soilmap_view_url":null,"soiltest_xml_url":0,"soiltest_view_url":0},{"id":234102,"code":"NGIC201900005-0002","latitude":"35.117155555556","longitude":"136.53850555556","source_code":"","project_name":"","survey_name":"\u5e73\u621030\u5e74\u5ea6\u6771\u6d77\u74b0\u72b6\u5927\u5b89\u9ad8\u67b6\u6a4b\u4e2d\u5357\u4e0b\u90e8\u5de5\u4e8b","client_name":"\u56fd\u571f\u4ea4\u901a\u7701\u4e2d\u90e8\u5730\u65b9\u6574\u5099\u5c40\u5317\u52e2\u56fd\u9053\u4e8b\u52d9\u6240","boring_xml_url":47,"boring_view_url":1,"soilmap_view_url":null,"soiltest_xml_url":47,"soiltest_view_url":47},{"id":234101,"code":"NGIC201900005-0001","latitude":"35.117241666667","longitude":"136.53864722222","source_code":"","project_name":"","survey_name":"\u5e73\u621030\u5e74\u5ea6\u6771\u6d77\u74b0\u72b6\u5927\u5b89\u9ad8\u67b6\u6a4b\u4e2d\u5357\u4e0b\u90e8\u5de5\u4e8b","client_name":"\u56fd\u571f\u4ea4\u901a\u7701\u4e2d\u90e8\u5730\u65b9\u6574\u5099\u5c40\u5317\u52e2\u56fd\u9053\u4e8b\u52d9\u6240","boring_xml_url":47,"boring_view_url":1,"soilmap_view_url":null,"soiltest_xml_url":47,"soiltest_view_url":47},{"id":234100,"code":"NGIC201800485-0002","latitude":"38.835692027778","longitude":"140.32758402778","source_code":"","project_name":"","survey_name":"\u5e73\u621030\u5e74\u5ea6\u662d\u548cIC\u6a4b\u5916\u8a73\u7d30\u8a2d\u8a08\u696d\u52d9","client_name":"\u56fd\u571f\u4ea4\u901a\u7701\u6771\u5317\u5730\u65b9\u6574\u5099\u5c40\u5c71\u5f62\u6cb3\u5ddd\u56fd\u9053\u4e8b\u52d9\u6240","boring_xml_url":47,"boring_view_url":1,"soilmap_view_url":null,"soiltest_xml_url":0,"soiltest_view_url":0},{"id":234099,"code":"NGIC201800485-0001","latitude":"38.835394583333","longitude":"140.32750080556","source_code":"","project_name":"","survey_name":"\u5e73\u621030\u5e74\u5ea6\u662d\u548cIC\u6a4b\u5916\u8a73\u7d30\u8a2d\u8a08\u696d\u52d9","client_name":"\u56fd\u571f\u4ea4\u901a\u7701\u6771\u5317\u5730\u65b9\u6574\u5099\u5c40\u5c71\u5f62\u6cb3\u5ddd\u56fd\u9053\u4e8b\u52d9\u6240","boring_xml_url":47,"boring_view_url":1,"soilmap_view_url":null,"soiltest_xml_url":0,"soiltest_view_url":0},{"id":234098,"code":"NGIC201800520-0008","latitude":"34.036690555556","longitude":"135.68069052778","source_code":"","project_name":"","survey_name":"\u795e\u7d0d\u5ddd\u6d41\u57df\u7802\u9632\u5830\u5824\u8a2d\u8a08\u4ed6\u696d\u52d9","client_name":"\u56fd\u571f\u4ea4\u901a\u7701\u8fd1\u757f\u5730\u65b9\u6574\u5099\u5c40\u7d00\u4f0a\u5c71\u7cfb\u7802\u9632\u4e8b\u52d9\u6240","boring_xml_url":47,"boring_view_url":1,"soilmap_view_url":null,"soiltest_xml_url":0,"soiltest_view_url":0},{"id":234097,"code":"NGIC201800520-0007","latitude":"34.036989611111","longitude":"135.68071419444","source_code":"","project_name":"","survey_name":"\u795e\u7d0d\u5ddd\u6d41\u57df\u7802\u9632\u5830\u5824\u8a2d\u8a08\u4ed6\u696d\u52d9","client_name":"\u56fd\u571f\u4ea4\u901a\u7701\u8fd1\u757f\u5730\u65b9\u6574\u5099\u5c40\u7d00\u4f0a\u5c71\u7cfb\u7802\u9632\u4e8b\u52d9\u6240","boring_xml_url":47,"boring_view_url":1,"soilmap_view_url":null,"soiltest_xml_url":0,"soiltest_view_url":0},{"id":234096,"code":"NGIC201800520-0006","latitude":"34.036781555556","longitude":"135.68044097222","source_code":"","project_name":"","survey_name":"\u795e\u7d0d\u5ddd\u6d41\u57df\u7802\u9632\u5830\u5824\u8a2d\u8a08\u4ed6\u696d\u52d9","client_name":"\u56fd\u571f\u4ea4\u901a\u7701\u8fd1\u757f\u5730\u65b9\u6574\u5099\u5c40\u7d00\u4f0a\u5c71\u7cfb\u7802\u9632\u4e8b\u52d9\u6240","boring_xml_url":47,"boring_view_url":1,"soilmap_view_url":null,"soiltest_xml_url":0,"soiltest_view_url":0},{"id":234095,"code":"NGIC201800520-0005","latitude":"34.03689225","longitude":"135.68058633333","source_code":"","project_name":"","survey_name":"\u795e\u7d0d\u5ddd\u6d41\u57df\u7802\u9632\u5830\u5824\u8a2d\u8a08\u4ed6\u696d\u52d9","client_name":"\u56fd\u571f\u4ea4\u901a\u7701\u8fd1\u757f\u5730\u65b9\u6574\u5099\u5c40\u7d00\u4f0a\u5c71\u7cfb\u7802\u9632\u4e8b\u52d9\u6240","boring_xml_url":47,"boring_view_url":1,"soilmap_view_url":null,"soiltest_xml_url":0,"soiltest_view_url":0},{"id":234094,"code":"NGIC201800520-0004","latitude":"34.041621138889","longitude":"135.65525811111","source_code":"","project_name":"","survey_name":"\u795e\u7d0d\u5ddd\u6d41\u57df\u7802\u9632\u5830\u5824\u8a2d\u8a08\u4ed6\u696d\u52d9","client_name":"\u56fd\u571f\u4ea4\u901a\u7701\u8fd1\u757f\u5730\u65b9\u6574\u5099\u5c40\u7d00\u4f0a\u5c71\u7cfb\u7802\u9632\u4e8b\u52d9\u6240","boring_xml_url":47,"boring_view_url":1,"soilmap_view_url":null,"soiltest_xml_url":0,"soiltest_view_url":0},{"id":234093,"code":"NGIC201800520-0003","latitude":"34.041871916667","longitude":"135.65527286111","source_code":"","project_name":"","survey_name":"\u795e\u7d0d\u5ddd\u6d41\u57df\u7802\u9632\u5830\u5824\u8a2d\u8a08\u4ed6\u696d\u52d9","client_name":"\u56fd\u571f\u4ea4\u901a\u7701\u8fd1\u757f\u5730\u65b9\u6574\u5099\u5c40\u7d00\u4f0a\u5c71\u7cfb\u7802\u9632\u4e8b\u52d9\u6240","boring_xml_url":47,"boring_view_url":1,"soilmap_view_url":null,"soiltest_xml_url":0,"soiltest_view_url":0},{"id":234092,"code":"NGIC201800520-0002","latitude":"34.041478611111","longitude":"135.655064","source_code":"","project_name":"","survey_name":"\u795e\u7d0d\u5ddd\u6d41\u57df\u7802\u9632\u5830\u5824\u8a2d\u8a08\u4ed6\u696d\u52d9","client_name":"\u56fd\u571f\u4ea4\u901a\u7701\u8fd1\u757f\u5730\u65b9\u6574\u5099\u5c40\u7d00\u4f0a\u5c71\u7cfb\u7802\u9632\u4e8b\u52d9\u6240","boring_xml_url":47,"boring_view_url":1,"soilmap_view_url":null,"soiltest_xml_url":0,"soiltest_view_url":0},{"id":234091,"code":"NGIC201800520-0001","latitude":"34.041657583333","longitude":"135.65515905556","source_code":"","project_name":"","survey_name":"\u795e\u7d0d\u5ddd\u6d41\u57df\u7802\u9632\u5830\u5824\u8a2d\u8a08\u4ed6\u696d\u52d9","client_name":"\u56fd\u571f\u4ea4\u901a\u7701\u8fd1\u757f\u5730\u65b9\u6574\u5099\u5c40\u7d00\u4f0a\u5c71\u7cfb\u7802\u9632\u4e8b\u52d9\u6240","boring_xml_url":47,"boring_view_url":1,"soilmap_view_url":null,"soiltest_xml_url":0,"soiltest_view_url":0},{"id":234090,"code":"NGIC201900006-0004","latitude":"33.382305555556","longitude":"130.84678888889","source_code":"","project_name":"","survey_name":"\u7b51\u5f8c\u5ddd\u6c34\u7cfb\u8d64\u8c37\u5ddd\u6d41\u57df\u7802\u9632\u8a08\u753b\u53ca\u3073\u571f\u7802\u52d5\u614b\u89b3\u6e2c\u624b\u6cd5\u691c\u8a0e\u696d\u52d9","client_name":"\u56fd\u571f\u4ea4\u901a\u7701\u4e5d\u5dde\u5730\u65b9\u6574\u5099\u5c40\u7b51\u5f8c\u5ddd\u6cb3\u5ddd\u4e8b\u52d9\u6240","boring_xml_url":47,"boring_view_url":1,"soilmap_view_url":null,"soiltest_xml_url":0,"soiltest_view_url":0},{"id":234089,"code":"NGIC201900006-0003","latitude":"33.381883333333","longitude":"130.84693055556","source_code":"","project_name":"","survey_name":"\u7b51\u5f8c\u5ddd\u6c34\u7cfb\u8d64\u8c37\u5ddd\u6d41\u57df\u7802\u9632\u8a08\u753b\u53ca\u3073\u571f\u7802\u52d5\u614b\u89b3\u6e2c\u624b\u6cd5\u691c\u8a0e\u696d\u52d9","client_name":"\u56fd\u571f\u4ea4\u901a\u7701\u4e5d\u5dde\u5730\u65b9\u6574\u5099\u5c40\u7b51\u5f8c\u5ddd\u6cb3\u5ddd\u4e8b\u52d9\u6240","boring_xml_url":47,"boring_view_url":1,"soilmap_view_url":null,"soiltest_xml_url":0,"soiltest_view_url":0},{"id":234088,"code":"NGIC201900006-0002","latitude":"33.382455555556","longitude":"130.84725555556","source_code":"","project_name":"","survey_name":"\u7b51\u5f8c\u5ddd\u6c34\u7cfb\u8d64\u8c37\u5ddd\u6d41\u57df\u7802\u9632\u8a08\u753b\u53ca\u3073\u571f\u7802\u52d5\u614b\u89b3\u6e2c\u624b\u6cd5\u691c\u8a0e\u696d\u52d9","client_name":"\u56fd\u571f\u4ea4\u901a\u7701\u4e5d\u5dde\u5730\u65b9\u6574\u5099\u5c40\u7b51\u5f8c\u5ddd\u6cb3\u5ddd\u4e8b\u52d9\u6240","boring_xml_url":47,"boring_view_url":1,"soilmap_view_url":null,"soiltest_xml_url":0,"soiltest_view_url":0},{"id":234087,"code":"NGIC201900006-0001","latitude":"33.382141666667","longitude":"130.84704722222","source_code":"","project_name":"","survey_name":"\u7b51\u5f8c\u5ddd\u6c34\u7cfb\u8d64\u8c37\u5ddd\u6d41\u57df\u7802\u9632\u8a08\u753b\u53ca\u3073\u571f\u7802\u52d5\u614b\u89b3\u6e2c\u624b\u6cd5\u691c\u8a0e\u696d\u52d9","client_name":"\u56fd\u571f\u4ea4\u901a\u7701\u4e5d\u5dde\u5730\u65b9\u6574\u5099\u5c40\u7b51\u5f8c\u5ddd\u6cb3\u5ddd\u4e8b\u52d9\u6240","boring_xml_url":47,"boring_view_url":1,"soilmap_view_url":null,"soiltest_xml_url":0,"soiltest_view_url":0},{"id":234086,"code":"NGIC201900001-0006","latitude":"42.734499027778","longitude":"142.00428805556","source_code":"","project_name":"","survey_name":"\u539a\u771f\u5ddd\u6c34\u7cfb\u65e5\u9ad8\u5e4c\u5185\u5ddd\u5916\u659c\u9762\u5d29\u58ca\u5730\u8cea\u8abf\u67fb\u89e3\u6790\u305d\u306e5","client_name":"\u56fd\u571f\u4ea4\u901a\u7701\u5317\u6d77\u9053\u958b\u767a\u5c40\u5ba4\u862d\u958b\u767a\u5efa\u8a2d\u90e8","boring_xml_url":47,"boring_view_url":1,"soilmap_view_url":null,"soiltest_xml_url":0,"soiltest_view_url":0},{"id":234085,"code":"NGIC201900001-0005","latitude":"42.734932222222","longitude":"142.00322361111","source_code":"","project_name":"","survey_name":"\u539a\u771f\u5ddd\u6c34\u7cfb\u65e5\u9ad8\u5e4c\u5185\u5ddd\u5916\u659c\u9762\u5d29\u58ca\u5730\u8cea\u8abf\u67fb\u89e3\u6790\u305d\u306e5","client_name":"\u56fd\u571f\u4ea4\u901a\u7701\u5317\u6d77\u9053\u958b\u767a\u5c40\u5ba4\u862d\u958b\u767a\u5efa\u8a2d\u90e8","boring_xml_url":47,"boring_view_url":1,"soilmap_view_url":null,"soiltest_xml_url":0,"soiltest_view_url":0},{"id":234084,"code":"NGIC201900001-0004","latitude":"42.735027555556","longitude":"141.99906097222","source_code":"","project_name":"","survey_name":"\u539a\u771f\u5ddd\u6c34\u7cfb\u65e5\u9ad8\u5e4c\u5185\u5ddd\u5916\u659c\u9762\u5d29\u58ca\u5730\u8cea\u8abf\u67fb\u89e3\u6790\u305d\u306e5","client_name":"\u56fd\u571f\u4ea4\u901a\u7701\u5317\u6d77\u9053\u958b\u767a\u5c40\u5ba4\u862d\u958b\u767a\u5efa\u8a2d\u90e8","boring_xml_url":47,"boring_view_url":1,"soilmap_view_url":null,"soiltest_xml_url":0,"soiltest_view_url":0}]}}