{"header":{"xyz":{"source":[],"mosaic":false},"page":3219,"raw":{"soiltest_result":"0","bbox":"57.598333,109.544722,1.933333,163.806111","page":"3219"},"conditions":{"soiltest_result":0,"north":57.598333,"west":109.544722,"south":1.933333,"east":163.806111},"success":true,"message":""},"data":{"meta":{"total":212844,"page":3219,"pages":7095,"count":30},"values":[{"id":224005,"code":"B4KJ201801011-2254","latitude":"26.27274936","longitude":"127.7214987","source_code":"OK20089002101300090005","project_name":"","survey_name":"\u5e73\u621020\u5e74\u5ea6\u6c96\u7e04\u897f\u6d77\u5cb8\u9053\u8def(\u6d66\u6dfb\u5317\u9053\u8def\u7267\u6e2f\u5730\u533a)\u5730\u8cea\u8abf\u67fb(\u305d\u306e1)\u696d\u52d9","client_name":"\u5185\u95a3\u5e9c\u6c96\u7e04\u7dcf\u5408\u4e8b\u52d9\u5c40\u958b\u767a\u5efa\u8a2d\u90e8\u5357\u90e8\u56fd\u9053\u4e8b\u52d9\u6240","boring_xml_url":49,"boring_view_url":1,"soilmap_view_url":null,"soiltest_xml_url":0,"soiltest_view_url":0},{"id":224004,"code":"B4KJ201801011-2253","latitude":"26.2726635","longitude":"127.7234156","source_code":"OK20089002101300090004","project_name":"","survey_name":"\u5e73\u621020\u5e74\u5ea6\u6c96\u7e04\u897f\u6d77\u5cb8\u9053\u8def(\u6d66\u6dfb\u5317\u9053\u8def\u7267\u6e2f\u5730\u533a)\u5730\u8cea\u8abf\u67fb(\u305d\u306e1)\u696d\u52d9","client_name":"\u5185\u95a3\u5e9c\u6c96\u7e04\u7dcf\u5408\u4e8b\u52d9\u5c40\u958b\u767a\u5efa\u8a2d\u90e8\u5357\u90e8\u56fd\u9053\u4e8b\u52d9\u6240","boring_xml_url":49,"boring_view_url":1,"soilmap_view_url":null,"soiltest_xml_url":0,"soiltest_view_url":0},{"id":224003,"code":"B4KJ201801011-2252","latitude":"26.27252619","longitude":"127.7234206","source_code":"OK20089002101300090003","project_name":"","survey_name":"\u5e73\u621020\u5e74\u5ea6\u6c96\u7e04\u897f\u6d77\u5cb8\u9053\u8def(\u6d66\u6dfb\u5317\u9053\u8def\u7267\u6e2f\u5730\u533a)\u5730\u8cea\u8abf\u67fb(\u305d\u306e1)\u696d\u52d9","client_name":"\u5185\u95a3\u5e9c\u6c96\u7e04\u7dcf\u5408\u4e8b\u52d9\u5c40\u958b\u767a\u5efa\u8a2d\u90e8\u5357\u90e8\u56fd\u9053\u4e8b\u52d9\u6240","boring_xml_url":49,"boring_view_url":1,"soilmap_view_url":null,"soiltest_xml_url":0,"soiltest_view_url":0},{"id":224002,"code":"B4KJ201801011-2251","latitude":"26.27269911","longitude":"127.7241548","source_code":"OK20089002101300090002","project_name":"","survey_name":"\u5e73\u621020\u5e74\u5ea6\u6c96\u7e04\u897f\u6d77\u5cb8\u9053\u8def(\u6d66\u6dfb\u5317\u9053\u8def\u7267\u6e2f\u5730\u533a)\u5730\u8cea\u8abf\u67fb(\u305d\u306e1)\u696d\u52d9","client_name":"\u5185\u95a3\u5e9c\u6c96\u7e04\u7dcf\u5408\u4e8b\u52d9\u5c40\u958b\u767a\u5efa\u8a2d\u90e8\u5357\u90e8\u56fd\u9053\u4e8b\u52d9\u6240","boring_xml_url":49,"boring_view_url":1,"soilmap_view_url":null,"soiltest_xml_url":0,"soiltest_view_url":0},{"id":224001,"code":"B4KJ201801011-2250","latitude":"26.27261339","longitude":"127.7241708","source_code":"OK20089002101300090001","project_name":"","survey_name":"\u5e73\u621020\u5e74\u5ea6\u6c96\u7e04\u897f\u6d77\u5cb8\u9053\u8def(\u6d66\u6dfb\u5317\u9053\u8def\u7267\u6e2f\u5730\u533a)\u5730\u8cea\u8abf\u67fb(\u305d\u306e1)\u696d\u52d9","client_name":"\u5185\u95a3\u5e9c\u6c96\u7e04\u7dcf\u5408\u4e8b\u52d9\u5c40\u958b\u767a\u5efa\u8a2d\u90e8\u5357\u90e8\u56fd\u9053\u4e8b\u52d9\u6240","boring_xml_url":49,"boring_view_url":1,"soilmap_view_url":null,"soiltest_xml_url":0,"soiltest_view_url":0},{"id":224000,"code":"B4KJ201801011-2249","latitude":"26.20639933","longitude":"127.7290779","source_code":"OK20089002100300150010","project_name":"","survey_name":"\u5e73\u621020\u5e74\u5ea6\u5357\u98a8\u539f\u30d0\u30a4\u30d1\u30b9\u65b0\u5ddd\u5730\u533a\u6cd5\u9762\u5b89\u5b9a\u691c\u8a0e\u696d\u52d9","client_name":"\u5185\u95a3\u5e9c\u6c96\u7e04\u7dcf\u5408\u4e8b\u52d9\u5c40\u958b\u767a\u5efa\u8a2d\u90e8\u5357\u90e8\u56fd\u9053\u4e8b\u52d9\u6240","boring_xml_url":49,"boring_view_url":1,"soilmap_view_url":null,"soiltest_xml_url":0,"soiltest_view_url":0},{"id":223999,"code":"B4KJ201801011-2248","latitude":"26.20560247","longitude":"127.7293451","source_code":"OK20089002100300150009","project_name":"","survey_name":"\u5e73\u621020\u5e74\u5ea6\u5357\u98a8\u539f\u30d0\u30a4\u30d1\u30b9\u65b0\u5ddd\u5730\u533a\u6cd5\u9762\u5b89\u5b9a\u691c\u8a0e\u696d\u52d9","client_name":"\u5185\u95a3\u5e9c\u6c96\u7e04\u7dcf\u5408\u4e8b\u52d9\u5c40\u958b\u767a\u5efa\u8a2d\u90e8\u5357\u90e8\u56fd\u9053\u4e8b\u52d9\u6240","boring_xml_url":49,"boring_view_url":1,"soilmap_view_url":null,"soiltest_xml_url":0,"soiltest_view_url":0},{"id":223998,"code":"B4KJ201801011-2247","latitude":"26.20596867","longitude":"127.7287099","source_code":"OK20089002100300150008","project_name":"","survey_name":"\u5e73\u621020\u5e74\u5ea6\u5357\u98a8\u539f\u30d0\u30a4\u30d1\u30b9\u65b0\u5ddd\u5730\u533a\u6cd5\u9762\u5b89\u5b9a\u691c\u8a0e\u696d\u52d9","client_name":"\u5185\u95a3\u5e9c\u6c96\u7e04\u7dcf\u5408\u4e8b\u52d9\u5c40\u958b\u767a\u5efa\u8a2d\u90e8\u5357\u90e8\u56fd\u9053\u4e8b\u52d9\u6240","boring_xml_url":49,"boring_view_url":1,"soilmap_view_url":null,"soiltest_xml_url":0,"soiltest_view_url":0},{"id":223997,"code":"B4KJ201801011-2246","latitude":"26.20577139","longitude":"127.7287963","source_code":"OK20089002100300150007","project_name":"","survey_name":"\u5e73\u621020\u5e74\u5ea6\u5357\u98a8\u539f\u30d0\u30a4\u30d1\u30b9\u65b0\u5ddd\u5730\u533a\u6cd5\u9762\u5b89\u5b9a\u691c\u8a0e\u696d\u52d9","client_name":"\u5185\u95a3\u5e9c\u6c96\u7e04\u7dcf\u5408\u4e8b\u52d9\u5c40\u958b\u767a\u5efa\u8a2d\u90e8\u5357\u90e8\u56fd\u9053\u4e8b\u52d9\u6240","boring_xml_url":49,"boring_view_url":1,"soilmap_view_url":null,"soiltest_xml_url":0,"soiltest_view_url":0},{"id":223996,"code":"B4KJ201801011-2245","latitude":"26.20653628","longitude":"127.7295076","source_code":"OK20089002100300150006","project_name":"","survey_name":"\u5e73\u621020\u5e74\u5ea6\u5357\u98a8\u539f\u30d0\u30a4\u30d1\u30b9\u65b0\u5ddd\u5730\u533a\u6cd5\u9762\u5b89\u5b9a\u691c\u8a0e\u696d\u52d9","client_name":"\u5185\u95a3\u5e9c\u6c96\u7e04\u7dcf\u5408\u4e8b\u52d9\u5c40\u958b\u767a\u5efa\u8a2d\u90e8\u5357\u90e8\u56fd\u9053\u4e8b\u52d9\u6240","boring_xml_url":49,"boring_view_url":1,"soilmap_view_url":null,"soiltest_xml_url":0,"soiltest_view_url":0},{"id":223995,"code":"B4KJ201801011-2244","latitude":"26.20644756","longitude":"127.7295261","source_code":"OK20089002100300150005","project_name":"","survey_name":"\u5e73\u621020\u5e74\u5ea6\u5357\u98a8\u539f\u30d0\u30a4\u30d1\u30b9\u65b0\u5ddd\u5730\u533a\u6cd5\u9762\u5b89\u5b9a\u691c\u8a0e\u696d\u52d9","client_name":"\u5185\u95a3\u5e9c\u6c96\u7e04\u7dcf\u5408\u4e8b\u52d9\u5c40\u958b\u767a\u5efa\u8a2d\u90e8\u5357\u90e8\u56fd\u9053\u4e8b\u52d9\u6240","boring_xml_url":49,"boring_view_url":1,"soilmap_view_url":null,"soiltest_xml_url":0,"soiltest_view_url":0},{"id":223994,"code":"B4KJ201801011-2243","latitude":"26.20646236","longitude":"127.7297492","source_code":"OK20089002100300150004","project_name":"","survey_name":"\u5e73\u621020\u5e74\u5ea6\u5357\u98a8\u539f\u30d0\u30a4\u30d1\u30b9\u65b0\u5ddd\u5730\u533a\u6cd5\u9762\u5b89\u5b9a\u691c\u8a0e\u696d\u52d9","client_name":"\u5185\u95a3\u5e9c\u6c96\u7e04\u7dcf\u5408\u4e8b\u52d9\u5c40\u958b\u767a\u5efa\u8a2d\u90e8\u5357\u90e8\u56fd\u9053\u4e8b\u52d9\u6240","boring_xml_url":49,"boring_view_url":1,"soilmap_view_url":null,"soiltest_xml_url":0,"soiltest_view_url":0},{"id":223993,"code":"B4KJ201801011-2242","latitude":"26.20637297","longitude":"127.7297632","source_code":"OK20089002100300150003","project_name":"","survey_name":"\u5e73\u621020\u5e74\u5ea6\u5357\u98a8\u539f\u30d0\u30a4\u30d1\u30b9\u65b0\u5ddd\u5730\u533a\u6cd5\u9762\u5b89\u5b9a\u691c\u8a0e\u696d\u52d9","client_name":"\u5185\u95a3\u5e9c\u6c96\u7e04\u7dcf\u5408\u4e8b\u52d9\u5c40\u958b\u767a\u5efa\u8a2d\u90e8\u5357\u90e8\u56fd\u9053\u4e8b\u52d9\u6240","boring_xml_url":49,"boring_view_url":1,"soilmap_view_url":null,"soiltest_xml_url":0,"soiltest_view_url":0},{"id":223992,"code":"B4KJ201801011-2241","latitude":"26.20601547","longitude":"127.7298194","source_code":"OK20089002100300150002","project_name":"","survey_name":"\u5e73\u621020\u5e74\u5ea6\u5357\u98a8\u539f\u30d0\u30a4\u30d1\u30b9\u65b0\u5ddd\u5730\u533a\u6cd5\u9762\u5b89\u5b9a\u691c\u8a0e\u696d\u52d9","client_name":"\u5185\u95a3\u5e9c\u6c96\u7e04\u7dcf\u5408\u4e8b\u52d9\u5c40\u958b\u767a\u5efa\u8a2d\u90e8\u5357\u90e8\u56fd\u9053\u4e8b\u52d9\u6240","boring_xml_url":49,"boring_view_url":1,"soilmap_view_url":null,"soiltest_xml_url":0,"soiltest_view_url":0},{"id":223991,"code":"B4KJ201801011-2240","latitude":"26.20568033","longitude":"127.7298721","source_code":"OK20089002100300150001","project_name":"","survey_name":"\u5e73\u621020\u5e74\u5ea6\u5357\u98a8\u539f\u30d0\u30a4\u30d1\u30b9\u65b0\u5ddd\u5730\u533a\u6cd5\u9762\u5b89\u5b9a\u691c\u8a0e\u696d\u52d9","client_name":"\u5185\u95a3\u5e9c\u6c96\u7e04\u7dcf\u5408\u4e8b\u52d9\u5c40\u958b\u767a\u5efa\u8a2d\u90e8\u5357\u90e8\u56fd\u9053\u4e8b\u52d9\u6240","boring_xml_url":49,"boring_view_url":1,"soilmap_view_url":null,"soiltest_xml_url":0,"soiltest_view_url":0},{"id":223990,"code":"B4KJ201801011-2239","latitude":"26.13315117","longitude":"127.7681588","source_code":"OK20089002100300070004","project_name":"(\u4e2d\u5c71\u5730\u533a\u6539\u826f)","survey_name":"\u5e73\u621020\u5e74\u5ea6 \u5357\u90e8\u56fd\u9053\u7ba1\u5185\u8a2d\u8a08\u696d\u52d9","client_name":"\u5185\u95a3\u5e9c\u6c96\u7e04\u7dcf\u5408\u4e8b\u52d9\u5c40\u958b\u767a\u5efa\u8a2d\u90e8\u5357\u90e8\u56fd\u9053\u4e8b\u52d9\u6240","boring_xml_url":49,"boring_view_url":1,"soilmap_view_url":null,"soiltest_xml_url":0,"soiltest_view_url":0},{"id":223989,"code":"B4KJ201801011-2238","latitude":"26.13332311","longitude":"127.7681405","source_code":"OK20089002100300070003","project_name":"(\u4e2d\u5c71\u5730\u533a\u6539\u826f)","survey_name":"\u5e73\u621020\u5e74\u5ea6 \u5357\u90e8\u56fd\u9053\u7ba1\u5185\u8a2d\u8a08\u696d\u52d9","client_name":"\u5185\u95a3\u5e9c\u6c96\u7e04\u7dcf\u5408\u4e8b\u52d9\u5c40\u958b\u767a\u5efa\u8a2d\u90e8\u5357\u90e8\u56fd\u9053\u4e8b\u52d9\u6240","boring_xml_url":49,"boring_view_url":1,"soilmap_view_url":null,"soiltest_xml_url":0,"soiltest_view_url":0},{"id":223988,"code":"B4KJ201801011-2237","latitude":"26.30028147","longitude":"127.7682811","source_code":"OK20089002100300070002","project_name":"(\u4e2d\u5c71\u5730\u533a\u6539\u826f)","survey_name":"\u5e73\u621020\u5e74\u5ea6 \u5357\u90e8\u56fd\u9053\u7ba1\u5185\u8a2d\u8a08\u696d\u52d9","client_name":"\u5185\u95a3\u5e9c\u6c96\u7e04\u7dcf\u5408\u4e8b\u52d9\u5c40\u958b\u767a\u5efa\u8a2d\u90e8\u5357\u90e8\u56fd\u9053\u4e8b\u52d9\u6240","boring_xml_url":49,"boring_view_url":1,"soilmap_view_url":null,"soiltest_xml_url":0,"soiltest_view_url":0},{"id":223987,"code":"B4KJ201801011-2236","latitude":"26.30059167","longitude":"127.768477","source_code":"OK20089002100300070001","project_name":"(\u4e2d\u5c71\u5730\u533a\u6539\u826f)","survey_name":"\u5e73\u621020\u5e74\u5ea6 \u5357\u90e8\u56fd\u9053\u7ba1\u5185\u8a2d\u8a08\u696d\u52d9","client_name":"\u5185\u95a3\u5e9c\u6c96\u7e04\u7dcf\u5408\u4e8b\u52d9\u5c40\u958b\u767a\u5efa\u8a2d\u90e8\u5357\u90e8\u56fd\u9053\u4e8b\u52d9\u6240","boring_xml_url":49,"boring_view_url":1,"soilmap_view_url":null,"soiltest_xml_url":0,"soiltest_view_url":0},{"id":223986,"code":"B4KJ201801011-2235","latitude":"26.74987778","longitude":"128.2601639","source_code":"OK20079005047300320009","project_name":"\u8fba\u91ce\u559c\u30c0\u30e0\u8caf\u6c34\u6c60\u9032\u5165\u8def\u8a2d\u8a08","survey_name":"\u5e73\u621019\u5e74\u5ea6 \u5b89\u6ce2\u30fb\u666e\u4e45\u5ddd\u30fb\u8fba\u91ce\u559c\u30c0\u30e0\u7ba1\u7406\u65bd\u8a2d\u8a2d\u8a08\u696d\u52d9","client_name":"\u5185\u95a3\u5e9c\u6c96\u7e04\u7dcf\u5408\u4e8b\u52d9\u5c40\u958b\u767a\u5efa\u8a2d\u90e8\u5317\u90e8\u30c0\u30e0\u7d71\u5408\u7ba1\u7406\u4e8b\u52d9\u6240","boring_xml_url":49,"boring_view_url":1,"soilmap_view_url":null,"soiltest_xml_url":0,"soiltest_view_url":0},{"id":223985,"code":"B4KJ201801011-2234","latitude":"26.78798889","longitude":"128.2556972","source_code":"OK20079005047300320008","project_name":"\u8fba\u91ce\u559c\u30c0\u30e0 \u3055\u304f\u4e95\u8abf\u67fb","survey_name":"\u5e73\u621019\u5e74\u5ea6 \u5b89\u6ce2\u30fb\u666e\u4e45\u5ddd\u30fb\u8fba\u91ce\u559c\u30c0\u30e0\u7ba1\u7406\u65bd\u8a2d\u8a2d\u8a08\u696d\u52d9","client_name":"\u5185\u95a3\u5e9c\u6c96\u7e04\u7dcf\u5408\u4e8b\u52d9\u5c40\u958b\u767a\u5efa\u8a2d\u90e8\u5317\u90e8\u30c0\u30e0\u7d71\u5408\u7ba1\u7406\u4e8b\u52d9\u6240","boring_xml_url":49,"boring_view_url":1,"soilmap_view_url":null,"soiltest_xml_url":0,"soiltest_view_url":0},{"id":223984,"code":"B4KJ201801011-2233","latitude":"26.742539","longitude":"128.2789419","source_code":"OK20079005047300320007","project_name":"\u666e\u4e45\u5ddd\u30c0\u30e0\u8caf\u6c34\u6c60\u9032\u5165\u8def\u8a2d\u8a08","survey_name":"\u5e73\u621019\u5e74\u5ea6 \u5b89\u6ce2\u30fb\u666e\u4e45\u5ddd\u30fb\u8fba\u91ce\u559c\u30c0\u30e0\u7ba1\u7406\u65bd\u8a2d\u8a2d\u8a08\u696d\u52d9","client_name":"\u5185\u95a3\u5e9c\u6c96\u7e04\u7dcf\u5408\u4e8b\u52d9\u5c40\u958b\u767a\u5efa\u8a2d\u90e8\u5317\u90e8\u30c0\u30e0\u7d71\u5408\u7ba1\u7406\u4e8b\u52d9\u6240","boring_xml_url":49,"boring_view_url":1,"soilmap_view_url":null,"soiltest_xml_url":0,"soiltest_view_url":0},{"id":223983,"code":"B4KJ201801011-2232","latitude":"26.74095075","longitude":"128.2816272","source_code":"OK20079005047300320006","project_name":"\u666e\u4e45\u5ddd\u30c0\u30e0\u6cd5\u9762\u5de5\u8a73\u7d30\u8a2d\u8a08","survey_name":"\u5e73\u621019\u5e74\u5ea6 \u5b89\u6ce2\u30fb\u666e\u4e45\u5ddd\u30fb\u8fba\u91ce\u559c\u30c0\u30e0\u7ba1\u7406\u65bd\u8a2d\u8a2d\u8a08\u696d\u52d9","client_name":"\u5185\u95a3\u5e9c\u6c96\u7e04\u7dcf\u5408\u4e8b\u52d9\u5c40\u958b\u767a\u5efa\u8a2d\u90e8\u5317\u90e8\u30c0\u30e0\u7d71\u5408\u7ba1\u7406\u4e8b\u52d9\u6240","boring_xml_url":49,"boring_view_url":1,"soilmap_view_url":null,"soiltest_xml_url":0,"soiltest_view_url":0},{"id":223982,"code":"B4KJ201801011-2231","latitude":"26.74110411","longitude":"128.2816218","source_code":"OK20079005047300320005","project_name":"\u666e\u4e45\u5ddd\u30c0\u30e0\u6cd5\u9762\u5de5\u8a73\u7d30\u8a2d\u8a08","survey_name":"\u5e73\u621019\u5e74\u5ea6 \u5b89\u6ce2\u30fb\u666e\u4e45\u5ddd\u30fb\u8fba\u91ce\u559c\u30c0\u30e0\u7ba1\u7406\u65bd\u8a2d\u8a2d\u8a08\u696d\u52d9","client_name":"\u5185\u95a3\u5e9c\u6c96\u7e04\u7dcf\u5408\u4e8b\u52d9\u5c40\u958b\u767a\u5efa\u8a2d\u90e8\u5317\u90e8\u30c0\u30e0\u7d71\u5408\u7ba1\u7406\u4e8b\u52d9\u6240","boring_xml_url":49,"boring_view_url":1,"soilmap_view_url":null,"soiltest_xml_url":0,"soiltest_view_url":0},{"id":223981,"code":"B4KJ201801011-2230","latitude":"26.74095439","longitude":"128.2811031","source_code":"OK20079005047300320004","project_name":"\u666e\u4e45\u5ddd\u30c0\u30e0\u6cd5\u9762\u5de5\u8a73\u7d30\u8a2d\u8a08","survey_name":"\u5e73\u621019\u5e74\u5ea6 \u5b89\u6ce2\u30fb\u666e\u4e45\u5ddd\u30fb\u8fba\u91ce\u559c\u30c0\u30e0\u7ba1\u7406\u65bd\u8a2d\u8a2d\u8a08\u696d\u52d9","client_name":"\u5185\u95a3\u5e9c\u6c96\u7e04\u7dcf\u5408\u4e8b\u52d9\u5c40\u958b\u767a\u5efa\u8a2d\u90e8\u5317\u90e8\u30c0\u30e0\u7d71\u5408\u7ba1\u7406\u4e8b\u52d9\u6240","boring_xml_url":49,"boring_view_url":1,"soilmap_view_url":null,"soiltest_xml_url":0,"soiltest_view_url":0},{"id":223980,"code":"B4KJ201801011-2229","latitude":"26.74106228","longitude":"128.2811544","source_code":"OK20079005047300320003","project_name":"\u666e\u4e45\u5ddd\u30c0\u30e0\u6cd5\u9762\u5de5\u8a73\u7d30\u8a2d\u8a08","survey_name":"\u5e73\u621019\u5e74\u5ea6 \u5b89\u6ce2\u30fb\u666e\u4e45\u5ddd\u30fb\u8fba\u91ce\u559c\u30c0\u30e0\u7ba1\u7406\u65bd\u8a2d\u8a2d\u8a08\u696d\u52d9","client_name":"\u5185\u95a3\u5e9c\u6c96\u7e04\u7dcf\u5408\u4e8b\u52d9\u5c40\u958b\u767a\u5efa\u8a2d\u90e8\u5317\u90e8\u30c0\u30e0\u7d71\u5408\u7ba1\u7406\u4e8b\u52d9\u6240","boring_xml_url":49,"boring_view_url":1,"soilmap_view_url":null,"soiltest_xml_url":0,"soiltest_view_url":0},{"id":223979,"code":"B4KJ201801011-2228","latitude":"26.74011667","longitude":"128.2796333","source_code":"OK20079005047300320002","project_name":"\u666e\u4e45\u5ddd\u30c0\u30e0 \u3055\u304f\u4e95\u8abf\u67fb","survey_name":"\u5e73\u621019\u5e74\u5ea6 \u5b89\u6ce2\u30fb\u666e\u4e45\u5ddd\u30fb\u8fba\u91ce\u559c\u30c0\u30e0\u7ba1\u7406\u65bd\u8a2d\u8a2d\u8a08\u696d\u52d9","client_name":"\u5185\u95a3\u5e9c\u6c96\u7e04\u7dcf\u5408\u4e8b\u52d9\u5c40\u958b\u767a\u5efa\u8a2d\u90e8\u5317\u90e8\u30c0\u30e0\u7d71\u5408\u7ba1\u7406\u4e8b\u52d9\u6240","boring_xml_url":49,"boring_view_url":1,"soilmap_view_url":null,"soiltest_xml_url":0,"soiltest_view_url":0},{"id":223978,"code":"B4KJ201801011-2227","latitude":"26.70855556","longitude":"128.2689333","source_code":"OK20079005047300320001","project_name":"\u5b89\u6ce2\u30c0\u30e0 \u3055\u304f\u4e95\u8abf\u67fb","survey_name":"\u5e73\u621019\u5e74\u5ea6 \u5b89\u6ce2\u30fb\u666e\u4e45\u5ddd\u30fb\u8fba\u91ce\u559c\u30c0\u30e0\u7ba1\u7406\u65bd\u8a2d\u8a2d\u8a08\u696d\u52d9","client_name":"\u5185\u95a3\u5e9c\u6c96\u7e04\u7dcf\u5408\u4e8b\u52d9\u5c40\u958b\u767a\u5efa\u8a2d\u90e8\u5317\u90e8\u30c0\u30e0\u7d71\u5408\u7ba1\u7406\u4e8b\u52d9\u6240","boring_xml_url":49,"boring_view_url":1,"soilmap_view_url":null,"soiltest_xml_url":0,"soiltest_view_url":0},{"id":223977,"code":"B4KJ201801011-2226","latitude":"26.64413889","longitude":"128.1772694","source_code":"OK200790050007","project_name":"\u798f\u5730\u30c0\u30e0 \u6291\u6b62\u676d\u4fee\u6b63\u8a2d\u8a08","survey_name":"\u5e73\u621019\u5e74\u5ea6 \u798f\u5730\u30fb\u65b0\u5ddd\u30c0\u30e0\u7ba1\u7406\u65bd\u8a2d\u8a2d\u8a08\u696d\u52d9","client_name":"\u5185\u95a3\u5e9c\u6c96\u7e04\u7dcf\u5408\u4e8b\u52d9\u5c40\u958b\u767a\u5efa\u8a2d\u90e8\u5317\u90e8\u30c0\u30e0\u7d71\u5408\u7ba1\u7406\u4e8b\u52d9\u6240","boring_xml_url":41,"boring_view_url":1,"soilmap_view_url":null,"soiltest_xml_url":0,"soiltest_view_url":0},{"id":223976,"code":"B4KJ201801011-2225","latitude":"26.644075","longitude":"128.1771972","source_code":"OK200790050006","project_name":"\u798f\u5730\u30c0\u30e0 \u6291\u6b62\u676d\u4fee\u6b63\u8a2d\u8a08","survey_name":"\u5e73\u621019\u5e74\u5ea6 \u798f\u5730\u30fb\u65b0\u5ddd\u30c0\u30e0\u7ba1\u7406\u65bd\u8a2d\u8a2d\u8a08\u696d\u52d9","client_name":"\u5185\u95a3\u5e9c\u6c96\u7e04\u7dcf\u5408\u4e8b\u52d9\u5c40\u958b\u767a\u5efa\u8a2d\u90e8\u5317\u90e8\u30c0\u30e0\u7d71\u5408\u7ba1\u7406\u4e8b\u52d9\u6240","boring_xml_url":41,"boring_view_url":1,"soilmap_view_url":null,"soiltest_xml_url":0,"soiltest_view_url":0}]}}