{"header":{"xyz":{"source":[],"mosaic":false},"page":3232,"raw":{"soiltest_result":"0","bbox":"57.598333,109.544722,1.933333,163.806111","page":"3232"},"conditions":{"soiltest_result":0,"north":57.598333,"west":109.544722,"south":1.933333,"east":163.806111},"success":true,"message":""},"data":{"meta":{"total":212844,"page":3232,"pages":7095,"count":30},"values":[{"id":223615,"code":"B4KJ201801011-1864","latitude":"26.21619167","longitude":"127.6677242","source_code":"OK200202101200200006","project_name":"\u90a3\u8987\u897f\u9053\u8def\u6a4b\u6881\u5730\u8cea\u8abf\u67fb(\u305d\u306e1)\u696d\u52d9","survey_name":"\u90a3\u8987\u897f\u9053\u8def\u6a4b\u6881\u5730\u8cea\u8abf\u67fb(\u305d\u306e1)\u696d\u52d9","client_name":"\u5185\u95a3\u5e9c\u6c96\u7e04\u7dcf\u5408\u4e8b\u52d9\u5c40\u958b\u767a\u5efa\u8a2d\u90e8\u5357\u90e8\u56fd\u9053\u4e8b\u52d9\u6240","boring_xml_url":47,"boring_view_url":1,"soilmap_view_url":null,"soiltest_xml_url":0,"soiltest_view_url":0},{"id":223614,"code":"B4KJ201801011-1863","latitude":"26.21640136","longitude":"127.6676281","source_code":"OK200202101200200005","project_name":"\u90a3\u8987\u897f\u9053\u8def\u6a4b\u6881\u5730\u8cea\u8abf\u67fb(\u305d\u306e1)\u696d\u52d9","survey_name":"\u90a3\u8987\u897f\u9053\u8def\u6a4b\u6881\u5730\u8cea\u8abf\u67fb(\u305d\u306e1)\u696d\u52d9","client_name":"\u5185\u95a3\u5e9c\u6c96\u7e04\u7dcf\u5408\u4e8b\u52d9\u5c40\u958b\u767a\u5efa\u8a2d\u90e8\u5357\u90e8\u56fd\u9053\u4e8b\u52d9\u6240","boring_xml_url":47,"boring_view_url":1,"soilmap_view_url":null,"soiltest_xml_url":0,"soiltest_view_url":0},{"id":223613,"code":"B4KJ201801011-1862","latitude":"26.21605475","longitude":"127.6673858","source_code":"OK200202101200200004","project_name":"\u90a3\u8987\u897f\u9053\u8def\u6a4b\u6881\u5730\u8cea\u8abf\u67fb(\u305d\u306e1)\u696d\u52d9","survey_name":"\u90a3\u8987\u897f\u9053\u8def\u6a4b\u6881\u5730\u8cea\u8abf\u67fb(\u305d\u306e1)\u696d\u52d9","client_name":"\u5185\u95a3\u5e9c\u6c96\u7e04\u7dcf\u5408\u4e8b\u52d9\u5c40\u958b\u767a\u5efa\u8a2d\u90e8\u5357\u90e8\u56fd\u9053\u4e8b\u52d9\u6240","boring_xml_url":47,"boring_view_url":1,"soilmap_view_url":null,"soiltest_xml_url":0,"soiltest_view_url":0},{"id":223612,"code":"B4KJ201801011-1861","latitude":"26.21587781","longitude":"127.6670689","source_code":"OK200202101200200002","project_name":"\u90a3\u8987\u897f\u9053\u8def\u6a4b\u6881\u5730\u8cea\u8abf\u67fb(\u305d\u306e1)\u696d\u52d9","survey_name":"\u90a3\u8987\u897f\u9053\u8def\u6a4b\u6881\u5730\u8cea\u8abf\u67fb(\u305d\u306e1)\u696d\u52d9","client_name":"\u5185\u95a3\u5e9c\u6c96\u7e04\u7dcf\u5408\u4e8b\u52d9\u5c40\u958b\u767a\u5efa\u8a2d\u90e8\u5357\u90e8\u56fd\u9053\u4e8b\u52d9\u6240","boring_xml_url":47,"boring_view_url":1,"soilmap_view_url":null,"soiltest_xml_url":0,"soiltest_view_url":0},{"id":223611,"code":"B4KJ201801011-1860","latitude":"26.21609894","longitude":"127.6669236","source_code":"OK200202101200200001","project_name":"\u90a3\u8987\u897f\u9053\u8def\u6a4b\u6881\u5730\u8cea\u8abf\u67fb(\u305d\u306e1)\u696d\u52d9","survey_name":"\u90a3\u8987\u897f\u9053\u8def\u6a4b\u6881\u5730\u8cea\u8abf\u67fb(\u305d\u306e1)\u696d\u52d9","client_name":"\u5185\u95a3\u5e9c\u6c96\u7e04\u7dcf\u5408\u4e8b\u52d9\u5c40\u958b\u767a\u5efa\u8a2d\u90e8\u5357\u90e8\u56fd\u9053\u4e8b\u52d9\u6240","boring_xml_url":47,"boring_view_url":1,"soilmap_view_url":null,"soiltest_xml_url":0,"soiltest_view_url":0},{"id":223610,"code":"B4KJ201801011-1859","latitude":"26.38816944","longitude":"127.7489083","source_code":"OK200202101200190006","project_name":"","survey_name":"\u8aad\u8c37\u9053\u8def(5\u5de5\u533a)\u5730\u8cea\u8abf\u67fb\u696d\u52d9","client_name":"\u5185\u95a3\u5e9c\u6c96\u7e04\u7dcf\u5408\u4e8b\u52d9\u5c40\u958b\u767a\u5efa\u8a2d\u90e8\u5357\u90e8\u56fd\u9053\u4e8b\u52d9\u6240","boring_xml_url":47,"boring_view_url":1,"soilmap_view_url":null,"soiltest_xml_url":0,"soiltest_view_url":0},{"id":223609,"code":"B4KJ201801011-1858","latitude":"26.39105","longitude":"127.7491333","source_code":"OK200202101200190005","project_name":"","survey_name":"\u8aad\u8c37\u9053\u8def(5\u5de5\u533a)\u5730\u8cea\u8abf\u67fb\u696d\u52d9","client_name":"\u5185\u95a3\u5e9c\u6c96\u7e04\u7dcf\u5408\u4e8b\u52d9\u5c40\u958b\u767a\u5efa\u8a2d\u90e8\u5357\u90e8\u56fd\u9053\u4e8b\u52d9\u6240","boring_xml_url":47,"boring_view_url":1,"soilmap_view_url":null,"soiltest_xml_url":0,"soiltest_view_url":0},{"id":223608,"code":"B4KJ201801011-1857","latitude":"26.39950278","longitude":"127.7499333","source_code":"OK200202101200190004","project_name":"","survey_name":"\u8aad\u8c37\u9053\u8def(5\u5de5\u533a)\u5730\u8cea\u8abf\u67fb\u696d\u52d9","client_name":"\u5185\u95a3\u5e9c\u6c96\u7e04\u7dcf\u5408\u4e8b\u52d9\u5c40\u958b\u767a\u5efa\u8a2d\u90e8\u5357\u90e8\u56fd\u9053\u4e8b\u52d9\u6240","boring_xml_url":47,"boring_view_url":1,"soilmap_view_url":null,"soiltest_xml_url":0,"soiltest_view_url":0},{"id":223607,"code":"B4KJ201801011-1856","latitude":"26.40064722","longitude":"127.7502167","source_code":"OK200202101200190003","project_name":"","survey_name":"\u8aad\u8c37\u9053\u8def(5\u5de5\u533a)\u5730\u8cea\u8abf\u67fb\u696d\u52d9","client_name":"\u5185\u95a3\u5e9c\u6c96\u7e04\u7dcf\u5408\u4e8b\u52d9\u5c40\u958b\u767a\u5efa\u8a2d\u90e8\u5357\u90e8\u56fd\u9053\u4e8b\u52d9\u6240","boring_xml_url":47,"boring_view_url":1,"soilmap_view_url":null,"soiltest_xml_url":0,"soiltest_view_url":0},{"id":223606,"code":"B4KJ201801011-1855","latitude":"26.40164444","longitude":"127.7505361","source_code":"OK200202101200190002","project_name":"","survey_name":"\u8aad\u8c37\u9053\u8def(5\u5de5\u533a)\u5730\u8cea\u8abf\u67fb\u696d\u52d9","client_name":"\u5185\u95a3\u5e9c\u6c96\u7e04\u7dcf\u5408\u4e8b\u52d9\u5c40\u958b\u767a\u5efa\u8a2d\u90e8\u5357\u90e8\u56fd\u9053\u4e8b\u52d9\u6240","boring_xml_url":47,"boring_view_url":1,"soilmap_view_url":null,"soiltest_xml_url":0,"soiltest_view_url":0},{"id":223605,"code":"B4KJ201801011-1854","latitude":"26.40405833","longitude":"127.7521","source_code":"OK200202101200190001","project_name":"","survey_name":"\u8aad\u8c37\u9053\u8def(5\u5de5\u533a)\u5730\u8cea\u8abf\u67fb\u696d\u52d9","client_name":"\u5185\u95a3\u5e9c\u6c96\u7e04\u7dcf\u5408\u4e8b\u52d9\u5c40\u958b\u767a\u5efa\u8a2d\u90e8\u5357\u90e8\u56fd\u9053\u4e8b\u52d9\u6240","boring_xml_url":47,"boring_view_url":1,"soilmap_view_url":null,"soiltest_xml_url":0,"soiltest_view_url":0},{"id":223604,"code":"B4KJ201801011-1853","latitude":"26.20972222","longitude":"127.6527778","source_code":"OK200202101200120001","project_name":"","survey_name":"\u90a3\u8987\u897f\u9053\u8def\u7a7a\u6e2f\u5074\u9678\u4e0a\u30c8\u30f3\u30cd\u30eb\u8a73\u7d30\u8a2d\u8a08\u696d\u52d9","client_name":"\u5185\u95a3\u5e9c\u6c96\u7e04\u7dcf\u5408\u4e8b\u52d9\u5c40\u958b\u767a\u5efa\u8a2d\u90e8\u5357\u90e8\u56fd\u9053\u4e8b\u52d9\u6240","boring_xml_url":47,"boring_view_url":1,"soilmap_view_url":null,"soiltest_xml_url":0,"soiltest_view_url":0},{"id":223603,"code":"B4KJ201801011-1852","latitude":"26.19557506","longitude":"127.7161875","source_code":"OK200202100200060024","project_name":"\u4e0e\u90a3\u539f\u30fb\u5357\u98a8\u539f\u30d0\u30a4\u30d1\u30b9\u5730\u8cea\u8abf\u67fb\u89e3\u6790\u696d\u52d9","survey_name":"\u4e0e\u90a3\u539f\u30fb\u5357\u98a8\u539f\u30d0\u30a4\u30d1\u30b9","client_name":"\u5185\u95a3\u5e9c\u6c96\u7e04\u7dcf\u5408\u4e8b\u52d9\u5c40\u958b\u767a\u5efa\u8a2d\u90e8\u5357\u90e8\u56fd\u9053\u4e8b\u52d9\u6240","boring_xml_url":47,"boring_view_url":1,"soilmap_view_url":null,"soiltest_xml_url":0,"soiltest_view_url":0},{"id":223602,"code":"B4KJ201801011-1851","latitude":"26.19877022","longitude":"127.7217486","source_code":"OK200202100200060023","project_name":"\u4e0e\u90a3\u539f\u30fb\u5357\u98a8\u539f\u30d0\u30a4\u30d1\u30b9\u5730\u8cea\u8abf\u67fb\u89e3\u6790\u696d\u52d9","survey_name":"\u4e0e\u90a3\u539f\u30fb\u5357\u98a8\u539f\u30d0\u30a4\u30d1\u30b9","client_name":"\u5185\u95a3\u5e9c\u6c96\u7e04\u7dcf\u5408\u4e8b\u52d9\u5c40\u958b\u767a\u5efa\u8a2d\u90e8\u5357\u90e8\u56fd\u9053\u4e8b\u52d9\u6240","boring_xml_url":47,"boring_view_url":1,"soilmap_view_url":null,"soiltest_xml_url":0,"soiltest_view_url":0},{"id":223601,"code":"B4KJ201801011-1850","latitude":"26.20144936","longitude":"127.7296997","source_code":"OK200202100200060022","project_name":"\u4e0e\u90a3\u539f\u30fb\u5357\u98a8\u539f\u30d0\u30a4\u30d1\u30b9\u5730\u8cea\u8abf\u67fb\u89e3\u6790\u696d\u52d9","survey_name":"\u4e0e\u90a3\u539f\u30fb\u5357\u98a8\u539f\u30d0\u30a4\u30d1\u30b9","client_name":"\u5185\u95a3\u5e9c\u6c96\u7e04\u7dcf\u5408\u4e8b\u52d9\u5c40\u958b\u767a\u5efa\u8a2d\u90e8\u5357\u90e8\u56fd\u9053\u4e8b\u52d9\u6240","boring_xml_url":47,"boring_view_url":1,"soilmap_view_url":null,"soiltest_xml_url":0,"soiltest_view_url":0},{"id":223600,"code":"B4KJ201801011-1849","latitude":"26.20231883","longitude":"127.7305158","source_code":"OK200202100200060021","project_name":"\u4e0e\u90a3\u539f\u30fb\u5357\u98a8\u539f\u30d0\u30a4\u30d1\u30b9\u5730\u8cea\u8abf\u67fb\u89e3\u6790\u696d\u52d9","survey_name":"\u4e0e\u90a3\u539f\u30fb\u5357\u98a8\u539f\u30d0\u30a4\u30d1\u30b9","client_name":"\u5185\u95a3\u5e9c\u6c96\u7e04\u7dcf\u5408\u4e8b\u52d9\u5c40\u958b\u767a\u5efa\u8a2d\u90e8\u5357\u90e8\u56fd\u9053\u4e8b\u52d9\u6240","boring_xml_url":47,"boring_view_url":1,"soilmap_view_url":null,"soiltest_xml_url":0,"soiltest_view_url":0},{"id":223599,"code":"B4KJ201801011-1848","latitude":"26.20159203","longitude":"127.7307956","source_code":"OK200202100200060020","project_name":"\u4e0e\u90a3\u539f\u30fb\u5357\u98a8\u539f\u30d0\u30a4\u30d1\u30b9\u5730\u8cea\u8abf\u67fb\u89e3\u6790\u696d\u52d9","survey_name":"\u4e0e\u90a3\u539f\u30fb\u5357\u98a8\u539f\u30d0\u30a4\u30d1\u30b9","client_name":"\u5185\u95a3\u5e9c\u6c96\u7e04\u7dcf\u5408\u4e8b\u52d9\u5c40\u958b\u767a\u5efa\u8a2d\u90e8\u5357\u90e8\u56fd\u9053\u4e8b\u52d9\u6240","boring_xml_url":47,"boring_view_url":1,"soilmap_view_url":null,"soiltest_xml_url":0,"soiltest_view_url":0},{"id":223598,"code":"B4KJ201801011-1847","latitude":"26.20539397","longitude":"127.7311219","source_code":"OK200202100200060019","project_name":"\u4e0e\u90a3\u539f\u30fb\u5357\u98a8\u539f\u30d0\u30a4\u30d1\u30b9\u5730\u8cea\u8abf\u67fb\u89e3\u6790\u696d\u52d9","survey_name":"\u4e0e\u90a3\u539f\u30fb\u5357\u98a8\u539f\u30d0\u30a4\u30d1\u30b9","client_name":"\u5185\u95a3\u5e9c\u6c96\u7e04\u7dcf\u5408\u4e8b\u52d9\u5c40\u958b\u767a\u5efa\u8a2d\u90e8\u5357\u90e8\u56fd\u9053\u4e8b\u52d9\u6240","boring_xml_url":47,"boring_view_url":1,"soilmap_view_url":null,"soiltest_xml_url":0,"soiltest_view_url":0},{"id":223597,"code":"B4KJ201801011-1846","latitude":"26.20251775","longitude":"127.7311603","source_code":"OK200202100200060018","project_name":"\u4e0e\u90a3\u539f\u30fb\u5357\u98a8\u539f\u30d0\u30a4\u30d1\u30b9\u5730\u8cea\u8abf\u67fb\u89e3\u6790\u696d\u52d9","survey_name":"\u4e0e\u90a3\u539f\u30fb\u5357\u98a8\u539f\u30d0\u30a4\u30d1\u30b9","client_name":"\u5185\u95a3\u5e9c\u6c96\u7e04\u7dcf\u5408\u4e8b\u52d9\u5c40\u958b\u767a\u5efa\u8a2d\u90e8\u5357\u90e8\u56fd\u9053\u4e8b\u52d9\u6240","boring_xml_url":47,"boring_view_url":1,"soilmap_view_url":null,"soiltest_xml_url":0,"soiltest_view_url":0},{"id":223596,"code":"B4KJ201801011-1845","latitude":"26.20234544","longitude":"127.7312047","source_code":"OK200202100200060017","project_name":"\u4e0e\u90a3\u539f\u30fb\u5357\u98a8\u539f\u30d0\u30a4\u30d1\u30b9\u5730\u8cea\u8abf\u67fb\u89e3\u6790\u696d\u52d9","survey_name":"\u4e0e\u90a3\u539f\u30fb\u5357\u98a8\u539f\u30d0\u30a4\u30d1\u30b9","client_name":"\u5185\u95a3\u5e9c\u6c96\u7e04\u7dcf\u5408\u4e8b\u52d9\u5c40\u958b\u767a\u5efa\u8a2d\u90e8\u5357\u90e8\u56fd\u9053\u4e8b\u52d9\u6240","boring_xml_url":47,"boring_view_url":1,"soilmap_view_url":null,"soiltest_xml_url":0,"soiltest_view_url":0},{"id":223595,"code":"B4KJ201801011-1844","latitude":"26.20160564","longitude":"127.7315783","source_code":"OK200202100200060016","project_name":"\u4e0e\u90a3\u539f\u30fb\u5357\u98a8\u539f\u30d0\u30a4\u30d1\u30b9\u5730\u8cea\u8abf\u67fb\u89e3\u6790\u696d\u52d9","survey_name":"\u4e0e\u90a3\u539f\u30fb\u5357\u98a8\u539f\u30d0\u30a4\u30d1\u30b9","client_name":"\u5185\u95a3\u5e9c\u6c96\u7e04\u7dcf\u5408\u4e8b\u52d9\u5c40\u958b\u767a\u5efa\u8a2d\u90e8\u5357\u90e8\u56fd\u9053\u4e8b\u52d9\u6240","boring_xml_url":47,"boring_view_url":1,"soilmap_view_url":null,"soiltest_xml_url":0,"soiltest_view_url":0},{"id":223594,"code":"B4KJ201801011-1843","latitude":"26.20170947","longitude":"127.7315569","source_code":"OK200202100200060015","project_name":"\u4e0e\u90a3\u539f\u30fb\u5357\u98a8\u539f\u30d0\u30a4\u30d1\u30b9\u5730\u8cea\u8abf\u67fb\u89e3\u6790\u696d\u52d9","survey_name":"\u4e0e\u90a3\u539f\u30fb\u5357\u98a8\u539f\u30d0\u30a4\u30d1\u30b9","client_name":"\u5185\u95a3\u5e9c\u6c96\u7e04\u7dcf\u5408\u4e8b\u52d9\u5c40\u958b\u767a\u5efa\u8a2d\u90e8\u5357\u90e8\u56fd\u9053\u4e8b\u52d9\u6240","boring_xml_url":47,"boring_view_url":1,"soilmap_view_url":null,"soiltest_xml_url":0,"soiltest_view_url":0},{"id":223593,"code":"B4KJ201801011-1842","latitude":"26.19857228","longitude":"127.7384564","source_code":"OK200202100200060014","project_name":"\u4e0e\u90a3\u539f\u30fb\u5357\u98a8\u539f\u30d0\u30a4\u30d1\u30b9\u5730\u8cea\u8abf\u67fb\u89e3\u6790\u696d\u52d9","survey_name":"\u4e0e\u90a3\u539f\u30fb\u5357\u98a8\u539f\u30d0\u30a4\u30d1\u30b9","client_name":"\u5185\u95a3\u5e9c\u6c96\u7e04\u7dcf\u5408\u4e8b\u52d9\u5c40\u958b\u767a\u5efa\u8a2d\u90e8\u5357\u90e8\u56fd\u9053\u4e8b\u52d9\u6240","boring_xml_url":47,"boring_view_url":1,"soilmap_view_url":null,"soiltest_xml_url":0,"soiltest_view_url":0},{"id":223592,"code":"B4KJ201801011-1841","latitude":"26.19883731","longitude":"127.7422611","source_code":"OK200202100200060013","project_name":"\u4e0e\u90a3\u539f\u30fb\u5357\u98a8\u539f\u30d0\u30a4\u30d1\u30b9\u5730\u8cea\u8abf\u67fb\u89e3\u6790\u696d\u52d9","survey_name":"\u4e0e\u90a3\u539f\u30fb\u5357\u98a8\u539f\u30d0\u30a4\u30d1\u30b9","client_name":"\u5185\u95a3\u5e9c\u6c96\u7e04\u7dcf\u5408\u4e8b\u52d9\u5c40\u958b\u767a\u5efa\u8a2d\u90e8\u5357\u90e8\u56fd\u9053\u4e8b\u52d9\u6240","boring_xml_url":47,"boring_view_url":1,"soilmap_view_url":null,"soiltest_xml_url":0,"soiltest_view_url":0},{"id":223591,"code":"B4KJ201801011-1840","latitude":"26.20133322","longitude":"127.7510636","source_code":"OK200202100200060012","project_name":"\u4e0e\u90a3\u539f\u30fb\u5357\u98a8\u539f\u30d0\u30a4\u30d1\u30b9\u5730\u8cea\u8abf\u67fb\u89e3\u6790\u696d\u52d9","survey_name":"\u4e0e\u90a3\u539f\u30fb\u5357\u98a8\u539f\u30d0\u30a4\u30d1\u30b9","client_name":"\u5185\u95a3\u5e9c\u6c96\u7e04\u7dcf\u5408\u4e8b\u52d9\u5c40\u958b\u767a\u5efa\u8a2d\u90e8\u5357\u90e8\u56fd\u9053\u4e8b\u52d9\u6240","boring_xml_url":47,"boring_view_url":1,"soilmap_view_url":null,"soiltest_xml_url":0,"soiltest_view_url":0},{"id":223590,"code":"B4KJ201801011-1839","latitude":"26.20093775","longitude":"127.751605","source_code":"OK200202100200060011","project_name":"\u4e0e\u90a3\u539f\u30fb\u5357\u98a8\u539f\u30d0\u30a4\u30d1\u30b9\u5730\u8cea\u8abf\u67fb\u89e3\u6790\u696d\u52d9","survey_name":"\u4e0e\u90a3\u539f\u30fb\u5357\u98a8\u539f\u30d0\u30a4\u30d1\u30b9","client_name":"\u5185\u95a3\u5e9c\u6c96\u7e04\u7dcf\u5408\u4e8b\u52d9\u5c40\u958b\u767a\u5efa\u8a2d\u90e8\u5357\u90e8\u56fd\u9053\u4e8b\u52d9\u6240","boring_xml_url":47,"boring_view_url":1,"soilmap_view_url":null,"soiltest_xml_url":0,"soiltest_view_url":0},{"id":223589,"code":"B4KJ201801011-1838","latitude":"26.20213617","longitude":"127.7517122","source_code":"OK200202100200060010","project_name":"\u4e0e\u90a3\u539f\u30fb\u5357\u98a8\u539f\u30d0\u30a4\u30d1\u30b9\u5730\u8cea\u8abf\u67fb\u89e3\u6790\u696d\u52d9","survey_name":"\u4e0e\u90a3\u539f\u30fb\u5357\u98a8\u539f\u30d0\u30a4\u30d1\u30b9","client_name":"\u5185\u95a3\u5e9c\u6c96\u7e04\u7dcf\u5408\u4e8b\u52d9\u5c40\u958b\u767a\u5efa\u8a2d\u90e8\u5357\u90e8\u56fd\u9053\u4e8b\u52d9\u6240","boring_xml_url":47,"boring_view_url":1,"soilmap_view_url":null,"soiltest_xml_url":0,"soiltest_view_url":0},{"id":223588,"code":"B4KJ201801011-1837","latitude":"26.20202536","longitude":"127.7518656","source_code":"OK200202100200060009","project_name":"\u4e0e\u90a3\u539f\u30fb\u5357\u98a8\u539f\u30d0\u30a4\u30d1\u30b9\u5730\u8cea\u8abf\u67fb\u89e3\u6790\u696d\u52d9","survey_name":"\u4e0e\u90a3\u539f\u30fb\u5357\u98a8\u539f\u30d0\u30a4\u30d1\u30b9","client_name":"\u5185\u95a3\u5e9c\u6c96\u7e04\u7dcf\u5408\u4e8b\u52d9\u5c40\u958b\u767a\u5efa\u8a2d\u90e8\u5357\u90e8\u56fd\u9053\u4e8b\u52d9\u6240","boring_xml_url":47,"boring_view_url":1,"soilmap_view_url":null,"soiltest_xml_url":0,"soiltest_view_url":0},{"id":223587,"code":"B4KJ201801011-1836","latitude":"26.20164522","longitude":"127.7523856","source_code":"OK200202100200060008","project_name":"\u4e0e\u90a3\u539f\u30fb\u5357\u98a8\u539f\u30d0\u30a4\u30d1\u30b9\u5730\u8cea\u8abf\u67fb\u89e3\u6790\u696d\u52d9","survey_name":"\u4e0e\u90a3\u539f\u30fb\u5357\u98a8\u539f\u30d0\u30a4\u30d1\u30b9","client_name":"\u5185\u95a3\u5e9c\u6c96\u7e04\u7dcf\u5408\u4e8b\u52d9\u5c40\u958b\u767a\u5efa\u8a2d\u90e8\u5357\u90e8\u56fd\u9053\u4e8b\u52d9\u6240","boring_xml_url":47,"boring_view_url":1,"soilmap_view_url":null,"soiltest_xml_url":0,"soiltest_view_url":0},{"id":223586,"code":"B4KJ201801011-1835","latitude":"26.20171739","longitude":"127.7522869","source_code":"OK200202100200060007","project_name":"\u4e0e\u90a3\u539f\u30fb\u5357\u98a8\u539f\u30d0\u30a4\u30d1\u30b9\u5730\u8cea\u8abf\u67fb\u89e3\u6790\u696d\u52d9","survey_name":"\u4e0e\u90a3\u539f\u30fb\u5357\u98a8\u539f\u30d0\u30a4\u30d1\u30b9","client_name":"\u5185\u95a3\u5e9c\u6c96\u7e04\u7dcf\u5408\u4e8b\u52d9\u5c40\u958b\u767a\u5efa\u8a2d\u90e8\u5357\u90e8\u56fd\u9053\u4e8b\u52d9\u6240","boring_xml_url":47,"boring_view_url":1,"soilmap_view_url":null,"soiltest_xml_url":0,"soiltest_view_url":0}]}}