{"header":{"xyz":{"source":[],"mosaic":false},"page":3233,"raw":{"soiltest_result":"0","bbox":"57.598333,109.544722,1.933333,163.806111","page":"3233"},"conditions":{"soiltest_result":0,"north":57.598333,"west":109.544722,"south":1.933333,"east":163.806111},"success":true,"message":""},"data":{"meta":{"total":212844,"page":3233,"pages":7095,"count":30},"values":[{"id":223585,"code":"B4KJ201801011-1834","latitude":"26.20280622","longitude":"127.7522278","source_code":"OK200202100200060006","project_name":"\u4e0e\u90a3\u539f\u30fb\u5357\u98a8\u539f\u30d0\u30a4\u30d1\u30b9\u5730\u8cea\u8abf\u67fb\u89e3\u6790\u696d\u52d9","survey_name":"\u4e0e\u90a3\u539f\u30fb\u5357\u98a8\u539f\u30d0\u30a4\u30d1\u30b9","client_name":"\u5185\u95a3\u5e9c\u6c96\u7e04\u7dcf\u5408\u4e8b\u52d9\u5c40\u958b\u767a\u5efa\u8a2d\u90e8\u5357\u90e8\u56fd\u9053\u4e8b\u52d9\u6240","boring_xml_url":47,"boring_view_url":1,"soilmap_view_url":null,"soiltest_xml_url":0,"soiltest_view_url":0},{"id":223584,"code":"B4KJ201801011-1833","latitude":"26.20291836","longitude":"127.7524892","source_code":"OK200202100200060005","project_name":"\u4e0e\u90a3\u539f\u30fb\u5357\u98a8\u539f\u30d0\u30a4\u30d1\u30b9\u5730\u8cea\u8abf\u67fb\u89e3\u6790\u696d\u52d9","survey_name":"\u4e0e\u90a3\u539f\u30fb\u5357\u98a8\u539f\u30d0\u30a4\u30d1\u30b9","client_name":"\u5185\u95a3\u5e9c\u6c96\u7e04\u7dcf\u5408\u4e8b\u52d9\u5c40\u958b\u767a\u5efa\u8a2d\u90e8\u5357\u90e8\u56fd\u9053\u4e8b\u52d9\u6240","boring_xml_url":47,"boring_view_url":1,"soilmap_view_url":null,"soiltest_xml_url":0,"soiltest_view_url":0},{"id":223583,"code":"B4KJ201801011-1832","latitude":"26.20281836","longitude":"127.7526258","source_code":"OK200202100200060004","project_name":"\u4e0e\u90a3\u539f\u30fb\u5357\u98a8\u539f\u30d0\u30a4\u30d1\u30b9\u5730\u8cea\u8abf\u67fb\u89e3\u6790\u696d\u52d9","survey_name":"\u4e0e\u90a3\u539f\u30fb\u5357\u98a8\u539f\u30d0\u30a4\u30d1\u30b9","client_name":"\u5185\u95a3\u5e9c\u6c96\u7e04\u7dcf\u5408\u4e8b\u52d9\u5c40\u958b\u767a\u5efa\u8a2d\u90e8\u5357\u90e8\u56fd\u9053\u4e8b\u52d9\u6240","boring_xml_url":47,"boring_view_url":1,"soilmap_view_url":null,"soiltest_xml_url":0,"soiltest_view_url":0},{"id":223582,"code":"B4KJ201801011-1831","latitude":"26.20298528","longitude":"127.7527775","source_code":"OK200202100200060003","project_name":"\u4e0e\u90a3\u539f\u30fb\u5357\u98a8\u539f\u30d0\u30a4\u30d1\u30b9\u5730\u8cea\u8abf\u67fb\u89e3\u6790\u696d\u52d9","survey_name":"\u4e0e\u90a3\u539f\u30fb\u5357\u98a8\u539f\u30d0\u30a4\u30d1\u30b9","client_name":"\u5185\u95a3\u5e9c\u6c96\u7e04\u7dcf\u5408\u4e8b\u52d9\u5c40\u958b\u767a\u5efa\u8a2d\u90e8\u5357\u90e8\u56fd\u9053\u4e8b\u52d9\u6240","boring_xml_url":47,"boring_view_url":1,"soilmap_view_url":null,"soiltest_xml_url":0,"soiltest_view_url":0},{"id":223581,"code":"B4KJ201801011-1830","latitude":"26.20573783","longitude":"127.7559697","source_code":"OK200202100200060002","project_name":"\u4e0e\u90a3\u539f\u30fb\u5357\u98a8\u539f\u30d0\u30a4\u30d1\u30b9\u5730\u8cea\u8abf\u67fb\u89e3\u6790\u696d\u52d9","survey_name":"\u4e0e\u90a3\u539f\u30fb\u5357\u98a8\u539f\u30d0\u30a4\u30d1\u30b9","client_name":"\u5185\u95a3\u5e9c\u6c96\u7e04\u7dcf\u5408\u4e8b\u52d9\u5c40\u958b\u767a\u5efa\u8a2d\u90e8\u5357\u90e8\u56fd\u9053\u4e8b\u52d9\u6240","boring_xml_url":47,"boring_view_url":1,"soilmap_view_url":null,"soiltest_xml_url":0,"soiltest_view_url":0},{"id":223580,"code":"B4KJ201801011-1829","latitude":"26.20692653","longitude":"127.7576822","source_code":"OK200202100200060001","project_name":"\u4e0e\u90a3\u539f\u30fb\u5357\u98a8\u539f\u30d0\u30a4\u30d1\u30b9\u5730\u8cea\u8abf\u67fb\u89e3\u6790\u696d\u52d9","survey_name":"\u4e0e\u90a3\u539f\u30fb\u5357\u98a8\u539f\u30d1\u30a4\u30d1\u30b9","client_name":"\u5185\u95a3\u5e9c\u6c96\u7e04\u7dcf\u5408\u4e8b\u52d9\u5c40\u958b\u767a\u5efa\u8a2d\u90e8\u5357\u90e8\u56fd\u9053\u4e8b\u52d9\u6240","boring_xml_url":47,"boring_view_url":1,"soilmap_view_url":null,"soiltest_xml_url":0,"soiltest_view_url":0},{"id":223579,"code":"B4KJ201801011-1828","latitude":"26.20625544","longitude":"127.7566728","source_code":"OK2002021002000003","project_name":"\u4e0e\u90a3\u539f\u30d0\u30a4\u30d1\u30b9","survey_name":"\u4e0e\u90a3\u539f\u30d0\u30a4\u30d1\u30b91\u53f7\u6a4b\u4e88\u5099\u8a2d\u8a08\u696d\u52d9","client_name":"\u5185\u95a3\u5e9c\u6c96\u7e04\u7dcf\u5408\u4e8b\u52d9\u5c40\u958b\u767a\u5efa\u8a2d\u90e8\u5357\u90e8\u56fd\u9053\u4e8b\u52d9\u6240","boring_xml_url":45,"boring_view_url":1,"soilmap_view_url":null,"soiltest_xml_url":0,"soiltest_view_url":0},{"id":223578,"code":"B4KJ201801011-1827","latitude":"26.20600531","longitude":"127.7563242","source_code":"OK2002021002000002","project_name":"\u4e0e\u90a3\u539f\u30d0\u30a4\u30d1\u30b9","survey_name":"\u4e0e\u90a3\u539f\u30d0\u30a4\u30d1\u30b91\u53f7\u6a4b\u4e88\u5099\u8a2d\u8a08\u696d\u52d9","client_name":"\u5185\u95a3\u5e9c\u6c96\u7e04\u7dcf\u5408\u4e8b\u52d9\u5c40\u958b\u767a\u5efa\u8a2d\u90e8\u5357\u90e8\u56fd\u9053\u4e8b\u52d9\u6240","boring_xml_url":45,"boring_view_url":1,"soilmap_view_url":null,"soiltest_xml_url":0,"soiltest_view_url":0},{"id":223577,"code":"B4KJ201801011-1826","latitude":"26.20672686","longitude":"127.7569236","source_code":"OK2002021002000001","project_name":"\u4e0e\u90a3\u539f\u30d0\u30a4\u30d1\u30b9","survey_name":"\u4e0e\u90a3\u539f\u30d0\u30a4\u30d1\u30b91\u53f7\u6a4b\u4e88\u5099\u8a2d\u8a08\u696d\u52d9","client_name":"\u5185\u95a3\u5e9c\u6c96\u7e04\u7dcf\u5408\u4e8b\u52d9\u5c40\u958b\u767a\u5efa\u8a2d\u90e8\u5357\u90e8\u56fd\u9053\u4e8b\u52d9\u6240","boring_xml_url":45,"boring_view_url":1,"soilmap_view_url":null,"soiltest_xml_url":0,"soiltest_view_url":0},{"id":223576,"code":"B4KJ201801011-1825","latitude":"26.40607972","longitude":"127.7547225","source_code":"OK2000202101200180008","project_name":"","survey_name":"\u8aad\u8c37\u9053\u8def(4\u5de5\u533a)\u5730\u8cea\u8abf\u67fb\u696d\u52d9","client_name":"\u5185\u95a3\u5e9c\u6c96\u7e04\u7dcf\u5408\u4e8b\u52d9\u5c40\u958b\u767a\u5efa\u8a2d\u90e8\u5357\u90e8\u56fd\u9053\u4e8b\u52d9\u6240","boring_xml_url":48,"boring_view_url":1,"soilmap_view_url":null,"soiltest_xml_url":0,"soiltest_view_url":0},{"id":223575,"code":"B4KJ201801011-1824","latitude":"26.40626306","longitude":"127.7552669","source_code":"OK2000202101200180007","project_name":"","survey_name":"\u8aad\u8c37\u9053\u8def(4\u5de5\u533a)\u5730\u8cea\u8abf\u67fb\u696d\u52d9","client_name":"\u5185\u95a3\u5e9c\u6c96\u7e04\u7dcf\u5408\u4e8b\u52d9\u5c40\u958b\u767a\u5efa\u8a2d\u90e8\u5357\u90e8\u56fd\u9053\u4e8b\u52d9\u6240","boring_xml_url":48,"boring_view_url":1,"soilmap_view_url":null,"soiltest_xml_url":0,"soiltest_view_url":0},{"id":223574,"code":"B4KJ201801011-1823","latitude":"26.40639","longitude":"127.7569083","source_code":"OK2000202101200180006","project_name":"","survey_name":"\u8aad\u8c37\u9053\u8def(4\u5de5\u533a)\u5730\u8cea\u8abf\u67fb\u696d\u52d9","client_name":"\u5185\u95a3\u5e9c\u6c96\u7e04\u7dcf\u5408\u4e8b\u52d9\u5c40\u958b\u767a\u5efa\u8a2d\u90e8\u5357\u90e8\u56fd\u9053\u4e8b\u52d9\u6240","boring_xml_url":48,"boring_view_url":1,"soilmap_view_url":null,"soiltest_xml_url":0,"soiltest_view_url":0},{"id":223573,"code":"B4KJ201801011-1822","latitude":"26.40657917","longitude":"127.7578364","source_code":"OK2000202101200180005","project_name":"","survey_name":"\u8aad\u8c37\u9053\u8def(4\u5de5\u533a)\u5730\u8cea\u8abf\u67fb\u696d\u52d9","client_name":"\u5185\u95a3\u5e9c\u6c96\u7e04\u7dcf\u5408\u4e8b\u52d9\u5c40\u958b\u767a\u5efa\u8a2d\u90e8\u5357\u90e8\u56fd\u9053\u4e8b\u52d9\u6240","boring_xml_url":48,"boring_view_url":1,"soilmap_view_url":null,"soiltest_xml_url":0,"soiltest_view_url":0},{"id":223572,"code":"B4KJ201801011-1821","latitude":"26.40655944","longitude":"127.7585378","source_code":"OK2000202101200180004","project_name":"","survey_name":"\u8aad\u8c37\u9053\u8def(4\u5de5\u533a)\u5730\u8cea\u8abf\u67fb\u696d\u52d9","client_name":"\u5185\u95a3\u5e9c\u6c96\u7e04\u7dcf\u5408\u4e8b\u52d9\u5c40\u958b\u767a\u5efa\u8a2d\u90e8\u5357\u90e8\u56fd\u9053\u4e8b\u52d9\u6240","boring_xml_url":48,"boring_view_url":1,"soilmap_view_url":null,"soiltest_xml_url":0,"soiltest_view_url":0},{"id":223571,"code":"B4KJ201801011-1820","latitude":"26.40654639","longitude":"127.7589033","source_code":"OK2000202101200180003","project_name":"","survey_name":"\u8aad\u8c37\u9053\u8def(4\u5de5\u533a)\u5730\u8cea\u8abf\u67fb\u696d\u52d9","client_name":"\u5185\u95a3\u5e9c\u6c96\u7e04\u7dcf\u5408\u4e8b\u52d9\u5c40\u958b\u767a\u5efa\u8a2d\u90e8\u5357\u90e8\u56fd\u9053\u4e8b\u52d9\u6240","boring_xml_url":48,"boring_view_url":1,"soilmap_view_url":null,"soiltest_xml_url":0,"soiltest_view_url":0},{"id":223570,"code":"B4KJ201801011-1819","latitude":"26.40677389","longitude":"127.7605122","source_code":"OK2000202101200180002","project_name":"","survey_name":"\u8aad\u8c37\u9053\u8def(4\u5de5\u533a)\u5730\u8cea\u8abf\u67fb\u696d\u52d9","client_name":"\u5185\u95a3\u5e9c\u6c96\u7e04\u7dcf\u5408\u4e8b\u52d9\u5c40\u958b\u767a\u5efa\u8a2d\u90e8\u5357\u90e8\u56fd\u9053\u4e8b\u52d9\u6240","boring_xml_url":48,"boring_view_url":1,"soilmap_view_url":null,"soiltest_xml_url":0,"soiltest_view_url":0},{"id":223569,"code":"B4KJ201801011-1818","latitude":"26.40638472","longitude":"127.76062","source_code":"OK2000202101200180001","project_name":"","survey_name":"\u8aad\u8c37\u9053\u8def(4\u5de5\u533a)\u5730\u8cea\u8abf\u67fb\u696d\u52d9","client_name":"\u5185\u95a3\u5e9c\u6c96\u7e04\u7dcf\u5408\u4e8b\u52d9\u5c40\u958b\u767a\u5efa\u8a2d\u90e8\u5357\u90e8\u56fd\u9053\u4e8b\u52d9\u6240","boring_xml_url":48,"boring_view_url":1,"soilmap_view_url":null,"soiltest_xml_url":0,"soiltest_view_url":0},{"id":223568,"code":"B4KJ201801011-1817","latitude":"26.126675","longitude":"127.66675","source_code":"OK2000202100200090020","project_name":"","survey_name":"\u7cf8\u6e80\u9ad8\u67b6\u6a4b\u5730\u8cea\u8abf\u67fb(\u305d\u306e1)\u696d\u52d9","client_name":"\u5185\u95a3\u5e9c\u6c96\u7e04\u7dcf\u5408\u4e8b\u52d9\u5c40\u958b\u767a\u5efa\u8a2d\u90e8\u5357\u90e8\u56fd\u9053\u4e8b\u52d9\u6240","boring_xml_url":48,"boring_view_url":1,"soilmap_view_url":null,"soiltest_xml_url":0,"soiltest_view_url":0},{"id":223567,"code":"B4KJ201801011-1816","latitude":"26.16013889","longitude":"127.6669528","source_code":"OK2000202100200090019","project_name":"","survey_name":"\u7cf8\u6e80\u9ad8\u67b6\u6a4b\u5730\u8cea\u8abf\u67fb(\u305d\u306e1)\u696d\u52d9","client_name":"\u5185\u95a3\u5e9c\u6c96\u7e04\u7dcf\u5408\u4e8b\u52d9\u5c40\u958b\u767a\u5efa\u8a2d\u90e8\u5357\u90e8\u56fd\u9053\u4e8b\u52d9\u6240","boring_xml_url":48,"boring_view_url":1,"soilmap_view_url":null,"soiltest_xml_url":0,"soiltest_view_url":0},{"id":223566,"code":"B4KJ201801011-1815","latitude":"26.12743333","longitude":"127.6831667","source_code":"OK2000202100200090018","project_name":"","survey_name":"\u7cf8\u6e80\u9ad8\u67b6\u6a4b\u5730\u8cea\u8abf\u67fb(\u305d\u306e1)\u696d\u52d9","client_name":"\u5185\u95a3\u5e9c\u6c96\u7e04\u7dcf\u5408\u4e8b\u52d9\u5c40\u958b\u767a\u5efa\u8a2d\u90e8\u5357\u90e8\u56fd\u9053\u4e8b\u52d9\u6240","boring_xml_url":48,"boring_view_url":1,"soilmap_view_url":null,"soiltest_xml_url":0,"soiltest_view_url":0},{"id":223565,"code":"B4KJ201801011-1814","latitude":"26.1275","longitude":"127.6667889","source_code":"OK2000202100200090017","project_name":"","survey_name":"\u7cf8\u6e80\u9ad8\u67b6\u6a4b\u5730\u8cea\u8abf\u67fb(\u305d\u306e1)\u696d\u52d9","client_name":"\u5185\u95a3\u5e9c\u6c96\u7e04\u7dcf\u5408\u4e8b\u52d9\u5c40\u958b\u767a\u5efa\u8a2d\u90e8\u5357\u90e8\u56fd\u9053\u4e8b\u52d9\u6240","boring_xml_url":48,"boring_view_url":1,"soilmap_view_url":null,"soiltest_xml_url":0,"soiltest_view_url":0},{"id":223564,"code":"B4KJ201801011-1813","latitude":"26.128875","longitude":"127.6660889","source_code":"OK2000202100200090016","project_name":"","survey_name":"\u7cf8\u6e80\u9ad8\u67b6\u6a4b\u5730\u8cea\u8abf\u67fb(\u305d\u306e1)\u696d\u52d9","client_name":"\u5185\u95a3\u5e9c\u6c96\u7e04\u7dcf\u5408\u4e8b\u52d9\u5c40\u958b\u767a\u5efa\u8a2d\u90e8\u5357\u90e8\u56fd\u9053\u4e8b\u52d9\u6240","boring_xml_url":48,"boring_view_url":1,"soilmap_view_url":null,"soiltest_xml_url":0,"soiltest_view_url":0},{"id":223563,"code":"B4KJ201801011-1812","latitude":"26.12894444","longitude":"127.6663778","source_code":"OK2000202100200090015","project_name":"","survey_name":"\u7cf8\u6e80\u9ad8\u67b6\u6a4b\u5730\u8cea\u8abf\u67fb(\u305d\u306e1)\u696d\u52d9","client_name":"\u5185\u95a3\u5e9c\u6c96\u7e04\u7dcf\u5408\u4e8b\u52d9\u5c40\u958b\u767a\u5efa\u8a2d\u90e8\u5357\u90e8\u56fd\u9053\u4e8b\u52d9\u6240","boring_xml_url":48,"boring_view_url":1,"soilmap_view_url":null,"soiltest_xml_url":0,"soiltest_view_url":0},{"id":223562,"code":"B4KJ201801011-1811","latitude":"26.12965","longitude":"127.6659083","source_code":"OK2000202100200090014","project_name":"","survey_name":"\u7cf8\u6e80\u9ad8\u67b6\u6a4b\u5730\u8cea\u8abf\u67fb(\u305d\u306e1)\u696d\u52d9","client_name":"\u5185\u95a3\u5e9c\u6c96\u7e04\u7dcf\u5408\u4e8b\u52d9\u5c40\u958b\u767a\u5efa\u8a2d\u90e8\u5357\u90e8\u56fd\u9053\u4e8b\u52d9\u6240","boring_xml_url":48,"boring_view_url":1,"soilmap_view_url":null,"soiltest_xml_url":0,"soiltest_view_url":0},{"id":223561,"code":"B4KJ201801011-1810","latitude":"26.12962222","longitude":"127.6661472","source_code":"OK2000202100200090013","project_name":"","survey_name":"\u7cf8\u6e80\u9ad8\u67b6\u6a4b\u5730\u8cea\u8abf\u67fb(\u305d\u306e1)\u696d\u52d9","client_name":"\u5185\u95a3\u5e9c\u6c96\u7e04\u7dcf\u5408\u4e8b\u52d9\u5c40\u958b\u767a\u5efa\u8a2d\u90e8\u5357\u90e8\u56fd\u9053\u4e8b\u52d9\u6240","boring_xml_url":48,"boring_view_url":1,"soilmap_view_url":null,"soiltest_xml_url":0,"soiltest_view_url":0},{"id":223560,"code":"B4KJ201801011-1809","latitude":"26.12991944","longitude":"127.6658306","source_code":"OK2000202100200090012","project_name":"","survey_name":"\u7cf8\u6e80\u9ad8\u67b6\u6a4b\u5730\u8cea\u8abf\u67fb(\u305d\u306e1)\u696d\u52d9","client_name":"\u5185\u95a3\u5e9c\u6c96\u7e04\u7dcf\u5408\u4e8b\u52d9\u5c40\u958b\u767a\u5efa\u8a2d\u90e8\u5357\u90e8\u56fd\u9053\u4e8b\u52d9\u6240","boring_xml_url":48,"boring_view_url":1,"soilmap_view_url":null,"soiltest_xml_url":0,"soiltest_view_url":0},{"id":223559,"code":"B4KJ201801011-1808","latitude":"26.12991944","longitude":"127.6660611","source_code":"OK2000202100200090011","project_name":"","survey_name":"\u7cf8\u6e80\u9ad8\u67b6\u6a4b\u5730\u8cea\u8abf\u67fb(\u305d\u306e1)\u696d\u52d9","client_name":"\u5185\u95a3\u5e9c\u6c96\u7e04\u7dcf\u5408\u4e8b\u52d9\u5c40\u958b\u767a\u5efa\u8a2d\u90e8\u5357\u90e8\u56fd\u9053\u4e8b\u52d9\u6240","boring_xml_url":48,"boring_view_url":1,"soilmap_view_url":null,"soiltest_xml_url":0,"soiltest_view_url":0},{"id":223558,"code":"B4KJ201801011-1807","latitude":"26.13020278","longitude":"127.66575","source_code":"OK2000202100200090010","project_name":"","survey_name":"\u7cf8\u6e80\u9ad8\u67b6\u6a4b\u5730\u8cea\u8abf\u67fb(\u305d\u306e1)\u696d\u52d9","client_name":"\u5185\u95a3\u5e9c\u6c96\u7e04\u7dcf\u5408\u4e8b\u52d9\u5c40\u958b\u767a\u5efa\u8a2d\u90e8\u5357\u90e8\u56fd\u9053\u4e8b\u52d9\u6240","boring_xml_url":48,"boring_view_url":1,"soilmap_view_url":null,"soiltest_xml_url":0,"soiltest_view_url":0},{"id":223557,"code":"B4KJ201801011-1806","latitude":"26.1302","longitude":"127.6659806","source_code":"OK2000202100200090009","project_name":"","survey_name":"\u7cf8\u6e80\u9ad8\u67b6\u6a4b\u5730\u8cea\u8abf\u67fb(\u305d\u306e1)\u696d\u52d9","client_name":"\u5185\u95a3\u5e9c\u6c96\u7e04\u7dcf\u5408\u4e8b\u52d9\u5c40\u958b\u767a\u5efa\u8a2d\u90e8\u5357\u90e8\u56fd\u9053\u4e8b\u52d9\u6240","boring_xml_url":48,"boring_view_url":1,"soilmap_view_url":null,"soiltest_xml_url":0,"soiltest_view_url":0},{"id":223556,"code":"B4KJ201801011-1805","latitude":"26.13048333","longitude":"127.66565","source_code":"OK2000202100200090008","project_name":"","survey_name":"\u7cf8\u6e80\u9ad8\u67b6\u6a4b\u5730\u8cea\u8abf\u67fb(\u305d\u306e1)\u696d\u52d9","client_name":"\u5185\u95a3\u5e9c\u6c96\u7e04\u7dcf\u5408\u4e8b\u52d9\u5c40\u958b\u767a\u5efa\u8a2d\u90e8\u5357\u90e8\u56fd\u9053\u4e8b\u52d9\u6240","boring_xml_url":48,"boring_view_url":1,"soilmap_view_url":null,"soiltest_xml_url":0,"soiltest_view_url":0}]}}