{"header":{"xyz":{"source":[],"mosaic":false},"page":3249,"raw":{"soiltest_result":"0","bbox":"57.598333,109.544722,1.933333,163.806111","page":"3249"},"conditions":{"soiltest_result":0,"north":57.598333,"west":109.544722,"south":1.933333,"east":163.806111},"success":true,"message":""},"data":{"meta":{"total":212844,"page":3249,"pages":7095,"count":30},"values":[{"id":223105,"code":"B4KJ201801011-1354","latitude":"33.4600142","longitude":"131.3455867","source_code":"QS50311247006","project_name":"","survey_name":"\u5b87\u4f50\u5225\u5e9c\u9053\u8def\u5f3e\u6027\u6ce2\u63a2\u67fb\u59161\u4ef6\u8abf\u67fb\u696d\u52d9","client_name":"\u56fd\u571f\u4ea4\u901a\u7701\u4e5d\u5dde\u5730\u65b9\u6574\u5099\u5c40\u5927\u5206\u6cb3\u5ddd\u56fd\u9053\u4e8b\u52d9\u6240","boring_xml_url":40,"boring_view_url":1,"soilmap_view_url":null,"soiltest_xml_url":0,"soiltest_view_url":0},{"id":223104,"code":"B4KJ201801011-1353","latitude":"33.4599586","longitude":"131.3457811","source_code":"QS50311247005","project_name":"","survey_name":"\u5b87\u4f50\u5225\u5e9c\u9053\u8def\u5f3e\u6027\u6ce2\u63a2\u67fb\u59161\u4ef6\u8abf\u67fb\u696d\u52d9","client_name":"\u56fd\u571f\u4ea4\u901a\u7701\u4e5d\u5dde\u5730\u65b9\u6574\u5099\u5c40\u5927\u5206\u6cb3\u5ddd\u56fd\u9053\u4e8b\u52d9\u6240","boring_xml_url":40,"boring_view_url":1,"soilmap_view_url":null,"soiltest_xml_url":0,"soiltest_view_url":0},{"id":223103,"code":"B4KJ201801011-1352","latitude":"33.4590422","longitude":"131.3469478","source_code":"QS50311247004","project_name":"","survey_name":"\u5b87\u4f50\u5225\u5e9c\u9053\u8def\u5357\u6bdb\uff5e\u539f\u9593\u5730\u8cea\u8abf\u67fb\u696d\u52d9","client_name":"\u56fd\u571f\u4ea4\u901a\u7701\u4e5d\u5dde\u5730\u65b9\u6574\u5099\u5c40\u5927\u5206\u6cb3\u5ddd\u56fd\u9053\u4e8b\u52d9\u6240","boring_xml_url":40,"boring_view_url":1,"soilmap_view_url":null,"soiltest_xml_url":0,"soiltest_view_url":0},{"id":223102,"code":"B4KJ201801011-1351","latitude":"33.4587644","longitude":"131.3465867","source_code":"QS50311247003","project_name":"","survey_name":"\u5b87\u4f50\u5225\u5e9c\u9053\u8def\u5357\u6bdb\uff5e\u539f\u9593\u5730\u8cea\u8abf\u67fb\u696d\u52d9","client_name":"\u56fd\u571f\u4ea4\u901a\u7701\u4e5d\u5dde\u5730\u65b9\u6574\u5099\u5c40\u5927\u5206\u6cb3\u5ddd\u56fd\u9053\u4e8b\u52d9\u6240","boring_xml_url":40,"boring_view_url":1,"soilmap_view_url":null,"soiltest_xml_url":0,"soiltest_view_url":0},{"id":223101,"code":"B4KJ201801011-1350","latitude":"33.4599864","longitude":"131.3450033","source_code":"QS50311247002","project_name":"","survey_name":"\u5b87\u4f50\u30fb\u5225\u5e9c\u9053\u8def\u5e83\u702c\uff5e\u4e0b\u6bdb\u9593\u5730\u8cea\u8abf\u67fb\u696d\u52d9","client_name":"\u56fd\u571f\u4ea4\u901a\u7701\u4e5d\u5dde\u5730\u65b9\u6574\u5099\u5c40\u5927\u5206\u6cb3\u5ddd\u56fd\u9053\u4e8b\u52d9\u6240","boring_xml_url":40,"boring_view_url":1,"soilmap_view_url":null,"soiltest_xml_url":0,"soiltest_view_url":0},{"id":223100,"code":"B4KJ201801011-1349","latitude":"33.4602364","longitude":"131.3453922","source_code":"QS50311247001","project_name":"","survey_name":"\u5b87\u4f50\u30fb\u5225\u5e9c\u9053\u8def\u5e83\u702c\uff5e\u4e0b\u6bdb\u9593\u5730\u8cea\u8abf\u67fb\u696d\u52d9","client_name":"\u56fd\u571f\u4ea4\u901a\u7701\u4e5d\u5dde\u5730\u65b9\u6574\u5099\u5c40\u5927\u5206\u6cb3\u5ddd\u56fd\u9053\u4e8b\u52d9\u6240","boring_xml_url":40,"boring_view_url":1,"soilmap_view_url":null,"soiltest_xml_url":0,"soiltest_view_url":0},{"id":223099,"code":"B4KJ201801011-1348","latitude":"33.4479328","longitude":"131.3648075","source_code":"QS50311239048","project_name":"","survey_name":"\u5b87\u4f50\u5225\u5e9c\u9053\u8def\u539f\uff5e\u98ef\u7530\u9593\u5730\u8cea\u8abf\u67fb\u696d\u52d9","client_name":"\u56fd\u571f\u4ea4\u901a\u7701\u4e5d\u5dde\u5730\u65b9\u6574\u5099\u5c40\u5927\u5206\u6cb3\u5ddd\u56fd\u9053\u4e8b\u52d9\u6240","boring_xml_url":40,"boring_view_url":1,"soilmap_view_url":null,"soiltest_xml_url":0,"soiltest_view_url":0},{"id":223098,"code":"B4KJ201801011-1347","latitude":"33.4478772","longitude":"131.3647242","source_code":"QS50311239047","project_name":"","survey_name":"\u5b87\u4f50\u5225\u5e9c\u9053\u8def\u539f\uff5e\u98ef\u7530\u9593\u5730\u8cea\u8abf\u67fb\u696d\u52d9","client_name":"\u56fd\u571f\u4ea4\u901a\u7701\u4e5d\u5dde\u5730\u65b9\u6574\u5099\u5c40\u5927\u5206\u6cb3\u5ddd\u56fd\u9053\u4e8b\u52d9\u6240","boring_xml_url":40,"boring_view_url":1,"soilmap_view_url":null,"soiltest_xml_url":0,"soiltest_view_url":0},{"id":223097,"code":"B4KJ201801011-1346","latitude":"33.4477383","longitude":"131.3649464","source_code":"QS50311239046","project_name":"","survey_name":"\u5b87\u4f50\u5225\u5e9c\u9053\u8def\u539f\uff5e\u98ef\u7530\u9593\u5730\u8cea\u8abf\u67fb\u696d\u52d9","client_name":"\u56fd\u571f\u4ea4\u901a\u7701\u4e5d\u5dde\u5730\u65b9\u6574\u5099\u5c40\u5927\u5206\u6cb3\u5ddd\u56fd\u9053\u4e8b\u52d9\u6240","boring_xml_url":40,"boring_view_url":1,"soilmap_view_url":null,"soiltest_xml_url":0,"soiltest_view_url":0},{"id":223096,"code":"B4KJ201801011-1345","latitude":"33.4477939","longitude":"131.3650575","source_code":"QS50311239045","project_name":"","survey_name":"\u5b87\u4f50\u5225\u5e9c\u9053\u8def\u539f\uff5e\u98ef\u7530\u9593\u5730\u8cea\u8abf\u67fb\u696d\u52d9","client_name":"\u56fd\u571f\u4ea4\u901a\u7701\u4e5d\u5dde\u5730\u65b9\u6574\u5099\u5c40\u5927\u5206\u6cb3\u5ddd\u56fd\u9053\u4e8b\u52d9\u6240","boring_xml_url":40,"boring_view_url":1,"soilmap_view_url":null,"soiltest_xml_url":0,"soiltest_view_url":0},{"id":223095,"code":"B4KJ201801011-1344","latitude":"33.447655","longitude":"131.3653075","source_code":"QS50311239044","project_name":"","survey_name":"\u5b87\u4f50\u5225\u5e9c\u9053\u8def\u539f\uff5e\u98ef\u7530\u9593\u5730\u8cea\u8abf\u67fb\u696d\u52d9","client_name":"\u56fd\u571f\u4ea4\u901a\u7701\u4e5d\u5dde\u5730\u65b9\u6574\u5099\u5c40\u5927\u5206\u6cb3\u5ddd\u56fd\u9053\u4e8b\u52d9\u6240","boring_xml_url":40,"boring_view_url":1,"soilmap_view_url":null,"soiltest_xml_url":0,"soiltest_view_url":0},{"id":223094,"code":"B4KJ201801011-1343","latitude":"33.4475994","longitude":"131.3651964","source_code":"QS50311239043","project_name":"","survey_name":"\u5b87\u4f50\u5225\u5e9c\u9053\u8def\u539f\uff5e\u98ef\u7530\u9593\u5730\u8cea\u8abf\u67fb\u696d\u52d9","client_name":"\u56fd\u571f\u4ea4\u901a\u7701\u4e5d\u5dde\u5730\u65b9\u6574\u5099\u5c40\u5927\u5206\u6cb3\u5ddd\u56fd\u9053\u4e8b\u52d9\u6240","boring_xml_url":40,"boring_view_url":1,"soilmap_view_url":null,"soiltest_xml_url":0,"soiltest_view_url":0},{"id":223093,"code":"B4KJ201801011-1342","latitude":"33.4474883","longitude":"131.3656131","source_code":"QS50311239042","project_name":"","survey_name":"\u5b87\u4f50\u5225\u5e9c\u9053\u8def\u539f\uff5e\u98ef\u7530\u9593\u5730\u8cea\u8abf\u67fb\u696d\u52d9","client_name":"\u56fd\u571f\u4ea4\u901a\u7701\u4e5d\u5dde\u5730\u65b9\u6574\u5099\u5c40\u5927\u5206\u6cb3\u5ddd\u56fd\u9053\u4e8b\u52d9\u6240","boring_xml_url":40,"boring_view_url":1,"soilmap_view_url":null,"soiltest_xml_url":0,"soiltest_view_url":0},{"id":223092,"code":"B4KJ201801011-1341","latitude":"33.4474883","longitude":"131.3656131","source_code":"QS50311239041","project_name":"","survey_name":"\u5b87\u4f50\u5225\u5e9c\u9053\u8def\u539f\uff5e\u98ef\u7530\u9593\u5730\u8cea\u8abf\u67fb\u696d\u52d9","client_name":"\u56fd\u571f\u4ea4\u901a\u7701\u4e5d\u5dde\u5730\u65b9\u6574\u5099\u5c40\u5927\u5206\u6cb3\u5ddd\u56fd\u9053\u4e8b\u52d9\u6240","boring_xml_url":40,"boring_view_url":1,"soilmap_view_url":null,"soiltest_xml_url":0,"soiltest_view_url":0},{"id":223091,"code":"B4KJ201801011-1340","latitude":"33.4495992","longitude":"131.3625578","source_code":"QS50311239040","project_name":"","survey_name":"\u5b87\u4f50\u5225\u5e9c\u9053\u8def\u539f\uff5e\u98ef\u7530\u9593\u5730\u8cea\u8abf\u67fb\u696d\u52d9","client_name":"\u56fd\u571f\u4ea4\u901a\u7701\u4e5d\u5dde\u5730\u65b9\u6574\u5099\u5c40\u5927\u5206\u6cb3\u5ddd\u56fd\u9053\u4e8b\u52d9\u6240","boring_xml_url":40,"boring_view_url":1,"soilmap_view_url":null,"soiltest_xml_url":0,"soiltest_view_url":0},{"id":223090,"code":"B4KJ201801011-1339","latitude":"33.4495992","longitude":"131.3624189","source_code":"QS50311239039","project_name":"","survey_name":"\u5b87\u4f50\u5225\u5e9c\u9053\u8def\u539f\uff5e\u98ef\u7530\u9593\u5730\u8cea\u8abf\u67fb\u696d\u52d9","client_name":"\u56fd\u571f\u4ea4\u901a\u7701\u4e5d\u5dde\u5730\u65b9\u6574\u5099\u5c40\u5927\u5206\u6cb3\u5ddd\u56fd\u9053\u4e8b\u52d9\u6240","boring_xml_url":40,"boring_view_url":1,"soilmap_view_url":null,"soiltest_xml_url":0,"soiltest_view_url":0},{"id":223089,"code":"B4KJ201801011-1338","latitude":"33.4498492","longitude":"131.3621133","source_code":"QS50311239038","project_name":"","survey_name":"\u5b87\u4f50\u5225\u5e9c\u9053\u8def\u539f\uff5e\u98ef\u7530\u9593\u5730\u8cea\u8abf\u67fb\u696d\u52d9","client_name":"\u56fd\u571f\u4ea4\u901a\u7701\u4e5d\u5dde\u5730\u65b9\u6574\u5099\u5c40\u5927\u5206\u6cb3\u5ddd\u56fd\u9053\u4e8b\u52d9\u6240","boring_xml_url":40,"boring_view_url":1,"soilmap_view_url":null,"soiltest_xml_url":0,"soiltest_view_url":0},{"id":223088,"code":"B4KJ201801011-1337","latitude":"33.4498492","longitude":"131.3622522","source_code":"QS50311239037","project_name":"","survey_name":"\u5b87\u4f50\u5225\u5e9c\u9053\u8def\u539f\uff5e\u98ef\u7530\u9593\u5730\u8cea\u8abf\u67fb\u696d\u52d9","client_name":"\u56fd\u571f\u4ea4\u901a\u7701\u4e5d\u5dde\u5730\u65b9\u6574\u5099\u5c40\u5927\u5206\u6cb3\u5ddd\u56fd\u9053\u4e8b\u52d9\u6240","boring_xml_url":40,"boring_view_url":1,"soilmap_view_url":null,"soiltest_xml_url":0,"soiltest_view_url":0},{"id":223087,"code":"B4KJ201801011-1336","latitude":"33.4500989","longitude":"131.3619744","source_code":"QS50311239036","project_name":"","survey_name":"\u5b87\u4f50\u5225\u5e9c\u9053\u8def\u539f\uff5e\u98ef\u7530\u9593\u5730\u8cea\u8abf\u67fb\u696d\u52d9","client_name":"\u56fd\u571f\u4ea4\u901a\u7701\u4e5d\u5dde\u5730\u65b9\u6574\u5099\u5c40\u5927\u5206\u6cb3\u5ddd\u56fd\u9053\u4e8b\u52d9\u6240","boring_xml_url":40,"boring_view_url":1,"soilmap_view_url":null,"soiltest_xml_url":0,"soiltest_view_url":0},{"id":223086,"code":"B4KJ201801011-1335","latitude":"33.4500989","longitude":"131.3619744","source_code":"QS50311239035","project_name":"","survey_name":"\u5b87\u4f50\u5225\u5e9c\u9053\u8def\u539f\uff5e\u98ef\u7530\u9593\u5730\u8cea\u8abf\u67fb\u696d\u52d9","client_name":"\u56fd\u571f\u4ea4\u901a\u7701\u4e5d\u5dde\u5730\u65b9\u6574\u5099\u5c40\u5927\u5206\u6cb3\u5ddd\u56fd\u9053\u4e8b\u52d9\u6240","boring_xml_url":40,"boring_view_url":1,"soilmap_view_url":null,"soiltest_xml_url":0,"soiltest_view_url":0},{"id":223085,"code":"B4KJ201801011-1334","latitude":"33.4503767","longitude":"131.3617244","source_code":"QS50311239034","project_name":"","survey_name":"\u5b87\u4f50\u5225\u5e9c\u9053\u8def\u539f\uff5e\u98ef\u7530\u9593\u5730\u8cea\u8abf\u67fb\u696d\u52d9","client_name":"\u56fd\u571f\u4ea4\u901a\u7701\u4e5d\u5dde\u5730\u65b9\u6574\u5099\u5c40\u5927\u5206\u6cb3\u5ddd\u56fd\u9053\u4e8b\u52d9\u6240","boring_xml_url":40,"boring_view_url":1,"soilmap_view_url":null,"soiltest_xml_url":0,"soiltest_view_url":0},{"id":223084,"code":"B4KJ201801011-1333","latitude":"33.4504322","longitude":"131.3615022","source_code":"QS50311239033","project_name":"","survey_name":"\u5b87\u4f50\u5225\u5e9c\u9053\u8def\u539f\uff5e\u98ef\u7530\u9593\u5730\u8cea\u8abf\u67fb\u696d\u52d9","client_name":"\u56fd\u571f\u4ea4\u901a\u7701\u4e5d\u5dde\u5730\u65b9\u6574\u5099\u5c40\u5927\u5206\u6cb3\u5ddd\u56fd\u9053\u4e8b\u52d9\u6240","boring_xml_url":40,"boring_view_url":1,"soilmap_view_url":null,"soiltest_xml_url":0,"soiltest_view_url":0},{"id":223083,"code":"B4KJ201801011-1332","latitude":"33.4494047","longitude":"131.3625856","source_code":"QS50311239032","project_name":"","survey_name":"\u5b87\u4f50\u5225\u5e9c\u9053\u8def\u5357\u6bdb\uff5e\u98ef\u7530\u9593\u5730\u8cea\u8abf\u67fb\u696d\u52d9","client_name":"\u56fd\u571f\u4ea4\u901a\u7701\u4e5d\u5dde\u5730\u65b9\u6574\u5099\u5c40\u5927\u5206\u6cb3\u5ddd\u56fd\u9053\u4e8b\u52d9\u6240","boring_xml_url":40,"boring_view_url":1,"soilmap_view_url":null,"soiltest_xml_url":0,"soiltest_view_url":0},{"id":223082,"code":"B4KJ201801011-1331","latitude":"33.4516267","longitude":"131.3617522","source_code":"QS50311239031","project_name":"","survey_name":"\u5b87\u4f50\u5225\u5e9c\u9053\u8def\u5357\u6bdb\uff5e\u98ef\u7530\u9593\u5730\u8cea\u8abf\u67fb\u696d\u52d9","client_name":"\u56fd\u571f\u4ea4\u901a\u7701\u4e5d\u5dde\u5730\u65b9\u6574\u5099\u5c40\u5927\u5206\u6cb3\u5ddd\u56fd\u9053\u4e8b\u52d9\u6240","boring_xml_url":40,"boring_view_url":1,"soilmap_view_url":null,"soiltest_xml_url":0,"soiltest_view_url":0},{"id":223081,"code":"B4KJ201801011-1330","latitude":"33.4507933","longitude":"131.3609189","source_code":"QS50311239030","project_name":"","survey_name":"\u5b87\u4f50\u5225\u5e9c\u9053\u8def\u5357\u6bdb\uff5e\u98ef\u7530\u9593\u5730\u8cea\u8abf\u67fb\u696d\u52d9","client_name":"\u56fd\u571f\u4ea4\u901a\u7701\u4e5d\u5dde\u5730\u65b9\u6574\u5099\u5c40\u5927\u5206\u6cb3\u5ddd\u56fd\u9053\u4e8b\u52d9\u6240","boring_xml_url":40,"boring_view_url":1,"soilmap_view_url":null,"soiltest_xml_url":0,"soiltest_view_url":0},{"id":223080,"code":"B4KJ201801011-1329","latitude":"33.4513489","longitude":"131.3609189","source_code":"QS50311239029","project_name":"","survey_name":"\u5b87\u4f50\u5225\u5e9c\u9053\u8def\u5357\u6bdb\uff5e\u98ef\u7530\u9593\u5730\u8cea\u8abf\u67fb\u696d\u52d9","client_name":"\u56fd\u571f\u4ea4\u901a\u7701\u4e5d\u5dde\u5730\u65b9\u6574\u5099\u5c40\u5927\u5206\u6cb3\u5ddd\u56fd\u9053\u4e8b\u52d9\u6240","boring_xml_url":40,"boring_view_url":1,"soilmap_view_url":null,"soiltest_xml_url":0,"soiltest_view_url":0},{"id":223079,"code":"B4KJ201801011-1328","latitude":"33.4510711","longitude":"131.3603633","source_code":"QS50311239028","project_name":"","survey_name":"\u5b87\u4f50\u5225\u5e9c\u9053\u8def\u5357\u6bdb\uff5e\u98ef\u7530\u9593\u5730\u8cea\u8abf\u67fb\u696d\u52d9","client_name":"\u56fd\u571f\u4ea4\u901a\u7701\u4e5d\u5dde\u5730\u65b9\u6574\u5099\u5c40\u5927\u5206\u6cb3\u5ddd\u56fd\u9053\u4e8b\u52d9\u6240","boring_xml_url":40,"boring_view_url":1,"soilmap_view_url":null,"soiltest_xml_url":0,"soiltest_view_url":0},{"id":223078,"code":"B4KJ201801011-1327","latitude":"33.4516267","longitude":"131.3600856","source_code":"QS50311239027","project_name":"","survey_name":"\u5b87\u4f50\u5225\u5e9c\u9053\u8def\u5357\u6bdb\uff5e\u98ef\u7530\u9593\u5730\u8cea\u8abf\u67fb\u696d\u52d9","client_name":"\u56fd\u571f\u4ea4\u901a\u7701\u4e5d\u5dde\u5730\u65b9\u6574\u5099\u5c40\u5927\u5206\u6cb3\u5ddd\u56fd\u9053\u4e8b\u52d9\u6240","boring_xml_url":40,"boring_view_url":1,"soilmap_view_url":null,"soiltest_xml_url":0,"soiltest_view_url":0},{"id":223077,"code":"B4KJ201801011-1326","latitude":"33.4460994","longitude":"131.3677239","source_code":"QS50311239026","project_name":"","survey_name":"\u5b87\u4f50\u5225\u5e9c\u9053\u8def\u98ef\u7530\uff5e\u4e45\u4e95\u7530\u9593\u5730\u8cea\u8abf\u67fb\u696d\u52d9","client_name":"\u56fd\u571f\u4ea4\u901a\u7701\u4e5d\u5dde\u5730\u65b9\u6574\u5099\u5c40\u5927\u5206\u6cb3\u5ddd\u56fd\u9053\u4e8b\u52d9\u6240","boring_xml_url":40,"boring_view_url":1,"soilmap_view_url":null,"soiltest_xml_url":0,"soiltest_view_url":0},{"id":223076,"code":"B4KJ201801011-1325","latitude":"33.4458775","longitude":"131.3723069","source_code":"QS50311239025","project_name":"","survey_name":"\u5b87\u4f50\u5225\u5e9c\u9053\u8def\u98ef\u7530\uff5e\u4e45\u4e95\u7530\u9593\u5730\u8cea\u8abf\u67fb\u696d\u52d9","client_name":"\u56fd\u571f\u4ea4\u901a\u7701\u4e5d\u5dde\u5730\u65b9\u6574\u5099\u5c40\u5927\u5206\u6cb3\u5ddd\u56fd\u9053\u4e8b\u52d9\u6240","boring_xml_url":40,"boring_view_url":1,"soilmap_view_url":null,"soiltest_xml_url":0,"soiltest_view_url":0}]}}