{"header":{"xyz":{"source":[],"mosaic":false},"page":3250,"raw":{"soiltest_result":"0","bbox":"57.598333,109.544722,1.933333,163.806111","page":"3250"},"conditions":{"soiltest_result":0,"north":57.598333,"west":109.544722,"south":1.933333,"east":163.806111},"success":true,"message":""},"data":{"meta":{"total":212844,"page":3250,"pages":7095,"count":30},"values":[{"id":223075,"code":"B4KJ201801011-1324","latitude":"33.4456553","longitude":"131.3715014","source_code":"QS50311239024","project_name":"","survey_name":"\u5b87\u4f50\u5225\u5e9c\u9053\u8def\u98ef\u7530\uff5e\u4e45\u4e95\u7530\u9593\u5730\u8cea\u8abf\u67fb\u696d\u52d9","client_name":"\u56fd\u571f\u4ea4\u901a\u7701\u4e5d\u5dde\u5730\u65b9\u6574\u5099\u5c40\u5927\u5206\u6cb3\u5ddd\u56fd\u9053\u4e8b\u52d9\u6240","boring_xml_url":40,"boring_view_url":1,"soilmap_view_url":null,"soiltest_xml_url":0,"soiltest_view_url":0},{"id":223074,"code":"B4KJ201801011-1323","latitude":"33.4457664","longitude":"131.370835","source_code":"QS50311239023","project_name":"","survey_name":"\u5b87\u4f50\u5225\u5e9c\u9053\u8def\u98ef\u7530\uff5e\u4e45\u4e95\u7530\u9593\u5730\u8cea\u8abf\u67fb\u696d\u52d9","client_name":"\u56fd\u571f\u4ea4\u901a\u7701\u4e5d\u5dde\u5730\u65b9\u6574\u5099\u5c40\u5927\u5206\u6cb3\u5ddd\u56fd\u9053\u4e8b\u52d9\u6240","boring_xml_url":40,"boring_view_url":1,"soilmap_view_url":null,"soiltest_xml_url":0,"soiltest_view_url":0},{"id":223073,"code":"B4KJ201801011-1322","latitude":"33.4454331","longitude":"131.3671964","source_code":"QS50311239022","project_name":"","survey_name":"\u5b87\u4f50\u5225\u5e9c\u9053\u8def\u98ef\u7530\uff5e\u4e45\u4e95\u7530\u9593\u5730\u8cea\u8abf\u67fb\u696d\u52d9","client_name":"\u56fd\u571f\u4ea4\u901a\u7701\u4e5d\u5dde\u5730\u65b9\u6574\u5099\u5c40\u5927\u5206\u6cb3\u5ddd\u56fd\u9053\u4e8b\u52d9\u6240","boring_xml_url":40,"boring_view_url":1,"soilmap_view_url":null,"soiltest_xml_url":0,"soiltest_view_url":0},{"id":223072,"code":"B4KJ201801011-1321","latitude":"33.4465717","longitude":"131.3678628","source_code":"QS50311239021","project_name":"","survey_name":"\u5b87\u4f50\u5225\u5e9c\u9053\u8def\u98ef\u7530\uff5e\u4e45\u4e95\u7530\u9593\u5730\u8cea\u8abf\u67fb\u696d\u52d9","client_name":"\u56fd\u571f\u4ea4\u901a\u7701\u4e5d\u5dde\u5730\u65b9\u6574\u5099\u5c40\u5927\u5206\u6cb3\u5ddd\u56fd\u9053\u4e8b\u52d9\u6240","boring_xml_url":40,"boring_view_url":1,"soilmap_view_url":null,"soiltest_xml_url":0,"soiltest_view_url":0},{"id":223071,"code":"B4KJ201801011-1320","latitude":"33.4465717","longitude":"131.3671964","source_code":"QS50311239020","project_name":"","survey_name":"\u5b87\u4f50\u5225\u5e9c\u9053\u8def\u98ef\u7530\uff5e\u4e45\u4e95\u7530\u9593\u5730\u8cea\u8abf\u67fb\u696d\u52d9","client_name":"\u56fd\u571f\u4ea4\u901a\u7701\u4e5d\u5dde\u5730\u65b9\u6574\u5099\u5c40\u5927\u5206\u6cb3\u5ddd\u56fd\u9053\u4e8b\u52d9\u6240","boring_xml_url":40,"boring_view_url":1,"soilmap_view_url":null,"soiltest_xml_url":0,"soiltest_view_url":0},{"id":223070,"code":"B4KJ201801011-1319","latitude":"33.4465717","longitude":"131.3666686","source_code":"QS50311239019","project_name":"","survey_name":"\u5b87\u4f50\u5225\u5e9c\u9053\u8def\u98ef\u7530\uff5e\u4e45\u4e95\u7530\u9593\u5730\u8cea\u8abf\u67fb\u696d\u52d9","client_name":"\u56fd\u571f\u4ea4\u901a\u7701\u4e5d\u5dde\u5730\u65b9\u6574\u5099\u5c40\u5927\u5206\u6cb3\u5ddd\u56fd\u9053\u4e8b\u52d9\u6240","boring_xml_url":40,"boring_view_url":1,"soilmap_view_url":null,"soiltest_xml_url":0,"soiltest_view_url":0},{"id":223069,"code":"B4KJ201801011-1318","latitude":"33.4470161","longitude":"131.3661408","source_code":"QS50311239018","project_name":"","survey_name":"\u5b87\u4f50\u5225\u5e9c\u9053\u8def\u98ef\u7530\uff5e\u4e45\u4e95\u7530\u9593\u5730\u8cea\u8abf\u67fb\u696d\u52d9","client_name":"\u56fd\u571f\u4ea4\u901a\u7701\u4e5d\u5dde\u5730\u65b9\u6574\u5099\u5c40\u5927\u5206\u6cb3\u5ddd\u56fd\u9053\u4e8b\u52d9\u6240","boring_xml_url":40,"boring_view_url":1,"soilmap_view_url":null,"soiltest_xml_url":0,"soiltest_view_url":0},{"id":223068,"code":"B4KJ201801011-1317","latitude":"33.4483492","longitude":"131.3628911","source_code":"QS50311239017","project_name":"","survey_name":"\u662d\u548c61\u5e74\u5ea6\u5b87\u4f50\u30fb\u5225\u5e9c\u9053\u8def\u98ef\u7530\uff5e\u77e2\u5d0e\u9593\u5730\u8cea\u8abf\u67fb\u696d\u52d9","client_name":"\u56fd\u571f\u4ea4\u901a\u7701\u4e5d\u5dde\u5730\u65b9\u6574\u5099\u5c40\u5927\u5206\u6cb3\u5ddd\u56fd\u9053\u4e8b\u52d9\u6240","boring_xml_url":40,"boring_view_url":1,"soilmap_view_url":null,"soiltest_xml_url":0,"soiltest_view_url":0},{"id":223067,"code":"B4KJ201801011-1316","latitude":"33.4480436","longitude":"131.3643631","source_code":"QS50311239016","project_name":"","survey_name":"\u662d\u548c61\u5e74\u5ea6\u5b87\u4f50\u30fb\u5225\u5e9c\u9053\u8def\u98ef\u7530\uff5e\u77e2\u5d0e\u9593\u5730\u8cea\u8abf\u67fb\u696d\u52d9","client_name":"\u56fd\u571f\u4ea4\u901a\u7701\u4e5d\u5dde\u5730\u65b9\u6574\u5099\u5c40\u5927\u5206\u6cb3\u5ddd\u56fd\u9053\u4e8b\u52d9\u6240","boring_xml_url":40,"boring_view_url":1,"soilmap_view_url":null,"soiltest_xml_url":0,"soiltest_view_url":0},{"id":223066,"code":"B4KJ201801011-1315","latitude":"33.4454331","longitude":"131.3684183","source_code":"QS50311239015","project_name":"","survey_name":"\u662d\u548c61\u5e74\u5ea6\u5b87\u4f50\u30fb\u5225\u5e9c\u9053\u8def\u98ef\u7530\uff5e\u77e2\u5d0e\u9593\u5730\u8cea\u8abf\u67fb\u696d\u52d9","client_name":"\u56fd\u571f\u4ea4\u901a\u7701\u4e5d\u5dde\u5730\u65b9\u6574\u5099\u5c40\u5927\u5206\u6cb3\u5ddd\u56fd\u9053\u4e8b\u52d9\u6240","boring_xml_url":40,"boring_view_url":1,"soilmap_view_url":null,"soiltest_xml_url":0,"soiltest_view_url":0},{"id":223065,"code":"B4KJ201801011-1314","latitude":"33.4455442","longitude":"131.3692239","source_code":"QS50311239014","project_name":"","survey_name":"\u662d\u548c61\u5e74\u5ea6\u5b87\u4f50\u30fb\u5225\u5e9c\u9053\u8def\u98ef\u7530\uff5e\u77e2\u5d0e\u9593\u5730\u8cea\u8abf\u67fb\u696d\u52d9","client_name":"\u56fd\u571f\u4ea4\u901a\u7701\u4e5d\u5dde\u5730\u65b9\u6574\u5099\u5c40\u5927\u5206\u6cb3\u5ddd\u56fd\u9053\u4e8b\u52d9\u6240","boring_xml_url":40,"boring_view_url":1,"soilmap_view_url":null,"soiltest_xml_url":0,"soiltest_view_url":0},{"id":223064,"code":"B4KJ201801011-1313","latitude":"33.4454331","longitude":"131.3700294","source_code":"QS50311239013","project_name":"","survey_name":"\u662d\u548c61\u5e74\u5ea6\u5b87\u4f50\u30fb\u5225\u5e9c\u9053\u8def\u98ef\u7530\uff5e\u77e2\u5d0e\u9593\u5730\u8cea\u8abf\u67fb\u696d\u52d9","client_name":"\u56fd\u571f\u4ea4\u901a\u7701\u4e5d\u5dde\u5730\u65b9\u6574\u5099\u5c40\u5927\u5206\u6cb3\u5ddd\u56fd\u9053\u4e8b\u52d9\u6240","boring_xml_url":40,"boring_view_url":1,"soilmap_view_url":null,"soiltest_xml_url":0,"soiltest_view_url":0},{"id":223063,"code":"B4KJ201801011-1312","latitude":"33.4465439","longitude":"131.3666131","source_code":"QS50311239012","project_name":"","survey_name":"\u662d\u548c61\u5e74\u5ea6\u5b87\u4f50\u30fb\u5225\u5e9c\u9053\u8def\u98ef\u7530\uff5e\u77e2\u5d0e\u9593\u5730\u8cea\u8abf\u67fb\u696d\u52d9","client_name":"\u56fd\u571f\u4ea4\u901a\u7701\u4e5d\u5dde\u5730\u65b9\u6574\u5099\u5c40\u5927\u5206\u6cb3\u5ddd\u56fd\u9053\u4e8b\u52d9\u6240","boring_xml_url":40,"boring_view_url":1,"soilmap_view_url":null,"soiltest_xml_url":0,"soiltest_view_url":0},{"id":223062,"code":"B4KJ201801011-1311","latitude":"33.4467661","longitude":"131.3668908","source_code":"QS50311239011","project_name":"","survey_name":"\u662d\u548c61\u5e74\u5ea6\u5b87\u4f50\u30fb\u5225\u5e9c\u9053\u8def\u98ef\u7530\uff5e\u77e2\u5d0e\u9593\u5730\u8cea\u8abf\u67fb\u696d\u52d9","client_name":"\u56fd\u571f\u4ea4\u901a\u7701\u4e5d\u5dde\u5730\u65b9\u6574\u5099\u5c40\u5927\u5206\u6cb3\u5ddd\u56fd\u9053\u4e8b\u52d9\u6240","boring_xml_url":40,"boring_view_url":1,"soilmap_view_url":null,"soiltest_xml_url":0,"soiltest_view_url":0},{"id":223061,"code":"B4KJ201801011-1310","latitude":"33.4462661","longitude":"131.3670019","source_code":"QS50311239010","project_name":"","survey_name":"\u662d\u548c61\u5e74\u5ea6\u5b87\u4f50\u30fb\u5225\u5e9c\u9053\u8def\u98ef\u7530\uff5e\u77e2\u5d0e\u9593\u5730\u8cea\u8abf\u67fb\u696d\u52d9","client_name":"\u56fd\u571f\u4ea4\u901a\u7701\u4e5d\u5dde\u5730\u65b9\u6574\u5099\u5c40\u5927\u5206\u6cb3\u5ddd\u56fd\u9053\u4e8b\u52d9\u6240","boring_xml_url":40,"boring_view_url":1,"soilmap_view_url":null,"soiltest_xml_url":0,"soiltest_view_url":0},{"id":223060,"code":"B4KJ201801011-1309","latitude":"33.4464328","longitude":"131.3676128","source_code":"QS50311239009","project_name":"","survey_name":"\u662d\u548c61\u5e74\u5ea6\u5b87\u4f50\u30fb\u5225\u5e9c\u9053\u8def\u98ef\u7530\uff5e\u77e2\u5d0e\u9593\u5730\u8cea\u8abf\u67fb\u696d\u52d9","client_name":"\u56fd\u571f\u4ea4\u901a\u7701\u4e5d\u5dde\u5730\u65b9\u6574\u5099\u5c40\u5927\u5206\u6cb3\u5ddd\u56fd\u9053\u4e8b\u52d9\u6240","boring_xml_url":40,"boring_view_url":1,"soilmap_view_url":null,"soiltest_xml_url":0,"soiltest_view_url":0},{"id":223059,"code":"B4KJ201801011-1308","latitude":"33.4453497","longitude":"131.3716125","source_code":"QS50311239008","project_name":"","survey_name":"\u662d\u548c61\u5e74\u5ea6\u5b87\u4f50\u30fb\u5225\u5e9c\u9053\u8def\u98ef\u7530\uff5e\u77e2\u5d0e\u9593\u5730\u8cea\u8abf\u67fb\u696d\u52d9","client_name":"\u56fd\u571f\u4ea4\u901a\u7701\u4e5d\u5dde\u5730\u65b9\u6574\u5099\u5c40\u5927\u5206\u6cb3\u5ddd\u56fd\u9053\u4e8b\u52d9\u6240","boring_xml_url":40,"boring_view_url":1,"soilmap_view_url":null,"soiltest_xml_url":0,"soiltest_view_url":0},{"id":223058,"code":"B4KJ201801011-1307","latitude":"33.4454608","longitude":"131.3715569","source_code":"QS50311239007","project_name":"","survey_name":"\u662d\u548c61\u5e74\u5ea6\u5b87\u4f50\u30fb\u5225\u5e9c\u9053\u8def\u98ef\u7530\uff5e\u77e2\u5d0e\u9593\u5730\u8cea\u8abf\u67fb\u696d\u52d9","client_name":"\u56fd\u571f\u4ea4\u901a\u7701\u4e5d\u5dde\u5730\u65b9\u6574\u5099\u5c40\u5927\u5206\u6cb3\u5ddd\u56fd\u9053\u4e8b\u52d9\u6240","boring_xml_url":40,"boring_view_url":1,"soilmap_view_url":null,"soiltest_xml_url":0,"soiltest_view_url":0},{"id":223057,"code":"B4KJ201801011-1306","latitude":"33.4451831","longitude":"131.3717792","source_code":"QS50311239006","project_name":"","survey_name":"\u662d\u548c61\u5e74\u5ea6\u5b87\u4f50\u30fb\u5225\u5e9c\u9053\u8def\u98ef\u7530\uff5e\u77e2\u5d0e\u9593\u5730\u8cea\u8abf\u67fb\u696d\u52d9","client_name":"\u56fd\u571f\u4ea4\u901a\u7701\u4e5d\u5dde\u5730\u65b9\u6574\u5099\u5c40\u5927\u5206\u6cb3\u5ddd\u56fd\u9053\u4e8b\u52d9\u6240","boring_xml_url":40,"boring_view_url":1,"soilmap_view_url":null,"soiltest_xml_url":0,"soiltest_view_url":0},{"id":223056,"code":"B4KJ201801011-1305","latitude":"33.4454608","longitude":"131.3717514","source_code":"QS50311239005","project_name":"","survey_name":"\u662d\u548c61\u5e74\u5ea6\u5b87\u4f50\u30fb\u5225\u5e9c\u9053\u8def\u98ef\u7530\uff5e\u77e2\u5d0e\u9593\u5730\u8cea\u8abf\u67fb\u696d\u52d9","client_name":"\u56fd\u571f\u4ea4\u901a\u7701\u4e5d\u5dde\u5730\u65b9\u6574\u5099\u5c40\u5927\u5206\u6cb3\u5ddd\u56fd\u9053\u4e8b\u52d9\u6240","boring_xml_url":40,"boring_view_url":1,"soilmap_view_url":null,"soiltest_xml_url":0,"soiltest_view_url":0},{"id":223055,"code":"B4KJ201801011-1304","latitude":"33.4451831","longitude":"131.3725569","source_code":"QS50311239004","project_name":"","survey_name":"\u662d\u548c61\u5e74\u5ea6\u5b87\u4f50\u30fb\u5225\u5e9c\u9053\u8def\u98ef\u7530\uff5e\u77e2\u5d0e\u9593\u5730\u8cea\u8abf\u67fb\u696d\u52d9","client_name":"\u56fd\u571f\u4ea4\u901a\u7701\u4e5d\u5dde\u5730\u65b9\u6574\u5099\u5c40\u5927\u5206\u6cb3\u5ddd\u56fd\u9053\u4e8b\u52d9\u6240","boring_xml_url":40,"boring_view_url":1,"soilmap_view_url":null,"soiltest_xml_url":0,"soiltest_view_url":0},{"id":223054,"code":"B4KJ201801011-1303","latitude":"33.4455719","longitude":"131.3725014","source_code":"QS50311239003","project_name":"","survey_name":"\u662d\u548c61\u5e74\u5ea6\u5b87\u4f50\u30fb\u5225\u5e9c\u9053\u8def\u98ef\u7530\uff5e\u77e2\u5d0e\u9593\u5730\u8cea\u8abf\u67fb\u696d\u52d9","client_name":"\u56fd\u571f\u4ea4\u901a\u7701\u4e5d\u5dde\u5730\u65b9\u6574\u5099\u5c40\u5927\u5206\u6cb3\u5ddd\u56fd\u9053\u4e8b\u52d9\u6240","boring_xml_url":40,"boring_view_url":1,"soilmap_view_url":null,"soiltest_xml_url":0,"soiltest_view_url":0},{"id":223053,"code":"B4KJ201801011-1302","latitude":"33.4491269","longitude":"131.3663353","source_code":"QS50311239002","project_name":"","survey_name":"\u662d\u548c61\u5e74\u5ea6\u5b87\u4f50\u30fb\u5225\u5e9c\u9053\u8def\u98ef\u7530\uff5e\u77e2\u5d0e\u9593\u5730\u8cea\u8abf\u67fb\u696d\u52d9","client_name":"\u56fd\u571f\u4ea4\u901a\u7701\u4e5d\u5dde\u5730\u65b9\u6574\u5099\u5c40\u5927\u5206\u6cb3\u5ddd\u56fd\u9053\u4e8b\u52d9\u6240","boring_xml_url":40,"boring_view_url":1,"soilmap_view_url":null,"soiltest_xml_url":0,"soiltest_view_url":0},{"id":223052,"code":"B4KJ201801011-1301","latitude":"33.4452942","longitude":"131.3719458","source_code":"QS50311239001","project_name":"","survey_name":"\u662d\u548c61\u5e74\u5ea6\u5b87\u4f50\u30fb\u5225\u5e9c\u9053\u8def\u98ef\u7530\uff5e\u77e2\u5d0e\u9593\u5730\u8cea\u8abf\u67fb\u696d\u52d9","client_name":"\u56fd\u571f\u4ea4\u901a\u7701\u4e5d\u5dde\u5730\u65b9\u6574\u5099\u5c40\u5927\u5206\u6cb3\u5ddd\u56fd\u9053\u4e8b\u52d9\u6240","boring_xml_url":40,"boring_view_url":1,"soilmap_view_url":null,"soiltest_xml_url":0,"soiltest_view_url":0},{"id":223051,"code":"B4KJ201801011-1300","latitude":"33.4524319","longitude":"131.3600022","source_code":"QS50311238001","project_name":"","survey_name":"\u5b87\u4f50\u5225\u5e9c\u9053\u8def\u5357\u6bdb\uff5e\u539f\u9593\u5730\u8cea\u8abf\u67fb\u696d\u52d9","client_name":"\u56fd\u571f\u4ea4\u901a\u7701\u4e5d\u5dde\u5730\u65b9\u6574\u5099\u5c40\u5927\u5206\u6cb3\u5ddd\u56fd\u9053\u4e8b\u52d9\u6240","boring_xml_url":40,"boring_view_url":1,"soilmap_view_url":null,"soiltest_xml_url":0,"soiltest_view_url":0},{"id":223050,"code":"B4KJ201801011-1299","latitude":"33.4299858","longitude":"131.1435503","source_code":"QS50311111002","project_name":"","survey_name":"\u8036\u99ac\u6eaa\u30c0\u30e0\u5806\u7802\u30dc\u30fc\u30ea\u30f3\u30b0\u8abf\u67fb\u696d\u52d9","client_name":"\u56fd\u571f\u4ea4\u901a\u7701\u4e5d\u5dde\u5730\u65b9\u6574\u5099\u5c40\u5c71\u56fd\u5ddd\u6cb3\u5ddd\u4e8b\u52d9\u6240","boring_xml_url":40,"boring_view_url":1,"soilmap_view_url":null,"soiltest_xml_url":0,"soiltest_view_url":0},{"id":223049,"code":"B4KJ201801011-1298","latitude":"33.4352075","longitude":"131.1393836","source_code":"QS50311111001","project_name":"","survey_name":"\u8036\u99ac\u6eaa\u30c0\u30e0\u5806\u7802\u30dc\u30fc\u30ea\u30f3\u30b0\u8abf\u67fb\u696d\u52d9","client_name":"\u56fd\u571f\u4ea4\u901a\u7701\u4e5d\u5dde\u5730\u65b9\u6574\u5099\u5c40\u5c71\u56fd\u5ddd\u6cb3\u5ddd\u4e8b\u52d9\u6240","boring_xml_url":40,"boring_view_url":1,"soilmap_view_url":null,"soiltest_xml_url":0,"soiltest_view_url":0},{"id":223048,"code":"B4KJ201801011-1297","latitude":"33.4223189","longitude":"131.0715847","source_code":"QS50311005001","project_name":"","survey_name":"\u5165\u6c5f\u5ddd\u6a4b\u59161\u4ef6\u5730\u8cea\u8abf\u67fb\u696d\u52d9","client_name":"\u56fd\u571f\u4ea4\u901a\u7701\u4e5d\u5dde\u5730\u65b9\u6574\u5099\u5c40\u5927\u5206\u6cb3\u5ddd\u56fd\u9053\u4e8b\u52d9\u6240","boring_xml_url":40,"boring_view_url":1,"soilmap_view_url":null,"soiltest_xml_url":0,"soiltest_view_url":0},{"id":223047,"code":"B4KJ201801011-1296","latitude":"33.3818603","longitude":"131.5408769","source_code":"QS50310453025","project_name":"","survey_name":"\u5e73\u62109\u5e74\u5ea6\u5927\u520610\u53f7\u65e5\u51faBP\u5357\u7aef\u30c8\u30f3\u30cd\u30eb\u5730\u8cea\u8abf\u67fb\u696d\u52d9","client_name":"\u56fd\u571f\u4ea4\u901a\u7701\u4e5d\u5dde\u5730\u65b9\u6574\u5099\u5c40\u5927\u5206\u6cb3\u5ddd\u56fd\u9053\u4e8b\u52d9\u6240","boring_xml_url":40,"boring_view_url":1,"soilmap_view_url":null,"soiltest_xml_url":0,"soiltest_view_url":0},{"id":223046,"code":"B4KJ201801011-1295","latitude":"33.3821103","longitude":"131.5406269","source_code":"QS50310453024","project_name":"","survey_name":"\u5e73\u62109\u5e74\u5ea6\u5927\u520610\u53f7\u65e5\u51faBP\u5357\u7aef\u30c8\u30f3\u30cd\u30eb\u5730\u8cea\u8abf\u67fb\u696d\u52d9","client_name":"\u56fd\u571f\u4ea4\u901a\u7701\u4e5d\u5dde\u5730\u65b9\u6574\u5099\u5c40\u5927\u5206\u6cb3\u5ddd\u56fd\u9053\u4e8b\u52d9\u6240","boring_xml_url":40,"boring_view_url":1,"soilmap_view_url":null,"soiltest_xml_url":0,"soiltest_view_url":0}]}}