{"header":{"xyz":{"source":[],"mosaic":false},"page":3253,"raw":{"soiltest_result":"0","bbox":"57.598333,109.544722,1.933333,163.806111","page":"3253"},"conditions":{"soiltest_result":0,"north":57.598333,"west":109.544722,"south":1.933333,"east":163.806111},"success":true,"message":""},"data":{"meta":{"total":212844,"page":3253,"pages":7095,"count":30},"values":[{"id":222985,"code":"B4KJ201801011-1234","latitude":"33.3779433","longitude":"131.500825","source_code":"QS50310440003","project_name":"","survey_name":"\u5927\u520610\u53f7\u9577\u91ce\u5730\u533a\u5730\u8cea\u8abf\u67fb(\u305d\u306e1)\u696d\u52d9","client_name":"\u56fd\u571f\u4ea4\u901a\u7701\u4e5d\u5dde\u5730\u65b9\u6574\u5099\u5c40\u5927\u5206\u6cb3\u5ddd\u56fd\u9053\u4e8b\u52d9\u6240","boring_xml_url":40,"boring_view_url":1,"soilmap_view_url":null,"soiltest_xml_url":0,"soiltest_view_url":0},{"id":222984,"code":"B4KJ201801011-1233","latitude":"33.3778322","longitude":"131.5002694","source_code":"QS50310440002","project_name":"","survey_name":"\u5927\u520610\u53f7\u9577\u91ce\u5730\u533a\u5730\u8cea\u8abf\u67fb(\u305d\u306e1)\u696d\u52d9","client_name":"\u56fd\u571f\u4ea4\u901a\u7701\u4e5d\u5dde\u5730\u65b9\u6574\u5099\u5c40\u5927\u5206\u6cb3\u5ddd\u56fd\u9053\u4e8b\u52d9\u6240","boring_xml_url":40,"boring_view_url":1,"soilmap_view_url":null,"soiltest_xml_url":0,"soiltest_view_url":0},{"id":222983,"code":"B4KJ201801011-1232","latitude":"33.37736","longitude":"131.4989364","source_code":"QS50310440001","project_name":"","survey_name":"\u5927\u520610\u53f7\u9577\u91ce\u5730\u533a\u5730\u8cea\u8abf\u67fb(\u305d\u306e1)\u696d\u52d9","client_name":"\u56fd\u571f\u4ea4\u901a\u7701\u4e5d\u5dde\u5730\u65b9\u6574\u5099\u5c40\u5927\u5206\u6cb3\u5ddd\u56fd\u9053\u4e8b\u52d9\u6240","boring_xml_url":40,"boring_view_url":1,"soilmap_view_url":null,"soiltest_xml_url":0,"soiltest_view_url":0},{"id":222982,"code":"B4KJ201801011-1231","latitude":"33.3569456","longitude":"131.4987703","source_code":"QS50310420001","project_name":"","survey_name":"\u8c4a\u5ca1\u5730\u533a\u5730\u8cea\u8abf\u67fb\u696d\u52d9","client_name":"\u56fd\u571f\u4ea4\u901a\u7701\u4e5d\u5dde\u5730\u65b9\u6574\u5099\u5c40\u5927\u5206\u6cb3\u5ddd\u56fd\u9053\u4e8b\u52d9\u6240","boring_xml_url":40,"boring_view_url":1,"soilmap_view_url":null,"soiltest_xml_url":0,"soiltest_view_url":0},{"id":222981,"code":"B4KJ201801011-1230","latitude":"33.3883019","longitude":"131.4386914","source_code":"QS50310365002","project_name":"","survey_name":"\u5e73\u621010\u5e74\u5ea6\u5927\u520610\u53f7\u65e5\u51faBP\u901f\u898bIC\u69cb\u9020\u7269\u5730\u8cea\u8abf\u67fb\u696d\u52d9","client_name":"\u56fd\u571f\u4ea4\u901a\u7701\u4e5d\u5dde\u5730\u65b9\u6574\u5099\u5c40\u5927\u5206\u6cb3\u5ddd\u56fd\u9053\u4e8b\u52d9\u6240","boring_xml_url":40,"boring_view_url":1,"soilmap_view_url":null,"soiltest_xml_url":0,"soiltest_view_url":0},{"id":222980,"code":"B4KJ201801011-1229","latitude":"33.3899686","longitude":"131.4392469","source_code":"QS50310365001","project_name":"","survey_name":"\u5e73\u621010\u5e74\u5ea6\u5927\u520610\u53f7\u65e5\u51faBP\u901f\u898bIC\u69cb\u9020\u7269\u5730\u8cea\u8abf\u67fb\u696d\u52d9","client_name":"\u56fd\u571f\u4ea4\u901a\u7701\u4e5d\u5dde\u5730\u65b9\u6574\u5099\u5c40\u5927\u5206\u6cb3\u5ddd\u56fd\u9053\u4e8b\u52d9\u6240","boring_xml_url":40,"boring_view_url":1,"soilmap_view_url":null,"soiltest_xml_url":0,"soiltest_view_url":0},{"id":222979,"code":"B4KJ201801011-1228","latitude":"33.3803311","longitude":"131.4668003","source_code":"QS50310357004","project_name":"","survey_name":"\u5927\u520610\u53f7\u65e5\u51faBP\u7b2c1\u4ec1\u738b\u6a4b\u5730\u8cea\u8abf\u67fb\u696d\u52d9","client_name":"\u56fd\u571f\u4ea4\u901a\u7701\u4e5d\u5dde\u5730\u65b9\u6574\u5099\u5c40\u5927\u5206\u6cb3\u5ddd\u56fd\u9053\u4e8b\u52d9\u6240","boring_xml_url":40,"boring_view_url":1,"soilmap_view_url":null,"soiltest_xml_url":0,"soiltest_view_url":0},{"id":222978,"code":"B4KJ201801011-1227","latitude":"33.3806922","longitude":"131.4666614","source_code":"QS50310357003","project_name":"","survey_name":"\u5e73\u62106\u5e74\u5ea6\u5927\u520610\u53f7\u6cd5\u82b1\u5bfa\u5730\u533a\u5730\u8cea\u8abf\u67fb(\u305d\u306e1)\u696d\u52d9","client_name":"\u56fd\u571f\u4ea4\u901a\u7701\u4e5d\u5dde\u5730\u65b9\u6574\u5099\u5c40\u5927\u5206\u6cb3\u5ddd\u56fd\u9053\u4e8b\u52d9\u6240","boring_xml_url":40,"boring_view_url":1,"soilmap_view_url":null,"soiltest_xml_url":0,"soiltest_view_url":0},{"id":222977,"code":"B4KJ201801011-1226","latitude":"33.3812756","longitude":"131.4643283","source_code":"QS50310357002","project_name":"","survey_name":"\u5e73\u62106\u5e74\u5ea6\u5927\u520610\u53f7\u6cd5\u82b1\u5bfa\u5730\u533a\u5730\u8cea\u8abf\u67fb(\u305d\u306e1)\u696d\u52d9","client_name":"\u56fd\u571f\u4ea4\u901a\u7701\u4e5d\u5dde\u5730\u65b9\u6574\u5099\u5c40\u5927\u5206\u6cb3\u5ddd\u56fd\u9053\u4e8b\u52d9\u6240","boring_xml_url":40,"boring_view_url":1,"soilmap_view_url":null,"soiltest_xml_url":0,"soiltest_view_url":0},{"id":222976,"code":"B4KJ201801011-1225","latitude":"33.3814978","longitude":"131.4651892","source_code":"QS50310357001","project_name":"","survey_name":"\u5e73\u62106\u5e74\u5ea6\u5927\u520610\u53f7\u6cd5\u82b1\u5bfa\u5730\u533a\u5730\u8cea\u8abf\u67fb(\u305d\u306e1)\u696d\u52d9","client_name":"\u56fd\u571f\u4ea4\u901a\u7701\u4e5d\u5dde\u5730\u65b9\u6574\u5099\u5c40\u5927\u5206\u6cb3\u5ddd\u56fd\u9053\u4e8b\u52d9\u6240","boring_xml_url":40,"boring_view_url":1,"soilmap_view_url":null,"soiltest_xml_url":0,"soiltest_view_url":0},{"id":222975,"code":"B4KJ201801011-1224","latitude":"33.37847","longitude":"131.4497742","source_code":"QS50310356011","project_name":"","survey_name":"\u5927\u520610\u53f7\u65e5\u51faBP\u901f\u898b\u5730\u533a\u8abf\u6574\u6c60\u5730\u8cea\u8abf\u67fb\u696d\u52d9","client_name":"\u56fd\u571f\u4ea4\u901a\u7701\u4e5d\u5dde\u5730\u65b9\u6574\u5099\u5c40\u5927\u5206\u6cb3\u5ddd\u56fd\u9053\u4e8b\u52d9\u6240","boring_xml_url":40,"boring_view_url":1,"soilmap_view_url":null,"soiltest_xml_url":0,"soiltest_view_url":0},{"id":222974,"code":"B4KJ201801011-1223","latitude":"33.3783311","longitude":"131.4503575","source_code":"QS50310356010","project_name":"","survey_name":"\u5927\u520610\u53f7\u65e5\u51faBP\u901f\u898b\u5730\u533a\u8abf\u6574\u6c60\u5730\u8cea\u8abf\u67fb\u696d\u52d9","client_name":"\u56fd\u571f\u4ea4\u901a\u7701\u4e5d\u5dde\u5730\u65b9\u6574\u5099\u5c40\u5927\u5206\u6cb3\u5ddd\u56fd\u9053\u4e8b\u52d9\u6240","boring_xml_url":40,"boring_view_url":1,"soilmap_view_url":null,"soiltest_xml_url":0,"soiltest_view_url":0},{"id":222973,"code":"B4KJ201801011-1222","latitude":"33.3787478","longitude":"131.4497464","source_code":"QS50310356009","project_name":"","survey_name":"\u5927\u520610\u53f7\u65e5\u51faBP\u901f\u898b\u5730\u533a\u8abf\u6574\u6c60\u5730\u8cea\u8abf\u67fb\u696d\u52d9","client_name":"\u56fd\u571f\u4ea4\u901a\u7701\u4e5d\u5dde\u5730\u65b9\u6574\u5099\u5c40\u5927\u5206\u6cb3\u5ddd\u56fd\u9053\u4e8b\u52d9\u6240","boring_xml_url":40,"boring_view_url":1,"soilmap_view_url":null,"soiltest_xml_url":0,"soiltest_view_url":0},{"id":222972,"code":"B4KJ201801011-1221","latitude":"33.3783311","longitude":"131.4491075","source_code":"QS50310356008","project_name":"","survey_name":"\u5927\u520610\u53f7\u65e5\u51faBP\u901f\u898b\u5730\u533a\u8abf\u6574\u6c60\u5730\u8cea\u8abf\u67fb\u696d\u52d9","client_name":"\u56fd\u571f\u4ea4\u901a\u7701\u4e5d\u5dde\u5730\u65b9\u6574\u5099\u5c40\u5927\u5206\u6cb3\u5ddd\u56fd\u9053\u4e8b\u52d9\u6240","boring_xml_url":40,"boring_view_url":1,"soilmap_view_url":null,"soiltest_xml_url":0,"soiltest_view_url":0},{"id":222971,"code":"B4KJ201801011-1220","latitude":"33.3785533","longitude":"131.4494408","source_code":"QS50310356007","project_name":"","survey_name":"\u5927\u520610\u53f7\u65e5\u51faBP\u901f\u898b\u5730\u533a\u8abf\u6574\u6c60\u5730\u8cea\u8abf\u67fb\u696d\u52d9","client_name":"\u56fd\u571f\u4ea4\u901a\u7701\u4e5d\u5dde\u5730\u65b9\u6574\u5099\u5c40\u5927\u5206\u6cb3\u5ddd\u56fd\u9053\u4e8b\u52d9\u6240","boring_xml_url":40,"boring_view_url":1,"soilmap_view_url":null,"soiltest_xml_url":0,"soiltest_view_url":0},{"id":222970,"code":"B4KJ201801011-1219","latitude":"33.3786089","longitude":"131.4491353","source_code":"QS50310356006","project_name":"","survey_name":"\u5927\u520610\u53f7\u65e5\u51faBP\u901f\u898b\u5730\u533a\u8abf\u6574\u6c60\u5730\u8cea\u8abf\u67fb\u696d\u52d9","client_name":"\u56fd\u571f\u4ea4\u901a\u7701\u4e5d\u5dde\u5730\u65b9\u6574\u5099\u5c40\u5927\u5206\u6cb3\u5ddd\u56fd\u9053\u4e8b\u52d9\u6240","boring_xml_url":40,"boring_view_url":1,"soilmap_view_url":null,"soiltest_xml_url":0,"soiltest_view_url":0},{"id":222969,"code":"B4KJ201801011-1218","latitude":"33.3785811","longitude":"131.4524406","source_code":"QS50310356005","project_name":"","survey_name":"\u5e73\u621010\u5e74\u5ea6\u5927\u520610\u53f7\u65e5\u51faBP\u901f\u898bIC\u69cb\u9020\u7269\u5730\u8cea\u8abf\u67fb\u696d\u52d9","client_name":"\u56fd\u571f\u4ea4\u901a\u7701\u4e5d\u5dde\u5730\u65b9\u6574\u5099\u5c40\u5927\u5206\u6cb3\u5ddd\u56fd\u9053\u4e8b\u52d9\u6240","boring_xml_url":40,"boring_view_url":1,"soilmap_view_url":null,"soiltest_xml_url":0,"soiltest_view_url":0},{"id":222968,"code":"B4KJ201801011-1217","latitude":"33.3805811","longitude":"131.4555236","source_code":"QS50310356004","project_name":"","survey_name":"\u5e73\u62106\u5e74\u5ea6\u5927\u520610\u53f7\u6cd5\u82b1\u5bfa\u5730\u533a\u5730\u8cea\u8abf\u67fb(\u305d\u306e1)\u696d\u52d9","client_name":"\u56fd\u571f\u4ea4\u901a\u7701\u4e5d\u5dde\u5730\u65b9\u6574\u5099\u5c40\u5927\u5206\u6cb3\u5ddd\u56fd\u9053\u4e8b\u52d9\u6240","boring_xml_url":40,"boring_view_url":1,"soilmap_view_url":null,"soiltest_xml_url":0,"soiltest_view_url":0},{"id":222967,"code":"B4KJ201801011-1216","latitude":"33.3816642","longitude":"131.4574122","source_code":"QS50310356003","project_name":"","survey_name":"\u5e73\u62106\u5e74\u5ea6\u5927\u520610\u53f7\u6cd5\u82b1\u5bfa\u5730\u533a\u5730\u8cea\u8abf\u67fb(\u305d\u306e1)\u696d\u52d9","client_name":"\u56fd\u571f\u4ea4\u901a\u7701\u4e5d\u5dde\u5730\u65b9\u6574\u5099\u5c40\u5927\u5206\u6cb3\u5ddd\u56fd\u9053\u4e8b\u52d9\u6240","boring_xml_url":40,"boring_view_url":1,"soilmap_view_url":null,"soiltest_xml_url":0,"soiltest_view_url":0},{"id":222966,"code":"B4KJ201801011-1215","latitude":"33.3819419","longitude":"131.4582178","source_code":"QS50310356002","project_name":"","survey_name":"\u5e73\u62106\u5e74\u5ea6\u5927\u520610\u53f7\u6cd5\u82b1\u5bfa\u5730\u533a\u5730\u8cea\u8abf\u67fb(\u305d\u306e1)\u696d\u52d9","client_name":"\u56fd\u571f\u4ea4\u901a\u7701\u4e5d\u5dde\u5730\u65b9\u6574\u5099\u5c40\u5927\u5206\u6cb3\u5ddd\u56fd\u9053\u4e8b\u52d9\u6240","boring_xml_url":40,"boring_view_url":1,"soilmap_view_url":null,"soiltest_xml_url":0,"soiltest_view_url":0},{"id":222965,"code":"B4KJ201801011-1214","latitude":"33.3821642","longitude":"131.4594397","source_code":"QS50310356001","project_name":"","survey_name":"\u5e73\u62106\u5e74\u5ea6\u5927\u520610\u53f7\u6cd5\u82b1\u5bfa\u5730\u533a\u5730\u8cea\u8abf\u67fb(\u305d\u306e1)\u696d\u52d9","client_name":"\u56fd\u571f\u4ea4\u901a\u7701\u4e5d\u5dde\u5730\u65b9\u6574\u5099\u5c40\u5927\u5206\u6cb3\u5ddd\u56fd\u9053\u4e8b\u52d9\u6240","boring_xml_url":40,"boring_view_url":1,"soilmap_view_url":null,"soiltest_xml_url":0,"soiltest_view_url":0},{"id":222964,"code":"B4KJ201801011-1213","latitude":"33.3734992","longitude":"131.4944647","source_code":"QS50310349040","project_name":"","survey_name":"\u5927\u520610\u53f7\u65e5\u51faBP\u7b2c1\u4ec1\u738b\u6a4b\u5730\u8cea\u8abf\u67fb\u696d\u52d9","client_name":"\u56fd\u571f\u4ea4\u901a\u7701\u4e5d\u5dde\u5730\u65b9\u6574\u5099\u5c40\u5927\u5206\u6cb3\u5ddd\u56fd\u9053\u4e8b\u52d9\u6240","boring_xml_url":40,"boring_view_url":1,"soilmap_view_url":null,"soiltest_xml_url":0,"soiltest_view_url":0},{"id":222963,"code":"B4KJ201801011-1212","latitude":"33.3740825","longitude":"131.4947425","source_code":"QS50310349039","project_name":"","survey_name":"\u5927\u520610\u53f7\u65e5\u51faBP\u7b2c1\u4ec1\u738b\u6a4b\u5730\u8cea\u8abf\u67fb\u696d\u52d9","client_name":"\u56fd\u571f\u4ea4\u901a\u7701\u4e5d\u5dde\u5730\u65b9\u6574\u5099\u5c40\u5927\u5206\u6cb3\u5ddd\u56fd\u9053\u4e8b\u52d9\u6240","boring_xml_url":40,"boring_view_url":1,"soilmap_view_url":null,"soiltest_xml_url":0,"soiltest_view_url":0},{"id":222962,"code":"B4KJ201801011-1211","latitude":"33.3748881","longitude":"131.4949647","source_code":"QS50310349038","project_name":"","survey_name":"\u5927\u520610\u53f7\u65e5\u51faBP\u7b2c1\u4ec1\u738b\u6a4b\u5730\u8cea\u8abf\u67fb\u696d\u52d9","client_name":"\u56fd\u571f\u4ea4\u901a\u7701\u4e5d\u5dde\u5730\u65b9\u6574\u5099\u5c40\u5927\u5206\u6cb3\u5ddd\u56fd\u9053\u4e8b\u52d9\u6240","boring_xml_url":40,"boring_view_url":1,"soilmap_view_url":null,"soiltest_xml_url":0,"soiltest_view_url":0},{"id":222961,"code":"B4KJ201801011-1210","latitude":"33.3736381","longitude":"131.4952981","source_code":"QS50310349037","project_name":"","survey_name":"\u5927\u520610\u53f7\u65e5\u51faBP\u7b2c1\u4ec1\u738b\u6a4b\u5730\u8cea\u8abf\u67fb\u696d\u52d9","client_name":"\u56fd\u571f\u4ea4\u901a\u7701\u4e5d\u5dde\u5730\u65b9\u6574\u5099\u5c40\u5927\u5206\u6cb3\u5ddd\u56fd\u9053\u4e8b\u52d9\u6240","boring_xml_url":40,"boring_view_url":1,"soilmap_view_url":null,"soiltest_xml_url":0,"soiltest_view_url":0},{"id":222960,"code":"B4KJ201801011-1209","latitude":"33.3721103","longitude":"131.4864378","source_code":"QS50310349036","project_name":"","survey_name":"\u5e73\u62108\u5e74\u5ea6\u5927\u520610\u53f7\u65e5\u51faBP\u8c4a\u5ca1\u5730\u533a\u5730\u8cea\u8abf\u67fb(\u305d\u306e1)\u696d\u52d9","client_name":"\u56fd\u571f\u4ea4\u901a\u7701\u4e5d\u5dde\u5730\u65b9\u6574\u5099\u5c40\u5927\u5206\u6cb3\u5ddd\u56fd\u9053\u4e8b\u52d9\u6240","boring_xml_url":40,"boring_view_url":1,"soilmap_view_url":null,"soiltest_xml_url":0,"soiltest_view_url":0},{"id":222959,"code":"B4KJ201801011-1208","latitude":"33.3720269","longitude":"131.4863544","source_code":"QS50310349035","project_name":"","survey_name":"\u5e73\u62108\u5e74\u5ea6\u5927\u520610\u53f7\u65e5\u51faBP\u8c4a\u5ca1\u5730\u533a\u5730\u8cea\u8abf\u67fb(\u305d\u306e1)\u696d\u52d9","client_name":"\u56fd\u571f\u4ea4\u901a\u7701\u4e5d\u5dde\u5730\u65b9\u6574\u5099\u5c40\u5927\u5206\u6cb3\u5ddd\u56fd\u9053\u4e8b\u52d9\u6240","boring_xml_url":40,"boring_view_url":1,"soilmap_view_url":null,"soiltest_xml_url":0,"soiltest_view_url":0},{"id":222958,"code":"B4KJ201801011-1207","latitude":"33.3720547","longitude":"131.4860211","source_code":"QS50310349034","project_name":"","survey_name":"\u5e73\u62108\u5e74\u5ea6\u5927\u520610\u53f7\u65e5\u51faBP\u8c4a\u5ca1\u5730\u533a\u5730\u8cea\u8abf\u67fb(\u305d\u306e1)\u696d\u52d9","client_name":"\u56fd\u571f\u4ea4\u901a\u7701\u4e5d\u5dde\u5730\u65b9\u6574\u5099\u5c40\u5927\u5206\u6cb3\u5ddd\u56fd\u9053\u4e8b\u52d9\u6240","boring_xml_url":40,"boring_view_url":1,"soilmap_view_url":null,"soiltest_xml_url":0,"soiltest_view_url":0},{"id":222957,"code":"B4KJ201801011-1206","latitude":"33.3719714","longitude":"131.48591","source_code":"QS50310349033","project_name":"","survey_name":"\u5e73\u62108\u5e74\u5ea6\u5927\u520610\u53f7\u65e5\u51faBP\u8c4a\u5ca1\u5730\u533a\u5730\u8cea\u8abf\u67fb(\u305d\u306e1)\u696d\u52d9","client_name":"\u56fd\u571f\u4ea4\u901a\u7701\u4e5d\u5dde\u5730\u65b9\u6574\u5099\u5c40\u5927\u5206\u6cb3\u5ddd\u56fd\u9053\u4e8b\u52d9\u6240","boring_xml_url":40,"boring_view_url":1,"soilmap_view_url":null,"soiltest_xml_url":0,"soiltest_view_url":0},{"id":222956,"code":"B4KJ201801011-1205","latitude":"33.3719714","longitude":"131.4854933","source_code":"QS50310349032","project_name":"","survey_name":"\u5e73\u62108\u5e74\u5ea6\u5927\u520610\u53f7\u65e5\u51faBP\u8c4a\u5ca1\u5730\u533a\u5730\u8cea\u8abf\u67fb(\u305d\u306e1)\u696d\u52d9","client_name":"\u56fd\u571f\u4ea4\u901a\u7701\u4e5d\u5dde\u5730\u65b9\u6574\u5099\u5c40\u5927\u5206\u6cb3\u5ddd\u56fd\u9053\u4e8b\u52d9\u6240","boring_xml_url":40,"boring_view_url":1,"soilmap_view_url":null,"soiltest_xml_url":0,"soiltest_view_url":0}]}}