{"header":{"xyz":{"source":[],"mosaic":false},"page":3265,"raw":{"soiltest_result":"0","bbox":"57.598333,109.544722,1.933333,163.806111","page":"3265"},"conditions":{"soiltest_result":0,"north":57.598333,"west":109.544722,"south":1.933333,"east":163.806111},"success":true,"message":""},"data":{"meta":{"total":212844,"page":3265,"pages":7095,"count":30},"values":[{"id":222625,"code":"B4KJ201801011-0874","latitude":"33.7760214","longitude":"130.7106908","source_code":"QS50305527010","project_name":"","survey_name":"\u690d\u6728\u5730\u533a\u5730\u8cea\u53ca\u3073\u5730\u4e0b\u6c34\u8abf\u67fb\u696d\u52d9","client_name":"\u56fd\u571f\u4ea4\u901a\u7701\u4e5d\u5dde\u5730\u65b9\u6574\u5099\u5c40\u9060\u8cc0\u5ddd\u6cb3\u5ddd\u4e8b\u52d9\u6240","boring_xml_url":40,"boring_view_url":1,"soilmap_view_url":null,"soiltest_xml_url":0,"soiltest_view_url":0},{"id":222624,"code":"B4KJ201801011-0873","latitude":"33.7732439","longitude":"130.7106908","source_code":"QS50305527009","project_name":"","survey_name":"\u690d\u6728\u5730\u533a\u5730\u8cea\u53ca\u3073\u5730\u4e0b\u6c34\u8abf\u67fb\u696d\u52d9","client_name":"\u56fd\u571f\u4ea4\u901a\u7701\u4e5d\u5dde\u5730\u65b9\u6574\u5099\u5c40\u9060\u8cc0\u5ddd\u6cb3\u5ddd\u4e8b\u52d9\u6240","boring_xml_url":40,"boring_view_url":1,"soilmap_view_url":null,"soiltest_xml_url":0,"soiltest_view_url":0},{"id":222623,"code":"B4KJ201801011-0872","latitude":"33.7728272","longitude":"130.7126908","source_code":"QS50305527008","project_name":"","survey_name":"\u690d\u6728\u5730\u533a\u5730\u8cea\u8abf\u67fb\u696d\u52d9","client_name":"\u56fd\u571f\u4ea4\u901a\u7701\u4e5d\u5dde\u5730\u65b9\u6574\u5099\u5c40\u9060\u8cc0\u5ddd\u6cb3\u5ddd\u4e8b\u52d9\u6240","boring_xml_url":40,"boring_view_url":1,"soilmap_view_url":null,"soiltest_xml_url":0,"soiltest_view_url":0},{"id":222622,"code":"B4KJ201801011-0871","latitude":"33.7749936","longitude":"130.7123575","source_code":"QS50305527007","project_name":"","survey_name":"\u690d\u6728\u5730\u533a\u5730\u4e0b\u6c34\u89b3\u6e2c\u4e95\u8a2d\u7f6e\u696d\u52d9","client_name":"\u56fd\u571f\u4ea4\u901a\u7701\u4e5d\u5dde\u5730\u65b9\u6574\u5099\u5c40\u9060\u8cc0\u5ddd\u6cb3\u5ddd\u4e8b\u52d9\u6240","boring_xml_url":40,"boring_view_url":1,"soilmap_view_url":null,"soiltest_xml_url":0,"soiltest_view_url":0},{"id":222621,"code":"B4KJ201801011-0870","latitude":"33.7749936","longitude":"130.7123575","source_code":"QS50305527006","project_name":"","survey_name":"\u690d\u6728\u5730\u533a\u5730\u4e0b\u6c34\u89b3\u6e2c\u4e95\u8a2d\u7f6e\u696d\u52d9","client_name":"\u56fd\u571f\u4ea4\u901a\u7701\u4e5d\u5dde\u5730\u65b9\u6574\u5099\u5c40\u9060\u8cc0\u5ddd\u6cb3\u5ddd\u4e8b\u52d9\u6240","boring_xml_url":40,"boring_view_url":1,"soilmap_view_url":null,"soiltest_xml_url":0,"soiltest_view_url":0},{"id":222620,"code":"B4KJ201801011-0869","latitude":"33.7714942","longitude":"130.7115797","source_code":"QS50305527003","project_name":"","survey_name":"\u690d\u6728\u5730\u533a\u5730\u8cea\u8abf\u67fb\u696d\u52d9","client_name":"\u56fd\u571f\u4ea4\u901a\u7701\u4e5d\u5dde\u5730\u65b9\u6574\u5099\u5c40\u9060\u8cc0\u5ddd\u6cb3\u5ddd\u4e8b\u52d9\u6240","boring_xml_url":40,"boring_view_url":1,"soilmap_view_url":null,"soiltest_xml_url":0,"soiltest_view_url":0},{"id":222619,"code":"B4KJ201801011-0868","latitude":"33.7723831","longitude":"130.713635","source_code":"QS50305527002","project_name":"","survey_name":"\u690d\u6728\u5730\u533a\u5730\u8cea\u8abf\u67fb\u696d\u52d9","client_name":"\u56fd\u571f\u4ea4\u901a\u7701\u4e5d\u5dde\u5730\u65b9\u6574\u5099\u5c40\u9060\u8cc0\u5ddd\u6cb3\u5ddd\u4e8b\u52d9\u6240","boring_xml_url":40,"boring_view_url":1,"soilmap_view_url":null,"soiltest_xml_url":0,"soiltest_view_url":0},{"id":222618,"code":"B4KJ201801011-0867","latitude":"33.7730772","longitude":"130.7140239","source_code":"QS50305527001","project_name":"","survey_name":"\u690d\u6728\u5730\u533a\u5730\u8cea\u8abf\u67fb\u696d\u52d9","client_name":"\u56fd\u571f\u4ea4\u901a\u7701\u4e5d\u5dde\u5730\u65b9\u6574\u5099\u5c40\u9060\u8cc0\u5ddd\u6cb3\u5ddd\u4e8b\u52d9\u6240","boring_xml_url":40,"boring_view_url":1,"soilmap_view_url":null,"soiltest_xml_url":0,"soiltest_view_url":0},{"id":222617,"code":"B4KJ201801011-0866","latitude":"33.77741","longitude":"130.7093019","source_code":"QS50305526003","project_name":"","survey_name":"\u690d\u6728\u5730\u533a\u5730\u8cea\u53ca\u3073\u5730\u4e0b\u6c34\u8abf\u67fb\u696d\u52d9","client_name":"\u56fd\u571f\u4ea4\u901a\u7701\u4e5d\u5dde\u5730\u65b9\u6574\u5099\u5c40\u9060\u8cc0\u5ddd\u6cb3\u5ddd\u4e8b\u52d9\u6240","boring_xml_url":40,"boring_view_url":1,"soilmap_view_url":null,"soiltest_xml_url":0,"soiltest_view_url":0},{"id":222616,"code":"B4KJ201801011-0865","latitude":"33.7740769","longitude":"130.7038858","source_code":"QS50305526002","project_name":"","survey_name":"\u690d\u6728\u5730\u533a\u5730\u8cea\u53ca\u3073\u5730\u4e0b\u6c34\u8abf\u67fb\u696d\u52d9","client_name":"\u56fd\u571f\u4ea4\u901a\u7701\u4e5d\u5dde\u5730\u65b9\u6574\u5099\u5c40\u9060\u8cc0\u5ddd\u6cb3\u5ddd\u4e8b\u52d9\u6240","boring_xml_url":40,"boring_view_url":1,"soilmap_view_url":null,"soiltest_xml_url":0,"soiltest_view_url":0},{"id":222615,"code":"B4KJ201801011-0864","latitude":"33.7757714","longitude":"130.7094131","source_code":"QS50305526001","project_name":"","survey_name":"\u690d\u6728\u5730\u533a\u5730\u8cea\u8abf\u67fb\u696d\u52d9","client_name":"\u56fd\u571f\u4ea4\u901a\u7701\u4e5d\u5dde\u5730\u65b9\u6574\u5099\u5c40\u9060\u8cc0\u5ddd\u6cb3\u5ddd\u4e8b\u52d9\u6240","boring_xml_url":40,"boring_view_url":1,"soilmap_view_url":null,"soiltest_xml_url":0,"soiltest_view_url":0},{"id":222614,"code":"B4KJ201801011-0863","latitude":"33.7618011","longitude":"130.7240511","source_code":"QS50305518002","project_name":"","survey_name":"\u77e5\u53e4\u5730\u8cea\u8abf\u67fb\u696d\u52d9","client_name":"\u56fd\u571f\u4ea4\u901a\u7701\u4e5d\u5dde\u5730\u65b9\u6574\u5099\u5c40\u9060\u8cc0\u5ddd\u6cb3\u5ddd\u4e8b\u52d9\u6240","boring_xml_url":40,"boring_view_url":1,"soilmap_view_url":null,"soiltest_xml_url":0,"soiltest_view_url":0},{"id":222613,"code":"B4KJ201801011-0862","latitude":"33.7618011","longitude":"130.7243289","source_code":"QS50305518001","project_name":"","survey_name":"\u77e5\u53e4\u5730\u8cea\u8abf\u67fb\u696d\u52d9","client_name":"\u56fd\u571f\u4ea4\u901a\u7701\u4e5d\u5dde\u5730\u65b9\u6574\u5099\u5c40\u9060\u8cc0\u5ddd\u6cb3\u5ddd\u4e8b\u52d9\u6240","boring_xml_url":40,"boring_view_url":1,"soilmap_view_url":null,"soiltest_xml_url":0,"soiltest_view_url":0},{"id":222612,"code":"B4KJ201801011-0861","latitude":"33.7693556","longitude":"130.7109689","source_code":"QS50305517002","project_name":"","survey_name":"\u690d\u6728\u5730\u533a\u5730\u8cea\u53ca\u3073\u5730\u4e0b\u6c34\u8abf\u67fb\u696d\u52d9","client_name":"\u56fd\u571f\u4ea4\u901a\u7701\u4e5d\u5dde\u5730\u65b9\u6574\u5099\u5c40\u9060\u8cc0\u5ddd\u6cb3\u5ddd\u4e8b\u52d9\u6240","boring_xml_url":40,"boring_view_url":1,"soilmap_view_url":null,"soiltest_xml_url":0,"soiltest_view_url":0},{"id":222611,"code":"B4KJ201801011-0860","latitude":"33.7679944","longitude":"130.7117186","source_code":"QS50305517001","project_name":"","survey_name":"\u690d\u6728\u5730\u533a\u5730\u8cea\u8abf\u67fb\u696d\u52d9","client_name":"\u56fd\u571f\u4ea4\u901a\u7701\u4e5d\u5dde\u5730\u65b9\u6574\u5099\u5c40\u9060\u8cc0\u5ddd\u6cb3\u5ddd\u4e8b\u52d9\u6240","boring_xml_url":40,"boring_view_url":1,"soilmap_view_url":null,"soiltest_xml_url":0,"soiltest_view_url":0},{"id":222610,"code":"B4KJ201801011-0859","latitude":"33.7657447","longitude":"130.7038861","source_code":"QS50305516003","project_name":"","survey_name":"\u690d\u6728\u5730\u533a\u5730\u8cea\u53ca\u3073\u5730\u4e0b\u6c34\u8abf\u67fb\u696d\u52d9","client_name":"\u56fd\u571f\u4ea4\u901a\u7701\u4e5d\u5dde\u5730\u65b9\u6574\u5099\u5c40\u9060\u8cc0\u5ddd\u6cb3\u5ddd\u4e8b\u52d9\u6240","boring_xml_url":40,"boring_view_url":1,"soilmap_view_url":null,"soiltest_xml_url":0,"soiltest_view_url":0},{"id":222609,"code":"B4KJ201801011-0858","latitude":"33.7682444","longitude":"130.7098578","source_code":"QS50305516002","project_name":"","survey_name":"\u690d\u6728\u5730\u533a\u5730\u8cea\u53ca\u3073\u5730\u4e0b\u6c34\u8abf\u67fb\u696d\u52d9","client_name":"\u56fd\u571f\u4ea4\u901a\u7701\u4e5d\u5dde\u5730\u65b9\u6574\u5099\u5c40\u9060\u8cc0\u5ddd\u6cb3\u5ddd\u4e8b\u52d9\u6240","boring_xml_url":40,"boring_view_url":1,"soilmap_view_url":null,"soiltest_xml_url":0,"soiltest_view_url":0},{"id":222608,"code":"B4KJ201801011-0857","latitude":"33.7667447","longitude":"130.7099967","source_code":"QS50305516001","project_name":"","survey_name":"\u690d\u6728\u5730\u533a\u5730\u8cea\u8abf\u67fb\u696d\u52d9","client_name":"\u56fd\u571f\u4ea4\u901a\u7701\u4e5d\u5dde\u5730\u65b9\u6574\u5099\u5c40\u9060\u8cc0\u5ddd\u6cb3\u5ddd\u4e8b\u52d9\u6240","boring_xml_url":40,"boring_view_url":1,"soilmap_view_url":null,"soiltest_xml_url":0,"soiltest_view_url":0},{"id":222607,"code":"B4KJ201801011-0856","latitude":"33.7592183","longitude":"130.7403831","source_code":"QS50305509004","project_name":"","survey_name":"\u4e2d\u5ddd\u6a4b\u5074\u9053\u6a4b\u59164\u4ef6\u8a2d\u8a08\u696d\u52d9\u59d4\u8a17","client_name":"\u56fd\u571f\u4ea4\u901a\u7701\u4e5d\u5dde\u5730\u65b9\u6574\u5099\u5c40\u5317\u4e5d\u5dde\u56fd\u9053\u4e8b\u52d9\u6240","boring_xml_url":40,"boring_view_url":1,"soilmap_view_url":null,"soiltest_xml_url":0,"soiltest_view_url":0},{"id":222606,"code":"B4KJ201801011-0855","latitude":"33.7591628","longitude":"130.7399386","source_code":"QS50305509003","project_name":"","survey_name":"\u4e2d\u5ddd\u6a4b\u5074\u9053\u6a4b\u59164\u4ef6\u8a2d\u8a08\u696d\u52d9\u59d4\u8a17","client_name":"\u56fd\u571f\u4ea4\u901a\u7701\u4e5d\u5dde\u5730\u65b9\u6574\u5099\u5c40\u5317\u4e5d\u5dde\u56fd\u9053\u4e8b\u52d9\u6240","boring_xml_url":40,"boring_view_url":1,"soilmap_view_url":null,"soiltest_xml_url":0,"soiltest_view_url":0},{"id":222605,"code":"B4KJ201801011-0854","latitude":"33.7576908","longitude":"130.7422442","source_code":"QS50305509002","project_name":"","survey_name":"\u65b0\u77f3\u5742\u6a4b\u5074\u9053\u6a4b\u59164\u4ef6\u8a2d\u8a08\u696d\u52d9","client_name":"\u56fd\u571f\u4ea4\u901a\u7701\u4e5d\u5dde\u5730\u65b9\u6574\u5099\u5c40\u5317\u4e5d\u5dde\u56fd\u9053\u4e8b\u52d9\u6240","boring_xml_url":40,"boring_view_url":1,"soilmap_view_url":null,"soiltest_xml_url":0,"soiltest_view_url":0},{"id":222604,"code":"B4KJ201801011-0853","latitude":"33.7576906","longitude":"130.7406331","source_code":"QS50305509001","project_name":"","survey_name":"\u65b0\u77f3\u5742\u6a4b\u5074\u9053\u6a4b\u59164\u4ef6\u8a2d\u8a08\u696d\u52d9","client_name":"\u56fd\u571f\u4ea4\u901a\u7701\u4e5d\u5dde\u5730\u65b9\u6574\u5099\u5c40\u5317\u4e5d\u5dde\u56fd\u9053\u4e8b\u52d9\u6240","boring_xml_url":40,"boring_view_url":1,"soilmap_view_url":null,"soiltest_xml_url":0,"soiltest_view_url":0},{"id":222603,"code":"B4KJ201801011-0852","latitude":"33.7538019","longitude":"130.7276344","source_code":"QS50305508004","project_name":"","survey_name":"\u77e5\u53e4\u7b2c3\u6a0b\u7ba1\u59162\u7b87\u6240\u5730\u8cea\u8abf\u67fb\u696d\u52d9","client_name":"\u56fd\u571f\u4ea4\u901a\u7701\u4e5d\u5dde\u5730\u65b9\u6574\u5099\u5c40\u9060\u8cc0\u5ddd\u6cb3\u5ddd\u4e8b\u52d9\u6240","boring_xml_url":40,"boring_view_url":1,"soilmap_view_url":null,"soiltest_xml_url":0,"soiltest_view_url":0},{"id":222602,"code":"B4KJ201801011-0851","latitude":"33.7538019","longitude":"130.7276344","source_code":"QS50305508003","project_name":"","survey_name":"\u77e5\u53e4\u7b2c3\u6a0b\u7ba1\u59162\u7b87\u6240\u5730\u8cea\u8abf\u67fb\u696d\u52d9","client_name":"\u56fd\u571f\u4ea4\u901a\u7701\u4e5d\u5dde\u5730\u65b9\u6574\u5099\u5c40\u9060\u8cc0\u5ddd\u6cb3\u5ddd\u4e8b\u52d9\u6240","boring_xml_url":40,"boring_view_url":1,"soilmap_view_url":null,"soiltest_xml_url":0,"soiltest_view_url":0},{"id":222601,"code":"B4KJ201801011-0850","latitude":"33.7574128","longitude":"130.7257733","source_code":"QS50305508002","project_name":"","survey_name":"\u77e5\u53e4\u59161\u4ef6\u5730\u8cea\u8abf\u67fb\u696d\u52d9","client_name":"\u56fd\u571f\u4ea4\u901a\u7701\u4e5d\u5dde\u5730\u65b9\u6574\u5099\u5c40\u9060\u8cc0\u5ddd\u6cb3\u5ddd\u4e8b\u52d9\u6240","boring_xml_url":40,"boring_view_url":1,"soilmap_view_url":null,"soiltest_xml_url":0,"soiltest_view_url":0},{"id":222600,"code":"B4KJ201801011-0849","latitude":"33.7574403","longitude":"130.7253289","source_code":"QS50305508001","project_name":"","survey_name":"\u77e5\u53e4\u59161\u4ef6\u5730\u8cea\u8abf\u67fb\u696d\u52d9","client_name":"\u56fd\u571f\u4ea4\u901a\u7701\u4e5d\u5dde\u5730\u65b9\u6574\u5099\u5c40\u9060\u8cc0\u5ddd\u6cb3\u5ddd\u4e8b\u52d9\u6240","boring_xml_url":40,"boring_view_url":1,"soilmap_view_url":null,"soiltest_xml_url":0,"soiltest_view_url":0},{"id":222599,"code":"B4KJ201801011-0848","latitude":"33.8207364","longitude":"130.6043103","source_code":"QS50305488008","project_name":"","survey_name":"\u5317\u4e5d\u5dde\u56fd\u9053\u7ba1\u5185\u906e\u97f3\u58c1\u5b9f\u65bd\u8a2d\u8a08(\u305d\u306e2)\u696d\u52d9","client_name":"\u56fd\u571f\u4ea4\u901a\u7701\u4e5d\u5dde\u5730\u65b9\u6574\u5099\u5c40\u5317\u4e5d\u5dde\u56fd\u9053\u4e8b\u52d9\u6240","boring_xml_url":40,"boring_view_url":1,"soilmap_view_url":null,"soiltest_xml_url":0,"soiltest_view_url":0},{"id":222598,"code":"B4KJ201801011-0847","latitude":"33.8217086","longitude":"130.6061158","source_code":"QS50305488007","project_name":"","survey_name":"\u76f4\u65b9\u30d0\u30a4\u30d1\u30b9\u91ce\u9762\u5730\u533a\u5916\u5730\u8cea\u8abf\u67fb\u696d\u52d9","client_name":"\u56fd\u571f\u4ea4\u901a\u7701\u4e5d\u5dde\u5730\u65b9\u6574\u5099\u5c40\u5317\u4e5d\u5dde\u56fd\u9053\u4e8b\u52d9\u6240","boring_xml_url":40,"boring_view_url":1,"soilmap_view_url":null,"soiltest_xml_url":0,"soiltest_view_url":0},{"id":222597,"code":"B4KJ201801011-0846","latitude":"33.8219864","longitude":"130.6059769","source_code":"QS50305488006","project_name":"","survey_name":"\u76f4\u65b9\u30d0\u30a4\u30d1\u30b9\u91ce\u9762\u5730\u533a\u5916\u5730\u8cea\u8abf\u67fb\u696d\u52d9","client_name":"\u56fd\u571f\u4ea4\u901a\u7701\u4e5d\u5dde\u5730\u65b9\u6574\u5099\u5c40\u5317\u4e5d\u5dde\u56fd\u9053\u4e8b\u52d9\u6240","boring_xml_url":40,"boring_view_url":1,"soilmap_view_url":null,"soiltest_xml_url":0,"soiltest_view_url":0},{"id":222596,"code":"B4KJ201801011-0845","latitude":"33.8228194","longitude":"130.6067822","source_code":"QS50305488005","project_name":"","survey_name":"\u57ce\u5c71\u5730\u533a\u5730\u8cea\u8abf\u67fb\u59161\u4ef6\u696d\u52d9","client_name":"\u56fd\u571f\u4ea4\u901a\u7701\u4e5d\u5dde\u5730\u65b9\u6574\u5099\u5c40\u5317\u4e5d\u5dde\u56fd\u9053\u4e8b\u52d9\u6240","boring_xml_url":40,"boring_view_url":1,"soilmap_view_url":null,"soiltest_xml_url":0,"soiltest_view_url":0}]}}