{"header":{"xyz":{"source":[],"mosaic":false},"page":3273,"raw":{"soiltest_result":"0","bbox":"57.598333,109.544722,1.933333,163.806111","page":"3273"},"conditions":{"soiltest_result":0,"north":57.598333,"west":109.544722,"south":1.933333,"east":163.806111},"success":true,"message":""},"data":{"meta":{"total":212844,"page":3273,"pages":7095,"count":30},"values":[{"id":222385,"code":"B4KJ201801011-0634","latitude":"33.6682581","longitude":"130.8179064","source_code":"QS50303695009","project_name":"","survey_name":"\u4e0b\u53e3\u5730\u533a\u59164\u4ef6\u5730\u8cea\u8abf\u67fb\u696d\u52d9","client_name":"\u56fd\u571f\u4ea4\u901a\u7701\u4e5d\u5dde\u5730\u65b9\u6574\u5099\u5c40\u9060\u8cc0\u5ddd\u6cb3\u5ddd\u4e8b\u52d9\u6240","boring_xml_url":40,"boring_view_url":1,"soilmap_view_url":null,"soiltest_xml_url":0,"soiltest_view_url":0},{"id":222384,"code":"B4KJ201801011-0633","latitude":"33.6694522","longitude":"130.8197672","source_code":"QS50303695008","project_name":"","survey_name":"\u91d1\u8fba\u5ddd\u5730\u533a\u5730\u8cea\u8abf\u67fb\u696d\u52d9","client_name":"\u56fd\u571f\u4ea4\u901a\u7701\u4e5d\u5dde\u5730\u65b9\u6574\u5099\u5c40\u9060\u8cc0\u5ddd\u6cb3\u5ddd\u4e8b\u52d9\u6240","boring_xml_url":40,"boring_view_url":1,"soilmap_view_url":null,"soiltest_xml_url":0,"soiltest_view_url":0},{"id":222383,"code":"B4KJ201801011-0632","latitude":"33.6693689","longitude":"130.8197672","source_code":"QS50303695007","project_name":"","survey_name":"\u91d1\u8fba\u5ddd\u5730\u533a\u5730\u8cea\u8abf\u67fb\u696d\u52d9","client_name":"\u56fd\u571f\u4ea4\u901a\u7701\u4e5d\u5dde\u5730\u65b9\u6574\u5099\u5c40\u9060\u8cc0\u5ddd\u6cb3\u5ddd\u4e8b\u52d9\u6240","boring_xml_url":40,"boring_view_url":1,"soilmap_view_url":null,"soiltest_xml_url":0,"soiltest_view_url":0},{"id":222382,"code":"B4KJ201801011-0631","latitude":"33.6692578","longitude":"130.819795","source_code":"QS50303695006","project_name":"","survey_name":"\u91d1\u8fba\u5ddd\u5730\u533a\u5730\u8cea\u8abf\u67fb\u696d\u52d9","client_name":"\u56fd\u571f\u4ea4\u901a\u7701\u4e5d\u5dde\u5730\u65b9\u6574\u5099\u5c40\u9060\u8cc0\u5ddd\u6cb3\u5ddd\u4e8b\u52d9\u6240","boring_xml_url":40,"boring_view_url":1,"soilmap_view_url":null,"soiltest_xml_url":0,"soiltest_view_url":0},{"id":222381,"code":"B4KJ201801011-0630","latitude":"33.6690078","longitude":"130.8179619","source_code":"QS50303695005","project_name":"","survey_name":"\u91d1\u8fba\u5ddd\u5730\u533a\u5730\u8cea\u8abf\u67fb\u696d\u52d9","client_name":"\u56fd\u571f\u4ea4\u901a\u7701\u4e5d\u5dde\u5730\u65b9\u6574\u5099\u5c40\u9060\u8cc0\u5ddd\u6cb3\u5ddd\u4e8b\u52d9\u6240","boring_xml_url":40,"boring_view_url":1,"soilmap_view_url":null,"soiltest_xml_url":0,"soiltest_view_url":0},{"id":222380,"code":"B4KJ201801011-0629","latitude":"33.6688136","longitude":"130.8181008","source_code":"QS50303695004","project_name":"","survey_name":"\u91d1\u8fba\u5ddd\u5730\u533a\u5730\u8cea\u8abf\u67fb\u696d\u52d9","client_name":"\u56fd\u571f\u4ea4\u901a\u7701\u4e5d\u5dde\u5730\u65b9\u6574\u5099\u5c40\u9060\u8cc0\u5ddd\u6cb3\u5ddd\u4e8b\u52d9\u6240","boring_xml_url":40,"boring_view_url":1,"soilmap_view_url":null,"soiltest_xml_url":0,"soiltest_view_url":0},{"id":222379,"code":"B4KJ201801011-0628","latitude":"33.6658692","longitude":"130.8144344","source_code":"QS50303695002","project_name":"","survey_name":"\u91dc\u30ce\u53e3\u5730\u533a\u5730\u8cea\u8abf\u67fb\u696d\u52d9","client_name":"\u56fd\u571f\u4ea4\u901a\u7701\u4e5d\u5dde\u5730\u65b9\u6574\u5099\u5c40\u9060\u8cc0\u5ddd\u6cb3\u5ddd\u4e8b\u52d9\u6240","boring_xml_url":40,"boring_view_url":1,"soilmap_view_url":null,"soiltest_xml_url":0,"soiltest_view_url":0},{"id":222378,"code":"B4KJ201801011-0627","latitude":"33.6660914","longitude":"130.8141844","source_code":"QS50303695001","project_name":"","survey_name":"\u91dc\u30ce\u53e3\u5730\u533a\u5730\u8cea\u8abf\u67fb\u696d\u52d9","client_name":"\u56fd\u571f\u4ea4\u901a\u7701\u4e5d\u5dde\u5730\u65b9\u6574\u5099\u5c40\u9060\u8cc0\u5ddd\u6cb3\u5ddd\u4e8b\u52d9\u6240","boring_xml_url":40,"boring_view_url":1,"soilmap_view_url":null,"soiltest_xml_url":0,"soiltest_view_url":0},{"id":222377,"code":"B4KJ201801011-0626","latitude":"33.6560369","longitude":"130.8059633","source_code":"QS50303684002","project_name":"","survey_name":"\u7530\u5ddd\u7ba1\u5185\u5fdc\u6025\u5bfe\u7b56\u5730\u8cea\u8abf\u67fb\u696d\u52d9","client_name":"\u56fd\u571f\u4ea4\u901a\u7701\u4e5d\u5dde\u5730\u65b9\u6574\u5099\u5c40\u9060\u8cc0\u5ddd\u6cb3\u5ddd\u4e8b\u52d9\u6240","boring_xml_url":40,"boring_view_url":1,"soilmap_view_url":null,"soiltest_xml_url":0,"soiltest_view_url":0},{"id":222376,"code":"B4KJ201801011-0625","latitude":"33.6547872","longitude":"130.8068244","source_code":"QS50303684001","project_name":"","survey_name":"\u7a31\u5730\u533a\u5730\u4e0b\u6c34\u8abf\u67fb\u59161\u4ef6\u696d\u52d9","client_name":"\u56fd\u571f\u4ea4\u901a\u7701\u4e5d\u5dde\u5730\u65b9\u6574\u5099\u5c40\u9060\u8cc0\u5ddd\u6cb3\u5ddd\u4e8b\u52d9\u6240","boring_xml_url":40,"boring_view_url":1,"soilmap_view_url":null,"soiltest_xml_url":0,"soiltest_view_url":0},{"id":222375,"code":"B4KJ201801011-0624","latitude":"33.6467325","longitude":"130.8138794","source_code":"QS50303675004","project_name":"","survey_name":"\u6e05\u6c34\u30fb\u756a\u7530\u5730\u8cea\u8abf\u67fb\u53ca\u3073\u5730\u4e0b\u6c34\u8abf\u67fb\u696d\u52d9","client_name":"\u56fd\u571f\u4ea4\u901a\u7701\u4e5d\u5dde\u5730\u65b9\u6574\u5099\u5c40\u9060\u8cc0\u5ddd\u6cb3\u5ddd\u4e8b\u52d9\u6240","boring_xml_url":40,"boring_view_url":1,"soilmap_view_url":null,"soiltest_xml_url":0,"soiltest_view_url":0},{"id":222374,"code":"B4KJ201801011-0623","latitude":"33.6462606","longitude":"130.8145739","source_code":"QS50303675003","project_name":"","survey_name":"\u6e05\u6c34\u30fb\u756a\u7530\u5730\u8cea\u8abf\u67fb\u53ca\u3073\u5730\u4e0b\u6c34\u8abf\u67fb\u696d\u52d9","client_name":"\u56fd\u571f\u4ea4\u901a\u7701\u4e5d\u5dde\u5730\u65b9\u6574\u5099\u5c40\u9060\u8cc0\u5ddd\u6cb3\u5ddd\u4e8b\u52d9\u6240","boring_xml_url":40,"boring_view_url":1,"soilmap_view_url":null,"soiltest_xml_url":0,"soiltest_view_url":0},{"id":222373,"code":"B4KJ201801011-0622","latitude":"33.6461494","longitude":"130.8179625","source_code":"QS50303675002","project_name":"","survey_name":"\u756a\u7530\u5730\u533a\u5730\u8cea\u8abf\u67fb\u59162\u4ef6\u696d\u52d9","client_name":"\u56fd\u571f\u4ea4\u901a\u7701\u4e5d\u5dde\u5730\u65b9\u6574\u5099\u5c40\u9060\u8cc0\u5ddd\u6cb3\u5ddd\u4e8b\u52d9\u6240","boring_xml_url":40,"boring_view_url":1,"soilmap_view_url":null,"soiltest_xml_url":0,"soiltest_view_url":0},{"id":222372,"code":"B4KJ201801011-0621","latitude":"33.6461494","longitude":"130.8151017","source_code":"QS50303675001","project_name":"","survey_name":"\u756a\u7530\u5730\u533a\u5730\u8cea\u8abf\u67fb\u59162\u4ef6\u696d\u52d9","client_name":"\u56fd\u571f\u4ea4\u901a\u7701\u4e5d\u5dde\u5730\u65b9\u6574\u5099\u5c40\u9060\u8cc0\u5ddd\u6cb3\u5ddd\u4e8b\u52d9\u6240","boring_xml_url":40,"boring_view_url":1,"soilmap_view_url":null,"soiltest_xml_url":0,"soiltest_view_url":0},{"id":222371,"code":"B4KJ201801011-0620","latitude":"33.6493708","longitude":"130.7959644","source_code":"QS50303673007","project_name":"","survey_name":"\u884c\u6a4b\u7b51\u8c4a\u7ba1\u5185\u8abf\u67fb\u8a2d\u8a08\u5916\u696d\u52d9","client_name":"\u56fd\u571f\u4ea4\u901a\u7701\u4e5d\u5dde\u5730\u65b9\u6574\u5099\u5c40\u5317\u4e5d\u5dde\u56fd\u9053\u4e8b\u52d9\u6240","boring_xml_url":40,"boring_view_url":1,"soilmap_view_url":null,"soiltest_xml_url":0,"soiltest_view_url":0},{"id":222370,"code":"B4KJ201801011-0619","latitude":"33.6493708","longitude":"130.7959644","source_code":"QS50303673006","project_name":"","survey_name":"\u884c\u6a4b\u7b51\u8c4a\u7ba1\u5185\u8abf\u67fb\u8a2d\u8a08\u5916\u696d\u52d9","client_name":"\u56fd\u571f\u4ea4\u901a\u7701\u4e5d\u5dde\u5730\u65b9\u6574\u5099\u5c40\u5317\u4e5d\u5dde\u56fd\u9053\u4e8b\u52d9\u6240","boring_xml_url":40,"boring_view_url":1,"soilmap_view_url":null,"soiltest_xml_url":0,"soiltest_view_url":0},{"id":222369,"code":"B4KJ201801011-0618","latitude":"33.6493708","longitude":"130.7959644","source_code":"QS50303673005","project_name":"","survey_name":"\u884c\u6a4b\u7b51\u8c4a\u7ba1\u5185\u8abf\u67fb\u8a2d\u8a08\u5916\u696d\u52d9","client_name":"\u56fd\u571f\u4ea4\u901a\u7701\u4e5d\u5dde\u5730\u65b9\u6574\u5099\u5c40\u5317\u4e5d\u5dde\u56fd\u9053\u4e8b\u52d9\u6240","boring_xml_url":40,"boring_view_url":1,"soilmap_view_url":null,"soiltest_xml_url":0,"soiltest_view_url":0},{"id":222368,"code":"B4KJ201801011-0617","latitude":"33.6493708","longitude":"130.7959644","source_code":"QS50303673004","project_name":"","survey_name":"\u884c\u6a4b\u7b51\u8c4a\u7ba1\u5185\u8abf\u67fb\u8a2d\u8a08\u5916\u696d\u52d9","client_name":"\u56fd\u571f\u4ea4\u901a\u7701\u4e5d\u5dde\u5730\u65b9\u6574\u5099\u5c40\u5317\u4e5d\u5dde\u56fd\u9053\u4e8b\u52d9\u6240","boring_xml_url":40,"boring_view_url":1,"soilmap_view_url":null,"soiltest_xml_url":0,"soiltest_view_url":0},{"id":222367,"code":"B4KJ201801011-0616","latitude":"33.6493708","longitude":"130.7959644","source_code":"QS50303673003","project_name":"","survey_name":"\u884c\u6a4b\u7b51\u8c4a\u7ba1\u5185\u8abf\u67fb\u8a2d\u8a08\u5916\u696d\u52d9","client_name":"\u56fd\u571f\u4ea4\u901a\u7701\u4e5d\u5dde\u5730\u65b9\u6574\u5099\u5c40\u5317\u4e5d\u5dde\u56fd\u9053\u4e8b\u52d9\u6240","boring_xml_url":40,"boring_view_url":1,"soilmap_view_url":null,"soiltest_xml_url":0,"soiltest_view_url":0},{"id":222366,"code":"B4KJ201801011-0615","latitude":"33.6493708","longitude":"130.7959644","source_code":"QS50303673002","project_name":"","survey_name":"\u884c\u6a4b\u7b51\u8c4a\u7ba1\u5185\u8abf\u67fb\u8a2d\u8a08\u5916\u696d\u52d9","client_name":"\u56fd\u571f\u4ea4\u901a\u7701\u4e5d\u5dde\u5730\u65b9\u6574\u5099\u5c40\u5317\u4e5d\u5dde\u56fd\u9053\u4e8b\u52d9\u6240","boring_xml_url":40,"boring_view_url":1,"soilmap_view_url":null,"soiltest_xml_url":0,"soiltest_view_url":0},{"id":222365,"code":"B4KJ201801011-0614","latitude":"33.6494264","longitude":"130.7954922","source_code":"QS50303673001","project_name":"","survey_name":"\u516b\u5e61\u6771\u5730\u533a\u59161\u4ef6\u6cd5\u9762\u8abf\u67fb\u696d\u52d9","client_name":"\u56fd\u571f\u4ea4\u901a\u7701\u4e5d\u5dde\u5730\u65b9\u6574\u5099\u5c40\u5317\u4e5d\u5dde\u56fd\u9053\u4e8b\u52d9\u6240","boring_xml_url":40,"boring_view_url":1,"soilmap_view_url":null,"soiltest_xml_url":0,"soiltest_view_url":0},{"id":222364,"code":"B4KJ201801011-0613","latitude":"33.6503422","longitude":"130.7615231","source_code":"QS50303671001","project_name":"","survey_name":"\u9ce5\u5c3e\u5730\u533a\u8abf\u67fb\u8a2d\u8a08\u59d4\u8a17\u696d\u52d9","client_name":"\u56fd\u571f\u4ea4\u901a\u7701\u4e5d\u5dde\u5730\u65b9\u6574\u5099\u5c40\u4f50\u8cc0\u56fd\u9053\u4e8b\u52d9\u6240","boring_xml_url":40,"boring_view_url":1,"soilmap_view_url":null,"soiltest_xml_url":0,"soiltest_view_url":0},{"id":222363,"code":"B4KJ201801011-0612","latitude":"33.6469814","longitude":"130.7592456","source_code":"QS50303670002","project_name":"","survey_name":"\u6e05\u6c34\u6a4b\u57fa\u790e\u8abf\u67fb\u696d\u52d9(\u9f20\u30b1\u6a4b)","client_name":"\u56fd\u571f\u4ea4\u901a\u7701\u4e5d\u5dde\u5730\u65b9\u6574\u5099\u5c40\u5317\u4e5d\u5dde\u56fd\u9053\u4e8b\u52d9\u6240","boring_xml_url":40,"boring_view_url":1,"soilmap_view_url":null,"soiltest_xml_url":0,"soiltest_view_url":0},{"id":222362,"code":"B4KJ201801011-0611","latitude":"33.637845","longitude":"130.8327114","source_code":"QS50303666002","project_name":"","survey_name":"\u5ddd\u539f\u5730\u5185\u59161\u7b87\u6240\u5730\u8cea\u8abf\u67fb\u696d\u52d9","client_name":"\u56fd\u571f\u4ea4\u901a\u7701\u4e5d\u5dde\u5730\u65b9\u6574\u5099\u5c40\u9060\u8cc0\u5ddd\u6cb3\u5ddd\u4e8b\u52d9\u6240","boring_xml_url":40,"boring_view_url":1,"soilmap_view_url":null,"soiltest_xml_url":0,"soiltest_view_url":0},{"id":222361,"code":"B4KJ201801011-0610","latitude":"33.6379839","longitude":"130.8319058","source_code":"QS50303666001","project_name":"","survey_name":"\u5ddd\u539f\u5730\u533a\u59161\u7b87\u6240\u5730\u8cea\u8abf\u67fb\u696d\u52d9","client_name":"\u56fd\u571f\u4ea4\u901a\u7701\u4e5d\u5dde\u5730\u65b9\u6574\u5099\u5c40\u9060\u8cc0\u5ddd\u6cb3\u5ddd\u4e8b\u52d9\u6240","boring_xml_url":40,"boring_view_url":1,"soilmap_view_url":null,"soiltest_xml_url":0,"soiltest_view_url":0},{"id":222360,"code":"B4KJ201801011-0609","latitude":"33.6427053","longitude":"130.8198514","source_code":"QS50303665005","project_name":"","survey_name":"\u4f0a\u7530\u5730\u533a\u5730\u8cea\u8abf\u67fb\u696d\u52d9","client_name":"\u56fd\u571f\u4ea4\u901a\u7701\u4e5d\u5dde\u5730\u65b9\u6574\u5099\u5c40\u9060\u8cc0\u5ddd\u6cb3\u5ddd\u4e8b\u52d9\u6240","boring_xml_url":40,"boring_view_url":1,"soilmap_view_url":null,"soiltest_xml_url":0,"soiltest_view_url":0},{"id":222359,"code":"B4KJ201801011-0608","latitude":"33.6427053","longitude":"130.8209622","source_code":"QS50303665004","project_name":"","survey_name":"\u4f0a\u7530\u5730\u533a\u5730\u8cea\u8abf\u67fb\u696d\u52d9","client_name":"\u56fd\u571f\u4ea4\u901a\u7701\u4e5d\u5dde\u5730\u65b9\u6574\u5099\u5c40\u9060\u8cc0\u5ddd\u6cb3\u5ddd\u4e8b\u52d9\u6240","boring_xml_url":40,"boring_view_url":1,"soilmap_view_url":null,"soiltest_xml_url":0,"soiltest_view_url":0},{"id":222358,"code":"B4KJ201801011-0607","latitude":"33.6442608","longitude":"130.8179625","source_code":"QS50303665003","project_name":"","survey_name":"\u756a\u7530\u5730\u533a\u5730\u8cea\u8abf\u67fb\u59162\u4ef6\u696d\u52d9","client_name":"\u56fd\u571f\u4ea4\u901a\u7701\u4e5d\u5dde\u5730\u65b9\u6574\u5099\u5c40\u9060\u8cc0\u5ddd\u6cb3\u5ddd\u4e8b\u52d9\u6240","boring_xml_url":40,"boring_view_url":1,"soilmap_view_url":null,"soiltest_xml_url":0,"soiltest_view_url":0},{"id":222357,"code":"B4KJ201801011-0606","latitude":"33.6420389","longitude":"130.8214067","source_code":"QS50303665002","project_name":"","survey_name":"\u4e0a\u91ce\u6a4b\u4ed8\u8fd1\u6f0f\u6c34\u5bfe\u7b56\u8abf\u67fb\u696d\u52d9","client_name":"\u56fd\u571f\u4ea4\u901a\u7701\u4e5d\u5dde\u5730\u65b9\u6574\u5099\u5c40\u9060\u8cc0\u5ddd\u6cb3\u5ddd\u4e8b\u52d9\u6240","boring_xml_url":40,"boring_view_url":1,"soilmap_view_url":null,"soiltest_xml_url":0,"soiltest_view_url":0},{"id":222356,"code":"B4KJ201801011-0605","latitude":"33.6445108","longitude":"130.8201011","source_code":"QS50303665001","project_name":"","survey_name":"\u57ce\u91ce\u5730\u533a\u5916\u5730\u8cea\u8abf\u67fb\u696d\u52d9","client_name":"\u56fd\u571f\u4ea4\u901a\u7701\u4e5d\u5dde\u5730\u65b9\u6574\u5099\u5c40\u9060\u8cc0\u5ddd\u6cb3\u5ddd\u4e8b\u52d9\u6240","boring_xml_url":40,"boring_view_url":1,"soilmap_view_url":null,"soiltest_xml_url":0,"soiltest_view_url":0}]}}