{"header":{"xyz":{"source":[],"mosaic":false},"page":3274,"raw":{"soiltest_result":"0","bbox":"57.598333,109.544722,1.933333,163.806111","page":"3274"},"conditions":{"soiltest_result":0,"north":57.598333,"west":109.544722,"south":1.933333,"east":163.806111},"success":true,"message":""},"data":{"meta":{"total":212844,"page":3274,"pages":7095,"count":30},"values":[{"id":222355,"code":"B4KJ201801011-0604","latitude":"33.6395386","longitude":"130.7939925","source_code":"QS50303663001","project_name":"","survey_name":"\u65b0\u753a\u7b2c2\u6392\u6c34\u6a0b\u7ba1\u59162\u4ef6\u5730\u8cea\u8abf\u67fb\u696d\u52d9","client_name":"\u56fd\u571f\u4ea4\u901a\u7701\u4e5d\u5dde\u5730\u65b9\u6574\u5099\u5c40\u9060\u8cc0\u5ddd\u6cb3\u5ddd\u4e8b\u52d9\u6240","boring_xml_url":40,"boring_view_url":1,"soilmap_view_url":null,"soiltest_xml_url":0,"soiltest_view_url":0},{"id":222354,"code":"B4KJ201801011-0603","latitude":"33.6429542","longitude":"130.7634675","source_code":"QS50303661002","project_name":"","survey_name":"\u6c34\u843d\u5730\u533a\u5730\u8cea\u8abf\u67fb\u696d\u52d9","client_name":"\u56fd\u571f\u4ea4\u901a\u7701\u4e5d\u5dde\u5730\u65b9\u6574\u5099\u5c40\u798f\u5ca1\u56fd\u9053\u4e8b\u52d9\u6240","boring_xml_url":40,"boring_view_url":1,"soilmap_view_url":null,"soiltest_xml_url":0,"soiltest_view_url":0},{"id":222353,"code":"B4KJ201801011-0602","latitude":"33.6431764","longitude":"130.7632175","source_code":"QS50303661001","project_name":"","survey_name":"\u6c34\u843d\u5730\u533a\u5730\u8cea\u8abf\u67fb\u696d\u52d9","client_name":"\u56fd\u571f\u4ea4\u901a\u7701\u4e5d\u5dde\u5730\u65b9\u6574\u5099\u5c40\u798f\u5ca1\u56fd\u9053\u4e8b\u52d9\u6240","boring_xml_url":40,"boring_view_url":1,"soilmap_view_url":null,"soiltest_xml_url":0,"soiltest_view_url":0},{"id":222352,"code":"B4KJ201801011-0601","latitude":"33.6324292","longitude":"130.8351281","source_code":"QS50303657003","project_name":"","survey_name":"\u7530\u5ddd\u7ba1\u5185\u5fdc\u6025\u5bfe\u7b56\u5730\u8cea\u8abf\u67fb\u696d\u52d9","client_name":"\u56fd\u571f\u4ea4\u901a\u7701\u4e5d\u5dde\u5730\u65b9\u6574\u5099\u5c40\u9060\u8cc0\u5ddd\u6cb3\u5ddd\u4e8b\u52d9\u6240","boring_xml_url":40,"boring_view_url":1,"soilmap_view_url":null,"soiltest_xml_url":0,"soiltest_view_url":0},{"id":222351,"code":"B4KJ201801011-0600","latitude":"33.6284853","longitude":"130.8415719","source_code":"QS50303657002","project_name":"","survey_name":"\u5830\u6539\u7bc9\u5f71\u97ff\u8abf\u67fb\u696d\u52d9","client_name":"\u56fd\u571f\u4ea4\u901a\u7701\u4e5d\u5dde\u5730\u65b9\u6574\u5099\u5c40\u9060\u8cc0\u5ddd\u6cb3\u5ddd\u4e8b\u52d9\u6240","boring_xml_url":40,"boring_view_url":1,"soilmap_view_url":null,"soiltest_xml_url":0,"soiltest_view_url":0},{"id":222350,"code":"B4KJ201801011-0599","latitude":"33.6352064","longitude":"130.8334614","source_code":"QS50303656002","project_name":"","survey_name":"\u77e5\u53e4\u7b2c3\u6a0b\u7ba1\u59162\u7b87\u6240\u5730\u8cea\u8abf\u67fb\u696d\u52d9","client_name":"\u56fd\u571f\u4ea4\u901a\u7701\u4e5d\u5dde\u5730\u65b9\u6574\u5099\u5c40\u9060\u8cc0\u5ddd\u6cb3\u5ddd\u4e8b\u52d9\u6240","boring_xml_url":40,"boring_view_url":1,"soilmap_view_url":null,"soiltest_xml_url":0,"soiltest_view_url":0},{"id":222349,"code":"B4KJ201801011-0598","latitude":"33.6352064","longitude":"130.8334614","source_code":"QS50303656001","project_name":"","survey_name":"\u77e5\u53e4\u7b2c3\u6a0b\u7ba1\u59162\u7b87\u6240\u5730\u8cea\u8abf\u67fb\u696d\u52d9","client_name":"\u56fd\u571f\u4ea4\u901a\u7701\u4e5d\u5dde\u5730\u65b9\u6574\u5099\u5c40\u9060\u8cc0\u5ddd\u6cb3\u5ddd\u4e8b\u52d9\u6240","boring_xml_url":40,"boring_view_url":1,"soilmap_view_url":null,"soiltest_xml_url":0,"soiltest_view_url":0},{"id":222348,"code":"B4KJ201801011-0597","latitude":"33.6305675","longitude":"130.7933539","source_code":"QS50303653004","project_name":"","survey_name":"\u732a\u767b\u5730\u533a\u59161\u7b87\u6240\u5730\u8cea\u8abf\u67fb\u696d\u52d9","client_name":"\u56fd\u571f\u4ea4\u901a\u7701\u4e5d\u5dde\u5730\u65b9\u6574\u5099\u5c40\u9060\u8cc0\u5ddd\u6cb3\u5ddd\u4e8b\u52d9\u6240","boring_xml_url":40,"boring_view_url":1,"soilmap_view_url":null,"soiltest_xml_url":0,"soiltest_view_url":0},{"id":222347,"code":"B4KJ201801011-0596","latitude":"33.6308172","longitude":"130.7930764","source_code":"QS50303653003","project_name":"","survey_name":"\u732a\u767b\u5730\u533a\u59161\u7b87\u6240\u5730\u8cea\u8abf\u67fb\u696d\u52d9","client_name":"\u56fd\u571f\u4ea4\u901a\u7701\u4e5d\u5dde\u5730\u65b9\u6574\u5099\u5c40\u9060\u8cc0\u5ddd\u6cb3\u5ddd\u4e8b\u52d9\u6240","boring_xml_url":40,"boring_view_url":1,"soilmap_view_url":null,"soiltest_xml_url":0,"soiltest_view_url":0},{"id":222346,"code":"B4KJ201801011-0595","latitude":"33.6308172","longitude":"130.7929375","source_code":"QS50303653002","project_name":"","survey_name":"\u732a\u767b\u5730\u533a\u59161\u7b87\u6240\u5730\u8cea\u8abf\u67fb\u696d\u52d9","client_name":"\u56fd\u571f\u4ea4\u901a\u7701\u4e5d\u5dde\u5730\u65b9\u6574\u5099\u5c40\u9060\u8cc0\u5ddd\u6cb3\u5ddd\u4e8b\u52d9\u6240","boring_xml_url":40,"boring_view_url":1,"soilmap_view_url":null,"soiltest_xml_url":0,"soiltest_view_url":0},{"id":222345,"code":"B4KJ201801011-0594","latitude":"33.6308172","longitude":"130.7927986","source_code":"QS50303653001","project_name":"","survey_name":"\u732a\u767b\u5730\u533a\u59161\u7b87\u6240\u5730\u8cea\u8abf\u67fb\u696d\u52d9","client_name":"\u56fd\u571f\u4ea4\u901a\u7701\u4e5d\u5dde\u5730\u65b9\u6574\u5099\u5c40\u9060\u8cc0\u5ddd\u6cb3\u5ddd\u4e8b\u52d9\u6240","boring_xml_url":40,"boring_view_url":1,"soilmap_view_url":null,"soiltest_xml_url":0,"soiltest_view_url":0},{"id":222344,"code":"B4KJ201801011-0593","latitude":"33.6279019","longitude":"130.8425164","source_code":"QS50303647006","project_name":"","survey_name":"\u5830\u6539\u7bc9\u5f71\u97ff\u8abf\u67fb\u696d\u52d9","client_name":"\u56fd\u571f\u4ea4\u901a\u7701\u4e5d\u5dde\u5730\u65b9\u6574\u5099\u5c40\u9060\u8cc0\u5ddd\u6cb3\u5ddd\u4e8b\u52d9\u6240","boring_xml_url":40,"boring_view_url":1,"soilmap_view_url":null,"soiltest_xml_url":0,"soiltest_view_url":0},{"id":222343,"code":"B4KJ201801011-0592","latitude":"33.6274575","longitude":"130.8429053","source_code":"QS50303647005","project_name":"","survey_name":"\u5830\u6539\u7bc9\u5f71\u97ff\u8abf\u67fb\u696d\u52d9","client_name":"\u56fd\u571f\u4ea4\u901a\u7701\u4e5d\u5dde\u5730\u65b9\u6574\u5099\u5c40\u9060\u8cc0\u5ddd\u6cb3\u5ddd\u4e8b\u52d9\u6240","boring_xml_url":40,"boring_view_url":1,"soilmap_view_url":null,"soiltest_xml_url":0,"soiltest_view_url":0},{"id":222342,"code":"B4KJ201801011-0591","latitude":"33.6275686","longitude":"130.8403497","source_code":"QS50303647003","project_name":"","survey_name":"\u5830\u6539\u7bc9\u5f71\u97ff\u8abf\u67fb\u696d\u52d9","client_name":"\u56fd\u571f\u4ea4\u901a\u7701\u4e5d\u5dde\u5730\u65b9\u6574\u5099\u5c40\u9060\u8cc0\u5ddd\u6cb3\u5ddd\u4e8b\u52d9\u6240","boring_xml_url":40,"boring_view_url":1,"soilmap_view_url":null,"soiltest_xml_url":0,"soiltest_view_url":0},{"id":222341,"code":"B4KJ201801011-0590","latitude":"33.6269011","longitude":"130.7930486","source_code":"QS50303643004","project_name":"","survey_name":"\u6625\u65e5\u5730\u533a\u59161\u30f6\u6240\u5730\u8cea\u8abf\u67fb\u696d\u52d9","client_name":"\u56fd\u571f\u4ea4\u901a\u7701\u4e5d\u5dde\u5730\u65b9\u6574\u5099\u5c40\u9060\u8cc0\u5ddd\u6cb3\u5ddd\u4e8b\u52d9\u6240","boring_xml_url":40,"boring_view_url":1,"soilmap_view_url":null,"soiltest_xml_url":0,"soiltest_view_url":0},{"id":222340,"code":"B4KJ201801011-0589","latitude":"33.6269011","longitude":"130.7930486","source_code":"QS50303643003","project_name":"","survey_name":"\u6625\u65e5\u5730\u533a\u59161\u30f6\u6240\u5730\u8cea\u8abf\u67fb\u696d\u52d9","client_name":"\u56fd\u571f\u4ea4\u901a\u7701\u4e5d\u5dde\u5730\u65b9\u6574\u5099\u5c40\u9060\u8cc0\u5ddd\u6cb3\u5ddd\u4e8b\u52d9\u6240","boring_xml_url":40,"boring_view_url":1,"soilmap_view_url":null,"soiltest_xml_url":0,"soiltest_view_url":0},{"id":222339,"code":"B4KJ201801011-0588","latitude":"33.6221517","longitude":"130.7942986","source_code":"QS50303643002","project_name":"","survey_name":"\u4e0a\u4e09\u7dd2\u5730\u533a\u5916\u5730\u8cea\u8abf\u67fb\u696d\u52d9","client_name":"\u56fd\u571f\u4ea4\u901a\u7701\u4e5d\u5dde\u5730\u65b9\u6574\u5099\u5c40\u9060\u8cc0\u5ddd\u6cb3\u5ddd\u4e8b\u52d9\u6240","boring_xml_url":40,"boring_view_url":1,"soilmap_view_url":null,"soiltest_xml_url":0,"soiltest_view_url":0},{"id":222338,"code":"B4KJ201801011-0587","latitude":"33.6221517","longitude":"130.7942986","source_code":"QS50303643001","project_name":"","survey_name":"\u4e0a\u4e09\u7dd2\u5730\u533a\u5916\u5730\u8cea\u8abf\u67fb\u696d\u52d9","client_name":"\u56fd\u571f\u4ea4\u901a\u7701\u4e5d\u5dde\u5730\u65b9\u6574\u5099\u5c40\u9060\u8cc0\u5ddd\u6cb3\u5ddd\u4e8b\u52d9\u6240","boring_xml_url":40,"boring_view_url":1,"soilmap_view_url":null,"soiltest_xml_url":0,"soiltest_view_url":0},{"id":222337,"code":"B4KJ201801011-0586","latitude":"33.6179022","longitude":"130.7932711","source_code":"QS50303633002","project_name":"","survey_name":"\u5ddd\u539f\u5730\u533a\u59161\u7b87\u6240\u5730\u8cea\u8abf\u67fb\u696d\u52d9","client_name":"\u56fd\u571f\u4ea4\u901a\u7701\u4e5d\u5dde\u5730\u65b9\u6574\u5099\u5c40\u9060\u8cc0\u5ddd\u6cb3\u5ddd\u4e8b\u52d9\u6240","boring_xml_url":40,"boring_view_url":1,"soilmap_view_url":null,"soiltest_xml_url":0,"soiltest_view_url":0},{"id":222336,"code":"B4KJ201801011-0585","latitude":"33.6179022","longitude":"130.7933822","source_code":"QS50303633001","project_name":"","survey_name":"\u5ddd\u539f\u5730\u533a\u59161\u7b87\u6240\u5730\u8cea\u8abf\u67fb\u696d\u52d9","client_name":"\u56fd\u571f\u4ea4\u901a\u7701\u4e5d\u5dde\u5730\u65b9\u6574\u5099\u5c40\u9060\u8cc0\u5ddd\u6cb3\u5ddd\u4e8b\u52d9\u6240","boring_xml_url":40,"boring_view_url":1,"soilmap_view_url":null,"soiltest_xml_url":0,"soiltest_view_url":0},{"id":222335,"code":"B4KJ201801011-0584","latitude":"33.6088211","longitude":"130.8531825","source_code":"QS50303628001","project_name":"","survey_name":"\u7530\u5ddd\u7ba1\u5185\u5fdc\u6025\u5bfe\u7b56\u5730\u8cea\u8abf\u67fb\u696d\u52d9","client_name":"\u56fd\u571f\u4ea4\u901a\u7701\u4e5d\u5dde\u5730\u65b9\u6574\u5099\u5c40\u9060\u8cc0\u5ddd\u6cb3\u5ddd\u4e8b\u52d9\u6240","boring_xml_url":40,"boring_view_url":1,"soilmap_view_url":null,"soiltest_xml_url":0,"soiltest_view_url":0},{"id":222334,"code":"B4KJ201801011-0583","latitude":"33.6021275","longitude":"130.8549881","source_code":"QS50303618004","project_name":"","survey_name":"\u6885\u7530\u6a4b\u5730\u8cea\u8abf\u67fb\u696d\u52d9","client_name":"\u56fd\u571f\u4ea4\u901a\u7701\u4e5d\u5dde\u5730\u65b9\u6574\u5099\u5c40\u9060\u8cc0\u5ddd\u6cb3\u5ddd\u4e8b\u52d9\u6240","boring_xml_url":40,"boring_view_url":1,"soilmap_view_url":null,"soiltest_xml_url":0,"soiltest_view_url":0},{"id":222333,"code":"B4KJ201801011-0582","latitude":"33.6020719","longitude":"130.8547381","source_code":"QS50303618003","project_name":"","survey_name":"\u6885\u7530\u6a4b\u5730\u8cea\u8abf\u67fb\u696d\u52d9","client_name":"\u56fd\u571f\u4ea4\u901a\u7701\u4e5d\u5dde\u5730\u65b9\u6574\u5099\u5c40\u9060\u8cc0\u5ddd\u6cb3\u5ddd\u4e8b\u52d9\u6240","boring_xml_url":40,"boring_view_url":1,"soilmap_view_url":null,"soiltest_xml_url":0,"soiltest_view_url":0},{"id":222332,"code":"B4KJ201801011-0581","latitude":"33.6019886","longitude":"130.8545158","source_code":"QS50303618002","project_name":"","survey_name":"\u6885\u7530\u6a4b\u5730\u8cea\u8abf\u67fb\u696d\u52d9","client_name":"\u56fd\u571f\u4ea4\u901a\u7701\u4e5d\u5dde\u5730\u65b9\u6574\u5099\u5c40\u9060\u8cc0\u5ddd\u6cb3\u5ddd\u4e8b\u52d9\u6240","boring_xml_url":40,"boring_view_url":1,"soilmap_view_url":null,"soiltest_xml_url":0,"soiltest_view_url":0},{"id":222331,"code":"B4KJ201801011-0580","latitude":"33.6019053","longitude":"130.8542936","source_code":"QS50303618001","project_name":"","survey_name":"\u6885\u7530\u6a4b\u5730\u8cea\u8abf\u67fb\u696d\u52d9","client_name":"\u56fd\u571f\u4ea4\u901a\u7701\u4e5d\u5dde\u5730\u65b9\u6574\u5099\u5c40\u9060\u8cc0\u5ddd\u6cb3\u5ddd\u4e8b\u52d9\u6240","boring_xml_url":40,"boring_view_url":1,"soilmap_view_url":null,"soiltest_xml_url":0,"soiltest_view_url":0},{"id":222330,"code":"B4KJ201801011-0579","latitude":"33.5877956","longitude":"130.8485725","source_code":"QS50303608001","project_name":"","survey_name":"\u5149\u4ee3\u6392\u6c34\u6a0b\u7ba1\u59165\u4ef6\u5730\u8cea\u8abf\u67fb\u53ca\u3073\u6e2c\u91cf\u8a2d\u8a08\u696d\u52d9","client_name":"\u56fd\u571f\u4ea4\u901a\u7701\u4e5d\u5dde\u5730\u65b9\u6574\u5099\u5c40\u9060\u8cc0\u5ddd\u6cb3\u5ddd\u4e8b\u52d9\u6240","boring_xml_url":40,"boring_view_url":1,"soilmap_view_url":null,"soiltest_xml_url":0,"soiltest_view_url":0},{"id":222329,"code":"B4KJ201801011-0578","latitude":"33.6622561","longitude":"130.6914733","source_code":"QS50303595011","project_name":"","survey_name":"\u5e78\u888b\u7b2c\u4e00\u6392\u6c34\u6a0b\u7ba1\u8a73\u7d30\u8a2d\u8a08\u696d\u52d9","client_name":"\u56fd\u571f\u4ea4\u901a\u7701\u4e5d\u5dde\u5730\u65b9\u6574\u5099\u5c40\u9060\u8cc0\u5ddd\u6cb3\u5ddd\u4e8b\u52d9\u6240","boring_xml_url":40,"boring_view_url":1,"soilmap_view_url":null,"soiltest_xml_url":0,"soiltest_view_url":0},{"id":222328,"code":"B4KJ201801011-0577","latitude":"33.6630894","longitude":"130.6910569","source_code":"QS50303595010","project_name":"","survey_name":"\u5e78\u888b\u7b2c\u4e00\u6392\u6c34\u6a0b\u7ba1\u8a73\u7d30\u8a2d\u8a08\u696d\u52d9","client_name":"\u56fd\u571f\u4ea4\u901a\u7701\u4e5d\u5dde\u5730\u65b9\u6574\u5099\u5c40\u9060\u8cc0\u5ddd\u6cb3\u5ddd\u4e8b\u52d9\u6240","boring_xml_url":40,"boring_view_url":1,"soilmap_view_url":null,"soiltest_xml_url":0,"soiltest_view_url":0},{"id":222327,"code":"B4KJ201801011-0576","latitude":"33.6697833","longitude":"130.6960283","source_code":"QS50303595009","project_name":"","survey_name":"\u5e84\u53f8\u5ddd\u6392\u6c34\u6a5f\u5834\u5730\u8cea\u8abf\u67fb\u696d\u52d9","client_name":"\u56fd\u571f\u4ea4\u901a\u7701\u4e5d\u5dde\u5730\u65b9\u6574\u5099\u5c40\u9060\u8cc0\u5ddd\u6cb3\u5ddd\u4e8b\u52d9\u6240","boring_xml_url":40,"boring_view_url":1,"soilmap_view_url":null,"soiltest_xml_url":0,"soiltest_view_url":0},{"id":222326,"code":"B4KJ201801011-0575","latitude":"33.6694778","longitude":"130.6955839","source_code":"QS50303595008","project_name":"","survey_name":"\u5e84\u53f8\u5ddd\u6392\u6c34\u6a5f\u5834\u5730\u8cea\u8abf\u67fb\u696d\u52d9","client_name":"\u56fd\u571f\u4ea4\u901a\u7701\u4e5d\u5dde\u5730\u65b9\u6574\u5099\u5c40\u9060\u8cc0\u5ddd\u6cb3\u5ddd\u4e8b\u52d9\u6240","boring_xml_url":40,"boring_view_url":1,"soilmap_view_url":null,"soiltest_xml_url":0,"soiltest_view_url":0}]}}