{"header":{"xyz":{"source":[],"mosaic":false},"page":3285,"raw":{"soiltest_result":"0","bbox":"57.598333,109.544722,1.933333,163.806111","page":"3285"},"conditions":{"soiltest_result":0,"north":57.598333,"west":109.544722,"south":1.933333,"east":163.806111},"success":true,"message":""},"data":{"meta":{"total":212844,"page":3285,"pages":7095,"count":30},"values":[{"id":222025,"code":"B4KJ201801011-0274","latitude":"33.5114089","longitude":"130.5093831","source_code":"QS50302400001","project_name":"","survey_name":"\u798f\u5ca13\u53f7\u95a2\u5c4b\u9ad8\u67b6\u6a4b\u5730\u8cea\u8abf\u67fb\u696d\u52d9","client_name":"\u56fd\u571f\u4ea4\u901a\u7701\u4e5d\u5dde\u5730\u65b9\u6574\u5099\u5c40\u798f\u5ca1\u56fd\u9053\u4e8b\u52d9\u6240","boring_xml_url":40,"boring_view_url":1,"soilmap_view_url":null,"soiltest_xml_url":0,"soiltest_view_url":0},{"id":222024,"code":"B4KJ201801011-0273","latitude":"33.5627633","longitude":"130.4603861","source_code":"QS50302377012","project_name":"","survey_name":"\u798f\u5ca1\u5916\u74b0\u72b6(1\u5de5\u533a)\u677f\u4ed8\u5730\u533a\u5730\u8cea\u8abf\u67fb\u696d\u52d9","client_name":"\u56fd\u571f\u4ea4\u901a\u7701\u4e5d\u5dde\u5730\u65b9\u6574\u5099\u5c40\u798f\u5ca1\u56fd\u9053\u4e8b\u52d9\u6240","boring_xml_url":40,"boring_view_url":1,"soilmap_view_url":null,"soiltest_xml_url":0,"soiltest_view_url":0},{"id":222023,"code":"B4KJ201801011-0272","latitude":"33.5622633","longitude":"130.4608025","source_code":"QS50302377011","project_name":"","survey_name":"\u798f\u5ca1\u5916\u74b0\u72b6(1\u5de5\u533a)\u677f\u4ed8\u5730\u533a\u5730\u8cea\u8abf\u67fb\u696d\u52d9","client_name":"\u56fd\u571f\u4ea4\u901a\u7701\u4e5d\u5dde\u5730\u65b9\u6574\u5099\u5c40\u798f\u5ca1\u56fd\u9053\u4e8b\u52d9\u6240","boring_xml_url":40,"boring_view_url":1,"soilmap_view_url":null,"soiltest_xml_url":0,"soiltest_view_url":0},{"id":222022,"code":"B4KJ201801011-0271","latitude":"33.56168","longitude":"130.4593028","source_code":"QS50302376001","project_name":"","survey_name":"\u798f\u5ca1\u5916\u74b0\u72b6(1\u5de5\u533a)\u677f\u4ed8\u5730\u533a\u5730\u8cea\u8abf\u67fb\u696d\u52d9","client_name":"\u56fd\u571f\u4ea4\u901a\u7701\u4e5d\u5dde\u5730\u65b9\u6574\u5099\u5c40\u798f\u5ca1\u56fd\u9053\u4e8b\u52d9\u6240","boring_xml_url":40,"boring_view_url":1,"soilmap_view_url":null,"soiltest_xml_url":0,"soiltest_view_url":0},{"id":222021,"code":"B4KJ201801011-0270","latitude":"33.5541253","longitude":"130.4522481","source_code":"QS50302366019","project_name":"","survey_name":"\u798f\u5ca1\u5916\u74b0\u72b6(1\u5de5\u533a)\u677f\u4ed8\u5730\u533a\u5730\u8cea\u8abf\u67fb\u696d\u52d9","client_name":"\u56fd\u571f\u4ea4\u901a\u7701\u4e5d\u5dde\u5730\u65b9\u6574\u5099\u5c40\u798f\u5ca1\u56fd\u9053\u4e8b\u52d9\u6240","boring_xml_url":40,"boring_view_url":1,"soilmap_view_url":null,"soiltest_xml_url":0,"soiltest_view_url":0},{"id":222020,"code":"B4KJ201801011-0269","latitude":"33.5539031","longitude":"130.4525258","source_code":"QS50302366018","project_name":"","survey_name":"\u798f\u5ca1\u5916\u74b0\u72b6(1\u5de5\u533a)\u677f\u4ed8\u5730\u533a\u5730\u8cea\u8abf\u67fb\u696d\u52d9","client_name":"\u56fd\u571f\u4ea4\u901a\u7701\u4e5d\u5dde\u5730\u65b9\u6574\u5099\u5c40\u798f\u5ca1\u56fd\u9053\u4e8b\u52d9\u6240","boring_xml_url":40,"boring_view_url":1,"soilmap_view_url":null,"soiltest_xml_url":0,"soiltest_view_url":0},{"id":222019,"code":"B4KJ201801011-0268","latitude":"33.5544586","longitude":"130.4525536","source_code":"QS50302366017","project_name":"","survey_name":"\u798f\u5ca1\u5916\u74b0\u72b6(1\u5de5\u533a)\u677f\u4ed8\u5730\u533a\u5730\u8cea\u8abf\u67fb\u696d\u52d9","client_name":"\u56fd\u571f\u4ea4\u901a\u7701\u4e5d\u5dde\u5730\u65b9\u6574\u5099\u5c40\u798f\u5ca1\u56fd\u9053\u4e8b\u52d9\u6240","boring_xml_url":40,"boring_view_url":1,"soilmap_view_url":null,"soiltest_xml_url":0,"soiltest_view_url":0},{"id":222018,"code":"B4KJ201801011-0267","latitude":"33.5540419","longitude":"130.4527203","source_code":"QS50302366016","project_name":"","survey_name":"\u798f\u5ca1\u5916\u74b0\u72b6(1\u5de5\u533a)\u677f\u4ed8\u5730\u533a\u5730\u8cea\u8abf\u67fb\u696d\u52d9","client_name":"\u56fd\u571f\u4ea4\u901a\u7701\u4e5d\u5dde\u5730\u65b9\u6574\u5099\u5c40\u798f\u5ca1\u56fd\u9053\u4e8b\u52d9\u6240","boring_xml_url":40,"boring_view_url":1,"soilmap_view_url":null,"soiltest_xml_url":0,"soiltest_view_url":0},{"id":222017,"code":"B4KJ201801011-0266","latitude":"33.5548475","longitude":"130.4530258","source_code":"QS50302366015","project_name":"","survey_name":"\u798f\u5ca1\u5916\u74b0\u72b6(1\u5de5\u533a)\u677f\u4ed8\u5730\u533a\u5730\u8cea\u8abf\u67fb\u696d\u52d9","client_name":"\u56fd\u571f\u4ea4\u901a\u7701\u4e5d\u5dde\u5730\u65b9\u6574\u5099\u5c40\u798f\u5ca1\u56fd\u9053\u4e8b\u52d9\u6240","boring_xml_url":40,"boring_view_url":1,"soilmap_view_url":null,"soiltest_xml_url":0,"soiltest_view_url":0},{"id":222016,"code":"B4KJ201801011-0265","latitude":"33.5547364","longitude":"130.4533314","source_code":"QS50302366012","project_name":"","survey_name":"\u798f\u5ca1\u5916\u74b0\u72b6(1\u5de5\u533a)\u677f\u4ed8\u5730\u533a\u5730\u8cea\u8abf\u67fb\u696d\u52d9","client_name":"\u56fd\u571f\u4ea4\u901a\u7701\u4e5d\u5dde\u5730\u65b9\u6574\u5099\u5c40\u798f\u5ca1\u56fd\u9053\u4e8b\u52d9\u6240","boring_xml_url":40,"boring_view_url":1,"soilmap_view_url":null,"soiltest_xml_url":0,"soiltest_view_url":0},{"id":222015,"code":"B4KJ201801011-0264","latitude":"33.5552917","longitude":"130.4535256","source_code":"QS50302366011","project_name":"","survey_name":"\u798f\u5ca1\u5916\u74b0\u72b6(1\u5de5\u533a)\u677f\u4ed8\u5730\u533a\u5730\u8cea\u8abf\u67fb\u696d\u52d9","client_name":"\u56fd\u571f\u4ea4\u901a\u7701\u4e5d\u5dde\u5730\u65b9\u6574\u5099\u5c40\u798f\u5ca1\u56fd\u9053\u4e8b\u52d9\u6240","boring_xml_url":40,"boring_view_url":1,"soilmap_view_url":null,"soiltest_xml_url":0,"soiltest_view_url":0},{"id":222014,"code":"B4KJ201801011-0263","latitude":"33.5550419","longitude":"130.4537478","source_code":"QS50302366010","project_name":"","survey_name":"\u798f\u5ca1\u5916\u74b0\u72b6(1\u5de5\u533a)\u677f\u4ed8\u5730\u533a\u5730\u8cea\u8abf\u67fb\u696d\u52d9","client_name":"\u56fd\u571f\u4ea4\u901a\u7701\u4e5d\u5dde\u5730\u65b9\u6574\u5099\u5c40\u798f\u5ca1\u56fd\u9053\u4e8b\u52d9\u6240","boring_xml_url":40,"boring_view_url":1,"soilmap_view_url":null,"soiltest_xml_url":0,"soiltest_view_url":0},{"id":222013,"code":"B4KJ201801011-0262","latitude":"33.5590692","longitude":"130.4573864","source_code":"QS50302366009","project_name":"","survey_name":"\u798f\u5ca1\u5916\u74b0\u72b6(1\u5de5\u533a)\u677f\u4ed8\u5730\u533a\u5730\u8cea\u8abf\u67fb\u696d\u52d9","client_name":"\u56fd\u571f\u4ea4\u901a\u7701\u4e5d\u5dde\u5730\u65b9\u6574\u5099\u5c40\u798f\u5ca1\u56fd\u9053\u4e8b\u52d9\u6240","boring_xml_url":40,"boring_view_url":1,"soilmap_view_url":null,"soiltest_xml_url":0,"soiltest_view_url":0},{"id":222012,"code":"B4KJ201801011-0261","latitude":"33.5587636","longitude":"130.4576086","source_code":"QS50302366008","project_name":"","survey_name":"\u798f\u5ca1\u5916\u74b0\u72b6(1\u5de5\u533a)\u677f\u4ed8\u5730\u533a\u5730\u8cea\u8abf\u67fb\u696d\u52d9","client_name":"\u56fd\u571f\u4ea4\u901a\u7701\u4e5d\u5dde\u5730\u65b9\u6574\u5099\u5c40\u798f\u5ca1\u56fd\u9053\u4e8b\u52d9\u6240","boring_xml_url":40,"boring_view_url":1,"soilmap_view_url":null,"soiltest_xml_url":0,"soiltest_view_url":0},{"id":222011,"code":"B4KJ201801011-0260","latitude":"33.5600692","longitude":"130.4584417","source_code":"QS50302366007","project_name":"","survey_name":"\u798f\u5ca1\u5916\u74b0\u72b6(1\u5de5\u533a)\u677f\u4ed8\u5730\u533a\u5730\u8cea\u8abf\u67fb\u696d\u52d9","client_name":"\u56fd\u571f\u4ea4\u901a\u7701\u4e5d\u5dde\u5730\u65b9\u6574\u5099\u5c40\u798f\u5ca1\u56fd\u9053\u4e8b\u52d9\u6240","boring_xml_url":40,"boring_view_url":1,"soilmap_view_url":null,"soiltest_xml_url":0,"soiltest_view_url":0},{"id":222010,"code":"B4KJ201801011-0259","latitude":"33.5598747","longitude":"130.4585806","source_code":"QS50302366006","project_name":"","survey_name":"\u798f\u5ca1\u5916\u74b0\u72b6(1\u5de5\u533a)\u677f\u4ed8\u5730\u533a\u5730\u8cea\u8abf\u67fb\u696d\u52d9","client_name":"\u56fd\u571f\u4ea4\u901a\u7701\u4e5d\u5dde\u5730\u65b9\u6574\u5099\u5c40\u798f\u5ca1\u56fd\u9053\u4e8b\u52d9\u6240","boring_xml_url":40,"boring_view_url":1,"soilmap_view_url":null,"soiltest_xml_url":0,"soiltest_view_url":0},{"id":222009,"code":"B4KJ201801011-0258","latitude":"33.5602636","longitude":"130.4586083","source_code":"QS50302366005","project_name":"","survey_name":"\u798f\u5ca1\u5916\u74b0\u72b6(1\u5de5\u533a)\u677f\u4ed8\u5730\u533a\u5730\u8cea\u8abf\u67fb\u696d\u52d9","client_name":"\u56fd\u571f\u4ea4\u901a\u7701\u4e5d\u5dde\u5730\u65b9\u6574\u5099\u5c40\u798f\u5ca1\u56fd\u9053\u4e8b\u52d9\u6240","boring_xml_url":40,"boring_view_url":1,"soilmap_view_url":null,"soiltest_xml_url":0,"soiltest_view_url":0},{"id":222008,"code":"B4KJ201801011-0257","latitude":"33.5599025","longitude":"130.458775","source_code":"QS50302366004","project_name":"","survey_name":"\u798f\u5ca1\u5916\u74b0\u72b6(1\u5de5\u533a)\u677f\u4ed8\u5730\u533a\u5730\u8cea\u8abf\u67fb\u696d\u52d9","client_name":"\u56fd\u571f\u4ea4\u901a\u7701\u4e5d\u5dde\u5730\u65b9\u6574\u5099\u5c40\u798f\u5ca1\u56fd\u9053\u4e8b\u52d9\u6240","boring_xml_url":40,"boring_view_url":1,"soilmap_view_url":null,"soiltest_xml_url":0,"soiltest_view_url":0},{"id":222007,"code":"B4KJ201801011-0256","latitude":"33.5609578","longitude":"130.4591639","source_code":"QS50302366003","project_name":"","survey_name":"\u798f\u5ca1\u5916\u74b0\u72b6(1\u5de5\u533a)\u677f\u4ed8\u5730\u533a\u5730\u8cea\u8abf\u67fb\u696d\u52d9","client_name":"\u56fd\u571f\u4ea4\u901a\u7701\u4e5d\u5dde\u5730\u65b9\u6574\u5099\u5c40\u798f\u5ca1\u56fd\u9053\u4e8b\u52d9\u6240","boring_xml_url":40,"boring_view_url":1,"soilmap_view_url":null,"soiltest_xml_url":0,"soiltest_view_url":0},{"id":222006,"code":"B4KJ201801011-0255","latitude":"33.5605969","longitude":"130.4593028","source_code":"QS50302366002","project_name":"","survey_name":"\u798f\u5ca1\u5916\u74b0\u72b6(1\u5de5\u533a)\u677f\u4ed8\u5730\u533a\u5730\u8cea\u8abf\u67fb\u696d\u52d9","client_name":"\u56fd\u571f\u4ea4\u901a\u7701\u4e5d\u5dde\u5730\u65b9\u6574\u5099\u5c40\u798f\u5ca1\u56fd\u9053\u4e8b\u52d9\u6240","boring_xml_url":40,"boring_view_url":1,"soilmap_view_url":null,"soiltest_xml_url":0,"soiltest_view_url":0},{"id":222005,"code":"B4KJ201801011-0254","latitude":"33.5612078","longitude":"130.460025","source_code":"QS50302366001","project_name":"","survey_name":"\u798f\u5ca1\u5916\u74b0\u72b6(1\u5de5\u533a)\u677f\u4ed8\u5730\u533a\u5730\u8cea\u8abf\u67fb\u696d\u52d9","client_name":"\u56fd\u571f\u4ea4\u901a\u7701\u4e5d\u5dde\u5730\u65b9\u6574\u5099\u5c40\u798f\u5ca1\u56fd\u9053\u4e8b\u52d9\u6240","boring_xml_url":40,"boring_view_url":1,"soilmap_view_url":null,"soiltest_xml_url":0,"soiltest_view_url":0},{"id":222004,"code":"B4KJ201801011-0253","latitude":"33.5502094","longitude":"130.48044","source_code":"QS50302358001","project_name":"","survey_name":"\u798f\u5ca1\u5357\u30d0\u30a4\u30d1\u30b9\u5730\u8cea\u8abf\u67fb\u696d\u52d9(\u6b69\u9053\u6a4b\u57fa\u790e\u5730\u76e4\u8abf\u67fb)","client_name":"\u56fd\u571f\u4ea4\u901a\u7701\u4e5d\u5dde\u5730\u65b9\u6574\u5099\u5c40\u798f\u5ca1\u56fd\u9053\u4e8b\u52d9\u6240","boring_xml_url":40,"boring_view_url":1,"soilmap_view_url":null,"soiltest_xml_url":0,"soiltest_view_url":0},{"id":222003,"code":"B4KJ201801011-0252","latitude":"33.5456803","longitude":"130.3733389","source_code":"QS50302350004","project_name":"","survey_name":"\u5e73\u621012\u5e74\u5ea6 \u798f\u5ca1\u5916\u74b0\u72b6\u9053\u8def\u6a0b\u4e95\u5ddd\u6a4b\u59163\u6a4b\u5730\u8cea\u8abf\u67fb\u696d\u52d9","client_name":"\u56fd\u571f\u4ea4\u901a\u7701\u4e5d\u5dde\u5730\u65b9\u6574\u5099\u5c40\u798f\u5ca1\u56fd\u9053\u4e8b\u52d9\u6240","boring_xml_url":40,"boring_view_url":1,"soilmap_view_url":null,"soiltest_xml_url":0,"soiltest_view_url":0},{"id":222002,"code":"B4KJ201801011-0251","latitude":"33.5456803","longitude":"130.3733944","source_code":"QS50302350003","project_name":"","survey_name":"\u5e73\u621012\u5e74\u5ea6 \u798f\u5ca1\u5916\u74b0\u72b6\u9053\u8def\u6a0b\u4e95\u5ddd\u6a4b\u59163\u6a4b\u5730\u8cea\u8abf\u67fb\u696d\u52d9","client_name":"\u56fd\u571f\u4ea4\u901a\u7701\u4e5d\u5dde\u5730\u65b9\u6574\u5099\u5c40\u798f\u5ca1\u56fd\u9053\u4e8b\u52d9\u6240","boring_xml_url":40,"boring_view_url":1,"soilmap_view_url":null,"soiltest_xml_url":0,"soiltest_view_url":0},{"id":222001,"code":"B4KJ201801011-0250","latitude":"33.5453747","longitude":"130.3737553","source_code":"QS50302350002","project_name":"","survey_name":"\u798f\u5ca1\u5916\u9084\u72b6\u9053\u8def(\u7247\u6c5f\u5730\u533a)\u5730\u8cea\u8abf\u67fb\u59d4\u8a17\u696d\u52d9","client_name":"\u56fd\u571f\u4ea4\u901a\u7701\u4e5d\u5dde\u5730\u65b9\u6574\u5099\u5c40\u798f\u5ca1\u56fd\u9053\u4e8b\u52d9\u6240","boring_xml_url":40,"boring_view_url":1,"soilmap_view_url":null,"soiltest_xml_url":0,"soiltest_view_url":0},{"id":222000,"code":"B4KJ201801011-0249","latitude":"33.5458192","longitude":"130.3766994","source_code":"QS50302350001","project_name":"","survey_name":"\u798f\u5ca1\u5916\u9084\u72b6\u9053\u8def(\u7247\u6c5f\u5730\u533a)\u5730\u8cea\u8abf\u67fb\u59d4\u8a17\u696d\u52d9","client_name":"\u56fd\u571f\u4ea4\u901a\u7701\u4e5d\u5dde\u5730\u65b9\u6574\u5099\u5c40\u798f\u5ca1\u56fd\u9053\u4e8b\u52d9\u6240","boring_xml_url":40,"boring_view_url":1,"soilmap_view_url":null,"soiltest_xml_url":0,"soiltest_view_url":0},{"id":221999,"code":"B4KJ201801011-0248","latitude":"33.5415986","longitude":"130.4305836","source_code":"QS50302344049","project_name":"","survey_name":"\u798f\u5ca1202\u53f7\u90a3\u73c2\u5ddd\u6a4b\u59161\u4ef6\u5730\u8cea\u8abf\u67fb\u696d\u52d9","client_name":"\u56fd\u571f\u4ea4\u901a\u7701\u4e5d\u5dde\u5730\u65b9\u6574\u5099\u5c40\u798f\u5ca1\u56fd\u9053\u4e8b\u52d9\u6240","boring_xml_url":40,"boring_view_url":1,"soilmap_view_url":null,"soiltest_xml_url":0,"soiltest_view_url":0},{"id":221998,"code":"B4KJ201801011-0247","latitude":"33.5415986","longitude":"130.4312781","source_code":"QS50302344048","project_name":"","survey_name":"\u798f\u5ca1202\u53f7\u90a3\u73c2\u5ddd\u6a4b\u59161\u4ef6\u5730\u8cea\u8abf\u67fb\u696d\u52d9","client_name":"\u56fd\u571f\u4ea4\u901a\u7701\u4e5d\u5dde\u5730\u65b9\u6574\u5099\u5c40\u798f\u5ca1\u56fd\u9053\u4e8b\u52d9\u6240","boring_xml_url":40,"boring_view_url":1,"soilmap_view_url":null,"soiltest_xml_url":0,"soiltest_view_url":0},{"id":221997,"code":"B4KJ201801011-0246","latitude":"33.5413208","longitude":"130.4315558","source_code":"QS50302344047","project_name":"","survey_name":"\u798f\u5ca1202\u53f7\u90a3\u73c2\u5ddd\u6a4b\u59161\u4ef6\u5730\u8cea\u8abf\u67fb\u696d\u52d9","client_name":"\u56fd\u571f\u4ea4\u901a\u7701\u4e5d\u5dde\u5730\u65b9\u6574\u5099\u5c40\u798f\u5ca1\u56fd\u9053\u4e8b\u52d9\u6240","boring_xml_url":40,"boring_view_url":1,"soilmap_view_url":null,"soiltest_xml_url":0,"soiltest_view_url":0},{"id":221996,"code":"B4KJ201801011-0245","latitude":"33.5413208","longitude":"130.4305836","source_code":"QS50302344046","project_name":"","survey_name":"\u798f\u5ca1202\u53f7\u90a3\u73c2\u5ddd\u6a4b\u59161\u4ef6\u5730\u8cea\u8abf\u67fb\u696d\u52d9","client_name":"\u56fd\u571f\u4ea4\u901a\u7701\u4e5d\u5dde\u5730\u65b9\u6574\u5099\u5c40\u798f\u5ca1\u56fd\u9053\u4e8b\u52d9\u6240","boring_xml_url":40,"boring_view_url":1,"soilmap_view_url":null,"soiltest_xml_url":0,"soiltest_view_url":0}]}}