{"header":{"xyz":{"source":[],"mosaic":false},"page":3291,"raw":{"soiltest_result":"0","bbox":"57.598333,109.544722,1.933333,163.806111","page":"3291"},"conditions":{"soiltest_result":0,"north":57.598333,"west":109.544722,"south":1.933333,"east":163.806111},"success":true,"message":""},"data":{"meta":{"total":212844,"page":3291,"pages":7095,"count":30},"values":[{"id":221845,"code":"B4KJ201801011-0094","latitude":"33.5706194","longitude":"130.2501825","source_code":"QS50302280061","project_name":"","survey_name":"\u798f\u5ca1497\u53f7\u4eca\u5bbf\u9053\u8def\u5730\u8cea\u8abf\u67fb(\u305d\u306e9)\u696d\u52d9","client_name":"\u56fd\u571f\u4ea4\u901a\u7701\u4e5d\u5dde\u5730\u65b9\u6574\u5099\u5c40\u798f\u5ca1\u56fd\u9053\u4e8b\u52d9\u6240","boring_xml_url":40,"boring_view_url":1,"soilmap_view_url":null,"soiltest_xml_url":0,"soiltest_view_url":0},{"id":221844,"code":"B4KJ201801011-0093","latitude":"33.5708972","longitude":"130.2508769","source_code":"QS50302280060","project_name":"","survey_name":"\u798f\u5ca1497\u53f7\u4eca\u5bbf\u9053\u8def\u5730\u8cea\u8abf\u67fb(\u305d\u306e9)\u696d\u52d9","client_name":"\u56fd\u571f\u4ea4\u901a\u7701\u4e5d\u5dde\u5730\u65b9\u6574\u5099\u5c40\u798f\u5ca1\u56fd\u9053\u4e8b\u52d9\u6240","boring_xml_url":40,"boring_view_url":1,"soilmap_view_url":null,"soiltest_xml_url":0,"soiltest_view_url":0},{"id":221843,"code":"B4KJ201801011-0092","latitude":"33.571175","longitude":"130.2511547","source_code":"QS50302280059","project_name":"","survey_name":"\u798f\u5ca1497\u53f7\u4eca\u5bbf\u9053\u8def\u5730\u8cea\u8abf\u67fb(\u305d\u306e9)\u696d\u52d9","client_name":"\u56fd\u571f\u4ea4\u901a\u7701\u4e5d\u5dde\u5730\u65b9\u6574\u5099\u5c40\u798f\u5ca1\u56fd\u9053\u4e8b\u52d9\u6240","boring_xml_url":40,"boring_view_url":1,"soilmap_view_url":null,"soiltest_xml_url":0,"soiltest_view_url":0},{"id":221842,"code":"B4KJ201801011-0091","latitude":"33.5713139","longitude":"130.2515714","source_code":"QS50302280058","project_name":"","survey_name":"\u798f\u5ca1497\u53f7\u4eca\u5bbf\u9053\u8def\u5730\u8cea\u8abf\u67fb(\u305d\u306e9)\u696d\u52d9","client_name":"\u56fd\u571f\u4ea4\u901a\u7701\u4e5d\u5dde\u5730\u65b9\u6574\u5099\u5c40\u798f\u5ca1\u56fd\u9053\u4e8b\u52d9\u6240","boring_xml_url":40,"boring_view_url":1,"soilmap_view_url":null,"soiltest_xml_url":0,"soiltest_view_url":0},{"id":221841,"code":"B4KJ201801011-0090","latitude":"33.5714528","longitude":"130.2519881","source_code":"QS50302280057","project_name":"","survey_name":"\u798f\u5ca1497\u53f7\u4eca\u5bbf\u9053\u8def\u5730\u8cea\u8abf\u67fb(\u305d\u306e9)\u696d\u52d9","client_name":"\u56fd\u571f\u4ea4\u901a\u7701\u4e5d\u5dde\u5730\u65b9\u6574\u5099\u5c40\u798f\u5ca1\u56fd\u9053\u4e8b\u52d9\u6240","boring_xml_url":40,"boring_view_url":1,"soilmap_view_url":null,"soiltest_xml_url":0,"soiltest_view_url":0},{"id":221840,"code":"B4KJ201801011-0089","latitude":"33.5710361","longitude":"130.2517103","source_code":"QS50302280056","project_name":"","survey_name":"\u798f\u5ca1497\u53f7\u4eca\u5bbf\u9053\u8def\u5730\u8cea\u8abf\u67fb(\u305d\u306e9)\u696d\u52d9","client_name":"\u56fd\u571f\u4ea4\u901a\u7701\u4e5d\u5dde\u5730\u65b9\u6574\u5099\u5c40\u798f\u5ca1\u56fd\u9053\u4e8b\u52d9\u6240","boring_xml_url":40,"boring_view_url":1,"soilmap_view_url":null,"soiltest_xml_url":0,"soiltest_view_url":0},{"id":221839,"code":"B4KJ201801011-0088","latitude":"33.571175","longitude":"130.2522658","source_code":"QS50302280055","project_name":"","survey_name":"\u798f\u5ca1497\u53f7\u4eca\u5bbf\u9053\u8def\u5730\u8cea\u8abf\u67fb(\u305d\u306e9)\u696d\u52d9","client_name":"\u56fd\u571f\u4ea4\u901a\u7701\u4e5d\u5dde\u5730\u65b9\u6574\u5099\u5c40\u798f\u5ca1\u56fd\u9053\u4e8b\u52d9\u6240","boring_xml_url":40,"boring_view_url":1,"soilmap_view_url":null,"soiltest_xml_url":0,"soiltest_view_url":0},{"id":221838,"code":"B4KJ201801011-0087","latitude":"33.5715917","longitude":"130.2519881","source_code":"QS50302280054","project_name":"","survey_name":"\u798f\u5ca1497\u53f7\u4eca\u5bbf\u9053\u8def\u5730\u8cea\u8abf\u67fb(\u305d\u306e9)\u696d\u52d9","client_name":"\u56fd\u571f\u4ea4\u901a\u7701\u4e5d\u5dde\u5730\u65b9\u6574\u5099\u5c40\u798f\u5ca1\u56fd\u9053\u4e8b\u52d9\u6240","boring_xml_url":40,"boring_view_url":1,"soilmap_view_url":null,"soiltest_xml_url":0,"soiltest_view_url":0},{"id":221837,"code":"B4KJ201801011-0086","latitude":"33.5718694","longitude":"130.2525433","source_code":"QS50302280053","project_name":"","survey_name":"\u798f\u5ca1497\u53f7\u4eca\u5bbf\u9053\u8def\u5730\u8cea\u8abf\u67fb(\u305d\u306e9)\u696d\u52d9","client_name":"\u56fd\u571f\u4ea4\u901a\u7701\u4e5d\u5dde\u5730\u65b9\u6574\u5099\u5c40\u798f\u5ca1\u56fd\u9053\u4e8b\u52d9\u6240","boring_xml_url":40,"boring_view_url":1,"soilmap_view_url":null,"soiltest_xml_url":0,"soiltest_view_url":0},{"id":221836,"code":"B4KJ201801011-0085","latitude":"33.5721472","longitude":"130.2530989","source_code":"QS50302280052","project_name":"","survey_name":"\u798f\u5ca1497\u53f7\u4eca\u5bbf\u9053\u8def\u5730\u8cea\u8abf\u67fb(\u305d\u306e9)\u696d\u52d9","client_name":"\u56fd\u571f\u4ea4\u901a\u7701\u4e5d\u5dde\u5730\u65b9\u6574\u5099\u5c40\u798f\u5ca1\u56fd\u9053\u4e8b\u52d9\u6240","boring_xml_url":40,"boring_view_url":1,"soilmap_view_url":null,"soiltest_xml_url":0,"soiltest_view_url":0},{"id":221835,"code":"B4KJ201801011-0084","latitude":"33.5722861","longitude":"130.2535156","source_code":"QS50302280051","project_name":"","survey_name":"\u798f\u5ca1497\u53f7\u4eca\u5bbf\u9053\u8def\u5730\u8cea\u8abf\u67fb(\u305d\u306e9)\u696d\u52d9","client_name":"\u56fd\u571f\u4ea4\u901a\u7701\u4e5d\u5dde\u5730\u65b9\u6574\u5099\u5c40\u798f\u5ca1\u56fd\u9053\u4e8b\u52d9\u6240","boring_xml_url":40,"boring_view_url":1,"soilmap_view_url":null,"soiltest_xml_url":0,"soiltest_view_url":0},{"id":221834,"code":"B4KJ201801011-0083","latitude":"33.5727028","longitude":"130.2549044","source_code":"QS50302280050","project_name":"","survey_name":"\u798f\u5ca1202\u53f7\u4eca\u5bbf\u9053\u8def\u5730\u8cea\u8abf\u67fb(\u305d\u306e1)\u696d\u52d9","client_name":"\u56fd\u571f\u4ea4\u901a\u7701\u4e5d\u5dde\u5730\u65b9\u6574\u5099\u5c40\u798f\u5ca1\u56fd\u9053\u4e8b\u52d9\u6240","boring_xml_url":40,"boring_view_url":1,"soilmap_view_url":null,"soiltest_xml_url":0,"soiltest_view_url":0},{"id":221833,"code":"B4KJ201801011-0082","latitude":"33.5727028","longitude":"130.2551819","source_code":"QS50302280049","project_name":"","survey_name":"\u798f\u5ca1202\u53f7\u4eca\u5bbf\u9053\u8def\u5730\u8cea\u8abf\u67fb(\u305d\u306e1)\u696d\u52d9","client_name":"\u56fd\u571f\u4ea4\u901a\u7701\u4e5d\u5dde\u5730\u65b9\u6574\u5099\u5c40\u798f\u5ca1\u56fd\u9053\u4e8b\u52d9\u6240","boring_xml_url":40,"boring_view_url":1,"soilmap_view_url":null,"soiltest_xml_url":0,"soiltest_view_url":0},{"id":221832,"code":"B4KJ201801011-0081","latitude":"33.5727028","longitude":"130.2557375","source_code":"QS50302280048","project_name":"","survey_name":"\u798f\u5ca1202\u53f7\u4eca\u5bbf\u9053\u8def\u5730\u8cea\u8abf\u67fb(\u305d\u306e1)\u696d\u52d9","client_name":"\u56fd\u571f\u4ea4\u901a\u7701\u4e5d\u5dde\u5730\u65b9\u6574\u5099\u5c40\u798f\u5ca1\u56fd\u9053\u4e8b\u52d9\u6240","boring_xml_url":40,"boring_view_url":1,"soilmap_view_url":null,"soiltest_xml_url":0,"soiltest_view_url":0},{"id":221831,"code":"B4KJ201801011-0080","latitude":"33.5729806","longitude":"130.2562931","source_code":"QS50302280047","project_name":"","survey_name":"\u798f\u5ca1202\u53f7\u4eca\u5bbf\u9053\u8def\u5730\u8cea\u8abf\u67fb(\u305d\u306e1)\u696d\u52d9","client_name":"\u56fd\u571f\u4ea4\u901a\u7701\u4e5d\u5dde\u5730\u65b9\u6574\u5099\u5c40\u798f\u5ca1\u56fd\u9053\u4e8b\u52d9\u6240","boring_xml_url":40,"boring_view_url":1,"soilmap_view_url":null,"soiltest_xml_url":0,"soiltest_view_url":0},{"id":221830,"code":"B4KJ201801011-0079","latitude":"33.5732583","longitude":"130.2565708","source_code":"QS50302280046","project_name":"","survey_name":"\u798f\u5ca1202\u53f7\u4eca\u5bbf\u9053\u8def\u5730\u8cea\u8abf\u67fb(\u305d\u306e1)\u696d\u52d9","client_name":"\u56fd\u571f\u4ea4\u901a\u7701\u4e5d\u5dde\u5730\u65b9\u6574\u5099\u5c40\u798f\u5ca1\u56fd\u9053\u4e8b\u52d9\u6240","boring_xml_url":40,"boring_view_url":1,"soilmap_view_url":null,"soiltest_xml_url":0,"soiltest_view_url":0},{"id":221829,"code":"B4KJ201801011-0078","latitude":"33.5735361","longitude":"130.2568486","source_code":"QS50302280045","project_name":"","survey_name":"\u798f\u5ca1202\u53f7\u4eca\u5bbf\u9053\u8def\u5730\u8cea\u8abf\u67fb(\u305d\u306e1)\u696d\u52d9","client_name":"\u56fd\u571f\u4ea4\u901a\u7701\u4e5d\u5dde\u5730\u65b9\u6574\u5099\u5c40\u798f\u5ca1\u56fd\u9053\u4e8b\u52d9\u6240","boring_xml_url":40,"boring_view_url":1,"soilmap_view_url":null,"soiltest_xml_url":0,"soiltest_view_url":0},{"id":221828,"code":"B4KJ201801011-0077","latitude":"33.5729806","longitude":"130.2571264","source_code":"QS50302280044","project_name":"","survey_name":"\u798f\u5ca1202\u53f7\u4eca\u5bbf\u9053\u8def\u5730\u8cea\u8abf\u67fb(\u305d\u306e1)\u696d\u52d9","client_name":"\u56fd\u571f\u4ea4\u901a\u7701\u4e5d\u5dde\u5730\u65b9\u6574\u5099\u5c40\u798f\u5ca1\u56fd\u9053\u4e8b\u52d9\u6240","boring_xml_url":40,"boring_view_url":1,"soilmap_view_url":null,"soiltest_xml_url":0,"soiltest_view_url":0},{"id":221827,"code":"B4KJ201801011-0076","latitude":"33.5735361","longitude":"130.2576819","source_code":"QS50302280043","project_name":"","survey_name":"\u798f\u5ca1202\u53f7\u4eca\u5bbf\u9053\u8def\u5730\u8cea\u8abf\u67fb(\u305d\u306e1)\u696d\u52d9","client_name":"\u56fd\u571f\u4ea4\u901a\u7701\u4e5d\u5dde\u5730\u65b9\u6574\u5099\u5c40\u798f\u5ca1\u56fd\u9053\u4e8b\u52d9\u6240","boring_xml_url":40,"boring_view_url":1,"soilmap_view_url":null,"soiltest_xml_url":0,"soiltest_view_url":0},{"id":221826,"code":"B4KJ201801011-0075","latitude":"33.5732583","longitude":"130.2579597","source_code":"QS50302280042","project_name":"","survey_name":"\u798f\u5ca1202\u53f7\u4eca\u5bbf\u9053\u8def\u5730\u8cea\u8abf\u67fb(\u305d\u306e1)\u696d\u52d9","client_name":"\u56fd\u571f\u4ea4\u901a\u7701\u4e5d\u5dde\u5730\u65b9\u6574\u5099\u5c40\u798f\u5ca1\u56fd\u9053\u4e8b\u52d9\u6240","boring_xml_url":40,"boring_view_url":1,"soilmap_view_url":null,"soiltest_xml_url":0,"soiltest_view_url":0},{"id":221825,"code":"B4KJ201801011-0074","latitude":"33.5738139","longitude":"130.2582372","source_code":"QS50302280041","project_name":"","survey_name":"\u798f\u5ca1202\u53f7\u4eca\u5bbf\u9053\u8def\u5730\u8cea\u8abf\u67fb(\u305d\u306e1)\u696d\u52d9","client_name":"\u56fd\u571f\u4ea4\u901a\u7701\u4e5d\u5dde\u5730\u65b9\u6574\u5099\u5c40\u798f\u5ca1\u56fd\u9053\u4e8b\u52d9\u6240","boring_xml_url":40,"boring_view_url":1,"soilmap_view_url":null,"soiltest_xml_url":0,"soiltest_view_url":0},{"id":221824,"code":"B4KJ201801011-0073","latitude":"33.5735361","longitude":"130.2582372","source_code":"QS50302280040","project_name":"","survey_name":"\u798f\u5ca1202\u53f7\u4eca\u5bbf\u9053\u8def\u5730\u8cea\u8abf\u67fb(\u305d\u306e1)\u696d\u52d9","client_name":"\u56fd\u571f\u4ea4\u901a\u7701\u4e5d\u5dde\u5730\u65b9\u6574\u5099\u5c40\u798f\u5ca1\u56fd\u9053\u4e8b\u52d9\u6240","boring_xml_url":40,"boring_view_url":1,"soilmap_view_url":null,"soiltest_xml_url":0,"soiltest_view_url":0},{"id":221823,"code":"B4KJ201801011-0072","latitude":"33.5740914","longitude":"130.2587928","source_code":"QS50302280039","project_name":"","survey_name":"\u798f\u5ca1202\u53f7\u4eca\u5bbf\u9053\u8def\u5730\u8cea\u8abf\u67fb(\u305d\u306e1)\u696d\u52d9","client_name":"\u56fd\u571f\u4ea4\u901a\u7701\u4e5d\u5dde\u5730\u65b9\u6574\u5099\u5c40\u798f\u5ca1\u56fd\u9053\u4e8b\u52d9\u6240","boring_xml_url":40,"boring_view_url":1,"soilmap_view_url":null,"soiltest_xml_url":0,"soiltest_view_url":0},{"id":221822,"code":"B4KJ201801011-0071","latitude":"33.5738139","longitude":"130.2590706","source_code":"QS50302280038","project_name":"","survey_name":"\u798f\u5ca1202\u53f7\u4eca\u5bbf\u9053\u8def\u5730\u8cea\u8abf\u67fb(\u305d\u306e1)\u696d\u52d9","client_name":"\u56fd\u571f\u4ea4\u901a\u7701\u4e5d\u5dde\u5730\u65b9\u6574\u5099\u5c40\u798f\u5ca1\u56fd\u9053\u4e8b\u52d9\u6240","boring_xml_url":40,"boring_view_url":1,"soilmap_view_url":null,"soiltest_xml_url":0,"soiltest_view_url":0},{"id":221821,"code":"B4KJ201801011-0070","latitude":"33.5740917","longitude":"130.2593483","source_code":"QS50302280037","project_name":"","survey_name":"\u798f\u5ca1202\u53f7\u4eca\u5bbf\u9053\u8def\u5730\u8cea\u8abf\u67fb(\u305d\u306e1)\u696d\u52d9","client_name":"\u56fd\u571f\u4ea4\u901a\u7701\u4e5d\u5dde\u5730\u65b9\u6574\u5099\u5c40\u798f\u5ca1\u56fd\u9053\u4e8b\u52d9\u6240","boring_xml_url":40,"boring_view_url":1,"soilmap_view_url":null,"soiltest_xml_url":0,"soiltest_view_url":0},{"id":221820,"code":"B4KJ201801011-0069","latitude":"33.5740917","longitude":"130.2596261","source_code":"QS50302280036","project_name":"","survey_name":"\u798f\u5ca1202\u53f7\u4eca\u5bbf\u9053\u8def\u5730\u8cea\u8abf\u67fb(\u305d\u306e1)\u696d\u52d9","client_name":"\u56fd\u571f\u4ea4\u901a\u7701\u4e5d\u5dde\u5730\u65b9\u6574\u5099\u5c40\u798f\u5ca1\u56fd\u9053\u4e8b\u52d9\u6240","boring_xml_url":40,"boring_view_url":1,"soilmap_view_url":null,"soiltest_xml_url":0,"soiltest_view_url":0},{"id":221819,"code":"B4KJ201801011-0068","latitude":"33.5726472","longitude":"130.2556819","source_code":"QS50302280035","project_name":"","survey_name":"\u798f\u5ca1202\u53f7\u4eca\u5bbf\u9053\u8def\u5468\u8239\u5bfa\u5730\u533a\u5916\u4e00\u4ef6\u5730\u8cea\u8abf\u67fb\u696d\u52d9","client_name":"\u56fd\u571f\u4ea4\u901a\u7701\u4e5d\u5dde\u5730\u65b9\u6574\u5099\u5c40\u798f\u5ca1\u56fd\u9053\u4e8b\u52d9\u6240","boring_xml_url":40,"boring_view_url":1,"soilmap_view_url":null,"soiltest_xml_url":0,"soiltest_view_url":0},{"id":221818,"code":"B4KJ201801011-0067","latitude":"33.5727583","longitude":"130.2560153","source_code":"QS50302280034","project_name":"","survey_name":"\u798f\u5ca1202\u53f7\u4eca\u5bbf\u9053\u8def\u5468\u8239\u5bfa\u5730\u533a\u5916\u4e00\u4ef6\u5730\u8cea\u8abf\u67fb\u696d\u52d9","client_name":"\u56fd\u571f\u4ea4\u901a\u7701\u4e5d\u5dde\u5730\u65b9\u6574\u5099\u5c40\u798f\u5ca1\u56fd\u9053\u4e8b\u52d9\u6240","boring_xml_url":40,"boring_view_url":1,"soilmap_view_url":null,"soiltest_xml_url":0,"soiltest_view_url":0},{"id":221817,"code":"B4KJ201801011-0066","latitude":"33.5728694","longitude":"130.2562931","source_code":"QS50302280033","project_name":"","survey_name":"\u798f\u5ca1202\u53f7\u4eca\u5bbf\u9053\u8def\u5468\u8239\u5bfa\u5730\u533a\u5916\u4e00\u4ef6\u5730\u8cea\u8abf\u67fb\u696d\u52d9","client_name":"\u56fd\u571f\u4ea4\u901a\u7701\u4e5d\u5dde\u5730\u65b9\u6574\u5099\u5c40\u798f\u5ca1\u56fd\u9053\u4e8b\u52d9\u6240","boring_xml_url":40,"boring_view_url":1,"soilmap_view_url":null,"soiltest_xml_url":0,"soiltest_view_url":0},{"id":221816,"code":"B4KJ201801011-0065","latitude":"33.572925","longitude":"130.2566264","source_code":"QS50302280032","project_name":"","survey_name":"\u798f\u5ca1202\u53f7\u4eca\u5bbf\u9053\u8def\u5468\u8239\u5bfa\u5730\u533a\u5916\u4e00\u4ef6\u5730\u8cea\u8abf\u67fb\u696d\u52d9","client_name":"\u56fd\u571f\u4ea4\u901a\u7701\u4e5d\u5dde\u5730\u65b9\u6574\u5099\u5c40\u798f\u5ca1\u56fd\u9053\u4e8b\u52d9\u6240","boring_xml_url":40,"boring_view_url":1,"soilmap_view_url":null,"soiltest_xml_url":0,"soiltest_view_url":0}]}}