{"header":{"xyz":{"source":[],"mosaic":false},"page":3300,"raw":{"soiltest_result":"0","bbox":"57.598333,109.544722,1.933333,163.806111","page":"3300"},"conditions":{"soiltest_result":0,"north":57.598333,"west":109.544722,"south":1.933333,"east":163.806111},"success":true,"message":""},"data":{"meta":{"total":212844,"page":3300,"pages":7095,"count":30},"values":[{"id":221575,"code":"B4KJ201801010-9824","latitude":"33.4637761","longitude":"130.5382983","source_code":"QS50301453014","project_name":"","survey_name":"\u7b51\u7d2b\u91ce\u30d0\u30a4\u30d1\u30b9\u59161\u4ef6\u5730\u8cea\u8abf\u67fb\u696d\u52d9\u798f\u5ca13\u53f7\u7b51\u7d2b\u91ce\u30d0\u30a4\u30d1\u30b9\u6539\u7bc9","client_name":"\u56fd\u571f\u4ea4\u901a\u7701\u4e5d\u5dde\u5730\u65b9\u6574\u5099\u5c40\u798f\u5ca1\u56fd\u9053\u4e8b\u52d9\u6240","boring_xml_url":40,"boring_view_url":1,"soilmap_view_url":null,"soiltest_xml_url":0,"soiltest_view_url":0},{"id":221574,"code":"B4KJ201801010-9823","latitude":"33.4680533","longitude":"130.5389092","source_code":"QS50301453013","project_name":"","survey_name":"\u7b51\u7d2b\u91ce\u30d0\u30a4\u30d1\u30b9\u59161\u4ef6\u5730\u8cea\u8abf\u67fb\u696d\u52d9\u798f\u5ca13\u53f7\u7b51\u7d2b\u91ce\u30d0\u30a4\u30d1\u30b9\u6539\u7bc9","client_name":"\u56fd\u571f\u4ea4\u901a\u7701\u4e5d\u5dde\u5730\u65b9\u6574\u5099\u5c40\u798f\u5ca1\u56fd\u9053\u4e8b\u52d9\u6240","boring_xml_url":40,"boring_view_url":1,"soilmap_view_url":null,"soiltest_xml_url":0,"soiltest_view_url":0},{"id":221573,"code":"B4KJ201801010-9822","latitude":"33.4681644","longitude":"130.5387147","source_code":"QS50301453012","project_name":"","survey_name":"\u7b51\u7d2b\u91ce\u30d0\u30a4\u30d1\u30b9\u59161\u4ef6\u5730\u8cea\u8abf\u67fb\u696d\u52d9\u798f\u5ca13\u53f7\u7b51\u7d2b\u91ce\u30d0\u30a4\u30d1\u30b9\u6539\u7bc9","client_name":"\u56fd\u571f\u4ea4\u901a\u7701\u4e5d\u5dde\u5730\u65b9\u6574\u5099\u5c40\u798f\u5ca1\u56fd\u9053\u4e8b\u52d9\u6240","boring_xml_url":40,"boring_view_url":1,"soilmap_view_url":null,"soiltest_xml_url":0,"soiltest_view_url":0},{"id":221572,"code":"B4KJ201801010-9821","latitude":"33.4684422","longitude":"130.5389369","source_code":"QS50301453011","project_name":"","survey_name":"\u7b51\u7d2b\u91ce\u30d0\u30a4\u30d1\u30b9\u59161\u4ef6\u5730\u8cea\u8abf\u67fb\u696d\u52d9\u798f\u5ca13\u53f7\u7b51\u7d2b\u91ce\u30d0\u30a4\u30d1\u30b9\u6539\u7bc9","client_name":"\u56fd\u571f\u4ea4\u901a\u7701\u4e5d\u5dde\u5730\u65b9\u6574\u5099\u5c40\u798f\u5ca1\u56fd\u9053\u4e8b\u52d9\u6240","boring_xml_url":40,"boring_view_url":1,"soilmap_view_url":null,"soiltest_xml_url":0,"soiltest_view_url":0},{"id":221571,"code":"B4KJ201801010-9820","latitude":"33.4685811","longitude":"130.5387425","source_code":"QS50301453010","project_name":"","survey_name":"\u7b51\u7d2b\u91ce\u30d0\u30a4\u30d1\u30b9\u59161\u4ef6\u5730\u8cea\u8abf\u67fb\u696d\u52d9\u798f\u5ca13\u53f7\u7b51\u7d2b\u91ce\u30d0\u30a4\u30d1\u30b9\u6539\u7bc9","client_name":"\u56fd\u571f\u4ea4\u901a\u7701\u4e5d\u5dde\u5730\u65b9\u6574\u5099\u5c40\u798f\u5ca1\u56fd\u9053\u4e8b\u52d9\u6240","boring_xml_url":40,"boring_view_url":1,"soilmap_view_url":null,"soiltest_xml_url":0,"soiltest_view_url":0},{"id":221570,"code":"B4KJ201801010-9819","latitude":"33.46872","longitude":"130.5389092","source_code":"QS50301453009","project_name":"","survey_name":"\u7b51\u7d2b\u91ce\u30d0\u30a4\u30d1\u30b9\u59161\u4ef6\u5730\u8cea\u8abf\u67fb\u696d\u52d9\u798f\u5ca13\u53f7\u7b51\u7d2b\u91ce\u30d0\u30a4\u30d1\u30b9\u6539\u7bc9","client_name":"\u56fd\u571f\u4ea4\u901a\u7701\u4e5d\u5dde\u5730\u65b9\u6574\u5099\u5c40\u798f\u5ca1\u56fd\u9053\u4e8b\u52d9\u6240","boring_xml_url":40,"boring_view_url":1,"soilmap_view_url":null,"soiltest_xml_url":0,"soiltest_view_url":0},{"id":221569,"code":"B4KJ201801010-9818","latitude":"33.4689144","longitude":"130.5386314","source_code":"QS50301453008","project_name":"","survey_name":"\u7b51\u7d2b\u91ce\u30d0\u30a4\u30d1\u30b9\u59161\u4ef6\u5730\u8cea\u8abf\u67fb\u696d\u52d9\u798f\u5ca13\u53f7\u7b51\u7d2b\u91ce\u30d0\u30a4\u30d1\u30b9\u6539\u7bc9","client_name":"\u56fd\u571f\u4ea4\u901a\u7701\u4e5d\u5dde\u5730\u65b9\u6574\u5099\u5c40\u798f\u5ca1\u56fd\u9053\u4e8b\u52d9\u6240","boring_xml_url":40,"boring_view_url":1,"soilmap_view_url":null,"soiltest_xml_url":0,"soiltest_view_url":0},{"id":221568,"code":"B4KJ201801010-9817","latitude":"33.4690811","longitude":"130.5388536","source_code":"QS50301453007","project_name":"","survey_name":"\u7b51\u7d2b\u91ce\u30d0\u30a4\u30d1\u30b9\u59161\u4ef6\u5730\u8cea\u8abf\u67fb\u696d\u52d9\u798f\u5ca13\u53f7\u7b51\u7d2b\u91ce\u30d0\u30a4\u30d1\u30b9\u6539\u7bc9","client_name":"\u56fd\u571f\u4ea4\u901a\u7701\u4e5d\u5dde\u5730\u65b9\u6574\u5099\u5c40\u798f\u5ca1\u56fd\u9053\u4e8b\u52d9\u6240","boring_xml_url":40,"boring_view_url":1,"soilmap_view_url":null,"soiltest_xml_url":0,"soiltest_view_url":0},{"id":221567,"code":"B4KJ201801010-9816","latitude":"33.4696922","longitude":"130.5386314","source_code":"QS50301453006","project_name":"","survey_name":"\u7b51\u7d2b\u91ce\u30d0\u30a4\u30d1\u30b9\u59161\u4ef6\u5730\u8cea\u8abf\u67fb\u696d\u52d9\u798f\u5ca13\u53f7\u7b51\u7d2b\u91ce\u30d0\u30a4\u30d1\u30b9\u6539\u7bc9","client_name":"\u56fd\u571f\u4ea4\u901a\u7701\u4e5d\u5dde\u5730\u65b9\u6574\u5099\u5c40\u798f\u5ca1\u56fd\u9053\u4e8b\u52d9\u6240","boring_xml_url":40,"boring_view_url":1,"soilmap_view_url":null,"soiltest_xml_url":0,"soiltest_view_url":0},{"id":221566,"code":"B4KJ201801010-9815","latitude":"33.4695533","longitude":"130.5389092","source_code":"QS50301453005","project_name":"","survey_name":"\u7b51\u7d2b\u91ce\u30d0\u30a4\u30d1\u30b9\u59161\u4ef6\u5730\u8cea\u8abf\u67fb\u696d\u52d9\u798f\u5ca13\u53f7\u7b51\u7d2b\u91ce\u30d0\u30a4\u30d1\u30b9\u6539\u7bc9","client_name":"\u56fd\u571f\u4ea4\u901a\u7701\u4e5d\u5dde\u5730\u65b9\u6574\u5099\u5c40\u798f\u5ca1\u56fd\u9053\u4e8b\u52d9\u6240","boring_xml_url":40,"boring_view_url":1,"soilmap_view_url":null,"soiltest_xml_url":0,"soiltest_view_url":0},{"id":221565,"code":"B4KJ201801010-9814","latitude":"33.4623042","longitude":"130.5436311","source_code":"QS50301453004","project_name":"","survey_name":"\u798f\u5ca13\u53f7\u7b51\u7d2b\u91ce\u30d0\u30a4\u30d1\u30b9\u57ce\u5c71\u5730\u533a\u5730\u8cea\u8abf\u67fb\u59161\u4ef6\u696d\u52d9","client_name":"\u56fd\u571f\u4ea4\u901a\u7701\u4e5d\u5dde\u5730\u65b9\u6574\u5099\u5c40\u798f\u5ca1\u56fd\u9053\u4e8b\u52d9\u6240","boring_xml_url":40,"boring_view_url":1,"soilmap_view_url":null,"soiltest_xml_url":0,"soiltest_view_url":0},{"id":221564,"code":"B4KJ201801010-9813","latitude":"33.4627486","longitude":"130.5425756","source_code":"QS50301453003","project_name":"","survey_name":"\u798f\u5ca13\u53f7\u7b51\u7d2b\u91ce\u30d0\u30a4\u30d1\u30b9\u57ce\u5c71\u5730\u533a\u5730\u8cea\u8abf\u67fb\u59161\u4ef6\u696d\u52d9","client_name":"\u56fd\u571f\u4ea4\u901a\u7701\u4e5d\u5dde\u5730\u65b9\u6574\u5099\u5c40\u798f\u5ca1\u56fd\u9053\u4e8b\u52d9\u6240","boring_xml_url":40,"boring_view_url":1,"soilmap_view_url":null,"soiltest_xml_url":0,"soiltest_view_url":0},{"id":221563,"code":"B4KJ201801010-9812","latitude":"33.4623875","longitude":"130.5425478","source_code":"QS50301453002","project_name":"","survey_name":"\u798f\u5ca13\u53f7\u7b51\u7d2b\u91ce\u30d0\u30a4\u30d1\u30b9\u57ce\u5c71\u5730\u533a\u5730\u8cea\u8abf\u67fb\u59161\u4ef6\u696d\u52d9","client_name":"\u56fd\u571f\u4ea4\u901a\u7701\u4e5d\u5dde\u5730\u65b9\u6574\u5099\u5c40\u798f\u5ca1\u56fd\u9053\u4e8b\u52d9\u6240","boring_xml_url":40,"boring_view_url":1,"soilmap_view_url":null,"soiltest_xml_url":0,"soiltest_view_url":0},{"id":221562,"code":"B4KJ201801010-9811","latitude":"33.464415","longitude":"130.5409369","source_code":"QS50301453001","project_name":"","survey_name":"\u798f\u5ca13\u53f7\u7b51\u7d2b\u91ce\u30d0\u30a4\u30d1\u30b9\u57ce\u5c71\u5730\u533a\u5730\u8cea\u8abf\u67fb\u59161\u4ef6\u696d\u52d9","client_name":"\u56fd\u571f\u4ea4\u901a\u7701\u4e5d\u5dde\u5730\u65b9\u6574\u5099\u5c40\u798f\u5ca1\u56fd\u9053\u4e8b\u52d9\u6240","boring_xml_url":40,"boring_view_url":1,"soilmap_view_url":null,"soiltest_xml_url":0,"soiltest_view_url":0},{"id":221561,"code":"B4KJ201801010-9810","latitude":"33.4599433","longitude":"130.5457144","source_code":"QS50301443013","project_name":"","survey_name":"\u798f\u5ca13\u53f7\u535a\u591a\u30d0\u30a4\u30d1\u30b9\u677e\u5d0e\u5730\u533a\u59162\u4ef6\u5730\u8cea\u8abf\u67fb\u696d\u52d9","client_name":"\u56fd\u571f\u4ea4\u901a\u7701\u4e5d\u5dde\u5730\u65b9\u6574\u5099\u5c40\u798f\u5ca1\u56fd\u9053\u4e8b\u52d9\u6240","boring_xml_url":40,"boring_view_url":1,"soilmap_view_url":null,"soiltest_xml_url":0,"soiltest_view_url":0},{"id":221560,"code":"B4KJ201801010-9809","latitude":"33.4599433","longitude":"130.5457144","source_code":"QS50301443012","project_name":"","survey_name":"\u798f\u5ca13\u53f7\u535a\u591a\u30d0\u30a4\u30d1\u30b9\u677e\u5d0e\u5730\u533a\u59162\u4ef6\u5730\u8cea\u8abf\u67fb\u696d\u52d9","client_name":"\u56fd\u571f\u4ea4\u901a\u7701\u4e5d\u5dde\u5730\u65b9\u6574\u5099\u5c40\u798f\u5ca1\u56fd\u9053\u4e8b\u52d9\u6240","boring_xml_url":40,"boring_view_url":1,"soilmap_view_url":null,"soiltest_xml_url":0,"soiltest_view_url":0},{"id":221559,"code":"B4KJ201801010-9808","latitude":"33.4599433","longitude":"130.5457144","source_code":"QS50301443011","project_name":"","survey_name":"\u798f\u5ca13\u53f7\u535a\u591a\u30d0\u30a4\u30d1\u30b9\u677e\u5d0e\u5730\u533a\u59162\u4ef6\u5730\u8cea\u8abf\u67fb\u696d\u52d9","client_name":"\u56fd\u571f\u4ea4\u901a\u7701\u4e5d\u5dde\u5730\u65b9\u6574\u5099\u5c40\u798f\u5ca1\u56fd\u9053\u4e8b\u52d9\u6240","boring_xml_url":40,"boring_view_url":1,"soilmap_view_url":null,"soiltest_xml_url":0,"soiltest_view_url":0},{"id":221558,"code":"B4KJ201801010-9807","latitude":"33.4603322","longitude":"130.5451033","source_code":"QS50301443010","project_name":"","survey_name":"\u7b51\u7d2b\u91ce\u30d0\u30a4\u30d1\u30b9\u59161\u4ef6\u5730\u8cea\u8abf\u67fb\u696d\u52d9\u798f\u5ca13\u53f7\u7b51\u7d2b\u91ce\u30d0\u30a4\u30d1\u30b9\u6539\u7bc9","client_name":"\u56fd\u571f\u4ea4\u901a\u7701\u4e5d\u5dde\u5730\u65b9\u6574\u5099\u5c40\u798f\u5ca1\u56fd\u9053\u4e8b\u52d9\u6240","boring_xml_url":40,"boring_view_url":1,"soilmap_view_url":null,"soiltest_xml_url":0,"soiltest_view_url":0},{"id":221557,"code":"B4KJ201801010-9806","latitude":"33.46036","longitude":"130.5446589","source_code":"QS50301443009","project_name":"","survey_name":"\u7b51\u7d2b\u91ce\u30d0\u30a4\u30d1\u30b9\u59161\u4ef6\u5730\u8cea\u8abf\u67fb\u696d\u52d9\u798f\u5ca13\u53f7\u7b51\u7d2b\u91ce\u30d0\u30a4\u30d1\u30b9\u6539\u7bc9","client_name":"\u56fd\u571f\u4ea4\u901a\u7701\u4e5d\u5dde\u5730\u65b9\u6574\u5099\u5c40\u798f\u5ca1\u56fd\u9053\u4e8b\u52d9\u6240","boring_xml_url":40,"boring_view_url":1,"soilmap_view_url":null,"soiltest_xml_url":0,"soiltest_view_url":0},{"id":221556,"code":"B4KJ201801010-9805","latitude":"33.4564161","longitude":"130.5467144","source_code":"QS50301443002","project_name":"","survey_name":"\u798f\u5ca13\u53f7\u539f\u7530\u5730\u533a\u5730\u8cea\u8abf\u67fb\u696d\u52d9","client_name":"\u56fd\u571f\u4ea4\u901a\u7701\u4e5d\u5dde\u5730\u65b9\u6574\u5099\u5c40\u798f\u5ca1\u56fd\u9053\u4e8b\u52d9\u6240","boring_xml_url":40,"boring_view_url":1,"soilmap_view_url":null,"soiltest_xml_url":0,"soiltest_view_url":0},{"id":221555,"code":"B4KJ201801010-9804","latitude":"33.4565547","longitude":"130.5462144","source_code":"QS50301443001","project_name":"","survey_name":"\u798f\u5ca13\u53f7\u539f\u7530\u5730\u533a\u5730\u8cea\u8abf\u67fb\u696d\u52d9","client_name":"\u56fd\u571f\u4ea4\u901a\u7701\u4e5d\u5dde\u5730\u65b9\u6574\u5099\u5c40\u798f\u5ca1\u56fd\u9053\u4e8b\u52d9\u6240","boring_xml_url":40,"boring_view_url":1,"soilmap_view_url":null,"soiltest_xml_url":0,"soiltest_view_url":0},{"id":221554,"code":"B4KJ201801010-9803","latitude":"33.4485558","longitude":"130.5448258","source_code":"QS50301433007","project_name":"","survey_name":"\u798f\u5ca13\u53f7\u539f\u7530\u5730\u533a\u5730\u8cea\u8abf\u67fb\u696d\u52d9","client_name":"\u56fd\u571f\u4ea4\u901a\u7701\u4e5d\u5dde\u5730\u65b9\u6574\u5099\u5c40\u798f\u5ca1\u56fd\u9053\u4e8b\u52d9\u6240","boring_xml_url":40,"boring_view_url":1,"soilmap_view_url":null,"soiltest_xml_url":0,"soiltest_view_url":0},{"id":221553,"code":"B4KJ201801010-9802","latitude":"33.4495","longitude":"130.5462978","source_code":"QS50301433006","project_name":"","survey_name":"\u798f\u5ca13\u53f7\u539f\u7530\u5730\u533a\u5730\u8cea\u8abf\u67fb\u696d\u52d9","client_name":"\u56fd\u571f\u4ea4\u901a\u7701\u4e5d\u5dde\u5730\u65b9\u6574\u5099\u5c40\u798f\u5ca1\u56fd\u9053\u4e8b\u52d9\u6240","boring_xml_url":40,"boring_view_url":1,"soilmap_view_url":null,"soiltest_xml_url":0,"soiltest_view_url":0},{"id":221552,"code":"B4KJ201801010-9801","latitude":"33.4517775","longitude":"130.5472422","source_code":"QS50301433005","project_name":"","survey_name":"\u798f\u5ca13\u53f7\u539f\u7530\u5730\u533a\u5730\u8cea\u8abf\u67fb\u696d\u52d9","client_name":"\u56fd\u571f\u4ea4\u901a\u7701\u4e5d\u5dde\u5730\u65b9\u6574\u5099\u5c40\u798f\u5ca1\u56fd\u9053\u4e8b\u52d9\u6240","boring_xml_url":40,"boring_view_url":1,"soilmap_view_url":null,"soiltest_xml_url":0,"soiltest_view_url":0},{"id":221551,"code":"B4KJ201801010-9800","latitude":"33.45175","longitude":"130.5474644","source_code":"QS50301433004","project_name":"","survey_name":"\u798f\u5ca13\u53f7\u539f\u7530\u5730\u533a\u5730\u8cea\u8abf\u67fb\u696d\u52d9","client_name":"\u56fd\u571f\u4ea4\u901a\u7701\u4e5d\u5dde\u5730\u65b9\u6574\u5099\u5c40\u798f\u5ca1\u56fd\u9053\u4e8b\u52d9\u6240","boring_xml_url":40,"boring_view_url":1,"soilmap_view_url":null,"soiltest_xml_url":0,"soiltest_view_url":0},{"id":221550,"code":"B4KJ201801010-9799","latitude":"33.4524719","longitude":"130.5474089","source_code":"QS50301433003","project_name":"","survey_name":"\u798f\u5ca13\u53f7\u539f\u7530\u5730\u533a\u5730\u8cea\u8abf\u67fb\u696d\u52d9","client_name":"\u56fd\u571f\u4ea4\u901a\u7701\u4e5d\u5dde\u5730\u65b9\u6574\u5099\u5c40\u798f\u5ca1\u56fd\u9053\u4e8b\u52d9\u6240","boring_xml_url":40,"boring_view_url":1,"soilmap_view_url":null,"soiltest_xml_url":0,"soiltest_view_url":0},{"id":221549,"code":"B4KJ201801010-9798","latitude":"33.4530275","longitude":"130.5467144","source_code":"QS50301433002","project_name":"","survey_name":"\u798f\u5ca13\u53f7\u539f\u7530\u5730\u533a\u5730\u8cea\u8abf\u67fb\u696d\u52d9","client_name":"\u56fd\u571f\u4ea4\u901a\u7701\u4e5d\u5dde\u5730\u65b9\u6574\u5099\u5c40\u798f\u5ca1\u56fd\u9053\u4e8b\u52d9\u6240","boring_xml_url":40,"boring_view_url":1,"soilmap_view_url":null,"soiltest_xml_url":0,"soiltest_view_url":0},{"id":221548,"code":"B4KJ201801010-9797","latitude":"33.4531108","longitude":"130.5475756","source_code":"QS50301433001","project_name":"","survey_name":"\u798f\u5ca13\u53f7\u539f\u7530\u5730\u533a\u5730\u8cea\u8abf\u67fb\u696d\u52d9","client_name":"\u56fd\u571f\u4ea4\u901a\u7701\u4e5d\u5dde\u5730\u65b9\u6574\u5099\u5c40\u798f\u5ca1\u56fd\u9053\u4e8b\u52d9\u6240","boring_xml_url":40,"boring_view_url":1,"soilmap_view_url":null,"soiltest_xml_url":0,"soiltest_view_url":0},{"id":221547,"code":"B4KJ201801010-9796","latitude":"33.4374736","longitude":"130.5341606","source_code":"QS50301422002","project_name":"","survey_name":"\u4f50\u8cc03\u53f7\u767d\u5742\u6a4b\u5b9f\u65bd\u8a2d\u8a08\u59162\u4ef6\u696d\u52d9","client_name":"\u56fd\u571f\u4ea4\u901a\u7701\u4e5d\u5dde\u5730\u65b9\u6574\u5099\u5c40\u4f50\u8cc0\u56fd\u9053\u4e8b\u52d9\u6240","boring_xml_url":40,"boring_view_url":1,"soilmap_view_url":null,"soiltest_xml_url":0,"soiltest_view_url":0},{"id":221546,"code":"B4KJ201801010-9795","latitude":"33.4374736","longitude":"130.5341606","source_code":"QS50301422001","project_name":"","survey_name":"\u4f50\u8cc03\u53f7\u767d\u5742\u6a4b\u5b9f\u65bd\u8a2d\u8a08\u59162\u4ef6\u696d\u52d9","client_name":"\u56fd\u571f\u4ea4\u901a\u7701\u4e5d\u5dde\u5730\u65b9\u6574\u5099\u5c40\u4f50\u8cc0\u56fd\u9053\u4e8b\u52d9\u6240","boring_xml_url":40,"boring_view_url":1,"soilmap_view_url":null,"soiltest_xml_url":0,"soiltest_view_url":0}]}}