{"header":{"xyz":{"source":[],"mosaic":false},"page":3303,"raw":{"soiltest_result":"0","bbox":"57.598333,109.544722,1.933333,163.806111","page":"3303"},"conditions":{"soiltest_result":0,"north":57.598333,"west":109.544722,"south":1.933333,"east":163.806111},"success":true,"message":""},"data":{"meta":{"total":212844,"page":3303,"pages":7095,"count":30},"values":[{"id":221485,"code":"B4KJ201801010-9734","latitude":"33.4232189","longitude":"130.2025242","source_code":"QS50301106011","project_name":"","survey_name":"\u5927\u91ce\u5730\u533a\u4ed8\u66ff\u56fd\u9053\u5730\u8cea\u8abf\u67fb\u696d\u52d9","client_name":"\u56fd\u571f\u4ea4\u901a\u7701\u4e5d\u5dde\u5730\u65b9\u6574\u5099\u5c40\u5609\u702c\u5ddd\u30c0\u30e0\u5de5\u4e8b\u4e8b\u52d9\u6240","boring_xml_url":40,"boring_view_url":1,"soilmap_view_url":null,"soiltest_xml_url":0,"soiltest_view_url":0},{"id":221484,"code":"B4KJ201801010-9733","latitude":"33.4223856","longitude":"130.2017186","source_code":"QS50301106010","project_name":"","survey_name":"\u5927\u91ce\u5730\u533a\u4ed8\u66ff\u56fd\u9053\u5730\u8cea\u8abf\u67fb\u696d\u52d9","client_name":"\u56fd\u571f\u4ea4\u901a\u7701\u4e5d\u5dde\u5730\u65b9\u6574\u5099\u5c40\u5609\u702c\u5ddd\u30c0\u30e0\u5de5\u4e8b\u4e8b\u52d9\u6240","boring_xml_url":40,"boring_view_url":1,"soilmap_view_url":null,"soiltest_xml_url":0,"soiltest_view_url":0},{"id":221483,"code":"B4KJ201801010-9732","latitude":"33.4222744","longitude":"130.2020519","source_code":"QS50301106009","project_name":"","survey_name":"\u5927\u91ce\u5730\u533a\u4ed8\u66ff\u56fd\u9053\u5730\u8cea\u8abf\u67fb\u696d\u52d9","client_name":"\u56fd\u571f\u4ea4\u901a\u7701\u4e5d\u5dde\u5730\u65b9\u6574\u5099\u5c40\u5609\u702c\u5ddd\u30c0\u30e0\u5de5\u4e8b\u4e8b\u52d9\u6240","boring_xml_url":40,"boring_view_url":1,"soilmap_view_url":null,"soiltest_xml_url":0,"soiltest_view_url":0},{"id":221482,"code":"B4KJ201801010-9731","latitude":"33.4221911","longitude":"130.2014686","source_code":"QS50301106008","project_name":"","survey_name":"\u5927\u91ce\u5730\u533a\u4ed8\u66ff\u56fd\u9053\u5730\u8cea\u8abf\u67fb\u696d\u52d9","client_name":"\u56fd\u571f\u4ea4\u901a\u7701\u4e5d\u5dde\u5730\u65b9\u6574\u5099\u5c40\u5609\u702c\u5ddd\u30c0\u30e0\u5de5\u4e8b\u4e8b\u52d9\u6240","boring_xml_url":40,"boring_view_url":1,"soilmap_view_url":null,"soiltest_xml_url":0,"soiltest_view_url":0},{"id":221481,"code":"B4KJ201801010-9730","latitude":"33.4219689","longitude":"130.2018297","source_code":"QS50301106007","project_name":"","survey_name":"\u5927\u91ce\u5730\u533a\u4ed8\u66ff\u56fd\u9053\u5730\u8cea\u8abf\u67fb\u696d\u52d9","client_name":"\u56fd\u571f\u4ea4\u901a\u7701\u4e5d\u5dde\u5730\u65b9\u6574\u5099\u5c40\u5609\u702c\u5ddd\u30c0\u30e0\u5de5\u4e8b\u4e8b\u52d9\u6240","boring_xml_url":40,"boring_view_url":1,"soilmap_view_url":null,"soiltest_xml_url":0,"soiltest_view_url":0},{"id":221480,"code":"B4KJ201801010-9729","latitude":"33.4249408","longitude":"130.2038017","source_code":"QS50301106006","project_name":"","survey_name":"\u5609\u702c\u5ddd\u30c0\u30e0\u5207\u571f\u6cd5\u9762\u5b9a\u6570\u5730\u8cea\u8abf\u67fb\u696d\u52d9","client_name":"\u56fd\u571f\u4ea4\u901a\u7701\u4e5d\u5dde\u5730\u65b9\u6574\u5099\u5c40\u5609\u702c\u5ddd\u30c0\u30e0\u5de5\u4e8b\u4e8b\u52d9\u6240","boring_xml_url":40,"boring_view_url":1,"soilmap_view_url":null,"soiltest_xml_url":0,"soiltest_view_url":0},{"id":221479,"code":"B4KJ201801010-9728","latitude":"33.4271628","longitude":"130.2038017","source_code":"QS50301106005","project_name":"","survey_name":"\u9df9\u306e\u7fbd\u3001\u6817\u4e26\u3001\u5927\u91ce\u5730\u533a\u9032\u5165\u8def\u5730\u8cea\u8abf\u67fb\u696d\u52d9","client_name":"\u56fd\u571f\u4ea4\u901a\u7701\u4e5d\u5dde\u5730\u65b9\u6574\u5099\u5c40\u5609\u702c\u5ddd\u30c0\u30e0\u5de5\u4e8b\u4e8b\u52d9\u6240","boring_xml_url":40,"boring_view_url":1,"soilmap_view_url":null,"soiltest_xml_url":0,"soiltest_view_url":0},{"id":221478,"code":"B4KJ201801010-9727","latitude":"33.4266075","longitude":"130.2040794","source_code":"QS50301106004","project_name":"","survey_name":"\u9df9\u306e\u7fbd\u3001\u6817\u4e26\u3001\u5927\u91ce\u5730\u533a\u9032\u5165\u8def\u5730\u8cea\u8abf\u67fb\u696d\u52d9","client_name":"\u56fd\u571f\u4ea4\u901a\u7701\u4e5d\u5dde\u5730\u65b9\u6574\u5099\u5c40\u5609\u702c\u5ddd\u30c0\u30e0\u5de5\u4e8b\u4e8b\u52d9\u6240","boring_xml_url":40,"boring_view_url":1,"soilmap_view_url":null,"soiltest_xml_url":0,"soiltest_view_url":0},{"id":221477,"code":"B4KJ201801010-9726","latitude":"33.4257742","longitude":"130.2038017","source_code":"QS50301106003","project_name":"","survey_name":"\u9df9\u306e\u7fbd\u3001\u6817\u4e26\u3001\u5927\u91ce\u5730\u533a\u9032\u5165\u8def\u5730\u8cea\u8abf\u67fb\u696d\u52d9","client_name":"\u56fd\u571f\u4ea4\u901a\u7701\u4e5d\u5dde\u5730\u65b9\u6574\u5099\u5c40\u5609\u702c\u5ddd\u30c0\u30e0\u5de5\u4e8b\u4e8b\u52d9\u6240","boring_xml_url":40,"boring_view_url":1,"soilmap_view_url":null,"soiltest_xml_url":0,"soiltest_view_url":0},{"id":221476,"code":"B4KJ201801010-9725","latitude":"33.4249408","longitude":"130.2038017","source_code":"QS50301106002","project_name":"","survey_name":"\u9df9\u306e\u7fbd\u3001\u6817\u4e26\u3001\u5927\u91ce\u5730\u533a\u9032\u5165\u8def\u5730\u8cea\u8abf\u67fb\u696d\u52d9","client_name":"\u56fd\u571f\u4ea4\u901a\u7701\u4e5d\u5dde\u5730\u65b9\u6574\u5099\u5c40\u5609\u702c\u5ddd\u30c0\u30e0\u5de5\u4e8b\u4e8b\u52d9\u6240","boring_xml_url":40,"boring_view_url":1,"soilmap_view_url":null,"soiltest_xml_url":0,"soiltest_view_url":0},{"id":221475,"code":"B4KJ201801010-9724","latitude":"33.4249408","longitude":"130.2035239","source_code":"QS50301106001","project_name":"","survey_name":"\u9df9\u306e\u7fbd\u3001\u6817\u4e26\u3001\u5927\u91ce\u5730\u533a\u9032\u5165\u8def\u5730\u8cea\u8abf\u67fb\u696d\u52d9","client_name":"\u56fd\u571f\u4ea4\u901a\u7701\u4e5d\u5dde\u5730\u65b9\u6574\u5099\u5c40\u5609\u702c\u5ddd\u30c0\u30e0\u5de5\u4e8b\u4e8b\u52d9\u6240","boring_xml_url":40,"boring_view_url":1,"soilmap_view_url":null,"soiltest_xml_url":0,"soiltest_view_url":0},{"id":221474,"code":"B4KJ201801010-9723","latitude":"33.4228022","longitude":"130.1941639","source_code":"QS50301105028","project_name":"","survey_name":"\u4ed8\u66ff\u753a\u9053\u6817\u4e26\u30fb\u5927\u4e32\u5730\u533a\u5730\u8cea\u8abf\u67fb\u696d\u52d9","client_name":"\u56fd\u571f\u4ea4\u901a\u7701\u4e5d\u5dde\u5730\u65b9\u6574\u5099\u5c40\u5609\u702c\u5ddd\u30c0\u30e0\u5de5\u4e8b\u4e8b\u52d9\u6240","boring_xml_url":40,"boring_view_url":1,"soilmap_view_url":null,"soiltest_xml_url":0,"soiltest_view_url":0},{"id":221473,"code":"B4KJ201801010-9722","latitude":"33.4228578","longitude":"130.194025","source_code":"QS50301105027","project_name":"","survey_name":"\u4ed8\u66ff\u753a\u9053\u6817\u4e26\u30fb\u5927\u4e32\u5730\u533a\u5730\u8cea\u8abf\u67fb\u696d\u52d9","client_name":"\u56fd\u571f\u4ea4\u901a\u7701\u4e5d\u5dde\u5730\u65b9\u6574\u5099\u5c40\u5609\u702c\u5ddd\u30c0\u30e0\u5de5\u4e8b\u4e8b\u52d9\u6240","boring_xml_url":40,"boring_view_url":1,"soilmap_view_url":null,"soiltest_xml_url":0,"soiltest_view_url":0},{"id":221472,"code":"B4KJ201801010-9721","latitude":"33.4217189","longitude":"130.1938306","source_code":"QS50301105026","project_name":"","survey_name":"\u4ed8\u66ff\u753a\u9053\u6817\u4e26\u30fb\u5927\u4e32\u5730\u533a\u5730\u8cea\u8abf\u67fb\u696d\u52d9","client_name":"\u56fd\u571f\u4ea4\u901a\u7701\u4e5d\u5dde\u5730\u65b9\u6574\u5099\u5c40\u5609\u702c\u5ddd\u30c0\u30e0\u5de5\u4e8b\u4e8b\u52d9\u6240","boring_xml_url":40,"boring_view_url":1,"soilmap_view_url":null,"soiltest_xml_url":0,"soiltest_view_url":0},{"id":221471,"code":"B4KJ201801010-9720","latitude":"33.4210522","longitude":"130.1936083","source_code":"QS50301105025","project_name":"","survey_name":"\u4ed8\u66ff\u753a\u9053\u6817\u4e26\u30fb\u5927\u4e32\u5730\u533a\u5730\u8cea\u8abf\u67fb\u696d\u52d9","client_name":"\u56fd\u571f\u4ea4\u901a\u7701\u4e5d\u5dde\u5730\u65b9\u6574\u5099\u5c40\u5609\u702c\u5ddd\u30c0\u30e0\u5de5\u4e8b\u4e8b\u52d9\u6240","boring_xml_url":40,"boring_view_url":1,"soilmap_view_url":null,"soiltest_xml_url":0,"soiltest_view_url":0},{"id":221470,"code":"B4KJ201801010-9719","latitude":"33.4966522","longitude":"130.0593408","source_code":"QS50301094002","project_name":"","survey_name":"\u59c9\u5b50\u5730\u533a\u9632\u707d\u6e2c\u91cf\u8a2d\u8a08\u696d\u52d9","client_name":"\u56fd\u571f\u4ea4\u901a\u7701\u4e5d\u5dde\u5730\u65b9\u6574\u5099\u5c40\u798f\u5ca1\u56fd\u9053\u4e8b\u52d9\u6240","boring_xml_url":40,"boring_view_url":1,"soilmap_view_url":null,"soiltest_xml_url":0,"soiltest_view_url":0},{"id":221469,"code":"B4KJ201801010-9718","latitude":"33.4968467","longitude":"130.0597853","source_code":"QS50301094001","project_name":"","survey_name":"\u59c9\u5b50\u5730\u533a\u9632\u707d\u6e2c\u91cf\u8a2d\u8a08\u696d\u52d9","client_name":"\u56fd\u571f\u4ea4\u901a\u7701\u4e5d\u5dde\u5730\u65b9\u6574\u5099\u5c40\u798f\u5ca1\u56fd\u9053\u4e8b\u52d9\u6240","boring_xml_url":40,"boring_view_url":1,"soilmap_view_url":null,"soiltest_xml_url":0,"soiltest_view_url":0},{"id":221468,"code":"B4KJ201801010-9717","latitude":"33.4544347","longitude":"130.0486761","source_code":"QS50301044003","project_name":"","survey_name":"\u5510\u6d25\u9053\u8def\u6d5c\u7389\u5730\u533a\u5730\u8cea\u8abf\u67fb(\u305d\u306e1)\u696d\u52d9","client_name":"\u56fd\u571f\u4ea4\u901a\u7701\u4e5d\u5dde\u5730\u65b9\u6574\u5099\u5c40\u4f50\u8cc0\u56fd\u9053\u4e8b\u52d9\u6240","boring_xml_url":40,"boring_view_url":1,"soilmap_view_url":null,"soiltest_xml_url":0,"soiltest_view_url":0},{"id":221467,"code":"B4KJ201801010-9716","latitude":"33.4549069","longitude":"130.0492039","source_code":"QS50301044002","project_name":"","survey_name":"\u5510\u6d25\u9053\u8def\u6d5c\u7389\u5730\u533a\u5730\u8cea\u8abf\u67fb(\u305d\u306e1)\u696d\u52d9","client_name":"\u56fd\u571f\u4ea4\u901a\u7701\u4e5d\u5dde\u5730\u65b9\u6574\u5099\u5c40\u4f50\u8cc0\u56fd\u9053\u4e8b\u52d9\u6240","boring_xml_url":40,"boring_view_url":1,"soilmap_view_url":null,"soiltest_xml_url":0,"soiltest_view_url":0},{"id":221466,"code":"B4KJ201801010-9715","latitude":"33.4580453","longitude":"130.0478706","source_code":"QS50301044001","project_name":"","survey_name":"\u5510\u6d25\u9053\u8def\u6d5c\u7389\u5730\u533a\u5730\u8cea\u8abf\u67fb(\u305d\u306e1)\u696d\u52d9","client_name":"\u56fd\u571f\u4ea4\u901a\u7701\u4e5d\u5dde\u5730\u65b9\u6574\u5099\u5c40\u4f50\u8cc0\u56fd\u9053\u4e8b\u52d9\u6240","boring_xml_url":40,"boring_view_url":1,"soilmap_view_url":null,"soiltest_xml_url":0,"soiltest_view_url":0},{"id":221465,"code":"B4KJ201801010-9714","latitude":"33.4578231","longitude":"130.0468153","source_code":"QS50301043004","project_name":"","survey_name":"\u5510\u6d25\u9053\u8def\u6d5c\u7389\u5730\u533a\u5730\u8cea\u8abf\u67fb(\u305d\u306e1)\u696d\u52d9","client_name":"\u56fd\u571f\u4ea4\u901a\u7701\u4e5d\u5dde\u5730\u65b9\u6574\u5099\u5c40\u4f50\u8cc0\u56fd\u9053\u4e8b\u52d9\u6240","boring_xml_url":40,"boring_view_url":1,"soilmap_view_url":null,"soiltest_xml_url":0,"soiltest_view_url":0},{"id":221464,"code":"B4KJ201801010-9713","latitude":"33.4576008","longitude":"130.0465653","source_code":"QS50301043003","project_name":"","survey_name":"\u5510\u6d25\u9053\u8def\u6d5c\u7389\u5730\u533a\u5730\u8cea\u8abf\u67fb(\u305d\u306e1)\u696d\u52d9","client_name":"\u56fd\u571f\u4ea4\u901a\u7701\u4e5d\u5dde\u5730\u65b9\u6574\u5099\u5c40\u4f50\u8cc0\u56fd\u9053\u4e8b\u52d9\u6240","boring_xml_url":40,"boring_view_url":1,"soilmap_view_url":null,"soiltest_xml_url":0,"soiltest_view_url":0},{"id":221463,"code":"B4KJ201801010-9712","latitude":"33.4578231","longitude":"130.0460375","source_code":"QS50301043002","project_name":"","survey_name":"\u5510\u6d25\u9053\u8def\u6d5c\u7389\u5730\u533a\u5730\u8cea\u8abf\u67fb(\u305d\u306e1)\u696d\u52d9","client_name":"\u56fd\u571f\u4ea4\u901a\u7701\u4e5d\u5dde\u5730\u65b9\u6574\u5099\u5c40\u4f50\u8cc0\u56fd\u9053\u4e8b\u52d9\u6240","boring_xml_url":40,"boring_view_url":1,"soilmap_view_url":null,"soiltest_xml_url":0,"soiltest_view_url":0},{"id":221462,"code":"B4KJ201801010-9711","latitude":"33.4600728","longitude":"130.0441764","source_code":"QS50301043001","project_name":"","survey_name":"\u5510\u6d25\u9053\u8def\u6d5c\u7389\u5730\u533a\u5730\u8cea\u8abf\u67fb(\u305d\u306e1)\u696d\u52d9","client_name":"\u56fd\u571f\u4ea4\u901a\u7701\u4e5d\u5dde\u5730\u65b9\u6574\u5099\u5c40\u4f50\u8cc0\u56fd\u9053\u4e8b\u52d9\u6240","boring_xml_url":40,"boring_view_url":1,"soilmap_view_url":null,"soiltest_xml_url":0,"soiltest_view_url":0},{"id":221461,"code":"B4KJ201801010-9710","latitude":"33.4451858","longitude":"130.0494542","source_code":"QS50301034001","project_name":"","survey_name":"\u5510\u6d25\u9053\u8def\u6d5c\u7389\u5730\u533a\u5730\u8cea\u8abf\u67fb(\u305d\u306e1)\u696d\u52d9","client_name":"\u56fd\u571f\u4ea4\u901a\u7701\u4e5d\u5dde\u5730\u65b9\u6574\u5099\u5c40\u4f50\u8cc0\u56fd\u9053\u4e8b\u52d9\u6240","boring_xml_url":40,"boring_view_url":1,"soilmap_view_url":null,"soiltest_xml_url":0,"soiltest_view_url":0},{"id":221460,"code":"B4KJ201801010-9709","latitude":"33.4389364","longitude":"130.0478989","source_code":"QS50301024006","project_name":"","survey_name":"\u5510\u6d25\u9053\u8def\u6d5c\u7389\u5730\u533a\u59161\u4ef6\u5730\u8cea\u8abf\u67fb\u696d\u52d9","client_name":"\u56fd\u571f\u4ea4\u901a\u7701\u4e5d\u5dde\u5730\u65b9\u6574\u5099\u5c40\u4f50\u8cc0\u56fd\u9053\u4e8b\u52d9\u6240","boring_xml_url":40,"boring_view_url":1,"soilmap_view_url":null,"soiltest_xml_url":0,"soiltest_view_url":0},{"id":221459,"code":"B4KJ201801010-9708","latitude":"33.4388253","longitude":"130.0488156","source_code":"QS50301024005","project_name":"","survey_name":"\u5510\u6d25\u9053\u8def\u6d5c\u7389\u5730\u533a\u59161\u4ef6\u5730\u8cea\u8abf\u67fb\u696d\u52d9","client_name":"\u56fd\u571f\u4ea4\u901a\u7701\u4e5d\u5dde\u5730\u65b9\u6574\u5099\u5c40\u4f50\u8cc0\u56fd\u9053\u4e8b\u52d9\u6240","boring_xml_url":40,"boring_view_url":1,"soilmap_view_url":null,"soiltest_xml_url":0,"soiltest_view_url":0},{"id":221458,"code":"B4KJ201801010-9707","latitude":"33.4388531","longitude":"130.0482322","source_code":"QS50301024004","project_name":"","survey_name":"\u5510\u6d25\u9053\u8def\u6d5c\u7389\u5730\u533a\u59161\u4ef6\u5730\u8cea\u8abf\u67fb\u696d\u52d9","client_name":"\u56fd\u571f\u4ea4\u901a\u7701\u4e5d\u5dde\u5730\u65b9\u6574\u5099\u5c40\u4f50\u8cc0\u56fd\u9053\u4e8b\u52d9\u6240","boring_xml_url":40,"boring_view_url":1,"soilmap_view_url":null,"soiltest_xml_url":0,"soiltest_view_url":0},{"id":221457,"code":"B4KJ201801010-9706","latitude":"33.4400753","longitude":"130.0480378","source_code":"QS50301024003","project_name":"","survey_name":"\u5510\u6d25\u9053\u8def\u6d5c\u7389\u5730\u533a\u59161\u4ef6\u5730\u8cea\u8abf\u67fb\u696d\u52d9","client_name":"\u56fd\u571f\u4ea4\u901a\u7701\u4e5d\u5dde\u5730\u65b9\u6574\u5099\u5c40\u4f50\u8cc0\u56fd\u9053\u4e8b\u52d9\u6240","boring_xml_url":40,"boring_view_url":1,"soilmap_view_url":null,"soiltest_xml_url":0,"soiltest_view_url":0},{"id":221456,"code":"B4KJ201801010-9705","latitude":"33.4399364","longitude":"130.0490097","source_code":"QS50301024002","project_name":"","survey_name":"\u5510\u6d25\u9053\u8def\u6d5c\u7389\u5730\u533a\u59161\u4ef6\u5730\u8cea\u8abf\u67fb\u696d\u52d9","client_name":"\u56fd\u571f\u4ea4\u901a\u7701\u4e5d\u5dde\u5730\u65b9\u6574\u5099\u5c40\u4f50\u8cc0\u56fd\u9053\u4e8b\u52d9\u6240","boring_xml_url":40,"boring_view_url":1,"soilmap_view_url":null,"soiltest_xml_url":0,"soiltest_view_url":0}]}}