{"header":{"xyz":{"source":[],"mosaic":false},"page":3305,"raw":{"soiltest_result":"0","bbox":"57.598333,109.544722,1.933333,163.806111","page":"3305"},"conditions":{"soiltest_result":0,"north":57.598333,"west":109.544722,"south":1.933333,"east":163.806111},"success":true,"message":""},"data":{"meta":{"total":212844,"page":3305,"pages":7095,"count":30},"values":[{"id":221425,"code":"B4KJ201801010-9674","latitude":"33.3480164","longitude":"130.7882233","source_code":"QS50300613004","project_name":"","survey_name":"\u4e95\u5ef6\u5ddd\u6c34\u9580\u5730\u8cea\u8abf\u67fb\u696d\u52d9","client_name":"\u56fd\u571f\u4ea4\u901a\u7701\u4e5d\u5dde\u5730\u65b9\u6574\u5099\u5c40\u7b51\u5f8c\u5ddd\u6cb3\u5ddd\u4e8b\u52d9\u6240","boring_xml_url":40,"boring_view_url":1,"soilmap_view_url":null,"soiltest_xml_url":0,"soiltest_view_url":0},{"id":221424,"code":"B4KJ201801010-9673","latitude":"33.3481831","longitude":"130.7879733","source_code":"QS50300613003","project_name":"","survey_name":"\u4e95\u5ef6\u5ddd\u6c34\u9580\u5730\u8cea\u8abf\u67fb\u696d\u52d9","client_name":"\u56fd\u571f\u4ea4\u901a\u7701\u4e5d\u5dde\u5730\u65b9\u6574\u5099\u5c40\u7b51\u5f8c\u5ddd\u6cb3\u5ddd\u4e8b\u52d9\u6240","boring_xml_url":40,"boring_view_url":1,"soilmap_view_url":null,"soiltest_xml_url":0,"soiltest_view_url":0},{"id":221423,"code":"B4KJ201801010-9672","latitude":"33.3480164","longitude":"130.7885011","source_code":"QS50300613002","project_name":"","survey_name":"\u4e95\u5ef6\u5ddd\u6c34\u9580\u5730\u8cea\u8abf\u67fb\u696d\u52d9","client_name":"\u56fd\u571f\u4ea4\u901a\u7701\u4e5d\u5dde\u5730\u65b9\u6574\u5099\u5c40\u7b51\u5f8c\u5ddd\u6cb3\u5ddd\u4e8b\u52d9\u6240","boring_xml_url":40,"boring_view_url":1,"soilmap_view_url":null,"soiltest_xml_url":0,"soiltest_view_url":0},{"id":221422,"code":"B4KJ201801010-9671","latitude":"33.3480164","longitude":"130.7885011","source_code":"QS50300613001","project_name":"","survey_name":"\u4e95\u5ef6\u5ddd\u6c34\u9580\u5730\u8cea\u8abf\u67fb\u696d\u52d9","client_name":"\u56fd\u571f\u4ea4\u901a\u7701\u4e5d\u5dde\u5730\u65b9\u6574\u5099\u5c40\u7b51\u5f8c\u5ddd\u6cb3\u5ddd\u4e8b\u52d9\u6240","boring_xml_url":40,"boring_view_url":1,"soilmap_view_url":null,"soiltest_xml_url":0,"soiltest_view_url":0},{"id":221421,"code":"B4KJ201801010-9670","latitude":"33.34846","longitude":"130.7569206","source_code":"QS50300610005","project_name":"","survey_name":"\u798f\u5ca1210\u53f7\u6d6e\u7fbd\u30d0\u30a4\u30d1\u30b9\u5730\u8cea\u8abf\u67fb\u696d\u52d9","client_name":"\u56fd\u571f\u4ea4\u901a\u7701\u4e5d\u5dde\u5730\u65b9\u6574\u5099\u5c40\u798f\u5ca1\u56fd\u9053\u4e8b\u52d9\u6240","boring_xml_url":40,"boring_view_url":1,"soilmap_view_url":null,"soiltest_xml_url":0,"soiltest_view_url":0},{"id":221420,"code":"B4KJ201801010-9669","latitude":"33.3484044","longitude":"130.7556983","source_code":"QS50300610004","project_name":"","survey_name":"\u798f\u5ca1210\u53f7\u6d6e\u7fbd\u30d0\u30a4\u30d1\u30b9\u5730\u8cea\u8abf\u67fb\u696d\u52d9","client_name":"\u56fd\u571f\u4ea4\u901a\u7701\u4e5d\u5dde\u5730\u65b9\u6574\u5099\u5c40\u798f\u5ca1\u56fd\u9053\u4e8b\u52d9\u6240","boring_xml_url":40,"boring_view_url":1,"soilmap_view_url":null,"soiltest_xml_url":0,"soiltest_view_url":0},{"id":221419,"code":"B4KJ201801010-9668","latitude":"33.3483489","longitude":"130.7551706","source_code":"QS50300610003","project_name":"","survey_name":"\u798f\u5ca1210\u53f7\u6d6e\u7fbd\u30d0\u30a4\u30d1\u30b9\u5730\u8cea\u8abf\u67fb\u696d\u52d9","client_name":"\u56fd\u571f\u4ea4\u901a\u7701\u4e5d\u5dde\u5730\u65b9\u6574\u5099\u5c40\u798f\u5ca1\u56fd\u9053\u4e8b\u52d9\u6240","boring_xml_url":40,"boring_view_url":1,"soilmap_view_url":null,"soiltest_xml_url":0,"soiltest_view_url":0},{"id":221418,"code":"B4KJ201801010-9667","latitude":"33.3483489","longitude":"130.7530319","source_code":"QS50300610002","project_name":"","survey_name":"\u798f\u5ca1210\u53f7\u6d6e\u7fbd\u30d0\u30a4\u30d1\u30b9\u5730\u8cea\u8abf\u67fb\u696d\u52d9","client_name":"\u56fd\u571f\u4ea4\u901a\u7701\u4e5d\u5dde\u5730\u65b9\u6574\u5099\u5c40\u798f\u5ca1\u56fd\u9053\u4e8b\u52d9\u6240","boring_xml_url":40,"boring_view_url":1,"soilmap_view_url":null,"soiltest_xml_url":0,"soiltest_view_url":0},{"id":221417,"code":"B4KJ201801010-9666","latitude":"33.3481267","longitude":"130.7510044","source_code":"QS50300610001","project_name":"","survey_name":"\u798f\u5ca1210\u53f7\u6d6e\u7fbd\u30d0\u30a4\u30d1\u30b9\u5730\u8cea\u8abf\u67fb\u696d\u52d9","client_name":"\u56fd\u571f\u4ea4\u901a\u7701\u4e5d\u5dde\u5730\u65b9\u6574\u5099\u5c40\u798f\u5ca1\u56fd\u9053\u4e8b\u52d9\u6240","boring_xml_url":40,"boring_view_url":1,"soilmap_view_url":null,"soiltest_xml_url":0,"soiltest_view_url":0},{"id":221416,"code":"B4KJ201801010-9665","latitude":"33.3396286","longitude":"130.7989725","source_code":"QS50300604008","project_name":"","survey_name":"\u6d6e\u7fbd\u30d0\u30a4\u30d1\u30b9(8\u5de5\u533a)\u5730\u8cea\u8abf\u67fb\u696d\u52d9","client_name":"\u56fd\u571f\u4ea4\u901a\u7701\u4e5d\u5dde\u5730\u65b9\u6574\u5099\u5c40\u798f\u5ca1\u56fd\u9053\u4e8b\u52d9\u6240","boring_xml_url":40,"boring_view_url":1,"soilmap_view_url":null,"soiltest_xml_url":0,"soiltest_view_url":0},{"id":221415,"code":"B4KJ201801010-9664","latitude":"33.3368233","longitude":"130.8062497","source_code":"QS50300604006","project_name":"","survey_name":"\u4e00\u822c\u56fd\u9053210\u53f7\u6d6e\u7fbd\u30d0\u30a4\u30d1\u30b9(\u6c96\u51fa\u5730\u533a)\u5730\u8cea\u8abf\u67fb\u696d\u52d9","client_name":"\u56fd\u571f\u4ea4\u901a\u7701\u4e5d\u5dde\u5730\u65b9\u6574\u5099\u5c40\u798f\u5ca1\u56fd\u9053\u4e8b\u52d9\u6240","boring_xml_url":40,"boring_view_url":1,"soilmap_view_url":null,"soiltest_xml_url":0,"soiltest_view_url":0},{"id":221414,"code":"B4KJ201801010-9663","latitude":"33.3370456","longitude":"130.8062497","source_code":"QS50300604005","project_name":"","survey_name":"\u4e00\u822c\u56fd\u9053210\u53f7\u6d6e\u7fbd\u30d0\u30a4\u30d1\u30b9(\u6c96\u51fa\u5730\u533a)\u5730\u8cea\u8abf\u67fb\u696d\u52d9","client_name":"\u56fd\u571f\u4ea4\u901a\u7701\u4e5d\u5dde\u5730\u65b9\u6574\u5099\u5c40\u798f\u5ca1\u56fd\u9053\u4e8b\u52d9\u6240","boring_xml_url":40,"boring_view_url":1,"soilmap_view_url":null,"soiltest_xml_url":0,"soiltest_view_url":0},{"id":221413,"code":"B4KJ201801010-9662","latitude":"33.3369067","longitude":"130.8055831","source_code":"QS50300604004","project_name":"","survey_name":"\u4e00\u822c\u56fd\u9053210\u53f7\u6d6e\u7fbd\u30d0\u30a4\u30d1\u30b9(\u6c96\u51fa\u5730\u533a)\u5730\u8cea\u8abf\u67fb\u696d\u52d9","client_name":"\u56fd\u571f\u4ea4\u901a\u7701\u4e5d\u5dde\u5730\u65b9\u6574\u5099\u5c40\u798f\u5ca1\u56fd\u9053\u4e8b\u52d9\u6240","boring_xml_url":40,"boring_view_url":1,"soilmap_view_url":null,"soiltest_xml_url":0,"soiltest_view_url":0},{"id":221412,"code":"B4KJ201801010-9661","latitude":"33.3372122","longitude":"130.8054997","source_code":"QS50300604003","project_name":"","survey_name":"\u4e00\u822c\u56fd\u9053210\u53f7\u6d6e\u7fbd\u30d0\u30a4\u30d1\u30b9(\u6c96\u51fa\u5730\u533a)\u5730\u8cea\u8abf\u67fb\u696d\u52d9","client_name":"\u56fd\u571f\u4ea4\u901a\u7701\u4e5d\u5dde\u5730\u65b9\u6574\u5099\u5c40\u798f\u5ca1\u56fd\u9053\u4e8b\u52d9\u6240","boring_xml_url":40,"boring_view_url":1,"soilmap_view_url":null,"soiltest_xml_url":0,"soiltest_view_url":0},{"id":221411,"code":"B4KJ201801010-9660","latitude":"33.33749","longitude":"130.8040833","source_code":"QS50300604002","project_name":"","survey_name":"\u4e00\u822c\u56fd\u9053210\u53f7\u6d6e\u7fbd\u30d0\u30a4\u30d1\u30b9(\u6c96\u51fa\u5730\u533a)\u5730\u8cea\u8abf\u67fb\u696d\u52d9","client_name":"\u56fd\u571f\u4ea4\u901a\u7701\u4e5d\u5dde\u5730\u65b9\u6574\u5099\u5c40\u798f\u5ca1\u56fd\u9053\u4e8b\u52d9\u6240","boring_xml_url":40,"boring_view_url":1,"soilmap_view_url":null,"soiltest_xml_url":0,"soiltest_view_url":0},{"id":221410,"code":"B4KJ201801010-9659","latitude":"33.3375178","longitude":"130.8025833","source_code":"QS50300604001","project_name":"","survey_name":"\u4e00\u822c\u56fd\u9053210\u53f7\u6d6e\u7fbd\u30d0\u30a4\u30d1\u30b9(\u6c96\u51fa\u5730\u533a)\u5730\u8cea\u8abf\u67fb\u696d\u52d9","client_name":"\u56fd\u571f\u4ea4\u901a\u7701\u4e5d\u5dde\u5730\u65b9\u6574\u5099\u5c40\u798f\u5ca1\u56fd\u9053\u4e8b\u52d9\u6240","boring_xml_url":40,"boring_view_url":1,"soilmap_view_url":null,"soiltest_xml_url":0,"soiltest_view_url":0},{"id":221409,"code":"B4KJ201801010-9658","latitude":"33.3389064","longitude":"130.7943619","source_code":"QS50300603004","project_name":"","survey_name":"\u6d6e\u7fbd\u30d0\u30a4\u30d1\u30b9(8\u5de5\u533a)\u5730\u8cea\u8abf\u67fb\u696d\u52d9","client_name":"\u56fd\u571f\u4ea4\u901a\u7701\u4e5d\u5dde\u5730\u65b9\u6574\u5099\u5c40\u798f\u5ca1\u56fd\u9053\u4e8b\u52d9\u6240","boring_xml_url":40,"boring_view_url":1,"soilmap_view_url":null,"soiltest_xml_url":0,"soiltest_view_url":0},{"id":221408,"code":"B4KJ201801010-9657","latitude":"33.3389064","longitude":"130.7930286","source_code":"QS50300603003","project_name":"","survey_name":"\u6d6e\u7fbd\u30d0\u30a4\u30d1\u30b9(8\u5de5\u533a)\u5730\u8cea\u8abf\u67fb\u696d\u52d9","client_name":"\u56fd\u571f\u4ea4\u901a\u7701\u4e5d\u5dde\u5730\u65b9\u6574\u5099\u5c40\u798f\u5ca1\u56fd\u9053\u4e8b\u52d9\u6240","boring_xml_url":40,"boring_view_url":1,"soilmap_view_url":null,"soiltest_xml_url":0,"soiltest_view_url":0},{"id":221407,"code":"B4KJ201801010-9656","latitude":"33.3421003","longitude":"130.7842794","source_code":"QS50300602002","project_name":"","survey_name":"210\u53f7\u7b2c2\u6a0b\u30ce\u53e3\u6a4b\u5730\u8cea\u8abf\u67fb\u696d\u52d9","client_name":"\u56fd\u571f\u4ea4\u901a\u7701\u4e5d\u5dde\u5730\u65b9\u6574\u5099\u5c40\u798f\u5ca1\u56fd\u9053\u4e8b\u52d9\u6240","boring_xml_url":40,"boring_view_url":1,"soilmap_view_url":null,"soiltest_xml_url":0,"soiltest_view_url":0},{"id":221406,"code":"B4KJ201801010-9655","latitude":"33.3421003","longitude":"130.7825017","source_code":"QS50300602001","project_name":"","survey_name":"210\u53f7\u7b2c2\u6a0b\u30ce\u53e3\u6a4b\u5730\u8cea\u8abf\u67fb\u696d\u52d9","client_name":"\u56fd\u571f\u4ea4\u901a\u7701\u4e5d\u5dde\u5730\u65b9\u6574\u5099\u5c40\u798f\u5ca1\u56fd\u9053\u4e8b\u52d9\u6240","boring_xml_url":40,"boring_view_url":1,"soilmap_view_url":null,"soiltest_xml_url":0,"soiltest_view_url":0},{"id":221405,"code":"B4KJ201801010-9654","latitude":"33.3717606","longitude":"130.6288203","source_code":"QS50300540004","project_name":"","survey_name":"\u5bcc\u7530\u5730\u533a\u6f0f\u6c34\u8abf\u67fb\u696d\u52d9","client_name":"\u56fd\u571f\u4ea4\u901a\u7701\u4e5d\u5dde\u5730\u65b9\u6574\u5099\u5c40\u7b51\u5f8c\u5ddd\u6cb3\u5ddd\u4e8b\u52d9\u6240","boring_xml_url":40,"boring_view_url":1,"soilmap_view_url":null,"soiltest_xml_url":0,"soiltest_view_url":0},{"id":221404,"code":"B4KJ201801010-9653","latitude":"33.3717606","longitude":"130.6288203","source_code":"QS50300540003","project_name":"","survey_name":"\u5bcc\u7530\u5730\u533a\u6f0f\u6c34\u8abf\u67fb\u696d\u52d9","client_name":"\u56fd\u571f\u4ea4\u901a\u7701\u4e5d\u5dde\u5730\u65b9\u6574\u5099\u5c40\u7b51\u5f8c\u5ddd\u6cb3\u5ddd\u4e8b\u52d9\u6240","boring_xml_url":40,"boring_view_url":1,"soilmap_view_url":null,"soiltest_xml_url":0,"soiltest_view_url":0},{"id":221403,"code":"B4KJ201801010-9652","latitude":"33.3717606","longitude":"130.6288203","source_code":"QS50300540002","project_name":"","survey_name":"\u5bcc\u7530\u5730\u533a\u6f0f\u6c34\u8abf\u67fb\u696d\u52d9","client_name":"\u56fd\u571f\u4ea4\u901a\u7701\u4e5d\u5dde\u5730\u65b9\u6574\u5099\u5c40\u7b51\u5f8c\u5ddd\u6cb3\u5ddd\u4e8b\u52d9\u6240","boring_xml_url":40,"boring_view_url":1,"soilmap_view_url":null,"soiltest_xml_url":0,"soiltest_view_url":0},{"id":221402,"code":"B4KJ201801010-9651","latitude":"33.3717606","longitude":"130.6288203","source_code":"QS50300540001","project_name":"","survey_name":"\u5bcc\u7530\u5730\u533a\u6f0f\u6c34\u8abf\u67fb\u696d\u52d9","client_name":"\u56fd\u571f\u4ea4\u901a\u7701\u4e5d\u5dde\u5730\u65b9\u6574\u5099\u5c40\u7b51\u5f8c\u5ddd\u6cb3\u5ddd\u4e8b\u52d9\u6240","boring_xml_url":40,"boring_view_url":1,"soilmap_view_url":null,"soiltest_xml_url":0,"soiltest_view_url":0},{"id":221401,"code":"B4KJ201801010-9650","latitude":"33.3652356","longitude":"130.7381994","source_code":"QS50300539004","project_name":"","survey_name":"\u9ad8\u6c5f\u6392\u6c34\u6a0b\u7ba1\u5730\u8cea\u8abf\u67fb\u696d\u52d9","client_name":"\u56fd\u571f\u4ea4\u901a\u7701\u4e5d\u5dde\u5730\u65b9\u6574\u5099\u5c40\u7b51\u5f8c\u5ddd\u6cb3\u5ddd\u4e8b\u52d9\u6240","boring_xml_url":40,"boring_view_url":1,"soilmap_view_url":null,"soiltest_xml_url":0,"soiltest_view_url":0},{"id":221400,"code":"B4KJ201801010-9649","latitude":"33.3655133","longitude":"130.7379217","source_code":"QS50300539003","project_name":"","survey_name":"\u9ad8\u6c5f\u6392\u6c34\u6a0b\u7ba1\u5730\u8cea\u8abf\u67fb\u696d\u52d9","client_name":"\u56fd\u571f\u4ea4\u901a\u7701\u4e5d\u5dde\u5730\u65b9\u6574\u5099\u5c40\u7b51\u5f8c\u5ddd\u6cb3\u5ddd\u4e8b\u52d9\u6240","boring_xml_url":40,"boring_view_url":1,"soilmap_view_url":null,"soiltest_xml_url":0,"soiltest_view_url":0},{"id":221399,"code":"B4KJ201801010-9648","latitude":"33.3652356","longitude":"130.7379772","source_code":"QS50300539002","project_name":"","survey_name":"\u9ad8\u6c5f\u6392\u6c34\u6a0b\u7ba1\u5730\u8cea\u8abf\u67fb\u696d\u52d9","client_name":"\u56fd\u571f\u4ea4\u901a\u7701\u4e5d\u5dde\u5730\u65b9\u6574\u5099\u5c40\u7b51\u5f8c\u5ddd\u6cb3\u5ddd\u4e8b\u52d9\u6240","boring_xml_url":40,"boring_view_url":1,"soilmap_view_url":null,"soiltest_xml_url":0,"soiltest_view_url":0},{"id":221398,"code":"B4KJ201801010-9647","latitude":"33.3652356","longitude":"130.7379772","source_code":"QS50300539001","project_name":"","survey_name":"\u9ad8\u6c5f\u6392\u6c34\u6a0b\u7ba1\u5730\u8cea\u8abf\u67fb\u696d\u52d9","client_name":"\u56fd\u571f\u4ea4\u901a\u7701\u4e5d\u5dde\u5730\u65b9\u6574\u5099\u5c40\u7b51\u5f8c\u5ddd\u6cb3\u5ddd\u4e8b\u52d9\u6240","boring_xml_url":40,"boring_view_url":1,"soilmap_view_url":null,"soiltest_xml_url":0,"soiltest_view_url":0},{"id":221397,"code":"B4KJ201801010-9646","latitude":"33.3628456","longitude":"130.6640397","source_code":"QS50300533014","project_name":"","survey_name":"\u5584\u5c0e\u5bfa\u6a0b\u7ba1\u59161\u4ef6\u5730\u8cea\u8abf\u67fb\u696d\u52d9","client_name":"\u56fd\u571f\u4ea4\u901a\u7701\u4e5d\u5dde\u5730\u65b9\u6574\u5099\u5c40\u7b51\u5f8c\u5ddd\u6cb3\u5ddd\u4e8b\u52d9\u6240","boring_xml_url":40,"boring_view_url":1,"soilmap_view_url":null,"soiltest_xml_url":0,"soiltest_view_url":0},{"id":221396,"code":"B4KJ201801010-9645","latitude":"33.3629011","longitude":"130.664845","source_code":"QS50300533013","project_name":"","survey_name":"\u5584\u5c0e\u5bfa\u6a0b\u7ba1\u59161\u4ef6\u5730\u8cea\u8abf\u67fb\u696d\u52d9","client_name":"\u56fd\u571f\u4ea4\u901a\u7701\u4e5d\u5dde\u5730\u65b9\u6574\u5099\u5c40\u7b51\u5f8c\u5ddd\u6cb3\u5ddd\u4e8b\u52d9\u6240","boring_xml_url":40,"boring_view_url":1,"soilmap_view_url":null,"soiltest_xml_url":0,"soiltest_view_url":0}]}}