{"header":{"xyz":{"source":[],"mosaic":false},"page":3325,"raw":{"soiltest_result":"0","bbox":"57.598333,109.544722,1.933333,163.806111","page":"3325"},"conditions":{"soiltest_result":0,"north":57.598333,"west":109.544722,"south":1.933333,"east":163.806111},"success":true,"message":""},"data":{"meta":{"total":212844,"page":3325,"pages":7095,"count":30},"values":[{"id":220825,"code":"B4KJ201801010-9074","latitude":"33.3503611","longitude":"129.9332728","source_code":"QS50290714006","project_name":"","survey_name":"202\u53f7\u5357\u6ce2\u591a\u5c40\u6539\u5730\u8cea\u8abf\u67fb\u696d\u52d9","client_name":"\u56fd\u571f\u4ea4\u901a\u7701\u4e5d\u5dde\u5730\u65b9\u6574\u5099\u5c40\u4f50\u8cc0\u56fd\u9053\u4e8b\u52d9\u6240","boring_xml_url":40,"boring_view_url":1,"soilmap_view_url":null,"soiltest_xml_url":0,"soiltest_view_url":0},{"id":220824,"code":"B4KJ201801010-9073","latitude":"33.3506389","longitude":"129.9331894","source_code":"QS50290714005","project_name":"","survey_name":"202\u53f7\u5357\u6ce2\u591a\u5c40\u6539\u5730\u8cea\u8abf\u67fb\u696d\u52d9","client_name":"\u56fd\u571f\u4ea4\u901a\u7701\u4e5d\u5dde\u5730\u65b9\u6574\u5099\u5c40\u4f50\u8cc0\u56fd\u9053\u4e8b\u52d9\u6240","boring_xml_url":40,"boring_view_url":1,"soilmap_view_url":null,"soiltest_xml_url":0,"soiltest_view_url":0},{"id":220823,"code":"B4KJ201801010-9072","latitude":"33.3507778","longitude":"129.9332728","source_code":"QS50290714004","project_name":"","survey_name":"202\u53f7\u5357\u6ce2\u591a\u5c40\u6539\u5730\u8cea\u8abf\u67fb\u696d\u52d9","client_name":"\u56fd\u571f\u4ea4\u901a\u7701\u4e5d\u5dde\u5730\u65b9\u6574\u5099\u5c40\u4f50\u8cc0\u56fd\u9053\u4e8b\u52d9\u6240","boring_xml_url":40,"boring_view_url":1,"soilmap_view_url":null,"soiltest_xml_url":0,"soiltest_view_url":0},{"id":220822,"code":"B4KJ201801010-9071","latitude":"33.3519722","longitude":"129.9338281","source_code":"QS50290714003","project_name":"","survey_name":"202\u53f7\u5357\u6ce2\u591a\u5c40\u6539\u5730\u8cea\u8abf\u67fb\u696d\u52d9","client_name":"\u56fd\u571f\u4ea4\u901a\u7701\u4e5d\u5dde\u5730\u65b9\u6574\u5099\u5c40\u4f50\u8cc0\u56fd\u9053\u4e8b\u52d9\u6240","boring_xml_url":40,"boring_view_url":1,"soilmap_view_url":null,"soiltest_xml_url":0,"soiltest_view_url":0},{"id":220821,"code":"B4KJ201801010-9070","latitude":"33.3524442","longitude":"129.9332728","source_code":"QS50290714002","project_name":"","survey_name":"202\u53f7\u5357\u6ce2\u591a\u5c40\u6539\u5730\u8cea\u8abf\u67fb\u696d\u52d9","client_name":"\u56fd\u571f\u4ea4\u901a\u7701\u4e5d\u5dde\u5730\u65b9\u6574\u5099\u5c40\u4f50\u8cc0\u56fd\u9053\u4e8b\u52d9\u6240","boring_xml_url":40,"boring_view_url":1,"soilmap_view_url":null,"soiltest_xml_url":0,"soiltest_view_url":0},{"id":220820,"code":"B4KJ201801010-9069","latitude":"33.3526108","longitude":"129.9333283","source_code":"QS50290714001","project_name":"","survey_name":"202\u53f7\u5357\u6ce2\u591a\u5c40\u6539\u5730\u8cea\u8abf\u67fb\u696d\u52d9","client_name":"\u56fd\u571f\u4ea4\u901a\u7701\u4e5d\u5dde\u5730\u65b9\u6574\u5099\u5c40\u4f50\u8cc0\u56fd\u9053\u4e8b\u52d9\u6240","boring_xml_url":40,"boring_view_url":1,"soilmap_view_url":null,"soiltest_xml_url":0,"soiltest_view_url":0},{"id":220819,"code":"B4KJ201801010-9068","latitude":"33.3430575","longitude":"129.9935731","source_code":"QS50290709004","project_name":"","survey_name":"\u6749\u91ce\u53ca\u3073\u884c\u5408\u91ce\u5730\u533a\u5730\u8cea\u8abf\u67fb\u696d\u52d9","client_name":"\u56fd\u571f\u4ea4\u901a\u7701\u4e5d\u5dde\u5730\u65b9\u6574\u5099\u5c40\u6b66\u96c4\u6cb3\u5ddd\u4e8b\u52d9\u6240","boring_xml_url":40,"boring_view_url":1,"soilmap_view_url":null,"soiltest_xml_url":0,"soiltest_view_url":0},{"id":220818,"code":"B4KJ201801010-9067","latitude":"33.3434186","longitude":"129.9938508","source_code":"QS50290709003","project_name":"","survey_name":"\u6749\u91ce\u53ca\u3073\u884c\u5408\u91ce\u5730\u533a\u5730\u8cea\u8abf\u67fb\u696d\u52d9","client_name":"\u56fd\u571f\u4ea4\u901a\u7701\u4e5d\u5dde\u5730\u65b9\u6574\u5099\u5c40\u6b66\u96c4\u6cb3\u5ddd\u4e8b\u52d9\u6240","boring_xml_url":40,"boring_view_url":1,"soilmap_view_url":null,"soiltest_xml_url":0,"soiltest_view_url":0},{"id":220817,"code":"B4KJ201801010-9066","latitude":"33.34078","longitude":"129.9914622","source_code":"QS50290709002","project_name":"","survey_name":"\u5b87\u306e\u6728\u6392\u6c34\u6a0b\u7ba1\u59161\u4ef6\u5730\u8cea\u8abf\u67fb\u696d\u52d9","client_name":"\u56fd\u571f\u4ea4\u901a\u7701\u4e5d\u5dde\u5730\u65b9\u6574\u5099\u5c40\u6b66\u96c4\u6cb3\u5ddd\u4e8b\u52d9\u6240","boring_xml_url":40,"boring_view_url":1,"soilmap_view_url":null,"soiltest_xml_url":0,"soiltest_view_url":0},{"id":220816,"code":"B4KJ201801010-9065","latitude":"33.3369189","longitude":"129.9728806","source_code":"QS50290708001","project_name":"","survey_name":"\u6749\u91ce\u53ca\u3073\u884c\u5408\u91ce\u5730\u533a\u5730\u8cea\u8abf\u67fb\u696d\u52d9","client_name":"\u56fd\u571f\u4ea4\u901a\u7701\u4e5d\u5dde\u5730\u65b9\u6574\u5099\u5c40\u6b66\u96c4\u6cb3\u5ddd\u4e8b\u52d9\u6240","boring_xml_url":40,"boring_view_url":1,"soilmap_view_url":null,"soiltest_xml_url":0,"soiltest_view_url":0},{"id":220815,"code":"B4KJ201801010-9064","latitude":"33.3409178","longitude":"129.9266625","source_code":"QS50290704002","project_name":"","survey_name":"\u5510\u6d25\u4f0a\u4e07\u91cc\u9053\u8def(\u4f0a\u4e07\u91cc\u5730\u533a)\u5730\u8cea\u8abf\u67fb\u696d\u52d9","client_name":"\u56fd\u571f\u4ea4\u901a\u7701\u4e5d\u5dde\u5730\u65b9\u6574\u5099\u5c40\u4f50\u8cc0\u56fd\u9053\u4e8b\u52d9\u6240","boring_xml_url":40,"boring_view_url":1,"soilmap_view_url":null,"soiltest_xml_url":0,"soiltest_view_url":0},{"id":220814,"code":"B4KJ201801010-9063","latitude":"33.3410567","longitude":"129.9266069","source_code":"QS50290704001","project_name":"","survey_name":"\u53b3\u6728\u30d0\u30a4\u30d1\u30b9\u53ca\u3073\u5510\u6d25\u4f0a\u4e07\u91cc\u9053\u8def\u5730\u8cea\u8abf\u67fb","client_name":"\u56fd\u571f\u4ea4\u901a\u7701\u4e5d\u5dde\u5730\u65b9\u6574\u5099\u5c40\u4f50\u8cc0\u56fd\u9053\u4e8b\u52d9\u6240","boring_xml_url":40,"boring_view_url":1,"soilmap_view_url":null,"soiltest_xml_url":0,"soiltest_view_url":0},{"id":220813,"code":"B4KJ201801010-9062","latitude":"33.3246992","longitude":"131.4981044","source_code":"QS49317480003","project_name":"","survey_name":"\u5f01\u5929\u5730\u533a\u5730\u8cea\u8abf\u67fb\u696d\u52d9","client_name":"\u56fd\u571f\u4ea4\u901a\u7701\u4e5d\u5dde\u5730\u65b9\u6574\u5099\u5c40\u5927\u5206\u6cb3\u5ddd\u56fd\u9053\u4e8b\u52d9\u6240","boring_xml_url":40,"boring_view_url":1,"soilmap_view_url":null,"soiltest_xml_url":0,"soiltest_view_url":0},{"id":220812,"code":"B4KJ201801010-9061","latitude":"33.3252547","longitude":"131.4978547","source_code":"QS49317480002","project_name":"","survey_name":"\u5f01\u5929\u5730\u533a\u5730\u8cea\u8abf\u67fb\u696d\u52d9","client_name":"\u56fd\u571f\u4ea4\u901a\u7701\u4e5d\u5dde\u5730\u65b9\u6574\u5099\u5c40\u5927\u5206\u6cb3\u5ddd\u56fd\u9053\u4e8b\u52d9\u6240","boring_xml_url":40,"boring_view_url":1,"soilmap_view_url":null,"soiltest_xml_url":0,"soiltest_view_url":0},{"id":220811,"code":"B4KJ201801010-9060","latitude":"33.2886481","longitude":"131.5042717","source_code":"QS49317440004","project_name":"","survey_name":"\u5225\u5e9c\u5730\u533a\u96fb\u7dda\u5171\u540c\u6e9d\u5730\u8cea\u8abf\u67fb\u696d\u52d9","client_name":"\u56fd\u571f\u4ea4\u901a\u7701\u4e5d\u5dde\u5730\u65b9\u6574\u5099\u5c40\u5927\u5206\u6cb3\u5ddd\u56fd\u9053\u4e8b\u52d9\u6240","boring_xml_url":40,"boring_view_url":1,"soilmap_view_url":null,"soiltest_xml_url":0,"soiltest_view_url":0},{"id":220810,"code":"B4KJ201801010-9059","latitude":"33.2890922","longitude":"131.5041883","source_code":"QS49317440003","project_name":"","survey_name":"\u5225\u5e9c\u5730\u533a\u96fb\u7dda\u5171\u540c\u6e9d\u5730\u8cea\u8abf\u67fb\u696d\u52d9","client_name":"\u56fd\u571f\u4ea4\u901a\u7701\u4e5d\u5dde\u5730\u65b9\u6574\u5099\u5c40\u5927\u5206\u6cb3\u5ddd\u56fd\u9053\u4e8b\u52d9\u6240","boring_xml_url":40,"boring_view_url":1,"soilmap_view_url":null,"soiltest_xml_url":0,"soiltest_view_url":0},{"id":220809,"code":"B4KJ201801010-9058","latitude":"33.28937","longitude":"131.5037994","source_code":"QS49317440002","project_name":"","survey_name":"\u5225\u5e9c\u5730\u533a\u96fb\u7dda\u5171\u540c\u6e9d\u5730\u8cea\u8abf\u67fb\u696d\u52d9","client_name":"\u56fd\u571f\u4ea4\u901a\u7701\u4e5d\u5dde\u5730\u65b9\u6574\u5099\u5c40\u5927\u5206\u6cb3\u5ddd\u56fd\u9053\u4e8b\u52d9\u6240","boring_xml_url":40,"boring_view_url":1,"soilmap_view_url":null,"soiltest_xml_url":0,"soiltest_view_url":0},{"id":220808,"code":"B4KJ201801010-9057","latitude":"33.2884536","longitude":"131.5037994","source_code":"QS49317440001","project_name":"","survey_name":"\u5225\u5e9c\u5730\u533a\u96fb\u7dda\u5171\u540c\u6e9d\u5730\u8cea\u8abf\u67fb\u696d\u52d9","client_name":"\u56fd\u571f\u4ea4\u901a\u7701\u4e5d\u5dde\u5730\u65b9\u6574\u5099\u5c40\u5927\u5206\u6cb3\u5ddd\u56fd\u9053\u4e8b\u52d9\u6240","boring_xml_url":40,"boring_view_url":1,"soilmap_view_url":null,"soiltest_xml_url":0,"soiltest_view_url":0},{"id":220807,"code":"B4KJ201801010-9056","latitude":"33.2627625","longitude":"131.5277703","source_code":"QS49317412021","project_name":"","survey_name":"\u9ad8\u5d0e\u5c71\u5730\u533a\u5730\u8cea\u8abf\u67fb(\u305d\u306e3)\u696d\u52d9","client_name":"\u56fd\u571f\u4ea4\u901a\u7701\u4e5d\u5dde\u5730\u65b9\u6574\u5099\u5c40\u5927\u5206\u6cb3\u5ddd\u56fd\u9053\u4e8b\u52d9\u6240","boring_xml_url":40,"boring_view_url":1,"soilmap_view_url":null,"soiltest_xml_url":0,"soiltest_view_url":0},{"id":220806,"code":"B4KJ201801010-9055","latitude":"33.2616792","longitude":"131.5292703","source_code":"QS49317412020","project_name":"","survey_name":"\u9ad8\u5d0e\u5c71\u5730\u533a\u5730\u8cea\u8abf\u67fb(\u305d\u306e3)\u696d\u52d9","client_name":"\u56fd\u571f\u4ea4\u901a\u7701\u4e5d\u5dde\u5730\u65b9\u6574\u5099\u5c40\u5927\u5206\u6cb3\u5ddd\u56fd\u9053\u4e8b\u52d9\u6240","boring_xml_url":40,"boring_view_url":1,"soilmap_view_url":null,"soiltest_xml_url":0,"soiltest_view_url":0},{"id":220805,"code":"B4KJ201801010-9054","latitude":"33.2630403","longitude":"131.5279647","source_code":"QS49317412019","project_name":"","survey_name":"\u9ad8\u5d0e\u5c71\u5730\u533a\u5730\u8cea\u8abf\u67fb(\u305d\u306e3)\u696d\u52d9","client_name":"\u56fd\u571f\u4ea4\u901a\u7701\u4e5d\u5dde\u5730\u65b9\u6574\u5099\u5c40\u5927\u5206\u6cb3\u5ddd\u56fd\u9053\u4e8b\u52d9\u6240","boring_xml_url":40,"boring_view_url":1,"soilmap_view_url":null,"soiltest_xml_url":0,"soiltest_view_url":0},{"id":220804,"code":"B4KJ201801010-9053","latitude":"33.2645678","longitude":"131.5271592","source_code":"QS49317412015","project_name":"","survey_name":"\u5e73\u62106\u5e74\u5ea6\u4e00\u822c\u56fd\u905310\u53f7\u9ad8\u5d0e\u5c71\u5730\u533a\u5730\u8cea\u8abf\u67fb\u696d\u52d9","client_name":"\u56fd\u571f\u4ea4\u901a\u7701\u4e5d\u5dde\u5730\u65b9\u6574\u5099\u5c40\u5927\u5206\u6cb3\u5ddd\u56fd\u9053\u4e8b\u52d9\u6240","boring_xml_url":40,"boring_view_url":1,"soilmap_view_url":null,"soiltest_xml_url":0,"soiltest_view_url":0},{"id":220803,"code":"B4KJ201801010-9052","latitude":"33.2650678","longitude":"131.5262425","source_code":"QS49317412014","project_name":"","survey_name":"\u5e73\u62106\u5e74\u5ea6\u4e00\u822c\u56fd\u905310\u53f7\u9ad8\u5d0e\u5c71\u5730\u533a\u5730\u8cea\u8abf\u67fb\u696d\u52d9","client_name":"\u56fd\u571f\u4ea4\u901a\u7701\u4e5d\u5dde\u5730\u65b9\u6574\u5099\u5c40\u5927\u5206\u6cb3\u5ddd\u56fd\u9053\u4e8b\u52d9\u6240","boring_xml_url":40,"boring_view_url":1,"soilmap_view_url":null,"soiltest_xml_url":0,"soiltest_view_url":0},{"id":220802,"code":"B4KJ201801010-9051","latitude":"33.2654567","longitude":"131.5256594","source_code":"QS49317412013","project_name":"","survey_name":"\u5e73\u62106\u5e74\u5ea6\u4e00\u822c\u56fd\u905310\u53f7\u9ad8\u5d0e\u5c71\u5730\u533a\u5730\u8cea\u8abf\u67fb\u696d\u52d9","client_name":"\u56fd\u571f\u4ea4\u901a\u7701\u4e5d\u5dde\u5730\u65b9\u6574\u5099\u5c40\u5927\u5206\u6cb3\u5ddd\u56fd\u9053\u4e8b\u52d9\u6240","boring_xml_url":40,"boring_view_url":1,"soilmap_view_url":null,"soiltest_xml_url":0,"soiltest_view_url":0},{"id":220801,"code":"B4KJ201801010-9050","latitude":"33.2656786","longitude":"131.5246594","source_code":"QS49317412012","project_name":"","survey_name":"\u5e73\u62106\u5e74\u5ea6\u4e00\u822c\u56fd\u905310\u53f7\u9ad8\u5d0e\u5c71\u5730\u533a\u5730\u8cea\u8abf\u67fb\u696d\u52d9","client_name":"\u56fd\u571f\u4ea4\u901a\u7701\u4e5d\u5dde\u5730\u65b9\u6574\u5099\u5c40\u5927\u5206\u6cb3\u5ddd\u56fd\u9053\u4e8b\u52d9\u6240","boring_xml_url":40,"boring_view_url":1,"soilmap_view_url":null,"soiltest_xml_url":0,"soiltest_view_url":0},{"id":220800,"code":"B4KJ201801010-9049","latitude":"33.2654567","longitude":"131.525215","source_code":"QS49317412011","project_name":"","survey_name":"\u5e73\u62106\u5e74\u5ea6\u4e00\u822c\u56fd\u905310\u53f7\u9ad8\u5d0e\u5c71\u5730\u533a\u5730\u8cea\u8abf\u67fb\u696d\u52d9","client_name":"\u56fd\u571f\u4ea4\u901a\u7701\u4e5d\u5dde\u5730\u65b9\u6574\u5099\u5c40\u5927\u5206\u6cb3\u5ddd\u56fd\u9053\u4e8b\u52d9\u6240","boring_xml_url":40,"boring_view_url":1,"soilmap_view_url":null,"soiltest_xml_url":0,"soiltest_view_url":0},{"id":220799,"code":"B4KJ201801010-9048","latitude":"33.2658175","longitude":"131.5229928","source_code":"QS49317412010","project_name":"","survey_name":"\u5e73\u62106\u5e74\u5ea6\u4e00\u822c\u56fd\u905310\u53f7\u9ad8\u5d0e\u5c71\u5730\u533a\u5730\u8cea\u8abf\u67fb\u696d\u52d9","client_name":"\u56fd\u571f\u4ea4\u901a\u7701\u4e5d\u5dde\u5730\u65b9\u6574\u5099\u5c40\u5927\u5206\u6cb3\u5ddd\u56fd\u9053\u4e8b\u52d9\u6240","boring_xml_url":40,"boring_view_url":1,"soilmap_view_url":null,"soiltest_xml_url":0,"soiltest_view_url":0},{"id":220798,"code":"B4KJ201801010-9047","latitude":"33.2639011","longitude":"131.5277147","source_code":"QS49317412009","project_name":"","survey_name":"\u4e00\u822c\u56fd\u905310\u53f7\u5927\u5206\u5730\u533a\u5730\u8cea\u8abf\u67fb\u696d\u52d9","client_name":"\u56fd\u571f\u4ea4\u901a\u7701\u4e5d\u5dde\u5730\u65b9\u6574\u5099\u5c40\u5927\u5206\u6cb3\u5ddd\u56fd\u9053\u4e8b\u52d9\u6240","boring_xml_url":40,"boring_view_url":1,"soilmap_view_url":null,"soiltest_xml_url":0,"soiltest_view_url":0},{"id":220797,"code":"B4KJ201801010-9046","latitude":"33.2624292","longitude":"131.53027","source_code":"QS49317412008","project_name":"","survey_name":"\u4e00\u822c\u56fd\u905310\u53f7\u5927\u5206\u5730\u533a\u5730\u8cea\u8abf\u67fb\u696d\u52d9","client_name":"\u56fd\u571f\u4ea4\u901a\u7701\u4e5d\u5dde\u5730\u65b9\u6574\u5099\u5c40\u5927\u5206\u6cb3\u5ddd\u56fd\u9053\u4e8b\u52d9\u6240","boring_xml_url":40,"boring_view_url":1,"soilmap_view_url":null,"soiltest_xml_url":0,"soiltest_view_url":0},{"id":220796,"code":"B4KJ201801010-9045","latitude":"33.2622625","longitude":"131.5298811","source_code":"QS49317412007","project_name":"","survey_name":"\u4e00\u822c\u56fd\u905310\u53f7\u5927\u5206\u5730\u533a\u5730\u8cea\u8abf\u67fb\u696d\u52d9","client_name":"\u56fd\u571f\u4ea4\u901a\u7701\u4e5d\u5dde\u5730\u65b9\u6574\u5099\u5c40\u5927\u5206\u6cb3\u5ddd\u56fd\u9053\u4e8b\u52d9\u6240","boring_xml_url":40,"boring_view_url":1,"soilmap_view_url":null,"soiltest_xml_url":0,"soiltest_view_url":0}]}}