{"header":{"xyz":{"source":[],"mosaic":false},"page":3337,"raw":{"soiltest_result":"0","bbox":"57.598333,109.544722,1.933333,163.806111","page":"3337"},"conditions":{"soiltest_result":0,"north":57.598333,"west":109.544722,"south":1.933333,"east":163.806111},"success":true,"message":""},"data":{"meta":{"total":212844,"page":3337,"pages":7095,"count":30},"values":[{"id":220465,"code":"B4KJ201801010-8714","latitude":"33.1265831","longitude":"131.5016097","source_code":"QS49315440013","project_name":"","survey_name":"\u5927\u5206\u5ddd\u30c0\u30e0\u5730\u8cea\u8abf\u67fb\u305d\u306e3\u696d\u52d9","client_name":"\u56fd\u571f\u4ea4\u901a\u7701\u4e5d\u5dde\u5730\u65b9\u6574\u5099\u5c40\u5927\u5206\u6cb3\u5ddd\u56fd\u9053\u4e8b\u52d9\u6240","boring_xml_url":40,"boring_view_url":1,"soilmap_view_url":null,"soiltest_xml_url":0,"soiltest_view_url":0},{"id":220464,"code":"B4KJ201801010-8713","latitude":"33.1262219","longitude":"131.5016097","source_code":"QS49315440011","project_name":"","survey_name":"\u5927\u5206\u5ddd\u30c0\u30e0\u5730\u8cea\u8abf\u67fb\u305d\u306e3\u696d\u52d9","client_name":"\u56fd\u571f\u4ea4\u901a\u7701\u4e5d\u5dde\u5730\u65b9\u6574\u5099\u5c40\u5927\u5206\u6cb3\u5ddd\u56fd\u9053\u4e8b\u52d9\u6240","boring_xml_url":40,"boring_view_url":1,"soilmap_view_url":null,"soiltest_xml_url":0,"soiltest_view_url":0},{"id":220463,"code":"B4KJ201801010-8712","latitude":"33.1282217","longitude":"131.5013319","source_code":"QS49315440010","project_name":"","survey_name":"\u5927\u5206\u5ddd\u30c0\u30e0\u5730\u8cea\u8abf\u67fb(\u305d\u306e5)\u696d\u52d9","client_name":"\u56fd\u571f\u4ea4\u901a\u7701\u4e5d\u5dde\u5730\u65b9\u6574\u5099\u5c40\u5927\u5206\u6cb3\u5ddd\u56fd\u9053\u4e8b\u52d9\u6240","boring_xml_url":40,"boring_view_url":1,"soilmap_view_url":null,"soiltest_xml_url":0,"soiltest_view_url":0},{"id":220462,"code":"B4KJ201801010-8711","latitude":"33.1281661","longitude":"131.4983878","source_code":"QS49315440007","project_name":"","survey_name":"\u5927\u5206\u5ddd\u30c0\u30e0\u5730\u8cea\u8abf\u67fb(\u305d\u306e1)\u696d\u52d9","client_name":"\u56fd\u571f\u4ea4\u901a\u7701\u4e5d\u5dde\u5730\u65b9\u6574\u5099\u5c40\u5927\u5206\u6cb3\u5ddd\u56fd\u9053\u4e8b\u52d9\u6240","boring_xml_url":40,"boring_view_url":1,"soilmap_view_url":null,"soiltest_xml_url":0,"soiltest_view_url":0},{"id":220461,"code":"B4KJ201801010-8710","latitude":"33.1261386","longitude":"131.4994989","source_code":"QS49315440004","project_name":"","survey_name":"\u5927\u5206\u5ddd\u30c0\u30e0\u5730\u8cea\u8abf\u67fb(\u305d\u306e2)\u696d\u52d9","client_name":"\u56fd\u571f\u4ea4\u901a\u7701\u4e5d\u5dde\u5730\u65b9\u6574\u5099\u5c40\u5927\u5206\u6cb3\u5ddd\u56fd\u9053\u4e8b\u52d9\u6240","boring_xml_url":40,"boring_view_url":1,"soilmap_view_url":null,"soiltest_xml_url":0,"soiltest_view_url":0},{"id":220460,"code":"B4KJ201801010-8709","latitude":"33.1164175","longitude":"131.4978047","source_code":"QS49315430001","project_name":"","survey_name":"\u539f\u77f3\u5c71\u8a66\u9310\u8abf\u67fb(\u305d\u306e1)\u696d\u52d9","client_name":"\u56fd\u571f\u4ea4\u901a\u7701\u4e5d\u5dde\u5730\u65b9\u6574\u5099\u5c40\u5927\u5206\u6cb3\u5ddd\u56fd\u9053\u4e8b\u52d9\u6240","boring_xml_url":40,"boring_view_url":1,"soilmap_view_url":null,"soiltest_xml_url":0,"soiltest_view_url":0},{"id":220459,"code":"B4KJ201801010-8708","latitude":"33.1604381","longitude":"131.3942572","source_code":"QS49315381001","project_name":"","survey_name":"\u91ce\u7551\u5730\u533a\u5730\u8cea\u8abf\u67fb\u696d\u52d9","client_name":"\u56fd\u571f\u4ea4\u901a\u7701\u4e5d\u5dde\u5730\u65b9\u6574\u5099\u5c40\u5927\u5206\u6cb3\u5ddd\u56fd\u9053\u4e8b\u52d9\u6240","boring_xml_url":40,"boring_view_url":1,"soilmap_view_url":null,"soiltest_xml_url":0,"soiltest_view_url":0},{"id":220458,"code":"B4KJ201801010-8707","latitude":"33.1323878","longitude":"131.4923047","source_code":"QS49315359005","project_name":"","survey_name":"\u9b3c\u539f\u571f\u6368\u5834\u53ca\u3073\u9577\u91ce\u8c37\u6a4b\u5730\u8cea\u8abf\u67fb\u696d\u52d9","client_name":"\u56fd\u571f\u4ea4\u901a\u7701\u4e5d\u5dde\u5730\u65b9\u6574\u5099\u5c40\u5927\u5206\u6cb3\u5ddd\u56fd\u9053\u4e8b\u52d9\u6240","boring_xml_url":40,"boring_view_url":1,"soilmap_view_url":null,"soiltest_xml_url":0,"soiltest_view_url":0},{"id":220457,"code":"B4KJ201801010-8706","latitude":"33.13136","longitude":"131.4930825","source_code":"QS49315359004","project_name":"","survey_name":"\u9b3c\u539f\u571f\u6368\u5834\u53ca\u3073\u9577\u91ce\u8c37\u6a4b\u5730\u8cea\u8abf\u67fb\u696d\u52d9","client_name":"\u56fd\u571f\u4ea4\u901a\u7701\u4e5d\u5dde\u5730\u65b9\u6574\u5099\u5c40\u5927\u5206\u6cb3\u5ddd\u56fd\u9053\u4e8b\u52d9\u6240","boring_xml_url":40,"boring_view_url":1,"soilmap_view_url":null,"soiltest_xml_url":0,"soiltest_view_url":0},{"id":220456,"code":"B4KJ201801010-8705","latitude":"33.1284439","longitude":"131.4974989","source_code":"QS49315359003","project_name":"","survey_name":"\u5927\u5206\u5ddd\u30c0\u30e0\u8a66\u9310\u8abf\u67fb(\u305d\u306e1)\u696d\u52d9","client_name":"\u56fd\u571f\u4ea4\u901a\u7701\u4e5d\u5dde\u5730\u65b9\u6574\u5099\u5c40\u5927\u5206\u6cb3\u5ddd\u56fd\u9053\u4e8b\u52d9\u6240","boring_xml_url":40,"boring_view_url":1,"soilmap_view_url":null,"soiltest_xml_url":0,"soiltest_view_url":0},{"id":220455,"code":"B4KJ201801010-8704","latitude":"33.128555","longitude":"131.4974433","source_code":"QS49315359002","project_name":"","survey_name":"\u5927\u5206\u5ddd\u30c0\u30e0\u8a66\u9310\u8abf\u67fb(\u305d\u306e1)\u696d\u52d9","client_name":"\u56fd\u571f\u4ea4\u901a\u7701\u4e5d\u5dde\u5730\u65b9\u6574\u5099\u5c40\u5927\u5206\u6cb3\u5ddd\u56fd\u9053\u4e8b\u52d9\u6240","boring_xml_url":40,"boring_view_url":1,"soilmap_view_url":null,"soiltest_xml_url":0,"soiltest_view_url":0},{"id":220454,"code":"B4KJ201801010-8703","latitude":"33.128555","longitude":"131.4974433","source_code":"QS49315359001","project_name":"","survey_name":"\u5927\u5206\u5ddd\u30c0\u30e0\u8a66\u9310\u8abf\u67fb(\u305d\u306e1)\u696d\u52d9","client_name":"\u56fd\u571f\u4ea4\u901a\u7701\u4e5d\u5dde\u5730\u65b9\u6574\u5099\u5c40\u5927\u5206\u6cb3\u5ddd\u56fd\u9053\u4e8b\u52d9\u6240","boring_xml_url":40,"boring_view_url":1,"soilmap_view_url":null,"soiltest_xml_url":0,"soiltest_view_url":0},{"id":220453,"code":"B4KJ201801010-8702","latitude":"33.1262494","longitude":"131.4917494","source_code":"QS49315349028","project_name":"","survey_name":"\u5927\u5206\u5ddd\u30c0\u30e0\u8caf\u6c34\u6c60\u5468\u8fba\u5730\u8cea\u8abf\u67fb\u696d\u52d9","client_name":"\u56fd\u571f\u4ea4\u901a\u7701\u4e5d\u5dde\u5730\u65b9\u6574\u5099\u5c40\u5927\u5206\u6cb3\u5ddd\u56fd\u9053\u4e8b\u52d9\u6240","boring_xml_url":40,"boring_view_url":1,"soilmap_view_url":null,"soiltest_xml_url":0,"soiltest_view_url":0},{"id":220452,"code":"B4KJ201801010-8701","latitude":"33.1247219","longitude":"131.4959158","source_code":"QS49315349025","project_name":"","survey_name":"\u5927\u5206\u5ddd\u30c0\u30e0\u5ddd\u5730\u5730\u533a\u5730\u8cea\u8abf\u67fb\u696d\u52d9","client_name":"\u56fd\u571f\u4ea4\u901a\u7701\u4e5d\u5dde\u5730\u65b9\u6574\u5099\u5c40\u5927\u5206\u6cb3\u5ddd\u56fd\u9053\u4e8b\u52d9\u6240","boring_xml_url":40,"boring_view_url":1,"soilmap_view_url":null,"soiltest_xml_url":0,"soiltest_view_url":0},{"id":220451,"code":"B4KJ201801010-8700","latitude":"33.1252775","longitude":"131.4964714","source_code":"QS49315349024","project_name":"","survey_name":"\u5927\u5206\u5ddd\u30c0\u30e0\u5ddd\u5730\u5730\u533a\u5730\u8cea\u8abf\u67fb\u696d\u52d9","client_name":"\u56fd\u571f\u4ea4\u901a\u7701\u4e5d\u5dde\u5730\u65b9\u6574\u5099\u5c40\u5927\u5206\u6cb3\u5ddd\u56fd\u9053\u4e8b\u52d9\u6240","boring_xml_url":40,"boring_view_url":1,"soilmap_view_url":null,"soiltest_xml_url":0,"soiltest_view_url":0},{"id":220450,"code":"B4KJ201801010-8699","latitude":"33.1276383","longitude":"131.4959158","source_code":"QS49315349022","project_name":"","survey_name":"\u5927\u5206\u5ddd\u30c0\u30e0\u8caf\u6c34\u6c60\u5468\u8fba\u5730\u8cea\u8abf\u67fb\u696d\u52d9","client_name":"\u56fd\u571f\u4ea4\u901a\u7701\u4e5d\u5dde\u5730\u65b9\u6574\u5099\u5c40\u5927\u5206\u6cb3\u5ddd\u56fd\u9053\u4e8b\u52d9\u6240","boring_xml_url":40,"boring_view_url":1,"soilmap_view_url":null,"soiltest_xml_url":0,"soiltest_view_url":0},{"id":220449,"code":"B4KJ201801010-8698","latitude":"33.1265272","longitude":"131.4927217","source_code":"QS49315349020","project_name":"","survey_name":"\u5927\u5206\u5ddd\u30c0\u30e0\u8caf\u6c34\u6c60\u5468\u8fba\u5730\u8cea\u8abf\u67fb\u696d\u52d9","client_name":"\u56fd\u571f\u4ea4\u901a\u7701\u4e5d\u5dde\u5730\u65b9\u6574\u5099\u5c40\u5927\u5206\u6cb3\u5ddd\u56fd\u9053\u4e8b\u52d9\u6240","boring_xml_url":40,"boring_view_url":1,"soilmap_view_url":null,"soiltest_xml_url":0,"soiltest_view_url":0},{"id":220448,"code":"B4KJ201801010-8697","latitude":"33.1257497","longitude":"131.4932217","source_code":"QS49315349018","project_name":"","survey_name":"\u5927\u5206\u5ddd\u30c0\u30e0\u8caf\u6c34\u6c60\u5468\u8fba\u5730\u8cea\u8abf\u67fb\u696d\u52d9","client_name":"\u56fd\u571f\u4ea4\u901a\u7701\u4e5d\u5dde\u5730\u65b9\u6574\u5099\u5c40\u5927\u5206\u6cb3\u5ddd\u56fd\u9053\u4e8b\u52d9\u6240","boring_xml_url":40,"boring_view_url":1,"soilmap_view_url":null,"soiltest_xml_url":0,"soiltest_view_url":0},{"id":220447,"code":"B4KJ201801010-8696","latitude":"33.1265272","longitude":"131.4934994","source_code":"QS49315349016","project_name":"","survey_name":"\u5927\u5206\u5ddd\u30c0\u30e0\u8caf\u6c34\u6c60\u5468\u8fba\u5730\u8cea\u8abf\u67fb\u696d\u52d9","client_name":"\u56fd\u571f\u4ea4\u901a\u7701\u4e5d\u5dde\u5730\u65b9\u6574\u5099\u5c40\u5927\u5206\u6cb3\u5ddd\u56fd\u9053\u4e8b\u52d9\u6240","boring_xml_url":40,"boring_view_url":1,"soilmap_view_url":null,"soiltest_xml_url":0,"soiltest_view_url":0},{"id":220446,"code":"B4KJ201801010-8695","latitude":"33.1254442","longitude":"131.4947769","source_code":"QS49315349015","project_name":"","survey_name":"\u5927\u5206\u5ddd\u30c0\u30e0\u5de6\u5cb8\u90e8\u8a66\u9310\u8abf\u67fb\u696d\u52d9","client_name":"\u56fd\u571f\u4ea4\u901a\u7701\u4e5d\u5dde\u5730\u65b9\u6574\u5099\u5c40\u5927\u5206\u6cb3\u5ddd\u56fd\u9053\u4e8b\u52d9\u6240","boring_xml_url":40,"boring_view_url":1,"soilmap_view_url":null,"soiltest_xml_url":0,"soiltest_view_url":0},{"id":220445,"code":"B4KJ201801010-8694","latitude":"33.1255553","longitude":"131.4947769","source_code":"QS49315349014","project_name":"","survey_name":"\u5927\u5206\u5ddd\u30c0\u30e0\u5de6\u5cb8\u90e8\u8a66\u9310\u8abf\u67fb\u696d\u52d9","client_name":"\u56fd\u571f\u4ea4\u901a\u7701\u4e5d\u5dde\u5730\u65b9\u6574\u5099\u5c40\u5927\u5206\u6cb3\u5ddd\u56fd\u9053\u4e8b\u52d9\u6240","boring_xml_url":40,"boring_view_url":1,"soilmap_view_url":null,"soiltest_xml_url":0,"soiltest_view_url":0},{"id":220444,"code":"B4KJ201801010-8693","latitude":"33.1255553","longitude":"131.4951658","source_code":"QS49315349013","project_name":"","survey_name":"\u5927\u5206\u5ddd\u30c0\u30e0\u5de6\u5cb8\u90e8\u8a66\u9310\u8abf\u67fb\u696d\u52d9","client_name":"\u56fd\u571f\u4ea4\u901a\u7701\u4e5d\u5dde\u5730\u65b9\u6574\u5099\u5c40\u5927\u5206\u6cb3\u5ddd\u56fd\u9053\u4e8b\u52d9\u6240","boring_xml_url":40,"boring_view_url":1,"soilmap_view_url":null,"soiltest_xml_url":0,"soiltest_view_url":0},{"id":220443,"code":"B4KJ201801010-8692","latitude":"33.1261108","longitude":"131.4953047","source_code":"QS49315349012","project_name":"","survey_name":"\u5927\u5206\u5ddd\u30c0\u30e0\u5de6\u5cb8\u90e8\u8a66\u9310\u8abf\u67fb\u696d\u52d9","client_name":"\u56fd\u571f\u4ea4\u901a\u7701\u4e5d\u5dde\u5730\u65b9\u6574\u5099\u5c40\u5927\u5206\u6cb3\u5ddd\u56fd\u9053\u4e8b\u52d9\u6240","boring_xml_url":40,"boring_view_url":1,"soilmap_view_url":null,"soiltest_xml_url":0,"soiltest_view_url":0},{"id":220442,"code":"B4KJ201801010-8691","latitude":"33.126805","longitude":"131.4937217","source_code":"QS49315349011","project_name":"","survey_name":"\u5927\u5206\u5ddd\u30c0\u30e0\u5de6\u5cb8\u90e8\u8a66\u9310\u8abf\u67fb\u696d\u52d9","client_name":"\u56fd\u571f\u4ea4\u901a\u7701\u4e5d\u5dde\u5730\u65b9\u6574\u5099\u5c40\u5927\u5206\u6cb3\u5ddd\u56fd\u9053\u4e8b\u52d9\u6240","boring_xml_url":40,"boring_view_url":1,"soilmap_view_url":null,"soiltest_xml_url":0,"soiltest_view_url":0},{"id":220441,"code":"B4KJ201801010-8690","latitude":"33.1271383","longitude":"131.4935828","source_code":"QS49315349010","project_name":"","survey_name":"\u5927\u5206\u5ddd\u30c0\u30e0\u5de6\u5cb8\u90e8\u8a66\u9310\u8abf\u67fb\u696d\u52d9","client_name":"\u56fd\u571f\u4ea4\u901a\u7701\u4e5d\u5dde\u5730\u65b9\u6574\u5099\u5c40\u5927\u5206\u6cb3\u5ddd\u56fd\u9053\u4e8b\u52d9\u6240","boring_xml_url":40,"boring_view_url":1,"soilmap_view_url":null,"soiltest_xml_url":0,"soiltest_view_url":0},{"id":220440,"code":"B4KJ201801010-8689","latitude":"33.1272494","longitude":"131.4943881","source_code":"QS49315349009","project_name":"","survey_name":"\u5927\u5206\u5ddd\u30c0\u30e0\u5de6\u5cb8\u90e8\u8a66\u9310\u8abf\u67fb\u696d\u52d9","client_name":"\u56fd\u571f\u4ea4\u901a\u7701\u4e5d\u5dde\u5730\u65b9\u6574\u5099\u5c40\u5927\u5206\u6cb3\u5ddd\u56fd\u9053\u4e8b\u52d9\u6240","boring_xml_url":40,"boring_view_url":1,"soilmap_view_url":null,"soiltest_xml_url":0,"soiltest_view_url":0},{"id":220439,"code":"B4KJ201801010-8688","latitude":"33.1275828","longitude":"131.4937214","source_code":"QS49315349008","project_name":"","survey_name":"\u5927\u5206\u5ddd\u30c0\u30e0\u5de6\u5cb8\u90e8\u8a66\u9310\u8abf\u67fb\u696d\u52d9","client_name":"\u56fd\u571f\u4ea4\u901a\u7701\u4e5d\u5dde\u5730\u65b9\u6574\u5099\u5c40\u5927\u5206\u6cb3\u5ddd\u56fd\u9053\u4e8b\u52d9\u6240","boring_xml_url":40,"boring_view_url":1,"soilmap_view_url":null,"soiltest_xml_url":0,"soiltest_view_url":0},{"id":220438,"code":"B4KJ201801010-8687","latitude":"33.1281661","longitude":"131.4943881","source_code":"QS49315349007","project_name":"","survey_name":"\u5927\u5206\u5ddd\u30c0\u30e0\u5de6\u5cb8\u90e8\u8a66\u9310\u8abf\u67fb\u696d\u52d9","client_name":"\u56fd\u571f\u4ea4\u901a\u7701\u4e5d\u5dde\u5730\u65b9\u6574\u5099\u5c40\u5927\u5206\u6cb3\u5ddd\u56fd\u9053\u4e8b\u52d9\u6240","boring_xml_url":40,"boring_view_url":1,"soilmap_view_url":null,"soiltest_xml_url":0,"soiltest_view_url":0},{"id":220437,"code":"B4KJ201801010-8686","latitude":"33.1211389","longitude":"131.4838614","source_code":"QS49315348014","project_name":"","survey_name":"\u5c3e\u539f1\u53f7\u6a4b\u5730\u8cea\u8abf\u67fb\u696d\u52d9","client_name":"\u56fd\u571f\u4ea4\u901a\u7701\u4e5d\u5dde\u5730\u65b9\u6574\u5099\u5c40\u5927\u5206\u6cb3\u5ddd\u56fd\u9053\u4e8b\u52d9\u6240","boring_xml_url":40,"boring_view_url":1,"soilmap_view_url":null,"soiltest_xml_url":0,"soiltest_view_url":0},{"id":220436,"code":"B4KJ201801010-8685","latitude":"33.1211389","longitude":"131.4839447","source_code":"QS49315348013","project_name":"","survey_name":"\u5c3e\u539f1\u53f7\u6a4b\u5730\u8cea\u8abf\u67fb\u696d\u52d9","client_name":"\u56fd\u571f\u4ea4\u901a\u7701\u4e5d\u5dde\u5730\u65b9\u6574\u5099\u5c40\u5927\u5206\u6cb3\u5ddd\u56fd\u9053\u4e8b\u52d9\u6240","boring_xml_url":40,"boring_view_url":1,"soilmap_view_url":null,"soiltest_xml_url":0,"soiltest_view_url":0}]}}