{"header":{"xyz":{"source":[],"mosaic":false},"page":3348,"raw":{"soiltest_result":"0","bbox":"57.598333,109.544722,1.933333,163.806111","page":"3348"},"conditions":{"soiltest_result":0,"north":57.598333,"west":109.544722,"south":1.933333,"east":163.806111},"success":true,"message":""},"data":{"meta":{"total":212844,"page":3348,"pages":7095,"count":30},"values":[{"id":220135,"code":"B4KJ201801010-8384","latitude":"33.0338994","longitude":"131.519805","source_code":"QS49314431002","project_name":"","survey_name":"\u5e73\u621010\u5e74\u5ea6\u5343\u6b73\u5927\u91ce\u9053\u8def\u5927\u91ce\u5730\u533a\u5730\u8cea\u8abf\u67fb\u696d\u52d9","client_name":"\u56fd\u571f\u4ea4\u901a\u7701\u4e5d\u5dde\u5730\u65b9\u6574\u5099\u5c40\u4f50\u4f2f\u6cb3\u5ddd\u56fd\u9053\u4e8b\u52d9\u6240","boring_xml_url":40,"boring_view_url":1,"soilmap_view_url":null,"soiltest_xml_url":0,"soiltest_view_url":0},{"id":220134,"code":"B4KJ201801010-8383","latitude":"33.0336217","longitude":"131.5211939","source_code":"QS49314431001","project_name":"","survey_name":"\u5e73\u621010\u5e74\u5ea6\u5343\u6b73\u5927\u91ce\u9053\u8def\u5927\u91ce\u5730\u533a\u5730\u8cea\u8abf\u67fb\u696d\u52d9","client_name":"\u56fd\u571f\u4ea4\u901a\u7701\u4e5d\u5dde\u5730\u65b9\u6574\u5099\u5c40\u4f50\u4f2f\u6cb3\u5ddd\u56fd\u9053\u4e8b\u52d9\u6240","boring_xml_url":40,"boring_view_url":1,"soilmap_view_url":null,"soiltest_xml_url":0,"soiltest_view_url":0},{"id":220133,"code":"B4KJ201801010-8382","latitude":"33.0347322","longitude":"131.5025844","source_code":"QS49314430006","project_name":"","survey_name":"\u5e73\u621010\u5e74\u5ea6\u5343\u6b73\u5927\u91ce\u9053\u8def\u5927\u91ce\u5730\u533a\u5730\u8cea\u8abf\u67fb\u696d\u52d9","client_name":"\u56fd\u571f\u4ea4\u901a\u7701\u4e5d\u5dde\u5730\u65b9\u6574\u5099\u5c40\u4f50\u4f2f\u6cb3\u5ddd\u56fd\u9053\u4e8b\u52d9\u6240","boring_xml_url":40,"boring_view_url":1,"soilmap_view_url":null,"soiltest_xml_url":0,"soiltest_view_url":0},{"id":220132,"code":"B4KJ201801010-8381","latitude":"33.0344547","longitude":"131.5036953","source_code":"QS49314430005","project_name":"","survey_name":"\u5e73\u621010\u5e74\u5ea6\u5343\u6b73\u5927\u91ce\u9053\u8def\u5927\u91ce\u5730\u533a\u5730\u8cea\u8abf\u67fb\u696d\u52d9","client_name":"\u56fd\u571f\u4ea4\u901a\u7701\u4e5d\u5dde\u5730\u65b9\u6574\u5099\u5c40\u4f50\u4f2f\u6cb3\u5ddd\u56fd\u9053\u4e8b\u52d9\u6240","boring_xml_url":40,"boring_view_url":1,"soilmap_view_url":null,"soiltest_xml_url":0,"soiltest_view_url":0},{"id":220131,"code":"B4KJ201801010-8380","latitude":"33.0347325","longitude":"131.5056397","source_code":"QS49314430004","project_name":"","survey_name":"\u5e73\u621010\u5e74\u5ea6\u5343\u6b73\u5927\u91ce\u9053\u8def\u5927\u91ce\u5730\u533a\u5730\u8cea\u8abf\u67fb\u696d\u52d9","client_name":"\u56fd\u571f\u4ea4\u901a\u7701\u4e5d\u5dde\u5730\u65b9\u6574\u5099\u5c40\u4f50\u4f2f\u6cb3\u5ddd\u56fd\u9053\u4e8b\u52d9\u6240","boring_xml_url":40,"boring_view_url":1,"soilmap_view_url":null,"soiltest_xml_url":0,"soiltest_view_url":0},{"id":220130,"code":"B4KJ201801010-8379","latitude":"33.0338992","longitude":"131.5056397","source_code":"QS49314430003","project_name":"","survey_name":"\u5e73\u621010\u5e74\u5ea6\u5343\u6b73\u5927\u91ce\u9053\u8def\u5927\u91ce\u5730\u533a\u5730\u8cea\u8abf\u67fb\u696d\u52d9","client_name":"\u56fd\u571f\u4ea4\u901a\u7701\u4e5d\u5dde\u5730\u65b9\u6574\u5099\u5c40\u4f50\u4f2f\u6cb3\u5ddd\u56fd\u9053\u4e8b\u52d9\u6240","boring_xml_url":40,"boring_view_url":1,"soilmap_view_url":null,"soiltest_xml_url":0,"soiltest_view_url":0},{"id":220129,"code":"B4KJ201801010-8378","latitude":"33.0344547","longitude":"131.5073061","source_code":"QS49314430002","project_name":"","survey_name":"\u5e73\u621010\u5e74\u5ea6\u5343\u6b73\u5927\u91ce\u9053\u8def\u5927\u91ce\u5730\u533a\u5730\u8cea\u8abf\u67fb\u696d\u52d9","client_name":"\u56fd\u571f\u4ea4\u901a\u7701\u4e5d\u5dde\u5730\u65b9\u6574\u5099\u5c40\u4f50\u4f2f\u6cb3\u5ddd\u56fd\u9053\u4e8b\u52d9\u6240","boring_xml_url":40,"boring_view_url":1,"soilmap_view_url":null,"soiltest_xml_url":0,"soiltest_view_url":0},{"id":220128,"code":"B4KJ201801010-8377","latitude":"33.0341769","longitude":"131.5075839","source_code":"QS49314430001","project_name":"","survey_name":"\u5e73\u621010\u5e74\u5ea6\u5343\u6b73\u5927\u91ce\u9053\u8def\u5927\u91ce\u5730\u533a\u5730\u8cea\u8abf\u67fb\u696d\u52d9","client_name":"\u56fd\u571f\u4ea4\u901a\u7701\u4e5d\u5dde\u5730\u65b9\u6574\u5099\u5c40\u4f50\u4f2f\u6cb3\u5ddd\u56fd\u9053\u4e8b\u52d9\u6240","boring_xml_url":40,"boring_view_url":1,"soilmap_view_url":null,"soiltest_xml_url":0,"soiltest_view_url":0},{"id":220127,"code":"B4KJ201801010-8376","latitude":"32.9647483","longitude":"131.92366","source_code":"QS49313754001","project_name":"","survey_name":"\u5e73\u62107\u5e74\u5ea6\u756a\u5320\u5ddd\u5824\u9632\u5730\u8cea\u8abf\u67fb\u696d\u52d9","client_name":"\u56fd\u571f\u4ea4\u901a\u7701\u4e5d\u5dde\u5730\u65b9\u6574\u5099\u5c40\u4f50\u4f2f\u6cb3\u5ddd\u56fd\u9053\u4e8b\u52d9\u6240","boring_xml_url":40,"boring_view_url":1,"soilmap_view_url":null,"soiltest_xml_url":0,"soiltest_view_url":0},{"id":220126,"code":"B4KJ201801010-8375","latitude":"32.9580825","longitude":"131.9225492","source_code":"QS49313744001","project_name":"","survey_name":"\u5e73\u62107\u5e74\u5ea6\u756a\u5320\u5ddd\u5824\u9632\u5730\u8cea\u8abf\u67fb\u696d\u52d9","client_name":"\u56fd\u571f\u4ea4\u901a\u7701\u4e5d\u5dde\u5730\u65b9\u6574\u5099\u5c40\u4f50\u4f2f\u6cb3\u5ddd\u56fd\u9053\u4e8b\u52d9\u6240","boring_xml_url":40,"boring_view_url":1,"soilmap_view_url":null,"soiltest_xml_url":0,"soiltest_view_url":0},{"id":220125,"code":"B4KJ201801010-8374","latitude":"32.9541383","longitude":"131.9064394","source_code":"QS49313742003","project_name":"","survey_name":"\u9577\u91ce\u5730\u533a\u59161\u4ef6\u8a66\u9318\u8abf\u67fb\u696d\u52d9(\u7247\u820e\u65b0\u7bc9\u5730\u70b9)","client_name":"\u56fd\u571f\u4ea4\u901a\u7701\u4e5d\u5dde\u5730\u65b9\u6574\u5099\u5c40\u4f50\u4f2f\u6cb3\u5ddd\u56fd\u9053\u4e8b\u52d9\u6240","boring_xml_url":40,"boring_view_url":1,"soilmap_view_url":null,"soiltest_xml_url":0,"soiltest_view_url":0},{"id":220124,"code":"B4KJ201801010-8373","latitude":"32.9540272","longitude":"131.9065783","source_code":"QS49313742002","project_name":"","survey_name":"\u9577\u91ce\u5730\u533a\u59161\u4ef6\u8a66\u9318\u8abf\u67fb\u696d\u52d9(\u7247\u820e\u65b0\u7bc9\u5730\u70b9)","client_name":"\u56fd\u571f\u4ea4\u901a\u7701\u4e5d\u5dde\u5730\u65b9\u6574\u5099\u5c40\u4f50\u4f2f\u6cb3\u5ddd\u56fd\u9053\u4e8b\u52d9\u6240","boring_xml_url":40,"boring_view_url":1,"soilmap_view_url":null,"soiltest_xml_url":0,"soiltest_view_url":0},{"id":220123,"code":"B4KJ201801010-8372","latitude":"32.9538606","longitude":"131.906245","source_code":"QS49313742001","project_name":"","survey_name":"\u9577\u91ce\u5730\u533a\u59161\u4ef6\u8a66\u9318\u8abf\u67fb\u696d\u52d9(\u7247\u820e\u65b0\u7bc9\u5730\u70b9)","client_name":"\u56fd\u571f\u4ea4\u901a\u7701\u4e5d\u5dde\u5730\u65b9\u6574\u5099\u5c40\u4f50\u4f2f\u6cb3\u5ddd\u56fd\u9053\u4e8b\u52d9\u6240","boring_xml_url":40,"boring_view_url":1,"soilmap_view_url":null,"soiltest_xml_url":0,"soiltest_view_url":0},{"id":220122,"code":"B4KJ201801010-8371","latitude":"32.9536378","longitude":"131.8851914","source_code":"QS49313741001","project_name":"","survey_name":"\u5e73\u62107\u5e74\u5ea6\u756a\u5320\u5ddd\u5824\u9632\u5730\u8cea\u8abf\u67fb\u696d\u52d9","client_name":"\u56fd\u571f\u4ea4\u901a\u7701\u4e5d\u5dde\u5730\u65b9\u6574\u5099\u5c40\u4f50\u4f2f\u6cb3\u5ddd\u56fd\u9053\u4e8b\u52d9\u6240","boring_xml_url":40,"boring_view_url":1,"soilmap_view_url":null,"soiltest_xml_url":0,"soiltest_view_url":0},{"id":220121,"code":"B4KJ201801010-8370","latitude":"32.9561375","longitude":"131.8807472","source_code":"QS49313740004","project_name":"","survey_name":"\u5e73\u62107\u5e74\u5ea6\u756a\u5320\u5ddd\u5824\u9632\u5730\u8cea\u8abf\u67fb\u696d\u52d9","client_name":"\u56fd\u571f\u4ea4\u901a\u7701\u4e5d\u5dde\u5730\u65b9\u6574\u5099\u5c40\u4f50\u4f2f\u6cb3\u5ddd\u56fd\u9053\u4e8b\u52d9\u6240","boring_xml_url":40,"boring_view_url":1,"soilmap_view_url":null,"soiltest_xml_url":0,"soiltest_view_url":0},{"id":220120,"code":"B4KJ201801010-8369","latitude":"32.9555819","longitude":"131.8818583","source_code":"QS49313740003","project_name":"","survey_name":"\u5e73\u62107\u5e74\u5ea6\u756a\u5320\u5ddd\u5824\u9632\u5730\u8cea\u8abf\u67fb\u696d\u52d9","client_name":"\u56fd\u571f\u4ea4\u901a\u7701\u4e5d\u5dde\u5730\u65b9\u6574\u5099\u5c40\u4f50\u4f2f\u6cb3\u5ddd\u56fd\u9053\u4e8b\u52d9\u6240","boring_xml_url":40,"boring_view_url":1,"soilmap_view_url":null,"soiltest_xml_url":0,"soiltest_view_url":0},{"id":220119,"code":"B4KJ201801010-8368","latitude":"32.9543044","longitude":"131.8838303","source_code":"QS49313740002","project_name":"","survey_name":"\u5973\u5cf6\u6c34\u9580\u59161\u4ef6\u5730\u8cea\u8abf\u67fb\u696d\u52d9","client_name":"\u56fd\u571f\u4ea4\u901a\u7701\u4e5d\u5dde\u5730\u65b9\u6574\u5099\u5c40\u4f50\u4f2f\u6cb3\u5ddd\u56fd\u9053\u4e8b\u52d9\u6240","boring_xml_url":40,"boring_view_url":1,"soilmap_view_url":null,"soiltest_xml_url":0,"soiltest_view_url":0},{"id":220118,"code":"B4KJ201801010-8367","latitude":"32.9545267","longitude":"131.8841081","source_code":"QS49313740001","project_name":"","survey_name":"\u5973\u5cf6\u6c34\u9580\u59161\u4ef6\u5730\u8cea\u8abf\u67fb\u696d\u52d9","client_name":"\u56fd\u571f\u4ea4\u901a\u7701\u4e5d\u5dde\u5730\u65b9\u6574\u5099\u5c40\u4f50\u4f2f\u6cb3\u5ddd\u56fd\u9053\u4e8b\u52d9\u6240","boring_xml_url":40,"boring_view_url":1,"soilmap_view_url":null,"soiltest_xml_url":0,"soiltest_view_url":0},{"id":220117,"code":"B4KJ201801010-8366","latitude":"32.9521108","longitude":"131.9168553","source_code":"QS49313733005","project_name":"","survey_name":"\u5e73\u62107\u5e74\u5ea6\u756a\u5320\u5ddd\u5824\u9632\u5730\u8cea\u8abf\u67fb\u696d\u52d9","client_name":"\u56fd\u571f\u4ea4\u901a\u7701\u4e5d\u5dde\u5730\u65b9\u6574\u5099\u5c40\u4f50\u4f2f\u6cb3\u5ddd\u56fd\u9053\u4e8b\u52d9\u6240","boring_xml_url":40,"boring_view_url":1,"soilmap_view_url":null,"soiltest_xml_url":0,"soiltest_view_url":0},{"id":220116,"code":"B4KJ201801010-8365","latitude":"32.9454447","longitude":"131.9057453","source_code":"QS49313732006","project_name":"","survey_name":"\u5e73\u62107\u5e74\u5ea6\u756a\u5320\u5ddd\u5824\u9632\u5730\u8cea\u8abf\u67fb\u696d\u52d9","client_name":"\u56fd\u571f\u4ea4\u901a\u7701\u4e5d\u5dde\u5730\u65b9\u6574\u5099\u5c40\u4f50\u4f2f\u6cb3\u5ddd\u56fd\u9053\u4e8b\u52d9\u6240","boring_xml_url":40,"boring_view_url":1,"soilmap_view_url":null,"soiltest_xml_url":0,"soiltest_view_url":0},{"id":220115,"code":"B4KJ201801010-8364","latitude":"32.9500275","longitude":"131.9028289","source_code":"QS49313732005","project_name":"","survey_name":"\u5e73\u62107\u5e74\u5ea6\u756a\u5320\u5ddd\u5824\u9632\u5730\u8cea\u8abf\u67fb\u696d\u52d9","client_name":"\u56fd\u571f\u4ea4\u901a\u7701\u4e5d\u5dde\u5730\u65b9\u6574\u5099\u5c40\u4f50\u4f2f\u6cb3\u5ddd\u56fd\u9053\u4e8b\u52d9\u6240","boring_xml_url":40,"boring_view_url":1,"soilmap_view_url":null,"soiltest_xml_url":0,"soiltest_view_url":0},{"id":220114,"code":"B4KJ201801010-8363","latitude":"32.9489167","longitude":"131.9079672","source_code":"QS49313732004","project_name":"","survey_name":"\u5e73\u62107\u5e74\u5ea6\u756a\u5320\u5ddd\u5824\u9632\u5730\u8cea\u8abf\u67fb\u696d\u52d9","client_name":"\u56fd\u571f\u4ea4\u901a\u7701\u4e5d\u5dde\u5730\u65b9\u6574\u5099\u5c40\u4f50\u4f2f\u6cb3\u5ddd\u56fd\u9053\u4e8b\u52d9\u6240","boring_xml_url":40,"boring_view_url":1,"soilmap_view_url":null,"soiltest_xml_url":0,"soiltest_view_url":0},{"id":220113,"code":"B4KJ201801010-8362","latitude":"32.9500275","longitude":"131.8999403","source_code":"QS49313732002","project_name":"","survey_name":"\u5973\u5cf6\u6c34\u9580\u59161\u4ef6\u5730\u8cea\u8abf\u67fb\u696d\u52d9","client_name":"\u56fd\u571f\u4ea4\u901a\u7701\u4e5d\u5dde\u5730\u65b9\u6574\u5099\u5c40\u4f50\u4f2f\u6cb3\u5ddd\u56fd\u9053\u4e8b\u52d9\u6240","boring_xml_url":40,"boring_view_url":1,"soilmap_view_url":null,"soiltest_xml_url":0,"soiltest_view_url":0},{"id":220112,"code":"B4KJ201801010-8361","latitude":"32.9504719","longitude":"131.8999403","source_code":"QS49313732001","project_name":"","survey_name":"\u5973\u5cf6\u6c34\u9580\u59161\u4ef6\u5730\u8cea\u8abf\u67fb\u696d\u52d9","client_name":"\u56fd\u571f\u4ea4\u901a\u7701\u4e5d\u5dde\u5730\u65b9\u6574\u5099\u5c40\u4f50\u4f2f\u6cb3\u5ddd\u56fd\u9053\u4e8b\u52d9\u6240","boring_xml_url":40,"boring_view_url":1,"soilmap_view_url":null,"soiltest_xml_url":0,"soiltest_view_url":0},{"id":220111,"code":"B4KJ201801010-8360","latitude":"32.949055","longitude":"131.8886633","source_code":"QS49313731005","project_name":"","survey_name":"\u5e73\u62107\u5e74\u5ea6\u756a\u5320\u5ddd\u5824\u9632\u5730\u8cea\u8abf\u67fb\u696d\u52d9","client_name":"\u56fd\u571f\u4ea4\u901a\u7701\u4e5d\u5dde\u5730\u65b9\u6574\u5099\u5c40\u4f50\u4f2f\u6cb3\u5ddd\u56fd\u9053\u4e8b\u52d9\u6240","boring_xml_url":40,"boring_view_url":1,"soilmap_view_url":null,"soiltest_xml_url":0,"soiltest_view_url":0},{"id":220110,"code":"B4KJ201801010-8359","latitude":"32.9476667","longitude":"131.8972739","source_code":"QS49313731004","project_name":"","survey_name":"\u5e73\u62107\u5e74\u5ea6\u756a\u5320\u5ddd\u5824\u9632\u5730\u8cea\u8abf\u67fb\u696d\u52d9","client_name":"\u56fd\u571f\u4ea4\u901a\u7701\u4e5d\u5dde\u5730\u65b9\u6574\u5099\u5c40\u4f50\u4f2f\u6cb3\u5ddd\u56fd\u9053\u4e8b\u52d9\u6240","boring_xml_url":40,"boring_view_url":1,"soilmap_view_url":null,"soiltest_xml_url":0,"soiltest_view_url":0},{"id":220109,"code":"B4KJ201801010-8358","latitude":"32.9505828","longitude":"131.8913019","source_code":"QS49313731003","project_name":"","survey_name":"\u5e73\u62107\u5e74\u5ea6\u756a\u5320\u5ddd\u5824\u9632\u5730\u8cea\u8abf\u67fb\u696d\u52d9","client_name":"\u56fd\u571f\u4ea4\u901a\u7701\u4e5d\u5dde\u5730\u65b9\u6574\u5099\u5c40\u4f50\u4f2f\u6cb3\u5ddd\u56fd\u9053\u4e8b\u52d9\u6240","boring_xml_url":40,"boring_view_url":1,"soilmap_view_url":null,"soiltest_xml_url":0,"soiltest_view_url":0},{"id":220108,"code":"B4KJ201801010-8357","latitude":"32.9515547","longitude":"131.8843583","source_code":"QS49313730012","project_name":"","survey_name":"\u5e73\u62107\u5e74\u5ea6\u756a\u5320\u5ddd\u5824\u9632\u5730\u8cea\u8abf\u67fb\u696d\u52d9","client_name":"\u56fd\u571f\u4ea4\u901a\u7701\u4e5d\u5dde\u5730\u65b9\u6574\u5099\u5c40\u4f50\u4f2f\u6cb3\u5ddd\u56fd\u9053\u4e8b\u52d9\u6240","boring_xml_url":40,"boring_view_url":1,"soilmap_view_url":null,"soiltest_xml_url":0,"soiltest_view_url":0},{"id":220107,"code":"B4KJ201801010-8356","latitude":"32.9400844","longitude":"131.9135503","source_code":"QS49313723005","project_name":"","survey_name":"\u6797\u65b0\u5730\u533a\u5730\u8cea\u8abf\u67fb\u696d\u52d9","client_name":"\u56fd\u571f\u4ea4\u901a\u7701\u4e5d\u5dde\u5730\u65b9\u6574\u5099\u5c40\u4f50\u4f2f\u6cb3\u5ddd\u56fd\u9053\u4e8b\u52d9\u6240","boring_xml_url":40,"boring_view_url":1,"soilmap_view_url":null,"soiltest_xml_url":0,"soiltest_view_url":0},{"id":220106,"code":"B4KJ201801010-8355","latitude":"32.9401956","longitude":"131.9135503","source_code":"QS49313723004","project_name":"","survey_name":"\u6797\u65b0\u5730\u533a\u5730\u8cea\u8abf\u67fb\u696d\u52d9","client_name":"\u56fd\u571f\u4ea4\u901a\u7701\u4e5d\u5dde\u5730\u65b9\u6574\u5099\u5c40\u4f50\u4f2f\u6cb3\u5ddd\u56fd\u9053\u4e8b\u52d9\u6240","boring_xml_url":40,"boring_view_url":1,"soilmap_view_url":null,"soiltest_xml_url":0,"soiltest_view_url":0}]}}