{"header":{"xyz":{"source":[],"mosaic":false},"page":3362,"raw":{"soiltest_result":"0","bbox":"57.598333,109.544722,1.933333,163.806111","page":"3362"},"conditions":{"soiltest_result":0,"north":57.598333,"west":109.544722,"south":1.933333,"east":163.806111},"success":true,"message":""},"data":{"meta":{"total":212844,"page":3362,"pages":7095,"count":30},"values":[{"id":219715,"code":"B4KJ201801010-7964","latitude":"32.7106536","longitude":"131.2846958","source_code":"QS49310242004","project_name":"","survey_name":"\u5bae\u5d0e218\u53f7\u795e\u6bbf\u5730\u533a\u5730\u8cea\u8abf\u67fb\u696d\u52d9","client_name":"\u56fd\u571f\u4ea4\u901a\u7701\u4e5d\u5dde\u5730\u65b9\u6574\u5099\u5c40\u5ef6\u5ca1\u6cb3\u5ddd\u56fd\u9053\u4e8b\u52d9\u6240","boring_xml_url":40,"boring_view_url":1,"soilmap_view_url":null,"soiltest_xml_url":0,"soiltest_view_url":0},{"id":219714,"code":"B4KJ201801010-7963","latitude":"32.709515","longitude":"131.2844736","source_code":"QS49310242003","project_name":"","survey_name":"\u5bae\u5d0e218\u53f7\u795e\u6bbf\u5730\u533a\u5730\u8cea\u8abf\u67fb\u696d\u52d9","client_name":"\u56fd\u571f\u4ea4\u901a\u7701\u4e5d\u5dde\u5730\u65b9\u6574\u5099\u5c40\u5ef6\u5ca1\u6cb3\u5ddd\u56fd\u9053\u4e8b\u52d9\u6240","boring_xml_url":40,"boring_view_url":1,"soilmap_view_url":null,"soiltest_xml_url":0,"soiltest_view_url":0},{"id":219713,"code":"B4KJ201801010-7962","latitude":"32.7092928","longitude":"131.2841125","source_code":"QS49310242002","project_name":"","survey_name":"\u5bae\u5d0e218\u53f7\u795e\u6bbf\u5730\u533a\u5730\u8cea\u8abf\u67fb\u696d\u52d9","client_name":"\u56fd\u571f\u4ea4\u901a\u7701\u4e5d\u5dde\u5730\u65b9\u6574\u5099\u5c40\u5ef6\u5ca1\u6cb3\u5ddd\u56fd\u9053\u4e8b\u52d9\u6240","boring_xml_url":40,"boring_view_url":1,"soilmap_view_url":null,"soiltest_xml_url":0,"soiltest_view_url":0},{"id":219712,"code":"B4KJ201801010-7961","latitude":"32.7093483","longitude":"131.2840847","source_code":"QS49310242001","project_name":"","survey_name":"\u5bae\u5d0e218\u53f7\u795e\u6bbf\u5730\u533a\u5730\u8cea\u8abf\u67fb\u696d\u52d9","client_name":"\u56fd\u571f\u4ea4\u901a\u7701\u4e5d\u5dde\u5730\u65b9\u6574\u5099\u5c40\u5ef6\u5ca1\u6cb3\u5ddd\u56fd\u9053\u4e8b\u52d9\u6240","boring_xml_url":40,"boring_view_url":1,"soilmap_view_url":null,"soiltest_xml_url":0,"soiltest_view_url":0},{"id":219711,"code":"B4KJ201801010-7960","latitude":"32.6868192","longitude":"131.077965","source_code":"QS49310026005","project_name":"","survey_name":"\u4e00\u822c\u56fd\u9053218\u53f7\u9808\u539f2\u53f7\u6a4b\u5730\u8cea\u8abf\u67fb\u696d\u52d9","client_name":"\u56fd\u571f\u4ea4\u901a\u7701\u4e5d\u5dde\u5730\u65b9\u6574\u5099\u5c40\u718a\u672c\u6cb3\u5ddd\u56fd\u9053\u4e8b\u52d9\u6240","boring_xml_url":40,"boring_view_url":1,"soilmap_view_url":null,"soiltest_xml_url":0,"soiltest_view_url":0},{"id":219710,"code":"B4KJ201801010-7959","latitude":"32.6869303","longitude":"131.0777983","source_code":"QS49310026004","project_name":"","survey_name":"\u4e00\u822c\u56fd\u9053218\u53f7\u9808\u539f2\u53f7\u6a4b\u5730\u8cea\u8abf\u67fb\u696d\u52d9","client_name":"\u56fd\u571f\u4ea4\u901a\u7701\u4e5d\u5dde\u5730\u65b9\u6574\u5099\u5c40\u718a\u672c\u6cb3\u5ddd\u56fd\u9053\u4e8b\u52d9\u6240","boring_xml_url":40,"boring_view_url":1,"soilmap_view_url":null,"soiltest_xml_url":0,"soiltest_view_url":0},{"id":219709,"code":"B4KJ201801010-7958","latitude":"32.6870969","longitude":"131.0776317","source_code":"QS49310026003","project_name":"","survey_name":"\u4e00\u822c\u56fd\u9053218\u53f7\u9808\u539f2\u53f7\u6a4b\u5730\u8cea\u8abf\u67fb\u696d\u52d9","client_name":"\u56fd\u571f\u4ea4\u901a\u7701\u4e5d\u5dde\u5730\u65b9\u6574\u5099\u5c40\u718a\u672c\u6cb3\u5ddd\u56fd\u9053\u4e8b\u52d9\u6240","boring_xml_url":40,"boring_view_url":1,"soilmap_view_url":null,"soiltest_xml_url":0,"soiltest_view_url":0},{"id":219708,"code":"B4KJ201801010-7957","latitude":"32.6870414","longitude":"131.0774094","source_code":"QS49310026002","project_name":"","survey_name":"\u4e00\u822c\u56fd\u9053218\u53f7\u9808\u539f2\u53f7\u6a4b\u5730\u8cea\u8abf\u67fb\u696d\u52d9","client_name":"\u56fd\u571f\u4ea4\u901a\u7701\u4e5d\u5dde\u5730\u65b9\u6574\u5099\u5c40\u718a\u672c\u6cb3\u5ddd\u56fd\u9053\u4e8b\u52d9\u6240","boring_xml_url":40,"boring_view_url":1,"soilmap_view_url":null,"soiltest_xml_url":0,"soiltest_view_url":0},{"id":219707,"code":"B4KJ201801010-7956","latitude":"32.6871525","longitude":"131.0772706","source_code":"QS49310026001","project_name":"","survey_name":"\u4e00\u822c\u56fd\u9053218\u53f7\u9808\u539f2\u53f7\u6a4b\u5730\u8cea\u8abf\u67fb\u696d\u52d9","client_name":"\u56fd\u571f\u4ea4\u901a\u7701\u4e5d\u5dde\u5730\u65b9\u6574\u5099\u5c40\u718a\u672c\u6cb3\u5ddd\u56fd\u9053\u4e8b\u52d9\u6240","boring_xml_url":40,"boring_view_url":1,"soilmap_view_url":null,"soiltest_xml_url":0,"soiltest_view_url":0},{"id":219706,"code":"B4KJ201801010-7955","latitude":"32.6880953","longitude":"130.9981942","source_code":"QS49310020015","project_name":"","survey_name":"\u77e2\u90e8\u30d0\u30a4\u30d1\u30b9\u5730\u8cea\u7cbe\u8abf\u67fb\u696d\u52d9","client_name":"\u56fd\u571f\u4ea4\u901a\u7701\u4e5d\u5dde\u5730\u65b9\u6574\u5099\u5c40\u718a\u672c\u6cb3\u5ddd\u56fd\u9053\u4e8b\u52d9\u6240","boring_xml_url":40,"boring_view_url":1,"soilmap_view_url":null,"soiltest_xml_url":0,"soiltest_view_url":0},{"id":219705,"code":"B4KJ201801010-7954","latitude":"32.6883731","longitude":"131.0004164","source_code":"QS49310020014","project_name":"","survey_name":"\u77e2\u90e8\u30d0\u30a4\u30d1\u30b9\u5730\u8cea\u7cbe\u8abf\u67fb\u696d\u52d9","client_name":"\u56fd\u571f\u4ea4\u901a\u7701\u4e5d\u5dde\u5730\u65b9\u6574\u5099\u5c40\u718a\u672c\u6cb3\u5ddd\u56fd\u9053\u4e8b\u52d9\u6240","boring_xml_url":40,"boring_view_url":1,"soilmap_view_url":null,"soiltest_xml_url":0,"soiltest_view_url":0},{"id":219704,"code":"B4KJ201801010-7953","latitude":"32.6897617","longitude":"130.9990275","source_code":"QS49310020013","project_name":"","survey_name":"\u77e2\u90e8\u30d0\u30a4\u30d1\u30b9\u5730\u8cea\u7cbe\u8abf\u67fb\u696d\u52d9","client_name":"\u56fd\u571f\u4ea4\u901a\u7701\u4e5d\u5dde\u5730\u65b9\u6574\u5099\u5c40\u718a\u672c\u6cb3\u5ddd\u56fd\u9053\u4e8b\u52d9\u6240","boring_xml_url":40,"boring_view_url":1,"soilmap_view_url":null,"soiltest_xml_url":0,"soiltest_view_url":0},{"id":219703,"code":"B4KJ201801010-7952","latitude":"32.6879842","longitude":"131.0003886","source_code":"QS49310020011","project_name":"","survey_name":"\u718a\u672c218\u53f7\u77e2\u90e8\u30d0\u30a4\u30d1\u30b9\u5730\u8cea\u8abf\u67fb\u696d\u52d9","client_name":"\u56fd\u571f\u4ea4\u901a\u7701\u4e5d\u5dde\u5730\u65b9\u6574\u5099\u5c40\u718a\u672c\u6cb3\u5ddd\u56fd\u9053\u4e8b\u52d9\u6240","boring_xml_url":40,"boring_view_url":1,"soilmap_view_url":null,"soiltest_xml_url":0,"soiltest_view_url":0},{"id":219702,"code":"B4KJ201801010-7951","latitude":"32.6880397","longitude":"131.0000831","source_code":"QS49310020010","project_name":"","survey_name":"\u718a\u672c218\u53f7\u77e2\u90e8\u30d0\u30a4\u30d1\u30b9\u5730\u8cea\u8abf\u67fb\u696d\u52d9","client_name":"\u56fd\u571f\u4ea4\u901a\u7701\u4e5d\u5dde\u5730\u65b9\u6574\u5099\u5c40\u718a\u672c\u6cb3\u5ddd\u56fd\u9053\u4e8b\u52d9\u6240","boring_xml_url":40,"boring_view_url":1,"soilmap_view_url":null,"soiltest_xml_url":0,"soiltest_view_url":0},{"id":219701,"code":"B4KJ201801010-7950","latitude":"32.6883731","longitude":"130.9996386","source_code":"QS49310020009","project_name":"","survey_name":"\u718a\u672c218\u53f7\u77e2\u90e8\u30d0\u30a4\u30d1\u30b9\u5730\u8cea\u8abf\u67fb\u696d\u52d9","client_name":"\u56fd\u571f\u4ea4\u901a\u7701\u4e5d\u5dde\u5730\u65b9\u6574\u5099\u5c40\u718a\u672c\u6cb3\u5ddd\u56fd\u9053\u4e8b\u52d9\u6240","boring_xml_url":40,"boring_view_url":1,"soilmap_view_url":null,"soiltest_xml_url":0,"soiltest_view_url":0},{"id":219700,"code":"B4KJ201801010-7949","latitude":"32.6875956","longitude":"131.001805","source_code":"QS49310020008","project_name":"","survey_name":"\u77e2\u90e8\u5730\u533a\u5730\u8cea\u8abf\u67fb\u696d\u52d9","client_name":"\u56fd\u571f\u4ea4\u901a\u7701\u4e5d\u5dde\u5730\u65b9\u6574\u5099\u5c40\u718a\u672c\u6cb3\u5ddd\u56fd\u9053\u4e8b\u52d9\u6240","boring_xml_url":40,"boring_view_url":1,"soilmap_view_url":null,"soiltest_xml_url":0,"soiltest_view_url":0},{"id":219699,"code":"B4KJ201801010-7948","latitude":"32.6877064","longitude":"131.0013883","source_code":"QS49310020007","project_name":"","survey_name":"\u77e2\u90e8\u5730\u533a\u5730\u8cea\u8abf\u67fb\u696d\u52d9","client_name":"\u56fd\u571f\u4ea4\u901a\u7701\u4e5d\u5dde\u5730\u65b9\u6574\u5099\u5c40\u718a\u672c\u6cb3\u5ddd\u56fd\u9053\u4e8b\u52d9\u6240","boring_xml_url":40,"boring_view_url":1,"soilmap_view_url":null,"soiltest_xml_url":0,"soiltest_view_url":0},{"id":219698,"code":"B4KJ201801010-7947","latitude":"32.6878175","longitude":"131.0011106","source_code":"QS49310020006","project_name":"","survey_name":"\u77e2\u90e8\u5730\u533a\u5730\u8cea\u8abf\u67fb\u696d\u52d9","client_name":"\u56fd\u571f\u4ea4\u901a\u7701\u4e5d\u5dde\u5730\u65b9\u6574\u5099\u5c40\u718a\u672c\u6cb3\u5ddd\u56fd\u9053\u4e8b\u52d9\u6240","boring_xml_url":40,"boring_view_url":1,"soilmap_view_url":null,"soiltest_xml_url":0,"soiltest_view_url":0},{"id":219697,"code":"B4KJ201801010-7946","latitude":"32.6879286","longitude":"131.0015272","source_code":"QS49310020005","project_name":"","survey_name":"\u77e2\u90e8\u5730\u533a\u5730\u8cea\u8abf\u67fb\u696d\u52d9","client_name":"\u56fd\u571f\u4ea4\u901a\u7701\u4e5d\u5dde\u5730\u65b9\u6574\u5099\u5c40\u718a\u672c\u6cb3\u5ddd\u56fd\u9053\u4e8b\u52d9\u6240","boring_xml_url":40,"boring_view_url":1,"soilmap_view_url":null,"soiltest_xml_url":0,"soiltest_view_url":0},{"id":219696,"code":"B4KJ201801010-7945","latitude":"32.6877064","longitude":"131.0019161","source_code":"QS49310020004","project_name":"","survey_name":"\u77e2\u90e8\u5730\u533a\u5730\u8cea\u8abf\u67fb\u696d\u52d9","client_name":"\u56fd\u571f\u4ea4\u901a\u7701\u4e5d\u5dde\u5730\u65b9\u6574\u5099\u5c40\u718a\u672c\u6cb3\u5ddd\u56fd\u9053\u4e8b\u52d9\u6240","boring_xml_url":40,"boring_view_url":1,"soilmap_view_url":null,"soiltest_xml_url":0,"soiltest_view_url":0},{"id":219695,"code":"B4KJ201801010-7944","latitude":"32.6880953","longitude":"131.0011106","source_code":"QS49310020003","project_name":"","survey_name":"\u77e2\u90e8\u5730\u533a\u5730\u8cea\u8abf\u67fb\u696d\u52d9","client_name":"\u56fd\u571f\u4ea4\u901a\u7701\u4e5d\u5dde\u5730\u65b9\u6574\u5099\u5c40\u718a\u672c\u6cb3\u5ddd\u56fd\u9053\u4e8b\u52d9\u6240","boring_xml_url":40,"boring_view_url":1,"soilmap_view_url":null,"soiltest_xml_url":0,"soiltest_view_url":0},{"id":219694,"code":"B4KJ201801010-7943","latitude":"32.6884842","longitude":"131.0004442","source_code":"QS49310020002","project_name":"","survey_name":"\u77e2\u90e8\u5730\u533a\u5730\u8cea\u8abf\u67fb\u696d\u52d9","client_name":"\u56fd\u571f\u4ea4\u901a\u7701\u4e5d\u5dde\u5730\u65b9\u6574\u5099\u5c40\u718a\u672c\u6cb3\u5ddd\u56fd\u9053\u4e8b\u52d9\u6240","boring_xml_url":40,"boring_view_url":1,"soilmap_view_url":null,"soiltest_xml_url":0,"soiltest_view_url":0},{"id":219693,"code":"B4KJ201801010-7942","latitude":"32.6879286","longitude":"130.9994997","source_code":"QS49310020001","project_name":"","survey_name":"\u77e2\u90e8\u5730\u533a\u5730\u8cea\u8abf\u67fb\u696d\u52d9","client_name":"\u56fd\u571f\u4ea4\u901a\u7701\u4e5d\u5dde\u5730\u65b9\u6574\u5099\u5c40\u718a\u672c\u6cb3\u5ddd\u56fd\u9053\u4e8b\u52d9\u6240","boring_xml_url":40,"boring_view_url":1,"soilmap_view_url":null,"soiltest_xml_url":0,"soiltest_view_url":0},{"id":219692,"code":"B4KJ201801010-7941","latitude":"32.6830411","longitude":"131.0433014","source_code":"QS49310013015","project_name":"","survey_name":"\u718a\u672c218\u53f7\u7adc\u5bae\u5927\u6a4b\u59161\u4ef6\u5730\u8cea\u8abf\u67fb\u696d\u52d9","client_name":"\u56fd\u571f\u4ea4\u901a\u7701\u4e5d\u5dde\u5730\u65b9\u6574\u5099\u5c40\u718a\u672c\u6cb3\u5ddd\u56fd\u9053\u4e8b\u52d9\u6240","boring_xml_url":40,"boring_view_url":1,"soilmap_view_url":null,"soiltest_xml_url":0,"soiltest_view_url":0},{"id":219691,"code":"B4KJ201801010-7940","latitude":"32.6833189","longitude":"131.0434681","source_code":"QS49310013014","project_name":"","survey_name":"\u718a\u672c218\u53f7\u7adc\u5bae\u5927\u6a4b\u59161\u4ef6\u5730\u8cea\u8abf\u67fb\u696d\u52d9","client_name":"\u56fd\u571f\u4ea4\u901a\u7701\u4e5d\u5dde\u5730\u65b9\u6574\u5099\u5c40\u718a\u672c\u6cb3\u5ddd\u56fd\u9053\u4e8b\u52d9\u6240","boring_xml_url":40,"boring_view_url":1,"soilmap_view_url":null,"soiltest_xml_url":0,"soiltest_view_url":0},{"id":219690,"code":"B4KJ201801010-7939","latitude":"32.6835411","longitude":"131.0435514","source_code":"QS49310013013","project_name":"","survey_name":"\u718a\u672c218\u53f7\u7adc\u5bae\u5927\u6a4b\u59161\u4ef6\u5730\u8cea\u8abf\u67fb\u696d\u52d9","client_name":"\u56fd\u571f\u4ea4\u901a\u7701\u4e5d\u5dde\u5730\u65b9\u6574\u5099\u5c40\u718a\u672c\u6cb3\u5ddd\u56fd\u9053\u4e8b\u52d9\u6240","boring_xml_url":40,"boring_view_url":1,"soilmap_view_url":null,"soiltest_xml_url":0,"soiltest_view_url":0},{"id":219689,"code":"B4KJ201801010-7938","latitude":"32.6838189","longitude":"131.0436625","source_code":"QS49310013012","project_name":"","survey_name":"\u718a\u672c218\u53f7\u7adc\u5bae\u5927\u6a4b\u59161\u4ef6\u5730\u8cea\u8abf\u67fb\u696d\u52d9","client_name":"\u56fd\u571f\u4ea4\u901a\u7701\u4e5d\u5dde\u5730\u65b9\u6574\u5099\u5c40\u718a\u672c\u6cb3\u5ddd\u56fd\u9053\u4e8b\u52d9\u6240","boring_xml_url":40,"boring_view_url":1,"soilmap_view_url":null,"soiltest_xml_url":0,"soiltest_view_url":0},{"id":219688,"code":"B4KJ201801010-7937","latitude":"32.6840689","longitude":"131.0438292","source_code":"QS49310013011","project_name":"","survey_name":"\u718a\u672c218\u53f7\u7adc\u5bae\u5927\u6a4b\u59161\u4ef6\u5730\u8cea\u8abf\u67fb\u696d\u52d9","client_name":"\u56fd\u571f\u4ea4\u901a\u7701\u4e5d\u5dde\u5730\u65b9\u6574\u5099\u5c40\u718a\u672c\u6cb3\u5ddd\u56fd\u9053\u4e8b\u52d9\u6240","boring_xml_url":40,"boring_view_url":1,"soilmap_view_url":null,"soiltest_xml_url":0,"soiltest_view_url":0},{"id":219687,"code":"B4KJ201801010-7936","latitude":"32.6853186","longitude":"131.0453289","source_code":"QS49310013010","project_name":"","survey_name":"\u718a\u672c218\u53f7\u7adc\u5bae\u5927\u6a4b\u59161\u4ef6\u5730\u8cea\u8abf\u67fb\u696d\u52d9","client_name":"\u56fd\u571f\u4ea4\u901a\u7701\u4e5d\u5dde\u5730\u65b9\u6574\u5099\u5c40\u718a\u672c\u6cb3\u5ddd\u56fd\u9053\u4e8b\u52d9\u6240","boring_xml_url":40,"boring_view_url":1,"soilmap_view_url":null,"soiltest_xml_url":0,"soiltest_view_url":0},{"id":219686,"code":"B4KJ201801010-7935","latitude":"32.6854575","longitude":"131.0452456","source_code":"QS49310013009","project_name":"","survey_name":"\u718a\u672c218\u53f7\u7adc\u5bae\u5927\u6a4b\u59161\u4ef6\u5730\u8cea\u8abf\u67fb\u696d\u52d9","client_name":"\u56fd\u571f\u4ea4\u901a\u7701\u4e5d\u5dde\u5730\u65b9\u6574\u5099\u5c40\u718a\u672c\u6cb3\u5ddd\u56fd\u9053\u4e8b\u52d9\u6240","boring_xml_url":40,"boring_view_url":1,"soilmap_view_url":null,"soiltest_xml_url":0,"soiltest_view_url":0}]}}