{"header":{"xyz":{"source":[],"mosaic":false},"page":3363,"raw":{"soiltest_result":"0","bbox":"57.598333,109.544722,1.933333,163.806111","page":"3363"},"conditions":{"soiltest_result":0,"north":57.598333,"west":109.544722,"south":1.933333,"east":163.806111},"success":true,"message":""},"data":{"meta":{"total":212844,"page":3363,"pages":7095,"count":30},"values":[{"id":219685,"code":"B4KJ201801010-7934","latitude":"32.6852908","longitude":"131.0450511","source_code":"QS49310013008","project_name":"","survey_name":"\u718a\u672c218\u53f7\u7adc\u5bae\u5927\u6a4b\u59161\u4ef6\u5730\u8cea\u8abf\u67fb\u696d\u52d9","client_name":"\u56fd\u571f\u4ea4\u901a\u7701\u4e5d\u5dde\u5730\u65b9\u6574\u5099\u5c40\u718a\u672c\u6cb3\u5ddd\u56fd\u9053\u4e8b\u52d9\u6240","boring_xml_url":40,"boring_view_url":1,"soilmap_view_url":null,"soiltest_xml_url":0,"soiltest_view_url":0},{"id":219684,"code":"B4KJ201801010-7933","latitude":"32.6852075","longitude":"131.0448847","source_code":"QS49310013007","project_name":"","survey_name":"\u718a\u672c218\u53f7\u7adc\u5bae\u5927\u6a4b\u59161\u4ef6\u5730\u8cea\u8abf\u67fb\u696d\u52d9","client_name":"\u56fd\u571f\u4ea4\u901a\u7701\u4e5d\u5dde\u5730\u65b9\u6574\u5099\u5c40\u718a\u672c\u6cb3\u5ddd\u56fd\u9053\u4e8b\u52d9\u6240","boring_xml_url":40,"boring_view_url":1,"soilmap_view_url":null,"soiltest_xml_url":0,"soiltest_view_url":0},{"id":219683,"code":"B4KJ201801010-7932","latitude":"32.6850686","longitude":"131.0446069","source_code":"QS49310013006","project_name":"","survey_name":"\u718a\u672c218\u53f7\u7adc\u5bae\u5927\u6a4b\u59161\u4ef6\u5730\u8cea\u8abf\u67fb\u696d\u52d9","client_name":"\u56fd\u571f\u4ea4\u901a\u7701\u4e5d\u5dde\u5730\u65b9\u6574\u5099\u5c40\u718a\u672c\u6cb3\u5ddd\u56fd\u9053\u4e8b\u52d9\u6240","boring_xml_url":40,"boring_view_url":1,"soilmap_view_url":null,"soiltest_xml_url":0,"soiltest_view_url":0},{"id":219682,"code":"B4KJ201801010-7931","latitude":"32.6850964","longitude":"131.0444958","source_code":"QS49310013005","project_name":"","survey_name":"\u718a\u672c218\u53f7\u7adc\u5bae\u5927\u6a4b\u59161\u4ef6\u5730\u8cea\u8abf\u67fb\u696d\u52d9","client_name":"\u56fd\u571f\u4ea4\u901a\u7701\u4e5d\u5dde\u5730\u65b9\u6574\u5099\u5c40\u718a\u672c\u6cb3\u5ddd\u56fd\u9053\u4e8b\u52d9\u6240","boring_xml_url":40,"boring_view_url":1,"soilmap_view_url":null,"soiltest_xml_url":0,"soiltest_view_url":0},{"id":219681,"code":"B4KJ201801010-7930","latitude":"32.6848467","longitude":"131.0443569","source_code":"QS49310013004","project_name":"","survey_name":"\u718a\u672c218\u53f7\u7adc\u5bae\u5927\u6a4b\u59161\u4ef6\u5730\u8cea\u8abf\u67fb\u696d\u52d9","client_name":"\u56fd\u571f\u4ea4\u901a\u7701\u4e5d\u5dde\u5730\u65b9\u6574\u5099\u5c40\u718a\u672c\u6cb3\u5ddd\u56fd\u9053\u4e8b\u52d9\u6240","boring_xml_url":40,"boring_view_url":1,"soilmap_view_url":null,"soiltest_xml_url":0,"soiltest_view_url":0},{"id":219680,"code":"B4KJ201801010-7929","latitude":"32.6849853","longitude":"131.0441903","source_code":"QS49310013003","project_name":"","survey_name":"\u718a\u672c218\u53f7\u7adc\u5bae\u5927\u6a4b\u59161\u4ef6\u5730\u8cea\u8abf\u67fb\u696d\u52d9","client_name":"\u56fd\u571f\u4ea4\u901a\u7701\u4e5d\u5dde\u5730\u65b9\u6574\u5099\u5c40\u718a\u672c\u6cb3\u5ddd\u56fd\u9053\u4e8b\u52d9\u6240","boring_xml_url":40,"boring_view_url":1,"soilmap_view_url":null,"soiltest_xml_url":0,"soiltest_view_url":0},{"id":219679,"code":"B4KJ201801010-7928","latitude":"32.6847078","longitude":"131.0440792","source_code":"QS49310013002","project_name":"","survey_name":"\u718a\u672c218\u53f7\u7adc\u5bae\u5927\u6a4b\u59161\u4ef6\u5730\u8cea\u8abf\u67fb\u696d\u52d9","client_name":"\u56fd\u571f\u4ea4\u901a\u7701\u4e5d\u5dde\u5730\u65b9\u6574\u5099\u5c40\u718a\u672c\u6cb3\u5ddd\u56fd\u9053\u4e8b\u52d9\u6240","boring_xml_url":40,"boring_view_url":1,"soilmap_view_url":null,"soiltest_xml_url":0,"soiltest_view_url":0},{"id":219678,"code":"B4KJ201801010-7927","latitude":"32.6844578","longitude":"131.0440236","source_code":"QS49310013001","project_name":"","survey_name":"\u718a\u672c218\u53f7\u7adc\u5bae\u5927\u6a4b\u59161\u4ef6\u5730\u8cea\u8abf\u67fb\u696d\u52d9","client_name":"\u56fd\u571f\u4ea4\u901a\u7701\u4e5d\u5dde\u5730\u65b9\u6574\u5099\u5c40\u718a\u672c\u6cb3\u5ddd\u56fd\u9053\u4e8b\u52d9\u6240","boring_xml_url":40,"boring_view_url":1,"soilmap_view_url":null,"soiltest_xml_url":0,"soiltest_view_url":0},{"id":219677,"code":"B4KJ201801010-7926","latitude":"33.3346042","longitude":"130.945765","source_code":"QS49307795007","project_name":"","survey_name":"\u65e5\u7530\u5730\u533a\u5730\u8cea\u8abf\u67fb\u696d\u52d9","client_name":"\u56fd\u571f\u4ea4\u901a\u7701\u4e5d\u5dde\u5730\u65b9\u6574\u5099\u5c40\u7b51\u5f8c\u5ddd\u6cb3\u5ddd\u4e8b\u52d9\u6240","boring_xml_url":40,"boring_view_url":1,"soilmap_view_url":null,"soiltest_xml_url":0,"soiltest_view_url":0},{"id":219676,"code":"B4KJ201801010-7925","latitude":"33.3323822","longitude":"130.9424042","source_code":"QS49307795006","project_name":"","survey_name":"\u65e5\u7530\u5730\u533a\u5730\u8cea\u8abf\u67fb\u696d\u52d9","client_name":"\u56fd\u571f\u4ea4\u901a\u7701\u4e5d\u5dde\u5730\u65b9\u6574\u5099\u5c40\u7b51\u5f8c\u5ddd\u6cb3\u5ddd\u4e8b\u52d9\u6240","boring_xml_url":40,"boring_view_url":1,"soilmap_view_url":null,"soiltest_xml_url":0,"soiltest_view_url":0},{"id":219675,"code":"B4KJ201801010-7924","latitude":"33.3297433","longitude":"130.9383214","source_code":"QS49307795005","project_name":"","survey_name":"\u5fa1\u5e78\u6a4b\u59162\u4ef6\u5730\u8cea\u8abf\u67fb\u696d\u52d9","client_name":"\u56fd\u571f\u4ea4\u901a\u7701\u4e5d\u5dde\u5730\u65b9\u6574\u5099\u5c40\u7b51\u5f8c\u5ddd\u6cb3\u5ddd\u4e8b\u52d9\u6240","boring_xml_url":40,"boring_view_url":1,"soilmap_view_url":null,"soiltest_xml_url":0,"soiltest_view_url":0},{"id":219674,"code":"B4KJ201801010-7923","latitude":"33.3295214","longitude":"130.9383214","source_code":"QS49307795004","project_name":"","survey_name":"\u5fa1\u5e78\u6a4b\u59162\u4ef6\u5730\u8cea\u8abf\u67fb\u696d\u52d9","client_name":"\u56fd\u571f\u4ea4\u901a\u7701\u4e5d\u5dde\u5730\u65b9\u6574\u5099\u5c40\u7b51\u5f8c\u5ddd\u6cb3\u5ddd\u4e8b\u52d9\u6240","boring_xml_url":40,"boring_view_url":1,"soilmap_view_url":null,"soiltest_xml_url":0,"soiltest_view_url":0},{"id":219673,"code":"B4KJ201801010-7922","latitude":"33.3291881","longitude":"130.9359328","source_code":"QS49307795003","project_name":"","survey_name":"\u5fa1\u5e78\u6a4b\u59162\u4ef6\u5730\u8cea\u8abf\u67fb\u696d\u52d9","client_name":"\u56fd\u571f\u4ea4\u901a\u7701\u4e5d\u5dde\u5730\u65b9\u6574\u5099\u5c40\u7b51\u5f8c\u5ddd\u6cb3\u5ddd\u4e8b\u52d9\u6240","boring_xml_url":40,"boring_view_url":1,"soilmap_view_url":null,"soiltest_xml_url":0,"soiltest_view_url":0},{"id":219672,"code":"B4KJ201801010-7921","latitude":"33.32941","longitude":"130.9359328","source_code":"QS49307795002","project_name":"","survey_name":"\u5fa1\u5e78\u6a4b\u59162\u4ef6\u5730\u8cea\u8abf\u67fb\u696d\u52d9","client_name":"\u56fd\u571f\u4ea4\u901a\u7701\u4e5d\u5dde\u5730\u65b9\u6574\u5099\u5c40\u7b51\u5f8c\u5ddd\u6cb3\u5ddd\u4e8b\u52d9\u6240","boring_xml_url":40,"boring_view_url":1,"soilmap_view_url":null,"soiltest_xml_url":0,"soiltest_view_url":0},{"id":219671,"code":"B4KJ201801010-7920","latitude":"33.3296322","longitude":"130.9359328","source_code":"QS49307795001","project_name":"","survey_name":"\u5fa1\u5e78\u6a4b\u59162\u4ef6\u5730\u8cea\u8abf\u67fb\u696d\u52d9","client_name":"\u56fd\u571f\u4ea4\u901a\u7701\u4e5d\u5dde\u5730\u65b9\u6574\u5099\u5c40\u7b51\u5f8c\u5ddd\u6cb3\u5ddd\u4e8b\u52d9\u6240","boring_xml_url":40,"boring_view_url":1,"soilmap_view_url":null,"soiltest_xml_url":0,"soiltest_view_url":0},{"id":219670,"code":"B4KJ201801010-7919","latitude":"33.3280767","longitude":"130.9288222","source_code":"QS49307784001","project_name":"","survey_name":"\u77f3\u4e95\u6a0b\u7ba1\u59162\u4ef6\u5730\u8cea\u8abf\u67fb\u696d\u52d9","client_name":"\u56fd\u571f\u4ea4\u901a\u7701\u4e5d\u5dde\u5730\u65b9\u6574\u5099\u5c40\u7b51\u5f8c\u5ddd\u6cb3\u5ddd\u4e8b\u52d9\u6240","boring_xml_url":40,"boring_view_url":1,"soilmap_view_url":null,"soiltest_xml_url":0,"soiltest_view_url":0},{"id":219669,"code":"B4KJ201801010-7918","latitude":"33.3267711","longitude":"130.9105461","source_code":"QS49307783012","project_name":"","survey_name":"\u65e5\u7530\u5730\u533a\u5730\u8cea\u8abf\u67fb\u696d\u52d9","client_name":"\u56fd\u571f\u4ea4\u901a\u7701\u4e5d\u5dde\u5730\u65b9\u6574\u5099\u5c40\u7b51\u5f8c\u5ddd\u6cb3\u5ddd\u4e8b\u52d9\u6240","boring_xml_url":40,"boring_view_url":1,"soilmap_view_url":null,"soiltest_xml_url":0,"soiltest_view_url":0},{"id":219668,"code":"B4KJ201801010-7917","latitude":"33.32691","longitude":"130.9142958","source_code":"QS49307783009","project_name":"","survey_name":"\u5fb3\u702c\u6a4b\u59161\u4ef6\u5730\u8cea\u8abf\u67fb\u696d\u52d9","client_name":"\u56fd\u571f\u4ea4\u901a\u7701\u4e5d\u5dde\u5730\u65b9\u6574\u5099\u5c40\u7b51\u5f8c\u5ddd\u6cb3\u5ddd\u4e8b\u52d9\u6240","boring_xml_url":40,"boring_view_url":1,"soilmap_view_url":null,"soiltest_xml_url":0,"soiltest_view_url":0},{"id":219667,"code":"B4KJ201801010-7916","latitude":"33.321355","longitude":"130.9142958","source_code":"QS49307783008","project_name":"","survey_name":"\u5fb3\u702c\u6a4b\u59161\u4ef6\u5730\u8cea\u8abf\u67fb\u696d\u52d9","client_name":"\u56fd\u571f\u4ea4\u901a\u7701\u4e5d\u5dde\u5730\u65b9\u6574\u5099\u5c40\u7b51\u5f8c\u5ddd\u6cb3\u5ddd\u4e8b\u52d9\u6240","boring_xml_url":40,"boring_view_url":1,"soilmap_view_url":null,"soiltest_xml_url":0,"soiltest_view_url":0},{"id":219666,"code":"B4KJ201801010-7915","latitude":"33.3221883","longitude":"130.9126294","source_code":"QS49307783007","project_name":"","survey_name":"\u5fb3\u702c\u6a4b\u59161\u4ef6\u5730\u8cea\u8abf\u67fb\u696d\u52d9","client_name":"\u56fd\u571f\u4ea4\u901a\u7701\u4e5d\u5dde\u5730\u65b9\u6574\u5099\u5c40\u7b51\u5f8c\u5ddd\u6cb3\u5ddd\u4e8b\u52d9\u6240","boring_xml_url":40,"boring_view_url":1,"soilmap_view_url":null,"soiltest_xml_url":0,"soiltest_view_url":0},{"id":219665,"code":"B4KJ201801010-7914","latitude":"33.3270211","longitude":"130.9145458","source_code":"QS49307783006","project_name":"","survey_name":"\u5742\u672c\u6a4b\u59161\u4ef6\u5730\u8cea\u8abf\u67fb\u696d\u52d9","client_name":"\u56fd\u571f\u4ea4\u901a\u7701\u4e5d\u5dde\u5730\u65b9\u6574\u5099\u5c40\u7b51\u5f8c\u5ddd\u6cb3\u5ddd\u4e8b\u52d9\u6240","boring_xml_url":40,"boring_view_url":1,"soilmap_view_url":null,"soiltest_xml_url":0,"soiltest_view_url":0},{"id":219664,"code":"B4KJ201801010-7913","latitude":"33.3267711","longitude":"130.9108517","source_code":"QS49307783005","project_name":"","survey_name":"\u5742\u672c\u6a4b\u59161\u4ef6\u5730\u8cea\u8abf\u67fb\u696d\u52d9","client_name":"\u56fd\u571f\u4ea4\u901a\u7701\u4e5d\u5dde\u5730\u65b9\u6574\u5099\u5c40\u7b51\u5f8c\u5ddd\u6cb3\u5ddd\u4e8b\u52d9\u6240","boring_xml_url":40,"boring_view_url":1,"soilmap_view_url":null,"soiltest_xml_url":0,"soiltest_view_url":0},{"id":219663,"code":"B4KJ201801010-7912","latitude":"33.32666","longitude":"130.9141292","source_code":"QS49307783004","project_name":"","survey_name":"\u5742\u672c\u6a4b\u59161\u4ef6\u5730\u8cea\u8abf\u67fb\u696d\u52d9","client_name":"\u56fd\u571f\u4ea4\u901a\u7701\u4e5d\u5dde\u5730\u65b9\u6574\u5099\u5c40\u7b51\u5f8c\u5ddd\u6cb3\u5ddd\u4e8b\u52d9\u6240","boring_xml_url":40,"boring_view_url":1,"soilmap_view_url":null,"soiltest_xml_url":0,"soiltest_view_url":0},{"id":219662,"code":"B4KJ201801010-7911","latitude":"33.32691","longitude":"130.9145458","source_code":"QS49307783003","project_name":"","survey_name":"\u5742\u672c\u6a4b\u59161\u4ef6\u5730\u8cea\u8abf\u67fb\u696d\u52d9","client_name":"\u56fd\u571f\u4ea4\u901a\u7701\u4e5d\u5dde\u5730\u65b9\u6574\u5099\u5c40\u7b51\u5f8c\u5ddd\u6cb3\u5ddd\u4e8b\u52d9\u6240","boring_xml_url":40,"boring_view_url":1,"soilmap_view_url":null,"soiltest_xml_url":0,"soiltest_view_url":0},{"id":219661,"code":"B4KJ201801010-7910","latitude":"33.3274933","longitude":"130.9145458","source_code":"QS49307783002","project_name":"","survey_name":"\u5742\u672c\u6a4b\u59161\u4ef6\u5730\u8cea\u8abf\u67fb\u696d\u52d9","client_name":"\u56fd\u571f\u4ea4\u901a\u7701\u4e5d\u5dde\u5730\u65b9\u6574\u5099\u5c40\u7b51\u5f8c\u5ddd\u6cb3\u5ddd\u4e8b\u52d9\u6240","boring_xml_url":40,"boring_view_url":1,"soilmap_view_url":null,"soiltest_xml_url":0,"soiltest_view_url":0},{"id":219660,"code":"B4KJ201801010-7909","latitude":"33.3267156","longitude":"130.9159067","source_code":"QS49307783001","project_name":"","survey_name":"\u77f3\u4e95\u6a0b\u7ba1\u59162\u4ef6\u5730\u8cea\u8abf\u67fb\u696d\u52d9","client_name":"\u56fd\u571f\u4ea4\u901a\u7701\u4e5d\u5dde\u5730\u65b9\u6574\u5099\u5c40\u7b51\u5f8c\u5ddd\u6cb3\u5ddd\u4e8b\u52d9\u6240","boring_xml_url":40,"boring_view_url":1,"soilmap_view_url":null,"soiltest_xml_url":0,"soiltest_view_url":0},{"id":219659,"code":"B4KJ201801010-7908","latitude":"33.3128564","longitude":"130.9266283","source_code":"QS49307774002","project_name":"","survey_name":"\u65e5\u7530\u5730\u533a\u5730\u8cea\u8abf\u67fb\u696d\u52d9","client_name":"\u56fd\u571f\u4ea4\u901a\u7701\u4e5d\u5dde\u5730\u65b9\u6574\u5099\u5c40\u7b51\u5f8c\u5ddd\u6cb3\u5ddd\u4e8b\u52d9\u6240","boring_xml_url":40,"boring_view_url":1,"soilmap_view_url":null,"soiltest_xml_url":0,"soiltest_view_url":0},{"id":219658,"code":"B4KJ201801010-7907","latitude":"33.3127453","longitude":"130.9269894","source_code":"QS49307774001","project_name":"","survey_name":"\u65e5\u7530\u5730\u533a\u5730\u8cea\u8abf\u67fb\u696d\u52d9","client_name":"\u56fd\u571f\u4ea4\u901a\u7701\u4e5d\u5dde\u5730\u65b9\u6574\u5099\u5c40\u7b51\u5f8c\u5ddd\u6cb3\u5ddd\u4e8b\u52d9\u6240","boring_xml_url":40,"boring_view_url":1,"soilmap_view_url":null,"soiltest_xml_url":0,"soiltest_view_url":0},{"id":219657,"code":"B4KJ201801010-7906","latitude":"33.3121894","longitude":"130.9124075","source_code":"QS49307773006","project_name":"","survey_name":"\u4e00\u822c\u56fd\u9053210\u53f7\u65e5\u7530\u30d0\u30a4\u30d1\u30b9\u5730\u8cea\u8abf\u67fb(\u305d\u306e1)\u696d\u52d9","client_name":"\u56fd\u571f\u4ea4\u901a\u7701\u4e5d\u5dde\u5730\u65b9\u6574\u5099\u5c40\u5927\u5206\u6cb3\u5ddd\u56fd\u9053\u4e8b\u52d9\u6240","boring_xml_url":40,"boring_view_url":1,"soilmap_view_url":null,"soiltest_xml_url":0,"soiltest_view_url":0},{"id":219656,"code":"B4KJ201801010-7905","latitude":"33.3123006","longitude":"130.9121575","source_code":"QS49307773005","project_name":"","survey_name":"\u4e00\u822c\u56fd\u9053210\u53f7\u65e5\u7530\u30d0\u30a4\u30d1\u30b9\u5730\u8cea\u8abf\u67fb(\u305d\u306e1)\u696d\u52d9","client_name":"\u56fd\u571f\u4ea4\u901a\u7701\u4e5d\u5dde\u5730\u65b9\u6574\u5099\u5c40\u5927\u5206\u6cb3\u5ddd\u56fd\u9053\u4e8b\u52d9\u6240","boring_xml_url":40,"boring_view_url":1,"soilmap_view_url":null,"soiltest_xml_url":0,"soiltest_view_url":0}]}}