{"header":{"xyz":{"source":[],"mosaic":false},"page":3367,"raw":{"soiltest_result":"0","bbox":"57.598333,109.544722,1.933333,163.806111","page":"3367"},"conditions":{"soiltest_result":0,"north":57.598333,"west":109.544722,"south":1.933333,"east":163.806111},"success":true,"message":""},"data":{"meta":{"total":212844,"page":3367,"pages":7095,"count":30},"values":[{"id":219565,"code":"B4KJ201801010-7814","latitude":"33.3288744","longitude":"130.5103044","source_code":"QS49307491002","project_name":"","survey_name":"\u7be0\u5c71\u6392\u6c34\u65bd\u8a2d\u6539\u7bc9\u53d7\u8a17\u5408\u4f75\u5de5\u4e8b\u5730\u8cea\u8abf\u67fb","client_name":"\u56fd\u571f\u4ea4\u901a\u7701\u4e5d\u5dde\u5730\u65b9\u6574\u5099\u5c40\u7b51\u5f8c\u5ddd\u6cb3\u5ddd\u4e8b\u52d9\u6240","boring_xml_url":40,"boring_view_url":1,"soilmap_view_url":null,"soiltest_xml_url":0,"soiltest_view_url":0},{"id":219564,"code":"B4KJ201801010-7813","latitude":"33.3288744","longitude":"130.5103044","source_code":"QS49307491001","project_name":"","survey_name":"\u7be0\u5c71\u6392\u6c34\u65bd\u8a2d\u6539\u7bc9\u53d7\u8a17\u5408\u4f75\u5de5\u4e8b\u5730\u8cea\u8abf\u67fb","client_name":"\u56fd\u571f\u4ea4\u901a\u7701\u4e5d\u5dde\u5730\u65b9\u6574\u5099\u5c40\u7b51\u5f8c\u5ddd\u6cb3\u5ddd\u4e8b\u52d9\u6240","boring_xml_url":40,"boring_view_url":1,"soilmap_view_url":null,"soiltest_xml_url":0,"soiltest_view_url":0},{"id":219563,"code":"B4KJ201801010-7812","latitude":"33.3288744","longitude":"130.5099989","source_code":"QS49307490006","project_name":"","survey_name":"\u7be0\u5c71\u6392\u6c34\u65bd\u8a2d\u6539\u7bc9\u53d7\u8a17\u5408\u4f75\u5de5\u4e8b\u5730\u8cea\u8abf\u67fb","client_name":"\u56fd\u571f\u4ea4\u901a\u7701\u4e5d\u5dde\u5730\u65b9\u6574\u5099\u5c40\u7b51\u5f8c\u5ddd\u6cb3\u5ddd\u4e8b\u52d9\u6240","boring_xml_url":40,"boring_view_url":1,"soilmap_view_url":null,"soiltest_xml_url":0,"soiltest_view_url":0},{"id":219562,"code":"B4KJ201801010-7811","latitude":"33.3288744","longitude":"130.5099989","source_code":"QS49307490005","project_name":"","survey_name":"\u7be0\u5c71\u6392\u6c34\u65bd\u8a2d\u6539\u7bc9\u53d7\u8a17\u5408\u4f75\u5de5\u4e8b\u5730\u8cea\u8abf\u67fb","client_name":"\u56fd\u571f\u4ea4\u901a\u7701\u4e5d\u5dde\u5730\u65b9\u6574\u5099\u5c40\u7b51\u5f8c\u5ddd\u6cb3\u5ddd\u4e8b\u52d9\u6240","boring_xml_url":40,"boring_view_url":1,"soilmap_view_url":null,"soiltest_xml_url":0,"soiltest_view_url":0},{"id":219561,"code":"B4KJ201801010-7810","latitude":"33.3288744","longitude":"130.5099989","source_code":"QS49307490004","project_name":"","survey_name":"\u7be0\u5c71\u6392\u6c34\u65bd\u8a2d\u6539\u7bc9\u53d7\u8a17\u5408\u4f75\u5de5\u4e8b\u5730\u8cea\u8abf\u67fb","client_name":"\u56fd\u571f\u4ea4\u901a\u7701\u4e5d\u5dde\u5730\u65b9\u6574\u5099\u5c40\u7b51\u5f8c\u5ddd\u6cb3\u5ddd\u4e8b\u52d9\u6240","boring_xml_url":40,"boring_view_url":1,"soilmap_view_url":null,"soiltest_xml_url":0,"soiltest_view_url":0},{"id":219560,"code":"B4KJ201801010-7809","latitude":"33.3297631","longitude":"130.5091378","source_code":"QS49307490003","project_name":"","survey_name":"\u6842\u5ddd\u6c34\u9580\u59161\u30b1\u6240\u5730\u8cea\u8abf\u67fb\u696d\u52d9","client_name":"\u56fd\u571f\u4ea4\u901a\u7701\u4e5d\u5dde\u5730\u65b9\u6574\u5099\u5c40\u7b51\u5f8c\u5ddd\u6cb3\u5ddd\u4e8b\u52d9\u6240","boring_xml_url":40,"boring_view_url":1,"soilmap_view_url":null,"soiltest_xml_url":0,"soiltest_view_url":0},{"id":219559,"code":"B4KJ201801010-7808","latitude":"33.3300131","longitude":"130.50886","source_code":"QS49307490002","project_name":"","survey_name":"\u6842\u5ddd\u6c34\u9580\u59161\u30b1\u6240\u5730\u8cea\u8abf\u67fb\u696d\u52d9","client_name":"\u56fd\u571f\u4ea4\u901a\u7701\u4e5d\u5dde\u5730\u65b9\u6574\u5099\u5c40\u7b51\u5f8c\u5ddd\u6cb3\u5ddd\u4e8b\u52d9\u6240","boring_xml_url":40,"boring_view_url":1,"soilmap_view_url":null,"soiltest_xml_url":0,"soiltest_view_url":0},{"id":219558,"code":"B4KJ201801010-7807","latitude":"33.3222922","longitude":"130.5409961","source_code":"QS49307483007","project_name":"","survey_name":"\u5408\u5ddd\u5730\u533a\u5730\u8cea\u8abf\u67fb\u696d\u52d9","client_name":"\u56fd\u571f\u4ea4\u901a\u7701\u4e5d\u5dde\u5730\u65b9\u6574\u5099\u5c40\u7b51\u5f8c\u5ddd\u6cb3\u5ddd\u4e8b\u52d9\u6240","boring_xml_url":40,"boring_view_url":1,"soilmap_view_url":null,"soiltest_xml_url":0,"soiltest_view_url":0},{"id":219557,"code":"B4KJ201801010-7806","latitude":"33.3229311","longitude":"130.5409683","source_code":"QS49307483006","project_name":"","survey_name":"\u5408\u5ddd\u5730\u533a\u5730\u8cea\u8abf\u67fb\u696d\u52d9","client_name":"\u56fd\u571f\u4ea4\u901a\u7701\u4e5d\u5dde\u5730\u65b9\u6574\u5099\u5c40\u7b51\u5f8c\u5ddd\u6cb3\u5ddd\u4e8b\u52d9\u6240","boring_xml_url":40,"boring_view_url":1,"soilmap_view_url":null,"soiltest_xml_url":0,"soiltest_view_url":0},{"id":219556,"code":"B4KJ201801010-7805","latitude":"33.32232","longitude":"130.5357744","source_code":"QS49307483005","project_name":"","survey_name":"\u5408\u5ddd\u5730\u533a\u5730\u8cea\u8abf\u67fb\u696d\u52d9","client_name":"\u56fd\u571f\u4ea4\u901a\u7701\u4e5d\u5dde\u5730\u65b9\u6574\u5099\u5c40\u7b51\u5f8c\u5ddd\u6cb3\u5ddd\u4e8b\u52d9\u6240","boring_xml_url":40,"boring_view_url":1,"soilmap_view_url":null,"soiltest_xml_url":0,"soiltest_view_url":0},{"id":219555,"code":"B4KJ201801010-7804","latitude":"33.3204314","longitude":"130.5364411","source_code":"QS49307483001","project_name":"","survey_name":"\u9ad8\u826f\u5ddd\u6d44\u5316\u65bd\u8a2d\u8a66\u9310\u8abf\u67fb\u696d\u52d9","client_name":"\u56fd\u571f\u4ea4\u901a\u7701\u4e5d\u5dde\u5730\u65b9\u6574\u5099\u5c40\u7b51\u5f8c\u5ddd\u6cb3\u5ddd\u4e8b\u52d9\u6240","boring_xml_url":40,"boring_view_url":1,"soilmap_view_url":null,"soiltest_xml_url":0,"soiltest_view_url":0},{"id":219554,"code":"B4KJ201801010-7803","latitude":"33.326069","longitude":"130.527942","source_code":"QS49307482011","project_name":"","survey_name":"\u5c0f\u5c4b\u5834\u6a4b\u59163\u4ef6\u5730\u8cea\u8abf\u67fb\u696d\u52d9","client_name":"\u56fd\u571f\u4ea4\u901a\u7701\u4e5d\u5dde\u5730\u65b9\u6574\u5099\u5c40\u7b51\u5f8c\u5ddd\u6cb3\u5ddd\u4e8b\u52d9\u6240","boring_xml_url":40,"boring_view_url":1,"soilmap_view_url":null,"soiltest_xml_url":0,"soiltest_view_url":0},{"id":219553,"code":"B4KJ201801010-7802","latitude":"33.325792","longitude":"130.527942","source_code":"QS49307482010","project_name":"","survey_name":"\u5c0f\u5c4b\u5834\u6a4b\u59163\u4ef6\u5730\u8cea\u8abf\u67fb\u696d\u52d9","client_name":"\u56fd\u571f\u4ea4\u901a\u7701\u4e5d\u5dde\u5730\u65b9\u6574\u5099\u5c40\u7b51\u5f8c\u5ddd\u6cb3\u5ddd\u4e8b\u52d9\u6240","boring_xml_url":40,"boring_view_url":1,"soilmap_view_url":null,"soiltest_xml_url":0,"soiltest_view_url":0},{"id":219552,"code":"B4KJ201801010-7801","latitude":"33.3272639","longitude":"130.5312192","source_code":"QS49307482009","project_name":"","survey_name":"\u5bae\u30ce\u9663\u6a4b\u5730\u8cea\u8abf\u67fb\u696d\u52d9","client_name":"\u56fd\u571f\u4ea4\u901a\u7701\u4e5d\u5dde\u5730\u65b9\u6574\u5099\u5c40\u7b51\u5f8c\u5ddd\u6cb3\u5ddd\u4e8b\u52d9\u6240","boring_xml_url":40,"boring_view_url":1,"soilmap_view_url":null,"soiltest_xml_url":0,"soiltest_view_url":0},{"id":219551,"code":"B4KJ201801010-7800","latitude":"33.3269028","longitude":"130.5309414","source_code":"QS49307482008","project_name":"","survey_name":"\u5bae\u30ce\u9663\u6a4b\u5730\u8cea\u8abf\u67fb\u696d\u52d9","client_name":"\u56fd\u571f\u4ea4\u901a\u7701\u4e5d\u5dde\u5730\u65b9\u6574\u5099\u5c40\u7b51\u5f8c\u5ddd\u6cb3\u5ddd\u4e8b\u52d9\u6240","boring_xml_url":40,"boring_view_url":1,"soilmap_view_url":null,"soiltest_xml_url":0,"soiltest_view_url":0},{"id":219550,"code":"B4KJ201801010-7799","latitude":"33.326181","longitude":"130.530386","source_code":"QS49307482007","project_name":"","survey_name":"\u5bae\u30ce\u9663\u6a4b\u5730\u8cea\u8abf\u67fb\u696d\u52d9","client_name":"\u56fd\u571f\u4ea4\u901a\u7701\u4e5d\u5dde\u5730\u65b9\u6574\u5099\u5c40\u7b51\u5f8c\u5ddd\u6cb3\u5ddd\u4e8b\u52d9\u6240","boring_xml_url":40,"boring_view_url":1,"soilmap_view_url":null,"soiltest_xml_url":0,"soiltest_view_url":0},{"id":219549,"code":"B4KJ201801010-7798","latitude":"33.325819","longitude":"130.530025","source_code":"QS49307482006","project_name":"","survey_name":"\u5bae\u30ce\u9663\u6a4b\u5730\u8cea\u8abf\u67fb\u696d\u52d9","client_name":"\u56fd\u571f\u4ea4\u901a\u7701\u4e5d\u5dde\u5730\u65b9\u6574\u5099\u5c40\u7b51\u5f8c\u5ddd\u6cb3\u5ddd\u4e8b\u52d9\u6240","boring_xml_url":40,"boring_view_url":1,"soilmap_view_url":null,"soiltest_xml_url":0,"soiltest_view_url":0},{"id":219548,"code":"B4KJ201801010-7797","latitude":"33.325292","longitude":"130.529664","source_code":"QS49307482005","project_name":"","survey_name":"\u5bae\u30ce\u9663\u6a4b\u5730\u8cea\u8abf\u67fb\u696d\u52d9","client_name":"\u56fd\u571f\u4ea4\u901a\u7701\u4e5d\u5dde\u5730\u65b9\u6574\u5099\u5c40\u7b51\u5f8c\u5ddd\u6cb3\u5ddd\u4e8b\u52d9\u6240","boring_xml_url":40,"boring_view_url":1,"soilmap_view_url":null,"soiltest_xml_url":0,"soiltest_view_url":0},{"id":219547,"code":"B4KJ201801010-7796","latitude":"33.325042","longitude":"130.529442","source_code":"QS49307482004","project_name":"","survey_name":"\u5bae\u30ce\u9663\u6a4b\u5730\u8cea\u8abf\u67fb\u696d\u52d9","client_name":"\u56fd\u571f\u4ea4\u901a\u7701\u4e5d\u5dde\u5730\u65b9\u6574\u5099\u5c40\u7b51\u5f8c\u5ddd\u6cb3\u5ddd\u4e8b\u52d9\u6240","boring_xml_url":40,"boring_view_url":1,"soilmap_view_url":null,"soiltest_xml_url":0,"soiltest_view_url":0},{"id":219546,"code":"B4KJ201801010-7795","latitude":"33.3244864","longitude":"130.5294139","source_code":"QS49307482003","project_name":"","survey_name":"\u5bae\u30ce\u9663\u6a4b\u5730\u8cea\u8abf\u67fb\u696d\u52d9","client_name":"\u56fd\u571f\u4ea4\u901a\u7701\u4e5d\u5dde\u5730\u65b9\u6574\u5099\u5c40\u7b51\u5f8c\u5ddd\u6cb3\u5ddd\u4e8b\u52d9\u6240","boring_xml_url":40,"boring_view_url":1,"soilmap_view_url":null,"soiltest_xml_url":0,"soiltest_view_url":0},{"id":219545,"code":"B4KJ201801010-7794","latitude":"33.3270692","longitude":"130.5242197","source_code":"QS49307482002","project_name":"","survey_name":"\u4e00\u822c\u56fd\u90533\u53f7\u4e45\u7559\u7c73\u5927\u6a4b\u5730\u8cea\u8abf\u67fb\u696d\u52d9","client_name":"\u56fd\u571f\u4ea4\u901a\u7701\u4e5d\u5dde\u5730\u65b9\u6574\u5099\u5c40\u798f\u5ca1\u56fd\u9053\u4e8b\u52d9\u6240","boring_xml_url":40,"boring_view_url":1,"soilmap_view_url":null,"soiltest_xml_url":0,"soiltest_view_url":0},{"id":219544,"code":"B4KJ201801010-7793","latitude":"33.3278192","longitude":"130.5245808","source_code":"QS49307482001","project_name":"","survey_name":"\u4e00\u822c\u56fd\u90533\u53f7\u4e45\u7559\u7c73\u5927\u6a4b\u5730\u8cea\u8abf\u67fb\u696d\u52d9","client_name":"\u56fd\u571f\u4ea4\u901a\u7701\u4e5d\u5dde\u5730\u65b9\u6574\u5099\u5c40\u798f\u5ca1\u56fd\u9053\u4e8b\u52d9\u6240","boring_xml_url":40,"boring_view_url":1,"soilmap_view_url":null,"soiltest_xml_url":0,"soiltest_view_url":0},{"id":219543,"code":"B4KJ201801010-7792","latitude":"33.3175706","longitude":"130.5367744","source_code":"QS49307473003","project_name":"","survey_name":"\u5408\u5ddd\u5730\u533a\u5730\u8cea\u8abf\u67fb\u696d\u52d9","client_name":"\u56fd\u571f\u4ea4\u901a\u7701\u4e5d\u5dde\u5730\u65b9\u6574\u5099\u5c40\u7b51\u5f8c\u5ddd\u6cb3\u5ddd\u4e8b\u52d9\u6240","boring_xml_url":40,"boring_view_url":1,"soilmap_view_url":null,"soiltest_xml_url":0,"soiltest_view_url":0},{"id":219542,"code":"B4KJ201801010-7791","latitude":"33.3180428","longitude":"130.5375244","source_code":"QS49307473002","project_name":"","survey_name":"\u679d\u5149\u6a4b\u5730\u8cea\u8abf\u67fb\u696d\u52d9","client_name":"\u56fd\u571f\u4ea4\u901a\u7701\u4e5d\u5dde\u5730\u65b9\u6574\u5099\u5c40\u7b51\u5f8c\u5ddd\u6cb3\u5ddd\u4e8b\u52d9\u6240","boring_xml_url":40,"boring_view_url":1,"soilmap_view_url":null,"soiltest_xml_url":0,"soiltest_view_url":0},{"id":219541,"code":"B4KJ201801010-7790","latitude":"33.3180428","longitude":"130.5369967","source_code":"QS49307473001","project_name":"","survey_name":"\u679d\u5149\u6a4b\u5730\u8cea\u8abf\u67fb\u696d\u52d9","client_name":"\u56fd\u571f\u4ea4\u901a\u7701\u4e5d\u5dde\u5730\u65b9\u6574\u5099\u5c40\u7b51\u5f8c\u5ddd\u6cb3\u5ddd\u4e8b\u52d9\u6240","boring_xml_url":40,"boring_view_url":1,"soilmap_view_url":null,"soiltest_xml_url":0,"soiltest_view_url":0},{"id":219540,"code":"B4KJ201801010-7789","latitude":"33.3053769","longitude":"130.5104161","source_code":"QS49307461001","project_name":"","survey_name":"\u7b51\u7d2b\u91ce\u30d0\u30a4\u30d1\u30b9\u59161\u4ef6\u5730\u8cea\u8abf\u67fb\u696d\u52d9 \u798f\u5ca13\u53f7\u7b51\u7d2b\u91ce\u30d0\u30a4\u30d1\u30b9\u6539\u7bc9","client_name":"\u56fd\u571f\u4ea4\u901a\u7701\u4e5d\u5dde\u5730\u65b9\u6574\u5099\u5c40\u798f\u5ca1\u56fd\u9053\u4e8b\u52d9\u6240","boring_xml_url":40,"boring_view_url":1,"soilmap_view_url":null,"soiltest_xml_url":0,"soiltest_view_url":0},{"id":219539,"code":"B4KJ201801010-7788","latitude":"33.3062103","longitude":"130.5096383","source_code":"QS49307460001","project_name":"","survey_name":"\u4e00\u822c\u56fd\u9053209\u53f7\u6d25\u798f\u30d0\u30a4\u30d1\u30b9\u5730\u8cea\u8abf\u67fb\u696d\u52d9","client_name":"\u56fd\u571f\u4ea4\u901a\u7701\u4e5d\u5dde\u5730\u65b9\u6574\u5099\u5c40\u798f\u5ca1\u56fd\u9053\u4e8b\u52d9\u6240","boring_xml_url":40,"boring_view_url":1,"soilmap_view_url":null,"soiltest_xml_url":0,"soiltest_view_url":0},{"id":219538,"code":"B4KJ201801010-7787","latitude":"33.3031272","longitude":"130.5096661","source_code":"QS49307450009","project_name":"","survey_name":"\u4e00\u822c\u56fd\u9053209\u53f7\u6d25\u798f\u30d0\u30a4\u30d1\u30b9\u5730\u8cea\u8abf\u67fb\u696d\u52d9","client_name":"\u56fd\u571f\u4ea4\u901a\u7701\u4e5d\u5dde\u5730\u65b9\u6574\u5099\u5c40\u798f\u5ca1\u56fd\u9053\u4e8b\u52d9\u6240","boring_xml_url":40,"boring_view_url":1,"soilmap_view_url":null,"soiltest_xml_url":0,"soiltest_view_url":0},{"id":219537,"code":"B4KJ201801010-7786","latitude":"33.3020164","longitude":"130.5091942","source_code":"QS49307450008","project_name":"","survey_name":"\u4e00\u822c\u56fd\u9053209\u53f7\u6d25\u798f\u30d0\u30a4\u30d1\u30b9\u5730\u8cea\u8abf\u67fb\u696d\u52d9","client_name":"\u56fd\u571f\u4ea4\u901a\u7701\u4e5d\u5dde\u5730\u65b9\u6574\u5099\u5c40\u798f\u5ca1\u56fd\u9053\u4e8b\u52d9\u6240","boring_xml_url":40,"boring_view_url":1,"soilmap_view_url":null,"soiltest_xml_url":0,"soiltest_view_url":0},{"id":219536,"code":"B4KJ201801010-7785","latitude":"33.2952392","longitude":"130.5088611","source_code":"QS49307450007","project_name":"","survey_name":"\u4e00\u822c\u56fd\u9053209\u53f7\u6d25\u798f\u30d0\u30a4\u30d1\u30b9\u5730\u8cea\u8abf\u67fb\u696d\u52d9","client_name":"\u56fd\u571f\u4ea4\u901a\u7701\u4e5d\u5dde\u5730\u65b9\u6574\u5099\u5c40\u798f\u5ca1\u56fd\u9053\u4e8b\u52d9\u6240","boring_xml_url":40,"boring_view_url":1,"soilmap_view_url":null,"soiltest_xml_url":0,"soiltest_view_url":0}]}}