{"header":{"xyz":{"source":[],"mosaic":false},"page":3382,"raw":{"soiltest_result":"0","bbox":"57.598333,109.544722,1.933333,163.806111","page":"3382"},"conditions":{"soiltest_result":0,"north":57.598333,"west":109.544722,"south":1.933333,"east":163.806111},"success":true,"message":""},"data":{"meta":{"total":212844,"page":3382,"pages":7095,"count":30},"values":[{"id":219115,"code":"B4KJ201801010-7364","latitude":"33.3110906","longitude":"130.0763164","source_code":"QS49307066010","project_name":"","survey_name":"\u53b3\u6728\u30fb\u6771\u591a\u4e45\u30d0\u30a4\u30d1\u30b9\u5730\u8cea\u8abf\u67fb\u696d\u52d9","client_name":"\u56fd\u571f\u4ea4\u901a\u7701\u4e5d\u5dde\u5730\u65b9\u6574\u5099\u5c40\u4f50\u8cc0\u56fd\u9053\u4e8b\u52d9\u6240","boring_xml_url":40,"boring_view_url":1,"soilmap_view_url":null,"soiltest_xml_url":0,"soiltest_view_url":0},{"id":219114,"code":"B4KJ201801010-7363","latitude":"33.3104794","longitude":"130.0755664","source_code":"QS49307066009","project_name":"","survey_name":"\u53b3\u6728\u30fb\u6771\u591a\u4e45\u30d0\u30a4\u30d1\u30b9\u5730\u8cea\u8abf\u67fb\u696d\u52d9","client_name":"\u56fd\u571f\u4ea4\u901a\u7701\u4e5d\u5dde\u5730\u65b9\u6574\u5099\u5c40\u4f50\u8cc0\u56fd\u9053\u4e8b\u52d9\u6240","boring_xml_url":40,"boring_view_url":1,"soilmap_view_url":null,"soiltest_xml_url":0,"soiltest_view_url":0},{"id":219113,"code":"B4KJ201801010-7362","latitude":"33.3115906","longitude":"130.0754553","source_code":"QS49307066008","project_name":"","survey_name":"\u53b3\u6728\u30fb\u6771\u591a\u4e45\u30d0\u30a4\u30d1\u30b9\u5730\u8cea\u8abf\u67fb\u696d\u52d9","client_name":"\u56fd\u571f\u4ea4\u901a\u7701\u4e5d\u5dde\u5730\u65b9\u6574\u5099\u5c40\u4f50\u8cc0\u56fd\u9053\u4e8b\u52d9\u6240","boring_xml_url":40,"boring_view_url":1,"soilmap_view_url":null,"soiltest_xml_url":0,"soiltest_view_url":0},{"id":219112,"code":"B4KJ201801010-7361","latitude":"33.3115628","longitude":"130.0744831","source_code":"QS49307066007","project_name":"","survey_name":"\u53b3\u6728\u30fb\u6771\u591a\u4e45\u30d0\u30a4\u30d1\u30b9\u5730\u8cea\u8abf\u67fb\u696d\u52d9","client_name":"\u56fd\u571f\u4ea4\u901a\u7701\u4e5d\u5dde\u5730\u65b9\u6574\u5099\u5c40\u4f50\u8cc0\u56fd\u9053\u4e8b\u52d9\u6240","boring_xml_url":40,"boring_view_url":1,"soilmap_view_url":null,"soiltest_xml_url":0,"soiltest_view_url":0},{"id":219111,"code":"B4KJ201801010-7360","latitude":"33.3106461","longitude":"130.0751219","source_code":"QS49307066006","project_name":"","survey_name":"\u53b3\u6728\u30fb\u6771\u591a\u4e45\u30d0\u30a4\u30d1\u30b9\u5730\u8cea\u8abf\u67fb\u696d\u52d9","client_name":"\u56fd\u571f\u4ea4\u901a\u7701\u4e5d\u5dde\u5730\u65b9\u6574\u5099\u5c40\u4f50\u8cc0\u56fd\u9053\u4e8b\u52d9\u6240","boring_xml_url":40,"boring_view_url":1,"soilmap_view_url":null,"soiltest_xml_url":0,"soiltest_view_url":0},{"id":219110,"code":"B4KJ201801010-7359","latitude":"33.3105072","longitude":"130.07315","source_code":"QS49307066005","project_name":"","survey_name":"\u53b3\u6728\u30fb\u6771\u591a\u4e45\u30d0\u30a4\u30d1\u30b9\u5730\u8cea\u8abf\u67fb\u696d\u52d9","client_name":"\u56fd\u571f\u4ea4\u901a\u7701\u4e5d\u5dde\u5730\u65b9\u6574\u5099\u5c40\u4f50\u8cc0\u56fd\u9053\u4e8b\u52d9\u6240","boring_xml_url":40,"boring_view_url":1,"soilmap_view_url":null,"soiltest_xml_url":0,"soiltest_view_url":0},{"id":219109,"code":"B4KJ201801010-7358","latitude":"33.3103683","longitude":"130.0733444","source_code":"QS49307066004","project_name":"","survey_name":"\u53b3\u6728\u30fb\u6771\u591a\u4e45\u30d0\u30a4\u30d1\u30b9\u5730\u8cea\u8abf\u67fb\u696d\u52d9","client_name":"\u56fd\u571f\u4ea4\u901a\u7701\u4e5d\u5dde\u5730\u65b9\u6574\u5099\u5c40\u4f50\u8cc0\u56fd\u9053\u4e8b\u52d9\u6240","boring_xml_url":40,"boring_view_url":1,"soilmap_view_url":null,"soiltest_xml_url":0,"soiltest_view_url":0},{"id":219108,"code":"B4KJ201801010-7357","latitude":"33.3101461","longitude":"130.0733444","source_code":"QS49307066003","project_name":"","survey_name":"\u53b3\u6728\u30fb\u6771\u591a\u4e45\u30d0\u30a4\u30d1\u30b9\u5730\u8cea\u8abf\u67fb\u696d\u52d9","client_name":"\u56fd\u571f\u4ea4\u901a\u7701\u4e5d\u5dde\u5730\u65b9\u6574\u5099\u5c40\u4f50\u8cc0\u56fd\u9053\u4e8b\u52d9\u6240","boring_xml_url":40,"boring_view_url":1,"soilmap_view_url":null,"soiltest_xml_url":0,"soiltest_view_url":0},{"id":219107,"code":"B4KJ201801010-7356","latitude":"33.310035","longitude":"130.0733444","source_code":"QS49307066002","project_name":"","survey_name":"\u53b3\u6728\u30fb\u6771\u591a\u4e45\u30d0\u30a4\u30d1\u30b9\u5730\u8cea\u8abf\u67fb\u696d\u52d9","client_name":"\u56fd\u571f\u4ea4\u901a\u7701\u4e5d\u5dde\u5730\u65b9\u6574\u5099\u5c40\u4f50\u8cc0\u56fd\u9053\u4e8b\u52d9\u6240","boring_xml_url":40,"boring_view_url":1,"soilmap_view_url":null,"soiltest_xml_url":0,"soiltest_view_url":0},{"id":219106,"code":"B4KJ201801010-7355","latitude":"33.3106183","longitude":"130.0743719","source_code":"QS49307066001","project_name":"","survey_name":"\u4f50\u8cc0203\u53f7\u53b3\u6728\u5730\u533a\u5730\u8cea\u8abf\u67fb(\u305d\u306e1)\u696d\u52d9","client_name":"\u56fd\u571f\u4ea4\u901a\u7701\u4e5d\u5dde\u5730\u65b9\u6574\u5099\u5c40\u4f50\u8cc0\u56fd\u9053\u4e8b\u52d9\u6240","boring_xml_url":40,"boring_view_url":1,"soilmap_view_url":null,"soiltest_xml_url":0,"soiltest_view_url":0},{"id":219105,"code":"B4KJ201801010-7354","latitude":"33.3101461","longitude":"130.0725389","source_code":"QS49307065008","project_name":"","survey_name":"\u53b3\u6728\u6771\u591a\u4e45\u5730\u533a\u5730\u8cea\u8abf\u67fb\u696d\u52d9","client_name":"\u56fd\u571f\u4ea4\u901a\u7701\u4e5d\u5dde\u5730\u65b9\u6574\u5099\u5c40\u4f50\u8cc0\u56fd\u9053\u4e8b\u52d9\u6240","boring_xml_url":40,"boring_view_url":1,"soilmap_view_url":null,"soiltest_xml_url":0,"soiltest_view_url":0},{"id":219104,"code":"B4KJ201801010-7353","latitude":"33.3104794","longitude":"130.0725389","source_code":"QS49307065007","project_name":"","survey_name":"\u53b3\u6728\u6771\u591a\u4e45\u5730\u533a\u5730\u8cea\u8abf\u67fb\u696d\u52d9","client_name":"\u56fd\u571f\u4ea4\u901a\u7701\u4e5d\u5dde\u5730\u65b9\u6574\u5099\u5c40\u4f50\u8cc0\u56fd\u9053\u4e8b\u52d9\u6240","boring_xml_url":40,"boring_view_url":1,"soilmap_view_url":null,"soiltest_xml_url":0,"soiltest_view_url":0},{"id":219103,"code":"B4KJ201801010-7352","latitude":"33.3103683","longitude":"130.0710947","source_code":"QS49307065006","project_name":"","survey_name":"\u53b3\u6728\u6771\u591a\u4e45\u5730\u533a\u5730\u8cea\u8abf\u67fb\u696d\u52d9","client_name":"\u56fd\u571f\u4ea4\u901a\u7701\u4e5d\u5dde\u5730\u65b9\u6574\u5099\u5c40\u4f50\u8cc0\u56fd\u9053\u4e8b\u52d9\u6240","boring_xml_url":40,"boring_view_url":1,"soilmap_view_url":null,"soiltest_xml_url":0,"soiltest_view_url":0},{"id":219102,"code":"B4KJ201801010-7351","latitude":"33.3107294","longitude":"130.0710947","source_code":"QS49307065005","project_name":"","survey_name":"\u53b3\u6728\u6771\u591a\u4e45\u5730\u533a\u5730\u8cea\u8abf\u67fb\u696d\u52d9","client_name":"\u56fd\u571f\u4ea4\u901a\u7701\u4e5d\u5dde\u5730\u65b9\u6574\u5099\u5c40\u4f50\u8cc0\u56fd\u9053\u4e8b\u52d9\u6240","boring_xml_url":40,"boring_view_url":1,"soilmap_view_url":null,"soiltest_xml_url":0,"soiltest_view_url":0},{"id":219101,"code":"B4KJ201801010-7350","latitude":"33.3109517","longitude":"130.0705669","source_code":"QS49307065004","project_name":"","survey_name":"\u53b3\u6728\u6771\u591a\u4e45\u5730\u533a\u5730\u8cea\u8abf\u67fb\u696d\u52d9","client_name":"\u56fd\u571f\u4ea4\u901a\u7701\u4e5d\u5dde\u5730\u65b9\u6574\u5099\u5c40\u4f50\u8cc0\u56fd\u9053\u4e8b\u52d9\u6240","boring_xml_url":40,"boring_view_url":1,"soilmap_view_url":null,"soiltest_xml_url":0,"soiltest_view_url":0},{"id":219100,"code":"B4KJ201801010-7349","latitude":"33.3111736","longitude":"130.0702892","source_code":"QS49307065003","project_name":"","survey_name":"\u53b3\u6728\u6771\u591a\u4e45\u5730\u533a\u5730\u8cea\u8abf\u67fb\u696d\u52d9","client_name":"\u56fd\u571f\u4ea4\u901a\u7701\u4e5d\u5dde\u5730\u65b9\u6574\u5099\u5c40\u4f50\u8cc0\u56fd\u9053\u4e8b\u52d9\u6240","boring_xml_url":40,"boring_view_url":1,"soilmap_view_url":null,"soiltest_xml_url":0,"soiltest_view_url":0},{"id":219099,"code":"B4KJ201801010-7348","latitude":"33.3107292","longitude":"130.0679561","source_code":"QS49307065002","project_name":"","survey_name":"\u4f50\u8cc0203\u53f7\u7267\u702c\u5730\u533a\u5730\u8cea\u8abf\u67fb\u696d\u52d9","client_name":"\u56fd\u571f\u4ea4\u901a\u7701\u4e5d\u5dde\u5730\u65b9\u6574\u5099\u5c40\u4f50\u8cc0\u56fd\u9053\u4e8b\u52d9\u6240","boring_xml_url":40,"boring_view_url":1,"soilmap_view_url":null,"soiltest_xml_url":0,"soiltest_view_url":0},{"id":219098,"code":"B4KJ201801010-7347","latitude":"33.3110903","longitude":"130.0681225","source_code":"QS49307065001","project_name":"","survey_name":"\u4f50\u8cc0203\u53f7\u7267\u702c\u5730\u533a\u5730\u8cea\u8abf\u67fb\u696d\u52d9","client_name":"\u56fd\u571f\u4ea4\u901a\u7701\u4e5d\u5dde\u5730\u65b9\u6574\u5099\u5c40\u4f50\u8cc0\u56fd\u9053\u4e8b\u52d9\u6240","boring_xml_url":40,"boring_view_url":1,"soilmap_view_url":null,"soiltest_xml_url":0,"soiltest_view_url":0},{"id":219097,"code":"B4KJ201801010-7346","latitude":"33.2952875","longitude":"130.1115636","source_code":"QS49307059001","project_name":"","survey_name":"\u53b3\u6728\u30fb\u6771\u591a\u4e45\u30d0\u30a4\u30d1\u30b9\u5730\u8cea\u8abf\u67fb\u696d\u52d9","client_name":"\u56fd\u571f\u4ea4\u901a\u7701\u4e5d\u5dde\u5730\u65b9\u6574\u5099\u5c40\u4f50\u8cc0\u56fd\u9053\u4e8b\u52d9\u6240","boring_xml_url":40,"boring_view_url":1,"soilmap_view_url":null,"soiltest_xml_url":0,"soiltest_view_url":0},{"id":219096,"code":"B4KJ201801010-7345","latitude":"33.2911492","longitude":"130.1221739","source_code":"QS49307049040","project_name":"","survey_name":"\u5e73\u62107\u5e74\u5ea6\u4f50\u8cc0203\u53f7\u6771\u591a\u4e45BP\u4eca\u51fa\u5ddd\u5074\u9053\u6a4b\u5b9f\u65bd\u8a2d\u8a08\u59161\u4ef6","client_name":"\u56fd\u571f\u4ea4\u901a\u7701\u4e5d\u5dde\u5730\u65b9\u6574\u5099\u5c40\u4f50\u8cc0\u56fd\u9053\u4e8b\u52d9\u6240","boring_xml_url":40,"boring_view_url":1,"soilmap_view_url":null,"soiltest_xml_url":0,"soiltest_view_url":0},{"id":219095,"code":"B4KJ201801010-7344","latitude":"33.2912047","longitude":"130.1213406","source_code":"QS49307049039","project_name":"","survey_name":"\u6771\u591a\u4e45\u30d0\u30a4\u30d1\u30b9\u56db\u4e0b\u5730\u533a\u5916\u5730\u8cea\u8abf\u67fb\u696d\u52d9","client_name":"\u56fd\u571f\u4ea4\u901a\u7701\u4e5d\u5dde\u5730\u65b9\u6574\u5099\u5c40\u4f50\u8cc0\u56fd\u9053\u4e8b\u52d9\u6240","boring_xml_url":40,"boring_view_url":1,"soilmap_view_url":null,"soiltest_xml_url":0,"soiltest_view_url":0},{"id":219094,"code":"B4KJ201801010-7343","latitude":"33.29351","longitude":"130.1163131","source_code":"QS49307049038","project_name":"","survey_name":"\u6771\u591a\u4e45\u30d0\u30a4\u30d1\u30b9\u56db\u4e0b\u5730\u533a\u5916\u5730\u8cea\u8abf\u67fb\u696d\u52d9","client_name":"\u56fd\u571f\u4ea4\u901a\u7701\u4e5d\u5dde\u5730\u65b9\u6574\u5099\u5c40\u4f50\u8cc0\u56fd\u9053\u4e8b\u52d9\u6240","boring_xml_url":40,"boring_view_url":1,"soilmap_view_url":null,"soiltest_xml_url":0,"soiltest_view_url":0},{"id":219093,"code":"B4KJ201801010-7342","latitude":"33.2936767","longitude":"130.1160631","source_code":"QS49307049037","project_name":"","survey_name":"\u6771\u591a\u4e45\u30d0\u30a4\u30d1\u30b9\u56db\u4e0b\u5730\u533a\u5916\u5730\u8cea\u8abf\u67fb\u696d\u52d9","client_name":"\u56fd\u571f\u4ea4\u901a\u7701\u4e5d\u5dde\u5730\u65b9\u6574\u5099\u5c40\u4f50\u8cc0\u56fd\u9053\u4e8b\u52d9\u6240","boring_xml_url":40,"boring_view_url":1,"soilmap_view_url":null,"soiltest_xml_url":0,"soiltest_view_url":0},{"id":219092,"code":"B4KJ201801010-7341","latitude":"33.2938156","longitude":"130.1161186","source_code":"QS49307049036","project_name":"","survey_name":"\u6771\u591a\u4e45\u30d0\u30a4\u30d1\u30b9\u56db\u4e0b\u5730\u533a\u5916\u5730\u8cea\u8abf\u67fb\u696d\u52d9","client_name":"\u56fd\u571f\u4ea4\u901a\u7701\u4e5d\u5dde\u5730\u65b9\u6574\u5099\u5c40\u4f50\u8cc0\u56fd\u9053\u4e8b\u52d9\u6240","boring_xml_url":40,"boring_view_url":1,"soilmap_view_url":null,"soiltest_xml_url":0,"soiltest_view_url":0},{"id":219091,"code":"B4KJ201801010-7340","latitude":"33.2937878","longitude":"130.1157578","source_code":"QS49307049035","project_name":"","survey_name":"\u6771\u591a\u4e45\u30d0\u30a4\u30d1\u30b9\u56db\u4e0b\u5730\u533a\u5916\u5730\u8cea\u8abf\u67fb\u696d\u52d9","client_name":"\u56fd\u571f\u4ea4\u901a\u7701\u4e5d\u5dde\u5730\u65b9\u6574\u5099\u5c40\u4f50\u8cc0\u56fd\u9053\u4e8b\u52d9\u6240","boring_xml_url":40,"boring_view_url":1,"soilmap_view_url":null,"soiltest_xml_url":0,"soiltest_view_url":0},{"id":219090,"code":"B4KJ201801010-7339","latitude":"33.2939267","longitude":"130.1158133","source_code":"QS49307049034","project_name":"","survey_name":"\u6771\u591a\u4e45\u30d0\u30a4\u30d1\u30b9\u56db\u4e0b\u5730\u533a\u5916\u5730\u8cea\u8abf\u67fb\u696d\u52d9","client_name":"\u56fd\u571f\u4ea4\u901a\u7701\u4e5d\u5dde\u5730\u65b9\u6574\u5099\u5c40\u4f50\u8cc0\u56fd\u9053\u4e8b\u52d9\u6240","boring_xml_url":40,"boring_view_url":1,"soilmap_view_url":null,"soiltest_xml_url":0,"soiltest_view_url":0},{"id":219089,"code":"B4KJ201801010-7338","latitude":"33.2938711","longitude":"130.1154522","source_code":"QS49307049033","project_name":"","survey_name":"\u6771\u591a\u4e45\u30d0\u30a4\u30d1\u30b9\u56db\u4e0b\u5730\u533a\u5916\u5730\u8cea\u8abf\u67fb\u696d\u52d9","client_name":"\u56fd\u571f\u4ea4\u901a\u7701\u4e5d\u5dde\u5730\u65b9\u6574\u5099\u5c40\u4f50\u8cc0\u56fd\u9053\u4e8b\u52d9\u6240","boring_xml_url":40,"boring_view_url":1,"soilmap_view_url":null,"soiltest_xml_url":0,"soiltest_view_url":0},{"id":219088,"code":"B4KJ201801010-7337","latitude":"33.2940097","longitude":"130.1155078","source_code":"QS49307049032","project_name":"","survey_name":"\u6771\u591a\u4e45\u30d0\u30a4\u30d1\u30b9\u56db\u4e0b\u5730\u533a\u5916\u5730\u8cea\u8abf\u67fb\u696d\u52d9","client_name":"\u56fd\u571f\u4ea4\u901a\u7701\u4e5d\u5dde\u5730\u65b9\u6574\u5099\u5c40\u4f50\u8cc0\u56fd\u9053\u4e8b\u52d9\u6240","boring_xml_url":40,"boring_view_url":1,"soilmap_view_url":null,"soiltest_xml_url":0,"soiltest_view_url":0},{"id":219087,"code":"B4KJ201801010-7336","latitude":"33.2939542","longitude":"130.1151744","source_code":"QS49307049031","project_name":"","survey_name":"\u6771\u591a\u4e45\u30d0\u30a4\u30d1\u30b9\u56db\u4e0b\u5730\u533a\u5916\u5730\u8cea\u8abf\u67fb\u696d\u52d9","client_name":"\u56fd\u571f\u4ea4\u901a\u7701\u4e5d\u5dde\u5730\u65b9\u6574\u5099\u5c40\u4f50\u8cc0\u56fd\u9053\u4e8b\u52d9\u6240","boring_xml_url":40,"boring_view_url":1,"soilmap_view_url":null,"soiltest_xml_url":0,"soiltest_view_url":0},{"id":219086,"code":"B4KJ201801010-7335","latitude":"33.2940931","longitude":"130.1152022","source_code":"QS49307049030","project_name":"","survey_name":"\u6771\u591a\u4e45\u30d0\u30a4\u30d1\u30b9\u56db\u4e0b\u5730\u533a\u5916\u5730\u8cea\u8abf\u67fb\u696d\u52d9","client_name":"\u56fd\u571f\u4ea4\u901a\u7701\u4e5d\u5dde\u5730\u65b9\u6574\u5099\u5c40\u4f50\u8cc0\u56fd\u9053\u4e8b\u52d9\u6240","boring_xml_url":40,"boring_view_url":1,"soilmap_view_url":null,"soiltest_xml_url":0,"soiltest_view_url":0}]}}