{"header":{"xyz":{"source":[],"mosaic":false},"page":3383,"raw":{"soiltest_result":"0","bbox":"57.598333,109.544722,1.933333,163.806111","page":"3383"},"conditions":{"soiltest_result":0,"north":57.598333,"west":109.544722,"south":1.933333,"east":163.806111},"success":true,"message":""},"data":{"meta":{"total":212844,"page":3383,"pages":7095,"count":30},"values":[{"id":219085,"code":"B4KJ201801010-7334","latitude":"33.2940375","longitude":"130.1148689","source_code":"QS49307049029","project_name":"","survey_name":"\u6771\u591a\u4e45\u30d0\u30a4\u30d1\u30b9\u56db\u4e0b\u5730\u533a\u5916\u5730\u8cea\u8abf\u67fb\u696d\u52d9","client_name":"\u56fd\u571f\u4ea4\u901a\u7701\u4e5d\u5dde\u5730\u65b9\u6574\u5099\u5c40\u4f50\u8cc0\u56fd\u9053\u4e8b\u52d9\u6240","boring_xml_url":40,"boring_view_url":1,"soilmap_view_url":null,"soiltest_xml_url":0,"soiltest_view_url":0},{"id":219084,"code":"B4KJ201801010-7333","latitude":"33.2941486","longitude":"130.1148967","source_code":"QS49307049028","project_name":"","survey_name":"\u6771\u591a\u4e45\u30d0\u30a4\u30d1\u30b9\u56db\u4e0b\u5730\u533a\u5916\u5730\u8cea\u8abf\u67fb\u696d\u52d9","client_name":"\u56fd\u571f\u4ea4\u901a\u7701\u4e5d\u5dde\u5730\u65b9\u6574\u5099\u5c40\u4f50\u8cc0\u56fd\u9053\u4e8b\u52d9\u6240","boring_xml_url":40,"boring_view_url":1,"soilmap_view_url":null,"soiltest_xml_url":0,"soiltest_view_url":0},{"id":219083,"code":"B4KJ201801010-7332","latitude":"33.2941208","longitude":"130.1145356","source_code":"QS49307049027","project_name":"","survey_name":"\u6771\u591a\u4e45\u30d0\u30a4\u30d1\u30b9\u56db\u4e0b\u5730\u533a\u5916\u5730\u8cea\u8abf\u67fb\u696d\u52d9","client_name":"\u56fd\u571f\u4ea4\u901a\u7701\u4e5d\u5dde\u5730\u65b9\u6574\u5099\u5c40\u4f50\u8cc0\u56fd\u9053\u4e8b\u52d9\u6240","boring_xml_url":40,"boring_view_url":1,"soilmap_view_url":null,"soiltest_xml_url":0,"soiltest_view_url":0},{"id":219082,"code":"B4KJ201801010-7331","latitude":"33.2942042","longitude":"130.1145633","source_code":"QS49307049026","project_name":"","survey_name":"\u6771\u591a\u4e45\u30d0\u30a4\u30d1\u30b9\u56db\u4e0b\u5730\u533a\u5916\u5730\u8cea\u8abf\u67fb\u696d\u52d9","client_name":"\u56fd\u571f\u4ea4\u901a\u7701\u4e5d\u5dde\u5730\u65b9\u6574\u5099\u5c40\u4f50\u8cc0\u56fd\u9053\u4e8b\u52d9\u6240","boring_xml_url":40,"boring_view_url":1,"soilmap_view_url":null,"soiltest_xml_url":0,"soiltest_view_url":0},{"id":219081,"code":"B4KJ201801010-7330","latitude":"33.2941764","longitude":"130.11423","source_code":"QS49307049025","project_name":"","survey_name":"\u6771\u591a\u4e45\u30d0\u30a4\u30d1\u30b9\u56db\u4e0b\u5730\u533a\u5916\u5730\u8cea\u8abf\u67fb\u696d\u52d9","client_name":"\u56fd\u571f\u4ea4\u901a\u7701\u4e5d\u5dde\u5730\u65b9\u6574\u5099\u5c40\u4f50\u8cc0\u56fd\u9053\u4e8b\u52d9\u6240","boring_xml_url":40,"boring_view_url":1,"soilmap_view_url":null,"soiltest_xml_url":0,"soiltest_view_url":0},{"id":219080,"code":"B4KJ201801010-7329","latitude":"33.2942319","longitude":"130.1139244","source_code":"QS49307049024","project_name":"","survey_name":"\u6771\u591a\u4e45\u30d0\u30a4\u30d1\u30b9\u56db\u4e0b\u5730\u533a\u5916\u5730\u8cea\u8abf\u67fb\u696d\u52d9","client_name":"\u56fd\u571f\u4ea4\u901a\u7701\u4e5d\u5dde\u5730\u65b9\u6574\u5099\u5c40\u4f50\u8cc0\u56fd\u9053\u4e8b\u52d9\u6240","boring_xml_url":40,"boring_view_url":1,"soilmap_view_url":null,"soiltest_xml_url":0,"soiltest_view_url":0},{"id":219079,"code":"B4KJ201801010-7328","latitude":"33.2943153","longitude":"130.1139522","source_code":"QS49307049023","project_name":"","survey_name":"\u6771\u591a\u4e45\u30d0\u30a4\u30d1\u30b9\u56db\u4e0b\u5730\u533a\u5916\u5730\u8cea\u8abf\u67fb\u696d\u52d9","client_name":"\u56fd\u571f\u4ea4\u901a\u7701\u4e5d\u5dde\u5730\u65b9\u6574\u5099\u5c40\u4f50\u8cc0\u56fd\u9053\u4e8b\u52d9\u6240","boring_xml_url":40,"boring_view_url":1,"soilmap_view_url":null,"soiltest_xml_url":0,"soiltest_view_url":0},{"id":219078,"code":"B4KJ201801010-7327","latitude":"33.2942597","longitude":"130.1136744","source_code":"QS49307049022","project_name":"","survey_name":"\u6771\u591a\u4e45\u30d0\u30a4\u30d1\u30b9\u56db\u4e0b\u5730\u533a\u5916\u5730\u8cea\u8abf\u67fb\u696d\u52d9","client_name":"\u56fd\u571f\u4ea4\u901a\u7701\u4e5d\u5dde\u5730\u65b9\u6574\u5099\u5c40\u4f50\u8cc0\u56fd\u9053\u4e8b\u52d9\u6240","boring_xml_url":40,"boring_view_url":1,"soilmap_view_url":null,"soiltest_xml_url":0,"soiltest_view_url":0},{"id":219077,"code":"B4KJ201801010-7326","latitude":"33.2943708","longitude":"130.1137578","source_code":"QS49307049021","project_name":"","survey_name":"\u6771\u591a\u4e45\u30d0\u30a4\u30d1\u30b9\u56db\u4e0b\u5730\u533a\u5916\u5730\u8cea\u8abf\u67fb\u696d\u52d9","client_name":"\u56fd\u571f\u4ea4\u901a\u7701\u4e5d\u5dde\u5730\u65b9\u6574\u5099\u5c40\u4f50\u8cc0\u56fd\u9053\u4e8b\u52d9\u6240","boring_xml_url":40,"boring_view_url":1,"soilmap_view_url":null,"soiltest_xml_url":0,"soiltest_view_url":0},{"id":219076,"code":"B4KJ201801010-7325","latitude":"33.2913714","longitude":"130.1204794","source_code":"QS49307049020","project_name":"","survey_name":"\u6771\u591a\u4e45\u30d0\u30a4\u30d1\u30b9\u56db\u4e0b\u5730\u533a\u5916\u5730\u8cea\u8abf\u67fb\u696d\u52d9","client_name":"\u56fd\u571f\u4ea4\u901a\u7701\u4e5d\u5dde\u5730\u65b9\u6574\u5099\u5c40\u4f50\u8cc0\u56fd\u9053\u4e8b\u52d9\u6240","boring_xml_url":40,"boring_view_url":1,"soilmap_view_url":null,"soiltest_xml_url":0,"soiltest_view_url":0},{"id":219075,"code":"B4KJ201801010-7324","latitude":"33.2922044","longitude":"130.1187575","source_code":"QS49307049019","project_name":"","survey_name":"\u6771\u591a\u4e45\u30d0\u30a4\u30d1\u30b9\u56db\u4e0b\u5730\u533a\u5916\u5730\u8cea\u8abf\u67fb\u696d\u52d9","client_name":"\u56fd\u571f\u4ea4\u901a\u7701\u4e5d\u5dde\u5730\u65b9\u6574\u5099\u5c40\u4f50\u8cc0\u56fd\u9053\u4e8b\u52d9\u6240","boring_xml_url":40,"boring_view_url":1,"soilmap_view_url":null,"soiltest_xml_url":0,"soiltest_view_url":0},{"id":219074,"code":"B4KJ201801010-7323","latitude":"33.2924822","longitude":"130.1183686","source_code":"QS49307049018","project_name":"","survey_name":"\u6771\u591a\u4e45\u30d0\u30a4\u30d1\u30b9\u56db\u4e0b\u5730\u533a\u5916\u5730\u8cea\u8abf\u67fb\u696d\u52d9","client_name":"\u56fd\u571f\u4ea4\u901a\u7701\u4e5d\u5dde\u5730\u65b9\u6574\u5099\u5c40\u4f50\u8cc0\u56fd\u9053\u4e8b\u52d9\u6240","boring_xml_url":40,"boring_view_url":1,"soilmap_view_url":null,"soiltest_xml_url":0,"soiltest_view_url":0},{"id":219073,"code":"B4KJ201801010-7322","latitude":"33.2942597","longitude":"130.1132856","source_code":"QS49307049017","project_name":"","survey_name":"\u6771\u591a\u4e45\u30d0\u30a4\u30d1\u30b9\u56db\u4e0b\u5730\u533a\u5916\u5730\u8cea\u8abf\u67fb\u696d\u52d9","client_name":"\u56fd\u571f\u4ea4\u901a\u7701\u4e5d\u5dde\u5730\u65b9\u6574\u5099\u5c40\u4f50\u8cc0\u56fd\u9053\u4e8b\u52d9\u6240","boring_xml_url":40,"boring_view_url":1,"soilmap_view_url":null,"soiltest_xml_url":0,"soiltest_view_url":0},{"id":219072,"code":"B4KJ201801010-7321","latitude":"33.2944542","longitude":"130.1133411","source_code":"QS49307049016","project_name":"","survey_name":"\u6771\u591a\u4e45\u30d0\u30a4\u30d1\u30b9\u56db\u4e0b\u5730\u533a\u5916\u5730\u8cea\u8abf\u67fb\u696d\u52d9","client_name":"\u56fd\u571f\u4ea4\u901a\u7701\u4e5d\u5dde\u5730\u65b9\u6574\u5099\u5c40\u4f50\u8cc0\u56fd\u9053\u4e8b\u52d9\u6240","boring_xml_url":40,"boring_view_url":1,"soilmap_view_url":null,"soiltest_xml_url":0,"soiltest_view_url":0},{"id":219071,"code":"B4KJ201801010-7320","latitude":"33.2944542","longitude":"130.1115636","source_code":"QS49307049015","project_name":"","survey_name":"\u6771\u591a\u4e45\u30d0\u30a4\u30d1\u30b9\u56db\u4e0b\u5730\u533a\u5916\u5730\u8cea\u8abf\u67fb\u696d\u52d9","client_name":"\u56fd\u571f\u4ea4\u901a\u7701\u4e5d\u5dde\u5730\u65b9\u6574\u5099\u5c40\u4f50\u8cc0\u56fd\u9053\u4e8b\u52d9\u6240","boring_xml_url":40,"boring_view_url":1,"soilmap_view_url":null,"soiltest_xml_url":0,"soiltest_view_url":0},{"id":219070,"code":"B4KJ201801010-7319","latitude":"33.2948431","longitude":"130.1116747","source_code":"QS49307049014","project_name":"","survey_name":"\u6771\u591a\u4e45\u30d0\u30a4\u30d1\u30b9\u56db\u4e0b\u5730\u533a\u5916\u5730\u8cea\u8abf\u67fb\u696d\u52d9","client_name":"\u56fd\u571f\u4ea4\u901a\u7701\u4e5d\u5dde\u5730\u65b9\u6574\u5099\u5c40\u4f50\u8cc0\u56fd\u9053\u4e8b\u52d9\u6240","boring_xml_url":40,"boring_view_url":1,"soilmap_view_url":null,"soiltest_xml_url":0,"soiltest_view_url":0},{"id":219069,"code":"B4KJ201801010-7318","latitude":"33.2939542","longitude":"130.1153133","source_code":"QS49307049013","project_name":"","survey_name":"\u53b3\u6728\u6771\u591a\u4e45\u5730\u533a\u5730\u8cea\u8abf\u67fb\u696d\u52d9","client_name":"\u56fd\u571f\u4ea4\u901a\u7701\u4e5d\u5dde\u5730\u65b9\u6574\u5099\u5c40\u4f50\u8cc0\u56fd\u9053\u4e8b\u52d9\u6240","boring_xml_url":40,"boring_view_url":1,"soilmap_view_url":null,"soiltest_xml_url":0,"soiltest_view_url":0},{"id":219068,"code":"B4KJ201801010-7317","latitude":"33.2914547","longitude":"130.1196186","source_code":"QS49307049012","project_name":"","survey_name":"\u53b3\u6728\u6771\u591a\u4e45\u5730\u533a\u5730\u8cea\u8abf\u67fb\u696d\u52d9","client_name":"\u56fd\u571f\u4ea4\u901a\u7701\u4e5d\u5dde\u5730\u65b9\u6574\u5099\u5c40\u4f50\u8cc0\u56fd\u9053\u4e8b\u52d9\u6240","boring_xml_url":40,"boring_view_url":1,"soilmap_view_url":null,"soiltest_xml_url":0,"soiltest_view_url":0},{"id":219067,"code":"B4KJ201801010-7316","latitude":"33.2919269","longitude":"130.1201461","source_code":"QS49307049011","project_name":"","survey_name":"\u53b3\u6728\u6771\u591a\u4e45\u5730\u533a\u5730\u8cea\u8abf\u67fb\u696d\u52d9","client_name":"\u56fd\u571f\u4ea4\u901a\u7701\u4e5d\u5dde\u5730\u65b9\u6574\u5099\u5c40\u4f50\u8cc0\u56fd\u9053\u4e8b\u52d9\u6240","boring_xml_url":40,"boring_view_url":1,"soilmap_view_url":null,"soiltest_xml_url":0,"soiltest_view_url":0},{"id":219066,"code":"B4KJ201801010-7315","latitude":"33.2916769","longitude":"130.1181742","source_code":"QS49307049010","project_name":"","survey_name":"\u53b3\u6728\u6771\u591a\u4e45\u5730\u533a\u5730\u8cea\u8abf\u67fb\u696d\u52d9","client_name":"\u56fd\u571f\u4ea4\u901a\u7701\u4e5d\u5dde\u5730\u65b9\u6574\u5099\u5c40\u4f50\u8cc0\u56fd\u9053\u4e8b\u52d9\u6240","boring_xml_url":40,"boring_view_url":1,"soilmap_view_url":null,"soiltest_xml_url":0,"soiltest_view_url":0},{"id":219065,"code":"B4KJ201801010-7314","latitude":"33.2921489","longitude":"130.1181742","source_code":"QS49307049009","project_name":"","survey_name":"\u53b3\u6728\u6771\u591a\u4e45\u5730\u533a\u5730\u8cea\u8abf\u67fb\u696d\u52d9","client_name":"\u56fd\u571f\u4ea4\u901a\u7701\u4e5d\u5dde\u5730\u65b9\u6574\u5099\u5c40\u4f50\u8cc0\u56fd\u9053\u4e8b\u52d9\u6240","boring_xml_url":40,"boring_view_url":1,"soilmap_view_url":null,"soiltest_xml_url":0,"soiltest_view_url":0},{"id":219064,"code":"B4KJ201801010-7313","latitude":"33.2916769","longitude":"130.1190908","source_code":"QS49307049008","project_name":"","survey_name":"\u53b3\u6728\u30fb\u6771\u591a\u4e45\u30d0\u30a4\u30d1\u30b9\u5730\u8cea\u8abf\u67fb\u696d\u52d9","client_name":"\u56fd\u571f\u4ea4\u901a\u7701\u4e5d\u5dde\u5730\u65b9\u6574\u5099\u5c40\u4f50\u8cc0\u56fd\u9053\u4e8b\u52d9\u6240","boring_xml_url":40,"boring_view_url":1,"soilmap_view_url":null,"soiltest_xml_url":0,"soiltest_view_url":0},{"id":219063,"code":"B4KJ201801010-7312","latitude":"33.2923156","longitude":"130.1180908","source_code":"QS49307049007","project_name":"","survey_name":"\u53b3\u6728\u30fb\u6771\u591a\u4e45\u30d0\u30a4\u30d1\u30b9\u5730\u8cea\u8abf\u67fb\u696d\u52d9","client_name":"\u56fd\u571f\u4ea4\u901a\u7701\u4e5d\u5dde\u5730\u65b9\u6574\u5099\u5c40\u4f50\u8cc0\u56fd\u9053\u4e8b\u52d9\u6240","boring_xml_url":40,"boring_view_url":1,"soilmap_view_url":null,"soiltest_xml_url":0,"soiltest_view_url":0},{"id":219062,"code":"B4KJ201801010-7311","latitude":"33.2930656","longitude":"130.1169519","source_code":"QS49307049006","project_name":"","survey_name":"\u53b3\u6728\u30fb\u6771\u591a\u4e45\u30d0\u30a4\u30d1\u30b9\u5730\u8cea\u8abf\u67fb\u696d\u52d9","client_name":"\u56fd\u571f\u4ea4\u901a\u7701\u4e5d\u5dde\u5730\u65b9\u6574\u5099\u5c40\u4f50\u8cc0\u56fd\u9053\u4e8b\u52d9\u6240","boring_xml_url":40,"boring_view_url":1,"soilmap_view_url":null,"soiltest_xml_url":0,"soiltest_view_url":0},{"id":219061,"code":"B4KJ201801010-7310","latitude":"33.2937044","longitude":"130.1166742","source_code":"QS49307049005","project_name":"","survey_name":"\u53b3\u6728\u30fb\u6771\u591a\u4e45\u30d0\u30a4\u30d1\u30b9\u5730\u8cea\u8abf\u67fb\u696d\u52d9","client_name":"\u56fd\u571f\u4ea4\u901a\u7701\u4e5d\u5dde\u5730\u65b9\u6574\u5099\u5c40\u4f50\u8cc0\u56fd\u9053\u4e8b\u52d9\u6240","boring_xml_url":40,"boring_view_url":1,"soilmap_view_url":null,"soiltest_xml_url":0,"soiltest_view_url":0},{"id":219060,"code":"B4KJ201801010-7309","latitude":"33.2943431","longitude":"130.1135078","source_code":"QS49307049004","project_name":"","survey_name":"\u53b3\u6728\u30fb\u6771\u591a\u4e45\u30d0\u30a4\u30d1\u30b9\u5730\u8cea\u8abf\u67fb\u696d\u52d9","client_name":"\u56fd\u571f\u4ea4\u901a\u7701\u4e5d\u5dde\u5730\u65b9\u6574\u5099\u5c40\u4f50\u8cc0\u56fd\u9053\u4e8b\u52d9\u6240","boring_xml_url":40,"boring_view_url":1,"soilmap_view_url":null,"soiltest_xml_url":0,"soiltest_view_url":0},{"id":219059,"code":"B4KJ201801010-7308","latitude":"33.2945931","longitude":"130.1113692","source_code":"QS49307049003","project_name":"","survey_name":"\u53b3\u6728\u30fb\u6771\u591a\u4e45\u30d0\u30a4\u30d1\u30b9\u5730\u8cea\u8abf\u67fb\u696d\u52d9","client_name":"\u56fd\u571f\u4ea4\u901a\u7701\u4e5d\u5dde\u5730\u65b9\u6574\u5099\u5c40\u4f50\u8cc0\u56fd\u9053\u4e8b\u52d9\u6240","boring_xml_url":40,"boring_view_url":1,"soilmap_view_url":null,"soiltest_xml_url":0,"soiltest_view_url":0},{"id":219058,"code":"B4KJ201801010-7307","latitude":"33.2924822","longitude":"130.1210906","source_code":"QS49307049002","project_name":"","survey_name":"\u4f50\u8cc034\u53f7\u30d0\u30a4\u30d1\u30b9(\u725b\u6d25\u5730\u533a)\u571f\u8cea\u8abf\u67fb\u696d\u52d9","client_name":"\u56fd\u571f\u4ea4\u901a\u7701\u4e5d\u5dde\u5730\u65b9\u6574\u5099\u5c40\u4f50\u8cc0\u56fd\u9053\u4e8b\u52d9\u6240","boring_xml_url":40,"boring_view_url":1,"soilmap_view_url":null,"soiltest_xml_url":0,"soiltest_view_url":0},{"id":219057,"code":"B4KJ201801010-7306","latitude":"33.2924822","longitude":"130.1210906","source_code":"QS49307049001","project_name":"","survey_name":"\u4f50\u8cc034\u53f7\u30d0\u30a4\u30d1\u30b9(\u725b\u6d25\u5730\u533a)\u571f\u8cea\u8abf\u67fb\u696d\u52d9","client_name":"\u56fd\u571f\u4ea4\u901a\u7701\u4e5d\u5dde\u5730\u65b9\u6574\u5099\u5c40\u4f50\u8cc0\u56fd\u9053\u4e8b\u52d9\u6240","boring_xml_url":40,"boring_view_url":1,"soilmap_view_url":null,"soiltest_xml_url":0,"soiltest_view_url":0},{"id":219056,"code":"B4KJ201801010-7305","latitude":"33.2726789","longitude":"130.1120642","source_code":"QS49307029018","project_name":"","survey_name":"\u725b\u6d25\u5ddd\u5730\u8cea\u8abf\u67fb(\u305d\u306e1)\u696d\u52d9","client_name":"\u56fd\u571f\u4ea4\u901a\u7701\u4e5d\u5dde\u5730\u65b9\u6574\u5099\u5c40\u6b66\u96c4\u6cb3\u5ddd\u4e8b\u52d9\u6240","boring_xml_url":40,"boring_view_url":1,"soilmap_view_url":null,"soiltest_xml_url":0,"soiltest_view_url":0}]}}