{"header":{"xyz":{"source":[],"mosaic":false},"page":3393,"raw":{"soiltest_result":"0","bbox":"57.598333,109.544722,1.933333,163.806111","page":"3393"},"conditions":{"soiltest_result":0,"north":57.598333,"west":109.544722,"south":1.933333,"east":163.806111},"success":true,"message":""},"data":{"meta":{"total":212844,"page":3393,"pages":7095,"count":30},"values":[{"id":218785,"code":"B4KJ201801010-7034","latitude":"33.2467667","longitude":"130.1940019","source_code":"QS49306195010","project_name":"","survey_name":"\u7825\u5ddd\u5927\u6a4b\u5730\u8cea\u8abf\u67fb\u696d\u52d9","client_name":"\u56fd\u571f\u4ea4\u901a\u7701\u4e5d\u5dde\u5730\u65b9\u6574\u5099\u5c40\u6b66\u96c4\u6cb3\u5ddd\u4e8b\u52d9\u6240","boring_xml_url":40,"boring_view_url":1,"soilmap_view_url":null,"soiltest_xml_url":0,"soiltest_view_url":0},{"id":218784,"code":"B4KJ201801010-7033","latitude":"33.2456278","longitude":"130.1893633","source_code":"QS49306195006","project_name":"","survey_name":"\u4f50\u8cc034\u53f7\u30d0\u30a4\u30d1\u30b9(\u725b\u6d25\u5730\u533a)\u571f\u8cea\u8abf\u67fb\u696d\u52d9","client_name":"\u56fd\u571f\u4ea4\u901a\u7701\u4e5d\u5dde\u5730\u65b9\u6574\u5099\u5c40\u4f50\u8cc0\u56fd\u9053\u4e8b\u52d9\u6240","boring_xml_url":40,"boring_view_url":1,"soilmap_view_url":null,"soiltest_xml_url":0,"soiltest_view_url":0},{"id":218783,"code":"B4KJ201801010-7032","latitude":"33.2528492","longitude":"130.1874744","source_code":"QS49306195005","project_name":"","survey_name":"\u5927\u6238\u30b1\u91cc\u59161\u5730\u533a\u5730\u8cea\u8abf\u67fb\u53ca\u3073\u6a0b\u7ba1\u53d6\u4ed8\u5824\u9632\u89e3\u6790\u696d\u52d9","client_name":"\u56fd\u571f\u4ea4\u901a\u7701\u4e5d\u5dde\u5730\u65b9\u6574\u5099\u5c40\u6b66\u96c4\u6cb3\u5ddd\u4e8b\u52d9\u6240","boring_xml_url":40,"boring_view_url":1,"soilmap_view_url":null,"soiltest_xml_url":0,"soiltest_view_url":0},{"id":218782,"code":"B4KJ201801010-7031","latitude":"33.2528492","longitude":"130.1874744","source_code":"QS49306195004","project_name":"","survey_name":"\u5927\u6238\u30b1\u91cc\u59161\u5730\u533a\u5730\u8cea\u8abf\u67fb\u53ca\u3073\u6a0b\u7ba1\u53d6\u4ed8\u5824\u9632\u89e3\u6790\u696d\u52d9","client_name":"\u56fd\u571f\u4ea4\u901a\u7701\u4e5d\u5dde\u5730\u65b9\u6574\u5099\u5c40\u6b66\u96c4\u6cb3\u5ddd\u4e8b\u52d9\u6240","boring_xml_url":40,"boring_view_url":1,"soilmap_view_url":null,"soiltest_xml_url":0,"soiltest_view_url":0},{"id":218781,"code":"B4KJ201801010-7030","latitude":"33.2529603","longitude":"130.1900853","source_code":"QS49306195003","project_name":"","survey_name":"\u5929\u5c71\u6392\u6c34\u6a0b\u7ba1\u59161\u4ef6\u5730\u8cea\u8abf\u67fb\u696d\u52d9","client_name":"\u56fd\u571f\u4ea4\u901a\u7701\u4e5d\u5dde\u5730\u65b9\u6574\u5099\u5c40\u6b66\u96c4\u6cb3\u5ddd\u4e8b\u52d9\u6240","boring_xml_url":40,"boring_view_url":1,"soilmap_view_url":null,"soiltest_xml_url":0,"soiltest_view_url":0},{"id":218780,"code":"B4KJ201801010-7029","latitude":"33.2529603","longitude":"130.1900853","source_code":"QS49306195002","project_name":"","survey_name":"\u5929\u5c71\u6392\u6c34\u6a0b\u7ba1\u59161\u4ef6\u5730\u8cea\u8abf\u67fb\u696d\u52d9","client_name":"\u56fd\u571f\u4ea4\u901a\u7701\u4e5d\u5dde\u5730\u65b9\u6574\u5099\u5c40\u6b66\u96c4\u6cb3\u5ddd\u4e8b\u52d9\u6240","boring_xml_url":40,"boring_view_url":1,"soilmap_view_url":null,"soiltest_xml_url":0,"soiltest_view_url":0},{"id":218779,"code":"B4KJ201801010-7028","latitude":"33.2491275","longitude":"130.1914464","source_code":"QS49306195001","project_name":"","survey_name":"\u533b\u738b\u5bfa\u7b2c\u4e09\u6392\u6c34\u6a0b\u7ba1\u59161\u4ef6\u5730\u8cea\u8abf\u67fb\u696d\u52d9","client_name":"\u56fd\u571f\u4ea4\u901a\u7701\u4e5d\u5dde\u5730\u65b9\u6574\u5099\u5c40\u6b66\u96c4\u6cb3\u5ddd\u4e8b\u52d9\u6240","boring_xml_url":40,"boring_view_url":1,"soilmap_view_url":null,"soiltest_xml_url":0,"soiltest_view_url":0},{"id":218778,"code":"B4KJ201801010-7027","latitude":"33.2519325","longitude":"130.1839747","source_code":"QS49306194007","project_name":"","survey_name":"\u725b\u6d25\u5ddd\u5730\u8cea\u8abf\u67fb(\u305d\u306e1)\u696d\u52d9","client_name":"\u56fd\u571f\u4ea4\u901a\u7701\u4e5d\u5dde\u5730\u65b9\u6574\u5099\u5c40\u6b66\u96c4\u6cb3\u5ddd\u4e8b\u52d9\u6240","boring_xml_url":40,"boring_view_url":1,"soilmap_view_url":null,"soiltest_xml_url":0,"soiltest_view_url":0},{"id":218777,"code":"B4KJ201801010-7026","latitude":"33.2518214","longitude":"130.1841136","source_code":"QS49306194006","project_name":"","survey_name":"\u725b\u6d25\u5ddd\u5730\u8cea\u8abf\u67fb(\u305d\u306e1)\u696d\u52d9","client_name":"\u56fd\u571f\u4ea4\u901a\u7701\u4e5d\u5dde\u5730\u65b9\u6574\u5099\u5c40\u6b66\u96c4\u6cb3\u5ddd\u4e8b\u52d9\u6240","boring_xml_url":40,"boring_view_url":1,"soilmap_view_url":null,"soiltest_xml_url":0,"soiltest_view_url":0},{"id":218776,"code":"B4KJ201801010-7025","latitude":"33.2517103","longitude":"130.1843914","source_code":"QS49306194005","project_name":"","survey_name":"\u725b\u6d25\u5ddd\u5730\u8cea\u8abf\u67fb(\u305d\u306e1)\u696d\u52d9","client_name":"\u56fd\u571f\u4ea4\u901a\u7701\u4e5d\u5dde\u5730\u65b9\u6574\u5099\u5c40\u6b66\u96c4\u6cb3\u5ddd\u4e8b\u52d9\u6240","boring_xml_url":40,"boring_view_url":1,"soilmap_view_url":null,"soiltest_xml_url":0,"soiltest_view_url":0},{"id":218775,"code":"B4KJ201801010-7024","latitude":"33.2523492","longitude":"130.1808917","source_code":"QS49306194004","project_name":"","survey_name":"\u65b0\u6e21\u6392\u6c34\u6a0b\u7ba1\u59161\u4ef6\u5730\u8cea\u8abf\u67fb\u696d\u52d9","client_name":"\u56fd\u571f\u4ea4\u901a\u7701\u4e5d\u5dde\u5730\u65b9\u6574\u5099\u5c40\u6b66\u96c4\u6cb3\u5ddd\u4e8b\u52d9\u6240","boring_xml_url":40,"boring_view_url":1,"soilmap_view_url":null,"soiltest_xml_url":0,"soiltest_view_url":0},{"id":218774,"code":"B4KJ201801010-7023","latitude":"33.2524603","longitude":"130.1811694","source_code":"QS49306194003","project_name":"","survey_name":"\u65b0\u6e21\u6392\u6c34\u6a0b\u7ba1\u59161\u4ef6\u5730\u8cea\u8abf\u67fb\u696d\u52d9","client_name":"\u56fd\u571f\u4ea4\u901a\u7701\u4e5d\u5dde\u5730\u65b9\u6574\u5099\u5c40\u6b66\u96c4\u6cb3\u5ddd\u4e8b\u52d9\u6240","boring_xml_url":40,"boring_view_url":1,"soilmap_view_url":null,"soiltest_xml_url":0,"soiltest_view_url":0},{"id":218773,"code":"B4KJ201801010-7022","latitude":"33.2520436","longitude":"130.1828361","source_code":"QS49306194002","project_name":"","survey_name":"\u5929\u5c71\u6392\u6c34\u6a0b\u7ba1\u59161\u4ef6\u5730\u8cea\u8abf\u67fb\u696d\u52d9","client_name":"\u56fd\u571f\u4ea4\u901a\u7701\u4e5d\u5dde\u5730\u65b9\u6574\u5099\u5c40\u6b66\u96c4\u6cb3\u5ddd\u4e8b\u52d9\u6240","boring_xml_url":40,"boring_view_url":1,"soilmap_view_url":null,"soiltest_xml_url":0,"soiltest_view_url":0},{"id":218772,"code":"B4KJ201801010-7021","latitude":"33.2520436","longitude":"130.1828361","source_code":"QS49306194001","project_name":"","survey_name":"\u5929\u5c71\u6392\u6c34\u6a0b\u7ba1\u59161\u4ef6\u5730\u8cea\u8abf\u67fb\u696d\u52d9","client_name":"\u56fd\u571f\u4ea4\u901a\u7701\u4e5d\u5dde\u5730\u65b9\u6574\u5099\u5c40\u6b66\u96c4\u6cb3\u5ddd\u4e8b\u52d9\u6240","boring_xml_url":40,"boring_view_url":1,"soilmap_view_url":null,"soiltest_xml_url":0,"soiltest_view_url":0},{"id":218771,"code":"B4KJ201801010-7020","latitude":"33.2441567","longitude":"130.2425531","source_code":"QS49306189008","project_name":"","survey_name":"\u5609\u702c\u5ddd\u5824\u9632\u5730\u8cea\u8abf\u67fb(\u305d\u306e1)\u696d\u52d9","client_name":"\u56fd\u571f\u4ea4\u901a\u7701\u4e5d\u5dde\u5730\u65b9\u6574\u5099\u5c40\u6b66\u96c4\u6cb3\u5ddd\u4e8b\u52d9\u6240","boring_xml_url":40,"boring_view_url":1,"soilmap_view_url":null,"soiltest_xml_url":0,"soiltest_view_url":0},{"id":218770,"code":"B4KJ201801010-7019","latitude":"33.2399072","longitude":"130.2429142","source_code":"QS49306189005","project_name":"","survey_name":"\u5609\u702c\u5ddd\u5730\u4e0b\u6c34\u8abf\u67fb\u696d\u52d9","client_name":"\u56fd\u571f\u4ea4\u901a\u7701\u4e5d\u5dde\u5730\u65b9\u6574\u5099\u5c40\u6b66\u96c4\u6cb3\u5ddd\u4e8b\u52d9\u6240","boring_xml_url":40,"boring_view_url":1,"soilmap_view_url":null,"soiltest_xml_url":0,"soiltest_view_url":0},{"id":218769,"code":"B4KJ201801010-7018","latitude":"33.2401572","longitude":"130.2433864","source_code":"QS49306189004","project_name":"","survey_name":"\u5609\u702c\u5ddd\u5730\u4e0b\u6c34\u8abf\u67fb\u696d\u52d9","client_name":"\u56fd\u571f\u4ea4\u901a\u7701\u4e5d\u5dde\u5730\u65b9\u6574\u5099\u5c40\u6b66\u96c4\u6cb3\u5ddd\u4e8b\u52d9\u6240","boring_xml_url":40,"boring_view_url":1,"soilmap_view_url":null,"soiltest_xml_url":0,"soiltest_view_url":0},{"id":218768,"code":"B4KJ201801010-7017","latitude":"33.2402961","longitude":"130.2438031","source_code":"QS49306189003","project_name":"","survey_name":"\u5609\u702c\u5ddd\u5730\u4e0b\u6c34\u8abf\u67fb\u696d\u52d9","client_name":"\u56fd\u571f\u4ea4\u901a\u7701\u4e5d\u5dde\u5730\u65b9\u6574\u5099\u5c40\u6b66\u96c4\u6cb3\u5ddd\u4e8b\u52d9\u6240","boring_xml_url":40,"boring_view_url":1,"soilmap_view_url":null,"soiltest_xml_url":0,"soiltest_view_url":0},{"id":218767,"code":"B4KJ201801010-7016","latitude":"33.2422394","longitude":"130.1961406","source_code":"QS49306185019","project_name":"","survey_name":"\u725b\u6d25\u5ddd\u5730\u8cea\u8abf\u67fb(\u305d\u306e1)\u696d\u52d9","client_name":"\u56fd\u571f\u4ea4\u901a\u7701\u4e5d\u5dde\u5730\u65b9\u6574\u5099\u5c40\u6b66\u96c4\u6cb3\u5ddd\u4e8b\u52d9\u6240","boring_xml_url":40,"boring_view_url":1,"soilmap_view_url":null,"soiltest_xml_url":0,"soiltest_view_url":0},{"id":218766,"code":"B4KJ201801010-7015","latitude":"33.2422394","longitude":"130.1964183","source_code":"QS49306185018","project_name":"","survey_name":"\u725b\u6d25\u5ddd\u5730\u8cea\u8abf\u67fb(\u305d\u306e1)\u696d\u52d9","client_name":"\u56fd\u571f\u4ea4\u901a\u7701\u4e5d\u5dde\u5730\u65b9\u6574\u5099\u5c40\u6b66\u96c4\u6cb3\u5ddd\u4e8b\u52d9\u6240","boring_xml_url":40,"boring_view_url":1,"soilmap_view_url":null,"soiltest_xml_url":0,"soiltest_view_url":0},{"id":218765,"code":"B4KJ201801010-7014","latitude":"33.2379344","longitude":"130.1917244","source_code":"QS49306185017","project_name":"","survey_name":"\u5c71\u591a\u4e45\u7b2c4\u6a0b\u7ba1\u59163\u4ef6\u5730\u8cea\u8abf\u67fb\u696d\u52d9","client_name":"\u56fd\u571f\u4ea4\u901a\u7701\u4e5d\u5dde\u5730\u65b9\u6574\u5099\u5c40\u6b66\u96c4\u6cb3\u5ddd\u4e8b\u52d9\u6240","boring_xml_url":40,"boring_view_url":1,"soilmap_view_url":null,"soiltest_xml_url":0,"soiltest_view_url":0},{"id":218764,"code":"B4KJ201801010-7013","latitude":"33.2378511","longitude":"130.1918633","source_code":"QS49306185016","project_name":"","survey_name":"\u5c71\u591a\u4e45\u7b2c4\u6a0b\u7ba1\u59163\u4ef6\u5730\u8cea\u8abf\u67fb\u696d\u52d9","client_name":"\u56fd\u571f\u4ea4\u901a\u7701\u4e5d\u5dde\u5730\u65b9\u6574\u5099\u5c40\u6b66\u96c4\u6cb3\u5ddd\u4e8b\u52d9\u6240","boring_xml_url":40,"boring_view_url":1,"soilmap_view_url":null,"soiltest_xml_url":0,"soiltest_view_url":0},{"id":218763,"code":"B4KJ201801010-7012","latitude":"33.2377122","longitude":"130.1920856","source_code":"QS49306185015","project_name":"","survey_name":"\u5c71\u591a\u4e45\u7b2c4\u6a0b\u7ba1\u59163\u4ef6\u5730\u8cea\u8abf\u67fb\u696d\u52d9","client_name":"\u56fd\u571f\u4ea4\u901a\u7701\u4e5d\u5dde\u5730\u65b9\u6574\u5099\u5c40\u6b66\u96c4\u6cb3\u5ddd\u4e8b\u52d9\u6240","boring_xml_url":40,"boring_view_url":1,"soilmap_view_url":null,"soiltest_xml_url":0,"soiltest_view_url":0},{"id":218762,"code":"B4KJ201801010-7011","latitude":"33.2411564","longitude":"130.1955019","source_code":"QS49306185014","project_name":"","survey_name":"\u725b\u6d25\u5ddd\u5730\u8cea\u8abf\u67fb(\u305d\u306e2)\u696d\u52d9","client_name":"\u56fd\u571f\u4ea4\u901a\u7701\u4e5d\u5dde\u5730\u65b9\u6574\u5099\u5c40\u6b66\u96c4\u6cb3\u5ddd\u4e8b\u52d9\u6240","boring_xml_url":40,"boring_view_url":1,"soilmap_view_url":null,"soiltest_xml_url":0,"soiltest_view_url":0},{"id":218761,"code":"B4KJ201801010-7010","latitude":"33.2410453","longitude":"130.1956408","source_code":"QS49306185013","project_name":"","survey_name":"\u725b\u6d25\u5ddd\u5730\u8cea\u8abf\u67fb(\u305d\u306e2)\u696d\u52d9","client_name":"\u56fd\u571f\u4ea4\u901a\u7701\u4e5d\u5dde\u5730\u65b9\u6574\u5099\u5c40\u6b66\u96c4\u6cb3\u5ddd\u4e8b\u52d9\u6240","boring_xml_url":40,"boring_view_url":1,"soilmap_view_url":null,"soiltest_xml_url":0,"soiltest_view_url":0},{"id":218760,"code":"B4KJ201801010-7009","latitude":"33.2408231","longitude":"130.1959183","source_code":"QS49306185012","project_name":"","survey_name":"\u725b\u6d25\u5ddd\u5730\u8cea\u8abf\u67fb(\u305d\u306e2)\u696d\u52d9","client_name":"\u56fd\u571f\u4ea4\u901a\u7701\u4e5d\u5dde\u5730\u65b9\u6574\u5099\u5c40\u6b66\u96c4\u6cb3\u5ddd\u4e8b\u52d9\u6240","boring_xml_url":40,"boring_view_url":1,"soilmap_view_url":null,"soiltest_xml_url":0,"soiltest_view_url":0},{"id":218759,"code":"B4KJ201801010-7008","latitude":"33.2405731","longitude":"130.196335","source_code":"QS49306185011","project_name":"","survey_name":"\u725b\u6d25\u5ddd\u5730\u8cea\u8abf\u67fb(\u305d\u306e2)\u696d\u52d9","client_name":"\u56fd\u571f\u4ea4\u901a\u7701\u4e5d\u5dde\u5730\u65b9\u6574\u5099\u5c40\u6b66\u96c4\u6cb3\u5ddd\u4e8b\u52d9\u6240","boring_xml_url":40,"boring_view_url":1,"soilmap_view_url":null,"soiltest_xml_url":0,"soiltest_view_url":0},{"id":218758,"code":"B4KJ201801010-7007","latitude":"33.23874","longitude":"130.1945019","source_code":"QS49306185010","project_name":"","survey_name":"\u864e\u574a\u6392\u6c34\u6a0b\u7ba1\u5730\u8cea\u8abf\u67fb\u696d\u52d9","client_name":"\u56fd\u571f\u4ea4\u901a\u7701\u4e5d\u5dde\u5730\u65b9\u6574\u5099\u5c40\u6b66\u96c4\u6cb3\u5ddd\u4e8b\u52d9\u6240","boring_xml_url":40,"boring_view_url":1,"soilmap_view_url":null,"soiltest_xml_url":0,"soiltest_view_url":0},{"id":218757,"code":"B4KJ201801010-7006","latitude":"33.2387953","longitude":"130.1945019","source_code":"QS49306185009","project_name":"","survey_name":"\u864e\u574a\u6392\u6c34\u6a0b\u7ba1\u5730\u8cea\u8abf\u67fb\u696d\u52d9","client_name":"\u56fd\u571f\u4ea4\u901a\u7701\u4e5d\u5dde\u5730\u65b9\u6574\u5099\u5c40\u6b66\u96c4\u6cb3\u5ddd\u4e8b\u52d9\u6240","boring_xml_url":40,"boring_view_url":1,"soilmap_view_url":null,"soiltest_xml_url":0,"soiltest_view_url":0},{"id":218756,"code":"B4KJ201801010-7005","latitude":"33.2387119","longitude":"130.1938631","source_code":"QS49306185008","project_name":"","survey_name":"\u864e\u574a\u6392\u6c34\u6a0b\u7ba1\u5730\u8cea\u8abf\u67fb\u696d\u52d9","client_name":"\u56fd\u571f\u4ea4\u901a\u7701\u4e5d\u5dde\u5730\u65b9\u6574\u5099\u5c40\u6b66\u96c4\u6cb3\u5ddd\u4e8b\u52d9\u6240","boring_xml_url":40,"boring_view_url":1,"soilmap_view_url":null,"soiltest_xml_url":0,"soiltest_view_url":0}]}}