{"header":{"xyz":{"source":[],"mosaic":false},"page":3404,"raw":{"soiltest_result":"0","bbox":"57.598333,109.544722,1.933333,163.806111","page":"3404"},"conditions":{"soiltest_result":0,"north":57.598333,"west":109.544722,"south":1.933333,"east":163.806111},"success":true,"message":""},"data":{"meta":{"total":212844,"page":3404,"pages":7095,"count":30},"values":[{"id":218455,"code":"B4KJ201801010-6704","latitude":"33.2140458","longitude":"130.0674864","source_code":"QS49306055030","project_name":"","survey_name":"\u516d\u89d2\u5ddd\u5730\u8cea\u8abf\u67fb(\u305d\u306e11)\u696d\u52d9","client_name":"\u56fd\u571f\u4ea4\u901a\u7701\u4e5d\u5dde\u5730\u65b9\u6574\u5099\u5c40\u6b66\u96c4\u6cb3\u5ddd\u4e8b\u52d9\u6240","boring_xml_url":40,"boring_view_url":1,"soilmap_view_url":null,"soiltest_xml_url":0,"soiltest_view_url":0},{"id":218454,"code":"B4KJ201801010-6703","latitude":"33.2142681","longitude":"130.0673753","source_code":"QS49306055029","project_name":"","survey_name":"\u516d\u89d2\u5ddd\u5730\u8cea\u8abf\u67fb(\u305d\u306e11)\u696d\u52d9","client_name":"\u56fd\u571f\u4ea4\u901a\u7701\u4e5d\u5dde\u5730\u65b9\u6574\u5099\u5c40\u6b66\u96c4\u6cb3\u5ddd\u4e8b\u52d9\u6240","boring_xml_url":40,"boring_view_url":1,"soilmap_view_url":null,"soiltest_xml_url":0,"soiltest_view_url":0},{"id":218453,"code":"B4KJ201801010-6702","latitude":"33.2142681","longitude":"130.0673475","source_code":"QS49306055028","project_name":"","survey_name":"\u516d\u89d2\u5ddd\u5730\u8cea\u8abf\u67fb(\u305d\u306e11)\u696d\u52d9","client_name":"\u56fd\u571f\u4ea4\u901a\u7701\u4e5d\u5dde\u5730\u65b9\u6574\u5099\u5c40\u6b66\u96c4\u6cb3\u5ddd\u4e8b\u52d9\u6240","boring_xml_url":40,"boring_view_url":1,"soilmap_view_url":null,"soiltest_xml_url":0,"soiltest_view_url":0},{"id":218452,"code":"B4KJ201801010-6701","latitude":"33.2144069","longitude":"130.0672642","source_code":"QS49306055027","project_name":"","survey_name":"\u516d\u89d2\u5ddd\u5730\u8cea\u8abf\u67fb(\u305d\u306e11)\u696d\u52d9","client_name":"\u56fd\u571f\u4ea4\u901a\u7701\u4e5d\u5dde\u5730\u65b9\u6574\u5099\u5c40\u6b66\u96c4\u6cb3\u5ddd\u4e8b\u52d9\u6240","boring_xml_url":40,"boring_view_url":1,"soilmap_view_url":null,"soiltest_xml_url":0,"soiltest_view_url":0},{"id":218451,"code":"B4KJ201801010-6700","latitude":"33.2137403","longitude":"130.0692361","source_code":"QS49306055026","project_name":"","survey_name":"\u516d\u89d2\u5ddd\u5730\u8cea\u8abf\u67fb(\u305d\u306e11)\u696d\u52d9","client_name":"\u56fd\u571f\u4ea4\u901a\u7701\u4e5d\u5dde\u5730\u65b9\u6574\u5099\u5c40\u6b66\u96c4\u6cb3\u5ddd\u4e8b\u52d9\u6240","boring_xml_url":40,"boring_view_url":1,"soilmap_view_url":null,"soiltest_xml_url":0,"soiltest_view_url":0},{"id":218450,"code":"B4KJ201801010-6699","latitude":"33.2143792","longitude":"130.0691528","source_code":"QS49306055025","project_name":"","survey_name":"\u5f97\u4f5b\u6a0b\u90e1\u59161\u4ef6\u5730\u8cea\u8abf\u67fb\u696d\u52d9","client_name":"\u56fd\u571f\u4ea4\u901a\u7701\u4e5d\u5dde\u5730\u65b9\u6574\u5099\u5c40\u6b66\u96c4\u6cb3\u5ddd\u4e8b\u52d9\u6240","boring_xml_url":40,"boring_view_url":1,"soilmap_view_url":null,"soiltest_xml_url":0,"soiltest_view_url":0},{"id":218449,"code":"B4KJ201801010-6698","latitude":"33.2143792","longitude":"130.0691528","source_code":"QS49306055024","project_name":"","survey_name":"\u5f97\u4f5b\u6a0b\u90e1\u59161\u4ef6\u5730\u8cea\u8abf\u67fb\u696d\u52d9","client_name":"\u56fd\u571f\u4ea4\u901a\u7701\u4e5d\u5dde\u5730\u65b9\u6574\u5099\u5c40\u6b66\u96c4\u6cb3\u5ddd\u4e8b\u52d9\u6240","boring_xml_url":40,"boring_view_url":1,"soilmap_view_url":null,"soiltest_xml_url":0,"soiltest_view_url":0},{"id":218448,"code":"B4KJ201801010-6697","latitude":"33.2152681","longitude":"130.0715692","source_code":"QS49306055023","project_name":"","survey_name":"\u5e83\u7530\u5ddd\u6392\u6c34\u6a0b\u7ba1\u5730\u8cea\u8abf\u67fb\u696d\u52d9","client_name":"\u56fd\u571f\u4ea4\u901a\u7701\u4e5d\u5dde\u5730\u65b9\u6574\u5099\u5c40\u6b66\u96c4\u6cb3\u5ddd\u4e8b\u52d9\u6240","boring_xml_url":40,"boring_view_url":1,"soilmap_view_url":null,"soiltest_xml_url":0,"soiltest_view_url":0},{"id":218447,"code":"B4KJ201801010-6696","latitude":"33.2150458","longitude":"130.0715692","source_code":"QS49306055022","project_name":"","survey_name":"\u5e83\u7530\u5ddd\u6392\u6c34\u6a0b\u7ba1\u5730\u8cea\u8abf\u67fb\u696d\u52d9","client_name":"\u56fd\u571f\u4ea4\u901a\u7701\u4e5d\u5dde\u5730\u65b9\u6574\u5099\u5c40\u6b66\u96c4\u6cb3\u5ddd\u4e8b\u52d9\u6240","boring_xml_url":40,"boring_view_url":1,"soilmap_view_url":null,"soiltest_xml_url":0,"soiltest_view_url":0},{"id":218446,"code":"B4KJ201801010-6695","latitude":"33.2135181","longitude":"130.0644589","source_code":"QS49306055021","project_name":"","survey_name":"\u4e45\u6d25\u5177\u5730\u533a\u59161\u4ef6\u5730\u8cea\u8abf\u67fb\u696d\u52d9","client_name":"\u56fd\u571f\u4ea4\u901a\u7701\u4e5d\u5dde\u5730\u65b9\u6574\u5099\u5c40\u6b66\u96c4\u6cb3\u5ddd\u4e8b\u52d9\u6240","boring_xml_url":40,"boring_view_url":1,"soilmap_view_url":null,"soiltest_xml_url":0,"soiltest_view_url":0},{"id":218445,"code":"B4KJ201801010-6694","latitude":"33.2131847","longitude":"130.0647367","source_code":"QS49306055020","project_name":"","survey_name":"\u4e45\u6d25\u5177\u5730\u533a\u59161\u4ef6\u5730\u8cea\u8abf\u67fb\u696d\u52d9","client_name":"\u56fd\u571f\u4ea4\u901a\u7701\u4e5d\u5dde\u5730\u65b9\u6574\u5099\u5c40\u6b66\u96c4\u6cb3\u5ddd\u4e8b\u52d9\u6240","boring_xml_url":40,"boring_view_url":1,"soilmap_view_url":null,"soiltest_xml_url":0,"soiltest_view_url":0},{"id":218444,"code":"B4KJ201801010-6693","latitude":"33.2129069","longitude":"130.0628478","source_code":"QS49306055019","project_name":"","survey_name":"\u4e45\u6d25\u5177\u5730\u533a\u5730\u8cea\u8abf\u67fb\u53ca\u3073\u7bc9\u5824\u5de5\u6cd5\u691c\u8a0e\u696d\u52d9","client_name":"\u56fd\u571f\u4ea4\u901a\u7701\u4e5d\u5dde\u5730\u65b9\u6574\u5099\u5c40\u6b66\u96c4\u6cb3\u5ddd\u4e8b\u52d9\u6240","boring_xml_url":40,"boring_view_url":1,"soilmap_view_url":null,"soiltest_xml_url":0,"soiltest_view_url":0},{"id":218443,"code":"B4KJ201801010-6692","latitude":"33.2127128","longitude":"130.0662642","source_code":"QS49306055006","project_name":"","survey_name":"\u533b\u738b\u5bfa\u7b2c4\u53f7\u6392\u6c34\u6a0b\u7ba1\u59161\u4ef6\u5730\u8cea\u8abf\u67fb\u696d\u52d9","client_name":"\u56fd\u571f\u4ea4\u901a\u7701\u4e5d\u5dde\u5730\u65b9\u6574\u5099\u5c40\u6b66\u96c4\u6cb3\u5ddd\u4e8b\u52d9\u6240","boring_xml_url":40,"boring_view_url":1,"soilmap_view_url":null,"soiltest_xml_url":0,"soiltest_view_url":0},{"id":218442,"code":"B4KJ201801010-6691","latitude":"33.2129072","longitude":"130.0661253","source_code":"QS49306055005","project_name":"","survey_name":"\u533b\u738b\u5bfa\u7b2c4\u53f7\u6392\u6c34\u6a0b\u7ba1\u59161\u4ef6\u5730\u8cea\u8abf\u67fb\u696d\u52d9","client_name":"\u56fd\u571f\u4ea4\u901a\u7701\u4e5d\u5dde\u5730\u65b9\u6574\u5099\u5c40\u6b66\u96c4\u6cb3\u5ddd\u4e8b\u52d9\u6240","boring_xml_url":40,"boring_view_url":1,"soilmap_view_url":null,"soiltest_xml_url":0,"soiltest_view_url":0},{"id":218441,"code":"B4KJ201801010-6690","latitude":"33.2127683","longitude":"130.0657642","source_code":"QS49306055004","project_name":"","survey_name":"\u5883\u5ddd\u6392\u6c34\u6a0b\u7ba1\u5730\u8cea\u8abf\u67fb\u696d\u52d9(\u516d\u89d2\u5ddd)","client_name":"\u56fd\u571f\u4ea4\u901a\u7701\u4e5d\u5dde\u5730\u65b9\u6574\u5099\u5c40\u6b66\u96c4\u6cb3\u5ddd\u4e8b\u52d9\u6240","boring_xml_url":40,"boring_view_url":1,"soilmap_view_url":null,"soiltest_xml_url":0,"soiltest_view_url":0},{"id":218440,"code":"B4KJ201801010-6689","latitude":"33.2127683","longitude":"130.0657642","source_code":"QS49306055003","project_name":"","survey_name":"\u5883\u5ddd\u6392\u6c34\u6a0b\u7ba1\u5730\u8cea\u8abf\u67fb\u696d\u52d9(\u516d\u89d2\u5ddd)","client_name":"\u56fd\u571f\u4ea4\u901a\u7701\u4e5d\u5dde\u5730\u65b9\u6574\u5099\u5c40\u6b66\u96c4\u6cb3\u5ddd\u4e8b\u52d9\u6240","boring_xml_url":40,"boring_view_url":1,"soilmap_view_url":null,"soiltest_xml_url":0,"soiltest_view_url":0},{"id":218439,"code":"B4KJ201801010-6688","latitude":"33.2137403","longitude":"130.0684031","source_code":"QS49306055002","project_name":"","survey_name":"\u533b\u738b\u5bfa\u7b2c\u4e09\u53f7\u6392\u6c34\u6a0b\u7ba1\u59161\u4ef6\u5730\u8cea\u8abf\u67fb\u696d\u52d9","client_name":"\u56fd\u571f\u4ea4\u901a\u7701\u4e5d\u5dde\u5730\u65b9\u6574\u5099\u5c40\u6b66\u96c4\u6cb3\u5ddd\u4e8b\u52d9\u6240","boring_xml_url":40,"boring_view_url":1,"soilmap_view_url":null,"soiltest_xml_url":0,"soiltest_view_url":0},{"id":218438,"code":"B4KJ201801010-6687","latitude":"33.2139625","longitude":"130.0682919","source_code":"QS49306055001","project_name":"","survey_name":"\u533b\u738b\u5bfa\u7b2c\u4e09\u53f7\u6392\u6c34\u6a0b\u7ba1\u59161\u4ef6\u5730\u8cea\u8abf\u67fb\u696d\u52d9","client_name":"\u56fd\u571f\u4ea4\u901a\u7701\u4e5d\u5dde\u5730\u65b9\u6574\u5099\u5c40\u6b66\u96c4\u6cb3\u5ddd\u4e8b\u52d9\u6240","boring_xml_url":40,"boring_view_url":1,"soilmap_view_url":null,"soiltest_xml_url":0,"soiltest_view_url":0},{"id":218437,"code":"B4KJ201801010-6686","latitude":"33.2159897","longitude":"130.0530708","source_code":"QS49306054010","project_name":"","survey_name":"\u4f50\u8cc034\u53f7\u6b66\u96c4\u30d0\u30a4\u30d1\u30b9\u5730\u8cea\u8abf\u67fb\u59161\u4ef6\u696d\u52d9\u59d4\u8a17","client_name":"\u56fd\u571f\u4ea4\u901a\u7701\u4e5d\u5dde\u5730\u65b9\u6574\u5099\u5c40\u4f50\u8cc0\u56fd\u9053\u4e8b\u52d9\u6240","boring_xml_url":40,"boring_view_url":1,"soilmap_view_url":null,"soiltest_xml_url":0,"soiltest_view_url":0},{"id":218436,"code":"B4KJ201801010-6685","latitude":"33.2173786","longitude":"130.0565706","source_code":"QS49306054009","project_name":"","survey_name":"\u4f50\u8cc034\u53f7\u6b66\u96c4\u30d0\u30a4\u30d1\u30b9\u5730\u8cea\u8abf\u67fb\u59161\u4ef6\u696d\u52d9\u59d4\u8a17","client_name":"\u56fd\u571f\u4ea4\u901a\u7701\u4e5d\u5dde\u5730\u65b9\u6574\u5099\u5c40\u4f50\u8cc0\u56fd\u9053\u4e8b\u52d9\u6240","boring_xml_url":40,"boring_view_url":1,"soilmap_view_url":null,"soiltest_xml_url":0,"soiltest_view_url":0},{"id":218435,"code":"B4KJ201801010-6684","latitude":"33.2178231","longitude":"130.0584314","source_code":"QS49306054008","project_name":"","survey_name":"\u4f50\u8cc034\u53f7\u6b66\u96c4\u30d0\u30a4\u30d1\u30b9\u5730\u8cea\u8abf\u67fb\u59161\u4ef6\u696d\u52d9\u59d4\u8a17","client_name":"\u56fd\u571f\u4ea4\u901a\u7701\u4e5d\u5dde\u5730\u65b9\u6574\u5099\u5c40\u4f50\u8cc0\u56fd\u9053\u4e8b\u52d9\u6240","boring_xml_url":40,"boring_view_url":1,"soilmap_view_url":null,"soiltest_xml_url":0,"soiltest_view_url":0},{"id":218434,"code":"B4KJ201801010-6683","latitude":"33.211685","longitude":"130.0590706","source_code":"QS49306054004","project_name":"","survey_name":"\u4e8c\u53c8\u6392\u6c34\u6a0b\u7ba1\u59161\u4ef6\u5730\u8cea\u8abf\u67fb\u696d\u52d9","client_name":"\u56fd\u571f\u4ea4\u901a\u7701\u4e5d\u5dde\u5730\u65b9\u6574\u5099\u5c40\u6b66\u96c4\u6cb3\u5ddd\u4e8b\u52d9\u6240","boring_xml_url":40,"boring_view_url":1,"soilmap_view_url":null,"soiltest_xml_url":0,"soiltest_view_url":0},{"id":218433,"code":"B4KJ201801010-6682","latitude":"33.2037422","longitude":"130.1104272","source_code":"QS49306049007","project_name":"","survey_name":"\u516d\u89d2\u5ddd\u5730\u8cea\u8abf\u67fb(\u305d\u306e6)\u696d\u52d9","client_name":"\u56fd\u571f\u4ea4\u901a\u7701\u4e5d\u5dde\u5730\u65b9\u6574\u5099\u5c40\u6b66\u96c4\u6cb3\u5ddd\u4e8b\u52d9\u6240","boring_xml_url":40,"boring_view_url":1,"soilmap_view_url":null,"soiltest_xml_url":0,"soiltest_view_url":0},{"id":218432,"code":"B4KJ201801010-6681","latitude":"33.2038533","longitude":"130.1105383","source_code":"QS49306049006","project_name":"","survey_name":"\u516d\u89d2\u5ddd\u5730\u8cea\u8abf\u67fb(\u305d\u306e6)\u696d\u52d9","client_name":"\u56fd\u571f\u4ea4\u901a\u7701\u4e5d\u5dde\u5730\u65b9\u6574\u5099\u5c40\u6b66\u96c4\u6cb3\u5ddd\u4e8b\u52d9\u6240","boring_xml_url":40,"boring_view_url":1,"soilmap_view_url":null,"soiltest_xml_url":0,"soiltest_view_url":0},{"id":218431,"code":"B4KJ201801010-6680","latitude":"33.209325","longitude":"130.1122047","source_code":"QS49306049005","project_name":"","survey_name":"\u5883\u5ddd\u6392\u6c34\u6a0b\u7ba1\u59161\u4ef6\u5730\u8cea\u8abf\u67fb\u696d\u52d9","client_name":"\u56fd\u571f\u4ea4\u901a\u7701\u4e5d\u5dde\u5730\u65b9\u6574\u5099\u5c40\u6b66\u96c4\u6cb3\u5ddd\u4e8b\u52d9\u6240","boring_xml_url":40,"boring_view_url":1,"soilmap_view_url":null,"soiltest_xml_url":0,"soiltest_view_url":0},{"id":218430,"code":"B4KJ201801010-6679","latitude":"33.2093806","longitude":"130.1121492","source_code":"QS49306049004","project_name":"","survey_name":"\u5883\u5ddd\u6392\u6c34\u6a0b\u7ba1\u59161\u4ef6\u5730\u8cea\u8abf\u67fb\u696d\u52d9","client_name":"\u56fd\u571f\u4ea4\u901a\u7701\u4e5d\u5dde\u5730\u65b9\u6574\u5099\u5c40\u6b66\u96c4\u6cb3\u5ddd\u4e8b\u52d9\u6240","boring_xml_url":40,"boring_view_url":1,"soilmap_view_url":null,"soiltest_xml_url":0,"soiltest_view_url":0},{"id":218429,"code":"B4KJ201801010-6678","latitude":"33.2077419","longitude":"130.1104269","source_code":"QS49306049003","project_name":"","survey_name":"\u5317\u53e4\u8cc0\u6392\u6c34\u6a0b\u7ba1\u59161\u4ef6\u5730\u8cea\u8abf\u67fb\u696d\u52d9","client_name":"\u56fd\u571f\u4ea4\u901a\u7701\u4e5d\u5dde\u5730\u65b9\u6574\u5099\u5c40\u6b66\u96c4\u6cb3\u5ddd\u4e8b\u52d9\u6240","boring_xml_url":40,"boring_view_url":1,"soilmap_view_url":null,"soiltest_xml_url":0,"soiltest_view_url":0},{"id":218428,"code":"B4KJ201801010-6677","latitude":"33.2076308","longitude":"130.1108158","source_code":"QS49306049002","project_name":"","survey_name":"\u5317\u53e4\u8cc0\u6392\u6c34\u6a0b\u7ba1\u59161\u4ef6\u5730\u8cea\u8abf\u67fb\u696d\u52d9","client_name":"\u56fd\u571f\u4ea4\u901a\u7701\u4e5d\u5dde\u5730\u65b9\u6574\u5099\u5c40\u6b66\u96c4\u6cb3\u5ddd\u4e8b\u52d9\u6240","boring_xml_url":40,"boring_view_url":1,"soilmap_view_url":null,"soiltest_xml_url":0,"soiltest_view_url":0},{"id":218427,"code":"B4KJ201801010-6676","latitude":"33.2032978","longitude":"130.1099828","source_code":"QS49306048027","project_name":"","survey_name":"\u516d\u89d2\u5ddd\u5730\u8cea\u8abf\u67fb(\u305d\u306e6)\u696d\u52d9","client_name":"\u56fd\u571f\u4ea4\u901a\u7701\u4e5d\u5dde\u5730\u65b9\u6574\u5099\u5c40\u6b66\u96c4\u6cb3\u5ddd\u4e8b\u52d9\u6240","boring_xml_url":40,"boring_view_url":1,"soilmap_view_url":null,"soiltest_xml_url":0,"soiltest_view_url":0},{"id":218426,"code":"B4KJ201801010-6675","latitude":"33.2033811","longitude":"130.1100939","source_code":"QS49306048026","project_name":"","survey_name":"\u516d\u89d2\u5ddd\u5730\u8cea\u8abf\u67fb(\u305d\u306e6)\u696d\u52d9","client_name":"\u56fd\u571f\u4ea4\u901a\u7701\u4e5d\u5dde\u5730\u65b9\u6574\u5099\u5c40\u6b66\u96c4\u6cb3\u5ddd\u4e8b\u52d9\u6240","boring_xml_url":40,"boring_view_url":1,"soilmap_view_url":null,"soiltest_xml_url":0,"soiltest_view_url":0}]}}