{"header":{"xyz":{"source":[],"mosaic":false},"page":3408,"raw":{"soiltest_result":"0","bbox":"57.598333,109.544722,1.933333,163.806111","page":"3408"},"conditions":{"soiltest_result":0,"north":57.598333,"west":109.544722,"south":1.933333,"east":163.806111},"success":true,"message":""},"data":{"meta":{"total":212844,"page":3408,"pages":7095,"count":30},"values":[{"id":218335,"code":"B4KJ201801010-6584","latitude":"33.2075739","longitude":"130.0450164","source_code":"QS49306043013","project_name":"","survey_name":"\u9ad8\u6a4b\u6c34\u9580\u5730\u8cea\u8abf\u67fb\u696d\u52d9","client_name":"\u56fd\u571f\u4ea4\u901a\u7701\u4e5d\u5dde\u5730\u65b9\u6574\u5099\u5c40\u6b66\u96c4\u6cb3\u5ddd\u4e8b\u52d9\u6240","boring_xml_url":40,"boring_view_url":1,"soilmap_view_url":null,"soiltest_xml_url":0,"soiltest_view_url":0},{"id":218334,"code":"B4KJ201801010-6583","latitude":"33.2075739","longitude":"130.0450164","source_code":"QS49306043012","project_name":"","survey_name":"\u9ad8\u6a4b\u6c34\u9580\u5730\u8cea\u8abf\u67fb\u696d\u52d9","client_name":"\u56fd\u571f\u4ea4\u901a\u7701\u4e5d\u5dde\u5730\u65b9\u6574\u5099\u5c40\u6b66\u96c4\u6cb3\u5ddd\u4e8b\u52d9\u6240","boring_xml_url":40,"boring_view_url":1,"soilmap_view_url":null,"soiltest_xml_url":0,"soiltest_view_url":0},{"id":218333,"code":"B4KJ201801010-6582","latitude":"33.2075739","longitude":"130.0450164","source_code":"QS49306043011","project_name":"","survey_name":"\u9ad8\u6a4b\u6c34\u9580\u5730\u8cea\u8abf\u67fb\u696d\u52d9","client_name":"\u56fd\u571f\u4ea4\u901a\u7701\u4e5d\u5dde\u5730\u65b9\u6574\u5099\u5c40\u6b66\u96c4\u6cb3\u5ddd\u4e8b\u52d9\u6240","boring_xml_url":40,"boring_view_url":1,"soilmap_view_url":null,"soiltest_xml_url":0,"soiltest_view_url":0},{"id":218332,"code":"B4KJ201801010-6581","latitude":"33.2040189","longitude":"130.0427667","source_code":"QS49306043010","project_name":"","survey_name":"\u6b66\u96c4\u30d0\u30a4\u30d1\u30b9\u6b66\u96c4\u9ad8\u67b6\u6a4b\u571f\u8cea\u8abf\u67fb(\u305d\u306e2)","client_name":"\u56fd\u571f\u4ea4\u901a\u7701\u4e5d\u5dde\u5730\u65b9\u6574\u5099\u5c40\u4f50\u8cc0\u56fd\u9053\u4e8b\u52d9\u6240","boring_xml_url":40,"boring_view_url":1,"soilmap_view_url":null,"soiltest_xml_url":0,"soiltest_view_url":0},{"id":218331,"code":"B4KJ201801010-6580","latitude":"33.2053519","longitude":"130.0446275","source_code":"QS49306043009","project_name":"","survey_name":"\u6b66\u96c4\u30d0\u30a4\u30d1\u30b9\u6b66\u96c4\u9ad8\u67b6\u6a4b\u571f\u8cea\u8abf\u67fb(\u305d\u306e2)","client_name":"\u56fd\u571f\u4ea4\u901a\u7701\u4e5d\u5dde\u5730\u65b9\u6574\u5099\u5c40\u4f50\u8cc0\u56fd\u9053\u4e8b\u52d9\u6240","boring_xml_url":40,"boring_view_url":1,"soilmap_view_url":null,"soiltest_xml_url":0,"soiltest_view_url":0},{"id":218330,"code":"B4KJ201801010-6579","latitude":"33.2060464","longitude":"130.0455719","source_code":"QS49306043008","project_name":"","survey_name":"\u6b66\u96c4\u30d0\u30a4\u30d1\u30b9\u6b66\u96c4\u9ad8\u67b6\u6a4b\u571f\u8cea\u8abf\u67fb(\u305d\u306e2)","client_name":"\u56fd\u571f\u4ea4\u901a\u7701\u4e5d\u5dde\u5730\u65b9\u6574\u5099\u5c40\u4f50\u8cc0\u56fd\u9053\u4e8b\u52d9\u6240","boring_xml_url":40,"boring_view_url":1,"soilmap_view_url":null,"soiltest_xml_url":0,"soiltest_view_url":0},{"id":218329,"code":"B4KJ201801010-6578","latitude":"33.2067131","longitude":"130.0463772","source_code":"QS49306043007","project_name":"","survey_name":"\u6b66\u96c4\u30d0\u30a4\u30d1\u30b9\u6b66\u96c4\u9ad8\u67b6\u6a4b\u571f\u8cea\u8abf\u67fb(\u305d\u306e2)","client_name":"\u56fd\u571f\u4ea4\u901a\u7701\u4e5d\u5dde\u5730\u65b9\u6574\u5099\u5c40\u4f50\u8cc0\u56fd\u9053\u4e8b\u52d9\u6240","boring_xml_url":40,"boring_view_url":1,"soilmap_view_url":null,"soiltest_xml_url":0,"soiltest_view_url":0},{"id":218328,"code":"B4KJ201801010-6577","latitude":"33.2080739","longitude":"130.0475717","source_code":"QS49306043006","project_name":"","survey_name":"\u6b66\u96c4\u30d0\u30a4\u30d1\u30b9\u6b66\u96c4\u9ad8\u67b6\u6a4b\u571f\u8cea\u8abf\u67fb(\u305d\u306e2)","client_name":"\u56fd\u571f\u4ea4\u901a\u7701\u4e5d\u5dde\u5730\u65b9\u6574\u5099\u5c40\u4f50\u8cc0\u56fd\u9053\u4e8b\u52d9\u6240","boring_xml_url":40,"boring_view_url":1,"soilmap_view_url":null,"soiltest_xml_url":0,"soiltest_view_url":0},{"id":218327,"code":"B4KJ201801010-6576","latitude":"33.2063519","longitude":"130.0448219","source_code":"QS49306043005","project_name":"","survey_name":"\u6b66\u96c4\u5ddd\u5730\u8cea\u8abf\u67fb\u53ca\u3073\u89e3\u6790\u696d\u52d9","client_name":"\u56fd\u571f\u4ea4\u901a\u7701\u4e5d\u5dde\u5730\u65b9\u6574\u5099\u5c40\u6b66\u96c4\u6cb3\u5ddd\u4e8b\u52d9\u6240","boring_xml_url":40,"boring_view_url":1,"soilmap_view_url":null,"soiltest_xml_url":0,"soiltest_view_url":0},{"id":218326,"code":"B4KJ201801010-6575","latitude":"33.2063519","longitude":"130.0447664","source_code":"QS49306043004","project_name":"","survey_name":"\u6b66\u96c4\u5ddd\u5730\u8cea\u8abf\u67fb\u53ca\u3073\u89e3\u6790\u696d\u52d9","client_name":"\u56fd\u571f\u4ea4\u901a\u7701\u4e5d\u5dde\u5730\u65b9\u6574\u5099\u5c40\u6b66\u96c4\u6cb3\u5ddd\u4e8b\u52d9\u6240","boring_xml_url":40,"boring_view_url":1,"soilmap_view_url":null,"soiltest_xml_url":0,"soiltest_view_url":0},{"id":218325,"code":"B4KJ201801010-6574","latitude":"33.2048519","longitude":"130.0436831","source_code":"QS49306043003","project_name":"","survey_name":"\u6b66\u96c4\u5ddd\u5de6\u5cb8\u5730\u8cea\u8abf\u67fb\u53ca\u3073\u89e3\u6790\u696d\u52d9","client_name":"\u56fd\u571f\u4ea4\u901a\u7701\u4e5d\u5dde\u5730\u65b9\u6574\u5099\u5c40\u6b66\u96c4\u6cb3\u5ddd\u4e8b\u52d9\u6240","boring_xml_url":40,"boring_view_url":1,"soilmap_view_url":null,"soiltest_xml_url":0,"soiltest_view_url":0},{"id":218324,"code":"B4KJ201801010-6573","latitude":"33.2059631","longitude":"130.046905","source_code":"QS49306043002","project_name":"","survey_name":"\u6b66\u96c4\u5ddd\u5de6\u5cb8\u5730\u8cea\u8abf\u67fb\u53ca\u3073\u89e3\u6790\u696d\u52d9","client_name":"\u56fd\u571f\u4ea4\u901a\u7701\u4e5d\u5dde\u5730\u65b9\u6574\u5099\u5c40\u6b66\u96c4\u6cb3\u5ddd\u4e8b\u52d9\u6240","boring_xml_url":40,"boring_view_url":1,"soilmap_view_url":null,"soiltest_xml_url":0,"soiltest_view_url":0},{"id":218323,"code":"B4KJ201801010-6572","latitude":"33.2064075","longitude":"130.0471828","source_code":"QS49306043001","project_name":"","survey_name":"\u6b66\u96c4\u5ddd\u5de6\u5cb8\u5730\u8cea\u8abf\u67fb\u53ca\u3073\u89e3\u6790\u696d\u52d9","client_name":"\u56fd\u571f\u4ea4\u901a\u7701\u4e5d\u5dde\u5730\u65b9\u6574\u5099\u5c40\u6b66\u96c4\u6cb3\u5ddd\u4e8b\u52d9\u6240","boring_xml_url":40,"boring_view_url":1,"soilmap_view_url":null,"soiltest_xml_url":0,"soiltest_view_url":0},{"id":218322,"code":"B4KJ201801010-6571","latitude":"33.1981597","longitude":"130.1194819","source_code":"QS49306039021","project_name":"","survey_name":"\u99ac\u7530\u6392\u6c34\u6a0b\u7ba1\u5730\u8cea\u8abf\u67fb\u696d\u52d9","client_name":"\u56fd\u571f\u4ea4\u901a\u7701\u4e5d\u5dde\u5730\u65b9\u6574\u5099\u5c40\u6b66\u96c4\u6cb3\u5ddd\u4e8b\u52d9\u6240","boring_xml_url":40,"boring_view_url":1,"soilmap_view_url":null,"soiltest_xml_url":0,"soiltest_view_url":0},{"id":218321,"code":"B4KJ201801010-6570","latitude":"33.1974653","longitude":"130.1192042","source_code":"QS49306039020","project_name":"","survey_name":"\u99ac\u7530\u6392\u6c34\u6a0b\u7ba1\u5730\u8cea\u8abf\u67fb\u696d\u52d9","client_name":"\u56fd\u571f\u4ea4\u901a\u7701\u4e5d\u5dde\u5730\u65b9\u6574\u5099\u5c40\u6b66\u96c4\u6cb3\u5ddd\u4e8b\u52d9\u6240","boring_xml_url":40,"boring_view_url":1,"soilmap_view_url":null,"soiltest_xml_url":0,"soiltest_view_url":0},{"id":218320,"code":"B4KJ201801010-6569","latitude":"33.1977431","longitude":"130.1192042","source_code":"QS49306039019","project_name":"","survey_name":"\u99ac\u7530\u6392\u6c34\u6a0b\u7ba1\u5730\u8cea\u8abf\u67fb\u696d\u52d9","client_name":"\u56fd\u571f\u4ea4\u901a\u7701\u4e5d\u5dde\u5730\u65b9\u6574\u5099\u5c40\u6b66\u96c4\u6cb3\u5ddd\u4e8b\u52d9\u6240","boring_xml_url":40,"boring_view_url":1,"soilmap_view_url":null,"soiltest_xml_url":0,"soiltest_view_url":0},{"id":218319,"code":"B4KJ201801010-6568","latitude":"33.1997428","longitude":"130.11626","source_code":"QS49306039018","project_name":"","survey_name":"\u516d\u89d2\u5ddd\u5730\u8cea\u8abf\u67fb(\u305d\u306e5)\u696d\u52d9","client_name":"\u56fd\u571f\u4ea4\u901a\u7701\u4e5d\u5dde\u5730\u65b9\u6574\u5099\u5c40\u6b66\u96c4\u6cb3\u5ddd\u4e8b\u52d9\u6240","boring_xml_url":40,"boring_view_url":1,"soilmap_view_url":null,"soiltest_xml_url":0,"soiltest_view_url":0},{"id":218318,"code":"B4KJ201801010-6567","latitude":"33.1998261","longitude":"130.1163989","source_code":"QS49306039017","project_name":"","survey_name":"\u516d\u89d2\u5ddd\u5730\u8cea\u8abf\u67fb(\u305d\u306e5)\u696d\u52d9","client_name":"\u56fd\u571f\u4ea4\u901a\u7701\u4e5d\u5dde\u5730\u65b9\u6574\u5099\u5c40\u6b66\u96c4\u6cb3\u5ddd\u4e8b\u52d9\u6240","boring_xml_url":40,"boring_view_url":1,"soilmap_view_url":null,"soiltest_xml_url":0,"soiltest_view_url":0},{"id":218317,"code":"B4KJ201801010-6566","latitude":"33.1999094","longitude":"130.11651","source_code":"QS49306039016","project_name":"","survey_name":"\u516d\u89d2\u5ddd\u5730\u8cea\u8abf\u67fb(\u305d\u306e5)\u696d\u52d9","client_name":"\u56fd\u571f\u4ea4\u901a\u7701\u4e5d\u5dde\u5730\u65b9\u6574\u5099\u5c40\u6b66\u96c4\u6cb3\u5ddd\u4e8b\u52d9\u6240","boring_xml_url":40,"boring_view_url":1,"soilmap_view_url":null,"soiltest_xml_url":0,"soiltest_view_url":0},{"id":218316,"code":"B4KJ201801010-6565","latitude":"33.2002706","longitude":"130.1168711","source_code":"QS49306039015","project_name":"","survey_name":"\u516d\u89d2\u5ddd\u5730\u8cea\u8abf\u67fb(\u305d\u306e5)\u696d\u52d9","client_name":"\u56fd\u571f\u4ea4\u901a\u7701\u4e5d\u5dde\u5730\u65b9\u6574\u5099\u5c40\u6b66\u96c4\u6cb3\u5ddd\u4e8b\u52d9\u6240","boring_xml_url":40,"boring_view_url":1,"soilmap_view_url":null,"soiltest_xml_url":0,"soiltest_view_url":0},{"id":218315,"code":"B4KJ201801010-6564","latitude":"33.2003817","longitude":"130.1169267","source_code":"QS49306039014","project_name":"","survey_name":"\u516d\u89d2\u5ddd\u5730\u8cea\u8abf\u67fb(\u305d\u306e5)\u696d\u52d9","client_name":"\u56fd\u571f\u4ea4\u901a\u7701\u4e5d\u5dde\u5730\u65b9\u6574\u5099\u5c40\u6b66\u96c4\u6cb3\u5ddd\u4e8b\u52d9\u6240","boring_xml_url":40,"boring_view_url":1,"soilmap_view_url":null,"soiltest_xml_url":0,"soiltest_view_url":0},{"id":218314,"code":"B4KJ201801010-6563","latitude":"33.2004928","longitude":"130.1171767","source_code":"QS49306039013","project_name":"","survey_name":"\u516d\u89d2\u5ddd\u5730\u8cea\u8abf\u67fb(\u305d\u306e5)\u696d\u52d9","client_name":"\u56fd\u571f\u4ea4\u901a\u7701\u4e5d\u5dde\u5730\u65b9\u6574\u5099\u5c40\u6b66\u96c4\u6cb3\u5ddd\u4e8b\u52d9\u6240","boring_xml_url":40,"boring_view_url":1,"soilmap_view_url":null,"soiltest_xml_url":0,"soiltest_view_url":0},{"id":218313,"code":"B4KJ201801010-6562","latitude":"33.2005761","longitude":"130.1173156","source_code":"QS49306039012","project_name":"","survey_name":"\u516d\u89d2\u5ddd\u5730\u8cea\u8abf\u67fb(\u305d\u306e5)\u696d\u52d9","client_name":"\u56fd\u571f\u4ea4\u901a\u7701\u4e5d\u5dde\u5730\u65b9\u6574\u5099\u5c40\u6b66\u96c4\u6cb3\u5ddd\u4e8b\u52d9\u6240","boring_xml_url":40,"boring_view_url":1,"soilmap_view_url":null,"soiltest_xml_url":0,"soiltest_view_url":0},{"id":218312,"code":"B4KJ201801010-6561","latitude":"33.1991319","longitude":"130.1164544","source_code":"QS49306039011","project_name":"","survey_name":"\u795e\u8fba\u6c34\u9580\u5730\u8cea\u8abf\u67fb\u696d\u52d9","client_name":"\u56fd\u571f\u4ea4\u901a\u7701\u4e5d\u5dde\u5730\u65b9\u6574\u5099\u5c40\u6b66\u96c4\u6cb3\u5ddd\u4e8b\u52d9\u6240","boring_xml_url":40,"boring_view_url":1,"soilmap_view_url":null,"soiltest_xml_url":0,"soiltest_view_url":0},{"id":218311,"code":"B4KJ201801010-6560","latitude":"33.1991319","longitude":"130.1164544","source_code":"QS49306039010","project_name":"","survey_name":"\u795e\u8fba\u6c34\u9580\u5730\u8cea\u8abf\u67fb\u696d\u52d9","client_name":"\u56fd\u571f\u4ea4\u901a\u7701\u4e5d\u5dde\u5730\u65b9\u6574\u5099\u5c40\u6b66\u96c4\u6cb3\u5ddd\u4e8b\u52d9\u6240","boring_xml_url":40,"boring_view_url":1,"soilmap_view_url":null,"soiltest_xml_url":0,"soiltest_view_url":0},{"id":218310,"code":"B4KJ201801010-6559","latitude":"33.2013539","longitude":"130.1143714","source_code":"QS49306039009","project_name":"","survey_name":"\u795e\u8fba\u6c34\u9580\u5730\u8cea\u8abf\u67fb\u696d\u52d9","client_name":"\u56fd\u571f\u4ea4\u901a\u7701\u4e5d\u5dde\u5730\u65b9\u6574\u5099\u5c40\u6b66\u96c4\u6cb3\u5ddd\u4e8b\u52d9\u6240","boring_xml_url":40,"boring_view_url":1,"soilmap_view_url":null,"soiltest_xml_url":0,"soiltest_view_url":0},{"id":218309,"code":"B4KJ201801010-6558","latitude":"33.2026314","longitude":"130.1153433","source_code":"QS49306039008","project_name":"","survey_name":"\u6e80\u6c5f\u6a0b\u7ba1\u59161\u4ef6\u5730\u8cea\u8abf\u67fb\u696d\u52d9","client_name":"\u56fd\u571f\u4ea4\u901a\u7701\u4e5d\u5dde\u5730\u65b9\u6574\u5099\u5c40\u6b66\u96c4\u6cb3\u5ddd\u4e8b\u52d9\u6240","boring_xml_url":40,"boring_view_url":1,"soilmap_view_url":null,"soiltest_xml_url":0,"soiltest_view_url":0},{"id":218308,"code":"B4KJ201801010-6557","latitude":"33.2024092","longitude":"130.1151767","source_code":"QS49306039007","project_name":"","survey_name":"\u6e80\u6c5f\u6a0b\u7ba1\u59161\u4ef6\u5730\u8cea\u8abf\u67fb\u696d\u52d9","client_name":"\u56fd\u571f\u4ea4\u901a\u7701\u4e5d\u5dde\u5730\u65b9\u6574\u5099\u5c40\u6b66\u96c4\u6cb3\u5ddd\u4e8b\u52d9\u6240","boring_xml_url":40,"boring_view_url":1,"soilmap_view_url":null,"soiltest_xml_url":0,"soiltest_view_url":0},{"id":218307,"code":"B4KJ201801010-6556","latitude":"33.1979931","longitude":"130.1208153","source_code":"QS49306039006","project_name":"","survey_name":"\u516d\u89d2\u5ddd\u4e2d\u6d41\u5730\u533a\u53f3\u5cb8\u5730\u8cea\u8abf\u67fb\u696d\u52d9","client_name":"\u56fd\u571f\u4ea4\u901a\u7701\u4e5d\u5dde\u5730\u65b9\u6574\u5099\u5c40\u6b66\u96c4\u6cb3\u5ddd\u4e8b\u52d9\u6240","boring_xml_url":40,"boring_view_url":1,"soilmap_view_url":null,"soiltest_xml_url":0,"soiltest_view_url":0},{"id":218306,"code":"B4KJ201801010-6555","latitude":"33.1996875","longitude":"130.1200097","source_code":"QS49306039005","project_name":"","survey_name":"\u516d\u89d2\u5ddd\u4e2d\u6d41\u5730\u533a\u5de6\u5cb8\u5730\u8cea\u8abf\u67fb\u696d\u52d9","client_name":"\u56fd\u571f\u4ea4\u901a\u7701\u4e5d\u5dde\u5730\u65b9\u6574\u5099\u5c40\u6b66\u96c4\u6cb3\u5ddd\u4e8b\u52d9\u6240","boring_xml_url":40,"boring_view_url":1,"soilmap_view_url":null,"soiltest_xml_url":0,"soiltest_view_url":0}]}}