{"header":{"xyz":{"source":[],"mosaic":false},"page":3409,"raw":{"soiltest_result":"0","bbox":"57.598333,109.544722,1.933333,163.806111","page":"3409"},"conditions":{"soiltest_result":0,"north":57.598333,"west":109.544722,"south":1.933333,"east":163.806111},"success":true,"message":""},"data":{"meta":{"total":212844,"page":3409,"pages":7095,"count":30},"values":[{"id":218305,"code":"B4KJ201801010-6554","latitude":"33.1979375","longitude":"130.1211486","source_code":"QS49306039004","project_name":"","survey_name":"\u4eca\u6cc9\u5730\u533a\u5730\u8cea\u8abf\u67fb\u53ca\u3073\u89e3\u67902\u4ef6","client_name":"\u56fd\u571f\u4ea4\u901a\u7701\u4e5d\u5dde\u5730\u65b9\u6574\u5099\u5c40\u6b66\u96c4\u6cb3\u5ddd\u4e8b\u52d9\u6240","boring_xml_url":40,"boring_view_url":1,"soilmap_view_url":null,"soiltest_xml_url":0,"soiltest_view_url":0},{"id":218304,"code":"B4KJ201801010-6553","latitude":"33.1981597","longitude":"130.1210931","source_code":"QS49306039003","project_name":"","survey_name":"\u4eca\u6cc9\u5730\u533a\u5730\u8cea\u8abf\u67fb\u53ca\u3073\u89e3\u67902\u4ef6","client_name":"\u56fd\u571f\u4ea4\u901a\u7701\u4e5d\u5dde\u5730\u65b9\u6574\u5099\u5c40\u6b66\u96c4\u6cb3\u5ddd\u4e8b\u52d9\u6240","boring_xml_url":40,"boring_view_url":1,"soilmap_view_url":null,"soiltest_xml_url":0,"soiltest_view_url":0},{"id":218303,"code":"B4KJ201801010-6552","latitude":"33.1982708","longitude":"130.1210375","source_code":"QS49306039002","project_name":"","survey_name":"\u4eca\u6cc9\u5730\u533a\u5730\u8cea\u8abf\u67fb\u53ca\u3073\u89e3\u67902\u4ef6","client_name":"\u56fd\u571f\u4ea4\u901a\u7701\u4e5d\u5dde\u5730\u65b9\u6574\u5099\u5c40\u6b66\u96c4\u6cb3\u5ddd\u4e8b\u52d9\u6240","boring_xml_url":40,"boring_view_url":1,"soilmap_view_url":null,"soiltest_xml_url":0,"soiltest_view_url":0},{"id":218302,"code":"B4KJ201801010-6551","latitude":"33.2031036","longitude":"130.1097883","source_code":"QS49306038012","project_name":"","survey_name":"\u516d\u89d2\u5ddd\u5730\u8cea\u8abf\u67fb(\u305d\u306e6)\u696d\u52d9","client_name":"\u56fd\u571f\u4ea4\u901a\u7701\u4e5d\u5dde\u5730\u65b9\u6574\u5099\u5c40\u6b66\u96c4\u6cb3\u5ddd\u4e8b\u52d9\u6240","boring_xml_url":40,"boring_view_url":1,"soilmap_view_url":null,"soiltest_xml_url":0,"soiltest_view_url":0},{"id":218301,"code":"B4KJ201801010-6550","latitude":"33.2032147","longitude":"130.1098717","source_code":"QS49306038011","project_name":"","survey_name":"\u516d\u89d2\u5ddd\u5730\u8cea\u8abf\u67fb(\u305d\u306e6)\u696d\u52d9","client_name":"\u56fd\u571f\u4ea4\u901a\u7701\u4e5d\u5dde\u5730\u65b9\u6574\u5099\u5c40\u6b66\u96c4\u6cb3\u5ddd\u4e8b\u52d9\u6240","boring_xml_url":40,"boring_view_url":1,"soilmap_view_url":null,"soiltest_xml_url":0,"soiltest_view_url":0},{"id":218300,"code":"B4KJ201801010-6549","latitude":"33.2019925","longitude":"130.1035944","source_code":"QS49306038010","project_name":"","survey_name":"\u516d\u89d2\u5ddd\u5730\u8cea\u8abf\u67fb(\u305d\u306e8)\u696d\u52d9","client_name":"\u56fd\u571f\u4ea4\u901a\u7701\u4e5d\u5dde\u5730\u65b9\u6574\u5099\u5c40\u6b66\u96c4\u6cb3\u5ddd\u4e8b\u52d9\u6240","boring_xml_url":40,"boring_view_url":1,"soilmap_view_url":null,"soiltest_xml_url":0,"soiltest_view_url":0},{"id":218299,"code":"B4KJ201801010-6548","latitude":"33.2021592","longitude":"130.1035944","source_code":"QS49306038009","project_name":"","survey_name":"\u516d\u89d2\u5ddd\u5730\u8cea\u8abf\u67fb(\u305d\u306e8)\u696d\u52d9","client_name":"\u56fd\u571f\u4ea4\u901a\u7701\u4e5d\u5dde\u5730\u65b9\u6574\u5099\u5c40\u6b66\u96c4\u6cb3\u5ddd\u4e8b\u52d9\u6240","boring_xml_url":40,"boring_view_url":1,"soilmap_view_url":null,"soiltest_xml_url":0,"soiltest_view_url":0},{"id":218298,"code":"B4KJ201801010-6547","latitude":"33.2023256","longitude":"130.1036222","source_code":"QS49306038008","project_name":"","survey_name":"\u516d\u89d2\u5ddd\u5730\u8cea\u8abf\u67fb(\u305d\u306e8)\u696d\u52d9","client_name":"\u56fd\u571f\u4ea4\u901a\u7701\u4e5d\u5dde\u5730\u65b9\u6574\u5099\u5c40\u6b66\u96c4\u6cb3\u5ddd\u4e8b\u52d9\u6240","boring_xml_url":40,"boring_view_url":1,"soilmap_view_url":null,"soiltest_xml_url":0,"soiltest_view_url":0},{"id":218297,"code":"B4KJ201801010-6546","latitude":"33.2025478","longitude":"130.1036222","source_code":"QS49306038007","project_name":"","survey_name":"\u516d\u89d2\u5ddd\u5730\u8cea\u8abf\u67fb(\u305d\u306e6)\u696d\u52d9","client_name":"\u56fd\u571f\u4ea4\u901a\u7701\u4e5d\u5dde\u5730\u65b9\u6574\u5099\u5c40\u6b66\u96c4\u6cb3\u5ddd\u4e8b\u52d9\u6240","boring_xml_url":40,"boring_view_url":1,"soilmap_view_url":null,"soiltest_xml_url":0,"soiltest_view_url":0},{"id":218296,"code":"B4KJ201801010-6545","latitude":"33.20277","longitude":"130.1036778","source_code":"QS49306038006","project_name":"","survey_name":"\u516d\u89d2\u5ddd\u5730\u8cea\u8abf\u67fb(\u305d\u306e8)\u696d\u52d9","client_name":"\u56fd\u571f\u4ea4\u901a\u7701\u4e5d\u5dde\u5730\u65b9\u6574\u5099\u5c40\u6b66\u96c4\u6cb3\u5ddd\u4e8b\u52d9\u6240","boring_xml_url":40,"boring_view_url":1,"soilmap_view_url":null,"soiltest_xml_url":0,"soiltest_view_url":0},{"id":218295,"code":"B4KJ201801010-6544","latitude":"33.2031033","longitude":"130.1036778","source_code":"QS49306038005","project_name":"","survey_name":"\u516d\u89d2\u5ddd\u5730\u8cea\u8abf\u67fb(\u305d\u306e8)\u696d\u52d9","client_name":"\u56fd\u571f\u4ea4\u901a\u7701\u4e5d\u5dde\u5730\u65b9\u6574\u5099\u5c40\u6b66\u96c4\u6cb3\u5ddd\u4e8b\u52d9\u6240","boring_xml_url":40,"boring_view_url":1,"soilmap_view_url":null,"soiltest_xml_url":0,"soiltest_view_url":0},{"id":218294,"code":"B4KJ201801010-6543","latitude":"33.2028533","longitude":"130.1009281","source_code":"QS49306038004","project_name":"","survey_name":"\u6e80\u6c5f\u59161\u5730\u533a\u5730\u8cea\u8abf\u67fb\u53ca\u3073\u89e3\u6790\u696d\u52d9","client_name":"\u56fd\u571f\u4ea4\u901a\u7701\u4e5d\u5dde\u5730\u65b9\u6574\u5099\u5c40\u6b66\u96c4\u6cb3\u5ddd\u4e8b\u52d9\u6240","boring_xml_url":40,"boring_view_url":1,"soilmap_view_url":null,"soiltest_xml_url":0,"soiltest_view_url":0},{"id":218293,"code":"B4KJ201801010-6542","latitude":"33.2029644","longitude":"130.1009281","source_code":"QS49306038003","project_name":"","survey_name":"\u6e80\u6c5f\u59161\u5730\u533a\u5730\u8cea\u8abf\u67fb\u53ca\u3073\u89e3\u6790\u696d\u52d9","client_name":"\u56fd\u571f\u4ea4\u901a\u7701\u4e5d\u5dde\u5730\u65b9\u6574\u5099\u5c40\u6b66\u96c4\u6cb3\u5ddd\u4e8b\u52d9\u6240","boring_xml_url":40,"boring_view_url":1,"soilmap_view_url":null,"soiltest_xml_url":0,"soiltest_view_url":0},{"id":218292,"code":"B4KJ201801010-6541","latitude":"33.2022978","longitude":"130.0997336","source_code":"QS49306038002","project_name":"","survey_name":"\u559c\u4f50\u6728\u6392\u6c34\u6a0b\u7ba1\u5730\u8cea\u8abf\u67fb\u696d\u52d9","client_name":"\u56fd\u571f\u4ea4\u901a\u7701\u4e5d\u5dde\u5730\u65b9\u6574\u5099\u5c40\u6b66\u96c4\u6cb3\u5ddd\u4e8b\u52d9\u6240","boring_xml_url":40,"boring_view_url":1,"soilmap_view_url":null,"soiltest_xml_url":0,"soiltest_view_url":0},{"id":218291,"code":"B4KJ201801010-6540","latitude":"33.2022978","longitude":"130.0997336","source_code":"QS49306038001","project_name":"","survey_name":"\u559c\u4f50\u6728\u6392\u6c34\u6a0b\u7ba1\u5730\u8cea\u8abf\u67fb\u696d\u52d9","client_name":"\u56fd\u571f\u4ea4\u901a\u7701\u4e5d\u5dde\u5730\u65b9\u6574\u5099\u5c40\u6b66\u96c4\u6cb3\u5ddd\u4e8b\u52d9\u6240","boring_xml_url":40,"boring_view_url":1,"soilmap_view_url":null,"soiltest_xml_url":0,"soiltest_view_url":0},{"id":218290,"code":"B4KJ201801010-6539","latitude":"33.1982975","longitude":"130.0544325","source_code":"QS49306034007","project_name":"","survey_name":"\u516d\u89d2\u5ddd\u5730\u8cea\u8abf\u67fb(\u305d\u306e12)\u696d\u52d9","client_name":"\u56fd\u571f\u4ea4\u901a\u7701\u4e5d\u5dde\u5730\u65b9\u6574\u5099\u5c40\u6b66\u96c4\u6cb3\u5ddd\u4e8b\u52d9\u6240","boring_xml_url":40,"boring_view_url":1,"soilmap_view_url":null,"soiltest_xml_url":0,"soiltest_view_url":0},{"id":218289,"code":"B4KJ201801010-6538","latitude":"33.1982975","longitude":"130.0544325","source_code":"QS49306034006","project_name":"","survey_name":"\u516d\u89d2\u5ddd\u5730\u8cea\u8abf\u67fb(\u305d\u306e12)\u696d\u52d9","client_name":"\u56fd\u571f\u4ea4\u901a\u7701\u4e5d\u5dde\u5730\u65b9\u6574\u5099\u5c40\u6b66\u96c4\u6cb3\u5ddd\u4e8b\u52d9\u6240","boring_xml_url":40,"boring_view_url":1,"soilmap_view_url":null,"soiltest_xml_url":0,"soiltest_view_url":0},{"id":218288,"code":"B4KJ201801010-6537","latitude":"33.1982975","longitude":"130.0544325","source_code":"QS49306034005","project_name":"","survey_name":"\u516d\u89d2\u5ddd\u5730\u8cea\u8abf\u67fb(\u305d\u306e12)\u696d\u52d9","client_name":"\u56fd\u571f\u4ea4\u901a\u7701\u4e5d\u5dde\u5730\u65b9\u6574\u5099\u5c40\u6b66\u96c4\u6cb3\u5ddd\u4e8b\u52d9\u6240","boring_xml_url":40,"boring_view_url":1,"soilmap_view_url":null,"soiltest_xml_url":0,"soiltest_view_url":0},{"id":218287,"code":"B4KJ201801010-6536","latitude":"33.1982975","longitude":"130.0544325","source_code":"QS49306034004","project_name":"","survey_name":"\u516d\u89d2\u5ddd\u5730\u8cea\u8abf\u67fb(\u305d\u306e12)\u696d\u52d9","client_name":"\u56fd\u571f\u4ea4\u901a\u7701\u4e5d\u5dde\u5730\u65b9\u6574\u5099\u5c40\u6b66\u96c4\u6cb3\u5ddd\u4e8b\u52d9\u6240","boring_xml_url":40,"boring_view_url":1,"soilmap_view_url":null,"soiltest_xml_url":0,"soiltest_view_url":0},{"id":218286,"code":"B4KJ201801010-6535","latitude":"33.1982975","longitude":"130.0544325","source_code":"QS49306034003","project_name":"","survey_name":"\u516d\u89d2\u5ddd\u5730\u8cea\u8abf\u67fb(\u305d\u306e12)\u696d\u52d9","client_name":"\u56fd\u571f\u4ea4\u901a\u7701\u4e5d\u5dde\u5730\u65b9\u6574\u5099\u5c40\u6b66\u96c4\u6cb3\u5ddd\u4e8b\u52d9\u6240","boring_xml_url":40,"boring_view_url":1,"soilmap_view_url":null,"soiltest_xml_url":0,"soiltest_view_url":0},{"id":218285,"code":"B4KJ201801010-6534","latitude":"33.1982975","longitude":"130.0536269","source_code":"QS49306034002","project_name":"","survey_name":"\u516d\u89d2\u5ddd\u5730\u8cea\u8abf\u67fb(\u305d\u306e12)\u696d\u52d9","client_name":"\u56fd\u571f\u4ea4\u901a\u7701\u4e5d\u5dde\u5730\u65b9\u6574\u5099\u5c40\u6b66\u96c4\u6cb3\u5ddd\u4e8b\u52d9\u6240","boring_xml_url":40,"boring_view_url":1,"soilmap_view_url":null,"soiltest_xml_url":0,"soiltest_view_url":0},{"id":218284,"code":"B4KJ201801010-6533","latitude":"33.1982975","longitude":"130.0544325","source_code":"QS49306034001","project_name":"","survey_name":"\u516d\u89d2\u5ddd\u5730\u8cea\u8abf\u67fb(\u305d\u306e12)\u696d\u52d9","client_name":"\u56fd\u571f\u4ea4\u901a\u7701\u4e5d\u5dde\u5730\u65b9\u6574\u5099\u5c40\u6b66\u96c4\u6cb3\u5ddd\u4e8b\u52d9\u6240","boring_xml_url":40,"boring_view_url":1,"soilmap_view_url":null,"soiltest_xml_url":0,"soiltest_view_url":0},{"id":218283,"code":"B4KJ201801010-6532","latitude":"33.20263","longitude":"130.0432111","source_code":"QS49306033011","project_name":"","survey_name":"\u4e0a\u529b\u6a4b\u5730\u8cea\u8abf\u67fb\u696d\u52d9","client_name":"\u56fd\u571f\u4ea4\u901a\u7701\u4e5d\u5dde\u5730\u65b9\u6574\u5099\u5c40\u6b66\u96c4\u6cb3\u5ddd\u4e8b\u52d9\u6240","boring_xml_url":40,"boring_view_url":1,"soilmap_view_url":null,"soiltest_xml_url":0,"soiltest_view_url":0},{"id":218282,"code":"B4KJ201801010-6531","latitude":"33.20263","longitude":"130.0432111","source_code":"QS49306033010","project_name":"","survey_name":"\u4e0a\u529b\u6a4b\u5730\u8cea\u8abf\u67fb\u696d\u52d9","client_name":"\u56fd\u571f\u4ea4\u901a\u7701\u4e5d\u5dde\u5730\u65b9\u6574\u5099\u5c40\u6b66\u96c4\u6cb3\u5ddd\u4e8b\u52d9\u6240","boring_xml_url":40,"boring_view_url":1,"soilmap_view_url":null,"soiltest_xml_url":0,"soiltest_view_url":0},{"id":218281,"code":"B4KJ201801010-6530","latitude":"33.20263","longitude":"130.0432111","source_code":"QS49306033009","project_name":"","survey_name":"\u4e0a\u529b\u6a4b\u5730\u8cea\u8abf\u67fb\u696d\u52d9","client_name":"\u56fd\u571f\u4ea4\u901a\u7701\u4e5d\u5dde\u5730\u65b9\u6574\u5099\u5c40\u6b66\u96c4\u6cb3\u5ddd\u4e8b\u52d9\u6240","boring_xml_url":40,"boring_view_url":1,"soilmap_view_url":null,"soiltest_xml_url":0,"soiltest_view_url":0},{"id":218280,"code":"B4KJ201801010-6529","latitude":"33.1991306","longitude":"130.0414614","source_code":"QS49306033008","project_name":"","survey_name":"\u5e73\u6210\u5143\u5e74\u5ea6\u6cb3\u5ddd\u69cb\u9020\u7269\u5468\u8fba\u6f0f\u6c34\u8abf\u67fb\u696d\u52d9","client_name":"\u56fd\u571f\u4ea4\u901a\u7701\u4e5d\u5dde\u5730\u65b9\u6574\u5099\u5c40\u4e5d\u5dde\u6280\u8853\u4e8b\u52d9\u6240","boring_xml_url":40,"boring_view_url":1,"soilmap_view_url":null,"soiltest_xml_url":0,"soiltest_view_url":0},{"id":218279,"code":"B4KJ201801010-6528","latitude":"33.20288","longitude":"130.0432944","source_code":"QS49306033007","project_name":"","survey_name":"\u516d\u89d2\u5ddd\u6f6e\u898b\u5730\u533a\u59161\u4ef6\u5730\u8cea\u8abf\u67fb\u53ca\u3073\u89e3\u6790","client_name":"\u56fd\u571f\u4ea4\u901a\u7701\u4e5d\u5dde\u5730\u65b9\u6574\u5099\u5c40\u6b66\u96c4\u6cb3\u5ddd\u4e8b\u52d9\u6240","boring_xml_url":40,"boring_view_url":1,"soilmap_view_url":null,"soiltest_xml_url":0,"soiltest_view_url":0},{"id":218278,"code":"B4KJ201801010-6527","latitude":"33.2026578","longitude":"130.0430167","source_code":"QS49306033006","project_name":"","survey_name":"\u516d\u89d2\u5ddd\u6f6e\u898b\u5730\u533a\u59161\u4ef6\u5730\u8cea\u8abf\u67fb\u53ca\u3073\u89e3\u6790","client_name":"\u56fd\u571f\u4ea4\u901a\u7701\u4e5d\u5dde\u5730\u65b9\u6574\u5099\u5c40\u6b66\u96c4\u6cb3\u5ddd\u4e8b\u52d9\u6240","boring_xml_url":40,"boring_view_url":1,"soilmap_view_url":null,"soiltest_xml_url":0,"soiltest_view_url":0},{"id":218277,"code":"B4KJ201801010-6526","latitude":"33.2027689","longitude":"130.0427667","source_code":"QS49306033005","project_name":"","survey_name":"\u516d\u89d2\u5ddd\u6f6e\u898b\u5730\u533a\u59161\u4ef6\u5730\u8cea\u8abf\u67fb\u53ca\u3073\u89e3\u6790","client_name":"\u56fd\u571f\u4ea4\u901a\u7701\u4e5d\u5dde\u5730\u65b9\u6574\u5099\u5c40\u6b66\u96c4\u6cb3\u5ddd\u4e8b\u52d9\u6240","boring_xml_url":40,"boring_view_url":1,"soilmap_view_url":null,"soiltest_xml_url":0,"soiltest_view_url":0},{"id":218276,"code":"B4KJ201801010-6525","latitude":"33.2030744","longitude":"130.0440442","source_code":"QS49306033004","project_name":"","survey_name":"\u6b66\u96c4\u5ddd\u5730\u8cea\u8abf\u67fb\u53ca\u3073\u89e3\u6790\u696d\u52d9","client_name":"\u56fd\u571f\u4ea4\u901a\u7701\u4e5d\u5dde\u5730\u65b9\u6574\u5099\u5c40\u6b66\u96c4\u6cb3\u5ddd\u4e8b\u52d9\u6240","boring_xml_url":40,"boring_view_url":1,"soilmap_view_url":null,"soiltest_xml_url":0,"soiltest_view_url":0}]}}