{"header":{"xyz":{"source":[],"mosaic":false},"page":3427,"raw":{"soiltest_result":"0","bbox":"57.598333,109.544722,1.933333,163.806111","page":"3427"},"conditions":{"soiltest_result":0,"north":57.598333,"west":109.544722,"south":1.933333,"east":163.806111},"success":true,"message":""},"data":{"meta":{"total":212844,"page":3427,"pages":7095,"count":30},"values":[{"id":217765,"code":"B4KJ201801010-6014","latitude":"33.012028","longitude":"130.837867","source_code":"QS49304617001","project_name":"","survey_name":"\u4e0d\u7279\u5b9a\u7528\u6c34\u88dc\u7d66\u6c34\u8def(\u96ea\u91ce\u5730\u533a)\u5730\u8cea\u8abf\u67fb\u696d\u52d9","client_name":"\u56fd\u571f\u4ea4\u901a\u7701\u4e5d\u5dde\u5730\u65b9\u6574\u5099\u5c40\u7adc\u9580\u30c0\u30e0\u5de5\u4e8b\u4e8b\u52d9\u6240","boring_xml_url":40,"boring_view_url":1,"soilmap_view_url":null,"soiltest_xml_url":0,"soiltest_view_url":0},{"id":217764,"code":"B4KJ201801010-6013","latitude":"33.0100839","longitude":"130.8635589","source_code":"QS49304609002","project_name":"","survey_name":"\u9db4\u7530\u5e78\u53c8\u5730\u533a\u6052\u4e45\u5bfe\u7b56\u5730\u8cea\u8abf\u67fb\u696d\u52d9","client_name":"\u56fd\u571f\u4ea4\u901a\u7701\u4e5d\u5dde\u5730\u65b9\u6574\u5099\u5c40\u7adc\u9580\u30c0\u30e0\u5de5\u4e8b\u4e8b\u52d9\u6240","boring_xml_url":40,"boring_view_url":1,"soilmap_view_url":null,"soiltest_xml_url":0,"soiltest_view_url":0},{"id":217763,"code":"B4KJ201801010-6012","latitude":"33.0509928","longitude":"130.6877681","source_code":"QS49304555003","project_name":"","survey_name":"\u718a\u672c3\u53f7\u6c60\u7530\u6a4b\u5730\u8cea\u8abf\u67fb\u696d\u52d9","client_name":"\u56fd\u571f\u4ea4\u901a\u7701\u4e5d\u5dde\u5730\u65b9\u6574\u5099\u5c40\u718a\u672c\u6cb3\u5ddd\u56fd\u9053\u4e8b\u52d9\u6240","boring_xml_url":40,"boring_view_url":1,"soilmap_view_url":null,"soiltest_xml_url":0,"soiltest_view_url":0},{"id":217762,"code":"B4KJ201801010-6011","latitude":"33.0512706","longitude":"130.6877403","source_code":"QS49304555002","project_name":"","survey_name":"\u718a\u672c3\u53f7\u6c60\u7530\u6a4b\u5730\u8cea\u8abf\u67fb\u696d\u52d9","client_name":"\u56fd\u571f\u4ea4\u901a\u7701\u4e5d\u5dde\u5730\u65b9\u6574\u5099\u5c40\u718a\u672c\u6cb3\u5ddd\u56fd\u9053\u4e8b\u52d9\u6240","boring_xml_url":40,"boring_view_url":1,"soilmap_view_url":null,"soiltest_xml_url":0,"soiltest_view_url":0},{"id":217761,"code":"B4KJ201801010-6010","latitude":"33.0516592","longitude":"130.6875736","source_code":"QS49304555001","project_name":"","survey_name":"\u718a\u672c3\u53f7\u6c60\u7530\u6a4b\u5730\u8cea\u8abf\u67fb\u696d\u52d9","client_name":"\u56fd\u571f\u4ea4\u901a\u7701\u4e5d\u5dde\u5730\u65b9\u6574\u5099\u5c40\u718a\u672c\u6cb3\u5ddd\u56fd\u9053\u4e8b\u52d9\u6240","boring_xml_url":40,"boring_view_url":1,"soilmap_view_url":null,"soiltest_xml_url":0,"soiltest_view_url":0},{"id":217760,"code":"B4KJ201801010-6009","latitude":"33.0470764","longitude":"130.6802133","source_code":"QS49304554003","project_name":"","survey_name":"\u4e0b\u6d25\u7559\u6a0b\u7ba1\u59161\u30b1\u6240\u5730\u8cea\u8abf\u67fb\u696d\u52d9","client_name":"\u56fd\u571f\u4ea4\u901a\u7701\u4e5d\u5dde\u5730\u65b9\u6574\u5099\u5c40\u83ca\u6c60\u5ddd\u6cb3\u5ddd\u4e8b\u52d9\u6240","boring_xml_url":40,"boring_view_url":1,"soilmap_view_url":null,"soiltest_xml_url":0,"soiltest_view_url":0},{"id":217759,"code":"B4KJ201801010-6008","latitude":"33.0480761","longitude":"130.6807131","source_code":"QS49304554002","project_name":"","survey_name":"\u516b\u5e61\u7b2c2\u6a0b\u7ba1\u59161\u30b1\u6240","client_name":"\u56fd\u571f\u4ea4\u901a\u7701\u4e5d\u5dde\u5730\u65b9\u6574\u5099\u5c40\u83ca\u6c60\u5ddd\u6cb3\u5ddd\u4e8b\u52d9\u6240","boring_xml_url":40,"boring_view_url":1,"soilmap_view_url":null,"soiltest_xml_url":0,"soiltest_view_url":0},{"id":217758,"code":"B4KJ201801010-6007","latitude":"33.0480761","longitude":"130.6807131","source_code":"QS49304554001","project_name":"","survey_name":"\u516b\u5e61\u7b2c2\u6a0b\u7ba1\u59161\u30b1\u6240","client_name":"\u56fd\u571f\u4ea4\u901a\u7701\u4e5d\u5dde\u5730\u65b9\u6574\u5099\u5c40\u83ca\u6c60\u5ddd\u6cb3\u5ddd\u4e8b\u52d9\u6240","boring_xml_url":40,"boring_view_url":1,"soilmap_view_url":null,"soiltest_xml_url":0,"soiltest_view_url":0},{"id":217757,"code":"B4KJ201801010-6006","latitude":"33.0368553","longitude":"130.676075","source_code":"QS49304544003","project_name":"","survey_name":"\u4e0b\u6d25\u7559\u6a0b\u7ba1\u59161\u30b1\u6240\u5730\u8cea\u8abf\u67fb\u696d\u52d9","client_name":"\u56fd\u571f\u4ea4\u901a\u7701\u4e5d\u5dde\u5730\u65b9\u6574\u5099\u5c40\u83ca\u6c60\u5ddd\u6cb3\u5ddd\u4e8b\u52d9\u6240","boring_xml_url":40,"boring_view_url":1,"soilmap_view_url":null,"soiltest_xml_url":0,"soiltest_view_url":0},{"id":217756,"code":"B4KJ201801010-6005","latitude":"33.0405492","longitude":"130.6763528","source_code":"QS49304544002","project_name":"","survey_name":"\u5c0f\u9ce5\u6392\u6c34\u6a0b\u7ba1\u59161\u30b1\u6240\u5730\u8cea\u8abf\u67fb\u696d\u52d9","client_name":"\u56fd\u571f\u4ea4\u901a\u7701\u4e5d\u5dde\u5730\u65b9\u6574\u5099\u5c40\u83ca\u6c60\u5ddd\u6cb3\u5ddd\u4e8b\u52d9\u6240","boring_xml_url":40,"boring_view_url":1,"soilmap_view_url":null,"soiltest_xml_url":0,"soiltest_view_url":0},{"id":217755,"code":"B4KJ201801010-6004","latitude":"33.0401881","longitude":"130.6763528","source_code":"QS49304544001","project_name":"","survey_name":"\u5c0f\u9ce5\u6392\u6c34\u6a0b\u7ba1\u59161\u30b1\u6240\u5730\u8cea\u8abf\u67fb\u696d\u52d9","client_name":"\u56fd\u571f\u4ea4\u901a\u7701\u4e5d\u5dde\u5730\u65b9\u6574\u5099\u5c40\u83ca\u6c60\u5ddd\u6cb3\u5ddd\u4e8b\u52d9\u6240","boring_xml_url":40,"boring_view_url":1,"soilmap_view_url":null,"soiltest_xml_url":0,"soiltest_view_url":0},{"id":217754,"code":"B4KJ201801010-6003","latitude":"33.0343833","longitude":"130.6752419","source_code":"QS49304534003","project_name":"","survey_name":"\u516b\u5e61\u7b2c2\u6a0b\u7ba1\u59161\u30b1\u6240","client_name":"\u56fd\u571f\u4ea4\u901a\u7701\u4e5d\u5dde\u5730\u65b9\u6574\u5099\u5c40\u83ca\u6c60\u5ddd\u6cb3\u5ddd\u4e8b\u52d9\u6240","boring_xml_url":40,"boring_view_url":1,"soilmap_view_url":null,"soiltest_xml_url":0,"soiltest_view_url":0},{"id":217753,"code":"B4KJ201801010-6002","latitude":"33.0343833","longitude":"130.6752419","source_code":"QS49304534002","project_name":"","survey_name":"\u516b\u5e61\u7b2c2\u6a0b\u7ba1\u59161\u30b1\u6240","client_name":"\u56fd\u571f\u4ea4\u901a\u7701\u4e5d\u5dde\u5730\u65b9\u6574\u5099\u5c40\u83ca\u6c60\u5ddd\u6cb3\u5ddd\u4e8b\u52d9\u6240","boring_xml_url":40,"boring_view_url":1,"soilmap_view_url":null,"soiltest_xml_url":0,"soiltest_view_url":0},{"id":217752,"code":"B4KJ201801010-6001","latitude":"33.0306058","longitude":"130.6727422","source_code":"QS49304534001","project_name":"","survey_name":"\u3061\u3076\u3055\u3093\u7b2c1\u30fb\u7b2c2\u6392\u6c34\u6a0b\u7ba1\u5730\u8cea\u8abf\u67fb\u696d\u52d9","client_name":"\u56fd\u571f\u4ea4\u901a\u7701\u4e5d\u5dde\u5730\u65b9\u6574\u5099\u5c40\u83ca\u6c60\u5ddd\u6cb3\u5ddd\u4e8b\u52d9\u6240","boring_xml_url":40,"boring_view_url":1,"soilmap_view_url":null,"soiltest_xml_url":0,"soiltest_view_url":0},{"id":217751,"code":"B4KJ201801010-6000","latitude":"33.0236344","longitude":"130.6711314","source_code":"QS49304523004","project_name":"","survey_name":"\u77f3\u6a0b\u7ba1\u59161\u30f6\u6240\u5730\u8cea\u8abf\u67fb\u696d\u52d9","client_name":"\u56fd\u571f\u4ea4\u901a\u7701\u4e5d\u5dde\u5730\u65b9\u6574\u5099\u5c40\u83ca\u6c60\u5ddd\u6cb3\u5ddd\u4e8b\u52d9\u6240","boring_xml_url":40,"boring_view_url":1,"soilmap_view_url":null,"soiltest_xml_url":0,"soiltest_view_url":0},{"id":217750,"code":"B4KJ201801010-5999","latitude":"33.0237456","longitude":"130.6708814","source_code":"QS49304523003","project_name":"","survey_name":"\u77f3\u6a0b\u7ba1\u59161\u30f6\u6240\u5730\u8cea\u8abf\u67fb\u696d\u52d9","client_name":"\u56fd\u571f\u4ea4\u901a\u7701\u4e5d\u5dde\u5730\u65b9\u6574\u5099\u5c40\u83ca\u6c60\u5ddd\u6cb3\u5ddd\u4e8b\u52d9\u6240","boring_xml_url":40,"boring_view_url":1,"soilmap_view_url":null,"soiltest_xml_url":0,"soiltest_view_url":0},{"id":217749,"code":"B4KJ201801010-5998","latitude":"33.0275783","longitude":"130.6719367","source_code":"QS49304523002","project_name":"","survey_name":"\u3061\u3076\u3055\u3093\u7b2c1\u30fb\u7b2c2\u6392\u6c34\u6a0b\u7ba1\u5730\u8cea\u8abf\u67fb\u696d\u52d9","client_name":"\u56fd\u571f\u4ea4\u901a\u7701\u4e5d\u5dde\u5730\u65b9\u6574\u5099\u5c40\u83ca\u6c60\u5ddd\u6cb3\u5ddd\u4e8b\u52d9\u6240","boring_xml_url":40,"boring_view_url":1,"soilmap_view_url":null,"soiltest_xml_url":0,"soiltest_view_url":0},{"id":217748,"code":"B4KJ201801010-5997","latitude":"33.0276894","longitude":"130.6716589","source_code":"QS49304523001","project_name":"","survey_name":"\u3061\u3076\u3055\u3093\u7b2c1\u30fb\u7b2c2\u6392\u6c34\u6a0b\u7ba1\u5730\u8cea\u8abf\u67fb\u696d\u52d9","client_name":"\u56fd\u571f\u4ea4\u901a\u7701\u4e5d\u5dde\u5730\u65b9\u6574\u5099\u5c40\u83ca\u6c60\u5ddd\u6cb3\u5ddd\u4e8b\u52d9\u6240","boring_xml_url":40,"boring_view_url":1,"soilmap_view_url":null,"soiltest_xml_url":0,"soiltest_view_url":0},{"id":217747,"code":"B4KJ201801010-5996","latitude":"33.0205508","longitude":"130.6329958","source_code":"QS49304520006","project_name":"","survey_name":"\u693f\u4e95\u7b2c\u4e00\u6392\u6c34\u6a0b\u7ba1\u5730\u8cea\u8abf\u67fb\u696d\u52d9","client_name":"\u56fd\u571f\u4ea4\u901a\u7701\u4e5d\u5dde\u5730\u65b9\u6574\u5099\u5c40\u83ca\u6c60\u5ddd\u6cb3\u5ddd\u4e8b\u52d9\u6240","boring_xml_url":40,"boring_view_url":1,"soilmap_view_url":null,"soiltest_xml_url":0,"soiltest_view_url":0},{"id":217746,"code":"B4KJ201801010-5995","latitude":"33.0204397","longitude":"130.6328572","source_code":"QS49304520005","project_name":"","survey_name":"\u693f\u4e95\u7b2c\u4e00\u6392\u6c34\u6a0b\u7ba1\u5730\u8cea\u8abf\u67fb\u696d\u52d9","client_name":"\u56fd\u571f\u4ea4\u901a\u7701\u4e5d\u5dde\u5730\u65b9\u6574\u5099\u5c40\u83ca\u6c60\u5ddd\u6cb3\u5ddd\u4e8b\u52d9\u6240","boring_xml_url":40,"boring_view_url":1,"soilmap_view_url":null,"soiltest_xml_url":0,"soiltest_view_url":0},{"id":217745,"code":"B4KJ201801010-5994","latitude":"33.0239669","longitude":"130.6256078","source_code":"QS49304520004","project_name":"","survey_name":"\u83f0\u7530\u7b2c\u4e8c\u6392\u6c34\u6a0b\u7ba1\u5730\u8cea\u8abf\u67fb\u696d\u52d9","client_name":"\u56fd\u571f\u4ea4\u901a\u7701\u4e5d\u5dde\u5730\u65b9\u6574\u5099\u5c40\u83ca\u6c60\u5ddd\u6cb3\u5ddd\u4e8b\u52d9\u6240","boring_xml_url":40,"boring_view_url":1,"soilmap_view_url":null,"soiltest_xml_url":0,"soiltest_view_url":0},{"id":217744,"code":"B4KJ201801010-5993","latitude":"33.0238558","longitude":"130.6258575","source_code":"QS49304520003","project_name":"","survey_name":"\u83f0\u7530\u7b2c2\u6392\u6c34\u6a0b\u7ba1\u5730\u8cea\u8abf\u67fb\u696d\u52d9","client_name":"\u56fd\u571f\u4ea4\u901a\u7701\u4e5d\u5dde\u5730\u65b9\u6574\u5099\u5c40\u83ca\u6c60\u5ddd\u6cb3\u5ddd\u4e8b\u52d9\u6240","boring_xml_url":40,"boring_view_url":1,"soilmap_view_url":null,"soiltest_xml_url":0,"soiltest_view_url":0},{"id":217743,"code":"B4KJ201801010-5992","latitude":"33.0236614","longitude":"130.6236633","source_code":"QS49304520002","project_name":"","survey_name":"\u83f0\u7530\u6392\u6c34\u6a0b\u7ba1\u59162\u4ef6\u5730\u8cea\u8abf\u67fb\u696d\u52d9","client_name":"\u56fd\u571f\u4ea4\u901a\u7701\u4e5d\u5dde\u5730\u65b9\u6574\u5099\u5c40\u83ca\u6c60\u5ddd\u6cb3\u5ddd\u4e8b\u52d9\u6240","boring_xml_url":40,"boring_view_url":1,"soilmap_view_url":null,"soiltest_xml_url":0,"soiltest_view_url":0},{"id":217742,"code":"B4KJ201801010-5991","latitude":"33.0235225","longitude":"130.6236633","source_code":"QS49304520001","project_name":"","survey_name":"\u83f0\u7530\u6392\u6c34\u6a0b\u7ba1\u59162\u4ef6\u5730\u8cea\u8abf\u67fb\u696d\u52d9","client_name":"\u56fd\u571f\u4ea4\u901a\u7701\u4e5d\u5dde\u5730\u65b9\u6574\u5099\u5c40\u83ca\u6c60\u5ddd\u6cb3\u5ddd\u4e8b\u52d9\u6240","boring_xml_url":40,"boring_view_url":1,"soilmap_view_url":null,"soiltest_xml_url":0,"soiltest_view_url":0},{"id":217741,"code":"B4KJ201801010-5990","latitude":"33.0163858","longitude":"130.7044897","source_code":"QS49304516003","project_name":"","survey_name":"\u6817\u6797\u5bbf\u820e\u59161\u30b1\u6240\u5730\u8cea\u8abf\u67fb\u696d\u52d9","client_name":"\u56fd\u571f\u4ea4\u901a\u7701\u4e5d\u5dde\u5730\u65b9\u6574\u5099\u5c40\u83ca\u6c60\u5ddd\u6cb3\u5ddd\u4e8b\u52d9\u6240","boring_xml_url":40,"boring_view_url":1,"soilmap_view_url":null,"soiltest_xml_url":0,"soiltest_view_url":0},{"id":217740,"code":"B4KJ201801010-5989","latitude":"33.0163858","longitude":"130.7041008","source_code":"QS49304516002","project_name":"","survey_name":"\u6817\u6797\u5bbf\u820e\u59161\u30b1\u6240\u5730\u8cea\u8abf\u67fb\u696d\u52d9","client_name":"\u56fd\u571f\u4ea4\u901a\u7701\u4e5d\u5dde\u5730\u65b9\u6574\u5099\u5c40\u83ca\u6c60\u5ddd\u6cb3\u5ddd\u4e8b\u52d9\u6240","boring_xml_url":40,"boring_view_url":1,"soilmap_view_url":null,"soiltest_xml_url":0,"soiltest_view_url":0},{"id":217739,"code":"B4KJ201801010-5988","latitude":"33.0173025","longitude":"130.7043786","source_code":"QS49304516001","project_name":"","survey_name":"\u6817\u6797\u5bbf\u820e\u59161\u30b1\u6240\u5730\u8cea\u8abf\u67fb\u696d\u52d9","client_name":"\u56fd\u571f\u4ea4\u901a\u7701\u4e5d\u5dde\u5730\u65b9\u6574\u5099\u5c40\u83ca\u6c60\u5ddd\u6cb3\u5ddd\u4e8b\u52d9\u6240","boring_xml_url":40,"boring_view_url":1,"soilmap_view_url":null,"soiltest_xml_url":0,"soiltest_view_url":0},{"id":217738,"code":"B4KJ201801010-5987","latitude":"33.0183294","longitude":"130.6772697","source_code":"QS49304514001","project_name":"","survey_name":"\u77f3\u6a0b\u7ba1\u59161\u30b1\u6240\u5730\u8cea\u8abf\u67fb\u696d\u52d9","client_name":"\u56fd\u571f\u4ea4\u901a\u7701\u4e5d\u5dde\u5730\u65b9\u6574\u5099\u5c40\u83ca\u6c60\u5ddd\u6cb3\u5ddd\u4e8b\u52d9\u6240","boring_xml_url":40,"boring_view_url":1,"soilmap_view_url":null,"soiltest_xml_url":0,"soiltest_view_url":0},{"id":217737,"code":"B4KJ201801010-5986","latitude":"33.0181906","longitude":"130.6717981","source_code":"QS49304513003","project_name":"","survey_name":"\u934b\u7530\u6a4b\u59161\u30b1\u6240\u5730\u8cea\u8abf\u67fb\u696d\u52d9","client_name":"\u56fd\u571f\u4ea4\u901a\u7701\u4e5d\u5dde\u5730\u65b9\u6574\u5099\u5c40\u83ca\u6c60\u5ddd\u6cb3\u5ddd\u4e8b\u52d9\u6240","boring_xml_url":40,"boring_view_url":1,"soilmap_view_url":null,"soiltest_xml_url":0,"soiltest_view_url":0},{"id":217736,"code":"B4KJ201801010-5985","latitude":"33.018635","longitude":"130.6721036","source_code":"QS49304513002","project_name":"","survey_name":"\u934b\u7530\u6a4b\u59161\u30b1\u6240\u5730\u8cea\u8abf\u67fb\u696d\u52d9","client_name":"\u56fd\u571f\u4ea4\u901a\u7701\u4e5d\u5dde\u5730\u65b9\u6574\u5099\u5c40\u83ca\u6c60\u5ddd\u6cb3\u5ddd\u4e8b\u52d9\u6240","boring_xml_url":40,"boring_view_url":1,"soilmap_view_url":null,"soiltest_xml_url":0,"soiltest_view_url":0}]}}