{"header":{"xyz":{"source":[],"mosaic":false},"page":3431,"raw":{"soiltest_result":"0","bbox":"57.598333,109.544722,1.933333,163.806111","page":"3431"},"conditions":{"soiltest_result":0,"north":57.598333,"west":109.544722,"south":1.933333,"east":163.806111},"success":true,"message":""},"data":{"meta":{"total":212844,"page":3431,"pages":7095,"count":30},"values":[{"id":217645,"code":"B4KJ201801010-5894","latitude":"32.9321742","longitude":"130.7484603","source_code":"QS49303610001","project_name":"","survey_name":"\u4e2d\u5cf6\u7b2c\u4e8c\u6a0b\u7ba1\u59161\u4ef6\u5730\u8cea\u8abf\u67fb\u696d\u52d9","client_name":"\u56fd\u571f\u4ea4\u901a\u7701\u4e5d\u5dde\u5730\u65b9\u6574\u5099\u5c40\u83ca\u6c60\u5ddd\u6cb3\u5ddd\u4e8b\u52d9\u6240","boring_xml_url":40,"boring_view_url":1,"soilmap_view_url":null,"soiltest_xml_url":0,"soiltest_view_url":0},{"id":217644,"code":"B4KJ201801010-5893","latitude":"32.9984714","longitude":"130.7097953","source_code":"QS49303596002","project_name":"","survey_name":"\u65b9\u4fdd\u7530\u6392\u6c34\u6a0b\u7ba1\u5730\u8cea\u8abf\u67fb\u696d\u52d9","client_name":"\u56fd\u571f\u4ea4\u901a\u7701\u4e5d\u5dde\u5730\u65b9\u6574\u5099\u5c40\u83ca\u6c60\u5ddd\u6cb3\u5ddd\u4e8b\u52d9\u6240","boring_xml_url":40,"boring_view_url":1,"soilmap_view_url":null,"soiltest_xml_url":0,"soiltest_view_url":0},{"id":217643,"code":"B4KJ201801010-5892","latitude":"32.9983325","longitude":"130.7094064","source_code":"QS49303596001","project_name":"","survey_name":"\u65b9\u4fdd\u7530\u6392\u6c34\u6a0b\u7ba1\u5730\u8cea\u8abf\u67fb\u696d\u52d9","client_name":"\u56fd\u571f\u4ea4\u901a\u7701\u4e5d\u5dde\u5730\u65b9\u6574\u5099\u5c40\u83ca\u6c60\u5ddd\u6cb3\u5ddd\u4e8b\u52d9\u6240","boring_xml_url":40,"boring_view_url":1,"soilmap_view_url":null,"soiltest_xml_url":0,"soiltest_view_url":0},{"id":217642,"code":"B4KJ201801010-5891","latitude":"33.0003867","longitude":"130.6520503","source_code":"QS49303592009","project_name":"","survey_name":"\u5742\u7530\u5ddd\u843d\u5dee\u5de5\u59161\u4ef6\u5730\u8cea\u8abf\u67fb\u696d\u52d9","client_name":"\u56fd\u571f\u4ea4\u901a\u7701\u4e5d\u5dde\u5730\u65b9\u6574\u5099\u5c40\u83ca\u6c60\u5ddd\u6cb3\u5ddd\u4e8b\u52d9\u6240","boring_xml_url":40,"boring_view_url":1,"soilmap_view_url":null,"soiltest_xml_url":0,"soiltest_view_url":0},{"id":217641,"code":"B4KJ201801010-5890","latitude":"33.0005256","longitude":"130.6523003","source_code":"QS49303592008","project_name":"","survey_name":"\u5742\u7530\u5ddd\u843d\u5dee\u5de5\u59161\u4ef6\u5730\u8cea\u8abf\u67fb\u696d\u52d9","client_name":"\u56fd\u571f\u4ea4\u901a\u7701\u4e5d\u5dde\u5730\u65b9\u6574\u5099\u5c40\u83ca\u6c60\u5ddd\u6cb3\u5ddd\u4e8b\u52d9\u6240","boring_xml_url":40,"boring_view_url":1,"soilmap_view_url":null,"soiltest_xml_url":0,"soiltest_view_url":0},{"id":217640,"code":"B4KJ201801010-5889","latitude":"32.9992758","longitude":"130.6570778","source_code":"QS49303592007","project_name":"","survey_name":"\u897f\u7267\u7b2c1\u6392\u6c34\u6a0b\u7ba1\u5916\u4e8c\u4ef6\u5730\u8cea\u8abf\u67fb\u696d\u52d9","client_name":"\u56fd\u571f\u4ea4\u901a\u7701\u4e5d\u5dde\u5730\u65b9\u6574\u5099\u5c40\u83ca\u6c60\u5ddd\u6cb3\u5ddd\u4e8b\u52d9\u6240","boring_xml_url":40,"boring_view_url":1,"soilmap_view_url":null,"soiltest_xml_url":0,"soiltest_view_url":0},{"id":217639,"code":"B4KJ201801010-5888","latitude":"32.9992758","longitude":"130.6570778","source_code":"QS49303592006","project_name":"","survey_name":"\u897f\u7267\u7b2c1\u6392\u6c34\u6a0b\u7ba1\u5916\u4e8c\u4ef6\u5730\u8cea\u8abf\u67fb\u696d\u52d9","client_name":"\u56fd\u571f\u4ea4\u901a\u7701\u4e5d\u5dde\u5730\u65b9\u6574\u5099\u5c40\u83ca\u6c60\u5ddd\u6cb3\u5ddd\u4e8b\u52d9\u6240","boring_xml_url":40,"boring_view_url":1,"soilmap_view_url":null,"soiltest_xml_url":0,"soiltest_view_url":0},{"id":217638,"code":"B4KJ201801010-5887","latitude":"33.0006367","longitude":"130.6546611","source_code":"QS49303592005","project_name":"","survey_name":"\u897f\u7267\u7b2c1\u6392\u6c34\u6a0b\u7ba1\u5916\u4e8c\u4ef6\u5730\u8cea\u8abf\u67fb\u696d\u52d9","client_name":"\u56fd\u571f\u4ea4\u901a\u7701\u4e5d\u5dde\u5730\u65b9\u6574\u5099\u5c40\u83ca\u6c60\u5ddd\u6cb3\u5ddd\u4e8b\u52d9\u6240","boring_xml_url":40,"boring_view_url":1,"soilmap_view_url":null,"soiltest_xml_url":0,"soiltest_view_url":0},{"id":217637,"code":"B4KJ201801010-5886","latitude":"33.0006367","longitude":"130.6546611","source_code":"QS49303592004","project_name":"","survey_name":"\u897f\u7267\u7b2c1\u6392\u6c34\u6a0b\u7ba1\u5916\u4e8c\u4ef6\u5730\u8cea\u8abf\u67fb\u696d\u52d9","client_name":"\u56fd\u571f\u4ea4\u901a\u7701\u4e5d\u5dde\u5730\u65b9\u6574\u5099\u5c40\u83ca\u6c60\u5ddd\u6cb3\u5ddd\u4e8b\u52d9\u6240","boring_xml_url":40,"boring_view_url":1,"soilmap_view_url":null,"soiltest_xml_url":0,"soiltest_view_url":0},{"id":217636,"code":"B4KJ201801010-5885","latitude":"33.0030808","longitude":"130.6597439","source_code":"QS49303592003","project_name":"","survey_name":"\u83f0\u7530\u6392\u6c34\u6a0b\u7ba1\u59162\u4ef6\u5730\u8cea\u8abf\u67fb\u696d\u52d9","client_name":"\u56fd\u571f\u4ea4\u901a\u7701\u4e5d\u5dde\u5730\u65b9\u6574\u5099\u5c40\u83ca\u6c60\u5ddd\u6cb3\u5ddd\u4e8b\u52d9\u6240","boring_xml_url":40,"boring_view_url":1,"soilmap_view_url":null,"soiltest_xml_url":0,"soiltest_view_url":0},{"id":217635,"code":"B4KJ201801010-5884","latitude":"33.0030256","longitude":"130.6595219","source_code":"QS49303592002","project_name":"","survey_name":"\u83f0\u7530\u6392\u6c34\u6a0b\u7ba1\u59162\u4ef6\u5730\u8cea\u8abf\u67fb\u696d\u52d9","client_name":"\u56fd\u571f\u4ea4\u901a\u7701\u4e5d\u5dde\u5730\u65b9\u6574\u5099\u5c40\u83ca\u6c60\u5ddd\u6cb3\u5ddd\u4e8b\u52d9\u6240","boring_xml_url":40,"boring_view_url":1,"soilmap_view_url":null,"soiltest_xml_url":0,"soiltest_view_url":0},{"id":217634,"code":"B4KJ201801010-5883","latitude":"33.0030531","longitude":"130.6517169","source_code":"QS49303592001","project_name":"","survey_name":"\u83f0\u7530\u6392\u6c34\u6a0b\u7ba1\u59162\u4ef6\u5730\u8cea\u8abf\u67fb\u696d\u52d9","client_name":"\u56fd\u571f\u4ea4\u901a\u7701\u4e5d\u5dde\u5730\u65b9\u6574\u5099\u5c40\u83ca\u6c60\u5ddd\u6cb3\u5ddd\u4e8b\u52d9\u6240","boring_xml_url":40,"boring_view_url":1,"soilmap_view_url":null,"soiltest_xml_url":0,"soiltest_view_url":0},{"id":217633,"code":"B4KJ201801010-5882","latitude":"33.0011086","longitude":"130.6467731","source_code":"QS49303591004","project_name":"","survey_name":"\u5742\u7530\u6a4b\u5730\u8cea\u8abf\u67fb\u696d\u52d9","client_name":"\u56fd\u571f\u4ea4\u901a\u7701\u4e5d\u5dde\u5730\u65b9\u6574\u5099\u5c40\u83ca\u6c60\u5ddd\u6cb3\u5ddd\u4e8b\u52d9\u6240","boring_xml_url":40,"boring_view_url":1,"soilmap_view_url":null,"soiltest_xml_url":0,"soiltest_view_url":0},{"id":217632,"code":"B4KJ201801010-5881","latitude":"33.0011364","longitude":"130.6470508","source_code":"QS49303591003","project_name":"","survey_name":"\u5742\u7530\u6a4b\u5730\u8cea\u8abf\u67fb\u696d\u52d9","client_name":"\u56fd\u571f\u4ea4\u901a\u7701\u4e5d\u5dde\u5730\u65b9\u6574\u5099\u5c40\u83ca\u6c60\u5ddd\u6cb3\u5ddd\u4e8b\u52d9\u6240","boring_xml_url":40,"boring_view_url":1,"soilmap_view_url":null,"soiltest_xml_url":0,"soiltest_view_url":0},{"id":217631,"code":"B4KJ201801010-5880","latitude":"33.0022197","longitude":"130.6468286","source_code":"QS49303591002","project_name":"","survey_name":"\u5742\u7530\u5ddd\u5e8a\u56fa\u53ca\u3073\u6392\u6c34\u6a0b\u7ba1\u7b87\u6240\u5730\u8cea\u8abf\u67fb","client_name":"\u56fd\u571f\u4ea4\u901a\u7701\u4e5d\u5dde\u5730\u65b9\u6574\u5099\u5c40\u83ca\u6c60\u5ddd\u6cb3\u5ddd\u4e8b\u52d9\u6240","boring_xml_url":40,"boring_view_url":1,"soilmap_view_url":null,"soiltest_xml_url":0,"soiltest_view_url":0},{"id":217630,"code":"B4KJ201801010-5879","latitude":"33.0019419","longitude":"130.6465508","source_code":"QS49303591001","project_name":"","survey_name":"\u5742\u7530\u5ddd\u5e8a\u56fa\u53ca\u3073\u6392\u6c34\u6a0b\u7ba1\u7b87\u6240\u5730\u8cea\u8abf\u67fb","client_name":"\u56fd\u571f\u4ea4\u901a\u7701\u4e5d\u5dde\u5730\u65b9\u6574\u5099\u5c40\u83ca\u6c60\u5ddd\u6cb3\u5ddd\u4e8b\u52d9\u6240","boring_xml_url":40,"boring_view_url":1,"soilmap_view_url":null,"soiltest_xml_url":0,"soiltest_view_url":0},{"id":217629,"code":"B4KJ201801010-5878","latitude":"32.989445","longitude":"130.7265717","source_code":"QS49303588002","project_name":"","survey_name":"\u85e4\u4e95\u6392\u6c34\u6a0b\u7ba1\u59161\u4ef6\u5730\u8cea\u8abf\u67fb\u696d\u52d9","client_name":"\u56fd\u571f\u4ea4\u901a\u7701\u4e5d\u5dde\u5730\u65b9\u6574\u5099\u5c40\u83ca\u6c60\u5ddd\u6cb3\u5ddd\u4e8b\u52d9\u6240","boring_xml_url":40,"boring_view_url":1,"soilmap_view_url":null,"soiltest_xml_url":0,"soiltest_view_url":0},{"id":217628,"code":"B4KJ201801010-5877","latitude":"32.9908336","longitude":"130.7289047","source_code":"QS49303588001","project_name":"","survey_name":"\u85e4\u4e95\u6392\u6c34\u6a0b\u7ba1\u59161\u4ef6\u5730\u8cea\u8abf\u67fb\u696d\u52d9","client_name":"\u56fd\u571f\u4ea4\u901a\u7701\u4e5d\u5dde\u5730\u65b9\u6574\u5099\u5c40\u83ca\u6c60\u5ddd\u6cb3\u5ddd\u4e8b\u52d9\u6240","boring_xml_url":40,"boring_view_url":1,"soilmap_view_url":null,"soiltest_xml_url":0,"soiltest_view_url":0},{"id":217627,"code":"B4KJ201801010-5876","latitude":"32.9945831","longitude":"130.7186833","source_code":"QS49303587004","project_name":"","survey_name":"\u65b9\u4fdd\u7530\u7b2c2\u6392\u6c34\u6a0b\u7ba1\u5730\u8cea\u8abf\u67fb\u59161\u4ef6\u696d\u52d9","client_name":"\u56fd\u571f\u4ea4\u901a\u7701\u4e5d\u5dde\u5730\u65b9\u6574\u5099\u5c40\u83ca\u6c60\u5ddd\u6cb3\u5ddd\u4e8b\u52d9\u6240","boring_xml_url":40,"boring_view_url":1,"soilmap_view_url":null,"soiltest_xml_url":0,"soiltest_view_url":0},{"id":217626,"code":"B4KJ201801010-5875","latitude":"32.9948608","longitude":"130.7187667","source_code":"QS49303587003","project_name":"","survey_name":"\u65b9\u4fdd\u7530\u7b2c2\u6392\u6c34\u6a0b\u7ba1\u5730\u8cea\u8abf\u67fb\u59161\u4ef6\u696d\u52d9","client_name":"\u56fd\u571f\u4ea4\u901a\u7701\u4e5d\u5dde\u5730\u65b9\u6574\u5099\u5c40\u83ca\u6c60\u5ddd\u6cb3\u5ddd\u4e8b\u52d9\u6240","boring_xml_url":40,"boring_view_url":1,"soilmap_view_url":null,"soiltest_xml_url":0,"soiltest_view_url":0},{"id":217625,"code":"B4KJ201801010-5874","latitude":"32.9926944","longitude":"130.7221275","source_code":"QS49303587002","project_name":"","survey_name":"\u65e5\u7f6e\u6392\u6c34\u6a0b\u7ba1\u59161\u4ef6\u5730\u8cea\u8abf\u67fb\u696d\u52d9","client_name":"\u56fd\u571f\u4ea4\u901a\u7701\u4e5d\u5dde\u5730\u65b9\u6574\u5099\u5c40\u83ca\u6c60\u5ddd\u6cb3\u5ddd\u4e8b\u52d9\u6240","boring_xml_url":40,"boring_view_url":1,"soilmap_view_url":null,"soiltest_xml_url":0,"soiltest_view_url":0},{"id":217624,"code":"B4KJ201801010-5873","latitude":"32.9926389","longitude":"130.7219886","source_code":"QS49303587001","project_name":"","survey_name":"\u65e5\u7f6e\u6392\u6c34\u6a0b\u7ba1\u59161\u4ef6\u5730\u8cea\u8abf\u67fb\u696d\u52d9","client_name":"\u56fd\u571f\u4ea4\u901a\u7701\u4e5d\u5dde\u5730\u65b9\u6574\u5099\u5c40\u83ca\u6c60\u5ddd\u6cb3\u5ddd\u4e8b\u52d9\u6240","boring_xml_url":40,"boring_view_url":1,"soilmap_view_url":null,"soiltest_xml_url":0,"soiltest_view_url":0},{"id":217623,"code":"B4KJ201801010-5872","latitude":"32.9858342","longitude":"130.7284883","source_code":"QS49303578004","project_name":"","survey_name":"\u5357\u5cf6\u5830\u5730\u8cea\u8abf\u67fb\u696d\u52d9","client_name":"\u56fd\u571f\u4ea4\u901a\u7701\u4e5d\u5dde\u5730\u65b9\u6574\u5099\u5c40\u83ca\u6c60\u5ddd\u6cb3\u5ddd\u4e8b\u52d9\u6240","boring_xml_url":40,"boring_view_url":1,"soilmap_view_url":null,"soiltest_xml_url":0,"soiltest_view_url":0},{"id":217622,"code":"B4KJ201801010-5871","latitude":"32.9858342","longitude":"130.7280994","source_code":"QS49303578003","project_name":"","survey_name":"\u5357\u5cf6\u5830\u5730\u8cea\u8abf\u67fb\u696d\u52d9","client_name":"\u56fd\u571f\u4ea4\u901a\u7701\u4e5d\u5dde\u5730\u65b9\u6574\u5099\u5c40\u83ca\u6c60\u5ddd\u6cb3\u5ddd\u4e8b\u52d9\u6240","boring_xml_url":40,"boring_view_url":1,"soilmap_view_url":null,"soiltest_xml_url":0,"soiltest_view_url":0},{"id":217621,"code":"B4KJ201801010-5870","latitude":"32.9858342","longitude":"130.727655","source_code":"QS49303578002","project_name":"","survey_name":"\u5357\u5cf6\u5830\u5730\u8cea\u8abf\u67fb\u696d\u52d9","client_name":"\u56fd\u571f\u4ea4\u901a\u7701\u4e5d\u5dde\u5730\u65b9\u6574\u5099\u5c40\u83ca\u6c60\u5ddd\u6cb3\u5ddd\u4e8b\u52d9\u6240","boring_xml_url":40,"boring_view_url":1,"soilmap_view_url":null,"soiltest_xml_url":0,"soiltest_view_url":0},{"id":217620,"code":"B4KJ201801010-5869","latitude":"32.9858342","longitude":"130.727155","source_code":"QS49303578001","project_name":"","survey_name":"\u5357\u5cf6\u5830\u5730\u8cea\u8abf\u67fb\u696d\u52d9","client_name":"\u56fd\u571f\u4ea4\u901a\u7701\u4e5d\u5dde\u5730\u65b9\u6574\u5099\u5c40\u77e2\u7530\u30c0\u30e0\u8abf\u67fb\u4e8b\u52d9\u6240","boring_xml_url":40,"boring_view_url":1,"soilmap_view_url":null,"soiltest_xml_url":0,"soiltest_view_url":0},{"id":217619,"code":"B4KJ201801010-5868","latitude":"32.9742247","longitude":"130.7379878","source_code":"QS49303569004","project_name":"","survey_name":"\u9ad8\u7530\u6392\u6c34\u6a0b\u7ba1\u59161\u4ef6\u5730\u8cea\u8abf\u67fb\u696d\u52d9","client_name":"\u56fd\u571f\u4ea4\u901a\u7701\u4e5d\u5dde\u5730\u65b9\u6574\u5099\u5c40\u83ca\u6c60\u5ddd\u6cb3\u5ddd\u4e8b\u52d9\u6240","boring_xml_url":40,"boring_view_url":1,"soilmap_view_url":null,"soiltest_xml_url":0,"soiltest_view_url":0},{"id":217618,"code":"B4KJ201801010-5867","latitude":"32.9743914","longitude":"130.7381822","source_code":"QS49303569003","project_name":"","survey_name":"\u9ad8\u7530\u6392\u6c34\u6a0b\u7ba1\u59161\u4ef6\u5730\u8cea\u8abf\u67fb\u696d\u52d9","client_name":"\u56fd\u571f\u4ea4\u901a\u7701\u4e5d\u5dde\u5730\u65b9\u6574\u5099\u5c40\u83ca\u6c60\u5ddd\u6cb3\u5ddd\u4e8b\u52d9\u6240","boring_xml_url":40,"boring_view_url":1,"soilmap_view_url":null,"soiltest_xml_url":0,"soiltest_view_url":0},{"id":217617,"code":"B4KJ201801010-5866","latitude":"32.9751692","longitude":"130.7469036","source_code":"QS49303569002","project_name":"","survey_name":"\u9ad8\u7530\u6392\u6c34\u6a0b\u7ba1\u59161\u4ef6\u5730\u8cea\u8abf\u67fb\u696d\u52d9","client_name":"\u56fd\u571f\u4ea4\u901a\u7701\u4e5d\u5dde\u5730\u65b9\u6574\u5099\u5c40\u83ca\u6c60\u5ddd\u6cb3\u5ddd\u4e8b\u52d9\u6240","boring_xml_url":40,"boring_view_url":1,"soilmap_view_url":null,"soiltest_xml_url":0,"soiltest_view_url":0},{"id":217616,"code":"B4KJ201801010-5865","latitude":"32.9748358","longitude":"130.7469592","source_code":"QS49303569001","project_name":"","survey_name":"\u9ad8\u7530\u6392\u6c34\u6a0b\u7ba1\u59161\u4ef6\u5730\u8cea\u8abf\u67fb\u696d\u52d9","client_name":"\u56fd\u571f\u4ea4\u901a\u7701\u4e5d\u5dde\u5730\u65b9\u6574\u5099\u5c40\u83ca\u6c60\u5ddd\u6cb3\u5ddd\u4e8b\u52d9\u6240","boring_xml_url":40,"boring_view_url":1,"soilmap_view_url":null,"soiltest_xml_url":0,"soiltest_view_url":0}]}}