{"header":{"xyz":{"source":[],"mosaic":false},"page":3432,"raw":{"soiltest_result":"0","bbox":"57.598333,109.544722,1.933333,163.806111","page":"3432"},"conditions":{"soiltest_result":0,"north":57.598333,"west":109.544722,"south":1.933333,"east":163.806111},"success":true,"message":""},"data":{"meta":{"total":212844,"page":3432,"pages":7095,"count":30},"values":[{"id":217615,"code":"B4KJ201801010-5864","latitude":"32.9780294","longitude":"130.7284331","source_code":"QS49303568002","project_name":"","survey_name":"\u5ddd\u4e45\u4fdd\u6392\u6c34\u6a0b\u7ba1\u5730\u8cea\u8abf\u67fb\u696d\u52d9","client_name":"\u56fd\u571f\u4ea4\u901a\u7701\u4e5d\u5dde\u5730\u65b9\u6574\u5099\u5c40\u83ca\u6c60\u5ddd\u6cb3\u5ddd\u4e8b\u52d9\u6240","boring_xml_url":40,"boring_view_url":1,"soilmap_view_url":null,"soiltest_xml_url":0,"soiltest_view_url":0},{"id":217614,"code":"B4KJ201801010-5863","latitude":"32.9780294","longitude":"130.7284331","source_code":"QS49303568001","project_name":"","survey_name":"\u5ddd\u4e45\u4fdd\u6392\u6c34\u6a0b\u7ba1\u5730\u8cea\u8abf\u67fb\u696d\u52d9","client_name":"\u56fd\u571f\u4ea4\u901a\u7701\u4e5d\u5dde\u5730\u65b9\u6574\u5099\u5c40\u83ca\u6c60\u5ddd\u6cb3\u5ddd\u4e8b\u52d9\u6240","boring_xml_url":40,"boring_view_url":1,"soilmap_view_url":null,"soiltest_xml_url":0,"soiltest_view_url":0},{"id":217613,"code":"B4KJ201801010-5862","latitude":"32.9632261","longitude":"130.7470983","source_code":"QS49303559009","project_name":"","survey_name":"\u6797\u539f\u6392\u6c34\u6a0b\u7ba1\u5730\u8cea\u8abf\u67fb\u696d\u52d9","client_name":"\u56fd\u571f\u4ea4\u901a\u7701\u4e5d\u5dde\u5730\u65b9\u6574\u5099\u5c40\u83ca\u6c60\u5ddd\u6cb3\u5ddd\u4e8b\u52d9\u6240","boring_xml_url":40,"boring_view_url":1,"soilmap_view_url":null,"soiltest_xml_url":0,"soiltest_view_url":0},{"id":217612,"code":"B4KJ201801010-5861","latitude":"32.9625594","longitude":"130.7465706","source_code":"QS49303559008","project_name":"","survey_name":"\u6797\u539f\u6392\u6c34\u6a0b\u7ba1\u5730\u8cea\u8abf\u67fb\u696d\u52d9","client_name":"\u56fd\u571f\u4ea4\u901a\u7701\u4e5d\u5dde\u5730\u65b9\u6574\u5099\u5c40\u83ca\u6c60\u5ddd\u6cb3\u5ddd\u4e8b\u52d9\u6240","boring_xml_url":40,"boring_view_url":1,"soilmap_view_url":null,"soiltest_xml_url":0,"soiltest_view_url":0},{"id":217611,"code":"B4KJ201801010-5860","latitude":"32.9663367","longitude":"130.7409322","source_code":"QS49303559007","project_name":"","survey_name":"\u6a4b\u7530\u7528\u6c34\u6a0b\u7ba1\u5730\u8cea\u8abf\u67fb\u696d\u52d9","client_name":"\u56fd\u571f\u4ea4\u901a\u7701\u4e5d\u5dde\u5730\u65b9\u6574\u5099\u5c40\u83ca\u6c60\u5ddd\u6cb3\u5ddd\u4e8b\u52d9\u6240","boring_xml_url":40,"boring_view_url":1,"soilmap_view_url":null,"soiltest_xml_url":0,"soiltest_view_url":0},{"id":217610,"code":"B4KJ201801010-5859","latitude":"32.9662256","longitude":"130.7406544","source_code":"QS49303559006","project_name":"","survey_name":"\u6a4b\u7530\u7528\u6c34\u6a0b\u7ba1\u5730\u8cea\u8abf\u67fb\u696d\u52d9","client_name":"\u56fd\u571f\u4ea4\u901a\u7701\u4e5d\u5dde\u5730\u65b9\u6574\u5099\u5c40\u83ca\u6c60\u5ddd\u6cb3\u5ddd\u4e8b\u52d9\u6240","boring_xml_url":40,"boring_view_url":1,"soilmap_view_url":null,"soiltest_xml_url":0,"soiltest_view_url":0},{"id":217609,"code":"B4KJ201801010-5858","latitude":"32.9633369","longitude":"130.7443208","source_code":"QS49303559005","project_name":"","survey_name":"\u6797\u539f\u6392\u6c34\u6a0b\u7ba1\u5730\u8cea\u8abf\u67fb\u696d\u52d9","client_name":"\u56fd\u571f\u4ea4\u901a\u7701\u4e5d\u5dde\u5730\u65b9\u6574\u5099\u5c40\u83ca\u6c60\u5ddd\u6cb3\u5ddd\u4e8b\u52d9\u6240","boring_xml_url":40,"boring_view_url":1,"soilmap_view_url":null,"soiltest_xml_url":0,"soiltest_view_url":0},{"id":217608,"code":"B4KJ201801010-5857","latitude":"32.9633369","longitude":"130.7443208","source_code":"QS49303559004","project_name":"","survey_name":"\u6797\u539f\u6392\u6c34\u6a0b\u7ba1\u5730\u8cea\u8abf\u67fb\u696d\u52d9","client_name":"\u56fd\u571f\u4ea4\u901a\u7701\u4e5d\u5dde\u5730\u65b9\u6574\u5099\u5c40\u83ca\u6c60\u5ddd\u6cb3\u5ddd\u4e8b\u52d9\u6240","boring_xml_url":40,"boring_view_url":1,"soilmap_view_url":null,"soiltest_xml_url":0,"soiltest_view_url":0},{"id":217607,"code":"B4KJ201801010-5856","latitude":"32.9650592","longitude":"130.7471261","source_code":"QS49303559003","project_name":"","survey_name":"\u6817\u6797\u5bbf\u820e\u59161\u30b1\u6240\u5730\u8cea\u8abf\u67fb\u696d\u52d9","client_name":"\u56fd\u571f\u4ea4\u901a\u7701\u4e5d\u5dde\u5730\u65b9\u6574\u5099\u5c40\u83ca\u6c60\u5ddd\u6cb3\u5ddd\u4e8b\u52d9\u6240","boring_xml_url":40,"boring_view_url":1,"soilmap_view_url":null,"soiltest_xml_url":0,"soiltest_view_url":0},{"id":217606,"code":"B4KJ201801010-5855","latitude":"32.9648647","longitude":"130.7469039","source_code":"QS49303559002","project_name":"","survey_name":"\u9ad8\u5cf6\u6a0b\u7ba1\u59161\u30b1\u6b73\u5730\u8cea\u8abf\u67fb\u696d\u52d9","client_name":"\u56fd\u571f\u4ea4\u901a\u7701\u4e5d\u5dde\u5730\u65b9\u6574\u5099\u5c40\u83ca\u6c60\u5ddd\u6cb3\u5ddd\u4e8b\u52d9\u6240","boring_xml_url":40,"boring_view_url":1,"soilmap_view_url":null,"soiltest_xml_url":0,"soiltest_view_url":0},{"id":217605,"code":"B4KJ201801010-5854","latitude":"32.9619758","longitude":"130.7256836","source_code":"QS49303558005","project_name":"","survey_name":"\u5e73\u5cf6\u6392\u6c34\u6a0b\u7ba1\u59161\u4ef6\u5730\u8cea\u8abf\u67fb\u696d\u52d9","client_name":"\u56fd\u571f\u4ea4\u901a\u7701\u4e5d\u5dde\u5730\u65b9\u6574\u5099\u5c40\u83ca\u6c60\u5ddd\u6cb3\u5ddd\u4e8b\u52d9\u6240","boring_xml_url":40,"boring_view_url":1,"soilmap_view_url":null,"soiltest_xml_url":0,"soiltest_view_url":0},{"id":217604,"code":"B4KJ201801010-5853","latitude":"32.9655031","longitude":"130.7280444","source_code":"QS49303558004","project_name":"","survey_name":"\u4e0a\u6cb3\u539f\u7b2c1\u6392\u6c34\u6a0b\u7ba1\u59161\u4ef6\u5730\u8cea\u8abf\u67fb\u696d\u52d9","client_name":"\u56fd\u571f\u4ea4\u901a\u7701\u4e5d\u5dde\u5730\u65b9\u6574\u5099\u5c40\u83ca\u6c60\u5ddd\u6cb3\u5ddd\u4e8b\u52d9\u6240","boring_xml_url":40,"boring_view_url":1,"soilmap_view_url":null,"soiltest_xml_url":0,"soiltest_view_url":0},{"id":217603,"code":"B4KJ201801010-5852","latitude":"32.9656697","longitude":"130.7279056","source_code":"QS49303558003","project_name":"","survey_name":"\u4e0a\u6cb3\u539f\u7b2c1\u6392\u6c34\u6a0b\u7ba1\u59161\u4ef6\u5730\u8cea\u8abf\u67fb\u696d\u52d9","client_name":"\u56fd\u571f\u4ea4\u901a\u7701\u4e5d\u5dde\u5730\u65b9\u6574\u5099\u5c40\u83ca\u6c60\u5ddd\u6cb3\u5ddd\u4e8b\u52d9\u6240","boring_xml_url":40,"boring_view_url":1,"soilmap_view_url":null,"soiltest_xml_url":0,"soiltest_view_url":0},{"id":217602,"code":"B4KJ201801010-5851","latitude":"32.9620036","longitude":"130.7259058","source_code":"QS49303558002","project_name":"","survey_name":"\u5e73\u5cf6\u6392\u6c34\u6a0b\u7ba1\u59161\u4ef6\u5730\u8cea\u8abf\u67fb\u696d\u52d9","client_name":"\u56fd\u571f\u4ea4\u901a\u7701\u4e5d\u5dde\u5730\u65b9\u6574\u5099\u5c40\u83ca\u6c60\u5ddd\u6cb3\u5ddd\u4e8b\u52d9\u6240","boring_xml_url":40,"boring_view_url":1,"soilmap_view_url":null,"soiltest_xml_url":0,"soiltest_view_url":0},{"id":217601,"code":"B4KJ201801010-5850","latitude":"32.9661697","longitude":"130.7267667","source_code":"QS49303558001","project_name":"","survey_name":"\u767d\u7fbd\u6839\u6392\u6c34\u6a0b\u7ba1\u59162\u4ef6\u5730\u8cea\u8abf\u67fb\u696d\u52d9","client_name":"\u56fd\u571f\u4ea4\u901a\u7701\u4e5d\u5dde\u5730\u65b9\u6574\u5099\u5c40\u83ca\u6c60\u5ddd\u6cb3\u5ddd\u4e8b\u52d9\u6240","boring_xml_url":40,"boring_view_url":1,"soilmap_view_url":null,"soiltest_xml_url":0,"soiltest_view_url":0},{"id":217600,"code":"B4KJ201801010-5849","latitude":"32.9583094","longitude":"130.7269614","source_code":"QS49303548008","project_name":"","survey_name":"\u4f0a\u77e5\u574a\u7b2c\u4e8c\u6392\u6c34\u6a0b\u7ba1\u59161\u4ef6\u5730\u8cea\u8abf\u67fb\u696d\u52d9","client_name":"\u56fd\u571f\u4ea4\u901a\u7701\u4e5d\u5dde\u5730\u65b9\u6574\u5099\u5c40\u83ca\u6c60\u5ddd\u6cb3\u5ddd\u4e8b\u52d9\u6240","boring_xml_url":40,"boring_view_url":1,"soilmap_view_url":null,"soiltest_xml_url":0,"soiltest_view_url":0},{"id":217599,"code":"B4KJ201801010-5848","latitude":"32.9582539","longitude":"130.7271281","source_code":"QS49303548007","project_name":"","survey_name":"\u4f0a\u77e5\u574a\u7b2c\u4e8c\u6392\u6c34\u6a0b\u7ba1\u59161\u4ef6\u5730\u8cea\u8abf\u67fb\u696d\u52d9","client_name":"\u56fd\u571f\u4ea4\u901a\u7701\u4e5d\u5dde\u5730\u65b9\u6574\u5099\u5c40\u83ca\u6c60\u5ddd\u6cb3\u5ddd\u4e8b\u52d9\u6240","boring_xml_url":40,"boring_view_url":1,"soilmap_view_url":null,"soiltest_xml_url":0,"soiltest_view_url":0},{"id":217598,"code":"B4KJ201801010-5847","latitude":"32.9565319","longitude":"130.7251006","source_code":"QS49303548006","project_name":"","survey_name":"\u7acb\u9580\u8a66\u5800\u4ed6\u7c73\u585a\u6a0b\u7ba1\u8a66\u9310\u696d\u52d9","client_name":"\u56fd\u571f\u4ea4\u901a\u7701\u4e5d\u5dde\u5730\u65b9\u6574\u5099\u5c40\u83ca\u6c60\u5ddd\u6cb3\u5ddd\u4e8b\u52d9\u6240","boring_xml_url":40,"boring_view_url":1,"soilmap_view_url":null,"soiltest_xml_url":0,"soiltest_view_url":0},{"id":217597,"code":"B4KJ201801010-5846","latitude":"32.9565319","longitude":"130.7251006","source_code":"QS49303548005","project_name":"","survey_name":"\u7acb\u9580\u8a66\u5800\u4ed6\u7c73\u585a\u6a0b\u7ba1\u8a66\u9310\u696d\u52d9","client_name":"\u56fd\u571f\u4ea4\u901a\u7701\u4e5d\u5dde\u5730\u65b9\u6574\u5099\u5c40\u83ca\u6c60\u5ddd\u6cb3\u5ddd\u4e8b\u52d9\u6240","boring_xml_url":40,"boring_view_url":1,"soilmap_view_url":null,"soiltest_xml_url":0,"soiltest_view_url":0},{"id":217596,"code":"B4KJ201801010-5845","latitude":"32.9556153","longitude":"130.7262947","source_code":"QS49303548004","project_name":"","survey_name":"\u7c73\u585a\u6a4b\u5730\u8cea\u8abf\u67fb\u696d\u52d9","client_name":"\u56fd\u571f\u4ea4\u901a\u7701\u4e5d\u5dde\u5730\u65b9\u6574\u5099\u5c40\u83ca\u6c60\u5ddd\u6cb3\u5ddd\u4e8b\u52d9\u6240","boring_xml_url":40,"boring_view_url":1,"soilmap_view_url":null,"soiltest_xml_url":0,"soiltest_view_url":0},{"id":217595,"code":"B4KJ201801010-5844","latitude":"32.9557542","longitude":"130.7256283","source_code":"QS49303548003","project_name":"","survey_name":"\u7c73\u585a\u6a4b\u5730\u8cea\u8abf\u67fb\u696d\u52d9","client_name":"\u56fd\u571f\u4ea4\u901a\u7701\u4e5d\u5dde\u5730\u65b9\u6574\u5099\u5c40\u83ca\u6c60\u5ddd\u6cb3\u5ddd\u4e8b\u52d9\u6240","boring_xml_url":40,"boring_view_url":1,"soilmap_view_url":null,"soiltest_xml_url":0,"soiltest_view_url":0},{"id":217594,"code":"B4KJ201801010-5843","latitude":"32.9560875","longitude":"130.7267114","source_code":"QS49303548002","project_name":"","survey_name":"\u5c0f\u9ce5\u6392\u6c34\u6a0b\u7ba1\u59161\u30b1\u6240\u5730\u8cea\u8abf\u67fb\u696d\u52d9","client_name":"\u56fd\u571f\u4ea4\u901a\u7701\u4e5d\u5dde\u5730\u65b9\u6574\u5099\u5c40\u83ca\u6c60\u5ddd\u6cb3\u5ddd\u4e8b\u52d9\u6240","boring_xml_url":40,"boring_view_url":1,"soilmap_view_url":null,"soiltest_xml_url":0,"soiltest_view_url":0},{"id":217593,"code":"B4KJ201801010-5842","latitude":"32.9560875","longitude":"130.7267114","source_code":"QS49303548001","project_name":"","survey_name":"\u5c0f\u9ce5\u6392\u6c34\u6a0b\u7ba1\u59161\u30b1\u6240\u5730\u8cea\u8abf\u67fb\u696d\u52d9","client_name":"\u56fd\u571f\u4ea4\u901a\u7701\u4e5d\u5dde\u5730\u65b9\u6574\u5099\u5c40\u83ca\u6c60\u5ddd\u6cb3\u5ddd\u4e8b\u52d9\u6240","boring_xml_url":40,"boring_view_url":1,"soilmap_view_url":null,"soiltest_xml_url":0,"soiltest_view_url":0},{"id":217592,"code":"B4KJ201801010-5841","latitude":"32.9508936","longitude":"130.7234064","source_code":"QS49303538007","project_name":"","survey_name":"\u4f0a\u77e5\u574a\u6a4b\u5730\u8cea\u8abf\u67fb\u696d\u52d9","client_name":"\u56fd\u571f\u4ea4\u901a\u7701\u4e5d\u5dde\u5730\u65b9\u6574\u5099\u5c40\u83ca\u6c60\u5ddd\u6cb3\u5ddd\u4e8b\u52d9\u6240","boring_xml_url":40,"boring_view_url":1,"soilmap_view_url":null,"soiltest_xml_url":0,"soiltest_view_url":0},{"id":217591,"code":"B4KJ201801010-5840","latitude":"32.9510325","longitude":"130.7231842","source_code":"QS49303538006","project_name":"","survey_name":"\u4f0a\u77e5\u574a\u6a4b\u5730\u8cea\u8abf\u67fb\u696d\u52d9","client_name":"\u56fd\u571f\u4ea4\u901a\u7701\u4e5d\u5dde\u5730\u65b9\u6574\u5099\u5c40\u83ca\u6c60\u5ddd\u6cb3\u5ddd\u4e8b\u52d9\u6240","boring_xml_url":40,"boring_view_url":1,"soilmap_view_url":null,"soiltest_xml_url":0,"soiltest_view_url":0},{"id":217590,"code":"B4KJ201801010-5839","latitude":"32.9510325","longitude":"130.7231842","source_code":"QS49303538005","project_name":"","survey_name":"\u4f0a\u77e5\u574a\u6a4b\u5730\u8cea\u8abf\u67fb\u696d\u52d9","client_name":"\u56fd\u571f\u4ea4\u901a\u7701\u4e5d\u5dde\u5730\u65b9\u6574\u5099\u5c40\u83ca\u6c60\u5ddd\u6cb3\u5ddd\u4e8b\u52d9\u6240","boring_xml_url":40,"boring_view_url":1,"soilmap_view_url":null,"soiltest_xml_url":0,"soiltest_view_url":0},{"id":217589,"code":"B4KJ201801010-5838","latitude":"32.9510325","longitude":"130.7229342","source_code":"QS49303538004","project_name":"","survey_name":"\u4f0a\u77e5\u574a\u6a4b\u5730\u8cea\u8abf\u67fb\u696d\u52d9","client_name":"\u56fd\u571f\u4ea4\u901a\u7701\u4e5d\u5dde\u5730\u65b9\u6574\u5099\u5c40\u83ca\u6c60\u5ddd\u6cb3\u5ddd\u4e8b\u52d9\u6240","boring_xml_url":40,"boring_view_url":1,"soilmap_view_url":null,"soiltest_xml_url":0,"soiltest_view_url":0},{"id":217588,"code":"B4KJ201801010-5837","latitude":"32.9508936","longitude":"130.7227675","source_code":"QS49303538003","project_name":"","survey_name":"\u4f0a\u77e5\u574a\u6a4b\u5730\u8cea\u8abf\u67fb\u696d\u52d9","client_name":"\u56fd\u571f\u4ea4\u901a\u7701\u4e5d\u5dde\u5730\u65b9\u6574\u5099\u5c40\u83ca\u6c60\u5ddd\u6cb3\u5ddd\u4e8b\u52d9\u6240","boring_xml_url":40,"boring_view_url":1,"soilmap_view_url":null,"soiltest_xml_url":0,"soiltest_view_url":0},{"id":217587,"code":"B4KJ201801010-5836","latitude":"32.9527822","longitude":"130.724045","source_code":"QS49303538002","project_name":"","survey_name":"\u85e4\u4e95\u6392\u6c34\u6a0b\u7ba1\u59161\u4ef6\u5730\u8cea\u8abf\u67fb\u696d\u52d9","client_name":"\u56fd\u571f\u4ea4\u901a\u7701\u4e5d\u5dde\u5730\u65b9\u6574\u5099\u5c40\u83ca\u6c60\u5ddd\u6cb3\u5ddd\u4e8b\u52d9\u6240","boring_xml_url":40,"boring_view_url":1,"soilmap_view_url":null,"soiltest_xml_url":0,"soiltest_view_url":0},{"id":217586,"code":"B4KJ201801010-5835","latitude":"32.9528378","longitude":"130.7239064","source_code":"QS49303538001","project_name":"","survey_name":"\u85e4\u4e95\u6392\u6c34\u6a0b\u7ba1\u59161\u4ef6\u5730\u8cea\u8abf\u67fb\u696d\u52d9","client_name":"\u56fd\u571f\u4ea4\u901a\u7701\u4e5d\u5dde\u5730\u65b9\u6574\u5099\u5c40\u83ca\u6c60\u5ddd\u6cb3\u5ddd\u4e8b\u52d9\u6240","boring_xml_url":40,"boring_view_url":1,"soilmap_view_url":null,"soiltest_xml_url":0,"soiltest_view_url":0}]}}