{"header":{"xyz":{"source":[],"mosaic":false},"page":3433,"raw":{"soiltest_result":"0","bbox":"57.598333,109.544722,1.933333,163.806111","page":"3433"},"conditions":{"soiltest_result":0,"north":57.598333,"west":109.544722,"south":1.933333,"east":163.806111},"success":true,"message":""},"data":{"meta":{"total":212844,"page":3433,"pages":7095,"count":30},"values":[{"id":217585,"code":"B4KJ201801010-5834","latitude":"32.9455053","longitude":"130.7198514","source_code":"QS49303537008","project_name":"","survey_name":"\u5e73\u5cf6\u6392\u6c34\u6a0b\u7ba1\u59161\u4ef6\u5730\u8cea\u8abf\u67fb\u696d\u52d9","client_name":"\u56fd\u571f\u4ea4\u901a\u7701\u4e5d\u5dde\u5730\u65b9\u6574\u5099\u5c40\u83ca\u6c60\u5ddd\u6cb3\u5ddd\u4e8b\u52d9\u6240","boring_xml_url":40,"boring_view_url":1,"soilmap_view_url":null,"soiltest_xml_url":0,"soiltest_view_url":0},{"id":217584,"code":"B4KJ201801010-5833","latitude":"32.9455053","longitude":"130.7199622","source_code":"QS49303537007","project_name":"","survey_name":"\u5e73\u5cf6\u6392\u6c34\u6a0b\u7ba1\u59161\u4ef6\u5730\u8cea\u8abf\u67fb\u696d\u52d9","client_name":"\u56fd\u571f\u4ea4\u901a\u7701\u4e5d\u5dde\u5730\u65b9\u6574\u5099\u5c40\u83ca\u6c60\u5ddd\u6cb3\u5ddd\u4e8b\u52d9\u6240","boring_xml_url":40,"boring_view_url":1,"soilmap_view_url":null,"soiltest_xml_url":0,"soiltest_view_url":0},{"id":217583,"code":"B4KJ201801010-5832","latitude":"32.9512269","longitude":"130.7226008","source_code":"QS49303537006","project_name":"","survey_name":"\u4f0a\u77e5\u574a\u6a4b\u5730\u8cea\u8abf\u67fb\u696d\u52d9","client_name":"\u56fd\u571f\u4ea4\u901a\u7701\u4e5d\u5dde\u5730\u65b9\u6574\u5099\u5c40\u83ca\u6c60\u5ddd\u6cb3\u5ddd\u4e8b\u52d9\u6240","boring_xml_url":40,"boring_view_url":1,"soilmap_view_url":null,"soiltest_xml_url":0,"soiltest_view_url":0},{"id":217582,"code":"B4KJ201801010-5831","latitude":"32.9476994","longitude":"130.7218511","source_code":"QS49303537005","project_name":"","survey_name":"\u4f0a\u77e5\u574a\u7b2c\u4e8c\u6392\u6c34\u6a0b\u7ba1\u59161\u4ef6\u5730\u8cea\u8abf\u67fb\u696d\u52d9","client_name":"\u56fd\u571f\u4ea4\u901a\u7701\u4e5d\u5dde\u5730\u65b9\u6574\u5099\u5c40\u83ca\u6c60\u5ddd\u6cb3\u5ddd\u4e8b\u52d9\u6240","boring_xml_url":40,"boring_view_url":1,"soilmap_view_url":null,"soiltest_xml_url":0,"soiltest_view_url":0},{"id":217581,"code":"B4KJ201801010-5830","latitude":"32.9476717","longitude":"130.7220733","source_code":"QS49303537004","project_name":"","survey_name":"\u4f0a\u77e5\u574a\u7b2c\u4e8c\u6392\u6c34\u6a0b\u7ba1\u59161\u4ef6\u5730\u8cea\u8abf\u67fb\u696d\u52d9","client_name":"\u56fd\u571f\u4ea4\u901a\u7701\u4e5d\u5dde\u5730\u65b9\u6574\u5099\u5c40\u83ca\u6c60\u5ddd\u6cb3\u5ddd\u4e8b\u52d9\u6240","boring_xml_url":40,"boring_view_url":1,"soilmap_view_url":null,"soiltest_xml_url":0,"soiltest_view_url":0},{"id":217580,"code":"B4KJ201801010-5829","latitude":"32.9510881","longitude":"130.7223508","source_code":"QS49303537003","project_name":"","survey_name":"\u4f59\u5185\u6392\u6c34\u6a0b\u7ba1\u59161\u4ef6\u5730\u8cea\u8abf\u67fb\u696d\u52d9","client_name":"\u56fd\u571f\u4ea4\u901a\u7701\u4e5d\u5dde\u5730\u65b9\u6574\u5099\u5c40\u83ca\u6c60\u5ddd\u6cb3\u5ddd\u4e8b\u52d9\u6240","boring_xml_url":40,"boring_view_url":1,"soilmap_view_url":null,"soiltest_xml_url":0,"soiltest_view_url":0},{"id":217579,"code":"B4KJ201801010-5828","latitude":"32.9510603","longitude":"130.7225453","source_code":"QS49303537002","project_name":"","survey_name":"\u4f59\u5185\u6392\u6c34\u6a0b\u7ba1\u59161\u4ef6\u5730\u8cea\u8abf\u67fb\u696d\u52d9","client_name":"\u56fd\u571f\u4ea4\u901a\u7701\u4e5d\u5dde\u5730\u65b9\u6574\u5099\u5c40\u83ca\u6c60\u5ddd\u6cb3\u5ddd\u4e8b\u52d9\u6240","boring_xml_url":40,"boring_view_url":1,"soilmap_view_url":null,"soiltest_xml_url":0,"soiltest_view_url":0},{"id":217578,"code":"B4KJ201801010-5827","latitude":"32.9466719","longitude":"130.71999","source_code":"QS49303537001","project_name":"","survey_name":"\u4f59\u5185\u6392\u6c34\u6a0b\u7ba1\u59161\u4ef6\u5730\u8cea\u8abf\u67fb\u696d\u52d9","client_name":"\u56fd\u571f\u4ea4\u901a\u7701\u4e5d\u5dde\u5730\u65b9\u6574\u5099\u5c40\u83ca\u6c60\u5ddd\u6cb3\u5ddd\u4e8b\u52d9\u6240","boring_xml_url":40,"boring_view_url":1,"soilmap_view_url":null,"soiltest_xml_url":0,"soiltest_view_url":0},{"id":217577,"code":"B4KJ201801010-5826","latitude":"32.9372008","longitude":"130.7245456","source_code":"QS49303528008","project_name":"","survey_name":"\u4e80\u7532\u7b2c\u4e00\u6392\u6c34\u6a0b\u7ba1\u59161\u4ef6\u5730\u8cea\u8abf\u67fb\u696d\u52d9","client_name":"\u56fd\u571f\u4ea4\u901a\u7701\u4e5d\u5dde\u5730\u65b9\u6574\u5099\u5c40\u83ca\u6c60\u5ddd\u6cb3\u5ddd\u4e8b\u52d9\u6240","boring_xml_url":40,"boring_view_url":1,"soilmap_view_url":null,"soiltest_xml_url":0,"soiltest_view_url":0},{"id":217576,"code":"B4KJ201801010-5825","latitude":"32.9372286","longitude":"130.7246567","source_code":"QS49303528007","project_name":"","survey_name":"\u4e80\u7532\u7b2c\u4e00\u6392\u6c34\u6a0b\u7ba1\u59161\u4ef6\u5730\u8cea\u8abf\u67fb\u696d\u52d9","client_name":"\u56fd\u571f\u4ea4\u901a\u7701\u4e5d\u5dde\u5730\u65b9\u6574\u5099\u5c40\u83ca\u6c60\u5ddd\u6cb3\u5ddd\u4e8b\u52d9\u6240","boring_xml_url":40,"boring_view_url":1,"soilmap_view_url":null,"soiltest_xml_url":0,"soiltest_view_url":0},{"id":217575,"code":"B4KJ201801010-5824","latitude":"32.9390061","longitude":"130.7249344","source_code":"QS49303528004","project_name":"","survey_name":"\u821f\u5cf6\u7b2c1\u6392\u6c34\u6a0b\u7ba1\u59161\u4ef6\u5730\u8cea\u8abf\u67fb\u696d\u52d9","client_name":"\u56fd\u571f\u4ea4\u901a\u7701\u4e5d\u5dde\u5730\u65b9\u6574\u5099\u5c40\u83ca\u6c60\u5ddd\u6cb3\u5ddd\u4e8b\u52d9\u6240","boring_xml_url":40,"boring_view_url":1,"soilmap_view_url":null,"soiltest_xml_url":0,"soiltest_view_url":0},{"id":217574,"code":"B4KJ201801010-5823","latitude":"32.9390061","longitude":"130.7249344","source_code":"QS49303528003","project_name":"","survey_name":"\u821f\u5cf6\u7b2c1\u6392\u6c34\u6a0b\u7ba1\u59161\u4ef6\u5730\u8cea\u8abf\u67fb\u696d\u52d9","client_name":"\u56fd\u571f\u4ea4\u901a\u7701\u4e5d\u5dde\u5730\u65b9\u6574\u5099\u5c40\u83ca\u6c60\u5ddd\u6cb3\u5ddd\u4e8b\u52d9\u6240","boring_xml_url":40,"boring_view_url":1,"soilmap_view_url":null,"soiltest_xml_url":0,"soiltest_view_url":0},{"id":217573,"code":"B4KJ201801010-5822","latitude":"32.9400617","longitude":"130.7221844","source_code":"QS49303527008","project_name":"","survey_name":"\u4e0a\u6cb3\u539f\u7b2c1\u6392\u6c34\u6a0b\u7ba1\u59161\u4ef6\u5730\u8cea\u8abf\u67fb\u696d\u52d9","client_name":"\u56fd\u571f\u4ea4\u901a\u7701\u4e5d\u5dde\u5730\u65b9\u6574\u5099\u5c40\u83ca\u6c60\u5ddd\u6cb3\u5ddd\u4e8b\u52d9\u6240","boring_xml_url":40,"boring_view_url":1,"soilmap_view_url":null,"soiltest_xml_url":0,"soiltest_view_url":0},{"id":217572,"code":"B4KJ201801010-5821","latitude":"32.9400894","longitude":"130.7221289","source_code":"QS49303527007","project_name":"","survey_name":"\u4e0a\u6cb3\u539f\u7b2c1\u6392\u6c34\u6a0b\u7ba1\u59161\u4ef6\u5730\u8cea\u8abf\u67fb\u696d\u52d9","client_name":"\u56fd\u571f\u4ea4\u901a\u7701\u4e5d\u5dde\u5730\u65b9\u6574\u5099\u5c40\u83ca\u6c60\u5ddd\u6cb3\u5ddd\u4e8b\u52d9\u6240","boring_xml_url":40,"boring_view_url":1,"soilmap_view_url":null,"soiltest_xml_url":0,"soiltest_view_url":0},{"id":217571,"code":"B4KJ201801010-5820","latitude":"32.9427","longitude":"130.7206847","source_code":"QS49303527004","project_name":"","survey_name":"\u5e73\u4e95\u7b2c2\u6392\u6c34\u6a0b\u7ba1\u5730\u8cea\u8abf\u67fb\u696d\u52d9","client_name":"\u56fd\u571f\u4ea4\u901a\u7701\u4e5d\u5dde\u5730\u65b9\u6574\u5099\u5c40\u83ca\u6c60\u5ddd\u6cb3\u5ddd\u4e8b\u52d9\u6240","boring_xml_url":40,"boring_view_url":1,"soilmap_view_url":null,"soiltest_xml_url":0,"soiltest_view_url":0},{"id":217570,"code":"B4KJ201801010-5819","latitude":"32.9427278","longitude":"130.7207681","source_code":"QS49303527003","project_name":"","survey_name":"\u5e73\u4e95\u7b2c2\u6392\u6c34\u6a0b\u7ba1\u5730\u8cea\u8abf\u67fb\u696d\u52d9","client_name":"\u56fd\u571f\u4ea4\u901a\u7701\u4e5d\u5dde\u5730\u65b9\u6574\u5099\u5c40\u83ca\u6c60\u5ddd\u6cb3\u5ddd\u4e8b\u52d9\u6240","boring_xml_url":40,"boring_view_url":1,"soilmap_view_url":null,"soiltest_xml_url":0,"soiltest_view_url":0},{"id":217569,"code":"B4KJ201801010-5818","latitude":"32.9433111","longitude":"130.7215733","source_code":"QS49303527002","project_name":"","survey_name":"\u821f\u5cf6\u7b2c1\u6392\u6c34\u6a0b\u7ba1\u59161\u4ef6\u5730\u8cea\u8abf\u67fb\u696d\u52d9","client_name":"\u56fd\u571f\u4ea4\u901a\u7701\u4e5d\u5dde\u5730\u65b9\u6574\u5099\u5c40\u83ca\u6c60\u5ddd\u6cb3\u5ddd\u4e8b\u52d9\u6240","boring_xml_url":40,"boring_view_url":1,"soilmap_view_url":null,"soiltest_xml_url":0,"soiltest_view_url":0},{"id":217568,"code":"B4KJ201801010-5817","latitude":"32.9432556","longitude":"130.72149","source_code":"QS49303527001","project_name":"","survey_name":"\u821f\u5cf6\u7b2c1\u6392\u6c34\u6a0b\u7ba1\u59161\u4ef6\u5730\u8cea\u8abf\u67fb\u696d\u52d9","client_name":"\u56fd\u571f\u4ea4\u901a\u7701\u4e5d\u5dde\u5730\u65b9\u6574\u5099\u5c40\u83ca\u6c60\u5ddd\u6cb3\u5ddd\u4e8b\u52d9\u6240","boring_xml_url":40,"boring_view_url":1,"soilmap_view_url":null,"soiltest_xml_url":0,"soiltest_view_url":0},{"id":217567,"code":"B4KJ201801010-5816","latitude":"32.9311186","longitude":"130.7445717","source_code":"QS49303519013","project_name":"","survey_name":"\u6708\u7530\u6392\u6c34\u6a0b\u7ba1\u5730\u8cea\u8abf\u67fb\u59161\u4ef6\u696d\u52d9","client_name":"\u56fd\u571f\u4ea4\u901a\u7701\u4e5d\u5dde\u5730\u65b9\u6574\u5099\u5c40\u83ca\u6c60\u5ddd\u6cb3\u5ddd\u4e8b\u52d9\u6240","boring_xml_url":40,"boring_view_url":1,"soilmap_view_url":null,"soiltest_xml_url":0,"soiltest_view_url":0},{"id":217566,"code":"B4KJ201801010-5815","latitude":"32.9311183","longitude":"130.7417942","source_code":"QS49303519012","project_name":"","survey_name":"\u7530\u5cf6\u7b2c1\u6392\u6c34\u6a0b\u7ba1\u59161\u4ef6\u5730\u8cea\u8abf\u67fb\u696d\u52d9","client_name":"\u56fd\u571f\u4ea4\u901a\u7701\u4e5d\u5dde\u5730\u65b9\u6574\u5099\u5c40\u83ca\u6c60\u5ddd\u6cb3\u5ddd\u4e8b\u52d9\u6240","boring_xml_url":40,"boring_view_url":1,"soilmap_view_url":null,"soiltest_xml_url":0,"soiltest_view_url":0},{"id":217565,"code":"B4KJ201801010-5814","latitude":"32.9312572","longitude":"130.7417942","source_code":"QS49303519011","project_name":"","survey_name":"\u7530\u5cf6\u7b2c1\u6392\u6c34\u6a0b\u7ba1\u59161\u4ef6\u5730\u8cea\u8abf\u67fb\u696d\u52d9","client_name":"\u56fd\u571f\u4ea4\u901a\u7701\u4e5d\u5dde\u5730\u65b9\u6574\u5099\u5c40\u83ca\u6c60\u5ddd\u6cb3\u5ddd\u4e8b\u52d9\u6240","boring_xml_url":40,"boring_view_url":1,"soilmap_view_url":null,"soiltest_xml_url":0,"soiltest_view_url":0},{"id":217564,"code":"B4KJ201801010-5813","latitude":"32.9319517","longitude":"130.7454328","source_code":"QS49303519010","project_name":"","survey_name":"\u6df1\u5ddd\u6392\u6c34\u6a0b\u7ba1\u59161\u4ef6\u5730\u8cea\u8abf\u67fb\u696d\u52d9","client_name":"\u56fd\u571f\u4ea4\u901a\u7701\u4e5d\u5dde\u5730\u65b9\u6574\u5099\u5c40\u83ca\u6c60\u5ddd\u6cb3\u5ddd\u4e8b\u52d9\u6240","boring_xml_url":40,"boring_view_url":1,"soilmap_view_url":null,"soiltest_xml_url":0,"soiltest_view_url":0},{"id":217563,"code":"B4KJ201801010-5812","latitude":"32.9316742","longitude":"130.7454328","source_code":"QS49303519009","project_name":"","survey_name":"\u6df1\u5ddd\u6392\u6c34\u6a0b\u7ba1\u59161\u4ef6\u5730\u8cea\u8abf\u67fb\u696d\u52d9","client_name":"\u56fd\u571f\u4ea4\u901a\u7701\u4e5d\u5dde\u5730\u65b9\u6574\u5099\u5c40\u83ca\u6c60\u5ddd\u6cb3\u5ddd\u4e8b\u52d9\u6240","boring_xml_url":40,"boring_view_url":1,"soilmap_view_url":null,"soiltest_xml_url":0,"soiltest_view_url":0},{"id":217562,"code":"B4KJ201801010-5811","latitude":"32.9322294","longitude":"130.7379333","source_code":"QS49303519008","project_name":"","survey_name":"\u5b9d\u7530\u7b2c2\u6392\u6c34\u6a0b\u7ba1\u5730\u8cea\u8abf\u67fb\u696d\u52d9","client_name":"\u56fd\u571f\u4ea4\u901a\u7701\u4e5d\u5dde\u5730\u65b9\u6574\u5099\u5c40\u83ca\u6c60\u5ddd\u6cb3\u5ddd\u4e8b\u52d9\u6240","boring_xml_url":40,"boring_view_url":1,"soilmap_view_url":null,"soiltest_xml_url":0,"soiltest_view_url":0},{"id":217561,"code":"B4KJ201801010-5810","latitude":"32.932785","longitude":"130.7379333","source_code":"QS49303519007","project_name":"","survey_name":"\u5b9d\u7530\u7b2c2\u6392\u6c34\u6a0b\u7ba1\u5730\u8cea\u8abf\u67fb\u696d\u52d9","client_name":"\u56fd\u571f\u4ea4\u901a\u7701\u4e5d\u5dde\u5730\u65b9\u6574\u5099\u5c40\u83ca\u6c60\u5ddd\u6cb3\u5ddd\u4e8b\u52d9\u6240","boring_xml_url":40,"boring_view_url":1,"soilmap_view_url":null,"soiltest_xml_url":0,"soiltest_view_url":0},{"id":217560,"code":"B4KJ201801010-5809","latitude":"32.9311739","longitude":"130.7382389","source_code":"QS49303519006","project_name":"","survey_name":"\u5357\u7530\u5cf6\u7b2c1\u6392\u6c34\u6a0b\u7ba1\u5730\u8cea\u8abf\u67fb\u696d\u52d9","client_name":"\u56fd\u571f\u4ea4\u901a\u7701\u4e5d\u5dde\u5730\u65b9\u6574\u5099\u5c40\u83ca\u6c60\u5ddd\u6cb3\u5ddd\u4e8b\u52d9\u6240","boring_xml_url":40,"boring_view_url":1,"soilmap_view_url":null,"soiltest_xml_url":0,"soiltest_view_url":0},{"id":217559,"code":"B4KJ201801010-5808","latitude":"32.9311739","longitude":"130.7389611","source_code":"QS49303519005","project_name":"","survey_name":"\u5b9d\u7530\u5830\u4e88\u5b9a\u5730\u5730\u8cea\u8abf\u67fb\u696d\u52d9","client_name":"\u56fd\u571f\u4ea4\u901a\u7701\u4e5d\u5dde\u5730\u65b9\u6574\u5099\u5c40\u83ca\u6c60\u5ddd\u6cb3\u5ddd\u4e8b\u52d9\u6240","boring_xml_url":40,"boring_view_url":1,"soilmap_view_url":null,"soiltest_xml_url":0,"soiltest_view_url":0},{"id":217558,"code":"B4KJ201801010-5807","latitude":"32.9311739","longitude":"130.7389611","source_code":"QS49303519004","project_name":"","survey_name":"\u5b9d\u7530\u5830\u4e88\u5b9a\u5730\u5730\u8cea\u8abf\u67fb\u696d\u52d9","client_name":"\u56fd\u571f\u4ea4\u901a\u7701\u4e5d\u5dde\u5730\u65b9\u6574\u5099\u5c40\u83ca\u6c60\u5ddd\u6cb3\u5ddd\u4e8b\u52d9\u6240","boring_xml_url":40,"boring_view_url":1,"soilmap_view_url":null,"soiltest_xml_url":0,"soiltest_view_url":0},{"id":217557,"code":"B4KJ201801010-5806","latitude":"32.9311739","longitude":"130.7389611","source_code":"QS49303519003","project_name":"","survey_name":"\u5b9d\u7530\u5830\u4e88\u5b9a\u5730\u5730\u8cea\u8abf\u67fb\u696d\u52d9","client_name":"\u56fd\u571f\u4ea4\u901a\u7701\u4e5d\u5dde\u5730\u65b9\u6574\u5099\u5c40\u83ca\u6c60\u5ddd\u6cb3\u5ddd\u4e8b\u52d9\u6240","boring_xml_url":40,"boring_view_url":1,"soilmap_view_url":null,"soiltest_xml_url":0,"soiltest_view_url":0},{"id":217556,"code":"B4KJ201801010-5805","latitude":"32.9310631","longitude":"130.7430439","source_code":"QS49303519002","project_name":"","survey_name":"\u4e2d\u5cf6\u7b2c\u4e8c\u6a0b\u7ba1\u59161\u4ef6\u5730\u8cea\u8abf\u67fb\u696d\u52d9","client_name":"\u56fd\u571f\u4ea4\u901a\u7701\u4e5d\u5dde\u5730\u65b9\u6574\u5099\u5c40\u83ca\u6c60\u5ddd\u6cb3\u5ddd\u4e8b\u52d9\u6240","boring_xml_url":40,"boring_view_url":1,"soilmap_view_url":null,"soiltest_xml_url":0,"soiltest_view_url":0}]}}