{"header":{"xyz":{"source":[],"mosaic":false},"page":3438,"raw":{"soiltest_result":"0","bbox":"57.598333,109.544722,1.933333,163.806111","page":"3438"},"conditions":{"soiltest_result":0,"north":57.598333,"west":109.544722,"south":1.933333,"east":163.806111},"success":true,"message":""},"data":{"meta":{"total":212844,"page":3438,"pages":7095,"count":30},"values":[{"id":217435,"code":"B4KJ201801010-5684","latitude":"32.8811289","longitude":"130.9861069","source_code":"QS49302759017","project_name":"","survey_name":"\u718a\u672c57\u53f7\u7acb\u91ce\u5730\u533a\u5730\u8cea\u8abf\u67fb\u696d\u52d9","client_name":"\u56fd\u571f\u4ea4\u901a\u7701\u4e5d\u5dde\u5730\u65b9\u6574\u5099\u5c40\u718a\u672c\u6cb3\u5ddd\u56fd\u9053\u4e8b\u52d9\u6240","boring_xml_url":40,"boring_view_url":1,"soilmap_view_url":null,"soiltest_xml_url":0,"soiltest_view_url":0},{"id":217434,"code":"B4KJ201801010-5683","latitude":"32.8811842","longitude":"130.9862458","source_code":"QS49302759016","project_name":"","survey_name":"\u718a\u672c57\u53f7\u7acb\u91ce\u5730\u533a\u5730\u8cea\u8abf\u67fb\u696d\u52d9","client_name":"\u56fd\u571f\u4ea4\u901a\u7701\u4e5d\u5dde\u5730\u65b9\u6574\u5099\u5c40\u718a\u672c\u6cb3\u5ddd\u56fd\u9053\u4e8b\u52d9\u6240","boring_xml_url":40,"boring_view_url":1,"soilmap_view_url":null,"soiltest_xml_url":0,"soiltest_view_url":0},{"id":217433,"code":"B4KJ201801010-5682","latitude":"32.8811842","longitude":"130.9861903","source_code":"QS49302759015","project_name":"","survey_name":"\u718a\u672c57\u53f7\u7acb\u91ce\u5730\u533a\u5730\u8cea\u8abf\u67fb\u696d\u52d9","client_name":"\u56fd\u571f\u4ea4\u901a\u7701\u4e5d\u5dde\u5730\u65b9\u6574\u5099\u5c40\u718a\u672c\u6cb3\u5ddd\u56fd\u9053\u4e8b\u52d9\u6240","boring_xml_url":40,"boring_view_url":1,"soilmap_view_url":null,"soiltest_xml_url":0,"soiltest_view_url":0},{"id":217432,"code":"B4KJ201801010-5681","latitude":"32.8812119","longitude":"130.9861347","source_code":"QS49302759014","project_name":"","survey_name":"\u718a\u672c57\u53f7\u7acb\u91ce\u5730\u533a\u5730\u8cea\u8abf\u67fb","client_name":"\u56fd\u571f\u4ea4\u901a\u7701\u4e5d\u5dde\u5730\u65b9\u6574\u5099\u5c40\u718a\u672c\u6cb3\u5ddd\u56fd\u9053\u4e8b\u52d9\u6240","boring_xml_url":40,"boring_view_url":1,"soilmap_view_url":null,"soiltest_xml_url":0,"soiltest_view_url":0},{"id":217431,"code":"B4KJ201801010-5680","latitude":"32.8814342","longitude":"130.9863014","source_code":"QS49302759013","project_name":"","survey_name":"\u718a\u672c57\u53f7\u7acb\u91ce\u5730\u533a\u5730\u8cea\u8abf\u67fb\u696d\u52d9","client_name":"\u56fd\u571f\u4ea4\u901a\u7701\u4e5d\u5dde\u5730\u65b9\u6574\u5099\u5c40\u718a\u672c\u6cb3\u5ddd\u56fd\u9053\u4e8b\u52d9\u6240","boring_xml_url":40,"boring_view_url":1,"soilmap_view_url":null,"soiltest_xml_url":0,"soiltest_view_url":0},{"id":217430,"code":"B4KJ201801010-5679","latitude":"32.8814619","longitude":"130.9862458","source_code":"QS49302759012","project_name":"","survey_name":"\u718a\u672c57\u53f7\u7acb\u91ce\u5730\u533a\u5730\u8cea\u8abf\u67fb\u696d\u52d9","client_name":"\u56fd\u571f\u4ea4\u901a\u7701\u4e5d\u5dde\u5730\u65b9\u6574\u5099\u5c40\u718a\u672c\u6cb3\u5ddd\u56fd\u9053\u4e8b\u52d9\u6240","boring_xml_url":40,"boring_view_url":1,"soilmap_view_url":null,"soiltest_xml_url":0,"soiltest_view_url":0},{"id":217429,"code":"B4KJ201801010-5678","latitude":"32.8816564","longitude":"130.9864681","source_code":"QS49302759011","project_name":"","survey_name":"\u718a\u672c57\u53f7\u7acb\u91ce\u5730\u533a\u5730\u8cea\u8abf\u67fb\u696d\u52d9","client_name":"\u56fd\u571f\u4ea4\u901a\u7701\u4e5d\u5dde\u5730\u65b9\u6574\u5099\u5c40\u718a\u672c\u6cb3\u5ddd\u56fd\u9053\u4e8b\u52d9\u6240","boring_xml_url":40,"boring_view_url":1,"soilmap_view_url":null,"soiltest_xml_url":0,"soiltest_view_url":0},{"id":217428,"code":"B4KJ201801010-5677","latitude":"32.8816564","longitude":"130.9864125","source_code":"QS49302759010","project_name":"","survey_name":"\u718a\u672c57\u53f7\u7acb\u91ce\u5730\u533a\u5730\u8cea\u8abf\u67fb\u696d\u52d9","client_name":"\u56fd\u571f\u4ea4\u901a\u7701\u4e5d\u5dde\u5730\u65b9\u6574\u5099\u5c40\u718a\u672c\u6cb3\u5ddd\u56fd\u9053\u4e8b\u52d9\u6240","boring_xml_url":40,"boring_view_url":1,"soilmap_view_url":null,"soiltest_xml_url":0,"soiltest_view_url":0},{"id":217427,"code":"B4KJ201801010-5676","latitude":"32.8816842","longitude":"130.9863569","source_code":"QS49302759009","project_name":"","survey_name":"\u718a\u672c57\u53f7\u7acb\u91ce\u5730\u533a\u5730\u8cea\u8abf\u67fb\u696d\u52d9","client_name":"\u56fd\u571f\u4ea4\u901a\u7701\u4e5d\u5dde\u5730\u65b9\u6574\u5099\u5c40\u718a\u672c\u6cb3\u5ddd\u56fd\u9053\u4e8b\u52d9\u6240","boring_xml_url":40,"boring_view_url":1,"soilmap_view_url":null,"soiltest_xml_url":0,"soiltest_view_url":0},{"id":217426,"code":"B4KJ201801010-5675","latitude":"32.8817675","longitude":"130.9862458","source_code":"QS49302759008","project_name":"","survey_name":"\u718a\u672c57\u53f7\u7acb\u91ce\u5730\u533a\u5730\u8cea\u8abf\u67fb\u696d\u52d9","client_name":"\u56fd\u571f\u4ea4\u901a\u7701\u4e5d\u5dde\u5730\u65b9\u6574\u5099\u5c40\u718a\u672c\u6cb3\u5ddd\u56fd\u9053\u4e8b\u52d9\u6240","boring_xml_url":40,"boring_view_url":1,"soilmap_view_url":null,"soiltest_xml_url":0,"soiltest_view_url":0},{"id":217425,"code":"B4KJ201801010-5674","latitude":"32.8811008","longitude":"130.9855514","source_code":"QS49302759007","project_name":"","survey_name":"\u718a\u672c57\u53f7\u7acb\u91ce\u5730\u533a\u5730\u8cea\u8abf\u67fb\u696d\u52d9","client_name":"\u56fd\u571f\u4ea4\u901a\u7701\u4e5d\u5dde\u5730\u65b9\u6574\u5099\u5c40\u718a\u672c\u6cb3\u5ddd\u56fd\u9053\u4e8b\u52d9\u6240","boring_xml_url":40,"boring_view_url":1,"soilmap_view_url":null,"soiltest_xml_url":0,"soiltest_view_url":0},{"id":217424,"code":"B4KJ201801010-5673","latitude":"32.8811008","longitude":"130.9855514","source_code":"QS49302759006","project_name":"","survey_name":"\u718a\u672c57\u53f7\u7acb\u91ce\u5730\u533a\u5730\u8cea\u8abf\u67fb\u696d\u52d9","client_name":"\u56fd\u571f\u4ea4\u901a\u7701\u4e5d\u5dde\u5730\u65b9\u6574\u5099\u5c40\u718a\u672c\u6cb3\u5ddd\u56fd\u9053\u4e8b\u52d9\u6240","boring_xml_url":40,"boring_view_url":1,"soilmap_view_url":null,"soiltest_xml_url":0,"soiltest_view_url":0},{"id":217423,"code":"B4KJ201801010-5672","latitude":"32.8811008","longitude":"130.9855514","source_code":"QS49302759005","project_name":"","survey_name":"\u718a\u672c57\u53f7\u7acb\u91ce\u5730\u533a\u5730\u8cea\u8abf\u67fb\u696d\u52d9","client_name":"\u56fd\u571f\u4ea4\u901a\u7701\u4e5d\u5dde\u5730\u65b9\u6574\u5099\u5c40\u718a\u672c\u6cb3\u5ddd\u56fd\u9053\u4e8b\u52d9\u6240","boring_xml_url":40,"boring_view_url":1,"soilmap_view_url":null,"soiltest_xml_url":0,"soiltest_view_url":0},{"id":217422,"code":"B4KJ201801010-5671","latitude":"32.8811008","longitude":"130.9855514","source_code":"QS49302759004","project_name":"","survey_name":"\u718a\u672c57\u53f7\u7acb\u91ce\u5730\u533a\u5730\u8cea\u8abf\u67fb\u696d\u52d9","client_name":"\u56fd\u571f\u4ea4\u901a\u7701\u4e5d\u5dde\u5730\u65b9\u6574\u5099\u5c40\u718a\u672c\u6cb3\u5ddd\u56fd\u9053\u4e8b\u52d9\u6240","boring_xml_url":40,"boring_view_url":1,"soilmap_view_url":null,"soiltest_xml_url":0,"soiltest_view_url":0},{"id":217421,"code":"B4KJ201801010-5670","latitude":"32.8816286","longitude":"130.9860514","source_code":"QS49302759003","project_name":"","survey_name":"\u718a\u672c57\u53f7\u7acb\u91ce\u5730\u533a\u5730\u8cea\u8abf\u67fb\u696d\u52d9","client_name":"\u56fd\u571f\u4ea4\u901a\u7701\u4e5d\u5dde\u5730\u65b9\u6574\u5099\u5c40\u718a\u672c\u6cb3\u5ddd\u56fd\u9053\u4e8b\u52d9\u6240","boring_xml_url":40,"boring_view_url":1,"soilmap_view_url":null,"soiltest_xml_url":0,"soiltest_view_url":0},{"id":217420,"code":"B4KJ201801010-5669","latitude":"32.8813508","longitude":"130.9858292","source_code":"QS49302759002","project_name":"","survey_name":"\u718a\u672c57\u53f7\u7acb\u91ce\u5730\u533a\u5730\u8cea\u8abf\u67fb\u696d\u52d9","client_name":"\u56fd\u571f\u4ea4\u901a\u7701\u4e5d\u5dde\u5730\u65b9\u6574\u5099\u5c40\u718a\u672c\u6cb3\u5ddd\u56fd\u9053\u4e8b\u52d9\u6240","boring_xml_url":40,"boring_view_url":1,"soilmap_view_url":null,"soiltest_xml_url":0,"soiltest_view_url":0},{"id":217419,"code":"B4KJ201801010-5668","latitude":"32.8813508","longitude":"130.9858292","source_code":"QS49302759001","project_name":"","survey_name":"\u718a\u672c57\u53f7\u7acb\u91ce\u5730\u533a\u5730\u8cea\u8abf\u67fb\u696d\u52d9","client_name":"\u56fd\u571f\u4ea4\u901a\u7701\u4e5d\u5dde\u5730\u65b9\u6574\u5099\u5c40\u718a\u672c\u6cb3\u5ddd\u56fd\u9053\u4e8b\u52d9\u6240","boring_xml_url":40,"boring_view_url":1,"soilmap_view_url":null,"soiltest_xml_url":0,"soiltest_view_url":0},{"id":217418,"code":"B4KJ201801010-5667","latitude":"32.8825172","longitude":"130.9663864","source_code":"QS49302757004","project_name":"","survey_name":"\u7acb\u91ce\u5730\u533a\u5730\u8cea\u8abf\u67fb\u696d\u52d9","client_name":"\u56fd\u571f\u4ea4\u901a\u7701\u4e5d\u5dde\u5730\u65b9\u6574\u5099\u5c40\u718a\u672c\u6cb3\u5ddd\u56fd\u9053\u4e8b\u52d9\u6240","boring_xml_url":40,"boring_view_url":1,"soilmap_view_url":null,"soiltest_xml_url":0,"soiltest_view_url":0},{"id":217417,"code":"B4KJ201801010-5666","latitude":"32.8789064","longitude":"130.9626369","source_code":"QS49302757003","project_name":"","survey_name":"\u7acb\u91ce\u5730\u533a\u5730\u8cea\u8abf\u67fb\u696d\u52d9","client_name":"\u56fd\u571f\u4ea4\u901a\u7701\u4e5d\u5dde\u5730\u65b9\u6574\u5099\u5c40\u718a\u672c\u6cb3\u5ddd\u56fd\u9053\u4e8b\u52d9\u6240","boring_xml_url":40,"boring_view_url":1,"soilmap_view_url":null,"soiltest_xml_url":0,"soiltest_view_url":0},{"id":217416,"code":"B4KJ201801010-5665","latitude":"32.8789053","longitude":"130.9129192","source_code":"QS49302753001","project_name":"","survey_name":"\u702c\u7530\u5730\u533a\u5730\u8cea\u8abf\u67fb\u696d\u52d9","client_name":"\u56fd\u571f\u4ea4\u901a\u7701\u4e5d\u5dde\u5730\u65b9\u6574\u5099\u5c40\u718a\u672c\u6cb3\u5ddd\u56fd\u9053\u4e8b\u52d9\u6240","boring_xml_url":40,"boring_view_url":1,"soilmap_view_url":null,"soiltest_xml_url":0,"soiltest_view_url":0},{"id":217415,"code":"B4KJ201801010-5664","latitude":"32.8799608","longitude":"130.9061142","source_code":"QS49302752001","project_name":"","survey_name":"\u702c\u7530\u5730\u533a\u5730\u8cea\u8abf\u67fb\u696d\u52d9","client_name":"\u56fd\u571f\u4ea4\u901a\u7701\u4e5d\u5dde\u5730\u65b9\u6574\u5099\u5c40\u718a\u672c\u6cb3\u5ddd\u56fd\u9053\u4e8b\u52d9\u6240","boring_xml_url":40,"boring_view_url":1,"soilmap_view_url":null,"soiltest_xml_url":0,"soiltest_view_url":0},{"id":217414,"code":"B4KJ201801010-5663","latitude":"32.8808494","longitude":"130.8963928","source_code":"QS49302751001","project_name":"","survey_name":"\u702c\u7530\u5730\u533a\u5730\u8cea\u8abf\u67fb\u696d\u52d9","client_name":"\u56fd\u571f\u4ea4\u901a\u7701\u4e5d\u5dde\u5730\u65b9\u6574\u5099\u5c40\u718a\u672c\u6cb3\u5ddd\u56fd\u9053\u4e8b\u52d9\u6240","boring_xml_url":40,"boring_view_url":1,"soilmap_view_url":null,"soiltest_xml_url":0,"soiltest_view_url":0},{"id":217413,"code":"B4KJ201801010-5662","latitude":"32.8741853","longitude":"130.9913844","source_code":"QS49302749053","project_name":"","survey_name":"\u7acb\u91ce\u30c8\u30f3\u30cd\u30eb\u5730\u8cea\u8abf\u67fb(\u305d\u306e1)\u696d\u52d9","client_name":"\u56fd\u571f\u4ea4\u901a\u7701\u4e5d\u5dde\u5730\u65b9\u6574\u5099\u5c40\u718a\u672c\u6cb3\u5ddd\u56fd\u9053\u4e8b\u52d9\u6240","boring_xml_url":40,"boring_view_url":1,"soilmap_view_url":null,"soiltest_xml_url":0,"soiltest_view_url":0},{"id":217412,"code":"B4KJ201801010-5661","latitude":"32.8741853","longitude":"130.9913844","source_code":"QS49302749052","project_name":"","survey_name":"\u7acb\u91ce\u30c8\u30f3\u30cd\u30eb\u5730\u8cea\u8abf\u67fb(\u305d\u306e1)\u696d\u52d9","client_name":"\u56fd\u571f\u4ea4\u901a\u7701\u4e5d\u5dde\u5730\u65b9\u6574\u5099\u5c40\u718a\u672c\u6cb3\u5ddd\u56fd\u9053\u4e8b\u52d9\u6240","boring_xml_url":40,"boring_view_url":1,"soilmap_view_url":null,"soiltest_xml_url":0,"soiltest_view_url":0},{"id":217411,"code":"B4KJ201801010-5660","latitude":"32.8705744","longitude":"130.9929122","source_code":"QS49302749051","project_name":"","survey_name":"\u5de5\u4e8b\u7528\u9053\u8def2\u5de5\u533a(\u305d\u306e5)\u65b9\u9762\u5b89\u5b9a\u89e3\u6790\u691c\u8a0e\u59161\u4ef6\u696d\u52d9","client_name":"\u56fd\u571f\u4ea4\u901a\u7701\u4e5d\u5dde\u5730\u65b9\u6574\u5099\u5c40\u7acb\u91ce\u30c0\u30e0\u5de5\u4e8b\u4e8b\u52d9\u6240","boring_xml_url":40,"boring_view_url":1,"soilmap_view_url":null,"soiltest_xml_url":0,"soiltest_view_url":0},{"id":217410,"code":"B4KJ201801010-5659","latitude":"32.8708522","longitude":"130.9929122","source_code":"QS49302749050","project_name":"","survey_name":"\u5de5\u4e8b\u7528\u9053\u8def2\u5de5\u533a(\u305d\u306e5)\u65b9\u9762\u5b89\u5b9a\u89e3\u6790\u691c\u8a0e\u59161\u4ef6\u696d\u52d9","client_name":"\u56fd\u571f\u4ea4\u901a\u7701\u4e5d\u5dde\u5730\u65b9\u6574\u5099\u5c40\u7acb\u91ce\u30c0\u30e0\u5de5\u4e8b\u4e8b\u52d9\u6240","boring_xml_url":40,"boring_view_url":1,"soilmap_view_url":null,"soiltest_xml_url":0,"soiltest_view_url":0},{"id":217409,"code":"B4KJ201801010-5658","latitude":"32.87113","longitude":"130.9926344","source_code":"QS49302749049","project_name":"","survey_name":"\u5de5\u4e8b\u7528\u9053\u8def2\u5de5\u533a(\u305d\u306e5)\u65b9\u9762\u5b89\u5b9a\u89e3\u6790\u691c\u8a0e\u59161\u4ef6\u696d\u52d9","client_name":"\u56fd\u571f\u4ea4\u901a\u7701\u4e5d\u5dde\u5730\u65b9\u6574\u5099\u5c40\u7acb\u91ce\u30c0\u30e0\u5de5\u4e8b\u4e8b\u52d9\u6240","boring_xml_url":40,"boring_view_url":1,"soilmap_view_url":null,"soiltest_xml_url":0,"soiltest_view_url":0},{"id":217408,"code":"B4KJ201801010-5657","latitude":"32.87113","longitude":"130.9926344","source_code":"QS49302749048","project_name":"","survey_name":"\u5de5\u4e8b\u7528\u9053\u8def2\u5de5\u533a(\u305d\u306e5)\u65b9\u9762\u5b89\u5b9a\u89e3\u6790\u691c\u8a0e\u59161\u4ef6\u696d\u52d9","client_name":"\u56fd\u571f\u4ea4\u901a\u7701\u4e5d\u5dde\u5730\u65b9\u6574\u5099\u5c40\u7acb\u91ce\u30c0\u30e0\u5de5\u4e8b\u4e8b\u52d9\u6240","boring_xml_url":40,"boring_view_url":1,"soilmap_view_url":null,"soiltest_xml_url":0,"soiltest_view_url":0},{"id":217407,"code":"B4KJ201801010-5656","latitude":"32.8714078","longitude":"130.9920789","source_code":"QS49302749047","project_name":"","survey_name":"\u5de5\u4e8b\u7528\u9053\u8def2\u5de5\u533a(\u305d\u306e5)\u65b9\u9762\u5b89\u5b9a\u89e3\u6790\u691c\u8a0e\u59161\u4ef6\u696d\u52d9","client_name":"\u56fd\u571f\u4ea4\u901a\u7701\u4e5d\u5dde\u5730\u65b9\u6574\u5099\u5c40\u7acb\u91ce\u30c0\u30e0\u5de5\u4e8b\u4e8b\u52d9\u6240","boring_xml_url":40,"boring_view_url":1,"soilmap_view_url":null,"soiltest_xml_url":0,"soiltest_view_url":0},{"id":217406,"code":"B4KJ201801010-5655","latitude":"32.8714078","longitude":"130.9920789","source_code":"QS49302749046","project_name":"","survey_name":"\u5de5\u4e8b\u7528\u9053\u8def2\u5de5\u533a(\u305d\u306e5)\u65b9\u9762\u5b89\u5b9a\u89e3\u6790\u691c\u8a0e\u59161\u4ef6\u696d\u52d9","client_name":"\u56fd\u571f\u4ea4\u901a\u7701\u4e5d\u5dde\u5730\u65b9\u6574\u5099\u5c40\u7acb\u91ce\u30c0\u30e0\u5de5\u4e8b\u4e8b\u52d9\u6240","boring_xml_url":40,"boring_view_url":1,"soilmap_view_url":null,"soiltest_xml_url":0,"soiltest_view_url":0}]}}