{"header":{"xyz":{"source":[],"mosaic":false},"page":3439,"raw":{"soiltest_result":"0","bbox":"57.598333,109.544722,1.933333,163.806111","page":"3439"},"conditions":{"soiltest_result":0,"north":57.598333,"west":109.544722,"south":1.933333,"east":163.806111},"success":true,"message":""},"data":{"meta":{"total":212844,"page":3439,"pages":7095,"count":30},"values":[{"id":217405,"code":"B4KJ201801010-5654","latitude":"32.8756294","longitude":"130.9890233","source_code":"QS49302749040","project_name":"","survey_name":"\u7acb\u91ce\u30c0\u30e0\u70cf\u5e3d\u5b50\u5cb3\u6eb6\u5ca9\u30b0\u30e9\u30a6\u30c8\u8a66\u9a13\u8abf\u67fb\u4ed6\u4e00\u4ef6\u696d\u52d9","client_name":"\u56fd\u571f\u4ea4\u901a\u7701\u4e5d\u5dde\u5730\u65b9\u6574\u5099\u5c40\u7acb\u91ce\u30c0\u30e0\u5de5\u4e8b\u4e8b\u52d9\u6240","boring_xml_url":40,"boring_view_url":1,"soilmap_view_url":null,"soiltest_xml_url":0,"soiltest_view_url":0},{"id":217404,"code":"B4KJ201801010-5653","latitude":"32.8756294","longitude":"130.9890233","source_code":"QS49302749039","project_name":"","survey_name":"\u7acb\u91ce\u30c0\u30e0\u70cf\u5e3d\u5b50\u5cb3\u6eb6\u5ca9\u30b0\u30e9\u30a6\u30c8\u8a66\u9a13\u8abf\u67fb\u4ed6\u4e00\u4ef6\u696d\u52d9","client_name":"\u56fd\u571f\u4ea4\u901a\u7701\u4e5d\u5dde\u5730\u65b9\u6574\u5099\u5c40\u7acb\u91ce\u30c0\u30e0\u5de5\u4e8b\u4e8b\u52d9\u6240","boring_xml_url":40,"boring_view_url":1,"soilmap_view_url":null,"soiltest_xml_url":0,"soiltest_view_url":0},{"id":217403,"code":"B4KJ201801010-5652","latitude":"32.8756294","longitude":"130.9890233","source_code":"QS49302749038","project_name":"","survey_name":"\u7acb\u91ce\u30c0\u30e0\u70cf\u5e3d\u5b50\u5cb3\u6eb6\u5ca9\u30b0\u30e9\u30a6\u30c8\u8a66\u9a13\u8abf\u67fb\u4ed6\u4e00\u4ef6\u696d\u52d9","client_name":"\u56fd\u571f\u4ea4\u901a\u7701\u4e5d\u5dde\u5730\u65b9\u6574\u5099\u5c40\u7acb\u91ce\u30c0\u30e0\u5de5\u4e8b\u4e8b\u52d9\u6240","boring_xml_url":40,"boring_view_url":1,"soilmap_view_url":null,"soiltest_xml_url":0,"soiltest_view_url":0},{"id":217402,"code":"B4KJ201801010-5651","latitude":"32.8756294","longitude":"130.9890233","source_code":"QS49302749037","project_name":"","survey_name":"\u7acb\u91ce\u30c0\u30e0\u70cf\u5e3d\u5b50\u5cb3\u6eb6\u5ca9\u30b0\u30e9\u30f3\u30c8\u8a66\u9a13\u8abf\u67fb\u4ed6\u4e00\u4ef6\u696d\u52d9","client_name":"\u56fd\u571f\u4ea4\u901a\u7701\u4e5d\u5dde\u5730\u65b9\u6574\u5099\u5c40\u7acb\u91ce\u30c0\u30e0\u5de5\u4e8b\u4e8b\u52d9\u6240","boring_xml_url":40,"boring_view_url":1,"soilmap_view_url":null,"soiltest_xml_url":0,"soiltest_view_url":0},{"id":217401,"code":"B4KJ201801010-5650","latitude":"32.8756294","longitude":"130.9890233","source_code":"QS49302749036","project_name":"","survey_name":"\u7acb\u91ce\u30c0\u30e0\u70cf\u5e3d\u5b50\u5cb3\u6eb6\u5ca9\u30b0\u30e9\u30a6\u30c8\u8a66\u9a13\u8abf\u67fb\u4ed6\u4e00\u4ef6\u696d\u52d9","client_name":"\u56fd\u571f\u4ea4\u901a\u7701\u4e5d\u5dde\u5730\u65b9\u6574\u5099\u5c40\u7acb\u91ce\u30c0\u30e0\u5de5\u4e8b\u4e8b\u52d9\u6240","boring_xml_url":40,"boring_view_url":1,"soilmap_view_url":null,"soiltest_xml_url":0,"soiltest_view_url":0},{"id":217400,"code":"B4KJ201801010-5649","latitude":"32.8756294","longitude":"130.9890233","source_code":"QS49302749035","project_name":"","survey_name":"\u7acb\u91ce\u30c0\u30e0\u70cf\u5e3d\u5b50\u5cb3\u6eb6\u5ca9\u30b0\u30e9\u30a6\u30c8\u8a66\u9a13\u8abf\u67fb\u4ed6\u4e00\u4ef6\u696d\u52d9","client_name":"\u56fd\u571f\u4ea4\u901a\u7701\u4e5d\u5dde\u5730\u65b9\u6574\u5099\u5c40\u7acb\u91ce\u30c0\u30e0\u5de5\u4e8b\u4e8b\u52d9\u6240","boring_xml_url":40,"boring_view_url":1,"soilmap_view_url":null,"soiltest_xml_url":0,"soiltest_view_url":0},{"id":217399,"code":"B4KJ201801010-5648","latitude":"32.8756294","longitude":"130.9890233","source_code":"QS49302749034","project_name":"","survey_name":"\u7acb\u91ce\u30c0\u30e0\u70cf\u5e3d\u5b50\u5cb3\u6eb6\u5ca9\u30b0\u30e9\u30a6\u30c8\u8a66\u9a13\u8abf\u67fb\u4ed6\u4e00\u4ef6\u696d\u52d9","client_name":"\u56fd\u571f\u4ea4\u901a\u7701\u4e5d\u5dde\u5730\u65b9\u6574\u5099\u5c40\u7acb\u91ce\u30c0\u30e0\u5de5\u4e8b\u4e8b\u52d9\u6240","boring_xml_url":40,"boring_view_url":1,"soilmap_view_url":null,"soiltest_xml_url":0,"soiltest_view_url":0},{"id":217398,"code":"B4KJ201801010-5647","latitude":"32.8756294","longitude":"130.9890233","source_code":"QS49302749033","project_name":"","survey_name":"\u7acb\u91ce\u30c0\u30e0\u70cf\u5e3d\u5b50\u5cb3\u6eb6\u5ca9\u30b0\u30e9\u30a6\u30c8\u8a66\u9a13\u8abf\u67fb\u4ed6\u4e00\u4ef6\u696d\u52d9","client_name":"\u56fd\u571f\u4ea4\u901a\u7701\u4e5d\u5dde\u5730\u65b9\u6574\u5099\u5c40\u7acb\u91ce\u30c0\u30e0\u5de5\u4e8b\u4e8b\u52d9\u6240","boring_xml_url":40,"boring_view_url":1,"soilmap_view_url":null,"soiltest_xml_url":0,"soiltest_view_url":0},{"id":217397,"code":"B4KJ201801010-5646","latitude":"32.8756294","longitude":"130.9890233","source_code":"QS49302749032","project_name":"","survey_name":"\u7acb\u91ce\u30c0\u30e0\u70cf\u5e3d\u5b50\u5cb3\u6eb6\u5ca9\u30b0\u30e9\u30a6\u30c8\u8a66\u9a13\u8abf\u67fb\u4ed6\u4e00\u4ef6\u696d\u52d9","client_name":"\u56fd\u571f\u4ea4\u901a\u7701\u4e5d\u5dde\u5730\u65b9\u6574\u5099\u5c40\u7acb\u91ce\u30c0\u30e0\u5de5\u4e8b\u4e8b\u52d9\u6240","boring_xml_url":40,"boring_view_url":1,"soilmap_view_url":null,"soiltest_xml_url":0,"soiltest_view_url":0},{"id":217396,"code":"B4KJ201801010-5645","latitude":"32.8756294","longitude":"130.9890233","source_code":"QS49302749031","project_name":"","survey_name":"\u7acb\u91ce\u30c0\u30e0\u9ce5\u5e3d\u5b50\u5cb3\u6eb6\u5ca9\u30b0\u30e9\u30a6\u30c8\u8a66\u9a13\u8abf\u67fb\u4ed6\u4e00\u4ef6\u696d\u52d9","client_name":"\u56fd\u571f\u4ea4\u901a\u7701\u4e5d\u5dde\u5730\u65b9\u6574\u5099\u5c40\u7acb\u91ce\u30c0\u30e0\u5de5\u4e8b\u4e8b\u52d9\u6240","boring_xml_url":40,"boring_view_url":1,"soilmap_view_url":null,"soiltest_xml_url":0,"soiltest_view_url":0},{"id":217395,"code":"B4KJ201801010-5644","latitude":"32.8738797","longitude":"130.9908289","source_code":"QS49302749030","project_name":"","survey_name":"\u5de5\u4e8b\u7528\u9053\u8def(\u6238\u4e0b\u5730\u533a)\u5730\u8cea\u8abf\u67fb\u696d\u52d9","client_name":"\u56fd\u571f\u4ea4\u901a\u7701\u4e5d\u5dde\u5730\u65b9\u6574\u5099\u5c40\u7acb\u91ce\u30c0\u30e0\u5de5\u4e8b\u4e8b\u52d9\u6240","boring_xml_url":40,"boring_view_url":1,"soilmap_view_url":null,"soiltest_xml_url":0,"soiltest_view_url":0},{"id":217394,"code":"B4KJ201801010-5643","latitude":"32.8747961","longitude":"130.9896344","source_code":"QS49302749029","project_name":"","survey_name":"\u5de5\u4e8b\u7528\u9053\u8def(\u6238\u4e0b\u5730\u533a)\u5730\u8cea\u8abf\u67fb\u696d\u52d9","client_name":"\u56fd\u571f\u4ea4\u901a\u7701\u4e5d\u5dde\u5730\u65b9\u6574\u5099\u5c40\u7acb\u91ce\u30c0\u30e0\u5de5\u4e8b\u4e8b\u52d9\u6240","boring_xml_url":40,"boring_view_url":1,"soilmap_view_url":null,"soiltest_xml_url":0,"soiltest_view_url":0},{"id":217393,"code":"B4KJ201801010-5642","latitude":"32.87038","longitude":"130.9945508","source_code":"QS49302749028","project_name":"","survey_name":"\u5de5\u4e8b\u7528\u9053\u8def(\u6238\u4e0b\u5730\u533a)\u5730\u8cea\u8abf\u67fb\u696d\u52d9","client_name":"\u56fd\u571f\u4ea4\u901a\u7701\u4e5d\u5dde\u5730\u65b9\u6574\u5099\u5c40\u7acb\u91ce\u30c0\u30e0\u5de5\u4e8b\u4e8b\u52d9\u6240","boring_xml_url":40,"boring_view_url":1,"soilmap_view_url":null,"soiltest_xml_url":0,"soiltest_view_url":0},{"id":217392,"code":"B4KJ201801010-5641","latitude":"32.8745739","longitude":"130.9903011","source_code":"QS49302749027","project_name":"","survey_name":"\u5de5\u4e8b\u7528\u9053\u8def(\u6238\u4e0b\u5730\u533a)\u5730\u8cea\u8abf\u67fb\u696d\u52d9","client_name":"\u56fd\u571f\u4ea4\u901a\u7701\u4e5d\u5dde\u5730\u65b9\u6574\u5099\u5c40\u7acb\u91ce\u30c0\u30e0\u5de5\u4e8b\u4e8b\u52d9\u6240","boring_xml_url":40,"boring_view_url":1,"soilmap_view_url":null,"soiltest_xml_url":0,"soiltest_view_url":0},{"id":217391,"code":"B4KJ201801010-5640","latitude":"32.874685","longitude":"130.9900233","source_code":"QS49302749026","project_name":"","survey_name":"\u5de5\u4e8b\u7528\u9053\u8def(\u6238\u4e0b\u5730\u533a)\u5730\u8cea\u8abf\u67fb\u696d\u52d9","client_name":"\u56fd\u571f\u4ea4\u901a\u7701\u4e5d\u5dde\u5730\u65b9\u6574\u5099\u5c40\u7acb\u91ce\u30c0\u30e0\u5de5\u4e8b\u4e8b\u52d9\u6240","boring_xml_url":40,"boring_view_url":1,"soilmap_view_url":null,"soiltest_xml_url":0,"soiltest_view_url":0},{"id":217390,"code":"B4KJ201801010-5639","latitude":"32.8747961","longitude":"130.9896344","source_code":"QS49302749025","project_name":"","survey_name":"\u5de5\u4e8b\u7528\u9053\u8def(\u6238\u4e0b\u5730\u533a)\u5730\u8cea\u8abf\u67fb\u696d\u52d9","client_name":"\u56fd\u571f\u4ea4\u901a\u7701\u4e5d\u5dde\u5730\u65b9\u6574\u5099\u5c40\u7acb\u91ce\u30c0\u30e0\u5de5\u4e8b\u4e8b\u52d9\u6240","boring_xml_url":40,"boring_view_url":1,"soilmap_view_url":null,"soiltest_xml_url":0,"soiltest_view_url":0},{"id":217389,"code":"B4KJ201801010-5638","latitude":"32.8750183","longitude":"130.9890789","source_code":"QS49302749024","project_name":"","survey_name":"\u5de5\u4e8b\u7528\u9053\u8def(\u6238\u4e0b\u5730\u533a)\u5730\u8cea\u8abf\u67fb\u696d\u52d9","client_name":"\u56fd\u571f\u4ea4\u901a\u7701\u4e5d\u5dde\u5730\u65b9\u6574\u5099\u5c40\u7acb\u91ce\u30c0\u30e0\u5de5\u4e8b\u4e8b\u52d9\u6240","boring_xml_url":40,"boring_view_url":1,"soilmap_view_url":null,"soiltest_xml_url":0,"soiltest_view_url":0},{"id":217388,"code":"B4KJ201801010-5637","latitude":"32.8754628","longitude":"130.9880236","source_code":"QS49302749023","project_name":"","survey_name":"\u5de5\u4e8b\u7528\u9053\u8def(\u6238\u4e0b\u5730\u533a)\u5730\u8cea\u8abf\u67fb\u696d\u52d9","client_name":"\u56fd\u571f\u4ea4\u901a\u7701\u4e5d\u5dde\u5730\u65b9\u6574\u5099\u5c40\u7acb\u91ce\u30c0\u30e0\u5de5\u4e8b\u4e8b\u52d9\u6240","boring_xml_url":40,"boring_view_url":1,"soilmap_view_url":null,"soiltest_xml_url":0,"soiltest_view_url":0},{"id":217387,"code":"B4KJ201801010-5636","latitude":"32.8755739","longitude":"130.9878847","source_code":"QS49302749022","project_name":"","survey_name":"\u5de5\u4e8b\u7528\u9053\u8def(\u6238\u4e0b\u5730\u533a)\u5730\u8cea\u8abf\u67fb\u696d\u52d9","client_name":"\u56fd\u571f\u4ea4\u901a\u7701\u4e5d\u5dde\u5730\u65b9\u6574\u5099\u5c40\u7acb\u91ce\u30c0\u30e0\u5de5\u4e8b\u4e8b\u52d9\u6240","boring_xml_url":40,"boring_view_url":1,"soilmap_view_url":null,"soiltest_xml_url":0,"soiltest_view_url":0},{"id":217386,"code":"B4KJ201801010-5635","latitude":"32.8755739","longitude":"130.9876069","source_code":"QS49302749021","project_name":"","survey_name":"\u5de5\u4e8b\u7528\u9053\u8def(\u6238\u4e0b\u5730\u533a)\u5730\u8cea\u8abf\u67fb\u696d\u52d9","client_name":"\u56fd\u571f\u4ea4\u901a\u7701\u4e5d\u5dde\u5730\u65b9\u6574\u5099\u5c40\u7acb\u91ce\u30c0\u30e0\u5de5\u4e8b\u4e8b\u52d9\u6240","boring_xml_url":40,"boring_view_url":1,"soilmap_view_url":null,"soiltest_xml_url":0,"soiltest_view_url":0},{"id":217385,"code":"B4KJ201801010-5634","latitude":"32.8755739","longitude":"130.9874958","source_code":"QS49302749020","project_name":"","survey_name":"\u5de5\u4e8b\u7528\u9053\u8def(\u6238\u4e0b\u5730\u533a)\u5730\u8cea\u8abf\u67fb\u696d\u52d9","client_name":"\u56fd\u571f\u4ea4\u901a\u7701\u4e5d\u5dde\u5730\u65b9\u6574\u5099\u5c40\u7acb\u91ce\u30c0\u30e0\u5de5\u4e8b\u4e8b\u52d9\u6240","boring_xml_url":40,"boring_view_url":1,"soilmap_view_url":null,"soiltest_xml_url":0,"soiltest_view_url":0},{"id":217384,"code":"B4KJ201801010-5633","latitude":"32.87113","longitude":"130.9922456","source_code":"QS49302749019","project_name":"","survey_name":"\u7acb\u91ce\u30c0\u30e0\u5de5\u4e8b\u7528\u9053\u8def(\u4eee\u5c4b\u5730\u533a)\u89e3\u6790\u696d\u52d9","client_name":"\u56fd\u571f\u4ea4\u901a\u7701\u4e5d\u5dde\u5730\u65b9\u6574\u5099\u5c40\u7acb\u91ce\u30c0\u30e0\u5de5\u4e8b\u4e8b\u52d9\u6240","boring_xml_url":40,"boring_view_url":1,"soilmap_view_url":null,"soiltest_xml_url":0,"soiltest_view_url":0},{"id":217383,"code":"B4KJ201801010-5632","latitude":"32.8713522","longitude":"130.9927456","source_code":"QS49302749018","project_name":"","survey_name":"\u7acb\u91ce\u30c0\u30e0\u5de5\u4e8b\u7528\u9053\u8def(\u4eee\u5c4b\u5730\u533a)\u89e3\u6790\u696d\u52d9","client_name":"\u56fd\u571f\u4ea4\u901a\u7701\u4e5d\u5dde\u5730\u65b9\u6574\u5099\u5c40\u7acb\u91ce\u30c0\u30e0\u5de5\u4e8b\u4e8b\u52d9\u6240","boring_xml_url":40,"boring_view_url":1,"soilmap_view_url":null,"soiltest_xml_url":0,"soiltest_view_url":0},{"id":217382,"code":"B4KJ201801010-5631","latitude":"32.8734631","longitude":"130.9974672","source_code":"QS49302749017","project_name":"","survey_name":"\u7280\u89d2\u5c71\u30c8\u30f3\u30cd\u30eb\u5730\u8cea\u8abf\u67fb\u696d\u52d9","client_name":"\u56fd\u571f\u4ea4\u901a\u7701 \u4e5d\u5dde\u5730\u65b9\u6574\u5099\u5c40 \u7acb\u91ce\u30c0\u30e0\u5de5\u4e8b\u4e8b\u52d9\u6240","boring_xml_url":40,"boring_view_url":1,"soilmap_view_url":null,"soiltest_xml_url":0,"soiltest_view_url":0},{"id":217381,"code":"B4KJ201801010-5630","latitude":"32.8734353","longitude":"130.9974672","source_code":"QS49302749015","project_name":"","survey_name":"\u7280\u89d2\u5c71\u30c8\u30f3\u30cd\u30eb\u5730\u8cea\u8abf\u67fb\u696d\u52d9","client_name":"\u56fd\u571f\u4ea4\u901a\u7701 \u4e5d\u5dde\u5730\u65b9\u6574\u5099\u5c40 \u7acb\u91ce\u30c0\u30e0\u5de5\u4e8b\u4e8b\u52d9\u6240","boring_xml_url":40,"boring_view_url":1,"soilmap_view_url":null,"soiltest_xml_url":0,"soiltest_view_url":0},{"id":217380,"code":"B4KJ201801010-5629","latitude":"32.8735186","longitude":"130.9973561","source_code":"QS49302749014","project_name":"","survey_name":"\u7280\u89d2\u5c71\u30c8\u30f3\u30cd\u30eb\u5730\u8cea\u8abf\u67fb\u696d\u52d9","client_name":"\u56fd\u571f\u4ea4\u901a\u7701\u4e5d\u5dde\u5730\u65b9\u6574\u5099\u5c40\u7acb\u91ce\u30c0\u30e0\u5de5\u4e8b\u4e8b\u52d9\u6240","boring_xml_url":40,"boring_view_url":1,"soilmap_view_url":null,"soiltest_xml_url":0,"soiltest_view_url":0},{"id":217379,"code":"B4KJ201801010-5628","latitude":"32.8734908","longitude":"130.9973283","source_code":"QS49302749013","project_name":"","survey_name":"\u7280\u89d2\u5c71\u30c8\u30f3\u30cd\u30eb\u5730\u8cea\u8abf\u67fb\u696d\u52d9","client_name":"\u56fd\u571f\u4ea4\u901a\u7701\u4e5d\u5dde\u5730\u65b9\u6574\u5099\u5c40\u7acb\u91ce\u30c0\u30e0\u5de5\u4e8b\u4e8b\u52d9\u6240","boring_xml_url":40,"boring_view_url":1,"soilmap_view_url":null,"soiltest_xml_url":0,"soiltest_view_url":0},{"id":217378,"code":"B4KJ201801010-5627","latitude":"32.8735186","longitude":"130.9973561","source_code":"QS49302749012","project_name":"","survey_name":"\u7280\u89d2\u5c71\u30c8\u30f3\u30cd\u30eb\u5730\u8cea\u8abf\u67fb\u696d\u52d9","client_name":"\u56fd\u571f\u4ea4\u901a\u7701 \u4e5d\u5dde\u5730\u65b9\u6574\u5099\u5c40 \u7acb\u91ce\u30c0\u30e0\u5de5\u4e8b\u4e8b\u52d9\u6240","boring_xml_url":40,"boring_view_url":1,"soilmap_view_url":null,"soiltest_xml_url":0,"soiltest_view_url":0},{"id":217377,"code":"B4KJ201801010-5626","latitude":"32.8707689","longitude":"130.9932453","source_code":"QS49302749009","project_name":"","survey_name":"\u7acb\u91ce\u30c0\u30e0\u5de5\u4e8b\u7528\u9053\u8def(\u4eee\u5c4b\u5730\u533a)\u5730\u8cea\u8abf\u67fb\u696d\u52d9","client_name":"\u56fd\u571f\u4ea4\u901a\u7701\u4e5d\u5dde\u5730\u65b9\u6574\u5099\u5c40\u7acb\u91ce\u30c0\u30e0\u5de5\u4e8b\u4e8b\u52d9\u6240","boring_xml_url":40,"boring_view_url":1,"soilmap_view_url":null,"soiltest_xml_url":0,"soiltest_view_url":0},{"id":217376,"code":"B4KJ201801010-5625","latitude":"32.8712411","longitude":"130.9926344","source_code":"QS49302749008","project_name":"","survey_name":"\u7acb\u91ce\u30c0\u30e0\u5de5\u4e8b\u7528\u9053\u8def(\u4eee\u5c4b\u5730\u533a)\u5730\u8cea\u8abf\u67fb\u696d\u52d9","client_name":"\u56fd\u571f\u4ea4\u901a\u7701\u4e5d\u5dde\u5730\u65b9\u6574\u5099\u5c40\u7acb\u91ce\u30c0\u30e0\u5de5\u4e8b\u4e8b\u52d9\u6240","boring_xml_url":40,"boring_view_url":1,"soilmap_view_url":null,"soiltest_xml_url":0,"soiltest_view_url":0}]}}