{"header":{"xyz":{"source":[],"mosaic":false},"page":3442,"raw":{"soiltest_result":"0","bbox":"57.598333,109.544722,1.933333,163.806111","page":"3442"},"conditions":{"soiltest_result":0,"north":57.598333,"west":109.544722,"south":1.933333,"east":163.806111},"success":true,"message":""},"data":{"meta":{"total":212844,"page":3442,"pages":7095,"count":30},"values":[{"id":217315,"code":"B4KJ201801010-5564","latitude":"32.8766567","longitude":"130.9641644","source_code":"QS49302747037","project_name":"","survey_name":"\u7acb\u91ce\u5927\u6a4b\u5730\u8cea\u8abf\u67fb\u696d\u52d9","client_name":"\u56fd\u571f\u4ea4\u901a\u7701\u4e5d\u5dde\u5730\u65b9\u6574\u5099\u5c40\u7acb\u91ce\u30c0\u30e0\u5de5\u4e8b\u4e8b\u52d9\u6240","boring_xml_url":40,"boring_view_url":1,"soilmap_view_url":null,"soiltest_xml_url":0,"soiltest_view_url":0},{"id":217314,"code":"B4KJ201801010-5563","latitude":"32.8767678","longitude":"130.9641644","source_code":"QS49302747036","project_name":"","survey_name":"\u7acb\u91ce\u5927\u6a4b\u5730\u8cea\u8abf\u67fb\u696d\u52d9","client_name":"\u56fd\u571f\u4ea4\u901a\u7701\u4e5d\u5dde\u5730\u65b9\u6574\u5099\u5c40\u7acb\u91ce\u30c0\u30e0\u5de5\u4e8b\u4e8b\u52d9\u6240","boring_xml_url":40,"boring_view_url":1,"soilmap_view_url":null,"soiltest_xml_url":0,"soiltest_view_url":0},{"id":217313,"code":"B4KJ201801010-5562","latitude":"32.8767678","longitude":"130.9638589","source_code":"QS49302747035","project_name":"","survey_name":"\u7acb\u91ce\u5927\u6a4b\u5730\u8cea\u8abf\u67fb\u696d\u52d9","client_name":"\u56fd\u571f\u4ea4\u901a\u7701\u4e5d\u5dde\u5730\u65b9\u6574\u5099\u5c40\u7acb\u91ce\u30c0\u30e0\u5de5\u4e8b\u4e8b\u52d9\u6240","boring_xml_url":40,"boring_view_url":1,"soilmap_view_url":null,"soiltest_xml_url":0,"soiltest_view_url":0},{"id":217312,"code":"B4KJ201801010-5561","latitude":"32.8767678","longitude":"130.9637756","source_code":"QS49302747034","project_name":"","survey_name":"\u7acb\u91ce\u5927\u6a4b\u5730\u8cea\u8abf\u67fb\u696d\u52d9","client_name":"\u56fd\u571f\u4ea4\u901a\u7701\u4e5d\u5dde\u5730\u65b9\u6574\u5099\u5c40\u7acb\u91ce\u30c0\u30e0\u5de5\u4e8b\u4e8b\u52d9\u6240","boring_xml_url":40,"boring_view_url":1,"soilmap_view_url":null,"soiltest_xml_url":0,"soiltest_view_url":0},{"id":217311,"code":"B4KJ201801010-5560","latitude":"32.8743792","longitude":"130.9641369","source_code":"QS49302747033","project_name":"","survey_name":"\u5de5\u4e8b\u7528\u9053\u8def2\u5de5\u533a(4-2)\u5730\u8cea\u8abf\u67fb\u696d\u52d9","client_name":"\u56fd\u571f\u4ea4\u901a\u7701\u4e5d\u5dde\u5730\u65b9\u6574\u5099\u5c40\u7acb\u91ce\u30c0\u30e0\u5de5\u4e8b\u4e8b\u52d9\u6240","boring_xml_url":40,"boring_view_url":1,"soilmap_view_url":null,"soiltest_xml_url":0,"soiltest_view_url":0},{"id":217310,"code":"B4KJ201801010-5559","latitude":"32.8737403","longitude":"130.9636369","source_code":"QS49302747032","project_name":"","survey_name":"\u5de5\u4e8b\u7528\u9053\u8def2\u5de5\u533a(4-2)\u5730\u8cea\u8abf\u67fb\u696d\u52d9","client_name":"\u56fd\u571f\u4ea4\u901a\u7701\u4e5d\u5dde\u5730\u65b9\u6574\u5099\u5c40\u7acb\u91ce\u30c0\u30e0\u5de5\u4e8b\u4e8b\u52d9\u6240","boring_xml_url":40,"boring_view_url":1,"soilmap_view_url":null,"soiltest_xml_url":0,"soiltest_view_url":0},{"id":217309,"code":"B4KJ201801010-5558","latitude":"32.8751289","longitude":"130.9643589","source_code":"QS49302747031","project_name":"","survey_name":"\u5de5\u4e8b\u7528\u9053\u8def2\u5de5\u533a(4-2)\u5730\u8cea\u8abf\u67fb\u696d\u52d9","client_name":"\u56fd\u571f\u4ea4\u901a\u7701\u4e5d\u5dde\u5730\u65b9\u6574\u5099\u5c40\u7acb\u91ce\u30c0\u30e0\u5de5\u4e8b\u4e8b\u52d9\u6240","boring_xml_url":40,"boring_view_url":1,"soilmap_view_url":null,"soiltest_xml_url":0,"soiltest_view_url":0},{"id":217308,"code":"B4KJ201801010-5557","latitude":"32.8761567","longitude":"130.9620258","source_code":"QS49302747030","project_name":"","survey_name":"\u5de5\u4e8b\u7528\u9053\u8def2\u5de5\u533a(4-2)\u5730\u8cea\u8abf\u67fb\u696d\u52d9","client_name":"\u56fd\u571f\u4ea4\u901a\u7701\u4e5d\u5dde\u5730\u65b9\u6574\u5099\u5c40\u7acb\u91ce\u30c0\u30e0\u5de5\u4e8b\u4e8b\u52d9\u6240","boring_xml_url":40,"boring_view_url":1,"soilmap_view_url":null,"soiltest_xml_url":0,"soiltest_view_url":0},{"id":217307,"code":"B4KJ201801010-5556","latitude":"32.8743792","longitude":"130.9641369","source_code":"QS49302747029","project_name":"","survey_name":"\u5de5\u4e8b\u7528\u9053\u8def2\u5de5\u533a(4-2)\u5730\u8cea\u8abf\u67fb\u696d\u52d9","client_name":"\u56fd\u571f\u4ea4\u901a\u7701\u4e5d\u5dde\u5730\u65b9\u6574\u5099\u5c40\u7acb\u91ce\u30c0\u30e0\u5de5\u4e8b\u4e8b\u52d9\u6240","boring_xml_url":40,"boring_view_url":1,"soilmap_view_url":null,"soiltest_xml_url":0,"soiltest_view_url":0},{"id":217306,"code":"B4KJ201801010-5555","latitude":"32.8746569","longitude":"130.9639425","source_code":"QS49302747028","project_name":"","survey_name":"\u5de5\u4e8b\u7528\u9053\u8def2\u5de5\u533a(4-2)\u5730\u8cea\u8abf\u67fb\u696d\u52d9","client_name":"\u56fd\u571f\u4ea4\u901a\u7701\u4e5d\u5dde\u5730\u65b9\u6574\u5099\u5c40\u7acb\u91ce\u30c0\u30e0\u5de5\u4e8b\u4e8b\u52d9\u6240","boring_xml_url":40,"boring_view_url":1,"soilmap_view_url":null,"soiltest_xml_url":0,"soiltest_view_url":0},{"id":217305,"code":"B4KJ201801010-5554","latitude":"32.8754622","longitude":"130.9628036","source_code":"QS49302747027","project_name":"","survey_name":"\u5de5\u4e8b\u7528\u9053\u8def2\u5de5\u533a(4-2)\u5730\u8cea\u8abf\u67fb\u696d\u52d9","client_name":"\u56fd\u571f\u4ea4\u901a\u7701\u4e5d\u5dde\u5730\u65b9\u6574\u5099\u5c40\u7acb\u91ce\u30c0\u30e0\u5de5\u4e8b\u4e8b\u52d9\u6240","boring_xml_url":40,"boring_view_url":1,"soilmap_view_url":null,"soiltest_xml_url":0,"soiltest_view_url":0},{"id":217304,"code":"B4KJ201801010-5553","latitude":"32.8742958","longitude":"130.9670811","source_code":"QS49302747025","project_name":"","survey_name":"\u7acb\u91ce\u30c0\u30e0\u8ee2\u6d41\u5de5\u5730\u8cea\u8abf\u67fb(\u305d\u306e2)\u696d\u52d9","client_name":"\u56fd\u571f\u4ea4\u901a\u7701\u4e5d\u5dde\u5730\u65b9\u6574\u5099\u5c40\u7acb\u91ce\u30c0\u30e0\u5de5\u4e8b\u4e8b\u52d9\u6240","boring_xml_url":40,"boring_view_url":1,"soilmap_view_url":null,"soiltest_xml_url":0,"soiltest_view_url":0},{"id":217303,"code":"B4KJ201801010-5552","latitude":"32.8780733","longitude":"130.9681919","source_code":"QS49302747021","project_name":"","survey_name":"\u7acb\u91ce\u5730\u533a\u5730\u8cea\u8abf\u67fb\u696d\u52d9","client_name":"\u56fd\u571f\u4ea4\u901a\u7701\u4e5d\u5dde\u5730\u65b9\u6574\u5099\u5c40\u718a\u672c\u6cb3\u5ddd\u56fd\u9053\u4e8b\u52d9\u6240","boring_xml_url":40,"boring_view_url":1,"soilmap_view_url":null,"soiltest_xml_url":0,"soiltest_view_url":0},{"id":217302,"code":"B4KJ201801010-5551","latitude":"32.8777956","longitude":"130.9704139","source_code":"QS49302747020","project_name":"","survey_name":"\u7acb\u91ce\u5730\u533a\u5730\u8cea\u8abf\u67fb\u696d\u52d9","client_name":"\u56fd\u571f\u4ea4\u901a\u7701\u4e5d\u5dde\u5730\u65b9\u6574\u5099\u5c40\u718a\u672c\u6cb3\u5ddd\u56fd\u9053\u4e8b\u52d9\u6240","boring_xml_url":40,"boring_view_url":1,"soilmap_view_url":null,"soiltest_xml_url":0,"soiltest_view_url":0},{"id":217301,"code":"B4KJ201801010-5550","latitude":"32.87724","longitude":"130.9698583","source_code":"QS49302747019","project_name":"","survey_name":"\u7acb\u91ce\u5730\u533a\u5730\u8cea\u8abf\u67fb\u696d\u52d9","client_name":"\u56fd\u571f\u4ea4\u901a\u7701\u4e5d\u5dde\u5730\u65b9\u6574\u5099\u5c40\u718a\u672c\u6cb3\u5ddd\u56fd\u9053\u4e8b\u52d9\u6240","boring_xml_url":40,"boring_view_url":1,"soilmap_view_url":null,"soiltest_xml_url":0,"soiltest_view_url":0},{"id":217300,"code":"B4KJ201801010-5549","latitude":"32.87724","longitude":"130.9709694","source_code":"QS49302747018","project_name":"","survey_name":"\u7acb\u91ce\u5730\u533a\u5730\u8cea\u8abf\u67fb\u696d\u52d9","client_name":"\u56fd\u571f\u4ea4\u901a\u7701\u4e5d\u5dde\u5730\u65b9\u6574\u5099\u5c40\u718a\u672c\u6cb3\u5ddd\u56fd\u9053\u4e8b\u52d9\u6240","boring_xml_url":40,"boring_view_url":1,"soilmap_view_url":null,"soiltest_xml_url":0,"soiltest_view_url":0},{"id":217299,"code":"B4KJ201801010-5548","latitude":"32.87724","longitude":"130.9709694","source_code":"QS49302747017","project_name":"","survey_name":"\u7acb\u91ce\u5730\u533a\u5730\u8cea\u8abf\u67fb\u696d\u52d9","client_name":"\u56fd\u571f\u4ea4\u901a\u7701\u4e5d\u5dde\u5730\u65b9\u6574\u5099\u5c40\u718a\u672c\u6cb3\u5ddd\u56fd\u9053\u4e8b\u52d9\u6240","boring_xml_url":40,"boring_view_url":1,"soilmap_view_url":null,"soiltest_xml_url":0,"soiltest_view_url":0},{"id":217298,"code":"B4KJ201801010-5547","latitude":"32.8769622","longitude":"130.9709694","source_code":"QS49302747016","project_name":"","survey_name":"\u7acb\u91ce\u5927\u6a4b\u53ca\u3073\u7acb\u91ce1\u53f72\u53f73\u53f7\u5730\u8cea\u8abf\u67fb\u696d\u52d9","client_name":"\u56fd\u571f\u4ea4\u901a\u7701\u4e5d\u5dde\u5730\u65b9\u6574\u5099\u5c40\u7acb\u91ce\u30c0\u30e0\u5de5\u4e8b\u4e8b\u52d9\u6240","boring_xml_url":40,"boring_view_url":1,"soilmap_view_url":null,"soiltest_xml_url":0,"soiltest_view_url":0},{"id":217297,"code":"B4KJ201801010-5546","latitude":"32.8769622","longitude":"130.9706917","source_code":"QS49302747015","project_name":"","survey_name":"\u7acb\u91ce\u5927\u6a4b\u53ca\u3073\u7acb\u91ce1\u53f72\u53f73\u53f7\u5730\u8cea\u8abf\u67fb\u696d\u52d9","client_name":"\u56fd\u571f\u4ea4\u901a\u7701\u4e5d\u5dde\u5730\u65b9\u6574\u5099\u5c40\u7acb\u91ce\u30c0\u30e0\u5de5\u4e8b\u4e8b\u52d9\u6240","boring_xml_url":40,"boring_view_url":1,"soilmap_view_url":null,"soiltest_xml_url":0,"soiltest_view_url":0},{"id":217296,"code":"B4KJ201801010-5545","latitude":"32.87724","longitude":"130.9704139","source_code":"QS49302747014","project_name":"","survey_name":"\u7acb\u91ce\u5927\u6a4b\u53ca\u3073\u7acb\u91ce1\u53f72\u53f73\u53f7\u5730\u8cea\u8abf\u67fb\u696d\u52d9","client_name":"\u56fd\u571f\u4ea4\u901a\u7701\u4e5d\u5dde\u5730\u65b9\u6574\u5099\u5c40\u7acb\u91ce\u30c0\u30e0\u5de5\u4e8b\u4e8b\u52d9\u6240","boring_xml_url":40,"boring_view_url":1,"soilmap_view_url":null,"soiltest_xml_url":0,"soiltest_view_url":0},{"id":217295,"code":"B4KJ201801010-5544","latitude":"32.87724","longitude":"130.9698583","source_code":"QS49302747013","project_name":"","survey_name":"\u7acb\u91ce\u5927\u6a4b\u53ca\u3073\u7acb\u91ce1\u53f72\u53f73\u53f7\u5730\u8cea\u8abf\u67fb\u696d\u52d9","client_name":"\u56fd\u571f\u4ea4\u901a\u7701\u4e5d\u5dde\u5730\u65b9\u6574\u5099\u5c40\u7acb\u91ce\u30c0\u30e0\u5de5\u4e8b\u4e8b\u52d9\u6240","boring_xml_url":40,"boring_view_url":1,"soilmap_view_url":null,"soiltest_xml_url":0,"soiltest_view_url":0},{"id":217294,"code":"B4KJ201801010-5543","latitude":"32.87724","longitude":"130.9695806","source_code":"QS49302747012","project_name":"","survey_name":"\u7acb\u91ce\u5927\u6a4b\u53ca\u3073\u7acb\u91ce1\u53f72\u53f73\u53f7\u5730\u8cea\u8abf\u67fb\u696d\u52d9","client_name":"\u56fd\u571f\u4ea4\u901a\u7701\u4e5d\u5dde\u5730\u65b9\u6574\u5099\u5c40\u7acb\u91ce\u30c0\u30e0\u5de5\u4e8b\u4e8b\u52d9\u6240","boring_xml_url":40,"boring_view_url":1,"soilmap_view_url":null,"soiltest_xml_url":0,"soiltest_view_url":0},{"id":217293,"code":"B4KJ201801010-5542","latitude":"32.8761289","longitude":"130.9690253","source_code":"QS49302747011","project_name":"","survey_name":"\u7acb\u91ce\u5927\u6a4b\u53ca\u3073\u7acb\u91ce1\u53f72\u53f73\u53f7\u5730\u8cea\u8abf\u67fb\u696d\u52d9","client_name":"\u56fd\u571f\u4ea4\u901a\u7701\u4e5d\u5dde\u5730\u65b9\u6574\u5099\u5c40\u7acb\u91ce\u30c0\u30e0\u5de5\u4e8b\u4e8b\u52d9\u6240","boring_xml_url":40,"boring_view_url":1,"soilmap_view_url":null,"soiltest_xml_url":0,"soiltest_view_url":0},{"id":217292,"code":"B4KJ201801010-5541","latitude":"32.8758511","longitude":"130.9687475","source_code":"QS49302747010","project_name":"","survey_name":"\u7acb\u91ce\u5927\u6a4b\u53ca\u3073\u7acb\u91ce1\u53f72\u53f73\u53f7\u5730\u8cea\u8abf\u67fb\u696d\u52d9","client_name":"\u56fd\u571f\u4ea4\u901a\u7701\u4e5d\u5dde\u5730\u65b9\u6574\u5099\u5c40\u7acb\u91ce\u30c0\u30e0\u5de5\u4e8b\u4e8b\u52d9\u6240","boring_xml_url":40,"boring_view_url":1,"soilmap_view_url":null,"soiltest_xml_url":0,"soiltest_view_url":0},{"id":217291,"code":"B4KJ201801010-5540","latitude":"32.8766844","longitude":"130.9648589","source_code":"QS49302747009","project_name":"","survey_name":"\u7acb\u91ce\u5927\u6a4b\u53ca\u3073\u7acb\u91ce1\u53f72\u53f73\u53f7\u5730\u8cea\u8abf\u67fb\u696d\u52d9","client_name":"\u56fd\u571f\u4ea4\u901a\u7701\u4e5d\u5dde\u5730\u65b9\u6574\u5099\u5c40\u7acb\u91ce\u30c0\u30e0\u5de5\u4e8b\u4e8b\u52d9\u6240","boring_xml_url":40,"boring_view_url":1,"soilmap_view_url":null,"soiltest_xml_url":0,"soiltest_view_url":0},{"id":217290,"code":"B4KJ201801010-5539","latitude":"32.8766844","longitude":"130.9643033","source_code":"QS49302747008","project_name":"","survey_name":"\u7acb\u91ce\u5927\u6a4b\u53ca\u3073\u7acb\u91ce1\u53f72\u53f73\u53f7\u5730\u8cea\u8abf\u67fb\u696d\u52d9","client_name":"\u56fd\u571f\u4ea4\u901a\u7701\u4e5d\u5dde\u5730\u65b9\u6574\u5099\u5c40\u7acb\u91ce\u30c0\u30e0\u5de5\u4e8b\u4e8b\u52d9\u6240","boring_xml_url":40,"boring_view_url":1,"soilmap_view_url":null,"soiltest_xml_url":0,"soiltest_view_url":0},{"id":217289,"code":"B4KJ201801010-5538","latitude":"32.8766844","longitude":"130.9640256","source_code":"QS49302747007","project_name":"","survey_name":"\u7acb\u91ce\u5927\u6a4b\u53ca\u3073\u7acb\u91ce1\u53f72\u53f73\u53f7\u5730\u8cea\u8abf\u67fb\u696d\u52d9","client_name":"\u56fd\u571f\u4ea4\u901a\u7701\u4e5d\u5dde\u5730\u65b9\u6574\u5099\u5c40\u7acb\u91ce\u30c0\u30e0\u5de5\u4e8b\u4e8b\u52d9\u6240","boring_xml_url":40,"boring_view_url":1,"soilmap_view_url":null,"soiltest_xml_url":0,"soiltest_view_url":0},{"id":217288,"code":"B4KJ201801010-5537","latitude":"32.8766844","longitude":"130.9640256","source_code":"QS49302747006","project_name":"","survey_name":"\u7acb\u91ce\u5927\u6a4b\u53ca\u3073\u7acb\u91ce1\u53f72\u53f73\u53f7\u5730\u8cea\u8abf\u67fb\u696d\u52d9","client_name":"\u56fd\u571f\u4ea4\u901a\u7701\u4e5d\u5dde\u5730\u65b9\u6574\u5099\u5c40\u7acb\u91ce\u30c0\u30e0\u5de5\u4e8b\u4e8b\u52d9\u6240","boring_xml_url":40,"boring_view_url":1,"soilmap_view_url":null,"soiltest_xml_url":0,"soiltest_view_url":0},{"id":217287,"code":"B4KJ201801010-5536","latitude":"32.8768789","longitude":"130.9626925","source_code":"QS49302747005","project_name":"","survey_name":"\u7acb\u91ce\u30c0\u30e0\u5de5\u4e8b\u7528\u9053\u8def\u6e2c\u91cf\u53ca\u3073\u5b9f\u65bd\u8a2d\u8a08(\u305d\u306e3)\u696d\u52d9","client_name":"\u56fd\u571f\u4ea4\u901a\u7701\u4e5d\u5dde\u5730\u65b9\u6574\u5099\u5c40\u7acb\u91ce\u30c0\u30e0\u5de5\u4e8b\u4e8b\u52d9\u6240","boring_xml_url":40,"boring_view_url":1,"soilmap_view_url":null,"soiltest_xml_url":0,"soiltest_view_url":0},{"id":217286,"code":"B4KJ201801010-5535","latitude":"32.8768789","longitude":"130.9626925","source_code":"QS49302747004","project_name":"","survey_name":"\u7acb\u91ce\u30c0\u30e0\u5de5\u4e8b\u7528\u9053\u8def\u6e2c\u91cf\u53ca\u3073\u5b9f\u65bd\u8a2d\u8a08(\u305d\u306e3)\u696d\u52d9","client_name":"\u56fd\u571f\u4ea4\u901a\u7701\u4e5d\u5dde\u5730\u65b9\u6574\u5099\u5c40\u7acb\u91ce\u30c0\u30e0\u5de5\u4e8b\u4e8b\u52d9\u6240","boring_xml_url":40,"boring_view_url":1,"soilmap_view_url":null,"soiltest_xml_url":0,"soiltest_view_url":0}]}}