{"header":{"xyz":{"source":[],"mosaic":false},"page":3472,"raw":{"soiltest_result":"0","bbox":"57.598333,109.544722,1.933333,163.806111","page":"3472"},"conditions":{"soiltest_result":0,"north":57.598333,"west":109.544722,"south":1.933333,"east":163.806111},"success":true,"message":""},"data":{"meta":{"total":212844,"page":3472,"pages":7095,"count":30},"values":[{"id":216415,"code":"B4KJ201801010-4664","latitude":"33.3154214","longitude":"129.9775475","source_code":"QS49297778002","project_name":"","survey_name":"\u5927\u6749\u63da\u6c34\u6a5f\u59161\u4ef6\u5730\u8cea\u8abf\u67fb\u696d\u52d9(\u767d\u6728\u6392\u6c34\u6a0b\u7ba1)","client_name":"\u56fd\u571f\u4ea4\u901a\u7701\u4e5d\u5dde\u5730\u65b9\u6574\u5099\u5c40\u6b66\u96c4\u6cb3\u5ddd\u4e8b\u52d9\u6240","boring_xml_url":40,"boring_view_url":1,"soilmap_view_url":null,"soiltest_xml_url":0,"soiltest_view_url":0},{"id":216414,"code":"B4KJ201801010-4663","latitude":"33.3154214","longitude":"129.9775475","source_code":"QS49297778001","project_name":"","survey_name":"\u5927\u6749\u63da\u6c34\u6a5f\u59161\u4ef6\u5730\u8cea\u8abf\u67fb\u696d\u52d9(\u767d\u6728\u6392\u6c34\u6a0b\u7ba1)","client_name":"\u56fd\u571f\u4ea4\u901a\u7701\u4e5d\u5dde\u5730\u65b9\u6574\u5099\u5c40\u6b66\u96c4\u6cb3\u5ddd\u4e8b\u52d9\u6240","boring_xml_url":40,"boring_view_url":1,"soilmap_view_url":null,"soiltest_xml_url":0,"soiltest_view_url":0},{"id":216413,"code":"B4KJ201801010-4662","latitude":"33.3176156","longitude":"129.9698814","source_code":"QS49297777006","project_name":"","survey_name":"\u5927\u5ddd\u91ce\u5730\u8cea\u8abf\u67fb\u59163\u7b87\u6240\u696d\u52d9","client_name":"\u56fd\u571f\u4ea4\u901a\u7701\u4e5d\u5dde\u5730\u65b9\u6574\u5099\u5c40\u6b66\u96c4\u6cb3\u5ddd\u4e8b\u52d9\u6240","boring_xml_url":40,"boring_view_url":1,"soilmap_view_url":null,"soiltest_xml_url":0,"soiltest_view_url":0},{"id":216412,"code":"B4KJ201801010-4661","latitude":"33.3176711","longitude":"129.9699925","source_code":"QS49297777005","project_name":"","survey_name":"\u5927\u5ddd\u91ce\u5730\u8cea\u8abf\u67fb\u59163\u7b87\u6240\u696d\u52d9","client_name":"\u56fd\u571f\u4ea4\u901a\u7701\u4e5d\u5dde\u5730\u65b9\u6574\u5099\u5c40\u6b66\u96c4\u6cb3\u5ddd\u4e8b\u52d9\u6240","boring_xml_url":40,"boring_view_url":1,"soilmap_view_url":null,"soiltest_xml_url":0,"soiltest_view_url":0},{"id":216411,"code":"B4KJ201801010-4660","latitude":"33.3175322","longitude":"129.9698536","source_code":"QS49297777002","project_name":"","survey_name":"\u5c71\u5d0e\u6392\u6c34\u6a0b\u7ba1\u59162\u4ef6\u5730\u8cea\u8abf\u67fb\u696d\u52d9","client_name":"\u56fd\u571f\u4ea4\u901a\u7701\u4e5d\u5dde\u5730\u65b9\u6574\u5099\u5c40\u6b66\u96c4\u6cb3\u5ddd\u4e8b\u52d9\u6240","boring_xml_url":40,"boring_view_url":1,"soilmap_view_url":null,"soiltest_xml_url":0,"soiltest_view_url":0},{"id":216410,"code":"B4KJ201801010-4659","latitude":"33.3174211","longitude":"129.9695758","source_code":"QS49297777001","project_name":"","survey_name":"\u5c71\u5d0e\u6392\u6c34\u6a0b\u7ba1\u59162\u4ef6\u5730\u8cea\u8abf\u67fb\u696d\u52d9","client_name":"\u56fd\u571f\u4ea4\u901a\u7701\u4e5d\u5dde\u5730\u65b9\u6574\u5099\u5c40\u6b66\u96c4\u6cb3\u5ddd\u4e8b\u52d9\u6240","boring_xml_url":40,"boring_view_url":1,"soilmap_view_url":null,"soiltest_xml_url":0,"soiltest_view_url":0},{"id":216409,"code":"B4KJ201801010-4658","latitude":"33.3144764","longitude":"129.9288853","source_code":"QS49297774002","project_name":"","survey_name":"\u5510\u6d25\u9053\u8def\u6d5c\u7389\u5730\u533a\u59161\u4ef6\u5730\u8cea\u8abf\u67fb\u696d\u52d9","client_name":"\u56fd\u571f\u4ea4\u901a\u7701\u4e5d\u5dde\u5730\u65b9\u6574\u5099\u5c40\u4f50\u8cc0\u56fd\u9053\u4e8b\u52d9\u6240","boring_xml_url":40,"boring_view_url":1,"soilmap_view_url":null,"soiltest_xml_url":0,"soiltest_view_url":0},{"id":216408,"code":"B4KJ201801010-4657","latitude":"33.3143653","longitude":"129.9285242","source_code":"QS49297774001","project_name":"","survey_name":"\u5510\u6d25\u9053\u8def\u6d5c\u7389\u5730\u533a\u59161\u4ef6\u5730\u8cea\u8abf\u67fb\u696d\u52d9","client_name":"\u56fd\u571f\u4ea4\u901a\u7701\u4e5d\u5dde\u5730\u65b9\u6574\u5099\u5c40\u4f50\u8cc0\u56fd\u9053\u4e8b\u52d9\u6240","boring_xml_url":40,"boring_view_url":1,"soilmap_view_url":null,"soiltest_xml_url":0,"soiltest_view_url":0},{"id":216407,"code":"B4KJ201801010-4656","latitude":"33.3160592","longitude":"129.9210525","source_code":"QS49297773002","project_name":"","survey_name":"\u53b3\u6728\u30d0\u30a4\u30d1\u30b9\u53ca\u3073\u5510\u6d25\u4f0a\u4e07\u91cc\u9053\u8def\u5730\u8cea\u8abf\u67fb","client_name":"\u56fd\u571f\u4ea4\u901a\u7701\u4e5d\u5dde\u5730\u65b9\u6574\u5099\u5c40\u4f50\u8cc0\u56fd\u9053\u4e8b\u52d9\u6240","boring_xml_url":40,"boring_view_url":1,"soilmap_view_url":null,"soiltest_xml_url":0,"soiltest_view_url":0},{"id":216406,"code":"B4KJ201801010-4655","latitude":"33.3157817","longitude":"129.9216081","source_code":"QS49297773001","project_name":"","survey_name":"\u53b3\u6728\u30d0\u30a4\u30d1\u30b9\u53ca\u3073\u5510\u6d25\u4f0a\u4e07\u91cc\u9053\u8def\u5730\u8cea\u8abf\u67fb","client_name":"\u56fd\u571f\u4ea4\u901a\u7701\u4e5d\u5dde\u5730\u65b9\u6574\u5099\u5c40\u4f50\u8cc0\u56fd\u9053\u4e8b\u52d9\u6240","boring_xml_url":40,"boring_view_url":1,"soilmap_view_url":null,"soiltest_xml_url":0,"soiltest_view_url":0},{"id":216405,"code":"B4KJ201801010-4654","latitude":"33.3106164","longitude":"129.9759922","source_code":"QS49297768004","project_name":"","survey_name":"\u677e\u6d66\u5ddd\u4e0a\u6d41\u5730\u533a\u5730\u8cea\u8abf\u67fb(\u305d\u306e1)\u696d\u52d9","client_name":"\u56fd\u571f\u4ea4\u901a\u7701\u4e5d\u5dde\u5730\u65b9\u6574\u5099\u5c40\u6b66\u96c4\u6cb3\u5ddd\u4e8b\u52d9\u6240","boring_xml_url":40,"boring_view_url":1,"soilmap_view_url":null,"soiltest_xml_url":0,"soiltest_view_url":0},{"id":216404,"code":"B4KJ201801010-4653","latitude":"33.3107275","longitude":"129.9758256","source_code":"QS49297768003","project_name":"","survey_name":"\u677e\u6d66\u5ddd\u4e0a\u6d41\u5730\u533a\u5730\u8cea\u8abf\u67fb(\u305d\u306e1)\u696d\u52d9","client_name":"\u56fd\u571f\u4ea4\u901a\u7701\u4e5d\u5dde\u5730\u65b9\u6574\u5099\u5c40\u6b66\u96c4\u6cb3\u5ddd\u4e8b\u52d9\u6240","boring_xml_url":40,"boring_view_url":1,"soilmap_view_url":null,"soiltest_xml_url":0,"soiltest_view_url":0},{"id":216403,"code":"B4KJ201801010-4652","latitude":"33.3072556","longitude":"129.9680206","source_code":"QS49297767008","project_name":"","survey_name":"\u5927\u5ddd\u91ce\u5730\u8cea\u8abf\u67fb\u59163\u7b87\u6240\u696d\u52d9","client_name":"\u56fd\u571f\u4ea4\u901a\u7701\u4e5d\u5dde\u5730\u65b9\u6574\u5099\u5c40\u6b66\u96c4\u6cb3\u5ddd\u4e8b\u52d9\u6240","boring_xml_url":40,"boring_view_url":1,"soilmap_view_url":null,"soiltest_xml_url":0,"soiltest_view_url":0},{"id":216402,"code":"B4KJ201801010-4651","latitude":"33.3071167","longitude":"129.9681594","source_code":"QS49297767007","project_name":"","survey_name":"\u5927\u5ddd\u91ce\u5730\u8cea\u8abf\u67fb\u59163\u7b87\u6240\u696d\u52d9","client_name":"\u56fd\u571f\u4ea4\u901a\u7701\u4e5d\u5dde\u5730\u65b9\u6574\u5099\u5c40\u6b66\u96c4\u6cb3\u5ddd\u4e8b\u52d9\u6240","boring_xml_url":40,"boring_view_url":1,"soilmap_view_url":null,"soiltest_xml_url":0,"soiltest_view_url":0},{"id":216401,"code":"B4KJ201801010-4650","latitude":"33.3058947","longitude":"129.9680486","source_code":"QS49297767006","project_name":"","survey_name":"\u5927\u5ddd\u91ce\u5730\u8cea\u8abf\u67fb\u59163\u7b87\u6240\u696d\u52d9","client_name":"\u56fd\u571f\u4ea4\u901a\u7701\u4e5d\u5dde\u5730\u65b9\u6574\u5099\u5c40\u6b66\u96c4\u6cb3\u5ddd\u4e8b\u52d9\u6240","boring_xml_url":40,"boring_view_url":1,"soilmap_view_url":null,"soiltest_xml_url":0,"soiltest_view_url":0},{"id":216400,"code":"B4KJ201801010-4649","latitude":"33.3056725","longitude":"129.9682431","source_code":"QS49297767005","project_name":"","survey_name":"\u5927\u5ddd\u91ce\u5730\u8cea\u8abf\u67fb\u59163\u7b87\u6240\u696d\u52d9","client_name":"\u56fd\u571f\u4ea4\u901a\u7701\u4e5d\u5dde\u5730\u65b9\u6574\u5099\u5c40\u6b66\u96c4\u6cb3\u5ddd\u4e8b\u52d9\u6240","boring_xml_url":40,"boring_view_url":1,"soilmap_view_url":null,"soiltest_xml_url":0,"soiltest_view_url":0},{"id":216399,"code":"B4KJ201801010-4648","latitude":"33.3057828","longitude":"129.9254967","source_code":"QS49297764002","project_name":"","survey_name":"\u5510\u6d25\u9053\u8def\u5510\u6d25\u5730\u533a\u5730\u8cea\u8abf\u67fb\u696d\u52d9(\u5c0f\u9ea6\u539f\u5730\u533a)","client_name":"\u56fd\u571f\u4ea4\u901a\u7701\u4e5d\u5dde\u5730\u65b9\u6574\u5099\u5c40\u4f50\u8cc0\u56fd\u9053\u4e8b\u52d9\u6240","boring_xml_url":40,"boring_view_url":1,"soilmap_view_url":null,"soiltest_xml_url":0,"soiltest_view_url":0},{"id":216398,"code":"B4KJ201801010-4647","latitude":"33.3057828","longitude":"129.9249414","source_code":"QS49297764001","project_name":"","survey_name":"\u5510\u6d25\u9053\u8def\u5510\u6d25\u5730\u533a\u5730\u8cea\u8abf\u67fb\u696d\u52d9(\u5c0f\u9ea6\u539f\u5730\u533a)","client_name":"\u56fd\u571f\u4ea4\u901a\u7701\u4e5d\u5dde\u5730\u65b9\u6574\u5099\u5c40\u4f50\u8cc0\u56fd\u9053\u4e8b\u52d9\u6240","boring_xml_url":40,"boring_view_url":1,"soilmap_view_url":null,"soiltest_xml_url":0,"soiltest_view_url":0},{"id":216397,"code":"B4KJ201801010-4646","latitude":"33.29959","longitude":"129.972715","source_code":"QS49297758001","project_name":"","survey_name":"\u4e95\u624b\u53e3\u5ddd\u6392\u6c34\u6a0b\u7ba1\u59163\u4ef6\u5730\u8cea\u8abf\u67fb\u696d\u52d9","client_name":"\u56fd\u571f\u4ea4\u901a\u7701\u4e5d\u5dde\u5730\u65b9\u6574\u5099\u5c40\u6b66\u96c4\u6cb3\u5ddd\u4e8b\u52d9\u6240","boring_xml_url":40,"boring_view_url":1,"soilmap_view_url":null,"soiltest_xml_url":0,"soiltest_view_url":0},{"id":216396,"code":"B4KJ201801010-4645","latitude":"33.2999511","longitude":"129.9720761","source_code":"QS49297757009","project_name":"","survey_name":"\u4e95\u624b\u53e3\u5ddd\u6392\u6c34\u6a0b\u7ba1\u59163\u4ef6\u5730\u8cea\u8abf\u67fb\u696d\u52d9","client_name":"\u56fd\u571f\u4ea4\u901a\u7701\u4e5d\u5dde\u5730\u65b9\u6574\u5099\u5c40\u6b66\u96c4\u6cb3\u5ddd\u4e8b\u52d9\u6240","boring_xml_url":40,"boring_view_url":1,"soilmap_view_url":null,"soiltest_xml_url":0,"soiltest_view_url":0},{"id":216395,"code":"B4KJ201801010-4644","latitude":"33.29959","longitude":"129.9719094","source_code":"QS49297757008","project_name":"","survey_name":"\u4e95\u624b\u53e3\u5ddd\u6392\u6c34\u6a0b\u7ba1\u59163\u4ef6\u5730\u8cea\u8abf\u67fb\u696d\u52d9","client_name":"\u56fd\u571f\u4ea4\u901a\u7701\u4e5d\u5dde\u5730\u65b9\u6574\u5099\u5c40\u6b66\u96c4\u6cb3\u5ddd\u4e8b\u52d9\u6240","boring_xml_url":40,"boring_view_url":1,"soilmap_view_url":null,"soiltest_xml_url":0,"soiltest_view_url":0},{"id":216394,"code":"B4KJ201801010-4643","latitude":"33.3000342","longitude":"129.9699375","source_code":"QS49297757007","project_name":"","survey_name":"\u4e95\u624b\u53e3\u5ddd\u6392\u6c34\u6a0b\u7ba1\u59163\u4ef6\u5730\u8cea\u8abf\u67fb\u696d\u52d9","client_name":"\u56fd\u571f\u4ea4\u901a\u7701\u4e5d\u5dde\u5730\u65b9\u6574\u5099\u5c40\u6b66\u96c4\u6cb3\u5ddd\u4e8b\u52d9\u6240","boring_xml_url":40,"boring_view_url":1,"soilmap_view_url":null,"soiltest_xml_url":0,"soiltest_view_url":0},{"id":216393,"code":"B4KJ201801010-4642","latitude":"33.2994789","longitude":"129.9696319","source_code":"QS49297757006","project_name":"","survey_name":"\u4e95\u624b\u53e3\u5ddd\u6392\u6c34\u6a0b\u7ba1\u59163\u4ef6\u5730\u8cea\u8abf\u67fb\u696d\u52d9","client_name":"\u56fd\u571f\u4ea4\u901a\u7701\u4e5d\u5dde\u5730\u65b9\u6574\u5099\u5c40\u6b66\u96c4\u6cb3\u5ddd\u4e8b\u52d9\u6240","boring_xml_url":40,"boring_view_url":1,"soilmap_view_url":null,"soiltest_xml_url":0,"soiltest_view_url":0},{"id":216392,"code":"B4KJ201801010-4641","latitude":"33.2956458","longitude":"129.9696597","source_code":"QS49297757005","project_name":"","survey_name":"\u9577\u91ce1\u53f7\u6392\u6c34\u6a0b\u7ba1\u59161\u4ef6\u5730\u8cea\u8abf\u67fb\u696d\u52d9","client_name":"\u56fd\u571f\u4ea4\u901a\u7701\u4e5d\u5dde\u5730\u65b9\u6574\u5099\u5c40\u6b66\u96c4\u6cb3\u5ddd\u4e8b\u52d9\u6240","boring_xml_url":40,"boring_view_url":1,"soilmap_view_url":null,"soiltest_xml_url":0,"soiltest_view_url":0},{"id":216391,"code":"B4KJ201801010-4640","latitude":"33.2956458","longitude":"129.9695208","source_code":"QS49297757004","project_name":"","survey_name":"\u9577\u91ce1\u53f7\u6392\u6c34\u6a0b\u7ba1\u59161\u4ef6\u5730\u8cea\u8abf\u67fb\u696d\u52d9","client_name":"\u56fd\u571f\u4ea4\u901a\u7701\u4e5d\u5dde\u5730\u65b9\u6574\u5099\u5c40\u6b66\u96c4\u6cb3\u5ddd\u4e8b\u52d9\u6240","boring_xml_url":40,"boring_view_url":1,"soilmap_view_url":null,"soiltest_xml_url":0,"soiltest_view_url":0},{"id":216390,"code":"B4KJ201801010-4639","latitude":"33.2974511","longitude":"129.9695208","source_code":"QS49297757003","project_name":"","survey_name":"\u9577\u91ce1\u53f7\u6392\u6c34\u6a0b\u7ba1\u59161\u4ef6\u5730\u8cea\u8abf\u67fb\u696d\u52d9","client_name":"\u56fd\u571f\u4ea4\u901a\u7701\u4e5d\u5dde\u5730\u65b9\u6574\u5099\u5c40\u6b66\u96c4\u6cb3\u5ddd\u4e8b\u52d9\u6240","boring_xml_url":40,"boring_view_url":1,"soilmap_view_url":null,"soiltest_xml_url":0,"soiltest_view_url":0},{"id":216389,"code":"B4KJ201801010-4638","latitude":"33.2974511","longitude":"129.9693819","source_code":"QS49297757002","project_name":"","survey_name":"\u9577\u91ce1\u53f7\u6392\u6c34\u6a0b\u7ba1\u59161\u4ef6\u5730\u8cea\u8abf\u67fb\u696d\u52d9","client_name":"\u56fd\u571f\u4ea4\u901a\u7701\u4e5d\u5dde\u5730\u65b9\u6574\u5099\u5c40\u6b66\u96c4\u6cb3\u5ddd\u4e8b\u52d9\u6240","boring_xml_url":40,"boring_view_url":1,"soilmap_view_url":null,"soiltest_xml_url":0,"soiltest_view_url":0},{"id":216388,"code":"B4KJ201801010-4637","latitude":"33.2994511","longitude":"129.9688264","source_code":"QS49297757001","project_name":"","survey_name":"\u4e2d\u5c71\u5730\u533a\u59161\u4ef6\u5730\u8cea\u8abf\u67fb\u696d\u52d9","client_name":"\u56fd\u571f\u4ea4\u901a\u7701\u4e5d\u5dde\u5730\u65b9\u6574\u5099\u5c40\u6b66\u96c4\u6cb3\u5ddd\u4e8b\u52d9\u6240","boring_xml_url":40,"boring_view_url":1,"soilmap_view_url":null,"soiltest_xml_url":0,"soiltest_view_url":0},{"id":216387,"code":"B4KJ201801010-4636","latitude":"33.29995","longitude":"129.9141092","source_code":"QS49297753001","project_name":"","survey_name":"\u53b3\u6728\u30d0\u30a4\u30d1\u30b9\u53ca\u3073\u5510\u6d25\u4f0a\u4e07\u91cc\u9053\u8def\u5730\u8cea\u8abf\u67fb","client_name":"\u56fd\u571f\u4ea4\u901a\u7701\u4e5d\u5dde\u5730\u65b9\u6574\u5099\u5c40\u4f50\u8cc0\u56fd\u9053\u4e8b\u52d9\u6240","boring_xml_url":40,"boring_view_url":1,"soilmap_view_url":null,"soiltest_xml_url":0,"soiltest_view_url":0},{"id":216386,"code":"B4KJ201801010-4635","latitude":"33.2789811","longitude":"129.9645494","source_code":"QS49297737024","project_name":"","survey_name":"\u5ddd\u539f2\u53f7\u6392\u6c34\u6a0b\u7ba1\u5730\u8cea\u8abf\u67fb\u59167\u7b87\u6240\u696d\u52d9","client_name":"\u56fd\u571f\u4ea4\u901a\u7701\u4e5d\u5dde\u5730\u65b9\u6574\u5099\u5c40\u6b66\u96c4\u6cb3\u5ddd\u4e8b\u52d9\u6240","boring_xml_url":40,"boring_view_url":1,"soilmap_view_url":null,"soiltest_xml_url":0,"soiltest_view_url":0}]}}