{"header":{"xyz":{"source":[],"mosaic":false},"page":3478,"raw":{"soiltest_result":"0","bbox":"57.598333,109.544722,1.933333,163.806111","page":"3478"},"conditions":{"soiltest_result":0,"north":57.598333,"west":109.544722,"south":1.933333,"east":163.806111},"success":true,"message":""},"data":{"meta":{"total":212844,"page":3478,"pages":7095,"count":30},"values":[{"id":216235,"code":"B4KJ201801010-4484","latitude":"33.170517","longitude":"129.714131","source_code":"QS49296507002","project_name":"","survey_name":"\u5e73\u62109\u5e74\u5ea6\u4f50\u4e16\u4fdd\u9053\u8def4\u5de5\u533a\u5730\u8cea\u8abf\u67fb\u696d\u52d9","client_name":"\u56fd\u571f\u4ea4\u901a\u7701\u4e5d\u5dde\u5730\u65b9\u6574\u5099\u5c40\u9577\u5d0e\u6cb3\u5ddd\u56fd\u9053\u4e8b\u52d9\u6240","boring_xml_url":40,"boring_view_url":1,"soilmap_view_url":null,"soiltest_xml_url":0,"soiltest_view_url":0},{"id":216234,"code":"B4KJ201801010-4483","latitude":"33.1728775","longitude":"129.7129083","source_code":"QS49296507001","project_name":"","survey_name":"\u4f50\u4e16\u4fdd\u9053\u8def(4\u5de5\u533a)\u5730\u8cea\u8abf\u67fb\u696d\u52d9","client_name":"\u56fd\u571f\u4ea4\u901a\u7701\u4e5d\u5dde\u5730\u65b9\u6574\u5099\u5c40\u9577\u5d0e\u6cb3\u5ddd\u56fd\u9053\u4e8b\u52d9\u6240","boring_xml_url":40,"boring_view_url":1,"soilmap_view_url":null,"soiltest_xml_url":0,"soiltest_view_url":0},{"id":216233,"code":"B4KJ201801010-4482","latitude":"33.1757936","longitude":"129.7094086","source_code":"QS49296506002","project_name":"","survey_name":"\u5e73\u62109\u5e74\u5ea6\u4f50\u4e16\u4fdd\u9053\u8def4\u5de5\u533a\u5730\u8cea\u8abf\u67fb\u696d\u52d9","client_name":"\u56fd\u571f\u4ea4\u901a\u7701\u4e5d\u5dde\u5730\u65b9\u6574\u5099\u5c40\u9577\u5d0e\u6cb3\u5ddd\u56fd\u9053\u4e8b\u52d9\u6240","boring_xml_url":40,"boring_view_url":1,"soilmap_view_url":null,"soiltest_xml_url":0,"soiltest_view_url":0},{"id":216232,"code":"B4KJ201801010-4481","latitude":"33.1757936","longitude":"129.7094086","source_code":"QS49296506001","project_name":"","survey_name":"\u5e73\u62109\u5e74\u5ea6\u4f50\u4e16\u4fdd\u9053\u8def4\u5de5\u533a\u5730\u8cea\u8abf\u67fb\u696d\u52d9","client_name":"\u56fd\u571f\u4ea4\u901a\u7701\u4e5d\u5dde\u5730\u65b9\u6574\u5099\u5c40\u9577\u5d0e\u6cb3\u5ddd\u56fd\u9053\u4e8b\u52d9\u6240","boring_xml_url":40,"boring_view_url":1,"soilmap_view_url":null,"soiltest_xml_url":0,"soiltest_view_url":0},{"id":216231,"code":"B4KJ201801010-4480","latitude":"33.1458856","longitude":"129.9921617","source_code":"QS49295779001","project_name":"","survey_name":"\u4f50\u8cc0\u56fd\u9053\u7ba1\u5185\u8abf\u67fb\u8a2d\u8a08\u696d\u52d9","client_name":"\u56fd\u571f\u4ea4\u901a\u7701\u4e5d\u5dde\u5730\u65b9\u6574\u5099\u5c40\u4f50\u8cc0\u56fd\u9053\u4e8b\u52d9\u6240","boring_xml_url":40,"boring_view_url":1,"soilmap_view_url":null,"soiltest_xml_url":0,"soiltest_view_url":0},{"id":216230,"code":"B4KJ201801010-4479","latitude":"33.1262769","longitude":"129.9967172","source_code":"QS49295749006","project_name":"","survey_name":"\u4f50\u8cc0\u56fd\u9053\u7ba1\u5185\u5730\u8cea\u8abf\u67fb\u696d\u52d9","client_name":"\u56fd\u571f\u4ea4\u901a\u7701\u4e5d\u5dde\u5730\u65b9\u6574\u5099\u5c40\u4f50\u8cc0\u56fd\u9053\u4e8b\u52d9\u6240","boring_xml_url":40,"boring_view_url":1,"soilmap_view_url":null,"soiltest_xml_url":0,"soiltest_view_url":0},{"id":216229,"code":"B4KJ201801010-4478","latitude":"33.1276378","longitude":"129.9954117","source_code":"QS49295749001","project_name":"","survey_name":"\u4f50\u8cc0\u56fd\u9053\u7ba1\u5185\u5730\u8cea\u8abf\u67fb\u696d\u52d9","client_name":"\u56fd\u571f\u4ea4\u901a\u7701\u4e5d\u5dde\u5730\u65b9\u6574\u5099\u5c40\u4f50\u8cc0\u56fd\u9053\u4e8b\u52d9\u6240","boring_xml_url":40,"boring_view_url":1,"soilmap_view_url":null,"soiltest_xml_url":0,"soiltest_view_url":0},{"id":216228,"code":"B4KJ201801010-4477","latitude":"33.1551028","longitude":"129.7720981","source_code":"QS49295681002","project_name":"","survey_name":"\u8107\u5d0e\u6a2a\u65ad\u6b69\u9053\u6a4b\u8a73\u7d30\u8a2d\u8a08\u696d\u52d9","client_name":"\u56fd\u571f\u4ea4\u901a\u7701\u4e5d\u5dde\u5730\u65b9\u6574\u5099\u5c40\u9577\u5d0e\u6cb3\u5ddd\u56fd\u9053\u4e8b\u52d9\u6240","boring_xml_url":40,"boring_view_url":1,"soilmap_view_url":null,"soiltest_xml_url":0,"soiltest_view_url":0},{"id":216227,"code":"B4KJ201801010-4476","latitude":"33.1551028","longitude":"129.7720981","source_code":"QS49295681001","project_name":"","survey_name":"\u8107\u5d0e\u6a2a\u65ad\u6b69\u9053\u6a4b\u8a73\u7d30\u8a2d\u8a08\u696d\u52d9","client_name":"\u56fd\u571f\u4ea4\u901a\u7701\u4e5d\u5dde\u5730\u65b9\u6574\u5099\u5c40\u9577\u5d0e\u6cb3\u5ddd\u56fd\u9053\u4e8b\u52d9\u6240","boring_xml_url":40,"boring_view_url":1,"soilmap_view_url":null,"soiltest_xml_url":0,"soiltest_view_url":0},{"id":216226,"code":"B4KJ201801010-4475","latitude":"33.1549636","longitude":"129.7532942","source_code":"QS49295680004","project_name":"","survey_name":"\u9577\u5d0e35\u53f7\u4f50\u4e16\u4fdd\u9053\u8def\u5730\u8cea\u8abf\u67fb(\u305d\u306e2)\u696d\u52d9","client_name":"\u56fd\u571f\u4ea4\u901a\u7701\u4e5d\u5dde\u5730\u65b9\u6574\u5099\u5c40\u9577\u5d0e\u6cb3\u5ddd\u56fd\u9053\u4e8b\u52d9\u6240","boring_xml_url":40,"boring_view_url":1,"soilmap_view_url":null,"soiltest_xml_url":0,"soiltest_view_url":0},{"id":216225,"code":"B4KJ201801010-4474","latitude":"33.1549636","longitude":"129.7546828","source_code":"QS49295680003","project_name":"","survey_name":"\u9577\u5d0e35\u53f7\u4f50\u4e16\u4fdd\u9053\u8def\u5730\u8cea\u8abf\u67fb(\u305d\u306e2)\u696d\u52d9","client_name":"\u56fd\u571f\u4ea4\u901a\u7701\u4e5d\u5dde\u5730\u65b9\u6574\u5099\u5c40\u9577\u5d0e\u6cb3\u5ddd\u56fd\u9053\u4e8b\u52d9\u6240","boring_xml_url":40,"boring_view_url":1,"soilmap_view_url":null,"soiltest_xml_url":0,"soiltest_view_url":0},{"id":216224,"code":"B4KJ201801010-4473","latitude":"33.1549636","longitude":"129.7560717","source_code":"QS49295680002","project_name":"","survey_name":"\u9577\u5d0e35\u53f7\u4f50\u4e16\u4fdd\u9053\u8def\u5730\u8cea\u8abf\u67fb(\u305d\u306e2)\u696d\u52d9","client_name":"\u56fd\u571f\u4ea4\u901a\u7701\u4e5d\u5dde\u5730\u65b9\u6574\u5099\u5c40\u9577\u5d0e\u6cb3\u5ddd\u56fd\u9053\u4e8b\u52d9\u6240","boring_xml_url":40,"boring_view_url":1,"soilmap_view_url":null,"soiltest_xml_url":0,"soiltest_view_url":0},{"id":216223,"code":"B4KJ201801010-4472","latitude":"33.1549636","longitude":"129.7505167","source_code":"QS49295680001","project_name":"","survey_name":"\u9577\u5d0e35\u53f7\u4f50\u4e16\u4fdd\u9053\u8def\u5730\u8cea\u8abf\u67fb(\u305d\u306e2)\u696d\u52d9","client_name":"\u56fd\u571f\u4ea4\u901a\u7701\u4e5d\u5dde\u5730\u65b9\u6574\u5099\u5c40\u9577\u5d0e\u6cb3\u5ddd\u56fd\u9053\u4e8b\u52d9\u6240","boring_xml_url":40,"boring_view_url":1,"soilmap_view_url":null,"soiltest_xml_url":0,"soiltest_view_url":0},{"id":216222,"code":"B4KJ201801010-4471","latitude":"33.1506036","longitude":"129.7869022","source_code":"QS49295673004","project_name":"","survey_name":"\u65e9\u5c90\u91dd\u5c3e\u5730\u533a\u5730\u8cea\u8abf\u67fb\u696d\u52d9","client_name":"\u56fd\u571f\u4ea4\u901a\u7701\u4e5d\u5dde\u5730\u65b9\u6574\u5099\u5c40\u9577\u5d0e\u6cb3\u5ddd\u56fd\u9053\u4e8b\u52d9\u6240","boring_xml_url":40,"boring_view_url":1,"soilmap_view_url":null,"soiltest_xml_url":0,"soiltest_view_url":0},{"id":216221,"code":"B4KJ201801010-4470","latitude":"33.1506036","longitude":"129.7869022","source_code":"QS49295673003","project_name":"","survey_name":"\u65e9\u5c90\u91dd\u5c3e\u5730\u533a\u5730\u8cea\u8abf\u67fb\u696d\u52d9","client_name":"\u56fd\u571f\u4ea4\u901a\u7701\u4e5d\u5dde\u5730\u65b9\u6574\u5099\u5c40\u9577\u5d0e\u6cb3\u5ddd\u56fd\u9053\u4e8b\u52d9\u6240","boring_xml_url":40,"boring_view_url":1,"soilmap_view_url":null,"soiltest_xml_url":0,"soiltest_view_url":0},{"id":216220,"code":"B4KJ201801010-4469","latitude":"33.1511592","longitude":"129.7953458","source_code":"QS49295673002","project_name":"","survey_name":"\u65e9\u5c90\u91dd\u5c3e\u5730\u533a\u5730\u8cea\u8abf\u67fb\u696d\u52d9","client_name":"\u56fd\u571f\u4ea4\u901a\u7701\u4e5d\u5dde\u5730\u65b9\u6574\u5099\u5c40\u9577\u5d0e\u6cb3\u5ddd\u56fd\u9053\u4e8b\u52d9\u6240","boring_xml_url":40,"boring_view_url":1,"soilmap_view_url":null,"soiltest_xml_url":0,"soiltest_view_url":0},{"id":216219,"code":"B4KJ201801010-4468","latitude":"33.1511592","longitude":"129.7953458","source_code":"QS49295673001","project_name":"","survey_name":"\u65e9\u5c90\u91dd\u5c3e\u5730\u533a\u5730\u8cea\u8abf\u67fb\u696d\u52d9","client_name":"\u56fd\u571f\u4ea4\u901a\u7701\u4e5d\u5dde\u5730\u65b9\u6574\u5099\u5c40\u9577\u5d0e\u6cb3\u5ddd\u56fd\u9053\u4e8b\u52d9\u6240","boring_xml_url":40,"boring_view_url":1,"soilmap_view_url":null,"soiltest_xml_url":0,"soiltest_view_url":0},{"id":216218,"code":"B4KJ201801010-4467","latitude":"33.1501592","longitude":"129.7836803","source_code":"QS49295672089","project_name":"","survey_name":"\u7530\u306e\u6d66\u5730\u533a\u64c1\u58c1\u5b9f\u65bd\u8a2d\u8a08\u59161\u9023\u696d\u52d9\u59d4\u8a17","client_name":"\u56fd\u571f\u4ea4\u901a\u7701\u4e5d\u5dde\u5730\u65b9\u6574\u5099\u5c40\u9577\u5d0e\u6cb3\u5ddd\u56fd\u9053\u4e8b\u52d9\u6240","boring_xml_url":40,"boring_view_url":1,"soilmap_view_url":null,"soiltest_xml_url":0,"soiltest_view_url":0},{"id":216217,"code":"B4KJ201801010-4466","latitude":"33.1496869","longitude":"129.7834025","source_code":"QS49295672088","project_name":"","survey_name":"\u7530\u306e\u6d66\u5730\u533a\u64c1\u58c1\u5b9f\u65bd\u8a2d\u8a08\u59161\u9023\u696d\u52d9\u59d4\u8a17","client_name":"\u56fd\u571f\u4ea4\u901a\u7701\u4e5d\u5dde\u5730\u65b9\u6574\u5099\u5c40\u9577\u5d0e\u6cb3\u5ddd\u56fd\u9053\u4e8b\u52d9\u6240","boring_xml_url":40,"boring_view_url":1,"soilmap_view_url":null,"soiltest_xml_url":0,"soiltest_view_url":0},{"id":216216,"code":"B4KJ201801010-4465","latitude":"33.1499092","longitude":"129.7832636","source_code":"QS49295672087","project_name":"","survey_name":"\u7530\u306e\u6d66\u5730\u533a\u64c1\u58c1\u5b9f\u65bd\u8a2d\u8a08\u59161\u9023\u696d\u52d9\u59d4\u8a17","client_name":"\u56fd\u571f\u4ea4\u901a\u7701\u4e5d\u5dde\u5730\u65b9\u6574\u5099\u5c40\u9577\u5d0e\u6cb3\u5ddd\u56fd\u9053\u4e8b\u52d9\u6240","boring_xml_url":40,"boring_view_url":1,"soilmap_view_url":null,"soiltest_xml_url":0,"soiltest_view_url":0},{"id":216215,"code":"B4KJ201801010-4464","latitude":"33.1495758","longitude":"129.782875","source_code":"QS49295672086","project_name":"","survey_name":"\u7530\u306e\u6d66\u5730\u533a\u64c1\u58c1\u5b9f\u65bd\u8a2d\u8a08\u59161\u9023\u696d\u52d9\u59d4\u8a17","client_name":"\u56fd\u571f\u4ea4\u901a\u7701\u4e5d\u5dde\u5730\u65b9\u6574\u5099\u5c40\u9577\u5d0e\u6cb3\u5ddd\u56fd\u9053\u4e8b\u52d9\u6240","boring_xml_url":40,"boring_view_url":1,"soilmap_view_url":null,"soiltest_xml_url":0,"soiltest_view_url":0},{"id":216214,"code":"B4KJ201801010-4463","latitude":"33.1461317","longitude":"129.7800975","source_code":"QS49295672085","project_name":"","survey_name":"\u5e73\u62103\u5e74\u5ea6\u5d0e\u5ca1\u5730\u533a\u8a08\u5668\u57cb\u8a2d\u53ca\u3073\u52d5\u614b\u89b3\u6e2c\u59162\u4ef6\u696d\u52d9\u59d4\u8a17","client_name":"\u56fd\u571f\u4ea4\u901a\u7701\u4e5d\u5dde\u5730\u65b9\u6574\u5099\u5c40\u9577\u5d0e\u6cb3\u5ddd\u56fd\u9053\u4e8b\u52d9\u6240","boring_xml_url":40,"boring_view_url":1,"soilmap_view_url":null,"soiltest_xml_url":0,"soiltest_view_url":0},{"id":216213,"code":"B4KJ201801010-4462","latitude":"33.1460206","longitude":"129.7797364","source_code":"QS49295672084","project_name":"","survey_name":"\u5e73\u62103\u5e74\u5ea6\u5d0e\u5ca1\u5730\u533a\u8a08\u5668\u57cb\u8a2d\u53ca\u3073\u52d5\u614b\u89b3\u6e2c\u59162\u4ef6\u696d\u52d9\u59d4\u8a17","client_name":"\u56fd\u571f\u4ea4\u901a\u7701\u4e5d\u5dde\u5730\u65b9\u6574\u5099\u5c40\u9577\u5d0e\u6cb3\u5ddd\u56fd\u9053\u4e8b\u52d9\u6240","boring_xml_url":40,"boring_view_url":1,"soilmap_view_url":null,"soiltest_xml_url":0,"soiltest_view_url":0},{"id":216212,"code":"B4KJ201801010-4461","latitude":"33.1456039","longitude":"129.7794586","source_code":"QS49295672083","project_name":"","survey_name":"\u5e73\u62103\u5e74\u5ea6\u5d0e\u5ca1\u5730\u533a\u8a08\u5668\u57cb\u8a2d\u53ca\u3073\u52d5\u614b\u89b3\u6e2c\u59162\u4ef6\u696d\u52d9\u59d4\u8a17","client_name":"\u56fd\u571f\u4ea4\u901a\u7701\u4e5d\u5dde\u5730\u65b9\u6574\u5099\u5c40\u9577\u5d0e\u6cb3\u5ddd\u56fd\u9053\u4e8b\u52d9\u6240","boring_xml_url":40,"boring_view_url":1,"soilmap_view_url":null,"soiltest_xml_url":0,"soiltest_view_url":0},{"id":216211,"code":"B4KJ201801010-4460","latitude":"33.1455206","longitude":"129.7791808","source_code":"QS49295672082","project_name":"","survey_name":"\u5e73\u62103\u5e74\u5ea6\u5d0e\u5ca1\u5730\u533a\u8a08\u5668\u57cb\u8a2d\u53ca\u3073\u52d5\u614b\u89b3\u6e2c\u59162\u4ef6\u696d\u52d9\u59d4\u8a17","client_name":"\u56fd\u571f\u4ea4\u901a\u7701\u4e5d\u5dde\u5730\u65b9\u6574\u5099\u5c40\u9577\u5d0e\u6cb3\u5ddd\u56fd\u9053\u4e8b\u52d9\u6240","boring_xml_url":40,"boring_view_url":1,"soilmap_view_url":null,"soiltest_xml_url":0,"soiltest_view_url":0},{"id":216210,"code":"B4KJ201801010-4459","latitude":"33.1482425","longitude":"129.7813472","source_code":"QS49295672081","project_name":"","survey_name":"\u5927\u5854\u5730\u533a\u5730\u8cea\u8abf\u67fb\u696d\u52d9","client_name":"\u56fd\u571f\u4ea4\u901a\u7701\u4e5d\u5dde\u5730\u65b9\u6574\u5099\u5c40\u9577\u5d0e\u6cb3\u5ddd\u56fd\u9053\u4e8b\u52d9\u6240","boring_xml_url":40,"boring_view_url":1,"soilmap_view_url":null,"soiltest_xml_url":0,"soiltest_view_url":0},{"id":216209,"code":"B4KJ201801010-4458","latitude":"33.1482425","longitude":"129.7813472","source_code":"QS49295672080","project_name":"","survey_name":"\u5927\u5854\u5730\u533a\u5730\u8cea\u8abf\u67fb\u696d\u52d9","client_name":"\u56fd\u571f\u4ea4\u901a\u7701\u4e5d\u5dde\u5730\u65b9\u6574\u5099\u5c40\u9577\u5d0e\u6cb3\u5ddd\u56fd\u9053\u4e8b\u52d9\u6240","boring_xml_url":40,"boring_view_url":1,"soilmap_view_url":null,"soiltest_xml_url":0,"soiltest_view_url":0},{"id":216208,"code":"B4KJ201801010-4457","latitude":"33.1482425","longitude":"129.7813472","source_code":"QS49295672079","project_name":"","survey_name":"\u5927\u5854\u5730\u533a\u5730\u8cea\u8abf\u67fb\u696d\u52d9","client_name":"\u56fd\u571f\u4ea4\u901a\u7701\u4e5d\u5dde\u5730\u65b9\u6574\u5099\u5c40\u9577\u5d0e\u6cb3\u5ddd\u56fd\u9053\u4e8b\u52d9\u6240","boring_xml_url":40,"boring_view_url":1,"soilmap_view_url":null,"soiltest_xml_url":0,"soiltest_view_url":0},{"id":216207,"code":"B4KJ201801010-4456","latitude":"33.1482425","longitude":"129.7813472","source_code":"QS49295672078","project_name":"","survey_name":"\u5927\u5854\u5730\u533a\u5730\u8cea\u8abf\u67fb\u696d\u52d9","client_name":"\u56fd\u571f\u4ea4\u901a\u7701\u4e5d\u5dde\u5730\u65b9\u6574\u5099\u5c40\u9577\u5d0e\u6cb3\u5ddd\u56fd\u9053\u4e8b\u52d9\u6240","boring_xml_url":40,"boring_view_url":1,"soilmap_view_url":null,"soiltest_xml_url":0,"soiltest_view_url":0},{"id":216206,"code":"B4KJ201801010-4455","latitude":"33.1482425","longitude":"129.7813472","source_code":"QS49295672077","project_name":"","survey_name":"\u5927\u5854\u5730\u533a\u5730\u8cea\u8abf\u67fb\u696d\u52d9","client_name":"\u56fd\u571f\u4ea4\u901a\u7701\u4e5d\u5dde\u5730\u65b9\u6574\u5099\u5c40\u9577\u5d0e\u6cb3\u5ddd\u56fd\u9053\u4e8b\u52d9\u6240","boring_xml_url":40,"boring_view_url":1,"soilmap_view_url":null,"soiltest_xml_url":0,"soiltest_view_url":0}]}}