{"header":{"xyz":{"source":[],"mosaic":false},"page":3482,"raw":{"soiltest_result":"0","bbox":"57.598333,109.544722,1.933333,163.806111","page":"3482"},"conditions":{"soiltest_result":0,"north":57.598333,"west":109.544722,"south":1.933333,"east":163.806111},"success":true,"message":""},"data":{"meta":{"total":212844,"page":3482,"pages":7095,"count":30},"values":[{"id":216115,"code":"B4KJ201801010-4364","latitude":"33.1480203","longitude":"129.7724592","source_code":"QS49295671014","project_name":"","survey_name":"\u9577\u5d0e35\u53f7\u8107\u5d0e\u5730\u533a\u5730\u3059\u3079\u308a\u89e3\u6790\u5916\u4e00\u9023\u696d\u52d9\u59d4\u8a17","client_name":"\u56fd\u571f\u4ea4\u901a\u7701\u4e5d\u5dde\u5730\u65b9\u6574\u5099\u5c40\u9577\u5d0e\u6cb3\u5ddd\u56fd\u9053\u4e8b\u52d9\u6240","boring_xml_url":40,"boring_view_url":1,"soilmap_view_url":null,"soiltest_xml_url":0,"soiltest_view_url":0},{"id":216114,"code":"B4KJ201801010-4363","latitude":"33.1494089","longitude":"129.7677372","source_code":"QS49295671013","project_name":"","survey_name":"\u65e9\u5c90\u9053\u8def\u5fa1\u672c\u753a\u5730\u533a\u5730\u8cea\u8abf\u8abf\u67fb\u59161\u4ef6\u696d\u52d9\u59d4\u8a17","client_name":"\u56fd\u571f\u4ea4\u901a\u7701\u4e5d\u5dde\u5730\u65b9\u6574\u5099\u5c40\u9577\u5d0e\u6cb3\u5ddd\u56fd\u9053\u4e8b\u52d9\u6240","boring_xml_url":40,"boring_view_url":1,"soilmap_view_url":null,"soiltest_xml_url":0,"soiltest_view_url":0},{"id":216113,"code":"B4KJ201801010-4362","latitude":"33.1491311","longitude":"129.768015","source_code":"QS49295671012","project_name":"","survey_name":"\u65e9\u5c90\u9053\u8def\u5fa1\u672c\u753a\u5730\u533a\u5730\u8cea\u8abf\u8abf\u67fb\u59161\u4ef6\u696d\u52d9\u59d4\u8a17","client_name":"\u56fd\u571f\u4ea4\u901a\u7701\u4e5d\u5dde\u5730\u65b9\u6574\u5099\u5c40\u9577\u5d0e\u6cb3\u5ddd\u56fd\u9053\u4e8b\u52d9\u6240","boring_xml_url":40,"boring_view_url":1,"soilmap_view_url":null,"soiltest_xml_url":0,"soiltest_view_url":0},{"id":216112,"code":"B4KJ201801010-4361","latitude":"33.1485758","longitude":"129.7710703","source_code":"QS49295671011","project_name":"","survey_name":"\u65e9\u5c90\u9053\u8def\u5fa1\u672c\u753a\u5730\u533a\u5730\u8cea\u8abf\u8abf\u67fb\u59161\u4ef6\u696d\u52d9\u59d4\u8a17","client_name":"\u56fd\u571f\u4ea4\u901a\u7701\u4e5d\u5dde\u5730\u65b9\u6574\u5099\u5c40\u9577\u5d0e\u6cb3\u5ddd\u56fd\u9053\u4e8b\u52d9\u6240","boring_xml_url":40,"boring_view_url":1,"soilmap_view_url":null,"soiltest_xml_url":0,"soiltest_view_url":0},{"id":216111,"code":"B4KJ201801010-4360","latitude":"33.1516308","longitude":"129.7632933","source_code":"QS49295671010","project_name":"","survey_name":"\u4f50\u4e16\u4fdd\u9053\u8def(4\uff5e5\u5de5\u533a)\u5730\u8cea\u8abf\u67fb\u696d\u52d9\u59d4\u8a17","client_name":"\u56fd\u571f\u4ea4\u901a\u7701\u4e5d\u5dde\u5730\u65b9\u6574\u5099\u5c40\u9577\u5d0e\u6cb3\u5ddd\u56fd\u9053\u4e8b\u52d9\u6240","boring_xml_url":40,"boring_view_url":1,"soilmap_view_url":null,"soiltest_xml_url":0,"soiltest_view_url":0},{"id":216110,"code":"B4KJ201801010-4359","latitude":"33.1507975","longitude":"129.7652375","source_code":"QS49295671009","project_name":"","survey_name":"\u4f50\u4e16\u4fdd\u9053\u8def(4\uff5e5\u5de5\u533a)\u5730\u8cea\u8abf\u67fb\u696d\u52d9\u59d4\u8a17","client_name":"\u56fd\u571f\u4ea4\u901a\u7701\u4e5d\u5dde\u5730\u65b9\u6574\u5099\u5c40\u9577\u5d0e\u6cb3\u5ddd\u56fd\u9053\u4e8b\u52d9\u6240","boring_xml_url":40,"boring_view_url":1,"soilmap_view_url":null,"soiltest_xml_url":0,"soiltest_view_url":0},{"id":216109,"code":"B4KJ201801010-4358","latitude":"33.1507975","longitude":"129.7652375","source_code":"QS49295671008","project_name":"","survey_name":"\u4f50\u4e16\u4fdd\u9053\u8def(4\uff5e5\u5de5\u533a)\u5730\u8cea\u8abf\u67fb\u696d\u52d9\u59d4\u8a17","client_name":"\u56fd\u571f\u4ea4\u901a\u7701\u4e5d\u5dde\u5730\u65b9\u6574\u5099\u5c40\u9577\u5d0e\u6cb3\u5ddd\u56fd\u9053\u4e8b\u52d9\u6240","boring_xml_url":40,"boring_view_url":1,"soilmap_view_url":null,"soiltest_xml_url":0,"soiltest_view_url":0},{"id":216108,"code":"B4KJ201801010-4357","latitude":"33.1507978","longitude":"129.7688483","source_code":"QS49295671007","project_name":"","survey_name":"\u4f50\u4e16\u4fdd\u9053\u8def(4\uff5e5\u5de5\u533a)\u5730\u8cea\u8abf\u67fb\u696d\u52d9\u59d4\u8a17","client_name":"\u56fd\u571f\u4ea4\u901a\u7701\u4e5d\u5dde\u5730\u65b9\u6574\u5099\u5c40\u9577\u5d0e\u6cb3\u5ddd\u56fd\u9053\u4e8b\u52d9\u6240","boring_xml_url":40,"boring_view_url":1,"soilmap_view_url":null,"soiltest_xml_url":0,"soiltest_view_url":0},{"id":216107,"code":"B4KJ201801010-4356","latitude":"33.1507978","longitude":"129.7688483","source_code":"QS49295671006","project_name":"","survey_name":"\u4f50\u4e16\u4fdd\u9053\u8def(4\uff5e5\u5de5\u533a)\u5730\u8cea\u8abf\u67fb\u696d\u52d9\u59d4\u8a17","client_name":"\u56fd\u571f\u4ea4\u901a\u7701\u4e5d\u5dde\u5730\u65b9\u6574\u5099\u5c40\u9577\u5d0e\u6cb3\u5ddd\u56fd\u9053\u4e8b\u52d9\u6240","boring_xml_url":40,"boring_view_url":1,"soilmap_view_url":null,"soiltest_xml_url":0,"soiltest_view_url":0},{"id":216106,"code":"B4KJ201801010-4355","latitude":"33.1507978","longitude":"129.7688483","source_code":"QS49295671005","project_name":"","survey_name":"\u4f50\u4e16\u4fdd\u9053\u8def(4\uff5e5\u5de5\u533a)\u5730\u8cea\u8abf\u67fb\u696d\u52d9\u59d4\u8a17","client_name":"\u56fd\u571f\u4ea4\u901a\u7701\u4e5d\u5dde\u5730\u65b9\u6574\u5099\u5c40\u9577\u5d0e\u6cb3\u5ddd\u56fd\u9053\u4e8b\u52d9\u6240","boring_xml_url":40,"boring_view_url":1,"soilmap_view_url":null,"soiltest_xml_url":0,"soiltest_view_url":0},{"id":216105,"code":"B4KJ201801010-4354","latitude":"33.1491033","longitude":"129.7713758","source_code":"QS49295671004","project_name":"","survey_name":"\u9577\u5d0e35\u53f7\u5927\u5854\u5730\u533a\u5730\u8cea\u8abf\u67fb\u696d\u52d9","client_name":"\u56fd\u571f\u4ea4\u901a\u7701\u4e5d\u5dde\u5730\u65b9\u6574\u5099\u5c40\u9577\u5d0e\u6cb3\u5ddd\u56fd\u9053\u4e8b\u52d9\u6240","boring_xml_url":40,"boring_view_url":1,"soilmap_view_url":null,"soiltest_xml_url":0,"soiltest_view_url":0},{"id":216104,"code":"B4KJ201801010-4353","latitude":"33.1488814","longitude":"129.7710981","source_code":"QS49295671003","project_name":"","survey_name":"\u9577\u5d0e35\u53f7\u5927\u5854\u5730\u533a\u5730\u8cea\u8abf\u67fb\u696d\u52d9","client_name":"\u56fd\u571f\u4ea4\u901a\u7701\u4e5d\u5dde\u5730\u65b9\u6574\u5099\u5c40\u9577\u5d0e\u6cb3\u5ddd\u56fd\u9053\u4e8b\u52d9\u6240","boring_xml_url":40,"boring_view_url":1,"soilmap_view_url":null,"soiltest_xml_url":0,"soiltest_view_url":0},{"id":216103,"code":"B4KJ201801010-4352","latitude":"33.1486592","longitude":"129.7720425","source_code":"QS49295671002","project_name":"","survey_name":"\u9577\u5d0e35\u53f7\u5927\u5854\u5730\u533a\u5730\u8cea\u8abf\u67fb\u696d\u52d9","client_name":"\u56fd\u571f\u4ea4\u901a\u7701\u4e5d\u5dde\u5730\u65b9\u6574\u5099\u5c40\u9577\u5d0e\u6cb3\u5ddd\u56fd\u9053\u4e8b\u52d9\u6240","boring_xml_url":40,"boring_view_url":1,"soilmap_view_url":null,"soiltest_xml_url":0,"soiltest_view_url":0},{"id":216102,"code":"B4KJ201801010-4351","latitude":"33.1485758","longitude":"129.7712647","source_code":"QS49295671001","project_name":"","survey_name":"\u9577\u5d0e35\u53f7\u65e9\u5c90\u30d0\u30a4\u30d1\u30b9(3\u5de5\u533a)\u8107\u5d0e\u5730\u533a\u5730\u8cea\u8abf\u67fb\u89e3\u6790\u696d\u52d9","client_name":"\u56fd\u571f\u4ea4\u901a\u7701\u4e5d\u5dde\u5730\u65b9\u6574\u5099\u5c40\u9577\u5d0e\u6cb3\u5ddd\u56fd\u9053\u4e8b\u52d9\u6240","boring_xml_url":40,"boring_view_url":1,"soilmap_view_url":null,"soiltest_xml_url":0,"soiltest_view_url":0},{"id":216101,"code":"B4KJ201801010-4350","latitude":"33.1490753","longitude":"129.7501278","source_code":"QS49295670046","project_name":"","survey_name":"\u767d\u5cb3\u5730\u533a\u5730\u8cea\u8abf\u67fb\u696d\u52d9\u59d4\u8a17","client_name":"\u56fd\u571f\u4ea4\u901a\u7701\u4e5d\u5dde\u5730\u65b9\u6574\u5099\u5c40\u9577\u5d0e\u6cb3\u5ddd\u56fd\u9053\u4e8b\u52d9\u6240","boring_xml_url":40,"boring_view_url":1,"soilmap_view_url":null,"soiltest_xml_url":0,"soiltest_view_url":0},{"id":216100,"code":"B4KJ201801010-4349","latitude":"33.1493531","longitude":"129.7502389","source_code":"QS49295670045","project_name":"","survey_name":"\u767d\u5cb3\u5730\u533a\u5730\u8cea\u8abf\u67fb\u696d\u52d9\u59d4\u8a17","client_name":"\u56fd\u571f\u4ea4\u901a\u7701\u4e5d\u5dde\u5730\u65b9\u6574\u5099\u5c40\u9577\u5d0e\u6cb3\u5ddd\u56fd\u9053\u4e8b\u52d9\u6240","boring_xml_url":40,"boring_view_url":1,"soilmap_view_url":null,"soiltest_xml_url":0,"soiltest_view_url":0},{"id":216099,"code":"B4KJ201801010-4348","latitude":"33.1496308","longitude":"129.7503778","source_code":"QS49295670044","project_name":"","survey_name":"\u767d\u5cb3\u5730\u533a\u5730\u8cea\u8abf\u67fb\u696d\u52d9\u59d4\u8a17","client_name":"\u56fd\u571f\u4ea4\u901a\u7701\u4e5d\u5dde\u5730\u65b9\u6574\u5099\u5c40\u9577\u5d0e\u6cb3\u5ddd\u56fd\u9053\u4e8b\u52d9\u6240","boring_xml_url":40,"boring_view_url":1,"soilmap_view_url":null,"soiltest_xml_url":0,"soiltest_view_url":0},{"id":216098,"code":"B4KJ201801010-4347","latitude":"33.1512142","longitude":"129.7566272","source_code":"QS49295670043","project_name":"","survey_name":"\u767d\u5cb3\u5730\u533a\u5730\u8cea\u8abf\u67fb\u696d\u52d9\u59d4\u8a17","client_name":"\u56fd\u571f\u4ea4\u901a\u7701\u4e5d\u5dde\u5730\u65b9\u6574\u5099\u5c40\u9577\u5d0e\u6cb3\u5ddd\u56fd\u9053\u4e8b\u52d9\u6240","boring_xml_url":40,"boring_view_url":1,"soilmap_view_url":null,"soiltest_xml_url":0,"soiltest_view_url":0},{"id":216097,"code":"B4KJ201801010-4346","latitude":"33.1513531","longitude":"129.756905","source_code":"QS49295670042","project_name":"","survey_name":"\u767d\u5cb3\u5730\u533a\u5730\u8cea\u8abf\u67fb\u696d\u52d9\u59d4\u8a17","client_name":"\u56fd\u571f\u4ea4\u901a\u7701\u4e5d\u5dde\u5730\u65b9\u6574\u5099\u5c40\u9577\u5d0e\u6cb3\u5ddd\u56fd\u9053\u4e8b\u52d9\u6240","boring_xml_url":40,"boring_view_url":1,"soilmap_view_url":null,"soiltest_xml_url":0,"soiltest_view_url":0},{"id":216096,"code":"B4KJ201801010-4345","latitude":"33.1507975","longitude":"129.7574606","source_code":"QS49295670041","project_name":"","survey_name":"\u767d\u5cb3\u5730\u533a\u5730\u8cea\u8abf\u67fb\u696d\u52d9\u59d4\u8a17","client_name":"\u56fd\u571f\u4ea4\u901a\u7701\u4e5d\u5dde\u5730\u65b9\u6574\u5099\u5c40\u9577\u5d0e\u6cb3\u5ddd\u56fd\u9053\u4e8b\u52d9\u6240","boring_xml_url":40,"boring_view_url":1,"soilmap_view_url":null,"soiltest_xml_url":0,"soiltest_view_url":0},{"id":216095,"code":"B4KJ201801010-4344","latitude":"33.1505197","longitude":"129.7580161","source_code":"QS49295670040","project_name":"","survey_name":"\u767d\u5cb3\u5730\u533a\u5730\u8cea\u8abf\u67fb\u696d\u52d9\u59d4\u8a17","client_name":"\u56fd\u571f\u4ea4\u901a\u7701\u4e5d\u5dde\u5730\u65b9\u6574\u5099\u5c40\u9577\u5d0e\u6cb3\u5ddd\u56fd\u9053\u4e8b\u52d9\u6240","boring_xml_url":40,"boring_view_url":1,"soilmap_view_url":null,"soiltest_xml_url":0,"soiltest_view_url":0},{"id":216094,"code":"B4KJ201801010-4343","latitude":"33.1516308","longitude":"129.7585714","source_code":"QS49295670039","project_name":"","survey_name":"\u767d\u5cb3\u5730\u533a\u5730\u8cea\u8abf\u67fb\u696d\u52d9\u59d4\u8a17","client_name":"\u56fd\u571f\u4ea4\u901a\u7701\u4e5d\u5dde\u5730\u65b9\u6574\u5099\u5c40\u9577\u5d0e\u6cb3\u5ddd\u56fd\u9053\u4e8b\u52d9\u6240","boring_xml_url":40,"boring_view_url":1,"soilmap_view_url":null,"soiltest_xml_url":0,"soiltest_view_url":0},{"id":216093,"code":"B4KJ201801010-4342","latitude":"33.1509642","longitude":"129.7581547","source_code":"QS49295670038","project_name":"","survey_name":"\u767d\u5cb3\u5730\u533a\u5730\u8cea\u8abf\u67fb\u696d\u52d9\u59d4\u8a17","client_name":"\u56fd\u571f\u4ea4\u901a\u7701\u4e5d\u5dde\u5730\u65b9\u6574\u5099\u5c40\u9577\u5d0e\u6cb3\u5ddd\u56fd\u9053\u4e8b\u52d9\u6240","boring_xml_url":40,"boring_view_url":1,"soilmap_view_url":null,"soiltest_xml_url":0,"soiltest_view_url":0},{"id":216092,"code":"B4KJ201801010-4341","latitude":"33.1516308","longitude":"129.7582936","source_code":"QS49295670037","project_name":"","survey_name":"\u767d\u5cb3\u5730\u533a\u5730\u8cea\u8abf\u67fb\u696d\u52d9\u59d4\u8a17","client_name":"\u56fd\u571f\u4ea4\u901a\u7701\u4e5d\u5dde\u5730\u65b9\u6574\u5099\u5c40\u9577\u5d0e\u6cb3\u5ddd\u56fd\u9053\u4e8b\u52d9\u6240","boring_xml_url":40,"boring_view_url":1,"soilmap_view_url":null,"soiltest_xml_url":0,"soiltest_view_url":0},{"id":216091,"code":"B4KJ201801010-4340","latitude":"33.1510753","longitude":"129.7588492","source_code":"QS49295670036","project_name":"","survey_name":"\u767d\u5cb3\u5730\u533a\u5730\u8cea\u8abf\u67fb\u696d\u52d9\u59d4\u8a17","client_name":"\u56fd\u571f\u4ea4\u901a\u7701\u4e5d\u5dde\u5730\u65b9\u6574\u5099\u5c40\u9577\u5d0e\u6cb3\u5ddd\u56fd\u9053\u4e8b\u52d9\u6240","boring_xml_url":40,"boring_view_url":1,"soilmap_view_url":null,"soiltest_xml_url":0,"soiltest_view_url":0},{"id":216090,"code":"B4KJ201801010-4339","latitude":"33.1507417","longitude":"129.7480169","source_code":"QS49295670035","project_name":"","survey_name":"\u6c96\u65b0\u5730\u533a\u5730\u8cea\u8abf\u67fb\u696d\u52d9","client_name":"\u56fd\u571f\u4ea4\u901a\u7701\u4e5d\u5dde\u5730\u65b9\u6574\u5099\u5c40\u9577\u5d0e\u6cb3\u5ddd\u56fd\u9053\u4e8b\u52d9\u6240","boring_xml_url":40,"boring_view_url":1,"soilmap_view_url":null,"soiltest_xml_url":0,"soiltest_view_url":0},{"id":216089,"code":"B4KJ201801010-4338","latitude":"33.1507417","longitude":"129.7484058","source_code":"QS49295670034","project_name":"","survey_name":"\u6c96\u65b0\u5730\u533a\u5730\u8cea\u8abf\u67fb\u696d\u52d9","client_name":"\u56fd\u571f\u4ea4\u901a\u7701\u4e5d\u5dde\u5730\u65b9\u6574\u5099\u5c40\u9577\u5d0e\u6cb3\u5ddd\u56fd\u9053\u4e8b\u52d9\u6240","boring_xml_url":40,"boring_view_url":1,"soilmap_view_url":null,"soiltest_xml_url":0,"soiltest_view_url":0},{"id":216088,"code":"B4KJ201801010-4337","latitude":"33.150992","longitude":"129.749961","source_code":"QS49295670033","project_name":"","survey_name":"\u6c96\u65b0\u5730\u533a\u5730\u8cea\u8abf\u67fb\u696d\u52d9","client_name":"\u56fd\u571f\u4ea4\u901a\u7701\u4e5d\u5dde\u5730\u65b9\u6574\u5099\u5c40\u9577\u5d0e\u6cb3\u5ddd\u56fd\u9053\u4e8b\u52d9\u6240","boring_xml_url":40,"boring_view_url":1,"soilmap_view_url":null,"soiltest_xml_url":0,"soiltest_view_url":0},{"id":216087,"code":"B4KJ201801010-4336","latitude":"33.150936","longitude":"129.750017","source_code":"QS49295670032","project_name":"","survey_name":"\u6c96\u65b0\u5730\u533a\u5730\u8cea\u8abf\u67fb\u696d\u52d9","client_name":"\u56fd\u571f\u4ea4\u901a\u7701\u4e5d\u5dde\u5730\u65b9\u6574\u5099\u5c40\u9577\u5d0e\u6cb3\u5ddd\u56fd\u9053\u4e8b\u52d9\u6240","boring_xml_url":40,"boring_view_url":1,"soilmap_view_url":null,"soiltest_xml_url":0,"soiltest_view_url":0},{"id":216086,"code":"B4KJ201801010-4335","latitude":"33.150742","longitude":"129.749906","source_code":"QS49295670031","project_name":"","survey_name":"\u6c96\u65b0\u5730\u533a\u5730\u8cea\u8abf\u67fb\u696d\u52d9","client_name":"\u56fd\u571f\u4ea4\u901a\u7701\u4e5d\u5dde\u5730\u65b9\u6574\u5099\u5c40\u9577\u5d0e\u6cb3\u5ddd\u56fd\u9053\u4e8b\u52d9\u6240","boring_xml_url":40,"boring_view_url":1,"soilmap_view_url":null,"soiltest_xml_url":0,"soiltest_view_url":0}]}}