{"header":{"xyz":{"source":[],"mosaic":false},"page":3486,"raw":{"soiltest_result":"0","bbox":"57.598333,109.544722,1.933333,163.806111","page":"3486"},"conditions":{"soiltest_result":0,"north":57.598333,"west":109.544722,"south":1.933333,"east":163.806111},"success":true,"message":""},"data":{"meta":{"total":212844,"page":3486,"pages":7095,"count":30},"values":[{"id":215995,"code":"B4KJ201801010-4244","latitude":"33.1069142","longitude":"129.7950417","source_code":"QS49295623038","project_name":"","survey_name":"\u5d0e\u5ca1\u5730\u533a\u5730\u8cea\u8abf\u67fb\u59161\u4ef6\u696d\u52d9\u59d4\u8a17","client_name":"\u56fd\u571f\u4ea4\u901a\u7701\u4e5d\u5dde\u5730\u65b9\u6574\u5099\u5c40\u9577\u5d0e\u6cb3\u5ddd\u56fd\u9053\u4e8b\u52d9\u6240","boring_xml_url":40,"boring_view_url":1,"soilmap_view_url":null,"soiltest_xml_url":0,"soiltest_view_url":0},{"id":215994,"code":"B4KJ201801010-4243","latitude":"33.1039703","longitude":"129.7942639","source_code":"QS49295623037","project_name":"","survey_name":"\u5e73\u62103\u5e74\u5ea6\u5d0e\u5ca1\u5730\u533a\u8a08\u5668\u57cb\u8a2d\u53ca\u3073\u52d5\u614b\u89b3\u6e2c\u59162\u4ef6\u696d\u52d9\u59d4\u8a17","client_name":"\u56fd\u571f\u4ea4\u901a\u7701\u4e5d\u5dde\u5730\u65b9\u6574\u5099\u5c40\u9577\u5d0e\u6cb3\u5ddd\u56fd\u9053\u4e8b\u52d9\u6240","boring_xml_url":40,"boring_view_url":1,"soilmap_view_url":null,"soiltest_xml_url":0,"soiltest_view_url":0},{"id":215993,"code":"B4KJ201801010-4242","latitude":"33.1064422","longitude":"129.7942361","source_code":"QS49295623036","project_name":"","survey_name":"\u5d0e\u5ca1\u5730\u533a\u8edf\u5f31\u5730\u76e4\u5bfe\u7b56\u691c\u8a0e\u696d\u52d9","client_name":"\u56fd\u571f\u4ea4\u901a\u7701\u4e5d\u5dde\u5730\u65b9\u6574\u5099\u5c40\u9577\u5d0e\u6cb3\u5ddd\u56fd\u9053\u4e8b\u52d9\u6240","boring_xml_url":40,"boring_view_url":1,"soilmap_view_url":null,"soiltest_xml_url":0,"soiltest_view_url":0},{"id":215992,"code":"B4KJ201801010-4241","latitude":"33.1064422","longitude":"129.7942361","source_code":"QS49295623035","project_name":"","survey_name":"\u5d0e\u5ca1\u5730\u533a\u8edf\u5f31\u5730\u76e4\u5bfe\u7b56\u691c\u8a0e\u696d\u52d9","client_name":"\u56fd\u571f\u4ea4\u901a\u7701\u4e5d\u5dde\u5730\u65b9\u6574\u5099\u5c40\u9577\u5d0e\u6cb3\u5ddd\u56fd\u9053\u4e8b\u52d9\u6240","boring_xml_url":40,"boring_view_url":1,"soilmap_view_url":null,"soiltest_xml_url":0,"soiltest_view_url":0},{"id":215991,"code":"B4KJ201801010-4240","latitude":"33.1064422","longitude":"129.7942361","source_code":"QS49295623034","project_name":"","survey_name":"\u5d0e\u5ca1\u5730\u533a\u8edf\u5f31\u5730\u76e4\u5bfe\u7b56\u691c\u8a0e\u696d\u52d9","client_name":"\u56fd\u571f\u4ea4\u901a\u7701\u4e5d\u5dde\u5730\u65b9\u6574\u5099\u5c40\u9577\u5d0e\u6cb3\u5ddd\u56fd\u9053\u4e8b\u52d9\u6240","boring_xml_url":40,"boring_view_url":1,"soilmap_view_url":null,"soiltest_xml_url":0,"soiltest_view_url":0},{"id":215990,"code":"B4KJ201801010-4239","latitude":"33.1064422","longitude":"129.7942361","source_code":"QS49295623033","project_name":"","survey_name":"\u5d0e\u5ca1\u5730\u533a\u8edf\u5f31\u5730\u76e4\u5bfe\u7b56\u691c\u8a0e\u696d\u52d9","client_name":"\u56fd\u571f\u4ea4\u901a\u7701\u4e5d\u5dde\u5730\u65b9\u6574\u5099\u5c40\u9577\u5d0e\u6cb3\u5ddd\u56fd\u9053\u4e8b\u52d9\u6240","boring_xml_url":40,"boring_view_url":1,"soilmap_view_url":null,"soiltest_xml_url":0,"soiltest_view_url":0},{"id":215989,"code":"B4KJ201801010-4238","latitude":"33.1064422","longitude":"129.7942361","source_code":"QS49295623032","project_name":"","survey_name":"\u5d0e\u5ca1\u5730\u533a\u8edf\u5f31\u5730\u76e4\u5bfe\u7b56\u691c\u8a0e\u696d\u52d9","client_name":"\u56fd\u571f\u4ea4\u901a\u7701\u4e5d\u5dde\u5730\u65b9\u6574\u5099\u5c40\u9577\u5d0e\u6cb3\u5ddd\u56fd\u9053\u4e8b\u52d9\u6240","boring_xml_url":40,"boring_view_url":1,"soilmap_view_url":null,"soiltest_xml_url":0,"soiltest_view_url":0},{"id":215988,"code":"B4KJ201801010-4237","latitude":"33.1064422","longitude":"129.7942361","source_code":"QS49295623031","project_name":"","survey_name":"\u5d0e\u5ca1\u5730\u533a\u8edf\u5f31\u5730\u76e4\u5bfe\u7b56\u691c\u8a0e\u696d\u52d9","client_name":"\u56fd\u571f\u4ea4\u901a\u7701\u4e5d\u5dde\u5730\u65b9\u6574\u5099\u5c40\u9577\u5d0e\u6cb3\u5ddd\u56fd\u9053\u4e8b\u52d9\u6240","boring_xml_url":40,"boring_view_url":1,"soilmap_view_url":null,"soiltest_xml_url":0,"soiltest_view_url":0},{"id":215987,"code":"B4KJ201801010-4236","latitude":"33.1064422","longitude":"129.7942361","source_code":"QS49295623030","project_name":"","survey_name":"\u5d0e\u5ca1\u5730\u533a\u8edf\u5f31\u5730\u76e4\u5bfe\u7b56\u691c\u8a0e\u696d\u52d9","client_name":"\u56fd\u571f\u4ea4\u901a\u7701\u4e5d\u5dde\u5730\u65b9\u6574\u5099\u5c40\u9577\u5d0e\u6cb3\u5ddd\u56fd\u9053\u4e8b\u52d9\u6240","boring_xml_url":40,"boring_view_url":1,"soilmap_view_url":null,"soiltest_xml_url":0,"soiltest_view_url":0},{"id":215986,"code":"B4KJ201801010-4235","latitude":"33.1064422","longitude":"129.7942361","source_code":"QS49295623029","project_name":"","survey_name":"\u5d0e\u5ca1\u5730\u533a\u8edf\u5f31\u5730\u76e4\u5bfe\u7b56\u691c\u8a0e\u696d\u52d9","client_name":"\u56fd\u571f\u4ea4\u901a\u7701\u4e5d\u5dde\u5730\u65b9\u6574\u5099\u5c40\u9577\u5d0e\u6cb3\u5ddd\u56fd\u9053\u4e8b\u52d9\u6240","boring_xml_url":40,"boring_view_url":1,"soilmap_view_url":null,"soiltest_xml_url":0,"soiltest_view_url":0},{"id":215985,"code":"B4KJ201801010-4234","latitude":"33.1060811","longitude":"129.7935694","source_code":"QS49295623028","project_name":"","survey_name":"\u9577\u5d0e35\u53f7\u4f50\u4e16\u4fdd\u9053\u8def\u5730\u8cea\u8abf\u67fb(\u305d\u306e2)\u696d\u52d9","client_name":"\u56fd\u571f\u4ea4\u901a\u7701\u4e5d\u5dde\u5730\u65b9\u6574\u5099\u5c40\u9577\u5d0e\u6cb3\u5ddd\u56fd\u9053\u4e8b\u52d9\u6240","boring_xml_url":40,"boring_view_url":1,"soilmap_view_url":null,"soiltest_xml_url":0,"soiltest_view_url":0},{"id":215984,"code":"B4KJ201801010-4233","latitude":"33.1049978","longitude":"129.7939306","source_code":"QS49295623027","project_name":"","survey_name":"\u91dd\u5c3eB.P(2\u5de5\u533a)\u5730\u8cea\u8abf\u67fb\u53ca\u3073\u89e3\u6790\u696d\u52d9\u59d4\u8a17","client_name":"\u56fd\u571f\u4ea4\u901a\u7701\u4e5d\u5dde\u5730\u65b9\u6574\u5099\u5c40\u9577\u5d0e\u6cb3\u5ddd\u56fd\u9053\u4e8b\u52d9\u6240","boring_xml_url":40,"boring_view_url":1,"soilmap_view_url":null,"soiltest_xml_url":0,"soiltest_view_url":0},{"id":215983,"code":"B4KJ201801010-4232","latitude":"33.1038314","longitude":"129.7939861","source_code":"QS49295623026","project_name":"","survey_name":"\u91dd\u5c3eB.P(2\u5de5\u533a)\u5730\u8cea\u8abf\u67fb\u53ca\u3073\u89e3\u6790\u696d\u52d9\u59d4\u8a17","client_name":"\u56fd\u571f\u4ea4\u901a\u7701\u4e5d\u5dde\u5730\u65b9\u6574\u5099\u5c40\u9577\u5d0e\u6cb3\u5ddd\u56fd\u9053\u4e8b\u52d9\u6240","boring_xml_url":40,"boring_view_url":1,"soilmap_view_url":null,"soiltest_xml_url":0,"soiltest_view_url":0},{"id":215982,"code":"B4KJ201801010-4231","latitude":"33.1038592","longitude":"129.7943194","source_code":"QS49295623025","project_name":"","survey_name":"\u91dd\u5c3eB.P(2\u5de5\u533a)\u5730\u8cea\u8abf\u67fb\u53ca\u3073\u89e3\u6790\u696d\u52d9\u59d4\u8a17","client_name":"\u56fd\u571f\u4ea4\u901a\u7701\u4e5d\u5dde\u5730\u65b9\u6574\u5099\u5c40\u9577\u5d0e\u6cb3\u5ddd\u56fd\u9053\u4e8b\u52d9\u6240","boring_xml_url":40,"boring_view_url":1,"soilmap_view_url":null,"soiltest_xml_url":0,"soiltest_view_url":0},{"id":215981,"code":"B4KJ201801010-4230","latitude":"33.1039147","longitude":"129.7945417","source_code":"QS49295623024","project_name":"","survey_name":"\u91dd\u5c3eB.P(2\u5de5\u533a)\u5730\u8cea\u8abf\u67fb\u53ca\u3073\u89e3\u6790\u696d\u52d9\u59d4\u8a17","client_name":"\u56fd\u571f\u4ea4\u901a\u7701\u4e5d\u5dde\u5730\u65b9\u6574\u5099\u5c40\u9577\u5d0e\u6cb3\u5ddd\u56fd\u9053\u4e8b\u52d9\u6240","boring_xml_url":40,"boring_view_url":1,"soilmap_view_url":null,"soiltest_xml_url":0,"soiltest_view_url":0},{"id":215980,"code":"B4KJ201801010-4229","latitude":"33.1042478","longitude":"129.7942083","source_code":"QS49295623023","project_name":"","survey_name":"\u91dd\u5c3eB.P(2\u5de5\u533a)\u5730\u8cea\u8abf\u67fb\u53ca\u3073\u89e3\u6790\u696d\u52d9\u59d4\u8a17","client_name":"\u56fd\u571f\u4ea4\u901a\u7701\u4e5d\u5dde\u5730\u65b9\u6574\u5099\u5c40\u9577\u5d0e\u6cb3\u5ddd\u56fd\u9053\u4e8b\u52d9\u6240","boring_xml_url":40,"boring_view_url":1,"soilmap_view_url":null,"soiltest_xml_url":0,"soiltest_view_url":0},{"id":215979,"code":"B4KJ201801010-4228","latitude":"33.1042478","longitude":"129.7942083","source_code":"QS49295623022","project_name":"","survey_name":"\u91dd\u5c3eB.P(2\u5de5\u533a)\u5730\u8cea\u8abf\u67fb\u53ca\u3073\u89e3\u6790\u696d\u52d9\u59d4\u8a17","client_name":"\u56fd\u571f\u4ea4\u901a\u7701\u4e5d\u5dde\u5730\u65b9\u6574\u5099\u5c40\u9577\u5d0e\u6cb3\u5ddd\u56fd\u9053\u4e8b\u52d9\u6240","boring_xml_url":40,"boring_view_url":1,"soilmap_view_url":null,"soiltest_xml_url":0,"soiltest_view_url":0},{"id":215978,"code":"B4KJ201801010-4227","latitude":"33.1042756","longitude":"129.7942361","source_code":"QS49295623021","project_name":"","survey_name":"\u91dd\u5c3eB.P(2\u5de5\u533a)\u5730\u8cea\u8abf\u67fb\u53ca\u3073\u89e3\u6790\u696d\u52d9\u59d4\u8a17","client_name":"\u56fd\u571f\u4ea4\u901a\u7701\u4e5d\u5dde\u5730\u65b9\u6574\u5099\u5c40\u9577\u5d0e\u6cb3\u5ddd\u56fd\u9053\u4e8b\u52d9\u6240","boring_xml_url":40,"boring_view_url":1,"soilmap_view_url":null,"soiltest_xml_url":0,"soiltest_view_url":0},{"id":215977,"code":"B4KJ201801010-4226","latitude":"33.1043311","longitude":"129.7942083","source_code":"QS49295623020","project_name":"","survey_name":"\u91dd\u5c3eB.P(2\u5de5\u533a)\u5730\u8cea\u8abf\u67fb\u53ca\u3073\u89e3\u6790\u696d\u52d9\u59d4\u8a17","client_name":"\u56fd\u571f\u4ea4\u901a\u7701\u4e5d\u5dde\u5730\u65b9\u6574\u5099\u5c40\u9577\u5d0e\u6cb3\u5ddd\u56fd\u9053\u4e8b\u52d9\u6240","boring_xml_url":40,"boring_view_url":1,"soilmap_view_url":null,"soiltest_xml_url":0,"soiltest_view_url":0},{"id":215976,"code":"B4KJ201801010-4225","latitude":"33.1044144","longitude":"129.7942639","source_code":"QS49295623019","project_name":"","survey_name":"\u91dd\u5c3eB.P(2\u5de5\u533a)\u5730\u8cea\u8abf\u67fb\u53ca\u3073\u89e3\u6790\u696d\u52d9\u59d4\u8a17","client_name":"\u56fd\u571f\u4ea4\u901a\u7701\u4e5d\u5dde\u5730\u65b9\u6574\u5099\u5c40\u9577\u5d0e\u6cb3\u5ddd\u56fd\u9053\u4e8b\u52d9\u6240","boring_xml_url":40,"boring_view_url":1,"soilmap_view_url":null,"soiltest_xml_url":0,"soiltest_view_url":0},{"id":215975,"code":"B4KJ201801010-4224","latitude":"33.1044978","longitude":"129.7942639","source_code":"QS49295623018","project_name":"","survey_name":"\u91dd\u5c3eB.P(2\u5de5\u533a)\u5730\u8cea\u8abf\u67fb\u53ca\u3073\u89e3\u6790\u696d\u52d9\u59d4\u8a17","client_name":"\u56fd\u571f\u4ea4\u901a\u7701\u4e5d\u5dde\u5730\u65b9\u6574\u5099\u5c40\u9577\u5d0e\u6cb3\u5ddd\u56fd\u9053\u4e8b\u52d9\u6240","boring_xml_url":40,"boring_view_url":1,"soilmap_view_url":null,"soiltest_xml_url":0,"soiltest_view_url":0},{"id":215974,"code":"B4KJ201801010-4223","latitude":"33.1045256","longitude":"129.7942917","source_code":"QS49295623017","project_name":"","survey_name":"\u91dd\u5c3eB.P(2\u5de5\u533a)\u5730\u8cea\u8abf\u67fb\u53ca\u3073\u89e3\u6790\u696d\u52d9\u59d4\u8a17","client_name":"\u56fd\u571f\u4ea4\u901a\u7701\u4e5d\u5dde\u5730\u65b9\u6574\u5099\u5c40\u9577\u5d0e\u6cb3\u5ddd\u56fd\u9053\u4e8b\u52d9\u6240","boring_xml_url":40,"boring_view_url":1,"soilmap_view_url":null,"soiltest_xml_url":0,"soiltest_view_url":0},{"id":215973,"code":"B4KJ201801010-4222","latitude":"33.1047756","longitude":"129.7942083","source_code":"QS49295623016","project_name":"","survey_name":"\u91dd\u5c3eB.P(2\u5de5\u533a)\u5730\u8cea\u8abf\u67fb\u53ca\u3073\u89e3\u6790\u696d\u52d9\u59d4\u8a17","client_name":"\u56fd\u571f\u4ea4\u901a\u7701\u4e5d\u5dde\u5730\u65b9\u6574\u5099\u5c40\u9577\u5d0e\u6cb3\u5ddd\u56fd\u9053\u4e8b\u52d9\u6240","boring_xml_url":40,"boring_view_url":1,"soilmap_view_url":null,"soiltest_xml_url":0,"soiltest_view_url":0},{"id":215972,"code":"B4KJ201801010-4221","latitude":"33.1047756","longitude":"129.7942361","source_code":"QS49295623015","project_name":"","survey_name":"\u91dd\u5c3eB.P(2\u5de5\u533a)\u5730\u8cea\u8abf\u67fb\u53ca\u3073\u89e3\u6790\u696d\u52d9\u59d4\u8a17","client_name":"\u56fd\u571f\u4ea4\u901a\u7701\u4e5d\u5dde\u5730\u65b9\u6574\u5099\u5c40\u9577\u5d0e\u6cb3\u5ddd\u56fd\u9053\u4e8b\u52d9\u6240","boring_xml_url":40,"boring_view_url":1,"soilmap_view_url":null,"soiltest_xml_url":0,"soiltest_view_url":0},{"id":215971,"code":"B4KJ201801010-4220","latitude":"33.1049422","longitude":"129.7942361","source_code":"QS49295623014","project_name":"","survey_name":"\u91dd\u5c3eB.P(2\u5de5\u533a)\u5730\u8cea\u8abf\u67fb\u53ca\u3073\u89e3\u6790\u696d\u52d9\u59d4\u8a17","client_name":"\u56fd\u571f\u4ea4\u901a\u7701\u4e5d\u5dde\u5730\u65b9\u6574\u5099\u5c40\u9577\u5d0e\u6cb3\u5ddd\u56fd\u9053\u4e8b\u52d9\u6240","boring_xml_url":40,"boring_view_url":1,"soilmap_view_url":null,"soiltest_xml_url":0,"soiltest_view_url":0},{"id":215970,"code":"B4KJ201801010-4219","latitude":"33.1049978","longitude":"129.7942639","source_code":"QS49295623013","project_name":"","survey_name":"\u91dd\u5c3eB.P(2\u5de5\u533a)\u5730\u8cea\u8abf\u67fb\u53ca\u3073\u89e3\u6790\u696d\u52d9\u59d4\u8a17","client_name":"\u56fd\u571f\u4ea4\u901a\u7701 \u4e5d\u5dde\u5730\u65b9\u6574\u5099\u5c40 \u9577\u5d0e\u6cb3\u5ddd\u56fd\u9053\u4e8b\u52d9\u6240","boring_xml_url":40,"boring_view_url":1,"soilmap_view_url":null,"soiltest_xml_url":0,"soiltest_view_url":0},{"id":215969,"code":"B4KJ201801010-4218","latitude":"33.1063589","longitude":"129.7940972","source_code":"QS49295623012","project_name":"","survey_name":"\u91dd\u5c3eB.P(2\u5de5\u533a)\u5730\u8cea\u8abf\u67fb\u53ca\u3073\u89e3\u6790\u696d\u52d9\u59d4\u8a17","client_name":"\u56fd\u571f\u4ea4\u901a\u7701\u4e5d\u5dde\u5730\u65b9\u6574\u5099\u5c40\u9577\u5d0e\u6cb3\u5ddd\u56fd\u9053\u4e8b\u52d9\u6240","boring_xml_url":40,"boring_view_url":1,"soilmap_view_url":null,"soiltest_xml_url":0,"soiltest_view_url":0},{"id":215968,"code":"B4KJ201801010-4217","latitude":"33.1069142","longitude":"129.7941528","source_code":"QS49295623011","project_name":"","survey_name":"\u91dd\u5c3eB.P(2\u5de5\u533a)\u5730\u8cea\u8abf\u67fb\u53ca\u3073\u89e3\u6790\u696d\u52d9\u59d4\u8a17","client_name":"\u56fd\u571f\u4ea4\u901a\u7701\u4e5d\u5dde\u5730\u65b9\u6574\u5099\u5c40\u9577\u5d0e\u6cb3\u5ddd\u56fd\u9053\u4e8b\u52d9\u6240","boring_xml_url":40,"boring_view_url":1,"soilmap_view_url":null,"soiltest_xml_url":0,"soiltest_view_url":0},{"id":215967,"code":"B4KJ201801010-4216","latitude":"33.1083864","longitude":"129.794125","source_code":"QS49295623010","project_name":"","survey_name":"\u91dd\u5c3eB.P(2\u5de5\u533a)\u5730\u8cea\u8abf\u67fb\u53ca\u3073\u89e3\u6790\u696d\u52d9\u59d4\u8a17","client_name":"\u56fd\u571f\u4ea4\u901a\u7701\u4e5d\u5dde\u5730\u65b9\u6574\u5099\u5c40\u9577\u5d0e\u6cb3\u5ddd\u56fd\u9053\u4e8b\u52d9\u6240","boring_xml_url":40,"boring_view_url":1,"soilmap_view_url":null,"soiltest_xml_url":0,"soiltest_view_url":0},{"id":215966,"code":"B4KJ201801010-4215","latitude":"33.108997","longitude":"129.794042","source_code":"QS49295623009","project_name":"","survey_name":"\u91dd\u5c3eB.P(2\u5de5\u533a)\u5730\u8cea\u8abf\u67fb\u53ca\u3073\u89e3\u6790\u696d\u52d9\u59d4\u8a17","client_name":"\u56fd\u571f\u4ea4\u901a\u7701\u4e5d\u5dde\u5730\u65b9\u6574\u5099\u5c40\u9577\u5d0e\u6cb3\u5ddd\u56fd\u9053\u4e8b\u52d9\u6240","boring_xml_url":40,"boring_view_url":1,"soilmap_view_url":null,"soiltest_xml_url":0,"soiltest_view_url":0}]}}