{"header":{"xyz":{"source":[],"mosaic":false},"page":3488,"raw":{"soiltest_result":"0","bbox":"57.598333,109.544722,1.933333,163.806111","page":"3488"},"conditions":{"soiltest_result":0,"north":57.598333,"west":109.544722,"south":1.933333,"east":163.806111},"success":true,"message":""},"data":{"meta":{"total":212844,"page":3488,"pages":7095,"count":30},"values":[{"id":215935,"code":"B4KJ201801010-4184","latitude":"33.1579906","longitude":"129.7294906","source_code":"QS49295588032","project_name":"","survey_name":"\u4f50\u4e16\u4fdd\u5730\u533a\u5730\u8cea\u8abf\u67fb(\u305d\u306e1)\u696d\u52d9","client_name":"\u56fd\u571f\u4ea4\u901a\u7701\u4e5d\u5dde\u5730\u65b9\u6574\u5099\u5c40\u9577\u5d0e\u6cb3\u5ddd\u56fd\u9053\u4e8b\u52d9\u6240","boring_xml_url":40,"boring_view_url":1,"soilmap_view_url":null,"soiltest_xml_url":0,"soiltest_view_url":0},{"id":215934,"code":"B4KJ201801010-4183","latitude":"33.1555742","longitude":"129.7293517","source_code":"QS49295588031","project_name":"","survey_name":"\u4f50\u4e16\u4fdd\u5730\u533a\u5730\u8cea\u8abf\u67fb(\u305d\u306e1)\u696d\u52d9","client_name":"\u56fd\u571f\u4ea4\u901a\u7701\u4e5d\u5dde\u5730\u65b9\u6574\u5099\u5c40\u9577\u5d0e\u6cb3\u5ddd\u56fd\u9053\u4e8b\u52d9\u6240","boring_xml_url":40,"boring_view_url":1,"soilmap_view_url":null,"soiltest_xml_url":0,"soiltest_view_url":0},{"id":215933,"code":"B4KJ201801010-4182","latitude":"33.1555186","longitude":"129.7293794","source_code":"QS49295588030","project_name":"","survey_name":"\u4f50\u4e16\u4fdd\u5730\u533a\u5730\u8cea\u8abf\u67fb(\u305d\u306e1)\u696d\u52d9","client_name":"\u56fd\u571f\u4ea4\u901a\u7701\u4e5d\u5dde\u5730\u65b9\u6574\u5099\u5c40\u9577\u5d0e\u6cb3\u5ddd\u56fd\u9053\u4e8b\u52d9\u6240","boring_xml_url":40,"boring_view_url":1,"soilmap_view_url":null,"soiltest_xml_url":0,"soiltest_view_url":0},{"id":215932,"code":"B4KJ201801010-4181","latitude":"33.1550464","longitude":"129.7296017","source_code":"QS49295588029","project_name":"","survey_name":"\u4f50\u4e16\u4fdd\u5730\u533a\u5730\u8cea\u8abf\u67fb(\u305d\u306e1)\u696d\u52d9","client_name":"\u56fd\u571f\u4ea4\u901a\u7701\u4e5d\u5dde\u5730\u65b9\u6574\u5099\u5c40\u9577\u5d0e\u6cb3\u5ddd\u56fd\u9053\u4e8b\u52d9\u6240","boring_xml_url":40,"boring_view_url":1,"soilmap_view_url":null,"soiltest_xml_url":0,"soiltest_view_url":0},{"id":215931,"code":"B4KJ201801010-4180","latitude":"33.1547686","longitude":"129.7295183","source_code":"QS49295588028","project_name":"","survey_name":"\u4f50\u4e16\u4fdd\u5730\u533a\u5730\u8cea\u8abf\u67fb(\u305d\u306e1)\u696d\u52d9","client_name":"\u56fd\u571f\u4ea4\u901a\u7701\u4e5d\u5dde\u5730\u65b9\u6574\u5099\u5c40\u9577\u5d0e\u6cb3\u5ddd\u56fd\u9053\u4e8b\u52d9\u6240","boring_xml_url":40,"boring_view_url":1,"soilmap_view_url":null,"soiltest_xml_url":0,"soiltest_view_url":0},{"id":215930,"code":"B4KJ201801010-4179","latitude":"33.1544356","longitude":"129.7298239","source_code":"QS49295588027","project_name":"","survey_name":"\u4f50\u4e16\u4fdd\u5730\u533a\u5730\u8cea\u8abf\u67fb(\u305d\u306e1)\u696d\u52d9","client_name":"\u56fd\u571f\u4ea4\u901a\u7701\u4e5d\u5dde\u5730\u65b9\u6574\u5099\u5c40\u9577\u5d0e\u6cb3\u5ddd\u56fd\u9053\u4e8b\u52d9\u6240","boring_xml_url":40,"boring_view_url":1,"soilmap_view_url":null,"soiltest_xml_url":0,"soiltest_view_url":0},{"id":215929,"code":"B4KJ201801010-4178","latitude":"33.15438","longitude":"129.7295739","source_code":"QS49295588026","project_name":"","survey_name":"\u4f50\u4e16\u4fdd\u5730\u533a\u5730\u8cea\u8abf\u67fb(\u305d\u306e1)\u696d\u52d9","client_name":"\u56fd\u571f\u4ea4\u901a\u7701\u4e5d\u5dde\u5730\u65b9\u6574\u5099\u5c40\u9577\u5d0e\u6cb3\u5ddd\u56fd\u9053\u4e8b\u52d9\u6240","boring_xml_url":40,"boring_view_url":1,"soilmap_view_url":null,"soiltest_xml_url":0,"soiltest_view_url":0},{"id":215928,"code":"B4KJ201801010-4177","latitude":"33.1540744","longitude":"129.7298794","source_code":"QS49295588025","project_name":"","survey_name":"\u4f50\u4e16\u4fdd\u5730\u533a\u5730\u8cea\u8abf\u67fb(\u305d\u306e1)\u696d\u52d9","client_name":"\u56fd\u571f\u4ea4\u901a\u7701\u4e5d\u5dde\u5730\u65b9\u6574\u5099\u5c40\u9577\u5d0e\u6cb3\u5ddd\u56fd\u9053\u4e8b\u52d9\u6240","boring_xml_url":40,"boring_view_url":1,"soilmap_view_url":null,"soiltest_xml_url":0,"soiltest_view_url":0},{"id":215927,"code":"B4KJ201801010-4176","latitude":"33.1539078","longitude":"129.7297961","source_code":"QS49295588024","project_name":"","survey_name":"\u4f50\u4e16\u4fdd\u5730\u533a\u5730\u8cea\u8abf\u67fb(\u305d\u306e1)\u696d\u52d9","client_name":"\u56fd\u571f\u4ea4\u901a\u7701\u4e5d\u5dde\u5730\u65b9\u6574\u5099\u5c40\u9577\u5d0e\u6cb3\u5ddd\u56fd\u9053\u4e8b\u52d9\u6240","boring_xml_url":40,"boring_view_url":1,"soilmap_view_url":null,"soiltest_xml_url":0,"soiltest_view_url":0},{"id":215926,"code":"B4KJ201801010-4175","latitude":"33.1535189","longitude":"129.7302406","source_code":"QS49295588023","project_name":"","survey_name":"\u4f50\u4e16\u4fdd\u5730\u533a\u5730\u8cea\u8abf\u67fb(\u305d\u306e1)\u696d\u52d9","client_name":"\u56fd\u571f\u4ea4\u901a\u7701\u4e5d\u5dde\u5730\u65b9\u6574\u5099\u5c40\u9577\u5d0e\u6cb3\u5ddd\u56fd\u9053\u4e8b\u52d9\u6240","boring_xml_url":40,"boring_view_url":1,"soilmap_view_url":null,"soiltest_xml_url":0,"soiltest_view_url":0},{"id":215925,"code":"B4KJ201801010-4174","latitude":"33.1535744","longitude":"129.7304072","source_code":"QS49295588022","project_name":"","survey_name":"\u4f50\u4e16\u4fdd\u5730\u533a\u5730\u8cea\u8abf\u67fb(\u305d\u306e1)\u696d\u52d9","client_name":"\u56fd\u571f\u4ea4\u901a\u7701\u4e5d\u5dde\u5730\u65b9\u6574\u5099\u5c40\u9577\u5d0e\u6cb3\u5ddd\u56fd\u9053\u4e8b\u52d9\u6240","boring_xml_url":40,"boring_view_url":1,"soilmap_view_url":null,"soiltest_xml_url":0,"soiltest_view_url":0},{"id":215924,"code":"B4KJ201801010-4173","latitude":"33.1536578","longitude":"129.7301294","source_code":"QS49295588021","project_name":"","survey_name":"\u4f50\u4e16\u4fdd\u5730\u533a\u5730\u8cea\u8abf\u67fb(\u305d\u306e1)\u696d\u52d9","client_name":"\u56fd\u571f\u4ea4\u901a\u7701\u4e5d\u5dde\u5730\u65b9\u6574\u5099\u5c40\u9577\u5d0e\u6cb3\u5ddd\u56fd\u9053\u4e8b\u52d9\u6240","boring_xml_url":40,"boring_view_url":1,"soilmap_view_url":null,"soiltest_xml_url":0,"soiltest_view_url":0},{"id":215923,"code":"B4KJ201801010-4172","latitude":"33.1536856","longitude":"129.7302683","source_code":"QS49295588020","project_name":"","survey_name":"\u4f50\u4e16\u4fdd\u5730\u533a\u5730\u8cea\u8abf\u67fb(\u305d\u306e1)\u696d\u52d9","client_name":"\u56fd\u571f\u4ea4\u901a\u7701\u4e5d\u5dde\u5730\u65b9\u6574\u5099\u5c40\u9577\u5d0e\u6cb3\u5ddd\u56fd\u9053\u4e8b\u52d9\u6240","boring_xml_url":40,"boring_view_url":1,"soilmap_view_url":null,"soiltest_xml_url":0,"soiltest_view_url":0},{"id":215922,"code":"B4KJ201801010-4171","latitude":"33.1534633","longitude":"129.7300461","source_code":"QS49295588019","project_name":"","survey_name":"\u4f50\u4e16\u4fdd\u5730\u533a\u5730\u8cea\u8abf\u67fb(\u305d\u306e1)\u696d\u52d9","client_name":"\u56fd\u571f\u4ea4\u901a\u7701\u4e5d\u5dde\u5730\u65b9\u6574\u5099\u5c40\u9577\u5d0e\u6cb3\u5ddd\u56fd\u9053\u4e8b\u52d9\u6240","boring_xml_url":40,"boring_view_url":1,"soilmap_view_url":null,"soiltest_xml_url":0,"soiltest_view_url":0},{"id":215921,"code":"B4KJ201801010-4170","latitude":"33.1591294","longitude":"129.7282961","source_code":"QS49295588009","project_name":"","survey_name":"\u5e73\u62109\u5e74\u5ea6\u4f50\u4e16\u4fdd\u9053\u8def4\u5de5\u533a\u5730\u8cea\u8abf\u67fb\u696d\u52d9","client_name":"\u56fd\u571f\u4ea4\u901a\u7701\u4e5d\u5dde\u5730\u65b9\u6574\u5099\u5c40\u9577\u5d0e\u6cb3\u5ddd\u56fd\u9053\u4e8b\u52d9\u6240","boring_xml_url":40,"boring_view_url":1,"soilmap_view_url":null,"soiltest_xml_url":0,"soiltest_view_url":0},{"id":215920,"code":"B4KJ201801010-4169","latitude":"33.1577406","longitude":"129.7291294","source_code":"QS49295588008","project_name":"","survey_name":"\u5e73\u62109\u5e74\u5ea6\u4f50\u4e16\u4fdd\u9053\u8def4\u5de5\u533a\u5730\u8cea\u8abf\u67fb\u696d\u52d9","client_name":"\u56fd\u571f\u4ea4\u901a\u7701\u4e5d\u5dde\u5730\u65b9\u6574\u5099\u5c40\u9577\u5d0e\u6cb3\u5ddd\u56fd\u9053\u4e8b\u52d9\u6240","boring_xml_url":40,"boring_view_url":1,"soilmap_view_url":null,"soiltest_xml_url":0,"soiltest_view_url":0},{"id":215919,"code":"B4KJ201801010-4168","latitude":"33.1569075","longitude":"129.7294072","source_code":"QS49295588007","project_name":"","survey_name":"\u5e73\u62109\u5e74\u5ea6\u4f50\u4e16\u4fdd\u9053\u8def4\u5de5\u533a\u5730\u8cea\u8abf\u67fb\u696d\u52d9","client_name":"\u56fd\u571f\u4ea4\u901a\u7701\u4e5d\u5dde\u5730\u65b9\u6574\u5099\u5c40\u9577\u5d0e\u6cb3\u5ddd\u56fd\u9053\u4e8b\u52d9\u6240","boring_xml_url":40,"boring_view_url":1,"soilmap_view_url":null,"soiltest_xml_url":0,"soiltest_view_url":0},{"id":215918,"code":"B4KJ201801010-4167","latitude":"33.1552408","longitude":"129.7288519","source_code":"QS49295588006","project_name":"","survey_name":"\u5e73\u62109\u5e74\u5ea6\u4f50\u4e16\u4fdd\u9053\u8def4\u5de5\u533a\u5730\u8cea\u8abf\u67fb\u696d\u52d9","client_name":"\u56fd\u571f\u4ea4\u901a\u7701\u4e5d\u5dde\u5730\u65b9\u6574\u5099\u5c40\u9577\u5d0e\u6cb3\u5ddd\u56fd\u9053\u4e8b\u52d9\u6240","boring_xml_url":40,"boring_view_url":1,"soilmap_view_url":null,"soiltest_xml_url":0,"soiltest_view_url":0},{"id":215917,"code":"B4KJ201801010-4166","latitude":"33.1536022","longitude":"129.729935","source_code":"QS49295588003","project_name":"","survey_name":"\u5927\u9ed2\u5730\u533a\u6cd5\u9762\u691c\u8a0e\u5916\u4e00\u9023\u696d\u52d9\u59d4\u8a17","client_name":"\u56fd\u571f\u4ea4\u901a\u7701\u4e5d\u5dde\u5730\u65b9\u6574\u5099\u5c40\u9577\u5d0e\u6cb3\u5ddd\u56fd\u9053\u4e8b\u52d9\u6240","boring_xml_url":40,"boring_view_url":1,"soilmap_view_url":null,"soiltest_xml_url":0,"soiltest_view_url":0},{"id":215916,"code":"B4KJ201801010-4165","latitude":"33.1534633","longitude":"129.7301572","source_code":"QS49295588002","project_name":"","survey_name":"\u5927\u9ed2\u5730\u533a\u6cd5\u9762\u691c\u8a0e\u5916\u4e00\u9023\u696d\u52d9\u59d4\u8a17","client_name":"\u56fd\u571f\u4ea4\u901a\u7701\u4e5d\u5dde\u5730\u65b9\u6574\u5099\u5c40\u9577\u5d0e\u6cb3\u5ddd\u56fd\u9053\u4e8b\u52d9\u6240","boring_xml_url":40,"boring_view_url":1,"soilmap_view_url":null,"soiltest_xml_url":0,"soiltest_view_url":0},{"id":215915,"code":"B4KJ201801010-4164","latitude":"33.1533522","longitude":"129.730185","source_code":"QS49295588001","project_name":"","survey_name":"\u5927\u9ed2\u5730\u533a\u6cd5\u9762\u691c\u8a0e\u5916\u4e00\u9023\u696d\u52d9\u59d4\u8a17","client_name":"\u56fd\u571f\u4ea4\u901a\u7701\u4e5d\u5dde\u5730\u65b9\u6574\u5099\u5c40\u9577\u5d0e\u6cb3\u5ddd\u56fd\u9053\u4e8b\u52d9\u6240","boring_xml_url":40,"boring_view_url":1,"soilmap_view_url":null,"soiltest_xml_url":0,"soiltest_view_url":0},{"id":215914,"code":"B4KJ201801010-4163","latitude":"33.151075","longitude":"129.7474614","source_code":"QS49295579025","project_name":"","survey_name":"\u6c96\u65b0\u9ad8\u67b6\u6a4b\u8f09\u8377\u8a66\u9a13\u89e3\u6790\u696d\u52d9\u59d4\u8a17","client_name":"\u56fd\u571f\u4ea4\u901a\u7701\u4e5d\u5dde\u5730\u65b9\u6574\u5099\u5c40\u9577\u5d0e\u6cb3\u5ddd\u56fd\u9053\u4e8b\u52d9\u6240","boring_xml_url":40,"boring_view_url":1,"soilmap_view_url":null,"soiltest_xml_url":0,"soiltest_view_url":0},{"id":215913,"code":"B4KJ201801010-4162","latitude":"33.151075","longitude":"129.7474614","source_code":"QS49295579024","project_name":"","survey_name":"\u6c96\u65b0\u9ad8\u67b6\u6a4b\u8f09\u8377\u8a66\u9a13\u89e3\u6790\u696d\u52d9\u59d4\u8a17","client_name":"\u56fd\u571f\u4ea4\u901a\u7701\u4e5d\u5dde\u5730\u65b9\u6574\u5099\u5c40\u9577\u5d0e\u6cb3\u5ddd\u56fd\u9053\u4e8b\u52d9\u6240","boring_xml_url":40,"boring_view_url":1,"soilmap_view_url":null,"soiltest_xml_url":0,"soiltest_view_url":0},{"id":215912,"code":"B4KJ201801010-4161","latitude":"33.151075","longitude":"129.7474614","source_code":"QS49295579023","project_name":"","survey_name":"\u6c96\u65b0\u9ad8\u67b6\u6a4b\u8f09\u8377\u8a66\u9a13\u89e3\u6790\u696d\u52d9\u59d4\u8a17","client_name":"\u56fd\u571f\u4ea4\u901a\u7701\u4e5d\u5dde\u5730\u65b9\u6574\u5099\u5c40\u9577\u5d0e\u6cb3\u5ddd\u56fd\u9053\u4e8b\u52d9\u6240","boring_xml_url":40,"boring_view_url":1,"soilmap_view_url":null,"soiltest_xml_url":0,"soiltest_view_url":0},{"id":215911,"code":"B4KJ201801010-4160","latitude":"33.1507694","longitude":"129.7462669","source_code":"QS49295579022","project_name":"","survey_name":"\u6c96\u65b0\u5730\u533a\u5730\u8cea\u8abf\u67fb\u696d\u52d9","client_name":"\u56fd\u571f\u4ea4\u901a\u7701\u4e5d\u5dde\u5730\u65b9\u6574\u5099\u5c40\u9577\u5d0e\u6cb3\u5ddd\u56fd\u9053\u4e8b\u52d9\u6240","boring_xml_url":40,"boring_view_url":1,"soilmap_view_url":null,"soiltest_xml_url":0,"soiltest_view_url":0},{"id":215910,"code":"B4KJ201801010-4159","latitude":"33.1506028","longitude":"129.7464058","source_code":"QS49295579021","project_name":"","survey_name":"\u6c96\u65b0\u5730\u533a\u5730\u8cea\u8abf\u67fb\u696d\u52d9","client_name":"\u56fd\u571f\u4ea4\u901a\u7701\u4e5d\u5dde\u5730\u65b9\u6574\u5099\u5c40\u9577\u5d0e\u6cb3\u5ddd\u56fd\u9053\u4e8b\u52d9\u6240","boring_xml_url":40,"boring_view_url":1,"soilmap_view_url":null,"soiltest_xml_url":0,"soiltest_view_url":0},{"id":215909,"code":"B4KJ201801010-4158","latitude":"33.1506583","longitude":"129.7469336","source_code":"QS49295579020","project_name":"","survey_name":"\u6c96\u65b0\u5730\u533a\u5730\u8cea\u8abf\u67fb\u696d\u52d9","client_name":"\u56fd\u571f\u4ea4\u901a\u7701\u4e5d\u5dde\u5730\u65b9\u6574\u5099\u5c40\u9577\u5d0e\u6cb3\u5ddd\u56fd\u9053\u4e8b\u52d9\u6240","boring_xml_url":40,"boring_view_url":1,"soilmap_view_url":null,"soiltest_xml_url":0,"soiltest_view_url":0},{"id":215908,"code":"B4KJ201801010-4157","latitude":"33.1506583","longitude":"129.7472114","source_code":"QS49295579019","project_name":"","survey_name":"\u6c96\u65b0\u5730\u533a\u5730\u8cea\u8abf\u67fb\u696d\u52d9","client_name":"\u56fd\u571f\u4ea4\u901a\u7701\u4e5d\u5dde\u5730\u65b9\u6574\u5099\u5c40\u9577\u5d0e\u6cb3\u5ddd\u56fd\u9053\u4e8b\u52d9\u6240","boring_xml_url":40,"boring_view_url":1,"soilmap_view_url":null,"soiltest_xml_url":0,"soiltest_view_url":0},{"id":215907,"code":"B4KJ201801010-4156","latitude":"33.1503806","longitude":"129.745045","source_code":"QS49295579018","project_name":"","survey_name":"\u6c96\u65b0\u5730\u533a\u5730\u8cea\u8abf\u67fb\u696d\u52d9","client_name":"\u56fd\u571f\u4ea4\u901a\u7701\u4e5d\u5dde\u5730\u65b9\u6574\u5099\u5c40\u9577\u5d0e\u6cb3\u5ddd\u56fd\u9053\u4e8b\u52d9\u6240","boring_xml_url":40,"boring_view_url":1,"soilmap_view_url":null,"soiltest_xml_url":0,"soiltest_view_url":0},{"id":215906,"code":"B4KJ201801010-4155","latitude":"33.1507139","longitude":"129.745045","source_code":"QS49295579017","project_name":"","survey_name":"\u6c96\u65b0\u5730\u533a\u5730\u8cea\u8abf\u67fb\u696d\u52d9","client_name":"\u56fd\u571f\u4ea4\u901a\u7701\u4e5d\u5dde\u5730\u65b9\u6574\u5099\u5c40\u9577\u5d0e\u6cb3\u5ddd\u56fd\u9053\u4e8b\u52d9\u6240","boring_xml_url":40,"boring_view_url":1,"soilmap_view_url":null,"soiltest_xml_url":0,"soiltest_view_url":0}]}}