{"header":{"xyz":{"source":[],"mosaic":false},"page":349,"raw":{"soiltest_result":"0","bbox":"57.598333,109.544722,1.933333,163.806111","page":"349"},"conditions":{"soiltest_result":0,"north":57.598333,"west":109.544722,"south":1.933333,"east":163.806111},"success":true,"message":""},"data":{"meta":{"total":212844,"page":349,"pages":7095,"count":30},"values":[{"id":557751,"code":"NGIC202202980-0003","latitude":"42.584715305556","longitude":"142.14325252778","source_code":"","project_name":"\u9d61\u5ddd\u6c99\u6d41\u5ddd\u6d41\u57df\u5730\u8cea\u8abf\u67fb\u696d\u52d9","survey_name":"\u9d61\u5ddd\u6c99\u6d41\u5ddd\u6d41\u57df\u5730\u8cea\u8abf\u67fb\u696d\u52d9","client_name":"\u56fd\u571f\u4ea4\u901a\u7701\u5317\u6d77\u9053\u958b\u767a\u5c40\u5ba4\u862d\u958b\u767a\u5efa\u8a2d\u90e8\u672c\u90e8","boring_xml_url":47,"boring_view_url":1,"soilmap_view_url":null,"soiltest_xml_url":47,"soiltest_view_url":47},{"id":557750,"code":"NGIC202202980-0002","latitude":"42.584574","longitude":"142.14385786111","source_code":"","project_name":"\u9d61\u5ddd\u6c99\u6d41\u5ddd\u6d41\u57df\u5730\u8cea\u8abf\u67fb\u696d\u52d9","survey_name":"\u9d61\u5ddd\u6c99\u6d41\u5ddd\u6d41\u57df\u5730\u8cea\u8abf\u67fb\u696d\u52d9","client_name":"\u56fd\u571f\u4ea4\u901a\u7701\u5317\u6d77\u9053\u958b\u767a\u5c40\u5ba4\u862d\u958b\u767a\u5efa\u8a2d\u90e8\u672c\u90e8","boring_xml_url":47,"boring_view_url":1,"soilmap_view_url":null,"soiltest_xml_url":47,"soiltest_view_url":47},{"id":557749,"code":"NGIC202202980-0001","latitude":"42.583662972222","longitude":"142.14407094444","source_code":"","project_name":"\u9d61\u5ddd\u6c99\u6d41\u5ddd\u6d41\u57df\u5730\u8cea\u8abf\u67fb\u696d\u52d9","survey_name":"\u9d61\u5ddd\u6c99\u6d41\u5ddd\u6d41\u57df\u5730\u8cea\u8abf\u67fb\u696d\u52d9","client_name":"\u56fd\u571f\u4ea4\u901a\u7701\u5317\u6d77\u9053\u958b\u767a\u5c40\u5ba4\u862d\u958b\u767a\u5efa\u8a2d\u90e8\u672c\u90e8","boring_xml_url":47,"boring_view_url":1,"soilmap_view_url":null,"soiltest_xml_url":47,"soiltest_view_url":47},{"id":557700,"code":"NGIC202202829-0010","latitude":"42.355543611111","longitude":"142.31978861111","source_code":"","project_name":"\u4e00\u822c\u56fd\u9053274\u53f7\u65e5\u9ad8\u753a\u5343\u6804\u5730\u8cea\u8abf\u67fb","survey_name":"\u4e00\u822c\u56fd\u9053274\u53f7\u65e5\u9ad8\u753a\u5343\u6804\u5730\u8cea\u8abf\u67fb\u5916\u4e00\u9023\u696d\u52d9","client_name":"\u56fd\u571f\u4ea4\u901a\u7701\u5317\u6d77\u9053\u958b\u767a\u5c40\u5ba4\u862d\u958b\u767a\u5efa\u8a2d\u90e8\u82eb\u5c0f\u7267\u9053\u8def\u4e8b\u52d9\u6240","boring_xml_url":47,"boring_view_url":1,"soilmap_view_url":null,"soiltest_xml_url":47,"soiltest_view_url":47},{"id":557699,"code":"NGIC202202829-0009","latitude":"42.355966666667","longitude":"142.31900222222","source_code":"","project_name":"\u4e00\u822c\u56fd\u9053274\u53f7\u65e5\u9ad8\u753a\u5343\u6804\u5730\u8cea\u8abf\u67fb","survey_name":"\u4e00\u822c\u56fd\u9053274\u53f7\u65e5\u9ad8\u753a\u5343\u6804\u5730\u8cea\u8abf\u67fb\u5916\u4e00\u9023\u696d\u52d9","client_name":"\u56fd\u571f\u4ea4\u901a\u7701\u5317\u6d77\u9053\u958b\u767a\u5c40\u5ba4\u862d\u958b\u767a\u5efa\u8a2d\u90e8\u82eb\u5c0f\u7267\u9053\u8def\u4e8b\u52d9\u6240","boring_xml_url":47,"boring_view_url":1,"soilmap_view_url":null,"soiltest_xml_url":47,"soiltest_view_url":47},{"id":557698,"code":"NGIC202202829-0008","latitude":"42.356876944444","longitude":"142.31793805556","source_code":"","project_name":"\u4e00\u822c\u56fd\u9053274\u53f7\u65e5\u9ad8\u753a\u5343\u6804\u5730\u8cea\u8abf\u67fb","survey_name":"\u4e00\u822c\u56fd\u9053274\u53f7\u65e5\u9ad8\u753a\u5343\u6804\u5730\u8cea\u8abf\u67fb\u5916\u4e00\u9023\u696d\u52d9","client_name":"\u56fd\u571f\u4ea4\u901a\u7701\u5317\u6d77\u9053\u958b\u767a\u5c40\u5ba4\u862d\u958b\u767a\u5efa\u8a2d\u90e8\u82eb\u5c0f\u7267\u9053\u8def\u4e8b\u52d9\u6240","boring_xml_url":47,"boring_view_url":1,"soilmap_view_url":null,"soiltest_xml_url":47,"soiltest_view_url":47},{"id":557697,"code":"NGIC202202829-0007","latitude":"42.355549444444","longitude":"142.31977888889","source_code":"","project_name":"\u4e00\u822c\u56fd\u9053274\u53f7\u65e5\u9ad8\u753a\u5343\u6804\u5730\u8cea\u8abf\u67fb","survey_name":"\u4e00\u822c\u56fd\u9053274\u53f7\u65e5\u9ad8\u753a\u5343\u6804\u5730\u8cea\u8abf\u67fb\u5916\u4e00\u9023\u696d\u52d9","client_name":"\u56fd\u571f\u4ea4\u901a\u7701\u5317\u6d77\u9053\u958b\u767a\u5c40\u5ba4\u862d\u958b\u767a\u5efa\u8a2d\u90e8\u82eb\u5c0f\u7267\u9053\u8def\u4e8b\u52d9\u6240","boring_xml_url":47,"boring_view_url":1,"soilmap_view_url":null,"soiltest_xml_url":47,"soiltest_view_url":47},{"id":557696,"code":"NGIC202202829-0006","latitude":"42.355972222222","longitude":"142.3189925","source_code":"","project_name":"\u4e00\u822c\u56fd\u9053274\u53f7\u65e5\u9ad8\u753a\u5343\u6804\u5730\u8cea\u8abf\u67fb","survey_name":"\u4e00\u822c\u56fd\u9053274\u53f7\u65e5\u9ad8\u753a\u5343\u6804\u5730\u8cea\u8abf\u67fb\u5916\u4e00\u9023\u696d\u52d9","client_name":"\u56fd\u571f\u4ea4\u901a\u7701\u5317\u6d77\u9053\u958b\u767a\u5c40\u5ba4\u862d\u958b\u767a\u5efa\u8a2d\u90e8\u82eb\u5c0f\u7267\u9053\u8def\u4e8b\u52d9\u6240","boring_xml_url":47,"boring_view_url":1,"soilmap_view_url":null,"soiltest_xml_url":47,"soiltest_view_url":47},{"id":557695,"code":"NGIC202202829-0005","latitude":"42.356885","longitude":"142.31793166667","source_code":"","project_name":"\u4e00\u822c\u56fd\u9053274\u53f7\u65e5\u9ad8\u753a\u5343\u6804\u5730\u8cea\u8abf\u67fb","survey_name":"\u4e00\u822c\u56fd\u9053274\u53f7\u65e5\u9ad8\u753a\u5343\u6804\u5730\u8cea\u8abf\u67fb\u5916\u4e00\u9023\u696d\u52d9","client_name":"\u56fd\u571f\u4ea4\u901a\u7701\u5317\u6d77\u9053\u958b\u767a\u5c40\u5ba4\u862d\u958b\u767a\u5efa\u8a2d\u90e8\u82eb\u5c0f\u7267\u9053\u8def\u4e8b\u52d9\u6240","boring_xml_url":47,"boring_view_url":1,"soilmap_view_url":null,"soiltest_xml_url":47,"soiltest_view_url":47},{"id":557694,"code":"NGIC202202829-0004","latitude":"42.894025833333","longitude":"142.55317916667","source_code":"","project_name":"\u4e00\u822c\u56fd\u9053274\u53f7\u65e5\u9ad8\u753a\u5343\u6804\u5730\u8cea\u8abf\u67fb","survey_name":"\u4e00\u822c\u56fd\u9053274\u53f7\u65e5\u9ad8\u753a\u5343\u6804\u5730\u8cea\u8abf\u67fb\u5916\u4e00\u9023\u696d\u52d9","client_name":"\u56fd\u571f\u4ea4\u901a\u7701\u5317\u6d77\u9053\u958b\u767a\u5c40\u5ba4\u862d\u958b\u767a\u5efa\u8a2d\u90e8\u82eb\u5c0f\u7267\u9053\u8def\u4e8b\u52d9\u6240","boring_xml_url":47,"boring_view_url":1,"soilmap_view_url":null,"soiltest_xml_url":0,"soiltest_view_url":0},{"id":557693,"code":"NGIC202202829-0003","latitude":"42.894221944444","longitude":"142.55241277778","source_code":"","project_name":"\u4e00\u822c\u56fd\u9053274\u53f7\u65e5\u9ad8\u753a\u5343\u6804\u5730\u8cea\u8abf\u67fb","survey_name":"\u4e00\u822c\u56fd\u9053274\u53f7\u65e5\u9ad8\u753a\u5343\u6804\u5730\u8cea\u8abf\u67fb\u5916\u4e00\u9023\u696d\u52d9","client_name":"\u56fd\u571f\u4ea4\u901a\u7701\u5317\u6d77\u9053\u958b\u767a\u5c40\u5ba4\u862d\u958b\u767a\u5efa\u8a2d\u90e8\u82eb\u5c0f\u7267\u9053\u8def\u4e8b\u52d9\u6240","boring_xml_url":47,"boring_view_url":1,"soilmap_view_url":null,"soiltest_xml_url":0,"soiltest_view_url":0},{"id":557692,"code":"NGIC202202829-0002","latitude":"42.893608888889","longitude":"142.55164027778","source_code":"","project_name":"\u4e00\u822c\u56fd\u9053274\u53f7\u65e5\u9ad8\u753a\u5343\u6804\u5730\u8cea\u8abf\u67fb","survey_name":"\u4e00\u822c\u56fd\u9053274\u53f7\u65e5\u9ad8\u753a\u5343\u6804\u5730\u8cea\u8abf\u67fb\u5916\u4e00\u9023\u696d\u52d9","client_name":"\u56fd\u571f\u4ea4\u901a\u7701\u5317\u6d77\u9053\u958b\u767a\u5c40\u5ba4\u862d\u958b\u767a\u5efa\u8a2d\u90e8\u82eb\u5c0f\u7267\u9053\u8def\u4e8b\u52d9\u6240","boring_xml_url":47,"boring_view_url":1,"soilmap_view_url":null,"soiltest_xml_url":0,"soiltest_view_url":0},{"id":557691,"code":"NGIC202202829-0001","latitude":"42.893480277778","longitude":"142.55272638889","source_code":"","project_name":"\u4e00\u822c\u56fd\u9053274\u53f7\u65e5\u9ad8\u753a\u5343\u6804\u5730\u8cea\u8abf\u67fb","survey_name":"\u4e00\u822c\u56fd\u9053274\u53f7\u65e5\u9ad8\u753a\u5343\u6804\u5730\u8cea\u8abf\u67fb\u5916\u4e00\u9023\u696d\u52d9","client_name":"\u56fd\u571f\u4ea4\u901a\u7701\u5317\u6d77\u9053\u958b\u767a\u5c40\u5ba4\u862d\u958b\u767a\u5efa\u8a2d\u90e8\u82eb\u5c0f\u7267\u9053\u8def\u4e8b\u52d9\u6240","boring_xml_url":47,"boring_view_url":1,"soilmap_view_url":null,"soiltest_xml_url":0,"soiltest_view_url":0},{"id":557660,"code":"NGIC202202775-0015","latitude":"34.467318583333","longitude":"131.44736413889","source_code":"","project_name":"\u4e00\u822c\u56fd\u9053191\u53f7 \u5927\u4e95\u30fb\u8429\u9053\u8def\u4e8b\u696d","survey_name":"\u4ee4\u548c3\u5e74\u5ea6 \u5927\u4e95\u30fb\u8429\u9053\u8def\u5927\u4e95\u5730\u533a\u5916\u5730\u8cea\u8abf\u67fb\u305d\u306e2\u696d\u52d9","client_name":"\u56fd\u571f\u4ea4\u901a\u7701\u4e2d\u56fd\u5730\u65b9\u6574\u5099\u5c40\u5c71\u9670\u897f\u90e8\u56fd\u9053\u4e8b\u52d9\u6240","boring_xml_url":47,"boring_view_url":1,"soilmap_view_url":null,"soiltest_xml_url":47,"soiltest_view_url":47},{"id":557659,"code":"NGIC202202775-0014","latitude":"34.469151388889","longitude":"131.4475885","source_code":"","project_name":"\u4e00\u822c\u56fd\u9053191\u53f7 \u5927\u4e95\u30fb\u8429\u9053\u8def\u4e8b\u696d","survey_name":"\u4ee4\u548c3\u5e74\u5ea6 \u5927\u4e95\u30fb\u8429\u9053\u8def\u5927\u4e95\u5730\u533a\u5916\u5730\u8cea\u8abf\u67fb\u305d\u306e2\u696d\u52d9","client_name":"\u56fd\u571f\u4ea4\u901a\u7701\u4e2d\u56fd\u5730\u65b9\u6574\u5099\u5c40\u5c71\u9670\u897f\u90e8\u56fd\u9053\u4e8b\u52d9\u6240","boring_xml_url":47,"boring_view_url":1,"soilmap_view_url":null,"soiltest_xml_url":47,"soiltest_view_url":47},{"id":557658,"code":"NGIC202202775-0013","latitude":"34.468266194444","longitude":"131.44740005556","source_code":"","project_name":"\u4e00\u822c\u56fd\u9053191\u53f7 \u5927\u4e95\u30fb\u8429\u9053\u8def\u4e8b\u696d","survey_name":"\u4ee4\u548c3\u5e74\u5ea6 \u5927\u4e95\u30fb\u8429\u9053\u8def\u5927\u4e95\u5730\u533a\u5916\u5730\u8cea\u8abf\u67fb\u305d\u306e2\u696d\u52d9","client_name":"\u56fd\u571f\u4ea4\u901a\u7701\u4e2d\u56fd\u5730\u65b9\u6574\u5099\u5c40\u5c71\u9670\u897f\u90e8\u56fd\u9053\u4e8b\u52d9\u6240","boring_xml_url":47,"boring_view_url":1,"soilmap_view_url":null,"soiltest_xml_url":47,"soiltest_view_url":47},{"id":557657,"code":"NGIC202202775-0012","latitude":"34.467478583333","longitude":"131.44729519444","source_code":"","project_name":"\u4e00\u822c\u56fd\u9053191\u53f7 \u5927\u4e95\u30fb\u8429\u9053\u8def\u4e8b\u696d","survey_name":"\u4ee4\u548c3\u5e74\u5ea6 \u5927\u4e95\u30fb\u8429\u9053\u8def\u5927\u4e95\u5730\u533a\u5916\u5730\u8cea\u8abf\u67fb\u305d\u306e2\u696d\u52d9","client_name":"\u56fd\u571f\u4ea4\u901a\u7701\u4e2d\u56fd\u5730\u65b9\u6574\u5099\u5c40\u5c71\u9670\u897f\u90e8\u56fd\u9053\u4e8b\u52d9\u6240","boring_xml_url":47,"boring_view_url":1,"soilmap_view_url":null,"soiltest_xml_url":47,"soiltest_view_url":47},{"id":557656,"code":"NGIC202202775-0011","latitude":"34.468877888889","longitude":"131.44810002778","source_code":"","project_name":"\u4e00\u822c\u56fd\u9053191\u53f7 \u5927\u4e95\u30fb\u8429\u9053\u8def\u4e8b\u696d","survey_name":"\u4ee4\u548c3\u5e74\u5ea6 \u5927\u4e95\u30fb\u8429\u9053\u8def\u5927\u4e95\u5730\u533a\u5916\u5730\u8cea\u8abf\u67fb\u305d\u306e2\u696d\u52d9","client_name":"\u56fd\u571f\u4ea4\u901a\u7701\u4e2d\u56fd\u5730\u65b9\u6574\u5099\u5c40\u5c71\u9670\u897f\u90e8\u56fd\u9053\u4e8b\u52d9\u6240","boring_xml_url":47,"boring_view_url":1,"soilmap_view_url":null,"soiltest_xml_url":47,"soiltest_view_url":47},{"id":557655,"code":"NGIC202202775-0010","latitude":"34.467929222222","longitude":"131.44770463889","source_code":"","project_name":"\u4e00\u822c\u56fd\u9053191\u53f7 \u5927\u4e95\u30fb\u8429\u9053\u8def\u4e8b\u696d","survey_name":"\u4ee4\u548c3\u5e74\u5ea6 \u5927\u4e95\u30fb\u8429\u9053\u8def\u5927\u4e95\u5730\u533a\u5916\u5730\u8cea\u8abf\u67fb\u305d\u306e2\u696d\u52d9","client_name":"\u56fd\u571f\u4ea4\u901a\u7701\u4e2d\u56fd\u5730\u65b9\u6574\u5099\u5c40\u5c71\u9670\u897f\u90e8\u56fd\u9053\u4e8b\u52d9\u6240","boring_xml_url":47,"boring_view_url":1,"soilmap_view_url":null,"soiltest_xml_url":47,"soiltest_view_url":47},{"id":557654,"code":"NGIC202202775-0009","latitude":"34.467454277778","longitude":"131.44753841667","source_code":"","project_name":"\u4e00\u822c\u56fd\u9053191\u53f7 \u5927\u4e95\u30fb\u8429\u9053\u8def\u4e8b\u696d","survey_name":"\u4ee4\u548c3\u5e74\u5ea6 \u5927\u4e95\u30fb\u8429\u9053\u8def\u5927\u4e95\u5730\u533a\u5916\u5730\u8cea\u8abf\u67fb\u305d\u306e2\u696d\u52d9","client_name":"\u56fd\u571f\u4ea4\u901a\u7701\u4e2d\u56fd\u5730\u65b9\u6574\u5099\u5c40\u5c71\u9670\u897f\u90e8\u56fd\u9053\u4e8b\u52d9\u6240","boring_xml_url":47,"boring_view_url":1,"soilmap_view_url":null,"soiltest_xml_url":0,"soiltest_view_url":0},{"id":557653,"code":"NGIC202202775-0008","latitude":"34.462479333333","longitude":"131.44639338889","source_code":"","project_name":"\u4e00\u822c\u56fd\u9053191\u53f7 \u5927\u4e95\u30fb\u8429\u9053\u8def\u4e8b\u696d","survey_name":"\u4ee4\u548c3\u5e74\u5ea6 \u5927\u4e95\u30fb\u8429\u9053\u8def\u5927\u4e95\u5730\u533a\u5916\u5730\u8cea\u8abf\u67fb\u305d\u306e2\u696d\u52d9","client_name":"\u56fd\u571f\u4ea4\u901a\u7701\u4e2d\u56fd\u5730\u65b9\u6574\u5099\u5c40\u5c71\u9670\u897f\u90e8\u56fd\u9053\u4e8b\u52d9\u6240","boring_xml_url":47,"boring_view_url":1,"soilmap_view_url":null,"soiltest_xml_url":47,"soiltest_view_url":47},{"id":557652,"code":"NGIC202202775-0007","latitude":"34.461989305556","longitude":"131.44629133333","source_code":"","project_name":"\u4e00\u822c\u56fd\u9053191\u53f7 \u5927\u4e95\u30fb\u8429\u9053\u8def\u4e8b\u696d","survey_name":"\u4ee4\u548c3\u5e74\u5ea6 \u5927\u4e95\u30fb\u8429\u9053\u8def\u5927\u4e95\u5730\u533a\u5916\u5730\u8cea\u8abf\u67fb\u305d\u306e2\u696d\u52d9","client_name":"\u56fd\u571f\u4ea4\u901a\u7701\u4e2d\u56fd\u5730\u65b9\u6574\u5099\u5c40\u5c71\u9670\u897f\u90e8\u56fd\u9053\u4e8b\u52d9\u6240","boring_xml_url":47,"boring_view_url":1,"soilmap_view_url":null,"soiltest_xml_url":47,"soiltest_view_url":47},{"id":557651,"code":"NGIC202202775-0006","latitude":"34.461568055556","longitude":"131.44608986111","source_code":"","project_name":"\u4e00\u822c\u56fd\u9053191\u53f7 \u5927\u4e95\u30fb\u8429\u9053\u8def\u4e8b\u696d","survey_name":"\u4ee4\u548c3\u5e74\u5ea6 \u5927\u4e95\u30fb\u8429\u9053\u8def\u5927\u4e95\u5730\u533a\u5916\u5730\u8cea\u8abf\u67fb\u305d\u306e2\u696d\u52d9","client_name":"\u56fd\u571f\u4ea4\u901a\u7701\u4e2d\u56fd\u5730\u65b9\u6574\u5099\u5c40\u5c71\u9670\u897f\u90e8\u56fd\u9053\u4e8b\u52d9\u6240","boring_xml_url":47,"boring_view_url":1,"soilmap_view_url":null,"soiltest_xml_url":47,"soiltest_view_url":47},{"id":557650,"code":"NGIC202202775-0005","latitude":"34.46093825","longitude":"131.44601330556","source_code":"","project_name":"\u4e00\u822c\u56fd\u9053191\u53f7 \u5927\u4e95\u30fb\u8429\u9053\u8def\u4e8b\u696d","survey_name":"\u4ee4\u548c3\u5e74\u5ea6 \u5927\u4e95\u30fb\u8429\u9053\u8def\u5927\u4e95\u5730\u533a\u5916\u5730\u8cea\u8abf\u67fb\u305d\u306e2\u696d\u52d9","client_name":"\u56fd\u571f\u4ea4\u901a\u7701\u4e2d\u56fd\u5730\u65b9\u6574\u5099\u5c40\u5c71\u9670\u897f\u90e8\u56fd\u9053\u4e8b\u52d9\u6240","boring_xml_url":47,"boring_view_url":1,"soilmap_view_url":null,"soiltest_xml_url":47,"soiltest_view_url":47},{"id":557649,"code":"NGIC202202775-0004","latitude":"34.460421666667","longitude":"131.44567238889","source_code":"","project_name":"\u4e00\u822c\u56fd\u9053191\u53f7 \u5927\u4e95\u30fb\u8429\u9053\u8def\u4e8b\u696d","survey_name":"\u4ee4\u548c3\u5e74\u5ea6 \u5927\u4e95\u30fb\u8429\u9053\u8def\u5927\u4e95\u5730\u533a\u5916\u5730\u8cea\u8abf\u67fb\u305d\u306e2\u696d\u52d9","client_name":"\u56fd\u571f\u4ea4\u901a\u7701\u4e2d\u56fd\u5730\u65b9\u6574\u5099\u5c40\u5c71\u9670\u897f\u90e8\u56fd\u9053\u4e8b\u52d9\u6240","boring_xml_url":47,"boring_view_url":1,"soilmap_view_url":null,"soiltest_xml_url":47,"soiltest_view_url":47},{"id":557648,"code":"NGIC202202775-0003","latitude":"34.459355138889","longitude":"131.4452475","source_code":"","project_name":"\u4e00\u822c\u56fd\u9053191\u53f7 \u5927\u4e95\u30fb\u8429\u9053\u8def\u4e8b\u696d","survey_name":"\u4ee4\u548c3\u5e74\u5ea6 \u5927\u4e95\u30fb\u8429\u9053\u8def\u5927\u4e95\u5730\u533a\u5916\u5730\u8cea\u8abf\u67fb\u305d\u306e2\u696d\u52d9","client_name":"\u56fd\u571f\u4ea4\u901a\u7701\u4e2d\u56fd\u5730\u65b9\u6574\u5099\u5c40\u5c71\u9670\u897f\u90e8\u56fd\u9053\u4e8b\u52d9\u6240","boring_xml_url":47,"boring_view_url":1,"soilmap_view_url":null,"soiltest_xml_url":47,"soiltest_view_url":47},{"id":557647,"code":"NGIC202202775-0002","latitude":"34.458696222222","longitude":"131.44504219444","source_code":"","project_name":"\u4e00\u822c\u56fd\u9053191\u53f7 \u5927\u4e95\u30fb\u8429\u9053\u8def\u4e8b\u696d","survey_name":"\u4ee4\u548c3\u5e74\u5ea6 \u5927\u4e95\u30fb\u8429\u9053\u8def\u5927\u4e95\u5730\u533a\u5916\u5730\u8cea\u8abf\u67fb\u305d\u306e2\u696d\u52d9","client_name":"\u56fd\u571f\u4ea4\u901a\u7701\u4e2d\u56fd\u5730\u65b9\u6574\u5099\u5c40\u5c71\u9670\u897f\u90e8\u56fd\u9053\u4e8b\u52d9\u6240","boring_xml_url":47,"boring_view_url":1,"soilmap_view_url":null,"soiltest_xml_url":47,"soiltest_view_url":47},{"id":557646,"code":"NGIC202202775-0001","latitude":"34.458000166667","longitude":"131.44479597222","source_code":"","project_name":"\u4e00\u822c\u56fd\u9053191\u53f7 \u5927\u4e95\u30fb\u8429\u9053\u8def\u4e8b\u696d","survey_name":"\u4ee4\u548c3\u5e74\u5ea6 \u5927\u4e95\u30fb\u8429\u9053\u8def\u5927\u4e95\u5730\u533a\u5916\u5730\u8cea\u8abf\u67fb\u305d\u306e2\u696d\u52d9","client_name":"\u56fd\u571f\u4ea4\u901a\u7701\u4e2d\u56fd\u5730\u65b9\u6574\u5099\u5c40\u5c71\u9670\u897f\u90e8\u56fd\u9053\u4e8b\u52d9\u6240","boring_xml_url":47,"boring_view_url":1,"soilmap_view_url":null,"soiltest_xml_url":47,"soiltest_view_url":47},{"id":557643,"code":"NGIC202202766-0015","latitude":"35.369619444444","longitude":"133.76182527778","source_code":"","project_name":"","survey_name":"\u4ee4\u548c3\u5e74\u5ea6\u5929\u795e\u5ddd\u5927\u6cb3\u539f2\u53f7\u7802\u9632\u5830\u5824\u5730\u8cea\u8abf\u67fb\u696d\u52d9","client_name":"\u56fd\u571f\u4ea4\u901a\u7701\u4e2d\u56fd\u5730\u65b9\u6574\u5099\u5c40\u5009\u5409\u6cb3\u5ddd\u56fd\u9053\u4e8b\u52d9\u6240\u5de5\u52d9\u7b2c\u4e00\u8ab2","boring_xml_url":47,"boring_view_url":1,"soilmap_view_url":null,"soiltest_xml_url":0,"soiltest_view_url":0},{"id":557642,"code":"NGIC202202766-0014","latitude":"35.372074444444","longitude":"133.76605722222","source_code":"","project_name":"","survey_name":"\u4ee4\u548c3\u5e74\u5ea6\u5929\u795e\u5ddd\u5927\u6cb3\u539f2\u53f7\u7802\u9632\u5830\u5824\u5730\u8cea\u8abf\u67fb\u696d\u52d9","client_name":"\u56fd\u571f\u4ea4\u901a\u7701\u4e2d\u56fd\u5730\u65b9\u6574\u5099\u5c40\u5009\u5409\u6cb3\u5ddd\u56fd\u9053\u4e8b\u52d9\u6240\u5de5\u52d9\u7b2c\u4e00\u8ab2","boring_xml_url":47,"boring_view_url":1,"soilmap_view_url":null,"soiltest_xml_url":0,"soiltest_view_url":0}]}}