{"header":{"xyz":{"source":[],"mosaic":false},"page":3495,"raw":{"soiltest_result":"0","bbox":"57.598333,109.544722,1.933333,163.806111","page":"3495"},"conditions":{"soiltest_result":0,"north":57.598333,"west":109.544722,"south":1.933333,"east":163.806111},"success":true,"message":""},"data":{"meta":{"total":212844,"page":3495,"pages":7095,"count":30},"values":[{"id":215725,"code":"B4KJ201801010-3974","latitude":"32.7572619","longitude":"129.9139008","source_code":"QS49291703063","project_name":"","survey_name":"\u9577\u5d0e34\u53f7\u65e5\u898b\u30d0\u30a4\u30d1\u30b9\u672c\u6cb3\u51851\u53f7\u6a4b\u5730\u8cea\u8abf\u67fb\u696d\u52d9","client_name":"\u56fd\u571f\u4ea4\u901a\u7701\u4e5d\u5dde\u5730\u65b9\u6574\u5099\u5c40\u9577\u5d0e\u6cb3\u5ddd\u56fd\u9053\u4e8b\u52d9\u6240","boring_xml_url":40,"boring_view_url":1,"soilmap_view_url":null,"soiltest_xml_url":0,"soiltest_view_url":0},{"id":215724,"code":"B4KJ201801010-3973","latitude":"32.7575675","longitude":"129.9147342","source_code":"QS49291703054","project_name":"","survey_name":"\u9577\u5d0e34\u53f7\u65e5\u898b\u30d0\u30a4\u30d1\u30b9\u5965\u5c71\u5730\u5207\u571f\u306e\u308a\u9762\u5730\u8cea\u8abf\u67fb\u304a\u3088\u3073\u89e3\u6790\u696d\u52d9","client_name":"\u56fd\u571f\u4ea4\u901a\u7701\u4e5d\u5dde\u5730\u65b9\u6574\u5099\u5c40\u9577\u5d0e\u6cb3\u5ddd\u56fd\u9053\u4e8b\u52d9\u6240","boring_xml_url":40,"boring_view_url":1,"soilmap_view_url":null,"soiltest_xml_url":0,"soiltest_view_url":0},{"id":215723,"code":"B4KJ201801010-3972","latitude":"32.7580119","longitude":"129.9147342","source_code":"QS49291703053","project_name":"","survey_name":"\u9577\u5d0e34\u53f7\u65e5\u898b\u30d0\u30a4\u30d1\u30b9\u5965\u5c71\u5730\u5207\u571f\u306e\u308a\u9762\u5730\u8cea\u8abf\u67fb\u304a\u3088\u3073\u89e3\u6790\u696d\u52d9","client_name":"\u56fd\u571f\u4ea4\u901a\u7701\u4e5d\u5dde\u5730\u65b9\u6574\u5099\u5c40\u9577\u5d0e\u6cb3\u5ddd\u56fd\u9053\u4e8b\u52d9\u6240","boring_xml_url":40,"boring_view_url":1,"soilmap_view_url":null,"soiltest_xml_url":0,"soiltest_view_url":0},{"id":215722,"code":"B4KJ201801010-3971","latitude":"32.7577897","longitude":"129.9155672","source_code":"QS49291703052","project_name":"","survey_name":"\u9577\u5d0e34\u53f7\u65e5\u898b\u30d0\u30a4\u30d1\u30b9\u5965\u5c71\u5730\u5207\u571f\u306e\u308a\u9762\u5730\u8cea\u8abf\u67fb\u304a\u3088\u3073\u89e3\u6790\u696d\u52d9","client_name":"\u56fd\u571f\u4ea4\u901a\u7701\u4e5d\u5dde\u5730\u65b9\u6574\u5099\u5c40\u9577\u5d0e\u6cb3\u5ddd\u56fd\u9053\u4e8b\u52d9\u6240","boring_xml_url":40,"boring_view_url":1,"soilmap_view_url":null,"soiltest_xml_url":0,"soiltest_view_url":0},{"id":215721,"code":"B4KJ201801010-3970","latitude":"32.7578731","longitude":"129.9153728","source_code":"QS49291703051","project_name":"","survey_name":"\u9577\u5d0e34\u53f7\u65e5\u898b\u30d0\u30a4\u30d1\u30b9\u5965\u5c71\u5730\u5207\u571f\u306e\u308a\u9762\u5730\u8cea\u8abf\u67fb\u304a\u3088\u3073\u89e3\u6790\u696d\u52d9","client_name":"\u56fd\u571f\u4ea4\u901a\u7701\u4e5d\u5dde\u5730\u65b9\u6574\u5099\u5c40\u9577\u5d0e\u6cb3\u5ddd\u56fd\u9053\u4e8b\u52d9\u6240","boring_xml_url":40,"boring_view_url":1,"soilmap_view_url":null,"soiltest_xml_url":0,"soiltest_view_url":0},{"id":215720,"code":"B4KJ201801010-3969","latitude":"32.7580119","longitude":"129.9151506","source_code":"QS49291703050","project_name":"","survey_name":"\u9577\u5d0e34\u53f7\u65e5\u898b\u30d0\u30a4\u30d1\u30b9\u5965\u5c71\u5730\u5207\u571f\u306e\u308a\u9762\u5730\u8cea\u8abf\u67fb\u304a\u3088\u3073\u89e3\u6790\u696d\u52d9","client_name":"\u56fd\u571f\u4ea4\u901a\u7701\u4e5d\u5dde\u5730\u65b9\u6574\u5099\u5c40\u9577\u5d0e\u6cb3\u5ddd\u56fd\u9053\u4e8b\u52d9\u6240","boring_xml_url":40,"boring_view_url":1,"soilmap_view_url":null,"soiltest_xml_url":0,"soiltest_view_url":0},{"id":215719,"code":"B4KJ201801010-3968","latitude":"32.7582339","longitude":"129.9156783","source_code":"QS49291703049","project_name":"","survey_name":"\u9577\u5d0e34\u53f7\u65e5\u898b\u30d0\u30a4\u30d1\u30b9\u5965\u5c71\u5730\u5207\u571f\u306e\u308a\u9762\u5730\u8cea\u8abf\u67fb\u304a\u3088\u3073\u89e3\u6790\u696d\u52d9","client_name":"\u56fd\u571f\u4ea4\u901a\u7701\u4e5d\u5dde\u5730\u65b9\u6574\u5099\u5c40\u9577\u5d0e\u6cb3\u5ddd\u56fd\u9053\u4e8b\u52d9\u6240","boring_xml_url":40,"boring_view_url":1,"soilmap_view_url":null,"soiltest_xml_url":0,"soiltest_view_url":0},{"id":215718,"code":"B4KJ201801010-3967","latitude":"32.7583728","longitude":"129.9154283","source_code":"QS49291703048","project_name":"","survey_name":"\u9577\u5d0e34\u53f7\u65e5\u898b\u30d0\u30a4\u30d1\u30b9\u5965\u5c71\u5730\u5207\u571f\u306e\u308a\u9762\u5730\u8cea\u8abf\u67fb\u304a\u3088\u3073\u89e3\u6790\u696d\u52d9","client_name":"\u56fd\u571f\u4ea4\u901a\u7701\u4e5d\u5dde\u5730\u65b9\u6574\u5099\u5c40\u9577\u5d0e\u6cb3\u5ddd\u56fd\u9053\u4e8b\u52d9\u6240","boring_xml_url":40,"boring_view_url":1,"soilmap_view_url":null,"soiltest_xml_url":0,"soiltest_view_url":0},{"id":215717,"code":"B4KJ201801010-3966","latitude":"32.7583172","longitude":"129.9160117","source_code":"QS49291703047","project_name":"","survey_name":"\u9577\u5d0e34\u53f7\u65e5\u898b\u30d0\u30a4\u30d1\u30b9\u5965\u5c71\u5730\u5207\u571f\u306e\u308a\u9762\u5730\u8cea\u8abf\u67fb\u304a\u3088\u3073\u89e3\u6298\u696d\u52d9","client_name":"\u56fd\u571f\u4ea4\u901a\u7701\u4e5d\u5dde\u5730\u65b9\u6574\u5099\u5c40\u9577\u5d0e\u6cb3\u5ddd\u56fd\u9053\u4e8b\u52d9\u6240","boring_xml_url":40,"boring_view_url":1,"soilmap_view_url":null,"soiltest_xml_url":0,"soiltest_view_url":0},{"id":215716,"code":"B4KJ201801010-3965","latitude":"32.7585394","longitude":"129.9157894","source_code":"QS49291703046","project_name":"","survey_name":"\u9577\u5d0e34\u53f7\u65e5\u898b\u30d0\u30a4\u30d1\u30b9\u5965\u5c71\u5730\u5207\u571f\u306e\u308a\u9762\u5730\u8cea\u8abf\u67fb\u304a\u3088\u3073\u89e3\u6298\u696d\u52d9","client_name":"\u56fd\u571f\u4ea4\u901a\u7701\u4e5d\u5dde\u5730\u65b9\u6574\u5099\u5c40\u9577\u5d0e\u6cb3\u5ddd\u56fd\u9053\u4e8b\u52d9\u6240","boring_xml_url":40,"boring_view_url":1,"soilmap_view_url":null,"soiltest_xml_url":0,"soiltest_view_url":0},{"id":215715,"code":"B4KJ201801010-3964","latitude":"32.7585394","longitude":"129.9161506","source_code":"QS49291703045","project_name":"","survey_name":"\u9577\u5d0e34\u53f7\u65e5\u898b\u30d0\u30a4\u30d1\u30b9\u5965\u5c71\u5730\u5207\u571f\u306e\u308a\u9762\u5730\u8cea\u8abf\u67fb\u304a\u3088\u3073\u89e3\u6298\u696d\u52d9","client_name":"\u56fd\u571f\u4ea4\u901a\u7701\u4e5d\u5dde\u5730\u65b9\u6574\u5099\u5c40\u9577\u5d0e\u6cb3\u5ddd\u56fd\u9053\u4e8b\u52d9\u6240","boring_xml_url":40,"boring_view_url":1,"soilmap_view_url":null,"soiltest_xml_url":0,"soiltest_view_url":0},{"id":215714,"code":"B4KJ201801010-3963","latitude":"32.7580672","longitude":"129.9144008","source_code":"QS49291703033","project_name":"","survey_name":"\u9577\u5d0e34\u53f7\u65e5\u898b\u30d0\u30a4\u30d1\u30b9\u672c\u6cb3\u5185\u9ad8\u90e8\u8caf\u6c34\u6c60\u4ed8\u8fd1\u5730\u8cea\u8abf\u67fb\u696d\u52d9","client_name":"\u56fd\u571f\u4ea4\u901a\u7701\u4e5d\u5dde\u5730\u65b9\u6574\u5099\u5c40\u9577\u5d0e\u6cb3\u5ddd\u56fd\u9053\u4e8b\u52d9\u6240","boring_xml_url":40,"boring_view_url":1,"soilmap_view_url":null,"soiltest_xml_url":0,"soiltest_view_url":0},{"id":215713,"code":"B4KJ201801010-3962","latitude":"32.7575119","longitude":"129.9144008","source_code":"QS49291703032","project_name":"","survey_name":"\u9577\u5d0e34\u53f7\u65e5\u898b\u30d0\u30a4\u30d1\u30b9\u672c\u6cb3\u5185\u9ad8\u90e8\u8caf\u6c34\u6c60\u4ed8\u8fd1\u5730\u8cea\u8abf\u67fb\u696d\u52d9","client_name":"\u56fd\u571f\u4ea4\u901a\u7701\u4e5d\u5dde\u5730\u65b9\u6574\u5099\u5c40\u9577\u5d0e\u6cb3\u5ddd\u56fd\u9053\u4e8b\u52d9\u6240","boring_xml_url":40,"boring_view_url":1,"soilmap_view_url":null,"soiltest_xml_url":0,"soiltest_view_url":0},{"id":215712,"code":"B4KJ201801010-3961","latitude":"32.7577897","longitude":"129.9141231","source_code":"QS49291703031","project_name":"","survey_name":"\u9577\u5d0e34\u53f7\u65e5\u898b\u30d0\u30a4\u30d1\u30b9\u672c\u6cb3\u5185\u9ad8\u90e8\u8caf\u6c34\u6c60\u4ed8\u8fd1\u5730\u8cea\u8abf\u67fb\u696d\u52d9","client_name":"\u56fd\u571f\u4ea4\u901a\u7701\u4e5d\u5dde\u5730\u65b9\u6574\u5099\u5c40\u9577\u5d0e\u6cb3\u5ddd\u56fd\u9053\u4e8b\u52d9\u6240","boring_xml_url":40,"boring_view_url":1,"soilmap_view_url":null,"soiltest_xml_url":0,"soiltest_view_url":0},{"id":215711,"code":"B4KJ201801010-3960","latitude":"32.7566786","longitude":"129.9119011","source_code":"QS49291703030","project_name":"","survey_name":"\u9577\u5d0e34\u53f7\u65e5\u898b\u30d0\u30a4\u30d1\u30b9\u672c\u6cb3\u5185\u9ad8\u90e8\u8caf\u6c34\u6c60\u4ed8\u8fd1\u5730\u8cea\u8abf\u67fb\u696d\u52d9","client_name":"\u56fd\u571f\u4ea4\u901a\u7701\u4e5d\u5dde\u5730\u65b9\u6574\u5099\u5c40\u9577\u5d0e\u6cb3\u5ddd\u56fd\u9053\u4e8b\u52d9\u6240","boring_xml_url":40,"boring_view_url":1,"soilmap_view_url":null,"soiltest_xml_url":0,"soiltest_view_url":0},{"id":215710,"code":"B4KJ201801010-3959","latitude":"32.7566786","longitude":"129.9127342","source_code":"QS49291703029","project_name":"","survey_name":"\u9577\u5d0e34\u53f7\u65e5\u898b\u30d0\u30a4\u30d1\u30b9\u672c\u6cb3\u5185\u9ad8\u90e8\u8caf\u6c34\u6c60\u4ed8\u8fd1\u5730\u8cea\u8abf\u67fb\u696d\u52d9","client_name":"\u56fd\u571f\u4ea4\u901a\u7701\u4e5d\u5dde\u5730\u65b9\u6574\u5099\u5c40\u9577\u5d0e\u6cb3\u5ddd\u56fd\u9053\u4e8b\u52d9\u6240","boring_xml_url":40,"boring_view_url":1,"soilmap_view_url":null,"soiltest_xml_url":0,"soiltest_view_url":0},{"id":215709,"code":"B4KJ201801010-3958","latitude":"32.7566786","longitude":"129.9127342","source_code":"QS49291703028","project_name":"","survey_name":"\u9577\u5d0e34\u53f7\u65e5\u898b\u30d0\u30a4\u30d1\u30b9\u672c\u6cb3\u5185\u9ad8\u90e8\u8caf\u6c34\u6c60\u4ed8\u8fd1\u5730\u8cea\u8abf\u67fb\u696d\u52d9","client_name":"\u56fd\u571f\u4ea4\u901a\u7701\u4e5d\u5dde\u5730\u65b9\u6574\u5099\u5c40\u9577\u5d0e\u6cb3\u5ddd\u56fd\u9053\u4e8b\u52d9\u6240","boring_xml_url":40,"boring_view_url":1,"soilmap_view_url":null,"soiltest_xml_url":0,"soiltest_view_url":0},{"id":215708,"code":"B4KJ201801010-3957","latitude":"32.7566786","longitude":"129.9132897","source_code":"QS49291703027","project_name":"","survey_name":"\u9577\u5d0e34\u53f7\u65e5\u898b\u30d0\u30a4\u30d1\u30b9\u672c\u6cb3\u5185\u9ad8\u90e8\u8caf\u6c34\u6c60\u4ed8\u8fd1\u5730\u8cea\u8abf\u67fb\u696d\u52d9","client_name":"\u56fd\u571f\u4ea4\u901a\u7701\u4e5d\u5dde\u5730\u65b9\u6574\u5099\u5c40\u9577\u5d0e\u6cb3\u5ddd\u56fd\u9053\u4e8b\u52d9\u6240","boring_xml_url":40,"boring_view_url":1,"soilmap_view_url":null,"soiltest_xml_url":0,"soiltest_view_url":0},{"id":215707,"code":"B4KJ201801010-3956","latitude":"32.7569564","longitude":"129.9138453","source_code":"QS49291703026","project_name":"","survey_name":"\u9577\u5d0e34\u53f7\u65e5\u898b\u30d0\u30a4\u30d1\u30b9\u672c\u6cb3\u5185\u9ad8\u90e8\u8caf\u6c34\u6c60\u4ed8\u8fd1\u5730\u8cea\u8abf\u67fb\u696d\u52d9","client_name":"\u56fd\u571f\u4ea4\u901a\u7701\u4e5d\u5dde\u5730\u65b9\u6574\u5099\u5c40\u9577\u5d0e\u6cb3\u5ddd\u56fd\u9053\u4e8b\u52d9\u6240","boring_xml_url":40,"boring_view_url":1,"soilmap_view_url":null,"soiltest_xml_url":0,"soiltest_view_url":0},{"id":215706,"code":"B4KJ201801010-3955","latitude":"32.7572342","longitude":"129.9141231","source_code":"QS49291703025","project_name":"","survey_name":"\u9577\u5d0e34\u53f7\u65e5\u898b\u30d0\u30a4\u30d1\u30b9\u672c\u6cb3\u5185\u9ad8\u90e8\u8caf\u6c34\u6c60\u4ed8\u8fd1\u5730\u8cea\u8abf\u67fb\u696d\u52d9","client_name":"\u56fd\u571f\u4ea4\u901a\u7701\u4e5d\u5dde\u5730\u65b9\u6574\u5099\u5c40\u9577\u5d0e\u6cb3\u5ddd\u56fd\u9053\u4e8b\u52d9\u6240","boring_xml_url":40,"boring_view_url":1,"soilmap_view_url":null,"soiltest_xml_url":0,"soiltest_view_url":0},{"id":215705,"code":"B4KJ201801010-3954","latitude":"32.7575119","longitude":"129.9164839","source_code":"QS49291703024","project_name":"","survey_name":"\u9577\u5d0e34\u53f7\u65e5\u898b\u30d0\u30a4\u30d1\u30b9\u672c\u6cb3\u5185\u9ad8\u90e8\u8caf\u6c34\u6c60\u4ed8\u8fd1\u5730\u8cea\u8abf\u67fb\u696d\u52d9","client_name":"\u56fd\u571f\u4ea4\u901a\u7701\u4e5d\u5dde\u5730\u65b9\u6574\u5099\u5c40\u9577\u5d0e\u6cb3\u5ddd\u56fd\u9053\u4e8b\u52d9\u6240","boring_xml_url":40,"boring_view_url":1,"soilmap_view_url":null,"soiltest_xml_url":0,"soiltest_view_url":0},{"id":215704,"code":"B4KJ201801010-3953","latitude":"32.7569564","longitude":"129.9127342","source_code":"QS49291703023","project_name":"","survey_name":"\u9577\u5d0e34\u53f7\u65e5\u898b\u30d0\u30a4\u30d1\u30b9\u672c\u6cb3\u5185\u9ad8\u90e8\u8caf\u6c34\u6c60\u4ed8\u8fd1\u5730\u8cea\u8abf\u67fb\u696d\u52d9","client_name":"\u56fd\u571f\u4ea4\u901a\u7701\u4e5d\u5dde\u5730\u65b9\u6574\u5099\u5c40\u9577\u5d0e\u6cb3\u5ddd\u56fd\u9053\u4e8b\u52d9\u6240","boring_xml_url":40,"boring_view_url":1,"soilmap_view_url":null,"soiltest_xml_url":0,"soiltest_view_url":0},{"id":215703,"code":"B4KJ201801010-3952","latitude":"32.7569564","longitude":"129.9132897","source_code":"QS49291703022","project_name":"","survey_name":"\u9577\u5d0e34\u53f7\u65e5\u898b\u30d0\u30a4\u30d1\u30b9\u672c\u6cb3\u5185\u9ad8\u90e8\u8caf\u6c34\u6c60\u4ed8\u8fd1\u5730\u8cea\u8abf\u67fb\u696d\u52d9","client_name":"\u56fd\u571f\u4ea4\u901a\u7701\u4e5d\u5dde\u5730\u65b9\u6574\u5099\u5c40\u9577\u5d0e\u6cb3\u5ddd\u56fd\u9053\u4e8b\u52d9\u6240","boring_xml_url":40,"boring_view_url":1,"soilmap_view_url":null,"soiltest_xml_url":0,"soiltest_view_url":0},{"id":215702,"code":"B4KJ201801010-3951","latitude":"32.7572342","longitude":"129.9135675","source_code":"QS49291703021","project_name":"","survey_name":"\u9577\u5d0e34\u53f7\u65e5\u898b\u30d0\u30a4\u30d1\u30b9\u672c\u6cb3\u5185\u9ad8\u90e8\u8caf\u6c34\u6c60\u4ed8\u8fd1\u5730\u8cea\u8abf\u67fb\u696d\u52d9","client_name":"\u56fd\u571f\u4ea4\u901a\u7701\u4e5d\u5dde\u5730\u65b9\u6574\u5099\u5c40\u9577\u5d0e\u6cb3\u5ddd\u56fd\u9053\u4e8b\u52d9\u6240","boring_xml_url":40,"boring_view_url":1,"soilmap_view_url":null,"soiltest_xml_url":0,"soiltest_view_url":0},{"id":215701,"code":"B4KJ201801010-3950","latitude":"32.7558175","longitude":"129.9131508","source_code":"QS49291703019","project_name":"","survey_name":"\u65e5\u898bB.P.\u5965\u5c71\u5730\u533a\u5730\u8cea\u8abf\u67fb(\u305d\u306e1)\u696d\u52d9","client_name":"\u56fd\u571f\u4ea4\u901a\u7701\u4e5d\u5dde\u5730\u65b9\u6574\u5099\u5c40\u9577\u5d0e\u6cb3\u5ddd\u56fd\u9053\u4e8b\u52d9\u6240","boring_xml_url":40,"boring_view_url":1,"soilmap_view_url":null,"soiltest_xml_url":0,"soiltest_view_url":0},{"id":215700,"code":"B4KJ201801010-3949","latitude":"32.7563731","longitude":"129.9132897","source_code":"QS49291703018","project_name":"","survey_name":"\u65e5\u898bB.P.\u5965\u5c71\u5730\u533a\u5730\u8cea\u8abf\u67fb(\u305d\u306e1)\u696d\u52d9","client_name":"\u56fd\u571f\u4ea4\u901a\u7701\u4e5d\u5dde\u5730\u65b9\u6574\u5099\u5c40\u9577\u5d0e\u6cb3\u5ddd\u56fd\u9053\u4e8b\u52d9\u6240","boring_xml_url":40,"boring_view_url":1,"soilmap_view_url":null,"soiltest_xml_url":0,"soiltest_view_url":0},{"id":215699,"code":"B4KJ201801010-3948","latitude":"32.7566786","longitude":"129.9133453","source_code":"QS49291703017","project_name":"","survey_name":"\u65e5\u898bB.P.\u5965\u5c71\u5730\u533a\u5730\u8cea\u8abf\u67fb(\u305d\u306e1)\u696d\u52d9","client_name":"\u56fd\u571f\u4ea4\u901a\u7701\u4e5d\u5dde\u5730\u65b9\u6574\u5099\u5c40\u9577\u5d0e\u6cb3\u5ddd\u56fd\u9053\u4e8b\u52d9\u6240","boring_xml_url":40,"boring_view_url":1,"soilmap_view_url":null,"soiltest_xml_url":0,"soiltest_view_url":0},{"id":215698,"code":"B4KJ201801010-3947","latitude":"32.7583175","longitude":"129.9168172","source_code":"QS49291703016","project_name":"","survey_name":"\u9577\u5d0e34\u53f7\u65e5\u898b\u30d0\u30a4\u30d1\u30b9\u5965\u5c71\u5730\u533a\u6c34\u6587\u8abf\u67fb\u696d\u52d9","client_name":"\u56fd\u571f\u4ea4\u901a\u7701\u4e5d\u5dde\u5730\u65b9\u6574\u5099\u5c40\u9577\u5d0e\u6cb3\u5ddd\u56fd\u9053\u4e8b\u52d9\u6240","boring_xml_url":40,"boring_view_url":1,"soilmap_view_url":null,"soiltest_xml_url":0,"soiltest_view_url":0},{"id":215697,"code":"B4KJ201801010-3946","latitude":"32.7589839","longitude":"129.9184281","source_code":"QS49291703015","project_name":"","survey_name":"\u9577\u5d0e34\u53f7\u65e5\u898b\u30d0\u30a4\u30d1\u30b9\u5965\u5c71\u5730\u533a\u6c34\u6587\u8abf\u67fb\u696d\u52d9","client_name":"\u56fd\u571f\u4ea4\u901a\u7701\u4e5d\u5dde\u5730\u65b9\u6574\u5099\u5c40\u9577\u5d0e\u6cb3\u5ddd\u56fd\u9053\u4e8b\u52d9\u6240","boring_xml_url":40,"boring_view_url":1,"soilmap_view_url":null,"soiltest_xml_url":0,"soiltest_view_url":0},{"id":215696,"code":"B4KJ201801010-3945","latitude":"32.7560397","longitude":"129.9127342","source_code":"QS49291703014","project_name":"","survey_name":"\u65e5\u898bB.P.\u5965\u5c71\u5730\u533a\u5730\u8cea\u8abf\u67fb(\u305d\u306e1)\u696d\u52d9","client_name":"\u56fd\u571f\u4ea4\u901a\u7701\u4e5d\u5dde\u5730\u65b9\u6574\u5099\u5c40\u9577\u5d0e\u6cb3\u5ddd\u56fd\u9053\u4e8b\u52d9\u6240","boring_xml_url":40,"boring_view_url":1,"soilmap_view_url":null,"soiltest_xml_url":0,"soiltest_view_url":0}]}}