{"header":{"xyz":{"source":[],"mosaic":false},"page":3513,"raw":{"soiltest_result":"0","bbox":"57.598333,109.544722,1.933333,163.806111","page":"3513"},"conditions":{"soiltest_result":0,"north":57.598333,"west":109.544722,"south":1.933333,"east":163.806111},"success":true,"message":""},"data":{"meta":{"total":212844,"page":3513,"pages":7095,"count":30},"values":[{"id":215185,"code":"B4KJ201801010-3434","latitude":"32.4787833","longitude":"130.8802658","source_code":"QS48305770005","project_name":"","survey_name":"\u4e94\u6728\u30c0\u30e0\u8caf\u6c34\u6c60\u5468\u8fba\u5730\u3059\u3079\u308a\u5730\u8cea\u8abf\u67fb(\u305d\u306e1)\u696d\u52d9","client_name":"\u56fd\u571f\u4ea4\u901a\u7701\u4e5d\u5dde\u5730\u65b9\u6574\u5099\u5c40\u5ddd\u8fba\u5ddd\u30c0\u30e0\u7802\u9632\u4e8b\u52d9\u6240","boring_xml_url":40,"boring_view_url":1,"soilmap_view_url":null,"soiltest_xml_url":0,"soiltest_view_url":0},{"id":215184,"code":"B4KJ201801010-3433","latitude":"32.4783947","longitude":"130.8839044","source_code":"QS48305770004","project_name":"","survey_name":"\u5e73\u621010\u5e74\u5ea6\u4e0b\u9db4\u5730\u533a\u9053\u8def\u5730\u8cea\u8abf\u67fb\u696d\u52d9","client_name":"\u56fd\u571f\u4ea4\u901a\u7701\u4e5d\u5dde\u5730\u65b9\u6574\u5099\u5c40\u5ddd\u8fba\u5ddd\u30c0\u30e0\u7802\u9632\u4e8b\u52d9\u6240","boring_xml_url":40,"boring_view_url":1,"soilmap_view_url":null,"soiltest_xml_url":0,"soiltest_view_url":0},{"id":215183,"code":"B4KJ201801010-3432","latitude":"32.4786167","longitude":"130.8825433","source_code":"QS48305770003","project_name":"","survey_name":"\u5e73\u621010\u5e74\u5ea6\u4e0b\u9db4\u5730\u533a\u9053\u8def\u5730\u8cea\u8abf\u67fb\u696d\u52d9","client_name":"\u56fd\u571f\u4ea4\u901a\u7701\u4e5d\u5dde\u5730\u65b9\u6574\u5099\u5c40\u5ddd\u8fba\u5ddd\u30c0\u30e0\u7802\u9632\u4e8b\u52d9\u6240","boring_xml_url":40,"boring_view_url":1,"soilmap_view_url":null,"soiltest_xml_url":0,"soiltest_view_url":0},{"id":215182,"code":"B4KJ201801010-3431","latitude":"32.4785892","longitude":"130.8848486","source_code":"QS48305770002","project_name":"","survey_name":"\u6e05\u6c34\u30c8\u30f3\u30cd\u30eb\u5730\u8cea\u8abf\u67fb\u696d\u52d9","client_name":"\u56fd\u571f\u4ea4\u901a\u7701\u4e5d\u5dde\u5730\u65b9\u6574\u5099\u5c40\u5ddd\u8fba\u5ddd\u30c0\u30e0\u7802\u9632\u4e8b\u52d9\u6240","boring_xml_url":40,"boring_view_url":1,"soilmap_view_url":null,"soiltest_xml_url":0,"soiltest_view_url":0},{"id":215181,"code":"B4KJ201801010-3430","latitude":"32.4785892","longitude":"130.8848486","source_code":"QS48305770001","project_name":"","survey_name":"\u6e05\u6c34\u30c8\u30f3\u30cd\u30eb\u5730\u8cea\u8abf\u67fb\u696d\u52d9","client_name":"\u56fd\u571f\u4ea4\u901a\u7701\u4e5d\u5dde\u5730\u65b9\u6574\u5099\u5c40\u5ddd\u8fba\u5ddd\u30c0\u30e0\u7802\u9632\u4e8b\u52d9\u6240","boring_xml_url":40,"boring_view_url":1,"soilmap_view_url":null,"soiltest_xml_url":0,"soiltest_view_url":0},{"id":215180,"code":"B4KJ201801010-3429","latitude":"32.4781447","longitude":"130.8875153","source_code":"QS48305761001","project_name":"","survey_name":"\u5e73\u621010\u5e74\u5ea6\u4e0b\u9db4\u5730\u533a\u9053\u8def\u5730\u8cea\u8abf\u67fb\u696d\u52d9","client_name":"\u56fd\u571f\u4ea4\u901a\u7701\u4e5d\u5dde\u5730\u65b9\u6574\u5099\u5c40\u5ddd\u8fba\u5ddd\u30c0\u30e0\u7802\u9632\u4e8b\u52d9\u6240","boring_xml_url":40,"boring_view_url":1,"soilmap_view_url":null,"soiltest_xml_url":0,"soiltest_view_url":0},{"id":215179,"code":"B4KJ201801010-3428","latitude":"32.4783392","longitude":"130.8845431","source_code":"QS48305760013","project_name":"","survey_name":"\u4e94\u6728\u30c0\u30e0\u8caf\u6c34\u6c60\u5468\u8fba\u5730\u3059\u3079\u308a\u5730\u8cea\u8abf\u67fb(\u305d\u306e1)\u696d\u52d9","client_name":"\u56fd\u571f\u4ea4\u901a\u7701\u4e5d\u5dde\u5730\u65b9\u6574\u5099\u5c40\u5ddd\u8fba\u5ddd\u30c0\u30e0\u7802\u9632\u4e8b\u52d9\u6240","boring_xml_url":40,"boring_view_url":1,"soilmap_view_url":null,"soiltest_xml_url":0,"soiltest_view_url":0},{"id":215178,"code":"B4KJ201801010-3427","latitude":"32.4780892","longitude":"130.8844044","source_code":"QS48305760012","project_name":"","survey_name":"\u4e94\u6728\u30c0\u30e0\u8caf\u6c34\u6c60\u5468\u8fba\u5730\u3059\u3079\u308a\u5730\u8cea\u8abf\u67fb(\u305d\u306e1)\u696d\u52d9","client_name":"\u56fd\u571f\u4ea4\u901a\u7701\u4e5d\u5dde\u5730\u65b9\u6574\u5099\u5c40\u5ddd\u8fba\u5ddd\u30c0\u30e0\u7802\u9632\u4e8b\u52d9\u6240","boring_xml_url":40,"boring_view_url":1,"soilmap_view_url":null,"soiltest_xml_url":0,"soiltest_view_url":0},{"id":215177,"code":"B4KJ201801010-3426","latitude":"32.4776447","longitude":"130.8839878","source_code":"QS48305760011","project_name":"","survey_name":"\u4e94\u6728\u30c0\u30e0\u8caf\u6c34\u6c60\u5468\u8fba\u5730\u3059\u3079\u308a\u5730\u8cea\u8abf\u67fb(\u305d\u306e1)\u696d\u52d9","client_name":"\u56fd\u571f\u4ea4\u901a\u7701\u4e5d\u5dde\u5730\u65b9\u6574\u5099\u5c40\u5ddd\u8fba\u5ddd\u30c0\u30e0\u7802\u9632\u4e8b\u52d9\u6240","boring_xml_url":40,"boring_view_url":1,"soilmap_view_url":null,"soiltest_xml_url":0,"soiltest_view_url":0},{"id":215176,"code":"B4KJ201801010-3425","latitude":"32.4766725","longitude":"130.8809881","source_code":"QS48305760010","project_name":"","survey_name":"\u4e94\u6728\u30c0\u30e0\u8caf\u6c34\u6c60\u5730\u3059\u3079\u308a\u5730\u8cea\u8abf\u67fb","client_name":"\u56fd\u571f\u4ea4\u901a\u7701\u4e5d\u5dde\u5730\u65b9\u6574\u5099\u5c40\u5ddd\u8fba\u5ddd\u30c0\u30e0\u7802\u9632\u4e8b\u52d9\u6240","boring_xml_url":40,"boring_view_url":1,"soilmap_view_url":null,"soiltest_xml_url":0,"soiltest_view_url":0},{"id":215175,"code":"B4KJ201801010-3424","latitude":"32.4768947","longitude":"130.8805714","source_code":"QS48305760009","project_name":"","survey_name":"\u4e94\u6728\u30c0\u30e0\u8caf\u6c34\u6c60\u5730\u3059\u3079\u308a\u5730\u8cea\u8abf\u67fb","client_name":"\u56fd\u571f\u4ea4\u901a\u7701\u4e5d\u5dde\u5730\u65b9\u6574\u5099\u5c40\u5ddd\u8fba\u5ddd\u30c0\u30e0\u7802\u9632\u4e8b\u52d9\u6240","boring_xml_url":40,"boring_view_url":1,"soilmap_view_url":null,"soiltest_xml_url":0,"soiltest_view_url":0},{"id":215174,"code":"B4KJ201801010-3423","latitude":"32.4770058","longitude":"130.8802103","source_code":"QS48305760008","project_name":"","survey_name":"\u4e94\u6728\u30c0\u30e0\u8caf\u6c34\u6c60\u5730\u3059\u3079\u308a\u5730\u8cea\u8abf\u67fb","client_name":"\u56fd\u571f\u4ea4\u901a\u7701\u4e5d\u5dde\u5730\u65b9\u6574\u5099\u5c40\u5ddd\u8fba\u5ddd\u30c0\u30e0\u7802\u9632\u4e8b\u52d9\u6240","boring_xml_url":40,"boring_view_url":1,"soilmap_view_url":null,"soiltest_xml_url":0,"soiltest_view_url":0},{"id":215173,"code":"B4KJ201801010-3422","latitude":"32.4781169","longitude":"130.8826544","source_code":"QS48305760007","project_name":"","survey_name":"\u7b2c1.2\u6cc9\u6a4b\u5730\u8cea\u8abf\u67fb\u696d\u52d9","client_name":"\u56fd\u571f\u4ea4\u901a\u7701\u4e5d\u5dde\u5730\u65b9\u6574\u5099\u5c40\u5ddd\u8fba\u5ddd\u30c0\u30e0\u7802\u9632\u4e8b\u52d9\u6240","boring_xml_url":40,"boring_view_url":1,"soilmap_view_url":null,"soiltest_xml_url":0,"soiltest_view_url":0},{"id":215172,"code":"B4KJ201801010-3421","latitude":"32.4781169","longitude":"130.8826544","source_code":"QS48305760006","project_name":"","survey_name":"\u7b2c1.2\u6cc9\u6a4b\u5730\u8cea\u8abf\u67fb\u696d\u52d9","client_name":"\u56fd\u571f\u4ea4\u901a\u7701\u4e5d\u5dde\u5730\u65b9\u6574\u5099\u5c40\u5ddd\u8fba\u5ddd\u30c0\u30e0\u7802\u9632\u4e8b\u52d9\u6240","boring_xml_url":40,"boring_view_url":1,"soilmap_view_url":null,"soiltest_xml_url":0,"soiltest_view_url":0},{"id":215171,"code":"B4KJ201801010-3420","latitude":"32.4781169","longitude":"130.8826544","source_code":"QS48305760005","project_name":"","survey_name":"\u7b2c1.2\u6cc9\u6a4b\u5730\u8cea\u8abf\u67fb\u696d\u52d9","client_name":"\u56fd\u571f\u4ea4\u901a\u7701\u4e5d\u5dde\u5730\u65b9\u6574\u5099\u5c40\u5ddd\u8fba\u5ddd\u30c0\u30e0\u7802\u9632\u4e8b\u52d9\u6240","boring_xml_url":40,"boring_view_url":1,"soilmap_view_url":null,"soiltest_xml_url":0,"soiltest_view_url":0},{"id":215170,"code":"B4KJ201801010-3419","latitude":"32.4781169","longitude":"130.8826544","source_code":"QS48305760004","project_name":"","survey_name":"\u7b2c1.2\u6cc9\u6a4b\u5730\u8cea\u8abf\u67fb\u696d\u52d9","client_name":"\u56fd\u571f\u4ea4\u901a\u7701\u4e5d\u5dde\u5730\u65b9\u6574\u5099\u5c40\u5ddd\u8fba\u5ddd\u30c0\u30e0\u7802\u9632\u4e8b\u52d9\u6240","boring_xml_url":40,"boring_view_url":1,"soilmap_view_url":null,"soiltest_xml_url":0,"soiltest_view_url":0},{"id":215169,"code":"B4KJ201801010-3418","latitude":"32.4708953","longitude":"130.8749331","source_code":"QS48305760003","project_name":"","survey_name":"\u4e0a\u8352\u5730\u6a4b\u5730\u8cea\u8abf\u67fb\u696d\u52d9","client_name":"\u56fd\u571f\u4ea4\u901a\u7701\u4e5d\u5dde\u5730\u65b9\u6574\u5099\u5c40\u5ddd\u8fba\u5ddd\u30c0\u30e0\u7802\u9632\u4e8b\u52d9\u6240","boring_xml_url":40,"boring_view_url":1,"soilmap_view_url":null,"soiltest_xml_url":0,"soiltest_view_url":0},{"id":215168,"code":"B4KJ201801010-3417","latitude":"32.4706175","longitude":"130.8750442","source_code":"QS48305760002","project_name":"","survey_name":"\u4e0a\u8352\u5730\u6a4b\u5730\u8cea\u8abf\u67fb\u696d\u52d9","client_name":"\u56fd\u571f\u4ea4\u901a\u7701\u4e5d\u5dde\u5730\u65b9\u6574\u5099\u5c40\u5ddd\u8fba\u5ddd\u30c0\u30e0\u7802\u9632\u4e8b\u52d9\u6240","boring_xml_url":40,"boring_view_url":1,"soilmap_view_url":null,"soiltest_xml_url":0,"soiltest_view_url":0},{"id":215167,"code":"B4KJ201801010-3416","latitude":"32.4702008","longitude":"130.8750442","source_code":"QS48305760001","project_name":"","survey_name":"\u4e0a\u8352\u5730\u6a4b\u5730\u8cea\u8abf\u67fb\u696d\u52d9","client_name":"\u56fd\u571f\u4ea4\u901a\u7701\u4e5d\u5dde\u5730\u65b9\u6574\u5099\u5c40\u5ddd\u8fba\u5ddd\u30c0\u30e0\u7802\u9632\u4e8b\u52d9\u6240","boring_xml_url":40,"boring_view_url":1,"soilmap_view_url":null,"soiltest_xml_url":0,"soiltest_view_url":0},{"id":215166,"code":"B4KJ201801010-3415","latitude":"32.4617297","longitude":"130.8726558","source_code":"QS48305750031","project_name":"","survey_name":"\u4e94\u6728\u30c0\u30e0\u539f\u77f3\u5c71\u5730\u8cea\u8abf\u67fb(\u305d\u306e4)\u696d\u52d9","client_name":"\u56fd\u571f\u4ea4\u901a\u7701\u4e5d\u5dde\u5730\u65b9\u6574\u5099\u5c40\u5ddd\u8fba\u5ddd\u30c0\u30e0\u7802\u9632\u4e8b\u52d9\u6240","boring_xml_url":40,"boring_view_url":1,"soilmap_view_url":null,"soiltest_xml_url":0,"soiltest_view_url":0},{"id":215165,"code":"B4KJ201801010-3414","latitude":"32.4680344","longitude":"130.87385","source_code":"QS48305750030","project_name":"","survey_name":"\u4e94\u6728\u30c0\u30e0\u4ed8\u66ff\u56fd\u9053\u4e0a\u8352\u5730\u6a4b\u571f\u7559\u5de5(P3.P4)\u5730\u8cea\u8abf\u67fb\u696d\u52d9","client_name":"\u56fd\u571f\u4ea4\u901a\u7701\u4e5d\u5dde\u5730\u65b9\u6574\u5099\u5c40\u5ddd\u8fba\u5ddd\u30c0\u30e0\u7802\u9632\u4e8b\u52d9\u6240","boring_xml_url":40,"boring_view_url":1,"soilmap_view_url":null,"soiltest_xml_url":0,"soiltest_view_url":0},{"id":215164,"code":"B4KJ201801010-3413","latitude":"32.46759","longitude":"130.8734889","source_code":"QS48305750029","project_name":"","survey_name":"\u4e94\u6728\u30c0\u30e0\u4ed8\u66ff\u56fd\u9053\u4e0a\u8352\u5730\u6a4b\u571f\u7559\u5de5(P3.P4)\u5730\u8cea\u8abf\u67fb\u696d\u52d9","client_name":"\u56fd\u571f\u4ea4\u901a\u7701\u4e5d\u5dde\u5730\u65b9\u6574\u5099\u5c40\u5ddd\u8fba\u5ddd\u30c0\u30e0\u7802\u9632\u4e8b\u52d9\u6240","boring_xml_url":40,"boring_view_url":1,"soilmap_view_url":null,"soiltest_xml_url":0,"soiltest_view_url":0},{"id":215163,"code":"B4KJ201801010-3412","latitude":"32.4639517","longitude":"130.8729336","source_code":"QS48305750028","project_name":"","survey_name":"\u4e94\u6728\u30c0\u30e0\u30b5\u30a4\u30c8\u5de6\u5cb8\u5730\u8cea\u8abf\u67fb(\u305d\u306e3)\u696d\u52d9","client_name":"\u56fd\u571f\u4ea4\u901a\u7701\u4e5d\u5dde\u5730\u65b9\u6574\u5099\u5c40\u5ddd\u8fba\u5ddd\u30c0\u30e0\u7802\u9632\u4e8b\u52d9\u6240","boring_xml_url":40,"boring_view_url":1,"soilmap_view_url":null,"soiltest_xml_url":0,"soiltest_view_url":0},{"id":215162,"code":"B4KJ201801010-3411","latitude":"32.4645072","longitude":"130.87335","source_code":"QS48305750027","project_name":"","survey_name":"\u4e94\u6728\u30c0\u30e0\u30b5\u30a4\u30c8\u5de6\u5cb8\u5730\u8cea\u8abf\u67fb(\u305d\u306e3)\u696d\u52d9","client_name":"\u56fd\u571f\u4ea4\u901a\u7701\u4e5d\u5dde\u5730\u65b9\u6574\u5099\u5c40\u5ddd\u8fba\u5ddd\u30c0\u30e0\u7802\u9632\u4e8b\u52d9\u6240","boring_xml_url":40,"boring_view_url":1,"soilmap_view_url":null,"soiltest_xml_url":0,"soiltest_view_url":0},{"id":215161,"code":"B4KJ201801010-3410","latitude":"32.4643683","longitude":"130.8731833","source_code":"QS48305750025","project_name":"","survey_name":"\u4e94\u6728\u30c0\u30e0\u30b5\u30a4\u30c8\u5730\u8cea\u8abf\u67fb\u696d\u52d9","client_name":"\u56fd\u571f\u4ea4\u901a\u7701\u4e5d\u5dde\u5730\u65b9\u6574\u5099\u5c40\u5ddd\u8fba\u5ddd\u30c0\u30e0\u7802\u9632\u4e8b\u52d9\u6240","boring_xml_url":40,"boring_view_url":1,"soilmap_view_url":null,"soiltest_xml_url":0,"soiltest_view_url":0},{"id":215160,"code":"B4KJ201801010-3409","latitude":"32.4647017","longitude":"130.8731556","source_code":"QS48305750024","project_name":"","survey_name":"\u4e94\u6728\u30c0\u30e0\u30b5\u30a4\u30c8\u5730\u8cea\u8abf\u67fb\u696d\u52d9","client_name":"\u56fd\u571f\u4ea4\u901a\u7701\u4e5d\u5dde\u5730\u65b9\u6574\u5099\u5c40\u5ddd\u8fba\u5ddd\u30c0\u30e0\u7802\u9632\u4e8b\u52d9\u6240","boring_xml_url":40,"boring_view_url":1,"soilmap_view_url":null,"soiltest_xml_url":0,"soiltest_view_url":0},{"id":215159,"code":"B4KJ201801010-3408","latitude":"32.4649236","longitude":"130.8731278","source_code":"QS48305750023","project_name":"","survey_name":"\u4e94\u6728\u30c0\u30e0\u30b5\u30a4\u30c8\u5730\u8cea\u8abf\u67fb\u696d\u52d9","client_name":"\u56fd\u571f\u4ea4\u901a\u7701\u4e5d\u5dde\u5730\u65b9\u6574\u5099\u5c40\u5ddd\u8fba\u5ddd\u30c0\u30e0\u7802\u9632\u4e8b\u52d9\u6240","boring_xml_url":40,"boring_view_url":1,"soilmap_view_url":null,"soiltest_xml_url":0,"soiltest_view_url":0},{"id":215158,"code":"B4KJ201801010-3407","latitude":"32.4696733","longitude":"130.8754886","source_code":"QS48305750020","project_name":"","survey_name":"\u4ed8\u66ff\u56fd\u9053445\u53f7\u4e0a\u8352\u5730\u5730\u533a\u5730\u8cea\u8abf\u67fb\u696d\u52d9","client_name":"\u56fd\u571f\u4ea4\u901a\u7701\u4e5d\u5dde\u5730\u65b9\u6574\u5099\u5c40\u5ddd\u8fba\u5ddd\u30c0\u30e0\u7802\u9632\u4e8b\u52d9\u6240","boring_xml_url":40,"boring_view_url":1,"soilmap_view_url":null,"soiltest_xml_url":0,"soiltest_view_url":0},{"id":215157,"code":"B4KJ201801010-3406","latitude":"32.4694511","longitude":"130.8753219","source_code":"QS48305750019","project_name":"","survey_name":"\u4ed8\u66ff\u56fd\u9053445\u53f7\u4e0a\u8352\u5730\u5730\u533a\u5730\u8cea\u8abf\u67fb\u696d\u52d9","client_name":"\u56fd\u571f\u4ea4\u901a\u7701\u4e5d\u5dde\u5730\u65b9\u6574\u5099\u5c40\u5ddd\u8fba\u5ddd\u30c0\u30e0\u7802\u9632\u4e8b\u52d9\u6240","boring_xml_url":40,"boring_view_url":1,"soilmap_view_url":null,"soiltest_xml_url":0,"soiltest_view_url":0},{"id":215156,"code":"B4KJ201801010-3405","latitude":"32.4692289","longitude":"130.8750997","source_code":"QS48305750018","project_name":"","survey_name":"\u4ed8\u66ff\u56fd\u9053445\u53f7\u4e0a\u8352\u5730\u5730\u533a\u5730\u8cea\u8abf\u67fb\u696d\u52d9","client_name":"\u56fd\u571f\u4ea4\u901a\u7701\u4e5d\u5dde\u5730\u65b9\u6574\u5099\u5c40\u5ddd\u8fba\u5ddd\u30c0\u30e0\u7802\u9632\u4e8b\u52d9\u6240","boring_xml_url":40,"boring_view_url":1,"soilmap_view_url":null,"soiltest_xml_url":0,"soiltest_view_url":0}]}}