{"header":{"xyz":{"source":[],"mosaic":false},"page":3518,"raw":{"soiltest_result":"0","bbox":"57.598333,109.544722,1.933333,163.806111","page":"3518"},"conditions":{"soiltest_result":0,"north":57.598333,"west":109.544722,"south":1.933333,"east":163.806111},"success":true,"message":""},"data":{"meta":{"total":212844,"page":3518,"pages":7095,"count":30},"values":[{"id":215035,"code":"B4KJ201801010-3284","latitude":"32.4908886","longitude":"130.6414256","source_code":"QS48305581037","project_name":"","survey_name":"\u516b\u4ee3\u65e5\u5948\u4e45\u9053\u8def\u5999\u898b\u5730\u533a\u59161\u4ef6\u5730\u8cea\u8abf\u67fb\u59d4\u8a17\u696d\u52d9","client_name":"\u56fd\u571f\u4ea4\u901a\u7701\u4e5d\u5dde\u5730\u65b9\u6574\u5099\u5c40\u516b\u4ee3\u6cb3\u5ddd\u56fd\u9053\u4e8b\u52d9\u6240","boring_xml_url":40,"boring_view_url":1,"soilmap_view_url":null,"soiltest_xml_url":0,"soiltest_view_url":0},{"id":215034,"code":"B4KJ201801010-3283","latitude":"32.4908886","longitude":"130.6414256","source_code":"QS48305581036","project_name":"","survey_name":"\u516b\u4ee3\u65e5\u5948\u4e45\u9053\u8def\u5999\u898b\u5730\u533a\u59161\u4ef6\u5730\u8cea\u8abf\u67fb\u59d4\u8a17\u696d\u52d9","client_name":"\u56fd\u571f\u4ea4\u901a\u7701\u4e5d\u5dde\u5730\u65b9\u6574\u5099\u5c40\u516b\u4ee3\u6cb3\u5ddd\u56fd\u9053\u4e8b\u52d9\u6240","boring_xml_url":40,"boring_view_url":1,"soilmap_view_url":null,"soiltest_xml_url":0,"soiltest_view_url":0},{"id":215033,"code":"B4KJ201801010-3282","latitude":"32.4908886","longitude":"130.6414256","source_code":"QS48305581035","project_name":"","survey_name":"\u516b\u4ee3\u65e5\u5948\u4e45\u9053\u8def\u5999\u898b\u5730\u533a\u59161\u4ef6\u5730\u8cea\u8abf\u67fb\u59d4\u8a17\u696d\u52d9","client_name":"\u56fd\u571f\u4ea4\u901a\u7701\u4e5d\u5dde\u5730\u65b9\u6574\u5099\u5c40\u516b\u4ee3\u6cb3\u5ddd\u56fd\u9053\u4e8b\u52d9\u6240","boring_xml_url":40,"boring_view_url":1,"soilmap_view_url":null,"soiltest_xml_url":0,"soiltest_view_url":0},{"id":215032,"code":"B4KJ201801010-3281","latitude":"32.4908886","longitude":"130.6414256","source_code":"QS48305581034","project_name":"","survey_name":"\u516b\u4ee3\u65e5\u5948\u4e45\u9053\u8def\u5999\u898b\u5730\u533a\u59161\u4ef6\u5730\u8cea\u8abf\u67fb\u59d4\u8a17\u696d\u52d9","client_name":"\u56fd\u571f\u4ea4\u901a\u7701\u4e5d\u5dde\u5730\u65b9\u6574\u5099\u5c40\u516b\u4ee3\u6cb3\u5ddd\u56fd\u9053\u4e8b\u52d9\u6240","boring_xml_url":40,"boring_view_url":1,"soilmap_view_url":null,"soiltest_xml_url":0,"soiltest_view_url":0},{"id":215031,"code":"B4KJ201801010-3280","latitude":"32.4907497","longitude":"130.6415644","source_code":"QS48305581033","project_name":"","survey_name":"\u516b\u4ee3\u65e5\u5948\u4e45\u9053\u8def\u5999\u898b\u5730\u533a\u59161\u4ef6\u5730\u8cea\u8abf\u67fb\u59d4\u8a17\u696d\u52d9","client_name":"\u56fd\u571f\u4ea4\u901a\u7701\u4e5d\u5dde\u5730\u65b9\u6574\u5099\u5c40\u516b\u4ee3\u6cb3\u5ddd\u56fd\u9053\u4e8b\u52d9\u6240","boring_xml_url":40,"boring_view_url":1,"soilmap_view_url":null,"soiltest_xml_url":0,"soiltest_view_url":0},{"id":215030,"code":"B4KJ201801010-3279","latitude":"32.4909997","longitude":"130.6417311","source_code":"QS48305581032","project_name":"","survey_name":"\u516b\u4ee3\u65e5\u5948\u4e45\u9053\u8def\u5999\u898b\u5730\u533a\u59161\u4ef6\u5730\u8cea\u8abf\u67fb\u59d4\u8a17\u696d\u52d9","client_name":"\u56fd\u571f\u4ea4\u901a\u7701\u4e5d\u5dde\u5730\u65b9\u6574\u5099\u5c40\u516b\u4ee3\u6cb3\u5ddd\u56fd\u9053\u4e8b\u52d9\u6240","boring_xml_url":40,"boring_view_url":1,"soilmap_view_url":null,"soiltest_xml_url":0,"soiltest_view_url":0},{"id":215029,"code":"B4KJ201801010-3278","latitude":"32.4928331","longitude":"130.6415644","source_code":"QS48305581031","project_name":"","survey_name":"\u516b\u4ee3\u65e5\u5948\u4e45\u9053\u8def\u5999\u898b\u5730\u533a\u59161\u4ef6\u5730\u8cea\u8abf\u67fb\u59d4\u8a17\u696d\u52d9","client_name":"\u56fd\u571f\u4ea4\u901a\u7701\u4e5d\u5dde\u5730\u65b9\u6574\u5099\u5c40\u516b\u4ee3\u6cb3\u5ddd\u56fd\u9053\u4e8b\u52d9\u6240","boring_xml_url":40,"boring_view_url":1,"soilmap_view_url":null,"soiltest_xml_url":0,"soiltest_view_url":0},{"id":215028,"code":"B4KJ201801010-3277","latitude":"32.4923331","longitude":"130.6415644","source_code":"QS48305581030","project_name":"","survey_name":"\u516b\u4ee3\u65e5\u5948\u4e45\u9053\u8def\u5999\u898b\u5730\u533a\u59161\u4ef6\u5730\u8cea\u8abf\u67fb\u59d4\u8a17\u696d\u52d9","client_name":"\u56fd\u571f\u4ea4\u901a\u7701\u4e5d\u5dde\u5730\u65b9\u6574\u5099\u5c40\u516b\u4ee3\u6cb3\u5ddd\u56fd\u9053\u4e8b\u52d9\u6240","boring_xml_url":40,"boring_view_url":1,"soilmap_view_url":null,"soiltest_xml_url":0,"soiltest_view_url":0},{"id":215027,"code":"B4KJ201801010-3276","latitude":"32.4921108","longitude":"130.6428144","source_code":"QS48305581029","project_name":"","survey_name":"\u5bae\u5730\u5730\u533a\u5730\u8cea\u8abf\u67fb\u59d4\u8a17\u696d\u52d9","client_name":"\u56fd\u571f\u4ea4\u901a\u7701\u4e5d\u5dde\u5730\u65b9\u6574\u5099\u5c40\u516b\u4ee3\u6cb3\u5ddd\u56fd\u9053\u4e8b\u52d9\u6240","boring_xml_url":40,"boring_view_url":1,"soilmap_view_url":null,"soiltest_xml_url":0,"soiltest_view_url":0},{"id":215026,"code":"B4KJ201801010-3275","latitude":"32.4921108","longitude":"130.6428144","source_code":"QS48305581028","project_name":"","survey_name":"\u5bae\u5730\u5730\u533a\u5730\u8cea\u8abf\u67fb\u59d4\u8a17\u696d\u52d9","client_name":"\u56fd\u571f\u4ea4\u901a\u7701\u4e5d\u5dde\u5730\u65b9\u6574\u5099\u5c40\u516b\u4ee3\u6cb3\u5ddd\u56fd\u9053\u4e8b\u52d9\u6240","boring_xml_url":40,"boring_view_url":1,"soilmap_view_url":null,"soiltest_xml_url":0,"soiltest_view_url":0},{"id":215025,"code":"B4KJ201801010-3274","latitude":"32.4921108","longitude":"130.6428144","source_code":"QS48305581027","project_name":"","survey_name":"\u5bae\u5730\u5730\u533a\u5730\u8cea\u8abf\u67fb\u59d4\u8a17\u696d\u52d9","client_name":"\u56fd\u571f\u4ea4\u901a\u7701\u4e5d\u5dde\u5730\u65b9\u6574\u5099\u5c40\u516b\u4ee3\u6cb3\u5ddd\u56fd\u9053\u4e8b\u52d9\u6240","boring_xml_url":40,"boring_view_url":1,"soilmap_view_url":null,"soiltest_xml_url":0,"soiltest_view_url":0},{"id":215024,"code":"B4KJ201801010-3273","latitude":"32.4921108","longitude":"130.6428144","source_code":"QS48305581026","project_name":"","survey_name":"\u5bae\u5730\u5730\u533a\u5730\u8cea\u8abf\u67fb\u59d4\u8a17\u696d\u52d9","client_name":"\u56fd\u571f\u4ea4\u901a\u7701\u4e5d\u5dde\u5730\u65b9\u6574\u5099\u5c40\u516b\u4ee3\u6cb3\u5ddd\u56fd\u9053\u4e8b\u52d9\u6240","boring_xml_url":40,"boring_view_url":1,"soilmap_view_url":null,"soiltest_xml_url":0,"soiltest_view_url":0},{"id":215023,"code":"B4KJ201801010-3272","latitude":"32.4921108","longitude":"130.6428144","source_code":"QS48305581025","project_name":"","survey_name":"\u5bae\u5730\u5730\u533a\u5730\u8cea\u8abf\u67fb\u59d4\u8a17\u696d\u52d9","client_name":"\u56fd\u571f\u4ea4\u901a\u7701\u4e5d\u5dde\u5730\u65b9\u6574\u5099\u5c40\u516b\u4ee3\u6cb3\u5ddd\u56fd\u9053\u4e8b\u52d9\u6240","boring_xml_url":40,"boring_view_url":1,"soilmap_view_url":null,"soiltest_xml_url":0,"soiltest_view_url":0},{"id":215022,"code":"B4KJ201801010-3271","latitude":"32.4921108","longitude":"130.6428144","source_code":"QS48305581024","project_name":"","survey_name":"\u5bae\u5730\u5730\u533a\u5730\u8cea\u8abf\u67fb\u59d4\u8a17\u696d\u52d9","client_name":"\u56fd\u571f\u4ea4\u901a\u7701\u4e5d\u5dde\u5730\u65b9\u6574\u5099\u5c40\u516b\u4ee3\u6cb3\u5ddd\u56fd\u9053\u4e8b\u52d9\u6240","boring_xml_url":40,"boring_view_url":1,"soilmap_view_url":null,"soiltest_xml_url":0,"soiltest_view_url":0},{"id":215021,"code":"B4KJ201801010-3270","latitude":"32.4921108","longitude":"130.6428144","source_code":"QS48305581023","project_name":"","survey_name":"\u5bae\u5730\u5730\u533a\u5730\u8cea\u8abf\u67fb\u59d4\u8a17\u696d\u52d9","client_name":"\u56fd\u571f\u4ea4\u901a\u7701\u4e5d\u5dde\u5730\u65b9\u6574\u5099\u5c40\u516b\u4ee3\u6cb3\u5ddd\u56fd\u9053\u4e8b\u52d9\u6240","boring_xml_url":40,"boring_view_url":1,"soilmap_view_url":null,"soiltest_xml_url":0,"soiltest_view_url":0},{"id":215020,"code":"B4KJ201801010-3269","latitude":"32.4921108","longitude":"130.6428144","source_code":"QS48305581022","project_name":"","survey_name":"\u5bae\u5730\u5730\u533a\u5730\u8cea\u8abf\u67fb\u59d4\u8a17\u696d\u52d9","client_name":"\u56fd\u571f\u4ea4\u901a\u7701\u4e5d\u5dde\u5730\u65b9\u6574\u5099\u5c40\u516b\u4ee3\u6cb3\u5ddd\u56fd\u9053\u4e8b\u52d9\u6240","boring_xml_url":40,"boring_view_url":1,"soilmap_view_url":null,"soiltest_xml_url":0,"soiltest_view_url":0},{"id":215019,"code":"B4KJ201801010-3268","latitude":"32.4921108","longitude":"130.6428144","source_code":"QS48305581021","project_name":"","survey_name":"\u5bae\u5730\u5730\u533a\u5730\u8cea\u8abf\u67fb\u59d4\u8a17\u696d\u52d9","client_name":"\u56fd\u571f\u4ea4\u901a\u7701\u4e5d\u5dde\u5730\u65b9\u6574\u5099\u5c40\u516b\u4ee3\u6cb3\u5ddd\u56fd\u9053\u4e8b\u52d9\u6240","boring_xml_url":40,"boring_view_url":1,"soilmap_view_url":null,"soiltest_xml_url":0,"soiltest_view_url":0},{"id":215018,"code":"B4KJ201801010-3267","latitude":"32.4925553","longitude":"130.6426756","source_code":"QS48305581020","project_name":"","survey_name":"\u516b\u4ee3\u65e5\u5948\u4e45\u9053\u8def\u5999\u898b\u5730\u533a\u5730\u8cea\u8abf\u67fb\u696d\u52d9","client_name":"\u56fd\u571f\u4ea4\u901a\u7701\u4e5d\u5dde\u5730\u65b9\u6574\u5099\u5c40\u516b\u4ee3\u6cb3\u5ddd\u56fd\u9053\u4e8b\u52d9\u6240","boring_xml_url":40,"boring_view_url":1,"soilmap_view_url":null,"soiltest_xml_url":0,"soiltest_view_url":0},{"id":215017,"code":"B4KJ201801010-3266","latitude":"32.4928331","longitude":"130.6432311","source_code":"QS48305581019","project_name":"","survey_name":"\u516b\u4ee3\u65e5\u5948\u4e45\u9053\u8def\u5999\u898b\u5730\u533a\u5730\u8cea\u8abf\u67fb\u696d\u52d9","client_name":"\u56fd\u571f\u4ea4\u901a\u7701\u4e5d\u5dde\u5730\u65b9\u6574\u5099\u5c40\u516b\u4ee3\u6cb3\u5ddd\u56fd\u9053\u4e8b\u52d9\u6240","boring_xml_url":40,"boring_view_url":1,"soilmap_view_url":null,"soiltest_xml_url":0,"soiltest_view_url":0},{"id":215016,"code":"B4KJ201801010-3265","latitude":"32.4936661","longitude":"130.6435089","source_code":"QS48305581018","project_name":"","survey_name":"\u516b\u4ee3\u65e5\u5948\u4e45\u9053\u8def\u5999\u898b\u5730\u533a\u5730\u8cea\u8abf\u67fb\u696d\u52d9","client_name":"\u56fd\u571f\u4ea4\u901a\u7701\u4e5d\u5dde\u5730\u65b9\u6574\u5099\u5c40\u516b\u4ee3\u6cb3\u5ddd\u56fd\u9053\u4e8b\u52d9\u6240","boring_xml_url":40,"boring_view_url":1,"soilmap_view_url":null,"soiltest_xml_url":0,"soiltest_view_url":0},{"id":215015,"code":"B4KJ201801010-3264","latitude":"32.4939439","longitude":"130.6435086","source_code":"QS48305581017","project_name":"","survey_name":"\u516b\u4ee3\u65e5\u5948\u4e45\u9053\u8def\u5999\u898b\u5730\u533a\u5730\u8cea\u8abf\u67fb\u696d\u52d9","client_name":"\u56fd\u571f\u4ea4\u901a\u7701\u4e5d\u5dde\u5730\u65b9\u6574\u5099\u5c40\u516b\u4ee3\u6cb3\u5ddd\u56fd\u9053\u4e8b\u52d9\u6240","boring_xml_url":40,"boring_view_url":1,"soilmap_view_url":null,"soiltest_xml_url":0,"soiltest_view_url":0},{"id":215014,"code":"B4KJ201801010-3263","latitude":"32.4942217","longitude":"130.6435086","source_code":"QS48305581016","project_name":"","survey_name":"\u516b\u4ee3\u65e5\u5948\u4e45\u9053\u8def\u5999\u898b\u5730\u533a\u5730\u8cea\u8abf\u67fb\u696d\u52d9","client_name":"\u56fd\u571f\u4ea4\u901a\u7701\u4e5d\u5dde\u5730\u65b9\u6574\u5099\u5c40\u516b\u4ee3\u6cb3\u5ddd\u56fd\u9053\u4e8b\u52d9\u6240","boring_xml_url":40,"boring_view_url":1,"soilmap_view_url":null,"soiltest_xml_url":0,"soiltest_view_url":0},{"id":215013,"code":"B4KJ201801010-3262","latitude":"32.4942217","longitude":"130.6451753","source_code":"QS48305581015","project_name":"","survey_name":"\u516b\u4ee3\u65e5\u5948\u4e45\u9053\u8def\u5999\u898b\u5730\u533a\u5730\u8cea\u8abf\u67fb\u696d\u52d9","client_name":"\u56fd\u571f\u4ea4\u901a\u7701\u4e5d\u5dde\u5730\u65b9\u6574\u5099\u5c40\u516b\u4ee3\u6cb3\u5ddd\u56fd\u9053\u4e8b\u52d9\u6240","boring_xml_url":40,"boring_view_url":1,"soilmap_view_url":null,"soiltest_xml_url":0,"soiltest_view_url":0},{"id":215012,"code":"B4KJ201801010-3261","latitude":"32.4942217","longitude":"130.6451753","source_code":"QS48305581014","project_name":"","survey_name":"\u516b\u4ee3\u65e5\u5948\u4e45\u9053\u8def\u5999\u898b\u5730\u533a\u5730\u8cea\u8abf\u67fb\u696d\u52d9","client_name":"\u56fd\u571f\u4ea4\u901a\u7701\u4e5d\u5dde\u5730\u65b9\u6574\u5099\u5c40\u516b\u4ee3\u6cb3\u5ddd\u56fd\u9053\u4e8b\u52d9\u6240","boring_xml_url":40,"boring_view_url":1,"soilmap_view_url":null,"soiltest_xml_url":0,"soiltest_view_url":0},{"id":215011,"code":"B4KJ201801010-3260","latitude":"32.4880833","longitude":"130.6353153","source_code":"QS48305581013","project_name":"","survey_name":"\u5bae\u5730\u5730\u533a\u5730\u8cea\u8abf\u67fb(\u305d\u306e2)\u59d4\u8a17\u696d\u52d9","client_name":"\u56fd\u571f\u4ea4\u901a\u7701\u4e5d\u5dde\u5730\u65b9\u6574\u5099\u5c40\u516b\u4ee3\u6cb3\u5ddd\u56fd\u9053\u4e8b\u52d9\u6240","boring_xml_url":40,"boring_view_url":1,"soilmap_view_url":null,"soiltest_xml_url":0,"soiltest_view_url":0},{"id":215010,"code":"B4KJ201801010-3259","latitude":"32.4907775","longitude":"130.6411203","source_code":"QS48305581012","project_name":"","survey_name":"\u5bae\u5730\u5730\u533a\u5730\u8cea\u8abf\u67fb(\u305d\u306e2)\u59d4\u8a17\u696d\u52d9","client_name":"\u56fd\u571f\u4ea4\u901a\u7701\u4e5d\u5dde\u5730\u65b9\u6574\u5099\u5c40\u516b\u4ee3\u6cb3\u5ddd\u56fd\u9053\u4e8b\u52d9\u6240","boring_xml_url":40,"boring_view_url":1,"soilmap_view_url":null,"soiltest_xml_url":0,"soiltest_view_url":0},{"id":215009,"code":"B4KJ201801010-3258","latitude":"32.4883056","longitude":"130.6360372","source_code":"QS48305581011","project_name":"","survey_name":"\u5bae\u5730\u5730\u533a\u5730\u8cea\u8abf\u67fb(\u305d\u306e2)\u59d4\u8a17\u696d\u52d9","client_name":"\u56fd\u571f\u4ea4\u901a\u7701\u4e5d\u5dde\u5730\u65b9\u6574\u5099\u5c40\u516b\u4ee3\u6cb3\u5ddd\u56fd\u9053\u4e8b\u52d9\u6240","boring_xml_url":40,"boring_view_url":1,"soilmap_view_url":null,"soiltest_xml_url":0,"soiltest_view_url":0},{"id":215008,"code":"B4KJ201801010-3257","latitude":"32.4903611","longitude":"130.6402592","source_code":"QS48305581010","project_name":"","survey_name":"\u5bae\u5730\u5730\u533a\u5730\u8cea\u8abf\u67fb(\u305d\u306e2)\u59d4\u8a17\u696d\u52d9","client_name":"\u56fd\u571f\u4ea4\u901a\u7701\u4e5d\u5dde\u5730\u65b9\u6574\u5099\u5c40\u516b\u4ee3\u6cb3\u5ddd\u56fd\u9053\u4e8b\u52d9\u6240","boring_xml_url":40,"boring_view_url":1,"soilmap_view_url":null,"soiltest_xml_url":0,"soiltest_view_url":0},{"id":215007,"code":"B4KJ201801010-3256","latitude":"32.4905831","longitude":"130.6407869","source_code":"QS48305581009","project_name":"","survey_name":"\u5bae\u5730\u5730\u533a\u5730\u8cea\u8abf\u67fb(\u305d\u306e2)\u59d4\u8a17\u696d\u52d9","client_name":"\u56fd\u571f\u4ea4\u901a\u7701\u4e5d\u5dde\u5730\u65b9\u6574\u5099\u5c40\u516b\u4ee3\u6cb3\u5ddd\u56fd\u9053\u4e8b\u52d9\u6240","boring_xml_url":40,"boring_view_url":1,"soilmap_view_url":null,"soiltest_xml_url":0,"soiltest_view_url":0},{"id":215006,"code":"B4KJ201801010-3255","latitude":"32.4926942","longitude":"130.6425367","source_code":"QS48305581008","project_name":"","survey_name":"\u5bae\u5730\u5730\u533a\u5730\u8cea\u8abf\u67fb(\u305d\u306e2)\u59d4\u8a17\u696d\u52d9","client_name":"\u56fd\u571f\u4ea4\u901a\u7701\u4e5d\u5dde\u5730\u65b9\u6574\u5099\u5c40\u516b\u4ee3\u6cb3\u5ddd\u56fd\u9053\u4e8b\u52d9\u6240","boring_xml_url":40,"boring_view_url":1,"soilmap_view_url":null,"soiltest_xml_url":0,"soiltest_view_url":0}]}}