{"header":{"xyz":{"source":[],"mosaic":false},"page":3523,"raw":{"soiltest_result":"0","bbox":"57.598333,109.544722,1.933333,163.806111","page":"3523"},"conditions":{"soiltest_result":0,"north":57.598333,"west":109.544722,"south":1.933333,"east":163.806111},"success":true,"message":""},"data":{"meta":{"total":212844,"page":3523,"pages":7095,"count":30},"values":[{"id":214885,"code":"B4KJ201801010-3134","latitude":"32.4755011","longitude":"130.6131508","source_code":"QS48305469026","project_name":"","survey_name":"\u516b\u4ee3\u65e5\u5948\u4e45\u9053\u8def\u9ad8\u7530\u5730\u533a\u5730\u8cea\u8abf\u67fb\u59d4\u8a17\u696d\u52d9","client_name":"\u56fd\u571f\u4ea4\u901a\u7701\u4e5d\u5dde\u5730\u65b9\u6574\u5099\u5c40\u516b\u4ee3\u6cb3\u5ddd\u56fd\u9053\u4e8b\u52d9\u6240","boring_xml_url":40,"boring_view_url":1,"soilmap_view_url":null,"soiltest_xml_url":0,"soiltest_view_url":0},{"id":214884,"code":"B4KJ201801010-3133","latitude":"32.4760289","longitude":"130.6139564","source_code":"QS48305469025","project_name":"","survey_name":"\u516b\u4ee3\u65e5\u5948\u4e45\u9053\u8def\u9ad8\u7530\u5730\u533a\u5730\u8cea\u8abf\u67fb\u59d4\u8a17\u696d\u52d9","client_name":"\u56fd\u571f\u4ea4\u901a\u7701\u4e5d\u5dde\u5730\u65b9\u6574\u5099\u5c40\u516b\u4ee3\u6cb3\u5ddd\u56fd\u9053\u4e8b\u52d9\u6240","boring_xml_url":40,"boring_view_url":1,"soilmap_view_url":null,"soiltest_xml_url":0,"soiltest_view_url":0},{"id":214883,"code":"B4KJ201801010-3132","latitude":"32.4764453","longitude":"130.6144839","source_code":"QS48305469024","project_name":"","survey_name":"\u516b\u4ee3\u65e5\u5948\u4e45\u9053\u8def\u9ad8\u7530\u5730\u533a\u5730\u8cea\u8abf\u67fb\u59d4\u8a17\u696d\u52d9","client_name":"\u56fd\u571f\u4ea4\u901a\u7701\u4e5d\u5dde\u5730\u65b9\u6574\u5099\u5c40\u516b\u4ee3\u6cb3\u5ddd\u56fd\u9053\u4e8b\u52d9\u6240","boring_xml_url":40,"boring_view_url":1,"soilmap_view_url":null,"soiltest_xml_url":0,"soiltest_view_url":0},{"id":214882,"code":"B4KJ201801010-3131","latitude":"32.4768342","longitude":"130.6150394","source_code":"QS48305469023","project_name":"","survey_name":"\u516b\u4ee3\u65e5\u5948\u4e45\u9053\u8def\u9ad8\u7530\u5730\u533a\u5730\u8cea\u8abf\u67fb\u59d4\u8a17\u696d\u52d9","client_name":"\u56fd\u571f\u4ea4\u901a\u7701\u4e5d\u5dde\u5730\u65b9\u6574\u5099\u5c40\u516b\u4ee3\u6cb3\u5ddd\u56fd\u9053\u4e8b\u52d9\u6240","boring_xml_url":40,"boring_view_url":1,"soilmap_view_url":null,"soiltest_xml_url":0,"soiltest_view_url":0},{"id":214881,"code":"B4KJ201801010-3130","latitude":"32.4771953","longitude":"130.6145117","source_code":"QS48305469022","project_name":"","survey_name":"\u516b\u4ee3\u65e5\u5948\u4e45\u9053\u8def\u9ad8\u7530\u5730\u533a\u5730\u8cea\u8abf\u67fb\u59d4\u8a17\u696d\u52d9","client_name":"\u56fd\u571f\u4ea4\u901a\u7701\u4e5d\u5dde\u5730\u65b9\u6574\u5099\u5c40\u516b\u4ee3\u6cb3\u5ddd\u56fd\u9053\u4e8b\u52d9\u6240","boring_xml_url":40,"boring_view_url":1,"soilmap_view_url":null,"soiltest_xml_url":0,"soiltest_view_url":0},{"id":214880,"code":"B4KJ201801010-3129","latitude":"32.4735292","longitude":"130.6123175","source_code":"QS48305469019","project_name":"","survey_name":"\u7403\u78e8\u5ddd\u5927\u6a4b\u5730\u8cea\u8abf\u67fb\u59161\u4ef6\u59d4\u8a17\u696d\u52d9","client_name":"\u56fd\u571f\u4ea4\u901a\u7701\u4e5d\u5dde\u5730\u65b9\u6574\u5099\u5c40\u516b\u4ee3\u6cb3\u5ddd\u56fd\u9053\u4e8b\u52d9\u6240","boring_xml_url":40,"boring_view_url":1,"soilmap_view_url":null,"soiltest_xml_url":0,"soiltest_view_url":0},{"id":214879,"code":"B4KJ201801010-3128","latitude":"32.4776675","longitude":"130.6161228","source_code":"QS48305469010","project_name":"","survey_name":"\u516b\u4ee3\u65e5\u5948\u4e45\u9053\u8def\u9ad8\u7530\u5730\u533a\u5730\u8cea\u8abf\u67fb(\u305d\u306e2)\u59d4\u8a17\u696d\u52d9","client_name":"\u56fd\u571f\u4ea4\u901a\u7701\u4e5d\u5dde\u5730\u65b9\u6574\u5099\u5c40\u516b\u4ee3\u6cb3\u5ddd\u56fd\u9053\u4e8b\u52d9\u6240","boring_xml_url":40,"boring_view_url":1,"soilmap_view_url":null,"soiltest_xml_url":0,"soiltest_view_url":0},{"id":214878,"code":"B4KJ201801010-3127","latitude":"32.4779453","longitude":"130.6164006","source_code":"QS48305469009","project_name":"","survey_name":"\u516b\u4ee3\u65e5\u5948\u4e45\u9053\u8def\u9ad8\u7530\u5730\u533a\u5730\u8cea\u8abf\u67fb(\u305d\u306e2)\u59d4\u8a17\u696d\u52d9","client_name":"\u56fd\u571f\u4ea4\u901a\u7701\u4e5d\u5dde\u5730\u65b9\u6574\u5099\u5c40\u516b\u4ee3\u6cb3\u5ddd\u56fd\u9053\u4e8b\u52d9\u6240","boring_xml_url":40,"boring_view_url":1,"soilmap_view_url":null,"soiltest_xml_url":0,"soiltest_view_url":0},{"id":214877,"code":"B4KJ201801010-3126","latitude":"32.4780008","longitude":"130.6166506","source_code":"QS48305469008","project_name":"","survey_name":"\u516b\u4ee3\u65e5\u5948\u4e45\u9053\u8def\u9ad8\u7530\u5730\u533a\u5730\u8cea\u8abf\u67fb(\u305d\u306e2)\u59d4\u8a17\u696d\u52d9","client_name":"\u56fd\u571f\u4ea4\u901a\u7701\u4e5d\u5dde\u5730\u65b9\u6574\u5099\u5c40\u516b\u4ee3\u6cb3\u5ddd\u56fd\u9053\u4e8b\u52d9\u6240","boring_xml_url":40,"boring_view_url":1,"soilmap_view_url":null,"soiltest_xml_url":0,"soiltest_view_url":0},{"id":214876,"code":"B4KJ201801010-3125","latitude":"32.4783064","longitude":"130.6171781","source_code":"QS48305469007","project_name":"","survey_name":"\u516b\u4ee3\u65e5\u5948\u4e45\u9053\u8def\u9ad8\u7530\u5730\u533a\u5730\u8cea\u8abf\u67fb(\u305d\u306e2)\u59d4\u8a17\u696d\u52d9","client_name":"\u56fd\u571f\u4ea4\u901a\u7701\u4e5d\u5dde\u5730\u65b9\u6574\u5099\u5c40\u516b\u4ee3\u6cb3\u5ddd\u56fd\u9053\u4e8b\u52d9\u6240","boring_xml_url":40,"boring_view_url":1,"soilmap_view_url":null,"soiltest_xml_url":0,"soiltest_view_url":0},{"id":214875,"code":"B4KJ201801010-3124","latitude":"32.4781953","longitude":"130.6175392","source_code":"QS48305469006","project_name":"","survey_name":"\u516b\u4ee3\u65e5\u5948\u4e45\u9053\u8def\u9ad8\u7530\u5730\u533a\u5730\u8cea\u8abf\u67fb(\u305d\u306e2)\u59d4\u8a17\u696d\u52d9","client_name":"\u56fd\u571f\u4ea4\u901a\u7701\u4e5d\u5dde\u5730\u65b9\u6574\u5099\u5c40\u516b\u4ee3\u6cb3\u5ddd\u56fd\u9053\u4e8b\u52d9\u6240","boring_xml_url":40,"boring_view_url":1,"soilmap_view_url":null,"soiltest_xml_url":0,"soiltest_view_url":0},{"id":214874,"code":"B4KJ201801010-3123","latitude":"32.4758344","longitude":"130.6141231","source_code":"QS48305469005","project_name":"","survey_name":"\u718a\u672c3\u53f7\u516b\u4ee3\u65e5\u5948\u4e45\u9053\u8def\u9ad8\u7530\u5730\u533a\u5730\u8cea\u8abf\u67fb\u59d4\u8a17\u696d\u52d9","client_name":"\u56fd\u571f\u4ea4\u901a\u7701\u4e5d\u5dde\u5730\u65b9\u6574\u5099\u5c40\u516b\u4ee3\u6cb3\u5ddd\u56fd\u9053\u4e8b\u52d9\u6240","boring_xml_url":40,"boring_view_url":1,"soilmap_view_url":null,"soiltest_xml_url":0,"soiltest_view_url":0},{"id":214873,"code":"B4KJ201801010-3122","latitude":"32.47514","longitude":"130.6128175","source_code":"QS48305469004","project_name":"","survey_name":"\u718a\u672c3\u53f7\u516b\u4ee3\u65e5\u5948\u4e45\u9053\u8def\u9ad8\u7530\u5730\u533a\u5730\u8cea\u8abf\u67fb\u59d4\u8a17\u696d\u52d9","client_name":"\u56fd\u571f\u4ea4\u901a\u7701\u4e5d\u5dde\u5730\u65b9\u6574\u5099\u5c40\u516b\u4ee3\u6cb3\u5ddd\u56fd\u9053\u4e8b\u52d9\u6240","boring_xml_url":40,"boring_view_url":1,"soilmap_view_url":null,"soiltest_xml_url":0,"soiltest_view_url":0},{"id":214872,"code":"B4KJ201801010-3121","latitude":"32.4768342","longitude":"130.6154006","source_code":"QS48305469003","project_name":"","survey_name":"\u718a\u672c3\u53f7\u516b\u4ee3\u65e5\u5948\u4e45\u9053\u8def\u9ad8\u7530\u5730\u533a\u5730\u8cea\u8abf\u67fb\u59d4\u8a17\u696d\u52d9","client_name":"\u56fd\u571f\u4ea4\u901a\u7701\u4e5d\u5dde\u5730\u65b9\u6574\u5099\u5c40\u516b\u4ee3\u6cb3\u5ddd\u56fd\u9053\u4e8b\u52d9\u6240","boring_xml_url":40,"boring_view_url":1,"soilmap_view_url":null,"soiltest_xml_url":0,"soiltest_view_url":0},{"id":214871,"code":"B4KJ201801010-3120","latitude":"32.47564","longitude":"130.6144008","source_code":"QS48305469002","project_name":"","survey_name":"\u718a\u672c3\u53f7\u516b\u4ee3\u65e5\u5948\u4e45\u9053\u8def\u9ad8\u7530\u5730\u533a\u5730\u8cea\u8abf\u67fb\u59d4\u8a17\u696d\u52d9","client_name":"\u56fd\u571f\u4ea4\u901a\u7701\u4e5d\u5dde\u5730\u65b9\u6574\u5099\u5c40\u516b\u4ee3\u6cb3\u5ddd\u56fd\u9053\u4e8b\u52d9\u6240","boring_xml_url":40,"boring_view_url":1,"soilmap_view_url":null,"soiltest_xml_url":0,"soiltest_view_url":0},{"id":214870,"code":"B4KJ201801010-3119","latitude":"32.4778897","longitude":"130.6169561","source_code":"QS48305469001","project_name":"","survey_name":"\u718a\u672c3\u53f7\u516b\u4ee3\u65e5\u5948\u4e45\u9053\u8def\u9ad8\u7530\u5730\u533a\u5730\u8cea\u8abf\u67fb\u59d4\u8a17\u696d\u52d9","client_name":"\u56fd\u571f\u4ea4\u901a\u7701\u4e5d\u5dde\u5730\u65b9\u6574\u5099\u5c40\u516b\u4ee3\u6cb3\u5ddd\u56fd\u9053\u4e8b\u52d9\u6240","boring_xml_url":40,"boring_view_url":1,"soilmap_view_url":null,"soiltest_xml_url":0,"soiltest_view_url":0},{"id":214869,"code":"B4KJ201801010-3118","latitude":"32.4702794","longitude":"130.6088736","source_code":"QS48305468013","project_name":"","survey_name":"\u5e73\u5c71\u65b0\u753a\u5730\u533a\u5730\u8cea\u8abf\u67fb\u53ca\u3073\u76db\u571f\u691c\u8a0e\u696d\u52d9","client_name":"\u56fd\u571f\u4ea4\u901a\u7701\u4e5d\u5dde\u5730\u65b9\u6574\u5099\u5c40\u516b\u4ee3\u6cb3\u5ddd\u56fd\u9053\u4e8b\u52d9\u6240","boring_xml_url":40,"boring_view_url":1,"soilmap_view_url":null,"soiltest_xml_url":0,"soiltest_view_url":0},{"id":214868,"code":"B4KJ201801010-3117","latitude":"32.4701406","longitude":"130.6090125","source_code":"QS48305468012","project_name":"","survey_name":"\u5e73\u5c71\u65b0\u753a\u5730\u533a\u5730\u8cea\u8abf\u67fb\u53ca\u3073\u76db\u571f\u691c\u8a0e\u696d\u52d9","client_name":"\u56fd\u571f\u4ea4\u901a\u7701\u4e5d\u5dde\u5730\u65b9\u6574\u5099\u5c40\u516b\u4ee3\u6cb3\u5ddd\u56fd\u9053\u4e8b\u52d9\u6240","boring_xml_url":40,"boring_view_url":1,"soilmap_view_url":null,"soiltest_xml_url":0,"soiltest_view_url":0},{"id":214867,"code":"B4KJ201801010-3116","latitude":"32.4704739","longitude":"130.6092625","source_code":"QS48305468011","project_name":"","survey_name":"\u5e73\u5c71\u65b0\u753a\u5730\u533a\u5730\u8cea\u8abf\u67fb\u53ca\u3073\u76db\u571f\u691c\u8a0e\u696d\u52d9","client_name":"\u56fd\u571f\u4ea4\u901a\u7701\u4e5d\u5dde\u5730\u65b9\u6574\u5099\u5c40\u516b\u4ee3\u6cb3\u5ddd\u56fd\u9053\u4e8b\u52d9\u6240","boring_xml_url":40,"boring_view_url":1,"soilmap_view_url":null,"soiltest_xml_url":0,"soiltest_view_url":0},{"id":214866,"code":"B4KJ201801010-3115","latitude":"32.4706128","longitude":"130.6094847","source_code":"QS48305468010","project_name":"","survey_name":"\u5e73\u5c71\u65b0\u753a\u5730\u533a\u5730\u8cea\u8abf\u67fb\u53ca\u3073\u76db\u571f\u691c\u8a0e\u696d\u52d9","client_name":"\u56fd\u571f\u4ea4\u901a\u7701\u4e5d\u5dde\u5730\u65b9\u6574\u5099\u5c40\u516b\u4ee3\u6cb3\u5ddd\u56fd\u9053\u4e8b\u52d9\u6240","boring_xml_url":40,"boring_view_url":1,"soilmap_view_url":null,"soiltest_xml_url":0,"soiltest_view_url":0},{"id":214865,"code":"B4KJ201801010-3114","latitude":"32.4708347","longitude":"130.6092903","source_code":"QS48305468009","project_name":"","survey_name":"\u5e73\u5c71\u65b0\u753a\u5730\u533a\u5730\u8cea\u8abf\u67fb\u53ca\u3073\u76db\u571f\u691c\u8a0e\u696d\u52d9","client_name":"\u56fd\u571f\u4ea4\u901a\u7701\u4e5d\u5dde\u5730\u65b9\u6574\u5099\u5c40\u516b\u4ee3\u6cb3\u5ddd\u56fd\u9053\u4e8b\u52d9\u6240","boring_xml_url":40,"boring_view_url":1,"soilmap_view_url":null,"soiltest_xml_url":0,"soiltest_view_url":0},{"id":214864,"code":"B4KJ201801010-3113","latitude":"32.4701128","longitude":"130.6087903","source_code":"QS48305468008","project_name":"","survey_name":"\u5e73\u62105\u5e74\u5ea6\u5e73\u5c71\u65b0\u753a\u5730\u533a\u5730\u8cea\u8abf\u67fb(\u305d\u306e2)\u696d\u52d9","client_name":"\u56fd\u571f\u4ea4\u901a\u7701\u4e5d\u5dde\u5730\u65b9\u6574\u5099\u5c40\u516b\u4ee3\u6cb3\u5ddd\u56fd\u9053\u4e8b\u52d9\u6240","boring_xml_url":40,"boring_view_url":1,"soilmap_view_url":null,"soiltest_xml_url":0,"soiltest_view_url":0},{"id":214863,"code":"B4KJ201801010-3112","latitude":"32.4702794","longitude":"130.6086792","source_code":"QS48305468007","project_name":"","survey_name":"\u5e73\u5c71\u65b0\u753a\u5730\u533a\u5730\u8cea\u8abf\u67fb\u696d\u52d9","client_name":"\u56fd\u571f\u4ea4\u901a\u7701\u4e5d\u5dde\u5730\u65b9\u6574\u5099\u5c40\u516b\u4ee3\u6cb3\u5ddd\u56fd\u9053\u4e8b\u52d9\u6240","boring_xml_url":40,"boring_view_url":1,"soilmap_view_url":null,"soiltest_xml_url":0,"soiltest_view_url":0},{"id":214862,"code":"B4KJ201801010-3111","latitude":"32.4701683","longitude":"130.6092347","source_code":"QS48305468006","project_name":"","survey_name":"\u5e73\u5c71\u65b0\u753a\u5730\u533a\u5730\u8cea\u8abf\u67fb\u696d\u52d9","client_name":"\u56fd\u571f\u4ea4\u901a\u7701\u4e5d\u5dde\u5730\u65b9\u6574\u5099\u5c40\u516b\u4ee3\u6cb3\u5ddd\u56fd\u9053\u4e8b\u52d9\u6240","boring_xml_url":40,"boring_view_url":1,"soilmap_view_url":null,"soiltest_xml_url":0,"soiltest_view_url":0},{"id":214861,"code":"B4KJ201801010-3110","latitude":"32.4702794","longitude":"130.6089847","source_code":"QS48305468005","project_name":"","survey_name":"\u5e73\u5c71\u65b0\u753a\u5730\u533a\u5730\u8cea\u8abf\u67fb\u696d\u52d9","client_name":"\u56fd\u571f\u4ea4\u901a\u7701\u4e5d\u5dde\u5730\u65b9\u6574\u5099\u5c40\u516b\u4ee3\u6cb3\u5ddd\u56fd\u9053\u4e8b\u52d9\u6240","boring_xml_url":40,"boring_view_url":1,"soilmap_view_url":null,"soiltest_xml_url":0,"soiltest_view_url":0},{"id":214860,"code":"B4KJ201801010-3109","latitude":"32.4714181","longitude":"130.6100122","source_code":"QS48305468002","project_name":"","survey_name":"\u718a\u672c3\u53f7\u516b\u4ee3\u65e5\u5948\u4e45\u9053\u8def\u9ad8\u7530\u5730\u533a\u5730\u8cea\u8abf\u67fb\u59d4\u8a17\u696d\u52d9","client_name":"\u56fd\u571f\u4ea4\u901a\u7701\u4e5d\u5dde\u5730\u65b9\u6574\u5099\u5c40\u516b\u4ee3\u6cb3\u5ddd\u56fd\u9053\u4e8b\u52d9\u6240","boring_xml_url":40,"boring_view_url":1,"soilmap_view_url":null,"soiltest_xml_url":0,"soiltest_view_url":0},{"id":214859,"code":"B4KJ201801010-3108","latitude":"32.4671964","longitude":"130.6063739","source_code":"QS48305458087","project_name":"","survey_name":"\u4e8c\u898b\u30c8\u30f3\u30cd\u30eb(\u8d77\u70b9\u5074)\u5730\u8cea\u8abf\u67fb\u696d\u52d9","client_name":"\u56fd\u571f\u4ea4\u901a\u7701\u4e5d\u5dde\u5730\u65b9\u6574\u5099\u5c40\u516b\u4ee3\u6cb3\u5ddd\u56fd\u9053\u4e8b\u52d9\u6240","boring_xml_url":40,"boring_view_url":1,"soilmap_view_url":null,"soiltest_xml_url":0,"soiltest_view_url":0},{"id":214858,"code":"B4KJ201801010-3107","latitude":"32.4672242","longitude":"130.6063183","source_code":"QS48305458086","project_name":"","survey_name":"\u4e8c\u898b\u30c8\u30f3\u30cd\u30eb(\u8d77\u70b9\u5074)\u5730\u8cea\u8abf\u67fb\u696d\u52d9","client_name":"\u56fd\u571f\u4ea4\u901a\u7701\u4e5d\u5dde\u5730\u65b9\u6574\u5099\u5c40\u516b\u4ee3\u6cb3\u5ddd\u56fd\u9053\u4e8b\u52d9\u6240","boring_xml_url":40,"boring_view_url":1,"soilmap_view_url":null,"soiltest_xml_url":0,"soiltest_view_url":0},{"id":214857,"code":"B4KJ201801010-3106","latitude":"32.4673075","longitude":"130.6064294","source_code":"QS48305458085","project_name":"","survey_name":"\u4e8c\u898b\u30c8\u30f3\u30cd\u30eb(\u8d77\u70b9\u5074)\u5730\u8cea\u8abf\u67fb\u696d\u52d9","client_name":"\u56fd\u571f\u4ea4\u901a\u7701\u4e5d\u5dde\u5730\u65b9\u6574\u5099\u5c40\u516b\u4ee3\u6cb3\u5ddd\u56fd\u9053\u4e8b\u52d9\u6240","boring_xml_url":40,"boring_view_url":1,"soilmap_view_url":null,"soiltest_xml_url":0,"soiltest_view_url":0},{"id":214856,"code":"B4KJ201801010-3105","latitude":"32.4678631","longitude":"130.6082903","source_code":"QS48305458066","project_name":"","survey_name":"\u5e73\u5c71\u5730\u533a\u5730\u8cea\u8abf\u67fb\u696d\u52d9","client_name":"\u56fd\u571f\u4ea4\u901a\u7701\u4e5d\u5dde\u5730\u65b9\u6574\u5099\u5c40\u516b\u4ee3\u6cb3\u5ddd\u56fd\u9053\u4e8b\u52d9\u6240","boring_xml_url":40,"boring_view_url":1,"soilmap_view_url":null,"soiltest_xml_url":0,"soiltest_view_url":0}]}}