{"header":{"xyz":{"source":[],"mosaic":false},"page":3525,"raw":{"soiltest_result":"0","bbox":"57.598333,109.544722,1.933333,163.806111","page":"3525"},"conditions":{"soiltest_result":0,"north":57.598333,"west":109.544722,"south":1.933333,"east":163.806111},"success":true,"message":""},"data":{"meta":{"total":212844,"page":3525,"pages":7095,"count":30},"values":[{"id":214825,"code":"B4KJ201801010-3074","latitude":"32.4692239","longitude":"130.6086236","source_code":"QS48305458035","project_name":"","survey_name":"\u5e73\u62105\u5e74\u5ea6\u5e73\u5c71\u65b0\u753a\u5730\u533a\u5730\u8cea\u8abf\u67fb(\u305d\u306e2)\u696d\u52d9","client_name":"\u56fd\u571f\u4ea4\u901a\u7701\u4e5d\u5dde\u5730\u65b9\u6574\u5099\u5c40\u516b\u4ee3\u6cb3\u5ddd\u56fd\u9053\u4e8b\u52d9\u6240","boring_xml_url":40,"boring_view_url":1,"soilmap_view_url":null,"soiltest_xml_url":0,"soiltest_view_url":0},{"id":214824,"code":"B4KJ201801010-3073","latitude":"32.4697517","longitude":"130.6086236","source_code":"QS48305458034","project_name":"","survey_name":"\u5e73\u62105\u5e74\u5ea6\u5e73\u5c71\u65b0\u753a\u5730\u533a\u5730\u8cea\u8abf\u67fb(\u305d\u306e2)\u696d\u52d9","client_name":"\u56fd\u571f\u4ea4\u901a\u7701\u4e5d\u5dde\u5730\u65b9\u6574\u5099\u5c40\u516b\u4ee3\u6cb3\u5ddd\u56fd\u9053\u4e8b\u52d9\u6240","boring_xml_url":40,"boring_view_url":1,"soilmap_view_url":null,"soiltest_xml_url":0,"soiltest_view_url":0},{"id":214823,"code":"B4KJ201801010-3072","latitude":"32.4654464","longitude":"130.6041519","source_code":"QS48305458033","project_name":"","survey_name":"\u5e73\u62105\u5e74\u5ea6\u5e73\u5c71\u65b0\u753a\u5730\u533a\u5730\u8cea\u8abf\u67fb(\u305d\u306e2)\u696d\u52d9","client_name":"\u56fd\u571f\u4ea4\u901a\u7701\u4e5d\u5dde\u5730\u65b9\u6574\u5099\u5c40\u516b\u4ee3\u6cb3\u5ddd\u56fd\u9053\u4e8b\u52d9\u6240","boring_xml_url":40,"boring_view_url":1,"soilmap_view_url":null,"soiltest_xml_url":0,"soiltest_view_url":0},{"id":214822,"code":"B4KJ201801010-3071","latitude":"32.4655297","longitude":"130.6042631","source_code":"QS48305458032","project_name":"","survey_name":"\u5e73\u62105\u5e74\u5ea6\u5e73\u5c71\u65b0\u753a\u5730\u533a\u5730\u8cea\u8abf\u67fb(\u305d\u306e2)\u696d\u52d9","client_name":"\u56fd\u571f\u4ea4\u901a\u7701\u4e5d\u5dde\u5730\u65b9\u6574\u5099\u5c40\u516b\u4ee3\u6cb3\u5ddd\u56fd\u9053\u4e8b\u52d9\u6240","boring_xml_url":40,"boring_view_url":1,"soilmap_view_url":null,"soiltest_xml_url":0,"soiltest_view_url":0},{"id":214821,"code":"B4KJ201801010-3070","latitude":"32.4655853","longitude":"130.6041242","source_code":"QS48305458031","project_name":"","survey_name":"\u5e73\u62105\u5e74\u5ea6\u5e73\u5c71\u65b0\u753a\u5730\u533a\u5730\u8cea\u8abf\u67fb(\u305d\u306e2)\u696d\u52d9","client_name":"\u56fd\u571f\u4ea4\u901a\u7701\u4e5d\u5dde\u5730\u65b9\u6574\u5099\u5c40\u516b\u4ee3\u6cb3\u5ddd\u56fd\u9053\u4e8b\u52d9\u6240","boring_xml_url":40,"boring_view_url":1,"soilmap_view_url":null,"soiltest_xml_url":0,"soiltest_view_url":0},{"id":214820,"code":"B4KJ201801010-3069","latitude":"32.468835","longitude":"130.6082903","source_code":"QS48305458030","project_name":"","survey_name":"\u5e73\u5c71\u65b0\u753a\u5730\u533a\u5730\u8cea\u8abf\u67fb\u696d\u52d9","client_name":"\u56fd\u571f\u4ea4\u901a\u7701\u4e5d\u5dde\u5730\u65b9\u6574\u5099\u5c40\u516b\u4ee3\u6cb3\u5ddd\u56fd\u9053\u4e8b\u52d9\u6240","boring_xml_url":40,"boring_view_url":1,"soilmap_view_url":null,"soiltest_xml_url":0,"soiltest_view_url":0},{"id":214819,"code":"B4KJ201801010-3068","latitude":"32.4692794","longitude":"130.6085125","source_code":"QS48305458029","project_name":"","survey_name":"\u5e73\u5c71\u65b0\u753a\u5730\u533a\u5730\u8cea\u8abf\u67fb\u696d\u52d9","client_name":"\u56fd\u571f\u4ea4\u901a\u7701\u4e5d\u5dde\u5730\u65b9\u6574\u5099\u5c40\u516b\u4ee3\u6cb3\u5ddd\u56fd\u9053\u4e8b\u52d9\u6240","boring_xml_url":40,"boring_view_url":1,"soilmap_view_url":null,"soiltest_xml_url":0,"soiltest_view_url":0},{"id":214818,"code":"B4KJ201801010-3067","latitude":"32.4693906","longitude":"130.6085681","source_code":"QS48305458028","project_name":"","survey_name":"\u5e73\u5c71\u65b0\u753a\u5730\u533a\u5730\u8cea\u8abf\u67fb\u696d\u52d9","client_name":"\u56fd\u571f\u4ea4\u901a\u7701\u4e5d\u5dde\u5730\u65b9\u6574\u5099\u5c40\u516b\u4ee3\u6cb3\u5ddd\u56fd\u9053\u4e8b\u52d9\u6240","boring_xml_url":40,"boring_view_url":1,"soilmap_view_url":null,"soiltest_xml_url":0,"soiltest_view_url":0},{"id":214817,"code":"B4KJ201801010-3066","latitude":"32.4695017","longitude":"130.6086792","source_code":"QS48305458027","project_name":"","survey_name":"\u5e73\u5c71\u65b0\u753a\u5730\u533a\u5730\u8cea\u8abf\u67fb\u696d\u52d9","client_name":"\u56fd\u571f\u4ea4\u901a\u7701\u4e5d\u5dde\u5730\u65b9\u6574\u5099\u5c40\u516b\u4ee3\u6cb3\u5ddd\u56fd\u9053\u4e8b\u52d9\u6240","boring_xml_url":40,"boring_view_url":1,"soilmap_view_url":null,"soiltest_xml_url":0,"soiltest_view_url":0},{"id":214816,"code":"B4KJ201801010-3065","latitude":"32.4696128","longitude":"130.6085681","source_code":"QS48305458026","project_name":"","survey_name":"\u5e73\u5c71\u65b0\u753a\u5730\u533a\u5730\u8cea\u8abf\u67fb\u696d\u52d9","client_name":"\u56fd\u571f\u4ea4\u901a\u7701\u4e5d\u5dde\u5730\u65b9\u6574\u5099\u5c40\u516b\u4ee3\u6cb3\u5ddd\u56fd\u9053\u4e8b\u52d9\u6240","boring_xml_url":40,"boring_view_url":1,"soilmap_view_url":null,"soiltest_xml_url":0,"soiltest_view_url":0},{"id":214815,"code":"B4KJ201801010-3064","latitude":"32.4697239","longitude":"130.6089847","source_code":"QS48305458025","project_name":"","survey_name":"\u5e73\u5c71\u65b0\u753a\u5730\u533a\u5730\u8cea\u8abf\u67fb\u696d\u52d9","client_name":"\u56fd\u571f\u4ea4\u901a\u7701\u4e5d\u5dde\u5730\u65b9\u6574\u5099\u5c40\u516b\u4ee3\u6cb3\u5ddd\u56fd\u9053\u4e8b\u52d9\u6240","boring_xml_url":40,"boring_view_url":1,"soilmap_view_url":null,"soiltest_xml_url":0,"soiltest_view_url":0},{"id":214814,"code":"B4KJ201801010-3063","latitude":"32.4658075","longitude":"130.6045964","source_code":"QS48305458024","project_name":"","survey_name":"\u5e73\u62104\u5e74\u5ea6\u5e73\u5c71\u65b0\u753a\u5730\u533a\u5730\u8cea\u8abf\u67fb(\u305d\u306e2)\u59d4\u8a17\u696d\u52d9","client_name":"\u56fd\u571f\u4ea4\u901a\u7701\u4e5d\u5dde\u5730\u65b9\u6574\u5099\u5c40\u516b\u4ee3\u6cb3\u5ddd\u56fd\u9053\u4e8b\u52d9\u6240","boring_xml_url":40,"boring_view_url":1,"soilmap_view_url":null,"soiltest_xml_url":0,"soiltest_view_url":0},{"id":214813,"code":"B4KJ201801010-3062","latitude":"32.4660297","longitude":"130.6047353","source_code":"QS48305458023","project_name":"","survey_name":"\u5e73\u62104\u5e74\u5ea6\u5e73\u5c71\u65b0\u753a\u5730\u533a\u5730\u8cea\u8abf\u67fb(\u305d\u306e2)\u59d4\u8a17\u696d\u52d9","client_name":"\u56fd\u571f\u4ea4\u901a\u7701\u4e5d\u5dde\u5730\u65b9\u6574\u5099\u5c40\u516b\u4ee3\u6cb3\u5ddd\u56fd\u9053\u4e8b\u52d9\u6240","boring_xml_url":40,"boring_view_url":1,"soilmap_view_url":null,"soiltest_xml_url":0,"soiltest_view_url":0},{"id":214812,"code":"B4KJ201801010-3061","latitude":"32.4660297","longitude":"130.6047353","source_code":"QS48305458022","project_name":"","survey_name":"\u5e73\u62104\u5e74\u5ea6\u5e73\u5c71\u65b0\u753a\u5730\u533a\u5730\u8cea\u8abf\u67fb(\u305d\u306e2)\u59d4\u8a17\u696d\u52d9","client_name":"\u56fd\u571f\u4ea4\u901a\u7701\u4e5d\u5dde\u5730\u65b9\u6574\u5099\u5c40\u516b\u4ee3\u6cb3\u5ddd\u56fd\u9053\u4e8b\u52d9\u6240","boring_xml_url":40,"boring_view_url":1,"soilmap_view_url":null,"soiltest_xml_url":0,"soiltest_view_url":0},{"id":214811,"code":"B4KJ201801010-3060","latitude":"32.4662519","longitude":"130.6048739","source_code":"QS48305458021","project_name":"","survey_name":"\u5e73\u62104\u5e74\u5ea6\u5e73\u5c71\u65b0\u753a\u5730\u533a\u5730\u8cea\u8abf\u67fb(\u305d\u306e2)\u59d4\u8a17\u696d\u52d9","client_name":"\u56fd\u571f\u4ea4\u901a\u7701\u4e5d\u5dde\u5730\u65b9\u6574\u5099\u5c40\u516b\u4ee3\u6cb3\u5ddd\u56fd\u9053\u4e8b\u52d9\u6240","boring_xml_url":40,"boring_view_url":1,"soilmap_view_url":null,"soiltest_xml_url":0,"soiltest_view_url":0},{"id":214810,"code":"B4KJ201801010-3059","latitude":"32.4661408","longitude":"130.6050128","source_code":"QS48305458020","project_name":"","survey_name":"\u5e73\u62104\u5e74\u5ea6\u5e73\u5c71\u65b0\u753a\u5730\u533a\u5730\u8cea\u8abf\u67fb(\u305d\u306e2)\u59d4\u8a17\u696d\u52d9","client_name":"\u56fd\u571f\u4ea4\u901a\u7701\u4e5d\u5dde\u5730\u65b9\u6574\u5099\u5c40\u516b\u4ee3\u6cb3\u5ddd\u56fd\u9053\u4e8b\u52d9\u6240","boring_xml_url":40,"boring_view_url":1,"soilmap_view_url":null,"soiltest_xml_url":0,"soiltest_view_url":0},{"id":214809,"code":"B4KJ201801010-3058","latitude":"32.4671131","longitude":"130.605485","source_code":"QS48305458019","project_name":"","survey_name":"\u5e73\u62104\u5e74\u5ea6\u5e73\u5c71\u65b0\u753a\u5730\u533a\u5730\u8cea\u8abf\u67fb(\u305d\u306e1)\u59d4\u8a17\u696d\u52d9","client_name":"\u56fd\u571f\u4ea4\u901a\u7701\u4e5d\u5dde\u5730\u65b9\u6574\u5099\u5c40\u516b\u4ee3\u6cb3\u5ddd\u56fd\u9053\u4e8b\u52d9\u6240","boring_xml_url":40,"boring_view_url":1,"soilmap_view_url":null,"soiltest_xml_url":0,"soiltest_view_url":0},{"id":214808,"code":"B4KJ201801010-3057","latitude":"32.4670019","longitude":"130.6057628","source_code":"QS48305458018","project_name":"","survey_name":"\u5e73\u62104\u5e74\u5ea6\u5e73\u5c71\u65b0\u753a\u5730\u533a\u5730\u8cea\u8abf\u67fb(\u305d\u306e1)\u59d4\u8a17\u696d\u52d9","client_name":"\u56fd\u571f\u4ea4\u901a\u7701\u4e5d\u5dde\u5730\u65b9\u6574\u5099\u5c40\u516b\u4ee3\u6cb3\u5ddd\u56fd\u9053\u4e8b\u52d9\u6240","boring_xml_url":40,"boring_view_url":1,"soilmap_view_url":null,"soiltest_xml_url":0,"soiltest_view_url":0},{"id":214807,"code":"B4KJ201801010-3056","latitude":"32.4671131","longitude":"130.6062072","source_code":"QS48305458017","project_name":"","survey_name":"\u5e73\u62104\u5e74\u5ea6\u5e73\u5c71\u65b0\u753a\u5730\u533a\u5730\u8cea\u8abf\u67fb(\u305d\u306e1)\u59d4\u8a17\u696d\u52d9","client_name":"\u56fd\u571f\u4ea4\u901a\u7701\u4e5d\u5dde\u5730\u65b9\u6574\u5099\u5c40\u516b\u4ee3\u6cb3\u5ddd\u56fd\u9053\u4e8b\u52d9\u6240","boring_xml_url":40,"boring_view_url":1,"soilmap_view_url":null,"soiltest_xml_url":0,"soiltest_view_url":0},{"id":214806,"code":"B4KJ201801010-3055","latitude":"32.4673353","longitude":"130.6068461","source_code":"QS48305458016","project_name":"","survey_name":"\u5e73\u62104\u5e74\u5ea6\u5e73\u5c71\u65b0\u753a\u5730\u533a\u5730\u8cea\u8abf\u67fb(\u305d\u306e1)\u59d4\u8a17\u696d\u52d9","client_name":"\u56fd\u571f\u4ea4\u901a\u7701\u4e5d\u5dde\u5730\u65b9\u6574\u5099\u5c40\u516b\u4ee3\u6cb3\u5ddd\u56fd\u9053\u4e8b\u52d9\u6240","boring_xml_url":40,"boring_view_url":1,"soilmap_view_url":null,"soiltest_xml_url":0,"soiltest_view_url":0},{"id":214805,"code":"B4KJ201801010-3054","latitude":"32.4673353","longitude":"130.6071239","source_code":"QS48305458015","project_name":"","survey_name":"\u5e73\u62104\u5e74\u5ea6\u5e73\u5c71\u65b0\u753a\u5730\u533a\u5730\u8cea\u8abf\u67fb(\u305d\u306e1)\u59d4\u8a17\u696d\u52d9","client_name":"\u56fd\u571f\u4ea4\u901a\u7701\u4e5d\u5dde\u5730\u65b9\u6574\u5099\u5c40\u516b\u4ee3\u6cb3\u5ddd\u56fd\u9053\u4e8b\u52d9\u6240","boring_xml_url":40,"boring_view_url":1,"soilmap_view_url":null,"soiltest_xml_url":0,"soiltest_view_url":0},{"id":214804,"code":"B4KJ201801010-3053","latitude":"32.4676964","longitude":"130.6074017","source_code":"QS48305458014","project_name":"","survey_name":"\u5e73\u62104\u5e74\u5ea6\u5e73\u5c71\u65b0\u753a\u5730\u533a\u5730\u8cea\u8abf\u67fb(\u305d\u306e1)\u59d4\u8a17\u696d\u52d9","client_name":"\u56fd\u571f\u4ea4\u901a\u7701\u4e5d\u5dde\u5730\u65b9\u6574\u5099\u5c40\u516b\u4ee3\u6cb3\u5ddd\u56fd\u9053\u4e8b\u52d9\u6240","boring_xml_url":40,"boring_view_url":1,"soilmap_view_url":null,"soiltest_xml_url":0,"soiltest_view_url":0},{"id":214803,"code":"B4KJ201801010-3052","latitude":"32.4675853","longitude":"130.6074017","source_code":"QS48305458013","project_name":"","survey_name":"\u5e73\u62104\u5e74\u5ea6\u5e73\u5c71\u65b0\u753a\u5730\u533a\u5730\u8cea\u8abf\u67fb(\u305d\u306e1)\u59d4\u8a17\u696d\u52d9","client_name":"\u56fd\u571f\u4ea4\u901a\u7701\u4e5d\u5dde\u5730\u65b9\u6574\u5099\u5c40\u516b\u4ee3\u6cb3\u5ddd\u56fd\u9053\u4e8b\u52d9\u6240","boring_xml_url":40,"boring_view_url":1,"soilmap_view_url":null,"soiltest_xml_url":0,"soiltest_view_url":0},{"id":214802,"code":"B4KJ201801010-3051","latitude":"32.4676964","longitude":"130.6075681","source_code":"QS48305458012","project_name":"","survey_name":"\u5e73\u62104\u5e74\u5ea6\u5e73\u5c71\u65b0\u753a\u5730\u533a\u5730\u8cea\u8abf\u67fb(\u305d\u306e1)\u59d4\u8a17\u696d\u52d9","client_name":"\u56fd\u571f\u4ea4\u901a\u7701\u4e5d\u5dde\u5730\u65b9\u6574\u5099\u5c40\u516b\u4ee3\u6cb3\u5ddd\u56fd\u9053\u4e8b\u52d9\u6240","boring_xml_url":40,"boring_view_url":1,"soilmap_view_url":null,"soiltest_xml_url":0,"soiltest_view_url":0},{"id":214801,"code":"B4KJ201801010-3050","latitude":"32.4680294","longitude":"130.6077903","source_code":"QS48305458011","project_name":"","survey_name":"\u5e73\u62104\u5e74\u5ea6\u5e73\u5c71\u65b0\u753a\u5730\u533a\u5730\u8cea\u8abf\u67fb(\u305d\u306e1)\u59d4\u8a17\u696d\u52d9","client_name":"\u56fd\u571f\u4ea4\u901a\u7701\u4e5d\u5dde\u5730\u65b9\u6574\u5099\u5c40\u516b\u4ee3\u6cb3\u5ddd\u56fd\u9053\u4e8b\u52d9\u6240","boring_xml_url":40,"boring_view_url":1,"soilmap_view_url":null,"soiltest_xml_url":0,"soiltest_view_url":0},{"id":214800,"code":"B4KJ201801010-3049","latitude":"32.4661131","longitude":"130.6053461","source_code":"QS48305458010","project_name":"","survey_name":"\u5e73\u62104\u5e74\u5ea6\u5e73\u5c71\u65b0\u753a\u5730\u533a\u5730\u8cea\u8abf\u67fb(\u305d\u306e1)\u59d4\u8a17\u696d\u52d9","client_name":"\u56fd\u571f\u4ea4\u901a\u7701\u4e5d\u5dde\u5730\u65b9\u6574\u5099\u5c40\u516b\u4ee3\u6cb3\u5ddd\u56fd\u9053\u4e8b\u52d9\u6240","boring_xml_url":40,"boring_view_url":1,"soilmap_view_url":null,"soiltest_xml_url":0,"soiltest_view_url":0},{"id":214799,"code":"B4KJ201801010-3048","latitude":"32.4661686","longitude":"130.6054572","source_code":"QS48305458005","project_name":"","survey_name":"\u9ad8\u7530\u5730\u533a\u5730\u8cea\u8abf\u67fb(\u305d\u306e2)\u59d4\u8a17\u696d\u52d9","client_name":"\u56fd\u571f\u4ea4\u901a\u7701\u4e5d\u5dde\u5730\u65b9\u6574\u5099\u5c40\u516b\u4ee3\u6cb3\u5ddd\u56fd\u9053\u4e8b\u52d9\u6240","boring_xml_url":40,"boring_view_url":1,"soilmap_view_url":null,"soiltest_xml_url":0,"soiltest_view_url":0},{"id":214798,"code":"B4KJ201801010-3047","latitude":"32.4662242","longitude":"130.605485","source_code":"QS48305458004","project_name":"","survey_name":"\u9ad8\u7530\u5730\u533a\u5730\u8cea\u8abf\u67fb(\u305d\u306e2)\u59d4\u8a17\u696d\u52d9","client_name":"\u56fd\u571f\u4ea4\u901a\u7701\u4e5d\u5dde\u5730\u65b9\u6574\u5099\u5c40\u516b\u4ee3\u6cb3\u5ddd\u56fd\u9053\u4e8b\u52d9\u6240","boring_xml_url":40,"boring_view_url":1,"soilmap_view_url":null,"soiltest_xml_url":0,"soiltest_view_url":0},{"id":214797,"code":"B4KJ201801010-3046","latitude":"32.4673631","longitude":"130.6070961","source_code":"QS48305458003","project_name":"","survey_name":"\u9ad8\u7530\u5730\u533a\u5730\u8cea\u8abf\u67fb(\u305d\u306e2)\u59d4\u8a17\u696d\u52d9","client_name":"\u56fd\u571f\u4ea4\u901a\u7701\u4e5d\u5dde\u5730\u65b9\u6574\u5099\u5c40\u516b\u4ee3\u6cb3\u5ddd\u56fd\u9053\u4e8b\u52d9\u6240","boring_xml_url":40,"boring_view_url":1,"soilmap_view_url":null,"soiltest_xml_url":0,"soiltest_view_url":0},{"id":214796,"code":"B4KJ201801010-3045","latitude":"32.4689183","longitude":"130.6085681","source_code":"QS48305458002","project_name":"","survey_name":"\u9ad8\u7530\u5730\u533a\u5730\u8cea\u8abf\u67fb(\u305d\u306e2)\u59d4\u8a17\u696d\u52d9","client_name":"\u56fd\u571f\u4ea4\u901a\u7701\u4e5d\u5dde\u5730\u65b9\u6574\u5099\u5c40\u516b\u4ee3\u6cb3\u5ddd\u56fd\u9053\u4e8b\u52d9\u6240","boring_xml_url":40,"boring_view_url":1,"soilmap_view_url":null,"soiltest_xml_url":0,"soiltest_view_url":0}]}}