{"header":{"xyz":{"source":[],"mosaic":false},"page":3534,"raw":{"soiltest_result":"0","bbox":"57.598333,109.544722,1.933333,163.806111","page":"3534"},"conditions":{"soiltest_result":0,"north":57.598333,"west":109.544722,"south":1.933333,"east":163.806111},"success":true,"message":""},"data":{"meta":{"total":212844,"page":3534,"pages":7095,"count":30},"values":[{"id":214555,"code":"B4KJ201801010-2804","latitude":"32.3967639","longitude":"130.8217731","source_code":"QS48304675049","project_name":"","survey_name":"\u982d\u5730\u5730\u533a\u5730\u8cea\u8abf\u67fb(\u305d\u306e3)\u696d\u52d9","client_name":"\u56fd\u571f\u4ea4\u901a\u7701\u4e5d\u5dde\u5730\u65b9\u6574\u5099\u5c40\u5ddd\u8fba\u5ddd\u30c0\u30e0\u7802\u9632\u4e8b\u52d9\u6240","boring_xml_url":40,"boring_view_url":1,"soilmap_view_url":null,"soiltest_xml_url":0,"soiltest_view_url":0},{"id":214554,"code":"B4KJ201801010-2803","latitude":"32.3976247","longitude":"130.8222731","source_code":"QS48304675048","project_name":"","survey_name":"\u982d\u5730\u5730\u533a\u5730\u8cea\u8abf\u67fb(\u305d\u306e2)\u696d\u52d9","client_name":"\u56fd\u571f\u4ea4\u901a\u7701\u4e5d\u5dde\u5730\u65b9\u6574\u5099\u5c40\u5ddd\u8fba\u5ddd\u30c0\u30e0\u7802\u9632\u4e8b\u52d9\u6240","boring_xml_url":40,"boring_view_url":1,"soilmap_view_url":null,"soiltest_xml_url":0,"soiltest_view_url":0},{"id":214553,"code":"B4KJ201801010-2802","latitude":"32.3977636","longitude":"130.8224675","source_code":"QS48304675047","project_name":"","survey_name":"\u982d\u5730\u5730\u533a\u5730\u8cea\u8abf\u67fb(\u305d\u306e2)\u696d\u52d9","client_name":"\u56fd\u571f\u4ea4\u901a\u7701\u4e5d\u5dde\u5730\u65b9\u6574\u5099\u5c40\u5ddd\u8fba\u5ddd\u30c0\u30e0\u7802\u9632\u4e8b\u52d9\u6240","boring_xml_url":40,"boring_view_url":1,"soilmap_view_url":null,"soiltest_xml_url":0,"soiltest_view_url":0},{"id":214552,"code":"B4KJ201801010-2801","latitude":"32.4010131","longitude":"130.8105794","source_code":"QS48304675046","project_name":"","survey_name":"\u9ad8\u91ce\u5730\u533a\u53ca\u3073\u4e0b\u982d\u5730\u6a4b\u5730\u8cea\u8abf\u67fb\u696d\u52d9","client_name":"\u56fd\u571f\u4ea4\u901a\u7701\u4e5d\u5dde\u5730\u65b9\u6574\u5099\u5c40\u5ddd\u8fba\u5ddd\u30c0\u30e0\u7802\u9632\u4e8b\u52d9\u6240","boring_xml_url":40,"boring_view_url":1,"soilmap_view_url":null,"soiltest_xml_url":0,"soiltest_view_url":0},{"id":214551,"code":"B4KJ201801010-2800","latitude":"32.4010131","longitude":"130.8103572","source_code":"QS48304675045","project_name":"","survey_name":"\u9ad8\u91ce\u5730\u533a\u53ca\u3073\u4e0b\u982d\u5730\u6a4b\u5730\u8cea\u8abf\u67fb\u696d\u52d9","client_name":"\u56fd\u571f\u4ea4\u901a\u7701\u4e5d\u5dde\u5730\u65b9\u6574\u5099\u5c40\u5ddd\u8fba\u5ddd\u30c0\u30e0\u7802\u9632\u4e8b\u52d9\u6240","boring_xml_url":40,"boring_view_url":1,"soilmap_view_url":null,"soiltest_xml_url":0,"soiltest_view_url":0},{"id":214550,"code":"B4KJ201801010-2799","latitude":"32.3997633","longitude":"130.8161903","source_code":"QS48304675044","project_name":"","survey_name":"\u4ed8\u66ff\u770c\u905325\u53f7\u5730\u8cea\u8abf\u67fb\u696d\u52d9","client_name":"\u56fd\u571f\u4ea4\u901a\u7701\u4e5d\u5dde\u5730\u65b9\u6574\u5099\u5c40\u5ddd\u8fba\u5ddd\u30c0\u30e0\u7802\u9632\u4e8b\u52d9\u6240","boring_xml_url":40,"boring_view_url":1,"soilmap_view_url":null,"soiltest_xml_url":0,"soiltest_view_url":0},{"id":214549,"code":"B4KJ201801010-2798","latitude":"32.3999856","longitude":"130.8161903","source_code":"QS48304675043","project_name":"","survey_name":"\u4ed8\u66ff\u770c\u905325\u53f7\u5730\u8cea\u8abf\u67fb\u696d\u52d9","client_name":"\u56fd\u571f\u4ea4\u901a\u7701\u4e5d\u5dde\u5730\u65b9\u6574\u5099\u5c40\u5ddd\u8fba\u5ddd\u30c0\u30e0\u7802\u9632\u4e8b\u52d9\u6240","boring_xml_url":40,"boring_view_url":1,"soilmap_view_url":null,"soiltest_xml_url":0,"soiltest_view_url":0},{"id":214548,"code":"B4KJ201801010-2797","latitude":"32.3951528","longitude":"130.8191344","source_code":"QS48304675042","project_name":"","survey_name":"\u4ed8\u66ff\u6751\u9053\u571f\u4f1a\u5e73\u5730\u533a\u5730\u8cea\u8abf\u67fb\u696d\u52d9","client_name":"\u56fd\u571f\u4ea4\u901a\u7701\u4e5d\u5dde\u5730\u65b9\u6574\u5099\u5c40\u5ddd\u8fba\u5ddd\u30c0\u30e0\u7802\u9632\u4e8b\u52d9\u6240","boring_xml_url":40,"boring_view_url":1,"soilmap_view_url":null,"soiltest_xml_url":0,"soiltest_view_url":0},{"id":214547,"code":"B4KJ201801010-2796","latitude":"32.3954028","longitude":"130.8188844","source_code":"QS48304675041","project_name":"","survey_name":"\u4ed8\u66ff\u6751\u9053\u571f\u4f1a\u5e73\u5730\u533a\u5730\u8cea\u8abf\u67fb\u696d\u52d9","client_name":"\u56fd\u571f\u4ea4\u901a\u7701\u4e5d\u5dde\u5730\u65b9\u6574\u5099\u5c40\u5ddd\u8fba\u5ddd\u30c0\u30e0\u7802\u9632\u4e8b\u52d9\u6240","boring_xml_url":40,"boring_view_url":1,"soilmap_view_url":null,"soiltest_xml_url":0,"soiltest_view_url":0},{"id":214546,"code":"B4KJ201801010-2795","latitude":"32.3955139","longitude":"130.8182456","source_code":"QS48304675040","project_name":"","survey_name":"\u4ed8\u66ff\u6751\u9053\u571f\u4f1a\u5e73\u5730\u533a\u5730\u8cea\u8abf\u67fb\u696d\u52d9","client_name":"\u56fd\u571f\u4ea4\u901a\u7701\u4e5d\u5dde\u5730\u65b9\u6574\u5099\u5c40\u5ddd\u8fba\u5ddd\u30c0\u30e0\u7802\u9632\u4e8b\u52d9\u6240","boring_xml_url":40,"boring_view_url":1,"soilmap_view_url":null,"soiltest_xml_url":0,"soiltest_view_url":0},{"id":214545,"code":"B4KJ201801010-2794","latitude":"32.3959583","longitude":"130.8180511","source_code":"QS48304675039","project_name":"","survey_name":"\u4ed8\u66ff\u6751\u9053\u571f\u4f1a\u5e73\u5730\u533a\u5730\u8cea\u8abf\u67fb\u696d\u52d9","client_name":"\u56fd\u571f\u4ea4\u901a\u7701\u4e5d\u5dde\u5730\u65b9\u6574\u5099\u5c40\u5ddd\u8fba\u5ddd\u30c0\u30e0\u7802\u9632\u4e8b\u52d9\u6240","boring_xml_url":40,"boring_view_url":1,"soilmap_view_url":null,"soiltest_xml_url":0,"soiltest_view_url":0},{"id":214544,"code":"B4KJ201801010-2793","latitude":"32.3958194","longitude":"130.8180236","source_code":"QS48304675038","project_name":"","survey_name":"\u4ed8\u66ff\u6751\u9053\u571f\u4f1a\u5e73\u5730\u533a\u5730\u8cea\u8abf\u67fb\u696d\u52d9","client_name":"\u56fd\u571f\u4ea4\u901a\u7701\u4e5d\u5dde\u5730\u65b9\u6574\u5099\u5c40\u5ddd\u8fba\u5ddd\u30c0\u30e0\u7802\u9632\u4e8b\u52d9\u6240","boring_xml_url":40,"boring_view_url":1,"soilmap_view_url":null,"soiltest_xml_url":0,"soiltest_view_url":0},{"id":214543,"code":"B4KJ201801010-2792","latitude":"32.3961528","longitude":"130.8178014","source_code":"QS48304675037","project_name":"","survey_name":"\u4ed8\u66ff\u6751\u9053\u571f\u4f1a\u5e73\u5730\u533a\u5730\u8cea\u8abf\u67fb\u696d\u52d9","client_name":"\u56fd\u571f\u4ea4\u901a\u7701\u4e5d\u5dde\u5730\u65b9\u6574\u5099\u5c40\u5ddd\u8fba\u5ddd\u30c0\u30e0\u7802\u9632\u4e8b\u52d9\u6240","boring_xml_url":40,"boring_view_url":1,"soilmap_view_url":null,"soiltest_xml_url":0,"soiltest_view_url":0},{"id":214542,"code":"B4KJ201801010-2791","latitude":"32.3966525","longitude":"130.8171069","source_code":"QS48304675036","project_name":"","survey_name":"\u4ed8\u66ff\u6751\u9053\u571f\u4f1a\u5e73\u5730\u533a\u5730\u8cea\u8abf\u67fb\u696d\u52d9","client_name":"\u56fd\u571f\u4ea4\u901a\u7701\u4e5d\u5dde\u5730\u65b9\u6574\u5099\u5c40\u5ddd\u8fba\u5ddd\u30c0\u30e0\u7802\u9632\u4e8b\u52d9\u6240","boring_xml_url":40,"boring_view_url":1,"soilmap_view_url":null,"soiltest_xml_url":0,"soiltest_view_url":0},{"id":214541,"code":"B4KJ201801010-2790","latitude":"32.3969858","longitude":"130.8158847","source_code":"QS48304675035","project_name":"","survey_name":"\u4ed8\u66ff\u6751\u9053\u571f\u4f1a\u5e73\u5730\u533a\u5730\u8cea\u8abf\u67fb\u696d\u52d9","client_name":"\u56fd\u571f\u4ea4\u901a\u7701\u4e5d\u5dde\u5730\u65b9\u6574\u5099\u5c40\u5ddd\u8fba\u5ddd\u30c0\u30e0\u7802\u9632\u4e8b\u52d9\u6240","boring_xml_url":40,"boring_view_url":1,"soilmap_view_url":null,"soiltest_xml_url":0,"soiltest_view_url":0},{"id":214540,"code":"B4KJ201801010-2789","latitude":"32.3969858","longitude":"130.8148847","source_code":"QS48304675034","project_name":"","survey_name":"\u4ed8\u66ff\u6751\u9053\u571f\u4f1a\u5e73\u5730\u533a\u5730\u8cea\u8abf\u67fb\u696d\u52d9","client_name":"\u56fd\u571f\u4ea4\u901a\u7701\u4e5d\u5dde\u5730\u65b9\u6574\u5099\u5c40\u5ddd\u8fba\u5ddd\u30c0\u30e0\u7802\u9632\u4e8b\u52d9\u6240","boring_xml_url":40,"boring_view_url":1,"soilmap_view_url":null,"soiltest_xml_url":0,"soiltest_view_url":0},{"id":214539,"code":"B4KJ201801010-2788","latitude":"32.3970969","longitude":"130.8131628","source_code":"QS48304675033","project_name":"","survey_name":"\u4ed8\u66ff\u6751\u9053\u571f\u4f1a\u5e73\u5730\u533a\u5730\u8cea\u8abf\u67fb\u696d\u52d9","client_name":"\u56fd\u571f\u4ea4\u901a\u7701\u4e5d\u5dde\u5730\u65b9\u6574\u5099\u5c40\u5ddd\u8fba\u5ddd\u30c0\u30e0\u7802\u9632\u4e8b\u52d9\u6240","boring_xml_url":40,"boring_view_url":1,"soilmap_view_url":null,"soiltest_xml_url":0,"soiltest_view_url":0},{"id":214538,"code":"B4KJ201801010-2787","latitude":"32.3970969","longitude":"130.8126906","source_code":"QS48304675032","project_name":"","survey_name":"\u4ed8\u66ff\u6751\u9053\u571f\u4f1a\u5e73\u5730\u533a\u5730\u8cea\u8abf\u67fb\u696d\u52d9","client_name":"\u56fd\u571f\u4ea4\u901a\u7701\u4e5d\u5dde\u5730\u65b9\u6574\u5099\u5c40\u5ddd\u8fba\u5ddd\u30c0\u30e0\u7802\u9632\u4e8b\u52d9\u6240","boring_xml_url":40,"boring_view_url":1,"soilmap_view_url":null,"soiltest_xml_url":0,"soiltest_view_url":0},{"id":214537,"code":"B4KJ201801010-2786","latitude":"32.3970969","longitude":"130.8124406","source_code":"QS48304675031","project_name":"","survey_name":"\u4ed8\u66ff\u6751\u9053\u571f\u4f1a\u5e73\u5730\u533a\u5730\u8cea\u8abf\u67fb\u696d\u52d9","client_name":"\u56fd\u571f\u4ea4\u901a\u7701\u4e5d\u5dde\u5730\u65b9\u6574\u5099\u5c40\u5ddd\u8fba\u5ddd\u30c0\u30e0\u7802\u9632\u4e8b\u52d9\u6240","boring_xml_url":40,"boring_view_url":1,"soilmap_view_url":null,"soiltest_xml_url":0,"soiltest_view_url":0},{"id":214536,"code":"B4KJ201801010-2785","latitude":"32.3970969","longitude":"130.8122183","source_code":"QS48304675030","project_name":"","survey_name":"\u4ed8\u66ff\u6751\u9053\u571f\u4f1a\u5e73\u5730\u533a\u5730\u8cea\u8abf\u67fb\u696d\u52d9","client_name":"\u56fd\u571f\u4ea4\u901a\u7701\u4e5d\u5dde\u5730\u65b9\u6574\u5099\u5c40\u5ddd\u8fba\u5ddd\u30c0\u30e0\u7802\u9632\u4e8b\u52d9\u6240","boring_xml_url":40,"boring_view_url":1,"soilmap_view_url":null,"soiltest_xml_url":0,"soiltest_view_url":0},{"id":214535,"code":"B4KJ201801010-2784","latitude":"32.3971247","longitude":"130.8119683","source_code":"QS48304675029","project_name":"","survey_name":"\u4ed8\u66ff\u6751\u9053\u571f\u4f1a\u5e73\u5730\u533a\u5730\u8cea\u8abf\u67fb\u696d\u52d9","client_name":"\u56fd\u571f\u4ea4\u901a\u7701\u4e5d\u5dde\u5730\u65b9\u6574\u5099\u5c40\u5ddd\u8fba\u5ddd\u30c0\u30e0\u7802\u9632\u4e8b\u52d9\u6240","boring_xml_url":40,"boring_view_url":1,"soilmap_view_url":null,"soiltest_xml_url":0,"soiltest_view_url":0},{"id":214534,"code":"B4KJ201801010-2783","latitude":"32.3972081","longitude":"130.8116628","source_code":"QS48304675028","project_name":"","survey_name":"\u4ed8\u66ff\u6751\u9053\u571f\u4f1a\u5e73\u5730\u533a\u5730\u8cea\u8abf\u67fb\u696d\u52d9","client_name":"\u56fd\u571f\u4ea4\u901a\u7701\u4e5d\u5dde\u5730\u65b9\u6574\u5099\u5c40\u5ddd\u8fba\u5ddd\u30c0\u30e0\u7802\u9632\u4e8b\u52d9\u6240","boring_xml_url":40,"boring_view_url":1,"soilmap_view_url":null,"soiltest_xml_url":0,"soiltest_view_url":0},{"id":214533,"code":"B4KJ201801010-2782","latitude":"32.3972636","longitude":"130.8114683","source_code":"QS48304675027","project_name":"","survey_name":"\u4ed8\u66ff\u6751\u9053\u571f\u4f1a\u5e73\u5730\u533a\u5730\u8cea\u8abf\u67fb\u696d\u52d9","client_name":"\u56fd\u571f\u4ea4\u901a\u7701\u4e5d\u5dde\u5730\u65b9\u6574\u5099\u5c40\u5ddd\u8fba\u5ddd\u30c0\u30e0\u7802\u9632\u4e8b\u52d9\u6240","boring_xml_url":40,"boring_view_url":1,"soilmap_view_url":null,"soiltest_xml_url":0,"soiltest_view_url":0},{"id":214532,"code":"B4KJ201801010-2781","latitude":"32.3997911","longitude":"130.8104408","source_code":"QS48304675026","project_name":"","survey_name":"\u9ad8\u91ce\u30fb\u571f\u4f1a\u5e73\u5730\u533a\u5730\u8cea\u8abf\u67fb\u696d\u52d9","client_name":"\u56fd\u571f\u4ea4\u901a\u7701\u4e5d\u5dde\u5730\u65b9\u6574\u5099\u5c40\u5ddd\u8fba\u5ddd\u30c0\u30e0\u7802\u9632\u4e8b\u52d9\u6240","boring_xml_url":40,"boring_view_url":1,"soilmap_view_url":null,"soiltest_xml_url":0,"soiltest_view_url":0},{"id":214531,"code":"B4KJ201801010-2780","latitude":"32.3984022","longitude":"130.8121072","source_code":"QS48304675025","project_name":"","survey_name":"\u9ad8\u91ce\u30fb\u571f\u4f1a\u5e73\u5730\u533a\u5730\u8cea\u8abf\u67fb\u696d\u52d9","client_name":"\u56fd\u571f\u4ea4\u901a\u7701\u4e5d\u5dde\u5730\u65b9\u6574\u5099\u5c40\u5ddd\u8fba\u5ddd\u30c0\u30e0\u7802\u9632\u4e8b\u52d9\u6240","boring_xml_url":40,"boring_view_url":1,"soilmap_view_url":null,"soiltest_xml_url":0,"soiltest_view_url":0},{"id":214530,"code":"B4KJ201801010-2779","latitude":"32.3989578","longitude":"130.812385","source_code":"QS48304675024","project_name":"","survey_name":"\u9ad8\u91ce\u30fb\u571f\u4f1a\u5e73\u5730\u533a\u5730\u8cea\u8abf\u67fb\u696d\u52d9","client_name":"\u56fd\u571f\u4ea4\u901a\u7701\u4e5d\u5dde\u5730\u65b9\u6574\u5099\u5c40\u5ddd\u8fba\u5ddd\u30c0\u30e0\u7802\u9632\u4e8b\u52d9\u6240","boring_xml_url":40,"boring_view_url":1,"soilmap_view_url":null,"soiltest_xml_url":0,"soiltest_view_url":0},{"id":214529,"code":"B4KJ201801010-2778","latitude":"32.3989578","longitude":"130.8165514","source_code":"QS48304675023","project_name":"","survey_name":"\u9ad8\u91ce\u30fb\u571f\u4f1a\u5e73\u5730\u533a\u5730\u8cea\u8abf\u67fb\u696d\u52d9","client_name":"\u56fd\u571f\u4ea4\u901a\u7701\u4e5d\u5dde\u5730\u65b9\u6574\u5099\u5c40\u5ddd\u8fba\u5ddd\u30c0\u30e0\u7802\u9632\u4e8b\u52d9\u6240","boring_xml_url":40,"boring_view_url":1,"soilmap_view_url":null,"soiltest_xml_url":0,"soiltest_view_url":0},{"id":214528,"code":"B4KJ201801010-2777","latitude":"32.3989581","longitude":"130.81794","source_code":"QS48304675022","project_name":"","survey_name":"\u9ad8\u91ce\u30fb\u571f\u4f1a\u5e73\u5730\u533a\u5730\u8cea\u8abf\u67fb\u696d\u52d9","client_name":"\u56fd\u571f\u4ea4\u901a\u7701\u4e5d\u5dde\u5730\u65b9\u6574\u5099\u5c40\u5ddd\u8fba\u5ddd\u30c0\u30e0\u7802\u9632\u4e8b\u52d9\u6240","boring_xml_url":40,"boring_view_url":1,"soilmap_view_url":null,"soiltest_xml_url":0,"soiltest_view_url":0},{"id":214527,"code":"B4KJ201801010-2776","latitude":"32.3992356","longitude":"130.81794","source_code":"QS48304675021","project_name":"","survey_name":"\u9ad8\u91ce\u30fb\u571f\u4f1a\u5e73\u5730\u533a\u5730\u8cea\u8abf\u67fb\u696d\u52d9","client_name":"\u56fd\u571f\u4ea4\u901a\u7701\u4e5d\u5dde\u5730\u65b9\u6574\u5099\u5c40\u5ddd\u8fba\u5ddd\u30c0\u30e0\u7802\u9632\u4e8b\u52d9\u6240","boring_xml_url":40,"boring_view_url":1,"soilmap_view_url":null,"soiltest_xml_url":0,"soiltest_view_url":0},{"id":214526,"code":"B4KJ201801010-2775","latitude":"32.3970139","longitude":"130.8218286","source_code":"QS48304675020","project_name":"","survey_name":"\u9ad8\u91ce\u30fb\u571f\u4f1a\u5e73\u5730\u533a\u5730\u8cea\u8abf\u67fb\u696d\u52d9","client_name":"\u56fd\u571f\u4ea4\u901a\u7701\u4e5d\u5dde\u5730\u65b9\u6574\u5099\u5c40\u5ddd\u8fba\u5ddd\u30c0\u30e0\u7802\u9632\u4e8b\u52d9\u6240","boring_xml_url":40,"boring_view_url":1,"soilmap_view_url":null,"soiltest_xml_url":0,"soiltest_view_url":0}]}}