{"header":{"xyz":{"source":[],"mosaic":false},"page":3545,"raw":{"soiltest_result":"0","bbox":"57.598333,109.544722,1.933333,163.806111","page":"3545"},"conditions":{"soiltest_result":0,"north":57.598333,"west":109.544722,"south":1.933333,"east":163.806111},"success":true,"message":""},"data":{"meta":{"total":212844,"page":3545,"pages":7095,"count":30},"values":[{"id":214225,"code":"B4KJ201801010-2474","latitude":"32.3577408","longitude":"130.8466608","source_code":"QS48304627051","project_name":"","survey_name":"\u91ce\u3005\u8107\u5730\u533a\u5916\u5730\u8cea\u8abf\u67fb\u696d\u52d9","client_name":"\u56fd\u571f\u4ea4\u901a\u7701\u4e5d\u5dde\u5730\u65b9\u6574\u5099\u5c40\u5ddd\u8fba\u5ddd\u30c0\u30e0\u7802\u9632\u4e8b\u52d9\u6240","boring_xml_url":40,"boring_view_url":1,"soilmap_view_url":null,"soiltest_xml_url":0,"soiltest_view_url":0},{"id":214224,"code":"B4KJ201801010-2473","latitude":"32.3574631","longitude":"130.8468275","source_code":"QS48304627049","project_name":"","survey_name":"\u91ce\u3005\u8107\u5730\u8cea\u8abf\u67fb\u696d\u52d9","client_name":"\u56fd\u571f\u4ea4\u901a\u7701\u4e5d\u5dde\u5730\u65b9\u6574\u5099\u5c40\u5ddd\u8fba\u5ddd\u30c0\u30e0\u7802\u9632\u4e8b\u52d9\u6240","boring_xml_url":40,"boring_view_url":1,"soilmap_view_url":null,"soiltest_xml_url":0,"soiltest_view_url":0},{"id":214223,"code":"B4KJ201801010-2472","latitude":"32.3574631","longitude":"130.8468553","source_code":"QS48304627048","project_name":"","survey_name":"\u91ce\u3005\u8107\u5730\u8cea\u8abf\u67fb\u696d\u52d9","client_name":"\u56fd\u571f\u4ea4\u901a\u7701\u4e5d\u5dde\u5730\u65b9\u6574\u5099\u5c40\u5ddd\u8fba\u5ddd\u30c0\u30e0\u7802\u9632\u4e8b\u52d9\u6240","boring_xml_url":40,"boring_view_url":1,"soilmap_view_url":null,"soiltest_xml_url":0,"soiltest_view_url":0},{"id":214222,"code":"B4KJ201801010-2471","latitude":"32.3550744","longitude":"130.8409947","source_code":"QS48304627047","project_name":"","survey_name":"\u6e05\u697d\u5730\u533a\u5730\u8cea\u8abf\u67fb(\u305d\u306e4)\u59161\u4ef6\u696d\u52d9","client_name":"\u56fd\u571f\u4ea4\u901a\u7701\u4e5d\u5dde\u5730\u65b9\u6574\u5099\u5c40\u5ddd\u8fba\u5ddd\u30c0\u30e0\u7802\u9632\u4e8b\u52d9\u6240","boring_xml_url":40,"boring_view_url":1,"soilmap_view_url":null,"soiltest_xml_url":0,"soiltest_view_url":0},{"id":214221,"code":"B4KJ201801010-2470","latitude":"32.3550744","longitude":"130.8407169","source_code":"QS48304627046","project_name":"","survey_name":"\u6e05\u697d\u5730\u533a\u5730\u8cea\u8abf\u67fb(\u305d\u306e4)\u59161\u4ef6\u696d\u52d9","client_name":"\u56fd\u571f\u4ea4\u901a\u7701\u4e5d\u5dde\u5730\u65b9\u6574\u5099\u5c40\u5ddd\u8fba\u5ddd\u30c0\u30e0\u7802\u9632\u4e8b\u52d9\u6240","boring_xml_url":40,"boring_view_url":1,"soilmap_view_url":null,"soiltest_xml_url":0,"soiltest_view_url":0},{"id":214220,"code":"B4KJ201801010-2469","latitude":"32.3550744","longitude":"130.8404392","source_code":"QS48304627045","project_name":"","survey_name":"\u6e05\u697d\u5730\u533a\u5730\u8cea\u8abf\u67fb(\u305d\u306e4)\u59161\u4ef6\u696d\u52d9","client_name":"\u56fd\u571f\u4ea4\u901a\u7701\u4e5d\u5dde\u5730\u65b9\u6574\u5099\u5c40\u5ddd\u8fba\u5ddd\u30c0\u30e0\u7802\u9632\u4e8b\u52d9\u6240","boring_xml_url":40,"boring_view_url":1,"soilmap_view_url":null,"soiltest_xml_url":0,"soiltest_view_url":0},{"id":214219,"code":"B4KJ201801010-2468","latitude":"32.3545189","longitude":"130.8409947","source_code":"QS48304627044","project_name":"","survey_name":"\u6e05\u697d\u5730\u533a\u5730\u8cea\u8abf\u67fb(\u305d\u306e4)\u59161\u4ef6\u696d\u52d9","client_name":"\u56fd\u571f\u4ea4\u901a\u7701\u4e5d\u5dde\u5730\u65b9\u6574\u5099\u5c40\u5ddd\u8fba\u5ddd\u30c0\u30e0\u7802\u9632\u4e8b\u52d9\u6240","boring_xml_url":40,"boring_view_url":1,"soilmap_view_url":null,"soiltest_xml_url":0,"soiltest_view_url":0},{"id":214218,"code":"B4KJ201801010-2467","latitude":"32.3601572","longitude":"130.8367728","source_code":"QS48304627043","project_name":"","survey_name":"\u6e05\u697d\u5730\u533a\u5730\u8cea\u8abf\u67fb(\u305d\u306e3)\u696d\u52d9","client_name":"\u56fd\u571f\u4ea4\u901a\u7701\u4e5d\u5dde\u5730\u65b9\u6574\u5099\u5c40\u5ddd\u8fba\u5ddd\u30c0\u30e0\u7802\u9632\u4e8b\u52d9\u6240","boring_xml_url":40,"boring_view_url":1,"soilmap_view_url":null,"soiltest_xml_url":0,"soiltest_view_url":0},{"id":214217,"code":"B4KJ201801010-2466","latitude":"32.3594906","longitude":"130.8375783","source_code":"QS48304627042","project_name":"","survey_name":"\u6e05\u697d\u5730\u533a\u5730\u8cea\u8abf\u67fb(\u305d\u306e3)\u696d\u52d9","client_name":"\u56fd\u571f\u4ea4\u901a\u7701\u4e5d\u5dde\u5730\u65b9\u6574\u5099\u5c40\u5ddd\u8fba\u5ddd\u30c0\u30e0\u7802\u9632\u4e8b\u52d9\u6240","boring_xml_url":40,"boring_view_url":1,"soilmap_view_url":null,"soiltest_xml_url":0,"soiltest_view_url":0},{"id":214216,"code":"B4KJ201801010-2465","latitude":"32.3590461","longitude":"130.8383836","source_code":"QS48304627041","project_name":"","survey_name":"\u6e05\u697d\u5730\u533a\u5730\u8cea\u8abf\u67fb(\u305d\u306e3)\u696d\u52d9","client_name":"\u56fd\u571f\u4ea4\u901a\u7701\u4e5d\u5dde\u5730\u65b9\u6574\u5099\u5c40\u5ddd\u8fba\u5ddd\u30c0\u30e0\u7802\u9632\u4e8b\u52d9\u6240","boring_xml_url":40,"boring_view_url":1,"soilmap_view_url":null,"soiltest_xml_url":0,"soiltest_view_url":0},{"id":214215,"code":"B4KJ201801010-2464","latitude":"32.3590461","longitude":"130.8393281","source_code":"QS48304627040","project_name":"","survey_name":"\u6e05\u697d\u5730\u533a\u5730\u8cea\u8abf\u67fb(\u305d\u306e3)\u696d\u52d9","client_name":"\u56fd\u571f\u4ea4\u901a\u7701\u4e5d\u5dde\u5730\u65b9\u6574\u5099\u5c40\u5ddd\u8fba\u5ddd\u30c0\u30e0\u7802\u9632\u4e8b\u52d9\u6240","boring_xml_url":40,"boring_view_url":1,"soilmap_view_url":null,"soiltest_xml_url":0,"soiltest_view_url":0},{"id":214214,"code":"B4KJ201801010-2463","latitude":"32.3590461","longitude":"130.8400225","source_code":"QS48304627039","project_name":"","survey_name":"\u6e05\u697d\u5730\u533a\u5730\u8cea\u8abf\u67fb(\u305d\u306e3)\u696d\u52d9","client_name":"\u56fd\u571f\u4ea4\u901a\u7701\u4e5d\u5dde\u5730\u65b9\u6574\u5099\u5c40\u5ddd\u8fba\u5ddd\u30c0\u30e0\u7802\u9632\u4e8b\u52d9\u6240","boring_xml_url":40,"boring_view_url":1,"soilmap_view_url":null,"soiltest_xml_url":0,"soiltest_view_url":0},{"id":214213,"code":"B4KJ201801010-2462","latitude":"32.3590461","longitude":"130.8408281","source_code":"QS48304627038","project_name":"","survey_name":"\u6e05\u697d\u5730\u533a\u5730\u8cea\u8abf\u67fb(\u305d\u306e3)\u696d\u52d9","client_name":"\u56fd\u571f\u4ea4\u901a\u7701\u4e5d\u5dde\u5730\u65b9\u6574\u5099\u5c40\u5ddd\u8fba\u5ddd\u30c0\u30e0\u7802\u9632\u4e8b\u52d9\u6240","boring_xml_url":40,"boring_view_url":1,"soilmap_view_url":null,"soiltest_xml_url":0,"soiltest_view_url":0},{"id":214212,"code":"B4KJ201801010-2461","latitude":"32.3590461","longitude":"130.8413556","source_code":"QS48304627037","project_name":"","survey_name":"\u6e05\u697d\u5730\u533a\u5730\u8cea\u8abf\u67fb(\u305d\u306e3)\u696d\u52d9","client_name":"\u56fd\u571f\u4ea4\u901a\u7701\u4e5d\u5dde\u5730\u65b9\u6574\u5099\u5c40\u5ddd\u8fba\u5ddd\u30c0\u30e0\u7802\u9632\u4e8b\u52d9\u6240","boring_xml_url":40,"boring_view_url":1,"soilmap_view_url":null,"soiltest_xml_url":0,"soiltest_view_url":0},{"id":214211,"code":"B4KJ201801010-2460","latitude":"32.3590461","longitude":"130.8424389","source_code":"QS48304627036","project_name":"","survey_name":"\u6e05\u697d\u5730\u533a\u5730\u8cea\u8abf\u67fb(\u305d\u306e3)\u696d\u52d9","client_name":"\u56fd\u571f\u4ea4\u901a\u7701\u4e5d\u5dde\u5730\u65b9\u6574\u5099\u5c40\u5ddd\u8fba\u5ddd\u30c0\u30e0\u7802\u9632\u4e8b\u52d9\u6240","boring_xml_url":40,"boring_view_url":1,"soilmap_view_url":null,"soiltest_xml_url":0,"soiltest_view_url":0},{"id":214210,"code":"B4KJ201801010-2459","latitude":"32.3611017","longitude":"130.8436611","source_code":"QS48304627035","project_name":"","survey_name":"\u91ce\u3005\u8107\u4ee3\u66ff\u5730\u5730\u8cea\u8abf\u67fb\u53ca\u3073\u89e3\u6790\u696d\u52d9","client_name":"\u56fd\u571f\u4ea4\u901a\u7701\u4e5d\u5dde\u5730\u65b9\u6574\u5099\u5c40\u5ddd\u8fba\u5ddd\u30c0\u30e0\u7802\u9632\u4e8b\u52d9\u6240","boring_xml_url":40,"boring_view_url":1,"soilmap_view_url":null,"soiltest_xml_url":0,"soiltest_view_url":0},{"id":214209,"code":"B4KJ201801010-2458","latitude":"32.3613236","longitude":"130.8424389","source_code":"QS48304627034","project_name":"","survey_name":"\u91ce\u3005\u8107\u4ee3\u66ff\u5730\u5730\u8cea\u8abf\u67fb\u53ca\u3073\u89e3\u6790\u696d\u52d9","client_name":"\u56fd\u571f\u4ea4\u901a\u7701\u4e5d\u5dde\u5730\u65b9\u6574\u5099\u5c40\u5ddd\u8fba\u5ddd\u30c0\u30e0\u7802\u9632\u4e8b\u52d9\u6240","boring_xml_url":40,"boring_view_url":1,"soilmap_view_url":null,"soiltest_xml_url":0,"soiltest_view_url":0},{"id":214208,"code":"B4KJ201801010-2457","latitude":"32.3584075","longitude":"130.8425222","source_code":"QS48304627033","project_name":"","survey_name":"\u91d1\u5ddd\u5730\u533a(\u305d\u306e3)\u5730\u8cea\u8abf\u67fb\u696d\u52d9","client_name":"\u56fd\u571f\u4ea4\u901a\u7701\u4e5d\u5dde\u5730\u65b9\u6574\u5099\u5c40\u5ddd\u8fba\u5ddd\u30c0\u30e0\u7802\u9632\u4e8b\u52d9\u6240","boring_xml_url":40,"boring_view_url":1,"soilmap_view_url":null,"soiltest_xml_url":0,"soiltest_view_url":0},{"id":214207,"code":"B4KJ201801010-2456","latitude":"32.3581297","longitude":"130.8423833","source_code":"QS48304627032","project_name":"","survey_name":"\u91d1\u5ddd\u5730\u533a(\u305d\u306e3)\u5730\u8cea\u8abf\u67fb\u696d\u52d9","client_name":"\u56fd\u571f\u4ea4\u901a\u7701\u4e5d\u5dde\u5730\u65b9\u6574\u5099\u5c40\u5ddd\u8fba\u5ddd\u30c0\u30e0\u7802\u9632\u4e8b\u52d9\u6240","boring_xml_url":40,"boring_view_url":1,"soilmap_view_url":null,"soiltest_xml_url":0,"soiltest_view_url":0},{"id":214206,"code":"B4KJ201801010-2455","latitude":"32.3575742","longitude":"130.8418278","source_code":"QS48304627031","project_name":"","survey_name":"\u91d1\u5ddd\u5730\u533a(\u305d\u306e3)\u5730\u8cea\u8abf\u67fb\u696d\u52d9","client_name":"\u56fd\u571f\u4ea4\u901a\u7701\u4e5d\u5dde\u5730\u65b9\u6574\u5099\u5c40\u5ddd\u8fba\u5ddd\u30c0\u30e0\u7802\u9632\u4e8b\u52d9\u6240","boring_xml_url":40,"boring_view_url":1,"soilmap_view_url":null,"soiltest_xml_url":0,"soiltest_view_url":0},{"id":214205,"code":"B4KJ201801010-2454","latitude":"32.3570186","longitude":"130.8418833","source_code":"QS48304627030","project_name":"","survey_name":"\u91d1\u5ddd\u5730\u533a(\u305d\u306e3)\u5730\u8cea\u8abf\u67fb\u696d\u52d9","client_name":"\u56fd\u571f\u4ea4\u901a\u7701\u4e5d\u5dde\u5730\u65b9\u6574\u5099\u5c40\u5ddd\u8fba\u5ddd\u30c0\u30e0\u7802\u9632\u4e8b\u52d9\u6240","boring_xml_url":40,"boring_view_url":1,"soilmap_view_url":null,"soiltest_xml_url":0,"soiltest_view_url":0},{"id":214204,"code":"B4KJ201801010-2453","latitude":"32.3567408","longitude":"130.8418281","source_code":"QS48304627029","project_name":"","survey_name":"\u91d1\u5ddd\u5730\u533a(\u305d\u306e3)\u5730\u8cea\u8abf\u67fb\u696d\u52d9","client_name":"\u56fd\u571f\u4ea4\u901a\u7701\u4e5d\u5dde\u5730\u65b9\u6574\u5099\u5c40\u5ddd\u8fba\u5ddd\u30c0\u30e0\u7802\u9632\u4e8b\u52d9\u6240","boring_xml_url":40,"boring_view_url":1,"soilmap_view_url":null,"soiltest_xml_url":0,"soiltest_view_url":0},{"id":214203,"code":"B4KJ201801010-2452","latitude":"32.3559911","longitude":"130.8411058","source_code":"QS48304627028","project_name":"","survey_name":"\u91d1\u5ddd\u5730\u533a(\u305d\u306e3)\u5730\u8cea\u8abf\u67fb\u696d\u52d9","client_name":"\u56fd\u571f\u4ea4\u901a\u7701\u4e5d\u5dde\u5730\u65b9\u6574\u5099\u5c40\u5ddd\u8fba\u5ddd\u30c0\u30e0\u7802\u9632\u4e8b\u52d9\u6240","boring_xml_url":40,"boring_view_url":1,"soilmap_view_url":null,"soiltest_xml_url":0,"soiltest_view_url":0},{"id":214202,"code":"B4KJ201801010-2451","latitude":"32.3557689","longitude":"130.8409947","source_code":"QS48304627027","project_name":"","survey_name":"\u91d1\u5ddd\u5730\u533a(\u305d\u306e3)\u5730\u8cea\u8abf\u67fb\u696d\u52d9","client_name":"\u56fd\u571f\u4ea4\u901a\u7701\u4e5d\u5dde\u5730\u65b9\u6574\u5099\u5c40\u5ddd\u8fba\u5ddd\u30c0\u30e0\u7802\u9632\u4e8b\u52d9\u6240","boring_xml_url":40,"boring_view_url":1,"soilmap_view_url":null,"soiltest_xml_url":0,"soiltest_view_url":0},{"id":214201,"code":"B4KJ201801010-2450","latitude":"32.3550744","longitude":"130.8408003","source_code":"QS48304627026","project_name":"","survey_name":"\u91d1\u5ddd\u5730\u533a(\u305d\u306e3)\u5730\u8cea\u8abf\u67fb\u696d\u52d9","client_name":"\u56fd\u571f\u4ea4\u901a\u7701\u4e5d\u5dde\u5730\u65b9\u6574\u5099\u5c40\u5ddd\u8fba\u5ddd\u30c0\u30e0\u7802\u9632\u4e8b\u52d9\u6240","boring_xml_url":40,"boring_view_url":1,"soilmap_view_url":null,"soiltest_xml_url":0,"soiltest_view_url":0},{"id":214200,"code":"B4KJ201801010-2449","latitude":"32.3606292","longitude":"130.8362728","source_code":"QS48304627016","project_name":"","survey_name":"\u4ed8\u66ff\u6751\u9053\u6e05\u697d\u5730\u533a\u5730\u8cea\u8abf\u67fb\u696d\u52d9","client_name":"\u56fd\u571f\u4ea4\u901a\u7701\u4e5d\u5dde\u5730\u65b9\u6574\u5099\u5c40\u5ddd\u8fba\u5ddd\u30c0\u30e0\u7802\u9632\u4e8b\u52d9\u6240","boring_xml_url":40,"boring_view_url":1,"soilmap_view_url":null,"soiltest_xml_url":0,"soiltest_view_url":0},{"id":214199,"code":"B4KJ201801010-2448","latitude":"32.3606292","longitude":"130.8365506","source_code":"QS48304627015","project_name":"","survey_name":"\u4ed8\u66ff\u6751\u9053\u6e05\u697d\u5730\u533a\u5730\u8cea\u8abf\u67fb\u696d\u52d9","client_name":"\u56fd\u571f\u4ea4\u901a\u7701\u4e5d\u5dde\u5730\u65b9\u6574\u5099\u5c40\u5ddd\u8fba\u5ddd\u30c0\u30e0\u7802\u9632\u4e8b\u52d9\u6240","boring_xml_url":40,"boring_view_url":1,"soilmap_view_url":null,"soiltest_xml_url":0,"soiltest_view_url":0},{"id":214198,"code":"B4KJ201801010-2447","latitude":"32.3603514","longitude":"130.8365506","source_code":"QS48304627014","project_name":"","survey_name":"\u4ed8\u66ff\u6751\u9053\u6e05\u697d\u5730\u533a\u5730\u8cea\u8abf\u67fb\u696d\u52d9","client_name":"\u56fd\u571f\u4ea4\u901a\u7701\u4e5d\u5dde\u5730\u65b9\u6574\u5099\u5c40\u5ddd\u8fba\u5ddd\u30c0\u30e0\u7802\u9632\u4e8b\u52d9\u6240","boring_xml_url":40,"boring_view_url":1,"soilmap_view_url":null,"soiltest_xml_url":0,"soiltest_view_url":0},{"id":214197,"code":"B4KJ201801010-2446","latitude":"32.3575742","longitude":"130.8414114","source_code":"QS48304627013","project_name":"","survey_name":"\u4ed8\u66ff\u6751\u9053\u6e05\u697d\u5730\u533a\u5730\u8cea\u8abf\u67fb\u696d\u52d9","client_name":"\u56fd\u571f\u4ea4\u901a\u7701\u4e5d\u5dde\u5730\u65b9\u6574\u5099\u5c40\u5ddd\u8fba\u5ddd\u30c0\u30e0\u7802\u9632\u4e8b\u52d9\u6240","boring_xml_url":40,"boring_view_url":1,"soilmap_view_url":null,"soiltest_xml_url":0,"soiltest_view_url":0},{"id":214196,"code":"B4KJ201801010-2445","latitude":"32.3603514","longitude":"130.8368283","source_code":"QS48304627012","project_name":"","survey_name":"\u4ed8\u66ff\u6751\u9053\u6e05\u697d\u5730\u533a\u5730\u8cea\u8abf\u67fb\u696d\u52d9","client_name":"\u56fd\u571f\u4ea4\u901a\u7701\u4e5d\u5dde\u5730\u65b9\u6574\u5099\u5c40\u5ddd\u8fba\u5ddd\u30c0\u30e0\u7802\u9632\u4e8b\u52d9\u6240","boring_xml_url":40,"boring_view_url":1,"soilmap_view_url":null,"soiltest_xml_url":0,"soiltest_view_url":0}]}}