{"header":{"xyz":{"source":[],"mosaic":false},"page":3551,"raw":{"soiltest_result":"0","bbox":"57.598333,109.544722,1.933333,163.806111","page":"3551"},"conditions":{"soiltest_result":0,"north":57.598333,"west":109.544722,"south":1.933333,"east":163.806111},"success":true,"message":""},"data":{"meta":{"total":212844,"page":3551,"pages":7095,"count":30},"values":[{"id":214045,"code":"B4KJ201801010-2294","latitude":"32.3380208","longitude":"130.8397175","source_code":"QS48304607018","project_name":"","survey_name":"\u5ddd\u8fba\u5ddd\u30c0\u30e0\u5dbd\u91ce\u5730\u533a\u5730\u8cea\u8abf\u67fb\u305d\u306e\u4ed6\u696d\u52d9","client_name":"\u56fd\u571f\u4ea4\u901a\u7701\u4e5d\u5dde\u5730\u65b9\u6574\u5099\u5c40\u5ddd\u8fba\u5ddd\u30c0\u30e0\u7802\u9632\u4e8b\u52d9\u6240","boring_xml_url":40,"boring_view_url":1,"soilmap_view_url":null,"soiltest_xml_url":0,"soiltest_view_url":0},{"id":214044,"code":"B4KJ201801010-2293","latitude":"32.3380486","longitude":"130.8394675","source_code":"QS48304607017","project_name":"","survey_name":"\u5ddd\u8fba\u5ddd\u30c0\u30e0\u5dbd\u91ce\u5730\u533a\u5730\u8cea\u8abf\u67fb\u305d\u306e\u4ed6\u696d\u52d9","client_name":"\u56fd\u571f\u4ea4\u901a\u7701\u4e5d\u5dde\u5730\u65b9\u6574\u5099\u5c40\u5ddd\u8fba\u5ddd\u30c0\u30e0\u7802\u9632\u4e8b\u52d9\u6240","boring_xml_url":40,"boring_view_url":1,"soilmap_view_url":null,"soiltest_xml_url":0,"soiltest_view_url":0},{"id":214043,"code":"B4KJ201801010-2292","latitude":"32.3381042","longitude":"130.8391342","source_code":"QS48304607016","project_name":"","survey_name":"\u5ddd\u8fba\u5ddd\u30c0\u30e0\u5dbd\u91ce\u5730\u533a\u5730\u8cea\u8abf\u67fb\u305d\u306e\u4ed6\u696d\u52d9","client_name":"\u56fd\u571f\u4ea4\u901a\u7701\u4e5d\u5dde\u5730\u65b9\u6574\u5099\u5c40\u5ddd\u8fba\u5ddd\u30c0\u30e0\u7802\u9632\u4e8b\u52d9\u6240","boring_xml_url":40,"boring_view_url":1,"soilmap_view_url":null,"soiltest_xml_url":0,"soiltest_view_url":0},{"id":214042,"code":"B4KJ201801010-2291","latitude":"32.3381042","longitude":"130.8385231","source_code":"QS48304607015","project_name":"","survey_name":"\u5ddd\u8fba\u5ddd\u30c0\u30e0\u5dbd\u91ce\u5730\u533a\u5730\u8cea\u8abf\u67fb\u305d\u306e\u4ed6\u696d\u52d9","client_name":"\u56fd\u571f\u4ea4\u901a\u7701\u4e5d\u5dde\u5730\u65b9\u6574\u5099\u5c40\u5ddd\u8fba\u5ddd\u30c0\u30e0\u7802\u9632\u4e8b\u52d9\u6240","boring_xml_url":40,"boring_view_url":1,"soilmap_view_url":null,"soiltest_xml_url":0,"soiltest_view_url":0},{"id":214041,"code":"B4KJ201801010-2290","latitude":"32.3380486","longitude":"130.8381897","source_code":"QS48304607014","project_name":"","survey_name":"\u5ddd\u8fba\u5ddd\u30c0\u30e0\u5dbd\u91ce\u5730\u533a\u5730\u8cea\u8abf\u67fb\u305d\u306e\u4ed6\u696d\u52d9","client_name":"\u56fd\u571f\u4ea4\u901a\u7701\u4e5d\u5dde\u5730\u65b9\u6574\u5099\u5c40\u5ddd\u8fba\u5ddd\u30c0\u30e0\u7802\u9632\u4e8b\u52d9\u6240","boring_xml_url":40,"boring_view_url":1,"soilmap_view_url":null,"soiltest_xml_url":0,"soiltest_view_url":0},{"id":214040,"code":"B4KJ201801010-2289","latitude":"32.3379931","longitude":"130.8379953","source_code":"QS48304607013","project_name":"","survey_name":"\u5ddd\u8fba\u5ddd\u30c0\u30e0\u5dbd\u91ce\u5730\u533a\u5730\u8cea\u8abf\u67fb\u305d\u306e\u4ed6\u696d\u52d9","client_name":"\u56fd\u571f\u4ea4\u901a\u7701\u4e5d\u5dde\u5730\u65b9\u6574\u5099\u5c40\u5ddd\u8fba\u5ddd\u30c0\u30e0\u7802\u9632\u4e8b\u52d9\u6240","boring_xml_url":40,"boring_view_url":1,"soilmap_view_url":null,"soiltest_xml_url":0,"soiltest_view_url":0},{"id":214039,"code":"B4KJ201801010-2288","latitude":"32.339215","longitude":"130.8381342","source_code":"QS48304607012","project_name":"","survey_name":"\u5ddd\u8fba\u5ddd\u30c0\u30e0\u5dbd\u91ce\u5730\u533a\u5730\u8cea\u8abf\u67fb\u305d\u306e\u4ed6\u696d\u52d9","client_name":"\u56fd\u571f\u4ea4\u901a\u7701\u4e5d\u5dde\u5730\u65b9\u6574\u5099\u5c40\u5ddd\u8fba\u5ddd\u30c0\u30e0\u7802\u9632\u4e8b\u52d9\u6240","boring_xml_url":40,"boring_view_url":1,"soilmap_view_url":null,"soiltest_xml_url":0,"soiltest_view_url":0},{"id":214038,"code":"B4KJ201801010-2287","latitude":"32.3387706","longitude":"130.8389397","source_code":"QS48304607011","project_name":"","survey_name":"\u5ddd\u8fba\u5ddd\u30c0\u30e0\u5dbd\u91ce\u5730\u533a\u5730\u8cea\u8abf\u67fb\u305d\u306e\u4ed6\u696d\u52d9","client_name":"\u56fd\u571f\u4ea4\u901a\u7701\u4e5d\u5dde\u5730\u65b9\u6574\u5099\u5c40\u5ddd\u8fba\u5ddd\u30c0\u30e0\u7802\u9632\u4e8b\u52d9\u6240","boring_xml_url":40,"boring_view_url":1,"soilmap_view_url":null,"soiltest_xml_url":0,"soiltest_view_url":0},{"id":214037,"code":"B4KJ201801010-2286","latitude":"32.3387706","longitude":"130.8384119","source_code":"QS48304607010","project_name":"","survey_name":"\u5ddd\u8fba\u5ddd\u30c0\u30e0\u5dbd\u91ce\u5730\u533a\u5730\u8cea\u8abf\u67fb\u305d\u306e\u4ed6\u696d\u52d9","client_name":"\u56fd\u571f\u4ea4\u901a\u7701\u4e5d\u5dde\u5730\u65b9\u6574\u5099\u5c40\u5ddd\u8fba\u5ddd\u30c0\u30e0\u7802\u9632\u4e8b\u52d9\u6240","boring_xml_url":40,"boring_view_url":1,"soilmap_view_url":null,"soiltest_xml_url":0,"soiltest_view_url":0},{"id":214036,"code":"B4KJ201801010-2285","latitude":"32.3383264","longitude":"130.8390508","source_code":"QS48304607009","project_name":"","survey_name":"\u5ddd\u8fba\u5ddd\u30c0\u30e0\u5dbd\u91ce\u5730\u533a\u5730\u8cea\u8abf\u67fb\u305d\u306e\u4ed6\u696d\u52d9","client_name":"\u56fd\u571f\u4ea4\u901a\u7701\u4e5d\u5dde\u5730\u65b9\u6574\u5099\u5c40\u5ddd\u8fba\u5ddd\u30c0\u30e0\u7802\u9632\u4e8b\u52d9\u6240","boring_xml_url":40,"boring_view_url":1,"soilmap_view_url":null,"soiltest_xml_url":0,"soiltest_view_url":0},{"id":214035,"code":"B4KJ201801010-2284","latitude":"32.3384372","longitude":"130.8384119","source_code":"QS48304607008","project_name":"","survey_name":"\u5ddd\u8fba\u5ddd\u30c0\u30e0\u5dbd\u91ce\u5730\u533a\u5730\u8cea\u8abf\u67fb\u305d\u306e\u4ed6\u696d\u52d9","client_name":"\u56fd\u571f\u4ea4\u901a\u7701\u4e5d\u5dde\u5730\u65b9\u6574\u5099\u5c40\u5ddd\u8fba\u5ddd\u30c0\u30e0\u7802\u9632\u4e8b\u52d9\u6240","boring_xml_url":40,"boring_view_url":1,"soilmap_view_url":null,"soiltest_xml_url":0,"soiltest_view_url":0},{"id":214034,"code":"B4KJ201801010-2283","latitude":"32.3376319","longitude":"130.8390508","source_code":"QS48304607007","project_name":"","survey_name":"\u5ddd\u8fba\u5ddd\u30c0\u30e0\u5dbd\u91ce\u5730\u533a\u5730\u8cea\u8abf\u67fb\u305d\u306e\u4ed6\u696d\u52d9","client_name":"\u56fd\u571f\u4ea4\u901a\u7701\u4e5d\u5dde\u5730\u65b9\u6574\u5099\u5c40\u5ddd\u8fba\u5ddd\u30c0\u30e0\u7802\u9632\u4e8b\u52d9\u6240","boring_xml_url":40,"boring_view_url":1,"soilmap_view_url":null,"soiltest_xml_url":0,"soiltest_view_url":0},{"id":214033,"code":"B4KJ201801010-2282","latitude":"32.3377431","longitude":"130.8385231","source_code":"QS48304607006","project_name":"","survey_name":"\u5ddd\u8fba\u5ddd\u30c0\u30e0\u5dbd\u91ce\u5730\u533a\u5730\u8cea\u8abf\u67fb\u305d\u306e\u4ed6\u696d\u52d9","client_name":"\u56fd\u571f\u4ea4\u901a\u7701\u4e5d\u5dde\u5730\u65b9\u6574\u5099\u5c40\u5ddd\u8fba\u5ddd\u30c0\u30e0\u7802\u9632\u4e8b\u52d9\u6240","boring_xml_url":40,"boring_view_url":1,"soilmap_view_url":null,"soiltest_xml_url":0,"soiltest_view_url":0},{"id":214032,"code":"B4KJ201801010-2281","latitude":"32.3375208","longitude":"130.8354956","source_code":"QS48304607005","project_name":"","survey_name":"\u5ddd\u8fba\u5ddd\u30c0\u30e0\u5dbd\u91ce\u5730\u533a\u5730\u8cea\u8abf\u67fb\u305d\u306e\u4ed6\u696d\u52d9","client_name":"\u56fd\u571f\u4ea4\u901a\u7701\u4e5d\u5dde\u5730\u65b9\u6574\u5099\u5c40\u5ddd\u8fba\u5ddd\u30c0\u30e0\u7802\u9632\u4e8b\u52d9\u6240","boring_xml_url":40,"boring_view_url":1,"soilmap_view_url":null,"soiltest_xml_url":0,"soiltest_view_url":0},{"id":214031,"code":"B4KJ201801010-2280","latitude":"32.3387706","longitude":"130.8378842","source_code":"QS48304607004","project_name":"","survey_name":"\u5ddd\u8fba\u5ddd\u30c0\u30e0\u5dbd\u91ce\u5730\u533a\u5730\u8cea\u8abf\u67fb\u305d\u306e\u4ed6\u696d\u52d9","client_name":"\u56fd\u571f\u4ea4\u901a\u7701\u4e5d\u5dde\u5730\u65b9\u6574\u5099\u5c40\u5ddd\u8fba\u5ddd\u30c0\u30e0\u7802\u9632\u4e8b\u52d9\u6240","boring_xml_url":40,"boring_view_url":1,"soilmap_view_url":null,"soiltest_xml_url":0,"soiltest_view_url":0},{"id":214030,"code":"B4KJ201801010-2279","latitude":"32.3393261","longitude":"130.8376064","source_code":"QS48304607003","project_name":"","survey_name":"\u91ce\u539f\u5730\u533a\u8a66\u9310\u8abf\u67fb\u696d\u52d9","client_name":"\u56fd\u571f\u4ea4\u901a\u7701\u4e5d\u5dde\u5730\u65b9\u6574\u5099\u5c40\u5ddd\u8fba\u5ddd\u30c0\u30e0\u7802\u9632\u4e8b\u52d9\u6240","boring_xml_url":40,"boring_view_url":1,"soilmap_view_url":null,"soiltest_xml_url":0,"soiltest_view_url":0},{"id":214029,"code":"B4KJ201801010-2278","latitude":"32.3393261","longitude":"130.8376064","source_code":"QS48304607002","project_name":"","survey_name":"\u91ce\u539f\u5730\u533a\u8a66\u9310\u8abf\u67fb\u696d\u52d9","client_name":"\u56fd\u571f\u4ea4\u901a\u7701\u4e5d\u5dde\u5730\u65b9\u6574\u5099\u5c40\u5ddd\u8fba\u5ddd\u30c0\u30e0\u7802\u9632\u4e8b\u52d9\u6240","boring_xml_url":40,"boring_view_url":1,"soilmap_view_url":null,"soiltest_xml_url":0,"soiltest_view_url":0},{"id":214028,"code":"B4KJ201801010-2277","latitude":"32.3399094","longitude":"130.8384675","source_code":"QS48304607001","project_name":"","survey_name":"\u91ce\u539f\u5730\u533a\u59161\u4ef6\u5730\u8cea\u8abf\u67fb\u696d\u52d9","client_name":"\u56fd\u571f\u4ea4\u901a\u7701\u4e5d\u5dde\u5730\u65b9\u6574\u5099\u5c40\u5ddd\u8fba\u5ddd\u30c0\u30e0\u7802\u9632\u4e8b\u52d9\u6240","boring_xml_url":40,"boring_view_url":1,"soilmap_view_url":null,"soiltest_xml_url":0,"soiltest_view_url":0},{"id":214027,"code":"B4KJ201801010-2276","latitude":"32.3383539","longitude":"130.8348011","source_code":"QS48304606002","project_name":"","survey_name":"\u5dbd\u91ce\u5730\u533a\u5730\u4e0b\u6c34\u8abf\u67fb(\u305d\u306e2)\u696d\u52d9","client_name":"\u56fd\u571f\u4ea4\u901a\u7701\u4e5d\u5dde\u5730\u65b9\u6574\u5099\u5c40\u5ddd\u8fba\u5ddd\u30c0\u30e0\u7802\u9632\u4e8b\u52d9\u6240","boring_xml_url":40,"boring_view_url":1,"soilmap_view_url":null,"soiltest_xml_url":0,"soiltest_view_url":0},{"id":214026,"code":"B4KJ201801010-2275","latitude":"32.3376319","longitude":"130.8350233","source_code":"QS48304606001","project_name":"","survey_name":"\u5dbd\u91ce\u5730\u533a\u5730\u4e0b\u6c34\u8abf\u67fb\u696d\u52d9","client_name":"\u56fd\u571f\u4ea4\u901a\u7701\u4e5d\u5dde\u5730\u65b9\u6574\u5099\u5c40\u5ddd\u8fba\u5ddd\u30c0\u30e0\u7802\u9632\u4e8b\u52d9\u6240","boring_xml_url":40,"boring_view_url":1,"soilmap_view_url":null,"soiltest_xml_url":0,"soiltest_view_url":0},{"id":214025,"code":"B4KJ201801010-2274","latitude":"32.4132017","longitude":"130.5593794","source_code":"QS48304494001","project_name":"","survey_name":"\u4e8c\u898b\u30c8\u30f3\u30cd\u30eb(\u4e2d\u9593)\u5730\u8cea\u8abf\u67fb\u696d\u52d9","client_name":"\u56fd\u571f\u4ea4\u901a\u7701\u4e5d\u5dde\u5730\u65b9\u6574\u5099\u5c40\u516b\u4ee3\u6cb3\u5ddd\u56fd\u9053\u4e8b\u52d9\u6240","boring_xml_url":40,"boring_view_url":1,"soilmap_view_url":null,"soiltest_xml_url":0,"soiltest_view_url":0},{"id":214024,"code":"B4KJ201801010-2273","latitude":"32.4035914","longitude":"130.5521025","source_code":"QS48304484024","project_name":"","survey_name":"\u4e8c\u898b\u9ad8\u67b6\u6a4b\u5730\u8cea\u8abf\u67fb\u696d\u52d9","client_name":"\u56fd\u571f\u4ea4\u901a\u7701\u4e5d\u5dde\u5730\u65b9\u6574\u5099\u5c40\u516b\u4ee3\u6cb3\u5ddd\u56fd\u9053\u4e8b\u52d9\u6240","boring_xml_url":40,"boring_view_url":1,"soilmap_view_url":null,"soiltest_xml_url":0,"soiltest_view_url":0},{"id":214023,"code":"B4KJ201801010-2272","latitude":"32.4036192","longitude":"130.5520747","source_code":"QS48304484023","project_name":"","survey_name":"\u4e8c\u898b\u9ad8\u67b6\u6a4b\u5730\u8cea\u8abf\u67fb\u696d\u52d9","client_name":"\u56fd\u571f\u4ea4\u901a\u7701\u4e5d\u5dde\u5730\u65b9\u6574\u5099\u5c40\u516b\u4ee3\u6cb3\u5ddd\u56fd\u9053\u4e8b\u52d9\u6240","boring_xml_url":40,"boring_view_url":1,"soilmap_view_url":null,"soiltest_xml_url":0,"soiltest_view_url":0},{"id":214022,"code":"B4KJ201801010-2271","latitude":"32.4038136","longitude":"130.5523803","source_code":"QS48304484022","project_name":"","survey_name":"\u4e8c\u898b\u9ad8\u67b6\u6a4b\u5730\u8cea\u8abf\u67fb\u696d\u52d9","client_name":"\u56fd\u571f\u4ea4\u901a\u7701\u4e5d\u5dde\u5730\u65b9\u6574\u5099\u5c40\u516b\u4ee3\u6cb3\u5ddd\u56fd\u9053\u4e8b\u52d9\u6240","boring_xml_url":40,"boring_view_url":1,"soilmap_view_url":null,"soiltest_xml_url":0,"soiltest_view_url":0},{"id":214021,"code":"B4KJ201801010-2270","latitude":"32.4038136","longitude":"130.5524914","source_code":"QS48304484021","project_name":"","survey_name":"\u4e8c\u898b\u9ad8\u67b6\u6a4b\u5730\u8cea\u8abf\u67fb\u696d\u52d9","client_name":"\u56fd\u571f\u4ea4\u901a\u7701\u4e5d\u5dde\u5730\u65b9\u6574\u5099\u5c40\u516b\u4ee3\u6cb3\u5ddd\u56fd\u9053\u4e8b\u52d9\u6240","boring_xml_url":40,"boring_view_url":1,"soilmap_view_url":null,"soiltest_xml_url":0,"soiltest_view_url":0},{"id":214020,"code":"B4KJ201801010-2269","latitude":"32.4040358","longitude":"130.5527969","source_code":"QS48304484020","project_name":"","survey_name":"\u4e8c\u898b\u9ad8\u67b6\u6a4b\u5730\u8cea\u8abf\u67fb\u696d\u52d9","client_name":"\u56fd\u571f\u4ea4\u901a\u7701\u4e5d\u5dde\u5730\u65b9\u6574\u5099\u5c40\u516b\u4ee3\u6cb3\u5ddd\u56fd\u9053\u4e8b\u52d9\u6240","boring_xml_url":40,"boring_view_url":1,"soilmap_view_url":null,"soiltest_xml_url":0,"soiltest_view_url":0},{"id":214019,"code":"B4KJ201801010-2268","latitude":"32.4045636","longitude":"130.5536303","source_code":"QS48304484019","project_name":"","survey_name":"\u4e8c\u898b\u9ad8\u67b6\u6a4b\u5730\u8cea\u8abf\u67fb\u696d\u52d9","client_name":"\u56fd\u571f\u4ea4\u901a\u7701\u4e5d\u5dde\u5730\u65b9\u6574\u5099\u5c40\u516b\u4ee3\u6cb3\u5ddd\u56fd\u9053\u4e8b\u52d9\u6240","boring_xml_url":40,"boring_view_url":1,"soilmap_view_url":null,"soiltest_xml_url":0,"soiltest_view_url":0},{"id":214018,"code":"B4KJ201801010-2267","latitude":"32.4047858","longitude":"130.5539633","source_code":"QS48304484018","project_name":"","survey_name":"\u4e8c\u898b\u9ad8\u67b6\u6a4b\u5730\u8cea\u8abf\u67fb\u696d\u52d9","client_name":"\u56fd\u571f\u4ea4\u901a\u7701\u4e5d\u5dde\u5730\u65b9\u6574\u5099\u5c40\u516b\u4ee3\u6cb3\u5ddd\u56fd\u9053\u4e8b\u52d9\u6240","boring_xml_url":40,"boring_view_url":1,"soilmap_view_url":null,"soiltest_xml_url":0,"soiltest_view_url":0},{"id":214017,"code":"B4KJ201801010-2266","latitude":"32.4050081","longitude":"130.5542967","source_code":"QS48304484017","project_name":"","survey_name":"\u4e8c\u898b\u9ad8\u67b6\u6a4b\u5730\u8cea\u8abf\u67fb\u696d\u52d9","client_name":"\u56fd\u571f\u4ea4\u901a\u7701\u4e5d\u5dde\u5730\u65b9\u6574\u5099\u5c40\u516b\u4ee3\u6cb3\u5ddd\u56fd\u9053\u4e8b\u52d9\u6240","boring_xml_url":40,"boring_view_url":1,"soilmap_view_url":null,"soiltest_xml_url":0,"soiltest_view_url":0},{"id":214016,"code":"B4KJ201801010-2265","latitude":"32.40523","longitude":"130.5546022","source_code":"QS48304484016","project_name":"","survey_name":"\u4e8c\u898b\u9ad8\u67b6\u6a4b\u5730\u8cea\u8abf\u67fb\u696d\u52d9","client_name":"\u56fd\u571f\u4ea4\u901a\u7701\u4e5d\u5dde\u5730\u65b9\u6574\u5099\u5c40\u516b\u4ee3\u6cb3\u5ddd\u56fd\u9053\u4e8b\u52d9\u6240","boring_xml_url":40,"boring_view_url":1,"soilmap_view_url":null,"soiltest_xml_url":0,"soiltest_view_url":0}]}}