{"header":{"xyz":{"source":[],"mosaic":false},"page":3556,"raw":{"soiltest_result":"0","bbox":"57.598333,109.544722,1.933333,163.806111","page":"3556"},"conditions":{"soiltest_result":0,"north":57.598333,"west":109.544722,"south":1.933333,"east":163.806111},"success":true,"message":""},"data":{"meta":{"total":212844,"page":3556,"pages":7095,"count":30},"values":[{"id":213895,"code":"B4KJ201801010-2144","latitude":"32.36004","longitude":"130.5100797","source_code":"QS48304420001","project_name":"","survey_name":"\u7530\u6d66\u82a6\u5317\u5730\u533a\u5730\u8cea\u8abf\u67fb(\u305d\u306e1)\u59d4\u8a17\u696d\u52d9","client_name":"\u56fd\u571f\u4ea4\u901a\u7701\u4e5d\u5dde\u5730\u65b9\u6574\u5099\u5c40\u516b\u4ee3\u6cb3\u5ddd\u56fd\u9053\u4e8b\u52d9\u6240","boring_xml_url":40,"boring_view_url":1,"soilmap_view_url":null,"soiltest_xml_url":0,"soiltest_view_url":0},{"id":213894,"code":"B4KJ201801010-2143","latitude":"32.3491522","longitude":"130.5109131","source_code":"QS48304411013","project_name":"","survey_name":"\u5bae\u30ce\u6d66\u5730\u533a\u5730\u8cea\u8abf\u67fb\u696d\u52d9","client_name":"\u56fd\u571f\u4ea4\u901a\u7701\u4e5d\u5dde\u5730\u65b9\u6574\u5099\u5c40\u516b\u4ee3\u6cb3\u5ddd\u56fd\u9053\u4e8b\u52d9\u6240","boring_xml_url":40,"boring_view_url":1,"soilmap_view_url":null,"soiltest_xml_url":0,"soiltest_view_url":0},{"id":213893,"code":"B4KJ201801010-2142","latitude":"32.3500411","longitude":"130.5106631","source_code":"QS48304411012","project_name":"","survey_name":"\u5bae\u30ce\u6d66\u5730\u533a\u5730\u8cea\u8abf\u67fb\u696d\u52d9","client_name":"\u56fd\u571f\u4ea4\u901a\u7701\u4e5d\u5dde\u5730\u65b9\u6574\u5099\u5c40\u516b\u4ee3\u6cb3\u5ddd\u56fd\u9053\u4e8b\u52d9\u6240","boring_xml_url":40,"boring_view_url":1,"soilmap_view_url":null,"soiltest_xml_url":0,"soiltest_view_url":0},{"id":213892,"code":"B4KJ201801010-2141","latitude":"32.3504022","longitude":"130.5103853","source_code":"QS48304411011","project_name":"","survey_name":"\u5bae\u30ce\u6d66\u5730\u533a\u5730\u8cea\u8abf\u67fb\u696d\u52d9","client_name":"\u56fd\u571f\u4ea4\u901a\u7701\u4e5d\u5dde\u5730\u65b9\u6574\u5099\u5c40\u516b\u4ee3\u6cb3\u5ddd\u56fd\u9053\u4e8b\u52d9\u6240","boring_xml_url":40,"boring_view_url":1,"soilmap_view_url":null,"soiltest_xml_url":0,"soiltest_view_url":0},{"id":213891,"code":"B4KJ201801010-2140","latitude":"32.3489303","longitude":"130.5111908","source_code":"QS48304411010","project_name":"","survey_name":"\u7530\u6d66\u82a6\u5317\u5730\u533a\u5730\u8cea\u8abf\u67fb(\u305d\u306e2)\u59d4\u8a17\u696d\u52d9","client_name":"\u56fd\u571f\u4ea4\u901a\u7701\u4e5d\u5dde\u5730\u65b9\u6574\u5099\u5c40\u516b\u4ee3\u6cb3\u5ddd\u56fd\u9053\u4e8b\u52d9\u6240","boring_xml_url":40,"boring_view_url":1,"soilmap_view_url":null,"soiltest_xml_url":0,"soiltest_view_url":0},{"id":213890,"code":"B4KJ201801010-2139","latitude":"32.3490967","longitude":"130.5113019","source_code":"QS48304411009","project_name":"","survey_name":"\u7530\u6d66\u82a6\u5317\u5730\u533a\u5730\u8cea\u8abf\u67fb(\u305d\u306e2)\u59d4\u8a17\u696d\u52d9","client_name":"\u56fd\u571f\u4ea4\u901a\u7701\u4e5d\u5dde\u5730\u65b9\u6574\u5099\u5c40\u516b\u4ee3\u6cb3\u5ddd\u56fd\u9053\u4e8b\u52d9\u6240","boring_xml_url":40,"boring_view_url":1,"soilmap_view_url":null,"soiltest_xml_url":0,"soiltest_view_url":0},{"id":213889,"code":"B4KJ201801010-2138","latitude":"32.3490967","longitude":"130.5117186","source_code":"QS48304411008","project_name":"","survey_name":"\u7530\u6d66\u82a6\u5317\u5730\u533a\u5730\u8cea\u8abf\u67fb(\u305d\u306e2)\u59d4\u8a17\u696d\u52d9","client_name":"\u56fd\u571f\u4ea4\u901a\u7701\u4e5d\u5dde\u5730\u65b9\u6574\u5099\u5c40\u516b\u4ee3\u6cb3\u5ddd\u56fd\u9053\u4e8b\u52d9\u6240","boring_xml_url":40,"boring_view_url":1,"soilmap_view_url":null,"soiltest_xml_url":0,"soiltest_view_url":0},{"id":213888,"code":"B4KJ201801010-2137","latitude":"32.34968","longitude":"130.5107742","source_code":"QS48304411007","project_name":"","survey_name":"\u7530\u6d66\u82a6\u5317\u5730\u533a\u5730\u8cea\u8abf\u67fb(\u305d\u306e2)\u59d4\u8a17\u696d\u52d9","client_name":"\u56fd\u571f\u4ea4\u901a\u7701\u4e5d\u5dde\u5730\u65b9\u6574\u5099\u5c40\u516b\u4ee3\u6cb3\u5ddd\u56fd\u9053\u4e8b\u52d9\u6240","boring_xml_url":40,"boring_view_url":1,"soilmap_view_url":null,"soiltest_xml_url":0,"soiltest_view_url":0},{"id":213887,"code":"B4KJ201801010-2136","latitude":"32.3504578","longitude":"130.5103853","source_code":"QS48304411006","project_name":"","survey_name":"\u7530\u6d66\u82a6\u5317\u5730\u533a\u5730\u8cea\u8abf\u67fb(\u305d\u306e1)\u59d4\u8a17\u696d\u52d9","client_name":"\u56fd\u571f\u4ea4\u901a\u7701\u4e5d\u5dde\u5730\u65b9\u6574\u5099\u5c40\u516b\u4ee3\u6cb3\u5ddd\u56fd\u9053\u4e8b\u52d9\u6240","boring_xml_url":40,"boring_view_url":1,"soilmap_view_url":null,"soiltest_xml_url":0,"soiltest_view_url":0},{"id":213886,"code":"B4KJ201801010-2135","latitude":"32.3509022","longitude":"130.5102742","source_code":"QS48304411005","project_name":"","survey_name":"\u7530\u6d66\u82a6\u5317\u5730\u533a\u5730\u8cea\u8abf\u67fb(\u305d\u306e1)\u59d4\u8a17\u696d\u52d9","client_name":"\u56fd\u571f\u4ea4\u901a\u7701\u4e5d\u5dde\u5730\u65b9\u6574\u5099\u5c40\u516b\u4ee3\u6cb3\u5ddd\u56fd\u9053\u4e8b\u52d9\u6240","boring_xml_url":40,"boring_view_url":1,"soilmap_view_url":null,"soiltest_xml_url":0,"soiltest_view_url":0},{"id":213885,"code":"B4KJ201801010-2134","latitude":"32.3456528","longitude":"130.5126075","source_code":"QS48304411004","project_name":"","survey_name":"\u7530\u6d66\u82a6\u5317\u5730\u533a\u5730\u8cea\u8abf\u67fb(\u305d\u306e3)\u59d4\u8a17\u696d\u52d9","client_name":"\u56fd\u571f\u4ea4\u901a\u7701\u4e5d\u5dde\u5730\u65b9\u6574\u5099\u5c40\u516b\u4ee3\u6cb3\u5ddd\u56fd\u9053\u4e8b\u52d9\u6240","boring_xml_url":40,"boring_view_url":1,"soilmap_view_url":null,"soiltest_xml_url":0,"soiltest_view_url":0},{"id":213884,"code":"B4KJ201801010-2133","latitude":"32.3471803","longitude":"130.5111633","source_code":"QS48304411003","project_name":"","survey_name":"\u7530\u6d66\u82a6\u5317\u5730\u533a\u5730\u8cea\u8abf\u67fb(\u305d\u306e3)\u59d4\u8a17\u696d\u52d9","client_name":"\u56fd\u571f\u4ea4\u901a\u7701\u4e5d\u5dde\u5730\u65b9\u6574\u5099\u5c40\u516b\u4ee3\u6cb3\u5ddd\u56fd\u9053\u4e8b\u52d9\u6240","boring_xml_url":40,"boring_view_url":1,"soilmap_view_url":null,"soiltest_xml_url":0,"soiltest_view_url":0},{"id":213883,"code":"B4KJ201801010-2132","latitude":"32.3478747","longitude":"130.5114964","source_code":"QS48304411002","project_name":"","survey_name":"\u7530\u6d66\u82a6\u5317\u5730\u533a\u5730\u8cea\u8abf\u67fb(\u305d\u306e3)\u59d4\u8a17\u696d\u52d9","client_name":"\u56fd\u571f\u4ea4\u901a\u7701\u4e5d\u5dde\u5730\u65b9\u6574\u5099\u5c40\u516b\u4ee3\u6cb3\u5ddd\u56fd\u9053\u4e8b\u52d9\u6240","boring_xml_url":40,"boring_view_url":1,"soilmap_view_url":null,"soiltest_xml_url":0,"soiltest_view_url":0},{"id":213882,"code":"B4KJ201801010-2131","latitude":"32.3485969","longitude":"130.5112186","source_code":"QS48304411001","project_name":"","survey_name":"\u7530\u6d66\u82a6\u5317\u5730\u533a\u5730\u8cea\u8abf\u67fb(\u305d\u306e3)\u59d4\u8a17\u696d\u52d9","client_name":"\u56fd\u571f\u4ea4\u901a\u7701\u4e5d\u5dde\u5730\u65b9\u6574\u5099\u5c40\u516b\u4ee3\u6cb3\u5ddd\u56fd\u9053\u4e8b\u52d9\u6240","boring_xml_url":40,"boring_view_url":1,"soilmap_view_url":null,"soiltest_xml_url":0,"soiltest_view_url":0},{"id":213881,"code":"B4KJ201801010-2130","latitude":"32.3529575","longitude":"130.5085244","source_code":"QS48304410010","project_name":"","survey_name":"\u5e73\u621011\u5e74\u5ea6\u99ac\u8d8a\u7b2c1\u53f7\u30fb\u7b2c2\u53f7\u6a4b\u5730\u8cea\u8abf\u67fb\u696d\u52d9","client_name":"\u56fd\u571f\u4ea4\u901a\u7701\u4e5d\u5dde\u5730\u65b9\u6574\u5099\u5c40\u516b\u4ee3\u6cb3\u5ddd\u56fd\u9053\u4e8b\u52d9\u6240","boring_xml_url":40,"boring_view_url":1,"soilmap_view_url":null,"soiltest_xml_url":0,"soiltest_view_url":0},{"id":213880,"code":"B4KJ201801010-2129","latitude":"32.3518742","longitude":"130.50933","source_code":"QS48304410009","project_name":"","survey_name":"\u5bae\u30ce\u6d66\u5730\u533a\u5730\u8cea\u8abf\u67fb\u696d\u52d9","client_name":"\u56fd\u571f\u4ea4\u901a\u7701\u4e5d\u5dde\u5730\u65b9\u6574\u5099\u5c40\u516b\u4ee3\u6cb3\u5ddd\u56fd\u9053\u4e8b\u52d9\u6240","boring_xml_url":40,"boring_view_url":1,"soilmap_view_url":null,"soiltest_xml_url":0,"soiltest_view_url":0},{"id":213879,"code":"B4KJ201801010-2128","latitude":"32.3532353","longitude":"130.5085244","source_code":"QS48304410008","project_name":"","survey_name":"\u5e73\u621011\u5e74\u5ea6\u99ac\u8d8a\u7b2c1\u53f7\u30fb\u7b2c2\u53f7\u6a4b\u5730\u8cea\u8abf\u67fb\u696d\u52d9","client_name":"\u56fd\u571f\u4ea4\u901a\u7701\u4e5d\u5dde\u5730\u65b9\u6574\u5099\u5c40\u516b\u4ee3\u6cb3\u5ddd\u56fd\u9053\u4e8b\u52d9\u6240","boring_xml_url":40,"boring_view_url":1,"soilmap_view_url":null,"soiltest_xml_url":0,"soiltest_view_url":0},{"id":213878,"code":"B4KJ201801010-2127","latitude":"32.3495411","longitude":"130.5097189","source_code":"QS48304410007","project_name":"","survey_name":"\u7530\u6d66\u82a6\u5317\u5730\u533a\u5730\u8cea\u8abf\u67fb(\u305d\u306e2)\u59d4\u8a17\u696d\u52d9","client_name":"\u56fd\u571f\u4ea4\u901a\u7701\u4e5d\u5dde\u5730\u65b9\u6574\u5099\u5c40\u516b\u4ee3\u6cb3\u5ddd\u56fd\u9053\u4e8b\u52d9\u6240","boring_xml_url":40,"boring_view_url":1,"soilmap_view_url":null,"soiltest_xml_url":0,"soiltest_view_url":0},{"id":213877,"code":"B4KJ201801010-2126","latitude":"32.3511522","longitude":"130.5101356","source_code":"QS48304410006","project_name":"","survey_name":"\u7530\u6d66\u82a6\u5317\u5730\u533a\u5730\u8cea\u8abf\u67fb(\u305d\u306e1)\u59d4\u8a17\u696d\u52d9","client_name":"\u56fd\u571f\u4ea4\u901a\u7701\u4e5d\u5dde\u5730\u65b9\u6574\u5099\u5c40\u516b\u4ee3\u6cb3\u5ddd\u56fd\u9053\u4e8b\u52d9\u6240","boring_xml_url":40,"boring_view_url":1,"soilmap_view_url":null,"soiltest_xml_url":0,"soiltest_view_url":0},{"id":213876,"code":"B4KJ201801010-2125","latitude":"32.3515964","longitude":"130.5099689","source_code":"QS48304410005","project_name":"","survey_name":"\u7530\u6d66\u82a6\u5317\u5730\u533a\u5730\u8cea\u8abf\u67fb(\u305d\u306e1)\u59d4\u8a17\u696d\u52d9","client_name":"\u56fd\u571f\u4ea4\u901a\u7701\u4e5d\u5dde\u5730\u65b9\u6574\u5099\u5c40\u516b\u4ee3\u6cb3\u5ddd\u56fd\u9053\u4e8b\u52d9\u6240","boring_xml_url":40,"boring_view_url":1,"soilmap_view_url":null,"soiltest_xml_url":0,"soiltest_view_url":0},{"id":213875,"code":"B4KJ201801010-2124","latitude":"32.3520131","longitude":"130.5098856","source_code":"QS48304410004","project_name":"","survey_name":"\u7530\u6d66\u82a6\u5317\u5730\u533a\u5730\u8cea\u8abf\u67fb(\u305d\u306e1)\u59d4\u8a17\u696d\u52d9","client_name":"\u56fd\u571f\u4ea4\u901a\u7701\u4e5d\u5dde\u5730\u65b9\u6574\u5099\u5c40\u516b\u4ee3\u6cb3\u5ddd\u56fd\u9053\u4e8b\u52d9\u6240","boring_xml_url":40,"boring_view_url":1,"soilmap_view_url":null,"soiltest_xml_url":0,"soiltest_view_url":0},{"id":213874,"code":"B4KJ201801010-2123","latitude":"32.3484578","longitude":"130.5051081","source_code":"QS48304410003","project_name":"","survey_name":"\u4e00\u822c\u56fd\u90533\u53f7\u6d77\u30ce\u6d66\u9632\u707d\u5c71\u8179\u5730\u8cea\u8abf\u67fb(\u305d\u306e2)\u696d\u52d9","client_name":"\u56fd\u571f\u4ea4\u901a\u7701\u4e5d\u5dde\u5730\u65b9\u6574\u5099\u5c40\u718a\u672c\u6cb3\u5ddd\u56fd\u9053\u4e8b\u52d9\u6240","boring_xml_url":40,"boring_view_url":1,"soilmap_view_url":null,"soiltest_xml_url":0,"soiltest_view_url":0},{"id":213873,"code":"B4KJ201801010-2122","latitude":"32.3484578","longitude":"130.5051081","source_code":"QS48304410002","project_name":"","survey_name":"\u4e00\u822c\u56fd\u90533\u53f7\u6d77\u30ce\u6d66\u9632\u707d\u5c71\u8179\u5730\u8cea\u8abf\u67fb(\u305d\u306e2)\u696d\u52d9","client_name":"\u56fd\u571f\u4ea4\u901a\u7701\u4e5d\u5dde\u5730\u65b9\u6574\u5099\u5c40\u718a\u672c\u6cb3\u5ddd\u56fd\u9053\u4e8b\u52d9\u6240","boring_xml_url":40,"boring_view_url":1,"soilmap_view_url":null,"soiltest_xml_url":0,"soiltest_view_url":0},{"id":213872,"code":"B4KJ201801010-2121","latitude":"32.3484578","longitude":"130.5051081","source_code":"QS48304410001","project_name":"","survey_name":"\u4e00\u822c\u56fd\u90533\u53f7\u6d77\u30ce\u6d66\u9632\u707d\u5c71\u8179\u5730\u8cea\u8abf\u67fb(\u305d\u306e2)\u696d\u52d9","client_name":"\u56fd\u571f\u4ea4\u901a\u7701\u4e5d\u5dde\u5730\u65b9\u6574\u5099\u5c40\u718a\u672c\u6cb3\u5ddd\u56fd\u9053\u4e8b\u52d9\u6240","boring_xml_url":40,"boring_view_url":1,"soilmap_view_url":null,"soiltest_xml_url":0,"soiltest_view_url":0},{"id":213871,"code":"B4KJ201801010-2120","latitude":"32.3423197","longitude":"130.5136631","source_code":"QS48304401008","project_name":"","survey_name":"\u65b0\u4f50\u6577 \u82b1\u5ca1\u30c8\u30f3\u30cd\u30eb\u5730\u8cea\u8abf\u67fb\u696d\u52d9","client_name":"\u56fd\u571f\u4ea4\u901a\u7701\u4e5d\u5dde\u5730\u65b9\u6574\u5099\u5c40\u516b\u4ee3\u6cb3\u5ddd\u56fd\u9053\u4e8b\u52d9\u6240","boring_xml_url":40,"boring_view_url":1,"soilmap_view_url":null,"soiltest_xml_url":0,"soiltest_view_url":0},{"id":213870,"code":"B4KJ201801010-2119","latitude":"32.3428475","longitude":"130.5138019","source_code":"QS48304401006","project_name":"","survey_name":"\u7530\u6d66\u82a6\u5317\u5730\u533a\u5730\u8cea\u8abf\u67fb(\u305d\u306e3)\u59d4\u8a17\u696d\u52d9","client_name":"\u56fd\u571f\u4ea4\u901a\u7701\u4e5d\u5dde\u5730\u65b9\u6574\u5099\u5c40\u516b\u4ee3\u6cb3\u5ddd\u56fd\u9053\u4e8b\u52d9\u6240","boring_xml_url":40,"boring_view_url":1,"soilmap_view_url":null,"soiltest_xml_url":0,"soiltest_view_url":0},{"id":213869,"code":"B4KJ201801010-2118","latitude":"32.3433197","longitude":"130.5133575","source_code":"QS48304401005","project_name":"","survey_name":"\u7530\u6d66\u82a6\u5317\u5730\u533a\u5730\u8cea\u8abf\u67fb(\u305d\u306e3)\u59d4\u8a17\u696d\u52d9","client_name":"\u56fd\u571f\u4ea4\u901a\u7701\u4e5d\u5dde\u5730\u65b9\u6574\u5099\u5c40\u516b\u4ee3\u6cb3\u5ddd\u56fd\u9053\u4e8b\u52d9\u6240","boring_xml_url":40,"boring_view_url":1,"soilmap_view_url":null,"soiltest_xml_url":0,"soiltest_view_url":0},{"id":213868,"code":"B4KJ201801010-2117","latitude":"32.3442086","longitude":"130.5130519","source_code":"QS48304401004","project_name":"","survey_name":"\u7530\u6d66\u82a6\u5317\u5730\u533a\u5730\u8cea\u8abf\u67fb(\u305d\u306e3)\u59d4\u8a17\u696d\u52d9","client_name":"\u56fd\u571f\u4ea4\u901a\u7701\u4e5d\u5dde\u5730\u65b9\u6574\u5099\u5c40\u516b\u4ee3\u6cb3\u5ddd\u56fd\u9053\u4e8b\u52d9\u6240","boring_xml_url":40,"boring_view_url":1,"soilmap_view_url":null,"soiltest_xml_url":0,"soiltest_view_url":0},{"id":213867,"code":"B4KJ201801010-2116","latitude":"32.344625","longitude":"130.5126631","source_code":"QS48304401003","project_name":"","survey_name":"\u7530\u6d66\u82a6\u5317\u5730\u533a\u5730\u8cea\u8abf\u67fb(\u305d\u306e3)\u59d4\u8a17\u696d\u52d9","client_name":"\u56fd\u571f\u4ea4\u901a\u7701\u4e5d\u5dde\u5730\u65b9\u6574\u5099\u5c40\u516b\u4ee3\u6cb3\u5ddd\u56fd\u9053\u4e8b\u52d9\u6240","boring_xml_url":40,"boring_view_url":1,"soilmap_view_url":null,"soiltest_xml_url":0,"soiltest_view_url":0},{"id":213866,"code":"B4KJ201801010-2115","latitude":"32.3447083","longitude":"130.5129131","source_code":"QS48304401002","project_name":"","survey_name":"\u7530\u6d66\u82a6\u5317\u5730\u533a\u5730\u8cea\u8abf\u67fb(\u305d\u306e3)\u59d4\u8a17\u696d\u52d9","client_name":"\u56fd\u571f\u4ea4\u901a\u7701\u4e5d\u5dde\u5730\u65b9\u6574\u5099\u5c40\u516b\u4ee3\u6cb3\u5ddd\u56fd\u9053\u4e8b\u52d9\u6240","boring_xml_url":40,"boring_view_url":1,"soilmap_view_url":null,"soiltest_xml_url":0,"soiltest_view_url":0}]}}