{"header":{"xyz":{"source":[],"mosaic":false},"page":3565,"raw":{"soiltest_result":"0","bbox":"57.598333,109.544722,1.933333,163.806111","page":"3565"},"conditions":{"soiltest_result":0,"north":57.598333,"west":109.544722,"south":1.933333,"east":163.806111},"success":true,"message":""},"data":{"meta":{"total":212844,"page":3565,"pages":7095,"count":30},"values":[{"id":213625,"code":"B4KJ201801010-1874","latitude":"32.0543817","longitude":"130.5984128","source_code":"QS48300468001","project_name":"","survey_name":"\u91cc\u5730\u533a\u5730\u8cea\u7b49\u8abf\u67fb\u696d\u52d9","client_name":"\u56fd\u571f\u4ea4\u901a\u7701 \u4e5d\u5dde\u5730\u65b9\u6574\u5099\u5c40 \u5ddd\u5185\u5ddd\u6cb3\u5ddd\u4e8b\u52d9\u6240","boring_xml_url":40,"boring_view_url":1,"soilmap_view_url":null,"soiltest_xml_url":0,"soiltest_view_url":0},{"id":213624,"code":"B4KJ201801010-1873","latitude":"32.0460214","longitude":"130.6036069","source_code":"QS48300458008","project_name":"","survey_name":"\u5927\u5cf6\u7b2c\u4e00\u6a0b\u9580\u53ca\u3073\u5927\u5cf6\u7b2c\u4e8c\u6a0b\u9580\u5730\u8cea\u8abf\u67fb\u696d\u52d9","client_name":"\u56fd\u571f\u4ea4\u901a\u7701 \u4e5d\u5dde\u5730\u65b9\u6574\u5099\u5c40 \u5ddd\u5185\u5ddd\u6cb3\u5ddd\u4e8b\u52d9\u6240","boring_xml_url":40,"boring_view_url":1,"soilmap_view_url":null,"soiltest_xml_url":0,"soiltest_view_url":0},{"id":213623,"code":"B4KJ201801010-1872","latitude":"32.0460214","longitude":"130.6036069","source_code":"QS48300458007","project_name":"","survey_name":"\u5927\u5cf6\u7b2c\u4e00\u6a0b\u9580\u53ca\u3073\u5927\u5cf6\u7b2c\u4e8c\u6a0b\u9580\u5730\u8cea\u8abf\u67fb\u696d\u52d9","client_name":"\u56fd\u571f\u4ea4\u901a\u7701 \u4e5d\u5dde\u5730\u65b9\u6574\u5099\u5c40 \u5ddd\u5185\u5ddd\u6cb3\u5ddd\u4e8b\u52d9\u6240","boring_xml_url":40,"boring_view_url":1,"soilmap_view_url":null,"soiltest_xml_url":0,"soiltest_view_url":0},{"id":213622,"code":"B4KJ201801010-1871","latitude":"32.0516319","longitude":"130.5999128","source_code":"QS48300458006","project_name":"","survey_name":"\u5ddd\u897f\u7b2c2\u6a0b\u9580\u59161\u4ef6\u5730\u8cea\u8abf\u67fb\u696d\u52d9","client_name":"\u56fd\u571f\u4ea4\u901a\u7701 \u4e5d\u5dde\u5730\u65b9\u6574\u5099\u5c40 \u5ddd\u5185\u5ddd\u6cb3\u5ddd\u4e8b\u52d9\u6240","boring_xml_url":40,"boring_view_url":1,"soilmap_view_url":null,"soiltest_xml_url":0,"soiltest_view_url":0},{"id":213621,"code":"B4KJ201801010-1870","latitude":"32.0515208","longitude":"130.6004683","source_code":"QS48300458005","project_name":"","survey_name":"\u5ddd\u897f\u7b2c2\u6a0b\u9580\u59161\u4ef6\u5730\u8cea\u8abf\u67fb\u696d\u52d9","client_name":"\u56fd\u571f\u4ea4\u901a\u7701 \u4e5d\u5dde\u5730\u65b9\u6574\u5099\u5c40 \u5ddd\u5185\u5ddd\u6cb3\u5ddd\u4e8b\u52d9\u6240","boring_xml_url":40,"boring_view_url":1,"soilmap_view_url":null,"soiltest_xml_url":0,"soiltest_view_url":0},{"id":213620,"code":"B4KJ201801010-1869","latitude":"32.0513542","longitude":"130.5994683","source_code":"QS48300458004","project_name":"","survey_name":"\u91cc\u5730\u533a\u5730\u8cea\u7b49\u8abf\u67fb\u696d\u52d9","client_name":"\u56fd\u571f\u4ea4\u901a\u7701 \u4e5d\u5dde\u5730\u65b9\u6574\u5099\u5c40 \u5ddd\u5185\u5ddd\u6cb3\u5ddd\u4e8b\u52d9\u6240","boring_xml_url":40,"boring_view_url":1,"soilmap_view_url":null,"soiltest_xml_url":0,"soiltest_view_url":0},{"id":213619,"code":"B4KJ201801010-1868","latitude":"32.0513542","longitude":"130.5994683","source_code":"QS48300458003","project_name":"","survey_name":"\u91cc\u5730\u533a\u5730\u8cea\u7b49\u8abf\u67fb\u696d\u52d9","client_name":"\u56fd\u571f\u4ea4\u901a\u7701 \u4e5d\u5dde\u5730\u65b9\u6574\u5099\u5c40 \u5ddd\u5185\u5ddd\u6cb3\u5ddd\u4e8b\u52d9\u6240","boring_xml_url":40,"boring_view_url":1,"soilmap_view_url":null,"soiltest_xml_url":0,"soiltest_view_url":0},{"id":213618,"code":"B4KJ201801010-1867","latitude":"32.0508264","longitude":"130.6004128","source_code":"QS48300458002","project_name":"","survey_name":"\u91cc\u5730\u533a\u5730\u8cea\u7b49\u8abf\u67fb\u696d\u52d9","client_name":"\u56fd\u571f\u4ea4\u901a\u7701 \u4e5d\u5dde\u5730\u65b9\u6574\u5099\u5c40 \u5ddd\u5185\u5ddd\u6cb3\u5ddd\u4e8b\u52d9\u6240","boring_xml_url":40,"boring_view_url":1,"soilmap_view_url":null,"soiltest_xml_url":0,"soiltest_view_url":0},{"id":213617,"code":"B4KJ201801010-1866","latitude":"32.0425497","longitude":"130.6073567","source_code":"QS48300448002","project_name":"","survey_name":"\u5927\u5cf6\u7b2c\u4e00\u6a0b\u9580\u53ca\u3073\u5927\u5cf6\u7b2c\u4e8c\u6a0b\u9580\u5730\u8cea\u8abf\u67fb\u696d\u52d9","client_name":"\u56fd\u571f\u4ea4\u901a\u7701 \u4e5d\u5dde\u5730\u65b9\u6574\u5099\u5c40 \u5ddd\u5185\u5ddd\u6cb3\u5ddd\u4e8b\u52d9\u6240","boring_xml_url":40,"boring_view_url":1,"soilmap_view_url":null,"soiltest_xml_url":0,"soiltest_view_url":0},{"id":213616,"code":"B4KJ201801010-1865","latitude":"32.0425497","longitude":"130.6073567","source_code":"QS48300448001","project_name":"","survey_name":"\u5927\u5cf6\u7b2c\u4e00\u6a0b\u9580\u53ca\u3073\u5927\u5cf6\u7b2c\u4e8c\u6a0b\u9580\u5730\u8cea\u8abf\u67fb\u696d\u52d9","client_name":"\u56fd\u571f\u4ea4\u901a\u7701 \u4e5d\u5dde\u5730\u65b9\u6574\u5099\u5c40 \u5ddd\u5185\u5ddd\u6cb3\u5ddd\u4e8b\u52d9\u6240","boring_xml_url":40,"boring_view_url":1,"soilmap_view_url":null,"soiltest_xml_url":0,"soiltest_view_url":0},{"id":213615,"code":"B4KJ201801010-1864","latitude":"32.0156081","longitude":"130.5986639","source_code":"QS48300418007","project_name":"","survey_name":"\u4e0b\u6bbf\u6a0b\u9580\u59161\u4ef6\u5730\u8cea\u8abf\u67fb\u696d\u52d9","client_name":"\u56fd\u571f\u4ea4\u901a\u7701 \u4e5d\u5dde\u5730\u65b9\u6574\u5099\u5c40 \u5ddd\u5185\u5ddd\u6cb3\u5ddd\u4e8b\u52d9\u6240","boring_xml_url":40,"boring_view_url":1,"soilmap_view_url":null,"soiltest_xml_url":0,"soiltest_view_url":0},{"id":213614,"code":"B4KJ201801010-1863","latitude":"32.0157192","longitude":"130.5977194","source_code":"QS48300418006","project_name":"","survey_name":"\u4e0b\u6bbf\u6a0b\u9580\u59161\u4ef6\u5730\u8cea\u8abf\u67fb\u696d\u52d9","client_name":"\u56fd\u571f\u4ea4\u901a\u7701 \u4e5d\u5dde\u5730\u65b9\u6574\u5099\u5c40 \u5ddd\u5185\u5ddd\u6cb3\u5ddd\u4e8b\u52d9\u6240","boring_xml_url":40,"boring_view_url":1,"soilmap_view_url":null,"soiltest_xml_url":0,"soiltest_view_url":0},{"id":213613,"code":"B4KJ201801010-1862","latitude":"32.0152194","longitude":"130.6021081","source_code":"QS48300418005","project_name":"","survey_name":"\u66fd\u6728\u7b2c\u4e00\u6a0b\u9580\u59161\u4ef6\u5730\u8cea\u8abf\u67fb\u696d\u52d9","client_name":"\u56fd\u571f\u4ea4\u901a\u7701 \u4e5d\u5dde\u5730\u65b9\u6574\u5099\u5c40 \u5ddd\u5185\u5ddd\u6cb3\u5ddd\u4e8b\u52d9\u6240","boring_xml_url":40,"boring_view_url":1,"soilmap_view_url":null,"soiltest_xml_url":0,"soiltest_view_url":0},{"id":213612,"code":"B4KJ201801010-1861","latitude":"32.0153861","longitude":"130.6019414","source_code":"QS48300418004","project_name":"","survey_name":"\u66fd\u6728\u7b2c\u4e00\u6a0b\u9580\u59161\u4ef6\u5730\u8cea\u8abf\u67fb\u696d\u52d9","client_name":"\u56fd\u571f\u4ea4\u901a\u7701 \u4e5d\u5dde\u5730\u65b9\u6574\u5099\u5c40 \u5ddd\u5185\u5ddd\u6cb3\u5ddd\u4e8b\u52d9\u6240","boring_xml_url":40,"boring_view_url":1,"soilmap_view_url":null,"soiltest_xml_url":0,"soiltest_view_url":0},{"id":213611,"code":"B4KJ201801010-1860","latitude":"32.0149694","longitude":"130.6021358","source_code":"QS48300418003","project_name":"","survey_name":"\u66fd\u6728\u7b2c\u4e00\u6a0b\u9580\u59161\u4ef6\u5730\u8cea\u8abf\u67fb\u696d\u52d9","client_name":"\u56fd\u571f\u4ea4\u901a\u7701 \u4e5d\u5dde\u5730\u65b9\u6574\u5099\u5c40 \u5ddd\u5185\u5ddd\u6cb3\u5ddd\u4e8b\u52d9\u6240","boring_xml_url":40,"boring_view_url":1,"soilmap_view_url":null,"soiltest_xml_url":0,"soiltest_view_url":0},{"id":213610,"code":"B4KJ201801010-1859","latitude":"32.012914","longitude":"130.598803","source_code":"QS48300418002","project_name":"","survey_name":"\u66fd\u6728\u7b2c\u4e00\u6a0b\u9580\u59161\u4ef6\u5730\u8cea\u8abf\u67fb\u696d\u52d9","client_name":"\u56fd\u571f\u4ea4\u901a\u7701 \u4e5d\u5dde\u5730\u65b9\u6574\u5099\u5c40 \u5ddd\u5185\u5ddd\u6cb3\u5ddd\u4e8b\u52d9\u6240","boring_xml_url":40,"boring_view_url":1,"soilmap_view_url":null,"soiltest_xml_url":0,"soiltest_view_url":0},{"id":213609,"code":"B4KJ201801010-1858","latitude":"32.013136","longitude":"130.598581","source_code":"QS48300418001","project_name":"","survey_name":"\u66fd\u6728\u7b2c\u4e00\u6a0b\u9580\u59161\u4ef6\u5730\u8cea\u8abf\u67fb\u696d\u52d9","client_name":"\u56fd\u571f\u4ea4\u901a\u7701 \u4e5d\u5dde\u5730\u65b9\u6574\u5099\u5c40 \u5ddd\u5185\u5ddd\u6cb3\u5ddd\u4e8b\u52d9\u6240","boring_xml_url":40,"boring_view_url":1,"soilmap_view_url":null,"soiltest_xml_url":0,"soiltest_view_url":0},{"id":213608,"code":"B4KJ201801010-1857","latitude":"32.0137472","longitude":"130.5928033","source_code":"QS48300417002","project_name":"","survey_name":"\u9234\u4e4b\u702c\u7b2c\u4e8c\u6a0b\u9580\u59163\u4ef6\u5730\u8cea\u8abf\u67fb\u696d\u52d9","client_name":"\u56fd\u571f\u4ea4\u901a\u7701 \u4e5d\u5dde\u5730\u65b9\u6574\u5099\u5c40 \u5ddd\u5185\u5ddd\u6cb3\u5ddd\u4e8b\u52d9\u6240","boring_xml_url":40,"boring_view_url":1,"soilmap_view_url":null,"soiltest_xml_url":0,"soiltest_view_url":0},{"id":213607,"code":"B4KJ201801010-1856","latitude":"32.0138583","longitude":"130.5929422","source_code":"QS48300417001","project_name":"","survey_name":"\u9234\u4e4b\u702c\u7b2c\u4e8c\u6a0b\u9580\u59163\u4ef6\u5730\u8cea\u8abf\u67fb\u696d\u52d9","client_name":"\u56fd\u571f\u4ea4\u901a\u7701 \u4e5d\u5dde\u5730\u65b9\u6574\u5099\u5c40 \u5ddd\u5185\u5ddd\u6cb3\u5ddd\u4e8b\u52d9\u6240","boring_xml_url":40,"boring_view_url":1,"soilmap_view_url":null,"soiltest_xml_url":0,"soiltest_view_url":0},{"id":213606,"code":"B4KJ201801010-1855","latitude":"32.0143581","longitude":"130.5837483","source_code":"QS48300416002","project_name":"","survey_name":"\u9234\u4e4b\u702c\u7b2c\u4e8c\u6a0b\u9580\u59163\u4ef6\u5730\u8cea\u8abf\u67fb\u696d\u52d9","client_name":"\u56fd\u571f\u4ea4\u901a\u7701 \u4e5d\u5dde\u5730\u65b9\u6574\u5099\u5c40 \u5ddd\u5185\u5ddd\u6cb3\u5ddd\u4e8b\u52d9\u6240","boring_xml_url":40,"boring_view_url":1,"soilmap_view_url":null,"soiltest_xml_url":0,"soiltest_view_url":0},{"id":213605,"code":"B4KJ201801010-1854","latitude":"32.0144136","longitude":"130.5836375","source_code":"QS48300416001","project_name":"","survey_name":"\u9234\u4e4b\u702c\u7b2c\u4e8c\u6a0b\u9580\u59163\u4ef6\u5730\u8cea\u8abf\u67fb\u696d\u52d9","client_name":"\u56fd\u571f\u4ea4\u901a\u7701 \u4e5d\u5dde\u5730\u65b9\u6574\u5099\u5c40 \u5ddd\u5185\u5ddd\u6cb3\u5ddd\u4e8b\u52d9\u6240","boring_xml_url":40,"boring_view_url":1,"soilmap_view_url":null,"soiltest_xml_url":0,"soiltest_view_url":0},{"id":213604,"code":"B4KJ201801010-1853","latitude":"32.0831503","longitude":"130.2757464","source_code":"QS48300292002","project_name":"","survey_name":"\u4f73\u4f8b\u5ddd\u5730\u533a\u59162\u4ef6\u5730\u8cea\u8abf\u67fb\u696d\u52d9","client_name":"\u56fd\u571f\u4ea4\u901a\u7701 \u4e5d\u5dde\u5730\u65b9\u6574\u5099\u5c40 \u9e7f\u5150\u5cf6\u56fd\u9053\u4e8b\u52d9\u6240","boring_xml_url":40,"boring_view_url":1,"soilmap_view_url":null,"soiltest_xml_url":0,"soiltest_view_url":0},{"id":213603,"code":"B4KJ201801010-1852","latitude":"32.0831503","longitude":"130.2757464","source_code":"QS48300292001","project_name":"","survey_name":"\u4f73\u4f8b\u5ddd\u5730\u533a\u59162\u4ef6\u5730\u8cea\u8abf\u67fb\u696d\u52d9","client_name":"\u56fd\u571f\u4ea4\u901a\u7701 \u4e5d\u5dde\u5730\u65b9\u6574\u5099\u5c40 \u9e7f\u5150\u5cf6\u56fd\u9053\u4e8b\u52d9\u6240","boring_xml_url":40,"boring_view_url":1,"soilmap_view_url":null,"soiltest_xml_url":0,"soiltest_view_url":0},{"id":213602,"code":"B4KJ201801010-1851","latitude":"32.0613186","longitude":"130.2252792","source_code":"QS48300168004","project_name":"","survey_name":"\u9663\u4e4b\u5c3e\u5730\u533a\u5916\u4e00\u9023\u5730\u8cea\u8abf\u67fb\u696d\u52d9\u9663\u4e4b\u5c3e\u6a4b","client_name":"\u56fd\u571f\u4ea4\u901a\u7701 \u4e5d\u5dde\u5730\u65b9\u6574\u5099\u5c40 \u9e7f\u5150\u5cf6\u56fd\u9053\u4e8b\u52d9\u6240","boring_xml_url":40,"boring_view_url":1,"soilmap_view_url":null,"soiltest_xml_url":0,"soiltest_view_url":0},{"id":213601,"code":"B4KJ201801010-1850","latitude":"32.0610686","longitude":"130.2256403","source_code":"QS48300168003","project_name":"","survey_name":"\u9663\u4e4b\u5c3e\u5730\u533a\u5916\u4e00\u9023\u5730\u8cea\u8abf\u67fb\u696d\u52d9\u9663\u4e4b\u5c3e\u6a4b","client_name":"\u56fd\u571f\u4ea4\u901a\u7701 \u4e5d\u5dde\u5730\u65b9\u6574\u5099\u5c40 \u9e7f\u5150\u5cf6\u56fd\u9053\u4e8b\u52d9\u6240","boring_xml_url":40,"boring_view_url":1,"soilmap_view_url":null,"soiltest_xml_url":0,"soiltest_view_url":0},{"id":213600,"code":"B4KJ201801010-1849","latitude":"32.0611797","longitude":"130.2258069","source_code":"QS48300168002","project_name":"","survey_name":"\u9663\u4e4b\u5c3e\u5730\u533a\u5916\u4e00\u9023\u5730\u8cea\u8abf\u67fb\u696d\u52d9\u9663\u4e4b\u5c3e\u6a4b","client_name":"\u56fd\u571f\u4ea4\u901a\u7701 \u4e5d\u5dde\u5730\u65b9\u6574\u5099\u5c40 \u9e7f\u5150\u5cf6\u56fd\u9053\u4e8b\u52d9\u6240","boring_xml_url":40,"boring_view_url":1,"soilmap_view_url":null,"soiltest_xml_url":0,"soiltest_view_url":0},{"id":213599,"code":"B4KJ201801010-1848","latitude":"32.0134622","longitude":"130.1973106","source_code":"QS48300115001","project_name":"","survey_name":"\u9e7f\u5150\u5cf63\u53f7\u6f5f\u5730\u533a\u5730\u8cea\u8abf\u67fb\u696d\u52d9","client_name":"\u56fd\u571f\u4ea4\u901a\u7701 \u4e5d\u5dde\u5730\u65b9\u6574\u5099\u5c40 \u9e7f\u5150\u5cf6\u56fd\u9053\u4e8b\u52d9\u6240","boring_xml_url":40,"boring_view_url":1,"soilmap_view_url":null,"soiltest_xml_url":0,"soiltest_view_url":0},{"id":213598,"code":"B4KJ201801010-1847","latitude":"32.0061019","longitude":"130.1963386","source_code":"QS48300105002","project_name":"","survey_name":"\u9e7f\u5150\u5cf63\u53f7\u6f5f\u5730\u533a\u5730\u8cea\u8abf\u67fb\u696d\u52d9","client_name":"\u56fd\u571f\u4ea4\u901a\u7701 \u4e5d\u5dde\u5730\u65b9\u6574\u5099\u5c40 \u9e7f\u5150\u5cf6\u56fd\u9053\u4e8b\u52d9\u6240","boring_xml_url":40,"boring_view_url":1,"soilmap_view_url":null,"soiltest_xml_url":0,"soiltest_view_url":0},{"id":213597,"code":"B4KJ201801010-1846","latitude":"32.0061853","longitude":"130.1963386","source_code":"QS48300105001","project_name":"","survey_name":"\u9e7f\u5150\u5cf63\u53f7\u6f5f\u5730\u533a\u5730\u8cea\u8abf\u67fb\u696d\u52d9","client_name":"\u56fd\u571f\u4ea4\u901a\u7701 \u4e5d\u5dde\u5730\u65b9\u6574\u5099\u5c40 \u9e7f\u5150\u5cf6\u56fd\u9053\u4e8b\u52d9\u6240","boring_xml_url":40,"boring_view_url":1,"soilmap_view_url":null,"soiltest_xml_url":0,"soiltest_view_url":0},{"id":213596,"code":"B4KJ201801010-1845","latitude":"31.9890436","longitude":"131.4546164","source_code":"QS47317386002","project_name":"","survey_name":"\u662d\u548c56\u5e74\u5ea6\u5bae\u5d0e\u5730\u533a\u5730\u8cea\u8abf\u67fb\u696d\u52d9","client_name":"\u56fd\u571f\u4ea4\u901a\u7701\u4e5d\u5dde\u5730\u65b9\u6574\u5099\u5c40\u5bae\u5d0e\u6cb3\u5ddd\u56fd\u9053\u4e8b\u52d9\u6240","boring_xml_url":40,"boring_view_url":1,"soilmap_view_url":null,"soiltest_xml_url":0,"soiltest_view_url":0}]}}