{"header":{"xyz":{"source":[],"mosaic":false},"page":3568,"raw":{"soiltest_result":"0","bbox":"57.598333,109.544722,1.933333,163.806111","page":"3568"},"conditions":{"soiltest_result":0,"north":57.598333,"west":109.544722,"south":1.933333,"east":163.806111},"success":true,"message":""},"data":{"meta":{"total":212844,"page":3568,"pages":7095,"count":30},"values":[{"id":213535,"code":"B4KJ201801010-1784","latitude":"31.9256325","longitude":"131.3771806","source_code":"QS47317300037","project_name":"","survey_name":"\u5e73\u62105\u5e74\u5ea6\u5bae\u5d0e10\u53f7\u751f\u76ee\u9ad8\u67b6\u6a4b\u5730\u8cea\u8abf\u67fb\u696d\u52d9","client_name":"\u56fd\u571f\u4ea4\u901a\u7701\u4e5d\u5dde\u5730\u65b9\u6574\u5099\u5c40\u5bae\u5d0e\u6cb3\u5ddd\u56fd\u9053\u4e8b\u52d9\u6240","boring_xml_url":40,"boring_view_url":1,"soilmap_view_url":null,"soiltest_xml_url":0,"soiltest_view_url":0},{"id":213534,"code":"B4KJ201801010-1783","latitude":"31.9254936","longitude":"131.3770972","source_code":"QS47317300036","project_name":"","survey_name":"\u5e73\u62105\u5e74\u5ea6\u5bae\u5d0e10\u53f7\u751f\u76ee\u9ad8\u67b6\u6a4b\u5730\u8cea\u8abf\u67fb\u696d\u52d9","client_name":"\u56fd\u571f\u4ea4\u901a\u7701\u4e5d\u5dde\u5730\u65b9\u6574\u5099\u5c40\u5bae\u5d0e\u6cb3\u5ddd\u56fd\u9053\u4e8b\u52d9\u6240","boring_xml_url":40,"boring_view_url":1,"soilmap_view_url":null,"soiltest_xml_url":0,"soiltest_view_url":0},{"id":213533,"code":"B4KJ201801010-1782","latitude":"31.9255492","longitude":"131.3773472","source_code":"QS47317300035","project_name":"","survey_name":"\u5e73\u62105\u5e74\u5ea6\u5bae\u5d0e10\u53f7\u751f\u76ee\u9ad8\u67b6\u6a4b\u5730\u8cea\u8abf\u67fb\u696d\u52d9","client_name":"\u56fd\u571f\u4ea4\u901a\u7701\u4e5d\u5dde\u5730\u65b9\u6574\u5099\u5c40\u5bae\u5d0e\u6cb3\u5ddd\u56fd\u9053\u4e8b\u52d9\u6240","boring_xml_url":40,"boring_view_url":1,"soilmap_view_url":null,"soiltest_xml_url":0,"soiltest_view_url":0},{"id":213532,"code":"B4KJ201801010-1781","latitude":"31.9254103","longitude":"131.3772639","source_code":"QS47317300034","project_name":"","survey_name":"\u5e73\u62105\u5e74\u5ea6\u5bae\u5d0e10\u53f7\u751f\u76ee\u9ad8\u67b6\u6a4b\u5730\u8cea\u8abf\u67fb\u696d\u52d9","client_name":"\u56fd\u571f\u4ea4\u901a\u7701\u4e5d\u5dde\u5730\u65b9\u6574\u5099\u5c40\u5bae\u5d0e\u6cb3\u5ddd\u56fd\u9053\u4e8b\u52d9\u6240","boring_xml_url":40,"boring_view_url":1,"soilmap_view_url":null,"soiltest_xml_url":0,"soiltest_view_url":0},{"id":213531,"code":"B4KJ201801010-1780","latitude":"31.9254936","longitude":"131.3775414","source_code":"QS47317300033","project_name":"","survey_name":"\u5e73\u62105\u5e74\u5ea6\u5bae\u5d0e10\u53f7\u751f\u76ee\u9ad8\u67b6\u6a4b\u5730\u8cea\u8abf\u67fb\u696d\u52d9","client_name":"\u56fd\u571f\u4ea4\u901a\u7701\u4e5d\u5dde\u5730\u65b9\u6574\u5099\u5c40\u5bae\u5d0e\u6cb3\u5ddd\u56fd\u9053\u4e8b\u52d9\u6240","boring_xml_url":40,"boring_view_url":1,"soilmap_view_url":null,"soiltest_xml_url":0,"soiltest_view_url":0},{"id":213530,"code":"B4KJ201801010-1779","latitude":"31.9253828","longitude":"131.3774306","source_code":"QS47317300032","project_name":"","survey_name":"\u5e73\u62105\u5e74\u5ea6\u5bae\u5d0e10\u53f7\u751f\u76ee\u9ad8\u67b6\u6a4b\u5730\u8cea\u8abf\u67fb\u696d\u52d9","client_name":"\u56fd\u571f\u4ea4\u901a\u7701\u4e5d\u5dde\u5730\u65b9\u6574\u5099\u5c40\u5bae\u5d0e\u6cb3\u5ddd\u56fd\u9053\u4e8b\u52d9\u6240","boring_xml_url":40,"boring_view_url":1,"soilmap_view_url":null,"soiltest_xml_url":0,"soiltest_view_url":0},{"id":213529,"code":"B4KJ201801010-1778","latitude":"31.9254106","longitude":"131.3777358","source_code":"QS47317300031","project_name":"","survey_name":"\u5e73\u62105\u5e74\u5ea6\u5bae\u5d0e10\u53f7\u751f\u76ee\u9ad8\u67b6\u6a4b\u5730\u8cea\u8abf\u67fb\u696d\u52d9","client_name":"\u56fd\u571f\u4ea4\u901a\u7701\u4e5d\u5dde\u5730\u65b9\u6574\u5099\u5c40\u5bae\u5d0e\u6cb3\u5ddd\u56fd\u9053\u4e8b\u52d9\u6240","boring_xml_url":40,"boring_view_url":1,"soilmap_view_url":null,"soiltest_xml_url":0,"soiltest_view_url":0},{"id":213528,"code":"B4KJ201801010-1777","latitude":"31.9252717","longitude":"131.3776247","source_code":"QS47317300030","project_name":"","survey_name":"\u5e73\u62105\u5e74\u5ea6\u5bae\u5d0e10\u53f7\u751f\u76ee\u9ad8\u67b6\u6a4b\u5730\u8cea\u8abf\u67fb\u696d\u52d9","client_name":"\u56fd\u571f\u4ea4\u901a\u7701\u4e5d\u5dde\u5730\u65b9\u6574\u5099\u5c40\u5bae\u5d0e\u6cb3\u5ddd\u56fd\u9053\u4e8b\u52d9\u6240","boring_xml_url":40,"boring_view_url":1,"soilmap_view_url":null,"soiltest_xml_url":0,"soiltest_view_url":0},{"id":213527,"code":"B4KJ201801010-1776","latitude":"31.9253828","longitude":"131.3779303","source_code":"QS47317300029","project_name":"","survey_name":"\u5e73\u62105\u5e74\u5ea6\u5bae\u5d0e10\u53f7\u751f\u76ee\u9ad8\u67b6\u6a4b\u5730\u8cea\u8abf\u67fb\u696d\u52d9","client_name":"\u56fd\u571f\u4ea4\u901a\u7701\u4e5d\u5dde\u5730\u65b9\u6574\u5099\u5c40\u5bae\u5d0e\u6cb3\u5ddd\u56fd\u9053\u4e8b\u52d9\u6240","boring_xml_url":40,"boring_view_url":1,"soilmap_view_url":null,"soiltest_xml_url":0,"soiltest_view_url":0},{"id":213526,"code":"B4KJ201801010-1775","latitude":"31.9252161","longitude":"131.3778192","source_code":"QS47317300028","project_name":"","survey_name":"\u5e73\u62105\u5e74\u5ea6\u5bae\u5d0e10\u53f7\u751f\u76ee\u9ad8\u67b6\u6a4b\u5730\u8cea\u8abf\u67fb\u696d\u52d9","client_name":"\u56fd\u571f\u4ea4\u901a\u7701\u4e5d\u5dde\u5730\u65b9\u6574\u5099\u5c40\u5bae\u5d0e\u6cb3\u5ddd\u56fd\u9053\u4e8b\u52d9\u6240","boring_xml_url":40,"boring_view_url":1,"soilmap_view_url":null,"soiltest_xml_url":0,"soiltest_view_url":0},{"id":213525,"code":"B4KJ201801010-1774","latitude":"31.9252717","longitude":"131.3781247","source_code":"QS47317300027","project_name":"","survey_name":"\u5e73\u62105\u5e74\u5ea6\u5bae\u5d0e10\u53f7\u751f\u76ee\u9ad8\u67b6\u6a4b\u5730\u8cea\u8abf\u67fb\u696d\u52d9","client_name":"\u56fd\u571f\u4ea4\u901a\u7701\u4e5d\u5dde\u5730\u65b9\u6574\u5099\u5c40\u5bae\u5d0e\u6cb3\u5ddd\u56fd\u9053\u4e8b\u52d9\u6240","boring_xml_url":40,"boring_view_url":1,"soilmap_view_url":null,"soiltest_xml_url":0,"soiltest_view_url":0},{"id":213524,"code":"B4KJ201801010-1773","latitude":"31.9251606","longitude":"131.3780136","source_code":"QS47317300026","project_name":"","survey_name":"\u5e73\u62105\u5e74\u5ea6\u5bae\u5d0e10\u53f7\u751f\u76ee\u9ad8\u67b6\u6a4b\u5730\u8cea\u8abf\u67fb\u696d\u52d9","client_name":"\u56fd\u571f\u4ea4\u901a\u7701\u4e5d\u5dde\u5730\u65b9\u6574\u5099\u5c40\u5bae\u5d0e\u6cb3\u5ddd\u56fd\u9053\u4e8b\u52d9\u6240","boring_xml_url":40,"boring_view_url":1,"soilmap_view_url":null,"soiltest_xml_url":0,"soiltest_view_url":0},{"id":213523,"code":"B4KJ201801010-1772","latitude":"31.9252161","longitude":"131.3784025","source_code":"QS47317300025","project_name":"","survey_name":"\u5e73\u62105\u5e74\u5ea6\u5bae\u5d0e10\u53f7\u751f\u76ee\u9ad8\u67b6\u6a4b\u5730\u8cea\u8abf\u67fb\u696d\u52d9","client_name":"\u56fd\u571f\u4ea4\u901a\u7701\u4e5d\u5dde\u5730\u65b9\u6574\u5099\u5c40\u5bae\u5d0e\u6cb3\u5ddd\u56fd\u9053\u4e8b\u52d9\u6240","boring_xml_url":40,"boring_view_url":1,"soilmap_view_url":null,"soiltest_xml_url":0,"soiltest_view_url":0},{"id":213522,"code":"B4KJ201801010-1771","latitude":"31.9250772","longitude":"131.3782081","source_code":"QS47317300024","project_name":"","survey_name":"\u5e73\u62105\u5e74\u5ea6\u5bae\u5d0e10\u53f7\u751f\u76ee\u9ad8\u67b6\u6a4b\u5730\u8cea\u8abf\u67fb\u696d\u52d9","client_name":"\u56fd\u571f\u4ea4\u901a\u7701\u4e5d\u5dde\u5730\u65b9\u6574\u5099\u5c40\u5bae\u5d0e\u6cb3\u5ddd\u56fd\u9053\u4e8b\u52d9\u6240","boring_xml_url":40,"boring_view_url":1,"soilmap_view_url":null,"soiltest_xml_url":0,"soiltest_view_url":0},{"id":213521,"code":"B4KJ201801010-1770","latitude":"31.9251606","longitude":"131.3785692","source_code":"QS47317300023","project_name":"","survey_name":"\u5e73\u62105\u5e74\u5ea6\u5bae\u5d0e10\u53f7\u751f\u76ee\u9ad8\u67b6\u6a4b\u5730\u8cea\u8abf\u67fb\u696d\u52d9","client_name":"\u56fd\u571f\u4ea4\u901a\u7701\u4e5d\u5dde\u5730\u65b9\u6574\u5099\u5c40\u5bae\u5d0e\u6cb3\u5ddd\u56fd\u9053\u4e8b\u52d9\u6240","boring_xml_url":40,"boring_view_url":1,"soilmap_view_url":null,"soiltest_xml_url":0,"soiltest_view_url":0},{"id":213520,"code":"B4KJ201801010-1769","latitude":"31.9249661","longitude":"131.3784581","source_code":"QS47317300022","project_name":"","survey_name":"\u5e73\u62105\u5e74\u5ea6\u5bae\u5d0e10\u53f7\u751f\u76ee\u9ad8\u67b6\u6a4b\u5730\u8cea\u8abf\u67fb\u696d\u52d9","client_name":"\u56fd\u571f\u4ea4\u901a\u7701\u4e5d\u5dde\u5730\u65b9\u6574\u5099\u5c40\u5bae\u5d0e\u6cb3\u5ddd\u56fd\u9053\u4e8b\u52d9\u6240","boring_xml_url":40,"boring_view_url":1,"soilmap_view_url":null,"soiltest_xml_url":0,"soiltest_view_url":0},{"id":213519,"code":"B4KJ201801010-1768","latitude":"31.9250772","longitude":"131.3786803","source_code":"QS47317300021","project_name":"","survey_name":"\u5e73\u62105\u5e74\u5ea6\u5bae\u5d0e10\u53f7\u751f\u76ee\u9ad8\u67b6\u6a4b\u5730\u8cea\u8abf\u67fb\u696d\u52d9","client_name":"\u56fd\u571f\u4ea4\u901a\u7701\u4e5d\u5dde\u5730\u65b9\u6574\u5099\u5c40\u5bae\u5d0e\u6cb3\u5ddd\u56fd\u9053\u4e8b\u52d9\u6240","boring_xml_url":40,"boring_view_url":1,"soilmap_view_url":null,"soiltest_xml_url":0,"soiltest_view_url":0},{"id":213518,"code":"B4KJ201801010-1767","latitude":"31.9249106","longitude":"131.3786247","source_code":"QS47317300020","project_name":"","survey_name":"\u5e73\u62105\u5e74\u5ea6\u5bae\u5d0e10\u53f7\u751f\u76ee\u9ad8\u67b6\u6a4b\u5730\u8cea\u8abf\u67fb\u696d\u52d9","client_name":"\u56fd\u571f\u4ea4\u901a\u7701\u4e5d\u5dde\u5730\u65b9\u6574\u5099\u5c40\u5bae\u5d0e\u6cb3\u5ddd\u56fd\u9053\u4e8b\u52d9\u6240","boring_xml_url":40,"boring_view_url":1,"soilmap_view_url":null,"soiltest_xml_url":0,"soiltest_view_url":0},{"id":213517,"code":"B4KJ201801010-1766","latitude":"31.9249661","longitude":"131.3790136","source_code":"QS47317300019","project_name":"","survey_name":"\u5e73\u62105\u5e74\u5ea6\u5bae\u5d0e10\u53f7\u751f\u76ee\u9ad8\u67b6\u6a4b\u5730\u8cea\u8abf\u67fb\u696d\u52d9","client_name":"\u56fd\u571f\u4ea4\u901a\u7701\u4e5d\u5dde\u5730\u65b9\u6574\u5099\u5c40\u5bae\u5d0e\u6cb3\u5ddd\u56fd\u9053\u4e8b\u52d9\u6240","boring_xml_url":40,"boring_view_url":1,"soilmap_view_url":null,"soiltest_xml_url":0,"soiltest_view_url":0},{"id":213516,"code":"B4KJ201801010-1765","latitude":"31.924855","longitude":"131.3792081","source_code":"QS47317300018","project_name":"","survey_name":"\u5e73\u62105\u5e74\u5ea6\u5bae\u5d0e10\u53f7\u751f\u76ee\u9ad8\u67b6\u6a4b\u5730\u8cea\u8abf\u67fb\u696d\u52d9","client_name":"\u56fd\u571f\u4ea4\u901a\u7701\u4e5d\u5dde\u5730\u65b9\u6574\u5099\u5c40\u5bae\u5d0e\u6cb3\u5ddd\u56fd\u9053\u4e8b\u52d9\u6240","boring_xml_url":40,"boring_view_url":1,"soilmap_view_url":null,"soiltest_xml_url":0,"soiltest_view_url":0},{"id":213515,"code":"B4KJ201801010-1764","latitude":"31.9249106","longitude":"131.3791803","source_code":"QS47317300017","project_name":"","survey_name":"\u5e73\u62105\u5e74\u5ea6\u5bae\u5d0e10\u53f7\u751f\u76ee\u9ad8\u67b6\u6a4b\u5730\u8cea\u8abf\u67fb\u696d\u52d9","client_name":"\u56fd\u571f\u4ea4\u901a\u7701\u4e5d\u5dde\u5730\u65b9\u6574\u5099\u5c40\u5bae\u5d0e\u6cb3\u5ddd\u56fd\u9053\u4e8b\u52d9\u6240","boring_xml_url":40,"boring_view_url":1,"soilmap_view_url":null,"soiltest_xml_url":0,"soiltest_view_url":0},{"id":213514,"code":"B4KJ201801010-1763","latitude":"31.9247439","longitude":"131.3791525","source_code":"QS47317300016","project_name":"","survey_name":"\u5e73\u62105\u5e74\u5ea6\u5bae\u5d0e10\u53f7\u751f\u76ee\u9ad8\u67b6\u6a4b\u5730\u8cea\u8abf\u67fb\u696d\u52d9","client_name":"\u56fd\u571f\u4ea4\u901a\u7701\u4e5d\u5dde\u5730\u65b9\u6574\u5099\u5c40\u5bae\u5d0e\u6cb3\u5ddd\u56fd\u9053\u4e8b\u52d9\u6240","boring_xml_url":40,"boring_view_url":1,"soilmap_view_url":null,"soiltest_xml_url":0,"soiltest_view_url":0},{"id":213513,"code":"B4KJ201801010-1762","latitude":"31.924855","longitude":"131.3794581","source_code":"QS47317300015","project_name":"","survey_name":"\u5e73\u62105\u5e74\u5ea6\u5bae\u5d0e10\u53f7\u751f\u76ee\u9ad8\u67b6\u6a4b\u5730\u8cea\u8abf\u67fb\u696d\u52d9","client_name":"\u56fd\u571f\u4ea4\u901a\u7701\u4e5d\u5dde\u5730\u65b9\u6574\u5099\u5c40\u5bae\u5d0e\u6cb3\u5ddd\u56fd\u9053\u4e8b\u52d9\u6240","boring_xml_url":40,"boring_view_url":1,"soilmap_view_url":null,"soiltest_xml_url":0,"soiltest_view_url":0},{"id":213512,"code":"B4KJ201801010-1761","latitude":"31.9245217","longitude":"131.3792081","source_code":"QS47317300006","project_name":"","survey_name":"\u5bae\u5d0e\u770c10\u53f7\u65b0\u5bcc\u5730\u533a\u5730\u8cea\u8abf\u67fb\u59161\u4ef6\u696d\u52d9","client_name":"\u56fd\u571f\u4ea4\u901a\u7701\u4e5d\u5dde\u5730\u65b9\u6574\u5099\u5c40\u5bae\u5d0e\u6cb3\u5ddd\u56fd\u9053\u4e8b\u52d9\u6240","boring_xml_url":40,"boring_view_url":1,"soilmap_view_url":null,"soiltest_xml_url":0,"soiltest_view_url":0},{"id":213511,"code":"B4KJ201801010-1760","latitude":"31.9245217","longitude":"131.3796803","source_code":"QS47317300005","project_name":"","survey_name":"\u5bae\u5d0e\u770c10\u53f7\u65b0\u5bcc\u5730\u533a\u5730\u8cea\u8abf\u67fb\u59161\u4ef6\u696d\u52d9","client_name":"\u56fd\u571f\u4ea4\u901a\u7701\u4e5d\u5dde\u5730\u65b9\u6574\u5099\u5c40\u5bae\u5d0e\u6cb3\u5ddd\u56fd\u9053\u4e8b\u52d9\u6240","boring_xml_url":40,"boring_view_url":1,"soilmap_view_url":null,"soiltest_xml_url":0,"soiltest_view_url":0},{"id":213510,"code":"B4KJ201801010-1759","latitude":"31.9259936","longitude":"131.3759306","source_code":"QS47317300004","project_name":"","survey_name":"\u56fd\u905310\u53f7\u5bae\u5d0e\u897f\u30d0\u30a4\u30d1\u30b9\u6d6e\u7530\u5730\u533a\u5730\u8cea\u8abf\u67fb\u696d\u52d9","client_name":"\u56fd\u571f\u4ea4\u901a\u7701\u4e5d\u5dde\u5730\u65b9\u6574\u5099\u5c40\u5bae\u5d0e\u6cb3\u5ddd\u56fd\u9053\u4e8b\u52d9\u6240","boring_xml_url":40,"boring_view_url":1,"soilmap_view_url":null,"soiltest_xml_url":0,"soiltest_view_url":0},{"id":213509,"code":"B4KJ201801010-1758","latitude":"31.9270769","longitude":"131.3750139","source_code":"QS47317300003","project_name":"","survey_name":"\u56fd\u905310\u53f7\u5bae\u5d0e\u897f\u30d0\u30a4\u30d1\u30b9\u6d6e\u7530\u5730\u533a\u5730\u8cea\u8abf\u67fb\u696d\u52d9","client_name":"\u56fd\u571f\u4ea4\u901a\u7701\u4e5d\u5dde\u5730\u65b9\u6574\u5099\u5c40\u5bae\u5d0e\u6cb3\u5ddd\u56fd\u9053\u4e8b\u52d9\u6240","boring_xml_url":40,"boring_view_url":1,"soilmap_view_url":null,"soiltest_xml_url":0,"soiltest_view_url":0},{"id":213508,"code":"B4KJ201801010-1757","latitude":"31.9273269","longitude":"131.3747917","source_code":"QS47317300002","project_name":"","survey_name":"\u56fd\u905310\u53f7\u5bae\u5d0e\u897f\u30d0\u30a4\u30d1\u30b9\u6d6e\u7530\u5730\u533a\u5730\u8cea\u8abf\u67fb\u696d\u52d9","client_name":"\u56fd\u571f\u4ea4\u901a\u7701\u4e5d\u5dde\u5730\u65b9\u6574\u5099\u5c40\u5bae\u5d0e\u6cb3\u5ddd\u56fd\u9053\u4e8b\u52d9\u6240","boring_xml_url":40,"boring_view_url":1,"soilmap_view_url":null,"soiltest_xml_url":0,"soiltest_view_url":0},{"id":213507,"code":"B4KJ201801010-1756","latitude":"31.9275767","longitude":"131.3744861","source_code":"QS47317300001","project_name":"","survey_name":"\u56fd\u905310\u53f7\u5bae\u5d0e\u897f\u30d0\u30a4\u30d1\u30b9\u6d6e\u7530\u5730\u533a\u5730\u8cea\u8abf\u67fb\u696d\u52d9","client_name":"\u56fd\u571f\u4ea4\u901a\u7701\u4e5d\u5dde\u5730\u65b9\u6574\u5099\u5c40\u5bae\u5d0e\u6cb3\u5ddd\u56fd\u9053\u4e8b\u52d9\u6240","boring_xml_url":40,"boring_view_url":1,"soilmap_view_url":null,"soiltest_xml_url":0,"soiltest_view_url":0},{"id":213506,"code":"B4KJ201801010-1755","latitude":"31.9998458","longitude":"131.3360989","source_code":"QS47317297005","project_name":"","survey_name":"\u4eee\u5c4b\u539f\u6a4b\u5730\u8cea\u8abf\u67fb\u696d\u52d9","client_name":"\u56fd\u571f\u4ea4\u901a\u7701\u4e5d\u5dde\u5730\u65b9\u6574\u5099\u5c40\u5bae\u5d0e\u6cb3\u5ddd\u56fd\u9053\u4e8b\u52d9\u6240","boring_xml_url":40,"boring_view_url":1,"soilmap_view_url":null,"soiltest_xml_url":0,"soiltest_view_url":0}]}}