{"header":{"xyz":{"source":[],"mosaic":false},"page":3578,"raw":{"soiltest_result":"0","bbox":"57.598333,109.544722,1.933333,163.806111","page":"3578"},"conditions":{"soiltest_result":0,"north":57.598333,"west":109.544722,"south":1.933333,"east":163.806111},"success":true,"message":""},"data":{"meta":{"total":212844,"page":3578,"pages":7095,"count":30},"values":[{"id":213235,"code":"B4KJ201801010-1484","latitude":"31.7921214","longitude":"131.4657317","source_code":"QS47315347015","project_name":"","survey_name":"\u5bae\u5d0e220\u53f7\u9752\u5cf6\u30c8\u30f3\u30cd\u30eb\u5730\u8cea\u8abf\u67fb\u696d\u52d9","client_name":"\u56fd\u571f\u4ea4\u901a\u7701\u4e5d\u5dde\u5730\u65b9\u6574\u5099\u5c40\u5bae\u5d0e\u6cb3\u5ddd\u56fd\u9053\u4e8b\u52d9\u6240","boring_xml_url":40,"boring_view_url":1,"soilmap_view_url":null,"soiltest_xml_url":0,"soiltest_view_url":0},{"id":213234,"code":"B4KJ201801010-1483","latitude":"31.7894828","longitude":"131.464815","source_code":"QS47315347014","project_name":"","survey_name":"\u5bae\u5d0e220\u53f7\u9752\u5cf6\u30c8\u30f3\u30cd\u30eb\u5730\u8cea\u8abf\u67fb\u696d\u52d9","client_name":"\u56fd\u571f\u4ea4\u901a\u7701\u4e5d\u5dde\u5730\u65b9\u6574\u5099\u5c40\u5bae\u5d0e\u6cb3\u5ddd\u56fd\u9053\u4e8b\u52d9\u6240","boring_xml_url":40,"boring_view_url":1,"soilmap_view_url":null,"soiltest_xml_url":0,"soiltest_view_url":0},{"id":213233,"code":"B4KJ201801010-1482","latitude":"31.7921214","longitude":"131.4657317","source_code":"QS47315347013","project_name":"","survey_name":"\u5bae\u5d0e220\u53f7\u9752\u5cf6\u30c8\u30f3\u30cd\u30eb\u5730\u8cea\u8abf\u67fb\u696d\u52d9","client_name":"\u56fd\u571f\u4ea4\u901a\u7701\u4e5d\u5dde\u5730\u65b9\u6574\u5099\u5c40\u5bae\u5d0e\u6cb3\u5ddd\u56fd\u9053\u4e8b\u52d9\u6240","boring_xml_url":40,"boring_view_url":1,"soilmap_view_url":null,"soiltest_xml_url":0,"soiltest_view_url":0},{"id":213232,"code":"B4KJ201801010-1481","latitude":"31.7924547","longitude":"131.4655928","source_code":"QS47315347012","project_name":"","survey_name":"\u56fd\u9053220\u53f7\u6b63\u84ee\u574a\u9ad8\u67b6\u6a4b\u5730\u8cea\u8abf\u67fb\u696d\u52d9","client_name":"\u56fd\u571f\u4ea4\u901a\u7701\u4e5d\u5dde\u5730\u65b9\u6574\u5099\u5c40\u5bae\u5d0e\u6cb3\u5ddd\u56fd\u9053\u4e8b\u52d9\u6240","boring_xml_url":40,"boring_view_url":1,"soilmap_view_url":null,"soiltest_xml_url":0,"soiltest_view_url":0},{"id":213231,"code":"B4KJ201801010-1480","latitude":"31.7910936","longitude":"131.4653428","source_code":"QS47315347011","project_name":"","survey_name":"\u56fd\u9053220\u53f7\u6b63\u84ee\u574a\u9ad8\u67b6\u6a4b\u5730\u8cea\u8abf\u67fb\u696d\u52d9","client_name":"\u56fd\u571f\u4ea4\u901a\u7701\u4e5d\u5dde\u5730\u65b9\u6574\u5099\u5c40\u5bae\u5d0e\u6cb3\u5ddd\u56fd\u9053\u4e8b\u52d9\u6240","boring_xml_url":40,"boring_view_url":1,"soilmap_view_url":null,"soiltest_xml_url":0,"soiltest_view_url":0},{"id":213230,"code":"B4KJ201801010-1479","latitude":"31.7915381","longitude":"131.4654817","source_code":"QS47315347010","project_name":"","survey_name":"\u56fd\u9053220\u53f7\u6b63\u84ee\u574a\u9ad8\u67b6\u6a4b\u5730\u8cea\u8abf\u67fb\u696d\u52d9","client_name":"\u56fd\u571f\u4ea4\u901a\u7701\u4e5d\u5dde\u5730\u65b9\u6574\u5099\u5c40\u5bae\u5d0e\u6cb3\u5ddd\u56fd\u9053\u4e8b\u52d9\u6240","boring_xml_url":40,"boring_view_url":1,"soilmap_view_url":null,"soiltest_xml_url":0,"soiltest_view_url":0},{"id":213229,"code":"B4KJ201801010-1478","latitude":"31.7920103","longitude":"131.465565","source_code":"QS47315347009","project_name":"","survey_name":"\u56fd\u9053220\u53f7\u6b63\u84ee\u574a\u9ad8\u67b6\u6a4b\u5730\u8cea\u8abf\u67fb\u696d\u52d9","client_name":"\u56fd\u571f\u4ea4\u901a\u7701\u4e5d\u5dde\u5730\u65b9\u6574\u5099\u5c40\u5bae\u5d0e\u6cb3\u5ddd\u56fd\u9053\u4e8b\u52d9\u6240","boring_xml_url":40,"boring_view_url":1,"soilmap_view_url":null,"soiltest_xml_url":0,"soiltest_view_url":0},{"id":213228,"code":"B4KJ201801010-1477","latitude":"31.7924547","longitude":"131.4656206","source_code":"QS47315347008","project_name":"","survey_name":"\u56fd\u9053220\u53f7\u6b63\u84ee\u574a\u9ad8\u67b6\u6a4b\u5730\u8cea\u8abf\u67fb\u696d\u52d9","client_name":"\u56fd\u571f\u4ea4\u901a\u7701\u4e5d\u5dde\u5730\u65b9\u6574\u5099\u5c40\u5bae\u5d0e\u6cb3\u5ddd\u56fd\u9053\u4e8b\u52d9\u6240","boring_xml_url":40,"boring_view_url":1,"soilmap_view_url":null,"soiltest_xml_url":0,"soiltest_view_url":0},{"id":213227,"code":"B4KJ201801010-1476","latitude":"31.7928992","longitude":"131.4657039","source_code":"QS47315347007","project_name":"","survey_name":"\u56fd\u9053220\u53f7\u6b63\u84ee\u574a\u9ad8\u67b6\u6a4b\u5730\u8cea\u8abf\u67fb\u696d\u52d9","client_name":"\u56fd\u571f\u4ea4\u901a\u7701\u4e5d\u5dde\u5730\u65b9\u6574\u5099\u5c40\u5bae\u5d0e\u6cb3\u5ddd\u56fd\u9053\u4e8b\u52d9\u6240","boring_xml_url":40,"boring_view_url":1,"soilmap_view_url":null,"soiltest_xml_url":0,"soiltest_view_url":0},{"id":213226,"code":"B4KJ201801010-1475","latitude":"31.7933436","longitude":"131.4657594","source_code":"QS47315347006","project_name":"","survey_name":"\u56fd\u9053220\u53f7\u6b63\u84ee\u574a\u9ad8\u67b6\u6a4b\u5730\u8cea\u8abf\u67fb\u696d\u52d9","client_name":"\u56fd\u571f\u4ea4\u901a\u7701\u4e5d\u5dde\u5730\u65b9\u6574\u5099\u5c40\u5bae\u5d0e\u6cb3\u5ddd\u56fd\u9053\u4e8b\u52d9\u6240","boring_xml_url":40,"boring_view_url":1,"soilmap_view_url":null,"soiltest_xml_url":0,"soiltest_view_url":0},{"id":213225,"code":"B4KJ201801010-1474","latitude":"31.7937878","longitude":"131.465815","source_code":"QS47315347005","project_name":"","survey_name":"\u56fd\u9053220\u53f7\u6b63\u84ee\u574a\u9ad8\u67b6\u6a4b\u5730\u8cea\u8abf\u67fb\u696d\u52d9","client_name":"\u56fd\u571f\u4ea4\u901a\u7701\u4e5d\u5dde\u5730\u65b9\u6574\u5099\u5c40\u5bae\u5d0e\u6cb3\u5ddd\u56fd\u9053\u4e8b\u52d9\u6240","boring_xml_url":40,"boring_view_url":1,"soilmap_view_url":null,"soiltest_xml_url":0,"soiltest_view_url":0},{"id":213224,"code":"B4KJ201801010-1473","latitude":"31.7940378","longitude":"131.4658706","source_code":"QS47315347004","project_name":"","survey_name":"\u56fd\u9053220\u53f7\u6b63\u84ee\u574a\u9ad8\u67b6\u6a4b\u5730\u8cea\u8abf\u67fb\u696d\u52d9","client_name":"\u56fd\u571f\u4ea4\u901a\u7701\u4e5d\u5dde\u5730\u65b9\u6574\u5099\u5c40\u5bae\u5d0e\u6cb3\u5ddd\u56fd\u9053\u4e8b\u52d9\u6240","boring_xml_url":40,"boring_view_url":1,"soilmap_view_url":null,"soiltest_xml_url":0,"soiltest_view_url":0},{"id":213223,"code":"B4KJ201801010-1472","latitude":"31.7944544","longitude":"131.4661481","source_code":"QS47315347003","project_name":"","survey_name":"\u56fd\u9053220\u53f7\u6b63\u84ee\u574a\u9ad8\u67b6\u6a4b\u5730\u8cea\u8abf\u67fb\u696d\u52d9","client_name":"\u56fd\u571f\u4ea4\u901a\u7701\u4e5d\u5dde\u5730\u65b9\u6574\u5099\u5c40\u5bae\u5d0e\u6cb3\u5ddd\u56fd\u9053\u4e8b\u52d9\u6240","boring_xml_url":40,"boring_view_url":1,"soilmap_view_url":null,"soiltest_xml_url":0,"soiltest_view_url":0},{"id":213222,"code":"B4KJ201801010-1471","latitude":"31.7882053","longitude":"131.4645653","source_code":"QS47315347002","project_name":"","survey_name":"\u56fd\u9053220\u53f7\u9752\u5cf6\u30d0\u30a4\u30d1\u30b9\u5730\u8cea\u8abf\u67fb(\u305d\u306e3)\u696d\u52d9","client_name":"\u56fd\u571f\u4ea4\u901a\u7701\u4e5d\u5dde\u5730\u65b9\u6574\u5099\u5c40\u5bae\u5d0e\u6cb3\u5ddd\u56fd\u9053\u4e8b\u52d9\u6240","boring_xml_url":40,"boring_view_url":1,"soilmap_view_url":null,"soiltest_xml_url":0,"soiltest_view_url":0},{"id":213221,"code":"B4KJ201801010-1470","latitude":"31.7947044","longitude":"131.4666758","source_code":"QS47315347001","project_name":"","survey_name":"\u56fd\u9053220\u53f7\u9752\u5cf6\u30d0\u30a4\u30d1\u30b9(\u305d\u306e2)\u5730\u8cea\u8abf\u67fb\u696d\u52d9","client_name":"\u56fd\u571f\u4ea4\u901a\u7701\u4e5d\u5dde\u5730\u65b9\u6574\u5099\u5c40\u5bae\u5d0e\u6cb3\u5ddd\u56fd\u9053\u4e8b\u52d9\u6240","boring_xml_url":40,"boring_view_url":1,"soilmap_view_url":null,"soiltest_xml_url":0,"soiltest_view_url":0},{"id":213220,"code":"B4KJ201801010-1469","latitude":"31.7805117","longitude":"131.4744533","source_code":"QS47315338016","project_name":"","survey_name":"\u6c60\u30f6\u5c71\u5730\u533a\u5730\u6ed1\u308a\u8abf\u67fb\u89b3\u6e2c\u696d\u52d9","client_name":"\u56fd\u571f\u4ea4\u901a\u7701\u4e5d\u5dde\u5730\u65b9\u6574\u5099\u5c40\u5bae\u5d0e\u6cb3\u5ddd\u56fd\u9053\u4e8b\u52d9\u6240","boring_xml_url":40,"boring_view_url":1,"soilmap_view_url":null,"soiltest_xml_url":0,"soiltest_view_url":0},{"id":213219,"code":"B4KJ201801010-1468","latitude":"31.7805117","longitude":"131.4744533","source_code":"QS47315338015","project_name":"","survey_name":"\u6c60\u30f6\u5c71\u5730\u533a\u5730\u6ed1\u308a\u8abf\u67fb\u89b3\u6e2c\u696d\u52d9","client_name":"\u56fd\u571f\u4ea4\u901a\u7701\u4e5d\u5dde\u5730\u65b9\u6574\u5099\u5c40\u5bae\u5d0e\u6cb3\u5ddd\u56fd\u9053\u4e8b\u52d9\u6240","boring_xml_url":40,"boring_view_url":1,"soilmap_view_url":null,"soiltest_xml_url":0,"soiltest_view_url":0},{"id":213218,"code":"B4KJ201801010-1467","latitude":"31.7820394","longitude":"131.4726481","source_code":"QS47315338012","project_name":"","survey_name":"\u5bae\u5d0e220\u53f7 \u8d64\u5742\u9ad8\u67b6\u6a4b\u5730\u8cea\u8abf\u67fb\u696d\u52d9","client_name":"\u56fd\u571f\u4ea4\u901a\u7701\u4e5d\u5dde\u5730\u65b9\u6574\u5099\u5c40\u5bae\u5d0e\u6cb3\u5ddd\u56fd\u9053\u4e8b\u52d9\u6240","boring_xml_url":40,"boring_view_url":1,"soilmap_view_url":null,"soiltest_xml_url":0,"soiltest_view_url":0},{"id":213217,"code":"B4KJ201801010-1466","latitude":"31.7821506","longitude":"131.4726481","source_code":"QS47315338011","project_name":"","survey_name":"\u5bae\u5d0e220\u53f7 \u8d64\u5742\u9ad8\u67b6\u6a4b\u5730\u8cea\u8abf\u67fb\u696d\u52d9","client_name":"\u56fd\u571f\u4ea4\u901a\u7701\u4e5d\u5dde\u5730\u65b9\u6574\u5099\u5c40\u5bae\u5d0e\u6cb3\u5ddd\u56fd\u9053\u4e8b\u52d9\u6240","boring_xml_url":40,"boring_view_url":1,"soilmap_view_url":null,"soiltest_xml_url":0,"soiltest_view_url":0},{"id":213216,"code":"B4KJ201801010-1465","latitude":"31.7809839","longitude":"131.4753978","source_code":"QS47315338009","project_name":"","survey_name":"\u56fd\u9053220\u53f7\u9752\u5cf6\u30d0\u30a4\u30d1\u30b9\u5730\u8cea\u8abf\u67fb(\u305d\u306e3)\u696d\u52d9","client_name":"\u56fd\u571f\u4ea4\u901a\u7701\u4e5d\u5dde\u5730\u65b9\u6574\u5099\u5c40\u5bae\u5d0e\u6cb3\u5ddd\u56fd\u9053\u4e8b\u52d9\u6240","boring_xml_url":40,"boring_view_url":1,"soilmap_view_url":null,"soiltest_xml_url":0,"soiltest_view_url":0},{"id":213215,"code":"B4KJ201801010-1464","latitude":"31.7812617","longitude":"131.4753978","source_code":"QS47315338008","project_name":"","survey_name":"\u56fd\u9053220\u53f7\u9752\u5cf6\u30d0\u30a4\u30d1\u30b9\u5730\u8cea\u8abf\u67fb(\u305d\u306e3)\u696d\u52d9","client_name":"\u56fd\u571f\u4ea4\u901a\u7701\u4e5d\u5dde\u5730\u65b9\u6574\u5099\u5c40\u5bae\u5d0e\u6cb3\u5ddd\u56fd\u9053\u4e8b\u52d9\u6240","boring_xml_url":40,"boring_view_url":1,"soilmap_view_url":null,"soiltest_xml_url":0,"soiltest_view_url":0},{"id":213214,"code":"B4KJ201801010-1463","latitude":"31.7809839","longitude":"131.47512","source_code":"QS47315338007","project_name":"","survey_name":"\u56fd\u9053220\u53f7\u9752\u5cf6\u30d0\u30a4\u30d1\u30b9\u5730\u8cea\u8abf\u67fb(\u305d\u306e3)\u696d\u52d9","client_name":"\u56fd\u571f\u4ea4\u901a\u7701\u4e5d\u5dde\u5730\u65b9\u6574\u5099\u5c40\u5bae\u5d0e\u6cb3\u5ddd\u56fd\u9053\u4e8b\u52d9\u6240","boring_xml_url":40,"boring_view_url":1,"soilmap_view_url":null,"soiltest_xml_url":0,"soiltest_view_url":0},{"id":213213,"code":"B4KJ201801010-1462","latitude":"31.7809839","longitude":"131.4748422","source_code":"QS47315338006","project_name":"","survey_name":"\u56fd\u9053220\u53f7\u9752\u5cf6\u30d0\u30a4\u30d1\u30b9\u5730\u8cea\u8abf\u67fb(\u305d\u306e3)\u696d\u52d9","client_name":"\u56fd\u571f\u4ea4\u901a\u7701\u4e5d\u5dde\u5730\u65b9\u6574\u5099\u5c40\u5bae\u5d0e\u6cb3\u5ddd\u56fd\u9053\u4e8b\u52d9\u6240","boring_xml_url":40,"boring_view_url":1,"soilmap_view_url":null,"soiltest_xml_url":0,"soiltest_view_url":0},{"id":213212,"code":"B4KJ201801010-1461","latitude":"31.7812617","longitude":"131.4737311","source_code":"QS47315338005","project_name":"","survey_name":"\u56fd\u9053220\u53f7\u9752\u5cf6\u30d0\u30a4\u30d1\u30b9\u5730\u8cea\u8abf\u67fb(\u305d\u306e3)\u696d\u52d9","client_name":"\u56fd\u571f\u4ea4\u901a\u7701\u4e5d\u5dde\u5730\u65b9\u6574\u5099\u5c40\u5bae\u5d0e\u6cb3\u5ddd\u56fd\u9053\u4e8b\u52d9\u6240","boring_xml_url":40,"boring_view_url":1,"soilmap_view_url":null,"soiltest_xml_url":0,"soiltest_view_url":0},{"id":213211,"code":"B4KJ201801010-1460","latitude":"31.7785953","longitude":"131.4787308","source_code":"QS47315338003","project_name":"","survey_name":"\u56fd\u9053220\u53f7\u6298\u751f\u8feb\u5730\u533a\u5730\u8cea\u8abf\u67fb\u696d\u52d9","client_name":"\u56fd\u571f\u4ea4\u901a\u7701\u4e5d\u5dde\u5730\u65b9\u6574\u5099\u5c40\u5bae\u5d0e\u6cb3\u5ddd\u56fd\u9053\u4e8b\u52d9\u6240","boring_xml_url":40,"boring_view_url":1,"soilmap_view_url":null,"soiltest_xml_url":0,"soiltest_view_url":0},{"id":213210,"code":"B4KJ201801010-1459","latitude":"31.7788175","longitude":"131.4783419","source_code":"QS47315338002","project_name":"","survey_name":"\u56fd\u9053220\u53f7\u6298\u751f\u8feb\u5730\u533a\u5730\u8cea\u8abf\u67fb\u696d\u52d9","client_name":"\u56fd\u571f\u4ea4\u901a\u7701\u4e5d\u5dde\u5730\u65b9\u6574\u5099\u5c40\u5bae\u5d0e\u6cb3\u5ddd\u56fd\u9053\u4e8b\u52d9\u6240","boring_xml_url":40,"boring_view_url":1,"soilmap_view_url":null,"soiltest_xml_url":0,"soiltest_view_url":0},{"id":213209,"code":"B4KJ201801010-1458","latitude":"31.7798453","longitude":"131.47637","source_code":"QS47315338001","project_name":"","survey_name":"\u56fd\u9053220\u53f7\u6298\u751f\u8feb\u5730\u533a\u5730\u8cea\u8abf\u67fb\u696d\u52d9","client_name":"\u56fd\u571f\u4ea4\u901a\u7701\u4e5d\u5dde\u5730\u65b9\u6574\u5099\u5c40\u5bae\u5d0e\u6cb3\u5ddd\u56fd\u9053\u4e8b\u52d9\u6240","boring_xml_url":40,"boring_view_url":1,"soilmap_view_url":null,"soiltest_xml_url":0,"soiltest_view_url":0},{"id":213208,"code":"B4KJ201801010-1457","latitude":"31.7822614","longitude":"131.4722314","source_code":"QS47315337019","project_name":"","survey_name":"\u5bae\u5d0e220\u53f7 \u8d64\u5742\u9ad8\u67b6\u6a4b\u5730\u8cea\u8abf\u67fb\u696d\u52d9","client_name":"\u56fd\u571f\u4ea4\u901a\u7701\u4e5d\u5dde\u5730\u65b9\u6574\u5099\u5c40\u5bae\u5d0e\u6cb3\u5ddd\u56fd\u9053\u4e8b\u52d9\u6240","boring_xml_url":40,"boring_view_url":1,"soilmap_view_url":null,"soiltest_xml_url":0,"soiltest_view_url":0},{"id":213207,"code":"B4KJ201801010-1456","latitude":"31.7823725","longitude":"131.4722314","source_code":"QS47315337018","project_name":"","survey_name":"\u5bae\u5d0e220\u53f7 \u8d64\u5742\u9ad8\u67b6\u6a4b\u5730\u8cea\u8abf\u67fb\u696d\u52d9","client_name":"\u56fd\u571f\u4ea4\u901a\u7701\u4e5d\u5dde\u5730\u65b9\u6574\u5099\u5c40\u5bae\u5d0e\u6cb3\u5ddd\u56fd\u9053\u4e8b\u52d9\u6240","boring_xml_url":40,"boring_view_url":1,"soilmap_view_url":null,"soiltest_xml_url":0,"soiltest_view_url":0},{"id":213206,"code":"B4KJ201801010-1455","latitude":"31.7824836","longitude":"131.4720925","source_code":"QS47315337017","project_name":"","survey_name":"\u5bae\u5d0e220\u53f7 \u8d64\u5742\u9ad8\u67b6\u6a4b\u5730\u8cea\u8abf\u67fb\u696d\u52d9","client_name":"\u56fd\u571f\u4ea4\u901a\u7701\u4e5d\u5dde\u5730\u65b9\u6574\u5099\u5c40\u5bae\u5d0e\u6cb3\u5ddd\u56fd\u9053\u4e8b\u52d9\u6240","boring_xml_url":40,"boring_view_url":1,"soilmap_view_url":null,"soiltest_xml_url":0,"soiltest_view_url":0}]}}