{"header":{"xyz":{"source":[],"mosaic":false},"page":3581,"raw":{"soiltest_result":"0","bbox":"57.598333,109.544722,1.933333,163.806111","page":"3581"},"conditions":{"soiltest_result":0,"north":57.598333,"west":109.544722,"south":1.933333,"east":163.806111},"success":true,"message":""},"data":{"meta":{"total":212844,"page":3581,"pages":7095,"count":30},"values":[{"id":213145,"code":"B4KJ201801010-1394","latitude":"31.7773378","longitude":"131.0674894","source_code":"QS47315025002","project_name":"","survey_name":"\u6709\u6c34\u5e8a\u56fa\u5916\u5730\u8cea\u8abf\u67fb\u696d\u52d9","client_name":"\u56fd\u571f\u4ea4\u901a\u7701\u4e5d\u5dde\u5730\u65b9\u6574\u5099\u5c40\u5bae\u5d0e\u6cb3\u5ddd\u56fd\u9053\u4e8b\u52d9\u6240","boring_xml_url":40,"boring_view_url":1,"soilmap_view_url":null,"soiltest_xml_url":0,"soiltest_view_url":0},{"id":213144,"code":"B4KJ201801010-1393","latitude":"31.7773378","longitude":"131.0674894","source_code":"QS47315025001","project_name":"","survey_name":"\u6709\u6c34\u5e8a\u56fa\u5916\u5730\u8cea\u8abf\u67fb\u696d\u52d9","client_name":"\u56fd\u571f\u4ea4\u901a\u7701\u4e5d\u5dde\u5730\u65b9\u6574\u5099\u5c40\u5bae\u5d0e\u6cb3\u5ddd\u56fd\u9053\u4e8b\u52d9\u6240","boring_xml_url":40,"boring_view_url":1,"soilmap_view_url":null,"soiltest_xml_url":0,"soiltest_view_url":0},{"id":213143,"code":"B4KJ201801010-1392","latitude":"31.762145","longitude":"131.056435","source_code":"QS47315014002","project_name":"","survey_name":"\u5e73\u621012\u5e74\u5ea6 \u90fd\u57ce\u9053\u8def\u4e59\u623f\u5730\u533a\u5730\u8cea\u8abf\u67fb\u696d\u52d9","client_name":"\u56fd\u571f\u4ea4\u901a\u7701\u4e5d\u5dde\u5730\u65b9\u6574\u5099\u5c40\u5bae\u5d0e\u6cb3\u5ddd\u56fd\u9053\u4e8b\u52d9\u6240","boring_xml_url":40,"boring_view_url":1,"soilmap_view_url":null,"soiltest_xml_url":0,"soiltest_view_url":0},{"id":213142,"code":"B4KJ201801010-1391","latitude":"31.7575342","longitude":"131.0501025","source_code":"QS47315004004","project_name":"","survey_name":"\u5e73\u621012\u5e74\u5ea6 \u90fd\u57ce\u9053\u8def\u4e59\u623f\u5730\u533a\u5730\u8cea\u8abf\u67fb\u696d\u52d9","client_name":"\u56fd\u571f\u4ea4\u901a\u7701\u4e5d\u5dde\u5730\u65b9\u6574\u5099\u5c40\u5bae\u5d0e\u6cb3\u5ddd\u56fd\u9053\u4e8b\u52d9\u6240","boring_xml_url":40,"boring_view_url":1,"soilmap_view_url":null,"soiltest_xml_url":0,"soiltest_view_url":0},{"id":213141,"code":"B4KJ201801010-1390","latitude":"31.7607006","longitude":"131.0532689","source_code":"QS47315004003","project_name":"","survey_name":"\u5e73\u621012\u5e74\u5ea6 \u90fd\u57ce\u9053\u8def\u4e59\u623f\u5730\u533a\u5730\u8cea\u8abf\u67fb\u696d\u52d9","client_name":"\u56fd\u571f\u4ea4\u901a\u7701\u4e5d\u5dde\u5730\u65b9\u6574\u5099\u5c40\u5bae\u5d0e\u6cb3\u5ddd\u56fd\u9053\u4e8b\u52d9\u6240","boring_xml_url":40,"boring_view_url":1,"soilmap_view_url":null,"soiltest_xml_url":0,"soiltest_view_url":0},{"id":213140,"code":"B4KJ201801010-1389","latitude":"31.7539233","longitude":"131.0473528","source_code":"QS47315003002","project_name":"","survey_name":"\u5e73\u621012\u5e74\u5ea6 \u90fd\u57ce\u9053\u8def\u4e59\u623f\u5730\u533a\u5730\u8cea\u8abf\u67fb\u696d\u52d9","client_name":"\u56fd\u571f\u4ea4\u901a\u7701\u4e5d\u5dde\u5730\u65b9\u6574\u5099\u5c40\u5bae\u5d0e\u6cb3\u5ddd\u56fd\u9053\u4e8b\u52d9\u6240","boring_xml_url":40,"boring_view_url":1,"soilmap_view_url":null,"soiltest_xml_url":0,"soiltest_view_url":0},{"id":213139,"code":"B4KJ201801010-1388","latitude":"31.7197406","longitude":"131.462345","source_code":"QS47314357019","project_name":"","survey_name":"\u5bae\u5d0e\u5de5\u4e8b\u4e8b\u52d9\u6240\u7ba1\u5185\u6e2c\u91cf\u8abf\u67fb\u8a2d\u8a08\u696d\u52d9","client_name":"\u56fd\u571f\u4ea4\u901a\u7701\u4e5d\u5dde\u5730\u65b9\u6574\u5099\u5c40\u5bae\u5d0e\u6cb3\u5ddd\u56fd\u9053\u4e8b\u52d9\u6240","boring_xml_url":40,"boring_view_url":1,"soilmap_view_url":null,"soiltest_xml_url":0,"soiltest_view_url":0},{"id":213138,"code":"B4KJ201801010-1387","latitude":"31.7196017","longitude":"131.4624839","source_code":"QS47314357018","project_name":"","survey_name":"\u5bae\u5d0e\u5de5\u4e8b\u4e8b\u52d9\u6240\u7ba1\u5185\u6e2c\u91cf\u8abf\u67fb\u8a2d\u8a08\u696d\u52d9","client_name":"\u56fd\u571f\u4ea4\u901a\u7701\u4e5d\u5dde\u5730\u65b9\u6574\u5099\u5c40\u5bae\u5d0e\u6cb3\u5ddd\u56fd\u9053\u4e8b\u52d9\u6240","boring_xml_url":40,"boring_view_url":1,"soilmap_view_url":null,"soiltest_xml_url":0,"soiltest_view_url":0},{"id":213137,"code":"B4KJ201801010-1386","latitude":"31.7194628","longitude":"131.4626225","source_code":"QS47314357017","project_name":"","survey_name":"\u5bae\u5d0e\u5de5\u4e8b\u4e8b\u52d9\u6240\u7ba1\u5185\u6e2c\u91cf\u8abf\u67fb\u8a2d\u8a08\u696d\u52d9","client_name":"\u56fd\u571f\u4ea4\u901a\u7701\u4e5d\u5dde\u5730\u65b9\u6574\u5099\u5c40\u5bae\u5d0e\u6cb3\u5ddd\u56fd\u9053\u4e8b\u52d9\u6240","boring_xml_url":40,"boring_view_url":1,"soilmap_view_url":null,"soiltest_xml_url":0,"soiltest_view_url":0},{"id":213136,"code":"B4KJ201801010-1385","latitude":"31.7161297","longitude":"131.4607339","source_code":"QS47314357016","project_name":"","survey_name":"\u5e73\u62106\u5e74\u5ea6\u65e5\u5357\u5730\u533a\u5730\u8cea\u8abf\u67fb","client_name":"\u56fd\u571f\u4ea4\u901a\u7701\u4e5d\u5dde\u5730\u65b9\u6574\u5099\u5c40\u5bae\u5d0e\u6cb3\u5ddd\u56fd\u9053\u4e8b\u52d9\u6240","boring_xml_url":40,"boring_view_url":1,"soilmap_view_url":null,"soiltest_xml_url":0,"soiltest_view_url":0},{"id":213135,"code":"B4KJ201801010-1384","latitude":"31.7161297","longitude":"131.4609839","source_code":"QS47314357015","project_name":"","survey_name":"\u5e73\u62106\u5e74\u5ea6\u65e5\u5357\u5730\u533a\u5730\u8cea\u8abf\u67fb","client_name":"\u56fd\u571f\u4ea4\u901a\u7701\u4e5d\u5dde\u5730\u65b9\u6574\u5099\u5c40\u5bae\u5d0e\u6cb3\u5ddd\u56fd\u9053\u4e8b\u52d9\u6240","boring_xml_url":40,"boring_view_url":1,"soilmap_view_url":null,"soiltest_xml_url":0,"soiltest_view_url":0},{"id":213134,"code":"B4KJ201801010-1383","latitude":"31.7163242","longitude":"131.4606783","source_code":"QS47314357014","project_name":"","survey_name":"\u5e73\u62106\u5e74\u5ea6\u65e5\u5357\u5730\u533a\u5730\u8cea\u8abf\u67fb","client_name":"\u56fd\u571f\u4ea4\u901a\u7701\u4e5d\u5dde\u5730\u65b9\u6574\u5099\u5c40\u5bae\u5d0e\u6cb3\u5ddd\u56fd\u9053\u4e8b\u52d9\u6240","boring_xml_url":40,"boring_view_url":1,"soilmap_view_url":null,"soiltest_xml_url":0,"soiltest_view_url":0},{"id":213133,"code":"B4KJ201801010-1382","latitude":"31.7147967","longitude":"131.4620672","source_code":"QS47314357013","project_name":"","survey_name":"\u5bae\u5d0e\u5de5\u4e8b\u4e8b\u52d9\u6240\u7ba1\u5185\u6e2c\u91cf\u8abf\u67fb\u8a2d\u8a08\u696d\u52d9","client_name":"\u56fd\u571f\u4ea4\u901a\u7701\u4e5d\u5dde\u5730\u65b9\u6574\u5099\u5c40\u5bae\u5d0e\u6cb3\u5ddd\u56fd\u9053\u4e8b\u52d9\u6240","boring_xml_url":40,"boring_view_url":1,"soilmap_view_url":null,"soiltest_xml_url":0,"soiltest_view_url":0},{"id":213132,"code":"B4KJ201801010-1381","latitude":"31.7149078","longitude":"131.4622894","source_code":"QS47314357012","project_name":"","survey_name":"\u5bae\u5d0e\u5de5\u4e8b\u4e8b\u52d9\u6240\u7ba1\u5185\u6e2c\u91cf\u8abf\u67fb\u8a2d\u8a08\u696d\u52d9","client_name":"\u56fd\u571f\u4ea4\u901a\u7701\u4e5d\u5dde\u5730\u65b9\u6574\u5099\u5c40\u5bae\u5d0e\u6cb3\u5ddd\u56fd\u9053\u4e8b\u52d9\u6240","boring_xml_url":40,"boring_view_url":1,"soilmap_view_url":null,"soiltest_xml_url":0,"soiltest_view_url":0},{"id":213131,"code":"B4KJ201801010-1380","latitude":"31.7149633","longitude":"131.4618728","source_code":"QS47314357011","project_name":"","survey_name":"\u5bae\u5d0e\u5de5\u4e8b\u4e8b\u52d9\u6240\u7ba1\u5185\u6e2c\u91cf\u8abf\u67fb\u8a2d\u8a08\u696d\u52d9","client_name":"\u56fd\u571f\u4ea4\u901a\u7701\u4e5d\u5dde\u5730\u65b9\u6574\u5099\u5c40\u5bae\u5d0e\u6cb3\u5ddd\u56fd\u9053\u4e8b\u52d9\u6240","boring_xml_url":40,"boring_view_url":1,"soilmap_view_url":null,"soiltest_xml_url":0,"soiltest_view_url":0},{"id":213130,"code":"B4KJ201801010-1379","latitude":"31.7150467","longitude":"131.4620672","source_code":"QS47314357010","project_name":"","survey_name":"\u5bae\u5d0e\u5de5\u4e8b\u4e8b\u52d9\u6240\u7ba1\u5185\u6e2c\u91cf\u8abf\u67fb\u8a2d\u8a08\u696d\u52d9","client_name":"\u56fd\u571f\u4ea4\u901a\u7701\u4e5d\u5dde\u5730\u65b9\u6574\u5099\u5c40\u5bae\u5d0e\u6cb3\u5ddd\u56fd\u9053\u4e8b\u52d9\u6240","boring_xml_url":40,"boring_view_url":1,"soilmap_view_url":null,"soiltest_xml_url":0,"soiltest_view_url":0},{"id":213129,"code":"B4KJ201801010-1378","latitude":"31.71513","longitude":"131.4622061","source_code":"QS47314357009","project_name":"","survey_name":"\u5bae\u5d0e\u5de5\u4e8b\u4e8b\u52d9\u6240\u7ba1\u5185\u6e2c\u91cf\u8abf\u67fb\u8a2d\u8a08\u696d\u52d9","client_name":"\u56fd\u571f\u4ea4\u901a\u7701\u4e5d\u5dde\u5730\u65b9\u6574\u5099\u5c40\u5bae\u5d0e\u6cb3\u5ddd\u56fd\u9053\u4e8b\u52d9\u6240","boring_xml_url":40,"boring_view_url":1,"soilmap_view_url":null,"soiltest_xml_url":0,"soiltest_view_url":0},{"id":213128,"code":"B4KJ201801010-1377","latitude":"31.7152411","longitude":"131.461845","source_code":"QS47314357008","project_name":"","survey_name":"\u5bae\u5d0e\u5de5\u4e8b\u4e8b\u52d9\u6240\u7ba1\u5185\u6e2c\u91cf\u8abf\u67fb\u8a2d\u8a08\u696d\u52d9","client_name":"\u56fd\u571f\u4ea4\u901a\u7701\u4e5d\u5dde\u5730\u65b9\u6574\u5099\u5c40\u5bae\u5d0e\u6cb3\u5ddd\u56fd\u9053\u4e8b\u52d9\u6240","boring_xml_url":40,"boring_view_url":1,"soilmap_view_url":null,"soiltest_xml_url":0,"soiltest_view_url":0},{"id":213127,"code":"B4KJ201801010-1376","latitude":"31.7153522","longitude":"131.4619283","source_code":"QS47314357007","project_name":"","survey_name":"\u5bae\u5d0e\u5de5\u4e8b\u4e8b\u52d9\u6240\u7ba1\u5185\u6e2c\u91cf\u8abf\u67fb\u8a2d\u8a08\u696d\u52d9","client_name":"\u56fd\u571f\u4ea4\u901a\u7701\u4e5d\u5dde\u5730\u65b9\u6574\u5099\u5c40\u5bae\u5d0e\u6cb3\u5ddd\u56fd\u9053\u4e8b\u52d9\u6240","boring_xml_url":40,"boring_view_url":1,"soilmap_view_url":null,"soiltest_xml_url":0,"soiltest_view_url":0},{"id":213126,"code":"B4KJ201801010-1375","latitude":"31.7146578","longitude":"131.461095","source_code":"QS47314357006","project_name":"","survey_name":"\u5bae\u5d0e\u5de5\u4e8b\u4e8b\u52d9\u6240\u7ba1\u5185\u6e2c\u91cf\u8abf\u67fb\u8a2d\u8a08\u696d\u52d9","client_name":"\u56fd\u571f\u4ea4\u901a\u7701\u4e5d\u5dde\u5730\u65b9\u6574\u5099\u5c40\u5bae\u5d0e\u6cb3\u5ddd\u56fd\u9053\u4e8b\u52d9\u6240","boring_xml_url":40,"boring_view_url":1,"soilmap_view_url":null,"soiltest_xml_url":0,"soiltest_view_url":0},{"id":213125,"code":"B4KJ201801010-1374","latitude":"31.7145467","longitude":"131.4615672","source_code":"QS47314357005","project_name":"","survey_name":"\u5bae\u5d0e\u5de5\u4e8b\u4e8b\u52d9\u6240\u7ba1\u5185\u6e2c\u91cf\u8abf\u67fb\u8a2d\u8a08\u696d\u52d9","client_name":"\u56fd\u571f\u4ea4\u901a\u7701\u4e5d\u5dde\u5730\u65b9\u6574\u5099\u5c40\u5bae\u5d0e\u6cb3\u5ddd\u56fd\u9053\u4e8b\u52d9\u6240","boring_xml_url":40,"boring_view_url":1,"soilmap_view_url":null,"soiltest_xml_url":0,"soiltest_view_url":0},{"id":213124,"code":"B4KJ201801010-1373","latitude":"31.7147411","longitude":"131.4620394","source_code":"QS47314357004","project_name":"","survey_name":"\u5bae\u5d0e\u5de5\u4e8b\u4e8b\u52d9\u6240\u7ba1\u5185\u6e2c\u91cf\u8abf\u67fb\u8a2d\u8a08\u696d\u52d9","client_name":"\u56fd\u571f\u4ea4\u901a\u7701\u4e5d\u5dde\u5730\u65b9\u6574\u5099\u5c40\u5bae\u5d0e\u6cb3\u5ddd\u56fd\u9053\u4e8b\u52d9\u6240","boring_xml_url":40,"boring_view_url":1,"soilmap_view_url":null,"soiltest_xml_url":0,"soiltest_view_url":0},{"id":213123,"code":"B4KJ201801010-1372","latitude":"31.7147411","longitude":"131.4615117","source_code":"QS47314357003","project_name":"","survey_name":"\u5bae\u5d0e\u5de5\u4e8b\u4e8b\u52d9\u6240\u7ba1\u5185\u6e2c\u91cf\u8abf\u67fb\u8a2d\u8a08\u696d\u52d9","client_name":"\u56fd\u571f\u4ea4\u901a\u7701\u4e5d\u5dde\u5730\u65b9\u6574\u5099\u5c40\u5bae\u5d0e\u6cb3\u5ddd\u56fd\u9053\u4e8b\u52d9\u6240","boring_xml_url":40,"boring_view_url":1,"soilmap_view_url":null,"soiltest_xml_url":0,"soiltest_view_url":0},{"id":213122,"code":"B4KJ201801010-1371","latitude":"31.7144633","longitude":"131.4607619","source_code":"QS47314357002","project_name":"","survey_name":"\u4e00\u822c\u56fd\u9053220\u53f7\u65e5\u5357\u7ba1\u5185\u5730\u8cea\u8abf\u67fb\u696d\u52d9","client_name":"\u56fd\u571f\u4ea4\u901a\u7701\u4e5d\u5dde\u5730\u65b9\u6574\u5099\u5c40\u5bae\u5d0e\u6cb3\u5ddd\u56fd\u9053\u4e8b\u52d9\u6240","boring_xml_url":40,"boring_view_url":1,"soilmap_view_url":null,"soiltest_xml_url":0,"soiltest_view_url":0},{"id":213121,"code":"B4KJ201801010-1370","latitude":"31.7142967","longitude":"131.4610672","source_code":"QS47314357001","project_name":"","survey_name":"\u4e00\u822c\u56fd\u9053220\u53f7\u65e5\u5357\u7ba1\u5185\u5730\u8cea\u8abf\u67fb\u696d\u52d9","client_name":"\u56fd\u571f\u4ea4\u901a\u7701\u4e5d\u5dde\u5730\u65b9\u6574\u5099\u5c40\u5bae\u5d0e\u6cb3\u5ddd\u56fd\u9053\u4e8b\u52d9\u6240","boring_xml_url":40,"boring_view_url":1,"soilmap_view_url":null,"soiltest_xml_url":0,"soiltest_view_url":0},{"id":213120,"code":"B4KJ201801010-1369","latitude":"31.7098803","longitude":"131.4545681","source_code":"QS47314346003","project_name":"","survey_name":"\u4f0a\u6bd4\u4e95\u5730\u533a\u6b69\u9053\u6e2c\u91cf\u8a2d\u8a08\u696d\u52d9","client_name":"\u56fd\u571f\u4ea4\u901a\u7701\u4e5d\u5dde\u5730\u65b9\u6574\u5099\u5c40\u5bae\u5d0e\u6cb3\u5ddd\u56fd\u9053\u4e8b\u52d9\u6240","boring_xml_url":40,"boring_view_url":1,"soilmap_view_url":null,"soiltest_xml_url":0,"soiltest_view_url":0},{"id":213119,"code":"B4KJ201801010-1368","latitude":"31.7101581","longitude":"131.4548458","source_code":"QS47314346002","project_name":"","survey_name":"\u4f0a\u6bd4\u4e95\u5730\u533a\u6b69\u9053\u6e2c\u91cf\u8a2d\u8a08\u696d\u52d9","client_name":"\u56fd\u571f\u4ea4\u901a\u7701\u4e5d\u5dde\u5730\u65b9\u6574\u5099\u5c40\u5bae\u5d0e\u6cb3\u5ddd\u56fd\u9053\u4e8b\u52d9\u6240","boring_xml_url":40,"boring_view_url":1,"soilmap_view_url":null,"soiltest_xml_url":0,"soiltest_view_url":0},{"id":213118,"code":"B4KJ201801010-1367","latitude":"31.7104358","longitude":"131.4551236","source_code":"QS47314346001","project_name":"","survey_name":"\u4f0a\u6bd4\u4e95\u5730\u533a\u6b69\u9053\u6e2c\u91cf\u8a2d\u8a08\u696d\u52d9","client_name":"\u56fd\u571f\u4ea4\u901a\u7701\u4e5d\u5dde\u5730\u65b9\u6574\u5099\u5c40\u5bae\u5d0e\u6cb3\u5ddd\u56fd\u9053\u4e8b\u52d9\u6240","boring_xml_url":40,"boring_view_url":1,"soilmap_view_url":null,"soiltest_xml_url":0,"soiltest_view_url":0},{"id":213117,"code":"B4KJ201801010-1366","latitude":"31.6978261","longitude":"131.4529853","source_code":"QS47314336022","project_name":"","survey_name":"\u5bae\u5d0e220\u53f7 \u5bcc\u571f\u6a4b\u5730\u8cea\u8abf\u67fb\u696d\u52d9","client_name":"\u56fd\u571f\u4ea4\u901a\u7701\u4e5d\u5dde\u5730\u65b9\u6574\u5099\u5c40\u5bae\u5d0e\u6cb3\u5ddd\u56fd\u9053\u4e8b\u52d9\u6240","boring_xml_url":40,"boring_view_url":1,"soilmap_view_url":null,"soiltest_xml_url":0,"soiltest_view_url":0},{"id":213116,"code":"B4KJ201801010-1365","latitude":"31.6976317","longitude":"131.4531794","source_code":"QS47314336021","project_name":"","survey_name":"\u5bae\u5d0e220\u53f7 \u5bcc\u571f\u6a4b\u5730\u8cea\u8abf\u67fb\u696d\u52d9","client_name":"\u56fd\u571f\u4ea4\u901a\u7701\u4e5d\u5dde\u5730\u65b9\u6574\u5099\u5c40\u5bae\u5d0e\u6cb3\u5ddd\u56fd\u9053\u4e8b\u52d9\u6240","boring_xml_url":40,"boring_view_url":1,"soilmap_view_url":null,"soiltest_xml_url":0,"soiltest_view_url":0}]}}