{"header":{"xyz":{"source":[],"mosaic":false},"page":3583,"raw":{"soiltest_result":"0","bbox":"57.598333,109.544722,1.933333,163.806111","page":"3583"},"conditions":{"soiltest_result":0,"north":57.598333,"west":109.544722,"south":1.933333,"east":163.806111},"success":true,"message":""},"data":{"meta":{"total":212844,"page":3583,"pages":7095,"count":30},"values":[{"id":213085,"code":"B4KJ201801010-1334","latitude":"31.6926322","longitude":"131.4565683","source_code":"QS47314326002","project_name":"","survey_name":"\u4e00\u822c\u56fd\u9053220\u53f7\u65e5\u5357\u7ba1\u5185\u5730\u8cea\u8abf\u67fb\u696d\u52d9","client_name":"\u56fd\u571f\u4ea4\u901a\u7701\u4e5d\u5dde\u5730\u65b9\u6574\u5099\u5c40\u5bae\u5d0e\u6cb3\u5ddd\u56fd\u9053\u4e8b\u52d9\u6240","boring_xml_url":40,"boring_view_url":1,"soilmap_view_url":null,"soiltest_xml_url":0,"soiltest_view_url":0},{"id":213084,"code":"B4KJ201801010-1333","latitude":"31.69316","longitude":"131.4572072","source_code":"QS47314326001","project_name":"","survey_name":"\u4e00\u822c\u56fd\u9053220\u53f7\u65e5\u5357\u7ba1\u5185\u5730\u8cea\u8abf\u67fb\u696d\u52d9","client_name":"\u56fd\u571f\u4ea4\u901a\u7701\u4e5d\u5dde\u5730\u65b9\u6574\u5099\u5c40\u5bae\u5d0e\u6cb3\u5ddd\u56fd\u9053\u4e8b\u52d9\u6240","boring_xml_url":40,"boring_view_url":1,"soilmap_view_url":null,"soiltest_xml_url":0,"soiltest_view_url":0},{"id":213083,"code":"B4KJ201801010-1332","latitude":"31.6844667","longitude":"131.4583183","source_code":"QS47314316008","project_name":"","survey_name":"\u5bae\u5d0e\u5de5\u4e8b\u4e8b\u52d9\u6240\u7ba1\u5185\u6e2c\u91cf\u8abf\u67fb\u8a2d\u8a08\u696d\u52d9","client_name":"\u56fd\u571f\u4ea4\u901a\u7701\u4e5d\u5dde\u5730\u65b9\u6574\u5099\u5c40\u5bae\u5d0e\u6cb3\u5ddd\u56fd\u9053\u4e8b\u52d9\u6240","boring_xml_url":40,"boring_view_url":1,"soilmap_view_url":null,"soiltest_xml_url":0,"soiltest_view_url":0},{"id":213082,"code":"B4KJ201801010-1331","latitude":"31.6841889","longitude":"131.4585961","source_code":"QS47314316007","project_name":"","survey_name":"\u5bae\u5d0e\u5de5\u4e8b\u4e8b\u52d9\u6240\u7ba1\u5185\u6e2c\u91cf\u8abf\u67fb\u8a2d\u8a08\u696d\u52d9","client_name":"\u56fd\u571f\u4ea4\u901a\u7701\u4e5d\u5dde\u5730\u65b9\u6574\u5099\u5c40\u5bae\u5d0e\u6cb3\u5ddd\u56fd\u9053\u4e8b\u52d9\u6240","boring_xml_url":40,"boring_view_url":1,"soilmap_view_url":null,"soiltest_xml_url":0,"soiltest_view_url":0},{"id":213081,"code":"B4KJ201801010-1330","latitude":"31.6839111","longitude":"131.458735","source_code":"QS47314316006","project_name":"","survey_name":"\u5bae\u5d0e\u5de5\u4e8b\u4e8b\u52d9\u6240\u7ba1\u5185\u6e2c\u91cf\u8abf\u67fb\u8a2d\u8a08\u696d\u52d9","client_name":"\u56fd\u571f\u4ea4\u901a\u7701\u4e5d\u5dde\u5730\u65b9\u6574\u5099\u5c40\u5bae\u5d0e\u6cb3\u5ddd\u56fd\u9053\u4e8b\u52d9\u6240","boring_xml_url":40,"boring_view_url":1,"soilmap_view_url":null,"soiltest_xml_url":0,"soiltest_view_url":0},{"id":213080,"code":"B4KJ201801010-1329","latitude":"31.6830222","longitude":"131.4529022","source_code":"QS47314316005","project_name":"","survey_name":"\u56fd\u9053220\u53f7\u5c0f\u76ee\u4e95\u5730\u533a\u5f3e\u6027\u6ce2\u63a2\u67fb\u59161\u4ef6\u696d\u52d9","client_name":"\u56fd\u571f\u4ea4\u901a\u7701\u4e5d\u5dde\u5730\u65b9\u6574\u5099\u5c40\u5bae\u5d0e\u6cb3\u5ddd\u56fd\u9053\u4e8b\u52d9\u6240","boring_xml_url":40,"boring_view_url":1,"soilmap_view_url":null,"soiltest_xml_url":0,"soiltest_view_url":0},{"id":213079,"code":"B4KJ201801010-1328","latitude":"31.6844942","longitude":"131.4530411","source_code":"QS47314316004","project_name":"","survey_name":"\u56fd\u9053220\u53f7\u5c0f\u76ee\u4e95\u5730\u533a\u5f3e\u6027\u6ce2\u63a2\u67fb\u59161\u4ef6\u696d\u52d9","client_name":"\u56fd\u571f\u4ea4\u901a\u7701\u4e5d\u5dde\u5730\u65b9\u6574\u5099\u5c40\u5bae\u5d0e\u6cb3\u5ddd\u56fd\u9053\u4e8b\u52d9\u6240","boring_xml_url":40,"boring_view_url":1,"soilmap_view_url":null,"soiltest_xml_url":0,"soiltest_view_url":0},{"id":213078,"code":"B4KJ201801010-1327","latitude":"31.6839944","longitude":"131.4529578","source_code":"QS47314316003","project_name":"","survey_name":"\u56fd\u9053220\u53f7\u5c0f\u76ee\u4e95\u5730\u533a\u5f3e\u6027\u6ce2\u63a2\u67fb\u59161\u4ef6\u696d\u52d9","client_name":"\u56fd\u571f\u4ea4\u901a\u7701\u4e5d\u5dde\u5730\u65b9\u6574\u5099\u5c40\u5bae\u5d0e\u6cb3\u5ddd\u56fd\u9053\u4e8b\u52d9\u6240","boring_xml_url":40,"boring_view_url":1,"soilmap_view_url":null,"soiltest_xml_url":0,"soiltest_view_url":0},{"id":213077,"code":"B4KJ201801010-1326","latitude":"31.6849664","longitude":"131.4530411","source_code":"QS47314316002","project_name":"","survey_name":"\u56fd\u9053220\u53f7\u5c0f\u76ee\u4e95\u5730\u533a\u5f3e\u6027\u6ce2\u63a2\u67fb\u59161\u4ef6\u696d\u52d9","client_name":"\u56fd\u571f\u4ea4\u901a\u7701\u4e5d\u5dde\u5730\u65b9\u6574\u5099\u5c40\u5bae\u5d0e\u6cb3\u5ddd\u56fd\u9053\u4e8b\u52d9\u6240","boring_xml_url":40,"boring_view_url":1,"soilmap_view_url":null,"soiltest_xml_url":0,"soiltest_view_url":0},{"id":213076,"code":"B4KJ201801010-1325","latitude":"31.6861608","longitude":"131.4523744","source_code":"QS47314316001","project_name":"","survey_name":"\u56fd\u9053220\u53f7\u5c0f\u76ee\u4e95\u5730\u533a\u5f3e\u6027\u6ce2\u63a2\u67fb\u59161\u4ef6\u696d\u52d9","client_name":"\u56fd\u571f\u4ea4\u901a\u7701\u4e5d\u5dde\u5730\u65b9\u6574\u5099\u5c40\u5bae\u5d0e\u6cb3\u5ddd\u56fd\u9053\u4e8b\u52d9\u6240","boring_xml_url":40,"boring_view_url":1,"soilmap_view_url":null,"soiltest_xml_url":0,"soiltest_view_url":0},{"id":213075,"code":"B4KJ201801010-1324","latitude":"31.6932931","longitude":"131.1398183","source_code":"QS47314121016","project_name":"","survey_name":"\u56fd\u9053222\u53f7\u7b2c2\u9ad8\u7551\u96a7\u9053\u5916\u5730\u8cea\u8abf\u67fb\u696d\u52d9","client_name":"\u56fd\u571f\u4ea4\u901a\u7701\u4e5d\u5dde\u5730\u65b9\u6574\u5099\u5c40\u5bae\u5d0e\u6cb3\u5ddd\u56fd\u9053\u4e8b\u52d9\u6240","boring_xml_url":40,"boring_view_url":1,"soilmap_view_url":null,"soiltest_xml_url":0,"soiltest_view_url":0},{"id":213074,"code":"B4KJ201801010-1323","latitude":"31.6932931","longitude":"131.1398183","source_code":"QS47314121015","project_name":"","survey_name":"\u56fd\u9053222\u53f7\u7b2c2\u9ad8\u7551\u96a7\u9053\u5916\u5730\u8cea\u8abf\u67fb\u696d\u52d9","client_name":"\u56fd\u571f\u4ea4\u901a\u7701\u4e5d\u5dde\u5730\u65b9\u6574\u5099\u5c40\u5bae\u5d0e\u6cb3\u5ddd\u56fd\u9053\u4e8b\u52d9\u6240","boring_xml_url":40,"boring_view_url":1,"soilmap_view_url":null,"soiltest_xml_url":0,"soiltest_view_url":0},{"id":213073,"code":"B4KJ201801010-1322","latitude":"31.6932931","longitude":"131.1398183","source_code":"QS47314121014","project_name":"","survey_name":"\u56fd\u9053222\u53f7\u7b2c2\u9ad8\u7551\u96a7\u9053\u5916\u5730\u8cea\u8abf\u67fb\u696d\u52d9","client_name":"\u56fd\u571f\u4ea4\u901a\u7701\u4e5d\u5dde\u5730\u65b9\u6574\u5099\u5c40\u5bae\u5d0e\u6cb3\u5ddd\u56fd\u9053\u4e8b\u52d9\u6240","boring_xml_url":40,"boring_view_url":1,"soilmap_view_url":null,"soiltest_xml_url":0,"soiltest_view_url":0},{"id":213072,"code":"B4KJ201801010-1321","latitude":"31.6929597","longitude":"131.1402072","source_code":"QS47314121013","project_name":"","survey_name":"\u56fd\u9053222\u53f7\u7b2c2\u9ad8\u7551\u96a7\u9053\u5916\u5730\u8cea\u8abf\u67fb\u696d\u52d9","client_name":"\u56fd\u571f\u4ea4\u901a\u7701\u4e5d\u5dde\u5730\u65b9\u6574\u5099\u5c40\u5bae\u5d0e\u6cb3\u5ddd\u56fd\u9053\u4e8b\u52d9\u6240","boring_xml_url":40,"boring_view_url":1,"soilmap_view_url":null,"soiltest_xml_url":0,"soiltest_view_url":0},{"id":213071,"code":"B4KJ201801010-1320","latitude":"31.6924042","longitude":"131.1404294","source_code":"QS47314121012","project_name":"","survey_name":"\u56fd\u9053222\u53f7\u7b2c2\u9ad8\u7551\u96a7\u9053\u5916\u5730\u8cea\u8abf\u67fb\u696d\u52d9","client_name":"\u56fd\u571f\u4ea4\u901a\u7701\u4e5d\u5dde\u5730\u65b9\u6574\u5099\u5c40\u5bae\u5d0e\u6cb3\u5ddd\u56fd\u9053\u4e8b\u52d9\u6240","boring_xml_url":40,"boring_view_url":1,"soilmap_view_url":null,"soiltest_xml_url":0,"soiltest_view_url":0},{"id":213070,"code":"B4KJ201801010-1319","latitude":"31.6924042","longitude":"131.1404294","source_code":"QS47314121011","project_name":"","survey_name":"\u56fd\u9053222\u53f7\u7b2c2\u9ad8\u7551\u96a7\u9053\u5916\u5730\u8cea\u8abf\u67fb\u696d\u52d9","client_name":"\u56fd\u571f\u4ea4\u901a\u7701\u4e5d\u5dde\u5730\u65b9\u6574\u5099\u5c40\u5bae\u5d0e\u6cb3\u5ddd\u56fd\u9053\u4e8b\u52d9\u6240","boring_xml_url":40,"boring_view_url":1,"soilmap_view_url":null,"soiltest_xml_url":0,"soiltest_view_url":0},{"id":213069,"code":"B4KJ201801010-1318","latitude":"31.6924042","longitude":"131.1404294","source_code":"QS47314121010","project_name":"","survey_name":"\u56fd\u9053222\u53f7\u7b2c2\u9ad8\u7551\u96a7\u9053\u5916\u5730\u8cea\u8abf\u67fb\u696d\u52d9","client_name":"\u56fd\u571f\u4ea4\u901a\u7701\u4e5d\u5dde\u5730\u65b9\u6574\u5099\u5c40\u5bae\u5d0e\u6cb3\u5ddd\u56fd\u9053\u4e8b\u52d9\u6240","boring_xml_url":40,"boring_view_url":1,"soilmap_view_url":null,"soiltest_xml_url":0,"soiltest_view_url":0},{"id":213068,"code":"B4KJ201801010-1317","latitude":"31.6924042","longitude":"131.1404294","source_code":"QS47314121009","project_name":"","survey_name":"\u56fd\u9053222\u53f7\u7b2c2\u9ad8\u7551\u96a7\u9053\u5916\u5730\u8cea\u8abf\u67fb\u696d\u52d9","client_name":"\u56fd\u571f\u4ea4\u901a\u7701\u4e5d\u5dde\u5730\u65b9\u6574\u5099\u5c40\u5bae\u5d0e\u6cb3\u5ddd\u56fd\u9053\u4e8b\u52d9\u6240","boring_xml_url":40,"boring_view_url":1,"soilmap_view_url":null,"soiltest_xml_url":0,"soiltest_view_url":0},{"id":213067,"code":"B4KJ201801010-1316","latitude":"31.69196","longitude":"131.1407072","source_code":"QS47314121008","project_name":"","survey_name":"\u56fd\u9053222\u53f7\u7b2c2\u9ad8\u7551\u96a7\u9053\u5916\u5730\u8cea\u8abf\u67fb\u696d\u52d9","client_name":"\u56fd\u571f\u4ea4\u901a\u7701\u4e5d\u5dde\u5730\u65b9\u6574\u5099\u5c40\u5bae\u5d0e\u6cb3\u5ddd\u56fd\u9053\u4e8b\u52d9\u6240","boring_xml_url":40,"boring_view_url":1,"soilmap_view_url":null,"soiltest_xml_url":0,"soiltest_view_url":0},{"id":213066,"code":"B4KJ201801010-1315","latitude":"31.69196","longitude":"131.1407072","source_code":"QS47314121007","project_name":"","survey_name":"\u56fd\u9053222\u53f7\u7b2c2\u9ad8\u7551\u96a7\u9053\u5916\u5730\u8cea\u8abf\u67fb\u696d\u52d9","client_name":"\u56fd\u571f\u4ea4\u901a\u7701\u4e5d\u5dde\u5730\u65b9\u6574\u5099\u5c40\u5bae\u5d0e\u6cb3\u5ddd\u56fd\u9053\u4e8b\u52d9\u6240","boring_xml_url":40,"boring_view_url":1,"soilmap_view_url":null,"soiltest_xml_url":0,"soiltest_view_url":0},{"id":213065,"code":"B4KJ201801010-1314","latitude":"31.69146","longitude":"131.140985","source_code":"QS47314121006","project_name":"","survey_name":"\u56fd\u9053222\u53f7\u7b2c2\u9ad8\u7551\u96a7\u9053\u5916\u5730\u8cea\u8abf\u67fb\u696d\u52d9","client_name":"\u56fd\u571f\u4ea4\u901a\u7701\u4e5d\u5dde\u5730\u65b9\u6574\u5099\u5c40\u5bae\u5d0e\u6cb3\u5ddd\u56fd\u9053\u4e8b\u52d9\u6240","boring_xml_url":40,"boring_view_url":1,"soilmap_view_url":null,"soiltest_xml_url":0,"soiltest_view_url":0},{"id":213064,"code":"B4KJ201801010-1313","latitude":"31.6909322","longitude":"131.1411517","source_code":"QS47314121005","project_name":"","survey_name":"\u56fd\u9053222\u53f7\u7b2c2\u9ad8\u7551\u96a7\u9053\u5916\u5730\u8cea\u8abf\u67fb\u696d\u52d9","client_name":"\u56fd\u571f\u4ea4\u901a\u7701\u4e5d\u5dde\u5730\u65b9\u6574\u5099\u5c40\u5bae\u5d0e\u6cb3\u5ddd\u56fd\u9053\u4e8b\u52d9\u6240","boring_xml_url":40,"boring_view_url":1,"soilmap_view_url":null,"soiltest_xml_url":0,"soiltest_view_url":0},{"id":213063,"code":"B4KJ201801010-1312","latitude":"31.6901544","longitude":"131.1412628","source_code":"QS47314121004","project_name":"","survey_name":"\u56fd\u9053222\u53f7\u7b2c2\u9ad8\u7551\u96a7\u9053\u5916\u5730\u8cea\u8abf\u67fb\u696d\u52d9","client_name":"\u56fd\u571f\u4ea4\u901a\u7701\u4e5d\u5dde\u5730\u65b9\u6574\u5099\u5c40\u5bae\u5d0e\u6cb3\u5ddd\u56fd\u9053\u4e8b\u52d9\u6240","boring_xml_url":40,"boring_view_url":1,"soilmap_view_url":null,"soiltest_xml_url":0,"soiltest_view_url":0},{"id":213062,"code":"B4KJ201801010-1311","latitude":"31.6901544","longitude":"131.1412628","source_code":"QS47314121003","project_name":"","survey_name":"\u56fd\u9053222\u53f7\u7b2c2\u9ad8\u7551\u96a7\u9053\u5916\u5730\u8cea\u8abf\u67fb\u696d\u52d9","client_name":"\u56fd\u571f\u4ea4\u901a\u7701\u4e5d\u5dde\u5730\u65b9\u6574\u5099\u5c40\u5bae\u5d0e\u6cb3\u5ddd\u56fd\u9053\u4e8b\u52d9\u6240","boring_xml_url":40,"boring_view_url":1,"soilmap_view_url":null,"soiltest_xml_url":0,"soiltest_view_url":0},{"id":213061,"code":"B4KJ201801010-1310","latitude":"31.6901544","longitude":"131.1412628","source_code":"QS47314121002","project_name":"","survey_name":"\u56fd\u9053222\u53f7\u7b2c2\u9ad8\u7551\u96a7\u9053\u5916\u5730\u8cea\u8abf\u67fb\u696d\u52d9","client_name":"\u56fd\u571f\u4ea4\u901a\u7701\u4e5d\u5dde\u5730\u65b9\u6574\u5099\u5c40\u5bae\u5d0e\u6cb3\u5ddd\u56fd\u9053\u4e8b\u52d9\u6240","boring_xml_url":40,"boring_view_url":1,"soilmap_view_url":null,"soiltest_xml_url":0,"soiltest_view_url":0},{"id":213060,"code":"B4KJ201801010-1309","latitude":"31.6901544","longitude":"131.1412628","source_code":"QS47314121001","project_name":"","survey_name":"\u56fd\u9053222\u53f7\u7b2c2\u9ad8\u7551\u96a7\u9053\u5916\u5730\u8cea\u8abf\u67fb\u696d\u52d9","client_name":"\u56fd\u571f\u4ea4\u901a\u7701\u4e5d\u5dde\u5730\u65b9\u6574\u5099\u5c40\u5bae\u5d0e\u6cb3\u5ddd\u56fd\u9053\u4e8b\u52d9\u6240","boring_xml_url":40,"boring_view_url":1,"soilmap_view_url":null,"soiltest_xml_url":0,"soiltest_view_url":0},{"id":213059,"code":"B4KJ201801010-1308","latitude":"31.6830164","longitude":"131.1406242","source_code":"QS47314111008","project_name":"","survey_name":"\u56fd\u9053222\u53f7\u7b2c2\u9ad8\u7551\u96a7\u9053\u5916\u5730\u8cea\u8abf\u67fb\u696d\u52d9","client_name":"\u56fd\u571f\u4ea4\u901a\u7701\u4e5d\u5dde\u5730\u65b9\u6574\u5099\u5c40\u5bae\u5d0e\u6cb3\u5ddd\u56fd\u9053\u4e8b\u52d9\u6240","boring_xml_url":40,"boring_view_url":1,"soilmap_view_url":null,"soiltest_xml_url":0,"soiltest_view_url":0},{"id":213058,"code":"B4KJ201801010-1307","latitude":"31.6831553","longitude":"131.1411797","source_code":"QS47314111007","project_name":"","survey_name":"\u56fd\u9053222\u53f7\u7b2c2\u9ad8\u7551\u96a7\u9053\u5916\u5730\u8cea\u8abf\u67fb\u696d\u52d9","client_name":"\u56fd\u571f\u4ea4\u901a\u7701\u4e5d\u5dde\u5730\u65b9\u6574\u5099\u5c40\u5bae\u5d0e\u6cb3\u5ddd\u56fd\u9053\u4e8b\u52d9\u6240","boring_xml_url":40,"boring_view_url":1,"soilmap_view_url":null,"soiltest_xml_url":0,"soiltest_view_url":0},{"id":213057,"code":"B4KJ201801010-1306","latitude":"31.6831553","longitude":"131.1411797","source_code":"QS47314111006","project_name":"","survey_name":"\u56fd\u9053222\u53f7\u7b2c2\u9ad8\u7551\u96a7\u9053\u5916\u5730\u8cea\u8abf\u67fb\u696d\u52d9","client_name":"\u56fd\u571f\u4ea4\u901a\u7701\u4e5d\u5dde\u5730\u65b9\u6574\u5099\u5c40\u5bae\u5d0e\u6cb3\u5ddd\u56fd\u9053\u4e8b\u52d9\u6240","boring_xml_url":40,"boring_view_url":1,"soilmap_view_url":null,"soiltest_xml_url":0,"soiltest_view_url":0},{"id":213056,"code":"B4KJ201801010-1305","latitude":"31.6834331","longitude":"131.1415408","source_code":"QS47314111005","project_name":"","survey_name":"\u56fd\u9053222\u53f7\u7b2c2\u9ad8\u7551\u96a7\u9053\u5916\u5730\u8cea\u8abf\u67fb\u696d\u52d9","client_name":"\u56fd\u571f\u4ea4\u901a\u7701\u4e5d\u5dde\u5730\u65b9\u6574\u5099\u5c40\u5bae\u5d0e\u6cb3\u5ddd\u56fd\u9053\u4e8b\u52d9\u6240","boring_xml_url":40,"boring_view_url":1,"soilmap_view_url":null,"soiltest_xml_url":0,"soiltest_view_url":0}]}}