{"header":{"xyz":{"source":[],"mosaic":false},"page":3594,"raw":{"soiltest_result":"0","bbox":"57.598333,109.544722,1.933333,163.806111","page":"3594"},"conditions":{"soiltest_result":0,"north":57.598333,"west":109.544722,"south":1.933333,"east":163.806111},"success":true,"message":""},"data":{"meta":{"total":212844,"page":3594,"pages":7095,"count":30},"values":[{"id":212755,"code":"B4KJ201801010-1004","latitude":"31.9908897","longitude":"130.6581592","source_code":"QS47307582017","project_name":"","survey_name":"\u6e6f\u4e4b\u5c3e\u5830\u5468\u8fba\u5730\u8cea\u8abf\u67fb\u696d\u52d9","client_name":"\u56fd\u571f\u4ea4\u901a\u7701 \u4e5d\u5dde\u5730\u65b9\u6574\u5099\u5c40 \u5ddd\u5185\u5ddd\u6cb3\u5ddd\u4e8b\u52d9\u6240","boring_xml_url":40,"boring_view_url":1,"soilmap_view_url":null,"soiltest_xml_url":0,"soiltest_view_url":0},{"id":212754,"code":"B4KJ201801010-1003","latitude":"31.9913619","longitude":"130.6583814","source_code":"QS47307582016","project_name":"","survey_name":"\u6e6f\u4e4b\u5c3e\u5830\u5468\u8fba\u5730\u8cea\u8abf\u67fb\u696d\u52d9","client_name":"\u56fd\u571f\u4ea4\u901a\u7701 \u4e5d\u5dde\u5730\u65b9\u6574\u5099\u5c40 \u5ddd\u5185\u5ddd\u6cb3\u5ddd\u4e8b\u52d9\u6240","boring_xml_url":40,"boring_view_url":1,"soilmap_view_url":null,"soiltest_xml_url":0,"soiltest_view_url":0},{"id":212753,"code":"B4KJ201801010-1002","latitude":"31.9920286","longitude":"130.6586592","source_code":"QS47307582015","project_name":"","survey_name":"\u6e6f\u4e4b\u5c3e\u5830\u5468\u8fba\u5730\u8cea\u8abf\u67fb\u696d\u52d9","client_name":"\u56fd\u571f\u4ea4\u901a\u7701 \u4e5d\u5dde\u5730\u65b9\u6574\u5099\u5c40 \u5ddd\u5185\u5ddd\u6cb3\u5ddd\u4e8b\u52d9\u6240","boring_xml_url":40,"boring_view_url":1,"soilmap_view_url":null,"soiltest_xml_url":0,"soiltest_view_url":0},{"id":212752,"code":"B4KJ201801010-1001","latitude":"31.9917508","longitude":"130.6580203","source_code":"QS47307582013","project_name":"","survey_name":"\u6e6f\u4e4b\u5c3e\u5830\u5468\u8fba\u5730\u8cea\u8abf\u67fb\u696d\u52d9","client_name":"\u56fd\u571f\u4ea4\u901a\u7701 \u4e5d\u5dde\u5730\u65b9\u6574\u5099\u5c40 \u5ddd\u5185\u5ddd\u6cb3\u5ddd\u4e8b\u52d9\u6240","boring_xml_url":40,"boring_view_url":1,"soilmap_view_url":null,"soiltest_xml_url":0,"soiltest_view_url":0},{"id":212751,"code":"B4KJ201801010-1000","latitude":"31.9914731","longitude":"130.6579925","source_code":"QS47307582012","project_name":"","survey_name":"\u6e6f\u4e4b\u5c3e\u5830\u5468\u8fba\u5730\u8cea\u8abf\u67fb\u696d\u52d9","client_name":"\u56fd\u571f\u4ea4\u901a\u7701 \u4e5d\u5dde\u5730\u65b9\u6574\u5099\u5c40 \u5ddd\u5185\u5ddd\u6cb3\u5ddd\u4e8b\u52d9\u6240","boring_xml_url":40,"boring_view_url":1,"soilmap_view_url":null,"soiltest_xml_url":0,"soiltest_view_url":0},{"id":212750,"code":"B4KJ201801010-0999","latitude":"31.9914731","longitude":"130.6581592","source_code":"QS47307582011","project_name":"","survey_name":"\u6e6f\u4e4b\u5c3e\u5830\u5468\u8fba\u5730\u8cea\u8abf\u67fb\u696d\u52d9","client_name":"\u56fd\u571f\u4ea4\u901a\u7701 \u4e5d\u5dde\u5730\u65b9\u6574\u5099\u5c40 \u5ddd\u5185\u5ddd\u6cb3\u5ddd\u4e8b\u52d9\u6240","boring_xml_url":40,"boring_view_url":1,"soilmap_view_url":null,"soiltest_xml_url":0,"soiltest_view_url":0},{"id":212749,"code":"B4KJ201801010-0998","latitude":"31.9901122","longitude":"130.6597978","source_code":"QS47307582010","project_name":"","survey_name":"\u6e6f\u4e4b\u5c3e\u5730\u533a\u5730\u8cea\u8abf\u67fb\u696d\u52d9","client_name":"\u56fd\u571f\u4ea4\u901a\u7701 \u4e5d\u5dde\u5730\u65b9\u6574\u5099\u5c40 \u5ddd\u5185\u5ddd\u6cb3\u5ddd\u4e8b\u52d9\u6240","boring_xml_url":40,"boring_view_url":1,"soilmap_view_url":null,"soiltest_xml_url":0,"soiltest_view_url":0},{"id":212748,"code":"B4KJ201801010-0997","latitude":"31.98839","longitude":"130.6594092","source_code":"QS47307582008","project_name":"","survey_name":"\u6e6f\u4e4b\u5c3e\u5730\u533a\u5730\u8cea\u8abf\u67fb\u696d\u52d9","client_name":"\u56fd\u571f\u4ea4\u901a\u7701 \u4e5d\u5dde\u5730\u65b9\u6574\u5099\u5c40 \u5ddd\u5185\u5ddd\u6cb3\u5ddd\u4e8b\u52d9\u6240","boring_xml_url":40,"boring_view_url":1,"soilmap_view_url":null,"soiltest_xml_url":0,"soiltest_view_url":0},{"id":212747,"code":"B4KJ201801010-0996","latitude":"31.9927231","longitude":"130.6587422","source_code":"QS47307582007","project_name":"","survey_name":"\u6e6f\u4e4b\u5c3e\u5830\u7ba1\u7406\u6240\u5730\u8cea\u8abf\u67fb\u696d\u52d9","client_name":"\u56fd\u571f\u4ea4\u901a\u7701 \u4e5d\u5dde\u5730\u65b9\u6574\u5099\u5c40 \u5ddd\u5185\u5ddd\u6cb3\u5ddd\u4e8b\u52d9\u6240","boring_xml_url":40,"boring_view_url":1,"soilmap_view_url":null,"soiltest_xml_url":0,"soiltest_view_url":0},{"id":212746,"code":"B4KJ201801010-0995","latitude":"31.9927231","longitude":"130.6586033","source_code":"QS47307582006","project_name":"","survey_name":"\u6e6f\u4e4b\u5c3e\u5830\u7ba1\u7406\u6240\u5730\u8cea\u8abf\u67fb\u696d\u52d9","client_name":"\u56fd\u571f\u4ea4\u901a\u7701 \u4e5d\u5dde\u5730\u65b9\u6574\u5099\u5c40 \u5ddd\u5185\u5ddd\u6cb3\u5ddd\u4e8b\u52d9\u6240","boring_xml_url":40,"boring_view_url":1,"soilmap_view_url":null,"soiltest_xml_url":0,"soiltest_view_url":0},{"id":212745,"code":"B4KJ201801010-0994","latitude":"31.991945","longitude":"130.6435492","source_code":"QS47307581001","project_name":"","survey_name":"\u5927\u660e\u53f8\u6a0b\u9580\u59161\u4ef6\u5730\u8cea\u8abf\u67fb\u696d\u52d9","client_name":"\u56fd\u571f\u4ea4\u901a\u7701 \u4e5d\u5dde\u5730\u65b9\u6574\u5099\u5c40 \u5ddd\u5185\u5ddd\u6cb3\u5ddd\u4e8b\u52d9\u6240","boring_xml_url":40,"boring_view_url":1,"soilmap_view_url":null,"soiltest_xml_url":0,"soiltest_view_url":0},{"id":212744,"code":"B4KJ201801010-0993","latitude":"31.9830019","longitude":"130.6697694","source_code":"QS47307573038","project_name":"","survey_name":"\u6e6f\u4e4b\u5c3e\u6392\u6c34\u6a0b\u7ba1\u5730\u8cea\u8abf\u67fb\u696d\u52d9","client_name":"\u56fd\u571f\u4ea4\u901a\u7701 \u4e5d\u5dde\u5730\u65b9\u6574\u5099\u5c40 \u5ddd\u5185\u5ddd\u6cb3\u5ddd\u4e8b\u52d9\u6240","boring_xml_url":40,"boring_view_url":1,"soilmap_view_url":null,"soiltest_xml_url":0,"soiltest_view_url":0},{"id":212743,"code":"B4KJ201801010-0992","latitude":"31.9839186","longitude":"130.6691306","source_code":"QS47307573037","project_name":"","survey_name":"\u6e6f\u4e4b\u5c3e\u7b2c2\u6a4b\u5730\u8cea\u8abf\u67fb\u696d\u52d9","client_name":"\u56fd\u571f\u4ea4\u901a\u7701 \u4e5d\u5dde\u5730\u65b9\u6574\u5099\u5c40 \u5ddd\u5185\u5ddd\u6cb3\u5ddd\u4e8b\u52d9\u6240","boring_xml_url":40,"boring_view_url":1,"soilmap_view_url":null,"soiltest_xml_url":0,"soiltest_view_url":0},{"id":212742,"code":"B4KJ201801010-0991","latitude":"31.9841964","longitude":"130.6691306","source_code":"QS47307573036","project_name":"","survey_name":"\u6e6f\u4e4b\u5c3e\u7b2c2\u6a4b\u5730\u8cea\u8abf\u67fb\u696d\u52d9","client_name":"\u56fd\u571f\u4ea4\u901a\u7701 \u4e5d\u5dde\u5730\u65b9\u6574\u5099\u5c40 \u5ddd\u5185\u5ddd\u6cb3\u5ddd\u4e8b\u52d9\u6240","boring_xml_url":40,"boring_view_url":1,"soilmap_view_url":null,"soiltest_xml_url":0,"soiltest_view_url":0},{"id":212741,"code":"B4KJ201801010-0990","latitude":"31.9844464","longitude":"130.6691306","source_code":"QS47307573035","project_name":"","survey_name":"\u6e6f\u4e4b\u5c3e\u7b2c2\u6a4b\u5730\u8cea\u8abf\u67fb\u696d\u52d9","client_name":"\u56fd\u571f\u4ea4\u901a\u7701 \u4e5d\u5dde\u5730\u65b9\u6574\u5099\u5c40 \u5ddd\u5185\u5ddd\u6cb3\u5ddd\u4e8b\u52d9\u6240","boring_xml_url":40,"boring_view_url":1,"soilmap_view_url":null,"soiltest_xml_url":0,"soiltest_view_url":0},{"id":212740,"code":"B4KJ201801010-0989","latitude":"31.9846964","longitude":"130.6694083","source_code":"QS47307573034","project_name":"","survey_name":"\u6e6f\u4e4b\u5c3e\u7b2c2\u6a4b\u5730\u8cea\u8abf\u67fb\u696d\u52d9","client_name":"\u56fd\u571f\u4ea4\u901a\u7701 \u4e5d\u5dde\u5730\u65b9\u6574\u5099\u5c40 \u5ddd\u5185\u5ddd\u6cb3\u5ddd\u4e8b\u52d9\u6240","boring_xml_url":40,"boring_view_url":1,"soilmap_view_url":null,"soiltest_xml_url":0,"soiltest_view_url":0},{"id":212739,"code":"B4KJ201801010-0988","latitude":"31.9850294","longitude":"130.6695194","source_code":"QS47307573033","project_name":"","survey_name":"\u6e6f\u4e4b\u5c3e\u7b2c2\u6a4b\u5730\u8cea\u8abf\u67fb\u696d\u52d9","client_name":"\u56fd\u571f\u4ea4\u901a\u7701 \u4e5d\u5dde\u5730\u65b9\u6574\u5099\u5c40 \u5ddd\u5185\u5ddd\u6cb3\u5ddd\u4e8b\u52d9\u6240","boring_xml_url":40,"boring_view_url":1,"soilmap_view_url":null,"soiltest_xml_url":0,"soiltest_view_url":0},{"id":212738,"code":"B4KJ201801010-0987","latitude":"31.9839742","longitude":"130.6662142","source_code":"QS47307573032","project_name":"","survey_name":"\u6e6f\u4e4b\u5c3e\u7b2c1\u6a4b\u5730\u8cea\u8abf\u67fb\u696d\u52d9","client_name":"\u56fd\u571f\u4ea4\u901a\u7701 \u4e5d\u5dde\u5730\u65b9\u6574\u5099\u5c40 \u5ddd\u5185\u5ddd\u6cb3\u5ddd\u4e8b\u52d9\u6240","boring_xml_url":40,"boring_view_url":1,"soilmap_view_url":null,"soiltest_xml_url":0,"soiltest_view_url":0},{"id":212737,"code":"B4KJ201801010-0986","latitude":"31.9841964","longitude":"130.6662419","source_code":"QS47307573031","project_name":"","survey_name":"\u6e6f\u4e4b\u5c3e\u7b2c1\u6a4b\u5730\u8cea\u8abf\u67fb\u696d\u52d9","client_name":"\u56fd\u571f\u4ea4\u901a\u7701 \u4e5d\u5dde\u5730\u65b9\u6574\u5099\u5c40 \u5ddd\u5185\u5ddd\u6cb3\u5ddd\u4e8b\u52d9\u6240","boring_xml_url":40,"boring_view_url":1,"soilmap_view_url":null,"soiltest_xml_url":0,"soiltest_view_url":0},{"id":212736,"code":"B4KJ201801010-0985","latitude":"31.9844739","longitude":"130.6663253","source_code":"QS47307573030","project_name":"","survey_name":"\u6e6f\u4e4b\u5c3e\u7b2c1\u6a4b\u5730\u8cea\u8abf\u67fb\u696d\u52d9","client_name":"\u56fd\u571f\u4ea4\u901a\u7701 \u4e5d\u5dde\u5730\u65b9\u6574\u5099\u5c40 \u5ddd\u5185\u5ddd\u6cb3\u5ddd\u4e8b\u52d9\u6240","boring_xml_url":40,"boring_view_url":1,"soilmap_view_url":null,"soiltest_xml_url":0,"soiltest_view_url":0},{"id":212735,"code":"B4KJ201801010-0984","latitude":"31.9848628","longitude":"130.6662697","source_code":"QS47307573029","project_name":"","survey_name":"\u6e6f\u4e4b\u5c3e\u7b2c1\u6a4b\u5730\u8cea\u8abf\u67fb\u696d\u52d9","client_name":"\u56fd\u571f\u4ea4\u901a\u7701 \u4e5d\u5dde\u5730\u65b9\u6574\u5099\u5c40 \u5ddd\u5185\u5ddd\u6cb3\u5ddd\u4e8b\u52d9\u6240","boring_xml_url":40,"boring_view_url":1,"soilmap_view_url":null,"soiltest_xml_url":0,"soiltest_view_url":0},{"id":212734,"code":"B4KJ201801010-0983","latitude":"31.9851683","longitude":"130.6663253","source_code":"QS47307573028","project_name":"","survey_name":"\u6e6f\u4e4b\u5c3e\u7b2c1\u6a4b\u5730\u8cea\u8abf\u67fb\u696d\u52d9","client_name":"\u56fd\u571f\u4ea4\u901a\u7701 \u4e5d\u5dde\u5730\u65b9\u6574\u5099\u5c40 \u5ddd\u5185\u5ddd\u6cb3\u5ddd\u4e8b\u52d9\u6240","boring_xml_url":40,"boring_view_url":1,"soilmap_view_url":null,"soiltest_xml_url":0,"soiltest_view_url":0},{"id":212733,"code":"B4KJ201801010-0982","latitude":"31.9864183","longitude":"130.6673806","source_code":"QS47307573026","project_name":"","survey_name":"\u6e6f\u4e4b\u5c3e\u5730\u533a\u5730\u8cea\u8abf\u67fb\u696d\u52d9","client_name":"\u56fd\u571f\u4ea4\u901a\u7701 \u4e5d\u5dde\u5730\u65b9\u6574\u5099\u5c40 \u5ddd\u5185\u5ddd\u6cb3\u5ddd\u4e8b\u52d9\u6240","boring_xml_url":40,"boring_view_url":1,"soilmap_view_url":null,"soiltest_xml_url":0,"soiltest_view_url":0},{"id":212732,"code":"B4KJ201801010-0981","latitude":"31.9862794","longitude":"130.6676583","source_code":"QS47307573025","project_name":"","survey_name":"\u6e6f\u4e4b\u5c3e\u5730\u533a\u5730\u8cea\u8abf\u67fb\u696d\u52d9","client_name":"\u56fd\u571f\u4ea4\u901a\u7701 \u4e5d\u5dde\u5730\u65b9\u6574\u5099\u5c40 \u5ddd\u5185\u5ddd\u6cb3\u5ddd\u4e8b\u52d9\u6240","boring_xml_url":40,"boring_view_url":1,"soilmap_view_url":null,"soiltest_xml_url":0,"soiltest_view_url":0},{"id":212731,"code":"B4KJ201801010-0980","latitude":"31.9865294","longitude":"130.6695194","source_code":"QS47307573024","project_name":"","survey_name":"\u6e6f\u4e4b\u5c3e\u6e29\u6cc9\u8857\u5730\u533a\u5730\u8cea\u8abf\u67fb\u696d\u52d9","client_name":"\u56fd\u571f\u4ea4\u901a\u7701 \u4e5d\u5dde\u5730\u65b9\u6574\u5099\u5c40 \u5ddd\u5185\u5ddd\u6cb3\u5ddd\u4e8b\u52d9\u6240","boring_xml_url":40,"boring_view_url":1,"soilmap_view_url":null,"soiltest_xml_url":0,"soiltest_view_url":0},{"id":212730,"code":"B4KJ201801010-0979","latitude":"31.9863628","longitude":"130.6693528","source_code":"QS47307573023","project_name":"","survey_name":"\u6e6f\u4e4b\u5c3e\u6e29\u6cc9\u8857\u5730\u533a\u5730\u8cea\u8abf\u67fb\u696d\u52d9","client_name":"\u56fd\u571f\u4ea4\u901a\u7701 \u4e5d\u5dde\u5730\u65b9\u6574\u5099\u5c40 \u5ddd\u5185\u5ddd\u6cb3\u5ddd\u4e8b\u52d9\u6240","boring_xml_url":40,"boring_view_url":1,"soilmap_view_url":null,"soiltest_xml_url":0,"soiltest_view_url":0},{"id":212729,"code":"B4KJ201801010-0978","latitude":"31.9862239","longitude":"130.6669917","source_code":"QS47307573022","project_name":"","survey_name":"\u6e6f\u4e4b\u5c3e\u6e29\u6cc9\u8857\u5730\u533a\u5730\u8cea\u8abf\u67fb\u696d\u52d9","client_name":"\u56fd\u571f\u4ea4\u901a\u7701 \u4e5d\u5dde\u5730\u65b9\u6574\u5099\u5c40 \u5ddd\u5185\u5ddd\u6cb3\u5ddd\u4e8b\u52d9\u6240","boring_xml_url":40,"boring_view_url":1,"soilmap_view_url":null,"soiltest_xml_url":0,"soiltest_view_url":0},{"id":212728,"code":"B4KJ201801010-0977","latitude":"31.9859461","longitude":"130.6647697","source_code":"QS47307573021","project_name":"","survey_name":"\u6e6f\u4e4b\u5c3e\u6e29\u6cc9\u8857\u5730\u533a\u5730\u8cea\u8abf\u67fb\u696d\u52d9","client_name":"\u56fd\u571f\u4ea4\u901a\u7701 \u4e5d\u5dde\u5730\u65b9\u6574\u5099\u5c40 \u5ddd\u5185\u5ddd\u6cb3\u5ddd\u4e8b\u52d9\u6240","boring_xml_url":40,"boring_view_url":1,"soilmap_view_url":null,"soiltest_xml_url":0,"soiltest_view_url":0},{"id":212727,"code":"B4KJ201801010-0976","latitude":"31.9852517","longitude":"130.6649086","source_code":"QS47307573020","project_name":"","survey_name":"\u6e6f\u4e4b\u5c3e\u6e29\u6cc9\u8857\u5730\u533a\u5730\u8cea\u8abf\u67fb\u696d\u52d9","client_name":"\u56fd\u571f\u4ea4\u901a\u7701 \u4e5d\u5dde\u5730\u65b9\u6574\u5099\u5c40 \u5ddd\u5185\u5ddd\u6cb3\u5ddd\u4e8b\u52d9\u6240","boring_xml_url":40,"boring_view_url":1,"soilmap_view_url":null,"soiltest_xml_url":0,"soiltest_view_url":0},{"id":212726,"code":"B4KJ201801010-0975","latitude":"31.9843072","longitude":"130.6637978","source_code":"QS47307573017","project_name":"","survey_name":"\u6e6f\u4e4b\u5c3e\u5730\u533a\u5730\u8cea\u8abf\u67fb\u696d\u52d9","client_name":"\u56fd\u571f\u4ea4\u901a\u7701 \u4e5d\u5dde\u5730\u65b9\u6574\u5099\u5c40 \u5ddd\u5185\u5ddd\u6cb3\u5ddd\u4e8b\u52d9\u6240","boring_xml_url":40,"boring_view_url":1,"soilmap_view_url":null,"soiltest_xml_url":0,"soiltest_view_url":0}]}}