{"header":{"xyz":{"source":[],"mosaic":false},"page":3595,"raw":{"soiltest_result":"0","bbox":"57.598333,109.544722,1.933333,163.806111","page":"3595"},"conditions":{"soiltest_result":0,"north":57.598333,"west":109.544722,"south":1.933333,"east":163.806111},"success":true,"message":""},"data":{"meta":{"total":212844,"page":3595,"pages":7095,"count":30},"values":[{"id":212725,"code":"B4KJ201801010-0974","latitude":"31.9838353","longitude":"130.6643531","source_code":"QS47307573016","project_name":"","survey_name":"\u6e6f\u4e4b\u5c3e\u5730\u533a\u5730\u8cea\u8abf\u67fb\u696d\u52d9","client_name":"\u56fd\u571f\u4ea4\u901a\u7701 \u4e5d\u5dde\u5730\u65b9\u6574\u5099\u5c40 \u5ddd\u5185\u5ddd\u6cb3\u5ddd\u4e8b\u52d9\u6240","boring_xml_url":40,"boring_view_url":1,"soilmap_view_url":null,"soiltest_xml_url":0,"soiltest_view_url":0},{"id":212724,"code":"B4KJ201801010-0973","latitude":"31.9837517","longitude":"130.6618533","source_code":"QS47307573015","project_name":"","survey_name":"\u6e6f\u4e4b\u5c3e\u5730\u533a\u5730\u8cea\u8abf\u67fb\u696d\u52d9","client_name":"\u56fd\u571f\u4ea4\u901a\u7701 \u4e5d\u5dde\u5730\u65b9\u6574\u5099\u5c40 \u5ddd\u5185\u5ddd\u6cb3\u5ddd\u4e8b\u52d9\u6240","boring_xml_url":40,"boring_view_url":1,"soilmap_view_url":null,"soiltest_xml_url":0,"soiltest_view_url":0},{"id":212723,"code":"B4KJ201801010-0972","latitude":"31.9830853","longitude":"130.6619922","source_code":"QS47307573014","project_name":"","survey_name":"\u6e6f\u4e4b\u5c3e\u5730\u533a\u5730\u8cea\u8abf\u67fb\u696d\u52d9","client_name":"\u56fd\u571f\u4ea4\u901a\u7701 \u4e5d\u5dde\u5730\u65b9\u6574\u5099\u5c40 \u5ddd\u5185\u5ddd\u6cb3\u5ddd\u4e8b\u52d9\u6240","boring_xml_url":40,"boring_view_url":1,"soilmap_view_url":null,"soiltest_xml_url":0,"soiltest_view_url":0},{"id":212722,"code":"B4KJ201801010-0971","latitude":"31.9831964","longitude":"130.669575","source_code":"QS47307573013","project_name":"","survey_name":"\u6e6f\u4e4b\u5c3e\u5730\u533a\u5730\u8cea\u8abf\u67fb\u696d\u52d9","client_name":"\u56fd\u571f\u4ea4\u901a\u7701 \u4e5d\u5dde\u5730\u65b9\u6574\u5099\u5c40 \u5ddd\u5185\u5ddd\u6cb3\u5ddd\u4e8b\u52d9\u6240","boring_xml_url":40,"boring_view_url":1,"soilmap_view_url":null,"soiltest_xml_url":0,"soiltest_view_url":0},{"id":212721,"code":"B4KJ201801010-0970","latitude":"31.9838631","longitude":"130.6698528","source_code":"QS47307573012","project_name":"","survey_name":"\u6e6f\u4e4b\u5c3e\u5730\u533a\u5730\u8cea\u8abf\u67fb\u696d\u52d9","client_name":"\u56fd\u571f\u4ea4\u901a\u7701 \u4e5d\u5dde\u5730\u65b9\u6574\u5099\u5c40 \u5ddd\u5185\u5ddd\u6cb3\u5ddd\u4e8b\u52d9\u6240","boring_xml_url":40,"boring_view_url":1,"soilmap_view_url":null,"soiltest_xml_url":0,"soiltest_view_url":0},{"id":212720,"code":"B4KJ201801010-0969","latitude":"31.9843075","longitude":"130.6689083","source_code":"QS47307573011","project_name":"","survey_name":"\u6e6f\u4e4b\u5c3e\u5730\u533a\u5730\u8cea\u8abf\u67fb\u696d\u52d9","client_name":"\u56fd\u571f\u4ea4\u901a\u7701 \u4e5d\u5dde\u5730\u65b9\u6574\u5099\u5c40 \u5ddd\u5185\u5ddd\u6cb3\u5ddd\u4e8b\u52d9\u6240","boring_xml_url":40,"boring_view_url":1,"soilmap_view_url":null,"soiltest_xml_url":0,"soiltest_view_url":0},{"id":212719,"code":"B4KJ201801010-0968","latitude":"31.9837519","longitude":"130.6686583","source_code":"QS47307573010","project_name":"","survey_name":"\u6e6f\u4e4b\u5c3e\u5730\u533a\u5730\u8cea\u8abf\u67fb\u696d\u52d9","client_name":"\u56fd\u571f\u4ea4\u901a\u7701 \u4e5d\u5dde\u5730\u65b9\u6574\u5099\u5c40 \u5ddd\u5185\u5ddd\u6cb3\u5ddd\u4e8b\u52d9\u6240","boring_xml_url":40,"boring_view_url":1,"soilmap_view_url":null,"soiltest_xml_url":0,"soiltest_view_url":0},{"id":212718,"code":"B4KJ201801010-0967","latitude":"31.9839742","longitude":"130.6669364","source_code":"QS47307573009","project_name":"","survey_name":"\u6e6f\u4e4b\u5c3e\u5730\u533a\u5730\u8cea\u8abf\u67fb\u696d\u52d9","client_name":"\u56fd\u571f\u4ea4\u901a\u7701 \u4e5d\u5dde\u5730\u65b9\u6574\u5099\u5c40 \u5ddd\u5185\u5ddd\u6cb3\u5ddd\u4e8b\u52d9\u6240","boring_xml_url":40,"boring_view_url":1,"soilmap_view_url":null,"soiltest_xml_url":0,"soiltest_view_url":0},{"id":212717,"code":"B4KJ201801010-0966","latitude":"31.9845572","longitude":"130.6670753","source_code":"QS47307573008","project_name":"","survey_name":"\u6e6f\u4e4b\u5c3e\u5730\u533a\u5730\u8cea\u8abf\u67fb\u696d\u52d9","client_name":"\u56fd\u571f\u4ea4\u901a\u7701 \u4e5d\u5dde\u5730\u65b9\u6574\u5099\u5c40 \u5ddd\u5185\u5ddd\u6cb3\u5ddd\u4e8b\u52d9\u6240","boring_xml_url":40,"boring_view_url":1,"soilmap_view_url":null,"soiltest_xml_url":0,"soiltest_view_url":0},{"id":212716,"code":"B4KJ201801010-0965","latitude":"31.9846683","longitude":"130.6660197","source_code":"QS47307573007","project_name":"","survey_name":"\u6e6f\u4e4b\u5c3e\u5730\u533a\u5730\u8cea\u8abf\u67fb\u696d\u52d9","client_name":"\u56fd\u571f\u4ea4\u901a\u7701 \u4e5d\u5dde\u5730\u65b9\u6574\u5099\u5c40 \u5ddd\u5185\u5ddd\u6cb3\u5ddd\u4e8b\u52d9\u6240","boring_xml_url":40,"boring_view_url":1,"soilmap_view_url":null,"soiltest_xml_url":0,"soiltest_view_url":0},{"id":212715,"code":"B4KJ201801010-0964","latitude":"31.9838631","longitude":"130.6657419","source_code":"QS47307573006","project_name":"","survey_name":"\u6e6f\u4e4b\u5c3e\u5730\u533a\u5730\u8cea\u8abf\u67fb\u696d\u52d9","client_name":"\u56fd\u571f\u4ea4\u901a\u7701 \u4e5d\u5dde\u5730\u65b9\u6574\u5099\u5c40 \u5ddd\u5185\u5ddd\u6cb3\u5ddd\u4e8b\u52d9\u6240","boring_xml_url":40,"boring_view_url":1,"soilmap_view_url":null,"soiltest_xml_url":0,"soiltest_view_url":0},{"id":212714,"code":"B4KJ201801010-0963","latitude":"31.9857517","longitude":"130.6654086","source_code":"QS47307573004","project_name":"","survey_name":"\u5e02\u539f\u7b2c2\u6a0b\u9580\u59161\u4ef6\u5730\u8cea\u8abf\u67fb\u696d\u52d9","client_name":"\u56fd\u571f\u4ea4\u901a\u7701 \u4e5d\u5dde\u5730\u65b9\u6574\u5099\u5c40 \u5ddd\u5185\u5ddd\u6cb3\u5ddd\u4e8b\u52d9\u6240","boring_xml_url":40,"boring_view_url":1,"soilmap_view_url":null,"soiltest_xml_url":0,"soiltest_view_url":0},{"id":212713,"code":"B4KJ201801010-0962","latitude":"31.9863628","longitude":"130.6651308","source_code":"QS47307573003","project_name":"","survey_name":"\u5e02\u539f\u7b2c2\u6a0b\u9580\u59161\u4ef6\u5730\u8cea\u8abf\u67fb\u696d\u52d9","client_name":"\u56fd\u571f\u4ea4\u901a\u7701 \u4e5d\u5dde\u5730\u65b9\u6574\u5099\u5c40 \u5ddd\u5185\u5ddd\u6cb3\u5ddd\u4e8b\u52d9\u6240","boring_xml_url":40,"boring_view_url":1,"soilmap_view_url":null,"soiltest_xml_url":0,"soiltest_view_url":0},{"id":212712,"code":"B4KJ201801010-0961","latitude":"31.9865572","longitude":"130.6675194","source_code":"QS47307573002","project_name":"","survey_name":"\u6e6f\u4e4b\u5c3e\u5730\u533a\u5730\u8cea\u8abf\u67fb\u696d\u52d9","client_name":"\u56fd\u571f\u4ea4\u901a\u7701 \u4e5d\u5dde\u5730\u65b9\u6574\u5099\u5c40 \u5ddd\u5185\u5ddd\u6cb3\u5ddd\u4e8b\u52d9\u6240","boring_xml_url":40,"boring_view_url":1,"soilmap_view_url":null,"soiltest_xml_url":0,"soiltest_view_url":0},{"id":212711,"code":"B4KJ201801010-0960","latitude":"31.9864461","longitude":"130.6669917","source_code":"QS47307573001","project_name":"","survey_name":"\u6e6f\u4e4b\u5c3e\u5730\u533a\u5730\u8cea\u8abf\u67fb\u696d\u52d9","client_name":"\u56fd\u571f\u4ea4\u901a\u7701 \u4e5d\u5dde\u5730\u65b9\u6574\u5099\u5c40 \u5ddd\u5185\u5ddd\u6cb3\u5ddd\u4e8b\u52d9\u6240","boring_xml_url":40,"boring_view_url":1,"soilmap_view_url":null,"soiltest_xml_url":0,"soiltest_view_url":0},{"id":212710,"code":"B4KJ201801010-0959","latitude":"31.9830019","longitude":"130.6592425","source_code":"QS47307572006","project_name":"","survey_name":"\u767d\u5ddd\u5ddd\u6c34\u9580\u5730\u8cea\u8abf\u67fb\u696d\u52d9","client_name":"\u56fd\u571f\u4ea4\u901a\u7701 \u4e5d\u5dde\u5730\u65b9\u6574\u5099\u5c40 \u5ddd\u5185\u5ddd\u6cb3\u5ddd\u4e8b\u52d9\u6240","boring_xml_url":40,"boring_view_url":1,"soilmap_view_url":null,"soiltest_xml_url":0,"soiltest_view_url":0},{"id":212709,"code":"B4KJ201801010-0958","latitude":"31.9828908","longitude":"130.6592425","source_code":"QS47307572005","project_name":"","survey_name":"\u767d\u5ddd\u5ddd\u6c34\u9580\u5730\u8cea\u8abf\u67fb\u696d\u52d9","client_name":"\u56fd\u571f\u4ea4\u901a\u7701 \u4e5d\u5dde\u5730\u65b9\u6574\u5099\u5c40 \u5ddd\u5185\u5ddd\u6cb3\u5ddd\u4e8b\u52d9\u6240","boring_xml_url":40,"boring_view_url":1,"soilmap_view_url":null,"soiltest_xml_url":0,"soiltest_view_url":0},{"id":212708,"code":"B4KJ201801010-0957","latitude":"31.9830019","longitude":"130.6591036","source_code":"QS47307572004","project_name":"","survey_name":"\u767d\u5ddd\u5ddd\u6c34\u9580\u5730\u8cea\u8abf\u67fb\u696d\u52d9","client_name":"\u56fd\u571f\u4ea4\u901a\u7701 \u4e5d\u5dde\u5730\u65b9\u6574\u5099\u5c40 \u5ddd\u5185\u5ddd\u6cb3\u5ddd\u4e8b\u52d9\u6240","boring_xml_url":40,"boring_view_url":1,"soilmap_view_url":null,"soiltest_xml_url":0,"soiltest_view_url":0},{"id":212707,"code":"B4KJ201801010-0956","latitude":"31.9828908","longitude":"130.6591036","source_code":"QS47307572003","project_name":"","survey_name":"\u767d\u5ddd\u5ddd\u6c34\u9580\u5730\u8cea\u8abf\u67fb\u696d\u52d9","client_name":"\u56fd\u571f\u4ea4\u901a\u7701 \u4e5d\u5dde\u5730\u65b9\u6574\u5099\u5c40 \u5ddd\u5185\u5ddd\u6cb3\u5ddd\u4e8b\u52d9\u6240","boring_xml_url":40,"boring_view_url":1,"soilmap_view_url":null,"soiltest_xml_url":0,"soiltest_view_url":0},{"id":212706,"code":"B4KJ201801010-0955","latitude":"31.9861681","longitude":"130.6599925","source_code":"QS47307572002","project_name":"","survey_name":"\u6e6f\u4e4b\u5c3e\u5730\u533a\u5730\u8cea\u8abf\u67fb\u696d\u52d9","client_name":"\u56fd\u571f\u4ea4\u901a\u7701 \u4e5d\u5dde\u5730\u65b9\u6574\u5099\u5c40 \u5ddd\u5185\u5ddd\u6cb3\u5ddd\u4e8b\u52d9\u6240","boring_xml_url":40,"boring_view_url":1,"soilmap_view_url":null,"soiltest_xml_url":0,"soiltest_view_url":0},{"id":212705,"code":"B4KJ201801010-0954","latitude":"31.9708369","longitude":"130.6829075","source_code":"QS47307564006","project_name":"","survey_name":"\u5e83\u7530\u7b2c3\u6a0b\u9580\u5730\u8cea\u8abf\u67fb\u696d\u52d9","client_name":"\u56fd\u571f\u4ea4\u901a\u7701 \u4e5d\u5dde\u5730\u65b9\u6574\u5099\u5c40 \u5ddd\u5185\u5ddd\u6cb3\u5ddd\u4e8b\u52d9\u6240","boring_xml_url":40,"boring_view_url":1,"soilmap_view_url":null,"soiltest_xml_url":0,"soiltest_view_url":0},{"id":212704,"code":"B4KJ201801010-0953","latitude":"31.9706147","longitude":"130.6830464","source_code":"QS47307564005","project_name":"","survey_name":"\u5e83\u7530\u7b2c3\u6a0b\u9580\u5730\u8cea\u8abf\u67fb\u696d\u52d9","client_name":"\u56fd\u571f\u4ea4\u901a\u7701 \u4e5d\u5dde\u5730\u65b9\u6574\u5099\u5c40 \u5ddd\u5185\u5ddd\u6cb3\u5ddd\u4e8b\u52d9\u6240","boring_xml_url":40,"boring_view_url":1,"soilmap_view_url":null,"soiltest_xml_url":0,"soiltest_view_url":0},{"id":212703,"code":"B4KJ201801010-0952","latitude":"31.9710592","longitude":"130.6830464","source_code":"QS47307564004","project_name":"","survey_name":"\u5e83\u7530\u7b2c3\u6a0b\u9580\u5730\u8cea\u8abf\u67fb\u696d\u52d9","client_name":"\u56fd\u571f\u4ea4\u901a\u7701 \u4e5d\u5dde\u5730\u65b9\u6574\u5099\u5c40 \u5ddd\u5185\u5ddd\u6cb3\u5ddd\u4e8b\u52d9\u6240","boring_xml_url":40,"boring_view_url":1,"soilmap_view_url":null,"soiltest_xml_url":0,"soiltest_view_url":0},{"id":212702,"code":"B4KJ201801010-0951","latitude":"31.9740311","longitude":"130.6827961","source_code":"QS47307564003","project_name":"","survey_name":"\u7a32\u8449\u5d0e\u7b2c\u4e00\u6a0b\u9580\u5730\u8cea\u8abf\u67fb\u696d\u52d9","client_name":"\u56fd\u571f\u4ea4\u901a\u7701 \u4e5d\u5dde\u5730\u65b9\u6574\u5099\u5c40 \u5ddd\u5185\u5ddd\u6cb3\u5ddd\u4e8b\u52d9\u6240","boring_xml_url":40,"boring_view_url":1,"soilmap_view_url":null,"soiltest_xml_url":0,"soiltest_view_url":0},{"id":212701,"code":"B4KJ201801010-0950","latitude":"31.9743644","longitude":"130.6830739","source_code":"QS47307564002","project_name":"","survey_name":"\u7a32\u8449\u5d0e\u7b2c\u4e00\u6a0b\u9580\u5730\u8cea\u8abf\u67fb\u696d\u52d9","client_name":"\u56fd\u571f\u4ea4\u901a\u7701 \u4e5d\u5dde\u5730\u65b9\u6574\u5099\u5c40 \u5ddd\u5185\u5ddd\u6cb3\u5ddd\u4e8b\u52d9\u6240","boring_xml_url":40,"boring_view_url":1,"soilmap_view_url":null,"soiltest_xml_url":0,"soiltest_view_url":0},{"id":212700,"code":"B4KJ201801010-0949","latitude":"31.9758919","longitude":"130.6767411","source_code":"QS47307564001","project_name":"","survey_name":"\u9234\u4e4b\u702c\u7b2c\u4e8c\u6a0b\u9580\u59163\u4ef6\u5730\u8cea\u8abf\u67fb\u696d\u52d9","client_name":"\u56fd\u571f\u4ea4\u901a\u7701 \u4e5d\u5dde\u5730\u65b9\u6574\u5099\u5c40 \u5ddd\u5185\u5ddd\u6cb3\u5ddd\u4e8b\u52d9\u6240","boring_xml_url":40,"boring_view_url":1,"soilmap_view_url":null,"soiltest_xml_url":0,"soiltest_view_url":0},{"id":212699,"code":"B4KJ201801010-0948","latitude":"31.9649211","longitude":"130.6930733","source_code":"QS47307555029","project_name":"","survey_name":"\u5929\u795e\u6a0b\u9580\u8a73\u7d30\u8a2d\u8a08\u696d\u52d9","client_name":"\u56fd\u571f\u4ea4\u901a\u7701 \u4e5d\u5dde\u5730\u65b9\u6574\u5099\u5c40 \u5ddd\u5185\u5ddd\u6cb3\u5ddd\u4e8b\u52d9\u6240","boring_xml_url":40,"boring_view_url":1,"soilmap_view_url":null,"soiltest_xml_url":0,"soiltest_view_url":0},{"id":212698,"code":"B4KJ201801010-0947","latitude":"31.9649489","longitude":"130.6930733","source_code":"QS47307555028","project_name":"","survey_name":"\u5929\u795e\u6a0b\u9580\u8a73\u7d30\u8a2d\u8a08\u696d\u52d9","client_name":"\u56fd\u571f\u4ea4\u901a\u7701 \u4e5d\u5dde\u5730\u65b9\u6574\u5099\u5c40 \u5ddd\u5185\u5ddd\u6cb3\u5ddd\u4e8b\u52d9\u6240","boring_xml_url":40,"boring_view_url":1,"soilmap_view_url":null,"soiltest_xml_url":0,"soiltest_view_url":0},{"id":212697,"code":"B4KJ201801010-0946","latitude":"31.9648656","longitude":"130.6930733","source_code":"QS47307555027","project_name":"","survey_name":"\u5929\u795e\u6a0b\u9580\u8a73\u7d30\u8a2d\u8a08\u696d\u52d9","client_name":"\u56fd\u571f\u4ea4\u901a\u7701 \u4e5d\u5dde\u5730\u65b9\u6574\u5099\u5c40 \u5ddd\u5185\u5ddd\u6cb3\u5ddd\u4e8b\u52d9\u6240","boring_xml_url":40,"boring_view_url":1,"soilmap_view_url":null,"soiltest_xml_url":0,"soiltest_view_url":0},{"id":212696,"code":"B4KJ201801010-0945","latitude":"31.9650322","longitude":"130.6931011","source_code":"QS47307555026","project_name":"","survey_name":"\u5929\u795e\u6a0b\u9580\u8a73\u7d30\u8a2d\u8a08\u696d\u52d9","client_name":"\u56fd\u571f\u4ea4\u901a\u7701 \u4e5d\u5dde\u5730\u65b9\u6574\u5099\u5c40 \u5ddd\u5185\u5ddd\u6cb3\u5ddd\u4e8b\u52d9\u6240","boring_xml_url":40,"boring_view_url":1,"soilmap_view_url":null,"soiltest_xml_url":0,"soiltest_view_url":0}]}}