{"header":{"xyz":{"source":[],"mosaic":false},"page":3614,"raw":{"soiltest_result":"0","bbox":"57.598333,109.544722,1.933333,163.806111","page":"3614"},"conditions":{"soiltest_result":0,"north":57.598333,"west":109.544722,"south":1.933333,"east":163.806111},"success":true,"message":""},"data":{"meta":{"total":212844,"page":3614,"pages":7095,"count":30},"values":[{"id":212155,"code":"B4KJ201801010-0404","latitude":"31.5899881","longitude":"130.5395128","source_code":"QS47303403001","project_name":"","survey_name":"\u9e7f\u5150\u5cf6\u52b4\u57fa\u6577\u5730\u8abf\u67fb\u696d\u52d9\u59161\u4ef6\u696d\u52d9","client_name":"\u56fd\u571f\u4ea4\u901a\u7701 \u4e5d\u5dde\u5730\u65b9\u6574\u5099\u5c40 \u9e7f\u5150\u5cf6\u55b6\u7e55\u4e8b\u52d9\u6240","boring_xml_url":40,"boring_view_url":1,"soilmap_view_url":null,"soiltest_xml_url":0,"soiltest_view_url":0},{"id":212154,"code":"B4KJ201801010-0403","latitude":"31.5868769","longitude":"130.5104878","source_code":"QS47303401001","project_name":"","survey_name":"\u9e7f\u5150\u5cf63\u53f7\u30d0\u30a4\u30d1\u30b9\u897f\u5225\u5e9c\u5730\u533a\u5730\u8cea\u8abf\u67fb\u696d\u52d9","client_name":"\u56fd\u571f\u4ea4\u901a\u7701 \u4e5d\u5dde\u5730\u65b9\u6574\u5099\u5c40 \u9e7f\u5150\u5cf6\u56fd\u9053\u4e8b\u52d9\u6240","boring_xml_url":40,"boring_view_url":1,"soilmap_view_url":null,"soiltest_xml_url":0,"soiltest_view_url":0},{"id":212153,"code":"B4KJ201801010-0402","latitude":"31.5904042","longitude":"130.5071825","source_code":"QS47303400055","project_name":"","survey_name":"\u9e7f\u5150\u5cf6\u9053\u8def\u9e7f\u5150\u5cf6\u897fIC\u5730\u8cea\u8abf\u67fb\u696d\u52d9","client_name":"\u56fd\u571f\u4ea4\u901a\u7701 \u4e5d\u5dde\u5730\u65b9\u6574\u5099\u5c40 \u9e7f\u5150\u5cf6\u56fd\u9053\u4e8b\u52d9\u6240","boring_xml_url":40,"boring_view_url":1,"soilmap_view_url":null,"soiltest_xml_url":0,"soiltest_view_url":0},{"id":212152,"code":"B4KJ201801010-0401","latitude":"31.5899875","longitude":"130.5073769","source_code":"QS47303400054","project_name":"","survey_name":"\u9e7f\u5150\u5cf6\u9053\u8def\u9e7f\u5150\u5cf6\u897fIC\u5730\u8cea\u8abf\u67fb\u696d\u52d9","client_name":"\u56fd\u571f\u4ea4\u901a\u7701 \u4e5d\u5dde\u5730\u65b9\u6574\u5099\u5c40 \u9e7f\u5150\u5cf6\u56fd\u9053\u4e8b\u52d9\u6240","boring_xml_url":40,"boring_view_url":1,"soilmap_view_url":null,"soiltest_xml_url":0,"soiltest_view_url":0},{"id":212151,"code":"B4KJ201801010-0400","latitude":"31.5902097","longitude":"130.5077658","source_code":"QS47303400053","project_name":"","survey_name":"\u9e7f\u5150\u5cf6\u9053\u8def\u9e7f\u5150\u5cf6\u897fIC\u5730\u8cea\u8abf\u67fb\u696d\u52d9","client_name":"\u56fd\u571f\u4ea4\u901a\u7701 \u4e5d\u5dde\u5730\u65b9\u6574\u5099\u5c40 \u9e7f\u5150\u5cf6\u56fd\u9053\u4e8b\u52d9\u6240","boring_xml_url":40,"boring_view_url":1,"soilmap_view_url":null,"soiltest_xml_url":0,"soiltest_view_url":0},{"id":212150,"code":"B4KJ201801010-0399","latitude":"31.5898486","longitude":"130.5079603","source_code":"QS47303400052","project_name":"","survey_name":"\u9e7f\u5150\u5cf6\u9053\u8def\u9e7f\u5150\u5cf6\u897fIC\u5730\u8cea\u8abf\u67fb\u696d\u52d9","client_name":"\u56fd\u571f\u4ea4\u901a\u7701 \u4e5d\u5dde\u5730\u65b9\u6574\u5099\u5c40 \u9e7f\u5150\u5cf6\u56fd\u9053\u4e8b\u52d9\u6240","boring_xml_url":40,"boring_view_url":1,"soilmap_view_url":null,"soiltest_xml_url":0,"soiltest_view_url":0},{"id":212149,"code":"B4KJ201801010-0398","latitude":"31.5896542","longitude":"130.5079603","source_code":"QS47303400051","project_name":"","survey_name":"\u9e7f\u5150\u5cf6\u9053\u8def\u9e7f\u5150\u5cf6\u897fIC\u5730\u8cea\u8abf\u67fb\u696d\u52d9","client_name":"\u56fd\u571f\u4ea4\u901a\u7701 \u4e5d\u5dde\u5730\u65b9\u6574\u5099\u5c40 \u9e7f\u5150\u5cf6\u56fd\u9053\u4e8b\u52d9\u6240","boring_xml_url":40,"boring_view_url":1,"soilmap_view_url":null,"soiltest_xml_url":0,"soiltest_view_url":0},{"id":212148,"code":"B4KJ201801010-0397","latitude":"31.5894875","longitude":"130.5080714","source_code":"QS47303400050","project_name":"","survey_name":"\u9e7f\u5150\u5cf6\u9053\u8def\u9e7f\u5150\u5cf6\u897fIC\u5730\u8cea\u8abf\u67fb\u696d\u52d9","client_name":"\u56fd\u571f\u4ea4\u901a\u7701 \u4e5d\u5dde\u5730\u65b9\u6574\u5099\u5c40 \u9e7f\u5150\u5cf6\u56fd\u9053\u4e8b\u52d9\u6240","boring_xml_url":40,"boring_view_url":1,"soilmap_view_url":null,"soiltest_xml_url":0,"soiltest_view_url":0},{"id":212147,"code":"B4KJ201801010-0396","latitude":"31.5891267","longitude":"130.5082933","source_code":"QS47303400049","project_name":"","survey_name":"\u9e7f\u5150\u5cf6\u9053\u8def\u9e7f\u5150\u5cf6\u897fIC\u5730\u8cea\u8abf\u67fb\u696d\u52d9","client_name":"\u56fd\u571f\u4ea4\u901a\u7701 \u4e5d\u5dde\u5730\u65b9\u6574\u5099\u5c40 \u9e7f\u5150\u5cf6\u56fd\u9053\u4e8b\u52d9\u6240","boring_xml_url":40,"boring_view_url":1,"soilmap_view_url":null,"soiltest_xml_url":0,"soiltest_view_url":0},{"id":212146,"code":"B4KJ201801010-0395","latitude":"31.5891267","longitude":"130.5085711","source_code":"QS47303400048","project_name":"","survey_name":"\u9e7f\u5150\u5cf6\u9053\u8def\u9e7f\u5150\u5cf6\u897fIC\u5730\u8cea\u8abf\u67fb\u696d\u52d9","client_name":"\u56fd\u571f\u4ea4\u901a\u7701 \u4e5d\u5dde\u5730\u65b9\u6574\u5099\u5c40 \u9e7f\u5150\u5cf6\u56fd\u9053\u4e8b\u52d9\u6240","boring_xml_url":40,"boring_view_url":1,"soilmap_view_url":null,"soiltest_xml_url":0,"soiltest_view_url":0},{"id":212145,"code":"B4KJ201801010-0394","latitude":"31.5933761","longitude":"130.5060158","source_code":"QS47303400045","project_name":"","survey_name":"\u9e7f\u5150\u5cf63\u53f7\u9e7f\u5150\u5cf6\u9053\u8def\u5730\u8cea\u8abf\u67fb(\u5208\u6577\u5730\u533a)\u696d\u52d9","client_name":"\u56fd\u571f\u4ea4\u901a\u7701 \u4e5d\u5dde\u5730\u65b9\u6574\u5099\u5c40 \u9e7f\u5150\u5cf6\u56fd\u9053\u4e8b\u52d9\u6240","boring_xml_url":40,"boring_view_url":1,"soilmap_view_url":null,"soiltest_xml_url":0,"soiltest_view_url":0},{"id":212144,"code":"B4KJ201801010-0393","latitude":"31.5936261","longitude":"130.5057936","source_code":"QS47303400044","project_name":"","survey_name":"\u9e7f\u5150\u5cf63\u53f7\u9e7f\u5150\u5cf6\u9053\u8def\u5730\u8cea\u8abf\u67fb(\u5208\u6577\u5730\u533a)\u696d\u52d9","client_name":"\u56fd\u571f\u4ea4\u901a\u7701 \u4e5d\u5dde\u5730\u65b9\u6574\u5099\u5c40 \u9e7f\u5150\u5cf6\u56fd\u9053\u4e8b\u52d9\u6240","boring_xml_url":40,"boring_view_url":1,"soilmap_view_url":null,"soiltest_xml_url":0,"soiltest_view_url":0},{"id":212143,"code":"B4KJ201801010-0392","latitude":"31.5935428","longitude":"130.5049047","source_code":"QS47303400043","project_name":"","survey_name":"\u9e7f\u5150\u5cf63\u53f7\u9e7f\u5150\u5cf6\u9053\u8def\u5730\u8cea\u8abf\u67fb(\u5208\u6577\u5730\u533a)\u696d\u52d9","client_name":"\u56fd\u571f\u4ea4\u901a\u7701 \u4e5d\u5dde\u5730\u65b9\u6574\u5099\u5c40 \u9e7f\u5150\u5cf6\u56fd\u9053\u4e8b\u52d9\u6240","boring_xml_url":40,"boring_view_url":1,"soilmap_view_url":null,"soiltest_xml_url":0,"soiltest_view_url":0},{"id":212142,"code":"B4KJ201801010-0391","latitude":"31.5938758","longitude":"130.5054325","source_code":"QS47303400042","project_name":"","survey_name":"\u9e7f\u5150\u5cf63\u53f7\u9e7f\u5150\u5cf6\u9053\u8def\u5730\u8cea\u8abf\u67fb(\u5208\u6577\u5730\u533a)\u696d\u52d9","client_name":"\u56fd\u571f\u4ea4\u901a\u7701 \u4e5d\u5dde\u5730\u65b9\u6574\u5099\u5c40 \u9e7f\u5150\u5cf6\u56fd\u9053\u4e8b\u52d9\u6240","boring_xml_url":40,"boring_view_url":1,"soilmap_view_url":null,"soiltest_xml_url":0,"soiltest_view_url":0},{"id":212141,"code":"B4KJ201801010-0390","latitude":"31.5930983","longitude":"130.5066269","source_code":"QS47303400041","project_name":"","survey_name":"\u9e7f\u5150\u5cf63\u53f7\u9e7f\u5150\u5cf6\u9053\u8def\u5730\u8cea\u8abf\u67fb(\u5208\u6577\u5730\u533a)\u696d\u52d9","client_name":"\u56fd\u571f\u4ea4\u901a\u7701 \u4e5d\u5dde\u5730\u65b9\u6574\u5099\u5c40 \u9e7f\u5150\u5cf6\u56fd\u9053\u4e8b\u52d9\u6240","boring_xml_url":40,"boring_view_url":1,"soilmap_view_url":null,"soiltest_xml_url":0,"soiltest_view_url":0},{"id":212140,"code":"B4KJ201801010-0389","latitude":"31.5923206","longitude":"130.5072936","source_code":"QS47303400040","project_name":"","survey_name":"\u9e7f\u5150\u5cf63\u53f7\u9e7f\u5150\u5cf6\u9053\u8def\u5730\u8cea\u8abf\u67fb(\u5208\u6577\u5730\u533a)\u696d\u52d9","client_name":"\u56fd\u571f\u4ea4\u901a\u7701 \u4e5d\u5dde\u5730\u65b9\u6574\u5099\u5c40 \u9e7f\u5150\u5cf6\u56fd\u9053\u4e8b\u52d9\u6240","boring_xml_url":40,"boring_view_url":1,"soilmap_view_url":null,"soiltest_xml_url":0,"soiltest_view_url":0},{"id":212139,"code":"B4KJ201801010-0388","latitude":"31.5940147","longitude":"130.5046269","source_code":"QS47303400039","project_name":"","survey_name":"\u9e7f\u5150\u5cf63\u53f7\u9e7f\u5150\u5cf6\u9053\u8def\u5730\u8cea\u8abf\u67fb(\u5208\u6577\u5730\u533a)\u696d\u52d9","client_name":"\u56fd\u571f\u4ea4\u901a\u7701 \u4e5d\u5dde\u5730\u65b9\u6574\u5099\u5c40 \u9e7f\u5150\u5cf6\u56fd\u9053\u4e8b\u52d9\u6240","boring_xml_url":40,"boring_view_url":1,"soilmap_view_url":null,"soiltest_xml_url":0,"soiltest_view_url":0},{"id":212138,"code":"B4KJ201801010-0387","latitude":"31.5933206","longitude":"130.5064881","source_code":"QS47303400038","project_name":"","survey_name":"\u9e7f\u5150\u5cf63\u53f7\u9e7f\u5150\u5cf6\u9053\u8def\u5730\u8cea\u8abf\u67fb(\u5208\u6577\u5730\u533a)\u696d\u52d9","client_name":"\u56fd\u571f\u4ea4\u901a\u7701 \u4e5d\u5dde\u5730\u65b9\u6574\u5099\u5c40 \u9e7f\u5150\u5cf6\u56fd\u9053\u4e8b\u52d9\u6240","boring_xml_url":40,"boring_view_url":1,"soilmap_view_url":null,"soiltest_xml_url":0,"soiltest_view_url":0},{"id":212137,"code":"B4KJ201801010-0386","latitude":"31.5931817","longitude":"130.5070436","source_code":"QS47303400037","project_name":"","survey_name":"\u9e7f\u5150\u5cf63\u53f7\u9e7f\u5150\u5cf6\u9053\u8def\u5730\u8cea\u8abf\u67fb(\u5208\u6577\u5730\u533a)\u696d\u52d9","client_name":"\u56fd\u571f\u4ea4\u901a\u7701 \u4e5d\u5dde\u5730\u65b9\u6574\u5099\u5c40 \u9e7f\u5150\u5cf6\u56fd\u9053\u4e8b\u52d9\u6240","boring_xml_url":40,"boring_view_url":1,"soilmap_view_url":null,"soiltest_xml_url":0,"soiltest_view_url":0},{"id":212136,"code":"B4KJ201801010-0385","latitude":"31.5932094","longitude":"130.5067103","source_code":"QS47303400036","project_name":"","survey_name":"\u9e7f\u5150\u5cf63\u53f7\u9e7f\u5150\u5cf6\u9053\u8def\u5730\u8cea\u8abf\u67fb(\u5208\u6577\u5730\u533a)\u696d\u52d9","client_name":"\u56fd\u571f\u4ea4\u901a\u7701 \u4e5d\u5dde\u5730\u65b9\u6574\u5099\u5c40 \u9e7f\u5150\u5cf6\u56fd\u9053\u4e8b\u52d9\u6240","boring_xml_url":40,"boring_view_url":1,"soilmap_view_url":null,"soiltest_xml_url":0,"soiltest_view_url":0},{"id":212135,"code":"B4KJ201801010-0384","latitude":"31.5936261","longitude":"130.5061547","source_code":"QS47303400035","project_name":"","survey_name":"\u9e7f\u5150\u5cf63\u53f7\u9e7f\u5150\u5cf6\u9053\u8def\u5730\u8cea\u8abf\u67fb(\u5208\u6577\u5730\u533a)\u696d\u52d9","client_name":"\u56fd\u571f\u4ea4\u901a\u7701 \u4e5d\u5dde\u5730\u65b9\u6574\u5099\u5c40 \u9e7f\u5150\u5cf6\u56fd\u9053\u4e8b\u52d9\u6240","boring_xml_url":40,"boring_view_url":1,"soilmap_view_url":null,"soiltest_xml_url":0,"soiltest_view_url":0},{"id":212134,"code":"B4KJ201801010-0383","latitude":"31.5943758","longitude":"130.5044881","source_code":"QS47303400034","project_name":"","survey_name":"\u9e7f\u5150\u5cf63\u53f7\u9e7f\u5150\u5cf6\u9053\u8def\u5730\u8cea\u8abf\u67fb(\u5208\u6577\u5730\u533a)\u696d\u52d9","client_name":"\u56fd\u571f\u4ea4\u901a\u7701 \u4e5d\u5dde\u5730\u65b9\u6574\u5099\u5c40 \u9e7f\u5150\u5cf6\u56fd\u9053\u4e8b\u52d9\u6240","boring_xml_url":40,"boring_view_url":1,"soilmap_view_url":null,"soiltest_xml_url":0,"soiltest_view_url":0},{"id":212133,"code":"B4KJ201801010-0382","latitude":"31.5944869","longitude":"130.5043214","source_code":"QS47303400033","project_name":"","survey_name":"\u9e7f\u5150\u5cf63\u53f7\u9e7f\u5150\u5cf6\u9053\u8def\u5730\u8cea\u8abf\u67fb(\u5208\u6577\u5730\u533a)\u696d\u52d9","client_name":"\u56fd\u571f\u4ea4\u901a\u7701 \u4e5d\u5dde\u5730\u65b9\u6574\u5099\u5c40 \u9e7f\u5150\u5cf6\u56fd\u9053\u4e8b\u52d9\u6240","boring_xml_url":40,"boring_view_url":1,"soilmap_view_url":null,"soiltest_xml_url":0,"soiltest_view_url":0},{"id":212132,"code":"B4KJ201801010-0381","latitude":"31.5947092","longitude":"130.5041269","source_code":"QS47303400032","project_name":"","survey_name":"\u9e7f\u5150\u5cf63\u53f7\u9e7f\u5150\u5cf6\u9053\u8def\u5730\u8cea\u8abf\u67fb(\u5208\u6577\u5730\u533a)\u696d\u52d9","client_name":"\u56fd\u571f\u4ea4\u901a\u7701 \u4e5d\u5dde\u5730\u65b9\u6574\u5099\u5c40 \u9e7f\u5150\u5cf6\u56fd\u9053\u4e8b\u52d9\u6240","boring_xml_url":40,"boring_view_url":1,"soilmap_view_url":null,"soiltest_xml_url":0,"soiltest_view_url":0},{"id":212131,"code":"B4KJ201801010-0380","latitude":"31.5949314","longitude":"130.5039603","source_code":"QS47303400031","project_name":"","survey_name":"\u9e7f\u5150\u5cf63\u53f7\u9e7f\u5150\u5cf6\u9053\u8def\u5730\u8cea\u8abf\u67fb(\u5208\u6577\u5730\u533a)\u696d\u52d9","client_name":"\u56fd\u571f\u4ea4\u901a\u7701 \u4e5d\u5dde\u5730\u65b9\u6574\u5099\u5c40 \u9e7f\u5150\u5cf6\u56fd\u9053\u4e8b\u52d9\u6240","boring_xml_url":40,"boring_view_url":1,"soilmap_view_url":null,"soiltest_xml_url":0,"soiltest_view_url":0},{"id":212130,"code":"B4KJ201801010-0379","latitude":"31.5944869","longitude":"130.5040714","source_code":"QS47303400030","project_name":"","survey_name":"\u9e7f\u5150\u5cf63\u53f7\u9e7f\u5150\u5cf6\u9053\u8def\u5730\u8cea\u8abf\u67fb(\u5208\u6577\u5730\u533a)\u696d\u52d9","client_name":"\u56fd\u571f\u4ea4\u901a\u7701 \u4e5d\u5dde\u5730\u65b9\u6574\u5099\u5c40 \u9e7f\u5150\u5cf6\u56fd\u9053\u4e8b\u52d9\u6240","boring_xml_url":40,"boring_view_url":1,"soilmap_view_url":null,"soiltest_xml_url":0,"soiltest_view_url":0},{"id":212129,"code":"B4KJ201801010-0378","latitude":"31.5946258","longitude":"130.5037103","source_code":"QS47303400029","project_name":"","survey_name":"\u9e7f\u5150\u5cf63\u53f7\u9e7f\u5150\u5cf6\u9053\u8def\u5730\u8cea\u8abf\u67fb(\u5208\u6577\u5730\u533a)\u696d\u52d9","client_name":"\u56fd\u571f\u4ea4\u901a\u7701 \u4e5d\u5dde\u5730\u65b9\u6574\u5099\u5c40 \u9e7f\u5150\u5cf6\u56fd\u9053\u4e8b\u52d9\u6240","boring_xml_url":40,"boring_view_url":1,"soilmap_view_url":null,"soiltest_xml_url":0,"soiltest_view_url":0},{"id":212128,"code":"B4KJ201801010-0377","latitude":"31.5949869","longitude":"130.5033217","source_code":"QS47303400028","project_name":"","survey_name":"\u9e7f\u5150\u5cf63\u53f7\u9e7f\u5150\u5cf6\u9053\u8def\u5730\u8cea\u8abf\u67fb(\u5208\u6577\u5730\u533a)\u696d\u52d9","client_name":"\u56fd\u571f\u4ea4\u901a\u7701 \u4e5d\u5dde\u5730\u65b9\u6574\u5099\u5c40 \u9e7f\u5150\u5cf6\u56fd\u9053\u4e8b\u52d9\u6240","boring_xml_url":40,"boring_view_url":1,"soilmap_view_url":null,"soiltest_xml_url":0,"soiltest_view_url":0},{"id":212127,"code":"B4KJ201801010-0376","latitude":"31.5876544","longitude":"130.5096544","source_code":"QS47303400027","project_name":"","survey_name":"\u9e7f\u5150\u5cf6\u9053\u8def\u5730\u8cea\u8abf\u67fb(\u305d\u306e4)\u696d\u52d9","client_name":"\u56fd\u571f\u4ea4\u901a\u7701 \u4e5d\u5dde\u5730\u65b9\u6574\u5099\u5c40 \u9e7f\u5150\u5cf6\u56fd\u9053\u4e8b\u52d9\u6240","boring_xml_url":40,"boring_view_url":1,"soilmap_view_url":null,"soiltest_xml_url":0,"soiltest_view_url":0},{"id":212126,"code":"B4KJ201801010-0375","latitude":"31.58821","longitude":"130.5090989","source_code":"QS47303400026","project_name":"","survey_name":"\u9e7f\u5150\u5cf6\u9053\u8def\u5730\u8cea\u8abf\u67fb(\u305d\u306e4)\u696d\u52d9","client_name":"\u56fd\u571f\u4ea4\u901a\u7701 \u4e5d\u5dde\u5730\u65b9\u6574\u5099\u5c40 \u9e7f\u5150\u5cf6\u56fd\u9053\u4e8b\u52d9\u6240","boring_xml_url":40,"boring_view_url":1,"soilmap_view_url":null,"soiltest_xml_url":0,"soiltest_view_url":0}]}}