{"header":{"xyz":{"source":[],"mosaic":false},"page":3617,"raw":{"soiltest_result":"0","bbox":"57.598333,109.544722,1.933333,163.806111","page":"3617"},"conditions":{"soiltest_result":0,"north":57.598333,"west":109.544722,"south":1.933333,"east":163.806111},"success":true,"message":""},"data":{"meta":{"total":212844,"page":3617,"pages":7095,"count":30},"values":[{"id":212065,"code":"B4KJ201801010-0314","latitude":"31.6134836","longitude":"130.4407711","source_code":"QS47303335020","project_name":"","survey_name":"\u9e7f\u5150\u5cf6\u9053\u8def\u5730\u8cea\u8abf\u67fb(\u305d\u306e3)\u696d\u52d9","client_name":"\u56fd\u571f\u4ea4\u901a\u7701 \u4e5d\u5dde\u5730\u65b9\u6574\u5099\u5c40 \u9e7f\u5150\u5cf6\u56fd\u9053\u4e8b\u52d9\u6240","boring_xml_url":40,"boring_view_url":1,"soilmap_view_url":null,"soiltest_xml_url":0,"soiltest_view_url":0},{"id":212064,"code":"B4KJ201801010-0313","latitude":"31.6137614","longitude":"130.4399378","source_code":"QS47303335019","project_name":"","survey_name":"\u9e7f\u5150\u5cf6\u9053\u8def\u5730\u8cea\u8abf\u67fb(\u305d\u306e3)\u696d\u52d9","client_name":"\u56fd\u571f\u4ea4\u901a\u7701 \u4e5d\u5dde\u5730\u65b9\u6574\u5099\u5c40 \u9e7f\u5150\u5cf6\u56fd\u9053\u4e8b\u52d9\u6240","boring_xml_url":40,"boring_view_url":1,"soilmap_view_url":null,"soiltest_xml_url":0,"soiltest_view_url":0},{"id":212063,"code":"B4KJ201801010-0312","latitude":"31.6137614","longitude":"130.4393822","source_code":"QS47303335018","project_name":"","survey_name":"\u9e7f\u5150\u5cf6\u9053\u8def\u5730\u8cea\u8abf\u67fb(\u305d\u306e3)\u696d\u52d9","client_name":"\u56fd\u571f\u4ea4\u901a\u7701 \u4e5d\u5dde\u5730\u65b9\u6574\u5099\u5c40 \u9e7f\u5150\u5cf6\u56fd\u9053\u4e8b\u52d9\u6240","boring_xml_url":40,"boring_view_url":1,"soilmap_view_url":null,"soiltest_xml_url":0,"soiltest_view_url":0},{"id":212062,"code":"B4KJ201801010-0311","latitude":"31.6140392","longitude":"130.4388267","source_code":"QS47303335017","project_name":"","survey_name":"\u9e7f\u5150\u5cf6\u9053\u8def\u5730\u8cea\u8abf\u67fb(\u305d\u306e3)\u696d\u52d9","client_name":"\u56fd\u571f\u4ea4\u901a\u7701 \u4e5d\u5dde\u5730\u65b9\u6574\u5099\u5c40 \u9e7f\u5150\u5cf6\u56fd\u9053\u4e8b\u52d9\u6240","boring_xml_url":40,"boring_view_url":1,"soilmap_view_url":null,"soiltest_xml_url":0,"soiltest_view_url":0},{"id":212061,"code":"B4KJ201801010-0310","latitude":"31.612095","longitude":"130.4471594","source_code":"QS47303335008","project_name":"","survey_name":"\u9e7f\u5150\u5cf63\u53f7\u9e7f\u5150\u5cf6\u9053\u8def\u5730\u8cea\u8abf\u67fb(\u77f3\u8c37\u5730\u533a)\u696d\u52d9","client_name":"\u56fd\u571f\u4ea4\u901a\u7701 \u4e5d\u5dde\u5730\u65b9\u6574\u5099\u5c40 \u9e7f\u5150\u5cf6\u56fd\u9053\u4e8b\u52d9\u6240","boring_xml_url":40,"boring_view_url":1,"soilmap_view_url":null,"soiltest_xml_url":0,"soiltest_view_url":0},{"id":212060,"code":"B4KJ201801010-0309","latitude":"31.6123728","longitude":"130.4471594","source_code":"QS47303335007","project_name":"","survey_name":"\u9e7f\u5150\u5cf63\u53f7\u9e7f\u5150\u5cf6\u9053\u8def\u5730\u8cea\u8abf\u67fb(\u77f3\u8c37\u5730\u533a)\u696d\u52d9","client_name":"\u56fd\u571f\u4ea4\u901a\u7701 \u4e5d\u5dde\u5730\u65b9\u6574\u5099\u5c40 \u9e7f\u5150\u5cf6\u56fd\u9053\u4e8b\u52d9\u6240","boring_xml_url":40,"boring_view_url":1,"soilmap_view_url":null,"soiltest_xml_url":0,"soiltest_view_url":0},{"id":212059,"code":"B4KJ201801010-0308","latitude":"31.6126228","longitude":"130.4471594","source_code":"QS47303335006","project_name":"","survey_name":"\u9e7f\u5150\u5cf63\u53f7\u9e7f\u5150\u5cf6\u9053\u8def\u5730\u8cea\u8abf\u67fb(\u798f\u5c71,\u77f3\u8c37\u5730\u533a)\u696d\u52d9","client_name":"\u56fd\u571f\u4ea4\u901a\u7701 \u4e5d\u5dde\u5730\u65b9\u6574\u5099\u5c40 \u9e7f\u5150\u5cf6\u56fd\u9053\u4e8b\u52d9\u6240","boring_xml_url":40,"boring_view_url":1,"soilmap_view_url":null,"soiltest_xml_url":0,"soiltest_view_url":0},{"id":212058,"code":"B4KJ201801010-0307","latitude":"31.6146225","longitude":"130.4357158","source_code":"QS47303335005","project_name":"","survey_name":"\u9e7f\u5150\u5cf63\u53f7\u9e7f\u5150\u5cf6\u9053\u8def\u5730\u8cea\u8abf\u67fb(\u798f\u5c71,\u77f3\u8c37\u5730\u533a)\u696d\u52d9","client_name":"\u56fd\u571f\u4ea4\u901a\u7701 \u4e5d\u5dde\u5730\u65b9\u6574\u5099\u5c40 \u9e7f\u5150\u5cf6\u56fd\u9053\u4e8b\u52d9\u6240","boring_xml_url":40,"boring_view_url":1,"soilmap_view_url":null,"soiltest_xml_url":0,"soiltest_view_url":0},{"id":212057,"code":"B4KJ201801010-0306","latitude":"31.6147889","longitude":"130.4353547","source_code":"QS47303335004","project_name":"","survey_name":"\u9e7f\u5150\u5cf63\u53f7\u9e7f\u5150\u5cf6\u9053\u8def\u5730\u8cea\u8abf\u67fb(\u798f\u5c71\u3001\u77f3\u8c37\u5730\u533a)\u696d\u52d9","client_name":"\u56fd\u571f\u4ea4\u901a\u7701 \u4e5d\u5dde\u5730\u65b9\u6574\u5099\u5c40 \u9e7f\u5150\u5cf6\u56fd\u9053\u4e8b\u52d9\u6240","boring_xml_url":40,"boring_view_url":1,"soilmap_view_url":null,"soiltest_xml_url":0,"soiltest_view_url":0},{"id":212056,"code":"B4KJ201801010-0305","latitude":"31.6145947","longitude":"130.4367714","source_code":"QS47303335003","project_name":"","survey_name":"\u9e7f\u5150\u5cf63\u53f7\u9e7f\u5150\u5cf6\u9053\u8def\u5730\u8cea\u8abf\u67fb(\u305d\u306e3)\u696d\u52d9","client_name":"\u56fd\u571f\u4ea4\u901a\u7701 \u4e5d\u5dde\u5730\u65b9\u6574\u5099\u5c40 \u9e7f\u5150\u5cf6\u56fd\u9053\u4e8b\u52d9\u6240","boring_xml_url":40,"boring_view_url":1,"soilmap_view_url":null,"soiltest_xml_url":0,"soiltest_view_url":0},{"id":212055,"code":"B4KJ201801010-0304","latitude":"31.6143169","longitude":"130.4377992","source_code":"QS47303335002","project_name":"","survey_name":"\u9e7f\u5150\u5cf63\u53f7\u9e7f\u5150\u5cf6\u9053\u8def\u5730\u8cea\u8abf\u67fb(\u305d\u306e3)\u696d\u52d9","client_name":"\u56fd\u571f\u4ea4\u901a\u7701 \u4e5d\u5dde\u5730\u65b9\u6574\u5099\u5c40 \u9e7f\u5150\u5cf6\u56fd\u9053\u4e8b\u52d9\u6240","boring_xml_url":40,"boring_view_url":1,"soilmap_view_url":null,"soiltest_xml_url":0,"soiltest_view_url":0},{"id":212054,"code":"B4KJ201801010-0303","latitude":"31.6127617","longitude":"130.4467983","source_code":"QS47303335001","project_name":"","survey_name":"\u9e7f\u5150\u5cf63\u53f7\u9e7f\u5150\u5cf6\u9053\u8def\u5730\u8cea\u8abf\u67fb(\u305d\u306e3)\u696d\u52d9","client_name":"\u56fd\u571f\u4ea4\u901a\u7701 \u4e5d\u5dde\u5730\u65b9\u6574\u5099\u5c40 \u9e7f\u5150\u5cf6\u56fd\u9053\u4e8b\u52d9\u6240","boring_xml_url":40,"boring_view_url":1,"soilmap_view_url":null,"soiltest_xml_url":0,"soiltest_view_url":0},{"id":212053,"code":"B4KJ201801010-0302","latitude":"31.6150944","longitude":"130.4347439","source_code":"QS47303334010","project_name":"","survey_name":"\u9e7f\u5150\u5cf6\u9053\u8def\u5730\u8cea\u8abf\u67fb(\u798f\u5c71\uff5e\u4e0a\u5927\u8feb\u5730\u533a)\u696d\u52d9","client_name":"\u56fd\u571f\u4ea4\u901a\u7701 \u4e5d\u5dde\u5730\u65b9\u6574\u5099\u5c40 \u9e7f\u5150\u5cf6\u56fd\u9053\u4e8b\u52d9\u6240","boring_xml_url":40,"boring_view_url":1,"soilmap_view_url":null,"soiltest_xml_url":0,"soiltest_view_url":0},{"id":212052,"code":"B4KJ201801010-0301","latitude":"31.6148722","longitude":"130.4351606","source_code":"QS47303334009","project_name":"","survey_name":"\u9e7f\u5150\u5cf6\u9053\u8def\u5730\u8cea\u8abf\u67fb(\u798f\u5c71\uff5e\u4e0a\u5927\u8feb\u5730\u533a)\u696d\u52d9","client_name":"\u56fd\u571f\u4ea4\u901a\u7701 \u4e5d\u5dde\u5730\u65b9\u6574\u5099\u5c40 \u9e7f\u5150\u5cf6\u56fd\u9053\u4e8b\u52d9\u6240","boring_xml_url":40,"boring_view_url":1,"soilmap_view_url":null,"soiltest_xml_url":0,"soiltest_view_url":0},{"id":212051,"code":"B4KJ201801010-0300","latitude":"31.6147336","longitude":"130.4350217","source_code":"QS47303334008","project_name":"","survey_name":"\u9e7f\u5150\u5cf6\u9053\u8def\u5730\u8cea\u8abf\u67fb(\u798f\u5c71\uff5e\u4e0a\u5927\u8feb\u5730\u533a)\u696d\u52d9","client_name":"\u56fd\u571f\u4ea4\u901a\u7701 \u4e5d\u5dde\u5730\u65b9\u6574\u5099\u5c40 \u9e7f\u5150\u5cf6\u56fd\u9053\u4e8b\u52d9\u6240","boring_xml_url":40,"boring_view_url":1,"soilmap_view_url":null,"soiltest_xml_url":0,"soiltest_view_url":0},{"id":212050,"code":"B4KJ201801010-0299","latitude":"31.6154278","longitude":"130.434105","source_code":"QS47303334007","project_name":"","survey_name":"\u9e7f\u5150\u5cf6\u9053\u8def\u5730\u8cea\u8abf\u67fb(\u305d\u306e3)\u696d\u52d9","client_name":"\u56fd\u571f\u4ea4\u901a\u7701 \u4e5d\u5dde\u5730\u65b9\u6574\u5099\u5c40 \u9e7f\u5150\u5cf6\u56fd\u9053\u4e8b\u52d9\u6240","boring_xml_url":40,"boring_view_url":1,"soilmap_view_url":null,"soiltest_xml_url":0,"soiltest_view_url":0},{"id":212049,"code":"B4KJ201801010-0298","latitude":"31.61515","longitude":"130.4338272","source_code":"QS47303334006","project_name":"","survey_name":"\u9e7f\u5150\u5cf6\u9053\u8def\u5730\u8cea\u8abf\u67fb(\u305d\u306e3)\u696d\u52d9","client_name":"\u56fd\u571f\u4ea4\u901a\u7701 \u4e5d\u5dde\u5730\u65b9\u6574\u5099\u5c40 \u9e7f\u5150\u5cf6\u56fd\u9053\u4e8b\u52d9\u6240","boring_xml_url":40,"boring_view_url":1,"soilmap_view_url":null,"soiltest_xml_url":0,"soiltest_view_url":0},{"id":212048,"code":"B4KJ201801010-0297","latitude":"31.6168164","longitude":"130.4313275","source_code":"QS47303334005","project_name":"","survey_name":"\u9e7f\u5150\u5cf6\u9053\u8def\u5730\u8cea\u8abf\u67fb(\u305d\u306e3)\u696d\u52d9","client_name":"\u56fd\u571f\u4ea4\u901a\u7701 \u4e5d\u5dde\u5730\u65b9\u6574\u5099\u5c40 \u9e7f\u5150\u5cf6\u56fd\u9053\u4e8b\u52d9\u6240","boring_xml_url":40,"boring_view_url":1,"soilmap_view_url":null,"soiltest_xml_url":0,"soiltest_view_url":0},{"id":212047,"code":"B4KJ201801010-0296","latitude":"31.6162611","longitude":"130.4310497","source_code":"QS47303334004","project_name":"","survey_name":"\u9e7f\u5150\u5cf6\u9053\u8def\u5730\u8cea\u8abf\u67fb(\u305d\u306e3)\u696d\u52d9","client_name":"\u56fd\u571f\u4ea4\u901a\u7701 \u4e5d\u5dde\u5730\u65b9\u6574\u5099\u5c40 \u9e7f\u5150\u5cf6\u56fd\u9053\u4e8b\u52d9\u6240","boring_xml_url":40,"boring_view_url":1,"soilmap_view_url":null,"soiltest_xml_url":0,"soiltest_view_url":0},{"id":212046,"code":"B4KJ201801010-0295","latitude":"31.6195939","longitude":"130.4232447","source_code":"QS47303334002","project_name":"","survey_name":"\u9e7f\u5150\u5cf6\u9053\u8def\u5730\u8cea\u8abf\u67fb(\u305d\u306e3)\u696d\u52d9","client_name":"\u56fd\u571f\u4ea4\u901a\u7701 \u4e5d\u5dde\u5730\u65b9\u6574\u5099\u5c40 \u9e7f\u5150\u5cf6\u56fd\u9053\u4e8b\u52d9\u6240","boring_xml_url":40,"boring_view_url":1,"soilmap_view_url":null,"soiltest_xml_url":0,"soiltest_view_url":0},{"id":212045,"code":"B4KJ201801010-0294","latitude":"31.6152333","longitude":"130.4342439","source_code":"QS47303334001","project_name":"","survey_name":"\u9e7f\u5150\u5cf63\u53f7\u9e7f\u5150\u5cf6\u9053\u8def\u5730\u8cea\u8abf\u67fb(\u305d\u306e3)\u696d\u52d9","client_name":"\u56fd\u571f\u4ea4\u901a\u7701 \u4e5d\u5dde\u5730\u65b9\u6574\u5099\u5c40 \u9e7f\u5150\u5cf6\u56fd\u9053\u4e8b\u52d9\u6240","boring_xml_url":40,"boring_view_url":1,"soilmap_view_url":null,"soiltest_xml_url":0,"soiltest_view_url":0},{"id":212044,"code":"B4KJ201801010-0293","latitude":"31.6193161","longitude":"130.4182731","source_code":"QS47303333013","project_name":"","survey_name":"\u9e7f\u5150\u5cf6\u9053\u8def\u5730\u8cea\u8abf\u67fb(\u4e0a\u5927\u8feb\uff5e\u897f\u5225\u5e9c\u5730\u533a)\u59161\u4ef6\u696d\u52d9","client_name":"\u56fd\u571f\u4ea4\u901a\u7701 \u4e5d\u5dde\u5730\u65b9\u6574\u5099\u5c40 \u9e7f\u5150\u5cf6\u56fd\u9053\u4e8b\u52d9\u6240","boring_xml_url":40,"boring_view_url":1,"soilmap_view_url":null,"soiltest_xml_url":0,"soiltest_view_url":0},{"id":212043,"code":"B4KJ201801010-0292","latitude":"31.6195936","longitude":"130.4177175","source_code":"QS47303333012","project_name":"","survey_name":"\u9e7f\u5150\u5cf6\u9053\u8def\u5730\u8cea\u8abf\u67fb(\u4e0a\u5927\u8feb\uff5e\u897f\u5225\u5e9c\u5730\u533a)\u59161\u4ef6\u696d\u52d9","client_name":"\u56fd\u571f\u4ea4\u901a\u7701 \u4e5d\u5dde\u5730\u65b9\u6574\u5099\u5c40 \u9e7f\u5150\u5cf6\u56fd\u9053\u4e8b\u52d9\u6240","boring_xml_url":40,"boring_view_url":1,"soilmap_view_url":null,"soiltest_xml_url":0,"soiltest_view_url":0},{"id":212042,"code":"B4KJ201801010-0291","latitude":"31.6193714","longitude":"130.4141344","source_code":"QS47303333011","project_name":"","survey_name":"\u9e7f\u5150\u5cf6\u9053\u8def\u4f0a\u96c6\u9662\u5730\u533a\u5730\u8cea\u8abf\u67fb\u59162\u4ef6\u696d\u52d9","client_name":"\u56fd\u571f\u4ea4\u901a\u7701 \u4e5d\u5dde\u5730\u65b9\u6574\u5099\u5c40 \u9e7f\u5150\u5cf6\u56fd\u9053\u4e8b\u52d9\u6240","boring_xml_url":40,"boring_view_url":1,"soilmap_view_url":null,"soiltest_xml_url":0,"soiltest_view_url":0},{"id":212041,"code":"B4KJ201801010-0290","latitude":"31.6190381","longitude":"130.41294","source_code":"QS47303333010","project_name":"","survey_name":"\u5e73\u62104\u5e74\u5ea6\u9e7f\u5150\u5cf6\u9053\u8def\u5730\u8cea\u8abf\u67fb(\u6e05\u85e4\u5730\u533a)\u696d\u52d9","client_name":"\u56fd\u571f\u4ea4\u901a\u7701 \u4e5d\u5dde\u5730\u65b9\u6574\u5099\u5c40 \u9e7f\u5150\u5cf6\u56fd\u9053\u4e8b\u52d9\u6240","boring_xml_url":40,"boring_view_url":1,"soilmap_view_url":null,"soiltest_xml_url":0,"soiltest_view_url":0},{"id":212040,"code":"B4KJ201801010-0289","latitude":"31.6194825","longitude":"130.41269","source_code":"QS47303333009","project_name":"","survey_name":"\u5e73\u62104\u5e74\u5ea6\u9e7f\u5150\u5cf6\u9053\u8def\u5730\u8cea\u8abf\u67fb(\u6e05\u85e4\u5730\u533a)\u696d\u52d9","client_name":"\u56fd\u571f\u4ea4\u901a\u7701 \u4e5d\u5dde\u5730\u65b9\u6574\u5099\u5c40 \u9e7f\u5150\u5cf6\u56fd\u9053\u4e8b\u52d9\u6240","boring_xml_url":40,"boring_view_url":1,"soilmap_view_url":null,"soiltest_xml_url":0,"soiltest_view_url":0},{"id":212039,"code":"B4KJ201801010-0288","latitude":"31.6199269","longitude":"130.4125511","source_code":"QS47303333008","project_name":"","survey_name":"\u5e73\u62104\u5e74\u5ea6\u9e7f\u5150\u5cf6\u9053\u8def\u5730\u8cea\u8abf\u67fb(\u6e05\u85e4\u5730\u533a)\u696d\u52d9","client_name":"\u56fd\u571f\u4ea4\u901a\u7701 \u4e5d\u5dde\u5730\u65b9\u6574\u5099\u5c40 \u9e7f\u5150\u5cf6\u56fd\u9053\u4e8b\u52d9\u6240","boring_xml_url":40,"boring_view_url":1,"soilmap_view_url":null,"soiltest_xml_url":0,"soiltest_view_url":0},{"id":212038,"code":"B4KJ201801010-0287","latitude":"31.6200381","longitude":"130.4174397","source_code":"QS47303333007","project_name":"","survey_name":"\u9e7f\u5150\u5cf6\u9053\u8def\u5730\u8cea\u8abf\u67fb(\u798f\u5c71\uff5e\u4e0a\u5927\u8feb\u5730\u533a)\u696d\u52d9","client_name":"\u56fd\u571f\u4ea4\u901a\u7701 \u4e5d\u5dde\u5730\u65b9\u6574\u5099\u5c40 \u9e7f\u5150\u5cf6\u56fd\u9053\u4e8b\u52d9\u6240","boring_xml_url":40,"boring_view_url":1,"soilmap_view_url":null,"soiltest_xml_url":0,"soiltest_view_url":0},{"id":212037,"code":"B4KJ201801010-0286","latitude":"31.6199269","longitude":"130.4170231","source_code":"QS47303333006","project_name":"","survey_name":"\u9e7f\u5150\u5cf6\u9053\u8def\u5730\u8cea\u8abf\u67fb(\u798f\u5c71\uff5e\u4e0a\u5927\u8feb\u5730\u533a)\u696d\u52d9","client_name":"\u56fd\u571f\u4ea4\u901a\u7701 \u4e5d\u5dde\u5730\u65b9\u6574\u5099\u5c40 \u9e7f\u5150\u5cf6\u56fd\u9053\u4e8b\u52d9\u6240","boring_xml_url":40,"boring_view_url":1,"soilmap_view_url":null,"soiltest_xml_url":0,"soiltest_view_url":0},{"id":212036,"code":"B4KJ201801010-0285","latitude":"31.6197047","longitude":"130.4166342","source_code":"QS47303333005","project_name":"","survey_name":"\u9e7f\u5150\u5cf6\u9053\u8def\u5730\u8cea\u8abf\u67fb(\u798f\u5c71\uff5e\u4e0a\u5927\u8feb\u5730\u533a)\u696d\u52d9","client_name":"\u56fd\u571f\u4ea4\u901a\u7701 \u4e5d\u5dde\u5730\u65b9\u6574\u5099\u5c40 \u9e7f\u5150\u5cf6\u56fd\u9053\u4e8b\u52d9\u6240","boring_xml_url":40,"boring_view_url":1,"soilmap_view_url":null,"soiltest_xml_url":0,"soiltest_view_url":0}]}}