{"header":{"xyz":{"source":[],"mosaic":false},"page":3618,"raw":{"soiltest_result":"0","bbox":"57.598333,109.544722,1.933333,163.806111","page":"3618"},"conditions":{"soiltest_result":0,"north":57.598333,"west":109.544722,"south":1.933333,"east":163.806111},"success":true,"message":""},"data":{"meta":{"total":212844,"page":3618,"pages":7095,"count":30},"values":[{"id":212035,"code":"B4KJ201801010-0284","latitude":"31.6195658","longitude":"130.4168008","source_code":"QS47303333004","project_name":"","survey_name":"\u9e7f\u5150\u5cf63\u53f7\u9e7f\u5150\u5cf6\u9053\u8def\u5730\u8cea\u8abf\u67fb(\u305d\u306e4)\u696d\u52d9","client_name":"\u56fd\u571f\u4ea4\u901a\u7701 \u4e5d\u5dde\u5730\u65b9\u6574\u5099\u5c40 \u9e7f\u5150\u5cf6\u56fd\u9053\u4e8b\u52d9\u6240","boring_xml_url":40,"boring_view_url":1,"soilmap_view_url":null,"soiltest_xml_url":0,"soiltest_view_url":0},{"id":212034,"code":"B4KJ201801010-0283","latitude":"31.6199547","longitude":"130.4182728","source_code":"QS47303333003","project_name":"","survey_name":"\u9e7f\u5150\u5cf63\u53f7\u9e7f\u5150\u5cf6\u9053\u8def\u5730\u8cea\u8abf\u67fb(\u305d\u306e4)\u696d\u52d9","client_name":"\u56fd\u571f\u4ea4\u901a\u7701 \u4e5d\u5dde\u5730\u65b9\u6574\u5099\u5c40 \u9e7f\u5150\u5cf6\u56fd\u9053\u4e8b\u52d9\u6240","boring_xml_url":40,"boring_view_url":1,"soilmap_view_url":null,"soiltest_xml_url":0,"soiltest_view_url":0},{"id":212033,"code":"B4KJ201801010-0282","latitude":"31.6189547","longitude":"130.41269","source_code":"QS47303333002","project_name":"","survey_name":"\u9e7f\u5150\u5cf63\u53f7\u9e7f\u5150\u5cf6\u9053\u8def\u5730\u8cea\u8abf\u67fb(\u305d\u306e4)\u696d\u52d9","client_name":"\u56fd\u571f\u4ea4\u901a\u7701 \u4e5d\u5dde\u5730\u65b9\u6574\u5099\u5c40 \u9e7f\u5150\u5cf6\u56fd\u9053\u4e8b\u52d9\u6240","boring_xml_url":40,"boring_view_url":1,"soilmap_view_url":null,"soiltest_xml_url":0,"soiltest_view_url":0},{"id":212032,"code":"B4KJ201801010-0281","latitude":"31.6192047","longitude":"130.4127178","source_code":"QS47303333001","project_name":"","survey_name":"\u9e7f\u5150\u5cf63\u53f7\u9e7f\u5150\u5cf6\u9053\u8def\u5730\u8cea\u8abf\u67fb(\u305d\u306e4)\u696d\u52d9","client_name":"\u56fd\u571f\u4ea4\u901a\u7701 \u4e5d\u5dde\u5730\u65b9\u6574\u5099\u5c40 \u9e7f\u5150\u5cf6\u56fd\u9053\u4e8b\u52d9\u6240","boring_xml_url":40,"boring_view_url":1,"soilmap_view_url":null,"soiltest_xml_url":0,"soiltest_view_url":0},{"id":212031,"code":"B4KJ201801010-0280","latitude":"31.6192603","longitude":"130.4064128","source_code":"QS47303332024","project_name":"","survey_name":"\u9e7f\u5150\u5cf6\u9053\u8def\u4e0b\u8c37\u53e3\u6a4b\u5730\u8cea\u8abf\u67fb\u696d\u52d9","client_name":"\u56fd\u571f\u4ea4\u901a\u7701 \u4e5d\u5dde\u5730\u65b9\u6574\u5099\u5c40 \u9e7f\u5150\u5cf6\u56fd\u9053\u4e8b\u52d9\u6240","boring_xml_url":40,"boring_view_url":1,"soilmap_view_url":null,"soiltest_xml_url":0,"soiltest_view_url":0},{"id":212030,"code":"B4KJ201801010-0279","latitude":"31.6191492","longitude":"130.4059128","source_code":"QS47303332023","project_name":"","survey_name":"\u9e7f\u5150\u5cf6\u9053\u8def\u4e0b\u8c37\u53e3\u6a4b\u5730\u8cea\u8abf\u67fb\u696d\u52d9","client_name":"\u56fd\u571f\u4ea4\u901a\u7701 \u4e5d\u5dde\u5730\u65b9\u6574\u5099\u5c40 \u9e7f\u5150\u5cf6\u56fd\u9053\u4e8b\u52d9\u6240","boring_xml_url":40,"boring_view_url":1,"soilmap_view_url":null,"soiltest_xml_url":0,"soiltest_view_url":0},{"id":212029,"code":"B4KJ201801010-0278","latitude":"31.6193714","longitude":"130.4057742","source_code":"QS47303332022","project_name":"","survey_name":"\u9e7f\u5150\u5cf6\u9053\u8def\u4e0b\u8c37\u53e3\u6a4b\u5730\u8cea\u8abf\u67fb\u696d\u52d9","client_name":"\u56fd\u571f\u4ea4\u901a\u7701 \u4e5d\u5dde\u5730\u65b9\u6574\u5099\u5c40 \u9e7f\u5150\u5cf6\u56fd\u9053\u4e8b\u52d9\u6240","boring_xml_url":40,"boring_view_url":1,"soilmap_view_url":null,"soiltest_xml_url":0,"soiltest_view_url":0},{"id":212028,"code":"B4KJ201801010-0277","latitude":"31.6191492","longitude":"130.4053853","source_code":"QS47303332021","project_name":"","survey_name":"\u9e7f\u5150\u5cf6\u9053\u8def\u4e0b\u8c37\u53e3\u6a4b\u8cea\u8cea\u8abf\u67fb\u696d\u52d9","client_name":"\u56fd\u571f\u4ea4\u901a\u7701 \u4e5d\u5dde\u5730\u65b9\u6574\u5099\u5c40 \u9e7f\u5150\u5cf6\u56fd\u9053\u4e8b\u52d9\u6240","boring_xml_url":40,"boring_view_url":1,"soilmap_view_url":null,"soiltest_xml_url":0,"soiltest_view_url":0},{"id":212027,"code":"B4KJ201801010-0276","latitude":"31.6186214","longitude":"130.4038019","source_code":"QS47303332020","project_name":"","survey_name":"\u9e7f\u5150\u5cf6\u9053\u8def\u4e0b\u8c37\u53e3\u6a4b\u5730\u8cea\u8abf\u67fb\u696d\u52d9","client_name":"\u56fd\u571f\u4ea4\u901a\u7701 \u4e5d\u5dde\u5730\u65b9\u6574\u5099\u5c40 \u9e7f\u5150\u5cf6\u56fd\u9053\u4e8b\u52d9\u6240","boring_xml_url":40,"boring_view_url":1,"soilmap_view_url":null,"soiltest_xml_url":0,"soiltest_view_url":0},{"id":212026,"code":"B4KJ201801010-0275","latitude":"31.6187881","longitude":"130.4038019","source_code":"QS47303332019","project_name":"","survey_name":"\u9e7f\u5150\u5cf6\u9053\u8def\u4e0b\u8c37\u53e3\u6a4b\u5730\u8cea\u8abf\u67fb\u696d\u52d9","client_name":"\u56fd\u571f\u4ea4\u901a\u7701 \u4e5d\u5dde\u5730\u65b9\u6574\u5099\u5c40 \u9e7f\u5150\u5cf6\u56fd\u9053\u4e8b\u52d9\u6240","boring_xml_url":40,"boring_view_url":1,"soilmap_view_url":null,"soiltest_xml_url":0,"soiltest_view_url":0},{"id":212025,"code":"B4KJ201801010-0274","latitude":"31.6187881","longitude":"130.4039408","source_code":"QS47303332018","project_name":"","survey_name":"\u9e7f\u5150\u5cf6\u9053\u8def\u4e0b\u8c37\u53e3\u6a4b\u5730\u8cea\u8abf\u67fb\u696d\u52d9","client_name":"\u56fd\u571f\u4ea4\u901a\u7701 \u4e5d\u5dde\u5730\u65b9\u6574\u5099\u5c40 \u9e7f\u5150\u5cf6\u56fd\u9053\u4e8b\u52d9\u6240","boring_xml_url":40,"boring_view_url":1,"soilmap_view_url":null,"soiltest_xml_url":0,"soiltest_view_url":0},{"id":212024,"code":"B4KJ201801010-0273","latitude":"31.6185658","longitude":"130.4039964","source_code":"QS47303332017","project_name":"","survey_name":"\u9e7f\u5150\u5cf6\u9053\u8def\u4e0b\u8c37\u53e3\u6a4b\u5730\u8cea\u8abf\u67fb\u696d\u52d9","client_name":"\u56fd\u571f\u4ea4\u901a\u7701 \u4e5d\u5dde\u5730\u65b9\u6574\u5099\u5c40 \u9e7f\u5150\u5cf6\u56fd\u9053\u4e8b\u52d9\u6240","boring_xml_url":40,"boring_view_url":1,"soilmap_view_url":null,"soiltest_xml_url":0,"soiltest_view_url":0},{"id":212023,"code":"B4KJ201801010-0272","latitude":"31.6187881","longitude":"130.4034131","source_code":"QS47303332016","project_name":"","survey_name":"\u9e7f\u5150\u5cf6\u9053\u8def\u4e0b\u8c37\u53e3\u6a4b\u5730\u8cea\u8abf\u67fb\u696d\u52d9","client_name":"\u56fd\u571f\u4ea4\u901a\u7701 \u4e5d\u5dde\u5730\u65b9\u6574\u5099\u5c40 \u9e7f\u5150\u5cf6\u56fd\u9053\u4e8b\u52d9\u6240","boring_xml_url":40,"boring_view_url":1,"soilmap_view_url":null,"soiltest_xml_url":0,"soiltest_view_url":0},{"id":212022,"code":"B4KJ201801010-0271","latitude":"31.6187881","longitude":"130.4029686","source_code":"QS47303332015","project_name":"","survey_name":"\u9e7f\u5150\u5cf6\u9053\u8def\u4e0b\u8c37\u53e3\u6a4b\u5730\u8cea\u8abf\u67fb\u696d\u52d9","client_name":"\u56fd\u571f\u4ea4\u901a\u7701 \u4e5d\u5dde\u5730\u65b9\u6574\u5099\u5c40 \u9e7f\u5150\u5cf6\u56fd\u9053\u4e8b\u52d9\u6240","boring_xml_url":40,"boring_view_url":1,"soilmap_view_url":null,"soiltest_xml_url":0,"soiltest_view_url":0},{"id":212021,"code":"B4KJ201801010-0270","latitude":"31.6184547","longitude":"130.4028022","source_code":"QS47303332014","project_name":"","survey_name":"\u9e7f\u5150\u5cf6\u9053\u8def\u4e0b\u8c37\u53e3\u6a4b\u5730\u8cea\u8abf\u67fb\u696d\u52d9","client_name":"\u56fd\u571f\u4ea4\u901a\u7701 \u4e5d\u5dde\u5730\u65b9\u6574\u5099\u5c40 \u9e7f\u5150\u5cf6\u56fd\u9053\u4e8b\u52d9\u6240","boring_xml_url":40,"boring_view_url":1,"soilmap_view_url":null,"soiltest_xml_url":0,"soiltest_view_url":0},{"id":212020,"code":"B4KJ201801010-0269","latitude":"31.6184547","longitude":"130.40183","source_code":"QS47303332013","project_name":"","survey_name":"\u9e7f\u5150\u5cf6\u9053\u8def\u4e0b\u8c37\u53e3\u6a4b\u5730\u8cea\u8abf\u67fb\u696d\u52d9","client_name":"\u56fd\u571f\u4ea4\u901a\u7701 \u4e5d\u5dde\u5730\u65b9\u6574\u5099\u5c40 \u9e7f\u5150\u5cf6\u56fd\u9053\u4e8b\u52d9\u6240","boring_xml_url":40,"boring_view_url":1,"soilmap_view_url":null,"soiltest_xml_url":0,"soiltest_view_url":0},{"id":212019,"code":"B4KJ201801010-0268","latitude":"31.6186769","longitude":"130.4010244","source_code":"QS47303332012","project_name":"","survey_name":"\u9e7f\u5150\u5cf6\u9053\u8def\u4e0b\u8c37\u53e3\u6a4b\u5730\u8cea\u8abf\u67fb\u696d\u52d9","client_name":"\u56fd\u571f\u4ea4\u901a\u7701 \u4e5d\u5dde\u5730\u65b9\u6574\u5099\u5c40 \u9e7f\u5150\u5cf6\u56fd\u9053\u4e8b\u52d9\u6240","boring_xml_url":40,"boring_view_url":1,"soilmap_view_url":null,"soiltest_xml_url":0,"soiltest_view_url":0},{"id":212018,"code":"B4KJ201801010-0267","latitude":"31.6184547","longitude":"130.4008856","source_code":"QS47303332011","project_name":"","survey_name":"\u9e7f\u5150\u5cf6\u9053\u8def\u4e0b\u8c37\u53e3\u6a4b\u5730\u8cea\u8abf\u67fb\u696d\u52d9","client_name":"\u56fd\u571f\u4ea4\u901a\u7701 \u4e5d\u5dde\u5730\u65b9\u6574\u5099\u5c40 \u9e7f\u5150\u5cf6\u56fd\u9053\u4e8b\u52d9\u6240","boring_xml_url":40,"boring_view_url":1,"soilmap_view_url":null,"soiltest_xml_url":0,"soiltest_view_url":0},{"id":212017,"code":"B4KJ201801010-0266","latitude":"31.6184547","longitude":"130.40058","source_code":"QS47303332010","project_name":"","survey_name":"\u9e7f\u5150\u5cf6\u9053\u8def\u4e0b\u8c37\u53e3\u6a4b\u5730\u8cea\u8abf\u67fb\u696d\u52d9","client_name":"\u56fd\u571f\u4ea4\u901a\u7701 \u4e5d\u5dde\u5730\u65b9\u6574\u5099\u5c40 \u9e7f\u5150\u5cf6\u56fd\u9053\u4e8b\u52d9\u6240","boring_xml_url":40,"boring_view_url":1,"soilmap_view_url":null,"soiltest_xml_url":0,"soiltest_view_url":0},{"id":212016,"code":"B4KJ201801010-0265","latitude":"31.6195103","longitude":"130.4080517","source_code":"QS47303332009","project_name":"","survey_name":"\u9e7f\u5150\u5cf6\u9053\u8def\u4f0a\u96c6\u9662\u5730\u533a\u5730\u8cea\u8abf\u67fb\u59162\u4ef6\u696d\u52d9","client_name":"\u56fd\u571f\u4ea4\u901a\u7701 \u4e5d\u5dde\u5730\u65b9\u6574\u5099\u5c40 \u9e7f\u5150\u5cf6\u56fd\u9053\u4e8b\u52d9\u6240","boring_xml_url":40,"boring_view_url":1,"soilmap_view_url":null,"soiltest_xml_url":0,"soiltest_view_url":0},{"id":212015,"code":"B4KJ201801010-0264","latitude":"31.6192603","longitude":"130.4057742","source_code":"QS47303332008","project_name":"","survey_name":"\u9e7f\u5150\u5cf6\u9053\u8def\u5730\u8cea\u8abf\u67fb(\u4e0b\u8c37\u53e3\u5730\u533a)\u696d\u52d9","client_name":"\u56fd\u571f\u4ea4\u901a\u7701 \u4e5d\u5dde\u5730\u65b9\u6574\u5099\u5c40 \u9e7f\u5150\u5cf6\u56fd\u9053\u4e8b\u52d9\u6240","boring_xml_url":40,"boring_view_url":1,"soilmap_view_url":null,"soiltest_xml_url":0,"soiltest_view_url":0},{"id":212014,"code":"B4KJ201801010-0263","latitude":"31.6188992","longitude":"130.4053853","source_code":"QS47303332007","project_name":"","survey_name":"\u9e7f\u5150\u5cf6\u9053\u8def\u5730\u8cea\u8abf\u67fb(\u4e0b\u8c37\u53e3\u5730\u533a)\u696d\u52d9","client_name":"\u56fd\u571f\u4ea4\u901a\u7701 \u4e5d\u5dde\u5730\u65b9\u6574\u5099\u5c40 \u9e7f\u5150\u5cf6\u56fd\u9053\u4e8b\u52d9\u6240","boring_xml_url":40,"boring_view_url":1,"soilmap_view_url":null,"soiltest_xml_url":0,"soiltest_view_url":0},{"id":212013,"code":"B4KJ201801010-0262","latitude":"31.6184269","longitude":"130.4004967","source_code":"QS47303332006","project_name":"","survey_name":"\u9e7f\u5150\u5cf6\u9053\u8def\u5730\u8cea\u8abf\u67fb(\u4e0b\u8c37\u53e3\u5730\u533a)\u696d\u52d9","client_name":"\u56fd\u571f\u4ea4\u901a\u7701 \u4e5d\u5dde\u5730\u65b9\u6574\u5099\u5c40 \u9e7f\u5150\u5cf6\u56fd\u9053\u4e8b\u52d9\u6240","boring_xml_url":40,"boring_view_url":1,"soilmap_view_url":null,"soiltest_xml_url":0,"soiltest_view_url":0},{"id":212012,"code":"B4KJ201801010-0261","latitude":"31.6187881","longitude":"130.4040797","source_code":"QS47303332005","project_name":"","survey_name":"\u9e7f\u5150\u5cf6\u9053\u8def\u5730\u8cea\u8abf\u67fb(\u4e0b\u8c37\u53e3\u5730\u533a)\u696d\u52d9","client_name":"\u56fd\u571f\u4ea4\u901a\u7701 \u4e5d\u5dde\u5730\u65b9\u6574\u5099\u5c40 \u9e7f\u5150\u5cf6\u56fd\u9053\u4e8b\u52d9\u6240","boring_xml_url":40,"boring_view_url":1,"soilmap_view_url":null,"soiltest_xml_url":0,"soiltest_view_url":0},{"id":212011,"code":"B4KJ201801010-0260","latitude":"31.6188714","longitude":"130.4032742","source_code":"QS47303332004","project_name":"","survey_name":"\u9e7f\u5150\u5cf6\u9053\u8def\u5730\u8cea\u8abf\u67fb(\u4e0b\u8c37\u53e3\u5730\u533a)\u696d\u52d9","client_name":"\u56fd\u571f\u4ea4\u901a\u7701 \u4e5d\u5dde\u5730\u65b9\u6574\u5099\u5c40 \u9e7f\u5150\u5cf6\u56fd\u9053\u4e8b\u52d9\u6240","boring_xml_url":40,"boring_view_url":1,"soilmap_view_url":null,"soiltest_xml_url":0,"soiltest_view_url":0},{"id":212010,"code":"B4KJ201801010-0259","latitude":"31.6185658","longitude":"130.4016356","source_code":"QS47303332003","project_name":"","survey_name":"\u9e7f\u5150\u5cf6\u9053\u8def\u5730\u8cea\u8abf\u67fb(\u4e0b\u8c37\u53e3\u5730\u533a)\u696d\u52d9","client_name":"\u56fd\u571f\u4ea4\u901a\u7701 \u4e5d\u5dde\u5730\u65b9\u6574\u5099\u5c40 \u9e7f\u5150\u5cf6\u56fd\u9053\u4e8b\u52d9\u6240","boring_xml_url":40,"boring_view_url":1,"soilmap_view_url":null,"soiltest_xml_url":0,"soiltest_view_url":0},{"id":212009,"code":"B4KJ201801010-0258","latitude":"31.6183992","longitude":"130.4068572","source_code":"QS47303332002","project_name":"","survey_name":"\u9e7f\u5150\u5cf63\u53f7\u9e7f\u5150\u5cf6\u9053\u8def\u5730\u8cea\u8abf\u67fb(\u305d\u306e4)\u696d\u52d9","client_name":"\u56fd\u571f\u4ea4\u901a\u7701 \u4e5d\u5dde\u5730\u65b9\u6574\u5099\u5c40 \u9e7f\u5150\u5cf6\u56fd\u9053\u4e8b\u52d9\u6240","boring_xml_url":40,"boring_view_url":1,"soilmap_view_url":null,"soiltest_xml_url":0,"soiltest_view_url":0},{"id":212008,"code":"B4KJ201801010-0257","latitude":"31.6177603","longitude":"130.4009967","source_code":"QS47303332001","project_name":"","survey_name":"\u9e7f\u5150\u5cf63\u53f7\u9e7f\u5150\u5cf6\u9053\u8def\u5730\u8cea\u8abf\u67fb(\u305d\u306e4)\u696d\u52d9","client_name":"\u56fd\u571f\u4ea4\u901a\u7701 \u4e5d\u5dde\u5730\u65b9\u6574\u5099\u5c40 \u9e7f\u5150\u5cf6\u56fd\u9053\u4e8b\u52d9\u6240","boring_xml_url":40,"boring_view_url":1,"soilmap_view_url":null,"soiltest_xml_url":0,"soiltest_view_url":0},{"id":212007,"code":"B4KJ201801010-0256","latitude":"31.6172047","longitude":"130.3908308","source_code":"QS47303331013","project_name":"","survey_name":"\u9e7f\u5150\u5cf6\u9053\u8def\u98ef\u725f\u793c2\u53f7\u6a4b\u5730\u8cea\u8abf\u67fb\u696d\u52d9","client_name":"\u56fd\u571f\u4ea4\u901a\u7701 \u4e5d\u5dde\u5730\u65b9\u6574\u5099\u5c40 \u9e7f\u5150\u5cf6\u56fd\u9053\u4e8b\u52d9\u6240","boring_xml_url":40,"boring_view_url":1,"soilmap_view_url":null,"soiltest_xml_url":0,"soiltest_view_url":0},{"id":212006,"code":"B4KJ201801010-0255","latitude":"31.6172047","longitude":"130.3906644","source_code":"QS47303331012","project_name":"","survey_name":"\u9e7f\u5150\u5cf6\u9053\u8def\u98ef\u725f\u793c2\u53f7\u6a4b\u5730\u8cea\u8abf\u67fb\u696d\u52d9","client_name":"\u56fd\u571f\u4ea4\u901a\u7701 \u4e5d\u5dde\u5730\u65b9\u6574\u5099\u5c40 \u9e7f\u5150\u5cf6\u56fd\u9053\u4e8b\u52d9\u6240","boring_xml_url":40,"boring_view_url":1,"soilmap_view_url":null,"soiltest_xml_url":0,"soiltest_view_url":0}]}}