{"header":{"xyz":{"source":[],"mosaic":false},"page":363,"raw":{"soiltest_result":"0","bbox":"57.598333,109.544722,1.933333,163.806111","page":"363"},"conditions":{"soiltest_result":0,"north":57.598333,"west":109.544722,"south":1.933333,"east":163.806111},"success":true,"message":""},"data":{"meta":{"total":212844,"page":363,"pages":7095,"count":30},"values":[{"id":555481,"code":"NGIC202202413-0001","latitude":"31.792653166667","longitude":"130.30136541667","source_code":"","project_name":"\u4ee4\u548c3\u5e74\u5ea6\u9e7f\u5150\u5cf6\u56fd\u9053\u4e8b\u52d9\u6240\u7ba1\u5185\u8217\u88c5\u4fee\u7e55\u8a2d\u8a08\u696d\u52d9","survey_name":"\u4ee4\u548c3\u5e74\u5ea6\u9e7f\u5150\u5cf6\u56fd\u9053\u4e8b\u52d9\u6240\u7ba1\u5185\u8217\u88c5\u4fee\u7e55\u8a2d\u8a08\u696d\u52d9","client_name":"\u56fd\u571f\u4ea4\u901a\u7701\u4e5d\u5dde\u5730\u65b9\u6574\u5099\u5c40\u9e7f\u5150\u5cf6\u56fd\u9053\u4e8b\u52d9\u6240","boring_xml_url":47,"boring_view_url":1,"soilmap_view_url":null,"soiltest_xml_url":0,"soiltest_view_url":0},{"id":555450,"code":"NGIC202202324-0006","latitude":"33.993083333333","longitude":"134.61586111111","source_code":"","project_name":"","survey_name":"\u5fb3\u5cf6\u5c0f\u677e\u5cf6\u6e2f\u4fc2\u7559\u65bd\u8a2d\u7b49\u571f\u8cea\u8abf\u67fb","client_name":"\u56fd\u571f\u4ea4\u901a\u7701\u56db\u56fd\u5730\u65b9\u6574\u5099\u5c40\u5c0f\u677e\u5cf6\u6e2f\u6e7e\u30fb\u7a7a\u6e2f\u6574\u5099\u4e8b\u52d9\u6240","boring_xml_url":47,"boring_view_url":1,"soilmap_view_url":71,"soiltest_xml_url":47,"soiltest_view_url":47},{"id":555449,"code":"NGIC202202324-0005","latitude":"33.993416666667","longitude":"134.61619444444","source_code":"","project_name":"","survey_name":"\u5fb3\u5cf6\u5c0f\u677e\u5cf6\u6e2f\u4fc2\u7559\u65bd\u8a2d\u7b49\u571f\u8cea\u8abf\u67fb","client_name":"\u56fd\u571f\u4ea4\u901a\u7701\u56db\u56fd\u5730\u65b9\u6574\u5099\u5c40\u5c0f\u677e\u5cf6\u6e2f\u6e7e\u30fb\u7a7a\u6e2f\u6574\u5099\u4e8b\u52d9\u6240","boring_xml_url":47,"boring_view_url":1,"soilmap_view_url":71,"soiltest_xml_url":47,"soiltest_view_url":47},{"id":555448,"code":"NGIC202202324-0004","latitude":"33.993722222222","longitude":"134.61655555556","source_code":"","project_name":"","survey_name":"\u5fb3\u5cf6\u5c0f\u677e\u5cf6\u6e2f\u4fc2\u7559\u65bd\u8a2d\u7b49\u571f\u8cea\u8abf\u67fb","client_name":"\u56fd\u571f\u4ea4\u901a\u7701\u56db\u56fd\u5730\u65b9\u6574\u5099\u5c40\u5c0f\u677e\u5cf6\u6e2f\u6e7e\u30fb\u7a7a\u6e2f\u6574\u5099\u4e8b\u52d9\u6240","boring_xml_url":47,"boring_view_url":1,"soilmap_view_url":71,"soiltest_xml_url":47,"soiltest_view_url":47},{"id":555447,"code":"NGIC202202324-0003","latitude":"33.99225","longitude":"134.61644444444","source_code":"","project_name":"","survey_name":"\u5fb3\u5cf6\u5c0f\u677e\u5cf6\u6e2f\u4fc2\u7559\u65bd\u8a2d\u7b49\u571f\u8cea\u8abf\u67fb","client_name":"\u56fd\u571f\u4ea4\u901a\u7701\u56db\u56fd\u5730\u65b9\u6574\u5099\u5c40\u5c0f\u677e\u5cf6\u6e2f\u6e7e\u30fb\u7a7a\u6e2f\u6574\u5099\u4e8b\u52d9\u6240","boring_xml_url":47,"boring_view_url":1,"soilmap_view_url":71,"soiltest_xml_url":47,"soiltest_view_url":47},{"id":555446,"code":"NGIC202202324-0002","latitude":"33.992916666667","longitude":"134.60652777778","source_code":"","project_name":"","survey_name":"\u5fb3\u5cf6\u5c0f\u677e\u5cf6\u6e2f\u4fc2\u7559\u65bd\u8a2d\u7b49\u571f\u8cea\u8abf\u67fb","client_name":"\u56fd\u571f\u4ea4\u901a\u7701\u56db\u56fd\u5730\u65b9\u6574\u5099\u5c40\u5c0f\u677e\u5cf6\u6e2f\u6e7e\u30fb\u7a7a\u6e2f\u6574\u5099\u4e8b\u52d9\u6240","boring_xml_url":47,"boring_view_url":1,"soilmap_view_url":71,"soiltest_xml_url":47,"soiltest_view_url":47},{"id":555445,"code":"NGIC202202324-0001","latitude":"33.992944444444","longitude":"134.606","source_code":"","project_name":"","survey_name":"\u5fb3\u5cf6\u5c0f\u677e\u5cf6\u6e2f\u4fc2\u7559\u65bd\u8a2d\u7b49\u571f\u8cea\u8abf\u67fb","client_name":"\u56fd\u571f\u4ea4\u901a\u7701\u56db\u56fd\u5730\u65b9\u6574\u5099\u5c40\u5c0f\u677e\u5cf6\u6e2f\u6e7e\u30fb\u7a7a\u6e2f\u6574\u5099\u4e8b\u52d9\u6240","boring_xml_url":47,"boring_view_url":1,"soilmap_view_url":71,"soiltest_xml_url":47,"soiltest_view_url":47},{"id":555321,"code":"NGIC202202290-0017","latitude":"32.307861111111","longitude":"130.61213055556","source_code":"","project_name":"","survey_name":"\u56fd\u9053219\u53f7\u5916\u707d\u5bb3\u5fa9\u65e7\u6a4b\u6881\u95a2\u4fc2\u5730\u8cea\u8abf\u67fb(\u305d\u306e1)\u696d\u52d9","client_name":"\u56fd\u571f\u4ea4\u901a\u7701\u4e5d\u5dde\u5730\u65b9\u6574\u5099\u5c40\u516b\u4ee3\u5fa9\u8208\u4e8b\u52d9\u6240\u5de5\u52d9\u7b2c\u4e09\u8ab2","boring_xml_url":47,"boring_view_url":1,"soilmap_view_url":null,"soiltest_xml_url":0,"soiltest_view_url":0},{"id":555320,"code":"NGIC202202290-0016","latitude":"32.307955555556","longitude":"130.61196111111","source_code":"","project_name":"","survey_name":"\u56fd\u9053219\u53f7\u5916\u707d\u5bb3\u5fa9\u65e7\u6a4b\u6881\u95a2\u4fc2\u5730\u8cea\u8abf\u67fb(\u305d\u306e1)\u696d\u52d9","client_name":"\u56fd\u571f\u4ea4\u901a\u7701\u4e5d\u5dde\u5730\u65b9\u6574\u5099\u5c40\u516b\u4ee3\u5fa9\u8208\u4e8b\u52d9\u6240\u5de5\u52d9\u7b2c\u4e09\u8ab2","boring_xml_url":47,"boring_view_url":1,"soilmap_view_url":null,"soiltest_xml_url":0,"soiltest_view_url":0},{"id":555319,"code":"NGIC202202290-0015","latitude":"32.308641666667","longitude":"130.61336666667","source_code":"","project_name":"","survey_name":"\u56fd\u9053219\u53f7\u5916\u707d\u5bb3\u5fa9\u65e7\u6a4b\u6881\u95a2\u4fc2\u5730\u8cea\u8abf\u67fb(\u305d\u306e1)\u696d\u52d9","client_name":"\u56fd\u571f\u4ea4\u901a\u7701\u4e5d\u5dde\u5730\u65b9\u6574\u5099\u5c40\u516b\u4ee3\u5fa9\u8208\u4e8b\u52d9\u6240\u5de5\u52d9\u7b2c\u4e09\u8ab2","boring_xml_url":47,"boring_view_url":1,"soilmap_view_url":null,"soiltest_xml_url":0,"soiltest_view_url":0},{"id":555318,"code":"NGIC202202290-0014","latitude":"32.308605555556","longitude":"130.61319444444","source_code":"","project_name":"","survey_name":"\u56fd\u9053219\u53f7\u5916\u707d\u5bb3\u5fa9\u65e7\u6a4b\u6881\u95a2\u4fc2\u5730\u8cea\u8abf\u67fb(\u305d\u306e1)\u696d\u52d9","client_name":"\u56fd\u571f\u4ea4\u901a\u7701\u4e5d\u5dde\u5730\u65b9\u6574\u5099\u5c40\u516b\u4ee3\u5fa9\u8208\u4e8b\u52d9\u6240\u5de5\u52d9\u7b2c\u4e09\u8ab2","boring_xml_url":47,"boring_view_url":1,"soilmap_view_url":null,"soiltest_xml_url":0,"soiltest_view_url":0},{"id":555317,"code":"NGIC202202290-0013","latitude":"32.308708333333","longitude":"130.61269722222","source_code":"","project_name":"","survey_name":"\u56fd\u9053219\u53f7\u5916\u707d\u5bb3\u5fa9\u65e7\u6a4b\u6881\u95a2\u4fc2\u5730\u8cea\u8abf\u67fb(\u305d\u306e1)\u696d\u52d9","client_name":"\u56fd\u571f\u4ea4\u901a\u7701\u4e5d\u5dde\u5730\u65b9\u6574\u5099\u5c40\u516b\u4ee3\u5fa9\u8208\u4e8b\u52d9\u6240\u5de5\u52d9\u7b2c\u4e09\u8ab2","boring_xml_url":47,"boring_view_url":1,"soilmap_view_url":null,"soiltest_xml_url":47,"soiltest_view_url":47},{"id":555316,"code":"NGIC202202290-0012","latitude":"32.308788888889","longitude":"130.61255","source_code":"","project_name":"","survey_name":"\u56fd\u9053219\u53f7\u5916\u707d\u5bb3\u5fa9\u65e7\u6a4b\u6881\u95a2\u4fc2\u5730\u8cea\u8abf\u67fb(\u305d\u306e1)\u696d\u52d9","client_name":"\u56fd\u571f\u4ea4\u901a\u7701\u4e5d\u5dde\u5730\u65b9\u6574\u5099\u5c40\u516b\u4ee3\u5fa9\u8208\u4e8b\u52d9\u6240\u5de5\u52d9\u7b2c\u4e09\u8ab2","boring_xml_url":47,"boring_view_url":1,"soilmap_view_url":null,"soiltest_xml_url":47,"soiltest_view_url":47},{"id":555315,"code":"NGIC202202290-0011","latitude":"32.309222222222","longitude":"130.61131388889","source_code":"","project_name":"","survey_name":"\u56fd\u9053219\u53f7\u5916\u707d\u5bb3\u5fa9\u65e7\u6a4b\u6881\u95a2\u4fc2\u5730\u8cea\u8abf\u67fb(\u305d\u306e1)\u696d\u52d9","client_name":"\u56fd\u571f\u4ea4\u901a\u7701\u4e5d\u5dde\u5730\u65b9\u6574\u5099\u5c40\u516b\u4ee3\u5fa9\u8208\u4e8b\u52d9\u6240\u5de5\u52d9\u7b2c\u4e09\u8ab2","boring_xml_url":47,"boring_view_url":1,"soilmap_view_url":null,"soiltest_xml_url":47,"soiltest_view_url":47},{"id":555314,"code":"NGIC202202290-0010","latitude":"32.309316666667","longitude":"130.61128611111","source_code":"","project_name":"","survey_name":"\u56fd\u9053219\u53f7\u5916\u707d\u5bb3\u5fa9\u65e7\u6a4b\u6881\u95a2\u4fc2\u5730\u8cea\u8abf\u67fb(\u305d\u306e1)\u696d\u52d9","client_name":"\u56fd\u571f\u4ea4\u901a\u7701\u4e5d\u5dde\u5730\u65b9\u6574\u5099\u5c40\u516b\u4ee3\u5fa9\u8208\u4e8b\u52d9\u6240\u5de5\u52d9\u7b2c\u4e09\u8ab2","boring_xml_url":47,"boring_view_url":1,"soilmap_view_url":null,"soiltest_xml_url":47,"soiltest_view_url":47},{"id":555313,"code":"NGIC202202290-0009","latitude":"32.309425","longitude":"130.61083611111","source_code":"","project_name":"","survey_name":"\u56fd\u9053219\u53f7\u5916\u707d\u5bb3\u5fa9\u65e7\u6a4b\u6881\u95a2\u4fc2\u5730\u8cea\u8abf\u67fb(\u305d\u306e1)\u696d\u52d9","client_name":"\u56fd\u571f\u4ea4\u901a\u7701\u4e5d\u5dde\u5730\u65b9\u6574\u5099\u5c40\u516b\u4ee3\u5fa9\u8208\u4e8b\u52d9\u6240\u5de5\u52d9\u7b2c\u4e09\u8ab2","boring_xml_url":47,"boring_view_url":1,"soilmap_view_url":null,"soiltest_xml_url":0,"soiltest_view_url":0},{"id":555312,"code":"NGIC202202290-0008","latitude":"32.309547222222","longitude":"130.61076666667","source_code":"","project_name":"","survey_name":"\u56fd\u9053219\u53f7\u5916\u707d\u5bb3\u5fa9\u65e7\u6a4b\u6881\u95a2\u4fc2\u5730\u8cea\u8abf\u67fb(\u305d\u306e1)\u696d\u52d9","client_name":"\u56fd\u571f\u4ea4\u901a\u7701\u4e5d\u5dde\u5730\u65b9\u6574\u5099\u5c40\u516b\u4ee3\u5fa9\u8208\u4e8b\u52d9\u6240\u5de5\u52d9\u7b2c\u4e09\u8ab2","boring_xml_url":47,"boring_view_url":1,"soilmap_view_url":null,"soiltest_xml_url":0,"soiltest_view_url":0},{"id":555311,"code":"NGIC202202290-0007","latitude":"32.383191666667","longitude":"130.65473055556","source_code":"","project_name":"","survey_name":"\u56fd\u9053219\u53f7\u5916\u707d\u5bb3\u5fa9\u65e7\u6a4b\u6881\u95a2\u4fc2\u5730\u8cea\u8abf\u67fb(\u305d\u306e1)\u696d\u52d9","client_name":"\u56fd\u571f\u4ea4\u901a\u7701\u4e5d\u5dde\u5730\u65b9\u6574\u5099\u5c40\u516b\u4ee3\u5fa9\u8208\u4e8b\u52d9\u6240\u5de5\u52d9\u7b2c\u4e09\u8ab2","boring_xml_url":47,"boring_view_url":1,"soilmap_view_url":null,"soiltest_xml_url":0,"soiltest_view_url":0},{"id":555310,"code":"NGIC202202290-0006","latitude":"32.3837","longitude":"130.65528888889","source_code":"","project_name":"","survey_name":"\u56fd\u9053219\u53f7\u5916\u707d\u5bb3\u5fa9\u65e7\u6a4b\u6881\u95a2\u4fc2\u5730\u8cea\u8abf\u67fb(\u305d\u306e1)\u696d\u52d9","client_name":"\u56fd\u571f\u4ea4\u901a\u7701\u4e5d\u5dde\u5730\u65b9\u6574\u5099\u5c40\u516b\u4ee3\u5fa9\u8208\u4e8b\u52d9\u6240\u5de5\u52d9\u7b2c\u4e09\u8ab2","boring_xml_url":47,"boring_view_url":1,"soilmap_view_url":null,"soiltest_xml_url":0,"soiltest_view_url":0},{"id":555309,"code":"NGIC202202290-0005","latitude":"32.385147222222","longitude":"130.65635833333","source_code":"","project_name":"","survey_name":"\u56fd\u9053219\u53f7\u5916\u707d\u5bb3\u5fa9\u65e7\u6a4b\u6881\u95a2\u4fc2\u5730\u8cea\u8abf\u67fb(\u305d\u306e1)\u696d\u52d9","client_name":"\u56fd\u571f\u4ea4\u901a\u7701\u4e5d\u5dde\u5730\u65b9\u6574\u5099\u5c40\u516b\u4ee3\u5fa9\u8208\u4e8b\u52d9\u6240\u5de5\u52d9\u7b2c\u4e09\u8ab2","boring_xml_url":47,"boring_view_url":1,"soilmap_view_url":null,"soiltest_xml_url":0,"soiltest_view_url":0},{"id":555308,"code":"NGIC202202290-0004","latitude":"32.436594444444","longitude":"130.65693888889","source_code":"","project_name":"","survey_name":"\u56fd\u9053219\u53f7\u5916\u707d\u5bb3\u5fa9\u65e7\u6a4b\u6881\u95a2\u4fc2\u5730\u8cea\u8abf\u67fb(\u305d\u306e1)\u696d\u52d9","client_name":"\u56fd\u571f\u4ea4\u901a\u7701\u4e5d\u5dde\u5730\u65b9\u6574\u5099\u5c40\u516b\u4ee3\u5fa9\u8208\u4e8b\u52d9\u6240\u5de5\u52d9\u7b2c\u4e09\u8ab2","boring_xml_url":47,"boring_view_url":1,"soilmap_view_url":null,"soiltest_xml_url":0,"soiltest_view_url":0},{"id":555307,"code":"NGIC202202290-0003","latitude":"32.459833333333","longitude":"130.65915833333","source_code":"","project_name":"","survey_name":"\u56fd\u9053219\u53f7\u5916\u707d\u5bb3\u5fa9\u65e7\u6a4b\u6881\u95a2\u4fc2\u5730\u8cea\u8abf\u67fb(\u305d\u306e1)\u696d\u52d9","client_name":"\u56fd\u571f\u4ea4\u901a\u7701\u4e5d\u5dde\u5730\u65b9\u6574\u5099\u5c40\u516b\u4ee3\u5fa9\u8208\u4e8b\u52d9\u6240\u5de5\u52d9\u7b2c\u4e09\u8ab2","boring_xml_url":47,"boring_view_url":1,"soilmap_view_url":null,"soiltest_xml_url":0,"soiltest_view_url":0},{"id":555306,"code":"NGIC202202290-0002","latitude":"32.459877777778","longitude":"130.65901388889","source_code":"","project_name":"","survey_name":"\u56fd\u9053219\u53f7\u5916\u707d\u5bb3\u5fa9\u65e7\u6a4b\u6881\u95a2\u4fc2\u5730\u8cea\u8abf\u67fb(\u305d\u306e1)\u696d\u52d9","client_name":"\u56fd\u571f\u4ea4\u901a\u7701\u4e5d\u5dde\u5730\u65b9\u6574\u5099\u5c40\u516b\u4ee3\u5fa9\u8208\u4e8b\u52d9\u6240\u5de5\u52d9\u7b2c\u4e09\u8ab2","boring_xml_url":47,"boring_view_url":1,"soilmap_view_url":null,"soiltest_xml_url":0,"soiltest_view_url":0},{"id":555305,"code":"NGIC202202290-0001","latitude":"32.459966666667","longitude":"130.65905277778","source_code":"","project_name":"","survey_name":"\u56fd\u9053219\u53f7\u5916\u707d\u5bb3\u5fa9\u65e7\u6a4b\u6881\u95a2\u4fc2\u5730\u8cea\u8abf\u67fb(\u305d\u306e1)\u696d\u52d9","client_name":"\u56fd\u571f\u4ea4\u901a\u7701\u4e5d\u5dde\u5730\u65b9\u6574\u5099\u5c40\u516b\u4ee3\u5fa9\u8208\u4e8b\u52d9\u6240\u5de5\u52d9\u7b2c\u4e09\u8ab2","boring_xml_url":47,"boring_view_url":1,"soilmap_view_url":null,"soiltest_xml_url":0,"soiltest_view_url":0},{"id":555212,"code":"NGIC202202216-0005","latitude":"37.162430444444","longitude":"138.92371902778","source_code":"","project_name":"R4\u9577\u5ca1\u56fd\u9053\u7ba1\u5185\u5730\u8cea\u8abf\u67fb\u696d\u52d9(\u5358\u4fa1\u5951\u7d04)","survey_name":"\u5358)\u56fd\u905317\u53f7\u6d66\u4f50\u30d0\u30a4\u30d1\u30b9\u65b0\u6d66\u4f50\u5927\u6a4b(\u659c\u8def\u90e8)\u5730\u8cea\u8abf\u67fb","client_name":"\u56fd\u571f\u4ea4\u901a\u7701\u5317\u9678\u5730\u65b9\u6574\u5099\u5c40\u9577\u5ca1\u56fd\u9053\u4e8b\u52d9\u6240","boring_xml_url":47,"boring_view_url":1,"soilmap_view_url":null,"soiltest_xml_url":0,"soiltest_view_url":0},{"id":555211,"code":"NGIC202202216-0004","latitude":"37.162446666667","longitude":"138.92342133333","source_code":"","project_name":"R4\u9577\u5ca1\u56fd\u9053\u7ba1\u5185\u5730\u8cea\u8abf\u67fb\u696d\u52d9(\u5358\u4fa1\u5951\u7d04)","survey_name":"\u5358)\u56fd\u905317\u53f7\u6d66\u4f50\u30d0\u30a4\u30d1\u30b9\u65b0\u6d66\u4f50\u5927\u6a4b(\u659c\u8def\u90e8)\u5730\u8cea\u8abf\u67fb","client_name":"\u56fd\u571f\u4ea4\u901a\u7701\u5317\u9678\u5730\u65b9\u6574\u5099\u5c40\u9577\u5ca1\u56fd\u9053\u4e8b\u52d9\u6240","boring_xml_url":47,"boring_view_url":1,"soilmap_view_url":null,"soiltest_xml_url":0,"soiltest_view_url":0},{"id":555210,"code":"NGIC202202216-0003","latitude":"37.16245725","longitude":"138.923227","source_code":"","project_name":"R4\u9577\u5ca1\u56fd\u9053\u7ba1\u5185\u5730\u8cea\u8abf\u67fb\u696d\u52d9(\u5358\u4fa1\u5951\u7d04)","survey_name":"\u5358)\u56fd\u905317\u53f7\u6d66\u4f50\u30d0\u30a4\u30d1\u30b9\u65b0\u6d66\u4f50\u5927\u6a4b(\u659c\u8def\u90e8)\u5730\u8cea\u8abf\u67fb","client_name":"\u56fd\u571f\u4ea4\u901a\u7701\u5317\u9678\u5730\u65b9\u6574\u5099\u5c40\u9577\u5ca1\u56fd\u9053\u4e8b\u52d9\u6240","boring_xml_url":47,"boring_view_url":1,"soilmap_view_url":null,"soiltest_xml_url":0,"soiltest_view_url":0},{"id":555209,"code":"NGIC202202216-0002","latitude":"37.162467527778","longitude":"138.92303827778","source_code":"","project_name":"R4\u9577\u5ca1\u56fd\u9053\u7ba1\u5185\u5730\u8cea\u8abf\u67fb\u696d\u52d9(\u5358\u4fa1\u5951\u7d04)","survey_name":"\u5358)\u56fd\u905317\u53f7\u6d66\u4f50\u30d0\u30a4\u30d1\u30b9\u65b0\u6d66\u4f50\u5927\u6a4b(\u659c\u8def\u90e8)\u5730\u8cea\u8abf\u67fb","client_name":"\u56fd\u571f\u4ea4\u901a\u7701\u5317\u9678\u5730\u65b9\u6574\u5099\u5c40\u9577\u5ca1\u56fd\u9053\u4e8b\u52d9\u6240","boring_xml_url":47,"boring_view_url":1,"soilmap_view_url":null,"soiltest_xml_url":0,"soiltest_view_url":0},{"id":555208,"code":"NGIC202202216-0001","latitude":"37.162477833333","longitude":"138.92284955556","source_code":"","project_name":"R4\u9577\u5ca1\u56fd\u9053\u7ba1\u5185\u5730\u8cea\u8abf\u67fb\u696d\u52d9(\u5358\u4fa1\u5951\u7d04)","survey_name":"\u5358)\u56fd\u905317\u53f7\u6d66\u4f50\u30d0\u30a4\u30d1\u30b9\u65b0\u6d66\u4f50\u5927\u6a4b(\u659c\u8def\u90e8)\u5730\u8cea\u8abf\u67fb","client_name":"\u56fd\u571f\u4ea4\u901a\u7701\u5317\u9678\u5730\u65b9\u6574\u5099\u5c40\u9577\u5ca1\u56fd\u9053\u4e8b\u52d9\u6240","boring_xml_url":47,"boring_view_url":1,"soilmap_view_url":null,"soiltest_xml_url":0,"soiltest_view_url":0},{"id":555174,"code":"NGIC202202276-0003","latitude":"39.037789972222","longitude":"140.71747797222","source_code":"","project_name":"","survey_name":"\u6210\u702c\u30c0\u30e0\u5824\u4f53\u5de6\u5cb8\u90e8\u5730\u8cea\u8abf\u67fb","client_name":"\u56fd\u571f\u4ea4\u901a\u7701\u6771\u5317\u5730\u65b9\u6574\u5099\u5c40\u6210\u702c\u30c0\u30e0\u5de5\u4e8b\u4e8b\u52d9\u6240","boring_xml_url":47,"boring_view_url":1,"soilmap_view_url":null,"soiltest_xml_url":0,"soiltest_view_url":0}]}}