{"header":{"xyz":{"source":[],"mosaic":false},"page":3637,"raw":{"soiltest_result":"0","bbox":"57.598333,109.544722,1.933333,163.806111","page":"3637"},"conditions":{"soiltest_result":0,"north":57.598333,"west":109.544722,"south":1.933333,"east":163.806111},"success":true,"message":""},"data":{"meta":{"total":212844,"page":3637,"pages":7095,"count":30},"values":[{"id":211465,"code":"B4KJ201801009-9714","latitude":"31.3969872","longitude":"130.8307419","source_code":"QS47300676001","project_name":"","survey_name":"\u9e7f\u5c4b\u30d0\u30a4\u30d1\u30b9\u90f7\u4e4b\u539f\u5730\u533a\u5730\u8cea\u8abf\u67fb(\u305d\u306e1)","client_name":"\u56fd\u571f\u4ea4\u901a\u7701 \u4e5d\u5dde\u5730\u65b9\u6574\u5099\u5c40 \u5927\u9685\u6cb3\u5ddd\u56fd\u9053\u4e8b\u52d9\u6240","boring_xml_url":40,"boring_view_url":1,"soilmap_view_url":null,"soiltest_xml_url":0,"soiltest_view_url":0},{"id":211464,"code":"B4KJ201801009-9713","latitude":"31.3936547","longitude":"130.8569064","source_code":"QS47300668049","project_name":"","survey_name":"\u738b\u5b50\u5730\u533a\u5730\u8cea\u8abf\u67fb\u696d\u52d9","client_name":"\u56fd\u571f\u4ea4\u901a\u7701 \u4e5d\u5dde\u5730\u65b9\u6574\u5099\u5c40 \u5927\u9685\u6cb3\u5ddd\u56fd\u9053\u4e8b\u52d9\u6240","boring_xml_url":40,"boring_view_url":1,"soilmap_view_url":null,"soiltest_xml_url":0,"soiltest_view_url":0},{"id":211463,"code":"B4KJ201801009-9712","latitude":"31.3935992","longitude":"130.8572675","source_code":"QS47300668048","project_name":"","survey_name":"\u738b\u5b50\u5730\u533a\u5730\u8cea\u8abf\u67fb\u696d\u52d9","client_name":"\u56fd\u571f\u4ea4\u901a\u7701 \u4e5d\u5dde\u5730\u65b9\u6574\u5099\u5c40 \u5927\u9685\u6cb3\u5ddd\u56fd\u9053\u4e8b\u52d9\u6240","boring_xml_url":40,"boring_view_url":1,"soilmap_view_url":null,"soiltest_xml_url":0,"soiltest_view_url":0},{"id":211462,"code":"B4KJ201801009-9711","latitude":"31.3911272","longitude":"130.8594061","source_code":"QS47300668047","project_name":"","survey_name":"\u9e7f\u5c4b\u5206\u6c34\u8def\u4e0a\u6d41\u958b\u6c34\u8def\u5730\u8cea\u8abf\u67fb\u696d\u52d9","client_name":"\u56fd\u571f\u4ea4\u901a\u7701 \u4e5d\u5dde\u5730\u65b9\u6574\u5099\u5c40 \u5927\u9685\u6cb3\u5ddd\u56fd\u9053\u4e8b\u52d9\u6240","boring_xml_url":40,"boring_view_url":1,"soilmap_view_url":null,"soiltest_xml_url":0,"soiltest_view_url":0},{"id":211461,"code":"B4KJ201801009-9710","latitude":"31.3911272","longitude":"130.8594061","source_code":"QS47300668046","project_name":"","survey_name":"\u9e7f\u5c4b\u5206\u6c34\u8def\u4e0a\u6d41\u958b\u6c34\u8def\u5730\u8cea\u8abf\u67fb\u696d\u52d9","client_name":"\u56fd\u571f\u4ea4\u901a\u7701 \u4e5d\u5dde\u5730\u65b9\u6574\u5099\u5c40 \u5927\u9685\u6cb3\u5ddd\u56fd\u9053\u4e8b\u52d9\u6240","boring_xml_url":40,"boring_view_url":1,"soilmap_view_url":null,"soiltest_xml_url":0,"soiltest_view_url":0},{"id":211460,"code":"B4KJ201801009-9709","latitude":"31.3911272","longitude":"130.8594061","source_code":"QS47300668042","project_name":"","survey_name":"\u9e7f\u5c4b\u5206\u6c34\u8def\u4e0a\u6d41\u958b\u6c34\u8def\u5730\u8cea\u8abf\u67fb\u696d\u52d9","client_name":"\u56fd\u571f\u4ea4\u901a\u7701 \u4e5d\u5dde\u5730\u65b9\u6574\u5099\u5c40 \u5927\u9685\u6cb3\u5ddd\u56fd\u9053\u4e8b\u52d9\u6240","boring_xml_url":40,"boring_view_url":1,"soilmap_view_url":null,"soiltest_xml_url":0,"soiltest_view_url":0},{"id":211459,"code":"B4KJ201801009-9708","latitude":"31.3940711","longitude":"130.8574897","source_code":"QS47300668039","project_name":"","survey_name":"\u9e7f\u5c4b\u5206\u6c34\u8def\u5206\u6d41\u5830\u4ed8\u8fd1\u5730\u8cea\u8abf\u67fb\u696d\u52d9","client_name":"\u56fd\u571f\u4ea4\u901a\u7701 \u4e5d\u5dde\u5730\u65b9\u6574\u5099\u5c40 \u5927\u9685\u6cb3\u5ddd\u56fd\u9053\u4e8b\u52d9\u6240","boring_xml_url":40,"boring_view_url":1,"soilmap_view_url":null,"soiltest_xml_url":0,"soiltest_view_url":0},{"id":211458,"code":"B4KJ201801009-9707","latitude":"31.3937381","longitude":"130.8568231","source_code":"QS47300668038","project_name":"","survey_name":"\u9e7f\u5c4b\u5206\u6c34\u8def\u5206\u6d41\u5830\u4ed8\u8fd1\u5730\u8cea\u8abf\u67fb\u696d\u52d9","client_name":"\u56fd\u571f\u4ea4\u901a\u7701 \u4e5d\u5dde\u5730\u65b9\u6574\u5099\u5c40 \u5927\u9685\u6cb3\u5ddd\u56fd\u9053\u4e8b\u52d9\u6240","boring_xml_url":40,"boring_view_url":1,"soilmap_view_url":null,"soiltest_xml_url":0,"soiltest_view_url":0},{"id":211457,"code":"B4KJ201801009-9706","latitude":"31.3927381","longitude":"130.8579342","source_code":"QS47300668037","project_name":"","survey_name":"\u9e7f\u5c4b\u5206\u6c34\u8def\u5206\u6d41\u5830\u4ed8\u8fd1\u5730\u8cea\u8abf\u67fb\u696d\u52d9","client_name":"\u56fd\u571f\u4ea4\u901a\u7701 \u4e5d\u5dde\u5730\u65b9\u6574\u5099\u5c40 \u5927\u9685\u6cb3\u5ddd\u56fd\u9053\u4e8b\u52d9\u6240","boring_xml_url":40,"boring_view_url":1,"soilmap_view_url":null,"soiltest_xml_url":0,"soiltest_view_url":0},{"id":211456,"code":"B4KJ201801009-9705","latitude":"31.3925992","longitude":"130.8576564","source_code":"QS47300668036","project_name":"","survey_name":"\u9e7f\u5c4b\u5206\u6c34\u8def\u5206\u6d41\u5830\u4ed8\u8fd1\u5730\u8cea\u8abf\u67fb\u696d\u52d9","client_name":"\u56fd\u571f\u4ea4\u901a\u7701 \u4e5d\u5dde\u5730\u65b9\u6574\u5099\u5c40 \u5927\u9685\u6cb3\u5ddd\u56fd\u9053\u4e8b\u52d9\u6240","boring_xml_url":40,"boring_view_url":1,"soilmap_view_url":null,"soiltest_xml_url":0,"soiltest_view_url":0},{"id":211455,"code":"B4KJ201801009-9704","latitude":"31.3949878","longitude":"130.8572953","source_code":"QS47300668033","project_name":"","survey_name":"\u738b\u5b50\u5730\u533a\u5730\u8cea\u8abf\u67fb\u696d\u52d9","client_name":"\u56fd\u571f\u4ea4\u901a\u7701 \u4e5d\u5dde\u5730\u65b9\u6574\u5099\u5c40 \u5927\u9685\u6cb3\u5ddd\u56fd\u9053\u4e8b\u52d9\u6240","boring_xml_url":40,"boring_view_url":1,"soilmap_view_url":null,"soiltest_xml_url":0,"soiltest_view_url":0},{"id":211454,"code":"B4KJ201801009-9703","latitude":"31.39496","longitude":"130.8577117","source_code":"QS47300668032","project_name":"","survey_name":"\u738b\u5b50\u5730\u533a\u5730\u8cea\u8abf\u67fb\u696d\u52d9","client_name":"\u56fd\u571f\u4ea4\u901a\u7701 \u4e5d\u5dde\u5730\u65b9\u6574\u5099\u5c40 \u5927\u9685\u6cb3\u5ddd\u56fd\u9053\u4e8b\u52d9\u6240","boring_xml_url":40,"boring_view_url":1,"soilmap_view_url":null,"soiltest_xml_url":0,"soiltest_view_url":0},{"id":211453,"code":"B4KJ201801009-9702","latitude":"31.3949322","longitude":"130.8583783","source_code":"QS47300668031","project_name":"","survey_name":"\u738b\u5b50\u5730\u533a\u5730\u8cea\u8abf\u67fb\u696d\u52d9","client_name":"\u56fd\u571f\u4ea4\u901a\u7701 \u4e5d\u5dde\u5730\u65b9\u6574\u5099\u5c40 \u5927\u9685\u6cb3\u5ddd\u56fd\u9053\u4e8b\u52d9\u6240","boring_xml_url":40,"boring_view_url":1,"soilmap_view_url":null,"soiltest_xml_url":0,"soiltest_view_url":0},{"id":211452,"code":"B4KJ201801009-9701","latitude":"31.3949044","longitude":"130.858545","source_code":"QS47300668030","project_name":"","survey_name":"\u738b\u5b50\u5730\u533a\u5730\u8cea\u8abf\u67fb\u696d\u52d9","client_name":"\u56fd\u571f\u4ea4\u901a\u7701 \u4e5d\u5dde\u5730\u65b9\u6574\u5099\u5c40 \u5927\u9685\u6cb3\u5ddd\u56fd\u9053\u4e8b\u52d9\u6240","boring_xml_url":40,"boring_view_url":1,"soilmap_view_url":null,"soiltest_xml_url":0,"soiltest_view_url":0},{"id":211451,"code":"B4KJ201801009-9700","latitude":"31.3947378","longitude":"130.8590728","source_code":"QS47300668029","project_name":"","survey_name":"\u738b\u5b50\u5730\u533a\u5730\u8cea\u8abf\u67fb\u696d\u52d9","client_name":"\u56fd\u571f\u4ea4\u901a\u7701 \u4e5d\u5dde\u5730\u65b9\u6574\u5099\u5c40 \u5927\u9685\u6cb3\u5ddd\u56fd\u9053\u4e8b\u52d9\u6240","boring_xml_url":40,"boring_view_url":1,"soilmap_view_url":null,"soiltest_xml_url":0,"soiltest_view_url":0},{"id":211450,"code":"B4KJ201801009-9699","latitude":"31.3947378","longitude":"130.8590728","source_code":"QS47300668028","project_name":"","survey_name":"\u738b\u5b50\u5730\u533a\u5730\u8cea\u8abf\u67fb\u696d\u52d9","client_name":"\u56fd\u571f\u4ea4\u901a\u7701 \u4e5d\u5dde\u5730\u65b9\u6574\u5099\u5c40 \u5927\u9685\u6cb3\u5ddd\u56fd\u9053\u4e8b\u52d9\u6240","boring_xml_url":40,"boring_view_url":1,"soilmap_view_url":null,"soiltest_xml_url":0,"soiltest_view_url":0},{"id":211449,"code":"B4KJ201801009-9698","latitude":"31.3876275","longitude":"130.8503236","source_code":"QS47300668027","project_name":"","survey_name":"\u9e7f\u5150\u5cf6220\u53f7\u9e7f\u5c4b\u6a4b\u5730\u8cea\u8abf\u67fb\u696d\u52d9\u59d4\u8a17","client_name":"\u56fd\u571f\u4ea4\u901a\u7701 \u4e5d\u5dde\u5730\u65b9\u6574\u5099\u5c40 \u5927\u9685\u6cb3\u5ddd\u56fd\u9053\u4e8b\u52d9\u6240","boring_xml_url":40,"boring_view_url":1,"soilmap_view_url":null,"soiltest_xml_url":0,"soiltest_view_url":0},{"id":211448,"code":"B4KJ201801009-9697","latitude":"31.3877664","longitude":"130.8507958","source_code":"QS47300668026","project_name":"","survey_name":"\u9e7f\u5150\u5cf6220\u53f7\u9e7f\u5c4b\u6a4b\u5730\u8cea\u8abf\u67fb\u696d\u52d9\u59d4\u8a17","client_name":"\u56fd\u571f\u4ea4\u901a\u7701 \u4e5d\u5dde\u5730\u65b9\u6574\u5099\u5c40 \u5927\u9685\u6cb3\u5ddd\u56fd\u9053\u4e8b\u52d9\u6240","boring_xml_url":40,"boring_view_url":1,"soilmap_view_url":null,"soiltest_xml_url":0,"soiltest_view_url":0},{"id":211447,"code":"B4KJ201801009-9696","latitude":"31.3923769","longitude":"130.8583783","source_code":"QS47300668022","project_name":"","survey_name":"\u9e7f\u5c4b\u5206\u6c34\u8def\u5730\u8cea\u8abf\u67fb(\u305d\u306e2)\u696d\u52d9","client_name":"\u56fd\u571f\u4ea4\u901a\u7701 \u4e5d\u5dde\u5730\u65b9\u6574\u5099\u5c40 \u5927\u9685\u6cb3\u5ddd\u56fd\u9053\u4e8b\u52d9\u6240","boring_xml_url":40,"boring_view_url":1,"soilmap_view_url":null,"soiltest_xml_url":0,"soiltest_view_url":0},{"id":211446,"code":"B4KJ201801009-9695","latitude":"31.3920436","longitude":"130.858795","source_code":"QS47300668021","project_name":"","survey_name":"\u9e7f\u5c4b\u5206\u6c34\u8def\u5730\u8cea\u8abf\u67fb(\u305d\u306e2)\u696d\u52d9","client_name":"\u56fd\u571f\u4ea4\u901a\u7701 \u4e5d\u5dde\u5730\u65b9\u6574\u5099\u5c40 \u5927\u9685\u6cb3\u5ddd\u56fd\u9053\u4e8b\u52d9\u6240","boring_xml_url":40,"boring_view_url":1,"soilmap_view_url":null,"soiltest_xml_url":0,"soiltest_view_url":0},{"id":211445,"code":"B4KJ201801009-9694","latitude":"31.3950989","longitude":"130.8571842","source_code":"QS47300668015","project_name":"","survey_name":"\u59f6\u826f\u6a4b\u59161\u4ef6\u57fa\u790e\u8a66\u9310\u696d\u52d9","client_name":"\u56fd\u571f\u4ea4\u901a\u7701 \u4e5d\u5dde\u5730\u65b9\u6574\u5099\u5c40 \u5927\u9685\u6cb3\u5ddd\u56fd\u9053\u4e8b\u52d9\u6240","boring_xml_url":40,"boring_view_url":1,"soilmap_view_url":null,"soiltest_xml_url":0,"soiltest_view_url":0},{"id":211444,"code":"B4KJ201801009-9693","latitude":"31.3948489","longitude":"130.8571842","source_code":"QS47300668014","project_name":"","survey_name":"\u59f6\u826f\u6a4b\u59161\u4ef6\u57fa\u790e\u8a66\u9310\u696d\u52d9","client_name":"\u56fd\u571f\u4ea4\u901a\u7701 \u4e5d\u5dde\u5730\u65b9\u6574\u5099\u5c40 \u5927\u9685\u6cb3\u5ddd\u56fd\u9053\u4e8b\u52d9\u6240","boring_xml_url":40,"boring_view_url":1,"soilmap_view_url":null,"soiltest_xml_url":0,"soiltest_view_url":0},{"id":211443,"code":"B4KJ201801009-9692","latitude":"31.3931825","longitude":"130.8569897","source_code":"QS47300668013","project_name":"","survey_name":"\u59f6\u826f\u6a4b\u59161\u4ef6\u57fa\u790e\u8a66\u9310\u696d\u52d9","client_name":"\u56fd\u571f\u4ea4\u901a\u7701 \u4e5d\u5dde\u5730\u65b9\u6574\u5099\u5c40 \u5927\u9685\u6cb3\u5ddd\u56fd\u9053\u4e8b\u52d9\u6240","boring_xml_url":40,"boring_view_url":1,"soilmap_view_url":null,"soiltest_xml_url":0,"soiltest_view_url":0},{"id":211442,"code":"B4KJ201801009-9691","latitude":"31.3935158","longitude":"130.8568786","source_code":"QS47300668012","project_name":"","survey_name":"\u9e7f\u5c4b\u5206\u6c34\u8def\u5730\u8cea\u8abf\u67fb(\u305d\u306e1)\u696d\u52d9","client_name":"\u56fd\u571f\u4ea4\u901a\u7701 \u4e5d\u5dde\u5730\u65b9\u6574\u5099\u5c40 \u5927\u9685\u6cb3\u5ddd\u56fd\u9053\u4e8b\u52d9\u6240","boring_xml_url":40,"boring_view_url":1,"soilmap_view_url":null,"soiltest_xml_url":0,"soiltest_view_url":0},{"id":211441,"code":"B4KJ201801009-9690","latitude":"31.3934325","longitude":"130.8572953","source_code":"QS47300668009","project_name":"","survey_name":"\u9e7f\u5c4b\u5206\u6c34\u8def\u5730\u8cea\u8abf\u67fb(\u305d\u306e4)\u696d\u52d9","client_name":"\u56fd\u571f\u4ea4\u901a\u7701 \u4e5d\u5dde\u5730\u65b9\u6574\u5099\u5c40 \u5927\u9685\u6cb3\u5ddd\u56fd\u9053\u4e8b\u52d9\u6240","boring_xml_url":40,"boring_view_url":1,"soilmap_view_url":null,"soiltest_xml_url":0,"soiltest_view_url":0},{"id":211440,"code":"B4KJ201801009-9689","latitude":"31.3905439","longitude":"130.8521292","source_code":"QS47300668005","project_name":"","survey_name":"\u9e7f\u5c4b\u5206\u6c34\u8def\u5730\u8cea\u8abf\u67fb(\u305d\u306e2)\u696d\u52d9","client_name":"\u56fd\u571f\u4ea4\u901a\u7701 \u4e5d\u5dde\u5730\u65b9\u6574\u5099\u5c40 \u5927\u9685\u6cb3\u5ddd\u56fd\u9053\u4e8b\u52d9\u6240","boring_xml_url":40,"boring_view_url":1,"soilmap_view_url":null,"soiltest_xml_url":0,"soiltest_view_url":0},{"id":211439,"code":"B4KJ201801009-9688","latitude":"31.3917936","longitude":"130.8586561","source_code":"QS47300668004","project_name":"","survey_name":"\u9e7f\u5c4b\u5206\u6c34\u8def\u4e0a\u6d41\u958b\u6c34\u8def\u8a66\u9310(\u305d\u306e2)\u696d\u52d9","client_name":"\u56fd\u571f\u4ea4\u901a\u7701 \u4e5d\u5dde\u5730\u65b9\u6574\u5099\u5c40 \u5927\u9685\u6cb3\u5ddd\u56fd\u9053\u4e8b\u52d9\u6240","boring_xml_url":40,"boring_view_url":1,"soilmap_view_url":null,"soiltest_xml_url":0,"soiltest_view_url":0},{"id":211438,"code":"B4KJ201801009-9687","latitude":"31.3915439","longitude":"130.8592117","source_code":"QS47300668003","project_name":"","survey_name":"\u9e7f\u5c4b\u5206\u6c34\u8def\u4e0a\u6d41\u958b\u6c34\u8def\u8a66\u9310(\u305d\u306e2)\u696d\u52d9","client_name":"\u56fd\u571f\u4ea4\u901a\u7701 \u4e5d\u5dde\u5730\u65b9\u6574\u5099\u5c40 \u5927\u9685\u6cb3\u5ddd\u56fd\u9053\u4e8b\u52d9\u6240","boring_xml_url":40,"boring_view_url":1,"soilmap_view_url":null,"soiltest_xml_url":0,"soiltest_view_url":0},{"id":211437,"code":"B4KJ201801009-9686","latitude":"31.3913217","longitude":"130.8589617","source_code":"QS47300668002","project_name":"","survey_name":"\u9e7f\u5c4b\u5206\u6c34\u8def\u4e0a\u6d41\u958b\u6c34\u8def\u8a66\u9310(\u305d\u306e2)\u696d\u52d9","client_name":"\u56fd\u571f\u4ea4\u901a\u7701 \u4e5d\u5dde\u5730\u65b9\u6574\u5099\u5c40 \u5927\u9685\u6cb3\u5ddd\u56fd\u9053\u4e8b\u52d9\u6240","boring_xml_url":40,"boring_view_url":1,"soilmap_view_url":null,"soiltest_xml_url":0,"soiltest_view_url":0},{"id":211436,"code":"B4KJ201801009-9685","latitude":"31.3948761","longitude":"130.8272422","source_code":"QS47300666004","project_name":"","survey_name":"\u90f7\u4e4b\u539f\u5730\u533a\u5730\u8cea\u8abf\u67fb(\u4e8c)","client_name":"\u56fd\u571f\u4ea4\u901a\u7701 \u4e5d\u5dde\u5730\u65b9\u6574\u5099\u5c40 \u5927\u9685\u6cb3\u5ddd\u56fd\u9053\u4e8b\u52d9\u6240","boring_xml_url":40,"boring_view_url":1,"soilmap_view_url":null,"soiltest_xml_url":0,"soiltest_view_url":0}]}}