{"header":{"xyz":{"source":[],"mosaic":false},"page":3643,"raw":{"soiltest_result":"0","bbox":"57.598333,109.544722,1.933333,163.806111","page":"3643"},"conditions":{"soiltest_result":0,"north":57.598333,"west":109.544722,"south":1.933333,"east":163.806111},"success":true,"message":""},"data":{"meta":{"total":212844,"page":3643,"pages":7095,"count":30},"values":[{"id":211285,"code":"B4KJ201801009-9534","latitude":"32.87367","longitude":"130.97711","source_code":"QS20098985790200191089","project_name":"\u7acb\u91ce\u30c0\u30e0\u30b5\u30a4\u30c8\u5730\u8cea\u8abf\u67fb\u696d\u52d9","survey_name":"\u7acb\u91ce\u30c0\u30e0\u30b5\u30a4\u30c8\u5730\u8cea\u8abf\u67fb\u696d\u52d9","client_name":"\u56fd\u571f\u4ea4\u901a\u7701\u4e5d\u5dde\u5730\u65b9\u6574\u5099\u5c40\u7acb\u91ce\u30c0\u30e0\u5de5\u4e8b\u4e8b\u52d9\u6240","boring_xml_url":49,"boring_view_url":1,"soilmap_view_url":null,"soiltest_xml_url":0,"soiltest_view_url":0},{"id":211284,"code":"B4KJ201801009-9533","latitude":"32.88078","longitude":"130.96556","source_code":"QS20098985790200191088","project_name":"\u5e73\u621016\u5e74\u5ea6 \u7acb\u91ce\u30c0\u30e0\u53f3\u5cb8\u53f0\u5730\u5730\u8cea\u8abf\u67fb(\u305d\u306e2)\u696d\u52d9","survey_name":"\u5e73\u621016\u5e74\u5ea6 \u7acb\u91ce\u30c0\u30e0\u53f3\u5cb8\u53f0\u5730\u5730\u8cea\u8abf\u67fb(\u305d\u306e2)\u696d\u52d9","client_name":"\u5efa\u8a2d\u7701\u4e5d\u5dde\u5730\u65b9\u5efa\u8a2d\u5c40\u7acb\u91ce\u30c0\u30e0\u5de5\u4e8b\u4e8b\u52d9\u6240","boring_xml_url":49,"boring_view_url":1,"soilmap_view_url":null,"soiltest_xml_url":0,"soiltest_view_url":0},{"id":211283,"code":"B4KJ201801009-9532","latitude":"32.87572","longitude":"130.97342","source_code":"QS20098985790200191087","project_name":"\u7acb\u91ce\u30c0\u30e0\u53f3\u5cb8\u53f0\u5730\u5730\u8cea\u8abf\u67fb\u696d\u52d9","survey_name":"\u7acb\u91ce\u30c0\u30e0\u53f3\u5cb8\u53f0\u5730\u5730\u8cea\u8abf\u67fb\u696d\u52d9","client_name":"\u56fd\u571f\u4ea4\u901a\u7701\u4e5d\u5dde\u5730\u65b9\u6574\u5099\u5c40\u7acb\u91ce\u30c0\u30e0\u5de5\u4e8b\u4e8b\u52d9\u6240","boring_xml_url":49,"boring_view_url":1,"soilmap_view_url":null,"soiltest_xml_url":0,"soiltest_view_url":0},{"id":211282,"code":"B4KJ201801009-9531","latitude":"32.87589","longitude":"130.97353","source_code":"QS20098985790200191086","project_name":"\u7acb\u91ce\u30c0\u30e0\u53f3\u5cb8\u53f0\u5730\u5730\u8cea\u8abf\u67fb\u696d\u52d9","survey_name":"\u7acb\u91ce\u30c0\u30e0\u53f3\u5cb8\u53f0\u5730\u5730\u8cea\u8abf\u67fb\u696d\u52d9","client_name":"\u56fd\u571f\u4ea4\u901a\u7701\u4e5d\u5dde\u5730\u65b9\u6574\u5099\u5c40\u7acb\u91ce\u30c0\u30e0\u5de5\u4e8b\u4e8b\u52d9\u6240","boring_xml_url":49,"boring_view_url":1,"soilmap_view_url":null,"soiltest_xml_url":0,"soiltest_view_url":0},{"id":211281,"code":"B4KJ201801009-9530","latitude":"32.87689","longitude":"130.97467","source_code":"QS20098985790200191085","project_name":"\u7acb\u91ce\u30c0\u30e0\u53f3\u5cb8\u6a2a\u5751\u5185\u5730\u8cea\u8abf\u67fb\u696d\u52d9","survey_name":"\u7acb\u91ce\u30c0\u30e0\u53f3\u5cb8\u6a2a\u5751\u5185\u5730\u8cea\u8abf\u67fb\u696d\u52d9","client_name":"\u56fd\u571f\u4ea4\u901a\u7701\u4e5d\u5dde\u5730\u65b9\u6574\u5099\u5c40\u7acb\u91ce\u30c0\u30e0\u5de5\u4e8b\u4e8b\u52d9\u6240","boring_xml_url":49,"boring_view_url":1,"soilmap_view_url":null,"soiltest_xml_url":0,"soiltest_view_url":0},{"id":211280,"code":"B4KJ201801009-9529","latitude":"32.87236","longitude":"130.93639","source_code":"QS20098985790200191084","project_name":"JR\u6a4b\u59161\u4ef6\u5730\u8cea\u8abf\u67fb\u696d\u52d9","survey_name":"JR\u6a4b\u59161\u4ef6\u5730\u8cea\u8abf\u67fb\u696d\u52d9","client_name":"\u56fd\u571f\u4ea4\u901a\u7701\u4e5d\u5dde\u5730\u65b9\u6574\u5099\u5c40\u7acb\u91ce\u30c0\u30e0\u5de5\u4e8b\u4e8b\u52d9\u6240","boring_xml_url":49,"boring_view_url":1,"soilmap_view_url":null,"soiltest_xml_url":0,"soiltest_view_url":0},{"id":211279,"code":"B4KJ201801009-9528","latitude":"32.8725","longitude":"130.93628","source_code":"QS20098985790200191083","project_name":"JR\u6a4b\u59161\u4ef6\u5730\u8cea\u8abf\u67fb\u696d\u52d9","survey_name":"JR\u6a4b\u59161\u4ef6\u5730\u8cea\u8abf\u67fb\u696d\u52d9","client_name":"\u56fd\u571f\u4ea4\u901a\u7701\u4e5d\u5dde\u5730\u65b9\u6574\u5099\u5c40\u7acb\u91ce\u30c0\u30e0\u5de5\u4e8b\u4e8b\u52d9\u6240","boring_xml_url":49,"boring_view_url":1,"soilmap_view_url":null,"soiltest_xml_url":0,"soiltest_view_url":0},{"id":211278,"code":"B4KJ201801009-9527","latitude":"32.87417","longitude":"130.92708","source_code":"QS20098985790200191082","project_name":"JR\u6a4b\u59161\u4ef6\u5730\u8cea\u8abf\u67fb\u696d\u52d9","survey_name":"JR\u6a4b\u59161\u4ef6\u5730\u8cea\u8abf\u67fb\u696d\u52d9","client_name":"\u56fd\u571f\u4ea4\u901a\u7701\u4e5d\u5dde\u5730\u65b9\u6574\u5099\u5c40\u7acb\u91ce\u30c0\u30e0\u5de5\u4e8b\u4e8b\u52d9\u6240","boring_xml_url":49,"boring_view_url":1,"soilmap_view_url":null,"soiltest_xml_url":0,"soiltest_view_url":0},{"id":211277,"code":"B4KJ201801009-9526","latitude":"32.87444","longitude":"130.92728","source_code":"QS20098985790200191081","project_name":"JR\u6a4b\u59161\u4ef6\u5730\u8cea\u8abf\u67fb\u696d\u52d9","survey_name":"JR\u6a4b\u59161\u4ef6\u5730\u8cea\u8abf\u67fb\u696d\u52d9","client_name":"\u56fd\u571f\u4ea4\u901a\u7701\u4e5d\u5dde\u5730\u65b9\u6574\u5099\u5c40\u7acb\u91ce\u30c0\u30e0\u5de5\u4e8b\u4e8b\u52d9\u6240","boring_xml_url":49,"boring_view_url":1,"soilmap_view_url":null,"soiltest_xml_url":0,"soiltest_view_url":0},{"id":211276,"code":"B4KJ201801009-9525","latitude":"32.8815","longitude":"131.00931","source_code":"QS20098985790200191080","project_name":"\u6ca2\u6d25\u91ce\u5730\u533a\u5730\u8cea\u8abf\u67fb\u696d\u52d9","survey_name":"\u6ca2\u6d25\u91ce\u5730\u533a\u5730\u8cea\u8abf\u67fb\u696d\u52d9","client_name":"\u56fd\u571f\u4ea4\u901a\u7701\u4e5d\u5dde\u5730\u65b9\u6574\u5099\u5c40\u7acb\u91ce\u30c0\u30e0\u5de5\u4e8b\u4e8b\u52d9\u6240","boring_xml_url":49,"boring_view_url":1,"soilmap_view_url":null,"soiltest_xml_url":0,"soiltest_view_url":0},{"id":211275,"code":"B4KJ201801009-9524","latitude":"32.88133","longitude":"131.00886","source_code":"QS20098985790200191079","project_name":"\u6ca2\u6d25\u91ce\u5730\u533a\u5730\u8cea\u8abf\u67fb\u696d\u52d9","survey_name":"\u6ca2\u6d25\u91ce\u5730\u533a\u5730\u8cea\u8abf\u67fb\u696d\u52d9","client_name":"\u56fd\u571f\u4ea4\u901a\u7701\u4e5d\u5dde\u5730\u65b9\u6574\u5099\u5c40\u7acb\u91ce\u30c0\u30e0\u5de5\u4e8b\u4e8b\u52d9\u6240","boring_xml_url":49,"boring_view_url":1,"soilmap_view_url":null,"soiltest_xml_url":0,"soiltest_view_url":0},{"id":211274,"code":"B4KJ201801009-9523","latitude":"32.88161","longitude":"131.00925","source_code":"QS20098985790200191078","project_name":"\u6ca2\u6d25\u91ce\u5730\u533a\u5730\u8cea\u8abf\u67fb\u696d\u52d9","survey_name":"\u6ca2\u6d25\u91ce\u5730\u533a\u5730\u8cea\u8abf\u67fb\u696d\u52d9","client_name":"\u56fd\u571f\u4ea4\u901a\u7701\u4e5d\u5dde\u5730\u65b9\u6574\u5099\u5c40\u7acb\u91ce\u30c0\u30e0\u5de5\u4e8b\u4e8b\u52d9\u6240","boring_xml_url":49,"boring_view_url":1,"soilmap_view_url":null,"soiltest_xml_url":0,"soiltest_view_url":0},{"id":211273,"code":"B4KJ201801009-9522","latitude":"32.88136","longitude":"131.00906","source_code":"QS20098985790200191077","project_name":"\u6ca2\u6d25\u91ce\u5730\u533a\u5730\u8cea\u8abf\u67fb\u696d\u52d9","survey_name":"\u6ca2\u6d25\u91ce\u5730\u533a\u5730\u8cea\u8abf\u67fb\u696d\u52d9","client_name":"\u56fd\u571f\u4ea4\u901a\u7701\u4e5d\u5dde\u5730\u65b9\u6574\u5099\u5c40\u7acb\u91ce\u30c0\u30e0\u5de5\u4e8b\u4e8b\u52d9\u6240","boring_xml_url":49,"boring_view_url":1,"soilmap_view_url":null,"soiltest_xml_url":52,"soiltest_view_url":52},{"id":211272,"code":"B4KJ201801009-9521","latitude":"32.88153","longitude":"131.00894","source_code":"QS20098985790200191076","project_name":"\u6ca2\u6d25\u91ce\u5730\u533a\u5730\u8cea\u8abf\u67fb\u696d\u52d9","survey_name":"\u6ca2\u6d25\u91ce\u5730\u533a\u5730\u8cea\u8abf\u67fb\u696d\u52d9","client_name":"\u56fd\u571f\u4ea4\u901a\u7701\u4e5d\u5dde\u5730\u65b9\u6574\u5099\u5c40\u7acb\u91ce\u30c0\u30e0\u5de5\u4e8b\u4e8b\u52d9\u6240","boring_xml_url":49,"boring_view_url":1,"soilmap_view_url":null,"soiltest_xml_url":52,"soiltest_view_url":52},{"id":211271,"code":"B4KJ201801009-9520","latitude":"32.87456","longitude":"130.93569","source_code":"QS20098985790200191075","project_name":"\u7acb\u91ce\u30c0\u30e0\u539f\u77f3\u5c71\u5730\u8cea\u8abf\u67fb(\u305d\u306e1)\u696d\u52d9","survey_name":"\u7acb\u91ce\u30c0\u30e0\u539f\u77f3\u5c71\u5730\u8cea\u8abf\u67fb(\u305d\u306e1)\u696d\u52d9","client_name":"\u5efa\u8a2d\u7701\u4e5d\u5dde\u5730\u65b9\u5efa\u8a2d\u5c40\u7acb\u91ce\u30c0\u30e0\u5de5\u4e8b\u4e8b\u52d9\u6240","boring_xml_url":49,"boring_view_url":1,"soilmap_view_url":null,"soiltest_xml_url":52,"soiltest_view_url":52},{"id":211270,"code":"B4KJ201801009-9519","latitude":"32.87514","longitude":"130.93569","source_code":"QS20098985790200191074","project_name":"\u7acb\u91ce\u30c0\u30e0\u539f\u77f3\u5c71\u5730\u8cea\u8abf\u67fb(\u305d\u306e1)\u696d\u52d9","survey_name":"\u7acb\u91ce\u30c0\u30e0\u539f\u77f3\u5c71\u5730\u8cea\u8abf\u67fb(\u305d\u306e1)\u696d\u52d9","client_name":"\u5efa\u8a2d\u7701\u4e5d\u5dde\u5730\u65b9\u5efa\u8a2d\u5c40\u7acb\u91ce\u30c0\u30e0\u5de5\u4e8b\u4e8b\u52d9\u6240","boring_xml_url":49,"boring_view_url":1,"soilmap_view_url":null,"soiltest_xml_url":52,"soiltest_view_url":52},{"id":211269,"code":"B4KJ201801009-9518","latitude":"32.875","longitude":"130.93672","source_code":"QS20098985790200191073","project_name":"\u7acb\u91ce\u30c0\u30e0\u539f\u77f3\u5c71\u5730\u8cea\u8abf\u67fb(\u305d\u306e1)\u696d\u52d9","survey_name":"\u7acb\u91ce\u30c0\u30e0\u539f\u77f3\u5c71\u5730\u8cea\u8abf\u67fb(\u305d\u306e1)\u696d\u52d9","client_name":"\u5efa\u8a2d\u7701\u4e5d\u5dde\u5730\u65b9\u5efa\u8a2d\u5c40\u7acb\u91ce\u30c0\u30e0\u5de5\u4e8b\u4e8b\u52d9\u6240","boring_xml_url":49,"boring_view_url":1,"soilmap_view_url":null,"soiltest_xml_url":52,"soiltest_view_url":52},{"id":211268,"code":"B4KJ201801009-9517","latitude":"32.87575","longitude":"130.93689","source_code":"QS20098985790200191072","project_name":"\u7acb\u91ce\u30c0\u30e0\u539f\u77f3\u5c71\u5730\u8cea\u8abf\u67fb(\u305d\u306e1)\u696d\u52d9","survey_name":"\u7acb\u91ce\u30c0\u30e0\u539f\u77f3\u5c71\u5730\u8cea\u8abf\u67fb(\u305d\u306e1)\u696d\u52d9","client_name":"\u5efa\u8a2d\u7701\u4e5d\u5dde\u5730\u65b9\u5efa\u8a2d\u5c40\u7acb\u91ce\u30c0\u30e0\u5de5\u4e8b\u4e8b\u52d9\u6240","boring_xml_url":49,"boring_view_url":1,"soilmap_view_url":null,"soiltest_xml_url":52,"soiltest_view_url":52},{"id":211267,"code":"B4KJ201801009-9516","latitude":"32.87511","longitude":"130.939","source_code":"QS20098985790200191071","project_name":"\u7acb\u91ce\u30c0\u30e0\u539f\u77f3\u5c71\u5730\u8cea\u8abf\u67fb(\u305d\u306e1)\u696d\u52d9","survey_name":"\u7acb\u91ce\u30c0\u30e0\u539f\u77f3\u5c71\u5730\u8cea\u8abf\u67fb(\u305d\u306e1)\u696d\u52d9","client_name":"\u5efa\u8a2d\u7701\u4e5d\u5dde\u5730\u65b9\u5efa\u8a2d\u5c40\u7acb\u91ce\u30c0\u30e0\u5de5\u4e8b\u4e8b\u52d9\u6240","boring_xml_url":49,"boring_view_url":1,"soilmap_view_url":null,"soiltest_xml_url":52,"soiltest_view_url":52},{"id":211266,"code":"B4KJ201801009-9515","latitude":"32.87581","longitude":"130.93889","source_code":"QS20098985790200191070","project_name":"\u7acb\u91ce\u30c0\u30e0\u539f\u77f3\u5c71\u5730\u8cea\u8abf\u67fb(\u305d\u306e1)\u696d\u52d9","survey_name":"\u7acb\u91ce\u30c0\u30e0\u539f\u77f3\u5c71\u5730\u8cea\u8abf\u67fb(\u305d\u306e1)\u696d\u52d9","client_name":"\u5efa\u8a2d\u7701\u4e5d\u5dde\u5730\u65b9\u5efa\u8a2d\u5c40\u7acb\u91ce\u30c0\u30e0\u5de5\u4e8b\u4e8b\u52d9\u6240","boring_xml_url":49,"boring_view_url":1,"soilmap_view_url":null,"soiltest_xml_url":0,"soiltest_view_url":0},{"id":211265,"code":"B4KJ201801009-9514","latitude":"32.87472","longitude":"130.97603","source_code":"QS20098985790200191069","project_name":"\u7acb\u91ce\u30c0\u30e0\u30b5\u30a4\u30c8\u5de6\u5cb8\u90e8\u5730\u8cea\u8abf\u67fb(\u305d\u306e1)\u696d\u52d9","survey_name":"\u7acb\u91ce\u30c0\u30e0\u30b5\u30a4\u30c8\u5de6\u5cb8\u90e8\u5730\u8cea\u8abf\u67fb(\u305d\u306e1)\u696d\u52d9","client_name":"\u5efa\u8a2d\u7701\u4e5d\u5dde\u5730\u65b9\u5efa\u8a2d\u5c40\u7acb\u91ce\u30c0\u30e0\u5de5\u4e8b\u4e8b\u52d9\u6240","boring_xml_url":49,"boring_view_url":1,"soilmap_view_url":null,"soiltest_xml_url":0,"soiltest_view_url":0},{"id":211264,"code":"B4KJ201801009-9513","latitude":"32.87486","longitude":"130.97614","source_code":"QS20098985790200191068","project_name":"\u7acb\u91ce\u30c0\u30e0\u30b5\u30a4\u30c8\u5de6\u5cb8\u90e8\u5730\u8cea\u8abf\u67fb(\u305d\u306e1)\u696d\u52d9","survey_name":"\u7acb\u91ce\u30c0\u30e0\u30b5\u30a4\u30c8\u5de6\u5cb8\u90e8\u5730\u8cea\u8abf\u67fb(\u305d\u306e1)\u696d\u52d9","client_name":"\u5efa\u8a2d\u7701\u4e5d\u5dde\u5730\u65b9\u5efa\u8a2d\u5c40\u7acb\u91ce\u30c0\u30e0\u5de5\u4e8b\u4e8b\u52d9\u6240","boring_xml_url":49,"boring_view_url":1,"soilmap_view_url":null,"soiltest_xml_url":0,"soiltest_view_url":0},{"id":211263,"code":"B4KJ201801009-9512","latitude":"32.87625","longitude":"130.97558","source_code":"QS20098985790200191067","project_name":"\u7acb\u91ce\u30c0\u30e0\u30b5\u30a4\u30c8\u5de6\u5cb8\u90e8\u5730\u8cea\u8abf\u67fb(\u305d\u306e1)\u696d\u52d9","survey_name":"\u7acb\u91ce\u30c0\u30e0\u30b5\u30a4\u30c8\u5de6\u5cb8\u90e8\u5730\u8cea\u8abf\u67fb(\u305d\u306e1)\u696d\u52d9","client_name":"\u5efa\u8a2d\u7701\u4e5d\u5dde\u5730\u65b9\u5efa\u8a2d\u5c40\u7acb\u91ce\u30c0\u30e0\u5de5\u4e8b\u4e8b\u52d9\u6240","boring_xml_url":49,"boring_view_url":1,"soilmap_view_url":null,"soiltest_xml_url":0,"soiltest_view_url":0},{"id":211262,"code":"B4KJ201801009-9511","latitude":"32.87675","longitude":"130.97497","source_code":"QS20098985790200191066","project_name":"\u7acb\u91ce\u30c0\u30e0\u30b5\u30a4\u30c8\u5de6\u5cb8\u90e8\u5730\u8cea\u8abf\u67fb(\u305d\u306e1)\u696d\u52d9","survey_name":"\u7acb\u91ce\u30c0\u30e0\u30b5\u30a4\u30c8\u5de6\u5cb8\u90e8\u5730\u8cea\u8abf\u67fb(\u305d\u306e1)\u696d\u52d9","client_name":"\u5efa\u8a2d\u7701\u4e5d\u5dde\u5730\u65b9\u5efa\u8a2d\u5c40\u7acb\u91ce\u30c0\u30e0\u5de5\u4e8b\u4e8b\u52d9\u6240","boring_xml_url":49,"boring_view_url":1,"soilmap_view_url":null,"soiltest_xml_url":0,"soiltest_view_url":0},{"id":211261,"code":"B4KJ201801009-9510","latitude":"32.87717","longitude":"130.97419","source_code":"QS20098985790200191065","project_name":"\u7acb\u91ce\u30c0\u30e0\u30b5\u30a4\u30c8\u5de6\u5cb8\u90e8\u5730\u8cea\u8abf\u67fb(\u305d\u306e1)\u696d\u52d9","survey_name":"\u7acb\u91ce\u30c0\u30e0\u30b5\u30a4\u30c8\u5de6\u5cb8\u90e8\u5730\u8cea\u8abf\u67fb(\u305d\u306e1)\u696d\u52d9","client_name":"\u5efa\u8a2d\u7701\u4e5d\u5dde\u5730\u65b9\u5efa\u8a2d\u5c40\u7acb\u91ce\u30c0\u30e0\u5de5\u4e8b\u4e8b\u52d9\u6240","boring_xml_url":49,"boring_view_url":1,"soilmap_view_url":null,"soiltest_xml_url":0,"soiltest_view_url":0},{"id":211260,"code":"B4KJ201801009-9509","latitude":"32.87314","longitude":"130.97664","source_code":"QS20098985790200191064","project_name":"\u7acb\u91ce\u30c0\u30e0\u30b5\u30a4\u30c8\u5de6\u5cb8\u90e8\u5730\u8cea\u8abf\u67fb(\u305d\u306e1)\u696d\u52d9","survey_name":"\u7acb\u91ce\u30c0\u30e0\u30b5\u30a4\u30c8\u5de6\u5cb8\u90e8\u5730\u8cea\u8abf\u67fb(\u305d\u306e1)\u696d\u52d9","client_name":"\u5efa\u8a2d\u7701\u4e5d\u5dde\u5730\u65b9\u5efa\u8a2d\u5c40\u7acb\u91ce\u30c0\u30e0\u5de5\u4e8b\u4e8b\u52d9\u6240","boring_xml_url":49,"boring_view_url":1,"soilmap_view_url":null,"soiltest_xml_url":0,"soiltest_view_url":0},{"id":211259,"code":"B4KJ201801009-9508","latitude":"32.87289","longitude":"130.97639","source_code":"QS20098985790200191063","project_name":"\u7acb\u91ce\u30c0\u30e0\u30b5\u30a4\u30c8\u5de6\u5cb8\u90e8\u5730\u8cea\u8abf\u67fb(\u305d\u306e1)\u696d\u52d9","survey_name":"\u7acb\u91ce\u30c0\u30e0\u30b5\u30a4\u30c8\u5de6\u5cb8\u90e8\u5730\u8cea\u8abf\u67fb(\u305d\u306e1)\u696d\u52d9","client_name":"\u5efa\u8a2d\u7701\u4e5d\u5dde\u5730\u65b9\u5efa\u8a2d\u5c40\u7acb\u91ce\u30c0\u30e0\u5de5\u4e8b\u4e8b\u52d9\u6240","boring_xml_url":49,"boring_view_url":1,"soilmap_view_url":null,"soiltest_xml_url":0,"soiltest_view_url":0},{"id":211258,"code":"B4KJ201801009-9507","latitude":"32.87331","longitude":"130.97564","source_code":"QS20098985790200191062","project_name":"\u7acb\u91ce\u30c0\u30e0\u30b5\u30a4\u30c8\u5de6\u5cb8\u90e8\u5730\u8cea\u8abf\u67fb(\u305d\u306e1)\u696d\u52d9","survey_name":"\u7acb\u91ce\u30c0\u30e0\u30b5\u30a4\u30c8\u5de6\u5cb8\u90e8\u5730\u8cea\u8abf\u67fb(\u305d\u306e1)\u696d\u52d9","client_name":"\u5efa\u8a2d\u7701\u4e5d\u5dde\u5730\u65b9\u5efa\u8a2d\u5c40\u7acb\u91ce\u30c0\u30e0\u5de5\u4e8b\u4e8b\u52d9\u6240","boring_xml_url":49,"boring_view_url":1,"soilmap_view_url":null,"soiltest_xml_url":0,"soiltest_view_url":0},{"id":211257,"code":"B4KJ201801009-9506","latitude":"32.87333","longitude":"130.97558","source_code":"QS20098985790200191061","project_name":"\u7acb\u91ce\u30c0\u30e0\u30b5\u30a4\u30c8\u5de6\u5cb8\u90e8\u5730\u8cea\u8abf\u67fb(\u305d\u306e1)\u696d\u52d9","survey_name":"\u7acb\u91ce\u30c0\u30e0\u30b5\u30a4\u30c8\u5de6\u5cb8\u90e8\u5730\u8cea\u8abf\u67fb(\u305d\u306e1)\u696d\u52d9","client_name":"\u5efa\u8a2d\u7701\u4e5d\u5dde\u5730\u65b9\u5efa\u8a2d\u5c40\u7acb\u91ce\u30c0\u30e0\u5de5\u4e8b\u4e8b\u52d9\u6240","boring_xml_url":49,"boring_view_url":1,"soilmap_view_url":null,"soiltest_xml_url":0,"soiltest_view_url":0},{"id":211256,"code":"B4KJ201801009-9505","latitude":"32.87736","longitude":"130.96997","source_code":"QS20098985790200191060","project_name":"\u7acb\u91ce\u30c0\u30e0\u30b5\u30a4\u30c8\u53f3\u5cb8\u90e8(\u305d\u306e2)\u5730\u8cea\u8abf\u67fb\u696d\u52d9","survey_name":"\u7acb\u91ce\u30c0\u30e0\u30b5\u30a4\u30c8\u53f3\u5cb8\u90e8(\u305d\u306e2)\u5730\u8cea\u8abf\u67fb\u696d\u52d9","client_name":"\u5efa\u8a2d\u7701\u4e5d\u5dde\u5730\u65b9\u5efa\u8a2d\u5c40\u7acb\u91ce\u30c0\u30e0\u5de5\u4e8b\u4e8b\u52d9\u6240","boring_xml_url":49,"boring_view_url":1,"soilmap_view_url":null,"soiltest_xml_url":0,"soiltest_view_url":0}]}}