{"header":{"xyz":{"source":[],"mosaic":false},"page":3647,"raw":{"soiltest_result":"0","bbox":"57.598333,109.544722,1.933333,163.806111","page":"3647"},"conditions":{"soiltest_result":0,"north":57.598333,"west":109.544722,"south":1.933333,"east":163.806111},"success":true,"message":""},"data":{"meta":{"total":212844,"page":3647,"pages":7095,"count":30},"values":[{"id":211165,"code":"B4KJ201801009-9414","latitude":"32.87364","longitude":"130.97875","source_code":"QS20098985790200190969","project_name":"\u7acb\u91ce\u30c0\u30e0\u8caf\u6c34\u6c60\u5730\u8cea\u8abf\u67fb\u4ed6\u4e00\u4ef6\u696d\u52d9","survey_name":"\u7acb\u91ce\u30c0\u30e0\u8caf\u6c34\u6c60\u5730\u8cea\u8abf\u67fb\u4ed6\u4e00\u4ef6\u696d\u52d9","client_name":"\u5efa\u8a2d\u7701\u4e5d\u5dde\u5730\u65b9\u5efa\u8a2d\u5c40\u7acb\u91ce\u30c0\u30e0\u5de5\u4e8b\u4e8b\u52d9\u6240","boring_xml_url":49,"boring_view_url":1,"soilmap_view_url":null,"soiltest_xml_url":0,"soiltest_view_url":0},{"id":211164,"code":"B4KJ201801009-9413","latitude":"32.87364","longitude":"130.97847","source_code":"QS20098985790200190968","project_name":"\u7acb\u91ce\u30c0\u30e0\u8caf\u6c34\u6c60\u5730\u8cea\u8abf\u67fb\u4ed6\u4e00\u4ef6\u696d\u52d9","survey_name":"\u7acb\u91ce\u30c0\u30e0\u8caf\u6c34\u6c60\u5730\u8cea\u8abf\u67fb\u4ed6\u4e00\u4ef6\u696d\u52d9","client_name":"\u5efa\u8a2d\u7701\u4e5d\u5dde\u5730\u65b9\u5efa\u8a2d\u5c40\u7acb\u91ce\u30c0\u30e0\u5de5\u4e8b\u4e8b\u52d9\u6240","boring_xml_url":49,"boring_view_url":1,"soilmap_view_url":null,"soiltest_xml_url":0,"soiltest_view_url":0},{"id":211163,"code":"B4KJ201801009-9412","latitude":"32.85753","longitude":"130.93847","source_code":"QS20098985790200190967","project_name":"\u7acb\u91ce\u30c0\u30e0\u539f\u77f3\u5c71\u5730\u8cea\u8abf\u67fb\u696d\u52d9","survey_name":"\u7acb\u91ce\u30c0\u30e0\u539f\u77f3\u5c71\u5730\u8cea\u8abf\u67fb\u696d\u52d9","client_name":"\u5efa\u8a2d\u7701\u4e5d\u5dde\u5730\u65b9\u5efa\u8a2d\u5c40\u7acb\u91ce\u30c0\u30e0\u5de5\u4e8b\u4e8b\u52d9\u6240","boring_xml_url":49,"boring_view_url":1,"soilmap_view_url":null,"soiltest_xml_url":0,"soiltest_view_url":0},{"id":211162,"code":"B4KJ201801009-9411","latitude":"32.85864","longitude":"130.94097","source_code":"QS20098985790200190966","project_name":"\u7acb\u91ce\u30c0\u30e0\u539f\u77f3\u5c71\u5730\u8cea\u8abf\u67fb\u696d\u52d9","survey_name":"\u7acb\u91ce\u30c0\u30e0\u539f\u77f3\u5c71\u5730\u8cea\u8abf\u67fb\u696d\u52d9","client_name":"\u5efa\u8a2d\u7701\u4e5d\u5dde\u5730\u65b9\u5efa\u8a2d\u5c40\u7acb\u91ce\u30c0\u30e0\u5de5\u4e8b\u4e8b\u52d9\u6240","boring_xml_url":49,"boring_view_url":1,"soilmap_view_url":null,"soiltest_xml_url":0,"soiltest_view_url":0},{"id":211161,"code":"B4KJ201801009-9410","latitude":"32.85669","longitude":"130.93708","source_code":"QS20098985790200190965","project_name":"\u7acb\u91ce\u30c0\u30e0\u539f\u77f3\u5c71\u5730\u8cea\u8abf\u67fb\u696d\u52d9","survey_name":"\u7acb\u91ce\u30c0\u30e0\u539f\u77f3\u5c71\u5730\u8cea\u8abf\u67fb\u696d\u52d9","client_name":"\u5efa\u8a2d\u7701\u4e5d\u5dde\u5730\u65b9\u5efa\u8a2d\u5c40\u7acb\u91ce\u30c0\u30e0\u5de5\u4e8b\u4e8b\u52d9\u6240","boring_xml_url":49,"boring_view_url":1,"soilmap_view_url":null,"soiltest_xml_url":0,"soiltest_view_url":0},{"id":211160,"code":"B4KJ201801009-9409","latitude":"32.85669","longitude":"130.93819","source_code":"QS20098985790200190964","project_name":"\u7acb\u91ce\u30c0\u30e0\u539f\u77f3\u5c71\u5730\u8cea\u8abf\u67fb\u696d\u52d9","survey_name":"\u7acb\u91ce\u30c0\u30e0\u539f\u77f3\u5c71\u5730\u8cea\u8abf\u67fb\u696d\u52d9","client_name":"\u5efa\u8a2d\u7701\u4e5d\u5dde\u5730\u65b9\u5efa\u8a2d\u5c40\u7acb\u91ce\u30c0\u30e0\u5de5\u4e8b\u4e8b\u52d9\u6240","boring_xml_url":49,"boring_view_url":1,"soilmap_view_url":null,"soiltest_xml_url":0,"soiltest_view_url":0},{"id":211159,"code":"B4KJ201801009-9408","latitude":"32.85669","longitude":"130.93931","source_code":"QS20098985790200190963","project_name":"\u7acb\u91ce\u30c0\u30e0\u539f\u77f3\u5c71\u5730\u8cea\u8abf\u67fb\u696d\u52d9","survey_name":"\u7acb\u91ce\u30c0\u30e0\u539f\u77f3\u5c71\u5730\u8cea\u8abf\u67fb\u696d\u52d9","client_name":"\u5efa\u8a2d\u7701\u4e5d\u5dde\u5730\u65b9\u5efa\u8a2d\u5c40\u7acb\u91ce\u30c0\u30e0\u5de5\u4e8b\u4e8b\u52d9\u6240","boring_xml_url":49,"boring_view_url":1,"soilmap_view_url":null,"soiltest_xml_url":0,"soiltest_view_url":0},{"id":211158,"code":"B4KJ201801009-9407","latitude":"32.85781","longitude":"130.93903","source_code":"QS20098985790200190962","project_name":"\u7acb\u91ce\u30c0\u30e0\u539f\u77f3\u5c71\u5730\u8cea\u8abf\u67fb\u696d\u52d9","survey_name":"\u7acb\u91ce\u30c0\u30e0\u539f\u77f3\u5c71\u5730\u8cea\u8abf\u67fb\u696d\u52d9","client_name":"\u5efa\u8a2d\u7701\u4e5d\u5dde\u5730\u65b9\u5efa\u8a2d\u5c40\u7acb\u91ce\u30c0\u30e0\u5de5\u4e8b\u4e8b\u52d9\u6240","boring_xml_url":49,"boring_view_url":1,"soilmap_view_url":null,"soiltest_xml_url":0,"soiltest_view_url":0},{"id":211157,"code":"B4KJ201801009-9406","latitude":"32.85781","longitude":"130.93986","source_code":"QS20098985790200190961","project_name":"\u7acb\u91ce\u30c0\u30e0\u539f\u77f3\u5c71\u5730\u8cea\u8abf\u67fb\u696d\u52d9","survey_name":"\u7acb\u91ce\u30c0\u30e0\u539f\u77f3\u5c71\u5730\u8cea\u8abf\u67fb\u696d\u52d9","client_name":"\u5efa\u8a2d\u7701\u4e5d\u5dde\u5730\u65b9\u5efa\u8a2d\u5c40\u7acb\u91ce\u30c0\u30e0\u5de5\u4e8b\u4e8b\u52d9\u6240","boring_xml_url":49,"boring_view_url":1,"soilmap_view_url":null,"soiltest_xml_url":0,"soiltest_view_url":0},{"id":211156,"code":"B4KJ201801009-9405","latitude":"32.85864","longitude":"130.93819","source_code":"QS20098985790200190960","project_name":"\u7acb\u91ce\u30c0\u30e0\u539f\u77f3\u5c71\u5730\u8cea\u8abf\u67fb\u696d\u52d9","survey_name":"\u7acb\u91ce\u30c0\u30e0\u539f\u77f3\u5c71\u5730\u8cea\u8abf\u67fb\u696d\u52d9","client_name":"\u5efa\u8a2d\u7701\u4e5d\u5dde\u5730\u65b9\u5efa\u8a2d\u5c40\u7acb\u91ce\u30c0\u30e0\u5de5\u4e8b\u4e8b\u52d9\u6240","boring_xml_url":49,"boring_view_url":1,"soilmap_view_url":null,"soiltest_xml_url":0,"soiltest_view_url":0},{"id":211155,"code":"B4KJ201801009-9404","latitude":"32.85836","longitude":"130.93931","source_code":"QS20098985790200190959","project_name":"\u7acb\u91ce\u30c0\u30e0\u539f\u77f3\u5c71\u5730\u8cea\u8abf\u67fb\u696d\u52d9","survey_name":"\u7acb\u91ce\u30c0\u30e0\u539f\u77f3\u5c71\u5730\u8cea\u8abf\u67fb\u696d\u52d9","client_name":"\u5efa\u8a2d\u7701\u4e5d\u5dde\u5730\u65b9\u5efa\u8a2d\u5c40\u7acb\u91ce\u30c0\u30e0\u5de5\u4e8b\u4e8b\u52d9\u6240","boring_xml_url":49,"boring_view_url":1,"soilmap_view_url":null,"soiltest_xml_url":0,"soiltest_view_url":0},{"id":211154,"code":"B4KJ201801009-9403","latitude":"32.85864","longitude":"130.93986","source_code":"QS20098985790200190958","project_name":"\u7acb\u91ce\u30c0\u30e0\u539f\u77f3\u5c71\u5730\u8cea\u8abf\u67fb\u696d\u52d9","survey_name":"\u7acb\u91ce\u30c0\u30e0\u539f\u77f3\u5c71\u5730\u8cea\u8abf\u67fb\u696d\u52d9","client_name":"\u5efa\u8a2d\u7701\u4e5d\u5dde\u5730\u65b9\u5efa\u8a2d\u5c40\u7acb\u91ce\u30c0\u30e0\u5de5\u4e8b\u4e8b\u52d9\u6240","boring_xml_url":49,"boring_view_url":1,"soilmap_view_url":null,"soiltest_xml_url":0,"soiltest_view_url":0},{"id":211153,"code":"B4KJ201801009-9402","latitude":"32.87333","longitude":"130.98008","source_code":"QS20098985790200190957","project_name":"\u7280\u89d2\u5c71\u30c8\u30f3\u30cd\u30eb\u5730\u8cea\u8abf\u67fb\u691c\u8a0e\u696d\u52d9","survey_name":"\u7280\u89d2\u5c71\u30c8\u30f3\u30cd\u30eb\u5730\u8cea\u8abf\u67fb\u691c\u8a0e\u696d\u52d9","client_name":"\u5efa\u8a2d\u7701\u4e5d\u5dde\u5730\u65b9\u5efa\u8a2d\u5c40\u7acb\u91ce\u30c0\u30e0\u5de5\u4e8b\u4e8b\u52d9\u6240","boring_xml_url":49,"boring_view_url":1,"soilmap_view_url":null,"soiltest_xml_url":0,"soiltest_view_url":0},{"id":211152,"code":"B4KJ201801009-9401","latitude":"32.87369","longitude":"130.98033","source_code":"QS20098985790200190956","project_name":"\u7280\u89d2\u5c71\u30c8\u30f3\u30cd\u30eb\u5730\u8cea\u8abf\u67fb\u691c\u8a0e\u696d\u52d9","survey_name":"\u7280\u89d2\u5c71\u30c8\u30f3\u30cd\u30eb\u5730\u8cea\u8abf\u67fb\u691c\u8a0e\u696d\u52d9","client_name":"\u5efa\u8a2d\u7701\u4e5d\u5dde\u5730\u65b9\u5efa\u8a2d\u5c40\u7acb\u91ce\u30c0\u30e0\u5de5\u4e8b\u4e8b\u52d9\u6240","boring_xml_url":49,"boring_view_url":1,"soilmap_view_url":null,"soiltest_xml_url":0,"soiltest_view_url":0},{"id":211151,"code":"B4KJ201801009-9400","latitude":"32.87358","longitude":"130.97986","source_code":"QS20098985790200190955","project_name":"\u7280\u89d2\u5c71\u30c8\u30f3\u30cd\u30eb\u5730\u8cea\u8abf\u67fb\u691c\u8a0e\u696d\u52d9","survey_name":"\u7280\u89d2\u5c71\u30c8\u30f3\u30cd\u30eb\u5730\u8cea\u8abf\u67fb\u691c\u8a0e\u696d\u52d9","client_name":"\u5efa\u8a2d\u7701\u4e5d\u5dde\u5730\u65b9\u5efa\u8a2d\u5c40\u7acb\u91ce\u30c0\u30e0\u5de5\u4e8b\u4e8b\u52d9\u6240","boring_xml_url":49,"boring_view_url":1,"soilmap_view_url":null,"soiltest_xml_url":0,"soiltest_view_url":0},{"id":211150,"code":"B4KJ201801009-9399","latitude":"32.87589","longitude":"130.97178","source_code":"QS20098985790200190954","project_name":"\u7acb\u91ce\u30c0\u30e0\u5730\u8cea\u8abf\u67fb\u696d\u52d9","survey_name":"\u7acb\u91ce\u30c0\u30e0\u5730\u8cea\u8abf\u67fb\u696d\u52d9","client_name":"\u5efa\u8a2d\u7701\u4e5d\u5dde\u5730\u65b9\u5efa\u8a2d\u5c40\u7acb\u91ce\u30c0\u30e0\u5de5\u4e8b\u4e8b\u52d9\u6240","boring_xml_url":49,"boring_view_url":1,"soilmap_view_url":null,"soiltest_xml_url":0,"soiltest_view_url":0},{"id":211149,"code":"B4KJ201801009-9398","latitude":"32.87589","longitude":"130.97153","source_code":"QS20098985790200190953","project_name":"\u7acb\u91ce\u30c0\u30e0\u5730\u8cea\u8abf\u67fb\u696d\u52d9","survey_name":"\u7acb\u91ce\u30c0\u30e0\u5730\u8cea\u8abf\u67fb\u696d\u52d9","client_name":"\u5efa\u8a2d\u7701\u4e5d\u5dde\u5730\u65b9\u5efa\u8a2d\u5c40\u7acb\u91ce\u30c0\u30e0\u5de5\u4e8b\u4e8b\u52d9\u6240","boring_xml_url":49,"boring_view_url":1,"soilmap_view_url":null,"soiltest_xml_url":0,"soiltest_view_url":0},{"id":211148,"code":"B4KJ201801009-9397","latitude":"32.87658","longitude":"130.97061","source_code":"QS20098985790200190952","project_name":"\u7acb\u91ce\u30c0\u30e0\u57fa\u790e\u5ca9\u76e4\u8abf\u67fb","survey_name":"\u7acb\u91ce\u30c0\u30e0\u5730\u8cea\u8abf\u67fb\u696d\u52d9","client_name":"\u5efa\u8a2d\u7701\u4e5d\u5dde\u5730\u65b9\u5efa\u8a2d\u5c40\u7acb\u91ce\u30c0\u30e0\u5de5\u4e8b\u4e8b\u52d9\u6240","boring_xml_url":49,"boring_view_url":1,"soilmap_view_url":null,"soiltest_xml_url":0,"soiltest_view_url":0},{"id":211147,"code":"B4KJ201801009-9396","latitude":"32.87681","longitude":"130.97003","source_code":"QS20098985790200190951","project_name":"\u7acb\u91ce\u30c0\u30e0\u57fa\u790e\u5ca9\u76e4\u8abf\u67fb","survey_name":"\u7acb\u91ce\u30c0\u30e0\u5730\u8cea\u8abf\u67fb\u696d\u52d9","client_name":"\u5efa\u8a2d\u7701\u4e5d\u5dde\u5730\u65b9\u5efa\u8a2d\u5c40\u7acb\u91ce\u30c0\u30e0\u5de5\u4e8b\u4e8b\u52d9\u6240","boring_xml_url":49,"boring_view_url":1,"soilmap_view_url":null,"soiltest_xml_url":0,"soiltest_view_url":0},{"id":211146,"code":"B4KJ201801009-9395","latitude":"32.87619","longitude":"130.97072","source_code":"QS20098985790200190950","project_name":"\u7acb\u91ce\u30c0\u30e0\u57fa\u790e\u5ca9\u76e4\u8abf\u67fb","survey_name":"\u7acb\u91ce\u30c0\u30e0\u5730\u8cea\u8abf\u67fb\u696d\u52d9","client_name":"\u5efa\u8a2d\u7701\u4e5d\u5dde\u5730\u65b9\u5efa\u8a2d\u5c40\u7acb\u91ce\u30c0\u30e0\u5de5\u4e8b\u4e8b\u52d9\u6240","boring_xml_url":49,"boring_view_url":1,"soilmap_view_url":null,"soiltest_xml_url":0,"soiltest_view_url":0},{"id":211145,"code":"B4KJ201801009-9394","latitude":"32.87519","longitude":"130.97331","source_code":"QS20098985790200190949","project_name":"\u7acb\u91ce\u30c0\u30e0\u57fa\u790e\u5730\u76e4\u8abf\u67fb","survey_name":"\u7acb\u91ce\u30c0\u30e0\u5730\u8cea\u8abf\u67fb(\u305d\u306e2)\u696d\u52d9","client_name":"\u5efa\u8a2d\u7701\u4e5d\u5dde\u5730\u65b9\u5efa\u8a2d\u5c40\u7acb\u91ce\u30c0\u30e0\u5de5\u4e8b\u4e8b\u52d9\u6240","boring_xml_url":49,"boring_view_url":1,"soilmap_view_url":null,"soiltest_xml_url":0,"soiltest_view_url":0},{"id":211144,"code":"B4KJ201801009-9393","latitude":"32.87514","longitude":"130.97317","source_code":"QS20098985790200190948","project_name":"\u7acb\u91ce\u30c0\u30e0\u57fa\u790e\u5730\u76e4\u8abf\u67fb","survey_name":"\u7acb\u91ce\u30c0\u30e0\u5730\u8cea\u8abf\u67fb(\u305d\u306e2)\u696d\u52d9","client_name":"\u5efa\u8a2d\u7701\u4e5d\u5dde\u5730\u65b9\u5efa\u8a2d\u5c40\u7acb\u91ce\u30c0\u30e0\u5de5\u4e8b\u4e8b\u52d9\u6240","boring_xml_url":49,"boring_view_url":1,"soilmap_view_url":null,"soiltest_xml_url":0,"soiltest_view_url":0},{"id":211143,"code":"B4KJ201801009-9392","latitude":"32.875","longitude":"130.9735","source_code":"QS20098985790200190947","project_name":"\u7acb\u91ce\u30c0\u30e0\u57fa\u790e\u5730\u76e4\u8abf\u67fb","survey_name":"\u7acb\u91ce\u30c0\u30e0\u5730\u8cea\u8abf\u67fb(\u305d\u306e2)\u696d\u52d9","client_name":"\u5efa\u8a2d\u7701\u4e5d\u5dde\u5730\u65b9\u5efa\u8a2d\u5c40\u7acb\u91ce\u30c0\u30e0\u5de5\u4e8b\u4e8b\u52d9\u6240","boring_xml_url":49,"boring_view_url":1,"soilmap_view_url":null,"soiltest_xml_url":0,"soiltest_view_url":0},{"id":211142,"code":"B4KJ201801009-9391","latitude":"32.87483","longitude":"130.97344","source_code":"QS20098985790200190946","project_name":"\u7acb\u91ce\u30c0\u30e0\u57fa\u790e\u5730\u76e4\u8abf\u67fb","survey_name":"\u7acb\u91ce\u30c0\u30e0\u5730\u8cea\u8abf\u67fb(\u305d\u306e2)\u696d\u52d9","client_name":"\u5efa\u8a2d\u7701\u4e5d\u5dde\u5730\u65b9\u5efa\u8a2d\u5c40\u7acb\u91ce\u30c0\u30e0\u5de5\u4e8b\u4e8b\u52d9\u6240","boring_xml_url":49,"boring_view_url":1,"soilmap_view_url":null,"soiltest_xml_url":0,"soiltest_view_url":0},{"id":211141,"code":"B4KJ201801009-9390","latitude":"32.87033","longitude":"130.99419","source_code":"QS20098985790200190945","project_name":"\u6803\u6728\u6a4b\u4e0b\u90e8\u5de5\u5730\u8cea\u8abf\u67fb\u696d\u52d9","survey_name":"\u6803\u6728\u6a4b\u4e0b\u90e8\u5de5\u5730\u8cea\u8abf\u67fb\u696d\u52d9","client_name":"\u5efa\u8a2d\u7701\u4e5d\u5dde\u5730\u65b9\u5efa\u8a2d\u5c40\u7acb\u91ce\u30c0\u30e0\u5de5\u4e8b\u4e8b\u52d9\u6240","boring_xml_url":49,"boring_view_url":1,"soilmap_view_url":null,"soiltest_xml_url":0,"soiltest_view_url":0},{"id":211140,"code":"B4KJ201801009-9389","latitude":"32.87044","longitude":"130.99397","source_code":"QS20098985790200190944","project_name":"\u6803\u6728\u6a4b\u4e0b\u90e8\u5de5\u5730\u8cea\u8abf\u67fb\u696d\u52d9","survey_name":"\u6803\u6728\u6a4b\u4e0b\u90e8\u5de5\u5730\u8cea\u8abf\u67fb\u696d\u52d9","client_name":"\u5efa\u8a2d\u7701\u4e5d\u5dde\u5730\u65b9\u5efa\u8a2d\u5c40\u7acb\u91ce\u30c0\u30e0\u5de5\u4e8b\u4e8b\u52d9\u6240","boring_xml_url":49,"boring_view_url":1,"soilmap_view_url":null,"soiltest_xml_url":0,"soiltest_view_url":0},{"id":211139,"code":"B4KJ201801009-9388","latitude":"32.87528","longitude":"130.98728","source_code":"QS20098985790200190943","project_name":"\u7acb\u91ce\u30c0\u30e0\u8caf\u6c34\u6c60\u4fdd\u5168\u65bd\u8a2d\u5730\u8cea\u8abf\u67fb\u696d\u52d9","survey_name":"\u7acb\u91ce\u30c0\u30e0\u8caf\u6c34\u6c60\u4fdd\u5168\u65bd\u8a2d\u5730\u8cea\u8abf\u67fb\u696d\u52d9","client_name":"\u5efa\u8a2d\u7701\u4e5d\u5dde\u5730\u65b9\u5efa\u8a2d\u5c40\u7acb\u91ce\u30c0\u30e0\u5de5\u4e8b\u4e8b\u52d9\u6240","boring_xml_url":49,"boring_view_url":1,"soilmap_view_url":null,"soiltest_xml_url":0,"soiltest_view_url":0},{"id":211138,"code":"B4KJ201801009-9387","latitude":"32.87503","longitude":"130.98722","source_code":"QS20098985790200190942","project_name":"\u7acb\u91ce\u30c0\u30e0\u8caf\u6c34\u6c60\u4fdd\u5168\u65bd\u8a2d\u5730\u8cea\u8abf\u67fb\u696d\u52d9","survey_name":"\u7acb\u91ce\u30c0\u30e0\u8caf\u6c34\u6c60\u4fdd\u5168\u65bd\u8a2d\u5730\u8cea\u8abf\u67fb\u696d\u52d9","client_name":"\u5efa\u8a2d\u7701\u4e5d\u5dde\u5730\u65b9\u5efa\u8a2d\u5c40\u7acb\u91ce\u30c0\u30e0\u5de5\u4e8b\u4e8b\u52d9\u6240","boring_xml_url":49,"boring_view_url":1,"soilmap_view_url":null,"soiltest_xml_url":0,"soiltest_view_url":0},{"id":211137,"code":"B4KJ201801009-9386","latitude":"32.87483","longitude":"130.98722","source_code":"QS20098985790200190941","project_name":"\u7acb\u91ce\u30c0\u30e0\u8caf\u6c34\u6c60\u4fdd\u5168\u65bd\u8a2d\u5730\u8cea\u8abf\u67fb\u696d\u52d9","survey_name":"\u7acb\u91ce\u30c0\u30e0\u8caf\u6c34\u6c60\u4fdd\u5168\u65bd\u8a2d\u5730\u8cea\u8abf\u67fb\u696d\u52d9","client_name":"\u5efa\u8a2d\u7701\u4e5d\u5dde\u5730\u65b9\u5efa\u8a2d\u5c40\u7acb\u91ce\u30c0\u30e0\u5de5\u4e8b\u4e8b\u52d9\u6240","boring_xml_url":49,"boring_view_url":1,"soilmap_view_url":null,"soiltest_xml_url":0,"soiltest_view_url":0},{"id":211136,"code":"B4KJ201801009-9385","latitude":"32.87492","longitude":"130.97428","source_code":"QS20098985790200190940","project_name":"\u7acb\u91ce\u30c0\u30e0\u8caf\u6c34\u6c60\u4fdd\u5168\u65bd\u8a2d\u5730\u8cea\u8abf\u67fb\u696d\u52d9","survey_name":"\u7acb\u91ce\u30c0\u30e0\u8caf\u6c34\u6c60\u4fdd\u5168\u65bd\u8a2d\u5730\u8cea\u8abf\u67fb\u696d\u52d9","client_name":"\u5efa\u8a2d\u7701\u4e5d\u5dde\u5730\u65b9\u5efa\u8a2d\u5c40\u7acb\u91ce\u30c0\u30e0\u5de5\u4e8b\u4e8b\u52d9\u6240","boring_xml_url":49,"boring_view_url":1,"soilmap_view_url":null,"soiltest_xml_url":0,"soiltest_view_url":0}]}}