{"header":{"xyz":{"source":[],"mosaic":false},"page":365,"raw":{"soiltest_result":"0","bbox":"57.598333,109.544722,1.933333,163.806111","page":"365"},"conditions":{"soiltest_result":0,"north":57.598333,"west":109.544722,"south":1.933333,"east":163.806111},"success":true,"message":""},"data":{"meta":{"total":212844,"page":365,"pages":7095,"count":30},"values":[{"id":554953,"code":"NGIC202202291-0005","latitude":"34.692138888889","longitude":"136.48469444444","source_code":"","project_name":"\u4e2d\u52e2BP\u534a\u7530\u5730\u533a\u30dc\u30fc\u30ea\u30f3\u30b0\u8abf\u67fb","survey_name":"\u4ee4\u548c3\u5e74\u5ea6\u4e09\u91cd\u7ba1\u5185\u9632\u707d\u70b9\u691c\u696d\u52d9","client_name":"\u56fd\u571f\u4ea4\u901a\u7701\u4e2d\u90e8\u5730\u65b9\u6574\u5099\u5c40\u4e09\u91cd\u6cb3\u5ddd\u56fd\u9053\u4e8b\u52d9\u6240","boring_xml_url":47,"boring_view_url":1,"soilmap_view_url":null,"soiltest_xml_url":0,"soiltest_view_url":0},{"id":554952,"code":"NGIC202202291-0004","latitude":"34.889591666667","longitude":"136.34394722222","source_code":"","project_name":"\u4ee4\u548c3\u5e74\u5ea6\u4e09\u91cd\u7ba1\u5185\u9632\u707d\u70b9\u691c\u696d\u52d9","survey_name":"\u4ee4\u548c3\u5e74\u5ea6\u4e09\u91cd\u7ba1\u5185\u9632\u707d\u70b9\u691c\u696d\u52d9","client_name":"\u56fd\u571f\u4ea4\u901a\u7701\u4e2d\u90e8\u5730\u65b9\u6574\u5099\u5c40\u4e09\u91cd\u6cb3\u5ddd\u56fd\u9053\u4e8b\u52d9\u6240","boring_xml_url":47,"boring_view_url":1,"soilmap_view_url":null,"soiltest_xml_url":0,"soiltest_view_url":0},{"id":554951,"code":"NGIC202202291-0003","latitude":"34.889325","longitude":"136.34565","source_code":"","project_name":"\u4ee4\u548c3\u5e74\u5ea6\u4e09\u91cd\u7ba1\u5185\u9632\u707d\u70b9\u691c\u696d\u52d9","survey_name":"\u4ee4\u548c3\u5e74\u5ea6\u4e09\u91cd\u7ba1\u5185\u9632\u707d\u70b9\u691c\u696d\u52d9","client_name":"\u56fd\u571f\u4ea4\u901a\u7701\u4e2d\u90e8\u5730\u65b9\u6574\u5099\u5c40\u4e09\u91cd\u6cb3\u5ddd\u56fd\u9053\u4e8b\u52d9\u6240","boring_xml_url":47,"boring_view_url":1,"soilmap_view_url":null,"soiltest_xml_url":0,"soiltest_view_url":0},{"id":554950,"code":"NGIC202202291-0002","latitude":"34.867402777778","longitude":"136.37228611111","source_code":"","project_name":"\u4ee4\u548c3\u5e74\u5ea6\u4e09\u91cd\u7ba1\u5185\u9632\u707d\u70b9\u691c\u696d\u52d9","survey_name":"\u4ee4\u548c3\u5e74\u5ea6\u4e09\u91cd\u7ba1\u5185\u9632\u707d\u70b9\u691c\u696d\u52d9","client_name":"\u56fd\u571f\u4ea4\u901a\u7701\u4e2d\u90e8\u5730\u65b9\u6574\u5099\u5c40\u4e09\u91cd\u6cb3\u5ddd\u56fd\u9053\u4e8b\u52d9\u6240","boring_xml_url":47,"boring_view_url":1,"soilmap_view_url":null,"soiltest_xml_url":0,"soiltest_view_url":0},{"id":554949,"code":"NGIC202202291-0001","latitude":"34.860097222222","longitude":"136.37352777778","source_code":"","project_name":"\u4ee4\u548c3\u5e74\u5ea6\u4e09\u91cd\u7ba1\u5185\u9632\u707d\u70b9\u691c\u696d\u52d9","survey_name":"\u4ee4\u548c3\u5e74\u5ea6\u4e09\u91cd\u7ba1\u5185\u9632\u707d\u70b9\u691c\u696d\u52d9","client_name":"\u56fd\u571f\u4ea4\u901a\u7701\u4e2d\u90e8\u5730\u65b9\u6574\u5099\u5c40\u4e09\u91cd\u6cb3\u5ddd\u56fd\u9053\u4e8b\u52d9\u6240","boring_xml_url":47,"boring_view_url":1,"soilmap_view_url":null,"soiltest_xml_url":0,"soiltest_view_url":0},{"id":554850,"code":"NGIC202202156-0006","latitude":"41.867416666667","longitude":"140.11797222222","source_code":"","project_name":"\u9752\u82d7\u6f01\u6e2f\u59161\u6e2f\u5730\u8cea\u8abf\u67fb\u696d\u52d9","survey_name":"\u9752\u82d7\u6f01\u6e2f\u59161\u6e2f\u5730\u8cea\u8abf\u67fb\u696d\u52d9","client_name":"\u56fd\u571f\u4ea4\u901a\u7701\u5317\u6d77\u9053\u958b\u767a\u5c40\u51fd\u9928\u958b\u767a\u5efa\u8a2d\u90e8\u6c5f\u5dee\u6e2f\u6e7e\u4e8b\u52d9\u6240","boring_xml_url":47,"boring_view_url":1,"soilmap_view_url":71,"soiltest_xml_url":47,"soiltest_view_url":47},{"id":554849,"code":"NGIC202202156-0005","latitude":"42.173944444444","longitude":"139.51672222222","source_code":"","project_name":"\u9752\u82d7\u6f01\u6e2f\u59161\u6e2f\u5730\u8cea\u8abf\u67fb\u696d\u52d9","survey_name":"\u9752\u82d7\u6f01\u6e2f\u59161\u6e2f\u5730\u8cea\u8abf\u67fb\u696d\u52d9","client_name":"\u56fd\u571f\u4ea4\u901a\u7701\u5317\u6d77\u9053\u958b\u767a\u5c40\u51fd\u9928\u958b\u767a\u5efa\u8a2d\u90e8\u6c5f\u5dee\u6e2f\u6e7e\u4e8b\u52d9\u6240","boring_xml_url":47,"boring_view_url":1,"soilmap_view_url":71,"soiltest_xml_url":47,"soiltest_view_url":47},{"id":554848,"code":"NGIC202202156-0004","latitude":"42.062444444444","longitude":"139.45205555556","source_code":"","project_name":"\u9752\u82d7\u6f01\u6e2f\u59161\u6e2f\u5730\u8cea\u8abf\u67fb\u696d\u52d9","survey_name":"\u9752\u82d7\u6f01\u6e2f\u59161\u6e2f\u5730\u8cea\u8abf\u67fb\u696d\u52d9","client_name":"\u56fd\u571f\u4ea4\u901a\u7701\u5317\u6d77\u9053\u958b\u767a\u5c40\u51fd\u9928\u958b\u767a\u5efa\u8a2d\u90e8\u6c5f\u5dee\u6e2f\u6e7e\u4e8b\u52d9\u6240","boring_xml_url":47,"boring_view_url":1,"soilmap_view_url":71,"soiltest_xml_url":47,"soiltest_view_url":47},{"id":554847,"code":"NGIC202202156-0003","latitude":"42.062444444444","longitude":"139.45205555556","source_code":"","project_name":"\u9752\u82d7\u6f01\u6e2f\u59161\u6e2f\u5730\u8cea\u8abf\u67fb\u696d\u52d9","survey_name":"\u9752\u82d7\u6f01\u6e2f\u59161\u6e2f\u5730\u8cea\u8abf\u67fb\u696d\u52d9","client_name":"\u56fd\u571f\u4ea4\u901a\u7701\u5317\u6d77\u9053\u958b\u767a\u5c40\u51fd\u9928\u958b\u767a\u5efa\u8a2d\u90e8\u6c5f\u5dee\u6e2f\u6e7e\u4e8b\u52d9\u6240","boring_xml_url":47,"boring_view_url":1,"soilmap_view_url":71,"soiltest_xml_url":47,"soiltest_view_url":47},{"id":554846,"code":"NGIC202202156-0002","latitude":"42.062333333333","longitude":"139.45208333333","source_code":"","project_name":"\u9752\u82d7\u6f01\u6e2f\u59161\u6e2f\u5730\u8cea\u8abf\u67fb\u696d\u52d9","survey_name":"\u9752\u82d7\u6f01\u6e2f\u59161\u6e2f\u5730\u8cea\u8abf\u67fb\u696d\u52d9","client_name":"\u56fd\u571f\u4ea4\u901a\u7701\u5317\u6d77\u9053\u958b\u767a\u5c40\u51fd\u9928\u958b\u767a\u5efa\u8a2d\u90e8\u6c5f\u5dee\u6e2f\u6e7e\u4e8b\u52d9\u6240","boring_xml_url":47,"boring_view_url":1,"soilmap_view_url":71,"soiltest_xml_url":47,"soiltest_view_url":47},{"id":554845,"code":"NGIC202202156-0001","latitude":"42.062444444444","longitude":"139.45225","source_code":"","project_name":"\u9752\u82d7\u6f01\u6e2f\u59161\u6e2f\u5730\u8cea\u8abf\u67fb\u696d\u52d9","survey_name":"\u9752\u82d7\u6f01\u6e2f\u59161\u6e2f\u5730\u8cea\u8abf\u67fb\u696d\u52d9","client_name":"\u56fd\u571f\u4ea4\u901a\u7701\u5317\u6d77\u9053\u958b\u767a\u5c40\u51fd\u9928\u958b\u767a\u5efa\u8a2d\u90e8\u6c5f\u5dee\u6e2f\u6e7e\u4e8b\u52d9\u6240","boring_xml_url":47,"boring_view_url":1,"soilmap_view_url":71,"soiltest_xml_url":47,"soiltest_view_url":47},{"id":554804,"code":"NGIC202202204-0004","latitude":"34.379385861111","longitude":"130.99938286111","source_code":"","project_name":"","survey_name":"\u6cb9\u8c37\u6e2f\u5510\u5d0e\u5730\u533a\u9632\u6ce2\u5824(\u5317)\u571f\u8cea\u8abf\u67fb","client_name":"\u56fd\u571f\u4ea4\u901a\u7701\u4e2d\u56fd\u5730\u65b9\u6574\u5099\u5c40\u5b87\u90e8\u6e2f\u6e7e\u30fb\u7a7a\u6e2f\u6574\u5099\u4e8b\u52d9\u6240","boring_xml_url":47,"boring_view_url":1,"soilmap_view_url":null,"soiltest_xml_url":0,"soiltest_view_url":0},{"id":554803,"code":"NGIC202202204-0003","latitude":"34.378978972222","longitude":"130.99840275","source_code":"","project_name":"","survey_name":"\u6cb9\u8c37\u6e2f\u5510\u5d0e\u5730\u533a\u9632\u6ce2\u5824(\u5317)\u571f\u8cea\u8abf\u67fb","client_name":"\u56fd\u571f\u4ea4\u901a\u7701\u4e2d\u56fd\u5730\u65b9\u6574\u5099\u5c40\u5b87\u90e8\u6e2f\u6e7e\u30fb\u7a7a\u6e2f\u6574\u5099\u4e8b\u52d9\u6240","boring_xml_url":47,"boring_view_url":1,"soilmap_view_url":71,"soiltest_xml_url":47,"soiltest_view_url":47},{"id":554802,"code":"NGIC202202204-0002","latitude":"34.379230972222","longitude":"130.99831727778","source_code":"","project_name":"","survey_name":"\u6cb9\u8c37\u6e2f\u5510\u5d0e\u5730\u533a\u9632\u6ce2\u5824(\u5317)\u571f\u8cea\u8abf\u67fb","client_name":"\u56fd\u571f\u4ea4\u901a\u7701\u4e2d\u56fd\u5730\u65b9\u6574\u5099\u5c40\u5b87\u90e8\u6e2f\u6e7e\u30fb\u7a7a\u6e2f\u6574\u5099\u4e8b\u52d9\u6240","boring_xml_url":47,"boring_view_url":1,"soilmap_view_url":71,"soiltest_xml_url":47,"soiltest_view_url":47},{"id":554801,"code":"NGIC202202204-0001","latitude":"34.379527333333","longitude":"130.99824655556","source_code":"","project_name":"","survey_name":"\u6cb9\u8c37\u6e2f\u5510\u5d0e\u5730\u533a\u9632\u6ce2\u5824(\u5317)\u571f\u8cea\u8abf\u67fb","client_name":"\u56fd\u571f\u4ea4\u901a\u7701\u4e2d\u56fd\u5730\u65b9\u6574\u5099\u5c40\u5b87\u90e8\u6e2f\u6e7e\u30fb\u7a7a\u6e2f\u6574\u5099\u4e8b\u52d9\u6240","boring_xml_url":47,"boring_view_url":1,"soilmap_view_url":71,"soiltest_xml_url":47,"soiltest_view_url":47},{"id":554767,"code":"NGIC202202118-0007","latitude":"35.987525","longitude":"139.51631388889","source_code":"","project_name":"R4\u8352\u5ddd\u4e0a\u6d41\u7ba1\u5185\u5730\u8cea\u8abf\u67fb\u305d\u306e2\u696d\u52d9","survey_name":"R4\u8352\u5ddd\u4e0a\u6d41\u7ba1\u5185\u5730\u8cea\u8abf\u67fb\u305d\u306e2\u696d\u52d9","client_name":"\u56fd\u571f\u4ea4\u901a\u7701\u95a2\u6771\u5730\u65b9\u6574\u5099\u5c40\u8352\u5ddd\u4e0a\u6d41\u6cb3\u5ddd\u4e8b\u52d9\u6240","boring_xml_url":47,"boring_view_url":1,"soilmap_view_url":null,"soiltest_xml_url":47,"soiltest_view_url":47},{"id":554766,"code":"NGIC202202118-0006","latitude":"35.985811111111","longitude":"139.51854444444","source_code":"","project_name":"R4\u8352\u5ddd\u4e0a\u6d41\u7ba1\u5185\u5730\u8cea\u8abf\u67fb\u305d\u306e2\u696d\u52d9","survey_name":"R4\u8352\u5ddd\u4e0a\u6d41\u7ba1\u5185\u5730\u8cea\u8abf\u67fb\u305d\u306e2\u696d\u52d9","client_name":"\u56fd\u571f\u4ea4\u901a\u7701\u95a2\u6771\u5730\u65b9\u6574\u5099\u5c40\u8352\u5ddd\u4e0a\u6d41\u6cb3\u5ddd\u4e8b\u52d9\u6240","boring_xml_url":47,"boring_view_url":1,"soilmap_view_url":null,"soiltest_xml_url":47,"soiltest_view_url":47},{"id":554765,"code":"NGIC202202118-0005","latitude":"35.9722","longitude":"139.53315","source_code":"","project_name":"R4\u8352\u5ddd\u4e0a\u6d41\u7ba1\u5185\u5730\u8cea\u8abf\u67fb\u305d\u306e2\u696d\u52d9","survey_name":"R4\u8352\u5ddd\u4e0a\u6d41\u7ba1\u5185\u5730\u8cea\u8abf\u67fb\u305d\u306e2\u696d\u52d9","client_name":"\u56fd\u571f\u4ea4\u901a\u7701\u95a2\u6771\u5730\u65b9\u6574\u5099\u5c40\u8352\u5ddd\u4e0a\u6d41\u6cb3\u5ddd\u4e8b\u52d9\u6240","boring_xml_url":47,"boring_view_url":1,"soilmap_view_url":null,"soiltest_xml_url":47,"soiltest_view_url":47},{"id":554764,"code":"NGIC202202118-0004","latitude":"35.971116666667","longitude":"139.53419444444","source_code":"","project_name":"R4\u8352\u5ddd\u4e0a\u6d41\u7ba1\u5185\u5730\u8cea\u8abf\u67fb\u305d\u306e2\u696d\u52d9","survey_name":"R4\u8352\u5ddd\u4e0a\u6d41\u7ba1\u5185\u5730\u8cea\u8abf\u67fb\u305d\u306e2\u696d\u52d9","client_name":"\u56fd\u571f\u4ea4\u901a\u7701\u95a2\u6771\u5730\u65b9\u6574\u5099\u5c40\u8352\u5ddd\u4e0a\u6d41\u6cb3\u5ddd\u4e8b\u52d9\u6240","boring_xml_url":47,"boring_view_url":1,"soilmap_view_url":null,"soiltest_xml_url":47,"soiltest_view_url":47},{"id":554763,"code":"NGIC202202118-0003","latitude":"35.963502777778","longitude":"139.53948888889","source_code":"","project_name":"R4\u8352\u5ddd\u4e0a\u6d41\u7ba1\u5185\u5730\u8cea\u8abf\u67fb\u305d\u306e2\u696d\u52d9","survey_name":"R4\u8352\u5ddd\u4e0a\u6d41\u7ba1\u5185\u5730\u8cea\u8abf\u67fb\u305d\u306e2\u696d\u52d9","client_name":"\u56fd\u571f\u4ea4\u901a\u7701\u95a2\u6771\u5730\u65b9\u6574\u5099\u5c40\u8352\u5ddd\u4e0a\u6d41\u6cb3\u5ddd\u4e8b\u52d9\u6240","boring_xml_url":47,"boring_view_url":1,"soilmap_view_url":null,"soiltest_xml_url":47,"soiltest_view_url":47},{"id":554762,"code":"NGIC202202118-0002","latitude":"35.958752777778","longitude":"139.54108888889","source_code":"","project_name":"R4\u8352\u5ddd\u4e0a\u6d41\u7ba1\u5185\u5730\u8cea\u8abf\u67fb\u305d\u306e2\u696d\u52d9","survey_name":"R4\u8352\u5ddd\u4e0a\u6d41\u7ba1\u5185\u5730\u8cea\u8abf\u67fb\u305d\u306e2\u696d\u52d9","client_name":"\u56fd\u571f\u4ea4\u901a\u7701\u95a2\u6771\u5730\u65b9\u6574\u5099\u5c40\u8352\u5ddd\u4e0a\u6d41\u6cb3\u5ddd\u4e8b\u52d9\u6240","boring_xml_url":47,"boring_view_url":1,"soilmap_view_url":null,"soiltest_xml_url":47,"soiltest_view_url":47},{"id":554761,"code":"NGIC202202118-0001","latitude":"35.957847222222","longitude":"139.54095","source_code":"","project_name":"R4\u8352\u5ddd\u4e0a\u6d41\u7ba1\u5185\u5730\u8cea\u8abf\u67fb\u305d\u306e2\u696d\u52d9","survey_name":"R4\u8352\u5ddd\u4e0a\u6d41\u7ba1\u5185\u5730\u8cea\u8abf\u67fb\u305d\u306e2\u696d\u52d9","client_name":"\u56fd\u571f\u4ea4\u901a\u7701\u95a2\u6771\u5730\u65b9\u6574\u5099\u5c40\u8352\u5ddd\u4e0a\u6d41\u6cb3\u5ddd\u4e8b\u52d9\u6240","boring_xml_url":47,"boring_view_url":1,"soilmap_view_url":null,"soiltest_xml_url":47,"soiltest_view_url":47},{"id":554749,"code":"NGIC202202022-0005","latitude":"43.6996425","longitude":"145.10879722222","source_code":"","project_name":"","survey_name":"\u4e2d\u6a19\u6d25\u9053\u8def\u4e8b\u52d9\u6240\u7ba1\u5185\u5730\u8cea\u8abf\u67fb\u696d\u52d9","client_name":"\u56fd\u571f\u4ea4\u901a\u7701\u5317\u6d77\u9053\u958b\u767a\u5c40\u91e7\u8def\u958b\u767a\u5efa\u8a2d\u90e8\u672c\u90e8","boring_xml_url":47,"boring_view_url":1,"soilmap_view_url":null,"soiltest_xml_url":0,"soiltest_view_url":0},{"id":554748,"code":"NGIC202202022-0004","latitude":"43.700738611111","longitude":"145.10792","source_code":"","project_name":"","survey_name":"\u4e2d\u6a19\u6d25\u9053\u8def\u4e8b\u52d9\u6240\u7ba1\u5185\u5730\u8cea\u8abf\u67fb\u696d\u52d9","client_name":"\u56fd\u571f\u4ea4\u901a\u7701\u5317\u6d77\u9053\u958b\u767a\u5c40\u91e7\u8def\u958b\u767a\u5efa\u8a2d\u90e8\u672c\u90e8","boring_xml_url":47,"boring_view_url":1,"soilmap_view_url":null,"soiltest_xml_url":47,"soiltest_view_url":47},{"id":554747,"code":"NGIC202202022-0003","latitude":"44.045922222222","longitude":"145.104125","source_code":"","project_name":"","survey_name":"\u4e2d\u6a19\u6d25\u9053\u8def\u4e8b\u52d9\u6240\u7ba1\u5185\u5730\u8cea\u8abf\u67fb\u696d\u52d9","client_name":"\u56fd\u571f\u4ea4\u901a\u7701\u5317\u6d77\u9053\u958b\u767a\u5c40\u91e7\u8def\u958b\u767a\u5efa\u8a2d\u90e8\u672c\u90e8","boring_xml_url":47,"boring_view_url":1,"soilmap_view_url":null,"soiltest_xml_url":0,"soiltest_view_url":0},{"id":554746,"code":"NGIC202202022-0002","latitude":"44.045419444444","longitude":"145.10345277778","source_code":"","project_name":"","survey_name":"\u4e2d\u6a19\u6d25\u9053\u8def\u4e8b\u52d9\u6240\u7ba1\u5185\u5730\u8cea\u8abf\u67fb\u696d\u52d9","client_name":"\u56fd\u571f\u4ea4\u901a\u7701\u5317\u6d77\u9053\u958b\u767a\u5c40\u91e7\u8def\u958b\u767a\u5efa\u8a2d\u90e8\u672c\u90e8","boring_xml_url":47,"boring_view_url":1,"soilmap_view_url":null,"soiltest_xml_url":0,"soiltest_view_url":0},{"id":554745,"code":"NGIC202202022-0001","latitude":"44.045369444444","longitude":"145.10354166667","source_code":"","project_name":"","survey_name":"\u4e2d\u6a19\u6d25\u9053\u8def\u4e8b\u52d9\u6240\u7ba1\u5185\u5730\u8cea\u8abf\u67fb\u696d\u52d9","client_name":"\u56fd\u571f\u4ea4\u901a\u7701\u5317\u6d77\u9053\u958b\u767a\u5c40\u91e7\u8def\u958b\u767a\u5efa\u8a2d\u90e8\u672c\u90e8","boring_xml_url":47,"boring_view_url":1,"soilmap_view_url":null,"soiltest_xml_url":0,"soiltest_view_url":0},{"id":554653,"code":"NGIC202202111-0006","latitude":"43.908136111111","longitude":"141.69721388889","source_code":"","project_name":"","survey_name":"\u7559\u840c\u5ddd\u5de5\u4e8b\u7b87\u6240\u5730\u8cea\u8abf\u67fb\u5916\u696d\u52d9","client_name":"\u56fd\u571f\u4ea4\u901a\u7701\u5317\u6d77\u9053\u958b\u767a\u5c40\u7559\u840c\u958b\u767a\u5efa\u8a2d\u90e8\u672c\u90e8","boring_xml_url":47,"boring_view_url":1,"soilmap_view_url":null,"soiltest_xml_url":0,"soiltest_view_url":0},{"id":554652,"code":"NGIC202202111-0005","latitude":"43.936941666667","longitude":"141.66497222222","source_code":"","project_name":"","survey_name":"\u7559\u840c\u5ddd\u5de5\u4e8b\u7b87\u6240\u5730\u8cea\u8abf\u67fb\u5916\u696d\u52d9","client_name":"\u56fd\u571f\u4ea4\u901a\u7701\u5317\u6d77\u9053\u958b\u767a\u5c40\u7559\u840c\u958b\u767a\u5efa\u8a2d\u90e8\u672c\u90e8","boring_xml_url":47,"boring_view_url":1,"soilmap_view_url":null,"soiltest_xml_url":47,"soiltest_view_url":47},{"id":554651,"code":"NGIC202202111-0004","latitude":"43.939608333333","longitude":"141.66219722222","source_code":"","project_name":"","survey_name":"\u7559\u840c\u5ddd\u5de5\u4e8b\u7b87\u6240\u5730\u8cea\u8abf\u67fb\u5916\u696d\u52d9","client_name":"\u56fd\u571f\u4ea4\u901a\u7701\u5317\u6d77\u9053\u958b\u767a\u5c40\u7559\u840c\u958b\u767a\u5efa\u8a2d\u90e8\u672c\u90e8","boring_xml_url":47,"boring_view_url":1,"soilmap_view_url":null,"soiltest_xml_url":47,"soiltest_view_url":47}]}}