{"header":{"xyz":{"source":[],"mosaic":false},"page":3650,"raw":{"soiltest_result":"0","bbox":"57.598333,109.544722,1.933333,163.806111","page":"3650"},"conditions":{"soiltest_result":0,"north":57.598333,"west":109.544722,"south":1.933333,"east":163.806111},"success":true,"message":""},"data":{"meta":{"total":212844,"page":3650,"pages":7095,"count":30},"values":[{"id":211075,"code":"B4KJ201801009-9324","latitude":"32.877","longitude":"130.97425","source_code":"QS20098985790200190879","project_name":"\u7acb\u91ce\u30c0\u30e0\u5730\u8cea\u8abf\u67fb(\u305d\u306e1)\u696d\u52d9","survey_name":"\u7acb\u91ce\u30c0\u30e0\u5730\u8cea\u8abf\u67fb(\u305d\u306e1)\u696d\u52d9","client_name":"\u5efa\u8a2d\u7701\u4e5d\u5dde\u5730\u65b9\u5efa\u8a2d\u5c40\u718a\u672c\u5de5\u4e8b\u4e8b\u52d9\u6240","boring_xml_url":49,"boring_view_url":1,"soilmap_view_url":null,"soiltest_xml_url":0,"soiltest_view_url":0},{"id":211074,"code":"B4KJ201801009-9323","latitude":"32.87764","longitude":"130.97322","source_code":"QS20098985790200190878","project_name":"\u7acb\u91ce\u30c0\u30e0\u5730\u8cea\u8abf\u67fb(\u305d\u306e1)\u696d\u52d9","survey_name":"\u7acb\u91ce\u30c0\u30e0\u5730\u8cea\u8abf\u67fb(\u305d\u306e1)\u696d\u52d9","client_name":"\u5efa\u8a2d\u7701\u4e5d\u5dde\u5730\u65b9\u5efa\u8a2d\u5c40\u718a\u672c\u5de5\u4e8b\u4e8b\u52d9\u6240","boring_xml_url":49,"boring_view_url":1,"soilmap_view_url":null,"soiltest_xml_url":0,"soiltest_view_url":0},{"id":211073,"code":"B4KJ201801009-9322","latitude":"32.87825","longitude":"130.97483","source_code":"QS20098985790200190877","project_name":"\u7acb\u91ce\u30c0\u30e0\u5730\u8cea\u8abf\u67fb(\u305d\u306e1)\u696d\u52d9","survey_name":"\u7acb\u91ce\u30c0\u30e0\u5730\u8cea\u8abf\u67fb(\u305d\u306e1)\u696d\u52d9","client_name":"\u5efa\u8a2d\u7701\u4e5d\u5dde\u5730\u65b9\u5efa\u8a2d\u5c40\u718a\u672c\u5de5\u4e8b\u4e8b\u52d9\u6240","boring_xml_url":49,"boring_view_url":1,"soilmap_view_url":null,"soiltest_xml_url":0,"soiltest_view_url":0},{"id":211072,"code":"B4KJ201801009-9321","latitude":"32.87561","longitude":"130.97286","source_code":"QS20098985790200190876","project_name":"\u7acb\u91ce\u30c0\u30e0\u5730\u8cea\u8abf\u67fb(\u305d\u306e1)\u696d\u52d9","survey_name":"\u7acb\u91ce\u30c0\u30e0\u5730\u8cea\u8abf\u67fb(\u305d\u306e1)\u696d\u52d9","client_name":"\u5efa\u8a2d\u7701\u4e5d\u5dde\u5730\u65b9\u5efa\u8a2d\u5c40\u718a\u672c\u5de5\u4e8b\u4e8b\u52d9\u6240","boring_xml_url":49,"boring_view_url":1,"soilmap_view_url":null,"soiltest_xml_url":0,"soiltest_view_url":0},{"id":211071,"code":"B4KJ201801009-9320","latitude":"32.87561","longitude":"130.97178","source_code":"QS20098985790200190875","project_name":"\u7acb\u91ce\u30c0\u30e0\u5730\u8cea\u8abf\u67fb(\u305d\u306e2)\u696d\u52d9","survey_name":"\u7acb\u91ce\u30c0\u30e0\u5730\u8cea\u8abf\u67fb(\u305d\u306e2)\u696d\u52d9","client_name":"\u5efa\u8a2d\u7701\u4e5d\u5dde\u5730\u65b9\u5efa\u8a2d\u5c40\u718a\u672c\u5de5\u4e8b\u4e8b\u52d9\u6240","boring_xml_url":49,"boring_view_url":1,"soilmap_view_url":null,"soiltest_xml_url":0,"soiltest_view_url":0},{"id":211070,"code":"B4KJ201801009-9319","latitude":"32.8755","longitude":"130.97208","source_code":"QS20098985790200190874","project_name":"\u7acb\u91ce\u30c0\u30e0\u5730\u8cea\u8abf\u67fb(\u305d\u306e2)\u696d\u52d9","survey_name":"\u7acb\u91ce\u30c0\u30e0\u5730\u8cea\u8abf\u67fb(\u305d\u306e2)\u696d\u52d9","client_name":"\u5efa\u8a2d\u7701\u4e5d\u5dde\u5730\u65b9\u5efa\u8a2d\u5c40\u718a\u672c\u5de5\u4e8b\u4e8b\u52d9\u6240","boring_xml_url":49,"boring_view_url":1,"soilmap_view_url":null,"soiltest_xml_url":0,"soiltest_view_url":0},{"id":211069,"code":"B4KJ201801009-9318","latitude":"32.87531","longitude":"130.97231","source_code":"QS20098985790200190873","project_name":"\u7acb\u91ce\u30c0\u30e0\u5730\u8cea\u8abf\u67fb(\u305d\u306e2)\u696d\u52d9","survey_name":"\u7acb\u91ce\u30c0\u30e0\u5730\u8cea\u8abf\u67fb(\u305d\u306e2)\u696d\u52d9","client_name":"\u5efa\u8a2d\u7701\u4e5d\u5dde\u5730\u65b9\u5efa\u8a2d\u5c40\u718a\u672c\u5de5\u4e8b\u4e8b\u52d9\u6240","boring_xml_url":49,"boring_view_url":1,"soilmap_view_url":null,"soiltest_xml_url":0,"soiltest_view_url":0},{"id":211068,"code":"B4KJ201801009-9317","latitude":"32.87531","longitude":"130.97239","source_code":"QS20098985790200190872","project_name":"\u7acb\u91ce\u30c0\u30e0\u5730\u8cea\u8abf\u67fb(\u305d\u306e2)\u696d\u52d9","survey_name":"\u7acb\u91ce\u30c0\u30e0\u5730\u8cea\u8abf\u67fb(\u305d\u306e2)\u696d\u52d9","client_name":"\u5efa\u8a2d\u7701\u4e5d\u5dde\u5730\u65b9\u5efa\u8a2d\u5c40\u718a\u672c\u5de5\u4e8b\u4e8b\u52d9\u6240","boring_xml_url":49,"boring_view_url":1,"soilmap_view_url":null,"soiltest_xml_url":0,"soiltest_view_url":0},{"id":211067,"code":"B4KJ201801009-9316","latitude":"32.87486","longitude":"130.97347","source_code":"QS20098985790200190871","project_name":"\u7acb\u91ce\u30c0\u30e0\u5730\u8cea\u8abf\u67fb(\u305d\u306e3)\u696d\u52d9","survey_name":"\u7acb\u91ce\u30c0\u30e0\u5730\u8cea\u8abf\u67fb(\u305d\u306e3)\u696d\u52d9","client_name":"\u5efa\u8a2d\u7701\u4e5d\u5dde\u5730\u65b9\u5efa\u8a2d\u5c40\u718a\u672c\u5de5\u4e8b\u4e8b\u52d9\u6240","boring_xml_url":49,"boring_view_url":1,"soilmap_view_url":null,"soiltest_xml_url":0,"soiltest_view_url":0},{"id":211066,"code":"B4KJ201801009-9315","latitude":"32.87497","longitude":"130.97331","source_code":"QS20098985790200190870","project_name":"\u7acb\u91ce\u30c0\u30e0\u5730\u8cea\u8abf\u67fb(\u305d\u306e3)\u696d\u52d9","survey_name":"\u7acb\u91ce\u30c0\u30e0\u5730\u8cea\u8abf\u67fb(\u305d\u306e3)\u696d\u52d9","client_name":"\u5efa\u8a2d\u7701\u4e5d\u5dde\u5730\u65b9\u5efa\u8a2d\u5c40\u718a\u672c\u5de5\u4e8b\u4e8b\u52d9\u6240","boring_xml_url":49,"boring_view_url":1,"soilmap_view_url":null,"soiltest_xml_url":0,"soiltest_view_url":0},{"id":211065,"code":"B4KJ201801009-9314","latitude":"32.87486","longitude":"130.9725","source_code":"QS20098985790200190869","project_name":"\u7acb\u91ce\u30c0\u30e0\u5730\u8cea\u8abf\u67fb(\u305d\u306e3)\u696d\u52d9","survey_name":"\u7acb\u91ce\u30c0\u30e0\u5730\u8cea\u8abf\u67fb(\u305d\u306e3)\u696d\u52d9","client_name":"\u5efa\u8a2d\u7701\u4e5d\u5dde\u5730\u65b9\u5efa\u8a2d\u5c40\u718a\u672c\u5de5\u4e8b\u4e8b\u52d9\u6240","boring_xml_url":49,"boring_view_url":1,"soilmap_view_url":null,"soiltest_xml_url":0,"soiltest_view_url":0},{"id":211064,"code":"B4KJ201801009-9313","latitude":"32.87522","longitude":"130.97219","source_code":"QS20098985790200190868","project_name":"\u7acb\u91ce\u30c0\u30e0\u5730\u8cea\u8abf\u67fb(\u305d\u306e3)\u696d\u52d9","survey_name":"\u7acb\u91ce\u30c0\u30e0\u5730\u8cea\u8abf\u67fb(\u305d\u306e3)\u696d\u52d9","client_name":"\u5efa\u8a2d\u7701\u4e5d\u5dde\u5730\u65b9\u5efa\u8a2d\u5c40\u718a\u672c\u5de5\u4e8b\u4e8b\u52d9\u6240","boring_xml_url":49,"boring_view_url":1,"soilmap_view_url":null,"soiltest_xml_url":0,"soiltest_view_url":0},{"id":211063,"code":"B4KJ201801009-9312","latitude":"32.87636","longitude":"130.97533","source_code":"QS20098985790200190867","project_name":"\u7acb\u91ce\u30c0\u30e0\u5730\u8cea\u8abf\u67fb(\u305d\u306e4)\u696d\u52d9","survey_name":"\u7acb\u91ce\u30c0\u30e0\u5730\u8cea\u8abf\u67fb(\u305d\u306e4)\u696d\u52d9","client_name":"\u5efa\u8a2d\u7701\u4e5d\u5dde\u5730\u65b9\u5efa\u8a2d\u5c40\u718a\u672c\u5de5\u4e8b\u4e8b\u52d9\u6240","boring_xml_url":49,"boring_view_url":1,"soilmap_view_url":null,"soiltest_xml_url":0,"soiltest_view_url":0},{"id":211062,"code":"B4KJ201801009-9311","latitude":"32.87725","longitude":"130.97419","source_code":"QS20098985790200190866","project_name":"\u7acb\u91ce\u30c0\u30e0\u5730\u8cea\u8abf\u67fb(\u305d\u306e3)\u696d\u52d9","survey_name":"\u7acb\u91ce\u30c0\u30e0\u5730\u8cea\u8abf\u67fb(\u305d\u306e3)\u696d\u52d9","client_name":"\u5efa\u8a2d\u7701\u4e5d\u5dde\u5730\u65b9\u5efa\u8a2d\u5c40\u718a\u672c\u5de5\u4e8b\u4e8b\u52d9\u6240","boring_xml_url":49,"boring_view_url":1,"soilmap_view_url":null,"soiltest_xml_url":0,"soiltest_view_url":0},{"id":211061,"code":"B4KJ201801009-9310","latitude":"32.87614","longitude":"130.97244","source_code":"QS20098985790200190865","project_name":"\u7acb\u91ce\u30c0\u30e0\u5730\u8cea\u8abf\u67fb(\u305d\u306e3)\u696d\u52d9","survey_name":"\u7acb\u91ce\u30c0\u30e0\u5730\u8cea\u8abf\u67fb(\u305d\u306e3)\u696d\u52d9","client_name":"\u5efa\u8a2d\u7701\u4e5d\u5dde\u5730\u65b9\u5efa\u8a2d\u5c40\u718a\u672c\u5de5\u4e8b\u4e8b\u52d9\u6240","boring_xml_url":49,"boring_view_url":1,"soilmap_view_url":null,"soiltest_xml_url":0,"soiltest_view_url":0},{"id":211060,"code":"B4KJ201801009-9309","latitude":"32.87561","longitude":"130.97289","source_code":"QS20098985790200190864","project_name":"\u7acb\u91ce\u30c0\u30e0\u5730\u8cea\u8abf\u67fb(\u305d\u306e3)\u696d\u52d9","survey_name":"\u7acb\u91ce\u30c0\u30e0\u5730\u8cea\u8abf\u67fb(\u305d\u306e3)\u696d\u52d9","client_name":"\u5efa\u8a2d\u7701\u4e5d\u5dde\u5730\u65b9\u5efa\u8a2d\u5c40\u718a\u672c\u5de5\u4e8b\u4e8b\u52d9\u6240","boring_xml_url":49,"boring_view_url":1,"soilmap_view_url":null,"soiltest_xml_url":0,"soiltest_view_url":0},{"id":211059,"code":"B4KJ201801009-9308","latitude":"32.8755","longitude":"130.97311","source_code":"QS20098985790200190863","project_name":"\u7acb\u91ce\u30c0\u30e0\u5730\u8cea\u8abf\u67fb(\u305d\u306e3)\u696d\u52d9","survey_name":"\u7acb\u91ce\u30c0\u30e0\u5730\u8cea\u8abf\u67fb(\u305d\u306e3)\u696d\u52d9","client_name":"\u5efa\u8a2d\u7701\u4e5d\u5dde\u5730\u65b9\u5efa\u8a2d\u5c40\u718a\u672c\u5de5\u4e8b\u4e8b\u52d9\u6240","boring_xml_url":49,"boring_view_url":1,"soilmap_view_url":null,"soiltest_xml_url":0,"soiltest_view_url":0},{"id":211058,"code":"B4KJ201801009-9307","latitude":"32.87539","longitude":"130.97336","source_code":"QS20098985790200190862","project_name":"\u7acb\u91ce\u30c0\u30e0\u5730\u8cea\u8abf\u67fb(\u305d\u306e3)\u696d\u52d9","survey_name":"\u7acb\u91ce\u30c0\u30e0\u5730\u8cea\u8abf\u67fb(\u305d\u306e3)\u696d\u52d9","client_name":"\u5efa\u8a2d\u7701\u4e5d\u5dde\u5730\u65b9\u5efa\u8a2d\u5c40\u718a\u672c\u5de5\u4e8b\u4e8b\u52d9\u6240","boring_xml_url":49,"boring_view_url":1,"soilmap_view_url":null,"soiltest_xml_url":0,"soiltest_view_url":0},{"id":211057,"code":"B4KJ201801009-9306","latitude":"32.87361","longitude":"130.93531","source_code":"QS20098985790200190861","project_name":"\u7acb\u91ce\u30c0\u30e0\u539f\u77f3\u5c71\u5730\u8cea\u8abf\u67fb(\u305d\u306e2)\u696d\u52d9","survey_name":"\u7acb\u91ce\u30c0\u30e0\u539f\u77f3\u5c71\u5730\u8cea\u8abf\u67fb(\u305d\u306e2)\u696d\u52d9","client_name":"\u5efa\u8a2d\u7701\u4e5d\u5dde\u5730\u65b9\u5efa\u8a2d\u5c40\u7acb\u91ce\u30c0\u30e0\u5de5\u4e8b\u4e8b\u52d9\u6240","boring_xml_url":49,"boring_view_url":1,"soilmap_view_url":null,"soiltest_xml_url":0,"soiltest_view_url":0},{"id":211056,"code":"B4KJ201801009-9305","latitude":"32.87231","longitude":"130.93358","source_code":"QS20098985790200190860","project_name":"\u7acb\u91ce\u30c0\u30e0\u539f\u77f3\u5c71\u5730\u8cea\u8abf\u67fb(\u305d\u306e2)\u696d\u52d9","survey_name":"\u7acb\u91ce\u30c0\u30e0\u539f\u77f3\u5c71\u5730\u8cea\u8abf\u67fb(\u305d\u306e2)\u696d\u52d9","client_name":"\u5efa\u8a2d\u7701\u4e5d\u5dde\u5730\u65b9\u5efa\u8a2d\u5c40\u7acb\u91ce\u30c0\u30e0\u5de5\u4e8b\u4e8b\u52d9\u6240","boring_xml_url":49,"boring_view_url":1,"soilmap_view_url":null,"soiltest_xml_url":0,"soiltest_view_url":0},{"id":211055,"code":"B4KJ201801009-9304","latitude":"32.87272","longitude":"130.93464","source_code":"QS20098985790200190859","project_name":"\u7acb\u91ce\u30c0\u30e0\u539f\u77f3\u5c71\u5730\u8cea\u8abf\u67fb(\u305d\u306e2)\u696d\u52d9","survey_name":"\u7acb\u91ce\u30c0\u30e0\u539f\u77f3\u5c71\u5730\u8cea\u8abf\u67fb(\u305d\u306e2)\u696d\u52d9","client_name":"\u5efa\u8a2d\u7701\u4e5d\u5dde\u5730\u65b9\u5efa\u8a2d\u5c40\u7acb\u91ce\u30c0\u30e0\u5de5\u4e8b\u4e8b\u52d9\u6240","boring_xml_url":49,"boring_view_url":1,"soilmap_view_url":null,"soiltest_xml_url":0,"soiltest_view_url":0},{"id":211054,"code":"B4KJ201801009-9303","latitude":"32.87342","longitude":"130.9345","source_code":"QS20098985790200190858","project_name":"\u7acb\u91ce\u30c0\u30e0\u539f\u77f3\u5c71\u5730\u8cea\u8abf\u67fb(\u305d\u306e2)\u696d\u52d9","survey_name":"\u7acb\u91ce\u30c0\u30e0\u539f\u77f3\u5c71\u5730\u8cea\u8abf\u67fb(\u305d\u306e2)\u696d\u52d9","client_name":"\u5efa\u8a2d\u7701\u4e5d\u5dde\u5730\u65b9\u5efa\u8a2d\u5c40\u7acb\u91ce\u30c0\u30e0\u5de5\u4e8b\u4e8b\u52d9\u6240","boring_xml_url":49,"boring_view_url":1,"soilmap_view_url":null,"soiltest_xml_url":0,"soiltest_view_url":0},{"id":211053,"code":"B4KJ201801009-9302","latitude":"32.87775","longitude":"130.94664","source_code":"QS20098985790200190857","project_name":"\u7acb\u91ce\u30c0\u30e0\u539f\u77f3\u5c71\u5730\u8cea\u8abf\u67fb\u696d\u52d9","survey_name":"\u7acb\u91ce\u30c0\u30e0\u539f\u77f3\u5c71\u5730\u8cea\u8abf\u67fb\u696d\u52d9","client_name":"\u5efa\u8a2d\u7701\u4e5d\u5dde\u5730\u65b9\u5efa\u8a2d\u5c40\u718a\u672c\u5de5\u4e8b\u4e8b\u52d9\u6240","boring_xml_url":49,"boring_view_url":1,"soilmap_view_url":null,"soiltest_xml_url":0,"soiltest_view_url":0},{"id":211052,"code":"B4KJ201801009-9301","latitude":"32.87283","longitude":"130.93233","source_code":"QS20098985790200190856","project_name":"\u7acb\u91ce\u30c0\u30e0\u539f\u77f3\u5c71\u5730\u8cea\u8abf\u67fb\u696d\u52d9","survey_name":"\u7acb\u91ce\u30c0\u30e0\u539f\u77f3\u5c71\u5730\u8cea\u8abf\u67fb\u696d\u52d9","client_name":"\u5efa\u8a2d\u7701\u4e5d\u5dde\u5730\u65b9\u5efa\u8a2d\u5c40\u718a\u672c\u5de5\u4e8b\u4e8b\u52d9\u6240","boring_xml_url":49,"boring_view_url":1,"soilmap_view_url":null,"soiltest_xml_url":0,"soiltest_view_url":0},{"id":211051,"code":"B4KJ201801009-9300","latitude":"32.872","longitude":"130.93561","source_code":"QS20098985790200190855","project_name":"\u7acb\u91ce\u30c0\u30e0\u539f\u77f3\u5c71\u5730\u8cea\u8abf\u67fb\u696d\u52d9","survey_name":"\u7acb\u91ce\u30c0\u30e0\u539f\u77f3\u5c71\u5730\u8cea\u8abf\u67fb\u696d\u52d9","client_name":"\u5efa\u8a2d\u7701\u4e5d\u5dde\u5730\u65b9\u5efa\u8a2d\u5c40\u718a\u672c\u5de5\u4e8b\u4e8b\u52d9\u6240","boring_xml_url":49,"boring_view_url":1,"soilmap_view_url":null,"soiltest_xml_url":0,"soiltest_view_url":0},{"id":211050,"code":"B4KJ201801009-9299","latitude":"32.87508","longitude":"130.97339","source_code":"QS20098985790200190854","project_name":"\u7acb\u91ce\u30c0\u30e0\u5730\u8cea\u8abf\u67fb(\u305d\u306e2)\u696d\u52d9","survey_name":"\u7acb\u91ce\u30c0\u30e0\u5730\u8cea\u8abf\u67fb(\u305d\u306e2)\u696d\u52d9","client_name":"\u5efa\u8a2d\u7701\u4e5d\u5dde\u5730\u65b9\u5efa\u8a2d\u5c40\u718a\u672c\u5de5\u4e8b\u4e8b\u52d9\u6240","boring_xml_url":49,"boring_view_url":1,"soilmap_view_url":null,"soiltest_xml_url":0,"soiltest_view_url":0},{"id":211049,"code":"B4KJ201801009-9298","latitude":"32.87467","longitude":"130.97403","source_code":"QS20098985790200190853","project_name":"\u7acb\u91ce\u30c0\u30e0\u5730\u8cea\u8abf\u67fb(\u305d\u306e2)\u696d\u52d9","survey_name":"\u7acb\u91ce\u30c0\u30e0\u5730\u8cea\u8abf\u67fb(\u305d\u306e2)\u696d\u52d9","client_name":"\u5efa\u8a2d\u7701\u4e5d\u5dde\u5730\u65b9\u5efa\u8a2d\u5c40\u718a\u672c\u5de5\u4e8b\u4e8b\u52d9\u6240","boring_xml_url":49,"boring_view_url":1,"soilmap_view_url":null,"soiltest_xml_url":0,"soiltest_view_url":0},{"id":211048,"code":"B4KJ201801009-9297","latitude":"32.87497","longitude":"130.97333","source_code":"QS20098985790200190852","project_name":"\u7acb\u91ce\u30c0\u30e0\u5730\u8cea\u8abf\u67fb(\u305d\u306e2)\u696d\u52d9","survey_name":"\u7acb\u91ce\u30c0\u30e0\u5730\u8cea\u8abf\u67fb(\u305d\u306e2)\u696d\u52d9","client_name":"\u5efa\u8a2d\u7701\u4e5d\u5dde\u5730\u65b9\u5efa\u8a2d\u5c40\u718a\u672c\u5de5\u4e8b\u4e8b\u52d9\u6240","boring_xml_url":49,"boring_view_url":1,"soilmap_view_url":null,"soiltest_xml_url":0,"soiltest_view_url":0},{"id":211047,"code":"B4KJ201801009-9296","latitude":"32.87492","longitude":"130.97344","source_code":"QS20098985790200190851","project_name":"\u7acb\u91ce\u30c0\u30e0\u5730\u8cea\u8abf\u67fb(\u305d\u306e2)\u696d\u52d9","survey_name":"\u7acb\u91ce\u30c0\u30e0\u5730\u8cea\u8abf\u67fb(\u305d\u306e2)\u696d\u52d9","client_name":"\u5efa\u8a2d\u7701\u4e5d\u5dde\u5730\u65b9\u5efa\u8a2d\u5c40\u718a\u672c\u5de5\u4e8b\u4e8b\u52d9\u6240","boring_xml_url":49,"boring_view_url":1,"soilmap_view_url":null,"soiltest_xml_url":0,"soiltest_view_url":0},{"id":211046,"code":"B4KJ201801009-9295","latitude":"32.87492","longitude":"130.97378","source_code":"QS20098985790200190850","project_name":"\u7acb\u91ce\u30c0\u30e0\u5730\u8cea\u8abf\u67fb(\u305d\u306e1)\u696d\u52d9","survey_name":"\u7acb\u91ce\u30c0\u30e0\u5730\u8cea\u8abf\u67fb(\u305d\u306e1)\u696d\u52d9","client_name":"\u5efa\u8a2d\u7701\u4e5d\u5dde\u5730\u65b9\u5efa\u8a2d\u5c40\u718a\u672c\u5de5\u4e8b\u4e8b\u52d9\u6240","boring_xml_url":49,"boring_view_url":1,"soilmap_view_url":null,"soiltest_xml_url":0,"soiltest_view_url":0}]}}