{"header":{"xyz":{"source":[],"mosaic":false},"page":3661,"raw":{"soiltest_result":"0","bbox":"57.598333,109.544722,1.933333,163.806111","page":"3661"},"conditions":{"soiltest_result":0,"north":57.598333,"west":109.544722,"south":1.933333,"east":163.806111},"success":true,"message":""},"data":{"meta":{"total":212844,"page":3661,"pages":7095,"count":30},"values":[{"id":210745,"code":"B4KJ201801009-8994","latitude":"32.72947","longitude":"130.61822","source_code":"QS20098985790200190549","project_name":"\u5e73\u621011\u5e74\u5ea6 \u718a\u672c\u5b87\u571f\u9053\u8def\u5730\u8cea\u8abf\u67fb(\u305d\u306e1)\u696d\u52d9","survey_name":"\u5e73\u621011\u5e74\u5ea6 \u718a\u672c\u5b87\u571f\u9053\u8def\u5730\u8cea\u8abf\u67fb(\u305d\u306e1)\u696d\u52d9","client_name":"\u5efa\u8a2d\u7701\u4e5d\u5dde\u5730\u65b9\u5efa\u8a2d\u5c40\u718a\u672c\u5de5\u4e8b\u4e8b\u52d9\u6240","boring_xml_url":49,"boring_view_url":1,"soilmap_view_url":null,"soiltest_xml_url":52,"soiltest_view_url":52},{"id":210744,"code":"B4KJ201801009-8993","latitude":"32.732","longitude":"130.6185","source_code":"QS20098985790200190548","project_name":"\u5e73\u621011\u5e74\u5ea6\u718a\u672c\u5b87\u9053\u8def\u5730\u8cea\u8abf\u67fb(\u305d\u306e1)\u696d\u52d9","survey_name":"\u5e73\u621011\u5e74\u5ea6\u718a\u672c\u5b87\u9053\u8def\u5730\u8cea\u8abf\u67fb(\u305d\u306e1)\u696d\u52d9","client_name":"\u5efa\u8a2d\u7701\u4e5d\u5dde\u5730\u65b9\u5efa\u8a2d\u5c40\u718a\u672c\u5de5\u4e8b\u4e8b\u52d9\u6240","boring_xml_url":49,"boring_view_url":1,"soilmap_view_url":null,"soiltest_xml_url":52,"soiltest_view_url":52},{"id":210743,"code":"B4KJ201801009-8992","latitude":"32.69669","longitude":"130.65142","source_code":"QS20098985790200190547","project_name":"\u5e73\u621010\u5e74\u5ea6 \u7dd1\u5ddd\u4e0b\u6d41\u90e8\u5730\u8cea\u8abf\u67fb\u696d\u52d9","survey_name":"\u5e73\u621010\u5e74\u5ea6 \u7dd1\u5ddd\u4e0b\u6d41\u90e8\u5730\u8cea\u8abf\u67fb\u696d\u52d9","client_name":"\u5efa\u8a2d\u7701\u4e5d\u5dde\u5730\u65b9\u5efa\u8a2d\u5c40\u718a\u672c\u5de5\u4e8b\u4e8b\u52d9\u6240","boring_xml_url":49,"boring_view_url":1,"soilmap_view_url":null,"soiltest_xml_url":52,"soiltest_view_url":52},{"id":210742,"code":"B4KJ201801009-8991","latitude":"32.69681","longitude":"130.65128","source_code":"QS20098985790200190546","project_name":"\u5e73\u621010\u5e74\u5ea6 \u7dd1\u5ddd\u4e0b\u6d41\u90e8\u5730\u8cea\u8abf\u67fb\u696d\u52d9","survey_name":"\u5e73\u621010\u5e74\u5ea6 \u7dd1\u5ddd\u4e0b\u6d41\u90e8\u5730\u8cea\u8abf\u67fb\u696d\u52d9","client_name":"\u5efa\u8a2d\u7701\u4e5d\u5dde\u5730\u65b9\u5efa\u8a2d\u5c40\u718a\u672c\u5de5\u4e8b\u4e8b\u52d9\u6240","boring_xml_url":49,"boring_view_url":1,"soilmap_view_url":null,"soiltest_xml_url":52,"soiltest_view_url":52},{"id":210741,"code":"B4KJ201801009-8990","latitude":"32.70586","longitude":"130.60619","source_code":"QS20098985790200190545","project_name":"\u5e73\u621010\u5e74\u5ea6 \u7dd1\u5ddd\u4e0b\u6d41\u90e8\u5730\u8cea\u8abf\u67fb\u696d\u52d9","survey_name":"\u5e73\u621010\u5e74\u5ea6 \u7dd1\u5ddd\u4e0b\u6d41\u90e8\u5730\u8cea\u8abf\u67fb\u696d\u52d9","client_name":"\u5efa\u8a2d\u7701\u4e5d\u5dde\u5730\u65b9\u5efa\u8a2d\u5c40\u718a\u672c\u5de5\u4e8b\u4e8b\u52d9\u6240","boring_xml_url":49,"boring_view_url":1,"soilmap_view_url":null,"soiltest_xml_url":52,"soiltest_view_url":52},{"id":210740,"code":"B4KJ201801009-8989","latitude":"32.70583","longitude":"130.60622","source_code":"QS20098985790200190544","project_name":"\u5e73\u621010\u5e74\u5ea6 \u7dd1\u5ddd\u4e0b\u6d41\u90e8\u5730\u8cea\u8abf\u67fb\u696d\u52d9","survey_name":"\u5e73\u621010\u5e74\u5ea6 \u7dd1\u5ddd\u4e0b\u6d41\u90e8\u5730\u8cea\u8abf\u67fb\u696d\u52d9","client_name":"\u5efa\u8a2d\u7701\u4e5d\u5dde\u5730\u65b9\u5efa\u8a2d\u5c40\u718a\u672c\u5de5\u4e8b\u4e8b\u52d9\u6240","boring_xml_url":49,"boring_view_url":1,"soilmap_view_url":null,"soiltest_xml_url":52,"soiltest_view_url":52},{"id":210739,"code":"B4KJ201801009-8988","latitude":"32.70061","longitude":"130.60828","source_code":"QS20098985790200190543","project_name":"\u5e73\u621010\u5e74\u5ea6 \u7dd1\u5ddd\u4e0b\u6d41\u90e8\u5730\u8cea\u8abf\u67fb\u696d\u52d9","survey_name":"\u5e73\u621010\u5e74\u5ea6 \u7dd1\u5ddd\u4e0b\u6d41\u90e8\u5730\u8cea\u8abf\u67fb\u696d\u52d9","client_name":"\u5efa\u8a2d\u7701\u4e5d\u5dde\u5730\u65b9\u5efa\u8a2d\u5c40\u718a\u672c\u5de5\u4e8b\u4e8b\u52d9\u6240","boring_xml_url":49,"boring_view_url":1,"soilmap_view_url":null,"soiltest_xml_url":52,"soiltest_view_url":52},{"id":210738,"code":"B4KJ201801009-8987","latitude":"32.70067","longitude":"130.60708","source_code":"QS20098985790200190542","project_name":"\u5e73\u621010\u5e74\u5ea6 \u7dd1\u5ddd\u4e0b\u6d41\u90e8\u5730\u8cea\u8abf\u67fb\u696d\u52d9","survey_name":"\u5e73\u621010\u5e74\u5ea6 \u7dd1\u5ddd\u4e0b\u6d41\u90e8\u5730\u8cea\u8abf\u67fb\u696d\u52d9","client_name":"\u5efa\u8a2d\u7701\u4e5d\u5dde\u5730\u65b9\u5efa\u8a2d\u5c40\u718a\u672c\u5de5\u4e8b\u4e8b\u52d9\u6240","boring_xml_url":49,"boring_view_url":1,"soilmap_view_url":null,"soiltest_xml_url":52,"soiltest_view_url":52},{"id":210737,"code":"B4KJ201801009-8986","latitude":"32.71758","longitude":"130.61411","source_code":"QS20098985790200190541","project_name":"\u5e73\u621010\u5e74\u5ea6 \u7dd1\u5ddd\u4e0b\u6d41\u90e8\u5730\u8cea\u8abf\u67fb\u696d\u52d9","survey_name":"\u5e73\u621010\u5e74\u5ea6 \u7dd1\u5ddd\u4e0b\u6d41\u90e8\u5730\u8cea\u8abf\u67fb\u696d\u52d9","client_name":"\u5efa\u8a2d\u7701\u4e5d\u5dde\u5730\u65b9\u5efa\u8a2d\u5c40\u718a\u672c\u5de5\u4e8b\u4e8b\u52d9\u6240","boring_xml_url":49,"boring_view_url":1,"soilmap_view_url":null,"soiltest_xml_url":52,"soiltest_view_url":52},{"id":210736,"code":"B4KJ201801009-8985","latitude":"32.71769","longitude":"130.61411","source_code":"QS20098985790200190540","project_name":"\u5e73\u621010\u5e74\u5ea6 \u7dd1\u5ddd\u4e0b\u6d41\u90e8\u5730\u8cea\u8abf\u67fb\u696d\u52d9","survey_name":"\u5e73\u621010\u5e74\u5ea6 \u7dd1\u5ddd\u4e0b\u6d41\u90e8\u5730\u8cea\u8abf\u67fb\u696d\u52d9","client_name":"\u5efa\u8a2d\u7701\u4e5d\u5dde\u5730\u65b9\u5efa\u8a2d\u5c40\u718a\u672c\u5de5\u4e8b\u4e8b\u52d9\u6240","boring_xml_url":49,"boring_view_url":1,"soilmap_view_url":null,"soiltest_xml_url":52,"soiltest_view_url":52},{"id":210735,"code":"B4KJ201801009-8984","latitude":"32.71789","longitude":"130.61183","source_code":"QS20098985790200190539","project_name":"\u5e73\u621010\u5e74\u5ea6 \u7dd1\u5ddd\u4e0b\u6d41\u90e8\u5730\u8cea\u8abf\u67fb\u696d\u52d9","survey_name":"\u5e73\u621010\u5e74\u5ea6 \u7dd1\u5ddd\u4e0b\u6d41\u90e8\u5730\u8cea\u8abf\u67fb\u696d\u52d9","client_name":"\u5efa\u8a2d\u7701\u4e5d\u5dde\u5730\u65b9\u5efa\u8a2d\u5c40\u718a\u672c\u5de5\u4e8b\u4e8b\u52d9\u6240","boring_xml_url":49,"boring_view_url":1,"soilmap_view_url":null,"soiltest_xml_url":52,"soiltest_view_url":52},{"id":210734,"code":"B4KJ201801009-8983","latitude":"32.718","longitude":"130.61183","source_code":"QS20098985790200190538","project_name":"\u5e73\u621010\u5e74\u5ea6 \u7dd1\u5ddd\u4e0b\u6d41\u90e8\u5730\u8cea\u8abf\u67fb\u696d\u52d9","survey_name":"\u5e73\u621010\u5e74\u5ea6 \u7dd1\u5ddd\u4e0b\u6d41\u90e8\u5730\u8cea\u8abf\u67fb\u696d\u52d9","client_name":"\u5efa\u8a2d\u7701\u4e5d\u5dde\u5730\u65b9\u5efa\u8a2d\u5c40\u718a\u672c\u5de5\u4e8b\u4e8b\u52d9\u6240","boring_xml_url":49,"boring_view_url":1,"soilmap_view_url":null,"soiltest_xml_url":52,"soiltest_view_url":52},{"id":210733,"code":"B4KJ201801009-8982","latitude":"32.77183","longitude":"130.61694","source_code":"QS20098985790200190537","project_name":"\u767d\u5ddd\u8010\u9707\u7b87\u6240\u5730\u8cea\u8abf\u67fb\u696d\u52d9","survey_name":"\u767d\u5ddd\u8010\u9707\u7b87\u6240\u5730\u8cea\u8abf\u67fb\u696d\u52d9","client_name":"\u5efa\u8a2d\u7701\u4e5d\u5dde\u5730\u65b9\u5efa\u8a2d\u5c40\u718a\u672c\u5de5\u4e8b\u4e8b\u52d9\u6240","boring_xml_url":49,"boring_view_url":1,"soilmap_view_url":null,"soiltest_xml_url":52,"soiltest_view_url":52},{"id":210732,"code":"B4KJ201801009-8981","latitude":"32.78039","longitude":"130.60994","source_code":"QS20098985790200190536","project_name":"\u767d\u5ddd\u8010\u9707\u7b87\u6240\u5730\u8cea\u8abf\u67fb\u696d\u52d9","survey_name":"\u767d\u5ddd\u8010\u9707\u7b87\u6240\u5730\u8cea\u8abf\u67fb\u696d\u52d9","client_name":"\u5efa\u8a2d\u7701\u4e5d\u5dde\u5730\u65b9\u5efa\u8a2d\u5c40\u718a\u672c\u5de5\u4e8b\u4e8b\u52d9\u6240","boring_xml_url":49,"boring_view_url":1,"soilmap_view_url":null,"soiltest_xml_url":0,"soiltest_view_url":0},{"id":210731,"code":"B4KJ201801009-8980","latitude":"32.69692","longitude":"130.65142","source_code":"QS20098985790200190535","project_name":"\u6d5c\u6238\u5ddd\u8010\u9707\u7b87\u6240\u5730\u8cea\u8abf\u67fb\u696d\u52d9","survey_name":"\u6d5c\u6238\u5ddd\u8010\u9707\u7b87\u6240\u5730\u8cea\u8abf\u67fb\u696d\u52d9","client_name":"\u5efa\u8a2d\u7701\u4e5d\u5dde\u5730\u65b9\u5efa\u8a2d\u5c40\u718a\u672c\u5de5\u4e8b\u4e8b\u52d9\u6240","boring_xml_url":49,"boring_view_url":1,"soilmap_view_url":null,"soiltest_xml_url":52,"soiltest_view_url":52},{"id":210730,"code":"B4KJ201801009-8979","latitude":"32.69681","longitude":"130.65156","source_code":"QS20098985790200190534","project_name":"\u6d5c\u6238\u5ddd\u8010\u9707\u7b87\u6240\u5730\u8cea\u8abf\u67fb\u696d\u52d9","survey_name":"\u6d5c\u6238\u5ddd\u8010\u9707\u7b87\u6240\u5730\u8cea\u8abf\u67fb\u696d\u52d9","client_name":"\u5efa\u8a2d\u7701\u4e5d\u5dde\u5730\u65b9\u5efa\u8a2d\u5c40\u718a\u672c\u5de5\u4e8b\u4e8b\u52d9\u6240","boring_xml_url":49,"boring_view_url":1,"soilmap_view_url":null,"soiltest_xml_url":52,"soiltest_view_url":52},{"id":210729,"code":"B4KJ201801009-8978","latitude":"32.69581","longitude":"130.65236","source_code":"QS20098985790200190533","project_name":"\u6d5c\u6238\u5ddd\u8010\u9707\u7b87\u6240\u5730\u8cea\u8abf\u67fb\u696d\u52d9","survey_name":"\u6d5c\u6238\u5ddd\u8010\u9707\u7b87\u6240\u5730\u8cea\u8abf\u67fb\u696d\u52d9","client_name":"\u5efa\u8a2d\u7701\u4e5d\u5dde\u5730\u65b9\u5efa\u8a2d\u5c40\u718a\u672c\u5de5\u4e8b\u4e8b\u52d9\u6240","boring_xml_url":49,"boring_view_url":1,"soilmap_view_url":null,"soiltest_xml_url":52,"soiltest_view_url":52},{"id":210728,"code":"B4KJ201801009-8977","latitude":"32.69592","longitude":"130.65225","source_code":"QS20098985790200190532","project_name":"\u6d5c\u6238\u5ddd\u8010\u9707\u7b87\u6240\u5730\u8cea\u8abf\u67fb\u696d\u52d9","survey_name":"\u6d5c\u6238\u5ddd\u8010\u9707\u7b87\u6240\u5730\u8cea\u8abf\u67fb\u696d\u52d9","client_name":"\u5efa\u8a2d\u7701\u4e5d\u5dde\u5730\u65b9\u5efa\u8a2d\u5c40\u718a\u672c\u5de5\u4e8b\u4e8b\u52d9\u6240","boring_xml_url":49,"boring_view_url":1,"soilmap_view_url":null,"soiltest_xml_url":52,"soiltest_view_url":52},{"id":210727,"code":"B4KJ201801009-8976","latitude":"32.70917","longitude":"130.65703","source_code":"QS20098985790200190531","project_name":"\u7dd1\u5ddd\u4e0b\u6d41\u90e8\u8010\u9707\u7b87\u6240\u5730\u8cea\u8abf\u67fb\u696d\u52d9","survey_name":"\u7dd1\u5ddd\u4e0b\u6d41\u90e8\u8010\u9707\u7b87\u6240\u5730\u8cea\u8abf\u67fb\u696d\u52d9","client_name":"\u5efa\u8a2d\u7701\u4e5d\u5dde\u5730\u65b9\u5efa\u8a2d\u5c40\u718a\u672c\u5de5\u4e8b\u4e8b\u52d9\u6240","boring_xml_url":49,"boring_view_url":1,"soilmap_view_url":null,"soiltest_xml_url":0,"soiltest_view_url":0},{"id":210726,"code":"B4KJ201801009-8975","latitude":"32.7092","longitude":"130.6569","source_code":"QS20098985790200190530","project_name":"\u7dd1\u5ddd\u4e0b\u6d41\u90e8\u8010\u9707\u7b87\u6240\u5730\u8cea\u8abf\u67fb\u696d\u52d9","survey_name":"\u7dd1\u5ddd\u4e0b\u6d41\u90e8\u8010\u9707\u7b87\u6240\u5730\u8cea\u8abf\u67fb\u696d\u52d9","client_name":"\u5efa\u8a2d\u7701\u4e5d\u5dde\u5730\u65b9\u5efa\u8a2d\u5c40\u718a\u672c\u5de5\u4e8b\u4e8b\u52d9\u6240","boring_xml_url":49,"boring_view_url":1,"soilmap_view_url":null,"soiltest_xml_url":52,"soiltest_view_url":52},{"id":210725,"code":"B4KJ201801009-8974","latitude":"32.69308","longitude":"130.64847","source_code":"QS20098985790200190529","project_name":"\u7dd1\u5ddd\u4e0b\u6d41\u90e8\u8010\u9707\u7b87\u6240\u5730\u8cea\u8abf\u67fb\u696d\u52d9","survey_name":"\u7dd1\u5ddd\u4e0b\u6d41\u90e8\u8010\u9707\u7b87\u6240\u5730\u8cea\u8abf\u67fb\u696d\u52d9","client_name":"\u5efa\u8a2d\u7701\u4e5d\u5dde\u5730\u65b9\u5efa\u8a2d\u5c40\u718a\u672c\u5de5\u4e8b\u4e8b\u52d9\u6240","boring_xml_url":49,"boring_view_url":1,"soilmap_view_url":null,"soiltest_xml_url":52,"soiltest_view_url":52},{"id":210724,"code":"B4KJ201801009-8973","latitude":"32.71742","longitude":"130.61703","source_code":"QS20098985790200190528","project_name":"\u7dd1\u5ddd\u4e0b\u6d41\u90e8\u8010\u9707\u7b87\u6240\u5730\u8cea\u8abf\u67fb\u696d\u52d9","survey_name":"\u7dd1\u5ddd\u4e0b\u6d41\u90e8\u8010\u9707\u7b87\u6240\u5730\u8cea\u8abf\u67fb\u696d\u52d9","client_name":"\u5efa\u8a2d\u7701\u4e5d\u5dde\u5730\u65b9\u5efa\u8a2d\u5c40\u718a\u672c\u5de5\u4e8b\u4e8b\u52d9\u6240","boring_xml_url":49,"boring_view_url":1,"soilmap_view_url":null,"soiltest_xml_url":52,"soiltest_view_url":52},{"id":210723,"code":"B4KJ201801009-8972","latitude":"32.71725","longitude":"130.61706","source_code":"QS20098985790200190527","project_name":"\u7dd1\u5ddd\u4e0b\u6d41\u90e8\u8010\u9707\u7b87\u6240\u5730\u8cea\u8abf\u67fb\u696d\u52d9","survey_name":"\u7dd1\u5ddd\u4e0b\u6d41\u90e8\u8010\u9707\u7b87\u6240\u5730\u8cea\u8abf\u67fb\u696d\u52d9","client_name":"\u5efa\u8a2d\u7701\u4e5d\u5dde\u5730\u65b9\u5efa\u8a2d\u5c40\u718a\u672c\u5de5\u4e8b\u4e8b\u52d9\u6240","boring_xml_url":49,"boring_view_url":1,"soilmap_view_url":null,"soiltest_xml_url":52,"soiltest_view_url":52},{"id":210722,"code":"B4KJ201801009-8971","latitude":"32.78031","longitude":"130.61019","source_code":"QS20098985790200190526","project_name":"\u767d\u5ddd\u5824\u9632\u8010\u9707\u5bfe\u7b56\u691c\u8a0e\u696d\u52d9","survey_name":"\u767d\u5ddd\u5824\u9632\u8010\u9707\u5bfe\u7b56\u691c\u8a0e\u696d\u52d9","client_name":"\u5efa\u8a2d\u7701\u4e5d\u5dde\u5730\u65b9\u5efa\u8a2d\u5c40\u718a\u672c\u5de5\u4e8b\u4e8b\u52d9\u6240","boring_xml_url":49,"boring_view_url":1,"soilmap_view_url":null,"soiltest_xml_url":52,"soiltest_view_url":52},{"id":210721,"code":"B4KJ201801009-8970","latitude":"32.78089","longitude":"130.60872","source_code":"QS20098985790200190525","project_name":"\u767d\u5ddd\u5824\u9632\u8010\u9707\u5bfe\u7b56\u5de5\u6cd5\u691c\u8a0e\u696d\u52d9","survey_name":"\u767d\u5ddd\u5824\u9632\u8010\u9707\u5bfe\u7b56\u5de5\u6cd5\u691c\u8a0e\u696d\u52d9","client_name":"\u5efa\u8a2d\u7701\u4e5d\u5dde\u5730\u65b9\u5efa\u8a2d\u5c40\u718a\u672c\u5de5\u4e8b\u4e8b\u52d9\u6240","boring_xml_url":49,"boring_view_url":1,"soilmap_view_url":null,"soiltest_xml_url":52,"soiltest_view_url":52},{"id":210720,"code":"B4KJ201801009-8969","latitude":"32.72611","longitude":"130.67014","source_code":"QS20098985790200190524","project_name":"\u9577\u786f\u6a0b\u7ba1\u5b9f\u65bd\u8a2d\u8a08\u696d\u52d9","survey_name":"\u9577\u786f\u6a0b\u7ba1\u5b9f\u65bd\u8a2d\u8a08\u696d\u52d9","client_name":"\u5efa\u8a2d\u7701\u4e5d\u5dde\u5730\u65b9\u5efa\u8a2d\u5c40\u718a\u672c\u5de5\u4e8b\u4e8b\u52d9\u6240","boring_xml_url":49,"boring_view_url":1,"soilmap_view_url":null,"soiltest_xml_url":52,"soiltest_view_url":52},{"id":210719,"code":"B4KJ201801009-8968","latitude":"32.72617","longitude":"130.67158","source_code":"QS20098985790200190523","project_name":"\u9577\u786f\u6a0b\u7ba1\u5b9f\u65bd\u8a2d\u8a08\u696d\u52d9","survey_name":"\u9577\u786f\u6a0b\u7ba1\u5b9f\u65bd\u8a2d\u8a08\u696d\u52d9","client_name":"\u5efa\u8a2d\u7701\u4e5d\u5dde\u5730\u65b9\u5efa\u8a2d\u5c40\u718a\u672c\u5de5\u4e8b\u4e8b\u52d9\u6240","boring_xml_url":49,"boring_view_url":1,"soilmap_view_url":null,"soiltest_xml_url":52,"soiltest_view_url":52},{"id":210718,"code":"B4KJ201801009-8967","latitude":"32.69444","longitude":"130.65119","source_code":"QS20098985790200190522","project_name":"\u6d5c\u6238\u5ddd\u6392\u6c34\u6a0b\u7ba1\u5730\u8cea\u8abf\u67fb\u696d\u52d9","survey_name":"\u6d5c\u6238\u5ddd\u6392\u6c34\u6a0b\u7ba1\u5730\u8cea\u8abf\u67fb\u696d\u52d9","client_name":"\u5efa\u8a2d\u7701\u4e5d\u5dde\u5730\u65b9\u5efa\u8a2d\u5c40\u718a\u672c\u5de5\u4e8b\u4e8b\u52d9\u6240","boring_xml_url":49,"boring_view_url":1,"soilmap_view_url":null,"soiltest_xml_url":52,"soiltest_view_url":52},{"id":210717,"code":"B4KJ201801009-8966","latitude":"32.6947","longitude":"130.6508","source_code":"QS20098985790200190521","project_name":"\u6d5c\u6238\u5ddd\u6392\u6c34\u6a0b\u7ba1\u5730\u8cea\u8abf\u67fb\u696d\u52d9","survey_name":"\u6d5c\u6238\u5ddd\u6392\u6c34\u6a0b\u7ba1\u5730\u8cea\u8abf\u67fb\u696d\u52d9","client_name":"\u5efa\u8a2d\u7701\u4e5d\u5dde\u5730\u65b9\u5efa\u8a2d\u5c40\u718a\u672c\u5de5\u4e8b\u4e8b\u52d9\u6240","boring_xml_url":49,"boring_view_url":1,"soilmap_view_url":null,"soiltest_xml_url":52,"soiltest_view_url":52},{"id":210716,"code":"B4KJ201801009-8965","latitude":"32.7178","longitude":"130.6172","source_code":"QS20098985790200190520","project_name":"\u5185\u7530\u5ddd\u6392\u6c34\u6a5f\u5834\u5730\u8cea\u8abf\u67fb\u696d\u52d9","survey_name":"\u5185\u7530\u5ddd\u6392\u6c34\u6a5f\u5834\u5730\u8cea\u8abf\u67fb\u696d\u52d9","client_name":"\u5efa\u8a2d\u7701\u4e5d\u5dde\u5730\u65b9\u5efa\u8a2d\u5c40\u718a\u672c\u5de5\u4e8b\u4e8b\u52d9\u6240","boring_xml_url":49,"boring_view_url":1,"soilmap_view_url":null,"soiltest_xml_url":52,"soiltest_view_url":52}]}}