{"header":{"xyz":{"source":[],"mosaic":false},"page":3666,"raw":{"soiltest_result":"0","bbox":"57.598333,109.544722,1.933333,163.806111","page":"3666"},"conditions":{"soiltest_result":0,"north":57.598333,"west":109.544722,"south":1.933333,"east":163.806111},"success":true,"message":""},"data":{"meta":{"total":212844,"page":3666,"pages":7095,"count":30},"values":[{"id":210595,"code":"B4KJ201801009-8844","latitude":"32.73389","longitude":"130.764","source_code":"QS20098985790200190399","project_name":"\u7dd1\u5ddd\u5824\u4f53\u6750\u6599\u8abf\u67fb(\u305d\u306e3)\u696d\u52d9","survey_name":"\u7dd1\u5ddd\u5824\u4f53\u6750\u6599\u8abf\u67fb(\u305d\u306e3)\u696d\u52d9","client_name":"\u5efa\u8a2d\u7701\u4e5d\u5dde\u5730\u65b9\u5efa\u8a2d\u5c40\u718a\u672c\u5de5\u4e8b\u4e8b\u52d9\u6240","boring_xml_url":49,"boring_view_url":1,"soilmap_view_url":null,"soiltest_xml_url":52,"soiltest_view_url":52},{"id":210594,"code":"B4KJ201801009-8843","latitude":"32.70433","longitude":"130.65611","source_code":"QS20098985790200190398","project_name":"\u7dd1\u5ddd\u5824\u4f53\u6750\u6599\u8abf\u67fb(\u305d\u306e1)","survey_name":"\u7dd1\u5ddd\u5824\u4f53\u6750\u6599\u8abf\u67fb(\u305d\u306e1)","client_name":"\u5efa\u8a2d\u7701\u4e5d\u5dde\u5730\u65b9\u5efa\u8a2d\u5c40\u718a\u672c\u5de5\u4e8b\u4e8b\u52d9\u6240","boring_xml_url":49,"boring_view_url":1,"soilmap_view_url":null,"soiltest_xml_url":52,"soiltest_view_url":52},{"id":210593,"code":"B4KJ201801009-8842","latitude":"32.69625","longitude":"130.63722","source_code":"QS20098985790200190397","project_name":"\u7dd1\u5ddd\u5824\u4f53\u6750\u6599\u8abf\u67fb(\u305d\u306e1)","survey_name":"\u7dd1\u5ddd\u5824\u4f53\u6750\u6599\u8abf\u67fb(\u305d\u306e1)","client_name":"\u5efa\u8a2d\u7701\u4e5d\u5dde\u5730\u65b9\u5efa\u8a2d\u5c40\u718a\u672c\u5de5\u4e8b\u4e8b\u52d9\u6240","boring_xml_url":49,"boring_view_url":1,"soilmap_view_url":null,"soiltest_xml_url":52,"soiltest_view_url":52},{"id":210592,"code":"B4KJ201801009-8841","latitude":"32.70656","longitude":"130.63417","source_code":"QS20098985790200190396","project_name":"\u7dd1\u5ddd\u5824\u4f53\u6750\u6599\u8abf\u67fb(\u305d\u306e1)","survey_name":"\u7dd1\u5ddd\u5824\u4f53\u6750\u6599\u8abf\u67fb(\u305d\u306e1)","client_name":"\u5efa\u8a2d\u7701\u4e5d\u5dde\u5730\u65b9\u5efa\u8a2d\u5c40\u718a\u672c\u5de5\u4e8b\u4e8b\u52d9\u6240","boring_xml_url":49,"boring_view_url":1,"soilmap_view_url":null,"soiltest_xml_url":52,"soiltest_view_url":52},{"id":210591,"code":"B4KJ201801009-8840","latitude":"32.725","longitude":"130.6622","source_code":"QS20098985790200190395","project_name":"\u7dd1\u5ddd\u5824\u4f53\u6750\u6599\u8abf\u67fb(\u305d\u306e1)","survey_name":"\u7dd1\u5ddd\u5824\u4f53\u6750\u6599\u8abf\u67fb(\u305d\u306e1)","client_name":"\u5efa\u8a2d\u7701\u4e5d\u5dde\u5730\u65b9\u5efa\u8a2d\u5c40\u718a\u672c\u5de5\u4e8b\u4e8b\u52d9\u6240","boring_xml_url":49,"boring_view_url":1,"soilmap_view_url":null,"soiltest_xml_url":52,"soiltest_view_url":52},{"id":210590,"code":"B4KJ201801009-8839","latitude":"32.71667","longitude":"130.64511","source_code":"QS20098985790200190394","project_name":"\u7dd1\u5ddd\u5824\u4f53\u6750\u6599\u8abf\u67fb(\u305d\u306e1)","survey_name":"\u7dd1\u5ddd\u5824\u4f53\u6750\u6599\u8abf\u67fb(\u305d\u306e1)","client_name":"\u5efa\u8a2d\u7701\u4e5d\u5dde\u5730\u65b9\u5efa\u8a2d\u5c40\u718a\u672c\u5de5\u4e8b\u4e8b\u52d9\u6240","boring_xml_url":49,"boring_view_url":1,"soilmap_view_url":null,"soiltest_xml_url":52,"soiltest_view_url":52},{"id":210589,"code":"B4KJ201801009-8838","latitude":"32.7125","longitude":"130.6044","source_code":"QS20098985790200190393","project_name":"\u7dd1\u5ddd\u5824\u4f53\u6750\u6599\u8abf\u67fb(\u305d\u306e1)","survey_name":"\u7dd1\u5ddd\u5824\u4f53\u6750\u6599\u8abf\u67fb(\u305d\u306e1)","client_name":"\u5efa\u8a2d\u7701\u4e5d\u5dde\u5730\u65b9\u5efa\u8a2d\u5c40\u718a\u672c\u5de5\u4e8b\u4e8b\u52d9\u6240","boring_xml_url":49,"boring_view_url":1,"soilmap_view_url":null,"soiltest_xml_url":52,"soiltest_view_url":52},{"id":210588,"code":"B4KJ201801009-8837","latitude":"32.71231","longitude":"130.65625","source_code":"QS20098985790200190392","project_name":"\u6d5c\u6238\u5ddd\u4e2d\u5c0f\u6cb3\u5ddd\u6539\u4fee\u7874\u6c5f\u6a4b\u8a2d\u8a08\u59d4\u8a17","survey_name":"\u6d5c\u6238\u5ddd\u4e2d\u5c0f\u6cb3\u5ddd\u6539\u4fee\u7874\u6c5f\u6a4b\u8a2d\u8a08\u59d4\u8a17","client_name":"\u677e\u6a4b\u571f\u6728\u4e8b\u52d9\u6240","boring_xml_url":49,"boring_view_url":1,"soilmap_view_url":null,"soiltest_xml_url":52,"soiltest_view_url":52},{"id":210587,"code":"B4KJ201801009-8836","latitude":"32.71181","longitude":"130.65758","source_code":"QS20098985790200190391","project_name":"\u6d5c\u6238\u5ddd\u4e2d\u5c0f\u6cb3\u5ddd\u6539\u4fee\u7874\u6c5f\u6a4b\u8a2d\u8a08\u59d4\u8a17","survey_name":"\u6d5c\u6238\u5ddd\u4e2d\u5c0f\u6cb3\u5ddd\u6539\u4fee\u7874\u6c5f\u6a4b\u8a2d\u8a08\u59d4\u8a17","client_name":"\u677e\u6a4b\u571f\u6728\u4e8b\u52d9\u6240","boring_xml_url":49,"boring_view_url":1,"soilmap_view_url":null,"soiltest_xml_url":52,"soiltest_view_url":52},{"id":210586,"code":"B4KJ201801009-8835","latitude":"32.72683","longitude":"130.77722","source_code":"QS20098985790200190390","project_name":"\u5ddd\u5c3b\u5730\u533a\u59162\u4ef6\u5730\u8cea\u8abf\u67fb\u696d\u52d9","survey_name":"\u5ddd\u5c3b\u5730\u533a\u59162\u4ef6\u5730\u8cea\u8abf\u67fb\u696d\u52d9","client_name":"\u5efa\u8a2d\u7701\u4e5d\u5dde\u5730\u65b9\u5efa\u8a2d\u5c40\u718a\u672c\u5de5\u4e8b\u4e8b\u52d9\u6240","boring_xml_url":49,"boring_view_url":1,"soilmap_view_url":null,"soiltest_xml_url":0,"soiltest_view_url":0},{"id":210585,"code":"B4KJ201801009-8834","latitude":"32.7272","longitude":"130.7778","source_code":"QS20098985790200190389","project_name":"\u5ddd\u5c3b\u5730\u533a\u59162\u4ef6\u5730\u8cea\u8abf\u67fb\u696d\u52d9","survey_name":"\u5ddd\u5c3b\u5730\u533a\u59162\u4ef6\u5730\u8cea\u8abf\u67fb\u696d\u52d9","client_name":"\u5efa\u8a2d\u7701\u4e5d\u5dde\u5730\u65b9\u5efa\u8a2d\u5c40\u718a\u672c\u5de5\u4e8b\u4e8b\u52d9\u6240","boring_xml_url":49,"boring_view_url":1,"soilmap_view_url":null,"soiltest_xml_url":0,"soiltest_view_url":0},{"id":210584,"code":"B4KJ201801009-8833","latitude":"32.73711","longitude":"130.68667","source_code":"QS20098985790200190388","project_name":"\u5ddd\u5c3b\u5730\u533a\u59162\u4ef6\u5730\u8cea\u8abf\u67fb\u696d\u52d9","survey_name":"\u5ddd\u5c3b\u5730\u533a\u59162\u4ef6\u5730\u8cea\u8abf\u67fb\u696d\u52d9","client_name":"\u5efa\u8a2d\u7701\u4e5d\u5dde\u5730\u65b9\u5efa\u8a2d\u5c40\u718a\u672c\u5de5\u4e8b\u4e8b\u52d9\u6240","boring_xml_url":49,"boring_view_url":1,"soilmap_view_url":null,"soiltest_xml_url":0,"soiltest_view_url":0},{"id":210583,"code":"B4KJ201801009-8832","latitude":"32.73683","longitude":"130.68667","source_code":"QS20098985790200190387","project_name":"\u5ddd\u5c3b\u5730\u533a\u59162\u4ef6\u5730\u8cea\u8abf\u67fb\u696d\u52d9","survey_name":"\u5ddd\u5c3b\u5730\u533a\u59162\u4ef6\u5730\u8cea\u8abf\u67fb\u696d\u52d9","client_name":"\u5efa\u8a2d\u7701\u4e5d\u5dde\u5730\u65b9\u5efa\u8a2d\u5c40\u718a\u672c\u5de5\u4e8b\u4e8b\u52d9\u6240","boring_xml_url":49,"boring_view_url":1,"soilmap_view_url":null,"soiltest_xml_url":0,"soiltest_view_url":0},{"id":210582,"code":"B4KJ201801009-8831","latitude":"32.7172","longitude":"130.7886","source_code":"QS20098985790200190386","project_name":"\u5ddd\u5c3b\u5730\u533a\u59162\u4ef6\u5730\u8cea\u8abf\u67fb\u696d\u52d9","survey_name":"\u5ddd\u5c3b\u5730\u533a\u59162\u4ef6\u5730\u8cea\u8abf\u67fb\u696d\u52d9","client_name":"\u5efa\u8a2d\u7701\u4e5d\u5dde\u5730\u65b9\u5efa\u8a2d\u5c40\u718a\u672c\u5de5\u4e8b\u4e8b\u52d9\u6240","boring_xml_url":49,"boring_view_url":1,"soilmap_view_url":null,"soiltest_xml_url":0,"soiltest_view_url":0},{"id":210581,"code":"B4KJ201801009-8830","latitude":"32.7169","longitude":"130.7883","source_code":"QS20098985790200190385","project_name":"\u5ddd\u5c3b\u5730\u533a\u59162\u4ef6\u5730\u8cea\u8abf\u67fb\u696d\u52d9","survey_name":"\u5ddd\u5c3b\u5730\u533a\u59162\u4ef6\u5730\u8cea\u8abf\u67fb\u696d\u52d9","client_name":"\u5efa\u8a2d\u7701\u4e5d\u5dde\u5730\u65b9\u5efa\u8a2d\u5c40\u718a\u672c\u5de5\u4e8b\u4e8b\u52d9\u6240","boring_xml_url":49,"boring_view_url":1,"soilmap_view_url":null,"soiltest_xml_url":0,"soiltest_view_url":0},{"id":210580,"code":"B4KJ201801009-8829","latitude":"32.735","longitude":"130.6931","source_code":"QS20098985790200190384","project_name":"\u5343\u539f\u6a0b\u7ba1\u59162\u4ef6\u5730\u8cea\u8abf\u67fb\u696d\u52d9(\u52a0\u702c\u5ddd\u6c34\u9580)","survey_name":"\u5343\u539f\u6a0b\u7ba1\u59162\u4ef6\u5730\u8cea\u8abf\u67fb\u696d\u52d9","client_name":"\u5efa\u8a2d\u7701\u4e5d\u5dde\u5730\u65b9\u5efa\u8a2d\u5c40\u718a\u672c\u5de5\u4e8b\u4e8b\u52d9\u6240","boring_xml_url":49,"boring_view_url":1,"soilmap_view_url":null,"soiltest_xml_url":0,"soiltest_view_url":0},{"id":210579,"code":"B4KJ201801009-8828","latitude":"32.73339","longitude":"130.74406","source_code":"QS20098985790200190383","project_name":"\u5343\u539f\u6a0b\u7ba1\u59162\u4ef6\u5730\u8cea\u8abf\u67fb\u696d\u52d9(\u5343\u539f\u6a0b\u7ba1)","survey_name":"\u5343\u539f\u6a0b\u7ba1\u59162\u4ef6\u5730\u8cea\u8abf\u67fb\u696d\u52d9","client_name":"\u5efa\u8a2d\u7701\u4e5d\u5dde\u5730\u65b9\u5efa\u8a2d\u5c40\u718a\u672c\u5de5\u4e8b\u4e8b\u52d9\u6240","boring_xml_url":49,"boring_view_url":1,"soilmap_view_url":null,"soiltest_xml_url":0,"soiltest_view_url":0},{"id":210578,"code":"B4KJ201801009-8827","latitude":"32.71619","longitude":"130.79222","source_code":"QS20098985790200190382","project_name":"\u5343\u539f\u6a0b\u7ba1\u59162\u4ef6\u5730\u8cea\u8abf\u67fb\u696d\u52d9(\u67f3\u702c\u6a0b\u7ba1)","survey_name":"\u5343\u539f\u6a0b\u7ba1\u59162\u4ef6\u5730\u8cea\u8abf\u67fb\u696d\u52d9","client_name":"\u5efa\u8a2d\u7701\u4e5d\u5dde\u5730\u65b9\u5efa\u8a2d\u5c40\u718a\u672c\u5de5\u4e8b\u4e8b\u52d9\u6240","boring_xml_url":49,"boring_view_url":1,"soilmap_view_url":null,"soiltest_xml_url":0,"soiltest_view_url":0},{"id":210577,"code":"B4KJ201801009-8826","latitude":"32.73503","longitude":"130.71492","source_code":"QS20098985790200190381","project_name":"\u7dd1\u5ddd\u5824\u4f53\u6750\u6599\u8abf\u67fb\u696d\u52d9","survey_name":"\u7dd1\u5ddd\u5824\u4f53\u6750\u6599\u8abf\u67fb\u696d\u52d9","client_name":"\u5efa\u8a2d\u7701\u4e5d\u5dde\u5730\u65b9\u5efa\u8a2d\u5c40\u718a\u672c\u5de5\u4e8b\u4e8b\u52d9\u6240","boring_xml_url":49,"boring_view_url":1,"soilmap_view_url":null,"soiltest_xml_url":52,"soiltest_view_url":52},{"id":210576,"code":"B4KJ201801009-8825","latitude":"32.72739","longitude":"130.67583","source_code":"QS20098985790200190380","project_name":"\u7dd1\u5ddd\u5824\u4f53\u6750\u6599\u8abf\u67fb\u696d\u52d9","survey_name":"\u7dd1\u5ddd\u5824\u4f53\u6750\u6599\u8abf\u67fb\u696d\u52d9","client_name":"\u5efa\u8a2d\u7701\u4e5d\u5dde\u5730\u65b9\u5efa\u8a2d\u5c40\u718a\u672c\u5de5\u4e8b\u4e8b\u52d9\u6240","boring_xml_url":49,"boring_view_url":1,"soilmap_view_url":null,"soiltest_xml_url":52,"soiltest_view_url":52},{"id":210575,"code":"B4KJ201801009-8824","latitude":"32.73583","longitude":"130.68931","source_code":"QS20098985790200190379","project_name":"\u7dd1\u5ddd\u5824\u4f53\u6750\u6599\u8abf\u67fb\u696d\u52d9","survey_name":"\u7dd1\u5ddd\u5824\u4f53\u6750\u6599\u8abf\u67fb\u696d\u52d9","client_name":"\u5efa\u8a2d\u7701\u4e5d\u5dde\u5730\u65b9\u5efa\u8a2d\u5c40\u718a\u672c\u5de5\u4e8b\u4e8b\u52d9\u6240","boring_xml_url":49,"boring_view_url":1,"soilmap_view_url":null,"soiltest_xml_url":52,"soiltest_view_url":52},{"id":210574,"code":"B4KJ201801009-8823","latitude":"32.71728","longitude":"130.61733","source_code":"QS20098985790200190378","project_name":"\u5929\u660e\u5730\u533a\u5730\u8cea\u8abf\u67fb\u696d\u52d9","survey_name":"\u5929\u660e\u5730\u533a\u5730\u8cea\u8abf\u67fb\u696d\u52d9","client_name":"\u5efa\u8a2d\u7701\u4e5d\u5dde\u5730\u65b9\u5efa\u8a2d\u5c40\u718a\u672c\u5de5\u4e8b\u4e8b\u52d9\u6240","boring_xml_url":49,"boring_view_url":1,"soilmap_view_url":null,"soiltest_xml_url":52,"soiltest_view_url":52},{"id":210573,"code":"B4KJ201801009-8822","latitude":"32.71789","longitude":"130.61194","source_code":"QS20098985790200190377","project_name":"\u5929\u660e\u5730\u533a\u5730\u8cea\u8abf\u67fb\u696d\u52d9","survey_name":"\u5929\u660e\u5730\u533a\u5730\u8cea\u8abf\u67fb\u696d\u52d9","client_name":"\u5efa\u8a2d\u7701\u4e5d\u5dde\u5730\u65b9\u5efa\u8a2d\u5c40\u718a\u672c\u5de5\u4e8b\u4e8b\u52d9\u6240","boring_xml_url":49,"boring_view_url":1,"soilmap_view_url":null,"soiltest_xml_url":52,"soiltest_view_url":52},{"id":210572,"code":"B4KJ201801009-8821","latitude":"32.71794","longitude":"130.61189","source_code":"QS20098985790200190376","project_name":"\u5929\u660e\u5730\u533a\u5730\u8cea\u8abf\u67fb\u696d\u52d9","survey_name":"\u5929\u660e\u5730\u533a\u5730\u8cea\u8abf\u67fb\u696d\u52d9","client_name":"\u5efa\u8a2d\u7701\u4e5d\u5dde\u5730\u65b9\u5efa\u8a2d\u5c40\u718a\u672c\u5de5\u4e8b\u4e8b\u52d9\u6240","boring_xml_url":49,"boring_view_url":1,"soilmap_view_url":null,"soiltest_xml_url":52,"soiltest_view_url":52},{"id":210571,"code":"B4KJ201801009-8820","latitude":"32.73503","longitude":"130.71731","source_code":"QS20098985790200190375","project_name":"\u5ddd\u53e3\u5730\u533a\u59162\u4ef6\u5824\u9632\u6f0f\u6c34\u8abf\u67fb","survey_name":"\u5ddd\u53e3\u5730\u533a\u59162\u4ef6\u5824\u9632\u6f0f\u6c34\u8abf\u67fb","client_name":"\u5efa\u8a2d\u7701\u4e5d\u5dde\u5730\u65b9\u5efa\u8a2d\u5c40\u718a\u672c\u5de5\u4e8b\u4e8b\u52d9\u6240","boring_xml_url":49,"boring_view_url":1,"soilmap_view_url":null,"soiltest_xml_url":0,"soiltest_view_url":0},{"id":210570,"code":"B4KJ201801009-8819","latitude":"32.71731","longitude":"130.6155","source_code":"QS20098985790200190374","project_name":"\u5ddd\u53e3\u5730\u533a\u59162\u4ef6\u5824\u9632\u6f0f\u6c34\u8abf\u67fb","survey_name":"\u5ddd\u53e3\u5730\u533a\u59162\u4ef6\u5824\u9632\u6f0f\u6c34\u8abf\u67fb","client_name":"\u5efa\u8a2d\u7701\u4e5d\u5dde\u5730\u65b9\u5efa\u8a2d\u5c40\u718a\u672c\u5de5\u4e8b\u4e8b\u52d9\u6240","boring_xml_url":49,"boring_view_url":1,"soilmap_view_url":null,"soiltest_xml_url":0,"soiltest_view_url":0},{"id":210569,"code":"B4KJ201801009-8818","latitude":"32.71722","longitude":"130.61614","source_code":"QS20098985790200190373","project_name":"\u5ddd\u53e3\u5730\u533a\u59162\u4ef6\u5824\u9632\u6f0f\u6c34\u8abf\u67fb","survey_name":"\u5ddd\u53e3\u5730\u533a\u59162\u4ef6\u5824\u9632\u6f0f\u6c34\u8abf\u67fb","client_name":"\u5efa\u8a2d\u7701\u4e5d\u5dde\u5730\u65b9\u5efa\u8a2d\u5c40\u718a\u672c\u5de5\u4e8b\u4e8b\u52d9\u6240","boring_xml_url":49,"boring_view_url":1,"soilmap_view_url":null,"soiltest_xml_url":0,"soiltest_view_url":0},{"id":210568,"code":"B4KJ201801009-8817","latitude":"32.71717","longitude":"130.6165","source_code":"QS20098985790200190372","project_name":"\u5ddd\u53e3\u5730\u533a\u59162\u4ef6\u5824\u9632\u6f0f\u6c34\u8abf\u67fb\u696d\u52d9","survey_name":"\u5ddd\u53e3\u5730\u533a\u59162\u4ef6\u5824\u9632\u6f0f\u6c34\u8abf\u67fb\u696d\u52d9","client_name":"\u5efa\u8a2d\u7701\u4e5d\u5dde\u5730\u65b9\u5efa\u8a2d\u5c40\u718a\u672c\u5de5\u4e8b\u4e8b\u52d9\u6240","boring_xml_url":49,"boring_view_url":1,"soilmap_view_url":null,"soiltest_xml_url":0,"soiltest_view_url":0},{"id":210567,"code":"B4KJ201801009-8816","latitude":"32.72344","longitude":"130.64467","source_code":"QS20098985790200190371","project_name":"\u5ddd\u53e3\u5730\u533a\u59162\u4ef6\u5824\u9632\u6f0f\u6c34\u8abf\u67fb","survey_name":"\u5ddd\u53e3\u5730\u533a\u59162\u4ef6\u5824\u9632\u6f0f\u6c34\u8abf\u67fb","client_name":"\u5efa\u8a2d\u7701\u4e5d\u5dde\u5730\u65b9\u5efa\u8a2d\u5c40\u718a\u672c\u5de5\u4e8b\u4e8b\u52d9\u6240","boring_xml_url":49,"boring_view_url":1,"soilmap_view_url":null,"soiltest_xml_url":0,"soiltest_view_url":0},{"id":210566,"code":"B4KJ201801009-8815","latitude":"32.72383","longitude":"130.64492","source_code":"QS20098985790200190370","project_name":"\u5ddd\u53e3\u5730\u533a\u59162\u4ef6\u5824\u9632\u6f0f\u6c34\u8abf\u67fb","survey_name":"\u5ddd\u53e3\u5730\u533a\u59162\u4ef6\u5824\u9632\u6f0f\u6c34\u8abf\u67fb","client_name":"\u5efa\u8a2d\u7701\u4e5d\u5dde\u5730\u65b9\u5efa\u8a2d\u5c40\u718a\u672c\u5de5\u4e8b\u4e8b\u52d9\u6240","boring_xml_url":49,"boring_view_url":1,"soilmap_view_url":null,"soiltest_xml_url":0,"soiltest_view_url":0}]}}