{"header":{"xyz":{"source":[],"mosaic":false},"page":367,"raw":{"soiltest_result":"0","bbox":"57.598333,109.544722,1.933333,163.806111","page":"367"},"conditions":{"soiltest_result":0,"north":57.598333,"west":109.544722,"south":1.933333,"east":163.806111},"success":true,"message":""},"data":{"meta":{"total":212844,"page":367,"pages":7095,"count":30},"values":[{"id":554546,"code":"NGIC202202157-0028","latitude":"36.665728888889","longitude":"139.44008305556","source_code":"","project_name":"","survey_name":"R3\u6e21\u826f\u702c\u5ddd\u7802\u9632\u65bd\u8a2d\u5730\u8cea\u8abf\u67fb\u696d\u52d9","client_name":"\u56fd\u571f\u4ea4\u901a\u7701\u95a2\u6771\u5730\u65b9\u6574\u5099\u5c40\u6e21\u826f\u702c\u5ddd\u6cb3\u5ddd\u4e8b\u52d9\u6240","boring_xml_url":47,"boring_view_url":1,"soilmap_view_url":null,"soiltest_xml_url":0,"soiltest_view_url":0},{"id":554545,"code":"NGIC202202157-0027","latitude":"36.665453333333","longitude":"139.43934055556","source_code":"","project_name":"","survey_name":"R3\u6e21\u826f\u702c\u5ddd\u7802\u9632\u65bd\u8a2d\u5730\u8cea\u8abf\u67fb\u696d\u52d9","client_name":"\u56fd\u571f\u4ea4\u901a\u7701\u95a2\u6771\u5730\u65b9\u6574\u5099\u5c40\u6e21\u826f\u702c\u5ddd\u6cb3\u5ddd\u4e8b\u52d9\u6240","boring_xml_url":47,"boring_view_url":1,"soilmap_view_url":null,"soiltest_xml_url":0,"soiltest_view_url":0},{"id":554544,"code":"NGIC202202157-0026","latitude":"36.665626111111","longitude":"139.43967194444","source_code":"","project_name":"","survey_name":"R3\u6e21\u826f\u702c\u5ddd\u7802\u9632\u65bd\u8a2d\u5730\u8cea\u8abf\u67fb\u696d\u52d9","client_name":"\u56fd\u571f\u4ea4\u901a\u7701\u95a2\u6771\u5730\u65b9\u6574\u5099\u5c40\u6e21\u826f\u702c\u5ddd\u6cb3\u5ddd\u4e8b\u52d9\u6240","boring_xml_url":47,"boring_view_url":1,"soilmap_view_url":null,"soiltest_xml_url":0,"soiltest_view_url":0},{"id":554543,"code":"NGIC202202157-0025","latitude":"36.665525277778","longitude":"139.43933833333","source_code":"","project_name":"","survey_name":"R3\u6e21\u826f\u702c\u5ddd\u7802\u9632\u65bd\u8a2d\u5730\u8cea\u8abf\u67fb\u696d\u52d9","client_name":"\u56fd\u571f\u4ea4\u901a\u7701\u95a2\u6771\u5730\u65b9\u6574\u5099\u5c40\u6e21\u826f\u702c\u5ddd\u6cb3\u5ddd\u4e8b\u52d9\u6240","boring_xml_url":47,"boring_view_url":1,"soilmap_view_url":null,"soiltest_xml_url":0,"soiltest_view_url":0},{"id":554542,"code":"NGIC202202157-0024","latitude":"36.665209444444","longitude":"139.43833805556","source_code":"","project_name":"","survey_name":"R3\u6e21\u826f\u702c\u5ddd\u7802\u9632\u65bd\u8a2d\u5730\u8cea\u8abf\u67fb\u696d\u52d9","client_name":"\u56fd\u571f\u4ea4\u901a\u7701\u95a2\u6771\u5730\u65b9\u6574\u5099\u5c40\u6e21\u826f\u702c\u5ddd\u6cb3\u5ddd\u4e8b\u52d9\u6240","boring_xml_url":47,"boring_view_url":1,"soilmap_view_url":null,"soiltest_xml_url":0,"soiltest_view_url":0},{"id":554541,"code":"NGIC202202157-0023","latitude":"36.665293611111","longitude":"139.43830277778","source_code":"","project_name":"","survey_name":"R3\u6e21\u826f\u702c\u5ddd\u7802\u9632\u65bd\u8a2d\u5730\u8cea\u8abf\u67fb\u696d\u52d9","client_name":"\u56fd\u571f\u4ea4\u901a\u7701\u95a2\u6771\u5730\u65b9\u6574\u5099\u5c40\u6e21\u826f\u702c\u5ddd\u6cb3\u5ddd\u4e8b\u52d9\u6240","boring_xml_url":47,"boring_view_url":1,"soilmap_view_url":null,"soiltest_xml_url":0,"soiltest_view_url":0},{"id":554540,"code":"NGIC202202157-0022","latitude":"36.665239444444","longitude":"139.43831138889","source_code":"","project_name":"","survey_name":"R3\u6e21\u826f\u702c\u5ddd\u7802\u9632\u65bd\u8a2d\u5730\u8cea\u8abf\u67fb\u696d\u52d9","client_name":"\u56fd\u571f\u4ea4\u901a\u7701\u95a2\u6771\u5730\u65b9\u6574\u5099\u5c40\u6e21\u826f\u702c\u5ddd\u6cb3\u5ddd\u4e8b\u52d9\u6240","boring_xml_url":47,"boring_view_url":1,"soilmap_view_url":null,"soiltest_xml_url":0,"soiltest_view_url":0},{"id":554539,"code":"NGIC202202157-0021","latitude":"36.6648525","longitude":"139.43728388889","source_code":"","project_name":"","survey_name":"R3\u6e21\u826f\u702c\u5ddd\u7802\u9632\u65bd\u8a2d\u5730\u8cea\u8abf\u67fb\u696d\u52d9","client_name":"\u56fd\u571f\u4ea4\u901a\u7701\u95a2\u6771\u5730\u65b9\u6574\u5099\u5c40\u6e21\u826f\u702c\u5ddd\u6cb3\u5ddd\u4e8b\u52d9\u6240","boring_xml_url":47,"boring_view_url":1,"soilmap_view_url":null,"soiltest_xml_url":0,"soiltest_view_url":0},{"id":554538,"code":"NGIC202202157-0020","latitude":"36.66478","longitude":"139.437325","source_code":"","project_name":"","survey_name":"R3\u6e21\u826f\u702c\u5ddd\u7802\u9632\u65bd\u8a2d\u5730\u8cea\u8abf\u67fb\u696d\u52d9","client_name":"\u56fd\u571f\u4ea4\u901a\u7701\u95a2\u6771\u5730\u65b9\u6574\u5099\u5c40\u6e21\u826f\u702c\u5ddd\u6cb3\u5ddd\u4e8b\u52d9\u6240","boring_xml_url":47,"boring_view_url":1,"soilmap_view_url":null,"soiltest_xml_url":0,"soiltest_view_url":0},{"id":554537,"code":"NGIC202202157-0019","latitude":"36.664581111111","longitude":"139.43704277778","source_code":"","project_name":"","survey_name":"R3\u6e21\u826f\u702c\u5ddd\u7802\u9632\u65bd\u8a2d\u5730\u8cea\u8abf\u67fb\u696d\u52d9","client_name":"\u56fd\u571f\u4ea4\u901a\u7701\u95a2\u6771\u5730\u65b9\u6574\u5099\u5c40\u6e21\u826f\u702c\u5ddd\u6cb3\u5ddd\u4e8b\u52d9\u6240","boring_xml_url":47,"boring_view_url":1,"soilmap_view_url":null,"soiltest_xml_url":0,"soiltest_view_url":0},{"id":554536,"code":"NGIC202202157-0018","latitude":"36.664598888889","longitude":"139.43668","source_code":"","project_name":"","survey_name":"R3\u6e21\u826f\u702c\u5ddd\u7802\u9632\u65bd\u8a2d\u5730\u8cea\u8abf\u67fb\u696d\u52d9","client_name":"\u56fd\u571f\u4ea4\u901a\u7701\u95a2\u6771\u5730\u65b9\u6574\u5099\u5c40\u6e21\u826f\u702c\u5ddd\u6cb3\u5ddd\u4e8b\u52d9\u6240","boring_xml_url":47,"boring_view_url":1,"soilmap_view_url":null,"soiltest_xml_url":0,"soiltest_view_url":0},{"id":554535,"code":"NGIC202202157-0017","latitude":"36.664531944444","longitude":"139.43671916667","source_code":"","project_name":"","survey_name":"R3\u6e21\u826f\u702c\u5ddd\u7802\u9632\u65bd\u8a2d\u5730\u8cea\u8abf\u67fb\u696d\u52d9","client_name":"\u56fd\u571f\u4ea4\u901a\u7701\u95a2\u6771\u5730\u65b9\u6574\u5099\u5c40\u6e21\u826f\u702c\u5ddd\u6cb3\u5ddd\u4e8b\u52d9\u6240","boring_xml_url":47,"boring_view_url":1,"soilmap_view_url":null,"soiltest_xml_url":0,"soiltest_view_url":0},{"id":554534,"code":"NGIC202202157-0016","latitude":"36.664263055556","longitude":"139.43621194444","source_code":"","project_name":"","survey_name":"R3\u6e21\u826f\u702c\u5ddd\u7802\u9632\u65bd\u8a2d\u5730\u8cea\u8abf\u67fb\u696d\u52d9","client_name":"\u56fd\u571f\u4ea4\u901a\u7701\u95a2\u6771\u5730\u65b9\u6574\u5099\u5c40\u6e21\u826f\u702c\u5ddd\u6cb3\u5ddd\u4e8b\u52d9\u6240","boring_xml_url":47,"boring_view_url":1,"soilmap_view_url":null,"soiltest_xml_url":0,"soiltest_view_url":0},{"id":554533,"code":"NGIC202202157-0015","latitude":"36.664381111111","longitude":"139.43614055556","source_code":"","project_name":"","survey_name":"R3\u6e21\u826f\u702c\u5ddd\u7802\u9632\u65bd\u8a2d\u5730\u8cea\u8abf\u67fb\u696d\u52d9","client_name":"\u56fd\u571f\u4ea4\u901a\u7701\u95a2\u6771\u5730\u65b9\u6574\u5099\u5c40\u6e21\u826f\u702c\u5ddd\u6cb3\u5ddd\u4e8b\u52d9\u6240","boring_xml_url":47,"boring_view_url":1,"soilmap_view_url":null,"soiltest_xml_url":0,"soiltest_view_url":0},{"id":554532,"code":"NGIC202202157-0014","latitude":"36.664316388889","longitude":"139.43617944444","source_code":"","project_name":"","survey_name":"R3\u6e21\u826f\u702c\u5ddd\u7802\u9632\u65bd\u8a2d\u5730\u8cea\u8abf\u67fb\u696d\u52d9","client_name":"\u56fd\u571f\u4ea4\u901a\u7701\u95a2\u6771\u5730\u65b9\u6574\u5099\u5c40\u6e21\u826f\u702c\u5ddd\u6cb3\u5ddd\u4e8b\u52d9\u6240","boring_xml_url":47,"boring_view_url":1,"soilmap_view_url":null,"soiltest_xml_url":0,"soiltest_view_url":0},{"id":554531,"code":"NGIC202202157-0013","latitude":"36.56262","longitude":"139.24949444444","source_code":"","project_name":"","survey_name":"R3\u6e21\u826f\u702c\u5ddd\u7802\u9632\u65bd\u8a2d\u5730\u8cea\u8abf\u67fb\u696d\u52d9","client_name":"\u56fd\u571f\u4ea4\u901a\u7701\u95a2\u6771\u5730\u65b9\u6574\u5099\u5c40\u6e21\u826f\u702c\u5ddd\u6cb3\u5ddd\u4e8b\u52d9\u6240","boring_xml_url":47,"boring_view_url":1,"soilmap_view_url":null,"soiltest_xml_url":0,"soiltest_view_url":0},{"id":554530,"code":"NGIC202202157-0012","latitude":"36.562288888889","longitude":"139.24941166667","source_code":"","project_name":"","survey_name":"R3\u6e21\u826f\u702c\u5ddd\u7802\u9632\u65bd\u8a2d\u5730\u8cea\u8abf\u67fb\u696d\u52d9","client_name":"\u56fd\u571f\u4ea4\u901a\u7701\u95a2\u6771\u5730\u65b9\u6574\u5099\u5c40\u6e21\u826f\u702c\u5ddd\u6cb3\u5ddd\u4e8b\u52d9\u6240","boring_xml_url":47,"boring_view_url":1,"soilmap_view_url":null,"soiltest_xml_url":0,"soiltest_view_url":0},{"id":554529,"code":"NGIC202202157-0011","latitude":"36.562056111111","longitude":"139.2493175","source_code":"","project_name":"","survey_name":"R3\u6e21\u826f\u702c\u5ddd\u7802\u9632\u65bd\u8a2d\u5730\u8cea\u8abf\u67fb\u696d\u52d9","client_name":"\u56fd\u571f\u4ea4\u901a\u7701\u95a2\u6771\u5730\u65b9\u6574\u5099\u5c40\u6e21\u826f\u702c\u5ddd\u6cb3\u5ddd\u4e8b\u52d9\u6240","boring_xml_url":47,"boring_view_url":1,"soilmap_view_url":null,"soiltest_xml_url":0,"soiltest_view_url":0},{"id":554528,"code":"NGIC202202157-0010","latitude":"36.562671666667","longitude":"139.24911972222","source_code":"","project_name":"","survey_name":"R3\u6e21\u826f\u702c\u5ddd\u7802\u9632\u65bd\u8a2d\u5730\u8cea\u8abf\u67fb\u696d\u52d9","client_name":"\u56fd\u571f\u4ea4\u901a\u7701\u95a2\u6771\u5730\u65b9\u6574\u5099\u5c40\u6e21\u826f\u702c\u5ddd\u6cb3\u5ddd\u4e8b\u52d9\u6240","boring_xml_url":47,"boring_view_url":1,"soilmap_view_url":null,"soiltest_xml_url":0,"soiltest_view_url":0},{"id":554527,"code":"NGIC202202157-0009","latitude":"36.562001388889","longitude":"139.24893611111","source_code":"","project_name":"","survey_name":"R3\u6e21\u826f\u702c\u5ddd\u7802\u9632\u65bd\u8a2d\u5730\u8cea\u8abf\u67fb\u696d\u52d9","client_name":"\u56fd\u571f\u4ea4\u901a\u7701\u95a2\u6771\u5730\u65b9\u6574\u5099\u5c40\u6e21\u826f\u702c\u5ddd\u6cb3\u5ddd\u4e8b\u52d9\u6240","boring_xml_url":47,"boring_view_url":1,"soilmap_view_url":null,"soiltest_xml_url":0,"soiltest_view_url":0},{"id":554526,"code":"NGIC202202157-0008","latitude":"36.495703055556","longitude":"139.22912638889","source_code":"","project_name":"","survey_name":"R3\u6e21\u826f\u702c\u5ddd\u7802\u9632\u65bd\u8a2d\u5730\u8cea\u8abf\u67fb\u696d\u52d9","client_name":"\u56fd\u571f\u4ea4\u901a\u7701\u95a2\u6771\u5730\u65b9\u6574\u5099\u5c40\u6e21\u826f\u702c\u5ddd\u6cb3\u5ddd\u4e8b\u52d9\u6240","boring_xml_url":47,"boring_view_url":1,"soilmap_view_url":null,"soiltest_xml_url":0,"soiltest_view_url":0},{"id":554525,"code":"NGIC202202157-0007","latitude":"36.495943333333","longitude":"139.22923777778","source_code":"","project_name":"","survey_name":"R3\u6e21\u826f\u702c\u5ddd\u7802\u9632\u65bd\u8a2d\u5730\u8cea\u8abf\u67fb\u696d\u52d9","client_name":"\u56fd\u571f\u4ea4\u901a\u7701\u95a2\u6771\u5730\u65b9\u6574\u5099\u5c40\u6e21\u826f\u702c\u5ddd\u6cb3\u5ddd\u4e8b\u52d9\u6240","boring_xml_url":47,"boring_view_url":1,"soilmap_view_url":null,"soiltest_xml_url":0,"soiltest_view_url":0},{"id":554524,"code":"NGIC202202157-0006","latitude":"36.495808888889","longitude":"139.22914222222","source_code":"","project_name":"","survey_name":"R3\u6e21\u826f\u702c\u5ddd\u7802\u9632\u65bd\u8a2d\u5730\u8cea\u8abf\u67fb\u696d\u52d9","client_name":"\u56fd\u571f\u4ea4\u901a\u7701\u95a2\u6771\u5730\u65b9\u6574\u5099\u5c40\u6e21\u826f\u702c\u5ddd\u6cb3\u5ddd\u4e8b\u52d9\u6240","boring_xml_url":47,"boring_view_url":1,"soilmap_view_url":null,"soiltest_xml_url":0,"soiltest_view_url":0},{"id":554523,"code":"NGIC202202157-0005","latitude":"36.531067777778","longitude":"139.24877388889","source_code":"","project_name":"","survey_name":"R3\u6e21\u826f\u702c\u5ddd\u7802\u9632\u65bd\u8a2d\u5730\u8cea\u8abf\u67fb\u696d\u52d9","client_name":"\u56fd\u571f\u4ea4\u901a\u7701\u95a2\u6771\u5730\u65b9\u6574\u5099\u5c40\u6e21\u826f\u702c\u5ddd\u6cb3\u5ddd\u4e8b\u52d9\u6240","boring_xml_url":47,"boring_view_url":1,"soilmap_view_url":null,"soiltest_xml_url":0,"soiltest_view_url":0},{"id":554522,"code":"NGIC202202157-0004","latitude":"36.531289166667","longitude":"139.24863666667","source_code":"","project_name":"","survey_name":"R3\u6e21\u826f\u702c\u5ddd\u7802\u9632\u65bd\u8a2d\u5730\u8cea\u8abf\u67fb\u696d\u52d9","client_name":"\u56fd\u571f\u4ea4\u901a\u7701\u95a2\u6771\u5730\u65b9\u6574\u5099\u5c40\u6e21\u826f\u702c\u5ddd\u6cb3\u5ddd\u4e8b\u52d9\u6240","boring_xml_url":47,"boring_view_url":1,"soilmap_view_url":null,"soiltest_xml_url":0,"soiltest_view_url":0},{"id":554521,"code":"NGIC202202157-0003","latitude":"36.531163055556","longitude":"139.24869944444","source_code":"","project_name":"","survey_name":"R3\u6e21\u826f\u702c\u5ddd\u7802\u9632\u65bd\u8a2d\u5730\u8cea\u8abf\u67fb\u696d\u52d9","client_name":"\u56fd\u571f\u4ea4\u901a\u7701\u95a2\u6771\u5730\u65b9\u6574\u5099\u5c40\u6e21\u826f\u702c\u5ddd\u6cb3\u5ddd\u4e8b\u52d9\u6240","boring_xml_url":47,"boring_view_url":1,"soilmap_view_url":null,"soiltest_xml_url":0,"soiltest_view_url":0},{"id":554520,"code":"NGIC202202157-0002","latitude":"36.530956944444","longitude":"139.24861277778","source_code":"","project_name":"","survey_name":"R3\u6e21\u826f\u702c\u5ddd\u7802\u9632\u65bd\u8a2d\u5730\u8cea\u8abf\u67fb\u696d\u52d9","client_name":"\u56fd\u571f\u4ea4\u901a\u7701\u95a2\u6771\u5730\u65b9\u6574\u5099\u5c40\u6e21\u826f\u702c\u5ddd\u6cb3\u5ddd\u4e8b\u52d9\u6240","boring_xml_url":47,"boring_view_url":1,"soilmap_view_url":null,"soiltest_xml_url":0,"soiltest_view_url":0},{"id":554519,"code":"NGIC202202157-0001","latitude":"36.531198611111","longitude":"139.24842638889","source_code":"","project_name":"","survey_name":"R3\u6e21\u826f\u702c\u5ddd\u7802\u9632\u65bd\u8a2d\u5730\u8cea\u8abf\u67fb\u696d\u52d9","client_name":"\u56fd\u571f\u4ea4\u901a\u7701\u95a2\u6771\u5730\u65b9\u6574\u5099\u5c40\u6e21\u826f\u702c\u5ddd\u6cb3\u5ddd\u4e8b\u52d9\u6240","boring_xml_url":47,"boring_view_url":1,"soilmap_view_url":null,"soiltest_xml_url":0,"soiltest_view_url":0},{"id":554427,"code":"NGIC202202060-0003","latitude":"33.113289722222","longitude":"130.65776055556","source_code":"","project_name":"","survey_name":"\u4ee4\u548c3\u5e74\u5ea6\u718a\u672c\u6cb3\u5ddd\u56fd\u9053\u7ba1\u5185\u9053\u8def\u7ba1\u7406\u6e2c\u91cf\u8a2d\u8a08\u696d\u52d9","client_name":"\u56fd\u571f\u4ea4\u901a\u7701\u4e5d\u5dde\u5730\u65b9\u6574\u5099\u5c40\u718a\u672c\u6cb3\u5ddd\u56fd\u9053\u4e8b\u52d9\u6240","boring_xml_url":47,"boring_view_url":1,"soilmap_view_url":null,"soiltest_xml_url":0,"soiltest_view_url":0},{"id":554426,"code":"NGIC202202060-0002","latitude":"33.113271944444","longitude":"130.65748583333","source_code":"","project_name":"","survey_name":"\u4ee4\u548c3\u5e74\u5ea6\u718a\u672c\u6cb3\u5ddd\u56fd\u9053\u7ba1\u5185\u9053\u8def\u7ba1\u7406\u6e2c\u91cf\u8a2d\u8a08\u696d\u52d9","client_name":"\u56fd\u571f\u4ea4\u901a\u7701\u4e5d\u5dde\u5730\u65b9\u6574\u5099\u5c40\u718a\u672c\u6cb3\u5ddd\u56fd\u9053\u4e8b\u52d9\u6240","boring_xml_url":47,"boring_view_url":1,"soilmap_view_url":null,"soiltest_xml_url":47,"soiltest_view_url":47}]}}