{"header":{"xyz":{"source":[],"mosaic":false},"page":3671,"raw":{"soiltest_result":"0","bbox":"57.598333,109.544722,1.933333,163.806111","page":"3671"},"conditions":{"soiltest_result":0,"north":57.598333,"west":109.544722,"south":1.933333,"east":163.806111},"success":true,"message":""},"data":{"meta":{"total":212844,"page":3671,"pages":7095,"count":30},"values":[{"id":210445,"code":"B4KJ201801009-8694","latitude":"32.35897","longitude":"130.63936","source_code":"QS20098985790200190248","project_name":"\u702c\u6238\u77f3\u30c0\u30e0\u9b5a\u9053\u8a2d\u7f6e\u5de5\u4e8b","survey_name":"\u702c\u6238\u77f3\u5730\u533a\u5730\u8cea\u8abf\u67fb\u696d\u52d9","client_name":"\u5efa\u8a2d\u7701\u4e5d\u5dde\u5730\u65b9\u5efa\u8a2d\u5c40\u516b\u4ee3\u5de5\u4e8b\u4e8b\u52d9\u6240","boring_xml_url":49,"boring_view_url":1,"soilmap_view_url":null,"soiltest_xml_url":0,"soiltest_view_url":0},{"id":210444,"code":"B4KJ201801009-8693","latitude":"32.35897","longitude":"130.63936","source_code":"QS20098985790200190247","project_name":"\u702c\u6238\u77f3\u30c0\u30e0\u9b5a\u9053\u8a2d\u7f6e\u5de5\u4e8b","survey_name":"\u702c\u6238\u77f3\u5730\u533a\u5730\u8cea\u8abf\u67fb\u696d\u52d9","client_name":"\u5efa\u8a2d\u7701\u4e5d\u5dde\u5730\u65b9\u5efa\u8a2d\u5c40\u516b\u4ee3\u5de5\u4e8b\u4e8b\u52d9\u6240","boring_xml_url":49,"boring_view_url":1,"soilmap_view_url":null,"soiltest_xml_url":0,"soiltest_view_url":0},{"id":210443,"code":"B4KJ201801009-8692","latitude":"32.35897","longitude":"130.63936","source_code":"QS20098985790200190246","project_name":"\u702c\u6238\u77f3\u30c0\u30e0\u9b5a\u9053\u8a2d\u7f6e\u5de5\u4e8b","survey_name":"\u702c\u6238\u77f3\u5730\u533a\u5730\u8cea\u8abf\u67fb\u696d\u52d9","client_name":"\u5efa\u8a2d\u7701\u4e5d\u5dde\u5730\u65b9\u5efa\u8a2d\u5c40\u516b\u4ee3\u5de5\u4e8b\u4e8b\u52d9\u6240","boring_xml_url":49,"boring_view_url":1,"soilmap_view_url":null,"soiltest_xml_url":52,"soiltest_view_url":52},{"id":210442,"code":"B4KJ201801009-8691","latitude":"32.35897","longitude":"130.63936","source_code":"QS20098985790200190245","project_name":"\u702c\u6238\u77f3\u30c0\u30e0\u9b5a\u9053\u8a2d\u7f6e\u5de5\u4e8b","survey_name":"\u702c\u6238\u77f3\u5730\u533a\u5730\u8cea\u8abf\u67fb\u696d\u52d9","client_name":"\u5efa\u8a2d\u7701\u4e5d\u5dde\u5730\u65b9\u5efa\u8a2d\u5c40\u516b\u4ee3\u5de5\u4e8b\u4e8b\u52d9\u6240","boring_xml_url":49,"boring_view_url":1,"soilmap_view_url":null,"soiltest_xml_url":52,"soiltest_view_url":52},{"id":210441,"code":"B4KJ201801009-8690","latitude":"32.27203","longitude":"130.93017","source_code":"QS20098985790200190244","project_name":"\u4e0b\u9db4\u5730\u533a\u5730\u8cea\u8abf\u67fb\u696d\u52d9","survey_name":"\u4e0b\u9db4\u5730\u533a\u5730\u8cea\u8abf\u67fb\u696d\u52d9","client_name":"\u5efa\u8a2d\u7701\u4e5d\u5dde\u5730\u65b9\u5efa\u8a2d\u5c40\u516b\u4ee3\u5de5\u4e8b\u4e8b\u52d9\u6240","boring_xml_url":49,"boring_view_url":1,"soilmap_view_url":null,"soiltest_xml_url":0,"soiltest_view_url":0},{"id":210440,"code":"B4KJ201801009-8689","latitude":"32.27203","longitude":"130.93017","source_code":"QS20098985790200190243","project_name":"\u4e0b\u9db4\u5730\u533a\u5730\u8cea\u8abf\u67fb\u696d\u52d9","survey_name":"\u4e0b\u9db4\u5730\u533a\u5730\u8cea\u8abf\u67fb\u696d\u52d9","client_name":"\u5efa\u8a2d\u7701\u4e5d\u5dde\u5730\u65b9\u5efa\u8a2d\u5c40\u516b\u4ee3\u5de5\u4e8b\u4e8b\u52d9\u6240","boring_xml_url":49,"boring_view_url":1,"soilmap_view_url":null,"soiltest_xml_url":0,"soiltest_view_url":0},{"id":210439,"code":"B4KJ201801009-8688","latitude":"32.48894","longitude":"130.59186","source_code":"QS20098985790200190242","project_name":"\u7403\u78e8\u5ddd\u4e0b\u6d41\u53f3\u5cb8\u5730\u533a\u5730\u8cea\u8abf\u67fb\u59d4\u8a17\u696d\u52d9","survey_name":"\u7403\u78e8\u5ddd\u4e0b\u6d41\u53f3\u5cb8\u5730\u533a\u5730\u8cea\u8abf\u67fb\u59d4\u8a17\u696d\u52d9","client_name":"\u5efa\u8a2d\u7701\u4e5d\u5dde\u5730\u65b9\u5efa\u8a2d\u5c40\u516b\u4ee3\u5de5\u4e8b\u4e8b\u52d9\u6240","boring_xml_url":49,"boring_view_url":1,"soilmap_view_url":null,"soiltest_xml_url":52,"soiltest_view_url":52},{"id":210438,"code":"B4KJ201801009-8687","latitude":"32.48714","longitude":"130.58756","source_code":"QS20098985790200190241","project_name":"\u7403\u78e8\u5ddd\u4e0b\u6d41\u53f3\u5cb8\u5730\u533a\u5730\u8cea\u8abf\u67fb\u59d4\u8a17\u696d\u52d9","survey_name":"\u7403\u78e8\u5ddd\u4e0b\u6d41\u53f3\u5cb8\u5730\u533a\u5730\u8cea\u8abf\u67fb\u59d4\u8a17\u696d\u52d9","client_name":"\u5efa\u8a2d\u7701\u4e5d\u5dde\u5730\u65b9\u5efa\u8a2d\u5c40\u516b\u4ee3\u5de5\u4e8b\u4e8b\u52d9\u6240","boring_xml_url":49,"boring_view_url":1,"soilmap_view_url":null,"soiltest_xml_url":52,"soiltest_view_url":52},{"id":210437,"code":"B4KJ201801009-8686","latitude":"32.48644","longitude":"130.58186","source_code":"QS20098985790200190240","project_name":"\u7403\u78e8\u5ddd\u4e0b\u6d41\u53f3\u5cb8\u5730\u533a\u5730\u8cea\u8abf\u67fb\u59d4\u8a17\u696d\u52d9","survey_name":"\u7403\u78e8\u5ddd\u4e0b\u6d41\u53f3\u5cb8\u5730\u533a\u5730\u8cea\u8abf\u67fb\u59d4\u8a17\u696d\u52d9","client_name":"\u5efa\u8a2d\u7701\u4e5d\u5dde\u5730\u65b9\u5efa\u8a2d\u5c40\u516b\u4ee3\u5de5\u4e8b\u4e8b\u52d9\u6240","boring_xml_url":49,"boring_view_url":1,"soilmap_view_url":null,"soiltest_xml_url":52,"soiltest_view_url":52},{"id":210436,"code":"B4KJ201801009-8685","latitude":"32.48172","longitude":"130.57519","source_code":"QS20098985790200190239","project_name":"\u7403\u78e8\u5ddd\u4e0b\u6d41\u53f3\u5cb8\u5730\u533a\u5730\u8cea\u8abf\u67fb\u59d4\u8a17\u696d\u52d9","survey_name":"\u7403\u78e8\u5ddd\u4e0b\u6d41\u53f3\u5cb8\u5730\u533a\u5730\u8cea\u8abf\u67fb\u59d4\u8a17\u696d\u52d9","client_name":"\u5efa\u8a2d\u7701\u4e5d\u5dde\u5730\u65b9\u5efa\u8a2d\u5c40\u516b\u4ee3\u5de5\u4e8b\u4e8b\u52d9\u6240","boring_xml_url":49,"boring_view_url":1,"soilmap_view_url":null,"soiltest_xml_url":52,"soiltest_view_url":52},{"id":210435,"code":"B4KJ201801009-8684","latitude":"32.47922","longitude":"130.56631","source_code":"QS20098985790200190238","project_name":"\u7403\u78e8\u5ddd\u4e0b\u6d41\u53f3\u5cb8\u5730\u533a\u5730\u8cea\u8abf\u67fb\u59d4\u8a17\u696d\u52d9","survey_name":"\u7403\u78e8\u5ddd\u4e0b\u6d41\u53f3\u5cb8\u5730\u533a\u5730\u8cea\u8abf\u67fb\u59d4\u8a17\u696d\u52d9","client_name":"\u5efa\u8a2d\u7701\u4e5d\u5dde\u5730\u65b9\u5efa\u8a2d\u5c40\u516b\u4ee3\u5de5\u4e8b\u4e8b\u52d9\u6240","boring_xml_url":49,"boring_view_url":1,"soilmap_view_url":null,"soiltest_xml_url":52,"soiltest_view_url":52},{"id":210434,"code":"B4KJ201801009-8683","latitude":"32.477","longitude":"130.56061","source_code":"QS20098985790200190237","project_name":"\u7403\u78e8\u5ddd\u4e0b\u6d41\u53f3\u5cb8\u5730\u533a\u5730\u8cea\u8abf\u67fb\u59d4\u8a17\u696d\u52d9","survey_name":"\u7403\u78e8\u5ddd\u4e0b\u6d41\u53f3\u5cb8\u5730\u533a\u5730\u8cea\u8abf\u67fb\u59d4\u8a17\u696d\u52d9","client_name":"\u5efa\u8a2d\u7701\u4e5d\u5dde\u5730\u65b9\u5efa\u8a2d\u5c40\u516b\u4ee3\u5de5\u4e8b\u4e8b\u52d9\u6240","boring_xml_url":49,"boring_view_url":1,"soilmap_view_url":null,"soiltest_xml_url":52,"soiltest_view_url":52},{"id":210433,"code":"B4KJ201801009-8682","latitude":"32.53311","longitude":"130.59828","source_code":"QS20098985790200190236","project_name":"\u7403\u78e8\u5ddd\u4e0b\u6d41\u5de6\u5cb8\u5730\u533a\u5730\u8cea\u8abf\u67fb\u59d4\u8a17\u696d\u52d9","survey_name":"\u7403\u78e8\u5ddd\u4e0b\u6d41\u5de6\u5cb8\u5730\u533a\u5730\u8cea\u8abf\u67fb\u59d4\u8a17\u696d\u52d9","client_name":"\u5efa\u8a2d\u7701\u4e5d\u5dde\u5730\u65b9\u5efa\u8a2d\u5c40\u516b\u4ee3\u5de5\u4e8b\u4e8b\u52d9\u6240","boring_xml_url":49,"boring_view_url":1,"soilmap_view_url":null,"soiltest_xml_url":52,"soiltest_view_url":52},{"id":210432,"code":"B4KJ201801009-8681","latitude":"32.52758","longitude":"130.59214","source_code":"QS20098985790200190235","project_name":"\u7403\u78e8\u5ddd\u4e0b\u6d41\u5de6\u5cb8\u5730\u533a\u5730\u8cea\u8abf\u67fb\u59d4\u8a17\u696d\u52d9","survey_name":"\u7403\u78e8\u5ddd\u4e0b\u6d41\u5de6\u5cb8\u5730\u533a\u5730\u8cea\u8abf\u67fb\u59d4\u8a17\u696d\u52d9","client_name":"\u5efa\u8a2d\u7701\u4e5d\u5dde\u5730\u65b9\u5efa\u8a2d\u5c40\u516b\u4ee3\u5de5\u4e8b\u4e8b\u52d9\u6240","boring_xml_url":49,"boring_view_url":1,"soilmap_view_url":null,"soiltest_xml_url":52,"soiltest_view_url":52},{"id":210431,"code":"B4KJ201801009-8680","latitude":"32.52428","longitude":"130.58681","source_code":"QS20098985790200190234","project_name":"\u7403\u78e8\u5ddd\u4e0b\u6d41\u5de6\u5cb8\u5730\u533a\u5730\u8cea\u8abf\u67fb\u59d4\u8a17\u696d\u52d9","survey_name":"\u7403\u78e8\u5ddd\u4e0b\u6d41\u5de6\u5cb8\u5730\u533a\u5730\u8cea\u8abf\u67fb\u59d4\u8a17\u696d\u52d9","client_name":"\u5efa\u8a2d\u7701\u4e5d\u5dde\u5730\u65b9\u5efa\u8a2d\u5c40\u516b\u4ee3\u5de5\u4e8b\u4e8b\u52d9\u6240","boring_xml_url":49,"boring_view_url":1,"soilmap_view_url":null,"soiltest_xml_url":52,"soiltest_view_url":52},{"id":210430,"code":"B4KJ201801009-8679","latitude":"32.51936","longitude":"130.57942","source_code":"QS20098985790200190233","project_name":"\u7403\u78e8\u5ddd\u4e0b\u6d41\u5de6\u5cb8\u5730\u533a\u5730\u8cea\u8abf\u67fb\u59d4\u8a17\u696d\u52d9","survey_name":"\u7403\u78e8\u5ddd\u4e0b\u6d41\u5de6\u5cb8\u5730\u533a\u5730\u8cea\u8abf\u67fb\u59d4\u8a17\u696d\u52d9","client_name":"\u5efa\u8a2d\u7701\u4e5d\u5dde\u5730\u65b9\u5efa\u8a2d\u5c40\u516b\u4ee3\u5de5\u4e8b\u4e8b\u52d9\u6240","boring_xml_url":49,"boring_view_url":1,"soilmap_view_url":null,"soiltest_xml_url":52,"soiltest_view_url":52},{"id":210429,"code":"B4KJ201801009-8678","latitude":"32.51914","longitude":"130.576","source_code":"QS20098985790200190232","project_name":"\u7403\u78e8\u5ddd\u4e0b\u6d41\u5de6\u5cb8\u5730\u533a\u5730\u8cea\u8abf\u67fb\u59d4\u8a17\u696d\u52d9","survey_name":"\u7403\u78e8\u5ddd\u4e0b\u6d41\u5de6\u5cb8\u5730\u533a\u5730\u8cea\u8abf\u67fb\u59d4\u8a17\u696d\u52d9","client_name":"\u5efa\u8a2d\u7701\u4e5d\u5dde\u5730\u65b9\u5efa\u8a2d\u5c40\u516b\u4ee3\u5de5\u4e8b\u4e8b\u52d9\u6240","boring_xml_url":49,"boring_view_url":1,"soilmap_view_url":null,"soiltest_xml_url":52,"soiltest_view_url":52},{"id":210428,"code":"B4KJ201801009-8677","latitude":"32.51622","longitude":"130.56881","source_code":"QS20098985790200190231","project_name":"\u7403\u78e8\u5ddd\u4e0b\u6d41\u5de6\u5cb8\u5730\u533a\u5730\u8cea\u8abf\u67fb\u59d4\u8a17\u696d\u52d9","survey_name":"\u7403\u78e8\u5ddd\u4e0b\u6d41\u5de6\u5cb8\u5730\u533a\u5730\u8cea\u8abf\u67fb\u59d4\u8a17\u696d\u52d9","client_name":"\u5efa\u8a2d\u7701\u4e5d\u5dde\u5730\u65b9\u5efa\u8a2d\u5c40\u516b\u4ee3\u5de5\u4e8b\u4e8b\u52d9\u6240","boring_xml_url":49,"boring_view_url":1,"soilmap_view_url":null,"soiltest_xml_url":52,"soiltest_view_url":52},{"id":210427,"code":"B4KJ201801009-8676","latitude":"32.25189","longitude":"130.65589","source_code":"QS20098985790200190230","project_name":"\u5e73\u62106\u5e74\u5ea6\u7403\u78e8\u6a4b\u4fee\u6b63\u8a2d\u8a08\u696d\u52d9(\u5730\u8cea\u8abf\u67fb)","survey_name":"\u5e73\u62106\u5e74\u5ea6\u7403\u78e8\u6a4b\u4fee\u6b63\u8a2d\u8a08\u696d\u52d9(\u5730\u8cea\u8abf\u67fb)","client_name":"\u5efa\u8a2d\u7701\u4e5d\u5dde\u5730\u65b9\u5efa\u8a2d\u5c40\u516b\u4ee3\u5de5\u4e8b\u4e8b\u52d9\u6240","boring_xml_url":49,"boring_view_url":1,"soilmap_view_url":null,"soiltest_xml_url":0,"soiltest_view_url":0},{"id":210426,"code":"B4KJ201801009-8675","latitude":"32.25181","longitude":"130.65586","source_code":"QS20098985790200190229","project_name":"\u5e73\u62106\u5e74\u5ea6\u7403\u78e8\u6a4b\u4fee\u6b63\u8a2d\u8a08\u696d\u52d9(\u5730\u8cea\u8abf\u67fb)","survey_name":"\u5e73\u62106\u5e74\u5ea6\u7403\u78e8\u6a4b\u4fee\u6b63\u8a2d\u8a08\u696d\u52d9(\u5730\u8cea\u8abf\u67fb)","client_name":"\u5efa\u8a2d\u7701\u4e5d\u5dde\u5730\u65b9\u5efa\u8a2d\u5c40\u516b\u4ee3\u5de5\u4e8b\u4e8b\u52d9\u6240","boring_xml_url":49,"boring_view_url":1,"soilmap_view_url":null,"soiltest_xml_url":0,"soiltest_view_url":0},{"id":210425,"code":"B4KJ201801009-8674","latitude":"32.47222","longitude":"130.64164","source_code":"QS20098985790200190228","project_name":"\u5c0f\u5ddd\u7b2c3\u6392\u6c34\u6a0b\u7ba1\u5b9f\u65bd\u8a2d\u8a08\u696d\u52d9(\u5730\u8cea\u8abf\u67fb)","survey_name":"\u5c0f\u5ddd\u7b2c3\u6392\u6c34\u6a0b\u7ba1\u5b9f\u65bd\u8a2d\u8a08\u696d\u52d9(\u5730\u8cea\u8abf\u67fb)","client_name":"\u5efa\u8a2d\u7701\u4e5d\u5dde\u5730\u65b9\u5efa\u8a2d\u5c40\u516b\u4ee3\u5de5\u4e8b\u4e8b\u52d9\u6240","boring_xml_url":49,"boring_view_url":1,"soilmap_view_url":null,"soiltest_xml_url":0,"soiltest_view_url":0},{"id":210424,"code":"B4KJ201801009-8673","latitude":"32.47231","longitude":"130.64178","source_code":"QS20098985790200190227","project_name":"\u5c0f\u5ddd\u7b2c3\u6392\u6c34\u6a0b\u7ba1\u5b9f\u65bd\u8a2d\u8a08\u696d\u52d9(\u5730\u8cea\u8abf\u67fb)","survey_name":"\u5c0f\u5ddd\u7b2c3\u6392\u6c34\u6a0b\u7ba1\u5b9f\u65bd\u8a2d\u8a08\u696d\u52d9(\u5730\u8cea\u8abf\u67fb)","client_name":"\u5efa\u8a2d\u7701\u4e5d\u5dde\u5730\u65b9\u5efa\u8a2d\u5c40\u516b\u4ee3\u5de5\u4e8b\u4e8b\u52d9\u6240","boring_xml_url":49,"boring_view_url":1,"soilmap_view_url":null,"soiltest_xml_url":0,"soiltest_view_url":0},{"id":210423,"code":"B4KJ201801009-8672","latitude":"32.47081","longitude":"130.64303","source_code":"QS20098985790200190226","project_name":"\u5c0f\u5ddd\u7b2c1\u6392\u6c34\u6a0b\u7ba1\u5b9f\u65bd\u8a2d\u8a08\u696d\u52d9","survey_name":"\u5c0f\u5ddd\u7b2c1\u6392\u6c34\u6a0b\u7ba1\u5b9f\u65bd\u8a2d\u8a08\u696d\u52d9","client_name":"\u5efa\u8a2d\u7701\u4e5d\u5dde\u5730\u65b9\u5efa\u8a2d\u5c40\u516b\u4ee3\u5de5\u4e8b\u4e8b\u52d9\u6240","boring_xml_url":49,"boring_view_url":1,"soilmap_view_url":null,"soiltest_xml_url":0,"soiltest_view_url":0},{"id":210422,"code":"B4KJ201801009-8671","latitude":"32.47069","longitude":"130.64292","source_code":"QS20098985790200190225","project_name":"\u5c0f\u5ddd\u7b2c1\u6392\u6c34\u6a0b\u7ba1\u5b9f\u65bd\u8a2d\u8a08\u696d\u52d9","survey_name":"\u5c0f\u5ddd\u7b2c1\u6392\u6c34\u6a0b\u7ba1\u5b9f\u65bd\u8a2d\u8a08\u696d\u52d9","client_name":"\u5efa\u8a2d\u7701\u4e5d\u5dde\u5730\u65b9\u5efa\u8a2d\u5c40\u516b\u4ee3\u5de5\u4e8b\u4e8b\u52d9\u6240","boring_xml_url":49,"boring_view_url":1,"soilmap_view_url":null,"soiltest_xml_url":0,"soiltest_view_url":0},{"id":210421,"code":"B4KJ201801009-8670","latitude":"32.47172","longitude":"130.64336","source_code":"QS20098985790200190224","project_name":"\u5c0f\u5ddd\u7b2c2\u6392\u6c34\u6a0b\u7ba1\u5b9f\u65bd\u8a2d\u8a08\u696d\u52d9","survey_name":"\u5c0f\u5ddd\u7b2c2\u6392\u6c34\u6a0b\u7ba1\u5b9f\u65bd\u8a2d\u8a08\u696d\u52d9","client_name":"\u5efa\u8a2d\u7701\u4e5d\u5dde\u5730\u65b9\u5efa\u8a2d\u5c40\u516b\u4ee3\u5de5\u4e8b\u4e8b\u52d9\u6240","boring_xml_url":49,"boring_view_url":1,"soilmap_view_url":null,"soiltest_xml_url":0,"soiltest_view_url":0},{"id":210420,"code":"B4KJ201801009-8669","latitude":"32.47172","longitude":"130.64322","source_code":"QS20098985790200190223","project_name":"\u5c0f\u5ddd\u7b2c2\u6392\u6c34\u6a0b\u7ba1\u5b9f\u65bd\u8a2d\u8a08\u696d\u52d9","survey_name":"\u5c0f\u5ddd\u7b2c2\u6392\u6c34\u6a0b\u7ba1\u5b9f\u65bd\u8a2d\u8a08\u696d\u52d9","client_name":"\u5efa\u8a2d\u7701\u4e5d\u5dde\u5730\u65b9\u5efa\u8a2d\u5c40\u516b\u4ee3\u5de5\u4e8b\u4e8b\u52d9\u6240","boring_xml_url":49,"boring_view_url":1,"soilmap_view_url":null,"soiltest_xml_url":0,"soiltest_view_url":0},{"id":210419,"code":"B4KJ201801009-8668","latitude":"32.24044","longitude":"130.68792","source_code":"QS20098985790200190222","project_name":"\u5ddd\u6751\u7b2c4\u6392\u6c34\u6a0b\u7ba1\u4ed62\u4ef6\u5730\u8cea\u8abf\u67fb\u696d\u52d9","survey_name":"\u5ddd\u6751\u7b2c4\u6392\u6c34\u6a0b\u7ba1\u4ed62\u4ef6\u5730\u8cea\u8abf\u67fb\u696d\u52d9","client_name":"\u5efa\u8a2d\u7701\u4e5d\u5dde\u5730\u65b9\u5efa\u8a2d\u5c40\u516b\u4ee3\u5de5\u4e8b\u4e8b\u52d9\u6240","boring_xml_url":49,"boring_view_url":1,"soilmap_view_url":null,"soiltest_xml_url":0,"soiltest_view_url":0},{"id":210418,"code":"B4KJ201801009-8667","latitude":"32.24","longitude":"130.6875","source_code":"QS20098985790200190221","project_name":"\u5ddd\u6751\u7b2c4\u6392\u6c34\u6a0b\u7ba1\u4ed62\u4ef6\u5730\u8cea\u8abf\u67fb\u696d\u52d9","survey_name":"\u5ddd\u6751\u7b2c4\u6392\u6c34\u6a0b\u7ba1\u4ed62\u4ef6\u5730\u8cea\u8abf\u67fb\u696d\u52d9","client_name":"\u5efa\u8a2d\u7701\u4e5d\u5dde\u5730\u65b9\u5efa\u8a2d\u5c40\u516b\u4ee3\u5de5\u4e8b\u4e8b\u52d9\u6240","boring_xml_url":49,"boring_view_url":1,"soilmap_view_url":null,"soiltest_xml_url":0,"soiltest_view_url":0},{"id":210417,"code":"B4KJ201801009-8666","latitude":"32.21033","longitude":"130.78356","source_code":"QS20098985790200190220","project_name":"\u5ddd\u6751\u7b2c4\u6392\u6c34\u6a0b\u7ba1\u4ed62\u4ef6\u5730\u8cea\u8abf\u67fb\u696d\u52d9","survey_name":"\u5ddd\u6751\u7b2c4\u6392\u6c34\u6a0b\u7ba1\u4ed62\u4ef6\u5730\u8cea\u8abf\u67fb\u696d\u52d9","client_name":"\u5efa\u8a2d\u7701\u4e5d\u5dde\u5730\u65b9\u5efa\u8a2d\u5c40\u516b\u4ee3\u5de5\u4e8b\u4e8b\u52d9\u6240","boring_xml_url":49,"boring_view_url":1,"soilmap_view_url":null,"soiltest_xml_url":0,"soiltest_view_url":0},{"id":210416,"code":"B4KJ201801009-8665","latitude":"32.21081","longitude":"130.78322","source_code":"QS20098985790200190219","project_name":"\u5ddd\u6751\u7b2c4\u6392\u6c34\u6a0b\u7ba1\u4ed62\u4ef6\u5730\u8cea\u8abf\u67fb\u696d\u52d9","survey_name":"\u5ddd\u6751\u7b2c4\u6392\u6c34\u6a0b\u7ba1\u4ed62\u4ef6\u5730\u8cea\u8abf\u67fb\u696d\u52d9","client_name":"\u5efa\u8a2d\u7701\u4e5d\u5dde\u5730\u65b9\u5efa\u8a2d\u5c40\u516b\u4ee3\u5de5\u4e8b\u4e8b\u52d9\u6240","boring_xml_url":49,"boring_view_url":1,"soilmap_view_url":null,"soiltest_xml_url":0,"soiltest_view_url":0}]}}