{"header":{"xyz":{"source":[],"mosaic":false},"page":3672,"raw":{"soiltest_result":"0","bbox":"57.598333,109.544722,1.933333,163.806111","page":"3672"},"conditions":{"soiltest_result":0,"north":57.598333,"west":109.544722,"south":1.933333,"east":163.806111},"success":true,"message":""},"data":{"meta":{"total":212844,"page":3672,"pages":7095,"count":30},"values":[{"id":210415,"code":"B4KJ201801009-8664","latitude":"32.20542","longitude":"130.78925","source_code":"QS20098985790200190218","project_name":"\u5ddd\u6751\u7b2c4\u6392\u6c34\u6a0b\u7ba1\u4ed62\u4ef6\u5730\u8cea\u8abf\u67fb\u696d\u52d9","survey_name":"\u5ddd\u6751\u7b2c4\u6392\u6c34\u6a0b\u7ba1\u4ed62\u4ef6\u5730\u8cea\u8abf\u67fb\u696d\u52d9","client_name":"\u5efa\u8a2d\u7701\u4e5d\u5dde\u5730\u65b9\u5efa\u8a2d\u5c40\u516b\u4ee3\u5de5\u4e8b\u4e8b\u52d9\u6240","boring_xml_url":49,"boring_view_url":1,"soilmap_view_url":null,"soiltest_xml_url":0,"soiltest_view_url":0},{"id":210414,"code":"B4KJ201801009-8663","latitude":"32.28522","longitude":"130.97775","source_code":"QS20098985790200190217","project_name":"\u6e6f\u524d\u6392\u6c34\u6a0b\u7ba1\u53ca\u3073\u5e84\u5c4b\u6398\u524a\u5730\u8cea\u8abf\u67fb\u696d\u52d9","survey_name":"\u6e6f\u524d\u6392\u6c34\u6a0b\u7ba1\u53ca\u3073\u5e84\u5c4b\u6398\u524a\u5730\u8cea\u8abf\u67fb\u696d\u52d9","client_name":"\u5efa\u8a2d\u7701\u4e5d\u5dde\u5730\u65b9\u5efa\u8a2d\u5c40\u516b\u4ee3\u5de5\u4e8b\u4e8b\u52d9\u6240","boring_xml_url":49,"boring_view_url":1,"soilmap_view_url":null,"soiltest_xml_url":0,"soiltest_view_url":0},{"id":210413,"code":"B4KJ201801009-8662","latitude":"32.28514","longitude":"130.97772","source_code":"QS20098985790200190216","project_name":"\u6e6f\u524d\u6392\u6c34\u6a0b\u7ba1\u53ca\u3073\u5e84\u5c4b\u6398\u524a\u5730\u8cea\u8abf\u67fb\u696d\u52d9","survey_name":"\u6e6f\u524d\u6392\u6c34\u6a0b\u7ba1\u53ca\u3073\u5e84\u5c4b\u6398\u524a\u5730\u8cea\u8abf\u67fb\u696d\u52d9","client_name":"\u5efa\u8a2d\u7701\u4e5d\u5dde\u5730\u65b9\u5efa\u8a2d\u5c40\u516b\u4ee3\u5de5\u4e8b\u4e8b\u52d9\u6240","boring_xml_url":49,"boring_view_url":1,"soilmap_view_url":null,"soiltest_xml_url":0,"soiltest_view_url":0},{"id":210412,"code":"B4KJ201801009-8661","latitude":"32.23756","longitude":"130.86636","source_code":"QS20098985790200190215","project_name":"\u6e6f\u524d\u6392\u6c34\u6a0b\u7ba1\u53ca\u3073\u5e84\u5c4b\u6398\u524a\u5730\u8cea\u8abf\u67fb\u696d\u52d9","survey_name":"\u6e6f\u524d\u6392\u6c34\u6a0b\u7ba1\u53ca\u3073\u5e84\u5c4b\u6398\u524a\u5730\u8cea\u8abf\u67fb\u696d\u52d9","client_name":"\u5efa\u8a2d\u7701\u4e5d\u5dde\u5730\u65b9\u5efa\u8a2d\u5c40\u516b\u4ee3\u5de5\u4e8b\u4e8b\u52d9\u6240","boring_xml_url":49,"boring_view_url":1,"soilmap_view_url":null,"soiltest_xml_url":0,"soiltest_view_url":0},{"id":210411,"code":"B4KJ201801009-8660","latitude":"32.23697","longitude":"130.86581","source_code":"QS20098985790200190214","project_name":"\u6e6f\u524d\u6392\u6c34\u6a0b\u7ba1\u53ca\u3073\u5e84\u5c4b\u6398\u524a\u5730\u8cea\u8abf\u67fb\u696d\u52d9","survey_name":"\u6e6f\u524d\u6392\u6c34\u6a0b\u7ba1\u53ca\u3073\u5e84\u5c4b\u6398\u524a\u5730\u8cea\u8abf\u67fb\u696d\u52d9","client_name":"\u5efa\u8a2d\u7701\u4e5d\u5dde\u5730\u65b9\u5efa\u8a2d\u5c40\u516b\u4ee3\u5de5\u4e8b\u4e8b\u52d9\u6240","boring_xml_url":49,"boring_view_url":1,"soilmap_view_url":null,"soiltest_xml_url":0,"soiltest_view_url":0},{"id":210410,"code":"B4KJ201801009-8659","latitude":"32.23697","longitude":"130.86511","source_code":"QS20098985790200190213","project_name":"\u6e6f\u524d\u6392\u6c34\u6a0b\u7ba1\u53ca\u3073\u5e84\u5c4b\u6398\u524a\u5730\u8cea\u8abf\u67fb\u696d\u52d9","survey_name":"\u6e6f\u524d\u6392\u6c34\u6a0b\u7ba1\u53ca\u3073\u5e84\u5c4b\u6398\u524a\u5730\u8cea\u8abf\u67fb\u696d\u52d9","client_name":"\u5efa\u8a2d\u7701\u4e5d\u5dde\u5730\u65b9\u5efa\u8a2d\u5c40\u516b\u4ee3\u5de5\u4e8b\u4e8b\u52d9\u6240","boring_xml_url":49,"boring_view_url":1,"soilmap_view_url":null,"soiltest_xml_url":0,"soiltest_view_url":0},{"id":210409,"code":"B4KJ201801009-8658","latitude":"32.23694","longitude":"130.86569","source_code":"QS20098985790200190212","project_name":"\u5e84\u5c4b\u5730\u533a\u6cb3\u9053\u8a08\u753b\u691c\u8a0e\u696d\u52d9","survey_name":"\u5e84\u5c4b\u5730\u533a\u6cb3\u9053\u8a08\u753b\u691c\u8a0e\u696d\u52d9","client_name":"\u5efa\u8a2d\u7701\u4e5d\u5dde\u5730\u65b9\u5efa\u8a2d\u5c40\u516b\u4ee3\u5de5\u4e8b\u4e8b\u52d9\u6240","boring_xml_url":49,"boring_view_url":1,"soilmap_view_url":null,"soiltest_xml_url":0,"soiltest_view_url":0},{"id":210408,"code":"B4KJ201801009-8657","latitude":"32.23736","longitude":"130.86614","source_code":"QS20098985790200190211","project_name":"\u5e84\u5c4b\u5730\u533a\u6cb3\u9053\u8a08\u753b\u691c\u8a0e\u696d\u52d9","survey_name":"\u5e84\u5c4b\u5730\u533a\u6cb3\u9053\u8a08\u753b\u691c\u8a0e\u696d\u52d9","client_name":"\u5efa\u8a2d\u7701\u4e5d\u5dde\u5730\u65b9\u5efa\u8a2d\u5c40\u516b\u4ee3\u5de5\u4e8b\u4e8b\u52d9\u6240","boring_xml_url":49,"boring_view_url":1,"soilmap_view_url":null,"soiltest_xml_url":0,"soiltest_view_url":0},{"id":210407,"code":"B4KJ201801009-8656","latitude":"32.23744","longitude":"130.86697","source_code":"QS20098985790200190210","project_name":"\u5e84\u5c4b\u5730\u533a\u6cb3\u9053\u8a08\u753b\u691c\u8a0e\u696d\u52d9","survey_name":"\u5e84\u5c4b\u5730\u533a\u6cb3\u9053\u8a08\u753b\u691c\u8a0e\u696d\u52d9","client_name":"\u5efa\u8a2d\u7701\u4e5d\u5dde\u5730\u65b9\u5efa\u8a2d\u5c40\u516b\u4ee3\u5de5\u4e8b\u4e8b\u52d9\u6240","boring_xml_url":49,"boring_view_url":1,"soilmap_view_url":null,"soiltest_xml_url":0,"soiltest_view_url":0},{"id":210406,"code":"B4KJ201801009-8655","latitude":"32.50383","longitude":"130.5895","source_code":"QS20098985790200190209","project_name":"\u846d\u725f\u7530\u5730\u533a\u59161\u4ef6\u5730\u8cea\u8abf\u67fb\u696d\u52d9","survey_name":"\u846d\u725f\u7530\u5730\u533a\u59161\u4ef6\u5730\u8cea\u8abf\u67fb\u696d\u52d9","client_name":"\u5efa\u8a2d\u7701\u4e5d\u5dde\u5730\u65b9\u5efa\u8a2d\u5c40\u516b\u4ee3\u5de5\u4e8b\u4e8b\u52d9\u6240","boring_xml_url":49,"boring_view_url":1,"soilmap_view_url":null,"soiltest_xml_url":0,"soiltest_view_url":0},{"id":210405,"code":"B4KJ201801009-8654","latitude":"32.49275","longitude":"130.58381","source_code":"QS20098985790200190208","project_name":"\u846d\u725f\u7530\u5730\u533a\u59161\u4ef6\u5730\u8cea\u8abf\u67fb\u696d\u52d9","survey_name":"\u846d\u725f\u7530\u5730\u533a\u59161\u4ef6\u5730\u8cea\u8abf\u67fb\u696d\u52d9","client_name":"\u5efa\u8a2d\u7701\u4e5d\u5dde\u5730\u65b9\u5efa\u8a2d\u5c40\u516b\u4ee3\u5de5\u4e8b\u4e8b\u52d9\u6240","boring_xml_url":49,"boring_view_url":1,"soilmap_view_url":null,"soiltest_xml_url":0,"soiltest_view_url":0},{"id":210404,"code":"B4KJ201801009-8653","latitude":"32.49256","longitude":"130.58603","source_code":"QS20098985790200190207","project_name":"\u846d\u725f\u7530\u5730\u533a\u59161\u4ef6\u5730\u8cea\u8abf\u67fb\u696d\u52d9","survey_name":"\u846d\u725f\u7530\u5730\u533a\u59161\u4ef6\u5730\u8cea\u8abf\u67fb\u696d\u52d9","client_name":"\u5efa\u8a2d\u7701\u4e5d\u5dde\u5730\u65b9\u5efa\u8a2d\u5c40\u516b\u4ee3\u5de5\u4e8b\u4e8b\u52d9\u6240","boring_xml_url":49,"boring_view_url":1,"soilmap_view_url":null,"soiltest_xml_url":0,"soiltest_view_url":0},{"id":210403,"code":"B4KJ201801009-8652","latitude":"32.27069","longitude":"130.93481","source_code":"QS20098985790200190206","project_name":"\u5e84\u5c4b\u7b2c4\u6392\u6c34\u6a0b\u7ba1\u59161\u4ef6\u5730\u8cea\u8abf\u67fb\u696d\u52d9","survey_name":"\u5e84\u5c4b\u7b2c4\u6392\u6c34\u6a0b\u7ba1\u59161\u4ef6\u5730\u8cea\u8abf\u67fb\u696d\u52d9","client_name":"\u5efa\u8a2d\u7701\u4e5d\u5dde\u5730\u65b9\u5efa\u8a2d\u5c40\u516b\u4ee3\u5de5\u4e8b\u4e8b\u52d9\u6240","boring_xml_url":49,"boring_view_url":1,"soilmap_view_url":null,"soiltest_xml_url":0,"soiltest_view_url":0},{"id":210402,"code":"B4KJ201801009-8651","latitude":"32.27067","longitude":"130.93467","source_code":"QS20098985790200190205","project_name":"\u5e84\u5c4b\u7b2c4\u6392\u6c34\u6a0b\u7ba1\u59161\u4ef6\u5730\u8cea\u8abf\u67fb\u696d\u52d9","survey_name":"\u5e84\u5c4b\u7b2c4\u6392\u6c34\u6a0b\u7ba1\u59161\u4ef6\u5730\u8cea\u8abf\u67fb\u696d\u52d9","client_name":"\u5efa\u8a2d\u7701\u4e5d\u5dde\u5730\u65b9\u5efa\u8a2d\u5c40\u516b\u4ee3\u5de5\u4e8b\u4e8b\u52d9\u6240","boring_xml_url":49,"boring_view_url":1,"soilmap_view_url":null,"soiltest_xml_url":0,"soiltest_view_url":0},{"id":210401,"code":"B4KJ201801009-8650","latitude":"32.27247","longitude":"130.93289","source_code":"QS20098985790200190204","project_name":"\u5e84\u5c4b\u7b2c4\u6392\u6c34\u6a0b\u7ba1\u59161\u4ef6\u5730\u8cea\u8abf\u67fb\u696d\u52d9","survey_name":"\u5e84\u5c4b\u7b2c4\u6392\u6c34\u6a0b\u7ba1\u59161\u4ef6\u5730\u8cea\u8abf\u67fb\u696d\u52d9","client_name":"\u5efa\u8a2d\u7701\u4e5d\u5dde\u5730\u65b9\u5efa\u8a2d\u5c40\u516b\u4ee3\u5de5\u4e8b\u4e8b\u52d9\u6240","boring_xml_url":49,"boring_view_url":1,"soilmap_view_url":null,"soiltest_xml_url":0,"soiltest_view_url":0},{"id":210400,"code":"B4KJ201801009-8649","latitude":"32.27242","longitude":"130.93269","source_code":"QS20098985790200190203","project_name":"\u5e84\u5c4b\u7b2c4\u6392\u6c34\u6a0b\u7ba1\u59161\u4ef6\u5730\u8cea\u8abf\u67fb\u696d\u52d9","survey_name":"\u5e84\u5c4b\u7b2c4\u6392\u6c34\u6a0b\u7ba1\u59161\u4ef6\u5730\u8cea\u8abf\u67fb\u696d\u52d9","client_name":"\u5efa\u8a2d\u7701\u4e5d\u5dde\u5730\u65b9\u5efa\u8a2d\u5c40\u516b\u4ee3\u5de5\u4e8b\u4e8b\u52d9\u6240","boring_xml_url":49,"boring_view_url":1,"soilmap_view_url":null,"soiltest_xml_url":0,"soiltest_view_url":0},{"id":210399,"code":"B4KJ201801009-8648","latitude":"32.24444","longitude":"130.88117","source_code":"QS20098985790200190202","project_name":"\u5e84\u5c4b\u7b2c4\u6392\u6c34\u6a0b\u7ba1\u59161\u4ef6\u5730\u8cea\u8abf\u67fb\u696d\u52d9","survey_name":"\u5e84\u5c4b\u7b2c4\u6392\u6c34\u6a0b\u7ba1\u59161\u4ef6\u5730\u8cea\u8abf\u67fb\u696d\u52d9","client_name":"\u5efa\u8a2d\u7701\u4e5d\u5dde\u5730\u65b9\u5efa\u8a2d\u5c40\u516b\u4ee3\u5de5\u4e8b\u4e8b\u52d9\u6240","boring_xml_url":49,"boring_view_url":1,"soilmap_view_url":null,"soiltest_xml_url":0,"soiltest_view_url":0},{"id":210398,"code":"B4KJ201801009-8647","latitude":"32.24431","longitude":"130.88119","source_code":"QS20098985790200190201","project_name":"\u5e84\u5c4b\u7b2c4\u6392\u6c34\u6a0b\u7ba1\u59161\u4ef6\u5730\u8cea\u8abf\u67fb\u696d\u52d9","survey_name":"\u5e84\u5c4b\u7b2c4\u6392\u6c34\u6a0b\u7ba1\u59161\u4ef6\u5730\u8cea\u8abf\u67fb\u696d\u52d9","client_name":"\u5efa\u8a2d\u7701\u4e5d\u5dde\u5730\u65b9\u5efa\u8a2d\u5c40\u516b\u4ee3\u5de5\u4e8b\u4e8b\u52d9\u6240","boring_xml_url":49,"boring_view_url":1,"soilmap_view_url":null,"soiltest_xml_url":0,"soiltest_view_url":0},{"id":210397,"code":"B4KJ201801009-8646","latitude":"32.20653","longitude":"130.79325","source_code":"QS20098985790200190200","project_name":"\u5ddd\u6751\u7b2c2\u6392\u6c34\u6a0b\u7ba1\u59161\u4ef6\u5730\u8cea\u8abf\u67fb\u696d\u52d9","survey_name":"\u5ddd\u6751\u7b2c2\u6392\u6c34\u6a0b\u7ba1\u59161\u4ef6\u5730\u8cea\u8abf\u67fb\u696d\u52d9","client_name":"\u5efa\u8a2d\u7701\u4e5d\u5dde\u5730\u65b9\u5efa\u8a2d\u5c40\u516b\u4ee3\u5de5\u4e8b\u4e8b\u52d9\u6240","boring_xml_url":49,"boring_view_url":1,"soilmap_view_url":null,"soiltest_xml_url":0,"soiltest_view_url":0},{"id":210396,"code":"B4KJ201801009-8645","latitude":"32.20633","longitude":"130.79317","source_code":"QS20098985790200190199","project_name":"\u5ddd\u6751\u7b2c2\u6392\u6c34\u6a0b\u7ba1\u59161\u4ef6\u5730\u8cea\u8abf\u67fb\u696d\u52d9","survey_name":"\u5ddd\u6751\u7b2c2\u6392\u6c34\u6a0b\u7ba1\u59161\u4ef6\u5730\u8cea\u8abf\u67fb\u696d\u52d9","client_name":"\u5efa\u8a2d\u7701\u4e5d\u5dde\u5730\u65b9\u5efa\u8a2d\u5c40\u516b\u4ee3\u5de5\u4e8b\u4e8b\u52d9\u6240","boring_xml_url":49,"boring_view_url":1,"soilmap_view_url":null,"soiltest_xml_url":0,"soiltest_view_url":0},{"id":210395,"code":"B4KJ201801009-8644","latitude":"32.20556","longitude":"130.79014","source_code":"QS20098985790200190198","project_name":"\u5ddd\u6751\u7b2c2\u6392\u6c34\u6a0b\u7ba1\u59161\u4ef6\u5730\u8cea\u8abf\u67fb\u696d\u52d9","survey_name":"\u5ddd\u6751\u7b2c2\u6392\u6c34\u6a0b\u7ba1\u59161\u4ef6\u5730\u8cea\u8abf\u67fb\u696d\u52d9","client_name":"\u5efa\u8a2d\u7701\u4e5d\u5dde\u5730\u65b9\u5efa\u8a2d\u5c40\u516b\u4ee3\u5de5\u4e8b\u4e8b\u52d9\u6240","boring_xml_url":49,"boring_view_url":1,"soilmap_view_url":null,"soiltest_xml_url":0,"soiltest_view_url":0},{"id":210394,"code":"B4KJ201801009-8643","latitude":"32.20592","longitude":"130.79028","source_code":"QS20098985790200190197","project_name":"\u5ddd\u6751\u7b2c2\u6392\u6c34\u6a0b\u7ba1\u59161\u4ef6\u5730\u8cea\u8abf\u67fb\u696d\u52d9","survey_name":"\u5ddd\u6751\u7b2c2\u6392\u6c34\u6a0b\u7ba1\u59161\u4ef6\u5730\u8cea\u8abf\u67fb\u696d\u52d9","client_name":"\u5efa\u8a2d\u7701\u4e5d\u5dde\u5730\u65b9\u5efa\u8a2d\u5c40\u516b\u4ee3\u5de5\u4e8b\u4e8b\u52d9\u6240","boring_xml_url":49,"boring_view_url":1,"soilmap_view_url":null,"soiltest_xml_url":0,"soiltest_view_url":0},{"id":210393,"code":"B4KJ201801009-8642","latitude":"32.44131","longitude":"130.66083","source_code":"QS20098985790200190196","project_name":"\u6cb9\u8c37\u5ddd\u6a4b\u5730\u8cea\u8abf\u67fb\u696d\u52d9","survey_name":"\u6cb9\u8c37\u5ddd\u6a4b\u5730\u8cea\u8abf\u67fb\u696d\u52d9","client_name":"\u5efa\u8a2d\u7701\u4e5d\u5dde\u5730\u65b9\u5efa\u8a2d\u5c40\u516b\u4ee3\u5de5\u4e8b\u4e8b\u52d9\u6240","boring_xml_url":49,"boring_view_url":1,"soilmap_view_url":null,"soiltest_xml_url":0,"soiltest_view_url":0},{"id":210392,"code":"B4KJ201801009-8641","latitude":"32.44103","longitude":"130.66078","source_code":"QS20098985790200190195","project_name":"\u6cb9\u8c37\u5ddd\u6a4b\u5730\u8cea\u8abf\u67fb\u696d\u52d9","survey_name":"\u6cb9\u8c37\u5ddd\u6a4b\u5730\u8cea\u8abf\u67fb\u696d\u52d9","client_name":"\u5efa\u8a2d\u7701\u4e5d\u5dde\u5730\u65b9\u5efa\u8a2d\u5c40\u516b\u4ee3\u5de5\u4e8b\u4e8b\u52d9\u6240","boring_xml_url":49,"boring_view_url":1,"soilmap_view_url":null,"soiltest_xml_url":0,"soiltest_view_url":0},{"id":210391,"code":"B4KJ201801009-8640","latitude":"32.50219","longitude":"130.60431","source_code":"QS20098985790200190194","project_name":"\u672c\u753a\u5730\u533a\u5730\u8cea\u8abf\u67fb\u53ca\u8a2d\u8a08\u696d\u52d9\u59d4\u8a17","survey_name":"\u672c\u753a\u5730\u533a\u5730\u8cea\u8abf\u67fb\u53ca\u8a2d\u8a08\u696d\u52d9\u59d4\u8a17","client_name":"\u5efa\u8a2d\u7701\u4e5d\u5dde\u5730\u65b9\u5efa\u8a2d\u5c40\u516b\u4ee3\u5de5\u4e8b\u4e8b\u52d9\u6240","boring_xml_url":49,"boring_view_url":1,"soilmap_view_url":null,"soiltest_xml_url":0,"soiltest_view_url":0},{"id":210390,"code":"B4KJ201801009-8639","latitude":"32.50192","longitude":"130.60511","source_code":"QS20098985790200190193","project_name":"\u672c\u753a\u5730\u533a\u5730\u8cea\u8abf\u67fb\u53ca\u8a2d\u8a08\u696d\u52d9\u59d4\u8a17","survey_name":"\u672c\u753a\u5730\u533a\u5730\u8cea\u8abf\u67fb\u53ca\u8a2d\u8a08\u696d\u52d9\u59d4\u8a17","client_name":"\u5efa\u8a2d\u7701\u4e5d\u5dde\u5730\u65b9\u5efa\u8a2d\u5c40\u516b\u4ee3\u5de5\u4e8b\u4e8b\u52d9\u6240","boring_xml_url":49,"boring_view_url":1,"soilmap_view_url":null,"soiltest_xml_url":0,"soiltest_view_url":0},{"id":210389,"code":"B4KJ201801009-8638","latitude":"32.50167","longitude":"130.60581","source_code":"QS20098985790200190192","project_name":"\u672c\u753a\u5730\u533a\u5730\u8cea\u8abf\u67fb\u53ca\u8a2d\u8a08\u696d\u52d9\u59d4\u8a17","survey_name":"\u672c\u753a\u5730\u533a\u5730\u8cea\u8abf\u67fb\u53ca\u8a2d\u8a08\u696d\u52d9\u59d4\u8a17","client_name":"\u5efa\u8a2d\u7701\u4e5d\u5dde\u5730\u65b9\u5efa\u8a2d\u5c40\u516b\u4ee3\u5de5\u4e8b\u4e8b\u52d9\u6240","boring_xml_url":49,"boring_view_url":1,"soilmap_view_url":null,"soiltest_xml_url":0,"soiltest_view_url":0},{"id":210388,"code":"B4KJ201801009-8637","latitude":"32.205258","longitude":"130.802508","source_code":"QS20098985790200190191","project_name":"\u5ddd\u540e\u5cf6\u6392\u6c34\u6a0b\u7ba1\u5730\u8cea\u8abf\u67fb\u696d\u52d9","survey_name":"\u5ddd\u540e\u5cf6\u6392\u6c34\u6a0b\u7ba1\u5730\u8cea\u8abf\u67fb\u696d\u52d9","client_name":"\u5efa\u8a2d\u7701\u4e5d\u5dde\u5730\u65b9\u5efa\u8a2d\u5c40\u516b\u4ee3\u5de5\u4e8b\u4e8b\u52d9\u6240","boring_xml_url":49,"boring_view_url":1,"soilmap_view_url":null,"soiltest_xml_url":0,"soiltest_view_url":0},{"id":210387,"code":"B4KJ201801009-8636","latitude":"32.205556","longitude":"130.802475","source_code":"QS20098985790200190190","project_name":"\u5ddd\u540e\u5cf6\u6392\u6c34\u6a0b\u7ba1\u5730\u8cea\u8abf\u67fb\u696d\u52d9","survey_name":"\u5ddd\u540e\u5cf6\u6392\u6c34\u6a0b\u7ba1\u5730\u8cea\u8abf\u67fb\u696d\u52d9","client_name":"\u5efa\u8a2d\u7701\u4e5d\u5dde\u5730\u65b9\u5efa\u8a2d\u5c40\u516b\u4ee3\u5de5\u4e8b\u4e8b\u52d9\u6240","boring_xml_url":49,"boring_view_url":1,"soilmap_view_url":null,"soiltest_xml_url":0,"soiltest_view_url":0},{"id":210386,"code":"B4KJ201801009-8635","latitude":"32.23581","longitude":"130.69533","source_code":"QS20098985790200190189","project_name":"\u4eca\u6751\u7b2c1.\u7b2c2\u6a0b\u7ba1\u5730\u8cea\u8abf\u67fb\u696d\u52d9(\u7b2c2\u6a0b\u7ba1)","survey_name":"\u4eca\u6751\u7b2c1.\u7b2c2\u6a0b\u7ba1\u5730\u8cea\u8abf\u67fb\u696d\u52d9(\u7b2c2\u6a0b\u7ba1)","client_name":"\u5efa\u8a2d\u7701\u4e5d\u5dde\u5730\u65b9\u5efa\u8a2d\u5c40\u516b\u4ee3\u5de5\u4e8b\u4e8b\u52d9\u6240","boring_xml_url":49,"boring_view_url":1,"soilmap_view_url":null,"soiltest_xml_url":0,"soiltest_view_url":0}]}}