{"header":{"xyz":{"source":[],"mosaic":false},"page":369,"raw":{"soiltest_result":"0","bbox":"57.598333,109.544722,1.933333,163.806111","page":"369"},"conditions":{"soiltest_result":0,"north":57.598333,"west":109.544722,"south":1.933333,"east":163.806111},"success":true,"message":""},"data":{"meta":{"total":212844,"page":369,"pages":7095,"count":30},"values":[{"id":554141,"code":"NGIC202202039-0002","latitude":"33.286078444444","longitude":"130.17730988889","source_code":"","project_name":"","survey_name":"\u4ee4\u548c4\u5e74\u5ea6 \u591a\u4e45\u4f50\u8cc0\u9053\u8def\u5730\u8cea\u8abf\u67fb\u696d\u52d9","client_name":"\u56fd\u571f\u4ea4\u901a\u7701\u4e5d\u5dde\u5730\u65b9\u6574\u5099\u5c40\u4f50\u8cc0\u56fd\u9053\u4e8b\u52d9\u6240","boring_xml_url":47,"boring_view_url":1,"soilmap_view_url":null,"soiltest_xml_url":0,"soiltest_view_url":0},{"id":554140,"code":"NGIC202202039-0001","latitude":"33.288484611111","longitude":"130.17104213889","source_code":"","project_name":"","survey_name":"\u4ee4\u548c4\u5e74\u5ea6 \u591a\u4e45\u4f50\u8cc0\u9053\u8def\u5730\u8cea\u8abf\u67fb\u696d\u52d9","client_name":"\u56fd\u571f\u4ea4\u901a\u7701\u4e5d\u5dde\u5730\u65b9\u6574\u5099\u5c40\u4f50\u8cc0\u56fd\u9053\u4e8b\u52d9\u6240","boring_xml_url":47,"boring_view_url":1,"soilmap_view_url":null,"soiltest_xml_url":0,"soiltest_view_url":0},{"id":554004,"code":"NGIC202201934-0003","latitude":"34.943284583333","longitude":"136.01239116667","source_code":"","project_name":"","survey_name":"\u5927\u6238\u5ddd\u30c0\u30e0\u672c\u4f53\u30dc\u30fc\u30ea\u30f3\u30b0\u8abf\u67fb\u305d\u306e4\u696d\u52d9","client_name":"\u56fd\u571f\u4ea4\u901a\u7701\u8fd1\u757f\u5730\u65b9\u6574\u5099\u5c40\u5927\u6238\u5ddd\u30c0\u30e0\u5de5\u4e8b\u4e8b\u52d9\u6240","boring_xml_url":47,"boring_view_url":1,"soilmap_view_url":null,"soiltest_xml_url":0,"soiltest_view_url":0},{"id":554003,"code":"NGIC202201934-0002","latitude":"34.943320416667","longitude":"136.01282694444","source_code":"","project_name":"","survey_name":"\u5927\u6238\u5ddd\u30c0\u30e0\u672c\u4f53\u30dc\u30fc\u30ea\u30f3\u30b0\u8abf\u67fb\u305d\u306e4\u696d\u52d9","client_name":"\u56fd\u571f\u4ea4\u901a\u7701\u8fd1\u757f\u5730\u65b9\u6574\u5099\u5c40\u5927\u6238\u5ddd\u30c0\u30e0\u5de5\u4e8b\u4e8b\u52d9\u6240","boring_xml_url":47,"boring_view_url":1,"soilmap_view_url":null,"soiltest_xml_url":0,"soiltest_view_url":0},{"id":554002,"code":"NGIC202201934-0001","latitude":"34.9438545","longitude":"136.01276711111","source_code":"","project_name":"","survey_name":"\u5927\u6238\u5ddd\u30c0\u30e0\u672c\u4f53\u30dc\u30fc\u30ea\u30f3\u30b0\u8abf\u67fb\u305d\u306e4\u696d\u52d9","client_name":"\u56fd\u571f\u4ea4\u901a\u7701\u8fd1\u757f\u5730\u65b9\u6574\u5099\u5c40\u5927\u6238\u5ddd\u30c0\u30e0\u5de5\u4e8b\u4e8b\u52d9\u6240","boring_xml_url":47,"boring_view_url":1,"soilmap_view_url":null,"soiltest_xml_url":0,"soiltest_view_url":0},{"id":554001,"code":"NGIC202202054-0002","latitude":"36.755005555556","longitude":"137.13702222222","source_code":"","project_name":"","survey_name":"\u4ee4\u548c4\u5e74\u5ea6 \u4f0f\u6728\u5bcc\u5c71\u6e2f\uff08\u65b0\u6e4a\u5730\u533a\uff09\u571f\u8cea\u8abf\u67fb","client_name":"\u56fd\u571f\u4ea4\u901a\u7701\u5317\u9678\u5730\u65b9\u6574\u5099\u5c40\u4f0f\u6728\u5bcc\u5c71\u6e2f\u6e7e\u4e8b\u52d9\u6240","boring_xml_url":47,"boring_view_url":1,"soilmap_view_url":71,"soiltest_xml_url":47,"soiltest_view_url":47},{"id":554000,"code":"NGIC202202054-0001","latitude":"36.755619444444","longitude":"137.13444444444","source_code":"","project_name":"","survey_name":"\u4ee4\u548c4\u5e74\u5ea6 \u4f0f\u6728\u5bcc\u5c71\u6e2f\uff08\u65b0\u6e4a\u5730\u533a\uff09\u571f\u8cea\u8abf\u67fb","client_name":"\u56fd\u571f\u4ea4\u901a\u7701\u5317\u9678\u5730\u65b9\u6574\u5099\u5c40\u4f0f\u6728\u5bcc\u5c71\u6e2f\u6e7e\u4e8b\u52d9\u6240","boring_xml_url":47,"boring_view_url":1,"soilmap_view_url":71,"soiltest_xml_url":47,"soiltest_view_url":47},{"id":553976,"code":"NGIC202202033-0003","latitude":"44.870569472222","longitude":"142.63928969444","source_code":"","project_name":"","survey_name":"\u4e00\u822c\u56fd\u9053275\u53f7 \u4e2d\u9813\u5225\u753a \u5f25\u751f\u5730\u8cea\u8abf\u67fb\u5916\u4e00\u9023\u696d\u52d9","client_name":"\u56fd\u571f\u4ea4\u901a\u7701\u5317\u6d77\u9053\u958b\u767a\u5c40\u7a1a\u5185\u958b\u767a\u5efa\u8a2d\u90e8\u672c\u90e8","boring_xml_url":47,"boring_view_url":1,"soilmap_view_url":null,"soiltest_xml_url":0,"soiltest_view_url":0},{"id":553975,"code":"NGIC202202033-0002","latitude":"45.003902055556","longitude":"142.29458516667","source_code":"","project_name":"","survey_name":"\u4e00\u822c\u56fd\u9053275\u53f7 \u4e2d\u9813\u5225\u753a \u5f25\u751f\u5730\u8cea\u8abf\u67fb\u5916\u4e00\u9023\u696d\u52d9","client_name":"\u56fd\u571f\u4ea4\u901a\u7701\u5317\u6d77\u9053\u958b\u767a\u5c40\u7a1a\u5185\u958b\u767a\u5efa\u8a2d\u90e8\u672c\u90e8","boring_xml_url":47,"boring_view_url":1,"soilmap_view_url":null,"soiltest_xml_url":0,"soiltest_view_url":0},{"id":553974,"code":"NGIC202202033-0001","latitude":"45.004068361111","longitude":"142.29391052778","source_code":"","project_name":"","survey_name":"\u4e00\u822c\u56fd\u9053275\u53f7 \u4e2d\u9813\u5225\u753a \u5f25\u751f\u5730\u8cea\u8abf\u67fb\u5916\u4e00\u9023\u696d\u52d9","client_name":"\u56fd\u571f\u4ea4\u901a\u7701\u5317\u6d77\u9053\u958b\u767a\u5c40\u7a1a\u5185\u958b\u767a\u5efa\u8a2d\u90e8\u672c\u90e8","boring_xml_url":47,"boring_view_url":1,"soilmap_view_url":null,"soiltest_xml_url":0,"soiltest_view_url":0},{"id":553972,"code":"NGIC202202007-0011","latitude":"36.787513694444","longitude":"138.80768863889","source_code":"","project_name":"","survey_name":"\u4ee4\u548c3\u5e74\u5ea6\u6e6f\u6ca2\u7802\u9632\u4e8b\u52d9\u6240\u7ba1\u5185\u5730\u8cea\u8abf\u67fb\u305d\u306e2\u696d\u52d9","client_name":"\u56fd\u571f\u4ea4\u901a\u7701\u5317\u9678\u5730\u65b9\u6574\u5099\u5c40\u6e6f\u6ca2\u7802\u9632\u4e8b\u52d9\u6240","boring_xml_url":47,"boring_view_url":1,"soilmap_view_url":null,"soiltest_xml_url":0,"soiltest_view_url":0},{"id":553971,"code":"NGIC202202007-0010","latitude":"36.787368666667","longitude":"138.80774902778","source_code":"","project_name":"","survey_name":"\u4ee4\u548c3\u5e74\u5ea6\u6e6f\u6ca2\u7802\u9632\u4e8b\u52d9\u6240\u7ba1\u5185\u5730\u8cea\u8abf\u67fb\u305d\u306e2\u696d\u52d9","client_name":"\u56fd\u571f\u4ea4\u901a\u7701\u5317\u9678\u5730\u65b9\u6574\u5099\u5c40\u6e6f\u6ca2\u7802\u9632\u4e8b\u52d9\u6240","boring_xml_url":47,"boring_view_url":1,"soilmap_view_url":null,"soiltest_xml_url":0,"soiltest_view_url":0},{"id":553970,"code":"NGIC202202007-0009","latitude":"36.787384472222","longitude":"138.80801105556","source_code":"","project_name":"","survey_name":"\u4ee4\u548c3\u5e74\u5ea6\u6e6f\u6ca2\u7802\u9632\u4e8b\u52d9\u6240\u7ba1\u5185\u5730\u8cea\u8abf\u67fb\u305d\u306e2\u696d\u52d9","client_name":"\u56fd\u571f\u4ea4\u901a\u7701\u5317\u9678\u5730\u65b9\u6574\u5099\u5c40\u6e6f\u6ca2\u7802\u9632\u4e8b\u52d9\u6240","boring_xml_url":47,"boring_view_url":1,"soilmap_view_url":null,"soiltest_xml_url":0,"soiltest_view_url":0},{"id":553969,"code":"NGIC202202007-0008","latitude":"36.787441361111","longitude":"138.80786913889","source_code":"","project_name":"","survey_name":"\u4ee4\u548c3\u5e74\u5ea6\u6e6f\u6ca2\u7802\u9632\u4e8b\u52d9\u6240\u7ba1\u5185\u5730\u8cea\u8abf\u67fb\u305d\u306e2\u696d\u52d9","client_name":"\u56fd\u571f\u4ea4\u901a\u7701\u5317\u9678\u5730\u65b9\u6574\u5099\u5c40\u6e6f\u6ca2\u7802\u9632\u4e8b\u52d9\u6240","boring_xml_url":47,"boring_view_url":1,"soilmap_view_url":null,"soiltest_xml_url":0,"soiltest_view_url":0},{"id":553968,"code":"NGIC202202007-0007","latitude":"36.787586055556","longitude":"138.80750813889","source_code":"","project_name":"","survey_name":"\u4ee4\u548c3\u5e74\u5ea6\u6e6f\u6ca2\u7802\u9632\u4e8b\u52d9\u6240\u7ba1\u5185\u5730\u8cea\u8abf\u67fb\u305d\u306e2\u696d\u52d9","client_name":"\u56fd\u571f\u4ea4\u901a\u7701\u5317\u9678\u5730\u65b9\u6574\u5099\u5c40\u6e6f\u6ca2\u7802\u9632\u4e8b\u52d9\u6240","boring_xml_url":47,"boring_view_url":1,"soilmap_view_url":null,"soiltest_xml_url":0,"soiltest_view_url":0},{"id":553967,"code":"NGIC202202007-0006","latitude":"36.787652361111","longitude":"138.80734266667","source_code":"","project_name":"","survey_name":"\u4ee4\u548c3\u5e74\u5ea6\u6e6f\u6ca2\u7802\u9632\u4e8b\u52d9\u6240\u7ba1\u5185\u5730\u8cea\u8abf\u67fb\u305d\u306e2\u696d\u52d9","client_name":"\u56fd\u571f\u4ea4\u901a\u7701\u5317\u9678\u5730\u65b9\u6574\u5099\u5c40\u6e6f\u6ca2\u7802\u9632\u4e8b\u52d9\u6240","boring_xml_url":47,"boring_view_url":1,"soilmap_view_url":null,"soiltest_xml_url":0,"soiltest_view_url":0},{"id":553966,"code":"NGIC202202007-0005","latitude":"37.209824194444","longitude":"139.06307005556","source_code":"","project_name":"","survey_name":"\u4ee4\u548c3\u5e74\u5ea6\u6e6f\u6ca2\u7802\u9632\u4e8b\u52d9\u6240\u7ba1\u5185\u5730\u8cea\u8abf\u67fb\u305d\u306e2\u696d\u52d9","client_name":"\u56fd\u571f\u4ea4\u901a\u7701\u5317\u9678\u5730\u65b9\u6574\u5099\u5c40\u6e6f\u6ca2\u7802\u9632\u4e8b\u52d9\u6240","boring_xml_url":47,"boring_view_url":1,"soilmap_view_url":null,"soiltest_xml_url":0,"soiltest_view_url":0},{"id":553965,"code":"NGIC202202007-0004","latitude":"37.2099725","longitude":"139.06291316667","source_code":"","project_name":"","survey_name":"\u4ee4\u548c3\u5e74\u5ea6\u6e6f\u6ca2\u7802\u9632\u4e8b\u52d9\u6240\u7ba1\u5185\u5730\u8cea\u8abf\u67fb\u305d\u306e2\u696d\u52d9","client_name":"\u56fd\u571f\u4ea4\u901a\u7701\u5317\u9678\u5730\u65b9\u6574\u5099\u5c40\u6e6f\u6ca2\u7802\u9632\u4e8b\u52d9\u6240","boring_xml_url":47,"boring_view_url":1,"soilmap_view_url":null,"soiltest_xml_url":0,"soiltest_view_url":0},{"id":553964,"code":"NGIC202202007-0003","latitude":"37.209950583333","longitude":"139.06344569444","source_code":"","project_name":"","survey_name":"\u4ee4\u548c3\u5e74\u5ea6\u6e6f\u6ca2\u7802\u9632\u4e8b\u52d9\u6240\u7ba1\u5185\u5730\u8cea\u8abf\u67fb\u305d\u306e2\u696d\u52d9","client_name":"\u56fd\u571f\u4ea4\u901a\u7701\u5317\u9678\u5730\u65b9\u6574\u5099\u5c40\u6e6f\u6ca2\u7802\u9632\u4e8b\u52d9\u6240","boring_xml_url":47,"boring_view_url":1,"soilmap_view_url":null,"soiltest_xml_url":0,"soiltest_view_url":0},{"id":553963,"code":"NGIC202202007-0002","latitude":"37.210052222222","longitude":"139.06325961111","source_code":"","project_name":"","survey_name":"\u4ee4\u548c3\u5e74\u5ea6\u6e6f\u6ca2\u7802\u9632\u4e8b\u52d9\u6240\u7ba1\u5185\u5730\u8cea\u8abf\u67fb\u305d\u306e2\u696d\u52d9","client_name":"\u56fd\u571f\u4ea4\u901a\u7701\u5317\u9678\u5730\u65b9\u6574\u5099\u5c40\u6e6f\u6ca2\u7802\u9632\u4e8b\u52d9\u6240","boring_xml_url":47,"boring_view_url":1,"soilmap_view_url":null,"soiltest_xml_url":0,"soiltest_view_url":0},{"id":553962,"code":"NGIC202202007-0001","latitude":"37.210184333333","longitude":"139.06301772222","source_code":"","project_name":"","survey_name":"\u4ee4\u548c3\u5e74\u5ea6\u6e6f\u6ca2\u7802\u9632\u4e8b\u52d9\u6240\u7ba1\u5185\u5730\u8cea\u8abf\u67fb\u305d\u306e2\u696d\u52d9","client_name":"\u56fd\u571f\u4ea4\u901a\u7701\u5317\u9678\u5730\u65b9\u6574\u5099\u5c40\u6e6f\u6ca2\u7802\u9632\u4e8b\u52d9\u6240","boring_xml_url":47,"boring_view_url":1,"soilmap_view_url":null,"soiltest_xml_url":0,"soiltest_view_url":0},{"id":553932,"code":"NGIC202202035-0005","latitude":"42.090452777778","longitude":"140.05154555556","source_code":"","project_name":"\u4e00\u822c\u56fd\u9053229\u53f7\u516b\u96f2\u753a\u51b7\u6c34\u6a4b\u5730\u8cea\u8abf\u67fb","survey_name":"\u4e00\u822c\u56fd\u9053229\u53f7\u516b\u96f2\u753a\u51b7\u6c34\u6a4b\u5730\u8cea\u8abf\u67fb\u696d\u52d9","client_name":"\u56fd\u571f\u4ea4\u901a\u7701\u5317\u6d77\u9053\u958b\u767a\u5c40\u51fd\u9928\u958b\u767a\u5efa\u8a2d\u90e8","boring_xml_url":47,"boring_view_url":1,"soilmap_view_url":null,"soiltest_xml_url":47,"soiltest_view_url":47},{"id":553931,"code":"NGIC202202035-0004","latitude":"42.090299444444","longitude":"140.05143027778","source_code":"","project_name":"\u4e00\u822c\u56fd\u9053229\u53f7\u516b\u96f2\u753a\u51b7\u6c34\u6a4b\u5730\u8cea\u8abf\u67fb","survey_name":"\u4e00\u822c\u56fd\u9053229\u53f7\u516b\u96f2\u753a\u51b7\u6c34\u6a4b\u5730\u8cea\u8abf\u67fb\u696d\u52d9","client_name":"\u56fd\u571f\u4ea4\u901a\u7701\u5317\u6d77\u9053\u958b\u767a\u5c40\u51fd\u9928\u958b\u767a\u5efa\u8a2d\u90e8","boring_xml_url":47,"boring_view_url":1,"soilmap_view_url":null,"soiltest_xml_url":47,"soiltest_view_url":47},{"id":553930,"code":"NGIC202202035-0003","latitude":"42.090602777778","longitude":"140.05104416667","source_code":"","project_name":"\u4e00\u822c\u56fd\u9053229\u53f7\u516b\u96f2\u753a\u51b7\u6c34\u6a4b\u5730\u8cea\u8abf\u67fb","survey_name":"\u4e00\u822c\u56fd\u9053229\u53f7\u516b\u96f2\u753a\u51b7\u6c34\u6a4b\u5730\u8cea\u8abf\u67fb\u696d\u52d9","client_name":"\u56fd\u571f\u4ea4\u901a\u7701\u5317\u6d77\u9053\u958b\u767a\u5c40\u51fd\u9928\u958b\u767a\u5efa\u8a2d\u90e8","boring_xml_url":47,"boring_view_url":1,"soilmap_view_url":null,"soiltest_xml_url":0,"soiltest_view_url":0},{"id":553929,"code":"NGIC202202035-0002","latitude":"42.090963888889","longitude":"140.05093361111","source_code":"","project_name":"\u4e00\u822c\u56fd\u9053229\u53f7\u516b\u96f2\u753a\u51b7\u6c34\u6a4b\u5730\u8cea\u8abf\u67fb","survey_name":"\u4e00\u822c\u56fd\u9053229\u53f7\u516b\u96f2\u753a\u51b7\u6c34\u6a4b\u5730\u8cea\u8abf\u67fb\u696d\u52d9","client_name":"\u56fd\u571f\u4ea4\u901a\u7701\u5317\u6d77\u9053\u958b\u767a\u5c40\u51fd\u9928\u958b\u767a\u5efa\u8a2d\u90e8","boring_xml_url":47,"boring_view_url":1,"soilmap_view_url":null,"soiltest_xml_url":47,"soiltest_view_url":47},{"id":553928,"code":"NGIC202202035-0001","latitude":"42.090841666667","longitude":"140.05077444444","source_code":"","project_name":"\u4e00\u822c\u56fd\u9053229\u53f7\u516b\u96f2\u753a\u51b7\u6c34\u6a4b\u5730\u8cea\u8abf\u67fb","survey_name":"\u4e00\u822c\u56fd\u9053229\u53f7\u516b\u96f2\u753a\u51b7\u6c34\u6a4b\u5730\u8cea\u8abf\u67fb\u696d\u52d9","client_name":"\u56fd\u571f\u4ea4\u901a\u7701\u5317\u6d77\u9053\u958b\u767a\u5c40\u51fd\u9928\u958b\u767a\u5efa\u8a2d\u90e8","boring_xml_url":47,"boring_view_url":1,"soilmap_view_url":null,"soiltest_xml_url":47,"soiltest_view_url":47},{"id":553836,"code":"NGIC202201863-0010","latitude":"34.394288083333","longitude":"131.41864538889","source_code":"","project_name":"\u4ee4\u548c3\u5e74\u5ea6\u5927\u4e95\u30fb\u8429\u9053\u8def\u693f\u5730\u533a\u5916\u5730\u8cea\u8abf\u67fb\u305d\u306e2\u696d\u52d9","survey_name":"\u4ee4\u548c3\u5e74\u5ea6\u5927\u4e95\u30fb\u8429\u9053\u8def\u693f\u5730\u533a\u5916\u5730\u8cea\u8abf\u67fb\u305d\u306e2\u696d\u52d9","client_name":"\u56fd\u571f\u4ea4\u901a\u7701\u4e2d\u56fd\u5730\u65b9\u6574\u5099\u5c40\u5c71\u9670\u897f\u90e8\u56fd\u9053\u4e8b\u52d9\u6240","boring_xml_url":47,"boring_view_url":1,"soilmap_view_url":null,"soiltest_xml_url":47,"soiltest_view_url":47},{"id":553835,"code":"NGIC202201863-0009","latitude":"34.393891722222","longitude":"131.41812225","source_code":"","project_name":"\u4ee4\u548c3\u5e74\u5ea6\u5927\u4e95\u30fb\u8429\u9053\u8def\u693f\u5730\u533a\u5916\u5730\u8cea\u8abf\u67fb\u305d\u306e2\u696d\u52d9","survey_name":"\u4ee4\u548c3\u5e74\u5ea6\u5927\u4e95\u30fb\u8429\u9053\u8def\u693f\u5730\u533a\u5916\u5730\u8cea\u8abf\u67fb\u305d\u306e2\u696d\u52d9","client_name":"\u56fd\u571f\u4ea4\u901a\u7701\u4e2d\u56fd\u5730\u65b9\u6574\u5099\u5c40\u5c71\u9670\u897f\u90e8\u56fd\u9053\u4e8b\u52d9\u6240","boring_xml_url":47,"boring_view_url":1,"soilmap_view_url":null,"soiltest_xml_url":47,"soiltest_view_url":47},{"id":553834,"code":"NGIC202201863-0008","latitude":"34.393406361111","longitude":"131.41767361111","source_code":"","project_name":"\u4ee4\u548c3\u5e74\u5ea6\u5927\u4e95\u30fb\u8429\u9053\u8def\u693f\u5730\u533a\u5916\u5730\u8cea\u8abf\u67fb\u305d\u306e2\u696d\u52d9","survey_name":"\u4ee4\u548c3\u5e74\u5ea6\u5927\u4e95\u30fb\u8429\u9053\u8def\u693f\u5730\u533a\u5916\u5730\u8cea\u8abf\u67fb\u305d\u306e2\u696d\u52d9","client_name":"\u56fd\u571f\u4ea4\u901a\u7701\u4e2d\u56fd\u5730\u65b9\u6574\u5099\u5c40\u5c71\u9670\u897f\u90e8\u56fd\u9053\u4e8b\u52d9\u6240","boring_xml_url":47,"boring_view_url":1,"soilmap_view_url":null,"soiltest_xml_url":47,"soiltest_view_url":47},{"id":553833,"code":"NGIC202201863-0007","latitude":"34.392829861111","longitude":"131.41667097222","source_code":"","project_name":"\u4ee4\u548c3\u5e74\u5ea6\u5927\u4e95\u30fb\u8429\u9053\u8def\u693f\u5730\u533a\u5916\u5730\u8cea\u8abf\u67fb\u305d\u306e2\u696d\u52d9","survey_name":"\u4ee4\u548c3\u5e74\u5ea6\u5927\u4e95\u30fb\u8429\u9053\u8def\u693f\u5730\u533a\u5916\u5730\u8cea\u8abf\u67fb\u305d\u306e2\u696d\u52d9","client_name":"\u56fd\u571f\u4ea4\u901a\u7701\u4e2d\u56fd\u5730\u65b9\u6574\u5099\u5c40\u5c71\u9670\u897f\u90e8\u56fd\u9053\u4e8b\u52d9\u6240","boring_xml_url":47,"boring_view_url":1,"soilmap_view_url":null,"soiltest_xml_url":47,"soiltest_view_url":47}]}}