{"header":{"xyz":{"source":[],"mosaic":false},"page":3690,"raw":{"soiltest_result":"0","bbox":"57.598333,109.544722,1.933333,163.806111","page":"3690"},"conditions":{"soiltest_result":0,"north":57.598333,"west":109.544722,"south":1.933333,"east":163.806111},"success":true,"message":""},"data":{"meta":{"total":212844,"page":3690,"pages":7095,"count":30},"values":[{"id":209875,"code":"B4KJ201801009-8124","latitude":"32.397942","longitude":"130.827892","source_code":"QS20098985790200180583","project_name":"","survey_name":"\u5e73\u621010\u5e74\u5ea6 \u7530\u53e3\u6d41\u8def\u5de5\u5730\u8cea\u8abf\u67fb\u696d\u52d9","client_name":"\u5efa\u8a2d\u7701\u4e5d\u5dde\u5730\u65b9\u5efa\u8a2d\u5c40\u5ddd\u8fba\u5ddd\u5de5\u4e8b\u4e8b\u52d9\u6240","boring_xml_url":49,"boring_view_url":1,"soilmap_view_url":null,"soiltest_xml_url":0,"soiltest_view_url":0},{"id":209874,"code":"B4KJ201801009-8123","latitude":"32.398136","longitude":"130.827711","source_code":"QS20098985790200180582","project_name":"","survey_name":"\u5e73\u621010\u5e74\u5ea6 \u7530\u53e3\u6d41\u8def\u5de5\u5730\u8cea\u8abf\u67fb\u696d\u52d9","client_name":"\u5efa\u8a2d\u7701\u4e5d\u5dde\u5730\u65b9\u5efa\u8a2d\u5c40\u5ddd\u8fba\u5ddd\u5de5\u4e8b\u4e8b\u52d9\u6240","boring_xml_url":49,"boring_view_url":1,"soilmap_view_url":null,"soiltest_xml_url":0,"soiltest_view_url":0},{"id":209873,"code":"B4KJ201801009-8122","latitude":"32.398247","longitude":"130.828669","source_code":"QS20098985790200180581","project_name":"","survey_name":"\u5e73\u621010\u5e74\u5ea6 \u7530\u53e3\u6d41\u8def\u5de5\u5730\u8cea\u8abf\u67fb\u696d\u52d9","client_name":"\u5efa\u8a2d\u7701\u4e5d\u5dde\u5730\u65b9\u5efa\u8a2d\u5c40\u5ddd\u8fba\u5ddd\u5de5\u4e8b\u4e8b\u52d9\u6240","boring_xml_url":49,"boring_view_url":1,"soilmap_view_url":null,"soiltest_xml_url":0,"soiltest_view_url":0},{"id":209872,"code":"B4KJ201801009-8121","latitude":"32.398475","longitude":"130.828544","source_code":"QS20098985790200180580","project_name":"","survey_name":"\u5e73\u621010\u5e74\u5ea6 \u7530\u53e3\u6d41\u8def\u5de5\u5730\u8cea\u8abf\u67fb\u696d\u52d9","client_name":"\u5efa\u8a2d\u7701\u4e5d\u5dde\u5730\u65b9\u5efa\u8a2d\u5c40\u5ddd\u8fba\u5ddd\u5de5\u4e8b\u4e8b\u52d9\u6240","boring_xml_url":49,"boring_view_url":1,"soilmap_view_url":null,"soiltest_xml_url":0,"soiltest_view_url":0},{"id":209871,"code":"B4KJ201801009-8120","latitude":"32.398397","longitude":"130.829239","source_code":"QS20098985790200180579","project_name":"","survey_name":"\u5e73\u621010\u5e74\u5ea6 \u7530\u53e3\u6d41\u8def\u5de5\u5730\u8cea\u8abf\u67fb\u696d\u52d9","client_name":"\u5efa\u8a2d\u7701\u4e5d\u5dde\u5730\u65b9\u5efa\u8a2d\u5c40\u5ddd\u8fba\u5ddd\u5de5\u4e8b\u4e8b\u52d9\u6240","boring_xml_url":49,"boring_view_url":1,"soilmap_view_url":null,"soiltest_xml_url":0,"soiltest_view_url":0},{"id":209870,"code":"B4KJ201801009-8119","latitude":"32.398644","longitude":"130.829217","source_code":"QS20098985790200180578","project_name":"","survey_name":"\u5e73\u621010\u5e74\u5ea6 \u7530\u53e3\u6d41\u8def\u5de5\u5730\u8cea\u8abf\u67fb\u696d\u52d9","client_name":"\u5efa\u8a2d\u7701\u4e5d\u5dde\u5730\u65b9\u5efa\u8a2d\u5c40\u5ddd\u8fba\u5ddd\u5de5\u4e8b\u4e8b\u52d9\u6240","boring_xml_url":49,"boring_view_url":1,"soilmap_view_url":null,"soiltest_xml_url":0,"soiltest_view_url":0},{"id":209869,"code":"B4KJ201801009-8118","latitude":"32.402086","longitude":"130.827317","source_code":"QS20098985790200180577","project_name":"","survey_name":"\u5e73\u621010\u5e74\u5ea6 \u677e\u672c\u5730\u533a\u5730\u8cea\u8abf\u67fb\u53ca\u3073\u64c1\u58c1\u5b9f\u65bd\u8a2d\u8a08\u696d\u52d9","client_name":"\u5efa\u8a2d\u7701\u4e5d\u5dde\u5730\u65b9\u5efa\u8a2d\u5c40\u5ddd\u8fba\u5ddd\u5de5\u4e8b\u4e8b\u52d9\u6240","boring_xml_url":49,"boring_view_url":1,"soilmap_view_url":null,"soiltest_xml_url":0,"soiltest_view_url":0},{"id":209868,"code":"B4KJ201801009-8117","latitude":"32.402239","longitude":"130.827339","source_code":"QS20098985790200180576","project_name":"","survey_name":"\u5e73\u621010\u5e74\u5ea6 \u677e\u672c\u5730\u533a\u5730\u8cea\u8abf\u67fb\u53ca\u3073\u64c1\u58c1\u5b9f\u65bd\u8a2d\u8a08\u696d\u52d9","client_name":"\u5efa\u8a2d\u7701\u4e5d\u5dde\u5730\u65b9\u5efa\u8a2d\u5c40\u5ddd\u8fba\u5ddd\u5de5\u4e8b\u4e8b\u52d9\u6240","boring_xml_url":49,"boring_view_url":1,"soilmap_view_url":null,"soiltest_xml_url":0,"soiltest_view_url":0},{"id":209867,"code":"B4KJ201801009-8116","latitude":"32.399994","longitude":"130.825408","source_code":"QS20098985790200180575","project_name":"","survey_name":"\u4ed8\u66ff\u770c\u9053\u982d\u5730\u5927\u6a4b\u5730\u8cea\u8abf\u67fb(\u305d\u306e3)\u696d\u52d9","client_name":"\u5efa\u8a2d\u7701\u4e5d\u5dde\u5730\u65b9\u5efa\u8a2d\u5c40\u5ddd\u8fba\u5ddd\u5de5\u4e8b\u4e8b\u52d9\u6240","boring_xml_url":49,"boring_view_url":1,"soilmap_view_url":null,"soiltest_xml_url":0,"soiltest_view_url":0},{"id":209866,"code":"B4KJ201801009-8115","latitude":"32.399872","longitude":"130.825383","source_code":"QS20098985790200180574","project_name":"","survey_name":"\u4ed8\u66ff\u770c\u9053\u982d\u5730\u5927\u6a4b\u5730\u8cea\u8abf\u67fb(\u305d\u306e3)\u696d\u52d9","client_name":"\u5efa\u8a2d\u7701\u4e5d\u5dde\u5730\u65b9\u5efa\u8a2d\u5c40\u5ddd\u8fba\u5ddd\u5de5\u4e8b\u4e8b\u52d9\u6240","boring_xml_url":49,"boring_view_url":1,"soilmap_view_url":null,"soiltest_xml_url":0,"soiltest_view_url":0},{"id":209865,"code":"B4KJ201801009-8114","latitude":"32.398669","longitude":"130.826297","source_code":"QS20098985790200180573","project_name":"","survey_name":"\u982d\u5730\u4ee3\u66ff\u5730\u4e2d\u5de5\u533a\u5730\u8cea\u8abf\u67fb\u53ca\u3073\u76db\u571f\u8a2d\u8a08\u696d\u52d9","client_name":"\u5efa\u8a2d\u7701\u4e5d\u5dde\u5730\u65b9\u5efa\u8a2d\u5c40\u5ddd\u8fba\u5ddd\u5de5\u4e8b\u4e8b\u52d9\u6240","boring_xml_url":49,"boring_view_url":1,"soilmap_view_url":null,"soiltest_xml_url":52,"soiltest_view_url":52},{"id":209864,"code":"B4KJ201801009-8113","latitude":"32.40065","longitude":"130.825936","source_code":"QS20098985790200180572","project_name":"","survey_name":"\u982d\u5730\u4ee3\u66ff\u5730\u4e2d\u5de5\u533a\u5730\u8cea\u8abf\u67fb\u53ca\u3073\u76db\u571f\u8a2d\u8a08\u696d\u52d9","client_name":"\u5efa\u8a2d\u7701\u4e5d\u5dde\u5730\u65b9\u5efa\u8a2d\u5c40\u5ddd\u8fba\u5ddd\u5de5\u4e8b\u4e8b\u52d9\u6240","boring_xml_url":49,"boring_view_url":1,"soilmap_view_url":null,"soiltest_xml_url":52,"soiltest_view_url":52},{"id":209863,"code":"B4KJ201801009-8112","latitude":"32.418003","longitude":"130.846036","source_code":"QS20098985790200180571","project_name":"","survey_name":"\u4ed8\u66ff\u6751\u9053\u9db4\u6a4b\u5730\u8cea\u8abf\u67fb\u696d\u52d9","client_name":"\u5efa\u8a2d\u7701\u4e5d\u5dde\u5730\u65b9\u5efa\u8a2d\u5c40\u5ddd\u8fba\u5ddd\u5de5\u4e8b\u4e8b\u52d9\u6240","boring_xml_url":49,"boring_view_url":1,"soilmap_view_url":null,"soiltest_xml_url":0,"soiltest_view_url":0},{"id":209862,"code":"B4KJ201801009-8111","latitude":"32.417908","longitude":"130.846131","source_code":"QS20098985790200180570","project_name":"","survey_name":"\u4ed8\u66ff\u6751\u9053\u9db4\u6a4b\u5730\u8cea\u8abf\u67fb\u696d\u52d9","client_name":"\u5efa\u8a2d\u7701\u4e5d\u5dde\u5730\u65b9\u5efa\u8a2d\u5c40\u5ddd\u8fba\u5ddd\u5de5\u4e8b\u4e8b\u52d9\u6240","boring_xml_url":49,"boring_view_url":1,"soilmap_view_url":null,"soiltest_xml_url":0,"soiltest_view_url":0},{"id":209861,"code":"B4KJ201801009-8110","latitude":"32.336325","longitude":"130.838086","source_code":"QS20098985790200180569","project_name":"","survey_name":"\u5e73\u62109\u5e74\u5ea6\u5ddd\u8fba\u5ddd\u30c0\u30e0\u4eee\u8a2d\u5099\u95a2\u9023\u5730\u8cea\u8abf\u67fb\u696d\u52d9","client_name":"\u5efa\u8a2d\u7701\u4e5d\u5dde\u5730\u65b9\u5efa\u8a2d\u5c40\u5ddd\u8fba\u5ddd\u5de5\u4e8b\u4e8b\u52d9\u6240","boring_xml_url":49,"boring_view_url":1,"soilmap_view_url":null,"soiltest_xml_url":0,"soiltest_view_url":0},{"id":209860,"code":"B4KJ201801009-8109","latitude":"32.335553","longitude":"130.837886","source_code":"QS20098985790200180568","project_name":"","survey_name":"\u5e73\u62109\u5e74\u5ea6\u5ddd\u8fba\u5ddd\u30c0\u30e0\u4eee\u8a2d\u5099\u95a2\u9023\u5730\u8cea\u8abf\u67fb\u696d\u52d9","client_name":"\u5efa\u8a2d\u7701\u4e5d\u5dde\u5730\u65b9\u5efa\u8a2d\u5c40\u5ddd\u8fba\u5ddd\u5de5\u4e8b\u4e8b\u52d9\u6240","boring_xml_url":49,"boring_view_url":1,"soilmap_view_url":null,"soiltest_xml_url":0,"soiltest_view_url":0},{"id":209859,"code":"B4KJ201801009-8108","latitude":"32.339831","longitude":"130.840406","source_code":"QS20098985790200180567","project_name":"","survey_name":"\u5e73\u62109\u5e74\u5ea6\u5ddd\u8fba\u5ddd\u30c0\u30e0\u4eee\u8a2d\u5099\u95a2\u9023\u5730\u8cea\u8abf\u67fb\u696d\u52d9","client_name":"\u5efa\u8a2d\u7701\u4e5d\u5dde\u5730\u65b9\u5efa\u8a2d\u5c40\u5ddd\u8fba\u5ddd\u5de5\u4e8b\u4e8b\u52d9\u6240","boring_xml_url":49,"boring_view_url":1,"soilmap_view_url":null,"soiltest_xml_url":0,"soiltest_view_url":0},{"id":209858,"code":"B4KJ201801009-8107","latitude":"32.339511","longitude":"130.840664","source_code":"QS20098985790200180566","project_name":"","survey_name":"\u5e73\u62109\u5e74\u5ea6\u5ddd\u8fba\u5ddd\u30c0\u30e0\u4eee\u8a2d\u5099\u95a2\u9023\u5730\u8cea\u8abf\u67fb\u696d\u52d9","client_name":"\u5efa\u8a2d\u7701\u4e5d\u5dde\u5730\u65b9\u5efa\u8a2d\u5c40\u5ddd\u8fba\u5ddd\u5de5\u4e8b\u4e8b\u52d9\u6240","boring_xml_url":49,"boring_view_url":1,"soilmap_view_url":null,"soiltest_xml_url":0,"soiltest_view_url":0},{"id":209857,"code":"B4KJ201801009-8106","latitude":"32.339236","longitude":"130.840886","source_code":"QS20098985790200180565","project_name":"","survey_name":"\u5e73\u62109\u5e74\u5ea6\u5ddd\u8fba\u5ddd\u30c0\u30e0\u4eee\u8a2d\u5099\u95a2\u9023\u5730\u8cea\u8abf\u67fb\u696d\u52d9","client_name":"\u5efa\u8a2d\u7701\u4e5d\u5dde\u5730\u65b9\u5efa\u8a2d\u5c40\u5ddd\u8fba\u5ddd\u5de5\u4e8b\u4e8b\u52d9\u6240","boring_xml_url":49,"boring_view_url":1,"soilmap_view_url":null,"soiltest_xml_url":0,"soiltest_view_url":0},{"id":209856,"code":"B4KJ201801009-8105","latitude":"32.338986","longitude":"130.841083","source_code":"QS20098985790200180564","project_name":"","survey_name":"\u5e73\u62109\u5e74\u5ea6\u5ddd\u8fba\u5ddd\u30c0\u30e0\u4eee\u8a2d\u5099\u95a2\u9023\u5730\u8cea\u8abf\u67fb\u696d\u52d9","client_name":"\u5efa\u8a2d\u7701\u4e5d\u5dde\u5730\u65b9\u5efa\u8a2d\u5c40\u5ddd\u8fba\u5ddd\u5de5\u4e8b\u4e8b\u52d9\u6240","boring_xml_url":49,"boring_view_url":1,"soilmap_view_url":null,"soiltest_xml_url":0,"soiltest_view_url":0},{"id":209855,"code":"B4KJ201801009-8104","latitude":"32.338656","longitude":"130.841353","source_code":"QS20098985790200180563","project_name":"","survey_name":"\u5e73\u62109\u5e74\u5ea6\u5ddd\u8fba\u5ddd\u30c0\u30e0\u4eee\u8a2d\u5099\u95a2\u9023\u5730\u8cea\u8abf\u67fb\u696d\u52d9","client_name":"\u5efa\u8a2d\u7701\u4e5d\u5dde\u5730\u65b9\u5efa\u8a2d\u5c40\u5ddd\u8fba\u5ddd\u5de5\u4e8b\u4e8b\u52d9\u6240","boring_xml_url":49,"boring_view_url":1,"soilmap_view_url":null,"soiltest_xml_url":0,"soiltest_view_url":0},{"id":209854,"code":"B4KJ201801009-8103","latitude":"32.339131","longitude":"130.841836","source_code":"QS20098985790200180562","project_name":"","survey_name":"\u5e73\u62109\u5e74\u5ea6\u5ddd\u8fba\u5ddd\u30c0\u30e0\u4eee\u8a2d\u5099\u95a2\u9023\u5730\u8cea\u8abf\u67fb\u696d\u52d9","client_name":"\u5efa\u8a2d\u7701\u4e5d\u5dde\u5730\u65b9\u5efa\u8a2d\u5c40\u5ddd\u8fba\u5ddd\u5de5\u4e8b\u4e8b\u52d9\u6240","boring_xml_url":49,"boring_view_url":1,"soilmap_view_url":null,"soiltest_xml_url":0,"soiltest_view_url":0},{"id":209853,"code":"B4KJ201801009-8102","latitude":"32.339131","longitude":"130.841836","source_code":"QS20098985790200180561","project_name":"","survey_name":"\u5e73\u62109\u5e74\u5ea6\u5ddd\u8fba\u5ddd\u30c0\u30e0\u4eee\u8a2d\u5099\u95a2\u9023\u5730\u8cea\u8abf\u67fb\u696d\u52d9","client_name":"\u5efa\u8a2d\u7701\u4e5d\u5dde\u5730\u65b9\u5efa\u8a2d\u5c40\u5ddd\u8fba\u5ddd\u5de5\u4e8b\u4e8b\u52d9\u6240\u5de5\u4e8b\u8ab2","boring_xml_url":49,"boring_view_url":1,"soilmap_view_url":null,"soiltest_xml_url":0,"soiltest_view_url":0},{"id":209852,"code":"B4KJ201801009-8101","latitude":"32.338961","longitude":"130.841939","source_code":"QS20098985790200180560","project_name":"","survey_name":"\u5e73\u62109\u5e74\u5ea6\u5ddd\u8fba\u5ddd\u30c0\u30e0\u4eee\u8a2d\u5099\u95a2\u9023\u5730\u8cea\u8abf\u67fb\u696d\u52d9","client_name":"\u5efa\u8a2d\u7701\u4e5d\u5dde\u5730\u65b9\u5efa\u8a2d\u5c40\u5ddd\u8fba\u5ddd\u5de5\u4e8b\u4e8b\u52d9\u6240","boring_xml_url":49,"boring_view_url":1,"soilmap_view_url":null,"soiltest_xml_url":0,"soiltest_view_url":0},{"id":209851,"code":"B4KJ201801009-8100","latitude":"32.399331","longitude":"130.815739","source_code":"QS20098985790200180559","project_name":"","survey_name":"\u5e73\u62109\u5e74\u5ea6\u4e0b\u624b\u6d41\u8def\u5de5\u5730\u8cea\u8abf\u67fb\u696d\u52d9","client_name":"\u5efa\u8a2d\u7701\u4e5d\u5dde\u5730\u65b9\u5efa\u8a2d\u5c40\u5ddd\u8fba\u5ddd\u5de5\u4e8b\u4e8b\u52d9\u6240","boring_xml_url":49,"boring_view_url":1,"soilmap_view_url":null,"soiltest_xml_url":0,"soiltest_view_url":0},{"id":209850,"code":"B4KJ201801009-8099","latitude":"32.399339","longitude":"130.815475","source_code":"QS20098985790200180558","project_name":"","survey_name":"\u5e73\u62109\u5e74\u5ea6\u4e0b\u624b\u6d41\u8def\u5de5\u5730\u8cea\u8abf\u67fb\u696d\u52d9","client_name":"\u5efa\u8a2d\u7701\u4e5d\u5dde\u5730\u65b9\u5efa\u8a2d\u5c40\u5ddd\u8fba\u5ddd\u5de5\u4e8b\u4e8b\u52d9\u6240","boring_xml_url":49,"boring_view_url":1,"soilmap_view_url":null,"soiltest_xml_url":0,"soiltest_view_url":0},{"id":209849,"code":"B4KJ201801009-8098","latitude":"32.396161","longitude":"130.828358","source_code":"QS20098985790200180557","project_name":"","survey_name":"\u5e73\u62109\u5e74\u5ea6\u4e0b\u624b\u6d41\u8def\u5de5\u5730\u8cea\u8abf\u67fb\u696d\u52d9","client_name":"\u5efa\u8a2d\u7701\u4e5d\u5dde\u5730\u65b9\u5efa\u8a2d\u5c40\u5ddd\u8fba\u5ddd\u5de5\u4e8b\u4e8b\u52d9\u6240","boring_xml_url":49,"boring_view_url":1,"soilmap_view_url":null,"soiltest_xml_url":0,"soiltest_view_url":0},{"id":209848,"code":"B4KJ201801009-8097","latitude":"32.396308","longitude":"130.828311","source_code":"QS20098985790200180556","project_name":"","survey_name":"\u5e73\u62109\u5e74\u5ea6\u4e0b\u624b\u6d41\u8def\u5de5\u5730\u8cea\u8abf\u67fb\u696d\u52d9","client_name":"\u5efa\u8a2d\u7701\u4e5d\u5dde\u5730\u65b9\u5efa\u8a2d\u5c40\u5ddd\u8fba\u5ddd\u5de5\u4e8b\u4e8b\u52d9\u6240","boring_xml_url":49,"boring_view_url":1,"soilmap_view_url":null,"soiltest_xml_url":0,"soiltest_view_url":0},{"id":209847,"code":"B4KJ201801009-8096","latitude":"32.396611","longitude":"130.829436","source_code":"QS20098985790200180555","project_name":"","survey_name":"\u5e73\u62109\u5e74\u5ea6\u4e0b\u624b\u6d41\u8def\u5de5\u5730\u8cea\u8abf\u67fb\u696d\u52d9","client_name":"\u5efa\u8a2d\u7701\u4e5d\u5dde\u5730\u65b9\u5efa\u8a2d\u5c40\u5ddd\u8fba\u5ddd\u5de5\u4e8b\u4e8b\u52d9\u6240","boring_xml_url":49,"boring_view_url":1,"soilmap_view_url":null,"soiltest_xml_url":0,"soiltest_view_url":0},{"id":209846,"code":"B4KJ201801009-8095","latitude":"32.396758","longitude":"130.829475","source_code":"QS20098985790200180554","project_name":"","survey_name":"\u5e73\u62109\u5e74\u5ea6\u4e0b\u624b\u6d41\u8def\u5de5\u5730\u8cea\u8abf\u67fb\u696d\u52d9","client_name":"\u5efa\u8a2d\u7701\u4e5d\u5dde\u5730\u65b9\u5efa\u8a2d\u5c40\u5ddd\u8fba\u5ddd\u5de5\u4e8b\u4e8b\u52d9\u6240","boring_xml_url":49,"boring_view_url":1,"soilmap_view_url":null,"soiltest_xml_url":0,"soiltest_view_url":0}]}}