{"header":{"xyz":{"source":[],"mosaic":false},"page":3694,"raw":{"soiltest_result":"0","bbox":"57.598333,109.544722,1.933333,163.806111","page":"3694"},"conditions":{"soiltest_result":0,"north":57.598333,"west":109.544722,"south":1.933333,"east":163.806111},"success":true,"message":""},"data":{"meta":{"total":212844,"page":3694,"pages":7095,"count":30},"values":[{"id":209755,"code":"B4KJ201801009-8004","latitude":"32.387794","longitude":"130.834367","source_code":"QS20098985790200180463","project_name":"","survey_name":"\u5e73\u62107\u5e74\u5ea6\u4ed8\u66ff\u56fd\u9053\u677f\u6728\u4e2d\u6d41\u5730\u533a\u5730\u8cea\u8abf\u67fb\u696d\u52d9","client_name":"\u5efa\u8a2d\u7701\u4e5d\u5dde\u5730\u65b9\u5efa\u8a2d\u5c40\u5ddd\u8fba\u5ddd\u5de5\u4e8b\u4e8b\u52d9\u6240","boring_xml_url":49,"boring_view_url":1,"soilmap_view_url":null,"soiltest_xml_url":0,"soiltest_view_url":0},{"id":209754,"code":"B4KJ201801009-8003","latitude":"32.387594","longitude":"130.834189","source_code":"QS20098985790200180462","project_name":"","survey_name":"\u5e73\u62107\u5e74\u5ea6\u4ed8\u66ff\u56fd\u9053\u677f\u6728\u4e2d\u6d41\u5730\u533a\u5730\u8cea\u8abf\u67fb\u696d\u52d9","client_name":"\u5efa\u8a2d\u7701\u4e5d\u5dde\u5730\u65b9\u5efa\u8a2d\u5c40\u5ddd\u8fba\u5ddd\u5de5\u4e8b\u4e8b\u52d9\u6240","boring_xml_url":49,"boring_view_url":1,"soilmap_view_url":null,"soiltest_xml_url":0,"soiltest_view_url":0},{"id":209753,"code":"B4KJ201801009-8002","latitude":"32.387169","longitude":"130.833817","source_code":"QS20098985790200180461","project_name":"","survey_name":"\u5e73\u62107\u5e74\u5ea6\u4ed8\u66ff\u56fd\u9053\u677f\u6728\u4e2d\u6d41\u5730\u533a\u5730\u8cea\u8abf\u67fb\u696d\u52d9","client_name":"\u5efa\u8a2d\u7701\u4e5d\u5dde\u5730\u65b9\u5efa\u8a2d\u5c40\u5ddd\u8fba\u5ddd\u5de5\u4e8b\u4e8b\u52d9\u6240","boring_xml_url":49,"boring_view_url":1,"soilmap_view_url":null,"soiltest_xml_url":0,"soiltest_view_url":0},{"id":209752,"code":"B4KJ201801009-8001","latitude":"32.388142","longitude":"130.832417","source_code":"QS20098985790200180460","project_name":"","survey_name":"\u5e73\u62107\u5e74\u5ea6\u4ed8\u66ff\u56fd\u9053\u677f\u6728\u4e2d\u6d41\u5730\u533a\u5730\u8cea\u8abf\u67fb\u696d\u52d9","client_name":"\u5efa\u8a2d\u7701\u4e5d\u5dde\u5730\u65b9\u5efa\u8a2d\u5c40\u5ddd\u8fba\u5ddd\u5de5\u4e8b\u4e8b\u52d9\u6240","boring_xml_url":49,"boring_view_url":1,"soilmap_view_url":null,"soiltest_xml_url":0,"soiltest_view_url":0},{"id":209751,"code":"B4KJ201801009-8000","latitude":"32.387981","longitude":"130.832789","source_code":"QS20098985790200180459","project_name":"","survey_name":"\u5e73\u62107\u5e74\u5ea6\u4ed8\u66ff\u56fd\u9053\u677f\u6728\u4e2d\u6d41\u5730\u533a\u5730\u8cea\u8abf\u67fb\u696d\u52d9","client_name":"\u5efa\u8a2d\u7701\u4e5d\u5dde\u5730\u65b9\u5efa\u8a2d\u5c40\u5ddd\u8fba\u5ddd\u5de5\u4e8b\u4e8b\u52d9\u6240","boring_xml_url":49,"boring_view_url":1,"soilmap_view_url":null,"soiltest_xml_url":0,"soiltest_view_url":0},{"id":209750,"code":"B4KJ201801009-7999","latitude":"32.387811","longitude":"130.833128","source_code":"QS20098985790200180458","project_name":"","survey_name":"\u5e73\u62107\u5e74\u5ea6\u4ed8\u66ff\u56fd\u9053\u677f\u6728\u4e2d\u6d41\u5730\u533a\u5730\u8cea\u8abf\u67fb\u696d\u52d9","client_name":"\u5efa\u8a2d\u7701\u4e5d\u5dde\u5730\u65b9\u5efa\u8a2d\u5c40\u5ddd\u8fba\u5ddd\u5de5\u4e8b\u4e8b\u52d9\u6240","boring_xml_url":49,"boring_view_url":1,"soilmap_view_url":null,"soiltest_xml_url":0,"soiltest_view_url":0},{"id":209749,"code":"B4KJ201801009-7998","latitude":"32.387656","longitude":"130.833422","source_code":"QS20098985790200180457","project_name":"","survey_name":"\u5e73\u62107\u5e74\u5ea6\u4ed8\u66ff\u56fd\u9053\u677f\u6728\u4e2d\u6d41\u5730\u533a\u5730\u8cea\u8abf\u67fb\u696d\u52d9","client_name":"\u5efa\u8a2d\u7701\u4e5d\u5dde\u5730\u65b9\u5efa\u8a2d\u5c40\u5ddd\u8fba\u5ddd\u5de5\u4e8b\u4e8b\u52d9\u6240","boring_xml_url":49,"boring_view_url":1,"soilmap_view_url":null,"soiltest_xml_url":0,"soiltest_view_url":0},{"id":209748,"code":"B4KJ201801009-7997","latitude":"32.387431","longitude":"130.833825","source_code":"QS20098985790200180456","project_name":"","survey_name":"\u5e73\u62107\u5e74\u5ea6\u4ed8\u66ff\u56fd\u9053\u677f\u6728\u4e2d\u6d41\u5730\u533a\u5730\u8cea\u8abf\u67fb\u696d\u52d9","client_name":"\u5efa\u8a2d\u7701\u4e5d\u5dde\u5730\u65b9\u5efa\u8a2d\u5c40\u5ddd\u8fba\u5ddd\u5de5\u4e8b\u4e8b\u52d9\u6240","boring_xml_url":49,"boring_view_url":1,"soilmap_view_url":null,"soiltest_xml_url":0,"soiltest_view_url":0},{"id":209747,"code":"B4KJ201801009-7996","latitude":"32.387231","longitude":"130.834175","source_code":"QS20098985790200180455","project_name":"","survey_name":"\u5e73\u62107\u5e74\u5ea6\u4ed8\u66ff\u56fd\u9053\u677f\u6728\u4e2d\u6d41\u5730\u533a\u5730\u8cea\u8abf\u67fb\u696d\u52d9","client_name":"\u5efa\u8a2d\u7701\u4e5d\u5dde\u5730\u65b9\u5efa\u8a2d\u5c40\u5ddd\u8fba\u5ddd\u5de5\u4e8b\u4e8b\u52d9\u6240","boring_xml_url":49,"boring_view_url":1,"soilmap_view_url":null,"soiltest_xml_url":0,"soiltest_view_url":0},{"id":209746,"code":"B4KJ201801009-7995","latitude":"32.394761","longitude":"130.827281","source_code":"QS20098985790200180454","project_name":"","survey_name":"\u5e73\u62107\u5e74\u5ea6\u4ed8\u66ff\u56fd\u9053\u4e0b\u624b\u5730\u533a\u5730\u8cea\u8abf\u67fb\u696d\u52d9","client_name":"\u5efa\u8a2d\u7701\u4e5d\u5dde\u5730\u65b9\u5efa\u8a2d\u5c40\u5ddd\u8fba\u5ddd\u5de5\u4e8b\u4e8b\u52d9\u6240","boring_xml_url":49,"boring_view_url":1,"soilmap_view_url":null,"soiltest_xml_url":0,"soiltest_view_url":0},{"id":209745,"code":"B4KJ201801009-7994","latitude":"32.392664","longitude":"130.827583","source_code":"QS20098985790200180453","project_name":"","survey_name":"\u5e73\u62107\u5e74\u5ea6\u4ed8\u66ff\u56fd\u9053\u4e0b\u624b\u5730\u533a\u5730\u8cea\u8abf\u67fb\u696d\u52d9","client_name":"\u5efa\u8a2d\u7701\u4e5d\u5dde\u5730\u65b9\u5efa\u8a2d\u5c40\u5ddd\u8fba\u5ddd\u5de5\u4e8b\u4e8b\u52d9\u6240","boring_xml_url":49,"boring_view_url":1,"soilmap_view_url":null,"soiltest_xml_url":0,"soiltest_view_url":0},{"id":209744,"code":"B4KJ201801009-7993","latitude":"32.392622","longitude":"130.826797","source_code":"QS20098985790200180452","project_name":"","survey_name":"\u5e73\u62107\u5e74\u5ea6\u4ed8\u66ff\u56fd\u9053\u4e0b\u624b\u5730\u533a\u5730\u8cea\u8abf\u67fb\u696d\u52d9","client_name":"\u5efa\u8a2d\u7701\u4e5d\u5dde\u5730\u65b9\u5efa\u8a2d\u5c40\u5ddd\u8fba\u5ddd\u5de5\u4e8b\u4e8b\u52d9\u6240","boring_xml_url":49,"boring_view_url":1,"soilmap_view_url":null,"soiltest_xml_url":0,"soiltest_view_url":0},{"id":209743,"code":"B4KJ201801009-7992","latitude":"32.392047","longitude":"130.829053","source_code":"QS20098985790200180451","project_name":"","survey_name":"\u5e73\u62107\u5e74\u5ea6\u4ed8\u66ff\u56fd\u9053\u4e0b\u624b\u5730\u533a\u5730\u8cea\u8abf\u67fb\u696d\u52d9","client_name":"\u5efa\u8a2d\u7701\u4e5d\u5dde\u5730\u65b9\u5efa\u8a2d\u5c40\u5ddd\u8fba\u5ddd\u5de5\u4e8b\u4e8b\u52d9\u6240","boring_xml_url":49,"boring_view_url":1,"soilmap_view_url":null,"soiltest_xml_url":0,"soiltest_view_url":0},{"id":209742,"code":"B4KJ201801009-7991","latitude":"32.393339","longitude":"130.827447","source_code":"QS20098985790200180450","project_name":"","survey_name":"\u5e73\u62107\u5e74\u5ea6\u4ed8\u66ff\u56fd\u9053\u4e0b\u624b\u5730\u533a\u5730\u8cea\u8abf\u67fb\u696d\u52d9","client_name":"\u5efa\u8a2d\u7701\u4e5d\u5dde\u5730\u65b9\u5efa\u8a2d\u5c40\u5ddd\u8fba\u5ddd\u5de5\u4e8b\u4e8b\u52d9\u6240","boring_xml_url":49,"boring_view_url":1,"soilmap_view_url":null,"soiltest_xml_url":0,"soiltest_view_url":0},{"id":209741,"code":"B4KJ201801009-7990","latitude":"32.393897","longitude":"130.827078","source_code":"QS20098985790200180449","project_name":"","survey_name":"\u5e73\u62107\u5e74\u5ea6\u4ed8\u66ff\u56fd\u9053\u4e0b\u624b\u5730\u533a\u5730\u8cea\u8abf\u67fb\u696d\u52d9","client_name":"\u5efa\u8a2d\u7701\u4e5d\u5dde\u5730\u65b9\u5efa\u8a2d\u5c40\u5ddd\u8fba\u5ddd\u5de5\u4e8b\u4e8b\u52d9\u6240","boring_xml_url":49,"boring_view_url":1,"soilmap_view_url":null,"soiltest_xml_url":0,"soiltest_view_url":0},{"id":209740,"code":"B4KJ201801009-7989","latitude":"32.393497","longitude":"130.827297","source_code":"QS20098985790200180448","project_name":"","survey_name":"\u5e73\u62107\u5e74\u5ea6\u4ed8\u66ff\u56fd\u9053\u4e0b\u624b\u5730\u533a\u5730\u8cea\u8abf\u67fb\u696d\u52d9","client_name":"\u5efa\u8a2d\u7701\u4e5d\u5dde\u5730\u65b9\u5efa\u8a2d\u5c40\u5ddd\u8fba\u5ddd\u5de5\u4e8b\u4e8b\u52d9\u6240","boring_xml_url":49,"boring_view_url":1,"soilmap_view_url":null,"soiltest_xml_url":0,"soiltest_view_url":0},{"id":209739,"code":"B4KJ201801009-7988","latitude":"32.393389","longitude":"130.827436","source_code":"QS20098985790200180447","project_name":"","survey_name":"\u5e73\u62107\u5e74\u5ea6\u4ed8\u66ff\u56fd\u9053\u4e0b\u624b\u5730\u533a\u5730\u8cea\u8abf\u67fb\u696d\u52d9","client_name":"\u5efa\u8a2d\u7701\u4e5d\u5dde\u5730\u65b9\u5efa\u8a2d\u5c40\u5ddd\u8fba\u5ddd\u5de5\u4e8b\u4e8b\u52d9\u6240","boring_xml_url":49,"boring_view_url":1,"soilmap_view_url":null,"soiltest_xml_url":0,"soiltest_view_url":0},{"id":209738,"code":"B4KJ201801009-7987","latitude":"32.393542","longitude":"130.827072","source_code":"QS20098985790200180446","project_name":"","survey_name":"\u5e73\u62107\u5e74\u5ea6\u4ed8\u66ff\u56fd\u9053\u4e0b\u624b\u5730\u533a\u5730\u8cea\u8abf\u67fb\u696d\u52d9","client_name":"\u5efa\u8a2d\u7701\u4e5d\u5dde\u5730\u65b9\u5efa\u8a2d\u5c40\u5ddd\u8fba\u5ddd\u5de5\u4e8b\u4e8b\u52d9\u6240","boring_xml_url":49,"boring_view_url":1,"soilmap_view_url":null,"soiltest_xml_url":0,"soiltest_view_url":0},{"id":209737,"code":"B4KJ201801009-7986","latitude":"32.393186","longitude":"130.827097","source_code":"QS20098985790200180445","project_name":"","survey_name":"\u5e73\u62107\u5e74\u5ea6\u4ed8\u66ff\u56fd\u9053\u4e0b\u624b\u5730\u533a\u5730\u8cea\u8abf\u67fb\u696d\u52d9","client_name":"\u5efa\u8a2d\u7701\u4e5d\u5dde\u5730\u65b9\u5efa\u8a2d\u5c40\u5ddd\u8fba\u5ddd\u5de5\u4e8b\u4e8b\u52d9\u6240","boring_xml_url":49,"boring_view_url":1,"soilmap_view_url":null,"soiltest_xml_url":0,"soiltest_view_url":0},{"id":209736,"code":"B4KJ201801009-7985","latitude":"32.392847","longitude":"130.827133","source_code":"QS20098985790200180444","project_name":"","survey_name":"\u5e73\u62107\u5e74\u5ea6\u4ed8\u66ff\u56fd\u9053\u4e0b\u624b\u5730\u533a\u5730\u8cea\u8abf\u67fb\u696d\u52d9","client_name":"\u5efa\u8a2d\u7701\u4e5d\u5dde\u5730\u65b9\u5efa\u8a2d\u5c40\u5ddd\u8fba\u5ddd\u5de5\u4e8b\u4e8b\u52d9\u6240","boring_xml_url":49,"boring_view_url":1,"soilmap_view_url":null,"soiltest_xml_url":0,"soiltest_view_url":0},{"id":209735,"code":"B4KJ201801009-7984","latitude":"32.392386","longitude":"130.827186","source_code":"QS20098985790200180443","project_name":"","survey_name":"\u5e73\u62107\u5e74\u5ea6\u4ed8\u66ff\u56fd\u9053\u4e0b\u624b\u5730\u533a\u5730\u8cea\u8abf\u67fb\u696d\u52d9","client_name":"\u5efa\u8a2d\u7701\u4e5d\u5dde\u5730\u65b9\u5efa\u8a2d\u5c40\u5ddd\u8fba\u5ddd\u5de5\u4e8b\u4e8b\u52d9\u6240","boring_xml_url":49,"boring_view_url":1,"soilmap_view_url":null,"soiltest_xml_url":0,"soiltest_view_url":0},{"id":209734,"code":"B4KJ201801009-7983","latitude":"32.39205","longitude":"130.827242","source_code":"QS20098985790200180442","project_name":"","survey_name":"\u5e73\u62107\u5e74\u5ea6\u4ed8\u66ff\u56fd\u9053\u4e0b\u624b\u5730\u533a\u5730\u8cea\u8abf\u67fb\u696d\u52d9","client_name":"\u5efa\u8a2d\u7701\u4e5d\u5dde\u5730\u65b9\u5efa\u8a2d\u5c40\u5ddd\u8fba\u5ddd\u5de5\u4e8b\u4e8b\u52d9\u6240","boring_xml_url":49,"boring_view_url":1,"soilmap_view_url":null,"soiltest_xml_url":0,"soiltest_view_url":0},{"id":209733,"code":"B4KJ201801009-7982","latitude":"32.39165","longitude":"130.827314","source_code":"QS20098985790200180441","project_name":"","survey_name":"\u5e73\u62107\u5e74\u5ea6\u4ed8\u66ff\u56fd\u9053\u4e0b\u624b\u5730\u533a\u5730\u8cea\u8abf\u67fb\u696d\u52d9","client_name":"\u5efa\u8a2d\u7701\u4e5d\u5dde\u5730\u65b9\u5efa\u8a2d\u5c40\u5ddd\u8fba\u5ddd\u5de5\u4e8b\u4e8b\u52d9\u6240","boring_xml_url":49,"boring_view_url":1,"soilmap_view_url":null,"soiltest_xml_url":0,"soiltest_view_url":0},{"id":209732,"code":"B4KJ201801009-7981","latitude":"32.391247","longitude":"130.827397","source_code":"QS20098985790200180440","project_name":"","survey_name":"\u5e73\u62107\u5e74\u5ea6\u4ed8\u66ff\u56fd\u9053\u4e0b\u624b\u5730\u533a\u5730\u8cea\u8abf\u67fb\u696d\u52d9","client_name":"\u5efa\u8a2d\u7701\u4e5d\u5dde\u5730\u65b9\u5efa\u8a2d\u5c40\u5ddd\u8fba\u5ddd\u5de5\u4e8b\u4e8b\u52d9\u6240","boring_xml_url":49,"boring_view_url":1,"soilmap_view_url":null,"soiltest_xml_url":0,"soiltest_view_url":0},{"id":209731,"code":"B4KJ201801009-7980","latitude":"32.390911","longitude":"130.827478","source_code":"QS20098985790200180439","project_name":"","survey_name":"\u5e73\u62107\u5e74\u5ea6\u4ed8\u66ff\u56fd\u9053\u4e0b\u624b\u5730\u533a\u5730\u8cea\u8abf\u67fb\u696d\u52d9","client_name":"\u5efa\u8a2d\u7701\u4e5d\u5dde\u5730\u65b9\u5efa\u8a2d\u5c40\u5ddd\u8fba\u5ddd\u5de5\u4e8b\u4e8b\u52d9\u6240","boring_xml_url":49,"boring_view_url":1,"soilmap_view_url":null,"soiltest_xml_url":0,"soiltest_view_url":0},{"id":209730,"code":"B4KJ201801009-7979","latitude":"32.397928","longitude":"130.828703","source_code":"QS20098985790200180438","project_name":"","survey_name":"\u5e73\u62106\u5e74\u5ea6\u982d\u5730\u5730\u533a\u5730\u8cea\u8abf\u67fb(\u305d\u306e2)\u696d\u52d9","client_name":"\u5efa\u8a2d\u7701\u4e5d\u5dde\u5730\u65b9\u5efa\u8a2d\u5c40\u5ddd\u8fba\u5ddd\u5de5\u4e8b\u4e8b\u52d9\u6240","boring_xml_url":49,"boring_view_url":1,"soilmap_view_url":null,"soiltest_xml_url":52,"soiltest_view_url":52},{"id":209729,"code":"B4KJ201801009-7978","latitude":"32.398294","longitude":"130.828697","source_code":"QS20098985790200180437","project_name":"","survey_name":"\u5e73\u62106\u5e74\u5ea6\u982d\u5730\u5730\u533a\u5730\u8cea\u8abf\u67fb(\u305d\u306e2)\u696d\u52d9","client_name":"\u5efa\u8a2d\u7701\u4e5d\u5dde\u5730\u65b9\u5efa\u8a2d\u5c40\u5ddd\u8fba\u5ddd\u5de5\u4e8b\u4e8b\u52d9\u6240","boring_xml_url":49,"boring_view_url":1,"soilmap_view_url":null,"soiltest_xml_url":52,"soiltest_view_url":52},{"id":209728,"code":"B4KJ201801009-7977","latitude":"32.398656","longitude":"130.828689","source_code":"QS20098985790200180436","project_name":"","survey_name":"\u5e73\u62106\u5e74\u5ea6\u982d\u5730\u5730\u533a\u5730\u8cea\u8abf\u67fb(\u305d\u306e2)\u696d\u52d9","client_name":"\u5efa\u8a2d\u7701\u4e5d\u5dde\u5730\u65b9\u5efa\u8a2d\u5c40\u5ddd\u8fba\u5ddd\u5de5\u4e8b\u4e8b\u52d9\u6240","boring_xml_url":49,"boring_view_url":1,"soilmap_view_url":null,"soiltest_xml_url":52,"soiltest_view_url":52},{"id":209727,"code":"B4KJ201801009-7976","latitude":"32.397928","longitude":"130.829156","source_code":"QS20098985790200180435","project_name":"","survey_name":"\u5e73\u62106\u5e74\u5ea6\u982d\u5730\u5730\u533a\u5730\u8cea\u8abf\u67fb(\u305d\u306e2)\u696d\u52d9","client_name":"\u5efa\u8a2d\u7701\u4e5d\u5dde\u5730\u65b9\u5efa\u8a2d\u5c40\u5ddd\u8fba\u5ddd\u5de5\u4e8b\u4e8b\u52d9\u6240","boring_xml_url":49,"boring_view_url":1,"soilmap_view_url":null,"soiltest_xml_url":52,"soiltest_view_url":52},{"id":209726,"code":"B4KJ201801009-7975","latitude":"32.398292","longitude":"130.829128","source_code":"QS20098985790200180434","project_name":"","survey_name":"\u5e73\u62106\u5e74\u5ea6\u982d\u5730\u5730\u533a\u5730\u8cea\u8abf\u67fb(\u305d\u306e2)\u696d\u52d9","client_name":"\u5efa\u8a2d\u7701\u4e5d\u5dde\u5730\u65b9\u5efa\u8a2d\u5c40\u5ddd\u8fba\u5ddd\u5de5\u4e8b\u4e8b\u52d9\u6240","boring_xml_url":49,"boring_view_url":1,"soilmap_view_url":null,"soiltest_xml_url":52,"soiltest_view_url":52}]}}