{"header":{"xyz":{"source":[],"mosaic":false},"page":37,"raw":{"soiltest_result":"0","bbox":"57.598333,109.544722,1.933333,163.806111","page":"37"},"conditions":{"soiltest_result":0,"north":57.598333,"west":109.544722,"south":1.933333,"east":163.806111},"success":true,"message":""},"data":{"meta":{"total":212844,"page":37,"pages":7095,"count":30},"values":[{"id":700540,"code":"NGIC202305166-0009","latitude":"33.943233333333","longitude":"130.77753611111","source_code":"","project_name":"","survey_name":"\u4ee4\u548c5\u5e74\u5ea6\u5317\u4e5d\u5dde\u6e2f \u6e2f\u6e7e\u65bd\u8a2d\u571f\u8cea\u8abf\u67fb\u59161\u4ef6","client_name":"\u56fd\u571f\u4ea4\u901a\u7701\u4e5d\u5dde\u5730\u65b9\u6574\u5099\u5c40\u5317\u4e5d\u5dde\u6e2f\u6e7e\u30fb\u7a7a\u6e2f\u6574\u5099\u4e8b\u52d9\u6240","boring_xml_url":47,"boring_view_url":1,"soilmap_view_url":null,"soiltest_xml_url":47,"soiltest_view_url":47},{"id":700539,"code":"NGIC202305166-0008","latitude":"33.943686111111","longitude":"130.77775","source_code":"","project_name":"","survey_name":"\u4ee4\u548c5\u5e74\u5ea6\u5317\u4e5d\u5dde\u6e2f \u6e2f\u6e7e\u65bd\u8a2d\u571f\u8cea\u8abf\u67fb\u59161\u4ef6","client_name":"\u56fd\u571f\u4ea4\u901a\u7701\u4e5d\u5dde\u5730\u65b9\u6574\u5099\u5c40\u5317\u4e5d\u5dde\u6e2f\u6e7e\u30fb\u7a7a\u6e2f\u6574\u5099\u4e8b\u52d9\u6240","boring_xml_url":47,"boring_view_url":1,"soilmap_view_url":null,"soiltest_xml_url":47,"soiltest_view_url":47},{"id":700538,"code":"NGIC202305166-0007","latitude":"33.943686111111","longitude":"130.77753611111","source_code":"","project_name":"","survey_name":"\u4ee4\u548c5\u5e74\u5ea6\u5317\u4e5d\u5dde\u6e2f \u6e2f\u6e7e\u65bd\u8a2d\u571f\u8cea\u8abf\u67fb\u59161\u4ef6","client_name":"\u56fd\u571f\u4ea4\u901a\u7701\u4e5d\u5dde\u5730\u65b9\u6574\u5099\u5c40\u5317\u4e5d\u5dde\u6e2f\u6e7e\u30fb\u7a7a\u6e2f\u6574\u5099\u4e8b\u52d9\u6240","boring_xml_url":47,"boring_view_url":1,"soilmap_view_url":null,"soiltest_xml_url":47,"soiltest_view_url":47},{"id":700537,"code":"NGIC202305166-0006","latitude":"33.943683333333","longitude":"130.77710277778","source_code":"","project_name":"","survey_name":"\u4ee4\u548c5\u5e74\u5ea6\u5317\u4e5d\u5dde\u6e2f \u6e2f\u6e7e\u65bd\u8a2d\u571f\u8cea\u8abf\u67fb\u59161\u4ef6","client_name":"\u56fd\u571f\u4ea4\u901a\u7701\u4e5d\u5dde\u5730\u65b9\u6574\u5099\u5c40\u5317\u4e5d\u5dde\u6e2f\u6e7e\u30fb\u7a7a\u6e2f\u6574\u5099\u4e8b\u52d9\u6240","boring_xml_url":47,"boring_view_url":1,"soilmap_view_url":null,"soiltest_xml_url":47,"soiltest_view_url":47},{"id":700536,"code":"NGIC202305166-0005","latitude":"33.944136111111","longitude":"130.77753333333","source_code":"","project_name":"","survey_name":"\u4ee4\u548c5\u5e74\u5ea6\u5317\u4e5d\u5dde\u6e2f \u6e2f\u6e7e\u65bd\u8a2d\u571f\u8cea\u8abf\u67fb\u59161\u4ef6","client_name":"\u56fd\u571f\u4ea4\u901a\u7701\u4e5d\u5dde\u5730\u65b9\u6574\u5099\u5c40\u5317\u4e5d\u5dde\u6e2f\u6e7e\u30fb\u7a7a\u6e2f\u6574\u5099\u4e8b\u52d9\u6240","boring_xml_url":47,"boring_view_url":1,"soilmap_view_url":null,"soiltest_xml_url":47,"soiltest_view_url":47},{"id":700535,"code":"NGIC202305166-0004","latitude":"33.944586111111","longitude":"130.77774722222","source_code":"","project_name":"","survey_name":"\u4ee4\u548c5\u5e74\u5ea6\u5317\u4e5d\u5dde\u6e2f \u6e2f\u6e7e\u65bd\u8a2d\u571f\u8cea\u8abf\u67fb\u59161\u4ef6","client_name":"\u56fd\u571f\u4ea4\u901a\u7701\u4e5d\u5dde\u5730\u65b9\u6574\u5099\u5c40\u5317\u4e5d\u5dde\u6e2f\u6e7e\u30fb\u7a7a\u6e2f\u6574\u5099\u4e8b\u52d9\u6240","boring_xml_url":47,"boring_view_url":1,"soilmap_view_url":null,"soiltest_xml_url":47,"soiltest_view_url":47},{"id":700534,"code":"NGIC202305166-0003","latitude":"33.944586111111","longitude":"130.77753333333","source_code":"","project_name":"","survey_name":"\u4ee4\u548c5\u5e74\u5ea6\u5317\u4e5d\u5dde\u6e2f \u6e2f\u6e7e\u65bd\u8a2d\u571f\u8cea\u8abf\u67fb\u59161\u4ef6","client_name":"\u56fd\u571f\u4ea4\u901a\u7701\u4e5d\u5dde\u5730\u65b9\u6574\u5099\u5c40\u5317\u4e5d\u5dde\u6e2f\u6e7e\u30fb\u7a7a\u6e2f\u6574\u5099\u4e8b\u52d9\u6240","boring_xml_url":47,"boring_view_url":1,"soilmap_view_url":null,"soiltest_xml_url":47,"soiltest_view_url":47},{"id":700533,"code":"NGIC202305166-0002","latitude":"33.944583333333","longitude":"130.7771","source_code":"","project_name":"","survey_name":"\u4ee4\u548c5\u5e74\u5ea6\u5317\u4e5d\u5dde\u6e2f \u6e2f\u6e7e\u65bd\u8a2d\u571f\u8cea\u8abf\u67fb\u59161\u4ef6","client_name":"\u56fd\u571f\u4ea4\u901a\u7701\u4e5d\u5dde\u5730\u65b9\u6574\u5099\u5c40\u5317\u4e5d\u5dde\u6e2f\u6e7e\u30fb\u7a7a\u6e2f\u6574\u5099\u4e8b\u52d9\u6240","boring_xml_url":47,"boring_view_url":1,"soilmap_view_url":null,"soiltest_xml_url":47,"soiltest_view_url":47},{"id":700532,"code":"NGIC202305166-0001","latitude":"33.945036111111","longitude":"130.77753055556","source_code":"","project_name":"","survey_name":"\u4ee4\u548c5\u5e74\u5ea6\u5317\u4e5d\u5dde\u6e2f \u6e2f\u6e7e\u65bd\u8a2d\u571f\u8cea\u8abf\u67fb\u59161\u4ef6","client_name":"\u56fd\u571f\u4ea4\u901a\u7701\u4e5d\u5dde\u5730\u65b9\u6574\u5099\u5c40\u5317\u4e5d\u5dde\u6e2f\u6e7e\u30fb\u7a7a\u6e2f\u6574\u5099\u4e8b\u52d9\u6240","boring_xml_url":47,"boring_view_url":1,"soilmap_view_url":null,"soiltest_xml_url":47,"soiltest_view_url":47},{"id":700527,"code":"NGIC202305221-0004","latitude":"34.944231055556","longitude":"136.01560536111","source_code":"","project_name":"","survey_name":"\u5927\u6238\u5ddd\u30c0\u30e0\u5de5\u4e8b\u7528\u9053\u8def\u8a73\u7d30\u8a2d\u8a08\u4ed6\u696d\u52d9","client_name":"\u56fd\u571f\u4ea4\u901a\u7701\u8fd1\u757f\u5730\u65b9\u6574\u5099\u5c40\u5927\u6238\u5ddd\u30c0\u30e0\u5de5\u4e8b\u4e8b\u52d9\u6240","boring_xml_url":47,"boring_view_url":1,"soilmap_view_url":null,"soiltest_xml_url":0,"soiltest_view_url":0},{"id":700526,"code":"NGIC202305221-0003","latitude":"34.944123083333","longitude":"136.01533291667","source_code":"","project_name":"","survey_name":"\u5927\u6238\u5ddd\u30c0\u30e0\u5de5\u4e8b\u7528\u9053\u8def\u8a73\u7d30\u8a2d\u8a08\u4ed6\u696d\u52d9","client_name":"\u56fd\u571f\u4ea4\u901a\u7701\u8fd1\u757f\u5730\u65b9\u6574\u5099\u5c40\u5927\u6238\u5ddd\u30c0\u30e0\u5de5\u4e8b\u4e8b\u52d9\u6240","boring_xml_url":47,"boring_view_url":1,"soilmap_view_url":null,"soiltest_xml_url":0,"soiltest_view_url":0},{"id":700525,"code":"NGIC202305221-0002","latitude":"34.94365225","longitude":"136.01414175","source_code":"","project_name":"","survey_name":"\u5927\u6238\u5ddd\u30c0\u30e0\u5de5\u4e8b\u7528\u9053\u8def\u8a73\u7d30\u8a2d\u8a08\u4ed6\u696d\u52d9","client_name":"\u56fd\u571f\u4ea4\u901a\u7701\u8fd1\u757f\u5730\u65b9\u6574\u5099\u5c40\u5927\u6238\u5ddd\u30c0\u30e0\u5de5\u4e8b\u4e8b\u52d9\u6240","boring_xml_url":47,"boring_view_url":1,"soilmap_view_url":null,"soiltest_xml_url":0,"soiltest_view_url":0},{"id":700524,"code":"NGIC202305221-0001","latitude":"34.943526138889","longitude":"136.01382288889","source_code":"","project_name":"","survey_name":"\u5927\u6238\u5ddd\u30c0\u30e0\u5de5\u4e8b\u7528\u9053\u8def\u8a73\u7d30\u8a2d\u8a08\u4ed6\u696d\u52d9","client_name":"\u56fd\u571f\u4ea4\u901a\u7701\u8fd1\u757f\u5730\u65b9\u6574\u5099\u5c40\u5927\u6238\u5ddd\u30c0\u30e0\u5de5\u4e8b\u4e8b\u52d9\u6240","boring_xml_url":47,"boring_view_url":1,"soilmap_view_url":null,"soiltest_xml_url":0,"soiltest_view_url":0},{"id":700521,"code":"NGIC202305829-0008","latitude":"37.699107222222","longitude":"138.89558330556","source_code":"","project_name":"\u5409\u7530\u30d0\u30a4\u30d1\u30b9\u4e8b\u696d","survey_name":"R5\u5409\u7530\u30d0\u30a4\u30d1\u30b9\u5730\u8cea\u8abf\u67fb\u696d\u52d9","client_name":"\u56fd\u571f\u4ea4\u901a\u7701\u5317\u9678\u5730\u65b9\u6574\u5099\u5c40\u65b0\u6f5f\u56fd\u9053\u4e8b\u52d9\u6240","boring_xml_url":47,"boring_view_url":1,"soilmap_view_url":null,"soiltest_xml_url":47,"soiltest_view_url":47},{"id":700520,"code":"NGIC202305829-0007","latitude":"37.69767125","longitude":"138.89611516667","source_code":"","project_name":"\u5409\u7530\u30d0\u30a4\u30d1\u30b9\u4e8b\u696d","survey_name":"R5\u5409\u7530\u30d0\u30a4\u30d1\u30b9\u5730\u8cea\u8abf\u67fb\u696d\u52d9","client_name":"\u56fd\u571f\u4ea4\u901a\u7701\u5317\u9678\u5730\u65b9\u6574\u5099\u5c40\u65b0\u6f5f\u56fd\u9053\u4e8b\u52d9\u6240","boring_xml_url":47,"boring_view_url":1,"soilmap_view_url":null,"soiltest_xml_url":47,"soiltest_view_url":47},{"id":700519,"code":"NGIC202305829-0006","latitude":"37.694791694444","longitude":"138.89589161111","source_code":"","project_name":"\u5409\u7530\u30d0\u30a4\u30d1\u30b9\u4e8b\u696d","survey_name":"R5\u5409\u7530\u30d0\u30a4\u30d1\u30b9\u5730\u8cea\u8abf\u67fb\u696d\u52d9","client_name":"\u56fd\u571f\u4ea4\u901a\u7701\u5317\u9678\u5730\u65b9\u6574\u5099\u5c40\u65b0\u6f5f\u56fd\u9053\u4e8b\u52d9\u6240","boring_xml_url":47,"boring_view_url":1,"soilmap_view_url":null,"soiltest_xml_url":47,"soiltest_view_url":47},{"id":700518,"code":"NGIC202305829-0005","latitude":"37.693703583333","longitude":"138.89577561111","source_code":"","project_name":"\u5409\u7530\u30d0\u30a4\u30d1\u30b9\u4e8b\u696d","survey_name":"R5\u5409\u7530\u30d0\u30a4\u30d1\u30b9\u5730\u8cea\u8abf\u67fb\u696d\u52d9","client_name":"\u56fd\u571f\u4ea4\u901a\u7701\u5317\u9678\u5730\u65b9\u6574\u5099\u5c40\u65b0\u6f5f\u56fd\u9053\u4e8b\u52d9\u6240","boring_xml_url":47,"boring_view_url":1,"soilmap_view_url":null,"soiltest_xml_url":47,"soiltest_view_url":47},{"id":700517,"code":"NGIC202305829-0004","latitude":"37.691822222222","longitude":"138.89441375","source_code":"","project_name":"\u5409\u7530\u30d0\u30a4\u30d1\u30b9\u4e8b\u696d","survey_name":"R5\u5409\u7530\u30d0\u30a4\u30d1\u30b9\u5730\u8cea\u8abf\u67fb\u696d\u52d9","client_name":"\u56fd\u571f\u4ea4\u901a\u7701\u5317\u9678\u5730\u65b9\u6574\u5099\u5c40\u65b0\u6f5f\u56fd\u9053\u4e8b\u52d9\u6240","boring_xml_url":47,"boring_view_url":1,"soilmap_view_url":null,"soiltest_xml_url":47,"soiltest_view_url":47},{"id":700516,"code":"NGIC202305829-0003","latitude":"37.687524083333","longitude":"138.89179833333","source_code":"","project_name":"\u5409\u7530\u30d0\u30a4\u30d1\u30b9\u4e8b\u696d","survey_name":"R5\u5409\u7530\u30d0\u30a4\u30d1\u30b9\u5730\u8cea\u8abf\u67fb\u696d\u52d9","client_name":"\u56fd\u571f\u4ea4\u901a\u7701\u5317\u9678\u5730\u65b9\u6574\u5099\u5c40\u65b0\u6f5f\u56fd\u9053\u4e8b\u52d9\u6240","boring_xml_url":47,"boring_view_url":1,"soilmap_view_url":null,"soiltest_xml_url":47,"soiltest_view_url":47},{"id":700515,"code":"NGIC202305829-0002","latitude":"37.6862","longitude":"138.89099416667","source_code":"","project_name":"\u5409\u7530\u30d0\u30a4\u30d1\u30b9\u4e8b\u696d","survey_name":"R5\u5409\u7530\u30d0\u30a4\u30d1\u30b9\u5730\u8cea\u8abf\u67fb\u696d\u52d9","client_name":"\u56fd\u571f\u4ea4\u901a\u7701\u5317\u9678\u5730\u65b9\u6574\u5099\u5c40\u65b0\u6f5f\u56fd\u9053\u4e8b\u52d9\u6240","boring_xml_url":47,"boring_view_url":1,"soilmap_view_url":null,"soiltest_xml_url":47,"soiltest_view_url":47},{"id":700514,"code":"NGIC202305829-0001","latitude":"37.679921027778","longitude":"138.88749080556","source_code":"","project_name":"\u5409\u7530\u30d0\u30a4\u30d1\u30b9\u4e8b\u696d","survey_name":"R5\u5409\u7530\u30d0\u30a4\u30d1\u30b9\u5730\u8cea\u8abf\u67fb\u696d\u52d9","client_name":"\u56fd\u571f\u4ea4\u901a\u7701\u5317\u9678\u5730\u65b9\u6574\u5099\u5c40\u65b0\u6f5f\u56fd\u9053\u4e8b\u52d9\u6240","boring_xml_url":47,"boring_view_url":1,"soilmap_view_url":null,"soiltest_xml_url":47,"soiltest_view_url":47},{"id":700488,"code":"NGIC202305767-0004","latitude":"37.239158333333","longitude":"140.3844","source_code":"","project_name":"","survey_name":"\u4ee4\u548c4\u5e74\u5ea6\u963f\u6b66\u9688\u5ddd\u4e0a\u6d41\u6210\u7adc\u6a4b\u7b49\u6a4b\u6881\u8a73\u7d30\u8a2d\u8a08\u696d\u52d9","client_name":"\u56fd\u571f\u4ea4\u901a\u7701\u6771\u5317\u5730\u65b9\u6574\u5099\u5c40\u798f\u5cf6\u6cb3\u5ddd\u56fd\u9053\u4e8b\u52d9\u6240","boring_xml_url":47,"boring_view_url":1,"soilmap_view_url":null,"soiltest_xml_url":0,"soiltest_view_url":0},{"id":700487,"code":"NGIC202305767-0003","latitude":"37.232133333333","longitude":"140.39383333333","source_code":"","project_name":"","survey_name":"\u4ee4\u548c4\u5e74\u5ea6\u963f\u6b66\u9688\u5ddd\u4e0a\u6d41\u6210\u7adc\u6a4b\u7b49\u6a4b\u6881\u8a73\u7d30\u8a2d\u8a08\u696d\u52d9","client_name":"\u56fd\u571f\u4ea4\u901a\u7701\u6771\u5317\u5730\u65b9\u6574\u5099\u5c40\u798f\u5cf6\u6cb3\u5ddd\u56fd\u9053\u4e8b\u52d9\u6240","boring_xml_url":47,"boring_view_url":1,"soilmap_view_url":null,"soiltest_xml_url":0,"soiltest_view_url":0},{"id":700486,"code":"NGIC202305767-0002","latitude":"37.231858333333","longitude":"140.3934","source_code":"","project_name":"","survey_name":"\u4ee4\u548c4\u5e74\u5ea6\u963f\u6b66\u9688\u5ddd\u4e0a\u6d41\u6210\u7adc\u6a4b\u7b49\u6a4b\u6881\u8a73\u7d30\u8a2d\u8a08\u696d\u52d9","client_name":"\u56fd\u571f\u4ea4\u901a\u7701\u6771\u5317\u5730\u65b9\u6574\u5099\u5c40\u798f\u5cf6\u6cb3\u5ddd\u56fd\u9053\u4e8b\u52d9\u6240","boring_xml_url":47,"boring_view_url":1,"soilmap_view_url":null,"soiltest_xml_url":0,"soiltest_view_url":0},{"id":700485,"code":"NGIC202305767-0001","latitude":"37.231433333333","longitude":"140.39263055556","source_code":"","project_name":"","survey_name":"\u4ee4\u548c4\u5e74\u5ea6 \u963f\u6b66\u9688\u5ddd\u4e0a\u6d41\u6210\u7adc\u6a4b\u7b49\u6a4b\u6881\u8a73\u7d30\u8a2d\u8a08\u696d\u52d9","client_name":"\u56fd\u571f\u4ea4\u901a\u7701\u6771\u5317\u5730\u65b9\u6574\u5099\u5c40\u798f\u5cf6\u6cb3\u5ddd\u56fd\u9053\u4e8b\u52d9\u6240","boring_xml_url":47,"boring_view_url":1,"soilmap_view_url":null,"soiltest_xml_url":0,"soiltest_view_url":0},{"id":700478,"code":"NGIC202305749-0001","latitude":"40.848529472222","longitude":"140.71110361111","source_code":"","project_name":"","survey_name":"\u4ee4\u548c5\u5e74\u5ea6\u9752\u68ee\u6e2f\u6cb9\u5ddd\u5730\u533a\u571f\u8cea\u8abf\u67fb","client_name":"\u56fd\u571f\u4ea4\u901a\u7701\u6771\u5317\u5730\u65b9\u6574\u5099\u5c40\u9752\u68ee\u6e2f\u6e7e\u4e8b\u52d9\u6240","boring_xml_url":47,"boring_view_url":1,"soilmap_view_url":null,"soiltest_xml_url":47,"soiltest_view_url":47},{"id":700473,"code":"NGIC202305743-0001","latitude":"42.898460833333","longitude":"140.90883888889","source_code":"","project_name":"\u56fd\u55b6\u4e2d\u5f8c\u5fd7\u571f\u5730\u6539\u826f\u4e8b\u696d\u8a08\u753b","survey_name":"\u4ee4\u548c5\u5e74\u5ea6\u65bd\u884c \u4e2d\u5f8c\u5fd7\u5730\u533a \u53cc\u8449\u30c0\u30e0\u53d6\u6c34\u8a2d\u5099\u5b9f\u65bd\u8a2d\u8a08\u7b49\u696d\u52d9","client_name":"\u56fd\u571f\u4ea4\u901a\u7701\u5317\u6d77\u9053\u958b\u767a\u5c40\u5c0f\u6a3d\u958b\u767a\u5efa\u8a2d\u90e8\u5f8c\u5fd7\u4e2d\u90e8\u8fb2\u696d\u958b\u767a\u4e8b\u696d\u6240","boring_xml_url":47,"boring_view_url":1,"soilmap_view_url":null,"soiltest_xml_url":47,"soiltest_view_url":47},{"id":700466,"code":"NGIC202305640-0001","latitude":"36.391859944444","longitude":"140.03197211111","source_code":"","project_name":"","survey_name":"R4\u9b3c\u6012\u5ddd\u30fb\u5c0f\u8c9d\u5ddd\u6cb3\u5e8a\u6750\u6599\u8abf\u67fb\u696d\u52d9","client_name":"\u56fd\u571f\u4ea4\u901a\u7701\u95a2\u6771\u5730\u65b9\u6574\u5099\u5c40\u4e0b\u9928\u6cb3\u5ddd\u4e8b\u52d9\u6240","boring_xml_url":47,"boring_view_url":1,"soilmap_view_url":null,"soiltest_xml_url":0,"soiltest_view_url":0},{"id":700461,"code":"NGIC202305738-0002","latitude":"38.480635833333","longitude":"141.2149385","source_code":"","project_name":"\u4ee4\u548c4\u5e74\u5ea6","survey_name":"\u7c73\u30f6\u5d0e\u5730\u533a\u6a4b\u6881\u4e88\u5099\u8a2d\u8a08\u696d\u52d9","client_name":"\u56fd\u571f\u4ea4\u901a\u7701\u6771\u5317\u5730\u65b9\u6574\u5099\u5c40\u4ed9\u53f0\u6cb3\u5ddd\u56fd\u9053\u4e8b\u52d9\u6240","boring_xml_url":47,"boring_view_url":1,"soilmap_view_url":null,"soiltest_xml_url":47,"soiltest_view_url":47},{"id":700460,"code":"NGIC202305738-0001","latitude":"38.48060475","longitude":"141.21769113889","source_code":"","project_name":"\u4ee4\u548c4\u5e74\u5ea6","survey_name":"\u7c73\u30f6\u5d0e\u5730\u533a\u6a4b\u6881\u4e88\u5099\u8a2d\u8a08\u696d\u52d9","client_name":"\u56fd\u571f\u4ea4\u901a\u7701\u6771\u5317\u5730\u65b9\u6574\u5099\u5c40\u4ed9\u53f0\u6cb3\u5ddd\u56fd\u9053\u4e8b\u52d9\u6240","boring_xml_url":47,"boring_view_url":1,"soilmap_view_url":null,"soiltest_xml_url":0,"soiltest_view_url":0}]}}