{"header":{"xyz":{"source":[],"mosaic":false},"page":3701,"raw":{"soiltest_result":"0","bbox":"57.598333,109.544722,1.933333,163.806111","page":"3701"},"conditions":{"soiltest_result":0,"north":57.598333,"west":109.544722,"south":1.933333,"east":163.806111},"success":true,"message":""},"data":{"meta":{"total":212844,"page":3701,"pages":7095,"count":30},"values":[{"id":209545,"code":"B4KJ201801009-7794","latitude":"32.366525","longitude":"130.836072","source_code":"QS20098985790200180253","project_name":"","survey_name":"\u4ed8\u66ff\u56fd\u9053\u5927\u5e73\u5730\u533a\u5730\u8cea\u8abf\u67fb\u696d\u52d9","client_name":"\u5efa\u8a2d\u7701\u4e5d\u5dde\u5730\u65b9\u5efa\u8a2d\u5c40\u5ddd\u8fba\u5ddd\u5de5\u4e8b\u4e8b\u52d9\u6240","boring_xml_url":49,"boring_view_url":1,"soilmap_view_url":null,"soiltest_xml_url":0,"soiltest_view_url":0},{"id":209544,"code":"B4KJ201801009-7793","latitude":"32.366372","longitude":"130.836006","source_code":"QS20098985790200180252","project_name":"","survey_name":"\u4ed8\u66ff\u56fd\u9053\u5927\u5e73\u5730\u533a\u5730\u8cea\u8abf\u67fb\u696d\u52d9","client_name":"\u5efa\u8a2d\u7701\u4e5d\u5dde\u5730\u65b9\u5efa\u8a2d\u5c40\u5ddd\u8fba\u5ddd\u5de5\u4e8b\u4e8b\u52d9\u6240","boring_xml_url":49,"boring_view_url":1,"soilmap_view_url":null,"soiltest_xml_url":0,"soiltest_view_url":0},{"id":209543,"code":"B4KJ201801009-7792","latitude":"32.366106","longitude":"130.836128","source_code":"QS20098985790200180251","project_name":"","survey_name":"\u4ed8\u66ff\u56fd\u9053\u5927\u5e73\u5730\u533a\u5730\u8cea\u8abf\u67fb\u696d\u52d9","client_name":"\u5efa\u8a2d\u7701\u4e5d\u5dde\u5730\u65b9\u5efa\u8a2d\u5c40\u5ddd\u8fba\u5ddd\u5de5\u4e8b\u4e8b\u52d9\u6240","boring_xml_url":49,"boring_view_url":1,"soilmap_view_url":null,"soiltest_xml_url":0,"soiltest_view_url":0},{"id":209542,"code":"B4KJ201801009-7791","latitude":"32.366128","longitude":"130.835856","source_code":"QS20098985790200180250","project_name":"","survey_name":"\u4ed8\u66ff\u56fd\u9053\u5927\u5e73\u5730\u533a\u5730\u8cea\u8abf\u67fb\u696d\u52d9","client_name":"\u5efa\u8a2d\u7701\u4e5d\u5dde\u5730\u65b9\u5efa\u8a2d\u5c40\u5ddd\u8fba\u5ddd\u5de5\u4e8b\u4e8b\u52d9\u6240","boring_xml_url":49,"boring_view_url":1,"soilmap_view_url":null,"soiltest_xml_url":0,"soiltest_view_url":0},{"id":209541,"code":"B4KJ201801009-7790","latitude":"32.365803","longitude":"130.835981","source_code":"QS20098985790200180249","project_name":"","survey_name":"\u4ed8\u66ff\u56fd\u9053\u5927\u5e73\u5730\u533a\u5730\u8cea\u8abf\u67fb\u696d\u52d9","client_name":"\u5efa\u8a2d\u7701\u4e5d\u5dde\u5730\u65b9\u5efa\u8a2d\u5c40\u5ddd\u8fba\u5ddd\u5de5\u4e8b\u4e8b\u52d9\u6240","boring_xml_url":49,"boring_view_url":1,"soilmap_view_url":null,"soiltest_xml_url":0,"soiltest_view_url":0},{"id":209540,"code":"B4KJ201801009-7789","latitude":"32.365789","longitude":"130.835717","source_code":"QS20098985790200180248","project_name":"","survey_name":"\u4ed8\u66ff\u56fd\u9053\u5927\u5e73\u5730\u533a\u5730\u8cea\u8abf\u67fb\u696d\u52d9","client_name":"\u5efa\u8a2d\u7701\u4e5d\u5dde\u5730\u65b9\u5efa\u8a2d\u5c40\u5ddd\u8fba\u5ddd\u5de5\u4e8b\u4e8b\u52d9\u6240","boring_xml_url":49,"boring_view_url":1,"soilmap_view_url":null,"soiltest_xml_url":0,"soiltest_view_url":0},{"id":209539,"code":"B4KJ201801009-7788","latitude":"32.365236","longitude":"130.835981","source_code":"QS20098985790200180247","project_name":"","survey_name":"\u4ed8\u66ff\u56fd\u9053\u5927\u5e73\u5730\u533a\u5730\u8cea\u8abf\u67fb\u696d\u52d9","client_name":"\u5efa\u8a2d\u7701\u4e5d\u5dde\u5730\u65b9\u5efa\u8a2d\u5c40\u5ddd\u8fba\u5ddd\u5de5\u4e8b\u4e8b\u52d9\u6240","boring_xml_url":49,"boring_view_url":1,"soilmap_view_url":null,"soiltest_xml_url":0,"soiltest_view_url":0},{"id":209538,"code":"B4KJ201801009-7787","latitude":"32.365222","longitude":"130.836522","source_code":"QS20098985790200180246","project_name":"","survey_name":"\u4ed8\u66ff\u56fd\u9053\u5927\u5e73\u5730\u533a\u5730\u8cea\u8abf\u67fb\u696d\u52d9","client_name":"\u5efa\u8a2d\u7701\u4e5d\u5dde\u5730\u65b9\u5efa\u8a2d\u5c40\u5ddd\u8fba\u5ddd\u5de5\u4e8b\u4e8b\u52d9\u6240","boring_xml_url":49,"boring_view_url":1,"soilmap_view_url":null,"soiltest_xml_url":0,"soiltest_view_url":0},{"id":209537,"code":"B4KJ201801009-7786","latitude":"32.364864","longitude":"130.836997","source_code":"QS20098985790200180245","project_name":"","survey_name":"\u4ed8\u66ff\u56fd\u9053\u5927\u5e73\u5730\u533a\u5730\u8cea\u8abf\u67fb\u696d\u52d9","client_name":"\u5efa\u8a2d\u7701\u4e5d\u5dde\u5730\u65b9\u5efa\u8a2d\u5c40\u5ddd\u8fba\u5ddd\u5de5\u4e8b\u4e8b\u52d9\u6240","boring_xml_url":49,"boring_view_url":1,"soilmap_view_url":null,"soiltest_xml_url":0,"soiltest_view_url":0},{"id":209536,"code":"B4KJ201801009-7785","latitude":"32.364508","longitude":"130.837425","source_code":"QS20098985790200180244","project_name":"","survey_name":"\u4ed8\u66ff\u56fd\u9053\u5927\u5e73\u5730\u533a\u5730\u8cea\u8abf\u67fb\u696d\u52d9","client_name":"\u5efa\u8a2d\u7701\u4e5d\u5dde\u5730\u65b9\u5efa\u8a2d\u5c40\u5ddd\u8fba\u5ddd\u5de5\u4e8b\u4e8b\u52d9\u6240","boring_xml_url":49,"boring_view_url":1,"soilmap_view_url":null,"soiltest_xml_url":0,"soiltest_view_url":0},{"id":209535,"code":"B4KJ201801009-7784","latitude":"32.364078","longitude":"130.837378","source_code":"QS20098985790200180243","project_name":"","survey_name":"\u4ed8\u66ff\u56fd\u9053\u5927\u5e73\u5730\u533a\u5730\u8cea\u8abf\u67fb\u696d\u52d9","client_name":"\u5efa\u8a2d\u7701\u4e5d\u5dde\u5730\u65b9\u5efa\u8a2d\u5c40\u5ddd\u8fba\u5ddd\u5de5\u4e8b\u4e8b\u52d9\u6240","boring_xml_url":49,"boring_view_url":1,"soilmap_view_url":null,"soiltest_xml_url":0,"soiltest_view_url":0},{"id":209534,"code":"B4KJ201801009-7783","latitude":"32.363883","longitude":"130.8376","source_code":"QS20098985790200180242","project_name":"","survey_name":"\u4ed8\u66ff\u56fd\u9053\u5927\u5e73\u5730\u533a\u5730\u8cea\u8abf\u67fb\u696d\u52d9","client_name":"\u5efa\u8a2d\u7701\u4e5d\u5dde\u5730\u65b9\u5efa\u8a2d\u5c40\u5ddd\u8fba\u5ddd\u5de5\u4e8b\u4e8b\u52d9\u6240","boring_xml_url":49,"boring_view_url":1,"soilmap_view_url":null,"soiltest_xml_url":0,"soiltest_view_url":0},{"id":209533,"code":"B4KJ201801009-7782","latitude":"32.36395","longitude":"130.838006","source_code":"QS20098985790200180241","project_name":"","survey_name":"\u4ed8\u66ff\u56fd\u9053\u5927\u5e73\u5730\u533a\u5730\u8cea\u8abf\u67fb\u696d\u52d9","client_name":"\u5efa\u8a2d\u7701\u4e5d\u5dde\u5730\u65b9\u5efa\u8a2d\u5c40\u5ddd\u8fba\u5ddd\u5de5\u4e8b\u4e8b\u52d9\u6240","boring_xml_url":49,"boring_view_url":1,"soilmap_view_url":null,"soiltest_xml_url":0,"soiltest_view_url":0},{"id":209532,"code":"B4KJ201801009-7781","latitude":"32.363617","longitude":"130.838239","source_code":"QS20098985790200180240","project_name":"","survey_name":"\u4ed8\u66ff\u56fd\u9053\u91ce\u3005\u8107\u6a4b\u5730\u8cea\u8abf\u67fb\u696d\u52d9","client_name":"\u5efa\u8a2d\u7701\u4e5d\u5dde\u5730\u65b9\u5efa\u8a2d\u5c40\u5ddd\u8fba\u5ddd\u5de5\u4e8b\u4e8b\u52d9\u6240","boring_xml_url":49,"boring_view_url":1,"soilmap_view_url":null,"soiltest_xml_url":0,"soiltest_view_url":0},{"id":209531,"code":"B4KJ201801009-7780","latitude":"32.3635","longitude":"130.838036","source_code":"QS20098985790200180239","project_name":"","survey_name":"\u4ed8\u66ff\u56fd\u9053\u91ce\u3005\u8107\u6a4b\u5730\u8cea\u8abf\u67fb\u696d\u52d9","client_name":"\u5efa\u8a2d\u7701\u4e5d\u5dde\u5730\u65b9\u5efa\u8a2d\u5c40\u5ddd\u8fba\u5ddd\u5de5\u4e8b\u4e8b\u52d9\u6240","boring_xml_url":49,"boring_view_url":1,"soilmap_view_url":null,"soiltest_xml_url":0,"soiltest_view_url":0},{"id":209530,"code":"B4KJ201801009-7779","latitude":"32.362664","longitude":"130.841053","source_code":"QS20098985790200180238","project_name":"","survey_name":"\u4ed8\u66ff\u56fd\u9053\u91ce\u3005\u8107\u6a4b\u5730\u8cea\u8abf\u67fb\u696d\u52d9","client_name":"\u5efa\u8a2d\u7701\u4e5d\u5dde\u5730\u65b9\u5efa\u8a2d\u5c40\u5ddd\u8fba\u5ddd\u5de5\u4e8b\u4e8b\u52d9\u6240","boring_xml_url":49,"boring_view_url":1,"soilmap_view_url":null,"soiltest_xml_url":0,"soiltest_view_url":0},{"id":209529,"code":"B4KJ201801009-7778","latitude":"32.362422","longitude":"130.841008","source_code":"QS20098985790200180237","project_name":"","survey_name":"\u4ed8\u66ff\u56fd\u9053\u91ce\u3005\u8107\u6a4b\u5730\u8cea\u8abf\u67fb\u696d\u52d9","client_name":"\u5efa\u8a2d\u7701\u4e5d\u5dde\u5730\u65b9\u5efa\u8a2d\u5c40\u5ddd\u8fba\u5ddd\u5de5\u4e8b\u4e8b\u52d9\u6240","boring_xml_url":49,"boring_view_url":1,"soilmap_view_url":null,"soiltest_xml_url":0,"soiltest_view_url":0},{"id":209528,"code":"B4KJ201801009-7777","latitude":"32.363264","longitude":"130.838344","source_code":"QS20098985790200180236","project_name":"","survey_name":"\u4ed8\u66ff\u56fd\u9053\u91ce\u3005\u8107\u6a4b\u5730\u8cea\u8abf\u67fb\u696d\u52d9","client_name":"\u5efa\u8a2d\u7701\u4e5d\u5dde\u5730\u65b9\u5efa\u8a2d\u5c40\u5ddd\u8fba\u5ddd\u5de5\u4e8b\u4e8b\u52d9\u6240","boring_xml_url":49,"boring_view_url":1,"soilmap_view_url":null,"soiltest_xml_url":0,"soiltest_view_url":0},{"id":209527,"code":"B4KJ201801009-7776","latitude":"32.363431","longitude":"130.838447","source_code":"QS20098985790200180235","project_name":"","survey_name":"\u4ed8\u66ff\u56fd\u9053\u91ce\u3005\u8107\u6a4b\u5730\u8cea\u8abf\u67fb\u696d\u52d9","client_name":"\u5efa\u8a2d\u7701\u4e5d\u5dde\u5730\u65b9\u5efa\u8a2d\u5c40\u5ddd\u8fba\u5ddd\u5de5\u4e8b\u4e8b\u52d9\u6240","boring_xml_url":49,"boring_view_url":1,"soilmap_view_url":null,"soiltest_xml_url":0,"soiltest_view_url":0},{"id":209526,"code":"B4KJ201801009-7775","latitude":"32.363192","longitude":"130.839008","source_code":"QS20098985790200180234","project_name":"","survey_name":"\u4ed8\u66ff\u56fd\u9053\u91ce\u3005\u8107\u6a4b\u5730\u8cea\u8abf\u67fb\u696d\u52d9","client_name":"\u5efa\u8a2d\u7701\u4e5d\u5dde\u5730\u65b9\u5efa\u8a2d\u5c40\u5ddd\u8fba\u5ddd\u5de5\u4e8b\u4e8b\u52d9\u6240","boring_xml_url":49,"boring_view_url":1,"soilmap_view_url":null,"soiltest_xml_url":0,"soiltest_view_url":0},{"id":209525,"code":"B4KJ201801009-7774","latitude":"32.362983","longitude":"130.839053","source_code":"QS20098985790200180233","project_name":"","survey_name":"\u4ed8\u66ff\u56fd\u9053\u91ce\u3005\u8107\u6a4b\u5730\u8cea\u8abf\u67fb\u696d\u52d9","client_name":"\u5efa\u8a2d\u7701\u4e5d\u5dde\u5730\u65b9\u5efa\u8a2d\u5c40\u5ddd\u8fba\u5ddd\u5de5\u4e8b\u4e8b\u52d9\u6240","boring_xml_url":49,"boring_view_url":1,"soilmap_view_url":null,"soiltest_xml_url":0,"soiltest_view_url":0},{"id":209524,"code":"B4KJ201801009-7773","latitude":"32.362844","longitude":"130.839492","source_code":"QS20098985790200180232","project_name":"","survey_name":"\u4ed8\u66ff\u56fd\u9053\u91ce\u3005\u8107\u6a4b\u5730\u8cea\u8abf\u67fb\u696d\u52d9","client_name":"\u5efa\u8a2d\u7701\u4e5d\u5dde\u5730\u65b9\u5efa\u8a2d\u5c40\u5ddd\u8fba\u5ddd\u5de5\u4e8b\u4e8b\u52d9\u6240","boring_xml_url":49,"boring_view_url":1,"soilmap_view_url":null,"soiltest_xml_url":0,"soiltest_view_url":0},{"id":209523,"code":"B4KJ201801009-7772","latitude":"32.362992","longitude":"130.8397","source_code":"QS20098985790200180231","project_name":"","survey_name":"\u4ed8\u66ff\u56fd\u9053\u91ce\u3005\u8107\u6a4b\u5730\u8cea\u8abf\u67fb\u696d\u52d9","client_name":"\u5efa\u8a2d\u7701\u4e5d\u5dde\u5730\u65b9\u5efa\u8a2d\u5c40\u5ddd\u8fba\u5ddd\u5de5\u4e8b\u4e8b\u52d9\u6240","boring_xml_url":49,"boring_view_url":1,"soilmap_view_url":null,"soiltest_xml_url":0,"soiltest_view_url":0},{"id":209522,"code":"B4KJ201801009-7771","latitude":"32.362817","longitude":"130.840167","source_code":"QS20098985790200180230","project_name":"","survey_name":"\u4ed8\u66ff\u56fd\u9053\u91ce\u3005\u8107\u6a4b\u5730\u8cea\u8abf\u67fb\u696d\u52d9","client_name":"\u5efa\u8a2d\u7701\u4e5d\u5dde\u5730\u65b9\u5efa\u8a2d\u5c40\u5ddd\u8fba\u5ddd\u5de5\u4e8b\u4e8b\u52d9\u6240","boring_xml_url":49,"boring_view_url":1,"soilmap_view_url":null,"soiltest_xml_url":0,"soiltest_view_url":0},{"id":209521,"code":"B4KJ201801009-7770","latitude":"32.362647","longitude":"130.840103","source_code":"QS20098985790200180229","project_name":"","survey_name":"\u4ed8\u66ff\u56fd\u9053\u91ce\u3005\u8107\u6a4b\u5730\u8cea\u8abf\u67fb\u696d\u52d9","client_name":"\u5efa\u8a2d\u7701\u4e5d\u5dde\u5730\u65b9\u5efa\u8a2d\u5c40\u5ddd\u8fba\u5ddd\u5de5\u4e8b\u4e8b\u52d9\u6240","boring_xml_url":49,"boring_view_url":1,"soilmap_view_url":null,"soiltest_xml_url":0,"soiltest_view_url":0},{"id":209520,"code":"B4KJ201801009-7769","latitude":"32.363503","longitude":"130.841433","source_code":"QS20098985790200180228","project_name":"","survey_name":"\u91d1\u5ddd\u5730\u533a\u5730\u8cea\u8abf\u67fb\u696d\u52d9","client_name":"\u5efa\u8a2d\u7701\u4e5d\u5dde\u5730\u65b9\u5efa\u8a2d\u5c40\u5ddd\u8fba\u5ddd\u5de5\u4e8b\u4e8b\u52d9\u6240","boring_xml_url":49,"boring_view_url":1,"soilmap_view_url":null,"soiltest_xml_url":0,"soiltest_view_url":0},{"id":209519,"code":"B4KJ201801009-7768","latitude":"32.363661","longitude":"130.841369","source_code":"QS20098985790200180227","project_name":"","survey_name":"\u91d1\u5ddd\u5730\u533a\u5730\u8cea\u8abf\u67fb\u696d\u52d9","client_name":"\u5efa\u8a2d\u7701\u4e5d\u5dde\u5730\u65b9\u5efa\u8a2d\u5c40\u5ddd\u8fba\u5ddd\u5de5\u4e8b\u4e8b\u52d9\u6240","boring_xml_url":49,"boring_view_url":1,"soilmap_view_url":null,"soiltest_xml_url":0,"soiltest_view_url":0},{"id":209518,"code":"B4KJ201801009-7767","latitude":"32.363878","longitude":"130.841461","source_code":"QS20098985790200180226","project_name":"","survey_name":"\u91d1\u5ddd\u5730\u533a\u5730\u8cea\u8abf\u67fb\u696d\u52d9","client_name":"\u5efa\u8a2d\u7701\u4e5d\u5dde\u5730\u65b9\u5efa\u8a2d\u5c40\u5ddd\u8fba\u5ddd\u5de5\u4e8b\u4e8b\u52d9\u6240","boring_xml_url":49,"boring_view_url":1,"soilmap_view_url":null,"soiltest_xml_url":0,"soiltest_view_url":0},{"id":209517,"code":"B4KJ201801009-7766","latitude":"32.363825","longitude":"130.841617","source_code":"QS20098985790200180225","project_name":"","survey_name":"\u91d1\u5ddd\u5730\u533a\u5730\u8cea\u8abf\u67fb\u696d\u52d9","client_name":"\u5efa\u8a2d\u7701\u4e5d\u5dde\u5730\u65b9\u5efa\u8a2d\u5c40\u5ddd\u8fba\u5ddd\u5de5\u4e8b\u4e8b\u52d9\u6240","boring_xml_url":49,"boring_view_url":1,"soilmap_view_url":null,"soiltest_xml_url":0,"soiltest_view_url":0},{"id":209516,"code":"B4KJ201801009-7765","latitude":"32.364111","longitude":"130.841519","source_code":"QS20098985790200180224","project_name":"","survey_name":"\u91d1\u5ddd\u5730\u533a\u5730\u8cea\u8abf\u67fb\u696d\u52d9","client_name":"\u5efa\u8a2d\u7701\u4e5d\u5dde\u5730\u65b9\u5efa\u8a2d\u5c40\u5ddd\u8fba\u5ddd\u5de5\u4e8b\u4e8b\u52d9\u6240","boring_xml_url":49,"boring_view_url":1,"soilmap_view_url":null,"soiltest_xml_url":0,"soiltest_view_url":0}]}}