{"header":{"xyz":{"source":[],"mosaic":false},"page":3705,"raw":{"soiltest_result":"0","bbox":"57.598333,109.544722,1.933333,163.806111","page":"3705"},"conditions":{"soiltest_result":0,"north":57.598333,"west":109.544722,"south":1.933333,"east":163.806111},"success":true,"message":""},"data":{"meta":{"total":212844,"page":3705,"pages":7095,"count":30},"values":[{"id":209425,"code":"B4KJ201801009-7674","latitude":"32.318303","longitude":"130.843347","source_code":"QS20098985790200180133","project_name":"","survey_name":"\u5c0f\u702c\u6238\u6a4b\u5730\u8cea\u8abf\u67fb\u696d\u52d9","client_name":"\u5efa\u8a2d\u7701\u4e5d\u5dde\u5730\u65b9\u5efa\u8a2d\u5c40\u5ddd\u8fba\u5ddd\u5de5\u4e8b\u4e8b\u52d9\u6240","boring_xml_url":49,"boring_view_url":1,"soilmap_view_url":null,"soiltest_xml_url":0,"soiltest_view_url":0},{"id":209424,"code":"B4KJ201801009-7673","latitude":"32.318392","longitude":"130.843217","source_code":"QS20098985790200180132","project_name":"","survey_name":"\u5c0f\u702c\u6238\u6a4b\u5730\u8cea\u8abf\u67fb\u696d\u52d9","client_name":"\u5efa\u8a2d\u7701\u4e5d\u5dde\u5730\u65b9\u5efa\u8a2d\u5c40\u5ddd\u8fba\u5ddd\u5de5\u4e8b\u4e8b\u52d9\u6240","boring_xml_url":49,"boring_view_url":1,"soilmap_view_url":null,"soiltest_xml_url":0,"soiltest_view_url":0},{"id":209423,"code":"B4KJ201801009-7672","latitude":"32.318525","longitude":"130.843164","source_code":"QS20098985790200180131","project_name":"","survey_name":"\u5c0f\u702c\u6238\u6a4b\u5730\u8cea\u8abf\u67fb\u696d\u52d9","client_name":"\u5efa\u8a2d\u7701\u4e5d\u5dde\u5730\u65b9\u5efa\u8a2d\u5c40\u5ddd\u8fba\u5ddd\u5de5\u4e8b\u4e8b\u52d9\u6240","boring_xml_url":49,"boring_view_url":1,"soilmap_view_url":null,"soiltest_xml_url":0,"soiltest_view_url":0},{"id":209422,"code":"B4KJ201801009-7671","latitude":"32.318658","longitude":"130.843017","source_code":"QS20098985790200180130","project_name":"","survey_name":"\u5c0f\u702c\u6238\u6a4b\u5730\u8cea\u8abf\u67fb\u696d\u52d9","client_name":"\u5efa\u8a2d\u7701\u4e5d\u5dde\u5730\u65b9\u5efa\u8a2d\u5c40\u5ddd\u8fba\u5ddd\u5de5\u4e8b\u4e8b\u52d9\u6240","boring_xml_url":49,"boring_view_url":1,"soilmap_view_url":null,"soiltest_xml_url":0,"soiltest_view_url":0},{"id":209421,"code":"B4KJ201801009-7670","latitude":"32.320003","longitude":"130.844722","source_code":"QS20098985790200180129","project_name":"","survey_name":"\u8352\u702c\u6a4b\u5730\u8cea\u8abf\u67fb\u696d\u52d9","client_name":"\u5efa\u8a2d\u7701\u4e5d\u5dde\u5730\u65b9\u5efa\u8a2d\u5c40\u5ddd\u8fba\u5ddd\u5de5\u4e8b\u4e8b\u52d9\u6240","boring_xml_url":49,"boring_view_url":1,"soilmap_view_url":null,"soiltest_xml_url":0,"soiltest_view_url":0},{"id":209420,"code":"B4KJ201801009-7669","latitude":"32.319656","longitude":"130.844969","source_code":"QS20098985790200180128","project_name":"","survey_name":"\u8352\u702c\u6a4b\u5730\u8cea\u8abf\u67fb\u696d\u52d9","client_name":"\u5efa\u8a2d\u7701\u4e5d\u5dde\u5730\u65b9\u5efa\u8a2d\u5c40\u5ddd\u8fba\u5ddd\u5de5\u4e8b\u4e8b\u52d9\u6240","boring_xml_url":49,"boring_view_url":1,"soilmap_view_url":null,"soiltest_xml_url":0,"soiltest_view_url":0},{"id":209419,"code":"B4KJ201801009-7668","latitude":"32.319317","longitude":"130.845197","source_code":"QS20098985790200180127","project_name":"","survey_name":"\u8352\u702c\u6a4b\u5730\u8cea\u8abf\u67fb\u696d\u52d9","client_name":"\u5efa\u8a2d\u7701\u4e5d\u5dde\u5730\u65b9\u5efa\u8a2d\u5c40\u5ddd\u8fba\u5ddd\u5de5\u4e8b\u4e8b\u52d9\u6240","boring_xml_url":49,"boring_view_url":1,"soilmap_view_url":null,"soiltest_xml_url":0,"soiltest_view_url":0},{"id":209418,"code":"B4KJ201801009-7667","latitude":"32.319036","longitude":"130.845347","source_code":"QS20098985790200180126","project_name":"","survey_name":"\u8352\u702c\u6a4b\u5730\u8cea\u8abf\u67fb\u696d\u52d9","client_name":"\u5efa\u8a2d\u7701\u4e5d\u5dde\u5730\u65b9\u5efa\u8a2d\u5c40\u5ddd\u8fba\u5ddd\u5de5\u4e8b\u4e8b\u52d9\u6240","boring_xml_url":49,"boring_view_url":1,"soilmap_view_url":null,"soiltest_xml_url":0,"soiltest_view_url":0},{"id":209417,"code":"B4KJ201801009-7666","latitude":"32.339944","longitude":"130.842614","source_code":"QS20098985790200180125","project_name":"","survey_name":"\u85e4\u91ce\u6a4b\u5730\u8cea\u8abf\u67fb\u696d\u52d9","client_name":"\u5efa\u8a2d\u7701\u4e5d\u5dde\u5730\u65b9\u5efa\u8a2d\u5c40\u5ddd\u8fba\u5ddd\u5de5\u4e8b\u4e8b\u52d9\u6240","boring_xml_url":49,"boring_view_url":1,"soilmap_view_url":null,"soiltest_xml_url":0,"soiltest_view_url":0},{"id":209416,"code":"B4KJ201801009-7665","latitude":"32.340508","longitude":"130.842422","source_code":"QS20098985790200180124","project_name":"","survey_name":"\u85e4\u91ce\u6a4b\u5730\u8cea\u8abf\u67fb\u696d\u52d9","client_name":"\u5efa\u8a2d\u7701\u4e5d\u5dde\u5730\u65b9\u5efa\u8a2d\u5c40\u5ddd\u8fba\u5ddd\u5de5\u4e8b\u4e8b\u52d9\u6240","boring_xml_url":49,"boring_view_url":1,"soilmap_view_url":null,"soiltest_xml_url":0,"soiltest_view_url":0},{"id":209415,"code":"B4KJ201801009-7664","latitude":"32.340661","longitude":"130.842133","source_code":"QS20098985790200180123","project_name":"","survey_name":"\u85e4\u91ce\u6a4b\u5730\u8cea\u8abf\u67fb\u696d\u52d9","client_name":"\u5efa\u8a2d\u7701\u4e5d\u5dde\u5730\u65b9\u5efa\u8a2d\u5c40\u5ddd\u8fba\u5ddd\u5de5\u4e8b\u4e8b\u52d9\u6240","boring_xml_url":49,"boring_view_url":1,"soilmap_view_url":null,"soiltest_xml_url":0,"soiltest_view_url":0},{"id":209414,"code":"B4KJ201801009-7663","latitude":"32.3404","longitude":"130.842589","source_code":"QS20098985790200180122","project_name":"","survey_name":"\u85e4\u91ce\u6a4b\u5730\u8cea\u8abf\u67fb\u696d\u52d9","client_name":"\u5efa\u8a2d\u7701\u4e5d\u5dde\u5730\u65b9\u5efa\u8a2d\u5c40\u5ddd\u8fba\u5ddd\u5de5\u4e8b\u4e8b\u52d9\u6240","boring_xml_url":49,"boring_view_url":1,"soilmap_view_url":null,"soiltest_xml_url":0,"soiltest_view_url":0},{"id":209413,"code":"B4KJ201801009-7662","latitude":"32.340778","longitude":"130.841956","source_code":"QS20098985790200180121","project_name":"","survey_name":"\u85e4\u91ce\u6a4b\u5730\u8cea\u8abf\u67fb\u696d\u52d9","client_name":"\u5efa\u8a2d\u7701\u4e5d\u5dde\u5730\u65b9\u5efa\u8a2d\u5c40\u5ddd\u8fba\u5ddd\u5de5\u4e8b\u4e8b\u52d9\u6240","boring_xml_url":49,"boring_view_url":1,"soilmap_view_url":null,"soiltest_xml_url":0,"soiltest_view_url":0},{"id":209412,"code":"B4KJ201801009-7661","latitude":"32.337667","longitude":"130.8361","source_code":"QS20098985790200180120","project_name":"","survey_name":"\u5ddd\u8fba\u5ddd\u30c0\u30e0\u7344\u91ce\u5730\u533a\u5730\u8cea\u8abf\u67fb\u305d\u306e\u4ed6\u696d\u52d9","client_name":"\u5efa\u8a2d\u7701\u4e5d\u5dde\u5730\u65b9\u5efa\u8a2d\u5c40\u5ddd\u8fba\u5ddd\u5de5\u4e8b\u4e8b\u52d9\u6240","boring_xml_url":49,"boring_view_url":1,"soilmap_view_url":null,"soiltest_xml_url":0,"soiltest_view_url":0},{"id":209411,"code":"B4KJ201801009-7660","latitude":"32.337161","longitude":"130.838286","source_code":"QS20098985790200180119","project_name":"","survey_name":"\u5ddd\u8fba\u5ddd\u30c0\u30e0\u7344\u91ce\u5730\u533a\u5730\u8cea\u8abf\u67fb\u305d\u306e\u4ed6\u696d\u52d9","client_name":"\u5efa\u8a2d\u7701\u4e5d\u5dde\u5730\u65b9\u5efa\u8a2d\u5c40\u5ddd\u8fba\u5ddd\u5de5\u4e8b\u4e8b\u52d9\u6240","boring_xml_url":49,"boring_view_url":1,"soilmap_view_url":null,"soiltest_xml_url":0,"soiltest_view_url":0},{"id":209410,"code":"B4KJ201801009-7659","latitude":"32.337533","longitude":"130.838306","source_code":"QS20098985790200180118","project_name":"","survey_name":"\u5ddd\u8fba\u5ddd\u30c0\u30e0\u7344\u91ce\u5730\u533a\u5730\u8cea\u8abf\u67fb\u305d\u306e\u4ed6\u696d\u52d9","client_name":"\u5efa\u8a2d\u7701\u4e5d\u5dde\u5730\u65b9\u5efa\u8a2d\u5c40\u5ddd\u8fba\u5ddd\u5de5\u4e8b\u4e8b\u52d9\u6240","boring_xml_url":49,"boring_view_url":1,"soilmap_view_url":null,"soiltest_xml_url":0,"soiltest_view_url":0},{"id":209409,"code":"B4KJ201801009-7658","latitude":"32.337731","longitude":"130.836817","source_code":"QS20098985790200180117","project_name":"","survey_name":"\u5ddd\u8fba\u5ddd\u30c0\u30e0\u7344\u91ce\u5730\u533a\u5730\u8cea\u8abf\u67fb\u305d\u306e\u4ed6\u696d\u52d9","client_name":"\u5efa\u8a2d\u7701\u4e5d\u5dde\u5730\u65b9\u5efa\u8a2d\u5c40\u5ddd\u8fba\u5ddd\u5de5\u4e8b\u4e8b\u52d9\u6240","boring_xml_url":49,"boring_view_url":1,"soilmap_view_url":null,"soiltest_xml_url":0,"soiltest_view_url":0},{"id":209408,"code":"B4KJ201801009-7657","latitude":"32.337764","longitude":"130.83745","source_code":"QS20098985790200180116","project_name":"","survey_name":"\u5ddd\u8fba\u5ddd\u30c0\u30e0\u7344\u91ce\u5730\u533a\u5730\u8cea\u8abf\u67fb\u305d\u306e\u4ed6\u696d\u52d9","client_name":"\u5efa\u8a2d\u7701\u4e5d\u5dde\u5730\u65b9\u5efa\u8a2d\u5c40\u5ddd\u8fba\u5ddd\u5de5\u4e8b\u4e8b\u52d9\u6240","boring_xml_url":49,"boring_view_url":1,"soilmap_view_url":null,"soiltest_xml_url":0,"soiltest_view_url":0},{"id":209407,"code":"B4KJ201801009-7656","latitude":"32.337856","longitude":"130.837881","source_code":"QS20098985790200180115","project_name":"","survey_name":"\u5ddd\u8fba\u5ddd\u30c0\u30e0\u7344\u91ce\u5730\u533a\u5730\u8cea\u8abf\u67fb\u305d\u306e\u4ed6\u696d\u52d9","client_name":"\u5efa\u8a2d\u7701\u4e5d\u5dde\u5730\u65b9\u5efa\u8a2d\u5c40\u5ddd\u8fba\u5ddd\u5de5\u4e8b\u4e8b\u52d9\u6240","boring_xml_url":49,"boring_view_url":1,"soilmap_view_url":null,"soiltest_xml_url":0,"soiltest_view_url":0},{"id":209406,"code":"B4KJ201801009-7655","latitude":"32.337914","longitude":"130.838253","source_code":"QS20098985790200180114","project_name":"","survey_name":"\u5ddd\u8fba\u5ddd\u30c0\u30e0\u7344\u91ce\u5730\u533a\u5730\u8cea\u8abf\u67fb\u305d\u306e\u4ed6\u696d\u52d9","client_name":"\u5efa\u8a2d\u7701\u4e5d\u5dde\u5730\u65b9\u5efa\u8a2d\u5c40\u5ddd\u8fba\u5ddd\u5de5\u4e8b\u4e8b\u52d9\u6240","boring_xml_url":49,"boring_view_url":1,"soilmap_view_url":null,"soiltest_xml_url":0,"soiltest_view_url":0},{"id":209405,"code":"B4KJ201801009-7654","latitude":"32.337956","longitude":"130.838631","source_code":"QS20098985790200180113","project_name":"","survey_name":"\u5ddd\u8fba\u5ddd\u30c0\u30e0\u7344\u91ce\u5730\u533a\u5730\u8cea\u8abf\u67fb\u305d\u306e\u4ed6\u696d\u52d9","client_name":"\u5efa\u8a2d\u7701\u4e5d\u5dde\u5730\u65b9\u5efa\u8a2d\u5c40\u5ddd\u8fba\u5ddd\u5de5\u4e8b\u4e8b\u52d9\u6240","boring_xml_url":49,"boring_view_url":1,"soilmap_view_url":null,"soiltest_xml_url":0,"soiltest_view_url":0},{"id":209404,"code":"B4KJ201801009-7653","latitude":"32.341592","longitude":"130.847936","source_code":"QS20098985790200180112","project_name":"","survey_name":"\u5ddd\u8fba\u5ddd\u30c0\u30e0\u85e4\u7530\u6a4b\u5730\u8cea\u8abf\u67fb\u696d\u52d9","client_name":"\u5efa\u8a2d\u7701\u4e5d\u5dde\u5730\u65b9\u5efa\u8a2d\u5c40\u5ddd\u8fba\u5ddd\u5de5\u4e8b\u4e8b\u52d9\u6240","boring_xml_url":49,"boring_view_url":1,"soilmap_view_url":null,"soiltest_xml_url":0,"soiltest_view_url":0},{"id":209403,"code":"B4KJ201801009-7652","latitude":"32.341292","longitude":"130.847828","source_code":"QS20098985790200180111","project_name":"","survey_name":"\u5ddd\u8fba\u5ddd\u30c0\u30e0\u85e4\u7530\u6a4b\u5730\u8cea\u8abf\u67fb\u696d\u52d9","client_name":"\u5efa\u8a2d\u7701\u4e5d\u5dde\u5730\u65b9\u5efa\u8a2d\u5c40\u5ddd\u8fba\u5ddd\u5de5\u4e8b\u4e8b\u52d9\u6240","boring_xml_url":49,"boring_view_url":1,"soilmap_view_url":null,"soiltest_xml_url":0,"soiltest_view_url":0},{"id":209402,"code":"B4KJ201801009-7651","latitude":"32.341797","longitude":"130.847881","source_code":"QS20098985790200180110","project_name":"","survey_name":"\u5ddd\u8fba\u5ddd\u30c0\u30e0\u85e4\u7530\u6a4b\u5730\u8cea\u8abf\u67fb\u696d\u52d9","client_name":"\u5efa\u8a2d\u7701\u4e5d\u5dde\u5730\u65b9\u5efa\u8a2d\u5c40\u5ddd\u8fba\u5ddd\u5de5\u4e8b\u4e8b\u52d9\u6240","boring_xml_url":49,"boring_view_url":1,"soilmap_view_url":null,"soiltest_xml_url":0,"soiltest_view_url":0},{"id":209401,"code":"B4KJ201801009-7650","latitude":"32.341247","longitude":"130.847697","source_code":"QS20098985790200180109","project_name":"","survey_name":"\u5ddd\u8fba\u5ddd\u30c0\u30e0\u85e4\u7530\u6a4b\u5730\u8cea\u8abf\u67fb\u696d\u52d9","client_name":"\u5efa\u8a2d\u7701\u4e5d\u5dde\u5730\u65b9\u5efa\u8a2d\u5c40\u5ddd\u8fba\u5ddd\u5de5\u4e8b\u4e8b\u52d9\u6240","boring_xml_url":49,"boring_view_url":1,"soilmap_view_url":null,"soiltest_xml_url":0,"soiltest_view_url":0},{"id":209400,"code":"B4KJ201801009-7649","latitude":"32.341194","longitude":"130.847789","source_code":"QS20098985790200180108","project_name":"","survey_name":"\u5ddd\u8fba\u5ddd\u30c0\u30e0\u85e4\u7530\u6a4b\u5730\u8cea\u8abf\u67fb\u696d\u52d9","client_name":"\u5efa\u8a2d\u7701\u4e5d\u5dde\u5730\u65b9\u5efa\u8a2d\u5c40\u5ddd\u8fba\u5ddd\u5de5\u4e8b\u4e8b\u52d9\u6240","boring_xml_url":49,"boring_view_url":1,"soilmap_view_url":null,"soiltest_xml_url":0,"soiltest_view_url":0},{"id":209399,"code":"B4KJ201801009-7648","latitude":"32.343364","longitude":"130.848906","source_code":"QS20098985790200180107","project_name":"","survey_name":"\u5ddd\u8fba\u5ddd\u30c0\u30e0\u85e4\u7530\u6a4b\u5730\u8cea\u8abf\u67fb\u696d\u52d9","client_name":"\u5efa\u8a2d\u7701\u4e5d\u5dde\u5730\u65b9\u5efa\u8a2d\u5c40\u5ddd\u8fba\u5ddd\u5de5\u4e8b\u4e8b\u52d9\u6240","boring_xml_url":49,"boring_view_url":1,"soilmap_view_url":null,"soiltest_xml_url":0,"soiltest_view_url":0},{"id":209398,"code":"B4KJ201801009-7647","latitude":"32.342772","longitude":"130.848453","source_code":"QS20098985790200180106","project_name":"","survey_name":"\u5ddd\u8fba\u5ddd\u30c0\u30e0\u85e4\u7530\u6a4b\u5730\u8cea\u8abf\u67fb\u696d\u52d9","client_name":"\u5efa\u8a2d\u7701\u4e5d\u5dde\u5730\u65b9\u5efa\u8a2d\u5c40\u5ddd\u8fba\u5ddd\u5de5\u4e8b\u4e8b\u52d9\u6240","boring_xml_url":49,"boring_view_url":1,"soilmap_view_url":null,"soiltest_xml_url":0,"soiltest_view_url":0},{"id":209397,"code":"B4KJ201801009-7646","latitude":"32.341411","longitude":"130.847886","source_code":"QS20098985790200180105","project_name":"","survey_name":"\u5ddd\u8fba\u5ddd\u30c0\u30e0\u85e4\u7530\u6a4b\u5730\u8cea\u8abf\u67fb\u696d\u52d9","client_name":"\u5efa\u8a2d\u7701\u4e5d\u5dde\u5730\u65b9\u5efa\u8a2d\u5c40\u5ddd\u8fba\u5ddd\u5de5\u4e8b\u4e8b\u52d9\u6240","boring_xml_url":49,"boring_view_url":1,"soilmap_view_url":null,"soiltest_xml_url":0,"soiltest_view_url":0},{"id":209396,"code":"B4KJ201801009-7645","latitude":"32.341411","longitude":"130.847886","source_code":"QS20098985790200180104","project_name":"","survey_name":"\u5ddd\u8fba\u5ddd\u30c0\u30e0\u85e4\u7530\u6a4b\u5730\u8cea\u8abf\u67fb\u696d\u52d9","client_name":"\u5efa\u8a2d\u7701\u4e5d\u5dde\u5730\u65b9\u5efa\u8a2d\u5c40\u5ddd\u8fba\u5ddd\u5de5\u4e8b\u4e8b\u52d9\u6240","boring_xml_url":49,"boring_view_url":1,"soilmap_view_url":null,"soiltest_xml_url":0,"soiltest_view_url":0}]}}