{"header":{"xyz":{"source":[],"mosaic":false},"page":3722,"raw":{"soiltest_result":"0","bbox":"57.598333,109.544722,1.933333,163.806111","page":"3722"},"conditions":{"soiltest_result":0,"north":57.598333,"west":109.544722,"south":1.933333,"east":163.806111},"success":true,"message":""},"data":{"meta":{"total":212844,"page":3722,"pages":7095,"count":30},"values":[{"id":208915,"code":"B4KJ201801009-7164","latitude":"33.64489","longitude":"130.81914","source_code":"QS20098985790200171087","project_name":"\u7cd2\u5830\u5730\u8cea\u8abf\u67fb\u696d\u52d9","survey_name":"\u7cd2\u5830\u5730\u8cea\u8abf\u67fb\u696d\u52d9","client_name":"\u5efa\u8a2d\u7701\u4e5d\u5dde\u5730\u65b9\u5efa\u8a2d\u5c40\u9060\u8cc0\u5ddd\u5de5\u4e8b\u4e8b\u52d9\u6240","boring_xml_url":49,"boring_view_url":1,"soilmap_view_url":null,"soiltest_xml_url":0,"soiltest_view_url":0},{"id":208914,"code":"B4KJ201801009-7163","latitude":"33.64475","longitude":"130.81911","source_code":"QS20098985790200171086","project_name":"\u7cd2\u5830\u5730\u8cea\u8abf\u67fb\u696d\u52d9","survey_name":"\u7cd2\u5830\u5730\u8cea\u8abf\u67fb\u696d\u52d9","client_name":"\u5efa\u8a2d\u7701\u4e5d\u5dde\u5730\u65b9\u5efa\u8a2d\u5c40\u9060\u8cc0\u5ddd\u5de5\u4e8b\u4e8b\u52d9\u6240","boring_xml_url":49,"boring_view_url":1,"soilmap_view_url":null,"soiltest_xml_url":0,"soiltest_view_url":0},{"id":208913,"code":"B4KJ201801009-7162","latitude":"33.64447","longitude":"130.81906","source_code":"QS20098985790200171085","project_name":"\u7cd2\u5830\u5730\u8cea\u8abf\u67fb\u696d\u52d9","survey_name":"\u7cd2\u5830\u5730\u8cea\u8abf\u67fb\u696d\u52d9","client_name":"\u5efa\u8a2d\u7701\u4e5d\u5dde\u5730\u65b9\u5efa\u8a2d\u5c40\u9060\u8cc0\u5ddd\u5de5\u4e8b\u4e8b\u52d9\u6240","boring_xml_url":49,"boring_view_url":1,"soilmap_view_url":null,"soiltest_xml_url":0,"soiltest_view_url":0},{"id":208912,"code":"B4KJ201801009-7161","latitude":"33.64467","longitude":"130.81867","source_code":"QS20098985790200171084","project_name":"\u7cd2\u5830\u5730\u8cea\u8abf\u67fb\u696d\u52d9","survey_name":"\u7cd2\u5830\u5730\u8cea\u8abf\u67fb\u696d\u52d9","client_name":"\u5efa\u8a2d\u7701\u4e5d\u5dde\u5730\u65b9\u5efa\u8a2d\u5c40\u9060\u8cc0\u5ddd\u5de5\u4e8b\u4e8b\u52d9\u6240","boring_xml_url":49,"boring_view_url":1,"soilmap_view_url":null,"soiltest_xml_url":0,"soiltest_view_url":0},{"id":208911,"code":"B4KJ201801009-7160","latitude":"33.64461","longitude":"130.81908","source_code":"QS20098985790200171083","project_name":"\u7cd2\u5830\u5730\u8cea\u8abf\u67fb\u696d\u52d9","survey_name":"\u7cd2\u5830\u5730\u8cea\u8abf\u67fb\u696d\u52d9","client_name":"\u5efa\u8a2d\u7701\u4e5d\u5dde\u5730\u65b9\u5efa\u8a2d\u5c40\u9060\u8cc0\u5ddd\u5de5\u4e8b\u4e8b\u52d9\u6240","boring_xml_url":49,"boring_view_url":1,"soilmap_view_url":null,"soiltest_xml_url":0,"soiltest_view_url":0},{"id":208910,"code":"B4KJ201801009-7159","latitude":"33.64456","longitude":"130.81944","source_code":"QS20098985790200171082","project_name":"\u7cd2\u5830\u5730\u8cea\u8abf\u67fb\u696d\u52d9","survey_name":"\u7cd2\u5830\u5730\u8cea\u8abf\u67fb\u696d\u52d9","client_name":"\u5efa\u8a2d\u7701\u4e5d\u5dde\u5730\u65b9\u5efa\u8a2d\u5c40\u9060\u8cc0\u5ddd\u5de5\u4e8b\u4e8b\u52d9\u6240","boring_xml_url":49,"boring_view_url":1,"soilmap_view_url":null,"soiltest_xml_url":0,"soiltest_view_url":0},{"id":208909,"code":"B4KJ201801009-7158","latitude":"33.7255","longitude":"130.737","source_code":"QS20098985790200171081","project_name":"\u4e2d\u6cc9\u5730\u533a\u5730\u8cea\u8abf\u67fb\u696d\u52d9","survey_name":"\u4e2d\u6cc9\u5730\u533a\u5730\u8cea\u8abf\u67fb\u696d\u52d9","client_name":"\u5efa\u8a2d\u7701\u4e5d\u5dde\u5730\u65b9\u5efa\u8a2d\u5c40\u9060\u8cc0\u5ddd\u5de5\u4e8b\u4e8b\u52d9\u6240","boring_xml_url":49,"boring_view_url":1,"soilmap_view_url":null,"soiltest_xml_url":0,"soiltest_view_url":0},{"id":208908,"code":"B4KJ201801009-7157","latitude":"33.82125","longitude":"130.70303","source_code":"QS20098985790200171080","project_name":"\u7802\u5c71\u5730\u533a\u5730\u8cea\u8abf\u67fb\u696d\u52d9","survey_name":"\u7802\u5c71\u5730\u533a\u5730\u8cea\u8abf\u67fb\u696d\u52d9","client_name":"\u5efa\u8a2d\u7701\u4e5d\u5dde\u5730\u65b9\u5efa\u8a2d\u5c40\u9060\u8cc0\u5ddd\u5de5\u4e8b\u4e8b\u52d9\u6240","boring_xml_url":49,"boring_view_url":1,"soilmap_view_url":null,"soiltest_xml_url":0,"soiltest_view_url":0},{"id":208907,"code":"B4KJ201801009-7156","latitude":"33.82183","longitude":"130.70214","source_code":"QS20098985790200171079","project_name":"\u7802\u5c71\u5730\u533a\u5730\u8cea\u8abf\u67fb\u696d\u52d9","survey_name":"\u7802\u5c71\u5730\u533a\u5730\u8cea\u8abf\u67fb\u696d\u52d9","client_name":"\u5efa\u8a2d\u7701\u4e5d\u5dde\u5730\u65b9\u5efa\u8a2d\u5c40\u9060\u8cc0\u5ddd\u5de5\u4e8b\u4e8b\u52d9\u6240","boring_xml_url":49,"boring_view_url":1,"soilmap_view_url":null,"soiltest_xml_url":0,"soiltest_view_url":0},{"id":208906,"code":"B4KJ201801009-7155","latitude":"33.8225","longitude":"130.70128","source_code":"QS20098985790200171078","project_name":"\u7802\u5c71\u5730\u533a\u5730\u8cea\u8abf\u67fb\u696d\u52d9","survey_name":"\u7802\u5c71\u5730\u533a\u5730\u8cea\u8abf\u67fb\u696d\u52d9","client_name":"\u5efa\u8a2d\u7701\u4e5d\u5dde\u5730\u65b9\u5efa\u8a2d\u5c40\u9060\u8cc0\u5ddd\u5de5\u4e8b\u4e8b\u52d9\u6240","boring_xml_url":49,"boring_view_url":1,"soilmap_view_url":null,"soiltest_xml_url":0,"soiltest_view_url":0},{"id":208905,"code":"B4KJ201801009-7154","latitude":"33.82308","longitude":"130.70061","source_code":"QS20098985790200171077","project_name":"\u7802\u5c71\u5730\u533a\u5730\u8cea\u8abf\u67fb\u696d\u52d9","survey_name":"\u7802\u5c71\u5730\u533a\u5730\u8cea\u8abf\u67fb\u696d\u52d9","client_name":"\u5efa\u8a2d\u7701\u4e5d\u5dde\u5730\u65b9\u5efa\u8a2d\u5c40\u9060\u8cc0\u5ddd\u5de5\u4e8b\u4e8b\u52d9\u6240","boring_xml_url":49,"boring_view_url":1,"soilmap_view_url":null,"soiltest_xml_url":0,"soiltest_view_url":0},{"id":208904,"code":"B4KJ201801009-7153","latitude":"33.82378","longitude":"130.69986","source_code":"QS20098985790200171076","project_name":"\u7802\u5c71\u5730\u533a\u5730\u8cea\u8abf\u67fb\u696d\u52d9","survey_name":"\u7802\u5c71\u5730\u533a\u5730\u8cea\u8abf\u67fb\u696d\u52d9","client_name":"\u5efa\u8a2d\u7701\u4e5d\u5dde\u5730\u65b9\u5efa\u8a2d\u5c40\u9060\u8cc0\u5ddd\u5de5\u4e8b\u4e8b\u52d9\u6240","boring_xml_url":49,"boring_view_url":1,"soilmap_view_url":null,"soiltest_xml_url":0,"soiltest_view_url":0},{"id":208903,"code":"B4KJ201801009-7152","latitude":"33.8245","longitude":"130.69906","source_code":"QS20098985790200171075","project_name":"\u7802\u5c71\u5730\u533a\u5730\u8cea\u8abf\u67fb\u696d\u52d9","survey_name":"\u7802\u5c71\u5730\u533a\u5730\u8cea\u8abf\u67fb\u696d\u52d9","client_name":"\u5efa\u8a2d\u7701\u4e5d\u5dde\u5730\u65b9\u5efa\u8a2d\u5c40\u9060\u8cc0\u5ddd\u5de5\u4e8b\u4e8b\u52d9\u6240","boring_xml_url":49,"boring_view_url":1,"soilmap_view_url":null,"soiltest_xml_url":0,"soiltest_view_url":0},{"id":208902,"code":"B4KJ201801009-7151","latitude":"33.82522","longitude":"130.69825","source_code":"QS20098985790200171074","project_name":"\u7802\u5c71\u5730\u533a\u5730\u8cea\u8abf\u67fb\u696d\u52d9","survey_name":"\u7802\u5c71\u5730\u533a\u5730\u8cea\u8abf\u67fb\u696d\u52d9","client_name":"\u5efa\u8a2d\u7701\u4e5d\u5dde\u5730\u65b9\u5efa\u8a2d\u5c40\u9060\u8cc0\u5ddd\u5de5\u4e8b\u4e8b\u52d9\u6240","boring_xml_url":49,"boring_view_url":1,"soilmap_view_url":null,"soiltest_xml_url":0,"soiltest_view_url":0},{"id":208901,"code":"B4KJ201801009-7150","latitude":"33.82614","longitude":"130.69733","source_code":"QS20098985790200171073","project_name":"\u7802\u5c71\u5730\u533a\u5730\u8cea\u8abf\u67fb\u696d\u52d9","survey_name":"\u7802\u5c71\u5730\u533a\u5730\u8cea\u8abf\u67fb\u696d\u52d9","client_name":"\u5efa\u8a2d\u7701\u4e5d\u5dde\u5730\u65b9\u5efa\u8a2d\u5c40\u9060\u8cc0\u5ddd\u5de5\u4e8b\u4e8b\u52d9\u6240","boring_xml_url":49,"boring_view_url":1,"soilmap_view_url":null,"soiltest_xml_url":0,"soiltest_view_url":0},{"id":208900,"code":"B4KJ201801009-7149","latitude":"33.82692","longitude":"130.69658","source_code":"QS20098985790200171072","project_name":"\u7802\u5c71\u5730\u533a\u5730\u8cea\u8abf\u67fb\u696d\u52d9","survey_name":"\u7802\u5c71\u5730\u533a\u5730\u8cea\u8abf\u67fb\u696d\u52d9","client_name":"\u5efa\u8a2d\u7701\u4e5d\u5dde\u5730\u65b9\u5efa\u8a2d\u5c40\u9060\u8cc0\u5ddd\u5de5\u4e8b\u4e8b\u52d9\u6240","boring_xml_url":49,"boring_view_url":1,"soilmap_view_url":null,"soiltest_xml_url":0,"soiltest_view_url":0},{"id":208899,"code":"B4KJ201801009-7148","latitude":"33.88711","longitude":"130.68386","source_code":"QS20098985790200171071","project_name":"\u9be8\u702c\u6392\u6c34\u6a5f\u5834\u5b9f\u65bd\u8a2d\u8a08\u59161\u4ef6\u696d\u52d9","survey_name":"\u9be8\u702c\u6392\u6c34\u6a5f\u5834\u5b9f\u65bd\u8a2d\u8a08\u59161\u4ef6\u696d\u52d9","client_name":"\u5efa\u8a2d\u7701\u4e5d\u5dde\u5730\u65b9\u5efa\u8a2d\u5c40\u9060\u8cc0\u5ddd\u5de5\u4e8b\u4e8b\u52d9\u6240","boring_xml_url":49,"boring_view_url":1,"soilmap_view_url":null,"soiltest_xml_url":52,"soiltest_view_url":52},{"id":208898,"code":"B4KJ201801009-7147","latitude":"33.88647","longitude":"130.6845","source_code":"QS20098985790200171070","project_name":"\u9be8\u702c\u6392\u6c34\u6a5f\u5834\u5b9f\u65bd\u8a2d\u8a08\u59161\u4ef6\u696d\u52d9","survey_name":"\u9be8\u702c\u6392\u6c34\u6a5f\u5834\u5b9f\u65bd\u8a2d\u8a08\u59161\u4ef6\u696d\u52d9","client_name":"\u5efa\u8a2d\u7701\u4e5d\u5dde\u5730\u65b9\u5efa\u8a2d\u5c40\u9060\u8cc0\u5ddd\u5de5\u4e8b\u4e8b\u52d9\u6240","boring_xml_url":49,"boring_view_url":1,"soilmap_view_url":null,"soiltest_xml_url":0,"soiltest_view_url":0},{"id":208897,"code":"B4KJ201801009-7146","latitude":"33.88597","longitude":"130.68497","source_code":"QS20098985790200171069","project_name":"\u9be8\u702c\u6392\u6c34\u6a5f\u5834\u5b9f\u65bd\u8a2d\u8a08\u59161\u4ef6\u696d\u52d9","survey_name":"\u9be8\u702c\u6392\u6c34\u6a5f\u5834\u5b9f\u65bd\u8a2d\u8a08\u59161\u4ef6\u696d\u52d9","client_name":"\u5efa\u8a2d\u7701\u4e5d\u5dde\u5730\u65b9\u5efa\u8a2d\u5c40\u9060\u8cc0\u5ddd\u5de5\u4e8b\u4e8b\u52d9\u6240","boring_xml_url":49,"boring_view_url":1,"soilmap_view_url":null,"soiltest_xml_url":0,"soiltest_view_url":0},{"id":208896,"code":"B4KJ201801009-7145","latitude":"33.65325","longitude":"130.80653","source_code":"QS20098985790200171068","project_name":"\u4e38\u306e\u5185\u6a0b\u7ba1\u59162\u30f6\u6240\u5730\u8cea\u8abf\u67fb\u696d\u52d9","survey_name":"\u4e38\u306e\u5185\u6a0b\u7ba1\u59162\u30f6\u6240\u5730\u8cea\u8abf\u67fb\u696d\u52d9","client_name":"\u5efa\u8a2d\u7701\u4e5d\u5dde\u5730\u65b9\u5efa\u8a2d\u5c40\u9060\u8cc0\u5ddd\u5de5\u4e8b\u4e8b\u52d9\u6240","boring_xml_url":49,"boring_view_url":1,"soilmap_view_url":null,"soiltest_xml_url":0,"soiltest_view_url":0},{"id":208895,"code":"B4KJ201801009-7144","latitude":"33.65486","longitude":"130.80486","source_code":"QS20098985790200171067","project_name":"\u4e38\u306e\u5185\u6a0b\u7ba1\u59162\u30f6\u6240\u5730\u8cea\u8abf\u67fb\u696d\u52d9","survey_name":"\u4e38\u306e\u5185\u6a0b\u7ba1\u59162\u30f6\u6240\u5730\u8cea\u8abf\u67fb\u696d\u52d9","client_name":"\u5efa\u8a2d\u7701\u4e5d\u5dde\u5730\u65b9\u5efa\u8a2d\u5c40\u9060\u8cc0\u5ddd\u5de5\u4e8b\u4e8b\u52d9\u6240","boring_xml_url":49,"boring_view_url":1,"soilmap_view_url":null,"soiltest_xml_url":0,"soiltest_view_url":0},{"id":208894,"code":"B4KJ201801009-7143","latitude":"33.86764","longitude":"130.67719","source_code":"QS20098985790200171066","project_name":"\u4e38\u306e\u5185\u6a0b\u7ba1\u59162\u30f6\u6240\u5730\u8cea\u8abf\u67fb\u696d\u52d9","survey_name":"\u4e38\u306e\u5185\u6a0b\u7ba1\u59162\u30f6\u6240\u5730\u8cea\u8abf\u67fb\u696d\u52d9","client_name":"\u5efa\u8a2d\u7701\u4e5d\u5dde\u5730\u65b9\u5efa\u8a2d\u5c40\u9060\u8cc0\u5ddd\u5de5\u4e8b\u4e8b\u52d9\u6240","boring_xml_url":49,"boring_view_url":1,"soilmap_view_url":null,"soiltest_xml_url":0,"soiltest_view_url":0},{"id":208893,"code":"B4KJ201801009-7142","latitude":"33.63394","longitude":"130.79356","source_code":"QS20098985790200171064","project_name":"\u6625\u65e5\u5730\u533a\u5730\u8cea\u8abf\u67fb\u696d\u52d9","survey_name":"\u6625\u65e5\u5730\u533a\u5730\u8cea\u8abf\u67fb\u696d\u52d9","client_name":"\u5efa\u8a2d\u7701\u4e5d\u5dde\u5730\u65b9\u5efa\u8a2d\u5c40\u9060\u8cc0\u5ddd\u5de5\u4e8b\u4e8b\u52d9\u6240","boring_xml_url":49,"boring_view_url":1,"soilmap_view_url":null,"soiltest_xml_url":0,"soiltest_view_url":0},{"id":208892,"code":"B4KJ201801009-7141","latitude":"33.63447","longitude":"130.79361","source_code":"QS20098985790200171063","project_name":"\u6625\u65e5\u5730\u533a\u5730\u8cea\u8abf\u67fb\u696d\u52d9","survey_name":"\u6625\u65e5\u5730\u533a\u5730\u8cea\u8abf\u67fb\u696d\u52d9","client_name":"\u5efa\u8a2d\u7701\u4e5d\u5dde\u5730\u65b9\u5efa\u8a2d\u5c40\u9060\u8cc0\u5ddd\u5de5\u4e8b\u4e8b\u52d9\u6240","boring_xml_url":49,"boring_view_url":1,"soilmap_view_url":null,"soiltest_xml_url":0,"soiltest_view_url":0},{"id":208891,"code":"B4KJ201801009-7140","latitude":"33.63447","longitude":"130.79375","source_code":"QS20098985790200171062","project_name":"\u6625\u65e5\u5730\u533a\u5730\u8cea\u8abf\u67fb\u696d\u52d9","survey_name":"\u6625\u65e5\u5730\u533a\u5730\u8cea\u8abf\u67fb\u696d\u52d9","client_name":"\u5efa\u8a2d\u7701\u4e5d\u5dde\u5730\u65b9\u5efa\u8a2d\u5c40\u9060\u8cc0\u5ddd\u5de5\u4e8b\u4e8b\u52d9\u6240","boring_xml_url":49,"boring_view_url":1,"soilmap_view_url":null,"soiltest_xml_url":52,"soiltest_view_url":52},{"id":208890,"code":"B4KJ201801009-7139","latitude":"33.72386","longitude":"130.67161","source_code":"QS20098985790200171061","project_name":"\u7adc\u5fb3\u6a0b\u7ba1\u59161\u30f6\u6240\u5730\u8cea\u8abf\u67fb\u696d\u52d9","survey_name":"\u7adc\u5fb3\u6a0b\u7ba1\u59161\u30f6\u6240\u5730\u8cea\u8abf\u67fb\u696d\u52d9","client_name":"\u5efa\u8a2d\u7701\u4e5d\u5dde\u5730\u65b9\u5efa\u8a2d\u5c40\u9060\u8cc0\u5ddd\u5de5\u4e8b\u4e8b\u52d9\u6240","boring_xml_url":49,"boring_view_url":1,"soilmap_view_url":null,"soiltest_xml_url":0,"soiltest_view_url":0},{"id":208889,"code":"B4KJ201801009-7138","latitude":"33.72369","longitude":"130.67144","source_code":"QS20098985790200171060","project_name":"\u7adc\u5fb3\u6a0b\u7ba1\u59161\u30f6\u6240\u5730\u8cea\u8abf\u67fb\u696d\u52d9","survey_name":"\u7adc\u5fb3\u6a0b\u7ba1\u59161\u30f6\u6240\u5730\u8cea\u8abf\u67fb\u696d\u52d9","client_name":"\u5efa\u8a2d\u7701\u4e5d\u5dde\u5730\u65b9\u5efa\u8a2d\u5c40\u9060\u8cc0\u5ddd\u5de5\u4e8b\u4e8b\u52d9\u6240","boring_xml_url":49,"boring_view_url":1,"soilmap_view_url":null,"soiltest_xml_url":0,"soiltest_view_url":0},{"id":208888,"code":"B4KJ201801009-7137","latitude":"33.72761","longitude":"130.68883","source_code":"QS20098985790200171059","project_name":"\u7adc\u5fb3\u6a0b\u7ba1\u59161\u30f6\u6240\u5730\u8cea\u8abf\u67fb\u696d\u52d9","survey_name":"\u7adc\u5fb3\u6a0b\u7ba1\u59161\u30f6\u6240\u5730\u8cea\u8abf\u67fb\u696d\u52d9","client_name":"\u5efa\u8a2d\u7701\u4e5d\u5dde\u5730\u65b9\u5efa\u8a2d\u5c40\u9060\u8cc0\u5ddd\u5de5\u4e8b\u4e8b\u52d9\u6240","boring_xml_url":49,"boring_view_url":1,"soilmap_view_url":null,"soiltest_xml_url":0,"soiltest_view_url":0},{"id":208887,"code":"B4KJ201801009-7136","latitude":"33.72775","longitude":"130.68867","source_code":"QS20098985790200171058","project_name":"\u7adc\u5fb3\u6a0b\u7ba1\u59161\u30f6\u6240\u5730\u8cea\u8abf\u67fb\u696d\u52d9","survey_name":"\u7adc\u5fb3\u6a0b\u7ba1\u59161\u30f6\u6240\u5730\u8cea\u8abf\u67fb\u696d\u52d9","client_name":"\u5efa\u8a2d\u7701\u4e5d\u5dde\u5730\u65b9\u5efa\u8a2d\u5c40\u9060\u8cc0\u5ddd\u5de5\u4e8b\u4e8b\u52d9\u6240","boring_xml_url":49,"boring_view_url":1,"soilmap_view_url":null,"soiltest_xml_url":0,"soiltest_view_url":0},{"id":208886,"code":"B4KJ201801009-7135","latitude":"33.64286","longitude":"130.6925","source_code":"QS20098985790200171057","project_name":"\u7acb\u77f3\u7b2c3\u6a0b\u7ba1\u59164\u30f6\u6240\u5730\u8cea\u8abf\u67fb\u696d\u52d9","survey_name":"\u7acb\u77f3\u7b2c3\u6a0b\u7ba1\u59164\u30f6\u6240\u5730\u8cea\u8abf\u67fb\u696d\u52d9","client_name":"\u5efa\u8a2d\u7701\u4e5d\u5dde\u5730\u65b9\u5efa\u8a2d\u5c40\u9060\u8cc0\u5ddd\u5de5\u4e8b\u4e8b\u52d9\u6240","boring_xml_url":49,"boring_view_url":1,"soilmap_view_url":null,"soiltest_xml_url":0,"soiltest_view_url":0}]}}