{"header":{"xyz":{"source":[],"mosaic":false},"page":3730,"raw":{"soiltest_result":"0","bbox":"57.598333,109.544722,1.933333,163.806111","page":"3730"},"conditions":{"soiltest_result":0,"north":57.598333,"west":109.544722,"south":1.933333,"east":163.806111},"success":true,"message":""},"data":{"meta":{"total":212844,"page":3730,"pages":7095,"count":30},"values":[{"id":208675,"code":"B4KJ201801009-6924","latitude":"33.86764","longitude":"130.67706","source_code":"QS20098985790200170846","project_name":"\u732a\u718a\u53ca\u5cf6\u6d25\u5730\u533a\u5730\u8cea\u8abf\u67fb\u696d\u52d9(\u5cf6\u6d25\u5730\u533a)","survey_name":"\u732a\u718a\u53ca\u5cf6\u6d25\u5730\u533a\u5730\u8cea\u8abf\u67fb\u696d\u52d9","client_name":"\u5efa\u8a2d\u7701\u4e5d\u5dde\u5730\u65b9\u5efa\u8a2d\u5c40\u9060\u8cc0\u5ddd\u5de5\u4e8b\u4e8b\u52d9\u6240","boring_xml_url":49,"boring_view_url":1,"soilmap_view_url":null,"soiltest_xml_url":52,"soiltest_view_url":52},{"id":208674,"code":"B4KJ201801009-6923","latitude":"33.86847","longitude":"130.68114","source_code":"QS20098985790200170845","project_name":"\u732a\u718a\u53ca\u5cf6\u6d25\u5730\u533a\u5730\u8cea\u8abf\u67fb\u696d\u52d9(\u732a\u718a\u5730\u533a)","survey_name":"\u732a\u718a\u53ca\u5cf6\u6d25\u5730\u533a\u5730\u8cea\u8abf\u67fb\u696d\u52d9","client_name":"\u5efa\u8a2d\u7701\u4e5d\u5dde\u5730\u65b9\u5efa\u8a2d\u5c40\u9060\u8cc0\u5ddd\u5de5\u4e8b\u4e8b\u52d9\u6240","boring_xml_url":49,"boring_view_url":1,"soilmap_view_url":null,"soiltest_xml_url":52,"soiltest_view_url":52},{"id":208673,"code":"B4KJ201801009-6922","latitude":"33.86967","longitude":"130.68106","source_code":"QS20098985790200170844","project_name":"\u732a\u718a\u53ca\u5cf6\u6d25\u5730\u533a\u5730\u8cea\u8abf\u67fb\u696d\u52d9(\u732a\u718a\u5730\u533a)","survey_name":"\u732a\u718a\u53ca\u5cf6\u6d25\u5730\u533a\u5730\u8cea\u8abf\u67fb\u696d\u52d9","client_name":"\u5efa\u8a2d\u7701\u4e5d\u5dde\u5730\u65b9\u5efa\u8a2d\u5c40\u9060\u8cc0\u5ddd\u5de5\u4e8b\u4e8b\u52d9\u6240","boring_xml_url":49,"boring_view_url":1,"soilmap_view_url":null,"soiltest_xml_url":52,"soiltest_view_url":52},{"id":208672,"code":"B4KJ201801009-6921","latitude":"33.87239","longitude":"130.68083","source_code":"QS20098985790200170843","project_name":"\u732a\u718a\u53ca\u5cf6\u6d25\u5730\u533a\u5730\u8cea\u8abf\u67fb\u696d\u52d9(\u732a\u718a\u5730\u533a)","survey_name":"\u732a\u718a\u53ca\u5cf6\u6d25\u5730\u533a\u5730\u8cea\u8abf\u67fb\u696d\u52d9","client_name":"\u5efa\u8a2d\u7701\u4e5d\u5dde\u5730\u65b9\u5efa\u8a2d\u5c40\u9060\u8cc0\u5ddd\u5de5\u4e8b\u4e8b\u52d9\u6240","boring_xml_url":49,"boring_view_url":1,"soilmap_view_url":null,"soiltest_xml_url":52,"soiltest_view_url":52},{"id":208671,"code":"B4KJ201801009-6920","latitude":"33.87339","longitude":"130.68078","source_code":"QS20098985790200170842","project_name":"\u732a\u718a\u53ca\u5cf6\u6d25\u5730\u533a\u5730\u8cea\u8abf\u67fb\u696d\u52d9(\u732a\u718a\u5730\u533a)","survey_name":"\u732a\u718a\u53ca\u5cf6\u6d25\u5730\u533a\u5730\u8cea\u8abf\u67fb\u696d\u52d9","client_name":"\u5efa\u8a2d\u7701\u4e5d\u5dde\u5730\u65b9\u5efa\u8a2d\u5c40\u9060\u8cc0\u5ddd\u5de5\u4e8b\u4e8b\u52d9\u6240","boring_xml_url":49,"boring_view_url":1,"soilmap_view_url":null,"soiltest_xml_url":52,"soiltest_view_url":52},{"id":208670,"code":"B4KJ201801009-6919","latitude":"33.81478","longitude":"130.707","source_code":"QS20098985790200170841","project_name":"\u4e2d\u9593\u53d6\u6c34\u65bd\u8a2d\u30f6\u6240\u59161\u4ef6\u5730\u8cea\u8abf\u67fb\u696d\u52d9","survey_name":"\u4e2d\u9593\u53d6\u6c34\u65bd\u8a2d\u30f6\u6240\u59161\u4ef6\u5730\u8cea\u8abf\u67fb\u696d\u52d9","client_name":"\u5efa\u8a2d\u7701\u4e5d\u5dde\u5730\u65b9\u5efa\u8a2d\u5c40\u9060\u8cc0\u5ddd\u5de5\u4e8b\u4e8b\u52d9\u6240","boring_xml_url":49,"boring_view_url":1,"soilmap_view_url":null,"soiltest_xml_url":0,"soiltest_view_url":0},{"id":208669,"code":"B4KJ201801009-6918","latitude":"33.81489","longitude":"130.70586","source_code":"QS20098985790200170840","project_name":"\u4e2d\u9593\u53d6\u6c34\u65bd\u8a2d\u30f6\u6240\u59161\u4ef6\u5730\u8cea\u8abf\u67fb\u696d\u52d9","survey_name":"\u4e2d\u9593\u53d6\u6c34\u65bd\u8a2d\u30f6\u6240\u59161\u4ef6\u5730\u8cea\u8abf\u67fb\u696d\u52d9","client_name":"\u5efa\u8a2d\u7701\u4e5d\u5dde\u5730\u65b9\u5efa\u8a2d\u5c40\u9060\u8cc0\u5ddd\u5de5\u4e8b\u4e8b\u52d9\u6240","boring_xml_url":49,"boring_view_url":1,"soilmap_view_url":null,"soiltest_xml_url":0,"soiltest_view_url":0},{"id":208668,"code":"B4KJ201801009-6917","latitude":"33.81486","longitude":"130.70692","source_code":"QS20098985790200170839","project_name":"\u4e2d\u9593\u53d6\u6c34\u65bd\u8a2d\u30f6\u6240\u59161\u4ef6\u5730\u8cea\u8abf\u67fb\u696d\u52d9","survey_name":"\u4e2d\u9593\u53d6\u6c34\u65bd\u8a2d\u30f6\u6240\u59161\u4ef6\u5730\u8cea\u8abf\u67fb\u696d\u52d9","client_name":"\u5efa\u8a2d\u7701\u4e5d\u5dde\u5730\u65b9\u5efa\u8a2d\u5c40\u9060\u8cc0\u5ddd\u5de5\u4e8b\u4e8b\u52d9\u6240","boring_xml_url":49,"boring_view_url":1,"soilmap_view_url":null,"soiltest_xml_url":0,"soiltest_view_url":0},{"id":208667,"code":"B4KJ201801009-6916","latitude":"33.81519","longitude":"130.70758","source_code":"QS20098985790200170838","project_name":"\u4e2d\u9593\u53d6\u6c34\u65bd\u8a2d\u30f6\u6240\u59161\u4ef6\u5730\u8cea\u8abf\u67fb\u696d\u52d9","survey_name":"\u4e2d\u9593\u53d6\u6c34\u65bd\u8a2d\u30f6\u6240\u59161\u4ef6\u5730\u8cea\u8abf\u67fb\u696d\u52d9","client_name":"\u5efa\u8a2d\u7701\u4e5d\u5dde\u5730\u65b9\u5efa\u8a2d\u5c40\u9060\u8cc0\u5ddd\u5de5\u4e8b\u4e8b\u52d9\u6240","boring_xml_url":49,"boring_view_url":1,"soilmap_view_url":null,"soiltest_xml_url":52,"soiltest_view_url":52},{"id":208666,"code":"B4KJ201801009-6915","latitude":"33.81517","longitude":"130.70808","source_code":"QS20098985790200170837","project_name":"\u4e2d\u9593\u53d6\u6c34\u65bd\u8a2d\u30f6\u6240\u59161\u4ef6\u5730\u8cea\u8abf\u67fb\u696d\u52d9","survey_name":"\u4e2d\u9593\u53d6\u6c34\u65bd\u8a2d\u30f6\u6240\u59161\u4ef6\u5730\u8cea\u8abf\u67fb\u696d\u52d9","client_name":"\u5efa\u8a2d\u7701\u4e5d\u5dde\u5730\u65b9\u5efa\u8a2d\u5c40\u9060\u8cc0\u5ddd\u5de5\u4e8b\u4e8b\u52d9\u6240","boring_xml_url":49,"boring_view_url":1,"soilmap_view_url":null,"soiltest_xml_url":0,"soiltest_view_url":0},{"id":208665,"code":"B4KJ201801009-6914","latitude":"33.8292","longitude":"130.6947","source_code":"QS20098985790200170836","project_name":"\u4e2d\u9593\u53d6\u6c34\u65bd\u8a2d\u30f6\u6240\u59161\u4ef6\u5730\u8cea\u8abf\u67fb\u696d\u52d9","survey_name":"\u4e2d\u9593\u53d6\u6c34\u65bd\u8a2d\u30f6\u6240\u59161\u4ef6\u5730\u8cea\u8abf\u67fb\u696d\u52d9","client_name":"\u5efa\u8a2d\u7701\u4e5d\u5dde\u5730\u65b9\u5efa\u8a2d\u5c40\u9060\u8cc0\u5ddd\u5de5\u4e8b\u4e8b\u52d9\u6240","boring_xml_url":49,"boring_view_url":1,"soilmap_view_url":null,"soiltest_xml_url":0,"soiltest_view_url":0},{"id":208664,"code":"B4KJ201801009-6913","latitude":"33.82997","longitude":"130.69592","source_code":"QS20098985790200170835","project_name":"\u4e2d\u9593\u53d6\u6c34\u65bd\u8a2d\u30f6\u6240\u59161\u4ef6\u5730\u8cea\u8abf\u67fb\u696d\u52d9","survey_name":"\u4e2d\u9593\u53d6\u6c34\u65bd\u8a2d\u30f6\u6240\u59161\u4ef6\u5730\u8cea\u8abf\u67fb\u696d\u52d9","client_name":"\u5efa\u8a2d\u7701\u4e5d\u5dde\u5730\u65b9\u5efa\u8a2d\u5c40\u9060\u8cc0\u5ddd\u5de5\u4e8b\u4e8b\u52d9\u6240","boring_xml_url":49,"boring_view_url":1,"soilmap_view_url":null,"soiltest_xml_url":0,"soiltest_view_url":0},{"id":208663,"code":"B4KJ201801009-6912","latitude":"33.82956","longitude":"130.69436","source_code":"QS20098985790200170834","project_name":"\u4e2d\u9593\u53d6\u6c34\u65bd\u8a2d\u30f6\u6240\u59161\u4ef6\u5730\u8cea\u8abf\u67fb\u696d\u52d9","survey_name":"\u4e2d\u9593\u53d6\u6c34\u65bd\u8a2d\u30f6\u6240\u59161\u4ef6\u5730\u8cea\u8abf\u67fb\u696d\u52d9","client_name":"\u5efa\u8a2d\u7701\u4e5d\u5dde\u5730\u65b9\u5efa\u8a2d\u5c40\u9060\u8cc0\u5ddd\u5de5\u4e8b\u4e8b\u52d9\u6240","boring_xml_url":49,"boring_view_url":1,"soilmap_view_url":null,"soiltest_xml_url":0,"soiltest_view_url":0},{"id":208662,"code":"B4KJ201801009-6911","latitude":"33.83033","longitude":"130.69553","source_code":"QS20098985790200170833","project_name":"\u4e2d\u9593\u53d6\u6c34\u65bd\u8a2d\u30f6\u6240\u59161\u4ef6\u5730\u8cea\u8abf\u67fb\u696d\u52d9","survey_name":"\u4e2d\u9593\u53d6\u6c34\u65bd\u8a2d\u30f6\u6240\u59161\u4ef6\u5730\u8cea\u8abf\u67fb\u696d\u52d9","client_name":"\u5efa\u8a2d\u7701\u4e5d\u5dde\u5730\u65b9\u5efa\u8a2d\u5c40\u9060\u8cc0\u5ddd\u5de5\u4e8b\u4e8b\u52d9\u6240","boring_xml_url":49,"boring_view_url":1,"soilmap_view_url":null,"soiltest_xml_url":0,"soiltest_view_url":0},{"id":208661,"code":"B4KJ201801009-6910","latitude":"33.83097","longitude":"130.69639","source_code":"QS20098985790200170832","project_name":"\u4e2d\u9593\u53d6\u6c34\u65bd\u8a2d\u30f6\u6240\u59161\u4ef6\u5730\u8cea\u8abf\u67fb\u696d\u52d9","survey_name":"\u4e2d\u9593\u53d6\u6c34\u65bd\u8a2d\u30f6\u6240\u59161\u4ef6\u5730\u8cea\u8abf\u67fb\u696d\u52d9","client_name":"\u5efa\u8a2d\u7701\u4e5d\u5dde\u5730\u65b9\u5efa\u8a2d\u5c40\u9060\u8cc0\u5ddd\u5de5\u4e8b\u4e8b\u52d9\u6240","boring_xml_url":49,"boring_view_url":1,"soilmap_view_url":null,"soiltest_xml_url":0,"soiltest_view_url":0},{"id":208660,"code":"B4KJ201801009-6909","latitude":"33.56192","longitude":"130.85475","source_code":"QS20098985790200170831","project_name":"\u672c\u6751\u5730\u533a\u59161\u4ef6\u5730\u8cea\u8abf\u67fb\u696d\u52d9","survey_name":"\u672c\u6751\u5730\u533a\u59161\u4ef6\u5730\u8cea\u8abf\u67fb\u696d\u52d9","client_name":"\u5efa\u8a2d\u7701\u4e5d\u5dde\u5730\u65b9\u5efa\u8a2d\u5c40\u9060\u8cc0\u5ddd\u5de5\u4e8b\u4e8b\u52d9\u6240","boring_xml_url":49,"boring_view_url":1,"soilmap_view_url":null,"soiltest_xml_url":0,"soiltest_view_url":0},{"id":208659,"code":"B4KJ201801009-6908","latitude":"33.56192","longitude":"130.85475","source_code":"QS20098985790200170830","project_name":"\u672c\u6751\u5730\u533a\u59161\u4ef6\u5730\u8cea\u8abf\u67fb\u696d\u52d9","survey_name":"\u672c\u6751\u5730\u533a\u59161\u4ef6\u5730\u8cea\u8abf\u67fb\u696d\u52d9","client_name":"\u5efa\u8a2d\u7701\u4e5d\u5dde\u5730\u65b9\u5efa\u8a2d\u5c40\u9060\u8cc0\u5ddd\u5de5\u4e8b\u4e8b\u52d9\u6240","boring_xml_url":49,"boring_view_url":1,"soilmap_view_url":null,"soiltest_xml_url":0,"soiltest_view_url":0},{"id":208658,"code":"B4KJ201801009-6907","latitude":"33.53253","longitude":"130.86369","source_code":"QS20098985790200170829","project_name":"\u672c\u6751\u5730\u533a\u59161\u4ef6\u5730\u8cea\u8abf\u67fb\u696d\u52d9","survey_name":"\u672c\u6751\u5730\u533a\u59161\u4ef6\u5730\u8cea\u8abf\u67fb\u696d\u52d9","client_name":"\u5efa\u8a2d\u7701\u4e5d\u5dde\u5730\u65b9\u5efa\u8a2d\u5c40\u9060\u8cc0\u5ddd\u5de5\u4e8b\u4e8b\u52d9\u6240","boring_xml_url":49,"boring_view_url":1,"soilmap_view_url":null,"soiltest_xml_url":0,"soiltest_view_url":0},{"id":208657,"code":"B4KJ201801009-6906","latitude":"33.53256","longitude":"130.86367","source_code":"QS20098985790200170828","project_name":"\u672c\u6751\u5730\u533a\u59161\u4ef6\u5730\u8cea\u8abf\u67fb\u696d\u52d9","survey_name":"\u672c\u6751\u5730\u533a\u59161\u4ef6\u5730\u8cea\u8abf\u67fb\u696d\u52d9","client_name":"\u5efa\u8a2d\u7701\u4e5d\u5dde\u5730\u65b9\u5efa\u8a2d\u5c40\u9060\u8cc0\u5ddd\u5de5\u4e8b\u4e8b\u52d9\u6240","boring_xml_url":49,"boring_view_url":1,"soilmap_view_url":null,"soiltest_xml_url":0,"soiltest_view_url":0},{"id":208656,"code":"B4KJ201801009-6905","latitude":"33.88508","longitude":"130.68408","source_code":"QS20098985790200170827","project_name":"\u6c34\u4f4d\u89b3\u6e2c\u6240\u5730\u8cea\u8abf\u67fb\u696d\u52d9","survey_name":"\u6c34\u4f4d\u89b3\u6e2c\u6240\u5730\u8cea\u8abf\u67fb\u696d\u52d9","client_name":"\u5efa\u8a2d\u7701\u4e5d\u5dde\u5730\u65b9\u5efa\u8a2d\u5c40\u9060\u8cc0\u5ddd\u5de5\u4e8b\u4e8b\u52d9\u6240","boring_xml_url":49,"boring_view_url":1,"soilmap_view_url":null,"soiltest_xml_url":0,"soiltest_view_url":0},{"id":208655,"code":"B4KJ201801009-6904","latitude":"33.88681","longitude":"130.67881","source_code":"QS20098985790200170826","project_name":"\u6c34\u4f4d\u89b3\u6e2c\u6240\u5730\u8cea\u8abf\u67fb\u696d\u52d9","survey_name":"\u6c34\u4f4d\u89b3\u6e2c\u6240\u5730\u8cea\u8abf\u67fb\u696d\u52d9","client_name":"\u5efa\u8a2d\u7701\u4e5d\u5dde\u5730\u65b9\u5efa\u8a2d\u5c40\u9060\u8cc0\u5ddd\u5de5\u4e8b\u4e8b\u52d9\u6240","boring_xml_url":49,"boring_view_url":1,"soilmap_view_url":null,"soiltest_xml_url":0,"soiltest_view_url":0},{"id":208654,"code":"B4KJ201801009-6903","latitude":"33.88686","longitude":"130.67908","source_code":"QS20098985790200170825","project_name":"\u6c34\u4f4d\u89b3\u6e2c\u6240\u5730\u8cea\u8abf\u67fb\u696d\u52d9","survey_name":"\u6c34\u4f4d\u89b3\u6e2c\u6240\u5730\u8cea\u8abf\u67fb\u696d\u52d9","client_name":"\u5efa\u8a2d\u7701\u4e5d\u5dde\u5730\u65b9\u5efa\u8a2d\u5c40\u9060\u8cc0\u5ddd\u5de5\u4e8b\u4e8b\u52d9\u6240","boring_xml_url":49,"boring_view_url":1,"soilmap_view_url":null,"soiltest_xml_url":0,"soiltest_view_url":0},{"id":208653,"code":"B4KJ201801009-6902","latitude":"33.89131","longitude":"130.67869","source_code":"QS20098985790200170824","project_name":"\u6c34\u4f4d\u89b3\u6e2c\u6240\u5730\u8cea\u8abf\u67fb\u696d\u52d9","survey_name":"\u6c34\u4f4d\u89b3\u6e2c\u6240\u5730\u8cea\u8abf\u67fb\u696d\u52d9","client_name":"\u5efa\u8a2d\u7701\u4e5d\u5dde\u5730\u65b9\u5efa\u8a2d\u5c40\u9060\u8cc0\u5ddd\u5de5\u4e8b\u4e8b\u52d9\u6240","boring_xml_url":49,"boring_view_url":1,"soilmap_view_url":null,"soiltest_xml_url":0,"soiltest_view_url":0},{"id":208652,"code":"B4KJ201801009-6901","latitude":"33.89131","longitude":"130.67903","source_code":"QS20098985790200170823","project_name":"\u6c34\u4f4d\u89b3\u6e2c\u6240\u5730\u8cea\u8abf\u67fb\u696d\u52d9","survey_name":"\u6c34\u4f4d\u89b3\u6e2c\u6240\u5730\u8cea\u8abf\u67fb\u696d\u52d9","client_name":"\u5efa\u8a2d\u7701\u4e5d\u5dde\u5730\u65b9\u5efa\u8a2d\u5c40\u9060\u8cc0\u5ddd\u5de5\u4e8b\u4e8b\u52d9\u6240","boring_xml_url":49,"boring_view_url":1,"soilmap_view_url":null,"soiltest_xml_url":0,"soiltest_view_url":0},{"id":208651,"code":"B4KJ201801009-6900","latitude":"33.89139","longitude":"130.67936","source_code":"QS20098985790200170822","project_name":"\u6c34\u4f4d\u89b3\u6e2c\u6240\u5730\u8cea\u8abf\u67fb\u696d\u52d9","survey_name":"\u6c34\u4f4d\u89b3\u6e2c\u6240\u5730\u8cea\u8abf\u67fb\u696d\u52d9","client_name":"\u5efa\u8a2d\u7701\u4e5d\u5dde\u5730\u65b9\u5efa\u8a2d\u5c40\u9060\u8cc0\u5ddd\u5de5\u4e8b\u4e8b\u52d9\u6240","boring_xml_url":49,"boring_view_url":1,"soilmap_view_url":null,"soiltest_xml_url":0,"soiltest_view_url":0},{"id":208650,"code":"B4KJ201801009-6899","latitude":"33.84536","longitude":"130.68272","source_code":"QS20098985790200170821","project_name":"\u5c71\u9e7f\u6392\u6c34\u6a5f\u5834\u57fa\u790e\u5730\u76e4\u691c\u8a0e\u59161\u4ef6\u696d\u52d9","survey_name":"\u5c71\u9e7f\u6392\u6c34\u6a5f\u5834\u57fa\u790e\u5730\u76e4\u691c\u8a0e\u59161\u4ef6\u696d\u52d9","client_name":"\u5efa\u8a2d\u7701\u4e5d\u5dde\u5730\u65b9\u5efa\u8a2d\u5c40\u9060\u8cc0\u5ddd\u5de5\u4e8b\u4e8b\u52d9\u6240","boring_xml_url":49,"boring_view_url":1,"soilmap_view_url":null,"soiltest_xml_url":52,"soiltest_view_url":52},{"id":208649,"code":"B4KJ201801009-6898","latitude":"33.84722","longitude":"130.68192","source_code":"QS20098985790200170820","project_name":"\u5c71\u9e7f\u6392\u6c34\u6a5f\u5834\u57fa\u790e\u5730\u76e4\u691c\u8a0e\u59161\u4ef6\u696d\u52d9","survey_name":"\u5c71\u9e7f\u6392\u6c34\u6a5f\u5834\u57fa\u790e\u5730\u76e4\u691c\u8a0e\u59161\u4ef6\u696d\u52d9","client_name":"\u5efa\u8a2d\u7701\u4e5d\u5dde\u5730\u65b9\u5efa\u8a2d\u5c40\u9060\u8cc0\u5ddd\u5de5\u4e8b\u4e8b\u52d9\u6240","boring_xml_url":49,"boring_view_url":1,"soilmap_view_url":null,"soiltest_xml_url":52,"soiltest_view_url":52},{"id":208648,"code":"B4KJ201801009-6897","latitude":"33.89653","longitude":"130.67247","source_code":"QS20098985790200170819","project_name":"\u5c71\u9e7f\u6392\u6c34\u6a5f\u5834\u57fa\u790e\u5730\u76e4\u691c\u8a0e\u59161\u4ef6\u696d\u52d9","survey_name":"\u5c71\u9e7f\u6392\u6c34\u6a5f\u5834\u57fa\u790e\u5730\u76e4\u691c\u8a0e\u59161\u4ef6\u696d\u52d9","client_name":"\u5efa\u8a2d\u7701\u4e5d\u5dde\u5730\u65b9\u5efa\u8a2d\u5c40\u9060\u8cc0\u5ddd\u5de5\u4e8b\u4e8b\u52d9\u6240","boring_xml_url":49,"boring_view_url":1,"soilmap_view_url":null,"soiltest_xml_url":0,"soiltest_view_url":0},{"id":208647,"code":"B4KJ201801009-6896","latitude":"33.89636","longitude":"130.67247","source_code":"QS20098985790200170818","project_name":"\u5c71\u9e7f\u6392\u6c34\u6a5f\u5834\u57fa\u790e\u5730\u76e4\u691c\u8a0e\u59161\u4ef6\u696d\u52d9","survey_name":"\u5c71\u9e7f\u6392\u6c34\u6a5f\u5834\u57fa\u790e\u5730\u76e4\u691c\u8a0e\u59161\u4ef6\u696d\u52d9","client_name":"\u5efa\u8a2d\u7701\u4e5d\u5dde\u5730\u65b9\u5efa\u8a2d\u5c40\u9060\u8cc0\u5ddd\u5de5\u4e8b\u4e8b\u52d9\u6240","boring_xml_url":49,"boring_view_url":1,"soilmap_view_url":null,"soiltest_xml_url":52,"soiltest_view_url":52},{"id":208646,"code":"B4KJ201801009-6895","latitude":"33.89636","longitude":"130.67225","source_code":"QS20098985790200170817","project_name":"\u5c71\u9e7f\u6392\u6c34\u6a5f\u5834\u57fa\u790e\u5730\u76e4\u691c\u8a0e\u59161\u4ef6\u696d\u52d9","survey_name":"\u5c71\u9e7f\u6392\u6c34\u6a5f\u5834\u57fa\u790e\u5730\u76e4\u691c\u8a0e\u59161\u4ef6\u696d\u52d9","client_name":"\u5efa\u8a2d\u7701\u4e5d\u5dde\u5730\u65b9\u5efa\u8a2d\u5c40\u9060\u8cc0\u5ddd\u5de5\u4e8b\u4e8b\u52d9\u6240","boring_xml_url":49,"boring_view_url":1,"soilmap_view_url":null,"soiltest_xml_url":52,"soiltest_view_url":52}]}}