{"header":{"xyz":{"source":[],"mosaic":false},"page":3746,"raw":{"soiltest_result":"0","bbox":"57.598333,109.544722,1.933333,163.806111","page":"3746"},"conditions":{"soiltest_result":0,"north":57.598333,"west":109.544722,"south":1.933333,"east":163.806111},"success":true,"message":""},"data":{"meta":{"total":212844,"page":3746,"pages":7095,"count":30},"values":[{"id":208195,"code":"B4KJ201801009-6444","latitude":"33.88697","longitude":"130.67875","source_code":"QS20098985790200170364","project_name":"\u9060\u8cc0\u5ddd\u6cb3\u53e3\u5830\u5730\u70b9\u5730\u8cea\u8abf\u67fb\u696d\u52d9","survey_name":"\u9060\u8cc0\u5ddd\u6cb3\u53e3\u5830\u5730\u70b9\u5730\u8cea\u8abf\u67fb\u696d\u52d9","client_name":"\u5efa\u8a2d\u7701\u4e5d\u5dde\u5730\u65b9\u5efa\u8a2d\u5c40\u9060\u8cc0\u5ddd\u5de5\u4e8b\u4e8b\u52d9\u6240","boring_xml_url":49,"boring_view_url":1,"soilmap_view_url":null,"soiltest_xml_url":52,"soiltest_view_url":52},{"id":208194,"code":"B4KJ201801009-6443","latitude":"33.88689","longitude":"130.677","source_code":"QS20098985790200170363","project_name":"\u9060\u8cc0\u5ddd\u6cb3\u53e3\u5830\u5730\u70b9\u5730\u8cea\u8abf\u67fb\u696d\u52d9","survey_name":"\u9060\u8cc0\u5ddd\u6cb3\u53e3\u5830\u5730\u70b9\u5730\u8cea\u8abf\u67fb\u696d\u52d9","client_name":"\u5efa\u8a2d\u7701\u4e5d\u5dde\u5730\u65b9\u5efa\u8a2d\u5c40\u9060\u8cc0\u5ddd\u5de5\u4e8b\u4e8b\u52d9\u6240","boring_xml_url":49,"boring_view_url":1,"soilmap_view_url":null,"soiltest_xml_url":52,"soiltest_view_url":52},{"id":208193,"code":"B4KJ201801009-6442","latitude":"33.88667","longitude":"130.67531","source_code":"QS20098985790200170362","project_name":"\u9060\u8cc0\u5ddd\u6cb3\u53e3\u5830\u5730\u70b9\u5730\u8cea\u8abf\u67fb\u696d\u52d9","survey_name":"\u9060\u8cc0\u5ddd\u6cb3\u53e3\u5830\u5730\u70b9\u5730\u8cea\u8abf\u67fb\u696d\u52d9","client_name":"\u5efa\u8a2d\u7701\u4e5d\u5dde\u5730\u65b9\u5efa\u8a2d\u5c40\u9060\u8cc0\u5ddd\u5de5\u4e8b\u4e8b\u52d9\u6240","boring_xml_url":49,"boring_view_url":1,"soilmap_view_url":null,"soiltest_xml_url":52,"soiltest_view_url":52},{"id":208192,"code":"B4KJ201801009-6441","latitude":"33.6233","longitude":"130.79","source_code":"QS20098985790200170361","project_name":"\u5ddd\u5d0e\u5730\u533a\u5730\u8cea\u8abf\u67fb\u696d\u52d9","survey_name":"\u5fa1\u5fb3\u30fb\u4e0a\u9ed2\u7530\u30fb\u897f\u533a\u5948\u826f\u30fb\u5ddd\u5d0e\u5730\u533a\u5730\u8cea\u8abf\u67fb\u696d\u52d9","client_name":"\u5efa\u8a2d\u7701\u4e5d\u5dde\u5730\u65b9\u5efa\u8a2d\u5c40\u9060\u8cc0\u5ddd\u5de5\u4e8b\u4e8b\u52d9\u6240","boring_xml_url":49,"boring_view_url":1,"soilmap_view_url":null,"soiltest_xml_url":0,"soiltest_view_url":0},{"id":208191,"code":"B4KJ201801009-6440","latitude":"33.6267","longitude":"130.7939","source_code":"QS20098985790200170360","project_name":"\u897f\u533a\u5948\u826f\u5730\u533a\u5730\u8cea\u8abf\u67fb\u696d\u52d9","survey_name":"\u5fa1\u5fb3\u30fb\u4e0a\u9ed2\u7530\u30fb\u897f\u533a\u5948\u826f\u30fb\u5ddd\u5d0e\u5730\u533a\u5730\u8cea\u8abf\u67fb\u696d\u52d9","client_name":"\u5efa\u8a2d\u7701\u4e5d\u5dde\u5730\u65b9\u5efa\u8a2d\u5c40\u9060\u8cc0\u5ddd\u5de5\u4e8b\u4e8b\u52d9\u6240","boring_xml_url":49,"boring_view_url":1,"soilmap_view_url":null,"soiltest_xml_url":0,"soiltest_view_url":0},{"id":208190,"code":"B4KJ201801009-6439","latitude":"33.6267","longitude":"130.7939","source_code":"QS20098985790200170359","project_name":"\u897f\u533a\u5948\u826f\u5730\u533a\u5730\u8cea\u8abf\u67fb\u696d\u52d9","survey_name":"\u5fa1\u5fb3\u30fb\u4e0a\u9ed2\u7530\u30fb\u897f\u533a\u5948\u826f\u30fb\u5ddd\u5d0e\u5730\u533a\u5730\u8cea\u8abf\u67fb\u696d\u52d9","client_name":"\u5efa\u8a2d\u7701\u4e5d\u5dde\u5730\u65b9\u5efa\u8a2d\u5c40\u9060\u8cc0\u5ddd\u5de5\u4e8b\u4e8b\u52d9\u6240","boring_xml_url":49,"boring_view_url":1,"soilmap_view_url":null,"soiltest_xml_url":0,"soiltest_view_url":0},{"id":208189,"code":"B4KJ201801009-6438","latitude":"33.58397","longitude":"130.71078","source_code":"QS20098985790200170358","project_name":"\u4e0a\u9ed2\u7530\u5730\u533a\u5730\u8cea\u8abf\u67fb\u696d\u52d9","survey_name":"\u5fa1\u5fb3\u30fb\u4e0a\u9ed2\u7530\u30fb\u897f\u533a\u5948\u826f\u30fb\u5ddd\u5d0e\u5730\u533a\u5730\u8cea\u8abf\u67fb\u696d\u52d9","client_name":"\u5efa\u8a2d\u7701\u4e5d\u5dde\u5730\u65b9\u5efa\u8a2d\u5c40\u9060\u8cc0\u5ddd\u5de5\u4e8b\u4e8b\u52d9\u6240","boring_xml_url":49,"boring_view_url":1,"soilmap_view_url":null,"soiltest_xml_url":0,"soiltest_view_url":0},{"id":208188,"code":"B4KJ201801009-6437","latitude":"33.584","longitude":"130.71064","source_code":"QS20098985790200170357","project_name":"\u4e0a\u9ed2\u7530\u5730\u533a\u5730\u8cea\u8abf\u67fb\u696d\u52d9","survey_name":"\u5fa1\u5fb3\u30fb\u4e0a\u9ed2\u7530\u30fb\u897f\u533a\u5948\u826f\u30fb\u5ddd\u5d0e\u5730\u533a\u5730\u8cea\u8abf\u67fb\u696d\u52d9","client_name":"\u5efa\u8a2d\u7701\u4e5d\u5dde\u5730\u65b9\u5efa\u8a2d\u5c40\u9060\u8cc0\u5ddd\u5de5\u4e8b\u4e8b\u52d9\u6240","boring_xml_url":49,"boring_view_url":1,"soilmap_view_url":null,"soiltest_xml_url":0,"soiltest_view_url":0},{"id":208187,"code":"B4KJ201801009-6436","latitude":"33.58406","longitude":"130.71053","source_code":"QS20098985790200170356","project_name":"\u4e0a\u9ed2\u7530\u5730\u533a\u5730\u8cea\u8abf\u67fb\u696d\u52d9","survey_name":"\u5fa1\u5fb3\u30fb\u4e0a\u9ed2\u7530\u30fb\u897f\u533a\u5948\u826f\u30fb\u5ddd\u5d0e\u5730\u533a\u5730\u8cea\u8abf\u67fb\u696d\u52d9","client_name":"\u5efa\u8a2d\u7701\u4e5d\u5dde\u5730\u65b9\u5efa\u8a2d\u5c40\u9060\u8cc0\u5ddd\u5de5\u4e8b\u4e8b\u52d9\u6240","boring_xml_url":49,"boring_view_url":1,"soilmap_view_url":null,"soiltest_xml_url":0,"soiltest_view_url":0},{"id":208186,"code":"B4KJ201801009-6435","latitude":"33.58406","longitude":"130.71036","source_code":"QS20098985790200170355","project_name":"\u4e0a\u9ed2\u7530\u5730\u533a\u5730\u8cea\u8abf\u67fb\u696d\u52d9","survey_name":"\u5fa1\u5fb3\u30fb\u4e0a\u9ed2\u7530\u30fb\u897f\u533a\u5948\u826f\u30fb\u5ddd\u5d0e\u5730\u533a\u5730\u8cea\u8abf\u67fb\u696d\u52d9","client_name":"\u5efa\u8a2d\u7701\u4e5d\u5dde\u5730\u65b9\u5efa\u8a2d\u5c40\u9060\u8cc0\u5ddd\u5de5\u4e8b\u4e8b\u52d9\u6240","boring_xml_url":49,"boring_view_url":1,"soilmap_view_url":null,"soiltest_xml_url":0,"soiltest_view_url":0},{"id":208185,"code":"B4KJ201801009-6434","latitude":"33.71092","longitude":"130.71053","source_code":"QS20098985790200170354","project_name":"\u5fa1\u5fb3\u5730\u533a\u5730\u8cea\u8abf\u67fb\u696d\u52d9","survey_name":"\u5fa1\u5fb3\u30fb\u4e0a\u9ed2\u7530\u30fb\u897f\u533a\u5948\u826f\u30fb\u5ddd\u5d0e\u5730\u533a\u5730\u8cea\u8abf\u67fb\u696d\u52d9","client_name":"\u5efa\u8a2d\u7701\u4e5d\u5dde\u5730\u65b9\u5efa\u8a2d\u5c40\u9060\u8cc0\u5ddd\u5de5\u4e8b\u4e8b\u52d9\u6240","boring_xml_url":49,"boring_view_url":1,"soilmap_view_url":null,"soiltest_xml_url":0,"soiltest_view_url":0},{"id":208184,"code":"B4KJ201801009-6433","latitude":"33.70867","longitude":"130.71036","source_code":"QS20098985790200170353","project_name":"\u5fa1\u5fb3\u5730\u533a\u5730\u8cea\u8abf\u67fb\u696d\u52d9","survey_name":"\u5fa1\u5fb3\u30fb\u4e0a\u9ed2\u7530\u30fb\u897f\u533a\u5948\u826f\u30fb\u5ddd\u5d0e\u5730\u533a\u5730\u8cea\u8abf\u67fb\u696d\u52d9","client_name":"\u5efa\u8a2d\u7701\u4e5d\u5dde\u5730\u65b9\u5efa\u8a2d\u5c40\u9060\u8cc0\u5ddd\u5de5\u4e8b\u4e8b\u52d9\u6240","boring_xml_url":49,"boring_view_url":1,"soilmap_view_url":null,"soiltest_xml_url":0,"soiltest_view_url":0},{"id":208183,"code":"B4KJ201801009-6432","latitude":"33.70819","longitude":"130.71003","source_code":"QS20098985790200170352","project_name":"\u5fa1\u5fb3\u5730\u533a\u5730\u8cea\u8abf\u67fb\u696d\u52d9","survey_name":"\u5fa1\u5fb3\u30fb\u4e0a\u9ed2\u7530\u30fb\u897f\u533a\u5948\u826f\u30fb\u5ddd\u5d0e\u5730\u533a\u5730\u8cea\u8abf\u67fb\u696d\u52d9","client_name":"\u5efa\u8a2d\u7701\u4e5d\u5dde\u5730\u65b9\u5efa\u8a2d\u5c40\u9060\u8cc0\u5ddd\u5de5\u4e8b\u4e8b\u52d9\u6240","boring_xml_url":49,"boring_view_url":1,"soilmap_view_url":null,"soiltest_xml_url":0,"soiltest_view_url":0},{"id":208182,"code":"B4KJ201801009-6431","latitude":"33.70781","longitude":"130.70964","source_code":"QS20098985790200170351","project_name":"\u5fa1\u5fb3\u5730\u533a\u5730\u8cea\u8abf\u67fb\u696d\u52d9","survey_name":"\u5fa1\u5fb3\u30fb\u4e0a\u9ed2\u7530\u30fb\u897f\u533a\u5948\u826f\u30fb\u5ddd\u5d0e\u5730\u533a\u5730\u8cea\u8abf\u67fb\u696d\u52d9","client_name":"\u5efa\u8a2d\u7701\u4e5d\u5dde\u5730\u65b9\u5efa\u8a2d\u5c40\u9060\u8cc0\u5ddd\u5de5\u4e8b\u4e8b\u52d9\u6240","boring_xml_url":49,"boring_view_url":1,"soilmap_view_url":null,"soiltest_xml_url":0,"soiltest_view_url":0},{"id":208181,"code":"B4KJ201801009-6430","latitude":"33.87825","longitude":"130.67503","source_code":"QS20098985790200170350","project_name":"\u9060\u8cc0\u5ddd\u6cb3\u53e3\u5830\u8abf\u67fb\u696d\u52d9\u305d\u306e2","survey_name":"\u9060\u8cc0\u5ddd\u6cb3\u53e3\u5830\u8abf\u67fb\u696d\u52d9\u305d\u306e2","client_name":"\u5efa\u8a2d\u7701\u4e5d\u5dde\u5730\u65b9\u5efa\u8a2d\u5c40\u9060\u8cc0\u5ddd\u5de5\u4e8b\u4e8b\u52d9\u6240","boring_xml_url":49,"boring_view_url":1,"soilmap_view_url":null,"soiltest_xml_url":0,"soiltest_view_url":0},{"id":208180,"code":"B4KJ201801009-6429","latitude":"33.87825","longitude":"130.67528","source_code":"QS20098985790200170349","project_name":"\u9060\u8cc0\u5ddd\u6cb3\u53e3\u5830\u8abf\u67fb\u696d\u52d9\u305d\u306e2","survey_name":"\u9060\u8cc0\u5ddd\u6cb3\u53e3\u5830\u8abf\u67fb\u696d\u52d9\u305d\u306e2","client_name":"\u5efa\u8a2d\u7701\u4e5d\u5dde\u5730\u65b9\u5efa\u8a2d\u5c40\u9060\u8cc0\u5ddd\u5de5\u4e8b\u4e8b\u52d9\u6240","boring_xml_url":49,"boring_view_url":1,"soilmap_view_url":null,"soiltest_xml_url":0,"soiltest_view_url":0},{"id":208179,"code":"B4KJ201801009-6428","latitude":"33.87831","longitude":"130.67531","source_code":"QS20098985790200170348","project_name":"\u9060\u8cc0\u5ddd\u6cb3\u53e3\u5830\u8abf\u67fb\u696d\u52d9\u305d\u306e2","survey_name":"\u9060\u8cc0\u5ddd\u6cb3\u53e3\u5830\u8abf\u67fb\u696d\u52d9\u305d\u306e2","client_name":"\u5efa\u8a2d\u7701\u4e5d\u5dde\u5730\u65b9\u5efa\u8a2d\u5c40\u9060\u8cc0\u5ddd\u5de5\u4e8b\u4e8b\u52d9\u6240","boring_xml_url":49,"boring_view_url":1,"soilmap_view_url":null,"soiltest_xml_url":52,"soiltest_view_url":52},{"id":208178,"code":"B4KJ201801009-6427","latitude":"33.87828","longitude":"130.67531","source_code":"QS20098985790200170347","project_name":"\u9060\u8cc0\u5ddd\u6cb3\u53e3\u5830\u8abf\u67fb\u696d\u52d9\u305d\u306e2","survey_name":"\u9060\u8cc0\u5ddd\u6cb3\u53e3\u5830\u8abf\u67fb\u696d\u52d9\u305d\u306e2","client_name":"\u5efa\u8a2d\u7701\u4e5d\u5dde\u5730\u65b9\u5efa\u8a2d\u5c40\u9060\u8cc0\u5ddd\u5de5\u4e8b\u4e8b\u52d9\u6240","boring_xml_url":49,"boring_view_url":1,"soilmap_view_url":null,"soiltest_xml_url":0,"soiltest_view_url":0},{"id":208177,"code":"B4KJ201801009-6426","latitude":"33.87825","longitude":"130.67533","source_code":"QS20098985790200170346","project_name":"\u9060\u8cc0\u5ddd\u6cb3\u53e3\u5830\u8abf\u67fb\u696d\u52d9\u305d\u306e2","survey_name":"\u9060\u8cc0\u5ddd\u6cb3\u53e3\u5830\u8abf\u67fb\u696d\u52d9\u305d\u306e2","client_name":"\u5efa\u8a2d\u7701\u4e5d\u5dde\u5730\u65b9\u5efa\u8a2d\u5c40\u9060\u8cc0\u5ddd\u5de5\u4e8b\u4e8b\u52d9\u6240","boring_xml_url":49,"boring_view_url":1,"soilmap_view_url":null,"soiltest_xml_url":52,"soiltest_view_url":52},{"id":208176,"code":"B4KJ201801009-6425","latitude":"33.87822","longitude":"130.67533","source_code":"QS20098985790200170345","project_name":"\u9060\u8cc0\u5ddd\u6cb3\u53e3\u5830\u8abf\u67fb\u696d\u52d9\u305d\u306e2","survey_name":"\u9060\u8cc0\u5ddd\u6cb3\u53e3\u5830\u8abf\u67fb\u696d\u52d9\u305d\u306e2","client_name":"\u5efa\u8a2d\u7701\u4e5d\u5dde\u5730\u65b9\u5efa\u8a2d\u5c40\u9060\u8cc0\u5ddd\u5de5\u4e8b\u4e8b\u52d9\u6240","boring_xml_url":49,"boring_view_url":1,"soilmap_view_url":null,"soiltest_xml_url":0,"soiltest_view_url":0},{"id":208175,"code":"B4KJ201801009-6424","latitude":"33.87819","longitude":"130.67533","source_code":"QS20098985790200170344","project_name":"\u9060\u8cc0\u5ddd\u6cb3\u53e3\u5830\u8abf\u67fb\u696d\u52d9\u305d\u306e2","survey_name":"\u9060\u8cc0\u5ddd\u6cb3\u53e3\u5830\u8abf\u67fb\u696d\u52d9\u305d\u306e2","client_name":"\u5efa\u8a2d\u7701\u4e5d\u5dde\u5730\u65b9\u5efa\u8a2d\u5c40\u9060\u8cc0\u5ddd\u5de5\u4e8b\u4e8b\u52d9\u6240","boring_xml_url":49,"boring_view_url":1,"soilmap_view_url":null,"soiltest_xml_url":0,"soiltest_view_url":0},{"id":208174,"code":"B4KJ201801009-6423","latitude":"33.87781","longitude":"130.67175","source_code":"QS20098985790200170343","project_name":"\u9060\u8cc0\u5ddd\u6cb3\u53e3\u5830\u8abf\u67fb\u696d\u52d9\u305d\u306e2","survey_name":"\u9060\u8cc0\u5ddd\u6cb3\u53e3\u5830\u8abf\u67fb\u696d\u52d9\u305d\u306e2","client_name":"\u5efa\u8a2d\u7701\u4e5d\u5dde\u5730\u65b9\u5efa\u8a2d\u5c40\u9060\u8cc0\u5ddd\u5de5\u4e8b\u4e8b\u52d9\u6240","boring_xml_url":49,"boring_view_url":1,"soilmap_view_url":null,"soiltest_xml_url":52,"soiltest_view_url":52},{"id":208173,"code":"B4KJ201801009-6422","latitude":"33.83703","longitude":"130.6905","source_code":"QS20098985790200170342","project_name":"\u9060\u8cc0\u5ddd\u6cb3\u53e3\u5830\u5824\u9632\u5730\u8cea\u8abf\u67fb\u696d\u52d9","survey_name":"\u9060\u8cc0\u5ddd\u6cb3\u53e3\u5830\u5824\u9632\u5730\u8cea\u8abf\u67fb\u696d\u52d9","client_name":"\u5efa\u8a2d\u7701\u4e5d\u5dde\u5730\u65b9\u5efa\u8a2d\u5c40\u9060\u8cc0\u5ddd\u5de5\u4e8b\u4e8b\u52d9\u6240","boring_xml_url":49,"boring_view_url":1,"soilmap_view_url":null,"soiltest_xml_url":52,"soiltest_view_url":52},{"id":208172,"code":"B4KJ201801009-6421","latitude":"33.83558","longitude":"130.6875","source_code":"QS20098985790200170341","project_name":"\u9060\u8cc0\u5ddd\u6cb3\u53e3\u5830\u5824\u9632\u5730\u8cea\u8abf\u67fb\u696d\u52d9","survey_name":"\u9060\u8cc0\u5ddd\u6cb3\u53e3\u5830\u5824\u9632\u5730\u8cea\u8abf\u67fb\u696d\u52d9","client_name":"\u5efa\u8a2d\u7701\u4e5d\u5dde\u5730\u65b9\u5efa\u8a2d\u5c40\u9060\u8cc0\u5ddd\u5de5\u4e8b\u4e8b\u52d9\u6240","boring_xml_url":49,"boring_view_url":1,"soilmap_view_url":null,"soiltest_xml_url":52,"soiltest_view_url":52},{"id":208171,"code":"B4KJ201801009-6420","latitude":"33.84481","longitude":"130.68653","source_code":"QS20098985790200170340","project_name":"\u9060\u8cc0\u5ddd\u6cb3\u53e3\u5830\u5824\u9632\u5730\u8cea\u8abf\u67fb\u696d\u52d9","survey_name":"\u9060\u8cc0\u5ddd\u6cb3\u53e3\u5830\u5824\u9632\u5730\u8cea\u8abf\u67fb\u696d\u52d9","client_name":"\u5efa\u8a2d\u7701\u4e5d\u5dde\u5730\u65b9\u5efa\u8a2d\u5c40\u9060\u8cc0\u5ddd\u5de5\u4e8b\u4e8b\u52d9\u6240","boring_xml_url":49,"boring_view_url":1,"soilmap_view_url":null,"soiltest_xml_url":52,"soiltest_view_url":52},{"id":208170,"code":"B4KJ201801009-6419","latitude":"33.84422","longitude":"130.68347","source_code":"QS20098985790200170339","project_name":"\u9060\u8cc0\u5ddd\u6cb3\u53e3\u5830\u5824\u9632\u5730\u8cea\u8abf\u67fb\u696d\u52d9","survey_name":"\u9060\u8cc0\u5ddd\u6cb3\u53e3\u5830\u5824\u9632\u5730\u8cea\u8abf\u67fb\u696d\u52d9","client_name":"\u5efa\u8a2d\u7701\u4e5d\u5dde\u5730\u65b9\u5efa\u8a2d\u5c40\u9060\u8cc0\u5ddd\u5de5\u4e8b\u4e8b\u52d9\u6240","boring_xml_url":49,"boring_view_url":1,"soilmap_view_url":null,"soiltest_xml_url":52,"soiltest_view_url":52},{"id":208169,"code":"B4KJ201801009-6418","latitude":"33.853","longitude":"130.68322","source_code":"QS20098985790200170338","project_name":"\u9060\u8cc0\u5ddd\u6cb3\u53e3\u5830\u5824\u9632\u5730\u8cea\u8abf\u67fb\u696d\u52d9","survey_name":"\u9060\u8cc0\u5ddd\u6cb3\u53e3\u5830\u5824\u9632\u5730\u8cea\u8abf\u67fb\u696d\u52d9","client_name":"\u5efa\u8a2d\u7701\u4e5d\u5dde\u5730\u65b9\u5efa\u8a2d\u5c40\u9060\u8cc0\u5ddd\u5de5\u4e8b\u4e8b\u52d9\u6240","boring_xml_url":49,"boring_view_url":1,"soilmap_view_url":null,"soiltest_xml_url":52,"soiltest_view_url":52},{"id":208168,"code":"B4KJ201801009-6417","latitude":"33.853","longitude":"130.67997","source_code":"QS20098985790200170337","project_name":"\u9060\u8cc0\u5ddd\u6cb3\u53e3\u5830\u5824\u9632\u5730\u8cea\u8abf\u67fb\u696d\u52d9","survey_name":"\u9060\u8cc0\u5ddd\u6cb3\u53e3\u5830\u5824\u9632\u5730\u8cea\u8abf\u67fb\u696d\u52d9","client_name":"\u5efa\u8a2d\u7701\u4e5d\u5dde\u5730\u65b9\u5efa\u8a2d\u5c40\u9060\u8cc0\u5ddd\u5de5\u4e8b\u4e8b\u52d9\u6240","boring_xml_url":49,"boring_view_url":1,"soilmap_view_url":null,"soiltest_xml_url":52,"soiltest_view_url":52},{"id":208167,"code":"B4KJ201801009-6416","latitude":"33.86283","longitude":"130.68133","source_code":"QS20098985790200170336","project_name":"\u9060\u8cc0\u5ddd\u6cb3\u53e3\u5830\u5824\u9632\u5730\u8cea\u8abf\u67fb\u696d\u52d9","survey_name":"\u9060\u8cc0\u5ddd\u6cb3\u53e3\u5830\u5824\u9632\u5730\u8cea\u8abf\u67fb\u696d\u52d9","client_name":"\u5efa\u8a2d\u7701\u4e5d\u5dde\u5730\u65b9\u5efa\u8a2d\u5c40\u9060\u8cc0\u5ddd\u5de5\u4e8b\u4e8b\u52d9\u6240","boring_xml_url":49,"boring_view_url":1,"soilmap_view_url":null,"soiltest_xml_url":52,"soiltest_view_url":52},{"id":208166,"code":"B4KJ201801009-6415","latitude":"33.86283","longitude":"130.67786","source_code":"QS20098985790200170335","project_name":"\u9060\u8cc0\u5ddd\u6cb3\u53e3\u5830\u5824\u9632\u5730\u8cea\u8abf\u67fb\u696d\u52d9","survey_name":"\u9060\u8cc0\u5ddd\u6cb3\u53e3\u5830\u5824\u9632\u5730\u8cea\u8abf\u67fb\u696d\u52d9","client_name":"\u5efa\u8a2d\u7701\u4e5d\u5dde\u5730\u65b9\u5efa\u8a2d\u5c40\u9060\u8cc0\u5ddd\u5de5\u4e8b\u4e8b\u52d9\u6240","boring_xml_url":49,"boring_view_url":1,"soilmap_view_url":null,"soiltest_xml_url":52,"soiltest_view_url":52}]}}