{"header":{"xyz":{"source":[],"mosaic":false},"page":3752,"raw":{"soiltest_result":"0","bbox":"57.598333,109.544722,1.933333,163.806111","page":"3752"},"conditions":{"soiltest_result":0,"north":57.598333,"west":109.544722,"south":1.933333,"east":163.806111},"success":true,"message":""},"data":{"meta":{"total":212844,"page":3752,"pages":7095,"count":30},"values":[{"id":208015,"code":"B4KJ201801009-6264","latitude":"33.12167","longitude":"131.48406","source_code":"QS20098985790200170171","project_name":"\u6cb3\u6d25\u539f\u5730\u533a\u5730\u8cea\u8abf\u67fb\u696d\u52d9","survey_name":"\u6cb3\u6d25\u539f\u5730\u533a\u5730\u8cea\u8abf\u67fb\u696d\u52d9","client_name":"\u56fd\u571f\u4ea4\u901a\u7701\u4e5d\u5dde\u5730\u65b9\u6574\u5099\u5c40\u5927\u5206\u5ddd\u30c0\u30e0\u5de5\u4e8b\u4e8b\u52d9\u6240","boring_xml_url":49,"boring_view_url":1,"soilmap_view_url":null,"soiltest_xml_url":0,"soiltest_view_url":0},{"id":208014,"code":"B4KJ201801009-6263","latitude":"33.12247","longitude":"131.48431","source_code":"QS20098985790200170170","project_name":"\u6cb3\u6d25\u539f\u5730\u533a\u5730\u8cea\u8abf\u67fb\u696d\u52d9","survey_name":"\u6cb3\u6d25\u539f\u5730\u533a\u5730\u8cea\u8abf\u67fb\u696d\u52d9","client_name":"\u56fd\u571f\u4ea4\u901a\u7701\u4e5d\u5dde\u5730\u65b9\u6574\u5099\u5c40\u5927\u5206\u5ddd\u30c0\u30e0\u5de5\u4e8b\u4e8b\u52d9\u6240","boring_xml_url":49,"boring_view_url":1,"soilmap_view_url":null,"soiltest_xml_url":0,"soiltest_view_url":0},{"id":208013,"code":"B4KJ201801009-6262","latitude":"33.12386","longitude":"131.48625","source_code":"QS20098985790200170169","project_name":"\u6cb3\u6d25\u539f\u5730\u533a\u5730\u8cea\u8abf\u67fb\u696d\u52d9","survey_name":"\u6cb3\u6d25\u539f\u5730\u533a\u5730\u8cea\u8abf\u67fb\u696d\u52d9","client_name":"\u56fd\u571f\u4ea4\u901a\u7701\u4e5d\u5dde\u5730\u65b9\u6574\u5099\u5c40\u5927\u5206\u5ddd\u30c0\u30e0\u5de5\u4e8b\u4e8b\u52d9\u6240","boring_xml_url":49,"boring_view_url":1,"soilmap_view_url":null,"soiltest_xml_url":0,"soiltest_view_url":0},{"id":208012,"code":"B4KJ201801009-6261","latitude":"33.12408","longitude":"131.48614","source_code":"QS20098985790200170168","project_name":"\u6cb3\u6d25\u539f\u5730\u533a\u5730\u8cea\u8abf\u67fb\u696d\u52d9","survey_name":"\u6cb3\u6d25\u539f\u5730\u533a\u5730\u8cea\u8abf\u67fb\u696d\u52d9","client_name":"\u56fd\u571f\u4ea4\u901a\u7701\u4e5d\u5dde\u5730\u65b9\u6574\u5099\u5c40\u5927\u5206\u5ddd\u30c0\u30e0\u5de5\u4e8b\u4e8b\u52d9\u6240","boring_xml_url":49,"boring_view_url":1,"soilmap_view_url":null,"soiltest_xml_url":0,"soiltest_view_url":0},{"id":208011,"code":"B4KJ201801009-6260","latitude":"33.12408","longitude":"131.48614","source_code":"QS20098985790200170167","project_name":"\u6cb3\u6d25\u539f\u5730\u533a\u5730\u8cea\u8abf\u67fb\u696d\u52d9","survey_name":"\u6cb3\u6d25\u539f\u5730\u533a\u5730\u8cea\u8abf\u67fb\u696d\u52d9","client_name":"\u56fd\u571f\u4ea4\u901a\u7701\u4e5d\u5dde\u5730\u65b9\u6574\u5099\u5c40\u5927\u5206\u5ddd\u30c0\u30e0\u5de5\u4e8b\u4e8b\u52d9\u6240","boring_xml_url":49,"boring_view_url":1,"soilmap_view_url":null,"soiltest_xml_url":0,"soiltest_view_url":0},{"id":208010,"code":"B4KJ201801009-6259","latitude":"33.12447","longitude":"131.48617","source_code":"QS20098985790200170166","project_name":"\u6cb3\u6d25\u539f\u5730\u533a\u5730\u8cea\u8abf\u67fb\u696d\u52d9","survey_name":"\u6cb3\u6d25\u539f\u5730\u533a\u5730\u8cea\u8abf\u67fb\u696d\u52d9","client_name":"\u56fd\u571f\u4ea4\u901a\u7701\u4e5d\u5dde\u5730\u65b9\u6574\u5099\u5c40\u5927\u5206\u5ddd\u30c0\u30e0\u5de5\u4e8b\u4e8b\u52d9\u6240","boring_xml_url":49,"boring_view_url":1,"soilmap_view_url":null,"soiltest_xml_url":0,"soiltest_view_url":0},{"id":208009,"code":"B4KJ201801009-6258","latitude":"33.12447","longitude":"130.48617","source_code":"QS20098985790200170165","project_name":"\u6cb3\u6d25\u539f\u5730\u533a\u5730\u8cea\u8abf\u67fb\u696d\u52d9","survey_name":"\u6cb3\u6d25\u539f\u5730\u533a\u5730\u8cea\u8abf\u67fb\u696d\u52d9","client_name":"\u56fd\u571f\u4ea4\u901a\u7701\u4e5d\u5dde\u5730\u65b9\u6574\u5099\u5c40\u5927\u5206\u5ddd\u30c0\u30e0\u5de5\u4e8b\u4e8b\u52d9\u6240","boring_xml_url":49,"boring_view_url":1,"soilmap_view_url":null,"soiltest_xml_url":0,"soiltest_view_url":0},{"id":208008,"code":"B4KJ201801009-6257","latitude":"33.10939","longitude":"131.47075","source_code":"QS20098985790200170164","project_name":"\u5927\u5206\u5ddd\u30c0\u30e0\u5730\u8cea\u8abf\u67fb\u696d\u52d9","survey_name":"\u5927\u5206\u5ddd\u30c0\u30e0\u5730\u8cea\u8abf\u67fb\u696d\u52d9","client_name":"\u56fd\u9053\u4ea4\u901a\u7701\u4e5d\u5dde\u5730\u65b9\u6574\u5099\u5c40\u5927\u5206\u5de5\u4e8b\u4e8b\u52d9\u6240","boring_xml_url":49,"boring_view_url":1,"soilmap_view_url":null,"soiltest_xml_url":0,"soiltest_view_url":0},{"id":208007,"code":"B4KJ201801009-6256","latitude":"33.10939","longitude":"131.47075","source_code":"QS20098985790200170163","project_name":"\u5927\u5206\u5ddd\u30c0\u30e0\u5730\u8cea\u8abf\u67fb\u696d\u52d9","survey_name":"\u5927\u5206\u5ddd\u30c0\u30e0\u5730\u8cea\u8abf\u67fb\u696d\u52d9","client_name":"\u56fd\u9053\u4ea4\u901a\u7701\u4e5d\u5dde\u5730\u65b9\u6574\u5099\u5c40\u5927\u5206\u5de5\u4e8b\u4e8b\u52d9\u6240","boring_xml_url":49,"boring_view_url":1,"soilmap_view_url":null,"soiltest_xml_url":0,"soiltest_view_url":0},{"id":208006,"code":"B4KJ201801009-6255","latitude":"33.10939","longitude":"131.47075","source_code":"QS20098985790200170162","project_name":"\u5927\u5206\u5ddd\u30c0\u30e0\u5730\u8cea\u8abf\u67fb\u696d\u52d9","survey_name":"\u5927\u5206\u5ddd\u30c0\u30e0\u5730\u8cea\u8abf\u67fb\u696d\u52d9","client_name":"\u56fd\u9053\u4ea4\u901a\u7701\u4e5d\u5dde\u5730\u65b9\u6574\u5099\u5c40\u5927\u5206\u5de5\u4e8b\u4e8b\u52d9\u6240","boring_xml_url":49,"boring_view_url":1,"soilmap_view_url":null,"soiltest_xml_url":0,"soiltest_view_url":0},{"id":208005,"code":"B4KJ201801009-6254","latitude":"33.10933","longitude":"131.47075","source_code":"QS20098985790200170161","project_name":"\u5927\u5206\u5ddd\u30c0\u30e0\u5730\u8cea\u8abf\u67fb\u696d\u52d9","survey_name":"\u5927\u5206\u5ddd\u30c0\u30e0\u5730\u8cea\u8abf\u67fb\u696d\u52d9","client_name":"\u56fd\u9053\u4ea4\u901a\u7701\u4e5d\u5dde\u5730\u65b9\u6574\u5099\u5c40\u5927\u5206\u5de5\u4e8b\u4e8b\u52d9\u6240","boring_xml_url":49,"boring_view_url":1,"soilmap_view_url":null,"soiltest_xml_url":0,"soiltest_view_url":0},{"id":208004,"code":"B4KJ201801009-6253","latitude":"33.12733","longitude":"131.49472","source_code":"QS20098985790200170160","project_name":"\u4ed8\u66ff\u56fd\u9053442\u53f7\u6cd5\u9762\u5de5\u5730\u8cea\u8abf\u67fb\u53ca\u3073\u8a73\u7d30\u8a2d\u8a08\u696d\u52d9","survey_name":"\u4ed8\u66ff\u56fd\u9053442\u53f7\u6cd5\u9762\u5de5\u5730\u8cea\u8abf\u67fb\u53ca\u3073\u8a73\u7d30\u8a2d\u8a08\u696d\u52d9","client_name":"\u56fd\u9053\u4ea4\u901a\u7701\u4e5d\u5dde\u5730\u65b9\u6574\u5099\u5c40\u5927\u5206\u5de5\u4e8b\u4e8b\u52d9\u6240","boring_xml_url":49,"boring_view_url":1,"soilmap_view_url":null,"soiltest_xml_url":52,"soiltest_view_url":52},{"id":208003,"code":"B4KJ201801009-6252","latitude":"33.1275","longitude":"131.495","source_code":"QS20098985790200170159","project_name":"\u4ed8\u66ff\u56fd\u9053442\u53f7\u6cd5\u9762\u5de5\u5730\u8cea\u8abf\u67fb\u53ca\u3073\u8a73\u7d30\u8a2d\u8a08\u696d\u52d9","survey_name":"\u4ed8\u66ff\u56fd\u9053442\u53f7\u6cd5\u9762\u5de5\u5730\u8cea\u8abf\u67fb\u53ca\u3073\u8a73\u7d30\u8a2d\u8a08\u696d\u52d9","client_name":"\u56fd\u9053\u4ea4\u901a\u7701\u4e5d\u5dde\u5730\u65b9\u6574\u5099\u5c40\u5927\u5206\u5de5\u4e8b\u4e8b\u52d9\u6240","boring_xml_url":49,"boring_view_url":1,"soilmap_view_url":null,"soiltest_xml_url":0,"soiltest_view_url":0},{"id":208002,"code":"B4KJ201801009-6251","latitude":"33.12733","longitude":"131.495","source_code":"QS20098985790200170158","project_name":"\u4ed8\u66ff\u56fd\u9053442\u53f7\u6cd5\u9762\u5de5\u5730\u8cea\u8abf\u67fb\u53ca\u3073\u8a73\u7d30\u8a2d\u8a08\u696d\u52d9","survey_name":"\u4ed8\u66ff\u56fd\u9053442\u53f7\u6cd5\u9762\u5de5\u5730\u8cea\u8abf\u67fb\u53ca\u3073\u8a73\u7d30\u8a2d\u8a08\u696d\u52d9","client_name":"\u56fd\u9053\u4ea4\u901a\u7701\u4e5d\u5dde\u5730\u65b9\u6574\u5099\u5c40\u5927\u5206\u5de5\u4e8b\u4e8b\u52d9\u6240","boring_xml_url":49,"boring_view_url":1,"soilmap_view_url":null,"soiltest_xml_url":0,"soiltest_view_url":0},{"id":208001,"code":"B4KJ201801009-6250","latitude":"33.1278","longitude":"131.4953","source_code":"QS20098985790200170157","project_name":"\u4ed8\u66ff\u56fd\u9053442\u53f7\u6cd5\u9762\u5de5\u5730\u8cea\u8abf\u67fb\u53ca\u3073\u8a73\u7d30\u8a2d\u8a08\u696d\u52d9","survey_name":"\u4ed8\u66ff\u56fd\u9053442\u53f7\u6cd5\u9762\u5de5\u5730\u8cea\u8abf\u67fb\u53ca\u3073\u8a73\u7d30\u8a2d\u8a08\u696d\u52d9","client_name":"\u56fd\u9053\u4ea4\u901a\u7701\u4e5d\u5dde\u5730\u65b9\u6574\u5099\u5c40\u5927\u5206\u5de5\u4e8b\u4e8b\u52d9\u6240","boring_xml_url":49,"boring_view_url":1,"soilmap_view_url":null,"soiltest_xml_url":0,"soiltest_view_url":0},{"id":208000,"code":"B4KJ201801009-6249","latitude":"33.12711","longitude":"131.49472","source_code":"QS20098985790200170156","project_name":"\u4ed8\u66ff\u56fd\u9053442\u53f7\u6cd5\u9762\u5de5\u5730\u8cea\u8abf\u67fb\u53ca\u3073\u8a73\u7d30\u8a2d\u8a08\u696d\u52d9","survey_name":"\u4ed8\u66ff\u56fd\u9053442\u53f7\u6cd5\u9762\u5de5\u5730\u8cea\u8abf\u67fb\u53ca\u3073\u8a73\u7d30\u8a2d\u8a08\u696d\u52d9","client_name":"\u56fd\u9053\u4ea4\u901a\u7701\u4e5d\u5dde\u5730\u65b9\u6574\u5099\u5c40\u5927\u5206\u5de5\u4e8b\u4e8b\u52d9\u6240","boring_xml_url":49,"boring_view_url":1,"soilmap_view_url":null,"soiltest_xml_url":52,"soiltest_view_url":52},{"id":207999,"code":"B4KJ201801009-6248","latitude":"33.1278","longitude":"131.4956","source_code":"QS20098985790200170155","project_name":"\u4ed8\u66ff\u56fd\u9053442\u53f7\u6cd5\u9762\u5de5\u5730\u8cea\u8abf\u67fb\u53ca\u3073\u8a73\u7d30\u8a2d\u8a08\u696d\u52d9","survey_name":"\u4ed8\u66ff\u56fd\u9053442\u53f7\u6cd5\u9762\u5de5\u5730\u8cea\u8abf\u67fb\u53ca\u3073\u8a73\u7d30\u8a2d\u8a08\u696d\u52d9","client_name":"\u56fd\u9053\u4ea4\u901a\u7701\u4e5d\u5dde\u5730\u65b9\u6574\u5099\u5c40\u5927\u5206\u5de5\u4e8b\u4e8b\u52d9\u6240","boring_xml_url":49,"boring_view_url":1,"soilmap_view_url":null,"soiltest_xml_url":52,"soiltest_view_url":52},{"id":207998,"code":"B4KJ201801009-6247","latitude":"33.11792","longitude":"131.48583","source_code":"QS20098985790200170154","project_name":"\u5c3e\u539f2\u53f7\u6a4b\u5730\u8cea\u8abf\u67fb\u696d\u52d9","survey_name":"\u5c3e\u539f2\u53f7\u6a4b\u5730\u8cea\u8abf\u67fb\u696d\u52d9","client_name":"\u5efa\u8a2d\u7701\u4e5d\u5dde\u5730\u65b9\u5efa\u8a2d\u5c40\u5927\u5206\u5de5\u4e8b\u4e8b\u52d9\u6240","boring_xml_url":49,"boring_view_url":1,"soilmap_view_url":null,"soiltest_xml_url":0,"soiltest_view_url":0},{"id":207997,"code":"B4KJ201801009-6246","latitude":"33.118","longitude":"131.48586","source_code":"QS20098985790200170153","project_name":"\u5c3e\u539f2\u53f7\u6a4b\u5730\u8cea\u8abf\u67fb\u696d\u52d9","survey_name":"\u5c3e\u539f2\u53f7\u6a4b\u5730\u8cea\u8abf\u67fb\u696d\u52d9","client_name":"\u5efa\u8a2d\u7701\u4e5d\u5dde\u5730\u65b9\u5efa\u8a2d\u5c40\u5927\u5206\u5de5\u4e8b\u4e8b\u52d9\u6240","boring_xml_url":49,"boring_view_url":1,"soilmap_view_url":null,"soiltest_xml_url":0,"soiltest_view_url":0},{"id":207996,"code":"B4KJ201801009-6245","latitude":"33.11825","longitude":"131.48425","source_code":"QS20098985790200170152","project_name":"\u5c3e\u539f2\u53f7\u6a4b\u5730\u8cea\u8abf\u67fb\u696d\u52d9","survey_name":"\u5c3e\u539f2\u53f7\u6a4b\u5730\u8cea\u8abf\u67fb\u696d\u52d9","client_name":"\u5efa\u8a2d\u7701\u4e5d\u5dde\u5730\u65b9\u5efa\u8a2d\u5c40\u5927\u5206\u5de5\u4e8b\u4e8b\u52d9\u6240","boring_xml_url":49,"boring_view_url":1,"soilmap_view_url":null,"soiltest_xml_url":0,"soiltest_view_url":0},{"id":207995,"code":"B4KJ201801009-6244","latitude":"33.11833","longitude":"131.48511","source_code":"QS20098985790200170151","project_name":"\u5c3e\u539f2\u53f7\u6a4b\u5730\u8cea\u8abf\u67fb\u696d\u52d9","survey_name":"\u5c3e\u539f2\u53f7\u6a4b\u5730\u8cea\u8abf\u67fb\u696d\u52d9","client_name":"\u5efa\u8a2d\u7701\u4e5d\u5dde\u5730\u65b9\u5efa\u8a2d\u5c40\u5927\u5206\u5de5\u4e8b\u4e8b\u52d9\u6240","boring_xml_url":49,"boring_view_url":1,"soilmap_view_url":null,"soiltest_xml_url":0,"soiltest_view_url":0},{"id":207994,"code":"B4KJ201801009-6243","latitude":"33.12906","longitude":"131.49733","source_code":"QS20098985790200170150","project_name":"\u5927\u5206\u5ddd\u30c0\u30e0\u4eee\u6392\u6c34\u8def\u5730\u8cea\u8abf\u67fb\u696d\u52d9","survey_name":"\u5927\u5206\u5ddd\u30c0\u30e0\u4eee\u6392\u6c34\u8def\u5730\u8cea\u8abf\u67fb\u696d\u52d9","client_name":"\u5efa\u8a2d\u7701\u4e5d\u5dde\u5730\u65b9\u5efa\u8a2d\u5c40\u5927\u5206\u5de5\u4e8b\u4e8b\u52d9\u6240","boring_xml_url":49,"boring_view_url":1,"soilmap_view_url":null,"soiltest_xml_url":0,"soiltest_view_url":0},{"id":207993,"code":"B4KJ201801009-6242","latitude":"33.13014","longitude":"131.49781","source_code":"QS20098985790200170149","project_name":"\u5927\u5206\u5ddd\u30c0\u30e0\u4eee\u6392\u6c34\u8def\u5730\u8cea\u8abf\u67fb\u696d\u52d9","survey_name":"\u5927\u5206\u5ddd\u30c0\u30e0\u4eee\u6392\u6c34\u8def\u5730\u8cea\u8abf\u67fb\u696d\u52d9","client_name":"\u5efa\u8a2d\u7701\u4e5d\u5dde\u5730\u65b9\u5efa\u8a2d\u5c40\u5927\u5206\u5de5\u4e8b\u4e8b\u52d9\u6240","boring_xml_url":49,"boring_view_url":1,"soilmap_view_url":null,"soiltest_xml_url":52,"soiltest_view_url":52},{"id":207992,"code":"B4KJ201801009-6241","latitude":"33.12975","longitude":"131.49778","source_code":"QS20098985790200170148","project_name":"\u5927\u5206\u5ddd\u30c0\u30e0\u4eee\u6392\u6c34\u8def\u5730\u8cea\u8abf\u67fb\u696d\u52d9","survey_name":"\u5927\u5206\u5ddd\u30c0\u30e0\u4eee\u6392\u6c34\u8def\u5730\u8cea\u8abf\u67fb\u696d\u52d9","client_name":"\u5efa\u8a2d\u7701\u4e5d\u5dde\u5730\u65b9\u5efa\u8a2d\u5c40\u5927\u5206\u5de5\u4e8b\u4e8b\u52d9\u6240","boring_xml_url":49,"boring_view_url":1,"soilmap_view_url":null,"soiltest_xml_url":52,"soiltest_view_url":52},{"id":207991,"code":"B4KJ201801009-6240","latitude":"33.12936","longitude":"131.49742","source_code":"QS20098985790200170147","project_name":"\u5927\u5206\u5ddd\u30c0\u30e0\u4eee\u6392\u6c34\u8def\u5730\u8cea\u8abf\u67fb\u696d\u52d9","survey_name":"\u5927\u5206\u5ddd\u30c0\u30e0\u4eee\u6392\u6c34\u8def\u5730\u8cea\u8abf\u67fb\u696d\u52d9","client_name":"\u5efa\u8a2d\u7701\u4e5d\u5dde\u5730\u65b9\u5efa\u8a2d\u5c40\u5927\u5206\u5de5\u4e8b\u4e8b\u52d9\u6240","boring_xml_url":49,"boring_view_url":1,"soilmap_view_url":null,"soiltest_xml_url":0,"soiltest_view_url":0},{"id":207990,"code":"B4KJ201801009-6239","latitude":"33.12867","longitude":"130.50319","source_code":"QS20098985790200170146","project_name":"\u5927\u5206\u5ddd\u30c0\u30e0\u30b5\u30a4\u30c8\u5730\u8cea\u8abf\u67fb(\u305d\u306e1)\u696d\u52d9","survey_name":"\u5927\u5206\u5ddd\u30c0\u30e0\u30b5\u30a4\u30c8\u5730\u8cea\u8abf\u67fb(\u305d\u306e1)\u696d\u52d9","client_name":"\u56fd\u571f\u4ea4\u901a\u7701\u4e5d\u5dde\u5730\u65b9\u6574\u5099\u5c40\u5927\u5206\u5de5\u4e8b\u4e8b\u52d9\u6240","boring_xml_url":49,"boring_view_url":1,"soilmap_view_url":null,"soiltest_xml_url":0,"soiltest_view_url":0},{"id":207989,"code":"B4KJ201801009-6238","latitude":"33.12806","longitude":"131.50483","source_code":"QS20098985790200170145","project_name":"\u5927\u5206\u5ddd\u30c0\u30e0\u5730\u8cea\u8abf\u67fb(\u305d\u306e1)\u696d\u52d9","survey_name":"\u5927\u5206\u5ddd\u30c0\u30e0\u5730\u8cea\u8abf\u67fb(\u305d\u306e1)\u696d\u52d9","client_name":"\u56fd\u571f\u4ea4\u901a\u7701\u4e5d\u5dde\u5730\u65b9\u6574\u5099\u5c40\u5927\u5206\u5de5\u4e8b\u4e8b\u52d9\u6240","boring_xml_url":49,"boring_view_url":1,"soilmap_view_url":null,"soiltest_xml_url":0,"soiltest_view_url":0},{"id":207988,"code":"B4KJ201801009-6237","latitude":"33.12925","longitude":"131.50292","source_code":"QS20098985790200170144","project_name":"\u5927\u5206\u5ddd\u30c0\u30e0\u30b5\u30a4\u30c8\u5730\u8cea\u8abf\u67fb(\u305d\u306e1)\u696d\u52d9","survey_name":"\u5927\u5206\u5ddd\u30c0\u30e0\u30b5\u30a4\u30c8\u5730\u8cea\u8abf\u67fb(\u305d\u306e1)\u696d\u52d9","client_name":"\u56fd\u571f\u4ea4\u901a\u7701\u4e5d\u5dde\u5730\u65b9\u6574\u5099\u5c40\u5927\u5206\u5de5\u4e8b\u4e8b\u52d9\u6240","boring_xml_url":49,"boring_view_url":1,"soilmap_view_url":null,"soiltest_xml_url":0,"soiltest_view_url":0},{"id":207987,"code":"B4KJ201801009-6236","latitude":"33.13253","longitude":"131.487","source_code":"QS20098985790200170143","project_name":"\u5e73\u621011\u5e74\u5ea6\u9577\u91ce\u8c37\u7b2c\u4e8c\u571f\u6368\u5730\u8cea\u8abf\u67fb\u696d\u52d9","survey_name":"\u5e73\u621011\u5e74\u5ea6\u9577\u91ce\u8c37\u7b2c\u4e8c\u571f\u6368\u5730\u8cea\u8abf\u67fb\u696d\u52d9","client_name":"\u5efa\u8a2d\u7701\u4e5d\u5dde\u5730\u65b9\u5efa\u8a2d\u5c40\u5927\u5206\u5de5\u4e8b\u4e8b\u52d9\u6240","boring_xml_url":49,"boring_view_url":1,"soilmap_view_url":null,"soiltest_xml_url":0,"soiltest_view_url":0},{"id":207986,"code":"B4KJ201801009-6235","latitude":"33.13864","longitude":"131.51286","source_code":"QS20098985790200170142","project_name":"\u5e73\u621011\u5e74\u5ea6\u9577\u91ce\u8c37\u7b2c\u4e8c\u571f\u6368\u5730\u8cea\u8abf\u67fb\u696d\u52d9","survey_name":"\u5e73\u621011\u5e74\u5ea6\u9577\u91ce\u8c37\u7b2c\u4e8c\u571f\u6368\u5730\u8cea\u8abf\u67fb\u696d\u52d9","client_name":"\u5efa\u8a2d\u7701\u4e5d\u5dde\u5730\u65b9\u5efa\u8a2d\u5c40\u5927\u5206\u5de5\u4e8b\u4e8b\u52d9\u6240","boring_xml_url":49,"boring_view_url":1,"soilmap_view_url":null,"soiltest_xml_url":52,"soiltest_view_url":52}]}}