{"header":{"xyz":{"source":[],"mosaic":false},"page":3759,"raw":{"soiltest_result":"0","bbox":"57.598333,109.544722,1.933333,163.806111","page":"3759"},"conditions":{"soiltest_result":0,"north":57.598333,"west":109.544722,"south":1.933333,"east":163.806111},"success":true,"message":""},"data":{"meta":{"total":212844,"page":3759,"pages":7095,"count":30},"values":[{"id":207805,"code":"B4KJ201801009-6054","latitude":"32.614153","longitude":"131.708103","source_code":"QS20098985790200160621","project_name":"","survey_name":"\u5317\u5ddd\u6771\u6d77\u5730\u533a\u5730\u8cea\u8abf\u67fb","client_name":"\u5efa\u8a2d\u7701\u4e5d\u5dde\u5730\u65b9\u5efa\u8a2d\u5c40\u5ef6\u5ca1\u5de5\u4e8b\u4e8b\u52d9\u6240","boring_xml_url":49,"boring_view_url":1,"soilmap_view_url":null,"soiltest_xml_url":0,"soiltest_view_url":0},{"id":207804,"code":"B4KJ201801009-6053","latitude":"32.611342","longitude":"131.709328","source_code":"QS20098985790200160620","project_name":"","survey_name":"\u5317\u5ddd\u6771\u6d77\u5730\u533a\u5730\u8cea\u8abf\u67fb","client_name":"\u5efa\u8a2d\u7701\u4e5d\u5dde\u5730\u65b9\u5efa\u8a2d\u5c40\u5ef6\u5ca1\u5de5\u4e8b\u4e8b\u52d9\u6240","boring_xml_url":49,"boring_view_url":1,"soilmap_view_url":null,"soiltest_xml_url":0,"soiltest_view_url":0},{"id":207803,"code":"B4KJ201801009-6052","latitude":"32.607017","longitude":"131.70715","source_code":"QS20098985790200160619","project_name":"","survey_name":"\u5317\u5ddd\u6771\u6d77\u5730\u533a\u5730\u8cea\u8abf\u67fb","client_name":"\u5efa\u8a2d\u7701\u4e5d\u5dde\u5730\u65b9\u5efa\u8a2d\u5c40\u5ef6\u5ca1\u5de5\u4e8b\u4e8b\u52d9\u6240","boring_xml_url":49,"boring_view_url":1,"soilmap_view_url":null,"soiltest_xml_url":0,"soiltest_view_url":0},{"id":207802,"code":"B4KJ201801009-6051","latitude":"32.597839","longitude":"131.706506","source_code":"QS20098985790200160618","project_name":"","survey_name":"\u5317\u5ddd\u6771\u6d77\u5730\u533a\u5730\u8cea\u8abf\u67fb","client_name":"\u5efa\u8a2d\u7701\u4e5d\u5dde\u5730\u65b9\u5efa\u8a2d\u5c40\u5ef6\u5ca1\u5de5\u4e8b\u4e8b\u52d9\u6240","boring_xml_url":49,"boring_view_url":1,"soilmap_view_url":null,"soiltest_xml_url":0,"soiltest_view_url":0},{"id":207801,"code":"B4KJ201801009-6050","latitude":"32.596722","longitude":"131.708575","source_code":"QS20098985790200160617","project_name":"","survey_name":"\u5317\u5ddd\u6771\u6d77\u5730\u533a\u5730\u8cea\u8abf\u67fb","client_name":"\u5efa\u8a2d\u7701\u4e5d\u5dde\u5730\u65b9\u5efa\u8a2d\u5c40\u5ef6\u5ca1\u5de5\u4e8b\u4e8b\u52d9\u6240","boring_xml_url":49,"boring_view_url":1,"soilmap_view_url":null,"soiltest_xml_url":0,"soiltest_view_url":0},{"id":207800,"code":"B4KJ201801009-6049","latitude":"32.594839","longitude":"131.712214","source_code":"QS20098985790200160616","project_name":"","survey_name":"\u5317\u5ddd\u6771\u6d77\u5730\u533a\u5730\u8cea\u8abf\u67fb","client_name":"\u5efa\u8a2d\u7701\u4e5d\u5dde\u5730\u65b9\u5efa\u8a2d\u5c40\u5ef6\u5ca1\u5de5\u4e8b\u4e8b\u52d9\u6240","boring_xml_url":49,"boring_view_url":1,"soilmap_view_url":null,"soiltest_xml_url":0,"soiltest_view_url":0},{"id":207799,"code":"B4KJ201801009-6048","latitude":"32.631772","longitude":"131.409117","source_code":"QS20098985790200160615","project_name":"","survey_name":"\u4e94\u30f6\u702c\u5ddd\u4e2d\u6d41\u90e8\u5c3e\u85ae\u5730\u533a\u5730\u8cea\u8abf\u67fb\u696d\u52d9","client_name":"\u5efa\u8a2d\u7701\u4e5d\u5dde\u5730\u65b9\u5efa\u8a2d\u5c40\u5ef6\u5ca1\u5de5\u4e8b\u4e8b\u52d9\u6240","boring_xml_url":49,"boring_view_url":1,"soilmap_view_url":null,"soiltest_xml_url":0,"soiltest_view_url":0},{"id":207798,"code":"B4KJ201801009-6047","latitude":"32.565625","longitude":"131.6173","source_code":"QS20098985790200160614","project_name":"","survey_name":"\u6771\u6d77\u5730\u533a\u59161\u4ef6\u5730\u8cea\u8abf\u67fb\u696d\u52d9","client_name":"\u5efa\u8a2d\u7701\u4e5d\u5dde\u5730\u65b9\u5efa\u8a2d\u5c40\u5ef6\u5ca1\u5de5\u4e8b\u4e8b\u52d9\u6240","boring_xml_url":49,"boring_view_url":1,"soilmap_view_url":null,"soiltest_xml_url":0,"soiltest_view_url":0},{"id":207797,"code":"B4KJ201801009-6046","latitude":"32.562925","longitude":"131.618031","source_code":"QS20098985790200160613","project_name":"","survey_name":"\u6771\u6d77\u5730\u533a\u59161\u4ef6\u5730\u8cea\u8abf\u67fb\u696d\u52d9","client_name":"\u5efa\u8a2d\u7701\u4e5d\u5dde\u5730\u65b9\u5efa\u8a2d\u5c40\u5ef6\u5ca1\u5de5\u4e8b\u4e8b\u52d9\u6240","boring_xml_url":49,"boring_view_url":1,"soilmap_view_url":null,"soiltest_xml_url":0,"soiltest_view_url":0},{"id":207796,"code":"B4KJ201801009-6045","latitude":"32.567353","longitude":"131.624622","source_code":"QS20098985790200160612","project_name":"","survey_name":"\u6771\u6d77\u5730\u533a\u59161\u4ef6\u5730\u8cea\u8abf\u67fb\u696d\u52d9","client_name":"\u5efa\u8a2d\u7701\u4e5d\u5dde\u5730\u65b9\u5efa\u8a2d\u5c40\u5ef6\u5ca1\u5de5\u4e8b\u4e8b\u52d9\u6240","boring_xml_url":49,"boring_view_url":1,"soilmap_view_url":null,"soiltest_xml_url":0,"soiltest_view_url":0},{"id":207795,"code":"B4KJ201801009-6044","latitude":"32.600356","longitude":"131.706528","source_code":"QS20098985790200160611","project_name":"","survey_name":"\u6771\u6d77\u5730\u533a\u59161\u4ef6\u5730\u8cea\u8abf\u67fb\u696d\u52d9","client_name":"\u5efa\u8a2d\u7701\u4e5d\u5dde\u5730\u65b9\u5efa\u8a2d\u5c40\u5ef6\u5ca1\u5de5\u4e8b\u4e8b\u52d9\u6240","boring_xml_url":49,"boring_view_url":1,"soilmap_view_url":null,"soiltest_xml_url":0,"soiltest_view_url":0},{"id":207794,"code":"B4KJ201801009-6043","latitude":"32.601153","longitude":"131.706953","source_code":"QS20098985790200160610","project_name":"","survey_name":"\u6771\u6d77\u5730\u533a\u59161\u4ef6\u5730\u8cea\u8abf\u67fb\u696d\u52d9","client_name":"\u5efa\u8a2d\u7701\u4e5d\u5dde\u5730\u65b9\u5efa\u8a2d\u5c40\u5ef6\u5ca1\u5de5\u4e8b\u4e8b\u52d9\u6240","boring_xml_url":49,"boring_view_url":1,"soilmap_view_url":null,"soiltest_xml_url":0,"soiltest_view_url":0},{"id":207793,"code":"B4KJ201801009-6042","latitude":"32.601211","longitude":"131.706744","source_code":"QS20098985790200160609","project_name":"","survey_name":"\u6771\u6d77\u5730\u533a\u59161\u4ef6\u5730\u8cea\u8abf\u67fb\u696d\u52d9","client_name":"\u5efa\u8a2d\u7701\u4e5d\u5dde\u5730\u65b9\u5efa\u8a2d\u5c40\u5ef6\u5ca1\u5de5\u4e8b\u4e8b\u52d9\u6240","boring_xml_url":49,"boring_view_url":1,"soilmap_view_url":null,"soiltest_xml_url":0,"soiltest_view_url":0},{"id":207792,"code":"B4KJ201801009-6041","latitude":"32.603758","longitude":"131.707022","source_code":"QS20098985790200160608","project_name":"","survey_name":"\u6771\u6d77\u5730\u533a\u59161\u4ef6\u5730\u8cea\u8abf\u67fb\u696d\u52d9","client_name":"\u5efa\u8a2d\u7701\u4e5d\u5dde\u5730\u65b9\u5efa\u8a2d\u5c40\u5ef6\u5ca1\u5de5\u4e8b\u4e8b\u52d9\u6240","boring_xml_url":49,"boring_view_url":1,"soilmap_view_url":null,"soiltest_xml_url":0,"soiltest_view_url":0},{"id":207791,"code":"B4KJ201801009-6040","latitude":"32.6034","longitude":"131.702458","source_code":"QS20098985790200160607","project_name":"","survey_name":"\u4e2d\u30ce\u702c\u5730\u533a\u59161\u4ef6\u5730\u8cea\u8abf\u67fb\u696d\u52d9","client_name":"\u5efa\u8a2d\u7701\u4e5d\u5dde\u5730\u65b9\u5efa\u8a2d\u5c40\u5ef6\u5ca1\u5de5\u4e8b\u4e8b\u52d9\u6240","boring_xml_url":49,"boring_view_url":1,"soilmap_view_url":null,"soiltest_xml_url":0,"soiltest_view_url":0},{"id":207790,"code":"B4KJ201801009-6039","latitude":"32.613092","longitude":"131.703264","source_code":"QS20098985790200160606","project_name":"","survey_name":"\u4e2d\u30ce\u702c\u5730\u533a\u59161\u4ef6\u5730\u8cea\u8abf\u67fb\u696d\u52d9","client_name":"\u5efa\u8a2d\u7701\u4e5d\u5dde\u5730\u65b9\u5efa\u8a2d\u5c40\u5ef6\u5ca1\u5de5\u4e8b\u4e8b\u52d9\u6240","boring_xml_url":49,"boring_view_url":1,"soilmap_view_url":null,"soiltest_xml_url":52,"soiltest_view_url":52},{"id":207789,"code":"B4KJ201801009-6038","latitude":"32.599006","longitude":"131.6786","source_code":"QS20098985790200160605","project_name":"","survey_name":"\u4e2d\u30ce\u702c\u5730\u533a\u59161\u4ef6\u5730\u8cea\u8abf\u67fb\u696d\u52d9","client_name":"\u5efa\u8a2d\u7701\u4e5d\u5dde\u5730\u65b9\u5efa\u8a2d\u5c40\u5ef6\u5ca1\u5de5\u4e8b\u4e8b\u52d9\u6240","boring_xml_url":49,"boring_view_url":1,"soilmap_view_url":null,"soiltest_xml_url":0,"soiltest_view_url":0},{"id":207788,"code":"B4KJ201801009-6037","latitude":"32.599756","longitude":"131.6777","source_code":"QS20098985790200160604","project_name":"","survey_name":"\u4e2d\u30ce\u702c\u5730\u533a\u59161\u4ef6\u5730\u8cea\u8abf\u67fb\u696d\u52d9","client_name":"\u5efa\u8a2d\u7701\u4e5d\u5dde\u5730\u65b9\u5efa\u8a2d\u5c40\u5ef6\u5ca1\u5de5\u4e8b\u4e8b\u52d9\u6240","boring_xml_url":49,"boring_view_url":1,"soilmap_view_url":null,"soiltest_xml_url":0,"soiltest_view_url":0},{"id":207787,"code":"B4KJ201801009-6036","latitude":"32.600522","longitude":"131.702208","source_code":"QS20098985790200160603","project_name":"","survey_name":"\u4e8c\u30c4\u5cf6\u5730\u8cea\u8abf\u67fb\u696d\u52d9","client_name":"\u5efa\u8a2d\u7701\u4e5d\u5dde\u5730\u65b9\u5efa\u8a2d\u5c40\u5ef6\u5ca1\u5de5\u4e8b\u4e8b\u52d9\u6240","boring_xml_url":49,"boring_view_url":1,"soilmap_view_url":null,"soiltest_xml_url":52,"soiltest_view_url":52},{"id":207786,"code":"B4KJ201801009-6035","latitude":"32.601542","longitude":"131.70275","source_code":"QS20098985790200160602","project_name":"","survey_name":"\u4e8c\u30c4\u5cf6\u5730\u8cea\u8abf\u67fb\u696d\u52d9","client_name":"\u5efa\u8a2d\u7701\u4e5d\u5dde\u5730\u65b9\u5efa\u8a2d\u5c40\u5ef6\u5ca1\u5de5\u4e8b\u4e8b\u52d9\u6240","boring_xml_url":49,"boring_view_url":1,"soilmap_view_url":null,"soiltest_xml_url":52,"soiltest_view_url":52},{"id":207785,"code":"B4KJ201801009-6034","latitude":"32.597042","longitude":"131.681517","source_code":"QS20098985790200160601","project_name":"","survey_name":"\u7c9f\u91ce\u540d\u59161\u4ef6\u5730\u8cea\u8abf\u67fb\u696d\u52d9","client_name":"\u5efa\u8a2d\u7701\u4e5d\u5dde\u5730\u65b9\u5efa\u8a2d\u5c40\u5ef6\u5ca1\u5de5\u4e8b\u4e8b\u52d9\u6240","boring_xml_url":49,"boring_view_url":1,"soilmap_view_url":null,"soiltest_xml_url":0,"soiltest_view_url":0},{"id":207784,"code":"B4KJ201801009-6033","latitude":"32.600836","longitude":"131.678769","source_code":"QS20098985790200160600","project_name":"","survey_name":"\u7c9f\u91ce\u540d\u59161\u4ef6\u5730\u8cea\u8abf\u67fb\u696d\u52d9","client_name":"\u5efa\u8a2d\u7701\u4e5d\u5dde\u5730\u65b9\u5efa\u8a2d\u5c40\u5ef6\u5ca1\u5de5\u4e8b\u4e8b\u52d9\u6240","boring_xml_url":49,"boring_view_url":1,"soilmap_view_url":null,"soiltest_xml_url":0,"soiltest_view_url":0},{"id":207783,"code":"B4KJ201801009-6032","latitude":"32.582614","longitude":"131.634772","source_code":"QS20098985790200160599","project_name":"","survey_name":"\u7c9f\u91ce\u540d\u59161\u4ef6\u5730\u8cea\u8abf\u67fb\u696d\u52d9","client_name":"\u5efa\u8a2d\u7701\u4e5d\u5dde\u5730\u65b9\u5efa\u8a2d\u5c40\u5ef6\u5ca1\u5de5\u4e8b\u4e8b\u52d9\u6240","boring_xml_url":49,"boring_view_url":1,"soilmap_view_url":null,"soiltest_xml_url":0,"soiltest_view_url":0},{"id":207782,"code":"B4KJ201801009-6031","latitude":"32.717964","longitude":"131.290783","source_code":"QS20098985790200160598","project_name":"","survey_name":"\u7c73\u7cf8\u30c0\u30e0\u5730\u8cea\u6982\u67fb\u53ca\u3073\u5730\u8cea\u8abf\u67fb\u696d\u52d9","client_name":"\u5efa\u8a2d\u7701\u4e5d\u5dde\u5730\u65b9\u5efa\u8a2d\u5c40\u5ef6\u5ca1\u5de5\u4e8b\u4e8b\u52d9\u6240","boring_xml_url":49,"boring_view_url":1,"soilmap_view_url":null,"soiltest_xml_url":0,"soiltest_view_url":0},{"id":207781,"code":"B4KJ201801009-6030","latitude":"32.74205","longitude":"131.275136","source_code":"QS20098985790200160597","project_name":"","survey_name":"\u7c73\u7cf8\u30c0\u30e0\u5730\u8cea\u8abf\u67fb\u696d\u52d9","client_name":"\u5efa\u8a2d\u7701\u4e5d\u5dde\u5730\u65b9\u5efa\u8a2d\u5c40\u5ef6\u5ca1\u5de5\u4e8b\u4e8b\u52d9\u6240","boring_xml_url":49,"boring_view_url":1,"soilmap_view_url":null,"soiltest_xml_url":0,"soiltest_view_url":0},{"id":207780,"code":"B4KJ201801009-6029","latitude":"32.732656","longitude":"131.274172","source_code":"QS20098985790200160596","project_name":"","survey_name":"\u7c73\u7cf8\u30c0\u30e0\u5730\u8cea\u8abf\u67fb(\u305d\u306e2)\u696d\u52d9","client_name":"\u5efa\u8a2d\u7701\u4e5d\u5dde\u5730\u65b9\u5efa\u8a2d\u5c40\u5ef6\u5ca1\u5de5\u4e8b\u4e8b\u52d9\u6240","boring_xml_url":49,"boring_view_url":1,"soilmap_view_url":null,"soiltest_xml_url":0,"soiltest_view_url":0},{"id":207779,"code":"B4KJ201801009-6028","latitude":"32.732622","longitude":"131.275186","source_code":"QS20098985790200160595","project_name":"","survey_name":"\u7c73\u7cf8\u30c0\u30e0\u5730\u8cea\u8abf\u67fb\u696d\u52d9","client_name":"\u5efa\u8a2d\u7701\u4e5d\u5dde\u5730\u65b9\u5efa\u8a2d\u5c40\u5ef6\u5ca1\u5de5\u4e8b\u4e8b\u52d9\u6240","boring_xml_url":49,"boring_view_url":1,"soilmap_view_url":null,"soiltest_xml_url":0,"soiltest_view_url":0},{"id":207778,"code":"B4KJ201801009-6027","latitude":"32.737458","longitude":"131.253531","source_code":"QS20098985790200160594","project_name":"","survey_name":"\u7c73\u7cf8\u30c0\u30e0\u5730\u8cea\u8abf\u67fb\u696d\u52d9","client_name":"\u5efa\u8a2d\u7701\u4e5d\u5dde\u5730\u65b9\u5efa\u8a2d\u5c40\u5ef6\u5ca1\u5de5\u4e8b\u4e8b\u52d9\u6240","boring_xml_url":49,"boring_view_url":1,"soilmap_view_url":null,"soiltest_xml_url":0,"soiltest_view_url":0},{"id":207777,"code":"B4KJ201801009-6026","latitude":"32.732661","longitude":"131.274603","source_code":"QS20098985790200160593","project_name":"","survey_name":"\u7c73\u7cf8\u30c0\u30e0\u5730\u8cea\u8abf\u67fb\u696d\u52d9","client_name":"\u5efa\u8a2d\u7701\u4e5d\u5dde\u5730\u65b9\u5efa\u8a2d\u5c40\u5ef6\u5ca1\u5de5\u4e8b\u4e8b\u52d9\u6240","boring_xml_url":49,"boring_view_url":1,"soilmap_view_url":null,"soiltest_xml_url":0,"soiltest_view_url":0},{"id":207776,"code":"B4KJ201801009-6025","latitude":"32.73265","longitude":"131.274586","source_code":"QS20098985790200160592","project_name":"","survey_name":"\u7c73\u7cf8\u30c0\u30e0\u5730\u8cea\u8abf\u67fb","client_name":"\u5efa\u8a2d\u7701\u4e5d\u5dde\u5730\u65b9\u5efa\u8a2d\u5c40\u5ef6\u5ca1\u5de5\u4e8b\u4e8b\u52d9\u6240","boring_xml_url":49,"boring_view_url":1,"soilmap_view_url":null,"soiltest_xml_url":0,"soiltest_view_url":0}]}}