{"header":{"xyz":{"source":[],"mosaic":false},"page":3763,"raw":{"soiltest_result":"0","bbox":"57.598333,109.544722,1.933333,163.806111","page":"3763"},"conditions":{"soiltest_result":0,"north":57.598333,"west":109.544722,"south":1.933333,"east":163.806111},"success":true,"message":""},"data":{"meta":{"total":212844,"page":3763,"pages":7095,"count":30},"values":[{"id":207685,"code":"B4KJ201801009-5934","latitude":"31.94778","longitude":"131.40625","source_code":"QS20098985790200160496","project_name":"\u74dc\u751f\u91ce\u5730\u533a\u7b49\u5730\u8cea\u8abf\u67fb\u696d\u52d9","survey_name":"\u74dc\u751f\u91ce\u5730\u533a\u7b49\u5730\u8cea\u8abf\u67fb\u696d\u52d9","client_name":"\u56fd\u571f\u4ea4\u901a\u7701\u4e5d\u5dde\u5730\u65b9\u6574\u5099\u5c40\u5bae\u5d0e\u6cb3\u5ddd\u56fd\u9053\u4e8b\u52d9\u6240","boring_xml_url":49,"boring_view_url":1,"soilmap_view_url":null,"soiltest_xml_url":52,"soiltest_view_url":52},{"id":207684,"code":"B4KJ201801009-5933","latitude":"32.00219","longitude":"131.33853","source_code":"QS20098985790200160495","project_name":"\u74dc\u751f\u91ce\u5730\u533a\u7b49\u5730\u8cea\u8abf\u67fb\u696d\u52d9","survey_name":"\u74dc\u751f\u91ce\u5730\u533a\u7b49\u5730\u8cea\u8abf\u67fb\u696d\u52d9","client_name":"\u56fd\u571f\u4ea4\u901a\u7701\u4e5d\u5dde\u5730\u65b9\u6574\u5099\u5c40\u5bae\u5d0e\u6cb3\u5ddd\u56fd\u9053\u4e8b\u52d9\u6240","boring_xml_url":49,"boring_view_url":1,"soilmap_view_url":null,"soiltest_xml_url":0,"soiltest_view_url":0},{"id":207683,"code":"B4KJ201801009-5932","latitude":"32.00219","longitude":"131.33853","source_code":"QS20098985790200160494","project_name":"\u74dc\u751f\u91ce\u5730\u533a\u7b49\u5730\u8cea\u8abf\u67fb\u696d\u52d9","survey_name":"\u74dc\u751f\u91ce\u5730\u533a\u7b49\u5730\u8cea\u8abf\u67fb\u696d\u52d9","client_name":"\u56fd\u571f\u4ea4\u901a\u7701\u4e5d\u5dde\u5730\u65b9\u6574\u5099\u5c40\u5bae\u5d0e\u6cb3\u5ddd\u56fd\u9053\u4e8b\u52d9\u6240","boring_xml_url":49,"boring_view_url":1,"soilmap_view_url":null,"soiltest_xml_url":52,"soiltest_view_url":52},{"id":207682,"code":"B4KJ201801009-5931","latitude":"32.00186","longitude":"131.33861","source_code":"QS20098985790200160493","project_name":"\u74dc\u751f\u91ce\u5730\u533a\u7b49\u5730\u8cea\u8abf\u67fb\u696d\u52d9","survey_name":"\u74dc\u751f\u91ce\u5730\u533a\u7b49\u5730\u8cea\u8abf\u67fb\u696d\u52d9","client_name":"\u56fd\u571f\u4ea4\u901a\u7701\u4e5d\u5dde\u5730\u65b9\u6574\u5099\u5c40\u5bae\u5d0e\u6cb3\u5ddd\u56fd\u9053\u4e8b\u52d9\u6240","boring_xml_url":49,"boring_view_url":1,"soilmap_view_url":null,"soiltest_xml_url":0,"soiltest_view_url":0},{"id":207681,"code":"B4KJ201801009-5930","latitude":"32.00186","longitude":"131.33861","source_code":"QS20098985790200160492","project_name":"\u74dc\u751f\u91ce\u5730\u533a\u7b49\u5730\u8cea\u8abf\u67fb\u696d\u52d9","survey_name":"\u74dc\u751f\u91ce\u5730\u533a\u7b49\u5730\u8cea\u8abf\u67fb\u696d\u52d9","client_name":"\u56fd\u571f\u4ea4\u901a\u7701\u4e5d\u5dde\u5730\u65b9\u6574\u5099\u5c40\u5bae\u5d0e\u6cb3\u5ddd\u56fd\u9053\u4e8b\u52d9\u6240","boring_xml_url":49,"boring_view_url":1,"soilmap_view_url":null,"soiltest_xml_url":52,"soiltest_view_url":52},{"id":207680,"code":"B4KJ201801009-5929","latitude":"31.95892","longitude":"131.39422","source_code":"QS20098985790200160491","project_name":"\u74dc\u751f\u91ce\u5730\u533a\u7b49\u5730\u8cea\u8abf\u67fb\u696d\u52d9","survey_name":"\u74dc\u751f\u91ce\u5730\u533a\u7b49\u5730\u8cea\u8abf\u67fb\u696d\u52d9","client_name":"\u56fd\u571f\u4ea4\u901a\u7701\u4e5d\u5dde\u5730\u65b9\u6574\u5099\u5c40\u5bae\u5d0e\u6cb3\u5ddd\u56fd\u9053\u4e8b\u52d9\u6240","boring_xml_url":49,"boring_view_url":1,"soilmap_view_url":null,"soiltest_xml_url":0,"soiltest_view_url":0},{"id":207679,"code":"B4KJ201801009-5928","latitude":"31.95892","longitude":"131.39422","source_code":"QS20098985790200160490","project_name":"\u74dc\u751f\u91ce\u5730\u533a\u7b49\u5730\u8cea\u8abf\u67fb\u696d\u52d9","survey_name":"\u74dc\u751f\u91ce\u5730\u533a\u7b49\u5730\u8cea\u8abf\u67fb\u696d\u52d9","client_name":"\u56fd\u571f\u4ea4\u901a\u7701\u4e5d\u5dde\u5730\u65b9\u6574\u5099\u5c40\u5bae\u5d0e\u6cb3\u5ddd\u56fd\u9053\u4e8b\u52d9\u6240","boring_xml_url":49,"boring_view_url":1,"soilmap_view_url":null,"soiltest_xml_url":52,"soiltest_view_url":52},{"id":207678,"code":"B4KJ201801009-5927","latitude":"31.95903","longitude":"131.39433","source_code":"QS20098985790200160489","project_name":"\u74dc\u751f\u91ce\u5730\u533a\u7b49\u5730\u8cea\u8abf\u67fb\u696d\u52d9","survey_name":"\u74dc\u751f\u91ce\u5730\u533a\u7b49\u5730\u8cea\u8abf\u67fb\u696d\u52d9","client_name":"\u56fd\u571f\u4ea4\u901a\u7701\u4e5d\u5dde\u5730\u65b9\u6574\u5099\u5c40\u5bae\u5d0e\u6cb3\u5ddd\u56fd\u9053\u4e8b\u52d9\u6240","boring_xml_url":49,"boring_view_url":1,"soilmap_view_url":null,"soiltest_xml_url":0,"soiltest_view_url":0},{"id":207677,"code":"B4KJ201801009-5926","latitude":"31.95903","longitude":"131.39433","source_code":"QS20098985790200160488","project_name":"\u74dc\u751f\u91ce\u5730\u533a\u7b49\u5730\u8cea\u8abf\u67fb\u696d\u52d9","survey_name":"\u74dc\u751f\u91ce\u5730\u533a\u7b49\u5730\u8cea\u8abf\u67fb\u696d\u52d9","client_name":"\u56fd\u571f\u4ea4\u901a\u7701\u4e5d\u5dde\u5730\u65b9\u6574\u5099\u5c40\u5bae\u5d0e\u6cb3\u5ddd\u56fd\u9053\u4e8b\u52d9\u6240","boring_xml_url":49,"boring_view_url":1,"soilmap_view_url":null,"soiltest_xml_url":52,"soiltest_view_url":52},{"id":207676,"code":"B4KJ201801009-5925","latitude":"31.95911","longitude":"131.39442","source_code":"QS20098985790200160487","project_name":"\u74dc\u751f\u91ce\u5730\u533a\u7b49\u5730\u8cea\u8abf\u67fb\u696d\u52d9","survey_name":"\u74dc\u751f\u91ce\u5730\u533a\u7b49\u5730\u8cea\u8abf\u67fb\u696d\u52d9","client_name":"\u56fd\u571f\u4ea4\u901a\u7701\u4e5d\u5dde\u5730\u65b9\u6574\u5099\u5c40\u5bae\u5d0e\u6cb3\u5ddd\u56fd\u9053\u4e8b\u52d9\u6240","boring_xml_url":49,"boring_view_url":1,"soilmap_view_url":null,"soiltest_xml_url":0,"soiltest_view_url":0},{"id":207675,"code":"B4KJ201801009-5924","latitude":"31.95911","longitude":"131.39442","source_code":"QS20098985790200160486","project_name":"\u74dc\u751f\u91ce\u5730\u533a\u7b49\u5730\u8cea\u8abf\u67fb\u696d\u52d9","survey_name":"\u74dc\u751f\u91ce\u5730\u533a\u7b49\u5730\u8cea\u8abf\u67fb\u696d\u52d9","client_name":"\u56fd\u571f\u4ea4\u901a\u7701\u4e5d\u5dde\u5730\u65b9\u6574\u5099\u5c40\u5bae\u5d0e\u6cb3\u5ddd\u56fd\u9053\u4e8b\u52d9\u6240","boring_xml_url":49,"boring_view_url":1,"soilmap_view_url":null,"soiltest_xml_url":52,"soiltest_view_url":52},{"id":207674,"code":"B4KJ201801009-5923","latitude":"31.94667","longitude":"131.28544","source_code":"QS20098985790200160485","project_name":"","survey_name":"\u6960\u898b\u5730\u533a\u7b49\u5730\u8cea\u8abf\u67fb\u696d\u52d9","client_name":"\u56fd\u571f\u4ea4\u901a\u7701\u4e5d\u5dde\u5730\u65b9\u6574\u5099\u5c40\u5bae\u5d0e\u6cb3\u5ddd\u56fd\u9053\u4e8b\u52d9\u6240","boring_xml_url":49,"boring_view_url":1,"soilmap_view_url":null,"soiltest_xml_url":0,"soiltest_view_url":0},{"id":207673,"code":"B4KJ201801009-5922","latitude":"31.96083","longitude":"131.40661","source_code":"QS20098985790200160484","project_name":"","survey_name":"\u6960\u898b\u5730\u533a\u7b49\u5730\u8cea\u8abf\u67fb\u696d\u52d9","client_name":"\u56fd\u571f\u4ea4\u901a\u7701\u4e5d\u5dde\u5730\u65b9\u6574\u5099\u5c40\u5bae\u5d0e\u6cb3\u5ddd\u56fd\u9053\u4e8b\u52d9\u6240","boring_xml_url":49,"boring_view_url":1,"soilmap_view_url":null,"soiltest_xml_url":0,"soiltest_view_url":0},{"id":207672,"code":"B4KJ201801009-5921","latitude":"31.96136","longitude":"131.38964","source_code":"QS20098985790200160483","project_name":"","survey_name":"\u6960\u898b\u5730\u533a\u7b49\u5730\u8cea\u8abf\u67fb\u696d\u52d9","client_name":"\u56fd\u571f\u4ea4\u901a\u7701\u4e5d\u5dde\u5730\u65b9\u6574\u5099\u5c40\u5bae\u5d0e\u6cb3\u5ddd\u56fd\u9053\u4e8b\u52d9\u6240","boring_xml_url":49,"boring_view_url":1,"soilmap_view_url":null,"soiltest_xml_url":0,"soiltest_view_url":0},{"id":207671,"code":"B4KJ201801009-5920","latitude":"31.96108","longitude":"131.38883","source_code":"QS20098985790200160482","project_name":"","survey_name":"\u6960\u898b\u5730\u533a\u7b49\u5730\u8cea\u8abf\u67fb\u696d\u52d9","client_name":"\u56fd\u571f\u4ea4\u901a\u7701\u4e5d\u5dde\u5730\u65b9\u6574\u5099\u5c40\u5bae\u5d0e\u6cb3\u5ddd\u56fd\u9053\u4e8b\u52d9\u6240","boring_xml_url":49,"boring_view_url":1,"soilmap_view_url":null,"soiltest_xml_url":0,"soiltest_view_url":0},{"id":207670,"code":"B4KJ201801009-5919","latitude":"31.9817092","longitude":"131.3459039","source_code":"QS20098985790200160481","project_name":"","survey_name":"\u6960\u898b\u5730\u533a\u7b49\u5730\u8cea\u8abf\u67fb\u696d\u52d9","client_name":"\u56fd\u571f\u4ea4\u901a\u7701\u4e5d\u5dde\u5730\u65b9\u6574\u5099\u5c40\u5bae\u5d0e\u6cb3\u5ddd\u56fd\u9053\u4e8b\u52d9\u6240","boring_xml_url":49,"boring_view_url":1,"soilmap_view_url":null,"soiltest_xml_url":0,"soiltest_view_url":0},{"id":207669,"code":"B4KJ201801009-5918","latitude":"31.97825","longitude":"131.34856","source_code":"QS20098985790200160480","project_name":"","survey_name":"\u6960\u898b\u5730\u533a\u7b49\u5730\u8cea\u8abf\u67fb\u696d\u52d9","client_name":"\u56fd\u571f\u4ea4\u901a\u7701\u4e5d\u5dde\u5730\u65b9\u6574\u5099\u5c40\u5bae\u5d0e\u6cb3\u5ddd\u56fd\u9053\u4e8b\u52d9\u6240","boring_xml_url":49,"boring_view_url":1,"soilmap_view_url":null,"soiltest_xml_url":0,"soiltest_view_url":0},{"id":207668,"code":"B4KJ201801009-5917","latitude":"31.97772","longitude":"131.33836","source_code":"QS20098985790200160479","project_name":"","survey_name":"\u6960\u898b\u5730\u533a\u7b49\u5730\u8cea\u8abf\u67fb\u696d\u52d9","client_name":"\u56fd\u571f\u4ea4\u901a\u7701\u4e5d\u5dde\u5730\u65b9\u6574\u5099\u5c40\u5bae\u5d0e\u6cb3\u5ddd\u56fd\u9053\u4e8b\u52d9\u6240","boring_xml_url":49,"boring_view_url":1,"soilmap_view_url":null,"soiltest_xml_url":0,"soiltest_view_url":0},{"id":207667,"code":"B4KJ201801009-5916","latitude":"31.9781","longitude":"131.3383","source_code":"QS20098985790200160478","project_name":"","survey_name":"\u6960\u898b\u5730\u533a\u7b49\u5730\u8cea\u8abf\u67fb\u696d\u52d9","client_name":"\u56fd\u571f\u4ea4\u901a\u7701\u4e5d\u5dde\u5730\u65b9\u6574\u5099\u5c40\u5bae\u5d0e\u6cb3\u5ddd\u56fd\u9053\u4e8b\u52d9\u6240","boring_xml_url":49,"boring_view_url":1,"soilmap_view_url":null,"soiltest_xml_url":0,"soiltest_view_url":0},{"id":207666,"code":"B4KJ201801009-5915","latitude":"31.9781","longitude":"131.3383","source_code":"QS20098985790200160477","project_name":"","survey_name":"\u6960\u898b\u5730\u533a\u7b49\u5730\u8cea\u8abf\u67fb\u696d\u52d9","client_name":"\u56fd\u571f\u4ea4\u901a\u7701\u4e5d\u5dde\u5730\u65b9\u6574\u5099\u5c40\u5bae\u5d0e\u6cb3\u5ddd\u56fd\u9053\u4e8b\u52d9\u6240","boring_xml_url":49,"boring_view_url":1,"soilmap_view_url":null,"soiltest_xml_url":52,"soiltest_view_url":52},{"id":207665,"code":"B4KJ201801009-5914","latitude":"31.97886","longitude":"131.34347","source_code":"QS20098985790200160476","project_name":"","survey_name":"\u6960\u898b\u5730\u533a\u7b49\u5730\u8cea\u8abf\u67fb\u696d\u52d9","client_name":"\u56fd\u571f\u4ea4\u901a\u7701\u4e5d\u5dde\u5730\u65b9\u6574\u5099\u5c40\u5bae\u5d0e\u6cb3\u5ddd\u56fd\u9053\u4e8b\u52d9\u6240","boring_xml_url":49,"boring_view_url":1,"soilmap_view_url":null,"soiltest_xml_url":0,"soiltest_view_url":0},{"id":207664,"code":"B4KJ201801009-5913","latitude":"31.97886","longitude":"131.34347","source_code":"QS20098985790200160475","project_name":"","survey_name":"\u6960\u898b\u5730\u533a\u7b49\u5730\u8cea\u8abf\u67fb\u696d\u52d9","client_name":"\u56fd\u571f\u4ea4\u901a\u7701\u4e5d\u5dde\u5730\u65b9\u6574\u5099\u5c40\u5bae\u5d0e\u6cb3\u5ddd\u56fd\u9053\u4e8b\u52d9\u6240","boring_xml_url":49,"boring_view_url":1,"soilmap_view_url":null,"soiltest_xml_url":52,"soiltest_view_url":52},{"id":207663,"code":"B4KJ201801009-5912","latitude":"31.94589","longitude":"131.28922","source_code":"QS20098985790200160474","project_name":"","survey_name":"\u6960\u898b\u5730\u533a\u7b49\u5730\u8cea\u8abf\u67fb\u696d\u52d9","client_name":"\u56fd\u571f\u4ea4\u901a\u7701\u4e5d\u5dde\u5730\u65b9\u6574\u5099\u5c40\u5bae\u5d0e\u6cb3\u5ddd\u56fd\u9053\u4e8b\u52d9\u6240","boring_xml_url":49,"boring_view_url":1,"soilmap_view_url":null,"soiltest_xml_url":0,"soiltest_view_url":0},{"id":207662,"code":"B4KJ201801009-5911","latitude":"31.94486","longitude":"131.28678","source_code":"QS20098985790200160473","project_name":"","survey_name":"\u6960\u898b\u5730\u533a\u7b49\u5730\u8cea\u8abf\u67fb\u696d\u52d9","client_name":"\u56fd\u571f\u4ea4\u901a\u7701\u4e5d\u5dde\u5730\u65b9\u6574\u5099\u5c40\u5bae\u5d0e\u6cb3\u5ddd\u56fd\u9053\u4e8b\u52d9\u6240","boring_xml_url":49,"boring_view_url":1,"soilmap_view_url":null,"soiltest_xml_url":0,"soiltest_view_url":0},{"id":207661,"code":"B4KJ201801009-5910","latitude":"31.94344","longitude":"131.28931","source_code":"QS20098985790200160472","project_name":"","survey_name":"\u6960\u898b\u5730\u533a\u7b49\u5730\u8cea\u8abf\u67fb\u696d\u52d9","client_name":"\u56fd\u571f\u4ea4\u901a\u7701\u4e5d\u5dde\u5730\u65b9\u6574\u5099\u5c40\u5bae\u5d0e\u6cb3\u5ddd\u56fd\u9053\u4e8b\u52d9\u6240","boring_xml_url":49,"boring_view_url":1,"soilmap_view_url":null,"soiltest_xml_url":0,"soiltest_view_url":0},{"id":207660,"code":"B4KJ201801009-5909","latitude":"31.94414","longitude":"131.28881","source_code":"QS20098985790200160471","project_name":"","survey_name":"\u6960\u898b\u5730\u533a\u7b49\u5730\u8cea\u8abf\u67fb\u696d\u52d9","client_name":"\u56fd\u571f\u4ea4\u901a\u7701\u4e5d\u5dde\u5730\u65b9\u6574\u5099\u5c40\u5bae\u5d0e\u6cb3\u5ddd\u56fd\u9053\u4e8b\u52d9\u6240","boring_xml_url":49,"boring_view_url":1,"soilmap_view_url":null,"soiltest_xml_url":52,"soiltest_view_url":52},{"id":207659,"code":"B4KJ201801009-5908","latitude":"31.94447","longitude":"131.28842","source_code":"QS20098985790200160470","project_name":"","survey_name":"\u6960\u898b\u5730\u533a\u7b49\u5730\u8cea\u8abf\u67fb\u696d\u52d9","client_name":"\u56fd\u571f\u4ea4\u901a\u7701\u4e5d\u5dde\u5730\u65b9\u6574\u5099\u5c40\u5bae\u5d0e\u6cb3\u5ddd\u56fd\u9053\u4e8b\u52d9\u6240","boring_xml_url":49,"boring_view_url":1,"soilmap_view_url":null,"soiltest_xml_url":52,"soiltest_view_url":52},{"id":207658,"code":"B4KJ201801009-5907","latitude":"31.94464","longitude":"131.28869","source_code":"QS20098985790200160469","project_name":"","survey_name":"\u6960\u898b\u5730\u533a\u7b49\u5730\u8cea\u8abf\u67fb\u696d\u52d9","client_name":"\u56fd\u571f\u4ea4\u901a\u7701\u4e5d\u5dde\u5730\u65b9\u6574\u5099\u5c40\u5bae\u5d0e\u6cb3\u5ddd\u56fd\u9053\u4e8b\u52d9\u6240","boring_xml_url":49,"boring_view_url":1,"soilmap_view_url":null,"soiltest_xml_url":0,"soiltest_view_url":0},{"id":207657,"code":"B4KJ201801009-5906","latitude":"31.94517","longitude":"131.28847","source_code":"QS20098985790200160468","project_name":"","survey_name":"\u6960\u898b\u5730\u533a\u7b49\u5730\u8cea\u8abf\u67fb\u696d\u52d9","client_name":"\u56fd\u571f\u4ea4\u901a\u7701\u4e5d\u5dde\u5730\u65b9\u6574\u5099\u5c40\u5bae\u5d0e\u6cb3\u5ddd\u56fd\u9053\u4e8b\u52d9\u6240","boring_xml_url":49,"boring_view_url":1,"soilmap_view_url":null,"soiltest_xml_url":0,"soiltest_view_url":0},{"id":207656,"code":"B4KJ201801009-5905","latitude":"31.94556","longitude":"131.28828","source_code":"QS20098985790200160467","project_name":"","survey_name":"\u6960\u898b\u5730\u533a\u7b49\u5730\u8cea\u8abf\u67fb\u696d\u52d9","client_name":"\u56fd\u571f\u4ea4\u901a\u7701\u4e5d\u5dde\u5730\u65b9\u6574\u5099\u5c40\u5bae\u5d0e\u6cb3\u5ddd\u56fd\u9053\u4e8b\u52d9\u6240","boring_xml_url":49,"boring_view_url":1,"soilmap_view_url":null,"soiltest_xml_url":0,"soiltest_view_url":0}]}}