{"header":{"xyz":{"source":[],"mosaic":false},"page":3765,"raw":{"soiltest_result":"0","bbox":"57.598333,109.544722,1.933333,163.806111","page":"3765"},"conditions":{"soiltest_result":0,"north":57.598333,"west":109.544722,"south":1.933333,"east":163.806111},"success":true,"message":""},"data":{"meta":{"total":212844,"page":3765,"pages":7095,"count":30},"values":[{"id":207625,"code":"B4KJ201801009-5874","latitude":"31.9483","longitude":"131.2653","source_code":"QS20098985790200160436","project_name":"\u74dc\u7530\u5730\u533a\u7b49\u5730\u8cea\u8abf\u67fb\u696d\u52d9","survey_name":"\u74dc\u7530\u5730\u533a\u7b49\u5730\u8cea\u8abf\u67fb\u696d\u52d9","client_name":"\u56fd\u571f\u4ea4\u901a\u7701\u4e5d\u5dde\u5730\u65b9\u6574\u5099\u5c40\u5bae\u5d0e\u6cb3\u5ddd\u56fd\u9053\u4e8b\u52d9\u6240","boring_xml_url":49,"boring_view_url":1,"soilmap_view_url":null,"soiltest_xml_url":52,"soiltest_view_url":52},{"id":207624,"code":"B4KJ201801009-5873","latitude":"31.9494","longitude":"131.2664","source_code":"QS20098985790200160435","project_name":"\u74dc\u7530\u5730\u533a\u7b49\u5730\u8cea\u8abf\u67fb\u696d\u52d9","survey_name":"\u74dc\u7530\u5730\u533a\u7b49\u5730\u8cea\u8abf\u67fb\u696d\u52d9","client_name":"\u56fd\u571f\u4ea4\u901a\u7701\u4e5d\u5dde\u5730\u65b9\u6574\u5099\u5c40\u5bae\u5d0e\u6cb3\u5ddd\u56fd\u9053\u4e8b\u52d9\u6240","boring_xml_url":49,"boring_view_url":1,"soilmap_view_url":null,"soiltest_xml_url":0,"soiltest_view_url":0},{"id":207623,"code":"B4KJ201801009-5872","latitude":"31.9394","longitude":"131.3358","source_code":"QS20098985790200160434","project_name":"\u74dc\u7530\u5730\u533a\u7b49\u5730\u8cea\u8abf\u67fb\u696d\u52d9","survey_name":"\u74dc\u7530\u5730\u533a\u7b49\u5730\u8cea\u8abf\u67fb\u696d\u52d9","client_name":"\u56fd\u571f\u4ea4\u901a\u7701\u4e5d\u5dde\u5730\u65b9\u6574\u5099\u5c40\u5bae\u5d0e\u6cb3\u5ddd\u56fd\u9053\u4e8b\u52d9\u6240","boring_xml_url":49,"boring_view_url":1,"soilmap_view_url":null,"soiltest_xml_url":52,"soiltest_view_url":52},{"id":207622,"code":"B4KJ201801009-5871","latitude":"31.718422","longitude":"131.053483","source_code":"QS20098985790200160433","project_name":"","survey_name":"\u59eb\u57ce\u5ddd\u6392\u6c34\u6a5f\u5834\u5730\u8cea\u8abf\u67fb\u696d\u52d9","client_name":"\u56fd\u571f\u4ea4\u901a\u7701\u4e5d\u5dde\u5730\u65b9\u6574\u5099\u5c40\u5bae\u5d0e\u5de5\u4e8b\u4e8b\u52d9\u6240","boring_xml_url":49,"boring_view_url":1,"soilmap_view_url":null,"soiltest_xml_url":52,"soiltest_view_url":52},{"id":207621,"code":"B4KJ201801009-5870","latitude":"31.718258","longitude":"131.053289","source_code":"QS20098985790200160432","project_name":"","survey_name":"\u59eb\u57ce\u5ddd\u6392\u6c34\u6a5f\u5834\u5730\u8cea\u8abf\u67fb\u696d\u52d9","client_name":"\u56fd\u571f\u4ea4\u901a\u7701\u4e5d\u5dde\u5730\u65b9\u6574\u5099\u5c40\u5bae\u5d0e\u5de5\u4e8b\u4e8b\u52d9\u6240","boring_xml_url":49,"boring_view_url":1,"soilmap_view_url":null,"soiltest_xml_url":52,"soiltest_view_url":52},{"id":207620,"code":"B4KJ201801009-5869","latitude":"31.718475","longitude":"131.053242","source_code":"QS20098985790200160431","project_name":"","survey_name":"\u59eb\u57ce\u5ddd\u6392\u6c34\u6a5f\u5834\u5730\u8cea\u8abf\u67fb\u696d\u52d9","client_name":"\u56fd\u571f\u4ea4\u901a\u7701\u4e5d\u5dde\u5730\u65b9\u6574\u5099\u5c40\u5bae\u5d0e\u5de5\u4e8b\u4e8b\u52d9\u6240","boring_xml_url":49,"boring_view_url":1,"soilmap_view_url":null,"soiltest_xml_url":52,"soiltest_view_url":52},{"id":207619,"code":"B4KJ201801009-5868","latitude":"31.915378","longitude":"130.949625","source_code":"QS20098985790200160430","project_name":"","survey_name":"\u5927\u5e61\u7b2c9\u7802\u9632\u30c0\u30e0\u5730\u8cea\u8abf\u67fb\u696d\u52d9","client_name":"\u56fd\u571f\u4ea4\u901a\u7701\u4e5d\u5dde\u5730\u65b9\u6574\u5099\u5c40\u5bae\u5d0e\u5de5\u4e8b\u4e8b\u52d9\u6240","boring_xml_url":49,"boring_view_url":1,"soilmap_view_url":null,"soiltest_xml_url":0,"soiltest_view_url":0},{"id":207618,"code":"B4KJ201801009-5867","latitude":"31.915256","longitude":"130.949547","source_code":"QS20098985790200160429","project_name":"","survey_name":"\u5927\u5e61\u7b2c9\u7802\u9632\u30c0\u30e0\u5730\u8cea\u8abf\u67fb\u696d\u52d9","client_name":"\u56fd\u571f\u4ea4\u901a\u7701\u4e5d\u5dde\u5730\u65b9\u6574\u5099\u5c40\u5bae\u5d0e\u5de5\u4e8b\u4e8b\u52d9\u6240","boring_xml_url":49,"boring_view_url":1,"soilmap_view_url":null,"soiltest_xml_url":0,"soiltest_view_url":0},{"id":207617,"code":"B4KJ201801009-5866","latitude":"31.915592","longitude":"130.949489","source_code":"QS20098985790200160428","project_name":"","survey_name":"\u5927\u5e61\u7b2c9\u7802\u9632\u30c0\u30e0\u5730\u8cea\u8abf\u67fb\u696d\u52d9","client_name":"\u56fd\u571f\u4ea4\u901a\u7701\u4e5d\u5dde\u5730\u65b9\u6574\u5099\u5c40\u5bae\u5d0e\u5de5\u4e8b\u4e8b\u52d9\u6240","boring_xml_url":49,"boring_view_url":1,"soilmap_view_url":null,"soiltest_xml_url":0,"soiltest_view_url":0},{"id":207616,"code":"B4KJ201801009-5865","latitude":"31.915489","longitude":"130.949411","source_code":"QS20098985790200160427","project_name":"","survey_name":"\u5927\u5e61\u7b2c9\u7802\u9632\u30c0\u30e0\u5730\u8cea\u8abf\u67fb\u696d\u52d9","client_name":"\u56fd\u571f\u4ea4\u901a\u7701\u4e5d\u5dde\u5730\u65b9\u6574\u5099\u5c40\u5bae\u5d0e\u5de5\u4e8b\u4e8b\u52d9\u6240","boring_xml_url":49,"boring_view_url":1,"soilmap_view_url":null,"soiltest_xml_url":0,"soiltest_view_url":0},{"id":207615,"code":"B4KJ201801009-5864","latitude":"31.915289","longitude":"130.949286","source_code":"QS20098985790200160426","project_name":"","survey_name":"\u5927\u5e61\u7b2c9\u7802\u9632\u30c0\u30e0\u5730\u8cea\u8abf\u67fb\u696d\u52d9","client_name":"\u56fd\u571f\u4ea4\u901a\u7701\u4e5d\u5dde\u5730\u65b9\u6574\u5099\u5c40\u5bae\u5d0e\u5de5\u4e8b\u4e8b\u52d9\u6240","boring_xml_url":49,"boring_view_url":1,"soilmap_view_url":null,"soiltest_xml_url":0,"soiltest_view_url":0},{"id":207614,"code":"B4KJ201801009-5863","latitude":"31.845139","longitude":"131.044036","source_code":"QS20098985790200160425","project_name":"","survey_name":"\u5927\u5e61\u7b2c4\u7802\u9632\u30c0\u30e0\u5730\u8cea\u8abf\u67fb\u696d\u52d9","client_name":"\u5efa\u8a2d\u7701\u4e5d\u5dde\u5730\u65b9\u5efa\u8a2d\u5c40\u5bae\u5d0e\u5de5\u4e8b\u4e8b\u52d9\u6240","boring_xml_url":49,"boring_view_url":1,"soilmap_view_url":null,"soiltest_xml_url":0,"soiltest_view_url":0},{"id":207613,"code":"B4KJ201801009-5862","latitude":"31.916425","longitude":"130.946981","source_code":"QS20098985790200160424","project_name":"","survey_name":"\u5927\u5e61\u7b2c4\u7802\u9632\u30c0\u30e0\u5730\u8cea\u8abf\u67fb\u696d\u52d9","client_name":"\u5efa\u8a2d\u7701\u4e5d\u5dde\u5730\u65b9\u5efa\u8a2d\u5c40\u5bae\u5d0e\u5de5\u4e8b\u4e8b\u52d9\u6240","boring_xml_url":49,"boring_view_url":1,"soilmap_view_url":null,"soiltest_xml_url":0,"soiltest_view_url":0},{"id":207612,"code":"B4KJ201801009-5861","latitude":"31.916597","longitude":"130.946933","source_code":"QS20098985790200160423","project_name":"","survey_name":"\u5927\u5e61\u7b2c4\u7802\u9632\u30c0\u30e0\u5730\u8cea\u8abf\u67fb\u696d\u52d9","client_name":"\u5efa\u8a2d\u7701\u4e5d\u5dde\u5730\u65b9\u5efa\u8a2d\u5c40\u5bae\u5d0e\u5de5\u4e8b\u4e8b\u52d9\u6240","boring_xml_url":49,"boring_view_url":1,"soilmap_view_url":null,"soiltest_xml_url":0,"soiltest_view_url":0},{"id":207611,"code":"B4KJ201801009-5860","latitude":"31.916475","longitude":"130.946886","source_code":"QS20098985790200160422","project_name":"","survey_name":"\u5927\u5e61\u7b2c4\u7802\u9632\u30c0\u30e0\u5730\u8cea\u8abf\u67fb\u696d\u52d9","client_name":"\u5efa\u8a2d\u7701\u4e5d\u5dde\u5730\u65b9\u5efa\u8a2d\u5c40\u5bae\u5d0e\u5de5\u4e8b\u4e8b\u52d9\u6240","boring_xml_url":49,"boring_view_url":1,"soilmap_view_url":null,"soiltest_xml_url":0,"soiltest_view_url":0},{"id":207610,"code":"B4KJ201801009-5859","latitude":"31.916381","longitude":"130.946825","source_code":"QS20098985790200160421","project_name":"","survey_name":"\u5927\u5e61\u7b2c4\u7802\u9632\u30c0\u30e0\u5730\u8cea\u8abf\u67fb\u696d\u52d9","client_name":"\u5efa\u8a2d\u7701\u4e5d\u5dde\u5730\u65b9\u5efa\u8a2d\u5c40\u5bae\u5d0e\u5de5\u4e8b\u4e8b\u52d9\u6240","boring_xml_url":49,"boring_view_url":1,"soilmap_view_url":null,"soiltest_xml_url":0,"soiltest_view_url":0},{"id":207609,"code":"B4KJ201801009-5858","latitude":"31.916761","longitude":"130.946647","source_code":"QS20098985790200160420","project_name":"","survey_name":"\u5927\u5e61\u7b2c4\u7802\u9632\u30c0\u30e0\u5730\u8cea\u8abf\u67fb\u696d\u52d9","client_name":"\u5efa\u8a2d\u7701\u4e5d\u5dde\u5730\u65b9\u5efa\u8a2d\u5c40\u5bae\u5d0e\u5de5\u4e8b\u4e8b\u52d9\u6240","boring_xml_url":49,"boring_view_url":1,"soilmap_view_url":null,"soiltest_xml_url":0,"soiltest_view_url":0},{"id":207608,"code":"B4KJ201801009-5857","latitude":"31.916589","longitude":"130.946581","source_code":"QS20098985790200160419","project_name":"","survey_name":"\u5927\u5e61\u7b2c4\u7802\u9632\u30c0\u30e0\u5730\u8cea\u8abf\u67fb\u696d\u52d9","client_name":"\u5efa\u8a2d\u7701\u4e5d\u5dde\u5730\u65b9\u5efa\u8a2d\u5c40\u5bae\u5d0e\u5de5\u4e8b\u4e8b\u52d9\u6240","boring_xml_url":49,"boring_view_url":1,"soilmap_view_url":null,"soiltest_xml_url":0,"soiltest_view_url":0},{"id":207607,"code":"B4KJ201801009-5856","latitude":"31.916439","longitude":"130.946506","source_code":"QS20098985790200160418","project_name":"","survey_name":"\u5927\u5e61\u7b2c4\u7802\u9632\u30c0\u30e0\u5730\u8cea\u8abf\u67fb\u696d\u52d9","client_name":"\u5efa\u8a2d\u7701\u4e5d\u5dde\u5730\u65b9\u5efa\u8a2d\u5c40\u5bae\u5d0e\u5de5\u4e8b\u4e8b\u52d9\u6240","boring_xml_url":49,"boring_view_url":1,"soilmap_view_url":null,"soiltest_xml_url":0,"soiltest_view_url":0},{"id":207606,"code":"B4KJ201801009-5855","latitude":"31.905878","longitude":"130.925392","source_code":"QS20098985790200160417","project_name":"","survey_name":"\u77e2\u5cb3\u7b2c7\u53f7\u7802\u9632\u30c0\u30e0\u5730\u8cea\u8abf\u67fb\u696d\u52d9","client_name":"\u5efa\u8a2d\u7701\u4e5d\u5dde\u5730\u65b9\u5efa\u8a2d\u5c40\u5bae\u5d0e\u5de5\u4e8b\u4e8b\u52d9\u6240","boring_xml_url":49,"boring_view_url":1,"soilmap_view_url":null,"soiltest_xml_url":0,"soiltest_view_url":0},{"id":207605,"code":"B4KJ201801009-5854","latitude":"31.905997","longitude":"130.925567","source_code":"QS20098985790200160416","project_name":"","survey_name":"\u77e2\u5cb3\u7b2c7\u53f7\u7802\u9632\u30c0\u30e0\u5730\u8cea\u8abf\u67fb\u696d\u52d9","client_name":"\u5efa\u8a2d\u7701\u4e5d\u5dde\u5730\u65b9\u5efa\u8a2d\u5c40\u5bae\u5d0e\u5de5\u4e8b\u4e8b\u52d9\u6240","boring_xml_url":49,"boring_view_url":1,"soilmap_view_url":null,"soiltest_xml_url":0,"soiltest_view_url":0},{"id":207604,"code":"B4KJ201801009-5853","latitude":"31.906114","longitude":"130.925508","source_code":"QS20098985790200160415","project_name":"","survey_name":"\u77e2\u5cb3\u7b2c7\u53f7\u7802\u9632\u30c0\u30e0\u5730\u8cea\u8abf\u67fb\u696d\u52d9","client_name":"\u5efa\u8a2d\u7701\u4e5d\u5dde\u5730\u65b9\u5efa\u8a2d\u5c40\u5bae\u5d0e\u5de5\u4e8b\u4e8b\u52d9\u6240","boring_xml_url":49,"boring_view_url":1,"soilmap_view_url":null,"soiltest_xml_url":0,"soiltest_view_url":0},{"id":207603,"code":"B4KJ201801009-5852","latitude":"31.905789","longitude":"130.925403","source_code":"QS20098985790200160414","project_name":"","survey_name":"\u77e2\u5cb3\u7b2c7\u53f7\u7802\u9632\u30c0\u30e0\u5730\u8cea\u8abf\u67fb\u696d\u52d9","client_name":"\u5efa\u8a2d\u7701\u4e5d\u5dde\u5730\u65b9\u5efa\u8a2d\u5c40\u5bae\u5d0e\u5de5\u4e8b\u4e8b\u52d9\u6240","boring_xml_url":49,"boring_view_url":1,"soilmap_view_url":null,"soiltest_xml_url":0,"soiltest_view_url":0},{"id":207602,"code":"B4KJ201801009-5851","latitude":"31.905942","longitude":"130.925233","source_code":"QS20098985790200160413","project_name":"","survey_name":"\u77e2\u5cb3\u7b2c7\u53f7\u7802\u9632\u30c0\u30e0\u5730\u8cea\u8abf\u67fb\u696d\u52d9","client_name":"\u5efa\u8a2d\u7701\u4e5d\u5dde\u5730\u65b9\u5efa\u8a2d\u5c40\u5bae\u5d0e\u5de5\u4e8b\u4e8b\u52d9\u6240","boring_xml_url":49,"boring_view_url":1,"soilmap_view_url":null,"soiltest_xml_url":0,"soiltest_view_url":0},{"id":207601,"code":"B4KJ201801009-5850","latitude":"31.928767","longitude":"131.212953","source_code":"QS20098985790200160412","project_name":"","survey_name":"\u5927\u6dc0\u30c0\u30e0\u5730\u8cea\u8abf\u67fb\u696d\u52d9","client_name":"\u5efa\u8a2d\u7701\u4e5d\u5dde\u5730\u65b9\u5efa\u8a2d\u5c40\u5bae\u5d0e\u5de5\u4e8b\u4e8b\u52d9\u6240","boring_xml_url":49,"boring_view_url":1,"soilmap_view_url":null,"soiltest_xml_url":0,"soiltest_view_url":0},{"id":207600,"code":"B4KJ201801009-5849","latitude":"31.930603","longitude":"131.214314","source_code":"QS20098985790200160411","project_name":"","survey_name":"\u5927\u6dc0\u30c0\u30e0\u5730\u8cea\u8abf\u67fb\u696d\u52d9","client_name":"\u5efa\u8a2d\u7701\u4e5d\u5dde\u5730\u65b9\u5efa\u8a2d\u5c40\u5bae\u5d0e\u5de5\u4e8b\u4e8b\u52d9\u6240","boring_xml_url":49,"boring_view_url":1,"soilmap_view_url":null,"soiltest_xml_url":0,"soiltest_view_url":0},{"id":207599,"code":"B4KJ201801009-5848","latitude":"31.932317","longitude":"131.215542","source_code":"QS20098985790200160410","project_name":"","survey_name":"\u5927\u6dc0\u30c0\u30e0\u5730\u8cea\u8abf\u67fb\u696d\u52d9","client_name":"\u5efa\u8a2d\u7701\u4e5d\u5dde\u5730\u65b9\u5efa\u8a2d\u5c40\u5bae\u5d0e\u5de5\u4e8b\u4e8b\u52d9\u6240","boring_xml_url":49,"boring_view_url":1,"soilmap_view_url":null,"soiltest_xml_url":0,"soiltest_view_url":0},{"id":207598,"code":"B4KJ201801009-5847","latitude":"31.930778","longitude":"131.214961","source_code":"QS20098985790200160409","project_name":"","survey_name":"\u5927\u6dc0\u30c0\u30e0\u5730\u8cea\u8abf\u67fb\u696d\u52d9","client_name":"\u5efa\u8a2d\u7701\u4e5d\u5dde\u5730\u65b9\u5efa\u8a2d\u5c40\u5bae\u5d0e\u5de5\u4e8b\u4e8b\u52d9\u6240","boring_xml_url":49,"boring_view_url":1,"soilmap_view_url":null,"soiltest_xml_url":0,"soiltest_view_url":0},{"id":207597,"code":"B4KJ201801009-5846","latitude":"31.931128","longitude":"131.210678","source_code":"QS20098985790200160408","project_name":"","survey_name":"\u5927\u6dc0\u30c0\u30e0\u5730\u8cea\u8abf\u67fb\u696d\u52d9","client_name":"\u5efa\u8a2d\u7701\u4e5d\u5dde\u5730\u65b9\u5efa\u8a2d\u5c40\u5bae\u5d0e\u5de5\u4e8b\u4e8b\u52d9\u6240","boring_xml_url":49,"boring_view_url":1,"soilmap_view_url":null,"soiltest_xml_url":0,"soiltest_view_url":0},{"id":207596,"code":"B4KJ201801009-5845","latitude":"31.931497","longitude":"131.215314","source_code":"QS20098985790200160407","project_name":"","survey_name":"\u5927\u6dc0\u30c0\u30e0\u5730\u8cea\u8abf\u67fb\u696d\u52d9","client_name":"\u5efa\u8a2d\u7701\u4e5d\u5dde\u5730\u65b9\u5efa\u8a2d\u5c40\u5bae\u5d0e\u5de5\u4e8b\u4e8b\u52d9\u6240","boring_xml_url":49,"boring_view_url":1,"soilmap_view_url":null,"soiltest_xml_url":0,"soiltest_view_url":0}]}}