{"header":{"xyz":{"source":[],"mosaic":false},"page":3768,"raw":{"soiltest_result":"0","bbox":"57.598333,109.544722,1.933333,163.806111","page":"3768"},"conditions":{"soiltest_result":0,"north":57.598333,"west":109.544722,"south":1.933333,"east":163.806111},"success":true,"message":""},"data":{"meta":{"total":212844,"page":3768,"pages":7095,"count":30},"values":[{"id":207535,"code":"B4KJ201801009-5784","latitude":"31.557314","longitude":"130.660917","source_code":"QS20098985790200160346","project_name":"","survey_name":"\u7b2c\u4e00\u53e4\u91cc\u5ddd\u5730\u8cea\u8abf\u67fb\u696d\u52d9","client_name":"\u56fd\u571f\u4ea4\u901a\u7701\u4e5d\u5dde\u5730\u65b9\u6574\u5099\u5c40\u5927\u9685\u5de5\u4e8b\u4e8b\u52d9\u6240\u8abf\u67fb\u7b2c\u4e8c\u8ab2","boring_xml_url":49,"boring_view_url":1,"soilmap_view_url":null,"soiltest_xml_url":0,"soiltest_view_url":0},{"id":207534,"code":"B4KJ201801009-5783","latitude":"31.557242","longitude":"130.660839","source_code":"QS20098985790200160345","project_name":"","survey_name":"\u7b2c\u4e00\u53e4\u91cc\u5ddd\u5730\u8cea\u8abf\u67fb\u696d\u52d9","client_name":"\u56fd\u571f\u4ea4\u901a\u7701\u4e5d\u5dde\u5730\u65b9\u6574\u5099\u5c40\u5927\u9685\u5de5\u4e8b\u4e8b\u52d9\u6240\u8abf\u67fb\u7b2c\u4e8c\u8ab2","boring_xml_url":49,"boring_view_url":1,"soilmap_view_url":null,"soiltest_xml_url":0,"soiltest_view_url":0},{"id":207533,"code":"B4KJ201801009-5782","latitude":"31.557122","longitude":"130.660617","source_code":"QS20098985790200160344","project_name":"","survey_name":"\u7b2c\u4e00\u53e4\u91cc\u5ddd\u5730\u8cea\u8abf\u67fb\u696d\u52d9","client_name":"\u56fd\u571f\u4ea4\u901a\u7701\u4e5d\u5dde\u5730\u65b9\u6574\u5099\u5c40\u5927\u9685\u5de5\u4e8b\u4e8b\u52d9\u6240\u8abf\u67fb\u7b2c\u4e8c\u8ab2","boring_xml_url":49,"boring_view_url":1,"soilmap_view_url":null,"soiltest_xml_url":0,"soiltest_view_url":0},{"id":207532,"code":"B4KJ201801009-5781","latitude":"31.346358","longitude":"130.943889","source_code":"QS20098985790200160343","project_name":"","survey_name":"\u795e\u6210\u7aaa\u6a0b\u7ba1\u59161\u4ef6\u5730\u8cea\u8abf\u67fb\u696d\u52d9","client_name":"\u56fd\u571f\u4ea4\u901a\u7701\u4e5d\u5dde\u5730\u65b9\u6574\u5099\u5c40\u5927\u9685\u5de5\u4e8b\u4e8b\u52d9\u6240","boring_xml_url":49,"boring_view_url":1,"soilmap_view_url":null,"soiltest_xml_url":0,"soiltest_view_url":0},{"id":207531,"code":"B4KJ201801009-5780","latitude":"31.389369","longitude":"130.960247","source_code":"QS20098985790200160342","project_name":"","survey_name":"\u795e\u6210\u7aaa\u6a0b\u7ba1\u59161\u4ef6\u5730\u8cea\u8abf\u67fb\u696d\u52d9","client_name":"\u56fd\u571f\u4ea4\u901a\u7701\u4e5d\u5dde\u5730\u65b9\u6574\u5099\u5c40\u5927\u9685\u5de5\u4e8b\u4e8b\u52d9\u6240","boring_xml_url":49,"boring_view_url":1,"soilmap_view_url":null,"soiltest_xml_url":0,"soiltest_view_url":0},{"id":207530,"code":"B4KJ201801009-5779","latitude":"31.584567","longitude":"130.609875","source_code":"QS20098985790200160341","project_name":"","survey_name":"\u5f15\u30ce\u5e73\u5ddd\u6e13\u6d41\u4fdd\u5168\u5de5\u5730\u8cea\u8abf\u67fb\u696d\u52d9","client_name":"\u5efa\u8a2d\u7701\u4e5d\u5dde\u5730\u65b9\u5efa\u8a2d\u5c40\u5927\u9685\u5de5\u4e8b\u4e8b\u52d9\u6240","boring_xml_url":49,"boring_view_url":1,"soilmap_view_url":null,"soiltest_xml_url":0,"soiltest_view_url":0},{"id":207529,"code":"B4KJ201801009-5778","latitude":"31.582597","longitude":"130.604019","source_code":"QS20098985790200160340","project_name":"","survey_name":"\u5f15\u30ce\u5e73\u5ddd\u6e13\u6d41\u4fdd\u5168\u5de5\u5730\u8cea\u8abf\u67fb\u696d\u52d9","client_name":"\u5efa\u8a2d\u7701\u4e5d\u5dde\u5730\u65b9\u5efa\u8a2d\u5c40\u5927\u9685\u5de5\u4e8b\u4e8b\u52d9\u6240","boring_xml_url":49,"boring_view_url":1,"soilmap_view_url":null,"soiltest_xml_url":52,"soiltest_view_url":52},{"id":207528,"code":"B4KJ201801009-5777","latitude":"31.5825","longitude":"130.6041","source_code":"QS20098985790200160339","project_name":"","survey_name":"\u5f15\u30ce\u5e73\u5ddd\u6e13\u6d41\u4fdd\u5168\u5de5\u5730\u8cea\u8abf\u67fb\u696d\u52d9","client_name":"\u5efa\u8a2d\u7701\u4e5d\u5dde\u5730\u65b9\u5efa\u8a2d\u5c40\u5927\u9685\u5de5\u4e8b\u4e8b\u52d9\u6240","boring_xml_url":49,"boring_view_url":1,"soilmap_view_url":null,"soiltest_xml_url":52,"soiltest_view_url":52},{"id":207527,"code":"B4KJ201801009-5776","latitude":"31.5823","longitude":"130.603819","source_code":"QS20098985790200160338","project_name":"","survey_name":"\u5f15\u30ce\u5e73\u5ddd\u6e13\u6d41\u4fdd\u5168\u5de5\u5730\u8cea\u8abf\u67fb\u696d\u52d9","client_name":"\u5efa\u8a2d\u7701\u4e5d\u5dde\u5730\u65b9\u5efa\u8a2d\u5c40\u5927\u9685\u5de5\u4e8b\u4e8b\u52d9\u6240","boring_xml_url":49,"boring_view_url":1,"soilmap_view_url":null,"soiltest_xml_url":52,"soiltest_view_url":52},{"id":207526,"code":"B4KJ201801009-5775","latitude":"31.582189","longitude":"130.603897","source_code":"QS20098985790200160337","project_name":"","survey_name":"\u5f15\u30ce\u5e73\u5ddd\u6e13\u6d41\u4fdd\u5168\u5de5\u5730\u8cea\u8abf\u67fb\u696d\u52d9","client_name":"\u5efa\u8a2d\u7701\u4e5d\u5dde\u5730\u65b9\u5efa\u8a2d\u5c40\u5927\u9685\u5de5\u4e8b\u4e8b\u52d9\u6240","boring_xml_url":49,"boring_view_url":1,"soilmap_view_url":null,"soiltest_xml_url":52,"soiltest_view_url":52},{"id":207525,"code":"B4KJ201801009-5774","latitude":"31.556553","longitude":"130.655189","source_code":"QS20098985790200160336","project_name":"","survey_name":"\u7b2c\u4e8c\u53e4\u91cc\u5ddd\u5730\u8cea\u8abf\u67fb\u696d\u52d9","client_name":"\u5efa\u8a2d\u7701\u4e5d\u5dde\u5730\u65b9\u5efa\u8a2d\u5c40\u5927\u9685\u5de5\u4e8b\u4e8b\u52d9\u6240","boring_xml_url":49,"boring_view_url":1,"soilmap_view_url":null,"soiltest_xml_url":0,"soiltest_view_url":0},{"id":207524,"code":"B4KJ201801009-5773","latitude":"31.556831","longitude":"130.654633","source_code":"QS20098985790200160335","project_name":"","survey_name":"\u7b2c\u4e8c\u53e4\u91cc\u5ddd\u5730\u8cea\u8abf\u67fb\u696d\u52d9","client_name":"\u5efa\u8a2d\u7701\u4e5d\u5dde\u5730\u65b9\u5efa\u8a2d\u5c40\u5927\u9685\u5de5\u4e8b\u4e8b\u52d9\u6240","boring_xml_url":49,"boring_view_url":1,"soilmap_view_url":null,"soiltest_xml_url":0,"soiltest_view_url":0},{"id":207523,"code":"B4KJ201801009-5772","latitude":"31.556831","longitude":"130.651578","source_code":"QS20098985790200160334","project_name":"","survey_name":"\u7b2c\u4e8c\u53e4\u91cc\u5ddd\u5730\u8cea\u8abf\u67fb\u696d\u52d9","client_name":"\u5efa\u8a2d\u7701\u4e5d\u5dde\u5730\u65b9\u5efa\u8a2d\u5c40\u5927\u9685\u5de5\u4e8b\u4e8b\u52d9\u6240","boring_xml_url":49,"boring_view_url":1,"soilmap_view_url":null,"soiltest_xml_url":0,"soiltest_view_url":0},{"id":207522,"code":"B4KJ201801009-5771","latitude":"31.557386","longitude":"130.650744","source_code":"QS20098985790200160333","project_name":"","survey_name":"\u7b2c\u4e8c\u53e4\u91cc\u5ddd\u5730\u8cea\u8abf\u67fb\u696d\u52d9","client_name":"\u5efa\u8a2d\u7701\u4e5d\u5dde\u5730\u65b9\u5efa\u8a2d\u5c40\u5927\u9685\u5de5\u4e8b\u4e8b\u52d9\u6240","boring_xml_url":49,"boring_view_url":1,"soilmap_view_url":null,"soiltest_xml_url":0,"soiltest_view_url":0},{"id":207521,"code":"B4KJ201801009-5770","latitude":"31.614353","longitude":"130.68035","source_code":"QS20098985790200160332","project_name":"","survey_name":"\u53e4\u6cb3\u826f\u5ddd\u4e2d\u6d41\u57df\u5730\u8cea\u8abf\u67fb\u696d\u52d9","client_name":"\u5efa\u8a2d\u7701\u4e5d\u5dde\u5730\u65b9\u5efa\u8a2d\u5c40\u5927\u9685\u5de5\u4e8b\u4e8b\u52d9\u6240\u8abf\u67fb\u7b2c\u4e8c\u8ab2","boring_xml_url":49,"boring_view_url":1,"soilmap_view_url":null,"soiltest_xml_url":0,"soiltest_view_url":0},{"id":207520,"code":"B4KJ201801009-5769","latitude":"31.613908","longitude":"130.679239","source_code":"QS20098985790200160331","project_name":"","survey_name":"\u53e4\u6cb3\u826f\u5ddd\u4e2d\u6d41\u57df\u5730\u8cea\u8abf\u67fb\u696d\u52d9","client_name":"\u5efa\u8a2d\u7701\u4e5d\u5dde\u5730\u65b9\u5efa\u8a2d\u5c40\u5927\u9685\u5de5\u4e8b\u4e8b\u52d9\u6240\u8abf\u67fb\u7b2c\u4e8c\u8ab2","boring_xml_url":49,"boring_view_url":1,"soilmap_view_url":null,"soiltest_xml_url":0,"soiltest_view_url":0},{"id":207519,"code":"B4KJ201801009-5768","latitude":"31.613297","longitude":"130.678353","source_code":"QS20098985790200160330","project_name":"","survey_name":"\u53e4\u6cb3\u826f\u5ddd\u4e2d\u6d41\u57df\u5730\u8cea\u8abf\u67fb\u696d\u52d9","client_name":"\u5efa\u8a2d\u7701\u4e5d\u5dde\u5730\u65b9\u5efa\u8a2d\u5c40\u5927\u9685\u5de5\u4e8b\u4e8b\u52d9\u6240\u8abf\u67fb\u7b2c\u4e8c\u8ab2","boring_xml_url":49,"boring_view_url":1,"soilmap_view_url":null,"soiltest_xml_url":0,"soiltest_view_url":0},{"id":207518,"code":"B4KJ201801009-5767","latitude":"31.615214","longitude":"130.680878","source_code":"QS20098985790200160329","project_name":"","survey_name":"\u53e4\u6cb3\u826f\u5ddd\u4e2d\u6d41\u57df\u5730\u8cea\u8abf\u67fb\u696d\u52d9","client_name":"\u5efa\u8a2d\u7701\u4e5d\u5dde\u5730\u65b9\u5efa\u8a2d\u5c40\u5927\u9685\u5de5\u4e8b\u4e8b\u52d9\u6240\u8abf\u67fb\u7b2c\u4e8c\u8ab2","boring_xml_url":49,"boring_view_url":1,"soilmap_view_url":null,"soiltest_xml_url":0,"soiltest_view_url":0},{"id":207517,"code":"B4KJ201801009-5766","latitude":"31.609492","longitude":"130.675214","source_code":"QS20098985790200160328","project_name":"","survey_name":"\u53e4\u6cb3\u826f\u5ddd\u4e2d\u6d41\u57df\u5730\u8cea\u8abf\u67fb\u696d\u52d9","client_name":"\u5efa\u8a2d\u7701\u4e5d\u5dde\u5730\u65b9\u5efa\u8a2d\u5c40\u5927\u9685\u5de5\u4e8b\u4e8b\u52d9\u6240\u8abf\u67fb\u7b2c\u4e8c\u8ab2","boring_xml_url":49,"boring_view_url":1,"soilmap_view_url":null,"soiltest_xml_url":0,"soiltest_view_url":0},{"id":207516,"code":"B4KJ201801009-5765","latitude":"31.609492","longitude":"130.675047","source_code":"QS20098985790200160327","project_name":"","survey_name":"\u53e4\u6cb3\u826f\u5ddd\u4e2d\u6d41\u57df\u5730\u8cea\u8abf\u67fb\u696d\u52d9","client_name":"\u5efa\u8a2d\u7701\u4e5d\u5dde\u5730\u65b9\u5efa\u8a2d\u5c40\u5927\u9685\u5de5\u4e8b\u4e8b\u52d9\u6240\u8abf\u67fb\u7b2c\u4e8c\u8ab2","boring_xml_url":49,"boring_view_url":1,"soilmap_view_url":null,"soiltest_xml_url":0,"soiltest_view_url":0},{"id":207515,"code":"B4KJ201801009-5764","latitude":"31.609492","longitude":"130.674936","source_code":"QS20098985790200160326","project_name":"","survey_name":"\u53e4\u6cb3\u826f\u5ddd\u4e2d\u6d41\u57df\u5730\u8cea\u8abf\u67fb\u696d\u52d9","client_name":"\u5efa\u8a2d\u7701\u4e5d\u5dde\u5730\u65b9\u5efa\u8a2d\u5c40\u5927\u9685\u5de5\u4e8b\u4e8b\u52d9\u6240\u8abf\u67fb\u7b2c\u4e8c\u8ab2","boring_xml_url":49,"boring_view_url":1,"soilmap_view_url":null,"soiltest_xml_url":0,"soiltest_view_url":0},{"id":207514,"code":"B4KJ201801009-5763","latitude":"31.609658","longitude":"130.675047","source_code":"QS20098985790200160325","project_name":"","survey_name":"\u53e4\u6cb3\u826f\u5ddd\u4e2d\u6d41\u57df\u5730\u8cea\u8abf\u67fb\u696d\u52d9","client_name":"\u5efa\u8a2d\u7701\u4e5d\u5dde\u5730\u65b9\u5efa\u8a2d\u5c40\u5927\u9685\u5de5\u4e8b\u4e8b\u52d9\u6240\u8abf\u67fb\u7b2c\u4e8c\u8ab2","boring_xml_url":49,"boring_view_url":1,"soilmap_view_url":null,"soiltest_xml_url":0,"soiltest_view_url":0},{"id":207513,"code":"B4KJ201801009-5762","latitude":"31.608797","longitude":"130.674992","source_code":"QS20098985790200160324","project_name":"","survey_name":"\u53e4\u6cb3\u826f\u5ddd\u4e2d\u6d41\u57df\u5730\u8cea\u8abf\u67fb\u696d\u52d9","client_name":"\u5efa\u8a2d\u7701\u4e5d\u5dde\u5730\u65b9\u5efa\u8a2d\u5c40\u5927\u9685\u5de5\u4e8b\u4e8b\u52d9\u6240\u8abf\u67fb\u7b2c\u4e8c\u8ab2","boring_xml_url":49,"boring_view_url":1,"soilmap_view_url":null,"soiltest_xml_url":0,"soiltest_view_url":0},{"id":207512,"code":"B4KJ201801009-5761","latitude":"31.555442","longitude":"130.662411","source_code":"QS20098985790200160323","project_name":"","survey_name":"\u7b2c\u4e00\u53e4\u91cc\u5ddd\u4e0a\u6d41\u5730\u8cea\u8abf\u67fb\u696d\u52d9","client_name":"\u5efa\u8a2d\u7701\u4e5d\u5dde\u5730\u65b9\u5efa\u8a2d\u5c40\u5927\u9685\u5de5\u4e8b\u4e8b\u52d9\u6240","boring_xml_url":49,"boring_view_url":1,"soilmap_view_url":null,"soiltest_xml_url":0,"soiltest_view_url":0},{"id":207511,"code":"B4KJ201801009-5760","latitude":"31.556831","longitude":"130.661578","source_code":"QS20098985790200160322","project_name":"","survey_name":"\u7b2c\u4e00\u53e4\u91cc\u5ddd\u4e0a\u6d41\u5730\u8cea\u8abf\u67fb\u696d\u52d9","client_name":"\u5efa\u8a2d\u7701\u4e5d\u5dde\u5730\u65b9\u5efa\u8a2d\u5c40\u5927\u9685\u5de5\u4e8b\u4e8b\u52d9\u6240","boring_xml_url":49,"boring_view_url":1,"soilmap_view_url":null,"soiltest_xml_url":0,"soiltest_view_url":0},{"id":207510,"code":"B4KJ201801009-5759","latitude":"31.556275","longitude":"130.662133","source_code":"QS20098985790200160321","project_name":"","survey_name":"\u7b2c\u4e00\u53e4\u91cc\u5ddd\u4e0a\u6d41\u5730\u8cea\u8abf\u67fb\u696d\u52d9","client_name":"\u5efa\u8a2d\u7701\u4e5d\u5dde\u5730\u65b9\u5efa\u8a2d\u5c40\u5927\u9685\u5de5\u4e8b\u4e8b\u52d9\u6240","boring_xml_url":49,"boring_view_url":1,"soilmap_view_url":null,"soiltest_xml_url":0,"soiltest_view_url":0},{"id":207509,"code":"B4KJ201801009-5758","latitude":"31.555719","longitude":"130.662411","source_code":"QS20098985790200160320","project_name":"","survey_name":"\u7b2c\u4e00\u53e4\u91cc\u5ddd\u4e0a\u6d41\u5730\u8cea\u8abf\u67fb\u696d\u52d9","client_name":"\u5efa\u8a2d\u7701\u4e5d\u5dde\u5730\u65b9\u5efa\u8a2d\u5c40\u5927\u9685\u5de5\u4e8b\u4e8b\u52d9\u6240","boring_xml_url":49,"boring_view_url":1,"soilmap_view_url":null,"soiltest_xml_url":0,"soiltest_view_url":0},{"id":207508,"code":"B4KJ201801009-5757","latitude":"31.554886","longitude":"130.662689","source_code":"QS20098985790200160319","project_name":"","survey_name":"\u7b2c\u4e00\u53e4\u91cc\u5ddd\u4e0a\u6d41\u5730\u8cea\u8abf\u67fb\u696d\u52d9","client_name":"\u5efa\u8a2d\u7701\u4e5d\u5dde\u5730\u65b9\u5efa\u8a2d\u5c40\u5927\u9685\u5de5\u4e8b\u4e8b\u52d9\u6240","boring_xml_url":49,"boring_view_url":1,"soilmap_view_url":null,"soiltest_xml_url":0,"soiltest_view_url":0},{"id":207507,"code":"B4KJ201801009-5756","latitude":"31.580011","longitude":"130.605075","source_code":"QS20098985790200160318","project_name":"","survey_name":"\u5f15\u30ce\u5e73\u5ddd\u6d41\u57df\u5730\u8cea\u8abf\u67fb\u696d\u52d9","client_name":"\u5efa\u8a2d\u7701\u4e5d\u5dde\u5730\u65b9\u5efa\u8a2d\u5c40\u5927\u9685\u5de5\u4e8b\u4e8b\u52d9\u6240","boring_xml_url":49,"boring_view_url":1,"soilmap_view_url":null,"soiltest_xml_url":0,"soiltest_view_url":0},{"id":207506,"code":"B4KJ201801009-5755","latitude":"31.580328","longitude":"130.604847","source_code":"QS20098985790200160317","project_name":"","survey_name":"\u5f15\u30ce\u5e73\u5ddd\u6d41\u57df\u5730\u8cea\u8abf\u67fb\u696d\u52d9","client_name":"\u5efa\u8a2d\u7701\u4e5d\u5dde\u5730\u65b9\u5efa\u8a2d\u5c40\u5927\u9685\u5de5\u4e8b\u4e8b\u52d9\u6240","boring_xml_url":49,"boring_view_url":1,"soilmap_view_url":null,"soiltest_xml_url":0,"soiltest_view_url":0}]}}