{"header":{"xyz":{"source":[],"mosaic":false},"page":3771,"raw":{"soiltest_result":"0","bbox":"57.598333,109.544722,1.933333,163.806111","page":"3771"},"conditions":{"soiltest_result":0,"north":57.598333,"west":109.544722,"south":1.933333,"east":163.806111},"success":true,"message":""},"data":{"meta":{"total":212844,"page":3771,"pages":7095,"count":30},"values":[{"id":207445,"code":"B4KJ201801009-5694","latitude":"32.03136","longitude":"130.60617","source_code":"QS20098985790200160256","project_name":"\u4e0b\u624b\u5730\u533a\u5916\u5730\u8cea\u8abf\u67fb\u696d\u52d9","survey_name":"\u4e0b\u624b\u5730\u533a\u5916\u5730\u8cea\u8abf\u67fb\u696d\u52d9","client_name":"\u56fd\u571f\u4ea4\u901a\u7701 \u4e5d\u5dde\u5730\u65b9\u6574\u5099\u5c40 \u5ddd\u5185\u5ddd\u6cb3\u5ddd\u4e8b\u52d9\u6240 \u8abf\u67fb\u8ab2","boring_xml_url":49,"boring_view_url":1,"soilmap_view_url":null,"soiltest_xml_url":52,"soiltest_view_url":52},{"id":207444,"code":"B4KJ201801009-5693","latitude":"32.03122","longitude":"130.60608","source_code":"QS20098985790200160255","project_name":"\u4e0b\u624b\u5730\u533a\u5916\u5730\u8cea\u8abf\u67fb\u696d\u52d9","survey_name":"\u4e0b\u624b\u5730\u533a\u5916\u5730\u8cea\u8abf\u67fb\u696d\u52d9","client_name":"\u56fd\u571f\u4ea4\u901a\u7701 \u4e5d\u5dde\u5730\u65b9\u6574\u5099\u5c40 \u5ddd\u5185\u5ddd\u6cb3\u5ddd\u4e8b\u52d9\u6240 \u8abf\u67fb\u8ab2","boring_xml_url":49,"boring_view_url":1,"soilmap_view_url":null,"soiltest_xml_url":52,"soiltest_view_url":52},{"id":207443,"code":"B4KJ201801009-5692","latitude":"32.02622","longitude":"130.60247","source_code":"QS20098985790200160254","project_name":"\u4e0b\u624b\u5730\u533a\u5916\u5730\u8cea\u8abf\u67fb\u696d\u52d9","survey_name":"\u4e0b\u624b\u5730\u533a\u5916\u5730\u8cea\u8abf\u67fb\u696d\u52d9","client_name":"\u56fd\u571f\u4ea4\u901a\u7701 \u4e5d\u5dde\u5730\u65b9\u6574\u5099\u5c40 \u5ddd\u5185\u5ddd\u6cb3\u5ddd\u4e8b\u52d9\u6240 \u8abf\u67fb\u8ab2","boring_xml_url":49,"boring_view_url":1,"soilmap_view_url":null,"soiltest_xml_url":0,"soiltest_view_url":0},{"id":207442,"code":"B4KJ201801009-5691","latitude":"32.02519","longitude":"130.60197","source_code":"QS20098985790200160253","project_name":"\u4e0b\u624b\u5730\u533a\u5916\u5730\u8cea\u8abf\u67fb\u696d\u52d9","survey_name":"\u4e0b\u624b\u5730\u533a\u5916\u5730\u8cea\u8abf\u67fb\u696d\u52d9","client_name":"\u56fd\u571f\u4ea4\u901a\u7701 \u4e5d\u5dde\u5730\u65b9\u6574\u5099\u5c40 \u5ddd\u5185\u5ddd\u6cb3\u5ddd\u4e8b\u52d9\u6240 \u8abf\u67fb\u8ab2","boring_xml_url":49,"boring_view_url":1,"soilmap_view_url":null,"soiltest_xml_url":52,"soiltest_view_url":52},{"id":207441,"code":"B4KJ201801009-5690","latitude":"32.02528","longitude":"130.60178","source_code":"QS20098985790200160252","project_name":"\u4e0b\u624b\u5730\u533a\u5916\u5730\u8cea\u8abf\u67fb\u696d\u52d9","survey_name":"\u4e0b\u624b\u5730\u533a\u5916\u5730\u8cea\u8abf\u67fb\u696d\u52d9","client_name":"\u56fd\u571f\u4ea4\u901a\u7701 \u4e5d\u5dde\u5730\u65b9\u6574\u5099\u5c40 \u5ddd\u5185\u5ddd\u6cb3\u5ddd\u4e8b\u52d9\u6240 \u8abf\u67fb\u8ab2","boring_xml_url":49,"boring_view_url":1,"soilmap_view_url":null,"soiltest_xml_url":52,"soiltest_view_url":52},{"id":207440,"code":"B4KJ201801009-5689","latitude":"32.02522","longitude":"130.60194","source_code":"QS20098985790200160251","project_name":"\u4e0b\u624b\u5730\u533a\u5916\u5730\u8cea\u8abf\u67fb\u696d\u52d9","survey_name":"\u4e0b\u624b\u5730\u533a\u5916\u5730\u8cea\u8abf\u67fb\u696d\u52d9","client_name":"\u56fd\u571f\u4ea4\u901a\u7701 \u4e5d\u5dde\u5730\u65b9\u6574\u5099\u5c40 \u5ddd\u5185\u5ddd\u6cb3\u5ddd\u4e8b\u52d9\u6240 \u8abf\u67fb\u8ab2","boring_xml_url":49,"boring_view_url":1,"soilmap_view_url":null,"soiltest_xml_url":52,"soiltest_view_url":52},{"id":207439,"code":"B4KJ201801009-5688","latitude":"32.04419181","longitude":"130.6070308","source_code":"QS20098985790200160250","project_name":"\u6e6f\u7530\u5730\u533a\u5916\u5730\u8cea\u8abf\u67fb\u696d\u52d9","survey_name":"\u6e6f\u7530\u5730\u533a\u5916\u5730\u8cea\u8abf\u67fb\u696d\u52d9","client_name":"\u5ddd\u5185\u5ddd\u6cb3\u5ddd\u4e8b\u52d9\u6240 \u8abf\u67fb\u8ab2","boring_xml_url":49,"boring_view_url":1,"soilmap_view_url":null,"soiltest_xml_url":52,"soiltest_view_url":52},{"id":207438,"code":"B4KJ201801009-5687","latitude":"32.044089","longitude":"130.6068911","source_code":"QS20098985790200160249","project_name":"\u6e6f\u7530\u5730\u533a\u5916\u5730\u8cea\u8abf\u67fb\u696d\u52d9","survey_name":"\u6e6f\u7530\u5730\u533a\u5916\u5730\u8cea\u8abf\u67fb\u696d\u52d9","client_name":"\u5ddd\u5185\u5ddd\u6cb3\u5ddd\u4e8b\u52d9\u6240 \u8abf\u67fb\u8ab2","boring_xml_url":49,"boring_view_url":1,"soilmap_view_url":null,"soiltest_xml_url":52,"soiltest_view_url":52},{"id":207437,"code":"B4KJ201801009-5686","latitude":"32.04415933","longitude":"130.6069867","source_code":"QS20098985790200160248","project_name":"\u6e6f\u7530\u5730\u533a\u5916\u5730\u8cea\u8abf\u67fb\u696d\u52d9","survey_name":"\u6e6f\u7530\u5730\u533a\u5916\u5730\u8cea\u8abf\u67fb\u696d\u52d9","client_name":"\u5ddd\u5185\u5ddd\u6cb3\u5ddd\u4e8b\u52d9\u6240 \u8abf\u67fb\u8ab2","boring_xml_url":49,"boring_view_url":1,"soilmap_view_url":null,"soiltest_xml_url":52,"soiltest_view_url":52},{"id":207436,"code":"B4KJ201801009-5685","latitude":"31.93951992","longitude":"130.4652242","source_code":"QS20098985790200160247","project_name":"\u6e6f\u7530\u5730\u533a\u5916\u5730\u8cea\u8abf\u67fb\u696d\u52d9","survey_name":"\u6e6f\u7530\u5730\u533a\u5916\u5730\u8cea\u8abf\u67fb\u696d\u52d9","client_name":"\u5ddd\u5185\u5ddd\u6cb3\u5ddd\u4e8b\u52d9\u6240 \u8abf\u67fb\u8ab2","boring_xml_url":49,"boring_view_url":1,"soilmap_view_url":null,"soiltest_xml_url":52,"soiltest_view_url":52},{"id":207435,"code":"B4KJ201801009-5684","latitude":"31.93942983","longitude":"130.4650153","source_code":"QS20098985790200160246","project_name":"\u6e6f\u7530\u5730\u533a\u5916\u5730\u8cea\u8abf\u67fb\u696d\u52d9","survey_name":"\u6e6f\u7530\u5730\u533a\u5916\u5730\u8cea\u8abf\u67fb\u696d\u52d9","client_name":"\u5ddd\u5185\u5ddd\u6cb3\u5ddd\u4e8b\u52d9\u6240 \u8abf\u67fb\u8ab2","boring_xml_url":49,"boring_view_url":1,"soilmap_view_url":null,"soiltest_xml_url":52,"soiltest_view_url":52},{"id":207434,"code":"B4KJ201801009-5683","latitude":"31.93946506","longitude":"130.4650969","source_code":"QS20098985790200160245","project_name":"\u6e6f\u7530\u5730\u533a\u5916\u5730\u8cea\u8abf\u67fb\u696d\u52d9","survey_name":"\u6e6f\u7530\u5730\u533a\u5916\u5730\u8cea\u8abf\u67fb\u696d\u52d9","client_name":"\u56fd\u571f\u4ea4\u901a\u7701 \u4e5d\u5dde\u5730\u65b9\u6574\u5099\u5c40 \u5ddd\u5185\u5ddd\u6cb3\u5ddd\u4e8b\u52d9\u6240","boring_xml_url":49,"boring_view_url":1,"soilmap_view_url":null,"soiltest_xml_url":52,"soiltest_view_url":52},{"id":207433,"code":"B4KJ201801009-5682","latitude":"31.83225","longitude":"130.31864","source_code":"QS20098985790200160244","project_name":"\u4e2d\u90f7\u5730\u533a\u5916\u5730\u8cea\u8abf\u67fb\u696d\u52d9","survey_name":"\u4e2d\u90f7\u5730\u533a\u5916\u5730\u8cea\u8abf\u67fb\u696d\u52d9","client_name":"\u56fd\u571f\u4ea4\u901a\u7701 \u4e5d\u5dde\u5730\u65b9\u6574\u5099\u5c40 \u5ddd\u5185\u5ddd\u6cb3\u5ddd\u4e8b\u52d9\u6240","boring_xml_url":49,"boring_view_url":1,"soilmap_view_url":null,"soiltest_xml_url":52,"soiltest_view_url":52},{"id":207432,"code":"B4KJ201801009-5681","latitude":"31.82442","longitude":"130.3165","source_code":"QS20098985790200160243","project_name":"\u4e2d\u90f7\u5730\u533a\u5916\u5730\u8cea\u8abf\u67fb\u696d\u52d9","survey_name":"\u4e2d\u90f7\u5730\u533a\u5916\u5730\u8cea\u8abf\u67fb\u696d\u52d9","client_name":"\u56fd\u571f\u4ea4\u901a\u7701 \u4e5d\u5dde\u5730\u65b9\u6574\u5099\u5c40 \u5ddd\u5185\u5ddd\u6cb3\u5ddd\u4e8b\u52d9\u6240","boring_xml_url":49,"boring_view_url":1,"soilmap_view_url":null,"soiltest_xml_url":52,"soiltest_view_url":52},{"id":207431,"code":"B4KJ201801009-5680","latitude":"31.8245","longitude":"130.31628","source_code":"QS20098985790200160242","project_name":"\u4e2d\u90f7\u5730\u533a\u5916\u5730\u8cea\u8abf\u67fb\u696d\u52d9","survey_name":"\u4e2d\u90f7\u5730\u533a\u5916\u5730\u8cea\u8abf\u67fb\u696d\u52d9","client_name":"\u56fd\u571f\u4ea4\u901a\u7701 \u4e5d\u5dde\u5730\u65b9\u6574\u5099\u5c40 \u5ddd\u5185\u5ddd\u6cb3\u5ddd\u4e8b\u52d9\u6240","boring_xml_url":49,"boring_view_url":1,"soilmap_view_url":null,"soiltest_xml_url":52,"soiltest_view_url":52},{"id":207430,"code":"B4KJ201801009-5679","latitude":"31.82444","longitude":"130.31644","source_code":"QS20098985790200160241","project_name":"\u4e2d\u90f7\u5730\u533a\u5916\u5730\u8cea\u8abf\u67fb\u696d\u52d9","survey_name":"\u4e2d\u90f7\u5730\u533a\u5916\u5730\u8cea\u8abf\u67fb\u696d\u52d9","client_name":"\u56fd\u571f\u4ea4\u901a\u7701 \u4e5d\u5dde\u5730\u65b9\u6574\u5099\u5c40 \u5ddd\u5185\u5ddd\u6cb3\u5ddd\u4e8b\u52d9\u6240","boring_xml_url":49,"boring_view_url":1,"soilmap_view_url":null,"soiltest_xml_url":52,"soiltest_view_url":52},{"id":207429,"code":"B4KJ201801009-5678","latitude":"31.84453","longitude":"130.31944","source_code":"QS20098985790200160240","project_name":"\u4e2d\u90f7\u5730\u533a\u5916\u5730\u8cea\u8abf\u67fb\u696d\u52d9","survey_name":"\u4e2d\u90f7\u5730\u533a\u5916\u5730\u8cea\u8abf\u67fb\u696d\u52d9","client_name":"\u56fd\u571f\u4ea4\u901a\u7701 \u4e5d\u5dde\u5730\u65b9\u6574\u5099\u5c40 \u5ddd\u5185\u5ddd\u6cb3\u5ddd\u4e8b\u52d9\u6240","boring_xml_url":49,"boring_view_url":1,"soilmap_view_url":null,"soiltest_xml_url":52,"soiltest_view_url":52},{"id":207428,"code":"B4KJ201801009-5677","latitude":"31.8445","longitude":"130.31972","source_code":"QS20098985790200160239","project_name":"\u4e2d\u90f7\u5730\u533a\u5916\u5730\u8cea\u8abf\u67fb\u696d\u52d9","survey_name":"\u4e2d\u90f7\u5730\u533a\u5916\u5730\u8cea\u8abf\u67fb\u696d\u52d9","client_name":"\u56fd\u571f\u4ea4\u901a\u7701 \u4e5d\u5dde\u5730\u65b9\u6574\u5099\u5c40 \u5ddd\u5185\u5ddd\u6cb3\u5ddd\u4e8b\u52d9\u6240","boring_xml_url":49,"boring_view_url":1,"soilmap_view_url":null,"soiltest_xml_url":52,"soiltest_view_url":52},{"id":207427,"code":"B4KJ201801009-5676","latitude":"31.84453","longitude":"130.31956","source_code":"QS20098985790200160238","project_name":"\u4e2d\u90f7\u5730\u533a\u5916\u5730\u8cea\u8abf\u67fb\u696d\u52d9","survey_name":"\u4e2d\u90f7\u5730\u533a\u5916\u5730\u8cea\u8abf\u67fb\u696d\u52d9","client_name":"\u56fd\u571f\u4ea4\u901a\u7701 \u4e5d\u5dde\u5730\u65b9\u6574\u5099\u5c40 \u5ddd\u5185\u5ddd\u6cb3\u5ddd\u4e8b\u52d9\u6240","boring_xml_url":49,"boring_view_url":1,"soilmap_view_url":null,"soiltest_xml_url":52,"soiltest_view_url":52},{"id":207426,"code":"B4KJ201801009-5675","latitude":"31.83869","longitude":"130.31781","source_code":"QS20098985790200160237","project_name":"\u4e2d\u90f7\u5730\u533a\u5916\u5730\u8cea\u8abf\u67fb\u696d\u52d9","survey_name":"\u4e2d\u90f7\u5730\u533a\u5916\u5730\u8cea\u8abf\u67fb\u696d\u52d9","client_name":"\u56fd\u571f\u4ea4\u901a\u7701 \u4e5d\u5dde\u5730\u65b9\u6574\u5099\u5c40 \u5ddd\u5185\u5ddd\u6cb3\u5ddd\u4e8b\u52d9\u6240","boring_xml_url":49,"boring_view_url":1,"soilmap_view_url":null,"soiltest_xml_url":52,"soiltest_view_url":52},{"id":207425,"code":"B4KJ201801009-5674","latitude":"31.83864","longitude":"130.31808","source_code":"QS20098985790200160236","project_name":"\u4e2d\u90f7\u5730\u533a\u5916\u5730\u8cea\u8abf\u67fb\u696d\u52d9","survey_name":"\u4e2d\u90f7\u5730\u533a\u5916\u5730\u8cea\u8abf\u67fb\u696d\u52d9","client_name":"\u56fd\u571f\u4ea4\u901a\u7701 \u4e5d\u5dde\u5730\u65b9\u6574\u5099\u5c40 \u5ddd\u5185\u5ddd\u6cb3\u5ddd\u4e8b\u52d9\u6240","boring_xml_url":49,"boring_view_url":1,"soilmap_view_url":null,"soiltest_xml_url":52,"soiltest_view_url":52},{"id":207424,"code":"B4KJ201801009-5673","latitude":"31.83867","longitude":"130.31786","source_code":"QS20098985790200160235","project_name":"\u4e2d\u90f7\u5730\u533a\u5916\u5730\u8cea\u8abf\u67fb\u696d\u52d9","survey_name":"\u4e2d\u90f7\u5730\u533a\u5916\u5730\u8cea\u8abf\u67fb\u696d\u52d9","client_name":"\u56fd\u571f\u4ea4\u901a\u7701 \u4e5d\u5dde\u5730\u65b9\u6574\u5099\u5c40 \u5ddd\u5185\u5ddd\u6cb3\u5ddd\u4e8b\u52d9\u6240","boring_xml_url":49,"boring_view_url":1,"soilmap_view_url":null,"soiltest_xml_url":52,"soiltest_view_url":52},{"id":207423,"code":"B4KJ201801009-5672","latitude":"32.04314","longitude":"130.83306","source_code":"QS20098985790200160234","project_name":"","survey_name":"\u98ef\u91ce\u5730\u533a\u5916\u5730\u8cea\u8abf\u67fb\u696d\u52d9","client_name":"\u56fd\u571f\u4ea4\u901a\u7701\u4e5d\u5dde\u5730\u65b9\u6574\u5099\u5c40\u5ddd\u5185\u5ddd\u6cb3\u5ddd\u4e8b\u52d9\u6240","boring_xml_url":49,"boring_view_url":1,"soilmap_view_url":null,"soiltest_xml_url":52,"soiltest_view_url":52},{"id":207422,"code":"B4KJ201801009-5671","latitude":"32.04328","longitude":"130.83319","source_code":"QS20098985790200160233","project_name":"","survey_name":"\u98ef\u91ce\u5730\u533a\u5916\u5730\u8cea\u8abf\u67fb\u696d\u52d9","client_name":"\u56fd\u571f\u4ea4\u901a\u7701\u4e5d\u5dde\u5730\u65b9\u6574\u5099\u5c40\u5ddd\u5185\u5ddd\u6cb3\u5ddd\u4e8b\u52d9\u6240","boring_xml_url":49,"boring_view_url":1,"soilmap_view_url":null,"soiltest_xml_url":52,"soiltest_view_url":52},{"id":207421,"code":"B4KJ201801009-5670","latitude":"32.04319","longitude":"130.83311","source_code":"QS20098985790200160232","project_name":"","survey_name":"\u98ef\u91ce\u5730\u533a\u5916\u5730\u8cea\u8abf\u67fb\u696d\u52d9","client_name":"\u56fd\u571f\u4ea4\u901a\u7701\u4e5d\u5dde\u5730\u65b9\u6574\u5099\u5c40\u5ddd\u5185\u5ddd\u6cb3\u5ddd\u4e8b\u52d9\u6240","boring_xml_url":49,"boring_view_url":1,"soilmap_view_url":null,"soiltest_xml_url":52,"soiltest_view_url":52},{"id":207420,"code":"B4KJ201801009-5669","latitude":"32.04989","longitude":"130.86833","source_code":"QS20098985790200160231","project_name":"","survey_name":"\u98ef\u91ce\u5730\u533a\u5916\u5730\u8cea\u8abf\u67fb\u696d\u52d9","client_name":"\u56fd\u571f\u4ea4\u901a\u7701\u4e5d\u5dde\u5730\u65b9\u6574\u5099\u5c40\u5ddd\u5185\u5ddd\u6cb3\u5ddd\u4e8b\u52d9\u6240","boring_xml_url":49,"boring_view_url":1,"soilmap_view_url":null,"soiltest_xml_url":52,"soiltest_view_url":52},{"id":207419,"code":"B4KJ201801009-5668","latitude":"32.04767","longitude":"130.86197","source_code":"QS20098985790200160230","project_name":"","survey_name":"\u98ef\u91ce\u5730\u533a\u5916\u5730\u8cea\u8abf\u67fb\u696d\u52d9","client_name":"\u56fd\u571f\u4ea4\u901a\u7701\u4e5d\u5dde\u5730\u65b9\u6574\u5099\u5c40\u5ddd\u5185\u5ddd\u6cb3\u5ddd\u4e8b\u52d9\u6240","boring_xml_url":49,"boring_view_url":1,"soilmap_view_url":null,"soiltest_xml_url":52,"soiltest_view_url":52},{"id":207418,"code":"B4KJ201801009-5667","latitude":"32.05089","longitude":"130.76806","source_code":"QS20098985790200160229","project_name":"","survey_name":"\u98ef\u91ce\u5730\u533a\u5916\u5730\u8cea\u8abf\u67fb\u696d\u52d9","client_name":"\u56fd\u571f\u4ea4\u901a\u7701\u4e5d\u5dde\u5730\u65b9\u6574\u5099\u5c40\u5ddd\u5185\u5ddd\u6cb3\u5ddd\u4e8b\u52d9\u6240","boring_xml_url":49,"boring_view_url":1,"soilmap_view_url":null,"soiltest_xml_url":52,"soiltest_view_url":52},{"id":207417,"code":"B4KJ201801009-5666","latitude":"32.05072","longitude":"130.76803","source_code":"QS20098985790200160228","project_name":"","survey_name":"\u98ef\u91ce\u5730\u533a\u5916\u5730\u8cea\u8abf\u67fb\u696d\u52d9","client_name":"\u56fd\u571f\u4ea4\u901a\u7701\u4e5d\u5dde\u5730\u65b9\u6574\u5099\u5c40\u5ddd\u5185\u5ddd\u6cb3\u5ddd\u4e8b\u52d9\u6240","boring_xml_url":49,"boring_view_url":1,"soilmap_view_url":null,"soiltest_xml_url":52,"soiltest_view_url":52},{"id":207416,"code":"B4KJ201801009-5665","latitude":"32.05081","longitude":"130.76803","source_code":"QS20098985790200160227","project_name":"","survey_name":"\u98ef\u91ce\u5730\u533a\u5916\u5730\u8cea\u8abf\u67fb\u696d\u52d9","client_name":"\u56fd\u571f\u4ea4\u901a\u7701\u4e5d\u5dde\u5730\u65b9\u6574\u5099\u5c40\u5ddd\u5185\u5ddd\u6cb3\u5ddd\u4e8b\u52d9\u6240","boring_xml_url":49,"boring_view_url":1,"soilmap_view_url":null,"soiltest_xml_url":52,"soiltest_view_url":52}]}}