{"header":{"xyz":{"source":[],"mosaic":false},"page":3788,"raw":{"soiltest_result":"0","bbox":"57.598333,109.544722,1.933333,163.806111","page":"3788"},"conditions":{"soiltest_result":0,"north":57.598333,"west":109.544722,"south":1.933333,"east":163.806111},"success":true,"message":""},"data":{"meta":{"total":212844,"page":3788,"pages":7095,"count":30},"values":[{"id":206935,"code":"B4KJ201801009-5184","latitude":"33.3631","longitude":"130.0069","source_code":"QS2009893560020037MT430005","project_name":"\u677e\u6d66\u5ddd\u6c34\u7cfb\u5824\u9632\u5730\u8cea\u8abf\u67fb(\u305d\u306e1)\u696d\u52d9","survey_name":"\u677e\u6d66\u5ddd\u6c34\u7cfb\u5824\u9632\u5730\u8cea\u8abf\u67fb(\u305d\u306e1)\u696d\u52d9","client_name":"\u56fd\u571f\u4ea4\u901a\u7701\u4e5d\u5dde\u5730\u65b9\u6574\u5099\u5c40\u6b66\u96c4\u6cb3\u5ddd\u4e8b\u52d9\u6240","boring_xml_url":53,"boring_view_url":1,"soilmap_view_url":null,"soiltest_xml_url":56,"soiltest_view_url":56},{"id":206934,"code":"B4KJ201801009-5183","latitude":"33.3767","longitude":"129.9958","source_code":"QS2009893560020037MT430004","project_name":"\u677e\u6d66\u5ddd\u6c34\u7cfb\u5824\u9632\u5730\u8cea\u8abf\u67fb(\u305d\u306e1)\u696d\u52d9","survey_name":"\u677e\u6d66\u5ddd\u6c34\u7cfb\u5824\u9632\u5730\u8cea\u8abf\u67fb(\u305d\u306e1)\u696d\u52d9","client_name":"\u56fd\u571f\u4ea4\u901a\u7701\u4e5d\u5dde\u5730\u65b9\u6574\u5099\u5c40\u6b66\u96c4\u6cb3\u5ddd\u4e8b\u52d9\u6240","boring_xml_url":53,"boring_view_url":1,"soilmap_view_url":null,"soiltest_xml_url":56,"soiltest_view_url":56},{"id":206933,"code":"B4KJ201801009-5182","latitude":"33.3947","longitude":"129.9828","source_code":"QS2009893560020037MT430003","project_name":"\u677e\u6d66\u5ddd\u6c34\u7cfb\u5824\u9632\u5730\u8cea\u8abf\u67fb(\u305d\u306e1)\u696d\u52d9","survey_name":"\u677e\u6d66\u5ddd\u6c34\u7cfb\u5824\u9632\u5730\u8cea\u8abf\u67fb(\u305d\u306e1)\u696d\u52d9","client_name":"\u56fd\u571f\u4ea4\u901a\u7701\u4e5d\u5dde\u5730\u65b9\u6574\u5099\u5c40\u6b66\u96c4\u6cb3\u5ddd\u4e8b\u52d9\u6240","boring_xml_url":53,"boring_view_url":1,"soilmap_view_url":null,"soiltest_xml_url":56,"soiltest_view_url":56},{"id":206932,"code":"B4KJ201801009-5181","latitude":"33.415","longitude":"129.9867","source_code":"QS2009893560020037MT430002","project_name":"\u677e\u6d66\u5ddd\u6c34\u7cfb\u5824\u9632\u5730\u8cea\u8abf\u67fb(\u305d\u306e1)\u696d\u52d9","survey_name":"\u677e\u6d66\u5ddd\u6c34\u7cfb\u5824\u9632\u5730\u8cea\u8abf\u67fb(\u305d\u306e1)\u696d\u52d9","client_name":"\u56fd\u571f\u4ea4\u901a\u7701\u4e5d\u5dde\u5730\u65b9\u6574\u5099\u5c40\u6b66\u96c4\u6cb3\u5ddd\u4e8b\u52d9\u6240","boring_xml_url":53,"boring_view_url":1,"soilmap_view_url":null,"soiltest_xml_url":56,"soiltest_view_url":56},{"id":206931,"code":"B4KJ201801009-5180","latitude":"33.4378","longitude":"129.9894","source_code":"QS2009893560020037MT430001","project_name":"\u677e\u6d66\u5ddd\u6c34\u7cfb\u5824\u9632\u5730\u8cea\u8abf\u67fb(\u305d\u306e1)\u696d\u52d9","survey_name":"\u677e\u6d66\u5ddd\u6c34\u7cfb\u5824\u9632\u5730\u8cea\u8abf\u67fb(\u305d\u306e1)\u696d\u52d9","client_name":"\u56fd\u571f\u4ea4\u901a\u7701\u4e5d\u5dde\u5730\u65b9\u6574\u5099\u5c40\u6b66\u96c4\u6cb3\u5ddd\u4e8b\u52d9\u6240","boring_xml_url":53,"boring_view_url":1,"soilmap_view_url":null,"soiltest_xml_url":56,"soiltest_view_url":56},{"id":206930,"code":"B4KJ201801009-5179","latitude":"33.3419","longitude":"129.9297","source_code":"QS2009893560020037MT420005","project_name":"","survey_name":"\u5e73\u621019\u5e74\u5ea6\u677e\u6d66\u5ddd\u6c34\u7cfb\u5824\u9632\u5730\u8cea\u7e26\u65ad\u8abf\u67fb\u696d\u52d9","client_name":"\u56fd\u571f\u4ea4\u901a\u7701\u4e5d\u5dde\u5730\u65b9\u6574\u5099\u5c40\u6b66\u96c4\u6cb3\u5ddd\u4e8b\u52d9\u6240","boring_xml_url":53,"boring_view_url":1,"soilmap_view_url":null,"soiltest_xml_url":56,"soiltest_view_url":56},{"id":206929,"code":"B4KJ201801009-5178","latitude":"33.3433","longitude":"129.9314","source_code":"QS2009893560020037MT420004","project_name":"","survey_name":"\u5e73\u621019\u5e74\u5ea6\u677e\u6d66\u5ddd\u6c34\u7cfb\u5824\u9632\u5730\u8cea\u7e26\u65ad\u8abf\u67fb\u696d\u52d9","client_name":"\u56fd\u571f\u4ea4\u901a\u7701\u4e5d\u5dde\u5730\u65b9\u6574\u5099\u5c40\u6b66\u96c4\u6cb3\u5ddd\u4e8b\u52d9\u6240","boring_xml_url":53,"boring_view_url":1,"soilmap_view_url":null,"soiltest_xml_url":56,"soiltest_view_url":56},{"id":206928,"code":"B4KJ201801009-5177","latitude":"33.3197","longitude":"129.9706","source_code":"QS2009893560020037MT420003","project_name":"","survey_name":"\u5e73\u621019\u5e74\u5ea6\u677e\u6d66\u5ddd\u6c34\u7cfb\u5824\u9632\u5730\u8cea\u7e26\u65ad\u8abf\u67fb\u696d\u52d9","client_name":"\u56fd\u571f\u4ea4\u901a\u7701\u4e5d\u5dde\u5730\u65b9\u6574\u5099\u5c40\u6b66\u96c4\u6cb3\u5ddd\u4e8b\u52d9\u6240","boring_xml_url":53,"boring_view_url":1,"soilmap_view_url":null,"soiltest_xml_url":56,"soiltest_view_url":56},{"id":206927,"code":"B4KJ201801009-5176","latitude":"33.3356","longitude":"129.9839","source_code":"QS2009893560020037MT420002","project_name":"","survey_name":"\u5e73\u621019\u5e74\u5ea6\u677e\u6d66\u5ddd\u6c34\u7cfb\u5824\u9632\u5730\u8cea\u7e26\u65ad\u8abf\u67fb\u696d\u52d9","client_name":"\u56fd\u571f\u4ea4\u901a\u7701\u4e5d\u5dde\u5730\u65b9\u6574\u5099\u5c40\u6b66\u96c4\u6cb3\u5ddd\u4e8b\u52d9\u6240","boring_xml_url":53,"boring_view_url":1,"soilmap_view_url":null,"soiltest_xml_url":56,"soiltest_view_url":56},{"id":206926,"code":"B4KJ201801009-5175","latitude":"33.3344","longitude":"129.9875","source_code":"QS2009893560020037MT420001","project_name":"","survey_name":"\u5e73\u621019\u5e74\u5ea6\u677e\u6d66\u5ddd\u6c34\u7cfb\u5824\u9632\u5730\u8cea\u7e26\u65ad\u8abf\u67fb\u696d\u52d9","client_name":"\u56fd\u571f\u4ea4\u901a\u7701\u4e5d\u5dde\u5730\u65b9\u6574\u5099\u5c40\u6b66\u96c4\u6cb3\u5ddd\u4e8b\u52d9\u6240","boring_xml_url":53,"boring_view_url":1,"soilmap_view_url":null,"soiltest_xml_url":56,"soiltest_view_url":56},{"id":206925,"code":"B4KJ201801009-5174","latitude":"33.3467","longitude":"129.9356","source_code":"QS2009893560020037MT410013","project_name":"","survey_name":"202\u53f7\u5357\u6ce2\u591a\u5c40\u6539\u5730\u8cea\u8abf\u67fb\u696d\u52d9","client_name":"\u5efa\u8a2d\u7701\u4e5d\u5dde\u5730\u65b9\u5efa\u8a2d\u5c40\u4f50\u8cc0\u56fd\u9053\u5de5\u4e8b\u4e8b\u52d9\u6240","boring_xml_url":53,"boring_view_url":1,"soilmap_view_url":null,"soiltest_xml_url":0,"soiltest_view_url":0},{"id":206924,"code":"B4KJ201801009-5173","latitude":"33.3489","longitude":"129.9367","source_code":"QS2009893560020037MT410012","project_name":"","survey_name":"202\u53f7\u5357\u6ce2\u591a\u5c40\u6539\u5730\u8cea\u8abf\u67fb\u696d\u52d9","client_name":"\u5efa\u8a2d\u7701\u4e5d\u5dde\u5730\u65b9\u5efa\u8a2d\u5c40\u4f50\u8cc0\u56fd\u9053\u5de5\u4e8b\u4e8b\u52d9\u6240","boring_xml_url":53,"boring_view_url":1,"soilmap_view_url":null,"soiltest_xml_url":0,"soiltest_view_url":0},{"id":206923,"code":"B4KJ201801009-5172","latitude":"33.3467","longitude":"129.9356","source_code":"QS2009893560020037MT410011","project_name":"","survey_name":"202\u53f7\u5357\u6ce2\u591a\u5c40\u6539\u5730\u8cea\u8abf\u67fb\u696d\u52d9","client_name":"\u5efa\u8a2d\u7701\u4e5d\u5dde\u5730\u65b9\u5efa\u8a2d\u5c40\u4f50\u8cc0\u56fd\u9053\u5de5\u4e8b\u4e8b\u52d9\u6240","boring_xml_url":53,"boring_view_url":1,"soilmap_view_url":null,"soiltest_xml_url":0,"soiltest_view_url":0},{"id":206922,"code":"B4KJ201801009-5171","latitude":"33.3467","longitude":"129.9356","source_code":"QS2009893560020037MT410010","project_name":"","survey_name":"202\u53f7\u5357\u6ce2\u591a\u5c40\u6539\u5730\u8cea\u8abf\u67fb\u696d\u52d9","client_name":"\u5efa\u8a2d\u7701\u4e5d\u5dde\u5730\u65b9\u5efa\u8a2d\u5c40\u4f50\u8cc0\u56fd\u9053\u5de5\u4e8b\u4e8b\u52d9\u6240","boring_xml_url":53,"boring_view_url":1,"soilmap_view_url":null,"soiltest_xml_url":0,"soiltest_view_url":0},{"id":206921,"code":"B4KJ201801009-5170","latitude":"33.3467","longitude":"129.9356","source_code":"QS2009893560020037MT410009","project_name":"","survey_name":"202\u53f7\u5357\u6ce2\u591a\u5c40\u6539\u5730\u8cea\u8abf\u67fb\u696d\u52d9","client_name":"\u5efa\u8a2d\u7701\u4e5d\u5dde\u5730\u65b9\u5efa\u8a2d\u5c40\u4f50\u8cc0\u56fd\u9053\u5de5\u4e8b\u4e8b\u52d9\u6240","boring_xml_url":53,"boring_view_url":1,"soilmap_view_url":null,"soiltest_xml_url":0,"soiltest_view_url":0},{"id":206920,"code":"B4KJ201801009-5169","latitude":"33.3475","longitude":"129.9356","source_code":"QS2009893560020037MT410008","project_name":"","survey_name":"202\u53f7\u5357\u6ce2\u591a\u5c40\u6539\u5730\u8cea\u8abf\u67fb\u696d\u52d9","client_name":"\u5efa\u8a2d\u7701\u4e5d\u5dde\u5730\u65b9\u5efa\u8a2d\u5c40\u4f50\u8cc0\u56fd\u9053\u5de5\u4e8b\u4e8b\u52d9\u6240","boring_xml_url":53,"boring_view_url":1,"soilmap_view_url":null,"soiltest_xml_url":0,"soiltest_view_url":0},{"id":206919,"code":"B4KJ201801009-5168","latitude":"33.3475","longitude":"129.9356","source_code":"QS2009893560020037MT410007","project_name":"","survey_name":"202\u53f7\u5357\u6ce2\u591a\u5c40\u6539\u5730\u8cea\u8abf\u67fb\u696d\u52d9","client_name":"\u5efa\u8a2d\u7701\u4e5d\u5dde\u5730\u65b9\u5efa\u8a2d\u5c40\u4f50\u8cc0\u56fd\u9053\u5de5\u4e8b\u4e8b\u52d9\u6240","boring_xml_url":53,"boring_view_url":1,"soilmap_view_url":null,"soiltest_xml_url":0,"soiltest_view_url":0},{"id":206918,"code":"B4KJ201801009-5167","latitude":"33.3489","longitude":"129.9367","source_code":"QS2009893560020037MT410006","project_name":"","survey_name":"202\u53f7\u5357\u6ce2\u591a\u5c40\u6539\u5730\u8cea\u8abf\u67fb\u696d\u52d9","client_name":"\u5efa\u8a2d\u7701\u4e5d\u5dde\u5730\u65b9\u5efa\u8a2d\u5c40\u4f50\u8cc0\u56fd\u9053\u5de5\u4e8b\u4e8b\u52d9\u6240","boring_xml_url":53,"boring_view_url":1,"soilmap_view_url":null,"soiltest_xml_url":0,"soiltest_view_url":0},{"id":206917,"code":"B4KJ201801009-5166","latitude":"33.3489","longitude":"129.9356","source_code":"QS2009893560020037MT410005","project_name":"","survey_name":"202\u53f7\u5357\u6ce2\u591a\u5c40\u6539\u5730\u8cea\u8abf\u67fb\u696d\u52d9","client_name":"\u5efa\u8a2d\u7701\u4e5d\u5dde\u5730\u65b9\u5efa\u8a2d\u5c40\u4f50\u8cc0\u56fd\u9053\u5de5\u4e8b\u4e8b\u52d9\u6240","boring_xml_url":53,"boring_view_url":1,"soilmap_view_url":null,"soiltest_xml_url":0,"soiltest_view_url":0},{"id":206916,"code":"B4KJ201801009-5165","latitude":"33.3489","longitude":"129.9356","source_code":"QS2009893560020037MT410004","project_name":"","survey_name":"202\u53f7\u5357\u6ce2\u591a\u5c40\u6539\u5730\u8cea\u8abf\u67fb\u696d\u52d9","client_name":"\u5efa\u8a2d\u7701\u4e5d\u5dde\u5730\u65b9\u5efa\u8a2d\u5c40\u4f50\u8cc0\u56fd\u9053\u5de5\u4e8b\u4e8b\u52d9\u6240","boring_xml_url":53,"boring_view_url":1,"soilmap_view_url":null,"soiltest_xml_url":0,"soiltest_view_url":0},{"id":206915,"code":"B4KJ201801009-5164","latitude":"33.35","longitude":"129.9367","source_code":"QS2009893560020037MT410003","project_name":"","survey_name":"202\u53f7\u5357\u6ce2\u591a\u5c40\u6539\u5730\u8cea\u8abf\u67fb\u696d\u52d9","client_name":"\u5efa\u8a2d\u7701\u4e5d\u5dde\u5730\u65b9\u5efa\u8a2d\u5c40\u4f50\u8cc0\u56fd\u9053\u5de5\u4e8b\u4e8b\u52d9\u6240","boring_xml_url":53,"boring_view_url":1,"soilmap_view_url":null,"soiltest_xml_url":0,"soiltest_view_url":0},{"id":206914,"code":"B4KJ201801009-5163","latitude":"33.35","longitude":"129.9367","source_code":"QS2009893560020037MT410002","project_name":"","survey_name":"202\u53f7\u5357\u6ce2\u591a\u5c40\u6539\u5730\u8cea\u8abf\u67fb\u696d\u52d9","client_name":"\u5efa\u8a2d\u7701\u4e5d\u5dde\u5730\u65b9\u5efa\u8a2d\u5c40\u4f50\u8cc0\u56fd\u9053\u5de5\u4e8b\u4e8b\u52d9\u6240","boring_xml_url":53,"boring_view_url":1,"soilmap_view_url":null,"soiltest_xml_url":0,"soiltest_view_url":0},{"id":206913,"code":"B4KJ201801009-5162","latitude":"33.3533","longitude":"129.9367","source_code":"QS2009893560020037MT410001","project_name":"","survey_name":"202\u53f7\u5357\u6ce2\u591a\u5c40\u6539\u5730\u8cea\u8abf\u67fb\u696d\u52d9","client_name":"\u5efa\u8a2d\u7701\u4e5d\u5dde\u5730\u65b9\u5efa\u8a2d\u5c40\u4f50\u8cc0\u56fd\u9053\u5de5\u4e8b\u4e8b\u52d9\u6240","boring_xml_url":53,"boring_view_url":1,"soilmap_view_url":null,"soiltest_xml_url":0,"soiltest_view_url":0},{"id":206912,"code":"B4KJ201801009-5161","latitude":"33.37481","longitude":"129.95089","source_code":"QS2009893560020037MT360008","project_name":"","survey_name":"\u5e73\u621019\u5e74\u5ea6\u677e\u6d66\u5ddd\u6c34\u7cfb\u5824\u9632\u5730\u8cea\u6a2a\u65ad\u8abf\u67fb(\u305d\u306e2)\u696d\u52d9","client_name":"\u56fd\u571f\u4ea4\u901a\u7701\u4e5d\u5dde\u5730\u65b9\u6574\u5099\u5c40\u6b66\u96c4\u6cb3\u5ddd\u4e8b\u52d9\u6240","boring_xml_url":53,"boring_view_url":1,"soilmap_view_url":null,"soiltest_xml_url":56,"soiltest_view_url":56},{"id":206911,"code":"B4KJ201801009-5160","latitude":"33.37472","longitude":"129.95103","source_code":"QS2009893560020037MT360007","project_name":"","survey_name":"\u5e73\u621019\u5e74\u5ea6\u677e\u6d66\u5ddd\u6c34\u7cfb\u5824\u9632\u5730\u8cea\u6a2a\u65ad\u8abf\u67fb(\u305d\u306e2)\u696d\u52d9","client_name":"\u56fd\u571f\u4ea4\u901a\u7701\u4e5d\u5dde\u5730\u65b9\u6574\u5099\u5c40\u6b66\u96c4\u6cb3\u5ddd\u4e8b\u52d9\u6240","boring_xml_url":53,"boring_view_url":1,"soilmap_view_url":null,"soiltest_xml_url":56,"soiltest_view_url":56},{"id":206910,"code":"B4KJ201801009-5159","latitude":"33.39417","longitude":"129.95703","source_code":"QS2009893560020037MT360006","project_name":"","survey_name":"\u5e73\u621019\u5e74\u5ea6\u677e\u6d66\u5ddd\u6c34\u7cfb\u5824\u9632\u5730\u8cea\u6a2a\u65ad\u8abf\u67fb(\u305d\u306e2)\u696d\u52d9","client_name":"\u56fd\u571f\u4ea4\u901a\u7701\u4e5d\u5dde\u5730\u65b9\u6574\u5099\u5c40\u6b66\u96c4\u6cb3\u5ddd\u4e8b\u52d9\u6240","boring_xml_url":53,"boring_view_url":1,"soilmap_view_url":null,"soiltest_xml_url":56,"soiltest_view_url":56},{"id":206909,"code":"B4KJ201801009-5158","latitude":"33.39408","longitude":"129.95711","source_code":"QS2009893560020037MT360005","project_name":"","survey_name":"\u5e73\u621019\u5e74\u5ea6\u677e\u6d66\u5ddd\u6c34\u7cfb\u5824\u9632\u5730\u8cea\u6a2a\u65ad\u8abf\u67fb(\u305d\u306e2)\u696d\u52d9","client_name":"\u56fd\u571f\u4ea4\u901a\u7701\u4e5d\u5dde\u5730\u65b9\u6574\u5099\u5c40\u6b66\u96c4\u6cb3\u5ddd\u4e8b\u52d9\u6240","boring_xml_url":53,"boring_view_url":1,"soilmap_view_url":null,"soiltest_xml_url":56,"soiltest_view_url":56},{"id":206908,"code":"B4KJ201801009-5157","latitude":"33.39761","longitude":"129.96461","source_code":"QS2009893560020037MT360004","project_name":"","survey_name":"\u5e73\u621019\u5e74\u5ea6\u677e\u6d66\u5ddd\u6c34\u7cfb\u5824\u9632\u5730\u8cea\u6a2a\u65ad\u8abf\u67fb(\u305d\u306e2)\u696d\u52d9","client_name":"\u56fd\u571f\u4ea4\u901a\u7701\u4e5d\u5dde\u5730\u65b9\u6574\u5099\u5c40\u6b66\u96c4\u6cb3\u5ddd\u4e8b\u52d9\u6240","boring_xml_url":53,"boring_view_url":1,"soilmap_view_url":null,"soiltest_xml_url":56,"soiltest_view_url":56},{"id":206907,"code":"B4KJ201801009-5156","latitude":"33.39769","longitude":"129.96458","source_code":"QS2009893560020037MT360003","project_name":"","survey_name":"\u5e73\u621019\u5e74\u5ea6\u677e\u6d66\u5ddd\u6c34\u7cfb\u5824\u9632\u5730\u8cea\u6a2a\u65ad\u8abf\u67fb(\u305d\u306e2)\u696d\u52d9","client_name":"\u56fd\u571f\u4ea4\u901a\u7701\u4e5d\u5dde\u5730\u65b9\u6574\u5099\u5c40\u6b66\u96c4\u6cb3\u5ddd\u4e8b\u52d9\u6240","boring_xml_url":53,"boring_view_url":1,"soilmap_view_url":null,"soiltest_xml_url":56,"soiltest_view_url":56},{"id":206906,"code":"B4KJ201801009-5155","latitude":"33.39867","longitude":"129.96656","source_code":"QS2009893560020037MT360002","project_name":"","survey_name":"\u5e73\u621019\u5e74\u5ea6\u677e\u6d66\u5ddd\u6c34\u7cfb\u5824\u9632\u5730\u8cea\u6a2a\u65ad\u8abf\u67fb(\u305d\u306e2)\u696d\u52d9","client_name":"\u56fd\u571f\u4ea4\u901a\u7701\u4e5d\u5dde\u5730\u65b9\u6574\u5099\u5c40\u6b66\u96c4\u6cb3\u5ddd\u4e8b\u52d9\u6240","boring_xml_url":53,"boring_view_url":1,"soilmap_view_url":null,"soiltest_xml_url":56,"soiltest_view_url":56}]}}