{"header":{"xyz":{"source":[],"mosaic":false},"page":3792,"raw":{"soiltest_result":"0","bbox":"57.598333,109.544722,1.933333,163.806111","page":"3792"},"conditions":{"soiltest_result":0,"north":57.598333,"west":109.544722,"south":1.933333,"east":163.806111},"success":true,"message":""},"data":{"meta":{"total":212844,"page":3792,"pages":7095,"count":30},"values":[{"id":206815,"code":"B4KJ201801009-5064","latitude":"33.40987672","longitude":"129.9855536","source_code":"QS2009893560020037MT250004","project_name":"\u5e73\u621018\u5e74\u5ea6 \u677e\u6d66\u5ddd\u5824\u9632\u8a73\u7d30\u8abf\u67fb\u696d\u52d9","survey_name":"\u5e73\u621018\u5e74\u5ea6 \u677e\u6d66\u5ddd\u5824\u9632\u8a73\u7d30\u8abf\u67fb\u696d\u52d9","client_name":"\u56fd\u571f\u4ea4\u901a\u7701\u4e5d\u5dde\u5730\u65b9\u6574\u5099\u5c40\u6b66\u96c4\u6cb3\u5ddd\u4e8b\u52d9\u6240","boring_xml_url":53,"boring_view_url":1,"soilmap_view_url":null,"soiltest_xml_url":56,"soiltest_view_url":56},{"id":206814,"code":"B4KJ201801009-5063","latitude":"33.40994247","longitude":"129.9854803","source_code":"QS2009893560020037MT250003","project_name":"\u5e73\u621018\u5e74\u5ea6 \u677e\u6d66\u5ddd\u5824\u9632\u8a73\u7d30\u8abf\u67fb\u696d\u52d9","survey_name":"\u5e73\u621018\u5e74\u5ea6 \u677e\u6d66\u5ddd\u5824\u9632\u8a73\u7d30\u8abf\u67fb\u696d\u52d9","client_name":"\u56fd\u571f\u4ea4\u901a\u7701\u4e5d\u5dde\u5730\u65b9\u6574\u5099\u5c40\u6b66\u96c4\u6cb3\u5ddd\u4e8b\u52d9\u6240","boring_xml_url":53,"boring_view_url":1,"soilmap_view_url":null,"soiltest_xml_url":56,"soiltest_view_url":56},{"id":206813,"code":"B4KJ201801009-5062","latitude":"33.421427","longitude":"129.9902992","source_code":"QS2009893560020037MT250002","project_name":"\u5e73\u621018\u5e74\u5ea6 \u677e\u6d66\u5ddd\u5824\u9632\u8a73\u7d30\u8abf\u67fb\u696d\u52d9","survey_name":"\u5e73\u621018\u5e74\u5ea6 \u677e\u6d66\u5ddd\u5824\u9632\u8a73\u7d30\u8abf\u67fb\u696d\u52d9","client_name":"\u56fd\u571f\u4ea4\u901a\u7701\u4e5d\u5dde\u5730\u65b9\u6574\u5099\u5c40\u6b66\u96c4\u6cb3\u5ddd\u4e8b\u52d9\u6240","boring_xml_url":53,"boring_view_url":1,"soilmap_view_url":null,"soiltest_xml_url":56,"soiltest_view_url":56},{"id":206812,"code":"B4KJ201801009-5061","latitude":"33.42147256","longitude":"129.9901753","source_code":"QS2009893560020037MT250001","project_name":"\u5e73\u621018\u5e74\u5ea6 \u677e\u6d66\u5ddd\u5824\u9632\u8a73\u7d30\u8abf\u67fb\u696d\u52d9","survey_name":"\u5e73\u621018\u5e74\u5ea6 \u677e\u6d66\u5ddd\u5824\u9632\u8a73\u7d30\u8abf\u67fb\u696d\u52d9","client_name":"\u56fd\u571f\u4ea4\u901a\u7701\u4e5d\u5dde\u5730\u65b9\u6574\u5099\u5c40\u6b66\u96c4\u6cb3\u5ddd\u4e8b\u52d9\u6240","boring_xml_url":53,"boring_view_url":1,"soilmap_view_url":null,"soiltest_xml_url":56,"soiltest_view_url":56},{"id":206811,"code":"B4KJ201801009-5060","latitude":"33.415922","longitude":"129.988672","source_code":"QS2009893560020037M90012","project_name":"","survey_name":"\u677e\u6d66\u5ddd\u5730\u8cea\u8abf\u67fb","client_name":"\u5efa\u8a2d\u7701\u4e5d\u5dde\u5730\u65b9\u5efa\u8a2d\u5c40\u6b66\u96c4\u5de5\u4e8b\u4e8b\u52d9\u6240","boring_xml_url":51,"boring_view_url":1,"soilmap_view_url":null,"soiltest_xml_url":0,"soiltest_view_url":0},{"id":206810,"code":"B4KJ201801009-5059","latitude":"33.415983","longitude":"129.986578","source_code":"QS2009893560020037M90011","project_name":"","survey_name":"\u677e\u6d66\u5ddd\u5730\u8cea\u8abf\u67fb","client_name":"\u5efa\u8a2d\u7701\u4e5d\u5dde\u5730\u65b9\u5efa\u8a2d\u5c40\u6b66\u96c4\u5de5\u4e8b\u4e8b\u52d9\u6240","boring_xml_url":51,"boring_view_url":1,"soilmap_view_url":null,"soiltest_xml_url":0,"soiltest_view_url":0},{"id":206809,"code":"B4KJ201801009-5058","latitude":"33.427794","longitude":"129.994836","source_code":"QS2009893560020037M90010","project_name":"","survey_name":"\u677e\u6d66\u5ddd\u5730\u8cea\u8abf\u67fb","client_name":"\u5efa\u8a2d\u7701\u4e5d\u5dde\u5730\u65b9\u5efa\u8a2d\u5c40\u6b66\u96c4\u5de5\u4e8b\u4e8b\u52d9\u6240","boring_xml_url":51,"boring_view_url":1,"soilmap_view_url":null,"soiltest_xml_url":0,"soiltest_view_url":0},{"id":206808,"code":"B4KJ201801009-5057","latitude":"33.428628","longitude":"129.991592","source_code":"QS2009893560020037M90009","project_name":"","survey_name":"\u677e\u6d66\u5ddd\u5730\u8cea\u8abf\u67fb","client_name":"\u5efa\u8a2d\u7701\u4e5d\u5dde\u5730\u65b9\u5efa\u8a2d\u5c40\u6b66\u96c4\u5de5\u4e8b\u4e8b\u52d9\u6240","boring_xml_url":51,"boring_view_url":1,"soilmap_view_url":null,"soiltest_xml_url":0,"soiltest_view_url":0},{"id":206807,"code":"B4KJ201801009-5056","latitude":"33.394253","longitude":"129.958792","source_code":"QS2009893560020037M90008","project_name":"","survey_name":"\u677e\u6d66\u5ddd\u5730\u8cea\u8abf\u67fb","client_name":"\u5efa\u8a2d\u7701\u4e5d\u5dde\u5730\u65b9\u5efa\u8a2d\u5c40\u6b66\u96c4\u5de5\u4e8b\u4e8b\u52d9\u6240","boring_xml_url":51,"boring_view_url":1,"soilmap_view_url":null,"soiltest_xml_url":0,"soiltest_view_url":0},{"id":206806,"code":"B4KJ201801009-5055","latitude":"33.39445","longitude":"129.958539","source_code":"QS2009893560020037M90007","project_name":"","survey_name":"\u677e\u6d66\u5ddd\u5730\u8cea\u8abf\u67fb","client_name":"\u5efa\u8a2d\u7701\u4e5d\u5dde\u5730\u65b9\u5efa\u8a2d\u5c40\u6b66\u96c4\u5de5\u4e8b\u4e8b\u52d9\u6240","boring_xml_url":51,"boring_view_url":1,"soilmap_view_url":null,"soiltest_xml_url":0,"soiltest_view_url":0},{"id":206805,"code":"B4KJ201801009-5054","latitude":"33.392031","longitude":"129.954517","source_code":"QS2009893560020037M90006","project_name":"","survey_name":"\u677e\u6d66\u5ddd\u5730\u8cea\u8abf\u67fb","client_name":"\u5efa\u8a2d\u7701\u4e5d\u5dde\u5730\u65b9\u5efa\u8a2d\u5c40\u6b66\u96c4\u5de5\u4e8b\u4e8b\u52d9\u6240","boring_xml_url":51,"boring_view_url":1,"soilmap_view_url":null,"soiltest_xml_url":0,"soiltest_view_url":0},{"id":206804,"code":"B4KJ201801009-5053","latitude":"33.392269","longitude":"129.954283","source_code":"QS2009893560020037M90005","project_name":"","survey_name":"\u677e\u6d66\u5ddd\u5730\u8cea\u8abf\u67fb","client_name":"\u5efa\u8a2d\u7701\u4e5d\u5dde\u5730\u65b9\u5efa\u8a2d\u5c40\u6b66\u96c4\u5de5\u4e8b\u4e8b\u52d9\u6240","boring_xml_url":51,"boring_view_url":1,"soilmap_view_url":null,"soiltest_xml_url":0,"soiltest_view_url":0},{"id":206803,"code":"B4KJ201801009-5052","latitude":"33.352044","longitude":"130.013408","source_code":"QS2009893560020037M90004","project_name":"","survey_name":"\u677e\u6d66\u5ddd\u5730\u8cea\u8abf\u67fb","client_name":"\u5efa\u8a2d\u7701\u4e5d\u5dde\u5730\u65b9\u5efa\u8a2d\u5c40\u6b66\u96c4\u5de5\u4e8b\u4e8b\u52d9\u6240","boring_xml_url":51,"boring_view_url":1,"soilmap_view_url":null,"soiltest_xml_url":0,"soiltest_view_url":0},{"id":206802,"code":"B4KJ201801009-5051","latitude":"33.351733","longitude":"130.013117","source_code":"QS2009893560020037M90003","project_name":"","survey_name":"\u677e\u6d66\u5ddd\u5730\u8cea\u8abf\u67fb","client_name":"\u5efa\u8a2d\u7701\u4e5d\u5dde\u5730\u65b9\u5efa\u8a2d\u5c40\u6b66\u96c4\u5de5\u4e8b\u4e8b\u52d9\u6240","boring_xml_url":51,"boring_view_url":1,"soilmap_view_url":null,"soiltest_xml_url":0,"soiltest_view_url":0},{"id":206801,"code":"B4KJ201801009-5050","latitude":"33.351392","longitude":"130.012803","source_code":"QS2009893560020037M90002","project_name":"","survey_name":"\u677e\u6d66\u5ddd\u5730\u8cea\u8abf\u67fb","client_name":"\u5efa\u8a2d\u7701\u4e5d\u5dde\u5730\u65b9\u5efa\u8a2d\u5c40\u6b66\u96c4\u5de5\u4e8b\u4e8b\u52d9\u6240","boring_xml_url":51,"boring_view_url":1,"soilmap_view_url":null,"soiltest_xml_url":0,"soiltest_view_url":0},{"id":206800,"code":"B4KJ201801009-5049","latitude":"33.351164","longitude":"130.012589","source_code":"QS2009893560020037M90001","project_name":"","survey_name":"\u677e\u6d66\u5ddd\u5730\u8cea\u8abf\u67fb","client_name":"\u5efa\u8a2d\u7701\u4e5d\u5dde\u5730\u65b9\u5efa\u8a2d\u5c40\u6b66\u96c4\u5de5\u4e8b\u4e8b\u52d9\u6240","boring_xml_url":51,"boring_view_url":1,"soilmap_view_url":null,"soiltest_xml_url":0,"soiltest_view_url":0},{"id":206799,"code":"B4KJ201801009-5048","latitude":"33.2808781","longitude":"129.9653439","source_code":"QS2009893560020037M770012","project_name":"","survey_name":"\u5927\u9ed2\u4e95\u5830\u5468\u8fba\u5730\u8cea\u8abf\u67fb\u696d\u52d9","client_name":"\u56fd\u571f\u4ea4\u901a\u7701\u4e5d\u5dde\u5730\u65b9\u6574\u5099\u5c40\u6b66\u96c4\u6cb3\u5ddd\u4e8b\u52d9\u6240","boring_xml_url":52,"boring_view_url":1,"soilmap_view_url":null,"soiltest_xml_url":0,"soiltest_view_url":0},{"id":206798,"code":"B4KJ201801009-5047","latitude":"33.2823917","longitude":"129.9666631","source_code":"QS2009893560020037M770011","project_name":"","survey_name":"\u5927\u9ed2\u4e95\u5830\u5468\u8fba\u5730\u8cea\u8abf\u67fb\u696d\u52d9","client_name":"\u56fd\u571f\u4ea4\u901a\u7701\u4e5d\u5dde\u5730\u65b9\u6574\u5099\u5c40\u6b66\u96c4\u6cb3\u5ddd\u4e8b\u52d9\u6240","boring_xml_url":52,"boring_view_url":1,"soilmap_view_url":null,"soiltest_xml_url":0,"soiltest_view_url":0},{"id":206797,"code":"B4KJ201801009-5046","latitude":"33.2840028","longitude":"129.9681075","source_code":"QS2009893560020037M770010","project_name":"","survey_name":"\u5927\u9ed2\u4e95\u5830\u5468\u8fba\u5730\u8cea\u8abf\u67fb\u696d\u52d9","client_name":"\u56fd\u571f\u4ea4\u901a\u7701\u4e5d\u5dde\u5730\u65b9\u6574\u5099\u5c40\u6b66\u96c4\u6cb3\u5ddd\u4e8b\u52d9\u6240","boring_xml_url":52,"boring_view_url":1,"soilmap_view_url":null,"soiltest_xml_url":0,"soiltest_view_url":0},{"id":206796,"code":"B4KJ201801009-5045","latitude":"33.2859942","longitude":"129.9677908","source_code":"QS2009893560020037M770009","project_name":"","survey_name":"\u5927\u9ed2\u4e95\u5830\u5468\u8fba\u5730\u8cea\u8abf\u67fb\u696d\u52d9","client_name":"\u56fd\u571f\u4ea4\u901a\u7701\u4e5d\u5dde\u5730\u65b9\u6574\u5099\u5c40\u6b66\u96c4\u6cb3\u5ddd\u4e8b\u52d9\u6240","boring_xml_url":52,"boring_view_url":1,"soilmap_view_url":null,"soiltest_xml_url":0,"soiltest_view_url":0},{"id":206795,"code":"B4KJ201801009-5044","latitude":"33.2875133","longitude":"129.9680378","source_code":"QS2009893560020037M770008","project_name":"","survey_name":"\u5927\u9ed2\u4e95\u5830\u5468\u8fba\u5730\u8cea\u8abf\u67fb\u696d\u52d9","client_name":"\u56fd\u571f\u4ea4\u901a\u7701\u4e5d\u5dde\u5730\u65b9\u6574\u5099\u5c40\u6b66\u96c4\u6cb3\u5ddd\u4e8b\u52d9\u6240","boring_xml_url":52,"boring_view_url":1,"soilmap_view_url":null,"soiltest_xml_url":0,"soiltest_view_url":0},{"id":206794,"code":"B4KJ201801009-5043","latitude":"33.2891106","longitude":"129.9686711","source_code":"QS2009893560020037M770007","project_name":"","survey_name":"\u5927\u9ed2\u4e95\u5830\u5468\u8fba\u5730\u8cea\u8abf\u67fb\u696d\u52d9","client_name":"\u56fd\u571f\u4ea4\u901a\u7701\u4e5d\u5dde\u5730\u65b9\u6574\u5099\u5c40\u6b66\u96c4\u6cb3\u5ddd\u4e8b\u52d9\u6240","boring_xml_url":52,"boring_view_url":1,"soilmap_view_url":null,"soiltest_xml_url":0,"soiltest_view_url":0},{"id":206793,"code":"B4KJ201801009-5042","latitude":"33.2901158","longitude":"129.9684656","source_code":"QS2009893560020037M770006","project_name":"","survey_name":"\u5927\u9ed2\u4e95\u5830\u5468\u8fba\u5730\u8cea\u8abf\u67fb\u696d\u52d9","client_name":"\u56fd\u571f\u4ea4\u901a\u7701\u4e5d\u5dde\u5730\u65b9\u6574\u5099\u5c40\u6b66\u96c4\u6cb3\u5ddd\u4e8b\u52d9\u6240","boring_xml_url":52,"boring_view_url":1,"soilmap_view_url":null,"soiltest_xml_url":0,"soiltest_view_url":0},{"id":206792,"code":"B4KJ201801009-5041","latitude":"33.29326","longitude":"129.9685572","source_code":"QS2009893560020037M770005","project_name":"","survey_name":"\u5927\u9ed2\u4e95\u5830\u5468\u8fba\u5730\u8cea\u8abf\u67fb\u696d\u52d9","client_name":"\u56fd\u571f\u4ea4\u901a\u7701\u4e5d\u5dde\u5730\u65b9\u6574\u5099\u5c40\u6b66\u96c4\u6cb3\u5ddd\u4e8b\u52d9\u6240","boring_xml_url":52,"boring_view_url":1,"soilmap_view_url":null,"soiltest_xml_url":0,"soiltest_view_url":0},{"id":206791,"code":"B4KJ201801009-5040","latitude":"33.2924211","longitude":"129.9685794","source_code":"QS2009893560020037M770004","project_name":"","survey_name":"\u5927\u9ed2\u4e95\u5830\u5468\u8fba\u5730\u8cea\u8abf\u67fb\u696d\u52d9","client_name":"\u56fd\u571f\u4ea4\u901a\u7701\u4e5d\u5dde\u5730\u65b9\u6574\u5099\u5c40\u6b66\u96c4\u6cb3\u5ddd\u4e8b\u52d9\u6240","boring_xml_url":52,"boring_view_url":1,"soilmap_view_url":null,"soiltest_xml_url":0,"soiltest_view_url":0},{"id":206790,"code":"B4KJ201801009-5039","latitude":"33.2907742","longitude":"129.9684378","source_code":"QS2009893560020037M770003","project_name":"","survey_name":"\u5927\u9ed2\u4e95\u5830\u5468\u8fba\u5730\u8cea\u8abf\u67fb\u696d\u52d9","client_name":"\u56fd\u571f\u4ea4\u901a\u7701\u4e5d\u5dde\u5730\u65b9\u6574\u5099\u5c40\u6b66\u96c4\u6cb3\u5ddd\u4e8b\u52d9\u6240","boring_xml_url":52,"boring_view_url":1,"soilmap_view_url":null,"soiltest_xml_url":0,"soiltest_view_url":0},{"id":206789,"code":"B4KJ201801009-5038","latitude":"33.2906908","longitude":"129.9686267","source_code":"QS2009893560020037M770002","project_name":"","survey_name":"\u5927\u9ed2\u4e95\u5830\u5468\u8fba\u5730\u8cea\u8abf\u67fb\u696d\u52d9","client_name":"\u56fd\u571f\u4ea4\u901a\u7701\u4e5d\u5dde\u5730\u65b9\u6574\u5099\u5c40\u6b66\u96c4\u6cb3\u5ddd\u4e8b\u52d9\u6240","boring_xml_url":52,"boring_view_url":1,"soilmap_view_url":null,"soiltest_xml_url":0,"soiltest_view_url":0},{"id":206788,"code":"B4KJ201801009-5037","latitude":"33.2907436","longitude":"129.9682433","source_code":"QS2009893560020037M770001","project_name":"","survey_name":"\u5927\u9ed2\u4e95\u5830\u5468\u8fba\u5730\u8cea\u8abf\u67fb\u696d\u52d9","client_name":"\u56fd\u571f\u4ea4\u901a\u7701\u4e5d\u5dde\u5730\u65b9\u6574\u5099\u5c40\u6b66\u96c4\u6cb3\u5ddd\u4e8b\u52d9\u6240","boring_xml_url":52,"boring_view_url":1,"soilmap_view_url":null,"soiltest_xml_url":0,"soiltest_view_url":0},{"id":206787,"code":"B4KJ201801009-5036","latitude":"33.340794","longitude":"129.933608","source_code":"QS2009893560020037M760012","project_name":"\u5fb3\u9808\u6075\u5ddd\u6cb3\u5ddd\u6539\u4fee\u4e8b\u696d","survey_name":"\u6c34\u7559\u5730\u533a\u5730\u8cea\u8abf\u67fb\u696d\u52d9","client_name":"\u56fd\u571f\u4ea4\u901a\u7701\u4e5d\u5dde\u5730\u65b9\u6574\u5099\u5c40\u6b66\u96c4\u6cb3\u5ddd\u4e8b\u52d9\u6240","boring_xml_url":52,"boring_view_url":1,"soilmap_view_url":null,"soiltest_xml_url":0,"soiltest_view_url":0},{"id":206786,"code":"B4KJ201801009-5035","latitude":"33.340564","longitude":"129.933706","source_code":"QS2009893560020037M760011","project_name":"\u5fb3\u9808\u6075\u5ddd\u6cb3\u5ddd\u6539\u4fee\u4e8b\u696d","survey_name":"\u6c34\u7559\u5730\u533a\u5730\u8cea\u8abf\u67fb\u696d\u52d9","client_name":"\u56fd\u571f\u4ea4\u901a\u7701\u4e5d\u5dde\u5730\u65b9\u6574\u5099\u5c40\u6b66\u96c4\u6cb3\u5ddd\u4e8b\u52d9\u6240","boring_xml_url":52,"boring_view_url":1,"soilmap_view_url":null,"soiltest_xml_url":0,"soiltest_view_url":0}]}}