{"header":{"xyz":{"source":[],"mosaic":false},"page":3794,"raw":{"soiltest_result":"0","bbox":"57.598333,109.544722,1.933333,163.806111","page":"3794"},"conditions":{"soiltest_result":0,"north":57.598333,"west":109.544722,"south":1.933333,"east":163.806111},"success":true,"message":""},"data":{"meta":{"total":212844,"page":3794,"pages":7095,"count":30},"values":[{"id":206755,"code":"B4KJ201801009-5004","latitude":"33.3941344","longitude":"129.9586303","source_code":"QS2009893560020037M730010","project_name":"","survey_name":"\u7530\u982d\u5730\u533a\u5730\u8cea\u8abf\u67fb\u696d\u52d9","client_name":"\u56fd\u571f\u4ea4\u901a\u7701\u4e5d\u5dde\u5730\u65b9\u6574\u5099\u5c40\u6b66\u96c4\u5de5\u4e8b\u4e8b\u52d9\u6240","boring_xml_url":52,"boring_view_url":1,"soilmap_view_url":null,"soiltest_xml_url":55,"soiltest_view_url":55},{"id":206754,"code":"B4KJ201801009-5003","latitude":"33.3942733","longitude":"129.9585192","source_code":"QS2009893560020037M730009","project_name":"","survey_name":"\u7530\u982d\u5730\u533a\u5730\u8cea\u8abf\u67fb\u696d\u52d9","client_name":"\u56fd\u571f\u4ea4\u901a\u7701\u4e5d\u5dde\u5730\u65b9\u6574\u5099\u5c40\u6b66\u96c4\u5de5\u4e8b\u4e8b\u52d9\u6240","boring_xml_url":52,"boring_view_url":1,"soilmap_view_url":null,"soiltest_xml_url":55,"soiltest_view_url":55},{"id":206753,"code":"B4KJ201801009-5002","latitude":"33.32931","longitude":"130.0397636","source_code":"QS2009893560020037M730008","project_name":"","survey_name":"\u7530\u982d\u5730\u533a\u5730\u8cea\u8abf\u67fb\u696d\u52d9","client_name":"\u56fd\u571f\u4ea4\u901a\u7701\u4e5d\u5dde\u5730\u65b9\u6574\u5099\u5c40\u6b66\u96c4\u5de5\u4e8b\u4e8b\u52d9\u6240","boring_xml_url":52,"boring_view_url":1,"soilmap_view_url":null,"soiltest_xml_url":0,"soiltest_view_url":0},{"id":206752,"code":"B4KJ201801009-5001","latitude":"33.32931","longitude":"130.0396525","source_code":"QS2009893560020037M730007","project_name":"","survey_name":"\u7530\u982d\u5730\u533a\u5730\u8cea\u8abf\u67fb\u696d\u52d9","client_name":"\u56fd\u571f\u4ea4\u901a\u7701\u4e5d\u5dde\u5730\u65b9\u6574\u5099\u5c40\u6b66\u96c4\u5de5\u4e8b\u4e8b\u52d9\u6240","boring_xml_url":52,"boring_view_url":1,"soilmap_view_url":null,"soiltest_xml_url":0,"soiltest_view_url":0},{"id":206751,"code":"B4KJ201801009-5000","latitude":"33.3339761","longitude":"130.0398744","source_code":"QS2009893560020037M730006","project_name":"","survey_name":"\u7530\u982d\u5730\u533a\u5730\u8cea\u8abf\u67fb\u696d\u52d9","client_name":"\u56fd\u571f\u4ea4\u901a\u7701\u4e5d\u5dde\u5730\u65b9\u6574\u5099\u5c40\u6b66\u96c4\u5de5\u4e8b\u4e8b\u52d9\u6240","boring_xml_url":52,"boring_view_url":1,"soilmap_view_url":null,"soiltest_xml_url":0,"soiltest_view_url":0},{"id":206750,"code":"B4KJ201801009-4999","latitude":"33.3339483","longitude":"130.0397358","source_code":"QS2009893560020037M730005","project_name":"","survey_name":"\u7530\u982d\u5730\u533a\u5730\u8cea\u8abf\u67fb\u696d\u52d9","client_name":"\u56fd\u571f\u4ea4\u901a\u7701\u4e5d\u5dde\u5730\u65b9\u6574\u5099\u5c40\u6b66\u96c4\u5de5\u4e8b\u4e8b\u52d9\u6240","boring_xml_url":52,"boring_view_url":1,"soilmap_view_url":null,"soiltest_xml_url":0,"soiltest_view_url":0},{"id":206749,"code":"B4KJ201801009-4998","latitude":"33.3368647","longitude":"130.0393467","source_code":"QS2009893560020037M730004","project_name":"","survey_name":"\u7530\u982d\u5730\u533a\u5730\u8cea\u8abf\u67fb\u696d\u52d9","client_name":"\u56fd\u571f\u4ea4\u901a\u7701\u4e5d\u5dde\u5730\u65b9\u6574\u5099\u5c40\u6b66\u96c4\u5de5\u4e8b\u4e8b\u52d9\u6240","boring_xml_url":52,"boring_view_url":1,"soilmap_view_url":null,"soiltest_xml_url":0,"soiltest_view_url":0},{"id":206748,"code":"B4KJ201801009-4997","latitude":"33.3368092","longitude":"130.0392078","source_code":"QS2009893560020037M730003","project_name":"","survey_name":"\u7530\u982d\u5730\u533a\u5730\u8cea\u8abf\u67fb\u696d\u52d9","client_name":"\u56fd\u571f\u4ea4\u901a\u7701\u4e5d\u5dde\u5730\u65b9\u6574\u5099\u5c40\u6b66\u96c4\u5de5\u4e8b\u4e8b\u52d9\u6240","boring_xml_url":52,"boring_view_url":1,"soilmap_view_url":null,"soiltest_xml_url":0,"soiltest_view_url":0},{"id":206747,"code":"B4KJ201801009-4996","latitude":"33.3378089","longitude":"130.0390133","source_code":"QS2009893560020037M730002","project_name":"","survey_name":"\u7530\u982d\u5730\u533a\u5730\u8cea\u8abf\u67fb\u696d\u52d9","client_name":"\u56fd\u571f\u4ea4\u901a\u7701\u4e5d\u5dde\u5730\u65b9\u6574\u5099\u5c40\u6b66\u96c4\u5de5\u4e8b\u4e8b\u52d9\u6240","boring_xml_url":52,"boring_view_url":1,"soilmap_view_url":null,"soiltest_xml_url":0,"soiltest_view_url":0},{"id":206746,"code":"B4KJ201801009-4995","latitude":"33.3377256","longitude":"130.0388744","source_code":"QS2009893560020037M730001","project_name":"","survey_name":"\u7530\u982d\u5730\u533a\u5730\u8cea\u8abf\u67fb\u696d\u52d9","client_name":"\u56fd\u571f\u4ea4\u901a\u7701\u4e5d\u5dde\u5730\u65b9\u6574\u5099\u5c40\u6b66\u96c4\u5de5\u4e8b\u4e8b\u52d9\u6240","boring_xml_url":52,"boring_view_url":1,"soilmap_view_url":null,"soiltest_xml_url":0,"soiltest_view_url":0},{"id":206745,"code":"B4KJ201801009-4994","latitude":"33.307739","longitude":"129.970636","source_code":"QS2009893560020037M70008","project_name":"","survey_name":"\u677e\u6d66\u5ddd\u6a0b\u7ba1\u30f6\u6240\u5730\u8cea\u8abf\u67fb\u5de5\u4e8b","client_name":"\u5efa\u8a2d\u7701\u4e5d\u5dde\u5730\u65b9\u5efa\u8a2d\u5c40\u6b66\u96c4\u5de5\u4e8b\u4e8b\u52d9\u6240","boring_xml_url":51,"boring_view_url":1,"soilmap_view_url":null,"soiltest_xml_url":0,"soiltest_view_url":0},{"id":206744,"code":"B4KJ201801009-4993","latitude":"33.307964","longitude":"129.970808","source_code":"QS2009893560020037M70007","project_name":"","survey_name":"\u677e\u6d66\u5ddd\u6a0b\u7ba1\u30f6\u6240\u5730\u8cea\u8abf\u67fb\u5de5\u4e8b","client_name":"\u5efa\u8a2d\u7701\u4e5d\u5dde\u5730\u65b9\u5efa\u8a2d\u5c40\u6b66\u96c4\u5de5\u4e8b\u4e8b\u52d9\u6240","boring_xml_url":51,"boring_view_url":1,"soilmap_view_url":null,"soiltest_xml_url":0,"soiltest_view_url":0},{"id":206743,"code":"B4KJ201801009-4992","latitude":"33.311103","longitude":"129.976094","source_code":"QS2009893560020037M70006","project_name":"","survey_name":"\u677e\u6d66\u5ddd\u6a0b\u7ba1\u30f6\u6240\u5730\u8cea\u8abf\u67fb\u5de5\u4e8b","client_name":"\u5efa\u8a2d\u7701\u4e5d\u5dde\u5730\u65b9\u5efa\u8a2d\u5c40\u6b66\u96c4\u5de5\u4e8b\u4e8b\u52d9\u6240","boring_xml_url":51,"boring_view_url":1,"soilmap_view_url":null,"soiltest_xml_url":0,"soiltest_view_url":0},{"id":206742,"code":"B4KJ201801009-4991","latitude":"33.310939","longitude":"129.976111","source_code":"QS2009893560020037M70005","project_name":"","survey_name":"\u677e\u6d66\u5ddd\u6a0b\u7ba1\u30f6\u6240\u5730\u8cea\u8abf\u67fb\u5de5\u4e8b","client_name":"\u5efa\u8a2d\u7701\u4e5d\u5dde\u5730\u65b9\u5efa\u8a2d\u5c40\u6b66\u96c4\u5de5\u4e8b\u4e8b\u52d9\u6240","boring_xml_url":51,"boring_view_url":1,"soilmap_view_url":null,"soiltest_xml_url":0,"soiltest_view_url":0},{"id":206741,"code":"B4KJ201801009-4990","latitude":"33.398764","longitude":"129.9692","source_code":"QS2009893560020037M70004","project_name":"","survey_name":"\u677e\u6d66\u5ddd\u6a0b\u7ba1\u30f6\u6240\u5730\u8cea\u8abf\u67fb","client_name":"\u5efa\u8a2d\u7701\u4e5d\u5dde\u5730\u65b9\u5efa\u8a2d\u5c40\u6b66\u96c4\u5de5\u4e8b\u4e8b\u52d9\u6240","boring_xml_url":51,"boring_view_url":1,"soilmap_view_url":null,"soiltest_xml_url":0,"soiltest_view_url":0},{"id":206740,"code":"B4KJ201801009-4989","latitude":"33.399122","longitude":"129.969008","source_code":"QS2009893560020037M70003","project_name":"","survey_name":"\u677e\u6d66\u5ddd\u6a0b\u7ba1\u30f6\u6240\u5730\u8cea\u8abf\u67fb","client_name":"\u5efa\u8a2d\u7701\u4e5d\u5dde\u5730\u65b9\u5efa\u8a2d\u5c40\u6b66\u96c4\u5de5\u4e8b\u4e8b\u52d9\u6240","boring_xml_url":51,"boring_view_url":1,"soilmap_view_url":null,"soiltest_xml_url":0,"soiltest_view_url":0},{"id":206739,"code":"B4KJ201801009-4988","latitude":"33.394956","longitude":"129.958528","source_code":"QS2009893560020037M70002","project_name":"","survey_name":"\u677e\u6d66\u5ddd\u6a0b\u7ba1\u30f6\u6240\u5730\u8cea\u8abf\u67fb\u5de5\u4e8b","client_name":"\u5efa\u8a2d\u7701\u4e5d\u5dde\u5730\u65b9\u5efa\u8a2d\u5c40\u6b66\u96c4\u5de5\u4e8b\u4e8b\u52d9\u6240","boring_xml_url":51,"boring_view_url":1,"soilmap_view_url":null,"soiltest_xml_url":0,"soiltest_view_url":0},{"id":206738,"code":"B4KJ201801009-4987","latitude":"33.395225","longitude":"129.958281","source_code":"QS2009893560020037M70001","project_name":"","survey_name":"\u677e\u6d66\u5ddd\u6a0b\u7ba1\u30f6\u6240\u5730\u8cea\u8abf\u67fb\u5de5\u4e8b","client_name":"\u5efa\u8a2d\u7701\u4e5d\u5dde\u5730\u65b9\u5efa\u8a2d\u5c40\u6b66\u96c4\u5de5\u4e8b\u4e8b\u52d9\u6240","boring_xml_url":51,"boring_view_url":1,"soilmap_view_url":null,"soiltest_xml_url":0,"soiltest_view_url":0},{"id":206737,"code":"B4KJ201801009-4986","latitude":"33.335922","longitude":"129.971519","source_code":"QS2009893560020037M670002","project_name":"","survey_name":"\u4e2d\u677e\u6d66\u9244\u9053\u6a4b\u4ed8\u8fd1\u5730\u8cea\u8abf\u67fb\u696d\u52d9","client_name":"\u5efa\u8a2d\u7701\u4e5d\u5dde\u5730\u65b9\u5efa\u8a2d\u5c40\u6b66\u96c4\u5de5\u4e8b\u4e8b\u52d9\u6240","boring_xml_url":52,"boring_view_url":1,"soilmap_view_url":null,"soiltest_xml_url":0,"soiltest_view_url":0},{"id":206736,"code":"B4KJ201801009-4985","latitude":"33.336272","longitude":"129.971867","source_code":"QS2009893560020037M670001","project_name":"","survey_name":"\u4e2d\u677e\u6d66\u9244\u9053\u6a4b\u4ed8\u8fd1\u5730\u8cea\u8abf\u67fb\u696d\u52d9","client_name":"\u5efa\u8a2d\u7701\u4e5d\u5dde\u5730\u65b9\u5efa\u8a2d\u5c40\u6b66\u96c4\u5de5\u4e8b\u4e8b\u52d9\u6240","boring_xml_url":52,"boring_view_url":1,"soilmap_view_url":null,"soiltest_xml_url":0,"soiltest_view_url":0},{"id":206735,"code":"B4KJ201801009-4984","latitude":"33.307394","longitude":"129.970428","source_code":"QS2009893560020037M660002","project_name":"","survey_name":"\u5927\u5ddd\u91ce\u5730\u533a\u5730\u8cea\u8abf\u67fb\u696d\u52d9","client_name":"\u5efa\u8a2d\u7701\u4e5d\u5dde\u5730\u65b9\u5efa\u8a2d\u5c40\u6b66\u96c4\u5de5\u4e8b\u4e8b\u52d9\u6240","boring_xml_url":52,"boring_view_url":1,"soilmap_view_url":null,"soiltest_xml_url":0,"soiltest_view_url":0},{"id":206734,"code":"B4KJ201801009-4983","latitude":"33.307814","longitude":"129.970511","source_code":"QS2009893560020037M660001","project_name":"","survey_name":"\u5927\u5ddd\u91ce\u5730\u533a\u5730\u8cea\u8abf\u67fb\u696d\u52d9","client_name":"\u5efa\u8a2d\u7701\u4e5d\u5dde\u5730\u65b9\u5efa\u8a2d\u5c40\u6b66\u96c4\u5de5\u4e8b\u4e8b\u52d9\u6240","boring_xml_url":52,"boring_view_url":1,"soilmap_view_url":null,"soiltest_xml_url":0,"soiltest_view_url":0},{"id":206733,"code":"B4KJ201801009-4982","latitude":"33.354572","longitude":"130.006294","source_code":"QS2009893560020037M540002","project_name":"","survey_name":"\u4e2d\u5c71\u5730\u533a\u5730\u8cea\u8abf\u67fb\u696d\u52d9(\u677e\u6d66\u5ddd)","client_name":"\u5efa\u8a2d\u7701\u4e5d\u5dde\u5730\u65b9\u5efa\u8a2d\u5c40\u6b66\u96c4\u5de5\u4e8b\u4e8b\u52d9\u6240","boring_xml_url":52,"boring_view_url":1,"soilmap_view_url":null,"soiltest_xml_url":55,"soiltest_view_url":55},{"id":206732,"code":"B4KJ201801009-4981","latitude":"33.354425","longitude":"130.006289","source_code":"QS2009893560020037M540001","project_name":"","survey_name":"\u4e2d\u5c71\u5730\u533a\u5730\u8cea\u8abf\u67fb\u696d\u52d9(\u677e\u6d66\u5ddd)","client_name":"\u5efa\u8a2d\u7701\u4e5d\u5dde\u5730\u65b9\u5efa\u8a2d\u5c40\u6b66\u96c4\u5de5\u4e8b\u4e8b\u52d9\u6240","boring_xml_url":52,"boring_view_url":1,"soilmap_view_url":null,"soiltest_xml_url":55,"soiltest_view_url":55},{"id":206731,"code":"B4KJ201801009-4980","latitude":"33.377411","longitude":"129.996414","source_code":"QS2009893560020037M530004","project_name":"","survey_name":"\u5927\u91ce\u6392\u6c34\u6a0b\u7ba1\u59161\u4ef6\u5730\u8cea\u8abf\u67fb\u696d\u52d9","client_name":"\u5efa\u8a2d\u7701\u4e5d\u5dde\u5730\u65b9\u5efa\u8a2d\u5c40\u6b66\u96c4\u5de5\u4e8b\u4e8b\u52d9\u6240","boring_xml_url":52,"boring_view_url":1,"soilmap_view_url":null,"soiltest_xml_url":0,"soiltest_view_url":0},{"id":206730,"code":"B4KJ201801009-4979","latitude":"33.377567","longitude":"129.996542","source_code":"QS2009893560020037M530003","project_name":"","survey_name":"\u5927\u91ce\u6392\u6c34\u6a0b\u7ba1\u59161\u4ef6\u5730\u8cea\u8abf\u67fb\u696d\u52d9","client_name":"\u5efa\u8a2d\u7701\u4e5d\u5dde\u5730\u65b9\u5efa\u8a2d\u5c40\u6b66\u96c4\u5de5\u4e8b\u4e8b\u52d9\u6240","boring_xml_url":52,"boring_view_url":1,"soilmap_view_url":null,"soiltest_xml_url":0,"soiltest_view_url":0},{"id":206729,"code":"B4KJ201801009-4978","latitude":"33.377208","longitude":"129.997178","source_code":"QS2009893560020037M530002","project_name":"","survey_name":"\u5927\u91ce\u6392\u6c34\u6a0b\u7ba1\u59161\u4ef6\u5730\u8cea\u8abf\u67fb\u696d\u52d9","client_name":"\u5efa\u8a2d\u7701\u4e5d\u5dde\u5730\u65b9\u5efa\u8a2d\u5c40\u6b66\u96c4\u5de5\u4e8b\u4e8b\u52d9\u6240","boring_xml_url":52,"boring_view_url":1,"soilmap_view_url":null,"soiltest_xml_url":0,"soiltest_view_url":0},{"id":206728,"code":"B4KJ201801009-4977","latitude":"33.377428","longitude":"129.997322","source_code":"QS2009893560020037M530001","project_name":"","survey_name":"\u5927\u91ce\u6392\u6c34\u6a0b\u7ba1\u59161\u4ef6\u5730\u8cea\u8abf\u67fb\u696d\u52d9","client_name":"\u5efa\u8a2d\u7701\u4e5d\u5dde\u5730\u65b9\u5efa\u8a2d\u5c40\u6b66\u96c4\u5de5\u4e8b\u4e8b\u52d9\u6240","boring_xml_url":52,"boring_view_url":1,"soilmap_view_url":null,"soiltest_xml_url":0,"soiltest_view_url":0},{"id":206727,"code":"B4KJ201801009-4976","latitude":"33.334489","longitude":"129.989783","source_code":"QS2009893560020037M510006","project_name":"","survey_name":"\u6749\u91ce\u5730\u533a\u5730\u8cea\u8abf\u67fb\u696d\u52d9(\u677e\u6d66\u5ddd)","client_name":"\u5efa\u8a2d\u7701\u4e5d\u5dde\u5730\u65b9\u5efa\u8a2d\u5c40\u6b66\u96c4\u5de5\u4e8b\u4e8b\u52d9\u6240","boring_xml_url":52,"boring_view_url":1,"soilmap_view_url":null,"soiltest_xml_url":0,"soiltest_view_url":0},{"id":206726,"code":"B4KJ201801009-4975","latitude":"33.334567","longitude":"129.989742","source_code":"QS2009893560020037M510005","project_name":"","survey_name":"\u6749\u91ce\u5730\u533a\u5730\u8cea\u8abf\u67fb\u696d\u52d9(\u677e\u6d66\u5ddd)","client_name":"\u5efa\u8a2d\u7701\u4e5d\u5dde\u5730\u65b9\u5efa\u8a2d\u5c40\u6b66\u96c4\u5de5\u4e8b\u4e8b\u52d9\u6240","boring_xml_url":52,"boring_view_url":1,"soilmap_view_url":null,"soiltest_xml_url":0,"soiltest_view_url":0}]}}