{"header":{"xyz":{"source":[],"mosaic":false},"page":3814,"raw":{"soiltest_result":"0","bbox":"57.598333,109.544722,1.933333,163.806111","page":"3814"},"conditions":{"soiltest_result":0,"north":57.598333,"west":109.544722,"south":1.933333,"east":163.806111},"success":true,"message":""},"data":{"meta":{"total":212844,"page":3814,"pages":7095,"count":30},"values":[{"id":206155,"code":"B4KJ201801009-4404","latitude":"33.209683","longitude":"130.134511","source_code":"QS2009893560020035R680001","project_name":"","survey_name":"\u5927\u753a\u753a\u81e8\u6642\u77f3\u70ad\u9271\u5bb3\u5fa9\u65e7\u4e8b\u696d\u7551\u30f6\u7530\u5730\u533a\u5730\u8cea\u8abf\u67fb\u696d\u52d9","client_name":"\u5927\u753a\u753a\u5f79\u5834","boring_xml_url":52,"boring_view_url":1,"soilmap_view_url":null,"soiltest_xml_url":55,"soiltest_view_url":55},{"id":206154,"code":"B4KJ201801009-4403","latitude":"33.184964","longitude":"130.049083","source_code":"QS2009893560020035R660002","project_name":"","survey_name":"\u5927\u65e5\u5830\u5730\u8cea\u8abf\u67fb\u53ca\u3073\u89e3\u6790(\u305d\u306e2)\u696d\u52d9","client_name":"\u5efa\u8a2d\u7701\u4e5d\u5dde\u5730\u65b9\u5efa\u8a2d\u5c40\u6b66\u96c4\u5de5\u4e8b\u4e8b\u52d9\u6240","boring_xml_url":52,"boring_view_url":1,"soilmap_view_url":null,"soiltest_xml_url":55,"soiltest_view_url":55},{"id":206153,"code":"B4KJ201801009-4402","latitude":"33.184942","longitude":"130.048722","source_code":"QS2009893560020035R660001","project_name":"","survey_name":"\u5927\u65e5\u5830\u5730\u8cea\u8abf\u67fb\u53ca\u3073\u89e3\u6790(\u305d\u306e2)\u696d\u52d9","client_name":"\u5efa\u8a2d\u7701\u4e5d\u5dde\u5730\u65b9\u5efa\u8a2d\u5c40\u6b66\u96c4\u5de5\u4e8b\u4e8b\u52d9\u6240","boring_xml_url":52,"boring_view_url":1,"soilmap_view_url":null,"soiltest_xml_url":55,"soiltest_view_url":55},{"id":206152,"code":"B4KJ201801009-4401","latitude":"33.198631","longitude":"130.199125","source_code":"QS2009893560020035R650003","project_name":"","survey_name":"\u897f\u4f4f\u30ce\u6c5f\u5730\u533a\u5730\u8cea\u8abf\u67fb\u53ca\u3073\u89e3\u6790\u696d\u52d9","client_name":"\u5efa\u8a2d\u7701\u4e5d\u5dde\u5730\u65b9\u5efa\u8a2d\u5c40\u6b66\u96c4\u5de5\u4e8b\u4e8b\u52d9\u6240","boring_xml_url":52,"boring_view_url":1,"soilmap_view_url":null,"soiltest_xml_url":0,"soiltest_view_url":0},{"id":206151,"code":"B4KJ201801009-4400","latitude":"33.198542","longitude":"130.198972","source_code":"QS2009893560020035R650002","project_name":"","survey_name":"\u897f\u4f4f\u30ce\u6c5f\u5730\u533a\u5730\u8cea\u8abf\u67fb\u53ca\u3073\u89e3\u6790\u696d\u52d9","client_name":"\u5efa\u8a2d\u7701\u4e5d\u5dde\u5730\u65b9\u5efa\u8a2d\u5c40\u6b66\u96c4\u5de5\u4e8b\u4e8b\u52d9\u6240","boring_xml_url":52,"boring_view_url":1,"soilmap_view_url":null,"soiltest_xml_url":55,"soiltest_view_url":55},{"id":206150,"code":"B4KJ201801009-4399","latitude":"33.19845","longitude":"130.198819","source_code":"QS2009893560020035R650001","project_name":"","survey_name":"\u897f\u4f4f\u30ce\u6c5f\u5730\u533a\u5730\u8cea\u8abf\u67fb\u53ca\u3073\u89e3\u6790\u696d\u52d9","client_name":"\u5efa\u8a2d\u7701\u4e5d\u5dde\u5730\u65b9\u5efa\u8a2d\u5c40\u6b66\u96c4\u5de5\u4e8b\u4e8b\u52d9\u6240","boring_xml_url":52,"boring_view_url":1,"soilmap_view_url":null,"soiltest_xml_url":55,"soiltest_view_url":55},{"id":206149,"code":"B4KJ201801009-4398","latitude":"33.204117","longitude":"130.192153","source_code":"QS2009893560020035R610001","project_name":"","survey_name":"\u516d\u89d2\u5ddd\u6cb3\u53e3\u5830\u7ba1\u7406\u6240\u59162\u4ef6\u5730\u8cea\u8abf\u67fb","client_name":"\u5efa\u8a2d\u7701\u4e5d\u5dde\u5730\u65b9\u5efa\u8a2d\u5c40\u6b66\u96c4\u5de5\u4e8b\u4e8b\u52d9\u6240","boring_xml_url":52,"boring_view_url":1,"soilmap_view_url":null,"soiltest_xml_url":55,"soiltest_view_url":55},{"id":206148,"code":"B4KJ201801009-4397","latitude":"33.19865","longitude":"130.198736","source_code":"QS2009893560020035R560004","project_name":"","survey_name":"\u4f4f\u30ce\u6c5f\u5730\u533a\u5730\u8cea\u8abf\u67fb\u696d\u52d9","client_name":"\u5efa\u8a2d\u7701\u4e5d\u5dde\u5730\u65b9\u5efa\u8a2d\u5c40\u6b66\u96c4\u5de5\u4e8b\u4e8b\u52d9\u6240","boring_xml_url":52,"boring_view_url":1,"soilmap_view_url":null,"soiltest_xml_url":55,"soiltest_view_url":55},{"id":206147,"code":"B4KJ201801009-4396","latitude":"33.198761","longitude":"130.198956","source_code":"QS2009893560020035R560003","project_name":"","survey_name":"\u4f4f\u30ce\u6c5f\u5730\u533a\u5730\u8cea\u8abf\u67fb\u696d\u52d9","client_name":"\u5efa\u8a2d\u7701\u4e5d\u5dde\u5730\u65b9\u5efa\u8a2d\u5c40\u6b66\u96c4\u5de5\u4e8b\u4e8b\u52d9\u6240","boring_xml_url":52,"boring_view_url":1,"soilmap_view_url":null,"soiltest_xml_url":55,"soiltest_view_url":55},{"id":206146,"code":"B4KJ201801009-4395","latitude":"33.196531","longitude":"130.200297","source_code":"QS2009893560020035R560002","project_name":"","survey_name":"\u4f4f\u30ce\u6c5f\u5730\u533a\u5730\u8cea\u8abf\u67fb\u696d\u52d9","client_name":"\u5efa\u8a2d\u7701\u4e5d\u5dde\u5730\u65b9\u5efa\u8a2d\u5c40\u6b66\u96c4\u5de5\u4e8b\u4e8b\u52d9\u6240","boring_xml_url":52,"boring_view_url":1,"soilmap_view_url":null,"soiltest_xml_url":55,"soiltest_view_url":55},{"id":206145,"code":"B4KJ201801009-4394","latitude":"33.196611","longitude":"130.200386","source_code":"QS2009893560020035R560001","project_name":"","survey_name":"\u4f4f\u30ce\u6c5f\u5730\u533a\u5730\u8cea\u8abf\u67fb\u696d\u52d9","client_name":"\u5efa\u8a2d\u7701\u4e5d\u5dde\u5730\u65b9\u5efa\u8a2d\u5c40\u6b66\u96c4\u5de5\u4e8b\u4e8b\u52d9\u6240","boring_xml_url":52,"boring_view_url":1,"soilmap_view_url":null,"soiltest_xml_url":55,"soiltest_view_url":55},{"id":206144,"code":"B4KJ201801009-4393","latitude":"33.259325","longitude":"130.176861","source_code":"QS2009893560020035R550007","project_name":"","survey_name":"\u767d\u77f3\u6c34\u9580\u59162\u4ef6\u5730\u8cea\u8abf\u67fb\u696d\u52d9","client_name":"\u5efa\u8a2d\u7701\u4e5d\u5dde\u5730\u65b9\u5efa\u8a2d\u5c40\u6b66\u96c4\u5de5\u4e8b\u4e8b\u52d9\u6240","boring_xml_url":52,"boring_view_url":1,"soilmap_view_url":null,"soiltest_xml_url":55,"soiltest_view_url":55},{"id":206143,"code":"B4KJ201801009-4392","latitude":"33.2594","longitude":"130.176986","source_code":"QS2009893560020035R550006","project_name":"","survey_name":"\u767d\u77f3\u6c34\u9580\u59162\u4ef6\u5730\u8cea\u8abf\u67fb\u696d\u52d9","client_name":"\u5efa\u8a2d\u7701\u4e5d\u5dde\u5730\u65b9\u5efa\u8a2d\u5c40\u6b66\u96c4\u5de5\u4e8b\u4e8b\u52d9\u6240","boring_xml_url":52,"boring_view_url":1,"soilmap_view_url":null,"soiltest_xml_url":0,"soiltest_view_url":0},{"id":206142,"code":"B4KJ201801009-4391","latitude":"33.194792","longitude":"130.054714","source_code":"QS2009893560020035R550005","project_name":"","survey_name":"\u767d\u77f3\u6c34\u9580\u59162\u4ef6\u5730\u8cea\u8abf\u67fb\u696d\u52d9","client_name":"\u5efa\u8a2d\u7701\u4e5d\u5dde\u5730\u65b9\u5efa\u8a2d\u5c40\u6b66\u96c4\u5de5\u4e8b\u4e8b\u52d9\u6240","boring_xml_url":52,"boring_view_url":1,"soilmap_view_url":null,"soiltest_xml_url":0,"soiltest_view_url":0},{"id":206141,"code":"B4KJ201801009-4390","latitude":"33.194714","longitude":"130.055186","source_code":"QS2009893560020035R550004","project_name":"","survey_name":"\u767d\u77f3\u6c34\u9580\u59162\u4ef6\u5730\u8cea\u8abf\u67fb\u696d\u52d9","client_name":"\u5efa\u8a2d\u7701\u4e5d\u5dde\u5730\u65b9\u5efa\u8a2d\u5c40\u6b66\u96c4\u5de5\u4e8b\u4e8b\u52d9\u6240","boring_xml_url":52,"boring_view_url":1,"soilmap_view_url":null,"soiltest_xml_url":55,"soiltest_view_url":55},{"id":206140,"code":"B4KJ201801009-4389","latitude":"33.187375","longitude":"130.158969","source_code":"QS2009893560020035R550003","project_name":"","survey_name":"\u767d\u77f3\u6c34\u9580\u59162\u4ef6\u5730\u8cea\u8abf\u67fb\u696d\u52d9","client_name":"\u5efa\u8a2d\u7701\u4e5d\u5dde\u5730\u65b9\u5efa\u8a2d\u5c40\u6b66\u96c4\u5de5\u4e8b\u4e8b\u52d9\u6240","boring_xml_url":52,"boring_view_url":1,"soilmap_view_url":null,"soiltest_xml_url":0,"soiltest_view_url":0},{"id":206139,"code":"B4KJ201801009-4388","latitude":"33.187661","longitude":"130.159403","source_code":"QS2009893560020035R550002","project_name":"","survey_name":"\u767d\u77f3\u6c34\u9580\u59162\u4ef6\u5730\u8cea\u8abf\u67fb\u696d\u52d9","client_name":"\u5efa\u8a2d\u7701\u4e5d\u5dde\u5730\u65b9\u5efa\u8a2d\u5c40\u6b66\u96c4\u5de5\u4e8b\u4e8b\u52d9\u6240","boring_xml_url":52,"boring_view_url":1,"soilmap_view_url":null,"soiltest_xml_url":55,"soiltest_view_url":55},{"id":206138,"code":"B4KJ201801009-4387","latitude":"33.188022","longitude":"130.159581","source_code":"QS2009893560020035R550001","project_name":"","survey_name":"\u767d\u77f3\u6c34\u9580\u59162\u4ef6\u5730\u8cea\u8abf\u67fb\u696d\u52d9","client_name":"\u5efa\u8a2d\u7701\u4e5d\u5dde\u5730\u65b9\u5efa\u8a2d\u5c40\u6b66\u96c4\u5de5\u4e8b\u4e8b\u52d9\u6240","boring_xml_url":52,"boring_view_url":1,"soilmap_view_url":null,"soiltest_xml_url":0,"soiltest_view_url":0},{"id":206137,"code":"B4KJ201801009-4386","latitude":"33.195892","longitude":"130.198308","source_code":"QS2009893560020035R540002","project_name":"","survey_name":"\u4f4f\u30ce\u6c5f\u5730\u533a\u5730\u8cea\u8abf\u67fb\u53ca\u3073\u89e3\u6790\u696d\u52d9","client_name":"\u5efa\u8a2d\u7701\u4e5d\u5dde\u4ed6\u65b9\u5efa\u8a2d\u5c40\u6b66\u96c4\u5de5\u4e8b\u4e8b\u52d9\u6240","boring_xml_url":52,"boring_view_url":1,"soilmap_view_url":null,"soiltest_xml_url":55,"soiltest_view_url":55},{"id":206136,"code":"B4KJ201801009-4385","latitude":"33.195853","longitude":"130.198344","source_code":"QS2009893560020035R540001","project_name":"","survey_name":"\u4f4f\u30ce\u6c5f\u5730\u533a\u5730\u8cea\u8abf\u67fb\u53ca\u3073\u89e3\u6790\u696d\u52d9","client_name":"\u5efa\u8a2d\u7701\u4e5d\u5dde\u4ed6\u65b9\u5efa\u8a2d\u5c40\u6b66\u96c4\u5de5\u4e8b\u4e8b\u52d9\u6240","boring_xml_url":52,"boring_view_url":1,"soilmap_view_url":null,"soiltest_xml_url":55,"soiltest_view_url":55},{"id":206135,"code":"B4KJ201801009-4384","latitude":"33.202458","longitude":"130.189467","source_code":"QS2009893560020035R530001","project_name":"","survey_name":"\u6c5f\u5317\u53ca\u3073\u798f\u5bcc\u7bc9\u5824\u5730\u8cea\u8abf\u67fb\u696d\u52d9(\u798f\u5bcc\u5730\u533a)","client_name":"\u5efa\u8a2d\u7701\u4e5d\u5dde\u5730\u65b9\u5efa\u8a2d\u5c40\u6b66\u96c4\u5de5\u4e8b\u4e8b\u52d9\u6240","boring_xml_url":52,"boring_view_url":1,"soilmap_view_url":null,"soiltest_xml_url":55,"soiltest_view_url":55},{"id":206134,"code":"B4KJ201801009-4383","latitude":"33.198286","longitude":"130.226511","source_code":"QS2009893560020035R520003","project_name":"","survey_name":"\u6c5f\u5317\u53ca\u3073\u798f\u5bcc\u7bc9\u5824\u5730\u8cea\u8abf\u67fb\u696d\u52d9(\u6c5f\u5317\u5730\u533a)","client_name":"\u5efa\u8a2d\u7701\u4e5d\u5dde\u5730\u65b9\u5efa\u8a2d\u5c40\u6b66\u96c4\u5de5\u4e8b\u4e8b\u52d9\u6240","boring_xml_url":52,"boring_view_url":1,"soilmap_view_url":null,"soiltest_xml_url":55,"soiltest_view_url":55},{"id":206133,"code":"B4KJ201801009-4382","latitude":"33.198592","longitude":"130.228025","source_code":"QS2009893560020035R520002","project_name":"","survey_name":"\u6c5f\u5317\u53ca\u3073\u798f\u5bcc\u7bc9\u5824\u5730\u8cea\u8abf\u67fb\u696d\u52d9(\u6c5f\u5317\u5730\u533a)","client_name":"\u5efa\u8a2d\u7701\u4e5d\u5dde\u5730\u65b9\u5efa\u8a2d\u5c40\u6b66\u96c4\u5de5\u4e8b\u4e8b\u52d9\u6240","boring_xml_url":52,"boring_view_url":1,"soilmap_view_url":null,"soiltest_xml_url":55,"soiltest_view_url":55},{"id":206132,"code":"B4KJ201801009-4381","latitude":"33.198794","longitude":"130.228044","source_code":"QS2009893560020035R520001","project_name":"","survey_name":"\u6c5f\u5317\u53ca\u3073\u798f\u5bcc\u7bc9\u5824\u5730\u8cea\u8abf\u67fb\u696d\u52d9(\u6c5f\u5317\u5730\u533a)","client_name":"\u5efa\u8a2d\u7701\u4e5d\u5dde\u5730\u65b9\u5efa\u8a2d\u5c40\u6b66\u96c4\u5de5\u4e8b\u4e8b\u52d9\u6240","boring_xml_url":52,"boring_view_url":1,"soilmap_view_url":null,"soiltest_xml_url":55,"soiltest_view_url":55},{"id":206131,"code":"B4KJ201801009-4380","latitude":"33.276044","longitude":"130.152458","source_code":"QS2009893560020035R510006","project_name":"","survey_name":"\u677e\u6c5f\u9580\u6a0b\u7ba1\u59162\u4ef6\u5730\u8cea\u8abf\u67fb\u696d\u52d9","client_name":"\u5efa\u8a2d\u7701\u4e5d\u5dde\u5730\u65b9\u5efa\u8a2d\u5c40\u6b66\u96c4\u5de5\u4e8b\u4e8b\u52d9\u6240","boring_xml_url":52,"boring_view_url":1,"soilmap_view_url":null,"soiltest_xml_url":55,"soiltest_view_url":55},{"id":206130,"code":"B4KJ201801009-4379","latitude":"33.276236","longitude":"130.152333","source_code":"QS2009893560020035R510005","project_name":"","survey_name":"\u677e\u6c5f\u9580\u6a0b\u7ba1\u59162\u4ef6\u5730\u8cea\u8abf\u67fb\u696d\u52d9","client_name":"\u5efa\u8a2d\u7701\u4e5d\u5dde\u5730\u65b9\u5efa\u8a2d\u5c40\u6b66\u96c4\u5de5\u4e8b\u4e8b\u52d9\u6240","boring_xml_url":52,"boring_view_url":1,"soilmap_view_url":null,"soiltest_xml_url":55,"soiltest_view_url":55},{"id":206129,"code":"B4KJ201801009-4378","latitude":"33.199642","longitude":"130.193583","source_code":"QS2009893560020035R510004","project_name":"","survey_name":"\u677e\u6c5f\u9580\u6a0b\u7ba1\u59162\u4ef6\u5730\u8cea\u8abf\u67fb\u696d\u52d9","client_name":"\u5efa\u8a2d\u7701\u4e5d\u5dde\u5730\u65b9\u5efa\u8a2d\u5c40\u6b66\u96c4\u5de5\u4e8b\u4e8b\u52d9\u6240","boring_xml_url":52,"boring_view_url":1,"soilmap_view_url":null,"soiltest_xml_url":55,"soiltest_view_url":55},{"id":206128,"code":"B4KJ201801009-4377","latitude":"33.199875","longitude":"130.193431","source_code":"QS2009893560020035R510003","project_name":"","survey_name":"\u677e\u6c5f\u9580\u6a0b\u7ba1\u59162\u4ef6\u5730\u8cea\u8abf\u67fb\u696d\u52d9","client_name":"\u5efa\u8a2d\u7701\u4e5d\u5dde\u5730\u65b9\u5efa\u8a2d\u5c40\u6b66\u96c4\u5de5\u4e8b\u4e8b\u52d9\u6240","boring_xml_url":52,"boring_view_url":1,"soilmap_view_url":null,"soiltest_xml_url":55,"soiltest_view_url":55},{"id":206127,"code":"B4KJ201801009-4376","latitude":"33.204194","longitude":"130.043839","source_code":"QS2009893560020035R510002","project_name":"","survey_name":"\u677e\u6c5f\u9580\u6a0b\u7ba1\u59162\u4ef6\u5730\u8cea\u8abf\u67fb\u696d\u52d9","client_name":"\u5efa\u8a2d\u7701\u4e5d\u5dde\u5730\u65b9\u5efa\u8a2d\u5c40\u6b66\u96c4\u5de5\u4e8b\u4e8b\u52d9\u6240","boring_xml_url":52,"boring_view_url":1,"soilmap_view_url":null,"soiltest_xml_url":55,"soiltest_view_url":55},{"id":206126,"code":"B4KJ201801009-4375","latitude":"33.2042","longitude":"130.044064","source_code":"QS2009893560020035R510001","project_name":"","survey_name":"\u677e\u6c5f\u9580\u6a0b\u7ba1\u59162\u4ef6\u5730\u8cea\u8abf\u67fb\u696d\u52d9","client_name":"\u5efa\u8a2d\u7701\u4e5d\u5dde\u5730\u65b9\u5efa\u8a2d\u5c40\u6b66\u96c4\u5de5\u4e8b\u4e8b\u52d9\u6240","boring_xml_url":52,"boring_view_url":1,"soilmap_view_url":null,"soiltest_xml_url":55,"soiltest_view_url":55}]}}