{"header":{"xyz":{"source":[],"mosaic":false},"page":3822,"raw":{"soiltest_result":"0","bbox":"57.598333,109.544722,1.933333,163.806111","page":"3822"},"conditions":{"soiltest_result":0,"north":57.598333,"west":109.544722,"south":1.933333,"east":163.806111},"success":true,"message":""},"data":{"meta":{"total":212844,"page":3822,"pages":7095,"count":30},"values":[{"id":205915,"code":"B4KJ201801009-4164","latitude":"33.202544","longitude":"130.126492","source_code":"QS2009893560020035R1590012","project_name":"","survey_name":"\u516d\u89d2\u5ddd\u5730\u8cea\u8abf\u67fb(\u305d\u306e4)\u696d\u52d9","client_name":"\u5efa\u8a2d\u7701\u4e5d\u5dde\u5730\u65b9\u5efa\u8a2d\u5c40\u6b66\u96c4\u5de5\u4e8b\u4e8b\u52d9\u6240","boring_xml_url":53,"boring_view_url":1,"soilmap_view_url":null,"soiltest_xml_url":0,"soiltest_view_url":0},{"id":205914,"code":"B4KJ201801009-4163","latitude":"33.202428","longitude":"130.126308","source_code":"QS2009893560020035R1590011","project_name":"","survey_name":"\u516d\u89d2\u5ddd\u5730\u8cea\u8abf\u67fb(\u305d\u306e4)\u696d\u52d9","client_name":"\u5efa\u8a2d\u7701\u4e5d\u5dde\u5730\u65b9\u5efa\u8a2d\u5c40\u6b66\u96c4\u5de5\u4e8b\u4e8b\u52d9\u6240","boring_xml_url":53,"boring_view_url":1,"soilmap_view_url":null,"soiltest_xml_url":0,"soiltest_view_url":0},{"id":205913,"code":"B4KJ201801009-4162","latitude":"33.202272","longitude":"130.125911","source_code":"QS2009893560020035R1590010","project_name":"","survey_name":"\u516d\u89d2\u5ddd\u5730\u8cea\u8abf\u67fb(\u305d\u306e4)\u696d\u52d9","client_name":"\u5efa\u8a2d\u7701\u4e5d\u5dde\u5730\u65b9\u5efa\u8a2d\u5c40\u6b66\u96c4\u5de5\u4e8b\u4e8b\u52d9\u6240","boring_xml_url":53,"boring_view_url":1,"soilmap_view_url":null,"soiltest_xml_url":0,"soiltest_view_url":0},{"id":205912,"code":"B4KJ201801009-4161","latitude":"33.202053","longitude":"130.125208","source_code":"QS2009893560020035R1590009","project_name":"","survey_name":"\u516d\u89d2\u5ddd\u5730\u8cea\u8abf\u67fb(\u305d\u306e4)\u696d\u52d9","client_name":"\u5efa\u8a2d\u7701\u4e5d\u5dde\u5730\u65b9\u5efa\u8a2d\u5c40\u6b66\u96c4\u5de5\u4e8b\u4e8b\u52d9\u6240","boring_xml_url":53,"boring_view_url":1,"soilmap_view_url":null,"soiltest_xml_url":0,"soiltest_view_url":0},{"id":205911,"code":"B4KJ201801009-4160","latitude":"33.201917","longitude":"130.124828","source_code":"QS2009893560020035R1590008","project_name":"","survey_name":"\u516d\u89d2\u5ddd\u5730\u8cea\u8abf\u67fb(\u305d\u306e4)\u696d\u52d9","client_name":"\u5efa\u8a2d\u7701\u4e5d\u5dde\u5730\u65b9\u5efa\u8a2d\u5c40\u6b66\u96c4\u5de5\u4e8b\u4e8b\u52d9\u6240","boring_xml_url":53,"boring_view_url":1,"soilmap_view_url":null,"soiltest_xml_url":0,"soiltest_view_url":0},{"id":205910,"code":"B4KJ201801009-4159","latitude":"33.207686","longitude":"130.134608","source_code":"QS2009893560020035R1590007","project_name":"","survey_name":"\u516d\u89d2\u5ddd\u5730\u8cea\u8abf\u67fb(\u305d\u306e4)\u696d\u52d9","client_name":"\u5efa\u8a2d\u7701\u4e5d\u5dde\u5730\u65b9\u5efa\u8a2d\u5c40\u6b66\u96c4\u5de5\u4e8b\u4e8b\u52d9\u6240","boring_xml_url":53,"boring_view_url":1,"soilmap_view_url":null,"soiltest_xml_url":0,"soiltest_view_url":0},{"id":205909,"code":"B4KJ201801009-4158","latitude":"33.20785","longitude":"130.134533","source_code":"QS2009893560020035R1590006","project_name":"","survey_name":"\u516d\u89d2\u5ddd\u5730\u8cea\u8abf\u67fb(\u305d\u306e4)\u696d\u52d9","client_name":"\u5efa\u8a2d\u7701\u4e5d\u5dde\u5730\u65b9\u5efa\u8a2d\u5c40\u6b66\u96c4\u5de5\u4e8b\u4e8b\u52d9\u6240","boring_xml_url":53,"boring_view_url":1,"soilmap_view_url":null,"soiltest_xml_url":0,"soiltest_view_url":0},{"id":205908,"code":"B4KJ201801009-4157","latitude":"33.208014","longitude":"130.134389","source_code":"QS2009893560020035R1590005","project_name":"","survey_name":"\u516d\u89d2\u5ddd\u5730\u8cea\u8abf\u67fb(\u305d\u306e4)\u696d\u52d9","client_name":"\u5efa\u8a2d\u7701\u4e5d\u5dde\u5730\u65b9\u5efa\u8a2d\u5c40\u6b66\u96c4\u5de5\u4e8b\u4e8b\u52d9\u6240","boring_xml_url":53,"boring_view_url":1,"soilmap_view_url":null,"soiltest_xml_url":0,"soiltest_view_url":0},{"id":205907,"code":"B4KJ201801009-4156","latitude":"33.208372","longitude":"130.134125","source_code":"QS2009893560020035R1590004","project_name":"","survey_name":"\u516d\u89d2\u5ddd\u5730\u8cea\u8abf\u67fb(\u305d\u306e4)\u696d\u52d9","client_name":"\u5efa\u8a2d\u7701\u4e5d\u5dde\u5730\u65b9\u5efa\u8a2d\u5c40\u6b66\u96c4\u5de5\u4e8b\u4e8b\u52d9\u6240","boring_xml_url":53,"boring_view_url":1,"soilmap_view_url":null,"soiltest_xml_url":0,"soiltest_view_url":0},{"id":205906,"code":"B4KJ201801009-4155","latitude":"33.208933","longitude":"130.133672","source_code":"QS2009893560020035R1590003","project_name":"","survey_name":"\u516d\u89d2\u5ddd\u5730\u8cea\u8abf\u67fb(\u305d\u306e4)\u696d\u52d9","client_name":"\u5efa\u8a2d\u7701\u4e5d\u5dde\u5730\u65b9\u5efa\u8a2d\u5c40\u6b66\u96c4\u5de5\u4e8b\u4e8b\u52d9\u6240","boring_xml_url":53,"boring_view_url":1,"soilmap_view_url":null,"soiltest_xml_url":0,"soiltest_view_url":0},{"id":205905,"code":"B4KJ201801009-4154","latitude":"33.209194","longitude":"130.133481","source_code":"QS2009893560020035R1590002","project_name":"","survey_name":"\u516d\u89d2\u5ddd\u5730\u8cea\u8abf\u67fb(\u305d\u306e4)\u696d\u52d9","client_name":"\u5efa\u8a2d\u7701\u4e5d\u5dde\u5730\u65b9\u5efa\u8a2d\u5c40\u6b66\u96c4\u5de5\u4e8b\u4e8b\u52d9\u6240","boring_xml_url":53,"boring_view_url":1,"soilmap_view_url":null,"soiltest_xml_url":0,"soiltest_view_url":0},{"id":205904,"code":"B4KJ201801009-4153","latitude":"33.209439","longitude":"130.133247","source_code":"QS2009893560020035R1590001","project_name":"","survey_name":"\u516d\u89d2\u5ddd\u5730\u8cea\u8abf\u67fb(\u305d\u306e4)\u696d\u52d9","client_name":"\u5efa\u8a2d\u7701\u4e5d\u5dde\u5730\u65b9\u5efa\u8a2d\u5c40\u6b66\u96c4\u5de5\u4e8b\u4e8b\u52d9\u6240","boring_xml_url":53,"boring_view_url":1,"soilmap_view_url":null,"soiltest_xml_url":0,"soiltest_view_url":0},{"id":205903,"code":"B4KJ201801009-4152","latitude":"33.213322","longitude":"130.078686","source_code":"QS2009893560020035R1500002","project_name":"","survey_name":"\u8ffd\u5206\u7b2c2\u6392\u6c34\u6a0b\u7ba1\u5730\u8cea\u8abf\u67fb\u696d\u52d9","client_name":"\u5efa\u8a2d\u7701\u4e5d\u5dde\u5730\u65b9\u5efa\u8a2d\u5c40\u6b66\u96c4\u5de5\u4e8b\u4e8b\u52d9\u6240","boring_xml_url":53,"boring_view_url":1,"soilmap_view_url":null,"soiltest_xml_url":56,"soiltest_view_url":56},{"id":205902,"code":"B4KJ201801009-4151","latitude":"33.213272","longitude":"130.078686","source_code":"QS2009893560020035R1500001","project_name":"","survey_name":"\u8ffd\u5206\u7b2c2\u6392\u6c34\u6a0b\u7ba1\u5730\u8cea\u8abf\u67fb\u696d\u52d9","client_name":"\u5efa\u8a2d\u7701\u4e5d\u5dde\u5730\u65b9\u5efa\u8a2d\u5c40\u6b66\u96c4\u5de5\u4e8b\u4e8b\u52d9\u6240","boring_xml_url":53,"boring_view_url":1,"soilmap_view_url":null,"soiltest_xml_url":56,"soiltest_view_url":56},{"id":205901,"code":"B4KJ201801009-4150","latitude":"33.172333","longitude":"130.048808","source_code":"QS2009893560020035R1490003","project_name":"","survey_name":"\u5927\u65e5\u59163\u4ef6\u5730\u8cea\u8abf\u67fb\u696d\u52d9(\u7834\u5824\u30f6\u6240\u5824\u4f53\u6750\u6599\u8abf\u67fb)","client_name":"\u5efa\u8a2d\u7701\u4e5d\u5dde\u5730\u65b9\u5efa\u8a2d\u5c40\u6b66\u96c4\u5de5\u4e8b\u4e8b\u52d9\u6240","boring_xml_url":53,"boring_view_url":1,"soilmap_view_url":null,"soiltest_xml_url":56,"soiltest_view_url":56},{"id":205900,"code":"B4KJ201801009-4149","latitude":"33.186733","longitude":"130.048264","source_code":"QS2009893560020035R1490002","project_name":"","survey_name":"\u5927\u65e5\u59163\u4ef6\u5730\u8cea\u8abf\u67fb\u696d\u52d9(\u7834\u5824\u30f6\u6240\u5824\u4f53\u6750\u6599\u8abf\u67fb)","client_name":"\u5efa\u8a2d\u7701\u4e5d\u5dde\u5730\u65b9\u5efa\u8a2d\u5c40\u6b66\u96c4\u5de5\u4e8b\u4e8b\u52d9\u6240","boring_xml_url":53,"boring_view_url":1,"soilmap_view_url":null,"soiltest_xml_url":56,"soiltest_view_url":56},{"id":205899,"code":"B4KJ201801009-4148","latitude":"33.192472","longitude":"130.053128","source_code":"QS2009893560020035R1490001","project_name":"","survey_name":"\u5927\u65e5\u59163\u4ef6\u5730\u8cea\u8abf\u67fb\u696d\u52d9(\u7834\u5824\u30f6\u6240\u5824\u4f53\u6750\u6599\u8abf\u67fb)","client_name":"\u5efa\u8a2d\u7701\u4e5d\u5dde\u5730\u65b9\u5efa\u8a2d\u5c40\u6b66\u96c4\u5de5\u4e8b\u4e8b\u52d9\u6240","boring_xml_url":53,"boring_view_url":1,"soilmap_view_url":null,"soiltest_xml_url":56,"soiltest_view_url":56},{"id":205898,"code":"B4KJ201801009-4147","latitude":"33.208511","longitude":"130.045725","source_code":"QS2009893560020035R1400001","project_name":"","survey_name":"\u9ad8\u6a4b\u5730\u533a\u904b\u642c\u8def\u5730\u8cea\u8abf\u67fb\u696d\u52d9","client_name":"\u5efa\u8a2d\u7701\u4e5d\u5dde\u5730\u65b9\u5efa\u8a2d\u5c40\u6b66\u96c4\u5de5\u4e8b\u4e8b\u52d9\u6240","boring_xml_url":53,"boring_view_url":1,"soilmap_view_url":null,"soiltest_xml_url":56,"soiltest_view_url":56},{"id":205897,"code":"B4KJ201801009-4146","latitude":"33.20358","longitude":"130.10661","source_code":"QS2009893560020035R1360001","project_name":"","survey_name":"\u67cf\u6728\u5730\u8cea\u8abf\u67fb\u696d\u52d9","client_name":"\u5efa\u8a2d\u7701\u4e5d\u5dde\u5730\u65b9\u5efa\u8a2d\u5c40\u6b66\u96c4\u5de5\u4e8b\u4e8b\u52d9\u6240","boring_xml_url":53,"boring_view_url":1,"soilmap_view_url":null,"soiltest_xml_url":56,"soiltest_view_url":56},{"id":205896,"code":"B4KJ201801009-4145","latitude":"33.179911","longitude":"130.048739","source_code":"QS2009893560020035R1340010","project_name":"","survey_name":"\u5927\u65e5\u5c0f\u91ce\u539f\u5730\u533a\u5730\u8cea\u8abf\u67fb\u53ca\u3073\u65bd\u5de5\u8a08\u753b\u691c\u8a0e\u696d\u52d9","client_name":"\u5efa\u8a2d\u7701\u4e5d\u5dde\u5730\u65b9\u5efa\u8a2d\u5c40\u6b66\u96c4\u5de5\u4e8b\u4e8b\u52d9\u6240","boring_xml_url":53,"boring_view_url":1,"soilmap_view_url":null,"soiltest_xml_url":56,"soiltest_view_url":56},{"id":205895,"code":"B4KJ201801009-4144","latitude":"33.17995","longitude":"130.048408","source_code":"QS2009893560020035R1340009","project_name":"","survey_name":"\u5927\u65e5\u5c0f\u91ce\u539f\u5730\u533a\u5730\u8cea\u8abf\u67fb\u53ca\u3073\u65bd\u5de5\u8a08\u753b\u691c\u8a0e\u696d\u52d9","client_name":"\u5efa\u8a2d\u7701\u4e5d\u5dde\u5730\u65b9\u5efa\u8a2d\u5c40\u6b66\u96c4\u5de5\u4e8b\u4e8b\u52d9\u6240","boring_xml_url":53,"boring_view_url":1,"soilmap_view_url":null,"soiltest_xml_url":56,"soiltest_view_url":56},{"id":205894,"code":"B4KJ201801009-4143","latitude":"33.17995","longitude":"130.048317","source_code":"QS2009893560020035R1340008","project_name":"","survey_name":"\u5927\u65e5\u5c0f\u91ce\u539f\u5730\u533a\u5730\u8cea\u8abf\u67fb\u53ca\u3073\u65bd\u5de5\u8a08\u753b\u691c\u8a0e\u696d\u52d9","client_name":"\u5efa\u8a2d\u7701\u4e5d\u5dde\u5730\u65b9\u5efa\u8a2d\u5c40\u6b66\u96c4\u5de5\u4e8b\u4e8b\u52d9\u6240","boring_xml_url":53,"boring_view_url":1,"soilmap_view_url":null,"soiltest_xml_url":56,"soiltest_view_url":56},{"id":205893,"code":"B4KJ201801009-4142","latitude":"33.179997","longitude":"130.048086","source_code":"QS2009893560020035R1340007","project_name":"","survey_name":"\u5927\u65e5\u5c0f\u91ce\u539f\u5730\u533a\u5730\u8cea\u8abf\u67fb\u53ca\u3073\u65bd\u5de5\u8a08\u753b\u691c\u8a0e\u696d\u52d9","client_name":"\u5efa\u8a2d\u7701\u4e5d\u5dde\u5730\u65b9\u5efa\u8a2d\u5c40\u6b66\u96c4\u5de5\u4e8b\u4e8b\u52d9\u6240","boring_xml_url":53,"boring_view_url":1,"soilmap_view_url":null,"soiltest_xml_url":56,"soiltest_view_url":56},{"id":205892,"code":"B4KJ201801009-4141","latitude":"33.181642","longitude":"130.049236","source_code":"QS2009893560020035R1340006","project_name":"","survey_name":"\u5927\u65e5\u5c0f\u91ce\u539f\u5730\u533a\u5730\u8cea\u8abf\u67fb\u53ca\u3073\u65bd\u5de5\u8a08\u753b\u691c\u8a0e\u696d\u52d9","client_name":"\u5efa\u8a2d\u7701\u4e5d\u5dde\u5730\u65b9\u5efa\u8a2d\u5c40\u6b66\u96c4\u5de5\u4e8b\u4e8b\u52d9\u6240","boring_xml_url":53,"boring_view_url":1,"soilmap_view_url":null,"soiltest_xml_url":56,"soiltest_view_url":56},{"id":205891,"code":"B4KJ201801009-4140","latitude":"33.181658","longitude":"130.049133","source_code":"QS2009893560020035R1340005","project_name":"","survey_name":"\u5927\u65e5\u5c0f\u91ce\u539f\u5730\u533a\u5730\u8cea\u8abf\u67fb\u53ca\u3073\u65bd\u5de5\u8a08\u753b\u691c\u8a0e\u696d\u52d9","client_name":"\u5efa\u8a2d\u7701\u4e5d\u5dde\u5730\u65b9\u5efa\u8a2d\u5c40\u6b66\u96c4\u5de5\u4e8b\u4e8b\u52d9\u6240","boring_xml_url":53,"boring_view_url":1,"soilmap_view_url":null,"soiltest_xml_url":56,"soiltest_view_url":56},{"id":205890,"code":"B4KJ201801009-4139","latitude":"33.181725","longitude":"130.048828","source_code":"QS2009893560020035R1340004","project_name":"","survey_name":"\u5927\u65e5\u5c0f\u91ce\u539f\u5730\u533a\u5730\u8cea\u8abf\u67fb\u53ca\u3073\u65bd\u5de5\u8a08\u753b\u691c\u8a0e\u696d\u52d9","client_name":"\u5efa\u8a2d\u7701\u4e5d\u5dde\u5730\u65b9\u5efa\u8a2d\u5c40\u6b66\u96c4\u5de5\u4e8b\u4e8b\u52d9\u6240","boring_xml_url":53,"boring_view_url":1,"soilmap_view_url":null,"soiltest_xml_url":56,"soiltest_view_url":56},{"id":205889,"code":"B4KJ201801009-4138","latitude":"33.182547","longitude":"130.049375","source_code":"QS2009893560020035R1340003","project_name":"","survey_name":"\u5927\u65e5\u5c0f\u91ce\u539f\u5730\u533a\u5730\u8cea\u8abf\u67fb\u53ca\u3073\u65bd\u5de5\u8a08\u753b\u691c\u8a0e\u696d\u52d9","client_name":"\u5efa\u8a2d\u7701\u4e5d\u5dde\u5730\u65b9\u5efa\u8a2d\u5c40\u6b66\u96c4\u5de5\u4e8b\u4e8b\u52d9\u6240","boring_xml_url":53,"boring_view_url":1,"soilmap_view_url":null,"soiltest_xml_url":56,"soiltest_view_url":56},{"id":205888,"code":"B4KJ201801009-4137","latitude":"33.182572","longitude":"130.049078","source_code":"QS2009893560020035R1340002","project_name":"","survey_name":"\u5927\u65e5\u5c0f\u91ce\u539f\u5730\u533a\u5730\u8cea\u8abf\u67fb\u53ca\u3073\u65bd\u5de5\u8a08\u753b\u691c\u8a0e\u696d\u52d9","client_name":"\u5efa\u8a2d\u7701\u4e5d\u5dde\u5730\u65b9\u5efa\u8a2d\u5c40\u6b66\u96c4\u5de5\u4e8b\u4e8b\u52d9\u6240","boring_xml_url":53,"boring_view_url":1,"soilmap_view_url":null,"soiltest_xml_url":56,"soiltest_view_url":56},{"id":205887,"code":"B4KJ201801009-4136","latitude":"33.182586","longitude":"130.048964","source_code":"QS2009893560020035R1340001","project_name":"","survey_name":"\u5927\u65e5\u5c0f\u91ce\u539f\u5730\u533a\u5730\u8cea\u8abf\u67fb\u53ca\u3073\u65bd\u5de5\u8a08\u753b\u691c\u8a0e\u696d\u52d9","client_name":"\u5efa\u8a2d\u7701\u4e5d\u5dde\u5730\u65b9\u5efa\u8a2d\u5c40\u6b66\u96c4\u5de5\u4e8b\u4e8b\u52d9\u6240","boring_xml_url":53,"boring_view_url":1,"soilmap_view_url":null,"soiltest_xml_url":56,"soiltest_view_url":56},{"id":205886,"code":"B4KJ201801009-4135","latitude":"33.206247","longitude":"130.104842","source_code":"QS2009893560020035R1330003","project_name":"","survey_name":"\u67cf\u6728\u6392\u6c34\u6a0b\u7ba1\u6539\u7bc9\u5de5\u4e8b(\u8abf\u67fb\u5de5)","client_name":"\u5efa\u8a2d\u7701\u4e5d\u5dde\u5730\u65b9\u5efa\u8a2d\u5c40\u6b66\u96c4\u5de5\u4e8b\u4e8b\u52d9\u6240","boring_xml_url":53,"boring_view_url":1,"soilmap_view_url":null,"soiltest_xml_url":56,"soiltest_view_url":56}]}}