{"header":{"xyz":{"source":[],"mosaic":false},"page":3823,"raw":{"soiltest_result":"0","bbox":"57.598333,109.544722,1.933333,163.806111","page":"3823"},"conditions":{"soiltest_result":0,"north":57.598333,"west":109.544722,"south":1.933333,"east":163.806111},"success":true,"message":""},"data":{"meta":{"total":212844,"page":3823,"pages":7095,"count":30},"values":[{"id":205885,"code":"B4KJ201801009-4134","latitude":"33.206247","longitude":"130.104842","source_code":"QS2009893560020035R1330002","project_name":"","survey_name":"\u67cf\u6728\u6392\u6c34\u6a0b\u7ba1\u6539\u7bc9\u5de5\u4e8b(\u8abf\u67fb\u5de5)","client_name":"\u5efa\u8a2d\u7701\u4e5d\u5dde\u5730\u65b9\u5efa\u8a2d\u5c40\u6b66\u96c4\u5de5\u4e8b\u4e8b\u52d9\u6240","boring_xml_url":53,"boring_view_url":1,"soilmap_view_url":null,"soiltest_xml_url":56,"soiltest_view_url":56},{"id":205884,"code":"B4KJ201801009-4133","latitude":"33.206247","longitude":"130.104842","source_code":"QS2009893560020035R1330001","project_name":"","survey_name":"\u67cf\u6728\u6392\u6c34\u6a0b\u7ba1\u6539\u7bc9\u5de5\u4e8b(\u8abf\u67fb\u5de5)","client_name":"\u5efa\u8a2d\u7701\u4e5d\u5dde\u5730\u65b9\u5efa\u8a2d\u5c40\u6b66\u96c4\u5de5\u4e8b\u4e8b\u52d9\u6240","boring_xml_url":53,"boring_view_url":1,"soilmap_view_url":null,"soiltest_xml_url":56,"soiltest_view_url":56},{"id":205883,"code":"B4KJ201801009-4132","latitude":"33.18955","longitude":"130.023675","source_code":"QS2009893560020035R1300003","project_name":"","survey_name":"\u516d\u89d2\u5ddd\u4e0a\u6d41\u5730\u8cea\u8abf\u67fb\u696d\u52d9","client_name":"\u5efa\u8a2d\u7701\u4e5d\u5dde\u5730\u65b9\u5efa\u8a2d\u5c40\u6b66\u96c4\u5de5\u4e8b\u4e8b\u52d9\u6240","boring_xml_url":53,"boring_view_url":1,"soilmap_view_url":null,"soiltest_xml_url":0,"soiltest_view_url":0},{"id":205882,"code":"B4KJ201801009-4131","latitude":"33.18955","longitude":"130.023814","source_code":"QS2009893560020035R1300002","project_name":"","survey_name":"\u516d\u89d2\u5ddd\u4e0a\u6d41\u5730\u8cea\u8abf\u67fb\u696d\u52d9","client_name":"\u5efa\u8a2d\u7701\u4e5d\u5dde\u5730\u65b9\u5efa\u8a2d\u5c40\u6b66\u96c4\u5de5\u4e8b\u4e8b\u52d9\u6240","boring_xml_url":53,"boring_view_url":1,"soilmap_view_url":null,"soiltest_xml_url":0,"soiltest_view_url":0},{"id":205881,"code":"B4KJ201801009-4130","latitude":"33.18955","longitude":"130.024008","source_code":"QS2009893560020035R1300001","project_name":"","survey_name":"\u516d\u89d2\u5ddd\u4e0a\u6d41\u5730\u8cea\u8abf\u67fb\u696d\u52d9","client_name":"\u5efa\u8a2d\u7701\u4e5d\u5dde\u5730\u65b9\u5efa\u8a2d\u5c40\u6b66\u96c4\u5de5\u4e8b\u4e8b\u52d9\u6240","boring_xml_url":53,"boring_view_url":1,"soilmap_view_url":null,"soiltest_xml_url":0,"soiltest_view_url":0},{"id":205880,"code":"B4KJ201801009-4129","latitude":"33.195314","longitude":"130.147233","source_code":"QS2009893560020035R1290001","project_name":"","survey_name":"\u5c0f\u7530\u6c5f\u6e56\u6392\u6c34\u6a0b\u7ba1\u6539\u7bc9\u53d7\u8a17\u5408\u4f75\u5de5\u4e8b(\u5730\u8cea\u8abf\u67fb)","client_name":"\u5efa\u8a2d\u7701\u4e5d\u5dde\u5730\u65b9\u5efa\u8a2d\u5c40\u6b66\u96c4\u5de5\u4e8b\u4e8b\u52d9\u6240","boring_xml_url":53,"boring_view_url":1,"soilmap_view_url":null,"soiltest_xml_url":56,"soiltest_view_url":56},{"id":205879,"code":"B4KJ201801009-4128","latitude":"33.208214","longitude":"130.046483","source_code":"QS2009893560020035R1250002","project_name":"","survey_name":"\u9ad8\u6a4b\u5730\u533a\u5730\u8cea\u8abf\u67fb\u53ca\u3073\u89e3\u6790\u696d\u52d9","client_name":"\u5efa\u8a2d\u7701\u4e5d\u5dde\u5730\u65b9\u5efa\u8a2d\u5c40\u6b66\u96c4\u5de5\u4e8b\u4e8b\u52d9\u6240","boring_xml_url":53,"boring_view_url":1,"soilmap_view_url":null,"soiltest_xml_url":56,"soiltest_view_url":56},{"id":205878,"code":"B4KJ201801009-4127","latitude":"33.207947","longitude":"130.046567","source_code":"QS2009893560020035R1250001","project_name":"","survey_name":"\u9ad8\u6a4b\u5730\u533a\u5730\u8cea\u8abf\u67fb\u53ca\u3073\u89e3\u6790\u696d\u52d9","client_name":"\u5efa\u8a2d\u7701\u4e5d\u5dde\u5730\u65b9\u5efa\u8a2d\u5c40\u6b66\u96c4\u5de5\u4e8b\u4e8b\u52d9\u6240","boring_xml_url":53,"boring_view_url":1,"soilmap_view_url":null,"soiltest_xml_url":56,"soiltest_view_url":56},{"id":205877,"code":"B4KJ201801009-4126","latitude":"33.199128","longitude":"130.198706","source_code":"QS2009893560020035R1240003","project_name":"","survey_name":"\u6771\u4f4f\u30ce\u6c5f\u5730\u533a\u5730\u8cea\u8abf\u67fb\u696d\u52d9","client_name":"\u5efa\u8a2d\u7701\u4e5d\u5dde\u5730\u65b9\u5efa\u8a2d\u5c40\u6b66\u96c4\u5de5\u4e8b\u4e8b\u52d9\u6240","boring_xml_url":53,"boring_view_url":1,"soilmap_view_url":null,"soiltest_xml_url":56,"soiltest_view_url":56},{"id":205876,"code":"B4KJ201801009-4125","latitude":"33.199047","longitude":"130.1986","source_code":"QS2009893560020035R1240002","project_name":"","survey_name":"\u6771\u4f4f\u30ce\u6c5f\u5730\u533a\u5730\u8cea\u8abf\u67fb\u696d\u52d9","client_name":"\u5efa\u8a2d\u7701\u4e5d\u5dde\u5730\u65b9\u5efa\u8a2d\u5c40\u6b66\u96c4\u5de5\u4e8b\u4e8b\u52d9\u6240","boring_xml_url":53,"boring_view_url":1,"soilmap_view_url":null,"soiltest_xml_url":56,"soiltest_view_url":56},{"id":205875,"code":"B4KJ201801009-4124","latitude":"33.198997","longitude":"130.198486","source_code":"QS2009893560020035R1240001","project_name":"","survey_name":"\u6771\u4f4f\u30ce\u6c5f\u5730\u533a\u5730\u8cea\u8abf\u67fb\u696d\u52d9","client_name":"\u5efa\u8a2d\u7701\u4e5d\u5dde\u5730\u65b9\u5efa\u8a2d\u5c40\u6b66\u96c4\u5de5\u4e8b\u4e8b\u52d9\u6240","boring_xml_url":53,"boring_view_url":1,"soilmap_view_url":null,"soiltest_xml_url":56,"soiltest_view_url":56},{"id":205874,"code":"B4KJ201801009-4123","latitude":"33.169253","longitude":"130.043233","source_code":"QS2009893560020035R1160002","project_name":"","survey_name":"\u6e9d\u30ce\u4e0a\u904a\u6c34\u6c60\u5730\u8cea\u8abf\u67fb\u696d\u52d9","client_name":"\u5efa\u8a2d\u7701\u4e5d\u5dde\u5730\u65b9\u5efa\u8a2d\u5c40\u6b66\u96c4\u5de5\u4e8b\u4e8b\u52d9\u6240","boring_xml_url":53,"boring_view_url":1,"soilmap_view_url":null,"soiltest_xml_url":0,"soiltest_view_url":0},{"id":205873,"code":"B4KJ201801009-4122","latitude":"33.168925","longitude":"130.043106","source_code":"QS2009893560020035R1160001","project_name":"","survey_name":"\u6e9d\u30ce\u4e0a\u904a\u6c34\u6c60\u5730\u8cea\u8abf\u67fb\u696d\u52d9","client_name":"\u5efa\u8a2d\u7701\u4e5d\u5dde\u5730\u65b9\u5efa\u8a2d\u5c40\u6b66\u96c4\u5de5\u4e8b\u4e8b\u52d9\u6240","boring_xml_url":53,"boring_view_url":1,"soilmap_view_url":null,"soiltest_xml_url":0,"soiltest_view_url":0},{"id":205872,"code":"B4KJ201801009-4121","latitude":"33.188053","longitude":"130.158681","source_code":"QS2009893560020035R1110008","project_name":"","survey_name":"\u767d\u77f3\u6c34\u9580\u65b0\u8a2d\u5de5\u4e8b(\u6c34\u9580\u53d6\u4ed8\u5824\u9632\u7bc9\u5824\u306b\u4f34\u3046\u5730\u8cea\u8abf\u67fb\u53ca\u3073\u89e3\u6790\u696d\u52d9)","client_name":"\u5efa\u8a2d\u7701\u4e5d\u5dde\u5730\u65b9\u5efa\u8a2d\u5c40\u6b66\u96c4\u5de5\u4e8b\u4e8b\u52d9\u6240","boring_xml_url":53,"boring_view_url":1,"soilmap_view_url":null,"soiltest_xml_url":56,"soiltest_view_url":56},{"id":205871,"code":"B4KJ201801009-4120","latitude":"33.187622","longitude":"130.159347","source_code":"QS2009893560020035R1110007","project_name":"","survey_name":"\u767d\u77f3\u6c34\u9580\u65b0\u8a2d\u5de5\u4e8b(\u6c34\u9580\u53d6\u4ed8\u5824\u9632\u7bc9\u5824\u306b\u4f34\u3046\u5730\u8cea\u8abf\u67fb\u53ca\u3073\u89e3\u6790\u696d\u52d9)","client_name":"\u5efa\u8a2d\u7701\u4e5d\u5dde\u5730\u65b9\u5efa\u8a2d\u5c40\u6b66\u96c4\u5de5\u4e8b\u4e8b\u52d9\u6240","boring_xml_url":53,"boring_view_url":1,"soilmap_view_url":null,"soiltest_xml_url":56,"soiltest_view_url":56},{"id":205870,"code":"B4KJ201801009-4119","latitude":"33.187733","longitude":"130.159383","source_code":"QS2009893560020035R1110006","project_name":"","survey_name":"\u767d\u77f3\u6c34\u9580\u65b0\u8a2d\u5de5\u4e8b(\u6c34\u9580\u53d6\u4ed8\u5824\u9632\u7bc9\u5824\u306b\u4f34\u3046\u5730\u8cea\u8abf\u67fb\u53ca\u3073\u89e3\u6790\u696d\u52d9)","client_name":"\u5efa\u8a2d\u7701\u4e5d\u5dde\u5730\u65b9\u5efa\u8a2d\u5c40\u6b66\u96c4\u5de5\u4e8b\u4e8b\u52d9\u6240","boring_xml_url":53,"boring_view_url":1,"soilmap_view_url":null,"soiltest_xml_url":56,"soiltest_view_url":56},{"id":205869,"code":"B4KJ201801009-4118","latitude":"33.187842","longitude":"130.158703","source_code":"QS2009893560020035R1110005","project_name":"","survey_name":"\u767d\u77f3\u6c34\u9580\u65b0\u8a2d\u5de5\u4e8b(\u6c34\u9580\u53d6\u4ed8\u5824\u9632\u7bc9\u5824\u306b\u4f34\u3046\u5730\u8cea\u8abf\u67fb\u53ca\u3073\u89e3\u6790\u696d\u52d9)","client_name":"\u5efa\u8a2d\u7701\u4e5d\u5dde\u5730\u65b9\u5efa\u8a2d\u5c40\u6b66\u96c4\u5de5\u4e8b\u4e8b\u52d9\u6240","boring_xml_url":53,"boring_view_url":1,"soilmap_view_url":null,"soiltest_xml_url":56,"soiltest_view_url":56},{"id":205868,"code":"B4KJ201801009-4117","latitude":"33.187983","longitude":"130.158792","source_code":"QS2009893560020035R1110004","project_name":"","survey_name":"\u767d\u77f3\u6c34\u9580\u65b0\u8a2d\u5de5\u4e8b(\u6c34\u9580\u53d6\u4ed8\u5824\u9632\u7bc9\u5824\u306b\u4f34\u3046\u5730\u8cea\u8abf\u67fb\u53ca\u3073\u89e3\u6790\u696d\u52d9)","client_name":"\u5efa\u8a2d\u7701\u4e5d\u5dde\u5730\u65b9\u5efa\u8a2d\u5c40\u6b66\u96c4\u5de5\u4e8b\u4e8b\u52d9\u6240","boring_xml_url":53,"boring_view_url":1,"soilmap_view_url":null,"soiltest_xml_url":56,"soiltest_view_url":56},{"id":205867,"code":"B4KJ201801009-4116","latitude":"33.187803","longitude":"130.159333","source_code":"QS2009893560020035R1110003","project_name":"","survey_name":"\u767d\u77f3\u6c34\u9580\u65b0\u8a2d\u5de5\u4e8b(\u6c34\u9580\u53d6\u4ed8\u5824\u9632\u7bc9\u5824\u306b\u4f34\u3046\u5730\u8cea\u8abf\u67fb\u53ca\u3073\u89e3\u6790\u696d\u52d9)","client_name":"\u5efa\u8a2d\u7701\u4e5d\u5dde\u5730\u65b9\u5efa\u8a2d\u5c40\u6b66\u96c4\u5de5\u4e8b\u4e8b\u52d9\u6240","boring_xml_url":53,"boring_view_url":1,"soilmap_view_url":null,"soiltest_xml_url":56,"soiltest_view_url":56},{"id":205866,"code":"B4KJ201801009-4115","latitude":"33.187914","longitude":"130.159311","source_code":"QS2009893560020035R1110002","project_name":"","survey_name":"\u767d\u77f3\u6c34\u9580\u65b0\u8a2d\u5de5\u4e8b(\u6c34\u9580\u53d6\u4ed8\u5824\u9632\u7bc9\u5824\u306b\u4f34\u3046\u5730\u8cea\u8abf\u67fb\u53ca\u3073\u89e3\u6790\u696d\u52d9)","client_name":"\u5efa\u8a2d\u7701\u4e5d\u5dde\u5730\u65b9\u5efa\u8a2d\u5c40\u6b66\u96c4\u5de5\u4e8b\u4e8b\u52d9\u6240","boring_xml_url":53,"boring_view_url":1,"soilmap_view_url":null,"soiltest_xml_url":56,"soiltest_view_url":56},{"id":205865,"code":"B4KJ201801009-4114","latitude":"33.188011","longitude":"130.158883","source_code":"QS2009893560020035R1110001","project_name":"","survey_name":"\u767d\u77f3\u6c34\u9580\u65b0\u8a2d\u5de5\u4e8b(\u6c34\u9580\u53d6\u4ed8\u5824\u9632\u7bc9\u5824\u306b\u4f34\u3046\u5730\u8cea\u8abf\u67fb\u53ca\u3073\u89e3\u6790\u696d\u52d9)","client_name":"\u5efa\u8a2d\u7701\u4e5d\u5dde\u5730\u65b9\u5efa\u8a2d\u5c40\u6b66\u96c4\u5de5\u4e8b\u4e8b\u52d9\u6240","boring_xml_url":53,"boring_view_url":1,"soilmap_view_url":null,"soiltest_xml_url":56,"soiltest_view_url":56},{"id":205864,"code":"B4KJ201801009-4113","latitude":"33.1258","longitude":"130.3203","source_code":"QS20098930600200510026","project_name":"\u7b51\u5f8c\u5ddd\u6cb3\u5ddd\u6539\u4fee\u4e8b\u696d","survey_name":"\u7b51\u5f8c\u5ddd\u4e0b\u6d41\u57df\u6cb3\u5e8a\u6750\u6599\u8abf\u67fb\u696d\u52d9","client_name":"\u56fd\u571f\u4ea4\u901a\u7701\u4e5d\u5dde\u5730\u65b9\u6574\u5099\u5c40\u7b51\u5f8c\u5ddd\u6cb3\u5ddd\u4e8b\u52d9\u6240","boring_xml_url":49,"boring_view_url":1,"soilmap_view_url":null,"soiltest_xml_url":52,"soiltest_view_url":52},{"id":205863,"code":"B4KJ201801009-4112","latitude":"33.1203","longitude":"130.3644","source_code":"QS20098930600200510025","project_name":"\u7b51\u5f8c\u5ddd\u6cb3\u5ddd\u6539\u4fee\u4e8b\u696d","survey_name":"\u7b51\u5f8c\u5ddd\u4e0b\u6d41\u57df\u6cb3\u5e8a\u6750\u6599\u8abf\u67fb\u696d\u52d9","client_name":"\u56fd\u571f\u4ea4\u901a\u7701\u4e5d\u5dde\u5730\u65b9\u6574\u5099\u5c40\u7b51\u5f8c\u5ddd\u6cb3\u5ddd\u4e8b\u52d9\u6240","boring_xml_url":49,"boring_view_url":1,"soilmap_view_url":null,"soiltest_xml_url":52,"soiltest_view_url":52},{"id":205862,"code":"B4KJ201801009-4111","latitude":"33.1203","longitude":"130.3644","source_code":"QS20098930600200510024","project_name":"\u7b51\u5f8c\u5ddd\u6cb3\u5ddd\u6539\u4fee\u4e8b\u696d","survey_name":"\u7b51\u5f8c\u5ddd\u4e0b\u6d41\u57df\u6cb3\u5e8a\u6750\u6599\u8abf\u67fb\u696d\u52d9","client_name":"\u56fd\u571f\u4ea4\u901a\u7701\u4e5d\u5dde\u5730\u65b9\u6574\u5099\u5c40\u7b51\u5f8c\u5ddd\u6cb3\u5ddd\u4e8b\u52d9\u6240","boring_xml_url":49,"boring_view_url":1,"soilmap_view_url":null,"soiltest_xml_url":52,"soiltest_view_url":52},{"id":205861,"code":"B4KJ201801009-4110","latitude":"33.1286","longitude":"130.3644","source_code":"QS20098930600200510023","project_name":"\u7b51\u5f8c\u5ddd\u6cb3\u5ddd\u6539\u4fee\u4e8b\u696d","survey_name":"\u7b51\u5f8c\u5ddd\u4e0b\u6d41\u57df\u6cb3\u5e8a\u6750\u6599\u8abf\u67fb\u696d\u52d9","client_name":"\u56fd\u571f\u4ea4\u901a\u7701\u4e5d\u5dde\u5730\u65b9\u6574\u5099\u5c40\u7b51\u5f8c\u5ddd\u6cb3\u5ddd\u4e8b\u52d9\u6240","boring_xml_url":49,"boring_view_url":1,"soilmap_view_url":null,"soiltest_xml_url":52,"soiltest_view_url":52},{"id":205860,"code":"B4KJ201801009-4109","latitude":"33.1286","longitude":"130.3453","source_code":"QS20098930600200510022","project_name":"\u7b51\u5f8c\u5ddd\u6cb3\u5ddd\u6539\u4fee\u4e8b\u696d","survey_name":"\u7b51\u5f8c\u5ddd\u4e0b\u6d41\u57df\u6cb3\u5e8a\u6750\u6599\u8abf\u67fb\u696d\u52d9","client_name":"\u56fd\u571f\u4ea4\u901a\u7701\u4e5d\u5dde\u5730\u65b9\u6574\u5099\u5c40\u7b51\u5f8c\u5ddd\u6cb3\u5ddd\u4e8b\u52d9\u6240","boring_xml_url":49,"boring_view_url":1,"soilmap_view_url":null,"soiltest_xml_url":52,"soiltest_view_url":52},{"id":205859,"code":"B4KJ201801009-4108","latitude":"33.1336","longitude":"130.3453","source_code":"QS20098930600200510021","project_name":"\u7b51\u5f8c\u5ddd\u6cb3\u5ddd\u6539\u4fee\u4e8b\u696d","survey_name":"\u7b51\u5f8c\u5ddd\u4e0b\u6d41\u57df\u6cb3\u5e8a\u6750\u6599\u8abf\u67fb\u696d\u52d9","client_name":"\u56fd\u571f\u4ea4\u901a\u7701\u4e5d\u5dde\u5730\u65b9\u6574\u5099\u5c40\u7b51\u5f8c\u5ddd\u6cb3\u5ddd\u4e8b\u52d9\u6240","boring_xml_url":49,"boring_view_url":1,"soilmap_view_url":null,"soiltest_xml_url":52,"soiltest_view_url":52},{"id":205858,"code":"B4KJ201801009-4107","latitude":"33.2228","longitude":"130.3717","source_code":"QS20098930600200510020","project_name":"\u7b51\u5f8c\u5ddd\u6cb3\u5ddd\u6539\u4fee\u4e8b\u696d","survey_name":"\u7b51\u5f8c\u5ddd\u4e0b\u6d41\u57df\u6cb3\u5e8a\u6750\u6599\u8abf\u67fb\u696d\u52d9","client_name":"\u56fd\u571f\u4ea4\u901a\u7701\u4e5d\u5dde\u5730\u65b9\u6574\u5099\u5c40\u7b51\u5f8c\u5ddd\u6cb3\u5ddd\u4e8b\u52d9\u6240","boring_xml_url":49,"boring_view_url":1,"soilmap_view_url":null,"soiltest_xml_url":52,"soiltest_view_url":52},{"id":205857,"code":"B4KJ201801009-4106","latitude":"33.2053","longitude":"130.3467","source_code":"QS20098930600200510019","project_name":"\u7b51\u5f8c\u5ddd\u6cb3\u5ddd\u6539\u4fee\u4e8b\u696d","survey_name":"\u7b51\u5f8c\u5ddd\u4e0b\u6d41\u57df\u6cb3\u5e8a\u6750\u6599\u8abf\u67fb\u696d\u52d9","client_name":"\u56fd\u571f\u4ea4\u901a\u7701\u4e5d\u5dde\u5730\u65b9\u6574\u5099\u5c40\u7b51\u5f8c\u5ddd\u6cb3\u5ddd\u4e8b\u52d9\u6240","boring_xml_url":49,"boring_view_url":1,"soilmap_view_url":null,"soiltest_xml_url":52,"soiltest_view_url":52},{"id":205856,"code":"B4KJ201801009-4105","latitude":"33.1892","longitude":"130.3756","source_code":"QS20098930600200510018","project_name":"\u7b51\u5f8c\u5ddd\u6cb3\u5ddd\u6539\u4fee\u4e8b\u696d","survey_name":"\u7b51\u5f8c\u5ddd\u4e0b\u6d41\u57df\u6cb3\u5e8a\u6750\u6599\u8abf\u67fb\u696d\u52d9","client_name":"\u56fd\u571f\u4ea4\u901a\u7701\u4e5d\u5dde\u5730\u65b9\u6574\u5099\u5c40\u7b51\u5f8c\u5ddd\u6cb3\u5ddd\u4e8b\u52d9\u6240","boring_xml_url":49,"boring_view_url":1,"soilmap_view_url":null,"soiltest_xml_url":52,"soiltest_view_url":52}]}}