{"header":{"xyz":{"source":[],"mosaic":false},"page":3835,"raw":{"soiltest_result":"0","bbox":"57.598333,109.544722,1.933333,163.806111","page":"3835"},"conditions":{"soiltest_result":0,"north":57.598333,"west":109.544722,"south":1.933333,"east":163.806111},"success":true,"message":""},"data":{"meta":{"total":212844,"page":3835,"pages":7095,"count":30},"values":[{"id":205525,"code":"B4KJ201801009-3774","latitude":"33.27397","longitude":"130.43894","source_code":"QS20098930489732471","project_name":"\u7b51\u5f8c\u5ddd\u4e2d\u6d41\u53f3\u5cb8\u5730\u533a\u5824\u9632\u8abf\u67fb\u696d\u52d9","survey_name":"\u7b51\u5f8c\u5ddd\u4e2d\u6d41\u53f3\u5cb8\u5730\u533a\u5824\u9632\u8abf\u67fb\u696d\u52d9","client_name":"\u5efa\u8a2d\u7701\u4e5d\u5dde\u5730\u65b9\u5efa\u8a2d\u5c40\u7b51\u5f8c\u5ddd\u5de5\u4e8b\u4e8b\u52d9\u6240","boring_xml_url":46,"boring_view_url":1,"soilmap_view_url":null,"soiltest_xml_url":0,"soiltest_view_url":0},{"id":205524,"code":"B4KJ201801009-3773","latitude":"33.27292","longitude":"130.43428","source_code":"QS20098930489732470","project_name":"\u7b51\u5f8c\u5ddd\u4e2d\u6d41\u53f3\u5cb8\u5730\u533a\u5824\u9632\u8abf\u67fb\u696d\u52d9","survey_name":"\u7b51\u5f8c\u5ddd\u4e2d\u6d41\u53f3\u5cb8\u5730\u533a\u5824\u9632\u8abf\u67fb\u696d\u52d9","client_name":"\u5efa\u8a2d\u7701\u4e5d\u5dde\u5730\u65b9\u5efa\u8a2d\u5c40\u7b51\u5f8c\u5ddd\u5de5\u4e8b\u4e8b\u52d9\u6240","boring_xml_url":46,"boring_view_url":1,"soilmap_view_url":null,"soiltest_xml_url":0,"soiltest_view_url":0},{"id":205523,"code":"B4KJ201801009-3772","latitude":"33.26875","longitude":"130.42253","source_code":"QS20098930489732469","project_name":"\u7b51\u5f8c\u5ddd\u4e2d\u6d41\u53f3\u5cb8\u5730\u533a\u5824\u9632\u8abf\u67fb\u696d\u52d9","survey_name":"\u7b51\u5f8c\u5ddd\u4e2d\u6d41\u53f3\u5cb8\u5730\u533a\u5824\u9632\u8abf\u67fb\u696d\u52d9","client_name":"\u5efa\u8a2d\u7701\u4e5d\u5dde\u5730\u65b9\u5efa\u8a2d\u5c40\u7b51\u5f8c\u5ddd\u5de5\u4e8b\u4e8b\u52d9\u6240","boring_xml_url":46,"boring_view_url":1,"soilmap_view_url":null,"soiltest_xml_url":0,"soiltest_view_url":0},{"id":205522,"code":"B4KJ201801009-3771","latitude":"33.26489","longitude":"130.41922","source_code":"QS20098930489732468","project_name":"\u7b51\u5f8c\u5ddd\u4e2d\u6d41\u53f3\u5cb8\u5730\u533a\u5824\u9632\u8abf\u67fb\u696d\u52d9","survey_name":"\u7b51\u5f8c\u5ddd\u4e2d\u6d41\u53f3\u5cb8\u5730\u533a\u5824\u9632\u8abf\u67fb\u696d\u52d9","client_name":"\u5efa\u8a2d\u7701\u4e5d\u5dde\u5730\u65b9\u5efa\u8a2d\u5c40\u7b51\u5f8c\u5ddd\u5de5\u4e8b\u4e8b\u52d9\u6240","boring_xml_url":46,"boring_view_url":1,"soilmap_view_url":null,"soiltest_xml_url":0,"soiltest_view_url":0},{"id":205521,"code":"B4KJ201801009-3770","latitude":"33.33144","longitude":"130.55681","source_code":"QS20098930489732467","project_name":"\u5e73\u62106\u5e74\u5ea6 \u5927\u5200\u6d17\u6c34\u9580\u5730\u8cea\u8abf\u67fb\u696d\u52d9","survey_name":"\u5e73\u62106\u5e74\u5ea6 \u5927\u5200\u6d17\u6c34\u9580\u5730\u8cea\u8abf\u67fb\u696d\u52d9","client_name":"\u5efa\u8a2d\u7701\u4e5d\u5dde\u5730\u65b9\u5efa\u8a2d\u5c40\u7b51\u5f8c\u5ddd\u5de5\u4e8b\u4e8b\u52d9\u6240","boring_xml_url":46,"boring_view_url":1,"soilmap_view_url":null,"soiltest_xml_url":0,"soiltest_view_url":0},{"id":205520,"code":"B4KJ201801009-3769","latitude":"33.33081","longitude":"130.55672","source_code":"QS20098930489732466","project_name":"\u5e73\u62106\u5e74\u5ea6 \u5927\u5200\u6d17\u6c34\u9580\u5730\u8cea\u8abf\u67fb\u696d\u52d9","survey_name":"\u5e73\u62106\u5e74\u5ea6 \u5927\u5200\u6d17\u6c34\u9580\u5730\u8cea\u8abf\u67fb\u696d\u52d9","client_name":"\u5efa\u8a2d\u7701\u4e5d\u5dde\u5730\u65b9\u5efa\u8a2d\u5c40\u7b51\u5f8c\u5ddd\u5de5\u4e8b\u4e8b\u52d9\u6240","boring_xml_url":46,"boring_view_url":1,"soilmap_view_url":null,"soiltest_xml_url":0,"soiltest_view_url":0},{"id":205519,"code":"B4KJ201801009-3768","latitude":"33.33036","longitude":"130.55708","source_code":"QS20098930489732465","project_name":"\u5e73\u62106\u5e74\u5ea6 \u5927\u5200\u6d17\u6c34\u9580\u5730\u8cea\u8abf\u67fb\u696d\u52d9","survey_name":"\u5e73\u62106\u5e74\u5ea6 \u5927\u5200\u6d17\u6c34\u9580\u5730\u8cea\u8abf\u67fb\u696d\u52d9","client_name":"\u5efa\u8a2d\u7701\u4e5d\u5dde\u5730\u65b9\u5efa\u8a2d\u5c40\u7b51\u5f8c\u5ddd\u5de5\u4e8b\u4e8b\u52d9\u6240","boring_xml_url":46,"boring_view_url":1,"soilmap_view_url":null,"soiltest_xml_url":0,"soiltest_view_url":0},{"id":205518,"code":"B4KJ201801009-3767","latitude":"33.23272","longitude":"130.37186","source_code":"QS20098930489732464","project_name":"\u4f50\u8cc0\u6c5f\u5ddd\u5fb3\u5bcc\u5730\u533a\u571f\u8cea\u8abf\u67fb\u696d\u52d9","survey_name":"\u4f50\u8cc0\u6c5f\u5ddd\u5fb3\u5bcc\u5730\u533a\u571f\u8cea\u8abf\u67fb\u696d\u52d9","client_name":"\u5efa\u8a2d\u7701\u4e5d\u5dde\u5730\u65b9\u5efa\u8a2d\u5c40\u7b51\u5f8c\u5ddd\u5de5\u4e8b\u4e8b\u52d9\u6240","boring_xml_url":46,"boring_view_url":1,"soilmap_view_url":null,"soiltest_xml_url":49,"soiltest_view_url":49},{"id":205517,"code":"B4KJ201801009-3766","latitude":"33.17331","longitude":"130.48781","source_code":"QS20098930489732463","project_name":"\u677e\u539f\u5830\u5730\u8cea\u8abf\u67fb\u696d\u52d9","survey_name":"\u677e\u539f\u5830\u5730\u8cea\u8abf\u67fb\u696d\u52d9","client_name":"\u5efa\u8a2d\u7701\u4e5d\u5dde\u5730\u65b9\u5efa\u8a2d\u5c40\u7b51\u5f8c\u5ddd\u5de5\u4e8b\u4e8b\u52d9\u6240","boring_xml_url":46,"boring_view_url":1,"soilmap_view_url":null,"soiltest_xml_url":0,"soiltest_view_url":0},{"id":205516,"code":"B4KJ201801009-3765","latitude":"33.17367","longitude":"130.48686","source_code":"QS20098930489732462","project_name":"\u677e\u539f\u5830\u5730\u8cea\u8abf\u67fb\u696d\u52d9","survey_name":"\u677e\u539f\u5830\u5730\u8cea\u8abf\u67fb\u696d\u52d9","client_name":"\u5efa\u8a2d\u7701\u4e5d\u5dde\u5730\u65b9\u5efa\u8a2d\u5c40\u7b51\u5f8c\u5ddd\u5de5\u4e8b\u4e8b\u52d9\u6240","boring_xml_url":46,"boring_view_url":1,"soilmap_view_url":null,"soiltest_xml_url":0,"soiltest_view_url":0},{"id":205515,"code":"B4KJ201801009-3764","latitude":"33.17311","longitude":"130.48744","source_code":"QS20098930489732461","project_name":"\u677e\u539f\u5830\u5730\u8cea\u8abf\u67fb\u696d\u52d9","survey_name":"\u677e\u539f\u5830\u5730\u8cea\u8abf\u67fb\u696d\u52d9","client_name":"\u5efa\u8a2d\u7701\u4e5d\u5dde\u5730\u65b9\u5efa\u8a2d\u5c40\u7b51\u5f8c\u5ddd\u5de5\u4e8b\u4e8b\u52d9\u6240","boring_xml_url":46,"boring_view_url":1,"soilmap_view_url":null,"soiltest_xml_url":0,"soiltest_view_url":0},{"id":205514,"code":"B4KJ201801009-3763","latitude":"33.17236","longitude":"130.48792","source_code":"QS20098930489732460","project_name":"\u677e\u539f\u5830\u5730\u8cea\u8abf\u67fb\u696d\u52d9","survey_name":"\u677e\u539f\u5830\u5730\u8cea\u8abf\u67fb\u696d\u52d9","client_name":"\u5efa\u8a2d\u7701\u4e5d\u5dde\u5730\u65b9\u5efa\u8a2d\u5c40\u7b51\u5f8c\u5ddd\u5de5\u4e8b\u4e8b\u52d9\u6240","boring_xml_url":46,"boring_view_url":1,"soilmap_view_url":null,"soiltest_xml_url":0,"soiltest_view_url":0},{"id":205513,"code":"B4KJ201801009-3762","latitude":"33.17292","longitude":"130.48764","source_code":"QS20098930489732459","project_name":"\u677e\u539f\u5830\u5730\u8cea\u8abf\u67fb\u696d\u52d9","survey_name":"\u677e\u539f\u5830\u5730\u8cea\u8abf\u67fb\u696d\u52d9","client_name":"\u5efa\u8a2d\u7701\u4e5d\u5dde\u5730\u65b9\u5efa\u8a2d\u5c40\u7b51\u5f8c\u5ddd\u5de5\u4e8b\u4e8b\u52d9\u6240","boring_xml_url":46,"boring_view_url":1,"soilmap_view_url":null,"soiltest_xml_url":0,"soiltest_view_url":0},{"id":205512,"code":"B4KJ201801009-3761","latitude":"33.32911","longitude":"130.51469","source_code":"QS20098930489732458","project_name":"(\u4eee\u79f0)\u65b0\u5c0f\u68ee\u91ce\u6a4b\u8a73\u7d30\u8a2d\u8a08\u696d\u52d9\u59d4\u8a17","survey_name":"(\u4eee\u79f0)\u65b0\u5c0f\u68ee\u91ce\u6a4b\u8a73\u7d30\u8a2d\u8a08\u696d\u52d9\u59d4\u8a17","client_name":"\u4e45\u7559\u7c73\u5e02\u5efa\u8a2d\u90e8","boring_xml_url":46,"boring_view_url":1,"soilmap_view_url":null,"soiltest_xml_url":0,"soiltest_view_url":0},{"id":205511,"code":"B4KJ201801009-3760","latitude":"33.33397","longitude":"130.51439","source_code":"QS20098930489732457","project_name":"(\u4eee\u79f0)\u65b0\u5c0f\u68ee\u91ce\u6a4b\u8a73\u7d30\u8a2d\u8a08\u696d\u52d9\u59d4\u8a17","survey_name":"(\u4eee\u79f0)\u65b0\u5c0f\u68ee\u91ce\u6a4b\u8a73\u7d30\u8a2d\u8a08\u696d\u52d9\u59d4\u8a17","client_name":"\u4e45\u7559\u7c73\u5e02\u5efa\u8a2d\u90e8","boring_xml_url":46,"boring_view_url":1,"soilmap_view_url":null,"soiltest_xml_url":49,"soiltest_view_url":49},{"id":205510,"code":"B4KJ201801009-3759","latitude":"33.33306","longitude":"130.51456","source_code":"QS20098930489732456","project_name":"(\u4eee\u79f0)\u65b0\u5c0f\u68ee\u91ce\u6a4b\u8a73\u7d30\u8a2d\u8a08\u696d\u52d9\u59d4\u8a17","survey_name":"(\u4eee\u79f0)\u65b0\u5c0f\u68ee\u91ce\u6a4b\u8a73\u7d30\u8a2d\u8a08\u696d\u52d9\u59d4\u8a17","client_name":"\u4e45\u7559\u7c73\u5e02\u5efa\u8a2d\u90e8","boring_xml_url":46,"boring_view_url":1,"soilmap_view_url":null,"soiltest_xml_url":0,"soiltest_view_url":0},{"id":205509,"code":"B4KJ201801009-3758","latitude":"33.33222","longitude":"130.51447","source_code":"QS20098930489732455","project_name":"(\u4eee\u79f0)\u65b0\u5c0f\u68ee\u91ce\u6a4b\u8a73\u7d30\u8a2d\u8a08\u696d\u52d9\u59d4\u8a17","survey_name":"(\u4eee\u79f0)\u65b0\u5c0f\u68ee\u91ce\u6a4b\u8a73\u7d30\u8a2d\u8a08\u696d\u52d9\u59d4\u8a17","client_name":"\u4e45\u7559\u7c73\u5e02\u5efa\u8a2d\u90e8","boring_xml_url":46,"boring_view_url":1,"soilmap_view_url":null,"soiltest_xml_url":0,"soiltest_view_url":0},{"id":205508,"code":"B4KJ201801009-3757","latitude":"33.33144","longitude":"130.51442","source_code":"QS20098930489732454","project_name":"(\u4eee\u79f0)\u65b0\u5c0f\u68ee\u91ce\u6a4b\u8a73\u7d30\u8a2d\u8a08\u696d\u52d9\u59d4\u8a17","survey_name":"(\u4eee\u79f0)\u65b0\u5c0f\u68ee\u91ce\u6a4b\u8a73\u7d30\u8a2d\u8a08\u696d\u52d9\u59d4\u8a17","client_name":"\u4e45\u7559\u7c73\u5e02\u5efa\u8a2d\u90e8","boring_xml_url":46,"boring_view_url":1,"soilmap_view_url":null,"soiltest_xml_url":0,"soiltest_view_url":0},{"id":205507,"code":"B4KJ201801009-3756","latitude":"33.33058","longitude":"130.51433","source_code":"QS20098930489732453","project_name":"(\u4eee\u79f0)\u65b0\u5c0f\u68ee\u91ce\u6a4b\u8a73\u7d30\u8a2d\u8a08\u696d\u52d9\u59d4\u8a17","survey_name":"(\u4eee\u79f0)\u65b0\u5c0f\u68ee\u91ce\u6a4b\u8a73\u7d30\u8a2d\u8a08\u696d\u52d9\u59d4\u8a17","client_name":"\u4e45\u7559\u7c73\u5e02\u5efa\u8a2d\u90e8","boring_xml_url":46,"boring_view_url":1,"soilmap_view_url":null,"soiltest_xml_url":0,"soiltest_view_url":0},{"id":205506,"code":"B4KJ201801009-3755","latitude":"33.32969","longitude":"130.51428","source_code":"QS20098930489732452","project_name":"(\u4eee\u79f0)\u65b0\u5c0f\u68ee\u91ce\u6a4b\u8a73\u7d30\u8a2d\u8a08\u696d\u52d9\u59d4\u8a17","survey_name":"(\u4eee\u79f0)\u65b0\u5c0f\u68ee\u91ce\u6a4b\u8a73\u7d30\u8a2d\u8a08\u696d\u52d9\u59d4\u8a17","client_name":"\u4e45\u7559\u7c73\u5e02\u5efa\u8a2d\u90e8","boring_xml_url":46,"boring_view_url":1,"soilmap_view_url":null,"soiltest_xml_url":49,"soiltest_view_url":49},{"id":205505,"code":"B4KJ201801009-3754","latitude":"33.32853","longitude":"130.51531","source_code":"QS20098930489732451","project_name":"(\u4eee\u79f0)\u65b0\u5c0f\u68ee\u91ce\u6a4b\u8a73\u7d30\u8a2d\u8a08\u696d\u52d9\u59d4\u8a17","survey_name":"(\u4eee\u79f0)\u65b0\u5c0f\u68ee\u91ce\u6a4b\u8a73\u7d30\u8a2d\u8a08\u696d\u52d9\u59d4\u8a17","client_name":"\u4e45\u7559\u7c73\u5e02\u5efa\u8a2d\u90e8","boring_xml_url":46,"boring_view_url":1,"soilmap_view_url":null,"soiltest_xml_url":49,"soiltest_view_url":49},{"id":205504,"code":"B4KJ201801009-3753","latitude":"33.34678","longitude":"130.62119","source_code":"QS20098930489732450","project_name":"\u5e73\u62106\u5e74\u5ea6 \u7b51\u5f8c\u5ddd\u5824\u4f53\u6750\u6599\u8abf\u67fb\u696d\u52d9","survey_name":"\u5e73\u62106\u5e74\u5ea6 \u7b51\u5f8c\u5ddd\u5824\u4f53\u6750\u6599\u8abf\u67fb\u696d\u52d9","client_name":"\u5efa\u8a2d\u7701\u4e5d\u5dde\u5730\u65b9\u5efa\u8a2d\u5c40\u7b51\u5f8c\u5ddd\u5de5\u4e8b\u4e8b\u52d9\u6240","boring_xml_url":46,"boring_view_url":1,"soilmap_view_url":null,"soiltest_xml_url":49,"soiltest_view_url":49},{"id":205503,"code":"B4KJ201801009-3752","latitude":"33.34686","longitude":"130.62108","source_code":"QS20098930489732449","project_name":"\u5e73\u62106\u5e74\u5ea6 \u7b51\u5f8c\u5ddd\u5824\u4f53\u6750\u6599\u8abf\u67fb\u696d\u52d9","survey_name":"\u5e73\u62106\u5e74\u5ea6 \u7b51\u5f8c\u5ddd\u5824\u4f53\u6750\u6599\u8abf\u67fb\u696d\u52d9","client_name":"\u5efa\u8a2d\u7701\u4e5d\u5dde\u5730\u65b9\u5efa\u8a2d\u5c40\u7b51\u5f8c\u5ddd\u5de5\u4e8b\u4e8b\u52d9\u6240","boring_xml_url":46,"boring_view_url":1,"soilmap_view_url":null,"soiltest_xml_url":0,"soiltest_view_url":0},{"id":205502,"code":"B4KJ201801009-3751","latitude":"33.34686","longitude":"130.62108","source_code":"QS20098930489732448","project_name":"\u5e73\u62106\u5e74\u5ea6 \u7b51\u5f8c\u5ddd\u5824\u4f53\u6750\u6599\u8abf\u67fb\u696d\u52d9","survey_name":"\u5e73\u62106\u5e74\u5ea6 \u7b51\u5f8c\u5ddd\u5824\u4f53\u6750\u6599\u8abf\u67fb\u696d\u52d9","client_name":"\u5efa\u8a2d\u7701\u4e5d\u5dde\u5730\u65b9\u5efa\u8a2d\u5c40\u7b51\u5f8c\u5ddd\u5de5\u4e8b\u4e8b\u52d9\u6240","boring_xml_url":46,"boring_view_url":1,"soilmap_view_url":null,"soiltest_xml_url":49,"soiltest_view_url":49},{"id":205501,"code":"B4KJ201801009-3750","latitude":"33.34686","longitude":"130.62108","source_code":"QS20098930489732447","project_name":"\u5e73\u62106\u5e74\u5ea6 \u7b51\u5f8c\u5ddd\u5824\u4f53\u6750\u6599\u8abf\u67fb\u696d\u52d9","survey_name":"\u5e73\u62106\u5e74\u5ea6 \u7b51\u5f8c\u5ddd\u5824\u4f53\u6750\u6599\u8abf\u67fb\u696d\u52d9","client_name":"\u5efa\u8a2d\u7701\u4e5d\u5dde\u5730\u65b9\u5efa\u8a2d\u5c40\u7b51\u5f8c\u5ddd\u5de5\u4e8b\u4e8b\u52d9\u6240","boring_xml_url":46,"boring_view_url":1,"soilmap_view_url":null,"soiltest_xml_url":0,"soiltest_view_url":0},{"id":205500,"code":"B4KJ201801009-3749","latitude":"33.34697","longitude":"130.62092","source_code":"QS20098930489732446","project_name":"\u5e73\u62106\u5e74\u5ea6 \u7b51\u5f8c\u5ddd\u5824\u4f53\u6750\u6599\u8abf\u67fb\u696d\u52d9","survey_name":"\u5e73\u62106\u5e74\u5ea6 \u7b51\u5f8c\u5ddd\u5824\u4f53\u6750\u6599\u8abf\u67fb\u696d\u52d9","client_name":"\u5efa\u8a2d\u7701\u4e5d\u5dde\u5730\u65b9\u5efa\u8a2d\u5c40\u7b51\u5f8c\u5ddd\u5de5\u4e8b\u4e8b\u52d9\u6240","boring_xml_url":46,"boring_view_url":1,"soilmap_view_url":null,"soiltest_xml_url":0,"soiltest_view_url":0},{"id":205499,"code":"B4KJ201801009-3748","latitude":"33.17817","longitude":"130.35561","source_code":"QS20098930489732445","project_name":"\u5e73\u62106\u5e74\u5ea6 \u7b51\u5f8c\u5ddd\u5824\u4f53\u6750\u6599\u8abf\u67fb\u696d\u52d9","survey_name":"\u5e73\u62106\u5e74\u5ea6 \u7b51\u5f8c\u5ddd\u5824\u4f53\u6750\u6599\u8abf\u67fb\u696d\u52d9","client_name":"\u5efa\u8a2d\u7701\u4e5d\u5dde\u5730\u65b9\u5efa\u8a2d\u5c40\u7b51\u5f8c\u5ddd\u5de5\u4e8b\u4e8b\u52d9\u6240","boring_xml_url":46,"boring_view_url":1,"soilmap_view_url":null,"soiltest_xml_url":49,"soiltest_view_url":49},{"id":205498,"code":"B4KJ201801009-3747","latitude":"33.17817","longitude":"130.35578","source_code":"QS20098930489732444","project_name":"\u5e73\u62106\u5e74\u5ea6 \u7b51\u5f8c\u5ddd\u5824\u4f53\u6750\u6599\u8abf\u67fb\u696d\u52d9","survey_name":"\u5e73\u62106\u5e74\u5ea6 \u7b51\u5f8c\u5ddd\u5824\u4f53\u6750\u6599\u8abf\u67fb\u696d\u52d9","client_name":"\u5efa\u8a2d\u7701\u4e5d\u5dde\u5730\u65b9\u5efa\u8a2d\u5c40\u7b51\u5f8c\u5ddd\u5de5\u4e8b\u4e8b\u52d9\u6240","boring_xml_url":46,"boring_view_url":1,"soilmap_view_url":null,"soiltest_xml_url":0,"soiltest_view_url":0},{"id":205497,"code":"B4KJ201801009-3746","latitude":"33.17817","longitude":"130.35578","source_code":"QS20098930489732443","project_name":"\u5e73\u62106\u5e74\u5ea6 \u7b51\u5f8c\u5ddd\u5824\u4f53\u6750\u6599\u8abf\u67fb\u696d\u52d9","survey_name":"\u5e73\u62106\u5e74\u5ea6 \u7b51\u5f8c\u5ddd\u5824\u4f53\u6750\u6599\u8abf\u67fb\u696d\u52d9","client_name":"\u5efa\u8a2d\u7701\u4e5d\u5dde\u5730\u65b9\u5efa\u8a2d\u5c40\u7b51\u5f8c\u5ddd\u5de5\u4e8b\u4e8b\u52d9\u6240","boring_xml_url":46,"boring_view_url":1,"soilmap_view_url":null,"soiltest_xml_url":0,"soiltest_view_url":0},{"id":205496,"code":"B4KJ201801009-3745","latitude":"33.17817","longitude":"130.35578","source_code":"QS20098930489732442","project_name":"\u5e73\u62106\u5e74\u5ea6 \u7b51\u5f8c\u5ddd\u5824\u4f53\u6750\u6599\u8abf\u67fb\u696d\u52d9","survey_name":"\u5e73\u62106\u5e74\u5ea6 \u7b51\u5f8c\u5ddd\u5824\u4f53\u6750\u6599\u8abf\u67fb\u696d\u52d9","client_name":"\u5efa\u8a2d\u7701\u4e5d\u5dde\u5730\u65b9\u5efa\u8a2d\u5c40\u7b51\u5f8c\u5ddd\u5de5\u4e8b\u4e8b\u52d9\u6240","boring_xml_url":46,"boring_view_url":1,"soilmap_view_url":null,"soiltest_xml_url":49,"soiltest_view_url":49}]}}