{"header":{"xyz":{"source":[],"mosaic":false},"page":3840,"raw":{"soiltest_result":"0","bbox":"57.598333,109.544722,1.933333,163.806111","page":"3840"},"conditions":{"soiltest_result":0,"north":57.598333,"west":109.544722,"south":1.933333,"east":163.806111},"success":true,"message":""},"data":{"meta":{"total":212844,"page":3840,"pages":7095,"count":30},"values":[{"id":205375,"code":"B4KJ201801009-3624","latitude":"33.24411","longitude":"130.36942","source_code":"QS20098930489732321","project_name":"\u84b2\u7530\u6d25\u6392\u6c34\u65bd\u8a2d\u5730\u8cea\u8abf\u67fb\u696d\u52d9(\u305d\u306e1)","survey_name":"\u84b2\u7530\u6d25\u6392\u6c34\u65bd\u8a2d\u5730\u8cea\u8abf\u67fb\u696d\u52d9(\u305d\u306e1)","client_name":"\u5efa\u8a2d\u7701\u4e5d\u5dde\u5730\u65b9\u5efa\u8a2d\u5c40\u7b51\u5f8c\u5ddd\u5de5\u4e8b\u4e8b\u52d9\u6240","boring_xml_url":46,"boring_view_url":1,"soilmap_view_url":null,"soiltest_xml_url":0,"soiltest_view_url":0},{"id":205374,"code":"B4KJ201801009-3623","latitude":"33.24456","longitude":"130.37036","source_code":"QS20098930489732320","project_name":"\u84b2\u7530\u6d25\u6392\u6c34\u65bd\u8a2d\u5730\u8cea\u8abf\u67fb\u696d\u52d9(\u305d\u306e1)","survey_name":"\u84b2\u7530\u6d25\u6392\u6c34\u65bd\u8a2d\u5730\u8cea\u8abf\u67fb\u696d\u52d9(\u305d\u306e1)","client_name":"\u5efa\u8a2d\u7701\u4e5d\u5dde\u5730\u65b9\u5efa\u8a2d\u5c40\u7b51\u5f8c\u5ddd\u5de5\u4e8b\u4e8b\u52d9\u6240","boring_xml_url":46,"boring_view_url":1,"soilmap_view_url":null,"soiltest_xml_url":0,"soiltest_view_url":0},{"id":205373,"code":"B4KJ201801009-3622","latitude":"33.24439","longitude":"130.37058","source_code":"QS20098930489732319","project_name":"\u84b2\u7530\u6d25\u6392\u6c34\u65bd\u8a2d\u5730\u8cea\u8abf\u67fb\u696d\u52d9(\u305d\u306e1)","survey_name":"\u84b2\u7530\u6d25\u6392\u6c34\u65bd\u8a2d\u5730\u8cea\u8abf\u67fb\u696d\u52d9(\u305d\u306e1)","client_name":"\u5efa\u8a2d\u7701\u4e5d\u5dde\u5730\u65b9\u5efa\u8a2d\u5c40\u7b51\u5f8c\u5ddd\u5de5\u4e8b\u4e8b\u52d9\u6240","boring_xml_url":46,"boring_view_url":1,"soilmap_view_url":null,"soiltest_xml_url":0,"soiltest_view_url":0},{"id":205372,"code":"B4KJ201801009-3621","latitude":"33.24414","longitude":"130.37083","source_code":"QS20098930489732318","project_name":"\u84b2\u7530\u6d25\u6392\u6c34\u65bd\u8a2d\u5730\u8cea\u8abf\u67fb\u696d\u52d9(\u305d\u306e1)","survey_name":"\u84b2\u7530\u6d25\u6392\u6c34\u65bd\u8a2d\u5730\u8cea\u8abf\u67fb\u696d\u52d9(\u305d\u306e1)","client_name":"\u5efa\u8a2d\u7701\u4e5d\u5dde\u5730\u65b9\u5efa\u8a2d\u5c40\u7b51\u5f8c\u5ddd\u5de5\u4e8b\u4e8b\u52d9\u6240","boring_xml_url":46,"boring_view_url":1,"soilmap_view_url":null,"soiltest_xml_url":0,"soiltest_view_url":0},{"id":205371,"code":"B4KJ201801009-3620","latitude":"33.24408","longitude":"130.37242","source_code":"QS20098930489732317","project_name":"\u84b2\u7530\u6d25\u6392\u6c34\u65bd\u8a2d\u5730\u8cea\u8abf\u67fb\u696d\u52d9(\u305d\u306e1)","survey_name":"\u84b2\u7530\u6d25\u6392\u6c34\u65bd\u8a2d\u5730\u8cea\u8abf\u67fb\u696d\u52d9(\u305d\u306e1)","client_name":"\u5efa\u8a2d\u7701\u4e5d\u5dde\u5730\u65b9\u5efa\u8a2d\u5c40\u7b51\u5f8c\u5ddd\u5de5\u4e8b\u4e8b\u52d9\u6240","boring_xml_url":46,"boring_view_url":1,"soilmap_view_url":null,"soiltest_xml_url":0,"soiltest_view_url":0},{"id":205370,"code":"B4KJ201801009-3619","latitude":"33.24378","longitude":"130.37233","source_code":"QS20098930489732316","project_name":"\u84b2\u7530\u6d25\u6392\u6c34\u65bd\u8a2d\u5730\u8cea\u8abf\u67fb\u696d\u52d9(\u305d\u306e1)","survey_name":"\u84b2\u7530\u6d25\u6392\u6c34\u65bd\u8a2d\u5730\u8cea\u8abf\u67fb\u696d\u52d9(\u305d\u306e1)","client_name":"\u5efa\u8a2d\u7701\u4e5d\u5dde\u5730\u65b9\u5efa\u8a2d\u5c40\u7b51\u5f8c\u5ddd\u5de5\u4e8b\u4e8b\u52d9\u6240","boring_xml_url":46,"boring_view_url":1,"soilmap_view_url":null,"soiltest_xml_url":0,"soiltest_view_url":0},{"id":205369,"code":"B4KJ201801009-3618","latitude":"33.35772","longitude":"130.54925","source_code":"QS20098930489732315","project_name":"\u4e0a\u897f\u30b5\u30a4\u30d5\u30a9\u30f3\u5b9f\u65bd\u8a2d\u8a08\u696d\u52d9\u59d4\u8a17\u5730\u8cea\u8abf\u67fb","survey_name":"\u4e0a\u897f\u30b5\u30a4\u30d5\u30a9\u30f3\u5b9f\u65bd\u8a2d\u8a08\u696d\u52d9\u59d4\u8a17\u5730\u8cea\u8abf\u67fb","client_name":"\u5efa\u8a2d\u7701\u4e5d\u5dde\u5730\u65b9\u5efa\u8a2d\u5c40\u7b51\u5f8c\u5ddd\u5de5\u4e8b\u4e8b\u52d9\u6240","boring_xml_url":46,"boring_view_url":1,"soilmap_view_url":null,"soiltest_xml_url":0,"soiltest_view_url":0},{"id":205368,"code":"B4KJ201801009-3617","latitude":"33.11692","longitude":"130.45775","source_code":"QS20098930489732314","project_name":"\u77e2\u90e8\u5ddd\u5824\u9632\u6f0f\u6c34\u5bfe\u7b56\u8abf\u67fb\u696d\u52d9","survey_name":"\u77e2\u90e8\u5ddd\u5824\u9632\u6f0f\u6c34\u5bfe\u7b56\u8abf\u67fb\u696d\u52d9","client_name":"\u5efa\u8a2d\u7701\u4e5d\u5dde\u5730\u65b9\u5efa\u8a2d\u5c40\u7b51\u5f8c\u5ddd\u5de5\u4e8b\u4e8b\u52d9\u6240","boring_xml_url":46,"boring_view_url":1,"soilmap_view_url":null,"soiltest_xml_url":49,"soiltest_view_url":49},{"id":205367,"code":"B4KJ201801009-3616","latitude":"33.11661","longitude":"130.45806","source_code":"QS20098930489732313","project_name":"\u77e2\u90e8\u5ddd\u5824\u9632\u6f0f\u6c34\u5bfe\u7b56\u8abf\u67fb\u696d\u52d9","survey_name":"\u77e2\u90e8\u5ddd\u5824\u9632\u6f0f\u6c34\u5bfe\u7b56\u8abf\u67fb\u696d\u52d9","client_name":"\u5efa\u8a2d\u7701\u4e5d\u5dde\u5730\u65b9\u5efa\u8a2d\u5c40\u7b51\u5f8c\u5ddd\u5de5\u4e8b\u4e8b\u52d9\u6240","boring_xml_url":46,"boring_view_url":1,"soilmap_view_url":null,"soiltest_xml_url":0,"soiltest_view_url":0},{"id":205366,"code":"B4KJ201801009-3615","latitude":"33.11669","longitude":"130.45781","source_code":"QS20098930489732312","project_name":"\u77e2\u90e8\u5ddd\u5824\u9632\u6f0f\u6c34\u5bfe\u7b56\u8abf\u67fb\u696d\u52d9","survey_name":"\u77e2\u90e8\u5ddd\u5824\u9632\u6f0f\u6c34\u5bfe\u7b56\u8abf\u67fb\u696d\u52d9","client_name":"\u5efa\u8a2d\u7701\u4e5d\u5dde\u5730\u65b9\u5efa\u8a2d\u5c40\u7b51\u5f8c\u5ddd\u5de5\u4e8b\u4e8b\u52d9\u6240","boring_xml_url":46,"boring_view_url":1,"soilmap_view_url":null,"soiltest_xml_url":49,"soiltest_view_url":49},{"id":205365,"code":"B4KJ201801009-3614","latitude":"33.11664","longitude":"130.45758","source_code":"QS20098930489732311","project_name":"\u77e2\u90e8\u5ddd\u5824\u9632\u6f0f\u6c34\u5bfe\u7b56\u8abf\u67fb\u696d\u52d9","survey_name":"\u77e2\u90e8\u5ddd\u5824\u9632\u6f0f\u6c34\u5bfe\u7b56\u8abf\u67fb\u696d\u52d9","client_name":"\u5efa\u8a2d\u7701\u4e5d\u5dde\u5730\u65b9\u5efa\u8a2d\u5c40\u7b51\u5f8c\u5ddd\u5de5\u4e8b\u4e8b\u52d9\u6240","boring_xml_url":46,"boring_view_url":1,"soilmap_view_url":null,"soiltest_xml_url":49,"soiltest_view_url":49},{"id":205364,"code":"B4KJ201801009-3613","latitude":"33.17594","longitude":"130.49686","source_code":"QS20098930489732310","project_name":"\u77e2\u90e8\u5ddd\u5824\u9632\u6f0f\u6c34\u5bfe\u7b56\u8abf\u67fb\u696d\u52d9","survey_name":"\u77e2\u90e8\u5ddd\u5824\u9632\u6f0f\u6c34\u5bfe\u7b56\u8abf\u67fb\u696d\u52d9","client_name":"\u5efa\u8a2d\u7701\u4e5d\u5dde\u5730\u65b9\u5efa\u8a2d\u5c40\u7b51\u5f8c\u5ddd\u5de5\u4e8b\u4e8b\u52d9\u6240","boring_xml_url":46,"boring_view_url":1,"soilmap_view_url":null,"soiltest_xml_url":49,"soiltest_view_url":49},{"id":205363,"code":"B4KJ201801009-3612","latitude":"33.176","longitude":"130.49744","source_code":"QS20098930489732309","project_name":"\u77e2\u90e8\u5ddd\u5824\u9632\u6f0f\u6c34\u5bfe\u7b56\u8abf\u67fb\u696d\u52d9","survey_name":"\u77e2\u90e8\u5ddd\u5824\u9632\u6f0f\u6c34\u5bfe\u7b56\u8abf\u67fb\u696d\u52d9","client_name":"\u5efa\u8a2d\u7701\u4e5d\u5dde\u5730\u65b9\u5efa\u8a2d\u5c40\u7b51\u5f8c\u5ddd\u5de5\u4e8b\u4e8b\u52d9\u6240","boring_xml_url":46,"boring_view_url":1,"soilmap_view_url":null,"soiltest_xml_url":49,"soiltest_view_url":49},{"id":205362,"code":"B4KJ201801009-3611","latitude":"33.17572","longitude":"130.49706","source_code":"QS20098930489732308","project_name":"\u77e2\u90e8\u5ddd\u5824\u9632\u6f0f\u6c34\u5bfe\u7b56\u8abf\u67fb\u696d\u52d9","survey_name":"\u77e2\u90e8\u5ddd\u5824\u9632\u6f0f\u6c34\u5bfe\u7b56\u8abf\u67fb\u696d\u52d9","client_name":"\u5efa\u8a2d\u7701\u4e5d\u5dde\u5730\u65b9\u5efa\u8a2d\u5c40\u7b51\u5f8c\u5ddd\u5de5\u4e8b\u4e8b\u52d9\u6240","boring_xml_url":46,"boring_view_url":1,"soilmap_view_url":null,"soiltest_xml_url":49,"soiltest_view_url":49},{"id":205361,"code":"B4KJ201801009-3610","latitude":"33.17547","longitude":"130.49667","source_code":"QS20098930489732307","project_name":"\u77e2\u90e8\u5ddd\u5824\u9632\u6f0f\u6c34\u5bfe\u7b56\u8abf\u67fb\u696d\u52d9","survey_name":"\u77e2\u90e8\u5ddd\u5824\u9632\u6f0f\u6c34\u5bfe\u7b56\u8abf\u67fb\u696d\u52d9","client_name":"\u5efa\u8a2d\u7701\u4e5d\u5dde\u5730\u65b9\u5efa\u8a2d\u5c40\u7b51\u5f8c\u5ddd\u5de5\u4e8b\u4e8b\u52d9\u6240","boring_xml_url":46,"boring_view_url":1,"soilmap_view_url":null,"soiltest_xml_url":0,"soiltest_view_url":0},{"id":205360,"code":"B4KJ201801009-3609","latitude":"33.16522","longitude":"130.47144","source_code":"QS20098930489732306","project_name":"\u77e2\u90e8\u5ddd\u5824\u9632\u6f0f\u6c34\u5bfe\u7b56\u8abf\u67fb\u696d\u52d9","survey_name":"\u77e2\u90e8\u5ddd\u5824\u9632\u6f0f\u6c34\u5bfe\u7b56\u8abf\u67fb\u696d\u52d9","client_name":"\u5efa\u8a2d\u7701\u4e5d\u5dde\u5730\u65b9\u5efa\u8a2d\u5c40\u7b51\u5f8c\u5ddd\u5de5\u4e8b\u4e8b\u52d9\u6240","boring_xml_url":46,"boring_view_url":1,"soilmap_view_url":null,"soiltest_xml_url":49,"soiltest_view_url":49},{"id":205359,"code":"B4KJ201801009-3608","latitude":"33.16531","longitude":"130.47208","source_code":"QS20098930489732305","project_name":"\u77e2\u90e8\u5ddd\u5824\u9632\u6f0f\u6c34\u5bfe\u7b56\u8abf\u67fb\u696d\u52d9","survey_name":"\u77e2\u90e8\u5ddd\u5824\u9632\u6f0f\u6c34\u5bfe\u7b56\u8abf\u67fb\u696d\u52d9","client_name":"\u5efa\u8a2d\u7701\u4e5d\u5dde\u5730\u65b9\u5efa\u8a2d\u5c40\u7b51\u5f8c\u5ddd\u5de5\u4e8b\u4e8b\u52d9\u6240","boring_xml_url":46,"boring_view_url":1,"soilmap_view_url":null,"soiltest_xml_url":0,"soiltest_view_url":0},{"id":205358,"code":"B4KJ201801009-3607","latitude":"33.16497","longitude":"130.47164","source_code":"QS20098930489732304","project_name":"\u77e2\u90e8\u5ddd\u5824\u9632\u6f0f\u6c34\u5bfe\u7b56\u8abf\u67fb\u696d\u52d9","survey_name":"\u77e2\u90e8\u5ddd\u5824\u9632\u6f0f\u6c34\u5bfe\u7b56\u8abf\u67fb\u696d\u52d9","client_name":"\u5efa\u8a2d\u7701\u4e5d\u5dde\u5730\u65b9\u5efa\u8a2d\u5c40\u7b51\u5f8c\u5ddd\u5de5\u4e8b\u4e8b\u52d9\u6240","boring_xml_url":46,"boring_view_url":1,"soilmap_view_url":null,"soiltest_xml_url":49,"soiltest_view_url":49},{"id":205357,"code":"B4KJ201801009-3606","latitude":"33.01458","longitude":"130.47136","source_code":"QS20098930489732303","project_name":"\u77e2\u90e8\u5ddd\u5824\u9632\u6f0f\u6c34\u5bfe\u7b56\u8abf\u67fb\u696d\u52d9","survey_name":"\u77e2\u90e8\u5ddd\u5824\u9632\u6f0f\u6c34\u5bfe\u7b56\u8abf\u67fb\u696d\u52d9","client_name":"\u5efa\u8a2d\u7701\u4e5d\u5dde\u5730\u65b9\u5efa\u8a2d\u5c40\u7b51\u5f8c\u5ddd\u5de5\u4e8b\u4e8b\u52d9\u6240","boring_xml_url":46,"boring_view_url":1,"soilmap_view_url":null,"soiltest_xml_url":0,"soiltest_view_url":0},{"id":205356,"code":"B4KJ201801009-3605","latitude":"33.35658","longitude":"130.63231","source_code":"QS20098930489732302","project_name":"\u516b\u91cd\u4e80\u5730\u533a\u6f0f\u6c34\u8abf\u67fb\u696d\u52d9","survey_name":"\u516b\u91cd\u4e80\u5730\u533a\u6f0f\u6c34\u8abf\u67fb\u696d\u52d9","client_name":"\u5efa\u8a2d\u7701\u4e5d\u5dde\u5730\u65b9\u5efa\u8a2d\u5c40\u7b51\u5f8c\u5ddd\u5de5\u4e8b\u4e8b\u52d9\u6240","boring_xml_url":46,"boring_view_url":1,"soilmap_view_url":null,"soiltest_xml_url":49,"soiltest_view_url":49},{"id":205355,"code":"B4KJ201801009-3604","latitude":"33.35681","longitude":"130.63206","source_code":"QS20098930489732301","project_name":"\u516b\u91cd\u4e80\u5730\u533a\u6f0f\u6c34\u8abf\u67fb\u696d\u52d9","survey_name":"\u516b\u91cd\u4e80\u5730\u533a\u6f0f\u6c34\u8abf\u67fb\u696d\u52d9","client_name":"\u5efa\u8a2d\u7701\u4e5d\u5dde\u5730\u65b9\u5efa\u8a2d\u5c40\u7b51\u5f8c\u5ddd\u5de5\u4e8b\u4e8b\u52d9\u6240","boring_xml_url":46,"boring_view_url":1,"soilmap_view_url":null,"soiltest_xml_url":49,"soiltest_view_url":49},{"id":205354,"code":"B4KJ201801009-3603","latitude":"33.35708","longitude":"130.63192","source_code":"QS20098930489732300","project_name":"\u516b\u91cd\u4e80\u5730\u533a\u6f0f\u6c34\u8abf\u67fb\u696d\u52d9","survey_name":"\u516b\u91cd\u4e80\u5730\u533a\u6f0f\u6c34\u8abf\u67fb\u696d\u52d9","client_name":"\u5efa\u8a2d\u7701\u4e5d\u5dde\u5730\u65b9\u5efa\u8a2d\u5c40\u7b51\u5f8c\u5ddd\u5de5\u4e8b\u4e8b\u52d9\u6240","boring_xml_url":46,"boring_view_url":1,"soilmap_view_url":null,"soiltest_xml_url":49,"soiltest_view_url":49},{"id":205353,"code":"B4KJ201801009-3602","latitude":"33.35531","longitude":"130.63064","source_code":"QS20098930489732299","project_name":"\u516b\u91cd\u4e80\u5730\u533a\u6f0f\u6c34\u8abf\u67fb\u696d\u52d9","survey_name":"\u516b\u91cd\u4e80\u5730\u533a\u6f0f\u6c34\u8abf\u67fb\u696d\u52d9","client_name":"\u5efa\u8a2d\u7701\u4e5d\u5dde\u5730\u65b9\u5efa\u8a2d\u5c40\u7b51\u5f8c\u5ddd\u5de5\u4e8b\u4e8b\u52d9\u6240","boring_xml_url":46,"boring_view_url":1,"soilmap_view_url":null,"soiltest_xml_url":49,"soiltest_view_url":49},{"id":205352,"code":"B4KJ201801009-3601","latitude":"33.35556","longitude":"130.63042","source_code":"QS20098930489732298","project_name":"\u516b\u91cd\u4e80\u5730\u533a\u6f0f\u6c34\u8abf\u67fb\u696d\u52d9","survey_name":"\u516b\u91cd\u4e80\u5730\u533a\u6f0f\u6c34\u8abf\u67fb\u696d\u52d9","client_name":"\u5efa\u8a2d\u7701\u4e5d\u5dde\u5730\u65b9\u5efa\u8a2d\u5c40\u7b51\u5f8c\u5ddd\u5de5\u4e8b\u4e8b\u52d9\u6240","boring_xml_url":46,"boring_view_url":1,"soilmap_view_url":null,"soiltest_xml_url":49,"soiltest_view_url":49},{"id":205351,"code":"B4KJ201801009-3600","latitude":"33.12022","longitude":"130.47256","source_code":"QS20098930489732297","project_name":"\u4e0b\u6d5c\u6392\u6c34\u6a0b\u7ba1\u4ed62\u4ef6\u5730\u8cea\u8abf\u67fb\u53ca\u6e2c\u91cf\u696d\u52d9","survey_name":"\u4e0b\u6d5c\u6392\u6c34\u6a0b\u7ba1\u4ed62\u4ef6\u5730\u8cea\u8abf\u67fb\u53ca\u6e2c\u91cf\u696d\u52d9","client_name":"\u5efa\u8a2d\u7701\u4e5d\u5dde\u5730\u65b9\u5efa\u8a2d\u5c40\u7b51\u5f8c\u5ddd\u5de5\u4e8b\u4e8b\u52d9\u6240","boring_xml_url":46,"boring_view_url":1,"soilmap_view_url":null,"soiltest_xml_url":0,"soiltest_view_url":0},{"id":205350,"code":"B4KJ201801009-3599","latitude":"33.12","longitude":"130.47264","source_code":"QS20098930489732296","project_name":"\u4e0b\u6d5c\u6392\u6c34\u6a0b\u7ba1\u4ed62\u4ef6\u5730\u8cea\u8abf\u67fb\u53ca\u6e2c\u91cf\u696d\u52d9","survey_name":"\u4e0b\u6d5c\u6392\u6c34\u6a0b\u7ba1\u4ed62\u4ef6\u5730\u8cea\u8abf\u67fb\u53ca\u6e2c\u91cf\u696d\u52d9","client_name":"\u5efa\u8a2d\u7701\u4e5d\u5dde\u5730\u65b9\u5efa\u8a2d\u5c40\u7b51\u5f8c\u5ddd\u5de5\u4e8b\u4e8b\u52d9\u6240","boring_xml_url":46,"boring_view_url":1,"soilmap_view_url":null,"soiltest_xml_url":0,"soiltest_view_url":0},{"id":205349,"code":"B4KJ201801009-3598","latitude":"33.11558","longitude":"130.45639","source_code":"QS20098930489732295","project_name":"\u4e0b\u6d5c\u6392\u6c34\u6a0b\u7ba1\u4ed62\u4ef6\u5730\u8cea\u8abf\u67fb\u53ca\u6e2c\u91cf\u696d\u52d9","survey_name":"\u4e0b\u6d5c\u6392\u6c34\u6a0b\u7ba1\u4ed62\u4ef6\u5730\u8cea\u8abf\u67fb\u53ca\u6e2c\u91cf\u696d\u52d9","client_name":"\u5efa\u8a2d\u7701\u4e5d\u5dde\u5730\u65b9\u5efa\u8a2d\u5c40\u7b51\u5f8c\u5ddd\u5de5\u4e8b\u4e8b\u52d9\u6240","boring_xml_url":46,"boring_view_url":1,"soilmap_view_url":null,"soiltest_xml_url":0,"soiltest_view_url":0},{"id":205348,"code":"B4KJ201801009-3597","latitude":"33.11575","longitude":"130.45639","source_code":"QS20098930489732294","project_name":"\u4e0b\u6d5c\u6392\u6c34\u6a0b\u7ba1\u4ed62\u4ef6\u5730\u8cea\u8abf\u67fb\u53ca\u6e2c\u91cf\u696d\u52d9","survey_name":"\u4e0b\u6d5c\u6392\u6c34\u6a0b\u7ba1\u4ed62\u4ef6\u5730\u8cea\u8abf\u67fb\u53ca\u6e2c\u91cf\u696d\u52d9","client_name":"\u5efa\u8a2d\u7701\u4e5d\u5dde\u5730\u65b9\u5efa\u8a2d\u5c40\u7b51\u5f8c\u5ddd\u5de5\u4e8b\u4e8b\u52d9\u6240","boring_xml_url":46,"boring_view_url":1,"soilmap_view_url":null,"soiltest_xml_url":0,"soiltest_view_url":0},{"id":205347,"code":"B4KJ201801009-3596","latitude":"33.15258","longitude":"130.46061","source_code":"QS20098930489732293","project_name":"\u4e0b\u6d5c\u6392\u6c34\u6a0b\u7ba1\u4ed62\u4ef6\u5730\u8cea\u8abf\u67fb\u53ca\u6e2c\u91cf\u696d\u52d9","survey_name":"\u4e0b\u6d5c\u6392\u6c34\u6a0b\u7ba1\u4ed62\u4ef6\u5730\u8cea\u8abf\u67fb\u53ca\u6e2c\u91cf\u696d\u52d9","client_name":"\u5efa\u8a2d\u7701\u4e5d\u5dde\u5730\u65b9\u5efa\u8a2d\u5c40\u7b51\u5f8c\u5ddd\u5de5\u4e8b\u4e8b\u52d9\u6240","boring_xml_url":46,"boring_view_url":1,"soilmap_view_url":null,"soiltest_xml_url":0,"soiltest_view_url":0},{"id":205346,"code":"B4KJ201801009-3595","latitude":"33.15258","longitude":"130.46089","source_code":"QS20098930489732292","project_name":"\u4e0b\u6d5c\u6392\u6c34\u6a0b\u7ba1\u4ed62\u4ef6\u5730\u8cea\u8abf\u67fb\u53ca\u6e2c\u91cf\u696d\u52d9","survey_name":"\u4e0b\u6d5c\u6392\u6c34\u6a0b\u7ba1\u4ed62\u4ef6\u5730\u8cea\u8abf\u67fb\u53ca\u6e2c\u91cf\u696d\u52d9","client_name":"\u5efa\u8a2d\u7701\u4e5d\u5dde\u5730\u65b9\u5efa\u8a2d\u5c40\u7b51\u5f8c\u5ddd\u5de5\u4e8b\u4e8b\u52d9\u6240","boring_xml_url":46,"boring_view_url":1,"soilmap_view_url":null,"soiltest_xml_url":0,"soiltest_view_url":0}]}}