{"header":{"xyz":{"source":[],"mosaic":false},"page":3859,"raw":{"soiltest_result":"0","bbox":"57.598333,109.544722,1.933333,163.806111","page":"3859"},"conditions":{"soiltest_result":0,"north":57.598333,"west":109.544722,"south":1.933333,"east":163.806111},"success":true,"message":""},"data":{"meta":{"total":212844,"page":3859,"pages":7095,"count":30},"values":[{"id":204805,"code":"B4KJ201801009-3054","latitude":"33.33783","longitude":"129.9245","source_code":"QS20088938400200150020","project_name":"\u5510\u6d25\u4f0a\u4e07\u91cc\u9053\u8def\u5efa\u8a2d\u4e8b\u696d(\u53e4\u91cc2\u53f7\u6a4b)","survey_name":"\u4f50\u8cc0497\u53f7\u5510\u6d25\u4f0a\u4e07\u91cc\u9053\u8def(\u91cd\u6a4b\uff5e\u9ad8\u702c\u5730\u533a)\u5730\u8cea\u8abf\u67fb\u696d\u52d9","client_name":"\u56fd\u571f\u4ea4\u901a\u7701\u4e5d\u5dde\u5730\u65b9\u6574\u5099\u5c40\u4f50\u8cc0\u56fd\u9053\u4e8b\u52d9\u6240","boring_xml_url":49,"boring_view_url":1,"soilmap_view_url":null,"soiltest_xml_url":0,"soiltest_view_url":0},{"id":204804,"code":"B4KJ201801009-3053","latitude":"33.33822","longitude":"129.92428","source_code":"QS20088938400200150019","project_name":"\u5510\u6d25\u4f0a\u4e07\u91cc\u9053\u8def\u5efa\u8a2d\u4e8b\u696d(\u53e4\u91cc2\u53f7\u6a4b)","survey_name":"\u4f50\u8cc0497\u53f7\u5510\u6d25\u4f0a\u4e07\u91cc\u9053\u8def(\u91cd\u6a4b\uff5e\u9ad8\u702c\u5730\u533a)\u5730\u8cea\u8abf\u67fb\u696d\u52d9","client_name":"\u56fd\u571f\u4ea4\u901a\u7701\u4e5d\u5dde\u5730\u65b9\u6574\u5099\u5c40\u4f50\u8cc0\u56fd\u9053\u4e8b\u52d9\u6240","boring_xml_url":49,"boring_view_url":1,"soilmap_view_url":null,"soiltest_xml_url":0,"soiltest_view_url":0},{"id":204803,"code":"B4KJ201801009-3052","latitude":"33.33828","longitude":"129.92428","source_code":"QS20088938400200150018","project_name":"\u5510\u6d25\u4f0a\u4e07\u91cc\u9053\u8def\u5efa\u8a2d\u4e8b\u696d(\u53e4\u91cc2\u53f7\u6a4b)","survey_name":"\u4f50\u8cc0497\u53f7\u5510\u6d25\u4f0a\u4e07\u91cc\u9053\u8def(\u91cd\u6a4b\uff5e\u9ad8\u702c\u5730\u533a)\u5730\u8cea\u8abf\u67fb\u696d\u52d9","client_name":"\u56fd\u571f\u4ea4\u901a\u7701\u4e5d\u5dde\u5730\u65b9\u6574\u5099\u5c40\u4f50\u8cc0\u56fd\u9053\u4e8b\u52d9\u6240","boring_xml_url":49,"boring_view_url":1,"soilmap_view_url":null,"soiltest_xml_url":0,"soiltest_view_url":0},{"id":204802,"code":"B4KJ201801009-3051","latitude":"33.32933","longitude":"129.92808","source_code":"QS20088938400200150017","project_name":"\u5510\u6d25\u4f0a\u4e07\u91cc\u9053\u8def\u5efa\u8a2d\u4e8b\u696d(\u5927\u66f2\u5730\u533a\u88dc\u5f37\u571f\u58c1\u5de5)","survey_name":"\u4f50\u8cc0497\u53f7\u5510\u6d25\u4f0a\u4e07\u91cc\u9053\u8def(\u91cd\u6a4b\uff5e\u9ad8\u702c\u5730\u533a)\u5730\u8cea\u8abf\u67fb\u696d\u52d9","client_name":"\u56fd\u571f\u4ea4\u901a\u7701\u4e5d\u5dde\u5730\u65b9\u6574\u5099\u5c40\u4f50\u8cc0\u56fd\u9053\u4e8b\u52d9\u6240","boring_xml_url":49,"boring_view_url":1,"soilmap_view_url":null,"soiltest_xml_url":52,"soiltest_view_url":52},{"id":204801,"code":"B4KJ201801009-3050","latitude":"33.33053","longitude":"129.92806","source_code":"QS20088938400200150016","project_name":"\u5510\u6d25\u4f0a\u4e07\u91cc\u9053\u8def\u5efa\u8a2d\u4e8b\u696d(\u5927\u66f2\u5730\u533a\u88dc\u5f37\u571f\u58c1\u5de5)","survey_name":"\u4f50\u8cc0497\u53f7\u5510\u6d25\u4f0a\u4e07\u91cc\u9053\u8def(\u91cd\u6a4b\uff5e\u9ad8\u702c\u5730\u533a)\u5730\u8cea\u8abf\u67fb\u696d\u52d9","client_name":"\u56fd\u571f\u4ea4\u901a\u7701\u4e5d\u5dde\u5730\u65b9\u6574\u5099\u5c40\u4f50\u8cc0\u56fd\u9053\u4e8b\u52d9\u6240","boring_xml_url":49,"boring_view_url":1,"soilmap_view_url":null,"soiltest_xml_url":0,"soiltest_view_url":0},{"id":204800,"code":"B4KJ201801009-3049","latitude":"33.33078","longitude":"129.92839","source_code":"QS20088938400200150015","project_name":"\u5510\u6d25\u4f0a\u4e07\u91cc\u9053\u8def\u5efa\u8a2d\u4e8b\u696d(\u5927\u66f2\u5730\u533a\u88dc\u5f37\u571f\u58c1\u5de5)","survey_name":"\u4f50\u8cc0497\u53f7\u5510\u6d25\u4f0a\u4e07\u91cc\u9053\u8def(\u91cd\u6a4b\uff5e\u9ad8\u702c\u5730\u533a)\u5730\u8cea\u8abf\u67fb\u696d\u52d9","client_name":"\u56fd\u571f\u4ea4\u901a\u7701\u4e5d\u5dde\u5730\u65b9\u6574\u5099\u5c40\u4f50\u8cc0\u56fd\u9053\u4e8b\u52d9\u6240","boring_xml_url":49,"boring_view_url":1,"soilmap_view_url":null,"soiltest_xml_url":0,"soiltest_view_url":0},{"id":204799,"code":"B4KJ201801009-3048","latitude":"33.33319","longitude":"129.92786","source_code":"QS20088938400200150014","project_name":"\u5510\u6d25\u4f0a\u4e07\u91cc\u9053\u8def\u5efa\u8a2d\u4e8b\u696d(\u6c34\u7559\u5730\u533a5\u53f7\u51fd\u6e20\u5de5)","survey_name":"\u4f50\u8cc0497\u53f7\u5510\u6d25\u4f0a\u4e07\u91cc\u9053\u8def(\u91cd\u6a4b\uff5e\u9ad8\u702c\u5730\u533a)\u5730\u8cea\u8abf\u67fb\u696d\u52d9","client_name":"\u56fd\u571f\u4ea4\u901a\u7701\u4e5d\u5dde\u5730\u65b9\u6574\u5099\u5c40\u4f50\u8cc0\u56fd\u9053\u4e8b\u52d9\u6240","boring_xml_url":49,"boring_view_url":1,"soilmap_view_url":null,"soiltest_xml_url":52,"soiltest_view_url":52},{"id":204798,"code":"B4KJ201801009-3047","latitude":"33.33317","longitude":"129.92819","source_code":"QS20088938400200150013","project_name":"\u5510\u6d25\u4f0a\u4e07\u91cc\u9053\u8def\u5efa\u8a2d\u4e8b\u696d(\u6c34\u7559\u5730\u533a5\u53f7\u51fd\u6e20\u5de5)","survey_name":"\u4f50\u8cc0497\u53f7\u5510\u6d25\u4f0a\u4e07\u91cc\u9053\u8def(\u91cd\u6a4b\uff5e\u9ad8\u702c\u5730\u533a)\u5730\u8cea\u8abf\u67fb\u696d\u52d9","client_name":"\u56fd\u571f\u4ea4\u901a\u7701\u4e5d\u5dde\u5730\u65b9\u6574\u5099\u5c40\u4f50\u8cc0\u56fd\u9053\u4e8b\u52d9\u6240","boring_xml_url":49,"boring_view_url":1,"soilmap_view_url":null,"soiltest_xml_url":0,"soiltest_view_url":0},{"id":204797,"code":"B4KJ201801009-3046","latitude":"33.34103","longitude":"129.92347","source_code":"QS20088938400200150012","project_name":"\u5510\u6d25\u4f0a\u4e07\u91cc\u9053\u8def\u5efa\u8a2d\u4e8b\u696d(\u53e4\u91cc\u5730\u533a4\u53f7\u51fd\u6e20\u5de5)","survey_name":"\u4f50\u8cc0497\u53f7\u5510\u6d25\u4f0a\u4e07\u91cc\u9053\u8def(\u91cd\u6a4b\uff5e\u9ad8\u702c\u5730\u533a)\u5730\u8cea\u8abf\u67fb\u696d\u52d9","client_name":"\u56fd\u571f\u4ea4\u901a\u7701\u4e5d\u5dde\u5730\u65b9\u6574\u5099\u5c40\u4f50\u8cc0\u56fd\u9053\u4e8b\u52d9\u6240","boring_xml_url":49,"boring_view_url":1,"soilmap_view_url":null,"soiltest_xml_url":0,"soiltest_view_url":0},{"id":204796,"code":"B4KJ201801009-3045","latitude":"33.34131","longitude":"129.92392","source_code":"QS20088938400200150011","project_name":"\u5510\u6d25\u4f0a\u4e07\u91cc\u9053\u8def\u5efa\u8a2d\u4e8b\u696d(\u53e4\u91cc\u5730\u533a4\u53f7\u51fd\u6e20\u5de5)","survey_name":"\u4f50\u8cc0497\u53f7\u5510\u6d25\u4f0a\u4e07\u91cc\u9053\u8def(\u91cd\u6a4b\uff5e\u9ad8\u702c\u5730\u533a)\u5730\u8cea\u8abf\u67fb\u696d\u52d9","client_name":"\u56fd\u571f\u4ea4\u901a\u7701\u4e5d\u5dde\u5730\u65b9\u6574\u5099\u5c40\u4f50\u8cc0\u56fd\u9053\u4e8b\u52d9\u6240","boring_xml_url":49,"boring_view_url":1,"soilmap_view_url":null,"soiltest_xml_url":52,"soiltest_view_url":52},{"id":204795,"code":"B4KJ201801009-3044","latitude":"33.343","longitude":"129.92372","source_code":"QS20088938400200150010","project_name":"\u5510\u6d25\u4f0a\u4e07\u91cc\u9053\u8def\u5efa\u8a2d\u4e8b\u696d(\u8c37\u53e3\u5730\u533a3\u53f7\u51fd\u6e20\u5de5)","survey_name":"\u4f50\u8cc0497\u53f7\u5510\u6d25\u4f0a\u4e07\u91cc\u9053\u8def(\u91cd\u6a4b\uff5e\u9ad8\u702c\u5730\u533a)\u5730\u8cea\u8abf\u67fb\u696d\u52d9","client_name":"\u56fd\u571f\u4ea4\u901a\u7701\u4e5d\u5dde\u5730\u65b9\u6574\u5099\u5c40\u4f50\u8cc0\u56fd\u9053\u4e8b\u52d9\u6240","boring_xml_url":49,"boring_view_url":1,"soilmap_view_url":null,"soiltest_xml_url":0,"soiltest_view_url":0},{"id":204794,"code":"B4KJ201801009-3043","latitude":"33.33972","longitude":"129.92653","source_code":"QS20088938400200150009","project_name":"\u5510\u6d25\u4f0a\u4e07\u91cc\u9053\u8def\u5efa\u8a2d\u4e8b\u696d(\u8c37\u53e3\u5730\u533a3\u53f7\u51fd\u6e20\u5de5)","survey_name":"\u4f50\u8cc0497\u53f7\u5510\u6d25\u4f0a\u4e07\u91cc\u9053\u8def(\u91cd\u6a4b\uff5e\u9ad8\u702c\u5730\u533a)\u5730\u8cea\u8abf\u67fb\u696d\u52d9","client_name":"\u56fd\u571f\u4ea4\u901a\u7701\u4e5d\u5dde\u5730\u65b9\u6574\u5099\u5c40\u4f50\u8cc0\u56fd\u9053\u4e8b\u52d9\u6240","boring_xml_url":49,"boring_view_url":1,"soilmap_view_url":null,"soiltest_xml_url":0,"soiltest_view_url":0},{"id":204793,"code":"B4KJ201801009-3042","latitude":"33.3447","longitude":"129.9247","source_code":"QS20088938400200150008","project_name":"\u5510\u6d25\u4f0a\u4e07\u91cc\u9053\u8def\u5efa\u8a2d\u4e8b\u696d(\u8c37\u53e3\u5730\u533a\u88dc\u5f37\u571f\u58c1\u5de5)","survey_name":"\u4f50\u8cc0497\u53f7\u5510\u6d25\u4f0a\u4e07\u91cc\u9053\u8def(\u91cd\u6a4b\uff5e\u9ad8\u702c\u5730\u533a)\u5730\u8cea\u8abf\u67fb\u696d\u52d9","client_name":"\u56fd\u571f\u4ea4\u901a\u7701\u4e5d\u5dde\u5730\u65b9\u6574\u5099\u5c40\u4f50\u8cc0\u56fd\u9053\u4e8b\u52d9\u6240","boring_xml_url":49,"boring_view_url":1,"soilmap_view_url":null,"soiltest_xml_url":52,"soiltest_view_url":52},{"id":204792,"code":"B4KJ201801009-3041","latitude":"33.34528","longitude":"129.92483","source_code":"QS20088938400200150007","project_name":"\u5510\u6d25\u4f0a\u4e07\u91cc\u9053\u8def\u5efa\u8a2d\u4e8b\u696d(\u8c37\u53e3\u5730\u533a\u88dc\u5f37\u571f\u58c1\u5de5)","survey_name":"\u4f50\u8cc0497\u53f7\u5510\u6d25\u4f0a\u4e07\u91cc\u9053\u8def(\u91cd\u6a4b\uff5e\u9ad8\u702c\u5730\u533a)\u5730\u8cea\u8abf\u67fb\u696d\u52d9","client_name":"\u56fd\u571f\u4ea4\u901a\u7701\u4e5d\u5dde\u5730\u65b9\u6574\u5099\u5c40\u4f50\u8cc0\u56fd\u9053\u4e8b\u52d9\u6240","boring_xml_url":49,"boring_view_url":1,"soilmap_view_url":null,"soiltest_xml_url":0,"soiltest_view_url":0},{"id":204791,"code":"B4KJ201801009-3040","latitude":"33.34569","longitude":"129.92483","source_code":"QS20088938400200150006","project_name":"\u5510\u6d25\u4f0a\u4e07\u91cc\u9053\u8def\u5efa\u8a2d\u4e8b\u696d(\u8c37\u53e3\u5730\u533a2\u53f7\u51fd\u6e20\u5de5)","survey_name":"\u4f50\u8cc0497\u53f7\u5510\u6d25\u4f0a\u4e07\u91cc\u9053\u8def(\u91cd\u6a4b\uff5e\u9ad8\u702c\u5730\u533a)\u5730\u8cea\u8abf\u67fb\u696d\u52d9","client_name":"\u56fd\u571f\u4ea4\u901a\u7701\u4e5d\u5dde\u5730\u65b9\u6574\u5099\u5c40\u4f50\u8cc0\u56fd\u9053\u4e8b\u52d9\u6240","boring_xml_url":49,"boring_view_url":1,"soilmap_view_url":null,"soiltest_xml_url":0,"soiltest_view_url":0},{"id":204790,"code":"B4KJ201801009-3039","latitude":"33.34578","longitude":"129.92444","source_code":"QS20088938400200150005","project_name":"\u5510\u6d25\u4f0a\u4e07\u91cc\u9053\u8def\u5efa\u8a2d\u4e8b\u696d(\u8c37\u53e3\u5730\u533a2\u53f7\u51fd\u6e20\u5de5)","survey_name":"\u4f50\u8cc0497\u53f7\u5510\u6d25\u4f0a\u4e07\u91cc\u9053\u8def(\u91cd\u6a4b\uff5e\u9ad8\u702c\u5730\u533a)\u5730\u8cea\u8abf\u67fb\u696d\u52d9","client_name":"\u56fd\u571f\u4ea4\u901a\u7701\u4e5d\u5dde\u5730\u65b9\u6574\u5099\u5c40\u4f50\u8cc0\u56fd\u9053\u4e8b\u52d9\u6240","boring_xml_url":49,"boring_view_url":1,"soilmap_view_url":null,"soiltest_xml_url":0,"soiltest_view_url":0},{"id":204789,"code":"B4KJ201801009-3038","latitude":"33.34631","longitude":"129.92444","source_code":"QS20088938400200150004","project_name":"\u5510\u6d25\u4f0a\u4e07\u91cc\u9053\u8def\u5efa\u8a2d\u4e8b\u696d(\u8c37\u53e3\u5730\u533a\u88dc\u5f37\u571f\u58c1\u5de5)","survey_name":"\u4f50\u8cc0497\u53f7\u5510\u6d25\u4f0a\u4e07\u91cc\u9053\u8def(\u91cd\u6a4b\uff5e\u9ad8\u702c\u5730\u533a)\u5730\u8cea\u8abf\u67fb\u696d\u52d9","client_name":"\u56fd\u571f\u4ea4\u901a\u7701\u4e5d\u5dde\u5730\u65b9\u6574\u5099\u5c40\u4f50\u8cc0\u56fd\u9053\u4e8b\u52d9\u6240","boring_xml_url":49,"boring_view_url":1,"soilmap_view_url":null,"soiltest_xml_url":0,"soiltest_view_url":0},{"id":204788,"code":"B4KJ201801009-3037","latitude":"33.34694","longitude":"129.92433","source_code":"QS20088938400200150003","project_name":"\u5510\u6d25\u4f0a\u4e07\u91cc\u9053\u8def\u5efa\u8a2d\u4e8b\u696d(\u8c37\u53e3\u5730\u533a\u88dc\u5f37\u571f\u58c1\u5de5)","survey_name":"\u4f50\u8cc0497\u53f7\u5510\u6d25\u4f0a\u4e07\u91cc\u9053\u8def(\u91cd\u6a4b\uff5e\u9ad8\u702c\u5730\u533a)\u5730\u8cea\u8abf\u67fb\u696d\u52d9","client_name":"\u56fd\u571f\u4ea4\u901a\u7701\u4e5d\u5dde\u5730\u65b9\u6574\u5099\u5c40\u4f50\u8cc0\u56fd\u9053\u4e8b\u52d9\u6240","boring_xml_url":49,"boring_view_url":1,"soilmap_view_url":null,"soiltest_xml_url":52,"soiltest_view_url":52},{"id":204787,"code":"B4KJ201801009-3036","latitude":"33.35372","longitude":"129.92544","source_code":"QS20088938400200150002","project_name":"\u5510\u6d25\u4f0a\u4e07\u91cc\u9053\u8def\u5efa\u8a2d\u4e8b\u696d(\u91cd\u6a4b\u5730\u533a1\u53f7\u51fd\u6e20\u5de5)","survey_name":"\u4f50\u8cc0497\u53f7\u5510\u6d25\u4f0a\u4e07\u91cc\u9053\u8def(\u91cd\u6a4b\uff5e\u9ad8\u702c\u5730\u533a)\u5730\u8cea\u8abf\u67fb\u696d\u52d9","client_name":"\u56fd\u571f\u4ea4\u901a\u7701\u4e5d\u5dde\u5730\u65b9\u6574\u5099\u5c40\u4f50\u8cc0\u56fd\u9053\u4e8b\u52d9\u6240","boring_xml_url":49,"boring_view_url":1,"soilmap_view_url":null,"soiltest_xml_url":0,"soiltest_view_url":0},{"id":204786,"code":"B4KJ201801009-3035","latitude":"33.35381","longitude":"129.92586","source_code":"QS20088938400200150001","project_name":"\u5510\u6d25\u4f0a\u4e07\u91cc\u9053\u8def\u5efa\u8a2d\u4e8b\u696d(\u91cd\u6a4b\u5730\u533a1\u53f7\u51fd\u6e20\u5de5)","survey_name":"\u4f50\u8cc0497\u53f7\u5510\u6d25\u4f0a\u4e07\u91cc\u9053\u8def(\u91cd\u6a4b\uff5e\u9ad8\u702c\u5730\u533a)\u5730\u8cea\u8abf\u67fb\u696d\u52d9","client_name":"\u56fd\u571f\u4ea4\u901a\u7701\u4e5d\u5dde\u5730\u65b9\u6574\u5099\u5c40\u4f50\u8cc0\u56fd\u9053\u4e8b\u52d9\u6240","boring_xml_url":49,"boring_view_url":1,"soilmap_view_url":null,"soiltest_xml_url":52,"soiltest_view_url":52},{"id":204785,"code":"B4KJ201801009-3034","latitude":"33.32858","longitude":"129.93008","source_code":"QS20088938400200130002","project_name":"\u4f50\u8cc0497\u53f7\u9ad8\u702c\u8de8\u9053\u6a4b\u8a73\u7d30\u8a2d\u8a08\u5916\u696d\u52d9","survey_name":"\u4f50\u8cc0497\u53f7\u9ad8\u702c\u8de8\u9053\u6a4b\u8a73\u7d30\u8a2d\u8a08\u5916\u696d\u52d9","client_name":"\u56fd\u571f\u4ea4\u901a\u7701\u4e5d\u5dde\u5730\u65b9\u6574\u5099\u5c40\u4f50\u8cc0\u56fd\u9053\u4e8b\u52d9\u6240","boring_xml_url":49,"boring_view_url":1,"soilmap_view_url":null,"soiltest_xml_url":0,"soiltest_view_url":0},{"id":204784,"code":"B4KJ201801009-3033","latitude":"33.3285","longitude":"129.93047","source_code":"QS20088938400200130001","project_name":"\u4f50\u8cc0497\u53f7\u9ad8\u702c\u8de8\u9053\u6a4b\u8a73\u7d30\u8a2d\u8a08\u5916\u696d\u52d9","survey_name":"\u4f50\u8cc0497\u53f7\u9ad8\u702c\u8de8\u9053\u6a4b\u8a73\u7d30\u8a2d\u8a08\u5916\u696d\u52d9","client_name":"\u56fd\u571f\u4ea4\u901a\u7701\u4e5d\u5dde\u5730\u65b9\u6574\u5099\u5c40\u4f50\u8cc0\u56fd\u9053\u4e8b\u52d9\u6240","boring_xml_url":49,"boring_view_url":1,"soilmap_view_url":null,"soiltest_xml_url":0,"soiltest_view_url":0},{"id":204783,"code":"B4KJ201801009-3032","latitude":"33.40964","longitude":"129.97433","source_code":"QS20088938400200070001","project_name":"\u4f50\u8cc0497\u53f7\u990a\u6bcd\u7530\u30c8\u30f3\u30cd\u30eb\u5916\u6c34\u6587\u8abf\u67fb\u696d\u52d9","survey_name":"\u4f50\u8cc0497\u53f7\u990a\u6bcd\u7530\u30c8\u30f3\u30cd\u30eb\u5916\u6c34\u6587\u8abf\u67fb\u696d\u52d9","client_name":"\u56fd\u571f\u4ea4\u901a\u7701\u4e5d\u5dde\u5730\u65b9\u6574\u5099\u5c40\u4f50\u8cc0\u56fd\u9053\u4e8b\u52d9\u6240","boring_xml_url":49,"boring_view_url":1,"soilmap_view_url":null,"soiltest_xml_url":0,"soiltest_view_url":0},{"id":204782,"code":"B4KJ201801009-3031","latitude":"33.2972","longitude":"130.3108","source_code":"QS20088937400200010006","project_name":"","survey_name":"\u5de8\u52e2\u5ddd\u8abf\u6574\u6c60\u30e2\u30cb\u30bf\u30ea\u30f3\u30b0\u8abf\u67fb\u6574\u7406\u691c\u8a0e\u696d\u52d9","client_name":"\u56fd\u571f\u4ea4\u901a\u7701\u4e5d\u5dde\u5730\u65b9\u6574\u5099\u5c40\u4f50\u8cc0\u6cb3\u5ddd\u7dcf\u5408\u958b\u767a\u5de5\u4e8b\u4e8b\u52d9\u6240","boring_xml_url":49,"boring_view_url":1,"soilmap_view_url":null,"soiltest_xml_url":0,"soiltest_view_url":0},{"id":204781,"code":"B4KJ201801009-3030","latitude":"33.2972","longitude":"130.3108","source_code":"QS20088937400200010005","project_name":"","survey_name":"\u5de8\u52e2\u5ddd\u8abf\u6574\u6c60\u30e2\u30cb\u30bf\u30ea\u30f3\u30b0\u8abf\u67fb\u6574\u7406\u691c\u8a0e\u696d\u52d9","client_name":"\u56fd\u571f\u4ea4\u901a\u7701\u4e5d\u5dde\u5730\u65b9\u6574\u5099\u5c40\u4f50\u8cc0\u6cb3\u5ddd\u7dcf\u5408\u958b\u767a\u5de5\u4e8b\u4e8b\u52d9\u6240","boring_xml_url":49,"boring_view_url":1,"soilmap_view_url":null,"soiltest_xml_url":0,"soiltest_view_url":0},{"id":204780,"code":"B4KJ201801009-3029","latitude":"33.2972","longitude":"130.3108","source_code":"QS20088937400200010004","project_name":"","survey_name":"\u5de8\u52e2\u5ddd\u8abf\u6574\u6c60\u30e2\u30cb\u30bf\u30ea\u30f3\u30b0\u8abf\u67fb\u6574\u7406\u691c\u8a0e\u696d\u52d9","client_name":"\u56fd\u571f\u4ea4\u901a\u7701\u4e5d\u5dde\u5730\u65b9\u6574\u5099\u5c40\u4f50\u8cc0\u6cb3\u5ddd\u7dcf\u5408\u958b\u767a\u5de5\u4e8b\u4e8b\u52d9\u6240","boring_xml_url":49,"boring_view_url":1,"soilmap_view_url":null,"soiltest_xml_url":0,"soiltest_view_url":0},{"id":204779,"code":"B4KJ201801009-3028","latitude":"33.2972","longitude":"130.3103","source_code":"QS20088937400200010003","project_name":"","survey_name":"\u5de8\u52e2\u5ddd\u8abf\u6574\u6c60\u30e2\u30cb\u30bf\u30ea\u30f3\u30b0\u8abf\u67fb\u6574\u7406\u691c\u8a0e\u696d\u52d9","client_name":"\u56fd\u571f\u4ea4\u901a\u7701\u4e5d\u5dde\u5730\u65b9\u6574\u5099\u5c40\u4f50\u8cc0\u6cb3\u5ddd\u7dcf\u5408\u958b\u767a\u5de5\u4e8b\u4e8b\u52d9\u6240","boring_xml_url":49,"boring_view_url":1,"soilmap_view_url":null,"soiltest_xml_url":0,"soiltest_view_url":0},{"id":204778,"code":"B4KJ201801009-3027","latitude":"33.2972","longitude":"130.3103","source_code":"QS20088937400200010002","project_name":"","survey_name":"\u5de8\u52e2\u5ddd\u8abf\u6574\u6c60\u30e2\u30cb\u30bf\u30ea\u30f3\u30b0\u8abf\u67fb\u6574\u7406\u691c\u8a0e\u696d\u52d9","client_name":"\u56fd\u571f\u4ea4\u901a\u7701\u4e5d\u5dde\u5730\u65b9\u6574\u5099\u5c40\u4f50\u8cc0\u6cb3\u5ddd\u7dcf\u5408\u958b\u767a\u5de5\u4e8b\u4e8b\u52d9\u6240","boring_xml_url":49,"boring_view_url":1,"soilmap_view_url":null,"soiltest_xml_url":0,"soiltest_view_url":0},{"id":204777,"code":"B4KJ201801009-3026","latitude":"33.2972","longitude":"130.3103","source_code":"QS20088937400200010001","project_name":"","survey_name":"\u5de8\u52e2\u5ddd\u8abf\u6574\u6c60\u30e2\u30cb\u30bf\u30ea\u30f3\u30b0\u8abf\u67fb\u6574\u7406\u691c\u8a0e\u696d\u52d9","client_name":"\u56fd\u571f\u4ea4\u901a\u7701\u4e5d\u5dde\u5730\u65b9\u6574\u5099\u5c40\u4f50\u8cc0\u6cb3\u5ddd\u7dcf\u5408\u958b\u767a\u5de5\u4e8b\u4e8b\u52d9\u6240","boring_xml_url":49,"boring_view_url":1,"soilmap_view_url":null,"soiltest_xml_url":0,"soiltest_view_url":0},{"id":204776,"code":"B4KJ201801009-3025","latitude":"33.24617","longitude":"130.19408","source_code":"QS20088935600200430006","project_name":"\u725b\u6d25\u5ddd\u7825\u5ddd\u5730\u533a\u5730\u8cea\u8abf\u67fb\u696d\u52d9","survey_name":"\u725b\u6d25\u5ddd\u7825\u5ddd\u5730\u533a\u5730\u8cea\u8abf\u67fb\u696d\u52d9","client_name":"\u56fd\u571f\u4ea4\u901a\u7701\u4e5d\u5dde\u5730\u65b9\u6574\u5099\u5c40\u6b66\u96c4\u6cb3\u5ddd\u4e8b\u52d9\u6240","boring_xml_url":49,"boring_view_url":1,"soilmap_view_url":null,"soiltest_xml_url":52,"soiltest_view_url":52}]}}