{"header":{"xyz":{"source":[],"mosaic":false},"page":386,"raw":{"soiltest_result":"0","bbox":"57.598333,109.544722,1.933333,163.806111","page":"386"},"conditions":{"soiltest_result":0,"north":57.598333,"west":109.544722,"south":1.933333,"east":163.806111},"success":true,"message":""},"data":{"meta":{"total":212844,"page":386,"pages":7095,"count":30},"values":[{"id":548993,"code":"NGIC202200753-0004","latitude":"35.323771","longitude":"139.63612158333","source_code":"","project_name":"","survey_name":"R3\u56fd\u9053357\u53f7\u6771\u4eac\u6e7e\u5cb8\u9053\u8def\u5730\u8cea\u8abf\u67fb\uff08\u305d\u306e2\uff09\u696d\u52d9","client_name":"\u56fd\u571f\u4ea4\u901a\u7701\u95a2\u6771\u5730\u65b9\u6574\u5099\u5c40\u6a2a\u6d5c\u56fd\u9053\u4e8b\u52d9\u6240","boring_xml_url":47,"boring_view_url":1,"soilmap_view_url":null,"soiltest_xml_url":47,"soiltest_view_url":47},{"id":548992,"code":"NGIC202200753-0003","latitude":"35.324503305556","longitude":"139.63675902778","source_code":"","project_name":"","survey_name":"R3\u56fd\u9053357\u53f7\u6771\u4eac\u6e7e\u5cb8\u9053\u8def\u5730\u8cea\u8abf\u67fb\uff08\u305d\u306e2\uff09\u696d\u52d9","client_name":"\u56fd\u571f\u4ea4\u901a\u7701\u95a2\u6771\u5730\u65b9\u6574\u5099\u5c40\u6a2a\u6d5c\u56fd\u9053\u4e8b\u52d9\u6240","boring_xml_url":47,"boring_view_url":1,"soilmap_view_url":null,"soiltest_xml_url":47,"soiltest_view_url":47},{"id":548991,"code":"NGIC202200753-0002","latitude":"35.325264277778","longitude":"139.63744263889","source_code":"","project_name":"","survey_name":"R3\u56fd\u9053357\u53f7\u6771\u4eac\u6e7e\u5cb8\u9053\u8def\u5730\u8cea\u8abf\u67fb\uff08\u305d\u306e2\uff09\u696d\u52d9","client_name":"\u56fd\u571f\u4ea4\u901a\u7701\u95a2\u6771\u5730\u65b9\u6574\u5099\u5c40\u6a2a\u6d5c\u56fd\u9053\u4e8b\u52d9\u6240","boring_xml_url":47,"boring_view_url":1,"soilmap_view_url":null,"soiltest_xml_url":47,"soiltest_view_url":47},{"id":548990,"code":"NGIC202200753-0001","latitude":"35.326028138889","longitude":"139.63812147222","source_code":"","project_name":"","survey_name":"R3\u56fd\u9053357\u53f7\u6771\u4eac\u6e7e\u5cb8\u9053\u8def\u5730\u8cea\u8abf\u67fb\uff08\u305d\u306e2\uff09\u696d\u52d9","client_name":"\u56fd\u571f\u4ea4\u901a\u7701\u95a2\u6771\u5730\u65b9\u6574\u5099\u5c40\u6a2a\u6d5c\u56fd\u9053\u4e8b\u52d9\u6240","boring_xml_url":47,"boring_view_url":1,"soilmap_view_url":null,"soiltest_xml_url":47,"soiltest_view_url":47},{"id":548974,"code":"NGIC202200755-0012","latitude":"36.9155","longitude":"136.84008333333","source_code":"","project_name":"\u56fd\u9053159\u53f7 \u7fbd\u548b\u9053\u8def \u82e5\u90e8\u5343\u91cc\u6d5c\u30a4\u30f3\u30bf\u30fc\u7dda \u53d6\u4ed8\u64c1\u58c1\u90e8 \u571f\u8cea\u8abf\u67fb","survey_name":"\u4ee4\u548c3\u5e74\u5ea6\u8f2a\u5cf6\u9053\u8def\u5730\u8cea\u8abf\u67fb\u696d\u52d9","client_name":"\u56fd\u571f\u4ea4\u901a\u7701\u5317\u9678\u5730\u65b9\u6574\u5099\u5c40\u91d1\u6ca2\u6cb3\u5ddd\u56fd\u9053\u4e8b\u52d9\u6240","boring_xml_url":47,"boring_view_url":1,"soilmap_view_url":null,"soiltest_xml_url":0,"soiltest_view_url":0},{"id":548973,"code":"NGIC202200755-0011","latitude":"37.360027777778","longitude":"136.91202777778","source_code":"","project_name":"\u4e00\u822c\u56fd\u9053470\u53f7 \u80fd\u8d8a\u81ea\u52d5\u8eca\u9053 \u8f2a\u5cf6\u9053\u8def(II\u671f)","survey_name":"\u4ee4\u548c3\u5e74\u5ea6\u8f2a\u5cf6\u9053\u8def\u5730\u8cea\u8abf\u67fb\u696d\u52d9","client_name":"\u56fd\u571f\u4ea4\u901a\u7701\u5317\u9678\u5730\u65b9\u6574\u5099\u5c40\u91d1\u6ca2\u6cb3\u5ddd\u56fd\u9053\u4e8b\u52d9\u6240","boring_xml_url":47,"boring_view_url":1,"soilmap_view_url":null,"soiltest_xml_url":0,"soiltest_view_url":0},{"id":548972,"code":"NGIC202200755-0010","latitude":"37.360083333333","longitude":"136.91275","source_code":"","project_name":"\u4e00\u822c\u56fd\u9053470\u53f7 \u80fd\u8d8a\u81ea\u52d5\u8eca\u9053 \u8f2a\u5cf6\u9053\u8def(II\u671f)","survey_name":"\u4ee4\u548c3\u5e74\u5ea6\u8f2a\u5cf6\u9053\u8def\u5730\u8cea\u8abf\u67fb\u696d\u52d9","client_name":"\u56fd\u571f\u4ea4\u901a\u7701\u5317\u9678\u5730\u65b9\u6574\u5099\u5c40\u91d1\u6ca2\u6cb3\u5ddd\u56fd\u9053\u4e8b\u52d9\u6240","boring_xml_url":47,"boring_view_url":1,"soilmap_view_url":null,"soiltest_xml_url":0,"soiltest_view_url":0},{"id":548971,"code":"NGIC202200755-0009","latitude":"37.360166666667","longitude":"136.91288888889","source_code":"","project_name":"\u4e00\u822c\u56fd\u9053470\u53f7 \u80fd\u8d8a\u81ea\u52d5\u8eca\u9053 \u8f2a\u5cf6\u9053\u8def(II\u671f)","survey_name":"\u4ee4\u548c3\u5e74\u5ea6\u8f2a\u5cf6\u9053\u8def\u5730\u8cea\u8abf\u67fb\u696d\u52d9","client_name":"\u56fd\u571f\u4ea4\u901a\u7701\u5317\u9678\u5730\u65b9\u6574\u5099\u5c40\u91d1\u6ca2\u6cb3\u5ddd\u56fd\u9053\u4e8b\u52d9\u6240","boring_xml_url":47,"boring_view_url":1,"soilmap_view_url":null,"soiltest_xml_url":0,"soiltest_view_url":0},{"id":548970,"code":"NGIC202200755-0008","latitude":"37.361277777778","longitude":"136.91191666667","source_code":"","project_name":"\u4e00\u822c\u56fd\u9053470\u53f7 \u80fd\u8d8a\u81ea\u52d5\u8eca\u9053 \u8f2a\u5cf6\u9053\u8def(II\u671f)","survey_name":"\u4ee4\u548c3\u5e74\u5ea6\u8f2a\u5cf6\u9053\u8def\u5730\u8cea\u8abf\u67fb\u696d\u52d9","client_name":"\u56fd\u571f\u4ea4\u901a\u7701\u5317\u9678\u5730\u65b9\u6574\u5099\u5c40\u91d1\u6ca2\u6cb3\u5ddd\u56fd\u9053\u4e8b\u52d9\u6240","boring_xml_url":47,"boring_view_url":1,"soilmap_view_url":null,"soiltest_xml_url":0,"soiltest_view_url":0},{"id":548969,"code":"NGIC202200755-0007","latitude":"37.36125","longitude":"136.9115","source_code":"","project_name":"\u4e00\u822c\u56fd\u9053470\u53f7 \u80fd\u8d8a\u81ea\u52d5\u8eca\u9053 \u8f2a\u5cf6\u9053\u8def(II\u671f)","survey_name":"\u4ee4\u548c3\u5e74\u5ea6\u8f2a\u5cf6\u9053\u8def\u5730\u8cea\u8abf\u67fb\u696d\u52d9","client_name":"\u56fd\u571f\u4ea4\u901a\u7701\u5317\u9678\u5730\u65b9\u6574\u5099\u5c40\u91d1\u6ca2\u6cb3\u5ddd\u56fd\u9053\u4e8b\u52d9\u6240","boring_xml_url":47,"boring_view_url":1,"soilmap_view_url":null,"soiltest_xml_url":0,"soiltest_view_url":0},{"id":548968,"code":"NGIC202200755-0006","latitude":"37.361333333333","longitude":"136.91144444444","source_code":"","project_name":"\u4e00\u822c\u56fd\u9053470\u53f7 \u80fd\u8d8a\u81ea\u52d5\u8eca\u9053 \u8f2a\u5cf6\u9053\u8def(II\u671f)","survey_name":"\u4ee4\u548c3\u5e74\u5ea6\u8f2a\u5cf6\u9053\u8def\u5730\u8cea\u8abf\u67fb\u696d\u52d9","client_name":"\u56fd\u571f\u4ea4\u901a\u7701\u5317\u9678\u5730\u65b9\u6574\u5099\u5c40\u91d1\u6ca2\u6cb3\u5ddd\u56fd\u9053\u4e8b\u52d9\u6240","boring_xml_url":47,"boring_view_url":1,"soilmap_view_url":null,"soiltest_xml_url":47,"soiltest_view_url":47},{"id":548967,"code":"NGIC202200755-0005","latitude":"37.361361111111","longitude":"136.91163888889","source_code":"","project_name":"\u4e00\u822c\u56fd\u9053470\u53f7 \u80fd\u8d8a\u81ea\u52d5\u8eca\u9053 \u8f2a\u5cf6\u9053\u8def(II\u671f)","survey_name":"\u4ee4\u548c3\u5e74\u5ea6\u8f2a\u5cf6\u9053\u8def\u5730\u8cea\u8abf\u67fb\u696d\u52d9","client_name":"\u56fd\u571f\u4ea4\u901a\u7701\u5317\u9678\u5730\u65b9\u6574\u5099\u5c40\u91d1\u6ca2\u6cb3\u5ddd\u56fd\u9053\u4e8b\u52d9\u6240","boring_xml_url":47,"boring_view_url":1,"soilmap_view_url":null,"soiltest_xml_url":0,"soiltest_view_url":0},{"id":548966,"code":"NGIC202200755-0004","latitude":"37.361388888889","longitude":"136.91186111111","source_code":"","project_name":"\u4e00\u822c\u56fd\u9053470\u53f7 \u80fd\u8d8a\u81ea\u52d5\u8eca\u9053 \u8f2a\u5cf6\u9053\u8def(II\u671f)","survey_name":"\u4ee4\u548c3\u5e74\u5ea6\u8f2a\u5cf6\u9053\u8def\u5730\u8cea\u8abf\u67fb\u696d\u52d9","client_name":"\u56fd\u571f\u4ea4\u901a\u7701\u5317\u9678\u5730\u65b9\u6574\u5099\u5c40\u91d1\u6ca2\u6cb3\u5ddd\u56fd\u9053\u4e8b\u52d9\u6240","boring_xml_url":47,"boring_view_url":1,"soilmap_view_url":null,"soiltest_xml_url":0,"soiltest_view_url":0},{"id":548965,"code":"NGIC202200755-0003","latitude":"37.361416666667","longitude":"136.91194444444","source_code":"","project_name":"\u4e00\u822c\u56fd\u9053470\u53f7 \u80fd\u8d8a\u81ea\u52d5\u8eca\u9053 \u8f2a\u5cf6\u9053\u8def(II\u671f)","survey_name":"\u4ee4\u548c3\u5e74\u5ea6 \u8f2a\u5cf6\u9053\u8def \u5730\u8cea\u8abf\u67fb\u696d\u52d9","client_name":"\u56fd\u571f\u4ea4\u901a\u7701\u5317\u9678\u5730\u65b9\u6574\u5099\u5c40\u91d1\u6ca2\u6cb3\u5ddd\u56fd\u9053\u4e8b\u52d9\u6240","boring_xml_url":47,"boring_view_url":1,"soilmap_view_url":null,"soiltest_xml_url":0,"soiltest_view_url":0},{"id":548964,"code":"NGIC202200755-0002","latitude":"37.372805555556","longitude":"136.90886111111","source_code":"","project_name":"\u4e00\u822c\u56fd\u9053470\u53f7 \u80fd\u8d8a\u81ea\u52d5\u8eca\u9053 \u8f2a\u5cf6\u9053\u8def(II\u671f)","survey_name":"\u4ee4\u548c3\u5e74\u5ea6\u8f2a\u5cf6\u9053\u8def\u5730\u8cea\u8abf\u67fb\u696d\u52d9","client_name":"\u56fd\u571f\u4ea4\u901a\u7701\u5317\u9678\u5730\u65b9\u6574\u5099\u5c40\u91d1\u6ca2\u6cb3\u5ddd\u56fd\u9053\u4e8b\u52d9\u6240","boring_xml_url":47,"boring_view_url":1,"soilmap_view_url":null,"soiltest_xml_url":47,"soiltest_view_url":47},{"id":548963,"code":"NGIC202200755-0001","latitude":"37.379166666667","longitude":"136.90913888889","source_code":"","project_name":"\u4e00\u822c\u56fd\u9053470\u53f7 \u80fd\u8d8a\u81ea\u52d5\u8eca\u9053 \u8f2a\u5cf6\u9053\u8def(II\u671f)","survey_name":"\u4ee4\u548c3\u5e74\u5ea6\u8f2a\u5cf6\u9053\u8def\u5730\u8cea\u8abf\u67fb\u696d\u52d9","client_name":"\u56fd\u571f\u4ea4\u901a\u7701\u5317\u9678\u5730\u65b9\u6574\u5099\u5c40\u91d1\u6ca2\u6cb3\u5ddd\u56fd\u9053\u4e8b\u52d9\u6240","boring_xml_url":47,"boring_view_url":1,"soilmap_view_url":null,"soiltest_xml_url":47,"soiltest_view_url":47},{"id":548947,"code":"NGIC202200771-0007","latitude":"33.677922222222","longitude":"134.42142777778","source_code":"","project_name":"","survey_name":"\u4ee4\u548c3\u5e74\u5ea6\u725f\u5c90\u30d0\u30a4\u30d1\u30b9\u5730\u8cea\u8abf\u67fb\u696d\u52d9","client_name":"\u56fd\u571f\u4ea4\u901a\u7701\u56db\u56fd\u5730\u65b9\u6574\u5099\u5c40\u5fb3\u5cf6\u6cb3\u5ddd\u56fd\u9053\u4e8b\u52d9\u6240","boring_xml_url":47,"boring_view_url":1,"soilmap_view_url":null,"soiltest_xml_url":0,"soiltest_view_url":0},{"id":548946,"code":"NGIC202200771-0006","latitude":"33.677972222222","longitude":"134.42146666667","source_code":"","project_name":"","survey_name":"\u4ee4\u548c3\u5e74\u5ea6\u725f\u5c90\u30d0\u30a4\u30d1\u30b9\u5730\u8cea\u8abf\u67fb\u696d\u52d9","client_name":"\u56fd\u571f\u4ea4\u901a\u7701\u56db\u56fd\u5730\u65b9\u6574\u5099\u5c40\u5fb3\u5cf6\u6cb3\u5ddd\u56fd\u9053\u4e8b\u52d9\u6240","boring_xml_url":47,"boring_view_url":1,"soilmap_view_url":null,"soiltest_xml_url":0,"soiltest_view_url":0},{"id":548871,"code":"NGIC202200739-0001","latitude":"35.545161722222","longitude":"133.24906111111","source_code":"","project_name":"\u4ee4\u548c4\u5e74\u5ea6\u5883\u6e2f\u6e7e\u30fb\u7a7a\u6e2f\u6574\u5099\u4e8b\u52d9\u6240\u5e81\u820e\u571f\u8cea\u8abf\u67fb","survey_name":"\u4ee4\u548c4\u5e74\u5ea6\u5883\u6e2f\u6e7e\u30fb\u7a7a\u6e2f\u6574\u5099\u4e8b\u52d9\u6240\u5e81\u820e\u571f\u8cea\u8abf\u67fb","client_name":"\u56fd\u571f\u4ea4\u901a\u7701\u4e2d\u56fd\u5730\u65b9\u6574\u5099\u5c40\u5883\u6e2f\u6e7e\u30fb\u7a7a\u6e2f\u6574\u5099\u4e8b\u52d9\u6240","boring_xml_url":47,"boring_view_url":1,"soilmap_view_url":71,"soiltest_xml_url":47,"soiltest_view_url":47},{"id":548805,"code":"NGIC202200708-0003","latitude":"34.484008333333","longitude":"133.46342222222","source_code":"","project_name":"\u4ee4\u548c3\u5e74\u5ea6\u7b20\u5ca1\u30d0\u30a4\u30d1\u30b9\u8302\u5e73\u5730\u533a\u7b2c6\u6539\u826f\u5de5\u4e8b","survey_name":"\u4ee4\u548c3\u5e74\u5ea6\u7b20\u5ca1\u30d0\u30a4\u30d1\u30b9\u8302\u5e73\u5730\u533a\u7b2c6\u6539\u826f\u5de5\u4e8b","client_name":"\u56fd\u571f\u4ea4\u901a\u7701\u4e2d\u56fd\u5730\u65b9\u6574\u5099\u5c40\u5ca1\u5c71\u56fd\u9053\u4e8b\u52d9\u6240","boring_xml_url":47,"boring_view_url":1,"soilmap_view_url":null,"soiltest_xml_url":0,"soiltest_view_url":0},{"id":548804,"code":"NGIC202200708-0002","latitude":"34.484066666667","longitude":"133.46363611111","source_code":"","project_name":"\u4ee4\u548c3\u5e74\u5ea6\u7b20\u5ca1\u30d0\u30a4\u30d1\u30b9\u8302\u5e73\u5730\u533a\u7b2c6\u6539\u826f\u5de5\u4e8b","survey_name":"\u4ee4\u548c3\u5e74\u5ea6\u7b20\u5ca1\u30d0\u30a4\u30d1\u30b9\u8302\u5e73\u5730\u533a\u7b2c6\u6539\u826f\u5de5\u4e8b","client_name":"\u56fd\u571f\u4ea4\u901a\u7701\u4e2d\u56fd\u5730\u65b9\u6574\u5099\u5c40\u5ca1\u5c71\u56fd\u9053\u4e8b\u52d9\u6240","boring_xml_url":47,"boring_view_url":1,"soilmap_view_url":null,"soiltest_xml_url":0,"soiltest_view_url":0},{"id":548803,"code":"NGIC202200708-0001","latitude":"34.484116666667","longitude":"133.46394722222","source_code":"","project_name":"\u4ee4\u548c3\u5e74\u5ea6\u7b20\u5ca1\u30d0\u30a4\u30d1\u30b9\u8302\u5e73\u5730\u533a\u7b2c6\u6539\u826f\u5de5\u4e8b","survey_name":"\u4ee4\u548c3\u5e74\u5ea6\u7b20\u5ca1\u30d0\u30a4\u30d1\u30b9\u8302\u5e73\u5730\u533a\u7b2c6\u6539\u826f\u5de5\u4e8b","client_name":"\u56fd\u571f\u4ea4\u901a\u7701\u4e2d\u56fd\u5730\u65b9\u6574\u5099\u5c40\u5ca1\u5c71\u56fd\u9053\u4e8b\u52d9\u6240","boring_xml_url":47,"boring_view_url":1,"soilmap_view_url":null,"soiltest_xml_url":0,"soiltest_view_url":0},{"id":548716,"code":"NGIC202200689-0003","latitude":"32.337830555556","longitude":"130.83710277778","source_code":"","project_name":"","survey_name":"\u4ee4\u548c3\u5e74\u5ea6\u5ddd\u8fba\u5ddd\u30c0\u30e0\u7ba1\u5185\u5730\u8cea\u8abf\u67fb\uff08\u305d\u306e1\uff09\u696d\u52d9","client_name":"\u56fd\u571f\u4ea4\u901a\u7701\u4e5d\u5dde\u5730\u65b9\u6574\u5099\u5c40\u5ddd\u8fba\u5ddd\u30c0\u30e0\u7802\u9632\u4e8b\u52d9\u6240","boring_xml_url":47,"boring_view_url":1,"soilmap_view_url":null,"soiltest_xml_url":0,"soiltest_view_url":0},{"id":548715,"code":"NGIC202200689-0002","latitude":"32.338086111111","longitude":"130.83878333333","source_code":"","project_name":"","survey_name":"\u4ee4\u548c3\u5e74\u5ea6\u5ddd\u8fba\u5ddd\u30c0\u30e0\u7ba1\u5185\u5730\u8cea\u8abf\u67fb\uff08\u305d\u306e1\uff09\u696d\u52d9","client_name":"\u56fd\u571f\u4ea4\u901a\u7701\u4e5d\u5dde\u5730\u65b9\u6574\u5099\u5c40\u5ddd\u8fba\u5ddd\u30c0\u30e0\u7802\u9632\u4e8b\u52d9\u6240","boring_xml_url":47,"boring_view_url":1,"soilmap_view_url":null,"soiltest_xml_url":0,"soiltest_view_url":0},{"id":548714,"code":"NGIC202200689-0001","latitude":"32.338213888889","longitude":"130.83963888889","source_code":"","project_name":"","survey_name":"\u4ee4\u548c3\u5e74\u5ea6\u5ddd\u8fba\u5ddd\u30c0\u30e0\u7ba1\u5185\u5730\u8cea\u8abf\u67fb\uff08\u305d\u306e1\uff09\u696d\u52d9","client_name":"\u56fd\u571f\u4ea4\u901a\u7701\u4e5d\u5dde\u5730\u65b9\u6574\u5099\u5c40\u5ddd\u8fba\u5ddd\u30c0\u30e0\u7802\u9632\u4e8b\u52d9\u6240","boring_xml_url":47,"boring_view_url":1,"soilmap_view_url":null,"soiltest_xml_url":0,"soiltest_view_url":0},{"id":548678,"code":"NGIC202200655-0012","latitude":"33.503651305556","longitude":"132.55047675","source_code":"","project_name":"","survey_name":"\u4ee4\u548c3\u5e74\u5ea6\u80b1\u5ddd\u7ba1\u5185\u5730\u8cea\u8abf\u67fb(\u305d\u306e2)\u696d\u52d9","client_name":"\u56fd\u571f\u4ea4\u901a\u7701\u56db\u56fd\u5730\u65b9\u6574\u5099\u5c40\u80b1\u5ddd\u7dca\u6025\u6cbb\u6c34\u5bfe\u7b56\u6cb3\u5ddd\u4e8b\u52d9\u6240","boring_xml_url":47,"boring_view_url":1,"soilmap_view_url":null,"soiltest_xml_url":0,"soiltest_view_url":0},{"id":548677,"code":"NGIC202200655-0011","latitude":"33.503630138889","longitude":"132.55015738889","source_code":"","project_name":"","survey_name":"\u4ee4\u548c3\u5e74\u5ea6\u80b1\u5ddd\u7ba1\u5185\u5730\u8cea\u8abf\u67fb(\u305d\u306e2)\u696d\u52d9","client_name":"\u56fd\u571f\u4ea4\u901a\u7701\u56db\u56fd\u5730\u65b9\u6574\u5099\u5c40\u80b1\u5ddd\u7dca\u6025\u6cbb\u6c34\u5bfe\u7b56\u6cb3\u5ddd\u4e8b\u52d9\u6240","boring_xml_url":47,"boring_view_url":1,"soilmap_view_url":null,"soiltest_xml_url":0,"soiltest_view_url":0},{"id":548676,"code":"NGIC202200655-0010","latitude":"33.503766027778","longitude":"132.55019027778","source_code":"","project_name":"","survey_name":"\u4ee4\u548c3\u5e74\u5ea6\u80b1\u5ddd\u7ba1\u5185\u5730\u8cea\u8abf\u67fb(\u305d\u306e2)\u696d\u52d9","client_name":"\u56fd\u571f\u4ea4\u901a\u7701\u56db\u56fd\u5730\u65b9\u6574\u5099\u5c40\u80b1\u5ddd\u7dca\u6025\u6cbb\u6c34\u5bfe\u7b56\u6cb3\u5ddd\u4e8b\u52d9\u6240","boring_xml_url":47,"boring_view_url":1,"soilmap_view_url":null,"soiltest_xml_url":0,"soiltest_view_url":0},{"id":548675,"code":"NGIC202200655-0009","latitude":"33.522437944444","longitude":"132.54210013889","source_code":"","project_name":"","survey_name":"\u4ee4\u548c3\u5e74\u5ea6\u80b1\u5ddd\u7ba1\u5185\u5730\u8cea\u8abf\u67fb(\u305d\u306e2)\u696d\u52d9","client_name":"\u56fd\u571f\u4ea4\u901a\u7701\u56db\u56fd\u5730\u65b9\u6574\u5099\u5c40\u80b1\u5ddd\u7dca\u6025\u6cbb\u6c34\u5bfe\u7b56\u6cb3\u5ddd\u4e8b\u52d9\u6240","boring_xml_url":47,"boring_view_url":1,"soilmap_view_url":null,"soiltest_xml_url":0,"soiltest_view_url":0},{"id":548674,"code":"NGIC202200655-0008","latitude":"33.524547611111","longitude":"132.54494425","source_code":"","project_name":"","survey_name":"\u4ee4\u548c3\u5e74\u5ea6\u80b1\u5ddd\u7ba1\u5185\u5730\u8cea\u8abf\u67fb(\u305d\u306e2)\u696d\u52d9","client_name":"\u56fd\u571f\u4ea4\u901a\u7701\u56db\u56fd\u5730\u65b9\u6574\u5099\u5c40\u80b1\u5ddd\u7dca\u6025\u6cbb\u6c34\u5bfe\u7b56\u6cb3\u5ddd\u4e8b\u52d9\u6240","boring_xml_url":47,"boring_view_url":1,"soilmap_view_url":null,"soiltest_xml_url":0,"soiltest_view_url":0}]}}