{"header":{"xyz":{"source":[],"mosaic":false},"page":3869,"raw":{"soiltest_result":"0","bbox":"57.598333,109.544722,1.933333,163.806111","page":"3869"},"conditions":{"soiltest_result":0,"north":57.598333,"west":109.544722,"south":1.933333,"east":163.806111},"success":true,"message":""},"data":{"meta":{"total":212844,"page":3869,"pages":7095,"count":30},"values":[{"id":204505,"code":"B4KJ201801009-2754","latitude":"32.5847","longitude":"131.6594","source_code":"QS20078966650200140002","project_name":"","survey_name":"\u5ca1\u5bcc\u7b2c4\u6a0b\u7ba1\u5916\u5730\u8cea\u8abf\u67fb\u696d\u52d9","client_name":"\u56fd\u571f\u4ea4\u901a\u7701\u4e5d\u5dde\u5730\u65b9\u6574\u5099\u5c40\u5ef6\u5ca1\u6cb3\u5ddd\u56fd\u9053\u4e8b\u52d9\u6240","boring_xml_url":49,"boring_view_url":1,"soilmap_view_url":null,"soiltest_xml_url":52,"soiltest_view_url":52},{"id":204504,"code":"B4KJ201801009-2753","latitude":"32.5844","longitude":"131.6597","source_code":"QS20078966650200140001","project_name":"","survey_name":"\u5ca1\u5bcc\u7b2c4\u6a0b\u7ba1\u5916\u5730\u8cea\u8abf\u67fb\u696d\u52d9","client_name":"\u56fd\u571f\u4ea4\u901a\u7701\u4e5d\u5dde\u5730\u65b9\u6574\u5099\u5c40\u5ef6\u5ca1\u6cb3\u5ddd\u56fd\u9053\u4e8b\u52d9\u6240","boring_xml_url":49,"boring_view_url":1,"soilmap_view_url":null,"soiltest_xml_url":52,"soiltest_view_url":52},{"id":204503,"code":"B4KJ201801009-2752","latitude":"32.72686","longitude":"131.82639","source_code":"QS20078966630200060002","project_name":"\u5730\u4e0b\u5730\u533a\u5de5\u4e8b\u7528\u9053\u8def\u30fb\u6a0b\u7ba1\u5730\u8cea\u8abf\u67fb","survey_name":"\u6771\u4e5d\u5dde\u81ea\u52d5\u8eca\u9053(\u770c\u5883\uff5e\u5317\u5ddd\u9593)\u6e2c\u91cf\u8a2d\u8a08\u696d\u52d9","client_name":"\u56fd\u571f\u4ea4\u901a\u7701\u4e5d\u5dde\u5730\u65b9\u6574\u5099\u5c40\u5ef6\u5ca1\u6cb3\u5ddd\u56fd\u9053\u4e8b\u52d9\u6240","boring_xml_url":49,"boring_view_url":1,"soilmap_view_url":null,"soiltest_xml_url":0,"soiltest_view_url":0},{"id":204502,"code":"B4KJ201801009-2751","latitude":"32.67361","longitude":"131.71394","source_code":"QS20078966630200060001","project_name":"\u5bb6\u7530\u7b2c\u4e09\u6a4b\u5de5\u4e8b\u7528\u9053\u8def\u5730\u8cea\u8abf\u67fb\u696d\u52d9","survey_name":"\u6771\u4e5d\u5dde\u81ea\u52d5\u8eca\u9053(\u770c\u5883\uff5e\u5317\u5ddd\u9593)\u6e2c\u91cf\u8a2d\u8a08\u696d\u52d9","client_name":"\u56fd\u571f\u4ea4\u901a\u7701\u4e5d\u5dde\u5730\u65b9\u6574\u5099\u5c40\u5ef6\u5ca1\u6cb3\u5ddd\u56fd\u9053\u4e8b\u52d9\u6240","boring_xml_url":49,"boring_view_url":1,"soilmap_view_url":null,"soiltest_xml_url":0,"soiltest_view_url":0},{"id":204501,"code":"B4KJ201801009-2750","latitude":"32.67631","longitude":"131.741","source_code":"QS20078966630200030006","project_name":"","survey_name":"\u6771\u4e5d\u5dde\u81ea\u52d5\u8eca\u9053\u3014\u770c\u5883\uff5e\u5317\u5ddd\u9593\u3015\u6c34\u6587\u8abf\u67fb\u696d\u52d9","client_name":"\u56fd\u571f\u4ea4\u901a\u7701\u4e5d\u5dde\u5730\u65b9\u6574\u5099\u5c40\u5ef6\u5ca1\u6cb3\u5ddd\u56fd\u9053\u4e8b\u52d9\u6240","boring_xml_url":49,"boring_view_url":1,"soilmap_view_url":null,"soiltest_xml_url":52,"soiltest_view_url":52},{"id":204500,"code":"B4KJ201801009-2749","latitude":"32.69069","longitude":"131.79908","source_code":"QS20078966630200030005","project_name":"","survey_name":"\u6771\u4e5d\u5dde\u81ea\u52d5\u8eca\u9053\u3014\u770c\u5883\uff5e\u5317\u5ddd\u9593\u3015\u6c34\u6587\u8abf\u67fb\u696d\u52d9","client_name":"\u56fd\u571f\u4ea4\u901a\u7701\u4e5d\u5dde\u5730\u65b9\u6574\u5099\u5c40\u5ef6\u5ca1\u6cb3\u5ddd\u56fd\u9053\u4e8b\u52d9\u6240","boring_xml_url":49,"boring_view_url":1,"soilmap_view_url":null,"soiltest_xml_url":52,"soiltest_view_url":52},{"id":204499,"code":"B4KJ201801009-2748","latitude":"32.69308","longitude":"131.80508","source_code":"QS20078966630200030004","project_name":"","survey_name":"\u6771\u4e5d\u5dde\u81ea\u52d5\u8eca\u9053\u3014\u770c\u5883\uff5e\u5317\u5ddd\u9593\u3015\u6c34\u6587\u8abf\u67fb\u696d\u52d9","client_name":"\u56fd\u571f\u4ea4\u901a\u7701\u4e5d\u5dde\u5730\u65b9\u6574\u5099\u5c40\u5ef6\u5ca1\u6cb3\u5ddd\u56fd\u9053\u4e8b\u52d9\u6240","boring_xml_url":49,"boring_view_url":1,"soilmap_view_url":null,"soiltest_xml_url":52,"soiltest_view_url":52},{"id":204498,"code":"B4KJ201801009-2747","latitude":"32.72672","longitude":"131.82808","source_code":"QS20078966630200030003","project_name":"","survey_name":"\u6771\u4e5d\u5dde\u81ea\u52d5\u8eca\u9053\u3014\u770c\u5883\uff5e\u5317\u5ddd\u9593\u3015\u6c34\u6587\u8abf\u67fb\u696d\u52d9","client_name":"\u56fd\u571f\u4ea4\u901a\u7701\u4e5d\u5dde\u5730\u65b9\u6574\u5099\u5c40\u5ef6\u5ca1\u6cb3\u5ddd\u56fd\u9053\u4e8b\u52d9\u6240","boring_xml_url":49,"boring_view_url":1,"soilmap_view_url":null,"soiltest_xml_url":52,"soiltest_view_url":52},{"id":204497,"code":"B4KJ201801009-2746","latitude":"32.6772","longitude":"131.7425","source_code":"QS20078966630200030002","project_name":"","survey_name":"\u6771\u4e5d\u5dde\u81ea\u52d5\u8eca\u9053\u3014\u770c\u5883\uff5e\u5317\u5ddd\u9593\u3015\u6c34\u6587\u8abf\u67fb\u696d\u52d9","client_name":"\u56fd\u571f\u4ea4\u901a\u7701\u4e5d\u5dde\u5730\u65b9\u6574\u5099\u5c40\u5ef6\u5ca1\u6cb3\u5ddd\u56fd\u9053\u4e8b\u52d9\u6240","boring_xml_url":49,"boring_view_url":1,"soilmap_view_url":null,"soiltest_xml_url":52,"soiltest_view_url":52},{"id":204496,"code":"B4KJ201801009-2745","latitude":"32.6772","longitude":"131.7425","source_code":"QS20078966630200030001","project_name":"\u6771\u4e5d\u5dde\u81ea\u52d5\u8eca\u9053\u3014\u770c\u5883\uff5e\u5317\u5ddd\u9593\u3015\u6c34\u6587\u8abf\u67fb\u696d\u52d9","survey_name":"\u6771\u4e5d\u5dde\u81ea\u52d5\u8eca\u9053\u3014\u770c\u5883\uff5e\u5317\u5ddd\u9593\u3015\u6c34\u6587\u8abf\u67fb\u696d\u52d9","client_name":"\u56fd\u571f\u4ea4\u901a\u7701\u4e5d\u5dde\u5730\u65b9\u6574\u5099\u5c40\u5ef6\u5ca1\u6cb3\u5ddd\u56fd\u9053\u4e8b\u52d9\u6240","boring_xml_url":49,"boring_view_url":1,"soilmap_view_url":null,"soiltest_xml_url":52,"soiltest_view_url":52},{"id":204495,"code":"B4KJ201801009-2744","latitude":"31.76296358","longitude":"131.057875","source_code":"QS20078965610200100014","project_name":"\u4e00\u822c\u56fd\u905310\u53f7\u90fd\u57ce\u9053\u8def","survey_name":"\u5e73\u621019\u5e74\u5ea6 \u9ad8\u6728\u5730\u533a\u5730\u8cea\u8abf\u67fb\u696d\u52d9","client_name":"\u56fd\u571f\u4ea4\u901a\u7701\u4e5d\u5dde\u5730\u65b9\u6574\u5099\u5c40\u5bae\u5d0e\u6cb3\u5ddd\u56fd\u9053\u4e8b\u52d9\u6240","boring_xml_url":49,"boring_view_url":1,"soilmap_view_url":null,"soiltest_xml_url":0,"soiltest_view_url":0},{"id":204494,"code":"B4KJ201801009-2743","latitude":"31.76388431","longitude":"131.0611453","source_code":"QS20078965610200100013","project_name":"\u4e00\u822c\u56fd\u905310\u53f7\u90fd\u57ce\u9053\u8def","survey_name":"\u5e73\u621019\u5e74\u5ea6 \u9ad8\u6728\u5730\u533a\u5730\u8cea\u8abf\u67fb\u696d\u52d9","client_name":"\u56fd\u571f\u4ea4\u901a\u7701\u4e5d\u5dde\u5730\u65b9\u6574\u5099\u5c40\u5bae\u5d0e\u6cb3\u5ddd\u56fd\u9053\u4e8b\u52d9\u6240","boring_xml_url":49,"boring_view_url":1,"soilmap_view_url":null,"soiltest_xml_url":0,"soiltest_view_url":0},{"id":204493,"code":"B4KJ201801009-2742","latitude":"31.76395494","longitude":"131.0615169","source_code":"QS20078965610200100012","project_name":"\u4e00\u822c\u56fd\u905310\u53f7\u90fd\u57ce\u9053\u8def","survey_name":"\u5e73\u621019\u5e74\u5ea6 \u9ad8\u6728\u5730\u533a\u5730\u8cea\u8abf\u67fb\u696d\u52d9","client_name":"\u56fd\u571f\u4ea4\u901a\u7701\u4e5d\u5dde\u5730\u65b9\u6574\u5099\u5c40\u5bae\u5d0e\u6cb3\u5ddd\u56fd\u9053\u4e8b\u52d9\u6240","boring_xml_url":49,"boring_view_url":1,"soilmap_view_url":null,"soiltest_xml_url":0,"soiltest_view_url":0},{"id":204492,"code":"B4KJ201801009-2741","latitude":"31.76427561","longitude":"131.0647972","source_code":"QS20078965610200100011","project_name":"\u4e00\u822c\u56fd\u905310\u53f7\u90fd\u57ce\u9053\u8def","survey_name":"\u5e73\u621019\u5e74\u5ea6 \u9ad8\u6728\u5730\u533a\u5730\u8cea\u8abf\u67fb\u696d\u52d9","client_name":"\u56fd\u571f\u4ea4\u901a\u7701\u4e5d\u5dde\u5730\u65b9\u6574\u5099\u5c40\u5bae\u5d0e\u6cb3\u5ddd\u56fd\u9053\u4e8b\u52d9\u6240","boring_xml_url":49,"boring_view_url":1,"soilmap_view_url":null,"soiltest_xml_url":0,"soiltest_view_url":0},{"id":204491,"code":"B4KJ201801009-2740","latitude":"31.76426647","longitude":"131.0664958","source_code":"QS20078965610200100010","project_name":"\u4e00\u822c\u56fd\u905310\u53f7\u90fd\u57ce\u9053\u8def","survey_name":"\u5e73\u621019\u5e74\u5ea6 \u9ad8\u6728\u5730\u533a\u5730\u8cea\u8abf\u67fb\u696d\u52d9","client_name":"\u56fd\u571f\u4ea4\u901a\u7701\u4e5d\u5dde\u5730\u65b9\u6574\u5099\u5c40\u5bae\u5d0e\u6cb3\u5ddd\u56fd\u9053\u4e8b\u52d9\u6240","boring_xml_url":49,"boring_view_url":1,"soilmap_view_url":null,"soiltest_xml_url":0,"soiltest_view_url":0},{"id":204490,"code":"B4KJ201801009-2739","latitude":"31.76374228","longitude":"131.0735353","source_code":"QS20078965610200100009","project_name":"\u4e00\u822c\u56fd\u905310\u53f7\u90fd\u57ce\u9053\u8def","survey_name":"\u5e73\u621019\u5e74\u5ea6 \u9ad8\u6728\u5730\u533a\u5730\u8cea\u8abf\u67fb\u696d\u52d9","client_name":"\u56fd\u571f\u4ea4\u901a\u7701\u4e5d\u5dde\u5730\u65b9\u6574\u5099\u5c40\u5bae\u5d0e\u6cb3\u5ddd\u56fd\u9053\u4e8b\u52d9\u6240","boring_xml_url":49,"boring_view_url":1,"soilmap_view_url":null,"soiltest_xml_url":0,"soiltest_view_url":0},{"id":204489,"code":"B4KJ201801009-2738","latitude":"31.7639289","longitude":"131.0788797","source_code":"QS20078965610200100008","project_name":"\u4e00\u822c\u56fd\u905310\u53f7\u90fd\u57ce\u9053\u8def","survey_name":"\u5e73\u621019\u5e74\u5ea6 \u9ad8\u6728\u5730\u533a\u5730\u8cea\u8abf\u67fb\u696d\u52d9","client_name":"\u56fd\u571f\u4ea4\u901a\u7701\u4e5d\u5dde\u5730\u65b9\u6574\u5099\u5c40\u5bae\u5d0e\u6cb3\u5ddd\u56fd\u9053\u4e8b\u52d9\u6240","boring_xml_url":49,"boring_view_url":1,"soilmap_view_url":null,"soiltest_xml_url":0,"soiltest_view_url":0},{"id":204488,"code":"B4KJ201801009-2737","latitude":"31.76468164","longitude":"131.0828958","source_code":"QS20078965610200100007","project_name":"\u4e00\u822c\u56fd\u905310\u53f7\u90fd\u57ce\u9053\u8def","survey_name":"\u5e73\u621019\u5e74\u5ea6 \u9ad8\u6728\u5730\u533a\u5730\u8cea\u8abf\u67fb\u696d\u52d9","client_name":"\u56fd\u571f\u4ea4\u901a\u7701\u4e5d\u5dde\u5730\u65b9\u6574\u5099\u5c40\u5bae\u5d0e\u6cb3\u5ddd\u56fd\u9053\u4e8b\u52d9\u6240","boring_xml_url":49,"boring_view_url":1,"soilmap_view_url":null,"soiltest_xml_url":0,"soiltest_view_url":0},{"id":204487,"code":"B4KJ201801009-2736","latitude":"31.76522153","longitude":"131.0842994","source_code":"QS20078965610200100006","project_name":"\u4e00\u822c\u56fd\u905310\u53f7\u90fd\u57ce\u9053\u8def","survey_name":"\u5e73\u621019\u5e74\u5ea6 \u9ad8\u6728\u5730\u533a\u5730\u8cea\u8abf\u67fb\u696d\u52d9","client_name":"\u56fd\u571f\u4ea4\u901a\u7701\u4e5d\u5dde\u5730\u65b9\u6574\u5099\u5c40\u5bae\u5d0e\u6cb3\u5ddd\u56fd\u9053\u4e8b\u52d9\u6240","boring_xml_url":49,"boring_view_url":1,"soilmap_view_url":null,"soiltest_xml_url":0,"soiltest_view_url":0},{"id":204486,"code":"B4KJ201801009-2735","latitude":"31.77067597","longitude":"131.0900903","source_code":"QS20078965610200100005","project_name":"\u4e00\u822c\u56fd\u905310\u53f7\u90fd\u57ce\u9053\u8def","survey_name":"\u5e73\u621019\u5e74\u5ea6 \u9ad8\u6728\u5730\u533a\u5730\u8cea\u8abf\u67fb\u696d\u52d9","client_name":"\u56fd\u571f\u4ea4\u901a\u7701\u4e5d\u5dde\u5730\u65b9\u6574\u5099\u5c40\u5bae\u5d0e\u6cb3\u5ddd\u56fd\u9053\u4e8b\u52d9\u6240","boring_xml_url":49,"boring_view_url":1,"soilmap_view_url":null,"soiltest_xml_url":0,"soiltest_view_url":0},{"id":204485,"code":"B4KJ201801009-2734","latitude":"31.77342731","longitude":"131.0927458","source_code":"QS20078965610200100004","project_name":"\u4e00\u822c\u56fd\u905310\u53f7\u90fd\u57ce\u9053\u8def","survey_name":"\u5e73\u621019\u5e74\u5ea6 \u9ad8\u6728\u5730\u533a\u5730\u8cea\u8abf\u67fb\u696d\u52d9","client_name":"\u56fd\u571f\u4ea4\u901a\u7701\u4e5d\u5dde\u5730\u65b9\u6574\u5099\u5c40\u5bae\u5d0e\u6cb3\u5ddd\u56fd\u9053\u4e8b\u52d9\u6240","boring_xml_url":49,"boring_view_url":1,"soilmap_view_url":null,"soiltest_xml_url":0,"soiltest_view_url":0},{"id":204484,"code":"B4KJ201801009-2733","latitude":"31.77629689","longitude":"131.0965964","source_code":"QS20078965610200100003","project_name":"\u4e00\u822c\u56fd\u905310\u53f7\u90fd\u57ce\u9053\u8def","survey_name":"\u5e73\u621019\u5e74\u5ea6 \u9ad8\u6728\u5730\u533a\u5730\u8cea\u8abf\u67fb\u696d\u52d9","client_name":"\u56fd\u571f\u4ea4\u901a\u7701\u4e5d\u5dde\u5730\u65b9\u6574\u5099\u5c40\u5bae\u5d0e\u6cb3\u5ddd\u56fd\u9053\u4e8b\u52d9\u6240","boring_xml_url":49,"boring_view_url":1,"soilmap_view_url":null,"soiltest_xml_url":0,"soiltest_view_url":0},{"id":204483,"code":"B4KJ201801009-2732","latitude":"31.77815964","longitude":"131.1011097","source_code":"QS20078965610200100002","project_name":"\u4e00\u822c\u56fd\u905310\u53f7\u90fd\u57ce\u9053\u8def","survey_name":"\u5e73\u621019\u5e74\u5ea6 \u9ad8\u6728\u5730\u533a\u5730\u8cea\u8abf\u67fb\u696d\u52d9","client_name":"\u56fd\u571f\u4ea4\u901a\u7701\u4e5d\u5dde\u5730\u65b9\u6574\u5099\u5c40\u5bae\u5d0e\u6cb3\u5ddd\u56fd\u9053\u4e8b\u52d9\u6240","boring_xml_url":49,"boring_view_url":1,"soilmap_view_url":null,"soiltest_xml_url":0,"soiltest_view_url":0},{"id":204482,"code":"B4KJ201801009-2731","latitude":"31.77964211","longitude":"131.1066803","source_code":"QS20078965610200100001","project_name":"\u4e00\u822c\u56fd\u905310\u53f7\u90fd\u57ce\u9053\u8def","survey_name":"\u5e73\u621019\u5e74\u5ea6 \u9ad8\u6728\u5730\u533a\u5730\u8cea\u8abf\u67fb\u696d\u52d9","client_name":"\u56fd\u571f\u4ea4\u901a\u7701\u4e5d\u5dde\u5730\u65b9\u6574\u5099\u5c40\u5bae\u5d0e\u6cb3\u5ddd\u56fd\u9053\u4e8b\u52d9\u6240","boring_xml_url":49,"boring_view_url":1,"soilmap_view_url":null,"soiltest_xml_url":0,"soiltest_view_url":0},{"id":204481,"code":"B4KJ201801009-2730","latitude":"31.62511","longitude":"131.45231","source_code":"QS20078965550200040009","project_name":"\u9ad8\u934b\u5730\u533a\u5916\u5730\u8cea\u8abf\u67fb\u696d\u52d9","survey_name":"\u9ad8\u934b\u5730\u533a\u5916\u5730\u8cea\u8abf\u67fb\u696d\u52d9","client_name":"\u56fd\u571f\u4ea4\u901a\u7701\u4e5d\u5dde\u5730\u65b9\u6574\u5099\u5c40\u5bae\u5d0e\u6cb3\u5ddd\u56fd\u9053\u4e8b\u52d9\u6240","boring_xml_url":49,"boring_view_url":1,"soilmap_view_url":null,"soiltest_xml_url":52,"soiltest_view_url":52},{"id":204480,"code":"B4KJ201801009-2729","latitude":"31.62533","longitude":"131.45278","source_code":"QS20078965550200040008","project_name":"\u9ad8\u934b\u5730\u533a\u5916\u5730\u8cea\u8abf\u67fb\u696d\u52d9","survey_name":"\u9ad8\u934b\u5730\u533a\u5916\u5730\u8cea\u8abf\u67fb\u696d\u52d9","client_name":"\u56fd\u571f\u4ea4\u901a\u7701\u4e5d\u5dde\u5730\u65b9\u6574\u5099\u5c40\u5bae\u5d0e\u6cb3\u5ddd\u56fd\u9053\u4e8b\u52d9\u6240","boring_xml_url":49,"boring_view_url":1,"soilmap_view_url":null,"soiltest_xml_url":52,"soiltest_view_url":52},{"id":204479,"code":"B4KJ201801009-2728","latitude":"31.62547","longitude":"131.45286","source_code":"QS20078965550200040007","project_name":"\u9ad8\u934b\u5730\u533a\u5916\u5730\u8cea\u8abf\u67fb\u696d\u52d9","survey_name":"\u9ad8\u934b\u5730\u533a\u5916\u5730\u8cea\u8abf\u67fb\u696d\u52d9","client_name":"\u56fd\u571f\u4ea4\u901a\u7701\u4e5d\u5dde\u5730\u65b9\u6574\u5099\u5c40\u5bae\u5d0e\u6cb3\u5ddd\u56fd\u9053\u4e8b\u52d9\u6240","boring_xml_url":49,"boring_view_url":1,"soilmap_view_url":null,"soiltest_xml_url":52,"soiltest_view_url":52},{"id":204478,"code":"B4KJ201801009-2727","latitude":"32.13075","longitude":"131.52281","source_code":"QS20078965550200040006","project_name":"\u9ad8\u934b\u5730\u533a\u5916\u5730\u8cea\u8abf\u67fb\u696d\u52d9","survey_name":"\u9ad8\u934b\u5730\u533a\u5916\u5730\u8cea\u8abf\u67fb\u696d\u52d9","client_name":"\u56fd\u571f\u4ea4\u901a\u7701\u4e5d\u5dde\u5730\u65b9\u6574\u5099\u5c40\u5bae\u5d0e\u6cb3\u5ddd\u56fd\u9053\u4e8b\u52d9\u6240","boring_xml_url":49,"boring_view_url":1,"soilmap_view_url":null,"soiltest_xml_url":52,"soiltest_view_url":52},{"id":204477,"code":"B4KJ201801009-2726","latitude":"32.13122","longitude":"131.52333","source_code":"QS20078965550200040005","project_name":"\u9ad8\u934b\u5730\u533a\u5916\u5730\u8cea\u8abf\u67fb\u696d\u52d9","survey_name":"\u9ad8\u934b\u5730\u533a\u5916\u5730\u8cea\u8abf\u67fb\u696d\u52d9","client_name":"\u56fd\u571f\u4ea4\u901a\u7701\u4e5d\u5dde\u5730\u65b9\u6574\u5099\u5c40\u5bae\u5d0e\u6cb3\u5ddd\u56fd\u9053\u4e8b\u52d9\u6240","boring_xml_url":49,"boring_view_url":1,"soilmap_view_url":null,"soiltest_xml_url":52,"soiltest_view_url":52},{"id":204476,"code":"B4KJ201801009-2725","latitude":"32.13189","longitude":"131.52383","source_code":"QS20078965550200040004","project_name":"\u9ad8\u934b\u5730\u533a\u5916\u5730\u8cea\u8abf\u67fb\u696d\u52d9","survey_name":"\u9ad8\u934b\u5730\u533a\u5916\u5730\u8cea\u8abf\u67fb\u696d\u52d9","client_name":"\u56fd\u571f\u4ea4\u901a\u7701\u4e5d\u5dde\u5730\u65b9\u6574\u5099\u5c40\u5bae\u5d0e\u6cb3\u5ddd\u56fd\u9053\u4e8b\u52d9\u6240","boring_xml_url":49,"boring_view_url":1,"soilmap_view_url":null,"soiltest_xml_url":52,"soiltest_view_url":52}]}}