{"header":{"xyz":{"source":[],"mosaic":false},"page":3871,"raw":{"soiltest_result":"0","bbox":"57.598333,109.544722,1.933333,163.806111","page":"3871"},"conditions":{"soiltest_result":0,"north":57.598333,"west":109.544722,"south":1.933333,"east":163.806111},"success":true,"message":""},"data":{"meta":{"total":212844,"page":3871,"pages":7095,"count":30},"values":[{"id":204445,"code":"B4KJ201801009-2694","latitude":"33.28236","longitude":"131.09286","source_code":"QS20078960540200320003","project_name":"","survey_name":"\u5e73\u5ddd\u5730\u533a\u5730\u8cea\u8abf\u67fb\u696d\u52d9","client_name":"\u56fd\u571f\u4ea4\u901a\u7701\u4e5d\u5dde\u5730\u65b9\u6574\u5099\u5c40\u5927\u5206\u6cb3\u5ddd\u56fd\u9053\u4e8b\u52d9\u6240","boring_xml_url":49,"boring_view_url":1,"soilmap_view_url":null,"soiltest_xml_url":0,"soiltest_view_url":0},{"id":204444,"code":"B4KJ201801009-2693","latitude":"33.28242","longitude":"131.09547","source_code":"QS20078960540200320002","project_name":"","survey_name":"\u5e73\u5ddd\u5730\u533a\u5730\u8cea\u8abf\u67fb\u696d\u52d9","client_name":"\u56fd\u571f\u4ea4\u901a\u7701\u4e5d\u5dde\u5730\u65b9\u6574\u5099\u5c40\u5927\u5206\u6cb3\u5ddd\u56fd\u9053\u4e8b\u52d9\u6240","boring_xml_url":49,"boring_view_url":1,"soilmap_view_url":null,"soiltest_xml_url":0,"soiltest_view_url":0},{"id":204443,"code":"B4KJ201801009-2692","latitude":"33.2825","longitude":"131.09503","source_code":"QS20078960540200320001","project_name":"","survey_name":"\u5e73\u5ddd\u5730\u533a\u5730\u8cea\u8abf\u67fb\u696d\u52d9","client_name":"\u56fd\u571f\u4ea4\u901a\u7701\u4e5d\u5dde\u5730\u65b9\u6574\u5099\u5c40\u5927\u5206\u6cb3\u5ddd\u56fd\u9053\u4e8b\u52d9\u6240","boring_xml_url":49,"boring_view_url":1,"soilmap_view_url":null,"soiltest_xml_url":0,"soiltest_view_url":0},{"id":204442,"code":"B4KJ201801009-2691","latitude":"33.1797","longitude":"131.4175","source_code":"QS20078960540200300011","project_name":"\u9053\u8def\u9632\u707d\u70b9\u691c\u4e8b\u696d","survey_name":"\u6e6f\u5e03\u9662\u5730\u533a\u5916\u5730\u8cea\u8abf\u67fb\u696d\u52d9","client_name":"\u56fd\u571f\u4ea4\u901a\u7701\u4e5d\u5dde\u5730\u65b9\u6574\u5099\u5c40\u5927\u5206\u6cb3\u5ddd\u56fd\u9053\u4e8b\u52d9\u6240","boring_xml_url":49,"boring_view_url":1,"soilmap_view_url":null,"soiltest_xml_url":0,"soiltest_view_url":0},{"id":204441,"code":"B4KJ201801009-2690","latitude":"33.19767","longitude":"131.47172","source_code":"QS20078960540200300010","project_name":"\u9053\u8def\u9632\u707d\u70b9\u691c\u4e8b\u696d","survey_name":"\u6e6f\u5e03\u9662\u5730\u533a\u5916\u5730\u8cea\u8abf\u67fb\u696d\u52d9","client_name":"\u56fd\u571f\u4ea4\u901a\u7701\u4e5d\u5dde\u5730\u65b9\u6574\u5099\u5c40\u5927\u5206\u6cb3\u5ddd\u56fd\u9053\u4e8b\u52d9\u6240","boring_xml_url":49,"boring_view_url":1,"soilmap_view_url":null,"soiltest_xml_url":0,"soiltest_view_url":0},{"id":204440,"code":"B4KJ201801009-2689","latitude":"33.19758","longitude":"131.47169","source_code":"QS20078960540200300009","project_name":"\u9053\u8def\u9632\u707d\u70b9\u691c\u4e8b\u696d","survey_name":"\u6e6f\u5e03\u9662\u5730\u533a\u5916\u5730\u8cea\u8abf\u67fb\u696d\u52d9","client_name":"\u56fd\u571f\u4ea4\u901a\u7701\u4e5d\u5dde\u5730\u65b9\u6574\u5099\u5c40\u5927\u5206\u6cb3\u5ddd\u56fd\u9053\u4e8b\u52d9\u6240","boring_xml_url":49,"boring_view_url":1,"soilmap_view_url":null,"soiltest_xml_url":0,"soiltest_view_url":0},{"id":204439,"code":"B4KJ201801009-2688","latitude":"33.19489","longitude":"131.47175","source_code":"QS20078960540200300008","project_name":"\u9053\u8def\u9632\u707d\u70b9\u691c\u4e8b\u696d","survey_name":"\u6e6f\u5e03\u9662\u5730\u533a\u5916\u5730\u8cea\u8abf\u67fb\u696d\u52d9","client_name":"\u56fd\u571f\u4ea4\u901a\u7701\u4e5d\u5dde\u5730\u65b9\u6574\u5099\u5c40\u5927\u5206\u6cb3\u5ddd\u56fd\u9053\u4e8b\u52d9\u6240","boring_xml_url":49,"boring_view_url":1,"soilmap_view_url":null,"soiltest_xml_url":0,"soiltest_view_url":0},{"id":204438,"code":"B4KJ201801009-2687","latitude":"33.19486","longitude":"131.47164","source_code":"QS20078960540200300007","project_name":"\u9053\u8def\u9632\u707d\u70b9\u691c\u4e8b\u696d","survey_name":"\u6e6f\u5e03\u9662\u5730\u533a\u5916\u5730\u8cea\u8abf\u67fb\u696d\u52d9","client_name":"\u56fd\u571f\u4ea4\u901a\u7701\u4e5d\u5dde\u5730\u65b9\u6574\u5099\u5c40\u5927\u5206\u6cb3\u5ddd\u56fd\u9053\u4e8b\u52d9\u6240","boring_xml_url":49,"boring_view_url":1,"soilmap_view_url":null,"soiltest_xml_url":0,"soiltest_view_url":0},{"id":204437,"code":"B4KJ201801009-2686","latitude":"33.18422","longitude":"131.45403","source_code":"QS20078960540200300006","project_name":"\u9053\u8def\u9632\u707d\u70b9\u691c\u4e8b\u696d","survey_name":"\u6e6f\u5e03\u9662\u5730\u533a\u5916\u5730\u8cea\u8abf\u67fb\u696d\u52d9","client_name":"\u56fd\u571f\u4ea4\u901a\u7701\u4e5d\u5dde\u5730\u65b9\u6574\u5099\u5c40\u5927\u5206\u6cb3\u5ddd\u56fd\u9053\u4e8b\u52d9\u6240","boring_xml_url":49,"boring_view_url":1,"soilmap_view_url":null,"soiltest_xml_url":0,"soiltest_view_url":0},{"id":204436,"code":"B4KJ201801009-2685","latitude":"33.18397","longitude":"131.45453","source_code":"QS20078960540200300005","project_name":"\u9053\u8def\u9632\u707d\u70b9\u691c\u4e8b\u696d","survey_name":"\u6e6f\u5e03\u9662\u5730\u533a\u5916\u5730\u8cea\u8abf\u67fb\u696d\u52d9","client_name":"\u56fd\u571f\u4ea4\u901a\u7701\u4e5d\u5dde\u5730\u65b9\u6574\u5099\u5c40\u5927\u5206\u6cb3\u5ddd\u56fd\u9053\u4e8b\u52d9\u6240","boring_xml_url":49,"boring_view_url":1,"soilmap_view_url":null,"soiltest_xml_url":0,"soiltest_view_url":0},{"id":204435,"code":"B4KJ201801009-2684","latitude":"33.2047","longitude":"131.3447","source_code":"QS20078960540200300004","project_name":"\u9053\u8def\u9632\u707d\u70b9\u691c\u4e8b\u696d","survey_name":"\u6e6f\u5e03\u9662\u5730\u533a\u5916\u5730\u8cea\u8abf\u67fb\u696d\u52d9","client_name":"\u56fd\u571f\u4ea4\u901a\u7701\u4e5d\u5dde\u5730\u65b9\u6574\u5099\u5c40\u5927\u5206\u6cb3\u5ddd\u56fd\u9053\u4e8b\u52d9\u6240","boring_xml_url":49,"boring_view_url":1,"soilmap_view_url":null,"soiltest_xml_url":0,"soiltest_view_url":0},{"id":204434,"code":"B4KJ201801009-2683","latitude":"33.2044","longitude":"131.3439","source_code":"QS20078960540200300003","project_name":"\u9053\u8def\u9632\u707d\u70b9\u691c\u4e8b\u696d","survey_name":"\u6e6f\u5e03\u9662\u5730\u533a\u5916\u5730\u8cea\u8abf\u67fb\u696d\u52d9","client_name":"\u56fd\u571f\u4ea4\u901a\u7701\u4e5d\u5dde\u5730\u65b9\u6574\u5099\u5c40\u5927\u5206\u6cb3\u5ddd\u56fd\u9053\u4e8b\u52d9\u6240","boring_xml_url":49,"boring_view_url":1,"soilmap_view_url":null,"soiltest_xml_url":0,"soiltest_view_url":0},{"id":204433,"code":"B4KJ201801009-2682","latitude":"33.2047","longitude":"131.3442","source_code":"QS20078960540200300002","project_name":"\u9053\u8def\u9632\u707d\u70b9\u691c\u4e8b\u696d","survey_name":"\u6e6f\u5e03\u9662\u5730\u533a\u5916\u5730\u8cea\u8abf\u67fb\u696d\u52d9","client_name":"\u56fd\u571f\u4ea4\u901a\u7701\u4e5d\u5dde\u5730\u65b9\u6574\u5099\u5c40\u5927\u5206\u6cb3\u5ddd\u56fd\u9053\u4e8b\u52d9\u6240","boring_xml_url":49,"boring_view_url":1,"soilmap_view_url":null,"soiltest_xml_url":0,"soiltest_view_url":0},{"id":204432,"code":"B4KJ201801009-2681","latitude":"33.2047","longitude":"131.3444","source_code":"QS20078960540200300001","project_name":"\u9053\u8def\u9632\u707d\u70b9\u691c\u4e8b\u696d","survey_name":"\u6e6f\u5e03\u9662\u5730\u533a\u5916\u5730\u8cea\u8abf\u67fb\u696d\u52d9","client_name":"\u56fd\u571f\u4ea4\u901a\u7701\u4e5d\u5dde\u5730\u65b9\u6574\u5099\u5c40\u5927\u5206\u6cb3\u5ddd\u56fd\u9053\u4e8b\u52d9\u6240","boring_xml_url":49,"boring_view_url":1,"soilmap_view_url":null,"soiltest_xml_url":0,"soiltest_view_url":0},{"id":204431,"code":"B4KJ201801009-2680","latitude":"33.014828","longitude":"131.402928","source_code":"QS20078960410200430014","project_name":"\u5927\u520657\u53f7\u5927\u91ce\u7af9\u7530\u9053\u8def(\u671d\u5730\u7af9\u7530\u9593)\u69cb\u9020\u7269\u5730\u8cea\u8abf\u67fb\u696d\u52d9","survey_name":"\u5927\u520657\u53f7\u5927\u91ce\u7af9\u7530\u9053\u8def(\u671d\u5730\u7af9\u7530\u9593)\u69cb\u9020\u7269\u5730\u8cea\u8abf\u67fb\u696d\u52d9","client_name":"\u56fd\u571f\u4ea4\u901a\u7701\u4e5d\u5dde\u5730\u65b9\u6574\u5099\u5c40\u5927\u5206\u6cb3\u5ddd\u56fd\u9053\u4e8b\u52d9\u6240","boring_xml_url":49,"boring_view_url":1,"soilmap_view_url":null,"soiltest_xml_url":0,"soiltest_view_url":0},{"id":204430,"code":"B4KJ201801009-2679","latitude":"32.994578","longitude":"131.419778","source_code":"QS20078960410200430013","project_name":"\u5927\u520657\u53f7\u5927\u91ce\u7af9\u7530\u9053\u8def(\u671d\u5730\u7af9\u7530\u9593)\u69cb\u9020\u7269\u5730\u8cea\u8abf\u67fb\u696d\u52d9","survey_name":"\u5927\u520657\u53f7\u5927\u91ce\u7af9\u7530\u9053\u8def(\u671d\u5730\u7af9\u7530\u9593)\u69cb\u9020\u7269\u5730\u8cea\u8abf\u67fb\u696d\u52d9","client_name":"\u56fd\u571f\u4ea4\u901a\u7701\u4e5d\u5dde\u5730\u65b9\u6574\u5099\u5c40\u5927\u5206\u6cb3\u5ddd\u56fd\u9053\u4e8b\u52d9\u6240","boring_xml_url":49,"boring_view_url":1,"soilmap_view_url":null,"soiltest_xml_url":0,"soiltest_view_url":0},{"id":204429,"code":"B4KJ201801009-2678","latitude":"32.99439","longitude":"131.41994","source_code":"QS20078960410200430012","project_name":"\u5927\u520657\u53f7\u5927\u91ce\u7af9\u7530\u9053\u8def(\u671d\u5730\u7af9\u7530\u9593)\u69cb\u9020\u7269\u5730\u8cea\u8abf\u67fb\u696d\u52d9","survey_name":"\u5927\u520657\u53f7\u5927\u91ce\u7af9\u7530\u9053\u8def(\u671d\u5730\u7af9\u7530\u9593)\u69cb\u9020\u7269\u5730\u8cea\u8abf\u67fb\u696d\u52d9","client_name":"\u56fd\u571f\u4ea4\u901a\u7701\u4e5d\u5dde\u5730\u65b9\u6574\u5099\u5c40\u5927\u5206\u6cb3\u5ddd\u56fd\u9053\u4e8b\u52d9\u6240","boring_xml_url":49,"boring_view_url":1,"soilmap_view_url":null,"soiltest_xml_url":0,"soiltest_view_url":0},{"id":204428,"code":"B4KJ201801009-2677","latitude":"32.995389","longitude":"131.421272","source_code":"QS20078960410200430011","project_name":"\u5927\u520657\u53f7\u5927\u91ce\u7af9\u7530\u9053\u8def(\u671d\u5730\u7af9\u7530\u9593)\u69cb\u9020\u7269\u5730\u8cea\u8abf\u67fb\u696d\u52d9","survey_name":"\u5927\u520657\u53f7\u5927\u91ce\u7af9\u7530\u9053\u8def(\u671d\u5730\u7af9\u7530\u9593)\u69cb\u9020\u7269\u5730\u8cea\u8abf\u67fb\u696d\u52d9","client_name":"\u56fd\u571f\u4ea4\u901a\u7701\u4e5d\u5dde\u5730\u65b9\u6574\u5099\u5c40\u5927\u5206\u6cb3\u5ddd\u56fd\u9053\u4e8b\u52d9\u6240","boring_xml_url":49,"boring_view_url":1,"soilmap_view_url":null,"soiltest_xml_url":0,"soiltest_view_url":0},{"id":204427,"code":"B4KJ201801009-2676","latitude":"32.999886","longitude":"131.439575","source_code":"QS20078960410200430010","project_name":"\u5927\u520657\u53f7\u5927\u91ce\u7af9\u7530\u9053\u8def(\u671d\u5730\u7af9\u7530\u9593)\u69cb\u9020\u7269\u5730\u8cea\u8abf\u67fb\u696d\u52d9","survey_name":"\u5927\u520657\u53f7\u5927\u91ce\u7af9\u7530\u9053\u8def(\u671d\u5730\u7af9\u7530\u9593)\u69cb\u9020\u7269\u5730\u8cea\u8abf\u67fb\u696d\u52d9","client_name":"\u56fd\u571f\u4ea4\u901a\u7701\u4e5d\u5dde\u5730\u65b9\u6574\u5099\u5c40\u5927\u5206\u6cb3\u5ddd\u56fd\u9053\u4e8b\u52d9\u6240","boring_xml_url":49,"boring_view_url":1,"soilmap_view_url":null,"soiltest_xml_url":0,"soiltest_view_url":0},{"id":204426,"code":"B4KJ201801009-2675","latitude":"32.999886","longitude":"131.439575","source_code":"QS20078960410200430009","project_name":"\u5927\u520657\u53f7\u5927\u91ce\u7af9\u7530\u9053\u8def(\u671d\u5730\u7af9\u7530\u9593)\u69cb\u9020\u7269\u5730\u8cea\u8abf\u67fb\u696d\u52d9","survey_name":"\u5927\u520657\u53f7\u5927\u91ce\u7af9\u7530\u9053\u8def(\u671d\u5730\u7af9\u7530\u9593)\u69cb\u9020\u7269\u5730\u8cea\u8abf\u67fb\u696d\u52d9","client_name":"\u56fd\u571f\u4ea4\u901a\u7701\u4e5d\u5dde\u5730\u65b9\u6574\u5099\u5c40\u5927\u5206\u6cb3\u5ddd\u56fd\u9053\u4e8b\u52d9\u6240","boring_xml_url":49,"boring_view_url":1,"soilmap_view_url":null,"soiltest_xml_url":0,"soiltest_view_url":0},{"id":204425,"code":"B4KJ201801009-2674","latitude":"32.9995","longitude":"131.439692","source_code":"QS20078960410200430008","project_name":"\u5927\u520657\u53f7\u5927\u91ce\u7af9\u7530\u9053\u8def(\u671d\u5730\u7af9\u7530\u9593)\u69cb\u9020\u7269\u5730\u8cea\u8abf\u67fb\u696d\u52d9","survey_name":"\u5927\u520657\u53f7\u5927\u91ce\u7af9\u7530\u9053\u8def(\u671d\u5730\u7af9\u7530\u9593)\u69cb\u9020\u7269\u5730\u8cea\u8abf\u67fb\u696d\u52d9","client_name":"\u56fd\u571f\u4ea4\u901a\u7701\u4e5d\u5dde\u5730\u65b9\u6574\u5099\u5c40\u5927\u5206\u6cb3\u5ddd\u56fd\u9053\u4e8b\u52d9\u6240","boring_xml_url":49,"boring_view_url":1,"soilmap_view_url":null,"soiltest_xml_url":0,"soiltest_view_url":0},{"id":204424,"code":"B4KJ201801009-2673","latitude":"33.001342","longitude":"131.442072","source_code":"QS20078960410200430007","project_name":"\u5927\u520657\u53f7\u5927\u91ce\u7af9\u7530\u9053\u8def(\u671d\u5730\u7af9\u7530\u9593)\u69cb\u9020\u7269\u5730\u8cea\u8abf\u67fb\u696d\u52d9","survey_name":"\u5927\u520657\u53f7\u5927\u91ce\u7af9\u7530\u9053\u8def(\u671d\u5730\u7af9\u7530\u9593)\u69cb\u9020\u7269\u5730\u8cea\u8abf\u67fb\u696d\u52d9","client_name":"\u56fd\u571f\u4ea4\u901a\u7701\u4e5d\u5dde\u5730\u65b9\u6574\u5099\u5c40\u5927\u5206\u6cb3\u5ddd\u56fd\u9053\u4e8b\u52d9\u6240","boring_xml_url":49,"boring_view_url":1,"soilmap_view_url":null,"soiltest_xml_url":0,"soiltest_view_url":0},{"id":204423,"code":"B4KJ201801009-2672","latitude":"33.000928","longitude":"131.442397","source_code":"QS20078960410200430006","project_name":"\u5927\u520657\u53f7\u5927\u91ce\u7af9\u7530\u9053\u8def(\u671d\u5730\u7af9\u7530\u9593)\u69cb\u9020\u7269\u5730\u8cea\u8abf\u67fb\u696d\u52d9","survey_name":"\u5927\u520657\u53f7\u5927\u91ce\u7af9\u7530\u9053\u8def(\u671d\u5730\u7af9\u7530\u9593)\u69cb\u9020\u7269\u5730\u8cea\u8abf\u67fb\u696d\u52d9","client_name":"\u56fd\u571f\u4ea4\u901a\u7701\u4e5d\u5dde\u5730\u65b9\u6574\u5099\u5c40\u5927\u5206\u6cb3\u5ddd\u56fd\u9053\u4e8b\u52d9\u6240","boring_xml_url":49,"boring_view_url":1,"soilmap_view_url":null,"soiltest_xml_url":0,"soiltest_view_url":0},{"id":204422,"code":"B4KJ201801009-2671","latitude":"33.004722","longitude":"131.45305","source_code":"QS20078960410200430005","project_name":"\u5927\u520657\u53f7\u5927\u91ce\u7af9\u7530\u9053\u8def(\u671d\u5730\u7af9\u7530\u9593)\u69cb\u9020\u7269\u5730\u8cea\u8abf\u67fb\u696d\u52d9","survey_name":"\u5927\u520657\u53f7\u5927\u91ce\u7af9\u7530\u9053\u8def(\u671d\u5730\u7af9\u7530\u9593)\u69cb\u9020\u7269\u5730\u8cea\u8abf\u67fb\u696d\u52d9","client_name":"\u56fd\u571f\u4ea4\u901a\u7701\u4e5d\u5dde\u5730\u65b9\u6574\u5099\u5c40\u5927\u5206\u6cb3\u5ddd\u56fd\u9053\u4e8b\u52d9\u6240","boring_xml_url":49,"boring_view_url":1,"soilmap_view_url":null,"soiltest_xml_url":0,"soiltest_view_url":0},{"id":204421,"code":"B4KJ201801009-2670","latitude":"33.004614","longitude":"131.452922","source_code":"QS20078960410200430004","project_name":"\u5927\u520657\u53f7\u5927\u91ce\u7af9\u7530\u9053\u8def(\u671d\u5730\u7af9\u7530\u9593)\u69cb\u9020\u7269\u5730\u8cea\u8abf\u67fb\u696d\u52d9","survey_name":"\u5927\u520657\u53f7\u5927\u91ce\u7af9\u7530\u9053\u8def(\u671d\u5730\u7af9\u7530\u9593)\u69cb\u9020\u7269\u5730\u8cea\u8abf\u67fb\u696d\u52d9","client_name":"\u56fd\u571f\u4ea4\u901a\u7701\u4e5d\u5dde\u5730\u65b9\u6574\u5099\u5c40\u5927\u5206\u6cb3\u5ddd\u56fd\u9053\u4e8b\u52d9\u6240","boring_xml_url":49,"boring_view_url":1,"soilmap_view_url":null,"soiltest_xml_url":0,"soiltest_view_url":0},{"id":204420,"code":"B4KJ201801009-2669","latitude":"33.004506","longitude":"131.452794","source_code":"QS20078960410200430003","project_name":"\u5927\u520657\u53f7\u5927\u91ce\u7af9\u7530\u9053\u8def(\u671d\u5730\u7af9\u7530\u9593)\u69cb\u9020\u7269\u5730\u8cea\u8abf\u67fb\u696d\u52d9","survey_name":"\u5927\u520657\u53f7\u5927\u91ce\u7af9\u7530\u9053\u8def(\u671d\u5730\u7af9\u7530\u9593)\u69cb\u9020\u7269\u5730\u8cea\u8abf\u67fb\u696d\u52d9","client_name":"\u56fd\u571f\u4ea4\u901a\u7701\u4e5d\u5dde\u5730\u65b9\u6574\u5099\u5c40\u5927\u5206\u6cb3\u5ddd\u56fd\u9053\u4e8b\u52d9\u6240","boring_xml_url":49,"boring_view_url":1,"soilmap_view_url":null,"soiltest_xml_url":0,"soiltest_view_url":0},{"id":204419,"code":"B4KJ201801009-2668","latitude":"33.01865","longitude":"131.466867","source_code":"QS20078960410200430002","project_name":"\u5927\u520657\u53f7\u5927\u91ce\u7af9\u7530\u9053\u8def(\u671d\u5730\u7af9\u7530\u9593)\u69cb\u9020\u7269\u5730\u8cea\u8abf\u67fb\u696d\u52d9","survey_name":"\u5927\u520657\u53f7\u5927\u91ce\u7af9\u7530\u9053\u8def(\u671d\u5730\u7af9\u7530\u9593)\u69cb\u9020\u7269\u5730\u8cea\u8abf\u67fb\u696d\u52d9","client_name":"\u56fd\u571f\u4ea4\u901a\u7701\u4e5d\u5dde\u5730\u65b9\u6574\u5099\u5c40\u5927\u5206\u6cb3\u5ddd\u56fd\u9053\u4e8b\u52d9\u6240","boring_xml_url":49,"boring_view_url":1,"soilmap_view_url":null,"soiltest_xml_url":0,"soiltest_view_url":0},{"id":204418,"code":"B4KJ201801009-2667","latitude":"33.018297","longitude":"131.467256","source_code":"QS20078960410200430001","project_name":"\u5927\u520657\u53f7\u5927\u91ce\u7af9\u7530\u9053\u8def(\u671d\u5730\u7af9\u7530\u9593)\u69cb\u9020\u7269\u5730\u8cea\u8abf\u67fb\u696d\u52d9","survey_name":"\u5927\u520657\u53f7\u5927\u91ce\u7af9\u7530\u9053\u8def(\u671d\u5730\u7af9\u7530\u9593)\u69cb\u9020\u7269\u5730\u8cea\u8abf\u67fb\u696d\u52d9","client_name":"\u56fd\u571f\u4ea4\u901a\u7701\u4e5d\u5dde\u5730\u65b9\u6574\u5099\u5c40\u5927\u5206\u6cb3\u5ddd\u56fd\u9053\u4e8b\u52d9\u6240","boring_xml_url":49,"boring_view_url":1,"soilmap_view_url":null,"soiltest_xml_url":0,"soiltest_view_url":0},{"id":204417,"code":"B4KJ201801009-2666","latitude":"33.02603","longitude":"131.47794","source_code":"QS20078960410200420014","project_name":"\u5927\u520657\u53f7\u5927\u91ce\u7af9\u7530\u9053\u8def(\u5927\u91ce\u671d\u5730\u9593)\u69cb\u9020\u7269\u5730\u8cea\u8abf\u67fb\u696d\u52d9","survey_name":"\u5927\u520657\u53f7\u5927\u91ce\u7af9\u7530\u9053\u8def(\u5927\u91ce\u671d\u5730\u9593)\u69cb\u9020\u7269\u5730\u8cea\u8abf\u67fb\u696d\u52d9","client_name":"\u56fd\u571f\u4ea4\u901a\u7701\u4e5d\u5dde\u5730\u65b9\u6574\u5099\u5c40\u5927\u5206\u6cb3\u5ddd\u56fd\u9053\u4e8b\u52d9\u6240","boring_xml_url":49,"boring_view_url":1,"soilmap_view_url":null,"soiltest_xml_url":0,"soiltest_view_url":0},{"id":204416,"code":"B4KJ201801009-2665","latitude":"33.02581","longitude":"131.47833","source_code":"QS20078960410200420013","project_name":"\u5927\u520657\u53f7\u5927\u91ce\u7af9\u7530\u9053\u8def(\u5927\u91ce\u671d\u5730\u9593)\u69cb\u9020\u7269\u5730\u8cea\u8abf\u67fb\u696d\u52d9","survey_name":"\u5927\u520657\u53f7\u5927\u91ce\u7af9\u7530\u9053\u8def(\u5927\u91ce\u671d\u5730\u9593)\u69cb\u9020\u7269\u5730\u8cea\u8abf\u67fb\u696d\u52d9","client_name":"\u56fd\u571f\u4ea4\u901a\u7701\u4e5d\u5dde\u5730\u65b9\u6574\u5099\u5c40\u5927\u5206\u6cb3\u5ddd\u56fd\u9053\u4e8b\u52d9\u6240","boring_xml_url":49,"boring_view_url":1,"soilmap_view_url":null,"soiltest_xml_url":0,"soiltest_view_url":0}]}}