{"header":{"xyz":{"source":[],"mosaic":false},"page":3880,"raw":{"soiltest_result":"0","bbox":"57.598333,109.544722,1.933333,163.806111","page":"3880"},"conditions":{"soiltest_result":0,"north":57.598333,"west":109.544722,"south":1.933333,"east":163.806111},"success":true,"message":""},"data":{"meta":{"total":212844,"page":3880,"pages":7095,"count":30},"values":[{"id":204175,"code":"B4KJ201801009-2424","latitude":"33.32604094","longitude":"129.9273317","source_code":"QS20078938400200400018","project_name":"","survey_name":"\u4f50\u8cc0497\u53f7\u5357\u6ce2\u591a\u5730\u533a\u5730\u8cea\u8abf\u67fb\u696d\u52d9","client_name":"\u56fd\u571f\u4ea4\u901a\u7701\u4e5d\u5dde\u5730\u65b9\u6574\u5099\u5c40\u4f50\u8cc0\u56fd\u9053\u4e8b\u52d9\u6240","boring_xml_url":49,"boring_view_url":1,"soilmap_view_url":null,"soiltest_xml_url":0,"soiltest_view_url":0},{"id":204174,"code":"B4KJ201801009-2423","latitude":"33.32599933","longitude":"129.9274322","source_code":"QS20078938400200400017","project_name":"","survey_name":"\u4f50\u8cc0497\u53f7\u5357\u6ce2\u591a\u5730\u533a\u5730\u8cea\u8abf\u67fb\u696d\u52d9","client_name":"\u56fd\u571f\u4ea4\u901a\u7701\u4e5d\u5dde\u5730\u65b9\u6574\u5099\u5c40\u4f50\u8cc0\u56fd\u9053\u4e8b\u52d9\u6240","boring_xml_url":49,"boring_view_url":1,"soilmap_view_url":null,"soiltest_xml_url":0,"soiltest_view_url":0},{"id":204173,"code":"B4KJ201801009-2422","latitude":"33.32676678","longitude":"129.9275778","source_code":"QS20078938400200400016","project_name":"","survey_name":"\u4f50\u8cc0497\u53f7\u5357\u6ce2\u591a\u5730\u533a\u5730\u8cea\u8abf\u67fb\u696d\u52d9","client_name":"\u56fd\u571f\u4ea4\u901a\u7701\u4e5d\u5dde\u5730\u65b9\u6574\u5099\u5c40\u4f50\u8cc0\u56fd\u9053\u4e8b\u52d9\u6240","boring_xml_url":49,"boring_view_url":1,"soilmap_view_url":null,"soiltest_xml_url":0,"soiltest_view_url":0},{"id":204172,"code":"B4KJ201801009-2421","latitude":"33.32676678","longitude":"129.9275778","source_code":"QS20078938400200400015","project_name":"","survey_name":"\u4f50\u8cc0497\u53f7\u5357\u6ce2\u591a\u5730\u533a\u5730\u8cea\u8abf\u67fb\u696d\u52d9","client_name":"\u56fd\u571f\u4ea4\u901a\u7701\u4e5d\u5dde\u5730\u65b9\u6574\u5099\u5c40\u4f50\u8cc0\u56fd\u9053\u4e8b\u52d9\u6240","boring_xml_url":49,"boring_view_url":1,"soilmap_view_url":null,"soiltest_xml_url":0,"soiltest_view_url":0},{"id":204171,"code":"B4KJ201801009-2420","latitude":"33.3275455","longitude":"129.9277061","source_code":"QS20078938400200400014","project_name":"","survey_name":"\u4f50\u8cc0497\u53f7\u5357\u6ce2\u591a\u5730\u533a\u5730\u8cea\u8abf\u67fb\u696d\u52d9","client_name":"\u56fd\u571f\u4ea4\u901a\u7701\u4e5d\u5dde\u5730\u65b9\u6574\u5099\u5c40\u4f50\u8cc0\u56fd\u9053\u4e8b\u52d9\u6240","boring_xml_url":49,"boring_view_url":1,"soilmap_view_url":null,"soiltest_xml_url":0,"soiltest_view_url":0},{"id":204170,"code":"B4KJ201801009-2419","latitude":"33.32758394","longitude":"129.9276025","source_code":"QS20078938400200400013","project_name":"","survey_name":"\u4f50\u8cc0497\u53f7\u5357\u6ce2\u591a\u5730\u533a\u5730\u8cea\u8abf\u67fb\u696d\u52d9","client_name":"\u56fd\u571f\u4ea4\u901a\u7701\u4e5d\u5dde\u5730\u65b9\u6574\u5099\u5c40\u4f50\u8cc0\u56fd\u9053\u4e8b\u52d9\u6240","boring_xml_url":49,"boring_view_url":1,"soilmap_view_url":null,"soiltest_xml_url":0,"soiltest_view_url":0},{"id":204169,"code":"B4KJ201801009-2418","latitude":"33.33681394","longitude":"129.92535","source_code":"QS20078938400200400012","project_name":"","survey_name":"\u4f50\u8cc0497\u53f7\u5357\u6ce2\u591a\u5730\u533a\u5730\u8cea\u8abf\u67fb\u696d\u52d9","client_name":"\u56fd\u571f\u4ea4\u901a\u7701\u4e5d\u5dde\u5730\u65b9\u6574\u5099\u5c40\u4f50\u8cc0\u56fd\u9053\u4e8b\u52d9\u6240","boring_xml_url":49,"boring_view_url":1,"soilmap_view_url":null,"soiltest_xml_url":0,"soiltest_view_url":0},{"id":204168,"code":"B4KJ201801009-2417","latitude":"33.33697569","longitude":"129.9250178","source_code":"QS20078938400200400011","project_name":"","survey_name":"\u4f50\u8cc0497\u53f7\u5357\u6ce2\u591a\u5730\u533a\u5730\u8cea\u8abf\u67fb\u696d\u52d9","client_name":"\u56fd\u571f\u4ea4\u901a\u7701\u4e5d\u5dde\u5730\u65b9\u6574\u5099\u5c40\u4f50\u8cc0\u56fd\u9053\u4e8b\u52d9\u6240","boring_xml_url":49,"boring_view_url":1,"soilmap_view_url":null,"soiltest_xml_url":0,"soiltest_view_url":0},{"id":204167,"code":"B4KJ201801009-2416","latitude":"33.33734114","longitude":"129.9247622","source_code":"QS20078938400200400010","project_name":"","survey_name":"\u4f50\u8cc0497\u53f7\u5357\u6ce2\u591a\u5730\u533a\u5730\u8cea\u8abf\u67fb\u696d\u52d9","client_name":"\u56fd\u571f\u4ea4\u901a\u7701\u4e5d\u5dde\u5730\u65b9\u6574\u5099\u5c40\u4f50\u8cc0\u56fd\u9053\u4e8b\u52d9\u6240","boring_xml_url":49,"boring_view_url":1,"soilmap_view_url":null,"soiltest_xml_url":0,"soiltest_view_url":0},{"id":204166,"code":"B4KJ201801009-2415","latitude":"33.33768481","longitude":"129.9245233","source_code":"QS20078938400200400009","project_name":"","survey_name":"\u4f50\u8cc0497\u53f7\u5357\u6ce2\u591a\u5730\u533a\u5730\u8cea\u8abf\u67fb\u696d\u52d9","client_name":"\u56fd\u571f\u4ea4\u901a\u7701\u4e5d\u5dde\u5730\u65b9\u6574\u5099\u5c40\u4f50\u8cc0\u56fd\u9053\u4e8b\u52d9\u6240","boring_xml_url":49,"boring_view_url":1,"soilmap_view_url":null,"soiltest_xml_url":0,"soiltest_view_url":0},{"id":204165,"code":"B4KJ201801009-2414","latitude":"33.33801469","longitude":"129.924325","source_code":"QS20078938400200400008","project_name":"","survey_name":"\u4f50\u8cc0497\u53f7\u5357\u6ce2\u591a\u5730\u533a\u5730\u8cea\u8abf\u67fb\u696d\u52d9","client_name":"\u56fd\u571f\u4ea4\u901a\u7701\u4e5d\u5dde\u5730\u65b9\u6574\u5099\u5c40\u4f50\u8cc0\u56fd\u9053\u4e8b\u52d9\u6240","boring_xml_url":49,"boring_view_url":1,"soilmap_view_url":null,"soiltest_xml_url":0,"soiltest_view_url":0},{"id":204164,"code":"B4KJ201801009-2413","latitude":"33.33835075","longitude":"129.9241694","source_code":"QS20078938400200400007","project_name":"","survey_name":"\u4f50\u8cc0497\u53f7\u5357\u6ce2\u591a\u5730\u533a\u5730\u8cea\u8abf\u67fb\u696d\u52d9","client_name":"\u56fd\u571f\u4ea4\u901a\u7701\u4e5d\u5dde\u5730\u65b9\u6574\u5099\u5c40\u4f50\u8cc0\u56fd\u9053\u4e8b\u52d9\u6240","boring_xml_url":49,"boring_view_url":1,"soilmap_view_url":null,"soiltest_xml_url":0,"soiltest_view_url":0},{"id":204163,"code":"B4KJ201801009-2412","latitude":"33.33862617","longitude":"129.9241467","source_code":"QS20078938400200400006","project_name":"","survey_name":"\u4f50\u8cc0497\u53f7\u5357\u6ce2\u591a\u5730\u533a\u5730\u8cea\u8abf\u67fb\u696d\u52d9","client_name":"\u56fd\u571f\u4ea4\u901a\u7701\u4e5d\u5dde\u5730\u65b9\u6574\u5099\u5c40\u4f50\u8cc0\u56fd\u9053\u4e8b\u52d9\u6240","boring_xml_url":49,"boring_view_url":1,"soilmap_view_url":null,"soiltest_xml_url":0,"soiltest_view_url":0},{"id":204162,"code":"B4KJ201801009-2411","latitude":"33.33910903","longitude":"129.9239331","source_code":"QS20078938400200400005","project_name":"","survey_name":"\u4f50\u8cc0497\u53f7\u5357\u6ce2\u591a\u5730\u533a\u5730\u8cea\u8abf\u67fb\u696d\u52d9","client_name":"\u56fd\u571f\u4ea4\u901a\u7701\u4e5d\u5dde\u5730\u65b9\u6574\u5099\u5c40\u4f50\u8cc0\u56fd\u9053\u4e8b\u52d9\u6240","boring_xml_url":49,"boring_view_url":1,"soilmap_view_url":null,"soiltest_xml_url":0,"soiltest_view_url":0},{"id":204161,"code":"B4KJ201801009-2410","latitude":"33.33946617","longitude":"129.9238419","source_code":"QS20078938400200400004","project_name":"","survey_name":"\u4f50\u8cc0497\u53f7\u5357\u6ce2\u591a\u5730\u533a\u5730\u8cea\u8abf\u67fb\u696d\u52d9","client_name":"\u56fd\u571f\u4ea4\u901a\u7701\u4e5d\u5dde\u5730\u65b9\u6574\u5099\u5c40\u4f50\u8cc0\u56fd\u9053\u4e8b\u52d9\u6240","boring_xml_url":49,"boring_view_url":1,"soilmap_view_url":null,"soiltest_xml_url":0,"soiltest_view_url":0},{"id":204160,"code":"B4KJ201801009-2409","latitude":"33.32196275","longitude":"129.9255525","source_code":"QS20078938400200400003","project_name":"","survey_name":"\u4f50\u8cc0497\u53f7\u5357\u6ce2\u591a\u5730\u533a\u5730\u8cea\u8abf\u67fb\u696d\u52d9","client_name":"\u56fd\u571f\u4ea4\u901a\u7701\u4e5d\u5dde\u5730\u65b9\u6574\u5099\u5c40\u4f50\u8cc0\u56fd\u9053\u4e8b\u52d9\u6240","boring_xml_url":49,"boring_view_url":1,"soilmap_view_url":null,"soiltest_xml_url":0,"soiltest_view_url":0},{"id":204159,"code":"B4KJ201801009-2408","latitude":"33.322466","longitude":"129.9253575","source_code":"QS20078938400200400002","project_name":"","survey_name":"\u4f50\u8cc0497\u53f7\u5357\u6ce2\u591a\u5730\u533a\u5730\u8cea\u8abf\u67fb\u696d\u52d9","client_name":"\u56fd\u571f\u4ea4\u901a\u7701\u4e5d\u5dde\u5730\u65b9\u6574\u5099\u5c40\u4f50\u8cc0\u56fd\u9053\u4e8b\u52d9\u6240","boring_xml_url":49,"boring_view_url":1,"soilmap_view_url":null,"soiltest_xml_url":0,"soiltest_view_url":0},{"id":204158,"code":"B4KJ201801009-2407","latitude":"33.32265625","longitude":"129.9243594","source_code":"QS20078938400200400001","project_name":"","survey_name":"\u4f50\u8cc0497\u53f7\u5357\u6ce2\u591a\u5730\u533a\u5730\u8cea\u8abf\u67fb\u696d\u52d9","client_name":"\u56fd\u571f\u4ea4\u901a\u7701\u4e5d\u5dde\u5730\u65b9\u6574\u5099\u5c40\u4f50\u8cc0\u56fd\u9053\u4e8b\u52d9\u6240","boring_xml_url":49,"boring_view_url":1,"soilmap_view_url":null,"soiltest_xml_url":0,"soiltest_view_url":0},{"id":204157,"code":"B4KJ201801009-2406","latitude":"33.31297","longitude":"129.91864","source_code":"QS20078938400200390025","project_name":"","survey_name":"\u4f50\u8cc0497\u53f7 \u4f0a\u4e07\u91cc\u6771\u5730\u533a\u5730\u8cea\u8abf\u67fb\u696d\u52d9","client_name":"\u56fd\u571f\u4ea4\u901a\u7701\u4e5d\u5dde\u5730\u65b9\u6574\u5099\u5c40\u4f50\u8cc0\u56fd\u9053\u4e8b\u52d9\u6240","boring_xml_url":49,"boring_view_url":1,"soilmap_view_url":null,"soiltest_xml_url":0,"soiltest_view_url":0},{"id":204156,"code":"B4KJ201801009-2405","latitude":"33.31286","longitude":"129.91886","source_code":"QS20078938400200390024","project_name":"","survey_name":"\u4f50\u8cc0497\u53f7 \u4f0a\u4e07\u91cc\u6771\u5730\u533a\u5730\u8cea\u8abf\u67fb\u696d\u52d9","client_name":"\u56fd\u571f\u4ea4\u901a\u7701\u4e5d\u5dde\u5730\u65b9\u6574\u5099\u5c40\u4f50\u8cc0\u56fd\u9053\u4e8b\u52d9\u6240","boring_xml_url":49,"boring_view_url":1,"soilmap_view_url":null,"soiltest_xml_url":0,"soiltest_view_url":0},{"id":204155,"code":"B4KJ201801009-2404","latitude":"33.31264","longitude":"129.91869","source_code":"QS20078938400200390023","project_name":"","survey_name":"\u4f50\u8cc0497\u53f7 \u4f0a\u4e07\u91cc\u6771\u5730\u533a\u5730\u8cea\u8abf\u67fb\u696d\u52d9","client_name":"\u56fd\u571f\u4ea4\u901a\u7701\u4e5d\u5dde\u5730\u65b9\u6574\u5099\u5c40\u4f50\u8cc0\u56fd\u9053\u4e8b\u52d9\u6240","boring_xml_url":49,"boring_view_url":1,"soilmap_view_url":null,"soiltest_xml_url":0,"soiltest_view_url":0},{"id":204154,"code":"B4KJ201801009-2403","latitude":"33.31244","longitude":"129.9185","source_code":"QS20078938400200390022","project_name":"","survey_name":"\u4f50\u8cc0497\u53f7 \u4f0a\u4e07\u91cc\u6771\u5730\u533a\u5730\u8cea\u8abf\u67fb\u696d\u52d9","client_name":"\u56fd\u571f\u4ea4\u901a\u7701\u4e5d\u5dde\u5730\u65b9\u6574\u5099\u5c40\u4f50\u8cc0\u56fd\u9053\u4e8b\u52d9\u6240","boring_xml_url":49,"boring_view_url":1,"soilmap_view_url":null,"soiltest_xml_url":0,"soiltest_view_url":0},{"id":204153,"code":"B4KJ201801009-2402","latitude":"33.29972","longitude":"129.91439","source_code":"QS20078938400200390021","project_name":"","survey_name":"\u4f50\u8cc0497\u53f7 \u4f0a\u4e07\u91cc\u6771\u5730\u533a\u5730\u8cea\u8abf\u67fb\u696d\u52d9","client_name":"\u56fd\u571f\u4ea4\u901a\u7701\u4e5d\u5dde\u5730\u65b9\u6574\u5099\u5c40\u4f50\u8cc0\u56fd\u9053\u4e8b\u52d9\u6240","boring_xml_url":49,"boring_view_url":1,"soilmap_view_url":null,"soiltest_xml_url":0,"soiltest_view_url":0},{"id":204152,"code":"B4KJ201801009-2401","latitude":"33.29678","longitude":"129.91189","source_code":"QS20078938400200390020","project_name":"","survey_name":"\u4f50\u8cc0497\u53f7 \u4f0a\u4e07\u91cc\u6771\u5730\u533a\u5730\u8cea\u8abf\u67fb\u696d\u52d9","client_name":"\u56fd\u571f\u4ea4\u901a\u7701\u4e5d\u5dde\u5730\u65b9\u6574\u5099\u5c40\u4f50\u8cc0\u56fd\u9053\u4e8b\u52d9\u6240","boring_xml_url":49,"boring_view_url":1,"soilmap_view_url":null,"soiltest_xml_url":0,"soiltest_view_url":0},{"id":204151,"code":"B4KJ201801009-2400","latitude":"33.309","longitude":"129.91644","source_code":"QS20078938400200390019","project_name":"","survey_name":"\u4f50\u8cc0497\u53f7 \u4f0a\u4e07\u91cc\u6771\u5730\u533a\u5730\u8cea\u8abf\u67fb\u696d\u52d9","client_name":"\u56fd\u571f\u4ea4\u901a\u7701\u4e5d\u5dde\u5730\u65b9\u6574\u5099\u5c40\u4f50\u8cc0\u56fd\u9053\u4e8b\u52d9\u6240","boring_xml_url":49,"boring_view_url":1,"soilmap_view_url":null,"soiltest_xml_url":0,"soiltest_view_url":0},{"id":204150,"code":"B4KJ201801009-2399","latitude":"33.30894","longitude":"129.91667","source_code":"QS20078938400200390018","project_name":"","survey_name":"\u4f50\u8cc0497\u53f7 \u4f0a\u4e07\u91cc\u6771\u5730\u533a\u5730\u8cea\u8abf\u67fb\u696d\u52d9","client_name":"\u56fd\u571f\u4ea4\u901a\u7701\u4e5d\u5dde\u5730\u65b9\u6574\u5099\u5c40\u4f50\u8cc0\u56fd\u9053\u4e8b\u52d9\u6240","boring_xml_url":49,"boring_view_url":1,"soilmap_view_url":null,"soiltest_xml_url":0,"soiltest_view_url":0},{"id":204149,"code":"B4KJ201801009-2398","latitude":"33.31078","longitude":"129.91725","source_code":"QS20078938400200390017","project_name":"","survey_name":"\u4f50\u8cc0497\u53f7 \u4f0a\u4e07\u91cc\u6771\u5730\u533a\u5730\u8cea\u8abf\u67fb\u696d\u52d9","client_name":"\u56fd\u571f\u4ea4\u901a\u7701\u4e5d\u5dde\u5730\u65b9\u6574\u5099\u5c40\u4f50\u8cc0\u56fd\u9053\u4e8b\u52d9\u6240","boring_xml_url":49,"boring_view_url":1,"soilmap_view_url":null,"soiltest_xml_url":0,"soiltest_view_url":0},{"id":204148,"code":"B4KJ201801009-2397","latitude":"33.31114","longitude":"129.91744","source_code":"QS20078938400200390016","project_name":"","survey_name":"\u4f50\u8cc0497\u53f7 \u4f0a\u4e07\u91cc\u6771\u5730\u533a\u5730\u8cea\u8abf\u67fb\u696d\u52d9","client_name":"\u56fd\u571f\u4ea4\u901a\u7701\u4e5d\u5dde\u5730\u65b9\u6574\u5099\u5c40\u4f50\u8cc0\u56fd\u9053\u4e8b\u52d9\u6240","boring_xml_url":49,"boring_view_url":1,"soilmap_view_url":null,"soiltest_xml_url":0,"soiltest_view_url":0},{"id":204147,"code":"B4KJ201801009-2396","latitude":"33.31144","longitude":"129.91758","source_code":"QS20078938400200390015","project_name":"","survey_name":"\u4f50\u8cc0497\u53f7 \u4f0a\u4e07\u91cc\u6771\u5730\u533a\u5730\u8cea\u8abf\u67fb\u696d\u52d9","client_name":"\u56fd\u571f\u4ea4\u901a\u7701\u4e5d\u5dde\u5730\u65b9\u6574\u5099\u5c40\u4f50\u8cc0\u56fd\u9053\u4e8b\u52d9\u6240","boring_xml_url":49,"boring_view_url":1,"soilmap_view_url":null,"soiltest_xml_url":0,"soiltest_view_url":0},{"id":204146,"code":"B4KJ201801009-2395","latitude":"33.31172","longitude":"129.91775","source_code":"QS20078938400200390014","project_name":"","survey_name":"\u4f50\u8cc0497\u53f7 \u4f0a\u4e07\u91cc\u6771\u5730\u533a\u5730\u8cea\u8abf\u67fb\u696d\u52d9","client_name":"\u56fd\u571f\u4ea4\u901a\u7701\u4e5d\u5dde\u5730\u65b9\u6574\u5099\u5c40\u4f50\u8cc0\u56fd\u9053\u4e8b\u52d9\u6240","boring_xml_url":49,"boring_view_url":1,"soilmap_view_url":null,"soiltest_xml_url":0,"soiltest_view_url":0}]}}