{"header":{"xyz":{"source":[],"mosaic":false},"page":3886,"raw":{"soiltest_result":"0","bbox":"57.598333,109.544722,1.933333,163.806111","page":"3886"},"conditions":{"soiltest_result":0,"north":57.598333,"west":109.544722,"south":1.933333,"east":163.806111},"success":true,"message":""},"data":{"meta":{"total":212844,"page":3886,"pages":7095,"count":30},"values":[{"id":203995,"code":"B4KJ201801009-2244","latitude":"33.1761","longitude":"130.4997","source_code":"QS20078930600200360002","project_name":"","survey_name":"\u77e2\u90e8\u5ddd\u4e0a\u6d41\u5730\u533a\u5824\u9632\u5730\u8cea\u8abf\u67fb\u696d\u52d9","client_name":"\u56fd\u571f\u4ea4\u901a\u7701\u4e5d\u5dde\u5730\u65b9\u6574\u5099\u5c40\u7b51\u5f8c\u5ddd\u6cb3\u5ddd\u4e8b\u52d9\u6240","boring_xml_url":49,"boring_view_url":1,"soilmap_view_url":null,"soiltest_xml_url":52,"soiltest_view_url":52},{"id":203994,"code":"B4KJ201801009-2243","latitude":"33.1761","longitude":"130.4997","source_code":"QS20078930600200360001","project_name":"","survey_name":"\u77e2\u90e8\u5ddd\u4e0a\u6d41\u5730\u533a\u5824\u9632\u5730\u8cea\u8abf\u67fb\u696d\u52d9","client_name":"\u56fd\u571f\u4ea4\u901a\u7701\u4e5d\u5dde\u5730\u65b9\u6574\u5099\u5c40\u7b51\u5f8c\u5ddd\u6cb3\u5ddd\u4e8b\u52d9\u6240","boring_xml_url":49,"boring_view_url":1,"soilmap_view_url":null,"soiltest_xml_url":52,"soiltest_view_url":52},{"id":203993,"code":"B4KJ201801009-2242","latitude":"33.1156","longitude":"130.4533","source_code":"QS20078930600200350015","project_name":"","survey_name":"\u77e2\u90e8\u5ddd\u4e0b\u6d41\u5730\u533a\u5916\u5824\u9632\u5730\u8cea\u8abf\u67fb\u696d\u52d9","client_name":"\u56fd\u571f\u4ea4\u901a\u7701\u4e5d\u5dde\u5730\u65b9\u6574\u5099\u5c40\u7b51\u5f8c\u5ddd\u6cb3\u5ddd\u4e8b\u52d9\u6240","boring_xml_url":49,"boring_view_url":1,"soilmap_view_url":null,"soiltest_xml_url":0,"soiltest_view_url":0},{"id":203992,"code":"B4KJ201801009-2241","latitude":"33.1153","longitude":"130.4533","source_code":"QS20078930600200350014","project_name":"","survey_name":"\u77e2\u90e8\u5ddd\u4e0b\u6d41\u5730\u533a\u5916\u5824\u9632\u5730\u8cea\u8abf\u67fb\u696d\u52d9","client_name":"\u56fd\u571f\u4ea4\u901a\u7701\u4e5d\u5dde\u5730\u65b9\u6574\u5099\u5c40\u7b51\u5f8c\u5ddd\u6cb3\u5ddd\u4e8b\u52d9\u6240","boring_xml_url":49,"boring_view_url":1,"soilmap_view_url":null,"soiltest_xml_url":0,"soiltest_view_url":0},{"id":203991,"code":"B4KJ201801009-2240","latitude":"33.1172","longitude":"130.4689","source_code":"QS20078930600200350013","project_name":"","survey_name":"\u77e2\u90e8\u5ddd\u4e0b\u6d41\u5730\u533a\u5916\u5824\u9632\u5730\u8cea\u8abf\u67fb\u696d\u52d9","client_name":"\u56fd\u571f\u4ea4\u901a\u7701\u4e5d\u5dde\u5730\u65b9\u6574\u5099\u5c40\u7b51\u5f8c\u5ddd\u6cb3\u5ddd\u4e8b\u52d9\u6240","boring_xml_url":49,"boring_view_url":1,"soilmap_view_url":null,"soiltest_xml_url":0,"soiltest_view_url":0},{"id":203990,"code":"B4KJ201801009-2239","latitude":"33.1172","longitude":"130.4689","source_code":"QS20078930600200350012","project_name":"","survey_name":"\u77e2\u90e8\u5ddd\u4e0b\u6d41\u5730\u533a\u5916\u5824\u9632\u5730\u8cea\u8abf\u67fb\u696d\u52d9","client_name":"\u56fd\u571f\u4ea4\u901a\u7701\u4e5d\u5dde\u5730\u65b9\u6574\u5099\u5c40\u7b51\u5f8c\u5ddd\u6cb3\u5ddd\u4e8b\u52d9\u6240","boring_xml_url":49,"boring_view_url":1,"soilmap_view_url":null,"soiltest_xml_url":0,"soiltest_view_url":0},{"id":203989,"code":"B4KJ201801009-2238","latitude":"33.1139","longitude":"130.46","source_code":"QS20078930600200350011","project_name":"","survey_name":"\u77e2\u90e8\u5ddd\u4e0b\u6d41\u5730\u533a\u5916\u5824\u9632\u5730\u8cea\u8abf\u67fb\u696d\u52d9","client_name":"\u56fd\u571f\u4ea4\u901a\u7701\u4e5d\u5dde\u5730\u65b9\u6574\u5099\u5c40\u7b51\u5f8c\u5ddd\u6cb3\u5ddd\u4e8b\u52d9\u6240","boring_xml_url":49,"boring_view_url":1,"soilmap_view_url":null,"soiltest_xml_url":0,"soiltest_view_url":0},{"id":203988,"code":"B4KJ201801009-2237","latitude":"33.1139","longitude":"130.4603","source_code":"QS20078930600200350010","project_name":"","survey_name":"\u77e2\u90e8\u5ddd\u4e0b\u6d41\u5730\u533a\u5916\u5824\u9632\u5730\u8cea\u8abf\u67fb\u696d\u52d9","client_name":"\u56fd\u571f\u4ea4\u901a\u7701\u4e5d\u5dde\u5730\u65b9\u6574\u5099\u5c40\u7b51\u5f8c\u5ddd\u6cb3\u5ddd\u4e8b\u52d9\u6240","boring_xml_url":49,"boring_view_url":1,"soilmap_view_url":null,"soiltest_xml_url":0,"soiltest_view_url":0},{"id":203987,"code":"B4KJ201801009-2236","latitude":"33.1147","longitude":"130.4536","source_code":"QS20078930600200350009","project_name":"","survey_name":"\u77e2\u90e8\u5ddd\u4e0b\u6d41\u5730\u533a\u5916\u5824\u9632\u5730\u8cea\u8abf\u67fb\u696d\u52d9","client_name":"\u56fd\u571f\u4ea4\u901a\u7701\u4e5d\u5dde\u5730\u65b9\u6574\u5099\u5c40\u7b51\u5f8c\u5ddd\u6cb3\u5ddd\u4e8b\u52d9\u6240","boring_xml_url":49,"boring_view_url":1,"soilmap_view_url":null,"soiltest_xml_url":0,"soiltest_view_url":0},{"id":203986,"code":"B4KJ201801009-2235","latitude":"33.1178","longitude":"130.4483","source_code":"QS20078930600200350008","project_name":"","survey_name":"\u77e2\u90e8\u5ddd\u4e0b\u6d41\u5730\u533a\u5916\u5824\u9632\u5730\u8cea\u8abf\u67fb\u696d\u52d9","client_name":"\u56fd\u571f\u4ea4\u901a\u7701\u4e5d\u5dde\u5730\u65b9\u6574\u5099\u5c40\u7b51\u5f8c\u5ddd\u6cb3\u5ddd\u4e8b\u52d9\u6240","boring_xml_url":49,"boring_view_url":1,"soilmap_view_url":null,"soiltest_xml_url":0,"soiltest_view_url":0},{"id":203985,"code":"B4KJ201801009-2234","latitude":"33.1269","longitude":"130.4428","source_code":"QS20078930600200350007","project_name":"","survey_name":"\u77e2\u90e8\u5ddd\u4e0b\u6d41\u5730\u533a\u5916\u5824\u9632\u5730\u8cea\u8abf\u67fb\u696d\u52d9","client_name":"\u56fd\u571f\u4ea4\u901a\u7701\u4e5d\u5dde\u5730\u65b9\u6574\u5099\u5c40\u7b51\u5f8c\u5ddd\u6cb3\u5ddd\u4e8b\u52d9\u6240","boring_xml_url":49,"boring_view_url":1,"soilmap_view_url":null,"soiltest_xml_url":0,"soiltest_view_url":0},{"id":203984,"code":"B4KJ201801009-2233","latitude":"33.1269","longitude":"130.4431","source_code":"QS20078930600200350006","project_name":"","survey_name":"\u77e2\u90e8\u5ddd\u4e0b\u6d41\u5730\u533a\u5916\u5824\u9632\u5730\u8cea\u8abf\u67fb\u696d\u52d9","client_name":"\u56fd\u571f\u4ea4\u901a\u7701\u4e5d\u5dde\u5730\u65b9\u6574\u5099\u5c40\u7b51\u5f8c\u5ddd\u6cb3\u5ddd\u4e8b\u52d9\u6240","boring_xml_url":49,"boring_view_url":1,"soilmap_view_url":null,"soiltest_xml_url":0,"soiltest_view_url":0},{"id":203983,"code":"B4KJ201801009-2232","latitude":"33.1233","longitude":"130.4417","source_code":"QS20078930600200350005","project_name":"","survey_name":"\u77e2\u90e8\u5ddd\u4e0b\u6d41\u5730\u533a\u5916\u5824\u9632\u5730\u8cea\u8abf\u67fb\u696d\u52d9","client_name":"\u56fd\u571f\u4ea4\u901a\u7701\u4e5d\u5dde\u5730\u65b9\u6574\u5099\u5c40\u7b51\u5f8c\u5ddd\u6cb3\u5ddd\u4e8b\u52d9\u6240","boring_xml_url":49,"boring_view_url":1,"soilmap_view_url":null,"soiltest_xml_url":0,"soiltest_view_url":0},{"id":203982,"code":"B4KJ201801009-2231","latitude":"33.1264","longitude":"130.4447","source_code":"QS20078930600200350004","project_name":"","survey_name":"\u77e2\u90e8\u5ddd\u4e0b\u6d41\u5730\u533a\u5916\u5824\u9632\u5730\u8cea\u8abf\u67fb\u696d\u52d9","client_name":"\u56fd\u571f\u4ea4\u901a\u7701\u4e5d\u5dde\u5730\u65b9\u6574\u5099\u5c40\u7b51\u5f8c\u5ddd\u6cb3\u5ddd\u4e8b\u52d9\u6240","boring_xml_url":49,"boring_view_url":1,"soilmap_view_url":null,"soiltest_xml_url":0,"soiltest_view_url":0},{"id":203981,"code":"B4KJ201801009-2230","latitude":"33.1267","longitude":"130.4444","source_code":"QS20078930600200350003","project_name":"","survey_name":"\u77e2\u90e8\u5ddd\u4e0b\u6d41\u5730\u533a\u5916\u5824\u9632\u5730\u8cea\u8abf\u67fb\u696d\u52d9","client_name":"\u56fd\u571f\u4ea4\u901a\u7701\u4e5d\u5dde\u5730\u65b9\u6574\u5099\u5c40\u7b51\u5f8c\u5ddd\u6cb3\u5ddd\u4e8b\u52d9\u6240","boring_xml_url":49,"boring_view_url":1,"soilmap_view_url":null,"soiltest_xml_url":0,"soiltest_view_url":0},{"id":203980,"code":"B4KJ201801009-2229","latitude":"33.1222","longitude":"130.4428","source_code":"QS20078930600200350002","project_name":"","survey_name":"\u77e2\u90e8\u5ddd\u4e0b\u6d41\u5730\u533a\u5916\u5824\u9632\u5730\u8cea\u8abf\u67fb\u696d\u52d9","client_name":"\u56fd\u571f\u4ea4\u901a\u7701\u4e5d\u5dde\u5730\u65b9\u6574\u5099\u5c40\u7b51\u5f8c\u5ddd\u6cb3\u5ddd\u4e8b\u52d9\u6240","boring_xml_url":49,"boring_view_url":1,"soilmap_view_url":null,"soiltest_xml_url":0,"soiltest_view_url":0},{"id":203979,"code":"B4KJ201801009-2228","latitude":"33.1225","longitude":"130.4428","source_code":"QS20078930600200350001","project_name":"","survey_name":"\u77e2\u90e8\u5ddd\u4e0b\u6d41\u5730\u533a\u5916\u5824\u9632\u5730\u8cea\u8abf\u67fb\u696d\u52d9","client_name":"\u56fd\u571f\u4ea4\u901a\u7701\u4e5d\u5dde\u5730\u65b9\u6574\u5099\u5c40\u7b51\u5f8c\u5ddd\u6cb3\u5ddd\u4e8b\u52d9\u6240","boring_xml_url":49,"boring_view_url":1,"soilmap_view_url":null,"soiltest_xml_url":0,"soiltest_view_url":0},{"id":203978,"code":"B4KJ201801009-2227","latitude":"33.3531","longitude":"130.7925","source_code":"QS20078930600200300009","project_name":"","survey_name":"\u7b51\u5f8c\u5ddd\u5409\u4e95\u4e0a\u6d41\u5730\u533a\u5824\u9632\u5730\u8cea\u8abf\u67fb\u696d\u52d9","client_name":"\u56fd\u571f\u4ea4\u901a\u7701\u4e5d\u5dde\u5730\u65b9\u6574\u5099\u5c40\u7b51\u5f8c\u5ddd\u6cb3\u5ddd\u4e8b\u52d9\u6240","boring_xml_url":49,"boring_view_url":1,"soilmap_view_url":null,"soiltest_xml_url":52,"soiltest_view_url":52},{"id":203977,"code":"B4KJ201801009-2226","latitude":"33.3161","longitude":"130.9089","source_code":"QS20078930600200300008","project_name":"","survey_name":"\u7b51\u5f8c\u5ddd\u5409\u4e95\u4e0a\u6d41\u5730\u533a\u5824\u9632\u5730\u8cea\u8abf\u67fb\u696d\u52d9","client_name":"\u56fd\u571f\u4ea4\u901a\u7701\u4e5d\u5dde\u5730\u65b9\u6574\u5099\u5c40\u7b51\u5f8c\u5ddd\u6cb3\u5ddd\u4e8b\u52d9\u6240","boring_xml_url":49,"boring_view_url":1,"soilmap_view_url":null,"soiltest_xml_url":52,"soiltest_view_url":52},{"id":203976,"code":"B4KJ201801009-2225","latitude":"33.3189","longitude":"130.8997","source_code":"QS20078930600200300007","project_name":"","survey_name":"\u7b51\u5f8c\u5ddd\u5409\u4e95\u4e0a\u6d41\u5730\u533a\u5824\u9632\u5730\u8cea\u8abf\u67fb\u696d\u52d9","client_name":"\u56fd\u571f\u4ea4\u901a\u7701\u4e5d\u5dde\u5730\u65b9\u6574\u5099\u5c40\u7b51\u5f8c\u5ddd\u6cb3\u5ddd\u4e8b\u52d9\u6240","boring_xml_url":49,"boring_view_url":1,"soilmap_view_url":null,"soiltest_xml_url":52,"soiltest_view_url":52},{"id":203975,"code":"B4KJ201801009-2224","latitude":"33.3556","longitude":"130.8153","source_code":"QS20078930600200300006","project_name":"","survey_name":"\u7b51\u5f8c\u5ddd\u5409\u4e95\u4e0a\u6d41\u5730\u533a\u5824\u9632\u5730\u8cea\u8abf\u67fb\u696d\u52d9","client_name":"\u56fd\u571f\u4ea4\u901a\u7701\u4e5d\u5dde\u5730\u65b9\u6574\u5099\u5c40\u7b51\u5f8c\u5ddd\u6cb3\u5ddd\u4e8b\u52d9\u6240","boring_xml_url":49,"boring_view_url":1,"soilmap_view_url":null,"soiltest_xml_url":52,"soiltest_view_url":52},{"id":203974,"code":"B4KJ201801009-2223","latitude":"33.3556","longitude":"130.8153","source_code":"QS20078930600200300005","project_name":"","survey_name":"\u7b51\u5f8c\u5ddd\u5409\u4e95\u4e0a\u6d41\u5730\u533a\u5824\u9632\u5730\u8cea\u8abf\u67fb\u696d\u52d9","client_name":"\u56fd\u571f\u4ea4\u901a\u7701\u4e5d\u5dde\u5730\u65b9\u6574\u5099\u5c40\u7b51\u5f8c\u5ddd\u6cb3\u5ddd\u4e8b\u52d9\u6240","boring_xml_url":49,"boring_view_url":1,"soilmap_view_url":null,"soiltest_xml_url":52,"soiltest_view_url":52},{"id":203973,"code":"B4KJ201801009-2222","latitude":"33.3506","longitude":"130.7933","source_code":"QS20078930600200300004","project_name":"","survey_name":"\u7b51\u5f8c\u5ddd\u5409\u4e95\u4e0a\u6d41\u5730\u533a\u5824\u9632\u5730\u8cea\u8abf\u67fb\u696d\u52d9","client_name":"\u56fd\u571f\u4ea4\u901a\u7701\u4e5d\u5dde\u5730\u65b9\u6574\u5099\u5c40\u7b51\u5f8c\u5ddd\u6cb3\u5ddd\u4e8b\u52d9\u6240","boring_xml_url":49,"boring_view_url":1,"soilmap_view_url":null,"soiltest_xml_url":52,"soiltest_view_url":52},{"id":203972,"code":"B4KJ201801009-2221","latitude":"33.3506","longitude":"130.7933","source_code":"QS20078930600200300003","project_name":"","survey_name":"\u7b51\u5f8c\u5ddd\u5409\u4e95\u4e0a\u6d41\u5730\u533a\u5824\u9632\u5730\u8cea\u8abf\u67fb\u696d\u52d9","client_name":"\u56fd\u571f\u4ea4\u901a\u7701\u4e5d\u5dde\u5730\u65b9\u6574\u5099\u5c40\u7b51\u5f8c\u5ddd\u6cb3\u5ddd\u4e8b\u52d9\u6240","boring_xml_url":49,"boring_view_url":1,"soilmap_view_url":null,"soiltest_xml_url":52,"soiltest_view_url":52},{"id":203971,"code":"B4KJ201801009-2220","latitude":"33.3492","longitude":"130.7794","source_code":"QS20078930600200300002","project_name":"","survey_name":"\u7b51\u5f8c\u5ddd\u5409\u4e95\u4e0a\u6d41\u5730\u533a\u5824\u9632\u5730\u8cea\u8abf\u67fb\u696d\u52d9","client_name":"\u56fd\u571f\u4ea4\u901a\u7701\u4e5d\u5dde\u5730\u65b9\u6574\u5099\u5c40\u7b51\u5f8c\u5ddd\u6cb3\u5ddd\u4e8b\u52d9\u6240","boring_xml_url":49,"boring_view_url":1,"soilmap_view_url":null,"soiltest_xml_url":52,"soiltest_view_url":52},{"id":203970,"code":"B4KJ201801009-2219","latitude":"33.3492","longitude":"130.7794","source_code":"QS20078930600200300001","project_name":"","survey_name":"\u7b51\u5f8c\u5ddd\u5409\u4e95\u4e0a\u6d41\u5730\u533a\u5824\u9632\u5730\u8cea\u8abf\u67fb\u696d\u52d9","client_name":"\u56fd\u571f\u4ea4\u901a\u7701\u4e5d\u5dde\u5730\u65b9\u6574\u5099\u5c40\u7b51\u5f8c\u5ddd\u6cb3\u5ddd\u4e8b\u52d9\u6240","boring_xml_url":49,"boring_view_url":1,"soilmap_view_url":null,"soiltest_xml_url":52,"soiltest_view_url":52},{"id":203969,"code":"B4KJ201801009-2218","latitude":"33.32658","longitude":"130.53592","source_code":"QS20078930600200290010","project_name":"\u7b51\u5f8c\u5ddd\u4e45\u7559\u7c73\u5730\u533a\u5824\u9632\u5730\u8cea\u8abf\u67fb\u696d\u52d9","survey_name":"\u7b51\u5f8c\u5ddd\u4e45\u7559\u7c73\u5730\u533a\u5824\u9632\u5730\u8cea\u8abf\u67fb\u696d\u52d9","client_name":"\u56fd\u571f\u4ea4\u901a\u7701\u4e5d\u5dde\u5730\u65b9\u6574\u5099\u5c40\u7b51\u5f8c\u5ddd\u6cb3\u5ddd\u4e8b\u52d9\u6240","boring_xml_url":49,"boring_view_url":1,"soilmap_view_url":null,"soiltest_xml_url":52,"soiltest_view_url":52},{"id":203968,"code":"B4KJ201801009-2217","latitude":"33.32647","longitude":"130.53592","source_code":"QS20078930600200290009","project_name":"\u7b51\u5f8c\u5ddd\u4e45\u7559\u7c73\u5730\u533a\u5824\u9632\u5730\u8cea\u8abf\u67fb\u696d\u52d9","survey_name":"\u7b51\u5f8c\u5ddd\u4e45\u7559\u7c73\u5730\u533a\u5824\u9632\u5730\u8cea\u8abf\u67fb\u696d\u52d9","client_name":"\u56fd\u571f\u4ea4\u901a\u7701\u4e5d\u5dde\u5730\u65b9\u6574\u5099\u5c40\u7b51\u5f8c\u5ddd\u6cb3\u5ddd\u4e8b\u52d9\u6240","boring_xml_url":49,"boring_view_url":1,"soilmap_view_url":null,"soiltest_xml_url":52,"soiltest_view_url":52},{"id":203967,"code":"B4KJ201801009-2216","latitude":"33.33339","longitude":"130.51683","source_code":"QS20078930600200290008","project_name":"\u7b51\u5f8c\u5ddd\u4e45\u7559\u7c73\u5730\u533a\u5824\u9632\u5730\u8cea\u8abf\u67fb\u696d\u52d9","survey_name":"\u7b51\u5f8c\u5ddd\u4e45\u7559\u7c73\u5730\u533a\u5824\u9632\u5730\u8cea\u8abf\u67fb\u696d\u52d9","client_name":"\u56fd\u571f\u4ea4\u901a\u7701\u4e5d\u5dde\u5730\u65b9\u6574\u5099\u5c40\u7b51\u5f8c\u5ddd\u6cb3\u5ddd\u4e8b\u52d9\u6240","boring_xml_url":49,"boring_view_url":1,"soilmap_view_url":null,"soiltest_xml_url":52,"soiltest_view_url":52},{"id":203966,"code":"B4KJ201801009-2215","latitude":"33.33328","longitude":"130.51678","source_code":"QS20078930600200290007","project_name":"\u7b51\u5f8c\u5ddd\u4e45\u7559\u7c73\u5730\u533a\u5824\u9632\u5730\u8cea\u8abf\u67fb\u696d\u52d9","survey_name":"\u7b51\u5f8c\u5ddd\u4e45\u7559\u7c73\u5730\u533a\u5824\u9632\u5730\u8cea\u8abf\u67fb\u696d\u52d9","client_name":"\u56fd\u571f\u4ea4\u901a\u7701\u4e5d\u5dde\u5730\u65b9\u6574\u5099\u5c40\u7b51\u5f8c\u5ddd\u6cb3\u5ddd\u4e8b\u52d9\u6240","boring_xml_url":49,"boring_view_url":1,"soilmap_view_url":null,"soiltest_xml_url":52,"soiltest_view_url":52}]}}