{"header":{"xyz":{"source":[],"mosaic":false},"page":3888,"raw":{"soiltest_result":"0","bbox":"57.598333,109.544722,1.933333,163.806111","page":"3888"},"conditions":{"soiltest_result":0,"north":57.598333,"west":109.544722,"south":1.933333,"east":163.806111},"success":true,"message":""},"data":{"meta":{"total":212844,"page":3888,"pages":7095,"count":30},"values":[{"id":203935,"code":"B4KJ201801009-2184","latitude":"31.60553","longitude":"130.57728","source_code":"QS20068972650200380002","project_name":"\u9e7f\u5150\u5cf6\u5317\u30d0\u30a4\u30d1\u30b9","survey_name":"\u7947\u5712\u4e4b\u5dde\u5730\u533a\u5730\u8cea\u8abf\u67fb\u696d\u52d9","client_name":"\u56fd\u571f\u4ea4\u901a\u7701 \u4e5d\u5dde\u5730\u65b9\u6574\u5099\u5c40 \u9e7f\u5150\u5cf6\u56fd\u9053\u4e8b\u52d9\u6240 \u8abf\u67fb\u8ab2","boring_xml_url":49,"boring_view_url":1,"soilmap_view_url":null,"soiltest_xml_url":0,"soiltest_view_url":0},{"id":203934,"code":"B4KJ201801009-2183","latitude":"31.60594","longitude":"130.57725","source_code":"QS20068972650200380001","project_name":"\u9e7f\u5150\u5cf6\u5317\u30d0\u30a4\u30d1\u30b9","survey_name":"\u7947\u5712\u4e4b\u5dde\u5730\u533a\u5730\u8cea\u8abf\u67fb\u696d\u52d9","client_name":"\u56fd\u571f\u4ea4\u901a\u7701 \u4e5d\u5dde\u5730\u65b9\u6574\u5099\u5c40 \u9e7f\u5150\u5cf6\u56fd\u9053\u4e8b\u52d9\u6240 \u8abf\u67fb\u8ab2","boring_xml_url":49,"boring_view_url":1,"soilmap_view_url":null,"soiltest_xml_url":0,"soiltest_view_url":0},{"id":203933,"code":"B4KJ201801009-2182","latitude":"31.7919","longitude":"130.2847","source_code":"QS20068972650200280005","project_name":"\u5ddd\u5185\u9688\u4e4b\u57ce\u9053\u8def","survey_name":"\u4e0b\u6728\u5834\u5730\u533a\u5730\u8cea\u8abf\u67fb\u696d\u52d9","client_name":"\u56fd\u4ea4\u7701\u4e5d\u5dde\u5730\u65b9\u6574\u5099\u5c40 \u9e7f\u5150\u5cf6\u4e8b\u52d9\u6240\u8abf\u67fb\u8ab2","boring_xml_url":49,"boring_view_url":1,"soilmap_view_url":null,"soiltest_xml_url":0,"soiltest_view_url":0},{"id":203932,"code":"B4KJ201801009-2181","latitude":"31.7925","longitude":"130.2847","source_code":"QS20068972650200280004","project_name":"\u5ddd\u5185\u9688\u4e4b\u57ce\u9053\u8def","survey_name":"\u4e0b\u6728\u5834\u5730\u533a\u5730\u8cea\u8abf\u67fb\u696d\u52d9","client_name":"\u56fd\u4ea4\u7701\u4e5d\u5dde\u5730\u65b9\u6574\u5099\u5c40 \u9e7f\u5150\u5cf6\u4e8b\u52d9\u6240\u8abf\u67fb\u8ab2","boring_xml_url":49,"boring_view_url":1,"soilmap_view_url":null,"soiltest_xml_url":0,"soiltest_view_url":0},{"id":203931,"code":"B4KJ201801009-2180","latitude":"31.7981","longitude":"130.2858","source_code":"QS20068972650200280003","project_name":"\u5ddd\u5185\u9688\u4e4b\u57ce\u9053\u8def","survey_name":"\u4e0b\u6728\u5834\u5730\u533a\u5730\u8cea\u8abf\u67fb\u696d\u52d9","client_name":"\u56fd\u4ea4\u7701\u4e5d\u5dde\u5730\u65b9\u6574\u5099\u5c40 \u9e7f\u5150\u5cf6\u4e8b\u52d9\u6240\u8abf\u67fb\u8ab2","boring_xml_url":49,"boring_view_url":1,"soilmap_view_url":null,"soiltest_xml_url":0,"soiltest_view_url":0},{"id":203930,"code":"B4KJ201801009-2179","latitude":"31.8039","longitude":"130.2839","source_code":"QS20068972650200280002","project_name":"\u5ddd\u5185\u9688\u4e4b\u57ce\u9053\u8def","survey_name":"\u4e0b\u6728\u5834\u5730\u533a\u5730\u8cea\u8abf\u67fb\u696d\u52d9","client_name":"\u56fd\u4ea4\u7701\u4e5d\u5dde\u5730\u65b9\u6574\u5099\u5c40 \u9e7f\u5150\u5cf6\u4e8b\u52d9\u6240\u8abf\u67fb\u8ab2","boring_xml_url":49,"boring_view_url":1,"soilmap_view_url":null,"soiltest_xml_url":0,"soiltest_view_url":0},{"id":203929,"code":"B4KJ201801009-2178","latitude":"31.8039","longitude":"130.2839","source_code":"QS20068972650200280001","project_name":"\u5ddd\u5185\u9688\u4e4b\u57ce\u9053\u8def","survey_name":"\u4e0b\u6728\u5834\u5730\u533a\u5730\u8cea\u8abf\u67fb\u696d\u52d9","client_name":"\u56fd\u4ea4\u7701\u4e5d\u5dde\u5730\u65b9\u6574\u5099\u5c40 \u9e7f\u5150\u5cf6\u4e8b\u52d9\u6240\u8abf\u67fb\u8ab2","boring_xml_url":49,"boring_view_url":1,"soilmap_view_url":null,"soiltest_xml_url":0,"soiltest_view_url":0},{"id":203928,"code":"B4KJ201801009-2177","latitude":"31.78325","longitude":"130.28614","source_code":"QS20068972650200270015","project_name":"\u9752\u5c71\u5730\u533a\u5730\u8cea\u8abf\u67fb\u696d\u52d9","survey_name":"\u9752\u5c71\u5730\u533a\u5730\u8cea\u8abf\u67fb\u696d\u52d9","client_name":"\u56fd\u571f\u4ea4\u901a\u7701\u4e5d\u5dde\u5730\u65b9\u6574\u5099\u5c40\u9e7f\u5150\u5cf6\u56fd\u9053\u4e8b\u52d9\u6240\u8abf\u67fb\u8ab2","boring_xml_url":49,"boring_view_url":1,"soilmap_view_url":null,"soiltest_xml_url":50,"soiltest_view_url":50},{"id":203927,"code":"B4KJ201801009-2176","latitude":"31.77575","longitude":"130.29322","source_code":"QS20068972650200270014","project_name":"\u9752\u5c71\u5730\u533a\u5730\u8cea\u8abf\u67fb\u696d\u52d9","survey_name":"\u9752\u5c71\u5730\u533a\u5730\u8cea\u8abf\u67fb\u696d\u52d9","client_name":"\u56fd\u571f\u4ea4\u901a\u7701\u4e5d\u5dde\u5730\u65b9\u6574\u5099\u5c40\u9e7f\u5150\u5cf6\u56fd\u9053\u4e8b\u52d9\u6240\u8abf\u67fb\u8ab2","boring_xml_url":49,"boring_view_url":1,"soilmap_view_url":null,"soiltest_xml_url":0,"soiltest_view_url":0},{"id":203926,"code":"B4KJ201801009-2175","latitude":"31.77625","longitude":"130.29217","source_code":"QS20068972650200270013","project_name":"\u9752\u5c71\u5730\u533a\u5730\u8cea\u8abf\u67fb\u696d\u52d9","survey_name":"\u9752\u5c71\u5730\u533a\u5730\u8cea\u8abf\u67fb\u696d\u52d9","client_name":"\u56fd\u571f\u4ea4\u901a\u7701\u4e5d\u5dde\u5730\u65b9\u6574\u5099\u5c40\u9e7f\u5150\u5cf6\u56fd\u9053\u4e8b\u52d9\u6240\u8abf\u67fb\u8ab2","boring_xml_url":49,"boring_view_url":1,"soilmap_view_url":null,"soiltest_xml_url":0,"soiltest_view_url":0},{"id":203925,"code":"B4KJ201801009-2174","latitude":"31.77719","longitude":"130.291","source_code":"QS20068972650200270012","project_name":"\u9752\u5c71\u5730\u533a\u5730\u8cea\u8abf\u67fb\u696d\u52d9","survey_name":"\u9752\u5c71\u5730\u533a\u5730\u8cea\u8abf\u67fb\u696d\u52d9","client_name":"\u56fd\u571f\u4ea4\u901a\u7701\u4e5d\u5dde\u5730\u65b9\u6574\u5099\u5c40\u9e7f\u5150\u5cf6\u56fd\u9053\u4e8b\u52d9\u6240\u8abf\u67fb\u8ab2","boring_xml_url":49,"boring_view_url":1,"soilmap_view_url":null,"soiltest_xml_url":0,"soiltest_view_url":0},{"id":203924,"code":"B4KJ201801009-2173","latitude":"31.77792","longitude":"130.29011","source_code":"QS20068972650200270011","project_name":"\u9752\u5c71\u5730\u533a\u5730\u8cea\u8abf\u67fb\u696d\u52d9","survey_name":"\u9752\u5c71\u5730\u533a\u5730\u8cea\u8abf\u67fb\u696d\u52d9","client_name":"\u56fd\u571f\u4ea4\u901a\u7701\u4e5d\u5dde\u5730\u65b9\u6574\u5099\u5c40\u9e7f\u5150\u5cf6\u56fd\u9053\u4e8b\u52d9\u6240\u8abf\u67fb\u8ab2","boring_xml_url":49,"boring_view_url":1,"soilmap_view_url":null,"soiltest_xml_url":0,"soiltest_view_url":0},{"id":203923,"code":"B4KJ201801009-2172","latitude":"31.77817","longitude":"130.28981","source_code":"QS20068972650200270010","project_name":"\u9752\u5c71\u5730\u533a\u5730\u8cea\u8abf\u67fb\u696d\u52d9","survey_name":"\u9752\u5c71\u5730\u533a\u5730\u8cea\u8abf\u67fb\u696d\u52d9","client_name":"\u56fd\u571f\u4ea4\u901a\u7701\u4e5d\u5dde\u5730\u65b9\u6574\u5099\u5c40\u9e7f\u5150\u5cf6\u56fd\u9053\u4e8b\u52d9\u6240\u8abf\u67fb\u8ab2","boring_xml_url":49,"boring_view_url":1,"soilmap_view_url":null,"soiltest_xml_url":0,"soiltest_view_url":0},{"id":203922,"code":"B4KJ201801009-2171","latitude":"31.77894","longitude":"130.289","source_code":"QS20068972650200270009","project_name":"\u9752\u5c71\u5730\u533a\u5730\u8cea\u8abf\u67fb\u696d\u52d9","survey_name":"\u9752\u5c71\u5730\u533a\u5730\u8cea\u8abf\u67fb\u696d\u52d9","client_name":"\u56fd\u571f\u4ea4\u901a\u7701\u4e5d\u5dde\u5730\u65b9\u6574\u5099\u5c40\u9e7f\u5150\u5cf6\u56fd\u9053\u4e8b\u52d9\u6240\u8abf\u67fb\u8ab2","boring_xml_url":49,"boring_view_url":1,"soilmap_view_url":null,"soiltest_xml_url":0,"soiltest_view_url":0},{"id":203921,"code":"B4KJ201801009-2170","latitude":"31.78003","longitude":"130.28803","source_code":"QS20068972650200270008","project_name":"\u9752\u5c71\u5730\u533a\u5730\u8cea\u8abf\u67fb\u696d\u52d9","survey_name":"\u9752\u5c71\u5730\u533a\u5730\u8cea\u8abf\u67fb\u696d\u52d9","client_name":"\u56fd\u571f\u4ea4\u901a\u7701\u4e5d\u5dde\u5730\u65b9\u6574\u5099\u5c40\u9e7f\u5150\u5cf6\u56fd\u9053\u4e8b\u52d9\u6240\u8abf\u67fb\u8ab2","boring_xml_url":49,"boring_view_url":1,"soilmap_view_url":null,"soiltest_xml_url":52,"soiltest_view_url":52},{"id":203920,"code":"B4KJ201801009-2169","latitude":"31.78189","longitude":"130.28697","source_code":"QS20068972650200270007","project_name":"\u9752\u5c71\u5730\u533a\u5730\u8cea\u8abf\u67fb\u696d\u52d9","survey_name":"\u9752\u5c71\u5730\u533a\u5730\u8cea\u8abf\u67fb\u696d\u52d9","client_name":"\u56fd\u571f\u4ea4\u901a\u7701\u4e5d\u5dde\u5730\u65b9\u6574\u5099\u5c40\u9e7f\u5150\u5cf6\u56fd\u9053\u4e8b\u52d9\u6240\u8abf\u67fb\u8ab2","boring_xml_url":49,"boring_view_url":1,"soilmap_view_url":null,"soiltest_xml_url":0,"soiltest_view_url":0},{"id":203919,"code":"B4KJ201801009-2168","latitude":"31.78392","longitude":"130.28589","source_code":"QS20068972650200270006","project_name":"\u9752\u5c71\u5730\u533a\u5730\u8cea\u8abf\u67fb\u696d\u52d9","survey_name":"\u9752\u5c71\u5730\u533a\u5730\u8cea\u8abf\u67fb\u696d\u52d9","client_name":"\u56fd\u571f\u4ea4\u901a\u7701\u4e5d\u5dde\u5730\u65b9\u6574\u5099\u5c40\u9e7f\u5150\u5cf6\u56fd\u9053\u4e8b\u52d9\u6240\u8abf\u67fb\u8ab2","boring_xml_url":49,"boring_view_url":1,"soilmap_view_url":null,"soiltest_xml_url":0,"soiltest_view_url":0},{"id":203918,"code":"B4KJ201801009-2167","latitude":"31.78433","longitude":"130.28578","source_code":"QS20068972650200270005","project_name":"\u9752\u5c71\u5730\u533a\u5730\u8cea\u8abf\u67fb\u696d\u52d9","survey_name":"\u9752\u5c71\u5730\u533a\u5730\u8cea\u8abf\u67fb\u696d\u52d9","client_name":"\u56fd\u571f\u4ea4\u901a\u7701\u4e5d\u5dde\u5730\u65b9\u6574\u5099\u5c40\u9e7f\u5150\u5cf6\u56fd\u9053\u4e8b\u52d9\u6240\u8abf\u67fb\u8ab2","boring_xml_url":49,"boring_view_url":1,"soilmap_view_url":null,"soiltest_xml_url":0,"soiltest_view_url":0},{"id":203917,"code":"B4KJ201801009-2166","latitude":"31.78578","longitude":"130.28544","source_code":"QS20068972650200270004","project_name":"\u9752\u5c71\u5730\u533a\u5730\u8cea\u8abf\u67fb\u696d\u52d9","survey_name":"\u9752\u5c71\u5730\u533a\u5730\u8cea\u8abf\u67fb\u696d\u52d9","client_name":"\u56fd\u571f\u4ea4\u901a\u7701\u4e5d\u5dde\u5730\u65b9\u6574\u5099\u5c40\u9e7f\u5150\u5cf6\u56fd\u9053\u4e8b\u52d9\u6240\u8abf\u67fb\u8ab2","boring_xml_url":49,"boring_view_url":1,"soilmap_view_url":null,"soiltest_xml_url":0,"soiltest_view_url":0},{"id":203916,"code":"B4KJ201801009-2165","latitude":"31.78761","longitude":"130.28544","source_code":"QS20068972650200270003","project_name":"\u9752\u5c71\u5730\u533a\u5730\u8cea\u8abf\u67fb\u696d\u52d9","survey_name":"\u9752\u5c71\u5730\u533a\u5730\u8cea\u8abf\u67fb\u696d\u52d9","client_name":"\u56fd\u571f\u4ea4\u901a\u7701\u4e5d\u5dde\u5730\u65b9\u6574\u5099\u5c40\u9e7f\u5150\u5cf6\u56fd\u9053\u4e8b\u52d9\u6240\u8abf\u67fb\u8ab2","boring_xml_url":49,"boring_view_url":1,"soilmap_view_url":null,"soiltest_xml_url":0,"soiltest_view_url":0},{"id":203915,"code":"B4KJ201801009-2164","latitude":"31.79042","longitude":"130.285","source_code":"QS20068972650200270002","project_name":"\u9752\u5c71\u5730\u533a\u5730\u8cea\u8abf\u67fb\u696d\u52d9","survey_name":"\u9752\u5c71\u5730\u533a\u5730\u8cea\u8abf\u67fb\u696d\u52d9","client_name":"\u56fd\u571f\u4ea4\u901a\u7701\u4e5d\u5dde\u5730\u65b9\u6574\u5099\u5c40\u9e7f\u5150\u5cf6\u56fd\u9053\u4e8b\u52d9\u6240\u8abf\u67fb\u8ab2","boring_xml_url":49,"boring_view_url":1,"soilmap_view_url":null,"soiltest_xml_url":0,"soiltest_view_url":0},{"id":203914,"code":"B4KJ201801009-2163","latitude":"31.79111","longitude":"130.28486","source_code":"QS20068972650200270001","project_name":"\u9752\u5c71\u5730\u533a\u5730\u8cea\u8abf\u67fb\u696d\u52d9","survey_name":"\u9752\u5c71\u5730\u533a\u5730\u8cea\u8abf\u67fb\u696d\u52d9","client_name":"\u56fd\u571f\u4ea4\u901a\u7701\u4e5d\u5dde\u5730\u65b9\u6574\u5099\u5c40\u9e7f\u5150\u5cf6\u56fd\u9053\u4e8b\u52d9\u6240\u8abf\u67fb\u8ab2","boring_xml_url":49,"boring_view_url":1,"soilmap_view_url":null,"soiltest_xml_url":52,"soiltest_view_url":52},{"id":203913,"code":"B4KJ201801009-2162","latitude":"31.80003","longitude":"130.28614","source_code":"QS20068972650200260014","project_name":"\u5357\u4e5d\u5dde\u897f\u56de\u308a\u81ea\u52d5\u8eca\u9053\u5ddd\u5185\u9688\u4e4b\u57ce\u9053\u8def\u5efa\u8a2d\u4e8b\u696d","survey_name":"\u5bae\u91cc\u5730\u533a\u5730\u8cea\u8abf\u67fb\u696d\u52d9","client_name":"\u56fd\u571f\u4ea4\u901a\u7701 \u4e5d\u5dde\u5730\u65b9\u6574\u5099\u5c40 \u9e7f\u5150\u5cf6\u56fd\u9053\u4e8b\u52d9\u6240","boring_xml_url":49,"boring_view_url":1,"soilmap_view_url":null,"soiltest_xml_url":0,"soiltest_view_url":0},{"id":203912,"code":"B4KJ201801009-2161","latitude":"31.80269","longitude":"130.28472","source_code":"QS20068972650200260013","project_name":"\u5357\u4e5d\u5dde\u897f\u56de\u308a\u81ea\u52d5\u8eca\u9053\u5ddd\u5185\u9688\u4e4b\u57ce\u9053\u8def\u5efa\u8a2d\u4e8b\u696d","survey_name":"\u5bae\u91cc\u5730\u533a\u5730\u8cea\u8abf\u67fb\u696d\u52d9","client_name":"\u56fd\u571f\u4ea4\u901a\u7701 \u4e5d\u5dde\u5730\u65b9\u6574\u5099\u5c40 \u9e7f\u5150\u5cf6\u56fd\u9053\u4e8b\u52d9\u6240","boring_xml_url":49,"boring_view_url":1,"soilmap_view_url":null,"soiltest_xml_url":0,"soiltest_view_url":0},{"id":203911,"code":"B4KJ201801009-2160","latitude":"31.80331","longitude":"130.28394","source_code":"QS20068972650200260012","project_name":"\u5357\u4e5d\u5dde\u897f\u56de\u308a\u81ea\u52d5\u8eca\u9053\u5ddd\u5185\u9688\u4e4b\u57ce\u9053\u8def\u5efa\u8a2d\u4e8b\u696d","survey_name":"\u5bae\u91cc\u5730\u533a\u5730\u8cea\u8abf\u67fb\u696d\u52d9","client_name":"\u56fd\u571f\u4ea4\u901a\u7701 \u4e5d\u5dde\u5730\u65b9\u6574\u5099\u5c40 \u9e7f\u5150\u5cf6\u56fd\u9053\u4e8b\u52d9\u6240","boring_xml_url":49,"boring_view_url":1,"soilmap_view_url":null,"soiltest_xml_url":0,"soiltest_view_url":0},{"id":203910,"code":"B4KJ201801009-2159","latitude":"31.80467","longitude":"130.28231","source_code":"QS20068972650200260011","project_name":"\u5357\u4e5d\u5dde\u897f\u56de\u308a\u81ea\u52d5\u8eca\u9053\u5ddd\u5185\u9688\u4e4b\u57ce\u9053\u8def\u5efa\u8a2d\u4e8b\u696d","survey_name":"\u5bae\u91cc\u5730\u533a\u5730\u8cea\u8abf\u67fb\u696d\u52d9","client_name":"\u56fd\u571f\u4ea4\u901a\u7701 \u4e5d\u5dde\u5730\u65b9\u6574\u5099\u5c40 \u9e7f\u5150\u5cf6\u56fd\u9053\u4e8b\u52d9\u6240","boring_xml_url":49,"boring_view_url":1,"soilmap_view_url":null,"soiltest_xml_url":0,"soiltest_view_url":0},{"id":203909,"code":"B4KJ201801009-2158","latitude":"31.80519","longitude":"130.28231","source_code":"QS20068972650200260010","project_name":"\u5357\u4e5d\u5dde\u897f\u56de\u308a\u81ea\u52d5\u8eca\u9053\u5ddd\u5185\u9688\u4e4b\u57ce\u9053\u8def\u5efa\u8a2d\u4e8b\u696d","survey_name":"\u5bae\u91cc\u5730\u533a\u5730\u8cea\u8abf\u67fb\u696d\u52d9","client_name":"\u56fd\u571f\u4ea4\u901a\u7701 \u4e5d\u5dde\u5730\u65b9\u6574\u5099\u5c40 \u9e7f\u5150\u5cf6\u56fd\u9053\u4e8b\u52d9\u6240","boring_xml_url":49,"boring_view_url":1,"soilmap_view_url":null,"soiltest_xml_url":0,"soiltest_view_url":0},{"id":203908,"code":"B4KJ201801009-2157","latitude":"31.80578","longitude":"130.28103","source_code":"QS20068972650200260009","project_name":"\u5357\u4e5d\u5dde\u897f\u56de\u308a\u81ea\u52d5\u8eca\u9053\u5ddd\u5185\u9688\u4e4b\u57ce\u9053\u8def\u5efa\u8a2d\u4e8b\u696d","survey_name":"\u5bae\u91cc\u5730\u533a\u5730\u8cea\u8abf\u67fb\u696d\u52d9","client_name":"\u56fd\u571f\u4ea4\u901a\u7701 \u4e5d\u5dde\u5730\u65b9\u6574\u5099\u5c40 \u9e7f\u5150\u5cf6\u56fd\u9053\u4e8b\u52d9\u6240","boring_xml_url":49,"boring_view_url":1,"soilmap_view_url":null,"soiltest_xml_url":0,"soiltest_view_url":0},{"id":203907,"code":"B4KJ201801009-2156","latitude":"31.80642","longitude":"130.27969","source_code":"QS20068972650200260008","project_name":"\u5357\u4e5d\u5dde\u897f\u56de\u308a\u81ea\u52d5\u8eca\u9053\u5ddd\u5185\u9688\u4e4b\u57ce\u9053\u8def\u5efa\u8a2d\u4e8b\u696d","survey_name":"\u5bae\u91cc\u5730\u533a\u5730\u8cea\u8abf\u67fb\u696d\u52d9","client_name":"\u56fd\u571f\u4ea4\u901a\u7701 \u4e5d\u5dde\u5730\u65b9\u6574\u5099\u5c40 \u9e7f\u5150\u5cf6\u56fd\u9053\u4e8b\u52d9\u6240","boring_xml_url":49,"boring_view_url":1,"soilmap_view_url":null,"soiltest_xml_url":0,"soiltest_view_url":0},{"id":203906,"code":"B4KJ201801009-2155","latitude":"31.80875","longitude":"130.27567","source_code":"QS20068972650200260007","project_name":"\u5357\u4e5d\u5dde\u897f\u56de\u308a\u81ea\u52d5\u8eca\u9053\u5ddd\u5185\u9688\u4e4b\u57ce\u9053\u8def\u5efa\u8a2d\u4e8b\u696d","survey_name":"\u5bae\u91cc\u5730\u533a\u5730\u8cea\u8abf\u67fb\u696d\u52d9","client_name":"\u56fd\u571f\u4ea4\u901a\u7701 \u4e5d\u5dde\u5730\u65b9\u6574\u5099\u5c40 \u9e7f\u5150\u5cf6\u56fd\u9053\u4e8b\u52d9\u6240","boring_xml_url":49,"boring_view_url":1,"soilmap_view_url":null,"soiltest_xml_url":0,"soiltest_view_url":0}]}}