{"header":{"xyz":{"source":[],"mosaic":false},"page":389,"raw":{"soiltest_result":"0","bbox":"57.598333,109.544722,1.933333,163.806111","page":"389"},"conditions":{"soiltest_result":0,"north":57.598333,"west":109.544722,"south":1.933333,"east":163.806111},"success":true,"message":""},"data":{"meta":{"total":212844,"page":389,"pages":7095,"count":30},"values":[{"id":548319,"code":"NGIC202200612-0008","latitude":"36.557391111111","longitude":"138.61508777778","source_code":"","project_name":"","survey_name":"R3\u5229\u6839\u7802\u9632\u7ba1\u5185\u5730\u8cea\u8abf\u67fb\u696d\u52d9","client_name":"\u56fd\u571f\u4ea4\u901a\u7701\u95a2\u6771\u5730\u65b9\u6574\u5099\u5c40\u5229\u6839\u5ddd\u6c34\u7cfb\u7802\u9632\u4e8b\u52d9\u6240","boring_xml_url":47,"boring_view_url":1,"soilmap_view_url":null,"soiltest_xml_url":0,"soiltest_view_url":0},{"id":548318,"code":"NGIC202200612-0007","latitude":"36.5575225","longitude":"138.61506027778","source_code":"","project_name":"","survey_name":"R3\u5229\u6839\u7802\u9632\u7ba1\u5185\u5730\u8cea\u8abf\u67fb\u696d\u52d9","client_name":"\u56fd\u571f\u4ea4\u901a\u7701\u95a2\u6771\u5730\u65b9\u6574\u5099\u5c40\u5229\u6839\u5ddd\u6c34\u7cfb\u7802\u9632\u4e8b\u52d9\u6240","boring_xml_url":47,"boring_view_url":1,"soilmap_view_url":null,"soiltest_xml_url":0,"soiltest_view_url":0},{"id":548317,"code":"NGIC202200612-0006","latitude":"36.557386111111","longitude":"138.61527611111","source_code":"","project_name":"","survey_name":"R3\u5229\u6839\u7802\u9632\u7ba1\u5185\u5730\u8cea\u8abf\u67fb\u696d\u52d9","client_name":"\u56fd\u571f\u4ea4\u901a\u7701\u95a2\u6771\u5730\u65b9\u6574\u5099\u5c40\u5229\u6839\u5ddd\u6c34\u7cfb\u7802\u9632\u4e8b\u52d9\u6240","boring_xml_url":47,"boring_view_url":1,"soilmap_view_url":null,"soiltest_xml_url":0,"soiltest_view_url":0},{"id":548316,"code":"NGIC202200612-0005","latitude":"36.557460833333","longitude":"138.61515555556","source_code":"","project_name":"","survey_name":"R3\u5229\u6839\u7802\u9632\u7ba1\u5185\u5730\u8cea\u8abf\u67fb\u696d\u52d9","client_name":"\u56fd\u571f\u4ea4\u901a\u7701\u95a2\u6771\u5730\u65b9\u6574\u5099\u5c40\u5229\u6839\u5ddd\u6c34\u7cfb\u7802\u9632\u4e8b\u52d9\u6240","boring_xml_url":47,"boring_view_url":1,"soilmap_view_url":null,"soiltest_xml_url":0,"soiltest_view_url":0},{"id":548315,"code":"NGIC202200612-0004","latitude":"36.765158611111","longitude":"139.23816027778","source_code":"","project_name":"","survey_name":"R3\u5229\u6839\u7802\u9632\u7ba1\u5185\u5730\u8cea\u8abf\u67fb\u696d\u52d9","client_name":"\u56fd\u571f\u4ea4\u901a\u7701\u95a2\u6771\u5730\u65b9\u6574\u5099\u5c40\u5229\u6839\u5ddd\u6c34\u7cfb\u7802\u9632\u4e8b\u52d9\u6240","boring_xml_url":47,"boring_view_url":1,"soilmap_view_url":null,"soiltest_xml_url":0,"soiltest_view_url":0},{"id":548314,"code":"NGIC202200612-0003","latitude":"36.765446944444","longitude":"139.23797","source_code":"","project_name":"","survey_name":"R3\u5229\u6839\u7802\u9632\u7ba1\u5185\u5730\u8cea\u8abf\u67fb\u696d\u52d9","client_name":"\u56fd\u571f\u4ea4\u901a\u7701\u95a2\u6771\u5730\u65b9\u6574\u5099\u5c40\u5229\u6839\u5ddd\u6c34\u7cfb\u7802\u9632\u4e8b\u52d9\u6240","boring_xml_url":47,"boring_view_url":1,"soilmap_view_url":null,"soiltest_xml_url":0,"soiltest_view_url":0},{"id":548313,"code":"NGIC202200612-0002","latitude":"36.764950277778","longitude":"139.23854305556","source_code":"","project_name":"","survey_name":"R3\u5229\u6839\u7802\u9632\u7ba1\u5185\u5730\u8cea\u8abf\u67fb\u696d\u52d9","client_name":"\u56fd\u571f\u4ea4\u901a\u7701\u95a2\u6771\u5730\u65b9\u6574\u5099\u5c40\u5229\u6839\u5ddd\u6c34\u7cfb\u7802\u9632\u4e8b\u52d9\u6240","boring_xml_url":47,"boring_view_url":1,"soilmap_view_url":null,"soiltest_xml_url":0,"soiltest_view_url":0},{"id":548312,"code":"NGIC202200612-0001","latitude":"36.765215833333","longitude":"139.23823666667","source_code":"","project_name":"","survey_name":"R3\u5229\u6839\u7802\u9632\u7ba1\u5185\u5730\u8cea\u8abf\u67fb\u696d\u52d9","client_name":"\u56fd\u571f\u4ea4\u901a\u7701\u95a2\u6771\u5730\u65b9\u6574\u5099\u5c40\u5229\u6839\u5ddd\u6c34\u7cfb\u7802\u9632\u4e8b\u52d9\u6240","boring_xml_url":47,"boring_view_url":1,"soilmap_view_url":null,"soiltest_xml_url":0,"soiltest_view_url":0},{"id":548288,"code":"NGIC202200541-0003","latitude":"34.466601305556","longitude":"133.76644055556","source_code":"","project_name":"","survey_name":"\u6c34\u5cf6\u6e2f\u6c34\u5cf6\u5730\u533a\u571f\u8cea\u8abf\u67fb","client_name":"\u56fd\u571f\u4ea4\u901a\u7701\u4e2d\u56fd\u5730\u65b9\u6574\u5099\u5c40\u5b87\u91ce\u6e2f\u6e7e\u4e8b\u52d9\u6240","boring_xml_url":47,"boring_view_url":1,"soilmap_view_url":71,"soiltest_xml_url":47,"soiltest_view_url":47},{"id":548287,"code":"NGIC202200541-0002","latitude":"34.46723825","longitude":"133.76642883333","source_code":"","project_name":"","survey_name":"\u6c34\u5cf6\u6e2f\u6c34\u5cf6\u5730\u533a\u571f\u8cea\u8abf\u67fb","client_name":"\u56fd\u571f\u4ea4\u901a\u7701\u4e2d\u56fd\u5730\u65b9\u6574\u5099\u5c40\u5b87\u91ce\u6e2f\u6e7e\u4e8b\u52d9\u6240","boring_xml_url":47,"boring_view_url":1,"soilmap_view_url":71,"soiltest_xml_url":47,"soiltest_view_url":47},{"id":548286,"code":"NGIC202200541-0001","latitude":"34.467591527778","longitude":"133.76643719444","source_code":"","project_name":"","survey_name":"\u6c34\u5cf6\u6e2f\u6c34\u5cf6\u5730\u533a\u571f\u8cea\u8abf\u67fb","client_name":"\u56fd\u571f\u4ea4\u901a\u7701\u4e2d\u56fd\u5730\u65b9\u6574\u5099\u5c40\u5b87\u91ce\u6e2f\u6e7e\u4e8b\u52d9\u6240","boring_xml_url":47,"boring_view_url":1,"soilmap_view_url":71,"soiltest_xml_url":47,"soiltest_view_url":47},{"id":548272,"code":"NGIC202200547-0007","latitude":"37.110591666667","longitude":"138.73136388889","source_code":"","project_name":"","survey_name":"\u4ee4\u548c3\u5e74\u5ea6\u56fd\u9053253\u53f7\u5341\u65e5\u753a\u9053\u8def\u5730\u8cea\u8abf\u67fb\u696d\u52d9","client_name":"\u56fd\u571f\u4ea4\u901a\u7701\u5317\u9678\u5730\u65b9\u6574\u5099\u5c40\u9577\u5ca1\u56fd\u9053\u4e8b\u52d9\u6240","boring_xml_url":47,"boring_view_url":1,"soilmap_view_url":null,"soiltest_xml_url":0,"soiltest_view_url":0},{"id":548271,"code":"NGIC202200547-0006","latitude":"37.1115","longitude":"138.73028333333","source_code":"","project_name":"","survey_name":"\u4ee4\u548c3\u5e74\u5ea6\u56fd\u9053253\u53f7\u5341\u65e5\u753a\u9053\u8def\u5730\u8cea\u8abf\u67fb\u696d\u52d9","client_name":"\u56fd\u571f\u4ea4\u901a\u7701\u5317\u9678\u5730\u65b9\u6574\u5099\u5c40\u9577\u5ca1\u56fd\u9053\u4e8b\u52d9\u6240","boring_xml_url":47,"boring_view_url":1,"soilmap_view_url":null,"soiltest_xml_url":47,"soiltest_view_url":47},{"id":548270,"code":"NGIC202200547-0005","latitude":"37.114108333333","longitude":"138.72766388889","source_code":"","project_name":"","survey_name":"\u4ee4\u548c3\u5e74\u5ea6\u56fd\u9053253\u53f7\u5341\u65e5\u753a\u9053\u8def\u5730\u8cea\u8abf\u67fb\u696d\u52d9","client_name":"\u56fd\u571f\u4ea4\u901a\u7701\u5317\u9678\u5730\u65b9\u6574\u5099\u5c40\u9577\u5ca1\u56fd\u9053\u4e8b\u52d9\u6240","boring_xml_url":47,"boring_view_url":1,"soilmap_view_url":null,"soiltest_xml_url":47,"soiltest_view_url":47},{"id":548269,"code":"NGIC202200547-0004","latitude":"37.117369444444","longitude":"138.72509444444","source_code":"","project_name":"","survey_name":"\u4ee4\u548c3\u5e74\u5ea6\u56fd\u9053253\u53f7\u5341\u65e5\u753a\u9053\u8def\u5730\u8cea\u8abf\u67fb\u696d\u52d9","client_name":"\u56fd\u571f\u4ea4\u901a\u7701\u5317\u9678\u5730\u65b9\u6574\u5099\u5c40\u9577\u5ca1\u56fd\u9053\u4e8b\u52d9\u6240","boring_xml_url":47,"boring_view_url":1,"soilmap_view_url":null,"soiltest_xml_url":47,"soiltest_view_url":47},{"id":548268,"code":"NGIC202200547-0003","latitude":"37.119541666667","longitude":"138.72300555556","source_code":"","project_name":"","survey_name":"\u4ee4\u548c3\u5e74\u5ea6\u56fd\u9053253\u53f7\u5341\u65e5\u753a\u9053\u8def\u5730\u8cea\u8abf\u67fb\u696d\u52d9","client_name":"\u56fd\u571f\u4ea4\u901a\u7701\u5317\u9678\u5730\u65b9\u6574\u5099\u5c40\u9577\u5ca1\u56fd\u9053\u4e8b\u52d9\u6240","boring_xml_url":47,"boring_view_url":1,"soilmap_view_url":null,"soiltest_xml_url":47,"soiltest_view_url":47},{"id":548267,"code":"NGIC202200547-0002","latitude":"37.119588888889","longitude":"138.7228","source_code":"","project_name":"","survey_name":"\u4ee4\u548c3\u5e74\u5ea6\u56fd\u9053253\u53f7\u5341\u65e5\u753a\u9053\u8def\u5730\u8cea\u8abf\u67fb\u696d\u52d9","client_name":"\u56fd\u571f\u4ea4\u901a\u7701\u5317\u9678\u5730\u65b9\u6574\u5099\u5c40\u9577\u5ca1\u56fd\u9053\u4e8b\u52d9\u6240","boring_xml_url":47,"boring_view_url":1,"soilmap_view_url":null,"soiltest_xml_url":47,"soiltest_view_url":47},{"id":548266,"code":"NGIC202200547-0001","latitude":"37.121261111111","longitude":"138.72044166667","source_code":"","project_name":"","survey_name":"\u4ee4\u548c3\u5e74\u5ea6\u56fd\u9053253\u53f7\u5341\u65e5\u753a\u9053\u8def\u5730\u8cea\u8abf\u67fb\u696d\u52d9","client_name":"\u56fd\u571f\u4ea4\u901a\u7701\u5317\u9678\u5730\u65b9\u6574\u5099\u5c40\u9577\u5ca1\u56fd\u9053\u4e8b\u52d9\u6240","boring_xml_url":47,"boring_view_url":1,"soilmap_view_url":null,"soiltest_xml_url":47,"soiltest_view_url":47},{"id":548252,"code":"NGIC202200579-0006","latitude":"40.581025","longitude":"141.25963611111","source_code":"","project_name":"","survey_name":"\u5357\u90e8\u5730\u533a\u9053\u8def\u88dc\u4fee\u8a2d\u8a08\u696d\u52d9","client_name":"\u56fd\u571f\u4ea4\u901a\u7701\u6771\u5317\u5730\u65b9\u6574\u5099\u5c40\u9752\u68ee\u6cb3\u5ddd\u56fd\u9053\u4e8b\u52d9\u6240","boring_xml_url":47,"boring_view_url":1,"soilmap_view_url":null,"soiltest_xml_url":0,"soiltest_view_url":0},{"id":548251,"code":"NGIC202200579-0005","latitude":"40.580988888889","longitude":"141.25937222222","source_code":"","project_name":"","survey_name":"\u5357\u90e8\u5730\u533a\u9053\u8def\u88dc\u4fee\u8a2d\u8a08\u696d\u52d9","client_name":"\u56fd\u571f\u4ea4\u901a\u7701\u6771\u5317\u5730\u65b9\u6574\u5099\u5c40\u9752\u68ee\u6cb3\u5ddd\u56fd\u9053\u4e8b\u52d9\u6240","boring_xml_url":47,"boring_view_url":1,"soilmap_view_url":null,"soiltest_xml_url":0,"soiltest_view_url":0},{"id":548250,"code":"NGIC202200579-0004","latitude":"40.580963888889","longitude":"141.25917222222","source_code":"","project_name":"","survey_name":"\u5357\u90e8\u5730\u533a\u9053\u8def\u88dc\u4fee\u8a2d\u8a08\u696d\u52d9","client_name":"\u56fd\u571f\u4ea4\u901a\u7701\u6771\u5317\u5730\u65b9\u6574\u5099\u5c40\u9752\u68ee\u6cb3\u5ddd\u56fd\u9053\u4e8b\u52d9\u6240","boring_xml_url":47,"boring_view_url":1,"soilmap_view_url":null,"soiltest_xml_url":0,"soiltest_view_url":0},{"id":548249,"code":"NGIC202200579-0003","latitude":"40.581488888889","longitude":"141.25973055556","source_code":"","project_name":"","survey_name":"\u5357\u90e8\u5730\u533a\u9053\u8def\u88dc\u4fee\u8a2d\u8a08\u696d\u52d9","client_name":"\u56fd\u571f\u4ea4\u901a\u7701\u6771\u5317\u5730\u65b9\u6574\u5099\u5c40\u9752\u68ee\u6cb3\u5ddd\u56fd\u9053\u4e8b\u52d9\u6240","boring_xml_url":47,"boring_view_url":1,"soilmap_view_url":null,"soiltest_xml_url":47,"soiltest_view_url":47},{"id":548248,"code":"NGIC202200579-0002","latitude":"40.581519444444","longitude":"141.25996111111","source_code":"","project_name":"","survey_name":"\u5357\u90e8\u5730\u533a\u9053\u8def\u88dc\u4fee\u8a2d\u8a08\u696d\u52d9","client_name":"\u56fd\u571f\u4ea4\u901a\u7701\u6771\u5317\u5730\u65b9\u6574\u5099\u5c40\u9752\u68ee\u6cb3\u5ddd\u56fd\u9053\u4e8b\u52d9\u6240","boring_xml_url":47,"boring_view_url":1,"soilmap_view_url":null,"soiltest_xml_url":47,"soiltest_view_url":47},{"id":548247,"code":"NGIC202200579-0001","latitude":"40.58155","longitude":"141.26019722222","source_code":"","project_name":"","survey_name":"\u5357\u90e8\u5730\u533a\u9053\u8def\u88dc\u4fee\u8a2d\u8a08\u696d\u52d9","client_name":"\u56fd\u571f\u4ea4\u901a\u7701\u6771\u5317\u5730\u65b9\u6574\u5099\u5c40\u9752\u68ee\u6cb3\u5ddd\u56fd\u9053\u4e8b\u52d9\u6240","boring_xml_url":47,"boring_view_url":1,"soilmap_view_url":null,"soiltest_xml_url":0,"soiltest_view_url":0},{"id":548046,"code":"NGIC202200540-0003","latitude":"34.4825","longitude":"133.46944444444","source_code":"","project_name":"\u4ee4\u548c3\u5e74\u5ea6\u7b20\u5ca1\u30d0\u30a4\u30d1\u30b9\u92fc\u7ba1\u5730\u533a\u7b2c3\u6539\u826f\u5de5\u4e8b","survey_name":"\u4ee4\u548c3\u5e74\u5ea6\u7b20\u5ca1\u30d0\u30a4\u30d1\u30b9\u92fc\u7ba1\u5730\u533a\u7b2c3\u6539\u826f\u5de5\u4e8b","client_name":"\u56fd\u571f\u4ea4\u901a\u7701\u4e2d\u56fd\u5730\u65b9\u6574\u5099\u5c40\u5ca1\u5c71\u56fd\u9053\u4e8b\u52d9\u6240","boring_xml_url":47,"boring_view_url":1,"soilmap_view_url":null,"soiltest_xml_url":0,"soiltest_view_url":0},{"id":548045,"code":"NGIC202200540-0002","latitude":"34.479722222222","longitude":"133.47222222222","source_code":"","project_name":"\u4ee4\u548c3\u5e74\u5ea6\u7b20\u5ca1\u30d0\u30a4\u30d1\u30b9\u92fc\u7ba1\u5730\u533a\u7b2c3\u6539\u826f\u5de5\u4e8b","survey_name":"\u4ee4\u548c3\u5e74\u5ea6\u7b20\u5ca1\u30d0\u30a4\u30d1\u30b9\u92fc\u7ba1\u5730\u533a\u7b2c3\u6539\u826f\u5de5\u4e8b","client_name":"\u56fd\u571f\u4ea4\u901a\u7701\u4e2d\u56fd\u5730\u65b9\u6574\u5099\u5c40\u5ca1\u5c71\u56fd\u9053\u4e8b\u52d9\u6240","boring_xml_url":47,"boring_view_url":1,"soilmap_view_url":null,"soiltest_xml_url":0,"soiltest_view_url":0},{"id":548044,"code":"NGIC202200540-0001","latitude":"34.478055555556","longitude":"133.47361111111","source_code":"","project_name":"\u4ee4\u548c3\u5e74\u5ea6\u7b20\u5ca1\u30d0\u30a4\u30d1\u30b9\u92fc\u7ba1\u5730\u533a\u7b2c3\u6539\u826f\u5de5\u4e8b","survey_name":"\u4ee4\u548c3\u5e74\u5ea6\u7b20\u5ca1\u30d0\u30a4\u30d1\u30b9\u92fc\u7ba1\u5730\u533a\u7b2c3\u6539\u826f\u5de5\u4e8b","client_name":"\u56fd\u571f\u4ea4\u901a\u7701\u4e2d\u56fd\u5730\u65b9\u6574\u5099\u5c40\u5ca1\u5c71\u56fd\u9053\u4e8b\u52d9\u6240","boring_xml_url":47,"boring_view_url":1,"soilmap_view_url":null,"soiltest_xml_url":0,"soiltest_view_url":0},{"id":548043,"code":"NGIC202200539-0020","latitude":"32.929436111111","longitude":"131.30286944444","source_code":"","project_name":"","survey_name":"\u4ee4\u548c3\u5e74\u5ea6\u7af9\u7530\u963f\u8607\u9053\u8def\u5730\u8cea\u8abf\u67fb(\u305d\u306e1)\u696d\u52d9","client_name":"\u56fd\u571f\u4ea4\u901a\u7701\u4e5d\u5dde\u5730\u65b9\u6574\u5099\u5c40\u4f50\u4f2f\u6cb3\u5ddd\u56fd\u9053\u4e8b\u52d9\u6240\u5de5\u52d9\u8ab2","boring_xml_url":47,"boring_view_url":1,"soilmap_view_url":null,"soiltest_xml_url":47,"soiltest_view_url":47},{"id":548042,"code":"NGIC202200539-0019","latitude":"32.928855555556","longitude":"131.30513333333","source_code":"","project_name":"","survey_name":"\u4ee4\u548c3\u5e74\u5ea6\u7af9\u7530\u963f\u8607\u9053\u8def\u5730\u8cea\u8abf\u67fb(\u305d\u306e1)\u696d\u52d9","client_name":"\u56fd\u571f\u4ea4\u901a\u7701\u4e5d\u5dde\u5730\u65b9\u6574\u5099\u5c40\u4f50\u4f2f\u6cb3\u5ddd\u56fd\u9053\u4e8b\u52d9\u6240\u5de5\u52d9\u8ab2","boring_xml_url":47,"boring_view_url":1,"soilmap_view_url":null,"soiltest_xml_url":47,"soiltest_view_url":47},{"id":548041,"code":"NGIC202200539-0018","latitude":"32.929308333333","longitude":"131.30814166667","source_code":"","project_name":"","survey_name":"\u4ee4\u548c3\u5e74\u5ea6\u7af9\u7530\u963f\u8607\u9053\u8def\u5730\u8cea\u8abf\u67fb(\u305d\u306e1)\u696d\u52d9","client_name":"\u56fd\u571f\u4ea4\u901a\u7701\u4e5d\u5dde\u5730\u65b9\u6574\u5099\u5c40\u4f50\u4f2f\u6cb3\u5ddd\u56fd\u9053\u4e8b\u52d9\u6240\u5de5\u52d9\u8ab2","boring_xml_url":47,"boring_view_url":1,"soilmap_view_url":null,"soiltest_xml_url":47,"soiltest_view_url":47}]}}