{"header":{"xyz":{"source":[],"mosaic":false},"page":39,"raw":{"soiltest_result":"0","bbox":"57.598333,109.544722,1.933333,163.806111","page":"39"},"conditions":{"soiltest_result":0,"north":57.598333,"west":109.544722,"south":1.933333,"east":163.806111},"success":true,"message":""},"data":{"meta":{"total":212844,"page":39,"pages":7095,"count":30},"values":[{"id":700347,"code":"NGIC202305701-0002","latitude":"37.281991666667","longitude":"140.41315277778","source_code":"","project_name":"","survey_name":"\u4ee4\u548c5\u5e74\u5ea6 \u963f\u6b66\u9688\u5ddd\u4e0a\u6d41\u9808\u8cc0\u5ddd\u5730\u533a\u5824\u9632\u8a2d\u8a08\u7b49\u696d\u52d9","client_name":"\u56fd\u571f\u4ea4\u901a\u7701\u6771\u5317\u5730\u65b9\u6574\u5099\u5c40\u798f\u5cf6\u6cb3\u5ddd\u56fd\u9053\u4e8b\u52d9\u6240","boring_xml_url":47,"boring_view_url":1,"soilmap_view_url":null,"soiltest_xml_url":47,"soiltest_view_url":47},{"id":700346,"code":"NGIC202305701-0001","latitude":"37.284483333333","longitude":"140.4137","source_code":"","project_name":"","survey_name":"\u4ee4\u548c5\u5e74\u5ea6 \u963f\u6b66\u9688\u5ddd\u4e0a\u6d41\u9808\u8cc0\u5ddd\u5730\u533a\u5824\u9632\u8a2d\u8a08\u7b49\u696d\u52d9","client_name":"\u56fd\u571f\u4ea4\u901a\u7701\u6771\u5317\u5730\u65b9\u6574\u5099\u5c40\u798f\u5cf6\u6cb3\u5ddd\u56fd\u9053\u4e8b\u52d9\u6240","boring_xml_url":47,"boring_view_url":1,"soilmap_view_url":null,"soiltest_xml_url":47,"soiltest_view_url":47},{"id":700324,"code":"NGIC202305430-0007","latitude":"32.221109444444","longitude":"130.84380083333","source_code":"","project_name":"","survey_name":"\u4ee4\u548c5\u5e74\u5ea6 \u899a\u4e95\u4e00\u6b66\u7dda\u707d\u5bb3\u5fa9\u65e7\u7403\u78e8\u5927\u6a4b\u5730\u8cea\u8abf\u67fb\u89e3\u6790\u691c\u8a0e\u696d\u52d9","client_name":"\u56fd\u571f\u4ea4\u901a\u7701\u4e5d\u5dde\u5730\u65b9\u6574\u5099\u5c40\u516b\u4ee3\u5fa9\u8208\u4e8b\u52d9\u6240\u3000\u5de5\u52d9\u7b2c\u4e8c\u8ab2","boring_xml_url":47,"boring_view_url":1,"soilmap_view_url":null,"soiltest_xml_url":0,"soiltest_view_url":0},{"id":700323,"code":"NGIC202305430-0006","latitude":"32.221620555556","longitude":"130.84379138889","source_code":"","project_name":"","survey_name":"\u4ee4\u548c5\u5e74\u5ea6 \u899a\u4e95\u4e00\u6b66\u7dda\u707d\u5bb3\u5fa9\u65e7\u7403\u78e8\u5927\u6a4b\u5730\u8cea\u8abf\u67fb\u89e3\u6790\u691c\u8a0e\u696d\u52d9","client_name":"\u56fd\u571f\u4ea4\u901a\u7701\u4e5d\u5dde\u5730\u65b9\u6574\u5099\u5c40\u516b\u4ee3\u5fa9\u8208\u4e8b\u52d9\u6240\u3000\u5de5\u52d9\u7b2c\u4e8c\u8ab2","boring_xml_url":47,"boring_view_url":1,"soilmap_view_url":null,"soiltest_xml_url":47,"soiltest_view_url":47},{"id":700322,"code":"NGIC202305430-0005","latitude":"32.221676111111","longitude":"130.84389583333","source_code":"","project_name":"","survey_name":"\u4ee4\u548c5\u5e74\u5ea6 \u899a\u4e95\u4e00\u6b66\u7dda\u707d\u5bb3\u5fa9\u65e7\u7403\u78e8\u5927\u6a4b\u5730\u8cea\u8abf\u67fb\u89e3\u6790\u691c\u8a0e\u696d\u52d9","client_name":"\u56fd\u571f\u4ea4\u901a\u7701\u4e5d\u5dde\u5730\u65b9\u6574\u5099\u5c40\u516b\u4ee3\u5fa9\u8208\u4e8b\u52d9\u6240\u3000\u5de5\u52d9\u7b2c\u4e8c\u8ab2","boring_xml_url":47,"boring_view_url":1,"soilmap_view_url":null,"soiltest_xml_url":0,"soiltest_view_url":0},{"id":700321,"code":"NGIC202305430-0004","latitude":"32.2225525","longitude":"130.84377111111","source_code":"","project_name":"","survey_name":"\u4ee4\u548c5\u5e74\u5ea6 \u899a\u4e95\u4e00\u6b66\u7dda\u707d\u5bb3\u5fa9\u65e7\u7403\u78e8\u5927\u6a4b\u5730\u8cea\u8abf\u67fb\u89e3\u6790\u691c\u8a0e\u696d\u52d9","client_name":"\u56fd\u571f\u4ea4\u901a\u7701\u4e5d\u5dde\u5730\u65b9\u6574\u5099\u5c40\u516b\u4ee3\u5fa9\u8208\u4e8b\u52d9\u6240\u3000\u5de5\u52d9\u7b2c\u4e8c\u8ab2","boring_xml_url":47,"boring_view_url":1,"soilmap_view_url":null,"soiltest_xml_url":0,"soiltest_view_url":0},{"id":700320,"code":"NGIC202305430-0003","latitude":"32.223487222222","longitude":"130.84375472222","source_code":"","project_name":"","survey_name":"\u4ee4\u548c5\u5e74\u5ea6 \u899a\u4e95\u4e00\u6b66\u7dda\u707d\u5bb3\u5fa9\u65e7\u7403\u78e8\u5927\u6a4b\u5730\u8cea\u8abf\u67fb\u89e3\u6790\u691c\u8a0e\u696d\u52d9","client_name":"\u56fd\u571f\u4ea4\u901a\u7701\u4e5d\u5dde\u5730\u65b9\u6574\u5099\u5c40\u516b\u4ee3\u5fa9\u8208\u4e8b\u52d9\u6240\u3000\u5de5\u52d9\u7b2c\u4e8c\u8ab2","boring_xml_url":47,"boring_view_url":1,"soilmap_view_url":null,"soiltest_xml_url":0,"soiltest_view_url":0},{"id":700319,"code":"NGIC202305430-0002","latitude":"32.223542777778","longitude":"130.84386","source_code":"","project_name":"","survey_name":"\u4ee4\u548c5\u5e74\u5ea6 \u899a\u4e95\u4e00\u6b66\u7dda\u707d\u5bb3\u5fa9\u65e7\u7403\u78e8\u5927\u6a4b\u5730\u8cea\u8abf\u67fb\u89e3\u6790\u691c\u8a0e\u696d\u52d9","client_name":"\u56fd\u571f\u4ea4\u901a\u7701\u4e5d\u5dde\u5730\u65b9\u6574\u5099\u5c40\u516b\u4ee3\u5fa9\u8208\u4e8b\u52d9\u6240\u3000\u5de5\u52d9\u7b2c\u4e8c\u8ab2","boring_xml_url":47,"boring_view_url":1,"soilmap_view_url":null,"soiltest_xml_url":0,"soiltest_view_url":0},{"id":700318,"code":"NGIC202305430-0001","latitude":"32.224122777778","longitude":"130.84371916667","source_code":"","project_name":"","survey_name":"\u4ee4\u548c5\u5e74\u5ea6 \u899a\u4e95\u4e00\u6b66\u7dda\u707d\u5bb3\u5fa9\u65e7\u7403\u78e8\u5927\u6a4b\u5730\u8cea\u8abf\u67fb\u89e3\u6790\u691c\u8a0e\u696d\u52d9","client_name":"\u56fd\u571f\u4ea4\u901a\u7701\u4e5d\u5dde\u5730\u65b9\u6574\u5099\u5c40\u516b\u4ee3\u5fa9\u8208\u4e8b\u52d9\u6240\u3000\u5de5\u52d9\u7b2c\u4e8c\u8ab2","boring_xml_url":47,"boring_view_url":1,"soilmap_view_url":null,"soiltest_xml_url":0,"soiltest_view_url":0},{"id":700297,"code":"NGIC202305648-0001","latitude":"38.502191666667","longitude":"141.28598333333","source_code":"","project_name":"\u5357\u4e09\u9678\u6cbf\u5cb8\u56fd\u9053\u7ba1\u5185\u9053\u8def\u69cb\u9020\u7269\u8a2d\u8a08\u696d\u52d9","survey_name":"\u5357\u4e09\u9678\u6cbf\u5cb8\u56fd\u9053\u7ba1\u5185\u9053\u8def\u69cb\u9020\u7269\u8a2d\u8a08\u696d\u52d9","client_name":"\u56fd\u571f\u4ea4\u901a\u7701\u6771\u5317\u5730\u65b9\u6574\u5099\u5c40\u5357\u4e09\u9678\u6cbf\u5cb8\u56fd\u9053\u4e8b\u52d9\u6240","boring_xml_url":47,"boring_view_url":1,"soilmap_view_url":null,"soiltest_xml_url":0,"soiltest_view_url":0},{"id":700261,"code":"NGIC202305570-0020","latitude":"34.827928055556","longitude":"137.31717277778","source_code":"","project_name":"","survey_name":"\u4ee4\u548c5\u5e74\u5ea6\u540d\u56db\u56fd\u9053\u4e8b\u52d9\u6240\u7ba1\u5185\u5730\u8cea\u8abf\u67fb\u696d\u52d9","client_name":"\u56fd\u571f\u4ea4\u901a\u7701\u4e2d\u90e8\u5730\u65b9\u6574\u5099\u5c40\u540d\u56db\u56fd\u9053\u4e8b\u52d9\u6240","boring_xml_url":47,"boring_view_url":1,"soilmap_view_url":null,"soiltest_xml_url":0,"soiltest_view_url":0},{"id":700260,"code":"NGIC202305570-0019","latitude":"34.828747222222","longitude":"137.31614444444","source_code":"","project_name":"","survey_name":"\u4ee4\u548c5\u5e74\u5ea6\u540d\u56db\u56fd\u9053\u4e8b\u52d9\u6240\u7ba1\u5185\u5730\u8cea\u8abf\u67fb\u696d\u52d9","client_name":"\u56fd\u571f\u4ea4\u901a\u7701\u4e2d\u90e8\u5730\u65b9\u6574\u5099\u5c40\u540d\u56db\u56fd\u9053\u4e8b\u52d9\u6240","boring_xml_url":47,"boring_view_url":1,"soilmap_view_url":null,"soiltest_xml_url":0,"soiltest_view_url":0},{"id":700259,"code":"NGIC202305570-0018","latitude":"34.829103888889","longitude":"137.31551388889","source_code":"","project_name":"","survey_name":"\u4ee4\u548c5\u5e74\u5ea6\u540d\u56db\u56fd\u9053\u4e8b\u52d9\u6240\u7ba1\u5185\u5730\u8cea\u8abf\u67fb\u696d\u52d9","client_name":"\u56fd\u571f\u4ea4\u901a\u7701\u4e2d\u90e8\u5730\u65b9\u6574\u5099\u5c40\u540d\u56db\u56fd\u9053\u4e8b\u52d9\u6240","boring_xml_url":47,"boring_view_url":1,"soilmap_view_url":null,"soiltest_xml_url":0,"soiltest_view_url":0},{"id":700258,"code":"NGIC202305570-0017","latitude":"34.97128","longitude":"136.84386027778","source_code":"","project_name":"","survey_name":"\u4ee4\u548c5\u5e74\u5ea6\u540d\u56db\u56fd\u9053\u4e8b\u52d9\u6240\u7ba1\u5185\u5730\u8cea\u8abf\u67fb\u696d\u52d9","client_name":"\u56fd\u571f\u4ea4\u901a\u7701\u4e2d\u90e8\u5730\u65b9\u6574\u5099\u5c40\u540d\u56db\u56fd\u9053\u4e8b\u52d9\u6240","boring_xml_url":47,"boring_view_url":1,"soilmap_view_url":null,"soiltest_xml_url":47,"soiltest_view_url":47},{"id":700257,"code":"NGIC202305570-0016","latitude":"35.1044475","longitude":"137.14464777778","source_code":"","project_name":"","survey_name":"\u4ee4\u548c5\u5e74\u5ea6\u540d\u56db\u56fd\u9053\u4e8b\u52d9\u6240\u7ba1\u5185\u5730\u8cea\u8abf\u67fb\u696d\u52d9","client_name":"\u56fd\u571f\u4ea4\u901a\u7701\u4e2d\u90e8\u5730\u65b9\u6574\u5099\u5c40\u540d\u56db\u56fd\u9053\u4e8b\u52d9\u6240","boring_xml_url":47,"boring_view_url":1,"soilmap_view_url":null,"soiltest_xml_url":47,"soiltest_view_url":47},{"id":700256,"code":"NGIC202305570-0015","latitude":"35.104793055556","longitude":"137.14452194444","source_code":"","project_name":"","survey_name":"\u4ee4\u548c5\u5e74\u5ea6\u540d\u56db\u56fd\u9053\u4e8b\u52d9\u6240\u7ba1\u5185\u5730\u8cea\u8abf\u67fb\u696d\u52d9","client_name":"\u56fd\u571f\u4ea4\u901a\u7701\u4e2d\u90e8\u5730\u65b9\u6574\u5099\u5c40\u540d\u56db\u56fd\u9053\u4e8b\u52d9\u6240","boring_xml_url":47,"boring_view_url":1,"soilmap_view_url":null,"soiltest_xml_url":0,"soiltest_view_url":0},{"id":700255,"code":"NGIC202305570-0014","latitude":"35.104394444444","longitude":"137.14399166667","source_code":"","project_name":"","survey_name":"\u4ee4\u548c5\u5e74\u5ea6\u540d\u56db\u56fd\u9053\u4e8b\u52d9\u6240\u7ba1\u5185\u5730\u8cea\u8abf\u67fb\u696d\u52d9","client_name":"\u56fd\u571f\u4ea4\u901a\u7701\u4e2d\u90e8\u5730\u65b9\u6574\u5099\u5c40\u540d\u56db\u56fd\u9053\u4e8b\u52d9\u6240","boring_xml_url":47,"boring_view_url":1,"soilmap_view_url":null,"soiltest_xml_url":0,"soiltest_view_url":0},{"id":700254,"code":"NGIC202305570-0013","latitude":"35.085505555556","longitude":"137.12143833333","source_code":"","project_name":"","survey_name":"\u4ee4\u548c5\u5e74\u5ea6\u540d\u56db\u56fd\u9053\u4e8b\u52d9\u6240\u7ba1\u5185\u5730\u8cea\u8abf\u67fb\u696d\u52d9","client_name":"\u56fd\u571f\u4ea4\u901a\u7701\u4e2d\u90e8\u5730\u65b9\u6574\u5099\u5c40\u540d\u56db\u56fd\u9053\u4e8b\u52d9\u6240","boring_xml_url":47,"boring_view_url":1,"soilmap_view_url":null,"soiltest_xml_url":0,"soiltest_view_url":0},{"id":700253,"code":"NGIC202305570-0012","latitude":"35.085384722222","longitude":"137.12142333333","source_code":"","project_name":"","survey_name":"\u4ee4\u548c5\u5e74\u5ea6\u540d\u56db\u56fd\u9053\u4e8b\u52d9\u6240\u7ba1\u5185\u5730\u8cea\u8abf\u67fb\u696d\u52d9","client_name":"\u56fd\u571f\u4ea4\u901a\u7701\u4e2d\u90e8\u5730\u65b9\u6574\u5099\u5c40\u540d\u56db\u56fd\u9053\u4e8b\u52d9\u6240","boring_xml_url":47,"boring_view_url":1,"soilmap_view_url":null,"soiltest_xml_url":0,"soiltest_view_url":0},{"id":700252,"code":"NGIC202305570-0011","latitude":"34.971297222222","longitude":"136.84329444444","source_code":"","project_name":"","survey_name":"\u4ee4\u548c5\u5e74\u5ea6\u540d\u56db\u56fd\u9053\u4e8b\u52d9\u6240\u7ba1\u5185\u5730\u8cea\u8abf\u67fb\u696d\u52d9","client_name":"\u56fd\u571f\u4ea4\u901a\u7701\u4e2d\u90e8\u5730\u65b9\u6574\u5099\u5c40\u540d\u56db\u56fd\u9053\u4e8b\u52d9\u6240","boring_xml_url":47,"boring_view_url":1,"soilmap_view_url":null,"soiltest_xml_url":47,"soiltest_view_url":47},{"id":700251,"code":"NGIC202305570-0010","latitude":"34.980963888889","longitude":"136.84931138889","source_code":"","project_name":"","survey_name":"\u4ee4\u548c5\u5e74\u5ea6\u540d\u56db\u56fd\u9053\u4e8b\u52d9\u6240\u7ba1\u5185\u5730\u8cea\u8abf\u67fb\u696d\u52d9","client_name":"\u56fd\u571f\u4ea4\u901a\u7701\u4e2d\u90e8\u5730\u65b9\u6574\u5099\u5c40\u540d\u56db\u56fd\u9053\u4e8b\u52d9\u6240","boring_xml_url":47,"boring_view_url":1,"soilmap_view_url":null,"soiltest_xml_url":47,"soiltest_view_url":47},{"id":700250,"code":"NGIC202305570-0009","latitude":"34.981308333333","longitude":"136.84985277778","source_code":"","project_name":"","survey_name":"\u4ee4\u548c5\u5e74\u5ea6\u540d\u56db\u56fd\u9053\u4e8b\u52d9\u6240\u7ba1\u5185\u5730\u8cea\u8abf\u67fb\u696d\u52d9","client_name":"\u56fd\u571f\u4ea4\u901a\u7701\u4e2d\u90e8\u5730\u65b9\u6574\u5099\u5c40\u540d\u56db\u56fd\u9053\u4e8b\u52d9\u6240","boring_xml_url":47,"boring_view_url":1,"soilmap_view_url":null,"soiltest_xml_url":47,"soiltest_view_url":47},{"id":700249,"code":"NGIC202305570-0008","latitude":"34.973718888889","longitude":"136.84383972222","source_code":"","project_name":"","survey_name":"\u4ee4\u548c5\u5e74\u5ea6\u540d\u56db\u56fd\u9053\u4e8b\u52d9\u6240\u7ba1\u5185\u5730\u8cea\u8abf\u67fb\u696d\u52d9","client_name":"\u56fd\u571f\u4ea4\u901a\u7701\u4e2d\u90e8\u5730\u65b9\u6574\u5099\u5c40\u540d\u56db\u56fd\u9053\u4e8b\u52d9\u6240","boring_xml_url":47,"boring_view_url":1,"soilmap_view_url":null,"soiltest_xml_url":0,"soiltest_view_url":0},{"id":700248,"code":"NGIC202305570-0007","latitude":"34.973947222222","longitude":"136.844045","source_code":"","project_name":"","survey_name":"\u4ee4\u548c5\u5e74\u5ea6\u540d\u56db\u56fd\u9053\u4e8b\u52d9\u6240\u7ba1\u5185\u5730\u8cea\u8abf\u67fb\u696d\u52d9","client_name":"\u56fd\u571f\u4ea4\u901a\u7701\u4e2d\u90e8\u5730\u65b9\u6574\u5099\u5c40\u540d\u56db\u56fd\u9053\u4e8b\u52d9\u6240","boring_xml_url":47,"boring_view_url":1,"soilmap_view_url":null,"soiltest_xml_url":0,"soiltest_view_url":0},{"id":700247,"code":"NGIC202305570-0006","latitude":"34.968910833333","longitude":"136.84359694444","source_code":"","project_name":"","survey_name":"\u4ee4\u548c5\u5e74\u5ea6\u540d\u56db\u56fd\u9053\u4e8b\u52d9\u6240\u7ba1\u5185\u5730\u8cea\u8abf\u67fb\u696d\u52d9","client_name":"\u56fd\u571f\u4ea4\u901a\u7701\u4e2d\u90e8\u5730\u65b9\u6574\u5099\u5c40\u540d\u56db\u56fd\u9053\u4e8b\u52d9\u6240","boring_xml_url":47,"boring_view_url":1,"soilmap_view_url":null,"soiltest_xml_url":0,"soiltest_view_url":0},{"id":700246,"code":"NGIC202305570-0005","latitude":"34.972830555556","longitude":"136.84411666667","source_code":"","project_name":"","survey_name":"\u4ee4\u548c5\u5e74\u5ea6\u540d\u56db\u56fd\u9053\u4e8b\u52d9\u6240\u7ba1\u5185\u5730\u8cea\u8abf\u67fb\u696d\u52d9","client_name":"\u56fd\u571f\u4ea4\u901a\u7701\u4e2d\u90e8\u5730\u65b9\u6574\u5099\u5c40\u540d\u56db\u56fd\u9053\u4e8b\u52d9\u6240","boring_xml_url":47,"boring_view_url":1,"soilmap_view_url":null,"soiltest_xml_url":0,"soiltest_view_url":0},{"id":700245,"code":"NGIC202305570-0004","latitude":"34.980438888889","longitude":"136.84909722222","source_code":"","project_name":"","survey_name":"\u4ee4\u548c5\u5e74\u5ea6\u540d\u56db\u56fd\u9053\u4e8b\u52d9\u6240\u7ba1\u5185\u5730\u8cea\u8abf\u67fb\u696d\u52d9","client_name":"\u56fd\u571f\u4ea4\u901a\u7701\u4e2d\u90e8\u5730\u65b9\u6574\u5099\u5c40\u540d\u56db\u56fd\u9053\u4e8b\u52d9\u6240","boring_xml_url":47,"boring_view_url":1,"soilmap_view_url":null,"soiltest_xml_url":0,"soiltest_view_url":0},{"id":700244,"code":"NGIC202305570-0003","latitude":"34.981747222222","longitude":"136.85017222222","source_code":"","project_name":"","survey_name":"\u4ee4\u548c5\u5e74\u5ea6\u540d\u56db\u56fd\u9053\u4e8b\u52d9\u6240\u7ba1\u5185\u5730\u8cea\u8abf\u67fb\u696d\u52d9","client_name":"\u56fd\u571f\u4ea4\u901a\u7701\u4e2d\u90e8\u5730\u65b9\u6574\u5099\u5c40\u540d\u56db\u56fd\u9053\u4e8b\u52d9\u6240","boring_xml_url":47,"boring_view_url":1,"soilmap_view_url":null,"soiltest_xml_url":0,"soiltest_view_url":0},{"id":700243,"code":"NGIC202305570-0002","latitude":"34.981141666667","longitude":"136.84942222222","source_code":"","project_name":"","survey_name":"\u4ee4\u548c5\u5e74\u5ea6\u540d\u56db\u56fd\u9053\u4e8b\u52d9\u6240\u7ba1\u5185\u5730\u8cea\u8abf\u67fb\u696d\u52d9","client_name":"\u56fd\u571f\u4ea4\u901a\u7701\u4e2d\u90e8\u5730\u65b9\u6574\u5099\u5c40\u540d\u56db\u56fd\u9053\u4e8b\u52d9\u6240","boring_xml_url":47,"boring_view_url":1,"soilmap_view_url":null,"soiltest_xml_url":0,"soiltest_view_url":0},{"id":700242,"code":"NGIC202305570-0001","latitude":"34.981363888889","longitude":"136.84960555556","source_code":"","project_name":"","survey_name":"\u4ee4\u548c5\u5e74\u5ea6\u540d\u56db\u56fd\u9053\u4e8b\u52d9\u6240\u7ba1\u5185\u5730\u8cea\u8abf\u67fb\u696d\u52d9","client_name":"\u56fd\u571f\u4ea4\u901a\u7701\u4e2d\u90e8\u5730\u65b9\u6574\u5099\u5c40\u540d\u56db\u56fd\u9053\u4e8b\u52d9\u6240","boring_xml_url":47,"boring_view_url":1,"soilmap_view_url":null,"soiltest_xml_url":0,"soiltest_view_url":0}]}}