{"header":{"xyz":{"source":[],"mosaic":false},"page":3903,"raw":{"soiltest_result":"0","bbox":"57.598333,109.544722,1.933333,163.806111","page":"3903"},"conditions":{"soiltest_result":0,"north":57.598333,"west":109.544722,"south":1.933333,"east":163.806111},"success":true,"message":""},"data":{"meta":{"total":212844,"page":3903,"pages":7095,"count":30},"values":[{"id":203485,"code":"B4KJ201801009-1734","latitude":"32.58494","longitude":"131.51386","source_code":"QS20068966630200120005","project_name":"\u5317\u65b9\u5ef6\u5ca1\u9053\u8def(\u5357\u4e45\u4fdd\u5c71\u5730\u533a)\u5730\u8cea\u8abf\u67fb\u696d\u52d9","survey_name":"\u5317\u65b9\u5ef6\u5ca1\u9053\u8def(\u5357\u4e45\u4fdd\u5c71\u5730\u533a)\u5730\u8cea\u8abf\u67fb\u696d\u52d9","client_name":"\u56fd\u571f\u4ea4\u901a\u7701\u4e5d\u5dde\u5730\u65b9\u6574\u5099\u5c40\u5ef6\u5ca1\u6cb3\u5ddd\u56fd\u9053\u4e8b\u52d9\u6240","boring_xml_url":49,"boring_view_url":1,"soilmap_view_url":null,"soiltest_xml_url":0,"soiltest_view_url":0},{"id":203484,"code":"B4KJ201801009-1733","latitude":"32.58494","longitude":"131.51417","source_code":"QS20068966630200120004","project_name":"\u5317\u65b9\u5ef6\u5ca1\u9053\u8def(\u5357\u4e45\u4fdd\u5c71\u5730\u533a)\u5730\u8cea\u8abf\u67fb\u696d\u52d9","survey_name":"\u5317\u65b9\u5ef6\u5ca1\u9053\u8def(\u5357\u4e45\u4fdd\u5c71\u5730\u533a)\u5730\u8cea\u8abf\u67fb\u696d\u52d9","client_name":"\u56fd\u571f\u4ea4\u901a\u7701\u4e5d\u5dde\u5730\u65b9\u6574\u5099\u5c40\u5ef6\u5ca1\u6cb3\u5ddd\u56fd\u9053\u4e8b\u52d9\u6240","boring_xml_url":49,"boring_view_url":1,"soilmap_view_url":null,"soiltest_xml_url":0,"soiltest_view_url":0},{"id":203483,"code":"B4KJ201801009-1732","latitude":"32.58472","longitude":"131.51372","source_code":"QS20068966630200120003","project_name":"\u5317\u65b9\u5ef6\u5ca1\u9053\u8def(\u5357\u4e45\u4fdd\u5c71\u5730\u533a)\u5730\u8cea\u8abf\u67fb\u696d\u52d9","survey_name":"\u5317\u65b9\u5ef6\u5ca1\u9053\u8def(\u5357\u4e45\u4fdd\u5c71\u5730\u533a)\u5730\u8cea\u8abf\u67fb\u696d\u52d9","client_name":"\u56fd\u571f\u4ea4\u901a\u7701\u4e5d\u5dde\u5730\u65b9\u6574\u5099\u5c40\u5ef6\u5ca1\u6cb3\u5ddd\u56fd\u9053\u4e8b\u52d9\u6240","boring_xml_url":49,"boring_view_url":1,"soilmap_view_url":null,"soiltest_xml_url":52,"soiltest_view_url":52},{"id":203482,"code":"B4KJ201801009-1731","latitude":"32.58528","longitude":"131.51292","source_code":"QS20068966630200120002","project_name":"\u5317\u65b9\u5ef6\u5ca1\u9053\u8def(\u5357\u4e45\u4fdd\u5c71\u5730\u533a)\u5730\u8cea\u8abf\u67fb\u696d\u52d9","survey_name":"\u5317\u65b9\u5ef6\u5ca1\u9053\u8def(\u5357\u4e45\u4fdd\u5c71\u5730\u533a)\u5730\u8cea\u8abf\u67fb\u696d\u52d9","client_name":"\u56fd\u571f\u4ea4\u901a\u7701\u4e5d\u5dde\u5730\u65b9\u6574\u5099\u5c40\u5ef6\u5ca1\u6cb3\u5ddd\u56fd\u9053\u4e8b\u52d9\u6240","boring_xml_url":49,"boring_view_url":1,"soilmap_view_url":null,"soiltest_xml_url":0,"soiltest_view_url":0},{"id":203481,"code":"B4KJ201801009-1730","latitude":"32.58558","longitude":"131.51314","source_code":"QS20068966630200120001","project_name":"\u5317\u65b9\u5ef6\u5ca1\u9053\u8def(\u5357\u4e45\u4fdd\u5c71\u5730\u533a)\u5730\u8cea\u8abf\u67fb\u696d\u52d9","survey_name":"\u5317\u65b9\u5ef6\u5ca1\u9053\u8def(\u5357\u4e45\u4fdd\u5c71\u5730\u533a)\u5730\u8cea\u8abf\u67fb\u696d\u52d9","client_name":"\u56fd\u571f\u4ea4\u901a\u7701\u4e5d\u5dde\u5730\u65b9\u6574\u5099\u5c40\u5ef6\u5ca1\u6cb3\u5ddd\u56fd\u9053\u4e8b\u52d9\u6240","boring_xml_url":49,"boring_view_url":1,"soilmap_view_url":null,"soiltest_xml_url":52,"soiltest_view_url":52},{"id":203480,"code":"B4KJ201801009-1729","latitude":"32.5947","longitude":"131.4967","source_code":"QS20068966630200110026","project_name":"\u5317\u65b9\u5ef6\u5ca1\u9053\u8def(1\u5de5\u533a)","survey_name":"\u5317\u65b9\u5ef6\u5ca1\u9053\u8def(\u8535\u7530\u5730\u533a)\u5730\u8cea\u8abf\u67fb\u696d\u52d9","client_name":"\u56fd\u571f\u4ea4\u901a\u7701\u4e5d\u5dde\u5730\u65b9\u6574\u5099\u5c40\u5ef6\u5ca1\u6cb3\u5ddd\u56fd\u9053\u4e8b\u52d9\u6240","boring_xml_url":49,"boring_view_url":1,"soilmap_view_url":null,"soiltest_xml_url":0,"soiltest_view_url":0},{"id":203479,"code":"B4KJ201801009-1728","latitude":"32.5947","longitude":"131.4967","source_code":"QS20068966630200110025","project_name":"\u5317\u65b9\u5ef6\u5ca1\u9053\u8def(1\u5de5\u533a)","survey_name":"\u5317\u65b9\u5ef6\u5ca1\u9053\u8def(\u8535\u7530\u5730\u533a)\u5730\u8cea\u8abf\u67fb\u696d\u52d9","client_name":"\u56fd\u571f\u4ea4\u901a\u7701\u4e5d\u5dde\u5730\u65b9\u6574\u5099\u5c40\u5ef6\u5ca1\u6cb3\u5ddd\u56fd\u9053\u4e8b\u52d9\u6240","boring_xml_url":49,"boring_view_url":1,"soilmap_view_url":null,"soiltest_xml_url":0,"soiltest_view_url":0},{"id":203478,"code":"B4KJ201801009-1727","latitude":"32.594214","longitude":"131.498911","source_code":"QS20068966630200110024","project_name":"\u5317\u65b9\u5ef6\u5ca1\u9053\u8def(1\u5de5\u533a)","survey_name":"\u5317\u65b9\u5ef6\u5ca1\u9053\u8def(\u8535\u7530\u5730\u533a)\u5730\u8cea\u8abf\u67fb\u696d\u52d9","client_name":"\u56fd\u571f\u4ea4\u901a\u7701\u4e5d\u5dde\u5730\u65b9\u6574\u5099\u5c40\u5ef6\u5ca1\u6cb3\u5ddd\u56fd\u9053\u4e8b\u52d9\u6240","boring_xml_url":49,"boring_view_url":1,"soilmap_view_url":null,"soiltest_xml_url":52,"soiltest_view_url":52},{"id":203477,"code":"B4KJ201801009-1726","latitude":"32.58612181","longitude":"131.511315","source_code":"QS20068966630200110023","project_name":"\u5317\u65b9\u5ef6\u5ca1\u9053\u8def(1\u5de5\u533a)","survey_name":"\u5317\u65b9\u5ef6\u5ca1\u9053\u8def(\u8535\u7530\u5730\u533a)\u5730\u8cea\u8abf\u67fb\u696d\u52d9","client_name":"\u56fd\u571f\u4ea4\u901a\u7701\u4e5d\u5dde\u5730\u65b9\u6574\u5099\u5c40\u5ef6\u5ca1\u6cb3\u5ddd\u56fd\u9053\u4e8b\u52d9\u6240","boring_xml_url":49,"boring_view_url":1,"soilmap_view_url":null,"soiltest_xml_url":0,"soiltest_view_url":0},{"id":203476,"code":"B4KJ201801009-1725","latitude":"32.58649808","longitude":"131.5118289","source_code":"QS20068966630200110022","project_name":"\u5317\u65b9\u5ef6\u5ca1\u9053\u8def(1\u5de5\u533a)","survey_name":"\u5317\u65b9\u5ef6\u5ca1\u9053\u8def(\u8535\u7530\u5730\u533a)\u5730\u8cea\u8abf\u67fb\u696d\u52d9","client_name":"\u56fd\u571f\u4ea4\u901a\u7701\u4e5d\u5dde\u5730\u65b9\u6574\u5099\u5c40\u5ef6\u5ca1\u6cb3\u5ddd\u56fd\u9053\u4e8b\u52d9\u6240","boring_xml_url":49,"boring_view_url":1,"soilmap_view_url":null,"soiltest_xml_url":0,"soiltest_view_url":0},{"id":203475,"code":"B4KJ201801009-1724","latitude":"32.58725683","longitude":"131.5094844","source_code":"QS20068966630200110021","project_name":"\u5317\u65b9\u5ef6\u5ca1\u9053\u8def(1\u5de5\u533a)","survey_name":"\u5317\u65b9\u5ef6\u5ca1\u9053\u8def(\u8535\u7530\u5730\u533a)\u5730\u8cea\u8abf\u67fb\u696d\u52d9","client_name":"\u56fd\u571f\u4ea4\u901a\u7701\u4e5d\u5dde\u5730\u65b9\u6574\u5099\u5c40\u5ef6\u5ca1\u6cb3\u5ddd\u56fd\u9053\u4e8b\u52d9\u6240","boring_xml_url":49,"boring_view_url":1,"soilmap_view_url":null,"soiltest_xml_url":0,"soiltest_view_url":0},{"id":203474,"code":"B4KJ201801009-1723","latitude":"32.58650975","longitude":"131.5107653","source_code":"QS20068966630200110020","project_name":"\u5317\u65b9\u5ef6\u5ca1\u9053\u8def(1\u5de5\u533a)","survey_name":"\u5317\u65b9\u5ef6\u5ca1\u9053\u8def(\u8535\u7530\u5730\u533a)\u5730\u8cea\u8abf\u67fb\u696d\u52d9","client_name":"\u56fd\u571f\u4ea4\u901a\u7701\u4e5d\u5dde\u5730\u65b9\u6574\u5099\u5c40\u5ef6\u5ca1\u6cb3\u5ddd\u56fd\u9053\u4e8b\u52d9\u6240","boring_xml_url":49,"boring_view_url":1,"soilmap_view_url":null,"soiltest_xml_url":0,"soiltest_view_url":0},{"id":203473,"code":"B4KJ201801009-1722","latitude":"32.58687978","longitude":"131.5109597","source_code":"QS20068966630200110019","project_name":"\u5317\u65b9\u5ef6\u5ca1\u9053\u8def(1\u5de5\u533a)","survey_name":"\u5317\u65b9\u5ef6\u5ca1\u9053\u8def(\u8535\u7530\u5730\u533a)\u5730\u8cea\u8abf\u67fb\u696d\u52d9","client_name":"\u56fd\u571f\u4ea4\u901a\u7701\u4e5d\u5dde\u5730\u65b9\u6574\u5099\u5c40\u5ef6\u5ca1\u6cb3\u5ddd\u56fd\u9053\u4e8b\u52d9\u6240","boring_xml_url":49,"boring_view_url":1,"soilmap_view_url":null,"soiltest_xml_url":52,"soiltest_view_url":52},{"id":203472,"code":"B4KJ201801009-1721","latitude":"32.5866765","longitude":"131.5102514","source_code":"QS20068966630200110018","project_name":"\u5317\u65b9\u5ef6\u5ca1\u9053\u8def(1\u5de5\u533a)","survey_name":"\u5317\u65b9\u5ef6\u5ca1\u9053\u8def(\u8535\u7530\u5730\u533a)\u5730\u8cea\u8abf\u67fb\u696d\u52d9","client_name":"\u56fd\u571f\u4ea4\u901a\u7701\u4e5d\u5dde\u5730\u65b9\u6574\u5099\u5c40\u5ef6\u5ca1\u6cb3\u5ddd\u56fd\u9053\u4e8b\u52d9\u6240","boring_xml_url":49,"boring_view_url":1,"soilmap_view_url":null,"soiltest_xml_url":0,"soiltest_view_url":0},{"id":203471,"code":"B4KJ201801009-1720","latitude":"32.588481","longitude":"131.508003","source_code":"QS20068966630200110017","project_name":"\u5317\u65b9\u5ef6\u5ca1\u9053\u8def(1\u5de5\u533a)","survey_name":"\u5317\u65b9\u5ef6\u5ca1\u9053\u8def(\u8535\u7530\u5730\u533a)\u5730\u8cea\u8abf\u67fb\u696d\u52d9","client_name":"\u56fd\u571f\u4ea4\u901a\u7701\u4e5d\u5dde\u5730\u65b9\u6574\u5099\u5c40\u5ef6\u5ca1\u6cb3\u5ddd\u56fd\u9053\u4e8b\u52d9\u6240","boring_xml_url":49,"boring_view_url":1,"soilmap_view_url":null,"soiltest_xml_url":0,"soiltest_view_url":0},{"id":203470,"code":"B4KJ201801009-1719","latitude":"32.58833","longitude":"131.50825","source_code":"QS20068966630200110016","project_name":"\u5317\u65b9\u5ef6\u5ca1\u9053\u8def(1\u5de5\u533a)","survey_name":"\u5317\u65b9\u5ef6\u5ca1\u9053\u8def(\u8535\u7530\u5730\u533a)\u5730\u8cea\u8abf\u67fb\u696d\u52d9","client_name":"\u56fd\u571f\u4ea4\u901a\u7701\u4e5d\u5dde\u5730\u65b9\u6574\u5099\u5c40\u5ef6\u5ca1\u6cb3\u5ddd\u56fd\u9053\u4e8b\u52d9\u6240","boring_xml_url":49,"boring_view_url":1,"soilmap_view_url":null,"soiltest_xml_url":0,"soiltest_view_url":0},{"id":203469,"code":"B4KJ201801009-1718","latitude":"32.58839","longitude":"131.50817","source_code":"QS20068966630200110015","project_name":"\u5317\u65b9\u5ef6\u5ca1\u9053\u8def(1\u5de5\u533a)","survey_name":"\u5317\u65b9\u5ef6\u5ca1\u9053\u8def(\u8535\u7530\u5730\u533a)\u5730\u8cea\u8abf\u67fb\u696d\u52d9","client_name":"\u56fd\u571f\u4ea4\u901a\u7701\u4e5d\u5dde\u5730\u65b9\u6574\u5099\u5c40\u5ef6\u5ca1\u6cb3\u5ddd\u56fd\u9053\u4e8b\u52d9\u6240","boring_xml_url":49,"boring_view_url":1,"soilmap_view_url":null,"soiltest_xml_url":0,"soiltest_view_url":0},{"id":203468,"code":"B4KJ201801009-1717","latitude":"32.588819","longitude":"131.507439","source_code":"QS20068966630200110014","project_name":"\u5317\u65b9\u5ef6\u5ca1\u9053\u8def(1\u5de5\u533a)","survey_name":"\u5317\u65b9\u5ef6\u5ca1\u9053\u8def(\u8535\u7530\u5730\u533a)\u5730\u8cea\u8abf\u67fb\u696d\u52d9","client_name":"\u56fd\u571f\u4ea4\u901a\u7701\u4e5d\u5dde\u5730\u65b9\u6574\u5099\u5c40\u5ef6\u5ca1\u6cb3\u5ddd\u56fd\u9053\u4e8b\u52d9\u6240","boring_xml_url":49,"boring_view_url":1,"soilmap_view_url":null,"soiltest_xml_url":0,"soiltest_view_url":0},{"id":203467,"code":"B4KJ201801009-1716","latitude":"32.589042","longitude":"131.507075","source_code":"QS20068966630200110013","project_name":"\u5317\u65b9\u5ef6\u5ca1\u9053\u8def(1\u5de5\u533a)","survey_name":"\u5317\u65b9\u5ef6\u5ca1\u9053\u8def(\u8535\u7530\u5730\u533a)\u5730\u8cea\u8abf\u67fb\u696d\u52d9","client_name":"\u56fd\u571f\u4ea4\u901a\u7701\u4e5d\u5dde\u5730\u65b9\u6574\u5099\u5c40\u5ef6\u5ca1\u6cb3\u5ddd\u56fd\u9053\u4e8b\u52d9\u6240","boring_xml_url":49,"boring_view_url":1,"soilmap_view_url":null,"soiltest_xml_url":0,"soiltest_view_url":0},{"id":203466,"code":"B4KJ201801009-1715","latitude":"32.589028","longitude":"131.5071","source_code":"QS20068966630200110012","project_name":"\u5317\u65b9\u5ef6\u5ca1\u9053\u8def(1\u5de5\u533a)","survey_name":"\u5317\u65b9\u5ef6\u5ca1\u9053\u8def(\u8535\u7530\u5730\u533a)\u5730\u8cea\u8abf\u67fb\u696d\u52d9","client_name":"\u56fd\u571f\u4ea4\u901a\u7701\u4e5d\u5dde\u5730\u65b9\u6574\u5099\u5c40\u5ef6\u5ca1\u6cb3\u5ddd\u56fd\u9053\u4e8b\u52d9\u6240","boring_xml_url":49,"boring_view_url":1,"soilmap_view_url":null,"soiltest_xml_url":0,"soiltest_view_url":0},{"id":203465,"code":"B4KJ201801009-1714","latitude":"32.589131","longitude":"131.506928","source_code":"QS20068966630200110011","project_name":"\u5317\u65b9\u5ef6\u5ca1\u9053\u8def(1\u5de5\u533a)","survey_name":"\u5317\u65b9\u5ef6\u5ca1\u9053\u8def(\u8535\u7530\u5730\u533a)\u5730\u8cea\u8abf\u67fb\u696d\u52d9","client_name":"\u56fd\u571f\u4ea4\u901a\u7701\u4e5d\u5dde\u5730\u65b9\u6574\u5099\u5c40\u5ef6\u5ca1\u6cb3\u5ddd\u56fd\u9053\u4e8b\u52d9\u6240","boring_xml_url":49,"boring_view_url":1,"soilmap_view_url":null,"soiltest_xml_url":0,"soiltest_view_url":0},{"id":203464,"code":"B4KJ201801009-1713","latitude":"32.589356","longitude":"131.506556","source_code":"QS20068966630200110010","project_name":"\u5317\u65b9\u5ef6\u5ca1\u9053\u8def(1\u5de5\u533a)","survey_name":"\u5317\u65b9\u5ef6\u5ca1\u9053\u8def(\u8535\u7530\u5730\u533a)\u5730\u8cea\u8abf\u67fb\u696d\u52d9","client_name":"\u56fd\u571f\u4ea4\u901a\u7701\u4e5d\u5dde\u5730\u65b9\u6574\u5099\u5c40\u5ef6\u5ca1\u6cb3\u5ddd\u56fd\u9053\u4e8b\u52d9\u6240","boring_xml_url":49,"boring_view_url":1,"soilmap_view_url":null,"soiltest_xml_url":0,"soiltest_view_url":0},{"id":203463,"code":"B4KJ201801009-1712","latitude":"32.5898","longitude":"131.505819","source_code":"QS20068966630200110009","project_name":"\u5317\u65b9\u5ef6\u5ca1\u9053\u8def(1\u5de5\u533a)","survey_name":"\u5317\u65b9\u5ef6\u5ca1\u9053\u8def(\u8535\u7530\u5730\u533a)\u5730\u8cea\u8abf\u67fb\u696d\u52d9","client_name":"\u56fd\u571f\u4ea4\u901a\u7701\u4e5d\u5dde\u5730\u65b9\u6574\u5099\u5c40\u5ef6\u5ca1\u6cb3\u5ddd\u56fd\u9053\u4e8b\u52d9\u6240","boring_xml_url":49,"boring_view_url":1,"soilmap_view_url":null,"soiltest_xml_url":0,"soiltest_view_url":0},{"id":203462,"code":"B4KJ201801009-1711","latitude":"32.58965","longitude":"131.506069","source_code":"QS20068966630200110008","project_name":"\u5317\u65b9\u5ef6\u5ca1\u9053\u8def(1\u5de5\u533a)","survey_name":"\u5317\u65b9\u5ef6\u5ca1\u9053\u8def(\u8535\u7530\u5730\u533a)\u5730\u8cea\u8abf\u67fb\u696d\u52d9","client_name":"\u56fd\u571f\u4ea4\u901a\u7701\u4e5d\u5dde\u5730\u65b9\u6574\u5099\u5c40\u5ef6\u5ca1\u6cb3\u5ddd\u56fd\u9053\u4e8b\u52d9\u6240","boring_xml_url":49,"boring_view_url":1,"soilmap_view_url":null,"soiltest_xml_url":0,"soiltest_view_url":0},{"id":203461,"code":"B4KJ201801009-1710","latitude":"32.589686","longitude":"131.506008","source_code":"QS20068966630200110007","project_name":"\u5317\u65b9\u5ef6\u5ca1\u9053\u8def(1\u5de5\u533a)","survey_name":"\u5317\u65b9\u5ef6\u5ca1\u9053\u8def(\u8535\u7530\u5730\u533a)\u5730\u8cea\u8abf\u67fb\u696d\u52d9","client_name":"\u56fd\u571f\u4ea4\u901a\u7701\u4e5d\u5dde\u5730\u65b9\u6574\u5099\u5c40\u5ef6\u5ca1\u6cb3\u5ddd\u56fd\u9053\u4e8b\u52d9\u6240","boring_xml_url":49,"boring_view_url":1,"soilmap_view_url":null,"soiltest_xml_url":0,"soiltest_view_url":0},{"id":203460,"code":"B4KJ201801009-1709","latitude":"32.593433","longitude":"131.499811","source_code":"QS20068966630200110006","project_name":"\u5317\u65b9\u5ef6\u5ca1\u9053\u8def(1\u5de5\u533a)","survey_name":"\u5317\u65b9\u5ef6\u5ca1\u9053\u8def(\u8535\u7530\u5730\u533a)\u5730\u8cea\u8abf\u67fb\u696d\u52d9","client_name":"\u56fd\u571f\u4ea4\u901a\u7701\u4e5d\u5dde\u5730\u65b9\u6574\u5099\u5c40\u5ef6\u5ca1\u6cb3\u5ddd\u56fd\u9053\u4e8b\u52d9\u6240","boring_xml_url":49,"boring_view_url":1,"soilmap_view_url":null,"soiltest_xml_url":0,"soiltest_view_url":0},{"id":203459,"code":"B4KJ201801009-1708","latitude":"32.593558","longitude":"131.499603","source_code":"QS20068966630200110005","project_name":"\u5317\u65b9\u5ef6\u5ca1\u9053\u8def(1\u5de5\u533a)","survey_name":"\u5317\u65b9\u5ef6\u5ca1\u9053\u8def(\u8535\u7530\u5730\u533a)\u5730\u8cea\u8abf\u67fb\u696d\u52d9","client_name":"\u56fd\u571f\u4ea4\u901a\u7701\u4e5d\u5dde\u5730\u65b9\u6574\u5099\u5c40\u5ef6\u5ca1\u6cb3\u5ddd\u56fd\u9053\u4e8b\u52d9\u6240","boring_xml_url":49,"boring_view_url":1,"soilmap_view_url":null,"soiltest_xml_url":0,"soiltest_view_url":0},{"id":203458,"code":"B4KJ201801009-1707","latitude":"32.593583","longitude":"131.499567","source_code":"QS20068966630200110004","project_name":"\u5317\u65b9\u5ef6\u5ca1\u9053\u8def(1\u5de5\u533a)","survey_name":"\u5317\u65b9\u5ef6\u5ca1\u9053\u8def(\u8535\u7530\u5730\u533a)\u5730\u8cea\u8abf\u67fb\u696d\u52d9","client_name":"\u56fd\u571f\u4ea4\u901a\u7701\u4e5d\u5dde\u5730\u65b9\u6574\u5099\u5c40\u5ef6\u5ca1\u6cb3\u5ddd\u56fd\u9053\u4e8b\u52d9\u6240","boring_xml_url":49,"boring_view_url":1,"soilmap_view_url":null,"soiltest_xml_url":0,"soiltest_view_url":0},{"id":203457,"code":"B4KJ201801009-1706","latitude":"32.593989","longitude":"131.498739","source_code":"QS20068966630200110003","project_name":"\u5317\u65b9\u5ef6\u5ca1\u9053\u8def(1\u5de5\u533a)","survey_name":"\u5317\u65b9\u5ef6\u5ca1\u9053\u8def(\u8535\u7530\u5730\u533a)\u5730\u8cea\u8abf\u67fb\u696d\u52d9","client_name":"\u56fd\u571f\u4ea4\u901a\u7701\u4e5d\u5dde\u5730\u65b9\u6574\u5099\u5c40\u5ef6\u5ca1\u6cb3\u5ddd\u56fd\u9053\u4e8b\u52d9\u6240","boring_xml_url":49,"boring_view_url":1,"soilmap_view_url":null,"soiltest_xml_url":0,"soiltest_view_url":0},{"id":203456,"code":"B4KJ201801009-1705","latitude":"32.594553","longitude":"131.497806","source_code":"QS20068966630200110002","project_name":"\u5317\u65b9\u5ef6\u5ca1\u9053\u8def(1\u5de5\u533a)","survey_name":"\u5317\u65b9\u5ef6\u5ca1\u9053\u8def(\u8535\u7530\u5730\u533a)\u5730\u8cea\u8abf\u67fb\u696d\u52d9","client_name":"\u56fd\u571f\u4ea4\u901a\u7701\u4e5d\u5dde\u5730\u65b9\u6574\u5099\u5c40\u5ef6\u5ca1\u6cb3\u5ddd\u56fd\u9053\u4e8b\u52d9\u6240","boring_xml_url":49,"boring_view_url":1,"soilmap_view_url":null,"soiltest_xml_url":0,"soiltest_view_url":0}]}}