{"header":{"xyz":{"source":[],"mosaic":false},"page":3905,"raw":{"soiltest_result":"0","bbox":"57.598333,109.544722,1.933333,163.806111","page":"3905"},"conditions":{"soiltest_result":0,"north":57.598333,"west":109.544722,"south":1.933333,"east":163.806111},"success":true,"message":""},"data":{"meta":{"total":212844,"page":3905,"pages":7095,"count":30},"values":[{"id":203425,"code":"B4KJ201801009-1674","latitude":"32.63025","longitude":"131.68372","source_code":"QS20068966490200110012","project_name":"\u5ef6\u5ca1\u7ba1\u5185\u5730\u8cea\u8abf\u67fb\u696d\u52d9","survey_name":"\u5ef6\u5ca1\u7ba1\u5185\u5730\u8cea\u8abf\u67fb\u696d\u52d9","client_name":"\u56fd\u571f\u4ea4\u901a\u7701\u4e5d\u5dde\u5730\u65b9\u6574\u5099\u5c40\u5ef6\u5ca1\u6cb3\u5ddd\u56fd\u9053\u4e8b\u52d9\u6240","boring_xml_url":49,"boring_view_url":1,"soilmap_view_url":null,"soiltest_xml_url":0,"soiltest_view_url":0},{"id":203424,"code":"B4KJ201801009-1673","latitude":"32.65531","longitude":"131.7035","source_code":"QS20068966490200110011","project_name":"\u5ef6\u5ca1\u7ba1\u5185\u5730\u8cea\u8abf\u67fb\u696d\u52d9","survey_name":"\u5ef6\u5ca1\u7ba1\u5185\u5730\u8cea\u8abf\u67fb\u696d\u52d9","client_name":"\u56fd\u571f\u4ea4\u901a\u7701\u4e5d\u5dde\u5730\u65b9\u6574\u5099\u5c40\u5ef6\u5ca1\u6cb3\u5ddd\u56fd\u9053\u4e8b\u52d9\u6240","boring_xml_url":49,"boring_view_url":1,"soilmap_view_url":null,"soiltest_xml_url":0,"soiltest_view_url":0},{"id":203423,"code":"B4KJ201801009-1672","latitude":"32.65581","longitude":"131.70386","source_code":"QS20068966490200110010","project_name":"\u5ef6\u5ca1\u7ba1\u5185\u5730\u8cea\u8abf\u67fb\u696d\u52d9","survey_name":"\u5ef6\u5ca1\u7ba1\u5185\u5730\u8cea\u8abf\u67fb\u696d\u52d9","client_name":"\u56fd\u571f\u4ea4\u901a\u7701\u4e5d\u5dde\u5730\u65b9\u6574\u5099\u5c40\u5ef6\u5ca1\u6cb3\u5ddd\u56fd\u9053\u4e8b\u52d9\u6240","boring_xml_url":49,"boring_view_url":1,"soilmap_view_url":null,"soiltest_xml_url":0,"soiltest_view_url":0},{"id":203422,"code":"B4KJ201801009-1671","latitude":"32.65656","longitude":"131.70447","source_code":"QS20068966490200110009","project_name":"\u5ef6\u5ca1\u7ba1\u5185\u5730\u8cea\u8abf\u67fb\u696d\u52d9","survey_name":"\u5ef6\u5ca1\u7ba1\u5185\u5730\u8cea\u8abf\u67fb\u696d\u52d9","client_name":"\u56fd\u571f\u4ea4\u901a\u7701\u4e5d\u5dde\u5730\u65b9\u6574\u5099\u5c40\u5ef6\u5ca1\u6cb3\u5ddd\u56fd\u9053\u4e8b\u52d9\u6240","boring_xml_url":49,"boring_view_url":1,"soilmap_view_url":null,"soiltest_xml_url":52,"soiltest_view_url":52},{"id":203421,"code":"B4KJ201801009-1670","latitude":"32.65731","longitude":"131.70506","source_code":"QS20068966490200110008","project_name":"\u5ef6\u5ca1\u7ba1\u5185\u5730\u8cea\u8abf\u67fb\u696d\u52d9","survey_name":"\u5ef6\u5ca1\u7ba1\u5185\u5730\u8cea\u8abf\u67fb\u696d\u52d9","client_name":"\u56fd\u571f\u4ea4\u901a\u7701\u4e5d\u5dde\u5730\u65b9\u6574\u5099\u5c40\u5ef6\u5ca1\u6cb3\u5ddd\u56fd\u9053\u4e8b\u52d9\u6240","boring_xml_url":49,"boring_view_url":1,"soilmap_view_url":null,"soiltest_xml_url":0,"soiltest_view_url":0},{"id":203420,"code":"B4KJ201801009-1669","latitude":"32.65789","longitude":"131.70558","source_code":"QS20068966490200110007","project_name":"\u5ef6\u5ca1\u7ba1\u5185\u5730\u8cea\u8abf\u67fb\u696d\u52d9","survey_name":"\u5ef6\u5ca1\u7ba1\u5185\u5730\u8cea\u8abf\u67fb\u696d\u52d9","client_name":"\u56fd\u571f\u4ea4\u901a\u7701\u4e5d\u5dde\u5730\u65b9\u6574\u5099\u5c40\u5ef6\u5ca1\u6cb3\u5ddd\u56fd\u9053\u4e8b\u52d9\u6240","boring_xml_url":49,"boring_view_url":1,"soilmap_view_url":null,"soiltest_xml_url":52,"soiltest_view_url":52},{"id":203419,"code":"B4KJ201801009-1668","latitude":"32.65847","longitude":"131.70614","source_code":"QS20068966490200110006","project_name":"\u5ef6\u5ca1\u7ba1\u5185\u5730\u8cea\u8abf\u67fb\u696d\u52d9","survey_name":"\u5ef6\u5ca1\u7ba1\u5185\u5730\u8cea\u8abf\u67fb\u696d\u52d9","client_name":"\u56fd\u571f\u4ea4\u901a\u7701\u4e5d\u5dde\u5730\u65b9\u6574\u5099\u5c40\u5ef6\u5ca1\u6cb3\u5ddd\u56fd\u9053\u4e8b\u52d9\u6240","boring_xml_url":49,"boring_view_url":1,"soilmap_view_url":null,"soiltest_xml_url":0,"soiltest_view_url":0},{"id":203418,"code":"B4KJ201801009-1667","latitude":"32.65878","longitude":"131.70642","source_code":"QS20068966490200110005","project_name":"\u5ef6\u5ca1\u7ba1\u5185\u5730\u8cea\u8abf\u67fb\u696d\u52d9","survey_name":"\u5ef6\u5ca1\u7ba1\u5185\u5730\u8cea\u8abf\u67fb\u696d\u52d9","client_name":"\u56fd\u571f\u4ea4\u901a\u7701\u4e5d\u5dde\u5730\u65b9\u6574\u5099\u5c40\u5ef6\u5ca1\u6cb3\u5ddd\u56fd\u9053\u4e8b\u52d9\u6240","boring_xml_url":49,"boring_view_url":1,"soilmap_view_url":null,"soiltest_xml_url":52,"soiltest_view_url":52},{"id":203417,"code":"B4KJ201801009-1666","latitude":"32.65908","longitude":"131.70669","source_code":"QS20068966490200110004","project_name":"\u5ef6\u5ca1\u7ba1\u5185\u5730\u8cea\u8abf\u67fb\u696d\u52d9","survey_name":"\u5ef6\u5ca1\u7ba1\u5185\u5730\u8cea\u8abf\u67fb\u696d\u52d9","client_name":"\u56fd\u571f\u4ea4\u901a\u7701\u4e5d\u5dde\u5730\u65b9\u6574\u5099\u5c40\u5ef6\u5ca1\u6cb3\u5ddd\u56fd\u9053\u4e8b\u52d9\u6240","boring_xml_url":49,"boring_view_url":1,"soilmap_view_url":null,"soiltest_xml_url":0,"soiltest_view_url":0},{"id":203416,"code":"B4KJ201801009-1665","latitude":"32.65936","longitude":"131.70686","source_code":"QS20068966490200110003","project_name":"\u5ef6\u5ca1\u7ba1\u5185\u5730\u8cea\u8abf\u67fb\u696d\u52d9","survey_name":"\u5ef6\u5ca1\u7ba1\u5185\u5730\u8cea\u8abf\u67fb\u696d\u52d9","client_name":"\u56fd\u571f\u4ea4\u901a\u7701\u4e5d\u5dde\u5730\u65b9\u6574\u5099\u5c40\u5ef6\u5ca1\u6cb3\u5ddd\u56fd\u9053\u4e8b\u52d9\u6240","boring_xml_url":49,"boring_view_url":1,"soilmap_view_url":null,"soiltest_xml_url":0,"soiltest_view_url":0},{"id":203415,"code":"B4KJ201801009-1664","latitude":"32.65944","longitude":"131.707","source_code":"QS20068966490200110002","project_name":"\u5ef6\u5ca1\u7ba1\u5185\u5730\u8cea\u8abf\u67fb\u696d\u52d9","survey_name":"\u5ef6\u5ca1\u7ba1\u5185\u5730\u8cea\u8abf\u67fb\u696d\u52d9","client_name":"\u56fd\u571f\u4ea4\u901a\u7701\u4e5d\u5dde\u5730\u65b9\u6574\u5099\u5c40\u5ef6\u5ca1\u6cb3\u5ddd\u56fd\u9053\u4e8b\u52d9\u6240","boring_xml_url":49,"boring_view_url":1,"soilmap_view_url":null,"soiltest_xml_url":0,"soiltest_view_url":0},{"id":203414,"code":"B4KJ201801009-1663","latitude":"32.65958","longitude":"131.70719","source_code":"QS20068966490200110001","project_name":"\u5ef6\u5ca1\u7ba1\u5185\u5730\u8cea\u8abf\u67fb\u696d\u52d9","survey_name":"\u5ef6\u5ca1\u7ba1\u5185\u5730\u8cea\u8abf\u67fb\u696d\u52d9","client_name":"\u56fd\u571f\u4ea4\u901a\u7701\u4e5d\u5dde\u5730\u65b9\u6574\u5099\u5c40\u5ef6\u5ca1\u6cb3\u5ddd\u56fd\u9053\u4e8b\u52d9\u6240","boring_xml_url":49,"boring_view_url":1,"soilmap_view_url":null,"soiltest_xml_url":0,"soiltest_view_url":0},{"id":203413,"code":"B4KJ201801009-1662","latitude":"32.70586","longitude":"131.80739","source_code":"QS20068966490200100022","project_name":"\u6771\u4e5d\u5dde\u81ea\u52d5\u8eca\u9053(\u5317\u6d66\u5730\u533a)\u5730\u8cea\u8abf\u67fb\u696d\u52d9","survey_name":"\u6771\u4e5d\u5dde\u81ea\u52d5\u8eca\u9053(\u5317\u6d66\u5730\u533a)\u5730\u8cea\u8abf\u67fb\u696d\u52d9","client_name":"\u56fd\u571f\u4ea4\u901a\u7701\u4e5d\u5dde\u5730\u65b9\u6574\u5099\u5c40\u5ef6\u5ca1\u6cb3\u5ddd\u56fd\u9053\u4e8b\u52d9\u6240","boring_xml_url":49,"boring_view_url":1,"soilmap_view_url":null,"soiltest_xml_url":0,"soiltest_view_url":0},{"id":203412,"code":"B4KJ201801009-1661","latitude":"32.70622","longitude":"131.80844","source_code":"QS20068966490200100021","project_name":"\u6771\u4e5d\u5dde\u81ea\u52d5\u8eca\u9053(\u5317\u6d66\u5730\u533a)\u5730\u8cea\u8abf\u67fb\u696d\u52d9","survey_name":"\u6771\u4e5d\u5dde\u81ea\u52d5\u8eca\u9053(\u5317\u6d66\u5730\u533a)\u5730\u8cea\u8abf\u67fb\u696d\u52d9","client_name":"\u56fd\u571f\u4ea4\u901a\u7701\u4e5d\u5dde\u5730\u65b9\u6574\u5099\u5c40\u5ef6\u5ca1\u6cb3\u5ddd\u56fd\u9053\u4e8b\u52d9\u6240","boring_xml_url":49,"boring_view_url":1,"soilmap_view_url":null,"soiltest_xml_url":0,"soiltest_view_url":0},{"id":203411,"code":"B4KJ201801009-1660","latitude":"32.70717","longitude":"131.80986","source_code":"QS20068966490200100020","project_name":"","survey_name":"\u6771\u4e5d\u5dde\u81ea\u52d5\u8eca\u9053(\u5317\u6d66\u5730\u533a)\u5730\u8cea\u8abf\u67fb\u696d\u52d9","client_name":"\u56fd\u571f\u4ea4\u901a\u7701\u4e5d\u5dde\u5730\u65b9\u6574\u5099\u5c40\u5ef6\u5ca1\u6cb3\u5ddd\u56fd\u9053\u4e8b\u52d9\u6240","boring_xml_url":49,"boring_view_url":1,"soilmap_view_url":null,"soiltest_xml_url":0,"soiltest_view_url":0},{"id":203410,"code":"B4KJ201801009-1659","latitude":"32.70806","longitude":"131.81108","source_code":"QS20068966490200100019","project_name":"\u6771\u4e5d\u5dde\u81ea\u52d5\u8eca\u9053(\u5317\u6d66\u5730\u533a)\u5730\u8cea\u8abf\u67fb\u696d\u52d9","survey_name":"\u6771\u4e5d\u5dde\u81ea\u52d5\u8eca\u9053(\u5317\u6d66\u5730\u533a)\u5730\u8cea\u8abf\u67fb\u696d\u52d9","client_name":"\u56fd\u571f\u4ea4\u901a\u7701\u4e5d\u5dde\u5730\u65b9\u6574\u5099\u5c40\u5ef6\u5ca1\u6cb3\u5ddd\u56fd\u9053\u4e8b\u52d9\u6240","boring_xml_url":49,"boring_view_url":1,"soilmap_view_url":null,"soiltest_xml_url":0,"soiltest_view_url":0},{"id":203409,"code":"B4KJ201801009-1658","latitude":"32.70872","longitude":"131.81222","source_code":"QS20068966490200100018","project_name":"\u6771\u4e5d\u5dde\u81ea\u52d5\u8eca\u9053(\u5317\u6d66\u5730\u533a)\u5730\u8cea\u8abf\u67fb\u696d\u52d9","survey_name":"\u6771\u4e5d\u5dde\u81ea\u52d5\u8eca\u9053(\u5317\u6d66\u5730\u533a)\u5730\u8cea\u8abf\u67fb\u696d\u52d9","client_name":"\u56fd\u571f\u4ea4\u901a\u7701\u4e5d\u5dde\u5730\u65b9\u6574\u5099\u5c40\u5ef6\u5ca1\u6cb3\u5ddd\u56fd\u9053\u4e8b\u52d9\u6240","boring_xml_url":49,"boring_view_url":1,"soilmap_view_url":null,"soiltest_xml_url":0,"soiltest_view_url":0},{"id":203408,"code":"B4KJ201801009-1657","latitude":"32.70869","longitude":"131.81278","source_code":"QS20068966490200100017","project_name":"\u6771\u4e5d\u5dde\u81ea\u52d5\u8eca\u9053(\u5317\u6d66\u5730\u533a)\u5730\u8cea\u8abf\u67fb\u696d\u52d9","survey_name":"\u6771\u4e5d\u5dde\u81ea\u52d5\u8eca\u9053(\u5317\u6d66\u5730\u533a)\u5730\u8cea\u8abf\u67fb\u696d\u52d9","client_name":"\u56fd\u571f\u4ea4\u901a\u7701\u4e5d\u5dde\u5730\u65b9\u6574\u5099\u5c40\u5ef6\u5ca1\u6cb3\u5ddd\u56fd\u9053\u4e8b\u52d9\u6240","boring_xml_url":49,"boring_view_url":1,"soilmap_view_url":null,"soiltest_xml_url":52,"soiltest_view_url":52},{"id":203407,"code":"B4KJ201801009-1656","latitude":"32.71025","longitude":"131.81453","source_code":"QS20068966490200100016","project_name":"\u6771\u4e5d\u5dde\u81ea\u52d5\u8eca\u9053(\u5317\u6d66\u5730\u533a)\u5730\u8cea\u8abf\u67fb\u696d\u52d9","survey_name":"\u6771\u4e5d\u5dde\u81ea\u52d5\u8eca\u9053(\u5317\u6d66\u5730\u533a)\u5730\u8cea\u8abf\u67fb\u696d\u52d9","client_name":"\u56fd\u571f\u4ea4\u901a\u7701\u4e5d\u5dde\u5730\u65b9\u6574\u5099\u5c40\u5ef6\u5ca1\u6cb3\u5ddd\u56fd\u9053\u4e8b\u52d9\u6240","boring_xml_url":49,"boring_view_url":1,"soilmap_view_url":null,"soiltest_xml_url":0,"soiltest_view_url":0},{"id":203406,"code":"B4KJ201801009-1655","latitude":"32.70994","longitude":"131.81469","source_code":"QS20068966490200100015","project_name":"\u6771\u4e5d\u5dde\u81ea\u52d5\u8eca\u9053(\u5317\u6d66\u5730\u533a)\u5730\u8cea\u8abf\u67fb\u696d\u52d9","survey_name":"\u6771\u4e5d\u5dde\u81ea\u52d5\u8eca\u9053(\u5317\u6d66\u5730\u533a)\u5730\u8cea\u8abf\u67fb\u696d\u52d9","client_name":"\u56fd\u571f\u4ea4\u901a\u7701\u4e5d\u5dde\u5730\u65b9\u6574\u5099\u5c40\u5ef6\u5ca1\u6cb3\u5ddd\u56fd\u9053\u4e8b\u52d9\u6240","boring_xml_url":49,"boring_view_url":1,"soilmap_view_url":null,"soiltest_xml_url":52,"soiltest_view_url":52},{"id":203405,"code":"B4KJ201801009-1654","latitude":"32.71128","longitude":"131.816","source_code":"QS20068966490200100014","project_name":"\u6771\u4e5d\u5dde\u81ea\u52d5\u8eca\u9053(\u5317\u6d66\u5730\u533a)\u5730\u8cea\u8abf\u67fb\u696d\u52d9","survey_name":"\u6771\u4e5d\u5dde\u81ea\u52d5\u8eca\u9053(\u5317\u6d66\u5730\u533a)\u5730\u8cea\u8abf\u67fb\u696d\u52d9","client_name":"\u56fd\u571f\u4ea4\u901a\u7701\u4e5d\u5dde\u5730\u65b9\u6574\u5099\u5c40\u5ef6\u5ca1\u6cb3\u5ddd\u56fd\u9053\u4e8b\u52d9\u6240","boring_xml_url":49,"boring_view_url":1,"soilmap_view_url":null,"soiltest_xml_url":0,"soiltest_view_url":0},{"id":203404,"code":"B4KJ201801009-1653","latitude":"32.71228","longitude":"131.81728","source_code":"QS20068966490200100013","project_name":"\u6771\u4e5d\u5dde\u81ea\u52d5\u8eca\u9053(\u5317\u6d66\u5730\u533a)\u5730\u8cea\u8abf\u67fb\u696d\u52d9","survey_name":"\u6771\u4e5d\u5dde\u81ea\u52d5\u8eca\u9053(\u5317\u6d66\u5730\u533a)\u5730\u8cea\u8abf\u67fb\u696d\u52d9","client_name":"\u56fd\u571f\u4ea4\u901a\u7701\u4e5d\u5dde\u5730\u65b9\u6574\u5099\u5c40\u5ef6\u5ca1\u6cb3\u5ddd\u56fd\u9053\u4e8b\u52d9\u6240","boring_xml_url":49,"boring_view_url":1,"soilmap_view_url":null,"soiltest_xml_url":52,"soiltest_view_url":52},{"id":203403,"code":"B4KJ201801009-1652","latitude":"32.71317","longitude":"131.81789","source_code":"QS20068966490200100012","project_name":"\u6771\u4e5d\u5dde\u81ea\u52d5\u8eca\u9053(\u5317\u6d66\u5730\u533a)\u5730\u8cea\u8abf\u67fb\u696d\u52d9","survey_name":"\u6771\u4e5d\u5dde\u81ea\u52d5\u8eca\u9053(\u5317\u6d66\u5730\u533a)\u5730\u8cea\u8abf\u67fb\u696d\u52d9","client_name":"\u56fd\u571f\u4ea4\u901a\u7701\u4e5d\u5dde\u5730\u65b9\u6574\u5099\u5c40\u5ef6\u5ca1\u6cb3\u5ddd\u56fd\u9053\u4e8b\u52d9\u6240","boring_xml_url":49,"boring_view_url":1,"soilmap_view_url":null,"soiltest_xml_url":52,"soiltest_view_url":52},{"id":203402,"code":"B4KJ201801009-1651","latitude":"32.71369","longitude":"131.81836","source_code":"QS20068966490200100011","project_name":"\u6771\u4e5d\u5dde\u81ea\u52d5\u8eca\u9053(\u5317\u6d66\u5730\u533a)\u5730\u8cea\u8abf\u67fb\u696d\u52d9","survey_name":"\u6771\u4e5d\u5dde\u81ea\u52d5\u8eca\u9053(\u5317\u6d66\u5730\u533a)\u5730\u8cea\u8abf\u67fb\u696d\u52d9","client_name":"\u56fd\u571f\u4ea4\u901a\u7701\u4e5d\u5dde\u5730\u65b9\u6574\u5099\u5c40\u5ef6\u5ca1\u6cb3\u5ddd\u56fd\u9053\u4e8b\u52d9\u6240","boring_xml_url":49,"boring_view_url":1,"soilmap_view_url":null,"soiltest_xml_url":52,"soiltest_view_url":52},{"id":203401,"code":"B4KJ201801009-1650","latitude":"32.71625","longitude":"131.81892","source_code":"QS20068966490200100010","project_name":"\u6771\u4e5d\u5dde\u81ea\u52d5\u8eca\u9053(\u5317\u6d66\u5730\u533a)\u5730\u8cea\u8abf\u67fb\u696d\u52d9","survey_name":"\u6771\u4e5d\u5dde\u81ea\u52d5\u8eca\u9053(\u5317\u6d66\u5730\u533a)\u5730\u8cea\u8abf\u67fb\u696d\u52d9","client_name":"\u56fd\u571f\u4ea4\u901a\u7701\u4e5d\u5dde\u5730\u65b9\u6574\u5099\u5c40\u5ef6\u5ca1\u6cb3\u5ddd\u56fd\u9053\u4e8b\u52d9\u6240","boring_xml_url":49,"boring_view_url":1,"soilmap_view_url":null,"soiltest_xml_url":0,"soiltest_view_url":0},{"id":203400,"code":"B4KJ201801009-1649","latitude":"32.71042","longitude":"131.81917","source_code":"QS20068966490200100009","project_name":"\u6771\u4e5d\u5dde\u81ea\u52d5\u8eca\u9053(\u5317\u6d66\u5730\u533a)\u5730\u8cea\u8abf\u67fb\u696d\u52d9","survey_name":"\u6771\u4e5d\u5dde\u81ea\u52d5\u8eca\u9053(\u5317\u6d66\u5730\u533a)\u5730\u8cea\u8abf\u67fb\u696d\u52d9","client_name":"\u56fd\u571f\u4ea4\u901a\u7701\u4e5d\u5dde\u5730\u65b9\u6574\u5099\u5c40\u5ef6\u5ca1\u6cb3\u5ddd\u56fd\u9053\u4e8b\u52d9\u6240","boring_xml_url":49,"boring_view_url":1,"soilmap_view_url":null,"soiltest_xml_url":0,"soiltest_view_url":0},{"id":203399,"code":"B4KJ201801009-1648","latitude":"32.72017","longitude":"131.82072","source_code":"QS20068966490200100008","project_name":"\u6771\u4e5d\u5dde\u81ea\u52d5\u8eca\u9053(\u5317\u6d66\u5730\u533a)\u5730\u8cea\u8abf\u67fb\u696d\u52d9","survey_name":"\u6771\u4e5d\u5dde\u81ea\u52d5\u8eca\u9053(\u5317\u6d66\u5730\u533a)\u5730\u8cea\u8abf\u67fb\u696d\u52d9","client_name":"\u56fd\u571f\u4ea4\u901a\u7701\u4e5d\u5dde\u5730\u65b9\u6574\u5099\u5c40\u5ef6\u5ca1\u6cb3\u5ddd\u56fd\u9053\u4e8b\u52d9\u6240","boring_xml_url":49,"boring_view_url":1,"soilmap_view_url":null,"soiltest_xml_url":0,"soiltest_view_url":0},{"id":203398,"code":"B4KJ201801009-1647","latitude":"32.71803","longitude":"131.82008","source_code":"QS20068966490200100007","project_name":"\u6771\u4e5d\u5dde\u81ea\u52d5\u8eca\u9053(\u5317\u6d66\u5730\u533a)\u5730\u8cea\u8abf\u67fb\u696d\u52d9","survey_name":"\u6771\u4e5d\u5dde\u81ea\u52d5\u8eca\u9053(\u5317\u6d66\u5730\u533a)\u5730\u8cea\u8abf\u67fb\u696d\u52d9","client_name":"\u56fd\u571f\u4ea4\u901a\u7701\u4e5d\u5dde\u5730\u65b9\u6574\u5099\u5c40\u5ef6\u5ca1\u6cb3\u5ddd\u56fd\u9053\u4e8b\u52d9\u6240","boring_xml_url":49,"boring_view_url":1,"soilmap_view_url":null,"soiltest_xml_url":52,"soiltest_view_url":52},{"id":203397,"code":"B4KJ201801009-1646","latitude":"32.72022","longitude":"131.82058","source_code":"QS20068966490200100006","project_name":"\u6771\u4e5d\u5dde\u81ea\u52d5\u8eca\u9053(\u5317\u6d66\u5730\u533a)\u5730\u8cea\u8abf\u67fb\u696d\u52d9","survey_name":"\u6771\u4e5d\u5dde\u81ea\u52d5\u8eca\u9053(\u5317\u6d66\u5730\u533a)\u5730\u8cea\u8abf\u67fb\u696d\u52d9","client_name":"\u56fd\u571f\u4ea4\u901a\u7701\u4e5d\u5dde\u5730\u65b9\u6574\u5099\u5c40\u5ef6\u5ca1\u6cb3\u5ddd\u56fd\u9053\u4e8b\u52d9\u6240","boring_xml_url":49,"boring_view_url":1,"soilmap_view_url":null,"soiltest_xml_url":52,"soiltest_view_url":52},{"id":203396,"code":"B4KJ201801009-1645","latitude":"32.72278","longitude":"131.82161","source_code":"QS20068966490200100005","project_name":"\u6771\u4e5d\u5dde\u81ea\u52d5\u8eca\u9053(\u5317\u6d66\u5730\u533a)\u5730\u8cea\u8abf\u67fb\u696d\u52d9","survey_name":"\u6771\u4e5d\u5dde\u81ea\u52d5\u8eca\u9053(\u5317\u6d66\u5730\u533a)\u5730\u8cea\u8abf\u67fb\u696d\u52d9","client_name":"\u56fd\u571f\u4ea4\u901a\u7701\u4e5d\u5dde\u5730\u65b9\u6574\u5099\u5c40\u5ef6\u5ca1\u6cb3\u5ddd\u56fd\u9053\u4e8b\u52d9\u6240","boring_xml_url":49,"boring_view_url":1,"soilmap_view_url":null,"soiltest_xml_url":52,"soiltest_view_url":52}]}}