{"header":{"xyz":{"source":[],"mosaic":false},"page":3916,"raw":{"soiltest_result":"0","bbox":"57.598333,109.544722,1.933333,163.806111","page":"3916"},"conditions":{"soiltest_result":0,"north":57.598333,"west":109.544722,"south":1.933333,"east":163.806111},"success":true,"message":""},"data":{"meta":{"total":212844,"page":3916,"pages":7095,"count":30},"values":[{"id":203095,"code":"B4KJ201801009-1344","latitude":"33.0256","longitude":"131.4781","source_code":"QS20068960610200170033","project_name":"","survey_name":"\u5927\u520657\u53f7\u5927\u91ce\u7af9\u7530\u9053\u8def(\u5927\u91ce\u5730\u533a)\u5730\u8cea\u8abf\u67fb\u696d\u52d9","client_name":"\u56fd\u571f\u4ea4\u901a\u7701\u4e5d\u5dde\u5730\u65b9\u6574\u5099\u5c40\u5927\u5206\u6cb3\u5ddd\u56fd\u9053\u4e8b\u52d9\u6240","boring_xml_url":49,"boring_view_url":1,"soilmap_view_url":null,"soiltest_xml_url":0,"soiltest_view_url":0},{"id":203094,"code":"B4KJ201801009-1343","latitude":"33.0267","longitude":"131.4781","source_code":"QS20068960610200170032","project_name":"","survey_name":"\u5927\u520657\u53f7\u5927\u91ce\u7af9\u7530\u9053\u8def(\u5927\u91ce\u5730\u533a)\u5730\u8cea\u8abf\u67fb\u696d\u52d9","client_name":"\u56fd\u571f\u4ea4\u901a\u7701\u4e5d\u5dde\u5730\u65b9\u6574\u5099\u5c40\u5927\u5206\u6cb3\u5ddd\u56fd\u9053\u4e8b\u52d9\u6240","boring_xml_url":49,"boring_view_url":1,"soilmap_view_url":null,"soiltest_xml_url":0,"soiltest_view_url":0},{"id":203093,"code":"B4KJ201801009-1342","latitude":"33.0267","longitude":"131.4786","source_code":"QS20068960610200170031","project_name":"","survey_name":"\u5927\u520657\u53f7\u5927\u91ce\u7af9\u7530\u9053\u8def(\u5927\u91ce\u5730\u533a)\u5730\u8cea\u8abf\u67fb\u696d\u52d9","client_name":"\u56fd\u571f\u4ea4\u901a\u7701\u4e5d\u5dde\u5730\u65b9\u6574\u5099\u5c40\u5927\u5206\u6cb3\u5ddd\u56fd\u9053\u4e8b\u52d9\u6240","boring_xml_url":49,"boring_view_url":1,"soilmap_view_url":null,"soiltest_xml_url":0,"soiltest_view_url":0},{"id":203092,"code":"B4KJ201801009-1341","latitude":"33.0272","longitude":"131.4786","source_code":"QS20068960610200170030","project_name":"","survey_name":"\u5927\u520657\u53f7\u5927\u91ce\u7af9\u7530\u9053\u8def(\u5927\u91ce\u5730\u533a)\u5730\u8cea\u8abf\u67fb\u696d\u52d9","client_name":"\u56fd\u571f\u4ea4\u901a\u7701\u4e5d\u5dde\u5730\u65b9\u6574\u5099\u5c40\u5927\u5206\u6cb3\u5ddd\u56fd\u9053\u4e8b\u52d9\u6240","boring_xml_url":49,"boring_view_url":1,"soilmap_view_url":null,"soiltest_xml_url":0,"soiltest_view_url":0},{"id":203091,"code":"B4KJ201801009-1340","latitude":"33.0269","longitude":"131.4789","source_code":"QS20068960610200170029","project_name":"","survey_name":"\u5927\u520657\u53f7\u5927\u91ce\u7af9\u7530\u9053\u8def(\u5927\u91ce\u5730\u533a)\u5730\u8cea\u8abf\u67fb\u696d\u52d9","client_name":"\u56fd\u571f\u4ea4\u901a\u7701\u4e5d\u5dde\u5730\u65b9\u6574\u5099\u5c40\u5927\u5206\u6cb3\u5ddd\u56fd\u9053\u4e8b\u52d9\u6240","boring_xml_url":49,"boring_view_url":1,"soilmap_view_url":null,"soiltest_xml_url":0,"soiltest_view_url":0},{"id":203090,"code":"B4KJ201801009-1339","latitude":"33.0278","longitude":"131.4792","source_code":"QS20068960610200170028","project_name":"","survey_name":"\u5927\u520657\u53f7\u5927\u91ce\u7af9\u7530\u9053\u8def(\u5927\u91ce\u5730\u533a)\u5730\u8cea\u8abf\u67fb\u696d\u52d9","client_name":"\u56fd\u571f\u4ea4\u901a\u7701\u4e5d\u5dde\u5730\u65b9\u6574\u5099\u5c40\u5927\u5206\u6cb3\u5ddd\u56fd\u9053\u4e8b\u52d9\u6240","boring_xml_url":49,"boring_view_url":1,"soilmap_view_url":null,"soiltest_xml_url":0,"soiltest_view_url":0},{"id":203089,"code":"B4KJ201801009-1338","latitude":"33.0283","longitude":"131.48","source_code":"QS20068960610200170027","project_name":"","survey_name":"\u5927\u520657\u53f7\u5927\u91ce\u7af9\u7530\u9053\u8def(\u5927\u91ce\u5730\u533a)\u5730\u8cea\u8abf\u67fb\u696d\u52d9","client_name":"\u56fd\u571f\u4ea4\u901a\u7701\u4e5d\u5dde\u5730\u65b9\u6574\u5099\u5c40\u5927\u5206\u6cb3\u5ddd\u56fd\u9053\u4e8b\u52d9\u6240","boring_xml_url":49,"boring_view_url":1,"soilmap_view_url":null,"soiltest_xml_url":0,"soiltest_view_url":0},{"id":203088,"code":"B4KJ201801009-1337","latitude":"33.0286","longitude":"131.48","source_code":"QS20068960610200170026","project_name":"","survey_name":"\u5927\u520657\u53f7\u5927\u91ce\u7af9\u7530\u9053\u8def(\u5927\u91ce\u5730\u533a)\u5730\u8cea\u8abf\u67fb\u696d\u52d9","client_name":"\u56fd\u571f\u4ea4\u901a\u7701\u4e5d\u5dde\u5730\u65b9\u6574\u5099\u5c40\u5927\u5206\u6cb3\u5ddd\u56fd\u9053\u4e8b\u52d9\u6240","boring_xml_url":49,"boring_view_url":1,"soilmap_view_url":null,"soiltest_xml_url":0,"soiltest_view_url":0},{"id":203087,"code":"B4KJ201801009-1336","latitude":"33.0289","longitude":"131.4803","source_code":"QS20068960610200170025","project_name":"","survey_name":"\u5927\u520657\u53f7\u5927\u91ce\u7af9\u7530\u9053\u8def(\u5927\u91ce\u5730\u533a)\u5730\u8cea\u8abf\u67fb\u696d\u52d9","client_name":"\u56fd\u571f\u4ea4\u901a\u7701\u4e5d\u5dde\u5730\u65b9\u6574\u5099\u5c40\u5927\u5206\u6cb3\u5ddd\u56fd\u9053\u4e8b\u52d9\u6240","boring_xml_url":49,"boring_view_url":1,"soilmap_view_url":null,"soiltest_xml_url":0,"soiltest_view_url":0},{"id":203086,"code":"B4KJ201801009-1335","latitude":"33.0292","longitude":"131.4806","source_code":"QS20068960610200170024","project_name":"","survey_name":"\u5927\u520657\u53f7\u5927\u91ce\u7af9\u7530\u9053\u8def(\u5927\u91ce\u5730\u533a)\u5730\u8cea\u8abf\u67fb\u696d\u52d9","client_name":"\u56fd\u571f\u4ea4\u901a\u7701\u4e5d\u5dde\u5730\u65b9\u6574\u5099\u5c40\u5927\u5206\u6cb3\u5ddd\u56fd\u9053\u4e8b\u52d9\u6240","boring_xml_url":49,"boring_view_url":1,"soilmap_view_url":null,"soiltest_xml_url":0,"soiltest_view_url":0},{"id":203085,"code":"B4KJ201801009-1334","latitude":"33.0297","longitude":"131.4808","source_code":"QS20068960610200170023","project_name":"","survey_name":"\u5927\u520657\u53f7\u5927\u91ce\u7af9\u7530\u9053\u8def(\u5927\u91ce\u5730\u533a)\u5730\u8cea\u8abf\u67fb\u696d\u52d9","client_name":"\u56fd\u571f\u4ea4\u901a\u7701\u4e5d\u5dde\u5730\u65b9\u6574\u5099\u5c40\u5927\u5206\u6cb3\u5ddd\u56fd\u9053\u4e8b\u52d9\u6240","boring_xml_url":49,"boring_view_url":1,"soilmap_view_url":null,"soiltest_xml_url":0,"soiltest_view_url":0},{"id":203084,"code":"B4KJ201801009-1333","latitude":"33.0297","longitude":"131.4814","source_code":"QS20068960610200170022","project_name":"","survey_name":"\u5927\u520657\u53f7\u5927\u91ce\u7af9\u7530\u9053\u8def(\u5927\u91ce\u5730\u533a)\u5730\u8cea\u8abf\u67fb\u696d\u52d9","client_name":"\u56fd\u571f\u4ea4\u901a\u7701\u4e5d\u5dde\u5730\u65b9\u6574\u5099\u5c40\u5927\u5206\u6cb3\u5ddd\u56fd\u9053\u4e8b\u52d9\u6240","boring_xml_url":49,"boring_view_url":1,"soilmap_view_url":null,"soiltest_xml_url":0,"soiltest_view_url":0},{"id":203083,"code":"B4KJ201801009-1332","latitude":"33.0306","longitude":"131.4817","source_code":"QS20068960610200170021","project_name":"","survey_name":"\u5927\u520657\u53f7\u5927\u91ce\u7af9\u7530\u9053\u8def(\u5927\u91ce\u5730\u533a)\u5730\u8cea\u8abf\u67fb\u696d\u52d9","client_name":"\u56fd\u571f\u4ea4\u901a\u7701\u4e5d\u5dde\u5730\u65b9\u6574\u5099\u5c40\u5927\u5206\u6cb3\u5ddd\u56fd\u9053\u4e8b\u52d9\u6240","boring_xml_url":49,"boring_view_url":1,"soilmap_view_url":null,"soiltest_xml_url":0,"soiltest_view_url":0},{"id":203082,"code":"B4KJ201801009-1331","latitude":"33.0306","longitude":"131.4822","source_code":"QS20068960610200170020","project_name":"","survey_name":"\u5927\u520657\u53f7\u5927\u91ce\u7af9\u7530\u9053\u8def(\u5927\u91ce\u5730\u533a)\u5730\u8cea\u8abf\u67fb\u696d\u52d9","client_name":"\u56fd\u571f\u4ea4\u901a\u7701\u4e5d\u5dde\u5730\u65b9\u6574\u5099\u5c40\u5927\u5206\u6cb3\u5ddd\u56fd\u9053\u4e8b\u52d9\u6240","boring_xml_url":49,"boring_view_url":1,"soilmap_view_url":null,"soiltest_xml_url":0,"soiltest_view_url":0},{"id":203081,"code":"B4KJ201801009-1330","latitude":"33.0308","longitude":"131.4825","source_code":"QS20068960610200170019","project_name":"","survey_name":"\u5927\u520657\u53f7\u5927\u91ce\u7af9\u7530\u9053\u8def(\u5927\u91ce\u5730\u533a)\u5730\u8cea\u8abf\u67fb\u696d\u52d9","client_name":"\u56fd\u571f\u4ea4\u901a\u7701\u4e5d\u5dde\u5730\u65b9\u6574\u5099\u5c40\u5927\u5206\u6cb3\u5ddd\u56fd\u9053\u4e8b\u52d9\u6240","boring_xml_url":49,"boring_view_url":1,"soilmap_view_url":null,"soiltest_xml_url":0,"soiltest_view_url":0},{"id":203080,"code":"B4KJ201801009-1329","latitude":"33.0311","longitude":"131.4828","source_code":"QS20068960610200170018","project_name":"","survey_name":"\u5927\u520657\u53f7\u5927\u91ce\u7af9\u7530\u9053\u8def(\u5927\u91ce\u5730\u533a)\u5730\u8cea\u8abf\u67fb\u696d\u52d9","client_name":"\u56fd\u571f\u4ea4\u901a\u7701\u4e5d\u5dde\u5730\u65b9\u6574\u5099\u5c40\u5927\u5206\u6cb3\u5ddd\u56fd\u9053\u4e8b\u52d9\u6240","boring_xml_url":49,"boring_view_url":1,"soilmap_view_url":null,"soiltest_xml_url":0,"soiltest_view_url":0},{"id":203079,"code":"B4KJ201801009-1328","latitude":"33.0308","longitude":"131.4831","source_code":"QS20068960610200170017","project_name":"","survey_name":"\u5927\u520657\u53f7\u5927\u91ce\u7af9\u7530\u9053\u8def(\u5927\u91ce\u5730\u533a)\u5730\u8cea\u8abf\u67fb\u696d\u52d9","client_name":"\u56fd\u571f\u4ea4\u901a\u7701\u4e5d\u5dde\u5730\u65b9\u6574\u5099\u5c40\u5927\u5206\u6cb3\u5ddd\u56fd\u9053\u4e8b\u52d9\u6240","boring_xml_url":49,"boring_view_url":1,"soilmap_view_url":null,"soiltest_xml_url":0,"soiltest_view_url":0},{"id":203078,"code":"B4KJ201801009-1327","latitude":"33.0314","longitude":"131.4831","source_code":"QS20068960610200170016","project_name":"","survey_name":"\u5927\u520657\u53f7\u5927\u91ce\u7af9\u7530\u9053\u8def(\u5927\u91ce\u5730\u533a)\u5730\u8cea\u8abf\u67fb\u696d\u52d9","client_name":"\u56fd\u571f\u4ea4\u901a\u7701\u4e5d\u5dde\u5730\u65b9\u6574\u5099\u5c40\u5927\u5206\u6cb3\u5ddd\u56fd\u9053\u4e8b\u52d9\u6240","boring_xml_url":49,"boring_view_url":1,"soilmap_view_url":null,"soiltest_xml_url":0,"soiltest_view_url":0},{"id":203077,"code":"B4KJ201801009-1326","latitude":"33.0314","longitude":"131.4833","source_code":"QS20068960610200170015","project_name":"","survey_name":"\u5927\u520657\u53f7\u5927\u91ce\u7af9\u7530\u9053\u8def(\u5927\u91ce\u5730\u533a)\u5730\u8cea\u8abf\u67fb\u696d\u52d9","client_name":"\u56fd\u571f\u4ea4\u901a\u7701\u4e5d\u5dde\u5730\u65b9\u6574\u5099\u5c40\u5927\u5206\u6cb3\u5ddd\u56fd\u9053\u4e8b\u52d9\u6240","boring_xml_url":49,"boring_view_url":1,"soilmap_view_url":null,"soiltest_xml_url":0,"soiltest_view_url":0},{"id":203076,"code":"B4KJ201801009-1325","latitude":"33.0314","longitude":"131.4842","source_code":"QS20068960610200170014","project_name":"","survey_name":"\u5927\u520657\u53f7\u5927\u91ce\u7af9\u7530\u9053\u8def(\u5927\u91ce\u5730\u533a)\u5730\u8cea\u8abf\u67fb\u696d\u52d9","client_name":"\u56fd\u571f\u4ea4\u901a\u7701\u4e5d\u5dde\u5730\u65b9\u6574\u5099\u5c40\u5927\u5206\u6cb3\u5ddd\u56fd\u9053\u4e8b\u52d9\u6240","boring_xml_url":49,"boring_view_url":1,"soilmap_view_url":null,"soiltest_xml_url":0,"soiltest_view_url":0},{"id":203075,"code":"B4KJ201801009-1324","latitude":"33.0319","longitude":"131.4847","source_code":"QS20068960610200170013","project_name":"","survey_name":"\u5927\u520657\u53f7\u5927\u91ce\u7af9\u7530\u9053\u8def(\u5927\u91ce\u5730\u533a)\u5730\u8cea\u8abf\u67fb\u696d\u52d9","client_name":"\u56fd\u571f\u4ea4\u901a\u7701\u4e5d\u5dde\u5730\u65b9\u6574\u5099\u5c40\u5927\u5206\u6cb3\u5ddd\u56fd\u9053\u4e8b\u52d9\u6240","boring_xml_url":49,"boring_view_url":1,"soilmap_view_url":null,"soiltest_xml_url":0,"soiltest_view_url":0},{"id":203074,"code":"B4KJ201801009-1323","latitude":"33.0319","longitude":"131.485","source_code":"QS20068960610200170012","project_name":"","survey_name":"\u5927\u520657\u53f7\u5927\u91ce\u7af9\u7530\u9053\u8def(\u5927\u91ce\u5730\u533a)\u5730\u8cea\u8abf\u67fb\u696d\u52d9","client_name":"\u56fd\u571f\u4ea4\u901a\u7701\u4e5d\u5dde\u5730\u65b9\u6574\u5099\u5c40\u5927\u5206\u6cb3\u5ddd\u56fd\u9053\u4e8b\u52d9\u6240","boring_xml_url":49,"boring_view_url":1,"soilmap_view_url":null,"soiltest_xml_url":0,"soiltest_view_url":0},{"id":203073,"code":"B4KJ201801009-1322","latitude":"33.0328","longitude":"131.4864","source_code":"QS20068960610200170011","project_name":"","survey_name":"\u5927\u520657\u53f7\u5927\u91ce\u7af9\u7530\u9053\u8def(\u5927\u91ce\u5730\u533a)\u5730\u8cea\u8abf\u67fb\u696d\u52d9","client_name":"\u56fd\u571f\u4ea4\u901a\u7701\u4e5d\u5dde\u5730\u65b9\u6574\u5099\u5c40\u5927\u5206\u6cb3\u5ddd\u56fd\u9053\u4e8b\u52d9\u6240","boring_xml_url":49,"boring_view_url":1,"soilmap_view_url":null,"soiltest_xml_url":0,"soiltest_view_url":0},{"id":203072,"code":"B4KJ201801009-1321","latitude":"33.0325","longitude":"131.4869","source_code":"QS20068960610200170010","project_name":"","survey_name":"\u5927\u520657\u53f7\u5927\u91ce\u7af9\u7530\u9053\u8def(\u5927\u91ce\u5730\u533a)\u5730\u8cea\u8abf\u67fb\u696d\u52d9","client_name":"\u56fd\u571f\u4ea4\u901a\u7701\u4e5d\u5dde\u5730\u65b9\u6574\u5099\u5c40\u5927\u5206\u6cb3\u5ddd\u56fd\u9053\u4e8b\u52d9\u6240","boring_xml_url":49,"boring_view_url":1,"soilmap_view_url":null,"soiltest_xml_url":0,"soiltest_view_url":0},{"id":203071,"code":"B4KJ201801009-1320","latitude":"33.0331","longitude":"131.4878","source_code":"QS20068960610200170009","project_name":"","survey_name":"\u5927\u520657\u53f7\u5927\u91ce\u7af9\u7530\u9053\u8def(\u5927\u91ce\u5730\u533a)\u5730\u8cea\u8abf\u67fb\u696d\u52d9","client_name":"\u56fd\u571f\u4ea4\u901a\u7701\u4e5d\u5dde\u5730\u65b9\u6574\u5099\u5c40\u5927\u5206\u6cb3\u5ddd\u56fd\u9053\u4e8b\u52d9\u6240","boring_xml_url":49,"boring_view_url":1,"soilmap_view_url":null,"soiltest_xml_url":0,"soiltest_view_url":0},{"id":203070,"code":"B4KJ201801009-1319","latitude":"33.0328","longitude":"131.4889","source_code":"QS20068960610200170008","project_name":"","survey_name":"\u5927\u520657\u53f7\u5927\u91ce\u7af9\u7530\u9053\u8def(\u5927\u91ce\u5730\u533a)\u5730\u8cea\u8abf\u67fb\u696d\u52d9","client_name":"\u56fd\u571f\u4ea4\u901a\u7701\u4e5d\u5dde\u5730\u65b9\u6574\u5099\u5c40\u5927\u5206\u6cb3\u5ddd\u56fd\u9053\u4e8b\u52d9\u6240","boring_xml_url":49,"boring_view_url":1,"soilmap_view_url":null,"soiltest_xml_url":0,"soiltest_view_url":0},{"id":203069,"code":"B4KJ201801009-1318","latitude":"33.0339","longitude":"131.4911","source_code":"QS20068960610200170007","project_name":"","survey_name":"\u5927\u520657\u53f7\u5927\u91ce\u7af9\u7530\u9053\u8def(\u5927\u91ce\u5730\u533a)\u5730\u8cea\u8abf\u67fb\u696d\u52d9","client_name":"\u56fd\u571f\u4ea4\u901a\u7701\u4e5d\u5dde\u5730\u65b9\u6574\u5099\u5c40\u5927\u5206\u6cb3\u5ddd\u56fd\u9053\u4e8b\u52d9\u6240","boring_xml_url":49,"boring_view_url":1,"soilmap_view_url":null,"soiltest_xml_url":52,"soiltest_view_url":52},{"id":203068,"code":"B4KJ201801009-1317","latitude":"33.0339","longitude":"131.4933","source_code":"QS20068960610200170006","project_name":"","survey_name":"\u5927\u520657\u53f7\u5927\u91ce\u7af9\u7530\u9053\u8def(\u5927\u91ce\u5730\u533a)\u5730\u8cea\u8abf\u67fb\u696d\u52d9","client_name":"\u56fd\u571f\u4ea4\u901a\u7701\u4e5d\u5dde\u5730\u65b9\u6574\u5099\u5c40\u5927\u5206\u6cb3\u5ddd\u56fd\u9053\u4e8b\u52d9\u6240","boring_xml_url":49,"boring_view_url":1,"soilmap_view_url":null,"soiltest_xml_url":52,"soiltest_view_url":52},{"id":203067,"code":"B4KJ201801009-1316","latitude":"33.0344","longitude":"131.4967","source_code":"QS20068960610200170005","project_name":"","survey_name":"\u5927\u520657\u53f7\u5927\u91ce\u7af9\u7530\u9053\u8def(\u5927\u91ce\u5730\u533a)\u5730\u8cea\u8abf\u67fb\u696d\u52d9","client_name":"\u56fd\u571f\u4ea4\u901a\u7701\u4e5d\u5dde\u5730\u65b9\u6574\u5099\u5c40\u5927\u5206\u6cb3\u5ddd\u56fd\u9053\u4e8b\u52d9\u6240","boring_xml_url":49,"boring_view_url":1,"soilmap_view_url":null,"soiltest_xml_url":0,"soiltest_view_url":0},{"id":203066,"code":"B4KJ201801009-1315","latitude":"33.0344","longitude":"131.4978","source_code":"QS20068960610200170004","project_name":"","survey_name":"\u5927\u520657\u53f7\u5927\u91ce\u7af9\u7530\u9053\u8def(\u5927\u91ce\u5730\u533a)\u5730\u8cea\u8abf\u67fb\u696d\u52d9","client_name":"\u56fd\u571f\u4ea4\u901a\u7701\u4e5d\u5dde\u5730\u65b9\u6574\u5099\u5c40\u5927\u5206\u6cb3\u5ddd\u56fd\u9053\u4e8b\u52d9\u6240","boring_xml_url":49,"boring_view_url":1,"soilmap_view_url":null,"soiltest_xml_url":0,"soiltest_view_url":0}]}}