{"header":{"xyz":{"source":[],"mosaic":false},"page":3938,"raw":{"soiltest_result":"0","bbox":"57.598333,109.544722,1.933333,163.806111","page":"3938"},"conditions":{"soiltest_result":0,"north":57.598333,"west":109.544722,"south":1.933333,"east":163.806111},"success":true,"message":""},"data":{"meta":{"total":212844,"page":3938,"pages":7095,"count":30},"values":[{"id":202435,"code":"B4KJ201801009-0684","latitude":"32.075725","longitude":"130.272222","source_code":"QS20058972650200150002","project_name":"\u5357\u4e5d\u5dde\u897f\u56de\u308a\u81ea\u52d5\u8eca\u9053","survey_name":"\u91ce\u7530\u30fb\u963f\u4e45\u6839\u5730\u533a\u5730\u8cea\u8abf\u67fb\u696d\u52d9","client_name":"\u56fd\u4ea4\u7701\u4e5d\u5dde\u5730\u65b9\u6574\u5099\u5c40\u9e7f\u5150\u5cf6\u56fd\u4e8b\u52d9\u6240 \u8abf\u67fb\u8ab2","boring_xml_url":49,"boring_view_url":1,"soilmap_view_url":null,"soiltest_xml_url":0,"soiltest_view_url":0},{"id":202434,"code":"B4KJ201801009-0683","latitude":"32.076292","longitude":"130.274539","source_code":"QS20058972650200150001","project_name":"\u5357\u4e5d\u5dde\u897f\u56de\u308a\u81ea\u52d5\u8eca\u9053","survey_name":"\u91ce\u7530\u30fb\u963f\u4e45\u6839\u5730\u533a\u5730\u8cea\u8abf\u67fb\u696d\u52d9","client_name":"\u56fd\u4ea4\u7701\u4e5d\u5dde\u5730\u65b9\u6574\u5099\u5c40\u9e7f\u5150\u5cf6\u56fd\u4e8b\u52d9\u6240 \u8abf\u67fb\u8ab2","boring_xml_url":49,"boring_view_url":1,"soilmap_view_url":null,"soiltest_xml_url":0,"soiltest_view_url":0},{"id":202433,"code":"B4KJ201801009-0682","latitude":"31.82166053","longitude":"130.2599975","source_code":"QS20058972650200140016","project_name":"\u5357\u4e5d\u5dde\u897f\u56de\u308a\u81ea\u52d5\u8eca\u9053","survey_name":"\u6c34\u5f15\u30fb\u9ad8\u6c5f\u5730\u533a\u5730\u8cea\u8abf\u67fb\u696d\u52d9","client_name":"\u56fd\u571f\u4ea4\u901a\u7701 \u4e5d\u5dde\u5730\u65b9\u6574\u5099\u5c40 \u9e7f\u5150\u5cf6\u56fd\u9053\u4e8b\u52d9\u6240","boring_xml_url":49,"boring_view_url":1,"soilmap_view_url":null,"soiltest_xml_url":0,"soiltest_view_url":0},{"id":202432,"code":"B4KJ201801009-0681","latitude":"31.82244025","longitude":"130.2598486","source_code":"QS20058972650200140015","project_name":"\u5357\u4e5d\u5dde\u897f\u56de\u308a\u81ea\u52d5\u8eca\u9053","survey_name":"\u6c34\u5f15\u30fb\u9ad8\u6c5f\u5730\u533a\u5730\u8cea\u8abf\u67fb\u696d\u52d9","client_name":"\u56fd\u571f\u4ea4\u901a\u7701 \u4e5d\u5dde\u5730\u65b9\u6574\u5099\u5c40 \u9e7f\u5150\u5cf6\u56fd\u9053\u4e8b\u52d9\u6240","boring_xml_url":49,"boring_view_url":1,"soilmap_view_url":null,"soiltest_xml_url":0,"soiltest_view_url":0},{"id":202431,"code":"B4KJ201801009-0680","latitude":"31.82503206","longitude":"130.2592981","source_code":"QS20058972650200140014","project_name":"\u5357\u4e5d\u5dde\u897f\u56de\u308a\u81ea\u52d5\u8eca\u9053","survey_name":"\u6c34\u5f15\u30fb\u9ad8\u6c5f\u5730\u533a\u5730\u8cea\u8abf\u67fb\u696d\u52d9","client_name":"\u56fd\u571f\u4ea4\u901a\u7701 \u4e5d\u5dde\u5730\u65b9\u6574\u5099\u5c40 \u9e7f\u5150\u5cf6\u56fd\u9053\u4e8b\u52d9\u6240","boring_xml_url":49,"boring_view_url":1,"soilmap_view_url":null,"soiltest_xml_url":0,"soiltest_view_url":0},{"id":202430,"code":"B4KJ201801009-0679","latitude":"31.83153983","longitude":"130.2604797","source_code":"QS20058972650200140013","project_name":"\u5357\u4e5d\u5dde\u897f\u56de\u308a\u81ea\u52d5\u8eca\u9053","survey_name":"\u6c34\u5f15\u30fb\u9ad8\u6c5f\u5730\u533a\u5730\u8cea\u8abf\u67fb\u696d\u52d9","client_name":"\u56fd\u571f\u4ea4\u901a\u7701 \u4e5d\u5dde\u5730\u65b9\u6574\u5099\u5c40 \u9e7f\u5150\u5cf6\u56fd\u9053\u4e8b\u52d9\u6240","boring_xml_url":49,"boring_view_url":1,"soilmap_view_url":null,"soiltest_xml_url":0,"soiltest_view_url":0},{"id":202429,"code":"B4KJ201801009-0678","latitude":"31.83132622","longitude":"130.2599322","source_code":"QS20058972650200140012","project_name":"\u5357\u4e5d\u5dde\u897f\u56de\u308a\u81ea\u52d5\u8eca\u9053","survey_name":"\u6c34\u5f15\u30fb\u9ad8\u6c5f\u5730\u533a\u5730\u8cea\u8abf\u67fb\u696d\u52d9","client_name":"\u56fd\u571f\u4ea4\u901a\u7701 \u4e5d\u5dde\u5730\u65b9\u6574\u5099\u5c40 \u9e7f\u5150\u5cf6\u56fd\u9053\u4e8b\u52d9\u6240","boring_xml_url":49,"boring_view_url":1,"soilmap_view_url":null,"soiltest_xml_url":0,"soiltest_view_url":0},{"id":202428,"code":"B4KJ201801009-0677","latitude":"31.83291814","longitude":"130.2600739","source_code":"QS20058972650200140011","project_name":"\u5357\u4e5d\u5dde\u897f\u56de\u308a\u81ea\u52d5\u8eca\u9053","survey_name":"\u6c34\u5f15\u30fb\u9ad8\u6c5f\u5730\u533a\u5730\u8cea\u8abf\u67fb\u696d\u52d9","client_name":"\u56fd\u571f\u4ea4\u901a\u7701 \u4e5d\u5dde\u5730\u65b9\u6574\u5099\u5c40 \u9e7f\u5150\u5cf6\u56fd\u9053\u4e8b\u52d9\u6240","boring_xml_url":49,"boring_view_url":1,"soilmap_view_url":null,"soiltest_xml_url":0,"soiltest_view_url":0},{"id":202427,"code":"B4KJ201801009-0676","latitude":"31.83876392","longitude":"130.2617917","source_code":"QS20058972650200140010","project_name":"\u5357\u4e5d\u5dde\u897f\u56de\u308a\u81ea\u52d5\u8eca\u9053","survey_name":"\u6c34\u5f15\u30fb\u9ad8\u6c5f\u5730\u533a\u5730\u8cea\u8abf\u67fb\u696d\u52d9","client_name":"\u56fd\u571f\u4ea4\u901a\u7701 \u4e5d\u5dde\u5730\u65b9\u6574\u5099\u5c40 \u9e7f\u5150\u5cf6\u56fd\u9053\u4e8b\u52d9\u6240","boring_xml_url":49,"boring_view_url":1,"soilmap_view_url":null,"soiltest_xml_url":0,"soiltest_view_url":0},{"id":202426,"code":"B4KJ201801009-0675","latitude":"31.84194539","longitude":"130.2613025","source_code":"QS20058972650200140009","project_name":"\u5357\u4e5d\u5dde\u897f\u56de\u308a\u81ea\u52d5\u8eca\u9053","survey_name":"\u6c34\u5f15\u30fb\u9ad8\u6c5f\u5730\u533a\u5730\u8cea\u8abf\u67fb\u696d\u52d9","client_name":"\u56fd\u571f\u4ea4\u901a\u7701 \u4e5d\u5dde\u5730\u65b9\u6574\u5099\u5c40 \u9e7f\u5150\u5cf6\u56fd\u9053\u4e8b\u52d9\u6240","boring_xml_url":49,"boring_view_url":1,"soilmap_view_url":null,"soiltest_xml_url":0,"soiltest_view_url":0},{"id":202425,"code":"B4KJ201801009-0674","latitude":"31.84366764","longitude":"130.2601806","source_code":"QS20058972650200140008","project_name":"\u5357\u4e5d\u5dde\u897f\u56de\u308a\u81ea\u52d5\u8eca\u9053","survey_name":"\u6c34\u5f15\u30fb\u9ad8\u6c5f\u5730\u533a\u5730\u8cea\u8abf\u67fb\u696d\u52d9","client_name":"\u56fd\u571f\u4ea4\u901a\u7701 \u4e5d\u5dde\u5730\u65b9\u6574\u5099\u5c40 \u9e7f\u5150\u5cf6\u56fd\u9053\u4e8b\u52d9\u6240","boring_xml_url":49,"boring_view_url":1,"soilmap_view_url":null,"soiltest_xml_url":0,"soiltest_view_url":0},{"id":202424,"code":"B4KJ201801009-0673","latitude":"31.8457472","longitude":"130.2583483","source_code":"QS20058972650200140007","project_name":"\u5357\u4e5d\u5dde\u897f\u56de\u308a\u81ea\u52d5\u8eca\u9053","survey_name":"\u6c34\u5f15\u30fb\u9ad8\u6c5f\u5730\u533a\u5730\u8cea\u8abf\u67fb\u696d\u52d9","client_name":"\u56fd\u571f\u4ea4\u901a\u7701 \u4e5d\u5dde\u5730\u65b9\u6574\u5099\u5c40 \u9e7f\u5150\u5cf6\u56fd\u9053\u4e8b\u52d9\u6240","boring_xml_url":49,"boring_view_url":1,"soilmap_view_url":null,"soiltest_xml_url":0,"soiltest_view_url":0},{"id":202423,"code":"B4KJ201801009-0672","latitude":"31.84604275","longitude":"130.2580503","source_code":"QS20058972650200140006","project_name":"\u5357\u4e5d\u5dde\u897f\u56de\u308a\u81ea\u52d5\u8eca\u9053","survey_name":"\u6c34\u5f15\u30fb\u9ad8\u6c5f\u5730\u533a\u5730\u8cea\u8abf\u67fb\u696d\u52d9","client_name":"\u56fd\u571f\u4ea4\u901a\u7701 \u4e5d\u5dde\u5730\u65b9\u6574\u5099\u5c40 \u9e7f\u5150\u5cf6\u56fd\u9053\u4e8b\u52d9\u6240","boring_xml_url":49,"boring_view_url":1,"soilmap_view_url":null,"soiltest_xml_url":0,"soiltest_view_url":0},{"id":202422,"code":"B4KJ201801009-0671","latitude":"31.8468133","longitude":"130.2569247","source_code":"QS20058972650200140005","project_name":"\u5357\u4e5d\u5dde\u897f\u56de\u308a\u81ea\u52d5\u8eca\u9053","survey_name":"\u6c34\u5f15\u30fb\u9ad8\u6c5f\u5730\u533a\u5730\u8cea\u8abf\u67fb\u696d\u52d9","client_name":"\u56fd\u571f\u4ea4\u901a\u7701 \u4e5d\u5dde\u5730\u65b9\u6574\u5099\u5c40 \u9e7f\u5150\u5cf6\u56fd\u9053\u4e8b\u52d9\u6240","boring_xml_url":49,"boring_view_url":1,"soilmap_view_url":null,"soiltest_xml_url":0,"soiltest_view_url":0},{"id":202421,"code":"B4KJ201801009-0670","latitude":"31.84729658","longitude":"130.256285","source_code":"QS20058972650200140004","project_name":"\u5357\u4e5d\u5dde\u897f\u56de\u308a\u81ea\u52d5\u8eca\u9053","survey_name":"\u6c34\u5f15\u30fb\u9ad8\u6c5f\u5730\u533a\u5730\u8cea\u8abf\u67fb\u696d\u52d9","client_name":"\u56fd\u571f\u4ea4\u901a\u7701 \u4e5d\u5dde\u5730\u65b9\u6574\u5099\u5c40 \u9e7f\u5150\u5cf6\u56fd\u9053\u4e8b\u52d9\u6240","boring_xml_url":49,"boring_view_url":1,"soilmap_view_url":null,"soiltest_xml_url":0,"soiltest_view_url":0},{"id":202420,"code":"B4KJ201801009-0669","latitude":"31.84956367","longitude":"130.2530306","source_code":"QS20058972650200140003","project_name":"\u5357\u4e5d\u5dde\u897f\u56de\u308a\u81ea\u52d5\u8eca\u9053","survey_name":"\u6c34\u5f15\u30fb\u9ad8\u6c5f\u5730\u533a\u5730\u8cea\u8abf\u67fb\u696d\u52d9","client_name":"\u56fd\u571f\u4ea4\u901a\u7701 \u4e5d\u5dde\u5730\u65b9\u6574\u5099\u5c40 \u9e7f\u5150\u5cf6\u56fd\u9053\u4e8b\u52d9\u6240","boring_xml_url":49,"boring_view_url":1,"soilmap_view_url":null,"soiltest_xml_url":0,"soiltest_view_url":0},{"id":202419,"code":"B4KJ201801009-0668","latitude":"31.84909836","longitude":"130.2526908","source_code":"QS20058972650200140002","project_name":"\u5357\u4e5d\u5dde\u897f\u56de\u308a\u81ea\u52d5\u8eca\u9053","survey_name":"\u6c34\u5f15\u30fb\u9ad8\u6c5f\u5730\u533a\u5730\u8cea\u8abf\u67fb\u696d\u52d9","client_name":"\u56fd\u571f\u4ea4\u901a\u7701 \u4e5d\u5dde\u5730\u65b9\u6574\u5099\u5c40 \u9e7f\u5150\u5cf6\u56fd\u9053\u4e8b\u52d9\u6240","boring_xml_url":49,"boring_view_url":1,"soilmap_view_url":null,"soiltest_xml_url":0,"soiltest_view_url":0},{"id":202418,"code":"B4KJ201801009-0667","latitude":"31.84882219","longitude":"130.2500928","source_code":"QS20058972650200140001","project_name":"\u5357\u4e5d\u5dde\u897f\u56de\u308a\u81ea\u52d5\u8eca\u9053","survey_name":"\u6c34\u5f15\u30fb\u9ad8\u6c5f\u5730\u533a\u5730\u8cea\u8abf\u67fb\u696d\u52d9","client_name":"\u56fd\u571f\u4ea4\u901a\u7701 \u4e5d\u5dde\u5730\u65b9\u6574\u5099\u5c40 \u9e7f\u5150\u5cf6\u56fd\u9053\u4e8b\u52d9\u6240","boring_xml_url":49,"boring_view_url":1,"soilmap_view_url":null,"soiltest_xml_url":0,"soiltest_view_url":0},{"id":202417,"code":"B4KJ201801009-0666","latitude":"31.45369","longitude":"130.51442","source_code":"QS20058972410200280011","project_name":"\u91d1\u5c71\u5730\u533a\u5730\u8cea\u8abf\u67fb\u696d\u52d9","survey_name":"\u91d1\u5c71\u5730\u533a\u5730\u8cea\u8abf\u67fb\u696d\u52d9","client_name":"\u56fd\u571f\u4ea4\u901a\u7701 \u4e5d\u5dde\u5730\u65b9\u6574\u5099\u5c40 \u9e7f\u5150\u5cf6\u56fd\u9053\u4e8b\u52d9\u6240","boring_xml_url":49,"boring_view_url":1,"soilmap_view_url":null,"soiltest_xml_url":0,"soiltest_view_url":0},{"id":202416,"code":"B4KJ201801009-0665","latitude":"31.45367","longitude":"130.51442","source_code":"QS20058972410200280010","project_name":"\u91d1\u5c71\u5730\u533a\u5730\u8cea\u8abf\u67fb\u696d\u52d9","survey_name":"\u91d1\u5c71\u5730\u533a\u5730\u8cea\u8abf\u67fb\u696d\u52d9","client_name":"\u56fd\u571f\u4ea4\u901a\u7701 \u4e5d\u5dde\u5730\u65b9\u6574\u5099\u5c40 \u9e7f\u5150\u5cf6\u56fd\u9053\u4e8b\u52d9\u6240","boring_xml_url":49,"boring_view_url":1,"soilmap_view_url":null,"soiltest_xml_url":0,"soiltest_view_url":0},{"id":202415,"code":"B4KJ201801009-0664","latitude":"31.4536","longitude":"130.5144","source_code":"QS20058972410200280009","project_name":"\u91d1\u5c71\u5730\u533a\u5730\u8cea\u8abf\u67fb\u696d\u52d9","survey_name":"\u91d1\u5c71\u5730\u533a\u5730\u8cea\u8abf\u67fb\u696d\u52d9","client_name":"\u56fd\u571f\u4ea4\u901a\u7701 \u4e5d\u5dde\u5730\u65b9\u6574\u5099\u5c40 \u9e7f\u5150\u5cf6\u56fd\u9053\u4e8b\u52d9\u6240","boring_xml_url":49,"boring_view_url":1,"soilmap_view_url":null,"soiltest_xml_url":0,"soiltest_view_url":0},{"id":202414,"code":"B4KJ201801009-0663","latitude":"31.4536","longitude":"130.5144","source_code":"QS20058972410200280008","project_name":"\u91d1\u5c71\u5730\u533a\u5730\u8cea\u8abf\u67fb\u696d\u52d9","survey_name":"\u91d1\u5c71\u5730\u533a\u5730\u8cea\u8abf\u67fb\u696d\u52d9","client_name":"\u56fd\u571f\u4ea4\u901a\u7701 \u4e5d\u5dde\u5730\u65b9\u6574\u5099\u5c40 \u9e7f\u5150\u5cf6\u56fd\u9053\u4e8b\u52d9\u6240","boring_xml_url":49,"boring_view_url":1,"soilmap_view_url":null,"soiltest_xml_url":0,"soiltest_view_url":0},{"id":202413,"code":"B4KJ201801009-0662","latitude":"31.45369","longitude":"130.51447","source_code":"QS20058972410200280007","project_name":"\u91d1\u5c71\u5730\u533a\u5730\u8cea\u8abf\u67fb\u696d\u52d9","survey_name":"\u91d1\u5c71\u5730\u533a\u5730\u8cea\u8abf\u67fb\u696d\u52d9","client_name":"\u56fd\u571f\u4ea4\u901a\u7701 \u4e5d\u5dde\u5730\u65b9\u6574\u5099\u5c40 \u9e7f\u5150\u5cf6\u56fd\u9053\u4e8b\u52d9\u6240","boring_xml_url":49,"boring_view_url":1,"soilmap_view_url":null,"soiltest_xml_url":0,"soiltest_view_url":0},{"id":202412,"code":"B4KJ201801009-0661","latitude":"31.82761","longitude":"130.25936","source_code":"QS20058972410200280006","project_name":"\u91d1\u5c71\u5730\u533a\u5730\u8cea\u8abf\u67fb\u696d\u52d9","survey_name":"\u91d1\u5c71\u5730\u533a\u5730\u8cea\u8abf\u67fb\u696d\u52d9","client_name":"\u56fd\u571f\u4ea4\u901a\u7701 \u4e5d\u5dde\u5730\u65b9\u6574\u5099\u5c40 \u9e7f\u5150\u5cf6\u56fd\u9053\u4e8b\u52d9\u6240","boring_xml_url":49,"boring_view_url":1,"soilmap_view_url":null,"soiltest_xml_url":0,"soiltest_view_url":0},{"id":202411,"code":"B4KJ201801009-0660","latitude":"31.83042","longitude":"130.25972","source_code":"QS20058972410200280005","project_name":"\u91d1\u5c71\u5730\u533a\u5730\u8cea\u8abf\u67fb\u696d\u52d9","survey_name":"\u91d1\u5c71\u5730\u533a\u5730\u8cea\u8abf\u67fb\u696d\u52d9","client_name":"\u56fd\u571f\u4ea4\u901a\u7701 \u4e5d\u5dde\u5730\u65b9\u6574\u5099\u5c40 \u9e7f\u5150\u5cf6\u56fd\u9053\u4e8b\u52d9\u6240","boring_xml_url":49,"boring_view_url":1,"soilmap_view_url":null,"soiltest_xml_url":0,"soiltest_view_url":0},{"id":202410,"code":"B4KJ201801009-0659","latitude":"31.7503","longitude":"130.2964","source_code":"QS20058972410200280004","project_name":"\u91d1\u5c71\u5730\u533a\u5730\u8cea\u8abf\u67fb\u696d\u52d9","survey_name":"\u91d1\u5c71\u5730\u533a\u5730\u8cea\u8abf\u67fb\u696d\u52d9","client_name":"\u56fd\u571f\u4ea4\u901a\u7701 \u4e5d\u5dde\u5730\u65b9\u6574\u5099\u5c40 \u9e7f\u5150\u5cf6\u56fd\u9053\u4e8b\u52d9\u6240","boring_xml_url":49,"boring_view_url":1,"soilmap_view_url":null,"soiltest_xml_url":0,"soiltest_view_url":0},{"id":202409,"code":"B4KJ201801009-0658","latitude":"31.74975","longitude":"130.29547","source_code":"QS20058972410200280003","project_name":"\u91d1\u5c71\u5730\u533a","survey_name":"\u91d1\u5c71\u5730\u533a\u5730\u8cea\u8abf\u67fb\u696d\u52d9","client_name":"\u56fd\u571f\u4ea4\u901a\u7701 \u4e5d\u5dde\u5730\u65b9\u6574\u5099\u5c40 \u9e7f\u5150\u5cf6\u56fd\u9053\u4e8b\u52d9\u6240","boring_xml_url":49,"boring_view_url":1,"soilmap_view_url":null,"soiltest_xml_url":0,"soiltest_view_url":0},{"id":202408,"code":"B4KJ201801009-0657","latitude":"31.75014","longitude":"130.29625","source_code":"QS20058972410200280002","project_name":"\u91d1\u5c71\u5730\u533a\u5730\u8cea\u8abf\u67fb\u696d\u52d9","survey_name":"\u91d1\u5c71\u5730\u533a\u5730\u8cea\u8abf\u67fb\u696d\u52d9","client_name":"\u56fd\u571f\u4ea4\u901a\u7701 \u4e5d\u5dde\u5730\u65b9\u6574\u5099\u5c40 \u9e7f\u5150\u5cf6\u56fd\u9053\u4e8b\u52d9\u6240","boring_xml_url":49,"boring_view_url":1,"soilmap_view_url":null,"soiltest_xml_url":0,"soiltest_view_url":0},{"id":202407,"code":"B4KJ201801009-0656","latitude":"31.7503","longitude":"130.2964","source_code":"QS20058972410200280001","project_name":"\u91d1\u5c71\u5730\u533a\u5730\u8cea\u8abf\u67fb\u696d\u52d9","survey_name":"\u91d1\u5c71\u5730\u533a\u5730\u8cea\u8abf\u67fb\u696d\u52d9","client_name":"\u56fd\u571f\u4ea4\u901a\u7701 \u4e5d\u5dde\u5730\u65b9\u6574\u5099\u5c40 \u9e7f\u5150\u5cf6\u56fd\u9053\u4e8b\u52d9\u6240","boring_xml_url":49,"boring_view_url":1,"soilmap_view_url":null,"soiltest_xml_url":0,"soiltest_view_url":0},{"id":202406,"code":"B4KJ201801009-0655","latitude":"31.58208","longitude":"130.52025","source_code":"QS20058972410200130003","project_name":"","survey_name":"\u7530\u4e0a\u5730\u533a\u6cd5\u9762\u691c\u8a0e\u696d\u52d9","client_name":"\u56fd\u4ea4\u7701\u4e5d\u5dde\u5730\u65b9\u6574\u5099\u5c40\u9e7f\u5150\u5cf6\u56fd\u9053\u4e8b\u52d9\u6240\u5de5\u52d9\u8ab2","boring_xml_url":49,"boring_view_url":1,"soilmap_view_url":null,"soiltest_xml_url":0,"soiltest_view_url":0}]}}