{"header":{"xyz":{"source":[],"mosaic":false},"page":3951,"raw":{"soiltest_result":"0","bbox":"57.598333,109.544722,1.933333,163.806111","page":"3951"},"conditions":{"soiltest_result":0,"north":57.598333,"west":109.544722,"south":1.933333,"east":163.806111},"success":true,"message":""},"data":{"meta":{"total":212844,"page":3951,"pages":7095,"count":30},"values":[{"id":202045,"code":"B4KJ201801009-0294","latitude":"33.17706","longitude":"131.55392","source_code":"QS20058960600200110016","project_name":"\u4e03\u702c\u5ddd\u30fb\u8cc0\u6765\u5ddd\u5824\u9632\u5730\u8cea\u8abf\u67fb\u696d\u52d9","survey_name":"\u4e03\u702c\u5ddd\u30fb\u8cc0\u6765\u5ddd\u5824\u9632\u5730\u8cea\u8abf\u67fb\u696d\u52d9","client_name":"\u56fd\u571f\u4ea4\u901a\u7701\u4e5d\u5dde\u5730\u65b9\u6574\u5099\u5c40\u5927\u5206\u6cb3\u5ddd\u56fd\u9053\u4e8b\u52d9\u6240","boring_xml_url":49,"boring_view_url":1,"soilmap_view_url":null,"soiltest_xml_url":52,"soiltest_view_url":52},{"id":202044,"code":"B4KJ201801009-0293","latitude":"33.17717","longitude":"131.55394","source_code":"QS20058960600200110015","project_name":"\u4e03\u702c\u5ddd\u30fb\u8cc0\u6765\u5ddd\u5824\u9632\u5730\u8cea\u8abf\u67fb\u696d\u52d9","survey_name":"\u4e03\u702c\u5ddd\u30fb\u8cc0\u6765\u5ddd\u5824\u9632\u5730\u8cea\u8abf\u67fb\u696d\u52d9","client_name":"\u56fd\u571f\u4ea4\u901a\u7701\u4e5d\u5dde\u5730\u65b9\u6574\u5099\u5c40\u5927\u5206\u6cb3\u5ddd\u56fd\u9053\u4e8b\u52d9\u6240","boring_xml_url":49,"boring_view_url":1,"soilmap_view_url":null,"soiltest_xml_url":52,"soiltest_view_url":52},{"id":202043,"code":"B4KJ201801009-0292","latitude":"33.17711","longitude":"131.55392","source_code":"QS20058960600200110014","project_name":"\u4e03\u702c\u5ddd\u30fb\u8cc0\u6765\u5ddd\u5824\u9632\u5730\u8cea\u8abf\u67fb\u696d\u52d9","survey_name":"\u4e03\u702c\u5ddd\u30fb\u8cc0\u6765\u5ddd\u5824\u9632\u5730\u8cea\u8abf\u67fb\u696d\u52d9","client_name":"\u56fd\u571f\u4ea4\u901a\u7701\u4e5d\u5dde\u5730\u65b9\u6574\u5099\u5c40\u5927\u5206\u6cb3\u5ddd\u56fd\u9053\u4e8b\u52d9\u6240","boring_xml_url":49,"boring_view_url":1,"soilmap_view_url":null,"soiltest_xml_url":52,"soiltest_view_url":52},{"id":202042,"code":"B4KJ201801009-0291","latitude":"33.17244","longitude":"131.56272","source_code":"QS20058960600200110013","project_name":"\u4e03\u702c\u5ddd\u30fb\u8cc0\u6765\u5ddd\u5824\u9632\u5730\u8cea\u8abf\u67fb\u696d\u52d9","survey_name":"\u4e03\u702c\u5ddd\u30fb\u8cc0\u6765\u5ddd\u5824\u9632\u5730\u8cea\u8abf\u67fb\u696d\u52d9","client_name":"\u56fd\u571f\u4ea4\u901a\u7701\u4e5d\u5dde\u5730\u65b9\u6574\u5099\u5c40\u5927\u5206\u6cb3\u5ddd\u56fd\u9053\u4e8b\u52d9\u6240","boring_xml_url":49,"boring_view_url":1,"soilmap_view_url":null,"soiltest_xml_url":52,"soiltest_view_url":52},{"id":202041,"code":"B4KJ201801009-0290","latitude":"33.19206","longitude":"131.59072","source_code":"QS20058960600200110012","project_name":"\u4e03\u702c\u5ddd\u30fb\u8cc0\u6765\u5ddd\u5824\u9632\u5730\u8cea\u8abf\u67fb\u696d\u52d9","survey_name":"\u4e03\u702c\u5ddd\u30fb\u8cc0\u6765\u5ddd\u5824\u9632\u5730\u8cea\u8abf\u67fb\u696d\u52d9","client_name":"\u56fd\u571f\u4ea4\u901a\u7701\u4e5d\u5dde\u5730\u65b9\u6574\u5099\u5c40\u5927\u5206\u6cb3\u5ddd\u56fd\u9053\u4e8b\u52d9\u6240","boring_xml_url":49,"boring_view_url":1,"soilmap_view_url":null,"soiltest_xml_url":52,"soiltest_view_url":52},{"id":202040,"code":"B4KJ201801009-0289","latitude":"33.19217","longitude":"131.59064","source_code":"QS20058960600200110011","project_name":"\u4e03\u702c\u5ddd\u30fb\u8cc0\u6765\u5ddd\u5824\u9632\u5730\u8cea\u8abf\u67fb\u696d\u52d9","survey_name":"\u4e03\u702c\u5ddd\u30fb\u8cc0\u6765\u5ddd\u5824\u9632\u5730\u8cea\u8abf\u67fb\u696d\u52d9","client_name":"\u56fd\u571f\u4ea4\u901a\u7701\u4e5d\u5dde\u5730\u65b9\u6574\u5099\u5c40\u5927\u5206\u6cb3\u5ddd\u56fd\u9053\u4e8b\u52d9\u6240","boring_xml_url":49,"boring_view_url":1,"soilmap_view_url":null,"soiltest_xml_url":52,"soiltest_view_url":52},{"id":202039,"code":"B4KJ201801009-0288","latitude":"33.19211","longitude":"131.59067","source_code":"QS20058960600200110010","project_name":"\u4e03\u702c\u5ddd\u30fb\u8cc0\u6765\u5ddd\u5824\u9632\u5730\u8cea\u8abf\u67fb\u696d\u52d9","survey_name":"\u4e03\u702c\u5ddd\u30fb\u8cc0\u6765\u5ddd\u5824\u9632\u5730\u8cea\u8abf\u67fb\u696d\u52d9","client_name":"\u56fd\u571f\u4ea4\u901a\u7701\u4e5d\u5dde\u5730\u65b9\u6574\u5099\u5c40\u5927\u5206\u6cb3\u5ddd\u56fd\u9053\u4e8b\u52d9\u6240","boring_xml_url":49,"boring_view_url":1,"soilmap_view_url":null,"soiltest_xml_url":52,"soiltest_view_url":52},{"id":202038,"code":"B4KJ201801009-0287","latitude":"33.17794","longitude":"131.55531","source_code":"QS20058960600200110009","project_name":"\u4e03\u702c\u5ddd\u30fb\u8cc0\u6765\u5ddd\u5824\u9632\u5730\u8cea\u8abf\u67fb\u696d\u52d9","survey_name":"\u4e03\u702c\u5ddd\u30fb\u8cc0\u6765\u5ddd\u5824\u9632\u5730\u8cea\u8abf\u67fb\u696d\u52d9","client_name":"\u56fd\u571f\u4ea4\u901a\u7701\u4e5d\u5dde\u5730\u65b9\u6574\u5099\u5c40\u5927\u5206\u6cb3\u5ddd\u56fd\u9053\u4e8b\u52d9\u6240","boring_xml_url":49,"boring_view_url":1,"soilmap_view_url":null,"soiltest_xml_url":52,"soiltest_view_url":52},{"id":202037,"code":"B4KJ201801009-0286","latitude":"33.17783","longitude":"131.55528","source_code":"QS20058960600200110008","project_name":"\u4e03\u702c\u5ddd\u30fb\u8cc0\u6765\u5ddd\u5824\u9632\u5730\u8cea\u8abf\u67fb\u696d\u52d9","survey_name":"\u4e03\u702c\u5ddd\u30fb\u8cc0\u6765\u5ddd\u5824\u9632\u5730\u8cea\u8abf\u67fb\u696d\u52d9","client_name":"\u56fd\u571f\u4ea4\u901a\u7701\u4e5d\u5dde\u5730\u65b9\u6574\u5099\u5c40\u5927\u5206\u6cb3\u5ddd\u56fd\u9053\u4e8b\u52d9\u6240","boring_xml_url":49,"boring_view_url":1,"soilmap_view_url":null,"soiltest_xml_url":52,"soiltest_view_url":52},{"id":202036,"code":"B4KJ201801009-0285","latitude":"33.17792","longitude":"131.55531","source_code":"QS20058960600200110007","project_name":"\u4e03\u702c\u5ddd\u30fb\u8cc0\u6765\u5ddd\u5824\u9632\u5730\u8cea\u8abf\u67fb\u696d\u52d9","survey_name":"\u4e03\u702c\u5ddd\u30fb\u8cc0\u6765\u5ddd\u5824\u9632\u5730\u8cea\u8abf\u67fb\u696d\u52d9","client_name":"\u56fd\u571f\u4ea4\u901a\u7701\u4e5d\u5dde\u5730\u65b9\u6574\u5099\u5c40\u5927\u5206\u6cb3\u5ddd\u56fd\u9053\u4e8b\u52d9\u6240","boring_xml_url":49,"boring_view_url":1,"soilmap_view_url":null,"soiltest_xml_url":52,"soiltest_view_url":52},{"id":202035,"code":"B4KJ201801009-0284","latitude":"33.17778","longitude":"131.56933","source_code":"QS20058960600200110006","project_name":"\u4e03\u702c\u5ddd\u30fb\u8cc0\u6765\u5ddd\u5824\u9632\u5730\u8cea\u8abf\u67fb\u696d\u52d9","survey_name":"\u4e03\u702c\u5ddd\u30fb\u8cc0\u6765\u5ddd\u5824\u9632\u5730\u8cea\u8abf\u67fb\u696d\u52d9","client_name":"\u56fd\u571f\u4ea4\u901a\u7701\u4e5d\u5dde\u5730\u65b9\u6574\u5099\u5c40\u5927\u5206\u6cb3\u5ddd\u56fd\u9053\u4e8b\u52d9\u6240","boring_xml_url":49,"boring_view_url":1,"soilmap_view_url":null,"soiltest_xml_url":52,"soiltest_view_url":52},{"id":202034,"code":"B4KJ201801009-0283","latitude":"33.18489","longitude":"131.57875","source_code":"QS20058960600200110005","project_name":"\u4e03\u702c\u5ddd\u30fb\u8cc0\u6765\u5ddd\u5824\u9632\u5730\u8cea\u8abf\u67fb\u696d\u52d9","survey_name":"\u4e03\u702c\u5ddd\u30fb\u8cc0\u6765\u5ddd\u5824\u9632\u5730\u8cea\u8abf\u67fb\u696d\u52d9","client_name":"\u56fd\u571f\u4ea4\u901a\u7701\u4e5d\u5dde\u5730\u65b9\u6574\u5099\u5c40\u5927\u5206\u6cb3\u5ddd\u56fd\u9053\u4e8b\u52d9\u6240","boring_xml_url":49,"boring_view_url":1,"soilmap_view_url":null,"soiltest_xml_url":52,"soiltest_view_url":52},{"id":202033,"code":"B4KJ201801009-0282","latitude":"33.18639","longitude":"131.58894","source_code":"QS20058960600200110004","project_name":"\u4e03\u702c\u5ddd\u30fb\u8cc0\u6765\u5ddd\u5824\u9632\u5730\u8cea\u8abf\u67fb\u696d\u52d9","survey_name":"\u4e03\u702c\u5ddd\u30fb\u8cc0\u6765\u5ddd\u5824\u9632\u5730\u8cea\u8abf\u67fb\u696d\u52d9","client_name":"\u56fd\u571f\u4ea4\u901a\u7701\u4e5d\u5dde\u5730\u65b9\u6574\u5099\u5c40\u5927\u5206\u6cb3\u5ddd\u56fd\u9053\u4e8b\u52d9\u6240","boring_xml_url":49,"boring_view_url":1,"soilmap_view_url":null,"soiltest_xml_url":52,"soiltest_view_url":52},{"id":202032,"code":"B4KJ201801009-0281","latitude":"33.19264","longitude":"131.58936","source_code":"QS20058960600200110003","project_name":"\u4e03\u702c\u5ddd\u30fb\u8cc0\u6765\u5ddd\u5824\u9632\u5730\u8cea\u8abf\u67fb\u696d\u52d9","survey_name":"\u4e03\u702c\u5ddd\u30fb\u8cc0\u6765\u5ddd\u5824\u9632\u5730\u8cea\u8abf\u67fb\u696d\u52d9","client_name":"\u56fd\u571f\u4ea4\u901a\u7701\u4e5d\u5dde\u5730\u65b9\u6574\u5099\u5c40\u5927\u5206\u6cb3\u5ddd\u56fd\u9053\u4e8b\u52d9\u6240","boring_xml_url":49,"boring_view_url":1,"soilmap_view_url":null,"soiltest_xml_url":52,"soiltest_view_url":52},{"id":202031,"code":"B4KJ201801009-0280","latitude":"33.19256","longitude":"131.5895","source_code":"QS20058960600200110002","project_name":"\u4e03\u702c\u5ddd\u30fb\u8cc0\u6765\u5ddd\u5824\u9632\u5730\u8cea\u8abf\u67fb\u696d\u52d9","survey_name":"\u4e03\u702c\u5ddd\u30fb\u8cc0\u6765\u5ddd\u5824\u9632\u5730\u8cea\u8abf\u67fb\u696d\u52d9","client_name":"\u56fd\u571f\u4ea4\u901a\u7701\u4e5d\u5dde\u5730\u65b9\u6574\u5099\u5c40\u5927\u5206\u6cb3\u5ddd\u56fd\u9053\u4e8b\u52d9\u6240","boring_xml_url":49,"boring_view_url":1,"soilmap_view_url":null,"soiltest_xml_url":52,"soiltest_view_url":52},{"id":202030,"code":"B4KJ201801009-0279","latitude":"33.19261","longitude":"131.58942","source_code":"QS20058960600200110001","project_name":"\u4e03\u702c\u5ddd\u30fb\u8cc0\u6765\u5ddd\u5824\u9632\u5730\u8cea\u8abf\u67fb\u696d\u52d9","survey_name":"\u4e03\u702c\u5ddd\u30fb\u8cc0\u6765\u5ddd\u5824\u9632\u5730\u8cea\u8abf\u67fb\u696d\u52d9","client_name":"\u56fd\u571f\u4ea4\u901a\u7701\u4e5d\u5dde\u5730\u65b9\u6574\u5099\u5c40\u5927\u5206\u6cb3\u5ddd\u56fd\u9053\u4e8b\u52d9\u6240","boring_xml_url":49,"boring_view_url":1,"soilmap_view_url":null,"soiltest_xml_url":52,"soiltest_view_url":52},{"id":202029,"code":"B4KJ201801009-0278","latitude":"33.1978","longitude":"131.5306","source_code":"QS2005896060020010031","project_name":"\u5927\u5206\u5ddd\u53f3\u5cb8\u5824\u9632\u5730\u8cea\u8abf\u67fb\u696d\u52d9","survey_name":"\u5927\u5206\u5ddd\u53f3\u5cb8\u5824\u9632\u5730\u8cea\u8abf\u67fb\u696d\u52d9","client_name":"\u56fd\u571f\u4ea4\u901a\u7701\u4e5d\u5dde\u5730\u65b9\u6574\u5099\u5c40\u5927\u5206\u6cb3\u5ddd\u56fd\u9053\u4e8b\u52d9\u6240","boring_xml_url":48,"boring_view_url":1,"soilmap_view_url":null,"soiltest_xml_url":51,"soiltest_view_url":51},{"id":202028,"code":"B4KJ201801009-0277","latitude":"33.1975","longitude":"131.5306","source_code":"QS2005896060020010030","project_name":"\u5927\u5206\u5ddd\u53f3\u5cb8\u5824\u9632\u5730\u8cea\u8abf\u67fb\u696d\u52d9","survey_name":"\u5927\u5206\u5ddd\u53f3\u5cb8\u5824\u9632\u5730\u8cea\u8abf\u67fb\u696d\u52d9","client_name":"\u56fd\u571f\u4ea4\u901a\u7701\u4e5d\u5dde\u5730\u65b9\u6574\u5099\u5c40\u5927\u5206\u6cb3\u5ddd\u56fd\u9053\u4e8b\u52d9\u6240","boring_xml_url":48,"boring_view_url":1,"soilmap_view_url":null,"soiltest_xml_url":51,"soiltest_view_url":51},{"id":202027,"code":"B4KJ201801009-0276","latitude":"33.19794","longitude":"131.53081","source_code":"QS2005896060020010029","project_name":"\u5927\u5206\u5ddd\u53f3\u5cb8\u5824\u9632\u5730\u8cea\u8abf\u67fb\u696d\u52d9","survey_name":"\u5927\u5206\u5ddd\u53f3\u5cb8\u5824\u9632\u5730\u8cea\u8abf\u67fb\u696d\u52d9","client_name":"\u56fd\u571f\u4ea4\u901a\u7701\u4e5d\u5dde\u5730\u65b9\u6574\u5099\u5c40\u5927\u5206\u6cb3\u5ddd\u56fd\u9053\u4e8b\u52d9\u6240","boring_xml_url":48,"boring_view_url":1,"soilmap_view_url":null,"soiltest_xml_url":51,"soiltest_view_url":51},{"id":202026,"code":"B4KJ201801009-0275","latitude":"33.19","longitude":"131.5411","source_code":"QS2005896060020010028","project_name":"\u5927\u5206\u5ddd\u53f3\u5cb8\u5824\u9632\u5730\u8cea\u8abf\u67fb\u696d\u52d9","survey_name":"\u5927\u5206\u5ddd\u53f3\u5cb8\u5824\u9632\u5730\u8cea\u8abf\u67fb\u696d\u52d9","client_name":"\u56fd\u571f\u4ea4\u901a\u7701\u4e5d\u5dde\u5730\u65b9\u6574\u5099\u5c40\u5927\u5206\u6cb3\u5ddd\u56fd\u9053\u4e8b\u52d9\u6240","boring_xml_url":48,"boring_view_url":1,"soilmap_view_url":null,"soiltest_xml_url":51,"soiltest_view_url":51},{"id":202025,"code":"B4KJ201801009-0274","latitude":"33.19","longitude":"131.5411","source_code":"QS2005896060020010027","project_name":"\u5927\u5206\u5ddd\u53f3\u5cb8\u5824\u9632\u5730\u8cea\u8abf\u67fb\u696d\u52d9","survey_name":"\u5927\u5206\u5ddd\u53f3\u5cb8\u5824\u9632\u5730\u8cea\u8abf\u67fb\u696d\u52d9","client_name":"\u56fd\u571f\u4ea4\u901a\u7701\u4e5d\u5dde\u5730\u65b9\u6574\u5099\u5c40\u5927\u5206\u6cb3\u5ddd\u56fd\u9053\u4e8b\u52d9\u6240","boring_xml_url":48,"boring_view_url":1,"soilmap_view_url":null,"soiltest_xml_url":51,"soiltest_view_url":51},{"id":202024,"code":"B4KJ201801009-0273","latitude":"33.19022","longitude":"131.54122","source_code":"QS2005896060020010026","project_name":"\u5927\u5206\u5ddd\u53f3\u5cb8\u5824\u9632\u5730\u8cea\u8abf\u67fb\u696d\u52d9","survey_name":"\u5927\u5206\u5ddd\u53f3\u5cb8\u5824\u9632\u5730\u8cea\u8abf\u67fb\u696d\u52d9","client_name":"\u56fd\u571f\u4ea4\u901a\u7701\u4e5d\u5dde\u5730\u65b9\u6574\u5099\u5c40\u5927\u5206\u6cb3\u5ddd\u56fd\u9053\u4e8b\u52d9\u6240","boring_xml_url":48,"boring_view_url":1,"soilmap_view_url":null,"soiltest_xml_url":51,"soiltest_view_url":51},{"id":202023,"code":"B4KJ201801009-0272","latitude":"33.1903","longitude":"131.5586","source_code":"QS2005896060020010025","project_name":"\u5927\u5206\u5ddd\u53f3\u5cb8\u5824\u9632\u5730\u8cea\u8abf\u67fb\u696d\u52d9","survey_name":"\u5927\u5206\u5ddd\u53f3\u5cb8\u5824\u9632\u5730\u8cea\u8abf\u67fb\u696d\u52d9","client_name":"\u56fd\u571f\u4ea4\u901a\u7701\u4e5d\u5dde\u5730\u65b9\u6574\u5099\u5c40\u5927\u5206\u6cb3\u5ddd\u56fd\u9053\u4e8b\u52d9\u6240","boring_xml_url":48,"boring_view_url":1,"soilmap_view_url":null,"soiltest_xml_url":51,"soiltest_view_url":51},{"id":202022,"code":"B4KJ201801009-0271","latitude":"33.1903","longitude":"131.5583","source_code":"QS2005896060020010024","project_name":"\u5927\u5206\u5ddd\u53f3\u5cb8\u5824\u9632\u5730\u8cea\u8abf\u67fb\u696d\u52d9","survey_name":"\u5927\u5206\u5ddd\u53f3\u5cb8\u5824\u9632\u5730\u8cea\u8abf\u67fb\u696d\u52d9","client_name":"\u56fd\u571f\u4ea4\u901a\u7701\u4e5d\u5dde\u5730\u65b9\u6574\u5099\u5c40\u5927\u5206\u6cb3\u5ddd\u56fd\u9053\u4e8b\u52d9\u6240","boring_xml_url":48,"boring_view_url":1,"soilmap_view_url":null,"soiltest_xml_url":51,"soiltest_view_url":51},{"id":202021,"code":"B4KJ201801009-0270","latitude":"33.19042","longitude":"131.55878","source_code":"QS2005896060020010023","project_name":"\u5927\u5206\u5ddd\u53f3\u5cb8\u5824\u9632\u5730\u8cea\u8abf\u67fb\u696d\u52d9","survey_name":"\u5927\u5206\u5ddd\u53f3\u5cb8\u5824\u9632\u5730\u8cea\u8abf\u67fb\u696d\u52d9","client_name":"\u56fd\u571f\u4ea4\u901a\u7701\u4e5d\u5dde\u5730\u65b9\u6574\u5099\u5c40\u5927\u5206\u6cb3\u5ddd\u56fd\u9053\u4e8b\u52d9\u6240","boring_xml_url":48,"boring_view_url":1,"soilmap_view_url":null,"soiltest_xml_url":51,"soiltest_view_url":51},{"id":202020,"code":"B4KJ201801009-0269","latitude":"33.1989","longitude":"131.5633","source_code":"QS2005896060020010022","project_name":"\u5927\u5206\u5ddd\u53f3\u5cb8\u5824\u9632\u5730\u8cea\u8abf\u67fb\u696d\u52d9","survey_name":"\u5927\u5206\u5ddd\u53f3\u5cb8\u5824\u9632\u5730\u8cea\u8abf\u67fb\u696d\u52d9","client_name":"\u56fd\u571f\u4ea4\u901a\u7701\u4e5d\u5dde\u5730\u65b9\u6574\u5099\u5c40\u5927\u5206\u6cb3\u5ddd\u56fd\u9053\u4e8b\u52d9\u6240","boring_xml_url":48,"boring_view_url":1,"soilmap_view_url":null,"soiltest_xml_url":51,"soiltest_view_url":51},{"id":202019,"code":"B4KJ201801009-0268","latitude":"33.1986","longitude":"131.5628","source_code":"QS2005896060020010021","project_name":"\u5927\u5206\u5ddd\u53f3\u5cb8\u5824\u9632\u5730\u8cea\u8abf\u67fb\u696d\u52d9","survey_name":"\u5927\u5206\u5ddd\u53f3\u5cb8\u5824\u9632\u5730\u8cea\u8abf\u67fb\u696d\u52d9","client_name":"\u56fd\u571f\u4ea4\u901a\u7701\u4e5d\u5dde\u5730\u65b9\u6574\u5099\u5c40\u5927\u5206\u6cb3\u5ddd\u56fd\u9053\u4e8b\u52d9\u6240","boring_xml_url":48,"boring_view_url":1,"soilmap_view_url":null,"soiltest_xml_url":51,"soiltest_view_url":51},{"id":202018,"code":"B4KJ201801009-0267","latitude":"33.19792","longitude":"131.56292","source_code":"QS2005896060020010020","project_name":"\u5927\u5206\u5ddd\u53f3\u5cb8\u5824\u9632\u5730\u8cea\u8abf\u67fb\u696d\u52d9","survey_name":"\u5927\u5206\u5ddd\u53f3\u5cb8\u5824\u9632\u5730\u8cea\u8abf\u67fb\u696d\u52d9","client_name":"\u56fd\u571f\u4ea4\u901a\u7701\u4e5d\u5dde\u5730\u65b9\u6574\u5099\u5c40\u5927\u5206\u6cb3\u5ddd\u56fd\u9053\u4e8b\u52d9\u6240","boring_xml_url":48,"boring_view_url":1,"soilmap_view_url":null,"soiltest_xml_url":51,"soiltest_view_url":51},{"id":202017,"code":"B4KJ201801009-0266","latitude":"33.2075","longitude":"131.5658","source_code":"QS2005896060020010019","project_name":"\u5927\u5206\u5ddd\u53f3\u5cb8\u5824\u9632\u5730\u8cea\u8abf\u67fb\u696d\u52d9","survey_name":"\u5927\u5206\u5ddd\u53f3\u5cb8\u5824\u9632\u5730\u8cea\u8abf\u67fb\u696d\u52d9","client_name":"\u56fd\u571f\u4ea4\u901a\u7701\u4e5d\u5dde\u5730\u65b9\u6574\u5099\u5c40\u5927\u5206\u6cb3\u5ddd\u56fd\u9053\u4e8b\u52d9\u6240","boring_xml_url":48,"boring_view_url":1,"soilmap_view_url":null,"soiltest_xml_url":51,"soiltest_view_url":51},{"id":202016,"code":"B4KJ201801009-0265","latitude":"33.2078","longitude":"131.5656","source_code":"QS2005896060020010018","project_name":"\u5927\u5206\u5ddd\u53f3\u5cb8\u5824\u9632\u5730\u8cea\u8abf\u67fb\u696d\u52d9","survey_name":"\u5927\u5206\u5ddd\u53f3\u5cb8\u5824\u9632\u5730\u8cea\u8abf\u67fb\u696d\u52d9","client_name":"\u56fd\u571f\u4ea4\u901a\u7701\u4e5d\u5dde\u5730\u65b9\u6574\u5099\u5c40\u5927\u5206\u6cb3\u5ddd\u56fd\u9053\u4e8b\u52d9\u6240","boring_xml_url":48,"boring_view_url":1,"soilmap_view_url":null,"soiltest_xml_url":51,"soiltest_view_url":51}]}}