{"header":{"xyz":{"source":[],"mosaic":false},"page":3958,"raw":{"soiltest_result":"0","bbox":"57.598333,109.544722,1.933333,163.806111","page":"3958"},"conditions":{"soiltest_result":0,"north":57.598333,"west":109.544722,"south":1.933333,"east":163.806111},"success":true,"message":""},"data":{"meta":{"total":212844,"page":3958,"pages":7095,"count":30},"values":[{"id":201835,"code":"B4KJ201801009-0084","latitude":"32.827619","longitude":"129.981081","source_code":"QS20058945540200100013","project_name":"","survey_name":"\u9577\u5d0e\u7ba1\u5185\u5730\u8cea\u8abf\u67fb\u696d\u52d9","client_name":"\u56fd\u571f\u4ea4\u901a\u7701\u4e5d\u5dde\u5730\u65b9\u6574\u5099\u5c40\u9577\u5d0e\u6cb3\u5ddd\u56fd\u9053\u4e8b\u52d9\u6240","boring_xml_url":49,"boring_view_url":1,"soilmap_view_url":null,"soiltest_xml_url":0,"soiltest_view_url":0},{"id":201834,"code":"B4KJ201801009-0083","latitude":"32.827525","longitude":"129.981175","source_code":"QS20058945540200100012","project_name":"","survey_name":"\u9577\u5d0e\u7ba1\u5185\u5730\u8cea\u8abf\u67fb\u696d\u52d9","client_name":"\u56fd\u571f\u4ea4\u901a\u7701\u4e5d\u5dde\u5730\u65b9\u6574\u5099\u5c40\u9577\u5d0e\u6cb3\u5ddd\u56fd\u9053\u4e8b\u52d9\u6240","boring_xml_url":49,"boring_view_url":1,"soilmap_view_url":null,"soiltest_xml_url":0,"soiltest_view_url":0},{"id":201833,"code":"B4KJ201801009-0082","latitude":"32.894886","longitude":"129.961897","source_code":"QS20058945540200100011","project_name":"","survey_name":"\u9577\u5d0e\u7ba1\u5185\u5730\u8cea\u8abf\u67fb\u696d\u52d9","client_name":"\u56fd\u571f\u4ea4\u901a\u7701\u4e5d\u5dde\u5730\u65b9\u6574\u5099\u5c40\u9577\u5d0e\u6cb3\u5ddd\u56fd\u9053\u4e8b\u52d9\u6240","boring_xml_url":49,"boring_view_url":1,"soilmap_view_url":null,"soiltest_xml_url":0,"soiltest_view_url":0},{"id":201832,"code":"B4KJ201801009-0081","latitude":"32.975406","longitude":"129.947036","source_code":"QS20058945540200100010","project_name":"","survey_name":"\u9577\u5d0e\u7ba1\u5185\u5730\u8cea\u8abf\u67fb\u696d\u52d9","client_name":"\u56fd\u571f\u4ea4\u901a\u7701\u4e5d\u5dde\u5730\u65b9\u6574\u5099\u5c40\u9577\u5d0e\u6cb3\u5ddd\u56fd\u9053\u4e8b\u52d9\u6240","boring_xml_url":49,"boring_view_url":1,"soilmap_view_url":null,"soiltest_xml_url":0,"soiltest_view_url":0},{"id":201831,"code":"B4KJ201801009-0080","latitude":"32.975747","longitude":"129.947244","source_code":"QS20058945540200100009","project_name":"","survey_name":"\u9577\u5d0e\u7ba1\u5185\u5730\u8cea\u8abf\u67fb\u696d\u52d9","client_name":"\u56fd\u571f\u4ea4\u901a\u7701\u4e5d\u5dde\u5730\u65b9\u6574\u5099\u5c40\u9577\u5d0e\u6cb3\u5ddd\u56fd\u9053\u4e8b\u52d9\u6240","boring_xml_url":49,"boring_view_url":1,"soilmap_view_url":null,"soiltest_xml_url":0,"soiltest_view_url":0},{"id":201830,"code":"B4KJ201801009-0079","latitude":"32.976031","longitude":"129.947294","source_code":"QS20058945540200100008","project_name":"","survey_name":"\u9577\u5d0e\u7ba1\u5185\u5730\u8cea\u8abf\u67fb\u696d\u52d9","client_name":"\u56fd\u571f\u4ea4\u901a\u7701\u4e5d\u5dde\u5730\u65b9\u6574\u5099\u5c40\u9577\u5d0e\u6cb3\u5ddd\u56fd\u9053\u4e8b\u52d9\u6240","boring_xml_url":49,"boring_view_url":1,"soilmap_view_url":null,"soiltest_xml_url":0,"soiltest_view_url":0},{"id":201829,"code":"B4KJ201801009-0078","latitude":"32.989953","longitude":"129.950514","source_code":"QS20058945540200100007","project_name":"","survey_name":"\u9577\u5d0e\u7ba1\u5185\u5730\u8cea\u8abf\u67fb\u696d\u52d9","client_name":"\u56fd\u571f\u4ea4\u901a\u7701\u4e5d\u5dde\u5730\u65b9\u6574\u5099\u5c40\u9577\u5d0e\u6cb3\u5ddd\u56fd\u9053\u4e8b\u52d9\u6240","boring_xml_url":49,"boring_view_url":1,"soilmap_view_url":null,"soiltest_xml_url":0,"soiltest_view_url":0},{"id":201828,"code":"B4KJ201801009-0077","latitude":"32.990078","longitude":"129.950775","source_code":"QS20058945540200100006","project_name":"","survey_name":"\u9577\u5d0e\u7ba1\u5185\u5730\u8cea\u8abf\u67fb\u696d\u52d9","client_name":"\u56fd\u571f\u4ea4\u901a\u7701\u4e5d\u5dde\u5730\u65b9\u6574\u5099\u5c40\u9577\u5d0e\u6cb3\u5ddd\u56fd\u9053\u4e8b\u52d9\u6240","boring_xml_url":49,"boring_view_url":1,"soilmap_view_url":null,"soiltest_xml_url":0,"soiltest_view_url":0},{"id":201827,"code":"B4KJ201801009-0076","latitude":"32.990172","longitude":"129.950283","source_code":"QS20058945540200100005","project_name":"","survey_name":"\u9577\u5d0e\u7ba1\u5185\u5730\u8cea\u8abf\u67fb\u696d\u52d9","client_name":"\u56fd\u571f\u4ea4\u901a\u7701\u4e5d\u5dde\u5730\u65b9\u6574\u5099\u5c40\u9577\u5d0e\u6cb3\u5ddd\u56fd\u9053\u4e8b\u52d9\u6240","boring_xml_url":49,"boring_view_url":1,"soilmap_view_url":null,"soiltest_xml_url":0,"soiltest_view_url":0},{"id":201826,"code":"B4KJ201801009-0075","latitude":"32.990244","longitude":"129.950408","source_code":"QS20058945540200100004","project_name":"","survey_name":"\u9577\u5d0e\u7ba1\u5185\u5730\u8cea\u8abf\u67fb\u696d\u52d9","client_name":"\u56fd\u571f\u4ea4\u901a\u7701\u4e5d\u5dde\u5730\u65b9\u6574\u5099\u5c40\u9577\u5d0e\u6cb3\u5ddd\u56fd\u9053\u4e8b\u52d9\u6240","boring_xml_url":49,"boring_view_url":1,"soilmap_view_url":null,"soiltest_xml_url":0,"soiltest_view_url":0},{"id":201825,"code":"B4KJ201801009-0074","latitude":"33.061625","longitude":"129.959725","source_code":"QS20058945540200100003","project_name":"","survey_name":"\u9577\u5d0e\u7ba1\u5185\u5730\u8cea\u8abf\u67fb\u696d\u52d9","client_name":"\u56fd\u571f\u4ea4\u901a\u7701\u4e5d\u5dde\u5730\u65b9\u6574\u5099\u5c40\u9577\u5d0e\u6cb3\u5ddd\u56fd\u9053\u4e8b\u52d9\u6240","boring_xml_url":49,"boring_view_url":1,"soilmap_view_url":null,"soiltest_xml_url":0,"soiltest_view_url":0},{"id":201824,"code":"B4KJ201801009-0073","latitude":"33.061586","longitude":"129.959794","source_code":"QS20058945540200100002","project_name":"","survey_name":"\u9577\u5d0e\u7ba1\u5185\u5730\u8cea\u8abf\u67fb\u696d\u52d9","client_name":"\u56fd\u571f\u4ea4\u901a\u7701\u4e5d\u5dde\u5730\u65b9\u6574\u5099\u5c40\u9577\u5d0e\u6cb3\u5ddd\u56fd\u9053\u4e8b\u52d9\u6240","boring_xml_url":49,"boring_view_url":1,"soilmap_view_url":null,"soiltest_xml_url":0,"soiltest_view_url":0},{"id":201823,"code":"B4KJ201801009-0072","latitude":"33.061617","longitude":"129.959739","source_code":"QS20058945540200100001","project_name":"","survey_name":"\u9577\u5d0e\u7ba1\u5185\u5730\u8cea\u8abf\u67fb\u696d\u52d9","client_name":"\u56fd\u571f\u4ea4\u901a\u7701\u4e5d\u5dde\u5730\u65b9\u6574\u5099\u5c40\u9577\u5d0e\u6cb3\u5ddd\u56fd\u9053\u4e8b\u52d9\u6240","boring_xml_url":49,"boring_view_url":1,"soilmap_view_url":null,"soiltest_xml_url":0,"soiltest_view_url":0},{"id":201822,"code":"B4KJ201801009-0071","latitude":"32.93108","longitude":"130.02067","source_code":"QS20058945450200070016","project_name":"\u672c\u660e\u5ddd\u30c0\u30e0\u95a2\u9023\u5e83\u8c37\u5730\u533a\u4e0b\u6d41\u5730\u8cea\u8abf\u67fb\u696d\u52d9","survey_name":"\u672c\u660e\u5ddd\u30c0\u30e0\u95a2\u9023\u5e83\u8c37\u5730\u533a\u4e0b\u6d41\u5730\u8cea\u8abf\u67fb\u696d\u52d9","client_name":"\u56fd\u571f\u4ea4\u901a\u7701\u4e5d\u5dde\u5730\u65b9\u6574\u5099\u5c40\u9577\u5d0e\u6cb3\u5ddd\u56fd\u9053\u4e8b\u52d9\u6240","boring_xml_url":49,"boring_view_url":1,"soilmap_view_url":null,"soiltest_xml_url":52,"soiltest_view_url":52},{"id":201821,"code":"B4KJ201801009-0070","latitude":"32.93064","longitude":"130.02144","source_code":"QS20058945450200070015","project_name":"\u672c\u660e\u5ddd\u30c0\u30e0\u95a2\u9023\u5e83\u8c37\u5730\u533a\u4e0b\u6d41\u5730\u8cea\u8abf\u67fb\u696d\u52d9","survey_name":"\u672c\u660e\u5ddd\u30c0\u30e0\u95a2\u9023\u5e83\u8c37\u5730\u533a\u4e0b\u6d41\u5730\u8cea\u8abf\u67fb\u696d\u52d9","client_name":"\u56fd\u571f\u4ea4\u901a\u7701\u4e5d\u5dde\u5730\u65b9\u6574\u5099\u5c40\u9577\u5d0e\u6cb3\u5ddd\u56fd\u9053\u4e8b\u52d9\u6240","boring_xml_url":49,"boring_view_url":1,"soilmap_view_url":null,"soiltest_xml_url":52,"soiltest_view_url":52},{"id":201820,"code":"B4KJ201801009-0069","latitude":"32.92967","longitude":"130.02208","source_code":"QS20058945450200070014","project_name":"\u672c\u660e\u5ddd\u30c0\u30e0\u95a2\u9023\u5e83\u8c37\u5730\u533a\u4e0b\u6d41\u5730\u8cea\u8abf\u67fb\u696d\u52d9","survey_name":"\u672c\u660e\u5ddd\u30c0\u30e0\u95a2\u9023\u5e83\u8c37\u5730\u533a\u4e0b\u6d41\u5730\u8cea\u8abf\u67fb\u696d\u52d9","client_name":"\u56fd\u571f\u4ea4\u901a\u7701\u4e5d\u5dde\u5730\u65b9\u6574\u5099\u5c40\u9577\u5d0e\u6cb3\u5ddd\u56fd\u9053\u4e8b\u52d9\u6240","boring_xml_url":49,"boring_view_url":1,"soilmap_view_url":null,"soiltest_xml_url":52,"soiltest_view_url":52},{"id":201819,"code":"B4KJ201801009-0068","latitude":"32.92933","longitude":"130.02258","source_code":"QS20058945450200070013","project_name":"\u672c\u660e\u5ddd\u30c0\u30e0\u95a2\u9023\u5e83\u8c37\u5730\u533a\u4e0b\u6d41\u5730\u8cea\u8abf\u67fb\u696d\u52d9","survey_name":"\u672c\u660e\u5ddd\u30c0\u30e0\u95a2\u9023\u5e83\u8c37\u5730\u533a\u4e0b\u6d41\u5730\u8cea\u8abf\u67fb\u696d\u52d9","client_name":"\u56fd\u571f\u4ea4\u901a\u7701\u4e5d\u5dde\u5730\u65b9\u6574\u5099\u5c40\u9577\u5d0e\u6cb3\u5ddd\u56fd\u9053\u4e8b\u52d9\u6240","boring_xml_url":49,"boring_view_url":1,"soilmap_view_url":null,"soiltest_xml_url":52,"soiltest_view_url":52},{"id":201818,"code":"B4KJ201801009-0067","latitude":"32.92856","longitude":"130.02208","source_code":"QS20058945450200070012","project_name":"\u672c\u660e\u5ddd\u30c0\u30e0\u95a2\u9023\u5e83\u8c37\u5730\u533a\u4e0b\u6d41\u5730\u8cea\u8abf\u67fb\u696d\u52d9","survey_name":"\u672c\u660e\u5ddd\u30c0\u30e0\u95a2\u9023\u5e83\u8c37\u5730\u533a\u4e0b\u6d41\u5730\u8cea\u8abf\u67fb\u696d\u52d9","client_name":"\u56fd\u571f\u4ea4\u901a\u7701\u4e5d\u5dde\u5730\u65b9\u6574\u5099\u5c40\u9577\u5d0e\u6cb3\u5ddd\u56fd\u9053\u4e8b\u52d9\u6240","boring_xml_url":49,"boring_view_url":1,"soilmap_view_url":null,"soiltest_xml_url":52,"soiltest_view_url":52},{"id":201817,"code":"B4KJ201801009-0066","latitude":"32.92883","longitude":"130.02175","source_code":"QS20058945450200070011","project_name":"\u672c\u660e\u5ddd\u30c0\u30e0\u95a2\u9023\u5e83\u8c37\u5730\u533a\u4e0b\u6d41\u5730\u8cea\u8abf\u67fb\u696d\u52d9","survey_name":"\u672c\u660e\u5ddd\u30c0\u30e0\u95a2\u9023\u5e83\u8c37\u5730\u533a\u4e0b\u6d41\u5730\u8cea\u8abf\u67fb\u696d\u52d9","client_name":"\u56fd\u571f\u4ea4\u901a\u7701\u4e5d\u5dde\u5730\u65b9\u6574\u5099\u5c40\u9577\u5d0e\u6cb3\u5ddd\u56fd\u9053\u4e8b\u52d9\u6240","boring_xml_url":49,"boring_view_url":1,"soilmap_view_url":null,"soiltest_xml_url":52,"soiltest_view_url":52},{"id":201816,"code":"B4KJ201801009-0065","latitude":"32.92822","longitude":"130.02147","source_code":"QS20058945450200070010","project_name":"\u672c\u660e\u5ddd\u30c0\u30e0\u95a2\u9023\u5e83\u8c37\u5730\u533a\u4e0b\u6d41\u5730\u8cea\u8abf\u67fb\u696d\u52d9","survey_name":"\u672c\u660e\u5ddd\u30c0\u30e0\u95a2\u9023\u5e83\u8c37\u5730\u533a\u4e0b\u6d41\u5730\u8cea\u8abf\u67fb\u696d\u52d9","client_name":"\u56fd\u571f\u4ea4\u901a\u7701\u4e5d\u5dde\u5730\u65b9\u6574\u5099\u5c40\u9577\u5d0e\u6cb3\u5ddd\u56fd\u9053\u4e8b\u52d9\u6240","boring_xml_url":49,"boring_view_url":1,"soilmap_view_url":null,"soiltest_xml_url":52,"soiltest_view_url":52},{"id":201815,"code":"B4KJ201801009-0064","latitude":"32.92803","longitude":"130.02203","source_code":"QS20058945450200070009","project_name":"\u672c\u660e\u5ddd\u30c0\u30e0\u95a2\u9023\u5e83\u8c37\u5730\u533a\u4e0b\u6d41\u5730\u8cea\u8abf\u67fb\u696d\u52d9","survey_name":"\u672c\u660e\u5ddd\u30c0\u30e0\u95a2\u9023\u5e83\u8c37\u5730\u533a\u4e0b\u6d41\u5730\u8cea\u8abf\u67fb\u696d\u52d9","client_name":"\u56fd\u571f\u4ea4\u901a\u7701\u4e5d\u5dde\u5730\u65b9\u6574\u5099\u5c40\u9577\u5d0e\u6cb3\u5ddd\u56fd\u9053\u4e8b\u52d9\u6240","boring_xml_url":49,"boring_view_url":1,"soilmap_view_url":null,"soiltest_xml_url":52,"soiltest_view_url":52},{"id":201814,"code":"B4KJ201801009-0063","latitude":"32.92808","longitude":"130.02203","source_code":"QS20058945450200070008","project_name":"\u672c\u660e\u5ddd\u30c0\u30e0\u95a2\u9023\u5e83\u8c37\u5730\u533a\u4e0b\u6d41\u5730\u8cea\u8abf\u67fb\u696d\u52d9","survey_name":"\u672c\u660e\u5ddd\u30c0\u30e0\u95a2\u9023\u5e83\u8c37\u5730\u533a\u4e0b\u6d41\u5730\u8cea\u8abf\u67fb\u696d\u52d9","client_name":"\u56fd\u571f\u4ea4\u901a\u7701\u4e5d\u5dde\u5730\u65b9\u6574\u5099\u5c40\u9577\u5d0e\u6cb3\u5ddd\u56fd\u9053\u4e8b\u52d9\u6240","boring_xml_url":49,"boring_view_url":1,"soilmap_view_url":null,"soiltest_xml_url":52,"soiltest_view_url":52},{"id":201813,"code":"B4KJ201801009-0062","latitude":"32.92736","longitude":"130.02172","source_code":"QS20058945450200070007","project_name":"\u672c\u660e\u5ddd\u30c0\u30e0\u95a2\u9023\u5e83\u8c37\u5730\u533a\u4e0b\u6d41\u5730\u8cea\u8abf\u67fb\u696d\u52d9","survey_name":"\u672c\u660e\u5ddd\u30c0\u30e0\u95a2\u9023\u5e83\u8c37\u5730\u533a\u4e0b\u6d41\u5730\u8cea\u8abf\u67fb\u696d\u52d9","client_name":"\u56fd\u571f\u4ea4\u901a\u7701\u4e5d\u5dde\u5730\u65b9\u6574\u5099\u5c40\u9577\u5d0e\u6cb3\u5ddd\u56fd\u9053\u4e8b\u52d9\u6240","boring_xml_url":49,"boring_view_url":1,"soilmap_view_url":null,"soiltest_xml_url":52,"soiltest_view_url":52},{"id":201812,"code":"B4KJ201801009-0061","latitude":"32.92672","longitude":"130.02153","source_code":"QS20058945450200070006","project_name":"\u672c\u660e\u5ddd\u30c0\u30e0\u95a2\u9023\u5e83\u8c37\u5730\u533a\u4e0b\u6d41\u5730\u8cea\u8abf\u67fb\u696d\u52d9","survey_name":"\u672c\u660e\u5ddd\u30c0\u30e0\u95a2\u9023\u5e83\u8c37\u5730\u533a\u4e0b\u6d41\u5730\u8cea\u8abf\u67fb\u696d\u52d9","client_name":"\u56fd\u571f\u4ea4\u901a\u7701\u4e5d\u5dde\u5730\u65b9\u6574\u5099\u5c40\u9577\u5d0e\u6cb3\u5ddd\u56fd\u9053\u4e8b\u52d9\u6240","boring_xml_url":49,"boring_view_url":1,"soilmap_view_url":null,"soiltest_xml_url":52,"soiltest_view_url":52},{"id":201811,"code":"B4KJ201801009-0060","latitude":"32.92611","longitude":"130.02236","source_code":"QS20058945450200070005","project_name":"\u672c\u660e\u5ddd\u30c0\u30e0\u95a2\u9023\u5e83\u8c37\u5730\u533a\u4e0b\u6d41\u5730\u8cea\u8abf\u67fb\u696d\u52d9","survey_name":"\u672c\u660e\u5ddd\u30c0\u30e0\u95a2\u9023\u5e83\u8c37\u5730\u533a\u4e0b\u6d41\u5730\u8cea\u8abf\u67fb\u696d\u52d9","client_name":"\u56fd\u571f\u4ea4\u901a\u7701\u4e5d\u5dde\u5730\u65b9\u6574\u5099\u5c40\u9577\u5d0e\u6cb3\u5ddd\u56fd\u9053\u4e8b\u52d9\u6240","boring_xml_url":49,"boring_view_url":1,"soilmap_view_url":null,"soiltest_xml_url":52,"soiltest_view_url":52},{"id":201810,"code":"B4KJ201801009-0059","latitude":"32.92617","longitude":"130.02211","source_code":"QS20058945450200070004","project_name":"\u672c\u660e\u5ddd\u30c0\u30e0\u95a2\u9023\u5e83\u8c37\u5730\u533a\u4e0b\u6d41\u5730\u8cea\u8abf\u67fb\u696d\u52d9","survey_name":"\u672c\u660e\u5ddd\u30c0\u30e0\u95a2\u9023\u5e83\u8c37\u5730\u533a\u4e0b\u6d41\u5730\u8cea\u8abf\u67fb\u696d\u52d9","client_name":"\u56fd\u571f\u4ea4\u901a\u7701\u4e5d\u5dde\u5730\u65b9\u6574\u5099\u5c40\u9577\u5d0e\u6cb3\u5ddd\u56fd\u9053\u4e8b\u52d9\u6240","boring_xml_url":49,"boring_view_url":1,"soilmap_view_url":null,"soiltest_xml_url":52,"soiltest_view_url":52},{"id":201809,"code":"B4KJ201801009-0058","latitude":"32.92575","longitude":"130.02211","source_code":"QS20058945450200070003","project_name":"\u672c\u660e\u5ddd\u30c0\u30e0\u95a2\u9023\u5e83\u8c37\u5730\u533a\u4e0b\u6d41\u5730\u8cea\u8abf\u67fb\u696d\u52d9","survey_name":"\u672c\u660e\u5ddd\u30c0\u30e0\u95a2\u9023\u5e83\u8c37\u5730\u533a\u4e0b\u6d41\u5730\u8cea\u8abf\u67fb\u696d\u52d9","client_name":"\u56fd\u571f\u4ea4\u901a\u7701\u4e5d\u5dde\u5730\u65b9\u6574\u5099\u5c40\u9577\u5d0e\u6cb3\u5ddd\u56fd\u9053\u4e8b\u52d9\u6240","boring_xml_url":49,"boring_view_url":1,"soilmap_view_url":null,"soiltest_xml_url":52,"soiltest_view_url":52},{"id":201808,"code":"B4KJ201801009-0057","latitude":"32.92581","longitude":"130.02183","source_code":"QS20058945450200070002","project_name":"\u672c\u660e\u5ddd\u30c0\u30e0\u95a2\u9023\u5e83\u8c37\u5730\u533a\u4e0b\u6d41\u5730\u8cea\u8abf\u67fb\u696d\u52d9","survey_name":"\u672c\u660e\u5ddd\u30c0\u30e0\u95a2\u9023\u5e83\u8c37\u5730\u533a\u4e0b\u6d41\u5730\u8cea\u8abf\u67fb\u696d\u52d9","client_name":"\u56fd\u571f\u4ea4\u901a\u7701\u4e5d\u5dde\u5730\u65b9\u6574\u5099\u5c40\u9577\u5d0e\u6cb3\u5ddd\u56fd\u9053\u4e8b\u52d9\u6240","boring_xml_url":49,"boring_view_url":1,"soilmap_view_url":null,"soiltest_xml_url":52,"soiltest_view_url":52},{"id":201807,"code":"B4KJ201801009-0056","latitude":"32.92517","longitude":"130.02158","source_code":"QS20058945450200070001","project_name":"\u672c\u660e\u5ddd\u30c0\u30e0\u95a2\u9023\u5e83\u8c37\u5730\u533a\u4e0b\u6d41\u5730\u8cea\u8abf\u67fb\u696d\u52d9","survey_name":"\u672c\u660e\u5ddd\u30c0\u30e0\u95a2\u9023\u5e83\u8c37\u5730\u533a\u4e0b\u6d41\u5730\u8cea\u8abf\u67fb\u696d\u52d9","client_name":"\u56fd\u571f\u4ea4\u901a\u7701\u4e5d\u5dde\u5730\u65b9\u6574\u5099\u5c40\u9577\u5d0e\u6cb3\u5ddd\u56fd\u9053\u4e8b\u52d9\u6240","boring_xml_url":49,"boring_view_url":1,"soilmap_view_url":null,"soiltest_xml_url":52,"soiltest_view_url":52},{"id":201806,"code":"B4KJ201801009-0055","latitude":"32.91853","longitude":"130.02289","source_code":"QS20058945450200060014","project_name":"","survey_name":"\u672c\u660e\u5ddd\u30c0\u30e0\u95a2\u9023\u53e4\u5834\u5730\u533a\u5730\u8cea\u8abf\u67fb\u696d\u52d9","client_name":"\u56fd\u571f\u4ea4\u901a\u7701\u4e5d\u5dde\u5730\u65b9\u6574\u5099\u5c40\u9577\u5d0e\u6cb3\u5ddd\u56fd\u9053\u4e8b\u52d9\u6240","boring_xml_url":49,"boring_view_url":1,"soilmap_view_url":null,"soiltest_xml_url":52,"soiltest_view_url":52}]}}