{"header":{"xyz":{"source":[],"mosaic":false},"page":3960,"raw":{"soiltest_result":"0","bbox":"57.598333,109.544722,1.933333,163.806111","page":"3960"},"conditions":{"soiltest_result":0,"north":57.598333,"west":109.544722,"south":1.933333,"east":163.806111},"success":true,"message":""},"data":{"meta":{"total":212844,"page":3960,"pages":7095,"count":30},"values":[{"id":201775,"code":"B4KJ201801009-0024","latitude":"33.4597","longitude":"130.0456","source_code":"QS20058938400200250002","project_name":"\u5510\u6d25\u9053\u8def","survey_name":"\u4f50\u8cc0497\u53f7 \u6d5c\u7389\u30c8\u30f3\u30cd\u30eb\u6c34\u6587\u8abf\u67fb\u696d\u52d9","client_name":"\u56fd\u571f\u4ea4\u901a\u7701\u4e5d\u5dde\u5730\u65b9\u6574\u5099\u5c40\u4f50\u8cc0\u56fd\u9053\u4e8b\u52d9\u6240","boring_xml_url":49,"boring_view_url":1,"soilmap_view_url":null,"soiltest_xml_url":0,"soiltest_view_url":0},{"id":201774,"code":"B4KJ201801009-0023","latitude":"33.4642","longitude":"130.0444","source_code":"QS20058938400200250001","project_name":"\u5510\u6d25\u9053\u8def\u5de5\u4e8b","survey_name":"\u4f50\u8cc0497\u53f7 \u6d5c\u7389\u30c8\u30f3\u30cd\u30eb\u6c34\u6587\u8abf\u67fb\u696d\u52d9","client_name":"\u56fd\u571f\u4ea4\u901a\u7701\u4e5d\u5dde\u5730\u65b9\u6574\u5099\u5c40\u4f50\u8cc0\u56fd\u9053\u4e8b\u52d9\u6240","boring_xml_url":49,"boring_view_url":1,"soilmap_view_url":null,"soiltest_xml_url":0,"soiltest_view_url":0},{"id":201773,"code":"B4KJ201801009-0022","latitude":"33.45031","longitude":"130.05361","source_code":"QS20058938400200130005","project_name":"\u4f50\u8cc0497\u53f7\u534a\u7530\u5730\u533a\u6c34\u6587\u8abf\u67fb\u696d\u52d9","survey_name":"\u4f50\u8cc0497\u53f7\u534a\u7530\u5730\u533a\u6c34\u6587\u8abf\u67fb\u696d\u52d9","client_name":"\u56fd\u571f\u4ea4\u901a\u7701\u4e5d\u5dde\u5730\u65b9\u6574\u5099\u5c40\u4f50\u8cc0\u56fd\u9053\u4e8b\u52d9\u6240","boring_xml_url":49,"boring_view_url":1,"soilmap_view_url":null,"soiltest_xml_url":0,"soiltest_view_url":0},{"id":201772,"code":"B4KJ201801009-0021","latitude":"33.45053","longitude":"130.054","source_code":"QS20058938400200130004","project_name":"\u4f50\u8cc0497\u53f7\u534a\u7530\u5730\u533a\u6c34\u6587\u8abf\u67fb\u696d\u52d9","survey_name":"\u4f50\u8cc0497\u53f7\u534a\u7530\u5730\u533a\u6c34\u6587\u8abf\u67fb\u696d\u52d9","client_name":"\u56fd\u571f\u4ea4\u901a\u7701\u4e5d\u5dde\u5730\u65b9\u6574\u5099\u5c40\u4f50\u8cc0\u56fd\u9053\u4e8b\u52d9\u6240","boring_xml_url":49,"boring_view_url":1,"soilmap_view_url":null,"soiltest_xml_url":0,"soiltest_view_url":0},{"id":201771,"code":"B4KJ201801009-0020","latitude":"33.45125","longitude":"130.05283","source_code":"QS20058938400200130003","project_name":"\u4f50\u8cc0497\u53f7\u534a\u7530\u5730\u533a\u6c34\u6587\u8abf\u67fb\u696d\u52d9","survey_name":"\u4f50\u8cc0497\u53f7\u534a\u7530\u5730\u533a\u6c34\u6587\u8abf\u67fb\u696d\u52d9","client_name":"\u56fd\u571f\u4ea4\u901a\u7701\u4e5d\u5dde\u5730\u65b9\u6574\u5099\u5c40\u4f50\u8cc0\u56fd\u9053\u4e8b\u52d9\u6240","boring_xml_url":49,"boring_view_url":1,"soilmap_view_url":null,"soiltest_xml_url":0,"soiltest_view_url":0},{"id":201770,"code":"B4KJ201801009-0019","latitude":"33.45144","longitude":"130.05322","source_code":"QS20058938400200130002","project_name":"\u4f50\u8cc0497\u53f7\u534a\u7530\u5730\u533a\u6c34\u6587\u8abf\u67fb\u696d\u52d9","survey_name":"\u4f50\u8cc0497\u53f7\u534a\u7530\u5730\u533a\u6c34\u6587\u8abf\u67fb\u696d\u52d9","client_name":"\u56fd\u571f\u4ea4\u901a\u7701\u4e5d\u5dde\u5730\u65b9\u6574\u5099\u5c40\u4f50\u8cc0\u56fd\u9053\u4e8b\u52d9\u6240","boring_xml_url":49,"boring_view_url":1,"soilmap_view_url":null,"soiltest_xml_url":0,"soiltest_view_url":0},{"id":201769,"code":"B4KJ201801009-0018","latitude":"33.42028","longitude":"130.03708","source_code":"QS20058938400200130001","project_name":"\u4f50\u8cc0497\u53f7\u534a\u7530\u5730\u533a\u6c34\u6587\u8abf\u67fb\u696d\u52d9","survey_name":"\u4f50\u8cc0497\u53f7\u534a\u7530\u5730\u533a\u6c34\u6587\u8abf\u67fb\u696d\u52d9","client_name":"\u56fd\u571f\u4ea4\u901a\u7701\u4e5d\u5dde\u5730\u65b9\u6574\u5099\u5c40\u4f50\u8cc0\u56fd\u9053\u4e8b\u52d9\u6240","boring_xml_url":49,"boring_view_url":1,"soilmap_view_url":null,"soiltest_xml_url":0,"soiltest_view_url":0},{"id":201768,"code":"B4KJ201801009-0017","latitude":"33.3511","longitude":"129.9378","source_code":"QS20058938400200090002","project_name":"\u4f50\u8cc0202\u53f7 \u5317\u6ce2\u591a\u5730\u533a\u6c34\u6587\u8abf\u67fb\u696d\u52d9","survey_name":"\u4f50\u8cc0202\u53f7 \u5317\u6ce2\u591a\u5730\u533a\u6c34\u6587\u8abf\u67fb\u696d\u52d9","client_name":"\u56fd\u571f\u4ea4\u901a\u7701\u4e5d\u5dde\u5730\u65b9\u6574\u5099\u5c40\u4f50\u8cc0\u56fd\u9053\u4e8b\u52d9\u6240","boring_xml_url":49,"boring_view_url":1,"soilmap_view_url":null,"soiltest_xml_url":0,"soiltest_view_url":0},{"id":201767,"code":"B4KJ201801009-0016","latitude":"33.3522","longitude":"129.9375","source_code":"QS20058938400200090001","project_name":"\u4f50\u8cc0202\u53f7 \u5317\u6ce2\u591a\u5730\u533a\u6c34\u6587\u8abf\u67fb\u696d\u52d9","survey_name":"\u4f50\u8cc0202\u53f7 \u5317\u6ce2\u591a\u5730\u533a\u6c34\u6587\u8abf\u67fb\u696d\u52d9","client_name":"\u56fd\u571f\u4ea4\u901a\u7701\u4e5d\u5dde\u5730\u65b9\u6574\u5099\u5c40\u4f50\u8cc0\u56fd\u9053\u4e8b\u52d9\u6240","boring_xml_url":49,"boring_view_url":1,"soilmap_view_url":null,"soiltest_xml_url":0,"soiltest_view_url":0},{"id":201766,"code":"B4KJ201801009-0015","latitude":"33.4039","longitude":"129.9728","source_code":"QS20058938400200070002","project_name":"\u4f50\u8cc0497\u53f7 \u990a\u6bcd\u7530\u5730\u533a\u6c34\u6587\u8abf\u67fb\u696d\u52d9","survey_name":"\u4f50\u8cc0497\u53f7 \u990a\u6bcd\u7530\u5730\u533a\u6c34\u6587\u8abf\u67fb\u696d\u52d9","client_name":"\u56fd\u571f\u4ea4\u901a\u7701\u4e5d\u5dde\u5730\u65b9\u6574\u5099\u5c40\u4f50\u8cc0\u56fd\u9053\u4e8b\u52d9\u6240","boring_xml_url":49,"boring_view_url":1,"soilmap_view_url":null,"soiltest_xml_url":0,"soiltest_view_url":0},{"id":201765,"code":"B4KJ201801009-0014","latitude":"33.30053","longitude":"130.33519","source_code":"QS20058938400200050001","project_name":"\u4f50\u8cc034\u53f7\u795e\u5d0e\u4f50\u8cc0\u5730\u533a\u8abf\u67fb\u8a2d\u8a08\u696d\u52d9","survey_name":"\u4f50\u8cc034\u53f7\u795e\u5d0e\u4f50\u8cc0\u5730\u533a\u8abf\u67fb\u8a2d\u8a08\u696d\u52d9","client_name":"\u56fd\u571f\u4ea4\u901a\u7701\u4e5d\u5dde\u5730\u65b9\u6574\u5099\u5c40\u4f50\u8cc0\u56fd\u9053\u4e8b\u52d9\u6240","boring_xml_url":49,"boring_view_url":1,"soilmap_view_url":null,"soiltest_xml_url":0,"soiltest_view_url":0},{"id":201764,"code":"B4KJ201801009-0013","latitude":"33.26886","longitude":"130.24656","source_code":"QS20058935600200430007","project_name":"\u5f97\u4ecf\u5730\u533a\u5916\u5730\u8cea\u8abf\u67fb\u696d\u52d9","survey_name":"\u5f97\u4ecf\u5730\u533a\u5916\u5730\u8cea\u8abf\u67fb\u696d\u52d9","client_name":"\u56fd\u571f\u4ea4\u901a\u7701\u4e5d\u5dde\u5730\u65b9\u6574\u5099\u5c40\u6b66\u96c4\u6cb3\u5ddd\u4e8b\u52d9\u6240","boring_xml_url":49,"boring_view_url":1,"soilmap_view_url":null,"soiltest_xml_url":0,"soiltest_view_url":0},{"id":201763,"code":"B4KJ201801009-0012","latitude":"33.22744","longitude":"130.25089","source_code":"QS20058935600200430006","project_name":"\u5f97\u4ecf\u5730\u533a\u5916\u5730\u8cea\u8abf\u67fb\u696d\u52d9","survey_name":"\u5f97\u4ecf\u5730\u533a\u5916\u5730\u8cea\u8abf\u67fb\u696d\u52d9","client_name":"\u56fd\u571f\u4ea4\u901a\u7701\u4e5d\u5dde\u5730\u65b9\u6574\u5099\u5c40\u6b66\u96c4\u6cb3\u5ddd\u4e8b\u52d9\u6240","boring_xml_url":49,"boring_view_url":1,"soilmap_view_url":null,"soiltest_xml_url":52,"soiltest_view_url":52},{"id":201762,"code":"B4KJ201801009-0011","latitude":"33.22761","longitude":"130.251","source_code":"QS20058935600200430005","project_name":"\u5f97\u4ecf\u5730\u533a\u5916\u5730\u8cea\u8abf\u67fb\u696d\u52d9","survey_name":"\u5f97\u4ecf\u5730\u533a\u5916\u5730\u8cea\u8abf\u67fb\u696d\u52d9","client_name":"\u56fd\u571f\u4ea4\u901a\u7701\u4e5d\u5dde\u5730\u65b9\u6574\u5099\u5c40\u6b66\u96c4\u6cb3\u5ddd\u4e8b\u52d9\u6240","boring_xml_url":49,"boring_view_url":1,"soilmap_view_url":null,"soiltest_xml_url":52,"soiltest_view_url":52},{"id":201761,"code":"B4KJ201801009-0010","latitude":"33.22756","longitude":"130.25094","source_code":"QS20058935600200430004","project_name":"\u5f97\u4ecf\u5730\u533a\u5916\u5730\u8cea\u8abf\u67fb\u696d\u52d9","survey_name":"\u5f97\u4ecf\u5730\u533a\u5916\u5730\u8cea\u8abf\u67fb\u696d\u52d9","client_name":"\u56fd\u571f\u4ea4\u901a\u7701\u4e5d\u5dde\u5730\u65b9\u6574\u5099\u5c40\u6b66\u96c4\u6cb3\u5ddd\u4e8b\u52d9\u6240","boring_xml_url":49,"boring_view_url":1,"soilmap_view_url":null,"soiltest_xml_url":52,"soiltest_view_url":52},{"id":201760,"code":"B4KJ201801009-0009","latitude":"33.24678","longitude":"130.24567","source_code":"QS20058935600200430003","project_name":"\u5f97\u4ecf\u5730\u533a\u5916\u5730\u8cea\u8abf\u67fb\u696d\u52d9","survey_name":"\u5f97\u4ecf\u5730\u533a\u5916\u5730\u8cea\u8abf\u67fb\u696d\u52d9","client_name":"\u56fd\u571f\u4ea4\u901a\u7701\u4e5d\u5dde\u5730\u65b9\u6574\u5099\u5c40\u6b66\u96c4\u6cb3\u5ddd\u4e8b\u52d9\u6240","boring_xml_url":49,"boring_view_url":1,"soilmap_view_url":null,"soiltest_xml_url":52,"soiltest_view_url":52},{"id":201759,"code":"B4KJ201801009-0008","latitude":"33.24681","longitude":"130.24547","source_code":"QS20058935600200430002","project_name":"\u5f97\u4ecf\u5730\u533a\u5916\u5730\u8cea\u8abf\u67fb\u696d\u52d9","survey_name":"\u5f97\u4ecf\u5730\u533a\u5916\u5730\u8cea\u8abf\u67fb\u696d\u52d9","client_name":"\u56fd\u571f\u4ea4\u901a\u7701\u4e5d\u5dde\u5730\u65b9\u6574\u5099\u5c40\u6b66\u96c4\u6cb3\u5ddd\u4e8b\u52d9\u6240","boring_xml_url":49,"boring_view_url":1,"soilmap_view_url":null,"soiltest_xml_url":52,"soiltest_view_url":52},{"id":201758,"code":"B4KJ201801009-0007","latitude":"33.24681","longitude":"130.24558","source_code":"QS20058935600200430001","project_name":"\u5f97\u4ecf\u5730\u533a\u5916\u5730\u8cea\u8abf\u67fb\u696d\u52d9","survey_name":"\u5f97\u4ecf\u5730\u533a\u5916\u5730\u8cea\u8abf\u67fb\u696d\u52d9","client_name":"\u56fd\u571f\u4ea4\u901a\u7701\u4e5d\u5dde\u5730\u65b9\u6574\u5099\u5c40\u6b66\u96c4\u6cb3\u5ddd\u4e8b\u52d9\u6240","boring_xml_url":49,"boring_view_url":1,"soilmap_view_url":null,"soiltest_xml_url":52,"soiltest_view_url":52},{"id":201757,"code":"B4KJ201801009-0006","latitude":"33.39872","longitude":"129.96647","source_code":"QS20058935600200420011","project_name":"\u677e\u6d66\u5ddd\u5730\u8cea\u8abf\u67fb\u696d\u52d9","survey_name":"\u677e\u6d66\u5ddd\u5730\u8cea\u8abf\u67fb\u696d\u52d9","client_name":"\u56fd\u571f\u4ea4\u901a\u7701\u4e5d\u5dde\u5730\u65b9\u6574\u5099\u5c40\u6b66\u96c4\u6cb3\u5ddd\u4e8b\u52d9\u6240","boring_xml_url":49,"boring_view_url":1,"soilmap_view_url":null,"soiltest_xml_url":52,"soiltest_view_url":52},{"id":201756,"code":"B4KJ201801009-0005","latitude":"33.35269","longitude":"130.00042","source_code":"QS20058935600200420010","project_name":"\u677e\u6d66\u5ddd\u5730\u8cea\u8abf\u67fb\u696d\u52d9","survey_name":"\u677e\u6d66\u5ddd\u5730\u8cea\u8abf\u67fb\u696d\u52d9","client_name":"\u56fd\u571f\u4ea4\u901a\u7701\u4e5d\u5dde\u5730\u65b9\u6574\u5099\u5c40\u6b66\u96c4\u6cb3\u5ddd\u4e8b\u52d9\u6240","boring_xml_url":49,"boring_view_url":1,"soilmap_view_url":null,"soiltest_xml_url":52,"soiltest_view_url":52},{"id":201755,"code":"B4KJ201801009-0004","latitude":"33.35808","longitude":"130.00622","source_code":"QS20058935600200420009","project_name":"\u677e\u6d66\u5ddd\u5730\u8cea\u8abf\u67fb\u696d\u52d9","survey_name":"\u677e\u6d66\u5ddd\u5730\u8cea\u8abf\u67fb\u696d\u52d9","client_name":"\u56fd\u571f\u4ea4\u901a\u7701\u4e5d\u5dde\u5730\u65b9\u6574\u5099\u5c40\u6b66\u96c4\u6cb3\u5ddd\u4e8b\u52d9\u6240","boring_xml_url":49,"boring_view_url":1,"soilmap_view_url":null,"soiltest_xml_url":52,"soiltest_view_url":52},{"id":201754,"code":"B4KJ201801009-0003","latitude":"33.37125","longitude":"130.00075","source_code":"QS20058935600200420008","project_name":"\u677e\u6d66\u5ddd\u5730\u8cea\u8abf\u67fb\u696d\u52d9","survey_name":"\u677e\u6d66\u5ddd\u5730\u8cea\u8abf\u67fb\u696d\u52d9","client_name":"\u56fd\u571f\u4ea4\u901a\u7701\u4e5d\u5dde\u5730\u65b9\u6574\u5099\u5c40\u6b66\u96c4\u6cb3\u5ddd\u4e8b\u52d9\u6240","boring_xml_url":49,"boring_view_url":1,"soilmap_view_url":null,"soiltest_xml_url":52,"soiltest_view_url":52},{"id":201753,"code":"B4KJ201801009-0002","latitude":"33.38569","longitude":"129.9855","source_code":"QS20058935600200420007","project_name":"\u677e\u6d66\u5ddd\u5730\u8cea\u8abf\u67fb\u696d\u52d9","survey_name":"\u677e\u6d66\u5ddd\u5730\u8cea\u8abf\u67fb\u696d\u52d9","client_name":"\u56fd\u571f\u4ea4\u901a\u7701\u4e5d\u5dde\u5730\u65b9\u6574\u5099\u5c40\u6b66\u96c4\u6cb3\u5ddd\u4e8b\u52d9\u6240","boring_xml_url":49,"boring_view_url":1,"soilmap_view_url":null,"soiltest_xml_url":52,"soiltest_view_url":52},{"id":201752,"code":"B4KJ201801009-0001","latitude":"33.39753","longitude":"129.98375","source_code":"QS20058935600200420006","project_name":"\u677e\u6d66\u5ddd\u5730\u8cea\u8abf\u67fb\u696d\u52d9","survey_name":"\u677e\u6d66\u5ddd\u5730\u8cea\u8abf\u67fb\u696d\u52d9","client_name":"\u56fd\u571f\u4ea4\u901a\u7701\u4e5d\u5dde\u5730\u65b9\u6574\u5099\u5c40\u6b66\u96c4\u6cb3\u5ddd\u4e8b\u52d9\u6240","boring_xml_url":49,"boring_view_url":1,"soilmap_view_url":null,"soiltest_xml_url":52,"soiltest_view_url":52},{"id":201751,"code":"B4KJ201801009-0000","latitude":"33.40536","longitude":"129.97969","source_code":"QS20058935600200420005","project_name":"\u677e\u6d66\u5ddd\u5730\u8cea\u8abf\u67fb\u696d\u52d9","survey_name":"\u677e\u6d66\u5ddd\u5730\u8cea\u8abf\u67fb\u696d\u52d9","client_name":"\u56fd\u571f\u4ea4\u901a\u7701\u4e5d\u5dde\u5730\u65b9\u6574\u5099\u5c40\u6b66\u96c4\u6cb3\u5ddd\u4e8b\u52d9\u6240","boring_xml_url":49,"boring_view_url":1,"soilmap_view_url":null,"soiltest_xml_url":52,"soiltest_view_url":52},{"id":201750,"code":"B4KJ201801008-9999","latitude":"33.40831","longitude":"129.98261","source_code":"QS20058935600200420004","project_name":"\u677e\u6d66\u5ddd\u5730\u8cea\u8abf\u67fb\u696d\u52d9","survey_name":"\u677e\u6d66\u5ddd\u5730\u8cea\u8abf\u67fb\u696d\u52d9","client_name":"\u56fd\u571f\u4ea4\u901a\u7701\u4e5d\u5dde\u5730\u65b9\u6574\u5099\u5c40\u6b66\u96c4\u6cb3\u5ddd\u4e8b\u52d9\u6240","boring_xml_url":49,"boring_view_url":1,"soilmap_view_url":null,"soiltest_xml_url":52,"soiltest_view_url":52},{"id":201749,"code":"B4KJ201801008-9998","latitude":"33.40986","longitude":"129.98547","source_code":"QS20058935600200420003","project_name":"\u677e\u6d66\u5ddd\u5730\u8cea\u8abf\u67fb\u696d\u52d9","survey_name":"\u677e\u6d66\u5ddd\u5730\u8cea\u8abf\u67fb\u696d\u52d9","client_name":"\u56fd\u571f\u4ea4\u901a\u7701\u4e5d\u5dde\u5730\u65b9\u6574\u5099\u5c40\u6b66\u96c4\u6cb3\u5ddd\u4e8b\u52d9\u6240","boring_xml_url":49,"boring_view_url":1,"soilmap_view_url":null,"soiltest_xml_url":52,"soiltest_view_url":52},{"id":201748,"code":"B4KJ201801008-9997","latitude":"33.42133","longitude":"129.99044","source_code":"QS20058935600200420002","project_name":"\u677e\u6d66\u5ddd\u5730\u8cea\u8abf\u67fb\u696d\u52d9","survey_name":"\u677e\u6d66\u5ddd\u5730\u8cea\u8abf\u67fb\u696d\u52d9","client_name":"\u56fd\u571f\u4ea4\u901a\u7701\u4e5d\u5dde\u5730\u65b9\u6574\u5099\u5c40\u6b66\u96c4\u6cb3\u5ddd\u4e8b\u52d9\u6240","boring_xml_url":49,"boring_view_url":1,"soilmap_view_url":null,"soiltest_xml_url":52,"soiltest_view_url":52},{"id":201747,"code":"B4KJ201801008-9996","latitude":"33.43306","longitude":"129.99542","source_code":"QS20058935600200420001","project_name":"\u677e\u6d66\u5ddd\u5730\u8cea\u8abf\u67fb\u696d\u52d9","survey_name":"\u677e\u6d66\u5ddd\u5730\u8cea\u8abf\u67fb\u696d\u52d9","client_name":"\u56fd\u571f\u4ea4\u901a\u7701\u4e5d\u5dde\u5730\u65b9\u6574\u5099\u5c40\u6b66\u96c4\u6cb3\u5ddd\u4e8b\u52d9\u6240","boring_xml_url":49,"boring_view_url":1,"soilmap_view_url":null,"soiltest_xml_url":52,"soiltest_view_url":52},{"id":201746,"code":"B4KJ201801008-9995","latitude":"33.2758","longitude":"130.1469","source_code":"QS2005893560020040008","project_name":"","survey_name":"\u725b\u6d25\u5ddd\u5730\u8cea\u8abf\u67fb\u696d\u52d9","client_name":"\u56fd\u571f\u4ea4\u901a\u7701\u4e5d\u5dde\u5730\u65b9\u6574\u5099\u5c40\u6b66\u96c4\u6cb3\u5ddd\u4e8b\u52d9\u6240","boring_xml_url":48,"boring_view_url":1,"soilmap_view_url":null,"soiltest_xml_url":51,"soiltest_view_url":51}]}}