{"header":{"xyz":{"source":[],"mosaic":false},"page":3962,"raw":{"soiltest_result":"0","bbox":"57.598333,109.544722,1.933333,163.806111","page":"3962"},"conditions":{"soiltest_result":0,"north":57.598333,"west":109.544722,"south":1.933333,"east":163.806111},"success":true,"message":""},"data":{"meta":{"total":212844,"page":3962,"pages":7095,"count":30},"values":[{"id":201715,"code":"B4KJ201801008-9964","latitude":"33.86664","longitude":"130.79722","source_code":"QS20058933600200190002","project_name":"\u9ed2\u5d0e\u30d0\u30a4\u30d1\u30b9","survey_name":"\u9ed2\u5d0e\u30d0\u30a4\u30d1\u30b9\u7530\u753a\u5730\u533a\u5730\u8cea\u8abf\u67fb\u696d\u52d9","client_name":"\u56fd\u571f\u4ea4\u901a\u7701\u4e5d\u5dde\u5730\u65b9\u6574\u5099\u5c40\u5317\u4e5d\u5dde\u56fd\u9053\u4e8b\u52d9\u6240","boring_xml_url":49,"boring_view_url":1,"soilmap_view_url":null,"soiltest_xml_url":52,"soiltest_view_url":52},{"id":201714,"code":"B4KJ201801008-9963","latitude":"33.86633","longitude":"130.78103","source_code":"QS20058933600200190001","project_name":"\u9ed2\u5d0e\u30d0\u30a4\u30d1\u30b9","survey_name":"\u9ed2\u5d0e\u30d0\u30a4\u30d1\u30b9\u7530\u753a\u5730\u533a\u5730\u8cea\u8abf\u67fb\u696d\u52d9","client_name":"\u56fd\u571f\u4ea4\u901a\u7701\u4e5d\u5dde\u5730\u65b9\u6574\u5099\u5c40\u5317\u4e5d\u5dde\u56fd\u9053\u4e8b\u52d9\u6240","boring_xml_url":49,"boring_view_url":1,"soilmap_view_url":null,"soiltest_xml_url":52,"soiltest_view_url":52},{"id":201713,"code":"B4KJ201801008-9962","latitude":"33.85289","longitude":"130.76392","source_code":"QS20058933550200140004","project_name":"\u5e78\u795e\u4ea4\u5dee\u70b9\u6539\u826f\u8a2d\u8a08\u696d\u52d9","survey_name":"\u5e78\u795e\u4ea4\u5dee\u70b9\u6539\u826f\u8a2d\u8a08\u696d\u52d9","client_name":"\u56fd\u571f\u4ea4\u901a\u7701\u4e5d\u5dde\u5730\u65b9\u6574\u5099\u5c40\u5317\u4e5d\u5dde\u56fd\u9053\u4e8b\u52d9\u6240","boring_xml_url":49,"boring_view_url":1,"soilmap_view_url":null,"soiltest_xml_url":0,"soiltest_view_url":0},{"id":201712,"code":"B4KJ201801008-9961","latitude":"33.85264","longitude":"130.76389","source_code":"QS20058933550200140003","project_name":"\u5e78\u795e\u4ea4\u5dee\u70b9\u6539\u826f\u8a2d\u8a08\u696d\u52d9","survey_name":"\u5e78\u795e\u4ea4\u5dee\u70b9\u6539\u826f\u8a2d\u8a08\u696d\u52d9","client_name":"\u56fd\u571f\u4ea4\u901a\u7701\u4e5d\u5dde\u5730\u65b9\u6574\u5099\u5c40\u5317\u4e5d\u5dde\u56fd\u9053\u4e8b\u52d9\u6240","boring_xml_url":49,"boring_view_url":1,"soilmap_view_url":null,"soiltest_xml_url":52,"soiltest_view_url":52},{"id":201711,"code":"B4KJ201801008-9960","latitude":"33.85264","longitude":"130.76419","source_code":"QS20058933550200140002","project_name":"\u5e78\u795e\u4ea4\u5dee\u70b9\u6539\u826f\u8a2d\u8a08\u696d\u52d9","survey_name":"\u5e78\u795e\u4ea4\u5dee\u70b9\u6539\u826f\u8a2d\u8a08\u696d\u52d9","client_name":"\u56fd\u571f\u4ea4\u901a\u7701\u4e5d\u5dde\u5730\u65b9\u6574\u5099\u5c40\u5317\u4e5d\u5dde\u56fd\u9053\u4e8b\u52d9\u6240","boring_xml_url":49,"boring_view_url":1,"soilmap_view_url":null,"soiltest_xml_url":0,"soiltest_view_url":0},{"id":201710,"code":"B4KJ201801008-9959","latitude":"33.85283","longitude":"130.76417","source_code":"QS20058933550200140001","project_name":"\u5e78\u795e\u4ea4\u5dee\u70b9\u6539\u826f\u8a2d\u8a08\u696d\u52d9","survey_name":"\u5e78\u795e\u4ea4\u5dee\u70b9\u6539\u826f\u8a2d\u8a08\u696d\u52d9","client_name":"\u56fd\u571f\u4ea4\u901a\u7701\u4e5d\u5dde\u5730\u65b9\u6574\u5099\u5c40\u5317\u4e5d\u5dde\u56fd\u9053\u4e8b\u52d9\u6240","boring_xml_url":49,"boring_view_url":1,"soilmap_view_url":null,"soiltest_xml_url":52,"soiltest_view_url":52},{"id":201709,"code":"B4KJ201801008-9958","latitude":"33.86086","longitude":"130.76194","source_code":"QS20058933550200010001","project_name":"","survey_name":"\u5e73\u621017\u5e74\u5ea6 \u4ea4\u901a\u5b89\u5168\u65bd\u8a2d\u6e2c\u91cf\u8a2d\u8a08\u696d\u52d9","client_name":"\u56fd\u571f\u4ea4\u901a\u7701\u4e5d\u5dde\u5730\u65b9\u6574\u5099\u5c40\u5317\u4e5d\u5dde\u56fd\u9053\u5de5\u4e8b\u4e8b\u52d9\u6240","boring_xml_url":49,"boring_view_url":1,"soilmap_view_url":null,"soiltest_xml_url":0,"soiltest_view_url":0},{"id":201708,"code":"B4KJ201801008-9957","latitude":"33.8489","longitude":"130.6811","source_code":"QS20058933510200150002","project_name":"\u5317\u4e5d\u5dde\u56fd\u9053\u7ba1\u5185\u6a4b\u6881\u8abf\u67fb\u691c\u8a0e\u696d\u52d9","survey_name":"\u5317\u4e5d\u5dde\u56fd\u9053\u7ba1\u5185\u6a4b\u6881\u8abf\u67fb\u691c\u8a0e\u696d\u52d9","client_name":"\u56fd\u571f\u4ea4\u901a\u7701\u4e5d\u5dde\u5730\u65b9\u6574\u5099\u5c40\u5317\u4e5d\u5dde\u56fd\u9053\u4e8b\u52d9\u6240","boring_xml_url":49,"boring_view_url":1,"soilmap_view_url":null,"soiltest_xml_url":52,"soiltest_view_url":52},{"id":201707,"code":"B4KJ201801008-9956","latitude":"33.8489","longitude":"130.6814","source_code":"QS20058933510200150001","project_name":"\u5317\u4e5d\u5dde\u56fd\u9053\u7ba1\u5185\u6a4b\u6881\u8abf\u67fb\u691c\u8a0e\u696d\u52d9","survey_name":"\u5317\u4e5d\u5dde\u56fd\u9053\u7ba1\u5185\u6a4b\u6881\u8abf\u67fb\u691c\u8a0e\u696d\u52d9","client_name":"\u56fd\u571f\u4ea4\u901a\u7701\u4e5d\u5dde\u5730\u65b9\u6574\u5099\u5c40\u5317\u4e5d\u5dde\u56fd\u9053\u4e8b\u52d9\u6240","boring_xml_url":49,"boring_view_url":1,"soilmap_view_url":null,"soiltest_xml_url":52,"soiltest_view_url":52},{"id":201706,"code":"B4KJ201801008-9955","latitude":"33.6514","longitude":"130.8019","source_code":"QS20058933510200120027","project_name":"\u98ef\u585a\u7530\u5ddd\u5730\u533a\u9053\u8def\u4fdd\u5168","survey_name":"\u98ef\u585a\u30fb\u7530\u5ddd\u5730\u533a\u9053\u8def\u4fdd\u5168\u8abf\u67fb\u8a2d\u8a08\u696d\u52d9","client_name":"\u56fd\u571f\u4ea4\u901a\u7701\u4e5d\u5dde\u5730\u65b9\u6574\u5099\u5c40\u5317\u4e5d\u5dde\u56fd\u9053\u4e8b\u52d9\u6240","boring_xml_url":49,"boring_view_url":1,"soilmap_view_url":null,"soiltest_xml_url":0,"soiltest_view_url":0},{"id":201705,"code":"B4KJ201801008-9954","latitude":"33.6514","longitude":"130.8017","source_code":"QS20058933510200120026","project_name":"\u98ef\u585a\u7530\u5ddd\u5730\u533a\u9053\u8def\u4fdd\u5168","survey_name":"\u98ef\u585a\u30fb\u7530\u5ddd\u5730\u533a\u9053\u8def\u4fdd\u5168\u8abf\u67fb\u8a2d\u8a08\u696d\u52d9","client_name":"\u56fd\u571f\u4ea4\u901a\u7701\u4e5d\u5dde\u5730\u65b9\u6574\u5099\u5c40\u5317\u4e5d\u5dde\u56fd\u9053\u4e8b\u52d9\u6240","boring_xml_url":49,"boring_view_url":1,"soilmap_view_url":null,"soiltest_xml_url":0,"soiltest_view_url":0},{"id":201704,"code":"B4KJ201801008-9953","latitude":"33.6514","longitude":"130.8014","source_code":"QS20058933510200120025","project_name":"\u98ef\u585a\u7530\u5ddd\u5730\u533a\u9053\u8def\u4fdd\u5168","survey_name":"\u98ef\u585a\u30fb\u7530\u5ddd\u5730\u533a\u9053\u8def\u4fdd\u5168\u8abf\u67fb\u8a2d\u8a08\u696d\u52d9","client_name":"\u56fd\u571f\u4ea4\u901a\u7701\u4e5d\u5dde\u5730\u65b9\u6574\u5099\u5c40\u5317\u4e5d\u5dde\u56fd\u9053\u4e8b\u52d9\u6240","boring_xml_url":49,"boring_view_url":1,"soilmap_view_url":null,"soiltest_xml_url":0,"soiltest_view_url":0},{"id":201703,"code":"B4KJ201801008-9952","latitude":"33.6511","longitude":"130.8006","source_code":"QS20058933510200120024","project_name":"\u98ef\u585a\u7530\u5ddd\u5730\u533a\u9053\u8def\u4fdd\u5168","survey_name":"\u98ef\u585a\u30fb\u7530\u5ddd\u5730\u533a\u9053\u8def\u4fdd\u5168\u8abf\u67fb\u8a2d\u8a08\u696d\u52d9","client_name":"\u56fd\u571f\u4ea4\u901a\u7701\u4e5d\u5dde\u5730\u65b9\u6574\u5099\u5c40\u5317\u4e5d\u5dde\u56fd\u9053\u4e8b\u52d9\u6240","boring_xml_url":49,"boring_view_url":1,"soilmap_view_url":null,"soiltest_xml_url":0,"soiltest_view_url":0},{"id":201702,"code":"B4KJ201801008-9951","latitude":"33.6511","longitude":"130.8003","source_code":"QS20058933510200120023","project_name":"\u98ef\u585a\u7530\u5ddd\u5730\u533a\u9053\u8def\u4fdd\u5168","survey_name":"\u98ef\u585a\u30fb\u7530\u5ddd\u5730\u533a\u9053\u8def\u4fdd\u5168\u8abf\u67fb\u8a2d\u8a08\u696d\u52d9","client_name":"\u56fd\u571f\u4ea4\u901a\u7701\u4e5d\u5dde\u5730\u65b9\u6574\u5099\u5c40\u5317\u4e5d\u5dde\u56fd\u9053\u4e8b\u52d9\u6240","boring_xml_url":49,"boring_view_url":1,"soilmap_view_url":null,"soiltest_xml_url":0,"soiltest_view_url":0},{"id":201701,"code":"B4KJ201801008-9950","latitude":"33.6511","longitude":"130.8006","source_code":"QS20058933510200120022","project_name":"\u98ef\u585a\u7530\u5ddd\u5730\u533a\u9053\u8def\u4fdd\u5168","survey_name":"\u98ef\u585a\u30fb\u7530\u5ddd\u5730\u533a\u9053\u8def\u4fdd\u5168\u8abf\u67fb\u8a2d\u8a08\u696d\u52d9","client_name":"\u56fd\u571f\u4ea4\u901a\u7701\u4e5d\u5dde\u5730\u65b9\u6574\u5099\u5c40\u5317\u4e5d\u5dde\u56fd\u9053\u4e8b\u52d9\u6240","boring_xml_url":49,"boring_view_url":1,"soilmap_view_url":null,"soiltest_xml_url":0,"soiltest_view_url":0},{"id":201700,"code":"B4KJ201801008-9949","latitude":"33.6453","longitude":"130.7861","source_code":"QS20058933510200120021","project_name":"\u98ef\u585a\u7530\u5ddd\u5730\u533a\u9053\u8def\u4fdd\u5168","survey_name":"\u98ef\u585a\u30fb\u7530\u5ddd\u5730\u533a\u9053\u8def\u4fdd\u5168\u8abf\u67fb\u8a2d\u8a08\u696d\u52d9","client_name":"\u56fd\u571f\u4ea4\u901a\u7701\u4e5d\u5dde\u5730\u65b9\u6574\u5099\u5c40\u5317\u4e5d\u5dde\u56fd\u9053\u4e8b\u52d9\u6240","boring_xml_url":49,"boring_view_url":1,"soilmap_view_url":null,"soiltest_xml_url":0,"soiltest_view_url":0},{"id":201699,"code":"B4KJ201801008-9948","latitude":"33.6458","longitude":"130.7878","source_code":"QS20058933510200120020","project_name":"\u98ef\u585a\u7530\u5ddd\u5730\u533a\u9053\u8def\u4fdd\u5168","survey_name":"\u98ef\u585a\u30fb\u7530\u5ddd\u5730\u533a\u9053\u8def\u4fdd\u5168\u8abf\u67fb\u8a2d\u8a08\u696d\u52d9","client_name":"\u56fd\u571f\u4ea4\u901a\u7701\u4e5d\u5dde\u5730\u65b9\u6574\u5099\u5c40\u5317\u4e5d\u5dde\u56fd\u9053\u4e8b\u52d9\u6240","boring_xml_url":49,"boring_view_url":1,"soilmap_view_url":null,"soiltest_xml_url":0,"soiltest_view_url":0},{"id":201698,"code":"B4KJ201801008-9947","latitude":"33.6453","longitude":"130.7872","source_code":"QS20058933510200120019","project_name":"\u98ef\u585a\u7530\u5ddd\u5730\u533a\u9053\u8def\u4fdd\u5168","survey_name":"\u98ef\u585a\u30fb\u7530\u5ddd\u5730\u533a\u9053\u8def\u4fdd\u5168\u8abf\u67fb\u8a2d\u8a08\u696d\u52d9","client_name":"\u56fd\u571f\u4ea4\u901a\u7701\u4e5d\u5dde\u5730\u65b9\u6574\u5099\u5c40\u5317\u4e5d\u5dde\u56fd\u9053\u4e8b\u52d9\u6240","boring_xml_url":49,"boring_view_url":1,"soilmap_view_url":null,"soiltest_xml_url":0,"soiltest_view_url":0},{"id":201697,"code":"B4KJ201801008-9946","latitude":"33.6453","longitude":"130.7867","source_code":"QS20058933510200120018","project_name":"\u98ef\u585a\u7530\u5ddd\u5730\u533a\u9053\u8def\u4fdd\u5168","survey_name":"\u98ef\u585a\u30fb\u7530\u5ddd\u5730\u533a\u9053\u8def\u4fdd\u5168\u8abf\u67fb\u8a2d\u8a08\u696d\u52d9","client_name":"\u56fd\u571f\u4ea4\u901a\u7701\u4e5d\u5dde\u5730\u65b9\u6574\u5099\u5c40\u5317\u4e5d\u5dde\u56fd\u9053\u4e8b\u52d9\u6240","boring_xml_url":49,"boring_view_url":1,"soilmap_view_url":null,"soiltest_xml_url":0,"soiltest_view_url":0},{"id":201696,"code":"B4KJ201801008-9945","latitude":"33.6453","longitude":"130.7864","source_code":"QS20058933510200120017","project_name":"\u98ef\u585a\u7530\u5ddd\u5730\u533a\u9053\u8def\u4fdd\u5168","survey_name":"\u98ef\u585a\u30fb\u7530\u5ddd\u5730\u533a\u9053\u8def\u4fdd\u5168\u8abf\u67fb\u8a2d\u8a08\u696d\u52d9","client_name":"\u56fd\u571f\u4ea4\u901a\u7701\u4e5d\u5dde\u5730\u65b9\u6574\u5099\u5c40\u5317\u4e5d\u5dde\u56fd\u9053\u4e8b\u52d9\u6240","boring_xml_url":49,"boring_view_url":1,"soilmap_view_url":null,"soiltest_xml_url":0,"soiltest_view_url":0},{"id":201695,"code":"B4KJ201801008-9944","latitude":"33.6453","longitude":"130.7864","source_code":"QS20058933510200120016","project_name":"\u98ef\u585a\u7530\u5ddd\u5730\u533a\u9053\u8def\u4fdd\u5168","survey_name":"\u98ef\u585a\u30fb\u7530\u5ddd\u5730\u533a\u9053\u8def\u4fdd\u5168\u8abf\u67fb\u8a2d\u8a08\u696d\u52d9","client_name":"\u56fd\u571f\u4ea4\u901a\u7701\u4e5d\u5dde\u5730\u65b9\u6574\u5099\u5c40\u5317\u4e5d\u5dde\u56fd\u9053\u4e8b\u52d9\u6240","boring_xml_url":49,"boring_view_url":1,"soilmap_view_url":null,"soiltest_xml_url":0,"soiltest_view_url":0},{"id":201694,"code":"B4KJ201801008-9943","latitude":"33.6417","longitude":"130.7675","source_code":"QS20058933510200120015","project_name":"\u98ef\u585a\u7530\u5ddd\u5730\u533a\u9053\u8def\u4fdd\u5168","survey_name":"\u98ef\u585a\u30fb\u7530\u5ddd\u5730\u533a\u9053\u8def\u4fdd\u5168\u8abf\u67fb\u8a2d\u8a08\u696d\u52d9","client_name":"\u56fd\u571f\u4ea4\u901a\u7701\u4e5d\u5dde\u5730\u65b9\u6574\u5099\u5c40\u5317\u4e5d\u5dde\u56fd\u9053\u4e8b\u52d9\u6240","boring_xml_url":49,"boring_view_url":1,"soilmap_view_url":null,"soiltest_xml_url":0,"soiltest_view_url":0},{"id":201693,"code":"B4KJ201801008-9942","latitude":"33.6419","longitude":"130.7686","source_code":"QS20058933510200120014","project_name":"\u98ef\u585a\u7530\u5ddd\u5730\u533a\u9053\u8def\u4fdd\u5168","survey_name":"\u98ef\u585a\u30fb\u7530\u5ddd\u5730\u533a\u9053\u8def\u4fdd\u5168\u8abf\u67fb\u8a2d\u8a08\u696d\u52d9","client_name":"\u56fd\u571f\u4ea4\u901a\u7701\u4e5d\u5dde\u5730\u65b9\u6574\u5099\u5c40\u5317\u4e5d\u5dde\u56fd\u9053\u4e8b\u52d9\u6240","boring_xml_url":49,"boring_view_url":1,"soilmap_view_url":null,"soiltest_xml_url":0,"soiltest_view_url":0},{"id":201692,"code":"B4KJ201801008-9941","latitude":"33.6422","longitude":"130.7694","source_code":"QS20058933510200120013","project_name":"\u98ef\u585a\u7530\u5ddd\u5730\u533a\u9053\u8def\u4fdd\u5168","survey_name":"\u98ef\u585a\u30fb\u7530\u5ddd\u5730\u533a\u9053\u8def\u4fdd\u5168\u8abf\u67fb\u8a2d\u8a08\u696d\u52d9","client_name":"\u56fd\u571f\u4ea4\u901a\u7701\u4e5d\u5dde\u5730\u65b9\u6574\u5099\u5c40\u5317\u4e5d\u5dde\u56fd\u9053\u4e8b\u52d9\u6240","boring_xml_url":49,"boring_view_url":1,"soilmap_view_url":null,"soiltest_xml_url":0,"soiltest_view_url":0},{"id":201691,"code":"B4KJ201801008-9940","latitude":"33.6422","longitude":"130.7692","source_code":"QS20058933510200120012","project_name":"\u98ef\u585a\u7530\u5ddd\u5730\u533a\u9053\u8def\u4fdd\u5168","survey_name":"\u98ef\u585a\u30fb\u7530\u5ddd\u5730\u533a\u9053\u8def\u4fdd\u5168\u8abf\u67fb\u8a2d\u8a08\u696d\u52d9","client_name":"\u56fd\u571f\u4ea4\u901a\u7701\u4e5d\u5dde\u5730\u65b9\u6574\u5099\u5c40\u5317\u4e5d\u5dde\u56fd\u9053\u4e8b\u52d9\u6240","boring_xml_url":49,"boring_view_url":1,"soilmap_view_url":null,"soiltest_xml_url":0,"soiltest_view_url":0},{"id":201690,"code":"B4KJ201801008-9939","latitude":"33.6422","longitude":"130.7686","source_code":"QS20058933510200120011","project_name":"\u98ef\u585a\u7530\u5ddd\u5730\u533a\u9053\u8def\u4fdd\u5168","survey_name":"\u98ef\u585a\u30fb\u7530\u5ddd\u5730\u533a\u9053\u8def\u4fdd\u5168\u8abf\u67fb\u8a2d\u8a08\u696d\u52d9","client_name":"\u56fd\u571f\u4ea4\u901a\u7701\u4e5d\u5dde\u5730\u65b9\u6574\u5099\u5c40\u5317\u4e5d\u5dde\u56fd\u9053\u4e8b\u52d9\u6240","boring_xml_url":49,"boring_view_url":1,"soilmap_view_url":null,"soiltest_xml_url":0,"soiltest_view_url":0},{"id":201689,"code":"B4KJ201801008-9938","latitude":"33.6419","longitude":"130.7683","source_code":"QS20058933510200120010","project_name":"\u98ef\u585a\u7530\u5ddd\u5730\u533a\u9053\u8def\u4fdd\u5168","survey_name":"\u98ef\u585a\u30fb\u7530\u5ddd\u5730\u533a\u9053\u8def\u4fdd\u5168\u8abf\u67fb\u8a2d\u8a08\u696d\u52d9","client_name":"\u56fd\u571f\u4ea4\u901a\u7701\u4e5d\u5dde\u5730\u65b9\u6574\u5099\u5c40\u5317\u4e5d\u5dde\u56fd\u9053\u4e8b\u52d9\u6240","boring_xml_url":49,"boring_view_url":1,"soilmap_view_url":null,"soiltest_xml_url":0,"soiltest_view_url":0},{"id":201688,"code":"B4KJ201801008-9937","latitude":"33.6419","longitude":"130.7681","source_code":"QS20058933510200120009","project_name":"\u98ef\u585a\u7530\u5ddd\u5730\u533a\u9053\u8def\u4fdd\u5168","survey_name":"\u98ef\u585a\u30fb\u7530\u5ddd\u5730\u533a\u9053\u8def\u4fdd\u5168\u8abf\u67fb\u8a2d\u8a08\u696d\u52d9","client_name":"\u56fd\u571f\u4ea4\u901a\u7701\u4e5d\u5dde\u5730\u65b9\u6574\u5099\u5c40\u5317\u4e5d\u5dde\u56fd\u9053\u4e8b\u52d9\u6240","boring_xml_url":49,"boring_view_url":1,"soilmap_view_url":null,"soiltest_xml_url":0,"soiltest_view_url":0},{"id":201687,"code":"B4KJ201801008-9936","latitude":"33.6511","longitude":"130.7319","source_code":"QS20058933510200120008","project_name":"\u98ef\u585a\u7530\u5ddd\u5730\u533a\u9053\u8def\u4fdd\u5168","survey_name":"\u98ef\u585a\u30fb\u7530\u5ddd\u5730\u533a\u9053\u8def\u4fdd\u5168\u8abf\u67fb\u8a2d\u8a08\u696d\u52d9","client_name":"\u56fd\u571f\u4ea4\u901a\u7701\u4e5d\u5dde\u5730\u65b9\u6574\u5099\u5c40\u5317\u4e5d\u5dde\u56fd\u9053\u4e8b\u52d9\u6240","boring_xml_url":49,"boring_view_url":1,"soilmap_view_url":null,"soiltest_xml_url":0,"soiltest_view_url":0},{"id":201686,"code":"B4KJ201801008-9935","latitude":"33.6517","longitude":"130.7325","source_code":"QS20058933510200120007","project_name":"\u98ef\u585a\u7530\u5ddd\u5730\u533a\u9053\u8def\u4fdd\u5168","survey_name":"\u98ef\u585a\u30fb\u7530\u5ddd\u5730\u533a\u9053\u8def\u4fdd\u5168\u8abf\u67fb\u8a2d\u8a08\u696d\u52d9","client_name":"\u56fd\u571f\u4ea4\u901a\u7701\u4e5d\u5dde\u5730\u65b9\u6574\u5099\u5c40\u5317\u4e5d\u5dde\u56fd\u9053\u4e8b\u52d9\u6240","boring_xml_url":49,"boring_view_url":1,"soilmap_view_url":null,"soiltest_xml_url":0,"soiltest_view_url":0}]}}