{"header":{"xyz":{"source":[],"mosaic":false},"page":3971,"raw":{"soiltest_result":"0","bbox":"57.598333,109.544722,1.933333,163.806111","page":"3971"},"conditions":{"soiltest_result":0,"north":57.598333,"west":109.544722,"south":1.933333,"east":163.806111},"success":true,"message":""},"data":{"meta":{"total":212844,"page":3971,"pages":7095,"count":30},"values":[{"id":201445,"code":"B4KJ201801008-9694","latitude":"31.63481","longitude":"130.35867","source_code":"QS20048972410200050003","project_name":"","survey_name":"\u4e32\u6728\u91ce\u5730\u533a\u5916\u5730\u8cea\u8abf\u67fb","client_name":"\u9e7f\u5150\u5cf6\u56fd\u9053\u4e8b\u52d9\u6240","boring_xml_url":49,"boring_view_url":1,"soilmap_view_url":null,"soiltest_xml_url":0,"soiltest_view_url":0},{"id":201444,"code":"B4KJ201801008-9693","latitude":"31.63531","longitude":"130.35806","source_code":"QS20048972410200050002","project_name":"","survey_name":"\u4e32\u6728\u91ce\u5730\u533a\u5916\u5730\u8cea\u8abf\u67fb","client_name":"\u9e7f\u5150\u5cf6\u56fd\u9053\u4e8b\u52d9\u6240","boring_xml_url":49,"boring_view_url":1,"soilmap_view_url":null,"soiltest_xml_url":0,"soiltest_view_url":0},{"id":201443,"code":"B4KJ201801008-9692","latitude":"31.72281","longitude":"130.29339","source_code":"QS20048972410200050001","project_name":"","survey_name":"\u4e32\u6728\u91ce\u5730\u533a\u5916\u5730\u8cea\u8abf\u67fb","client_name":"\u9e7f\u5150\u5cf6\u56fd\u9053\u4e8b\u52d9\u6240","boring_xml_url":49,"boring_view_url":1,"soilmap_view_url":null,"soiltest_xml_url":0,"soiltest_view_url":0},{"id":201442,"code":"B4KJ201801008-9691","latitude":"32.05431","longitude":"130.81133","source_code":"QS20048970500200050003","project_name":"","survey_name":"\u5c0f\u7530\u6a0b\u9580\u59162\u7b87\u6240\u5730\u8cea\u8abf\u67fb\u696d\u52d9","client_name":"\u56fd\u571f\u4ea4\u901a\u7701\u4e5d\u5dde\u5730\u65b9\u6574\u5099\u5c40\u5ddd\u5185\u5ddd\u6cb3\u5ddd\u4e8b\u52d9\u6240","boring_xml_url":49,"boring_view_url":1,"soilmap_view_url":null,"soiltest_xml_url":0,"soiltest_view_url":0},{"id":201441,"code":"B4KJ201801008-9690","latitude":"32.05175","longitude":"130.81286","source_code":"QS20048970500200050002","project_name":"","survey_name":"\u5c0f\u7530\u6a0b\u9580\u59162\u7b87\u6240\u5730\u8cea\u8abf\u67fb\u696d\u52d9","client_name":"\u56fd\u571f\u4ea4\u901a\u7701\u4e5d\u5dde\u5730\u65b9\u6574\u5099\u5c40\u5ddd\u5185\u5ddd\u6cb3\u5ddd\u4e8b\u52d9\u6240","boring_xml_url":49,"boring_view_url":1,"soilmap_view_url":null,"soiltest_xml_url":0,"soiltest_view_url":0},{"id":201440,"code":"B4KJ201801008-9689","latitude":"32.04756","longitude":"130.8155","source_code":"QS20048970500200050001","project_name":"","survey_name":"\u5c0f\u7530\u6a0b\u9580\u59162\u7b87\u6240\u5730\u8cea\u8abf\u67fb\u696d\u52d9","client_name":"\u56fd\u571f\u4ea4\u901a\u7701\u4e5d\u5dde\u5730\u65b9\u6574\u5099\u5c40\u5ddd\u5185\u5ddd\u6cb3\u5ddd\u4e8b\u52d9\u6240","boring_xml_url":49,"boring_view_url":1,"soilmap_view_url":null,"soiltest_xml_url":0,"soiltest_view_url":0},{"id":201439,"code":"B4KJ201801008-9688","latitude":"31.94975","longitude":"130.70631","source_code":"QS20048970500200040002","project_name":"\u6751\u5185\u6a0b\u9580\u59161\u7b87\u6240\u5730\u8cea\u8abf\u67fb\u696d\u52d9","survey_name":"\u6751\u5185\u6a0b\u9580\u59161\u7b87\u6240\u5730\u8cea\u8abf\u67fb\u696d\u52d9","client_name":"\u4e5d\u5dde\u5730\u65b9\u6574\u5099\u5c40 \u5ddd\u5185\u5ddd\u6cb3\u5ddd\u4e8b\u52d9\u6240","boring_xml_url":49,"boring_view_url":1,"soilmap_view_url":null,"soiltest_xml_url":0,"soiltest_view_url":0},{"id":201438,"code":"B4KJ201801008-9687","latitude":"31.96906","longitude":"130.69739","source_code":"QS20048970500200040001","project_name":"\u6751\u5185\u6a0b\u9580\u59161\u7b87\u6240\u5730\u8cea\u8abf\u67fb\u696d\u52d9","survey_name":"\u6751\u5185\u6a0b\u9580\u59161\u7b87\u6240\u5730\u8cea\u8abf\u67fb\u696d\u52d9","client_name":"\u4e5d\u5dde\u5730\u65b9\u6574\u5099\u5c40 \u5ddd\u5185\u5ddd\u6cb3\u5ddd\u4e8b\u52d9\u6240","boring_xml_url":49,"boring_view_url":1,"soilmap_view_url":null,"soiltest_xml_url":0,"soiltest_view_url":0},{"id":201437,"code":"B4KJ201801008-9686","latitude":"32.0511628","longitude":"130.7667036","source_code":"QS20048970500200030003","project_name":"\u76f4\u8f44\u6cb3\u5ddd\u6a0b\u7ba1\u6539\u5584\u5b9f\u65bd\u8a2d\u8a08\u696d\u52d9","survey_name":"\u5ca1\u677e\u7b2c\u4e8c\u6a0b\u9580\u59162\u7b87\u6240\u5730\u8cea\u8abf\u67fb\u696d\u52d9","client_name":"\u56fd\u571f\u4ea4\u901a\u7701\u4e5d\u5dde\u5730\u65b9\u6574\u5099\u5c40\u5ddd\u5185\u5ddd\u6cb3\u5ddd\u4e8b\u52d9\u6240","boring_xml_url":49,"boring_view_url":1,"soilmap_view_url":null,"soiltest_xml_url":0,"soiltest_view_url":0},{"id":201436,"code":"B4KJ201801008-9685","latitude":"32.0473575","longitude":"130.7599542","source_code":"QS20048970500200030002","project_name":"\u76f4\u8f44\u6cb3\u5ddd\u6a0b\u7ba1\u6539\u5584\u5b9f\u65bd\u8a2d\u8a08\u696d\u52d9","survey_name":"\u5ca1\u677e\u7b2c\u4e8c\u6a0b\u9580\u59162\u7b87\u6240\u5730\u8cea\u8abf\u67fb\u696d\u52d9","client_name":"\u56fd\u571f\u4ea4\u901a\u7701\u4e5d\u5dde\u5730\u65b9\u6574\u5099\u5c40\u5ddd\u5185\u5ddd\u6cb3\u5ddd\u4e8b\u52d9\u6240","boring_xml_url":49,"boring_view_url":1,"soilmap_view_url":null,"soiltest_xml_url":0,"soiltest_view_url":0},{"id":201435,"code":"B4KJ201801008-9684","latitude":"32.0404414","longitude":"130.7528161","source_code":"QS20048970500200030001","project_name":"\u76f4\u8f44\u6cb3\u5ddd\u6a0b\u7ba1\u6539\u5584\u5b9f\u65bd\u8a2d\u8a08\u696d\u52d9","survey_name":"\u5ca1\u677e\u7b2c\u4e8c\u6a0b\u9580\u59162\u7b87\u6240\u5730\u8cea\u8abf\u67fb\u696d\u52d9","client_name":"\u56fd\u571f\u4ea4\u901a\u7701\u4e5d\u5dde\u5730\u65b9\u6574\u5099\u5c40\u5ddd\u5185\u5ddd\u6cb3\u5ddd\u4e8b\u52d9\u6240","boring_xml_url":49,"boring_view_url":1,"soilmap_view_url":null,"soiltest_xml_url":0,"soiltest_view_url":0},{"id":201434,"code":"B4KJ201801008-9683","latitude":"31.80739","longitude":"130.31119","source_code":"QS20048970500200020002","project_name":"\u5fdc\u6025\u5bfe\u7b56\u4e8b\u696d","survey_name":"\u6c38\u7530\u6c34\u9580\u59161\u7b87\u6240\u5730\u8cea\u8abf\u67fb\u696d\u52d9","client_name":"\u56fd\u571f\u4ea4\u901a\u7701\u4e5d\u5dde\u5730\u65b9\u6574\u5099\u5c40\u5ddd\u5185\u5ddd\u6cb3\u5ddd\u4e8b\u52d9\u6240\u7ba1\u7406\u8ab2","boring_xml_url":49,"boring_view_url":1,"soilmap_view_url":null,"soiltest_xml_url":0,"soiltest_view_url":0},{"id":201433,"code":"B4KJ201801008-9682","latitude":"31.826","longitude":"130.27647","source_code":"QS20048970500200020001","project_name":"\u5fdc\u6025\u5bfe\u7b56\u4e8b\u696d","survey_name":"\u6c38\u7530\u6c34\u9580\u59161\u7b87\u6240\u5730\u8cea\u8abf\u67fb\u696d\u52d9","client_name":"\u56fd\u571f\u4ea4\u901a\u7701\u4e5d\u5dde\u5730\u65b9\u6574\u5099\u5c40\u5ddd\u5185\u5ddd\u6cb3\u5ddd\u4e8b\u52d9\u6240\u7ba1\u7406\u8ab2","boring_xml_url":49,"boring_view_url":1,"soilmap_view_url":null,"soiltest_xml_url":0,"soiltest_view_url":0},{"id":201432,"code":"B4KJ201801008-9681","latitude":"32.56758","longitude":"131.54208","source_code":"QS20048966630200080009","project_name":"","survey_name":"\u5317\u65b9\u5ef6\u5ca1\u9053\u8def(\u66fd\u6728\u5730\u533a)\u5730\u8cea\u8abf\u67fb\u696d\u52d9","client_name":"\u56fd\u571f\u4ea4\u901a\u7701\u4e5d\u5dde\u5730\u65b9\u6574\u5099\u5c40\u5ef6\u5ca1\u6cb3\u5ddd\u56fd\u9053\u4e8b\u52d9\u6240","boring_xml_url":49,"boring_view_url":1,"soilmap_view_url":null,"soiltest_xml_url":0,"soiltest_view_url":0},{"id":201431,"code":"B4KJ201801008-9680","latitude":"32.56767","longitude":"131.54183","source_code":"QS20048966630200080008","project_name":"","survey_name":"\u5317\u65b9\u5ef6\u5ca1\u9053\u8def(\u66fd\u6728\u5730\u533a)\u5730\u8cea\u8abf\u67fb\u696d\u52d9","client_name":"\u56fd\u571f\u4ea4\u901a\u7701\u4e5d\u5dde\u5730\u65b9\u6574\u5099\u5c40\u5ef6\u5ca1\u6cb3\u5ddd\u56fd\u9053\u4e8b\u52d9\u6240","boring_xml_url":49,"boring_view_url":1,"soilmap_view_url":null,"soiltest_xml_url":0,"soiltest_view_url":0},{"id":201430,"code":"B4KJ201801008-9679","latitude":"32.56536","longitude":"131.55769","source_code":"QS20048966630200080007","project_name":"","survey_name":"\u5317\u65b9\u5ef6\u5ca1\u9053\u8def(\u66fd\u6728\u5730\u533a)\u5730\u8cea\u8abf\u67fb\u696d\u52d9","client_name":"\u56fd\u571f\u4ea4\u901a\u7701\u4e5d\u5dde\u5730\u65b9\u6574\u5099\u5c40\u5ef6\u5ca1\u6cb3\u5ddd\u56fd\u9053\u4e8b\u52d9\u6240","boring_xml_url":49,"boring_view_url":1,"soilmap_view_url":null,"soiltest_xml_url":0,"soiltest_view_url":0},{"id":201429,"code":"B4KJ201801008-9678","latitude":"32.56533","longitude":"131.55756","source_code":"QS20048966630200080006","project_name":"","survey_name":"\u5317\u65b9\u5ef6\u5ca1\u9053\u8def(\u66fd\u6728\u5730\u533a)\u5730\u8cea\u8abf\u67fb\u696d\u52d9","client_name":"\u56fd\u571f\u4ea4\u901a\u7701\u4e5d\u5dde\u5730\u65b9\u6574\u5099\u5c40\u5ef6\u5ca1\u6cb3\u5ddd\u56fd\u9053\u4e8b\u52d9\u6240","boring_xml_url":49,"boring_view_url":1,"soilmap_view_url":null,"soiltest_xml_url":0,"soiltest_view_url":0},{"id":201428,"code":"B4KJ201801008-9677","latitude":"32.56517","longitude":"131.55619","source_code":"QS20048966630200080005","project_name":"","survey_name":"\u5317\u65b9\u5ef6\u5ca1\u9053\u8def(\u66fd\u6728\u5730\u533a)\u5730\u8cea\u8abf\u67fb\u696d\u52d9","client_name":"\u56fd\u571f\u4ea4\u901a\u7701\u4e5d\u5dde\u5730\u65b9\u6574\u5099\u5c40\u5ef6\u5ca1\u6cb3\u5ddd\u56fd\u9053\u4e8b\u52d9\u6240","boring_xml_url":49,"boring_view_url":1,"soilmap_view_url":null,"soiltest_xml_url":0,"soiltest_view_url":0},{"id":201427,"code":"B4KJ201801008-9676","latitude":"32.56514","longitude":"131.55578","source_code":"QS20048966630200080004","project_name":"","survey_name":"\u5317\u65b9\u5ef6\u5ca1\u9053\u8def(\u66fd\u6728\u5730\u533a)\u5730\u8cea\u8abf\u67fb\u696d\u52d9","client_name":"\u56fd\u571f\u4ea4\u901a\u7701\u4e5d\u5dde\u5730\u65b9\u6574\u5099\u5c40\u5ef6\u5ca1\u6cb3\u5ddd\u56fd\u9053\u4e8b\u52d9\u6240","boring_xml_url":49,"boring_view_url":1,"soilmap_view_url":null,"soiltest_xml_url":0,"soiltest_view_url":0},{"id":201426,"code":"B4KJ201801008-9675","latitude":"32.56514","longitude":"131.55533","source_code":"QS20048966630200080003","project_name":"","survey_name":"\u5317\u65b9\u5ef6\u5ca1\u9053\u8def(\u66fd\u6728\u5730\u533a)\u5730\u8cea\u8abf\u67fb\u696d\u52d9","client_name":"\u56fd\u571f\u4ea4\u901a\u7701\u4e5d\u5dde\u5730\u65b9\u6574\u5099\u5c40\u5ef6\u5ca1\u6cb3\u5ddd\u56fd\u9053\u4e8b\u52d9\u6240","boring_xml_url":49,"boring_view_url":1,"soilmap_view_url":null,"soiltest_xml_url":0,"soiltest_view_url":0},{"id":201425,"code":"B4KJ201801008-9674","latitude":"32.56775","longitude":"131.54233","source_code":"QS20048966630200080002","project_name":"","survey_name":"\u5317\u65b9\u5ef6\u5ca1\u9053\u8def(\u66fd\u6728\u5730\u533a)\u5730\u8cea\u8abf\u67fb\u696d\u52d9","client_name":"\u56fd\u571f\u4ea4\u901a\u7701\u4e5d\u5dde\u5730\u65b9\u6574\u5099\u5c40\u5ef6\u5ca1\u6cb3\u5ddd\u56fd\u9053\u4e8b\u52d9\u6240","boring_xml_url":49,"boring_view_url":1,"soilmap_view_url":null,"soiltest_xml_url":0,"soiltest_view_url":0},{"id":201424,"code":"B4KJ201801008-9673","latitude":"32.56789","longitude":"131.54189","source_code":"QS20048966630200080001","project_name":"","survey_name":"\u5317\u65b9\u5ef6\u5ca1\u9053\u8def(\u66fd\u6728\u5730\u533a)\u5730\u8cea\u8abf\u67fb\u696d\u52d9","client_name":"\u56fd\u571f\u4ea4\u901a\u7701\u4e5d\u5dde\u5730\u65b9\u6574\u5099\u5c40\u5ef6\u5ca1\u6cb3\u5ddd\u56fd\u9053\u4e8b\u52d9\u6240","boring_xml_url":49,"boring_view_url":1,"soilmap_view_url":null,"soiltest_xml_url":0,"soiltest_view_url":0},{"id":201423,"code":"B4KJ201801008-9672","latitude":"31.72010978","longitude":"131.0558789","source_code":"QS20048965600200110020","project_name":"\u5927\u6dc0\u5ddd\u4e0a\u6d41\u5824\u9632\u8a73\u7d30\u70b9\u691c\u696d\u52d9","survey_name":"\u5927\u6dc0\u5ddd\u4e0a\u6d41\u5824\u9632\u8a73\u7d30\u70b9\u691c\u696d\u52d9","client_name":"\u56fd\u571f\u4ea4\u901a\u7701\u4e5d\u5dde\u5730\u65b9\u6574\u5099\u5c40\u5bae\u5d0e\u6cb3\u5ddd\u56fd\u9053\u4e8b\u52d9\u6240","boring_xml_url":49,"boring_view_url":1,"soilmap_view_url":null,"soiltest_xml_url":52,"soiltest_view_url":52},{"id":201422,"code":"B4KJ201801008-9671","latitude":"31.72006225","longitude":"131.0559858","source_code":"QS20048965600200110019","project_name":"\u5927\u6dc0\u5ddd\u4e0a\u6d41\u5824\u9632\u8a73\u7d30\u70b9\u691c\u696d\u52d9","survey_name":"\u5927\u6dc0\u5ddd\u4e0a\u6d41\u5824\u9632\u8a73\u7d30\u70b9\u691c\u696d\u52d9","client_name":"\u56fd\u571f\u4ea4\u901a\u7701\u4e5d\u5dde\u5730\u65b9\u6574\u5099\u5c40\u5bae\u5d0e\u6cb3\u5ddd\u56fd\u9053\u4e8b\u52d9\u6240","boring_xml_url":49,"boring_view_url":1,"soilmap_view_url":null,"soiltest_xml_url":52,"soiltest_view_url":52},{"id":201421,"code":"B4KJ201801008-9670","latitude":"31.72006242","longitude":"131.0559547","source_code":"QS20048965600200110018","project_name":"\u5927\u6dc0\u5ddd\u4e0a\u6d41\u5824\u9632\u8a73\u7d30\u70b9\u691c\u696d\u52d9","survey_name":"\u5927\u6dc0\u5ddd\u4e0a\u6d41\u5824\u9632\u8a73\u7d30\u70b9\u691c\u696d\u52d9","client_name":"\u56fd\u571f\u4ea4\u901a\u7701\u4e5d\u5dde\u5730\u65b9\u6574\u5099\u5c40\u5bae\u5d0e\u6cb3\u5ddd\u56fd\u9053\u4e8b\u52d9\u6240","boring_xml_url":49,"boring_view_url":1,"soilmap_view_url":null,"soiltest_xml_url":52,"soiltest_view_url":52},{"id":201420,"code":"B4KJ201801008-9669","latitude":"31.73756369","longitude":"131.0652478","source_code":"QS20048965600200110017","project_name":"\u5927\u6dc0\u5ddd\u4e0a\u6d41\u5824\u9632\u8a73\u7d30\u70b9\u691c\u696d\u52d9","survey_name":"\u5927\u6dc0\u5ddd\u4e0a\u6d41\u5824\u9632\u8a73\u7d30\u70b9\u691c\u696d\u52d9","client_name":"\u56fd\u571f\u4ea4\u901a\u7701\u4e5d\u5dde\u5730\u65b9\u6574\u5099\u5c40\u5bae\u5d0e\u6cb3\u5ddd\u56fd\u9053\u4e8b\u52d9\u6240","boring_xml_url":49,"boring_view_url":1,"soilmap_view_url":null,"soiltest_xml_url":52,"soiltest_view_url":52},{"id":201419,"code":"B4KJ201801008-9668","latitude":"31.73752725","longitude":"131.0653583","source_code":"QS20048965600200110016","project_name":"\u5927\u6dc0\u5ddd\u4e0a\u6d41\u5824\u9632\u8a73\u7d30\u70b9\u691c\u696d\u52d9","survey_name":"\u5927\u6dc0\u5ddd\u4e0a\u6d41\u5824\u9632\u8a73\u7d30\u70b9\u691c\u696d\u52d9","client_name":"\u56fd\u571f\u4ea4\u901a\u7701\u4e5d\u5dde\u5730\u65b9\u6574\u5099\u5c40\u5bae\u5d0e\u6cb3\u5ddd\u56fd\u9053\u4e8b\u52d9\u6240","boring_xml_url":49,"boring_view_url":1,"soilmap_view_url":null,"soiltest_xml_url":52,"soiltest_view_url":52},{"id":201418,"code":"B4KJ201801008-9667","latitude":"31.73753836","longitude":"131.0653203","source_code":"QS20048965600200110015","project_name":"\u5927\u6dc0\u5ddd\u4e0a\u6d41\u5824\u9632\u8a73\u7d30\u70b9\u691c\u696d\u52d9","survey_name":"\u5927\u6dc0\u5ddd\u4e0a\u6d41\u5824\u9632\u8a73\u7d30\u70b9\u691c\u696d\u52d9","client_name":"\u56fd\u571f\u4ea4\u901a\u7701\u4e5d\u5dde\u5730\u65b9\u6574\u5099\u5c40\u5bae\u5d0e\u6cb3\u5ddd\u56fd\u9053\u4e8b\u52d9\u6240","boring_xml_url":49,"boring_view_url":1,"soilmap_view_url":null,"soiltest_xml_url":52,"soiltest_view_url":52},{"id":201417,"code":"B4KJ201801008-9666","latitude":"31.72002922","longitude":"131.0569642","source_code":"QS20048965600200110014","project_name":"\u5927\u6dc0\u5ddd\u4e0a\u6d41\u5824\u9632\u8a73\u7d30\u70b9\u691c\u696d\u52d9","survey_name":"\u5927\u6dc0\u5ddd\u4e0a\u6d41\u5824\u9632\u8a73\u7d30\u70b9\u691c\u696d\u52d9","client_name":"\u56fd\u571f\u4ea4\u901a\u7701\u4e5d\u5dde\u5730\u65b9\u6574\u5099\u5c40\u5bae\u5d0e\u6cb3\u5ddd\u56fd\u9053\u4e8b\u52d9\u6240","boring_xml_url":49,"boring_view_url":1,"soilmap_view_url":null,"soiltest_xml_url":52,"soiltest_view_url":52},{"id":201416,"code":"B4KJ201801008-9665","latitude":"31.71996642","longitude":"131.0570692","source_code":"QS20048965600200110013","project_name":"\u5927\u6dc0\u5ddd\u4e0a\u6d41\u5824\u9632\u8a73\u7d30\u70b9\u691c\u696d\u52d9","survey_name":"\u5927\u6dc0\u5ddd\u4e0a\u6d41\u5824\u9632\u8a73\u7d30\u70b9\u691c\u696d\u52d9","client_name":"\u56fd\u571f\u4ea4\u901a\u7701\u4e5d\u5dde\u5730\u65b9\u6574\u5099\u5c40\u5bae\u5d0e\u6cb3\u5ddd\u56fd\u9053\u4e8b\u52d9\u6240","boring_xml_url":49,"boring_view_url":1,"soilmap_view_url":null,"soiltest_xml_url":52,"soiltest_view_url":52}]}}