{"header":{"xyz":{"source":[],"mosaic":false},"page":3991,"raw":{"soiltest_result":"0","bbox":"57.598333,109.544722,1.933333,163.806111","page":"3991"},"conditions":{"soiltest_result":0,"north":57.598333,"west":109.544722,"south":1.933333,"east":163.806111},"success":true,"message":""},"data":{"meta":{"total":212844,"page":3991,"pages":7095,"count":30},"values":[{"id":200845,"code":"B4KJ201801008-9094","latitude":"33.395758","longitude":"129.960331","source_code":"QS20038935420200080005","project_name":"\u77f3\u5fd7\u5730\u533a\u59162\u7b87\u6240\u5730\u8cea\u8abf\u67fb\u696d\u52d9","survey_name":"\u77f3\u5fd7\u5730\u533a\u59162\u7b87\u6240\u5730\u8cea\u8abf\u67fb\u696d\u52d9","client_name":"\u56fd\u571f\u4ea4\u901a\u7701\u4e5d\u5dde\u5730\u65b9\u6574\u5099\u5c40\u6b66\u96c4\u6cb3\u5ddd\u4e8b\u52d9\u6240","boring_xml_url":49,"boring_view_url":1,"soilmap_view_url":null,"soiltest_xml_url":0,"soiltest_view_url":0},{"id":200844,"code":"B4KJ201801008-9093","latitude":"33.8669","longitude":"130.755","source_code":"QS20038933600200150019","project_name":"\u4e00\u822c\u56fd\u90533\u53f7\u9ed2\u5d0e\u30d0\u30a4\u30d1\u30b9\u5efa\u8a2d\u5de5\u4e8b","survey_name":"\u9ed2\u5d0e\u30d0\u30a4\u30d1\u30b9(\u718a\u624b\u5730\u533a)\u5730\u8cea\u8abf\u67fb\u696d\u52d9","client_name":"\u56fd\u571f\u4ea4\u901a\u7701\u4e5d\u5dde\u5730\u65b9\u6574\u5099\u5c40\u5317\u4e5d\u5dde\u56fd\u9053\u4e8b\u52d9\u6240","boring_xml_url":49,"boring_view_url":1,"soilmap_view_url":null,"soiltest_xml_url":0,"soiltest_view_url":0},{"id":200843,"code":"B4KJ201801008-9092","latitude":"33.8672","longitude":"130.7519","source_code":"QS20038933600200150016","project_name":"\u4e00\u822c\u56fd\u90533\u53f7\u9ed2\u5d0e\u30d0\u30a4\u30d1\u30b9\u5efa\u8a2d\u5de5\u4e8b","survey_name":"\u9ed2\u5d0e\u30d0\u30a4\u30d1\u30b9(\u718a\u624b\u5730\u533a)\u5730\u8cea\u8abf\u67fb\u696d\u52d9","client_name":"\u56fd\u571f\u4ea4\u901a\u7701\u4e5d\u5dde\u5730\u65b9\u6574\u5099\u5c40\u5317\u4e5d\u5dde\u56fd\u9053\u4e8b\u52d9\u6240","boring_xml_url":49,"boring_view_url":1,"soilmap_view_url":null,"soiltest_xml_url":52,"soiltest_view_url":52},{"id":200842,"code":"B4KJ201801008-9091","latitude":"33.8672","longitude":"130.7528","source_code":"QS20038933600200150015","project_name":"\u4e00\u822c\u56fd\u90533\u53f7\u9ed2\u5d0e\u30d0\u30a4\u30d1\u30b9\u5efa\u8a2d\u5de5\u4e8b","survey_name":"\u9ed2\u5d0e\u30d0\u30a4\u30d1\u30b9(\u718a\u624b\u5730\u533a)\u5730\u8cea\u8abf\u67fb\u696d\u52d9","client_name":"\u56fd\u571f\u4ea4\u901a\u7701\u4e5d\u5dde\u5730\u65b9\u6574\u5099\u5c40\u5317\u4e5d\u5dde\u56fd\u9053\u4e8b\u52d9\u6240","boring_xml_url":49,"boring_view_url":1,"soilmap_view_url":null,"soiltest_xml_url":0,"soiltest_view_url":0},{"id":200841,"code":"B4KJ201801008-9090","latitude":"33.8667","longitude":"130.7528","source_code":"QS20038933600200150014","project_name":"\u4e00\u822c\u56fd\u90533\u53f7\u9ed2\u5d0e\u30d0\u30a4\u30d1\u30b9\u5efa\u8a2d\u5de5\u4e8b","survey_name":"\u9ed2\u5d0e\u30d0\u30a4\u30d1\u30b9(\u718a\u624b\u5730\u533a)\u5730\u8cea\u8abf\u67fb\u696d\u52d9","client_name":"\u56fd\u571f\u4ea4\u901a\u7701\u4e5d\u5dde\u5730\u65b9\u6574\u5099\u5c40\u5317\u4e5d\u5dde\u56fd\u9053\u4e8b\u52d9\u6240","boring_xml_url":49,"boring_view_url":1,"soilmap_view_url":null,"soiltest_xml_url":52,"soiltest_view_url":52},{"id":200840,"code":"B4KJ201801008-9089","latitude":"33.8669","longitude":"130.7539","source_code":"QS20038933600200150013","project_name":"\u4e00\u822c\u56fd\u90533\u53f7\u9ed2\u5d0e\u30d0\u30a4\u30d1\u30b9\u5efa\u8a2d\u5de5\u4e8b","survey_name":"\u9ed2\u5d0e\u30d0\u30a4\u30d1\u30b9(\u718a\u624b\u5730\u533a)\u5730\u8cea\u8abf\u67fb\u696d\u52d9","client_name":"\u56fd\u571f\u4ea4\u901a\u7701\u4e5d\u5dde\u5730\u65b9\u6574\u5099\u5c40\u5317\u4e5d\u5dde\u56fd\u9053\u4e8b\u52d9\u6240","boring_xml_url":49,"boring_view_url":1,"soilmap_view_url":null,"soiltest_xml_url":52,"soiltest_view_url":52},{"id":200839,"code":"B4KJ201801008-9088","latitude":"33.8669","longitude":"130.7539","source_code":"QS20038933600200150012","project_name":"\u4e00\u822c\u56fd\u90533\u53f7\u9ed2\u5d0e\u30d0\u30a4\u30d1\u30b9\u5efa\u8a2d\u5de5\u4e8b","survey_name":"\u9ed2\u5d0e\u30d0\u30a4\u30d1\u30b9(\u718a\u624b\u5730\u533a)\u5730\u8cea\u8abf\u67fb\u696d\u52d9","client_name":"\u56fd\u571f\u4ea4\u901a\u7701\u4e5d\u5dde\u5730\u65b9\u6574\u5099\u5c40\u5317\u4e5d\u5dde\u56fd\u9053\u4e8b\u52d9\u6240","boring_xml_url":49,"boring_view_url":1,"soilmap_view_url":null,"soiltest_xml_url":52,"soiltest_view_url":52},{"id":200838,"code":"B4KJ201801008-9087","latitude":"33.8669","longitude":"130.7544","source_code":"QS20038933600200150011","project_name":"\u4e00\u822c\u56fd\u90533\u53f7\u9ed2\u5d0e\u30d0\u30a4\u30d1\u30b9\u5efa\u8a2d\u5de5\u4e8b","survey_name":"\u9ed2\u5d0e\u30d0\u30a4\u30d1\u30b9(\u718a\u624b\u5730\u533a)\u5730\u8cea\u8abf\u67fb\u696d\u52d9","client_name":"\u56fd\u571f\u4ea4\u901a\u7701\u4e5d\u5dde\u5730\u65b9\u6574\u5099\u5c40\u5317\u4e5d\u5dde\u56fd\u9053\u4e8b\u52d9\u6240","boring_xml_url":49,"boring_view_url":1,"soilmap_view_url":null,"soiltest_xml_url":52,"soiltest_view_url":52},{"id":200837,"code":"B4KJ201801008-9086","latitude":"33.8667","longitude":"130.7553","source_code":"QS20038933600200150010","project_name":"\u4e00\u822c\u56fd\u90533\u53f7\u9ed2\u5d0e\u30d0\u30a4\u30d1\u30b9\u5efa\u8a2d\u5de5\u4e8b","survey_name":"\u9ed2\u5d0e\u30d0\u30a4\u30d1\u30b9(\u718a\u624b\u5730\u533a)\u5730\u8cea\u8abf\u67fb\u696d\u52d9","client_name":"\u56fd\u571f\u4ea4\u901a\u7701\u4e5d\u5dde\u5730\u65b9\u6574\u5099\u5c40\u5317\u4e5d\u5dde\u56fd\u9053\u4e8b\u52d9\u6240","boring_xml_url":49,"boring_view_url":1,"soilmap_view_url":null,"soiltest_xml_url":52,"soiltest_view_url":52},{"id":200836,"code":"B4KJ201801008-9085","latitude":"33.8667","longitude":"130.7556","source_code":"QS20038933600200150009","project_name":"\u4e00\u822c\u56fd\u90533\u53f7\u9ed2\u5d0e\u30d0\u30a4\u30d1\u30b9\u5efa\u8a2d\u5de5\u4e8b","survey_name":"\u9ed2\u5d0e\u30d0\u30a4\u30d1\u30b9(\u718a\u624b\u5730\u533a)\u5730\u8cea\u8abf\u67fb\u696d\u52d9","client_name":"\u56fd\u571f\u4ea4\u901a\u7701\u4e5d\u5dde\u5730\u65b9\u6574\u5099\u5c40\u5317\u4e5d\u5dde\u56fd\u9053\u4e8b\u52d9\u6240","boring_xml_url":49,"boring_view_url":1,"soilmap_view_url":null,"soiltest_xml_url":52,"soiltest_view_url":52},{"id":200835,"code":"B4KJ201801008-9084","latitude":"33.8669","longitude":"130.7561","source_code":"QS20038933600200150008","project_name":"\u4e00\u822c\u56fd\u90533\u53f7\u9ed2\u5d0e\u30d0\u30a4\u30d1\u30b9\u5efa\u8a2d\u5de5\u4e8b","survey_name":"\u9ed2\u5d0e\u30d0\u30a4\u30d1\u30b9(\u718a\u624b\u5730\u533a)\u5730\u8cea\u8abf\u67fb\u696d\u52d9","client_name":"\u56fd\u571f\u4ea4\u901a\u7701\u4e5d\u5dde\u5730\u65b9\u6574\u5099\u5c40\u5317\u4e5d\u5dde\u56fd\u9053\u4e8b\u52d9\u6240","boring_xml_url":49,"boring_view_url":1,"soilmap_view_url":null,"soiltest_xml_url":52,"soiltest_view_url":52},{"id":200834,"code":"B4KJ201801008-9083","latitude":"33.8669","longitude":"130.7572","source_code":"QS20038933600200150007","project_name":"\u4e00\u822c\u56fd\u90533\u53f7\u9ed2\u5d0e\u30d0\u30a4\u30d1\u30b9\u5efa\u8a2d\u5de5\u4e8b","survey_name":"\u9ed2\u5d0e\u30d0\u30a4\u30d1\u30b9(\u718a\u624b\u5730\u533a)\u5730\u8cea\u8abf\u67fb\u696d\u52d9","client_name":"\u56fd\u571f\u4ea4\u901a\u7701\u4e5d\u5dde\u5730\u65b9\u6574\u5099\u5c40\u5317\u4e5d\u5dde\u56fd\u9053\u4e8b\u52d9\u6240","boring_xml_url":49,"boring_view_url":1,"soilmap_view_url":null,"soiltest_xml_url":52,"soiltest_view_url":52},{"id":200833,"code":"B4KJ201801008-9082","latitude":"33.8667","longitude":"130.7578","source_code":"QS20038933600200150006","project_name":"\u4e00\u822c\u56fd\u90533\u53f7\u9ed2\u5d0e\u30d0\u30a4\u30d1\u30b9\u5efa\u8a2d\u5de5\u4e8b","survey_name":"\u9ed2\u5d0e\u30d0\u30a4\u30d1\u30b9(\u718a\u624b\u5730\u533a)\u5730\u8cea\u8abf\u67fb\u696d\u52d9","client_name":"\u56fd\u571f\u4ea4\u901a\u7701\u4e5d\u5dde\u5730\u65b9\u6574\u5099\u5c40\u5317\u4e5d\u5dde\u56fd\u9053\u4e8b\u52d9\u6240","boring_xml_url":49,"boring_view_url":1,"soilmap_view_url":null,"soiltest_xml_url":52,"soiltest_view_url":52},{"id":200832,"code":"B4KJ201801008-9081","latitude":"33.8667","longitude":"130.7581","source_code":"QS20038933600200150005","project_name":"\u4e00\u822c\u56fd\u90533\u53f7\u9ed2\u5d0e\u30d0\u30a4\u30d1\u30b9\u5efa\u8a2d\u5de5\u4e8b","survey_name":"\u9ed2\u5d0e\u30d0\u30a4\u30d1\u30b9(\u718a\u624b\u5730\u533a)\u5730\u8cea\u8abf\u67fb\u696d\u52d9","client_name":"\u56fd\u571f\u4ea4\u901a\u7701\u4e5d\u5dde\u5730\u65b9\u6574\u5099\u5c40\u5317\u4e5d\u5dde\u56fd\u9053\u4e8b\u52d9\u6240","boring_xml_url":49,"boring_view_url":1,"soilmap_view_url":null,"soiltest_xml_url":0,"soiltest_view_url":0},{"id":200831,"code":"B4KJ201801008-9080","latitude":"33.8669","longitude":"130.7589","source_code":"QS20038933600200150004","project_name":"\u4e00\u822c\u56fd\u90533\u53f7\u9ed2\u5d0e\u30d0\u30a4\u30d1\u30b9\u5efa\u8a2d\u5de5\u4e8b","survey_name":"\u9ed2\u5d0e\u30d0\u30a4\u30d1\u30b9(\u718a\u624b\u5730\u533a)\u5730\u8cea\u8abf\u67fb\u696d\u52d9","client_name":"\u56fd\u571f\u4ea4\u901a\u7701\u4e5d\u5dde\u5730\u65b9\u6574\u5099\u5c40\u5317\u4e5d\u5dde\u56fd\u9053\u4e8b\u52d9\u6240","boring_xml_url":49,"boring_view_url":1,"soilmap_view_url":null,"soiltest_xml_url":52,"soiltest_view_url":52},{"id":200830,"code":"B4KJ201801008-9079","latitude":"33.8669","longitude":"130.7594","source_code":"QS20038933600200150003","project_name":"\u4e00\u822c\u56fd\u90533\u53f7\u9ed2\u5d0e\u30d0\u30a4\u30d1\u30b9\u5efa\u8a2d\u5de5\u4e8b","survey_name":"\u9ed2\u5d0e\u30d0\u30a4\u30d1\u30b9(\u718a\u624b\u5730\u533a)\u5730\u8cea\u8abf\u67fb\u696d\u52d9","client_name":"\u56fd\u571f\u4ea4\u901a\u7701\u4e5d\u5dde\u5730\u65b9\u6574\u5099\u5c40\u5317\u4e5d\u5dde\u56fd\u9053\u4e8b\u52d9\u6240","boring_xml_url":49,"boring_view_url":1,"soilmap_view_url":null,"soiltest_xml_url":52,"soiltest_view_url":52},{"id":200829,"code":"B4KJ201801008-9078","latitude":"33.8669","longitude":"130.76","source_code":"QS20038933600200150002","project_name":"\u4e00\u822c\u56fd\u90533\u53f7\u9ed2\u5d0e\u30d0\u30a4\u30d1\u30b9\u5efa\u8a2d\u5de5\u4e8b","survey_name":"\u9ed2\u5d0e\u30d0\u30a4\u30d1\u30b9(\u718a\u624b\u5730\u533a)\u5730\u8cea\u8abf\u67fb\u696d\u52d9","client_name":"\u56fd\u571f\u4ea4\u901a\u7701\u4e5d\u5dde\u5730\u65b9\u6574\u5099\u5c40\u5317\u4e5d\u5dde\u56fd\u9053\u4e8b\u52d9\u6240","boring_xml_url":49,"boring_view_url":1,"soilmap_view_url":null,"soiltest_xml_url":52,"soiltest_view_url":52},{"id":200828,"code":"B4KJ201801008-9077","latitude":"33.8669","longitude":"130.7606","source_code":"QS20038933600200150001","project_name":"\u4e00\u822c\u56fd\u90533\u53f7\u9ed2\u5d0e\u30d0\u30a4\u30d1\u30b9\u5efa\u8a2d\u4e8b\u696d","survey_name":"\u9ed2\u5d0e\u30d0\u30a4\u30d1\u30b9(\u718a\u624b\u5730\u533a)\u5730\u8cea\u8abf\u67fb\u696d\u52d9","client_name":"\u56fd\u571f\u4ea4\u901a\u7701\u4e5d\u5dde\u5730\u65b9\u6574\u5099\u5c40\u5317\u4e5d\u5dde\u56fd\u9053\u4e8b\u52d9\u6240","boring_xml_url":49,"boring_view_url":1,"soilmap_view_url":null,"soiltest_xml_url":52,"soiltest_view_url":52},{"id":200827,"code":"B4KJ201801008-9076","latitude":"33.8518456","longitude":"130.6906906","source_code":"QS20038933510200110006","project_name":"\u65b0\u8352\u7530\u6a4b\u5730\u8cea\u8abf\u67fb","survey_name":"\u5317\u4e5d\u5dde\u56fd\u9053\u7ba1\u5185\u6a4b\u6881\u88dc\u4fee\u8a2d\u8a08\u696d\u52d9","client_name":"\u56fd\u571f\u4ea4\u901a\u7701\u4e5d\u5dde\u5730\u65b9\u6574\u5099\u5c40\u5317\u4e5d\u5dde\u56fd\u9053\u4e8b\u52d9\u6240","boring_xml_url":49,"boring_view_url":1,"soilmap_view_url":null,"soiltest_xml_url":0,"soiltest_view_url":0},{"id":200826,"code":"B4KJ201801008-9075","latitude":"33.8518456","longitude":"130.6912461","source_code":"QS20038933510200110005","project_name":"\u65b0\u8352\u7530\u6a4b\u5730\u8cea\u8abf\u67fb","survey_name":"\u5317\u4e5d\u5dde\u56fd\u9053\u7ba1\u5185\u6a4b\u6881\u88dc\u4fee\u8a2d\u8a08\u696d\u52d9","client_name":"\u56fd\u571f\u4ea4\u901a\u7701\u4e5d\u5dde\u5730\u65b9\u6574\u5099\u5c40\u5317\u4e5d\u5dde\u56fd\u9053\u4e8b\u52d9\u6240","boring_xml_url":49,"boring_view_url":1,"soilmap_view_url":null,"soiltest_xml_url":0,"soiltest_view_url":0},{"id":200825,"code":"B4KJ201801008-9074","latitude":"33.8521233","longitude":"130.6915239","source_code":"QS20038933510200110004","project_name":"\u65b0\u8352\u7530\u6a4b\u5730\u8cea\u8abf\u67fb","survey_name":"\u5317\u4e5d\u5dde\u56fd\u9053\u7ba1\u5185\u6a4b\u6881\u88dc\u4fee\u8a2d\u8a08\u696d\u52d9","client_name":"\u56fd\u571f\u4ea4\u901a\u7701\u4e5d\u5dde\u5730\u65b9\u6574\u5099\u5c40\u5317\u4e5d\u5dde\u56fd\u9053\u4e8b\u52d9\u6240","boring_xml_url":49,"boring_view_url":1,"soilmap_view_url":null,"soiltest_xml_url":0,"soiltest_view_url":0},{"id":200824,"code":"B4KJ201801008-9073","latitude":"33.8515678","longitude":"130.6915239","source_code":"QS20038933510200110003","project_name":"\u65b0\u8352\u7530\u6a4b\u5730\u8cea\u8abf\u67fb","survey_name":"\u5317\u4e5d\u5dde\u56fd\u9053\u7ba1\u5185\u6a4b\u6881\u88dc\u4fee\u8a2d\u8a08\u696d\u52d9","client_name":"\u56fd\u571f\u4ea4\u901a\u7701\u4e5d\u5dde\u5730\u65b9\u6574\u5099\u5c40\u5317\u4e5d\u5dde\u56fd\u9053\u4e8b\u52d9\u6240","boring_xml_url":49,"boring_view_url":1,"soilmap_view_url":null,"soiltest_xml_url":0,"soiltest_view_url":0},{"id":200823,"code":"B4KJ201801008-9072","latitude":"33.8518456","longitude":"130.6918017","source_code":"QS20038933510200110002","project_name":"\u65b0\u8352\u7530\u6a4b\u5730\u8cea\u8abf\u67fb","survey_name":"\u5317\u4e5d\u5dde\u56fd\u9053\u7ba1\u5185\u6a4b\u6881\u88dc\u4fee\u8a2d\u8a08\u696d\u52d9","client_name":"\u56fd\u571f\u4ea4\u901a\u7701\u4e5d\u5dde\u5730\u65b9\u6574\u5099\u5c40\u5317\u4e5d\u5dde\u56fd\u9053\u4e8b\u52d9\u6240","boring_xml_url":49,"boring_view_url":1,"soilmap_view_url":null,"soiltest_xml_url":0,"soiltest_view_url":0},{"id":200822,"code":"B4KJ201801008-9071","latitude":"33.8521233","longitude":"130.6923569","source_code":"QS20038933510200110001","project_name":"\u65b0\u8352\u7530\u6a4b\u5730\u8cea\u8abf\u67fb","survey_name":"\u5317\u4e5d\u5dde\u56fd\u9053\u7ba1\u5185\u6a4b\u6881\u88dc\u4fee\u8a2d\u8a08\u696d\u52d9","client_name":"\u56fd\u571f\u4ea4\u901a\u7701\u4e5d\u5dde\u5730\u65b9\u6574\u5099\u5c40\u5317\u4e5d\u5dde\u56fd\u9053\u4e8b\u52d9\u6240","boring_xml_url":49,"boring_view_url":1,"soilmap_view_url":null,"soiltest_xml_url":0,"soiltest_view_url":0},{"id":200821,"code":"B4KJ201801008-9070","latitude":"33.63881","longitude":"130.62828","source_code":"QS20038933510200050001","project_name":"\u7b51\u8c4a\u7ba1\u5185\u696d\u52d9","survey_name":"\u7b51\u8c4a\u5730\u533a\u6e2c\u91cf\u8abf\u67fb\u8a2d\u8a08\u696d\u52d9","client_name":"\u56fd\u571f\u4ea4\u901a\u7701\u4e5d\u5dde\u5730\u65b9\u6574\u5099\u5c40\u5317\u4e5d\u5dde\u56fd\u9053\u4e8b\u52d9\u6240","boring_xml_url":49,"boring_view_url":1,"soilmap_view_url":null,"soiltest_xml_url":0,"soiltest_view_url":0},{"id":200820,"code":"B4KJ201801008-9069","latitude":"33.6266014","longitude":"131.0881608","source_code":"QS20038933510200040001","project_name":"\u884c\u6a4b\u5730\u533a\u6e2c\u91cf\u8abf\u67fb\u8a2d\u8a08\u696d\u52d9","survey_name":"\u884c\u6a4b\u5730\u533a\u6e2c\u91cf\u8abf\u67fb\u8a2d\u8a08\u696d\u52d9","client_name":"\u56fd\u571f\u4ea4\u901a\u7701\u4e5d\u5dde\u5730\u65b9\u6574\u5099\u5c40\u5317\u4e5d\u5dde\u56fd\u9053\u4e8b\u52d9\u6240","boring_xml_url":49,"boring_view_url":1,"soilmap_view_url":null,"soiltest_xml_url":0,"soiltest_view_url":0},{"id":200819,"code":"B4KJ201801008-9068","latitude":"33.6427192","longitude":"130.7407808","source_code":"QS20038933400200050006","project_name":"\u5e84\u5185\u7530\u5ddd\u30d0\u30a4\u30d1\u30b9\u5efa\u8a2d\u4e8b\u696d","survey_name":"\u798f\u5ca1201\u53f7\u5e84\u5185\u5730\u533a\u5730\u8cea\u8abf\u67fb\u696d\u52d9","client_name":"\u56fd\u571f\u4ea4\u901a\u7701\u4e5d\u5dde\u5730\u65b9\u6574\u5099\u5c40\u5317\u4e5d\u5dde\u56fd\u9053\u4e8b\u52d9\u6240","boring_xml_url":49,"boring_view_url":1,"soilmap_view_url":null,"soiltest_xml_url":0,"soiltest_view_url":0},{"id":200818,"code":"B4KJ201801008-9067","latitude":"33.6432686","longitude":"130.7408614","source_code":"QS20038933400200050005","project_name":"\u5e84\u5185\u7530\u5ddd\u30d0\u30a4\u30d1\u30b9\u5efa\u8a2d\u4e8b\u696d","survey_name":"\u798f\u5ca1201\u53f7\u5e84\u5185\u5730\u533a\u5730\u8cea\u8abf\u67fb\u696d\u52d9","client_name":"\u56fd\u571f\u4ea4\u901a\u7701\u4e5d\u5dde\u5730\u65b9\u6574\u5099\u5c40\u5317\u4e5d\u5dde\u56fd\u9053\u4e8b\u52d9\u6240","boring_xml_url":49,"boring_view_url":1,"soilmap_view_url":null,"soiltest_xml_url":0,"soiltest_view_url":0},{"id":200817,"code":"B4KJ201801008-9066","latitude":"33.6427908","longitude":"130.7391139","source_code":"QS20038933400200050004","project_name":"\u5e84\u5185\u7530\u5ddd\u30d0\u30a4\u30d1\u30b9\u5efa\u8a2d\u4e8b\u696d","survey_name":"\u798f\u5ca1201\u53f7\u5e84\u5185\u5730\u533a\u5730\u8cea\u8abf\u67fb\u696d\u52d9","client_name":"\u56fd\u571f\u4ea4\u901a\u7701\u4e5d\u5dde\u5730\u65b9\u6574\u5099\u5c40\u5317\u4e5d\u5dde\u56fd\u9053\u4e8b\u52d9\u6240","boring_xml_url":49,"boring_view_url":1,"soilmap_view_url":null,"soiltest_xml_url":0,"soiltest_view_url":0},{"id":200816,"code":"B4KJ201801008-9065","latitude":"33.642685","longitude":"130.7368125","source_code":"QS20038933400200050003","project_name":"\u5e84\u5185\u7530\u5ddd\u30d0\u30a4\u30d1\u30b9\u5efa\u8a2d\u4e8b\u696d","survey_name":"\u798f\u5ca1201\u53f7\u5e84\u5185\u5730\u533a\u5730\u8cea\u8abf\u67fb\u696d\u52d9","client_name":"\u56fd\u571f\u4ea4\u901a\u7701\u4e5d\u5dde\u5730\u65b9\u6574\u5099\u5c40\u5317\u4e5d\u5dde\u56fd\u9053\u4e8b\u52d9\u6240","boring_xml_url":49,"boring_view_url":1,"soilmap_view_url":null,"soiltest_xml_url":0,"soiltest_view_url":0}]}}