{"header":{"xyz":{"source":[],"mosaic":false},"page":4021,"raw":{"soiltest_result":"0","bbox":"57.598333,109.544722,1.933333,163.806111","page":"4021"},"conditions":{"soiltest_result":0,"north":57.598333,"west":109.544722,"south":1.933333,"east":163.806111},"success":true,"message":""},"data":{"meta":{"total":212844,"page":4021,"pages":7095,"count":30},"values":[{"id":199945,"code":"B4KJ201801008-8194","latitude":"34.310115","longitude":"134.1850583","source_code":"SK51343165005","project_name":"","survey_name":"\u5e73\u62107\u5e74\u5ea6\u9ad8\u677e\u6771\u9053\u8def4\u30fb5\u5de5\u533a\u5730\u8cea\u8abf\u67fb\u696d\u52d9","client_name":"\u56fd\u571f\u4ea4\u901a\u7701\u56db\u56fd\u5730\u65b9\u6574\u5099\u5c40\u9999\u5ddd\u6cb3\u5ddd\u56fd\u9053\u4e8b\u52d9\u6240","boring_xml_url":40,"boring_view_url":1,"soilmap_view_url":null,"soiltest_xml_url":0,"soiltest_view_url":0},{"id":199944,"code":"B4KJ201801008-8193","latitude":"34.30867083","longitude":"134.1911411","source_code":"SK51343165004","project_name":"","survey_name":"\u5e73\u62107\u5e74\u5ea6\u9ad8\u677e\u6771\u9053\u8def4\u30fb5\u5de5\u533a\u69cb\u9020\u7269\u8a2d\u8a08\u696d\u52d9\u59d4\u8a17","client_name":"\u56fd\u571f\u4ea4\u901a\u7701\u56db\u56fd\u5730\u65b9\u6574\u5099\u5c40\u9999\u5ddd\u6cb3\u5ddd\u56fd\u9053\u4e8b\u52d9\u6240","boring_xml_url":40,"boring_view_url":1,"soilmap_view_url":null,"soiltest_xml_url":0,"soiltest_view_url":0},{"id":199943,"code":"B4KJ201801008-8192","latitude":"34.31014278","longitude":"134.1849194","source_code":"SK51343165003","project_name":"","survey_name":"\u5e73\u62107\u5e74\u5ea6\u9ad8\u677e\u6771\u9053\u8def4\u30fb5\u5de5\u533a\u5730\u8cea\u8abf\u67fb\u696d\u52d9","client_name":"\u56fd\u571f\u4ea4\u901a\u7701\u56db\u56fd\u5730\u65b9\u6574\u5099\u5c40\u9999\u5ddd\u6cb3\u5ddd\u56fd\u9053\u4e8b\u52d9\u6240","boring_xml_url":40,"boring_view_url":1,"soilmap_view_url":null,"soiltest_xml_url":0,"soiltest_view_url":0},{"id":199942,"code":"B4KJ201801008-8191","latitude":"34.30911528","longitude":"134.1904744","source_code":"SK51343165002","project_name":"","survey_name":"\u5e73\u62107\u5e74\u5ea6\u9ad8\u677e\u6771\u9053\u8def4\u30fb5\u5de5\u533a\u69cb\u9020\u7269\u8a2d\u8a08\u696d\u52d9\u59d4\u8a17","client_name":"\u56fd\u571f\u4ea4\u901a\u7701\u56db\u56fd\u5730\u65b9\u6574\u5099\u5c40\u9999\u5ddd\u6cb3\u5ddd\u56fd\u9053\u4e8b\u52d9\u6240","boring_xml_url":40,"boring_view_url":1,"soilmap_view_url":null,"soiltest_xml_url":0,"soiltest_view_url":0},{"id":199941,"code":"B4KJ201801008-8190","latitude":"34.30972639","longitude":"134.1934186","source_code":"SK51343165001","project_name":"","survey_name":"\u5e73\u62107\u5e74\u5ea6\u9ad8\u677e\u6771\u9053\u8def4\u30fb5\u5de5\u533a\u5730\u8cea\u8abf\u67fb\u696d\u52d9","client_name":"\u56fd\u571f\u4ea4\u901a\u7701\u56db\u56fd\u5730\u65b9\u6574\u5099\u5c40\u9999\u5ddd\u6cb3\u5ddd\u56fd\u9053\u4e8b\u52d9\u6240","boring_xml_url":40,"boring_view_url":1,"soilmap_view_url":null,"soiltest_xml_url":0,"soiltest_view_url":0},{"id":199940,"code":"B4KJ201801008-8189","latitude":"34.31039278","longitude":"134.1785589","source_code":"SK51343164009","project_name":"","survey_name":"\u5e73\u62107\u5e74\u5ea6\u9ad8\u677e\u6771\u9053\u8def4\u30fb5\u5de5\u533a\u5730\u8cea\u8abf\u67fb\u696d\u52d9","client_name":"\u56fd\u571f\u4ea4\u901a\u7701\u56db\u56fd\u5730\u65b9\u6574\u5099\u5c40\u9999\u5ddd\u6cb3\u5ddd\u56fd\u9053\u4e8b\u52d9\u6240","boring_xml_url":40,"boring_view_url":1,"soilmap_view_url":null,"soiltest_xml_url":0,"soiltest_view_url":0},{"id":199939,"code":"B4KJ201801008-8188","latitude":"34.31030944","longitude":"134.1839194","source_code":"SK51343164008","project_name":"","survey_name":"\u5e73\u62104\u5e74\u5ea6\u9ad8\u677e\u6771\u9053\u8def\u5fd7\u5ea6\u5730\u533a\u5730\u8cea\u8abf\u67fb\u696d\u52d9(\u305d\u306e2)","client_name":"\u56fd\u571f\u4ea4\u901a\u7701\u56db\u56fd\u5730\u65b9\u6574\u5099\u5c40\u9999\u5ddd\u6cb3\u5ddd\u56fd\u9053\u4e8b\u52d9\u6240","boring_xml_url":40,"boring_view_url":1,"soilmap_view_url":null,"soiltest_xml_url":0,"soiltest_view_url":0},{"id":199938,"code":"B4KJ201801008-8187","latitude":"34.31050389","longitude":"134.1834472","source_code":"SK51343164007","project_name":"","survey_name":"\u5e73\u62104\u5e74\u5ea6\u9ad8\u677e\u6771\u9053\u8def\u5fd7\u5ea6\u5730\u533a\u5730\u8cea\u8abf\u67fb\u696d\u52d9(\u305d\u306e2)","client_name":"\u56fd\u571f\u4ea4\u901a\u7701\u56db\u56fd\u5730\u65b9\u6574\u5099\u5c40\u9999\u5ddd\u6cb3\u5ddd\u56fd\u9053\u4e8b\u52d9\u6240","boring_xml_url":40,"boring_view_url":1,"soilmap_view_url":null,"soiltest_xml_url":0,"soiltest_view_url":0},{"id":199937,"code":"B4KJ201801008-8186","latitude":"34.31033722","longitude":"134.1830028","source_code":"SK51343164006","project_name":"","survey_name":"\u5e73\u62104\u5e74\u5ea6\u9ad8\u677e\u6771\u9053\u8def\u5fd7\u5ea6\u5730\u533a\u5730\u8cea\u8abf\u67fb\u696d\u52d9(\u305d\u306e2)","client_name":"\u56fd\u571f\u4ea4\u901a\u7701\u56db\u56fd\u5730\u65b9\u6574\u5099\u5c40\u9999\u5ddd\u6cb3\u5ddd\u56fd\u9053\u4e8b\u52d9\u6240","boring_xml_url":40,"boring_view_url":1,"soilmap_view_url":null,"soiltest_xml_url":0,"soiltest_view_url":0},{"id":199936,"code":"B4KJ201801008-8185","latitude":"34.31050389","longitude":"134.1825306","source_code":"SK51343164005","project_name":"","survey_name":"\u5e73\u62104\u5e74\u5ea6\u9ad8\u677e\u6771\u9053\u8def\u5fd7\u5ea6\u5730\u533a\u5730\u8cea\u8abf\u67fb\u696d\u52d9(\u305d\u306e2)","client_name":"\u56fd\u571f\u4ea4\u901a\u7701\u56db\u56fd\u5730\u65b9\u6574\u5099\u5c40\u9999\u5ddd\u6cb3\u5ddd\u56fd\u9053\u4e8b\u52d9\u6240","boring_xml_url":40,"boring_view_url":1,"soilmap_view_url":null,"soiltest_xml_url":0,"soiltest_view_url":0},{"id":199935,"code":"B4KJ201801008-8184","latitude":"34.31030944","longitude":"134.1816419","source_code":"SK51343164004","project_name":"","survey_name":"\u5e73\u62104\u5e74\u5ea6\u9ad8\u677e\u6771\u9053\u8def\u5fd7\u5ea6\u5730\u533a\u5730\u8cea\u8abf\u67fb\u696d\u52d9(\u305d\u306e2)","client_name":"\u56fd\u571f\u4ea4\u901a\u7701\u56db\u56fd\u5730\u65b9\u6574\u5099\u5c40\u9999\u5ddd\u6cb3\u5ddd\u56fd\u9053\u4e8b\u52d9\u6240","boring_xml_url":40,"boring_view_url":1,"soilmap_view_url":null,"soiltest_xml_url":0,"soiltest_view_url":0},{"id":199934,"code":"B4KJ201801008-8183","latitude":"34.31055917","longitude":"134.1778089","source_code":"SK51343164003","project_name":"","survey_name":"\u5e73\u62104\u5e74\u5ea6\u9ad8\u677e\u6771\u9053\u8def\u5fd7\u5ea6\u5730\u533a\u5730\u8cea\u8abf\u67fb\u696d\u52d9(\u305d\u306e2)","client_name":"\u56fd\u571f\u4ea4\u901a\u7701\u56db\u56fd\u5730\u65b9\u6574\u5099\u5c40\u9999\u5ddd\u6cb3\u5ddd\u56fd\u9053\u4e8b\u52d9\u6240","boring_xml_url":40,"boring_view_url":1,"soilmap_view_url":null,"soiltest_xml_url":0,"soiltest_view_url":0},{"id":199933,"code":"B4KJ201801008-8182","latitude":"34.31033722","longitude":"134.1807253","source_code":"SK51343164002","project_name":"","survey_name":"\u5e73\u62104\u5e74\u5ea6\u9ad8\u677e\u6771\u9053\u8def\u5fd7\u5ea6\u5730\u533a\u5730\u8cea\u8abf\u67fb\u696d\u52d9(\u305d\u306e2)","client_name":"\u56fd\u571f\u4ea4\u901a\u7701\u56db\u56fd\u5730\u65b9\u6574\u5099\u5c40\u9999\u5ddd\u6cb3\u5ddd\u56fd\u9053\u4e8b\u52d9\u6240","boring_xml_url":40,"boring_view_url":1,"soilmap_view_url":null,"soiltest_xml_url":0,"soiltest_view_url":0},{"id":199932,"code":"B4KJ201801008-8181","latitude":"34.31053167","longitude":"134.1807531","source_code":"SK51343164001","project_name":"","survey_name":"\u5e73\u62104\u5e74\u5ea6\u9ad8\u677e\u6771\u9053\u8def\u5fd7\u5ea6\u5730\u533a\u5730\u8cea\u8abf\u67fb\u696d\u52d9(\u305d\u306e2)","client_name":"\u56fd\u571f\u4ea4\u901a\u7701\u56db\u56fd\u5730\u65b9\u6574\u5099\u5c40\u9999\u5ddd\u6cb3\u5ddd\u56fd\u9053\u4e8b\u52d9\u6240","boring_xml_url":40,"boring_view_url":1,"soilmap_view_url":null,"soiltest_xml_url":0,"soiltest_view_url":0},{"id":199931,"code":"B4KJ201801008-8180","latitude":"34.31114222","longitude":"134.1670875","source_code":"SK51343163006","project_name":"","survey_name":"\u5e73\u62104\u5e74\u5ea6\u9ad8\u677e\u6771\u9053\u8def\u5fd7\u5ea6\u5730\u533a\u5730\u4e0b\u6c34\u8abf\u67fb\u696d\u52d9","client_name":"\u56fd\u571f\u4ea4\u901a\u7701\u56db\u56fd\u5730\u65b9\u6574\u5099\u5c40\u9999\u5ddd\u6cb3\u5ddd\u56fd\u9053\u4e8b\u52d9\u6240","boring_xml_url":40,"boring_view_url":1,"soilmap_view_url":null,"soiltest_xml_url":0,"soiltest_view_url":0},{"id":199930,"code":"B4KJ201801008-8179","latitude":"34.31122556","longitude":"134.1660322","source_code":"SK51343163005","project_name":"","survey_name":"\u5e73\u62104\u5e74\u5ea6\u9ad8\u677e\u6771\u9053\u8def\u5fd7\u5ea6\u5730\u533a\u5730\u4e0b\u6c34\u8abf\u67fb\u696d\u52d9","client_name":"\u56fd\u571f\u4ea4\u901a\u7701\u56db\u56fd\u5730\u65b9\u6574\u5099\u5c40\u9999\u5ddd\u6cb3\u5ddd\u56fd\u9053\u4e8b\u52d9\u6240","boring_xml_url":40,"boring_view_url":1,"soilmap_view_url":null,"soiltest_xml_url":0,"soiltest_view_url":0},{"id":199929,"code":"B4KJ201801008-8178","latitude":"34.31058667","longitude":"134.1648378","source_code":"SK51343163004","project_name":"","survey_name":"\u5e73\u62104\u5e74\u5ea6\u9ad8\u677e\u6771\u9053\u8def\u5fd7\u5ea6\u5730\u533a\u5730\u4e0b\u6c34\u8abf\u67fb\u696d\u52d9","client_name":"\u56fd\u571f\u4ea4\u901a\u7701 \u56db\u56fd\u5730\u65b9\u6574\u5099\u5c40 \u9999\u5ddd\u6cb3\u5ddd\u56fd\u9053\u4e8b\u52d9\u6240","boring_xml_url":40,"boring_view_url":1,"soilmap_view_url":null,"soiltest_xml_url":0,"soiltest_view_url":0},{"id":199928,"code":"B4KJ201801008-8177","latitude":"34.31114222","longitude":"134.1670875","source_code":"SK51343163003","project_name":"","survey_name":"\u5e73\u62104\u5e74\u5ea6\u9ad8\u677e\u6771\u9053\u8def\u5fd7\u5ea6\u5730\u533a\u5730\u4e0b\u6c34\u8abf\u67fb\u696d\u52d9","client_name":"\u56fd\u571f\u4ea4\u901a\u7701\u56db\u56fd\u5730\u65b9\u6574\u5099\u5c40\u9999\u5ddd\u6cb3\u5ddd\u56fd\u9053\u4e8b\u52d9\u6240","boring_xml_url":40,"boring_view_url":1,"soilmap_view_url":null,"soiltest_xml_url":0,"soiltest_view_url":0},{"id":199927,"code":"B4KJ201801008-8176","latitude":"34.31122556","longitude":"134.1660322","source_code":"SK51343163002","project_name":"","survey_name":"\u5e73\u62104\u5e74\u5ea6\u9ad8\u677e\u6771\u9053\u8def\u5fd7\u5ea6\u5730\u533a\u5730\u4e0b\u6c34\u8abf\u67fb\u696d\u52d9","client_name":"\u56fd\u571f\u4ea4\u901a\u7701\u56db\u56fd\u5730\u65b9\u6574\u5099\u5c40\u9999\u5ddd\u6cb3\u5ddd\u56fd\u9053\u4e8b\u52d9\u6240","boring_xml_url":40,"boring_view_url":1,"soilmap_view_url":null,"soiltest_xml_url":0,"soiltest_view_url":0},{"id":199926,"code":"B4KJ201801008-8175","latitude":"34.31058667","longitude":"134.1648378","source_code":"SK51343163001","project_name":"","survey_name":"\u5e73\u62104\u5e74\u5ea6\u9ad8\u677e\u6771\u9053\u8def\u5fd7\u5ea6\u5730\u533a\u5730\u4e0b\u6c34\u8abf\u67fb\u696d\u52d9","client_name":"\u56fd\u571f\u4ea4\u901a\u7701\u56db\u56fd\u5730\u65b9\u6574\u5099\u5c40\u9999\u5ddd\u6cb3\u5ddd\u56fd\u9053\u4e8b\u52d9\u6240","boring_xml_url":40,"boring_view_url":1,"soilmap_view_url":null,"soiltest_xml_url":0,"soiltest_view_url":0},{"id":199925,"code":"B4KJ201801008-8174","latitude":"34.29572861","longitude":"134.2239997","source_code":"SK51343158003","project_name":"","survey_name":"\u662d\u548c63\u5e74\u5ea6\u9ad8\u677e\u6771\u9053\u8def\u9d28\u90e8\u5730\u533a\u5730\u8cea\u8abf\u67fb\u696d\u52d9","client_name":"\u56fd\u571f\u4ea4\u901a\u7701\u56db\u56fd\u5730\u65b9\u6574\u5099\u5c40\u9999\u5ddd\u6cb3\u5ddd\u56fd\u9053\u4e8b\u52d9\u6240","boring_xml_url":40,"boring_view_url":1,"soilmap_view_url":null,"soiltest_xml_url":0,"soiltest_view_url":0},{"id":199924,"code":"B4KJ201801008-8173","latitude":"34.29656194","longitude":"134.2226108","source_code":"SK51343158002","project_name":"","survey_name":"\u662d\u548c63\u5e74\u5ea6\u9ad8\u677e\u6771\u9053\u8def\u9d28\u90e8\u5730\u533a\u5730\u8cea\u8abf\u67fb\u696d\u52d9","client_name":"\u56fd\u571f\u4ea4\u901a\u7701\u56db\u56fd\u5730\u65b9\u6574\u5099\u5c40\u9999\u5ddd\u6cb3\u5ddd\u56fd\u9053\u4e8b\u52d9\u6240","boring_xml_url":40,"boring_view_url":1,"soilmap_view_url":null,"soiltest_xml_url":0,"soiltest_view_url":0},{"id":199923,"code":"B4KJ201801008-8172","latitude":"34.29695083","longitude":"134.2228331","source_code":"SK51343158001","project_name":"","survey_name":"\u662d\u548c63\u5e74\u5ea6\u9ad8\u677e\u6771\u9053\u8def\u9d28\u90e8\u5730\u533a\u5730\u8cea\u8abf\u67fb\u696d\u52d9","client_name":"\u56fd\u571f\u4ea4\u901a\u7701\u56db\u56fd\u5730\u65b9\u6574\u5099\u5c40\u9999\u5ddd\u6cb3\u5ddd\u56fd\u9053\u4e8b\u52d9\u6240","boring_xml_url":40,"boring_view_url":1,"soilmap_view_url":null,"soiltest_xml_url":0,"soiltest_view_url":0},{"id":199922,"code":"B4KJ201801008-8171","latitude":"34.30053333","longitude":"134.2146947","source_code":"SK51343157012","project_name":"","survey_name":"\u662d\u548c63\u5e74\u5ea6\u5ddd\u6dfb\u5730\u533a\u6a2a\u65ad\u6b69\u9053\u5730\u8cea\u8abf\u67fb","client_name":"\u56fd\u571f\u4ea4\u901a\u7701\u56db\u56fd\u5730\u65b9\u6574\u5099\u5c40\u9999\u5ddd\u6cb3\u5ddd\u56fd\u9053\u4e8b\u52d9\u6240","boring_xml_url":40,"boring_view_url":1,"soilmap_view_url":null,"soiltest_xml_url":0,"soiltest_view_url":0},{"id":199921,"code":"B4KJ201801008-8170","latitude":"34.29736722","longitude":"134.2221108","source_code":"SK51343157011","project_name":"","survey_name":"\u662d\u548c63\u5e74\u5ea6\u9ad8\u677e\u6771\u9053\u8def\u9d28\u90e8\u5730\u533a\u5730\u8cea\u8abf\u67fb\u696d\u52d9","client_name":"\u56fd\u571f\u4ea4\u901a\u7701\u56db\u56fd\u5730\u65b9\u6574\u5099\u5c40\u9999\u5ddd\u6cb3\u5ddd\u56fd\u9053\u4e8b\u52d9\u6240","boring_xml_url":40,"boring_view_url":1,"soilmap_view_url":null,"soiltest_xml_url":0,"soiltest_view_url":0},{"id":199920,"code":"B4KJ201801008-8169","latitude":"34.29822833","longitude":"134.2205556","source_code":"SK51343157010","project_name":"","survey_name":"\u662d\u548c63\u5e74\u5ea6\u9ad8\u677e\u6771\u9053\u8def\u9d28\u90e8\u5730\u533a\u5730\u8cea\u8abf\u67fb\u696d\u52d9","client_name":"\u56fd\u571f\u4ea4\u901a\u7701\u56db\u56fd\u5730\u65b9\u6574\u5099\u5c40\u9999\u5ddd\u6cb3\u5ddd\u56fd\u9053\u4e8b\u52d9\u6240","boring_xml_url":40,"boring_view_url":1,"soilmap_view_url":null,"soiltest_xml_url":0,"soiltest_view_url":0},{"id":199919,"code":"B4KJ201801008-8168","latitude":"34.29906139","longitude":"134.2193333","source_code":"SK51343157009","project_name":"","survey_name":"\u662d\u548c63\u5e74\u5ea6\u9ad8\u677e\u6771\u9053\u8def\u9d28\u90e8\u5730\u533a\u5730\u8cea\u8abf\u67fb\u696d\u52d9","client_name":"\u56fd\u571f\u4ea4\u901a\u7701\u56db\u56fd\u5730\u65b9\u6574\u5099\u5c40\u9999\u5ddd\u6cb3\u5ddd\u56fd\u9053\u4e8b\u52d9\u6240","boring_xml_url":40,"boring_view_url":1,"soilmap_view_url":null,"soiltest_xml_url":0,"soiltest_view_url":0},{"id":199918,"code":"B4KJ201801008-8167","latitude":"34.2991725","longitude":"134.2186111","source_code":"SK51343157008","project_name":"","survey_name":"\u662d\u548c63\u5e74\u5ea6\u9ad8\u677e\u6771\u9053\u8def\u9d28\u90e8\u5730\u533a\u5730\u8cea\u8abf\u67fb\u696d\u52d9","client_name":"\u56fd\u571f\u4ea4\u901a\u7701\u56db\u56fd\u5730\u65b9\u6574\u5099\u5c40\u9999\u5ddd\u6cb3\u5ddd\u56fd\u9053\u4e8b\u52d9\u6240","boring_xml_url":40,"boring_view_url":1,"soilmap_view_url":null,"soiltest_xml_url":0,"soiltest_view_url":0},{"id":199917,"code":"B4KJ201801008-8166","latitude":"34.29958917","longitude":"134.2175003","source_code":"SK51343157007","project_name":"","survey_name":"\u662d\u548c63\u5e74\u5ea6\u9ad8\u677e\u6771\u9053\u8def\u9d28\u90e8\u5730\u533a\u5730\u8cea\u8abf\u67fb\u696d\u52d9","client_name":"\u56fd\u571f\u4ea4\u901a\u7701\u56db\u56fd\u5730\u65b9\u6574\u5099\u5c40\u9999\u5ddd\u6cb3\u5ddd\u56fd\u9053\u4e8b\u52d9\u6240","boring_xml_url":40,"boring_view_url":1,"soilmap_view_url":null,"soiltest_xml_url":0,"soiltest_view_url":0},{"id":199916,"code":"B4KJ201801008-8165","latitude":"34.29986694","longitude":"134.2163614","source_code":"SK51343157006","project_name":"","survey_name":"\u662d\u548c63\u5e74\u5ea6\u9ad8\u677e\u6771\u9053\u8def\u9d28\u90e8\u5730\u533a\u5730\u8cea\u8abf\u67fb\u696d\u52d9","client_name":"\u56fd\u571f\u4ea4\u901a\u7701\u56db\u56fd\u5730\u65b9\u6574\u5099\u5c40\u9999\u5ddd\u6cb3\u5ddd\u56fd\u9053\u4e8b\u52d9\u6240","boring_xml_url":40,"boring_view_url":1,"soilmap_view_url":null,"soiltest_xml_url":0,"soiltest_view_url":0}]}}