{"header":{"xyz":{"source":[],"mosaic":false},"page":4022,"raw":{"soiltest_result":"0","bbox":"57.598333,109.544722,1.933333,163.806111","page":"4022"},"conditions":{"soiltest_result":0,"north":57.598333,"west":109.544722,"south":1.933333,"east":163.806111},"success":true,"message":""},"data":{"meta":{"total":212844,"page":4022,"pages":7095,"count":30},"values":[{"id":199915,"code":"B4KJ201801008-8164","latitude":"34.30056111","longitude":"134.2141672","source_code":"SK51343157005","project_name":"","survey_name":"\u662d\u548c63\u5e74\u5ea6\u9ad8\u677e\u6771\u9053\u8def\u9d28\u90e8\u5730\u533a\u5730\u8cea\u8abf\u67fb\u696d\u52d9","client_name":"\u56fd\u571f\u4ea4\u901a\u7701\u56db\u56fd\u5730\u65b9\u6574\u5099\u5c40\u9999\u5ddd\u6cb3\u5ddd\u56fd\u9053\u4e8b\u52d9\u6240","boring_xml_url":40,"boring_view_url":1,"soilmap_view_url":null,"soiltest_xml_url":0,"soiltest_view_url":0},{"id":199914,"code":"B4KJ201801008-8163","latitude":"34.30067222","longitude":"134.214195","source_code":"SK51343157004","project_name":"","survey_name":"\u662d\u548c63\u5e74\u5ea6\u9ad8\u677e\u6771\u9053\u8def\u9d28\u90e8\u5730\u533a\u5730\u8cea\u8abf\u67fb\u696d\u52d9","client_name":"\u56fd\u571f\u4ea4\u901a\u7701\u56db\u56fd\u5730\u65b9\u6574\u5099\u5c40\u9999\u5ddd\u6cb3\u5ddd\u56fd\u9053\u4e8b\u52d9\u6240","boring_xml_url":40,"boring_view_url":1,"soilmap_view_url":null,"soiltest_xml_url":0,"soiltest_view_url":0},{"id":199913,"code":"B4KJ201801008-8162","latitude":"34.30100556","longitude":"134.2129172","source_code":"SK51343157003","project_name":"","survey_name":"\u662d\u548c63\u5e74\u5ea6\u9ad8\u677e\u6771\u9053\u8def\u9d28\u90e8\u5730\u533a\u5730\u8cea\u8abf\u67fb\u696d\u52d9","client_name":"\u56fd\u571f\u4ea4\u901a\u7701\u56db\u56fd\u5730\u65b9\u6574\u5099\u5c40\u9999\u5ddd\u6cb3\u5ddd\u56fd\u9053\u4e8b\u52d9\u6240","boring_xml_url":40,"boring_view_url":1,"soilmap_view_url":null,"soiltest_xml_url":0,"soiltest_view_url":0},{"id":199912,"code":"B4KJ201801008-8161","latitude":"34.30067222","longitude":"134.2118894","source_code":"SK51343157002","project_name":"","survey_name":"\u662d\u548c63\u5e74\u5ea6\u9ad8\u677e\u6771\u9053\u8def\u9d28\u90e8\u5730\u533a\u5730\u8cea\u8abf\u67fb\u696d\u52d9","client_name":"\u56fd\u571f\u4ea4\u901a\u7701\u56db\u56fd\u5730\u65b9\u6574\u5099\u5c40\u9999\u5ddd\u6cb3\u5ddd\u56fd\u9053\u4e8b\u52d9\u6240","boring_xml_url":40,"boring_view_url":1,"soilmap_view_url":null,"soiltest_xml_url":0,"soiltest_view_url":0},{"id":199911,"code":"B4KJ201801008-8160","latitude":"34.30131111","longitude":"134.2110839","source_code":"SK51343157001","project_name":"","survey_name":"\u662d\u548c63\u5e74\u5ea6\u9ad8\u677e\u6771\u9053\u8def\u9d28\u90e8\u5730\u533a\u5730\u8cea\u8abf\u67fb\u696d\u52d9","client_name":"\u56fd\u571f\u4ea4\u901a\u7701\u56db\u56fd\u5730\u65b9\u6574\u5099\u5c40\u9999\u5ddd\u6cb3\u5ddd\u56fd\u9053\u4e8b\u52d9\u6240","boring_xml_url":40,"boring_view_url":1,"soilmap_view_url":null,"soiltest_xml_url":0,"soiltest_view_url":0},{"id":199910,"code":"B4KJ201801008-8159","latitude":"34.30203194","longitude":"134.1493117","source_code":"SK51343152010","project_name":"","survey_name":"\u5e73\u62103\u5e74\u5ea6\u9ad8\u677e\u6771\u9053\u8def\u4e09\u6728\u5730\u533a\u5730\u8cea\u8abf\u67fb\u696d\u52d9","client_name":"\u56fd\u571f\u4ea4\u901a\u7701\u56db\u56fd\u5730\u65b9\u6574\u5099\u5c40\u9999\u5ddd\u6cb3\u5ddd\u56fd\u9053\u4e8b\u52d9\u6240","boring_xml_url":40,"boring_view_url":1,"soilmap_view_url":null,"soiltest_xml_url":0,"soiltest_view_url":0},{"id":199909,"code":"B4KJ201801008-8158","latitude":"34.30225417","longitude":"134.1493117","source_code":"SK51343152009","project_name":"","survey_name":"\u5e73\u62103\u5e74\u5ea6\u9ad8\u677e\u6771\u9053\u8def\u4e09\u6728\u5730\u533a\u5730\u8cea\u8abf\u67fb\u696d\u52d9","client_name":"\u56fd\u571f\u4ea4\u901a\u7701\u56db\u56fd\u5730\u65b9\u6574\u5099\u5c40\u9999\u5ddd\u6cb3\u5ddd\u56fd\u9053\u4e8b\u52d9\u6240","boring_xml_url":40,"boring_view_url":1,"soilmap_view_url":null,"soiltest_xml_url":0,"soiltest_view_url":0},{"id":199908,"code":"B4KJ201801008-8157","latitude":"34.30267056","longitude":"134.1474508","source_code":"SK51343152008","project_name":"","survey_name":"\u5e73\u62102\u5e74\u5ea6\u9ad8\u677e\u6771\u9053\u8def\u4e95\u4e0a\u5730\u533a\u5730\u8cea\u8abf\u67fb\u696d\u52d9","client_name":"\u56fd\u571f\u4ea4\u901a\u7701\u56db\u56fd\u5730\u65b9\u6574\u5099\u5c40\u9999\u5ddd\u6cb3\u5ddd\u56fd\u9053\u4e8b\u52d9\u6240","boring_xml_url":40,"boring_view_url":1,"soilmap_view_url":null,"soiltest_xml_url":0,"soiltest_view_url":0},{"id":199907,"code":"B4KJ201801008-8156","latitude":"34.30289278","longitude":"134.1497561","source_code":"SK51343152007","project_name":"","survey_name":"\u5e73\u62102\u5e74\u5ea6\u9ad8\u677e\u6771\u9053\u8def\u4e95\u4e0a\u5730\u533a\u5730\u8cea\u8abf\u67fb\u696d\u52d9","client_name":"\u56fd\u571f\u4ea4\u901a\u7701\u56db\u56fd\u5730\u65b9\u6574\u5099\u5c40\u9999\u5ddd\u6cb3\u5ddd\u56fd\u9053\u4e8b\u52d9\u6240","boring_xml_url":40,"boring_view_url":1,"soilmap_view_url":null,"soiltest_xml_url":0,"soiltest_view_url":0},{"id":199906,"code":"B4KJ201801008-8155","latitude":"34.30244833","longitude":"134.1479228","source_code":"SK51343152006","project_name":"","survey_name":"\u5e73\u6210\u5143\u5e74\u5ea6\u9ad8\u677e\u6771\u9053\u8def\u4e95\u4e0a\u5730\u533a\u5730\u8cea\u8abf\u67fb\u696d\u52d9","client_name":"\u56fd\u571f\u4ea4\u901a\u7701\u56db\u56fd\u5730\u65b9\u6574\u5099\u5c40\u9999\u5ddd\u6cb3\u5ddd\u56fd\u9053\u4e8b\u52d9\u6240","boring_xml_url":40,"boring_view_url":1,"soilmap_view_url":null,"soiltest_xml_url":0,"soiltest_view_url":0},{"id":199905,"code":"B4KJ201801008-8154","latitude":"34.30255944","longitude":"134.1499228","source_code":"SK51343152005","project_name":"","survey_name":"\u5e73\u6210\u5143\u5e74\u5ea6\u9ad8\u677e\u6771\u9053\u8def\u4e95\u4e0a\u5730\u533a\u5730\u8cea\u8abf\u67fb\u696d\u52d9","client_name":"\u56fd\u571f\u4ea4\u901a\u7701\u56db\u56fd\u5730\u65b9\u6574\u5099\u5c40\u9999\u5ddd\u6cb3\u5ddd\u56fd\u9053\u4e8b\u52d9\u6240","boring_xml_url":40,"boring_view_url":1,"soilmap_view_url":null,"soiltest_xml_url":0,"soiltest_view_url":0},{"id":199904,"code":"B4KJ201801008-8153","latitude":"34.30253167","longitude":"134.1495339","source_code":"SK51343152004","project_name":"","survey_name":"\u5e73\u6210\u5143\u5e74\u5ea6\u9ad8\u677e\u6771\u9053\u8def\u4e95\u4e0a\u5730\u533a\u5730\u8cea\u8abf\u67fb\u696d\u52d9","client_name":"\u56fd\u571f\u4ea4\u901a\u7701\u56db\u56fd\u5730\u65b9\u6574\u5099\u5c40\u9999\u5ddd\u6cb3\u5ddd\u56fd\u9053\u4e8b\u52d9\u6240","boring_xml_url":40,"boring_view_url":1,"soilmap_view_url":null,"soiltest_xml_url":0,"soiltest_view_url":0},{"id":199903,"code":"B4KJ201801008-8152","latitude":"34.30275389","longitude":"134.1483117","source_code":"SK51343152003","project_name":"","survey_name":"\u5e73\u6210\u5143\u5e74\u5ea6\u9ad8\u677e\u6771\u9053\u8def\u4e95\u4e0a\u5730\u533a\u5730\u8cea\u8abf\u67fb\u696d\u52d9","client_name":"\u56fd\u571f\u4ea4\u901a\u7701\u56db\u56fd\u5730\u65b9\u6574\u5099\u5c40\u9999\u5ddd\u6cb3\u5ddd\u56fd\u9053\u4e8b\u52d9\u6240","boring_xml_url":40,"boring_view_url":1,"soilmap_view_url":null,"soiltest_xml_url":0,"soiltest_view_url":0},{"id":199902,"code":"B4KJ201801008-8151","latitude":"34.30244833","longitude":"134.1482283","source_code":"SK51343152002","project_name":"","survey_name":"\u5e73\u6210\u5143\u5e74\u5ea6\u9ad8\u677e\u6771\u9053\u8def\u4e95\u4e0a\u5730\u533a\u5730\u8cea\u8abf\u67fb\u696d\u52d9","client_name":"\u56fd\u571f\u4ea4\u901a\u7701\u56db\u56fd\u5730\u65b9\u6574\u5099\u5c40\u9999\u5ddd\u6cb3\u5ddd\u56fd\u9053\u4e8b\u52d9\u6240","boring_xml_url":40,"boring_view_url":1,"soilmap_view_url":null,"soiltest_xml_url":0,"soiltest_view_url":0},{"id":199901,"code":"B4KJ201801008-8150","latitude":"34.30244833","longitude":"134.1475897","source_code":"SK51343152001","project_name":"","survey_name":"\u5e73\u6210\u5143\u5e74\u5ea6\u9ad8\u677e\u6771\u9053\u8def\u4e95\u4e0a\u5730\u533a\u5730\u8cea\u8abf\u67fb\u696d\u52d9","client_name":"\u56fd\u571f\u4ea4\u901a\u7701\u56db\u56fd\u5730\u65b9\u6574\u5099\u5c40\u9999\u5ddd\u6cb3\u5ddd\u56fd\u9053\u4e8b\u52d9\u6240","boring_xml_url":40,"boring_view_url":1,"soilmap_view_url":null,"soiltest_xml_url":0,"soiltest_view_url":0},{"id":199900,"code":"B4KJ201801008-8149","latitude":"34.30172611","longitude":"134.1419789","source_code":"SK51343151013","project_name":"","survey_name":"\u5e73\u62103\u5e74\u5ea6\u9ad8\u677e\u6771\u9053\u8def\u4e09\u6728\u5730\u533a\u5730\u8cea\u8abf\u67fb\u696d\u52d9","client_name":"\u56fd\u571f\u4ea4\u901a\u7701\u56db\u56fd\u5730\u65b9\u6574\u5099\u5c40\u9999\u5ddd\u6cb3\u5ddd\u56fd\u9053\u4e8b\u52d9\u6240","boring_xml_url":40,"boring_view_url":1,"soilmap_view_url":null,"soiltest_xml_url":0,"soiltest_view_url":0},{"id":199899,"code":"B4KJ201801008-8148","latitude":"34.30169833","longitude":"134.1413125","source_code":"SK51343151011","project_name":"","survey_name":"\u5e73\u62103\u5e74\u5ea6\u9ad8\u677e\u6771\u9053\u8def\u4e09\u6728\u5730\u533a\u5730\u8cea\u8abf\u67fb\u696d\u52d9","client_name":"\u56fd\u571f\u4ea4\u901a\u7701\u56db\u56fd\u5730\u65b9\u6574\u5099\u5c40\u9999\u5ddd\u6cb3\u5ddd\u56fd\u9053\u4e8b\u52d9\u6240","boring_xml_url":40,"boring_view_url":1,"soilmap_view_url":null,"soiltest_xml_url":0,"soiltest_view_url":0},{"id":199898,"code":"B4KJ201801008-8147","latitude":"34.301365","longitude":"134.1411736","source_code":"SK51343151010","project_name":"","survey_name":"\u5e73\u62103\u5e74\u5ea6\u9ad8\u677e\u6771\u9053\u8def\u4e09\u6728\u5730\u533a\u5730\u8cea\u8abf\u67fb\u696d\u52d9","client_name":"\u56fd\u571f\u4ea4\u901a\u7701\u56db\u56fd\u5730\u65b9\u6574\u5099\u5c40\u9999\u5ddd\u6cb3\u5ddd\u56fd\u9053\u4e8b\u52d9\u6240","boring_xml_url":40,"boring_view_url":1,"soilmap_view_url":null,"soiltest_xml_url":0,"soiltest_view_url":0},{"id":199897,"code":"B4KJ201801008-8146","latitude":"34.30144833","longitude":"134.1408958","source_code":"SK51343151009","project_name":"","survey_name":"\u5e73\u62103\u5e74\u5ea6\u9ad8\u677e\u6771\u9053\u8def\u4e09\u6728\u5730\u533a\u5730\u8cea\u8abf\u67fb\u696d\u52d9","client_name":"\u56fd\u571f\u4ea4\u901a\u7701\u56db\u56fd\u5730\u65b9\u6574\u5099\u5c40\u9999\u5ddd\u6cb3\u5ddd\u56fd\u9053\u4e8b\u52d9\u6240","boring_xml_url":40,"boring_view_url":1,"soilmap_view_url":null,"soiltest_xml_url":0,"soiltest_view_url":0},{"id":199896,"code":"B4KJ201801008-8145","latitude":"34.30130944","longitude":"134.1406181","source_code":"SK51343151008","project_name":"","survey_name":"\u5e73\u62103\u5e74\u5ea6\u9ad8\u677e\u6771\u9053\u8def\u4e09\u6728\u5730\u533a\u5730\u8cea\u8abf\u67fb\u696d\u52d9","client_name":"\u56fd\u571f\u4ea4\u901a\u7701\u56db\u56fd\u5730\u65b9\u6574\u5099\u5c40\u9999\u5ddd\u6cb3\u5ddd\u56fd\u9053\u4e8b\u52d9\u6240","boring_xml_url":40,"boring_view_url":1,"soilmap_view_url":null,"soiltest_xml_url":0,"soiltest_view_url":0},{"id":199895,"code":"B4KJ201801008-8144","latitude":"34.30205944","longitude":"134.1467008","source_code":"SK51343151007","project_name":"","survey_name":"\u5e73\u62102\u5e74\u5ea6\u9ad8\u677e\u6771\u9053\u8def\u4e95\u4e0a\u5730\u533a\u5730\u8cea\u8abf\u67fb\u696d\u52d9","client_name":"\u56fd\u571f\u4ea4\u901a\u7701\u56db\u56fd\u5730\u65b9\u6574\u5099\u5c40\u9999\u5ddd\u6cb3\u5ddd\u56fd\u9053\u4e8b\u52d9\u6240","boring_xml_url":40,"boring_view_url":1,"soilmap_view_url":null,"soiltest_xml_url":0,"soiltest_view_url":0},{"id":199894,"code":"B4KJ201801008-8143","latitude":"34.3008375","longitude":"134.1416458","source_code":"SK51343151006","project_name":"","survey_name":"\u5e73\u62102\u5e74\u5ea6\u9ad8\u677e\u6771\u9053\u8def\u4e95\u4e0a\u5730\u533a\u5730\u8cea\u8abf\u67fb\u696d\u52d9","client_name":"\u56fd\u571f\u4ea4\u901a\u7701\u56db\u56fd\u5730\u65b9\u6574\u5099\u5c40\u9999\u5ddd\u6cb3\u5ddd\u56fd\u9053\u4e8b\u52d9\u6240","boring_xml_url":40,"boring_view_url":1,"soilmap_view_url":null,"soiltest_xml_url":0,"soiltest_view_url":0},{"id":199893,"code":"B4KJ201801008-8142","latitude":"34.300615","longitude":"134.1389792","source_code":"SK51343151005","project_name":"","survey_name":"\u5e73\u62102\u5e74\u5ea6\u9ad8\u677e\u6771\u9053\u8def\u4e95\u4e0a\u5730\u533a\u5730\u8cea\u8abf\u67fb\u696d\u52d9","client_name":"\u56fd\u571f\u4ea4\u901a\u7701\u56db\u56fd\u5730\u65b9\u6574\u5099\u5c40\u9999\u5ddd\u6cb3\u5ddd\u56fd\u9053\u4e8b\u52d9\u6240","boring_xml_url":40,"boring_view_url":1,"soilmap_view_url":null,"soiltest_xml_url":0,"soiltest_view_url":0},{"id":199892,"code":"B4KJ201801008-8141","latitude":"34.300365","longitude":"134.1367294","source_code":"SK51343151004","project_name":"","survey_name":"\u5e73\u6210\u5143\u5e74\u5ea6\u9ad8\u677e\u6771\u9053\u8def\u4e09\u6728\u5730\u533a\u5730\u8cea\u8abf\u67fb\u696d\u52d9","client_name":"\u56fd\u571f\u4ea4\u901a\u7701\u56db\u56fd\u5730\u65b9\u6574\u5099\u5c40\u9999\u5ddd\u6cb3\u5ddd\u56fd\u9053\u4e8b\u52d9\u6240","boring_xml_url":40,"boring_view_url":1,"soilmap_view_url":null,"soiltest_xml_url":0,"soiltest_view_url":0},{"id":199891,"code":"B4KJ201801008-8140","latitude":"34.30078167","longitude":"134.1389792","source_code":"SK51343151003","project_name":"","survey_name":"\u5e73\u6210\u5143\u5e74\u5ea6\u9ad8\u677e\u6771\u9053\u8def\u4e09\u6728\u5730\u533a\u5730\u8cea\u8abf\u67fb\u696d\u52d9","client_name":"\u56fd\u571f\u4ea4\u901a\u7701\u56db\u56fd\u5730\u65b9\u6574\u5099\u5c40\u9999\u5ddd\u6cb3\u5ddd\u56fd\u9053\u4e8b\u52d9\u6240","boring_xml_url":40,"boring_view_url":1,"soilmap_view_url":null,"soiltest_xml_url":0,"soiltest_view_url":0},{"id":199890,"code":"B4KJ201801008-8139","latitude":"34.30097611","longitude":"134.1388403","source_code":"SK51343151002","project_name":"","survey_name":"\u5e73\u6210\u5143\u5e74\u5ea6\u9ad8\u677e\u6771\u9053\u8def\u4e09\u6728\u5730\u533a\u5730\u8cea\u8abf\u67fb\u696d\u52d9","client_name":"\u56fd\u571f\u4ea4\u901a\u7701\u56db\u56fd\u5730\u65b9\u6574\u5099\u5c40\u9999\u5ddd\u6cb3\u5ddd\u56fd\u9053\u4e8b\u52d9\u6240","boring_xml_url":40,"boring_view_url":1,"soilmap_view_url":null,"soiltest_xml_url":0,"soiltest_view_url":0},{"id":199889,"code":"B4KJ201801008-8138","latitude":"34.30047611","longitude":"134.137035","source_code":"SK51343151001","project_name":"","survey_name":"\u5e73\u6210\u5143\u5e74\u5ea6\u9ad8\u677e\u6771\u9053\u8def\u4e09\u6728\u5730\u533a\u5730\u8cea\u8abf\u67fb\u696d\u52d9","client_name":"\u56fd\u571f\u4ea4\u901a\u7701\u56db\u56fd\u5730\u65b9\u6574\u5099\u5c40\u9999\u5ddd\u6cb3\u5ddd\u56fd\u9053\u4e8b\u52d9\u6240","boring_xml_url":40,"boring_view_url":1,"soilmap_view_url":null,"soiltest_xml_url":0,"soiltest_view_url":0},{"id":199888,"code":"B4KJ201801008-8137","latitude":"34.29728167","longitude":"134.1227308","source_code":"SK51343150006","project_name":"","survey_name":"\u5e73\u62107\u5e74\u5ea6\u9ad8\u677e\u6771\u9053\u8def4\u30fb5\u5de5\u533a\u5730\u8cea\u8abf\u67fb\u696d\u52d9","client_name":"\u56fd\u571f\u4ea4\u901a\u7701\u56db\u56fd\u5730\u65b9\u6574\u5099\u5c40\u9999\u5ddd\u6cb3\u5ddd\u56fd\u9053\u4e8b\u52d9\u6240","boring_xml_url":40,"boring_view_url":1,"soilmap_view_url":null,"soiltest_xml_url":0,"soiltest_view_url":0},{"id":199887,"code":"B4KJ201801008-8136","latitude":"34.29728167","longitude":"134.1223142","source_code":"SK51343150005","project_name":"","survey_name":"\u5e73\u62107\u5e74\u5ea6\u9ad8\u677e\u6771\u9053\u8def4\u30fb5\u5de5\u533a\u5730\u8cea\u8abf\u67fb\u696d\u52d9","client_name":"\u56fd\u571f\u4ea4\u901a\u7701\u56db\u56fd\u5730\u65b9\u6574\u5099\u5c40\u9999\u5ddd\u6cb3\u5ddd\u56fd\u9053\u4e8b\u52d9\u6240","boring_xml_url":40,"boring_view_url":1,"soilmap_view_url":null,"soiltest_xml_url":0,"soiltest_view_url":0},{"id":199886,"code":"B4KJ201801008-8135","latitude":"34.29750417","longitude":"134.1256472","source_code":"SK51343150004","project_name":"","survey_name":"\u5e73\u62102\u5e74\u5ea6\u9ad8\u677e\u6771\u9053\u8def\u6d25\u7530\u5730\u533a\u5730\u8cea\u8abf\u67fb\u696d\u52d9","client_name":"\u56fd\u571f\u4ea4\u901a\u7701\u56db\u56fd\u5730\u65b9\u6574\u5099\u5c40\u9999\u5ddd\u6cb3\u5ddd\u56fd\u9053\u4e8b\u52d9\u6240","boring_xml_url":40,"boring_view_url":1,"soilmap_view_url":null,"soiltest_xml_url":0,"soiltest_view_url":0}]}}