{"header":{"xyz":{"source":[],"mosaic":false},"page":4026,"raw":{"soiltest_result":"0","bbox":"57.598333,109.544722,1.933333,163.806111","page":"4026"},"conditions":{"soiltest_result":0,"north":57.598333,"west":109.544722,"south":1.933333,"east":163.806111},"success":true,"message":""},"data":{"meta":{"total":212844,"page":4026,"pages":7095,"count":30},"values":[{"id":199795,"code":"B4KJ201801008-8044","latitude":"34.30269694","longitude":"134.0842619","source_code":"SK51343056005","project_name":"","survey_name":"\u662d\u548c62\u5e74\u5ea6\u9ad8\u677e\u6771\u30d0\u30a4\u30d1\u30b9(\u516d\u6761\u5730\u533a)\u5730\u8cea\u8abf\u67fb\u696d\u52d9","client_name":"\u56fd\u571f\u4ea4\u901a\u7701\u56db\u56fd\u5730\u65b9\u6574\u5099\u5c40\u9999\u5ddd\u6cb3\u5ddd\u56fd\u9053\u4e8b\u52d9\u6240","boring_xml_url":40,"boring_view_url":1,"soilmap_view_url":null,"soiltest_xml_url":0,"soiltest_view_url":0},{"id":199794,"code":"B4KJ201801008-8043","latitude":"34.30297472","longitude":"134.0831508","source_code":"SK51343056004","project_name":"","survey_name":"\u662d\u548c62\u5e74\u5ea6\u9ad8\u677e\u6771\u30d0\u30a4\u30d1\u30b9(\u516d\u6761\u5730\u533a)\u5730\u8cea\u8abf\u67fb\u696d\u91cd","client_name":"\u56fd\u571f\u4ea4\u901a\u7701\u56db\u56fd\u5730\u65b9\u6574\u5099\u5c40\u9999\u5ddd\u6cb3\u5ddd\u56fd\u9053\u4e8b\u52d9\u6240","boring_xml_url":40,"boring_view_url":1,"soilmap_view_url":null,"soiltest_xml_url":0,"soiltest_view_url":0},{"id":199793,"code":"B4KJ201801008-8042","latitude":"34.30322472","longitude":"134.0817619","source_code":"SK51343056003","project_name":"","survey_name":"\u662d\u548c62\u5e74\u5ea6\u9ad8\u677e\u6771\u30d0\u30a4\u30d1\u30b9(\u516d\u6761\u5730\u533a)\u5730\u8cea\u8abf\u67fb\u696d\u52d9","client_name":"\u56fd\u571f\u4ea4\u901a\u7701\u56db\u56fd\u5730\u65b9\u6574\u5099\u5c40\u9999\u5ddd\u6cb3\u5ddd\u56fd\u9053\u4e8b\u52d9\u6240","boring_xml_url":40,"boring_view_url":1,"soilmap_view_url":null,"soiltest_xml_url":0,"soiltest_view_url":0},{"id":199792,"code":"B4KJ201801008-8041","latitude":"34.22554861","longitude":"134.517615","source_code":"SK51342461002","project_name":"","survey_name":"\u5e73\u62107\u5e74\u5ea6 11\u30fb55\u53f7\u6e2c\u91cf\u8a2d\u8a08\u696d\u52d9\u59d4\u8a17","client_name":"\u56fd\u571f\u4ea4\u901a\u7701\u56db\u56fd\u5730\u65b9\u6574\u5099\u5c40\u5fb3\u5cf6\u6cb3\u5ddd\u56fd\u9053\u4e8b\u52d9\u6240","boring_xml_url":40,"boring_view_url":1,"soilmap_view_url":null,"soiltest_xml_url":0,"soiltest_view_url":0},{"id":199791,"code":"B4KJ201801008-8040","latitude":"34.2251875","longitude":"134.5178094","source_code":"SK51342461001","project_name":"","survey_name":"\u5e73\u62107\u5e74\u5ea6 11\u30fb55\u53f7\u6e2c\u91cf\u8a2d\u8a08\u696d\u52d9\u59d4\u8a17","client_name":"\u56fd\u571f\u4ea4\u901a\u7701\u56db\u56fd\u5730\u65b9\u6574\u5099\u5c40\u5fb3\u5cf6\u6cb3\u5ddd\u56fd\u9053\u4e8b\u52d9\u6240","boring_xml_url":40,"boring_view_url":1,"soilmap_view_url":null,"soiltest_xml_url":0,"soiltest_view_url":0},{"id":199790,"code":"B4KJ201801008-8039","latitude":"34.18466639","longitude":"134.6006089","source_code":"SK51342418011","project_name":"","survey_name":"\u64ab\u990a\u9ad8\u67b6\u6a4b\u4e0b\u90e8\u5de5(\u305d\u306e1)\u5de5\u4e8b\u5730\u8cea\u8abf\u67fb","client_name":"\u56fd\u571f\u4ea4\u901a\u7701\u56db\u56fd\u5730\u65b9\u6574\u5099\u5c40\u5fb3\u5cf6\u6cb3\u5ddd\u56fd\u9053\u4e8b\u52d9\u6240","boring_xml_url":40,"boring_view_url":1,"soilmap_view_url":null,"soiltest_xml_url":0,"soiltest_view_url":0},{"id":199789,"code":"B4KJ201801008-8038","latitude":"34.18438861","longitude":"134.6008867","source_code":"SK51342418010","project_name":"","survey_name":"\u64ab\u990a\u9ad8\u67b6\u6a4b\u4e0b\u90e8\u5de5(\u305d\u306e1)\u5de5\u4e8b\u5730\u8cea\u8abf\u67fb","client_name":"\u56fd\u571f\u4ea4\u901a\u7701\u56db\u56fd\u5730\u65b9\u6574\u5099\u5c40\u5fb3\u5cf6\u6cb3\u5ddd\u56fd\u9053\u4e8b\u52d9\u6240","boring_xml_url":40,"boring_view_url":1,"soilmap_view_url":null,"soiltest_xml_url":0,"soiltest_view_url":0},{"id":199788,"code":"B4KJ201801008-8037","latitude":"34.18411083","longitude":"134.6011644","source_code":"SK51342418009","project_name":"","survey_name":"\u64ab\u990a\u9ad8\u67b6\u6a4b\u4e0b\u90e8\u5de5(\u305d\u306e1)\u5de5\u4e8b\u5730\u8cea\u8abf\u67fb","client_name":"\u56fd\u571f\u4ea4\u901a\u7701\u56db\u56fd\u5730\u65b9\u6574\u5099\u5c40\u5fb3\u5cf6\u6cb3\u5ddd\u56fd\u9053\u4e8b\u52d9\u6240","boring_xml_url":40,"boring_view_url":1,"soilmap_view_url":null,"soiltest_xml_url":0,"soiltest_view_url":0},{"id":199787,"code":"B4KJ201801008-8036","latitude":"34.18383306","longitude":"134.6014422","source_code":"SK51342418008","project_name":"","survey_name":"\u64ab\u990a\u9ad8\u67b6\u6a4b\u4e0b\u90e8\u5de5(\u305d\u306e1)\u5de5\u4e8b\u5730\u8cea\u8abf\u67fb","client_name":"\u56fd\u571f\u4ea4\u901a\u7701\u56db\u56fd\u5730\u65b9\u6574\u5099\u5c40\u5fb3\u5cf6\u6cb3\u5ddd\u56fd\u9053\u4e8b\u52d9\u6240","boring_xml_url":40,"boring_view_url":1,"soilmap_view_url":null,"soiltest_xml_url":0,"soiltest_view_url":0},{"id":199786,"code":"B4KJ201801008-8035","latitude":"34.17752778","longitude":"134.5827219","source_code":"SK51342406003","project_name":"","survey_name":"\u59c9\u59b9\u6a4b\u4ed61\u4ef6\u5730\u8cea\u8abf\u67fb\u696d\u52d9","client_name":"\u56fd\u571f\u4ea4\u901a\u7701\u56db\u56fd\u5730\u65b9\u6574\u5099\u5c40\u5fb3\u5cf6\u6cb3\u5ddd\u56fd\u9053\u4e8b\u52d9\u6240","boring_xml_url":40,"boring_view_url":1,"soilmap_view_url":null,"soiltest_xml_url":0,"soiltest_view_url":0},{"id":199785,"code":"B4KJ201801008-8034","latitude":"34.23784972","longitude":"134.3772936","source_code":"SK51342380001","project_name":"","survey_name":"\u662d\u548c61\u5e74\u5ea6\u65b0\u91d1\u8535\u5bfa\u5ddd\u6a4b\u5074\u9053\u6a4b\u59161\u6a4b\u8a2d\u8a08\u696d\u52d9\u59d4\u8a17(\u767d\u9ce5\u8def\u7dda\u6a4b","client_name":"\u56fd\u571f\u4ea4\u901a\u7701\u56db\u56fd\u5730\u65b9\u6574\u5099\u5c40\u9999\u5ddd\u6cb3\u5ddd\u56fd\u9053\u4e8b\u52d9\u6240","boring_xml_url":40,"boring_view_url":1,"soilmap_view_url":null,"soiltest_xml_url":0,"soiltest_view_url":0},{"id":199784,"code":"B4KJ201801008-8033","latitude":"34.22032472","longitude":"134.4121244","source_code":"SK51342363003","project_name":"","survey_name":"\u5927\u5ddd\u6a4b\u5074\u9053\u6a4b\u59161\u6a4b\u8a2d\u8a08\u696d\u52d9\u59d4\u8a17","client_name":"\u56fd\u571f\u4ea4\u901a\u7701\u56db\u56fd\u5730\u65b9\u6574\u5099\u5c40\u9999\u5ddd\u6cb3\u5ddd\u56fd\u9053\u4e8b\u52d9\u6240","boring_xml_url":40,"boring_view_url":1,"soilmap_view_url":null,"soiltest_xml_url":0,"soiltest_view_url":0},{"id":199783,"code":"B4KJ201801008-8032","latitude":"34.22024139","longitude":"134.4123189","source_code":"SK51342363002","project_name":"","survey_name":"\u5927\u5ddd\u6a4b\u5074\u9053\u6a4b\u59161\u6a4b\u8a2d\u8a08\u696d\u52d9\u59d4\u8a17","client_name":"\u56fd\u571f\u4ea4\u901a\u7701\u56db\u56fd\u5730\u65b9\u6574\u5099\u5c40\u9999\u5ddd\u6cb3\u5ddd\u56fd\u9053\u4e8b\u52d9\u6240","boring_xml_url":40,"boring_view_url":1,"soilmap_view_url":null,"soiltest_xml_url":0,"soiltest_view_url":0},{"id":199782,"code":"B4KJ201801008-8031","latitude":"34.21999139","longitude":"134.4129022","source_code":"SK51342363001","project_name":"","survey_name":"\u5927\u5ddd\u6a4b\u5074\u9053\u6a4b\u59161\u6a4b\u8a2d\u8a08\u696d\u52d9\u59d4\u8a17","client_name":"\u56fd\u571f\u4ea4\u901a\u7701\u56db\u56fd\u5730\u65b9\u6574\u5099\u5c40\u9999\u5ddd\u6cb3\u5ddd\u56fd\u9053\u4e8b\u52d9\u6240","boring_xml_url":40,"boring_view_url":1,"soilmap_view_url":null,"soiltest_xml_url":0,"soiltest_view_url":0},{"id":199781,"code":"B4KJ201801008-8030","latitude":"34.22376833","longitude":"134.3901817","source_code":"SK51342361001","project_name":"","survey_name":"\u662d\u548c52\u5e74\u5ea6\u5730\u8cea\u8abf\u67fb\u53ca\u3073\u6b69\u9053\u6a4b\u6dfb\u67b6\u8a2d\u8a08","client_name":"\u56fd\u571f\u4ea4\u901a\u7701\u56db\u56fd\u5730\u65b9\u6574\u5099\u5c40\u9999\u5ddd\u6cb3\u5ddd\u56fd\u9053\u4e8b\u52d9\u6240","boring_xml_url":40,"boring_view_url":1,"soilmap_view_url":null,"soiltest_xml_url":0,"soiltest_view_url":0},{"id":199780,"code":"B4KJ201801008-8029","latitude":"34.25120806","longitude":"134.3170761","source_code":"SK51342295001","project_name":"","survey_name":"\u662d\u548c51\u5e74\u5ea6\u5730\u8cea\u8abf\u67fb\u53ca\u3073\u6b69\u9053\u6a4b\u6dfb\u67b6\u8a2d\u8a08","client_name":"\u56fd\u571f\u4ea4\u901a\u7701\u56db\u56fd\u5730\u65b9\u6574\u5099\u5c40\u9999\u5ddd\u6cb3\u5ddd\u56fd\u9053\u4e8b\u52d9\u6240","boring_xml_url":40,"boring_view_url":1,"soilmap_view_url":null,"soiltest_xml_url":0,"soiltest_view_url":0},{"id":199779,"code":"B4KJ201801008-8028","latitude":"34.16700111","longitude":"134.5806947","source_code":"SK51341496007","project_name":"","survey_name":"\u662d\u548c53\u5e74\u5ea6\u9cf4\u9580\u9ad8\u67b6\u6a4b\u5730\u8cea\u8abf\u67fb\u696d\u52d9","client_name":"\u56fd\u571f\u4ea4\u901a\u7701\u56db\u56fd\u5730\u65b9\u6574\u5099\u5c40\u5fb3\u5cf6\u6cb3\u5ddd\u56fd\u9053\u4e8b\u52d9\u6240","boring_xml_url":40,"boring_view_url":1,"soilmap_view_url":null,"soiltest_xml_url":0,"soiltest_view_url":0},{"id":199778,"code":"B4KJ201801008-8027","latitude":"34.16633444","longitude":"134.5807503","source_code":"SK51341496006","project_name":"","survey_name":"\u662d\u548c53\u5e74\u5ea6\u9cf4\u9580\u9ad8\u67b6\u6a4b\u5730\u8cea\u8abf\u67fb\u696d\u52d9","client_name":"\u56fd\u571f\u4ea4\u901a\u7701\u56db\u56fd\u5730\u65b9\u6574\u5099\u5c40\u5fb3\u5cf6\u6cb3\u5ddd\u56fd\u9053\u4e8b\u52d9\u6240","boring_xml_url":40,"boring_view_url":1,"soilmap_view_url":null,"soiltest_xml_url":0,"soiltest_view_url":0},{"id":199777,"code":"B4KJ201801008-8026","latitude":"34.16497361","longitude":"134.5808336","source_code":"SK51341496005","project_name":"","survey_name":"\u662d\u548c53\u5e74\u5ea6\u9cf4\u9580\u9ad8\u67b6\u6a4b\u5730\u8cea\u8abf\u67fb\u696d\u52d9","client_name":"\u56fd\u571f\u4ea4\u901a\u7701\u56db\u56fd\u5730\u65b9\u6574\u5099\u5c40\u5fb3\u5cf6\u6cb3\u5ddd\u56fd\u9053\u4e8b\u52d9\u6240","boring_xml_url":40,"boring_view_url":1,"soilmap_view_url":null,"soiltest_xml_url":0,"soiltest_view_url":0},{"id":199776,"code":"B4KJ201801008-8025","latitude":"34.16430694","longitude":"134.5808892","source_code":"SK51341496004","project_name":"","survey_name":"\u662d\u548c53\u5e74\u5ea6\u9cf4\u9580\u9ad8\u67b6\u6a4b\u5730\u8cea\u8abf\u67fb\u696d\u52d9","client_name":"\u56fd\u571f\u4ea4\u901a\u7701\u56db\u56fd\u5730\u65b9\u6574\u5099\u5c40\u5fb3\u5cf6\u6cb3\u5ddd\u56fd\u9053\u4e8b\u52d9\u6240","boring_xml_url":40,"boring_view_url":1,"soilmap_view_url":null,"soiltest_xml_url":0,"soiltest_view_url":0},{"id":199775,"code":"B4KJ201801008-8024","latitude":"34.16322389","longitude":"134.5813058","source_code":"SK51341496003","project_name":"","survey_name":"\u662d\u548c53\u5e74\u5ea6\u9cf4\u9580\u9ad8\u67b6\u6a4b\u5730\u8cea\u8abf\u67fb\u696d\u52d9","client_name":"\u56fd\u571f\u4ea4\u901a\u7701\u56db\u56fd\u5730\u65b9\u6574\u5099\u5c40\u5fb3\u5cf6\u6cb3\u5ddd\u56fd\u9053\u4e8b\u52d9\u6240","boring_xml_url":40,"boring_view_url":1,"soilmap_view_url":null,"soiltest_xml_url":0,"soiltest_view_url":0},{"id":199774,"code":"B4KJ201801008-8023","latitude":"34.16552917","longitude":"134.5803336","source_code":"SK51341496002","project_name":"","survey_name":"\u662d\u548c54\u5e74\u5ea6\u9cf4\u9580\u5730\u533a\u5730\u8cea\u8abf\u67fb\u696d\u52d9\u59d4\u8a17","client_name":"\u56fd\u571f\u4ea4\u901a\u7701\u56db\u56fd\u5730\u65b9\u6574\u5099\u5c40\u5fb3\u5cf6\u6cb3\u5ddd\u56fd\u9053\u4e8b\u52d9\u6240","boring_xml_url":40,"boring_view_url":1,"soilmap_view_url":null,"soiltest_xml_url":0,"soiltest_view_url":0},{"id":199773,"code":"B4KJ201801008-8022","latitude":"34.16127944","longitude":"134.5811114","source_code":"SK51341486006","project_name":"","survey_name":"\u662d\u548c54\u5e74\u5ea6\u9cf4\u9580\u5730\u533a\u5730\u8cea\u8abf\u67fb\u696d\u52d9\u59d4\u8a17","client_name":"\u56fd\u571f\u4ea4\u901a\u7701\u56db\u56fd\u5730\u65b9\u6574\u5099\u5c40\u5fb3\u5cf6\u6cb3\u5ddd\u56fd\u9053\u4e8b\u52d9\u6240","boring_xml_url":40,"boring_view_url":1,"soilmap_view_url":null,"soiltest_xml_url":0,"soiltest_view_url":0},{"id":199772,"code":"B4KJ201801008-8021","latitude":"34.15900194","longitude":"134.5809725","source_code":"SK51341486005","project_name":"","survey_name":"\u662d\u548c54\u5e74\u5ea6\u9cf4\u9580\u5730\u533a\u5730\u8cea\u8abf\u67fb\u696d\u52d9\u59d4\u8a17","client_name":"\u56fd\u571f\u4ea4\u901a\u7701\u56db\u56fd\u5730\u65b9\u6574\u5099\u5c40\u5fb3\u5cf6\u6cb3\u5ddd\u56fd\u9053\u4e8b\u52d9\u6240","boring_xml_url":40,"boring_view_url":1,"soilmap_view_url":null,"soiltest_xml_url":0,"soiltest_view_url":0},{"id":199771,"code":"B4KJ201801008-8020","latitude":"34.15639111","longitude":"134.5800561","source_code":"SK51341486004","project_name":"","survey_name":"\u662d\u548c54\u5e74\u5ea6\u9cf4\u9580\u5730\u533a\u5730\u8cea\u8abf\u67fb\u696d\u52d9\u59d4\u8a17","client_name":"\u56fd\u571f\u4ea4\u901a\u7701\u56db\u56fd\u5730\u65b9\u6574\u5099\u5c40\u5fb3\u5cf6\u6cb3\u5ddd\u56fd\u9053\u4e8b\u52d9\u6240","boring_xml_url":40,"boring_view_url":1,"soilmap_view_url":null,"soiltest_xml_url":0,"soiltest_view_url":0},{"id":199770,"code":"B4KJ201801008-8019","latitude":"34.15453028","longitude":"134.5795283","source_code":"SK51341486003","project_name":"","survey_name":"\u662d\u548c51\u5e74\u5ea6\u5927\u8c37\u5ddd\u6a4b\u59161\u4ef6\u5730\u8cea\u8abf\u67fb\u696d\u52d9","client_name":"\u56fd\u571f\u4ea4\u901a\u7701\u56db\u56fd\u5730\u65b9\u6574\u5099\u5c40\u5fb3\u5cf6\u6cb3\u5ddd\u56fd\u9053\u4e8b\u52d9\u6240","boring_xml_url":40,"boring_view_url":1,"soilmap_view_url":null,"soiltest_xml_url":0,"soiltest_view_url":0},{"id":199769,"code":"B4KJ201801008-8018","latitude":"34.15430806","longitude":"134.5795283","source_code":"SK51341486002","project_name":"","survey_name":"\u662d\u548c51\u5e74\u5ea6\u5927\u8c37\u5ddd\u6a4b\u59161\u4ef6\u5730\u8cea\u8abf\u67fb\u696d\u52d9","client_name":"\u56fd\u571f\u4ea4\u901a\u7701\u56db\u56fd\u5730\u65b9\u6574\u5099\u5c40\u5fb3\u5cf6\u6cb3\u5ddd\u56fd\u9053\u4e8b\u52d9\u6240","boring_xml_url":40,"boring_view_url":1,"soilmap_view_url":null,"soiltest_xml_url":0,"soiltest_view_url":0},{"id":199768,"code":"B4KJ201801008-8017","latitude":"34.15022556","longitude":"134.5981103","source_code":"SK51341478006","project_name":"","survey_name":"\u5e73\u62108\u5e74\u5ea6\u65e7\u5409\u91ce\u5ddd\u5730\u8cea\u8abf\u67fb\u696d\u52d9","client_name":"\u56fd\u571f\u4ea4\u901a\u7701\u56db\u56fd\u5730\u65b9\u6574\u5099\u5c40\u5fb3\u5cf6\u6cb3\u5ddd\u56fd\u9053\u4e8b\u52d9\u6240","boring_xml_url":40,"boring_view_url":1,"soilmap_view_url":null,"soiltest_xml_url":0,"soiltest_view_url":0},{"id":199767,"code":"B4KJ201801008-8016","latitude":"34.14919806","longitude":"134.6029711","source_code":"SK51341478005","project_name":"","survey_name":"\u5e73\u62108\u5e74\u5ea6\u65e7\u5409\u91ce\u5ddd\u5730\u8cea\u8abf\u67fb\u696d\u52d9","client_name":"\u56fd\u571f\u4ea4\u901a\u7701\u56db\u56fd\u5730\u65b9\u6574\u5099\u5c40\u5fb3\u5cf6\u6cb3\u5ddd\u56fd\u9053\u4e8b\u52d9\u6240","boring_xml_url":40,"boring_view_url":1,"soilmap_view_url":null,"soiltest_xml_url":0,"soiltest_view_url":0},{"id":199766,"code":"B4KJ201801008-8015","latitude":"34.15022556","longitude":"134.5981103","source_code":"SK51341478004","project_name":"","survey_name":"\u5e73\u62108\u5e74\u5ea6 \u65e7\u5409\u91ce\u5ddd\u5730\u8cea\u8abf\u67fb\u696d\u52d9","client_name":"\u56fd\u571f\u4ea4\u901a\u7701\u56db\u56fd\u5730\u65b9\u6574\u5099\u5c40\u5fb3\u5cf6\u6cb3\u5ddd\u56fd\u9053\u4e8b\u52d9\u6240","boring_xml_url":40,"boring_view_url":1,"soilmap_view_url":null,"soiltest_xml_url":0,"soiltest_view_url":0}]}}