{"header":{"xyz":{"source":[],"mosaic":false},"page":4027,"raw":{"soiltest_result":"0","bbox":"57.598333,109.544722,1.933333,163.806111","page":"4027"},"conditions":{"soiltest_result":0,"north":57.598333,"west":109.544722,"south":1.933333,"east":163.806111},"success":true,"message":""},"data":{"meta":{"total":212844,"page":4027,"pages":7095,"count":30},"values":[{"id":199765,"code":"B4KJ201801008-8014","latitude":"34.14917056","longitude":"134.607165","source_code":"SK51341478003","project_name":"","survey_name":"\u5e73\u62107\u5e74\u5ea6\u65e7\u5409\u91ce\u5ddd\u5916\u5730\u8cea\u8abf\u67fb\u696d\u52d9","client_name":"\u56fd\u571f\u4ea4\u901a\u7701\u56db\u56fd\u5730\u65b9\u6574\u5099\u5c40\u5fb3\u5cf6\u6cb3\u5ddd\u56fd\u9053\u4e8b\u52d9\u6240","boring_xml_url":40,"boring_view_url":1,"soilmap_view_url":null,"soiltest_xml_url":0,"soiltest_view_url":0},{"id":199764,"code":"B4KJ201801008-8013","latitude":"34.14897556","longitude":"134.5859725","source_code":"SK51341477018","project_name":"","survey_name":"\u5e73\u62108\u5e74\u5ea6\u65e7\u5409\u91ce\u5ddd\u5730\u8cea\u8abf\u67fb\u696d\u52d9","client_name":"\u56fd\u571f\u4ea4\u901a\u7701\u56db\u56fd\u5730\u65b9\u6574\u5099\u5c40\u5fb3\u5cf6\u6cb3\u5ddd\u56fd\u9053\u4e8b\u52d9\u6240","boring_xml_url":40,"boring_view_url":1,"soilmap_view_url":null,"soiltest_xml_url":0,"soiltest_view_url":0},{"id":199763,"code":"B4KJ201801008-8012","latitude":"34.15030889","longitude":"134.5933883","source_code":"SK51341477017","project_name":"","survey_name":"\u5e73\u62109\u5e74\u5ea6\u6a0b\u9580\u7b49\u88dc\u4fee\u8a2d\u8a08\u696d\u52d9\u59d4\u8a17","client_name":"\u56fd\u571f\u4ea4\u901a\u7701\u56db\u56fd\u5730\u65b9\u6574\u5099\u5c40\u5fb3\u5cf6\u6cb3\u5ddd\u56fd\u9053\u4e8b\u52d9\u6240","boring_xml_url":40,"boring_view_url":1,"soilmap_view_url":null,"soiltest_xml_url":0,"soiltest_view_url":0},{"id":199762,"code":"B4KJ201801008-8011","latitude":"34.14897556","longitude":"134.5859725","source_code":"SK51341477013","project_name":"","survey_name":"\u5e73\u62108\u5e74\u5ea6 \u65e7\u5409\u91ce\u5ddd\u5730\u8cea\u8abf\u67fb\u696d\u52d9","client_name":"\u56fd\u571f\u4ea4\u901a\u7701\u56db\u56fd\u5730\u65b9\u6574\u5099\u5c40\u5fb3\u5cf6\u6cb3\u5ddd\u56fd\u9053\u4e8b\u52d9\u6240","boring_xml_url":40,"boring_view_url":1,"soilmap_view_url":null,"soiltest_xml_url":0,"soiltest_view_url":0},{"id":199761,"code":"B4KJ201801008-8010","latitude":"34.15028111","longitude":"134.5933606","source_code":"SK51341477012","project_name":"","survey_name":"\u5e73\u62107\u5e74\u5ea6 11\u30fb55\u53f7\u6e2c\u91cf\u8a2d\u8a08\u696d\u52d9\u59d4\u8a17","client_name":"\u56fd\u571f\u4ea4\u901a\u7701\u56db\u56fd\u5730\u65b9\u6574\u5099\u5c40\u5fb3\u5cf6\u6cb3\u5ddd\u56fd\u9053\u4e8b\u52d9\u6240","boring_xml_url":40,"boring_view_url":1,"soilmap_view_url":null,"soiltest_xml_url":0,"soiltest_view_url":0},{"id":199760,"code":"B4KJ201801008-8009","latitude":"34.15033667","longitude":"134.5936383","source_code":"SK51341477011","project_name":"","survey_name":"\u5e73\u62107\u5e74\u5ea6 11\u30fb55\u53f7\u6e2c\u91cf\u8a2d\u8a08\u696d\u52d9\u59d4\u8a17","client_name":"\u56fd\u571f\u4ea4\u901a\u7701\u56db\u56fd\u5730\u65b9\u6574\u5099\u5c40\u5fb3\u5cf6\u6cb3\u5ddd\u56fd\u9053\u4e8b\u52d9\u6240","boring_xml_url":40,"boring_view_url":1,"soilmap_view_url":null,"soiltest_xml_url":0,"soiltest_view_url":0},{"id":199759,"code":"B4KJ201801008-8008","latitude":"34.1514475","longitude":"134.5911664","source_code":"SK51341477010","project_name":"","survey_name":"\u5e73\u62107\u5e74\u5ea6\u65e7\u5409\u91ce\u5ddd\u5916\u5730\u8cea\u8abf\u67fb\u696d\u52d9","client_name":"\u56fd\u571f\u4ea4\u901a\u7701\u56db\u56fd\u5730\u65b9\u6574\u5099\u5c40\u5fb3\u5cf6\u6cb3\u5ddd\u56fd\u9053\u4e8b\u52d9\u6240","boring_xml_url":40,"boring_view_url":1,"soilmap_view_url":null,"soiltest_xml_url":0,"soiltest_view_url":0},{"id":199758,"code":"B4KJ201801008-8007","latitude":"34.14697556","longitude":"134.5789731","source_code":"SK51341476001","project_name":"","survey_name":"\u662d\u548c51\u5e74\u5ea6\u5927\u8c37\u5ddd\u6a4b\u59161\u4ef6\u5730\u8cea\u8abf\u67fb\u696d\u52d9","client_name":"\u56fd\u571f\u4ea4\u901a\u7701\u56db\u56fd\u5730\u65b9\u6574\u5099\u5c40\u5fb3\u5cf6\u6cb3\u5ddd\u56fd\u9053\u4e8b\u52d9\u6240","boring_xml_url":40,"boring_view_url":1,"soilmap_view_url":null,"soiltest_xml_url":0,"soiltest_view_url":0},{"id":199757,"code":"B4KJ201801008-8006","latitude":"34.14655861","longitude":"134.5638078","source_code":"SK51341475002","project_name":"","survey_name":"\u5e73\u621010\u5e74\u5ea6 \u5e83\u5cf6\u4e0b\u6d41\u5730\u8cea\u8abf\u67fb\u7b49\u696d\u52d9","client_name":"\u56fd\u571f\u4ea4\u901a\u7701\u56db\u56fd\u5730\u65b9\u6574\u5099\u5c40\u5fb3\u5cf6\u6cb3\u5ddd\u56fd\u9053\u4e8b\u52d9\u6240","boring_xml_url":40,"boring_view_url":1,"soilmap_view_url":null,"soiltest_xml_url":0,"soiltest_view_url":0},{"id":199756,"code":"B4KJ201801008-8005","latitude":"34.14764167","longitude":"134.5546142","source_code":"SK51341474002","project_name":"","survey_name":"\u5e73\u621010\u5e74\u5ea6\u725b\u5c4b\u5cf6\u5730\u533a\u6e2c\u91cf\u8a2d\u8a08\u696d\u52d9\u59d4\u8a17","client_name":"\u56fd\u571f\u4ea4\u901a\u7701\u56db\u56fd\u5730\u65b9\u6574\u5099\u5c40\u5fb3\u5cf6\u6cb3\u5ddd\u56fd\u9053\u4e8b\u52d9\u6240","boring_xml_url":40,"boring_view_url":1,"soilmap_view_url":null,"soiltest_xml_url":0,"soiltest_view_url":0},{"id":199755,"code":"B4KJ201801008-8004","latitude":"34.15061361","longitude":"134.5593358","source_code":"SK51341474001","project_name":"","survey_name":"\u5e73\u62107\u5e74\u5ea6\u65e7\u5409\u91ce\u5ddd\u5916\u5730\u8cea\u8abf\u67fb\u696d\u52d9","client_name":"\u56fd\u571f\u4ea4\u901a\u7701\u56db\u56fd\u5730\u65b9\u6574\u5099\u5c40\u5fb3\u5cf6\u6cb3\u5ddd\u56fd\u9053\u4e8b\u52d9\u6240","boring_xml_url":40,"boring_view_url":1,"soilmap_view_url":null,"soiltest_xml_url":0,"soiltest_view_url":0},{"id":199754,"code":"B4KJ201801008-8003","latitude":"34.14278167","longitude":"134.5767236","source_code":"SK51341466003","project_name":"","survey_name":"\u5e73\u621012\u5e74\u5ea6\u65e5\u6bd4\u5b87\u5730\u533a\u59161\u4ef6\u5730\u8cea\u8abf\u67fb\u696d\u52d9","client_name":"\u56fd\u571f\u4ea4\u901a\u7701\u56db\u56fd\u5730\u65b9\u6574\u5099\u5c40\u5fb3\u5cf6\u6cb3\u5ddd\u56fd\u9053\u4e8b\u52d9\u6240","boring_xml_url":40,"boring_view_url":1,"soilmap_view_url":null,"soiltest_xml_url":0,"soiltest_view_url":0},{"id":199753,"code":"B4KJ201801008-8002","latitude":"34.13786528","longitude":"134.5733072","source_code":"SK51341466002","project_name":"","survey_name":"\u5e73\u621010\u5e74\u5ea6 \u5e83\u5cf6\u4e0b\u6d41\u5730\u8cea\u8abf\u67fb\u7b49\u696d\u52d9","client_name":"\u56fd\u571f\u4ea4\u901a\u7701\u56db\u56fd\u5730\u65b9\u6574\u5099\u5c40\u5fb3\u5cf6\u6cb3\u5ddd\u56fd\u9053\u4e8b\u52d9\u6240","boring_xml_url":40,"boring_view_url":1,"soilmap_view_url":null,"soiltest_xml_url":0,"soiltest_view_url":0},{"id":199752,"code":"B4KJ201801008-8001","latitude":"34.14361472","longitude":"134.5698353","source_code":"SK51341465020","project_name":"","survey_name":"\u5e73\u621012\u5e74\u5ea624\u756a\u6a0b\u9580\u8a2d\u8a08\u696d\u52d9\u59d4\u8a17","client_name":"\u56fd\u571f\u4ea4\u901a\u7701\u56db\u56fd\u5730\u65b9\u6574\u5099\u5c40\u5fb3\u5cf6\u6cb3\u5ddd\u56fd\u9053\u4e8b\u52d9\u6240","boring_xml_url":40,"boring_view_url":1,"soilmap_view_url":null,"soiltest_xml_url":0,"soiltest_view_url":0},{"id":199751,"code":"B4KJ201801008-8000","latitude":"34.1433925","longitude":"134.5695853","source_code":"SK51341465019","project_name":"","survey_name":"\u5e73\u621012\u5e74\u5ea624\u756a\u6a0b\u9580\u8a2d\u8a08\u696d\u52d9\u59d4\u8a17","client_name":"\u56fd\u571f\u4ea4\u901a\u7701\u56db\u56fd\u5730\u65b9\u6574\u5099\u5c40\u5fb3\u5cf6\u6cb3\u5ddd\u56fd\u9053\u4e8b\u52d9\u6240","boring_xml_url":40,"boring_view_url":1,"soilmap_view_url":null,"soiltest_xml_url":0,"soiltest_view_url":0},{"id":199750,"code":"B4KJ201801008-7999","latitude":"34.14372583","longitude":"134.5697797","source_code":"SK51341465018","project_name":"","survey_name":"\u5e73\u621012\u5e74\u5ea624\u756a\u6a0b\u9580\u8a2d\u8a08\u696d\u52d9\u59d4\u8a17","client_name":"\u56fd\u571f\u4ea4\u901a\u7701\u56db\u56fd\u5730\u65b9\u6574\u5099\u5c40\u5fb3\u5cf6\u6cb3\u5ddd\u56fd\u9053\u4e8b\u52d9\u6240","boring_xml_url":40,"boring_view_url":1,"soilmap_view_url":null,"soiltest_xml_url":0,"soiltest_view_url":0},{"id":199749,"code":"B4KJ201801008-7998","latitude":"34.13953194","longitude":"134.5722517","source_code":"SK51341465017","project_name":"","survey_name":"\u5e73\u621012\u5e74\u5ea6 \u91ce\u795e\u6a0b\u9580\u8a2d\u8a08\u696d\u52d9\u59d4\u8a17","client_name":"\u56fd\u571f\u4ea4\u901a\u7701\u56db\u56fd\u5730\u65b9\u6574\u5099\u5c40\u5fb3\u5cf6\u6cb3\u5ddd\u56fd\u9053\u4e8b\u52d9\u6240","boring_xml_url":40,"boring_view_url":1,"soilmap_view_url":null,"soiltest_xml_url":0,"soiltest_view_url":0},{"id":199748,"code":"B4KJ201801008-7997","latitude":"34.1393375","longitude":"134.5721961","source_code":"SK51341465016","project_name":"","survey_name":"\u5e73\u621012\u5e74\u5ea6 \u91ce\u795e\u6a0b\u9580\u8a2d\u8a08\u696d\u52d9\u59d4\u8a17","client_name":"\u56fd\u571f\u4ea4\u901a\u7701\u56db\u56fd\u5730\u65b9\u6574\u5099\u5c40\u5fb3\u5cf6\u6cb3\u5ddd\u56fd\u9053\u4e8b\u52d9\u6240","boring_xml_url":40,"boring_view_url":1,"soilmap_view_url":null,"soiltest_xml_url":0,"soiltest_view_url":0},{"id":199747,"code":"B4KJ201801008-7996","latitude":"34.14350361","longitude":"134.5695019","source_code":"SK51341465015","project_name":"","survey_name":"\u5e73\u621012\u5e74\u5ea624\u756a\u6a0b\u9580\u8a2d\u8a08\u696d\u52d9\u59d4\u8a17","client_name":"\u56fd\u571f\u4ea4\u901a\u7701\u56db\u56fd\u5730\u65b9\u6574\u5099\u5c40\u5fb3\u5cf6\u6cb3\u5ddd\u56fd\u9053\u4e8b\u52d9\u6240","boring_xml_url":40,"boring_view_url":1,"soilmap_view_url":null,"soiltest_xml_url":0,"soiltest_view_url":0},{"id":199746,"code":"B4KJ201801008-7995","latitude":"34.14489222","longitude":"134.5668908","source_code":"SK51341465002","project_name":"","survey_name":"\u5e73\u62107\u5e74\u5ea6\u65e7\u5409\u91ce\u5ddd\u5916\u5730\u8cea\u8abf\u67fb\u696d\u52d9","client_name":"\u56fd\u571f\u4ea4\u901a\u7701\u56db\u56fd\u5730\u65b9\u6574\u5099\u5c40\u5fb3\u5cf6\u6cb3\u5ddd\u56fd\u9053\u4e8b\u52d9\u6240","boring_xml_url":40,"boring_view_url":1,"soilmap_view_url":null,"soiltest_xml_url":0,"soiltest_view_url":0},{"id":199745,"code":"B4KJ201801008-7994","latitude":"34.13628222","longitude":"134.5752794","source_code":"SK51341465001","project_name":"","survey_name":"\u662d\u548c51\u5e74\u5ea6\u65b0\u5e83\u5cf6\u6a4b\u5730\u8cea\u8abf\u67fb\u696d\u52d9","client_name":"\u56fd\u571f\u4ea4\u901a\u7701\u56db\u56fd\u5730\u65b9\u6574\u5099\u5c40\u5fb3\u5cf6\u6cb3\u5ddd\u56fd\u9053\u4e8b\u52d9\u6240","boring_xml_url":40,"boring_view_url":1,"soilmap_view_url":null,"soiltest_xml_url":0,"soiltest_view_url":0},{"id":199744,"code":"B4KJ201801008-7993","latitude":"34.14347528","longitude":"134.5481428","source_code":"SK51341464001","project_name":"","survey_name":"\u5e73\u62107\u5e74\u5ea6\u65e7\u5409\u91ce\u5ddd\u5916\u5730\u8cea\u8abf\u67fb\u696d\u52d9","client_name":"\u56fd\u571f\u4ea4\u901a\u7701\u56db\u56fd\u5730\u65b9\u6574\u5099\u5c40\u5fb3\u5cf6\u6cb3\u5ddd\u56fd\u9053\u4e8b\u52d9\u6240","boring_xml_url":40,"boring_view_url":1,"soilmap_view_url":null,"soiltest_xml_url":0,"soiltest_view_url":0},{"id":199743,"code":"B4KJ201801008-7992","latitude":"34.14011389","longitude":"134.5223394","source_code":"SK51341462001","project_name":"","survey_name":"\u5e73\u62107\u5e74\u5ea6\u65e7\u5409\u91ce\u5ddd\u5916\u5730\u8cea\u8abf\u67fb\u696d\u52d9","client_name":"\u56fd\u571f\u4ea4\u901a\u7701\u56db\u56fd\u5730\u65b9\u6574\u5099\u5c40\u5fb3\u5cf6\u6cb3\u5ddd\u56fd\u9053\u4e8b\u52d9\u6240","boring_xml_url":40,"boring_view_url":1,"soilmap_view_url":null,"soiltest_xml_url":0,"soiltest_view_url":0},{"id":199742,"code":"B4KJ201801008-7991","latitude":"34.13119944","longitude":"134.575085","source_code":"SK51341456008","project_name":"","survey_name":"\u5e73\u62108\u5e74\u5ea6\u5e83\u5cf6\u5824\u9632\u6e2c\u91cf\u8a2d\u8a08\u59161\u4ef6\u696d\u52d9\u59d4\u8a17","client_name":"\u56fd\u571f\u4ea4\u901a\u7701\u56db\u56fd\u5730\u65b9\u6574\u5099\u5c40\u5fb3\u5cf6\u6cb3\u5ddd\u56fd\u9053\u4e8b\u52d9\u6240","boring_xml_url":40,"boring_view_url":1,"soilmap_view_url":null,"soiltest_xml_url":0,"soiltest_view_url":0},{"id":199741,"code":"B4KJ201801008-7990","latitude":"34.13011639","longitude":"134.5814458","source_code":"SK51341456007","project_name":"","survey_name":"\u5e73\u62107\u5e74\u5ea6\u65e7\u5409\u91ce\u5ddd\u5916\u5730\u8cea\u8abf\u67fb\u696d\u52d9","client_name":"\u56fd\u571f\u4ea4\u901a\u7701\u56db\u56fd\u5730\u65b9\u6574\u5099\u5c40\u5fb3\u5cf6\u6cb3\u5ddd\u56fd\u9053\u4e8b\u52d9\u6240","boring_xml_url":40,"boring_view_url":1,"soilmap_view_url":null,"soiltest_xml_url":0,"soiltest_view_url":0},{"id":199740,"code":"B4KJ201801008-7989","latitude":"34.13481028","longitude":"134.5767236","source_code":"SK51341456006","project_name":"","survey_name":"\u5e73\u62107\u5e74\u5ea6\u65e7\u5409\u91ce\u5ddd\u5916\u5730\u8cea\u8abf\u67fb\u696d\u52d9","client_name":"\u56fd\u571f\u4ea4\u901a\u7701\u56db\u56fd\u5730\u65b9\u6574\u5099\u5c40\u5fb3\u5cf6\u6cb3\u5ddd\u56fd\u9053\u4e8b\u52d9\u6240","boring_xml_url":40,"boring_view_url":1,"soilmap_view_url":null,"soiltest_xml_url":0,"soiltest_view_url":0},{"id":199739,"code":"B4KJ201801008-7988","latitude":"34.13425472","longitude":"134.574085","source_code":"SK51341456004","project_name":"","survey_name":"\u662d\u548c53\u5e74\u5ea6\u5e83\u5cf6\u5730\u533a\u5730\u8cea\u8abf\u67fb\u696d\u52d9","client_name":"\u56fd\u571f\u4ea4\u901a\u7701\u56db\u56fd\u5730\u65b9\u6574\u5099\u5c40\u5fb3\u5cf6\u6cb3\u5ddd\u56fd\u9053\u4e8b\u52d9\u6240","boring_xml_url":40,"boring_view_url":1,"soilmap_view_url":null,"soiltest_xml_url":0,"soiltest_view_url":0},{"id":199738,"code":"B4KJ201801008-7987","latitude":"34.13344917","longitude":"134.5747517","source_code":"SK51341456003","project_name":"","survey_name":"\u662d\u548c53\u5e74\u5ea6\u5e83\u5cf6\u5730\u533a\u5730\u8cea\u8abf\u67fb\u696d\u52d9","client_name":"\u56fd\u571f\u4ea4\u901a\u7701\u56db\u56fd\u5730\u65b9\u6574\u5099\u5c40\u5fb3\u5cf6\u6cb3\u5ddd\u56fd\u9053\u4e8b\u52d9\u6240","boring_xml_url":40,"boring_view_url":1,"soilmap_view_url":null,"soiltest_xml_url":0,"soiltest_view_url":0},{"id":199737,"code":"B4KJ201801008-7986","latitude":"34.13531028","longitude":"134.5750572","source_code":"SK51341456002","project_name":"","survey_name":"\u662d\u548c51\u5e74\u5ea6\u65b0\u5e83\u5cf6\u6a4b\u5730\u8cea\u8abf\u67fb\u696d\u52d9","client_name":"\u56fd\u571f\u4ea4\u901a\u7701\u56db\u56fd\u5730\u65b9\u6574\u5099\u5c40\u5fb3\u5cf6\u6cb3\u5ddd\u56fd\u9053\u4e8b\u52d9\u6240","boring_xml_url":40,"boring_view_url":1,"soilmap_view_url":null,"soiltest_xml_url":0,"soiltest_view_url":0},{"id":199736,"code":"B4KJ201801008-7985","latitude":"34.13486583","longitude":"134.5750017","source_code":"SK51341456001","project_name":"","survey_name":"\u662d\u548c51\u5e74\u5ea6\u65b0\u5e83\u5cf6\u6a4b\u5730\u8cea\u8abf\u67fb\u696d\u52d9","client_name":"\u56fd\u571f\u4ea4\u901a\u7701\u56db\u56fd\u5730\u65b9\u6574\u5099\u5c40\u5fb3\u5cf6\u6cb3\u5ddd\u56fd\u9053\u4e8b\u52d9\u6240","boring_xml_url":40,"boring_view_url":1,"soilmap_view_url":null,"soiltest_xml_url":0,"soiltest_view_url":0}]}}