{"header":{"xyz":{"source":[],"mosaic":false},"page":4029,"raw":{"soiltest_result":"0","bbox":"57.598333,109.544722,1.933333,163.806111","page":"4029"},"conditions":{"soiltest_result":0,"north":57.598333,"west":109.544722,"south":1.933333,"east":163.806111},"success":true,"message":""},"data":{"meta":{"total":212844,"page":4029,"pages":7095,"count":30},"values":[{"id":199705,"code":"B4KJ201801008-7954","latitude":"34.09023139","longitude":"134.5491442","source_code":"SK51341404001","project_name":"","survey_name":"\u662d\u548c52\u5e74\u5ea6\u65b0\u753a\u5ddd\u5730\u8cea\u8abf\u67fb\u696d\u52d9","client_name":"\u56fd\u571f\u4ea4\u901a\u7701\u56db\u56fd\u5730\u65b9\u6574\u5099\u5c40\u5fb3\u5cf6\u6cb3\u5ddd\u56fd\u9053\u4e8b\u52d9\u6240","boring_xml_url":40,"boring_view_url":1,"soilmap_view_url":null,"soiltest_xml_url":0,"soiltest_view_url":0},{"id":199704,"code":"B4KJ201801008-7953","latitude":"34.10939472","longitude":"134.4911767","source_code":"SK51341329003","project_name":"","survey_name":"\u662d\u548c62\u5e74\u5ea6\u524d\u5ddd\u6a0b\u9580\u5730\u8cea\u8abf\u67fb\u696d\u52d9","client_name":"\u56fd\u571f\u4ea4\u901a\u7701\u56db\u56fd\u5730\u65b9\u6574\u5099\u5c40\u5fb3\u5cf6\u6cb3\u5ddd\u56fd\u9053\u4e8b\u52d9\u6240","boring_xml_url":40,"boring_view_url":1,"soilmap_view_url":null,"soiltest_xml_url":0,"soiltest_view_url":0},{"id":199703,"code":"B4KJ201801008-7952","latitude":"34.11033833","longitude":"134.4703728","source_code":"SK51341327002","project_name":"","survey_name":"\u5e73\u62103\u5e74\u5ea6\u5409\u91ce\u5ddd\u7b2c+\u5830\u5468\u8fba\u5730\u8cea\u8abf\u67fb\u696d\u52d9","client_name":"\u56fd\u571f\u4ea4\u901a\u7701\u56db\u56fd\u5730\u65b9\u6574\u5099\u5c40\u5fb3\u5cf6\u6cb3\u5ddd\u56fd\u9053\u4e8b\u52d9\u6240","boring_xml_url":40,"boring_view_url":1,"soilmap_view_url":null,"soiltest_xml_url":0,"soiltest_view_url":0},{"id":199702,"code":"B4KJ201801008-7951","latitude":"34.10167306","longitude":"134.4858994","source_code":"SK51341319003","project_name":"","survey_name":"\u89d2\u30ce\u702c\u6a0b\u9580\u7b87\u6240\u5730\u8cea\u8abf\u67fb","client_name":"\u56fd\u571f\u4ea4\u901a\u7701\u56db\u56fd\u5730\u65b9\u6574\u5099\u5c40\u5fb3\u5cf6\u6cb3\u5ddd\u56fd\u9053\u4e8b\u52d9\u6240","boring_xml_url":40,"boring_view_url":1,"soilmap_view_url":null,"soiltest_xml_url":0,"soiltest_view_url":0},{"id":199701,"code":"B4KJ201801008-7950","latitude":"34.08370444","longitude":"134.5482556","source_code":"SK51340494001","project_name":"","survey_name":"\u5e73\u62104\u5e74\u5ea6\u65b0\u753a\u5ddd\u6d44\u5316\u5bfe\u7b56\u65bd\u8a2d\u6982\u7565\u8a2d\u8a08\u696d\u52d9\u59d4\u8a17","client_name":"\u56fd\u571f\u4ea4\u901a\u7701\u56db\u56fd\u5730\u65b9\u6574\u5099\u5c40\u5fb3\u5cf6\u6cb3\u5ddd\u56fd\u9053\u4e8b\u52d9\u6240","boring_xml_url":40,"boring_view_url":1,"soilmap_view_url":null,"soiltest_xml_url":0,"soiltest_view_url":0},{"id":199700,"code":"B4KJ201801008-7949","latitude":"34.08484278","longitude":"134.5358956","source_code":"SK51340493002","project_name":"","survey_name":"\u5e73\u62104\u5e74\u5ea6\u65b0\u753a\u5ddd\u6d44\u5316\u5bfe\u7b56\u65bd\u8a2d\u6982\u7565\u8a2d\u8a08\u696d\u52d9\u59d4\u8a17","client_name":"\u56fd\u571f\u4ea4\u901a\u7701\u56db\u56fd\u5730\u65b9\u6574\u5099\u5c40\u5fb3\u5cf6\u6cb3\u5ddd\u56fd\u9053\u4e8b\u52d9\u6240","boring_xml_url":40,"boring_view_url":1,"soilmap_view_url":null,"soiltest_xml_url":0,"soiltest_view_url":0},{"id":199699,"code":"B4KJ201801008-7948","latitude":"34.0787325","longitude":"134.5433953","source_code":"SK51340493001","project_name":"","survey_name":"\u5e73\u62104\u5e74\u5ea6\u65b0\u753a\u5ddd\u6d44\u5316\u5bfe\u7b56\u65bd\u8a2d\u6982\u7565\u8a2d\u8a08\u696d\u52d9\u59d4\u8a17","client_name":"\u56fd\u571f\u4ea4\u901a\u7701\u56db\u56fd\u5730\u65b9\u6574\u5099\u5c40\u5fb3\u5cf6\u6cb3\u5ddd\u56fd\u9053\u4e8b\u52d9\u6240","boring_xml_url":40,"boring_view_url":1,"soilmap_view_url":null,"soiltest_xml_url":0,"soiltest_view_url":0},{"id":199698,"code":"B4KJ201801008-7947","latitude":"34.07170583","longitude":"134.5583386","source_code":"SK51340484002","project_name":"","survey_name":"\u5e73\u62107\u5e74\u5ea6\u4f50\u53e4\u5927\u6a4b\u59161\u4ef6\u5730\u8cea\u8abf\u67fb\u696d\u52d9","client_name":"\u56fd\u571f\u4ea4\u901a\u7701\u56db\u56fd\u5730\u65b9\u6574\u5099\u5c40\u5fb3\u5cf6\u6cb3\u5ddd\u56fd\u9053\u4e8b\u52d9\u6240","boring_xml_url":40,"boring_view_url":1,"soilmap_view_url":null,"soiltest_xml_url":0,"soiltest_view_url":0},{"id":199697,"code":"B4KJ201801008-7946","latitude":"34.07312222","longitude":"134.5489503","source_code":"SK51340484001","project_name":"","survey_name":"\u5e73\u62104\u5e74\u5ea6\u5143\u753a\u6a2a\u65ad\u6b69\u9053\u6a4b\u30a8\u30ec\u30d9\u30fc\u30bf\u30fc\u8a2d\u7f6e\u5de5\u4e8b\u5730\u8cea\u8abf\u67fb\u8abf\u67fb","client_name":"\u56fd\u571f\u4ea4\u901a\u7701\u56db\u56fd\u5730\u65b9\u6574\u5099\u5c40\u5fb3\u5cf6\u6cb3\u5ddd\u56fd\u9053\u4e8b\u52d9\u6240","boring_xml_url":40,"boring_view_url":1,"soilmap_view_url":null,"soiltest_xml_url":0,"soiltest_view_url":0},{"id":199696,"code":"B4KJ201801008-7945","latitude":"34.077205","longitude":"134.5428397","source_code":"SK51340483002","project_name":"","survey_name":"\u5e73\u62107\u5e74\u5ea6\u4f50\u53e4\u5927\u6a4b\u59161\u4ef6\u5730\u8cea\u8abf\u67fb\u696d\u52d9","client_name":"\u56fd\u571f\u4ea4\u901a\u7701\u56db\u56fd\u5730\u65b9\u6574\u5099\u5c40\u5fb3\u5cf6\u6cb3\u5ddd\u56fd\u9053\u4e8b\u52d9\u6240","boring_xml_url":40,"boring_view_url":1,"soilmap_view_url":null,"soiltest_xml_url":0,"soiltest_view_url":0},{"id":199695,"code":"B4KJ201801008-7944","latitude":"34.07676056","longitude":"134.5439508","source_code":"SK51340483001","project_name":"","survey_name":"\u5e73\u62107\u5e74\u5ea6\u4f50\u53e4\u5927\u6a4b\u59161\u4ef6\u5730\u8cea\u8abf\u67fb\u696d\u52d9","client_name":"\u56fd\u571f\u4ea4\u901a\u7701\u56db\u56fd\u5730\u65b9\u6574\u5099\u5c40\u5fb3\u5cf6\u6cb3\u5ddd\u56fd\u9053\u4e8b\u52d9\u6240","boring_xml_url":40,"boring_view_url":1,"soilmap_view_url":null,"soiltest_xml_url":0,"soiltest_view_url":0},{"id":199694,"code":"B4KJ201801008-7943","latitude":"34.05362444","longitude":"134.5532561","source_code":"SK51340464014","project_name":"","survey_name":"\u662d\u548c53\u5e74\u5ea6\u5fb3\u5cf6\u5357\u30d0\u30a4\u30d1\u30b9\u516b\u4e07\u6771\u5730\u533a\u5730\u8cea\u8abf\u67fb\u696d\u52d9","client_name":"\u56fd\u571f\u4ea4\u901a\u7701\u56db\u56fd\u5730\u65b9\u6574\u5099\u5c40\u5fb3\u5cf6\u6cb3\u5ddd\u56fd\u9053\u4e8b\u52d9\u6240","boring_xml_url":40,"boring_view_url":1,"soilmap_view_url":null,"soiltest_xml_url":0,"soiltest_view_url":0},{"id":199693,"code":"B4KJ201801008-7942","latitude":"34.05262472","longitude":"134.553395","source_code":"SK51340454004","project_name":"","survey_name":"\u662d\u548c54\u5e74\u5ea6\u5fb3\u5cf6\u5357\u30d0\u30a4\u30d1\u30b9\u5357\u6d5c\u5730\u533a\u5730\u8cea\u8abf\u67fb\u696d\u52d9","client_name":"\u56fd\u571f\u4ea4\u901a\u7701\u56db\u56fd\u5730\u65b9\u6574\u5099\u5c40\u5fb3\u5cf6\u6cb3\u5ddd\u56fd\u9053\u4e8b\u52d9\u6240","boring_xml_url":40,"boring_view_url":1,"soilmap_view_url":null,"soiltest_xml_url":0,"soiltest_view_url":0},{"id":199692,"code":"B4KJ201801008-7941","latitude":"34.05262472","longitude":"134.553395","source_code":"SK51340454003","project_name":"","survey_name":"\u662d\u548c54\u5e74\u5ea6\u5fb3\u5cf6\u5357\u30d0\u30a4\u30d1\u30b9\u5357\u6d5c\u5730\u533a\u5730\u8cea\u8abf\u67fb\u696d\u52d9","client_name":"\u56fd\u571f\u4ea4\u901a\u7701\u56db\u56fd\u5730\u65b9\u6574\u5099\u5c40\u5fb3\u5cf6\u6cb3\u5ddd\u56fd\u9053\u4e8b\u52d9\u6240","boring_xml_url":40,"boring_view_url":1,"soilmap_view_url":null,"soiltest_xml_url":0,"soiltest_view_url":0},{"id":199691,"code":"B4KJ201801008-7940","latitude":"34.05048583","longitude":"134.5516175","source_code":"SK51340454002","project_name":"","survey_name":"\u662d\u548c53\u5e74\u5ea6\u5fb3\u5cf6\u5357\u30d0\u30a4\u30d1\u30b9\u516b\u4e07\u6771\u5730\u533a\u5730\u8cea\u8abf\u67fb\u696d\u52d9","client_name":"\u56fd\u571f\u4ea4\u901a\u7701\u56db\u56fd\u5730\u65b9\u6574\u5099\u5c40\u5fb3\u5cf6\u6cb3\u5ddd\u56fd\u9053\u4e8b\u52d9\u6240","boring_xml_url":40,"boring_view_url":1,"soilmap_view_url":null,"soiltest_xml_url":0,"soiltest_view_url":0},{"id":199690,"code":"B4KJ201801008-7939","latitude":"34.05226361","longitude":"134.5528397","source_code":"SK51340454001","project_name":"","survey_name":"\u662d\u548c53\u5e74\u5ea6\u5fb3\u5cf6\u5357\u30d0\u30a4\u30d1\u30b9\u516b\u4e07\u6771\u5730\u533a\u5730\u8cea\u8abf\u67fb\u696d\u52d9","client_name":"\u56fd\u571f\u4ea4\u901a\u7701\u56db\u56fd\u5730\u65b9\u6574\u5099\u5c40\u5fb3\u5cf6\u6cb3\u5ddd\u56fd\u9053\u4e8b\u52d9\u6240","boring_xml_url":40,"boring_view_url":1,"soilmap_view_url":null,"soiltest_xml_url":0,"soiltest_view_url":0},{"id":199689,"code":"B4KJ201801008-7938","latitude":"34.04268139","longitude":"134.55134","source_code":"SK51340444009","project_name":"","survey_name":"\u5e73\u621012\u5e74\u5ea6\u6cd5\u82b1\u8c37\u5730\u533a\u5730\u8cea\u8abf\u67fb\u696d\u52d9","client_name":"\u56fd\u571f\u4ea4\u901a\u7701\u56db\u56fd\u5730\u65b9\u6574\u5099\u5c40\u5fb3\u5cf6\u6cb3\u5ddd\u56fd\u9053\u4e8b\u52d9\u6240","boring_xml_url":40,"boring_view_url":1,"soilmap_view_url":null,"soiltest_xml_url":0,"soiltest_view_url":0},{"id":199688,"code":"B4KJ201801008-7937","latitude":"34.04240333","longitude":"134.5495069","source_code":"SK51340444008","project_name":"","survey_name":"\u5e73\u621012\u5e74\u5ea6\u6cd5\u82b1\u8c37\u5730\u533a\u5730\u8cea\u8abf\u67fb\u696d\u52d9","client_name":"\u56fd\u571f\u4ea4\u901a\u7701\u56db\u56fd\u5730\u65b9\u6574\u5099\u5c40\u5fb3\u5cf6\u6cb3\u5ddd\u56fd\u9053\u4e8b\u52d9\u6240","boring_xml_url":40,"boring_view_url":1,"soilmap_view_url":null,"soiltest_xml_url":0,"soiltest_view_url":0},{"id":199687,"code":"B4KJ201801008-7936","latitude":"34.04140333","longitude":"134.5379803","source_code":"SK51340443012","project_name":"","survey_name":"\u5e73\u62109\u5e74\u5ea6\u5fb3\u5cf6\u5357\u74b0\u72b6\u9053\u8def8\u5de5\u533a\u5730\u8cea\u8abf\u67fb\u696d\u52d9","client_name":"\u56fd\u571f\u4ea4\u901a\u7701\u56db\u56fd\u5730\u65b9\u6574\u5099\u5c40\u5fb3\u5cf6\u6cb3\u5ddd\u56fd\u9053\u4e8b\u52d9\u6240","boring_xml_url":40,"boring_view_url":1,"soilmap_view_url":null,"soiltest_xml_url":0,"soiltest_view_url":0},{"id":199686,"code":"B4KJ201801008-7935","latitude":"34.04162556","longitude":"134.5390633","source_code":"SK51340443011","project_name":"","survey_name":"\u5e73\u62109\u5e74\u5ea6\u5fb3\u5cf6\u5357\u74b0\u72b6\u9053\u8def8\u5de5\u533a\u5730\u8cea\u8abf\u67fb\u696d\u52d9","client_name":"\u56fd\u571f\u4ea4\u901a\u7701\u56db\u56fd\u5730\u65b9\u6574\u5099\u5c40\u5fb3\u5cf6\u6cb3\u5ddd\u56fd\u9053\u4e8b\u52d9\u6240","boring_xml_url":40,"boring_view_url":1,"soilmap_view_url":null,"soiltest_xml_url":0,"soiltest_view_url":0},{"id":199685,"code":"B4KJ201801008-7934","latitude":"34.04140333","longitude":"134.5379803","source_code":"SK51340443010","project_name":"","survey_name":"\u5e73\u62109\u5e74\u5ea6\u5fb3\u5cf6\u5357\u74b0\u72b6\u9053\u8def8\u5de5\u533a\u5730\u8cea\u8abf\u67fb\u696d\u52d9","client_name":"\u56fd\u571f\u4ea4\u901a\u7701\u56db\u56fd\u5730\u65b9\u6574\u5099\u5c40\u5fb3\u5cf6\u6cb3\u5ddd\u56fd\u9053\u4e8b\u52d9\u6240","boring_xml_url":40,"boring_view_url":1,"soilmap_view_url":null,"soiltest_xml_url":0,"soiltest_view_url":0},{"id":199684,"code":"B4KJ201801008-7933","latitude":"34.04157","longitude":"134.5368969","source_code":"SK51340443006","project_name":"","survey_name":"\u5e73\u621012\u5e74\u5ea6\u6cd5\u82b1\u8c37\u5730\u533a\u5730\u8cea\u8abf\u67fb\u696d\u52d9","client_name":"\u56fd\u571f\u4ea4\u901a\u7701\u56db\u56fd\u5730\u65b9\u6574\u5099\u5c40\u5fb3\u5cf6\u6cb3\u5ddd\u56fd\u9053\u4e8b\u52d9\u6240","boring_xml_url":40,"boring_view_url":1,"soilmap_view_url":null,"soiltest_xml_url":0,"soiltest_view_url":0},{"id":199683,"code":"B4KJ201801008-7932","latitude":"34.04143111","longitude":"134.5356747","source_code":"SK51340443005","project_name":"","survey_name":"\u5e73\u621012\u5e74\u5ea6\u6cd5\u82b1\u8c37\u5730\u533a\u5730\u8cea\u8abf\u67fb\u696d\u52d9","client_name":"\u56fd\u571f\u4ea4\u901a\u7701\u56db\u56fd\u5730\u65b9\u6574\u5099\u5c40\u5fb3\u5cf6\u6cb3\u5ddd\u56fd\u9053\u4e8b\u52d9\u6240","boring_xml_url":40,"boring_view_url":1,"soilmap_view_url":null,"soiltest_xml_url":0,"soiltest_view_url":0},{"id":199682,"code":"B4KJ201801008-7931","latitude":"34.04170889","longitude":"134.533925","source_code":"SK51340442045","project_name":"","survey_name":"\u5e73\u621012\u5e74\u5ea6\u6cd5\u82b1\u8c37\u5730\u533a\u5730\u8cea\u8abf\u67fb\u696d\u52d9","client_name":"\u56fd\u571f\u4ea4\u901a\u7701\u56db\u56fd\u5730\u65b9\u6574\u5099\u5c40\u5fb3\u5cf6\u6cb3\u5ddd\u56fd\u9053\u4e8b\u52d9\u6240","boring_xml_url":40,"boring_view_url":1,"soilmap_view_url":null,"soiltest_xml_url":0,"soiltest_view_url":0},{"id":199681,"code":"B4KJ201801008-7930","latitude":"34.03995889","longitude":"134.5267311","source_code":"SK51340442044","project_name":"","survey_name":"\u5e73\u621012\u5e74\u5ea6\u5fb3\u5cf6\u5357\u74b0\u72b6\u9053\u8def8\u5de5\u533a\u5730\u8cea\u8abf\u67fb\u696d\u52d9","client_name":"\u56fd\u571f\u4ea4\u901a\u7701\u56db\u56fd\u5730\u65b9\u6574\u5099\u5c40\u5fb3\u5cf6\u6cb3\u5ddd\u56fd\u9053\u4e8b\u52d9\u6240","boring_xml_url":40,"boring_view_url":1,"soilmap_view_url":null,"soiltest_xml_url":0,"soiltest_view_url":0},{"id":199680,"code":"B4KJ201801008-7929","latitude":"34.04090333","longitude":"134.5335361","source_code":"SK51340442043","project_name":"","survey_name":"\u5e73\u621012\u5e74\u5ea6\u6cd5\u82b1\u8c37\u5730\u533a\u5730\u8cea\u8abf\u67fb\u696d\u52d9","client_name":"\u56fd\u571f\u4ea4\u901a\u7701\u56db\u56fd\u5730\u65b9\u6574\u5099\u5c40\u5fb3\u5cf6\u6cb3\u5ddd\u56fd\u9053\u4e8b\u52d9\u6240","boring_xml_url":40,"boring_view_url":1,"soilmap_view_url":null,"soiltest_xml_url":0,"soiltest_view_url":0},{"id":199679,"code":"B4KJ201801008-7928","latitude":"34.03995889","longitude":"134.5267311","source_code":"SK51340442042","project_name":"","survey_name":"\u5e73\u621012\u5e74\u5ea6\u5fb3\u5cf6\u5357\u74b0\u72b6\u9053\u8def8\u5de5\u533a\u5730\u8cea\u8abf\u67fb\u696d\u52d9","client_name":"\u56fd\u571f\u4ea4\u901a\u7701\u56db\u56fd\u5730\u65b9\u6574\u5099\u5c40\u5fb3\u5cf6\u6cb3\u5ddd\u56fd\u9053\u4e8b\u52d9\u6240","boring_xml_url":40,"boring_view_url":1,"soilmap_view_url":null,"soiltest_xml_url":0,"soiltest_view_url":0},{"id":199678,"code":"B4KJ201801008-7927","latitude":"34.04115333","longitude":"134.5329806","source_code":"SK51340442041","project_name":"","survey_name":"\u5e73\u621012\u5e74\u5ea6\u6cd5\u82b1\u8c37\u5730\u533a\u5730\u8cea\u8abf\u67fb\u696d\u52d9","client_name":"\u56fd\u571f\u4ea4\u901a\u7701\u56db\u56fd\u5730\u65b9\u6574\u5099\u5c40\u5fb3\u5cf6\u6cb3\u5ddd\u56fd\u9053\u4e8b\u52d9\u6240","boring_xml_url":40,"boring_view_url":1,"soilmap_view_url":null,"soiltest_xml_url":0,"soiltest_view_url":0},{"id":199677,"code":"B4KJ201801008-7926","latitude":"34.03995889","longitude":"134.5264533","source_code":"SK51340442040","project_name":"","survey_name":"\u5e73\u621012\u5e74\u5ea6\u5fb3\u5cf6\u5357\u74b0\u72b6\u9053\u8def8\u5de5\u533a\u5730\u8cea\u8abf\u67fb\u696d\u52d9","client_name":"\u56fd\u571f\u4ea4\u901a\u7701\u56db\u56fd\u5730\u65b9\u6574\u5099\u5c40\u5fb3\u5cf6\u6cb3\u5ddd\u56fd\u9053\u4e8b\u52d9\u6240","boring_xml_url":40,"boring_view_url":1,"soilmap_view_url":null,"soiltest_xml_url":0,"soiltest_view_url":0},{"id":199676,"code":"B4KJ201801008-7925","latitude":"34.04079222","longitude":"134.5295086","source_code":"SK51340442039","project_name":"","survey_name":"\u5e73\u621012\u5e74\u5ea6\u5fb3\u5cf6\u5357\u74b0\u72b6\u9053\u8def8\u5de5\u533a\u5730\u8cea\u8abf\u67fb\u696d\u52d9","client_name":"\u56fd\u571f\u4ea4\u901a\u7701\u56db\u56fd\u5730\u65b9\u6574\u5099\u5c40\u5fb3\u5cf6\u6cb3\u5ddd\u56fd\u9053\u4e8b\u52d9\u6240","boring_xml_url":40,"boring_view_url":1,"soilmap_view_url":null,"soiltest_xml_url":0,"soiltest_view_url":0}]}}