{"header":{"xyz":{"source":[],"mosaic":false},"page":4033,"raw":{"soiltest_result":"0","bbox":"57.598333,109.544722,1.933333,163.806111","page":"4033"},"conditions":{"soiltest_result":0,"north":57.598333,"west":109.544722,"south":1.933333,"east":163.806111},"success":true,"message":""},"data":{"meta":{"total":212844,"page":4033,"pages":7095,"count":30},"values":[{"id":199585,"code":"B4KJ201801008-7834","latitude":"34.26969861","longitude":"133.9822719","source_code":"SK51333718008","project_name":"","survey_name":"\u662d\u548c62\u5e74\u5ea6\u7dbe\u5357\u30d0\u30a4\u30d1\u30b9(\u56fd\u5206\u5bfa\u753a)\u5730\u8cea\u8abf\u67fb\u696d\u52d9","client_name":"\u56fd\u571f\u4ea4\u901a\u7701\u56db\u56fd\u5730\u65b9\u6574\u5099\u5c40\u9999\u5ddd\u6cb3\u5ddd\u56fd\u9053\u4e8b\u52d9\u6240","boring_xml_url":40,"boring_view_url":1,"soilmap_view_url":null,"soiltest_xml_url":0,"soiltest_view_url":0},{"id":199584,"code":"B4KJ201801008-7833","latitude":"34.26978194","longitude":"133.9824664","source_code":"SK51333718007","project_name":"","survey_name":"\u662d\u548c62\u5e74\u5ea6\u7dbe\u5357\u30d0\u30a4\u30d1\u30b9(\u56fd\u5206\u5bfa\u753a)\u5730\u8cea\u8abf\u67fb\u696d\u52d9","client_name":"\u56fd\u571f\u4ea4\u901a\u7701\u56db\u56fd\u5730\u65b9\u6574\u5099\u5c40\u9999\u5ddd\u6cb3\u5ddd\u56fd\u9053\u4e8b\u52d9\u6240","boring_xml_url":40,"boring_view_url":1,"soilmap_view_url":null,"soiltest_xml_url":0,"soiltest_view_url":0},{"id":199583,"code":"B4KJ201801008-7832","latitude":"34.2693375","longitude":"133.9803","source_code":"SK51333718003","project_name":"","survey_name":"\u7dbe\u5357\u30d0\u30a4\u30d1\u30b9(3\u5de5\u533a)\u5730\u8cea\u8abf\u67fb\u696d\u52d9","client_name":"\u56fd\u571f\u4ea4\u901a\u7701\u56db\u56fd\u5730\u65b9\u6574\u5099\u5c40\u9999\u5ddd\u6cb3\u5ddd\u56fd\u9053\u4e8b\u52d9\u6240","boring_xml_url":40,"boring_view_url":1,"soilmap_view_url":null,"soiltest_xml_url":0,"soiltest_view_url":0},{"id":199582,"code":"B4KJ201801008-7831","latitude":"34.26914306","longitude":"133.9822164","source_code":"SK51333718002","project_name":"","survey_name":"\u7dbe\u5357\u30d0\u30a4\u30d1\u30b9(3\u5de5\u533a)\u5730\u8cea\u8abf\u67fb\u696d\u52d9","client_name":"\u56fd\u571f\u4ea4\u901a\u7701\u56db\u56fd\u5730\u65b9\u6574\u5099\u5c40\u9999\u5ddd\u6cb3\u5ddd\u56fd\u9053\u4e8b\u52d9\u6240","boring_xml_url":40,"boring_view_url":1,"soilmap_view_url":null,"soiltest_xml_url":0,"soiltest_view_url":0},{"id":199581,"code":"B4KJ201801008-7830","latitude":"34.26900417","longitude":"133.9843272","source_code":"SK51333718001","project_name":"","survey_name":"\u7dbe\u5357\u30d0\u30a4\u30d1\u30b9(3\u5de5\u533a)\u5730\u8cea\u8abf\u67fb\u696d\u52d9","client_name":"\u56fd\u571f\u4ea4\u901a\u7701\u56db\u56fd\u5730\u65b9\u6574\u5099\u5c40\u9999\u5ddd\u6cb3\u5ddd\u56fd\u9053\u4e8b\u52d9\u6240","boring_xml_url":40,"boring_view_url":1,"soilmap_view_url":null,"soiltest_xml_url":0,"soiltest_view_url":0},{"id":199580,"code":"B4KJ201801008-7829","latitude":"34.25325528","longitude":"133.9470533","source_code":"SK51333705010","project_name":"","survey_name":"\u662d\u548c50\u5e74\u5ea6\u7dbe\u5357\u30d0\u30a4\u30d1\u30b9(\u9676\u5730\u533a)\u5730\u8cea\u8abf\u67fb","client_name":"\u56fd\u571f\u4ea4\u901a\u7701\u56db\u56fd\u5730\u65b9\u6574\u5099\u5c40\u9999\u5ddd\u6cb3\u5ddd\u56fd\u9053\u4e8b\u52d9\u6240","boring_xml_url":40,"boring_view_url":1,"soilmap_view_url":null,"soiltest_xml_url":0,"soiltest_view_url":0},{"id":199579,"code":"B4KJ201801008-7828","latitude":"34.25325528","longitude":"133.9470533","source_code":"SK51333705008","project_name":"","survey_name":"\u662d\u548c50\u5e74\u5ea6\u7dbe\u5357\u30d0\u30a4\u30d1\u30b9(\u9676\u5730\u533a)\u5730\u8cea\u8abf\u67fb","client_name":"\u56fd\u571f\u4ea4\u901a\u7701\u56db\u56fd\u5730\u65b9\u6574\u5099\u5c40\u9999\u5ddd\u6cb3\u5ddd\u56fd\u9053\u4e8b\u52d9\u6240","boring_xml_url":40,"boring_view_url":1,"soilmap_view_url":null,"soiltest_xml_url":0,"soiltest_view_url":0},{"id":199578,"code":"B4KJ201801008-7827","latitude":"34.25325528","longitude":"133.9470533","source_code":"SK51333705005","project_name":"","survey_name":"\u662d\u548c50\u5e74\u5ea6\u7dbe\u5357\u30d0\u30a4\u30d1\u30b9(\u9676\u5730\u533a)\u5730\u8cea\u8abf\u67fb","client_name":"\u56fd\u571f\u4ea4\u901a\u7701\u56db\u56fd\u5730\u65b9\u6574\u5099\u5c40\u9999\u5ddd\u6cb3\u5ddd\u56fd\u9053\u4e8b\u52d9\u6240","boring_xml_url":40,"boring_view_url":1,"soilmap_view_url":null,"soiltest_xml_url":0,"soiltest_view_url":0},{"id":199577,"code":"B4KJ201801008-7826","latitude":"34.25325528","longitude":"133.9470533","source_code":"SK51333705004","project_name":"","survey_name":"\u662d\u548c50\u5e74\u5ea6\u7dbe\u5357\u30d0\u30a4\u30d1\u30b9(\u9676\u5730\u533a)\u5730\u8cea\u8abf\u67fb","client_name":"\u56fd\u571f\u4ea4\u901a\u7701\u56db\u56fd\u5730\u65b9\u6574\u5099\u5c40\u9999\u5ddd\u6cb3\u5ddd\u56fd\u9053\u4e8b\u52d9\u6240","boring_xml_url":40,"boring_view_url":1,"soilmap_view_url":null,"soiltest_xml_url":0,"soiltest_view_url":0},{"id":199576,"code":"B4KJ201801008-7825","latitude":"34.25325528","longitude":"133.9470533","source_code":"SK51333705003","project_name":"","survey_name":"\u662d\u548c50\u5e74\u5ea6\u7dbe\u5357\u30d0\u30a4\u30d1\u30b9(\u9676\u5730\u533a)\u5730\u8cea\u8abf\u67fb","client_name":"\u56fd\u571f\u4ea4\u901a\u7701\u56db\u56fd\u5730\u65b9\u6574\u5099\u5c40\u9999\u5ddd\u6cb3\u5ddd\u56fd\u9053\u4e8b\u52d9\u6240","boring_xml_url":40,"boring_view_url":1,"soilmap_view_url":null,"soiltest_xml_url":0,"soiltest_view_url":0},{"id":199575,"code":"B4KJ201801008-7824","latitude":"34.25325528","longitude":"133.9470533","source_code":"SK51333705002","project_name":"","survey_name":"\u662d\u548c50\u5e74\u5ea6\u7dbe\u5357\u30d0\u30a4\u30d1\u30b9(\u9676\u5730\u533a)\u5730\u8cea\u8abf\u67fb","client_name":"\u56fd\u571f\u4ea4\u901a\u7701\u56db\u56fd\u5730\u65b9\u6574\u5099\u5c40\u9999\u5ddd\u6cb3\u5ddd\u56fd\u9053\u4e8b\u52d9\u6240","boring_xml_url":40,"boring_view_url":1,"soilmap_view_url":null,"soiltest_xml_url":0,"soiltest_view_url":0},{"id":199574,"code":"B4KJ201801008-7823","latitude":"34.25325528","longitude":"133.9470533","source_code":"SK51333705001","project_name":"","survey_name":"\u662d\u548c50\u5e74\u5ea6\u7dbe\u5357\u30d0\u30a4\u30d1\u30b9(\u9676\u5730\u533a)\u5730\u8cea\u8abf\u67fb","client_name":"\u56fd\u571f\u4ea4\u901a\u7701\u56db\u56fd\u5730\u65b9\u6574\u5099\u5c40\u9999\u5ddd\u6cb3\u5ddd\u56fd\u9053\u4e8b\u52d9\u6240","boring_xml_url":40,"boring_view_url":1,"soilmap_view_url":null,"soiltest_xml_url":0,"soiltest_view_url":0},{"id":199573,"code":"B4KJ201801008-7822","latitude":"34.31844056","longitude":"133.8702803","source_code":"SK51333679001","project_name":"","survey_name":"\u662d\u548c50\u5e74\u5ea6\u5730\u8cea\u8abf\u67fb\u53ca\u3073\u6b69\u9053\u6a4b\u6dfb\u67b6\u8a2d\u8a08","client_name":"\u56fd\u571f\u4ea4\u901a\u7701\u56db\u56fd\u5730\u65b9\u6574\u5099\u5c40\u9999\u5ddd\u6cb3\u5ddd\u56fd\u9053\u4e8b\u52d9\u6240","boring_xml_url":40,"boring_view_url":1,"soilmap_view_url":null,"soiltest_xml_url":0,"soiltest_view_url":0},{"id":199572,"code":"B4KJ201801008-7821","latitude":"34.30146972","longitude":"133.8481717","source_code":"SK51333658004","project_name":"","survey_name":"\u5742\u51fa\u4e38\u4e80\u30d0\u30a4\u30d1\u30b9(13\u5de5\u533a)\u5730\u8cea\u8abf\u67fb\u696d\u52d9","client_name":"\u56fd\u571f\u4ea4\u901a\u7701\u56db\u56fd\u5730\u65b9\u6574\u5099\u5c40\u9999\u5ddd\u6cb3\u5ddd\u56fd\u9053\u4e8b\u52d9\u6240","boring_xml_url":40,"boring_view_url":1,"soilmap_view_url":null,"soiltest_xml_url":0,"soiltest_view_url":0},{"id":199571,"code":"B4KJ201801008-7820","latitude":"34.30146972","longitude":"133.8481717","source_code":"SK51333658003","project_name":"","survey_name":"\u5742\u51fa\u4e38\u4e80\u30d0\u30a4\u30d1\u30b9(13\u5de5\u533a)\u5730\u8cea\u8abf\u67fb\u696d\u52d9","client_name":"\u56fd\u571f\u4ea4\u901a\u7701\u56db\u56fd\u5730\u65b9\u6574\u5099\u5c40\u9999\u5ddd\u6cb3\u5ddd\u56fd\u9053\u4e8b\u52d9\u6240","boring_xml_url":40,"boring_view_url":1,"soilmap_view_url":null,"soiltest_xml_url":0,"soiltest_view_url":0},{"id":199570,"code":"B4KJ201801008-7819","latitude":"34.30033111","longitude":"133.8463108","source_code":"SK51333657030","project_name":"","survey_name":"\u662d\u548c61\u5e74\u5ea6\u5742\u4e38\u30fb\u5186\u5ea7\u30d0\u30a4\u30d1\u30b9\u5730\u8cea\u8abf\u67fb\u696d\u52d9","client_name":"\u56fd\u571f\u4ea4\u901a\u7701\u56db\u56fd\u5730\u65b9\u6574\u5099\u5c40\u9999\u5ddd\u6cb3\u5ddd\u56fd\u9053\u4e8b\u52d9\u6240","boring_xml_url":40,"boring_view_url":1,"soilmap_view_url":null,"soiltest_xml_url":0,"soiltest_view_url":0},{"id":199569,"code":"B4KJ201801008-7818","latitude":"34.30044194","longitude":"133.8467831","source_code":"SK51333657029","project_name":"","survey_name":"\u662d\u548c61\u5e74\u5ea6\u5742\u4e38\u30fb\u5186\u5ea7\u30d0\u30a4\u30d1\u30b9\u5730\u8cea\u8abf\u67fb\u696d\u52d9","client_name":"\u56fd\u571f\u4ea4\u901a\u7701\u56db\u56fd\u5730\u65b9\u6574\u5099\u5c40\u9999\u5ddd\u6cb3\u5ddd\u56fd\u9053\u4e8b\u52d9\u6240","boring_xml_url":40,"boring_view_url":1,"soilmap_view_url":null,"soiltest_xml_url":0,"soiltest_view_url":0},{"id":199568,"code":"B4KJ201801008-7817","latitude":"34.29666389","longitude":"133.8110086","source_code":"SK51333655001","project_name":"","survey_name":"\u571f\u5668\u5ddd\u5730\u4e0b\u6c34\u5f71\u97ff\u8abf\u67fb","client_name":"\u56fd\u571f\u4ea4\u901a\u7701\u56db\u56fd\u5730\u65b9\u6574\u5099\u5c40\u9999\u5ddd\u6cb3\u5ddd\u56fd\u9053\u4e8b\u52d9\u6240","boring_xml_url":40,"boring_view_url":1,"soilmap_view_url":null,"soiltest_xml_url":0,"soiltest_view_url":0},{"id":199567,"code":"B4KJ201801008-7816","latitude":"34.29852472","longitude":"133.80512","source_code":"SK51333654004","project_name":"","survey_name":"\u5e73\u621011\u5e74\u5ea6\u571f\u5668\u5ddd\u5824\u9632\u571f\u8cea\u8abf\u67fb\u696d\u52d9\u59d4\u8a17","client_name":"\u56fd\u571f\u4ea4\u901a\u7701\u56db\u56fd\u5730\u65b9\u6574\u5099\u5c40\u9999\u5ddd\u6cb3\u5ddd\u56fd\u9053\u4e8b\u52d9\u6240","boring_xml_url":40,"boring_view_url":1,"soilmap_view_url":null,"soiltest_xml_url":0,"soiltest_view_url":0},{"id":199566,"code":"B4KJ201801008-7815","latitude":"34.29838583","longitude":"133.8049811","source_code":"SK51333654003","project_name":"","survey_name":"\u5e73\u621011\u5e74\u5ea6\u571f\u5668\u5ddd\u5824\u9632\u571f\u8cea\u8abf\u67fb\u696d\u52d9\u59d4\u8a17","client_name":"\u56fd\u571f\u4ea4\u901a\u7701\u56db\u56fd\u5730\u65b9\u6574\u5099\u5c40\u9999\u5ddd\u6cb3\u5ddd\u56fd\u9053\u4e8b\u52d9\u6240","boring_xml_url":40,"boring_view_url":1,"soilmap_view_url":null,"soiltest_xml_url":0,"soiltest_view_url":0},{"id":199565,"code":"B4KJ201801008-7814","latitude":"34.29608056","longitude":"133.8073978","source_code":"SK51333654001","project_name":"","survey_name":"\u571f\u5668\u5ddd\u5730\u4e0b\u6c34\u5f71\u97ff\u8abf\u67fb","client_name":"\u56fd\u571f\u4ea4\u901a\u7701\u56db\u56fd\u5730\u65b9\u6574\u5099\u5c40\u9999\u5ddd\u6cb3\u5ddd\u56fd\u9053\u4e8b\u52d9\u6240","boring_xml_url":40,"boring_view_url":1,"soilmap_view_url":null,"soiltest_xml_url":0,"soiltest_view_url":0},{"id":199564,"code":"B4KJ201801008-7813","latitude":"34.28674861","longitude":"133.8146197","source_code":"SK51333645005","project_name":"","survey_name":"\u5e73\u62109\u5e74\u5ea6\u571f\u5668\u5ddd\u5824\u9632\u571f\u8cea\u8abf\u67fb\u696d\u52d9","client_name":"\u56fd\u571f\u4ea4\u901a\u7701\u56db\u56fd\u5730\u65b9\u6574\u5099\u5c40\u9999\u5ddd\u6cb3\u5ddd\u56fd\u9053\u4e8b\u52d9\u6240","boring_xml_url":40,"boring_view_url":1,"soilmap_view_url":null,"soiltest_xml_url":0,"soiltest_view_url":0},{"id":199563,"code":"B4KJ201801008-7812","latitude":"34.29413639","longitude":"133.8099808","source_code":"SK51333645002","project_name":"","survey_name":"\u571f\u5668\u5ddd\u5730\u4e0b\u6c34\u5f71\u97ff\u8abf\u67fb","client_name":"\u56fd\u571f\u4ea4\u901a\u7701\u56db\u56fd\u5730\u65b9\u6574\u5099\u5c40\u9999\u5ddd\u6cb3\u5ddd\u56fd\u9053\u4e8b\u52d9\u6240","boring_xml_url":40,"boring_view_url":1,"soilmap_view_url":null,"soiltest_xml_url":0,"soiltest_view_url":0},{"id":199562,"code":"B4KJ201801008-7811","latitude":"34.29272","longitude":"133.8122864","source_code":"SK51333645001","project_name":"","survey_name":"\u571f\u5668\u5ddd\u5730\u4e0b\u6c34\u5f71\u97ff\u8abf\u67fb","client_name":"\u56fd\u571f\u4ea4\u901a\u7701\u56db\u56fd\u5730\u65b9\u6574\u5099\u5c40\u9999\u5ddd\u6cb3\u5ddd\u56fd\u9053\u4e8b\u52d9\u6240","boring_xml_url":40,"boring_view_url":1,"soilmap_view_url":null,"soiltest_xml_url":0,"soiltest_view_url":0},{"id":199561,"code":"B4KJ201801008-7810","latitude":"34.29202556","longitude":"133.8083422","source_code":"SK51333644004","project_name":"","survey_name":"\u571f\u5668\u5ddd\u5730\u4e0b\u6c34\u5f71\u97ff\u8abf\u67fb","client_name":"\u56fd\u571f\u4ea4\u901a\u7701\u56db\u56fd\u5730\u65b9\u6574\u5099\u5c40\u9999\u5ddd\u6cb3\u5ddd\u56fd\u9053\u4e8b\u52d9\u6240","boring_xml_url":40,"boring_view_url":1,"soilmap_view_url":null,"soiltest_xml_url":0,"soiltest_view_url":0},{"id":199560,"code":"B4KJ201801008-7809","latitude":"34.29235889","longitude":"133.8084811","source_code":"SK51333644003","project_name":"","survey_name":"\u571f\u5668\u5ddd\u5730\u4e0b\u6c34\u5f71\u97ff\u8abf\u67fb","client_name":"\u56fd\u571f\u4ea4\u901a\u7701\u56db\u56fd\u5730\u65b9\u6574\u5099\u5c40\u9999\u5ddd\u6cb3\u5ddd\u56fd\u9053\u4e8b\u52d9\u6240","boring_xml_url":40,"boring_view_url":1,"soilmap_view_url":null,"soiltest_xml_url":0,"soiltest_view_url":0},{"id":199559,"code":"B4KJ201801008-7808","latitude":"34.29291444","longitude":"133.8088978","source_code":"SK51333644002","project_name":"","survey_name":"\u571f\u5668\u5ddd\u5730\u4e0b\u6c34\u5f71\u97ff\u8abf\u67fb","client_name":"\u56fd\u571f\u4ea4\u901a\u7701\u56db\u56fd\u5730\u65b9\u6574\u5099\u5c40\u9999\u5ddd\u6cb3\u5ddd\u56fd\u9053\u4e8b\u52d9\u6240","boring_xml_url":40,"boring_view_url":1,"soilmap_view_url":null,"soiltest_xml_url":0,"soiltest_view_url":0},{"id":199558,"code":"B4KJ201801008-7807","latitude":"34.29435861","longitude":"133.8027869","source_code":"SK51333644001","project_name":"","survey_name":"\u571f\u5668\u5ddd\u5730\u4e0b\u6c34\u5f71\u97ff\u8abf\u67fb","client_name":"\u56fd\u571f\u4ea4\u901a\u7701\u56db\u56fd\u5730\u65b9\u6574\u5099\u5c40\u9999\u5ddd\u6cb3\u5ddd\u56fd\u9053\u4e8b\u52d9\u6240","boring_xml_url":40,"boring_view_url":1,"soilmap_view_url":null,"soiltest_xml_url":0,"soiltest_view_url":0},{"id":199557,"code":"B4KJ201801008-7806","latitude":"34.27869417","longitude":"133.8240078","source_code":"SK51333636001","project_name":"","survey_name":"\u8d64\u5c71\u51fa\u6c34\u5730\u4e0b\u6c34\u8abf\u67fb\u696d\u52d9","client_name":"\u56fd\u571f\u4ea4\u901a\u7701\u56db\u56fd\u5730\u65b9\u6574\u5099\u5c40\u9999\u5ddd\u6cb3\u5ddd\u56fd\u9053\u4e8b\u52d9\u6240","boring_xml_url":40,"boring_view_url":1,"soilmap_view_url":null,"soiltest_xml_url":0,"soiltest_view_url":0},{"id":199556,"code":"B4KJ201801008-7805","latitude":"34.28394333","longitude":"133.8144253","source_code":"SK51333635004","project_name":"","survey_name":"\u5e73\u621011\u5e74\u5ea6\u571f\u5668\u5ddd\u5824\u9632\u571f\u8cea\u8abf\u67fb\u696d\u52d9\u59d4\u8a17","client_name":"\u56fd\u571f\u4ea4\u901a\u7701\u56db\u56fd\u5730\u65b9\u6574\u5099\u5c40\u9999\u5ddd\u6cb3\u5ddd\u56fd\u9053\u4e8b\u52d9\u6240","boring_xml_url":40,"boring_view_url":1,"soilmap_view_url":null,"soiltest_xml_url":0,"soiltest_view_url":0}]}}