{"header":{"xyz":{"source":[],"mosaic":false},"page":4039,"raw":{"soiltest_result":"0","bbox":"57.598333,109.544722,1.933333,163.806111","page":"4039"},"conditions":{"soiltest_result":0,"north":57.598333,"west":109.544722,"south":1.933333,"east":163.806111},"success":true,"message":""},"data":{"meta":{"total":212844,"page":4039,"pages":7095,"count":30},"values":[{"id":199405,"code":"B4KJ201801008-7654","latitude":"34.01747278","longitude":"133.7762981","source_code":"SK51330612021","project_name":"","survey_name":"\u662d\u548c50\u5e74\u5ea6192\u53f7\u6cd5\u9762\u8abf\u67fb\u696d\u52d9","client_name":"\u56fd\u571f\u4ea4\u901a\u7701\u56db\u56fd\u5730\u65b9\u6574\u5099\u5c40\u5fb3\u5cf6\u6cb3\u5ddd\u56fd\u9053\u4e8b\u52d9\u6240","boring_xml_url":40,"boring_view_url":1,"soilmap_view_url":null,"soiltest_xml_url":0,"soiltest_view_url":0},{"id":199404,"code":"B4KJ201801008-7653","latitude":"34.01747278","longitude":"133.7762981","source_code":"SK51330612020","project_name":"","survey_name":"\u662d\u548c50\u5e74\u5ea6192\u53f7\u6cd5\u9762\u8abf\u67fb\u696d\u52d9","client_name":"\u56fd\u571f\u4ea4\u901a\u7701\u56db\u56fd\u5730\u65b9\u6574\u5099\u5c40\u5fb3\u5cf6\u6cb3\u5ddd\u56fd\u9053\u4e8b\u52d9\u6240","boring_xml_url":40,"boring_view_url":1,"soilmap_view_url":null,"soiltest_xml_url":0,"soiltest_view_url":0},{"id":199403,"code":"B4KJ201801008-7652","latitude":"34.01747278","longitude":"133.7762981","source_code":"SK51330612019","project_name":"","survey_name":"\u662d\u548c50\u5e74\u5ea6192\u53f7\u6cd5\u9762\u8abf\u67fb\u696d\u52d9","client_name":"\u56fd\u571f\u4ea4\u901a\u7701\u56db\u56fd\u5730\u65b9\u6574\u5099\u5c40\u5fb3\u5cf6\u6cb3\u5ddd\u56fd\u9053\u4e8b\u52d9\u6240","boring_xml_url":40,"boring_view_url":1,"soilmap_view_url":null,"soiltest_xml_url":0,"soiltest_view_url":0},{"id":199402,"code":"B4KJ201801008-7651","latitude":"34.01747278","longitude":"133.7762981","source_code":"SK51330612018","project_name":"","survey_name":"\u662d\u548c50\u5e74\u5ea6192\u53f7\u6cd5\u9762\u8abf\u67fb\u696d\u52d9","client_name":"\u56fd\u571f\u4ea4\u901a\u7701\u56db\u56fd\u5730\u65b9\u6574\u5099\u5c40\u5fb3\u5cf6\u6cb3\u5ddd\u56fd\u9053\u4e8b\u52d9\u6240","boring_xml_url":40,"boring_view_url":1,"soilmap_view_url":null,"soiltest_xml_url":0,"soiltest_view_url":0},{"id":199401,"code":"B4KJ201801008-7650","latitude":"34.01747278","longitude":"133.7762981","source_code":"SK51330612017","project_name":"","survey_name":"\u662d\u548c50\u5e74\u5ea6192\u53f7\u6cd5\u9762\u8abf\u67fb\u696d\u52d9","client_name":"\u56fd\u571f\u4ea4\u901a\u7701\u56db\u56fd\u5730\u65b9\u6574\u5099\u5c40\u5fb3\u5cf6\u6cb3\u5ddd\u56fd\u9053\u4e8b\u52d9\u6240","boring_xml_url":40,"boring_view_url":1,"soilmap_view_url":null,"soiltest_xml_url":0,"soiltest_view_url":0},{"id":199400,"code":"B4KJ201801008-7649","latitude":"34.01747278","longitude":"133.7762981","source_code":"SK51330612016","project_name":"","survey_name":"\u662d\u548c50\u5e74\u5ea6192\u53f7\u6cd5\u9762\u8abf\u67fb\u696d\u52d9","client_name":"\u56fd\u571f\u4ea4\u901a\u7701\u56db\u56fd\u5730\u65b9\u6574\u5099\u5c40\u5fb3\u5cf6\u6cb3\u5ddd\u56fd\u9053\u4e8b\u52d9\u6240","boring_xml_url":40,"boring_view_url":1,"soilmap_view_url":null,"soiltest_xml_url":0,"soiltest_view_url":0},{"id":199399,"code":"B4KJ201801008-7648","latitude":"34.01747278","longitude":"133.7762981","source_code":"SK51330612015","project_name":"","survey_name":"\u662d\u548c50\u5e74\u5ea6192\u53f7\u6cd5\u9762\u8abf\u67fb\u696d\u52d9","client_name":"\u56fd\u571f\u4ea4\u901a\u7701\u56db\u56fd\u5730\u65b9\u6574\u5099\u5c40\u5fb3\u5cf6\u6cb3\u5ddd\u56fd\u9053\u4e8b\u52d9\u6240","boring_xml_url":40,"boring_view_url":1,"soilmap_view_url":null,"soiltest_xml_url":0,"soiltest_view_url":0},{"id":199398,"code":"B4KJ201801008-7647","latitude":"34.01747278","longitude":"133.7762981","source_code":"SK51330612014","project_name":"","survey_name":"\u662d\u548c50\u5e74\u5ea6192\u53f7\u6cd5\u9762\u8abf\u67fb\u696d\u52d9","client_name":"\u56fd\u571f\u4ea4\u901a\u7701\u56db\u56fd\u5730\u65b9\u6574\u5099\u5c40\u5fb3\u5cf6\u6cb3\u5ddd\u56fd\u9053\u4e8b\u52d9\u6240","boring_xml_url":40,"boring_view_url":1,"soilmap_view_url":null,"soiltest_xml_url":0,"soiltest_view_url":0},{"id":199397,"code":"B4KJ201801008-7646","latitude":"34.01747278","longitude":"133.7762981","source_code":"SK51330612013","project_name":"","survey_name":"\u662d\u548c50\u5e74\u5ea6192\u53f7\u6cd5\u9762\u8abf\u67fb\u696d\u52d9","client_name":"\u56fd\u571f\u4ea4\u901a\u7701\u56db\u56fd\u5730\u65b9\u6574\u5099\u5c40\u5fb3\u5cf6\u6cb3\u5ddd\u56fd\u9053\u4e8b\u52d9\u6240","boring_xml_url":40,"boring_view_url":1,"soilmap_view_url":null,"soiltest_xml_url":0,"soiltest_view_url":0},{"id":199396,"code":"B4KJ201801008-7645","latitude":"34.01747278","longitude":"133.7762981","source_code":"SK51330612012","project_name":"","survey_name":"\u662d\u548c50\u5e74\u5ea6192\u53f7\u6cd5\u9762\u8abf\u67fb\u696d\u52d9","client_name":"\u56fd\u571f\u4ea4\u901a\u7701\u56db\u56fd\u5730\u65b9\u6574\u5099\u5c40\u5fb3\u5cf6\u6cb3\u5ddd\u56fd\u9053\u4e8b\u52d9\u6240","boring_xml_url":40,"boring_view_url":1,"soilmap_view_url":null,"soiltest_xml_url":0,"soiltest_view_url":0},{"id":199395,"code":"B4KJ201801008-7644","latitude":"34.01747278","longitude":"133.7762981","source_code":"SK51330612011","project_name":"","survey_name":"\u662d\u548c50\u5e74\u5ea6192\u53f7\u6cd5\u9762\u8abf\u67fb\u696d\u52d9","client_name":"\u56fd\u571f\u4ea4\u901a\u7701\u56db\u56fd\u5730\u65b9\u6574\u5099\u5c40\u5fb3\u5cf6\u6cb3\u5ddd\u56fd\u9053\u4e8b\u52d9\u6240","boring_xml_url":40,"boring_view_url":1,"soilmap_view_url":null,"soiltest_xml_url":0,"soiltest_view_url":0},{"id":199394,"code":"B4KJ201801008-7643","latitude":"34.01747278","longitude":"133.7762981","source_code":"SK51330612010","project_name":"","survey_name":"\u662d\u548c50\u5e74\u5ea6192\u53f7\u6cd5\u9762\u8abf\u67fb\u696d\u52d9","client_name":"\u56fd\u571f\u4ea4\u901a\u7701\u56db\u56fd\u5730\u65b9\u6574\u5099\u5c40\u5fb3\u5cf6\u6cb3\u5ddd\u56fd\u9053\u4e8b\u52d9\u6240","boring_xml_url":40,"boring_view_url":1,"soilmap_view_url":null,"soiltest_xml_url":0,"soiltest_view_url":0},{"id":199393,"code":"B4KJ201801008-7642","latitude":"34.01747278","longitude":"133.7762981","source_code":"SK51330612009","project_name":"","survey_name":"\u662d\u548c50\u5e74\u5ea6192\u53f7\u6cd5\u9762\u8abf\u67fb\u696d\u52d9","client_name":"\u56fd\u571f\u4ea4\u901a\u7701\u56db\u56fd\u5730\u65b9\u6574\u5099\u5c40\u5fb3\u5cf6\u6cb3\u5ddd\u56fd\u9053\u4e8b\u52d9\u6240","boring_xml_url":40,"boring_view_url":1,"soilmap_view_url":null,"soiltest_xml_url":0,"soiltest_view_url":0},{"id":199392,"code":"B4KJ201801008-7641","latitude":"34.01747278","longitude":"133.7762981","source_code":"SK51330612008","project_name":"","survey_name":"\u662d\u548c50\u5e74\u5ea6192\u53f7\u6cd5\u9762\u8abf\u67fb\u696d\u52d9","client_name":"\u56fd\u571f\u4ea4\u901a\u7701\u56db\u56fd\u5730\u65b9\u6574\u5099\u5c40\u5fb3\u5cf6\u6cb3\u5ddd\u56fd\u9053\u4e8b\u52d9\u6240","boring_xml_url":40,"boring_view_url":1,"soilmap_view_url":null,"soiltest_xml_url":0,"soiltest_view_url":0},{"id":199391,"code":"B4KJ201801008-7640","latitude":"34.01747278","longitude":"133.7762981","source_code":"SK51330612007","project_name":"","survey_name":"\u662d\u548c50\u5e74\u5ea6192\u53f7\u6cd5\u9762\u8abf\u67fb\u696d\u52d9","client_name":"\u56fd\u571f\u4ea4\u901a\u7701\u56db\u56fd\u5730\u65b9\u6574\u5099\u5c40\u5fb3\u5cf6\u6cb3\u5ddd\u56fd\u9053\u4e8b\u52d9\u6240","boring_xml_url":40,"boring_view_url":1,"soilmap_view_url":null,"soiltest_xml_url":0,"soiltest_view_url":0},{"id":199390,"code":"B4KJ201801008-7639","latitude":"34.01747278","longitude":"133.7762981","source_code":"SK51330612006","project_name":"","survey_name":"\u662d\u548c50\u5e74\u5ea6192\u53f7\u6cd5\u9762\u8abf\u67fb\u696d\u52d9","client_name":"\u56fd\u571f\u4ea4\u901a\u7701\u56db\u56fd\u5730\u65b9\u6574\u5099\u5c40\u5fb3\u5cf6\u6cb3\u5ddd\u56fd\u9053\u4e8b\u52d9\u6240","boring_xml_url":40,"boring_view_url":1,"soilmap_view_url":null,"soiltest_xml_url":0,"soiltest_view_url":0},{"id":199389,"code":"B4KJ201801008-7638","latitude":"34.01747278","longitude":"133.7762981","source_code":"SK51330612005","project_name":"","survey_name":"\u662d\u548c50\u5e74\u5ea6192\u53f7\u6cd5\u9762\u8abf\u67fb\u696d\u52d9","client_name":"\u56fd\u571f\u4ea4\u901a\u7701\u56db\u56fd\u5730\u65b9\u6574\u5099\u5c40\u5fb3\u5cf6\u6cb3\u5ddd\u56fd\u9053\u4e8b\u52d9\u6240","boring_xml_url":40,"boring_view_url":1,"soilmap_view_url":null,"soiltest_xml_url":0,"soiltest_view_url":0},{"id":199388,"code":"B4KJ201801008-7637","latitude":"34.01747278","longitude":"133.7762981","source_code":"SK51330612004","project_name":"","survey_name":"\u662d\u548c50\u5e74\u5ea6192\u53f7\u6cd5\u9762\u8abf\u67fb\u696d\u52d9","client_name":"\u56fd\u571f\u4ea4\u901a\u7701\u56db\u56fd\u5730\u65b9\u6574\u5099\u5c40\u5fb3\u5cf6\u6cb3\u5ddd\u56fd\u9053\u4e8b\u52d9\u6240","boring_xml_url":40,"boring_view_url":1,"soilmap_view_url":null,"soiltest_xml_url":0,"soiltest_view_url":0},{"id":199387,"code":"B4KJ201801008-7636","latitude":"34.01747278","longitude":"133.7762981","source_code":"SK51330612003","project_name":"","survey_name":"\u662d\u548c50\u5e74\u5ea6192\u53f7\u6cd5\u9762\u8abf\u67fb\u696d\u52d9","client_name":"\u56fd\u571f\u4ea4\u901a\u7701\u56db\u56fd\u5730\u65b9\u6574\u5099\u5c40\u5fb3\u5cf6\u6cb3\u5ddd\u56fd\u9053\u4e8b\u52d9\u6240","boring_xml_url":40,"boring_view_url":1,"soilmap_view_url":null,"soiltest_xml_url":0,"soiltest_view_url":0},{"id":199386,"code":"B4KJ201801008-7635","latitude":"34.01747278","longitude":"133.7762981","source_code":"SK51330612002","project_name":"","survey_name":"\u662d\u548c50\u5e74\u5ea6192\u53f7\u6cd5\u9762\u8abf\u67fb\u696d\u52d9","client_name":"\u56fd\u571f\u4ea4\u901a\u7701\u56db\u56fd\u5730\u65b9\u6574\u5099\u5c40\u5fb3\u5cf6\u6cb3\u5ddd\u56fd\u9053\u4e8b\u52d9\u6240","boring_xml_url":40,"boring_view_url":1,"soilmap_view_url":null,"soiltest_xml_url":0,"soiltest_view_url":0},{"id":199385,"code":"B4KJ201801008-7634","latitude":"34.01747278","longitude":"133.7762981","source_code":"SK51330612001","project_name":"","survey_name":"\u662d\u548c50\u5e74\u5ea6192\u53f7\u6cd5\u9762\u8abf\u67fb\u696d\u52d9","client_name":"\u56fd\u571f\u4ea4\u901a\u7701\u56db\u56fd\u5730\u65b9\u6574\u5099\u5c40\u5fb3\u5cf6\u6cb3\u5ddd\u56fd\u9053\u4e8b\u52d9\u6240","boring_xml_url":40,"boring_view_url":1,"soilmap_view_url":null,"soiltest_xml_url":0,"soiltest_view_url":0},{"id":199384,"code":"B4KJ201801008-7633","latitude":"34.01383417","longitude":"133.7670767","source_code":"SK51330611002","project_name":"","survey_name":"\u662d\u548c50\u5e74\u5ea6\u6c60\u7530\u30c8\u30f3\u30cd\u30eb\u59162\u4ef6\u8a66\u9310\u696d\u52d9\u3014\u767d\u5730\u5730\u533a\u306e\u90e8\u3015","client_name":"\u56fd\u571f\u4ea4\u901a\u7701\u56db\u56fd\u5730\u65b9\u6574\u5099\u5c40\u5fb3\u5cf6\u6cb3\u5ddd\u56fd\u9053\u4e8b\u52d9\u6240","boring_xml_url":40,"boring_view_url":1,"soilmap_view_url":null,"soiltest_xml_url":0,"soiltest_view_url":0},{"id":199383,"code":"B4KJ201801008-7632","latitude":"34.01383417","longitude":"133.7670767","source_code":"SK51330611001","project_name":"","survey_name":"\u662d\u548c50\u5e74\u5ea6\u6c60\u7530\u30c8\u30f3\u30cd\u30eb\u59162\u4ef6\u8a66\u9310\u696d\u52d9\u3014\u767d\u5730\u5730\u533a\u306e\u90e8\u3015","client_name":"\u56fd\u571f\u4ea4\u901a\u7701\u56db\u56fd\u5730\u65b9\u6574\u5099\u5c40\u5fb3\u5cf6\u6cb3\u5ddd\u56fd\u9053\u4e8b\u52d9\u6240","boring_xml_url":40,"boring_view_url":1,"soilmap_view_url":null,"soiltest_xml_url":0,"soiltest_view_url":0},{"id":199382,"code":"B4KJ201801008-7631","latitude":"34.00616722","longitude":"133.7205533","source_code":"SK51330507003","project_name":"","survey_name":"\u662d\u548c63\u5e74\u5ea6\u7b2c1\u6d6e\u4e16\u6a4b\u5074\u9053\u6a4b\u59162\u6a4b\u8a2d\u8a08\u696d\u52d9\u59d4\u8a17","client_name":"\u56fd\u571f\u4ea4\u901a\u7701\u56db\u56fd\u5730\u65b9\u6574\u5099\u5c40\u5fb3\u5cf6\u6cb3\u5ddd\u56fd\u9053\u4e8b\u52d9\u6240","boring_xml_url":40,"boring_view_url":1,"soilmap_view_url":null,"soiltest_xml_url":0,"soiltest_view_url":0},{"id":199381,"code":"B4KJ201801008-7630","latitude":"34.00458389","longitude":"133.7148039","source_code":"SK51330507001","project_name":"","survey_name":"\u662d\u548c63\u5e74\u5ea6\u7b2c1\u6d6e\u4e16\u6a4b\u5074\u9053\u6a4b\u59162\u6a4b\u8a2d\u8a08\u696d\u52d9\u59d4\u8a17","client_name":"\u56fd\u571f\u4ea4\u901a\u7701\u56db\u56fd\u5730\u65b9\u6574\u5099\u5c40\u5fb3\u5cf6\u6cb3\u5ddd\u56fd\u9053\u4e8b\u52d9\u6240","boring_xml_url":40,"boring_view_url":1,"soilmap_view_url":null,"soiltest_xml_url":0,"soiltest_view_url":0},{"id":199380,"code":"B4KJ201801008-7629","latitude":"34.00354222","longitude":"133.0476964","source_code":"SK51330004001","project_name":"","survey_name":"\u5e73\u62102\u5e74\u5ea6\u4eca\u6cbb\u30d0\u30a4\u30d1\u30b9(\u9577\u6ca2\u5730\u533a)\u5730\u8cea\u8abf\u67fb\u696d\u52d9","client_name":"\u56fd\u571f\u4ea4\u901a\u7701\u56db\u56fd\u5730\u65b9\u6574\u5099\u5c40\u677e\u5c71\u6cb3\u5ddd\u56fd\u9053\u4e8b\u52d9\u6240","boring_xml_url":40,"boring_view_url":1,"soilmap_view_url":null,"soiltest_xml_url":0,"soiltest_view_url":0},{"id":199379,"code":"B4KJ201801008-7628","latitude":"34.00326417","longitude":"133.0354753","source_code":"SK51330003002","project_name":"","survey_name":"\u4eca\u6cbb\u30d0\u30a4\u30d1\u30b9(\u9577\u6ca2\u5730\u533a)\u5730\u8cea\u8abf\u67fb\u696d\u52d9","client_name":"\u56fd\u571f\u4ea4\u901a\u7701\u56db\u56fd\u5730\u65b9\u6574\u5099\u5c40\u677e\u5c71\u6cb3\u5ddd\u56fd\u9053\u4e8b\u52d9\u6240","boring_xml_url":40,"boring_view_url":1,"soilmap_view_url":null,"soiltest_xml_url":0,"soiltest_view_url":0},{"id":199378,"code":"B4KJ201801008-7627","latitude":"34.00381972","longitude":"133.03492","source_code":"SK51330003001","project_name":"","survey_name":"\u4eca\u6cbb\u30d0\u30a4\u30d1\u30b9(\u9577\u6ca2\u5730\u533a)\u5730\u8cea\u8abf\u67fb\u696d\u52d9","client_name":"\u56fd\u571f\u4ea4\u901a\u7701\u56db\u56fd\u5730\u65b9\u6574\u5099\u5c40\u677e\u5c71\u6cb3\u5ddd\u56fd\u9053\u4e8b\u52d9\u6240","boring_xml_url":40,"boring_view_url":1,"soilmap_view_url":null,"soiltest_xml_url":0,"soiltest_view_url":0},{"id":199377,"code":"B4KJ201801008-7626","latitude":"34.00826361","longitude":"133.0340864","source_code":"SK51330002005","project_name":"","survey_name":"\u4eca\u6cbb\u30d0\u30a4\u30d1\u30b9(\u9577\u6ca2\u5730\u533a)\u5730\u8cea\u8abf\u67fb\u696d\u52d9","client_name":"\u56fd\u571f\u4ea4\u901a\u7701\u56db\u56fd\u5730\u65b9\u6574\u5099\u5c40\u677e\u5c71\u6cb3\u5ddd\u56fd\u9053\u4e8b\u52d9\u6240","boring_xml_url":40,"boring_view_url":1,"soilmap_view_url":null,"soiltest_xml_url":0,"soiltest_view_url":0},{"id":199376,"code":"B4KJ201801008-7625","latitude":"34.00854139","longitude":"133.0340864","source_code":"SK51330002004","project_name":"","survey_name":"\u4eca\u6cbb\u30d0\u30a4\u30d1\u30b9(\u9577\u6ca2\u5730\u533a)\u5730\u8cea\u8abf\u67fb\u696d\u52d9","client_name":"\u56fd\u571f\u4ea4\u901a\u7701\u56db\u56fd\u5730\u65b9\u6574\u5099\u5c40\u677e\u5c71\u6cb3\u5ddd\u56fd\u9053\u4e8b\u52d9\u6240","boring_xml_url":40,"boring_view_url":1,"soilmap_view_url":null,"soiltest_xml_url":0,"soiltest_view_url":0}]}}