{"header":{"xyz":{"source":[],"mosaic":false},"page":404,"raw":{"soiltest_result":"0","bbox":"57.598333,109.544722,1.933333,163.806111","page":"404"},"conditions":{"soiltest_result":0,"north":57.598333,"west":109.544722,"south":1.933333,"east":163.806111},"success":true,"message":""},"data":{"meta":{"total":212844,"page":404,"pages":7095,"count":30},"values":[{"id":533298,"code":"B4KJ202201003-5834","latitude":"33.280494","longitude":"130.191644","source_code":"QS20188938460200130005","project_name":"","survey_name":"\"\u5e73\u621030\u5e74\u5ea6 \u591a\u4e45\u4f50\u8cc0\u9053\u8def(1 \u671f)\u8239\u7530\uff5e\u7551\u7530\u5730\u533a\u5730\u8cea\u8abf\u67fb\u696d\u52d9\"","client_name":"\"\u56fd\u571f\u4ea4\u901a\u7701 \u4e5d\u5dde\u5730\u65b9\u6574\u5099\u5c40 \u4f50\u8cc0\u56fd\u9053\u4e8b\u52d9\u6240 \u8a08\u753b\u8ab2\"","boring_xml_url":72,"boring_view_url":1,"soilmap_view_url":null,"soiltest_xml_url":0,"soiltest_view_url":0},{"id":533297,"code":"B4KJ202201003-5833","latitude":"33.280028","longitude":"130.189331","source_code":"QS20188938460200130004","project_name":"","survey_name":"\"\u5e73\u621030\u5e74\u5ea6 \u591a\u4e45\u4f50\u8cc0\u9053\u8def(1 \u671f)\u8239\u7530\uff5e\u7551\u7530\u5730\u533a\u5730\u8cea\u8abf\u67fb\u696d\u52d9\"","client_name":"\"\u56fd\u571f\u4ea4\u901a\u7701 \u4e5d\u5dde\u5730\u65b9\u6574\u5099\u5c40 \u4f50\u8cc0\u56fd\u9053\u4e8b\u52d9\u6240 \u8a08\u753b\u8ab2\"","boring_xml_url":72,"boring_view_url":1,"soilmap_view_url":null,"soiltest_xml_url":0,"soiltest_view_url":0},{"id":533296,"code":"B4KJ202201003-5832","latitude":"33.280153","longitude":"130.187019","source_code":"QS20188938460200130003","project_name":"","survey_name":"\"\u5e73\u621030\u5e74\u5ea6 \u591a\u4e45\u4f50\u8cc0\u9053\u8def(1 \u671f)\u8239\u7530\uff5e\u7551\u7530\u5730\u533a\u5730\u8cea\u8abf\u67fb\u696d\u52d9\"","client_name":"\"\u56fd\u571f\u4ea4\u901a\u7701 \u4e5d\u5dde\u5730\u65b9\u6574\u5099\u5c40 \u4f50\u8cc0\u56fd\u9053\u4e8b\u52d9\u6240 \u8a08\u753b\u8ab2\"","boring_xml_url":72,"boring_view_url":1,"soilmap_view_url":null,"soiltest_xml_url":0,"soiltest_view_url":0},{"id":533295,"code":"B4KJ202201003-5831","latitude":"33.280014","longitude":"130.186333","source_code":"QS20188938460200130002","project_name":"","survey_name":"\"\u5e73\u621030\u5e74\u5ea6 \u591a\u4e45\u4f50\u8cc0\u9053\u8def(1 \u671f)\u8239\u7530\uff5e\u7551\u7530\u5730\u533a\u5730\u8cea\u8abf\u67fb\u696d\u52d9\"","client_name":"\"\u56fd\u571f\u4ea4\u901a\u7701 \u4e5d\u5dde\u5730\u65b9\u6574\u5099\u5c40 \u4f50\u8cc0\u56fd\u9053\u4e8b\u52d9\u6240 \u8a08\u753b\u8ab2\"","boring_xml_url":72,"boring_view_url":1,"soilmap_view_url":null,"soiltest_xml_url":0,"soiltest_view_url":0},{"id":533294,"code":"B4KJ202201003-5830","latitude":"33.280464","longitude":"130.185353","source_code":"QS20188938460200130001","project_name":"","survey_name":"\"\u5e73\u621030\u5e74\u5ea6 \u591a\u4e45\u4f50\u8cc0\u9053\u8def(1 \u671f)\u8239\u7530\uff5e\u7551\u7530\u5730\u533a\u5730\u8cea\u8abf\u67fb\u696d\u52d9\"","client_name":"\"\u56fd\u571f\u4ea4\u901a\u7701 \u4e5d\u5dde\u5730\u65b9\u6574\u5099\u5c40 \u4f50\u8cc0\u56fd\u9053\u4e8b\u52d9\u6240 \u8a08\u753b\u8ab2\"","boring_xml_url":72,"boring_view_url":1,"soilmap_view_url":null,"soiltest_xml_url":0,"soiltest_view_url":0},{"id":533293,"code":"B4KJ202201003-5829","latitude":"33.287806","longitude":"130.173828","source_code":"QS20188938460200120011","project_name":"\u5e73\u621030\u5e74\u5ea6\u3000\u591a\u4e45\u4f50\u8cc0\u9053\u8def\uff081\u671f\uff09\u5225\u5e9c\uff5e\u6817\u539f\u5730\u533a\u5730\u8cea\u8abf\u67fb\u696d\u52d9","survey_name":"\u5e73\u621030\u5e74\u5ea6\u3000\u591a\u4e45\u4f50\u8cc0\u9053\u8def\uff081\u671f\uff09\u5225\u5e9c\uff5e\u6817\u539f\u5730\u533a\u5730\u8cea\u8abf\u67fb\u696d\u52d9","client_name":"\u56fd\u571f\u4ea4\u901a\u7701\u3000\u4e5d\u5dde\u5730\u65b9\u6574\u5099\u5c40\u3000\u4f50\u8cc0\u56fd\u9053\u4e8b\u52d9\u6240","boring_xml_url":72,"boring_view_url":1,"soilmap_view_url":null,"soiltest_xml_url":0,"soiltest_view_url":0},{"id":533292,"code":"B4KJ202201003-5828","latitude":"33.287644","longitude":"130.173711","source_code":"QS20188938460200120010","project_name":"\u5e73\u621030\u5e74\u5ea6\u3000\u591a\u4e45\u4f50\u8cc0\u9053\u8def\uff081\u671f\uff09\u5225\u5e9c\uff5e\u6817\u539f\u5730\u533a\u5730\u8cea\u8abf\u67fb\u696d\u52d9","survey_name":"\u5e73\u621030\u5e74\u5ea6\u3000\u591a\u4e45\u4f50\u8cc0\u9053\u8def\uff081\u671f\uff09\u5225\u5e9c\uff5e\u6817\u539f\u5730\u533a\u5730\u8cea\u8abf\u67fb\u696d\u52d9","client_name":"\u56fd\u571f\u4ea4\u901a\u7701\u3000\u4e5d\u5dde\u5730\u65b9\u6574\u5099\u5c40\u3000\u4f50\u8cc0\u56fd\u9053\u4e8b\u52d9\u6240","boring_xml_url":72,"boring_view_url":1,"soilmap_view_url":null,"soiltest_xml_url":0,"soiltest_view_url":0},{"id":533291,"code":"B4KJ202201003-5827","latitude":"33.287494","longitude":"130.1736","source_code":"QS20188938460200120009","project_name":"\u5e73\u621030\u5e74\u5ea6\u3000\u591a\u4e45\u4f50\u8cc0\u9053\u8def\uff081\u671f\uff09\u5225\u5e9c\uff5e\u6817\u539f\u5730\u533a\u5730\u8cea\u8abf\u67fb\u696d\u52d9","survey_name":"\u5e73\u621030\u5e74\u5ea6\u3000\u591a\u4e45\u4f50\u8cc0\u9053\u8def\uff081\u671f\uff09\u5225\u5e9c\uff5e\u6817\u539f\u5730\u533a\u5730\u8cea\u8abf\u67fb\u696d\u52d9","client_name":"\u56fd\u571f\u4ea4\u901a\u7701\u3000\u4e5d\u5dde\u5730\u65b9\u6574\u5099\u5c40\u3000\u4f50\u8cc0\u56fd\u9053\u4e8b\u52d9\u6240","boring_xml_url":72,"boring_view_url":1,"soilmap_view_url":null,"soiltest_xml_url":0,"soiltest_view_url":0},{"id":533290,"code":"B4KJ202201003-5826","latitude":"33.288583","longitude":"130.172311","source_code":"QS20188938460200120008","project_name":"\u5e73\u621030\u5e74\u5ea6\u3000\u591a\u4e45\u4f50\u8cc0\u9053\u8def\uff081\u671f\uff09\u5225\u5e9c\uff5e\u6817\u539f\u5730\u533a\u5730\u8cea\u8abf\u67fb\u696d\u52d9","survey_name":"\u5e73\u621030\u5e74\u5ea6\u3000\u591a\u4e45\u4f50\u8cc0\u9053\u8def\uff081\u671f\uff09\u5225\u5e9c\uff5e\u6817\u539f\u5730\u533a\u5730\u8cea\u8abf\u67fb\u696d\u52d9","client_name":"\u56fd\u571f\u4ea4\u901a\u7701\u3000\u4e5d\u5dde\u5730\u65b9\u6574\u5099\u5c40\u3000\u4f50\u8cc0\u56fd\u9053\u4e8b\u52d9\u6240","boring_xml_url":72,"boring_view_url":1,"soilmap_view_url":null,"soiltest_xml_url":0,"soiltest_view_url":0},{"id":533289,"code":"B4KJ202201003-5825","latitude":"33.288778","longitude":"130.171208","source_code":"QS20188938460200120007","project_name":"\u5e73\u621030\u5e74\u5ea6\u3000\u591a\u4e45\u4f50\u8cc0\u9053\u8def\uff081\u671f\uff09\u5225\u5e9c\uff5e\u6817\u539f\u5730\u533a\u5730\u8cea\u8abf\u67fb\u696d\u52d9","survey_name":"\u5e73\u621030\u5e74\u5ea6\u3000\u591a\u4e45\u4f50\u8cc0\u9053\u8def\uff081\u671f\uff09\u5225\u5e9c\uff5e\u6817\u539f\u5730\u533a\u5730\u8cea\u8abf\u67fb\u696d\u52d9","client_name":"\u56fd\u571f\u4ea4\u901a\u7701\u3000\u4e5d\u5dde\u5730\u65b9\u6574\u5099\u5c40\u3000\u4f50\u8cc0\u56fd\u9053\u4e8b\u52d9\u6240","boring_xml_url":72,"boring_view_url":1,"soilmap_view_url":null,"soiltest_xml_url":0,"soiltest_view_url":0},{"id":533288,"code":"B4KJ202201003-5824","latitude":"33.289244","longitude":"130.169033","source_code":"QS20188938460200120006","project_name":"\u5e73\u621030\u5e74\u5ea6\u3000\u591a\u4e45\u4f50\u8cc0\u9053\u8def\uff081\u671f\uff09\u5225\u5e9c\uff5e\u6817\u539f\u5730\u533a\u5730\u8cea\u8abf\u67fb\u696d\u52d9","survey_name":"\u5e73\u621030\u5e74\u5ea6\u3000\u591a\u4e45\u4f50\u8cc0\u9053\u8def\uff081\u671f\uff09\u5225\u5e9c\uff5e\u6817\u539f\u5730\u533a\u5730\u8cea\u8abf\u67fb\u696d\u52d9","client_name":"\u56fd\u571f\u4ea4\u901a\u7701\u3000\u4e5d\u5dde\u5730\u65b9\u6574\u5099\u5c40\u3000\u4f50\u8cc0\u56fd\u9053\u4e8b\u52d9\u6240","boring_xml_url":72,"boring_view_url":1,"soilmap_view_url":null,"soiltest_xml_url":0,"soiltest_view_url":0},{"id":533287,"code":"B4KJ202201003-5823","latitude":"33.289856","longitude":"130.168467","source_code":"QS20188938460200120005","project_name":"\u5e73\u621030\u5e74\u5ea6\u3000\u591a\u4e45\u4f50\u8cc0\u9053\u8def\uff081\u671f\uff09\u5225\u5e9c\uff5e\u6817\u539f\u5730\u533a\u5730\u8cea\u8abf\u67fb\u696d\u52d9","survey_name":"\u5e73\u621030\u5e74\u5ea6\u3000\u591a\u4e45\u4f50\u8cc0\u9053\u8def\uff081\u671f\uff09\u5225\u5e9c\uff5e\u6817\u539f\u5730\u533a\u5730\u8cea\u8abf\u67fb\u696d\u52d9","client_name":"\u56fd\u571f\u4ea4\u901a\u7701\u3000\u4e5d\u5dde\u5730\u65b9\u6574\u5099\u5c40\u3000\u4f50\u8cc0\u56fd\u9053\u4e8b\u52d9\u6240","boring_xml_url":72,"boring_view_url":1,"soilmap_view_url":null,"soiltest_xml_url":0,"soiltest_view_url":0},{"id":533286,"code":"B4KJ202201003-5822","latitude":"33.289542","longitude":"130.166319","source_code":"QS20188938460200120004","project_name":"\u5e73\u621030\u5e74\u5ea6\u3000\u591a\u4e45\u4f50\u8cc0\u9053\u8def\uff081\u671f\uff09\u5225\u5e9c\uff5e\u6817\u539f\u5730\u533a\u5730\u8cea\u8abf\u67fb\u696d\u52d9","survey_name":"\u5e73\u621030\u5e74\u5ea6\u3000\u591a\u4e45\u4f50\u8cc0\u9053\u8def\uff081\u671f\uff09\u5225\u5e9c\uff5e\u6817\u539f\u5730\u533a\u5730\u8cea\u8abf\u67fb\u696d\u52d9","client_name":"\u56fd\u571f\u4ea4\u901a\u7701\u3000\u4e5d\u5dde\u5730\u65b9\u6574\u5099\u5c40\u3000\u4f50\u8cc0\u56fd\u9053\u4e8b\u52d9\u6240","boring_xml_url":72,"boring_view_url":1,"soilmap_view_url":null,"soiltest_xml_url":0,"soiltest_view_url":0},{"id":533285,"code":"B4KJ202201003-5821","latitude":"33.289156","longitude":"130.165119","source_code":"QS20188938460200120003","project_name":"\u5e73\u621030\u5e74\u5ea6\u3000\u591a\u4e45\u4f50\u8cc0\u9053\u8def\uff081\u671f\uff09\u5225\u5e9c\uff5e\u6817\u539f\u5730\u533a\u5730\u8cea\u8abf\u67fb\u696d\u52d9","survey_name":"\u5e73\u621030\u5e74\u5ea6\u3000\u591a\u4e45\u4f50\u8cc0\u9053\u8def\uff081\u671f\uff09\u5225\u5e9c\uff5e\u6817\u539f\u5730\u533a\u5730\u8cea\u8abf\u67fb\u696d\u52d9","client_name":"\u56fd\u571f\u4ea4\u901a\u7701\u3000\u4e5d\u5dde\u5730\u65b9\u6574\u5099\u5c40\u3000\u4f50\u8cc0\u56fd\u9053\u4e8b\u52d9\u6240","boring_xml_url":72,"boring_view_url":1,"soilmap_view_url":null,"soiltest_xml_url":0,"soiltest_view_url":0},{"id":533284,"code":"B4KJ202201003-5820","latitude":"33.288903","longitude":"130.165231","source_code":"QS20188938460200120002","project_name":"\u5e73\u621030\u5e74\u5ea6\u3000\u591a\u4e45\u4f50\u8cc0\u9053\u8def\uff081\u671f\uff09\u5225\u5e9c\uff5e\u6817\u539f\u5730\u533a\u5730\u8cea\u8abf\u67fb\u696d\u52d9","survey_name":"\u5e73\u621030\u5e74\u5ea6\u3000\u591a\u4e45\u4f50\u8cc0\u9053\u8def\uff081\u671f\uff09\u5225\u5e9c\uff5e\u6817\u539f\u5730\u533a\u5730\u8cea\u8abf\u67fb\u696d\u52d9","client_name":"\u56fd\u571f\u4ea4\u901a\u7701\u3000\u4e5d\u5dde\u5730\u65b9\u6574\u5099\u5c40\u3000\u4f50\u8cc0\u56fd\u9053\u4e8b\u52d9\u6240","boring_xml_url":72,"boring_view_url":1,"soilmap_view_url":null,"soiltest_xml_url":0,"soiltest_view_url":0},{"id":533283,"code":"B4KJ202201003-5819","latitude":"33.289453","longitude":"130.164997","source_code":"QS20188938460200120001","project_name":"\u5e73\u621030\u5e74\u5ea6\u3000\u591a\u4e45\u4f50\u8cc0\u9053\u8def\uff081\u671f\uff09\u5225\u5e9c\uff5e\u6817\u539f\u5730\u533a\u5730\u8cea\u8abf\u67fb\u696d\u52d9","survey_name":"\u5e73\u621030\u5e74\u5ea6\u3000\u591a\u4e45\u4f50\u8cc0\u9053\u8def\uff081\u671f\uff09\u5225\u5e9c\uff5e\u6817\u539f\u5730\u533a\u5730\u8cea\u8abf\u67fb\u696d\u52d9","client_name":"\u56fd\u571f\u4ea4\u901a\u7701\u3000\u4e5d\u5dde\u5730\u65b9\u6574\u5099\u5c40\u3000\u4f50\u8cc0\u56fd\u9053\u4e8b\u52d9\u6240","boring_xml_url":72,"boring_view_url":1,"soilmap_view_url":null,"soiltest_xml_url":0,"soiltest_view_url":0},{"id":533282,"code":"B4KJ202201003-5818","latitude":"33.28875","longitude":"130.163194","source_code":"QS20188938460200110010","project_name":"\u591a\u4e45\u4f50\u8cc0\u9053\u8def\uff081\u671f\uff09","survey_name":"\u5e73\u621030\u5e74\u5ea6\u3000\u591a\u4e45\u4f50\u8cc0\u9053\u8def\uff081\u671f\uff09\u5225\u5e9c\u5730\u533a\u5730\u8cea\u8abf\u67fb\u696d\u52d9","client_name":"\u56fd\u571f\u4ea4\u901a\u7701\u4e5d\u5dde\u5730\u65b9\u6574\u5099\u5c40\u4f50\u8cc0\u56fd\u9053\u4e8b\u52d9\u6240","boring_xml_url":72,"boring_view_url":1,"soilmap_view_url":null,"soiltest_xml_url":0,"soiltest_view_url":0},{"id":533281,"code":"B4KJ202201003-5817","latitude":"33.288306","longitude":"130.163528","source_code":"QS20188938460200110009","project_name":"\u591a\u4e45\u4f50\u8cc0\u9053\u8def\uff081\u671f\uff09","survey_name":"\u5e73\u621030\u5e74\u5ea6\u3000\u591a\u4e45\u4f50\u8cc0\u9053\u8def\uff081\u671f\uff09\u5225\u5e9c\u5730\u533a\u5730\u8cea\u8abf\u67fb\u696d\u52d9","client_name":"\u56fd\u571f\u4ea4\u901a\u7701\u4e5d\u5dde\u5730\u65b9\u6574\u5099\u5c40\u4f50\u8cc0\u56fd\u9053\u4e8b\u52d9\u6240","boring_xml_url":72,"boring_view_url":1,"soilmap_view_url":null,"soiltest_xml_url":0,"soiltest_view_url":0},{"id":533280,"code":"B4KJ202201003-5816","latitude":"33.288139","longitude":"130.163611","source_code":"QS20188938460200110008","project_name":"\u591a\u4e45\u4f50\u8cc0\u9053\u8def\uff081\u671f\uff09","survey_name":"\u5e73\u621030\u5e74\u5ea6\u3000\u591a\u4e45\u4f50\u8cc0\u9053\u8def\uff081\u671f\uff09\u5225\u5e9c\u5730\u533a\u5730\u8cea\u8abf\u67fb\u696d\u52d9","client_name":"\u56fd\u571f\u4ea4\u901a\u7701\u4e5d\u5dde\u5730\u65b9\u6574\u5099\u5c40\u4f50\u8cc0\u56fd\u9053\u4e8b\u52d9\u6240","boring_xml_url":72,"boring_view_url":1,"soilmap_view_url":null,"soiltest_xml_url":0,"soiltest_view_url":0},{"id":533279,"code":"B4KJ202201003-5815","latitude":"33.288278","longitude":"130.162833","source_code":"QS20188938460200110007","project_name":"\u591a\u4e45\u4f50\u8cc0\u9053\u8def\uff081\u671f\uff09","survey_name":"\u5e73\u621030\u5e74\u5ea6\u3000\u591a\u4e45\u4f50\u8cc0\u9053\u8def\uff081\u671f\uff09\u5225\u5e9c\u5730\u533a\u5730\u8cea\u8abf\u67fb\u696d\u52d9","client_name":"\u56fd\u571f\u4ea4\u901a\u7701\u4e5d\u5dde\u5730\u65b9\u6574\u5099\u5c40\u4f50\u8cc0\u56fd\u9053\u4e8b\u52d9\u6240","boring_xml_url":72,"boring_view_url":1,"soilmap_view_url":null,"soiltest_xml_url":0,"soiltest_view_url":0},{"id":533278,"code":"B4KJ202201003-5814","latitude":"33.288306","longitude":"130.163278","source_code":"QS20188938460200110006","project_name":"\u591a\u4e45\u4f50\u8cc0\u9053\u8def\uff081\u671f\uff09","survey_name":"\u5e73\u621030\u5e74\u5ea6\u3000\u591a\u4e45\u4f50\u8cc0\u9053\u8def\uff081\u671f\uff09\u5225\u5e9c\u5730\u533a\u5730\u8cea\u8abf\u67fb\u696d\u52d9","client_name":"\u56fd\u571f\u4ea4\u901a\u7701\u4e5d\u5dde\u5730\u65b9\u6574\u5099\u5c40\u4f50\u8cc0\u56fd\u9053\u4e8b\u52d9\u6240","boring_xml_url":72,"boring_view_url":1,"soilmap_view_url":null,"soiltest_xml_url":0,"soiltest_view_url":0},{"id":533277,"code":"B4KJ202201003-5813","latitude":"33.288194","longitude":"130.162361","source_code":"QS20188938460200110005","project_name":"\u591a\u4e45\u4f50\u8cc0\u9053\u8def\uff081\u671f\uff09","survey_name":"\u5e73\u621030\u5e74\u5ea6\u3000\u591a\u4e45\u4f50\u8cc0\u9053\u8def\uff081\u671f\uff09\u5225\u5e9c\u5730\u533a\u5730\u8cea\u8abf\u67fb\u696d\u52d9","client_name":"\u56fd\u571f\u4ea4\u901a\u7701\u4e5d\u5dde\u5730\u65b9\u6574\u5099\u5c40\u4f50\u8cc0\u56fd\u9053\u4e8b\u52d9\u6240","boring_xml_url":72,"boring_view_url":1,"soilmap_view_url":null,"soiltest_xml_url":0,"soiltest_view_url":0},{"id":533276,"code":"B4KJ202201003-5812","latitude":"33.287889","longitude":"130.162139","source_code":"QS20188938460200110004","project_name":"\u591a\u4e45\u4f50\u8cc0\u9053\u8def\uff081\u671f\uff09","survey_name":"\u5e73\u621030\u5e74\u5ea6\u3000\u591a\u4e45\u4f50\u8cc0\u9053\u8def\uff081\u671f\uff09\u5225\u5e9c\u5730\u533a\u5730\u8cea\u8abf\u67fb\u696d\u52d9","client_name":"\u56fd\u571f\u4ea4\u901a\u7701\u4e5d\u5dde\u5730\u65b9\u6574\u5099\u5c40\u4f50\u8cc0\u56fd\u9053\u4e8b\u52d9\u6240","boring_xml_url":72,"boring_view_url":1,"soilmap_view_url":null,"soiltest_xml_url":0,"soiltest_view_url":0},{"id":533275,"code":"B4KJ202201003-5811","latitude":"33.287333","longitude":"130.161556","source_code":"QS20188938460200110003","project_name":"\u591a\u4e45\u4f50\u8cc0\u9053\u8def\uff081\u671f\uff09","survey_name":"\u5e73\u621030\u5e74\u5ea6\u3000\u591a\u4e45\u4f50\u8cc0\u9053\u8def\uff081\u671f\uff09\u5225\u5e9c\u5730\u533a\u5730\u8cea\u8abf\u67fb\u696d\u52d9","client_name":"\u56fd\u571f\u4ea4\u901a\u7701\u3000\u4e5d\u5dde\u5730\u65b9\u6574\u5099\u5c40\u3000\u4f50\u8cc0\u56fd\u9053\u4e8b\u52d9\u6240","boring_xml_url":72,"boring_view_url":1,"soilmap_view_url":null,"soiltest_xml_url":0,"soiltest_view_url":0},{"id":533274,"code":"B4KJ202201003-5810","latitude":"33.287417","longitude":"130.161222","source_code":"QS20188938460200110002","project_name":"\u591a\u4e45\u4f50\u8cc0\u9053\u8def\uff081\u671f\uff09","survey_name":"\u5e73\u621030\u5e74\u5ea6\u3000\u591a\u4e45\u4f50\u8cc0\u9053\u8def\uff081\u671f\uff09\u5225\u5e9c\u5730\u533a\u5730\u8cea\u8abf\u67fb\u696d\u52d9","client_name":"\u56fd\u571f\u4ea4\u901a\u7701\u4e5d\u5dde\u5730\u65b9\u6574\u5099\u5c40\u4f50\u8cc0\u56fd\u9053\u4e8b\u52d9\u6240","boring_xml_url":72,"boring_view_url":1,"soilmap_view_url":null,"soiltest_xml_url":0,"soiltest_view_url":0},{"id":533273,"code":"B4KJ202201003-5809","latitude":"33.287222","longitude":"130.161056","source_code":"QS20188938460200110001","project_name":"\u591a\u4e45\u4f50\u8cc0\u9053\u8def\uff081\u671f\uff09","survey_name":"\u5e73\u621030\u5e74\u5ea6\u3000\u591a\u4e45\u4f50\u8cc0\u9053\u8def\uff081\u671f\uff09\u5225\u5e9c\u5730\u533a\u5730\u8cea\u8abf\u67fb\u696d\u52d9","client_name":"\u56fd\u571f\u4ea4\u901a\u7701\u4e5d\u5dde\u5730\u65b9\u6574\u5099\u5c40\u4f50\u8cc0\u56fd\u9053\u4e8b\u52d9\u6240","boring_xml_url":72,"boring_view_url":1,"soilmap_view_url":null,"soiltest_xml_url":0,"soiltest_view_url":0},{"id":533272,"code":"B4KJ202201003-5808","latitude":"33.217375","longitude":"130.162269","source_code":"QS20188938460200080009","project_name":"\u6c5f\u5317\u30d0\u30a4\u30d1\u30b9","survey_name":"\u5e73\u621030\u5e74\u5ea6\u3000\u591a\u4e45\u4f50\u8cc0\u9053\u8def(1\u671f)\u5916\u5730\u8cea\u8abf\u67fb\u696d\u52d9","client_name":"\u56fd\u571f\u4ea4\u901a\u7701\u3000\u4e5d\u5dde\u5730\u65b9\u6574\u5099\u5c40\u3000\u4f50\u8cc0\u56fd\u9053\u4e8b\u52d9\u6240\u3000\u8a08\u753b\u8ab2","boring_xml_url":72,"boring_view_url":1,"soilmap_view_url":null,"soiltest_xml_url":0,"soiltest_view_url":0},{"id":533271,"code":"B4KJ202201003-5807","latitude":"33.218209","longitude":"130.064791","source_code":"QS20188938460200080008","project_name":"\u6b66\u96c4\u30d0\u30a4\u30d1\u30b9","survey_name":"\u5e73\u621030\u5e74\u5ea6\u3000\u591a\u4e45\u4f50\u8cc0\u9053\u8def(1\u671f)\u5916\u5730\u8cea\u8abf\u67fb\u696d\u52d9","client_name":"\u56fd\u571f\u4ea4\u901a\u7701\u3000\u4e5d\u5dde\u5730\u65b9\u6574\u5099\u5c40\u3000\u4f50\u8cc0\u56fd\u9053\u4e8b\u52d9\u6240\u3000\u8a08\u753b\u8ab2","boring_xml_url":72,"boring_view_url":1,"soilmap_view_url":null,"soiltest_xml_url":0,"soiltest_view_url":0},{"id":533270,"code":"B4KJ202201003-5806","latitude":"33.219874","longitude":"130.070005","source_code":"QS20188938460200080007","project_name":"\u6b66\u96c4\u30d0\u30a4\u30d1\u30b9","survey_name":"\u5e73\u621030\u5e74\u5ea6\u3000\u591a\u4e45\u4f50\u8cc0\u9053\u8def(1\u671f)\u5916\u5730\u8cea\u8abf\u67fb\u696d\u52d9","client_name":"\u56fd\u571f\u4ea4\u901a\u7701\u3000\u4e5d\u5dde\u5730\u65b9\u6574\u5099\u5c40\u3000\u4f50\u8cc0\u56fd\u9053\u4e8b\u52d9\u6240\u3000\u8a08\u753b\u8ab2","boring_xml_url":72,"boring_view_url":1,"soilmap_view_url":null,"soiltest_xml_url":0,"soiltest_view_url":0},{"id":533269,"code":"B4KJ202201003-5805","latitude":"33.283882","longitude":"130.206367","source_code":"QS20188938460200080006","project_name":"\u591a\u4e45\u4f50\u8cc0\u9053\u8def(I\u671f)\u3000\u4e45\u7c73\u7b2c\u4e8c\u6a4b","survey_name":"\u5e73\u621030\u5e74\u5ea6\u3000\u591a\u4e45\u4f50\u8cc0\u9053\u8def(1\u671f)\u5916\u5730\u8cea\u8abf\u67fb\u696d\u52d9","client_name":"\u56fd\u571f\u4ea4\u901a\u7701\u3000\u4e5d\u5dde\u5730\u65b9\u6574\u5099\u5c40\u3000\u4f50\u8cc0\u56fd\u9053\u4e8b\u52d9\u6240\u3000\u8a08\u753b\u8ab2","boring_xml_url":72,"boring_view_url":1,"soilmap_view_url":null,"soiltest_xml_url":0,"soiltest_view_url":0}]}}