{"header":{"xyz":{"source":[],"mosaic":false},"page":4045,"raw":{"soiltest_result":"0","bbox":"57.598333,109.544722,1.933333,163.806111","page":"4045"},"conditions":{"soiltest_result":0,"north":57.598333,"west":109.544722,"south":1.933333,"east":163.806111},"success":true,"message":""},"data":{"meta":{"total":212844,"page":4045,"pages":7095,"count":30},"values":[{"id":199225,"code":"B4KJ201801008-7474","latitude":"33.90383722","longitude":"134.6139778","source_code":"SK50346489001","project_name":"","survey_name":"\u5e73\u621011\u5e74\u5ea6 \u9577\u751f\u6a4b\u4e88\u5099\u8a2d\u8a08\u696d\u52d9\u59d4\u8a17","client_name":"\u56fd\u571f\u4ea4\u901a\u7701\u56db\u56fd\u5730\u65b9\u6574\u5099\u5c40\u90a3\u8cc0\u5ddd\u6cb3\u5ddd\u4e8b\u52d9\u6240","boring_xml_url":40,"boring_view_url":1,"soilmap_view_url":null,"soiltest_xml_url":0,"soiltest_view_url":0},{"id":199224,"code":"B4KJ201801008-7473","latitude":"33.8672725","longitude":"134.0038106","source_code":"SK50346030003","project_name":"","survey_name":"\u767d\u4e95\u5830\u5824\u5730\u8cea\u8abf\u67fb\u696d\u52d9","client_name":"\u56fd\u571f\u4ea4\u901a\u7701\u56db\u56fd\u5730\u65b9\u6574\u5099\u5c40\u56db\u56fd\u5c71\u5730\u7802\u9632\u4e8b\u52d9\u6240","boring_xml_url":40,"boring_view_url":1,"soilmap_view_url":null,"soiltest_xml_url":0,"soiltest_view_url":0},{"id":199223,"code":"B4KJ201801008-7472","latitude":"33.8672725","longitude":"134.0038106","source_code":"SK50346030002","project_name":"","survey_name":"\u767d\u4e95\u5830\u5824\u5730\u8cea\u8abf\u67fb\u696d\u52d9","client_name":"\u56fd\u571f\u4ea4\u901a\u7701\u56db\u56fd\u5730\u65b9\u6574\u5099\u5c40\u56db\u56fd\u5c71\u5730\u7802\u9632\u4e8b\u52d9\u6240","boring_xml_url":40,"boring_view_url":1,"soilmap_view_url":null,"soiltest_xml_url":0,"soiltest_view_url":0},{"id":199222,"code":"B4KJ201801008-7471","latitude":"33.79607111","longitude":"134.5924553","source_code":"SK50345457024","project_name":"","survey_name":"\u5e73\u621012\u5e74\u5ea6 \u798f\u4e95\u30c8\u30f3\u30cd\u30eb\u5730\u8cea\u8abf\u67fb\u696d\u52d9","client_name":"\u56fd\u571f\u4ea4\u901a\u7701\u56db\u56fd\u5730\u65b9\u6574\u5099\u5c40\u5fb3\u5cf6\u6cb3\u5ddd\u56fd\u9053\u4e8b\u52d9\u6240","boring_xml_url":40,"boring_view_url":1,"soilmap_view_url":null,"soiltest_xml_url":0,"soiltest_view_url":0},{"id":199221,"code":"B4KJ201801008-7470","latitude":"33.79629333","longitude":"134.5923997","source_code":"SK50345457023","project_name":"","survey_name":"\u5e73\u621012\u5e74\u5ea6 \u798f\u4e95\u30c8\u30f3\u30cd\u30eb\u5730\u8cea\u8abf\u67fb\u696d\u52d9","client_name":"\u56fd\u571f\u4ea4\u901a\u7701\u56db\u56fd\u5730\u65b9\u6574\u5099\u5c40\u5fb3\u5cf6\u6cb3\u5ddd\u56fd\u9053\u4e8b\u52d9\u6240","boring_xml_url":40,"boring_view_url":1,"soilmap_view_url":null,"soiltest_xml_url":0,"soiltest_view_url":0},{"id":199220,"code":"B4KJ201801008-7469","latitude":"33.79648778","longitude":"134.5924553","source_code":"SK50345457022","project_name":"","survey_name":"\u5e73\u621012\u5e74\u5ea6 \u798f\u4e95\u30c8\u30f3\u30cd\u30eb\u5730\u8cea\u8abf\u67fb\u696d\u52d9","client_name":"\u56fd\u571f\u4ea4\u901a\u7701\u56db\u56fd\u5730\u65b9\u6574\u5099\u5c40\u5fb3\u5cf6\u6cb3\u5ddd\u56fd\u9053\u4e8b\u52d9\u6240","boring_xml_url":40,"boring_view_url":1,"soilmap_view_url":null,"soiltest_xml_url":0,"soiltest_view_url":0},{"id":199219,"code":"B4KJ201801008-7468","latitude":"33.79751556","longitude":"134.5923442","source_code":"SK50345457021","project_name":"","survey_name":"\u5e73\u621012\u5e74\u5ea6 \u798f\u4e95\u30c8\u30f3\u30cd\u30eb\u5730\u8cea\u8abf\u67fb\u696d\u52d9","client_name":"\u56fd\u571f\u4ea4\u901a\u7701\u56db\u56fd\u5730\u65b9\u6574\u5099\u5c40\u5fb3\u5cf6\u6cb3\u5ddd\u56fd\u9053\u4e8b\u52d9\u6240","boring_xml_url":40,"boring_view_url":1,"soilmap_view_url":null,"soiltest_xml_url":0,"soiltest_view_url":0},{"id":199218,"code":"B4KJ201801008-7467","latitude":"33.79840417","longitude":"134.5924553","source_code":"SK50345457020","project_name":"","survey_name":"\u5e73\u621012\u5e74\u5ea6 \u798f\u4e95\u30c8\u30f3\u30cd\u30eb\u5730\u8cea\u8abf\u67fb\u696d\u52d9","client_name":"\u56fd\u571f\u4ea4\u901a\u7701\u56db\u56fd\u5730\u65b9\u6574\u5099\u5c40\u5fb3\u5cf6\u6cb3\u5ddd\u56fd\u9053\u4e8b\u52d9\u6240","boring_xml_url":40,"boring_view_url":1,"soilmap_view_url":null,"soiltest_xml_url":0,"soiltest_view_url":0},{"id":199217,"code":"B4KJ201801008-7466","latitude":"33.79970972","longitude":"134.5929553","source_code":"SK50345457019","project_name":"","survey_name":"\u5e73\u621012\u5e74\u5ea6 \u798f\u4e95\u30c8\u30f3\u30cd\u30eb\u5730\u8cea\u8abf\u67fb\u696d\u52d9","client_name":"\u56fd\u571f\u4ea4\u901a\u7701\u56db\u56fd\u5730\u65b9\u6574\u5099\u5c40\u5fb3\u5cf6\u6cb3\u5ddd\u56fd\u9053\u4e8b\u52d9\u6240","boring_xml_url":40,"boring_view_url":1,"soilmap_view_url":null,"soiltest_xml_url":0,"soiltest_view_url":0},{"id":199216,"code":"B4KJ201801008-7465","latitude":"33.80223722","longitude":"134.5926219","source_code":"SK50345457018","project_name":"","survey_name":"\u5e73\u621012\u5e74\u5ea6 \u798f\u4e95\u30c8\u30f3\u30cd\u30eb\u5730\u8cea\u8abf\u67fb\u696d\u52d9","client_name":"\u56fd\u571f\u4ea4\u901a\u7701\u56db\u56fd\u5730\u65b9\u6574\u5099\u5c40\u5fb3\u5cf6\u6cb3\u5ddd\u56fd\u9053\u4e8b\u52d9\u6240","boring_xml_url":40,"boring_view_url":1,"soilmap_view_url":null,"soiltest_xml_url":0,"soiltest_view_url":0},{"id":199215,"code":"B4KJ201801008-7464","latitude":"33.80234833","longitude":"134.5923997","source_code":"SK50345457017","project_name":"","survey_name":"\u5e73\u621012\u5e74\u5ea6 \u798f\u4e95\u30c8\u30f3\u30cd\u30eb\u5730\u8cea\u8abf\u67fb\u696d\u52d9","client_name":"\u56fd\u571f\u4ea4\u901a\u7701\u56db\u56fd\u5730\u65b9\u6574\u5099\u5c40\u5fb3\u5cf6\u6cb3\u5ddd\u56fd\u9053\u4e8b\u52d9\u6240","boring_xml_url":40,"boring_view_url":1,"soilmap_view_url":null,"soiltest_xml_url":0,"soiltest_view_url":0},{"id":199214,"code":"B4KJ201801008-7463","latitude":"33.7893775","longitude":"134.5917611","source_code":"SK50345447024","project_name":"","survey_name":"\u5e73\u621012\u5e74\u5ea6 \u798f\u4e95\u30c8\u30f3\u30cd\u30eb\u5730\u8cea\u8abf\u67fb\u696d\u52d9","client_name":"\u56fd\u571f\u4ea4\u901a\u7701\u56db\u56fd\u5730\u65b9\u6574\u5099\u5c40\u5fb3\u5cf6\u6cb3\u5ddd\u56fd\u9053\u4e8b\u52d9\u6240","boring_xml_url":40,"boring_view_url":1,"soilmap_view_url":null,"soiltest_xml_url":0,"soiltest_view_url":0},{"id":199213,"code":"B4KJ201801008-7462","latitude":"33.79146056","longitude":"134.5922056","source_code":"SK50345447023","project_name":"","survey_name":"\u5e73\u621012\u5e74\u5ea6 \u798f\u4e95\u30c8\u30f3\u30cd\u30eb\u5730\u8cea\u8abf\u67fb\u696d\u52d9","client_name":"\u56fd\u571f\u4ea4\u901a\u7701\u56db\u56fd\u5730\u65b9\u6574\u5099\u5c40\u5fb3\u5cf6\u6cb3\u5ddd\u56fd\u9053\u4e8b\u52d9\u6240","boring_xml_url":40,"boring_view_url":1,"soilmap_view_url":null,"soiltest_xml_url":0,"soiltest_view_url":0},{"id":199212,"code":"B4KJ201801008-7461","latitude":"33.791905","longitude":"134.5922889","source_code":"SK50345447022","project_name":"","survey_name":"\u5e73\u621012\u5e74\u5ea6 \u798f\u4e95\u30c8\u30f3\u30cd\u30eb\u5730\u8cea\u8abf\u67fb\u696d\u52d9","client_name":"\u56fd\u571f\u4ea4\u901a\u7701\u56db\u56fd\u5730\u65b9\u6574\u5099\u5c40\u5fb3\u5cf6\u6cb3\u5ddd\u56fd\u9053\u4e8b\u52d9\u6240","boring_xml_url":40,"boring_view_url":1,"soilmap_view_url":null,"soiltest_xml_url":0,"soiltest_view_url":0},{"id":199211,"code":"B4KJ201801008-7460","latitude":"33.79196056","longitude":"134.5922889","source_code":"SK50345447021","project_name":"","survey_name":"\u5e73\u621012\u5e74\u5ea6 \u798f\u4e95\u30c8\u30f3\u30cd\u30eb\u5730\u8cea\u8abf\u67fb\u696d\u52d9","client_name":"\u56fd\u571f\u4ea4\u901a\u7701\u56db\u56fd\u5730\u65b9\u6574\u5099\u5c40\u5fb3\u5cf6\u6cb3\u5ddd\u56fd\u9053\u4e8b\u52d9\u6240","boring_xml_url":40,"boring_view_url":1,"soilmap_view_url":null,"soiltest_xml_url":0,"soiltest_view_url":0},{"id":199210,"code":"B4KJ201801008-7459","latitude":"33.79196056","longitude":"134.5924","source_code":"SK50345447020","project_name":"","survey_name":"\u5e73\u621012\u5e74\u5ea6 \u798f\u4e95\u30c8\u30f3\u30cd\u30eb\u5730\u8cea\u8abf\u67fb\u696d\u52d9","client_name":"\u56fd\u571f\u4ea4\u901a\u7701\u56db\u56fd\u5730\u65b9\u6574\u5099\u5c40\u5fb3\u5cf6\u6cb3\u5ddd\u56fd\u9053\u4e8b\u52d9\u6240","boring_xml_url":40,"boring_view_url":1,"soilmap_view_url":null,"soiltest_xml_url":0,"soiltest_view_url":0},{"id":199209,"code":"B4KJ201801008-7458","latitude":"33.79226611","longitude":"134.5923444","source_code":"SK50345447019","project_name":"","survey_name":"\u5e73\u621012\u5e74\u5ea6 \u798f\u4e95\u30c8\u30f3\u30cd\u30eb\u5730\u8cea\u8abf\u67fb\u696d\u52d9","client_name":"\u56fd\u571f\u4ea4\u901a\u7701\u56db\u56fd\u5730\u65b9\u6574\u5099\u5c40\u5fb3\u5cf6\u6cb3\u5ddd\u56fd\u9053\u4e8b\u52d9\u6240","boring_xml_url":40,"boring_view_url":1,"soilmap_view_url":null,"soiltest_xml_url":0,"soiltest_view_url":0},{"id":199208,"code":"B4KJ201801008-7457","latitude":"33.79234944","longitude":"134.5925944","source_code":"SK50345447018","project_name":"","survey_name":"\u5e73\u621012\u5e74\u5ea6 \u798f\u4e95\u30c8\u30f3\u30cd\u30eb\u5730\u8cea\u8abf\u67fb\u696d\u52d9","client_name":"\u56fd\u571f\u4ea4\u901a\u7701\u56db\u56fd\u5730\u65b9\u6574\u5099\u5c40\u5fb3\u5cf6\u6cb3\u5ddd\u56fd\u9053\u4e8b\u52d9\u6240","boring_xml_url":40,"boring_view_url":1,"soilmap_view_url":null,"soiltest_xml_url":0,"soiltest_view_url":0},{"id":199207,"code":"B4KJ201801008-7456","latitude":"33.77857306","longitude":"134.5857342","source_code":"SK50345437004","project_name":"","survey_name":"\u5e73\u621011\u5e74\u5ea6 \u65e5\u548c\u4f50\u9053\u8def\u5730\u8cea\u8abf\u67fb\u696d\u52d9","client_name":"\u56fd\u571f\u4ea4\u901a\u7701\u56db\u56fd\u5730\u65b9\u6574\u5099\u5c40\u5fb3\u5cf6\u6cb3\u5ddd\u56fd\u9053\u4e8b\u52d9\u6240","boring_xml_url":40,"boring_view_url":1,"soilmap_view_url":null,"soiltest_xml_url":0,"soiltest_view_url":0},{"id":199206,"code":"B4KJ201801008-7455","latitude":"33.77921194","longitude":"134.5863453","source_code":"SK50345437003","project_name":"","survey_name":"\u5e73\u621011\u5e74\u5ea6 \u65e5\u548c\u4f50\u9053\u8def\u5730\u8cea\u8abf\u67fb\u696d\u52d9","client_name":"\u56fd\u571f\u4ea4\u901a\u7701\u56db\u56fd\u5730\u65b9\u6574\u5099\u5c40\u5fb3\u5cf6\u6cb3\u5ddd\u56fd\u9053\u4e8b\u52d9\u6240","boring_xml_url":40,"boring_view_url":1,"soilmap_view_url":null,"soiltest_xml_url":0,"soiltest_view_url":0},{"id":199205,"code":"B4KJ201801008-7454","latitude":"33.78007278","longitude":"134.5870675","source_code":"SK50345437002","project_name":"","survey_name":"\u5e73\u621011\u5e74\u5ea6 \u65e5\u548c\u4f50\u9053\u8def\u5730\u8cea\u8abf\u67fb\u696d\u52d9","client_name":"\u56fd\u571f\u4ea4\u901a\u7701\u56db\u56fd\u5730\u65b9\u6574\u5099\u5c40\u5fb3\u5cf6\u6cb3\u5ddd\u56fd\u9053\u4e8b\u52d9\u6240","boring_xml_url":40,"boring_view_url":1,"soilmap_view_url":null,"soiltest_xml_url":0,"soiltest_view_url":0},{"id":199204,"code":"B4KJ201801008-7453","latitude":"33.78090611","longitude":"134.5877061","source_code":"SK50345437001","project_name":"","survey_name":"\u5e73\u621011\u5e74\u5ea6 \u65e5\u548c\u4f50\u9053\u8def\u5730\u8cea\u8abf\u67fb\u696d\u52d9","client_name":"\u56fd\u571f\u4ea4\u901a\u7701\u56db\u56fd\u5730\u65b9\u6574\u5099\u5c40\u5fb3\u5cf6\u6cb3\u5ddd\u56fd\u9053\u4e8b\u52d9\u6240","boring_xml_url":40,"boring_view_url":1,"soilmap_view_url":null,"soiltest_xml_url":0,"soiltest_view_url":0},{"id":199203,"code":"B4KJ201801008-7452","latitude":"33.77810083","longitude":"134.5851511","source_code":"SK50345427004","project_name":"","survey_name":"\u5e73\u621011\u5e74\u5ea6 \u65e5\u548c\u4f50\u9053\u8def\u5730\u8cea\u8abf\u67fb\u696d\u52d9","client_name":"\u56fd\u571f\u4ea4\u901a\u7701\u56db\u56fd\u5730\u65b9\u6574\u5099\u5c40\u5fb3\u5cf6\u6cb3\u5ddd\u56fd\u9053\u4e8b\u52d9\u6240","boring_xml_url":40,"boring_view_url":1,"soilmap_view_url":null,"soiltest_xml_url":0,"soiltest_view_url":0},{"id":199202,"code":"B4KJ201801008-7451","latitude":"33.77551778","longitude":"134.5821514","source_code":"SK50345426021","project_name":"","survey_name":"\u5e73\u621011\u5e74\u5ea6 \u65e5\u548c\u4f50\u9053\u8def\u5730\u8cea\u8abf\u67fb\u696d\u52d9","client_name":"\u56fd\u571f\u4ea4\u901a\u7701\u56db\u56fd\u5730\u65b9\u6574\u5099\u5c40\u5fb3\u5cf6\u6cb3\u5ddd\u56fd\u9053\u4e8b\u52d9\u6240","boring_xml_url":40,"boring_view_url":1,"soilmap_view_url":null,"soiltest_xml_url":0,"soiltest_view_url":0},{"id":199201,"code":"B4KJ201801008-7450","latitude":"33.77524","longitude":"134.5828458","source_code":"SK50345426020","project_name":"","survey_name":"\u5e73\u621011\u5e74\u5ea6 \u65e5\u548c\u4f50\u9053\u8def\u5730\u8cea\u8abf\u67fb\u696d\u52d9","client_name":"\u56fd\u571f\u4ea4\u901a\u7701\u56db\u56fd\u5730\u65b9\u6574\u5099\u5c40\u5fb3\u5cf6\u6cb3\u5ddd\u56fd\u9053\u4e8b\u52d9\u6240","boring_xml_url":40,"boring_view_url":1,"soilmap_view_url":null,"soiltest_xml_url":0,"soiltest_view_url":0},{"id":199200,"code":"B4KJ201801008-7449","latitude":"33.77554556","longitude":"134.5832903","source_code":"SK50345426019","project_name":"","survey_name":"\u5e73\u621011\u5e74\u5ea6 \u65e5\u548c\u4f50\u9053\u8def\u5730\u8cea\u8abf\u67fb\u696d\u52d9","client_name":"\u56fd\u571f\u4ea4\u901a\u7701\u56db\u56fd\u5730\u65b9\u6574\u5099\u5c40\u5fb3\u5cf6\u6cb3\u5ddd\u56fd\u9053\u4e8b\u52d9\u6240","boring_xml_url":40,"boring_view_url":1,"soilmap_view_url":null,"soiltest_xml_url":0,"soiltest_view_url":0},{"id":199199,"code":"B4KJ201801008-7448","latitude":"33.77585111","longitude":"134.5833456","source_code":"SK50345426018","project_name":"","survey_name":"\u5e73\u621011\u5e74\u5ea6 \u65e5\u548c\u4f50\u9053\u8def\u5730\u8cea\u8abf\u67fb\u696d\u52d9","client_name":"\u56fd\u571f\u4ea4\u901a\u7701\u56db\u56fd\u5730\u65b9\u6574\u5099\u5c40\u5fb3\u5cf6\u6cb3\u5ddd\u56fd\u9053\u4e8b\u52d9\u6240","boring_xml_url":40,"boring_view_url":1,"soilmap_view_url":null,"soiltest_xml_url":0,"soiltest_view_url":0},{"id":199198,"code":"B4KJ201801008-7447","latitude":"33.77099028","longitude":"134.5761519","source_code":"SK50345426017","project_name":"","survey_name":"\u5e73\u621011\u5e74\u5ea6 \u65e5\u548c\u4f50\u9053\u8def\u5730\u8cea\u8abf\u67fb\u696d\u52d9","client_name":"\u56fd\u571f\u4ea4\u901a\u7701\u56db\u56fd\u5730\u65b9\u6574\u5099\u5c40\u5fb3\u5cf6\u6cb3\u5ddd\u56fd\u9053\u4e8b\u52d9\u6240","boring_xml_url":40,"boring_view_url":1,"soilmap_view_url":null,"soiltest_xml_url":0,"soiltest_view_url":0},{"id":199197,"code":"B4KJ201801008-7446","latitude":"33.77074028","longitude":"134.5744856","source_code":"SK50345426016","project_name":"","survey_name":"\u5e73\u621011\u5e74\u5ea6 \u65e5\u548c\u4f50\u9053\u8def\u5730\u8cea\u8abf\u67fb\u696d\u52d9","client_name":"\u56fd\u571f\u4ea4\u901a\u7701\u56db\u56fd\u5730\u65b9\u6574\u5099\u5c40\u5fb3\u5cf6\u6cb3\u5ddd\u56fd\u9053\u4e8b\u52d9\u6240","boring_xml_url":40,"boring_view_url":1,"soilmap_view_url":null,"soiltest_xml_url":0,"soiltest_view_url":0},{"id":199196,"code":"B4KJ201801008-7445","latitude":"33.77112917","longitude":"134.5753467","source_code":"SK50345426015","project_name":"","survey_name":"\u5e73\u621011\u5e74\u5ea6 \u65e5\u548c\u4f50\u9053\u8def\u5730\u8cea\u8abf\u67fb\u696d\u52d9","client_name":"\u56fd\u571f\u4ea4\u901a\u7701\u56db\u56fd\u5730\u65b9\u6574\u5099\u5c40\u5fb3\u5cf6\u6cb3\u5ddd\u56fd\u9053\u4e8b\u52d9\u6240","boring_xml_url":40,"boring_view_url":1,"soilmap_view_url":null,"soiltest_xml_url":0,"soiltest_view_url":0}]}}