{"header":{"xyz":{"source":[],"mosaic":false},"page":405,"raw":{"soiltest_result":"0","bbox":"57.598333,109.544722,1.933333,163.806111","page":"405"},"conditions":{"soiltest_result":0,"north":57.598333,"west":109.544722,"south":1.933333,"east":163.806111},"success":true,"message":""},"data":{"meta":{"total":212844,"page":405,"pages":7095,"count":30},"values":[{"id":533268,"code":"B4KJ202201003-5804","latitude":"33.283405","longitude":"130.205515","source_code":"QS20188938460200080005","project_name":"\u591a\u4e45\u4f50\u8cc0\u9053\u8def(I\u671f)\u3000\u4e45\u7c73\u7b2c\u4e8c\u6a4b","survey_name":"\u5e73\u621030\u5e74\u5ea6\u3000\u591a\u4e45\u4f50\u8cc0\u9053\u8def(1\u671f)\u5916\u5730\u8cea\u8abf\u67fb\u696d\u52d9","client_name":"\u56fd\u571f\u4ea4\u901a\u7701\u3000\u4e5d\u5dde\u5730\u65b9\u6574\u5099\u5c40\u3000\u4f50\u8cc0\u56fd\u9053\u4e8b\u52d9\u6240\u3000\u8a08\u753b\u8ab2","boring_xml_url":72,"boring_view_url":1,"soilmap_view_url":null,"soiltest_xml_url":0,"soiltest_view_url":0},{"id":533267,"code":"B4KJ202201003-5803","latitude":"33.289567","longitude":"130.168999","source_code":"QS20188938460200080004","project_name":"\u591a\u4e45\u4f50\u8cc0\u9053\u8def(I\u671f)\u3000\u4e00\u672c\u677e\u6a4b","survey_name":"\u5e73\u621030\u5e74\u5ea6\u3000\u591a\u4e45\u4f50\u8cc0\u9053\u8def(1\u671f)\u5916\u5730\u8cea\u8abf\u67fb\u696d\u52d9","client_name":"\u56fd\u571f\u4ea4\u901a\u7701\u3000\u4e5d\u5dde\u5730\u65b9\u6574\u5099\u5c40\u3000\u4f50\u8cc0\u56fd\u9053\u4e8b\u52d9\u6240\u3000\u8a08\u753b\u8ab2","boring_xml_url":72,"boring_view_url":1,"soilmap_view_url":null,"soiltest_xml_url":0,"soiltest_view_url":0},{"id":533266,"code":"B4KJ202201003-5802","latitude":"33.289688","longitude":"130.167511","source_code":"QS20188938460200080003","project_name":"\u591a\u4e45\u4f50\u8cc0\u9053\u8def(I\u671f)\u3000\u4e00\u672c\u677e\u6a4b","survey_name":"\u5e73\u621030\u5e74\u5ea6\u3000\u591a\u4e45\u4f50\u8cc0\u9053\u8def(1\u671f)\u5916\u5730\u8cea\u8abf\u67fb\u696d\u52d9","client_name":"\u56fd\u571f\u4ea4\u901a\u7701\u3000\u4e5d\u5dde\u5730\u65b9\u6574\u5099\u5c40\u3000\u4f50\u8cc0\u56fd\u9053\u4e8b\u52d9\u6240\u3000\u8a08\u753b\u8ab2","boring_xml_url":72,"boring_view_url":1,"soilmap_view_url":null,"soiltest_xml_url":0,"soiltest_view_url":0},{"id":533265,"code":"B4KJ202201003-5801","latitude":"33.289624","longitude":"130.167206","source_code":"QS20188938460200080002","project_name":"\u591a\u4e45\u4f50\u8cc0\u9053\u8def(I\u671f)\u3000\u4e00\u672c\u677e\u6a4b","survey_name":"\u5e73\u621030\u5e74\u5ea6\u3000\u591a\u4e45\u4f50\u8cc0\u9053\u8def(1\u671f)\u5916\u5730\u8cea\u8abf\u67fb\u696d\u52d9","client_name":"\u56fd\u571f\u4ea4\u901a\u7701\u3000\u4e5d\u5dde\u5730\u65b9\u6574\u5099\u5c40\u3000\u4f50\u8cc0\u56fd\u9053\u4e8b\u52d9\u6240\u3000\u8a08\u753b\u8ab2","boring_xml_url":72,"boring_view_url":1,"soilmap_view_url":null,"soiltest_xml_url":0,"soiltest_view_url":0},{"id":533264,"code":"B4KJ202201003-5800","latitude":"33.289745","longitude":"130.16706","source_code":"QS20188938460200080001","project_name":"\u591a\u4e45\u4f50\u8cc0\u9053\u8def(I\u671f)\u3000\u4e00\u672c\u677e\u6a4b","survey_name":"\u5e73\u621030\u5e74\u5ea6\u3000\u591a\u4e45\u4f50\u8cc0\u9053\u8def(1\u671f)\u5916\u5730\u8cea\u8abf\u67fb\u696d\u52d9","client_name":"\u56fd\u571f\u4ea4\u901a\u7701\u3000\u4e5d\u5dde\u5730\u65b9\u6574\u5099\u5c40\u3000\u4f50\u8cc0\u56fd\u9053\u4e8b\u52d9\u6240\u3000\u8a08\u753b\u8ab2","boring_xml_url":72,"boring_view_url":1,"soilmap_view_url":null,"soiltest_xml_url":0,"soiltest_view_url":0},{"id":533263,"code":"B4KJ202201003-5799","latitude":"33.309034","longitude":"129.916804","source_code":"QS20188938400200100010","project_name":"","survey_name":"\u5e73\u621030\u5e74\u5ea6\u3000\u4f0a\u4e07\u91cc\u9053\u8def\u5730\u8cea\u8abf\u67fb\u696d\u52d9","client_name":"\u56fd\u571f\u4ea4\u901a\u7701\u4e5d\u5dde\u5730\u65b9\u6574\u5099\u5c40\u4f50\u8cc0\u56fd\u9053\u4e8b\u52d9\u6240","boring_xml_url":72,"boring_view_url":1,"soilmap_view_url":null,"soiltest_xml_url":0,"soiltest_view_url":0},{"id":533262,"code":"B4KJ202201003-5798","latitude":"33.321767","longitude":"129.925765","source_code":"QS20188938400200100009","project_name":"","survey_name":"\u5e73\u621030\u5e74\u5ea6\u3000\u4f0a\u4e07\u91cc\u9053\u8def\u5730\u8cea\u8abf\u67fb\u696d\u52d9","client_name":"\u56fd\u571f\u4ea4\u901a\u7701\u4e5d\u5dde\u5730\u65b9\u6574\u5099\u5c40\u4f50\u8cc0\u56fd\u9053\u4e8b\u52d9\u6240","boring_xml_url":72,"boring_view_url":1,"soilmap_view_url":null,"soiltest_xml_url":0,"soiltest_view_url":0},{"id":533261,"code":"B4KJ202201003-5797","latitude":"33.329036","longitude":"129.928088","source_code":"QS20188938400200100008","project_name":"","survey_name":"\u5e73\u621030\u5e74\u5ea6\u3000\u4f0a\u4e07\u91cc\u9053\u8def\u5730\u8cea\u8abf\u67fb\u696d\u52d9","client_name":"\u56fd\u571f\u4ea4\u901a\u7701\u4e5d\u5dde\u5730\u65b9\u6574\u5099\u5c40\u4f50\u8cc0\u56fd\u9053\u4e8b\u52d9\u6240","boring_xml_url":72,"boring_view_url":1,"soilmap_view_url":null,"soiltest_xml_url":0,"soiltest_view_url":0},{"id":533260,"code":"B4KJ202201003-5796","latitude":"33.28897","longitude":"129.879566","source_code":"QS20188938400200100007","project_name":"","survey_name":"\u5e73\u621030\u5e74\u5ea6\u3000\u4f0a\u4e07\u91cc\u9053\u8def\u5730\u8cea\u8abf\u67fb\u696d\u52d9","client_name":"\u56fd\u571f\u4ea4\u901a\u7701\u4e5d\u5dde\u5730\u65b9\u6574\u5099\u5c40\u4f50\u8cc0\u56fd\u9053\u4e8b\u52d9\u6240","boring_xml_url":72,"boring_view_url":1,"soilmap_view_url":null,"soiltest_xml_url":0,"soiltest_view_url":0},{"id":533259,"code":"B4KJ202201003-5795","latitude":"33.289921","longitude":"129.881938","source_code":"QS20188938400200100006","project_name":"","survey_name":"\u5e73\u621030\u5e74\u5ea6\u3000\u4f0a\u4e07\u91cc\u9053\u8def\u5730\u8cea\u8abf\u67fb\u696d\u52d9","client_name":"\u56fd\u571f\u4ea4\u901a\u7701\u4e5d\u5dde\u5730\u65b9\u6574\u5099\u5c40\u4f50\u8cc0\u56fd\u9053\u4e8b\u52d9\u6240","boring_xml_url":72,"boring_view_url":1,"soilmap_view_url":null,"soiltest_xml_url":0,"soiltest_view_url":0},{"id":533258,"code":"B4KJ202201003-5794","latitude":"33.28977","longitude":"129.882101","source_code":"QS20188938400200100005","project_name":"","survey_name":"\u5e73\u621030\u5e74\u5ea6\u3000\u4f0a\u4e07\u91cc\u9053\u8def\u5730\u8cea\u8abf\u67fb\u696d\u52d9","client_name":"\u56fd\u571f\u4ea4\u901a\u7701\u4e5d\u5dde\u5730\u65b9\u6574\u5099\u5c40\u4f50\u8cc0\u56fd\u9053\u4e8b\u52d9\u6240","boring_xml_url":72,"boring_view_url":1,"soilmap_view_url":null,"soiltest_xml_url":0,"soiltest_view_url":0},{"id":533257,"code":"B4KJ202201003-5793","latitude":"33.290214","longitude":"129.882805","source_code":"QS20188938400200100004","project_name":"","survey_name":"\u5e73\u621030\u5e74\u5ea6\u3000\u4f0a\u4e07\u91cc\u9053\u8def\u5730\u8cea\u8abf\u67fb\u696d\u52d9","client_name":"\u56fd\u571f\u4ea4\u901a\u7701\u4e5d\u5dde\u5730\u65b9\u6574\u5099\u5c40\u4f50\u8cc0\u56fd\u9053\u4e8b\u52d9\u6240","boring_xml_url":72,"boring_view_url":1,"soilmap_view_url":null,"soiltest_xml_url":0,"soiltest_view_url":0},{"id":533256,"code":"B4KJ202201003-5792","latitude":"33.291099","longitude":"129.888547","source_code":"QS20188938400200100003","project_name":"","survey_name":"\u5e73\u621030\u5e74\u5ea6\u3000\u4f0a\u4e07\u91cc\u9053\u8def\u5730\u8cea\u8abf\u67fb\u696d\u52d9","client_name":"\u56fd\u571f\u4ea4\u901a\u7701\u4e5d\u5dde\u5730\u65b9\u6574\u5099\u5c40\u4f50\u8cc0\u56fd\u9053\u4e8b\u52d9\u6240","boring_xml_url":72,"boring_view_url":1,"soilmap_view_url":null,"soiltest_xml_url":0,"soiltest_view_url":0},{"id":533255,"code":"B4KJ202201003-5791","latitude":"33.290454","longitude":"129.888678","source_code":"QS20188938400200100002","project_name":"","survey_name":"\u5e73\u621030\u5e74\u5ea6\u3000\u4f0a\u4e07\u91cc\u9053\u8def\u5730\u8cea\u8abf\u67fb\u696d\u52d9","client_name":"\u56fd\u571f\u4ea4\u901a\u7701\u4e5d\u5dde\u5730\u65b9\u6574\u5099\u5c40\u4f50\u8cc0\u56fd\u9053\u4e8b\u52d9\u6240","boring_xml_url":72,"boring_view_url":1,"soilmap_view_url":null,"soiltest_xml_url":0,"soiltest_view_url":0},{"id":533254,"code":"B4KJ202201003-5790","latitude":"33.290908","longitude":"129.889391","source_code":"QS20188938400200100001","project_name":"","survey_name":"\u5e73\u621030\u5e74\u5ea6\u3000\u4f0a\u4e07\u91cc\u9053\u8def\u5730\u8cea\u8abf\u67fb\u696d\u52d9","client_name":"\u56fd\u571f\u4ea4\u901a\u7701\u4e5d\u5dde\u5730\u65b9\u6574\u5099\u5c40\u4f50\u8cc0\u56fd\u9053\u4e8b\u52d9\u6240","boring_xml_url":72,"boring_view_url":1,"soilmap_view_url":null,"soiltest_xml_url":0,"soiltest_view_url":0},{"id":533253,"code":"B4KJ202201003-5789","latitude":"33.676361","longitude":"130.856447","source_code":"QS20188933400200080007","project_name":"","survey_name":"\u5e73\u621030\u5e74\u5ea6\u3000\u5317\u4e5d\u5dde\u56fd\u9053\u7ba1\u5185\u5730\u8cea\u8abf\u67fb\u696d\u52d9","client_name":"\u56fd\u571f\u4ea4\u901a\u7701\u3000\u4e5d\u5dde\u5730\u65b9\u6574\u5099\u5c40\u3000\u5317\u4e5d\u5dde\u56fd\u9053\u4e8b\u52d9\u6240\u3000\u5de5\u52d9\u8ab2","boring_xml_url":72,"boring_view_url":1,"soilmap_view_url":null,"soiltest_xml_url":0,"soiltest_view_url":0},{"id":533252,"code":"B4KJ202201003-5788","latitude":"33.869869","longitude":"130.796534","source_code":"QS20188933400200080006","project_name":"","survey_name":"\u5e73\u621030\u5e74\u5ea6\u3000\u5317\u4e5d\u5dde\u56fd\u9053\u7ba1\u5185\u5730\u8cea\u8abf\u67fb\u696d\u52d9","client_name":"\u56fd\u571f\u4ea4\u901a\u7701\u3000\u4e5d\u5dde\u5730\u65b9\u6574\u5099\u5c40\u3000\u5317\u4e5d\u5dde\u56fd\u9053\u4e8b\u52d9\u6240\u3000\u5de5\u52d9\u8ab2","boring_xml_url":72,"boring_view_url":1,"soilmap_view_url":null,"soiltest_xml_url":0,"soiltest_view_url":0},{"id":533251,"code":"B4KJ202201003-5787","latitude":"33.676472","longitude":"130.856428","source_code":"QS20188933400200080005","project_name":"","survey_name":"\u5e73\u621030\u5e74\u5ea6\u3000\u5317\u4e5d\u5dde\u56fd\u9053\u7ba1\u5185\u5730\u8cea\u8abf\u67fb\u696d\u52d9","client_name":"\u56fd\u571f\u4ea4\u901a\u7701\u3000\u4e5d\u5dde\u5730\u65b9\u6574\u5099\u5c40\u3000\u5317\u4e5d\u5dde\u56fd\u9053\u4e8b\u52d9\u6240\u3000\u5de5\u52d9\u8ab2","boring_xml_url":72,"boring_view_url":1,"soilmap_view_url":null,"soiltest_xml_url":0,"soiltest_view_url":0},{"id":533250,"code":"B4KJ202201003-5786","latitude":"33.676555","longitude":"130.857174","source_code":"QS20188933400200080004","project_name":"","survey_name":"\u5e73\u621030\u5e74\u5ea6\u3000\u5317\u4e5d\u5dde\u56fd\u9053\u7ba1\u5185\u5730\u8cea\u8abf\u67fb\u696d\u52d9","client_name":"\u56fd\u571f\u4ea4\u901a\u7701\u3000\u4e5d\u5dde\u5730\u65b9\u6574\u5099\u5c40\u3000\u5317\u4e5d\u5dde\u56fd\u9053\u4e8b\u52d9\u6240\u3000\u5de5\u52d9\u8ab2","boring_xml_url":72,"boring_view_url":1,"soilmap_view_url":null,"soiltest_xml_url":0,"soiltest_view_url":0},{"id":533249,"code":"B4KJ202201003-5785","latitude":"33.676493","longitude":"130.857062","source_code":"QS20188933400200080003","project_name":"","survey_name":"\u5e73\u621030\u5e74\u5ea6\u3000\u5317\u4e5d\u5dde\u56fd\u9053\u7ba1\u5185\u5730\u8cea\u8abf\u67fb\u696d\u52d9","client_name":"\u56fd\u571f\u4ea4\u901a\u7701\u3000\u4e5d\u5dde\u5730\u65b9\u6574\u5099\u5c40\u3000\u5317\u4e5d\u5dde\u56fd\u9053\u4e8b\u52d9\u6240\u3000\u5de5\u52d9\u8ab2","boring_xml_url":72,"boring_view_url":1,"soilmap_view_url":null,"soiltest_xml_url":0,"soiltest_view_url":0},{"id":533248,"code":"B4KJ202201003-5784","latitude":"33.676367","longitude":"130.856554","source_code":"QS20188933400200080002","project_name":"","survey_name":"\u5e73\u621030\u5e74\u5ea6\u3000\u5317\u4e5d\u5dde\u56fd\u9053\u7ba1\u5185\u5730\u8cea\u8abf\u67fb\u696d\u52d9","client_name":"\u56fd\u571f\u4ea4\u901a\u7701\u3000\u4e5d\u5dde\u5730\u65b9\u6574\u5099\u5c40\u3000\u5317\u4e5d\u5dde\u56fd\u9053\u4e8b\u52d9\u6240\u3000\u5de5\u52d9\u8ab2","boring_xml_url":72,"boring_view_url":1,"soilmap_view_url":null,"soiltest_xml_url":0,"soiltest_view_url":0},{"id":533247,"code":"B4KJ202201003-5783","latitude":"33.676293","longitude":"130.856268","source_code":"QS20188933400200080001","project_name":"","survey_name":"\u5e73\u621030\u5e74\u5ea6\u3000\u5317\u4e5d\u5dde\u56fd\u9053\u7ba1\u5185\u5730\u8cea\u8abf\u67fb\u696d\u52d9","client_name":"\u56fd\u571f\u4ea4\u901a\u7701\u3000\u4e5d\u5dde\u5730\u65b9\u6574\u5099\u5c40\u3000\u5317\u4e5d\u5dde\u56fd\u9053\u4e8b\u52d9\u6240\u3000\u5de5\u52d9\u8ab2","boring_xml_url":72,"boring_view_url":1,"soilmap_view_url":null,"soiltest_xml_url":0,"soiltest_view_url":0},{"id":533246,"code":"B4KJ202201003-5782","latitude":"33.072944","longitude":"130.46425","source_code":"QS20188932570200070001","project_name":"\"\u5e73\u621030\u5e74\u5ea6 \u798f\u5ca1\u56fd\u9053\u7ba1\u5185\u5357\u90e8\u5730\u533a \u6a4b\u6881\u5916\u69cb\u9020\u7269\u88dc\u4fee\u8a2d\u8a08\u696d\u52d9\"","survey_name":"\"\u5e73\u621030\u5e74\u5ea6 \u798f\u5ca1\u56fd\u9053\u7ba1\u5185\u5357\u90e8\u5730\u533a \u6a4b\u6881\u5916\u69cb\u9020\u7269\u88dc\u4fee\u8a2d\u8a08\u696d\u52d9\"","client_name":"\u56fd\u571f\u4ea4\u901a\u7701\u4e5d\u5dde\u5730\u65b9\u6574\u5099\u5c40\u798f\u5ca1\u56fd\u9053\u4e8b\u52d9\u6240","boring_xml_url":72,"boring_view_url":1,"soilmap_view_url":null,"soiltest_xml_url":0,"soiltest_view_url":0},{"id":533245,"code":"B4KJ202201003-5781","latitude":"33.520411","longitude":"130.163111","source_code":"QS20188932460200150011","project_name":"","survey_name":"\u5e73\u621030\u5e74\u5ea6\u798f\u5ca1\u56fd\u9053\u7ba1\u5185\u5730\u8cea\u8abf\u67fb\u696d\u52d9","client_name":"\u56fd\u571f\u4ea4\u901a\u7701\u3000\u4e5d\u5dde\u5730\u65b9\u6574\u5099\u5c40\u3000\u798f\u5ca1\u56fd\u9053\u4e8b\u52d9\u6240","boring_xml_url":72,"boring_view_url":1,"soilmap_view_url":null,"soiltest_xml_url":0,"soiltest_view_url":0},{"id":533244,"code":"B4KJ202201003-5780","latitude":"33.521689","longitude":"130.165542","source_code":"QS20188932460200150010","project_name":"","survey_name":"\u5e73\u621030\u5e74\u5ea6\u798f\u5ca1\u56fd\u9053\u7ba1\u5185\u5730\u8cea\u8abf\u67fb\u696d\u52d9","client_name":"\u56fd\u571f\u4ea4\u901a\u7701\u3000\u4e5d\u5dde\u5730\u65b9\u6574\u5099\u5c40\u3000\u798f\u5ca1\u56fd\u9053\u4e8b\u52d9\u6240","boring_xml_url":72,"boring_view_url":1,"soilmap_view_url":null,"soiltest_xml_url":0,"soiltest_view_url":0},{"id":533243,"code":"B4KJ202201003-5779","latitude":"33.522183","longitude":"130.166719","source_code":"QS20188932460200150009","project_name":"","survey_name":"\u5e73\u621030\u5e74\u5ea6\u798f\u5ca1\u56fd\u9053\u7ba1\u5185\u5730\u8cea\u8abf\u67fb\u696d\u52d9","client_name":"\u56fd\u571f\u4ea4\u901a\u7701\u3000\u4e5d\u5dde\u5730\u65b9\u6574\u5099\u5c40\u3000\u798f\u5ca1\u56fd\u9053\u4e8b\u52d9\u6240","boring_xml_url":72,"boring_view_url":1,"soilmap_view_url":null,"soiltest_xml_url":0,"soiltest_view_url":0},{"id":533242,"code":"B4KJ202201003-5778","latitude":"33.523256","longitude":"130.169347","source_code":"QS20188932460200150008","project_name":"","survey_name":"\u5e73\u621030\u5e74\u5ea6\u798f\u5ca1\u56fd\u9053\u7ba1\u5185\u5730\u8cea\u8abf\u67fb\u696d\u52d9","client_name":"\u56fd\u571f\u4ea4\u901a\u7701\u3000\u4e5d\u5dde\u5730\u65b9\u6574\u5099\u5c40\u3000\u798f\u5ca1\u56fd\u9053\u4e8b\u52d9\u6240","boring_xml_url":72,"boring_view_url":1,"soilmap_view_url":null,"soiltest_xml_url":0,"soiltest_view_url":0},{"id":533241,"code":"B4KJ202201003-5777","latitude":"33.524594","longitude":"130.172575","source_code":"QS20188932460200150007","project_name":"","survey_name":"\u5e73\u621030\u5e74\u5ea6\u798f\u5ca1\u56fd\u9053\u7ba1\u5185\u5730\u8cea\u8abf\u67fb\u696d\u52d9","client_name":"\u56fd\u571f\u4ea4\u901a\u7701\u3000\u4e5d\u5dde\u5730\u65b9\u6574\u5099\u5c40\u3000\u798f\u5ca1\u56fd\u9053\u4e8b\u52d9\u6240","boring_xml_url":72,"boring_view_url":1,"soilmap_view_url":null,"soiltest_xml_url":0,"soiltest_view_url":0},{"id":533240,"code":"B4KJ202201003-5776","latitude":"33.5254","longitude":"130.174236","source_code":"QS20188932460200150006","project_name":"","survey_name":"\u5e73\u621030\u5e74\u5ea6\u798f\u5ca1\u56fd\u9053\u7ba1\u5185\u5730\u8cea\u8abf\u67fb\u696d\u52d9","client_name":"\u56fd\u571f\u4ea4\u901a\u7701\u3000\u4e5d\u5dde\u5730\u65b9\u6574\u5099\u5c40\u3000\u798f\u5ca1\u56fd\u9053\u4e8b\u52d9\u6240","boring_xml_url":72,"boring_view_url":1,"soilmap_view_url":null,"soiltest_xml_url":0,"soiltest_view_url":0},{"id":533239,"code":"B4KJ202201003-5775","latitude":"33.526569","longitude":"130.175506","source_code":"QS20188932460200150005","project_name":"","survey_name":"\u5e73\u621030\u5e74\u5ea6\u798f\u5ca1\u56fd\u9053\u7ba1\u5185\u5730\u8cea\u8abf\u67fb\u696d\u52d9","client_name":"\u56fd\u571f\u4ea4\u901a\u7701\u3000\u4e5d\u5dde\u5730\u65b9\u6574\u5099\u5c40\u3000\u798f\u5ca1\u56fd\u9053\u4e8b\u52d9\u6240","boring_xml_url":72,"boring_view_url":1,"soilmap_view_url":null,"soiltest_xml_url":0,"soiltest_view_url":0}]}}