{"header":{"xyz":{"source":[],"mosaic":false},"page":4050,"raw":{"soiltest_result":"0","bbox":"57.598333,109.544722,1.933333,163.806111","page":"4050"},"conditions":{"soiltest_result":0,"north":57.598333,"west":109.544722,"south":1.933333,"east":163.806111},"success":true,"message":""},"data":{"meta":{"total":212844,"page":4050,"pages":7095,"count":30},"values":[{"id":199075,"code":"B4KJ201801008-7324","latitude":"34.0010425","longitude":"133.0526961","source_code":"SK50337094003","project_name":"","survey_name":"\u5e73\u62102\u5e74\u5ea6\u4eca\u6cbb\u30d0\u30a4\u30d1\u30b9(\u9577\u6ca2\u5730\u533a)\u5730\u8cea\u8abf\u67fb\u696d\u52d9","client_name":"\u56fd\u571f\u4ea4\u901a\u7701\u56db\u56fd\u5730\u65b9\u6574\u5099\u5c40\u677e\u5c71\u6cb3\u5ddd\u56fd\u9053\u4e8b\u52d9\u6240","boring_xml_url":40,"boring_view_url":1,"soilmap_view_url":null,"soiltest_xml_url":0,"soiltest_view_url":0},{"id":199074,"code":"B4KJ201801008-7323","latitude":"34.00187583","longitude":"133.0504742","source_code":"SK50337094002","project_name":"","survey_name":"\u5e73\u62102\u5e74\u5ea6\u4eca\u6cbb\u30d0\u30a4\u30d1\u30b9(\u9577\u6ca2\u5730\u533a)\u5730\u8cea\u8abf\u67fb\u696d\u52d9","client_name":"\u56fd\u571f\u4ea4\u901a\u7701\u56db\u56fd\u5730\u65b9\u6574\u5099\u5c40\u677e\u5c71\u6cb3\u5ddd\u56fd\u9053\u4e8b\u52d9\u6240","boring_xml_url":40,"boring_view_url":1,"soilmap_view_url":null,"soiltest_xml_url":0,"soiltest_view_url":0},{"id":199073,"code":"B4KJ201801008-7322","latitude":"34.00243111","longitude":"133.0490853","source_code":"SK50337094001","project_name":"","survey_name":"\u5e73\u62102\u5e74\u5ea6\u4eca\u6cbb\u30d0\u30a4\u30d1\u30b9(\u9577\u6ca2\u5730\u533a)\u5730\u8cea\u8abf\u67fb\u696d\u52d9","client_name":"\u56fd\u571f\u4ea4\u901a\u7701\u56db\u56fd\u5730\u65b9\u6574\u5099\u5c40\u677e\u5c71\u6cb3\u5ddd\u56fd\u9053\u4e8b\u52d9\u6240","boring_xml_url":40,"boring_view_url":1,"soilmap_view_url":null,"soiltest_xml_url":0,"soiltest_view_url":0},{"id":199072,"code":"B4KJ201801008-7321","latitude":"33.99882028","longitude":"133.0415861","source_code":"SK50337093010","project_name":"","survey_name":"\u4eca\u6cbb\u30d0\u30a4\u30d1\u30b9(\u9577\u6ca2\u5730\u533a)\u5730\u8cea\u8abf\u67fb\u696d\u52d9","client_name":"\u56fd\u571f\u4ea4\u901a\u7701\u56db\u56fd\u5730\u65b9\u6574\u5099\u5c40\u677e\u5c71\u6cb3\u5ddd\u56fd\u9053\u4e8b\u52d9\u6240","boring_xml_url":40,"boring_view_url":1,"soilmap_view_url":null,"soiltest_xml_url":0,"soiltest_view_url":0},{"id":199071,"code":"B4KJ201801008-7320","latitude":"34.00104222","longitude":"133.0393639","source_code":"SK50337093009","project_name":"","survey_name":"\u4eca\u6cbb\u30d0\u30a4\u30d1\u30b9(\u9577\u6ca2\u5730\u533a)\u5730\u8cea\u8abf\u67fb\u696d\u52d9","client_name":"\u56fd\u571f\u4ea4\u901a\u7701\u56db\u56fd\u5730\u65b9\u6574\u5099\u5c40\u677e\u5c71\u6cb3\u5ddd\u56fd\u9053\u4e8b\u52d9\u6240","boring_xml_url":40,"boring_view_url":1,"soilmap_view_url":null,"soiltest_xml_url":0,"soiltest_view_url":0},{"id":199070,"code":"B4KJ201801008-7319","latitude":"34.00104222","longitude":"133.0390864","source_code":"SK50337093008","project_name":"","survey_name":"\u4eca\u6cbb\u30d0\u30a4\u30d1\u30b9(\u9577\u6ca2\u5730\u533a)\u5730\u8cea\u8abf\u67fb\u696d\u52d9","client_name":"\u56fd\u571f\u4ea4\u901a\u7701\u56db\u56fd\u5730\u65b9\u6574\u5099\u5c40\u677e\u5c71\u6cb3\u5ddd\u56fd\u9053\u4e8b\u52d9\u6240","boring_xml_url":40,"boring_view_url":1,"soilmap_view_url":null,"soiltest_xml_url":0,"soiltest_view_url":0},{"id":199069,"code":"B4KJ201801008-7318","latitude":"34.00132","longitude":"133.0388086","source_code":"SK50337093007","project_name":"","survey_name":"\u4eca\u6cbb\u30d0\u30a4\u30d1\u30b9(\u9577\u6ca2\u5730\u533a)\u5730\u8cea\u8abf\u67fb\u696d\u52d9","client_name":"\u56fd\u571f\u4ea4\u901a\u7701\u56db\u56fd\u5730\u65b9\u6574\u5099\u5c40\u677e\u5c71\u6cb3\u5ddd\u56fd\u9053\u4e8b\u52d9\u6240","boring_xml_url":40,"boring_view_url":1,"soilmap_view_url":null,"soiltest_xml_url":0,"soiltest_view_url":0},{"id":199068,"code":"B4KJ201801008-7317","latitude":"34.00159778","longitude":"133.0382531","source_code":"SK50337093006","project_name":"","survey_name":"\u4eca\u6cbb\u30d0\u30a4\u30d1\u30b9(\u9577\u6ca2\u5730\u533a)\u5730\u8cea\u8abf\u67fb\u696d\u52d9","client_name":"\u56fd\u571f\u4ea4\u901a\u7701\u56db\u56fd\u5730\u65b9\u6574\u5099\u5c40\u677e\u5c71\u6cb3\u5ddd\u56fd\u9053\u4e8b\u52d9\u6240","boring_xml_url":40,"boring_view_url":1,"soilmap_view_url":null,"soiltest_xml_url":0,"soiltest_view_url":0},{"id":199067,"code":"B4KJ201801008-7316","latitude":"34.00187556","longitude":"133.0376975","source_code":"SK50337093005","project_name":"","survey_name":"\u4eca\u6cbb\u30d0\u30a4\u30d1\u30b9(\u9577\u6ca2\u5730\u533a)\u5730\u8cea\u8abf\u67fb\u696d\u52d9","client_name":"\u56fd\u571f\u4ea4\u901a\u7701\u56db\u56fd\u5730\u65b9\u6574\u5099\u5c40\u677e\u5c71\u6cb3\u5ddd\u56fd\u9053\u4e8b\u52d9\u6240","boring_xml_url":40,"boring_view_url":1,"soilmap_view_url":null,"soiltest_xml_url":0,"soiltest_view_url":0},{"id":199066,"code":"B4KJ201801008-7315","latitude":"34.00187556","longitude":"133.0371419","source_code":"SK50337093004","project_name":"","survey_name":"\u4eca\u6cbb\u30d0\u30a4\u30d1\u30b9(\u9577\u6ca2\u5730\u533a)\u5730\u8cea\u8abf\u67fb\u696d\u52d9","client_name":"\u56fd\u571f\u4ea4\u901a\u7701\u56db\u56fd\u5730\u65b9\u6574\u5099\u5c40\u677e\u5c71\u6cb3\u5ddd\u56fd\u9053\u4e8b\u52d9\u6240","boring_xml_url":40,"boring_view_url":1,"soilmap_view_url":null,"soiltest_xml_url":0,"soiltest_view_url":0},{"id":199065,"code":"B4KJ201801008-7314","latitude":"34.00215333","longitude":"133.0363086","source_code":"SK50337093003","project_name":"","survey_name":"\u4eca\u6cbb\u30d0\u30a4\u30d1\u30b9(\u9577\u6ca2\u5730\u533a)\u5730\u8cea\u8abf\u67fb\u696d\u52d9","client_name":"\u56fd\u571f\u4ea4\u901a\u7701\u56db\u56fd\u5730\u65b9\u6574\u5099\u5c40\u677e\u5c71\u6cb3\u5ddd\u56fd\u9053\u4e8b\u52d9\u6240","boring_xml_url":40,"boring_view_url":1,"soilmap_view_url":null,"soiltest_xml_url":0,"soiltest_view_url":0},{"id":199064,"code":"B4KJ201801008-7313","latitude":"34.00243111","longitude":"133.0365864","source_code":"SK50337093002","project_name":"","survey_name":"\u4eca\u6cbb\u30d0\u30a4\u30d1\u30b9(\u9577\u6ca2\u5730\u533a)\u5730\u8cea\u8abf\u67fb\u696d\u52d9","client_name":"\u56fd\u571f\u4ea4\u901a\u7701\u56db\u56fd\u5730\u65b9\u6574\u5099\u5c40\u677e\u5c71\u6cb3\u5ddd\u56fd\u9053\u4e8b\u52d9\u6240","boring_xml_url":40,"boring_view_url":1,"soilmap_view_url":null,"soiltest_xml_url":0,"soiltest_view_url":0},{"id":199063,"code":"B4KJ201801008-7312","latitude":"34.00270861","longitude":"133.0360308","source_code":"SK50337093001","project_name":"","survey_name":"\u4eca\u6cbb\u30d0\u30a4\u30d1\u30b9(\u9577\u6ca2\u5730\u533a)\u5730\u8cea\u8abf\u67fb\u696d\u52d9","client_name":"\u56fd\u571f\u4ea4\u901a\u7701\u56db\u56fd\u5730\u65b9\u6574\u5099\u5c40\u677e\u5c71\u6cb3\u5ddd\u56fd\u9053\u4e8b\u52d9\u6240","boring_xml_url":40,"boring_view_url":1,"soilmap_view_url":null,"soiltest_xml_url":0,"soiltest_view_url":0},{"id":199062,"code":"B4KJ201801008-7311","latitude":"33.99354333","longitude":"133.0482522","source_code":"SK50337084001","project_name":"","survey_name":"\u4eca\u6cbb\u30d0\u30a4\u30d1\u30b9(\u9577\u6ca2\u5730\u533a)\u5730\u8cea\u8abf\u67fb\u696d\u52d9","client_name":"\u56fd\u571f\u4ea4\u901a\u7701\u56db\u56fd\u5730\u65b9\u6574\u5099\u5c40\u677e\u5c71\u6cb3\u5ddd\u56fd\u9053\u4e8b\u52d9\u6240","boring_xml_url":40,"boring_view_url":1,"soilmap_view_url":null,"soiltest_xml_url":0,"soiltest_view_url":0},{"id":199061,"code":"B4KJ201801008-7310","latitude":"33.99412667","longitude":"133.0463358","source_code":"SK50337083002","project_name":"","survey_name":"\u5e73\u62108\u5e74\u5ea6\u4eca\u6cbb\u5730\u533a\u5730\u8cea\u8abf\u67fb\u696d\u52d9","client_name":"\u56fd\u571f\u4ea4\u901a\u7701\u56db\u56fd\u5730\u65b9\u6574\u5099\u5c40\u677e\u5c71\u6cb3\u5ddd\u56fd\u9053\u4e8b\u52d9\u6240","boring_xml_url":40,"boring_view_url":1,"soilmap_view_url":null,"soiltest_xml_url":0,"soiltest_view_url":0},{"id":199060,"code":"B4KJ201801008-7309","latitude":"33.99462667","longitude":"133.0467247","source_code":"SK50337083001","project_name":"","survey_name":"\u5e73\u62108\u5e74\u5ea6\u4eca\u6cbb\u5730\u533a\u5730\u8cea\u8abf\u67fb\u696d\u52d9","client_name":"\u56fd\u571f\u4ea4\u901a\u7701\u56db\u56fd\u5730\u65b9\u6574\u5099\u5c40\u677e\u5c71\u6cb3\u5ddd\u56fd\u9053\u4e8b\u52d9\u6240","boring_xml_url":40,"boring_view_url":1,"soilmap_view_url":null,"soiltest_xml_url":0,"soiltest_view_url":0},{"id":199059,"code":"B4KJ201801008-7308","latitude":"33.98584972","longitude":"133.0510856","source_code":"SK50337074008","project_name":"","survey_name":"\u5e73\u62108\u5e74\u5ea6\u4eca\u6cbb\u5730\u533a\u5730\u8cea\u8abf\u67fb\u696d\u52d9","client_name":"\u56fd\u571f\u4ea4\u901a\u7701\u56db\u56fd\u5730\u65b9\u6574\u5099\u5c40\u677e\u5c71\u6cb3\u5ddd\u56fd\u9053\u4e8b\u52d9\u6240","boring_xml_url":40,"boring_view_url":1,"soilmap_view_url":null,"soiltest_xml_url":0,"soiltest_view_url":0},{"id":199058,"code":"B4KJ201801008-7307","latitude":"33.98584972","longitude":"133.0510856","source_code":"SK50337074007","project_name":"","survey_name":"\u5e73\u62108\u5e74\u5ea6\u4eca\u6cbb\u5730\u533a\u5730\u8cea\u8abf\u67fb\u696d\u52d9","client_name":"\u56fd\u571f\u4ea4\u901a\u7701\u56db\u56fd\u5730\u65b9\u6574\u5099\u5c40\u677e\u5c71\u6cb3\u5ddd\u56fd\u9053\u4e8b\u52d9\u6240","boring_xml_url":40,"boring_view_url":1,"soilmap_view_url":null,"soiltest_xml_url":0,"soiltest_view_url":0},{"id":199057,"code":"B4KJ201801008-7306","latitude":"33.98601639","longitude":"133.05103","source_code":"SK50337074006","project_name":"","survey_name":"\u5e73\u62108\u5e74\u5ea6\u4eca\u6cbb\u5730\u533a\u5730\u8cea\u8abf\u67fb\u696d\u52d9","client_name":"\u56fd\u571f\u4ea4\u901a\u7701\u56db\u56fd\u5730\u65b9\u6574\u5099\u5c40\u677e\u5c71\u6cb3\u5ddd\u56fd\u9053\u4e8b\u52d9\u6240","boring_xml_url":40,"boring_view_url":1,"soilmap_view_url":null,"soiltest_xml_url":0,"soiltest_view_url":0},{"id":199056,"code":"B4KJ201801008-7305","latitude":"33.9782675","longitude":"133.0585297","source_code":"SK50337074005","project_name":"","survey_name":"\u5e73\u62105\u5e74\u5ea6\u6771\u4e88\u5730\u533a\u5730\u8cea\u8abf\u67fb\u696d\u52d9","client_name":"\u56fd\u571f\u4ea4\u901a\u7701\u56db\u56fd\u5730\u65b9\u6574\u5099\u5c40\u677e\u5c71\u6cb3\u5ddd\u56fd\u9053\u4e8b\u52d9\u6240","boring_xml_url":40,"boring_view_url":1,"soilmap_view_url":null,"soiltest_xml_url":0,"soiltest_view_url":0},{"id":199055,"code":"B4KJ201801008-7304","latitude":"33.97854528","longitude":"133.0571408","source_code":"SK50337074004","project_name":"","survey_name":"\u5e73\u62105\u5e74\u5ea6\u6771\u4e88\u5730\u533a\u5730\u8cea\u8abf\u67fb\u696d\u52d9","client_name":"\u56fd\u571f\u4ea4\u901a\u7701\u56db\u56fd\u5730\u65b9\u6574\u5099\u5c40\u677e\u5c71\u6cb3\u5ddd\u56fd\u9053\u4e8b\u52d9\u6240","boring_xml_url":40,"boring_view_url":1,"soilmap_view_url":null,"soiltest_xml_url":0,"soiltest_view_url":0},{"id":199054,"code":"B4KJ201801008-7303","latitude":"33.97993389","longitude":"133.0551967","source_code":"SK50337074002","project_name":"","survey_name":"\u5e73\u62105\u5e74\u5ea6\u6771\u4e88\u5730\u533a\u5730\u8cea\u8abf\u67fb\u696d\u52d9","client_name":"\u56fd\u571f\u4ea4\u901a\u7701\u56db\u56fd\u5730\u65b9\u6574\u5099\u5c40\u677e\u5c71\u6cb3\u5ddd\u56fd\u9053\u4e8b\u52d9\u6240","boring_xml_url":40,"boring_view_url":1,"soilmap_view_url":null,"soiltest_xml_url":0,"soiltest_view_url":0},{"id":199053,"code":"B4KJ201801008-7302","latitude":"33.97937833","longitude":"133.0549189","source_code":"SK50337074001","project_name":"","survey_name":"\u5e73\u62105\u5e74\u5ea6\u6771\u4e88\u5730\u533a\u5730\u8cea\u8abf\u67fb\u696d\u52d9","client_name":"\u56fd\u571f\u4ea4\u901a\u7701\u56db\u56fd\u5730\u65b9\u6574\u5099\u5c40\u677e\u5c71\u6cb3\u5ddd\u56fd\u9053\u4e8b\u52d9\u6240","boring_xml_url":40,"boring_view_url":1,"soilmap_view_url":null,"soiltest_xml_url":0,"soiltest_view_url":0},{"id":199052,"code":"B4KJ201801008-7301","latitude":"33.97798972","longitude":"133.0579742","source_code":"SK50337064002","project_name":"","survey_name":"\u5e73\u62105\u5e74\u5ea6\u6771\u4e88\u5730\u533a\u5730\u8cea\u8abf\u67fb\u696d\u52d9","client_name":"\u56fd\u571f\u4ea4\u901a\u7701\u56db\u56fd\u5730\u65b9\u6574\u5099\u5c40\u677e\u5c71\u6cb3\u5ddd\u56fd\u9053\u4e8b\u52d9\u6240","boring_xml_url":40,"boring_view_url":1,"soilmap_view_url":null,"soiltest_xml_url":0,"soiltest_view_url":0},{"id":199051,"code":"B4KJ201801008-7300","latitude":"33.97771194","longitude":"133.0576964","source_code":"SK50337064001","project_name":"","survey_name":"\u5e73\u62105\u5e74\u5ea6\u6771\u4e88\u5730\u533a\u5730\u8cea\u8abf\u67fb\u696d\u52d9","client_name":"\u56fd\u571f\u4ea4\u901a\u7701\u56db\u56fd\u5730\u65b9\u6574\u5099\u5c40\u677e\u5c71\u6cb3\u5ddd\u56fd\u9053\u4e8b\u52d9\u6240","boring_xml_url":40,"boring_view_url":1,"soilmap_view_url":null,"soiltest_xml_url":0,"soiltest_view_url":0},{"id":199050,"code":"B4KJ201801008-7299","latitude":"33.96654667","longitude":"133.0657517","source_code":"SK50337055008","project_name":"","survey_name":"\u5e73\u621010\u5e74\u5ea6\u6771\u4e88\u5730\u533a\u8edf\u5f31\u5730\u76e4\u89e3\u6790\u696d\u52d9\u59d4\u8a17","client_name":"\u56fd\u571f\u4ea4\u901a\u7701\u56db\u56fd\u5730\u65b9\u6574\u5099\u5c40\u677e\u5c71\u6cb3\u5ddd\u56fd\u9053\u4e8b\u52d9\u6240","boring_xml_url":40,"boring_view_url":1,"soilmap_view_url":null,"soiltest_xml_url":0,"soiltest_view_url":0},{"id":199049,"code":"B4KJ201801008-7298","latitude":"33.963325","longitude":"133.0638908","source_code":"SK50337055005","project_name":"","survey_name":"\u5e73\u62108\u5e74\u5ea6\u6771\u4e88\u5730\u533a\u5730\u8cea\u8abf\u67fb\u696d\u52d9","client_name":"\u56fd\u571f\u4ea4\u901a\u7701\u56db\u56fd\u5730\u65b9\u6574\u5099\u5c40\u677e\u5c71\u6cb3\u5ddd\u56fd\u9053\u4e8b\u52d9\u6240","boring_xml_url":40,"boring_view_url":1,"soilmap_view_url":null,"soiltest_xml_url":0,"soiltest_view_url":0},{"id":199048,"code":"B4KJ201801008-7297","latitude":"33.96446361","longitude":"133.0632519","source_code":"SK50337055004","project_name":"","survey_name":"\u5e73\u62108\u5e74\u5ea6\u6771\u4e88\u5730\u533a\u5730\u8cea\u8abf\u67fb\u696d\u52d9","client_name":"\u56fd\u571f\u4ea4\u901a\u7701\u56db\u56fd\u5730\u65b9\u6574\u5099\u5c40\u677e\u5c71\u6cb3\u5ddd\u56fd\u9053\u4e8b\u52d9\u6240","boring_xml_url":40,"boring_view_url":1,"soilmap_view_url":null,"soiltest_xml_url":0,"soiltest_view_url":0},{"id":199047,"code":"B4KJ201801008-7296","latitude":"33.96718556","longitude":"133.0619742","source_code":"SK50337055003","project_name":"","survey_name":"\u5e73\u62108\u5e74\u5ea6\u6771\u4e88\u5730\u533a\u5730\u8cea\u8abf\u67fb\u696d\u52d9","client_name":"\u56fd\u571f\u4ea4\u901a\u7701\u56db\u56fd\u5730\u65b9\u6574\u5099\u5c40\u677e\u5c71\u6cb3\u5ddd\u56fd\u9053\u4e8b\u52d9\u6240","boring_xml_url":40,"boring_view_url":1,"soilmap_view_url":null,"soiltest_xml_url":0,"soiltest_view_url":0},{"id":199046,"code":"B4KJ201801008-7295","latitude":"33.96376917","longitude":"133.0637519","source_code":"SK50337055002","project_name":"","survey_name":"\u5e73\u62105\u5e74\u5ea6\u6771\u4e88\u5730\u533a\u5730\u8cea\u8abf\u67fb\u696d\u52d9(\u305d\u306e2)","client_name":"\u56fd\u571f\u4ea4\u901a\u7701\u56db\u56fd\u5730\u65b9\u6574\u5099\u5c40\u677e\u5c71\u6cb3\u5ddd\u56fd\u9053\u4e8b\u52d9\u6240","boring_xml_url":40,"boring_view_url":1,"soilmap_view_url":null,"soiltest_xml_url":0,"soiltest_view_url":0}]}}