{"header":{"xyz":{"source":[],"mosaic":false},"page":4054,"raw":{"soiltest_result":"0","bbox":"57.598333,109.544722,1.933333,163.806111","page":"4054"},"conditions":{"soiltest_result":0,"north":57.598333,"west":109.544722,"south":1.933333,"east":163.806111},"success":true,"message":""},"data":{"meta":{"total":212844,"page":4054,"pages":7095,"count":30},"values":[{"id":198955,"code":"B4KJ201801008-7204","latitude":"33.88437806","longitude":"133.8419631","source_code":"SK50336657030","project_name":"","survey_name":"\u5e73\u62109\u5e74\u5ea6\u5584\u5fb3\u5730\u3059\u3079\u308a\u8a66\u9310\u696d\u52d9","client_name":"\u56fd\u571f\u4ea4\u901a\u7701\u56db\u56fd\u5730\u65b9\u6574\u5099\u5c40\u56db\u56fd\u5c71\u5730\u7802\u9632\u4e8b\u52d9\u6240","boring_xml_url":40,"boring_view_url":1,"soilmap_view_url":null,"soiltest_xml_url":0,"soiltest_view_url":0},{"id":198954,"code":"B4KJ201801008-7203","latitude":"33.88460028","longitude":"133.8417131","source_code":"SK50336657029","project_name":"","survey_name":"\u5e73\u62109\u5e74\u5ea6\u5584\u5fb3\u5730\u3059\u3079\u308a\u8a66\u9310\u696d\u52d9","client_name":"\u56fd\u571f\u4ea4\u901a\u7701\u56db\u56fd\u5730\u65b9\u6574\u5099\u5c40\u56db\u56fd\u5c71\u5730\u7802\u9632\u4e8b\u52d9\u6240","boring_xml_url":40,"boring_view_url":1,"soilmap_view_url":null,"soiltest_xml_url":0,"soiltest_view_url":0},{"id":198953,"code":"B4KJ201801008-7202","latitude":"33.883045","longitude":"133.83788","source_code":"SK50336657008","project_name":"","survey_name":"\u5e73\u621011\u5e74\u5ea6 \u5584\u5fb3\u5730\u3059\u3079\u308a\u8a66\u9310\u696d\u52d9(\u305d\u306e2)","client_name":"\u56fd\u571f\u4ea4\u901a\u7701\u56db\u56fd\u5730\u65b9\u6574\u5099\u5c40\u56db\u56fd\u5c71\u5730\u7802\u9632\u4e8b\u52d9\u6240","boring_xml_url":40,"boring_view_url":1,"soilmap_view_url":null,"soiltest_xml_url":0,"soiltest_view_url":0},{"id":198952,"code":"B4KJ201801008-7201","latitude":"33.88348917","longitude":"133.8371858","source_code":"SK50336657007","project_name":"","survey_name":"\u5e73\u621011\u5e74\u5ea6 \u5584\u5fb3\u5730\u3059\u3079\u308a\u8a66\u9310\u696d\u52d9(\u305d\u306e2)","client_name":"\u56fd\u571f\u4ea4\u901a\u7701\u56db\u56fd\u5730\u65b9\u6574\u5099\u5c40\u56db\u56fd\u5c71\u5730\u7802\u9632\u4e8b\u52d9\u6240","boring_xml_url":40,"boring_view_url":1,"soilmap_view_url":null,"soiltest_xml_url":0,"soiltest_view_url":0},{"id":198951,"code":"B4KJ201801008-7200","latitude":"33.88412806","longitude":"133.8363803","source_code":"SK50336657006","project_name":"","survey_name":"\u5e73\u621011\u5e74\u5ea6 \u5584\u5fb3\u5730\u3059\u3079\u308a\u8a66\u9310\u696d\u52d9(\u305d\u306e2)","client_name":"\u56fd\u571f\u4ea4\u901a\u7701\u56db\u56fd\u5730\u65b9\u6574\u5099\u5c40\u56db\u56fd\u5c71\u5730\u7802\u9632\u4e8b\u52d9\u6240","boring_xml_url":40,"boring_view_url":1,"soilmap_view_url":null,"soiltest_xml_url":0,"soiltest_view_url":0},{"id":198950,"code":"B4KJ201801008-7199","latitude":"33.88162833","longitude":"133.8384633","source_code":"SK50336657005","project_name":"","survey_name":"\u5e73\u621011\u5e74\u5ea6 \u5584\u5fb3\u5730\u3059\u3079\u308a\u8a66\u9310\u696d\u52d9","client_name":"\u56fd\u571f\u4ea4\u901a\u7701\u56db\u56fd\u5730\u65b9\u6574\u5099\u5c40\u56db\u56fd\u5c71\u5730\u7802\u9632\u4e8b\u52d9\u6240","boring_xml_url":40,"boring_view_url":1,"soilmap_view_url":null,"soiltest_xml_url":0,"soiltest_view_url":0},{"id":198949,"code":"B4KJ201801008-7198","latitude":"33.88218389","longitude":"133.8381856","source_code":"SK50336657004","project_name":"","survey_name":"\u5e73\u621011\u5e74\u5ea6 \u5584\u5fb3\u5730\u3059\u3079\u308a\u8a66\u9310\u696d\u52d9","client_name":"\u56fd\u571f\u4ea4\u901a\u7701\u56db\u56fd\u5730\u65b9\u6574\u5099\u5c40\u56db\u56fd\u5c71\u5730\u7802\u9632\u4e8b\u52d9\u6240","boring_xml_url":40,"boring_view_url":1,"soilmap_view_url":null,"soiltest_xml_url":0,"soiltest_view_url":0},{"id":198948,"code":"B4KJ201801008-7197","latitude":"33.883295","longitude":"133.8409631","source_code":"SK50336657003","project_name":"","survey_name":"\u5e73\u621011\u5e74\u5ea6 \u5584\u5fb3\u5730\u3059\u3079\u308a\u8a66\u9310\u696d\u52d9","client_name":"\u56fd\u571f\u4ea4\u901a\u7701\u56db\u56fd\u5730\u65b9\u6574\u5099\u5c40\u56db\u56fd\u5c71\u5730\u7802\u9632\u4e8b\u52d9\u6240","boring_xml_url":40,"boring_view_url":1,"soilmap_view_url":null,"soiltest_xml_url":0,"soiltest_view_url":0},{"id":198947,"code":"B4KJ201801008-7196","latitude":"33.88357278","longitude":"133.8395744","source_code":"SK50336657002","project_name":"","survey_name":"\u5e73\u621011\u5e74\u5ea6 \u5584\u5fb3\u5730\u3059\u3079\u308a\u8a66\u9310\u696d\u52d9","client_name":"\u56fd\u571f\u4ea4\u901a\u7701\u56db\u56fd\u5730\u65b9\u6574\u5099\u5c40\u56db\u56fd\u5c71\u5730\u7802\u9632\u4e8b\u52d9\u6240","boring_xml_url":40,"boring_view_url":1,"soilmap_view_url":null,"soiltest_xml_url":0,"soiltest_view_url":0},{"id":198946,"code":"B4KJ201801008-7195","latitude":"33.87579556","longitude":"133.8357417","source_code":"SK50336647005","project_name":"","survey_name":"\u662d\u548c62\u5e74\u5ea6\u5584\u5fb3\u5730\u3059\u3079\u308a\u8a66\u9310\u89b3\u6e2c\u696d\u52d9\u59d4\u8a17(\u305d\u306e2)","client_name":"\u56fd\u571f\u4ea4\u901a\u7701\u56db\u56fd\u5730\u65b9\u6574\u5099\u5c40\u56db\u56fd\u5c71\u5730\u7802\u9632\u4e8b\u52d9\u6240","boring_xml_url":40,"boring_view_url":1,"soilmap_view_url":null,"soiltest_xml_url":0,"soiltest_view_url":0},{"id":198945,"code":"B4KJ201801008-7194","latitude":"33.87618444","longitude":"133.8362694","source_code":"SK50336647004","project_name":"","survey_name":"\u662d\u548c62\u5e74\u5ea6\u5584\u5fb3\u5730\u3059\u3079\u308a\u8a66\u9310\u89b3\u6e2c\u696d\u52d9\u59d4\u8a17(\u305d\u306e2)","client_name":"\u56fd\u571f\u4ea4\u901a\u7701\u56db\u56fd\u5730\u65b9\u6574\u5099\u5c40\u56db\u56fd\u5c71\u5730\u7802\u9632\u4e8b\u52d9\u6240","boring_xml_url":40,"boring_view_url":1,"soilmap_view_url":null,"soiltest_xml_url":0,"soiltest_view_url":0},{"id":198944,"code":"B4KJ201801008-7193","latitude":"33.87618444","longitude":"133.8360194","source_code":"SK50336647003","project_name":"","survey_name":"\u662d\u548c62\u5e74\u5ea6\u5584\u5fb3\u5730\u3059\u3079\u308a\u8a66\u9310\u89b3\u6e2c\u696d\u52d9\u59d4\u8a17(\u305d\u306e2)","client_name":"\u56fd\u571f\u4ea4\u901a\u7701\u56db\u56fd\u5730\u65b9\u6574\u5099\u5c40\u56db\u56fd\u5c71\u5730\u7802\u9632\u4e8b\u52d9\u6240","boring_xml_url":40,"boring_view_url":1,"soilmap_view_url":null,"soiltest_xml_url":0,"soiltest_view_url":0},{"id":198943,"code":"B4KJ201801008-7192","latitude":"33.87535139","longitude":"133.8349361","source_code":"SK50336647002","project_name":"","survey_name":"\u662d\u548c62\u5e74\u5ea6\u5584\u5fb3\u5730\u3059\u3079\u308a\u8a66\u9310\u89b3\u6e2c\u696d\u52d9\u59d4\u8a17(\u305d\u306e2)","client_name":"\u56fd\u571f\u4ea4\u901a\u7701\u56db\u56fd\u5730\u65b9\u6574\u5099\u5c40\u56db\u56fd\u5c71\u5730\u7802\u9632\u4e8b\u52d9\u6240","boring_xml_url":40,"boring_view_url":1,"soilmap_view_url":null,"soiltest_xml_url":0,"soiltest_view_url":0},{"id":198942,"code":"B4KJ201801008-7191","latitude":"33.87543472","longitude":"133.8349361","source_code":"SK50336647001","project_name":"","survey_name":"\u662d\u548c62\u5e74\u5ea6\u5584\u5fb3\u5730\u3059\u3079\u308a\u8a66\u9310\u89b3\u6e2c\u696d\u52d9\u59d4\u8a17(\u305d\u306e2)","client_name":"\u56fd\u571f\u4ea4\u901a\u7701\u56db\u56fd\u5730\u65b9\u6574\u5099\u5c40\u56db\u56fd\u5c71\u5730\u7802\u9632\u4e8b\u52d9\u6240","boring_xml_url":40,"boring_view_url":1,"soilmap_view_url":null,"soiltest_xml_url":0,"soiltest_view_url":0},{"id":198941,"code":"B4KJ201801008-7190","latitude":"33.87004611","longitude":"133.8261039","source_code":"SK50336646016","project_name":"","survey_name":"\u5e73\u62106\u5e74\u5ea6\u516b\u57ce\u8c37\u5830\u5824\u5bfe\u7b56\u5de5\u8a2d\u8a08\u696d\u52d9","client_name":"\u56fd\u571f\u4ea4\u901a\u7701\u56db\u56fd\u5730\u65b9\u6574\u5099\u5c40\u56db\u56fd\u5c71\u5730\u7802\u9632\u4e8b\u52d9\u6240","boring_xml_url":40,"boring_view_url":1,"soilmap_view_url":null,"soiltest_xml_url":0,"soiltest_view_url":0},{"id":198940,"code":"B4KJ201801008-7189","latitude":"33.87004611","longitude":"133.8265483","source_code":"SK50336646015","project_name":"","survey_name":"\u5e73\u62106\u5e74\u5ea6\u516b\u57ce\u8c37\u5830\u5824\u5bfe\u7b56\u5de5\u8a2d\u8a08\u696d\u52d9","client_name":"\u56fd\u571f\u4ea4\u901a\u7701\u56db\u56fd\u5730\u65b9\u6574\u5099\u5c40\u56db\u56fd\u5c71\u5730\u7802\u9632\u4e8b\u52d9\u6240","boring_xml_url":40,"boring_view_url":1,"soilmap_view_url":null,"soiltest_xml_url":0,"soiltest_view_url":0},{"id":198939,"code":"B4KJ201801008-7188","latitude":"33.87543444","longitude":"133.8339642","source_code":"SK50336646014","project_name":"","survey_name":"\u662d\u548c62\u5e74\u5ea6\u5584\u5fb3\u5730\u3059\u3079\u308a\u8a66\u9310\u89b3\u6e2c\u696d\u52d9\u59d4\u8a17(\u305d\u306e2)","client_name":"\u56fd\u571f\u4ea4\u901a\u7701\u56db\u56fd\u5730\u65b9\u6574\u5099\u5c40\u56db\u56fd\u5c71\u5730\u7802\u9632\u4e8b\u52d9\u6240","boring_xml_url":40,"boring_view_url":1,"soilmap_view_url":null,"soiltest_xml_url":0,"soiltest_view_url":0},{"id":198938,"code":"B4KJ201801008-7187","latitude":"33.87515694","longitude":"133.8342694","source_code":"SK50336646013","project_name":"","survey_name":"\u662d\u548c62\u5e74\u5ea6\u5584\u5fb3\u5730\u3059\u3079\u308a\u8a66\u9310\u89b3\u6e2c\u696d\u52d9\u59d4\u8a17(\u305d\u306e2)","client_name":"\u56fd\u571f\u4ea4\u901a\u7701\u56db\u56fd\u5730\u65b9\u6574\u5099\u5c40\u56db\u56fd\u5c71\u5730\u7802\u9632\u4e8b\u52d9\u6240","boring_xml_url":40,"boring_view_url":1,"soilmap_view_url":null,"soiltest_xml_url":0,"soiltest_view_url":0},{"id":198937,"code":"B4KJ201801008-7186","latitude":"33.87543472","longitude":"133.8342694","source_code":"SK50336646012","project_name":"","survey_name":"\u662d\u548c62\u5e74\u5ea6\u5584\u5fb3\u5730\u3059\u3079\u308a\u8a66\u9310\u89b3\u6e2c\u696d\u52d9\u59d4\u8a17(\u305d\u306e2)","client_name":"\u56fd\u571f\u4ea4\u901a\u7701\u56db\u56fd\u5730\u65b9\u6574\u5099\u5c40\u56db\u56fd\u5c71\u5730\u7802\u9632\u4e8b\u52d9\u6240","boring_xml_url":40,"boring_view_url":1,"soilmap_view_url":null,"soiltest_xml_url":0,"soiltest_view_url":0},{"id":198936,"code":"B4KJ201801008-7185","latitude":"33.87649","longitude":"133.8329919","source_code":"SK50336646011","project_name":"","survey_name":"\u662d\u548c62\u5e74\u5ea6\u5584\u5fb3\u5730\u3059\u3079\u308a\u8a66\u9310\u89b3\u6e2c\u696d\u52d9\u59d4\u8a17(\u305d\u306e2)","client_name":"\u56fd\u571f\u4ea4\u901a\u7701\u56db\u56fd\u5730\u65b9\u6574\u5099\u5c40\u56db\u56fd\u5c71\u5730\u7802\u9632\u4e8b\u52d9\u6240","boring_xml_url":40,"boring_view_url":1,"soilmap_view_url":null,"soiltest_xml_url":0,"soiltest_view_url":0},{"id":198935,"code":"B4KJ201801008-7184","latitude":"33.87732333","longitude":"133.8333253","source_code":"SK50336646010","project_name":"","survey_name":"\u662d\u548c62\u5e74\u5ea6\u5584\u5fb3\u5730\u3059\u3079\u308a\u8a66\u9310\u89b3\u6e2c\u696d\u52d9\u59d4\u8a17(\u305d\u306e2)","client_name":"\u56fd\u571f\u4ea4\u901a\u7701\u56db\u56fd\u5730\u65b9\u6574\u5099\u5c40\u56db\u56fd\u5c71\u5730\u7802\u9632\u4e8b\u52d9\u6240","boring_xml_url":40,"boring_view_url":1,"soilmap_view_url":null,"soiltest_xml_url":0,"soiltest_view_url":0},{"id":198934,"code":"B4KJ201801008-7183","latitude":"33.87743444","longitude":"133.8336028","source_code":"SK50336646009","project_name":"","survey_name":"\u662d\u548c62\u5e74\u5ea6\u5584\u5fb3\u5730\u3059\u3079\u308a\u8a66\u9310\u89b3\u6e2c\u696d\u52d9\u59d4\u8a17(\u305d\u306e2)","client_name":"\u56fd\u571f\u4ea4\u901a\u7701\u56db\u56fd\u5730\u65b9\u6574\u5099\u5c40\u56db\u56fd\u5c71\u5730\u7802\u9632\u4e8b\u52d9\u6240","boring_xml_url":40,"boring_view_url":1,"soilmap_view_url":null,"soiltest_xml_url":0,"soiltest_view_url":0},{"id":198933,"code":"B4KJ201801008-7182","latitude":"33.87765667","longitude":"133.8334083","source_code":"SK50336646008","project_name":"","survey_name":"\u662d\u548c62\u5e74\u5ea6\u5584\u5fb3\u5730\u3059\u3079\u308a\u8a66\u9310\u89b3\u6e2c\u696d\u52d9\u59d4\u8a17(\u305d\u306e2)","client_name":"\u56fd\u571f\u4ea4\u901a\u7701\u56db\u56fd\u5730\u65b9\u6574\u5099\u5c40\u56db\u56fd\u5c71\u5730\u7802\u9632\u4e8b\u52d9\u6240","boring_xml_url":40,"boring_view_url":1,"soilmap_view_url":null,"soiltest_xml_url":0,"soiltest_view_url":0},{"id":198932,"code":"B4KJ201801008-7181","latitude":"33.87751778","longitude":"133.8327142","source_code":"SK50336646007","project_name":"","survey_name":"\u662d\u548c62\u5e74\u5ea6\u5584\u5fb3\u5730\u3059\u3079\u308a\u8a66\u9310\u89b3\u6e2c\u696d\u52d9\u59d4\u8a17","client_name":"\u56fd\u571f\u4ea4\u901a\u7701\u56db\u56fd\u5730\u65b9\u6574\u5099\u5c40\u56db\u56fd\u5c71\u5730\u7802\u9632\u4e8b\u52d9\u6240","boring_xml_url":40,"boring_view_url":1,"soilmap_view_url":null,"soiltest_xml_url":0,"soiltest_view_url":0},{"id":198931,"code":"B4KJ201801008-7180","latitude":"33.87751778","longitude":"133.8327142","source_code":"SK50336646006","project_name":"","survey_name":"\u662d\u548c62\u5e74\u5ea6\u5584\u5fb3\u5730\u3059\u3079\u308a\u8a66\u9310\u89b3\u6e2c\u696d\u52d9\u59d4\u8a17","client_name":"\u56fd\u571f\u4ea4\u901a\u7701\u56db\u56fd\u5730\u65b9\u6574\u5099\u5c40\u56db\u56fd\u5c71\u5730\u7802\u9632\u4e8b\u52d9\u6240","boring_xml_url":40,"boring_view_url":1,"soilmap_view_url":null,"soiltest_xml_url":0,"soiltest_view_url":0},{"id":198930,"code":"B4KJ201801008-7179","latitude":"33.87574","longitude":"133.8337975","source_code":"SK50336646005","project_name":"","survey_name":"\u662d\u548c62\u5e74\u5ea6\u5584\u5fb3\u5730\u3059\u3079\u308a\u8a66\u9310\u89b3\u6e2c\u696d\u52d9\u59d4\u8a17","client_name":"\u56fd\u571f\u4ea4\u901a\u7701\u56db\u56fd\u5730\u65b9\u6574\u5099\u5c40\u56db\u56fd\u5c71\u5730\u7802\u9632\u4e8b\u52d9\u6240","boring_xml_url":40,"boring_view_url":1,"soilmap_view_url":null,"soiltest_xml_url":0,"soiltest_view_url":0},{"id":198929,"code":"B4KJ201801008-7178","latitude":"33.87574","longitude":"133.8337975","source_code":"SK50336646004","project_name":"","survey_name":"\u662d\u548c62\u5e74\u5ea6\u5584\u5fb3\u5730\u3059\u3079\u308a\u8a66\u9310\u89b3\u6e2c\u696d\u52d9\u59d4\u8a17","client_name":"\u56fd\u571f\u4ea4\u901a\u7701\u56db\u56fd\u5730\u65b9\u6574\u5099\u5c40\u56db\u56fd\u5c71\u5730\u7802\u9632\u4e8b\u52d9\u6240","boring_xml_url":40,"boring_view_url":1,"soilmap_view_url":null,"soiltest_xml_url":0,"soiltest_view_url":0},{"id":198928,"code":"B4KJ201801008-7177","latitude":"33.87518472","longitude":"133.8331308","source_code":"SK50336646003","project_name":"","survey_name":"\u662d\u548c62\u5e74\u5ea6\u5584\u5fb3\u5730\u3059\u3079\u308a\u8a66\u9310\u89b3\u6e2c\u696d\u52d9\u59d4\u8a17","client_name":"\u56fd\u571f\u4ea4\u901a\u7701\u56db\u56fd\u5730\u65b9\u6574\u5099\u5c40\u56db\u56fd\u5c71\u5730\u7802\u9632\u4e8b\u52d9\u6240","boring_xml_url":40,"boring_view_url":1,"soilmap_view_url":null,"soiltest_xml_url":0,"soiltest_view_url":0},{"id":198927,"code":"B4KJ201801008-7176","latitude":"33.87518472","longitude":"133.8331308","source_code":"SK50336646002","project_name":"","survey_name":"\u662d\u548c62\u5e74\u5ea6\u5584\u5fb3\u5730\u3059\u3079\u308a\u8a66\u9310\u89b3\u6e2c\u696d\u52d9\u59d4\u8a17","client_name":"\u56fd\u571f\u4ea4\u901a\u7701\u56db\u56fd\u5730\u65b9\u6574\u5099\u5c40\u56db\u56fd\u5c71\u5730\u7802\u9632\u4e8b\u52d9\u6240","boring_xml_url":40,"boring_view_url":1,"soilmap_view_url":null,"soiltest_xml_url":0,"soiltest_view_url":0},{"id":198926,"code":"B4KJ201801008-7175","latitude":"33.87487917","longitude":"133.8335753","source_code":"SK50336646001","project_name":"","survey_name":"\u662d\u548c62\u5e74\u5ea6\u5584\u5fb3\u5730\u3059\u3079\u308a\u8a66\u9310\u89b3\u6e2c\u696d\u52d9\u59d4\u8a17","client_name":"\u56fd\u571f\u4ea4\u901a\u7701\u56db\u56fd\u5730\u65b9\u6574\u5099\u5c40\u56db\u56fd\u5c71\u5730\u7802\u9632\u4e8b\u52d9\u6240","boring_xml_url":40,"boring_view_url":1,"soilmap_view_url":null,"soiltest_xml_url":0,"soiltest_view_url":0}]}}