{"header":{"xyz":{"source":[],"mosaic":false},"page":4056,"raw":{"soiltest_result":"0","bbox":"57.598333,109.544722,1.933333,163.806111","page":"4056"},"conditions":{"soiltest_result":0,"north":57.598333,"west":109.544722,"south":1.933333,"east":163.806111},"success":true,"message":""},"data":{"meta":{"total":212844,"page":4056,"pages":7095,"count":30},"values":[{"id":198895,"code":"B4KJ201801008-7144","latitude":"33.82380056","longitude":"133.790025","source_code":"SK50335683003","project_name":"","survey_name":"\u662d\u548c52\u5e74\u5ea6\u8d64\u6839\u5730\u533a\u8a66\u9310\u59161\u4ef6\u696d\u52d9","client_name":"\u56fd\u571f\u4ea4\u901a\u7701\u56db\u56fd\u5730\u65b9\u6574\u5099\u5c40\u56db\u56fd\u5c71\u5730\u7802\u9632\u4e8b\u52d9\u6240","boring_xml_url":40,"boring_view_url":1,"soilmap_view_url":null,"soiltest_xml_url":0,"soiltest_view_url":0},{"id":198894,"code":"B4KJ201801008-7143","latitude":"33.82380056","longitude":"133.790025","source_code":"SK50335683002","project_name":"","survey_name":"\u662d\u548c52\u5e74\u5ea6\u8d64\u6839\u5730\u533a\u8a66\u9310\u59161\u4ef6\u696d\u52d9","client_name":"\u56fd\u571f\u4ea4\u901a\u7701\u56db\u56fd\u5730\u65b9\u6574\u5099\u5c40\u56db\u56fd\u5c71\u5730\u7802\u9632\u4e8b\u52d9\u6240","boring_xml_url":40,"boring_view_url":1,"soilmap_view_url":null,"soiltest_xml_url":0,"soiltest_view_url":0},{"id":198893,"code":"B4KJ201801008-7142","latitude":"33.82380056","longitude":"133.790025","source_code":"SK50335683001","project_name":"","survey_name":"\u662d\u548c52\u5e74\u5ea6\u8d64\u6839\u5730\u533a\u8a66\u9310\u59161\u4ef6\u696d\u52d9","client_name":"\u56fd\u571f\u4ea4\u901a\u7701\u56db\u56fd\u5730\u65b9\u6574\u5099\u5c40\u56db\u56fd\u5c71\u5730\u7802\u9632\u4e8b\u52d9\u6240","boring_xml_url":40,"boring_view_url":1,"soilmap_view_url":null,"soiltest_xml_url":0,"soiltest_view_url":0},{"id":198892,"code":"B4KJ201801008-7141","latitude":"33.78763778","longitude":"133.7798603","source_code":"SK50335642011","project_name":"","survey_name":"\u5e73\u621012\u5e74\u5ea6 \u843d\u5408\u8b77\u5cb8\u5de5\u8a2d\u8a08\u696d\u52d9","client_name":"\u56fd\u571f\u4ea4\u901a\u7701\u56db\u56fd\u5730\u65b9\u6574\u5099\u5c40\u56db\u56fd\u5c71\u5730\u7802\u9632\u4e8b\u52d9\u6240","boring_xml_url":40,"boring_view_url":1,"soilmap_view_url":null,"soiltest_xml_url":0,"soiltest_view_url":0},{"id":198891,"code":"B4KJ201801008-7140","latitude":"33.78755444","longitude":"133.7802769","source_code":"SK50335642010","project_name":"","survey_name":"\u5e73\u621012\u5e74\u5ea6 \u843d\u5408\u8b77\u5cb8\u5de5\u8a2d\u8a08\u696d\u52d9\u59d4\u8a17","client_name":"\u56fd\u571f\u4ea4\u901a\u7701\u56db\u56fd\u5730\u65b9\u6574\u5099\u5c40\u56db\u56fd\u5c71\u5730\u7802\u9632\u4e8b\u52d9\u6240","boring_xml_url":40,"boring_view_url":1,"soilmap_view_url":null,"soiltest_xml_url":0,"soiltest_view_url":0},{"id":198890,"code":"B4KJ201801008-7139","latitude":"33.78927639","longitude":"133.7779994","source_code":"SK50335642005","project_name":"","survey_name":"\u5e73\u62107\u5e74\u5ea6\u843d\u5408\u5e8a\u56fa\u8abf\u67fb\u691c\u8a0e\u8a2d\u8a08\u696d\u52d9","client_name":"\u56fd\u571f\u4ea4\u901a\u7701\u56db\u56fd\u5730\u65b9\u6574\u5099\u5c40\u56db\u56fd\u5c71\u5730\u7802\u9632\u4e8b\u52d9\u6240","boring_xml_url":40,"boring_view_url":1,"soilmap_view_url":null,"soiltest_xml_url":0,"soiltest_view_url":0},{"id":198889,"code":"B4KJ201801008-7138","latitude":"33.78869333","longitude":"133.7779994","source_code":"SK50335642004","project_name":"","survey_name":"\u5e73\u62107\u5e74\u5ea6\u843d\u5408\u5e8a\u56fa\u8abf\u67fb\u691c\u8a0e\u8a2d\u8a08\u696d\u52d9","client_name":"\u56fd\u571f\u4ea4\u901a\u7701\u56db\u56fd\u5730\u65b9\u6574\u5099\u5c40\u56db\u56fd\u5c71\u5730\u7802\u9632\u4e8b\u52d9\u6240","boring_xml_url":40,"boring_view_url":1,"soilmap_view_url":null,"soiltest_xml_url":0,"soiltest_view_url":0},{"id":198888,"code":"B4KJ201801008-7137","latitude":"33.78847111","longitude":"133.778805","source_code":"SK50335642003","project_name":"","survey_name":"\u5e73\u62107\u5e74\u5ea6\u843d\u5408\u5e8a\u56fa\u8abf\u67fb\u691c\u8a0e\u8a2d\u8a08\u696d\u52d9","client_name":"\u56fd\u571f\u4ea4\u901a\u7701\u56db\u56fd\u5730\u65b9\u6574\u5099\u5c40\u56db\u56fd\u5c71\u5730\u7802\u9632\u4e8b\u52d9\u6240","boring_xml_url":40,"boring_view_url":1,"soilmap_view_url":null,"soiltest_xml_url":0,"soiltest_view_url":0},{"id":198887,"code":"B4KJ201801008-7136","latitude":"33.78799889","longitude":"133.778555","source_code":"SK50335642002","project_name":"","survey_name":"\u5e73\u62107\u5e74\u5ea6\u843d\u5408\u5e8a\u56fa\u8abf\u67fb\u691c\u8a0e\u8a2d\u8a08\u696d\u52d9","client_name":"\u56fd\u571f\u4ea4\u901a\u7701\u56db\u56fd\u5730\u65b9\u6574\u5099\u5c40\u56db\u56fd\u5c71\u5730\u7802\u9632\u4e8b\u52d9\u6240","boring_xml_url":40,"boring_view_url":1,"soilmap_view_url":null,"soiltest_xml_url":0,"soiltest_view_url":0},{"id":198886,"code":"B4KJ201801008-7135","latitude":"33.79341472","longitude":"133.7754161","source_code":"SK50335642001","project_name":"","survey_name":"\u662d\u548c53\u5e74\u5ea6\u9752\u8c37\u8a66\u9310\u59161\u4ef6\u696d\u52d9","client_name":"\u56fd\u571f\u4ea4\u901a\u7701\u56db\u56fd\u5730\u65b9\u6574\u5099\u5c40\u56db\u56fd\u5c71\u5730\u7802\u9632\u4e8b\u52d9\u6240","boring_xml_url":40,"boring_view_url":1,"soilmap_view_url":null,"soiltest_xml_url":0,"soiltest_view_url":0},{"id":198885,"code":"B4KJ201801008-7134","latitude":"33.78369417","longitude":"133.7903042","source_code":"SK50335633001","project_name":"","survey_name":"\u662d\u548c62\u5e74\u5ea6\u6012\u7530\u30fb\u516b\u755d\u5730\u3059\u3079\u308a\u8a66\u9310\u89b3\u6e2c\u696d\u52d9\u59d4\u8a17","client_name":"\u56fd\u571f\u4ea4\u901a\u7701\u56db\u56fd\u5730\u65b9\u6574\u5099\u5c40\u56db\u56fd\u5c71\u5730\u7802\u9632\u4e8b\u52d9\u6240","boring_xml_url":40,"boring_view_url":1,"soilmap_view_url":null,"soiltest_xml_url":0,"soiltest_view_url":0},{"id":198884,"code":"B4KJ201801008-7133","latitude":"33.77852778","longitude":"133.7761111","source_code":"SK50335632005","project_name":"","survey_name":"\u5e73\u62107\u5e74\u5ea6 \u6012\u7530\u30fb\u516b\u755d\u5730\u3059\u3079\u308a\u8a66\u9310\u696d\u52d9","client_name":"\u56fd\u571f\u4ea4\u901a\u7701\u56db\u56fd\u5730\u65b9\u6574\u5099\u5c40\u56db\u56fd\u5c71\u5730\u7802\u9632\u4e8b\u52d9\u6240","boring_xml_url":40,"boring_view_url":1,"soilmap_view_url":null,"soiltest_xml_url":0,"soiltest_view_url":0},{"id":198883,"code":"B4KJ201801008-7132","latitude":"33.78408278","longitude":"133.7822769","source_code":"SK50335632004","project_name":"","survey_name":"\u662d\u548c54\u5e74\u5ea6\u6012\u7530\u5730\u5148\u8a66\u9310\u89b3\u6e2c\u696d\u52d9","client_name":"\u56fd\u571f\u4ea4\u901a\u7701\u56db\u56fd\u5730\u65b9\u6574\u5099\u5c40\u56db\u56fd\u5c71\u5730\u7802\u9632\u4e8b\u52d9\u6240","boring_xml_url":40,"boring_view_url":1,"soilmap_view_url":null,"soiltest_xml_url":0,"soiltest_view_url":0},{"id":198882,"code":"B4KJ201801008-7131","latitude":"33.78383278","longitude":"133.781055","source_code":"SK50335632003","project_name":"","survey_name":"\u662d\u548c54\u5e74\u5ea6\u6012\u7530\u5730\u5148\u8a66\u9310\u89b3\u6e2c\u696d\u52d9","client_name":"\u56fd\u571f\u4ea4\u901a\u7701\u56db\u56fd\u5730\u65b9\u6574\u5099\u5c40\u56db\u56fd\u5c71\u5730\u7802\u9632\u4e8b\u52d9\u6240","boring_xml_url":40,"boring_view_url":1,"soilmap_view_url":null,"soiltest_xml_url":0,"soiltest_view_url":0},{"id":198881,"code":"B4KJ201801008-7130","latitude":"33.78361056","longitude":"133.7840547","source_code":"SK50335632002","project_name":"","survey_name":"\u662d\u548c54\u5e74\u5ea6\u6012\u7530\u5730\u5148\u8a66\u9310\u89b3\u6e2c\u696d\u52d9","client_name":"\u56fd\u571f\u4ea4\u901a\u7701\u56db\u56fd\u5730\u65b9\u6574\u5099\u5c40\u56db\u56fd\u5c71\u5730\u7802\u9632\u4e8b\u52d9\u6240","boring_xml_url":40,"boring_view_url":1,"soilmap_view_url":null,"soiltest_xml_url":0,"soiltest_view_url":0},{"id":198880,"code":"B4KJ201801008-7129","latitude":"33.7726675","longitude":"133.7849717","source_code":"SK50335623012","project_name":"","survey_name":"\u662d\u548c52\u5e74\u5ea6\u5982\u8c37\u5730\u533a\u8a66\u9310\u696d\u52d9","client_name":"\u56fd\u571f\u4ea4\u901a\u7701\u56db\u56fd\u5730\u65b9\u6574\u5099\u5c40\u56db\u56fd\u5c71\u5730\u7802\u9632\u4e8b\u52d9\u6240","boring_xml_url":40,"boring_view_url":1,"soilmap_view_url":null,"soiltest_xml_url":0,"soiltest_view_url":0},{"id":198879,"code":"B4KJ201801008-7128","latitude":"33.7726675","longitude":"133.7849717","source_code":"SK50335623011","project_name":"","survey_name":"\u662d\u548c52\u5e74\u5ea6\u5982\u8c37\u5730\u533a\u8a66\u9310\u696d\u52d9","client_name":"\u56fd\u571f\u4ea4\u901a\u7701\u56db\u56fd\u5730\u65b9\u6574\u5099\u5c40\u56db\u56fd\u5c71\u5730\u7802\u9632\u4e8b\u52d9\u6240","boring_xml_url":40,"boring_view_url":1,"soilmap_view_url":null,"soiltest_xml_url":0,"soiltest_view_url":0},{"id":198878,"code":"B4KJ201801008-7127","latitude":"33.7726675","longitude":"133.7849717","source_code":"SK50335623010","project_name":"","survey_name":"\u662d\u548c52\u5e74\u5ea6\u5982\u8c37\u5730\u533a\u8a66\u9310\u696d\u52d9","client_name":"\u56fd\u571f\u4ea4\u901a\u7701\u56db\u56fd\u5730\u65b9\u6574\u5099\u5c40\u56db\u56fd\u5c71\u5730\u7802\u9632\u4e8b\u52d9\u6240","boring_xml_url":40,"boring_view_url":1,"soilmap_view_url":null,"soiltest_xml_url":0,"soiltest_view_url":0},{"id":198877,"code":"B4KJ201801008-7126","latitude":"33.7726675","longitude":"133.7849717","source_code":"SK50335623009","project_name":"","survey_name":"\u662d\u548c52\u5e74\u5ea6\u5982\u8c37\u5730\u533a\u8a66\u9310\u696d\u52d9","client_name":"\u56fd\u571f\u4ea4\u901a\u7701\u56db\u56fd\u5730\u65b9\u6574\u5099\u5c40\u56db\u56fd\u5c71\u5730\u7802\u9632\u4e8b\u52d9\u6240","boring_xml_url":40,"boring_view_url":1,"soilmap_view_url":null,"soiltest_xml_url":0,"soiltest_view_url":0},{"id":198876,"code":"B4KJ201801008-7125","latitude":"33.7726675","longitude":"133.7849717","source_code":"SK50335623008","project_name":"","survey_name":"\u662d\u548c52\u5e74\u5ea6\u5982\u8c37\u5730\u533a\u8a66\u9310\u696d\u52d9","client_name":"\u56fd\u571f\u4ea4\u901a\u7701\u56db\u56fd\u5730\u65b9\u6574\u5099\u5c40\u56db\u56fd\u5c71\u5730\u7802\u9632\u4e8b\u52d9\u6240","boring_xml_url":40,"boring_view_url":1,"soilmap_view_url":null,"soiltest_xml_url":0,"soiltest_view_url":0},{"id":198875,"code":"B4KJ201801008-7124","latitude":"33.7726675","longitude":"133.7849717","source_code":"SK50335623007","project_name":"","survey_name":"\u662d\u548c52\u5e74\u5ea6\u5982\u8c37\u5730\u533a\u8a66\u9310\u696d\u52d9","client_name":"\u56fd\u571f\u4ea4\u901a\u7701\u56db\u56fd\u5730\u65b9\u6574\u5099\u5c40\u56db\u56fd\u5c71\u5730\u7802\u9632\u4e8b\u52d9\u6240","boring_xml_url":40,"boring_view_url":1,"soilmap_view_url":null,"soiltest_xml_url":0,"soiltest_view_url":0},{"id":198874,"code":"B4KJ201801008-7123","latitude":"33.7726675","longitude":"133.7849717","source_code":"SK50335623006","project_name":"","survey_name":"\u662d\u548c52\u5e74\u5ea6\u5982\u8c37\u5730\u533a\u8a66\u9310\u696d\u52d9","client_name":"\u56fd\u571f\u4ea4\u901a\u7701\u56db\u56fd\u5730\u65b9\u6574\u5099\u5c40\u56db\u56fd\u5c71\u5730\u7802\u9632\u4e8b\u52d9\u6240","boring_xml_url":40,"boring_view_url":1,"soilmap_view_url":null,"soiltest_xml_url":0,"soiltest_view_url":0},{"id":198873,"code":"B4KJ201801008-7122","latitude":"33.7726675","longitude":"133.7849717","source_code":"SK50335623005","project_name":"","survey_name":"\u662d\u548c52\u5e74\u5ea6\u5982\u8c37\u5730\u533a\u8a66\u9310\u696d\u52d9","client_name":"\u56fd\u571f\u4ea4\u901a\u7701\u56db\u56fd\u5730\u65b9\u6574\u5099\u5c40\u56db\u56fd\u5c71\u5730\u7802\u9632\u4e8b\u52d9\u6240","boring_xml_url":40,"boring_view_url":1,"soilmap_view_url":null,"soiltest_xml_url":0,"soiltest_view_url":0},{"id":198872,"code":"B4KJ201801008-7121","latitude":"33.7726675","longitude":"133.7849717","source_code":"SK50335623004","project_name":"","survey_name":"\u662d\u548c52\u5e74\u5ea6\u5982\u8c37\u5730\u533a\u8a66\u9310\u696d\u52d9","client_name":"\u56fd\u571f\u4ea4\u901a\u7701\u56db\u56fd\u5730\u65b9\u6574\u5099\u5c40\u56db\u56fd\u5c71\u5730\u7802\u9632\u4e8b\u52d9\u6240","boring_xml_url":40,"boring_view_url":1,"soilmap_view_url":null,"soiltest_xml_url":0,"soiltest_view_url":0},{"id":198871,"code":"B4KJ201801008-7120","latitude":"33.7726675","longitude":"133.7849717","source_code":"SK50335623003","project_name":"","survey_name":"\u662d\u548c52\u5e74\u5ea6\u5982\u8c37\u5730\u533a\u8a66\u9310\u696d\u52d9","client_name":"\u56fd\u571f\u4ea4\u901a\u7701\u56db\u56fd\u5730\u65b9\u6574\u5099\u5c40\u56db\u56fd\u5c71\u5730\u7802\u9632\u4e8b\u52d9\u6240","boring_xml_url":40,"boring_view_url":1,"soilmap_view_url":null,"soiltest_xml_url":0,"soiltest_view_url":0},{"id":198870,"code":"B4KJ201801008-7119","latitude":"33.7726675","longitude":"133.7849717","source_code":"SK50335623002","project_name":"","survey_name":"\u662d\u548c52\u5e74\u5ea6\u5982\u8c37\u5730\u533a\u8a66\u9310\u696d\u52d9","client_name":"\u56fd\u571f\u4ea4\u901a\u7701\u56db\u56fd\u5730\u65b9\u6574\u5099\u5c40\u56db\u56fd\u5c71\u5730\u7802\u9632\u4e8b\u52d9\u6240","boring_xml_url":40,"boring_view_url":1,"soilmap_view_url":null,"soiltest_xml_url":0,"soiltest_view_url":0},{"id":198869,"code":"B4KJ201801008-7118","latitude":"33.7726675","longitude":"133.7849717","source_code":"SK50335623001","project_name":"","survey_name":"\u662d\u548c52\u5e74\u5ea6\u5982\u8c37\u5730\u533a\u8a66\u9310\u696d\u52d9","client_name":"\u56fd\u571f\u4ea4\u901a\u7701\u56db\u56fd\u5730\u65b9\u6574\u5099\u5c40\u56db\u56fd\u5c71\u5730\u7802\u9632\u4e8b\u52d9\u6240","boring_xml_url":40,"boring_view_url":1,"soilmap_view_url":null,"soiltest_xml_url":0,"soiltest_view_url":0},{"id":198868,"code":"B4KJ201801008-7117","latitude":"33.77775","longitude":"133.7801383","source_code":"SK50335622008","project_name":"","survey_name":"\u5e73\u62107\u5e74\u5ea6 \u305f\u304b\u305f\u3073\u4eba\u9053\u6a4b\u8a2d\u8a08\u696d\u52d9\u59d4\u8a17","client_name":"\u56fd\u571f\u4ea4\u901a\u7701\u56db\u56fd\u5730\u65b9\u6574\u5099\u5c40\u56db\u56fd\u5c71\u5730\u7802\u9632\u4e8b\u52d9\u6240","boring_xml_url":40,"boring_view_url":1,"soilmap_view_url":null,"soiltest_xml_url":0,"soiltest_view_url":0},{"id":198867,"code":"B4KJ201801008-7116","latitude":"33.77766667","longitude":"133.7799442","source_code":"SK50335622007","project_name":"","survey_name":"\u5e73\u62107\u5e74\u5ea6 \u305f\u304b\u305f\u3073\u4eba\u9053\u6a4b\u8a2d\u8a08\u696d\u52d9\u59d4\u8a17","client_name":"\u56fd\u571f\u4ea4\u901a\u7701\u56db\u56fd\u5730\u65b9\u6574\u5099\u5c40\u56db\u56fd\u5c71\u5730\u7802\u9632\u4e8b\u52d9\u6240","boring_xml_url":40,"boring_view_url":1,"soilmap_view_url":null,"soiltest_xml_url":0,"soiltest_view_url":0},{"id":198866,"code":"B4KJ201801008-7115","latitude":"33.77786111","longitude":"133.7801106","source_code":"SK50335622006","project_name":"","survey_name":"\u5e73\u62106\u5e74\u5ea6\u305f\u304b\u305f\u3073\u6a4b\u5730\u8cea\u8abf\u67fb\u696d\u52d9","client_name":"\u56fd\u571f\u4ea4\u901a\u7701\u56db\u56fd\u5730\u65b9\u6574\u5099\u5c40\u56db\u56fd\u5c71\u5730\u7802\u9632\u4e8b\u52d9\u6240","boring_xml_url":40,"boring_view_url":1,"soilmap_view_url":null,"soiltest_xml_url":0,"soiltest_view_url":0}]}}