{"header":{"xyz":{"source":[],"mosaic":false},"page":4062,"raw":{"soiltest_result":"0","bbox":"57.598333,109.544722,1.933333,163.806111","page":"4062"},"conditions":{"soiltest_result":0,"north":57.598333,"west":109.544722,"south":1.933333,"east":163.806111},"success":true,"message":""},"data":{"meta":{"total":212844,"page":4062,"pages":7095,"count":30},"values":[{"id":198715,"code":"B4KJ201801008-6964","latitude":"33.56665861","longitude":"133.5748853","source_code":"SK50332476006","project_name":"","survey_name":"\u5e73\u62105\u5e74\u5ea6\u7802\u5730\u5730\u533a\u5730\u8cea\u8abf\u67fb\u305d\u306e2\u696d\u52d9\u59d4\u8a17","client_name":"\u56fd\u571f\u4ea4\u901a\u7701 \u56db\u56fd\u5730\u65b9\u6574\u5099\u5c40 \u571f\u4f50\u56fd\u9053\u4e8b\u52d9\u6240","boring_xml_url":40,"boring_view_url":1,"soilmap_view_url":null,"soiltest_xml_url":0,"soiltest_view_url":0},{"id":198714,"code":"B4KJ201801008-6963","latitude":"33.56721389","longitude":"133.5759961","source_code":"SK50332476005","project_name":"","survey_name":"\u5e73\u62105\u5e74\u5ea6\u7802\u5730\u5730\u533a\u5730\u8cea\u8abf\u67fb\u305d\u306e2\u696d\u52d9\u59d4\u8a17","client_name":"\u56fd\u571f\u4ea4\u901a\u7701 \u56db\u56fd\u5730\u65b9\u6574\u5099\u5c40 \u571f\u4f50\u56fd\u9053\u4e8b\u52d9\u6240","boring_xml_url":40,"boring_view_url":1,"soilmap_view_url":null,"soiltest_xml_url":0,"soiltest_view_url":0},{"id":198713,"code":"B4KJ201801008-6962","latitude":"33.56638083","longitude":"133.5757186","source_code":"SK50332476004","project_name":"","survey_name":"\u5e73\u62105\u5e74\u5ea6\u9ad8\u77e5\u5357\u56fd\u9053\u8def(\u7802\u5730\u5730\u533a)\u5730\u8cea\u8abf\u67fb\u696d\u52d9\u59d4\u8a17","client_name":"\u56fd\u571f\u4ea4\u901a\u7701 \u56db\u56fd\u5730\u65b9\u6574\u5099\u5c40 \u571f\u4f50\u56fd\u9053\u4e8b\u52d9\u6240","boring_xml_url":40,"boring_view_url":1,"soilmap_view_url":null,"soiltest_xml_url":0,"soiltest_view_url":0},{"id":198712,"code":"B4KJ201801008-6961","latitude":"33.56582528","longitude":"133.5743297","source_code":"SK50332476003","project_name":"","survey_name":"\u5e73\u62105\u5e74\u5ea6\u9ad8\u77e5\u5357\u56fd\u9053\u8def(\u7802\u5730\u5730\u533a)\u5730\u8cea\u8abf\u67fb\u696d\u52d9\u59d4\u8a17","client_name":"\u56fd\u571f\u4ea4\u901a\u7701 \u56db\u56fd\u5730\u65b9\u6574\u5099\u5c40 \u571f\u4f50\u56fd\u9053\u4e8b\u52d9\u6240","boring_xml_url":40,"boring_view_url":1,"soilmap_view_url":null,"soiltest_xml_url":0,"soiltest_view_url":0},{"id":198711,"code":"B4KJ201801008-6960","latitude":"33.56693611","longitude":"133.5743297","source_code":"SK50332476002","project_name":"","survey_name":"\u5e73\u62105\u5e74\u5ea6\u9ad8\u77e5\u5357\u56fd\u9053\u8def(\u7802\u5730\u5730\u533a)\u5730\u8cea\u8abf\u67fb\u696d\u52d9\u59d4\u8a17","client_name":"\u56fd\u571f\u4ea4\u901a\u7701 \u56db\u56fd\u5730\u65b9\u6574\u5099\u5c40 \u571f\u4f50\u56fd\u9053\u4e8b\u52d9\u6240","boring_xml_url":40,"boring_view_url":1,"soilmap_view_url":null,"soiltest_xml_url":0,"soiltest_view_url":0},{"id":198710,"code":"B4KJ201801008-6959","latitude":"33.56804722","longitude":"133.5743297","source_code":"SK50332476001","project_name":"","survey_name":"\u5e73\u62105\u5e74\u5ea6\u9ad8\u77e5\u5357\u56fd\u9053\u8def(\u7802\u5730\u5730\u533a)\u5730\u8cea\u8abf\u67fb\u696d\u52d9\u59d4\u8a17","client_name":"\u56fd\u571f\u4ea4\u901a\u7701 \u56db\u56fd\u5730\u65b9\u6574\u5099\u5c40 \u571f\u4f50\u56fd\u9053\u4e8b\u52d9\u6240","boring_xml_url":40,"boring_view_url":1,"soilmap_view_url":null,"soiltest_xml_url":0,"soiltest_view_url":0},{"id":198709,"code":"B4KJ201801008-6958","latitude":"33.5652975","longitude":"133.5722744","source_code":"SK50332475001","project_name":"","survey_name":"\u5e73\u621011\u5e74\u5ea6\u9808\u5d0e\u9053\u8def\u59161\u4ef6\u5730\u8cea\u8abf\u67fb\u696d\u52d9","client_name":"\u56fd\u571f\u4ea4\u901a\u7701 \u56db\u56fd\u5730\u65b9\u6574\u5099\u5c40 \u571f\u4f50\u56fd\u9053\u4e8b\u52d9\u6240","boring_xml_url":40,"boring_view_url":1,"soilmap_view_url":null,"soiltest_xml_url":0,"soiltest_view_url":0},{"id":198708,"code":"B4KJ201801008-6957","latitude":"33.56582472","longitude":"133.5546092","source_code":"SK50332474004","project_name":"","survey_name":"\u5e73\u62102\u5e74\u5ea6\u592a\u7530\u5ddd\u6a4b\u5730\u8cea\u8abf\u67fb\u696d\u52d9","client_name":"\u56fd\u571f\u4ea4\u901a\u7701 \u56db\u56fd\u5730\u65b9\u6574\u5099\u5c40 \u571f\u4f50\u56fd\u9053\u4e8b\u52d9\u6240","boring_xml_url":40,"boring_view_url":1,"soilmap_view_url":null,"soiltest_xml_url":0,"soiltest_view_url":0},{"id":198707,"code":"B4KJ201801008-6956","latitude":"33.56554694","longitude":"133.5546092","source_code":"SK50332474003","project_name":"","survey_name":"\u5e73\u62102\u5e74\u5ea6\u592a\u7530\u5ddd\u6a4b\u5730\u8cea\u8abf\u67fb\u696d\u52d9","client_name":"\u56fd\u571f\u4ea4\u901a\u7701 \u56db\u56fd\u5730\u65b9\u6574\u5099\u5c40 \u571f\u4f50\u56fd\u9053\u4e8b\u52d9\u6240","boring_xml_url":40,"boring_view_url":1,"soilmap_view_url":null,"soiltest_xml_url":0,"soiltest_view_url":0},{"id":198706,"code":"B4KJ201801008-6955","latitude":"33.56415806","longitude":"133.5434436","source_code":"SK50332473005","project_name":"","survey_name":"\u9ad8\u77e5\u6a4b\u5730\u8cea\u8abf\u67fb\u696d\u52d9","client_name":"\u56fd\u571f\u4ea4\u901a\u7701 \u56db\u56fd\u5730\u65b9\u6574\u5099\u5c40 \u571f\u4f50\u56fd\u9053\u4e8b\u52d9\u6240","boring_xml_url":40,"boring_view_url":1,"soilmap_view_url":null,"soiltest_xml_url":0,"soiltest_view_url":0},{"id":198705,"code":"B4KJ201801008-6954","latitude":"33.56396361","longitude":"133.5430825","source_code":"SK50332473004","project_name":"","survey_name":"\u9ad8\u77e5\u6a4b\u5730\u8cea\u8abf\u67fb\u696d\u52d9","client_name":"\u56fd\u571f\u4ea4\u901a\u7701 \u56db\u56fd\u5730\u65b9\u6574\u5099\u5c40 \u571f\u4f50\u56fd\u9053\u4e8b\u52d9\u6240","boring_xml_url":40,"boring_view_url":1,"soilmap_view_url":null,"soiltest_xml_url":0,"soiltest_view_url":0},{"id":198704,"code":"B4KJ201801008-6953","latitude":"33.56390806","longitude":"133.5433881","source_code":"SK50332473003","project_name":"","survey_name":"\u9ad8\u77e5\u6a4b\u5730\u8cea\u8abf\u67fb\u696d\u52d9","client_name":"\u56fd\u571f\u4ea4\u901a\u7701 \u56db\u56fd\u5730\u65b9\u6574\u5099\u5c40 \u571f\u4f50\u56fd\u9053\u4e8b\u52d9\u6240","boring_xml_url":40,"boring_view_url":1,"soilmap_view_url":null,"soiltest_xml_url":0,"soiltest_view_url":0},{"id":198703,"code":"B4KJ201801008-6952","latitude":"33.56279722","longitude":"133.5430269","source_code":"SK50332473002","project_name":"","survey_name":"\u9ad8\u77e5\u6a4b\u5730\u8cea\u8abf\u67fb\u696d\u52d9","client_name":"\u56fd\u571f\u4ea4\u901a\u7701 \u56db\u56fd\u5730\u65b9\u6574\u5099\u5c40 \u571f\u4f50\u56fd\u9053\u4e8b\u52d9\u6240","boring_xml_url":40,"boring_view_url":1,"soilmap_view_url":null,"soiltest_xml_url":0,"soiltest_view_url":0},{"id":198702,"code":"B4KJ201801008-6951","latitude":"33.56279722","longitude":"133.5433047","source_code":"SK50332473001","project_name":"","survey_name":"\u9ad8\u77e5\u6a4b\u5730\u8cea\u8abf\u67fb\u696d\u52d9","client_name":"\u56fd\u571f\u4ea4\u901a\u7701 \u56db\u56fd\u5730\u65b9\u6574\u5099\u5c40 \u571f\u4f50\u56fd\u9053\u4e8b\u52d9\u6240","boring_xml_url":40,"boring_view_url":1,"soilmap_view_url":null,"soiltest_xml_url":0,"soiltest_view_url":0},{"id":198701,"code":"B4KJ201801008-6950","latitude":"33.55988056","longitude":"133.5384997","source_code":"SK50332463002","project_name":"","survey_name":"\u5e73\u62102\u5e74\u5ea6\u9ad8\u77e5\u99c5\u524d\u901a\u308a\u5730\u8cea\u8abf\u67fb\u696d\u52d9","client_name":"\u56fd\u571f\u4ea4\u901a\u7701 \u56db\u56fd\u5730\u65b9\u6574\u5099\u5c40 \u571f\u4f50\u56fd\u9053\u4e8b\u52d9\u6240","boring_xml_url":40,"boring_view_url":1,"soilmap_view_url":null,"soiltest_xml_url":0,"soiltest_view_url":0},{"id":198700,"code":"B4KJ201801008-6949","latitude":"33.55851972","longitude":"133.5398886","source_code":"SK50332463001","project_name":"","survey_name":"\u5e73\u62102\u5e74\u5ea6\u9ad8\u77e5\u99c5\u524d\u901a\u308a\u5730\u8cea\u8abf\u67fb\u696d\u52d9","client_name":"\u56fd\u571f\u4ea4\u901a\u7701 \u56db\u56fd\u5730\u65b9\u6574\u5099\u5c40 \u571f\u4f50\u56fd\u9053\u4e8b\u52d9\u6240","boring_xml_url":40,"boring_view_url":1,"soilmap_view_url":null,"soiltest_xml_url":0,"soiltest_view_url":0},{"id":198699,"code":"B4KJ201801008-6948","latitude":"33.55365833","longitude":"133.4985033","source_code":"SK50332460002","project_name":"","survey_name":"\u662d\u548c61\u5e74\u5ea6\u9ad8\u77e5\u897f\u30d0\u30a4\u30d1\u30b9(\u9d28\u90e8\u5730\u533a)\u5730\u8cea\u8abf\u67fb\u696d\u52d9","client_name":"\u56fd\u571f\u4ea4\u901a\u7701 \u56db\u56fd\u5730\u65b9\u6574\u5099\u5c40 \u571f\u4f50\u56fd\u9053\u4e8b\u52d9\u6240","boring_xml_url":40,"boring_view_url":1,"soilmap_view_url":null,"soiltest_xml_url":0,"soiltest_view_url":0},{"id":198698,"code":"B4KJ201801008-6947","latitude":"33.55354722","longitude":"133.4979481","source_code":"SK50332460001","project_name":"","survey_name":"\u662d\u548c61\u5e74\u5ea6\u9ad8\u77e5\u897f\u30d0\u30a4\u30d1\u30b9(\u9d28\u90e8\u5730\u533a)\u5730\u8cea\u8abf\u67fb\u696d\u52d9","client_name":"\u56fd\u571f\u4ea4\u901a\u7701 \u56db\u56fd\u5730\u65b9\u6574\u5099\u5c40 \u571f\u4f50\u56fd\u9053\u4e8b\u52d9\u6240","boring_xml_url":40,"boring_view_url":1,"soilmap_view_url":null,"soiltest_xml_url":0,"soiltest_view_url":0},{"id":198697,"code":"B4KJ201801008-6946","latitude":"33.54888361","longitude":"133.6187708","source_code":"SK50332459008","project_name":"","survey_name":"\u5e73\u621010\u5e74\u5ea6 \u7a32\u751f\u5730\u533a\u59161\u4ef6\u5730\u8cea\u8abf\u67fb\u696d\u52d9","client_name":"\u56fd\u571f\u4ea4\u901a\u7701 \u56db\u56fd\u5730\u65b9\u6574\u5099\u5c40 \u571f\u4f50\u56fd\u9053\u4e8b\u52d9\u6240","boring_xml_url":40,"boring_view_url":1,"soilmap_view_url":null,"soiltest_xml_url":0,"soiltest_view_url":0},{"id":198696,"code":"B4KJ201801008-6945","latitude":"33.54932806","longitude":"133.6189097","source_code":"SK50332459007","project_name":"","survey_name":"\u5e73\u621010\u5e74\u5ea6\u5510\u8c37\u5730\u533a\u5730\u8cea\u8abf\u67fb\u696d\u52d9","client_name":"\u56fd\u571f\u4ea4\u901a\u7701 \u56db\u56fd\u5730\u65b9\u6574\u5099\u5c40 \u571f\u4f50\u56fd\u9053\u4e8b\u52d9\u6240","boring_xml_url":40,"boring_view_url":1,"soilmap_view_url":null,"soiltest_xml_url":0,"soiltest_view_url":0},{"id":198695,"code":"B4KJ201801008-6944","latitude":"33.54971694","longitude":"133.6193264","source_code":"SK50332459006","project_name":"","survey_name":"\u5e73\u621010\u5e74\u5ea6 \u7a32\u751f\u5730\u533a\u59161\u4ef6\u5730\u8cea\u8abf\u67fb\u696d\u52d9","client_name":"\u56fd\u571f\u4ea4\u901a\u7701 \u56db\u56fd\u5730\u65b9\u6574\u5099\u5c40 \u571f\u4f50\u56fd\u9053\u4e8b\u52d9\u6240","boring_xml_url":40,"boring_view_url":1,"soilmap_view_url":null,"soiltest_xml_url":0,"soiltest_view_url":0},{"id":198694,"code":"B4KJ201801008-6943","latitude":"33.54980028","longitude":"133.6194372","source_code":"SK50332459005","project_name":"","survey_name":"\u5e73\u621010\u5e74\u5ea6\u5510\u8c37\u5730\u533a\u5730\u8cea\u8abf\u67fb\u696d\u52d9","client_name":"\u56fd\u571f\u4ea4\u901a\u7701 \u56db\u56fd\u5730\u65b9\u6574\u5099\u5c40 \u571f\u4f50\u56fd\u9053\u4e8b\u52d9\u6240","boring_xml_url":40,"boring_view_url":1,"soilmap_view_url":null,"soiltest_xml_url":0,"soiltest_view_url":0},{"id":198693,"code":"B4KJ201801008-6942","latitude":"33.55041139","longitude":"133.6217983","source_code":"SK50332459004","project_name":"","survey_name":"\u5e73\u62108\u5e74\u5ea6 \u7a32\u751f\u5730\u533a\u5730\u8cea\u8abf\u67fb","client_name":"\u56fd\u571f\u4ea4\u901a\u7701 \u56db\u56fd\u5730\u65b9\u6574\u5099\u5c40 \u571f\u4f50\u56fd\u9053\u4e8b\u52d9\u6240","boring_xml_url":40,"boring_view_url":1,"soilmap_view_url":null,"soiltest_xml_url":0,"soiltest_view_url":0},{"id":198692,"code":"B4KJ201801008-6941","latitude":"33.54530056","longitude":"133.6141325","source_code":"SK50332459003","project_name":"","survey_name":"\u5e73\u62108\u5e74\u5ea6 \u7a32\u751f\u5730\u533a\u5730\u8cea\u8abf\u67fb","client_name":"\u56fd\u571f\u4ea4\u901a\u7701 \u56db\u56fd\u5730\u65b9\u6574\u5099\u5c40 \u571f\u4f50\u56fd\u9053\u4e8b\u52d9\u6240","boring_xml_url":40,"boring_view_url":1,"soilmap_view_url":null,"soiltest_xml_url":0,"soiltest_view_url":0},{"id":198691,"code":"B4KJ201801008-6940","latitude":"33.55041139","longitude":"133.6217983","source_code":"SK50332459002","project_name":"","survey_name":"\u5e73\u62108\u5e74\u5ea6 \u7a32\u751f\u5730\u533a\u5730\u8cea\u8abf\u67fb","client_name":"\u56fd\u571f\u4ea4\u901a\u7701 \u56db\u56fd\u5730\u65b9\u6574\u5099\u5c40 \u571f\u4f50\u56fd\u9053\u4e8b\u52d9\u6240","boring_xml_url":40,"boring_view_url":1,"soilmap_view_url":null,"soiltest_xml_url":0,"soiltest_view_url":0},{"id":198690,"code":"B4KJ201801008-6939","latitude":"33.54530056","longitude":"133.6141325","source_code":"SK50332459001","project_name":"","survey_name":"\u5e73\u62108\u5e74\u5ea6 \u7a32\u751f\u5730\u533a\u5730\u8cea\u8abf\u67fb","client_name":"\u56fd\u571f\u4ea4\u901a\u7701 \u56db\u56fd\u5730\u65b9\u6574\u5099\u5c40 \u571f\u4f50\u56fd\u9053\u4e8b\u52d9\u6240","boring_xml_url":40,"boring_view_url":1,"soilmap_view_url":null,"soiltest_xml_url":0,"soiltest_view_url":0},{"id":198689,"code":"B4KJ201801008-6938","latitude":"33.5503825","longitude":"133.5763578","source_code":"SK50332456002","project_name":"","survey_name":"\u5e73\u62105\u5e74\u5ea6\u9ad8\u9808\u5730\u533a\u5730\u8cea\u8abf\u67fb\u696d\u52d9\u59d4\u8a17","client_name":"\u56fd\u571f\u4ea4\u901a\u7701 \u56db\u56fd\u5730\u65b9\u6574\u5099\u5c40 \u571f\u4f50\u56fd\u9053\u4e8b\u52d9\u6240","boring_xml_url":40,"boring_view_url":1,"soilmap_view_url":null,"soiltest_xml_url":0,"soiltest_view_url":0},{"id":198688,"code":"B4KJ201801008-6937","latitude":"33.55121583","longitude":"133.5762467","source_code":"SK50332456001","project_name":"","survey_name":"\u5e73\u62105\u5e74\u5ea6\u9ad8\u9808\u5730\u533a\u5730\u8cea\u8abf\u67fb\u696d\u52d9\u59d4\u8a17","client_name":"\u56fd\u571f\u4ea4\u901a\u7701 \u56db\u56fd\u5730\u65b9\u6574\u5099\u5c40 \u571f\u4f50\u56fd\u9053\u4e8b\u52d9\u6240","boring_xml_url":40,"boring_view_url":1,"soilmap_view_url":null,"soiltest_xml_url":0,"soiltest_view_url":0},{"id":198687,"code":"B4KJ201801008-6936","latitude":"33.55077028","longitude":"133.5240569","source_code":"SK50332452005","project_name":"","survey_name":"\u7b46\u5c71\u5730\u533a\u5730\u8cea\u8abf\u67fb\u696d\u52d9","client_name":"\u56fd\u571f\u4ea4\u901a\u7701 \u56db\u56fd\u5730\u65b9\u6574\u5099\u5c40 \u9ad8\u77e5\u6cb3\u5ddd\u56fd\u9053\u4e8b\u52d9\u6240","boring_xml_url":40,"boring_view_url":1,"soilmap_view_url":null,"soiltest_xml_url":0,"soiltest_view_url":0},{"id":198686,"code":"B4KJ201801008-6935","latitude":"33.55102028","longitude":"133.5258344","source_code":"SK50332452004","project_name":"","survey_name":"\u7b46\u5c71\u5730\u533a\u5730\u8cea\u8abf\u67fb\u696d\u52d9","client_name":"\u56fd\u571f\u4ea4\u901a\u7701 \u56db\u56fd\u5730\u65b9\u6574\u5099\u5c40 \u9ad8\u77e5\u6cb3\u5ddd\u56fd\u9053\u4e8b\u52d9\u6240","boring_xml_url":40,"boring_view_url":1,"soilmap_view_url":null,"soiltest_xml_url":0,"soiltest_view_url":0}]}}