{"header":{"xyz":{"source":[],"mosaic":false},"page":4064,"raw":{"soiltest_result":"0","bbox":"57.598333,109.544722,1.933333,163.806111","page":"4064"},"conditions":{"soiltest_result":0,"north":57.598333,"west":109.544722,"south":1.933333,"east":163.806111},"success":true,"message":""},"data":{"meta":{"total":212844,"page":4064,"pages":7095,"count":30},"values":[{"id":198655,"code":"B4KJ201801008-6904","latitude":"33.53943944","longitude":"133.5862739","source_code":"SK50332447007","project_name":"","survey_name":"\u5e73\u62108\u5e74\u5ea6\u4e94\u53f0\u5c71\u5357\u5730\u533a\u5730\u8cea\u8abf\u67fb\u696d\u52d9","client_name":"\u56fd\u571f\u4ea4\u901a\u7701 \u56db\u56fd\u5730\u65b9\u6574\u5099\u5c40 \u571f\u4f50\u56fd\u9053\u4e8b\u52d9\u6240","boring_xml_url":40,"boring_view_url":1,"soilmap_view_url":null,"soiltest_xml_url":0,"soiltest_view_url":0},{"id":198654,"code":"B4KJ201801008-6903","latitude":"33.53943944","longitude":"133.5862739","source_code":"SK50332447006","project_name":"","survey_name":"\u5e73\u62108\u5e74\u5ea6\u4e94\u53f0\u5c71\u5357\u5730\u533a\u5730\u8cea\u8abf\u67fb\u696d\u52d9","client_name":"\u56fd\u571f\u4ea4\u901a\u7701 \u56db\u56fd\u5730\u65b9\u6574\u5099\u5c40 \u571f\u4f50\u56fd\u9053\u4e8b\u52d9\u6240","boring_xml_url":40,"boring_view_url":1,"soilmap_view_url":null,"soiltest_xml_url":0,"soiltest_view_url":0},{"id":198653,"code":"B4KJ201801008-6902","latitude":"33.539995","longitude":"133.5864961","source_code":"SK50332447005","project_name":"","survey_name":"\u5e73\u62107\u5e74\u5ea6\u4e94\u53f0\u5c71\u5357\u5730\u533a\u5730\u8cea\u8abf\u67fb\u696d\u52d9","client_name":"\u56fd\u571f\u4ea4\u901a\u7701 \u56db\u56fd\u5730\u65b9\u6574\u5099\u5c40 \u571f\u4f50\u56fd\u9053\u4e8b\u52d9\u6240","boring_xml_url":40,"boring_view_url":1,"soilmap_view_url":null,"soiltest_xml_url":0,"soiltest_view_url":0},{"id":198652,"code":"B4KJ201801008-6901","latitude":"33.53938417","longitude":"133.5873017","source_code":"SK50332447004","project_name":"","survey_name":"\u5e73\u62107\u5e74\u5ea6\u4e94\u53f0\u5c71\u5357\u5730\u533a\u5730\u8cea\u8abf\u67fb\u696d\u52d9","client_name":"\u56fd\u571f\u4ea4\u901a\u7701 \u56db\u56fd\u5730\u65b9\u6574\u5099\u5c40 \u571f\u4f50\u56fd\u9053\u4e8b\u52d9\u6240","boring_xml_url":40,"boring_view_url":1,"soilmap_view_url":null,"soiltest_xml_url":0,"soiltest_view_url":0},{"id":198651,"code":"B4KJ201801008-6900","latitude":"33.53949528","longitude":"133.5878294","source_code":"SK50332447003","project_name":"","survey_name":"\u5e73\u62107\u5e74\u5ea6\u4e94\u53f0\u5c71\u5357\u5730\u533a\u5730\u8cea\u8abf\u67fb\u696d\u52d9","client_name":"\u56fd\u571f\u4ea4\u901a\u7701 \u56db\u56fd\u5730\u65b9\u6574\u5099\u5c40 \u571f\u4f50\u56fd\u9053\u4e8b\u52d9\u6240","boring_xml_url":40,"boring_view_url":1,"soilmap_view_url":null,"soiltest_xml_url":0,"soiltest_view_url":0},{"id":198650,"code":"B4KJ201801008-6899","latitude":"33.53982833","longitude":"133.5881069","source_code":"SK50332447002","project_name":"","survey_name":"\u5e73\u62107\u5e74\u5ea6\u4e94\u53f0\u5c71\u5357\u5730\u533a\u5730\u8cea\u8abf\u67fb\u696d\u52d9","client_name":"\u56fd\u571f\u4ea4\u901a\u7701 \u56db\u56fd\u5730\u65b9\u6574\u5099\u5c40 \u571f\u4f50\u56fd\u9053\u4e8b\u52d9\u6240","boring_xml_url":40,"boring_view_url":1,"soilmap_view_url":null,"soiltest_xml_url":0,"soiltest_view_url":0},{"id":198649,"code":"B4KJ201801008-6898","latitude":"33.53860639","longitude":"133.5909958","source_code":"SK50332447001","project_name":"","survey_name":"\u5e73\u62107\u5e74\u5ea6 \u9ad8\u77e5\u5357\u56fd\u9053\u8def(\u5439\u4e95\u5730\u533a)\u5730\u8cea\u8abf\u67fb\u696d\u52d9","client_name":"\u56fd\u571f\u4ea4\u901a\u7701 \u56db\u56fd\u5730\u65b9\u6574\u5099\u5c40 \u571f\u4f50\u56fd\u9053\u4e8b\u52d9\u6240","boring_xml_url":40,"boring_view_url":1,"soilmap_view_url":null,"soiltest_xml_url":0,"soiltest_view_url":0},{"id":198648,"code":"B4KJ201801008-6897","latitude":"33.54027278","longitude":"133.5839131","source_code":"SK50332446007","project_name":"","survey_name":"\u5e73\u62108\u5e74\u5ea6\u4e94\u53f0\u5c71\u5357\u5730\u533a\u5730\u8cea\u8abf\u67fb\u696d\u52d9","client_name":"\u56fd\u571f\u4ea4\u901a\u7701 \u56db\u56fd\u5730\u65b9\u6574\u5099\u5c40 \u571f\u4f50\u56fd\u9053\u4e8b\u52d9\u6240","boring_xml_url":40,"boring_view_url":1,"soilmap_view_url":null,"soiltest_xml_url":0,"soiltest_view_url":0},{"id":198647,"code":"B4KJ201801008-6896","latitude":"33.539995","longitude":"133.5814133","source_code":"SK50332446006","project_name":"","survey_name":"\u5e73\u62108\u5e74\u5ea6\u4e94\u53f0\u5c71\u5357\u5730\u533a\u5730\u8cea\u8abf\u67fb\u696d\u52d9","client_name":"\u56fd\u571f\u4ea4\u901a\u7701 \u56db\u56fd\u5730\u65b9\u6574\u5099\u5c40 \u571f\u4f50\u56fd\u9053\u4e8b\u52d9\u6240","boring_xml_url":40,"boring_view_url":1,"soilmap_view_url":null,"soiltest_xml_url":0,"soiltest_view_url":0},{"id":198646,"code":"B4KJ201801008-6895","latitude":"33.54027278","longitude":"133.5839131","source_code":"SK50332446005","project_name":"","survey_name":"\u5e73\u62108\u5e74\u5ea6\u4e94\u53f0\u5c71\u5357\u5730\u533a\u5730\u8cea\u8abf\u67fb\u696d\u52d9","client_name":"\u56fd\u571f\u4ea4\u901a\u7701 \u56db\u56fd\u5730\u65b9\u6574\u5099\u5c40 \u571f\u4f50\u56fd\u9053\u4e8b\u52d9\u6240","boring_xml_url":40,"boring_view_url":1,"soilmap_view_url":null,"soiltest_xml_url":0,"soiltest_view_url":0},{"id":198645,"code":"B4KJ201801008-6894","latitude":"33.54091167","longitude":"133.5821908","source_code":"SK50332446004","project_name":"","survey_name":"\u5e73\u62107\u5e74\u5ea6\u4e94\u53f0\u5c71\u5357\u5730\u533a\u5730\u8cea\u8abf\u67fb\u696d\u52d9","client_name":"\u56fd\u571f\u4ea4\u901a\u7701 \u56db\u56fd\u5730\u65b9\u6574\u5099\u5c40 \u571f\u4f50\u56fd\u9053\u4e8b\u52d9\u6240","boring_xml_url":40,"boring_view_url":1,"soilmap_view_url":null,"soiltest_xml_url":0,"soiltest_view_url":0},{"id":198644,"code":"B4KJ201801008-6893","latitude":"33.54316139","longitude":"133.5811353","source_code":"SK50332446003","project_name":"","survey_name":"\u5e73\u62107\u5e74\u5ea6\u4e94\u53f0\u5c71\u5357\u5730\u533a\u5730\u8cea\u8abf\u67fb\u696d\u52d9","client_name":"\u56fd\u571f\u4ea4\u901a\u7701 \u56db\u56fd\u5730\u65b9\u6574\u5099\u5c40 \u571f\u4f50\u56fd\u9053\u4e8b\u52d9\u6240","boring_xml_url":40,"boring_view_url":1,"soilmap_view_url":null,"soiltest_xml_url":0,"soiltest_view_url":0},{"id":198643,"code":"B4KJ201801008-6892","latitude":"33.54416111","longitude":"133.5806075","source_code":"SK50332446002","project_name":"","survey_name":"\u5e73\u62107\u5e74\u5ea6\u4e94\u53f0\u5c71\u5357\u5730\u533a\u5730\u8cea\u8abf\u67fb\u696d\u52d9","client_name":"\u56fd\u571f\u4ea4\u901a\u7701 \u56db\u56fd\u5730\u65b9\u6574\u5099\u5c40 \u571f\u4f50\u56fd\u9053\u4e8b\u52d9\u6240","boring_xml_url":40,"boring_view_url":1,"soilmap_view_url":null,"soiltest_xml_url":0,"soiltest_view_url":0},{"id":198642,"code":"B4KJ201801008-6891","latitude":"33.54418889","longitude":"133.5803019","source_code":"SK50332446001","project_name":"","survey_name":"\u5e73\u62107\u5e74\u5ea6\u4e94\u53f0\u5c71\u5357\u5730\u533a\u5730\u8cea\u8abf\u67fb\u696d\u52d9","client_name":"\u56fd\u571f\u4ea4\u901a\u7701 \u56db\u56fd\u5730\u65b9\u6574\u5099\u5c40 \u571f\u4f50\u56fd\u9053\u4e8b\u52d9\u6240","boring_xml_url":40,"boring_view_url":1,"soilmap_view_url":null,"soiltest_xml_url":0,"soiltest_view_url":0},{"id":198641,"code":"B4KJ201801008-6890","latitude":"33.55693528","longitude":"133.4795883","source_code":"SK50332368006","project_name":"","survey_name":"\u5e73\u62105\u5e74\u5ea6\u5ddd\u5d0e\u30ce\u4e38\u5730\u533a\u5730\u8cea\u8abf\u67fb\u696d\u52d9\u59d4\u8a17","client_name":"\u56fd\u571f\u4ea4\u901a\u7701 \u56db\u56fd\u5730\u65b9\u6574\u5099\u5c40 \u571f\u4f50\u56fd\u9053\u4e8b\u52d9\u6240","boring_xml_url":40,"boring_view_url":1,"soilmap_view_url":null,"soiltest_xml_url":0,"soiltest_view_url":0},{"id":198640,"code":"B4KJ201801008-6889","latitude":"33.55915722","longitude":"133.4754497","source_code":"SK50332368005","project_name":"","survey_name":"\u9ad8\u77e5\u897f\u30d0\u30a4\u30d1\u30b9\u5730\u8cea\u8abf\u67fb\u696d\u52d9","client_name":"\u56fd\u571f\u4ea4\u901a\u7701 \u56db\u56fd\u5730\u65b9\u6574\u5099\u5c40 \u571f\u4f50\u56fd\u9053\u4e8b\u52d9\u6240","boring_xml_url":40,"boring_view_url":1,"soilmap_view_url":null,"soiltest_xml_url":0,"soiltest_view_url":0},{"id":198639,"code":"B4KJ201801008-6888","latitude":"33.55637972","longitude":"133.4793383","source_code":"SK50332368004","project_name":"","survey_name":"\u9ad8\u77e5\u897f\u30d0\u30a4\u30d1\u30b9\u5730\u8cea\u8abf\u67fb\u696d\u52d9","client_name":"\u56fd\u571f\u4ea4\u901a\u7701 \u56db\u56fd\u5730\u65b9\u6574\u5099\u5c40 \u571f\u4f50\u56fd\u9053\u4e8b\u52d9\u6240","boring_xml_url":40,"boring_view_url":1,"soilmap_view_url":null,"soiltest_xml_url":0,"soiltest_view_url":0},{"id":198638,"code":"B4KJ201801008-6887","latitude":"33.551325","longitude":"133.4896156","source_code":"SK50332359005","project_name":"","survey_name":"\u662d\u548c61\u5e74\u5ea6\u9ad8\u77e5\u897f\u30d0\u30a4\u30d1\u30b9(\u9d28\u90e8\u5730\u533a)\u5730\u8cea\u8abf\u67fb\u696d\u52d9","client_name":"\u56fd\u571f\u4ea4\u901a\u7701 \u56db\u56fd\u5730\u65b9\u6574\u5099\u5c40 \u571f\u4f50\u56fd\u9053\u4e8b\u52d9\u6240","boring_xml_url":40,"boring_view_url":1,"soilmap_view_url":null,"soiltest_xml_url":0,"soiltest_view_url":0},{"id":198637,"code":"B4KJ201801008-6886","latitude":"33.55254722","longitude":"133.4929483","source_code":"SK50332359004","project_name":"","survey_name":"\u662d\u548c61\u5e74\u5ea6\u9ad8\u77e5\u897f\u30d0\u30a4\u30d1\u30b9(\u9d28\u90e8\u5730\u533a)\u5730\u8cea\u8abf\u67fb\u696d\u52d9","client_name":"\u56fd\u571f\u4ea4\u901a\u7701 \u56db\u56fd\u5730\u65b9\u6574\u5099\u5c40 \u571f\u4f50\u56fd\u9053\u4e8b\u52d9\u6240","boring_xml_url":40,"boring_view_url":1,"soilmap_view_url":null,"soiltest_xml_url":0,"soiltest_view_url":0},{"id":198636,"code":"B4KJ201801008-6885","latitude":"33.55063056","longitude":"133.4856158","source_code":"SK50332359003","project_name":"","survey_name":"\u671d\u5009\u4ea4\u5dee\u70b9\u5730\u8cea\u8abf\u67fb\u53ca\u3073\u5b9f\u65bd\u8a2d\u8a08","client_name":"\u56fd\u571f\u4ea4\u901a\u7701 \u56db\u56fd\u5730\u65b9\u6574\u5099\u5c40 \u571f\u4f50\u56fd\u9053\u4e8b\u52d9\u6240","boring_xml_url":40,"boring_view_url":1,"soilmap_view_url":null,"soiltest_xml_url":0,"soiltest_view_url":0},{"id":198635,"code":"B4KJ201801008-6884","latitude":"33.55288056","longitude":"133.4889489","source_code":"SK50332359002","project_name":"","survey_name":"\u662d\u548c59\u5e74\u5ea6\u9ad8\u77e5\u897f\u30d0\u30a4\u30d1\u30b9\u8de8\u9053\u6a4b\u4e88\u5099\u8a2d\u8a08\u696d\u52d9\u59d4\u8a17","client_name":"\u56fd\u571f\u4ea4\u901a\u7701 \u56db\u56fd\u5730\u65b9\u6574\u5099\u5c40 \u571f\u4f50\u56fd\u9053\u4e8b\u52d9\u6240","boring_xml_url":40,"boring_view_url":1,"soilmap_view_url":null,"soiltest_xml_url":0,"soiltest_view_url":0},{"id":198634,"code":"B4KJ201801008-6883","latitude":"33.55304722","longitude":"133.4892542","source_code":"SK50332359001","project_name":"","survey_name":"\u662d\u548c59\u5e74\u5ea6\u9ad8\u77e5\u897f\u30d0\u30a4\u30d1\u30b9\u8de8\u9053\u6a4b\u4e88\u5099\u8a2d\u8a08\u696d\u52d9\u59d4\u8a17","client_name":"\u56fd\u571f\u4ea4\u901a\u7701 \u56db\u56fd\u5730\u65b9\u6574\u5099\u5c40 \u571f\u4f50\u56fd\u9053\u4e8b\u52d9\u6240","boring_xml_url":40,"boring_view_url":1,"soilmap_view_url":null,"soiltest_xml_url":0,"soiltest_view_url":0},{"id":198633,"code":"B4KJ201801008-6882","latitude":"33.55099167","longitude":"133.4837269","source_code":"SK50332358001","project_name":"","survey_name":"\u671d\u5009\u4ea4\u5dee\u70b9\u5730\u8cea\u8abf\u67fb\u53ca\u3073\u5b9f\u65bd\u8a2d\u8a08","client_name":"\u56fd\u571f\u4ea4\u901a\u7701 \u56db\u56fd\u5730\u65b9\u6574\u5099\u5c40 \u571f\u4f50\u56fd\u9053\u4e8b\u52d9\u6240","boring_xml_url":40,"boring_view_url":1,"soilmap_view_url":null,"soiltest_xml_url":0,"soiltest_view_url":0},{"id":198632,"code":"B4KJ201801008-6881","latitude":"33.55221333","longitude":"133.4678117","source_code":"SK50332357001","project_name":"","survey_name":"\u662d\u548c60\u5e74\u5ea6\u690b\u306e\u5cf6\u6a4b\u59161\u4ef6\u5730\u8cea\u8abf\u67fb\u696d\u52d9","client_name":"\u56fd\u571f\u4ea4\u901a\u7701 \u56db\u56fd\u5730\u65b9\u6574\u5099\u5c40 \u571f\u4f50\u56fd\u9053\u4e8b\u52d9\u6240","boring_xml_url":40,"boring_view_url":1,"soilmap_view_url":null,"soiltest_xml_url":0,"soiltest_view_url":0},{"id":198631,"code":"B4KJ201801008-6880","latitude":"33.55304639","longitude":"133.4593403","source_code":"SK50332356005","project_name":"","survey_name":"\u5e73\u62105\u5e74\u5ea6\u9ad8\u77e5\u5357\u56fd\u9053\u8def(\u7802\u5730\u5730\u533a)\u5730\u8cea\u8abf\u67fb\u696d\u52d9\u59d4\u8a17","client_name":"\u56fd\u571f\u4ea4\u901a\u7701\u56db\u56fd\u5730\u65b9\u6574\u5099\u5c40\u571f\u4f50\u56fd\u9053\u4e8b\u52d9\u6240","boring_xml_url":40,"boring_view_url":1,"soilmap_view_url":null,"soiltest_xml_url":0,"soiltest_view_url":0},{"id":198630,"code":"B4KJ201801008-6879","latitude":"33.54504694","longitude":"133.4402589","source_code":"SK50332355008","project_name":"","survey_name":"\u5e73\u62107\u5e74\u5ea6\u65b0\u5b87\u6cbb\u5ddd\u653e\u6c34\u8def\u5730\u8cea\u8abf\u67fb\u696d\u52d9","client_name":"\u56fd\u571f\u4ea4\u901a\u7701\u56db\u56fd\u5730\u65b9\u6574\u5099\u5c40\u9ad8\u77e5\u6cb3\u5ddd\u56fd\u9053\u4e8b\u52d9\u6240","boring_xml_url":40,"boring_view_url":1,"soilmap_view_url":null,"soiltest_xml_url":0,"soiltest_view_url":0},{"id":198629,"code":"B4KJ201801008-6878","latitude":"33.54504694","longitude":"133.44012","source_code":"SK50332355007","project_name":"","survey_name":"\u5e73\u62107\u5e74\u5ea6\u65b0\u5b87\u6cbb\u5ddd\u653e\u6c34\u8def\u5730\u8cea\u8abf\u67fb\u696d\u52d9","client_name":"\u56fd\u571f\u4ea4\u901a\u7701\u56db\u56fd\u5730\u65b9\u6574\u5099\u5c40\u9ad8\u77e5\u6cb3\u5ddd\u56fd\u9053\u4e8b\u52d9\u6240","boring_xml_url":40,"boring_view_url":1,"soilmap_view_url":null,"soiltest_xml_url":0,"soiltest_view_url":0},{"id":198628,"code":"B4KJ201801008-6877","latitude":"33.54540806","longitude":"133.4403422","source_code":"SK50332355006","project_name":"","survey_name":"\u5e73\u62107\u5e74\u5ea6\u65b0\u5b87\u6cbb\u5ddd\u653e\u6c34\u8def\u5730\u8cea\u8abf\u67fb\u696d\u52d9","client_name":"\u56fd\u571f\u4ea4\u901a\u7701\u56db\u56fd\u5730\u65b9\u6574\u5099\u5c40\u9ad8\u77e5\u6cb3\u5ddd\u56fd\u9053\u4e8b\u52d9\u6240","boring_xml_url":40,"boring_view_url":1,"soilmap_view_url":null,"soiltest_xml_url":0,"soiltest_view_url":0},{"id":198627,"code":"B4KJ201801008-6876","latitude":"33.54599111","longitude":"133.4373425","source_code":"SK50332355001","project_name":"","survey_name":"\u662d\u548c56\u5e74\u5ea6\u5965\u540d\u5730\u533a\u5730\u8cea\u8abf\u67fb\u696d\u52d9","client_name":"\u56fd\u571f\u4ea4\u901a\u7701\u56db\u56fd\u5730\u65b9\u6574\u5099\u5c40\u9ad8\u77e5\u6cb3\u5ddd\u56fd\u9053\u4e8b\u52d9\u6240","boring_xml_url":40,"boring_view_url":1,"soilmap_view_url":null,"soiltest_xml_url":0,"soiltest_view_url":0},{"id":198626,"code":"B4KJ201801008-6875","latitude":"33.54679639","longitude":"133.4167608","source_code":"SK50332353008","project_name":"","survey_name":"\u6ce2\u5ddd\u5357\u6a0b\u9580\u8abf\u67fb\u8a2d\u8a08\u5916\u696d\u52d9\u59d4\u8a17","client_name":"\u56fd\u571f\u4ea4\u901a\u7701\u56db\u56fd\u5730\u65b9\u6574\u5099\u5c40\u9ad8\u77e5\u6cb3\u5ddd\u56fd\u9053\u4e8b\u52d9\u6240","boring_xml_url":40,"boring_view_url":1,"soilmap_view_url":null,"soiltest_xml_url":0,"soiltest_view_url":0}]}}