{"header":{"xyz":{"source":[],"mosaic":false},"page":4075,"raw":{"soiltest_result":"0","bbox":"57.598333,109.544722,1.933333,163.806111","page":"4075"},"conditions":{"soiltest_result":0,"north":57.598333,"west":109.544722,"south":1.933333,"east":163.806111},"success":true,"message":""},"data":{"meta":{"total":212844,"page":4075,"pages":7095,"count":30},"values":[{"id":198325,"code":"B4KJ201801008-6574","latitude":"33.40417083","longitude":"133.2888597","source_code":"SK50330283010","project_name":"","survey_name":"\u5e73\u62108\u5e74\u5ea6\u6850\u9593\u5730\u533a\u5730\u8cea\u8abf\u67fb\u696d\u52d9","client_name":"\u56fd\u571f\u4ea4\u901a\u7701 \u56db\u56fd\u5730\u65b9\u6574\u5099\u5c40 \u571f\u4f50\u56fd\u9053\u4e8b\u52d9\u6240","boring_xml_url":40,"boring_view_url":1,"soilmap_view_url":null,"soiltest_xml_url":0,"soiltest_view_url":0},{"id":198324,"code":"B4KJ201801008-6573","latitude":"33.40469861","longitude":"133.2896375","source_code":"SK50330283009","project_name":"","survey_name":"\u5e73\u62108\u5e74\u5ea6\u6850\u9593\u5730\u533a\u5730\u8cea\u8abf\u67fb\u696d\u52d9","client_name":"\u56fd\u571f\u4ea4\u901a\u7701 \u56db\u56fd\u5730\u65b9\u6574\u5099\u5c40 \u571f\u4f50\u56fd\u9053\u4e8b\u52d9\u6240","boring_xml_url":40,"boring_view_url":1,"soilmap_view_url":null,"soiltest_xml_url":0,"soiltest_view_url":0},{"id":198323,"code":"B4KJ201801008-6572","latitude":"33.40561528","longitude":"133.2904428","source_code":"SK50330283008","project_name":"","survey_name":"\u5e73\u62108\u5e74\u5ea6\u6850\u9593\u5730\u533a\u5730\u8cea\u8abf\u67fb\u696d\u52d9","client_name":"\u56fd\u571f\u4ea4\u901a\u7701 \u56db\u56fd\u5730\u65b9\u6574\u5099\u5c40 \u571f\u4f50\u56fd\u9053\u4e8b\u52d9\u6240","boring_xml_url":40,"boring_view_url":1,"soilmap_view_url":null,"soiltest_xml_url":0,"soiltest_view_url":0},{"id":198322,"code":"B4KJ201801008-6571","latitude":"33.41036472","longitude":"133.2966089","source_code":"SK50330283007","project_name":"","survey_name":"\u5e73\u62107\u5e74\u5ea6 \u9808\u5d0e\u9053\u8def\u5730\u8cea\u8abf\u67fb\u305d\u306e2\u696d\u52d9","client_name":"\u56fd\u571f\u4ea4\u901a\u7701 \u56db\u56fd\u5730\u65b9\u6574\u5099\u5c40 \u571f\u4f50\u56fd\u9053\u4e8b\u52d9\u6240","boring_xml_url":40,"boring_view_url":1,"soilmap_view_url":null,"soiltest_xml_url":0,"soiltest_view_url":0},{"id":198321,"code":"B4KJ201801008-6570","latitude":"33.40783722","longitude":"133.2935814","source_code":"SK50330283006","project_name":"","survey_name":"\u5e73\u62106\u5e74\u5ea6\u9808\u5d0e\u9053\u8def(\u6850\u9593\u5730\u533a)\u5730\u8cea\u8abf\u67fb\u696d\u52d9","client_name":"\u56fd\u571f\u4ea4\u901a\u7701 \u56db\u56fd\u5730\u65b9\u6574\u5099\u5c40 \u571f\u4f50\u56fd\u9053\u4e8b\u52d9\u6240","boring_xml_url":40,"boring_view_url":1,"soilmap_view_url":null,"soiltest_xml_url":0,"soiltest_view_url":0},{"id":198320,"code":"B4KJ201801008-6569","latitude":"33.40828167","longitude":"133.2945258","source_code":"SK50330283005","project_name":"","survey_name":"\u5e73\u62106\u5e74\u5ea6\u9808\u5d0e\u9053\u8def(\u6850\u9593\u5730\u533a)\u5730\u8cea\u8abf\u67fb\u696d\u52d9","client_name":"\u56fd\u571f\u4ea4\u901a\u7701 \u56db\u56fd\u5730\u65b9\u6574\u5099\u5c40 \u571f\u4f50\u56fd\u9053\u4e8b\u52d9\u6240","boring_xml_url":40,"boring_view_url":1,"soilmap_view_url":null,"soiltest_xml_url":0,"soiltest_view_url":0},{"id":198319,"code":"B4KJ201801008-6568","latitude":"33.40875389","longitude":"133.2951647","source_code":"SK50330283004","project_name":"","survey_name":"\u5e73\u62106\u5e74\u5ea6\u9808\u5d0e\u9053\u8def(\u6850\u9593\u5730\u533a)\u5730\u8cea\u8abf\u67fb\u696d\u52d9","client_name":"\u56fd\u571f\u4ea4\u901a\u7701 \u56db\u56fd\u5730\u65b9\u6574\u5099\u5c40 \u571f\u4f50\u56fd\u9053\u4e8b\u52d9\u6240","boring_xml_url":40,"boring_view_url":1,"soilmap_view_url":null,"soiltest_xml_url":0,"soiltest_view_url":0},{"id":198318,"code":"B4KJ201801008-6567","latitude":"33.40403194","longitude":"133.2891931","source_code":"SK50330283003","project_name":"","survey_name":"\u5e73\u62105\u5e74\u5ea6\u9808\u5d0e\u9053\u8def\u5730\u8cea\u8abf\u67fb\u696d\u52d9\u59d4\u8a17","client_name":"\u56fd\u571f\u4ea4\u901a\u7701 \u56db\u56fd\u5730\u65b9\u6574\u5099\u5c40 \u571f\u4f50\u56fd\u9053\u4e8b\u52d9\u6240","boring_xml_url":40,"boring_view_url":1,"soilmap_view_url":null,"soiltest_xml_url":0,"soiltest_view_url":0},{"id":198317,"code":"B4KJ201801008-6566","latitude":"33.4048375","longitude":"133.2896931","source_code":"SK50330283002","project_name":"","survey_name":"\u5e73\u62105\u5e74\u5ea6\u9808\u5d0e\u9053\u8def\u5730\u8cea\u8abf\u67fb\u696d\u52d9\u59d4\u8a17","client_name":"\u56fd\u571f\u4ea4\u901a\u7701 \u56db\u56fd\u5730\u65b9\u6574\u5099\u5c40 \u571f\u4f50\u56fd\u9053\u4e8b\u52d9\u6240","boring_xml_url":40,"boring_view_url":1,"soilmap_view_url":null,"soiltest_xml_url":0,"soiltest_view_url":0},{"id":198316,"code":"B4KJ201801008-6565","latitude":"33.40650389","longitude":"133.2904706","source_code":"SK50330283001","project_name":"","survey_name":"\u5e73\u62105\u5e74\u5ea6\u9808\u5d0e\u9053\u8def\u5730\u8cea\u8abf\u67fb\u696d\u52d9\u59d4\u8a17","client_name":"\u56fd\u571f\u4ea4\u901a\u7701 \u56db\u56fd\u5730\u65b9\u6574\u5099\u5c40 \u571f\u4f50\u56fd\u9053\u4e8b\u52d9\u6240","boring_xml_url":40,"boring_view_url":1,"soilmap_view_url":null,"soiltest_xml_url":0,"soiltest_view_url":0},{"id":198315,"code":"B4KJ201801008-6564","latitude":"33.40250444","longitude":"133.28686","source_code":"SK50330273014","project_name":"","survey_name":"\u5e73\u621012\u5e74\u5ea6 \u6850\u9593\u5730\u533a\u5730\u8cea\u8abf\u67fb\u696d\u52d9","client_name":"\u56fd\u571f\u4ea4\u901a\u7701 \u56db\u56fd\u5730\u65b9\u6574\u5099\u5c40 \u571f\u4f50\u56fd\u9053\u4e8b\u52d9\u6240","boring_xml_url":40,"boring_view_url":1,"soilmap_view_url":null,"soiltest_xml_url":0,"soiltest_view_url":0},{"id":198314,"code":"B4KJ201801008-6563","latitude":"33.40305972","longitude":"133.2871378","source_code":"SK50330273013","project_name":"","survey_name":"\u5e73\u621012\u5e74\u5ea6 \u6850\u9593\u5730\u533a\u5730\u8cea\u8abf\u67fb\u696d\u52d9","client_name":"\u56fd\u571f\u4ea4\u901a\u7701 \u56db\u56fd\u5730\u65b9\u6574\u5099\u5c40 \u571f\u4f50\u56fd\u9053\u4e8b\u52d9\u6240","boring_xml_url":40,"boring_view_url":1,"soilmap_view_url":null,"soiltest_xml_url":0,"soiltest_view_url":0},{"id":198313,"code":"B4KJ201801008-6562","latitude":"33.40222667","longitude":"133.2873878","source_code":"SK50330273008","project_name":"","survey_name":"\u5e73\u62108\u5e74\u5ea6\u6850\u9593\u5730\u533a\u5730\u8cea\u8abf\u67fb\u696d\u52d9","client_name":"\u56fd\u571f\u4ea4\u901a\u7701 \u56db\u56fd\u5730\u65b9\u6574\u5099\u5c40 \u571f\u4f50\u56fd\u9053\u4e8b\u52d9\u6240","boring_xml_url":40,"boring_view_url":1,"soilmap_view_url":null,"soiltest_xml_url":0,"soiltest_view_url":0},{"id":198312,"code":"B4KJ201801008-6561","latitude":"33.40261556","longitude":"133.28761","source_code":"SK50330273007","project_name":"","survey_name":"\u5e73\u62108\u5e74\u5ea6\u6850\u9593\u5730\u533a\u5730\u8cea\u8abf\u67fb\u696d\u52d9","client_name":"\u56fd\u571f\u4ea4\u901a\u7701 \u56db\u56fd\u5730\u65b9\u6574\u5099\u5c40 \u571f\u4f50\u56fd\u9053\u4e8b\u52d9\u6240","boring_xml_url":40,"boring_view_url":1,"soilmap_view_url":null,"soiltest_xml_url":0,"soiltest_view_url":0},{"id":198311,"code":"B4KJ201801008-6560","latitude":"33.40197667","longitude":"133.2869433","source_code":"SK50330273006","project_name":"","survey_name":"\u5e73\u62107\u5e74\u5ea6\u57ce\u5c71\u30c8\u30f3\u30cd\u30eb\u5730\u8cea\u8abf\u67fb\u696d\u52d9\u59d4\u8a17","client_name":"\u56fd\u571f\u4ea4\u901a\u7701 \u56db\u56fd\u5730\u65b9\u6574\u5099\u5c40 \u571f\u4f50\u56fd\u9053\u4e8b\u52d9\u6240","boring_xml_url":40,"boring_view_url":1,"soilmap_view_url":null,"soiltest_xml_url":0,"soiltest_view_url":0},{"id":198310,"code":"B4KJ201801008-6559","latitude":"33.40214333","longitude":"133.2870544","source_code":"SK50330273005","project_name":"","survey_name":"\u5e73\u62107\u5e74\u5ea6\u57ce\u5c71\u30c8\u30f3\u30cd\u30eb\u5730\u8cea\u8abf\u67fb\u696d\u52d9\u59d4\u8a17","client_name":"\u56fd\u571f\u4ea4\u901a\u7701 \u56db\u56fd\u5730\u65b9\u6574\u5099\u5c40 \u571f\u4f50\u56fd\u9053\u4e8b\u52d9\u6240","boring_xml_url":40,"boring_view_url":1,"soilmap_view_url":null,"soiltest_xml_url":0,"soiltest_view_url":0},{"id":198309,"code":"B4KJ201801008-6558","latitude":"33.40217111","longitude":"133.2870822","source_code":"SK50330273004","project_name":"","survey_name":"\u5e73\u62107\u5e74\u5ea6\u57ce\u5c71\u30c8\u30f3\u30cd\u30eb\u5730\u8cea\u8abf\u67fb\u696d\u52d9\u59d4\u8a17","client_name":"\u56fd\u571f\u4ea4\u901a\u7701 \u56db\u56fd\u5730\u65b9\u6574\u5099\u5c40 \u571f\u4f50\u56fd\u9053\u4e8b\u52d9\u6240","boring_xml_url":40,"boring_view_url":1,"soilmap_view_url":null,"soiltest_xml_url":0,"soiltest_view_url":0},{"id":198308,"code":"B4KJ201801008-6557","latitude":"33.40175444","longitude":"133.2871933","source_code":"SK50330273003","project_name":"","survey_name":"\u5e73\u62107\u5e74\u5ea6\u57ce\u5c71\u30c8\u30f3\u30cd\u30eb\u5730\u8cea\u8abf\u67fb\u696d\u52d9\u59d4\u8a17","client_name":"\u56fd\u571f\u4ea4\u901a\u7701 \u56db\u56fd\u5730\u65b9\u6574\u5099\u5c40 \u571f\u4f50\u56fd\u9053\u4e8b\u52d9\u6240","boring_xml_url":40,"boring_view_url":1,"soilmap_view_url":null,"soiltest_xml_url":0,"soiltest_view_url":0},{"id":198307,"code":"B4KJ201801008-6556","latitude":"33.40300417","longitude":"133.2885542","source_code":"SK50330273002","project_name":"","survey_name":"\u5e73\u62105\u5e74\u5ea6\u9808\u5d0e\u9053\u8def\u5730\u8cea\u8abf\u67fb\u696d\u52d9\u59d4\u8a17","client_name":"\u56fd\u571f\u4ea4\u901a\u7701 \u56db\u56fd\u5730\u65b9\u6574\u5099\u5c40 \u571f\u4f50\u56fd\u9053\u4e8b\u52d9\u6240","boring_xml_url":40,"boring_view_url":1,"soilmap_view_url":null,"soiltest_xml_url":0,"soiltest_view_url":0},{"id":198306,"code":"B4KJ201801008-6555","latitude":"33.40192111","longitude":"133.2877489","source_code":"SK50330273001","project_name":"","survey_name":"\u5e73\u62105\u5e74\u5ea6\u9808\u5d0e\u9053\u8def\u5730\u8cea\u8abf\u67fb\u696d\u52d9\u59d4\u8a17","client_name":"\u56fd\u571f\u4ea4\u901a\u7701 \u56db\u56fd\u5730\u65b9\u6574\u5099\u5c40 \u571f\u4f50\u56fd\u9053\u4e8b\u52d9\u6240","boring_xml_url":40,"boring_view_url":1,"soilmap_view_url":null,"soiltest_xml_url":0,"soiltest_view_url":0},{"id":198305,"code":"B4KJ201801008-6554","latitude":"33.39706056","longitude":"133.2846103","source_code":"SK50330272008","project_name":"","survey_name":"\u5e73\u62108\u5e74\u5ea6\u6850\u9593\u5730\u533a\u5730\u8cea\u8abf\u67fb\u696d\u52d9","client_name":"\u56fd\u571f\u4ea4\u901a\u7701 \u56db\u56fd\u5730\u65b9\u6574\u5099\u5c40 \u571f\u4f50\u56fd\u9053\u4e8b\u52d9\u6240","boring_xml_url":40,"boring_view_url":1,"soilmap_view_url":null,"soiltest_xml_url":0,"soiltest_view_url":0},{"id":198304,"code":"B4KJ201801008-6553","latitude":"33.39722722","longitude":"133.2843603","source_code":"SK50330272007","project_name":"","survey_name":"\u5e73\u62108\u5e74\u5ea6\u6850\u9593\u5730\u533a\u5730\u8cea\u8abf\u67fb\u696d\u52d9","client_name":"\u56fd\u571f\u4ea4\u901a\u7701 \u56db\u56fd\u5730\u65b9\u6574\u5099\u5c40 \u571f\u4f50\u56fd\u9053\u4e8b\u52d9\u6240","boring_xml_url":40,"boring_view_url":1,"soilmap_view_url":null,"soiltest_xml_url":0,"soiltest_view_url":0},{"id":198303,"code":"B4KJ201801008-6552","latitude":"33.39833806","longitude":"133.2848603","source_code":"SK50330272006","project_name":"","survey_name":"\u5e73\u62107\u5e74\u5ea6\u57ce\u5c71\u30c8\u30f3\u30cd\u30eb\u5730\u8cea\u8abf\u67fb\u696d\u52d9\u59d4\u8a17","client_name":"\u56fd\u571f\u4ea4\u901a\u7701 \u56db\u56fd\u5730\u65b9\u6574\u5099\u5c40 \u571f\u4f50\u56fd\u9053\u4e8b\u52d9\u6240","boring_xml_url":40,"boring_view_url":1,"soilmap_view_url":null,"soiltest_xml_url":0,"soiltest_view_url":0},{"id":198302,"code":"B4KJ201801008-6551","latitude":"33.39814361","longitude":"133.2847214","source_code":"SK50330272005","project_name":"","survey_name":"\u5e73\u62107\u5e74\u5ea6\u57ce\u5c71\u30c8\u30f3\u30cd\u30eb\u5730\u8cea\u8abf\u67fb\u696d\u52d9\u59d4\u8a17","client_name":"\u56fd\u571f\u4ea4\u901a\u7701 \u56db\u56fd\u5730\u65b9\u6574\u5099\u5c40 \u571f\u4f50\u56fd\u9053\u4e8b\u52d9\u6240","boring_xml_url":40,"boring_view_url":1,"soilmap_view_url":null,"soiltest_xml_url":0,"soiltest_view_url":0},{"id":198301,"code":"B4KJ201801008-6550","latitude":"33.39569944","longitude":"133.2786664","source_code":"SK50330272004","project_name":"","survey_name":"\u5e73\u62106\u5e74\u5ea6\u6c60\u30ce\u5185\u5730\u533a\u5730\u4e0b\u6c34\u8abf\u67fb\u696d\u52d9","client_name":"\u56fd\u571f\u4ea4\u901a\u7701 \u56db\u56fd\u5730\u65b9\u6574\u5099\u5c40 \u571f\u4f50\u56fd\u9053\u4e8b\u52d9\u6240","boring_xml_url":40,"boring_view_url":1,"soilmap_view_url":null,"soiltest_xml_url":0,"soiltest_view_url":0},{"id":198300,"code":"B4KJ201801008-6549","latitude":"33.39661583","longitude":"133.2771389","source_code":"SK50330272003","project_name":"","survey_name":"\u5e73\u62106\u5e74\u5ea6\u6c60\u30ce\u5185\u5730\u533a\u5730\u4e0b\u6c34\u8abf\u67fb\u696d\u52d9","client_name":"\u56fd\u571f\u4ea4\u901a\u7701 \u56db\u56fd\u5730\u65b9\u6574\u5099\u5c40 \u571f\u4f50\u56fd\u9053\u4e8b\u52d9\u6240","boring_xml_url":40,"boring_view_url":1,"soilmap_view_url":null,"soiltest_xml_url":0,"soiltest_view_url":0},{"id":198299,"code":"B4KJ201801008-6548","latitude":"33.39917111","longitude":"133.2786664","source_code":"SK50330272002","project_name":"","survey_name":"\u5e73\u62103\u5e74\u5ea6\u9808\u5d0e\u9053\u8def(\u65b0\u8358\u5730\u533a)\u5730\u8cea\u8abf\u67fb\u696d\u52d9\u59d4\u8a17","client_name":"\u56fd\u571f\u4ea4\u901a\u7701 \u56db\u56fd\u5730\u65b9\u6574\u5099\u5c40 \u571f\u4f50\u56fd\u9053\u4e8b\u52d9\u6240","boring_xml_url":40,"boring_view_url":1,"soilmap_view_url":null,"soiltest_xml_url":0,"soiltest_view_url":0},{"id":198298,"code":"B4KJ201801008-6547","latitude":"33.39556056","longitude":"133.2829717","source_code":"SK50330272001","project_name":"","survey_name":"\u5e73\u62102\u5e74\u5ea6\u9808\u5d0e\u9053\u8def(\u6c60\u30ce\u5185\u5730\u533a)\u5730\u8cea\u8abf\u67fb\u696d\u52d9","client_name":"\u56fd\u571f\u4ea4\u901a\u7701 \u56db\u56fd\u5730\u65b9\u6574\u5099\u5c40 \u571f\u4f50\u56fd\u9053\u4e8b\u52d9\u6240","boring_xml_url":40,"boring_view_url":1,"soilmap_view_url":null,"soiltest_xml_url":0,"soiltest_view_url":0},{"id":198297,"code":"B4KJ201801008-6546","latitude":"33.39444944","longitude":"133.2813053","source_code":"SK50330262030","project_name":"","survey_name":"\u5e73\u621012\u5e74\u5ea6 \u6850\u9593\u5730\u533a\u5730\u8cea\u8abf\u67fb\u696d\u52d9","client_name":"\u56fd\u571f\u4ea4\u901a\u7701 \u56db\u56fd\u5730\u65b9\u6574\u5099\u5c40 \u571f\u4f50\u56fd\u9053\u4e8b\u52d9\u6240","boring_xml_url":40,"boring_view_url":1,"soilmap_view_url":null,"soiltest_xml_url":0,"soiltest_view_url":0},{"id":198296,"code":"B4KJ201801008-6545","latitude":"33.39472722","longitude":"133.2815828","source_code":"SK50330262029","project_name":"","survey_name":"\u5e73\u621012\u5e74\u5ea6 \u6850\u9593\u5730\u533a\u5730\u8cea\u8abf\u67fb\u696d\u52d9","client_name":"\u56fd\u571f\u4ea4\u901a\u7701 \u56db\u56fd\u5730\u65b9\u6574\u5099\u5c40 \u571f\u4f50\u56fd\u9053\u4e8b\u52d9\u6240","boring_xml_url":40,"boring_view_url":1,"soilmap_view_url":null,"soiltest_xml_url":0,"soiltest_view_url":0}]}}