{"header":{"xyz":{"source":[],"mosaic":false},"page":4076,"raw":{"soiltest_result":"0","bbox":"57.598333,109.544722,1.933333,163.806111","page":"4076"},"conditions":{"soiltest_result":0,"north":57.598333,"west":109.544722,"south":1.933333,"east":163.806111},"success":true,"message":""},"data":{"meta":{"total":212844,"page":4076,"pages":7095,"count":30},"values":[{"id":198295,"code":"B4KJ201801008-6544","latitude":"33.39289417","longitude":"133.2793608","source_code":"SK50330262028","project_name":"","survey_name":"\u5e73\u621012\u5e74\u5ea6\u6c60\u30ce\u5185\u5730\u533a\u5730\u8cea\u8abf\u67fb\u696d\u52d9","client_name":"\u56fd\u571f\u4ea4\u901a\u7701 \u56db\u56fd\u5730\u65b9\u6574\u5099\u5c40 \u571f\u4f50\u56fd\u9053\u4e8b\u52d9\u6240","boring_xml_url":40,"boring_view_url":1,"soilmap_view_url":null,"soiltest_xml_url":0,"soiltest_view_url":0},{"id":198294,"code":"B4KJ201801008-6543","latitude":"33.39303306","longitude":"133.2795553","source_code":"SK50330262027","project_name":"","survey_name":"\u5e73\u621012\u5e74\u5ea6\u6c60\u30ce\u5185\u5730\u533a\u5730\u8cea\u8abf\u67fb\u696d\u52d9","client_name":"\u56fd\u571f\u4ea4\u901a\u7701 \u56db\u56fd\u5730\u65b9\u6574\u5099\u5c40 \u571f\u4f50\u56fd\u9053\u4e8b\u52d9\u6240","boring_xml_url":40,"boring_view_url":1,"soilmap_view_url":null,"soiltest_xml_url":0,"soiltest_view_url":0},{"id":198293,"code":"B4KJ201801008-6542","latitude":"33.39319972","longitude":"133.2797497","source_code":"SK50330262026","project_name":"","survey_name":"\u5e73\u621012\u5e74\u5ea6\u6c60\u30ce\u5185\u5730\u533a\u5730\u8cea\u8abf\u67fb\u696d\u52d9","client_name":"\u56fd\u571f\u4ea4\u901a\u7701 \u56db\u56fd\u5730\u65b9\u6574\u5099\u5c40 \u571f\u4f50\u56fd\u9053\u4e8b\u52d9\u6240","boring_xml_url":40,"boring_view_url":1,"soilmap_view_url":null,"soiltest_xml_url":0,"soiltest_view_url":0},{"id":198292,"code":"B4KJ201801008-6541","latitude":"33.39333861","longitude":"133.2799442","source_code":"SK50330262025","project_name":"","survey_name":"\u5e73\u621012\u5e74\u5ea6\u6c60\u30ce\u5185\u5730\u533a\u5730\u8cea\u8abf\u67fb\u696d\u52d9","client_name":"\u56fd\u571f\u4ea4\u901a\u7701 \u56db\u56fd\u5730\u65b9\u6574\u5099\u5c40 \u571f\u4f50\u56fd\u9053\u4e8b\u52d9\u6240","boring_xml_url":40,"boring_view_url":1,"soilmap_view_url":null,"soiltest_xml_url":0,"soiltest_view_url":0},{"id":198291,"code":"B4KJ201801008-6540","latitude":"33.39350528","longitude":"133.2801386","source_code":"SK50330262024","project_name":"","survey_name":"\u5e73\u621012\u5e74\u5ea6\u6c60\u30ce\u5185\u5730\u533a\u5730\u8cea\u8abf\u67fb\u696d\u52d9","client_name":"\u56fd\u571f\u4ea4\u901a\u7701 \u56db\u56fd\u5730\u65b9\u6574\u5099\u5c40 \u571f\u4f50\u56fd\u9053\u4e8b\u52d9\u6240","boring_xml_url":40,"boring_view_url":1,"soilmap_view_url":null,"soiltest_xml_url":0,"soiltest_view_url":0},{"id":198290,"code":"B4KJ201801008-6539","latitude":"33.39344972","longitude":"133.2814442","source_code":"SK50330262009","project_name":"","survey_name":"\u5e73\u62106\u5e74\u5ea6\u6c60\u30ce\u5185\u5730\u533a\u5730\u4e0b\u6c34\u8abf\u67fb\u696d\u52d9","client_name":"\u56fd\u571f\u4ea4\u901a\u7701 \u56db\u56fd\u5730\u65b9\u6574\u5099\u5c40 \u571f\u4f50\u56fd\u9053\u4e8b\u52d9\u6240","boring_xml_url":40,"boring_view_url":1,"soilmap_view_url":null,"soiltest_xml_url":0,"soiltest_view_url":0},{"id":198289,"code":"B4KJ201801008-6538","latitude":"33.39433833","longitude":"133.2796386","source_code":"SK50330262008","project_name":"","survey_name":"\u5e73\u62106\u5e74\u5ea6\u6c60\u30ce\u5185\u5730\u533a\u5730\u4e0b\u6c34\u8abf\u67fb\u696d\u52d9","client_name":"\u56fd\u571f\u4ea4\u901a\u7701 \u56db\u56fd\u5730\u65b9\u6574\u5099\u5c40 \u571f\u4f50\u56fd\u9053\u4e8b\u52d9\u6240","boring_xml_url":40,"boring_view_url":1,"soilmap_view_url":null,"soiltest_xml_url":0,"soiltest_view_url":0},{"id":198288,"code":"B4KJ201801008-6537","latitude":"33.38806139","longitude":"133.2761669","source_code":"SK50330262007","project_name":"","survey_name":"\u5e73\u62103\u5e74\u5ea6\u9808\u5d0e\u9053\u8def(\u65b0\u8358\u5730\u533a)\u5730\u8cea\u8abf\u67fb\u696d\u52d9\u59d4\u8a17","client_name":"\u56fd\u571f\u4ea4\u901a\u7701 \u56db\u56fd\u5730\u65b9\u6574\u5099\u5c40 \u571f\u4f50\u56fd\u9053\u4e8b\u52d9\u6240","boring_xml_url":40,"boring_view_url":1,"soilmap_view_url":null,"soiltest_xml_url":0,"soiltest_view_url":0},{"id":198287,"code":"B4KJ201801008-6536","latitude":"33.38833889","longitude":"133.2757503","source_code":"SK50330262006","project_name":"","survey_name":"\u5e73\u62103\u5e74\u5ea6\u9808\u5d0e\u9053\u8def(\u65b0\u8358\u5730\u533a)\u5730\u8cea\u8abf\u67fb\u696d\u52d9\u59d4\u8a17","client_name":"\u56fd\u571f\u4ea4\u901a\u7701 \u56db\u56fd\u5730\u65b9\u6574\u5099\u5c40 \u571f\u4f50\u56fd\u9053\u4e8b\u52d9\u6240","boring_xml_url":40,"boring_view_url":1,"soilmap_view_url":null,"soiltest_xml_url":0,"soiltest_view_url":0},{"id":198286,"code":"B4KJ201801008-6535","latitude":"33.38889444","longitude":"133.2763058","source_code":"SK50330262005","project_name":"","survey_name":"\u5e73\u62103\u5e74\u5ea6\u9808\u5d0e\u9053\u8def(\u65b0\u8358\u5730\u533a)\u5730\u8cea\u8abf\u67fb\u696d\u52d9\u59d4\u8a17","client_name":"\u56fd\u571f\u4ea4\u901a\u7701 \u56db\u56fd\u5730\u65b9\u6574\u5099\u5c40 \u571f\u4f50\u56fd\u9053\u4e8b\u52d9\u6240","boring_xml_url":40,"boring_view_url":1,"soilmap_view_url":null,"soiltest_xml_url":0,"soiltest_view_url":0},{"id":198285,"code":"B4KJ201801008-6534","latitude":"33.39389417","longitude":"133.2810275","source_code":"SK50330262004","project_name":"","survey_name":"\u5e73\u62102\u5e74\u5ea6\u9808\u5d0e\u9053\u8def(\u6c60\u30ce\u5185\u5730\u533a)\u5730\u8cea\u8abf\u67fb\u696d\u52d9","client_name":"\u56fd\u571f\u4ea4\u901a\u7701 \u56db\u56fd\u5730\u65b9\u6574\u5099\u5c40 \u571f\u4f50\u56fd\u9053\u4e8b\u52d9\u6240","boring_xml_url":40,"boring_view_url":1,"soilmap_view_url":null,"soiltest_xml_url":0,"soiltest_view_url":0},{"id":198284,"code":"B4KJ201801008-6533","latitude":"33.39131111","longitude":"133.2808331","source_code":"SK50330262003","project_name":"","survey_name":"\u9808\u5d0e\u6b69\u9053\u30c8\u30f3\u30cd\u30eb\u8a2d\u8a08","client_name":"\u56fd\u571f\u4ea4\u901a\u7701 \u56db\u56fd\u5730\u65b9\u6574\u5099\u5c40 \u571f\u4f50\u56fd\u9053\u4e8b\u52d9\u6240","boring_xml_url":40,"boring_view_url":1,"soilmap_view_url":null,"soiltest_xml_url":0,"soiltest_view_url":0},{"id":198283,"code":"B4KJ201801008-6532","latitude":"33.39106111","longitude":"133.2805553","source_code":"SK50330262002","project_name":"","survey_name":"\u9808\u5d0e\u6b69\u9053\u30c8\u30f3\u30cd\u30eb\u8a2d\u8a08","client_name":"\u56fd\u571f\u4ea4\u901a\u7701 \u56db\u56fd\u5730\u65b9\u6574\u5099\u5c40 \u571f\u4f50\u56fd\u9053\u4e8b\u52d9\u6240","boring_xml_url":40,"boring_view_url":1,"soilmap_view_url":null,"soiltest_xml_url":0,"soiltest_view_url":0},{"id":198282,"code":"B4KJ201801008-6531","latitude":"33.39058889","longitude":"133.2804442","source_code":"SK50330262001","project_name":"","survey_name":"\u9808\u5d0e\u6b69\u9053\u30c8\u30f3\u30cd\u30eb\u8a2d\u8a08","client_name":"\u56fd\u571f\u4ea4\u901a\u7701 \u56db\u56fd\u5730\u65b9\u6574\u5099\u5c40 \u571f\u4f50\u56fd\u9053\u4e8b\u52d9\u6240","boring_xml_url":40,"boring_view_url":1,"soilmap_view_url":null,"soiltest_xml_url":0,"soiltest_view_url":0},{"id":198281,"code":"B4KJ201801008-6530","latitude":"33.3811175","longitude":"133.2724175","source_code":"SK50330251001","project_name":"","survey_name":"\u5e73\u621010\u5e74\u5ea6 \u571f\u4f50\u7ba1\u5185\u9632\u707d\u5730\u8cea\u8abf\u67fb\u696d\u52d9","client_name":"\u56fd\u571f\u4ea4\u901a\u7701 \u56db\u56fd\u5730\u65b9\u6574\u5099\u5c40 \u571f\u4f50\u56fd\u9053\u4e8b\u52d9\u6240","boring_xml_url":40,"boring_view_url":1,"soilmap_view_url":null,"soiltest_xml_url":0,"soiltest_view_url":0},{"id":198280,"code":"B4KJ201801008-6529","latitude":"33.97803972","longitude":"132.7850819","source_code":"SK50327663002","project_name":"","survey_name":"\u662d\u548c55\u5e74\u5ea6\u5317\u6761\u5e02\u30d0\u30a4\u30d1\u30b9\u5730\u8cea\u8abf\u67fb\u696d\u52d9","client_name":"\u56fd\u571f\u4ea4\u901a\u7701\u56db\u56fd\u5730\u65b9\u6574\u5099\u5c40\u677e\u5c71\u6cb3\u5ddd\u56fd\u9053\u4e8b\u52d9\u6240","boring_xml_url":40,"boring_view_url":1,"soilmap_view_url":null,"soiltest_xml_url":0,"soiltest_view_url":0},{"id":198279,"code":"B4KJ201801008-6528","latitude":"33.97712306","longitude":"132.7853597","source_code":"SK50327663001","project_name":"","survey_name":"\u662d\u548c55\u5e74\u5ea6\u5317\u6761\u5e02\u30d0\u30a4\u30d1\u30b9\u5730\u8cea\u8abf\u67fb\u696d\u52d9","client_name":"\u56fd\u571f\u4ea4\u901a\u7701\u56db\u56fd\u5730\u65b9\u6574\u5099\u5c40\u677e\u5c71\u6cb3\u5ddd\u56fd\u9053\u4e8b\u52d9\u6240","boring_xml_url":40,"boring_view_url":1,"soilmap_view_url":null,"soiltest_xml_url":0,"soiltest_view_url":0},{"id":198278,"code":"B4KJ201801008-6527","latitude":"33.95393111","longitude":"132.7768056","source_code":"SK50327642002","project_name":"","survey_name":"\u662d\u548c55\u5e74\u5ea6\u5317\u6761\u5e02\u30d0\u30a4\u30d1\u30b9\u5730\u8cea\u8abf\u67fb\u696d\u52d9","client_name":"\u56fd\u571f\u4ea4\u901a\u7701\u56db\u56fd\u5730\u65b9\u6574\u5099\u5c40\u677e\u5c71\u6cb3\u5ddd\u56fd\u9053\u4e8b\u52d9\u6240","boring_xml_url":40,"boring_view_url":1,"soilmap_view_url":null,"soiltest_xml_url":0,"soiltest_view_url":0},{"id":198277,"code":"B4KJ201801008-6526","latitude":"33.94920944","longitude":"132.7739169","source_code":"SK50327632004","project_name":"","survey_name":"\u5e73\u62107\u5e74\u5ea6\u7247\u5c71\u6a2a\u65ad\u6b69\u9053\u6a4b\u59161\u4ef6\u8a2d\u8a08\u696d\u52d9\u59d4\u8a17","client_name":"\u56fd\u571f\u4ea4\u901a\u7701\u56db\u56fd\u5730\u65b9\u6574\u5099\u5c40\u677e\u5c71\u6cb3\u5ddd\u56fd\u9053\u4e8b\u52d9\u6240","boring_xml_url":40,"boring_view_url":1,"soilmap_view_url":null,"soiltest_xml_url":0,"soiltest_view_url":0},{"id":198276,"code":"B4KJ201801008-6525","latitude":"33.94909833","longitude":"132.7750281","source_code":"SK50327632003","project_name":"","survey_name":"\u662d\u548c55\u5e74\u5ea6\u5317\u6761\u5e02\u30d0\u30a4\u30d1\u30b9\u5730\u8cea\u8abf\u67fb\u696d\u52d9","client_name":"\u56fd\u571f\u4ea4\u901a\u7701\u56db\u56fd\u5730\u65b9\u6574\u5099\u5c40\u677e\u5c71\u6cb3\u5ddd\u56fd\u9053\u4e8b\u52d9\u6240","boring_xml_url":40,"boring_view_url":1,"soilmap_view_url":null,"soiltest_xml_url":0,"soiltest_view_url":0},{"id":198275,"code":"B4KJ201801008-6524","latitude":"33.94729306","longitude":"132.7751669","source_code":"SK50327632002","project_name":"","survey_name":"\u662d\u548c55\u5e74\u5ea6\u5317\u6761\u5e02\u30d0\u30a4\u30d1\u30b9\u5730\u8cea\u8abf\u67fb\u696d\u52d9","client_name":"\u56fd\u571f\u4ea4\u901a\u7701\u56db\u56fd\u5730\u65b9\u6574\u5099\u5c40\u677e\u5c71\u6cb3\u5ddd\u56fd\u9053\u4e8b\u52d9\u6240","boring_xml_url":40,"boring_view_url":1,"soilmap_view_url":null,"soiltest_xml_url":0,"soiltest_view_url":0},{"id":198274,"code":"B4KJ201801008-6523","latitude":"33.94570972","longitude":"132.7754447","source_code":"SK50327632001","project_name":"","survey_name":"\u662d\u548c55\u5e74\u5ea6\u5317\u6761\u5e02\u30d0\u30a4\u30d1\u30b9\u5730\u8cea\u8abf\u67fb\u696d\u52d9","client_name":"\u56fd\u571f\u4ea4\u901a\u7701\u56db\u56fd\u5730\u65b9\u6574\u5099\u5c40\u677e\u5c71\u6cb3\u5ddd\u56fd\u9053\u4e8b\u52d9\u6240","boring_xml_url":40,"boring_view_url":1,"soilmap_view_url":null,"soiltest_xml_url":0,"soiltest_view_url":0},{"id":198273,"code":"B4KJ201801008-6522","latitude":"33.93604417","longitude":"132.7713619","source_code":"SK50327611010","project_name":"","survey_name":"\u662d\u548c63\u5e74\u5ea6\u5317\u6761\u5e02\u30d0\u30a4\u30d1\u30b9\u5730\u8cea\u8abf\u67fb\u696d\u52d9","client_name":"\u56fd\u571f\u4ea4\u901a\u7701\u56db\u56fd\u5730\u65b9\u6574\u5099\u5c40\u677e\u5c71\u6cb3\u5ddd\u56fd\u9053\u4e8b\u52d9\u6240","boring_xml_url":40,"boring_view_url":1,"soilmap_view_url":null,"soiltest_xml_url":0,"soiltest_view_url":0},{"id":198272,"code":"B4KJ201801008-6521","latitude":"33.93576639","longitude":"132.7714175","source_code":"SK50327611009","project_name":"","survey_name":"\u662d\u548c63\u5e74\u5ea6\u5317\u6761\u5e02\u30d0\u30a4\u30d1\u30b9\u5730\u8cea\u8abf\u67fb\u696d\u52d9","client_name":"\u56fd\u571f\u4ea4\u901a\u7701\u56db\u56fd\u5730\u65b9\u6574\u5099\u5c40\u677e\u5c71\u6cb3\u5ddd\u56fd\u9053\u4e8b\u52d9\u6240","boring_xml_url":40,"boring_view_url":1,"soilmap_view_url":null,"soiltest_xml_url":0,"soiltest_view_url":0},{"id":198271,"code":"B4KJ201801008-6520","latitude":"33.93565528","longitude":"132.7715564","source_code":"SK50327611008","project_name":"","survey_name":"\u662d\u548c63\u5e74\u5ea6\u5317\u6761\u5e02\u30d0\u30a4\u30d1\u30b9\u5730\u8cea\u8abf\u67fb\u696d\u52d9","client_name":"\u56fd\u571f\u4ea4\u901a\u7701\u56db\u56fd\u5730\u65b9\u6574\u5099\u5c40\u677e\u5c71\u6cb3\u5ddd\u56fd\u9053\u4e8b\u52d9\u6240","boring_xml_url":40,"boring_view_url":1,"soilmap_view_url":null,"soiltest_xml_url":0,"soiltest_view_url":0},{"id":198270,"code":"B4KJ201801008-6519","latitude":"33.9353775","longitude":"132.7702233","source_code":"SK50327611007","project_name":"","survey_name":"\u662d\u548c63\u5e74\u5ea6\u5317\u6761\u5e02\u30d0\u30a4\u30d1\u30b9\u5730\u8cea\u8abf\u67fb\u696d\u52d9","client_name":"\u56fd\u571f\u4ea4\u901a\u7701\u56db\u56fd\u5730\u65b9\u6574\u5099\u5c40\u677e\u5c71\u6cb3\u5ddd\u56fd\u9053\u4e8b\u52d9\u6240","boring_xml_url":40,"boring_view_url":1,"soilmap_view_url":null,"soiltest_xml_url":0,"soiltest_view_url":0},{"id":198269,"code":"B4KJ201801008-6518","latitude":"33.93482194","longitude":"132.7700844","source_code":"SK50327611006","project_name":"","survey_name":"\u662d\u548c63\u5e74\u5ea6\u5317\u6761\u5e02\u30d0\u30a4\u30d1\u30b9\u5730\u8cea\u8abf\u67fb\u696d\u52d9","client_name":"\u56fd\u571f\u4ea4\u901a\u7701\u56db\u56fd\u5730\u65b9\u6574\u5099\u5c40\u677e\u5c71\u6cb3\u5ddd\u56fd\u9053\u4e8b\u52d9\u6240","boring_xml_url":40,"boring_view_url":1,"soilmap_view_url":null,"soiltest_xml_url":0,"soiltest_view_url":0},{"id":198268,"code":"B4KJ201801008-6517","latitude":"33.93490528","longitude":"132.7694178","source_code":"SK50327611005","project_name":"","survey_name":"\u662d\u548c63\u5e74\u5ea6\u5317\u6761\u5e02\u30d0\u30a4\u30d1\u30b9\u5730\u8cea\u8abf\u67fb\u696d\u52d9","client_name":"\u56fd\u571f\u4ea4\u901a\u7701\u56db\u56fd\u5730\u65b9\u6574\u5099\u5c40\u677e\u5c71\u6cb3\u5ddd\u56fd\u9053\u4e8b\u52d9\u6240","boring_xml_url":40,"boring_view_url":1,"soilmap_view_url":null,"soiltest_xml_url":0,"soiltest_view_url":0},{"id":198267,"code":"B4KJ201801008-6516","latitude":"33.93323889","longitude":"132.7671681","source_code":"SK50327611004","project_name":"","survey_name":"\u662d\u548c63\u5e74\u5ea6\u5317\u6761\u5e02\u30d0\u30a4\u30d1\u30b9\u5730\u8cea\u8abf\u67fb\u696d\u52d9","client_name":"\u56fd\u571f\u4ea4\u901a\u7701\u56db\u56fd\u5730\u65b9\u6574\u5099\u5c40\u677e\u5c71\u6cb3\u5ddd\u56fd\u9053\u4e8b\u52d9\u6240","boring_xml_url":40,"boring_view_url":1,"soilmap_view_url":null,"soiltest_xml_url":0,"soiltest_view_url":0},{"id":198266,"code":"B4KJ201801008-6515","latitude":"33.93326667","longitude":"132.7669181","source_code":"SK50327611003","project_name":"","survey_name":"\u662d\u548c63\u5e74\u5ea6\u5317\u6761\u5e02\u30d0\u30a4\u30d1\u30b9\u5730\u8cea\u8abf\u67fb\u696d\u52d9","client_name":"\u56fd\u571f\u4ea4\u901a\u7701\u56db\u56fd\u5730\u65b9\u6574\u5099\u5c40\u677e\u5c71\u6cb3\u5ddd\u56fd\u9053\u4e8b\u52d9\u6240","boring_xml_url":40,"boring_view_url":1,"soilmap_view_url":null,"soiltest_xml_url":0,"soiltest_view_url":0}]}}