{"header":{"xyz":{"source":[],"mosaic":false},"page":4086,"raw":{"soiltest_result":"0","bbox":"57.598333,109.544722,1.933333,163.806111","page":"4086"},"conditions":{"soiltest_result":0,"north":57.598333,"west":109.544722,"south":1.933333,"east":163.806111},"success":true,"message":""},"data":{"meta":{"total":212844,"page":4086,"pages":7095,"count":30},"values":[{"id":197995,"code":"B4KJ201801008-6244","latitude":"33.53005861","longitude":"132.5745028","source_code":"SK50322436001","project_name":"","survey_name":"\u662d\u548c62\u5e74\u5ea6\u5927\u6d32\u30d0\u30a4\u30d1\u30b9\u5730\u8cea\u8abf\u67fb\u696d\u52d9","client_name":"\u56fd\u571f\u4ea4\u901a\u7701\u56db\u56fd\u5730\u65b9\u6574\u5099\u5c40\u5927\u6d32\u6cb3\u5ddd\u56fd\u9053\u4e8b\u52d9\u6240","boring_xml_url":40,"boring_view_url":1,"soilmap_view_url":null,"soiltest_xml_url":0,"soiltest_view_url":0},{"id":197994,"code":"B4KJ201801008-6243","latitude":"33.53461333","longitude":"132.5617814","source_code":"SK50322435004","project_name":"","survey_name":"\u5e73\u621010\u5e74\u5ea6\u80b1\u5ddd\u5824\u9632\u5b89\u5168\u5ea6\u8a73\u7d30\u8abf\u67fb\u696d\u52d9","client_name":"\u56fd\u571f\u4ea4\u901a\u7701\u56db\u56fd\u5730\u65b9\u6574\u5099\u5c40\u5927\u6d32\u6cb3\u5ddd\u56fd\u9053\u4e8b\u52d9\u6240","boring_xml_url":40,"boring_view_url":1,"soilmap_view_url":null,"soiltest_xml_url":0,"soiltest_view_url":0},{"id":197993,"code":"B4KJ201801008-6242","latitude":"33.5358075","longitude":"132.5619203","source_code":"SK50322435003","project_name":"","survey_name":"\u5e73\u62107\u5e74\u5ea6 \u5927\u6d32\u76c6\u5730\u5730\u8cea\u8abf\u67fb\u696d\u52d9","client_name":"\u56fd\u571f\u4ea4\u901a\u7701\u56db\u56fd\u5730\u65b9\u6574\u5099\u5c40\u5c71\u9ce5\u5742\u30c0\u30e0\u5de5\u4e8b\u4e8b\u52d9\u6240","boring_xml_url":40,"boring_view_url":1,"soilmap_view_url":null,"soiltest_xml_url":0,"soiltest_view_url":0},{"id":197992,"code":"B4KJ201801008-6241","latitude":"33.53441917","longitude":"132.5705306","source_code":"SK50322435002","project_name":"","survey_name":"\u5e73\u62107\u5e74\u5ea6 \u5927\u6d32\u76c6\u5730\u5730\u8cea\u8abf\u67fb\u696d\u52d9","client_name":"\u56fd\u571f\u4ea4\u901a\u7701\u56db\u56fd\u5730\u65b9\u6574\u5099\u5c40\u5c71\u9ce5\u5742\u30c0\u30e0\u5de5\u4e8b\u4e8b\u52d9\u6240","boring_xml_url":40,"boring_view_url":1,"soilmap_view_url":null,"soiltest_xml_url":0,"soiltest_view_url":0},{"id":197991,"code":"B4KJ201801008-6240","latitude":"33.53552972","longitude":"132.5599761","source_code":"SK50322435001","project_name":"","survey_name":"\u662d\u548c63\u5e74\u5ea6\u4e94\u90ce\u5730\u5148\u6f0f\u6c34\u5bfe\u7b56\u8abf\u67fb\u696d\u52d9","client_name":"\u56fd\u571f\u4ea4\u901a\u7701\u56db\u56fd\u5730\u65b9\u6574\u5099\u5c40\u5927\u6d32\u6cb3\u5ddd\u56fd\u9053\u4e8b\u52d9\u6240","boring_xml_url":40,"boring_view_url":1,"soilmap_view_url":null,"soiltest_xml_url":0,"soiltest_view_url":0},{"id":197990,"code":"B4KJ201801008-6239","latitude":"33.53191917","longitude":"132.5583097","source_code":"SK50322434001","project_name":"","survey_name":"\u662d\u548c63\u5e74\u5ea6\u4e94\u90ce\u5730\u5148\u6f0f\u6c34\u5bfe\u7b56\u8abf\u67fb\u696d\u52d9","client_name":"\u56fd\u571f\u4ea4\u901a\u7701\u56db\u56fd\u5730\u65b9\u6574\u5099\u5c40\u5927\u6d32\u6cb3\u5ddd\u56fd\u9053\u4e8b\u52d9\u6240","boring_xml_url":40,"boring_view_url":1,"soilmap_view_url":null,"soiltest_xml_url":0,"soiltest_view_url":0},{"id":197989,"code":"B4KJ201801008-6238","latitude":"33.522615","longitude":"132.5760583","source_code":"SK50322426018","project_name":"","survey_name":"\u5e73\u621010\u5e74\u5ea6 \u6771\u5927\u6d32\u5730\u533a\u5730\u8cea\u8abf\u67fb\u696d\u52d9","client_name":"\u56fd\u571f\u4ea4\u901a\u7701\u56db\u56fd\u5730\u65b9\u6574\u5099\u5c40\u5927\u6d32\u6cb3\u5ddd\u56fd\u9053\u4e8b\u52d9\u6240","boring_xml_url":40,"boring_view_url":1,"soilmap_view_url":null,"soiltest_xml_url":0,"soiltest_view_url":0},{"id":197988,"code":"B4KJ201801008-6237","latitude":"33.52575333","longitude":"132.5750583","source_code":"SK50322426016","project_name":"","survey_name":"\u5e73\u621010\u5e74\u5ea6 \u6771\u5927\u6d32\u5730\u533a\u5730\u8cea\u8abf\u67fb\u696d\u52d9","client_name":"\u56fd\u571f\u4ea4\u901a\u7701\u56db\u56fd\u5730\u65b9\u6574\u5099\u5c40\u5927\u6d32\u6cb3\u5ddd\u56fd\u9053\u4e8b\u52d9\u6240","boring_xml_url":40,"boring_view_url":1,"soilmap_view_url":null,"soiltest_xml_url":0,"soiltest_view_url":0},{"id":197987,"code":"B4KJ201801008-6236","latitude":"33.52386472","longitude":"132.5763639","source_code":"SK50322426015","project_name":"","survey_name":"\u5e73\u621010\u5e74\u5ea6 \u6771\u5927\u6d32\u5730\u533a\u5730\u8cea\u8abf\u67fb(\u305d\u306e2)\u696d\u52d9","client_name":"\u56fd\u571f\u4ea4\u901a\u7701\u56db\u56fd\u5730\u65b9\u6574\u5099\u5c40\u5927\u6d32\u6cb3\u5ddd\u56fd\u9053\u4e8b\u52d9\u6240","boring_xml_url":40,"boring_view_url":1,"soilmap_view_url":null,"soiltest_xml_url":0,"soiltest_view_url":0},{"id":197986,"code":"B4KJ201801008-6235","latitude":"33.52386472","longitude":"132.574975","source_code":"SK50322426014","project_name":"","survey_name":"\u5e73\u62107\u5e74\u5ea6 \u5927\u6d32\u76c6\u5730\u5730\u8cea\u8abf\u67fb\u696d\u52d9","client_name":"\u56fd\u571f\u4ea4\u901a\u7701\u56db\u56fd\u5730\u65b9\u6574\u5099\u5c40\u5c71\u9ce5\u5742\u30c0\u30e0\u5de5\u4e8b\u4e8b\u52d9\u6240","boring_xml_url":40,"boring_view_url":1,"soilmap_view_url":null,"soiltest_xml_url":0,"soiltest_view_url":0},{"id":197985,"code":"B4KJ201801008-6234","latitude":"33.5241425","longitude":"132.5760861","source_code":"SK50322426012","project_name":"","survey_name":"\u5e73\u62105\u5e74\u5ea6\u6771\u5927\u6d32\u5730\u533a\u5730\u8cea\u8abf\u67fb\u696d\u52d9","client_name":"\u56fd\u571f\u4ea4\u901a\u7701\u56db\u56fd\u5730\u65b9\u6574\u5099\u5c40\u5927\u6d32\u6cb3\u5ddd\u56fd\u9053\u4e8b\u52d9\u6240","boring_xml_url":40,"boring_view_url":1,"soilmap_view_url":null,"soiltest_xml_url":0,"soiltest_view_url":0},{"id":197984,"code":"B4KJ201801008-6233","latitude":"33.52358694","longitude":"132.5763639","source_code":"SK50322426011","project_name":"","survey_name":"\u5e73\u62105\u5e74\u5ea6\u6771\u5927\u6d32\u5730\u533a\u5730\u8cea\u8abf\u67fb\u696d\u52d9","client_name":"\u56fd\u571f\u4ea4\u901a\u7701\u56db\u56fd\u5730\u65b9\u6574\u5099\u5c40\u5927\u6d32\u6cb3\u5ddd\u56fd\u9053\u4e8b\u52d9\u6240","boring_xml_url":40,"boring_view_url":1,"soilmap_view_url":null,"soiltest_xml_url":0,"soiltest_view_url":0},{"id":197983,"code":"B4KJ201801008-6232","latitude":"33.521365","longitude":"132.5771972","source_code":"SK50322426007","project_name":"","survey_name":"\u5e73\u62102\u5e74\u5ea6\u6771\u5927\u6d32\u5730\u533a\u5730\u8cea\u8abf\u67fb\u696d\u52d9(\u305d\u306e2)","client_name":"\u56fd\u571f\u4ea4\u901a\u7701\u56db\u56fd\u5730\u65b9\u6574\u5099\u5c40\u5927\u6d32\u6cb3\u5ddd\u56fd\u9053\u4e8b\u52d9\u6240","boring_xml_url":40,"boring_view_url":1,"soilmap_view_url":null,"soiltest_xml_url":0,"soiltest_view_url":0},{"id":197982,"code":"B4KJ201801008-6231","latitude":"33.5210875","longitude":"132.5771972","source_code":"SK50322426006","project_name":"","survey_name":"\u5e73\u62102\u5e74\u5ea6\u6771\u5927\u6d32\u5730\u533a\u5730\u8cea\u8abf\u67fb\u696d\u52d9(\u305d\u306e2)","client_name":"\u56fd\u571f\u4ea4\u901a\u7701\u56db\u56fd\u5730\u65b9\u6574\u5099\u5c40\u5927\u6d32\u6cb3\u5ddd\u56fd\u9053\u4e8b\u52d9\u6240","boring_xml_url":40,"boring_view_url":1,"soilmap_view_url":null,"soiltest_xml_url":0,"soiltest_view_url":0},{"id":197981,"code":"B4KJ201801008-6230","latitude":"33.52525361","longitude":"132.5758083","source_code":"SK50322426005","project_name":"","survey_name":"\u5927\u6d32\u5730\u533a\u5730\u8cea\u8abf\u67fb\u696d\u52d9(\u305d\u306e2)","client_name":"\u56fd\u571f\u4ea4\u901a\u7701\u56db\u56fd\u5730\u65b9\u6574\u5099\u5c40\u5927\u6d32\u6cb3\u5ddd\u56fd\u9053\u4e8b\u52d9\u6240","boring_xml_url":40,"boring_view_url":1,"soilmap_view_url":null,"soiltest_xml_url":0,"soiltest_view_url":0},{"id":197980,"code":"B4KJ201801008-6229","latitude":"33.52303167","longitude":"132.5769194","source_code":"SK50322426004","project_name":"","survey_name":"\u5927\u6d32\u5730\u533a\u5730\u8cea\u8abf\u67fb\u696d\u52d9(\u305d\u306e2)","client_name":"\u56fd\u571f\u4ea4\u901a\u7701\u56db\u56fd\u5730\u65b9\u6574\u5099\u5c40\u5927\u6d32\u6cb3\u5ddd\u56fd\u9053\u4e8b\u52d9\u6240","boring_xml_url":40,"boring_view_url":1,"soilmap_view_url":null,"soiltest_xml_url":0,"soiltest_view_url":0},{"id":197979,"code":"B4KJ201801008-6228","latitude":"33.52636444","longitude":"132.5758083","source_code":"SK50322426003","project_name":"","survey_name":"\u662d\u548c62\u5e74\u5ea6\u5927\u6d32\u30d0\u30a4\u30d1\u30b9\u5730\u8cea\u8abf\u67fb\u696d\u52d9","client_name":"\u56fd\u571f\u4ea4\u901a\u7701\u56db\u56fd\u5730\u65b9\u6574\u5099\u5c40\u5927\u6d32\u6cb3\u5ddd\u56fd\u9053\u4e8b\u52d9\u6240","boring_xml_url":40,"boring_view_url":1,"soilmap_view_url":null,"soiltest_xml_url":0,"soiltest_view_url":0},{"id":197978,"code":"B4KJ201801008-6227","latitude":"33.52419806","longitude":"132.5764194","source_code":"SK50322426002","project_name":"","survey_name":"\u662d\u548c62\u5e74\u5ea6\u5927\u6d32\u30d0\u30a4\u30d1\u30b9\u5730\u8cea\u8abf\u67fb\u696d\u52d9","client_name":"\u56fd\u571f\u4ea4\u901a\u7701\u56db\u56fd\u5730\u65b9\u6574\u5099\u5c40\u5927\u6d32\u6cb3\u5ddd\u56fd\u9053\u4e8b\u52d9\u6240","boring_xml_url":40,"boring_view_url":1,"soilmap_view_url":null,"soiltest_xml_url":0,"soiltest_view_url":0},{"id":197977,"code":"B4KJ201801008-6226","latitude":"33.52228167","longitude":"132.5770028","source_code":"SK50322426001","project_name":"","survey_name":"\u662d\u548c62\u5e74\u5ea6\u5927\u6d32\u30d0\u30a4\u30d1\u30b9\u5730\u8cea\u8abf\u67fb\u696d\u52d9","client_name":"\u56fd\u571f\u4ea4\u901a\u7701\u56db\u56fd\u5730\u65b9\u6574\u5099\u5c40\u5927\u6d32\u6cb3\u5ddd\u56fd\u9053\u4e8b\u52d9\u6240","boring_xml_url":40,"boring_view_url":1,"soilmap_view_url":null,"soiltest_xml_url":0,"soiltest_view_url":0},{"id":197976,"code":"B4KJ201801008-6225","latitude":"33.52108722","longitude":"132.5666425","source_code":"SK50322425002","project_name":"","survey_name":"\u5e73\u62107\u5e74\u5ea6 \u5927\u6d32\u76c6\u5730\u5730\u8cea\u8abf\u67fb\u696d\u52d9","client_name":"\u56fd\u571f\u4ea4\u901a\u7701\u56db\u56fd\u5730\u65b9\u6574\u5099\u5c40\u5c71\u9ce5\u5742\u30c0\u30e0\u5de5\u4e8b\u4e8b\u52d9\u6240","boring_xml_url":40,"boring_view_url":1,"soilmap_view_url":null,"soiltest_xml_url":0,"soiltest_view_url":0},{"id":197975,"code":"B4KJ201801008-6224","latitude":"33.52664194","longitude":"132.5630317","source_code":"SK50322425001","project_name":"","survey_name":"\u5e73\u62107\u5e74\u5ea6 \u5927\u6d32\u76c6\u5730\u5730\u8cea\u8abf\u67fb\u696d\u52d9","client_name":"\u56fd\u571f\u4ea4\u901a\u7701\u56db\u56fd\u5730\u65b9\u6574\u5099\u5c40\u5c71\u9ce5\u5742\u30c0\u30e0\u5de5\u4e8b\u4e8b\u52d9\u6240","boring_xml_url":40,"boring_view_url":1,"soilmap_view_url":null,"soiltest_xml_url":0,"soiltest_view_url":0},{"id":197974,"code":"B4KJ201801008-6223","latitude":"33.52633611","longitude":"132.5508383","source_code":"SK50322424014","project_name":"","survey_name":"\u5e73\u621010\u5e74\u5ea6\u80b1\u5ddd\u5824\u9632\u5b89\u5168\u5ea6\u8a73\u7d30\u8abf\u67fb\u696d\u52d9","client_name":"\u56fd\u571f\u4ea4\u901a\u7701\u56db\u56fd\u5730\u65b9\u6574\u5099\u5c40\u5927\u6d32\u6cb3\u5ddd\u56fd\u9053\u4e8b\u52d9\u6240","boring_xml_url":40,"boring_view_url":1,"soilmap_view_url":null,"soiltest_xml_url":0,"soiltest_view_url":0},{"id":197973,"code":"B4KJ201801008-6222","latitude":"33.52586417","longitude":"132.5510328","source_code":"SK50322424013","project_name":"","survey_name":"\u5e73\u621010\u5e74\u5ea6\u80b1\u5ddd\u5824\u9632\u5b89\u5168\u5ea6\u8a73\u7d30\u8abf\u67fb\u696d\u52d9","client_name":"\u56fd\u571f\u4ea4\u901a\u7701\u56db\u56fd\u5730\u65b9\u6574\u5099\u5c40\u5927\u6d32\u6cb3\u5ddd\u56fd\u9053\u4e8b\u52d9\u6240","boring_xml_url":40,"boring_view_url":1,"soilmap_view_url":null,"soiltest_xml_url":0,"soiltest_view_url":0},{"id":197972,"code":"B4KJ201801008-6221","latitude":"33.52608639","longitude":"132.5509494","source_code":"SK50322424012","project_name":"","survey_name":"\u5e73\u621010\u5e74\u5ea6\u80b1\u5ddd\u5824\u9632\u5b89\u5168\u5ea6\u8a73\u7d30\u8abf\u67fb\u696d\u52d9","client_name":"\u56fd\u571f\u4ea4\u901a\u7701\u56db\u56fd\u5730\u65b9\u6574\u5099\u5c40\u5927\u6d32\u6cb3\u5ddd\u56fd\u9053\u4e8b\u52d9\u6240","boring_xml_url":40,"boring_view_url":1,"soilmap_view_url":null,"soiltest_xml_url":0,"soiltest_view_url":0},{"id":197971,"code":"B4KJ201801008-6220","latitude":"33.52025361","longitude":"132.5569211","source_code":"SK50322424011","project_name":"","survey_name":"\u5e73\u62107\u5e74\u5ea6 \u5927\u6d32\u76c6\u5730\u5730\u8cea\u8abf\u67fb\u696d\u52d9","client_name":"\u56fd\u571f\u4ea4\u901a\u7701\u56db\u56fd\u5730\u65b9\u6574\u5099\u5c40\u5c71\u9ce5\u5742\u30c0\u30e0\u5de5\u4e8b\u4e8b\u52d9\u6240","boring_xml_url":40,"boring_view_url":1,"soilmap_view_url":null,"soiltest_xml_url":0,"soiltest_view_url":0},{"id":197970,"code":"B4KJ201801008-6219","latitude":"33.52775278","longitude":"132.5541433","source_code":"SK50322424009","project_name":"","survey_name":"\u662d\u548c63\u5e74\u5ea6\u4e94\u90ce\u5730\u5148\u6f0f\u6c34\u5bfe\u7b56\u8abf\u67fb\u696d\u52d9","client_name":"\u56fd\u571f\u4ea4\u901a\u7701\u56db\u56fd\u5730\u65b9\u6574\u5099\u5c40\u5927\u6d32\u6cb3\u5ddd\u56fd\u9053\u4e8b\u52d9\u6240","boring_xml_url":40,"boring_view_url":1,"soilmap_view_url":null,"soiltest_xml_url":0,"soiltest_view_url":0},{"id":197969,"code":"B4KJ201801008-6218","latitude":"33.52719722","longitude":"132.5544211","source_code":"SK50322424008","project_name":"","survey_name":"\u662d\u548c63\u5e74\u5ea6\u4e94\u90ce\u5730\u5148\u6f0f\u6c34\u5bfe\u7b56\u8abf\u67fb\u696d\u52d9","client_name":"\u56fd\u571f\u4ea4\u901a\u7701\u56db\u56fd\u5730\u65b9\u6574\u5099\u5c40\u5927\u6d32\u6cb3\u5ddd\u56fd\u9053\u4e8b\u52d9\u6240","boring_xml_url":40,"boring_view_url":1,"soilmap_view_url":null,"soiltest_xml_url":0,"soiltest_view_url":0},{"id":197968,"code":"B4KJ201801008-6217","latitude":"33.52691972","longitude":"132.5546989","source_code":"SK50322424007","project_name":"","survey_name":"\u662d\u548c63\u5e74\u5ea6\u4e94\u90ce\u5730\u5148\u6f0f\u6c34\u5bfe\u7b56\u8abf\u67fb\u696d\u52d9","client_name":"\u56fd\u571f\u4ea4\u901a\u7701\u56db\u56fd\u5730\u65b9\u6574\u5099\u5c40\u5927\u6d32\u6cb3\u5ddd\u56fd\u9053\u4e8b\u52d9\u6240","boring_xml_url":40,"boring_view_url":1,"soilmap_view_url":null,"soiltest_xml_url":0,"soiltest_view_url":0},{"id":197967,"code":"B4KJ201801008-6216","latitude":"33.52803056","longitude":"132.5519214","source_code":"SK50322424006","project_name":"","survey_name":"\u662d\u548c63\u5e74\u5ea6\u4e94\u90ce\u5730\u5148\u6f0f\u6c34\u5bfe\u7b56\u8abf\u67fb\u696d\u52d9","client_name":"\u56fd\u571f\u4ea4\u901a\u7701\u56db\u56fd\u5730\u65b9\u6574\u5099\u5c40\u5927\u6d32\u6cb3\u5ddd\u56fd\u9053\u4e8b\u52d9\u6240","boring_xml_url":40,"boring_view_url":1,"soilmap_view_url":null,"soiltest_xml_url":0,"soiltest_view_url":0},{"id":197966,"code":"B4KJ201801008-6215","latitude":"33.52691944","longitude":"132.5524769","source_code":"SK50322424005","project_name":"","survey_name":"\u662d\u548c63\u5e74\u5ea6\u4e94\u90ce\u5730\u5148\u6f0f\u6c34\u5bfe\u7b56\u8abf\u67fb\u696d\u52d9","client_name":"\u56fd\u571f\u4ea4\u901a\u7701\u56db\u56fd\u5730\u65b9\u6574\u5099\u5c40\u5927\u6d32\u6cb3\u5ddd\u56fd\u9053\u4e8b\u52d9\u6240","boring_xml_url":40,"boring_view_url":1,"soilmap_view_url":null,"soiltest_xml_url":0,"soiltest_view_url":0}]}}