{"header":{"xyz":{"source":[],"mosaic":false},"page":4091,"raw":{"soiltest_result":"0","bbox":"57.598333,109.544722,1.933333,163.806111","page":"4091"},"conditions":{"soiltest_result":0,"north":57.598333,"west":109.544722,"south":1.933333,"east":163.806111},"success":true,"message":""},"data":{"meta":{"total":212844,"page":4091,"pages":7095,"count":30},"values":[{"id":197845,"code":"B4KJ201801008-6094","latitude":"33.49164556","longitude":"132.5404514","source_code":"SK50321483008","project_name":"","survey_name":"\u5e73\u621011\u5e74\u5ea6\u5317\u53ea\u5730\u533a\u5730\u8cea\u8abf\u67fb\u696d\u52d9","client_name":"\u56fd\u571f\u4ea4\u901a\u7701\u56db\u56fd\u5730\u65b9\u6574\u5099\u5c40\u5927\u6d32\u6cb3\u5ddd\u56fd\u9053\u4e8b\u52d9\u6240","boring_xml_url":40,"boring_view_url":1,"soilmap_view_url":null,"soiltest_xml_url":0,"soiltest_view_url":0},{"id":197844,"code":"B4KJ201801008-6093","latitude":"33.49095111","longitude":"132.5393681","source_code":"SK50321483007","project_name":"","survey_name":"\u5e73\u621011\u5e74\u5ea6\u5317\u53ea\u5730\u533a\u5730\u8cea\u8abf\u67fb\u696d\u52d9","client_name":"\u56fd\u571f\u4ea4\u901a\u7701\u56db\u56fd\u5730\u65b9\u6574\u5099\u5c40\u5927\u6d32\u6cb3\u5ddd\u56fd\u9053\u4e8b\u52d9\u6240","boring_xml_url":40,"boring_view_url":1,"soilmap_view_url":null,"soiltest_xml_url":0,"soiltest_view_url":0},{"id":197843,"code":"B4KJ201801008-6092","latitude":"33.48859028","longitude":"132.5410903","source_code":"SK50321483006","project_name":"","survey_name":"\u5e73\u62107\u5e74\u5ea6\u5225\u5f53\u5730\u533a\u5730\u8cea\u8abf\u67fb\u696d\u52d9","client_name":"\u56fd\u571f\u4ea4\u901a\u7701\u56db\u56fd\u5730\u65b9\u6574\u5099\u5c40\u5927\u6d32\u6cb3\u5ddd\u56fd\u9053\u4e8b\u52d9\u6240","boring_xml_url":40,"boring_view_url":1,"soilmap_view_url":null,"soiltest_xml_url":0,"soiltest_view_url":0},{"id":197842,"code":"B4KJ201801008-6091","latitude":"33.49047889","longitude":"132.5397014","source_code":"SK50321483005","project_name":"","survey_name":"\u5927\u5dde\u897f\u5730\u533a\u6e2c\u91cf\u53ca\u3073\u8a2d\u8a08\u696d\u52d9\u59d4\u8a17","client_name":"\u56fd\u571f\u4ea4\u901a\u7701\u56db\u56fd\u5730\u65b9\u6574\u5099\u5c40\u5927\u6d32\u6cb3\u5ddd\u56fd\u9053\u4e8b\u52d9\u6240","boring_xml_url":40,"boring_view_url":1,"soilmap_view_url":null,"soiltest_xml_url":0,"soiltest_view_url":0},{"id":197841,"code":"B4KJ201801008-6090","latitude":"33.49047889","longitude":"132.5397014","source_code":"SK50321483004","project_name":"","survey_name":"\u5927\u5dde\u897f\u5730\u533a\u6e2c\u91cf\u53ca\u3073\u8a2d\u8a08\u696d\u52d9\u59d4\u8a17","client_name":"\u56fd\u571f\u4ea4\u901a\u7701\u56db\u56fd\u5730\u65b9\u6574\u5099\u5c40\u5927\u6d32\u6cb3\u5ddd\u56fd\u9053\u4e8b\u52d9\u6240","boring_xml_url":40,"boring_view_url":1,"soilmap_view_url":null,"soiltest_xml_url":0,"soiltest_view_url":0},{"id":197840,"code":"B4KJ201801008-6089","latitude":"33.49047889","longitude":"132.5397014","source_code":"SK50321483003","project_name":"","survey_name":"\u5927\u5dde\u897f\u5730\u533a\u6e2c\u91cf\u53ca\u3073\u8a2d\u8a08\u696d\u52d9\u59d4\u8a17","client_name":"\u56fd\u571f\u4ea4\u901a\u7701\u56db\u56fd\u5730\u65b9\u6574\u5099\u5c40\u5927\u6d32\u6cb3\u5ddd\u56fd\u9053\u4e8b\u52d9\u6240","boring_xml_url":40,"boring_view_url":1,"soilmap_view_url":null,"soiltest_xml_url":0,"soiltest_view_url":0},{"id":197839,"code":"B4KJ201801008-6088","latitude":"33.49134","longitude":"132.5409233","source_code":"SK50321483002","project_name":"","survey_name":"\u5927\u5dde\u897f\u9053\u8def\u5730\u8cea\u8abf\u67fb","client_name":"\u56fd\u571f\u4ea4\u901a\u7701\u56db\u56fd\u5730\u65b9\u6574\u5099\u5c40\u5927\u6d32\u6cb3\u5ddd\u56fd\u9053\u4e8b\u52d9\u6240","boring_xml_url":40,"boring_view_url":1,"soilmap_view_url":null,"soiltest_xml_url":0,"soiltest_view_url":0},{"id":197838,"code":"B4KJ201801008-6087","latitude":"33.48572972","longitude":"132.5433956","source_code":"SK50321473005","project_name":"","survey_name":"\u5e73\u621011\u5e74\u5ea6\u7a32\u7a4d\u767b\u5742\u8eca\u7dda\u5730\u8cea\u8abf\u67fb\u696d\u52d9","client_name":"\u56fd\u571f\u4ea4\u901a\u7701\u56db\u56fd\u5730\u65b9\u6574\u5099\u5c40\u5927\u6d32\u6cb3\u5ddd\u56fd\u9053\u4e8b\u52d9\u6240","boring_xml_url":40,"boring_view_url":1,"soilmap_view_url":null,"soiltest_xml_url":0,"soiltest_view_url":0},{"id":197837,"code":"B4KJ201801008-6086","latitude":"33.48536861","longitude":"132.5434789","source_code":"SK50321473004","project_name":"","survey_name":"\u5e73\u621011\u5e74\u5ea6\u7a32\u7a4d\u767b\u5742\u8eca\u7dda\u5730\u8cea\u8abf\u67fb\u696d\u52d9","client_name":"\u56fd\u571f\u4ea4\u901a\u7701\u56db\u56fd\u5730\u65b9\u6574\u5099\u5c40\u5927\u6d32\u6cb3\u5ddd\u56fd\u9053\u4e8b\u52d9\u6240","boring_xml_url":40,"boring_view_url":1,"soilmap_view_url":null,"soiltest_xml_url":0,"soiltest_view_url":0},{"id":197836,"code":"B4KJ201801008-6085","latitude":"33.48534083","longitude":"132.5433956","source_code":"SK50321473003","project_name":"","survey_name":"\u5e73\u621011\u5e74\u5ea6\u7a32\u7a4d\u767b\u5742\u8eca\u7dda\u5730\u8cea\u8abf\u67fb\u696d\u52d9","client_name":"\u56fd\u571f\u4ea4\u901a\u7701\u56db\u56fd\u5730\u65b9\u6574\u5099\u5c40\u5927\u6d32\u6cb3\u5ddd\u56fd\u9053\u4e8b\u52d9\u6240","boring_xml_url":40,"boring_view_url":1,"soilmap_view_url":null,"soiltest_xml_url":0,"soiltest_view_url":0},{"id":197835,"code":"B4KJ201801008-6084","latitude":"33.48520194","longitude":"132.5435344","source_code":"SK50321473002","project_name":"","survey_name":"\u5e73\u621011\u5e74\u5ea6\u7a32\u7a4d\u767b\u5742\u8eca\u7dda\u5730\u8cea\u8abf\u67fb\u696d\u52d9","client_name":"\u56fd\u571f\u4ea4\u901a\u7701\u56db\u56fd\u5730\u65b9\u6574\u5099\u5c40\u5927\u6d32\u6cb3\u5ddd\u56fd\u9053\u4e8b\u52d9\u6240","boring_xml_url":40,"boring_view_url":1,"soilmap_view_url":null,"soiltest_xml_url":0,"soiltest_view_url":0},{"id":197834,"code":"B4KJ201801008-6083","latitude":"33.48342444","longitude":"132.5442289","source_code":"SK50321473001","project_name":"","survey_name":"\u5e73\u621011\u5e74\u5ea6\u7a32\u7a4d\u767b\u5742\u8eca\u7dda\u5730\u8cea\u8abf\u67fb\u696d\u52d9","client_name":"\u56fd\u571f\u4ea4\u901a\u7701\u56db\u56fd\u5730\u65b9\u6574\u5099\u5c40\u5927\u6d32\u6cb3\u5ddd\u56fd\u9053\u4e8b\u52d9\u6240","boring_xml_url":40,"boring_view_url":1,"soilmap_view_url":null,"soiltest_xml_url":0,"soiltest_view_url":0},{"id":197833,"code":"B4KJ201801008-6082","latitude":"33.47406028","longitude":"132.3527742","source_code":"SK50321268008","project_name":"","survey_name":"\u5bbf\u540d\u6539\u826f\u7b2c1\u5de5\u4e8b\u5730\u8cea\u8abf\u67fb","client_name":"\u56fd\u571f\u4ea4\u901a\u7701\u56db\u56fd\u5730\u65b9\u6574\u5099\u5c40\u5927\u6d32\u6cb3\u5ddd\u56fd\u9053\u4e8b\u52d9\u6240","boring_xml_url":40,"boring_view_url":1,"soilmap_view_url":null,"soiltest_xml_url":0,"soiltest_view_url":0},{"id":197832,"code":"B4KJ201801008-6081","latitude":"33.47406028","longitude":"132.3527742","source_code":"SK50321268007","project_name":"","survey_name":"\u5bbf\u540d\u6539\u826f\u7b2c1\u5de5\u4e8b\u5730\u8cea\u8abf\u67fb","client_name":"\u56fd\u571f\u4ea4\u901a\u7701\u56db\u56fd\u5730\u65b9\u6574\u5099\u5c40\u5927\u6d32\u6cb3\u5ddd\u56fd\u9053\u4e8b\u52d9\u6240","boring_xml_url":40,"boring_view_url":1,"soilmap_view_url":null,"soiltest_xml_url":0,"soiltest_view_url":0},{"id":197831,"code":"B4KJ201801008-6080","latitude":"33.47406028","longitude":"132.3527742","source_code":"SK50321268006","project_name":"","survey_name":"\u5bbf\u540d\u6539\u826f\u7b2c1\u5de5\u4e8b\u5730\u8cea\u8abf\u67fb","client_name":"\u56fd\u571f\u4ea4\u901a\u7701\u56db\u56fd\u5730\u65b9\u6574\u5099\u5c40\u5927\u6d32\u6cb3\u5ddd\u56fd\u9053\u4e8b\u52d9\u6240","boring_xml_url":40,"boring_view_url":1,"soilmap_view_url":null,"soiltest_xml_url":0,"soiltest_view_url":0},{"id":197830,"code":"B4KJ201801008-6079","latitude":"33.47406028","longitude":"132.3527742","source_code":"SK50321268005","project_name":"","survey_name":"\u5bbf\u540d\u6539\u826f\u7b2c1\u5de5\u4e8b\u5730\u8cea\u8abf\u67fb","client_name":"\u56fd\u571f\u4ea4\u901a\u7701\u56db\u56fd\u5730\u65b9\u6574\u5099\u5c40\u5927\u6d32\u6cb3\u5ddd\u56fd\u9053\u4e8b\u52d9\u6240","boring_xml_url":40,"boring_view_url":1,"soilmap_view_url":null,"soiltest_xml_url":0,"soiltest_view_url":0},{"id":197829,"code":"B4KJ201801008-6078","latitude":"33.46592167","longitude":"132.3168608","source_code":"SK50321255002","project_name":"","survey_name":"\u662d\u548c58\u5e74\u5ea6\u4e5d\u753a\u7b2c2\u30c8\u30f3\u30cd\u30eb\u8abf\u67fb\u696d\u52d9\u59d4\u8a17","client_name":"\u56fd\u571f\u4ea4\u901a\u7701\u56db\u56fd\u5730\u65b9\u6574\u5099\u5c40\u5927\u6d32\u6cb3\u5ddd\u56fd\u9053\u4e8b\u52d9\u6240","boring_xml_url":40,"boring_view_url":1,"soilmap_view_url":null,"soiltest_xml_url":0,"soiltest_view_url":0},{"id":197828,"code":"B4KJ201801008-6077","latitude":"33.46592167","longitude":"132.3168608","source_code":"SK50321255001","project_name":"","survey_name":"\u662d\u548c58\u5e74\u5ea6\u4e5d\u753a\u7b2c2\u30c8\u30f3\u30cd\u30eb\u8abf\u67fb\u696d\u52d9\u59d4\u8a17","client_name":"\u56fd\u571f\u4ea4\u901a\u7701\u56db\u56fd\u5730\u65b9\u6574\u5099\u5c40\u5927\u6d32\u6cb3\u5ddd\u56fd\u9053\u4e8b\u52d9\u6240","boring_xml_url":40,"boring_view_url":1,"soilmap_view_url":null,"soiltest_xml_url":0,"soiltest_view_url":0},{"id":197827,"code":"B4KJ201801008-6076","latitude":"33.46005944","longitude":"132.2302853","source_code":"SK50321148003","project_name":"","survey_name":"\u662d\u548c53\u5e74\u5ea6\u702c\u6238(\u9ad8\u8302)\u5730\u533a\u5730\u8cea\u8abf\u67fb\u696d\u52d9","client_name":"\u56fd\u571f\u4ea4\u901a\u7701\u56db\u56fd\u5730\u65b9\u6574\u5099\u5c40\u5927\u6d32\u6cb3\u5ddd\u56fd\u9053\u4e8b\u52d9\u6240","boring_xml_url":40,"boring_view_url":1,"soilmap_view_url":null,"soiltest_xml_url":0,"soiltest_view_url":0},{"id":197826,"code":"B4KJ201801008-6075","latitude":"33.45969833","longitude":"132.2306742","source_code":"SK50321148002","project_name":"","survey_name":"\u662d\u548c53\u5e74\u5ea6\u702c\u6238(\u9ad8\u8302)\u5730\u533a\u5730\u8cea\u8abf\u67fb\u696d\u52d9","client_name":"\u56fd\u571f\u4ea4\u901a\u7701\u56db\u56fd\u5730\u65b9\u6574\u5099\u5c40\u5927\u6d32\u6cb3\u5ddd\u56fd\u9053\u4e8b\u52d9\u6240","boring_xml_url":40,"boring_view_url":1,"soilmap_view_url":null,"soiltest_xml_url":0,"soiltest_view_url":0},{"id":197825,"code":"B4KJ201801008-6074","latitude":"33.4593375","longitude":"132.2310631","source_code":"SK50321148001","project_name":"","survey_name":"\u662d\u548c53\u5e74\u5ea6\u702c\u6238(\u9ad8\u8302)\u5730\u533a\u5730\u8cea\u8abf\u67fb\u696d\u52d9","client_name":"\u56fd\u571f\u4ea4\u901a\u7701\u56db\u56fd\u5730\u65b9\u6574\u5099\u5c40\u5927\u6d32\u6cb3\u5ddd\u56fd\u9053\u4e8b\u52d9\u6240","boring_xml_url":40,"boring_view_url":1,"soilmap_view_url":null,"soiltest_xml_url":0,"soiltest_view_url":0},{"id":197824,"code":"B4KJ201801008-6073","latitude":"33.43025722","longitude":"132.2275086","source_code":"SK50321118001","project_name":"","survey_name":"\u662d\u548c58\u5e74\u5ea6\u5ddd\u4e4b\u6d5c\u7b2c1\u6a4b\u5730\u8cea\u8abf\u67fb\u696d\u52d9","client_name":"\u56fd\u571f\u4ea4\u901a\u7701\u56db\u56fd\u5730\u65b9\u6574\u5099\u5c40\u5927\u6d32\u6cb3\u5ddd\u56fd\u9053\u4e8b\u52d9\u6240","boring_xml_url":40,"boring_view_url":1,"soilmap_view_url":null,"soiltest_xml_url":0,"soiltest_view_url":0},{"id":197823,"code":"B4KJ201801008-6072","latitude":"33.43006222","longitude":"132.1964003","source_code":"SK50321115003","project_name":"","survey_name":"\u662d\u548c53\u5e74\u5ea6\u702c\u6238(\u9ad8\u8302)\u5730\u533a\u5730\u8cea\u8abf\u67fb\u696d\u52d9","client_name":"\u56fd\u571f\u4ea4\u901a\u7701\u56db\u56fd\u5730\u65b9\u6574\u5099\u5c40\u5927\u6d32\u6cb3\u5ddd\u56fd\u9053\u4e8b\u52d9\u6240","boring_xml_url":40,"boring_view_url":1,"soilmap_view_url":null,"soiltest_xml_url":0,"soiltest_view_url":0},{"id":197822,"code":"B4KJ201801008-6071","latitude":"33.42967333","longitude":"132.1967058","source_code":"SK50321115002","project_name":"","survey_name":"\u662d\u548c53\u5e74\u5ea6\u702c\u6238(\u9ad8\u8302)\u5730\u533a\u5730\u8cea\u8abf\u67fb\u696d\u52d9","client_name":"\u56fd\u571f\u4ea4\u901a\u7701\u56db\u56fd\u5730\u65b9\u6574\u5099\u5c40\u5927\u6d32\u6cb3\u5ddd\u56fd\u9053\u4e8b\u52d9\u6240","boring_xml_url":40,"boring_view_url":1,"soilmap_view_url":null,"soiltest_xml_url":0,"soiltest_view_url":0},{"id":197821,"code":"B4KJ201801008-6070","latitude":"33.42947889","longitude":"132.1971781","source_code":"SK50321115001","project_name":"","survey_name":"\u662d\u548c53\u5e74\u5ea6\u702c\u6238(\u9ad8\u8302)\u5730\u533a\u5730\u8cea\u8abf\u67fb\u696d\u52d9","client_name":"\u56fd\u571f\u4ea4\u901a\u7701\u56db\u56fd\u5730\u65b9\u6574\u5099\u5c40\u5927\u6d32\u6cb3\u5ddd\u56fd\u9053\u4e8b\u52d9\u6240","boring_xml_url":40,"boring_view_url":1,"soilmap_view_url":null,"soiltest_xml_url":0,"soiltest_view_url":0},{"id":197820,"code":"B4KJ201801008-6069","latitude":"33.37185972","longitude":"132.8427892","source_code":"SK50320647005","project_name":"","survey_name":"\u662d\u548c50\u5e74\u5ea6\u65e5\u5409\u5730\u533a\u5730\u8cea\u8abf\u67fb\u696d\u52d9","client_name":"\u56fd\u571f\u4ea4\u901a\u7701\u56db\u56fd\u5730\u65b9\u6574\u5099\u5c40\u5927\u6d32\u6cb3\u5ddd\u56fd\u9053\u4e8b\u52d9\u6240","boring_xml_url":40,"boring_view_url":1,"soilmap_view_url":null,"soiltest_xml_url":0,"soiltest_view_url":0},{"id":197819,"code":"B4KJ201801008-6068","latitude":"33.37199861","longitude":"132.8429556","source_code":"SK50320647001","project_name":"","survey_name":"\u662d\u548c50\u5e74\u5ea6\u65e5\u5409\u5730\u533a\u5730\u8cea\u8abf\u67fb\u696d\u52d9","client_name":"\u56fd\u571f\u4ea4\u901a\u7701\u56db\u56fd\u5730\u65b9\u6574\u5099\u5c40\u5927\u6d32\u6cb3\u5ddd\u56fd\u9053\u4e8b\u52d9\u6240","boring_xml_url":40,"boring_view_url":1,"soilmap_view_url":null,"soiltest_xml_url":0,"soiltest_view_url":0},{"id":197818,"code":"B4KJ201801008-6067","latitude":"33.362555","longitude":"132.8306514","source_code":"SK50320636012","project_name":"","survey_name":"\u662d\u548c50\u5e74\u5ea6\u65e5\u5409\u5730\u533a\u5730\u8cea\u8abf\u67fb\u696d\u52d9","client_name":"\u56fd\u571f\u4ea4\u901a\u7701\u56db\u56fd\u5730\u65b9\u6574\u5099\u5c40\u5927\u6d32\u6cb3\u5ddd\u56fd\u9053\u4e8b\u52d9\u6240","boring_xml_url":40,"boring_view_url":1,"soilmap_view_url":null,"soiltest_xml_url":0,"soiltest_view_url":0},{"id":197817,"code":"B4KJ201801008-6066","latitude":"33.36258278","longitude":"132.8303736","source_code":"SK50320636008","project_name":"","survey_name":"\u662d\u548c52\u5e74\u5ea6\u65e5\u5409(\u4e0a\u4e2d\u5408)\u5730\u533a\u5730\u8cea\u8abf\u67fb\u696d\u52d9\u59d4\u8a17","client_name":"\u56fd\u571f\u4ea4\u901a\u7701\u56db\u56fd\u5730\u65b9\u6574\u5099\u5c40\u5927\u6d32\u6cb3\u5ddd\u56fd\u9053\u4e8b\u52d9\u6240","boring_xml_url":40,"boring_view_url":1,"soilmap_view_url":null,"soiltest_xml_url":0,"soiltest_view_url":0},{"id":197816,"code":"B4KJ201801008-6065","latitude":"33.36258278","longitude":"132.8303736","source_code":"SK50320636007","project_name":"","survey_name":"\u662d\u548c52\u5e74\u5ea6\u65e5\u5409(\u4e0a\u4e2d\u5408)\u5730\u533a\u5730\u8cea\u8abf\u67fb\u696d\u52d9\u59d4\u8a17","client_name":"\u56fd\u571f\u4ea4\u901a\u7701\u56db\u56fd\u5730\u65b9\u6574\u5099\u5c40\u5927\u6d32\u6cb3\u5ddd\u56fd\u9053\u4e8b\u52d9\u6240","boring_xml_url":40,"boring_view_url":1,"soilmap_view_url":null,"soiltest_xml_url":0,"soiltest_view_url":0}]}}