{"header":{"xyz":{"source":[],"mosaic":false},"page":4101,"raw":{"soiltest_result":"0","bbox":"57.598333,109.544722,1.933333,163.806111","page":"4101"},"conditions":{"soiltest_result":0,"north":57.598333,"west":109.544722,"south":1.933333,"east":163.806111},"success":true,"message":""},"data":{"meta":{"total":212844,"page":4101,"pages":7095,"count":30},"values":[{"id":197545,"code":"B4KJ201801008-5794","latitude":"32.99409833","longitude":"132.91871","source_code":"SK49323783002","project_name":"","survey_name":"\u5e73\u621011\u5e74\u5ea6 \u4e2d\u6751\u5824\u9632\u5916\u5730\u8cea\u8abf\u67fb\u696d\u52d9","client_name":"\u56fd\u571f\u4ea4\u901a\u7701\u56db\u56fd\u5730\u65b9\u6574\u5099\u5c40\u4e2d\u6751\u6cb3\u5ddd\u56fd\u9053\u4e8b\u52d9\u6240","boring_xml_url":40,"boring_view_url":1,"soilmap_view_url":null,"soiltest_xml_url":0,"soiltest_view_url":0},{"id":197544,"code":"B4KJ201801008-5793","latitude":"32.98626667","longitude":"132.9619564","source_code":"SK49323777001","project_name":"","survey_name":"\u662d\u548c52\u5e74\u5ea6\u897f\u5927\u7560\u6a4b\u59162\u6a4b\u8abf\u67fb\u8a2d\u8a08\u696d\u52d9\u59d4\u8a17","client_name":"\u56fd\u571f\u4ea4\u901a\u7701\u56db\u56fd\u5730\u65b9\u6574\u5099\u5c40\u4e2d\u6751\u6cb3\u5ddd\u56fd\u9053\u4e8b\u52d9\u6240","boring_xml_url":40,"boring_view_url":1,"soilmap_view_url":null,"soiltest_xml_url":0,"soiltest_view_url":0},{"id":197543,"code":"B4KJ201801008-5792","latitude":"32.98376667","longitude":"132.9479019","source_code":"SK49323776010","project_name":"","survey_name":"\u5e73\u621010\u5e74\u5ea6\u53e4\u6d25\u8cc0\u5730\u533a\u5730\u8cea\u8abf\u67fb\u696d\u52d9","client_name":"\u56fd\u571f\u4ea4\u901a\u7701\u56db\u56fd\u5730\u65b9\u6574\u5099\u5c40\u4e2d\u6751\u6cb3\u5ddd\u56fd\u9053\u4e8b\u52d9\u6240","boring_xml_url":40,"boring_view_url":1,"soilmap_view_url":null,"soiltest_xml_url":0,"soiltest_view_url":0},{"id":197542,"code":"B4KJ201801008-5791","latitude":"32.98376694","longitude":"132.9487075","source_code":"SK49323776009","project_name":"","survey_name":"\u5e73\u621010\u5e74\u5ea6\u53e4\u6d25\u8cc0\u5730\u533a\u5730\u8cea\u8abf\u67fb\u696d\u52d9","client_name":"\u56fd\u571f\u4ea4\u901a\u7701\u56db\u56fd\u5730\u65b9\u6574\u5099\u5c40\u4e2d\u6751\u6cb3\u5ddd\u56fd\u9053\u4e8b\u52d9\u6240","boring_xml_url":40,"boring_view_url":1,"soilmap_view_url":null,"soiltest_xml_url":0,"soiltest_view_url":0},{"id":197541,"code":"B4KJ201801008-5790","latitude":"32.98301694","longitude":"132.9505964","source_code":"SK49323776008","project_name":"","survey_name":"\u5e73\u621010\u5e74\u5ea6\u53e4\u6d25\u8cc0\u5730\u533a\u5730\u8cea\u8abf\u67fb\u696d\u52d9","client_name":"\u56fd\u571f\u4ea4\u901a\u7701\u56db\u56fd\u5730\u65b9\u6574\u5099\u5c40\u4e2d\u6751\u6cb3\u5ddd\u56fd\u9053\u4e8b\u52d9\u6240","boring_xml_url":40,"boring_view_url":1,"soilmap_view_url":null,"soiltest_xml_url":0,"soiltest_view_url":0},{"id":197540,"code":"B4KJ201801008-5789","latitude":"32.98485028","longitude":"132.9588733","source_code":"SK49323776007","project_name":"","survey_name":"\u5e73\u621010\u5e74\u5ea6\u53e4\u6d25\u8cc0\u5730\u533a\u5730\u8cea\u8abf\u67fb\u696d\u52d9","client_name":"\u56fd\u571f\u4ea4\u901a\u7701\u56db\u56fd\u5730\u65b9\u6574\u5099\u5c40\u4e2d\u6751\u6cb3\u5ddd\u56fd\u9053\u4e8b\u52d9\u6240","boring_xml_url":40,"boring_view_url":1,"soilmap_view_url":null,"soiltest_xml_url":0,"soiltest_view_url":0},{"id":197539,"code":"B4KJ201801008-5788","latitude":"32.98518361","longitude":"132.9589011","source_code":"SK49323776006","project_name":"","survey_name":"\u5e73\u621010\u5e74\u5ea6\u53e4\u6d25\u8cc0\u5730\u533a\u5730\u8cea\u8abf\u67fb\u696d\u52d9","client_name":"\u56fd\u571f\u4ea4\u901a\u7701\u56db\u56fd\u5730\u65b9\u6574\u5099\u5c40\u4e2d\u6751\u6cb3\u5ddd\u56fd\u9053\u4e8b\u52d9\u6240","boring_xml_url":40,"boring_view_url":1,"soilmap_view_url":null,"soiltest_xml_url":0,"soiltest_view_url":0},{"id":197538,"code":"B4KJ201801008-5787","latitude":"32.98165611","longitude":"132.9508742","source_code":"SK49323776005","project_name":"","survey_name":"\u53e4\u6d25\u8cc0\u5730\u5148\u5730\u8cea\u8abf\u67fb","client_name":"\u56fd\u571f\u4ea4\u901a\u7701\u56db\u56fd\u5730\u65b9\u6574\u5099\u5c40\u4e2d\u6751\u6cb3\u5ddd\u56fd\u9053\u4e8b\u52d9\u6240","boring_xml_url":40,"boring_view_url":1,"soilmap_view_url":null,"soiltest_xml_url":0,"soiltest_view_url":0},{"id":197537,"code":"B4KJ201801008-5786","latitude":"32.98193361","longitude":"132.9510686","source_code":"SK49323776001","project_name":"","survey_name":"\u53e4\u6d25\u8cc0\u5730\u5148\u5730\u8cea\u8abf\u67fb","client_name":"\u56fd\u571f\u4ea4\u901a\u7701\u56db\u56fd\u5730\u65b9\u6574\u5099\u5c40\u4e2d\u6751\u6cb3\u5ddd\u56fd\u9053\u4e8b\u52d9\u6240","boring_xml_url":40,"boring_view_url":1,"soilmap_view_url":null,"soiltest_xml_url":0,"soiltest_view_url":0},{"id":197536,"code":"B4KJ201801008-5785","latitude":"32.9825725","longitude":"132.94668","source_code":"SK49323775005","project_name":"","survey_name":"\u5e73\u621011\u5e74\u5ea6 \u4e2d\u6751\u5824\u9632\u5916\u5730\u8cea\u8abf\u67fb\u696d\u52d9","client_name":"\u56fd\u571f\u4ea4\u901a\u7701\u56db\u56fd\u5730\u65b9\u6574\u5099\u5c40\u4e2d\u6751\u6cb3\u5ddd\u56fd\u9053\u4e8b\u52d9\u6240","boring_xml_url":40,"boring_view_url":1,"soilmap_view_url":null,"soiltest_xml_url":0,"soiltest_view_url":0},{"id":197535,"code":"B4KJ201801008-5784","latitude":"32.97951667","longitude":"132.9227378","source_code":"SK49323774005","project_name":"","survey_name":"\u5e73\u62103\u5e74\u5ea6\u4e95\u4e0a\u59162\u6a0b\u9580\u5730\u8cea\u8abf\u67fb\u53ca\u3073\u6e2c\u91cf\u8a2d\u8a08\u696d\u52d9","client_name":"\u56fd\u571f\u4ea4\u901a\u7701\u56db\u56fd\u5730\u65b9\u6574\u5099\u5c40\u4e2d\u6751\u6cb3\u5ddd\u56fd\u9053\u4e8b\u52d9\u6240","boring_xml_url":40,"boring_view_url":1,"soilmap_view_url":null,"soiltest_xml_url":0,"soiltest_view_url":0},{"id":197534,"code":"B4KJ201801008-5783","latitude":"32.97951667","longitude":"132.9227378","source_code":"SK49323774004","project_name":"","survey_name":"\u5e73\u62103\u5e74\u5ea6\u4e95\u4e0a\u59162\u6a0b\u9580\u5730\u8cea\u8abf\u67fb\u53ca\u3073\u6e2c\u91cf\u8a2d\u8a08\u696d\u52d9","client_name":"\u56fd\u571f\u4ea4\u901a\u7701\u56db\u56fd\u5730\u65b9\u6574\u5099\u5c40\u4e2d\u6751\u6cb3\u5ddd\u56fd\u9053\u4e8b\u52d9\u6240","boring_xml_url":40,"boring_view_url":1,"soilmap_view_url":null,"soiltest_xml_url":0,"soiltest_view_url":0},{"id":197533,"code":"B4KJ201801008-5782","latitude":"32.97929444","longitude":"132.9164883","source_code":"SK49323773004","project_name":"","survey_name":"\u5e73\u62103\u5e74\u5ea6\u4e95\u4e0a\u59162\u6a0b\u9580\u5730\u8cea\u8abf\u67fb\u53ca\u3073\u6e2c\u91cf\u8a2d\u8a08\u696d\u52d9","client_name":"\u56fd\u571f\u4ea4\u901a\u7701\u56db\u56fd\u5730\u65b9\u6574\u5099\u5c40\u4e2d\u6751\u6cb3\u5ddd\u56fd\u9053\u4e8b\u52d9\u6240","boring_xml_url":40,"boring_view_url":1,"soilmap_view_url":null,"soiltest_xml_url":0,"soiltest_view_url":0},{"id":197532,"code":"B4KJ201801008-5781","latitude":"32.98093306","longitude":"132.9132664","source_code":"SK49323773003","project_name":"","survey_name":"\u662d\u548c52\u5e74\u5ea6\u897f\u5927\u7560\u6a4b\u59162\u6a4b\u8abf\u67fb\u8a2d\u8a08\u696d\u52d9\u59d4\u8a17","client_name":"\u56fd\u571f\u4ea4\u901a\u7701\u56db\u56fd\u5730\u65b9\u6574\u5099\u5c40\u4e2d\u6751\u6cb3\u5ddd\u56fd\u9053\u4e8b\u52d9\u6240","boring_xml_url":40,"boring_view_url":1,"soilmap_view_url":null,"soiltest_xml_url":0,"soiltest_view_url":0},{"id":197531,"code":"B4KJ201801008-5780","latitude":"32.97251861","longitude":"132.9696783","source_code":"SK49323767004","project_name":"","survey_name":"\u4e95\u6ca2\u6a0b\u9580\u59161\u4ef6\u8abf\u67fb\u8a2d\u8a08\u696d\u52d9","client_name":"\u56fd\u571f\u4ea4\u901a\u7701\u56db\u56fd\u5730\u65b9\u6574\u5099\u5c40\u4e2d\u6751\u6cb3\u5ddd\u56fd\u9053\u4e8b\u52d9\u6240","boring_xml_url":40,"boring_view_url":1,"soilmap_view_url":null,"soiltest_xml_url":0,"soiltest_view_url":0},{"id":197530,"code":"B4KJ201801008-5779","latitude":"32.97624028","longitude":"132.9618456","source_code":"SK49323767003","project_name":"","survey_name":"\u53e4\u6d25\u8cc0\u5730\u5148\u5730\u8cea\u8abf\u67fb","client_name":"\u56fd\u571f\u4ea4\u901a\u7701\u56db\u56fd\u5730\u65b9\u6574\u5099\u5c40\u4e2d\u6751\u6cb3\u5ddd\u56fd\u9053\u4e8b\u52d9\u6240","boring_xml_url":40,"boring_view_url":1,"soilmap_view_url":null,"soiltest_xml_url":0,"soiltest_view_url":0},{"id":197529,"code":"B4KJ201801008-5778","latitude":"32.97601806","longitude":"132.9617067","source_code":"SK49323767002","project_name":"","survey_name":"\u53e4\u6d25\u8cc0\u5730\u5148\u5730\u8cea\u8abf\u67fb","client_name":"\u56fd\u571f\u4ea4\u901a\u7701\u56db\u56fd\u5730\u65b9\u6574\u5099\u5c40\u4e2d\u6751\u6cb3\u5ddd\u56fd\u9053\u4e8b\u52d9\u6240","boring_xml_url":40,"boring_view_url":1,"soilmap_view_url":null,"soiltest_xml_url":0,"soiltest_view_url":0},{"id":197528,"code":"B4KJ201801008-5777","latitude":"32.97637889","longitude":"132.96204","source_code":"SK49323767001","project_name":"","survey_name":"\u53e4\u6d25\u8cc0\u5730\u5148\u5730\u8cea\u8abf\u67fb","client_name":"\u56fd\u571f\u4ea4\u901a\u7701\u56db\u56fd\u5730\u65b9\u6574\u5099\u5c40\u4e2d\u6751\u6cb3\u5ddd\u56fd\u9053\u4e8b\u52d9\u6240","boring_xml_url":40,"boring_view_url":1,"soilmap_view_url":null,"soiltest_xml_url":0,"soiltest_view_url":0},{"id":197527,"code":"B4KJ201801008-5776","latitude":"32.97810083","longitude":"132.9505131","source_code":"SK49323766002","project_name":"","survey_name":"\u4e5d\u6a39\u7b2c\u4e8c\u6a0b\u9580\u59161\u4ef6\u5730\u8cea\u8abf\u67fb\u696d\u52d9","client_name":"\u56fd\u571f\u4ea4\u901a\u7701\u56db\u56fd\u5730\u65b9\u6574\u5099\u5c40\u4e2d\u6751\u6cb3\u5ddd\u56fd\u9053\u4e8b\u52d9\u6240","boring_xml_url":40,"boring_view_url":1,"soilmap_view_url":null,"soiltest_xml_url":0,"soiltest_view_url":0},{"id":197526,"code":"B4KJ201801008-5775","latitude":"32.97651778","longitude":"132.9590403","source_code":"SK49323766001","project_name":"","survey_name":"\u68ee\u6ca2\u56fd\u898b\u5730\u5148\u5730\u8cea\u8abf\u67fb\u696d\u52d9","client_name":"\u56fd\u571f\u4ea4\u901a\u7701\u56db\u56fd\u5730\u65b9\u6574\u5099\u5c40\u4e2d\u6751\u6cb3\u5ddd\u56fd\u9053\u4e8b\u52d9\u6240","boring_xml_url":40,"boring_view_url":1,"soilmap_view_url":null,"soiltest_xml_url":0,"soiltest_view_url":0},{"id":197525,"code":"B4KJ201801008-5774","latitude":"32.97112917","longitude":"132.9390144","source_code":"SK49323765003","project_name":"","survey_name":"\u5742\u672c\u5869\u5bb3\u5730\u533a\u5730\u8cea\u8abf\u67fb","client_name":"\u56fd\u571f\u4ea4\u901a\u7701\u56db\u56fd\u5730\u65b9\u6574\u5099\u5c40\u4e2d\u6751\u6cb3\u5ddd\u56fd\u9053\u4e8b\u52d9\u6240","boring_xml_url":40,"boring_view_url":1,"soilmap_view_url":null,"soiltest_xml_url":0,"soiltest_view_url":0},{"id":197524,"code":"B4KJ201801008-5773","latitude":"32.97526694","longitude":"132.9104889","source_code":"SK49323763006","project_name":"","survey_name":"\u5e73\u62105\u5e74\u5ea6\u5177\u540c\u5730\u533a\u5730\u8cea\u8abf\u67fb\u696d\u52d9","client_name":"\u56fd\u571f\u4ea4\u901a\u7701\u56db\u56fd\u5730\u65b9\u6574\u5099\u5c40\u4e2d\u6751\u6cb3\u5ddd\u56fd\u9053\u4e8b\u52d9\u6240","boring_xml_url":40,"boring_view_url":1,"soilmap_view_url":null,"soiltest_xml_url":0,"soiltest_view_url":0},{"id":197523,"code":"B4KJ201801008-5772","latitude":"32.97601694","longitude":"132.9146831","source_code":"SK49323763005","project_name":"","survey_name":"\u5e73\u62103\u5e74\u5ea6\u5177\u91cd\u5730\u533a\u5730\u8cea\u8abf\u67fb\u696d\u52d9","client_name":"\u56fd\u571f\u4ea4\u901a\u7701\u56db\u56fd\u5730\u65b9\u6574\u5099\u5c40\u4e2d\u6751\u6cb3\u5ddd\u56fd\u9053\u4e8b\u52d9\u6240","boring_xml_url":40,"boring_view_url":1,"soilmap_view_url":null,"soiltest_xml_url":0,"soiltest_view_url":0},{"id":197522,"code":"B4KJ201801008-5771","latitude":"32.97465583","longitude":"132.9110167","source_code":"SK49323763002","project_name":"","survey_name":"1\u53f7\u30fb2\u53f7\u4e2d\u5c71\u6a0b\u7ba1\u8a2d\u8a08","client_name":"\u56fd\u571f\u4ea4\u901a\u7701\u56db\u56fd\u5730\u65b9\u6574\u5099\u5c40\u4e2d\u6751\u6cb3\u5ddd\u56fd\u9053\u4e8b\u52d9\u6240","boring_xml_url":40,"boring_view_url":1,"soilmap_view_url":null,"soiltest_xml_url":0,"soiltest_view_url":0},{"id":197521,"code":"B4KJ201801008-5770","latitude":"32.97568361","longitude":"132.9143775","source_code":"SK49323763001","project_name":"","survey_name":"1\u53f7\u30fb2\u53f7\u4e2d\u5c71\u6a0b\u7ba1\u8a2d\u8a08","client_name":"\u56fd\u571f\u4ea4\u901a\u7701\u56db\u56fd\u5730\u65b9\u6574\u5099\u5c40\u4e2d\u6751\u6cb3\u5ddd\u56fd\u9053\u4e8b\u52d9\u6240","boring_xml_url":40,"boring_view_url":1,"soilmap_view_url":null,"soiltest_xml_url":0,"soiltest_view_url":0},{"id":197520,"code":"B4KJ201801008-5769","latitude":"32.97318389","longitude":"132.9059894","source_code":"SK49323762011","project_name":"","survey_name":"\u5e73\u62105\u5e74\u5ea6\u5177\u540c\u5730\u533a\u5730\u8cea\u8abf\u67fb\u696d\u52d9","client_name":"\u56fd\u571f\u4ea4\u901a\u7701\u56db\u56fd\u5730\u65b9\u6574\u5099\u5c40\u4e2d\u6751\u6cb3\u5ddd\u56fd\u9053\u4e8b\u52d9\u6240","boring_xml_url":40,"boring_view_url":1,"soilmap_view_url":null,"soiltest_xml_url":0,"soiltest_view_url":0},{"id":197519,"code":"B4KJ201801008-5768","latitude":"32.97371167","longitude":"132.9073503","source_code":"SK49323762010","project_name":"","survey_name":"\u5e73\u62105\u5e74\u5ea6\u5177\u540c\u5730\u533a\u5730\u8cea\u8abf\u67fb\u696d\u52d9","client_name":"\u56fd\u571f\u4ea4\u901a\u7701\u56db\u56fd\u5730\u65b9\u6574\u5099\u5c40\u4e2d\u6751\u6cb3\u5ddd\u56fd\u9053\u4e8b\u52d9\u6240","boring_xml_url":40,"boring_view_url":1,"soilmap_view_url":null,"soiltest_xml_url":0,"soiltest_view_url":0},{"id":197518,"code":"B4KJ201801008-5767","latitude":"32.97493361","longitude":"132.9097111","source_code":"SK49323762009","project_name":"","survey_name":"\u5e73\u62105\u5e74\u5ea6\u5177\u540c\u5730\u533a\u5730\u8cea\u8abf\u67fb\u696d\u52d9","client_name":"\u56fd\u571f\u4ea4\u901a\u7701\u56db\u56fd\u5730\u65b9\u6574\u5099\u5c40\u4e2d\u6751\u6cb3\u5ddd\u56fd\u9053\u4e8b\u52d9\u6240","boring_xml_url":40,"boring_view_url":1,"soilmap_view_url":null,"soiltest_xml_url":0,"soiltest_view_url":0},{"id":197517,"code":"B4KJ201801008-5766","latitude":"32.97262833","longitude":"132.9046839","source_code":"SK49323762008","project_name":"","survey_name":"\u5e73\u6210\u5143\u5e74\u5ea6\u68ee\u6ca2\u6a4b\u5730\u8cea\u8abf\u67fb\u696d\u52d9","client_name":"\u56fd\u571f\u4ea4\u901a\u7701\u56db\u56fd\u5730\u65b9\u6574\u5099\u5c40\u4e2d\u6751\u6cb3\u5ddd\u56fd\u9053\u4e8b\u52d9\u6240","boring_xml_url":40,"boring_view_url":1,"soilmap_view_url":null,"soiltest_xml_url":0,"soiltest_view_url":0},{"id":197516,"code":"B4KJ201801008-5765","latitude":"32.97240611","longitude":"132.9036008","source_code":"SK49323762006","project_name":"","survey_name":"\u5e73\u6210\u5143\u5e74\u5ea6\u68ee\u6ca2\u6a4b\u5730\u8cea\u8abf\u67fb\u696d\u52d9","client_name":"\u56fd\u571f\u4ea4\u901a\u7701\u56db\u56fd\u5730\u65b9\u6574\u5099\u5c40\u4e2d\u6751\u6cb3\u5ddd\u56fd\u9053\u4e8b\u52d9\u6240","boring_xml_url":40,"boring_view_url":1,"soilmap_view_url":null,"soiltest_xml_url":0,"soiltest_view_url":0}]}}