{"header":{"xyz":{"source":[],"mosaic":false},"page":4102,"raw":{"soiltest_result":"0","bbox":"57.598333,109.544722,1.933333,163.806111","page":"4102"},"conditions":{"soiltest_result":0,"north":57.598333,"west":109.544722,"south":1.933333,"east":163.806111},"success":true,"message":""},"data":{"meta":{"total":212844,"page":4102,"pages":7095,"count":30},"values":[{"id":197515,"code":"B4KJ201801008-5764","latitude":"32.97173944","longitude":"132.9028786","source_code":"SK49323762004","project_name":"","survey_name":"\u662d\u548c63\u5e74\u5ea6\u4e2d\u6751\u9053\u8def\u8edf\u5f31\u5730\u76e4\u8abf\u67fb(\u305d\u306e1)\u696d\u52d9","client_name":"\u56fd\u571f\u4ea4\u901a\u7701\u56db\u56fd\u5730\u65b9\u6574\u5099\u5c40\u4e2d\u6751\u6cb3\u5ddd\u56fd\u9053\u4e8b\u52d9\u6240","boring_xml_url":40,"boring_view_url":1,"soilmap_view_url":null,"soiltest_xml_url":0,"soiltest_view_url":0},{"id":197514,"code":"B4KJ201801008-5763","latitude":"32.97426694","longitude":"132.8999344","source_code":"SK49323762001","project_name":"","survey_name":"\u68ee\u6ca2\u56fd\u898b\u5730\u5148\u5730\u8cea\u8abf\u67fb\u696d\u52d9","client_name":"\u56fd\u571f\u4ea4\u901a\u7701\u56db\u56fd\u5730\u65b9\u6574\u5099\u5c40\u4e2d\u6751\u6cb3\u5ddd\u56fd\u9053\u4e8b\u52d9\u6240","boring_xml_url":40,"boring_view_url":1,"soilmap_view_url":null,"soiltest_xml_url":0,"soiltest_view_url":0},{"id":197513,"code":"B4KJ201801008-5762","latitude":"32.97790528","longitude":"132.8934069","source_code":"SK49323761010","project_name":"","survey_name":"\u662d\u548c52\u5e74\u5ea6\u897f\u5927\u7560\u6a4b\u59162\u6a4b\u8abf\u67fb\u8a2d\u8a08\u696d\u52d9\u59d4\u8a17","client_name":"\u56fd\u571f\u4ea4\u901a\u7701\u56db\u56fd\u5730\u65b9\u6574\u5099\u5c40\u4e2d\u6751\u6cb3\u5ddd\u56fd\u9053\u4e8b\u52d9\u6240","boring_xml_url":40,"boring_view_url":1,"soilmap_view_url":null,"soiltest_xml_url":0,"soiltest_view_url":0},{"id":197512,"code":"B4KJ201801008-5761","latitude":"32.97782194","longitude":"132.8939625","source_code":"SK49323761009","project_name":"","survey_name":"\u662d\u548c52\u5e74\u5ea6\u897f\u5927\u7560\u6a4b\u59162\u6a4b\u8abf\u67fb\u8a2d\u8a08\u696d\u52d9\u59d4\u8a17","client_name":"\u56fd\u571f\u4ea4\u901a\u7701\u56db\u56fd\u5730\u65b9\u6574\u5099\u5c40\u4e2d\u6751\u6cb3\u5ddd\u56fd\u9053\u4e8b\u52d9\u6240","boring_xml_url":40,"boring_view_url":1,"soilmap_view_url":null,"soiltest_xml_url":0,"soiltest_view_url":0},{"id":197511,"code":"B4KJ201801008-5760","latitude":"32.97501667","longitude":"132.8876019","source_code":"SK49323761008","project_name":"","survey_name":"\u6e21\u5ddd\u5824\u9632\u8abf\u67fb\u696d\u52d9\u59d4\u8a17","client_name":"\u56fd\u571f\u4ea4\u901a\u7701\u56db\u56fd\u5730\u65b9\u6574\u5099\u5c40\u4e2d\u6751\u6cb3\u5ddd\u56fd\u9053\u4e8b\u52d9\u6240","boring_xml_url":40,"boring_view_url":1,"soilmap_view_url":null,"soiltest_xml_url":0,"soiltest_view_url":0},{"id":197510,"code":"B4KJ201801008-5759","latitude":"32.97501667","longitude":"132.8876019","source_code":"SK49323761005","project_name":"","survey_name":"\u6e21\u5ddd\u5824\u9632\u8abf\u67fb\u696d\u52d9\u59d4\u8a17","client_name":"\u56fd\u571f\u4ea4\u901a\u7701\u56db\u56fd\u5730\u65b9\u6574\u5099\u5c40\u4e2d\u6751\u6cb3\u5ddd\u56fd\u9053\u4e8b\u52d9\u6240","boring_xml_url":40,"boring_view_url":1,"soilmap_view_url":null,"soiltest_xml_url":0,"soiltest_view_url":0},{"id":197509,"code":"B4KJ201801008-5758","latitude":"32.9715725","longitude":"132.8914075","source_code":"SK49323761004","project_name":"","survey_name":"\u68ee\u6ca2\u56fd\u898b\u5730\u5148\u5730\u8cea\u8abf\u67fb\u696d\u52d9","client_name":"\u56fd\u571f\u4ea4\u901a\u7701\u56db\u56fd\u5730\u65b9\u6574\u5099\u5c40\u4e2d\u6751\u6cb3\u5ddd\u56fd\u9053\u4e8b\u52d9\u6240","boring_xml_url":40,"boring_view_url":1,"soilmap_view_url":null,"soiltest_xml_url":0,"soiltest_view_url":0},{"id":197508,"code":"B4KJ201801008-5757","latitude":"32.97435","longitude":"132.8897964","source_code":"SK49323761003","project_name":"","survey_name":"\u68ee\u6ca2\u56fd\u898b\u5730\u5148\u5730\u8cea\u8abf\u67fb\u696d\u52d9","client_name":"\u56fd\u571f\u4ea4\u901a\u7701\u56db\u56fd\u5730\u65b9\u6574\u5099\u5c40\u4e2d\u6751\u6cb3\u5ddd\u56fd\u9053\u4e8b\u52d9\u6240","boring_xml_url":40,"boring_view_url":1,"soilmap_view_url":null,"soiltest_xml_url":0,"soiltest_view_url":0},{"id":197507,"code":"B4KJ201801008-5756","latitude":"32.97329472","longitude":"132.8963792","source_code":"SK49323761002","project_name":"","survey_name":"\u68ee\u6ca2\u56fd\u898b\u5730\u5148\u5730\u8cea\u8abf\u67fb\u696d\u52d9","client_name":"\u56fd\u571f\u4ea4\u901a\u7701\u56db\u56fd\u5730\u65b9\u6574\u5099\u5c40\u4e2d\u6751\u6cb3\u5ddd\u56fd\u9053\u4e8b\u52d9\u6240","boring_xml_url":40,"boring_view_url":1,"soilmap_view_url":null,"soiltest_xml_url":0,"soiltest_view_url":0},{"id":197506,"code":"B4KJ201801008-5755","latitude":"32.97393333","longitude":"132.8888519","source_code":"SK49323761001","project_name":"","survey_name":"\u662d\u548c56\u5e74\u5ea6\u56fd\u898b\u5824\u9632\u59161\u4ef6\u5730\u8cea\u8abf\u67fb\u696d\u52d9","client_name":"\u56fd\u571f\u4ea4\u901a\u7701\u56db\u56fd\u5730\u65b9\u6574\u5099\u5c40\u4e2d\u6751\u6cb3\u5ddd\u56fd\u9053\u4e8b\u52d9\u6240","boring_xml_url":40,"boring_view_url":1,"soilmap_view_url":null,"soiltest_xml_url":0,"soiltest_view_url":0},{"id":197505,"code":"B4KJ201801008-5754","latitude":"32.97048917","longitude":"132.8766308","source_code":"SK49323760017","project_name":"","survey_name":"\u5e73\u62105\u5e74\u5ea6\u9593\u5730\u533a\u5730\u8cea\u8abf\u67fb\u696d\u52d9","client_name":"\u56fd\u571f\u4ea4\u901a\u7701\u56db\u56fd\u5730\u65b9\u6574\u5099\u5c40\u4e2d\u6751\u6cb3\u5ddd\u56fd\u9053\u4e8b\u52d9\u6240","boring_xml_url":40,"boring_view_url":1,"soilmap_view_url":null,"soiltest_xml_url":0,"soiltest_view_url":0},{"id":197504,"code":"B4KJ201801008-5753","latitude":"32.9708225","longitude":"132.8782975","source_code":"SK49323760016","project_name":"","survey_name":"\u5e73\u62105\u5e74\u5ea6\u9593\u5730\u533a\u5730\u8cea\u8abf\u67fb\u696d\u52d9","client_name":"\u56fd\u571f\u4ea4\u901a\u7701\u56db\u56fd\u5730\u65b9\u6574\u5099\u5c40\u4e2d\u6751\u6cb3\u5ddd\u56fd\u9053\u4e8b\u52d9\u6240","boring_xml_url":40,"boring_view_url":1,"soilmap_view_url":null,"soiltest_xml_url":0,"soiltest_view_url":0},{"id":197503,"code":"B4KJ201801008-5752","latitude":"32.9700725","longitude":"132.8755478","source_code":"SK49323760015","project_name":"","survey_name":"\u5e73\u62105\u5e74\u5ea6\u9593\u5730\u533a\u5730\u8cea\u8abf\u67fb\u696d\u52d9","client_name":"\u56fd\u571f\u4ea4\u901a\u7701\u56db\u56fd\u5730\u65b9\u6574\u5099\u5c40\u4e2d\u6751\u6cb3\u5ddd\u56fd\u9053\u4e8b\u52d9\u6240","boring_xml_url":40,"boring_view_url":1,"soilmap_view_url":null,"soiltest_xml_url":0,"soiltest_view_url":0},{"id":197502,"code":"B4KJ201801008-5751","latitude":"32.97040583","longitude":"132.8760478","source_code":"SK49323760014","project_name":"","survey_name":"\u5e73\u62105\u5e74\u5ea6\u9593\u5730\u533a\u5730\u8cea\u8abf\u67fb\u696d\u52d9","client_name":"\u56fd\u571f\u4ea4\u901a\u7701\u56db\u56fd\u5730\u65b9\u6574\u5099\u5c40\u4e2d\u6751\u6cb3\u5ddd\u56fd\u9053\u4e8b\u52d9\u6240","boring_xml_url":40,"boring_view_url":1,"soilmap_view_url":null,"soiltest_xml_url":0,"soiltest_view_url":0},{"id":197501,"code":"B4KJ201801008-5750","latitude":"32.97085028","longitude":"132.8774086","source_code":"SK49323760013","project_name":"","survey_name":"\u5e73\u62105\u5e74\u5ea6\u9593\u5730\u533a\u5730\u8cea\u8abf\u67fb\u696d\u52d9","client_name":"\u56fd\u571f\u4ea4\u901a\u7701\u56db\u56fd\u5730\u65b9\u6574\u5099\u5c40\u4e2d\u6751\u6cb3\u5ddd\u56fd\u9053\u4e8b\u52d9\u6240","boring_xml_url":40,"boring_view_url":1,"soilmap_view_url":null,"soiltest_xml_url":0,"soiltest_view_url":0},{"id":197500,"code":"B4KJ201801008-5749","latitude":"32.97098917","longitude":"132.8782975","source_code":"SK49323760012","project_name":"","survey_name":"\u5e73\u62105\u5e74\u5ea6\u9593\u5730\u533a\u5730\u8cea\u8abf\u67fb\u696d\u52d9","client_name":"\u56fd\u571f\u4ea4\u901a\u7701\u56db\u56fd\u5730\u65b9\u6574\u5099\u5c40\u4e2d\u6751\u6cb3\u5ddd\u56fd\u9053\u4e8b\u52d9\u6240","boring_xml_url":40,"boring_view_url":1,"soilmap_view_url":null,"soiltest_xml_url":0,"soiltest_view_url":0},{"id":197499,"code":"B4KJ201801008-5748","latitude":"32.97643306","longitude":"132.88413","source_code":"SK49323760008","project_name":"","survey_name":"\u5e73\u62102\u5e74\u5ea6\u698e\u6ca2\u6a0b\u7ba1\u5730\u8cea\u8abf\u67fb\u696d\u52d9","client_name":"\u56fd\u571f\u4ea4\u901a\u7701\u56db\u56fd\u5730\u65b9\u6574\u5099\u5c40\u4e2d\u6751\u6cb3\u5ddd\u56fd\u9053\u4e8b\u52d9\u6240","boring_xml_url":40,"boring_view_url":1,"soilmap_view_url":null,"soiltest_xml_url":0,"soiltest_view_url":0},{"id":197498,"code":"B4KJ201801008-5747","latitude":"32.97643306","longitude":"132.88413","source_code":"SK49323760007","project_name":"","survey_name":"\u5e73\u62102\u5e74\u5ea6\u698e\u6ca2\u6a0b\u7ba1\u5730\u8cea\u8abf\u67fb\u696d\u52d9","client_name":"\u56fd\u571f\u4ea4\u901a\u7701\u56db\u56fd\u5730\u65b9\u6574\u5099\u5c40\u4e2d\u6751\u6cb3\u5ddd\u56fd\u9053\u4e8b\u52d9\u6240","boring_xml_url":40,"boring_view_url":1,"soilmap_view_url":null,"soiltest_xml_url":0,"soiltest_view_url":0},{"id":197497,"code":"B4KJ201801008-5746","latitude":"32.97707167","longitude":"132.8768531","source_code":"SK49323760002","project_name":"","survey_name":"\u68ee\u6ca2\u56fd\u898b\u5730\u5148\u5730\u8cea\u8abf\u67fb\u696d\u52d9","client_name":"\u56fd\u571f\u4ea4\u901a\u7701\u56db\u56fd\u5730\u65b9\u6574\u5099\u5c40\u4e2d\u6751\u6cb3\u5ddd\u56fd\u9053\u4e8b\u52d9\u6240","boring_xml_url":40,"boring_view_url":1,"soilmap_view_url":null,"soiltest_xml_url":0,"soiltest_view_url":0},{"id":197496,"code":"B4KJ201801008-5745","latitude":"32.97782167","longitude":"132.8794083","source_code":"SK49323760001","project_name":"","survey_name":"\u662d\u548c56\u5e74\u5ea6\u56fd\u898b\u5824\u9632\u59161\u4ef6\u5730\u8cea\u8abf\u67fb\u696d\u52d9","client_name":"\u56fd\u571f\u4ea4\u901a\u7701\u56db\u56fd\u5730\u65b9\u6574\u5099\u5c40\u4e2d\u6751\u6cb3\u5ddd\u56fd\u9053\u4e8b\u52d9\u6240","boring_xml_url":40,"boring_view_url":1,"soilmap_view_url":null,"soiltest_xml_url":0,"soiltest_view_url":0},{"id":197495,"code":"B4KJ201801008-5744","latitude":"32.96499139","longitude":"132.9674286","source_code":"SK49323757001","project_name":"","survey_name":"\u5c71\u8def\u80cc\u5272\u5824\u8a66\u9310\u696d\u52d9","client_name":"\u56fd\u571f\u4ea4\u901a\u7701\u56db\u56fd\u5730\u65b9\u6574\u5099\u5c40\u4e2d\u6751\u6cb3\u5ddd\u56fd\u9053\u4e8b\u52d9\u6240","boring_xml_url":40,"boring_view_url":1,"soilmap_view_url":null,"soiltest_xml_url":0,"soiltest_view_url":0},{"id":197494,"code":"B4KJ201801008-5743","latitude":"32.96782444","longitude":"132.9568183","source_code":"SK49323756019","project_name":"","survey_name":"\u5e73\u62105\u5e74\u5ea6\u5c71\u8def\u5730\u533a\u5730\u8cea\u8abf\u67fb\u696d\u52d9","client_name":"\u56fd\u571f\u4ea4\u901a\u7701\u56db\u56fd\u5730\u65b9\u6574\u5099\u5c40\u4e2d\u6751\u6cb3\u5ddd\u56fd\u9053\u4e8b\u52d9\u6240","boring_xml_url":40,"boring_view_url":1,"soilmap_view_url":null,"soiltest_xml_url":0,"soiltest_view_url":0},{"id":197493,"code":"B4KJ201801008-5742","latitude":"32.96790778","longitude":"132.956735","source_code":"SK49323756018","project_name":"","survey_name":"\u5e73\u62105\u5e74\u5ea6\u5c71\u8def\u5730\u533a\u5730\u8cea\u8abf\u67fb\u696d\u52d9","client_name":"\u56fd\u571f\u4ea4\u901a\u7701\u56db\u56fd\u5730\u65b9\u6574\u5099\u5c40\u4e2d\u6751\u6cb3\u5ddd\u56fd\u9053\u4e8b\u52d9\u6240","boring_xml_url":40,"boring_view_url":1,"soilmap_view_url":null,"soiltest_xml_url":0,"soiltest_view_url":0},{"id":197492,"code":"B4KJ201801008-5741","latitude":"32.96799083","longitude":"132.9566517","source_code":"SK49323756017","project_name":"","survey_name":"\u5e73\u62105\u5e74\u5ea6\u5c71\u8def\u5730\u533a\u5730\u8cea\u8abf\u67fb\u696d\u52d9","client_name":"\u56fd\u571f\u4ea4\u901a\u7701\u56db\u56fd\u5730\u65b9\u6574\u5099\u5c40\u4e2d\u6751\u6cb3\u5ddd\u56fd\u9053\u4e8b\u52d9\u6240","boring_xml_url":40,"boring_view_url":1,"soilmap_view_url":null,"soiltest_xml_url":0,"soiltest_view_url":0},{"id":197491,"code":"B4KJ201801008-5740","latitude":"32.96651889","longitude":"132.9518189","source_code":"SK49323756016","project_name":"","survey_name":"\u5e73\u62105\u5e74\u5ea6\u5c71\u8def\u5730\u533a\u5730\u8cea\u8abf\u67fb\u696d\u52d9","client_name":"\u56fd\u571f\u4ea4\u901a\u7701\u56db\u56fd\u5730\u65b9\u6574\u5099\u5c40\u4e2d\u6751\u6cb3\u5ddd\u56fd\u9053\u4e8b\u52d9\u6240","boring_xml_url":40,"boring_view_url":1,"soilmap_view_url":null,"soiltest_xml_url":0,"soiltest_view_url":0},{"id":197490,"code":"B4KJ201801008-5739","latitude":"32.96843528","longitude":"132.9572072","source_code":"SK49323756015","project_name":"","survey_name":"\u5e73\u62105\u5e74\u5ea6\u5c71\u8def\u5730\u533a\u5730\u8cea\u8abf\u67fb\u696d\u52d9","client_name":"\u56fd\u571f\u4ea4\u901a\u7701\u56db\u56fd\u5730\u65b9\u6574\u5099\u5c40\u4e2d\u6751\u6cb3\u5ddd\u56fd\u9053\u4e8b\u52d9\u6240","boring_xml_url":40,"boring_view_url":1,"soilmap_view_url":null,"soiltest_xml_url":0,"soiltest_view_url":0},{"id":197489,"code":"B4KJ201801008-5738","latitude":"32.96946306","longitude":"132.9570128","source_code":"SK49323756003","project_name":"","survey_name":"\u662d\u548c56\u5e74\u5ea6\u5c71\u8def\u5730\u5148\u5730\u8cea\u8abf\u67fb\u59161\u4ef6\u696d\u52d9","client_name":"\u56fd\u571f\u4ea4\u901a\u7701\u56db\u56fd\u5730\u65b9\u6574\u5099\u5c40\u4e2d\u6751\u6cb3\u5ddd\u56fd\u9053\u4e8b\u52d9\u6240","boring_xml_url":40,"boring_view_url":1,"soilmap_view_url":null,"soiltest_xml_url":0,"soiltest_view_url":0},{"id":197488,"code":"B4KJ201801008-5737","latitude":"32.96912972","longitude":"132.9572906","source_code":"SK49323756002","project_name":"","survey_name":"\u662d\u548c56\u5e74\u5ea6\u5c71\u8def\u5730\u5148\u5730\u8cea\u8abf\u67fb\u59161\u4ef6\u696d\u52d9","client_name":"\u56fd\u571f\u4ea4\u901a\u7701\u56db\u56fd\u5730\u65b9\u6574\u5099\u5c40\u4e2d\u6751\u6cb3\u5ddd\u56fd\u9053\u4e8b\u52d9\u6240","boring_xml_url":40,"boring_view_url":1,"soilmap_view_url":null,"soiltest_xml_url":0,"soiltest_view_url":0},{"id":197487,"code":"B4KJ201801008-5736","latitude":"32.96993528","longitude":"132.9596792","source_code":"SK49323756001","project_name":"","survey_name":"\u662d\u548c56\u5e74\u5ea6\u5c71\u8def\u5730\u5148\u5730\u8cea\u8abf\u67fb\u59161\u4ef6\u696d\u52d9","client_name":"\u56fd\u571f\u4ea4\u901a\u7701\u56db\u56fd\u5730\u65b9\u6574\u5099\u5c40\u4e2d\u6751\u6cb3\u5ddd\u56fd\u9053\u4e8b\u52d9\u6240","boring_xml_url":40,"boring_view_url":1,"soilmap_view_url":null,"soiltest_xml_url":0,"soiltest_view_url":0},{"id":197486,"code":"B4KJ201801008-5735","latitude":"32.96937861","longitude":"132.9096836","source_code":"SK49323752003","project_name":"","survey_name":"\u98a8\u6307\u7bc9\u5824\u5730\u8cea\u8abf\u67fb\u696d\u52d9","client_name":"\u56fd\u571f\u4ea4\u901a\u7701\u56db\u56fd\u5730\u65b9\u6574\u5099\u5c40\u4e2d\u6751\u6cb3\u5ddd\u56fd\u9053\u4e8b\u52d9\u6240","boring_xml_url":40,"boring_view_url":1,"soilmap_view_url":null,"soiltest_xml_url":0,"soiltest_view_url":0}]}}