{"header":{"xyz":{"source":[],"mosaic":false},"page":4103,"raw":{"soiltest_result":"0","bbox":"57.598333,109.544722,1.933333,163.806111","page":"4103"},"conditions":{"soiltest_result":0,"north":57.598333,"west":109.544722,"south":1.933333,"east":163.806111},"success":true,"message":""},"data":{"meta":{"total":212844,"page":4103,"pages":7095,"count":30},"values":[{"id":197485,"code":"B4KJ201801008-5734","latitude":"32.96962861","longitude":"132.9082392","source_code":"SK49323752002","project_name":"","survey_name":"\u662d\u548c60\u5e74\u5ea6\u98a8\u6307\u6a0b\u9580\u59161\u4ef6\u5730\u8cea\u8abf\u67fb\u696d\u52d9","client_name":"\u56fd\u571f\u4ea4\u901a\u7701\u56db\u56fd\u5730\u65b9\u6574\u5099\u5c40\u4e2d\u6751\u6cb3\u5ddd\u56fd\u9053\u4e8b\u52d9\u6240","boring_xml_url":40,"boring_view_url":1,"soilmap_view_url":null,"soiltest_xml_url":0,"soiltest_view_url":0},{"id":197484,"code":"B4KJ201801008-5733","latitude":"32.96748972","longitude":"132.8929631","source_code":"SK49323751011","project_name":"","survey_name":"\u5e73\u6210\u5143\u5e74\u5ea6\u6d45\u6751\u9ad8\u67b6\u6a4b\u5730\u8cea\u8abf\u67fb\u696d\u52d9","client_name":"\u56fd\u571f\u4ea4\u901a\u7701\u56db\u56fd\u5730\u65b9\u6574\u5099\u5c40\u4e2d\u6751\u6cb3\u5ddd\u56fd\u9053\u4e8b\u52d9\u6240","boring_xml_url":40,"boring_view_url":1,"soilmap_view_url":null,"soiltest_xml_url":0,"soiltest_view_url":0},{"id":197483,"code":"B4KJ201801008-5732","latitude":"32.96690639","longitude":"132.8897689","source_code":"SK49323751010","project_name":"","survey_name":"\u5e73\u6210\u5143\u5e74\u5ea6\u6d45\u6751\u9ad8\u67b6\u6a4b\u5730\u8cea\u8abf\u67fb\u696d\u52d9","client_name":"\u56fd\u571f\u4ea4\u901a\u7701\u56db\u56fd\u5730\u65b9\u6574\u5099\u5c40\u4e2d\u6751\u6cb3\u5ddd\u56fd\u9053\u4e8b\u52d9\u6240","boring_xml_url":40,"boring_view_url":1,"soilmap_view_url":null,"soiltest_xml_url":0,"soiltest_view_url":0},{"id":197482,"code":"B4KJ201801008-5731","latitude":"32.96671194","longitude":"132.8901578","source_code":"SK49323751009","project_name":"","survey_name":"\u5e73\u6210\u5143\u5e74\u5ea6\u6d45\u6751\u9ad8\u67b6\u6a4b\u5730\u8cea\u8abf\u67fb\u696d\u52d9","client_name":"\u56fd\u571f\u4ea4\u901a\u7701\u56db\u56fd\u5730\u65b9\u6574\u5099\u5c40\u4e2d\u6751\u6cb3\u5ddd\u56fd\u9053\u4e8b\u52d9\u6240","boring_xml_url":40,"boring_view_url":1,"soilmap_view_url":null,"soiltest_xml_url":0,"soiltest_view_url":0},{"id":197481,"code":"B4KJ201801008-5730","latitude":"32.96690639","longitude":"132.8903519","source_code":"SK49323751008","project_name":"","survey_name":"\u5e73\u6210\u5143\u5e74\u5ea6\u6d45\u6751\u9ad8\u67b6\u6a4b\u5730\u8cea\u8abf\u67fb\u696d\u52d9","client_name":"\u56fd\u571f\u4ea4\u901a\u7701\u56db\u56fd\u5730\u65b9\u6574\u5099\u5c40\u4e2d\u6751\u6cb3\u5ddd\u56fd\u9053\u4e8b\u52d9\u6240","boring_xml_url":40,"boring_view_url":1,"soilmap_view_url":null,"soiltest_xml_url":0,"soiltest_view_url":0},{"id":197480,"code":"B4KJ201801008-5729","latitude":"32.9667675","longitude":"132.8905742","source_code":"SK49323751007","project_name":"","survey_name":"\u5e73\u6210\u5143\u5e74\u5ea6\u6d45\u6751\u9ad8\u67b6\u6a4b\u5730\u8cea\u8abf\u67fb\u696d\u52d9","client_name":"\u56fd\u571f\u4ea4\u901a\u7701\u56db\u56fd\u5730\u65b9\u6574\u5099\u5c40\u4e2d\u6751\u6cb3\u5ddd\u56fd\u9053\u4e8b\u52d9\u6240","boring_xml_url":40,"boring_view_url":1,"soilmap_view_url":null,"soiltest_xml_url":0,"soiltest_view_url":0},{"id":197479,"code":"B4KJ201801008-5728","latitude":"32.96696194","longitude":"132.8907686","source_code":"SK49323751006","project_name":"","survey_name":"\u5e73\u6210\u5143\u5e74\u5ea6\u6d45\u6751\u9ad8\u67b6\u6a4b\u5730\u8cea\u8abf\u67fb\u696d\u52d9","client_name":"\u56fd\u571f\u4ea4\u901a\u7701\u56db\u56fd\u5730\u65b9\u6574\u5099\u5c40\u4e2d\u6751\u6cb3\u5ddd\u56fd\u9053\u4e8b\u52d9\u6240","boring_xml_url":40,"boring_view_url":1,"soilmap_view_url":null,"soiltest_xml_url":0,"soiltest_view_url":0},{"id":197478,"code":"B4KJ201801008-5727","latitude":"32.96682306","longitude":"132.8910186","source_code":"SK49323751005","project_name":"","survey_name":"\u5e73\u6210\u5143\u5e74\u5ea6\u6d45\u6751\u9ad8\u67b6\u6a4b\u5730\u8cea\u8abf\u67fb\u696d\u52d9","client_name":"\u56fd\u571f\u4ea4\u901a\u7701\u56db\u56fd\u5730\u65b9\u6574\u5099\u5c40\u4e2d\u6751\u6cb3\u5ddd\u56fd\u9053\u4e8b\u52d9\u6240","boring_xml_url":40,"boring_view_url":1,"soilmap_view_url":null,"soiltest_xml_url":0,"soiltest_view_url":0},{"id":197477,"code":"B4KJ201801008-5726","latitude":"32.96704528","longitude":"132.8911575","source_code":"SK49323751004","project_name":"","survey_name":"\u5e73\u6210\u5143\u5e74\u5ea6\u6d45\u6751\u9ad8\u67b6\u6a4b\u5730\u8cea\u8abf\u67fb\u696d\u52d9","client_name":"\u56fd\u571f\u4ea4\u901a\u7701\u56db\u56fd\u5730\u65b9\u6574\u5099\u5c40\u4e2d\u6751\u6cb3\u5ddd\u56fd\u9053\u4e8b\u52d9\u6240","boring_xml_url":40,"boring_view_url":1,"soilmap_view_url":null,"soiltest_xml_url":0,"soiltest_view_url":0},{"id":197476,"code":"B4KJ201801008-5725","latitude":"32.96693417","longitude":"132.8914353","source_code":"SK49323751003","project_name":"","survey_name":"\u5e73\u6210\u5143\u5e74\u5ea6\u6d45\u6751\u9ad8\u67b6\u6a4b\u5730\u8cea\u8abf\u67fb\u696d\u52d9","client_name":"\u56fd\u571f\u4ea4\u901a\u7701\u56db\u56fd\u5730\u65b9\u6574\u5099\u5c40\u4e2d\u6751\u6cb3\u5ddd\u56fd\u9053\u4e8b\u52d9\u6240","boring_xml_url":40,"boring_view_url":1,"soilmap_view_url":null,"soiltest_xml_url":0,"soiltest_view_url":0},{"id":197475,"code":"B4KJ201801008-5724","latitude":"32.9672675","longitude":"132.8923797","source_code":"SK49323751002","project_name":"","survey_name":"\u5e73\u6210\u5143\u5e74\u5ea6\u6d45\u6751\u9ad8\u67b6\u6a4b\u5730\u8cea\u8abf\u67fb\u696d\u52d9","client_name":"\u56fd\u571f\u4ea4\u901a\u7701\u56db\u56fd\u5730\u65b9\u6574\u5099\u5c40\u4e2d\u6751\u6cb3\u5ddd\u56fd\u9053\u4e8b\u52d9\u6240","boring_xml_url":40,"boring_view_url":1,"soilmap_view_url":null,"soiltest_xml_url":0,"soiltest_view_url":0},{"id":197474,"code":"B4KJ201801008-5723","latitude":"32.96732306","longitude":"132.8930186","source_code":"SK49323751001","project_name":"","survey_name":"\u5e73\u6210\u5143\u5e74\u5ea6\u6d45\u6751\u9ad8\u67b6\u6a4b\u5730\u8cea\u8abf\u67fb\u696d\u52d9","client_name":"\u56fd\u571f\u4ea4\u901a\u7701\u56db\u56fd\u5730\u65b9\u6574\u5099\u5c40\u4e2d\u6751\u6cb3\u5ddd\u56fd\u9053\u4e8b\u52d9\u6240","boring_xml_url":40,"boring_view_url":1,"soilmap_view_url":null,"soiltest_xml_url":0,"soiltest_view_url":0},{"id":197473,"code":"B4KJ201801008-5722","latitude":"32.96846139","longitude":"132.8736592","source_code":"SK49323750007","project_name":"","survey_name":"\u5e73\u621010\u5e74\u5ea6\u53e4\u6d25\u8cc0\u5730\u533a\u5730\u8cea\u8abf\u67fb\u696d\u52d9","client_name":"\u56fd\u571f\u4ea4\u901a\u7701\u56db\u56fd\u5730\u65b9\u6574\u5099\u5c40\u4e2d\u6751\u6cb3\u5ddd\u56fd\u9053\u4e8b\u52d9\u6240","boring_xml_url":40,"boring_view_url":1,"soilmap_view_url":null,"soiltest_xml_url":0,"soiltest_view_url":0},{"id":197472,"code":"B4KJ201801008-5721","latitude":"32.96940583","longitude":"132.8743256","source_code":"SK49323750006","project_name":"","survey_name":"\u5e73\u62105\u5e74\u5ea6\u9593\u5730\u533a\u5730\u8cea\u8abf\u67fb\u696d\u52d9","client_name":"\u56fd\u571f\u4ea4\u901a\u7701\u56db\u56fd\u5730\u65b9\u6574\u5099\u5c40\u4e2d\u6751\u6cb3\u5ddd\u56fd\u9053\u4e8b\u52d9\u6240","boring_xml_url":40,"boring_view_url":1,"soilmap_view_url":null,"soiltest_xml_url":0,"soiltest_view_url":0},{"id":197471,"code":"B4KJ201801008-5720","latitude":"32.95579833","longitude":"132.9725397","source_code":"SK49323748001","project_name":"","survey_name":"\u5e73\u62102\u5e74\u5ea6\u4e2d\u7b4b\u5ddd\u80cc\u5272\u5824\u5730\u8cea\u8abf\u67fb\u696d\u52d9","client_name":"\u56fd\u571f\u4ea4\u901a\u7701\u56db\u56fd\u5730\u65b9\u6574\u5099\u5c40\u4e2d\u6751\u6cb3\u5ddd\u56fd\u9053\u4e8b\u52d9\u6240","boring_xml_url":40,"boring_view_url":1,"soilmap_view_url":null,"soiltest_xml_url":0,"soiltest_view_url":0},{"id":197470,"code":"B4KJ201801008-5719","latitude":"32.95424278","longitude":"132.9695122","source_code":"SK49323747015","project_name":"","survey_name":"\u5e73\u62107\u5e74\u5ea6 \u5b9f\u5d0e\u5730\u8cea\u8abf\u67fb\u696d\u52d9","client_name":"\u56fd\u571f\u4ea4\u901a\u7701\u56db\u56fd\u5730\u65b9\u6574\u5099\u5c40\u4e2d\u6751\u6cb3\u5ddd\u56fd\u9053\u4e8b\u52d9\u6240","boring_xml_url":40,"boring_view_url":1,"soilmap_view_url":null,"soiltest_xml_url":0,"soiltest_view_url":0},{"id":197469,"code":"B4KJ201801008-5718","latitude":"32.95429833","longitude":"132.9695122","source_code":"SK49323747014","project_name":"","survey_name":"\u5e73\u62107\u5e74\u5ea6 \u5b9f\u5d0e\u5730\u8cea\u8abf\u67fb\u696d\u52d9","client_name":"\u56fd\u571f\u4ea4\u901a\u7701\u56db\u56fd\u5730\u65b9\u6574\u5099\u5c40\u4e2d\u6751\u6cb3\u5ddd\u56fd\u9053\u4e8b\u52d9\u6240","boring_xml_url":40,"boring_view_url":1,"soilmap_view_url":null,"soiltest_xml_url":0,"soiltest_view_url":0},{"id":197468,"code":"B4KJ201801008-5717","latitude":"32.95449278","longitude":"132.9699564","source_code":"SK49323747013","project_name":"","survey_name":"\u5e73\u62105\u5e74\u5ea6\u5b9f\u5d0e\u5730\u533a\u5730\u8cea\u8abf\u67fb\u696d\u52d9","client_name":"\u56fd\u571f\u4ea4\u901a\u7701\u56db\u56fd\u5730\u65b9\u6574\u5099\u5c40\u4e2d\u6751\u6cb3\u5ddd\u56fd\u9053\u4e8b\u52d9\u6240","boring_xml_url":40,"boring_view_url":1,"soilmap_view_url":null,"soiltest_xml_url":0,"soiltest_view_url":0},{"id":197467,"code":"B4KJ201801008-5716","latitude":"32.95477056","longitude":"132.9699564","source_code":"SK49323747012","project_name":"","survey_name":"\u5e73\u62105\u5e74\u5ea6\u5b9f\u5d0e\u5730\u533a\u5730\u8cea\u8abf\u67fb\u696d\u52d9","client_name":"\u56fd\u571f\u4ea4\u901a\u7701\u56db\u56fd\u5730\u65b9\u6574\u5099\u5c40\u4e2d\u6751\u6cb3\u5ddd\u56fd\u9053\u4e8b\u52d9\u6240","boring_xml_url":40,"boring_view_url":1,"soilmap_view_url":null,"soiltest_xml_url":0,"soiltest_view_url":0},{"id":197466,"code":"B4KJ201801008-5715","latitude":"32.95513167","longitude":"132.9719842","source_code":"SK49323747011","project_name":"","survey_name":"\u5e73\u62102\u5e74\u5ea6\u4e2d\u7b4b\u5ddd\u80cc\u5272\u5824\u5730\u8cea\u8abf\u67fb\u696d\u52d9","client_name":"\u56fd\u571f\u4ea4\u901a\u7701\u56db\u56fd\u5730\u65b9\u6574\u5099\u5c40\u4e2d\u6751\u6cb3\u5ddd\u56fd\u9053\u4e8b\u52d9\u6240","boring_xml_url":40,"boring_view_url":1,"soilmap_view_url":null,"soiltest_xml_url":0,"soiltest_view_url":0},{"id":197465,"code":"B4KJ201801008-5714","latitude":"32.95738139","longitude":"132.9713175","source_code":"SK49323747010","project_name":"","survey_name":"\u5e73\u62102\u5e74\u5ea6\u4e2d\u7b4b\u5ddd\u80cc\u5272\u5824\u5730\u8cea\u8abf\u67fb\u696d\u52d9","client_name":"\u56fd\u571f\u4ea4\u901a\u7701\u56db\u56fd\u5730\u65b9\u6574\u5099\u5c40\u4e2d\u6751\u6cb3\u5ddd\u56fd\u9053\u4e8b\u52d9\u6240","boring_xml_url":40,"boring_view_url":1,"soilmap_view_url":null,"soiltest_xml_url":0,"soiltest_view_url":0},{"id":197464,"code":"B4KJ201801008-5713","latitude":"32.9574925","longitude":"132.9718453","source_code":"SK49323747009","project_name":"","survey_name":"\u5e73\u62102\u5e74\u5ea6\u4e2d\u7b4b\u5ddd\u80cc\u5272\u5824\u5730\u8cea\u8abf\u67fb\u696d\u52d9","client_name":"\u56fd\u571f\u4ea4\u901a\u7701\u56db\u56fd\u5730\u65b9\u6574\u5099\u5c40\u4e2d\u6751\u6cb3\u5ddd\u56fd\u9053\u4e8b\u52d9\u6240","boring_xml_url":40,"boring_view_url":1,"soilmap_view_url":null,"soiltest_xml_url":0,"soiltest_view_url":0},{"id":197463,"code":"B4KJ201801008-5712","latitude":"32.95415944","longitude":"132.9710675","source_code":"SK49323747008","project_name":"","survey_name":"\u5b9f\u5d0e\u6a0b\u9580\u5730\u8cea\u8abf\u67fb\u696d\u52d9","client_name":"\u56fd\u571f\u4ea4\u901a\u7701\u56db\u56fd\u5730\u65b9\u6574\u5099\u5c40\u4e2d\u6751\u6cb3\u5ddd\u56fd\u9053\u4e8b\u52d9\u6240","boring_xml_url":40,"boring_view_url":1,"soilmap_view_url":null,"soiltest_xml_url":0,"soiltest_view_url":0},{"id":197462,"code":"B4KJ201801008-5711","latitude":"32.95432611","longitude":"132.9710675","source_code":"SK49323747007","project_name":"","survey_name":"\u5b9f\u5d0e\u6a0b\u9580\u5730\u8cea\u8abf\u67fb\u696d\u52d9","client_name":"\u56fd\u571f\u4ea4\u901a\u7701\u56db\u56fd\u5730\u65b9\u6574\u5099\u5c40\u4e2d\u6751\u6cb3\u5ddd\u56fd\u9053\u4e8b\u52d9\u6240","boring_xml_url":40,"boring_view_url":1,"soilmap_view_url":null,"soiltest_xml_url":0,"soiltest_view_url":0},{"id":197461,"code":"B4KJ201801008-5710","latitude":"32.95429833","longitude":"132.9708175","source_code":"SK49323747006","project_name":"","survey_name":"\u5b9f\u5d0e\u6a0b\u9580\u5730\u8cea\u8abf\u67fb\u696d\u52d9","client_name":"\u56fd\u571f\u4ea4\u901a\u7701\u56db\u56fd\u5730\u65b9\u6574\u5099\u5c40\u4e2d\u6751\u6cb3\u5ddd\u56fd\u9053\u4e8b\u52d9\u6240","boring_xml_url":40,"boring_view_url":1,"soilmap_view_url":null,"soiltest_xml_url":0,"soiltest_view_url":0},{"id":197460,"code":"B4KJ201801008-5709","latitude":"32.95415944","longitude":"132.9707342","source_code":"SK49323747005","project_name":"","survey_name":"\u5b9f\u5d0e\u6a0b\u9580\u5730\u8cea\u8abf\u67fb\u696d\u52d9","client_name":"\u56fd\u571f\u4ea4\u901a\u7701\u56db\u56fd\u5730\u65b9\u6574\u5099\u5c40\u4e2d\u6751\u6cb3\u5ddd\u56fd\u9053\u4e8b\u52d9\u6240","boring_xml_url":40,"boring_view_url":1,"soilmap_view_url":null,"soiltest_xml_url":0,"soiltest_view_url":0},{"id":197459,"code":"B4KJ201801008-5708","latitude":"32.95440944","longitude":"132.9705953","source_code":"SK49323747004","project_name":"","survey_name":"\u5b9f\u5d0e\u6a0b\u9580\u5730\u8cea\u8abf\u67fb\u696d\u52d9","client_name":"\u56fd\u571f\u4ea4\u901a\u7701\u56db\u56fd\u5730\u65b9\u6574\u5099\u5c40\u4e2d\u6751\u6cb3\u5ddd\u56fd\u9053\u4e8b\u52d9\u6240","boring_xml_url":40,"boring_view_url":1,"soilmap_view_url":null,"soiltest_xml_url":0,"soiltest_view_url":0},{"id":197458,"code":"B4KJ201801008-5707","latitude":"32.95407611","longitude":"132.9703731","source_code":"SK49323747003","project_name":"","survey_name":"\u5b9f\u5d0e\u6a0b\u9580\u5730\u8cea\u8abf\u67fb\u696d\u52d9","client_name":"\u56fd\u571f\u4ea4\u901a\u7701\u56db\u56fd\u5730\u65b9\u6574\u5099\u5c40\u4e2d\u6751\u6cb3\u5ddd\u56fd\u9053\u4e8b\u52d9\u6240","boring_xml_url":40,"boring_view_url":1,"soilmap_view_url":null,"soiltest_xml_url":0,"soiltest_view_url":0},{"id":197457,"code":"B4KJ201801008-5706","latitude":"32.95440944","longitude":"132.9703731","source_code":"SK49323747002","project_name":"","survey_name":"\u662d\u548c61\u5e74\u5ea6\u5b9f\u5d0e\u6a0b\u9580\u5730\u8cea\u8abf\u67fb\u696d\u52d9","client_name":"\u56fd\u571f\u4ea4\u901a\u7701\u56db\u56fd\u5730\u65b9\u6574\u5099\u5c40\u4e2d\u6751\u6cb3\u5ddd\u56fd\u9053\u4e8b\u52d9\u6240","boring_xml_url":40,"boring_view_url":1,"soilmap_view_url":null,"soiltest_xml_url":0,"soiltest_view_url":0},{"id":197456,"code":"B4KJ201801008-5705","latitude":"32.95913111","longitude":"132.9689286","source_code":"SK49323747001","project_name":"","survey_name":"\u5b9f\u5d0e\u6a0b\u7ba1\u8abf\u67fb\u8a2d\u8a08","client_name":"\u56fd\u571f\u4ea4\u901a\u7701\u56db\u56fd\u5730\u65b9\u6574\u5099\u5c40\u4e2d\u6751\u6cb3\u5ddd\u56fd\u9053\u4e8b\u52d9\u6240","boring_xml_url":40,"boring_view_url":1,"soilmap_view_url":null,"soiltest_xml_url":0,"soiltest_view_url":0}]}}