{"header":{"xyz":{"source":[],"mosaic":false},"page":4111,"raw":{"soiltest_result":"0","bbox":"57.598333,109.544722,1.933333,163.806111","page":"4111"},"conditions":{"soiltest_result":0,"north":57.598333,"west":109.544722,"south":1.933333,"east":163.806111},"success":true,"message":""},"data":{"meta":{"total":212844,"page":4111,"pages":7095,"count":30},"values":[{"id":197245,"code":"B4KJ201801008-5494","latitude":"34.24291389","longitude":"134.34145","source_code":"SK078840612000280004","project_name":"\u5927\u5185\u767d\u9ce5\u30d0\u30a4\u30d1\u30b9","survey_name":"\u5e73\u621019\u5e74\u5ea6 \u7ba1\u5185\u5730\u8cea\u8abf\u67fb\u696d\u52d9(\u305d\u306e2)","client_name":"\u56fd\u571f\u4ea4\u901a\u7701\u56db\u56fd\u5730\u65b9\u6574\u5099\u5c40\u9999\u5ddd\u6cb3\u5ddd\u56fd\u9053\u4e8b\u52d9\u6240","boring_xml_url":47,"boring_view_url":1,"soilmap_view_url":null,"soiltest_xml_url":0,"soiltest_view_url":0},{"id":197244,"code":"B4KJ201801008-5493","latitude":"34.24308611","longitude":"134.3418694","source_code":"SK078840612000280003","project_name":"\u5927\u5185\u767d\u9ce5\u30d0\u30a4\u30d1\u30b9","survey_name":"\u5e73\u621019\u5e74\u5ea6 \u7ba1\u5185\u5730\u8cea\u8abf\u67fb\u696d\u52d9(\u305d\u306e2)","client_name":"\u56fd\u571f\u4ea4\u901a\u7701\u56db\u56fd\u5730\u65b9\u6574\u5099\u5c40\u9999\u5ddd\u6cb3\u5ddd\u56fd\u9053\u4e8b\u52d9\u6240","boring_xml_url":47,"boring_view_url":1,"soilmap_view_url":null,"soiltest_xml_url":0,"soiltest_view_url":0},{"id":197243,"code":"B4KJ201801008-5492","latitude":"34.24322778","longitude":"134.3422028","source_code":"SK078840612000280002","project_name":"\u5927\u5185\u767d\u9ce5\u30d0\u30a4\u30d1\u30b9","survey_name":"\u5e73\u621019\u5e74\u5ea6 \u7ba1\u5185\u5730\u8cea\u8abf\u67fb\u696d\u52d9(\u305d\u306e2)","client_name":"\u56fd\u571f\u4ea4\u901a\u7701\u56db\u56fd\u5730\u65b9\u6574\u5099\u5c40\u9999\u5ddd\u6cb3\u5ddd\u56fd\u9053\u4e8b\u52d9\u6240","boring_xml_url":47,"boring_view_url":1,"soilmap_view_url":null,"soiltest_xml_url":0,"soiltest_view_url":0},{"id":197242,"code":"B4KJ201801008-5491","latitude":"34.24371111","longitude":"134.3449528","source_code":"SK078840612000280001","project_name":"\u5927\u5185\u767d\u9ce5\u30d0\u30a4\u30d1\u30b9","survey_name":"\u5e73\u621019\u5e74\u5ea6 \u7ba1\u5185\u5730\u8cea\u8abf\u67fb\u696d\u52d9(\u305d\u306e2)","client_name":"\u56fd\u571f\u4ea4\u901a\u7701\u56db\u56fd\u5730\u65b9\u6574\u5099\u5c40\u9999\u5ddd\u6cb3\u5ddd\u56fd\u9053\u4e8b\u52d9\u6240","boring_xml_url":47,"boring_view_url":1,"soilmap_view_url":null,"soiltest_xml_url":0,"soiltest_view_url":0},{"id":197241,"code":"B4KJ201801008-5490","latitude":"34.24383333","longitude":"134.3441389","source_code":"SK078840612000170005","project_name":"","survey_name":"\u5e73\u621019\u5e74\u5ea6 \u7ba1\u5185\u5730\u8cea\u8abf\u67fb\u696d\u52d9","client_name":"\u56fd\u571f\u4ea4\u901a\u7701\u56db\u56fd\u5730\u65b9\u6574\u5099\u5c40\u9999\u5ddd\u6cb3\u5ddd\u56fd\u9053\u4e8b\u52d9\u6240","boring_xml_url":47,"boring_view_url":1,"soilmap_view_url":null,"soiltest_xml_url":0,"soiltest_view_url":0},{"id":197240,"code":"B4KJ201801008-5489","latitude":"34.24294444","longitude":"134.3468889","source_code":"SK078840612000170004","project_name":"","survey_name":"\u5e73\u621019\u5e74\u5ea6 \u7ba1\u5185\u5730\u8cea\u8abf\u67fb\u696d\u52d9","client_name":"\u56fd\u571f\u4ea4\u901a\u7701\u56db\u56fd\u5730\u65b9\u6574\u5099\u5c40\u9999\u5ddd\u6cb3\u5ddd\u56fd\u9053\u4e8b\u52d9\u6240","boring_xml_url":47,"boring_view_url":1,"soilmap_view_url":null,"soiltest_xml_url":0,"soiltest_view_url":0},{"id":197239,"code":"B4KJ201801008-5488","latitude":"34.14950139","longitude":"133.7038009","source_code":"SK078840612000170003","project_name":"","survey_name":"\u5e73\u621019\u5e74\u5ea6 \u7ba1\u5185\u5730\u8cea\u8abf\u67fb\u696d\u52d9","client_name":"\u56fd\u571f\u4ea4\u901a\u7701\u56db\u56fd\u5730\u65b9\u6574\u5099\u5c40\u9999\u5ddd\u6cb3\u5ddd\u56fd\u9053\u4e8b\u52d9\u6240","boring_xml_url":47,"boring_view_url":1,"soilmap_view_url":null,"soiltest_xml_url":0,"soiltest_view_url":0},{"id":197238,"code":"B4KJ201801008-5487","latitude":"34.13636111","longitude":"133.6957222","source_code":"SK078840612000170002","project_name":"","survey_name":"\u5e73\u621019\u5e74\u5ea6 \u7ba1\u5185\u5730\u8cea\u8abf\u67fb\u696d\u52d9","client_name":"\u56fd\u571f\u4ea4\u901a\u7701\u56db\u56fd\u5730\u65b9\u6574\u5099\u5c40\u9999\u5ddd\u6cb3\u5ddd\u56fd\u9053\u4e8b\u52d9\u6240","boring_xml_url":47,"boring_view_url":1,"soilmap_view_url":null,"soiltest_xml_url":48,"soiltest_view_url":48},{"id":197237,"code":"B4KJ201801008-5486","latitude":"34.27286111","longitude":"133.9230833","source_code":"SK078840612000120002","project_name":"\u5e73\u621019\u5e74\u5ea6 \u5e9c\u4e2d\u6e56PA\u30b9\u30de\u30fc\u30c8IC\u5b9f\u65bd\u8a2d\u8a08\u696d\u52d9\u59d4\u8a17","survey_name":"\u5e73\u621019\u5e74\u5ea6 \u5e9c\u4e2d\u6e56PA\u30b9\u30de\u30fc\u30c8IC\u5b9f\u65bd\u8a2d\u8a08\u696d\u52d9\u59d4\u8a17","client_name":"\u56fd\u571f\u4ea4\u901a\u7701\u56db\u56fd\u5730\u65b9\u6574\u5099\u5c40\u9999\u5ddd\u6cb3\u5ddd\u56fd\u9053\u4e8b\u52d9\u6240","boring_xml_url":47,"boring_view_url":1,"soilmap_view_url":null,"soiltest_xml_url":0,"soiltest_view_url":0},{"id":197236,"code":"B4KJ201801008-5485","latitude":"34.27275","longitude":"133.9227778","source_code":"SK078840612000120001","project_name":"\u5e73\u621019\u5e74\u5ea6 \u5e9c\u4e2d\u6e56PA\u30b9\u30de\u30fc\u30c8IC\u5b9f\u65bd\u8a2d\u8a08\u696d\u52d9\u59d4\u8a17","survey_name":"\u5e73\u621019\u5e74\u5ea6 \u5e9c\u4e2d\u6e56PA\u30b9\u30de\u30fc\u30c8IC\u5b9f\u65bd\u8a2d\u8a08\u696d\u52d9\u59d4\u8a17","client_name":"\u56fd\u571f\u4ea4\u901a\u7701\u56db\u56fd\u5730\u65b9\u6574\u5099\u5c40\u9999\u5ddd\u6cb3\u5ddd\u56fd\u9053\u4e8b\u52d9\u6240","boring_xml_url":47,"boring_view_url":1,"soilmap_view_url":null,"soiltest_xml_url":0,"soiltest_view_url":0},{"id":197235,"code":"B4KJ201801008-5484","latitude":"34.18730417","longitude":"133.8723688","source_code":"SK078840402000040016","project_name":"","survey_name":"\u5e73\u621019\u5e74\u5ea6 \u571f\u5668\u5ddd\u5824\u9632\u8cea\u7684\u6574\u5099\u691c\u8a0e\u696d\u52d9\u59d4\u8a17","client_name":"\u56fd\u571f\u4ea4\u901a\u7701\u56db\u56fd\u5730\u65b9\u6574\u5099\u5c40\u9999\u5ddd\u6cb3\u5ddd\u56fd\u9053\u4e8b\u52d9\u6240","boring_xml_url":47,"boring_view_url":1,"soilmap_view_url":null,"soiltest_xml_url":48,"soiltest_view_url":48},{"id":197234,"code":"B4KJ201801008-5483","latitude":"34.18737531","longitude":"133.872405","source_code":"SK078840402000040015","project_name":"","survey_name":"\u5e73\u621019\u5e74\u5ea6 \u571f\u5668\u5ddd\u5824\u9632\u8cea\u7684\u6574\u5099\u691c\u8a0e\u696d\u52d9\u59d4\u8a17","client_name":"\u56fd\u571f\u4ea4\u901a\u7701\u56db\u56fd\u5730\u65b9\u6574\u5099\u5c40\u9999\u5ddd\u6cb3\u5ddd\u56fd\u9053\u4e8b\u52d9\u6240","boring_xml_url":47,"boring_view_url":1,"soilmap_view_url":null,"soiltest_xml_url":48,"soiltest_view_url":48},{"id":197233,"code":"B4KJ201801008-5482","latitude":"34.29854947","longitude":"133.8029536","source_code":"SK078840402000040010","project_name":"","survey_name":"\u5e73\u621019\u5e74\u5ea6 \u571f\u5668\u5ddd\u5824\u9632\u8cea\u7684\u6574\u5099\u691c\u8a0e\u696d\u52d9\u59d4\u8a17","client_name":"\u56fd\u571f\u4ea4\u901a\u7701\u56db\u56fd\u5730\u65b9\u6574\u5099\u5c40\u9999\u5ddd\u6cb3\u5ddd\u56fd\u9053\u4e8b\u52d9\u6240","boring_xml_url":47,"boring_view_url":1,"soilmap_view_url":null,"soiltest_xml_url":48,"soiltest_view_url":48},{"id":197232,"code":"B4KJ201801008-5481","latitude":"34.29775589","longitude":"133.8030328","source_code":"SK078840402000040009","project_name":"","survey_name":"\u5e73\u621019\u5e74\u5ea6 \u571f\u5668\u5ddd\u5824\u9632\u8cea\u7684\u6574\u5099\u691c\u8a0e\u696d\u52d9\u59d4\u8a17","client_name":"\u56fd\u571f\u4ea4\u901a\u7701\u56db\u56fd\u5730\u65b9\u6574\u5099\u5c40\u9999\u5ddd\u6cb3\u5ddd\u56fd\u9053\u4e8b\u52d9\u6240","boring_xml_url":47,"boring_view_url":1,"soilmap_view_url":null,"soiltest_xml_url":48,"soiltest_view_url":48},{"id":197231,"code":"B4KJ201801008-5480","latitude":"34.18808781","longitude":"133.874074","source_code":"SK078840402000040008","project_name":"","survey_name":"\u5e73\u621019\u5e74\u5ea6 \u571f\u5668\u5ddd\u5824\u9632\u8cea\u7684\u6574\u5099\u691c\u8a0e\u696d\u52d9\u59d4\u8a17","client_name":"\u56fd\u571f\u4ea4\u901a\u7701\u56db\u56fd\u5730\u65b9\u6574\u5099\u5c40\u9999\u5ddd\u6cb3\u5ddd\u56fd\u9053\u4e8b\u52d9\u6240","boring_xml_url":47,"boring_view_url":1,"soilmap_view_url":null,"soiltest_xml_url":48,"soiltest_view_url":48},{"id":197230,"code":"B4KJ201801008-5479","latitude":"34.18801739","longitude":"133.8740186","source_code":"SK078840402000040007","project_name":"","survey_name":"\u5e73\u621019\u5e74\u5ea6 \u571f\u5668\u5ddd\u5824\u9632\u8cea\u7684\u6574\u5099\u691c\u8a0e\u696d\u52d9\u59d4\u8a17","client_name":"\u56fd\u571f\u4ea4\u901a\u7701\u56db\u56fd\u5730\u65b9\u6574\u5099\u5c40\u9999\u5ddd\u6cb3\u5ddd\u56fd\u9053\u4e8b\u52d9\u6240","boring_xml_url":47,"boring_view_url":1,"soilmap_view_url":null,"soiltest_xml_url":48,"soiltest_view_url":48},{"id":197229,"code":"B4KJ201801008-5478","latitude":"34.19333589","longitude":"133.8613176","source_code":"SK078840402000040006","project_name":"","survey_name":"\u5e73\u621019\u5e74\u5ea6 \u571f\u5668\u5ddd\u5824\u9632\u8cea\u7684\u6574\u5099\u691c\u8a0e\u696d\u52d9\u59d4\u8a17","client_name":"\u56fd\u571f\u4ea4\u901a\u7701\u56db\u56fd\u5730\u65b9\u6574\u5099\u5c40\u9999\u5ddd\u6cb3\u5ddd\u56fd\u9053\u4e8b\u52d9\u6240","boring_xml_url":47,"boring_view_url":1,"soilmap_view_url":null,"soiltest_xml_url":48,"soiltest_view_url":48},{"id":197228,"code":"B4KJ201801008-5477","latitude":"34.19326564","longitude":"133.8613098","source_code":"SK078840402000040005","project_name":"","survey_name":"\u5e73\u621019\u5e74\u5ea6 \u571f\u5668\u5ddd\u5824\u9632\u8cea\u7684\u6574\u5099\u691c\u8a0e\u696d\u52d9\u59d4\u8a17","client_name":"\u56fd\u571f\u4ea4\u901a\u7701\u56db\u56fd\u5730\u65b9\u6574\u5099\u5c40\u9999\u5ddd\u6cb3\u5ddd\u56fd\u9053\u4e8b\u52d9\u6240","boring_xml_url":47,"boring_view_url":1,"soilmap_view_url":null,"soiltest_xml_url":48,"soiltest_view_url":48},{"id":197227,"code":"B4KJ201801008-5476","latitude":"34.24134994","longitude":"133.8403012","source_code":"SK078840402000040002","project_name":"","survey_name":"\u5e73\u621019\u5e74\u5ea6 \u571f\u5668\u5ddd\u5824\u9632\u8cea\u7684\u6574\u5099\u691c\u8a0e\u696d\u52d9\u59d4\u8a17","client_name":"\u56fd\u571f\u4ea4\u901a\u7701\u56db\u56fd\u5730\u65b9\u6574\u5099\u5c40\u9999\u5ddd\u6cb3\u5ddd\u56fd\u9053\u4e8b\u52d9\u6240","boring_xml_url":47,"boring_view_url":1,"soilmap_view_url":null,"soiltest_xml_url":48,"soiltest_view_url":48},{"id":197226,"code":"B4KJ201801008-5475","latitude":"34.24134664","longitude":"133.8402112","source_code":"SK078840402000040001","project_name":"","survey_name":"\u5e73\u621019\u5e74\u5ea6 \u571f\u5668\u5ddd\u5824\u9632\u8cea\u7684\u6574\u5099\u691c\u8a0e\u696d\u52d9\u59d4\u8a17","client_name":"\u56fd\u571f\u4ea4\u901a\u7701\u56db\u56fd\u5730\u65b9\u6574\u5099\u5c40\u9999\u5ddd\u6cb3\u5ddd\u56fd\u9053\u4e8b\u52d9\u6240","boring_xml_url":47,"boring_view_url":1,"soilmap_view_url":null,"soiltest_xml_url":48,"soiltest_view_url":48},{"id":197225,"code":"B4KJ201801008-5474","latitude":"33.72972222","longitude":"133.2375","source_code":"SK078837402000100007","project_name":"","survey_name":"\u5e73\u621019\u5e74\u5ea6\u6771\u8c37\u5830\u63d0\u6e2c\u91cf\u8a2d\u8a08\u696d\u52d9\u59d4\u8a17","client_name":"\u56fd\u571f\u4ea4\u901a\u7701\u56db\u56fd\u5730\u65b9\u6574\u5099\u5c40\u56db\u56fd\u5c71\u5730\u7802\u9632\u4e8b\u52d9\u6240","boring_xml_url":47,"boring_view_url":1,"soilmap_view_url":null,"soiltest_xml_url":0,"soiltest_view_url":0},{"id":197224,"code":"B4KJ201801008-5473","latitude":"33.72972222","longitude":"133.2375","source_code":"SK078837402000100006","project_name":"","survey_name":"\u5e73\u621019\u5e74\u5ea6\u6771\u8c37\u5830\u5824\u6e2c\u91cf\u8a2d\u8a08\u696d\u52d9\u59d4\u8a17","client_name":"\u56fd\u571f\u4ea4\u901a\u7701\u56db\u56fd\u5730\u65b9\u6574\u5099\u5c40\u56db\u56fd\u5c71\u5730\u7802\u9632\u4e8b\u52d9\u6240","boring_xml_url":47,"boring_view_url":1,"soilmap_view_url":null,"soiltest_xml_url":0,"soiltest_view_url":0},{"id":197223,"code":"B4KJ201801008-5472","latitude":"33.73","longitude":"133.2380556","source_code":"SK078837402000100005","project_name":"","survey_name":"\u5e73\u621019\u5e74\u5ea6\u6771\u8c37\u5830\u63d0\u6e2c\u91cf\u8a2d\u8a08\u696d\u52d9\u59d4\u8a17","client_name":"\u56fd\u571f\u4ea4\u901a\u7701\u56db\u56fd\u5730\u65b9\u6574\u5099\u5c40\u56db\u56fd\u5c71\u5730\u7802\u9632\u4e8b\u52d9\u6240","boring_xml_url":47,"boring_view_url":1,"soilmap_view_url":null,"soiltest_xml_url":0,"soiltest_view_url":0},{"id":197222,"code":"B4KJ201801008-5471","latitude":"33.73","longitude":"133.2372222","source_code":"SK078837402000100004","project_name":"","survey_name":"\u5e73\u621019\u5e74\u5ea6\u6771\u8c37\u5830\u63d0\u6e2c\u91cf\u8a2d\u8a08\u696d\u52d9\u59d4\u8a17","client_name":"\u56fd\u571f\u4ea4\u901a\u7701\u56db\u56fd\u5730\u65b9\u6574\u5099\u5c40\u56db\u56fd\u5c71\u5730\u7802\u9632\u4e8b\u52d9\u6240","boring_xml_url":47,"boring_view_url":1,"soilmap_view_url":null,"soiltest_xml_url":0,"soiltest_view_url":0},{"id":197221,"code":"B4KJ201801008-5470","latitude":"33.73","longitude":"133.2377778","source_code":"SK078837402000100003","project_name":"","survey_name":"\u5e73\u621019\u5e74\u5ea6\u6771\u8c37\u5830\u63d0\u6e2c\u91cf\u8a2d\u8a08\u696d\u52d9\u59d4\u8a17","client_name":"\u56fd\u571f\u4ea4\u901a\u7701\u56db\u56fd\u5730\u65b9\u6574\u5099\u5c40\u56db\u56fd\u5c71\u5730\u7802\u9632\u4e8b\u52d9\u6240","boring_xml_url":47,"boring_view_url":1,"soilmap_view_url":null,"soiltest_xml_url":0,"soiltest_view_url":0},{"id":197220,"code":"B4KJ201801008-5469","latitude":"33.73","longitude":"133.2375","source_code":"SK078837402000100002","project_name":"","survey_name":"\u5e73\u621019\u5e74\u5ea6\u6771\u8c37\u5830\u63d0\u6e2c\u91cf\u8a2d\u8a08\u696d\u52d9\u59d4\u8a17","client_name":"\u56fd\u571f\u4ea4\u901a\u7701\u56db\u56fd\u5730\u65b9\u6574\u5099\u5c40\u56db\u56fd\u5c71\u5730\u7802\u9632\u4e8b\u52d9\u6240","boring_xml_url":47,"boring_view_url":1,"soilmap_view_url":null,"soiltest_xml_url":0,"soiltest_view_url":0},{"id":197219,"code":"B4KJ201801008-5468","latitude":"33.73","longitude":"133.2377778","source_code":"SK078837402000100001","project_name":"","survey_name":"\u5e73\u621019\u5e74\u5ea6\u6771\u8c37\u5830\u5824\u6e2c\u91cf\u8a2d\u8a08\u696d\u52d9\u59d4\u8a17","client_name":"\u56fd\u571f\u4ea4\u901a\u7701\u56db\u56fd\u5730\u65b9\u6574\u5099\u5c40\u56db\u56fd\u5c71\u5730\u7802\u9632\u4e8b\u52d9\u6240","boring_xml_url":47,"boring_view_url":1,"soilmap_view_url":null,"soiltest_xml_url":0,"soiltest_view_url":0},{"id":197218,"code":"B4KJ201801008-5467","latitude":"33.71774444","longitude":"134.4897806","source_code":"SK078830562000090002","project_name":"","survey_name":"\u5e73\u621019\u5e74\u5ea6 \u65e5\u548c\u4f50\u7ba1\u5185\u6b69\u9053\u6e2c\u91cf\u8a2d\u8a08\u696d\u52d9\u59d4\u8a17","client_name":"\u56fd\u571f\u4ea4\u901a\u7701\u56db\u56fd\u5730\u65b9\u6574\u5099\u5c40\u5fb3\u5cf6\u6cb3\u5ddd\u56fd\u9053\u4e8b\u52d9\u6240","boring_xml_url":47,"boring_view_url":1,"soilmap_view_url":null,"soiltest_xml_url":0,"soiltest_view_url":0},{"id":197217,"code":"B4KJ201801008-5466","latitude":"34.06747222","longitude":"134.5567222","source_code":"SK078830562000070008","project_name":"\u5e73\u621019\u5e74\u5ea6 \u7ba1\u5185\u5730\u8cea\u8abf\u67fb\u696d\u52d9","survey_name":"\u5e73\u621019\u5e74\u5ea6 \u7ba1\u5185\u5730\u8cea\u8abf\u67fb\u696d\u52d9","client_name":"\u56fd\u571f\u4ea4\u901a\u7701\u56db\u56fd\u5730\u65b9\u6574\u5099\u5c40\u5fb3\u5cf6\u6cb3\u5ddd\u56fd\u9053\u4e8b\u52d9\u6240","boring_xml_url":47,"boring_view_url":1,"soilmap_view_url":null,"soiltest_xml_url":48,"soiltest_view_url":48},{"id":197216,"code":"B4KJ201801008-5465","latitude":"34.02783333","longitude":"133.8153333","source_code":"SK078830562000070004","project_name":"\u5e73\u621019\u5e74\u5ea6 \u7ba1\u5185\u5730\u8cea\u8abf\u67fb\u696d\u52d9","survey_name":"\u5e73\u621019\u5e74\u5ea6 \u7ba1\u5185\u5730\u8cea\u8abf\u67fb\u696d\u52d9","client_name":"\u56fd\u571f\u4ea4\u901a\u7701\u56db\u56fd\u5730\u65b9\u6574\u5099\u5c40\u5fb3\u5cf6\u6cb3\u5ddd\u56fd\u9053\u4e8b\u52d9\u6240","boring_xml_url":47,"boring_view_url":1,"soilmap_view_url":null,"soiltest_xml_url":0,"soiltest_view_url":0}]}}