{"header":{"xyz":{"source":[],"mosaic":false},"page":4112,"raw":{"soiltest_result":"0","bbox":"57.598333,109.544722,1.933333,163.806111","page":"4112"},"conditions":{"soiltest_result":0,"north":57.598333,"west":109.544722,"south":1.933333,"east":163.806111},"success":true,"message":""},"data":{"meta":{"total":212844,"page":4112,"pages":7095,"count":30},"values":[{"id":197215,"code":"B4KJ201801008-5464","latitude":"34.02805556","longitude":"133.8150556","source_code":"SK078830562000070003","project_name":"\u5e73\u621019\u5e74\u5ea6 \u7ba1\u5185\u5730\u8cea\u8abf\u67fb\u696d\u52d9","survey_name":"\u5e73\u621019\u5e74\u5ea6 \u7ba1\u5185\u5730\u8cea\u8abf\u67fb\u696d\u52d9","client_name":"\u56fd\u571f\u4ea4\u901a\u7701\u56db\u56fd\u5730\u65b9\u6574\u5099\u5c40\u5fb3\u5cf6\u6cb3\u5ddd\u56fd\u9053\u4e8b\u52d9\u6240","boring_xml_url":47,"boring_view_url":1,"soilmap_view_url":null,"soiltest_xml_url":0,"soiltest_view_url":0},{"id":197214,"code":"B4KJ201801008-5463","latitude":"34.02786111","longitude":"133.8149444","source_code":"SK078830562000070002","project_name":"\u5e73\u621019\u5e74\u5ea6 \u7ba1\u5185\u5730\u8cea\u8abf\u67fb\u696d\u52d9","survey_name":"\u5e73\u621019\u5e74\u5ea6 \u7ba1\u5185\u5730\u8cea\u8abf\u67fb\u696d\u52d9","client_name":"\u56fd\u571f\u4ea4\u901a\u7701\u56db\u56fd\u5730\u65b9\u6574\u5099\u5c40\u5fb3\u5cf6\u6cb3\u5ddd\u56fd\u9053\u4e8b\u52d9\u6240","boring_xml_url":47,"boring_view_url":1,"soilmap_view_url":null,"soiltest_xml_url":0,"soiltest_view_url":0},{"id":197213,"code":"B4KJ201801008-5462","latitude":"34.01466667","longitude":"134.5628028","source_code":"SK078830482000200009","project_name":"","survey_name":"\u5e73\u621019\u5e74\u5ea6 \u5c0f\u677e\u5cf6\u5fb3\u5cf6\u6771\u9593\u6c5f\u7530\u5730\u533a\u5730\u8cea\u8abf\u67fb\u696d\u52d9","client_name":"\u56fd\u571f\u4ea4\u901a\u7701\u56db\u56fd\u5730\u65b9\u6574\u5099\u5c40\u5fb3\u5cf6\u6cb3\u5ddd\u56fd\u9053\u4e8b\u52d9\u6240","boring_xml_url":47,"boring_view_url":1,"soilmap_view_url":null,"soiltest_xml_url":48,"soiltest_view_url":48},{"id":197212,"code":"B4KJ201801008-5461","latitude":"34.01551389","longitude":"134.5634056","source_code":"SK078830482000200008","project_name":"","survey_name":"\u5e73\u621019\u5e74\u5ea6 \u5c0f\u677e\u5cf6\u5fb3\u5cf6\u6771\u9593\u6c5f\u7530\u5730\u533a\u5730\u8cea\u8abf\u67fb\u696d\u52d9","client_name":"\u56fd\u571f\u4ea4\u901a\u7701\u56db\u56fd\u5730\u65b9\u6574\u5099\u5c40\u5fb3\u5cf6\u6cb3\u5ddd\u56fd\u9053\u4e8b\u52d9\u6240","boring_xml_url":47,"boring_view_url":1,"soilmap_view_url":null,"soiltest_xml_url":48,"soiltest_view_url":48},{"id":197211,"code":"B4KJ201801008-5460","latitude":"34.01660278","longitude":"134.5643472","source_code":"SK078830482000200007","project_name":"","survey_name":"\u5e73\u621019\u5e74\u5ea6 \u5c0f\u677e\u5cf6\u5fb3\u5cf6\u6771\u9593\u6c5f\u7530\u5730\u533a\u5730\u8cea\u8abf\u67fb\u696d\u52d9","client_name":"\u56fd\u571f\u4ea4\u901a\u7701\u56db\u56fd\u5730\u65b9\u6574\u5099\u5c40\u5fb3\u5cf6\u6cb3\u5ddd\u56fd\u9053\u4e8b\u52d9\u6240","boring_xml_url":47,"boring_view_url":1,"soilmap_view_url":null,"soiltest_xml_url":48,"soiltest_view_url":48},{"id":197210,"code":"B4KJ201801008-5459","latitude":"34.01743056","longitude":"134.5652","source_code":"SK078830482000200006","project_name":"","survey_name":"\u5e73\u621019\u5e74\u5ea6 \u5c0f\u677e\u5cf6\u5fb3\u5cf6\u6771\u9593\u6c5f\u7530\u5730\u533a\u5730\u8cea\u8abf\u67fb\u696d\u52d9","client_name":"\u56fd\u571f\u4ea4\u901a\u7701\u56db\u56fd\u5730\u65b9\u6574\u5099\u5c40\u5fb3\u5cf6\u6cb3\u5ddd\u56fd\u9053\u4e8b\u52d9\u6240","boring_xml_url":47,"boring_view_url":1,"soilmap_view_url":null,"soiltest_xml_url":48,"soiltest_view_url":48},{"id":197209,"code":"B4KJ201801008-5458","latitude":"34.01855556","longitude":"134.5665583","source_code":"SK078830482000200005","project_name":"","survey_name":"\u5e73\u621019\u5e74\u5ea6 \u5c0f\u677e\u5cf6\u5fb3\u5cf6\u6771\u9593\u6c5f\u7530\u5730\u533a\u5730\u8cea\u8abf\u67fb\u696d\u52d9","client_name":"\u56fd\u571f\u4ea4\u901a\u7701\u56db\u56fd\u5730\u65b9\u6574\u5099\u5c40\u5fb3\u5cf6\u6cb3\u5ddd\u56fd\u9053\u4e8b\u52d9\u6240","boring_xml_url":47,"boring_view_url":1,"soilmap_view_url":null,"soiltest_xml_url":48,"soiltest_view_url":48},{"id":197208,"code":"B4KJ201801008-5457","latitude":"34.01951944","longitude":"134.5678167","source_code":"SK078830482000200004","project_name":"","survey_name":"\u5e73\u621019\u5e74\u5ea6 \u5c0f\u677e\u5cf6\u5fb3\u5cf6\u6771\u9593\u6c5f\u7530\u5730\u533a\u5730\u8cea\u8abf\u67fb\u696d\u52d9","client_name":"\u56fd\u571f\u4ea4\u901a\u7701\u56db\u56fd\u5730\u65b9\u6574\u5099\u5c40\u5fb3\u5cf6\u6cb3\u5ddd\u56fd\u9053\u4e8b\u52d9\u6240","boring_xml_url":47,"boring_view_url":1,"soilmap_view_url":null,"soiltest_xml_url":48,"soiltest_view_url":48},{"id":197207,"code":"B4KJ201801008-5456","latitude":"34.01945556","longitude":"134.5682","source_code":"SK078830482000200003","project_name":"","survey_name":"\u5e73\u621019\u5e74\u5ea6 \u5c0f\u677e\u5cf6\u5fb3\u5cf6\u6771\u9593\u6c5f\u7530\u5730\u533a\u5730\u8cea\u8abf\u67fb\u696d\u52d9","client_name":"\u56fd\u571f\u4ea4\u901a\u7701\u56db\u56fd\u5730\u65b9\u6574\u5099\u5c40\u5fb3\u5cf6\u6cb3\u5ddd\u56fd\u9053\u4e8b\u52d9\u6240","boring_xml_url":47,"boring_view_url":1,"soilmap_view_url":null,"soiltest_xml_url":48,"soiltest_view_url":48},{"id":197206,"code":"B4KJ201801008-5455","latitude":"34.019425","longitude":"134.5680556","source_code":"SK078830482000200002","project_name":"","survey_name":"\u5e73\u621019\u5e74\u5ea6 \u5c0f\u677e\u5cf6\u5fb3\u5cf6\u6771\u9593\u6c5f\u7530\u5730\u533a\u5730\u8cea\u8abf\u67fb\u696d\u52d9","client_name":"\u56fd\u571f\u4ea4\u901a\u7701\u56db\u56fd\u5730\u65b9\u6574\u5099\u5c40\u5fb3\u5cf6\u6cb3\u5ddd\u56fd\u9053\u4e8b\u52d9\u6240","boring_xml_url":47,"boring_view_url":1,"soilmap_view_url":null,"soiltest_xml_url":48,"soiltest_view_url":48},{"id":197205,"code":"B4KJ201801008-5454","latitude":"34.01959722","longitude":"134.5680917","source_code":"SK078830482000200001","project_name":"\u56db\u56fd\u6a2a\u65ad\u81ea\u52d5\u8eca\u9053","survey_name":"\u5e73\u621019\u5e74\u5ea6 \u5c0f\u677e\u5cf6\u5fb3\u5cf6\u6771\u9593\u6c5f\u7530\u5730\u533a\u5730\u8cea\u8abf\u67fb\u696d\u52d9","client_name":"\u56fd\u571f\u4ea4\u901a\u7701\u56db\u56fd\u5730\u65b9\u6574\u5099\u5c40\u5fb3\u5cf6\u6cb3\u5ddd\u56fd\u9053\u4e8b\u52d9\u6240","boring_xml_url":47,"boring_view_url":1,"soilmap_view_url":null,"soiltest_xml_url":0,"soiltest_view_url":0},{"id":197204,"code":"B4KJ201801008-5453","latitude":"34.02545894","longitude":"134.5774239","source_code":"SK078830482000180011","project_name":"","survey_name":"\u5e73\u621019\u5e74\u5ea6 \u5927\u795e\u5b50\u7b2c\u4e8c\u30c8\u30f3\u30cd\u30eb\u5730\u8cea\u8abf\u67fb\u696d\u52d9","client_name":"\u56fd\u571f\u4ea4\u901a\u7701\u56db\u56fd\u5730\u65b9\u6574\u5099\u5c40\u5fb3\u5cf6\u6cb3\u5ddd\u56fd\u9053\u4e8b\u52d9\u6240","boring_xml_url":47,"boring_view_url":1,"soilmap_view_url":null,"soiltest_xml_url":0,"soiltest_view_url":0},{"id":197203,"code":"B4KJ201801008-5452","latitude":"34.02531711","longitude":"134.5786096","source_code":"SK078830482000180010","project_name":"","survey_name":"\u5e73\u621019\u5e74\u5ea6 \u5927\u795e\u5b50\u7b2c\u4e8c\u30c8\u30f3\u30cd\u30eb\u5730\u8cea\u8abf\u67fb\u696d\u52d9","client_name":"\u56fd\u571f\u4ea4\u901a\u7701\u56db\u56fd\u5730\u65b9\u6574\u5099\u5c40\u5fb3\u5cf6\u6cb3\u5ddd\u56fd\u9053\u4e8b\u52d9\u6240","boring_xml_url":47,"boring_view_url":1,"soilmap_view_url":null,"soiltest_xml_url":0,"soiltest_view_url":0},{"id":197202,"code":"B4KJ201801008-5451","latitude":"34.02554208","longitude":"134.5784113","source_code":"SK078830482000180009","project_name":"","survey_name":"\u5e73\u621019\u5e74\u5ea6 \u5927\u795e\u5b50\u7b2c\u4e8c\u30c8\u30f3\u30cd\u30eb\u5730\u8cea\u8abf\u67fb\u696d\u52d9","client_name":"\u56fd\u571f\u4ea4\u901a\u7701\u56db\u56fd\u5730\u65b9\u6574\u5099\u5c40\u5fb3\u5cf6\u6cb3\u5ddd\u56fd\u9053\u4e8b\u52d9\u6240","boring_xml_url":47,"boring_view_url":1,"soilmap_view_url":null,"soiltest_xml_url":0,"soiltest_view_url":0},{"id":197201,"code":"B4KJ201801008-5450","latitude":"34.02555089","longitude":"134.5784269","source_code":"SK078830482000180008","project_name":"","survey_name":"\u5e73\u621019\u5e74\u5ea6 \u5927\u795e\u5b50\u7b2c\u4e8c\u30c8\u30f3\u30cd\u30eb\u5730\u8cea\u8abf\u67fb\u696d\u52d9","client_name":"\u56fd\u571f\u4ea4\u901a\u7701\u56db\u56fd\u5730\u65b9\u6574\u5099\u5c40\u5fb3\u5cf6\u6cb3\u5ddd\u56fd\u9053\u4e8b\u52d9\u6240","boring_xml_url":47,"boring_view_url":1,"soilmap_view_url":null,"soiltest_xml_url":0,"soiltest_view_url":0},{"id":197200,"code":"B4KJ201801008-5449","latitude":"34.02611058","longitude":"134.5789026","source_code":"SK078830482000180007","project_name":"","survey_name":"\u5e73\u621019\u5e74\u5ea6 \u5927\u795e\u5b50\u7b2c\u4e8c\u30c8\u30f3\u30cd\u30eb\u5730\u8cea\u8abf\u67fb\u696d\u52d9","client_name":"\u56fd\u571f\u4ea4\u901a\u7701\u56db\u56fd\u5730\u65b9\u6574\u5099\u5c40\u5fb3\u5cf6\u6cb3\u5ddd\u56fd\u9053\u4e8b\u52d9\u6240","boring_xml_url":47,"boring_view_url":1,"soilmap_view_url":null,"soiltest_xml_url":0,"soiltest_view_url":0},{"id":197199,"code":"B4KJ201801008-5448","latitude":"34.02608439","longitude":"134.5797168","source_code":"SK078830482000180006","project_name":"","survey_name":"\u5e73\u621019\u5e74\u5ea6 \u5927\u795e\u5b50\u7b2c\u4e8c\u30c8\u30f3\u30cd\u30eb\u5730\u8cea\u8abf\u67fb\u696d\u52d9","client_name":"\u56fd\u571f\u4ea4\u901a\u7701\u56db\u56fd\u5730\u65b9\u6574\u5099\u5c40\u5fb3\u5cf6\u6cb3\u5ddd\u56fd\u9053\u4e8b\u52d9\u6240","boring_xml_url":47,"boring_view_url":1,"soilmap_view_url":null,"soiltest_xml_url":0,"soiltest_view_url":0},{"id":197198,"code":"B4KJ201801008-5447","latitude":"34.02641325","longitude":"134.5797992","source_code":"SK078830482000180005","project_name":"","survey_name":"\u5e73\u621019\u5e74\u5ea6 \u5927\u795e\u5b50\u7b2c\u4e8c\u30c8\u30f3\u30cd\u30eb\u5730\u8cea\u8abf\u67fb\u696d\u52d9","client_name":"\u56fd\u571f\u4ea4\u901a\u7701\u56db\u56fd\u5730\u65b9\u6574\u5099\u5c40\u5fb3\u5cf6\u6cb3\u5ddd\u56fd\u9053\u4e8b\u52d9\u6240","boring_xml_url":47,"boring_view_url":1,"soilmap_view_url":null,"soiltest_xml_url":0,"soiltest_view_url":0},{"id":197197,"code":"B4KJ201801008-5446","latitude":"34.02660172","longitude":"134.5795935","source_code":"SK078830482000180004","project_name":"","survey_name":"\u5e73\u621019\u5e74\u5ea6 \u5927\u795e\u5b50\u7b2c\u4e8c\u30c8\u30f3\u30cd\u30eb\u5730\u8cea\u8abf\u67fb\u696d\u52d9","client_name":"\u56fd\u571f\u4ea4\u901a\u7701\u56db\u56fd\u5730\u65b9\u6574\u5099\u5c40\u5fb3\u5cf6\u6cb3\u5ddd\u56fd\u9053\u4e8b\u52d9\u6240","boring_xml_url":47,"boring_view_url":1,"soilmap_view_url":null,"soiltest_xml_url":0,"soiltest_view_url":0},{"id":197196,"code":"B4KJ201801008-5445","latitude":"34.02654367","longitude":"134.579532","source_code":"SK078830482000180003","project_name":"","survey_name":"\u5e73\u621019\u5e74\u5ea6 \u5927\u795e\u5b50\u7b2c\u4e8c\u30c8\u30f3\u30cd\u30eb\u5730\u8cea\u8abf\u67fb\u696d\u52d9","client_name":"\u56fd\u571f\u4ea4\u901a\u7701\u56db\u56fd\u5730\u65b9\u6574\u5099\u5c40\u5fb3\u5cf6\u6cb3\u5ddd\u56fd\u9053\u4e8b\u52d9\u6240","boring_xml_url":47,"boring_view_url":1,"soilmap_view_url":null,"soiltest_xml_url":0,"soiltest_view_url":0},{"id":197195,"code":"B4KJ201801008-5444","latitude":"34.02737261","longitude":"134.5802567","source_code":"SK078830482000180002","project_name":"","survey_name":"\u5e73\u621019\u5e74\u5ea6 \u5927\u795e\u5b50\u7b2c\u4e8c\u30c8\u30f3\u30cd\u30eb\u5730\u8cea\u8abf\u67fb\u696d\u52d9","client_name":"\u56fd\u571f\u4ea4\u901a\u7701\u56db\u56fd\u5730\u65b9\u6574\u5099\u5c40\u5fb3\u5cf6\u6cb3\u5ddd\u56fd\u9053\u4e8b\u52d9\u6240","boring_xml_url":47,"boring_view_url":1,"soilmap_view_url":null,"soiltest_xml_url":0,"soiltest_view_url":0},{"id":197194,"code":"B4KJ201801008-5443","latitude":"34.02752319","longitude":"134.5799728","source_code":"SK078830482000180001","project_name":"","survey_name":"\u5e73\u621019\u5e74\u5ea6 \u5927\u795e\u5b50\u7b2c\u4e8c\u30c8\u30f3\u30cd\u30eb\u5730\u8cea\u8abf\u67fb\u696d\u52d9","client_name":"\u56fd\u571f\u4ea4\u901a\u7701\u56db\u56fd\u5730\u65b9\u6574\u5099\u5c40\u5fb3\u5cf6\u6cb3\u5ddd\u56fd\u9053\u4e8b\u52d9\u6240","boring_xml_url":47,"boring_view_url":1,"soilmap_view_url":null,"soiltest_xml_url":0,"soiltest_view_url":0},{"id":197193,"code":"B4KJ201801008-5442","latitude":"33.99046458","longitude":"134.5661034","source_code":"SK078830482000080025","project_name":"\u5e73\u621019\u5e74\u5ea6 \u963f\u5357\u5c0f\u677e\u5cf6\u9593\u5730\u8cea\u8abf\u67fb(\u305d\u306e2)\u696d\u52d9","survey_name":"\u5e73\u621019\u5e74\u5ea6 \u963f\u5357\u5c0f\u677e\u5cf6\u9593\u5730\u8cea\u8abf\u67fb(\u305d\u306e2)\u696d\u52d9","client_name":"\u56fd\u571f\u4ea4\u901a\u7701\u56db\u56fd\u5730\u65b9\u6574\u5099\u5c40\u5fb3\u5cf6\u6cb3\u5ddd\u56fd\u9053\u4e8b\u52d9\u6240","boring_xml_url":47,"boring_view_url":1,"soilmap_view_url":null,"soiltest_xml_url":0,"soiltest_view_url":0},{"id":197192,"code":"B4KJ201801008-5441","latitude":"33.99045692","longitude":"134.5669886","source_code":"SK078830482000080024","project_name":"\u5e73\u621019\u5e74\u5ea6 \u963f\u5357\u5c0f\u677e\u5cf6\u9593\u5730\u8cea\u8abf\u67fb(\u305d\u306e2)\u696d\u52d9","survey_name":"\u5e73\u621019\u5e74\u5ea6 \u963f\u5357\u5c0f\u677e\u5cf6\u9593\u5730\u8cea\u8abf\u67fb(\u305d\u306e2)\u696d\u52d9","client_name":"\u56fd\u571f\u4ea4\u901a\u7701\u56db\u56fd\u5730\u65b9\u6574\u5099\u5c40\u5fb3\u5cf6\u6cb3\u5ddd\u56fd\u9053\u4e8b\u52d9\u6240","boring_xml_url":47,"boring_view_url":1,"soilmap_view_url":null,"soiltest_xml_url":0,"soiltest_view_url":0},{"id":197191,"code":"B4KJ201801008-5440","latitude":"33.98913044","longitude":"134.5682074","source_code":"SK078830482000080023","project_name":"\u5e73\u621019\u5e74\u5ea6 \u963f\u5357\u5c0f\u677e\u5cf6\u9593\u5730\u8cea\u8abf\u67fb(\u305d\u306e2)\u696d\u52d9","survey_name":"\u5e73\u621019\u5e74\u5ea6 \u963f\u5357\u5c0f\u677e\u5cf6\u9593\u5730\u8cea\u8abf\u67fb(\u305d\u306e2)\u696d\u52d9","client_name":"\u56fd\u571f\u4ea4\u901a\u7701\u56db\u56fd\u5730\u65b9\u6574\u5099\u5c40\u5fb3\u5cf6\u6cb3\u5ddd\u56fd\u9053\u4e8b\u52d9\u6240","boring_xml_url":47,"boring_view_url":1,"soilmap_view_url":null,"soiltest_xml_url":0,"soiltest_view_url":0},{"id":197190,"code":"B4KJ201801008-5439","latitude":"33.98423461","longitude":"134.5725977","source_code":"SK078830482000080021","project_name":"\u5e73\u621019\u5e74\u5ea6 \u963f\u5357\u5c0f\u677e\u5cf6\u9593\u5730\u8cea\u8abf\u67fb(\u305d\u306e2)\u696d\u52d9","survey_name":"\u5e73\u621019\u5e74\u5ea6 \u963f\u5357\u5c0f\u677e\u5cf6\u9593\u5730\u8cea\u8abf\u67fb(\u305d\u306e2)\u696d\u52d9","client_name":"\u56fd\u571f\u4ea4\u901a\u7701\u56db\u56fd\u5730\u65b9\u6574\u5099\u5c40\u5fb3\u5cf6\u6cb3\u5ddd\u56fd\u9053\u4e8b\u52d9\u6240","boring_xml_url":47,"boring_view_url":1,"soilmap_view_url":null,"soiltest_xml_url":0,"soiltest_view_url":0},{"id":197189,"code":"B4KJ201801008-5438","latitude":"33.98189714","longitude":"134.5760476","source_code":"SK078830482000080020","project_name":"\u5e73\u621019\u5e74\u5ea6 \u963f\u5357\u5c0f\u677e\u5cf6\u9593\u5730\u8cea\u8abf\u67fb(\u305d\u306e2)\u696d\u52d9","survey_name":"\u5e73\u621019\u5e74\u5ea6 \u963f\u5357\u5c0f\u677e\u5cf6\u9593\u5730\u8cea\u8abf\u67fb(\u305d\u306e2)\u696d\u52d9","client_name":"\u56fd\u571f\u4ea4\u901a\u7701\u56db\u56fd\u5730\u65b9\u6574\u5099\u5c40\u5fb3\u5cf6\u6cb3\u5ddd\u56fd\u9053\u4e8b\u52d9\u6240","boring_xml_url":47,"boring_view_url":1,"soilmap_view_url":null,"soiltest_xml_url":0,"soiltest_view_url":0},{"id":197188,"code":"B4KJ201801008-5437","latitude":"33.98475053","longitude":"134.5732617","source_code":"SK078830482000080016","project_name":"\u5e73\u621019\u5e74\u5ea6 \u963f\u5357\u5c0f\u677e\u5cf6\u9593\u5730\u8cea\u8abf\u67fb(\u305d\u306e2)\u696d\u52d9","survey_name":"\u5e73\u621019\u5e74\u5ea6 \u963f\u5357\u5c0f\u677e\u5cf6\u9593\u5730\u8cea\u8abf\u67fb(\u305d\u306e2)\u696d\u52d9","client_name":"\u56fd\u571f\u4ea4\u901a\u7701\u56db\u56fd\u5730\u65b9\u6574\u5099\u5c40\u5fb3\u5cf6\u6cb3\u5ddd\u56fd\u9053\u4e8b\u52d9\u6240","boring_xml_url":47,"boring_view_url":1,"soilmap_view_url":null,"soiltest_xml_url":0,"soiltest_view_url":0},{"id":197187,"code":"B4KJ201801008-5436","latitude":"33.98349986","longitude":"134.5737091","source_code":"SK078830482000080015","project_name":"\u5e73\u621019\u5e74\u5ea6 \u963f\u5357\u5c0f\u677e\u5cf6\u9593\u5730\u8cea\u8abf\u67fb(\u305d\u306e2)\u696d\u52d9","survey_name":"\u5e73\u621019\u5e74\u5ea6 \u963f\u5357\u5c0f\u677e\u5cf6\u9593\u5730\u8cea\u8abf\u67fb(\u305d\u306e2)\u696d\u52d9","client_name":"\u56fd\u571f\u4ea4\u901a\u7701\u56db\u56fd\u5730\u65b9\u6574\u5099\u5c40\u5fb3\u5cf6\u6cb3\u5ddd\u56fd\u9053\u4e8b\u52d9\u6240","boring_xml_url":47,"boring_view_url":1,"soilmap_view_url":null,"soiltest_xml_url":0,"soiltest_view_url":0},{"id":197186,"code":"B4KJ201801008-5435","latitude":"33.98276378","longitude":"134.5758321","source_code":"SK078830482000080010","project_name":"\u5e73\u621019\u5e74\u5ea6 \u963f\u5357\u5c0f\u677e\u5cf6\u9593\u5730\u8cea\u8abf\u67fb(\u305d\u306e2)\u696d\u52d9","survey_name":"\u5e73\u621019\u5e74\u5ea6 \u963f\u5357\u5c0f\u677e\u5cf6\u9593\u5730\u8cea\u8abf\u67fb(\u305d\u306e2)\u696d\u52d9","client_name":"\u56fd\u571f\u4ea4\u901a\u7701\u56db\u56fd\u5730\u65b9\u6574\u5099\u5c40\u5fb3\u5cf6\u6cb3\u5ddd\u56fd\u9053\u4e8b\u52d9\u6240","boring_xml_url":47,"boring_view_url":1,"soilmap_view_url":null,"soiltest_xml_url":0,"soiltest_view_url":0}]}}