{"header":{"xyz":{"source":[],"mosaic":false},"page":4114,"raw":{"soiltest_result":"0","bbox":"57.598333,109.544722,1.933333,163.806111","page":"4114"},"conditions":{"soiltest_result":0,"north":57.598333,"west":109.544722,"south":1.933333,"east":163.806111},"success":true,"message":""},"data":{"meta":{"total":212844,"page":4114,"pages":7095,"count":30},"values":[{"id":197155,"code":"B4KJ201801008-5404","latitude":"34.05606667","longitude":"134.4777083","source_code":"SK078830472000140003","project_name":"\u5e73\u621019\u5e74\u5ea6 \u5fb3\u5cf6\u5357\u74b0\u72b6\u9053\u8def","survey_name":"\u5730\u8cea\u8abf\u67fb\u696d\u52d9","client_name":"\u56fd\u571f\u4ea4\u901a\u7701\u56db\u56fd\u5730\u65b9\u6574\u5099\u5c40\u5fb3\u5cf6\u6cb3\u5ddd\u56fd\u9053\u4e8b\u52d9\u6240","boring_xml_url":47,"boring_view_url":1,"soilmap_view_url":null,"soiltest_xml_url":0,"soiltest_view_url":0},{"id":197154,"code":"B4KJ201801008-5403","latitude":"34.059925","longitude":"134.4761556","source_code":"SK078830472000140002","project_name":"\u5e73\u621019\u5e74\u5ea6 \u5fb3\u5cf6\u5357\u74b0\u72b6\u9053\u8def","survey_name":"\u5730\u8cea\u8abf\u67fb\u696d\u52d9","client_name":"\u56fd\u571f\u4ea4\u901a\u7701\u56db\u56fd\u5730\u65b9\u6574\u5099\u5c40\u5fb3\u5cf6\u6cb3\u5ddd\u56fd\u9053\u4e8b\u52d9\u6240","boring_xml_url":47,"boring_view_url":1,"soilmap_view_url":null,"soiltest_xml_url":0,"soiltest_view_url":0},{"id":197153,"code":"B4KJ201801008-5402","latitude":"34.06345278","longitude":"134.4747389","source_code":"SK078830472000140001","project_name":"\u5e73\u621019\u5e74\u5ea6 \u5fb3\u5cf6\u5357\u74b0\u72b6\u9053\u8def","survey_name":"\u5730\u8cea\u8abf\u67fb\u696d\u52d9","client_name":"\u56fd\u571f\u4ea4\u901a\u7701\u56db\u56fd\u5730\u65b9\u6574\u5099\u5c40\u5fb3\u5cf6\u6cb3\u5ddd\u56fd\u9053\u4e8b\u52d9\u6240","boring_xml_url":47,"boring_view_url":1,"soilmap_view_url":null,"soiltest_xml_url":0,"soiltest_view_url":0},{"id":197152,"code":"B4KJ201801008-5401","latitude":"34.03670286","longitude":"133.9690378","source_code":"SK078830402000250002","project_name":"","survey_name":"\u5e73\u621019\u5e74\u5ea6 \u52a0\u8302\u7b2c\u4e00\u5824\u9632\u8a73\u7d30\u8a2d\u8a08\u696d\u52d9\u59d4\u8a17","client_name":"\u56fd\u571f\u4ea4\u901a\u7701\u56db\u56fd\u5730\u65b9\u6574\u5099\u5c40\u5fb3\u5cf6\u6cb3\u5ddd\u56fd\u9053\u4e8b\u52d9\u6240","boring_xml_url":47,"boring_view_url":1,"soilmap_view_url":null,"soiltest_xml_url":0,"soiltest_view_url":0},{"id":197151,"code":"B4KJ201801008-5400","latitude":"34.03654083","longitude":"133.9687759","source_code":"SK078830402000250001","project_name":"","survey_name":"\u5e73\u621019\u5e74\u5ea6 \u52a0\u8302\u7b2c\u4e00\u5824\u9632\u8a73\u7d30\u8a2d\u8a08\u696d\u52d9\u59d4\u8a17","client_name":"\u56fd\u571f\u4ea4\u901a\u7701\u56db\u56fd\u5730\u65b9\u6574\u5099\u5c40\u5fb3\u5cf6\u6cb3\u5ddd\u56fd\u9053\u4e8b\u52d9\u6240","boring_xml_url":47,"boring_view_url":1,"soilmap_view_url":null,"soiltest_xml_url":0,"soiltest_view_url":0},{"id":197150,"code":"B4KJ201801008-5399","latitude":"34.03518947","longitude":"133.9671361","source_code":"SK078830402000240004","project_name":"","survey_name":"\u5e73\u621019\u5e74\u5ea6 \u5c71\u53e3\u8c37\u5ddd\u6a0b\u9580\u8a73\u7d30\u8a2d\u8a08\u696d\u52d9\u59d4\u8a17","client_name":"\u56fd\u571f\u4ea4\u901a\u7701\u56db\u56fd\u5730\u65b9\u6574\u5099\u5c40\u5fb3\u5cf6\u6cb3\u5ddd\u56fd\u9053\u4e8b\u52d9\u6240","boring_xml_url":47,"boring_view_url":1,"soilmap_view_url":null,"soiltest_xml_url":0,"soiltest_view_url":0},{"id":197149,"code":"B4KJ201801008-5398","latitude":"34.03519139","longitude":"133.9666325","source_code":"SK078830402000240003","project_name":"","survey_name":"\u5e73\u621019\u5e74\u5ea6 \u5c71\u53e3\u8c37\u5ddd\u6a0b\u9580\u8a73\u7d30\u8a2d\u8a08\u696d\u52d9\u59d4\u8a17","client_name":"\u56fd\u571f\u4ea4\u901a\u7701\u56db\u56fd\u5730\u65b9\u6574\u5099\u5c40\u5fb3\u5cf6\u6cb3\u5ddd\u56fd\u9053\u4e8b\u52d9\u6240","boring_xml_url":47,"boring_view_url":1,"soilmap_view_url":null,"soiltest_xml_url":0,"soiltest_view_url":0},{"id":197148,"code":"B4KJ201801008-5397","latitude":"34.08888889","longitude":"134.3386111","source_code":"SK078830402000230002","project_name":"","survey_name":"\u5e73\u621019\u5e74\u5ea6 \u9ad8\u7551\u6f0f\u6c34\u5bfe\u7b56\u6e2c\u91cf\u8a2d\u8a08\u696d\u52d9\u59d4\u8a17","client_name":"\u56fd\u571f\u4ea4\u901a\u7701\u56db\u56fd\u5730\u65b9\u6574\u5099\u5c40\u5fb3\u5cf6\u6cb3\u5ddd\u56fd\u9053\u4e8b\u52d9\u6240","boring_xml_url":47,"boring_view_url":1,"soilmap_view_url":null,"soiltest_xml_url":0,"soiltest_view_url":0},{"id":197147,"code":"B4KJ201801008-5396","latitude":"34.08916667","longitude":"134.3408333","source_code":"SK078830402000230001","project_name":"","survey_name":"\u5e73\u621019\u5e74\u5ea6 \u9ad8\u7551\u6f0f\u6c34\u5bfe\u7b56\u6e2c\u91cf\u8a2d\u8a08\u696d\u52d9\u59d4\u8a17","client_name":"\u56fd\u571f\u4ea4\u901a\u7701\u56db\u56fd\u5730\u65b9\u6574\u5099\u5c40\u5fb3\u5cf6\u6cb3\u5ddd\u56fd\u9053\u4e8b\u52d9\u6240","boring_xml_url":47,"boring_view_url":1,"soilmap_view_url":null,"soiltest_xml_url":0,"soiltest_view_url":0},{"id":197146,"code":"B4KJ201801008-5395","latitude":"34.137","longitude":"134.5814056","source_code":"SK078830402000060004","project_name":"\u5e73\u621019\u5e74\u5ea6 \u65e7\u5409\u91ce\u5ddd\u5824\u9632\u5730\u8cea\u8abf\u67fb\u696d\u52d9","survey_name":"\u5e73\u621019\u5e74\u5ea6 \u65e7\u5409\u91ce\u5ddd\u5824\u9632\u5730\u8cea\u8abf\u67fb\u696d\u52d9","client_name":"\u56fd\u571f\u4ea4\u901a\u7701\u56db\u56fd\u5730\u65b9\u6574\u5099\u5c40\u5fb3\u5cf6\u6cb3\u5ddd\u56fd\u9053\u4e8b\u52d9\u6240","boring_xml_url":47,"boring_view_url":1,"soilmap_view_url":null,"soiltest_xml_url":48,"soiltest_view_url":48},{"id":197145,"code":"B4KJ201801008-5394","latitude":"34.14626667","longitude":"134.6016","source_code":"SK078830402000060003","project_name":"\u5e73\u621019\u5e74\u5ea6 \u65e7\u5409\u91ce\u5ddd\u5824\u9632\u5730\u8cea\u8abf\u67fb\u696d\u52d9","survey_name":"\u5e73\u621019\u5e74\u5ea6 \u65e7\u5409\u91ce\u5ddd\u5824\u9632\u5730\u8cea\u8abf\u67fb\u696d\u52d9","client_name":"\u56fd\u571f\u4ea4\u901a\u7701\u56db\u56fd\u5730\u65b9\u6574\u5099\u5c40\u5fb3\u5cf6\u6cb3\u5ddd\u56fd\u9053\u4e8b\u52d9\u6240","boring_xml_url":47,"boring_view_url":1,"soilmap_view_url":null,"soiltest_xml_url":48,"soiltest_view_url":48},{"id":197144,"code":"B4KJ201801008-5393","latitude":"34.13587778","longitude":"134.4652667","source_code":"SK078830402000060002","project_name":"\u5e73\u621019\u5e74\u5ea6 \u65e7\u5409\u91ce\u5ddd\u5824\u9632\u5730\u8cea\u8abf\u67fb\u696d\u52d9","survey_name":"\u5e73\u621019\u5e74\u5ea6 \u65e7\u5409\u91ce\u5ddd\u5824\u9632\u5730\u8cea\u8abf\u67fb\u696d\u52d9","client_name":"\u56fd\u571f\u4ea4\u901a\u7701\u56db\u56fd\u5730\u65b9\u6574\u5099\u5c40\u5fb3\u5cf6\u6cb3\u5ddd\u56fd\u9053\u4e8b\u52d9\u6240","boring_xml_url":47,"boring_view_url":1,"soilmap_view_url":null,"soiltest_xml_url":48,"soiltest_view_url":48},{"id":197143,"code":"B4KJ201801008-5392","latitude":"34.14840833","longitude":"134.5458167","source_code":"SK078830402000060001","project_name":"\u5e73\u621019\u5e74\u5ea6 \u65e7\u5409\u91ce\u5ddd\u5824\u9632\u5730\u8cea\u8abf\u67fb\u696d\u52d9","survey_name":"\u5e73\u621019\u5e74\u5ea6 \u65e7\u5409\u91ce\u5ddd\u5824\u9632\u5730\u8cea\u8abf\u67fb\u696d\u52d9","client_name":"\u56fd\u571f\u4ea4\u901a\u7701\u56db\u56fd\u5730\u65b9\u6574\u5099\u5c40\u5fb3\u5cf6\u6cb3\u5ddd\u56fd\u9053\u4e8b\u52d9\u6240","boring_xml_url":47,"boring_view_url":1,"soilmap_view_url":null,"soiltest_xml_url":48,"soiltest_view_url":48},{"id":197142,"code":"B4KJ201801008-5391","latitude":"33.915","longitude":"134.6391667","source_code":"SK068885762000110007","project_name":"\u5e73\u621018\u5e74\u5ea6 \u6851\u91ce\u5ddd\u5824\u9632\u5730\u8cea\u8abf\u67fb\u696d\u52d9","survey_name":"\u5e73\u621018\u5e74\u5ea6 \u6851\u91ce\u5ddd\u5824\u9632\u5730\u8cea\u8abf\u67fb\u696d\u52d9","client_name":"\u56fd\u571f\u4ea4\u901a\u7701\u56db\u56fd\u5730\u65b9\u6574\u5099\u5c40\u56db\u56fd\u6280\u8853\u4e8b\u52d9\u6240","boring_xml_url":47,"boring_view_url":1,"soilmap_view_url":null,"soiltest_xml_url":0,"soiltest_view_url":0},{"id":197141,"code":"B4KJ201801008-5390","latitude":"33.915","longitude":"134.6388889","source_code":"SK068885762000110006","project_name":"\u5e73\u621018\u5e74\u5ea6 \u6851\u91ce\u5ddd\u5824\u9632\u5730\u8cea\u8abf\u67fb\u696d\u52d9","survey_name":"\u5e73\u621018\u5e74\u5ea6 \u6851\u91ce\u5ddd\u5824\u9632\u5730\u8cea\u8abf\u67fb\u696d\u52d9","client_name":"\u56fd\u571f\u4ea4\u901a\u7701\u56db\u56fd\u5730\u65b9\u6574\u5099\u5c40\u56db\u56fd\u6280\u8853\u4e8b\u52d9\u6240","boring_xml_url":47,"boring_view_url":1,"soilmap_view_url":null,"soiltest_xml_url":0,"soiltest_view_url":0},{"id":197140,"code":"B4KJ201801008-5389","latitude":"33.915","longitude":"134.6391667","source_code":"SK068885762000110005","project_name":"\u5e73\u621018\u5e74\u5ea6 \u6851\u91ce\u5ddd\u5824\u9632\u5730\u8cea\u8abf\u67fb\u696d\u52d9","survey_name":"\u5e73\u621018\u5e74\u5ea6 \u6851\u91ce\u5ddd\u5824\u9632\u5730\u8cea\u8abf\u67fb\u696d\u52d9","client_name":"\u56fd\u571f\u4ea4\u901a\u7701\u56db\u56fd\u5730\u65b9\u6574\u5099\u5c40\u56db\u56fd\u6280\u8853\u4e8b\u52d9\u6240","boring_xml_url":47,"boring_view_url":1,"soilmap_view_url":null,"soiltest_xml_url":0,"soiltest_view_url":0},{"id":197139,"code":"B4KJ201801008-5388","latitude":"33.915","longitude":"134.6391667","source_code":"SK068885762000110004","project_name":"\u5e73\u621018\u5e74\u5ea6 \u6851\u91ce\u5ddd\u5824\u9632\u5730\u8cea\u8abf\u67fb\u696d\u52d9","survey_name":"\u5e73\u621018\u5e74\u5ea6 \u6851\u91ce\u5ddd\u5824\u9632\u5730\u8cea\u8abf\u67fb\u696d\u52d9","client_name":"\u56fd\u571f\u4ea4\u901a\u7701\u56db\u56fd\u5730\u65b9\u6574\u5099\u5c40\u56db\u56fd\u6280\u8853\u4e8b\u52d9\u6240","boring_xml_url":47,"boring_view_url":1,"soilmap_view_url":null,"soiltest_xml_url":0,"soiltest_view_url":0},{"id":197138,"code":"B4KJ201801008-5387","latitude":"33.91444444","longitude":"134.6377778","source_code":"SK068885762000110003","project_name":"\u5e73\u621018\u5e74\u5ea6 \u6851\u91ce\u5ddd\u5824\u9632\u5730\u8cea\u8abf\u67fb\u696d\u52d9","survey_name":"\u5e73\u621018\u5e74\u5ea6 \u6851\u91ce\u5ddd\u5824\u9632\u5730\u8cea\u8abf\u67fb\u696d\u52d9","client_name":"\u56fd\u571f\u4ea4\u901a\u7701\u56db\u56fd\u5730\u65b9\u6574\u5099\u5c40\u56db\u56fd\u6280\u8853\u4e8b\u52d9\u6240","boring_xml_url":47,"boring_view_url":1,"soilmap_view_url":null,"soiltest_xml_url":0,"soiltest_view_url":0},{"id":197137,"code":"B4KJ201801008-5386","latitude":"33.91444444","longitude":"134.6377778","source_code":"SK068885762000110002","project_name":"\u5e73\u621018\u5e74\u5ea6 \u6851\u91ce\u5ddd\u5824\u9632\u5730\u8cea\u8abf\u67fb\u696d\u52d9","survey_name":"\u5e73\u621018\u5e74\u5ea6 \u6851\u91ce\u5ddd\u5824\u9632\u5730\u8cea\u8abf\u67fb\u696d\u52d9","client_name":"\u56fd\u571f\u4ea4\u901a\u7701\u56db\u56fd\u5730\u65b9\u6574\u5099\u5c40\u56db\u56fd\u6280\u8853\u4e8b\u52d9\u6240","boring_xml_url":47,"boring_view_url":1,"soilmap_view_url":null,"soiltest_xml_url":0,"soiltest_view_url":0},{"id":197136,"code":"B4KJ201801008-5385","latitude":"33.91416667","longitude":"134.6363889","source_code":"SK068885762000110001","project_name":"\u5e73\u621018\u5e74\u5ea6 \u6851\u91ce\u5ddd\u5824\u9632\u5730\u8cea\u8abf\u67fb\u696d\u52d9","survey_name":"\u5e73\u621018\u5e74\u5ea6 \u6851\u91ce\u5ddd\u5824\u9632\u5730\u8cea\u8abf\u67fb\u696d\u52d9","client_name":"\u56fd\u571f\u4ea4\u901a\u7701\u56db\u56fd\u5730\u65b9\u6574\u5099\u5c40\u56db\u56fd\u6280\u8853\u4e8b\u52d9\u6240","boring_xml_url":47,"boring_view_url":1,"soilmap_view_url":null,"soiltest_xml_url":0,"soiltest_view_url":0},{"id":197135,"code":"B4KJ201801008-5384","latitude":"33.55777778","longitude":"133.1358333","source_code":"SK068877002000160008","project_name":"","survey_name":"\u5e73\u621018\u5e74\u5ea6\u5927\u6e21\u30c0\u30e0\u7a7a\u6d1e\u8abf\u67fb\u89e3\u6790\u696d\u52d9\u59d4\u8a17","client_name":"\u56fd\u571f\u4ea4\u901a\u7701\u56db\u56fd\u5730\u65b9\u6574\u5099\u5c40\u5927\u6e21\u30c0\u30e0\u7ba1\u7406\u6240","boring_xml_url":47,"boring_view_url":1,"soilmap_view_url":null,"soiltest_xml_url":0,"soiltest_view_url":0},{"id":197134,"code":"B4KJ201801008-5383","latitude":"33.5575","longitude":"133.1363889","source_code":"SK068877002000160007","project_name":"","survey_name":"\u5e73\u621018\u5e74\u5ea6\u5927\u6e21\u30c0\u30e0\u7a7a\u6d1e\u8abf\u67fb\u89e3\u6790\u696d\u52d9\u59d4\u8a17","client_name":"\u56fd\u571f\u4ea4\u901a\u7701\u56db\u56fd\u5730\u65b9\u6574\u5099\u5c40\u5927\u6e21\u30c0\u30e0\u7ba1\u7406\u6240","boring_xml_url":47,"boring_view_url":1,"soilmap_view_url":null,"soiltest_xml_url":0,"soiltest_view_url":0},{"id":197133,"code":"B4KJ201801008-5382","latitude":"33.55694444","longitude":"133.1369444","source_code":"SK068877002000160006","project_name":"","survey_name":"\u5e73\u621018\u5e74\u5ea6\u5927\u6e21\u30c0\u30e0\u7a7a\u6d1e\u8abf\u67fb\u89e3\u6790\u696d\u52d9\u59d4\u8a17","client_name":"\u56fd\u571f\u4ea4\u901a\u7701\u56db\u56fd\u5730\u65b9\u6574\u5099\u5c40\u5927\u6e21\u30c0\u30e0\u7ba1\u7406\u6240","boring_xml_url":47,"boring_view_url":1,"soilmap_view_url":null,"soiltest_xml_url":0,"soiltest_view_url":0},{"id":197132,"code":"B4KJ201801008-5381","latitude":"33.55722222","longitude":"133.1363889","source_code":"SK068877002000160005","project_name":"","survey_name":"\u5e73\u621018\u5e74\u5ea6\u5927\u6e21\u30c0\u30e0\u7a7a\u6d1e\u8abf\u67fb\u89e3\u6790\u696d\u52d9\u59d4\u8a17","client_name":"\u56fd\u571f\u4ea4\u901a\u7701\u56db\u56fd\u5730\u65b9\u6574\u5099\u5c40\u5927\u6e21\u30c0\u30e0\u7ba1\u7406\u6240","boring_xml_url":47,"boring_view_url":1,"soilmap_view_url":null,"soiltest_xml_url":0,"soiltest_view_url":0},{"id":197131,"code":"B4KJ201801008-5380","latitude":"33.55722222","longitude":"133.1363889","source_code":"SK068877002000160004","project_name":"","survey_name":"\u5e73\u621018\u5e74\u5ea6\u5927\u6e21\u30c0\u30e0\u7a7a\u6d1e\u8abf\u67fb\u89e3\u6790\u696d\u52d9\u59d4\u8a17","client_name":"\u56fd\u571f\u4ea4\u901a\u7701\u56db\u56fd\u5730\u65b9\u6574\u5099\u5c40\u5927\u6e21\u30c0\u30e0\u7ba1\u7406\u6240","boring_xml_url":47,"boring_view_url":1,"soilmap_view_url":null,"soiltest_xml_url":0,"soiltest_view_url":0},{"id":197130,"code":"B4KJ201801008-5379","latitude":"33.55722222","longitude":"133.1363889","source_code":"SK068877002000160003","project_name":"","survey_name":"\u5e73\u621018\u5e74\u5ea6\u5927\u6e21\u30c0\u30e0\u7a7a\u6d1e\u8abf\u67fb\u89e3\u6790\u696d\u52d9\u59d4\u8a17","client_name":"\u56fd\u571f\u4ea4\u901a\u7701\u56db\u56fd\u5730\u65b9\u6574\u5099\u5c40\u5927\u6e21\u30c0\u30e0\u7ba1\u7406\u6240","boring_xml_url":47,"boring_view_url":1,"soilmap_view_url":null,"soiltest_xml_url":0,"soiltest_view_url":0},{"id":197129,"code":"B4KJ201801008-5378","latitude":"33.55722222","longitude":"133.1363889","source_code":"SK068877002000160002","project_name":"","survey_name":"\u5e73\u621018\u5e74\u5ea6\u5927\u6e21\u30c0\u30e0\u7a7a\u6d1e\u8abf\u67fb\u89e3\u6790\u696d\u52d9\u59d4\u8a17","client_name":"\u56fd\u571f\u4ea4\u901a\u7701\u56db\u56fd\u5730\u65b9\u6574\u5099\u5c40\u5927\u6e21\u30c0\u30e0\u7ba1\u7406\u6240","boring_xml_url":47,"boring_view_url":1,"soilmap_view_url":null,"soiltest_xml_url":0,"soiltest_view_url":0},{"id":197128,"code":"B4KJ201801008-5377","latitude":"33.55722222","longitude":"133.1363889","source_code":"SK068877002000160001","project_name":"","survey_name":"\u5e73\u621018\u5e74\u5ea6\u5927\u6e21\u30c0\u30e0\u7a7a\u6d1e\u8abf\u67fb\u89e3\u6790\u696d\u52d9\u59d4\u8a17","client_name":"\u56fd\u571f\u4ea4\u901a\u7701\u56db\u56fd\u5730\u65b9\u6574\u5099\u5c40\u5927\u6e21\u30c0\u30e0\u7ba1\u7406\u6240","boring_xml_url":47,"boring_view_url":1,"soilmap_view_url":null,"soiltest_xml_url":0,"soiltest_view_url":0},{"id":197127,"code":"B4KJ201801008-5376","latitude":"33.93590458","longitude":"133.5543392","source_code":"SK068875602000260013","project_name":"\u5bae\u524d\u5730\u533a\u5730\u3059\u3079\u308a","survey_name":"\u5e73\u621018\u5e74\u5ea6 \u67f3\u702c\u30c0\u30e0\u5468\u8fba\u5730\u8cea\u8abf\u67fb\u696d\u52d9","client_name":"\u56fd\u571f\u4ea4\u901a\u7701\u56db\u56fd\u5730\u65b9\u6574\u5099\u5c40\u5409\u91ce\u5ddd\u30c0\u30e0\u7d71\u5408\u7ba1\u7406\u4e8b\u52d9\u6240","boring_xml_url":47,"boring_view_url":1,"soilmap_view_url":null,"soiltest_xml_url":0,"soiltest_view_url":0},{"id":197126,"code":"B4KJ201801008-5375","latitude":"33.92234861","longitude":"133.5464528","source_code":"SK068875602000260012","project_name":"\u4e0a\u5c0f\u5ddd\u5730\u533a\u9053\u8def\u6539\u826f","survey_name":"\u5e73\u621018\u5e74\u5ea6 \u67f3\u702c\u30c0\u30e0\u5468\u8fba\u5730\u8cea\u8abf\u67fb\u696d\u52d9","client_name":"\u56fd\u571f\u4ea4\u901a\u7701\u56db\u56fd\u5730\u65b9\u6574\u5099\u5c40\u5409\u91ce\u5ddd\u30c0\u30e0\u7d71\u5408\u7ba1\u7406\u4e8b\u52d9\u6240","boring_xml_url":47,"boring_view_url":1,"soilmap_view_url":null,"soiltest_xml_url":0,"soiltest_view_url":0}]}}