{"header":{"xyz":{"source":[],"mosaic":false},"page":4140,"raw":{"soiltest_result":"0","bbox":"57.598333,109.544722,1.933333,163.806111","page":"4140"},"conditions":{"soiltest_result":0,"north":57.598333,"west":109.544722,"south":1.933333,"east":163.806111},"success":true,"message":""},"data":{"meta":{"total":212844,"page":4140,"pages":7095,"count":30},"values":[{"id":196375,"code":"B4KJ201801008-4624","latitude":"34.06233333","longitude":"134.1248056","source_code":"SK038830642000120010","project_name":"\u5e73\u621015\u5e74\u5ea6 \u5730\u4e0b\u6c34\u89b3\u6e2c\u4e95\u8a2d\u7f6e\u696d\u52d9","survey_name":"\u5e73\u621015\u5e74\u5ea6 \u5730\u4e0b\u6c34\u89b3\u6e2c\u4e95\u8a2d\u7f6e\u696d\u52d9","client_name":"\u56fd\u571f\u4ea4\u901a\u7701\u56db\u56fd\u5730\u65b9\u6574\u5099\u5c40\u5fb3\u5cf6\u6cb3\u5ddd\u56fd\u9053\u4e8b\u52d9\u6240","boring_xml_url":47,"boring_view_url":1,"soilmap_view_url":null,"soiltest_xml_url":0,"soiltest_view_url":0},{"id":196374,"code":"B4KJ201801008-4623","latitude":"34.06663889","longitude":"134.3590556","source_code":"SK038830642000120009","project_name":"\u5e73\u621015\u5e74\u5ea6 \u5730\u4e0b\u6c34\u89b3\u6e2c\u4e95\u8a2d\u7f6e\u696d\u52d9","survey_name":"\u5e73\u621015\u5e74\u5ea6 \u5730\u4e0b\u6c34\u89b3\u6e2c\u4e95\u8a2d\u7f6e\u696d\u52d9","client_name":"\u56fd\u571f\u4ea4\u901a\u7701\u56db\u56fd\u5730\u65b9\u6574\u5099\u5c40\u5fb3\u5cf6\u6cb3\u5ddd\u56fd\u9053\u4e8b\u52d9\u6240","boring_xml_url":47,"boring_view_url":1,"soilmap_view_url":null,"soiltest_xml_url":0,"soiltest_view_url":0},{"id":196373,"code":"B4KJ201801008-4622","latitude":"34.08475","longitude":"134.4761111","source_code":"SK038830642000120007","project_name":"\u5e73\u621015\u5e74\u5ea6 \u5730\u4e0b\u6c34\u89b3\u6e2c\u4e95\u8a2d\u7f6e\u696d\u52d9","survey_name":"\u5e73\u621015\u5e74\u5ea6 \u5730\u4e0b\u6c34\u89b3\u6e2c\u4e95\u8a2d\u7f6e\u696d\u52d9","client_name":"\u56fd\u571f\u4ea4\u901a\u7701\u56db\u56fd\u5730\u65b9\u6574\u5099\u5c40\u5fb3\u5cf6\u6cb3\u5ddd\u56fd\u9053\u4e8b\u52d9\u6240","boring_xml_url":47,"boring_view_url":1,"soilmap_view_url":null,"soiltest_xml_url":0,"soiltest_view_url":0},{"id":196372,"code":"B4KJ201801008-4621","latitude":"34.08880556","longitude":"134.5310278","source_code":"SK038830642000120005","project_name":"\u5e73\u621015\u5e74\u5ea6 \u5730\u4e0b\u6c34\u89b3\u6e2c\u4e95\u8a2d\u7f6e\u696d\u52d9","survey_name":"\u5e73\u621015\u5e74\u5ea6 \u5730\u4e0b\u6c34\u89b3\u6e2c\u4e95\u8a2d\u7f6e\u696d\u52d9","client_name":"\u56fd\u571f\u4ea4\u901a\u7701\u56db\u56fd\u5730\u65b9\u6574\u5099\u5c40\u5fb3\u5cf6\u6cb3\u5ddd\u56fd\u9053\u4e8b\u52d9\u6240","boring_xml_url":47,"boring_view_url":1,"soilmap_view_url":null,"soiltest_xml_url":0,"soiltest_view_url":0},{"id":196371,"code":"B4KJ201801008-4620","latitude":"34.09086111","longitude":"134.5809444","source_code":"SK038830642000120003","project_name":"\u5e73\u621015\u5e74\u5ea6 \u5730\u4e0b\u6c34\u89b3\u6e2c\u4e95\u8a2d\u7f6e\u696d\u52d9","survey_name":"\u5e73\u621015\u5e74\u5ea6 \u5730\u4e0b\u6c34\u89b3\u6e2c\u4e95\u8a2d\u7f6e\u696d\u52d9","client_name":"\u56fd\u571f\u4ea4\u901a\u7701\u56db\u56fd\u5730\u65b9\u6574\u5099\u5c40\u5fb3\u5cf6\u6cb3\u5ddd\u56fd\u9053\u4e8b\u52d9\u6240","boring_xml_url":47,"boring_view_url":1,"soilmap_view_url":null,"soiltest_xml_url":0,"soiltest_view_url":0},{"id":196370,"code":"B4KJ201801008-4619","latitude":"34.12725","longitude":"134.5176111","source_code":"SK038830642000120001","project_name":"\u5e73\u621015\u5e74\u5ea6 \u5730\u4e0b\u6c34\u89b3\u6e2c\u4e95\u8a2d\u7f6e\u696d\u52d9","survey_name":"\u5e73\u621015\u5e74\u5ea6 \u5730\u4e0b\u6c34\u89b3\u6e2c\u4e95\u8a2d\u7f6e\u696d\u52d9","client_name":"\u56fd\u571f\u4ea4\u901a\u7701\u56db\u56fd\u5730\u65b9\u6574\u5099\u5c40\u5fb3\u5cf6\u6cb3\u5ddd\u56fd\u9053\u4e8b\u52d9\u6240","boring_xml_url":47,"boring_view_url":1,"soilmap_view_url":null,"soiltest_xml_url":0,"soiltest_view_url":0},{"id":196369,"code":"B4KJ201801008-4618","latitude":"34.03530556","longitude":"134.5246389","source_code":"SK038830612000150011","project_name":"\u5e73\u621015\u5e74\u5ea6 \u5fb3\u5cf6\u5357\u74b0\u72b6\u9053\u8def \u65e5\u6bd4\u5b87\u5730\u533a\u5916 \u5730\u8cea\u8abf\u67fb\u696d\u52d9","survey_name":"\u5e73\u621015\u5e74\u5ea6 \u5fb3\u5cf6\u5357\u74b0\u72b6\u9053\u8def \u65e5\u6bd4\u5b87\u5730\u533a\u5916 \u5730\u8cea\u8abf\u67fb\u696d\u52d9","client_name":"\u56fd\u571f\u4ea4\u901a\u7701\u56db\u56fd\u5730\u65b9\u6574\u5099\u5c40\u5fb3\u5cf6\u6cb3\u5ddd\u56fd\u9053\u4e8b\u52d9\u6240","boring_xml_url":47,"boring_view_url":1,"soilmap_view_url":null,"soiltest_xml_url":0,"soiltest_view_url":0},{"id":196368,"code":"B4KJ201801008-4617","latitude":"34.03505556","longitude":"134.5239722","source_code":"SK038830612000150010","project_name":"\u5e73\u621015\u5e74\u5ea6 \u5fb3\u5cf6\u5357\u74b0\u72b6\u9053\u8def \u65e5\u6bd4\u5b87\u5730\u533a\u5916\u5730\u8cea\u8abf\u67fb\u696d\u52d9","survey_name":"\u5e73\u621015\u5e74\u5ea6 \u5fb3\u5cf6\u5357\u74b0\u72b6\u9053\u8def \u65e5\u6bd4\u5b87\u5730\u533a\u5916\u5730\u8cea\u8abf\u67fb\u696d\u52d9","client_name":"\u56fd\u571f\u4ea4\u901a\u7701\u56db\u56fd\u5730\u65b9\u6574\u5099\u5c40\u5fb3\u5cf6\u6cb3\u5ddd\u56fd\u9053\u4e8b\u52d9\u6240","boring_xml_url":47,"boring_view_url":1,"soilmap_view_url":null,"soiltest_xml_url":48,"soiltest_view_url":48},{"id":196367,"code":"B4KJ201801008-4616","latitude":"34.03480556","longitude":"134.523","source_code":"SK038830612000150009","project_name":"\u5e73\u621015\u5e74\u5ea6 \u5fb3\u5cf6\u5357\u74b0\u72b6\u9053\u8def \u65e5\u6bd4\u5b87\u5730\u533a\u5916 \u5730\u8cea\u8abf\u67fb\u696d\u52d9","survey_name":"\u5e73\u621015\u5e74\u5ea6 \u5fb3\u5cf6\u5357\u74b0\u72b6\u9053\u8def \u65e5\u6bd4\u5b87\u5730\u533a\u5916 \u5730\u8cea\u8abf\u67fb\u696d\u52d9","client_name":"\u56fd\u571f\u4ea4\u901a\u7701\u56db\u56fd\u5730\u65b9\u6574\u5099\u5c40\u5fb3\u5cf6\u6cb3\u5ddd\u56fd\u9053\u4e8b\u52d9\u6240","boring_xml_url":47,"boring_view_url":1,"soilmap_view_url":null,"soiltest_xml_url":48,"soiltest_view_url":48},{"id":196366,"code":"B4KJ201801008-4615","latitude":"34.03472222","longitude":"134.5216389","source_code":"SK038830612000150008","project_name":"\u5e73\u621015\u5e74\u5ea6 \u5fb3\u5cf6\u5357\u74b0\u72b6\u9053\u8def \u65e5\u6bd4\u5b87\u5730\u533a\u5916 \u5730\u8cea\u8abf\u67fb\u696d\u52d9","survey_name":"\u5e73\u621015\u5e74\u5ea6 \u5fb3\u5cf6\u5357\u74b0\u72b6\u9053\u8def \u65e5\u6bd4\u5b87\u5730\u533a\u5916 \u5730\u8cea\u8abf\u67fb\u696d\u52d9","client_name":"\u56fd\u571f\u4ea4\u901a\u7701\u56db\u56fd\u5730\u65b9\u6574\u5099\u5c40\u5fb3\u5cf6\u6cb3\u5ddd\u56fd\u9053\u4e8b\u52d9\u6240","boring_xml_url":47,"boring_view_url":1,"soilmap_view_url":null,"soiltest_xml_url":48,"soiltest_view_url":48},{"id":196365,"code":"B4KJ201801008-4614","latitude":"34.03475","longitude":"134.5205278","source_code":"SK038830612000150007","project_name":"\u5e73\u621015\u5e74\u5ea6 \u5fb3\u5cf6\u5357\u74b0\u72b6\u9053\u8def \u65e5\u6bd4\u5b87\u5730\u533a\u5916 \u5730\u8cea\u8abf\u67fb\u696d\u52d9","survey_name":"\u5e73\u621015\u5e74\u5ea6 \u5fb3\u5cf6\u5357\u74b0\u72b6\u9053\u8def \u65e5\u6bd4\u5b87\u5730\u533a\u5916 \u5730\u8cea\u8abf\u67fb\u696d\u52d9","client_name":"\u56fd\u571f\u4ea4\u901a\u7701\u56db\u56fd\u5730\u65b9\u6574\u5099\u5c40\u5fb3\u5cf6\u6cb3\u5ddd\u56fd\u9053\u4e8b\u52d9\u6240","boring_xml_url":47,"boring_view_url":1,"soilmap_view_url":null,"soiltest_xml_url":48,"soiltest_view_url":48},{"id":196364,"code":"B4KJ201801008-4613","latitude":"34.03472222","longitude":"134.5197778","source_code":"SK038830612000150006","project_name":"\u5e73\u621015\u5e74\u5ea6 \u5fb3\u5cf6\u5357\u74b0\u72b6\u9053\u8def \u65e5\u6bd4\u5b87\u5730\u533a\u5916 \u5730\u8cea\u8abf\u67fb\u696d\u52d9","survey_name":"\u5e73\u621015\u5e74\u5ea6 \u5fb3\u5cf6\u5357\u74b0\u72b6\u9053\u8def \u65e5\u6bd4\u5b87\u5730\u533a\u5916 \u5730\u8cea\u8abf\u67fb\u696d\u52d9","client_name":"\u56fd\u571f\u4ea4\u901a\u7701\u56db\u56fd\u5730\u65b9\u6574\u5099\u5c40\u5fb3\u5cf6\u6cb3\u5ddd\u56fd\u9053\u4e8b\u52d9\u6240","boring_xml_url":47,"boring_view_url":1,"soilmap_view_url":null,"soiltest_xml_url":48,"soiltest_view_url":48},{"id":196363,"code":"B4KJ201801008-4612","latitude":"34.03477778","longitude":"134.5191111","source_code":"SK038830612000150005","project_name":"\u5e73\u621015\u5e74\u5ea6 \u5fb3\u5cf6\u5357\u74b0\u72b6\u9053\u8def \u65e5\u6bd4\u5b87\u5730\u533a\u5916\u5730\u8cea\u8abf\u67fb\u696d\u52d9","survey_name":"\u5e73\u621015\u5e74\u5ea6 \u5fb3\u5cf6\u5357\u74b0\u72b6\u9053\u8def \u65e5\u6bd4\u5b87\u5730\u533a\u5916\u5730\u8cea\u8abf\u67fb\u696d\u52d9","client_name":"\u56fd\u571f\u4ea4\u901a\u7701\u56db\u56fd\u5730\u65b9\u6574\u5099\u5c40\u5fb3\u5cf6\u6cb3\u5ddd\u56fd\u9053\u4e8b\u52d9\u6240","boring_xml_url":47,"boring_view_url":1,"soilmap_view_url":null,"soiltest_xml_url":48,"soiltest_view_url":48},{"id":196362,"code":"B4KJ201801008-4611","latitude":"34.03513889","longitude":"134.5179722","source_code":"SK038830612000150004","project_name":"\u5e73\u621015\u5e74\u5ea6 \u5fb3\u5cf6\u5357\u74b0\u72b6\u9053\u8def \u65e5\u6bd4\u5b87\u5730\u533a\u5916\u5730\u8cea\u8abf\u67fb\u696d\u52d9","survey_name":"\u5e73\u621015\u5e74\u5ea6 \u5fb3\u5cf6\u5357\u74b0\u72b6\u9053\u8def \u65e5\u6bd4\u5b87\u5730\u533a\u5916\u5730\u8cea\u8abf\u67fb\u696d\u52d9","client_name":"\u56fd\u571f\u4ea4\u901a\u7701\u56db\u56fd\u5730\u65b9\u6574\u5099\u5c40\u5fb3\u5cf6\u6cb3\u5ddd\u56fd\u9053\u4e8b\u52d9\u6240","boring_xml_url":47,"boring_view_url":1,"soilmap_view_url":null,"soiltest_xml_url":48,"soiltest_view_url":48},{"id":196361,"code":"B4KJ201801008-4610","latitude":"34.03536111","longitude":"134.5161667","source_code":"SK038830612000150003","project_name":"\u5e73\u621015\u5e74\u5ea6 \u5fb3\u5cf6\u5357\u74b0\u72b6\u9053\u8def \u65e5\u6bd4\u5b87\u5730\u533a\u5916\u5730\u8cea\u8abf\u67fb\u696d\u52d9","survey_name":"\u5e73\u621015\u5e74\u5ea6 \u5fb3\u5cf6\u5357\u74b0\u72b6\u9053\u8def \u65e5\u6bd4\u5b87\u5730\u533a\u5916\u5730\u8cea\u8abf\u67fb\u696d\u52d9","client_name":"\u56fd\u571f\u4ea4\u901a\u7701\u56db\u56fd\u5730\u65b9\u6574\u5099\u5c40\u5fb3\u5cf6\u6cb3\u5ddd\u56fd\u9053\u4e8b\u52d9\u6240","boring_xml_url":47,"boring_view_url":1,"soilmap_view_url":null,"soiltest_xml_url":48,"soiltest_view_url":48},{"id":196360,"code":"B4KJ201801008-4609","latitude":"34.03586111","longitude":"134.5147222","source_code":"SK038830612000150002","project_name":"\u5e73\u621015\u5e74\u5ea6 \u5fb3\u5cf6\u5357\u74b0\u72b6\u9053\u8def \u65e5\u6bd4\u5b87\u5730\u533a\u5916\u5730\u8cea\u8abf\u67fb\u696d\u52d9","survey_name":"\u5e73\u621015\u5e74\u5ea6 \u5fb3\u5cf6\u5357\u74b0\u72b6\u9053\u8def \u65e5\u6bd4\u5b87\u5730\u533a\u5916\u5730\u8cea\u8abf\u67fb\u696d\u52d9","client_name":"\u56fd\u571f\u4ea4\u901a\u7701\u56db\u56fd\u5730\u65b9\u6574\u5099\u5c40\u5fb3\u5cf6\u6cb3\u5ddd\u56fd\u9053\u4e8b\u52d9\u6240","boring_xml_url":47,"boring_view_url":1,"soilmap_view_url":null,"soiltest_xml_url":48,"soiltest_view_url":48},{"id":196359,"code":"B4KJ201801008-4608","latitude":"34.03638889","longitude":"134.5126944","source_code":"SK038830612000150001","project_name":"\u5e73\u621015\u5e74\u5ea6 \u5fb3\u5cf6\u5357\u74b0\u72b6\u9053\u8def \u65e5\u6bd4\u5b87\u5730\u533a\u5916\u5730\u8cea\u8abf\u67fb\u696d\u52d9","survey_name":"\u5e73\u621015\u5e74\u5ea6 \u5fb3\u5cf6\u5357\u74b0\u72b6\u9053\u8def \u65e5\u6bd4\u5b87\u5730\u533a\u5916\u5730\u8cea\u8abf\u67fb\u696d\u52d9","client_name":"\u56fd\u571f\u4ea4\u901a\u7701\u56db\u56fd\u5730\u65b9\u6574\u5099\u5c40\u5fb3\u5cf6\u6cb3\u5ddd\u56fd\u9053\u4e8b\u52d9\u6240","boring_xml_url":47,"boring_view_url":1,"soilmap_view_url":null,"soiltest_xml_url":48,"soiltest_view_url":48},{"id":196358,"code":"B4KJ201801008-4607","latitude":"34.03944444","longitude":"134.55","source_code":"SK038830612000140008","project_name":"\u6e2c\u70b9 No.447 L17","survey_name":"\u5e73\u621015\u5e74\u5ea6 \u5fb3\u5cf6\u5357\u74b0\u72b6\u9053\u8def\u6cd5\u82b1\u8c37\u5730\u533a\u5916\u5730\u8cea\u8abf\u67fb\u696d\u52d9","client_name":"\u56fd\u571f\u4ea4\u901a\u7701\u56db\u56fd\u5730\u65b9\u6574\u5099\u5c40\u5fb3\u5cf6\u6cb3\u5ddd\u56fd\u9053\u4e8b\u52d9\u6240","boring_xml_url":47,"boring_view_url":1,"soilmap_view_url":null,"soiltest_xml_url":0,"soiltest_view_url":0},{"id":196357,"code":"B4KJ201801008-4606","latitude":"34.03833333","longitude":"134.5386111","source_code":"SK038830612000140007","project_name":"\u6e2c\u70b9 No.397+15 L15","survey_name":"\u5e73\u621015\u5e74\u5ea6 \u5fb3\u5cf6\u5357\u74b0\u72b6\u9053\u8def\u6cd5\u82b1\u8c37\u5730\u533a\u5916\u5730\u8cea\u8abf\u67fb\u696d\u52d9","client_name":"\u56fd\u571f\u4ea4\u901a\u7701\u56db\u56fd\u5730\u65b9\u6574\u5099\u5c40\u5fb3\u5cf6\u6cb3\u5ddd\u56fd\u9053\u4e8b\u52d9\u6240","boring_xml_url":47,"boring_view_url":1,"soilmap_view_url":null,"soiltest_xml_url":0,"soiltest_view_url":0},{"id":196356,"code":"B4KJ201801008-4605","latitude":"34.03888889","longitude":"134.5522222","source_code":"SK038830612000140006","project_name":"No.459+7R54","survey_name":"\u5e73\u621015\u5e74\u5ea6 \u5fb3\u5cf6\u5357\u74b0\u72b6\u9053\u8def\u6cd5\u82b1\u8c37\u5730\u533a\u5916\u5730\u8cea\u8abf\u67fb\u696d\u52d9","client_name":"\u56fd\u571f\u4ea4\u901a\u7701\u56db\u56fd\u5730\u65b9\u6574\u5099\u5c40\u5fb3\u5cf6\u6cb3\u5ddd\u56fd\u9053\u4e8b\u52d9\u6240","boring_xml_url":47,"boring_view_url":1,"soilmap_view_url":null,"soiltest_xml_url":0,"soiltest_view_url":0},{"id":196355,"code":"B4KJ201801008-4604","latitude":"34.0375","longitude":"134.5352778","source_code":"SK038830612000140005","project_name":"\u533a\u57df\u5916","survey_name":"\u5e73\u621015\u5e74\u5ea6 \u5fb3\u5cf6\u5357\u74b0\u72b6\u9053\u8def\u6cd5\u82b1\u8c37\u5730\u533a\u4ed6\u5730\u8cea\u8abf\u67fb\u696d\u52d9","client_name":"\u56fd\u571f\u4ea4\u901a\u7701\u56db\u56fd\u5730\u65b9\u6574\u5099\u5c40\u5fb3\u5cf6\u6cb3\u5ddd\u56fd\u9053\u4e8b\u52d9\u6240","boring_xml_url":47,"boring_view_url":1,"soilmap_view_url":null,"soiltest_xml_url":0,"soiltest_view_url":0},{"id":196354,"code":"B4KJ201801008-4603","latitude":"34.0375","longitude":"134.5352778","source_code":"SK038830612000140004","project_name":"\u533a\u57df\u5916","survey_name":"\u5e73\u621015\u5e74\u5ea6 \u5fb3\u5cf6\u5357\u74b0\u72b6\u9053\u8def\u6cd5\u82b1\u8c37\u5730\u533a\u4ed6\u5730\u8cea\u8abf\u67fb\u696d\u52d9","client_name":"\u56fd\u571f\u4ea4\u901a\u7701\u56db\u56fd\u5730\u65b9\u6574\u5099\u5c40\u5fb3\u5cf6\u6cb3\u5ddd\u56fd\u9053\u4e8b\u52d9\u6240","boring_xml_url":47,"boring_view_url":1,"soilmap_view_url":null,"soiltest_xml_url":0,"soiltest_view_url":0},{"id":196353,"code":"B4KJ201801008-4602","latitude":"34.03944444","longitude":"134.5536111","source_code":"SK038830612000140003","project_name":"\u6e2c\u70b9 No.466+1L1","survey_name":"\u5e73\u621015\u5e74\u5ea6 \u5fb3\u5cf6\u5357\u74b0\u72b6\u9053\u8def\u6cd5\u82b1\u8c37\u5730\u533a\u5916\u5730\u8cea\u8abf\u67fb\u696d\u52d9","client_name":"\u56fd\u571f\u4ea4\u901a\u7701\u56db\u56fd\u5730\u65b9\u6574\u5099\u5c40\u5fb3\u5cf6\u6cb3\u5ddd\u56fd\u9053\u4e8b\u52d9\u6240","boring_xml_url":47,"boring_view_url":1,"soilmap_view_url":null,"soiltest_xml_url":0,"soiltest_view_url":0},{"id":196352,"code":"B4KJ201801008-4601","latitude":"34.03833333","longitude":"134.5402778","source_code":"SK038830612000140002","project_name":"\u6e2c\u70b9 No.404 R4","survey_name":"\u5e73\u621015\u5e74\u5ea6 \u5fb3\u5cf6\u5357\u74b0\u72b6\u9053\u8def\u6cd5\u82b1\u8c37\u5730\u533a\u5916\u5730\u8cea\u8abf\u67fb\u696d\u52d9","client_name":"\u56fd\u571f\u4ea4\u901a\u7701\u56db\u56fd\u5730\u65b9\u6574\u5099\u5c40\u5fb3\u5cf6\u6cb3\u5ddd\u56fd\u9053\u4e8b\u52d9\u6240","boring_xml_url":47,"boring_view_url":1,"soilmap_view_url":null,"soiltest_xml_url":0,"soiltest_view_url":0},{"id":196351,"code":"B4KJ201801008-4600","latitude":"34.03833333","longitude":"134.5419444","source_code":"SK038830612000140001","project_name":"\u6e2c\u70b9 No.399+19 CL","survey_name":"\u5e73\u621015\u5e74\u5ea6 \u5fb3\u5cf6\u5357\u74b0\u72b6\u9053\u8def\u6cd5\u82b1\u8c37\u5730\u533a\u5916\u5730\u8cea\u8abf\u67fb\u696d\u52d9","client_name":"\u56fd\u571f\u4ea4\u901a\u7701\u56db\u56fd\u5730\u65b9\u6574\u5099\u5c40\u5fb3\u5cf6\u6cb3\u5ddd\u56fd\u9053\u4e8b\u52d9\u6240","boring_xml_url":47,"boring_view_url":1,"soilmap_view_url":null,"soiltest_xml_url":0,"soiltest_view_url":0},{"id":196350,"code":"B4KJ201801008-4599","latitude":"34.00277778","longitude":"133.7866667","source_code":"SK038830542000040008","project_name":"","survey_name":"\u5e73\u621015\u5e74\u5ea6 \u9632\u707d\u70b9\u691c\u8abf\u67fb\u696d\u52d9\u59d4\u8a17","client_name":"\u56fd\u571f\u4ea4\u901a\u7701\u56db\u56fd\u5730\u65b9\u6574\u5099\u5c40\u5fb3\u5cf6\u6cb3\u5ddd\u56fd\u9053\u4e8b\u52d9\u6240","boring_xml_url":47,"boring_view_url":1,"soilmap_view_url":null,"soiltest_xml_url":0,"soiltest_view_url":0},{"id":196349,"code":"B4KJ201801008-4598","latitude":"34.00277778","longitude":"133.7866667","source_code":"SK038830542000040007","project_name":"","survey_name":"\u5e73\u621015\u5e74\u5ea6 \u9632\u707d\u70b9\u691c\u8abf\u67fb\u696d\u52d9\u59d4\u8a17","client_name":"\u56fd\u571f\u4ea4\u901a\u7701\u56db\u56fd\u5730\u65b9\u6574\u5099\u5c40\u5fb3\u5cf6\u6cb3\u5ddd\u56fd\u9053\u4e8b\u52d9\u6240","boring_xml_url":47,"boring_view_url":1,"soilmap_view_url":null,"soiltest_xml_url":0,"soiltest_view_url":0},{"id":196348,"code":"B4KJ201801008-4597","latitude":"34.00277778","longitude":"133.7866667","source_code":"SK038830542000040006","project_name":"","survey_name":"\u5e73\u621015\u5e74\u5ea6 \u9632\u707d\u70b9\u691c\u8abf\u67fb\u696d\u52d9\u59d4\u8a17","client_name":"\u56fd\u571f\u4ea4\u901a\u7701\u56db\u56fd\u5730\u65b9\u6574\u5099\u5c40\u5fb3\u5cf6\u6cb3\u5ddd\u56fd\u9053\u4e8b\u52d9\u6240","boring_xml_url":47,"boring_view_url":1,"soilmap_view_url":null,"soiltest_xml_url":0,"soiltest_view_url":0},{"id":196347,"code":"B4KJ201801008-4596","latitude":"34.00277778","longitude":"133.7866667","source_code":"SK038830542000040005","project_name":"","survey_name":"\u5e73\u621015\u5e74\u5ea6 \u9632\u707d\u70b9\u691c\u8abf\u67fb\u696d\u52d9\u59d4\u8a17","client_name":"\u56fd\u571f\u4ea4\u901a\u7701\u56db\u56fd\u5730\u65b9\u6574\u5099\u5c40\u5fb3\u5cf6\u6cb3\u5ddd\u56fd\u9053\u4e8b\u52d9\u6240","boring_xml_url":47,"boring_view_url":1,"soilmap_view_url":null,"soiltest_xml_url":0,"soiltest_view_url":0},{"id":196346,"code":"B4KJ201801008-4595","latitude":"34.00277778","longitude":"133.7866667","source_code":"SK038830542000040004","project_name":"","survey_name":"\u5e73\u621015\u5e74\u5ea6 \u9632\u707d\u70b9\u691c\u8abf\u67fb\u696d\u52d9\u59d4\u8a17","client_name":"\u56fd\u571f\u4ea4\u901a\u7701\u56db\u56fd\u5730\u65b9\u6574\u5099\u5c40\u5fb3\u5cf6\u6cb3\u5ddd\u56fd\u9053\u4e8b\u52d9\u6240","boring_xml_url":47,"boring_view_url":1,"soilmap_view_url":null,"soiltest_xml_url":0,"soiltest_view_url":0}]}}