{"header":{"xyz":{"source":[],"mosaic":false},"page":4164,"raw":{"soiltest_result":"0","bbox":"57.598333,109.544722,1.933333,163.806111","page":"4164"},"conditions":{"soiltest_result":0,"north":57.598333,"west":109.544722,"south":1.933333,"east":163.806111},"success":true,"message":""},"data":{"meta":{"total":212844,"page":4164,"pages":7095,"count":30},"values":[{"id":195655,"code":"B4KJ201801008-3904","latitude":"35.4550706","longitude":"134.3403122","source_code":"CG53341247055","project_name":"","survey_name":"\u4ed8\u66ff\u753a\u9053\u5730\u8cea\u8abf\u67fb\u696d\u52d9","client_name":"\u56fd\u571f\u4ea4\u901a\u7701\u4e2d\u56fd\u5730\u65b9\u6574\u5099\u5c40\u6bbf\u30c0\u30e0\u5de5\u4e8b\u4e8b\u52d9\u6240","boring_xml_url":40,"boring_view_url":1,"soilmap_view_url":null,"soiltest_xml_url":0,"soiltest_view_url":0},{"id":195654,"code":"B4KJ201801008-3903","latitude":"35.4550706","longitude":"134.34059","source_code":"CG53341247054","project_name":"","survey_name":"\u4ed8\u66ff\u753a\u9053\u5730\u8cea\u8abf\u67fb\u696d\u52d9","client_name":"\u56fd\u571f\u4ea4\u901a\u7701\u4e2d\u56fd\u5730\u65b9\u6574\u5099\u5c40\u6bbf\u30c0\u30e0\u5de5\u4e8b\u4e8b\u52d9\u6240","boring_xml_url":40,"boring_view_url":1,"soilmap_view_url":null,"soiltest_xml_url":0,"soiltest_view_url":0},{"id":195653,"code":"B4KJ201801008-3902","latitude":"35.4547928","longitude":"134.34059","source_code":"CG53341247053","project_name":"","survey_name":"\u4ed8\u66ff\u753a\u9053\u5730\u8cea\u8abf\u67fb\u696d\u52d9","client_name":"\u56fd\u571f\u4ea4\u901a\u7701\u4e2d\u56fd\u5730\u65b9\u6574\u5099\u5c40\u6bbf\u30c0\u30e0\u5de5\u4e8b\u4e8b\u52d9\u6240","boring_xml_url":40,"boring_view_url":1,"soilmap_view_url":null,"soiltest_xml_url":0,"soiltest_view_url":0},{"id":195652,"code":"B4KJ201801008-3901","latitude":"35.4570147","longitude":"134.3403122","source_code":"CG53341247014","project_name":"","survey_name":"\u4ed8\u66ff\u753a\u9053\u5730\u8cea\u8abf\u67fb\u696d\u52d9","client_name":"\u56fd\u571f\u4ea4\u901a\u7701\u4e2d\u56fd\u5730\u65b9\u6574\u5099\u5c40\u6bbf\u30c0\u30e0\u5de5\u4e8b\u4e8b\u52d9\u6240","boring_xml_url":40,"boring_view_url":1,"soilmap_view_url":null,"soiltest_xml_url":0,"soiltest_view_url":0},{"id":195651,"code":"B4KJ201801008-3900","latitude":"35.4595147","longitude":"134.3441172","source_code":"CG53341247013","project_name":"","survey_name":"\u4ed8\u66ff\u753a\u9053\u5730\u8cea\u8abf\u67fb\u696d\u52d9","client_name":"\u56fd\u571f\u4ea4\u901a\u7701\u4e2d\u56fd\u5730\u65b9\u6574\u5099\u5c40\u6bbf\u30c0\u30e0\u5de5\u4e8b\u4e8b\u52d9\u6240","boring_xml_url":40,"boring_view_url":1,"soilmap_view_url":null,"soiltest_xml_url":0,"soiltest_view_url":0},{"id":195650,"code":"B4KJ201801008-3899","latitude":"35.4588203","longitude":"134.3437842","source_code":"CG53341247012","project_name":"","survey_name":"\u4ed8\u66ff\u753a\u9053\u5730\u8cea\u8abf\u67fb\u696d\u52d9","client_name":"\u56fd\u571f\u4ea4\u901a\u7701\u4e2d\u56fd\u5730\u65b9\u6574\u5099\u5c40\u6bbf\u30c0\u30e0\u5de5\u4e8b\u4e8b\u52d9\u6240","boring_xml_url":40,"boring_view_url":1,"soilmap_view_url":null,"soiltest_xml_url":0,"soiltest_view_url":0},{"id":195649,"code":"B4KJ201801008-3898","latitude":"35.4591258","longitude":"134.3429508","source_code":"CG53341247011","project_name":"","survey_name":"\u4ed8\u66ff\u753a\u9053\u5730\u8cea\u8abf\u67fb\u696d\u52d9","client_name":"\u56fd\u571f\u4ea4\u901a\u7701\u4e2d\u56fd\u5730\u65b9\u6574\u5099\u5c40\u6bbf\u30c0\u30e0\u5de5\u4e8b\u4e8b\u52d9\u6240","boring_xml_url":40,"boring_view_url":1,"soilmap_view_url":null,"soiltest_xml_url":0,"soiltest_view_url":0},{"id":195648,"code":"B4KJ201801008-3897","latitude":"35.4586258","longitude":"134.3419786","source_code":"CG53341247010","project_name":"","survey_name":"\u4ed8\u66ff\u753a\u9053\u5730\u8cea\u8abf\u67fb\u696d\u52d9","client_name":"\u56fd\u571f\u4ea4\u901a\u7701\u4e2d\u56fd\u5730\u65b9\u6574\u5099\u5c40\u6bbf\u30c0\u30e0\u5de5\u4e8b\u4e8b\u52d9\u6240","boring_xml_url":40,"boring_view_url":1,"soilmap_view_url":null,"soiltest_xml_url":0,"soiltest_view_url":0},{"id":195647,"code":"B4KJ201801008-3896","latitude":"35.4570981","longitude":"134.3412844","source_code":"CG53341247009","project_name":"","survey_name":"\u4ed8\u66ff\u753a\u9053\u5730\u8cea\u8abf\u67fb\u696d\u52d9","client_name":"\u56fd\u571f\u4ea4\u901a\u7701\u4e2d\u56fd\u5730\u65b9\u6574\u5099\u5c40\u6bbf\u30c0\u30e0\u5de5\u4e8b\u4e8b\u52d9\u6240","boring_xml_url":40,"boring_view_url":1,"soilmap_view_url":null,"soiltest_xml_url":0,"soiltest_view_url":0},{"id":195646,"code":"B4KJ201801008-3895","latitude":"35.4574314","longitude":"134.3407289","source_code":"CG53341247008","project_name":"","survey_name":"\u4ed8\u66ff\u753a\u9053\u5730\u8cea\u8abf\u67fb\u696d\u52d9","client_name":"\u56fd\u571f\u4ea4\u901a\u7701\u4e2d\u56fd\u5730\u65b9\u6574\u5099\u5c40\u6bbf\u30c0\u30e0\u5de5\u4e8b\u4e8b\u52d9\u6240","boring_xml_url":40,"boring_view_url":1,"soilmap_view_url":null,"soiltest_xml_url":0,"soiltest_view_url":0},{"id":195645,"code":"B4KJ201801008-3894","latitude":"35.4552094","longitude":"134.3407844","source_code":"CG53341247007","project_name":"","survey_name":"\u4ed8\u66ff\u753a\u9053\u5730\u8cea\u8abf\u67fb\u696d\u52d9","client_name":"\u56fd\u571f\u4ea4\u901a\u7701\u4e2d\u56fd\u5730\u65b9\u6574\u5099\u5c40\u6bbf\u30c0\u30e0\u5de5\u4e8b\u4e8b\u52d9\u6240","boring_xml_url":40,"boring_view_url":1,"soilmap_view_url":null,"soiltest_xml_url":0,"soiltest_view_url":0},{"id":195644,"code":"B4KJ201801008-3893","latitude":"35.4548483","longitude":"134.3408122","source_code":"CG53341247006","project_name":"","survey_name":"\u4ed8\u66ff\u753a\u9053\u5730\u8cea\u8abf\u67fb\u696d\u52d9","client_name":"\u56fd\u571f\u4ea4\u901a\u7701\u4e2d\u56fd\u5730\u65b9\u6574\u5099\u5c40\u6bbf\u30c0\u30e0\u5de5\u4e8b\u4e8b\u52d9\u6240","boring_xml_url":40,"boring_view_url":1,"soilmap_view_url":null,"soiltest_xml_url":0,"soiltest_view_url":0},{"id":195643,"code":"B4KJ201801008-3892","latitude":"35.4547928","longitude":"134.3414233","source_code":"CG53341247005","project_name":"","survey_name":"\u4ed8\u66ff\u753a\u9053\u5730\u8cea\u8abf\u67fb\u696d\u52d9","client_name":"\u56fd\u571f\u4ea4\u901a\u7701\u4e2d\u56fd\u5730\u65b9\u6574\u5099\u5c40\u6bbf\u30c0\u30e0\u5de5\u4e8b\u4e8b\u52d9\u6240","boring_xml_url":40,"boring_view_url":1,"soilmap_view_url":null,"soiltest_xml_url":0,"soiltest_view_url":0},{"id":195642,"code":"B4KJ201801008-3891","latitude":"35.4607922","longitude":"134.3455061","source_code":"CG53341247004","project_name":"","survey_name":"\u795e\u8b77\u5730\u533a\u5730\u8cea\u8abf\u67fb\u696d\u52d9","client_name":"\u56fd\u571f\u4ea4\u901a\u7701\u4e2d\u56fd\u5730\u65b9\u6574\u5099\u5c40\u6bbf\u30c0\u30e0\u5de5\u4e8b\u4e8b\u52d9\u6240","boring_xml_url":40,"boring_view_url":1,"soilmap_view_url":null,"soiltest_xml_url":0,"soiltest_view_url":0},{"id":195641,"code":"B4KJ201801008-3890","latitude":"35.46057","longitude":"134.3458117","source_code":"CG53341247003","project_name":"","survey_name":"\u795e\u8b77\u5730\u533a\u5730\u8cea\u8abf\u67fb\u696d\u52d9","client_name":"\u56fd\u571f\u4ea4\u901a\u7701\u4e2d\u56fd\u5730\u65b9\u6574\u5099\u5c40\u6bbf\u30c0\u30e0\u5de5\u4e8b\u4e8b\u52d9\u6240","boring_xml_url":40,"boring_view_url":1,"soilmap_view_url":null,"soiltest_xml_url":0,"soiltest_view_url":0},{"id":195640,"code":"B4KJ201801008-3889","latitude":"35.4545706","longitude":"134.3401456","source_code":"CG53341247002","project_name":"","survey_name":"\u8caf\u6c34\u6c60\u5468\u8fba\u5730\u8cea\u8abf\u67fb\u696d\u52d9","client_name":"\u56fd\u571f\u4ea4\u901a\u7701\u4e2d\u56fd\u5730\u65b9\u6574\u5099\u5c40\u6bbf\u30c0\u30e0\u5de5\u4e8b\u4e8b\u52d9\u6240","boring_xml_url":40,"boring_view_url":1,"soilmap_view_url":null,"soiltest_xml_url":0,"soiltest_view_url":0},{"id":195639,"code":"B4KJ201801008-3888","latitude":"35.4546817","longitude":"134.3408678","source_code":"CG53341247001","project_name":"","survey_name":"\u8caf\u6c34\u6c60\u5468\u8fba\u5730\u8cea\u8abf\u67fb\u696d\u52d9","client_name":"\u56fd\u571f\u4ea4\u901a\u7701\u4e2d\u56fd\u5730\u65b9\u6574\u5099\u5c40\u6bbf\u30c0\u30e0\u5de5\u4e8b\u4e8b\u52d9\u6240","boring_xml_url":40,"boring_view_url":1,"soilmap_view_url":null,"soiltest_xml_url":0,"soiltest_view_url":0},{"id":195638,"code":"B4KJ201801008-3887","latitude":"35.4529878","longitude":"134.3473672","source_code":"CG53341238009","project_name":"","survey_name":"\u6bbf\u6750\u6599\u5c71\u7acb\u5751\u8abf\u67fb\u696d\u52d9","client_name":"\u56fd\u571f\u4ea4\u901a\u7701\u4e2d\u56fd\u5730\u65b9\u6574\u5099\u5c40\u6bbf\u30c0\u30e0\u5de5\u4e8b\u4e8b\u52d9\u6240","boring_xml_url":40,"boring_view_url":1,"soilmap_view_url":null,"soiltest_xml_url":0,"soiltest_view_url":0},{"id":195637,"code":"B4KJ201801008-3886","latitude":"35.4524322","longitude":"134.3487283","source_code":"CG53341238006","project_name":"","survey_name":"\u6cb3\u5e8a\u6750\u6599\u8abf\u67fb\u696d\u52d9","client_name":"\u56fd\u571f\u4ea4\u901a\u7701\u4e2d\u56fd\u5730\u65b9\u6574\u5099\u5c40\u6bbf\u30c0\u30e0\u5de5\u4e8b\u4e8b\u52d9\u6240","boring_xml_url":40,"boring_view_url":1,"soilmap_view_url":null,"soiltest_xml_url":0,"soiltest_view_url":0},{"id":195636,"code":"B4KJ201801008-3885","latitude":"35.4529322","longitude":"134.3497003","source_code":"CG53341238005","project_name":"","survey_name":"\u6cb3\u5e8a\u6750\u6599\u8abf\u67fb\u696d\u52d9","client_name":"\u56fd\u571f\u4ea4\u901a\u7701\u4e2d\u56fd\u5730\u65b9\u6574\u5099\u5c40\u6bbf\u30c0\u30e0\u5de5\u4e8b\u4e8b\u52d9\u6240","boring_xml_url":40,"boring_view_url":1,"soilmap_view_url":null,"soiltest_xml_url":0,"soiltest_view_url":0},{"id":195635,"code":"B4KJ201801008-3884","latitude":"35.4512656","longitude":"134.3486728","source_code":"CG53341238004","project_name":"","survey_name":"\u6cb3\u5e8a\u6750\u6599\u8abf\u67fb\u696d\u52d9","client_name":"\u56fd\u571f\u4ea4\u901a\u7701\u4e2d\u56fd\u5730\u65b9\u6574\u5099\u5c40\u6bbf\u30c0\u30e0\u5de5\u4e8b\u4e8b\u52d9\u6240","boring_xml_url":40,"boring_view_url":1,"soilmap_view_url":null,"soiltest_xml_url":0,"soiltest_view_url":0},{"id":195634,"code":"B4KJ201801008-3883","latitude":"35.4496825","longitude":"134.3476453","source_code":"CG53341238003","project_name":"","survey_name":"\u6cb3\u5e8a\u6750\u6599\u8abf\u67fb\u696d\u52d9","client_name":"\u56fd\u571f\u4ea4\u901a\u7701\u4e2d\u56fd\u5730\u65b9\u6574\u5099\u5c40\u6bbf\u30c0\u30e0\u5de5\u4e8b\u4e8b\u52d9\u6240","boring_xml_url":40,"boring_view_url":1,"soilmap_view_url":null,"soiltest_xml_url":0,"soiltest_view_url":0},{"id":195633,"code":"B4KJ201801008-3882","latitude":"35.4521267","longitude":"134.3492006","source_code":"CG53341238002","project_name":"","survey_name":"\u6cb3\u5e8a\u6750\u6599\u8abf\u67fb\u696d\u52d9","client_name":"\u56fd\u571f\u4ea4\u901a\u7701\u4e2d\u56fd\u5730\u65b9\u6574\u5099\u5c40\u6bbf\u30c0\u30e0\u5de5\u4e8b\u4e8b\u52d9\u6240","boring_xml_url":40,"boring_view_url":1,"soilmap_view_url":null,"soiltest_xml_url":0,"soiltest_view_url":0},{"id":195632,"code":"B4KJ201801008-3881","latitude":"35.4504603","longitude":"134.3483394","source_code":"CG53341238001","project_name":"","survey_name":"\u6cb3\u5e8a\u6750\u6599\u8abf\u67fb\u696d\u52d9","client_name":"\u56fd\u571f\u4ea4\u901a\u7701\u4e2d\u56fd\u5730\u65b9\u6574\u5099\u5c40\u6bbf\u30c0\u30e0\u5de5\u4e8b\u4e8b\u52d9\u6240","boring_xml_url":40,"boring_view_url":1,"soilmap_view_url":null,"soiltest_xml_url":0,"soiltest_view_url":0},{"id":195631,"code":"B4KJ201801008-3880","latitude":"35.4506267","longitude":"134.34334","source_code":"CG53341237095","project_name":"","survey_name":"\u753a\u9053\u8a2d\u8a08\u696d\u52d9","client_name":"\u56fd\u571f\u4ea4\u901a\u7701\u4e2d\u56fd\u5730\u65b9\u6574\u5099\u5c40\u6bbf\u30c0\u30e0\u5de5\u4e8b\u4e8b\u52d9\u6240","boring_xml_url":40,"boring_view_url":1,"soilmap_view_url":null,"soiltest_xml_url":0,"soiltest_view_url":0},{"id":195630,"code":"B4KJ201801008-3879","latitude":"35.4461272","longitude":"134.3430622","source_code":"CG53341237094","project_name":"","survey_name":"\u753a\u9053\u8a2d\u8a08\u696d\u52d9","client_name":"\u56fd\u571f\u4ea4\u901a\u7701\u4e2d\u56fd\u5730\u65b9\u6574\u5099\u5c40\u6bbf\u30c0\u30e0\u5de5\u4e8b\u4e8b\u52d9\u6240","boring_xml_url":40,"boring_view_url":1,"soilmap_view_url":null,"soiltest_xml_url":0,"soiltest_view_url":0},{"id":195629,"code":"B4KJ201801008-3878","latitude":"35.4461272","longitude":"134.3437567","source_code":"CG53341237093","project_name":"","survey_name":"\u753a\u9053\u8a2d\u8a08\u696d\u52d9","client_name":"\u56fd\u571f\u4ea4\u901a\u7701\u4e2d\u56fd\u5730\u65b9\u6574\u5099\u5c40\u6bbf\u30c0\u30e0\u5de5\u4e8b\u4e8b\u52d9\u6240","boring_xml_url":40,"boring_view_url":1,"soilmap_view_url":null,"soiltest_xml_url":0,"soiltest_view_url":0},{"id":195628,"code":"B4KJ201801008-3877","latitude":"35.4461272","longitude":"134.3428681","source_code":"CG53341237092","project_name":"","survey_name":"\u753a\u9053\u8a2d\u8a08\u696d\u52d9","client_name":"\u56fd\u571f\u4ea4\u901a\u7701\u4e2d\u56fd\u5730\u65b9\u6574\u5099\u5c40\u6bbf\u30c0\u30e0\u5de5\u4e8b\u4e8b\u52d9\u6240","boring_xml_url":40,"boring_view_url":1,"soilmap_view_url":null,"soiltest_xml_url":0,"soiltest_view_url":0},{"id":195627,"code":"B4KJ201801008-3876","latitude":"35.445905","longitude":"134.3437289","source_code":"CG53341237091","project_name":"","survey_name":"\u753a\u9053\u8a2d\u8a08\u696d\u52d9","client_name":"\u56fd\u571f\u4ea4\u901a\u7701\u4e2d\u56fd\u5730\u65b9\u6574\u5099\u5c40\u6bbf\u30c0\u30e0\u5de5\u4e8b\u4e8b\u52d9\u6240","boring_xml_url":40,"boring_view_url":1,"soilmap_view_url":null,"soiltest_xml_url":0,"soiltest_view_url":0},{"id":195626,"code":"B4KJ201801008-3875","latitude":"35.4469881","longitude":"134.3403125","source_code":"CG53341237080","project_name":"","survey_name":"\u6d2a\u6c34\u5410\u4ed6\u5730\u8cea\u8abf\u67fb\u696d\u52d9","client_name":"\u56fd\u571f\u4ea4\u901a\u7701\u4e2d\u56fd\u5730\u65b9\u6574\u5099\u5c40\u6bbf\u30c0\u30e0\u5de5\u4e8b\u4e8b\u52d9\u6240","boring_xml_url":40,"boring_view_url":1,"soilmap_view_url":null,"soiltest_xml_url":0,"soiltest_view_url":0}]}}