{"header":{"xyz":{"source":[],"mosaic":false},"page":4203,"raw":{"soiltest_result":"0","bbox":"57.598333,109.544722,1.933333,163.806111","page":"4203"},"conditions":{"soiltest_result":0,"north":57.598333,"west":109.544722,"south":1.933333,"east":163.806111},"success":true,"message":""},"data":{"meta":{"total":212844,"page":4203,"pages":7095,"count":30},"values":[{"id":194485,"code":"B4KJ201801008-2734","latitude":"35.4266044","longitude":"133.2161922","source_code":"CG53331107035","project_name":"","survey_name":"\u8352\u5cf6\u5730\u533a\u5730\u8cea\u8abf\u67fb\u696d\u52d9","client_name":"\u56fd\u571f\u4ea4\u901a\u7701\u4e2d\u56fd\u5730\u65b9\u6574\u5099\u5c40\u677e\u6c5f\u56fd\u9053\u4e8b\u52d9\u6240","boring_xml_url":40,"boring_view_url":1,"soilmap_view_url":null,"soiltest_xml_url":0,"soiltest_view_url":0},{"id":194484,"code":"B4KJ201801008-2733","latitude":"35.4266878","longitude":"133.21597","source_code":"CG53331107034","project_name":"","survey_name":"\u8352\u5cf6\u5730\u533a\u5730\u8cea\u8abf\u67fb\u696d\u52d9","client_name":"\u56fd\u571f\u4ea4\u901a\u7701\u4e2d\u56fd\u5730\u65b9\u6574\u5099\u5c40\u677e\u6c5f\u56fd\u9053\u4e8b\u52d9\u6240","boring_xml_url":40,"boring_view_url":1,"soilmap_view_url":null,"soiltest_xml_url":0,"soiltest_view_url":0},{"id":194483,"code":"B4KJ201801008-2732","latitude":"35.4260767","longitude":"133.2166644","source_code":"CG53331107033","project_name":"","survey_name":"\u8352\u5cf6\u5730\u533a\u5730\u8cea\u8abf\u67fb\u696d\u52d9","client_name":"\u56fd\u571f\u4ea4\u901a\u7701\u4e2d\u56fd\u5730\u65b9\u6574\u5099\u5c40\u677e\u6c5f\u56fd\u9053\u4e8b\u52d9\u6240","boring_xml_url":40,"boring_view_url":1,"soilmap_view_url":null,"soiltest_xml_url":0,"soiltest_view_url":0},{"id":194482,"code":"B4KJ201801008-2731","latitude":"35.4266044","longitude":"133.2140814","source_code":"CG53331107032","project_name":"","survey_name":"\u8352\u5cf6\u5730\u533a\u5730\u8cea\u8abf\u67fb\u696d\u52d9","client_name":"\u56fd\u571f\u4ea4\u901a\u7701\u4e2d\u56fd\u5730\u65b9\u6574\u5099\u5c40\u677e\u6c5f\u56fd\u9053\u4e8b\u52d9\u6240","boring_xml_url":40,"boring_view_url":1,"soilmap_view_url":null,"soiltest_xml_url":0,"soiltest_view_url":0},{"id":194481,"code":"B4KJ201801008-2730","latitude":"35.4264378","longitude":"133.2140814","source_code":"CG53331107031","project_name":"","survey_name":"\u8352\u5cf6\u5730\u533a\u5730\u8cea\u8abf\u67fb\u696d\u52d9","client_name":"\u56fd\u571f\u4ea4\u901a\u7701\u4e2d\u56fd\u5730\u65b9\u6574\u5099\u5c40\u677e\u6c5f\u56fd\u9053\u4e8b\u52d9\u6240","boring_xml_url":40,"boring_view_url":1,"soilmap_view_url":null,"soiltest_xml_url":0,"soiltest_view_url":0},{"id":194480,"code":"B4KJ201801008-2729","latitude":"35.4264378","longitude":"133.2141092","source_code":"CG53331107030","project_name":"","survey_name":"\u8352\u5cf6\u5730\u533a\u5730\u8cea\u8abf\u67fb\u696d\u52d9","client_name":"\u56fd\u571f\u4ea4\u901a\u7701\u4e2d\u56fd\u5730\u65b9\u6574\u5099\u5c40\u677e\u6c5f\u56fd\u9053\u4e8b\u52d9\u6240","boring_xml_url":40,"boring_view_url":1,"soilmap_view_url":null,"soiltest_xml_url":0,"soiltest_view_url":0},{"id":194479,"code":"B4KJ201801008-2728","latitude":"35.4264933","longitude":"133.2137203","source_code":"CG53331107029","project_name":"","survey_name":"\u8352\u5cf6\u5730\u533a\u5730\u8cea\u8abf\u67fb\u696d\u52d9","client_name":"\u56fd\u571f\u4ea4\u901a\u7701\u4e2d\u56fd\u5730\u65b9\u6574\u5099\u5c40\u677e\u6c5f\u56fd\u9053\u4e8b\u52d9\u6240","boring_xml_url":40,"boring_view_url":1,"soilmap_view_url":null,"soiltest_xml_url":0,"soiltest_view_url":0},{"id":194478,"code":"B4KJ201801008-2727","latitude":"35.4269931","longitude":"133.21547","source_code":"CG53331107027","project_name":"","survey_name":"\u5b89\u6765\u897f\u5730\u533a\u5730\u8cea\u8abf\u67fb\u305d\u306e2\u696d\u52d9","client_name":"\u56fd\u571f\u4ea4\u901a\u7701\u4e2d\u56fd\u5730\u65b9\u6574\u5099\u5c40\u677e\u6c5f\u56fd\u9053\u4e8b\u52d9\u6240","boring_xml_url":40,"boring_view_url":1,"soilmap_view_url":null,"soiltest_xml_url":0,"soiltest_view_url":0},{"id":194477,"code":"B4KJ201801008-2726","latitude":"35.4267156","longitude":"133.2156367","source_code":"CG53331107026","project_name":"","survey_name":"\u5b89\u6765\u897f\u5730\u533a\u5730\u8cea\u8abf\u67fb\u305d\u306e2\u696d\u52d9","client_name":"\u56fd\u571f\u4ea4\u901a\u7701\u4e2d\u56fd\u5730\u65b9\u6574\u5099\u5c40\u677e\u6c5f\u56fd\u9053\u4e8b\u52d9\u6240","boring_xml_url":40,"boring_view_url":1,"soilmap_view_url":null,"soiltest_xml_url":0,"soiltest_view_url":0},{"id":194476,"code":"B4KJ201801008-2725","latitude":"35.4266322","longitude":"133.2160256","source_code":"CG53331107025","project_name":"","survey_name":"\u5b89\u6765\u897f\u5730\u533a\u5730\u8cea\u8abf\u67fb\u305d\u306e2\u696d\u52d9","client_name":"\u56fd\u571f\u4ea4\u901a\u7701\u4e2d\u56fd\u5730\u65b9\u6574\u5099\u5c40\u677e\u6c5f\u56fd\u9053\u4e8b\u52d9\u6240","boring_xml_url":40,"boring_view_url":1,"soilmap_view_url":null,"soiltest_xml_url":0,"soiltest_view_url":0},{"id":194475,"code":"B4KJ201801008-2724","latitude":"35.4262433","longitude":"133.2164144","source_code":"CG53331107024","project_name":"","survey_name":"\u5b89\u6765\u897f\u5730\u533a\u5730\u8cea\u8abf\u67fb\u305d\u306e2\u696d\u52d9","client_name":"\u56fd\u571f\u4ea4\u901a\u7701\u4e2d\u56fd\u5730\u65b9\u6574\u5099\u5c40\u677e\u6c5f\u56fd\u9053\u4e8b\u52d9\u6240","boring_xml_url":40,"boring_view_url":1,"soilmap_view_url":null,"soiltest_xml_url":0,"soiltest_view_url":0},{"id":194474,"code":"B4KJ201801008-2723","latitude":"35.4268267","longitude":"133.2168033","source_code":"CG53331107023","project_name":"","survey_name":"\u5b89\u6765\u897f\u5730\u533a\u5730\u8cea\u8abf\u67fb\u305d\u306e2\u696d\u52d9","client_name":"\u56fd\u571f\u4ea4\u901a\u7701\u4e2d\u56fd\u5730\u65b9\u6574\u5099\u5c40\u677e\u6c5f\u56fd\u9053\u4e8b\u52d9\u6240","boring_xml_url":40,"boring_view_url":1,"soilmap_view_url":null,"soiltest_xml_url":0,"soiltest_view_url":0},{"id":194473,"code":"B4KJ201801008-2722","latitude":"35.4264933","longitude":"133.2169144","source_code":"CG53331107022","project_name":"","survey_name":"\u5b89\u6765\u897f\u5730\u533a\u5730\u8cea\u8abf\u67fb\u305d\u306e2\u696d\u52d9","client_name":"\u56fd\u571f\u4ea4\u901a\u7701\u4e2d\u56fd\u5730\u65b9\u6574\u5099\u5c40\u677e\u6c5f\u56fd\u9053\u4e8b\u52d9\u6240","boring_xml_url":40,"boring_view_url":1,"soilmap_view_url":null,"soiltest_xml_url":0,"soiltest_view_url":0},{"id":194472,"code":"B4KJ201801008-2721","latitude":"35.4261878","longitude":"133.21697","source_code":"CG53331107021","project_name":"","survey_name":"\u5b89\u6765\u897f\u5730\u533a\u5730\u8cea\u8abf\u67fb\u305d\u306e2\u696d\u52d9","client_name":"\u56fd\u571f\u4ea4\u901a\u7701\u4e2d\u56fd\u5730\u65b9\u6574\u5099\u5c40\u677e\u6c5f\u56fd\u9053\u4e8b\u52d9\u6240","boring_xml_url":40,"boring_view_url":1,"soilmap_view_url":null,"soiltest_xml_url":0,"soiltest_view_url":0},{"id":194471,"code":"B4KJ201801008-2720","latitude":"35.4267708","longitude":"133.2129147","source_code":"CG53331107020","project_name":"","survey_name":"\u5b89\u6765\u897f\u5730\u533a\u5730\u8cea\u8abf\u67fb\u305d\u306e1\u696d\u52d9","client_name":"\u56fd\u571f\u4ea4\u901a\u7701\u4e2d\u56fd\u5730\u65b9\u6574\u5099\u5c40\u677e\u6c5f\u56fd\u9053\u4e8b\u52d9\u6240","boring_xml_url":40,"boring_view_url":1,"soilmap_view_url":null,"soiltest_xml_url":0,"soiltest_view_url":0},{"id":194470,"code":"B4KJ201801008-2719","latitude":"35.4264097","longitude":"133.2109428","source_code":"CG53331107019","project_name":"","survey_name":"\u5b89\u6765\u897f\u5730\u533a\u5730\u8cea\u8abf\u67fb\u305d\u306e1\u696d\u52d9","client_name":"\u56fd\u571f\u4ea4\u901a\u7701\u4e2d\u56fd\u5730\u65b9\u6574\u5099\u5c40\u677e\u6c5f\u56fd\u9053\u4e8b\u52d9\u6240","boring_xml_url":40,"boring_view_url":1,"soilmap_view_url":null,"soiltest_xml_url":0,"soiltest_view_url":0},{"id":194469,"code":"B4KJ201801008-2718","latitude":"35.4267708","longitude":"133.2129147","source_code":"CG53331107018","project_name":"","survey_name":"\u5b89\u6765\u897f\u5730\u533a\u5730\u8cea\u8abf\u67fb\u305d\u306e1\u696d\u52d9","client_name":"\u56fd\u571f\u4ea4\u901a\u7701\u4e2d\u56fd\u5730\u65b9\u6574\u5099\u5c40\u677e\u6c5f\u56fd\u9053\u4e8b\u52d9\u6240","boring_xml_url":40,"boring_view_url":1,"soilmap_view_url":null,"soiltest_xml_url":0,"soiltest_view_url":0},{"id":194468,"code":"B4KJ201801008-2717","latitude":"35.4269653","longitude":"133.2139147","source_code":"CG53331107017","project_name":"","survey_name":"\u5b89\u6765\u897f\u5730\u533a\u5730\u8cea\u8abf\u67fb\u305d\u306e1\u696d\u52d9","client_name":"\u56fd\u571f\u4ea4\u901a\u7701\u4e2d\u56fd\u5730\u65b9\u6574\u5099\u5c40\u677e\u6c5f\u56fd\u9053\u4e8b\u52d9\u6240","boring_xml_url":40,"boring_view_url":1,"soilmap_view_url":null,"soiltest_xml_url":0,"soiltest_view_url":0},{"id":194467,"code":"B4KJ201801008-2716","latitude":"35.4253825","longitude":"133.2216361","source_code":"CG53331107016","project_name":"","survey_name":"\u5b89\u6765\u9053\u8def\u5730\u8cea\u8abf\u67fb","client_name":"\u56fd\u571f\u4ea4\u901a\u7701\u4e2d\u56fd\u5730\u65b9\u6574\u5099\u5c40\u677e\u6c5f\u56fd\u9053\u4e8b\u52d9\u6240","boring_xml_url":40,"boring_view_url":1,"soilmap_view_url":null,"soiltest_xml_url":0,"soiltest_view_url":0},{"id":194466,"code":"B4KJ201801008-2715","latitude":"35.4261322","longitude":"133.2169144","source_code":"CG53331107015","project_name":"","survey_name":"\u5b89\u6765\u9053\u8def\u5730\u8cea\u8abf\u67fb","client_name":"\u56fd\u571f\u4ea4\u901a\u7701\u4e2d\u56fd\u5730\u65b9\u6574\u5099\u5c40\u677e\u6c5f\u56fd\u9053\u4e8b\u52d9\u6240","boring_xml_url":40,"boring_view_url":1,"soilmap_view_url":null,"soiltest_xml_url":0,"soiltest_view_url":0},{"id":194465,"code":"B4KJ201801008-2714","latitude":"35.42641","longitude":"133.21672","source_code":"CG53331107014","project_name":"","survey_name":"\u5b89\u6765\u9053\u8def\u5730\u8cea\u8abf\u67fb","client_name":"\u56fd\u571f\u4ea4\u901a\u7701\u4e2d\u56fd\u5730\u65b9\u6574\u5099\u5c40\u677e\u6c5f\u56fd\u9053\u4e8b\u52d9\u6240","boring_xml_url":40,"boring_view_url":1,"soilmap_view_url":null,"soiltest_xml_url":0,"soiltest_view_url":0},{"id":194464,"code":"B4KJ201801008-2713","latitude":"35.4259933","longitude":"133.2182197","source_code":"CG53331107013","project_name":"","survey_name":"\u5b89\u6765\u9053\u8def\u5730\u8cea\u8abf\u67fb","client_name":"\u56fd\u571f\u4ea4\u901a\u7701\u4e2d\u56fd\u5730\u65b9\u6574\u5099\u5c40\u677e\u6c5f\u56fd\u9053\u4e8b\u52d9\u6240","boring_xml_url":40,"boring_view_url":1,"soilmap_view_url":null,"soiltest_xml_url":0,"soiltest_view_url":0},{"id":194463,"code":"B4KJ201801008-2712","latitude":"35.4262989","longitude":"133.2179697","source_code":"CG53331107012","project_name":"","survey_name":"\u5b89\u6765\u9053\u8def\u5730\u8cea\u8abf\u67fb","client_name":"\u56fd\u571f\u4ea4\u901a\u7701\u4e2d\u56fd\u5730\u65b9\u6574\u5099\u5c40\u677e\u6c5f\u56fd\u9053\u4e8b\u52d9\u6240","boring_xml_url":40,"boring_view_url":1,"soilmap_view_url":null,"soiltest_xml_url":0,"soiltest_view_url":0},{"id":194462,"code":"B4KJ201801008-2711","latitude":"35.4258544","longitude":"133.2199419","source_code":"CG53331107011","project_name":"","survey_name":"\u5b89\u6765\u9053\u8def\u5730\u8cea\u8abf\u67fb(\u305d\u306e3)\u696d\u52d9","client_name":"\u56fd\u571f\u4ea4\u901a\u7701\u4e2d\u56fd\u5730\u65b9\u6574\u5099\u5c40\u677e\u6c5f\u56fd\u9053\u4e8b\u52d9\u6240","boring_xml_url":40,"boring_view_url":1,"soilmap_view_url":null,"soiltest_xml_url":0,"soiltest_view_url":0},{"id":194461,"code":"B4KJ201801008-2710","latitude":"35.4259933","longitude":"133.2188308","source_code":"CG53331107010","project_name":"","survey_name":"\u5b89\u6765\u9053\u8def\u5730\u8cea\u8abf\u67fb(\u305d\u306e3)\u696d\u52d9","client_name":"\u56fd\u571f\u4ea4\u901a\u7701\u4e2d\u56fd\u5730\u65b9\u6574\u5099\u5c40\u677e\u6c5f\u56fd\u9053\u4e8b\u52d9\u6240","boring_xml_url":40,"boring_view_url":1,"soilmap_view_url":null,"soiltest_xml_url":0,"soiltest_view_url":0},{"id":194460,"code":"B4KJ201801008-2709","latitude":"35.4271042","longitude":"133.2145256","source_code":"CG53331107009","project_name":"","survey_name":"\u5b89\u6765\u9053\u8def\u5730\u8cea\u8abf\u67fb(\u305d\u306e3)\u696d\u52d9","client_name":"\u56fd\u571f\u4ea4\u901a\u7701\u4e2d\u56fd\u5730\u65b9\u6574\u5099\u5c40\u677e\u6c5f\u56fd\u9053\u4e8b\u52d9\u6240","boring_xml_url":40,"boring_view_url":1,"soilmap_view_url":null,"soiltest_xml_url":0,"soiltest_view_url":0},{"id":194459,"code":"B4KJ201801008-2708","latitude":"35.4271042","longitude":"133.2158311","source_code":"CG53331107008","project_name":"","survey_name":"\u5b89\u6765\u9053\u8def\u5730\u8cea\u8abf\u67fb(\u305d\u306e3)\u696d\u52d9","client_name":"\u56fd\u571f\u4ea4\u901a\u7701\u4e2d\u56fd\u5730\u65b9\u6574\u5099\u5c40\u677e\u6c5f\u56fd\u9053\u4e8b\u52d9\u6240","boring_xml_url":40,"boring_view_url":1,"soilmap_view_url":null,"soiltest_xml_url":0,"soiltest_view_url":0},{"id":194458,"code":"B4KJ201801008-2707","latitude":"35.4264933","longitude":"133.2160811","source_code":"CG53331107007","project_name":"","survey_name":"\u5b89\u6765\u9053\u8def\u5730\u8cea\u8abf\u67fb(\u305d\u306e3)\u696d\u52d9","client_name":"\u56fd\u571f\u4ea4\u901a\u7701\u4e2d\u56fd\u5730\u65b9\u6574\u5099\u5c40\u677e\u6c5f\u56fd\u9053\u4e8b\u52d9\u6240","boring_xml_url":40,"boring_view_url":1,"soilmap_view_url":null,"soiltest_xml_url":0,"soiltest_view_url":0},{"id":194457,"code":"B4KJ201801008-2706","latitude":"35.4266878","longitude":"133.21697","source_code":"CG53331107006","project_name":"","survey_name":"\u5b89\u6765\u9053\u8def\u5730\u8cea\u8abf\u67fb(\u305d\u306e3)\u696d\u52d9","client_name":"\u56fd\u571f\u4ea4\u901a\u7701\u4e2d\u56fd\u5730\u65b9\u6574\u5099\u5c40\u677e\u6c5f\u56fd\u9053\u4e8b\u52d9\u6240","boring_xml_url":40,"boring_view_url":1,"soilmap_view_url":null,"soiltest_xml_url":0,"soiltest_view_url":0},{"id":194456,"code":"B4KJ201801008-2705","latitude":"35.42666","longitude":"133.2180253","source_code":"CG53331107005","project_name":"","survey_name":"\u5b89\u6765\u9053\u8def\u5730\u8cea\u8abf\u67fb(\u305d\u306e3)\u696d\u52d9","client_name":"\u56fd\u571f\u4ea4\u901a\u7701\u4e2d\u56fd\u5730\u65b9\u6574\u5099\u5c40\u677e\u6c5f\u56fd\u9053\u4e8b\u52d9\u6240","boring_xml_url":40,"boring_view_url":1,"soilmap_view_url":null,"soiltest_xml_url":0,"soiltest_view_url":0}]}}