{"header":{"xyz":{"source":[],"mosaic":false},"page":4208,"raw":{"soiltest_result":"0","bbox":"57.598333,109.544722,1.933333,163.806111","page":"4208"},"conditions":{"soiltest_result":0,"north":57.598333,"west":109.544722,"south":1.933333,"east":163.806111},"success":true,"message":""},"data":{"meta":{"total":212844,"page":4208,"pages":7095,"count":30},"values":[{"id":194335,"code":"B4KJ201801008-2584","latitude":"35.4687072","longitude":"133.0665933","source_code":"CG53331055002","project_name":"","survey_name":"\u677e\u6c5f\u5e02\u5de6\u5cb8\u5730\u8cea\u8abf\u67fb","client_name":"\u56fd\u571f\u4ea4\u901a\u7701\u4e2d\u56fd\u5730\u65b9\u6574\u5099\u5c40\u51fa\u96f2\u6cb3\u5ddd\u4e8b\u52d9\u6240","boring_xml_url":40,"boring_view_url":1,"soilmap_view_url":null,"soiltest_xml_url":0,"soiltest_view_url":0},{"id":194334,"code":"B4KJ201801008-2583","latitude":"35.4655967","longitude":"133.0661211","source_code":"CG53331055001","project_name":"","survey_name":"\u677e\u6c5f\u5e02\u5de6\u5cb8\u5730\u8cea\u8abf\u67fb","client_name":"\u56fd\u571f\u4ea4\u901a\u7701\u4e2d\u56fd\u5730\u65b9\u6574\u5099\u5c40\u51fa\u96f2\u6cb3\u5ddd\u4e8b\u52d9\u6240","boring_xml_url":40,"boring_view_url":1,"soilmap_view_url":null,"soiltest_xml_url":0,"soiltest_view_url":0},{"id":194333,"code":"B4KJ201801008-2582","latitude":"35.4672628","longitude":"133.0486228","source_code":"CG53331054002","project_name":"","survey_name":"\u677e\u6c5f\u5800\u5ddd\u6d44\u5316\u7528\u6c34\u5c0e\u5165\u5b9f\u65bd\u8a2d\u8a08\u696d\u52d9","client_name":"\u56fd\u571f\u4ea4\u901a\u7701\u4e2d\u56fd\u5730\u65b9\u6574\u5099\u5c40\u51fa\u96f2\u6cb3\u5ddd\u4e8b\u52d9\u6240","boring_xml_url":40,"boring_view_url":1,"soilmap_view_url":null,"soiltest_xml_url":0,"soiltest_view_url":0},{"id":194332,"code":"B4KJ201801008-2581","latitude":"35.4686239","longitude":"133.0570942","source_code":"CG53331054001","project_name":"","survey_name":"\u677e\u6c5f\u5e02\u5de6\u5cb8\u5730\u8cea\u8abf\u67fb","client_name":"\u56fd\u571f\u4ea4\u901a\u7701\u4e2d\u56fd\u5730\u65b9\u6574\u5099\u5c40\u51fa\u96f2\u6cb3\u5ddd\u4e8b\u52d9\u6240","boring_xml_url":40,"boring_view_url":1,"soilmap_view_url":null,"soiltest_xml_url":0,"soiltest_view_url":0},{"id":194331,"code":"B4KJ201801008-2580","latitude":"35.4647906","longitude":"133.0384847","source_code":"CG53331053001","project_name":"","survey_name":"\u677e\u6c5f\u5e02\u5de6\u5cb8\u5730\u8cea\u8abf\u67fb","client_name":"\u56fd\u571f\u4ea4\u901a\u7701\u4e2d\u56fd\u5730\u65b9\u6574\u5099\u5c40\u51fa\u96f2\u6cb3\u5ddd\u4e8b\u52d9\u6240","boring_xml_url":40,"boring_view_url":1,"soilmap_view_url":null,"soiltest_xml_url":0,"soiltest_view_url":0},{"id":194330,"code":"B4KJ201801008-2579","latitude":"35.455515","longitude":"133.0987575","source_code":"CG53331048001","project_name":"","survey_name":"\u5927\u6a4b\u5ddd\u571f\u8cea\u89e3\u6790","client_name":"\u56fd\u571f\u4ea4\u901a\u7701\u4e2d\u56fd\u5730\u65b9\u6574\u5099\u5c40\u51fa\u96f2\u6cb3\u5ddd\u4e8b\u52d9\u6240","boring_xml_url":40,"boring_view_url":1,"soilmap_view_url":null,"soiltest_xml_url":0,"soiltest_view_url":0},{"id":194329,"code":"B4KJ201801008-2578","latitude":"35.4604867","longitude":"133.0944522","source_code":"CG53331047002","project_name":"","survey_name":"\u5927\u6a4b\u5ddd\u571f\u8cea\u89e3\u6790","client_name":"\u56fd\u571f\u4ea4\u901a\u7701\u4e2d\u56fd\u5730\u65b9\u6574\u5099\u5c40\u51fa\u96f2\u6cb3\u5ddd\u4e8b\u52d9\u6240","boring_xml_url":40,"boring_view_url":1,"soilmap_view_url":null,"soiltest_xml_url":0,"soiltest_view_url":0},{"id":194328,"code":"B4KJ201801008-2577","latitude":"35.4586258","longitude":"133.0967297","source_code":"CG53331047001","project_name":"","survey_name":"\u5927\u6a4b\u5ddd\u571f\u8cea\u89e3\u6790","client_name":"\u56fd\u571f\u4ea4\u901a\u7701\u4e2d\u56fd\u5730\u65b9\u6574\u5099\u5c40\u51fa\u96f2\u6cb3\u5ddd\u4e8b\u52d9\u6240","boring_xml_url":40,"boring_view_url":1,"soilmap_view_url":null,"soiltest_xml_url":0,"soiltest_view_url":0},{"id":194327,"code":"B4KJ201801008-2576","latitude":"35.4598475","longitude":"133.0744261","source_code":"CG53331046006","project_name":"","survey_name":"\u677e\u6c5f\u56fd\u9053\u5de5\u4e8b\u4e8b\u52d9\u6240\u5e81\u820e\u57fa\u672c\u8a2d\u8a08\u696d\u52d9","client_name":"\u56fd\u571f\u4ea4\u901a\u7701\u4e2d\u56fd\u5730\u65b9\u6574\u5099\u5c40\u677e\u6c5f\u56fd\u9053\u4e8b\u52d9\u6240","boring_xml_url":40,"boring_view_url":1,"soilmap_view_url":null,"soiltest_xml_url":0,"soiltest_view_url":0},{"id":194326,"code":"B4KJ201801008-2575","latitude":"35.4597364","longitude":"133.0752317","source_code":"CG53331046005","project_name":"","survey_name":"\u677e\u6c5f\u56fd\u9053\u5de5\u4e8b\u4e8b\u52d9\u6240\u5e81\u820e\u57fa\u672c\u8a2d\u8a08\u696d\u52d9","client_name":"\u56fd\u571f\u4ea4\u901a\u7701\u4e2d\u56fd\u5730\u65b9\u6574\u5099\u5c40\u677e\u6c5f\u56fd\u9053\u4e8b\u52d9\u6240","boring_xml_url":40,"boring_view_url":1,"soilmap_view_url":null,"soiltest_xml_url":0,"soiltest_view_url":0},{"id":194325,"code":"B4KJ201801008-2574","latitude":"35.4558203","longitude":"133.0812869","source_code":"CG53331046001","project_name":"","survey_name":"\u4e09\u4e95\u91ce\u5927\u6a4b\u5730\u8cea\u8abf\u67fb(\u305d\u306e2)\u696d\u52d9","client_name":"\u56fd\u571f\u4ea4\u901a\u7701\u4e2d\u56fd\u5730\u65b9\u6574\u5099\u5c40\u677e\u6c5f\u56fd\u9053\u4e8b\u52d9\u6240","boring_xml_url":40,"boring_view_url":1,"soilmap_view_url":null,"soiltest_xml_url":0,"soiltest_view_url":0},{"id":194324,"code":"B4KJ201801008-2573","latitude":"35.4610414","longitude":"133.0532058","source_code":"CG53331044002","project_name":"","survey_name":"\u677e\u6c5f\u5e02\u5de6\u5cb8\u5730\u8cea\u8abf\u67fb","client_name":"\u56fd\u571f\u4ea4\u901a\u7701\u4e2d\u56fd\u5730\u65b9\u6574\u5099\u5c40\u51fa\u96f2\u6cb3\u5ddd\u4e8b\u52d9\u6240","boring_xml_url":40,"boring_view_url":1,"soilmap_view_url":null,"soiltest_xml_url":0,"soiltest_view_url":0},{"id":194323,"code":"B4KJ201801008-2572","latitude":"35.4585972","longitude":"133.0529281","source_code":"CG53331044001","project_name":"","survey_name":"\u4eca\u5e02\u4ed61\u4ef6\u5730\u8cea\u8abf\u67fb","client_name":"\u56fd\u571f\u4ea4\u901a\u7701\u4e2d\u56fd\u5730\u65b9\u6574\u5099\u5c40\u677e\u6c5f\u56fd\u9053\u4e8b\u52d9\u6240","boring_xml_url":40,"boring_view_url":1,"soilmap_view_url":null,"soiltest_xml_url":0,"soiltest_view_url":0},{"id":194322,"code":"B4KJ201801008-2571","latitude":"35.4572628","longitude":"133.0036272","source_code":"CG53331040001","project_name":"","survey_name":"\u5927\u4e95\u5730\u8cea\u8abf\u67fb\u696d\u52d9","client_name":"\u56fd\u571f\u4ea4\u901a\u7701\u4e2d\u56fd\u5730\u65b9\u6574\u5099\u5c40\u51fa\u96f2\u6cb3\u5ddd\u4e8b\u52d9\u6240","boring_xml_url":40,"boring_view_url":1,"soilmap_view_url":null,"soiltest_xml_url":0,"soiltest_view_url":0},{"id":194321,"code":"B4KJ201801008-2570","latitude":"35.4490997","longitude":"133.1194781","source_code":"CG53331039004","project_name":"","survey_name":"\u5e73\u62107\u5e74\u5ea6 \u677e\u6c5f\u5730\u533a\u4ed6\u5730\u8cea\u8abf\u67fb\u696d\u52d9","client_name":"\u56fd\u571f\u4ea4\u901a\u7701\u4e2d\u56fd\u5730\u65b9\u6574\u5099\u5c40\u51fa\u96f2\u6cb3\u5ddd\u4e8b\u52d9\u6240","boring_xml_url":40,"boring_view_url":1,"soilmap_view_url":null,"soiltest_xml_url":0,"soiltest_view_url":0},{"id":194320,"code":"B4KJ201801008-2569","latitude":"35.4517383","longitude":"133.1216722","source_code":"CG53331039003","project_name":"","survey_name":"\u4e2d\u6d77\u4ed6\u5730\u8cea\u8abf\u67fb\u696d\u52d9","client_name":"\u56fd\u571f\u4ea4\u901a\u7701\u4e2d\u56fd\u5730\u65b9\u6574\u5099\u5c40\u51fa\u96f2\u6cb3\u5ddd\u4e8b\u52d9\u6240","boring_xml_url":40,"boring_view_url":1,"soilmap_view_url":null,"soiltest_xml_url":0,"soiltest_view_url":0},{"id":194319,"code":"B4KJ201801008-2568","latitude":"35.4514606","longitude":"133.1209778","source_code":"CG53331039002","project_name":"","survey_name":"\u5e73\u62107\u5e74\u5ea6 \u677e\u6c5f\u5730\u533a\u4ed6\u5730\u8cea\u8abf\u67fb\u696d\u52d9","client_name":"\u56fd\u571f\u4ea4\u901a\u7701\u4e2d\u56fd\u5730\u65b9\u6574\u5099\u5c40\u51fa\u96f2\u6cb3\u5ddd\u4e8b\u52d9\u6240","boring_xml_url":40,"boring_view_url":1,"soilmap_view_url":null,"soiltest_xml_url":0,"soiltest_view_url":0},{"id":194318,"code":"B4KJ201801008-2567","latitude":"35.4471831","longitude":"133.1122286","source_code":"CG53331039001","project_name":"","survey_name":"\u78ef\u8fd1\u6a4b\u4ed62\u4ef6\u5730\u8cea\u8abf\u67fb\u696d\u52d9","client_name":"\u56fd\u571f\u4ea4\u901a\u7701\u4e2d\u56fd\u5730\u65b9\u6574\u5099\u5c40\u677e\u6c5f\u56fd\u9053\u4e8b\u52d9\u6240","boring_xml_url":40,"boring_view_url":1,"soilmap_view_url":null,"soiltest_xml_url":0,"soiltest_view_url":0},{"id":194317,"code":"B4KJ201801008-2566","latitude":"35.4450442","longitude":"133.0980356","source_code":"CG53331038001","project_name":"","survey_name":"\u677e\u6c5f\u30d0\u30a4\u30d1\u30b9\u5730\u8cea\u8abf\u67fb(\u305d\u306e3)\u696d\u52d9","client_name":"\u56fd\u571f\u4ea4\u901a\u7701\u4e2d\u56fd\u5730\u65b9\u6574\u5099\u5c40\u677e\u6c5f\u56fd\u9053\u4e8b\u52d9\u6240","boring_xml_url":40,"boring_view_url":1,"soilmap_view_url":null,"soiltest_xml_url":0,"soiltest_view_url":0},{"id":194316,"code":"B4KJ201801008-2565","latitude":"35.4489325","longitude":"133.0911194","source_code":"CG53331037070","project_name":"","survey_name":"\u5e03\u5fd7\u540d\u5730\u533a\u5730\u8cea\u8abf\u67fb\u696d\u52d9","client_name":"\u56fd\u571f\u4ea4\u901a\u7701\u4e2d\u56fd\u5730\u65b9\u6574\u5099\u5c40\u677e\u6c5f\u56fd\u9053\u4e8b\u52d9\u6240","boring_xml_url":40,"boring_view_url":1,"soilmap_view_url":null,"soiltest_xml_url":0,"soiltest_view_url":0},{"id":194315,"code":"B4KJ201801008-2564","latitude":"35.4459883","longitude":"133.0961192","source_code":"CG53331037069","project_name":"","survey_name":"\u7af9\u77e2\u5730\u533a\u5730\u8cea\u8abf\u67fb\u696d\u52d9","client_name":"\u56fd\u571f\u4ea4\u901a\u7701\u4e2d\u56fd\u5730\u65b9\u6574\u5099\u5c40\u677e\u6c5f\u56fd\u9053\u4e8b\u52d9\u6240","boring_xml_url":40,"boring_view_url":1,"soilmap_view_url":null,"soiltest_xml_url":0,"soiltest_view_url":0},{"id":194314,"code":"B4KJ201801008-2563","latitude":"35.4481547","longitude":"133.0934803","source_code":"CG53331037068","project_name":"","survey_name":"\u677e\u6c5f\u9053\u8def\u5730\u8cea\u8abf\u67fb\u696d\u52d9","client_name":"\u56fd\u571f\u4ea4\u901a\u7701\u4e2d\u56fd\u5730\u65b9\u6574\u5099\u5c40\u677e\u6c5f\u56fd\u9053\u4e8b\u52d9\u6240","boring_xml_url":40,"boring_view_url":1,"soilmap_view_url":null,"soiltest_xml_url":0,"soiltest_view_url":0},{"id":194313,"code":"B4KJ201801008-2562","latitude":"35.4479603","longitude":"133.0937025","source_code":"CG53331037067","project_name":"","survey_name":"\u677e\u6c5f\u9053\u8def\u5730\u8cea\u8abf\u67fb\u696d\u52d9","client_name":"\u56fd\u571f\u4ea4\u901a\u7701\u4e2d\u56fd\u5730\u65b9\u6574\u5099\u5c40\u677e\u6c5f\u56fd\u9053\u4e8b\u52d9\u6240","boring_xml_url":40,"boring_view_url":1,"soilmap_view_url":null,"soiltest_xml_url":0,"soiltest_view_url":0},{"id":194312,"code":"B4KJ201801008-2561","latitude":"35.4470439","longitude":"133.0946192","source_code":"CG53331037066","project_name":"","survey_name":"\u677e\u6c5f\u9053\u8def\u5730\u8cea\u8abf\u67fb\u696d\u52d9","client_name":"\u56fd\u571f\u4ea4\u901a\u7701\u4e2d\u56fd\u5730\u65b9\u6574\u5099\u5c40\u677e\u6c5f\u56fd\u9053\u4e8b\u52d9\u6240","boring_xml_url":40,"boring_view_url":1,"soilmap_view_url":null,"soiltest_xml_url":0,"soiltest_view_url":0},{"id":194311,"code":"B4KJ201801008-2560","latitude":"35.4470717","longitude":"133.0948692","source_code":"CG53331037065","project_name":"","survey_name":"\u677e\u6c5f\u9053\u8def\u5730\u8cea\u8abf\u67fb\u696d\u52d9","client_name":"\u56fd\u571f\u4ea4\u901a\u7701\u4e2d\u56fd\u5730\u65b9\u6574\u5099\u5c40\u677e\u6c5f\u56fd\u9053\u4e8b\u52d9\u6240","boring_xml_url":40,"boring_view_url":1,"soilmap_view_url":null,"soiltest_xml_url":0,"soiltest_view_url":0},{"id":194310,"code":"B4KJ201801008-2559","latitude":"35.4460439","longitude":"133.0943969","source_code":"CG53331037064","project_name":"","survey_name":"\u677e\u6c5f\u9053\u8def\u5730\u8cea\u8abf\u67fb\u696d\u52d9","client_name":"\u56fd\u571f\u4ea4\u901a\u7701\u4e2d\u56fd\u5730\u65b9\u6574\u5099\u5c40\u677e\u6c5f\u56fd\u9053\u4e8b\u52d9\u6240","boring_xml_url":40,"boring_view_url":1,"soilmap_view_url":null,"soiltest_xml_url":0,"soiltest_view_url":0},{"id":194309,"code":"B4KJ201801008-2558","latitude":"35.4467106","longitude":"133.0952858","source_code":"CG53331037063","project_name":"","survey_name":"\u677e\u6c5f\u9053\u8def\u5730\u8cea\u8abf\u67fb\u696d\u52d9","client_name":"\u56fd\u571f\u4ea4\u901a\u7701\u4e2d\u56fd\u5730\u65b9\u6574\u5099\u5c40\u677e\u6c5f\u56fd\u9053\u4e8b\u52d9\u6240","boring_xml_url":40,"boring_view_url":1,"soilmap_view_url":null,"soiltest_xml_url":0,"soiltest_view_url":0},{"id":194308,"code":"B4KJ201801008-2557","latitude":"35.4465161","longitude":"133.0952025","source_code":"CG53331037062","project_name":"","survey_name":"\u677e\u6c5f\u9053\u8def\u5730\u8cea\u8abf\u67fb\u696d\u52d9","client_name":"\u56fd\u571f\u4ea4\u901a\u7701\u4e2d\u56fd\u5730\u65b9\u6574\u5099\u5c40\u677e\u6c5f\u56fd\u9053\u4e8b\u52d9\u6240","boring_xml_url":40,"boring_view_url":1,"soilmap_view_url":null,"soiltest_xml_url":0,"soiltest_view_url":0},{"id":194307,"code":"B4KJ201801008-2556","latitude":"35.4462661","longitude":"133.0957858","source_code":"CG53331037061","project_name":"","survey_name":"\u677e\u6c5f\u9053\u8def\u5730\u8cea\u8abf\u67fb\u696d\u52d9","client_name":"\u56fd\u571f\u4ea4\u901a\u7701\u4e2d\u56fd\u5730\u65b9\u6574\u5099\u5c40\u677e\u6c5f\u56fd\u9053\u4e8b\u52d9\u6240","boring_xml_url":40,"boring_view_url":1,"soilmap_view_url":null,"soiltest_xml_url":0,"soiltest_view_url":0},{"id":194306,"code":"B4KJ201801008-2555","latitude":"35.4461272","longitude":"133.0956192","source_code":"CG53331037060","project_name":"","survey_name":"\u677e\u6c5f\u9053\u8def\u5730\u8cea\u8abf\u67fb\u696d\u52d9","client_name":"\u56fd\u571f\u4ea4\u901a\u7701\u4e2d\u56fd\u5730\u65b9\u6574\u5099\u5c40\u677e\u6c5f\u56fd\u9053\u4e8b\u52d9\u6240","boring_xml_url":40,"boring_view_url":1,"soilmap_view_url":null,"soiltest_xml_url":0,"soiltest_view_url":0}]}}