{"header":{"xyz":{"source":[],"mosaic":false},"page":4235,"raw":{"soiltest_result":"0","bbox":"57.598333,109.544722,1.933333,163.806111","page":"4235"},"conditions":{"soiltest_result":0,"north":57.598333,"west":109.544722,"south":1.933333,"east":163.806111},"success":true,"message":""},"data":{"meta":{"total":212844,"page":4235,"pages":7095,"count":30},"values":[{"id":193525,"code":"B4KJ201801008-1774","latitude":"35.3736561","longitude":"132.7546803","source_code":"CG53320640010","project_name":"","survey_name":"\u59eb\u539f\u5730\u533a\u5730\u8cea\u8abf\u67fb\u696d\u52d9","client_name":"\u56fd\u571f\u4ea4\u901a\u7701\u4e2d\u56fd\u5730\u65b9\u6574\u5099\u5c40\u677e\u6c5f\u56fd\u9053\u4e8b\u52d9\u6240","boring_xml_url":40,"boring_view_url":1,"soilmap_view_url":null,"soiltest_xml_url":0,"soiltest_view_url":0},{"id":193524,"code":"B4KJ201801008-1773","latitude":"35.3733228","longitude":"132.7541247","source_code":"CG53320640009","project_name":"","survey_name":"\u5e73\u62107\u5e74\u5ea6\u59eb\u539f\u5730\u533a\u5730\u8cea\u8abf\u67fb(\u305d\u306e2)\u696d\u52d9","client_name":"\u56fd\u571f\u4ea4\u901a\u7701\u4e2d\u56fd\u5730\u65b9\u6574\u5099\u5c40\u677e\u6c5f\u56fd\u9053\u4e8b\u52d9\u6240","boring_xml_url":40,"boring_view_url":1,"soilmap_view_url":null,"soiltest_xml_url":0,"soiltest_view_url":0},{"id":193523,"code":"B4KJ201801008-1772","latitude":"35.3738228","longitude":"132.7545969","source_code":"CG53320640008","project_name":"","survey_name":"\u59eb\u539f\u5730\u533a\u5730\u8cea\u8abf\u67fb\u696d\u52d9","client_name":"\u56fd\u571f\u4ea4\u901a\u7701\u4e2d\u56fd\u5730\u65b9\u6574\u5099\u5c40\u677e\u6c5f\u56fd\u9053\u4e8b\u52d9\u6240","boring_xml_url":40,"boring_view_url":1,"soilmap_view_url":null,"soiltest_xml_url":0,"soiltest_view_url":0},{"id":193522,"code":"B4KJ201801008-1771","latitude":"35.3734339","longitude":"132.7541525","source_code":"CG53320640007","project_name":"","survey_name":"\u5e73\u62107\u5e74\u5ea6\u59eb\u539f\u5730\u533a\u5730\u8cea\u8abf\u67fb(\u305d\u306e2)\u696d\u52d9","client_name":"\u56fd\u571f\u4ea4\u901a\u7701\u4e2d\u56fd\u5730\u65b9\u6574\u5099\u5c40\u677e\u6c5f\u56fd\u9053\u4e8b\u52d9\u6240","boring_xml_url":40,"boring_view_url":1,"soilmap_view_url":null,"soiltest_xml_url":0,"soiltest_view_url":0},{"id":193521,"code":"B4KJ201801008-1770","latitude":"35.3746283","longitude":"132.7578189","source_code":"CG53320640006","project_name":"","survey_name":"\u59eb\u539f\u5730\u533a\u5730\u8cea\u8abf\u67fb\u696d\u52d9","client_name":"\u56fd\u571f\u4ea4\u901a\u7701\u4e2d\u56fd\u5730\u65b9\u6574\u5099\u5c40\u677e\u6c5f\u56fd\u9053\u4e8b\u52d9\u6240","boring_xml_url":40,"boring_view_url":1,"soilmap_view_url":null,"soiltest_xml_url":0,"soiltest_view_url":0},{"id":193520,"code":"B4KJ201801008-1769","latitude":"35.3732117","longitude":"132.7544581","source_code":"CG53320640005","project_name":"","survey_name":"\u5e73\u62107\u5e74\u5ea6\u59eb\u539f\u5730\u533a\u5730\u8cea\u8abf\u67fb(\u305d\u306e2)\u696d\u52d9","client_name":"\u56fd\u571f\u4ea4\u901a\u7701\u4e2d\u56fd\u5730\u65b9\u6574\u5099\u5c40\u677e\u6c5f\u56fd\u9053\u4e8b\u52d9\u6240","boring_xml_url":40,"boring_view_url":1,"soilmap_view_url":null,"soiltest_xml_url":0,"soiltest_view_url":0},{"id":193519,"code":"B4KJ201801008-1768","latitude":"35.3751283","longitude":"132.7598742","source_code":"CG53320640004","project_name":"","survey_name":"\u59eb\u539f\u5730\u533a\u5730\u8cea\u8abf\u67fb\u696d\u52d9","client_name":"\u56fd\u571f\u4ea4\u901a\u7701\u4e2d\u56fd\u5730\u65b9\u6574\u5099\u5c40\u677e\u6c5f\u56fd\u9053\u4e8b\u52d9\u6240","boring_xml_url":40,"boring_view_url":1,"soilmap_view_url":null,"soiltest_xml_url":0,"soiltest_view_url":0},{"id":193518,"code":"B4KJ201801008-1767","latitude":"35.3714339","longitude":"132.7474308","source_code":"CG53320640003","project_name":"","survey_name":"\u51fa\u96f2\u30d0\u30a4\u30d1\u30b9\u5730\u8cea\u8abf\u67fb\u696d\u52d9","client_name":"\u56fd\u571f\u4ea4\u901a\u7701\u4e2d\u56fd\u5730\u65b9\u6574\u5099\u5c40\u677e\u6c5f\u56fd\u9053\u4e8b\u52d9\u6240","boring_xml_url":40,"boring_view_url":1,"soilmap_view_url":null,"soiltest_xml_url":0,"soiltest_view_url":0},{"id":193517,"code":"B4KJ201801008-1766","latitude":"35.3729894","longitude":"132.7525139","source_code":"CG53320640002","project_name":"","survey_name":"\u51fa\u96f2\u30d0\u30a4\u30d1\u30b9\u5730\u8cea\u8abf\u67fb\u696d\u52d9","client_name":"\u56fd\u571f\u4ea4\u901a\u7701\u4e2d\u56fd\u5730\u65b9\u6574\u5099\u5c40\u677e\u6c5f\u56fd\u9053\u4e8b\u52d9\u6240","boring_xml_url":40,"boring_view_url":1,"soilmap_view_url":null,"soiltest_xml_url":0,"soiltest_view_url":0},{"id":193516,"code":"B4KJ201801008-1765","latitude":"35.3739339","longitude":"132.7557911","source_code":"CG53320640001","project_name":"","survey_name":"\u51fa\u96f2\u30d0\u30a4\u30d1\u30b9\u5730\u8cea\u8abf\u67fb\u696d\u52d9","client_name":"\u56fd\u571f\u4ea4\u901a\u7701\u4e2d\u56fd\u5730\u65b9\u6574\u5099\u5c40\u677e\u6c5f\u56fd\u9053\u4e8b\u52d9\u6240","boring_xml_url":40,"boring_view_url":1,"soilmap_view_url":null,"soiltest_xml_url":0,"soiltest_view_url":0},{"id":193515,"code":"B4KJ201801008-1764","latitude":"35.3624636","longitude":"132.7818447","source_code":"CG53320632005","project_name":"","survey_name":"\u5927\u6d25\u5730\u533a\u306b\u304a\u3051\u308b\u6c34\u6587\u74b0\u5883\u8abf\u67fb\u696d\u52d9","client_name":"\u56fd\u571f\u4ea4\u901a\u7701\u4e2d\u56fd\u5730\u65b9\u6574\u5099\u5c40\u51fa\u96f2\u6cb3\u5ddd\u4e8b\u52d9\u6240","boring_xml_url":40,"boring_view_url":1,"soilmap_view_url":null,"soiltest_xml_url":0,"soiltest_view_url":0},{"id":193514,"code":"B4KJ201801008-1763","latitude":"35.3628247","longitude":"132.7846222","source_code":"CG53320632004","project_name":"","survey_name":"\u5927\u6d25\u5730\u533a\u306b\u304a\u3051\u308b\u6c34\u6587\u74b0\u5883\u8abf\u67fb\u696d\u52d9","client_name":"\u56fd\u571f\u4ea4\u901a\u7701\u4e2d\u56fd\u5730\u65b9\u6574\u5099\u5c40\u51fa\u96f2\u6cb3\u5ddd\u4e8b\u52d9\u6240","boring_xml_url":40,"boring_view_url":1,"soilmap_view_url":null,"soiltest_xml_url":0,"soiltest_view_url":0},{"id":193513,"code":"B4KJ201801008-1762","latitude":"35.3691572","longitude":"132.7829556","source_code":"CG53320632001","project_name":"","survey_name":"\u662d\u548c55\u5e74\u5ea6\u5824\u9632\u5730\u8cea\u8abf\u67fb\u696d\u52d9","client_name":"\u56fd\u571f\u4ea4\u901a\u7701\u4e2d\u56fd\u5730\u65b9\u6574\u5099\u5c40\u51fa\u96f2\u6cb3\u5ddd\u4e8b\u52d9\u6240","boring_xml_url":40,"boring_view_url":1,"soilmap_view_url":null,"soiltest_xml_url":0,"soiltest_view_url":0},{"id":193512,"code":"B4KJ201801008-1761","latitude":"35.3678514","longitude":"132.7588467","source_code":"CG53320630002","project_name":"","survey_name":"\u4eca\u5e02\u4ed61\u4ef6\u5730\u8cea\u8abf\u67fb","client_name":"\u56fd\u571f\u4ea4\u901a\u7701\u4e2d\u56fd\u5730\u65b9\u6574\u5099\u5c40\u677e\u6c5f\u56fd\u9053\u4e8b\u52d9\u6240","boring_xml_url":40,"boring_view_url":1,"soilmap_view_url":null,"soiltest_xml_url":0,"soiltest_view_url":0},{"id":193511,"code":"B4KJ201801008-1760","latitude":"35.3677122","longitude":"132.7573192","source_code":"CG53320630001","project_name":"","survey_name":"\u4eca\u5e02\u4ed61\u4ef6\u5730\u8cea\u8abf\u67fb","client_name":"\u56fd\u571f\u4ea4\u901a\u7701\u4e2d\u56fd\u5730\u65b9\u6574\u5099\u5c40\u677e\u6c5f\u56fd\u9053\u4e8b\u52d9\u6240","boring_xml_url":40,"boring_view_url":1,"soilmap_view_url":null,"soiltest_xml_url":0,"soiltest_view_url":0},{"id":193510,"code":"B4KJ201801008-1759","latitude":"35.3564089","longitude":"132.7906219","source_code":"CG53320623008","project_name":"","survey_name":"\u653e\u6c34\u8def\u958b\u524a\u90e8\u5730\u8cea\u8abf\u67fb(\u305d\u306e3)\u696d\u52d9","client_name":"\u56fd\u571f\u4ea4\u901a\u7701\u4e2d\u56fd\u5730\u65b9\u6574\u5099\u5c40\u51fa\u96f2\u6cb3\u5ddd\u4e8b\u52d9\u6240","boring_xml_url":40,"boring_view_url":1,"soilmap_view_url":null,"soiltest_xml_url":0,"soiltest_view_url":0},{"id":193509,"code":"B4KJ201801008-1758","latitude":"35.3556033","longitude":"132.7851781","source_code":"CG53320623005","project_name":"","survey_name":"\u5927\u6d25\u5730\u533a\u306b\u304a\u3051\u308b\u6c34\u6587\u74b0\u5883\u8abf\u67fb\u696d\u52d9","client_name":"\u56fd\u571f\u4ea4\u901a\u7701\u4e2d\u56fd\u5730\u65b9\u6574\u5099\u5c40\u51fa\u96f2\u6cb3\u5ddd\u4e8b\u52d9\u6240","boring_xml_url":40,"boring_view_url":1,"soilmap_view_url":null,"soiltest_xml_url":0,"soiltest_view_url":0},{"id":193508,"code":"B4KJ201801008-1757","latitude":"35.3532147","longitude":"132.7860114","source_code":"CG53320623004","project_name":"","survey_name":"\u5927\u6d25\u5730\u533a\u5730\u8cea\u8abf\u67fb\u696d\u52d9","client_name":"\u56fd\u571f\u4ea4\u901a\u7701\u4e2d\u56fd\u5730\u65b9\u6574\u5099\u5c40\u51fa\u96f2\u6cb3\u5ddd\u4e8b\u52d9\u6240","boring_xml_url":40,"boring_view_url":1,"soilmap_view_url":null,"soiltest_xml_url":0,"soiltest_view_url":0},{"id":193507,"code":"B4KJ201801008-1756","latitude":"35.3568808","longitude":"132.7859556","source_code":"CG53320623003","project_name":"","survey_name":"\u6590\u4f0a\u5ddd\u653e\u6c34\u8def\u5730\u8cea\u8abf\u67fb\u696d\u52d9","client_name":"\u56fd\u571f\u4ea4\u901a\u7701\u4e2d\u56fd\u5730\u65b9\u6574\u5099\u5c40\u51fa\u96f2\u6cb3\u5ddd\u4e8b\u52d9\u6240","boring_xml_url":40,"boring_view_url":1,"soilmap_view_url":null,"soiltest_xml_url":0,"soiltest_view_url":0},{"id":193506,"code":"B4KJ201801008-1755","latitude":"35.3559367","longitude":"132.7906775","source_code":"CG53320623002","project_name":"","survey_name":"\u6590\u4f0a\u5ddd\u653e\u6c34\u8def\u5730\u8cea\u8abf\u67fb\u696d\u52d9","client_name":"\u56fd\u571f\u4ea4\u901a\u7701\u4e2d\u56fd\u5730\u65b9\u6574\u5099\u5c40\u51fa\u96f2\u6cb3\u5ddd\u4e8b\u52d9\u6240","boring_xml_url":40,"boring_view_url":1,"soilmap_view_url":null,"soiltest_xml_url":0,"soiltest_view_url":0},{"id":193505,"code":"B4KJ201801008-1754","latitude":"35.3532703","longitude":"132.7907608","source_code":"CG53320623001","project_name":"","survey_name":"\u6590\u4f0a\u5ddd\u653e\u6c34\u8def\u5730\u8cea\u8abf\u67fb\u696d\u52d9","client_name":"\u56fd\u571f\u4ea4\u901a\u7701\u4e2d\u56fd\u5730\u65b9\u6574\u5099\u5c40\u51fa\u96f2\u6cb3\u5ddd\u4e8b\u52d9\u6240","boring_xml_url":40,"boring_view_url":1,"soilmap_view_url":null,"soiltest_xml_url":0,"soiltest_view_url":0},{"id":193504,"code":"B4KJ201801008-1753","latitude":"35.357825","longitude":"132.7810117","source_code":"CG53320622009","project_name":"","survey_name":"\u5927\u6d25\u5730\u533a\u306b\u304a\u3051\u308b\u6c34\u6587\u74b0\u5883\u8abf\u67fb\u696d\u52d9","client_name":"\u56fd\u571f\u4ea4\u901a\u7701\u4e2d\u56fd\u5730\u65b9\u6574\u5099\u5c40\u51fa\u96f2\u6cb3\u5ddd\u4e8b\u52d9\u6240","boring_xml_url":40,"boring_view_url":1,"soilmap_view_url":null,"soiltest_xml_url":0,"soiltest_view_url":0},{"id":193503,"code":"B4KJ201801008-1752","latitude":"35.3575475","longitude":"132.7849003","source_code":"CG53320622008","project_name":"","survey_name":"\u5927\u6d25\u5730\u533a\u306b\u304a\u3051\u308b\u6c34\u6587\u74b0\u5883\u8abf\u67fb\u696d\u52d9","client_name":"\u56fd\u571f\u4ea4\u901a\u7701\u4e2d\u56fd\u5730\u65b9\u6574\u5099\u5c40\u51fa\u96f2\u6cb3\u5ddd\u4e8b\u52d9\u6240","boring_xml_url":40,"boring_view_url":1,"soilmap_view_url":null,"soiltest_xml_url":0,"soiltest_view_url":0},{"id":193502,"code":"B4KJ201801008-1751","latitude":"35.3608803","longitude":"132.7840669","source_code":"CG53320622007","project_name":"","survey_name":"\u5927\u6d25\u5730\u533a\u306b\u304a\u3051\u308b\u6c34\u6587\u74b0\u5883\u8abf\u67fb\u696d\u52d9","client_name":"\u56fd\u571f\u4ea4\u901a\u7701\u4e2d\u56fd\u5730\u65b9\u6574\u5099\u5c40\u51fa\u96f2\u6cb3\u5ddd\u4e8b\u52d9\u6240","boring_xml_url":40,"boring_view_url":1,"soilmap_view_url":null,"soiltest_xml_url":0,"soiltest_view_url":0},{"id":193501,"code":"B4KJ201801008-1750","latitude":"35.3572697","longitude":"132.7786508","source_code":"CG53320622006","project_name":"","survey_name":"\u5927\u6d25\u5730\u533a\u5730\u8cea\u8abf\u67fb\u696d\u52d9","client_name":"\u56fd\u571f\u4ea4\u901a\u7701\u4e2d\u56fd\u5730\u65b9\u6574\u5099\u5c40\u51fa\u96f2\u6cb3\u5ddd\u4e8b\u52d9\u6240","boring_xml_url":40,"boring_view_url":1,"soilmap_view_url":null,"soiltest_xml_url":0,"soiltest_view_url":0},{"id":193500,"code":"B4KJ201801008-1749","latitude":"35.3538811","longitude":"132.783345","source_code":"CG53320622005","project_name":"","survey_name":"\u5927\u6d25\u5730\u533a\u5730\u8cea\u8abf\u67fb\u696d\u52d9","client_name":"\u56fd\u571f\u4ea4\u901a\u7701\u4e2d\u56fd\u5730\u65b9\u6574\u5099\u5c40\u51fa\u96f2\u6cb3\u5ddd\u4e8b\u52d9\u6240","boring_xml_url":40,"boring_view_url":1,"soilmap_view_url":null,"soiltest_xml_url":0,"soiltest_view_url":0},{"id":193499,"code":"B4KJ201801008-1748","latitude":"35.3537978","longitude":"132.7824561","source_code":"CG53320622004","project_name":"","survey_name":"\u5927\u6d25\u5730\u533a\u5730\u8cea\u8abf\u67fb\u696d\u52d9","client_name":"\u56fd\u571f\u4ea4\u901a\u7701\u4e2d\u56fd\u5730\u65b9\u6574\u5099\u5c40\u51fa\u96f2\u6cb3\u5ddd\u4e8b\u52d9\u6240","boring_xml_url":40,"boring_view_url":1,"soilmap_view_url":null,"soiltest_xml_url":0,"soiltest_view_url":0},{"id":193498,"code":"B4KJ201801008-1747","latitude":"35.3545756","longitude":"132.7810117","source_code":"CG53320622003","project_name":"","survey_name":"\u5927\u6d25\u5730\u533a\u5730\u8cea\u8abf\u67fb\u696d\u52d9","client_name":"\u56fd\u571f\u4ea4\u901a\u7701\u4e2d\u56fd\u5730\u65b9\u6574\u5099\u5c40\u51fa\u96f2\u6cb3\u5ddd\u4e8b\u52d9\u6240","boring_xml_url":40,"boring_view_url":1,"soilmap_view_url":null,"soiltest_xml_url":0,"soiltest_view_url":0},{"id":193497,"code":"B4KJ201801008-1746","latitude":"35.3534367","longitude":"132.7803175","source_code":"CG53320622002","project_name":"","survey_name":"\u5927\u6d25\u5730\u533a\u5730\u8cea\u8abf\u67fb\u696d\u52d9","client_name":"\u56fd\u571f\u4ea4\u901a\u7701\u4e2d\u56fd\u5730\u65b9\u6574\u5099\u5c40\u51fa\u96f2\u6cb3\u5ddd\u4e8b\u52d9\u6240","boring_xml_url":40,"boring_view_url":1,"soilmap_view_url":null,"soiltest_xml_url":0,"soiltest_view_url":0},{"id":193496,"code":"B4KJ201801008-1745","latitude":"35.3542422","longitude":"132.7789564","source_code":"CG53320622001","project_name":"","survey_name":"\u5927\u6d25\u5730\u533a\u5730\u8cea\u8abf\u67fb\u696d\u52d9","client_name":"\u56fd\u571f\u4ea4\u901a\u7701\u4e2d\u56fd\u5730\u65b9\u6574\u5099\u5c40\u51fa\u96f2\u6cb3\u5ddd\u4e8b\u52d9\u6240","boring_xml_url":40,"boring_view_url":1,"soilmap_view_url":null,"soiltest_xml_url":0,"soiltest_view_url":0}]}}