{"header":{"xyz":{"source":[],"mosaic":false},"page":4237,"raw":{"soiltest_result":"0","bbox":"57.598333,109.544722,1.933333,163.806111","page":"4237"},"conditions":{"soiltest_result":0,"north":57.598333,"west":109.544722,"south":1.933333,"east":163.806111},"success":true,"message":""},"data":{"meta":{"total":212844,"page":4237,"pages":7095,"count":30},"values":[{"id":193465,"code":"B4KJ201801008-1714","latitude":"35.3484928","longitude":"132.7725406","source_code":"CG53320612002","project_name":"","survey_name":"\u662d\u548c52\u5e74\u5ea6\u6590\u4f0a\u5ddd\u653e\u6c34\u8def\u5730\u8cea\u8abf\u67fb","client_name":"\u56fd\u571f\u4ea4\u901a\u7701\u4e2d\u56fd\u5730\u65b9\u6574\u5099\u5c40\u51fa\u96f2\u6cb3\u5ddd\u4e8b\u52d9\u6240","boring_xml_url":40,"boring_view_url":1,"soilmap_view_url":null,"soiltest_xml_url":0,"soiltest_view_url":0},{"id":193464,"code":"B4KJ201801008-1713","latitude":"35.3476594","longitude":"132.7704575","source_code":"CG53320611007","project_name":"","survey_name":"\u5e73\u62108\u5e74\u5ea6\u653e\u6c34\u8def\u958b\u524a\u90e8\u5730\u8cea\u8abf\u67fb(\u305d\u306e4)\u696d\u52d9","client_name":"\u56fd\u571f\u4ea4\u901a\u7701\u4e2d\u56fd\u5730\u65b9\u6574\u5099\u5c40\u51fa\u96f2\u6cb3\u5ddd\u4e8b\u52d9\u6240","boring_xml_url":40,"boring_view_url":1,"soilmap_view_url":null,"soiltest_xml_url":0,"soiltest_view_url":0},{"id":193463,"code":"B4KJ201801008-1712","latitude":"35.3475761","longitude":"132.7705408","source_code":"CG53320611006","project_name":"","survey_name":"\u653e\u6c34\u8def\u958b\u524a\u90e8\u5730\u8cea\u8abf\u67fb(\u305d\u306e5)\u696d\u52d9","client_name":"\u56fd\u571f\u4ea4\u901a\u7701\u4e2d\u56fd\u5730\u65b9\u6574\u5099\u5c40\u51fa\u96f2\u6cb3\u5ddd\u4e8b\u52d9\u6240","boring_xml_url":40,"boring_view_url":1,"soilmap_view_url":null,"soiltest_xml_url":0,"soiltest_view_url":0},{"id":193462,"code":"B4KJ201801008-1711","latitude":"35.3494092","longitude":"132.7721239","source_code":"CG53320611005","project_name":"","survey_name":"\u653e\u6c34\u8def\u958b\u524a\u90e8\u5730\u8cea\u8abf\u67fb\u696d\u52d9","client_name":"\u56fd\u571f\u4ea4\u901a\u7701\u4e2d\u56fd\u5730\u65b9\u6574\u5099\u5c40\u51fa\u96f2\u6cb3\u5ddd\u4e8b\u52d9\u6240","boring_xml_url":40,"boring_view_url":1,"soilmap_view_url":null,"soiltest_xml_url":0,"soiltest_view_url":0},{"id":193461,"code":"B4KJ201801008-1710","latitude":"35.3447986","longitude":"132.7669022","source_code":"CG53320611004","project_name":"","survey_name":"\u653e\u6c34\u8def\u958b\u524a\u90e8\u5730\u8cea\u8abf\u67fb\u696d\u52d9","client_name":"\u56fd\u571f\u4ea4\u901a\u7701\u4e2d\u56fd\u5730\u65b9\u6574\u5099\u5c40\u51fa\u96f2\u6cb3\u5ddd\u4e8b\u52d9\u6240","boring_xml_url":40,"boring_view_url":1,"soilmap_view_url":null,"soiltest_xml_url":0,"soiltest_view_url":0},{"id":193460,"code":"B4KJ201801008-1709","latitude":"35.3503258","longitude":"132.7712906","source_code":"CG53320611003","project_name":"","survey_name":"\u958b\u524a\u90e8\u6398\u524a\u306b\u4f34\u3046\u5730\u4e0b\u6c34\u5f71\u97ff\u8abf\u67fb\u696d\u52d9","client_name":"\u56fd\u571f\u4ea4\u901a\u7701\u4e2d\u56fd\u5730\u65b9\u6574\u5099\u5c40\u51fa\u96f2\u6cb3\u5ddd\u4e8b\u52d9\u6240","boring_xml_url":40,"boring_view_url":1,"soilmap_view_url":null,"soiltest_xml_url":0,"soiltest_view_url":0},{"id":193459,"code":"B4KJ201801008-1708","latitude":"35.3489369","longitude":"132.7637914","source_code":"CG53320611002","project_name":"","survey_name":"\u958b\u524a\u90e8\u6398\u524a\u306b\u4f34\u3046\u5730\u4e0b\u6c34\u5f71\u97ff\u8abf\u67fb\u696d\u52d9","client_name":"\u56fd\u571f\u4ea4\u901a\u7701\u4e2d\u56fd\u5730\u65b9\u6574\u5099\u5c40\u51fa\u96f2\u6cb3\u5ddd\u4e8b\u52d9\u6240","boring_xml_url":40,"boring_view_url":1,"soilmap_view_url":null,"soiltest_xml_url":0,"soiltest_view_url":0},{"id":193458,"code":"B4KJ201801008-1707","latitude":"35.3452153","longitude":"132.7680133","source_code":"CG53320611001","project_name":"","survey_name":"\u662d\u548c52\u5e74\u5ea6\u6590\u4f0a\u5ddd\u653e\u6c34\u8def\u5730\u8cea\u8abf\u67fb","client_name":"\u56fd\u571f\u4ea4\u901a\u7701\u4e2d\u56fd\u5730\u65b9\u6574\u5099\u5c40\u51fa\u96f2\u6cb3\u5ddd\u4e8b\u52d9\u6240","boring_xml_url":40,"boring_view_url":1,"soilmap_view_url":null,"soiltest_xml_url":0,"soiltest_view_url":0},{"id":193457,"code":"B4KJ201801008-1706","latitude":"35.3461592","longitude":"132.7480983","source_code":"CG53320610003","project_name":"","survey_name":"\u653e\u6c34\u8def\u4e2d\u6d41\u90e8\u6a0b\u9580\u4e88\u5b9a\u5730\u5730\u8cea\u8abf\u67fb\u696d\u52d9","client_name":"\u56fd\u571f\u4ea4\u901a\u7701\u4e2d\u56fd\u5730\u65b9\u6574\u5099\u5c40\u51fa\u96f2\u6cb3\u5ddd\u4e8b\u52d9\u6240","boring_xml_url":40,"boring_view_url":1,"soilmap_view_url":null,"soiltest_xml_url":0,"soiltest_view_url":0},{"id":193456,"code":"B4KJ201801008-1705","latitude":"35.3456869","longitude":"132.7478206","source_code":"CG53320610002","project_name":"","survey_name":"\u653e\u6c34\u8def\u4e2d\u6d41\u90e8\u6a0b\u9580\u4e88\u5b9a\u5730\u5730\u8cea\u8abf\u67fb\u696d\u52d9","client_name":"\u56fd\u571f\u4ea4\u901a\u7701\u4e2d\u56fd\u5730\u65b9\u6574\u5099\u5c40\u51fa\u96f2\u6cb3\u5ddd\u4e8b\u52d9\u6240","boring_xml_url":40,"boring_view_url":1,"soilmap_view_url":null,"soiltest_xml_url":0,"soiltest_view_url":0},{"id":193455,"code":"B4KJ201801008-1704","latitude":"35.3459092","longitude":"132.7479594","source_code":"CG53320610001","project_name":"","survey_name":"\u653e\u6c34\u8def\u62e1\u5e45\u90e8\u5730\u8cea\u8abf\u67fb\u696d\u52d9","client_name":"\u56fd\u571f\u4ea4\u901a\u7701\u4e2d\u56fd\u5730\u65b9\u6574\u5099\u5c40\u51fa\u96f2\u6cb3\u5ddd\u4e8b\u52d9\u6240","boring_xml_url":40,"boring_view_url":1,"soilmap_view_url":null,"soiltest_xml_url":0,"soiltest_view_url":0},{"id":193454,"code":"B4KJ201801008-1703","latitude":"35.3381069","longitude":"132.8676711","source_code":"CG53320609003","project_name":"","survey_name":"\u6590\u4f0a\u5ddd\u6cb3\u9053\u5730\u8cea\u8abf\u67fb\u696d\u52d9","client_name":"\u56fd\u571f\u4ea4\u901a\u7701\u4e2d\u56fd\u5730\u65b9\u6574\u5099\u5c40\u51fa\u96f2\u6cb3\u5ddd\u4e8b\u52d9\u6240","boring_xml_url":40,"boring_view_url":1,"soilmap_view_url":null,"soiltest_xml_url":0,"soiltest_view_url":0},{"id":193453,"code":"B4KJ201801008-1702","latitude":"35.3392181","longitude":"132.8651714","source_code":"CG53320609001","project_name":"","survey_name":"\u6590\u4f0a\u5ddd\u6cb3\u9053\u5730\u8cea\u8abf\u67fb\u696d\u52d9","client_name":"\u56fd\u571f\u4ea4\u901a\u7701\u4e2d\u56fd\u5730\u65b9\u6574\u5099\u5c40\u51fa\u96f2\u6cb3\u5ddd\u4e8b\u52d9\u6240","boring_xml_url":40,"boring_view_url":1,"soilmap_view_url":null,"soiltest_xml_url":0,"soiltest_view_url":0},{"id":193452,"code":"B4KJ201801008-1701","latitude":"35.3406064","longitude":"132.8536444","source_code":"CG53320608001","project_name":"","survey_name":"\u8acb\u5ddd\u5730\u8cea\u8abf\u67fb\u305d\u306e\u4ed6\u696d\u52d9","client_name":"\u56fd\u571f\u4ea4\u901a\u7701\u4e2d\u56fd\u5730\u65b9\u6574\u5099\u5c40\u51fa\u96f2\u6cb3\u5ddd\u4e8b\u52d9\u6240","boring_xml_url":40,"boring_view_url":1,"soilmap_view_url":null,"soiltest_xml_url":0,"soiltest_view_url":0},{"id":193451,"code":"B4KJ201801008-1700","latitude":"35.341995","longitude":"132.8448953","source_code":"CG53320607006","project_name":"","survey_name":"\u6590\u4f0a\u5ddd\u6cb3\u9053\u5730\u8cea\u8abf\u67fb\u696d\u52d9","client_name":"\u56fd\u571f\u4ea4\u901a\u7701\u4e2d\u56fd\u5730\u65b9\u6574\u5099\u5c40\u51fa\u96f2\u6cb3\u5ddd\u4e8b\u52d9\u6240","boring_xml_url":40,"boring_view_url":1,"soilmap_view_url":null,"soiltest_xml_url":0,"soiltest_view_url":0},{"id":193450,"code":"B4KJ201801008-1699","latitude":"35.3411617","longitude":"132.8451731","source_code":"CG53320607005","project_name":"","survey_name":"\u6590\u4f0a\u5ddd\u6cb3\u9053\u5730\u8cea\u8abf\u67fb\u696d\u52d9","client_name":"\u56fd\u571f\u4ea4\u901a\u7701\u4e2d\u56fd\u5730\u65b9\u6574\u5099\u5c40\u51fa\u96f2\u6cb3\u5ddd\u4e8b\u52d9\u6240","boring_xml_url":40,"boring_view_url":1,"soilmap_view_url":null,"soiltest_xml_url":0,"soiltest_view_url":0},{"id":193449,"code":"B4KJ201801008-1698","latitude":"35.3403286","longitude":"132.8454508","source_code":"CG53320607004","project_name":"","survey_name":"\u6590\u4f0a\u5ddd\u6cb3\u9053\u5730\u8cea\u8abf\u67fb\u696d\u52d9","client_name":"\u56fd\u571f\u4ea4\u901a\u7701\u4e2d\u56fd\u5730\u65b9\u6574\u5099\u5c40\u51fa\u96f2\u6cb3\u5ddd\u4e8b\u52d9\u6240","boring_xml_url":40,"boring_view_url":1,"soilmap_view_url":null,"soiltest_xml_url":0,"soiltest_view_url":0},{"id":193448,"code":"B4KJ201801008-1697","latitude":"35.3411617","longitude":"132.8354517","source_code":"CG53320607003","project_name":"","survey_name":"\u6590\u4f0a\u5ddd\u6cb3\u9053\u5730\u8cea\u8abf\u67fb\u696d\u52d9","client_name":"\u56fd\u571f\u4ea4\u901a\u7701\u4e2d\u56fd\u5730\u65b9\u6574\u5099\u5c40\u51fa\u96f2\u6cb3\u5ddd\u4e8b\u52d9\u6240","boring_xml_url":40,"boring_view_url":1,"soilmap_view_url":null,"soiltest_xml_url":0,"soiltest_view_url":0},{"id":193447,"code":"B4KJ201801008-1696","latitude":"35.3389397","longitude":"132.8348964","source_code":"CG53320607001","project_name":"","survey_name":"\u6590\u4f0a\u5ddd\u6cb3\u9053\u5730\u8cea\u8abf\u67fb\u696d\u52d9","client_name":"\u56fd\u571f\u4ea4\u901a\u7701\u4e2d\u56fd\u5730\u65b9\u6574\u5099\u5c40\u51fa\u96f2\u6cb3\u5ddd\u4e8b\u52d9\u6240","boring_xml_url":40,"boring_view_url":1,"soilmap_view_url":null,"soiltest_xml_url":0,"soiltest_view_url":0},{"id":193446,"code":"B4KJ201801008-1695","latitude":"35.3442164","longitude":"132.8151756","source_code":"CG53320605002","project_name":"","survey_name":"\u6590\u4f0a\u5ddd\u6cb3\u9053\u5730\u8cea\u8abf\u67fb\u696d\u52d9","client_name":"\u56fd\u571f\u4ea4\u901a\u7701\u4e2d\u56fd\u5730\u65b9\u6574\u5099\u5c40\u51fa\u96f2\u6cb3\u5ddd\u4e8b\u52d9\u6240","boring_xml_url":40,"boring_view_url":1,"soilmap_view_url":null,"soiltest_xml_url":0,"soiltest_view_url":0},{"id":193445,"code":"B4KJ201801008-1694","latitude":"35.3431053","longitude":"132.8140647","source_code":"CG53320605001","project_name":"","survey_name":"\u6590\u4f0a\u5ddd\u6cb3\u9053\u5730\u8cea\u8abf\u67fb\u696d\u52d9","client_name":"\u56fd\u571f\u4ea4\u901a\u7701\u4e2d\u56fd\u5730\u65b9\u6574\u5099\u5c40\u51fa\u96f2\u6cb3\u5ddd\u4e8b\u52d9\u6240","boring_xml_url":40,"boring_view_url":1,"soilmap_view_url":null,"soiltest_xml_url":0,"soiltest_view_url":0},{"id":193444,"code":"B4KJ201801008-1693","latitude":"35.3417711","longitude":"132.7620972","source_code":"CG53320601015","project_name":"","survey_name":"\u5999\u898b\u6a4b\u5730\u76e4\u6539\u826f\u8abf\u67fb\u696d\u52d9","client_name":"\u56fd\u571f\u4ea4\u901a\u7701\u4e2d\u56fd\u5730\u65b9\u6574\u5099\u5c40\u51fa\u96f2\u6cb3\u5ddd\u4e8b\u52d9\u6240","boring_xml_url":40,"boring_view_url":1,"soilmap_view_url":null,"soiltest_xml_url":0,"soiltest_view_url":0},{"id":193443,"code":"B4KJ201801008-1692","latitude":"35.3417711","longitude":"132.7620972","source_code":"CG53320601014","project_name":"","survey_name":"\u5999\u898b\u6a4b\u5730\u76e4\u6539\u826f\u8abf\u67fb\u696d\u52d9","client_name":"\u56fd\u571f\u4ea4\u901a\u7701\u4e2d\u56fd\u5730\u65b9\u6574\u5099\u5c40\u51fa\u96f2\u6cb3\u5ddd\u4e8b\u52d9\u6240","boring_xml_url":40,"boring_view_url":1,"soilmap_view_url":null,"soiltest_xml_url":0,"soiltest_view_url":0},{"id":193442,"code":"B4KJ201801008-1691","latitude":"35.3379383","longitude":"132.7649306","source_code":"CG53320601012","project_name":"","survey_name":"\u99ac\u6728\u540a\u6a4b\u5730\u8cea\u8abf\u67fb\u696d\u52d9","client_name":"\u56fd\u571f\u4ea4\u901a\u7701\u4e2d\u56fd\u5730\u65b9\u6574\u5099\u5c40\u51fa\u96f2\u6cb3\u5ddd\u4e8b\u52d9\u6240","boring_xml_url":40,"boring_view_url":1,"soilmap_view_url":null,"soiltest_xml_url":0,"soiltest_view_url":0},{"id":193441,"code":"B4KJ201801008-1690","latitude":"35.3371883","longitude":"132.7645139","source_code":"CG53320601011","project_name":"","survey_name":"\u99ac\u6728\u540a\u6a4b\u5730\u8cea\u8abf\u67fb\u696d\u52d9","client_name":"\u56fd\u571f\u4ea4\u901a\u7701\u4e2d\u56fd\u5730\u65b9\u6574\u5099\u5c40\u51fa\u96f2\u6cb3\u5ddd\u4e8b\u52d9\u6240","boring_xml_url":40,"boring_view_url":1,"soilmap_view_url":null,"soiltest_xml_url":0,"soiltest_view_url":0},{"id":193440,"code":"B4KJ201801008-1689","latitude":"35.3414378","longitude":"132.7651803","source_code":"CG53320601010","project_name":"","survey_name":"\u653e\u6c34\u8def\u958b\u524a\u90e8\u5730\u8cea\u8abf\u67fb(\u305d\u306e6)\u696d\u52d9","client_name":"\u56fd\u571f\u4ea4\u901a\u7701\u4e2d\u56fd\u5730\u65b9\u6574\u5099\u5c40\u51fa\u96f2\u6cb3\u5ddd\u4e8b\u52d9\u6240","boring_xml_url":40,"boring_view_url":1,"soilmap_view_url":null,"soiltest_xml_url":0,"soiltest_view_url":0},{"id":193439,"code":"B4KJ201801008-1688","latitude":"35.3430208","longitude":"132.7651525","source_code":"CG53320601009","project_name":"","survey_name":"\u653e\u6c34\u8def\u958b\u524a\u90e8\u5730\u8cea\u8abf\u67fb\u696d\u52d9","client_name":"\u56fd\u571f\u4ea4\u901a\u7701\u4e2d\u56fd\u5730\u65b9\u6574\u5099\u5c40\u51fa\u96f2\u6cb3\u5ddd\u4e8b\u52d9\u6240","boring_xml_url":40,"boring_view_url":1,"soilmap_view_url":null,"soiltest_xml_url":0,"soiltest_view_url":0},{"id":193438,"code":"B4KJ201801008-1687","latitude":"35.3427156","longitude":"132.7647358","source_code":"CG53320601008","project_name":"","survey_name":"\u653e\u6c34\u8def\u958b\u524a\u90e8\u5730\u8cea\u8abf\u67fb\u696d\u52d9","client_name":"\u56fd\u571f\u4ea4\u901a\u7701\u4e2d\u56fd\u5730\u65b9\u6574\u5099\u5c40\u51fa\u96f2\u6cb3\u5ddd\u4e8b\u52d9\u6240","boring_xml_url":40,"boring_view_url":1,"soilmap_view_url":null,"soiltest_xml_url":0,"soiltest_view_url":0},{"id":193437,"code":"B4KJ201801008-1686","latitude":"35.3423267","longitude":"132.7644025","source_code":"CG53320601007","project_name":"","survey_name":"\u653e\u6c34\u8def\u958b\u524a\u90e8\u5730\u8cea\u8abf\u67fb\u696d\u52d9","client_name":"\u56fd\u571f\u4ea4\u901a\u7701\u4e2d\u56fd\u5730\u65b9\u6574\u5099\u5c40\u51fa\u96f2\u6cb3\u5ddd\u4e8b\u52d9\u6240","boring_xml_url":40,"boring_view_url":1,"soilmap_view_url":null,"soiltest_xml_url":0,"soiltest_view_url":0},{"id":193436,"code":"B4KJ201801008-1685","latitude":"35.3417156","longitude":"132.7634306","source_code":"CG53320601006","project_name":"","survey_name":"\u653e\u6c34\u8def\u958b\u524a\u90e8\u5730\u8cea\u8abf\u67fb\u696d\u52d9","client_name":"\u56fd\u571f\u4ea4\u901a\u7701\u4e2d\u56fd\u5730\u65b9\u6574\u5099\u5c40\u51fa\u96f2\u6cb3\u5ddd\u4e8b\u52d9\u6240","boring_xml_url":40,"boring_view_url":1,"soilmap_view_url":null,"soiltest_xml_url":0,"soiltest_view_url":0}]}}