{"header":{"xyz":{"source":[],"mosaic":false},"page":4238,"raw":{"soiltest_result":"0","bbox":"57.598333,109.544722,1.933333,163.806111","page":"4238"},"conditions":{"soiltest_result":0,"north":57.598333,"west":109.544722,"south":1.933333,"east":163.806111},"success":true,"message":""},"data":{"meta":{"total":212844,"page":4238,"pages":7095,"count":30},"values":[{"id":193435,"code":"B4KJ201801008-1684","latitude":"35.3369939","longitude":"132.7643472","source_code":"CG53320601005","project_name":"","survey_name":"\u53e4\u5fd7\u6a4b\u4ed63\u6a4b\u6a4b\u6881\u4e88\u5b9a\u5730\u5730\u8cea\u8abf\u67fb","client_name":"\u56fd\u571f\u4ea4\u901a\u7701\u4e2d\u56fd\u5730\u65b9\u6574\u5099\u5c40\u51fa\u96f2\u6cb3\u5ddd\u4e8b\u52d9\u6240","boring_xml_url":40,"boring_view_url":1,"soilmap_view_url":null,"soiltest_xml_url":0,"soiltest_view_url":0},{"id":193434,"code":"B4KJ201801008-1683","latitude":"35.3408822","longitude":"132.7604586","source_code":"CG53320601004","project_name":"","survey_name":"\u53e4\u5fd7\u6a4b\u4ed63\u6a4b\u6a4b\u6881\u4e88\u5b9a\u5730\u5730\u8cea\u8abf\u67fb","client_name":"\u56fd\u571f\u4ea4\u901a\u7701\u4e2d\u56fd\u5730\u65b9\u6574\u5099\u5c40\u51fa\u96f2\u6cb3\u5ddd\u4e8b\u52d9\u6240","boring_xml_url":40,"boring_view_url":1,"soilmap_view_url":null,"soiltest_xml_url":0,"soiltest_view_url":0},{"id":193433,"code":"B4KJ201801008-1682","latitude":"35.3414378","longitude":"132.7601808","source_code":"CG53320601003","project_name":"","survey_name":"\u53e4\u5fd7\u6a4b\u4ed63\u6a4b\u6a4b\u6881\u4e88\u5b9a\u5730\u5730\u8cea\u8abf\u67fb","client_name":"\u56fd\u571f\u4ea4\u901a\u7701\u4e2d\u56fd\u5730\u65b9\u6574\u5099\u5c40\u51fa\u96f2\u6cb3\u5ddd\u4e8b\u52d9\u6240","boring_xml_url":40,"boring_view_url":1,"soilmap_view_url":null,"soiltest_xml_url":0,"soiltest_view_url":0},{"id":193432,"code":"B4KJ201801008-1681","latitude":"35.3419931","longitude":"132.7599031","source_code":"CG53320601002","project_name":"","survey_name":"\u53e4\u5fd7\u6a4b\u4ed63\u6a4b\u6a4b\u6881\u4e88\u5b9a\u5730\u5730\u8cea\u8abf\u67fb","client_name":"\u56fd\u571f\u4ea4\u901a\u7701\u4e2d\u56fd\u5730\u65b9\u6574\u5099\u5c40\u51fa\u96f2\u6cb3\u5ddd\u4e8b\u52d9\u6240","boring_xml_url":40,"boring_view_url":1,"soilmap_view_url":null,"soiltest_xml_url":0,"soiltest_view_url":0},{"id":193431,"code":"B4KJ201801008-1680","latitude":"35.3386881","longitude":"132.7654581","source_code":"CG53320601001","project_name":"","survey_name":"\u653e\u6c34\u8def\u62e1\u5e45\u90e8\u5730\u8cea\u8abf\u67fb\u696d\u52d9","client_name":"\u56fd\u571f\u4ea4\u901a\u7701\u4e2d\u56fd\u5730\u65b9\u6574\u5099\u5c40\u51fa\u96f2\u6cb3\u5ddd\u4e8b\u52d9\u6240","boring_xml_url":40,"boring_view_url":1,"soilmap_view_url":null,"soiltest_xml_url":0,"soiltest_view_url":0},{"id":193430,"code":"B4KJ201801008-1679","latitude":"35.3425486","longitude":"132.7596253","source_code":"CG53320600004","project_name":"","survey_name":"\u53e4\u5fd7\u6a4b\u4ed63\u6a4b\u6a4b\u6881\u4e88\u5b9a\u5730\u5730\u8cea\u8abf\u67fb","client_name":"\u56fd\u571f\u4ea4\u901a\u7701\u4e2d\u56fd\u5730\u65b9\u6574\u5099\u5c40\u51fa\u96f2\u6cb3\u5ddd\u4e8b\u52d9\u6240","boring_xml_url":40,"boring_view_url":1,"soilmap_view_url":null,"soiltest_xml_url":0,"soiltest_view_url":0},{"id":193429,"code":"B4KJ201801008-1678","latitude":"35.3430483","longitude":"132.7526814","source_code":"CG53320600003","project_name":"","survey_name":"\u653e\u6c34\u8def\u62e1\u5e45\u90e8\u5730\u8cea\u8abf\u67fb(\u305d\u306e2)\u696d\u52d9","client_name":"\u56fd\u571f\u4ea4\u901a\u7701\u4e2d\u56fd\u5730\u65b9\u6574\u5099\u5c40\u51fa\u96f2\u6cb3\u5ddd\u4e8b\u52d9\u6240","boring_xml_url":40,"boring_view_url":1,"soilmap_view_url":null,"soiltest_xml_url":0,"soiltest_view_url":0},{"id":193428,"code":"B4KJ201801008-1677","latitude":"35.3384936","longitude":"132.7568478","source_code":"CG53320600002","project_name":"","survey_name":"\u653e\u6c34\u8def\u62e1\u5e45\u90e8\u5730\u8cea\u8abf\u67fb(\u305d\u306e2)\u696d\u52d9","client_name":"\u56fd\u571f\u4ea4\u901a\u7701\u4e2d\u56fd\u5730\u65b9\u6574\u5099\u5c40\u51fa\u96f2\u6cb3\u5ddd\u4e8b\u52d9\u6240","boring_xml_url":40,"boring_view_url":1,"soilmap_view_url":null,"soiltest_xml_url":0,"soiltest_view_url":0},{"id":193427,"code":"B4KJ201801008-1676","latitude":"35.3411875","longitude":"132.7507372","source_code":"CG53320600001","project_name":"","survey_name":"\u653e\u6c34\u8def\u62e1\u5e45\u90e8\u5730\u8cea\u8abf\u67fb\u696d\u52d9","client_name":"\u56fd\u571f\u4ea4\u901a\u7701\u4e2d\u56fd\u5730\u65b9\u6574\u5099\u5c40\u51fa\u96f2\u6cb3\u5ddd\u4e8b\u52d9\u6240","boring_xml_url":40,"boring_view_url":1,"soilmap_view_url":null,"soiltest_xml_url":0,"soiltest_view_url":0},{"id":193426,"code":"B4KJ201801008-1675","latitude":"35.3706839","longitude":"132.7465144","source_code":"CG53320549001","project_name":"","survey_name":"\u59eb\u539f\u5730\u533a\u5730\u8cea\u8abf\u67fb\u696d\u52d9","client_name":"\u56fd\u571f\u4ea4\u901a\u7701\u4e2d\u56fd\u5730\u65b9\u6574\u5099\u5c40\u677e\u6c5f\u56fd\u9053\u4e8b\u52d9\u6240","boring_xml_url":40,"boring_view_url":1,"soilmap_view_url":null,"soiltest_xml_url":0,"soiltest_view_url":0},{"id":193425,"code":"B4KJ201801008-1674","latitude":"35.3724322","longitude":"132.6788261","source_code":"CG53320544005","project_name":"","survey_name":"\u5999\u898b\u6a4b\u5730\u76e4\u6539\u826f\u8abf\u67fb\u696d\u52d9","client_name":"\u56fd\u571f\u4ea4\u901a\u7701\u4e2d\u56fd\u5730\u65b9\u6574\u5099\u5c40\u51fa\u96f2\u6cb3\u5ddd\u4e8b\u52d9\u6240","boring_xml_url":40,"boring_view_url":1,"soilmap_view_url":null,"soiltest_xml_url":0,"soiltest_view_url":0},{"id":193424,"code":"B4KJ201801008-1673","latitude":"35.3709881","longitude":"132.6802147","source_code":"CG53320544004","project_name":"","survey_name":"\u5999\u898b\u6a4b\u5730\u76e4\u6539\u826f\u8abf\u67fb\u696d\u52d9","client_name":"\u56fd\u571f\u4ea4\u901a\u7701\u4e2d\u56fd\u5730\u65b9\u6574\u5099\u5c40\u51fa\u96f2\u6cb3\u5ddd\u4e8b\u52d9\u6240","boring_xml_url":40,"boring_view_url":1,"soilmap_view_url":null,"soiltest_xml_url":0,"soiltest_view_url":0},{"id":193423,"code":"B4KJ201801008-1672","latitude":"35.3698492","longitude":"132.6766875","source_code":"CG53320544003","project_name":"","survey_name":"\u5999\u898b\u6a4b\u5730\u76e4\u6539\u826f\u8abf\u67fb\u696d\u52d9","client_name":"\u56fd\u571f\u4ea4\u901a\u7701\u4e2d\u56fd\u5730\u65b9\u6574\u5099\u5c40\u51fa\u96f2\u6cb3\u5ddd\u4e8b\u52d9\u6240","boring_xml_url":40,"boring_view_url":1,"soilmap_view_url":null,"soiltest_xml_url":0,"soiltest_view_url":0},{"id":193422,"code":"B4KJ201801008-1671","latitude":"35.3725989","longitude":"132.6790761","source_code":"CG53320544002","project_name":"","survey_name":"\u5d0e\u5c4b\u5de5\u4e8b\u7528\u4eee\u6a4b\u5730\u8cea\u8abf\u67fb\u696d\u52d9","client_name":"\u56fd\u571f\u4ea4\u901a\u7701\u4e2d\u56fd\u5730\u65b9\u6574\u5099\u5c40\u51fa\u96f2\u6cb3\u5ddd\u4e8b\u52d9\u6240","boring_xml_url":40,"boring_view_url":1,"soilmap_view_url":null,"soiltest_xml_url":0,"soiltest_view_url":0},{"id":193421,"code":"B4KJ201801008-1670","latitude":"35.3702661","longitude":"132.6807425","source_code":"CG53320544001","project_name":"","survey_name":"\u653e\u6c34\u8def\u62e1\u5e45\u90e8\u5730\u8cea\u8abf\u67fb(\u305d\u306e2)\u696d\u52d9","client_name":"\u56fd\u571f\u4ea4\u901a\u7701\u4e2d\u56fd\u5730\u65b9\u6574\u5099\u5c40\u51fa\u96f2\u6cb3\u5ddd\u4e8b\u52d9\u6240","boring_xml_url":40,"boring_view_url":1,"soilmap_view_url":null,"soiltest_xml_url":0,"soiltest_view_url":0},{"id":193420,"code":"B4KJ201801008-1669","latitude":"35.3617114","longitude":"132.6856869","source_code":"CG53320535002","project_name":"","survey_name":"\u5d0e\u5c4b\u5de5\u4e8b\u7528\u4eee\u6a4b\u5730\u8cea\u8abf\u67fb\u696d\u52d9","client_name":"\u56fd\u571f\u4ea4\u901a\u7701\u4e2d\u56fd\u5730\u65b9\u6574\u5099\u5c40\u51fa\u96f2\u6cb3\u5ddd\u4e8b\u52d9\u6240","boring_xml_url":40,"boring_view_url":1,"soilmap_view_url":null,"soiltest_xml_url":0,"soiltest_view_url":0},{"id":193419,"code":"B4KJ201801008-1668","latitude":"35.3614339","longitude":"132.6850481","source_code":"CG53320535001","project_name":"","survey_name":"\u5d0e\u5c4b\u5de5\u4e8b\u7528\u4eee\u6a4b\u5730\u8cea\u8abf\u67fb\u696d\u52d9","client_name":"\u56fd\u571f\u4ea4\u901a\u7701\u4e2d\u56fd\u5730\u65b9\u6574\u5099\u5c40\u51fa\u96f2\u6cb3\u5ddd\u4e8b\u52d9\u6240","boring_xml_url":40,"boring_view_url":1,"soilmap_view_url":null,"soiltest_xml_url":0,"soiltest_view_url":0},{"id":193418,"code":"B4KJ201801008-1667","latitude":"35.3687383","longitude":"132.6836869","source_code":"CG53320534011","project_name":"","survey_name":"\u653e\u6c34\u8def\u4e2d\u6d41\u90e8\u6a0b\u9580\u4e88\u5b9a\u5730\u5730\u8cea\u8abf\u67fb\u696d\u52d9","client_name":"\u56fd\u571f\u4ea4\u901a\u7701\u4e2d\u56fd\u5730\u65b9\u6574\u5099\u5c40\u51fa\u96f2\u6cb3\u5ddd\u4e8b\u52d9\u6240","boring_xml_url":40,"boring_view_url":1,"soilmap_view_url":null,"soiltest_xml_url":0,"soiltest_view_url":0},{"id":193417,"code":"B4KJ201801008-1666","latitude":"35.3627114","longitude":"132.6822428","source_code":"CG53320534010","project_name":"","survey_name":"\u5d0e\u5c4b\u5de5\u4e8b\u7528\u4eee\u6a4b\u5730\u8cea\u8abf\u67fb\u696d\u52d9","client_name":"\u56fd\u571f\u4ea4\u901a\u7701\u4e2d\u56fd\u5730\u65b9\u6574\u5099\u5c40\u51fa\u96f2\u6cb3\u5ddd\u4e8b\u52d9\u6240","boring_xml_url":40,"boring_view_url":1,"soilmap_view_url":null,"soiltest_xml_url":0,"soiltest_view_url":0},{"id":193416,"code":"B4KJ201801008-1665","latitude":"35.3665997","longitude":"132.6793817","source_code":"CG53320534009","project_name":"","survey_name":"\u5de6\u5cb8\u9577\u6d5c\u5730\u533a\u6a0b\u9580\u8a2d\u8a08\u696d\u52d9","client_name":"\u56fd\u571f\u4ea4\u901a\u7701\u4e2d\u56fd\u5730\u65b9\u6574\u5099\u5c40\u51fa\u96f2\u6cb3\u5ddd\u4e8b\u52d9\u6240","boring_xml_url":40,"boring_view_url":1,"soilmap_view_url":null,"soiltest_xml_url":0,"soiltest_view_url":0},{"id":193415,"code":"B4KJ201801008-1664","latitude":"35.3677386","longitude":"132.6832425","source_code":"CG53320534008","project_name":"","survey_name":"\u65b0\u5185\u85e4\u5ddd\u6c34\u9580\u4e88\u5b9a\u5730\u5730\u8cea\u8abf\u67fb\u696d\u52d9","client_name":"\u56fd\u571f\u4ea4\u901a\u7701\u4e2d\u56fd\u5730\u65b9\u6574\u5099\u5c40\u51fa\u96f2\u6cb3\u5ddd\u4e8b\u52d9\u6240","boring_xml_url":40,"boring_view_url":1,"soilmap_view_url":null,"soiltest_xml_url":0,"soiltest_view_url":0},{"id":193414,"code":"B4KJ201801008-1663","latitude":"35.3681553","longitude":"132.6837147","source_code":"CG53320534007","project_name":"","survey_name":"\u65b0\u5185\u85e4\u5ddd\u6c34\u9580\u4e88\u5b9a\u5730\u5730\u8cea\u8abf\u67fb\u696d\u52d9","client_name":"\u56fd\u571f\u4ea4\u901a\u7701\u4e2d\u56fd\u5730\u65b9\u6574\u5099\u5c40\u51fa\u96f2\u6cb3\u5ddd\u4e8b\u52d9\u6240","boring_xml_url":40,"boring_view_url":1,"soilmap_view_url":null,"soiltest_xml_url":0,"soiltest_view_url":0},{"id":193413,"code":"B4KJ201801008-1662","latitude":"35.3686272","longitude":"132.6826869","source_code":"CG53320534006","project_name":"","survey_name":"\u65b0\u5185\u85e4\u5ddd\u6c34\u9580\u4e88\u5b9a\u5730\u5730\u8cea\u8abf\u67fb\u696d\u52d9","client_name":"\u56fd\u571f\u4ea4\u901a\u7701\u4e2d\u56fd\u5730\u65b9\u6574\u5099\u5c40\u51fa\u96f2\u6cb3\u5ddd\u4e8b\u52d9\u6240","boring_xml_url":40,"boring_view_url":1,"soilmap_view_url":null,"soiltest_xml_url":0,"soiltest_view_url":0},{"id":193412,"code":"B4KJ201801008-1661","latitude":"35.3693494","longitude":"132.6826869","source_code":"CG53320534005","project_name":"","survey_name":"\u65b0\u5185\u85e4\u5ddd\u6c34\u9580\u4e88\u5b9a\u5730\u5730\u8cea\u8abf\u67fb\u696d\u52d9","client_name":"\u56fd\u571f\u4ea4\u901a\u7701\u4e2d\u56fd\u5730\u65b9\u6574\u5099\u5c40\u51fa\u96f2\u6cb3\u5ddd\u4e8b\u52d9\u6240","boring_xml_url":40,"boring_view_url":1,"soilmap_view_url":null,"soiltest_xml_url":0,"soiltest_view_url":0},{"id":193411,"code":"B4KJ201801008-1660","latitude":"35.3689883","longitude":"132.6826869","source_code":"CG53320534004","project_name":"","survey_name":"\u65b0\u5185\u85e4\u5ddd\u6c34\u9580\u4e88\u5b9a\u5730\u5730\u8cea\u8abf\u67fb\u696d\u52d9","client_name":"\u56fd\u571f\u4ea4\u901a\u7701\u4e2d\u56fd\u5730\u65b9\u6574\u5099\u5c40\u51fa\u96f2\u6cb3\u5ddd\u4e8b\u52d9\u6240","boring_xml_url":40,"boring_view_url":1,"soilmap_view_url":null,"soiltest_xml_url":0,"soiltest_view_url":0},{"id":193410,"code":"B4KJ201801008-1659","latitude":"35.3659886","longitude":"132.6831036","source_code":"CG53320534003","project_name":"","survey_name":"\u653e\u6c34\u8def\u62e1\u5e45\u90e8\u5730\u8cea\u8abf\u67fb(\u305d\u306e2)\u696d\u52d9","client_name":"\u56fd\u571f\u4ea4\u901a\u7701\u4e2d\u56fd\u5730\u65b9\u6574\u5099\u5c40\u51fa\u96f2\u6cb3\u5ddd\u4e8b\u52d9\u6240","boring_xml_url":40,"boring_view_url":1,"soilmap_view_url":null,"soiltest_xml_url":0,"soiltest_view_url":0},{"id":193409,"code":"B4KJ201801008-1658","latitude":"35.3680439","longitude":"132.677965","source_code":"CG53320534002","project_name":"","survey_name":"\u653e\u6c34\u8def\u62e1\u5e45\u90e8\u5730\u8cea\u8abf\u67fb(\u305d\u306e2)\u696d\u52d9","client_name":"\u56fd\u571f\u4ea4\u901a\u7701\u4e2d\u56fd\u5730\u65b9\u6574\u5099\u5c40\u51fa\u96f2\u6cb3\u5ddd\u4e8b\u52d9\u6240","boring_xml_url":40,"boring_view_url":1,"soilmap_view_url":null,"soiltest_xml_url":0,"soiltest_view_url":0},{"id":193408,"code":"B4KJ201801008-1657","latitude":"35.3693494","longitude":"132.6820481","source_code":"CG53320534001","project_name":"","survey_name":"\u5927\u793e\u5730\u533a\u5730\u8cea\u8abf\u67fb\u696d\u52d9","client_name":"\u56fd\u571f\u4ea4\u901a\u7701\u4e2d\u56fd\u5730\u65b9\u6574\u5099\u5c40\u51fa\u96f2\u6cb3\u5ddd\u4e8b\u52d9\u6240","boring_xml_url":40,"boring_view_url":1,"soilmap_view_url":null,"soiltest_xml_url":0,"soiltest_view_url":0},{"id":193407,"code":"B4KJ201801008-1656","latitude":"35.3592131","longitude":"132.7457369","source_code":"CG53320529002","project_name":"","survey_name":"\u662d\u548c58\u5e74\u5ea6\u5e81\u820e\u5730\u8cea\u8abf\u67fb\u696d\u52d9","client_name":"\u56fd\u571f\u4ea4\u901a\u7701\u4e2d\u56fd\u5730\u65b9\u6574\u5099\u5c40\u51fa\u96f2\u6cb3\u5ddd\u4e8b\u52d9\u6240","boring_xml_url":40,"boring_view_url":1,"soilmap_view_url":null,"soiltest_xml_url":0,"soiltest_view_url":0},{"id":193406,"code":"B4KJ201801008-1655","latitude":"35.3575464","longitude":"132.7290719","source_code":"CG53320528001","project_name":"","survey_name":"\u9ad8\u677e\u6b69\u9053\u59162\u4ef6\u59d4\u8a17\u8a2d\u8a08\u696d\u52d9","client_name":"\u56fd\u571f\u4ea4\u901a\u7701\u4e2d\u56fd\u5730\u65b9\u6574\u5099\u5c40\u677e\u6c5f\u56fd\u9053\u4e8b\u52d9\u6240","boring_xml_url":40,"boring_view_url":1,"soilmap_view_url":null,"soiltest_xml_url":0,"soiltest_view_url":0}]}}