{"header":{"xyz":{"source":[],"mosaic":false},"page":4253,"raw":{"soiltest_result":"0","bbox":"57.598333,109.544722,1.933333,163.806111","page":"4253"},"conditions":{"soiltest_result":0,"north":57.598333,"west":109.544722,"south":1.933333,"east":163.806111},"success":true,"message":""},"data":{"meta":{"total":212844,"page":4253,"pages":7095,"count":30},"values":[{"id":192985,"code":"B4KJ201801008-1234","latitude":"35.159935","longitude":"134.2143336","source_code":"CG52345187013","project_name":"","survey_name":"\u99ac\u6851\u9053\u8def\u5730\u8cea\u8abf\u67fb","client_name":"\u56fd\u571f\u4ea4\u901a\u7701\u4e2d\u56fd\u5730\u65b9\u6574\u5099\u5c40\u5ca1\u5c71\u56fd\u9053\u4e8b\u52d9\u6240","boring_xml_url":40,"boring_view_url":1,"soilmap_view_url":null,"soiltest_xml_url":0,"soiltest_view_url":0},{"id":192984,"code":"B4KJ201801008-1233","latitude":"35.1596294","longitude":"134.2145281","source_code":"CG52345187012","project_name":"","survey_name":"\u99ac\u6851\u9053\u8def\u5730\u8cea\u8abf\u67fb","client_name":"\u56fd\u571f\u4ea4\u901a\u7701\u4e2d\u56fd\u5730\u65b9\u6574\u5099\u5c40\u5ca1\u5c71\u56fd\u9053\u4e8b\u52d9\u6240","boring_xml_url":40,"boring_view_url":1,"soilmap_view_url":null,"soiltest_xml_url":0,"soiltest_view_url":0},{"id":192983,"code":"B4KJ201801008-1232","latitude":"35.1590464","longitude":"134.2146947","source_code":"CG52345187011","project_name":"","survey_name":"\u99ac\u6851\u9053\u8def\u5730\u8cea\u8abf\u67fb","client_name":"\u56fd\u571f\u4ea4\u901a\u7701\u4e2d\u56fd\u5730\u65b9\u6574\u5099\u5c40\u5ca1\u5c71\u56fd\u9053\u4e8b\u52d9\u6240","boring_xml_url":40,"boring_view_url":1,"soilmap_view_url":null,"soiltest_xml_url":0,"soiltest_view_url":0},{"id":192982,"code":"B4KJ201801008-1231","latitude":"35.1607961","longitude":"134.2130281","source_code":"CG52345187010","project_name":"","survey_name":"\u99ac\u6851\u9053\u8def\u5730\u8cea\u8abf\u67fb","client_name":"\u56fd\u571f\u4ea4\u901a\u7701\u4e2d\u56fd\u5730\u65b9\u6574\u5099\u5c40\u5ca1\u5c71\u56fd\u9053\u4e8b\u52d9\u6240","boring_xml_url":40,"boring_view_url":1,"soilmap_view_url":null,"soiltest_xml_url":0,"soiltest_view_url":0},{"id":192981,"code":"B4KJ201801008-1230","latitude":"35.1603239","longitude":"134.2132225","source_code":"CG52345187009","project_name":"","survey_name":"\u99ac\u6851\u9053\u8def\u5730\u8cea\u8abf\u67fb","client_name":"\u56fd\u571f\u4ea4\u901a\u7701\u4e2d\u56fd\u5730\u65b9\u6574\u5099\u5c40\u5ca1\u5c71\u56fd\u9053\u4e8b\u52d9\u6240","boring_xml_url":40,"boring_view_url":1,"soilmap_view_url":null,"soiltest_xml_url":0,"soiltest_view_url":0},{"id":192980,"code":"B4KJ201801008-1229","latitude":"35.1598794","longitude":"134.2133058","source_code":"CG52345187008","project_name":"","survey_name":"\u99ac\u6851\u9053\u8def\u5730\u8cea\u8abf\u67fb","client_name":"\u56fd\u571f\u4ea4\u901a\u7701\u4e2d\u56fd\u5730\u65b9\u6574\u5099\u5c40\u5ca1\u5c71\u56fd\u9053\u4e8b\u52d9\u6240","boring_xml_url":40,"boring_view_url":1,"soilmap_view_url":null,"soiltest_xml_url":0,"soiltest_view_url":0},{"id":192979,"code":"B4KJ201801008-1228","latitude":"35.1592686","longitude":"134.2134725","source_code":"CG52345187007","project_name":"","survey_name":"\u99ac\u6851\u9053\u8def\u5730\u8cea\u8abf\u67fb","client_name":"\u56fd\u571f\u4ea4\u901a\u7701\u4e2d\u56fd\u5730\u65b9\u6574\u5099\u5c40\u5ca1\u5c71\u56fd\u9053\u4e8b\u52d9\u6240","boring_xml_url":40,"boring_view_url":1,"soilmap_view_url":null,"soiltest_xml_url":0,"soiltest_view_url":0},{"id":192978,"code":"B4KJ201801008-1227","latitude":"35.1585742","longitude":"134.2146114","source_code":"CG52345187006","project_name":"","survey_name":"\u99ac\u6851\u6a4b\u57fa\u790e\u5730\u8cea\u8abf\u67fb","client_name":"\u56fd\u571f\u4ea4\u901a\u7701\u4e2d\u56fd\u5730\u65b9\u6574\u5099\u5c40\u5ca1\u5c71\u56fd\u9053\u4e8b\u52d9\u6240","boring_xml_url":40,"boring_view_url":1,"soilmap_view_url":null,"soiltest_xml_url":0,"soiltest_view_url":0},{"id":192977,"code":"B4KJ201801008-1226","latitude":"35.1582686","longitude":"134.2143058","source_code":"CG52345187005","project_name":"","survey_name":"\u99ac\u6851\u6a4b\u57fa\u790e\u5730\u8cea\u8abf\u67fb","client_name":"\u56fd\u571f\u4ea4\u901a\u7701\u4e2d\u56fd\u5730\u65b9\u6574\u5099\u5c40\u5ca1\u5c71\u56fd\u9053\u4e8b\u52d9\u6240","boring_xml_url":40,"boring_view_url":1,"soilmap_view_url":null,"soiltest_xml_url":0,"soiltest_view_url":0},{"id":192976,"code":"B4KJ201801008-1225","latitude":"35.1581297","longitude":"134.2138892","source_code":"CG52345187004","project_name":"","survey_name":"\u99ac\u6851\u6a4b\u57fa\u790e\u5730\u8cea\u8abf\u67fb","client_name":"\u56fd\u571f\u4ea4\u901a\u7701\u4e2d\u56fd\u5730\u65b9\u6574\u5099\u5c40\u5ca1\u5c71\u56fd\u9053\u4e8b\u52d9\u6240","boring_xml_url":40,"boring_view_url":1,"soilmap_view_url":null,"soiltest_xml_url":0,"soiltest_view_url":0},{"id":192975,"code":"B4KJ201801008-1224","latitude":"35.1580186","longitude":"134.2133614","source_code":"CG52345187003","project_name":"","survey_name":"\u99ac\u6851\u6a4b\u57fa\u790e\u5730\u8cea\u8abf\u67fb","client_name":"\u56fd\u571f\u4ea4\u901a\u7701\u4e2d\u56fd\u5730\u65b9\u6574\u5099\u5c40\u5ca1\u5c71\u56fd\u9053\u4e8b\u52d9\u6240","boring_xml_url":40,"boring_view_url":1,"soilmap_view_url":null,"soiltest_xml_url":0,"soiltest_view_url":0},{"id":192974,"code":"B4KJ201801008-1223","latitude":"35.1581853","longitude":"134.2129169","source_code":"CG52345187002","project_name":"","survey_name":"\u99ac\u6851\u6a4b\u57fa\u790e\u5730\u8cea\u8abf\u67fb","client_name":"\u56fd\u571f\u4ea4\u901a\u7701\u4e2d\u56fd\u5730\u65b9\u6574\u5099\u5c40\u5ca1\u5c71\u56fd\u9053\u4e8b\u52d9\u6240","boring_xml_url":40,"boring_view_url":1,"soilmap_view_url":null,"soiltest_xml_url":0,"soiltest_view_url":0},{"id":192973,"code":"B4KJ201801008-1222","latitude":"35.1585186","longitude":"134.2126669","source_code":"CG52345187001","project_name":"","survey_name":"\u99ac\u6851\u6a4b\u57fa\u790e\u5730\u8cea\u8abf\u67fb","client_name":"\u56fd\u571f\u4ea4\u901a\u7701\u4e2d\u56fd\u5730\u65b9\u6574\u5099\u5c40\u5ca1\u5c71\u56fd\u9053\u4e8b\u52d9\u6240","boring_xml_url":40,"boring_view_url":1,"soilmap_view_url":null,"soiltest_xml_url":0,"soiltest_view_url":0},{"id":192972,"code":"B4KJ201801008-1221","latitude":"35.1387153","longitude":"134.2095014","source_code":"CG52345166003","project_name":"","survey_name":"\u5ca1\u5c71\u30c8\u30f3\u30cd\u30eb\u88dc\u4fee\u691c\u8a0e\u696d\u52d9(\u5948\u7fa9\u30c8\u30f3\u30cd\u30eb\u5730\u8cea\u8abf\u67fb)","client_name":"\u56fd\u571f\u4ea4\u901a\u7701\u4e2d\u56fd\u5730\u65b9\u6574\u5099\u5c40\u5ca1\u5c71\u56fd\u9053\u4e8b\u52d9\u6240","boring_xml_url":40,"boring_view_url":1,"soilmap_view_url":null,"soiltest_xml_url":0,"soiltest_view_url":0},{"id":192971,"code":"B4KJ201801008-1220","latitude":"35.1003839","longitude":"134.1021511","source_code":"CG52345018002","project_name":"","survey_name":"\u52dd\u5317\u5730\u533a\u5730\u8cea\u8abf\u67fb\u696d\u52d9","client_name":"\u56fd\u571f\u4ea4\u901a\u7701\u4e2d\u56fd\u5730\u65b9\u6574\u5099\u5c40\u5ca1\u5c71\u56fd\u9053\u4e8b\u52d9\u6240","boring_xml_url":40,"boring_view_url":1,"soilmap_view_url":null,"soiltest_xml_url":0,"soiltest_view_url":0},{"id":192970,"code":"B4KJ201801008-1219","latitude":"35.1003839","longitude":"134.1017344","source_code":"CG52345018001","project_name":"","survey_name":"\u52dd\u5317\u5730\u533a\u5730\u8cea\u8abf\u67fb\u696d\u52d9","client_name":"\u56fd\u571f\u4ea4\u901a\u7701\u4e2d\u56fd\u5730\u65b9\u6574\u5099\u5c40\u5ca1\u5c71\u56fd\u9053\u4e8b\u52d9\u6240","boring_xml_url":40,"boring_view_url":1,"soilmap_view_url":null,"soiltest_xml_url":0,"soiltest_view_url":0},{"id":192969,"code":"B4KJ201801008-1218","latitude":"35.0985783","longitude":"134.0971517","source_code":"CG52345017002","project_name":"","survey_name":"\u52dd\u5317\u5730\u533a\u5730\u8cea\u8abf\u67fb\u696d\u52d9","client_name":"\u56fd\u571f\u4ea4\u901a\u7701\u4e2d\u56fd\u5730\u65b9\u6574\u5099\u5c40\u5ca1\u5c71\u56fd\u9053\u4e8b\u52d9\u6240","boring_xml_url":40,"boring_view_url":1,"soilmap_view_url":null,"soiltest_xml_url":0,"soiltest_view_url":0},{"id":192968,"code":"B4KJ201801008-1217","latitude":"35.0984672","longitude":"134.0968739","source_code":"CG52345017001","project_name":"","survey_name":"\u52dd\u5317\u5730\u533a\u5730\u8cea\u8abf\u67fb\u696d\u52d9","client_name":"\u56fd\u571f\u4ea4\u901a\u7701\u4e2d\u56fd\u5730\u65b9\u6574\u5099\u5c40\u5ca1\u5c71\u56fd\u9053\u4e8b\u52d9\u6240","boring_xml_url":40,"boring_view_url":1,"soilmap_view_url":null,"soiltest_xml_url":0,"soiltest_view_url":0},{"id":192967,"code":"B4KJ201801008-1216","latitude":"35.0935786","longitude":"134.0840972","source_code":"CG52345006009","project_name":"","survey_name":"\u56fd\u905353\u53f7\u7dda\u5730\u8cea\u8abf\u67fb\u53ca\u59d4\u8a17\u8a2d\u8a08","client_name":"\u56fd\u571f\u4ea4\u901a\u7701\u4e2d\u56fd\u5730\u65b9\u6574\u5099\u5c40\u5ca1\u5c71\u56fd\u9053\u4e8b\u52d9\u6240","boring_xml_url":40,"boring_view_url":1,"soilmap_view_url":null,"soiltest_xml_url":0,"soiltest_view_url":0},{"id":192966,"code":"B4KJ201801008-1215","latitude":"35.0941064","longitude":"134.0839306","source_code":"CG52345006008","project_name":"","survey_name":"\u56fd\u905353\u53f7\u7dda\u5730\u8cea\u8abf\u67fb\u53ca\u59d4\u8a17\u8a2d\u8a08","client_name":"\u56fd\u571f\u4ea4\u901a\u7701\u4e2d\u56fd\u5730\u65b9\u6574\u5099\u5c40\u5ca1\u5c71\u56fd\u9053\u4e8b\u52d9\u6240","boring_xml_url":40,"boring_view_url":1,"soilmap_view_url":null,"soiltest_xml_url":0,"soiltest_view_url":0},{"id":192965,"code":"B4KJ201801008-1214","latitude":"35.0928008","longitude":"134.0808756","source_code":"CG52345006007","project_name":"","survey_name":"\u56fd\u905353\u53f7\u7dda\u5730\u8cea\u8abf\u67fb\u53ca\u59d4\u8a17\u8a2d\u8a08","client_name":"\u56fd\u571f\u4ea4\u901a\u7701\u4e2d\u56fd\u5730\u65b9\u6574\u5099\u5c40\u5ca1\u5c71\u56fd\u9053\u4e8b\u52d9\u6240","boring_xml_url":40,"boring_view_url":1,"soilmap_view_url":null,"soiltest_xml_url":0,"soiltest_view_url":0},{"id":192964,"code":"B4KJ201801008-1213","latitude":"35.0917453","longitude":"134.0766814","source_code":"CG52345006006","project_name":"","survey_name":"\u56fd\u905353\u53f7\u7dda\u5730\u8cea\u8abf\u67fb\u53ca\u59d4\u8a17\u8a2d\u8a08","client_name":"\u56fd\u571f\u4ea4\u901a\u7701\u4e2d\u56fd\u5730\u65b9\u6574\u5099\u5c40\u5ca1\u5c71\u56fd\u9053\u4e8b\u52d9\u6240","boring_xml_url":40,"boring_view_url":1,"soilmap_view_url":null,"soiltest_xml_url":0,"soiltest_view_url":0},{"id":192963,"code":"B4KJ201801008-1212","latitude":"35.0916897","longitude":"134.0762647","source_code":"CG52345006005","project_name":"","survey_name":"\u56fd\u905353\u53f7\u7dda\u5730\u8cea\u8abf\u67fb\u53ca\u59d4\u8a17\u8a2d\u8a08","client_name":"\u56fd\u571f\u4ea4\u901a\u7701\u4e2d\u56fd\u5730\u65b9\u6574\u5099\u5c40\u5ca1\u5c71\u56fd\u9053\u4e8b\u52d9\u6240","boring_xml_url":40,"boring_view_url":1,"soilmap_view_url":null,"soiltest_xml_url":0,"soiltest_view_url":0},{"id":192962,"code":"B4KJ201801008-1211","latitude":"35.0914397","longitude":"134.0758203","source_code":"CG52345006004","project_name":"","survey_name":"\u6d25\u5c71\u5e02\u5730\u5185\u5730\u8cea\u8abf\u67fb\u5de5\u4e8b","client_name":"\u56fd\u571f\u4ea4\u901a\u7701\u4e2d\u56fd\u5730\u65b9\u6574\u5099\u5c40\u5ca1\u5c71\u56fd\u9053\u4e8b\u52d9\u6240","boring_xml_url":40,"boring_view_url":1,"soilmap_view_url":null,"soiltest_xml_url":0,"soiltest_view_url":0},{"id":192961,"code":"B4KJ201801008-1210","latitude":"35.0913567","longitude":"134.0754314","source_code":"CG52345006003","project_name":"","survey_name":"\u6d25\u5c71\u5e02\u5730\u5185\u5730\u8cea\u8abf\u67fb\u5de5\u4e8b","client_name":"\u56fd\u571f\u4ea4\u901a\u7701\u4e2d\u56fd\u5730\u65b9\u6574\u5099\u5c40\u5ca1\u5c71\u56fd\u9053\u4e8b\u52d9\u6240","boring_xml_url":40,"boring_view_url":1,"soilmap_view_url":null,"soiltest_xml_url":0,"soiltest_view_url":0},{"id":192960,"code":"B4KJ201801008-1209","latitude":"35.0912178","longitude":"134.0749039","source_code":"CG52345006002","project_name":"","survey_name":"\u6d25\u5c71\u5e02\u5730\u5185\u5730\u8cea\u8abf\u67fb\u5de5\u4e8b","client_name":"\u56fd\u571f\u4ea4\u901a\u7701\u4e2d\u56fd\u5730\u65b9\u6574\u5099\u5c40\u5ca1\u5c71\u56fd\u9053\u4e8b\u52d9\u6240","boring_xml_url":40,"boring_view_url":1,"soilmap_view_url":null,"soiltest_xml_url":0,"soiltest_view_url":0},{"id":192959,"code":"B4KJ201801008-1208","latitude":"35.0590261","longitude":"134.0375469","source_code":"CG52344063003","project_name":"","survey_name":"\u65b0\u517c\u7530\u6a4b\u5b9f\u65bd\u8a2d\u8a08\u59d4\u8a17","client_name":"\u56fd\u571f\u4ea4\u901a\u7701\u4e2d\u56fd\u5730\u65b9\u6574\u5099\u5c40\u5ca1\u5c71\u56fd\u9053\u4e8b\u52d9\u6240","boring_xml_url":40,"boring_view_url":1,"soilmap_view_url":null,"soiltest_xml_url":0,"soiltest_view_url":0},{"id":192958,"code":"B4KJ201801008-1207","latitude":"35.0592206","longitude":"134.0361861","source_code":"CG52344063001","project_name":"","survey_name":"\u5ddd\u5d0e\u8de8\u7dda\u6a4b\u571f\u8cea\u8abf\u67fb","client_name":"\u56fd\u571f\u4ea4\u901a\u7701\u4e2d\u56fd\u5730\u65b9\u6574\u5099\u5c40\u5ca1\u5c71\u56fd\u9053\u4e8b\u52d9\u6240","boring_xml_url":40,"boring_view_url":1,"soilmap_view_url":null,"soiltest_xml_url":0,"soiltest_view_url":0},{"id":192957,"code":"B4KJ201801008-1206","latitude":"35.0576089","longitude":"134.0042444","source_code":"CG52344060011","project_name":"","survey_name":"\u4eca\u6d25\u5c4b\u6a4b\u5730\u8cea\u8abf\u67fb\u696d\u52d9","client_name":"\u56fd\u571f\u4ea4\u901a\u7701\u4e2d\u56fd\u5730\u65b9\u6574\u5099\u5c40\u5ca1\u5c71\u56fd\u9053\u4e8b\u52d9\u6240","boring_xml_url":40,"boring_view_url":1,"soilmap_view_url":null,"soiltest_xml_url":0,"soiltest_view_url":0},{"id":192956,"code":"B4KJ201801008-1205","latitude":"35.0576089","longitude":"134.0039667","source_code":"CG52344060010","project_name":"","survey_name":"\u4eca\u6d25\u5c4b\u6a4b\u5730\u8cea\u8abf\u67fb\u696d\u52d9","client_name":"\u56fd\u571f\u4ea4\u901a\u7701\u4e2d\u56fd\u5730\u65b9\u6574\u5099\u5c40\u5ca1\u5c71\u56fd\u9053\u4e8b\u52d9\u6240","boring_xml_url":40,"boring_view_url":1,"soilmap_view_url":null,"soiltest_xml_url":0,"soiltest_view_url":0}]}}