{"header":{"xyz":{"source":[],"mosaic":false},"page":4256,"raw":{"soiltest_result":"0","bbox":"57.598333,109.544722,1.933333,163.806111","page":"4256"},"conditions":{"soiltest_result":0,"north":57.598333,"west":109.544722,"south":1.933333,"east":163.806111},"success":true,"message":""},"data":{"meta":{"total":212844,"page":4256,"pages":7095,"count":30},"values":[{"id":192895,"code":"B4KJ201801008-1144","latitude":"34.7476467","longitude":"134.1054678","source_code":"CG52340098001","project_name":"","survey_name":"\u5409\u4e95\u5ddd\u91d1\u525b\u5ddd\u5730\u533a\u69cb\u9020\u7269\u65bd\u5de5\u5730\u8cea\u8abf\u67fb","client_name":"\u56fd\u571f\u4ea4\u901a\u7701\u4e2d\u56fd\u5730\u65b9\u6574\u5099\u5c40\u5ca1\u5c71\u6cb3\u5ddd\u4e8b\u52d9\u6240","boring_xml_url":40,"boring_view_url":1,"soilmap_view_url":null,"soiltest_xml_url":0,"soiltest_view_url":0},{"id":192894,"code":"B4KJ201801008-1143","latitude":"34.734315","longitude":"134.1069403","source_code":"CG52340078003","project_name":"","survey_name":"\u5742\u6839\u5916\u5730\u8cea\u8abf\u67fb\u696d\u52d9","client_name":"\u56fd\u571f\u4ea4\u901a\u7701\u4e2d\u56fd\u5730\u65b9\u6574\u5099\u5c40\u5ca1\u5c71\u6cb3\u5ddd\u4e8b\u52d9\u6240","boring_xml_url":40,"boring_view_url":1,"soilmap_view_url":null,"soiltest_xml_url":0,"soiltest_view_url":0},{"id":192893,"code":"B4KJ201801008-1142","latitude":"34.72826","longitude":"134.1086072","source_code":"CG52340078002","project_name":"","survey_name":"\u5409\u4e95\u5ddd\u91d1\u525b\u5ddd\u5730\u533a\u69cb\u9020\u7269\u65bd\u5de5\u5730\u8cea\u8abf\u67fb","client_name":"\u56fd\u571f\u4ea4\u901a\u7701\u4e2d\u56fd\u5730\u65b9\u6574\u5099\u5c40\u5ca1\u5c71\u6cb3\u5ddd\u4e8b\u52d9\u6240","boring_xml_url":40,"boring_view_url":1,"soilmap_view_url":null,"soiltest_xml_url":0,"soiltest_view_url":0},{"id":192892,"code":"B4KJ201801008-1141","latitude":"34.7294819","longitude":"134.1052742","source_code":"CG52340078001","project_name":"","survey_name":"\u5742\u6839\u5730\u8cea\u8abf\u67fb\u696d\u52d9","client_name":"\u56fd\u571f\u4ea4\u901a\u7701\u4e2d\u56fd\u5730\u65b9\u6574\u5099\u5c40\u5ca1\u5c71\u6cb3\u5ddd\u4e8b\u52d9\u6240","boring_xml_url":40,"boring_view_url":1,"soilmap_view_url":null,"soiltest_xml_url":0,"soiltest_view_url":0},{"id":192891,"code":"B4KJ201801008-1140","latitude":"34.7254272","longitude":"134.1148011","source_code":"CG52340069001","project_name":"","survey_name":"\u8239\u5c71\u6a4b\u5916\u6a4b\u6881\u4e88\u5099\u8a2d\u8a08\u696d\u52d9","client_name":"\u56fd\u571f\u4ea4\u901a\u7701\u4e2d\u56fd\u5730\u65b9\u6574\u5099\u5c40\u5ca1\u5c71\u56fd\u9053\u4e8b\u52d9\u6240","boring_xml_url":40,"boring_view_url":1,"soilmap_view_url":null,"soiltest_xml_url":0,"soiltest_view_url":0},{"id":192890,"code":"B4KJ201801008-1139","latitude":"34.7254269","longitude":"134.1056353","source_code":"CG52340068002","project_name":"","survey_name":"\u8239\u5c71\u6a4b\u5916\u6a4b\u6881\u4e88\u5099\u8a2d\u8a08\u696d\u52d9","client_name":"\u56fd\u571f\u4ea4\u901a\u7701\u4e2d\u56fd\u5730\u65b9\u6574\u5099\u5c40\u5ca1\u5c71\u56fd\u9053\u4e8b\u52d9\u6240","boring_xml_url":40,"boring_view_url":1,"soilmap_view_url":null,"soiltest_xml_url":0,"soiltest_view_url":0},{"id":192889,"code":"B4KJ201801008-1138","latitude":"34.716789","longitude":"134.098442","source_code":"CG52340058001","project_name":"","survey_name":"\u798f\u5ca1\u5730\u533a\u5730\u8cea\u8abf\u67fb\u305d\u306e\u4ed6\u696d\u52d9","client_name":"\u56fd\u571f\u4ea4\u901a\u7701\u4e2d\u56fd\u5730\u65b9\u6574\u5099\u5c40\u5ca1\u5c71\u6cb3\u5ddd\u4e8b\u52d9\u6240","boring_xml_url":40,"boring_view_url":1,"soilmap_view_url":null,"soiltest_xml_url":0,"soiltest_view_url":0},{"id":192888,"code":"B4KJ201801008-1137","latitude":"34.7137614","longitude":"134.0931367","source_code":"CG52340057010","project_name":"","survey_name":"\u5099\u524d\u5927\u6a4b\u5074\u9053\u6a4b\u8a73\u7d30\u8a2d\u8a08\u696d\u52d9","client_name":"\u56fd\u571f\u4ea4\u901a\u7701\u4e2d\u56fd\u5730\u65b9\u6574\u5099\u5c40\u5ca1\u5c71\u56fd\u9053\u4e8b\u52d9\u6240","boring_xml_url":40,"boring_view_url":1,"soilmap_view_url":null,"soiltest_xml_url":0,"soiltest_view_url":0},{"id":192887,"code":"B4KJ201801008-1136","latitude":"34.7145944","longitude":"134.0911925","source_code":"CG52340057009","project_name":"","survey_name":"\u5099\u524d\u5927\u6a4b\u5074\u9053\u6a4b\u8a73\u7d30\u8a2d\u8a08\u696d\u52d9","client_name":"\u56fd\u571f\u4ea4\u901a\u7701\u4e2d\u56fd\u5730\u65b9\u6574\u5099\u5c40\u5ca1\u5c71\u56fd\u9053\u4e8b\u52d9\u6240","boring_xml_url":40,"boring_view_url":1,"soilmap_view_url":null,"soiltest_xml_url":0,"soiltest_view_url":0},{"id":192886,"code":"B4KJ201801008-1135","latitude":"34.7143169","longitude":"134.0914703","source_code":"CG52340057008","project_name":"","survey_name":"\u5099\u524d\u5927\u6a4b\u5074\u9053\u6a4b\u8a73\u7d30\u8a2d\u8a08\u696d\u52d9","client_name":"\u56fd\u571f\u4ea4\u901a\u7701\u4e2d\u56fd\u5730\u65b9\u6574\u5099\u5c40\u5ca1\u5c71\u56fd\u9053\u4e8b\u52d9\u6240","boring_xml_url":40,"boring_view_url":1,"soilmap_view_url":null,"soiltest_xml_url":0,"soiltest_view_url":0},{"id":192885,"code":"B4KJ201801008-1134","latitude":"34.7140392","longitude":"134.0923036","source_code":"CG52340057007","project_name":"","survey_name":"\u5099\u524d\u5927\u6a4b\u5074\u9053\u6a4b\u8a73\u7d30\u8a2d\u8a08\u696d\u52d9","client_name":"\u56fd\u571f\u4ea4\u901a\u7701\u4e2d\u56fd\u5730\u65b9\u6574\u5099\u5c40\u5ca1\u5c71\u56fd\u9053\u4e8b\u52d9\u6240","boring_xml_url":40,"boring_view_url":1,"soilmap_view_url":null,"soiltest_xml_url":0,"soiltest_view_url":0},{"id":192884,"code":"B4KJ201801008-1133","latitude":"34.7132058","longitude":"134.0948033","source_code":"CG52340057006","project_name":"","survey_name":"\u5099\u524d\u5927\u6a4b\u5074\u9053\u6a4b\u8a73\u7d30\u8a2d\u8a08\u696d\u52d9","client_name":"\u56fd\u571f\u4ea4\u901a\u7701\u4e2d\u56fd\u5730\u65b9\u6574\u5099\u5c40\u5ca1\u5c71\u56fd\u9053\u4e8b\u52d9\u6240","boring_xml_url":40,"boring_view_url":1,"soilmap_view_url":null,"soiltest_xml_url":0,"soiltest_view_url":0},{"id":192883,"code":"B4KJ201801008-1132","latitude":"34.7145944","longitude":"134.0900814","source_code":"CG52340057004","project_name":"","survey_name":"\u5099\u524d\u5927\u6a4b\u5074\u9053\u6a4b\u4ed6\u5730\u8cea\u8abf\u67fb\u696d\u52d9","client_name":"\u56fd\u571f\u4ea4\u901a\u7701\u4e2d\u56fd\u5730\u65b9\u6574\u5099\u5c40\u5ca1\u5c71\u56fd\u9053\u4e8b\u52d9\u6240","boring_xml_url":40,"boring_view_url":1,"soilmap_view_url":null,"soiltest_xml_url":0,"soiltest_view_url":0},{"id":192882,"code":"B4KJ201801008-1131","latitude":"34.7143169","longitude":"134.0920258","source_code":"CG52340057003","project_name":"","survey_name":"\u5099\u524d\u5927\u6a4b\u5074\u9053\u6a4b\u4ed6\u5730\u8cea\u8abf\u67fb\u696d\u52d9","client_name":"\u56fd\u571f\u4ea4\u901a\u7701\u4e2d\u56fd\u5730\u65b9\u6574\u5099\u5c40\u5ca1\u5c71\u56fd\u9053\u4e8b\u52d9\u6240","boring_xml_url":40,"boring_view_url":1,"soilmap_view_url":null,"soiltest_xml_url":0,"soiltest_view_url":0},{"id":192881,"code":"B4KJ201801008-1130","latitude":"34.7137614","longitude":"134.0942478","source_code":"CG52340057002","project_name":"","survey_name":"\u5099\u524d\u5927\u6a4b\u5074\u9053\u6a4b\u4ed6\u5730\u8cea\u8abf\u67fb\u696d\u52d9","client_name":"\u56fd\u571f\u4ea4\u901a\u7701\u4e2d\u56fd\u5730\u65b9\u6574\u5099\u5c40\u5ca1\u5c71\u56fd\u9053\u4e8b\u52d9\u6240","boring_xml_url":40,"boring_view_url":1,"soilmap_view_url":null,"soiltest_xml_url":0,"soiltest_view_url":0},{"id":192880,"code":"B4KJ201801008-1129","latitude":"34.7132058","longitude":"134.0949144","source_code":"CG52340057001","project_name":"","survey_name":"\u5099\u524d\u5927\u6a4b\u5074\u9053\u6a4b\u4ed6\u5730\u8cea\u8abf\u67fb\u696d\u52d9","client_name":"\u56fd\u571f\u4ea4\u901a\u7701\u4e2d\u56fd\u5730\u65b9\u6574\u5099\u5c40\u5ca1\u5c71\u56fd\u9053\u4e8b\u52d9\u6240","boring_xml_url":40,"boring_view_url":1,"soilmap_view_url":null,"soiltest_xml_url":0,"soiltest_view_url":0},{"id":192879,"code":"B4KJ201801008-1128","latitude":"34.706845","longitude":"134.0733886","source_code":"CG52340046001","project_name":"","survey_name":"\u6d45\u5ddd\u5730\u8cea\u8abf\u67fb\u696d\u52d9","client_name":"\u56fd\u571f\u4ea4\u901a\u7701\u4e2d\u56fd\u5730\u65b9\u6574\u5099\u5c40\u5ca1\u5c71\u56fd\u9053\u4e8b\u52d9\u6240","boring_xml_url":40,"boring_view_url":1,"soilmap_view_url":null,"soiltest_xml_url":0,"soiltest_view_url":0},{"id":192878,"code":"B4KJ201801008-1127","latitude":"34.7055672","longitude":"134.0693614","source_code":"CG52340045015","project_name":"","survey_name":"\u5ca1\u5c71\u30d0\u30a4\u30d1\u30b9\u5730\u8cea\u8abf\u67fb\u696d\u52d9","client_name":"\u56fd\u571f\u4ea4\u901a\u7701\u4e2d\u56fd\u5730\u65b9\u6574\u5099\u5c40\u5ca1\u5c71\u56fd\u9053\u4e8b\u52d9\u6240","boring_xml_url":40,"boring_view_url":1,"soilmap_view_url":null,"soiltest_xml_url":0,"soiltest_view_url":0},{"id":192877,"code":"B4KJ201801008-1126","latitude":"34.7056506","longitude":"134.0692781","source_code":"CG52340045014","project_name":"","survey_name":"\u5ca1\u5c71\u30d0\u30a4\u30d1\u30b9\u5730\u8cea\u8abf\u67fb\u696d\u52d9","client_name":"\u56fd\u571f\u4ea4\u901a\u7701\u4e2d\u56fd\u5730\u65b9\u6574\u5099\u5c40\u5ca1\u5c71\u56fd\u9053\u4e8b\u52d9\u6240","boring_xml_url":40,"boring_view_url":1,"soilmap_view_url":null,"soiltest_xml_url":0,"soiltest_view_url":0},{"id":192876,"code":"B4KJ201801008-1125","latitude":"34.7054561","longitude":"134.0691114","source_code":"CG52340045013","project_name":"","survey_name":"\u5ca1\u5c71\u30d0\u30a4\u30d1\u30b9\u5730\u8cea\u8abf\u67fb\u696d\u52d9","client_name":"\u56fd\u571f\u4ea4\u901a\u7701\u4e2d\u56fd\u5730\u65b9\u6574\u5099\u5c40\u5ca1\u5c71\u56fd\u9053\u4e8b\u52d9\u6240","boring_xml_url":40,"boring_view_url":1,"soilmap_view_url":null,"soiltest_xml_url":0,"soiltest_view_url":0},{"id":192875,"code":"B4KJ201801008-1124","latitude":"34.7052894","longitude":"134.0688058","source_code":"CG52340045012","project_name":"","survey_name":"\u5ca1\u5c71\u30d0\u30a4\u30d1\u30b9\u5730\u8cea\u8abf\u67fb\u696d\u52d9","client_name":"\u56fd\u571f\u4ea4\u901a\u7701\u4e2d\u56fd\u5730\u65b9\u6574\u5099\u5c40\u5ca1\u5c71\u56fd\u9053\u4e8b\u52d9\u6240","boring_xml_url":40,"boring_view_url":1,"soilmap_view_url":null,"soiltest_xml_url":0,"soiltest_view_url":0},{"id":192874,"code":"B4KJ201801008-1123","latitude":"34.7059283","longitude":"134.0699725","source_code":"CG52340045011","project_name":"","survey_name":"\u5ca1\u5c71\u30d0\u30a4\u30d1\u30b9\u5730\u8cea\u8abf\u67fb\u696d\u52d9","client_name":"\u56fd\u571f\u4ea4\u901a\u7701\u4e2d\u56fd\u5730\u65b9\u6574\u5099\u5c40\u5ca1\u5c71\u56fd\u9053\u4e8b\u52d9\u6240","boring_xml_url":40,"boring_view_url":1,"soilmap_view_url":null,"soiltest_xml_url":0,"soiltest_view_url":0},{"id":192873,"code":"B4KJ201801008-1122","latitude":"34.7052342","longitude":"134.0693336","source_code":"CG52340045010","project_name":"","survey_name":"\u6d45\u5ddd\u5730\u8cea\u8abf\u67fb\u696d\u52d9","client_name":"\u56fd\u571f\u4ea4\u901a\u7701\u4e2d\u56fd\u5730\u65b9\u6574\u5099\u5c40\u5ca1\u5c71\u56fd\u9053\u4e8b\u52d9\u6240","boring_xml_url":40,"boring_view_url":1,"soilmap_view_url":null,"soiltest_xml_url":0,"soiltest_view_url":0},{"id":192872,"code":"B4KJ201801008-1121","latitude":"34.7050397","longitude":"134.0686947","source_code":"CG52340045009","project_name":"","survey_name":"\u6d45\u5ddd\u5730\u8cea\u8abf\u67fb\u696d\u52d9","client_name":"\u56fd\u571f\u4ea4\u901a\u7701\u4e2d\u56fd\u5730\u65b9\u6574\u5099\u5c40\u5ca1\u5c71\u56fd\u9053\u4e8b\u52d9\u6240","boring_xml_url":40,"boring_view_url":1,"soilmap_view_url":null,"soiltest_xml_url":0,"soiltest_view_url":0},{"id":192871,"code":"B4KJ201801008-1120","latitude":"34.7058172","longitude":"134.0710278","source_code":"CG52340045008","project_name":"","survey_name":"\u6d45\u5ddd\u5730\u8cea\u8abf\u67fb\u696d\u52d9","client_name":"\u56fd\u571f\u4ea4\u901a\u7701\u4e2d\u56fd\u5730\u65b9\u6574\u5099\u5c40\u5ca1\u5c71\u56fd\u9053\u4e8b\u52d9\u6240","boring_xml_url":40,"boring_view_url":1,"soilmap_view_url":null,"soiltest_xml_url":0,"soiltest_view_url":0},{"id":192870,"code":"B4KJ201801008-1119","latitude":"34.7061228","longitude":"134.0707778","source_code":"CG52340045007","project_name":"","survey_name":"\u6d45\u5ddd\u5730\u8cea\u8abf\u67fb\u696d\u52d9","client_name":"\u56fd\u571f\u4ea4\u901a\u7701\u4e2d\u56fd\u5730\u65b9\u6574\u5099\u5c40\u5ca1\u5c71\u56fd\u9053\u4e8b\u52d9\u6240","boring_xml_url":40,"boring_view_url":1,"soilmap_view_url":null,"soiltest_xml_url":0,"soiltest_view_url":0},{"id":192869,"code":"B4KJ201801008-1118","latitude":"34.7053731","longitude":"134.0696947","source_code":"CG52340045006","project_name":"","survey_name":"\u6d45\u5ddd\u5730\u8cea\u8abf\u67fb\u696d\u52d9","client_name":"\u56fd\u571f\u4ea4\u901a\u7701\u4e2d\u56fd\u5730\u65b9\u6574\u5099\u5c40\u5ca1\u5c71\u56fd\u9053\u4e8b\u52d9\u6240","boring_xml_url":40,"boring_view_url":1,"soilmap_view_url":null,"soiltest_xml_url":0,"soiltest_view_url":0},{"id":192868,"code":"B4KJ201801008-1117","latitude":"34.7050397","longitude":"134.0690558","source_code":"CG52340045005","project_name":"","survey_name":"\u6d45\u5ddd\u5730\u8cea\u8abf\u67fb\u696d\u52d9","client_name":"\u56fd\u571f\u4ea4\u901a\u7701\u4e2d\u56fd\u5730\u65b9\u6574\u5099\u5c40\u5ca1\u5c71\u56fd\u9053\u4e8b\u52d9\u6240","boring_xml_url":40,"boring_view_url":1,"soilmap_view_url":null,"soiltest_xml_url":0,"soiltest_view_url":0},{"id":192867,"code":"B4KJ201801008-1116","latitude":"34.7049286","longitude":"134.0688058","source_code":"CG52340045004","project_name":"","survey_name":"\u6d45\u5ddd\u5730\u8cea\u8abf\u67fb\u696d\u52d9","client_name":"\u56fd\u571f\u4ea4\u901a\u7701\u4e2d\u56fd\u5730\u65b9\u6574\u5099\u5c40\u5ca1\u5c71\u56fd\u9053\u4e8b\u52d9\u6240","boring_xml_url":40,"boring_view_url":1,"soilmap_view_url":null,"soiltest_xml_url":0,"soiltest_view_url":0},{"id":192866,"code":"B4KJ201801008-1115","latitude":"34.7037619","longitude":"134.0670283","source_code":"CG52340045003","project_name":"","survey_name":"\u5ca1\u5c71\u30d0\u30a4\u30d1\u30b9\u5730\u8cea\u8abf\u67fb\u696d\u52d9","client_name":"\u56fd\u571f\u4ea4\u901a\u7701\u4e2d\u56fd\u5730\u65b9\u6574\u5099\u5c40\u5ca1\u5c71\u56fd\u9053\u4e8b\u52d9\u6240","boring_xml_url":40,"boring_view_url":1,"soilmap_view_url":null,"soiltest_xml_url":0,"soiltest_view_url":0}]}}