{"header":{"xyz":{"source":[],"mosaic":false},"page":4285,"raw":{"soiltest_result":"0","bbox":"57.598333,109.544722,1.933333,163.806111","page":"4285"},"conditions":{"soiltest_result":0,"north":57.598333,"west":109.544722,"south":1.933333,"east":163.806111},"success":true,"message":""},"data":{"meta":{"total":212844,"page":4285,"pages":7095,"count":30},"values":[{"id":192025,"code":"B4KJ201801008-0274","latitude":"34.6901764","longitude":"133.8984325","source_code":"CG52330722030","project_name":"","survey_name":"\u9996\u90e8\u6d25\u9ad8\u5730\u533a\u5730\u8cea\u8abf\u67fb\u696d\u52d9","client_name":"\u56fd\u571f\u4ea4\u901a\u7701\u4e2d\u56fd\u5730\u65b9\u6574\u5099\u5c40\u5ca1\u5c71\u56fd\u9053\u4e8b\u52d9\u6240","boring_xml_url":40,"boring_view_url":1,"soilmap_view_url":null,"soiltest_xml_url":0,"soiltest_view_url":0},{"id":192024,"code":"B4KJ201801008-0273","latitude":"34.6902042","longitude":"133.8986547","source_code":"CG52330722029","project_name":"","survey_name":"\u9996\u90e8\u6d25\u9ad8\u5730\u533a\u5730\u8cea\u8abf\u67fb\u696d\u52d9","client_name":"\u56fd\u571f\u4ea4\u901a\u7701\u4e2d\u56fd\u5730\u65b9\u6574\u5099\u5c40\u5ca1\u5c71\u56fd\u9053\u4e8b\u52d9\u6240","boring_xml_url":40,"boring_view_url":1,"soilmap_view_url":null,"soiltest_xml_url":0,"soiltest_view_url":0},{"id":192023,"code":"B4KJ201801008-0272","latitude":"34.6899542","longitude":"133.8986269","source_code":"CG52330722028","project_name":"","survey_name":"\u9996\u90e8\u6d25\u9ad8\u5730\u533a\u5730\u8cea\u8abf\u67fb\u696d\u52d9","client_name":"\u56fd\u571f\u4ea4\u901a\u7701\u4e2d\u56fd\u5730\u65b9\u6574\u5099\u5c40\u5ca1\u5c71\u56fd\u9053\u4e8b\u52d9\u6240","boring_xml_url":40,"boring_view_url":1,"soilmap_view_url":null,"soiltest_xml_url":0,"soiltest_view_url":0},{"id":192022,"code":"B4KJ201801008-0271","latitude":"34.6899264","longitude":"133.8984603","source_code":"CG52330722027","project_name":"","survey_name":"\u9996\u90e8\u6d25\u9ad8\u5730\u533a\u5730\u8cea\u8abf\u67fb\u696d\u52d9","client_name":"\u56fd\u571f\u4ea4\u901a\u7701\u4e2d\u56fd\u5730\u65b9\u6574\u5099\u5c40\u5ca1\u5c71\u56fd\u9053\u4e8b\u52d9\u6240","boring_xml_url":40,"boring_view_url":1,"soilmap_view_url":null,"soiltest_xml_url":0,"soiltest_view_url":0},{"id":192021,"code":"B4KJ201801008-0270","latitude":"34.6897597","longitude":"133.8987936","source_code":"CG52330722026","project_name":"","survey_name":"\u9996\u90e8\u6d25\u9ad8\u5730\u533a\u5730\u8cea\u8abf\u67fb\u696d\u52d9","client_name":"\u56fd\u571f\u4ea4\u901a\u7701\u4e2d\u56fd\u5730\u65b9\u6574\u5099\u5c40\u5ca1\u5c71\u56fd\u9053\u4e8b\u52d9\u6240","boring_xml_url":40,"boring_view_url":1,"soilmap_view_url":null,"soiltest_xml_url":0,"soiltest_view_url":0},{"id":192020,"code":"B4KJ201801008-0269","latitude":"34.6897597","longitude":"133.8985992","source_code":"CG52330722025","project_name":"","survey_name":"\u9996\u90e8\u6d25\u9ad8\u5730\u533a\u5730\u8cea\u8abf\u67fb\u696d\u52d9","client_name":"\u56fd\u571f\u4ea4\u901a\u7701\u4e2d\u56fd\u5730\u65b9\u6574\u5099\u5c40\u5ca1\u5c71\u56fd\u9053\u4e8b\u52d9\u6240","boring_xml_url":40,"boring_view_url":1,"soilmap_view_url":null,"soiltest_xml_url":0,"soiltest_view_url":0},{"id":192019,"code":"B4KJ201801008-0268","latitude":"34.6897319","longitude":"133.8983217","source_code":"CG52330722024","project_name":"","survey_name":"\u9996\u90e8\u6d25\u9ad8\u5730\u533a\u5730\u8cea\u8abf\u67fb\u696d\u52d9","client_name":"\u56fd\u571f\u4ea4\u901a\u7701\u4e2d\u56fd\u5730\u65b9\u6574\u5099\u5c40\u5ca1\u5c71\u56fd\u9053\u4e8b\u52d9\u6240","boring_xml_url":40,"boring_view_url":1,"soilmap_view_url":null,"soiltest_xml_url":0,"soiltest_view_url":0},{"id":192018,"code":"B4KJ201801008-0267","latitude":"34.6908153","longitude":"133.8980717","source_code":"CG52330722023","project_name":"","survey_name":"\u9996\u90e8\u6d25\u9ad8\u5730\u533a\u5730\u8cea\u8abf\u67fb\u696d\u52d9","client_name":"\u56fd\u571f\u4ea4\u901a\u7701\u4e2d\u56fd\u5730\u65b9\u6574\u5099\u5c40\u5ca1\u5c71\u56fd\u9053\u4e8b\u52d9\u6240","boring_xml_url":40,"boring_view_url":1,"soilmap_view_url":null,"soiltest_xml_url":0,"soiltest_view_url":0},{"id":192017,"code":"B4KJ201801008-0266","latitude":"34.6909542","longitude":"133.8984325","source_code":"CG52330722022","project_name":"","survey_name":"\u9996\u90e8\u6d25\u9ad8\u5730\u533a\u5730\u8cea\u8abf\u67fb\u696d\u52d9","client_name":"\u56fd\u571f\u4ea4\u901a\u7701\u4e2d\u56fd\u5730\u65b9\u6574\u5099\u5c40\u5ca1\u5c71\u56fd\u9053\u4e8b\u52d9\u6240","boring_xml_url":40,"boring_view_url":1,"soilmap_view_url":null,"soiltest_xml_url":0,"soiltest_view_url":0},{"id":192016,"code":"B4KJ201801008-0265","latitude":"34.6927594","longitude":"133.8982658","source_code":"CG52330722021","project_name":"","survey_name":"\u9996\u90e8\u6d25\u9ad8\u5730\u533a\u5730\u8cea\u8abf\u67fb\u696d\u52d9","client_name":"\u56fd\u571f\u4ea4\u901a\u7701\u4e2d\u56fd\u5730\u65b9\u6574\u5099\u5c40\u5ca1\u5c71\u56fd\u9053\u4e8b\u52d9\u6240","boring_xml_url":40,"boring_view_url":1,"soilmap_view_url":null,"soiltest_xml_url":0,"soiltest_view_url":0},{"id":192015,"code":"B4KJ201801008-0264","latitude":"34.6918153","longitude":"133.8984881","source_code":"CG52330722020","project_name":"","survey_name":"\u9996\u90e8\u6d25\u9ad8\u5730\u533a\u5730\u8cea\u8abf\u67fb\u696d\u52d9","client_name":"\u56fd\u571f\u4ea4\u901a\u7701\u4e2d\u56fd\u5730\u65b9\u6574\u5099\u5c40\u5ca1\u5c71\u56fd\u9053\u4e8b\u52d9\u6240","boring_xml_url":40,"boring_view_url":1,"soilmap_view_url":null,"soiltest_xml_url":0,"soiltest_view_url":0},{"id":192014,"code":"B4KJ201801008-0263","latitude":"34.6916764","longitude":"133.8985992","source_code":"CG52330722019","project_name":"","survey_name":"\u9996\u90e8\u6d25\u9ad8\u5730\u533a\u5730\u8cea\u8abf\u67fb\u696d\u52d9","client_name":"\u56fd\u571f\u4ea4\u901a\u7701\u4e2d\u56fd\u5730\u65b9\u6574\u5099\u5c40\u5ca1\u5c71\u56fd\u9053\u4e8b\u52d9\u6240","boring_xml_url":40,"boring_view_url":1,"soilmap_view_url":null,"soiltest_xml_url":0,"soiltest_view_url":0},{"id":192013,"code":"B4KJ201801008-0262","latitude":"34.6909819","longitude":"133.8984881","source_code":"CG52330722018","project_name":"","survey_name":"\u9996\u90e8\u6d25\u9ad8\u5730\u5185\u5730\u8cea\u8abf\u67fb\u696d\u52d9","client_name":"\u56fd\u571f\u4ea4\u901a\u7701\u4e2d\u56fd\u5730\u65b9\u6574\u5099\u5c40\u5ca1\u5c71\u56fd\u9053\u4e8b\u52d9\u6240","boring_xml_url":40,"boring_view_url":1,"soilmap_view_url":null,"soiltest_xml_url":0,"soiltest_view_url":0},{"id":192012,"code":"B4KJ201801008-0261","latitude":"34.6908153","longitude":"133.8980717","source_code":"CG52330722016","project_name":"","survey_name":"\u9996\u90e8\u6d25\u9ad8\u5730\u533a\u5730\u8cea\u8abf\u67fb\u696d\u52d9","client_name":"\u56fd\u571f\u4ea4\u901a\u7701\u4e2d\u56fd\u5730\u65b9\u6574\u5099\u5c40\u5ca1\u5c71\u56fd\u9053\u4e8b\u52d9\u6240","boring_xml_url":40,"boring_view_url":1,"soilmap_view_url":null,"soiltest_xml_url":0,"soiltest_view_url":0},{"id":192011,"code":"B4KJ201801008-0260","latitude":"34.6904264","longitude":"133.8986547","source_code":"CG52330722014","project_name":"","survey_name":"\u9996\u90e8\u6d25\u9ad8\u5730\u533a\u5730\u8cea\u8abf\u67fb\u696d\u52d9","client_name":"\u56fd\u571f\u4ea4\u901a\u7701\u4e2d\u56fd\u5730\u65b9\u6574\u5099\u5c40\u5ca1\u5c71\u56fd\u9053\u4e8b\u52d9\u6240","boring_xml_url":40,"boring_view_url":1,"soilmap_view_url":null,"soiltest_xml_url":0,"soiltest_view_url":0},{"id":192010,"code":"B4KJ201801008-0259","latitude":"34.6897875","longitude":"133.8985158","source_code":"CG52330722013","project_name":"","survey_name":"\u9996\u90e8\u6d25\u9ad8\u5730\u533a\u5730\u8cea\u8abf\u67fb\u696d\u52d9","client_name":"\u56fd\u571f\u4ea4\u901a\u7701\u4e2d\u56fd\u5730\u65b9\u6574\u5099\u5c40\u5ca1\u5c71\u56fd\u9053\u4e8b\u52d9\u6240","boring_xml_url":40,"boring_view_url":1,"soilmap_view_url":null,"soiltest_xml_url":0,"soiltest_view_url":0},{"id":192009,"code":"B4KJ201801008-0258","latitude":"34.6897042","longitude":"133.8977939","source_code":"CG52330722012","project_name":"","survey_name":"\u9996\u90e8\u6d25\u9ad8\u5730\u533a\u5730\u8cea\u8abf\u67fb\u696d\u52d9","client_name":"\u56fd\u571f\u4ea4\u901a\u7701\u4e2d\u56fd\u5730\u65b9\u6574\u5099\u5c40\u5ca1\u5c71\u56fd\u9053\u4e8b\u52d9\u6240","boring_xml_url":40,"boring_view_url":1,"soilmap_view_url":null,"soiltest_xml_url":0,"soiltest_view_url":0},{"id":192008,"code":"B4KJ201801008-0257","latitude":"34.6893989","longitude":"133.8983772","source_code":"CG52330722011","project_name":"","survey_name":"\u9996\u90e8\u6d25\u9ad8\u5730\u533a\u5730\u8cea\u8abf\u67fb\u696d\u52d9","client_name":"\u56fd\u571f\u4ea4\u901a\u7701\u4e2d\u56fd\u5730\u65b9\u6574\u5099\u5c40\u5ca1\u5c71\u56fd\u9053\u4e8b\u52d9\u6240","boring_xml_url":40,"boring_view_url":1,"soilmap_view_url":null,"soiltest_xml_url":0,"soiltest_view_url":0},{"id":192007,"code":"B4KJ201801008-0256","latitude":"34.6891767","longitude":"133.8983217","source_code":"CG52330722010","project_name":"","survey_name":"\u9996\u90e8\u6d25\u9ad8\u5730\u533a\u5730\u8cea\u8abf\u67fb\u696d\u52d9","client_name":"\u56fd\u571f\u4ea4\u901a\u7701\u4e2d\u56fd\u5730\u65b9\u6574\u5099\u5c40\u5ca1\u5c71\u56fd\u9053\u4e8b\u52d9\u6240","boring_xml_url":40,"boring_view_url":1,"soilmap_view_url":null,"soiltest_xml_url":0,"soiltest_view_url":0},{"id":192006,"code":"B4KJ201801008-0255","latitude":"34.6887878","longitude":"133.898405","source_code":"CG52330722009","project_name":"","survey_name":"\u9996\u90e8\u6d25\u9ad8\u5730\u533a\u5730\u8cea\u8abf\u67fb\u696d\u52d9","client_name":"\u56fd\u571f\u4ea4\u901a\u7701\u4e2d\u56fd\u5730\u65b9\u6574\u5099\u5c40\u5ca1\u5c71\u56fd\u9053\u4e8b\u52d9\u6240","boring_xml_url":40,"boring_view_url":1,"soilmap_view_url":null,"soiltest_xml_url":0,"soiltest_view_url":0},{"id":192005,"code":"B4KJ201801008-0254","latitude":"34.6886489","longitude":"133.898405","source_code":"CG52330722008","project_name":"","survey_name":"\u9996\u90e8\u6d25\u9ad8\u5730\u533a\u5730\u8cea\u8abf\u67fb\u696d\u52d9","client_name":"\u56fd\u571f\u4ea4\u901a\u7701\u4e2d\u56fd\u5730\u65b9\u6574\u5099\u5c40\u5ca1\u5c71\u56fd\u9053\u4e8b\u52d9\u6240","boring_xml_url":40,"boring_view_url":1,"soilmap_view_url":null,"soiltest_xml_url":0,"soiltest_view_url":0},{"id":192004,"code":"B4KJ201801008-0253","latitude":"34.6882878","longitude":"133.8980161","source_code":"CG52330722007","project_name":"","survey_name":"\u5ca1\u5c71\u5317\u30d0\u30a4\u30d1\u30b9\u9996\u90e8\u5730\u533a\u5730\u8cea\u8abf\u67fb\u696d\u52d9","client_name":"\u56fd\u571f\u4ea4\u901a\u7701\u4e2d\u56fd\u5730\u65b9\u6574\u5099\u5c40\u5ca1\u5c71\u56fd\u9053\u4e8b\u52d9\u6240","boring_xml_url":40,"boring_view_url":1,"soilmap_view_url":null,"soiltest_xml_url":0,"soiltest_view_url":0},{"id":192003,"code":"B4KJ201801008-0252","latitude":"34.6929261","longitude":"133.8989881","source_code":"CG52330722004","project_name":"","survey_name":"\u9996\u90e8\u5730\u533a\u5730\u8cea\u8abf\u67fb\u696d\u52d9","client_name":"\u56fd\u571f\u4ea4\u901a\u7701\u4e2d\u56fd\u5730\u65b9\u6574\u5099\u5c40\u5ca1\u5c71\u56fd\u9053\u4e8b\u52d9\u6240","boring_xml_url":40,"boring_view_url":1,"soilmap_view_url":null,"soiltest_xml_url":0,"soiltest_view_url":0},{"id":192002,"code":"B4KJ201801008-0251","latitude":"34.6926483","longitude":"133.8987103","source_code":"CG52330722003","project_name":"","survey_name":"\u9996\u90e8\u5730\u533a\u5730\u8cea\u8abf\u67fb\u696d\u52d9","client_name":"\u56fd\u571f\u4ea4\u901a\u7701\u4e2d\u56fd\u5730\u65b9\u6574\u5099\u5c40\u5ca1\u5c71\u56fd\u9053\u4e8b\u52d9\u6240","boring_xml_url":40,"boring_view_url":1,"soilmap_view_url":null,"soiltest_xml_url":0,"soiltest_view_url":0},{"id":192001,"code":"B4KJ201801008-0250","latitude":"34.6920928","longitude":"133.8984325","source_code":"CG52330722002","project_name":"","survey_name":"\u9996\u90e8\u5730\u533a\u5730\u8cea\u8abf\u67fb\u696d\u52d9","client_name":"\u56fd\u571f\u4ea4\u901a\u7701\u4e2d\u56fd\u5730\u65b9\u6574\u5099\u5c40\u5ca1\u5c71\u56fd\u9053\u4e8b\u52d9\u6240","boring_xml_url":40,"boring_view_url":1,"soilmap_view_url":null,"soiltest_xml_url":0,"soiltest_view_url":0},{"id":192000,"code":"B4KJ201801008-0249","latitude":"34.6907042","longitude":"133.8981547","source_code":"CG52330722001","project_name":"","survey_name":"\u9996\u90e8\u5730\u533a\u5730\u8cea\u8abf\u67fb\u696d\u52d9","client_name":"\u56fd\u571f\u4ea4\u901a\u7701\u4e2d\u56fd\u5730\u65b9\u6574\u5099\u5c40\u5ca1\u5c71\u56fd\u9053\u4e8b\u52d9\u6240","boring_xml_url":40,"boring_view_url":1,"soilmap_view_url":null,"soiltest_xml_url":0,"soiltest_view_url":0},{"id":191999,"code":"B4KJ201801008-0248","latitude":"34.6799286","longitude":"133.9474564","source_code":"CG52330716010","project_name":"","survey_name":"\u65ed\u5ddd\u653e\u6c34\u8def\u4e0a\u6d41\u5730\u533a\u900f\u6c34\u8abf\u67fb\u696d\u52d9","client_name":"\u56fd\u571f\u4ea4\u901a\u7701\u4e2d\u56fd\u5730\u65b9\u6574\u5099\u5c40\u5ca1\u5c71\u6cb3\u5ddd\u4e8b\u52d9\u6240","boring_xml_url":40,"boring_view_url":1,"soilmap_view_url":null,"soiltest_xml_url":0,"soiltest_view_url":0},{"id":191998,"code":"B4KJ201801008-0247","latitude":"34.6793733","longitude":"133.9476786","source_code":"CG52330716009","project_name":"","survey_name":"\u65ed\u5ddd\u653e\u6c34\u8def\u8a66\u9310\u53ca\u3073\u900f\u6c34\u8a66\u9a13\u696d\u52d9","client_name":"\u56fd\u571f\u4ea4\u901a\u7701\u4e2d\u56fd\u5730\u65b9\u6574\u5099\u5c40\u5ca1\u5c71\u6cb3\u5ddd\u4e8b\u52d9\u6240","boring_xml_url":40,"boring_view_url":1,"soilmap_view_url":null,"soiltest_xml_url":0,"soiltest_view_url":0},{"id":191997,"code":"B4KJ201801008-0246","latitude":"34.6805675","longitude":"133.9477342","source_code":"CG52330716008","project_name":"","survey_name":"\u662d\u548c56\u5e74\u5ea6\u65ed\u5ddd\u653e\u6c34\u8def\u5730\u4e0b\u6c34\u8abf\u67fb\u696d\u52d9","client_name":"\u56fd\u571f\u4ea4\u901a\u7701\u4e2d\u56fd\u5730\u65b9\u6574\u5099\u5c40\u5ca1\u5c71\u6cb3\u5ddd\u4e8b\u52d9\u6240","boring_xml_url":40,"boring_view_url":1,"soilmap_view_url":null,"soiltest_xml_url":0,"soiltest_view_url":0},{"id":191996,"code":"B4KJ201801008-0245","latitude":"34.6787622","longitude":"133.9527892","source_code":"CG52330716007","project_name":"","survey_name":"\u662d\u548c56\u5e74\u5ea6\u65ed\u5ddd\u653e\u6c34\u8def\u5730\u4e0b\u6c34\u8abf\u67fb\u696d\u52d9","client_name":"\u56fd\u571f\u4ea4\u901a\u7701\u4e2d\u56fd\u5730\u65b9\u6574\u5099\u5c40\u5ca1\u5c71\u6cb3\u5ddd\u4e8b\u52d9\u6240","boring_xml_url":40,"boring_view_url":1,"soilmap_view_url":null,"soiltest_xml_url":0,"soiltest_view_url":0}]}}