{"header":{"xyz":{"source":[],"mosaic":false},"page":4287,"raw":{"soiltest_result":"0","bbox":"57.598333,109.544722,1.933333,163.806111","page":"4287"},"conditions":{"soiltest_result":0,"north":57.598333,"west":109.544722,"south":1.933333,"east":163.806111},"success":true,"message":""},"data":{"meta":{"total":212844,"page":4287,"pages":7095,"count":30},"values":[{"id":191965,"code":"B4KJ201801008-0214","latitude":"34.6852892","longitude":"133.9464842","source_code":"CG52330715012","project_name":"","survey_name":"\u662d\u548c56\u5e74\u5ea6\u65ed\u5ddd\u653e\u6c34\u8def\u5730\u4e0b\u6c34\u8abf\u67fb\u696d\u52d9","client_name":"\u56fd\u571f\u4ea4\u901a\u7701\u4e2d\u56fd\u5730\u65b9\u6574\u5099\u5c40\u5ca1\u5c71\u6cb3\u5ddd\u4e8b\u52d9\u6240","boring_xml_url":40,"boring_view_url":1,"soilmap_view_url":null,"soiltest_xml_url":0,"soiltest_view_url":0},{"id":191964,"code":"B4KJ201801008-0213","latitude":"34.6788733","longitude":"133.9445956","source_code":"CG52330715011","project_name":"","survey_name":"\u6a0b\u9580\u7a7a\u6d1e\u5316\u8abf\u67fb\u696d\u52d9","client_name":"\u56fd\u571f\u4ea4\u901a\u7701\u4e2d\u56fd\u5730\u65b9\u6574\u5099\u5c40\u5ca1\u5c71\u6cb3\u5ddd\u4e8b\u52d9\u6240","boring_xml_url":40,"boring_view_url":1,"soilmap_view_url":null,"soiltest_xml_url":0,"soiltest_view_url":0},{"id":191963,"code":"B4KJ201801008-0212","latitude":"34.6831503","longitude":"133.9379017","source_code":"CG52330715010","project_name":"","survey_name":"\u65ed\u5ddd\u5730\u4e0b\u6c34\u89b3\u6e2c\u6240\u8a2d\u7f6e\u5916\u696d\u52d9","client_name":"\u56fd\u571f\u4ea4\u901a\u7701\u4e2d\u56fd\u5730\u65b9\u6574\u5099\u5c40\u5ca1\u5c71\u6cb3\u5ddd\u4e8b\u52d9\u6240","boring_xml_url":40,"boring_view_url":1,"soilmap_view_url":null,"soiltest_xml_url":0,"soiltest_view_url":0},{"id":191962,"code":"B4KJ201801008-0211","latitude":"34.6826506","longitude":"133.9399292","source_code":"CG52330715009","project_name":"","survey_name":"\u65ed\u5ddd\u5730\u4e0b\u6c34\u89b3\u6e2c\u6240\u8a2d\u7f6e\u5916\u696d\u52d9","client_name":"\u56fd\u571f\u4ea4\u901a\u7701\u4e2d\u56fd\u5730\u65b9\u6574\u5099\u5c40\u5ca1\u5c71\u6cb3\u5ddd\u4e8b\u52d9\u6240","boring_xml_url":40,"boring_view_url":1,"soilmap_view_url":null,"soiltest_xml_url":0,"soiltest_view_url":0},{"id":191961,"code":"B4KJ201801008-0210","latitude":"34.6823728","longitude":"133.9410681","source_code":"CG52330715007","project_name":"","survey_name":"\u5f8c\u697d\u5712\u30b5\u30a4\u30d5\u30a9\u30f3\u8a2d\u8a08\u696d\u52d9","client_name":"\u56fd\u571f\u4ea4\u901a\u7701\u4e2d\u56fd\u5730\u65b9\u6574\u5099\u5c40\u5ca1\u5c71\u6cb3\u5ddd\u4e8b\u52d9\u6240","boring_xml_url":40,"boring_view_url":1,"soilmap_view_url":null,"soiltest_xml_url":0,"soiltest_view_url":0},{"id":191960,"code":"B4KJ201801008-0209","latitude":"34.6823728","longitude":"133.9410681","source_code":"CG52330715006","project_name":"","survey_name":"\u5f8c\u697d\u5712\u30b5\u30a4\u30d5\u30a9\u30f3\u8a2d\u8a08\u696d\u52d9","client_name":"\u56fd\u571f\u4ea4\u901a\u7701\u4e2d\u56fd\u5730\u65b9\u6574\u5099\u5c40\u5ca1\u5c71\u6cb3\u5ddd\u4e8b\u52d9\u6240","boring_xml_url":40,"boring_view_url":1,"soilmap_view_url":null,"soiltest_xml_url":0,"soiltest_view_url":0},{"id":191959,"code":"B4KJ201801008-0208","latitude":"34.6823728","longitude":"133.9410681","source_code":"CG52330715004","project_name":"","survey_name":"\u5f8c\u697d\u5712\u30b5\u30a4\u30d5\u30a9\u30f3\u8a2d\u8a08\u696d\u52d9","client_name":"\u56fd\u571f\u4ea4\u901a\u7701\u4e2d\u56fd\u5730\u65b9\u6574\u5099\u5c40\u5ca1\u5c71\u6cb3\u5ddd\u4e8b\u52d9\u6240","boring_xml_url":40,"boring_view_url":1,"soilmap_view_url":null,"soiltest_xml_url":0,"soiltest_view_url":0},{"id":191958,"code":"B4KJ201801008-0207","latitude":"34.6823728","longitude":"133.9410681","source_code":"CG52330715003","project_name":"","survey_name":"\u5f8c\u697d\u5712\u30b5\u30a4\u30d5\u30a9\u30f3\u8a2d\u8a08\u696d\u52d9","client_name":"\u56fd\u571f\u4ea4\u901a\u7701\u4e2d\u56fd\u5730\u65b9\u6574\u5099\u5c40\u5ca1\u5c71\u6cb3\u5ddd\u4e8b\u52d9\u6240","boring_xml_url":40,"boring_view_url":1,"soilmap_view_url":null,"soiltest_xml_url":0,"soiltest_view_url":0},{"id":191957,"code":"B4KJ201801008-0206","latitude":"34.6823728","longitude":"133.9410681","source_code":"CG52330715002","project_name":"","survey_name":"\u5f8c\u697d\u5712\u30b5\u30a4\u30d5\u30a9\u30f3\u8a2d\u8a08\u696d\u52d9","client_name":"\u56fd\u571f\u4ea4\u901a\u7701\u4e2d\u56fd\u5730\u65b9\u6574\u5099\u5c40\u5ca1\u5c71\u6cb3\u5ddd\u4e8b\u52d9\u6240","boring_xml_url":40,"boring_view_url":1,"soilmap_view_url":null,"soiltest_xml_url":0,"soiltest_view_url":0},{"id":191956,"code":"B4KJ201801008-0205","latitude":"34.6809","longitude":"133.911265","source_code":"CG52330713002","project_name":"","survey_name":"\u672c\u56db\u516c\u56e3\u7b2c\u4e8c\u5efa\u8a2d\u5c40\u5ca1\u5c71\u5bbf\u820e\u5730\u76e4\u8abf\u67fb","client_name":"\u56fd\u571f\u4ea4\u901a\u7701\u4e2d\u56fd\u5730\u65b9\u6574\u5099\u5c40\u55b6\u7e55\u90e8","boring_xml_url":40,"boring_view_url":1,"soilmap_view_url":null,"soiltest_xml_url":0,"soiltest_view_url":0},{"id":191955,"code":"B4KJ201801008-0204","latitude":"34.6807611","longitude":"133.9111539","source_code":"CG52330713001","project_name":"","survey_name":"\u672c\u56db\u516c\u56e3\u7b2c\u4e8c\u5efa\u8a2d\u5c40\u5ca1\u5c71\u5bbf\u820e\u5730\u76e4\u8abf\u67fb","client_name":"\u56fd\u571f\u4ea4\u901a\u7701\u4e2d\u56fd\u5730\u65b9\u6574\u5099\u5c40\u55b6\u7e55\u90e8","boring_xml_url":40,"boring_view_url":1,"soilmap_view_url":null,"soiltest_xml_url":0,"soiltest_view_url":0},{"id":191954,"code":"B4KJ201801008-0203","latitude":"34.6808997","longitude":"133.8986828","source_code":"CG52330712014","project_name":"","survey_name":"\u6d25\u5cf6\u5730\u76e4\u89e3\u6790\u696d\u52d9","client_name":"\u56fd\u571f\u4ea4\u901a\u7701\u4e2d\u56fd\u5730\u65b9\u6574\u5099\u5c40\u5ca1\u5c71\u56fd\u9053\u4e8b\u52d9\u6240","boring_xml_url":40,"boring_view_url":1,"soilmap_view_url":null,"soiltest_xml_url":0,"soiltest_view_url":0},{"id":191953,"code":"B4KJ201801008-0202","latitude":"34.6811775","longitude":"133.8985717","source_code":"CG52330712013","project_name":"","survey_name":"\u6d25\u5cf6\u5730\u76e4\u89e3\u6790\u696d\u52d9","client_name":"\u56fd\u571f\u4ea4\u901a\u7701\u4e2d\u56fd\u5730\u65b9\u6574\u5099\u5c40\u5ca1\u5c71\u56fd\u9053\u4e8b\u52d9\u6240","boring_xml_url":40,"boring_view_url":1,"soilmap_view_url":null,"soiltest_xml_url":0,"soiltest_view_url":0},{"id":191952,"code":"B4KJ201801008-0201","latitude":"34.6844272","longitude":"133.8977661","source_code":"CG52330712012","project_name":"","survey_name":"\u9996\u90e8\u6d25\u9ad8\u5730\u533a\u5730\u8cea\u8abf\u67fb\u696d\u52d9","client_name":"\u56fd\u571f\u4ea4\u901a\u7701\u4e2d\u56fd\u5730\u65b9\u6574\u5099\u5c40\u5ca1\u5c71\u56fd\u9053\u4e8b\u52d9\u6240","boring_xml_url":40,"boring_view_url":1,"soilmap_view_url":null,"soiltest_xml_url":0,"soiltest_view_url":0},{"id":191951,"code":"B4KJ201801008-0200","latitude":"34.6843994","longitude":"133.8980161","source_code":"CG52330712011","project_name":"","survey_name":"\u9996\u90e8\u6d25\u9ad8\u5730\u533a\u5730\u8cea\u8abf\u67fb\u696d\u52d9","client_name":"\u56fd\u571f\u4ea4\u901a\u7701\u4e2d\u56fd\u5730\u65b9\u6574\u5099\u5c40\u5ca1\u5c71\u56fd\u9053\u4e8b\u52d9\u6240","boring_xml_url":40,"boring_view_url":1,"soilmap_view_url":null,"soiltest_xml_url":0,"soiltest_view_url":0},{"id":191950,"code":"B4KJ201801008-0199","latitude":"34.6858992","longitude":"133.8978772","source_code":"CG52330712010","project_name":"","survey_name":"\u5ca1\u5c71\u5317\u30d0\u30a4\u30d1\u30b9\u9996\u90e8\u5730\u533a\u5730\u8cea\u8abf\u67fb\u696d\u52d9","client_name":"\u56fd\u571f\u4ea4\u901a\u7701\u4e2d\u56fd\u5730\u65b9\u6574\u5099\u5c40\u5ca1\u5c71\u56fd\u9053\u4e8b\u52d9\u6240","boring_xml_url":40,"boring_view_url":1,"soilmap_view_url":null,"soiltest_xml_url":0,"soiltest_view_url":0},{"id":191949,"code":"B4KJ201801008-0198","latitude":"34.6840939","longitude":"133.8974328","source_code":"CG52330712009","project_name":"","survey_name":"\u5ca1\u5c71\u5317\u30d0\u30a4\u30d1\u30b9\u9996\u90e8\u5730\u533a\u5730\u8cea\u8abf\u67fb\u696d\u52d9","client_name":"\u56fd\u571f\u4ea4\u901a\u7701\u4e2d\u56fd\u5730\u65b9\u6574\u5099\u5c40\u5ca1\u5c71\u56fd\u9053\u4e8b\u52d9\u6240","boring_xml_url":40,"boring_view_url":1,"soilmap_view_url":null,"soiltest_xml_url":0,"soiltest_view_url":0},{"id":191948,"code":"B4KJ201801008-0197","latitude":"34.6830661","longitude":"133.8976553","source_code":"CG52330712008","project_name":"","survey_name":"\u5ca1\u5c71\u5317\u30d0\u30a4\u30d1\u30b9\u9996\u90e8\u5730\u533a\u5730\u8cea\u8abf\u67fb\u696d\u52d9","client_name":"\u56fd\u571f\u4ea4\u901a\u7701\u4e2d\u56fd\u5730\u65b9\u6574\u5099\u5c40\u5ca1\u5c71\u56fd\u9053\u4e8b\u52d9\u6240","boring_xml_url":40,"boring_view_url":1,"soilmap_view_url":null,"soiltest_xml_url":0,"soiltest_view_url":0},{"id":191947,"code":"B4KJ201801008-0196","latitude":"34.6829272","longitude":"133.8973219","source_code":"CG52330712007","project_name":"","survey_name":"\u9996\u90e8\u5730\u533a\u5730\u8cea\u8abf\u67fb\u696d\u52d9","client_name":"\u56fd\u571f\u4ea4\u901a\u7701\u4e2d\u56fd\u5730\u65b9\u6574\u5099\u5c40\u5ca1\u5c71\u56fd\u9053\u4e8b\u52d9\u6240","boring_xml_url":40,"boring_view_url":1,"soilmap_view_url":null,"soiltest_xml_url":0,"soiltest_view_url":0},{"id":191946,"code":"B4KJ201801008-0195","latitude":"34.6818164","longitude":"133.8978775","source_code":"CG52330712005","project_name":"","survey_name":"\u9996\u90e8\u5730\u533a\u5730\u8cea\u8abf\u67fb\u696d\u52d9","client_name":"\u56fd\u571f\u4ea4\u901a\u7701\u4e2d\u56fd\u5730\u65b9\u6574\u5099\u5c40\u5ca1\u5c71\u56fd\u9053\u4e8b\u52d9\u6240","boring_xml_url":40,"boring_view_url":1,"soilmap_view_url":null,"soiltest_xml_url":0,"soiltest_view_url":0},{"id":191945,"code":"B4KJ201801008-0194","latitude":"34.6796222","longitude":"133.8997106","source_code":"CG52330712004","project_name":"","survey_name":"\u6d25\u5cf6\u5730\u533a\u5730\u8cea\u8abf\u67fb\u696d\u52d9","client_name":"\u56fd\u571f\u4ea4\u901a\u7701\u4e2d\u56fd\u5730\u65b9\u6574\u5099\u5c40\u5ca1\u5c71\u56fd\u9053\u4e8b\u52d9\u6240","boring_xml_url":40,"boring_view_url":1,"soilmap_view_url":null,"soiltest_xml_url":0,"soiltest_view_url":0},{"id":191944,"code":"B4KJ201801008-0193","latitude":"34.6799556","longitude":"133.9039325","source_code":"CG52330712003","project_name":"","survey_name":"\u6d25\u5cf6\u5730\u533a\u5730\u8cea\u8abf\u67fb\u696d\u52d9","client_name":"\u56fd\u571f\u4ea4\u901a\u7701\u4e2d\u56fd\u5730\u65b9\u6574\u5099\u5c40\u5ca1\u5c71\u56fd\u9053\u4e8b\u52d9\u6240","boring_xml_url":40,"boring_view_url":1,"soilmap_view_url":null,"soiltest_xml_url":0,"soiltest_view_url":0},{"id":191943,"code":"B4KJ201801008-0192","latitude":"34.6802333","longitude":"133.90621","source_code":"CG52330712002","project_name":"","survey_name":"\u6d25\u5cf6\u5730\u533a\u5730\u8cea\u8abf\u67fb\u696d\u52d9","client_name":"\u56fd\u571f\u4ea4\u901a\u7701\u4e2d\u56fd\u5730\u65b9\u6574\u5099\u5c40\u5ca1\u5c71\u56fd\u9053\u4e8b\u52d9\u6240","boring_xml_url":40,"boring_view_url":1,"soilmap_view_url":null,"soiltest_xml_url":0,"soiltest_view_url":0},{"id":191942,"code":"B4KJ201801008-0191","latitude":"34.6802889","longitude":"133.9085431","source_code":"CG52330712001","project_name":"","survey_name":"\u6d25\u5cf6\u5730\u533a\u5730\u8cea\u8abf\u67fb\u696d\u52d9","client_name":"\u56fd\u571f\u4ea4\u901a\u7701\u4e2d\u56fd\u5730\u65b9\u6574\u5099\u5c40\u5ca1\u5c71\u56fd\u9053\u4e8b\u52d9\u6240","boring_xml_url":40,"boring_view_url":1,"soilmap_view_url":null,"soiltest_xml_url":0,"soiltest_view_url":0},{"id":191941,"code":"B4KJ201801008-0190","latitude":"34.6721528","longitude":"133.9882031","source_code":"CG52330709016","project_name":"","survey_name":"\u65ed\u5ddd\u653e\u6c34\u8def\u7b2c\u4e8c\u5730\u8cea\u8abf\u67fb\u696d\u52d9","client_name":"\u56fd\u571f\u4ea4\u901a\u7701\u4e2d\u56fd\u5730\u65b9\u6574\u5099\u5c40\u5ca1\u5c71\u6cb3\u5ddd\u4e8b\u52d9\u6240","boring_xml_url":40,"boring_view_url":1,"soilmap_view_url":null,"soiltest_xml_url":0,"soiltest_view_url":0},{"id":191940,"code":"B4KJ201801008-0189","latitude":"34.6734858","longitude":"133.9918692","source_code":"CG52330709014","project_name":"","survey_name":"\u65ed\u5ddd\u653e\u6c34\u8def\u7b2c\u4e8c\u5730\u8cea\u8abf\u67fb\u696d\u52d9","client_name":"\u56fd\u571f\u4ea4\u901a\u7701\u4e2d\u56fd\u5730\u65b9\u6574\u5099\u5c40\u5ca1\u5c71\u6cb3\u5ddd\u4e8b\u52d9\u6240","boring_xml_url":40,"boring_view_url":1,"soilmap_view_url":null,"soiltest_xml_url":0,"soiltest_view_url":0},{"id":191939,"code":"B4KJ201801008-0188","latitude":"34.6739025","longitude":"133.9912861","source_code":"CG52330709011","project_name":"","survey_name":"\u65ed\u5ddd\u653e\u6c34\u8def\u7b2c\u4e8c\u5730\u8cea\u8abf\u67fb\u696d\u52d9","client_name":"\u56fd\u571f\u4ea4\u901a\u7701\u4e2d\u56fd\u5730\u65b9\u6574\u5099\u5c40\u5ca1\u5c71\u6cb3\u5ddd\u4e8b\u52d9\u6240","boring_xml_url":40,"boring_view_url":1,"soilmap_view_url":null,"soiltest_xml_url":0,"soiltest_view_url":0},{"id":191938,"code":"B4KJ201801008-0187","latitude":"34.6737914","longitude":"133.9898972","source_code":"CG52330709010","project_name":"","survey_name":"\u653e\u6c34\u8def\u6a4b\u6881\u5730\u8cea\u8abf\u67fb\u696d\u52d9","client_name":"\u56fd\u571f\u4ea4\u901a\u7701\u4e2d\u56fd\u5730\u65b9\u6574\u5099\u5c40\u5ca1\u5c71\u6cb3\u5ddd\u4e8b\u52d9\u6240","boring_xml_url":40,"boring_view_url":1,"soilmap_view_url":null,"soiltest_xml_url":0,"soiltest_view_url":0},{"id":191937,"code":"B4KJ201801008-0186","latitude":"34.6748747","longitude":"133.9896194","source_code":"CG52330709009","project_name":"","survey_name":"\u653e\u6c34\u8def\u6a4b\u6881\u5730\u8cea\u8abf\u67fb\u696d\u52d9","client_name":"\u56fd\u571f\u4ea4\u901a\u7701\u4e2d\u56fd\u5730\u65b9\u6574\u5099\u5c40\u5ca1\u5c71\u6cb3\u5ddd\u4e8b\u52d9\u6240","boring_xml_url":40,"boring_view_url":1,"soilmap_view_url":null,"soiltest_xml_url":0,"soiltest_view_url":0},{"id":191936,"code":"B4KJ201801008-0185","latitude":"34.6757078","longitude":"133.9892861","source_code":"CG52330709008","project_name":"","survey_name":"\u653e\u6c34\u8def\u6a4b\u6881\u5730\u8cea\u8abf\u67fb\u696d\u52d9","client_name":"\u56fd\u571f\u4ea4\u901a\u7701\u4e2d\u56fd\u5730\u65b9\u6574\u5099\u5c40\u5ca1\u5c71\u6cb3\u5ddd\u4e8b\u52d9\u6240","boring_xml_url":40,"boring_view_url":1,"soilmap_view_url":null,"soiltest_xml_url":0,"soiltest_view_url":0}]}}