{"header":{"xyz":{"source":[],"mosaic":false},"page":4293,"raw":{"soiltest_result":"0","bbox":"57.598333,109.544722,1.933333,163.806111","page":"4293"},"conditions":{"soiltest_result":0,"north":57.598333,"west":109.544722,"south":1.933333,"east":163.806111},"success":true,"message":""},"data":{"meta":{"total":212844,"page":4293,"pages":7095,"count":30},"values":[{"id":191785,"code":"B4KJ201801008-0034","latitude":"35.276025","longitude":"132.5917814","source_code":"CG52327427002","project_name":"","survey_name":"\u591a\u4f0e\u5730\u533a\u5730\u8cea\u8abf\u67fb\u696d\u52d9","client_name":"\u56fd\u571f\u4ea4\u901a\u7701\u4e2d\u56fd\u5730\u65b9\u6574\u5099\u5c40\u677e\u6c5f\u56fd\u9053\u4e8b\u52d9\u6240","boring_xml_url":40,"boring_view_url":1,"soilmap_view_url":null,"soiltest_xml_url":0,"soiltest_view_url":0},{"id":191784,"code":"B4KJ201801008-0033","latitude":"35.2757194","longitude":"132.5917258","source_code":"CG52327427001","project_name":"","survey_name":"\u591a\u4f0e\u5730\u533a\u5730\u8cea\u8abf\u67fb\u696d\u52d9","client_name":"\u56fd\u571f\u4ea4\u901a\u7701\u4e2d\u56fd\u5730\u65b9\u6574\u5099\u5c40\u677e\u6c5f\u56fd\u9053\u4e8b\u52d9\u6240","boring_xml_url":40,"boring_view_url":1,"soilmap_view_url":null,"soiltest_xml_url":0,"soiltest_view_url":0},{"id":191783,"code":"B4KJ201801008-0032","latitude":"35.2640539","longitude":"132.5816717","source_code":"CG52327416002","project_name":"","survey_name":"\u51fa\u96f2\u7ba1\u5185\u4ea4\u5b89\u8a2d\u8a08\u696d\u52d9(\u8d8a\u5802\u6a4b \u6a4b\u6881\u8abf\u67fb)","client_name":"\u56fd\u571f\u4ea4\u901a\u7701\u4e2d\u56fd\u5730\u65b9\u6574\u5099\u5c40\u677e\u6c5f\u56fd\u9053\u4e8b\u52d9\u6240","boring_xml_url":40,"boring_view_url":1,"soilmap_view_url":null,"soiltest_xml_url":0,"soiltest_view_url":0},{"id":191782,"code":"B4KJ201801008-0031","latitude":"35.2632203","longitude":"132.5613403","source_code":"CG52327415001","project_name":"","survey_name":"\u4ec1\u6469\u30fb\u671d\u5c71\u5730\u533a\u5916\u5730\u8cea\u8abf\u67fb\u696d\u52d9","client_name":"\u56fd\u571f\u4ea4\u901a\u7701\u4e2d\u56fd\u5730\u65b9\u6574\u5099\u5c40\u51fa\u96f2\u6cb3\u5ddd\u4e8b\u52d9\u6240","boring_xml_url":40,"boring_view_url":1,"soilmap_view_url":null,"soiltest_xml_url":0,"soiltest_view_url":0},{"id":191781,"code":"B4KJ201801008-0030","latitude":"35.2392314","longitude":"132.9473336","source_code":"CG52326785003","project_name":"","survey_name":"\u5c3e\u539f\u30c0\u30e0\u753a\u9053\u5317\u539f\u65e5\u767b\u7dda\u5730\u8cea\u8abf\u67fb\u696d\u52d9","client_name":"\u56fd\u571f\u4ea4\u901a\u7701\u4e2d\u56fd\u5730\u65b9\u6574\u5099\u5c40\u6590\u4f0a\u5ddd\u30fb\u795e\u6238\u5ddd\u7dcf\u5408\u958b\u767a\u5de5\u4e8b\u4e8b\u52d9\u6240","boring_xml_url":40,"boring_view_url":1,"soilmap_view_url":null,"soiltest_xml_url":0,"soiltest_view_url":0},{"id":191780,"code":"B4KJ201801008-0029","latitude":"35.2415089","longitude":"132.9443061","source_code":"CG52326785002","project_name":"","survey_name":"\u5c3e\u539f\u30c0\u30e0\u753a\u9053\u5317\u539f\u65e5\u767b\u7dda\u5730\u8cea\u8abf\u67fb\u696d\u52d9","client_name":"\u56fd\u571f\u4ea4\u901a\u7701\u4e2d\u56fd\u5730\u65b9\u6574\u5099\u5c40\u6590\u4f0a\u5ddd\u30fb\u795e\u6238\u5ddd\u7dcf\u5408\u958b\u767a\u5de5\u4e8b\u4e8b\u52d9\u6240","boring_xml_url":40,"boring_view_url":1,"soilmap_view_url":null,"soiltest_xml_url":0,"soiltest_view_url":0},{"id":191779,"code":"B4KJ201801008-0028","latitude":"35.2322881","longitude":"132.9661378","source_code":"CG52326777001","project_name":"","survey_name":"\u5c3e\u539f\u30c0\u30e0\u539f\u77f3\u5c71\u8a66\u9310\u696d\u52d9","client_name":"\u56fd\u571f\u4ea4\u901a\u7701\u4e2d\u56fd\u5730\u65b9\u6574\u5099\u5c40\u6590\u4f0a\u5ddd\u30fb\u795e\u6238\u5ddd\u7dcf\u5408\u958b\u767a\u5de5\u4e8b\u4e8b\u52d9\u6240","boring_xml_url":40,"boring_view_url":1,"soilmap_view_url":null,"soiltest_xml_url":0,"soiltest_view_url":0},{"id":191778,"code":"B4KJ201801008-0027","latitude":"35.2283994","longitude":"132.9490561","source_code":"CG52326776007","project_name":"","survey_name":"\u5e73\u7530\u4f50\u767d\u7dda\u5730\u8cea\u8abf\u67fb(\u305d\u306e2)\u696d\u52d9","client_name":"\u56fd\u571f\u4ea4\u901a\u7701\u4e2d\u56fd\u5730\u65b9\u6574\u5099\u5c40\u6590\u4f0a\u5ddd\u30fb\u795e\u6238\u5ddd\u7dcf\u5408\u958b\u767a\u5de5\u4e8b\u4e8b\u52d9\u6240","boring_xml_url":40,"boring_view_url":1,"soilmap_view_url":null,"soiltest_xml_url":0,"soiltest_view_url":0},{"id":191777,"code":"B4KJ201801008-0026","latitude":"35.2286214","longitude":"132.9491117","source_code":"CG52326776006","project_name":"","survey_name":"\u5e73\u7530\u4f50\u767d\u7dda\u5730\u8cea\u8abf\u67fb(\u305d\u306e2)\u696d\u52d9","client_name":"\u56fd\u571f\u4ea4\u901a\u7701\u4e2d\u56fd\u5730\u65b9\u6574\u5099\u5c40\u6590\u4f0a\u5ddd\u30fb\u795e\u6238\u5ddd\u7dcf\u5408\u958b\u767a\u5de5\u4e8b\u4e8b\u52d9\u6240","boring_xml_url":40,"boring_view_url":1,"soilmap_view_url":null,"soiltest_xml_url":0,"soiltest_view_url":0},{"id":191776,"code":"B4KJ201801008-0025","latitude":"35.2286214","longitude":"132.9490283","source_code":"CG52326776005","project_name":"","survey_name":"\u5e73\u7530\u4f50\u767d\u7dda\u5730\u8cea\u8abf\u67fb(\u305d\u306e2)\u696d\u52d9","client_name":"\u56fd\u571f\u4ea4\u901a\u7701\u4e2d\u56fd\u5730\u65b9\u6574\u5099\u5c40\u6590\u4f0a\u5ddd\u30fb\u795e\u6238\u5ddd\u7dcf\u5408\u958b\u767a\u5de5\u4e8b\u4e8b\u52d9\u6240","boring_xml_url":40,"boring_view_url":1,"soilmap_view_url":null,"soiltest_xml_url":0,"soiltest_view_url":0},{"id":191775,"code":"B4KJ201801008-0024","latitude":"35.2359264","longitude":"132.9533611","source_code":"CG52326776004","project_name":"","survey_name":"\u5c3e\u539f\u30c0\u30e0\u753a\u9053\u5317\u539f\u65e5\u767b\u7dda\u5730\u8cea\u8abf\u67fb\u696d\u52d9","client_name":"\u56fd\u571f\u4ea4\u901a\u7701\u4e2d\u56fd\u5730\u65b9\u6574\u5099\u5c40\u6590\u4f0a\u5ddd\u30fb\u795e\u6238\u5ddd\u7dcf\u5408\u958b\u767a\u5de5\u4e8b\u4e8b\u52d9\u6240","boring_xml_url":40,"boring_view_url":1,"soilmap_view_url":null,"soiltest_xml_url":0,"soiltest_view_url":0},{"id":191774,"code":"B4KJ201801008-0023","latitude":"35.2282328","longitude":"132.9491394","source_code":"CG52326776003","project_name":"","survey_name":"\u5e73\u7530\u4f50\u767d\u7dda\u5730\u8cea\u8abf\u67fb(\u305d\u306e2)\u696d\u52d9","client_name":"\u56fd\u571f\u4ea4\u901a\u7701\u4e2d\u56fd\u5730\u65b9\u6574\u5099\u5c40\u6590\u4f0a\u5ddd\u30fb\u795e\u6238\u5ddd\u7dcf\u5408\u958b\u767a\u5de5\u4e8b\u4e8b\u52d9\u6240","boring_xml_url":40,"boring_view_url":1,"soilmap_view_url":null,"soiltest_xml_url":0,"soiltest_view_url":0},{"id":191773,"code":"B4KJ201801008-0022","latitude":"35.2347042","longitude":"132.9543333","source_code":"CG52326776002","project_name":"","survey_name":"\u5c3e\u539f\u30c0\u30e0\u753a\u9053\u5317\u539f\u65e5\u767b\u7dda\u5730\u8cea\u8abf\u67fb\u696d\u52d9","client_name":"\u56fd\u571f\u4ea4\u901a\u7701\u4e2d\u56fd\u5730\u65b9\u6574\u5099\u5c40\u6590\u4f0a\u5ddd\u30fb\u795e\u6238\u5ddd\u7dcf\u5408\u958b\u767a\u5de5\u4e8b\u4e8b\u52d9\u6240","boring_xml_url":40,"boring_view_url":1,"soilmap_view_url":null,"soiltest_xml_url":0,"soiltest_view_url":0},{"id":191772,"code":"B4KJ201801008-0021","latitude":"35.2317597","longitude":"132.9359183","source_code":"CG52326775001","project_name":"","survey_name":"\u4ed8\u66ff\u753a\u9053\u5e73\u7530\u4f50\u767d\u7dda\u4ed6\u5730\u8cea\u8abf\u67fb\u696d\u52d9","client_name":"\u56fd\u571f\u4ea4\u901a\u7701\u4e2d\u56fd\u5730\u65b9\u6574\u5099\u5c40\u6590\u4f0a\u5ddd\u30fb\u795e\u6238\u5ddd\u7dcf\u5408\u958b\u767a\u5de5\u4e8b\u4e8b\u52d9\u6240","boring_xml_url":40,"boring_view_url":1,"soilmap_view_url":null,"soiltest_xml_url":0,"soiltest_view_url":0},{"id":191771,"code":"B4KJ201801008-0020","latitude":"35.2209011","longitude":"132.9904969","source_code":"CG52326769001","project_name":"","survey_name":"\u5e73\u621011\u5e74\u5ea6\u5c3e\u539f\u30c0\u30e0\u753a\u9053\u516b\u4ee3\u4e09\u6ca2\u7dda\u5730\u8cea\u8abf\u67fb\u696d\u52d9","client_name":"\u56fd\u571f\u4ea4\u901a\u7701\u4e2d\u56fd\u5730\u65b9\u6574\u5099\u5c40\u6590\u4f0a\u5ddd\u30fb\u795e\u6238\u5ddd\u7dcf\u5408\u958b\u767a\u5de5\u4e8b\u4e8b\u52d9\u6240","boring_xml_url":40,"boring_view_url":1,"soilmap_view_url":null,"soiltest_xml_url":0,"soiltest_view_url":0},{"id":191770,"code":"B4KJ201801008-0019","latitude":"35.2246225","longitude":"132.9728875","source_code":"CG52326768002","project_name":"","survey_name":"\u5c3e\u539f\u30c0\u30e0\u8a66\u9310(\u305d\u306e11)\u696d\u52d9","client_name":"\u56fd\u571f\u4ea4\u901a\u7701\u4e2d\u56fd\u5730\u65b9\u6574\u5099\u5c40\u6590\u4f0a\u5ddd\u30fb\u795e\u6238\u5ddd\u7dcf\u5408\u958b\u767a\u5de5\u4e8b\u4e8b\u52d9\u6240","boring_xml_url":40,"boring_view_url":1,"soilmap_view_url":null,"soiltest_xml_url":0,"soiltest_view_url":0},{"id":191769,"code":"B4KJ201801008-0018","latitude":"35.2204564","longitude":"132.9733042","source_code":"CG52326768001","project_name":"","survey_name":"\u5c3e\u539f\u30c0\u30e0\u539f\u77f3\u5c71\u8a66\u9310\u696d\u52d9","client_name":"\u56fd\u571f\u4ea4\u901a\u7701\u4e2d\u56fd\u5730\u65b9\u6574\u5099\u5c40\u6590\u4f0a\u5ddd\u30fb\u795e\u6238\u5ddd\u7dcf\u5408\u958b\u767a\u5de5\u4e8b\u4e8b\u52d9\u6240","boring_xml_url":40,"boring_view_url":1,"soilmap_view_url":null,"soiltest_xml_url":0,"soiltest_view_url":0},{"id":191768,"code":"B4KJ201801008-0017","latitude":"35.2273442","longitude":"132.9655269","source_code":"CG52326767021","project_name":"","survey_name":"\u5e73\u621012\u5e74\u5ea6\u5c3e\u539f\u30c0\u30e0\u539f\u77f3\u5c71\u5730\u8cea\u8abf\u67fb\u696d\u52d9","client_name":"\u56fd\u571f\u4ea4\u901a\u7701\u4e2d\u56fd\u5730\u65b9\u6574\u5099\u5c40\u6590\u4f0a\u5ddd\u30fb\u795e\u6238\u5ddd\u7dcf\u5408\u958b\u767a\u5de5\u4e8b\u4e8b\u52d9\u6240","boring_xml_url":40,"boring_view_url":1,"soilmap_view_url":null,"soiltest_xml_url":0,"soiltest_view_url":0},{"id":191767,"code":"B4KJ201801008-0016","latitude":"35.2270664","longitude":"132.9655825","source_code":"CG52326767020","project_name":"","survey_name":"\u5e73\u621012\u5e74\u5ea6\u5c3e\u539f\u30c0\u30e0\u539f\u77f3\u5c71\u5730\u8cea\u8abf\u67fb\u696d\u52d9","client_name":"\u56fd\u571f\u4ea4\u901a\u7701\u4e2d\u56fd\u5730\u65b9\u6574\u5099\u5c40\u6590\u4f0a\u5ddd\u30fb\u795e\u6238\u5ddd\u7dcf\u5408\u958b\u767a\u5de5\u4e8b\u4e8b\u52d9\u6240","boring_xml_url":40,"boring_view_url":1,"soilmap_view_url":null,"soiltest_xml_url":0,"soiltest_view_url":0},{"id":191766,"code":"B4KJ201801008-0015","latitude":"35.2226781","longitude":"132.9619997","source_code":"CG52326767015","project_name":"","survey_name":"\u4ed8\u66ff\u753a\u9053\u5c3e\u5d0e\u5c71\u65b9\u7dda\u5730\u8cea\u8abf\u67fb\u696d\u52d9","client_name":"\u56fd\u571f\u4ea4\u901a\u7701\u4e2d\u56fd\u5730\u65b9\u6574\u5099\u5c40\u6590\u4f0a\u5ddd\u30fb\u795e\u6238\u5ddd\u7dcf\u5408\u958b\u767a\u5de5\u4e8b\u4e8b\u52d9\u6240","boring_xml_url":40,"boring_view_url":1,"soilmap_view_url":null,"soiltest_xml_url":0,"soiltest_view_url":0},{"id":191765,"code":"B4KJ201801008-0014","latitude":"35.2229281","longitude":"132.9609442","source_code":"CG52326767014","project_name":"","survey_name":"\u4ed8\u66ff\u753a\u9053\u5c3e\u5d0e\u5c71\u65b9\u7dda\u5730\u8cea\u8abf\u67fb\u696d\u52d9","client_name":"\u56fd\u571f\u4ea4\u901a\u7701\u4e2d\u56fd\u5730\u65b9\u6574\u5099\u5c40\u6590\u4f0a\u5ddd\u30fb\u795e\u6238\u5ddd\u7dcf\u5408\u958b\u767a\u5de5\u4e8b\u4e8b\u52d9\u6240","boring_xml_url":40,"boring_view_url":1,"soilmap_view_url":null,"soiltest_xml_url":0,"soiltest_view_url":0},{"id":191764,"code":"B4KJ201801008-0013","latitude":"35.2223725","longitude":"132.9608608","source_code":"CG52326767013","project_name":"","survey_name":"\u4ed8\u66ff\u753a\u9053\u5c3e\u5d0e\u5c71\u65b9\u7dda\u5730\u8cea\u8abf\u67fb\u696d\u52d9","client_name":"\u56fd\u571f\u4ea4\u901a\u7701\u4e2d\u56fd\u5730\u65b9\u6574\u5099\u5c40\u6590\u4f0a\u5ddd\u30fb\u795e\u6238\u5ddd\u7dcf\u5408\u958b\u767a\u5de5\u4e8b\u4e8b\u52d9\u6240","boring_xml_url":40,"boring_view_url":1,"soilmap_view_url":null,"soiltest_xml_url":0,"soiltest_view_url":0},{"id":191763,"code":"B4KJ201801008-0012","latitude":"35.2213725","longitude":"132.9616664","source_code":"CG52326767012","project_name":"","survey_name":"\u4ed8\u66ff\u753a\u9053\u5c3e\u5d0e\u5c71\u65b9\u7dda\u5730\u8cea\u8abf\u67fb\u696d\u52d9","client_name":"\u56fd\u571f\u4ea4\u901a\u7701\u4e2d\u56fd\u5730\u65b9\u6574\u5099\u5c40\u6590\u4f0a\u5ddd\u30fb\u795e\u6238\u5ddd\u7dcf\u5408\u958b\u767a\u5de5\u4e8b\u4e8b\u52d9\u6240","boring_xml_url":40,"boring_view_url":1,"soilmap_view_url":null,"soiltest_xml_url":0,"soiltest_view_url":0},{"id":191762,"code":"B4KJ201801008-0011","latitude":"35.2213169","longitude":"132.9611664","source_code":"CG52326767011","project_name":"","survey_name":"\u4ed8\u66ff\u753a\u9053\u5c3e\u5d0e\u5c71\u65b9\u7dda\u5730\u8cea\u8abf\u67fb\u696d\u52d9","client_name":"\u56fd\u571f\u4ea4\u901a\u7701\u4e2d\u56fd\u5730\u65b9\u6574\u5099\u5c40\u6590\u4f0a\u5ddd\u30fb\u795e\u6238\u5ddd\u7dcf\u5408\u958b\u767a\u5de5\u4e8b\u4e8b\u52d9\u6240","boring_xml_url":40,"boring_view_url":1,"soilmap_view_url":null,"soiltest_xml_url":0,"soiltest_view_url":0},{"id":191761,"code":"B4KJ201801008-0010","latitude":"35.2264556","longitude":"132.9682211","source_code":"CG52326767010","project_name":"","survey_name":"\u5c3e\u539f\u30c0\u30e0\u539f\u77f3\u5c71\u8a66\u9310\u696d\u52d9","client_name":"\u56fd\u571f\u4ea4\u901a\u7701\u4e2d\u56fd\u5730\u65b9\u6574\u5099\u5c40\u6590\u4f0a\u5ddd\u30fb\u795e\u6238\u5ddd\u7dcf\u5408\u958b\u767a\u5de5\u4e8b\u4e8b\u52d9\u6240","boring_xml_url":40,"boring_view_url":1,"soilmap_view_url":null,"soiltest_xml_url":0,"soiltest_view_url":0},{"id":191760,"code":"B4KJ201801008-0009","latitude":"35.2270111","longitude":"132.9673878","source_code":"CG52326767009","project_name":"","survey_name":"\u5c3e\u539f\u30c0\u30e0\u539f\u77f3\u5c71\u5730\u8cea\u8abf\u67fb","client_name":"\u56fd\u571f\u4ea4\u901a\u7701\u4e2d\u56fd\u5730\u65b9\u6574\u5099\u5c40\u6590\u4f0a\u5ddd\u30fb\u795e\u6238\u5ddd\u7dcf\u5408\u958b\u767a\u5de5\u4e8b\u4e8b\u52d9\u6240","boring_xml_url":40,"boring_view_url":1,"soilmap_view_url":null,"soiltest_xml_url":0,"soiltest_view_url":0},{"id":191759,"code":"B4KJ201801008-0008","latitude":"35.2270111","longitude":"132.9679433","source_code":"CG52326767008","project_name":"","survey_name":"\u5c3e\u539f\u30c0\u30e0\u539f\u77f3\u5c71\u5730\u8cea\u8abf\u67fb","client_name":"\u56fd\u571f\u4ea4\u901a\u7701\u4e2d\u56fd\u5730\u65b9\u6574\u5099\u5c40\u6590\u4f0a\u5ddd\u30fb\u795e\u6238\u5ddd\u7dcf\u5408\u958b\u767a\u5de5\u4e8b\u4e8b\u52d9\u6240","boring_xml_url":40,"boring_view_url":1,"soilmap_view_url":null,"soiltest_xml_url":0,"soiltest_view_url":0},{"id":191758,"code":"B4KJ201801008-0007","latitude":"35.2248447","longitude":"132.9720542","source_code":"CG52326767006","project_name":"","survey_name":"\u5c3e\u539f\u30c0\u30e0\u8a66\u9310(\u305d\u306e11)\u696d\u52d9","client_name":"\u56fd\u571f\u4ea4\u901a\u7701\u4e2d\u56fd\u5730\u65b9\u6574\u5099\u5c40\u6590\u4f0a\u5ddd\u30fb\u795e\u6238\u5ddd\u7dcf\u5408\u958b\u767a\u5de5\u4e8b\u4e8b\u52d9\u6240","boring_xml_url":40,"boring_view_url":1,"soilmap_view_url":null,"soiltest_xml_url":0,"soiltest_view_url":0},{"id":191757,"code":"B4KJ201801008-0006","latitude":"35.2200119","longitude":"132.9718322","source_code":"CG52326767005","project_name":"","survey_name":"\u5c3e\u539f\u30c0\u30e0\u539f\u77f3\u5c71\u8a66\u9310\u696d\u52d9","client_name":"\u56fd\u571f\u4ea4\u901a\u7701\u4e2d\u56fd\u5730\u65b9\u6574\u5099\u5c40\u6590\u4f0a\u5ddd\u30fb\u795e\u6238\u5ddd\u7dcf\u5408\u958b\u767a\u5de5\u4e8b\u4e8b\u52d9\u6240","boring_xml_url":40,"boring_view_url":1,"soilmap_view_url":null,"soiltest_xml_url":0,"soiltest_view_url":0},{"id":191756,"code":"B4KJ201801008-0005","latitude":"35.2236225","longitude":"132.96811","source_code":"CG52326767004","project_name":"","survey_name":"\u5c3e\u539f\u30c0\u30e0\u539f\u77f3\u5c71\u8a66\u9310\u696d\u52d9","client_name":"\u56fd\u571f\u4ea4\u901a\u7701\u4e2d\u56fd\u5730\u65b9\u6574\u5099\u5c40\u6590\u4f0a\u5ddd\u30fb\u795e\u6238\u5ddd\u7dcf\u5408\u958b\u767a\u5de5\u4e8b\u4e8b\u52d9\u6240","boring_xml_url":40,"boring_view_url":1,"soilmap_view_url":null,"soiltest_xml_url":0,"soiltest_view_url":0}]}}