{"header":{"xyz":{"source":[],"mosaic":false},"page":4297,"raw":{"soiltest_result":"0","bbox":"57.598333,109.544722,1.933333,163.806111","page":"4297"},"conditions":{"soiltest_result":0,"north":57.598333,"west":109.544722,"south":1.933333,"east":163.806111},"success":true,"message":""},"data":{"meta":{"total":212844,"page":4297,"pages":7095,"count":30},"values":[{"id":191665,"code":"B4KJ201801007-9914","latitude":"35.1906231","longitude":"132.8161528","source_code":"CG52326625001","project_name":"","survey_name":"\u639b\u5408\u753a\u5730\u5185\u5730\u8cea\u8abf\u67fb","client_name":"\u56fd\u571f\u4ea4\u901a\u7701\u4e2d\u56fd\u5730\u65b9\u6574\u5099\u5c40\u677e\u6c5f\u56fd\u9053\u4e8b\u52d9\u6240","boring_xml_url":40,"boring_view_url":1,"soilmap_view_url":null,"soiltest_xml_url":0,"soiltest_view_url":0},{"id":191664,"code":"B4KJ201801007-9913","latitude":"35.1833739","longitude":"132.8204303","source_code":"CG52326615006","project_name":"","survey_name":"\u639b\u5408\u753a\u5730\u5185\u5730\u8cea\u8abf\u67fb\u4ed6\u4e00\u5ec9","client_name":"\u56fd\u571f\u4ea4\u901a\u7701\u4e2d\u56fd\u5730\u65b9\u6574\u5099\u5c40\u677e\u6c5f\u56fd\u9053\u4e8b\u52d9\u6240","boring_xml_url":40,"boring_view_url":1,"soilmap_view_url":null,"soiltest_xml_url":0,"soiltest_view_url":0},{"id":191663,"code":"B4KJ201801007-9912","latitude":"35.1824853","longitude":"132.8197636","source_code":"CG52326615005","project_name":"","survey_name":"\u639b\u5408\u753a\u5730\u5185\u5730\u8cea\u8abf\u67fb\u4ed6\u4e00\u5ec9","client_name":"\u56fd\u571f\u4ea4\u901a\u7701\u4e2d\u56fd\u5730\u65b9\u6574\u5099\u5c40\u677e\u6c5f\u56fd\u9053\u4e8b\u52d9\u6240","boring_xml_url":40,"boring_view_url":1,"soilmap_view_url":null,"soiltest_xml_url":0,"soiltest_view_url":0},{"id":191662,"code":"B4KJ201801007-9911","latitude":"35.1821519","longitude":"132.8194028","source_code":"CG52326615004","project_name":"","survey_name":"\u639b\u5408\u753a\u5730\u5185\u5730\u8cea\u8abf\u67fb\u4ed6\u4e00\u5ec9","client_name":"\u56fd\u571f\u4ea4\u901a\u7701\u4e2d\u56fd\u5730\u65b9\u6574\u5099\u5c40\u677e\u6c5f\u56fd\u9053\u4e8b\u52d9\u6240","boring_xml_url":40,"boring_view_url":1,"soilmap_view_url":null,"soiltest_xml_url":0,"soiltest_view_url":0},{"id":191661,"code":"B4KJ201801007-9910","latitude":"35.1819297","longitude":"132.8187639","source_code":"CG52326615003","project_name":"","survey_name":"\u639b\u5408\u753a\u5730\u5185\u5730\u8cea\u8abf\u67fb\u4ed6\u4e00\u5ec9","client_name":"\u56fd\u571f\u4ea4\u901a\u7701\u4e2d\u56fd\u5730\u65b9\u6574\u5099\u5c40\u677e\u6c5f\u56fd\u9053\u4e8b\u52d9\u6240","boring_xml_url":40,"boring_view_url":1,"soilmap_view_url":null,"soiltest_xml_url":0,"soiltest_view_url":0},{"id":191660,"code":"B4KJ201801007-9909","latitude":"35.1815686","longitude":"132.8185972","source_code":"CG52326615002","project_name":"","survey_name":"\u639b\u5408\u753a\u5730\u5185\u5730\u8cea\u8abf\u67fb\u4ed6\u4e00\u5ec9","client_name":"\u56fd\u571f\u4ea4\u901a\u7701\u4e2d\u56fd\u5730\u65b9\u6574\u5099\u5c40\u677e\u6c5f\u56fd\u9053\u4e8b\u52d9\u6240","boring_xml_url":40,"boring_view_url":1,"soilmap_view_url":null,"soiltest_xml_url":0,"soiltest_view_url":0},{"id":191659,"code":"B4KJ201801007-9908","latitude":"35.1735419","longitude":"132.8233192","source_code":"CG52326606001","project_name":"","survey_name":"\u9813\u539f\u7ba1\u5185\u4ea4\u5b89\u8a2d\u8a08\u696d\u52d9(\u3046\u3061\u639b\u5408\u4e2d\u7d99\u6240\u30dc\u30fc\u30ea\u30f3\u30b0\u8abf\u67fb)","client_name":"\u56fd\u571f\u4ea4\u901a\u7701\u4e2d\u56fd\u5730\u65b9\u6574\u5099\u5c40\u677e\u6c5f\u56fd\u9053\u4e8b\u52d9\u6240","boring_xml_url":40,"boring_view_url":1,"soilmap_view_url":null,"soiltest_xml_url":0,"soiltest_view_url":0},{"id":191658,"code":"B4KJ201801007-9907","latitude":"35.1767914","longitude":"132.8182919","source_code":"CG52326605007","project_name":"","survey_name":"\u639b\u5408\u753a\u5730\u5185\u5730\u8cea\u8abf\u67fb\u4ed6\u4e00\u5ec9","client_name":"\u56fd\u571f\u4ea4\u901a\u7701\u4e2d\u56fd\u5730\u65b9\u6574\u5099\u5c40\u677e\u6c5f\u56fd\u9053\u4e8b\u52d9\u6240","boring_xml_url":40,"boring_view_url":1,"soilmap_view_url":null,"soiltest_xml_url":0,"soiltest_view_url":0},{"id":191657,"code":"B4KJ201801007-9906","latitude":"35.1764303","longitude":"132.8187086","source_code":"CG52326605006","project_name":"","survey_name":"\u639b\u5408\u753a\u5730\u5185\u5730\u8cea\u8abf\u67fb\u4ed6\u4e00\u5ec9","client_name":"\u56fd\u571f\u4ea4\u901a\u7701\u4e2d\u56fd\u5730\u65b9\u6574\u5099\u5c40\u677e\u6c5f\u56fd\u9053\u4e8b\u52d9\u6240","boring_xml_url":40,"boring_view_url":1,"soilmap_view_url":null,"soiltest_xml_url":0,"soiltest_view_url":0},{"id":191656,"code":"B4KJ201801007-9905","latitude":"35.175319","longitude":"132.819208","source_code":"CG52326605005","project_name":"","survey_name":"\u639b\u5408\u753a\u5730\u5185\u5730\u8cea\u8abf\u67fb\u4ed6\u4e00\u5ec9","client_name":"\u56fd\u571f\u4ea4\u901a\u7701\u4e2d\u56fd\u5730\u65b9\u6574\u5099\u5c40\u677e\u6c5f\u56fd\u9053\u4e8b\u52d9\u6240","boring_xml_url":40,"boring_view_url":1,"soilmap_view_url":null,"soiltest_xml_url":0,"soiltest_view_url":0},{"id":191655,"code":"B4KJ201801007-9904","latitude":"35.1726531","longitude":"132.8192364","source_code":"CG52326605004","project_name":"","survey_name":"\u639b\u5408\u753a\u5730\u5185\u5730\u8cea\u8abf\u67fb\u4ed6\u4e00\u5ec9","client_name":"\u56fd\u571f\u4ea4\u901a\u7701\u4e2d\u56fd\u5730\u65b9\u6574\u5099\u5c40\u677e\u6c5f\u56fd\u9053\u4e8b\u52d9\u6240","boring_xml_url":40,"boring_view_url":1,"soilmap_view_url":null,"soiltest_xml_url":0,"soiltest_view_url":0},{"id":191654,"code":"B4KJ201801007-9903","latitude":"35.1721531","longitude":"132.8190697","source_code":"CG52326605003","project_name":"","survey_name":"\u639b\u5408\u753a\u5730\u5185\u5730\u8cea\u8abf\u67fb\u4ed6\u4e00\u5ec9","client_name":"\u56fd\u571f\u4ea4\u901a\u7701\u4e2d\u56fd\u5730\u65b9\u6574\u5099\u5c40\u677e\u6c5f\u56fd\u9053\u4e8b\u52d9\u6240","boring_xml_url":40,"boring_view_url":1,"soilmap_view_url":null,"soiltest_xml_url":0,"soiltest_view_url":0},{"id":191653,"code":"B4KJ201801007-9902","latitude":"35.1718475","longitude":"132.8188475","source_code":"CG52326605002","project_name":"","survey_name":"\u639b\u5408\u753a\u5730\u5185\u5730\u8cea\u8abf\u67fb\u4ed6\u4e00\u5ec9","client_name":"\u56fd\u571f\u4ea4\u901a\u7701\u4e2d\u56fd\u5730\u65b9\u6574\u5099\u5c40\u677e\u6c5f\u56fd\u9053\u4e8b\u52d9\u6240","boring_xml_url":40,"boring_view_url":1,"soilmap_view_url":null,"soiltest_xml_url":0,"soiltest_view_url":0},{"id":191652,"code":"B4KJ201801007-9901","latitude":"35.1822881","longitude":"132.6911642","source_code":"CG52326515002","project_name":"","survey_name":"\u6a4b\u6ce2\u5730\u533a\u5730\u8cea\u8abf\u67fb\u305d\u306e3\u696d\u52d9","client_name":"\u56fd\u571f\u4ea4\u901a\u7701\u4e2d\u56fd\u5730\u65b9\u6574\u5099\u5c40\u6590\u4f0a\u5ddd\u30fb\u795e\u6238\u5ddd\u7dcf\u5408\u958b\u767a\u5de5\u4e8b\u4e8b\u52d9\u6240","boring_xml_url":40,"boring_view_url":1,"soilmap_view_url":null,"soiltest_xml_url":0,"soiltest_view_url":0},{"id":191651,"code":"B4KJ201801007-9900","latitude":"35.1829267","longitude":"132.6867203","source_code":"CG52326515001","project_name":"","survey_name":"\u6a4b\u6ce2\u5730\u533a\u4ed6\u5730\u8cea\u8abf\u67fb\u696d\u52d9","client_name":"\u56fd\u571f\u4ea4\u901a\u7701\u4e2d\u56fd\u5730\u65b9\u6574\u5099\u5c40\u6590\u4f0a\u5ddd\u30fb\u795e\u6238\u5ddd\u7dcf\u5408\u958b\u767a\u5de5\u4e8b\u4e8b\u52d9\u6240","boring_xml_url":40,"boring_view_url":1,"soilmap_view_url":null,"soiltest_xml_url":0,"soiltest_view_url":0},{"id":191650,"code":"B4KJ201801007-9899","latitude":"35.1810381","longitude":"132.6842483","source_code":"CG52326514055","project_name":"","survey_name":"\u9577\u5442\u7551\u5730\u8cea\u8abf\u67fb\u696d\u52d9","client_name":"\u56fd\u571f\u4ea4\u901a\u7701\u4e2d\u56fd\u5730\u65b9\u6574\u5099\u5c40\u6590\u4f0a\u5ddd\u30fb\u795e\u6238\u5ddd\u7dcf\u5408\u958b\u767a\u5de5\u4e8b\u4e8b\u52d9\u6240","boring_xml_url":40,"boring_view_url":1,"soilmap_view_url":null,"soiltest_xml_url":0,"soiltest_view_url":0},{"id":191649,"code":"B4KJ201801007-9898","latitude":"35.1813158","longitude":"132.6842483","source_code":"CG52326514054","project_name":"","survey_name":"\u9577\u5442\u7551\u5730\u8cea\u8abf\u67fb\u696d\u52d9","client_name":"\u56fd\u571f\u4ea4\u901a\u7701\u4e2d\u56fd\u5730\u65b9\u6574\u5099\u5c40\u6590\u4f0a\u5ddd\u30fb\u795e\u6238\u5ddd\u7dcf\u5408\u958b\u767a\u5de5\u4e8b\u4e8b\u52d9\u6240","boring_xml_url":40,"boring_view_url":1,"soilmap_view_url":null,"soiltest_xml_url":0,"soiltest_view_url":0},{"id":191648,"code":"B4KJ201801007-9897","latitude":"35.1833989","longitude":"132.6829706","source_code":"CG52326514053","project_name":"","survey_name":"\u6a4b\u6ce2\u5730\u533a\u5730\u8cea\u8abf\u67fb\u305d\u306e3\u696d\u52d9","client_name":"\u56fd\u571f\u4ea4\u901a\u7701\u4e2d\u56fd\u5730\u65b9\u6574\u5099\u5c40\u6590\u4f0a\u5ddd\u30fb\u795e\u6238\u5ddd\u7dcf\u5408\u958b\u767a\u5de5\u4e8b\u4e8b\u52d9\u6240","boring_xml_url":40,"boring_view_url":1,"soilmap_view_url":null,"soiltest_xml_url":0,"soiltest_view_url":0},{"id":191647,"code":"B4KJ201801007-9896","latitude":"35.1786772","longitude":"132.6840817","source_code":"CG52326514052","project_name":"","survey_name":"\u6a4b\u6ce2\u5730\u533a\u5730\u8cea\u8abf\u67fb\u305d\u306e3\u696d\u52d9","client_name":"\u56fd\u571f\u4ea4\u901a\u7701\u4e2d\u56fd\u5730\u65b9\u6574\u5099\u5c40\u6590\u4f0a\u5ddd\u30fb\u795e\u6238\u5ddd\u7dcf\u5408\u958b\u767a\u5de5\u4e8b\u4e8b\u52d9\u6240","boring_xml_url":40,"boring_view_url":1,"soilmap_view_url":null,"soiltest_xml_url":0,"soiltest_view_url":0},{"id":191646,"code":"B4KJ201801007-9895","latitude":"35.1783994","longitude":"132.6843594","source_code":"CG52326514051","project_name":"","survey_name":"\u6a4b\u6ce2\u5730\u533a\u5730\u8cea\u8abf\u67fb\u305d\u306e3\u696d\u52d9","client_name":"\u56fd\u571f\u4ea4\u901a\u7701\u4e2d\u56fd\u5730\u65b9\u6574\u5099\u5c40\u6590\u4f0a\u5ddd\u30fb\u795e\u6238\u5ddd\u7dcf\u5408\u958b\u767a\u5de5\u4e8b\u4e8b\u52d9\u6240","boring_xml_url":40,"boring_view_url":1,"soilmap_view_url":null,"soiltest_xml_url":0,"soiltest_view_url":0},{"id":191645,"code":"B4KJ201801007-9894","latitude":"35.1822878","longitude":"132.6786656","source_code":"CG52326514049","project_name":"","survey_name":"\u6a4b\u6ce2\u5730\u533a\u5730\u8cea\u8abf\u67fb\u305d\u306e3\u696d\u52d9","client_name":"\u56fd\u571f\u4ea4\u901a\u7701\u4e2d\u56fd\u5730\u65b9\u6574\u5099\u5c40\u6590\u4f0a\u5ddd\u30fb\u795e\u6238\u5ddd\u7dcf\u5408\u958b\u767a\u5de5\u4e8b\u4e8b\u52d9\u6240","boring_xml_url":40,"boring_view_url":1,"soilmap_view_url":null,"soiltest_xml_url":0,"soiltest_view_url":0},{"id":191644,"code":"B4KJ201801007-9893","latitude":"35.1800658","longitude":"132.6846372","source_code":"CG52326514048","project_name":"","survey_name":"\u6a4b\u6ce2\u5730\u533a\u5730\u8cea\u8abf\u67fb\u305d\u306e3\u696d\u52d9","client_name":"\u56fd\u571f\u4ea4\u901a\u7701\u4e2d\u56fd\u5730\u65b9\u6574\u5099\u5c40\u6590\u4f0a\u5ddd\u30fb\u795e\u6238\u5ddd\u7dcf\u5408\u958b\u767a\u5de5\u4e8b\u4e8b\u52d9\u6240","boring_xml_url":40,"boring_view_url":1,"soilmap_view_url":null,"soiltest_xml_url":0,"soiltest_view_url":0},{"id":191643,"code":"B4KJ201801007-9892","latitude":"35.1800658","longitude":"132.6846372","source_code":"CG52326514047","project_name":"","survey_name":"\u6a4b\u6ce2\u5730\u533a\u5730\u8cea\u8abf\u67fb\u305d\u306e3\u696d\u52d9","client_name":"\u56fd\u571f\u4ea4\u901a\u7701\u4e2d\u56fd\u5730\u65b9\u6574\u5099\u5c40\u6590\u4f0a\u5ddd\u30fb\u795e\u6238\u5ddd\u7dcf\u5408\u958b\u767a\u5de5\u4e8b\u4e8b\u52d9\u6240","boring_xml_url":40,"boring_view_url":1,"soilmap_view_url":null,"soiltest_xml_url":0,"soiltest_view_url":0},{"id":191642,"code":"B4KJ201801007-9891","latitude":"35.1803436","longitude":"132.6846372","source_code":"CG52326514046","project_name":"","survey_name":"\u6a4b\u6ce2\u5730\u533a\u5730\u8cea\u8abf\u67fb\u305d\u306e3\u696d\u52d9","client_name":"\u56fd\u571f\u4ea4\u901a\u7701\u4e2d\u56fd\u5730\u65b9\u6574\u5099\u5c40\u6590\u4f0a\u5ddd\u30fb\u795e\u6238\u5ddd\u7dcf\u5408\u958b\u767a\u5de5\u4e8b\u4e8b\u52d9\u6240","boring_xml_url":40,"boring_view_url":1,"soilmap_view_url":null,"soiltest_xml_url":0,"soiltest_view_url":0},{"id":191641,"code":"B4KJ201801007-9890","latitude":"35.1785661","longitude":"132.6828597","source_code":"CG52326514045","project_name":"","survey_name":"\u6a4b\u6ce2\u5730\u533a\u4ed6\u5730\u8cea\u8abf\u67fb\u305d\u306e2\u696d\u52d9","client_name":"\u56fd\u571f\u4ea4\u901a\u7701\u4e2d\u56fd\u5730\u65b9\u6574\u5099\u5c40\u6590\u4f0a\u5ddd\u30fb\u795e\u6238\u5ddd\u7dcf\u5408\u958b\u767a\u5de5\u4e8b\u4e8b\u52d9\u6240","boring_xml_url":40,"boring_view_url":1,"soilmap_view_url":null,"soiltest_xml_url":0,"soiltest_view_url":0},{"id":191640,"code":"B4KJ201801007-9889","latitude":"35.1785939","longitude":"132.6821375","source_code":"CG52326514044","project_name":"","survey_name":"\u6a4b\u6ce2\u5730\u533a\u4ed6\u5730\u8cea\u8abf\u67fb\u305d\u306e2\u696d\u52d9","client_name":"\u56fd\u571f\u4ea4\u901a\u7701\u4e2d\u56fd\u5730\u65b9\u6574\u5099\u5c40\u6590\u4f0a\u5ddd\u30fb\u795e\u6238\u5ddd\u7dcf\u5408\u958b\u767a\u5de5\u4e8b\u4e8b\u52d9\u6240","boring_xml_url":40,"boring_view_url":1,"soilmap_view_url":null,"soiltest_xml_url":0,"soiltest_view_url":0},{"id":191639,"code":"B4KJ201801007-9888","latitude":"35.1783717","longitude":"132.6821931","source_code":"CG52326514043","project_name":"","survey_name":"\u6a4b\u6ce2\u5730\u533a\u4ed6\u5730\u8cea\u8abf\u67fb\u305d\u306e2\u696d\u52d9","client_name":"\u56fd\u571f\u4ea4\u901a\u7701\u4e2d\u56fd\u5730\u65b9\u6574\u5099\u5c40\u6590\u4f0a\u5ddd\u30fb\u795e\u6238\u5ddd\u7dcf\u5408\u958b\u767a\u5de5\u4e8b\u4e8b\u52d9\u6240","boring_xml_url":40,"boring_view_url":1,"soilmap_view_url":null,"soiltest_xml_url":0,"soiltest_view_url":0},{"id":191638,"code":"B4KJ201801007-9887","latitude":"35.1784272","longitude":"132.6824986","source_code":"CG52326514042","project_name":"","survey_name":"\u6a4b\u6ce2\u5730\u533a\u4ed6\u5730\u8cea\u8abf\u67fb\u305d\u306e2\u696d\u52d9","client_name":"\u56fd\u571f\u4ea4\u901a\u7701\u4e2d\u56fd\u5730\u65b9\u6574\u5099\u5c40\u6590\u4f0a\u5ddd\u30fb\u795e\u6238\u5ddd\u7dcf\u5408\u958b\u767a\u5de5\u4e8b\u4e8b\u52d9\u6240","boring_xml_url":40,"boring_view_url":1,"soilmap_view_url":null,"soiltest_xml_url":0,"soiltest_view_url":0},{"id":191637,"code":"B4KJ201801007-9886","latitude":"35.178455","longitude":"132.6828875","source_code":"CG52326514041","project_name":"","survey_name":"\u6a4b\u6ce2\u5730\u533a\u4ed6\u5730\u8cea\u8abf\u67fb\u305d\u306e2\u696d\u52d9","client_name":"\u56fd\u571f\u4ea4\u901a\u7701\u4e2d\u56fd\u5730\u65b9\u6574\u5099\u5c40\u6590\u4f0a\u5ddd\u30fb\u795e\u6238\u5ddd\u7dcf\u5408\u958b\u767a\u5de5\u4e8b\u4e8b\u52d9\u6240","boring_xml_url":40,"boring_view_url":1,"soilmap_view_url":null,"soiltest_xml_url":0,"soiltest_view_url":0},{"id":191636,"code":"B4KJ201801007-9885","latitude":"35.1822878","longitude":"132.6786656","source_code":"CG52326514039","project_name":"","survey_name":"\u6a4b\u6ce2\u5730\u533a\u4ed6\u5730\u8cea\u8abf\u67fb\u305d\u306e2\u696d\u52d9","client_name":"\u56fd\u571f\u4ea4\u901a\u7701\u4e2d\u56fd\u5730\u65b9\u6574\u5099\u5c40\u6590\u4f0a\u5ddd\u30fb\u795e\u6238\u5ddd\u7dcf\u5408\u958b\u767a\u5de5\u4e8b\u4e8b\u52d9\u6240","boring_xml_url":40,"boring_view_url":1,"soilmap_view_url":null,"soiltest_xml_url":0,"soiltest_view_url":0}]}}