{"header":{"xyz":{"source":[],"mosaic":false},"page":4299,"raw":{"soiltest_result":"0","bbox":"57.598333,109.544722,1.933333,163.806111","page":"4299"},"conditions":{"soiltest_result":0,"north":57.598333,"west":109.544722,"south":1.933333,"east":163.806111},"success":true,"message":""},"data":{"meta":{"total":212844,"page":4299,"pages":7095,"count":30},"values":[{"id":191605,"code":"B4KJ201801007-9854","latitude":"35.1821211","longitude":"132.6840261","source_code":"CG52326514003","project_name":"","survey_name":"\u770c\u9053\u6a4b\u6ce2\u5730\u533a\u4ed6\u5730\u8cea\u8abf\u67fb\u696d\u52d9","client_name":"\u56fd\u571f\u4ea4\u901a\u7701\u4e2d\u56fd\u5730\u65b9\u6574\u5099\u5c40\u6590\u4f0a\u5ddd\u30fb\u795e\u6238\u5ddd\u7dcf\u5408\u958b\u767a\u5de5\u4e8b\u4e8b\u52d9\u6240","boring_xml_url":40,"boring_view_url":1,"soilmap_view_url":null,"soiltest_xml_url":0,"soiltest_view_url":0},{"id":191604,"code":"B4KJ201801007-9853","latitude":"35.1834267","longitude":"132.6827483","source_code":"CG52326514002","project_name":"","survey_name":"\u770c\u9053\u6a4b\u6ce2\u5730\u533a\u4ed6\u5730\u8cea\u8abf\u67fb\u696d\u52d9","client_name":"\u56fd\u571f\u4ea4\u901a\u7701\u4e2d\u56fd\u5730\u65b9\u6574\u5099\u5c40\u6590\u4f0a\u5ddd\u30fb\u795e\u6238\u5ddd\u7dcf\u5408\u958b\u767a\u5de5\u4e8b\u4e8b\u52d9\u6240","boring_xml_url":40,"boring_view_url":1,"soilmap_view_url":null,"soiltest_xml_url":0,"soiltest_view_url":0},{"id":191603,"code":"B4KJ201801007-9852","latitude":"35.18351","longitude":"132.6829428","source_code":"CG52326514001","project_name":"","survey_name":"\u770c\u9053\u6a4b\u6ce2\u5730\u533a\u4ed6\u5730\u8cea\u8abf\u67fb\u696d\u52d9","client_name":"\u56fd\u571f\u4ea4\u901a\u7701\u4e2d\u56fd\u5730\u65b9\u6574\u5099\u5c40\u6590\u4f0a\u5ddd\u30fb\u795e\u6238\u5ddd\u7dcf\u5408\u958b\u767a\u5de5\u4e8b\u4e8b\u52d9\u6240","boring_xml_url":40,"boring_view_url":1,"soilmap_view_url":null,"soiltest_xml_url":0,"soiltest_view_url":0},{"id":191602,"code":"B4KJ201801007-9851","latitude":"35.1704836","longitude":"132.6801656","source_code":"CG52326504085","project_name":"","survey_name":"\u5fd7\u6d25\u898b\u30c0\u30e0\u5730\u8cea\u8abf\u67fb\u696d\u52d9","client_name":"\u56fd\u571f\u4ea4\u901a\u7701\u4e2d\u56fd\u5730\u65b9\u6574\u5099\u5c40\u6590\u4f0a\u5ddd\u30fb\u795e\u6238\u5ddd\u7dcf\u5408\u958b\u767a\u5de5\u4e8b\u4e8b\u52d9\u6240","boring_xml_url":40,"boring_view_url":1,"soilmap_view_url":null,"soiltest_xml_url":0,"soiltest_view_url":0},{"id":191601,"code":"B4KJ201801007-9850","latitude":"35.1759831","longitude":"132.6817486","source_code":"CG52326504084","project_name":"","survey_name":"\u5fd7\u6d25\u898b\u30c0\u30e0\u5730\u8cea\u8abf\u67fb\u696d\u52d9","client_name":"\u56fd\u571f\u4ea4\u901a\u7701\u4e2d\u56fd\u5730\u65b9\u6574\u5099\u5c40\u6590\u4f0a\u5ddd\u30fb\u795e\u6238\u5ddd\u7dcf\u5408\u958b\u767a\u5de5\u4e8b\u4e8b\u52d9\u6240","boring_xml_url":40,"boring_view_url":1,"soilmap_view_url":null,"soiltest_xml_url":0,"soiltest_view_url":0},{"id":191600,"code":"B4KJ201801007-9849","latitude":"35.1751775","longitude":"132.6814431","source_code":"CG52326504083","project_name":"","survey_name":"\u5fd7\u6d25\u898b\u30c0\u30e0\u5730\u8cea\u8abf\u67fb\u696d\u52d9","client_name":"\u56fd\u571f\u4ea4\u901a\u7701\u4e2d\u56fd\u5730\u65b9\u6574\u5099\u5c40\u6590\u4f0a\u5ddd\u30fb\u795e\u6238\u5ddd\u7dcf\u5408\u958b\u767a\u5de5\u4e8b\u4e8b\u52d9\u6240","boring_xml_url":40,"boring_view_url":1,"soilmap_view_url":null,"soiltest_xml_url":0,"soiltest_view_url":0},{"id":191599,"code":"B4KJ201801007-9848","latitude":"35.1745386","longitude":"132.68061","source_code":"CG52326504082","project_name":"","survey_name":"\u5fd7\u6d25\u898b\u30c0\u30e0\u5730\u8cea\u8abf\u67fb\u696d\u52d9","client_name":"\u56fd\u571f\u4ea4\u901a\u7701\u4e2d\u56fd\u5730\u65b9\u6574\u5099\u5c40\u6590\u4f0a\u5ddd\u30fb\u795e\u6238\u5ddd\u7dcf\u5408\u958b\u767a\u5de5\u4e8b\u4e8b\u52d9\u6240","boring_xml_url":40,"boring_view_url":1,"soilmap_view_url":null,"soiltest_xml_url":0,"soiltest_view_url":0},{"id":191598,"code":"B4KJ201801007-9847","latitude":"35.1742053","longitude":"132.6796933","source_code":"CG52326504081","project_name":"","survey_name":"\u5fd7\u6d25\u898b\u30c0\u30e0\u5730\u8cea\u8abf\u67fb\u696d\u52d9","client_name":"\u56fd\u571f\u4ea4\u901a\u7701\u4e2d\u56fd\u5730\u65b9\u6574\u5099\u5c40\u6590\u4f0a\u5ddd\u30fb\u795e\u6238\u5ddd\u7dcf\u5408\u958b\u767a\u5de5\u4e8b\u4e8b\u52d9\u6240","boring_xml_url":40,"boring_view_url":1,"soilmap_view_url":null,"soiltest_xml_url":0,"soiltest_view_url":0},{"id":191597,"code":"B4KJ201801007-9846","latitude":"35.1747053","longitude":"132.6800822","source_code":"CG52326504080","project_name":"","survey_name":"\u5fd7\u6d25\u898b\u30c0\u30e0\u5730\u8cea\u8abf\u67fb\u696d\u52d9","client_name":"\u56fd\u571f\u4ea4\u901a\u7701\u4e2d\u56fd\u5730\u65b9\u6574\u5099\u5c40\u6590\u4f0a\u5ddd\u30fb\u795e\u6238\u5ddd\u7dcf\u5408\u958b\u767a\u5de5\u4e8b\u4e8b\u52d9\u6240","boring_xml_url":40,"boring_view_url":1,"soilmap_view_url":null,"soiltest_xml_url":0,"soiltest_view_url":0},{"id":191596,"code":"B4KJ201801007-9845","latitude":"35.1747608","longitude":"132.6797767","source_code":"CG52326504079","project_name":"","survey_name":"\u5fd7\u6d25\u898b\u30c0\u30e0\u5730\u8cea\u8abf\u67fb\u696d\u52d9","client_name":"\u56fd\u571f\u4ea4\u901a\u7701\u4e2d\u56fd\u5730\u65b9\u6574\u5099\u5c40\u6590\u4f0a\u5ddd\u30fb\u795e\u6238\u5ddd\u7dcf\u5408\u958b\u767a\u5de5\u4e8b\u4e8b\u52d9\u6240","boring_xml_url":40,"boring_view_url":1,"soilmap_view_url":null,"soiltest_xml_url":0,"soiltest_view_url":0},{"id":191595,"code":"B4KJ201801007-9844","latitude":"35.1699003","longitude":"132.6763883","source_code":"CG52326504078","project_name":"","survey_name":"\u5fd7\u6d25\u898b\u30c0\u30e0\u5730\u8cea\u8abf\u67fb\u696d\u52d9","client_name":"\u56fd\u571f\u4ea4\u901a\u7701\u4e2d\u56fd\u5730\u65b9\u6574\u5099\u5c40\u6590\u4f0a\u5ddd\u30fb\u795e\u6238\u5ddd\u7dcf\u5408\u958b\u767a\u5de5\u4e8b\u4e8b\u52d9\u6240","boring_xml_url":40,"boring_view_url":1,"soilmap_view_url":null,"soiltest_xml_url":0,"soiltest_view_url":0},{"id":191594,"code":"B4KJ201801007-9843","latitude":"35.1699836","longitude":"132.676805","source_code":"CG52326504077","project_name":"","survey_name":"\u5fd7\u6d25\u898b\u30c0\u30e0\u5730\u8cea\u8abf\u67fb\u696d\u52d9","client_name":"\u56fd\u571f\u4ea4\u901a\u7701\u4e2d\u56fd\u5730\u65b9\u6574\u5099\u5c40\u6590\u4f0a\u5ddd\u30fb\u795e\u6238\u5ddd\u7dcf\u5408\u958b\u767a\u5de5\u4e8b\u4e8b\u52d9\u6240","boring_xml_url":40,"boring_view_url":1,"soilmap_view_url":null,"soiltest_xml_url":0,"soiltest_view_url":0},{"id":191593,"code":"B4KJ201801007-9842","latitude":"35.1698169","longitude":"132.6765828","source_code":"CG52326504076","project_name":"","survey_name":"\u5fd7\u6d25\u898b\u30c0\u30e0\u5730\u8cea\u8abf\u67fb\u696d\u52d9","client_name":"\u56fd\u571f\u4ea4\u901a\u7701\u4e2d\u56fd\u5730\u65b9\u6574\u5099\u5c40\u6590\u4f0a\u5ddd\u30fb\u795e\u6238\u5ddd\u7dcf\u5408\u958b\u767a\u5de5\u4e8b\u4e8b\u52d9\u6240","boring_xml_url":40,"boring_view_url":1,"soilmap_view_url":null,"soiltest_xml_url":0,"soiltest_view_url":0},{"id":191592,"code":"B4KJ201801007-9841","latitude":"35.1709281","longitude":"132.6775269","source_code":"CG52326504075","project_name":"","survey_name":"\u5fd7\u6d25\u898b\u30c0\u30e0\u5730\u8cea\u8abf\u67fb\u696d\u52d9","client_name":"\u56fd\u571f\u4ea4\u901a\u7701\u4e2d\u56fd\u5730\u65b9\u6574\u5099\u5c40\u6590\u4f0a\u5ddd\u30fb\u795e\u6238\u5ddd\u7dcf\u5408\u958b\u767a\u5de5\u4e8b\u4e8b\u52d9\u6240","boring_xml_url":40,"boring_view_url":1,"soilmap_view_url":null,"soiltest_xml_url":0,"soiltest_view_url":0},{"id":191591,"code":"B4KJ201801007-9840","latitude":"35.1704558","longitude":"132.6773047","source_code":"CG52326504074","project_name":"","survey_name":"\u5fd7\u6d25\u898b\u30c0\u30e0\u5730\u8cea\u8abf\u67fb\u696d\u52d9","client_name":"\u56fd\u571f\u4ea4\u901a\u7701\u4e2d\u56fd\u5730\u65b9\u6574\u5099\u5c40\u6590\u4f0a\u5ddd\u30fb\u795e\u6238\u5ddd\u7dcf\u5408\u958b\u767a\u5de5\u4e8b\u4e8b\u52d9\u6240","boring_xml_url":40,"boring_view_url":1,"soilmap_view_url":null,"soiltest_xml_url":0,"soiltest_view_url":0},{"id":191590,"code":"B4KJ201801007-9839","latitude":"35.1722611","longitude":"132.6790825","source_code":"CG52326504049","project_name":"","survey_name":"\u5fd7\u6d25\u898b\u30c0\u30e0\u7b2c8\u4e0a\u6a4b\u6ce2\u6a4b\u5730\u8cea\u8abf\u67fb\u696d\u52d9","client_name":"\u56fd\u571f\u4ea4\u901a\u7701\u4e2d\u56fd\u5730\u65b9\u6574\u5099\u5c40\u6d5c\u7530\u6cb3\u5ddd\u56fd\u9053\u4e8b\u52d9\u6240","boring_xml_url":40,"boring_view_url":1,"soilmap_view_url":null,"soiltest_xml_url":0,"soiltest_view_url":0},{"id":191589,"code":"B4KJ201801007-9838","latitude":"35.1722611","longitude":"132.6785547","source_code":"CG52326504047","project_name":"","survey_name":"\u5fd7\u6d25\u898b\u30c0\u30e0\u7b2c8\u4e0a\u6a4b\u6ce2\u6a4b\u5730\u8cea\u8abf\u67fb\u696d\u52d9","client_name":"\u56fd\u571f\u4ea4\u901a\u7701\u4e2d\u56fd\u5730\u65b9\u6574\u5099\u5c40\u6d5c\u7530\u6cb3\u5ddd\u56fd\u9053\u4e8b\u52d9\u6240","boring_xml_url":40,"boring_view_url":1,"soilmap_view_url":null,"soiltest_xml_url":0,"soiltest_view_url":0},{"id":191588,"code":"B4KJ201801007-9837","latitude":"35.1713722","longitude":"132.6779436","source_code":"CG52326504046","project_name":"","survey_name":"\u5fd7\u6d25\u898b\u30c0\u30e0\u7b2c8\u4e0a\u6a4b\u6ce2\u6a4b\u5730\u8cea\u8abf\u67fb\u696d\u52d9","client_name":"\u56fd\u571f\u4ea4\u901a\u7701\u4e2d\u56fd\u5730\u65b9\u6574\u5099\u5c40\u6d5c\u7530\u6cb3\u5ddd\u56fd\u9053\u4e8b\u52d9\u6240","boring_xml_url":40,"boring_view_url":1,"soilmap_view_url":null,"soiltest_xml_url":0,"soiltest_view_url":0},{"id":191587,"code":"B4KJ201801007-9836","latitude":"35.1713722","longitude":"132.6781103","source_code":"CG52326504045","project_name":"","survey_name":"\u5fd7\u6d25\u898b\u30c0\u30e0\u7b2c8\u4e0a\u6a4b\u6ce2\u6a4b\u5730\u8cea\u8abf\u67fb\u696d\u52d9","client_name":"\u56fd\u571f\u4ea4\u901a\u7701\u4e2d\u56fd\u5730\u65b9\u6574\u5099\u5c40\u6d5c\u7530\u6cb3\u5ddd\u56fd\u9053\u4e8b\u52d9\u6240","boring_xml_url":40,"boring_view_url":1,"soilmap_view_url":null,"soiltest_xml_url":0,"soiltest_view_url":0},{"id":191586,"code":"B4KJ201801007-9835","latitude":"35.1734","longitude":"132.6784436","source_code":"CG52326504044","project_name":"","survey_name":"\u5fd7\u6d25\u898b\u30c0\u30e0\u7b2c8\u4e0a\u6a4b\u6ce2\u6a4b\u5730\u8cea\u8abf\u67fb\u696d\u52d9","client_name":"\u56fd\u571f\u4ea4\u901a\u7701\u4e2d\u56fd\u5730\u65b9\u6574\u5099\u5c40\u6d5c\u7530\u6cb3\u5ddd\u56fd\u9053\u4e8b\u52d9\u6240","boring_xml_url":40,"boring_view_url":1,"soilmap_view_url":null,"soiltest_xml_url":0,"soiltest_view_url":0},{"id":191585,"code":"B4KJ201801007-9834","latitude":"35.1734833","longitude":"132.6783325","source_code":"CG52326504043","project_name":"","survey_name":"\u5fd7\u6d25\u898b\u30c0\u30e0\u7b2c8\u4e0a\u6a4b\u6ce2\u6a4b\u5730\u8cea\u8abf\u67fb\u696d\u52d9","client_name":"\u56fd\u571f\u4ea4\u901a\u7701\u4e2d\u56fd\u5730\u65b9\u6574\u5099\u5c40\u6d5c\u7530\u6cb3\u5ddd\u56fd\u9053\u4e8b\u52d9\u6240","boring_xml_url":40,"boring_view_url":1,"soilmap_view_url":null,"soiltest_xml_url":0,"soiltest_view_url":0},{"id":191584,"code":"B4KJ201801007-9833","latitude":"35.1707336","longitude":"132.6777769","source_code":"CG52326504042","project_name":"","survey_name":"\u5fd7\u6d25\u898b\u30c0\u30e0\u8a66\u9310(\u305d\u306e2)\u696d\u52d9","client_name":"\u56fd\u571f\u4ea4\u901a\u7701\u4e2d\u56fd\u5730\u65b9\u6574\u5099\u5c40\u6590\u4f0a\u5ddd\u30fb\u795e\u6238\u5ddd\u7dcf\u5408\u958b\u767a\u5de5\u4e8b\u4e8b\u52d9\u6240","boring_xml_url":40,"boring_view_url":1,"soilmap_view_url":null,"soiltest_xml_url":0,"soiltest_view_url":0},{"id":191583,"code":"B4KJ201801007-9832","latitude":"35.1707892","longitude":"132.6774714","source_code":"CG52326504041","project_name":"","survey_name":"\u5fd7\u6d25\u898b\u30c0\u30e0\u8a66\u9310(\u305d\u306e2)\u696d\u52d9","client_name":"\u56fd\u571f\u4ea4\u901a\u7701\u4e2d\u56fd\u5730\u65b9\u6574\u5099\u5c40\u6590\u4f0a\u5ddd\u30fb\u795e\u6238\u5ddd\u7dcf\u5408\u958b\u767a\u5de5\u4e8b\u4e8b\u52d9\u6240","boring_xml_url":40,"boring_view_url":1,"soilmap_view_url":null,"soiltest_xml_url":0,"soiltest_view_url":0},{"id":191582,"code":"B4KJ201801007-9831","latitude":"35.1758997","longitude":"132.6804711","source_code":"CG52326504040","project_name":"","survey_name":"\u6a4b\u6ce2\u5730\u533a\u5730\u8cea\u8abf\u67fb\u305d\u306e3\u696d\u52d9","client_name":"\u56fd\u571f\u4ea4\u901a\u7701\u4e2d\u56fd\u5730\u65b9\u6574\u5099\u5c40\u6590\u4f0a\u5ddd\u30fb\u795e\u6238\u5ddd\u7dcf\u5408\u958b\u767a\u5de5\u4e8b\u4e8b\u52d9\u6240","boring_xml_url":40,"boring_view_url":1,"soilmap_view_url":null,"soiltest_xml_url":0,"soiltest_view_url":0},{"id":191581,"code":"B4KJ201801007-9830","latitude":"35.1758997","longitude":"132.6807489","source_code":"CG52326504039","project_name":"","survey_name":"\u6a4b\u6ce2\u5730\u533a\u5730\u8cea\u8abf\u67fb\u305d\u306e3\u696d\u52d9","client_name":"\u56fd\u571f\u4ea4\u901a\u7701\u4e2d\u56fd\u5730\u65b9\u6574\u5099\u5c40\u6590\u4f0a\u5ddd\u30fb\u795e\u6238\u5ddd\u7dcf\u5408\u958b\u767a\u5de5\u4e8b\u4e8b\u52d9\u6240","boring_xml_url":40,"boring_view_url":1,"soilmap_view_url":null,"soiltest_xml_url":0,"soiltest_view_url":0},{"id":191580,"code":"B4KJ201801007-9829","latitude":"35.1767328","longitude":"132.6810264","source_code":"CG52326504038","project_name":"","survey_name":"\u6a4b\u6ce2\u5730\u533a\u5730\u8cea\u8abf\u67fb\u305d\u306e3\u696d\u52d9","client_name":"\u56fd\u571f\u4ea4\u901a\u7701\u4e2d\u56fd\u5730\u65b9\u6574\u5099\u5c40\u6590\u4f0a\u5ddd\u30fb\u795e\u6238\u5ddd\u7dcf\u5408\u958b\u767a\u5de5\u4e8b\u4e8b\u52d9\u6240","boring_xml_url":40,"boring_view_url":1,"soilmap_view_url":null,"soiltest_xml_url":0,"soiltest_view_url":0},{"id":191579,"code":"B4KJ201801007-9828","latitude":"35.1767328","longitude":"132.6807486","source_code":"CG52326504037","project_name":"","survey_name":"\u6a4b\u6ce2\u5730\u533a\u5730\u8cea\u8abf\u67fb\u305d\u306e3\u696d\u52d9","client_name":"\u56fd\u571f\u4ea4\u901a\u7701\u4e2d\u56fd\u5730\u65b9\u6574\u5099\u5c40\u6590\u4f0a\u5ddd\u30fb\u795e\u6238\u5ddd\u7dcf\u5408\u958b\u767a\u5de5\u4e8b\u4e8b\u52d9\u6240","boring_xml_url":40,"boring_view_url":1,"soilmap_view_url":null,"soiltest_xml_url":0,"soiltest_view_url":0},{"id":191578,"code":"B4KJ201801007-9827","latitude":"35.1770106","longitude":"132.6807486","source_code":"CG52326504036","project_name":"","survey_name":"\u6a4b\u6ce2\u5730\u533a\u5730\u8cea\u8abf\u67fb\u305d\u306e3\u696d\u52d9","client_name":"\u56fd\u571f\u4ea4\u901a\u7701\u4e2d\u56fd\u5730\u65b9\u6574\u5099\u5c40\u6590\u4f0a\u5ddd\u30fb\u795e\u6238\u5ddd\u7dcf\u5408\u958b\u767a\u5de5\u4e8b\u4e8b\u52d9\u6240","boring_xml_url":40,"boring_view_url":1,"soilmap_view_url":null,"soiltest_xml_url":0,"soiltest_view_url":0},{"id":191577,"code":"B4KJ201801007-9826","latitude":"35.1770106","longitude":"132.6810264","source_code":"CG52326504035","project_name":"","survey_name":"\u6a4b\u6ce2\u5730\u533a\u5730\u8cea\u8abf\u67fb\u305d\u306e3\u696d\u52d9","client_name":"\u56fd\u571f\u4ea4\u901a\u7701\u4e2d\u56fd\u5730\u65b9\u6574\u5099\u5c40\u6590\u4f0a\u5ddd\u30fb\u795e\u6238\u5ddd\u7dcf\u5408\u958b\u767a\u5de5\u4e8b\u4e8b\u52d9\u6240","boring_xml_url":40,"boring_view_url":1,"soilmap_view_url":null,"soiltest_xml_url":0,"soiltest_view_url":0},{"id":191576,"code":"B4KJ201801007-9825","latitude":"35.1778439","longitude":"132.6813042","source_code":"CG52326504034","project_name":"","survey_name":"\u6a4b\u6ce2\u5730\u533a\u5730\u8cea\u8abf\u67fb\u305d\u306e3\u696d\u52d9","client_name":"\u56fd\u571f\u4ea4\u901a\u7701\u4e2d\u56fd\u5730\u65b9\u6574\u5099\u5c40\u6590\u4f0a\u5ddd\u30fb\u795e\u6238\u5ddd\u7dcf\u5408\u958b\u767a\u5de5\u4e8b\u4e8b\u52d9\u6240","boring_xml_url":40,"boring_view_url":1,"soilmap_view_url":null,"soiltest_xml_url":0,"soiltest_view_url":0}]}}