{"header":{"xyz":{"source":[],"mosaic":false},"page":4306,"raw":{"soiltest_result":"0","bbox":"57.598333,109.544722,1.933333,163.806111","page":"4306"},"conditions":{"soiltest_result":0,"north":57.598333,"west":109.544722,"south":1.933333,"east":163.806111},"success":true,"message":""},"data":{"meta":{"total":212844,"page":4306,"pages":7095,"count":30},"values":[{"id":191395,"code":"B4KJ201801007-9644","latitude":"35.1471253","longitude":"132.6855547","source_code":"CG52325575010","project_name":"","survey_name":"\u6210\u5ddd\u5730\u533a\u5730\u8cea\u8abf\u67fb\u696d\u52d9","client_name":"\u56fd\u571f\u4ea4\u901a\u7701\u4e2d\u56fd\u5730\u65b9\u6574\u5099\u5c40\u6590\u4f0a\u5ddd\u30fb\u795e\u6238\u5ddd\u7dcf\u5408\u958b\u767a\u5de5\u4e8b\u4e8b\u52d9\u6240","boring_xml_url":40,"boring_view_url":1,"soilmap_view_url":null,"soiltest_xml_url":0,"soiltest_view_url":0},{"id":191394,"code":"B4KJ201801007-9643","latitude":"35.1473753","longitude":"132.6852492","source_code":"CG52325575009","project_name":"","survey_name":"\u6210\u5ddd\u5730\u533a\u5730\u8cea\u8abf\u67fb\u696d\u52d9","client_name":"\u56fd\u571f\u4ea4\u901a\u7701\u4e2d\u56fd\u5730\u65b9\u6574\u5099\u5c40\u6590\u4f0a\u5ddd\u30fb\u795e\u6238\u5ddd\u7dcf\u5408\u958b\u767a\u5de5\u4e8b\u4e8b\u52d9\u6240","boring_xml_url":40,"boring_view_url":1,"soilmap_view_url":null,"soiltest_xml_url":0,"soiltest_view_url":0},{"id":191393,"code":"B4KJ201801007-9642","latitude":"35.1472642","longitude":"132.6854992","source_code":"CG52325575008","project_name":"","survey_name":"\u6210\u5ddd\u5730\u533a\u5730\u8cea\u8abf\u67fb\u696d\u52d9","client_name":"\u56fd\u571f\u4ea4\u901a\u7701\u4e2d\u56fd\u5730\u65b9\u6574\u5099\u5c40\u6590\u4f0a\u5ddd\u30fb\u795e\u6238\u5ddd\u7dcf\u5408\u958b\u767a\u5de5\u4e8b\u4e8b\u52d9\u6240","boring_xml_url":40,"boring_view_url":1,"soilmap_view_url":null,"soiltest_xml_url":0,"soiltest_view_url":0},{"id":191392,"code":"B4KJ201801007-9641","latitude":"35.1484864","longitude":"132.6854714","source_code":"CG52325575007","project_name":"","survey_name":"\u770c\u9053\u6210\u5ddd\u5730\u533a\u5730\u8cea\u8abf\u67fb\u696d\u52d9","client_name":"\u56fd\u571f\u4ea4\u901a\u7701\u4e2d\u56fd\u5730\u65b9\u6574\u5099\u5c40\u6590\u4f0a\u5ddd\u30fb\u795e\u6238\u5ddd\u7dcf\u5408\u958b\u767a\u5de5\u4e8b\u4e8b\u52d9\u6240","boring_xml_url":40,"boring_view_url":1,"soilmap_view_url":null,"soiltest_xml_url":0,"soiltest_view_url":0},{"id":191391,"code":"B4KJ201801007-9640","latitude":"35.1484864","longitude":"132.6860269","source_code":"CG52325575006","project_name":"","survey_name":"\u770c\u9053\u6210\u5ddd\u5730\u533a\u5730\u8cea\u8abf\u67fb\u696d\u52d9","client_name":"\u56fd\u571f\u4ea4\u901a\u7701\u4e2d\u56fd\u5730\u65b9\u6574\u5099\u5c40\u6590\u4f0a\u5ddd\u30fb\u795e\u6238\u5ddd\u7dcf\u5408\u958b\u767a\u5de5\u4e8b\u4e8b\u52d9\u6240","boring_xml_url":40,"boring_view_url":1,"soilmap_view_url":null,"soiltest_xml_url":0,"soiltest_view_url":0},{"id":191390,"code":"B4KJ201801007-9639","latitude":"35.1489586","longitude":"132.6911653","source_code":"CG52325575004","project_name":"","survey_name":"\u770c\u9053\u6210\u5ddd\u5730\u533a\u5730\u8cea\u8abf\u67fb\u696d\u52d9","client_name":"\u56fd\u571f\u4ea4\u901a\u7701\u4e2d\u56fd\u5730\u65b9\u6574\u5099\u5c40\u6590\u4f0a\u5ddd\u30fb\u795e\u6238\u5ddd\u7dcf\u5408\u958b\u767a\u5de5\u4e8b\u4e8b\u52d9\u6240","boring_xml_url":40,"boring_view_url":1,"soilmap_view_url":null,"soiltest_xml_url":0,"soiltest_view_url":0},{"id":191389,"code":"B4KJ201801007-9638","latitude":"35.150375","longitude":"132.6855269","source_code":"CG52325575002","project_name":"","survey_name":"\u770c\u9053\u6210\u5ddd\u5730\u533a\u5730\u8cea\u8abf\u67fb\u696d\u52d9","client_name":"\u56fd\u571f\u4ea4\u901a\u7701\u4e2d\u56fd\u5730\u65b9\u6574\u5099\u5c40\u6590\u4f0a\u5ddd\u30fb\u795e\u6238\u5ddd\u7dcf\u5408\u958b\u767a\u5de5\u4e8b\u4e8b\u52d9\u6240","boring_xml_url":40,"boring_view_url":1,"soilmap_view_url":null,"soiltest_xml_url":0,"soiltest_view_url":0},{"id":191388,"code":"B4KJ201801007-9637","latitude":"35.1508472","longitude":"132.6851936","source_code":"CG52325575001","project_name":"","survey_name":"\u770c\u9053\u6210\u5ddd\u5730\u533a\u5730\u8cea\u8abf\u67fb\u696d\u52d9","client_name":"\u56fd\u571f\u4ea4\u901a\u7701\u4e2d\u56fd\u5730\u65b9\u6574\u5099\u5c40\u6590\u4f0a\u5ddd\u30fb\u795e\u6238\u5ddd\u7dcf\u5408\u958b\u767a\u5de5\u4e8b\u4e8b\u52d9\u6240","boring_xml_url":40,"boring_view_url":1,"soilmap_view_url":null,"soiltest_xml_url":0,"soiltest_view_url":0},{"id":191387,"code":"B4KJ201801007-9636","latitude":"35.1455978","longitude":"132.6841661","source_code":"CG52325574006","project_name":"","survey_name":"\u7b2c2\u5fd7\u6d25\u898b\u30c8\u30f3\u30cd\u30eb\u5730\u8cea\u8abf\u67fb\u696d\u52d9","client_name":"\u56fd\u571f\u4ea4\u901a\u7701\u4e2d\u56fd\u5730\u65b9\u6574\u5099\u5c40\u6590\u4f0a\u5ddd\u30fb\u795e\u6238\u5ddd\u7dcf\u5408\u958b\u767a\u5de5\u4e8b\u4e8b\u52d9\u6240","boring_xml_url":40,"boring_view_url":1,"soilmap_view_url":null,"soiltest_xml_url":0,"soiltest_view_url":0},{"id":191386,"code":"B4KJ201801007-9635","latitude":"35.1460142","longitude":"132.6838606","source_code":"CG52325574005","project_name":"","survey_name":"\u7b2c2\u5fd7\u6d25\u898b\u30c8\u30f3\u30cd\u30eb\u5730\u8cea\u8abf\u67fb\u696d\u52d9","client_name":"\u56fd\u571f\u4ea4\u901a\u7701\u4e2d\u56fd\u5730\u65b9\u6574\u5099\u5c40\u6590\u4f0a\u5ddd\u30fb\u795e\u6238\u5ddd\u7dcf\u5408\u958b\u767a\u5de5\u4e8b\u4e8b\u52d9\u6240","boring_xml_url":40,"boring_view_url":1,"soilmap_view_url":null,"soiltest_xml_url":0,"soiltest_view_url":0},{"id":191385,"code":"B4KJ201801007-9634","latitude":"35.14482","longitude":"132.6844439","source_code":"CG52325574004","project_name":"","survey_name":"\u6210\u5ddd\u5730\u533a\u5730\u8cea\u8abf\u67fb\u696d\u52d9","client_name":"\u56fd\u571f\u4ea4\u901a\u7701\u4e2d\u56fd\u5730\u65b9\u6574\u5099\u5c40\u6590\u4f0a\u5ddd\u30fb\u795e\u6238\u5ddd\u7dcf\u5408\u958b\u767a\u5de5\u4e8b\u4e8b\u52d9\u6240","boring_xml_url":40,"boring_view_url":1,"soilmap_view_url":null,"soiltest_xml_url":0,"soiltest_view_url":0},{"id":191384,"code":"B4KJ201801007-9633","latitude":"35.1449033","longitude":"132.6845828","source_code":"CG52325574003","project_name":"","survey_name":"\u6210\u5ddd\u5730\u533a\u5730\u8cea\u8abf\u67fb\u696d\u52d9","client_name":"\u56fd\u571f\u4ea4\u901a\u7701\u4e2d\u56fd\u5730\u65b9\u6574\u5099\u5c40\u6590\u4f0a\u5ddd\u30fb\u795e\u6238\u5ddd\u7dcf\u5408\u958b\u767a\u5de5\u4e8b\u4e8b\u52d9\u6240","boring_xml_url":40,"boring_view_url":1,"soilmap_view_url":null,"soiltest_xml_url":0,"soiltest_view_url":0},{"id":191383,"code":"B4KJ201801007-9632","latitude":"35.1460142","longitude":"132.6841106","source_code":"CG52325574002","project_name":"","survey_name":"\u6210\u5ddd\u5730\u533a\u5730\u8cea\u8abf\u67fb\u696d\u52d9","client_name":"\u56fd\u571f\u4ea4\u901a\u7701\u4e2d\u56fd\u5730\u65b9\u6574\u5099\u5c40\u6590\u4f0a\u5ddd\u30fb\u795e\u6238\u5ddd\u7dcf\u5408\u958b\u767a\u5de5\u4e8b\u4e8b\u52d9\u6240","boring_xml_url":40,"boring_view_url":1,"soilmap_view_url":null,"soiltest_xml_url":0,"soiltest_view_url":0},{"id":191382,"code":"B4KJ201801007-9631","latitude":"35.1459586","longitude":"132.684305","source_code":"CG52325574001","project_name":"","survey_name":"\u6210\u5ddd\u5730\u533a\u5730\u8cea\u8abf\u67fb\u696d\u52d9","client_name":"\u56fd\u571f\u4ea4\u901a\u7701\u4e2d\u56fd\u5730\u65b9\u6574\u5099\u5c40\u6590\u4f0a\u5ddd\u30fb\u795e\u6238\u5ddd\u7dcf\u5408\u958b\u767a\u5de5\u4e8b\u4e8b\u52d9\u6240","boring_xml_url":40,"boring_view_url":1,"soilmap_view_url":null,"soiltest_xml_url":0,"soiltest_view_url":0},{"id":191381,"code":"B4KJ201801007-9630","latitude":"35.1447919","longitude":"132.6681119","source_code":"CG52325573017","project_name":"","survey_name":"\u89d2\u4e95\u5730\u533a\u5730\u8cea\u8abf\u67fb\u696d\u52d9","client_name":"\u56fd\u571f\u4ea4\u901a\u7701\u4e2d\u56fd\u5730\u65b9\u6574\u5099\u5c40\u6590\u4f0a\u5ddd\u30fb\u795e\u6238\u5ddd\u7dcf\u5408\u958b\u767a\u5de5\u4e8b\u4e8b\u52d9\u6240","boring_xml_url":40,"boring_view_url":1,"soilmap_view_url":null,"soiltest_xml_url":0,"soiltest_view_url":0},{"id":191380,"code":"B4KJ201801007-9629","latitude":"35.1454861","longitude":"132.6686675","source_code":"CG52325573016","project_name":"","survey_name":"\u89d2\u4e95\u5730\u533a\u5730\u8cea\u8abf\u67fb\u696d\u52d9","client_name":"\u56fd\u571f\u4ea4\u901a\u7701\u4e2d\u56fd\u5730\u65b9\u6574\u5099\u5c40\u6590\u4f0a\u5ddd\u30fb\u795e\u6238\u5ddd\u7dcf\u5408\u958b\u767a\u5de5\u4e8b\u4e8b\u52d9\u6240","boring_xml_url":40,"boring_view_url":1,"soilmap_view_url":null,"soiltest_xml_url":0,"soiltest_view_url":0},{"id":191379,"code":"B4KJ201801007-9628","latitude":"35.1453475","longitude":"132.6686675","source_code":"CG52325573015","project_name":"","survey_name":"\u89d2\u4e95\u5730\u533a\u5730\u8cea\u8abf\u67fb\u696d\u52d9","client_name":"\u56fd\u571f\u4ea4\u901a\u7701\u4e2d\u56fd\u5730\u65b9\u6574\u5099\u5c40\u6590\u4f0a\u5ddd\u30fb\u795e\u6238\u5ddd\u7dcf\u5408\u958b\u767a\u5de5\u4e8b\u4e8b\u52d9\u6240","boring_xml_url":40,"boring_view_url":1,"soilmap_view_url":null,"soiltest_xml_url":0,"soiltest_view_url":0},{"id":191378,"code":"B4KJ201801007-9627","latitude":"35.1452086","longitude":"132.6685286","source_code":"CG52325573014","project_name":"","survey_name":"\u89d2\u4e95\u5730\u533a\u5730\u8cea\u8abf\u67fb\u696d\u52d9","client_name":"\u56fd\u571f\u4ea4\u901a\u7701\u4e2d\u56fd\u5730\u65b9\u6574\u5099\u5c40\u6590\u4f0a\u5ddd\u30fb\u795e\u6238\u5ddd\u7dcf\u5408\u958b\u767a\u5de5\u4e8b\u4e8b\u52d9\u6240","boring_xml_url":40,"boring_view_url":1,"soilmap_view_url":null,"soiltest_xml_url":0,"soiltest_view_url":0},{"id":191377,"code":"B4KJ201801007-9626","latitude":"35.1450697","longitude":"132.6685286","source_code":"CG52325573013","project_name":"","survey_name":"\u89d2\u4e95\u5730\u533a\u5730\u8cea\u8abf\u67fb\u696d\u52d9","client_name":"\u56fd\u571f\u4ea4\u901a\u7701\u4e2d\u56fd\u5730\u65b9\u6574\u5099\u5c40\u6590\u4f0a\u5ddd\u30fb\u795e\u6238\u5ddd\u7dcf\u5408\u958b\u767a\u5de5\u4e8b\u4e8b\u52d9\u6240","boring_xml_url":40,"boring_view_url":1,"soilmap_view_url":null,"soiltest_xml_url":0,"soiltest_view_url":0},{"id":191376,"code":"B4KJ201801007-9625","latitude":"35.1524853","longitude":"132.6660008","source_code":"CG52325573012","project_name":"","survey_name":"\u539f\u77f3\u5c71\u8a66\u9310\u305d\u306e2\u696d\u52d9","client_name":"\u56fd\u571f\u4ea4\u901a\u7701\u4e2d\u56fd\u5730\u65b9\u6574\u5099\u5c40\u6590\u4f0a\u5ddd\u30fb\u795e\u6238\u5ddd\u7dcf\u5408\u958b\u767a\u5de5\u4e8b\u4e8b\u52d9\u6240","boring_xml_url":40,"boring_view_url":1,"soilmap_view_url":null,"soiltest_xml_url":0,"soiltest_view_url":0},{"id":191375,"code":"B4KJ201801007-9624","latitude":"35.1528742","longitude":"132.6648619","source_code":"CG52325573011","project_name":"","survey_name":"\u539f\u77f3\u5c71\u8a66\u9310\u305d\u306e2\u696d\u52d9","client_name":"\u56fd\u571f\u4ea4\u901a\u7701\u4e2d\u56fd\u5730\u65b9\u6574\u5099\u5c40\u6590\u4f0a\u5ddd\u30fb\u795e\u6238\u5ddd\u7dcf\u5408\u958b\u767a\u5de5\u4e8b\u4e8b\u52d9\u6240","boring_xml_url":40,"boring_view_url":1,"soilmap_view_url":null,"soiltest_xml_url":0,"soiltest_view_url":0},{"id":191374,"code":"B4KJ201801007-9623","latitude":"35.1522353","longitude":"132.6653619","source_code":"CG52325573010","project_name":"","survey_name":"\u539f\u77f3\u5c71\u8a66\u9310\u305d\u306e2\u696d\u52d9","client_name":"\u56fd\u571f\u4ea4\u901a\u7701\u4e2d\u56fd\u5730\u65b9\u6574\u5099\u5c40\u6590\u4f0a\u5ddd\u30fb\u795e\u6238\u5ddd\u7dcf\u5408\u958b\u767a\u5de5\u4e8b\u4e8b\u52d9\u6240","boring_xml_url":40,"boring_view_url":1,"soilmap_view_url":null,"soiltest_xml_url":0,"soiltest_view_url":0},{"id":191373,"code":"B4KJ201801007-9622","latitude":"35.1525964","longitude":"132.6658342","source_code":"CG52325573009","project_name":"","survey_name":"\u539f\u77f3\u5c71\u8a66\u9310\u305d\u306e2\u696d\u52d9","client_name":"\u56fd\u571f\u4ea4\u901a\u7701\u4e2d\u56fd\u5730\u65b9\u6574\u5099\u5c40\u6590\u4f0a\u5ddd\u30fb\u795e\u6238\u5ddd\u7dcf\u5408\u958b\u767a\u5de5\u4e8b\u4e8b\u52d9\u6240","boring_xml_url":40,"boring_view_url":1,"soilmap_view_url":null,"soiltest_xml_url":0,"soiltest_view_url":0},{"id":191372,"code":"B4KJ201801007-9621","latitude":"35.1520133","longitude":"132.6671397","source_code":"CG52325573008","project_name":"","survey_name":"\u539f\u77f3\u5c71\u8a66\u9310\u305d\u306e3\u696d\u52d9","client_name":"\u56fd\u571f\u4ea4\u901a\u7701\u4e2d\u56fd\u5730\u65b9\u6574\u5099\u5c40\u6590\u4f0a\u5ddd\u30fb\u795e\u6238\u5ddd\u7dcf\u5408\u958b\u767a\u5de5\u4e8b\u4e8b\u52d9\u6240","boring_xml_url":40,"boring_view_url":1,"soilmap_view_url":null,"soiltest_xml_url":0,"soiltest_view_url":0},{"id":191371,"code":"B4KJ201801007-9620","latitude":"35.1522911","longitude":"132.6668619","source_code":"CG52325573007","project_name":"","survey_name":"\u539f\u77f3\u5c71\u8a66\u9310\u305d\u306e3\u696d\u52d9","client_name":"\u56fd\u571f\u4ea4\u901a\u7701\u4e2d\u56fd\u5730\u65b9\u6574\u5099\u5c40\u6590\u4f0a\u5ddd\u30fb\u795e\u6238\u5ddd\u7dcf\u5408\u958b\u767a\u5de5\u4e8b\u4e8b\u52d9\u6240","boring_xml_url":40,"boring_view_url":1,"soilmap_view_url":null,"soiltest_xml_url":0,"soiltest_view_url":0},{"id":191370,"code":"B4KJ201801007-9619","latitude":"35.1522908","longitude":"132.6665842","source_code":"CG52325573006","project_name":"","survey_name":"\u539f\u77f3\u5c71\u8a66\u9310\u305d\u306e3\u696d\u52d9","client_name":"\u56fd\u571f\u4ea4\u901a\u7701\u4e2d\u56fd\u5730\u65b9\u6574\u5099\u5c40\u6590\u4f0a\u5ddd\u30fb\u795e\u6238\u5ddd\u7dcf\u5408\u958b\u767a\u5de5\u4e8b\u4e8b\u52d9\u6240","boring_xml_url":40,"boring_view_url":1,"soilmap_view_url":null,"soiltest_xml_url":0,"soiltest_view_url":0},{"id":191369,"code":"B4KJ201801007-9618","latitude":"35.1517356","longitude":"132.6663064","source_code":"CG52325573005","project_name":"","survey_name":"\u539f\u77f3\u5c71\u8a66\u9310\u305d\u306e3\u696d\u52d9","client_name":"\u56fd\u571f\u4ea4\u901a\u7701\u4e2d\u56fd\u5730\u65b9\u6574\u5099\u5c40\u6590\u4f0a\u5ddd\u30fb\u795e\u6238\u5ddd\u7dcf\u5408\u958b\u767a\u5de5\u4e8b\u4e8b\u52d9\u6240","boring_xml_url":40,"boring_view_url":1,"soilmap_view_url":null,"soiltest_xml_url":0,"soiltest_view_url":0},{"id":191368,"code":"B4KJ201801007-9617","latitude":"35.1522078","longitude":"132.6665286","source_code":"CG52325573004","project_name":"","survey_name":"\u539f\u77f3\u5c71\u8a66\u9310\u696d\u52d9","client_name":"\u56fd\u571f\u4ea4\u901a\u7701\u4e2d\u56fd\u5730\u65b9\u6574\u5099\u5c40\u6590\u4f0a\u5ddd\u30fb\u795e\u6238\u5ddd\u7dcf\u5408\u958b\u767a\u5de5\u4e8b\u4e8b\u52d9\u6240","boring_xml_url":40,"boring_view_url":1,"soilmap_view_url":null,"soiltest_xml_url":0,"soiltest_view_url":0},{"id":191367,"code":"B4KJ201801007-9616","latitude":"35.1530686","longitude":"132.6675561","source_code":"CG52325573003","project_name":"","survey_name":"\u539f\u77f3\u5c71\u8a66\u9310\u696d\u52d9","client_name":"\u56fd\u571f\u4ea4\u901a\u7701\u4e2d\u56fd\u5730\u65b9\u6574\u5099\u5c40\u6590\u4f0a\u5ddd\u30fb\u795e\u6238\u5ddd\u7dcf\u5408\u958b\u767a\u5de5\u4e8b\u4e8b\u52d9\u6240","boring_xml_url":40,"boring_view_url":1,"soilmap_view_url":null,"soiltest_xml_url":0,"soiltest_view_url":0},{"id":191366,"code":"B4KJ201801007-9615","latitude":"35.1517911","longitude":"132.6668064","source_code":"CG52325573001","project_name":"","survey_name":"\u539f\u77f3\u5c71\u8abf\u67fb\u53ca\u3073\u4eee\u8a2d\u5099\u8a08\u753b\u691c\u8a0e\u696d\u52d9","client_name":"\u56fd\u571f\u4ea4\u901a\u7701\u4e2d\u56fd\u5730\u65b9\u6574\u5099\u5c40\u6590\u4f0a\u5ddd\u30fb\u795e\u6238\u5ddd\u7dcf\u5408\u958b\u767a\u5de5\u4e8b\u4e8b\u52d9\u6240","boring_xml_url":40,"boring_view_url":1,"soilmap_view_url":null,"soiltest_xml_url":0,"soiltest_view_url":0}]}}