{"header":{"xyz":{"source":[],"mosaic":false},"page":4317,"raw":{"soiltest_result":"0","bbox":"57.598333,109.544722,1.933333,163.806111","page":"4317"},"conditions":{"soiltest_result":0,"north":57.598333,"west":109.544722,"south":1.933333,"east":163.806111},"success":true,"message":""},"data":{"meta":{"total":212844,"page":4317,"pages":7095,"count":30},"values":[{"id":191065,"code":"B4KJ201801007-9314","latitude":"35.0156308","longitude":"132.2287114","source_code":"CG52324118033","project_name":"","survey_name":"\u4e0a\u6c5f\u5ddd\u6a4b\u5730\u8cea\u8abf\u67fb\u696d\u52d9","client_name":"\u56fd\u571f\u4ea4\u901a\u7701\u4e2d\u56fd\u5730\u65b9\u6574\u5099\u5c40\u6d5c\u7530\u6cb3\u5ddd\u56fd\u9053\u4e8b\u52d9\u6240","boring_xml_url":40,"boring_view_url":1,"soilmap_view_url":null,"soiltest_xml_url":0,"soiltest_view_url":0},{"id":191064,"code":"B4KJ201801007-9313","latitude":"35.0156308","longitude":"132.2287114","source_code":"CG52324118032","project_name":"","survey_name":"\u6c5f\u5ddd\u7b2c3\u5927\u6a4b\u57fa\u790e\u5730\u76e4\u8abf\u67fb\u696d\u52d9","client_name":"\u56fd\u571f\u4ea4\u901a\u7701\u4e2d\u56fd\u5730\u65b9\u6574\u5099\u5c40\u6d5c\u7530\u6cb3\u5ddd\u56fd\u9053\u4e8b\u52d9\u6240","boring_xml_url":40,"boring_view_url":1,"soilmap_view_url":null,"soiltest_xml_url":0,"soiltest_view_url":0},{"id":191063,"code":"B4KJ201801007-9312","latitude":"35.0156308","longitude":"132.2287114","source_code":"CG52324118031","project_name":"","survey_name":"\u6c5f\u5ddd\u7b2c3\u5927\u6a4b\u57fa\u790e\u5730\u76e4\u8abf\u67fb\u696d\u52d9","client_name":"\u56fd\u571f\u4ea4\u901a\u7701\u4e2d\u56fd\u5730\u65b9\u6574\u5099\u5c40\u6d5c\u7530\u6cb3\u5ddd\u56fd\u9053\u4e8b\u52d9\u6240","boring_xml_url":40,"boring_view_url":1,"soilmap_view_url":null,"soiltest_xml_url":0,"soiltest_view_url":0},{"id":191062,"code":"B4KJ201801007-9311","latitude":"35.0156308","longitude":"132.2287114","source_code":"CG52324118030","project_name":"","survey_name":"\u6c5f\u5ddd\u7b2c3\u5927\u6a4b\u57fa\u790e\u5730\u76e4\u8abf\u67fb\u696d\u52d9","client_name":"\u56fd\u571f\u4ea4\u901a\u7701\u4e2d\u56fd\u5730\u65b9\u6574\u5099\u5c40\u6d5c\u7530\u6cb3\u5ddd\u56fd\u9053\u4e8b\u52d9\u6240","boring_xml_url":40,"boring_view_url":1,"soilmap_view_url":null,"soiltest_xml_url":0,"soiltest_view_url":0},{"id":191061,"code":"B4KJ201801007-9310","latitude":"35.0156308","longitude":"132.2287114","source_code":"CG52324118029","project_name":"","survey_name":"\u6c5f\u5ddd\u7b2c3\u5927\u6a4b\u57fa\u790e\u5730\u76e4\u8abf\u67fb\u696d\u52d9","client_name":"\u56fd\u571f\u4ea4\u901a\u7701\u4e2d\u56fd\u5730\u65b9\u6574\u5099\u5c40\u6d5c\u7530\u6cb3\u5ddd\u56fd\u9053\u4e8b\u52d9\u6240","boring_xml_url":40,"boring_view_url":1,"soilmap_view_url":null,"soiltest_xml_url":0,"soiltest_view_url":0},{"id":191060,"code":"B4KJ201801007-9309","latitude":"35.0158531","longitude":"132.2317944","source_code":"CG52324118028","project_name":"","survey_name":"\u6e21\u6d25\u305d\u306e\u4ed6\u5730\u8cea\u8abf\u67fb","client_name":"\u56fd\u571f\u4ea4\u901a\u7701\u4e2d\u56fd\u5730\u65b9\u6574\u5099\u5c40\u6d5c\u7530\u6cb3\u5ddd\u56fd\u9053\u4e8b\u52d9\u6240","boring_xml_url":40,"boring_view_url":1,"soilmap_view_url":null,"soiltest_xml_url":0,"soiltest_view_url":0},{"id":191059,"code":"B4KJ201801007-9308","latitude":"35.018603","longitude":"132.23135","source_code":"CG52324118027","project_name":"","survey_name":"\u6e21\u6d25\u305d\u306e\u4ed6\u5730\u8cea\u8abf\u67fb","client_name":"\u56fd\u571f\u4ea4\u901a\u7701\u4e2d\u56fd\u5730\u65b9\u6574\u5099\u5c40\u6d5c\u7530\u6cb3\u5ddd\u56fd\u9053\u4e8b\u52d9\u6240","boring_xml_url":40,"boring_view_url":1,"soilmap_view_url":null,"soiltest_xml_url":0,"soiltest_view_url":0},{"id":191058,"code":"B4KJ201801007-9307","latitude":"35.0152975","longitude":"132.2268783","source_code":"CG52324118025","project_name":"","survey_name":"\u90f7\u7530\u5730\u8cea\u8abf\u67fb\u696d\u52d9","client_name":"\u56fd\u571f\u4ea4\u901a\u7701\u4e2d\u56fd\u5730\u65b9\u6574\u5099\u5c40\u6d5c\u7530\u6cb3\u5ddd\u56fd\u9053\u4e8b\u52d9\u6240","boring_xml_url":40,"boring_view_url":1,"soilmap_view_url":null,"soiltest_xml_url":0,"soiltest_view_url":0},{"id":191057,"code":"B4KJ201801007-9306","latitude":"35.0158531","longitude":"132.2271006","source_code":"CG52324118024","project_name":"","survey_name":"\u90f7\u7530\u5730\u8cea\u8abf\u67fb\u696d\u52d9","client_name":"\u56fd\u571f\u4ea4\u901a\u7701\u4e2d\u56fd\u5730\u65b9\u6574\u5099\u5c40\u6d5c\u7530\u6cb3\u5ddd\u56fd\u9053\u4e8b\u52d9\u6240","boring_xml_url":40,"boring_view_url":1,"soilmap_view_url":null,"soiltest_xml_url":0,"soiltest_view_url":0},{"id":191056,"code":"B4KJ201801007-9305","latitude":"35.0167975","longitude":"132.2267117","source_code":"CG52324118023","project_name":"","survey_name":"\u90f7\u7530\u5730\u8cea\u8abf\u67fb\u696d\u52d9","client_name":"\u56fd\u571f\u4ea4\u901a\u7701\u4e2d\u56fd\u5730\u65b9\u6574\u5099\u5c40\u6d5c\u7530\u6cb3\u5ddd\u56fd\u9053\u4e8b\u52d9\u6240","boring_xml_url":40,"boring_view_url":1,"soilmap_view_url":null,"soiltest_xml_url":0,"soiltest_view_url":0},{"id":191055,"code":"B4KJ201801007-9304","latitude":"35.01352","longitude":"132.2273783","source_code":"CG52324118022","project_name":"","survey_name":"\u4e09\u5cf6\u5730\u5185\u305d\u306e\u4ed6\u5730\u8cea\u8abf\u67fb\u696d\u52d9","client_name":"\u56fd\u571f\u4ea4\u901a\u7701\u4e2d\u56fd\u5730\u65b9\u6574\u5099\u5c40\u6d5c\u7530\u6cb3\u5ddd\u56fd\u9053\u4e8b\u52d9\u6240","boring_xml_url":40,"boring_view_url":1,"soilmap_view_url":null,"soiltest_xml_url":0,"soiltest_view_url":0},{"id":191054,"code":"B4KJ201801007-9303","latitude":"35.0128811","longitude":"132.2281006","source_code":"CG52324118021","project_name":"","survey_name":"\u4e09\u5cf6\u5730\u5185\u305d\u306e\u4ed6\u5730\u8cea\u8abf\u67fb\u696d\u52d9","client_name":"\u56fd\u571f\u4ea4\u901a\u7701\u4e2d\u56fd\u5730\u65b9\u6574\u5099\u5c40\u6d5c\u7530\u6cb3\u5ddd\u56fd\u9053\u4e8b\u52d9\u6240","boring_xml_url":40,"boring_view_url":1,"soilmap_view_url":null,"soiltest_xml_url":0,"soiltest_view_url":0},{"id":191053,"code":"B4KJ201801007-9302","latitude":"35.0156308","longitude":"132.2287114","source_code":"CG52324118019","project_name":"","survey_name":"\u6c5f\u6d25\u30d0\u30a4\u30d1\u30b9\u305d\u306e2\u5730\u8cea\u8abf\u67fb\u696d\u52d9","client_name":"\u56fd\u571f\u4ea4\u901a\u7701\u4e2d\u56fd\u5730\u65b9\u6574\u5099\u5c40\u6d5c\u7530\u6cb3\u5ddd\u56fd\u9053\u4e8b\u52d9\u6240","boring_xml_url":40,"boring_view_url":1,"soilmap_view_url":null,"soiltest_xml_url":0,"soiltest_view_url":0},{"id":191052,"code":"B4KJ201801007-9301","latitude":"35.0156308","longitude":"132.2287114","source_code":"CG52324118018","project_name":"","survey_name":"\u6c5f\u6d25\u30d0\u30a4\u30d1\u30b9\u305d\u306e2\u5730\u8cea\u8abf\u67fb\u696d\u52d9","client_name":"\u56fd\u571f\u4ea4\u901a\u7701\u4e2d\u56fd\u5730\u65b9\u6574\u5099\u5c40\u6d5c\u7530\u6cb3\u5ddd\u56fd\u9053\u4e8b\u52d9\u6240","boring_xml_url":40,"boring_view_url":1,"soilmap_view_url":null,"soiltest_xml_url":0,"soiltest_view_url":0},{"id":191051,"code":"B4KJ201801007-9300","latitude":"35.0156308","longitude":"132.2287114","source_code":"CG52324118017","project_name":"","survey_name":"\u6c5f\u6d25\u30d0\u30a4\u30d1\u30b9\u305d\u306e2\u5730\u8cea\u8abf\u67fb\u696d\u52d9","client_name":"\u56fd\u571f\u4ea4\u901a\u7701\u4e2d\u56fd\u5730\u65b9\u6574\u5099\u5c40\u6d5c\u7530\u6cb3\u5ddd\u56fd\u9053\u4e8b\u52d9\u6240","boring_xml_url":40,"boring_view_url":1,"soilmap_view_url":null,"soiltest_xml_url":0,"soiltest_view_url":0},{"id":191050,"code":"B4KJ201801007-9299","latitude":"35.0156308","longitude":"132.2287114","source_code":"CG52324118016","project_name":"","survey_name":"\u6c5f\u6d25\u30d0\u30a4\u30d1\u30b9\u305d\u306e2\u5730\u8cea\u8abf\u67fb\u696d\u52d9","client_name":"\u56fd\u571f\u4ea4\u901a\u7701\u4e2d\u56fd\u5730\u65b9\u6574\u5099\u5c40\u6d5c\u7530\u6cb3\u5ddd\u56fd\u9053\u4e8b\u52d9\u6240","boring_xml_url":40,"boring_view_url":1,"soilmap_view_url":null,"soiltest_xml_url":0,"soiltest_view_url":0},{"id":191049,"code":"B4KJ201801007-9298","latitude":"35.019381","longitude":"132.230794","source_code":"CG52324118015","project_name":"","survey_name":"\u662d\u548c58\u5e74\u5ea6\u6e21\u6d25\u6a0b\u9580\u8a2d\u8a08\u59d4\u8a17\u696d\u52d9(\u6e2c\u91cf\u30fb\u8abf\u67fb\u7de8)","client_name":"\u56fd\u571f\u4ea4\u901a\u7701\u4e2d\u56fd\u5730\u65b9\u6574\u5099\u5c40\u6d5c\u7530\u6cb3\u5ddd\u56fd\u9053\u4e8b\u52d9\u6240","boring_xml_url":40,"boring_view_url":1,"soilmap_view_url":null,"soiltest_xml_url":0,"soiltest_view_url":0},{"id":191048,"code":"B4KJ201801007-9297","latitude":"35.0132703","longitude":"132.2336","source_code":"CG52324118014","project_name":"","survey_name":"\u6c5f\u6d25\u30d0\u30a4\u30d1\u30b9\u5730\u8cea\u8abf\u67fb\u696d\u52d9","client_name":"\u56fd\u571f\u4ea4\u901a\u7701\u4e2d\u56fd\u5730\u65b9\u6574\u5099\u5c40\u6d5c\u7530\u6cb3\u5ddd\u56fd\u9053\u4e8b\u52d9\u6240","boring_xml_url":40,"boring_view_url":1,"soilmap_view_url":null,"soiltest_xml_url":0,"soiltest_view_url":0},{"id":191047,"code":"B4KJ201801007-9296","latitude":"35.0132981","longitude":"132.2336833","source_code":"CG52324118013","project_name":"","survey_name":"\u6c5f\u6d25\u30d0\u30a4\u30d1\u30b9\u5730\u8cea\u8abf\u67fb\u696d\u52d9","client_name":"\u56fd\u571f\u4ea4\u901a\u7701\u4e2d\u56fd\u5730\u65b9\u6574\u5099\u5c40\u6d5c\u7530\u6cb3\u5ddd\u56fd\u9053\u4e8b\u52d9\u6240","boring_xml_url":40,"boring_view_url":1,"soilmap_view_url":null,"soiltest_xml_url":0,"soiltest_view_url":0},{"id":191046,"code":"B4KJ201801007-9295","latitude":"35.0147978","longitude":"132.2342942","source_code":"CG52324118012","project_name":"","survey_name":"\u6c5f\u6d25\u30d0\u30a4\u30d1\u30b9\u5730\u8cea\u8abf\u67fb\u696d\u52d9","client_name":"\u56fd\u571f\u4ea4\u901a\u7701\u4e2d\u56fd\u5730\u65b9\u6574\u5099\u5c40\u6d5c\u7530\u6cb3\u5ddd\u56fd\u9053\u4e8b\u52d9\u6240","boring_xml_url":40,"boring_view_url":1,"soilmap_view_url":null,"soiltest_xml_url":0,"soiltest_view_url":0},{"id":191045,"code":"B4KJ201801007-9294","latitude":"35.0157422","longitude":"132.2348219","source_code":"CG52324118011","project_name":"","survey_name":"\u6c5f\u6d25\u30d0\u30a4\u30d1\u30b9\u5730\u8cea\u8abf\u67fb\u696d\u52d9","client_name":"\u56fd\u571f\u4ea4\u901a\u7701\u4e2d\u56fd\u5730\u65b9\u6574\u5099\u5c40\u6d5c\u7530\u6cb3\u5ddd\u56fd\u9053\u4e8b\u52d9\u6240","boring_xml_url":40,"boring_view_url":1,"soilmap_view_url":null,"soiltest_xml_url":0,"soiltest_view_url":0},{"id":191044,"code":"B4KJ201801007-9293","latitude":"35.0175197","longitude":"132.2342942","source_code":"CG52324118010","project_name":"","survey_name":"\u5927\u5143\u5730\u533a\u5730\u8cea\u8abf\u67fb\u696d\u52d9","client_name":"\u56fd\u571f\u4ea4\u901a\u7701\u4e2d\u56fd\u5730\u65b9\u6574\u5099\u5c40\u6d5c\u7530\u6cb3\u5ddd\u56fd\u9053\u4e8b\u52d9\u6240","boring_xml_url":40,"boring_view_url":1,"soilmap_view_url":null,"soiltest_xml_url":0,"soiltest_view_url":0},{"id":191043,"code":"B4KJ201801007-9292","latitude":"35.0177142","longitude":"132.2343497","source_code":"CG52324118009","project_name":"","survey_name":"\u5927\u5143\u5730\u533a\u5730\u8cea\u8abf\u67fb\u696d\u52d9","client_name":"\u56fd\u571f\u4ea4\u901a\u7701\u4e2d\u56fd\u5730\u65b9\u6574\u5099\u5c40\u6d5c\u7530\u6cb3\u5ddd\u56fd\u9053\u4e8b\u52d9\u6240","boring_xml_url":40,"boring_view_url":1,"soilmap_view_url":null,"soiltest_xml_url":0,"soiltest_view_url":0},{"id":191042,"code":"B4KJ201801007-9291","latitude":"35.0177142","longitude":"132.2341831","source_code":"CG52324118008","project_name":"","survey_name":"\u5927\u5143\u5730\u533a\u5730\u8cea\u8abf\u67fb\u696d\u52d9","client_name":"\u56fd\u571f\u4ea4\u901a\u7701\u4e2d\u56fd\u5730\u65b9\u6574\u5099\u5c40\u6d5c\u7530\u6cb3\u5ddd\u56fd\u9053\u4e8b\u52d9\u6240","boring_xml_url":40,"boring_view_url":1,"soilmap_view_url":null,"soiltest_xml_url":0,"soiltest_view_url":0},{"id":191041,"code":"B4KJ201801007-9290","latitude":"35.0144367","longitude":"132.23385","source_code":"CG52324118007","project_name":"","survey_name":"\u6e21\u6d25\u5730\u533a\u5730\u8cea\u691c\u8a0e\u696d\u52d9","client_name":"\u56fd\u571f\u4ea4\u901a\u7701\u4e2d\u56fd\u5730\u65b9\u6574\u5099\u5c40\u6d5c\u7530\u6cb3\u5ddd\u56fd\u9053\u4e8b\u52d9\u6240","boring_xml_url":40,"boring_view_url":1,"soilmap_view_url":null,"soiltest_xml_url":0,"soiltest_view_url":0},{"id":191040,"code":"B4KJ201801007-9289","latitude":"35.0144367","longitude":"132.2346831","source_code":"CG52324118006","project_name":"","survey_name":"\u6e21\u6d25\u5730\u533a\u5730\u8cea\u691c\u8a0e\u696d\u52d9","client_name":"\u56fd\u571f\u4ea4\u901a\u7701\u4e2d\u56fd\u5730\u65b9\u6574\u5099\u5c40\u6d5c\u7530\u6cb3\u5ddd\u56fd\u9053\u4e8b\u52d9\u6240","boring_xml_url":40,"boring_view_url":1,"soilmap_view_url":null,"soiltest_xml_url":0,"soiltest_view_url":0},{"id":191039,"code":"B4KJ201801007-9288","latitude":"35.01502","longitude":"132.2347108","source_code":"CG52324118005","project_name":"","survey_name":"\u6e21\u6d25\u5730\u533a\u5730\u8cea\u691c\u8a0e\u696d\u52d9","client_name":"\u56fd\u571f\u4ea4\u901a\u7701\u4e2d\u56fd\u5730\u65b9\u6574\u5099\u5c40\u6d5c\u7530\u6cb3\u5ddd\u56fd\u9053\u4e8b\u52d9\u6240","boring_xml_url":40,"boring_view_url":1,"soilmap_view_url":null,"soiltest_xml_url":0,"soiltest_view_url":0},{"id":191038,"code":"B4KJ201801007-9287","latitude":"35.0150478","longitude":"132.2342942","source_code":"CG52324118004","project_name":"","survey_name":"\u6e21\u6d25\u5730\u533a\u5730\u8cea\u691c\u8a0e\u696d\u52d9","client_name":"\u56fd\u571f\u4ea4\u901a\u7701\u4e2d\u56fd\u5730\u65b9\u6574\u5099\u5c40\u6d5c\u7530\u6cb3\u5ddd\u56fd\u9053\u4e8b\u52d9\u6240","boring_xml_url":40,"boring_view_url":1,"soilmap_view_url":null,"soiltest_xml_url":0,"soiltest_view_url":0},{"id":191037,"code":"B4KJ201801007-9286","latitude":"35.0151311","longitude":"132.2339889","source_code":"CG52324118003","project_name":"","survey_name":"\u6e21\u6d25\u5730\u533a\u5730\u8cea\u691c\u8a0e\u696d\u52d9","client_name":"\u56fd\u571f\u4ea4\u901a\u7701\u4e2d\u56fd\u5730\u65b9\u6574\u5099\u5c40\u6d5c\u7530\u6cb3\u5ddd\u56fd\u9053\u4e8b\u52d9\u6240","boring_xml_url":40,"boring_view_url":1,"soilmap_view_url":null,"soiltest_xml_url":0,"soiltest_view_url":0},{"id":191036,"code":"B4KJ201801007-9285","latitude":"35.0148256","longitude":"132.2336278","source_code":"CG52324118002","project_name":"","survey_name":"\u6e21\u6d25\u5730\u533a\u5730\u8cea\u691c\u8a0e\u696d\u52d9","client_name":"\u56fd\u571f\u4ea4\u901a\u7701\u4e2d\u56fd\u5730\u65b9\u6574\u5099\u5c40\u6d5c\u7530\u6cb3\u5ddd\u56fd\u9053\u4e8b\u52d9\u6240","boring_xml_url":40,"boring_view_url":1,"soilmap_view_url":null,"soiltest_xml_url":0,"soiltest_view_url":0}]}}