{"header":{"xyz":{"source":[],"mosaic":false},"page":4329,"raw":{"soiltest_result":"0","bbox":"57.598333,109.544722,1.933333,163.806111","page":"4329"},"conditions":{"soiltest_result":0,"north":57.598333,"west":109.544722,"south":1.933333,"east":163.806111},"success":true,"message":""},"data":{"meta":{"total":212844,"page":4329,"pages":7095,"count":30},"values":[{"id":190705,"code":"B4KJ201801007-8954","latitude":"34.8383897","longitude":"132.9914536","source_code":"CG52322709014","project_name":"","survey_name":"\u6797\u6b63\u5730\u533a\u5730\u8cea\u8abf\u67fb\u696d\u52d9","client_name":"\u56fd\u571f\u4ea4\u901a\u7701\u4e2d\u56fd\u5730\u65b9\u6574\u5099\u5c40\u56fd\u55b6\u5099\u5317\u4e18\u9675\u516c\u5712\u4e8b\u52d9\u6240","boring_xml_url":40,"boring_view_url":1,"soilmap_view_url":null,"soiltest_xml_url":0,"soiltest_view_url":0},{"id":190704,"code":"B4KJ201801007-8953","latitude":"34.8382508","longitude":"132.9898981","source_code":"CG52322709013","project_name":"","survey_name":"\u6797\u6b63\u5730\u533a\u5730\u8cea\u8abf\u67fb\u696d\u52d9","client_name":"\u56fd\u571f\u4ea4\u901a\u7701\u4e2d\u56fd\u5730\u65b9\u6574\u5099\u5c40\u56fd\u55b6\u5099\u5317\u4e18\u9675\u516c\u5712\u4e8b\u52d9\u6240","boring_xml_url":40,"boring_view_url":1,"soilmap_view_url":null,"soiltest_xml_url":0,"soiltest_view_url":0},{"id":190703,"code":"B4KJ201801007-8952","latitude":"34.8387508","longitude":"132.9904258","source_code":"CG52322709012","project_name":"","survey_name":"\u6797\u6b63\u5730\u533a\u5730\u8cea\u8abf\u67fb\u696d\u52d9","client_name":"\u56fd\u571f\u4ea4\u901a\u7701\u4e2d\u56fd\u5730\u65b9\u6574\u5099\u5c40\u56fd\u55b6\u5099\u5317\u4e18\u9675\u516c\u5712\u4e8b\u52d9\u6240","boring_xml_url":40,"boring_view_url":1,"soilmap_view_url":null,"soiltest_xml_url":0,"soiltest_view_url":0},{"id":190702,"code":"B4KJ201801007-8951","latitude":"34.8386675","longitude":"132.9935644","source_code":"CG52322709008","project_name":"","survey_name":"\u516b\u5e61\u5730\u533a\u5730\u8cea\u8abf\u67fb\u696d\u52d9","client_name":"\u56fd\u571f\u4ea4\u901a\u7701\u4e2d\u56fd\u5730\u65b9\u6574\u5099\u5c40\u56fd\u55b6\u5099\u5317\u4e18\u9675\u516c\u5712\u4e8b\u52d9\u6240","boring_xml_url":40,"boring_view_url":1,"soilmap_view_url":null,"soiltest_xml_url":0,"soiltest_view_url":0},{"id":190701,"code":"B4KJ201801007-8950","latitude":"34.8397508","longitude":"132.99262","source_code":"CG52322709007","project_name":"","survey_name":"\u516b\u5e61\u5730\u533a\u5730\u8cea\u8abf\u67fb\u696d\u52d9","client_name":"\u56fd\u571f\u4ea4\u901a\u7701\u4e2d\u56fd\u5730\u65b9\u6574\u5099\u5c40\u56fd\u55b6\u5099\u5317\u4e18\u9675\u516c\u5712\u4e8b\u52d9\u6240","boring_xml_url":40,"boring_view_url":1,"soilmap_view_url":null,"soiltest_xml_url":0,"soiltest_view_url":0},{"id":190700,"code":"B4KJ201801007-8949","latitude":"34.8388342","longitude":"132.99262","source_code":"CG52322709006","project_name":"","survey_name":"\u516b\u5e61\u5730\u533a\u5730\u8cea\u8abf\u67fb\u696d\u52d9","client_name":"\u56fd\u571f\u4ea4\u901a\u7701\u4e2d\u56fd\u5730\u65b9\u6574\u5099\u5c40\u56fd\u55b6\u5099\u5317\u4e18\u9675\u516c\u5712\u4e8b\u52d9\u6240","boring_xml_url":40,"boring_view_url":1,"soilmap_view_url":null,"soiltest_xml_url":0,"soiltest_view_url":0},{"id":190699,"code":"B4KJ201801007-8948","latitude":"34.8365844","longitude":"132.9907592","source_code":"CG52322709005","project_name":"","survey_name":"\u516b\u5e61\u5730\u533a\u5730\u8cea\u8abf\u67fb\u696d\u52d9","client_name":"\u56fd\u571f\u4ea4\u901a\u7701\u4e2d\u56fd\u5730\u65b9\u6574\u5099\u5c40\u56fd\u55b6\u5099\u5317\u4e18\u9675\u516c\u5712\u4e8b\u52d9\u6240","boring_xml_url":40,"boring_view_url":1,"soilmap_view_url":null,"soiltest_xml_url":0,"soiltest_view_url":0},{"id":190698,"code":"B4KJ201801007-8947","latitude":"34.8382508","longitude":"132.9906758","source_code":"CG52322709004","project_name":"","survey_name":"\u516b\u5e61\u5730\u533a\u5730\u8cea\u8abf\u67fb\u696d\u52d9","client_name":"\u56fd\u571f\u4ea4\u901a\u7701\u4e2d\u56fd\u5730\u65b9\u6574\u5099\u5c40\u56fd\u55b6\u5099\u5317\u4e18\u9675\u516c\u5712\u4e8b\u52d9\u6240","boring_xml_url":40,"boring_view_url":1,"soilmap_view_url":null,"soiltest_xml_url":0,"soiltest_view_url":0},{"id":190697,"code":"B4KJ201801007-8946","latitude":"34.8388064","longitude":"132.9895369","source_code":"CG52322709003","project_name":"","survey_name":"\u516b\u5e61\u5730\u533a\u5730\u8cea\u8abf\u67fb\u696d\u52d9","client_name":"\u56fd\u571f\u4ea4\u901a\u7701\u4e2d\u56fd\u5730\u65b9\u6574\u5099\u5c40\u56fd\u55b6\u5099\u5317\u4e18\u9675\u516c\u5712\u4e8b\u52d9\u6240","boring_xml_url":40,"boring_view_url":1,"soilmap_view_url":null,"soiltest_xml_url":0,"soiltest_view_url":0},{"id":190696,"code":"B4KJ201801007-8945","latitude":"34.8387508","longitude":"132.9892039","source_code":"CG52322709002","project_name":"","survey_name":"\u516b\u5e61\u5730\u533a\u5730\u8cea\u8abf\u67fb\u696d\u52d9","client_name":"\u56fd\u571f\u4ea4\u901a\u7701\u4e2d\u56fd\u5730\u65b9\u6574\u5099\u5c40\u56fd\u55b6\u5099\u5317\u4e18\u9675\u516c\u5712\u4e8b\u52d9\u6240","boring_xml_url":40,"boring_view_url":1,"soilmap_view_url":null,"soiltest_xml_url":0,"soiltest_view_url":0},{"id":190695,"code":"B4KJ201801007-8944","latitude":"34.8387508","longitude":"132.9887317","source_code":"CG52322709001","project_name":"","survey_name":"\u516b\u5e61\u5730\u533a\u5730\u8cea\u8abf\u67fb\u696d\u52d9","client_name":"\u56fd\u571f\u4ea4\u901a\u7701\u4e2d\u56fd\u5730\u65b9\u6574\u5099\u5c40\u56fd\u55b6\u5099\u5317\u4e18\u9675\u516c\u5712\u4e8b\u52d9\u6240","boring_xml_url":40,"boring_view_url":1,"soilmap_view_url":null,"soiltest_xml_url":0,"soiltest_view_url":0},{"id":190694,"code":"B4KJ201801007-8943","latitude":"34.9189867","longitude":"132.7663047","source_code":"CG52322691003","project_name":"","survey_name":"\u4e09\u6b21\u69cb\u9020\u7269\u8a2d\u8a08\u696d\u52d9","client_name":"\u56fd\u571f\u4ea4\u901a\u7701\u4e2d\u56fd\u5730\u65b9\u6574\u5099\u5c40\u4e09\u6b21\u6cb3\u5ddd\u56fd\u9053\u4e8b\u52d9\u6240","boring_xml_url":40,"boring_view_url":1,"soilmap_view_url":null,"soiltest_xml_url":0,"soiltest_view_url":0},{"id":190693,"code":"B4KJ201801007-8942","latitude":"34.9180425","longitude":"132.7718597","source_code":"CG52322691002","project_name":"","survey_name":"\u65e5\u5c71\u6a4b\u8a66\u9310\u696d\u52d9","client_name":"\u56fd\u571f\u4ea4\u901a\u7701\u4e2d\u56fd\u5730\u65b9\u6574\u5099\u5c40\u6c5f\u306e\u5ddd\u7dcf\u5408\u958b\u767a\u5de5\u4e8b\u4e8b\u52d9\u6240","boring_xml_url":40,"boring_view_url":1,"soilmap_view_url":null,"soiltest_xml_url":0,"soiltest_view_url":0},{"id":190692,"code":"B4KJ201801007-8941","latitude":"34.9174592","longitude":"132.7720819","source_code":"CG52322691001","project_name":"","survey_name":"\u65e5\u5c71\u6a4b\u8a66\u9310\u696d\u52d9","client_name":"\u56fd\u571f\u4ea4\u901a\u7701\u4e2d\u56fd\u5730\u65b9\u6574\u5099\u5c40\u6c5f\u306e\u5ddd\u7dcf\u5408\u958b\u767a\u5de5\u4e8b\u4e8b\u52d9\u6240","boring_xml_url":40,"boring_view_url":1,"soilmap_view_url":null,"soiltest_xml_url":0,"soiltest_view_url":0},{"id":190691,"code":"B4KJ201801007-8940","latitude":"34.8839911","longitude":"132.78186","source_code":"CG52322652005","project_name":"","survey_name":"\u5c3b\u7121\u6a4b\u8a2d\u8a08\u696d\u52d9","client_name":"\u56fd\u571f\u4ea4\u901a\u7701\u4e2d\u56fd\u5730\u65b9\u6574\u5099\u5c40\u4e09\u6b21\u6cb3\u5ddd\u56fd\u9053\u4e8b\u52d9\u6240","boring_xml_url":40,"boring_view_url":1,"soilmap_view_url":null,"soiltest_xml_url":0,"soiltest_view_url":0},{"id":190690,"code":"B4KJ201801007-8939","latitude":"34.8837133","longitude":"132.78186","source_code":"CG52322652004","project_name":"","survey_name":"\u5c3b\u7121\u6a4b\u8a2d\u8a08\u696d\u52d9","client_name":"\u56fd\u571f\u4ea4\u901a\u7701\u4e2d\u56fd\u5730\u65b9\u6574\u5099\u5c40\u4e09\u6b21\u6cb3\u5ddd\u56fd\u9053\u4e8b\u52d9\u6240","boring_xml_url":40,"boring_view_url":1,"soilmap_view_url":null,"soiltest_xml_url":0,"soiltest_view_url":0},{"id":190689,"code":"B4KJ201801007-8938","latitude":"34.8806581","longitude":"132.7824156","source_code":"CG52322652002","project_name":"","survey_name":"\u5e03\u91ce\u6a4b\u5074\u9053\u6a4b\u8a2d\u8a08\u696d\u52d9(\u5730\u8cea\u8abf\u67fb)","client_name":"\u56fd\u571f\u4ea4\u901a\u7701\u4e2d\u56fd\u5730\u65b9\u6574\u5099\u5c40\u4e09\u6b21\u6cb3\u5ddd\u56fd\u9053\u4e8b\u52d9\u6240","boring_xml_url":40,"boring_view_url":1,"soilmap_view_url":null,"soiltest_xml_url":0,"soiltest_view_url":0},{"id":190688,"code":"B4KJ201801007-8937","latitude":"34.8665489","longitude":"132.7902486","source_code":"CG52322633001","project_name":"","survey_name":"\u5927\u6751\u59163\u5ec9\u8a66\u9310\u696d\u52d9","client_name":"\u56fd\u571f\u4ea4\u901a\u7701\u4e2d\u56fd\u5730\u65b9\u6574\u5099\u5c40\u4e09\u6b21\u6cb3\u5ddd\u56fd\u9053\u4e8b\u52d9\u6240","boring_xml_url":40,"boring_view_url":1,"soilmap_view_url":null,"soiltest_xml_url":0,"soiltest_view_url":0},{"id":190687,"code":"B4KJ201801007-8936","latitude":"34.8574944","longitude":"132.794915","source_code":"CG52322623001","project_name":"","survey_name":"\u5927\u6751\u59163\u5ec9\u8a66\u9310\u696d\u52d9","client_name":"\u56fd\u571f\u4ea4\u901a\u7701\u4e2d\u56fd\u5730\u65b9\u6574\u5099\u5c40\u4e09\u6b21\u6cb3\u5ddd\u56fd\u9053\u4e8b\u52d9\u6240","boring_xml_url":40,"boring_view_url":1,"soilmap_view_url":null,"soiltest_xml_url":0,"soiltest_view_url":0},{"id":190686,"code":"B4KJ201801007-8935","latitude":"34.8515786","longitude":"132.8003036","source_code":"CG52322614002","project_name":"","survey_name":"\u4e0b\u5e03\u91ce\u9632\u707d\u8abf\u67fb\u8a2d\u8a08\u696d\u52d9(\u5730\u8cea\u8abf\u67fb)","client_name":"\u56fd\u571f\u4ea4\u901a\u7701\u4e2d\u56fd\u5730\u65b9\u6574\u5099\u5c40\u4e09\u6b21\u6cb3\u5ddd\u56fd\u9053\u4e8b\u52d9\u6240","boring_xml_url":40,"boring_view_url":1,"soilmap_view_url":null,"soiltest_xml_url":0,"soiltest_view_url":0},{"id":190685,"code":"B4KJ201801007-8934","latitude":"34.8366914","longitude":"132.7981933","source_code":"CG52322604006","project_name":"","survey_name":"\u4e09\u539f\u5730\u533a\u5730\u8cea\u8abf\u67fb\u696d\u52d9","client_name":"\u56fd\u571f\u4ea4\u901a\u7701\u4e2d\u56fd\u5730\u65b9\u6574\u5099\u5c40\u4e09\u6b21\u6cb3\u5ddd\u56fd\u9053\u4e8b\u52d9\u6240","boring_xml_url":40,"boring_view_url":1,"soilmap_view_url":null,"soiltest_xml_url":0,"soiltest_view_url":0},{"id":190684,"code":"B4KJ201801007-8933","latitude":"34.8367747","longitude":"132.8055536","source_code":"CG52322604005","project_name":"","survey_name":"\u4e09\u539f\u5730\u533a\u5730\u8cea\u8abf\u67fb\u696d\u52d9","client_name":"\u56fd\u571f\u4ea4\u901a\u7701\u4e2d\u56fd\u5730\u65b9\u6574\u5099\u5c40\u4e09\u6b21\u6cb3\u5ddd\u56fd\u9053\u4e8b\u52d9\u6240","boring_xml_url":40,"boring_view_url":1,"soilmap_view_url":null,"soiltest_xml_url":0,"soiltest_view_url":0},{"id":190683,"code":"B4KJ201801007-8932","latitude":"34.8371358","longitude":"132.8054425","source_code":"CG52322604004","project_name":"","survey_name":"\u4e09\u539f\u5730\u533a\u5730\u8cea\u8abf\u67fb\u696d\u52d9","client_name":"\u56fd\u571f\u4ea4\u901a\u7701\u4e2d\u56fd\u5730\u65b9\u6574\u5099\u5c40\u4e09\u6b21\u6cb3\u5ddd\u56fd\u9053\u4e8b\u52d9\u6240","boring_xml_url":40,"boring_view_url":1,"soilmap_view_url":null,"soiltest_xml_url":0,"soiltest_view_url":0},{"id":190682,"code":"B4KJ201801007-8931","latitude":"34.8374969","longitude":"132.8053869","source_code":"CG52322604003","project_name":"","survey_name":"\u4e09\u539f\u5730\u533a\u5730\u8cea\u8abf\u67fb\u696d\u52d9","client_name":"\u56fd\u571f\u4ea4\u901a\u7701\u4e2d\u56fd\u5730\u65b9\u6574\u5099\u5c40\u4e09\u6b21\u6cb3\u5ddd\u56fd\u9053\u4e8b\u52d9\u6240","boring_xml_url":40,"boring_view_url":1,"soilmap_view_url":null,"soiltest_xml_url":0,"soiltest_view_url":0},{"id":190681,"code":"B4KJ201801007-8930","latitude":"34.8380247","longitude":"132.8052481","source_code":"CG52322604002","project_name":"","survey_name":"\u4e09\u539f\u5730\u533a\u5730\u8cea\u8abf\u67fb\u696d\u52d9","client_name":"\u56fd\u571f\u4ea4\u901a\u7701\u4e2d\u56fd\u5730\u65b9\u6574\u5099\u5c40\u4e09\u6b21\u6cb3\u5ddd\u56fd\u9053\u4e8b\u52d9\u6240","boring_xml_url":40,"boring_view_url":1,"soilmap_view_url":null,"soiltest_xml_url":0,"soiltest_view_url":0},{"id":190680,"code":"B4KJ201801007-8929","latitude":"34.8384969","longitude":"132.8051092","source_code":"CG52322604001","project_name":"","survey_name":"\u4e09\u539f\u5730\u533a\u5730\u8cea\u8abf\u67fb\u696d\u52d9","client_name":"\u56fd\u571f\u4ea4\u901a\u7701\u4e2d\u56fd\u5730\u65b9\u6574\u5099\u5c40\u4e09\u6b21\u6cb3\u5ddd\u56fd\u9053\u4e8b\u52d9\u6240","boring_xml_url":40,"boring_view_url":1,"soilmap_view_url":null,"soiltest_xml_url":0,"soiltest_view_url":0},{"id":190679,"code":"B4KJ201801007-8928","latitude":"34.9042919","longitude":"132.6632867","source_code":"CG52322583042","project_name":"","survey_name":"\u4f5c\u6728\u5927\u548c\u9053\u8def\u6cd5\u9762\u7b49\u5730\u8cea\u8abf\u67fb\u696d\u52d9","client_name":"\u56fd\u571f\u4ea4\u901a\u7701\u4e2d\u56fd\u5730\u65b9\u6574\u5099\u5c40\u4e09\u6b21\u6cb3\u5ddd\u56fd\u9053\u4e8b\u52d9\u6240","boring_xml_url":40,"boring_view_url":1,"soilmap_view_url":null,"soiltest_xml_url":0,"soiltest_view_url":0},{"id":190678,"code":"B4KJ201801007-8927","latitude":"34.9041531","longitude":"132.6635644","source_code":"CG52322583041","project_name":"","survey_name":"\u4f5c\u6728\u5927\u548c\u9053\u8def\u6cd5\u9762\u7b49\u5730\u8cea\u8abf\u67fb\u696d\u52d9","client_name":"\u56fd\u571f\u4ea4\u901a\u7701\u4e2d\u56fd\u5730\u65b9\u6574\u5099\u5c40\u4e09\u6b21\u6cb3\u5ddd\u56fd\u9053\u4e8b\u52d9\u6240","boring_xml_url":40,"boring_view_url":1,"soilmap_view_url":null,"soiltest_xml_url":0,"soiltest_view_url":0},{"id":190677,"code":"B4KJ201801007-8926","latitude":"34.9042086","longitude":"132.6637589","source_code":"CG52322583040","project_name":"","survey_name":"\u4f5c\u6728\u5927\u548c\u9053\u8def\u6cd5\u9762\u7b49\u5730\u8cea\u8abf\u67fb\u696d\u52d9","client_name":"\u56fd\u571f\u4ea4\u901a\u7701\u4e2d\u56fd\u5730\u65b9\u6574\u5099\u5c40\u4e09\u6b21\u6cb3\u5ddd\u56fd\u9053\u4e8b\u52d9\u6240","boring_xml_url":40,"boring_view_url":1,"soilmap_view_url":null,"soiltest_xml_url":0,"soiltest_view_url":0},{"id":190676,"code":"B4KJ201801007-8925","latitude":"34.9043475","longitude":"132.6636478","source_code":"CG52322583039","project_name":"","survey_name":"\u4f5c\u6728\u5927\u548c\u9053\u8def\u6cd5\u9762\u7b49\u5730\u8cea\u8abf\u67fb\u696d\u52d9","client_name":"\u56fd\u571f\u4ea4\u901a\u7701\u4e2d\u56fd\u5730\u65b9\u6574\u5099\u5c40\u4e09\u6b21\u6cb3\u5ddd\u56fd\u9053\u4e8b\u52d9\u6240","boring_xml_url":40,"boring_view_url":1,"soilmap_view_url":null,"soiltest_xml_url":0,"soiltest_view_url":0}]}}