{"header":{"xyz":{"source":[],"mosaic":false},"page":4332,"raw":{"soiltest_result":"0","bbox":"57.598333,109.544722,1.933333,163.806111","page":"4332"},"conditions":{"soiltest_result":0,"north":57.598333,"west":109.544722,"south":1.933333,"east":163.806111},"success":true,"message":""},"data":{"meta":{"total":212844,"page":4332,"pages":7095,"count":30},"values":[{"id":190615,"code":"B4KJ201801007-8864","latitude":"34.9183625","longitude":"132.1331953","source_code":"CG52322190030","project_name":"","survey_name":"\u6c5f\u6d25\u9053\u8def\u4e0b\u5e9c\u5ddd\u6a4b\u5730\u8cea\u8abf\u67fb\u696d\u52d9","client_name":"\u56fd\u571f\u4ea4\u901a\u7701\u4e2d\u56fd\u5730\u65b9\u6574\u5099\u5c40\u6d5c\u7530\u6cb3\u5ddd\u56fd\u9053\u4e8b\u52d9\u6240","boring_xml_url":40,"boring_view_url":1,"soilmap_view_url":null,"soiltest_xml_url":0,"soiltest_view_url":0},{"id":190614,"code":"B4KJ201801007-8863","latitude":"34.9181958","longitude":"132.1330286","source_code":"CG52322190029","project_name":"","survey_name":"\u6c5f\u6d25\u9053\u8def\u4e0b\u5e9c\u5ddd\u6a4b\u5730\u8cea\u8abf\u67fb\u696d\u52d9","client_name":"\u56fd\u571f\u4ea4\u901a\u7701\u4e2d\u56fd\u5730\u65b9\u6574\u5099\u5c40\u6d5c\u7530\u6cb3\u5ddd\u56fd\u9053\u4e8b\u52d9\u6240","boring_xml_url":40,"boring_view_url":1,"soilmap_view_url":null,"soiltest_xml_url":0,"soiltest_view_url":0},{"id":190613,"code":"B4KJ201801007-8862","latitude":"34.9183069","longitude":"132.1332508","source_code":"CG52322190028","project_name":"","survey_name":"\u6c5f\u6d25\u9053\u8def\u4e0b\u5e9c\u5ddd\u6a4b\u5730\u8cea\u8abf\u67fb\u696d\u52d9","client_name":"\u56fd\u571f\u4ea4\u901a\u7701\u4e2d\u56fd\u5730\u65b9\u6574\u5099\u5c40\u6d5c\u7530\u6cb3\u5ddd\u56fd\u9053\u4e8b\u52d9\u6240","boring_xml_url":40,"boring_view_url":1,"soilmap_view_url":null,"soiltest_xml_url":0,"soiltest_view_url":0},{"id":190612,"code":"B4KJ201801007-8861","latitude":"34.9173347","longitude":"132.13039","source_code":"CG52322190027","project_name":"","survey_name":"\u4e0b\u5e9c\u5730\u533a\u5730\u8cea\u8abf\u67fb\u696d\u52d9","client_name":"\u56fd\u571f\u4ea4\u901a\u7701\u4e2d\u56fd\u5730\u65b9\u6574\u5099\u5c40\u6d5c\u7530\u6cb3\u5ddd\u56fd\u9053\u4e8b\u52d9\u6240","boring_xml_url":40,"boring_view_url":1,"soilmap_view_url":null,"soiltest_xml_url":0,"soiltest_view_url":0},{"id":190611,"code":"B4KJ201801007-8860","latitude":"34.9175014","longitude":"132.1307789","source_code":"CG52322190026","project_name":"","survey_name":"\u4e0b\u5e9c\u5730\u533a\u5730\u8cea\u8abf\u67fb\u696d\u52d9","client_name":"\u56fd\u571f\u4ea4\u901a\u7701\u4e2d\u56fd\u5730\u65b9\u6574\u5099\u5c40\u6d5c\u7530\u6cb3\u5ddd\u56fd\u9053\u4e8b\u52d9\u6240","boring_xml_url":40,"boring_view_url":1,"soilmap_view_url":null,"soiltest_xml_url":0,"soiltest_view_url":0},{"id":190610,"code":"B4KJ201801007-8859","latitude":"34.9175292","longitude":"132.1313067","source_code":"CG52322190025","project_name":"","survey_name":"\u4e0b\u5e9c\u5730\u533a\u5730\u8cea\u8abf\u67fb\u696d\u52d9","client_name":"\u56fd\u571f\u4ea4\u901a\u7701\u4e2d\u56fd\u5730\u65b9\u6574\u5099\u5c40\u6d5c\u7530\u6cb3\u5ddd\u56fd\u9053\u4e8b\u52d9\u6240","boring_xml_url":40,"boring_view_url":1,"soilmap_view_url":null,"soiltest_xml_url":0,"soiltest_view_url":0},{"id":190609,"code":"B4KJ201801007-8858","latitude":"34.9177792","longitude":"132.1319178","source_code":"CG52322190024","project_name":"","survey_name":"\u4e0b\u5e9c\u5730\u533a\u5730\u8cea\u8abf\u67fb\u696d\u52d9","client_name":"\u56fd\u571f\u4ea4\u901a\u7701\u4e2d\u56fd\u5730\u65b9\u6574\u5099\u5c40\u6d5c\u7530\u6cb3\u5ddd\u56fd\u9053\u4e8b\u52d9\u6240","boring_xml_url":40,"boring_view_url":1,"soilmap_view_url":null,"soiltest_xml_url":0,"soiltest_view_url":0},{"id":190608,"code":"B4KJ201801007-8857","latitude":"34.9180847","longitude":"132.1326397","source_code":"CG52322190023","project_name":"","survey_name":"\u4e0b\u5e9c\u5730\u533a\u5730\u8cea\u8abf\u67fb\u696d\u52d9","client_name":"\u56fd\u571f\u4ea4\u901a\u7701\u4e2d\u56fd\u5730\u65b9\u6574\u5099\u5c40\u6d5c\u7530\u6cb3\u5ddd\u56fd\u9053\u4e8b\u52d9\u6240","boring_xml_url":40,"boring_view_url":1,"soilmap_view_url":null,"soiltest_xml_url":0,"soiltest_view_url":0},{"id":190607,"code":"B4KJ201801007-8856","latitude":"34.9183903","longitude":"132.1334175","source_code":"CG52322190022","project_name":"","survey_name":"\u4e0b\u5e9c\u5730\u533a\u5730\u8cea\u8abf\u67fb\u696d\u52d9","client_name":"\u56fd\u571f\u4ea4\u901a\u7701\u4e2d\u56fd\u5730\u65b9\u6574\u5099\u5c40\u6d5c\u7530\u6cb3\u5ddd\u56fd\u9053\u4e8b\u52d9\u6240","boring_xml_url":40,"boring_view_url":1,"soilmap_view_url":null,"soiltest_xml_url":0,"soiltest_view_url":0},{"id":190606,"code":"B4KJ201801007-8855","latitude":"34.9187236","longitude":"132.1341953","source_code":"CG52322190021","project_name":"","survey_name":"\u4e0b\u5e9c\u5730\u533a\u5730\u8cea\u8abf\u67fb\u696d\u52d9","client_name":"\u56fd\u571f\u4ea4\u901a\u7701\u4e2d\u56fd\u5730\u65b9\u6574\u5099\u5c40\u6d5c\u7530\u6cb3\u5ddd\u56fd\u9053\u4e8b\u52d9\u6240","boring_xml_url":40,"boring_view_url":1,"soilmap_view_url":null,"soiltest_xml_url":0,"soiltest_view_url":0},{"id":190605,"code":"B4KJ201801007-8854","latitude":"34.9190289","longitude":"132.1349453","source_code":"CG52322190020","project_name":"","survey_name":"\u4e0b\u5e9c\u5730\u533a\u5730\u8cea\u8abf\u67fb\u696d\u52d9","client_name":"\u56fd\u571f\u4ea4\u901a\u7701\u4e2d\u56fd\u5730\u65b9\u6574\u5099\u5c40\u6d5c\u7530\u6cb3\u5ddd\u56fd\u9053\u4e8b\u52d9\u6240","boring_xml_url":40,"boring_view_url":1,"soilmap_view_url":null,"soiltest_xml_url":0,"soiltest_view_url":0},{"id":190604,"code":"B4KJ201801007-8853","latitude":"34.9176958","longitude":"132.1318622","source_code":"CG52322190019","project_name":"","survey_name":"\u6c5f\u6d25\u9053\u8def\u4e0b\u5e9c\u5ddd\u6a4b\u5730\u8cea\u8abf\u67fb\u696d\u52d9","client_name":"\u56fd\u571f\u4ea4\u901a\u7701\u4e2d\u56fd\u5730\u65b9\u6574\u5099\u5c40\u6d5c\u7530\u6cb3\u5ddd\u56fd\u9053\u4e8b\u52d9\u6240","boring_xml_url":40,"boring_view_url":1,"soilmap_view_url":null,"soiltest_xml_url":0,"soiltest_view_url":0},{"id":190603,"code":"B4KJ201801007-8852","latitude":"34.9178069","longitude":"132.1318067","source_code":"CG52322190018","project_name":"","survey_name":"\u6c5f\u6d25\u9053\u8def\u4e0b\u5e9c\u5ddd\u6a4b\u5730\u8cea\u8abf\u67fb\u696d\u52d9","client_name":"\u56fd\u571f\u4ea4\u901a\u7701\u4e2d\u56fd\u5730\u65b9\u6574\u5099\u5c40\u6d5c\u7530\u6cb3\u5ddd\u56fd\u9053\u4e8b\u52d9\u6240","boring_xml_url":40,"boring_view_url":1,"soilmap_view_url":null,"soiltest_xml_url":0,"soiltest_view_url":0},{"id":190602,"code":"B4KJ201801007-8851","latitude":"34.9175569","longitude":"132.1311956","source_code":"CG52322190017","project_name":"","survey_name":"\u6c5f\u6d25\u9053\u8def\u4e0b\u5e9c\u5ddd\u6a4b\u5730\u8cea\u8abf\u67fb\u696d\u52d9","client_name":"\u56fd\u571f\u4ea4\u901a\u7701\u4e2d\u56fd\u5730\u65b9\u6574\u5099\u5c40\u6d5c\u7530\u6cb3\u5ddd\u56fd\u9053\u4e8b\u52d9\u6240","boring_xml_url":40,"boring_view_url":1,"soilmap_view_url":null,"soiltest_xml_url":0,"soiltest_view_url":0},{"id":190601,"code":"B4KJ201801007-8850","latitude":"34.9175847","longitude":"132.1313067","source_code":"CG52322190016","project_name":"","survey_name":"\u6c5f\u6d25\u9053\u8def\u4e0b\u5e9c\u5ddd\u6a4b\u5730\u8cea\u8abf\u67fb\u696d\u52d9","client_name":"\u56fd\u571f\u4ea4\u901a\u7701\u4e2d\u56fd\u5730\u65b9\u6574\u5099\u5c40\u6d5c\u7530\u6cb3\u5ddd\u56fd\u9053\u4e8b\u52d9\u6240","boring_xml_url":40,"boring_view_url":1,"soilmap_view_url":null,"soiltest_xml_url":0,"soiltest_view_url":0},{"id":190600,"code":"B4KJ201801007-8849","latitude":"34.9176681","longitude":"132.1314733","source_code":"CG52322190015","project_name":"","survey_name":"\u6c5f\u6d25\u9053\u8def\u4e0b\u5e9c\u5ddd\u6a4b\u5730\u8cea\u8abf\u67fb\u696d\u52d9","client_name":"\u56fd\u571f\u4ea4\u901a\u7701\u4e2d\u56fd\u5730\u65b9\u6574\u5099\u5c40\u6d5c\u7530\u6cb3\u5ddd\u56fd\u9053\u4e8b\u52d9\u6240","boring_xml_url":40,"boring_view_url":1,"soilmap_view_url":null,"soiltest_xml_url":0,"soiltest_view_url":0},{"id":190599,"code":"B4KJ201801007-8848","latitude":"34.9178347","longitude":"132.1320011","source_code":"CG52322190014","project_name":"","survey_name":"\u6c5f\u6d25\u9053\u8def\u4e0b\u5e9c\u5ddd\u6a4b\u5730\u8cea\u8abf\u67fb\u696d\u52d9","client_name":"\u56fd\u571f\u4ea4\u901a\u7701\u4e2d\u56fd\u5730\u65b9\u6574\u5099\u5c40\u6d5c\u7530\u6cb3\u5ddd\u56fd\u9053\u4e8b\u52d9\u6240","boring_xml_url":40,"boring_view_url":1,"soilmap_view_url":null,"soiltest_xml_url":0,"soiltest_view_url":0},{"id":190598,"code":"B4KJ201801007-8847","latitude":"34.9181958","longitude":"132.1327786","source_code":"CG52322190013","project_name":"","survey_name":"\u6c5f\u6d25\u9053\u8def\u4e0b\u5e9c\u5ddd\u6a4b\u5730\u8cea\u8abf\u67fb\u696d\u52d9","client_name":"\u56fd\u571f\u4ea4\u901a\u7701\u4e2d\u56fd\u5730\u65b9\u6574\u5099\u5c40\u6d5c\u7530\u6cb3\u5ddd\u56fd\u9053\u4e8b\u52d9\u6240","boring_xml_url":40,"boring_view_url":1,"soilmap_view_url":null,"soiltest_xml_url":0,"soiltest_view_url":0},{"id":190597,"code":"B4KJ201801007-8846","latitude":"34.9182792","longitude":"132.1330008","source_code":"CG52322190012","project_name":"","survey_name":"\u6c5f\u6d25\u9053\u8def\u4e0b\u5e9c\u5ddd\u6a4b\u5730\u8cea\u8abf\u67fb\u696d\u52d9","client_name":"\u56fd\u571f\u4ea4\u901a\u7701\u4e2d\u56fd\u5730\u65b9\u6574\u5099\u5c40\u6d5c\u7530\u6cb3\u5ddd\u56fd\u9053\u4e8b\u52d9\u6240","boring_xml_url":40,"boring_view_url":1,"soilmap_view_url":null,"soiltest_xml_url":0,"soiltest_view_url":0},{"id":190596,"code":"B4KJ201801007-8845","latitude":"34.9184736","longitude":"132.1336675","source_code":"CG52322190011","project_name":"","survey_name":"\u6c5f\u6d25\u9053\u8def\u4e0b\u5e9c\u5ddd\u6a4b\u5730\u8cea\u8abf\u67fb\u696d\u52d9","client_name":"\u56fd\u571f\u4ea4\u901a\u7701\u4e2d\u56fd\u5730\u65b9\u6574\u5099\u5c40\u6d5c\u7530\u6cb3\u5ddd\u56fd\u9053\u4e8b\u52d9\u6240","boring_xml_url":40,"boring_view_url":1,"soilmap_view_url":null,"soiltest_xml_url":0,"soiltest_view_url":0},{"id":190595,"code":"B4KJ201801007-8844","latitude":"34.9186125","longitude":"132.1337508","source_code":"CG52322190010","project_name":"","survey_name":"\u6c5f\u6d25\u9053\u8def\u4e0b\u5e9c\u5ddd\u6a4b\u5730\u8cea\u8abf\u67fb\u696d\u52d9","client_name":"\u56fd\u571f\u4ea4\u901a\u7701\u4e2d\u56fd\u5730\u65b9\u6574\u5099\u5c40\u6d5c\u7530\u6cb3\u5ddd\u56fd\u9053\u4e8b\u52d9\u6240","boring_xml_url":40,"boring_view_url":1,"soilmap_view_url":null,"soiltest_xml_url":0,"soiltest_view_url":0},{"id":190594,"code":"B4KJ201801007-8843","latitude":"34.9186125","longitude":"132.1340286","source_code":"CG52322190009","project_name":"","survey_name":"\u6c5f\u6d25\u9053\u8def\u4e0b\u5e9c\u5ddd\u6a4b\u5730\u8cea\u8abf\u67fb\u696d\u52d9","client_name":"\u56fd\u571f\u4ea4\u901a\u7701\u4e2d\u56fd\u5730\u65b9\u6574\u5099\u5c40\u6d5c\u7530\u6cb3\u5ddd\u56fd\u9053\u4e8b\u52d9\u6240","boring_xml_url":40,"boring_view_url":1,"soilmap_view_url":null,"soiltest_xml_url":0,"soiltest_view_url":0},{"id":190593,"code":"B4KJ201801007-8842","latitude":"34.9187514","longitude":"132.1341119","source_code":"CG52322190008","project_name":"","survey_name":"\u6c5f\u6d25\u9053\u8def\u4e0b\u5e9c\u5ddd\u6a4b\u5730\u8cea\u8abf\u67fb\u696d\u52d9","client_name":"\u56fd\u571f\u4ea4\u901a\u7701\u4e2d\u56fd\u5730\u65b9\u6574\u5099\u5c40\u6d5c\u7530\u6cb3\u5ddd\u56fd\u9053\u4e8b\u52d9\u6240","boring_xml_url":40,"boring_view_url":1,"soilmap_view_url":null,"soiltest_xml_url":0,"soiltest_view_url":0},{"id":190592,"code":"B4KJ201801007-8841","latitude":"34.9187514","longitude":"132.1344175","source_code":"CG52322190007","project_name":"","survey_name":"\u6c5f\u6d25\u9053\u8def\u4e0b\u5e9c\u5ddd\u6a4b\u5730\u8cea\u8abf\u67fb\u696d\u52d9","client_name":"\u56fd\u571f\u4ea4\u901a\u7701\u4e2d\u56fd\u5730\u65b9\u6574\u5099\u5c40\u6d5c\u7530\u6cb3\u5ddd\u56fd\u9053\u4e8b\u52d9\u6240","boring_xml_url":40,"boring_view_url":1,"soilmap_view_url":null,"soiltest_xml_url":0,"soiltest_view_url":0},{"id":190591,"code":"B4KJ201801007-8840","latitude":"34.91889","longitude":"132.1344453","source_code":"CG52322190006","project_name":"","survey_name":"\u6c5f\u6d25\u9053\u8def\u4e0b\u5e9c\u5ddd\u6a4b\u5730\u8cea\u8abf\u67fb\u696d\u52d9","client_name":"\u56fd\u571f\u4ea4\u901a\u7701\u4e2d\u56fd\u5730\u65b9\u6574\u5099\u5c40\u6d5c\u7530\u6cb3\u5ddd\u56fd\u9053\u4e8b\u52d9\u6240","boring_xml_url":40,"boring_view_url":1,"soilmap_view_url":null,"soiltest_xml_url":0,"soiltest_view_url":0},{"id":190590,"code":"B4KJ201801007-8839","latitude":"34.9189181","longitude":"132.1347786","source_code":"CG52322190005","project_name":"","survey_name":"\u6c5f\u6d25\u9053\u8def\u4e0b\u5e9c\u5ddd\u6a4b\u5730\u8cea\u8abf\u67fb\u696d\u52d9","client_name":"\u56fd\u571f\u4ea4\u901a\u7701\u4e2d\u56fd\u5730\u65b9\u6574\u5099\u5c40\u6d5c\u7530\u6cb3\u5ddd\u56fd\u9053\u4e8b\u52d9\u6240","boring_xml_url":40,"boring_view_url":1,"soilmap_view_url":null,"soiltest_xml_url":0,"soiltest_view_url":0},{"id":190589,"code":"B4KJ201801007-8838","latitude":"34.9153069","longitude":"132.1270017","source_code":"CG52322190002","project_name":"","survey_name":"\u6c5f\u6d25\u9053\u8def\u5730\u8cea\u6982\u67fb\u696d\u52d9","client_name":"\u56fd\u571f\u4ea4\u901a\u7701\u4e2d\u56fd\u5730\u65b9\u6574\u5099\u5c40\u6d5c\u7530\u6cb3\u5ddd\u56fd\u9053\u4e8b\u52d9\u6240","boring_xml_url":40,"boring_view_url":1,"soilmap_view_url":null,"soiltest_xml_url":0,"soiltest_view_url":0},{"id":190588,"code":"B4KJ201801007-8837","latitude":"34.9163625","longitude":"132.1264739","source_code":"CG52322190001","project_name":"","survey_name":"\u6c5f\u6d25\u897f\u5730\u8cea\u8abf\u67fb\u696d\u52d9","client_name":"\u56fd\u571f\u4ea4\u901a\u7701\u4e2d\u56fd\u5730\u65b9\u6574\u5099\u5c40\u6d5c\u7530\u6cb3\u5ddd\u56fd\u9053\u4e8b\u52d9\u6240","boring_xml_url":40,"boring_view_url":1,"soilmap_view_url":null,"soiltest_xml_url":0,"soiltest_view_url":0},{"id":190587,"code":"B4KJ201801007-8836","latitude":"34.9114742","longitude":"132.1227519","source_code":"CG52322180002","project_name":"","survey_name":"\u6c5f\u6d25\u9053\u8def\u4e0a\u5e9c\u5730\u533a\u5730\u8cea\u8abf\u67fb\u696d\u52d9","client_name":"\u56fd\u571f\u4ea4\u901a\u7701\u4e2d\u56fd\u5730\u65b9\u6574\u5099\u5c40\u6d5c\u7530\u6cb3\u5ddd\u56fd\u9053\u4e8b\u52d9\u6240","boring_xml_url":40,"boring_view_url":1,"soilmap_view_url":null,"soiltest_xml_url":0,"soiltest_view_url":0},{"id":190586,"code":"B4KJ201801007-8835","latitude":"34.9112519","longitude":"132.1228908","source_code":"CG52322180001","project_name":"","survey_name":"\u6c5f\u6d25\u9053\u8def\u4e0a\u5e9c\u5730\u533a\u5730\u8cea\u8abf\u67fb\u696d\u52d9","client_name":"\u56fd\u571f\u4ea4\u901a\u7701\u4e2d\u56fd\u5730\u65b9\u6574\u5099\u5c40\u6d5c\u7530\u6cb3\u5ddd\u56fd\u9053\u4e8b\u52d9\u6240","boring_xml_url":40,"boring_view_url":1,"soilmap_view_url":null,"soiltest_xml_url":0,"soiltest_view_url":0}]}}