{"header":{"xyz":{"source":[],"mosaic":false},"page":4350,"raw":{"soiltest_result":"0","bbox":"57.598333,109.544722,1.933333,163.806111","page":"4350"},"conditions":{"soiltest_result":0,"north":57.598333,"west":109.544722,"south":1.933333,"east":163.806111},"success":true,"message":""},"data":{"meta":{"total":212844,"page":4350,"pages":7095,"count":30},"values":[{"id":190075,"code":"B4KJ201801007-8324","latitude":"34.6738036","longitude":"131.9480528","source_code":"CG52310706009","project_name":"","survey_name":"\u7b2c\u4e00\u90fd\u8302\u6a4b\u5916\u5730\u8cea\u8abf\u67fb","client_name":"\u56fd\u571f\u4ea4\u901a\u7701\u4e2d\u56fd\u5730\u65b9\u6574\u5099\u5c40\u6d5c\u7530\u6cb3\u5ddd\u56fd\u9053\u4e8b\u52d9\u6240","boring_xml_url":40,"boring_view_url":1,"soilmap_view_url":null,"soiltest_xml_url":0,"soiltest_view_url":0},{"id":190074,"code":"B4KJ201801007-8323","latitude":"34.6746092","longitude":"131.9513858","source_code":"CG52310706008","project_name":"","survey_name":"\u7b2c\u4e00\u90fd\u8302\u6a4b\u5916\u5730\u8cea\u8abf\u67fb","client_name":"\u56fd\u571f\u4ea4\u901a\u7701\u4e2d\u56fd\u5730\u65b9\u6574\u5099\u5c40\u6d5c\u7530\u6cb3\u5ddd\u56fd\u9053\u4e8b\u52d9\u6240","boring_xml_url":40,"boring_view_url":1,"soilmap_view_url":null,"soiltest_xml_url":0,"soiltest_view_url":0},{"id":190073,"code":"B4KJ201801007-8322","latitude":"34.6762756","longitude":"131.9486361","source_code":"CG52310706007","project_name":"","survey_name":"\u7b2c\u4e00\u90fd\u8302\u6a4b\u5916\u5730\u8cea\u8abf\u67fb","client_name":"\u56fd\u571f\u4ea4\u901a\u7701\u4e2d\u56fd\u5730\u65b9\u6574\u5099\u5c40\u6d5c\u7530\u6cb3\u5ddd\u56fd\u9053\u4e8b\u52d9\u6240","boring_xml_url":40,"boring_view_url":1,"soilmap_view_url":null,"soiltest_xml_url":0,"soiltest_view_url":0},{"id":190072,"code":"B4KJ201801007-8321","latitude":"34.6762756","longitude":"131.9483028","source_code":"CG52310706006","project_name":"","survey_name":"\u7b2c\u4e00\u90fd\u8302\u6a4b\u5916\u5730\u8cea\u8abf\u67fb","client_name":"\u56fd\u571f\u4ea4\u901a\u7701\u4e2d\u56fd\u5730\u65b9\u6574\u5099\u5c40\u6d5c\u7530\u6cb3\u5ddd\u56fd\u9053\u4e8b\u52d9\u6240","boring_xml_url":40,"boring_view_url":1,"soilmap_view_url":null,"soiltest_xml_url":0,"soiltest_view_url":0},{"id":190071,"code":"B4KJ201801007-8320","latitude":"34.6726928","longitude":"131.9568578","source_code":"CG52310706003","project_name":"","survey_name":"\u6e05\u6c34\u30c8\u30f3\u30cd\u30eb\u5916\u5730\u8cea\u8abf\u67fb\u696d\u52d9","client_name":"\u56fd\u571f\u4ea4\u901a\u7701\u4e2d\u56fd\u5730\u65b9\u6574\u5099\u5c40\u6d5c\u7530\u6cb3\u5ddd\u56fd\u9053\u4e8b\u52d9\u6240","boring_xml_url":40,"boring_view_url":1,"soilmap_view_url":null,"soiltest_xml_url":0,"soiltest_view_url":0},{"id":190070,"code":"B4KJ201801007-8319","latitude":"34.6730817","longitude":"131.9552467","source_code":"CG52310706001","project_name":"","survey_name":"\u6e05\u6c34\u30c8\u30f3\u30cd\u30eb\u5916\u5730\u8cea\u8abf\u67fb\u696d\u52d9","client_name":"\u56fd\u571f\u4ea4\u901a\u7701\u4e2d\u56fd\u5730\u65b9\u6574\u5099\u5c40\u6d5c\u7530\u6cb3\u5ddd\u56fd\u9053\u4e8b\u52d9\u6240","boring_xml_url":40,"boring_view_url":1,"soilmap_view_url":null,"soiltest_xml_url":0,"soiltest_view_url":0},{"id":190069,"code":"B4KJ201801007-8318","latitude":"34.6758589","longitude":"131.9448586","source_code":"CG52310705003","project_name":"","survey_name":"\u4ed9\u9053\u30c8\u30f3\u30cd\u30eb\u5916\u5730\u8cea\u8abf\u67fb\u696d\u52d9","client_name":"\u56fd\u571f\u4ea4\u901a\u7701\u4e2d\u56fd\u5730\u65b9\u6574\u5099\u5c40\u6d5c\u7530\u6cb3\u5ddd\u56fd\u9053\u4e8b\u52d9\u6240","boring_xml_url":40,"boring_view_url":1,"soilmap_view_url":null,"soiltest_xml_url":0,"soiltest_view_url":0},{"id":190068,"code":"B4KJ201801007-8317","latitude":"34.6757756","longitude":"131.9445531","source_code":"CG52310705002","project_name":"","survey_name":"\u4ed9\u9053\u30c8\u30f3\u30cd\u30eb\u5916\u5730\u8cea\u8abf\u67fb\u696d\u52d9","client_name":"\u56fd\u571f\u4ea4\u901a\u7701\u4e2d\u56fd\u5730\u65b9\u6574\u5099\u5c40\u6d5c\u7530\u6cb3\u5ddd\u56fd\u9053\u4e8b\u52d9\u6240","boring_xml_url":40,"boring_view_url":1,"soilmap_view_url":null,"soiltest_xml_url":0,"soiltest_view_url":0},{"id":190067,"code":"B4KJ201801007-8316","latitude":"34.6765253","longitude":"131.9392203","source_code":"CG52310705001","project_name":"","survey_name":"\u4ed9\u9053\u30c8\u30f3\u30cd\u30eb\u5916\u5730\u8cea\u8abf\u67fb\u696d\u52d9","client_name":"\u56fd\u571f\u4ea4\u901a\u7701\u4e2d\u56fd\u5730\u65b9\u6574\u5099\u5c40\u6d5c\u7530\u6cb3\u5ddd\u56fd\u9053\u4e8b\u52d9\u6240","boring_xml_url":40,"boring_view_url":1,"soilmap_view_url":null,"soiltest_xml_url":0,"soiltest_view_url":0},{"id":190066,"code":"B4KJ201801007-8315","latitude":"34.6758583","longitude":"131.9254439","source_code":"CG52310704006","project_name":"","survey_name":"\u7f8e\u90fd\u5730\u533a\u5730\u8cea\u8abf\u67fb\u696d\u52d9","client_name":"\u56fd\u571f\u4ea4\u901a\u7701\u4e2d\u56fd\u5730\u65b9\u6574\u5099\u5c40\u6d5c\u7530\u6cb3\u5ddd\u56fd\u9053\u4e8b\u52d9\u6240","boring_xml_url":40,"boring_view_url":1,"soilmap_view_url":null,"soiltest_xml_url":0,"soiltest_view_url":0},{"id":190065,"code":"B4KJ201801007-8314","latitude":"34.6758028","longitude":"131.9253328","source_code":"CG52310704005","project_name":"","survey_name":"\u7f8e\u90fd\u5730\u533a\u5730\u8cea\u8abf\u67fb\u696d\u52d9","client_name":"\u56fd\u571f\u4ea4\u901a\u7701\u4e2d\u56fd\u5730\u65b9\u6574\u5099\u5c40\u6d5c\u7530\u6cb3\u5ddd\u56fd\u9053\u4e8b\u52d9\u6240","boring_xml_url":40,"boring_view_url":1,"soilmap_view_url":null,"soiltest_xml_url":0,"soiltest_view_url":0},{"id":190064,"code":"B4KJ201801007-8313","latitude":"34.6748586","longitude":"131.9246383","source_code":"CG52310704004","project_name":"","survey_name":"\u71b1\u7530\u5730\u533a\u4ed6\u5730\u8cea\u8abf\u67fb\u696d\u52d9(\u671d\u5009\u5730\u533a)","client_name":"\u56fd\u571f\u4ea4\u901a\u7701\u4e2d\u56fd\u5730\u65b9\u6574\u5099\u5c40\u6d5c\u7530\u6cb3\u5ddd\u56fd\u9053\u4e8b\u52d9\u6240","boring_xml_url":40,"boring_view_url":1,"soilmap_view_url":null,"soiltest_xml_url":0,"soiltest_view_url":0},{"id":190063,"code":"B4KJ201801007-8312","latitude":"34.6751917","longitude":"131.9244994","source_code":"CG52310704003","project_name":"","survey_name":"\u71b1\u7530\u5730\u533a\u4ed6\u5730\u8cea\u8abf\u67fb\u696d\u52d9(\u671d\u5009\u5730\u533a)","client_name":"\u56fd\u571f\u4ea4\u901a\u7701\u4e2d\u56fd\u5730\u65b9\u6574\u5099\u5c40\u6d5c\u7530\u6cb3\u5ddd\u56fd\u9053\u4e8b\u52d9\u6240","boring_xml_url":40,"boring_view_url":1,"soilmap_view_url":null,"soiltest_xml_url":0,"soiltest_view_url":0},{"id":190062,"code":"B4KJ201801007-8311","latitude":"34.6754694","longitude":"131.9243606","source_code":"CG52310704002","project_name":"","survey_name":"\u71b1\u7530\u5730\u533a\u4ed6\u5730\u8cea\u8abf\u67fb\u696d\u52d9(\u671d\u5009\u5730\u533a)","client_name":"\u56fd\u571f\u4ea4\u901a\u7701\u4e2d\u56fd\u5730\u65b9\u6574\u5099\u5c40\u6d5c\u7530\u6cb3\u5ddd\u56fd\u9053\u4e8b\u52d9\u6240","boring_xml_url":40,"boring_view_url":1,"soilmap_view_url":null,"soiltest_xml_url":0,"soiltest_view_url":0},{"id":190061,"code":"B4KJ201801007-8310","latitude":"34.6753306","longitude":"131.9248328","source_code":"CG52310704001","project_name":"","survey_name":"\u7b39\u5009\u5730\u533a\u5730\u8cea\u8abf\u67fb\u696d\u52d9","client_name":"\u56fd\u571f\u4ea4\u901a\u7701\u4e2d\u56fd\u5730\u65b9\u6574\u5099\u5c40\u6d5c\u7530\u6cb3\u5ddd\u56fd\u9053\u4e8b\u52d9\u6240","boring_xml_url":40,"boring_view_url":1,"soilmap_view_url":null,"soiltest_xml_url":0,"soiltest_view_url":0},{"id":190060,"code":"B4KJ201801007-8309","latitude":"34.6713308","longitude":"131.9139172","source_code":"CG52310703028","project_name":"","survey_name":"\u7f8e\u90fd\u5730\u533a\u5730\u8cea\u8abf\u67fb\u696d\u52d9","client_name":"\u56fd\u571f\u4ea4\u901a\u7701\u4e2d\u56fd\u5730\u65b9\u6574\u5099\u5c40\u6d5c\u7530\u6cb3\u5ddd\u56fd\u9053\u4e8b\u52d9\u6240","boring_xml_url":40,"boring_view_url":1,"soilmap_view_url":null,"soiltest_xml_url":0,"soiltest_view_url":0},{"id":190059,"code":"B4KJ201801007-8308","latitude":"34.6712197","longitude":"131.9140006","source_code":"CG52310703027","project_name":"","survey_name":"\u7f8e\u90fd\u5730\u533a\u5730\u8cea\u8abf\u67fb\u696d\u52d9","client_name":"\u56fd\u571f\u4ea4\u901a\u7701\u4e2d\u56fd\u5730\u65b9\u6574\u5099\u5c40\u6d5c\u7530\u6cb3\u5ddd\u56fd\u9053\u4e8b\u52d9\u6240","boring_xml_url":40,"boring_view_url":1,"soilmap_view_url":null,"soiltest_xml_url":0,"soiltest_view_url":0},{"id":190058,"code":"B4KJ201801007-8307","latitude":"34.6711364","longitude":"131.9136394","source_code":"CG52310703026","project_name":"","survey_name":"\u7f8e\u90fd\u5730\u533a\u5730\u8cea\u8abf\u67fb\u696d\u52d9","client_name":"\u56fd\u571f\u4ea4\u901a\u7701\u4e2d\u56fd\u5730\u65b9\u6574\u5099\u5c40\u6d5c\u7530\u6cb3\u5ddd\u56fd\u9053\u4e8b\u52d9\u6240","boring_xml_url":40,"boring_view_url":1,"soilmap_view_url":null,"soiltest_xml_url":0,"soiltest_view_url":0},{"id":190057,"code":"B4KJ201801007-8306","latitude":"34.6710808","longitude":"131.913695","source_code":"CG52310703025","project_name":"","survey_name":"\u7f8e\u90fd\u5730\u533a\u5730\u8cea\u8abf\u67fb\u696d\u52d9","client_name":"\u56fd\u571f\u4ea4\u901a\u7701\u4e2d\u56fd\u5730\u65b9\u6574\u5099\u5c40\u6d5c\u7530\u6cb3\u5ddd\u56fd\u9053\u4e8b\u52d9\u6240","boring_xml_url":40,"boring_view_url":1,"soilmap_view_url":null,"soiltest_xml_url":0,"soiltest_view_url":0},{"id":190056,"code":"B4KJ201801007-8305","latitude":"34.6709419","longitude":"131.9133894","source_code":"CG52310703024","project_name":"","survey_name":"\u7f8e\u90fd\u5730\u533a\u5730\u8cea\u8abf\u67fb\u696d\u52d9","client_name":"\u56fd\u571f\u4ea4\u901a\u7701\u4e2d\u56fd\u5730\u65b9\u6574\u5099\u5c40\u6d5c\u7530\u6cb3\u5ddd\u56fd\u9053\u4e8b\u52d9\u6240","boring_xml_url":40,"boring_view_url":1,"soilmap_view_url":null,"soiltest_xml_url":0,"soiltest_view_url":0},{"id":190055,"code":"B4KJ201801007-8304","latitude":"34.6706086","longitude":"131.9128061","source_code":"CG52310703023","project_name":"","survey_name":"\u7f8e\u90fd\u5730\u533a\u5730\u8cea\u8abf\u67fb\u696d\u52d9","client_name":"\u56fd\u571f\u4ea4\u901a\u7701\u4e2d\u56fd\u5730\u65b9\u6574\u5099\u5c40\u6d5c\u7530\u6cb3\u5ddd\u56fd\u9053\u4e8b\u52d9\u6240","boring_xml_url":40,"boring_view_url":1,"soilmap_view_url":null,"soiltest_xml_url":0,"soiltest_view_url":0},{"id":190054,"code":"B4KJ201801007-8303","latitude":"34.6703867","longitude":"131.9122783","source_code":"CG52310703022","project_name":"","survey_name":"\u7f8e\u90fd\u5730\u533a\u5730\u8cea\u8abf\u67fb\u696d\u52d9","client_name":"\u56fd\u571f\u4ea4\u901a\u7701\u4e2d\u56fd\u5730\u65b9\u6574\u5099\u5c40\u6d5c\u7530\u6cb3\u5ddd\u56fd\u9053\u4e8b\u52d9\u6240","boring_xml_url":40,"boring_view_url":1,"soilmap_view_url":null,"soiltest_xml_url":0,"soiltest_view_url":0},{"id":190053,"code":"B4KJ201801007-8302","latitude":"34.6703033","longitude":"131.9122228","source_code":"CG52310703021","project_name":"","survey_name":"\u7f8e\u90fd\u5730\u533a\u5730\u8cea\u8abf\u67fb\u696d\u52d9","client_name":"\u56fd\u571f\u4ea4\u901a\u7701\u4e2d\u56fd\u5730\u65b9\u6574\u5099\u5c40\u6d5c\u7530\u6cb3\u5ddd\u56fd\u9053\u4e8b\u52d9\u6240","boring_xml_url":40,"boring_view_url":1,"soilmap_view_url":null,"soiltest_xml_url":0,"soiltest_view_url":0},{"id":190052,"code":"B4KJ201801007-8301","latitude":"34.6703589","longitude":"131.9121672","source_code":"CG52310703020","project_name":"","survey_name":"\u7f8e\u90fd\u5730\u533a\u5730\u8cea\u8abf\u67fb\u696d\u52d9","client_name":"\u56fd\u571f\u4ea4\u901a\u7701\u4e2d\u56fd\u5730\u65b9\u6574\u5099\u5c40\u6d5c\u7530\u6cb3\u5ddd\u56fd\u9053\u4e8b\u52d9\u6240","boring_xml_url":40,"boring_view_url":1,"soilmap_view_url":null,"soiltest_xml_url":0,"soiltest_view_url":0},{"id":190051,"code":"B4KJ201801007-8300","latitude":"34.674469","longitude":"131.919417","source_code":"CG52310703019","project_name":"","survey_name":"\u671d\u5009\u30c8\u30f3\u30cd\u30eb\u8a2d\u8a08\u696d\u52d9","client_name":"\u56fd\u571f\u4ea4\u901a\u7701\u4e2d\u56fd\u5730\u65b9\u6574\u5099\u5c40\u6d5c\u7530\u6cb3\u5ddd\u56fd\u9053\u4e8b\u52d9\u6240","boring_xml_url":40,"boring_view_url":1,"soilmap_view_url":null,"soiltest_xml_url":0,"soiltest_view_url":0},{"id":190050,"code":"B4KJ201801007-8299","latitude":"34.6732197","longitude":"131.9168058","source_code":"CG52310703018","project_name":"","survey_name":"\u671d\u5009\u30c8\u30f3\u30cd\u30eb\u8a2d\u8a08\u696d\u52d9","client_name":"\u56fd\u571f\u4ea4\u901a\u7701\u4e2d\u56fd\u5730\u65b9\u6574\u5099\u5c40\u6d5c\u7530\u6cb3\u5ddd\u56fd\u9053\u4e8b\u52d9\u6240","boring_xml_url":40,"boring_view_url":1,"soilmap_view_url":null,"soiltest_xml_url":0,"soiltest_view_url":0},{"id":190049,"code":"B4KJ201801007-8298","latitude":"34.6735531","longitude":"131.9172222","source_code":"CG52310703017","project_name":"","survey_name":"\u671d\u5009\u30c8\u30f3\u30cd\u30eb\u8a2d\u8a08\u696d\u52d9","client_name":"\u56fd\u571f\u4ea4\u901a\u7701\u4e2d\u56fd\u5730\u65b9\u6574\u5099\u5c40\u6d5c\u7530\u6cb3\u5ddd\u56fd\u9053\u4e8b\u52d9\u6240","boring_xml_url":40,"boring_view_url":1,"soilmap_view_url":null,"soiltest_xml_url":0,"soiltest_view_url":0},{"id":190048,"code":"B4KJ201801007-8297","latitude":"34.674247","longitude":"131.919278","source_code":"CG52310703016","project_name":"","survey_name":"\u671d\u5009\u30c8\u30f3\u30cd\u30eb\u8a2d\u8a08\u696d\u52d9","client_name":"\u56fd\u571f\u4ea4\u901a\u7701\u4e2d\u56fd\u5730\u65b9\u6574\u5099\u5c40\u6d5c\u7530\u6cb3\u5ddd\u56fd\u9053\u4e8b\u52d9\u6240","boring_xml_url":40,"boring_view_url":1,"soilmap_view_url":null,"soiltest_xml_url":0,"soiltest_view_url":0},{"id":190047,"code":"B4KJ201801007-8296","latitude":"34.674581","longitude":"131.919139","source_code":"CG52310703015","project_name":"","survey_name":"\u671d\u5009\u30c8\u30f3\u30cd\u30eb\u8a2d\u8a08\u696d\u52d9","client_name":"\u56fd\u571f\u4ea4\u901a\u7701\u4e2d\u56fd\u5730\u65b9\u6574\u5099\u5c40\u6d5c\u7530\u6cb3\u5ddd\u56fd\u9053\u4e8b\u52d9\u6240","boring_xml_url":40,"boring_view_url":1,"soilmap_view_url":null,"soiltest_xml_url":0,"soiltest_view_url":0},{"id":190046,"code":"B4KJ201801007-8295","latitude":"34.674608","longitude":"131.919417","source_code":"CG52310703014","project_name":"","survey_name":"\u671d\u5009\u30c8\u30f3\u30cd\u30eb\u8a2d\u8a08\u696d\u52d9","client_name":"\u56fd\u571f\u4ea4\u901a\u7701\u4e2d\u56fd\u5730\u65b9\u6574\u5099\u5c40\u6d5c\u7530\u6cb3\u5ddd\u56fd\u9053\u4e8b\u52d9\u6240","boring_xml_url":40,"boring_view_url":1,"soilmap_view_url":null,"soiltest_xml_url":0,"soiltest_view_url":0}]}}