{"header":{"xyz":{"source":[],"mosaic":false},"page":4357,"raw":{"soiltest_result":"0","bbox":"57.598333,109.544722,1.933333,163.806111","page":"4357"},"conditions":{"soiltest_result":0,"north":57.598333,"west":109.544722,"south":1.933333,"east":163.806111},"success":true,"message":""},"data":{"meta":{"total":212844,"page":4357,"pages":7095,"count":30},"values":[{"id":189865,"code":"B4KJ201801007-8114","latitude":"34.6479339","longitude":"134.0179233","source_code":"CG51347071010","project_name":"","survey_name":"\u897f\u5927\u5bfa\u5730\u533a\u5730\u8cea\u8abf\u67fb\u696d\u52d9","client_name":"\u56fd\u571f\u4ea4\u901a\u7701\u4e2d\u56fd\u5730\u65b9\u6574\u5099\u5c40\u5ca1\u5c71\u56fd\u9053\u4e8b\u52d9\u6240","boring_xml_url":40,"boring_view_url":1,"soilmap_view_url":null,"soiltest_xml_url":0,"soiltest_view_url":0},{"id":189864,"code":"B4KJ201801007-8113","latitude":"34.647545","longitude":"134.0175344","source_code":"CG51347071009","project_name":"","survey_name":"\u897f\u5927\u5bfa\u5730\u533a\u5730\u8cea\u8abf\u67fb\u696d\u52d9","client_name":"\u56fd\u571f\u4ea4\u901a\u7701\u4e2d\u56fd\u5730\u65b9\u6574\u5099\u5c40\u5ca1\u5c71\u56fd\u9053\u4e8b\u52d9\u6240","boring_xml_url":40,"boring_view_url":1,"soilmap_view_url":null,"soiltest_xml_url":0,"soiltest_view_url":0},{"id":189863,"code":"B4KJ201801007-8112","latitude":"34.6455728","longitude":"134.0098686","source_code":"CG51347071008","project_name":"","survey_name":"\u7802\u5ddd\u30b5\u30a4\u30d5\u30a9\u30f3\u5730\u8cea\u8abf\u67fb\u696d\u52d9","client_name":"\u56fd\u571f\u4ea4\u901a\u7701\u4e2d\u56fd\u5730\u65b9\u6574\u5099\u5c40\u5ca1\u5c71\u6cb3\u5ddd\u4e8b\u52d9\u6240","boring_xml_url":40,"boring_view_url":1,"soilmap_view_url":null,"soiltest_xml_url":0,"soiltest_view_url":0},{"id":189862,"code":"B4KJ201801007-8111","latitude":"34.6457117","longitude":"134.0113128","source_code":"CG51347071007","project_name":"","survey_name":"\u7802\u5ddd\u5830\u5730\u8cea\u8abf\u67fb\u696d\u52d9","client_name":"\u56fd\u571f\u4ea4\u901a\u7701\u4e2d\u56fd\u5730\u65b9\u6574\u5099\u5c40\u5ca1\u5c71\u6cb3\u5ddd\u4e8b\u52d9\u6240","boring_xml_url":40,"boring_view_url":1,"soilmap_view_url":null,"soiltest_xml_url":0,"soiltest_view_url":0},{"id":189861,"code":"B4KJ201801007-8110","latitude":"34.6457119","longitude":"134.0118406","source_code":"CG51347071006","project_name":"","survey_name":"\u7802\u5ddd\u5830\u5730\u8cea\u8abf\u67fb\u696d\u52d9","client_name":"\u56fd\u571f\u4ea4\u901a\u7701\u4e2d\u56fd\u5730\u65b9\u6574\u5099\u5c40\u5ca1\u5c71\u6cb3\u5ddd\u4e8b\u52d9\u6240","boring_xml_url":40,"boring_view_url":1,"soilmap_view_url":null,"soiltest_xml_url":0,"soiltest_view_url":0},{"id":189860,"code":"B4KJ201801007-8109","latitude":"34.6451008","longitude":"134.0117017","source_code":"CG51347071005","project_name":"","survey_name":"\u7802\u5ddd\u5830\u5730\u8cea\u8abf\u67fb\u696d\u52d9","client_name":"\u56fd\u571f\u4ea4\u901a\u7701\u4e2d\u56fd\u5730\u65b9\u6574\u5099\u5c40\u5ca1\u5c71\u6cb3\u5ddd\u4e8b\u52d9\u6240","boring_xml_url":40,"boring_view_url":1,"soilmap_view_url":null,"soiltest_xml_url":0,"soiltest_view_url":0},{"id":189859,"code":"B4KJ201801007-8108","latitude":"34.6453231","longitude":"134.0114517","source_code":"CG51347071004","project_name":"","survey_name":"\u7802\u5ddd\u5830\u5730\u8cea\u8abf\u67fb\u696d\u52d9","client_name":"\u56fd\u571f\u4ea4\u901a\u7701\u4e2d\u56fd\u5730\u65b9\u6574\u5099\u5c40\u5ca1\u5c71\u6cb3\u5ddd\u4e8b\u52d9\u6240","boring_xml_url":40,"boring_view_url":1,"soilmap_view_url":null,"soiltest_xml_url":0,"soiltest_view_url":0},{"id":189858,"code":"B4KJ201801007-8107","latitude":"34.6455731","longitude":"134.0111739","source_code":"CG51347071003","project_name":"","survey_name":"\u7802\u5ddd\u5830\u5730\u8cea\u8abf\u67fb\u696d\u52d9","client_name":"\u56fd\u571f\u4ea4\u901a\u7701\u4e2d\u56fd\u5730\u65b9\u6574\u5099\u5c40\u5ca1\u5c71\u6cb3\u5ddd\u4e8b\u52d9\u6240","boring_xml_url":40,"boring_view_url":1,"soilmap_view_url":null,"soiltest_xml_url":0,"soiltest_view_url":0},{"id":189857,"code":"B4KJ201801007-8106","latitude":"34.645795","longitude":"134.0110353","source_code":"CG51347071002","project_name":"","survey_name":"\u7802\u5ddd\u5830\u5730\u8cea\u8abf\u67fb\u696d\u52d9","client_name":"\u56fd\u571f\u4ea4\u901a\u7701\u4e2d\u56fd\u5730\u65b9\u6574\u5099\u5c40\u5ca1\u5c71\u6cb3\u5ddd\u4e8b\u52d9\u6240","boring_xml_url":40,"boring_view_url":1,"soilmap_view_url":null,"soiltest_xml_url":0,"soiltest_view_url":0},{"id":189856,"code":"B4KJ201801007-8105","latitude":"34.6460172","longitude":"134.0107575","source_code":"CG51347071001","project_name":"","survey_name":"\u7802\u5ddd\u5830\u5730\u8cea\u8abf\u67fb\u696d\u52d9","client_name":"\u56fd\u571f\u4ea4\u901a\u7701\u4e2d\u56fd\u5730\u65b9\u6574\u5099\u5c40\u5ca1\u5c71\u6cb3\u5ddd\u4e8b\u52d9\u6240","boring_xml_url":40,"boring_view_url":1,"soilmap_view_url":null,"soiltest_xml_url":0,"soiltest_view_url":0},{"id":189855,"code":"B4KJ201801007-8104","latitude":"34.6454894","longitude":"134.0093408","source_code":"CG51347070002","project_name":"","survey_name":"\u65ed\u5ddd\u653e\u6c34\u8def\u5730\u8cea\u8abf\u67fb\u696d\u52d9","client_name":"\u56fd\u571f\u4ea4\u901a\u7701\u4e2d\u56fd\u5730\u65b9\u6574\u5099\u5c40\u5ca1\u5c71\u6cb3\u5ddd\u4e8b\u52d9\u6240","boring_xml_url":40,"boring_view_url":1,"soilmap_view_url":null,"soiltest_xml_url":0,"soiltest_view_url":0},{"id":189854,"code":"B4KJ201801007-8103","latitude":"34.6455728","longitude":"134.0093131","source_code":"CG51347070001","project_name":"","survey_name":"\u7802\u5ddd\u30b5\u30a4\u30d5\u30a9\u30f3\u5730\u8cea\u8abf\u67fb\u696d\u52d9","client_name":"\u56fd\u571f\u4ea4\u901a\u7701\u4e2d\u56fd\u5730\u65b9\u6574\u5099\u5c40\u5ca1\u5c71\u6cb3\u5ddd\u4e8b\u52d9\u6240","boring_xml_url":40,"boring_view_url":1,"soilmap_view_url":null,"soiltest_xml_url":0,"soiltest_view_url":0},{"id":189853,"code":"B4KJ201801007-8102","latitude":"34.63663","longitude":"134.0340333","source_code":"CG51347062008","project_name":"","survey_name":"\u5343\u7530\u5730\u533a\u5730\u8cea\u8abf\u67fb","client_name":"\u56fd\u571f\u4ea4\u901a\u7701\u4e2d\u56fd\u5730\u65b9\u6574\u5099\u5c40\u5ca1\u5c71\u6cb3\u5ddd\u4e8b\u52d9\u6240","boring_xml_url":40,"boring_view_url":1,"soilmap_view_url":null,"soiltest_xml_url":0,"soiltest_view_url":0},{"id":189852,"code":"B4KJ201801007-8101","latitude":"34.6386297","longitude":"134.0288117","source_code":"CG51347062007","project_name":"","survey_name":"\u91d1\u5ca1\u5730\u533a\u8a66\u9310\u8abf\u67fb","client_name":"\u56fd\u571f\u4ea4\u901a\u7701\u4e2d\u56fd\u5730\u65b9\u6574\u5099\u5c40\u5ca1\u5c71\u6cb3\u5ddd\u4e8b\u52d9\u6240","boring_xml_url":40,"boring_view_url":1,"soilmap_view_url":null,"soiltest_xml_url":0,"soiltest_view_url":0},{"id":189851,"code":"B4KJ201801007-8100","latitude":"34.6381297","longitude":"134.0289228","source_code":"CG51347062006","project_name":"","survey_name":"\u91d1\u5ca1\u5730\u533a\u8a66\u9310\u8abf\u67fb","client_name":"\u56fd\u571f\u4ea4\u901a\u7701\u4e2d\u56fd\u5730\u65b9\u6574\u5099\u5c40\u5ca1\u5c71\u6cb3\u5ddd\u4e8b\u52d9\u6240","boring_xml_url":40,"boring_view_url":1,"soilmap_view_url":null,"soiltest_xml_url":0,"soiltest_view_url":0},{"id":189850,"code":"B4KJ201801007-8099","latitude":"34.6381853","longitude":"134.0286172","source_code":"CG51347062005","project_name":"","survey_name":"\u91d1\u5ca1\u5730\u533a\u8a66\u9310\u8abf\u67fb","client_name":"\u56fd\u571f\u4ea4\u901a\u7701\u4e2d\u56fd\u5730\u65b9\u6574\u5099\u5c40\u5ca1\u5c71\u6cb3\u5ddd\u4e8b\u52d9\u6240","boring_xml_url":40,"boring_view_url":1,"soilmap_view_url":null,"soiltest_xml_url":0,"soiltest_view_url":0},{"id":189849,"code":"B4KJ201801007-8098","latitude":"34.6375186","longitude":"134.0289228","source_code":"CG51347062004","project_name":"","survey_name":"\u91d1\u5ca1\u5730\u533a\u8a66\u9310\u8abf\u67fb","client_name":"\u56fd\u571f\u4ea4\u901a\u7701\u4e2d\u56fd\u5730\u65b9\u6574\u5099\u5c40\u5ca1\u5c71\u6cb3\u5ddd\u4e8b\u52d9\u6240","boring_xml_url":40,"boring_view_url":1,"soilmap_view_url":null,"soiltest_xml_url":0,"soiltest_view_url":0},{"id":189848,"code":"B4KJ201801007-8097","latitude":"34.6367967","longitude":"134.0289506","source_code":"CG51347062003","project_name":"","survey_name":"\u91d1\u5ca1\u5730\u533a\u8a66\u9310\u8abf\u67fb","client_name":"\u56fd\u571f\u4ea4\u901a\u7701\u4e2d\u56fd\u5730\u65b9\u6574\u5099\u5c40\u5ca1\u5c71\u6cb3\u5ddd\u4e8b\u52d9\u6240","boring_xml_url":40,"boring_view_url":1,"soilmap_view_url":null,"soiltest_xml_url":0,"soiltest_view_url":0},{"id":189847,"code":"B4KJ201801007-8096","latitude":"34.6368244","longitude":"134.028645","source_code":"CG51347062002","project_name":"","survey_name":"\u91d1\u5ca1\u5730\u533a\u8a66\u9310\u8abf\u67fb","client_name":"\u56fd\u571f\u4ea4\u901a\u7701\u4e2d\u56fd\u5730\u65b9\u6574\u5099\u5c40\u5ca1\u5c71\u6cb3\u5ddd\u4e8b\u52d9\u6240","boring_xml_url":40,"boring_view_url":1,"soilmap_view_url":null,"soiltest_xml_url":0,"soiltest_view_url":0},{"id":189846,"code":"B4KJ201801007-8095","latitude":"34.6372133","longitude":"134.0345333","source_code":"CG51347062001","project_name":"","survey_name":"\u4e59\u5b50\u5730\u533a\u59161\u4ef6\u571f\u8cea\u8abf\u67fb(\u4e59\u5b50\u7b87\u6240,\u5c0f\u91ce\u7530\u5ddd\u7b87\u6240)","client_name":"\u56fd\u571f\u4ea4\u901a\u7701\u4e2d\u56fd\u5730\u65b9\u6574\u5099\u5c40\u5ca1\u5c71\u6cb3\u5ddd\u4e8b\u52d9\u6240","boring_xml_url":40,"boring_view_url":1,"soilmap_view_url":null,"soiltest_xml_url":0,"soiltest_view_url":0},{"id":189845,"code":"B4KJ201801007-8094","latitude":"34.64149","longitude":"134.0136461","source_code":"CG51347061007","project_name":"","survey_name":"\u541b\u6d25\u30b8\u30e3\u30f3\u30af\u30b7\u30e7\u30f3\u5730\u8cea\u8abf\u67fb\u696d\u52d9","client_name":"\u56fd\u571f\u4ea4\u901a\u7701\u4e2d\u56fd\u5730\u65b9\u6574\u5099\u5c40\u5ca1\u5c71\u56fd\u9053\u4e8b\u52d9\u6240","boring_xml_url":40,"boring_view_url":1,"soilmap_view_url":null,"soiltest_xml_url":0,"soiltest_view_url":0},{"id":189844,"code":"B4KJ201801007-8093","latitude":"34.6419067","longitude":"134.0129239","source_code":"CG51347061006","project_name":"","survey_name":"\u541b\u6d25\u30b8\u30e3\u30f3\u30af\u30b7\u30e7\u30f3\u5730\u8cea\u8abf\u67fb\u696d\u52d9","client_name":"\u56fd\u571f\u4ea4\u901a\u7701\u4e2d\u56fd\u5730\u65b9\u6574\u5099\u5c40\u5ca1\u5c71\u56fd\u9053\u4e8b\u52d9\u6240","boring_xml_url":40,"boring_view_url":1,"soilmap_view_url":null,"soiltest_xml_url":0,"soiltest_view_url":0},{"id":189843,"code":"B4KJ201801007-8092","latitude":"34.64299","longitude":"134.0156736","source_code":"CG51347061005","project_name":"","survey_name":"\u4e2d\u91ce\u6e2c\u91cf\u5730\u8cea\u8abf\u67fb","client_name":"\u56fd\u571f\u4ea4\u901a\u7701\u4e2d\u56fd\u5730\u65b9\u6574\u5099\u5c40\u5ca1\u5c71\u56fd\u9053\u4e8b\u52d9\u6240","boring_xml_url":40,"boring_view_url":1,"soilmap_view_url":null,"soiltest_xml_url":0,"soiltest_view_url":0},{"id":189842,"code":"B4KJ201801007-8091","latitude":"34.6446842","longitude":"134.0173681","source_code":"CG51347061004","project_name":"","survey_name":"\u91d1\u5ca1\u5730\u533a\u65bd\u5de5\u8a08\u753b\u696d\u52d9","client_name":"\u56fd\u571f\u4ea4\u901a\u7701\u4e2d\u56fd\u5730\u65b9\u6574\u5099\u5c40\u5ca1\u5c71\u56fd\u9053\u4e8b\u52d9\u6240","boring_xml_url":40,"boring_view_url":1,"soilmap_view_url":null,"soiltest_xml_url":0,"soiltest_view_url":0},{"id":189841,"code":"B4KJ201801007-8090","latitude":"34.6444342","longitude":"134.0176736","source_code":"CG51347061002","project_name":"","survey_name":"\u897f\u5927\u5bfa\u5730\u533a\u65bd\u5de5\u8a08\u753b\u696d\u52d9","client_name":"\u56fd\u571f\u4ea4\u901a\u7701\u4e2d\u56fd\u5730\u65b9\u6574\u5099\u5c40\u5ca1\u5c71\u56fd\u9053\u4e8b\u52d9\u6240","boring_xml_url":40,"boring_view_url":1,"soilmap_view_url":null,"soiltest_xml_url":0,"soiltest_view_url":0},{"id":189840,"code":"B4KJ201801007-8089","latitude":"34.6425178","longitude":"134.0150628","source_code":"CG51347061001","project_name":"","survey_name":"\u897f\u5927\u5bfa\u5730\u533a\u65bd\u5de5\u8a08\u753b\u696d\u52d9","client_name":"\u56fd\u571f\u4ea4\u901a\u7701\u4e2d\u56fd\u5730\u65b9\u6574\u5099\u5c40\u5ca1\u5c71\u56fd\u9053\u4e8b\u52d9\u6240","boring_xml_url":40,"boring_view_url":1,"soilmap_view_url":null,"soiltest_xml_url":0,"soiltest_view_url":0},{"id":189839,"code":"B4KJ201801007-8088","latitude":"34.644045","longitude":"133.9973142","source_code":"CG51347060029","project_name":"","survey_name":"\u5ca1\u5c71\u4e09\u5ddd\u6e2c\u91cf\u8a2d\u8a08(\u305d\u306e2)\u696d\u52d9","client_name":"\u56fd\u571f\u4ea4\u901a\u7701\u4e2d\u56fd\u5730\u65b9\u6574\u5099\u5c40\u5ca1\u5c71\u6cb3\u5ddd\u4e8b\u52d9\u6240","boring_xml_url":40,"boring_view_url":1,"soilmap_view_url":null,"soiltest_xml_url":0,"soiltest_view_url":0},{"id":189838,"code":"B4KJ201801007-8087","latitude":"34.6434064","longitude":"134.0037303","source_code":"CG51347060026","project_name":"","survey_name":"\u5951\u7b2c14\u53f7\u5ca1\u5c71\u4e09\u5ddd\u6e2c\u91cf\u8a2d\u8a08\u696d\u52d9","client_name":"\u56fd\u571f\u4ea4\u901a\u7701\u4e2d\u56fd\u5730\u65b9\u6574\u5099\u5c40\u5ca1\u5c71\u6cb3\u5ddd\u4e8b\u52d9\u6240","boring_xml_url":40,"boring_view_url":1,"soilmap_view_url":null,"soiltest_xml_url":0,"soiltest_view_url":0},{"id":189837,"code":"B4KJ201801007-8086","latitude":"34.6430731","longitude":"134.0035914","source_code":"CG51347060025","project_name":"","survey_name":"\u5951\u7b2c14\u53f7\u5ca1\u5c71\u4e09\u5ddd\u6e2c\u91cf\u8a2d\u8a08\u696d\u52d9","client_name":"\u56fd\u571f\u4ea4\u901a\u7701\u4e2d\u56fd\u5730\u65b9\u6574\u5099\u5c40\u5ca1\u5c71\u6cb3\u5ddd\u4e8b\u52d9\u6240","boring_xml_url":40,"boring_view_url":1,"soilmap_view_url":null,"soiltest_xml_url":0,"soiltest_view_url":0},{"id":189836,"code":"B4KJ201801007-8085","latitude":"34.6428508","longitude":"134.0033136","source_code":"CG51347060024","project_name":"","survey_name":"\u5951\u7b2c14\u53f7\u5ca1\u5c71\u4e09\u5ddd\u6e2c\u91cf\u8a2d\u8a08\u696d\u52d9","client_name":"\u56fd\u571f\u4ea4\u901a\u7701\u4e2d\u56fd\u5730\u65b9\u6574\u5099\u5c40\u5ca1\u5c71\u6cb3\u5ddd\u4e8b\u52d9\u6240","boring_xml_url":40,"boring_view_url":1,"soilmap_view_url":null,"soiltest_xml_url":0,"soiltest_view_url":0}]}}