{"header":{"xyz":{"source":[],"mosaic":false},"page":437,"raw":{"soiltest_result":"0","bbox":"57.598333,109.544722,1.933333,163.806111","page":"437"},"conditions":{"soiltest_result":0,"north":57.598333,"west":109.544722,"south":1.933333,"east":163.806111},"success":true,"message":""},"data":{"meta":{"total":212844,"page":437,"pages":7095,"count":30},"values":[{"id":532308,"code":"B4KJ202201003-4844","latitude":"33.169139","longitude":"131.634944","source_code":"QS20178960410200090004","project_name":"","survey_name":"\u5927\u520610\u53f7\u9ad8\u6c5f\u62e1\u5e45\u5730\u8cea\u8abf\u67fb\u696d\u52d9","client_name":"\u4e5d\u5dde\u5730\u65b9\u6574\u5099\u5c40\u3000\u5927\u5206\u6cb3\u5ddd\u56fd\u9053\u4e8b\u52d9\u6240","boring_xml_url":72,"boring_view_url":1,"soilmap_view_url":null,"soiltest_xml_url":0,"soiltest_view_url":0},{"id":532307,"code":"B4KJ202201003-4843","latitude":"33.169139","longitude":"131.634944","source_code":"QS20178960410200090003","project_name":"","survey_name":"\u5927\u520610\u53f7\u9ad8\u6c5f\u62e1\u5e45\u5730\u8cea\u8abf\u67fb\u696d\u52d9","client_name":"\u4e5d\u5dde\u5730\u65b9\u6574\u5099\u5c40\u3000\u5927\u5206\u6cb3\u5ddd\u56fd\u9053\u4e8b\u52d9\u6240","boring_xml_url":72,"boring_view_url":1,"soilmap_view_url":null,"soiltest_xml_url":0,"soiltest_view_url":0},{"id":532306,"code":"B4KJ202201003-4842","latitude":"33.168806","longitude":"131.634556","source_code":"QS20178960410200090002","project_name":"","survey_name":"\u5927\u520610\u53f7\u9ad8\u6c5f\u62e1\u5e45\u5730\u8cea\u8abf\u67fb\u696d\u52d9","client_name":"\u4e5d\u5dde\u5730\u65b9\u6574\u5099\u5c40\u3000\u5927\u5206\u6cb3\u5ddd\u56fd\u9053\u4e8b\u52d9\u6240","boring_xml_url":72,"boring_view_url":1,"soilmap_view_url":null,"soiltest_xml_url":0,"soiltest_view_url":0},{"id":532305,"code":"B4KJ202201003-4841","latitude":"33.168806","longitude":"131.634556","source_code":"QS20178960410200090001","project_name":"","survey_name":"\u5927\u520610\u53f7\u9ad8\u6c5f\u62e1\u5e45\u5730\u8cea\u8abf\u67fb\u696d\u52d9","client_name":"\u4e5d\u5dde\u5730\u65b9\u6574\u5099\u5c40\u3000\u5927\u5206\u6cb3\u5ddd\u56fd\u9053\u4e8b\u52d9\u6240","boring_xml_url":72,"boring_view_url":1,"soilmap_view_url":null,"soiltest_xml_url":0,"soiltest_view_url":0},{"id":532304,"code":"B4KJ202201003-4840","latitude":"33.464406","longitude":"131.175675","source_code":"QS20178960410200080012","project_name":"","survey_name":"\u5927\u5206212\u53f7\u4e09\u5149\u672c\u8036\u99ac\u6eaa\u9053\u8def\u6298\u5143\u5730\u533a\u5730\u8cea\u8abf\u67fb\u696d\u52d9","client_name":"\u56fd\u571f\u4ea4\u901a\u7701\u3000\u4e5d\u5dde\u5730\u65b9\u6574\u5099\u5c40\u3000\u5927\u5206\u6cb3\u5ddd\u56fd\u9053\u4e8b\u52d9\u6240","boring_xml_url":72,"boring_view_url":1,"soilmap_view_url":null,"soiltest_xml_url":0,"soiltest_view_url":0},{"id":532303,"code":"B4KJ202201003-4839","latitude":"33.464492","longitude":"131.175786","source_code":"QS20178960410200080011","project_name":"","survey_name":"\u5927\u5206212\u53f7\u4e09\u5149\u672c\u8036\u99ac\u6eaa\u9053\u8def\u6298\u5143\u5730\u533a\u5730\u8cea\u8abf\u67fb\u696d\u52d9","client_name":"\u56fd\u571f\u4ea4\u901a\u7701\u3000\u4e5d\u5dde\u5730\u65b9\u6574\u5099\u5c40\u3000\u5927\u5206\u6cb3\u5ddd\u56fd\u9053\u4e8b\u52d9\u6240","boring_xml_url":72,"boring_view_url":1,"soilmap_view_url":null,"soiltest_xml_url":0,"soiltest_view_url":0},{"id":532302,"code":"B4KJ202201003-4838","latitude":"33.464683","longitude":"131.175594","source_code":"QS20178960410200080010","project_name":"","survey_name":"\u5927\u5206212\u53f7\u4e09\u5149\u672c\u8036\u99ac\u6eaa\u9053\u8def\u6298\u5143\u5730\u533a\u5730\u8cea\u8abf\u67fb\u696d\u52d9","client_name":"\u56fd\u571f\u4ea4\u901a\u7701\u3000\u4e5d\u5dde\u5730\u65b9\u6574\u5099\u5c40\u3000\u5927\u5206\u6cb3\u5ddd\u56fd\u9053\u4e8b\u52d9\u6240","boring_xml_url":72,"boring_view_url":1,"soilmap_view_url":null,"soiltest_xml_url":0,"soiltest_view_url":0},{"id":532301,"code":"B4KJ202201003-4837","latitude":"33.464783","longitude":"131.175669","source_code":"QS20178960410200080009","project_name":"","survey_name":"\u5927\u5206212\u53f7\u4e09\u5149\u672c\u8036\u99ac\u6eaa\u9053\u8def\u6298\u5143\u5730\u533a\u5730\u8cea\u8abf\u67fb\u696d\u52d9","client_name":"\u56fd\u571f\u4ea4\u901a\u7701\u3000\u4e5d\u5dde\u5730\u65b9\u6574\u5099\u5c40\u3000\u5927\u5206\u6cb3\u5ddd\u56fd\u9053\u4e8b\u52d9\u6240","boring_xml_url":72,"boring_view_url":1,"soilmap_view_url":null,"soiltest_xml_url":0,"soiltest_view_url":0},{"id":532300,"code":"B4KJ202201003-4836","latitude":"33.464972","longitude":"131.175478","source_code":"QS20178960410200080008","project_name":"","survey_name":"\u5927\u5206212\u53f7\u4e09\u5149\u672c\u8036\u99ac\u6eaa\u9053\u8def\u6298\u5143\u5730\u533a\u5730\u8cea\u8abf\u67fb\u696d\u52d9","client_name":"\u56fd\u571f\u4ea4\u901a\u7701\u3000\u4e5d\u5dde\u5730\u65b9\u6574\u5099\u5c40\u3000\u5927\u5206\u6cb3\u5ddd\u56fd\u9053\u4e8b\u52d9\u6240","boring_xml_url":72,"boring_view_url":1,"soilmap_view_url":null,"soiltest_xml_url":0,"soiltest_view_url":0},{"id":532299,"code":"B4KJ202201003-4835","latitude":"33.465058","longitude":"131.175564","source_code":"QS20178960410200080007","project_name":"","survey_name":"\u5927\u5206212\u53f7\u4e09\u5149\u672c\u8036\u99ac\u6eaa\u9053\u8def\u6298\u5143\u5730\u533a\u5730\u8cea\u8abf\u67fb\u696d\u52d9","client_name":"\u56fd\u571f\u4ea4\u901a\u7701\u3000\u4e5d\u5dde\u5730\u65b9\u6574\u5099\u5c40\u3000\u5927\u5206\u6cb3\u5ddd\u56fd\u9053\u4e8b\u52d9\u6240","boring_xml_url":72,"boring_view_url":1,"soilmap_view_url":null,"soiltest_xml_url":0,"soiltest_view_url":0},{"id":532298,"code":"B4KJ202201003-4834","latitude":"33.465281","longitude":"131.175483","source_code":"QS20178960410200080006","project_name":"","survey_name":"\u5927\u5206212\u53f7\u4e09\u5149\u672c\u8036\u99ac\u6eaa\u9053\u8def\u6298\u5143\u5730\u533a\u5730\u8cea\u8abf\u67fb\u696d\u52d9","client_name":"\u56fd\u571f\u4ea4\u901a\u7701\u3000\u4e5d\u5dde\u5730\u65b9\u6574\u5099\u5c40\u3000\u5927\u5206\u6cb3\u5ddd\u56fd\u9053\u4e8b\u52d9\u6240","boring_xml_url":72,"boring_view_url":1,"soilmap_view_url":null,"soiltest_xml_url":0,"soiltest_view_url":0},{"id":532297,"code":"B4KJ202201003-4833","latitude":"33.465314","longitude":"131.175356","source_code":"QS20178960410200080005","project_name":"","survey_name":"\u5927\u5206212\u53f7\u4e09\u5149\u672c\u8036\u99ac\u6eaa\u9053\u8def\u6298\u5143\u5730\u533a\u5730\u8cea\u8abf\u67fb\u696d\u52d9","client_name":"\u56fd\u571f\u4ea4\u901a\u7701\u3000\u4e5d\u5dde\u5730\u65b9\u6574\u5099\u5c40\u3000\u5927\u5206\u6cb3\u5ddd\u56fd\u9053\u4e8b\u52d9\u6240","boring_xml_url":72,"boring_view_url":1,"soilmap_view_url":null,"soiltest_xml_url":0,"soiltest_view_url":0},{"id":532296,"code":"B4KJ202201003-4832","latitude":"33.465533","longitude":"131.175289","source_code":"QS20178960410200080004","project_name":"","survey_name":"\u5927\u5206212\u53f7\u4e09\u5149\u672c\u8036\u99ac\u6eaa\u9053\u8def\u6298\u5143\u5730\u533a\u5730\u8cea\u8abf\u67fb\u696d\u52d9","client_name":"\u56fd\u571f\u4ea4\u901a\u7701\u3000\u4e5d\u5dde\u5730\u65b9\u6574\u5099\u5c40\u3000\u5927\u5206\u6cb3\u5ddd\u56fd\u9053\u4e8b\u52d9\u6240","boring_xml_url":72,"boring_view_url":1,"soilmap_view_url":null,"soiltest_xml_url":0,"soiltest_view_url":0},{"id":532295,"code":"B4KJ202201003-4831","latitude":"33.465628","longitude":"131.175353","source_code":"QS20178960410200080003","project_name":"","survey_name":"\u5927\u5206212\u53f7\u4e09\u5149\u672c\u8036\u99ac\u6eaa\u9053\u8def\u6298\u5143\u5730\u533a\u5730\u8cea\u8abf\u67fb\u696d\u52d9","client_name":"\u56fd\u571f\u4ea4\u901a\u7701\u3000\u4e5d\u5dde\u5730\u65b9\u6574\u5099\u5c40\u3000\u5927\u5206\u6cb3\u5ddd\u56fd\u9053\u4e8b\u52d9\u6240","boring_xml_url":72,"boring_view_url":1,"soilmap_view_url":null,"soiltest_xml_url":0,"soiltest_view_url":0},{"id":532294,"code":"B4KJ202201003-4830","latitude":"33.465775","longitude":"131.175175","source_code":"QS20178960410200080002","project_name":"","survey_name":"\u5927\u5206212\u53f7\u4e09\u5149\u672c\u8036\u99ac\u6eaa\u9053\u8def\u6298\u5143\u5730\u533a\u5730\u8cea\u8abf\u67fb\u696d\u52d9","client_name":"\u56fd\u571f\u4ea4\u901a\u7701\u3000\u4e5d\u5dde\u5730\u65b9\u6574\u5099\u5c40\u3000\u5927\u5206\u6cb3\u5ddd\u56fd\u9053\u4e8b\u52d9\u6240","boring_xml_url":72,"boring_view_url":1,"soilmap_view_url":null,"soiltest_xml_url":0,"soiltest_view_url":0},{"id":532293,"code":"B4KJ202201003-4829","latitude":"33.465883","longitude":"131.175289","source_code":"QS20178960410200080001","project_name":"","survey_name":"\u5927\u5206212\u53f7\u4e09\u5149\u672c\u8036\u99ac\u6eaa\u9053\u8def\u6298\u5143\u5730\u533a\u5730\u8cea\u8abf\u67fb\u696d\u52d9","client_name":"\u56fd\u571f\u4ea4\u901a\u7701\u3000\u4e5d\u5dde\u5730\u65b9\u6574\u5099\u5c40\u3000\u5927\u5206\u6cb3\u5ddd\u56fd\u9053\u4e8b\u52d9\u6240","boring_xml_url":72,"boring_view_url":1,"soilmap_view_url":null,"soiltest_xml_url":0,"soiltest_view_url":0},{"id":532292,"code":"B4KJ202201003-4828","latitude":"32.994621","longitude":"130.42828","source_code":"QS20178950410200250006","project_name":"\u6709\u660e\u6d77\u6cbf\u5cb8\u9053\u8def\u3000\u5927\u5cf6\u9ad8\u67b6\u6a4b\uff08\u5927\u5cf6\u5730\u533a\uff09\u5730\u8cea\u8abf\u67fb\u696d\u52d9","survey_name":"\u6709\u660e\u6d77\u6cbf\u5cb8\u9053\u8def\u3000\u5927\u5cf6\u9ad8\u67b6\u6a4b\uff08\u5927\u5cf6\u5730\u533a\uff09\u5730\u8cea\u8abf\u67fb\u696d\u52d9","client_name":"\"\u56fd\u9053\u4ea4\u901a\u7701 \u4e5d\u5dde\u5730\u65b9\u6574\u5099\u5c40 \u718a\u672c\u6cb3\u5ddd\u56fd\u9053\u4e8b\u52d9\u6240\"","boring_xml_url":72,"boring_view_url":1,"soilmap_view_url":null,"soiltest_xml_url":0,"soiltest_view_url":0},{"id":532291,"code":"B4KJ202201003-4827","latitude":"32.995116","longitude":"130.42832","source_code":"QS20178950410200250005","project_name":"\u6709\u660e\u6d77\u6cbf\u5cb8\u9053\u8def\u3000\u5927\u5cf6\u9ad8\u67b6\u6a4b\uff08\u5927\u5cf6\u5730\u533a\uff09\u5730\u8cea\u8abf\u67fb\u696d\u52d9","survey_name":"\u6709\u660e\u6d77\u6cbf\u5cb8\u9053\u8def\u3000\u5927\u5cf6\u9ad8\u67b6\u6a4b\uff08\u5927\u5cf6\u5730\u533a\uff09\u5730\u8cea\u8abf\u67fb\u696d\u52d9","client_name":"\"\u56fd\u9053\u4ea4\u901a\u7701 \u4e5d\u5dde\u5730\u65b9\u6574\u5099\u5c40 \u718a\u672c\u6cb3\u5ddd\u56fd\u9053\u4e8b\u52d9\u6240\"","boring_xml_url":72,"boring_view_url":1,"soilmap_view_url":null,"soiltest_xml_url":0,"soiltest_view_url":0},{"id":532290,"code":"B4KJ202201003-4826","latitude":"32.996011","longitude":"130.428087","source_code":"QS20178950410200250004","project_name":"\u6709\u660e\u6d77\u6cbf\u5cb8\u9053\u8def\u3000\u5927\u5cf6\u9ad8\u67b6\u6a4b\uff08\u5927\u5cf6\u5730\u533a\uff09\u5730\u8cea\u8abf\u67fb\u696d\u52d9","survey_name":"\u6709\u660e\u6d77\u6cbf\u5cb8\u9053\u8def\u3000\u5927\u5cf6\u9ad8\u67b6\u6a4b\uff08\u5927\u5cf6\u5730\u533a\uff09\u5730\u8cea\u8abf\u67fb\u696d\u52d9","client_name":"\"\u56fd\u9053\u4ea4\u901a\u7701 \u4e5d\u5dde\u5730\u65b9\u6574\u5099\u5c40 \u718a\u672c\u6cb3\u5ddd\u56fd\u9053\u4e8b\u52d9\u6240\"","boring_xml_url":72,"boring_view_url":1,"soilmap_view_url":null,"soiltest_xml_url":0,"soiltest_view_url":0},{"id":532289,"code":"B4KJ202201003-4825","latitude":"32.996133","longitude":"130.428044","source_code":"QS20178950410200250003","project_name":"\u6709\u660e\u6d77\u6cbf\u5cb8\u9053\u8def\u3000\u5927\u5cf6\u9ad8\u67b6\u6a4b\uff08\u5927\u5cf6\u5730\u533a\uff09\u5730\u8cea\u8abf\u67fb\u696d\u52d9","survey_name":"\u6709\u660e\u6d77\u6cbf\u5cb8\u9053\u8def\u3000\u5927\u5cf6\u9ad8\u67b6\u6a4b\uff08\u5927\u5cf6\u5730\u533a\uff09\u5730\u8cea\u8abf\u67fb\u696d\u52d9","client_name":"\"\u56fd\u9053\u4ea4\u901a\u7701 \u4e5d\u5dde\u5730\u65b9\u6574\u5099\u5c40 \u718a\u672c\u6cb3\u5ddd\u56fd\u9053\u4e8b\u52d9\u6240\"","boring_xml_url":72,"boring_view_url":1,"soilmap_view_url":null,"soiltest_xml_url":0,"soiltest_view_url":0},{"id":532288,"code":"B4KJ202201003-4824","latitude":"32.996794","longitude":"130.427742","source_code":"QS20178950410200250002","project_name":"\u6709\u660e\u6d77\u6cbf\u5cb8\u9053\u8def\u3000\u5927\u5cf6\u9ad8\u67b6\u6a4b\uff08\u5927\u5cf6\u5730\u533a\uff09\u5730\u8cea\u8abf\u67fb\u696d\u52d9","survey_name":"\u6709\u660e\u6d77\u6cbf\u5cb8\u9053\u8def\u3000\u5927\u5cf6\u9ad8\u67b6\u6a4b\uff08\u5927\u5cf6\u5730\u533a\uff09\u5730\u8cea\u8abf\u67fb\u696d\u52d9","client_name":"\"\u56fd\u9053\u4ea4\u901a\u7701 \u4e5d\u5dde\u5730\u65b9\u6574\u5099\u5c40 \u718a\u672c\u6cb3\u5ddd\u56fd\u9053\u4e8b\u52d9\u6240\"","boring_xml_url":72,"boring_view_url":1,"soilmap_view_url":null,"soiltest_xml_url":0,"soiltest_view_url":0},{"id":532287,"code":"B4KJ202201003-4823","latitude":"32.996825","longitude":"130.427589","source_code":"QS20178950410200250001","project_name":"\u6709\u660e\u6d77\u6cbf\u5cb8\u9053\u8def\u3000\u5927\u5cf6\u9ad8\u67b6\u6a4b\uff08\u5927\u5cf6\u5730\u533a\uff09\u5730\u8cea\u8abf\u67fb\u696d\u52d9","survey_name":"\u6709\u660e\u6d77\u6cbf\u5cb8\u9053\u8def\u3000\u5927\u5cf6\u9ad8\u67b6\u6a4b\uff08\u5927\u5cf6\u5730\u533a\uff09\u5730\u8cea\u8abf\u67fb\u696d\u52d9","client_name":"\"\u56fd\u9053\u4ea4\u901a\u7701 \u4e5d\u5dde\u5730\u65b9\u6574\u5099\u5c40 \u718a\u672c\u6cb3\u5ddd\u56fd\u9053\u4e8b\u52d9\u6240\"","boring_xml_url":72,"boring_view_url":1,"soilmap_view_url":null,"soiltest_xml_url":0,"soiltest_view_url":0},{"id":532286,"code":"B4KJ202201003-4822","latitude":"32.686416","longitude":"130.599683","source_code":"QS20178950410200190014","project_name":"\u5b87\u571f\u9053\u8def\u4e8b\u696d","survey_name":"\"\u56fd\u905357\u53f7\u5b87\u571f\u9053\u8def \u6a4b\u6881\u5730\u8cea\u8abf\u67fb\u696d\u52d9\"","client_name":"\u56fd\u571f\u4ea4\u901a\u7701\u4e5d\u5dde\u5730\u65b9\u6574\u5099\u5c40\u718a\u672c\u6cb3\u5ddd\u56fd\u9053\u4e8b\u52d9\u6240","boring_xml_url":72,"boring_view_url":1,"soilmap_view_url":null,"soiltest_xml_url":0,"soiltest_view_url":0},{"id":532285,"code":"B4KJ202201003-4821","latitude":"32.685347","longitude":"130.593909","source_code":"QS20178950410200190013","project_name":"\u5b87\u571f\u9053\u8def\u4e8b\u696d","survey_name":"\"\u56fd\u905357\u53f7\u5b87\u571f\u9053\u8def \u6a4b\u6881\u5730\u8cea\u8abf\u67fb\u696d\u52d9\"","client_name":"\u56fd\u571f\u4ea4\u901a\u7701\u4e5d\u5dde\u5730\u65b9\u6574\u5099\u5c40\u718a\u672c\u6cb3\u5ddd\u56fd\u9053\u4e8b\u52d9\u6240","boring_xml_url":72,"boring_view_url":1,"soilmap_view_url":null,"soiltest_xml_url":0,"soiltest_view_url":0},{"id":532284,"code":"B4KJ202201003-4820","latitude":"32.685459","longitude":"130.593992","source_code":"QS20178950410200190012","project_name":"\u5b87\u571f\u9053\u8def\u4e8b\u696d","survey_name":"\"\u56fd\u905357\u53f7\u5b87\u571f\u9053\u8def \u6a4b\u6881\u5730\u8cea\u8abf\u67fb\u696d\u52d9\"","client_name":"\u56fd\u571f\u4ea4\u901a\u7701\u4e5d\u5dde\u5730\u65b9\u6574\u5099\u5c40\u718a\u672c\u6cb3\u5ddd\u56fd\u9053\u4e8b\u52d9\u6240","boring_xml_url":72,"boring_view_url":1,"soilmap_view_url":null,"soiltest_xml_url":0,"soiltest_view_url":0},{"id":532283,"code":"B4KJ202201003-4819","latitude":"32.685466","longitude":"130.594567","source_code":"QS20178950410200190011","project_name":"\u5b87\u571f\u9053\u8def\u4e8b\u696d","survey_name":"\"\u56fd\u905357\u53f7\u5b87\u571f\u9053\u8def \u6a4b\u6881\u5730\u8cea\u8abf\u67fb\u696d\u52d9\"","client_name":"\u56fd\u571f\u4ea4\u901a\u7701\u4e5d\u5dde\u5730\u65b9\u6574\u5099\u5c40\u718a\u672c\u6cb3\u5ddd\u56fd\u9053\u4e8b\u52d9\u6240","boring_xml_url":72,"boring_view_url":1,"soilmap_view_url":null,"soiltest_xml_url":0,"soiltest_view_url":0},{"id":532282,"code":"B4KJ202201003-4818","latitude":"32.685414","longitude":"130.594702","source_code":"QS20178950410200190010","project_name":"\u5b87\u571f\u9053\u8def\u4e8b\u696d","survey_name":"\"\u56fd\u905357\u53f7\u5b87\u571f\u9053\u8def \u6a4b\u6881\u5730\u8cea\u8abf\u67fb\u696d\u52d9\"","client_name":"\u56fd\u571f\u4ea4\u901a\u7701\u4e5d\u5dde\u5730\u65b9\u6574\u5099\u5c40\u718a\u672c\u6cb3\u5ddd\u56fd\u9053\u4e8b\u52d9\u6240","boring_xml_url":72,"boring_view_url":1,"soilmap_view_url":null,"soiltest_xml_url":0,"soiltest_view_url":0},{"id":532281,"code":"B4KJ202201003-4817","latitude":"32.685863","longitude":"130.597074","source_code":"QS20178950410200190009","project_name":"\u5b87\u571f\u9053\u8def\u4e8b\u696d","survey_name":"\"\u56fd\u905357\u53f7\u5b87\u571f\u9053\u8def \u6a4b\u6881\u5730\u8cea\u8abf\u67fb\u696d\u52d9\"","client_name":"\u56fd\u571f\u4ea4\u901a\u7701\u4e5d\u5dde\u5730\u65b9\u6574\u5099\u5c40\u718a\u672c\u6cb3\u5ddd\u56fd\u9053\u4e8b\u52d9\u6240","boring_xml_url":72,"boring_view_url":1,"soilmap_view_url":null,"soiltest_xml_url":0,"soiltest_view_url":0},{"id":532280,"code":"B4KJ202201003-4816","latitude":"32.685893","longitude":"130.597713","source_code":"QS20178950410200190008","project_name":"\u5b87\u571f\u9053\u8def\u4e8b\u696d","survey_name":"\"\u56fd\u905357\u53f7\u5b87\u571f\u9053\u8def \u6a4b\u6881\u5730\u8cea\u8abf\u67fb\u696d\u52d9\"","client_name":"\u56fd\u571f\u4ea4\u901a\u7701\u4e5d\u5dde\u5730\u65b9\u6574\u5099\u5c40\u718a\u672c\u6cb3\u5ddd\u56fd\u9053\u4e8b\u52d9\u6240","boring_xml_url":72,"boring_view_url":1,"soilmap_view_url":null,"soiltest_xml_url":0,"soiltest_view_url":0},{"id":532279,"code":"B4KJ202201003-4815","latitude":"32.686063","longitude":"130.597796","source_code":"QS20178950410200190007","project_name":"\u5b87\u571f\u9053\u8def\u4e8b\u696d","survey_name":"\"\u56fd\u905357\u53f7\u5b87\u571f\u9053\u8def \u6a4b\u6881\u5730\u8cea\u8abf\u67fb\u696d\u52d9\"","client_name":"\u56fd\u571f\u4ea4\u901a\u7701\u4e5d\u5dde\u5730\u65b9\u6574\u5099\u5c40\u718a\u672c\u6cb3\u5ddd\u56fd\u9053\u4e8b\u52d9\u6240","boring_xml_url":72,"boring_view_url":1,"soilmap_view_url":null,"soiltest_xml_url":0,"soiltest_view_url":0}]}}