{"header":{"xyz":{"source":[],"mosaic":false},"page":4380,"raw":{"soiltest_result":"0","bbox":"57.598333,109.544722,1.933333,163.806111","page":"4380"},"conditions":{"soiltest_result":0,"north":57.598333,"west":109.544722,"south":1.933333,"east":163.806111},"success":true,"message":""},"data":{"meta":{"total":212844,"page":4380,"pages":7095,"count":30},"values":[{"id":189175,"code":"B4KJ201801007-7424","latitude":"34.5487706","longitude":"133.6548478","source_code":"CG51336552014","project_name":"","survey_name":"\u927e\u5cf6\u5730\u8cea\u8abf\u67fb\u696d\u52d9","client_name":"\u56fd\u571f\u4ea4\u901a\u7701\u4e2d\u56fd\u5730\u65b9\u6574\u5099\u5c40\u5ca1\u5c71\u56fd\u9053\u4e8b\u52d9\u6240","boring_xml_url":40,"boring_view_url":1,"soilmap_view_url":null,"soiltest_xml_url":0,"soiltest_view_url":0},{"id":189174,"code":"B4KJ201801007-7423","latitude":"34.5490483","longitude":"133.6554033","source_code":"CG51336552013","project_name":"","survey_name":"\u927e\u5cf6\u5730\u8cea\u8abf\u67fb\u696d\u52d9","client_name":"\u56fd\u571f\u4ea4\u901a\u7701\u4e2d\u56fd\u5730\u65b9\u6574\u5099\u5c40\u5ca1\u5c71\u56fd\u9053\u4e8b\u52d9\u6240","boring_xml_url":40,"boring_view_url":1,"soilmap_view_url":null,"soiltest_xml_url":0,"soiltest_view_url":0},{"id":189173,"code":"B4KJ201801007-7422","latitude":"34.5504372","longitude":"133.6568475","source_code":"CG51336552012","project_name":"","survey_name":"\u7389\u5cf6\u30d0\u30a4\u30d1\u30b9\u7b2c2\u5730\u8cea\u8abf\u67fb\u696d\u52d9","client_name":"\u56fd\u571f\u4ea4\u901a\u7701\u4e2d\u56fd\u5730\u65b9\u6574\u5099\u5c40\u5ca1\u5c71\u56fd\u9053\u4e8b\u52d9\u6240","boring_xml_url":40,"boring_view_url":1,"soilmap_view_url":null,"soiltest_xml_url":0,"soiltest_view_url":0},{"id":189172,"code":"B4KJ201801007-7421","latitude":"34.5516317","longitude":"133.6592361","source_code":"CG51336552011","project_name":"","survey_name":"\u7389\u5cf6\u30d0\u30a4\u30d1\u30b9\u7b2c2\u5730\u8cea\u8abf\u67fb\u696d\u52d9","client_name":"\u56fd\u571f\u4ea4\u901a\u7701\u4e2d\u56fd\u5730\u65b9\u6574\u5099\u5c40\u5ca1\u5c71\u56fd\u9053\u4e8b\u52d9\u6240","boring_xml_url":40,"boring_view_url":1,"soilmap_view_url":null,"soiltest_xml_url":0,"soiltest_view_url":0},{"id":189171,"code":"B4KJ201801007-7420","latitude":"34.5469931","longitude":"133.6550144","source_code":"CG51336552010","project_name":"","survey_name":"\u516b\u5cf6\u30fb\u963f\u8cc0\u5d0e\u65bd\u5de5\u8a08\u753b\u696d\u52d9\u5831\u544a\u66f8","client_name":"\u56fd\u571f\u4ea4\u901a\u7701\u4e2d\u56fd\u5730\u65b9\u6574\u5099\u5c40\u5ca1\u5c71\u56fd\u9053\u4e8b\u52d9\u6240","boring_xml_url":40,"boring_view_url":1,"soilmap_view_url":null,"soiltest_xml_url":0,"soiltest_view_url":0},{"id":189170,"code":"B4KJ201801007-7419","latitude":"34.5453544","longitude":"133.6519314","source_code":"CG51336552009","project_name":"","survey_name":"\u9053\u8d8a\u5730\u533a\u5730\u8cea\u8abf\u67fb\u696d\u52d9","client_name":"\u56fd\u571f\u4ea4\u901a\u7701\u4e2d\u56fd\u5730\u65b9\u6574\u5099\u5c40\u5ca1\u5c71\u56fd\u9053\u4e8b\u52d9\u6240","boring_xml_url":40,"boring_view_url":1,"soilmap_view_url":null,"soiltest_xml_url":0,"soiltest_view_url":0},{"id":189169,"code":"B4KJ201801007-7418","latitude":"34.5456597","longitude":"133.6523758","source_code":"CG51336552008","project_name":"","survey_name":"\u9053\u8d8a\u5730\u533a\u5730\u8cea\u8abf\u67fb\u696d\u52d9","client_name":"\u56fd\u571f\u4ea4\u901a\u7701\u4e2d\u56fd\u5730\u65b9\u6574\u5099\u5c40\u5ca1\u5c71\u56fd\u9053\u4e8b\u52d9\u6240","boring_xml_url":40,"boring_view_url":1,"soilmap_view_url":null,"soiltest_xml_url":0,"soiltest_view_url":0},{"id":189168,"code":"B4KJ201801007-7417","latitude":"34.5459653","longitude":"133.6529869","source_code":"CG51336552007","project_name":"","survey_name":"\u9053\u8d8a\u5730\u533a\u5730\u8cea\u8abf\u67fb\u696d\u52d9","client_name":"\u56fd\u571f\u4ea4\u901a\u7701\u4e2d\u56fd\u5730\u65b9\u6574\u5099\u5c40\u5ca1\u5c71\u56fd\u9053\u4e8b\u52d9\u6240","boring_xml_url":40,"boring_view_url":1,"soilmap_view_url":null,"soiltest_xml_url":0,"soiltest_view_url":0},{"id":189167,"code":"B4KJ201801007-7416","latitude":"34.5464931","longitude":"133.6535147","source_code":"CG51336552006","project_name":"","survey_name":"\u9053\u8d8a\u5730\u533a\u5730\u8cea\u8abf\u67fb\u696d\u52d9","client_name":"\u56fd\u571f\u4ea4\u901a\u7701\u4e2d\u56fd\u5730\u65b9\u6574\u5099\u5c40\u5ca1\u5c71\u56fd\u9053\u4e8b\u52d9\u6240","boring_xml_url":40,"boring_view_url":1,"soilmap_view_url":null,"soiltest_xml_url":0,"soiltest_view_url":0},{"id":189166,"code":"B4KJ201801007-7415","latitude":"34.5472431","longitude":"133.65382","source_code":"CG51336552005","project_name":"","survey_name":"\u9053\u8d8a\u5730\u533a\u5730\u8cea\u8abf\u67fb\u696d\u52d9","client_name":"\u56fd\u571f\u4ea4\u901a\u7701\u4e2d\u56fd\u5730\u65b9\u6574\u5099\u5c40\u5ca1\u5c71\u56fd\u9053\u4e8b\u52d9\u6240","boring_xml_url":40,"boring_view_url":1,"soilmap_view_url":null,"soiltest_xml_url":0,"soiltest_view_url":0},{"id":189165,"code":"B4KJ201801007-7414","latitude":"34.5478542","longitude":"133.6541811","source_code":"CG51336552004","project_name":"","survey_name":"\u9053\u8d8a\u5730\u533a\u5730\u8cea\u8abf\u67fb\u696d\u52d9","client_name":"\u56fd\u571f\u4ea4\u901a\u7701\u4e2d\u56fd\u5730\u65b9\u6574\u5099\u5c40\u5ca1\u5c71\u56fd\u9053\u4e8b\u52d9\u6240","boring_xml_url":40,"boring_view_url":1,"soilmap_view_url":null,"soiltest_xml_url":0,"soiltest_view_url":0},{"id":189164,"code":"B4KJ201801007-7413","latitude":"34.5482986","longitude":"133.6546811","source_code":"CG51336552003","project_name":"","survey_name":"\u9053\u8d8a\u5730\u533a\u5730\u8cea\u8abf\u67fb\u696d\u52d9","client_name":"\u56fd\u571f\u4ea4\u901a\u7701\u4e2d\u56fd\u5730\u65b9\u6574\u5099\u5c40\u5ca1\u5c71\u56fd\u9053\u4e8b\u52d9\u6240","boring_xml_url":40,"boring_view_url":1,"soilmap_view_url":null,"soiltest_xml_url":0,"soiltest_view_url":0},{"id":189163,"code":"B4KJ201801007-7412","latitude":"34.5486594","longitude":"133.6552089","source_code":"CG51336552002","project_name":"","survey_name":"\u9053\u8d8a\u5730\u533a\u5730\u8cea\u8abf\u67fb\u696d\u52d9","client_name":"\u56fd\u571f\u4ea4\u901a\u7701\u4e2d\u56fd\u5730\u65b9\u6574\u5099\u5c40\u5ca1\u5c71\u56fd\u9053\u4e8b\u52d9\u6240","boring_xml_url":40,"boring_view_url":1,"soilmap_view_url":null,"soiltest_xml_url":0,"soiltest_view_url":0},{"id":189162,"code":"B4KJ201801007-7411","latitude":"34.5823758","longitude":"133.5536058","source_code":"CG51336494001","project_name":"","survey_name":"\u5c71\u967d\u81ea\u52d5\u8eca\u9053\u7389\u5cf6\u5730\u533a\u5730\u8cea\u8abf\u67fb\u696d\u52d9","client_name":"\u56fd\u571f\u4ea4\u901a\u7701\u4e2d\u56fd\u5730\u65b9\u6574\u5099\u5c40\u5ca1\u5c71\u56fd\u9053\u4e8b\u52d9\u6240","boring_xml_url":40,"boring_view_url":1,"soilmap_view_url":null,"soiltest_xml_url":0,"soiltest_view_url":0},{"id":189161,"code":"B4KJ201801007-7410","latitude":"34.5361044","longitude":"133.6123519","source_code":"CG51336439001","project_name":"","survey_name":"\u4f50\u65b9\u6b69\u9053\u8a2d\u8a08\u696d\u52d9","client_name":"\u56fd\u571f\u4ea4\u901a\u7701\u4e2d\u56fd\u5730\u65b9\u6574\u5099\u5c40\u5ca1\u5c71\u56fd\u9053\u4e8b\u52d9\u6240","boring_xml_url":40,"boring_view_url":1,"soilmap_view_url":null,"soiltest_xml_url":0,"soiltest_view_url":0},{"id":189160,"code":"B4KJ201801007-7409","latitude":"34.5225775","longitude":"133.5788831","source_code":"CG51336426001","project_name":"","survey_name":"\u4f50\u65b9\u6b69\u9053\u8a2d\u8a08\u696d\u52d9","client_name":"\u56fd\u571f\u4ea4\u901a\u7701\u4e2d\u56fd\u5730\u65b9\u6574\u5099\u5c40\u5ca1\u5c71\u56fd\u9053\u4e8b\u52d9\u6240","boring_xml_url":40,"boring_view_url":1,"soilmap_view_url":null,"soiltest_xml_url":0,"soiltest_view_url":0},{"id":189159,"code":"B4KJ201801007-7408","latitude":"34.5410453","longitude":"133.4726142","source_code":"CG51336348008","project_name":"","survey_name":"\u5c71\u967d\u81ea\u52d5\u8eca\u9053\u5165\u7530\u5730\u533a\u5730\u8cea\u8abf\u67fb\u696d\u52d9","client_name":"\u56fd\u571f\u4ea4\u901a\u7701\u4e2d\u56fd\u5730\u65b9\u6574\u5099\u5c40\u5ca1\u5c71\u56fd\u9053\u4e8b\u52d9\u6240","boring_xml_url":40,"boring_view_url":1,"soilmap_view_url":null,"soiltest_xml_url":0,"soiltest_view_url":0},{"id":189158,"code":"B4KJ201801007-7407","latitude":"34.5408786","longitude":"133.4732253","source_code":"CG51336348007","project_name":"","survey_name":"\u5c71\u967d\u81ea\u52d5\u8eca\u9053\u5165\u7530\u5730\u533a\u5730\u8cea\u8abf\u67fb\u696d\u52d9","client_name":"\u56fd\u571f\u4ea4\u901a\u7701\u4e2d\u56fd\u5730\u65b9\u6574\u5099\u5c40\u5ca1\u5c71\u56fd\u9053\u4e8b\u52d9\u6240","boring_xml_url":40,"boring_view_url":1,"soilmap_view_url":null,"soiltest_xml_url":0,"soiltest_view_url":0},{"id":189157,"code":"B4KJ201801007-7406","latitude":"34.5410453","longitude":"133.4729475","source_code":"CG51336348006","project_name":"","survey_name":"\u5c71\u967d\u81ea\u52d5\u8eca\u9053\u5165\u7530\u5730\u533a\u5730\u8cea\u8abf\u67fb\u696d\u52d9","client_name":"\u56fd\u571f\u4ea4\u901a\u7701\u4e2d\u56fd\u5730\u65b9\u6574\u5099\u5c40\u5ca1\u5c71\u56fd\u9053\u4e8b\u52d9\u6240","boring_xml_url":40,"boring_view_url":1,"soilmap_view_url":null,"soiltest_xml_url":0,"soiltest_view_url":0},{"id":189156,"code":"B4KJ201801007-7405","latitude":"34.5412675","longitude":"133.4725864","source_code":"CG51336348005","project_name":"","survey_name":"\u5c71\u967d\u81ea\u52d5\u8eca\u9053\u5165\u7530\u5730\u533a\u5730\u8cea\u8abf\u67fb\u696d\u52d9","client_name":"\u56fd\u571f\u4ea4\u901a\u7701\u4e2d\u56fd\u5730\u65b9\u6574\u5099\u5c40\u5ca1\u5c71\u56fd\u9053\u4e8b\u52d9\u6240","boring_xml_url":40,"boring_view_url":1,"soilmap_view_url":null,"soiltest_xml_url":0,"soiltest_view_url":0},{"id":189155,"code":"B4KJ201801007-7404","latitude":"34.5410731","longitude":"133.4733364","source_code":"CG51336348004","project_name":"","survey_name":"\u5c71\u967d\u81ea\u52d5\u8eca\u9053\u5165\u7530\u5730\u533a\u5730\u8cea\u8abf\u67fb\u696d\u52d9","client_name":"\u56fd\u571f\u4ea4\u901a\u7701\u4e2d\u56fd\u5730\u65b9\u6574\u5099\u5c40\u5ca1\u5c71\u56fd\u9053\u4e8b\u52d9\u6240","boring_xml_url":40,"boring_view_url":1,"soilmap_view_url":null,"soiltest_xml_url":0,"soiltest_view_url":0},{"id":189154,"code":"B4KJ201801007-7403","latitude":"34.5408786","longitude":"133.4736419","source_code":"CG51336348003","project_name":"","survey_name":"\u5c71\u967d\u81ea\u52d5\u8eca\u9053\u5165\u7530\u5730\u533a\u5730\u8cea\u8abf\u67fb\u696d\u52d9","client_name":"\u56fd\u571f\u4ea4\u901a\u7701\u4e2d\u56fd\u5730\u65b9\u6574\u5099\u5c40\u5ca1\u5c71\u56fd\u9053\u4e8b\u52d9\u6240","boring_xml_url":40,"boring_view_url":1,"soilmap_view_url":null,"soiltest_xml_url":0,"soiltest_view_url":0},{"id":189153,"code":"B4KJ201801007-7402","latitude":"34.5323792","longitude":"133.4536161","source_code":"CG51336336014","project_name":"","survey_name":"\u5c71\u967d\u81ea\u52d5\u8eca\u9053\u576a\u751f\u6625\u65e5\u5730\u8cea\u8abf\u67fb\u696d\u52d9","client_name":"\u56fd\u571f\u4ea4\u901a\u7701\u4e2d\u56fd\u5730\u65b9\u6574\u5099\u5c40\u798f\u5c71\u6cb3\u5ddd\u56fd\u9053\u4e8b\u52d9\u6240","boring_xml_url":40,"boring_view_url":1,"soilmap_view_url":null,"soiltest_xml_url":0,"soiltest_view_url":0},{"id":189152,"code":"B4KJ201801007-7401","latitude":"34.5329903","longitude":"133.453255","source_code":"CG51336336013","project_name":"","survey_name":"\u5c71\u967d\u81ea\u52d5\u8eca\u9053\u576a\u751f\u6625\u65e5\u5730\u8cea\u8abf\u67fb\u696d\u52d9","client_name":"\u56fd\u571f\u4ea4\u901a\u7701\u4e2d\u56fd\u5730\u65b9\u6574\u5099\u5c40\u798f\u5c71\u6cb3\u5ddd\u56fd\u9053\u4e8b\u52d9\u6240","boring_xml_url":40,"boring_view_url":1,"soilmap_view_url":null,"soiltest_xml_url":0,"soiltest_view_url":0},{"id":189151,"code":"B4KJ201801007-7400","latitude":"34.5332403","longitude":"133.4534217","source_code":"CG51336336012","project_name":"","survey_name":"\u5c71\u967d\u81ea\u52d5\u8eca\u9053\u576a\u751f\u6625\u65e5\u5730\u8cea\u8abf\u67fb\u696d\u52d9","client_name":"\u56fd\u571f\u4ea4\u901a\u7701\u4e2d\u56fd\u5730\u65b9\u6574\u5099\u5c40\u798f\u5c71\u6cb3\u5ddd\u56fd\u9053\u4e8b\u52d9\u6240","boring_xml_url":40,"boring_view_url":1,"soilmap_view_url":null,"soiltest_xml_url":0,"soiltest_view_url":0},{"id":189150,"code":"B4KJ201801007-7399","latitude":"34.5311292","longitude":"133.4474781","source_code":"CG51336336011","project_name":"","survey_name":"\u576a\u751f\u5730\u533a\u5730\u8cea\u8abf\u67fb(\u305d\u306e1)\u696d\u52d9","client_name":"\u56fd\u571f\u4ea4\u901a\u7701\u4e2d\u56fd\u5730\u65b9\u6574\u5099\u5c40\u798f\u5c71\u6cb3\u5ddd\u56fd\u9053\u4e8b\u52d9\u6240","boring_xml_url":40,"boring_view_url":1,"soilmap_view_url":null,"soiltest_xml_url":0,"soiltest_view_url":0},{"id":189149,"code":"B4KJ201801007-7398","latitude":"34.5319069","longitude":"133.4492556","source_code":"CG51336336010","project_name":"","survey_name":"\u576a\u751f\u5730\u533a\u5730\u8cea\u8abf\u67fb(\u305d\u306e1)\u696d\u52d9","client_name":"\u56fd\u571f\u4ea4\u901a\u7701\u4e2d\u56fd\u5730\u65b9\u6574\u5099\u5c40\u798f\u5c71\u6cb3\u5ddd\u56fd\u9053\u4e8b\u52d9\u6240","boring_xml_url":40,"boring_view_url":1,"soilmap_view_url":null,"soiltest_xml_url":0,"soiltest_view_url":0},{"id":189148,"code":"B4KJ201801007-7397","latitude":"34.5317681","longitude":"133.4502278","source_code":"CG51336336009","project_name":"","survey_name":"\u576a\u751f\u5730\u533a\u5730\u8cea\u8abf\u67fb(\u305d\u306e1)\u696d\u52d9","client_name":"\u56fd\u571f\u4ea4\u901a\u7701\u4e2d\u56fd\u5730\u65b9\u6574\u5099\u5c40\u798f\u5c71\u6cb3\u5ddd\u56fd\u9053\u4e8b\u52d9\u6240","boring_xml_url":40,"boring_view_url":1,"soilmap_view_url":null,"soiltest_xml_url":0,"soiltest_view_url":0},{"id":189147,"code":"B4KJ201801007-7396","latitude":"34.5314906","longitude":"133.4509775","source_code":"CG51336336008","project_name":"","survey_name":"\u576a\u751f\u5730\u533a\u5730\u8cea\u8abf\u67fb(\u305d\u306e1)\u696d\u52d9","client_name":"\u56fd\u571f\u4ea4\u901a\u7701\u4e2d\u56fd\u5730\u65b9\u6574\u5099\u5c40\u798f\u5c71\u6cb3\u5ddd\u56fd\u9053\u4e8b\u52d9\u6240","boring_xml_url":40,"boring_view_url":1,"soilmap_view_url":null,"soiltest_xml_url":0,"soiltest_view_url":0},{"id":189146,"code":"B4KJ201801007-7395","latitude":"34.5315183","longitude":"133.4506442","source_code":"CG51336336007","project_name":"","survey_name":"\u576a\u751f\u5730\u533a\u5730\u8cea\u8abf\u67fb(\u305d\u306e1)\u696d\u52d9","client_name":"\u56fd\u571f\u4ea4\u901a\u7701\u4e2d\u56fd\u5730\u65b9\u6574\u5099\u5c40\u798f\u5c71\u6cb3\u5ddd\u56fd\u9053\u4e8b\u52d9\u6240","boring_xml_url":40,"boring_view_url":1,"soilmap_view_url":null,"soiltest_xml_url":0,"soiltest_view_url":0}]}}