{"header":{"xyz":{"source":[],"mosaic":false},"page":439,"raw":{"soiltest_result":"0","bbox":"57.598333,109.544722,1.933333,163.806111","page":"439"},"conditions":{"soiltest_result":0,"north":57.598333,"west":109.544722,"south":1.933333,"east":163.806111},"success":true,"message":""},"data":{"meta":{"total":212844,"page":439,"pages":7095,"count":30},"values":[{"id":532248,"code":"B4KJ202201003-4784","latitude":"33.265319","longitude":"129.638956","source_code":"QS20178945610200080004","project_name":"\u5e73\u621029\u5e74\u5ea6\u3000\u677e\u6d66\u4f50\u3005\u9053\u8def\u5927\u8302\u5730\u533a\u5730\u8cea\u8abf\u67fb\u5916\u696d\u52d9","survey_name":"\u5e73\u621029\u5e74\u5ea6\u3000\u677e\u6d66\u4f50\u3005\u9053\u8def\u5927\u8302\u5730\u533a\u5730\u8cea\u8abf\u67fb\u5916\u696d\u52d9","client_name":"\"\u56fd\u571f\u4ea4\u901a\u7701 \u4e5d\u5dde\u5730\u65b9\u6574\u5099\u5c40 \u9577\u5d0e\u6cb3\u5ddd\u56fd\u9053\u4e8b\u52d9\u6240 \u8abf\u67fb\u7b2c\u4e8c\u8ab2\"","boring_xml_url":72,"boring_view_url":1,"soilmap_view_url":null,"soiltest_xml_url":0,"soiltest_view_url":0},{"id":532247,"code":"B4KJ202201003-4783","latitude":"33.263661","longitude":"129.640619","source_code":"QS20178945610200080003","project_name":"\u5e73\u621029\u5e74\u5ea6\u3000\u677e\u6d66\u4f50\u3005\u9053\u8def\u5927\u8302\u5730\u533a\u5730\u8cea\u8abf\u67fb\u5916\u696d\u52d9","survey_name":"\u5e73\u621029\u5e74\u5ea6\u3000\u677e\u6d66\u4f50\u3005\u9053\u8def\u5927\u8302\u5730\u533a\u5730\u8cea\u8abf\u67fb\u5916\u696d\u52d9","client_name":"\"\u56fd\u571f\u4ea4\u901a\u7701 \u4e5d\u5dde\u5730\u65b9\u6574\u5099\u5c40 \u9577\u5d0e\u6cb3\u5ddd\u56fd\u9053\u4e8b\u52d9\u6240 \u8abf\u67fb\u7b2c\u4e8c\u8ab2\"","boring_xml_url":72,"boring_view_url":1,"soilmap_view_url":null,"soiltest_xml_url":0,"soiltest_view_url":0},{"id":532246,"code":"B4KJ202201003-4782","latitude":"33.263794","longitude":"129.640003","source_code":"QS20178945610200080002","project_name":"\u5e73\u621029\u5e74\u5ea6\u3000\u677e\u6d66\u4f50\u3005\u9053\u8def\u5927\u8302\u5730\u533a\u5730\u8cea\u8abf\u67fb\u5916\u696d\u52d9","survey_name":"\u5e73\u621029\u5e74\u5ea6\u3000\u677e\u6d66\u4f50\u3005\u9053\u8def\u5927\u8302\u5730\u533a\u5730\u8cea\u8abf\u67fb\u5916\u696d\u52d9","client_name":"\"\u56fd\u571f\u4ea4\u901a\u7701 \u4e5d\u5dde\u5730\u65b9\u6574\u5099\u5c40 \u9577\u5d0e\u6cb3\u5ddd\u56fd\u9053\u4e8b\u52d9\u6240 \u8abf\u67fb\u7b2c\u4e8c\u8ab2\"","boring_xml_url":72,"boring_view_url":1,"soilmap_view_url":null,"soiltest_xml_url":0,"soiltest_view_url":0},{"id":532245,"code":"B4KJ202201003-4781","latitude":"33.265983","longitude":"129.642028","source_code":"QS20178945610200080001","project_name":"\u5e73\u621029\u5e74\u5ea6\u3000\u677e\u6d66\u4f50\u3005\u9053\u8def\u5927\u8302\u5730\u533a\u5730\u8cea\u8abf\u67fb\u5916\u696d\u52d9","survey_name":"\u5e73\u621029\u5e74\u5ea6\u3000\u677e\u6d66\u4f50\u3005\u9053\u8def\u5927\u8302\u5730\u533a\u5730\u8cea\u8abf\u67fb\u5916\u696d\u52d9","client_name":"\"\u56fd\u571f\u4ea4\u901a\u7701 \u4e5d\u5dde\u5730\u65b9\u6574\u5099\u5c40 \u9577\u5d0e\u6cb3\u5ddd\u56fd\u9053\u4e8b\u52d9\u6240 \u8abf\u67fb\u7b2c\u4e8c\u8ab2\"","boring_xml_url":72,"boring_view_url":1,"soilmap_view_url":null,"soiltest_xml_url":0,"soiltest_view_url":0},{"id":532244,"code":"B4KJ202201003-4780","latitude":"33.342229","longitude":"129.682431","source_code":"QS20178945400200090005","project_name":"","survey_name":"\"\u5e73\u621029\u5e74\u5ea6 \u5fa1\u53a8\u5730\u533a\u5916\u5730\u8cea\u8abf\u67fb\u696d\u52d9\"","client_name":"\u56fd\u571f\u4ea4\u901a\u7701\u3000\u4e5d\u5dde\u5730\u65b9\u6574\u5099\u5c40\u3000\u9577\u5d0e\u6cb3\u5ddd\u56fd\u9053\u4e8b\u52d9\u6240","boring_xml_url":72,"boring_view_url":1,"soilmap_view_url":null,"soiltest_xml_url":0,"soiltest_view_url":0},{"id":532243,"code":"B4KJ202201003-4779","latitude":"33.341705","longitude":"129.686153","source_code":"QS20178945400200090004","project_name":"","survey_name":"\"\u5e73\u621029\u5e74\u5ea6 \u5fa1\u53a8\u5730\u533a\u5916\u5730\u8cea\u8abf\u67fb\u696d\u52d9\"","client_name":"\u56fd\u571f\u4ea4\u901a\u7701\u3000\u4e5d\u5dde\u5730\u65b9\u6574\u5099\u5c40\u3000\u9577\u5d0e\u6cb3\u5ddd\u56fd\u9053\u4e8b\u52d9\u6240","boring_xml_url":72,"boring_view_url":1,"soilmap_view_url":null,"soiltest_xml_url":0,"soiltest_view_url":0},{"id":532242,"code":"B4KJ202201003-4778","latitude":"33.342896","longitude":"129.683767","source_code":"QS20178945400200090003","project_name":"","survey_name":"\"\u5e73\u621029\u5e74\u5ea6 \u5fa1\u53a8\u5730\u533a\u5916\u5730\u8cea\u8abf\u67fb\u696d\u52d9\"","client_name":"\u56fd\u571f\u4ea4\u901a\u7701\u3000\u4e5d\u5dde\u5730\u65b9\u6574\u5099\u5c40\u3000\u9577\u5d0e\u6cb3\u5ddd\u56fd\u9053\u4e8b\u52d9\u6240","boring_xml_url":72,"boring_view_url":1,"soilmap_view_url":null,"soiltest_xml_url":0,"soiltest_view_url":0},{"id":532241,"code":"B4KJ202201003-4777","latitude":"33.329764","longitude":"129.648815","source_code":"QS20178945400200090002","project_name":"","survey_name":"\"\u5e73\u621029\u5e74\u5ea6 \u5fa1\u53a8\u5730\u533a\u5916\u5730\u8cea\u8abf\u67fb\u696d\u52d9\"","client_name":"\u56fd\u571f\u4ea4\u901a\u7701\u3000\u4e5d\u5dde\u5730\u65b9\u6574\u5099\u5c40\u3000\u9577\u5d0e\u6cb3\u5ddd\u56fd\u9053\u4e8b\u52d9\u6240","boring_xml_url":72,"boring_view_url":1,"soilmap_view_url":null,"soiltest_xml_url":0,"soiltest_view_url":0},{"id":532240,"code":"B4KJ202201003-4776","latitude":"33.329983","longitude":"129.648324","source_code":"QS20178945400200090001","project_name":"","survey_name":"\"\u5e73\u621029\u5e74\u5ea6 \u5fa1\u53a8\u5730\u533a\u5916\u5730\u8cea\u8abf\u67fb\u696d\u52d9\"","client_name":"\u56fd\u571f\u4ea4\u901a\u7701\u3000\u4e5d\u5dde\u5730\u65b9\u6574\u5099\u5c40\u3000\u9577\u5d0e\u6cb3\u5ddd\u56fd\u9053\u4e8b\u52d9\u6240","boring_xml_url":72,"boring_view_url":1,"soilmap_view_url":null,"soiltest_xml_url":0,"soiltest_view_url":0},{"id":532239,"code":"B4KJ202201003-4775","latitude":"33.346845","longitude":"129.701011","source_code":"QS20178945400200080010","project_name":"\u5e73\u621029\u5e74\u5ea6\u677e\u6d66\u5fd7\u4f50\u5730\u533a\u5916\u5730\u8cea\u8abf\u67fb\u696d\u52d9","survey_name":"\u5e73\u621029\u5e74\u5ea6\u677e\u6d66\u5fd7\u4f50\u5730\u533a\u5916\u5730\u8cea\u8abf\u67fb\u696d\u52d9","client_name":"\u56fd\u571f\u4ea4\u901a\u7701\u3000\u4e5d\u5dde\u5730\u65b9\u6574\u5099\u5c40\u3000\u9577\u5d0e\u6cb3\u5ddd\u56fd\u9053\u4e8b\u52d9\u6240","boring_xml_url":72,"boring_view_url":1,"soilmap_view_url":null,"soiltest_xml_url":0,"soiltest_view_url":0},{"id":532238,"code":"B4KJ202201003-4774","latitude":"33.347011","longitude":"129.701613","source_code":"QS20178945400200080009","project_name":"\u5e73\u621029\u5e74\u5ea6\u677e\u6d66\u5fd7\u4f50\u5730\u533a\u5916\u5730\u8cea\u8abf\u67fb\u696d\u52d9","survey_name":"\u5e73\u621029\u5e74\u5ea6\u677e\u6d66\u5fd7\u4f50\u5730\u533a\u5916\u5730\u8cea\u8abf\u67fb\u696d\u52d9","client_name":"\u56fd\u571f\u4ea4\u901a\u7701\u3000\u4e5d\u5dde\u5730\u65b9\u6574\u5099\u5c40\u3000\u9577\u5d0e\u6cb3\u5ddd\u56fd\u9053\u4e8b\u52d9\u6240","boring_xml_url":72,"boring_view_url":1,"soilmap_view_url":null,"soiltest_xml_url":0,"soiltest_view_url":0},{"id":532237,"code":"B4KJ202201003-4773","latitude":"33.346929","longitude":"129.70253","source_code":"QS20178945400200080008","project_name":"\u5e73\u621029\u5e74\u5ea6\u677e\u6d66\u5fd7\u4f50\u5730\u533a\u5916\u5730\u8cea\u8abf\u67fb\u696d\u52d9","survey_name":"\u5e73\u621029\u5e74\u5ea6\u677e\u6d66\u5fd7\u4f50\u5730\u533a\u5916\u5730\u8cea\u8abf\u67fb\u696d\u52d9","client_name":"\u56fd\u571f\u4ea4\u901a\u7701\u3000\u4e5d\u5dde\u5730\u65b9\u6574\u5099\u5c40\u3000\u9577\u5d0e\u6cb3\u5ddd\u56fd\u9053\u4e8b\u52d9\u6240","boring_xml_url":72,"boring_view_url":1,"soilmap_view_url":null,"soiltest_xml_url":0,"soiltest_view_url":0},{"id":532236,"code":"B4KJ202201003-4772","latitude":"33.346878","longitude":"129.703464","source_code":"QS20178945400200080007","project_name":"\u5e73\u621029\u5e74\u5ea6\u677e\u6d66\u5fd7\u4f50\u5730\u533a\u5916\u5730\u8cea\u8abf\u67fb\u696d\u52d9","survey_name":"\u5e73\u621029\u5e74\u5ea6\u677e\u6d66\u5fd7\u4f50\u5730\u533a\u5916\u5730\u8cea\u8abf\u67fb\u696d\u52d9","client_name":"\u56fd\u571f\u4ea4\u901a\u7701\u3000\u4e5d\u5dde\u5730\u65b9\u6574\u5099\u5c40\u3000\u9577\u5d0e\u6cb3\u5ddd\u56fd\u9053\u4e8b\u52d9\u6240","boring_xml_url":72,"boring_view_url":1,"soilmap_view_url":null,"soiltest_xml_url":0,"soiltest_view_url":0},{"id":532235,"code":"B4KJ202201003-4771","latitude":"33.346498","longitude":"129.704425","source_code":"QS20178945400200080006","project_name":"\u5e73\u621029\u5e74\u5ea6\u677e\u6d66\u5fd7\u4f50\u5730\u533a\u5916\u5730\u8cea\u8abf\u67fb\u696d\u52d9","survey_name":"\u5e73\u621029\u5e74\u5ea6\u677e\u6d66\u5fd7\u4f50\u5730\u533a\u5916\u5730\u8cea\u8abf\u67fb\u696d\u52d9","client_name":"\u56fd\u571f\u4ea4\u901a\u7701\u3000\u4e5d\u5dde\u5730\u65b9\u6574\u5099\u5c40\u3000\u9577\u5d0e\u6cb3\u5ddd\u56fd\u9053\u4e8b\u52d9\u6240","boring_xml_url":72,"boring_view_url":1,"soilmap_view_url":null,"soiltest_xml_url":0,"soiltest_view_url":0},{"id":532234,"code":"B4KJ202201003-4770","latitude":"33.346315","longitude":"129.705159","source_code":"QS20178945400200080005","project_name":"\u5e73\u621029\u5e74\u5ea6\u677e\u6d66\u5fd7\u4f50\u5730\u533a\u5916\u5730\u8cea\u8abf\u67fb\u696d\u52d9","survey_name":"\u5e73\u621029\u5e74\u5ea6\u677e\u6d66\u5fd7\u4f50\u5730\u533a\u5916\u5730\u8cea\u8abf\u67fb\u696d\u52d9","client_name":"\u56fd\u571f\u4ea4\u901a\u7701\u3000\u4e5d\u5dde\u5730\u65b9\u6574\u5099\u5c40\u3000\u9577\u5d0e\u6cb3\u5ddd\u56fd\u9053\u4e8b\u52d9\u6240","boring_xml_url":72,"boring_view_url":1,"soilmap_view_url":null,"soiltest_xml_url":0,"soiltest_view_url":0},{"id":532233,"code":"B4KJ202201003-4769","latitude":"33.346248","longitude":"129.705765","source_code":"QS20178945400200080004","project_name":"\u5e73\u621029\u5e74\u5ea6\u677e\u6d66\u5fd7\u4f50\u5730\u533a\u5916\u5730\u8cea\u8abf\u67fb\u696d\u52d9","survey_name":"\u5e73\u621029\u5e74\u5ea6\u677e\u6d66\u5fd7\u4f50\u5730\u533a\u5916\u5730\u8cea\u8abf\u67fb\u696d\u52d9","client_name":"\u56fd\u571f\u4ea4\u901a\u7701\u3000\u4e5d\u5dde\u5730\u65b9\u6574\u5099\u5c40\u3000\u9577\u5d0e\u6cb3\u5ddd\u56fd\u9053\u4e8b\u52d9\u6240","boring_xml_url":72,"boring_view_url":1,"soilmap_view_url":null,"soiltest_xml_url":0,"soiltest_view_url":0},{"id":532232,"code":"B4KJ202201003-4768","latitude":"33.346211","longitude":"129.706528","source_code":"QS20178945400200080003","project_name":"\u5e73\u621029\u5e74\u5ea6\u677e\u6d66\u5fd7\u4f50\u5730\u533a\u5916\u5730\u8cea\u8abf\u67fb\u696d\u52d9","survey_name":"\u5e73\u621029\u5e74\u5ea6\u677e\u6d66\u5fd7\u4f50\u5730\u533a\u5916\u5730\u8cea\u8abf\u67fb\u696d\u52d9","client_name":"\u56fd\u571f\u4ea4\u901a\u7701\u3000\u4e5d\u5dde\u5730\u65b9\u6574\u5099\u5c40\u3000\u9577\u5d0e\u6cb3\u5ddd\u56fd\u9053\u4e8b\u52d9\u6240","boring_xml_url":72,"boring_view_url":1,"soilmap_view_url":null,"soiltest_xml_url":0,"soiltest_view_url":0},{"id":532231,"code":"B4KJ202201003-4767","latitude":"33.34631","longitude":"129.706898","source_code":"QS20178945400200080002","project_name":"\u5e73\u621029\u5e74\u5ea6\u677e\u6d66\u5fd7\u4f50\u5730\u533a\u5916\u5730\u8cea\u8abf\u67fb\u696d\u52d9","survey_name":"\u5e73\u621029\u5e74\u5ea6\u677e\u6d66\u5fd7\u4f50\u5730\u533a\u5916\u5730\u8cea\u8abf\u67fb\u696d\u52d9","client_name":"\u56fd\u571f\u4ea4\u901a\u7701\u3000\u4e5d\u5dde\u5730\u65b9\u6574\u5099\u5c40\u3000\u9577\u5d0e\u6cb3\u5ddd\u56fd\u9053\u4e8b\u52d9\u6240","boring_xml_url":72,"boring_view_url":1,"soilmap_view_url":null,"soiltest_xml_url":0,"soiltest_view_url":0},{"id":532230,"code":"B4KJ202201003-4766","latitude":"33.346322","longitude":"129.707655","source_code":"QS20178945400200080001","project_name":"\u5e73\u621029\u5e74\u5ea6\u677e\u6d66\u5fd7\u4f50\u5730\u533a\u5916\u5730\u8cea\u8abf\u67fb\u696d\u52d9","survey_name":"\u5e73\u621029\u5e74\u5ea6\u677e\u6d66\u5fd7\u4f50\u5730\u533a\u5916\u5730\u8cea\u8abf\u67fb\u696d\u52d9","client_name":"\u56fd\u571f\u4ea4\u901a\u7701\u3000\u4e5d\u5dde\u5730\u65b9\u6574\u5099\u5c40\u3000\u9577\u5d0e\u6cb3\u5ddd\u56fd\u9053\u4e8b\u52d9\u6240","boring_xml_url":72,"boring_view_url":1,"soilmap_view_url":null,"soiltest_xml_url":0,"soiltest_view_url":0},{"id":532229,"code":"B4KJ202201003-4765","latitude":"32.909908","longitude":"130.028193","source_code":"QS20168945620200160039","project_name":"","survey_name":"\u5e73\u621028\u5e74\u5ea6\u672c\u660e\u5ddd\u30c0\u30e0\u30b0\u30e9\u30a6\u30c1\u30f3\u30b0\u8a66\u9a13\u696d\u52d9","client_name":"\u56fd\u571f\u4ea4\u901a\u7701\u3000\u4e5d\u5dde\u5730\u65b9\u6574\u5099\u5c40\u3000\u9577\u5d0e\u6cb3\u5ddd\u56fd\u9053\u4e8b\u52d9\u6240","boring_xml_url":72,"boring_view_url":1,"soilmap_view_url":null,"soiltest_xml_url":0,"soiltest_view_url":0},{"id":532228,"code":"B4KJ202201003-4764","latitude":"32.91037","longitude":"130.02605","source_code":"QS20168945620200160038","project_name":"","survey_name":"\u5e73\u621028\u5e74\u5ea6\u672c\u660e\u5ddd\u30c0\u30e0\u30b0\u30e9\u30a6\u30c1\u30f3\u30b0\u8a66\u9a13\u696d\u52d9","client_name":"\u56fd\u571f\u4ea4\u901a\u7701\u3000\u4e5d\u5dde\u5730\u65b9\u6574\u5099\u5c40\u3000\u9577\u5d0e\u6cb3\u5ddd\u56fd\u9053\u4e8b\u52d9\u6240","boring_xml_url":72,"boring_view_url":1,"soilmap_view_url":null,"soiltest_xml_url":0,"soiltest_view_url":0},{"id":532227,"code":"B4KJ202201003-4763","latitude":"32.910371","longitude":"130.026055","source_code":"QS20168945620200160037","project_name":"","survey_name":"\u5e73\u621028\u5e74\u5ea6\u672c\u660e\u5ddd\u30c0\u30e0\u30b0\u30e9\u30a6\u30c1\u30f3\u30b0\u8a66\u9a13\u696d\u52d9","client_name":"\u56fd\u571f\u4ea4\u901a\u7701\u3000\u4e5d\u5dde\u5730\u65b9\u6574\u5099\u5c40\u3000\u9577\u5d0e\u6cb3\u5ddd\u56fd\u9053\u4e8b\u52d9\u6240","boring_xml_url":72,"boring_view_url":1,"soilmap_view_url":null,"soiltest_xml_url":0,"soiltest_view_url":0},{"id":532226,"code":"B4KJ202201003-4762","latitude":"32.910374","longitude":"130.026046","source_code":"QS20168945620200160036","project_name":"","survey_name":"\u5e73\u621028\u5e74\u5ea6\u672c\u660e\u5ddd\u30c0\u30e0\u30b0\u30e9\u30a6\u30c1\u30f3\u30b0\u8a66\u9a13\u696d\u52d9","client_name":"\u56fd\u571f\u4ea4\u901a\u7701\u3000\u4e5d\u5dde\u5730\u65b9\u6574\u5099\u5c40\u3000\u9577\u5d0e\u6cb3\u5ddd\u56fd\u9053\u4e8b\u52d9\u6240","boring_xml_url":72,"boring_view_url":1,"soilmap_view_url":null,"soiltest_xml_url":0,"soiltest_view_url":0},{"id":532225,"code":"B4KJ202201003-4761","latitude":"32.910372","longitude":"130.026062","source_code":"QS20168945620200160035","project_name":"","survey_name":"\u5e73\u621028\u5e74\u5ea6\u672c\u660e\u5ddd\u30c0\u30e0\u30b0\u30e9\u30a6\u30c1\u30f3\u30b0\u8a66\u9a13\u696d\u52d9","client_name":"\u56fd\u571f\u4ea4\u901a\u7701\u3000\u4e5d\u5dde\u5730\u65b9\u6574\u5099\u5c40\u3000\u9577\u5d0e\u6cb3\u5ddd\u56fd\u9053\u4e8b\u52d9\u6240","boring_xml_url":72,"boring_view_url":1,"soilmap_view_url":null,"soiltest_xml_url":0,"soiltest_view_url":0},{"id":532224,"code":"B4KJ202201003-4760","latitude":"32.910381","longitude":"130.02604","source_code":"QS20168945620200160034","project_name":"","survey_name":"\u5e73\u621028\u5e74\u5ea6\u672c\u660e\u5ddd\u30c0\u30e0\u30b0\u30e9\u30a6\u30c1\u30f3\u30b0\u8a66\u9a13\u696d\u52d9","client_name":"\u56fd\u571f\u4ea4\u901a\u7701\u3000\u4e5d\u5dde\u5730\u65b9\u6574\u5099\u5c40\u3000\u9577\u5d0e\u6cb3\u5ddd\u56fd\u9053\u4e8b\u52d9\u6240","boring_xml_url":72,"boring_view_url":1,"soilmap_view_url":null,"soiltest_xml_url":0,"soiltest_view_url":0},{"id":532223,"code":"B4KJ202201003-4759","latitude":"32.910378","longitude":"130.026071","source_code":"QS20168945620200160033","project_name":"","survey_name":"\u5e73\u621028\u5e74\u5ea6\u672c\u660e\u5ddd\u30c0\u30e0\u30b0\u30e9\u30a6\u30c1\u30f3\u30b0\u8a66\u9a13\u696d\u52d9","client_name":"\u56fd\u571f\u4ea4\u901a\u7701\u3000\u4e5d\u5dde\u5730\u65b9\u6574\u5099\u5c40\u3000\u9577\u5d0e\u6cb3\u5ddd\u56fd\u9053\u4e8b\u52d9\u6240","boring_xml_url":72,"boring_view_url":1,"soilmap_view_url":null,"soiltest_xml_url":0,"soiltest_view_url":0},{"id":532222,"code":"B4KJ202201003-4758","latitude":"32.910368","longitude":"130.026037","source_code":"QS20168945620200160032","project_name":"","survey_name":"\u5e73\u621028\u5e74\u5ea6\u672c\u660e\u5ddd\u30c0\u30e0\u30b0\u30e9\u30a6\u30c1\u30f3\u30b0\u8a66\u9a13\u696d\u52d9","client_name":"\u56fd\u571f\u4ea4\u901a\u7701\u3000\u4e5d\u5dde\u5730\u65b9\u6574\u5099\u5c40\u3000\u9577\u5d0e\u6cb3\u5ddd\u56fd\u9053\u4e8b\u52d9\u6240","boring_xml_url":72,"boring_view_url":1,"soilmap_view_url":null,"soiltest_xml_url":0,"soiltest_view_url":0},{"id":532221,"code":"B4KJ202201003-4757","latitude":"32.910364","longitude":"130.026069","source_code":"QS20168945620200160031","project_name":"","survey_name":"\u5e73\u621028\u5e74\u5ea6\u672c\u660e\u5ddd\u30c0\u30e0\u30b0\u30e9\u30a6\u30c1\u30f3\u30b0\u8a66\u9a13\u696d\u52d9","client_name":"\u56fd\u571f\u4ea4\u901a\u7701\u3000\u4e5d\u5dde\u5730\u65b9\u6574\u5099\u5c40\u3000\u9577\u5d0e\u6cb3\u5ddd\u56fd\u9053\u4e8b\u52d9\u6240","boring_xml_url":72,"boring_view_url":1,"soilmap_view_url":null,"soiltest_xml_url":0,"soiltest_view_url":0},{"id":532220,"code":"B4KJ202201003-4756","latitude":"32.91038","longitude":"130.026056","source_code":"QS20168945620200160030","project_name":"","survey_name":"\u5e73\u621028\u5e74\u5ea6\u672c\u660e\u5ddd\u30c0\u30e0\u30b0\u30e9\u30a6\u30c1\u30f3\u30b0\u8a66\u9a13\u696d\u52d9","client_name":"\u56fd\u571f\u4ea4\u901a\u7701\u3000\u4e5d\u5dde\u5730\u65b9\u6574\u5099\u5c40\u3000\u9577\u5d0e\u6cb3\u5ddd\u56fd\u9053\u4e8b\u52d9\u6240","boring_xml_url":72,"boring_view_url":1,"soilmap_view_url":null,"soiltest_xml_url":0,"soiltest_view_url":0},{"id":532219,"code":"B4KJ202201003-4755","latitude":"32.910366","longitude":"130.026053","source_code":"QS20168945620200160029","project_name":"","survey_name":"\u5e73\u621028\u5e74\u5ea6\u672c\u660e\u5ddd\u30c0\u30e0\u30b0\u30e9\u30a6\u30c1\u30f3\u30b0\u8a66\u9a13\u696d\u52d9","client_name":"\u56fd\u571f\u4ea4\u901a\u7701\u3000\u4e5d\u5dde\u5730\u65b9\u6574\u5099\u5c40\u3000\u9577\u5d0e\u6cb3\u5ddd\u56fd\u9053\u4e8b\u52d9\u6240","boring_xml_url":72,"boring_view_url":1,"soilmap_view_url":null,"soiltest_xml_url":0,"soiltest_view_url":0}]}}