{"header":{"xyz":{"source":[],"mosaic":false},"page":4393,"raw":{"soiltest_result":"0","bbox":"57.598333,109.544722,1.933333,163.806111","page":"4393"},"conditions":{"soiltest_result":0,"north":57.598333,"west":109.544722,"south":1.933333,"east":163.806111},"success":true,"message":""},"data":{"meta":{"total":212844,"page":4393,"pages":7095,"count":30},"values":[{"id":188785,"code":"B4KJ201801007-7034","latitude":"34.4418883","longitude":"133.39218","source_code":"CG51335321003","project_name":"","survey_name":"\u6c34\u5451\u5730\u533a\u5730\u8cea\u8abf\u67fb","client_name":"\u56fd\u571f\u4ea4\u901a\u7701\u4e2d\u56fd\u5730\u65b9\u6574\u5099\u5c40\u798f\u5c71\u6cb3\u5ddd\u56fd\u9053\u4e8b\u52d9\u6240","boring_xml_url":40,"boring_view_url":1,"soilmap_view_url":null,"soiltest_xml_url":0,"soiltest_view_url":0},{"id":188784,"code":"B4KJ201801007-7033","latitude":"34.4424161","longitude":"133.3925967","source_code":"CG51335321002","project_name":"","survey_name":"\u6c34\u5451\u5730\u533a\u5730\u8cea\u8abf\u67fb","client_name":"\u56fd\u571f\u4ea4\u901a\u7701\u4e2d\u56fd\u5730\u65b9\u6574\u5099\u5c40\u798f\u5c71\u6cb3\u5ddd\u56fd\u9053\u4e8b\u52d9\u6240","boring_xml_url":40,"boring_view_url":1,"soilmap_view_url":null,"soiltest_xml_url":0,"soiltest_view_url":0},{"id":188783,"code":"B4KJ201801007-7032","latitude":"34.4441658","longitude":"133.3908747","source_code":"CG51335321001","project_name":"","survey_name":"\u6c34\u5451\u5730\u533a\u5730\u8cea\u8abf\u67fb","client_name":"\u56fd\u571f\u4ea4\u901a\u7701\u4e2d\u56fd\u5730\u65b9\u6574\u5099\u5c40\u798f\u5c71\u6cb3\u5ddd\u56fd\u9053\u4e8b\u52d9\u6240","boring_xml_url":40,"boring_view_url":1,"soilmap_view_url":null,"soiltest_xml_url":0,"soiltest_view_url":0},{"id":188782,"code":"B4KJ201801007-7031","latitude":"34.49502","longitude":"133.3434883","source_code":"CG51335297003","project_name":"","survey_name":"\u5ba4\u5c4b\u53ca\u3073\u672c\u5e84\u7b87\u6240\u5730\u8cea\u8abf\u67fb\u696d\u52d9","client_name":"\u56fd\u571f\u4ea4\u901a\u7701\u4e2d\u56fd\u5730\u65b9\u6574\u5099\u5c40\u798f\u5c71\u6cb3\u5ddd\u56fd\u9053\u4e8b\u52d9\u6240","boring_xml_url":40,"boring_view_url":1,"soilmap_view_url":null,"soiltest_xml_url":0,"soiltest_view_url":0},{"id":188781,"code":"B4KJ201801007-7030","latitude":"34.4949644","longitude":"133.3429883","source_code":"CG51335297002","project_name":"","survey_name":"\u5ba4\u5c4b\u53ca\u3073\u672c\u5e84\u7b87\u6240\u5730\u8cea\u8abf\u67fb\u696d\u52d9","client_name":"\u56fd\u571f\u4ea4\u901a\u7701\u4e2d\u56fd\u5730\u65b9\u6574\u5099\u5c40\u798f\u5c71\u6cb3\u5ddd\u56fd\u9053\u4e8b\u52d9\u6240","boring_xml_url":40,"boring_view_url":1,"soilmap_view_url":null,"soiltest_xml_url":0,"soiltest_view_url":0},{"id":188780,"code":"B4KJ201801007-7029","latitude":"34.4907144","longitude":"133.3161297","source_code":"CG51335285043","project_name":"","survey_name":"\u5c71\u967d\u81ea\u52d5\u8eca\u9053\u6d25\u4e4b\u90f7\u5730\u533a\u5730\u8cea\u8abf\u67fb(\u305d\u306e2)\u696d\u52d9","client_name":"\u56fd\u571f\u4ea4\u901a\u7701\u4e2d\u56fd\u5730\u65b9\u6574\u5099\u5c40\u798f\u5c71\u6cb3\u5ddd\u56fd\u9053\u4e8b\u52d9\u6240","boring_xml_url":40,"boring_view_url":1,"soilmap_view_url":null,"soiltest_xml_url":0,"soiltest_view_url":0},{"id":188779,"code":"B4KJ201801007-7028","latitude":"34.4907144","longitude":"133.3161297","source_code":"CG51335285042","project_name":"","survey_name":"\u5c71\u967d\u81ea\u52d5\u8eca\u9053\u6d25\u4e4b\u90f7\u5730\u533a\u5730\u8cea\u8abf\u67fb(\u305d\u306e2)\u696d\u52d9","client_name":"\u56fd\u571f\u4ea4\u901a\u7701\u4e2d\u56fd\u5730\u65b9\u6574\u5099\u5c40\u798f\u5c71\u6cb3\u5ddd\u56fd\u9053\u4e8b\u52d9\u6240","boring_xml_url":40,"boring_view_url":1,"soilmap_view_url":null,"soiltest_xml_url":0,"soiltest_view_url":0},{"id":188778,"code":"B4KJ201801007-7027","latitude":"34.4907144","longitude":"133.3161297","source_code":"CG51335285041","project_name":"","survey_name":"\u5c71\u967d\u81ea\u52d5\u8eca\u9053\u6d25\u4e4b\u90f7\u5730\u533a\u5730\u8cea\u8abf\u67fb(\u305d\u306e2)\u696d\u52d9","client_name":"\u56fd\u571f\u4ea4\u901a\u7701\u4e2d\u56fd\u5730\u65b9\u6574\u5099\u5c40\u798f\u5c71\u6cb3\u5ddd\u56fd\u9053\u4e8b\u52d9\u6240","boring_xml_url":40,"boring_view_url":1,"soilmap_view_url":null,"soiltest_xml_url":0,"soiltest_view_url":0},{"id":188777,"code":"B4KJ201801007-7026","latitude":"34.4907144","longitude":"133.3161297","source_code":"CG51335285040","project_name":"","survey_name":"\u5c71\u967d\u81ea\u52d5\u8eca\u9053\u6d25\u4e4b\u90f7\u5730\u533a\u5730\u8cea\u8abf\u67fb(\u305d\u306e2)\u696d\u52d9","client_name":"\u56fd\u571f\u4ea4\u901a\u7701\u4e2d\u56fd\u5730\u65b9\u6574\u5099\u5c40\u798f\u5c71\u6cb3\u5ddd\u56fd\u9053\u4e8b\u52d9\u6240","boring_xml_url":40,"boring_view_url":1,"soilmap_view_url":null,"soiltest_xml_url":0,"soiltest_view_url":0},{"id":188776,"code":"B4KJ201801007-7025","latitude":"34.4907144","longitude":"133.3161297","source_code":"CG51335285039","project_name":"","survey_name":"\u5c71\u967d\u81ea\u52d5\u8eca\u9053\u6d25\u4e4b\u90f7\u5730\u533a\u5730\u8cea\u8abf\u67fb(\u305d\u306e2)\u696d\u52d9","client_name":"\u56fd\u571f\u4ea4\u901a\u7701\u4e2d\u56fd\u5730\u65b9\u6574\u5099\u5c40\u798f\u5c71\u6cb3\u5ddd\u56fd\u9053\u4e8b\u52d9\u6240","boring_xml_url":40,"boring_view_url":1,"soilmap_view_url":null,"soiltest_xml_url":0,"soiltest_view_url":0},{"id":188775,"code":"B4KJ201801007-7024","latitude":"34.4907144","longitude":"133.3161297","source_code":"CG51335285038","project_name":"","survey_name":"\u5c71\u967d\u81ea\u52d5\u8eca\u9053\u6d25\u4e4b\u90f7\u5730\u533a\u5730\u8cea\u8abf\u67fb(\u305d\u306e2)\u696d\u52d9","client_name":"\u56fd\u571f\u4ea4\u901a\u7701\u4e2d\u56fd\u5730\u65b9\u6574\u5099\u5c40\u798f\u5c71\u6cb3\u5ddd\u56fd\u9053\u4e8b\u52d9\u6240","boring_xml_url":40,"boring_view_url":1,"soilmap_view_url":null,"soiltest_xml_url":0,"soiltest_view_url":0},{"id":188774,"code":"B4KJ201801007-7023","latitude":"34.4907144","longitude":"133.3161297","source_code":"CG51335285037","project_name":"","survey_name":"\u5c71\u967d\u81ea\u52d5\u8eca\u9053\u6d25\u4e4b\u90f7\u5730\u533a\u5730\u8cea\u8abf\u67fb(\u305d\u306e2)\u696d\u52d9","client_name":"\u56fd\u571f\u4ea4\u901a\u7701\u4e2d\u56fd\u5730\u65b9\u6574\u5099\u5c40\u798f\u5c71\u6cb3\u5ddd\u56fd\u9053\u4e8b\u52d9\u6240","boring_xml_url":40,"boring_view_url":1,"soilmap_view_url":null,"soiltest_xml_url":0,"soiltest_view_url":0},{"id":188773,"code":"B4KJ201801007-7022","latitude":"34.4907144","longitude":"133.3161297","source_code":"CG51335285036","project_name":"","survey_name":"\u5c71\u967d\u81ea\u52d5\u8eca\u9053\u6d25\u4e4b\u90f7\u5730\u533a\u5730\u8cea\u8abf\u67fb(\u305d\u306e2)\u696d\u52d9","client_name":"\u56fd\u571f\u4ea4\u901a\u7701\u4e2d\u56fd\u5730\u65b9\u6574\u5099\u5c40\u798f\u5c71\u6cb3\u5ddd\u56fd\u9053\u4e8b\u52d9\u6240","boring_xml_url":40,"boring_view_url":1,"soilmap_view_url":null,"soiltest_xml_url":0,"soiltest_view_url":0},{"id":188772,"code":"B4KJ201801007-7021","latitude":"34.4907144","longitude":"133.3161297","source_code":"CG51335285035","project_name":"","survey_name":"\u5c71\u967d\u81ea\u52d5\u8eca\u9053\u6d25\u4e4b\u90f7\u5730\u533a\u5730\u8cea\u8abf\u67fb(\u305d\u306e2)\u696d\u52d9","client_name":"\u56fd\u571f\u4ea4\u901a\u7701\u4e2d\u56fd\u5730\u65b9\u6574\u5099\u5c40\u798f\u5c71\u6cb3\u5ddd\u56fd\u9053\u4e8b\u52d9\u6240","boring_xml_url":40,"boring_view_url":1,"soilmap_view_url":null,"soiltest_xml_url":0,"soiltest_view_url":0},{"id":188771,"code":"B4KJ201801007-7020","latitude":"34.4907144","longitude":"133.3161297","source_code":"CG51335285034","project_name":"","survey_name":"\u5c71\u967d\u81ea\u52d5\u8eca\u9053\u6d25\u4e4b\u90f7\u5730\u533a\u5730\u8cea\u8abf\u67fb(\u305d\u306e2)\u696d\u52d9","client_name":"\u56fd\u571f\u4ea4\u901a\u7701\u4e2d\u56fd\u5730\u65b9\u6574\u5099\u5c40\u798f\u5c71\u6cb3\u5ddd\u56fd\u9053\u4e8b\u52d9\u6240","boring_xml_url":40,"boring_view_url":1,"soilmap_view_url":null,"soiltest_xml_url":0,"soiltest_view_url":0},{"id":188770,"code":"B4KJ201801007-7019","latitude":"34.4886314","longitude":"133.3147133","source_code":"CG51335285033","project_name":"","survey_name":"\u5c71\u967d\u81ea\u52d5\u8eca\u9053\u6d25\u4e4b\u90f7\u5730\u8cea\u8abf\u67fb\u696d\u52d9","client_name":"\u56fd\u571f\u4ea4\u901a\u7701\u4e2d\u56fd\u5730\u65b9\u6574\u5099\u5c40\u798f\u5c71\u6cb3\u5ddd\u56fd\u9053\u4e8b\u52d9\u6240","boring_xml_url":40,"boring_view_url":1,"soilmap_view_url":null,"soiltest_xml_url":0,"soiltest_view_url":0},{"id":188769,"code":"B4KJ201801007-7018","latitude":"34.4903256","longitude":"133.3170742","source_code":"CG51335285032","project_name":"","survey_name":"\u5c71\u967d\u81ea\u52d5\u8eca\u9053\u6d25\u4e4b\u90f7\u5730\u8cea\u8abf\u67fb\u696d\u52d9","client_name":"\u56fd\u571f\u4ea4\u901a\u7701\u4e2d\u56fd\u5730\u65b9\u6574\u5099\u5c40\u798f\u5c71\u6cb3\u5ddd\u56fd\u9053\u4e8b\u52d9\u6240","boring_xml_url":40,"boring_view_url":1,"soilmap_view_url":null,"soiltest_xml_url":0,"soiltest_view_url":0},{"id":188768,"code":"B4KJ201801007-7017","latitude":"34.4920197","longitude":"133.3145189","source_code":"CG51335285030","project_name":"","survey_name":"\u5c71\u967d\u81ea\u52d5\u8eca\u9053\u6d25\u4e4b\u90f7\u5730\u8cea\u8abf\u67fb\u696d\u52d9","client_name":"\u56fd\u571f\u4ea4\u901a\u7701\u4e2d\u56fd\u5730\u65b9\u6574\u5099\u5c40\u798f\u5c71\u6cb3\u5ddd\u56fd\u9053\u4e8b\u52d9\u6240","boring_xml_url":40,"boring_view_url":1,"soilmap_view_url":null,"soiltest_xml_url":0,"soiltest_view_url":0},{"id":188767,"code":"B4KJ201801007-7016","latitude":"34.4872147","longitude":"133.3136025","source_code":"CG51335285029","project_name":"","survey_name":"\u5c71\u967d\u81ea\u52d5\u8eca\u9053\u6d25\u4e4b\u90f7\u5730\u8cea\u8abf\u67fb\u696d\u52d9","client_name":"\u56fd\u571f\u4ea4\u901a\u7701\u4e2d\u56fd\u5730\u65b9\u6574\u5099\u5c40\u798f\u5c71\u6cb3\u5ddd\u56fd\u9053\u4e8b\u52d9\u6240","boring_xml_url":40,"boring_view_url":1,"soilmap_view_url":null,"soiltest_xml_url":0,"soiltest_view_url":0},{"id":188766,"code":"B4KJ201801007-7015","latitude":"34.4874092","longitude":"133.3134081","source_code":"CG51335285028","project_name":"","survey_name":"\u5c71\u967d\u81ea\u52d5\u8eca\u9053\u6d25\u4e4b\u90f7\u5730\u8cea\u8abf\u67fb\u696d\u52d9","client_name":"\u56fd\u571f\u4ea4\u901a\u7701\u4e2d\u56fd\u5730\u65b9\u6574\u5099\u5c40\u798f\u5c71\u6cb3\u5ddd\u56fd\u9053\u4e8b\u52d9\u6240","boring_xml_url":40,"boring_view_url":1,"soilmap_view_url":null,"soiltest_xml_url":0,"soiltest_view_url":0},{"id":188765,"code":"B4KJ201801007-7014","latitude":"34.4874925","longitude":"133.3137411","source_code":"CG51335285027","project_name":"","survey_name":"\u5c71\u967d\u81ea\u52d5\u8eca\u9053\u6d25\u4e4b\u90f7\u5730\u8cea\u8abf\u67fb\u696d\u52d9","client_name":"\u56fd\u571f\u4ea4\u901a\u7701\u4e2d\u56fd\u5730\u65b9\u6574\u5099\u5c40\u798f\u5c71\u6cb3\u5ddd\u56fd\u9053\u4e8b\u52d9\u6240","boring_xml_url":40,"boring_view_url":1,"soilmap_view_url":null,"soiltest_xml_url":0,"soiltest_view_url":0},{"id":188764,"code":"B4KJ201801007-7013","latitude":"34.4876036","longitude":"133.3135469","source_code":"CG51335285026","project_name":"","survey_name":"\u5c71\u967d\u81ea\u52d5\u8eca\u9053\u6d25\u4e4b\u90f7\u5730\u8cea\u8abf\u67fb\u696d\u52d9","client_name":"\u56fd\u571f\u4ea4\u901a\u7701\u4e2d\u56fd\u5730\u65b9\u6574\u5099\u5c40\u798f\u5c71\u6cb3\u5ddd\u56fd\u9053\u4e8b\u52d9\u6240","boring_xml_url":40,"boring_view_url":1,"soilmap_view_url":null,"soiltest_xml_url":0,"soiltest_view_url":0},{"id":188763,"code":"B4KJ201801007-7012","latitude":"34.4876592","longitude":"133.3138244","source_code":"CG51335285025","project_name":"","survey_name":"\u5c71\u967d\u81ea\u52d5\u8eca\u9053\u6d25\u4e4b\u90f7\u5730\u8cea\u8abf\u67fb\u696d\u52d9","client_name":"\u56fd\u571f\u4ea4\u901a\u7701\u4e2d\u56fd\u5730\u65b9\u6574\u5099\u5c40\u798f\u5c71\u6cb3\u5ddd\u56fd\u9053\u4e8b\u52d9\u6240","boring_xml_url":40,"boring_view_url":1,"soilmap_view_url":null,"soiltest_xml_url":0,"soiltest_view_url":0},{"id":188762,"code":"B4KJ201801007-7011","latitude":"34.4877981","longitude":"133.3136022","source_code":"CG51335285024","project_name":"","survey_name":"\u5c71\u967d\u81ea\u52d5\u8eca\u9053\u6d25\u4e4b\u90f7\u5730\u8cea\u8abf\u67fb\u696d\u52d9","client_name":"\u56fd\u571f\u4ea4\u901a\u7701\u4e2d\u56fd\u5730\u65b9\u6574\u5099\u5c40\u798f\u5c71\u6cb3\u5ddd\u56fd\u9053\u4e8b\u52d9\u6240","boring_xml_url":40,"boring_view_url":1,"soilmap_view_url":null,"soiltest_xml_url":0,"soiltest_view_url":0},{"id":188761,"code":"B4KJ201801007-7010","latitude":"34.4878536","longitude":"133.3141022","source_code":"CG51335285023","project_name":"","survey_name":"\u5c71\u967d\u81ea\u52d5\u8eca\u9053\u6d25\u4e4b\u90f7\u5730\u8cea\u8abf\u67fb\u696d\u52d9","client_name":"\u56fd\u571f\u4ea4\u901a\u7701\u4e2d\u56fd\u5730\u65b9\u6574\u5099\u5c40\u798f\u5c71\u6cb3\u5ddd\u56fd\u9053\u4e8b\u52d9\u6240","boring_xml_url":40,"boring_view_url":1,"soilmap_view_url":null,"soiltest_xml_url":0,"soiltest_view_url":0},{"id":188760,"code":"B4KJ201801007-7009","latitude":"34.4880481","longitude":"133.3137411","source_code":"CG51335285022","project_name":"","survey_name":"\u5c71\u967d\u81ea\u52d5\u8eca\u9053\u6d25\u4e4b\u90f7\u5730\u8cea\u8abf\u67fb\u696d\u52d9","client_name":"\u56fd\u571f\u4ea4\u901a\u7701\u4e2d\u56fd\u5730\u65b9\u6574\u5099\u5c40\u798f\u5c71\u6cb3\u5ddd\u56fd\u9053\u4e8b\u52d9\u6240","boring_xml_url":40,"boring_view_url":1,"soilmap_view_url":null,"soiltest_xml_url":0,"soiltest_view_url":0},{"id":188759,"code":"B4KJ201801007-7008","latitude":"34.4881036","longitude":"133.3140744","source_code":"CG51335285021","project_name":"","survey_name":"\u5c71\u967d\u81ea\u52d5\u8eca\u9053\u6d25\u4e4b\u90f7\u5730\u8cea\u8abf\u67fb\u696d\u52d9","client_name":"\u56fd\u571f\u4ea4\u901a\u7701\u4e2d\u56fd\u5730\u65b9\u6574\u5099\u5c40\u798f\u5c71\u6cb3\u5ddd\u56fd\u9053\u4e8b\u52d9\u6240","boring_xml_url":40,"boring_view_url":1,"soilmap_view_url":null,"soiltest_xml_url":0,"soiltest_view_url":0},{"id":188758,"code":"B4KJ201801007-7007","latitude":"34.4882147","longitude":"133.3137411","source_code":"CG51335285020","project_name":"","survey_name":"\u5c71\u967d\u81ea\u52d5\u8eca\u9053\u6d25\u4e4b\u90f7\u5730\u8cea\u8abf\u67fb\u696d\u52d9","client_name":"\u56fd\u571f\u4ea4\u901a\u7701\u4e2d\u56fd\u5730\u65b9\u6574\u5099\u5c40\u798f\u5c71\u6cb3\u5ddd\u56fd\u9053\u4e8b\u52d9\u6240","boring_xml_url":40,"boring_view_url":1,"soilmap_view_url":null,"soiltest_xml_url":0,"soiltest_view_url":0},{"id":188757,"code":"B4KJ201801007-7006","latitude":"34.4920475","longitude":"133.3157408","source_code":"CG51335285019","project_name":"","survey_name":"\u5c71\u967d\u81ea\u52d5\u8eca\u9053\u6d25\u4e4b\u90f7\u5730\u8cea\u8abf\u67fb\u696d\u52d9","client_name":"\u56fd\u571f\u4ea4\u901a\u7701\u4e2d\u56fd\u5730\u65b9\u6574\u5099\u5c40\u798f\u5c71\u6cb3\u5ddd\u56fd\u9053\u4e8b\u52d9\u6240","boring_xml_url":40,"boring_view_url":1,"soilmap_view_url":null,"soiltest_xml_url":0,"soiltest_view_url":0},{"id":188756,"code":"B4KJ201801007-7005","latitude":"34.4922697","longitude":"133.3157964","source_code":"CG51335285018","project_name":"","survey_name":"\u5c71\u967d\u81ea\u52d5\u8eca\u9053\u6d25\u4e4b\u90f7\u5730\u8cea\u8abf\u67fb\u696d\u52d9","client_name":"\u56fd\u571f\u4ea4\u901a\u7701\u4e2d\u56fd\u5730\u65b9\u6574\u5099\u5c40\u798f\u5c71\u6cb3\u5ddd\u56fd\u9053\u4e8b\u52d9\u6240","boring_xml_url":40,"boring_view_url":1,"soilmap_view_url":null,"soiltest_xml_url":0,"soiltest_view_url":0}]}}