{"header":{"xyz":{"source":[],"mosaic":false},"page":44,"raw":{"soiltest_result":"0","bbox":"57.598333,109.544722,1.933333,163.806111","page":"44"},"conditions":{"soiltest_result":0,"north":57.598333,"west":109.544722,"south":1.933333,"east":163.806111},"success":true,"message":""},"data":{"meta":{"total":212844,"page":44,"pages":7095,"count":30},"values":[{"id":699838,"code":"NGIC202305353-0003","latitude":"33.247187777778","longitude":"130.24358111111","source_code":"","project_name":"","survey_name":"\u4ee4\u548c5\u5e74\u5ea6\u5b87\u30ce\u67282\u53f7\u6392\u6c34\u6a0b\u7ba1\u8a73\u7d30\u8a2d\u8a08\u5916\u696d\u52d9","client_name":"\u56fd\u571f\u4ea4\u901a\u7701\u4e5d\u5dde\u5730\u65b9\u6574\u5099\u5c40\u6b66\u96c4\u6cb3\u5ddd\u4e8b\u52d9\u6240","boring_xml_url":47,"boring_view_url":1,"soilmap_view_url":null,"soiltest_xml_url":0,"soiltest_view_url":0},{"id":699837,"code":"NGIC202305353-0002","latitude":"33.248976388889","longitude":"130.24386611111","source_code":"","project_name":"","survey_name":"\u4ee4\u548c5\u5e74\u5ea6\u5b87\u30ce\u67282\u53f7\u6392\u6c34\u6a0b\u7ba1\u8a73\u7d30\u8a2d\u8a08\u5916\u696d\u52d9","client_name":"\u56fd\u571f\u4ea4\u901a\u7701\u4e5d\u5dde\u5730\u65b9\u6574\u5099\u5c40\u6b66\u96c4\u6cb3\u5ddd\u4e8b\u52d9\u6240","boring_xml_url":47,"boring_view_url":1,"soilmap_view_url":null,"soiltest_xml_url":0,"soiltest_view_url":0},{"id":699836,"code":"NGIC202305353-0001","latitude":"33.401405555556","longitude":"129.97016055556","source_code":"","project_name":"","survey_name":"\u4ee4\u548c5\u5e74\u5ea6\u5b87\u30ce\u67282\u53f7\u6392\u6c34\u6a0b\u7ba1\u8a73\u7d30\u8a2d\u8a08\u5916\u696d\u52d9","client_name":"\u56fd\u571f\u4ea4\u901a\u7701\u4e5d\u5dde\u5730\u65b9\u6574\u5099\u5c40\u6b66\u96c4\u6cb3\u5ddd\u4e8b\u52d9\u6240","boring_xml_url":47,"boring_view_url":1,"soilmap_view_url":null,"soiltest_xml_url":47,"soiltest_view_url":47},{"id":699784,"code":"NGIC202305227-0003","latitude":"43.112872222222","longitude":"144.63369444444","source_code":"","project_name":"\u30dc\u30fc\u30ea\u30f3\u30b0\u8abf\u67fb","survey_name":"\u4e00\u822c\u56fd\u9053274\u53f7\u9db4\u5c45\u6751\u5e4c\u5442\u5730\u3059\u3079\u308a\u8abf\u67fb\u5916\u4e00\u9023\u696d\u52d9","client_name":"\u56fd\u571f\u4ea4\u901a\u7701\u5317\u6d77\u9053\u958b\u767a\u5c40\u91e7\u8def\u958b\u767a\u5efa\u8a2d\u90e8\u672c\u90e8","boring_xml_url":47,"boring_view_url":1,"soilmap_view_url":null,"soiltest_xml_url":0,"soiltest_view_url":0},{"id":699783,"code":"NGIC202305227-0002","latitude":"43.553797222222","longitude":"144.35909444444","source_code":"","project_name":"\u30dc\u30fc\u30ea\u30f3\u30b0\u8abf\u67fb","survey_name":"\u4e00\u822c\u56fd\u9053274\u53f7\u9db4\u5c45\u6751\u5e4c\u5442\u5730\u3059\u3079\u308a\u8abf\u67fb\u5916\u4e00\u9023\u696d\u52d9","client_name":"\u56fd\u571f\u4ea4\u901a\u7701\u5317\u6d77\u9053\u958b\u767a\u5c40\u91e7\u8def\u958b\u767a\u5efa\u8a2d\u90e8\u672c\u90e8","boring_xml_url":47,"boring_view_url":1,"soilmap_view_url":null,"soiltest_xml_url":0,"soiltest_view_url":0},{"id":699782,"code":"NGIC202305227-0001","latitude":"43.419952777778","longitude":"144.14530833333","source_code":"","project_name":"\u30dc\u30fc\u30ea\u30f3\u30b0\u8abf\u67fb","survey_name":"\u4e00\u822c\u56fd\u9053274\u53f7\u9db4\u5c45\u6751\u5e4c\u5442\u5730\u3059\u3079\u308a\u8abf\u67fb\u5916\u4e00\u9023\u696d\u52d9","client_name":"\u56fd\u571f\u4ea4\u901a\u7701\u5317\u6d77\u9053\u958b\u767a\u5c40\u91e7\u8def\u958b\u767a\u5efa\u8a2d\u90e8\u672c\u90e8","boring_xml_url":47,"boring_view_url":1,"soilmap_view_url":null,"soiltest_xml_url":47,"soiltest_view_url":47},{"id":699775,"code":"NGIC202305341-0014","latitude":"34.476477444444","longitude":"132.41989336111","source_code":"","project_name":"","survey_name":"\u4ee4\u548c5\u5e74\u5ea6\u5e83\u5cf6\u897f\u90e8\u5c71\u7cfb\u5730\u8cea\u8abf\u67fb\u696d\u52d9","client_name":"\u56fd\u571f\u4ea4\u901a\u7701\u4e2d\u56fd\u5730\u65b9\u6574\u5099\u5c40\u5e83\u5cf6\u897f\u90e8\u5c71\u7cfb\u7802\u9632\u4e8b\u52d9\u6240","boring_xml_url":47,"boring_view_url":1,"soilmap_view_url":null,"soiltest_xml_url":0,"soiltest_view_url":0},{"id":699774,"code":"NGIC202305341-0013","latitude":"34.476692555556","longitude":"132.41961016667","source_code":"","project_name":"","survey_name":"\u4ee4\u548c5\u5e74\u5ea6\u5e83\u5cf6\u897f\u90e8\u5c71\u7cfb\u5730\u8cea\u8abf\u67fb\u696d\u52d9","client_name":"\u56fd\u571f\u4ea4\u901a\u7701\u4e2d\u56fd\u5730\u65b9\u6574\u5099\u5c40\u5e83\u5cf6\u897f\u90e8\u5c71\u7cfb\u7802\u9632\u4e8b\u52d9\u6240","boring_xml_url":47,"boring_view_url":1,"soilmap_view_url":null,"soiltest_xml_url":0,"soiltest_view_url":0},{"id":699773,"code":"NGIC202305341-0012","latitude":"34.476634777778","longitude":"132.4197075","source_code":"","project_name":"","survey_name":"\u4ee4\u548c5\u5e74\u5ea6\u5e83\u5cf6\u897f\u90e8\u5c71\u7cfb\u5730\u8cea\u8abf\u67fb\u696d\u52d9","client_name":"\u56fd\u571f\u4ea4\u901a\u7701\u4e2d\u56fd\u5730\u65b9\u6574\u5099\u5c40\u5e83\u5cf6\u897f\u90e8\u5c71\u7cfb\u7802\u9632\u4e8b\u52d9\u6240","boring_xml_url":47,"boring_view_url":1,"soilmap_view_url":null,"soiltest_xml_url":0,"soiltest_view_url":0},{"id":699772,"code":"NGIC202305341-0011","latitude":"34.476689138889","longitude":"132.42010494444","source_code":"","project_name":"","survey_name":"\u4ee4\u548c5\u5e74\u5ea6\u5e83\u5cf6\u897f\u90e8\u5c71\u7cfb\u5730\u8cea\u8abf\u67fb\u696d\u52d9","client_name":"\u56fd\u571f\u4ea4\u901a\u7701\u4e2d\u56fd\u5730\u65b9\u6574\u5099\u5c40\u5e83\u5cf6\u897f\u90e8\u5c71\u7cfb\u7802\u9632\u4e8b\u52d9\u6240","boring_xml_url":47,"boring_view_url":1,"soilmap_view_url":null,"soiltest_xml_url":0,"soiltest_view_url":0},{"id":699771,"code":"NGIC202305341-0010","latitude":"34.476655361111","longitude":"132.41985788889","source_code":"","project_name":"","survey_name":"\u4ee4\u548c5\u5e74\u5ea6\u5e83\u5cf6\u897f\u90e8\u5c71\u7cfb\u5730\u8cea\u8abf\u67fb\u696d\u52d9","client_name":"\u56fd\u571f\u4ea4\u901a\u7701\u4e2d\u56fd\u5730\u65b9\u6574\u5099\u5c40\u5e83\u5cf6\u897f\u90e8\u5c71\u7cfb\u7802\u9632\u4e8b\u52d9\u6240","boring_xml_url":47,"boring_view_url":1,"soilmap_view_url":null,"soiltest_xml_url":0,"soiltest_view_url":0},{"id":699770,"code":"NGIC202305341-0009","latitude":"34.479290472222","longitude":"132.41494541667","source_code":"","project_name":"","survey_name":"\u4ee4\u548c5\u5e74\u5ea6\u5e83\u5cf6\u897f\u90e8\u5c71\u7cfb\u5730\u8cea\u8abf\u67fb\u696d\u52d9","client_name":"\u56fd\u571f\u4ea4\u901a\u7701\u4e2d\u56fd\u5730\u65b9\u6574\u5099\u5c40\u5e83\u5cf6\u897f\u90e8\u5c71\u7cfb\u7802\u9632\u4e8b\u52d9\u6240","boring_xml_url":47,"boring_view_url":1,"soilmap_view_url":null,"soiltest_xml_url":0,"soiltest_view_url":0},{"id":699769,"code":"NGIC202305341-0008","latitude":"34.479688027778","longitude":"132.41476833333","source_code":"","project_name":"","survey_name":"\u4ee4\u548c5\u5e74\u5ea6\u5e83\u5cf6\u897f\u90e8\u5c71\u7cfb\u5730\u8cea\u8abf\u67fb\u696d\u52d9","client_name":"\u56fd\u571f\u4ea4\u901a\u7701\u4e2d\u56fd\u5730\u65b9\u6574\u5099\u5c40\u5e83\u5cf6\u897f\u90e8\u5c71\u7cfb\u7802\u9632\u4e8b\u52d9\u6240","boring_xml_url":47,"boring_view_url":1,"soilmap_view_url":null,"soiltest_xml_url":0,"soiltest_view_url":0},{"id":699768,"code":"NGIC202305341-0007","latitude":"34.4796255","longitude":"132.41483075","source_code":"","project_name":"","survey_name":"\u4ee4\u548c5\u5e74\u5ea6\u5e83\u5cf6\u897f\u90e8\u5c71\u7cfb\u5730\u8cea\u8abf\u67fb\u696d\u52d9","client_name":"\u56fd\u571f\u4ea4\u901a\u7701\u4e2d\u56fd\u5730\u65b9\u6574\u5099\u5c40\u5e83\u5cf6\u897f\u90e8\u5c71\u7cfb\u7802\u9632\u4e8b\u52d9\u6240","boring_xml_url":47,"boring_view_url":1,"soilmap_view_url":null,"soiltest_xml_url":0,"soiltest_view_url":0},{"id":699767,"code":"NGIC202305341-0006","latitude":"34.479598222222","longitude":"132.41517758333","source_code":"","project_name":"","survey_name":"\u4ee4\u548c5\u5e74\u5ea6\u5e83\u5cf6\u897f\u90e8\u5c71\u7cfb\u5730\u8cea\u8abf\u67fb\u696d\u52d9","client_name":"\u56fd\u571f\u4ea4\u901a\u7701\u4e2d\u56fd\u5730\u65b9\u6574\u5099\u5c40\u5e83\u5cf6\u897f\u90e8\u5c71\u7cfb\u7802\u9632\u4e8b\u52d9\u6240","boring_xml_url":47,"boring_view_url":1,"soilmap_view_url":null,"soiltest_xml_url":0,"soiltest_view_url":0},{"id":699766,"code":"NGIC202305341-0005","latitude":"34.479613555556","longitude":"132.4149825","source_code":"","project_name":"","survey_name":"\u4ee4\u548c5\u5e74\u5ea6\u5e83\u5cf6\u897f\u90e8\u5c71\u7cfb\u5730\u8cea\u8abf\u67fb\u696d\u52d9","client_name":"\u56fd\u571f\u4ea4\u901a\u7701\u4e2d\u56fd\u5730\u65b9\u6574\u5099\u5c40\u5e83\u5cf6\u897f\u90e8\u5c71\u7cfb\u7802\u9632\u4e8b\u52d9\u6240","boring_xml_url":47,"boring_view_url":1,"soilmap_view_url":null,"soiltest_xml_url":0,"soiltest_view_url":0},{"id":699765,"code":"NGIC202305341-0004","latitude":"34.474812527778","longitude":"132.41475158333","source_code":"","project_name":"","survey_name":"\u4ee4\u548c5\u5e74\u5ea6\u5e83\u5cf6\u897f\u90e8\u5c71\u7cfb\u5730\u8cea\u8abf\u67fb\u696d\u52d9","client_name":"\u56fd\u571f\u4ea4\u901a\u7701\u4e2d\u56fd\u5730\u65b9\u6574\u5099\u5c40\u5e83\u5cf6\u897f\u90e8\u5c71\u7cfb\u7802\u9632\u4e8b\u52d9\u6240","boring_xml_url":47,"boring_view_url":1,"soilmap_view_url":null,"soiltest_xml_url":0,"soiltest_view_url":0},{"id":699764,"code":"NGIC202305341-0003","latitude":"34.474930305556","longitude":"132.41469263889","source_code":"","project_name":"","survey_name":"\u4ee4\u548c5\u5e74\u5ea6\u5e83\u5cf6\u897f\u90e8\u5c71\u7cfb\u5730\u8cea\u8abf\u67fb\u696d\u52d9","client_name":"\u56fd\u571f\u4ea4\u901a\u7701\u4e2d\u56fd\u5730\u65b9\u6574\u5099\u5c40\u5e83\u5cf6\u897f\u90e8\u5c71\u7cfb\u7802\u9632\u4e8b\u52d9\u6240","boring_xml_url":47,"boring_view_url":1,"soilmap_view_url":null,"soiltest_xml_url":0,"soiltest_view_url":0},{"id":699763,"code":"NGIC202305341-0002","latitude":"34.474705388889","longitude":"132.41458022222","source_code":"","project_name":"","survey_name":"\u4ee4\u548c5\u5e74\u5ea6\u5e83\u5cf6\u897f\u90e8\u5c71\u7cfb\u5730\u8cea\u8abf\u67fb\u696d\u52d9","client_name":"\u56fd\u571f\u4ea4\u901a\u7701\u4e2d\u56fd\u5730\u65b9\u6574\u5099\u5c40\u5e83\u5cf6\u897f\u90e8\u5c71\u7cfb\u7802\u9632\u4e8b\u52d9\u6240","boring_xml_url":47,"boring_view_url":1,"soilmap_view_url":null,"soiltest_xml_url":0,"soiltest_view_url":0},{"id":699762,"code":"NGIC202305341-0001","latitude":"34.474847","longitude":"132.414651","source_code":"","project_name":"","survey_name":"\u4ee4\u548c5\u5e74\u5ea6\u5e83\u5cf6\u897f\u90e8\u5c71\u7cfb\u5730\u8cea\u8abf\u67fb\u696d\u52d9","client_name":"\u56fd\u571f\u4ea4\u901a\u7701\u4e2d\u56fd\u5730\u65b9\u6574\u5099\u5c40\u5e83\u5cf6\u897f\u90e8\u5c71\u7cfb\u7802\u9632\u4e8b\u52d9\u6240","boring_xml_url":47,"boring_view_url":1,"soilmap_view_url":null,"soiltest_xml_url":0,"soiltest_view_url":0},{"id":699739,"code":"NGIC202305030-0016","latitude":"35.637305555556","longitude":"136.47727777778","source_code":"","project_name":"\u4ee4\u548c5\u5e74\u5ea6\u8d8a\u7f8e\u5c71\u7cfb\u7ba1\u5185\u63d6\u6590\u5ddd\u6d41\u57df\u5730\u8cea\u8abf\u67fb\u696d\u52d9","survey_name":"\u4ee4\u548c5\u5e74\u5ea6\u8d8a\u7f8e\u5c71\u7cfb\u7ba1\u5185\u63d6\u6590\u5ddd\u6d41\u57df\u5730\u8cea\u8abf\u67fb\u696d\u52d9","client_name":"\u56fd\u571f\u4ea4\u901a\u7701\u4e2d\u90e8\u5730\u65b9\u6574\u5099\u5c40\u8d8a\u7f8e\u5c71\u7cfb\u7802\u9632\u4e8b\u52d9\u6240","boring_xml_url":47,"boring_view_url":1,"soilmap_view_url":null,"soiltest_xml_url":0,"soiltest_view_url":0},{"id":699738,"code":"NGIC202305030-0015","latitude":"35.58325","longitude":"136.45422222222","source_code":"","project_name":"\u4ee4\u548c5\u5e74\u5ea6\u8d8a\u7f8e\u5c71\u7cfb\u7ba1\u5185\u63d6\u6590\u5ddd\u6d41\u57df\u5730\u8cea\u8abf\u67fb\u696d\u52d9","survey_name":"\u4ee4\u548c5\u5e74\u5ea6\u8d8a\u7f8e\u5c71\u7cfb\u7ba1\u5185\u63d6\u6590\u5ddd\u6d41\u57df\u5730\u8cea\u8abf\u67fb\u696d\u52d9","client_name":"\u56fd\u571f\u4ea4\u901a\u7701\u4e2d\u90e8\u5730\u65b9\u6574\u5099\u5c40\u8d8a\u7f8e\u5c71\u7cfb\u7802\u9632\u4e8b\u52d9\u6240","boring_xml_url":47,"boring_view_url":1,"soilmap_view_url":null,"soiltest_xml_url":0,"soiltest_view_url":0},{"id":699737,"code":"NGIC202305030-0014","latitude":"35.582222222222","longitude":"136.46116666667","source_code":"","project_name":"\u4ee4\u548c5\u5e74\u5ea6\u8d8a\u7f8e\u5c71\u7cfb\u7ba1\u5185\u63d6\u6590\u5ddd\u6d41\u57df\u5730\u8cea\u8abf\u67fb\u696d\u52d9","survey_name":"\u4ee4\u548c5\u5e74\u5ea6\u8d8a\u7f8e\u5c71\u7cfb\u7ba1\u5185\u63d6\u6590\u5ddd\u6d41\u57df\u5730\u8cea\u8abf\u67fb\u696d\u52d9","client_name":"\u56fd\u571f\u4ea4\u901a\u7701\u4e2d\u90e8\u5730\u65b9\u6574\u5099\u5c40\u8d8a\u7f8e\u5c71\u7cfb\u7802\u9632\u4e8b\u52d9\u6240","boring_xml_url":47,"boring_view_url":1,"soilmap_view_url":null,"soiltest_xml_url":0,"soiltest_view_url":0},{"id":699736,"code":"NGIC202305030-0013","latitude":"35.582444444444","longitude":"136.46094444444","source_code":"","project_name":"\u4ee4\u548c5\u5e74\u5ea6\u8d8a\u7f8e\u5c71\u7cfb\u7ba1\u5185\u63d6\u6590\u5ddd\u6d41\u57df\u5730\u8cea\u8abf\u67fb\u696d\u52d9","survey_name":"\u4ee4\u548c5\u5e74\u5ea6\u8d8a\u7f8e\u5c71\u7cfb\u7ba1\u5185\u63d6\u6590\u5ddd\u6d41\u57df\u5730\u8cea\u8abf\u67fb\u696d\u52d9","client_name":"\u56fd\u571f\u4ea4\u901a\u7701\u4e2d\u90e8\u5730\u65b9\u6574\u5099\u5c40\u8d8a\u7f8e\u5c71\u7cfb\u7802\u9632\u4e8b\u52d9\u6240","boring_xml_url":47,"boring_view_url":1,"soilmap_view_url":null,"soiltest_xml_url":0,"soiltest_view_url":0},{"id":699735,"code":"NGIC202305030-0012","latitude":"35.582305555556","longitude":"136.46111111111","source_code":"","project_name":"\u4ee4\u548c5\u5e74\u5ea6\u8d8a\u7f8e\u5c71\u7cfb\u7ba1\u5185\u63d6\u6590\u5ddd\u6d41\u57df\u5730\u8cea\u8abf\u67fb\u696d\u52d9","survey_name":"\u4ee4\u548c5\u5e74\u5ea6\u8d8a\u7f8e\u5c71\u7cfb\u7ba1\u5185\u63d6\u6590\u5ddd\u6d41\u57df\u5730\u8cea\u8abf\u67fb\u696d\u52d9","client_name":"\u56fd\u571f\u4ea4\u901a\u7701\u4e2d\u90e8\u5730\u65b9\u6574\u5099\u5c40\u8d8a\u7f8e\u5c71\u7cfb\u7802\u9632\u4e8b\u52d9\u6240","boring_xml_url":47,"boring_view_url":1,"soilmap_view_url":null,"soiltest_xml_url":0,"soiltest_view_url":0},{"id":699734,"code":"NGIC202305030-0011","latitude":"35.608777777778","longitude":"136.40213888889","source_code":"","project_name":"\u4ee4\u548c5\u5e74\u5ea6\u8d8a\u7f8e\u5c71\u7cfb\u7ba1\u5185\u63d6\u6590\u5ddd\u6d41\u57df\u5730\u8cea\u8abf\u67fb\u696d\u52d9","survey_name":"\u4ee4\u548c5\u5e74\u5ea6\u8d8a\u7f8e\u5c71\u7cfb\u7ba1\u5185\u63d6\u6590\u5ddd\u6d41\u57df\u5730\u8cea\u8abf\u67fb\u696d\u52d9","client_name":"\u56fd\u571f\u4ea4\u901a\u7701\u4e2d\u90e8\u5730\u65b9\u6574\u5099\u5c40\u8d8a\u7f8e\u5c71\u7cfb\u7802\u9632\u4e8b\u52d9\u6240","boring_xml_url":47,"boring_view_url":1,"soilmap_view_url":null,"soiltest_xml_url":0,"soiltest_view_url":0},{"id":699733,"code":"NGIC202305030-0010","latitude":"35.608444444444","longitude":"136.40222222222","source_code":"","project_name":"\u4ee4\u548c5\u5e74\u5ea6\u8d8a\u7f8e\u5c71\u7cfb\u7ba1\u5185\u63d6\u6590\u5ddd\u6d41\u57df\u5730\u8cea\u8abf\u67fb\u696d\u52d9","survey_name":"\u4ee4\u548c5\u5e74\u5ea6\u8d8a\u7f8e\u5c71\u7cfb\u7ba1\u5185\u63d6\u6590\u5ddd\u6d41\u57df\u5730\u8cea\u8abf\u67fb\u696d\u52d9","client_name":"\u56fd\u571f\u4ea4\u901a\u7701\u4e2d\u90e8\u5730\u65b9\u6574\u5099\u5c40\u8d8a\u7f8e\u5c71\u7cfb\u7802\u9632\u4e8b\u52d9\u6240","boring_xml_url":47,"boring_view_url":1,"soilmap_view_url":null,"soiltest_xml_url":0,"soiltest_view_url":0},{"id":699732,"code":"NGIC202305030-0009","latitude":"35.608611111111","longitude":"136.40236111111","source_code":"","project_name":"\u4ee4\u548c5\u5e74\u5ea6\u8d8a\u7f8e\u5c71\u7cfb\u7ba1\u5185\u63d6\u6590\u5ddd\u6d41\u57df\u5730\u8cea\u8abf\u67fb\u696d\u52d9","survey_name":"\u4ee4\u548c5\u5e74\u5ea6\u8d8a\u7f8e\u5c71\u7cfb\u7ba1\u5185\u63d6\u6590\u5ddd\u6d41\u57df\u5730\u8cea\u8abf\u67fb\u696d\u52d9","client_name":"\u56fd\u571f\u4ea4\u901a\u7701\u4e2d\u90e8\u5730\u65b9\u6574\u5099\u5c40\u8d8a\u7f8e\u5c71\u7cfb\u7802\u9632\u4e8b\u52d9\u6240","boring_xml_url":47,"boring_view_url":1,"soilmap_view_url":null,"soiltest_xml_url":0,"soiltest_view_url":0},{"id":699731,"code":"NGIC202305030-0008","latitude":"35.608638888889","longitude":"136.40225","source_code":"","project_name":"\u4ee4\u548c5\u5e74\u5ea6\u8d8a\u7f8e\u5c71\u7cfb\u7ba1\u5185\u63d6\u6590\u5ddd\u6d41\u57df\u5730\u8cea\u8abf\u67fb\u696d\u52d9","survey_name":"\u4ee4\u548c5\u5e74\u5ea6\u8d8a\u7f8e\u5c71\u7cfb\u7ba1\u5185\u63d6\u6590\u5ddd\u6d41\u57df\u5730\u8cea\u8abf\u67fb\u696d\u52d9","client_name":"\u56fd\u571f\u4ea4\u901a\u7701\u4e2d\u90e8\u5730\u65b9\u6574\u5099\u5c40\u8d8a\u7f8e\u5c71\u7cfb\u7802\u9632\u4e8b\u52d9\u6240","boring_xml_url":47,"boring_view_url":1,"soilmap_view_url":null,"soiltest_xml_url":0,"soiltest_view_url":0},{"id":699730,"code":"NGIC202305030-0007","latitude":"35.581222222222","longitude":"136.41622222222","source_code":"","project_name":"\u4ee4\u548c5\u5e74\u5ea6\u8d8a\u7f8e\u5c71\u7cfb\u7ba1\u5185\u63d6\u6590\u5ddd\u6d41\u57df\u5730\u8cea\u8abf\u67fb\u696d\u52d9","survey_name":"\u4ee4\u548c5\u5e74\u5ea6\u8d8a\u7f8e\u5c71\u7cfb\u7ba1\u5185\u63d6\u6590\u5ddd\u6d41\u57df\u5730\u8cea\u8abf\u67fb\u696d\u52d9","client_name":"\u56fd\u571f\u4ea4\u901a\u7701\u4e2d\u90e8\u5730\u65b9\u6574\u5099\u5c40\u8d8a\u7f8e\u5c71\u7cfb\u7802\u9632\u4e8b\u52d9\u6240","boring_xml_url":47,"boring_view_url":1,"soilmap_view_url":null,"soiltest_xml_url":0,"soiltest_view_url":0}]}}