{"header":{"xyz":{"source":[],"mosaic":false},"page":440,"raw":{"soiltest_result":"0","bbox":"57.598333,109.544722,1.933333,163.806111","page":"440"},"conditions":{"soiltest_result":0,"north":57.598333,"west":109.544722,"south":1.933333,"east":163.806111},"success":true,"message":""},"data":{"meta":{"total":212844,"page":440,"pages":7095,"count":30},"values":[{"id":532218,"code":"B4KJ202201003-4754","latitude":"32.910376","longitude":"130.026031","source_code":"QS20168945620200160028","project_name":"","survey_name":"\u5e73\u621028\u5e74\u5ea6\u672c\u660e\u5ddd\u30c0\u30e0\u30b0\u30e9\u30a6\u30c1\u30f3\u30b0\u8a66\u9a13\u696d\u52d9","client_name":"\u56fd\u571f\u4ea4\u901a\u7701\u3000\u4e5d\u5dde\u5730\u65b9\u6574\u5099\u5c40\u3000\u9577\u5d0e\u6cb3\u5ddd\u56fd\u9053\u4e8b\u52d9\u6240","boring_xml_url":72,"boring_view_url":1,"soilmap_view_url":null,"soiltest_xml_url":0,"soiltest_view_url":0},{"id":532217,"code":"B4KJ202201003-4753","latitude":"32.91037","longitude":"130.026078","source_code":"QS20168945620200160027","project_name":"","survey_name":"\u5e73\u621028\u5e74\u5ea6\u672c\u660e\u5ddd\u30c0\u30e0\u30b0\u30e9\u30a6\u30c1\u30f3\u30b0\u8a66\u9a13\u696d\u52d9","client_name":"\u56fd\u571f\u4ea4\u901a\u7701\u3000\u4e5d\u5dde\u5730\u65b9\u6574\u5099\u5c40\u3000\u9577\u5d0e\u6cb3\u5ddd\u56fd\u9053\u4e8b\u52d9\u6240","boring_xml_url":72,"boring_view_url":1,"soilmap_view_url":null,"soiltest_xml_url":0,"soiltest_view_url":0},{"id":532216,"code":"B4KJ202201003-4752","latitude":"32.91038","longitude":"130.026048","source_code":"QS20168945620200160026","project_name":"","survey_name":"\u5e73\u621028\u5e74\u5ea6\u672c\u660e\u5ddd\u30c0\u30e0\u30b0\u30e9\u30a6\u30c1\u30f3\u30b0\u8a66\u9a13\u696d\u52d9","client_name":"\u56fd\u571f\u4ea4\u901a\u7701\u3000\u4e5d\u5dde\u5730\u65b9\u6574\u5099\u5c40\u3000\u9577\u5d0e\u6cb3\u5ddd\u56fd\u9053\u4e8b\u52d9\u6240","boring_xml_url":72,"boring_view_url":1,"soilmap_view_url":null,"soiltest_xml_url":0,"soiltest_view_url":0},{"id":532215,"code":"B4KJ202201003-4751","latitude":"32.910365","longitude":"130.026061","source_code":"QS20168945620200160025","project_name":"","survey_name":"\u5e73\u621028\u5e74\u5ea6\u672c\u660e\u5ddd\u30c0\u30e0\u30b0\u30e9\u30a6\u30c1\u30f3\u30b0\u8a66\u9a13\u696d\u52d9","client_name":"\u56fd\u571f\u4ea4\u901a\u7701\u3000\u4e5d\u5dde\u5730\u65b9\u6574\u5099\u5c40\u3000\u9577\u5d0e\u6cb3\u5ddd\u56fd\u9053\u4e8b\u52d9\u6240","boring_xml_url":72,"boring_view_url":1,"soilmap_view_url":null,"soiltest_xml_url":0,"soiltest_view_url":0},{"id":532214,"code":"B4KJ202201003-4750","latitude":"32.910377","longitude":"130.026079","source_code":"QS20168945620200160024","project_name":"","survey_name":"\u5e73\u621028\u5e74\u5ea6\u672c\u660e\u5ddd\u30c0\u30e0\u30b0\u30e9\u30a6\u30c1\u30f3\u30b0\u8a66\u9a13\u696d\u52d9","client_name":"\u56fd\u571f\u4ea4\u901a\u7701\u3000\u4e5d\u5dde\u5730\u65b9\u6574\u5099\u5c40\u3000\u9577\u5d0e\u6cb3\u5ddd\u56fd\u9053\u4e8b\u52d9\u6240","boring_xml_url":72,"boring_view_url":1,"soilmap_view_url":null,"soiltest_xml_url":0,"soiltest_view_url":0},{"id":532213,"code":"B4KJ202201003-4749","latitude":"32.910367","longitude":"130.026045","source_code":"QS20168945620200160023","project_name":"","survey_name":"\u5e73\u621028\u5e74\u5ea6\u672c\u660e\u5ddd\u30c0\u30e0\u30b0\u30e9\u30a6\u30c1\u30f3\u30b0\u8a66\u9a13\u696d\u52d9","client_name":"\u56fd\u571f\u4ea4\u901a\u7701\u3000\u4e5d\u5dde\u5730\u65b9\u6574\u5099\u5c40\u3000\u9577\u5d0e\u6cb3\u5ddd\u56fd\u9053\u4e8b\u52d9\u6240","boring_xml_url":72,"boring_view_url":1,"soilmap_view_url":null,"soiltest_xml_url":0,"soiltest_view_url":0},{"id":532212,"code":"B4KJ202201003-4748","latitude":"32.910382","longitude":"130.026032","source_code":"QS20168945620200160022","project_name":"","survey_name":"\u5e73\u621028\u5e74\u5ea6\u672c\u660e\u5ddd\u30c0\u30e0\u30b0\u30e9\u30a6\u30c1\u30f3\u30b0\u8a66\u9a13\u696d\u52d9","client_name":"\u56fd\u571f\u4ea4\u901a\u7701\u3000\u4e5d\u5dde\u5730\u65b9\u6574\u5099\u5c40\u3000\u9577\u5d0e\u6cb3\u5ddd\u56fd\u9053\u4e8b\u52d9\u6240","boring_xml_url":72,"boring_view_url":1,"soilmap_view_url":null,"soiltest_xml_url":0,"soiltest_view_url":0},{"id":532211,"code":"B4KJ202201003-4747","latitude":"32.910369","longitude":"130.026029","source_code":"QS20168945620200160021","project_name":"","survey_name":"\u5e73\u621028\u5e74\u5ea6\u672c\u660e\u5ddd\u30c0\u30e0\u30b0\u30e9\u30a6\u30c1\u30f3\u30b0\u8a66\u9a13\u696d\u52d9","client_name":"\u56fd\u571f\u4ea4\u901a\u7701\u3000\u4e5d\u5dde\u5730\u65b9\u6574\u5099\u5c40\u3000\u9577\u5d0e\u6cb3\u5ddd\u56fd\u9053\u4e8b\u52d9\u6240","boring_xml_url":72,"boring_view_url":1,"soilmap_view_url":null,"soiltest_xml_url":0,"soiltest_view_url":0},{"id":532210,"code":"B4KJ202201003-4746","latitude":"32.910379","longitude":"130.026063","source_code":"QS20168945620200160020","project_name":"","survey_name":"\u5e73\u621028\u5e74\u5ea6\u672c\u660e\u5ddd\u30c0\u30e0\u30b0\u30e9\u30a6\u30c1\u30f3\u30b0\u8a66\u9a13\u696d\u52d9","client_name":"\u56fd\u571f\u4ea4\u901a\u7701\u3000\u4e5d\u5dde\u5730\u65b9\u6574\u5099\u5c40\u3000\u9577\u5d0e\u6cb3\u5ddd\u56fd\u9053\u4e8b\u52d9\u6240","boring_xml_url":72,"boring_view_url":1,"soilmap_view_url":null,"soiltest_xml_url":0,"soiltest_view_url":0},{"id":532209,"code":"B4KJ202201003-4745","latitude":"32.910363","longitude":"130.026077","source_code":"QS20168945620200160019","project_name":"","survey_name":"\u5e73\u621028\u5e74\u5ea6\u672c\u660e\u5ddd\u30c0\u30e0\u30b0\u30e9\u30a6\u30c1\u30f3\u30b0\u8a66\u9a13\u696d\u52d9","client_name":"\u56fd\u571f\u4ea4\u901a\u7701\u3000\u4e5d\u5dde\u5730\u65b9\u6574\u5099\u5c40\u3000\u9577\u5d0e\u6cb3\u5ddd\u56fd\u9053\u4e8b\u52d9\u6240","boring_xml_url":72,"boring_view_url":1,"soilmap_view_url":null,"soiltest_xml_url":0,"soiltest_view_url":0},{"id":532208,"code":"B4KJ202201003-4744","latitude":"32.910373","longitude":"130.026054","source_code":"QS20168945620200160018","project_name":"","survey_name":"\u5e73\u621028\u5e74\u5ea6\u672c\u660e\u5ddd\u30c0\u30e0\u30b0\u30e9\u30a6\u30c1\u30f3\u30b0\u8a66\u9a13\u696d\u52d9","client_name":"\u56fd\u571f\u4ea4\u901a\u7701\u3000\u4e5d\u5dde\u5730\u65b9\u6574\u5099\u5c40\u3000\u9577\u5d0e\u6cb3\u5ddd\u56fd\u9053\u4e8b\u52d9\u6240","boring_xml_url":72,"boring_view_url":1,"soilmap_view_url":null,"soiltest_xml_url":0,"soiltest_view_url":0},{"id":532207,"code":"B4KJ202201003-4743","latitude":"32.910377","longitude":"130.026023","source_code":"QS20168945620200160017","project_name":"","survey_name":"\u5e73\u621028\u5e74\u5ea6\u672c\u660e\u5ddd\u30c0\u30e0\u30b0\u30e9\u30a6\u30c1\u30f3\u30b0\u8a66\u9a13\u696d\u52d9","client_name":"\u56fd\u571f\u4ea4\u901a\u7701\u3000\u4e5d\u5dde\u5730\u65b9\u6574\u5099\u5c40\u3000\u9577\u5d0e\u6cb3\u5ddd\u56fd\u9053\u4e8b\u52d9\u6240","boring_xml_url":72,"boring_view_url":1,"soilmap_view_url":null,"soiltest_xml_url":0,"soiltest_view_url":0},{"id":532206,"code":"B4KJ202201003-4742","latitude":"32.910384","longitude":"130.026073","source_code":"QS20168945620200160016","project_name":"","survey_name":"\u5e73\u621028\u5e74\u5ea6\u672c\u660e\u5ddd\u30c0\u30e0\u30b0\u30e9\u30a6\u30c1\u30f3\u30b0\u8a66\u9a13\u696d\u52d9","client_name":"\u56fd\u571f\u4ea4\u901a\u7701\u3000\u4e5d\u5dde\u5730\u65b9\u6574\u5099\u5c40\u3000\u9577\u5d0e\u6cb3\u5ddd\u56fd\u9053\u4e8b\u52d9\u6240","boring_xml_url":72,"boring_view_url":1,"soilmap_view_url":null,"soiltest_xml_url":0,"soiltest_view_url":0},{"id":532205,"code":"B4KJ202201003-4741","latitude":"32.910358","longitude":"130.026068","source_code":"QS20168945620200160015","project_name":"","survey_name":"\u5e73\u621028\u5e74\u5ea6\u672c\u660e\u5ddd\u30c0\u30e0\u30b0\u30e9\u30a6\u30c1\u30f3\u30b0\u8a66\u9a13\u696d\u52d9","client_name":"\u56fd\u571f\u4ea4\u901a\u7701\u3000\u4e5d\u5dde\u5730\u65b9\u6574\u5099\u5c40\u3000\u9577\u5d0e\u6cb3\u5ddd\u56fd\u9053\u4e8b\u52d9\u6240","boring_xml_url":72,"boring_view_url":1,"soilmap_view_url":null,"soiltest_xml_url":0,"soiltest_view_url":0},{"id":532204,"code":"B4KJ202201003-4740","latitude":"32.910388","longitude":"130.026041","source_code":"QS20168945620200160014","project_name":"","survey_name":"\u5e73\u621028\u5e74\u5ea6\u672c\u660e\u5ddd\u30c0\u30e0\u30b0\u30e9\u30a6\u30c1\u30f3\u30b0\u8a66\u9a13\u696d\u52d9","client_name":"\u56fd\u571f\u4ea4\u901a\u7701\u3000\u4e5d\u5dde\u5730\u65b9\u6574\u5099\u5c40\u3000\u9577\u5d0e\u6cb3\u5ddd\u56fd\u9053\u4e8b\u52d9\u6240","boring_xml_url":72,"boring_view_url":1,"soilmap_view_url":null,"soiltest_xml_url":0,"soiltest_view_url":0},{"id":532203,"code":"B4KJ202201003-4739","latitude":"32.910361","longitude":"130.026036","source_code":"QS20168945620200160013","project_name":"","survey_name":"\u5e73\u621028\u5e74\u5ea6\u672c\u660e\u5ddd\u30c0\u30e0\u30b0\u30e9\u30a6\u30c1\u30f3\u30b0\u8a66\u9a13\u696d\u52d9","client_name":"\u56fd\u571f\u4ea4\u901a\u7701\u3000\u4e5d\u5dde\u5730\u65b9\u6574\u5099\u5c40\u3000\u9577\u5d0e\u6cb3\u5ddd\u56fd\u9053\u4e8b\u52d9\u6240","boring_xml_url":72,"boring_view_url":1,"soilmap_view_url":null,"soiltest_xml_url":0,"soiltest_view_url":0},{"id":532202,"code":"B4KJ202201003-4738","latitude":"32.910369","longitude":"130.026086","source_code":"QS20168945620200160012","project_name":"","survey_name":"\u5e73\u621028\u5e74\u5ea6\u672c\u660e\u5ddd\u30c0\u30e0\u30b0\u30e9\u30a6\u30c1\u30f3\u30b0\u8a66\u9a13\u696d\u52d9","client_name":"\u56fd\u571f\u4ea4\u901a\u7701\u3000\u4e5d\u5dde\u5730\u65b9\u6574\u5099\u5c40\u3000\u9577\u5d0e\u6cb3\u5ddd\u56fd\u9053\u4e8b\u52d9\u6240","boring_xml_url":72,"boring_view_url":1,"soilmap_view_url":null,"soiltest_xml_url":0,"soiltest_view_url":0},{"id":532201,"code":"B4KJ202201003-4737","latitude":"32.910375","longitude":"130.026039","source_code":"QS20168945620200160011","project_name":"","survey_name":"\u5e73\u621028\u5e74\u5ea6\u672c\u660e\u5ddd\u30c0\u30e0\u30b0\u30e9\u30a6\u30c1\u30f3\u30b0\u8a66\u9a13\u696d\u52d9","client_name":"\u56fd\u571f\u4ea4\u901a\u7701\u3000\u4e5d\u5dde\u5730\u65b9\u6574\u5099\u5c40\u3000\u9577\u5d0e\u6cb3\u5ddd\u56fd\u9053\u4e8b\u52d9\u6240","boring_xml_url":72,"boring_view_url":1,"soilmap_view_url":null,"soiltest_xml_url":0,"soiltest_view_url":0},{"id":532200,"code":"B4KJ202201003-4736","latitude":"32.910371","longitude":"130.02607","source_code":"QS20168945620200160010","project_name":"","survey_name":"\u5e73\u621028\u5e74\u5ea6\u672c\u660e\u5ddd\u30c0\u30e0\u30b0\u30e9\u30a6\u30c1\u30f3\u30b0\u8a66\u9a13\u696d\u52d9","client_name":"\u56fd\u571f\u4ea4\u901a\u7701\u3000\u4e5d\u5dde\u5730\u65b9\u6574\u5099\u5c40\u3000\u9577\u5d0e\u6cb3\u5ddd\u56fd\u9053\u4e8b\u52d9\u6240","boring_xml_url":72,"boring_view_url":1,"soilmap_view_url":null,"soiltest_xml_url":0,"soiltest_view_url":0},{"id":532199,"code":"B4KJ202201003-4735","latitude":"32.91039","longitude":"130.026025","source_code":"QS20168945620200160009","project_name":"","survey_name":"\u5e73\u621028\u5e74\u5ea6\u672c\u660e\u5ddd\u30c0\u30e0\u30b0\u30e9\u30a6\u30c1\u30f3\u30b0\u8a66\u9a13\u696d\u52d9","client_name":"\u56fd\u571f\u4ea4\u901a\u7701\u3000\u4e5d\u5dde\u5730\u65b9\u6574\u5099\u5c40\u3000\u9577\u5d0e\u6cb3\u5ddd\u56fd\u9053\u4e8b\u52d9\u6240","boring_xml_url":72,"boring_view_url":1,"soilmap_view_url":null,"soiltest_xml_url":0,"soiltest_view_url":0},{"id":532198,"code":"B4KJ202201003-4734","latitude":"32.910359","longitude":"130.026052","source_code":"QS20168945620200160008","project_name":"","survey_name":"\u5e73\u621028\u5e74\u5ea6\u672c\u660e\u5ddd\u30c0\u30e0\u30b0\u30e9\u30a6\u30c1\u30f3\u30b0\u8a66\u9a13\u696d\u52d9","client_name":"\u56fd\u571f\u4ea4\u901a\u7701\u3000\u4e5d\u5dde\u5730\u65b9\u6574\u5099\u5c40\u3000\u9577\u5d0e\u6cb3\u5ddd\u56fd\u9053\u4e8b\u52d9\u6240","boring_xml_url":72,"boring_view_url":1,"soilmap_view_url":null,"soiltest_xml_url":0,"soiltest_view_url":0},{"id":532197,"code":"B4KJ202201003-4733","latitude":"32.910383","longitude":"130.026088","source_code":"QS20168945620200160007","project_name":"","survey_name":"\u5e73\u621028\u5e74\u5ea6\u672c\u660e\u5ddd\u30c0\u30e0\u30b0\u30e9\u30a6\u30c1\u30f3\u30b0\u8a66\u9a13\u696d\u52d9","client_name":"\u56fd\u571f\u4ea4\u901a\u7701\u3000\u4e5d\u5dde\u5730\u65b9\u6574\u5099\u5c40\u3000\u9577\u5d0e\u6cb3\u5ddd\u56fd\u9053\u4e8b\u52d9\u6240","boring_xml_url":72,"boring_view_url":1,"soilmap_view_url":null,"soiltest_xml_url":0,"soiltest_view_url":0},{"id":532196,"code":"B4KJ202201003-4732","latitude":"32.910363","longitude":"130.02602","source_code":"QS20168945620200160006","project_name":"","survey_name":"\u5e73\u621028\u5e74\u5ea6\u672c\u660e\u5ddd\u30c0\u30e0\u30b0\u30e9\u30a6\u30c1\u30f3\u30b0\u8a66\u9a13\u696d\u52d9","client_name":"\u56fd\u571f\u4ea4\u901a\u7701\u3000\u4e5d\u5dde\u5730\u65b9\u6574\u5099\u5c40\u3000\u9577\u5d0e\u6cb3\u5ddd\u56fd\u9053\u4e8b\u52d9\u6240","boring_xml_url":72,"boring_view_url":1,"soilmap_view_url":null,"soiltest_xml_url":0,"soiltest_view_url":0},{"id":532195,"code":"B4KJ202201003-4731","latitude":"32.910386","longitude":"130.026057","source_code":"QS20168945620200160005","project_name":"","survey_name":"\u5e73\u621028\u5e74\u5ea6\u672c\u660e\u5ddd\u30c0\u30e0\u30b0\u30e9\u30a6\u30c1\u30f3\u30b0\u8a66\u9a13\u696d\u52d9","client_name":"\u56fd\u571f\u4ea4\u901a\u7701\u3000\u4e5d\u5dde\u5730\u65b9\u6574\u5099\u5c40\u3000\u9577\u5d0e\u6cb3\u5ddd\u56fd\u9053\u4e8b\u52d9\u6240","boring_xml_url":72,"boring_view_url":1,"soilmap_view_url":null,"soiltest_xml_url":0,"soiltest_view_url":0},{"id":532194,"code":"B4KJ202201003-4730","latitude":"32.910356","longitude":"130.026084","source_code":"QS20168945620200160004","project_name":"","survey_name":"\u5e73\u621028\u5e74\u5ea6\u672c\u660e\u5ddd\u30c0\u30e0\u30b0\u30e9\u30a6\u30c1\u30f3\u30b0\u8a66\u9a13\u696d\u52d9","client_name":"\u56fd\u571f\u4ea4\u901a\u7701\u3000\u4e5d\u5dde\u5730\u65b9\u6574\u5099\u5c40\u3000\u9577\u5d0e\u6cb3\u5ddd\u56fd\u9053\u4e8b\u52d9\u6240","boring_xml_url":72,"boring_view_url":1,"soilmap_view_url":null,"soiltest_xml_url":0,"soiltest_view_url":0},{"id":532193,"code":"B4KJ202201003-4729","latitude":"32.910402","longitude":"130.02578","source_code":"QS20168945620200160003","project_name":"","survey_name":"\u5e73\u621028\u5e74\u5ea6\u672c\u660e\u5ddd\u30c0\u30e0\u30b0\u30e9\u30a6\u30c1\u30f3\u30b0\u8a66\u9a13\u696d\u52d9","client_name":"\u56fd\u571f\u4ea4\u901a\u7701\u3000\u4e5d\u5dde\u5730\u65b9\u6574\u5099\u5c40\u3000\u9577\u5d0e\u6cb3\u5ddd\u56fd\u9053\u4e8b\u52d9\u6240","boring_xml_url":72,"boring_view_url":1,"soilmap_view_url":null,"soiltest_xml_url":0,"soiltest_view_url":0},{"id":532192,"code":"B4KJ202201003-4728","latitude":"32.910368","longitude":"130.026066","source_code":"QS20168945620200160002","project_name":"","survey_name":"\u5e73\u621028\u5e74\u5ea6\u672c\u660e\u5ddd\u30c0\u30e0\u30b0\u30e9\u30a6\u30c1\u30f3\u30b0\u8a66\u9a13\u696d\u52d9","client_name":"\u56fd\u571f\u4ea4\u901a\u7701\u3000\u4e5d\u5dde\u5730\u65b9\u6574\u5099\u5c40\u3000\u9577\u5d0e\u6cb3\u5ddd\u56fd\u9053\u4e8b\u52d9\u6240","boring_xml_url":72,"boring_view_url":1,"soilmap_view_url":null,"soiltest_xml_url":0,"soiltest_view_url":0},{"id":532191,"code":"B4KJ202201003-4727","latitude":"32.910166","longitude":"130.025849","source_code":"QS20168945620200160001","project_name":"","survey_name":"\u5e73\u621028\u5e74\u5ea6\u672c\u660e\u5ddd\u30c0\u30e0\u30b0\u30e9\u30a6\u30c1\u30f3\u30b0\u8a66\u9a13\u696d\u52d9","client_name":"\u56fd\u571f\u4ea4\u901a\u7701\u3000\u4e5d\u5dde\u5730\u65b9\u6574\u5099\u5c40\u3000\u9577\u5d0e\u6cb3\u5ddd\u56fd\u9053\u4e8b\u52d9\u6240","boring_xml_url":72,"boring_view_url":1,"soilmap_view_url":null,"soiltest_xml_url":0,"soiltest_view_url":0},{"id":532190,"code":"B4KJ202201003-4726","latitude":"33.346264","longitude":"129.668637","source_code":"QS20168945400200110009","project_name":"H28\u5e74\u5ea6\u677e\u6d662\u53f7\u30c8\u30f3\u30cd\u30eb\u5916\u5730\u8cea\u8abf\u67fb\u696d\u52d9","survey_name":"\u5e73\u621028\u5e74\u5ea6\u677e\u6d662\u53f7\u30c8\u30f3\u30cd\u30eb\u5916\u5730\u8cea\u8abf\u67fb\u696d\u52d9","client_name":"\u56fd\u571f\u4ea4\u901a\u7701\u3000\u4e5d\u5dde\u5730\u65b9\u6574\u5099\u5c40\u3000\u9577\u5d0e\u6cb3\u5ddd\u56fd\u9053\u4e8b\u52d9\u6240","boring_xml_url":72,"boring_view_url":1,"soilmap_view_url":null,"soiltest_xml_url":0,"soiltest_view_url":0},{"id":532189,"code":"B4KJ202201003-4725","latitude":"33.346256","longitude":"129.669012","source_code":"QS20168945400200110008","project_name":"H28\u5e74\u5ea6\u677e\u6d662\u53f7\u30c8\u30f3\u30cd\u30eb\u5916\u5730\u8cea\u8abf\u67fb\u696d\u52d9","survey_name":"\u5e73\u621028\u5e74\u5ea6\u677e\u6d662\u53f7\u30c8\u30f3\u30cd\u30eb\u5916\u5730\u8cea\u8abf\u67fb\u696d\u52d9","client_name":"\u56fd\u571f\u4ea4\u901a\u7701\u3000\u4e5d\u5dde\u5730\u65b9\u6574\u5099\u5c40\u3000\u9577\u5d0e\u6cb3\u5ddd\u56fd\u9053\u4e8b\u52d9\u6240","boring_xml_url":72,"boring_view_url":1,"soilmap_view_url":null,"soiltest_xml_url":0,"soiltest_view_url":0}]}}