{"header":{"xyz":{"source":[],"mosaic":false},"page":4402,"raw":{"soiltest_result":"0","bbox":"57.598333,109.544722,1.933333,163.806111","page":"4402"},"conditions":{"soiltest_result":0,"north":57.598333,"west":109.544722,"south":1.933333,"east":163.806111},"success":true,"message":""},"data":{"meta":{"total":212844,"page":4402,"pages":7095,"count":30},"values":[{"id":188515,"code":"B4KJ201801007-6764","latitude":"34.4657992","longitude":"133.2464425","source_code":"CG51335159002","project_name":"","survey_name":"\u5c71\u967d\u81ea\u52d5\u8eca\u9053\u795e\u6751\u30c8\u30f3\u30cd\u30eb\u6c34\u6587\u5730\u8cea\u8abf\u67fb\u696d\u52d9","client_name":"\u56fd\u571f\u4ea4\u901a\u7701\u4e2d\u56fd\u5730\u65b9\u6574\u5099\u5c40\u798f\u5c71\u6cb3\u5ddd\u56fd\u9053\u4e8b\u52d9\u6240","boring_xml_url":40,"boring_view_url":1,"soilmap_view_url":null,"soiltest_xml_url":0,"soiltest_view_url":0},{"id":188514,"code":"B4KJ201801007-6763","latitude":"34.4661603","longitude":"133.2467478","source_code":"CG51335159001","project_name":"","survey_name":"\u5c71\u967d\u81ea\u52d5\u8eca\u9053\u795e\u6751\u30c8\u30f3\u30cd\u30eb\u6c34\u6587\u5730\u8cea\u8abf\u67fb\u696d\u52d9","client_name":"\u56fd\u571f\u4ea4\u901a\u7701\u4e2d\u56fd\u5730\u65b9\u6574\u5099\u5c40\u798f\u5c71\u6cb3\u5ddd\u56fd\u9053\u4e8b\u52d9\u6240","boring_xml_url":40,"boring_view_url":1,"soilmap_view_url":null,"soiltest_xml_url":0,"soiltest_view_url":0},{"id":188513,"code":"B4KJ201801007-6762","latitude":"34.4651586","longitude":"133.1610056","source_code":"CG51335153003","project_name":"","survey_name":"\u6728\u30ce\u5e84\u69cb\u9020\u7269\u57fa\u790e\u5730\u8cea\u8abf\u67fb\u696d\u52d9","client_name":"\u56fd\u571f\u4ea4\u901a\u7701\u4e2d\u56fd\u5730\u65b9\u6574\u5099\u5c40\u798f\u5c71\u6cb3\u5ddd\u56fd\u9053\u4e8b\u52d9\u6240","boring_xml_url":40,"boring_view_url":1,"soilmap_view_url":null,"soiltest_xml_url":0,"soiltest_view_url":0},{"id":188512,"code":"B4KJ201801007-6761","latitude":"34.4651031","longitude":"133.1613667","source_code":"CG51335153002","project_name":"","survey_name":"\u6728\u30ce\u5e84\u5730\u8cea\u8abf\u67fb\u696d\u52d9","client_name":"\u56fd\u571f\u4ea4\u901a\u7701\u4e2d\u56fd\u5730\u65b9\u6574\u5099\u5c40\u798f\u5c71\u6cb3\u5ddd\u56fd\u9053\u4e8b\u52d9\u6240","boring_xml_url":40,"boring_view_url":1,"soilmap_view_url":null,"soiltest_xml_url":0,"soiltest_view_url":0},{"id":188511,"code":"B4KJ201801007-6760","latitude":"34.465436","longitude":"133.160783","source_code":"CG51335153001","project_name":"","survey_name":"\u6728\u30ce\u5e84\u5730\u8cea\u8abf\u67fb\u696d\u52d9","client_name":"\u56fd\u571f\u4ea4\u901a\u7701\u4e2d\u56fd\u5730\u65b9\u6574\u5099\u5c40\u798f\u5c71\u6cb3\u5ddd\u56fd\u9053\u4e8b\u52d9\u6240","boring_xml_url":40,"boring_view_url":1,"soilmap_view_url":null,"soiltest_xml_url":0,"soiltest_view_url":0},{"id":188510,"code":"B4KJ201801007-6759","latitude":"34.4662417","longitude":"133.1594781","source_code":"CG51335152004","project_name":"","survey_name":"\u6728\u30ce\u5e84\u5730\u8cea\u8abf\u67fb\u696d\u52d9","client_name":"\u56fd\u571f\u4ea4\u901a\u7701\u4e2d\u56fd\u5730\u65b9\u6574\u5099\u5c40\u798f\u5c71\u6cb3\u5ddd\u56fd\u9053\u4e8b\u52d9\u6240","boring_xml_url":40,"boring_view_url":1,"soilmap_view_url":null,"soiltest_xml_url":0,"soiltest_view_url":0},{"id":188509,"code":"B4KJ201801007-6758","latitude":"34.4657139","longitude":"133.153645","source_code":"CG51335152003","project_name":"","survey_name":"\u6728\u30ce\u5e84\u5730\u8cea\u8abf\u67fb\u696d\u52d9","client_name":"\u56fd\u571f\u4ea4\u901a\u7701\u4e2d\u56fd\u5730\u65b9\u6574\u5099\u5c40\u798f\u5c71\u6cb3\u5ddd\u56fd\u9053\u4e8b\u52d9\u6240","boring_xml_url":40,"boring_view_url":1,"soilmap_view_url":null,"soiltest_xml_url":0,"soiltest_view_url":0},{"id":188508,"code":"B4KJ201801007-6757","latitude":"34.4657139","longitude":"133.153645","source_code":"CG51335152002","project_name":"","survey_name":"\u6728\u30ce\u5e84\u5730\u8cea\u8abf\u67fb\u696d\u52d9","client_name":"\u56fd\u571f\u4ea4\u901a\u7701\u4e2d\u56fd\u5730\u65b9\u6574\u5099\u5c40\u798f\u5c71\u6cb3\u5ddd\u56fd\u9053\u4e8b\u52d9\u6240","boring_xml_url":40,"boring_view_url":1,"soilmap_view_url":null,"soiltest_xml_url":0,"soiltest_view_url":0},{"id":188507,"code":"B4KJ201801007-6756","latitude":"34.466436","longitude":"133.159672","source_code":"CG51335152001","project_name":"","survey_name":"\u6728\u30ce\u5e84\u5730\u8cea\u8abf\u67fb\u696d\u52d9","client_name":"\u56fd\u571f\u4ea4\u901a\u7701\u4e2d\u56fd\u5730\u65b9\u6574\u5099\u5c40\u798f\u5c71\u6cb3\u5ddd\u56fd\u9053\u4e8b\u52d9\u6240","boring_xml_url":40,"boring_view_url":1,"soilmap_view_url":null,"soiltest_xml_url":0,"soiltest_view_url":0},{"id":188506,"code":"B4KJ201801007-6755","latitude":"34.4564389","longitude":"133.2379433","source_code":"CG51335149038","project_name":"","survey_name":"\u5c71\u967d\u81ea\u52d5\u8eca\u9053\u9ce5\u8d8a\u5730\u8cea\u8abf\u67fb","client_name":"\u56fd\u571f\u4ea4\u901a\u7701\u4e2d\u56fd\u5730\u65b9\u6574\u5099\u5c40\u798f\u5c71\u6cb3\u5ddd\u56fd\u9053\u4e8b\u52d9\u6240","boring_xml_url":40,"boring_view_url":1,"soilmap_view_url":null,"soiltest_xml_url":0,"soiltest_view_url":0},{"id":188505,"code":"B4KJ201801007-6754","latitude":"34.4568","longitude":"133.2377767","source_code":"CG51335149037","project_name":"","survey_name":"\u5c71\u967d\u81ea\u52d5\u8eca\u9053\u9ce5\u8d8a\u5730\u8cea\u8abf\u67fb","client_name":"\u56fd\u571f\u4ea4\u901a\u7701\u4e2d\u56fd\u5730\u65b9\u6574\u5099\u5c40\u798f\u5c71\u6cb3\u5ddd\u56fd\u9053\u4e8b\u52d9\u6240","boring_xml_url":40,"boring_view_url":1,"soilmap_view_url":null,"soiltest_xml_url":0,"soiltest_view_url":0},{"id":188504,"code":"B4KJ201801007-6753","latitude":"34.4559667","longitude":"133.23811","source_code":"CG51335149036","project_name":"","survey_name":"\u5c71\u967d\u81ea\u52d5\u8eca\u9053\u9ce5\u8d8a\u5730\u8cea\u8abf\u67fb","client_name":"\u56fd\u571f\u4ea4\u901a\u7701\u4e2d\u56fd\u5730\u65b9\u6574\u5099\u5c40\u798f\u5c71\u6cb3\u5ddd\u56fd\u9053\u4e8b\u52d9\u6240","boring_xml_url":40,"boring_view_url":1,"soilmap_view_url":null,"soiltest_xml_url":0,"soiltest_view_url":0},{"id":188503,"code":"B4KJ201801007-6752","latitude":"34.4561333","longitude":"133.2409708","source_code":"CG51335149035","project_name":"","survey_name":"\u5c71\u967d\u81ea\u52d5\u8eca\u9053\u9ce5\u8d8a\u5730\u8cea\u8abf\u67fb","client_name":"\u56fd\u571f\u4ea4\u901a\u7701\u4e2d\u56fd\u5730\u65b9\u6574\u5099\u5c40\u798f\u5c71\u6cb3\u5ddd\u56fd\u9053\u4e8b\u52d9\u6240","boring_xml_url":40,"boring_view_url":1,"soilmap_view_url":null,"soiltest_xml_url":0,"soiltest_view_url":0},{"id":188502,"code":"B4KJ201801007-6751","latitude":"34.4560222","longitude":"133.2399433","source_code":"CG51335149034","project_name":"","survey_name":"\u5c71\u967d\u81ea\u52d5\u8eca\u9053\u9ce5\u8d8a\u5730\u8cea\u8abf\u67fb","client_name":"\u56fd\u571f\u4ea4\u901a\u7701\u4e2d\u56fd\u5730\u65b9\u6574\u5099\u5c40\u798f\u5c71\u6cb3\u5ddd\u56fd\u9053\u4e8b\u52d9\u6240","boring_xml_url":40,"boring_view_url":1,"soilmap_view_url":null,"soiltest_xml_url":0,"soiltest_view_url":0},{"id":188501,"code":"B4KJ201801007-6750","latitude":"34.4562167","longitude":"133.2394711","source_code":"CG51335149033","project_name":"","survey_name":"\u5c71\u967d\u81ea\u52d5\u8eca\u9053\u9ce5\u8d8a\u5730\u8cea\u8abf\u67fb","client_name":"\u56fd\u571f\u4ea4\u901a\u7701\u4e2d\u56fd\u5730\u65b9\u6574\u5099\u5c40\u798f\u5c71\u6cb3\u5ddd\u56fd\u9053\u4e8b\u52d9\u6240","boring_xml_url":40,"boring_view_url":1,"soilmap_view_url":null,"soiltest_xml_url":0,"soiltest_view_url":0},{"id":188500,"code":"B4KJ201801007-6749","latitude":"34.4559944","longitude":"133.2394156","source_code":"CG51335149032","project_name":"","survey_name":"\u5c71\u967d\u81ea\u52d5\u8eca\u9053\u9ce5\u8d8a\u5730\u8cea\u8abf\u67fb","client_name":"\u56fd\u571f\u4ea4\u901a\u7701\u4e2d\u56fd\u5730\u65b9\u6574\u5099\u5c40\u798f\u5c71\u6cb3\u5ddd\u56fd\u9053\u4e8b\u52d9\u6240","boring_xml_url":40,"boring_view_url":1,"soilmap_view_url":null,"soiltest_xml_url":0,"soiltest_view_url":0},{"id":188499,"code":"B4KJ201801007-6748","latitude":"34.4558556","longitude":"133.23911","source_code":"CG51335149031","project_name":"","survey_name":"\u5c71\u967d\u81ea\u52d5\u8eca\u9053\u9ce5\u8d8a\u5730\u8cea\u8abf\u67fb","client_name":"\u56fd\u571f\u4ea4\u901a\u7701\u4e2d\u56fd\u5730\u65b9\u6574\u5099\u5c40\u798f\u5c71\u6cb3\u5ddd\u56fd\u9053\u4e8b\u52d9\u6240","boring_xml_url":40,"boring_view_url":1,"soilmap_view_url":null,"soiltest_xml_url":0,"soiltest_view_url":0},{"id":188498,"code":"B4KJ201801007-6747","latitude":"34.4557722","longitude":"133.2393878","source_code":"CG51335149030","project_name":"","survey_name":"\u5c71\u967d\u81ea\u52d5\u8eca\u9053\u9ce5\u8d8a\u5730\u8cea\u8abf\u67fb","client_name":"\u56fd\u571f\u4ea4\u901a\u7701\u4e2d\u56fd\u5730\u65b9\u6574\u5099\u5c40\u798f\u5c71\u6cb3\u5ddd\u56fd\u9053\u4e8b\u52d9\u6240","boring_xml_url":40,"boring_view_url":1,"soilmap_view_url":null,"soiltest_xml_url":0,"soiltest_view_url":0},{"id":188497,"code":"B4KJ201801007-6746","latitude":"34.4556889","longitude":"133.2380544","source_code":"CG51335149028","project_name":"","survey_name":"\u5c71\u967d\u81ea\u52d5\u8eca\u9053\u9ce5\u8d8a\u5730\u8cea\u8abf\u67fb","client_name":"\u56fd\u571f\u4ea4\u901a\u7701\u4e2d\u56fd\u5730\u65b9\u6574\u5099\u5c40\u798f\u5c71\u6cb3\u5ddd\u56fd\u9053\u4e8b\u52d9\u6240","boring_xml_url":40,"boring_view_url":1,"soilmap_view_url":null,"soiltest_xml_url":0,"soiltest_view_url":0},{"id":188496,"code":"B4KJ201801007-6745","latitude":"34.4561889","longitude":"133.2378044","source_code":"CG51335149027","project_name":"","survey_name":"\u5c71\u967d\u81ea\u52d5\u8eca\u9053\u9ce5\u8d8a\u5730\u8cea\u8abf\u67fb","client_name":"\u56fd\u571f\u4ea4\u901a\u7701\u4e2d\u56fd\u5730\u65b9\u6574\u5099\u5c40\u798f\u5c71\u6cb3\u5ddd\u56fd\u9053\u4e8b\u52d9\u6240","boring_xml_url":40,"boring_view_url":1,"soilmap_view_url":null,"soiltest_xml_url":0,"soiltest_view_url":0},{"id":188495,"code":"B4KJ201801007-6744","latitude":"34.4564667","longitude":"133.2374989","source_code":"CG51335149026","project_name":"","survey_name":"\u5c71\u967d\u81ea\u52d5\u8eca\u9053\u9ce5\u8d8a\u5730\u8cea\u8abf\u67fb","client_name":"\u56fd\u571f\u4ea4\u901a\u7701\u4e2d\u56fd\u5730\u65b9\u6574\u5099\u5c40\u798f\u5c71\u6cb3\u5ddd\u56fd\u9053\u4e8b\u52d9\u6240","boring_xml_url":40,"boring_view_url":1,"soilmap_view_url":null,"soiltest_xml_url":0,"soiltest_view_url":0},{"id":188494,"code":"B4KJ201801007-6743","latitude":"34.4579389","longitude":"133.2390544","source_code":"CG51335149025","project_name":"","survey_name":"\u5c71\u967d\u81ea\u52d5\u8eca\u9053\u6238\u7530\u5730\u8cea\u8abf\u67fb\u696d\u52d9","client_name":"\u56fd\u571f\u4ea4\u901a\u7701\u4e2d\u56fd\u5730\u65b9\u6574\u5099\u5c40\u798f\u5c71\u6cb3\u5ddd\u56fd\u9053\u4e8b\u52d9\u6240","boring_xml_url":40,"boring_view_url":1,"soilmap_view_url":null,"soiltest_xml_url":0,"soiltest_view_url":0},{"id":188493,"code":"B4KJ201801007-6742","latitude":"34.4558278","longitude":"133.2382767","source_code":"CG51335149023","project_name":"","survey_name":"\u5c71\u967d\u81ea\u52d5\u8eca\u9053\u6238\u7530\u5730\u8cea\u8abf\u67fb\u696d\u52d9","client_name":"\u56fd\u571f\u4ea4\u901a\u7701\u4e2d\u56fd\u5730\u65b9\u6574\u5099\u5c40\u798f\u5c71\u6cb3\u5ddd\u56fd\u9053\u4e8b\u52d9\u6240","boring_xml_url":40,"boring_view_url":1,"soilmap_view_url":null,"soiltest_xml_url":0,"soiltest_view_url":0},{"id":188492,"code":"B4KJ201801007-6741","latitude":"34.4614106","longitude":"133.2377767","source_code":"CG51335149022","project_name":"","survey_name":"\u5c71\u967d\u81ea\u52d5\u8eca\u9053\u672c\u90f7\u6771\u6751\u5730\u533a\u5730\u8cea\u8abf\u67fb\u696d\u52d9","client_name":"\u56fd\u571f\u4ea4\u901a\u7701\u4e2d\u56fd\u5730\u65b9\u6574\u5099\u5c40\u798f\u5c71\u6cb3\u5ddd\u56fd\u9053\u4e8b\u52d9\u6240","boring_xml_url":40,"boring_view_url":1,"soilmap_view_url":null,"soiltest_xml_url":0,"soiltest_view_url":0},{"id":188491,"code":"B4KJ201801007-6740","latitude":"34.4602439","longitude":"133.2372767","source_code":"CG51335149021","project_name":"","survey_name":"\u5c71\u967d\u81ea\u52d5\u8eca\u9053\u672c\u90f7\u6771\u6751\u5730\u533a\u5730\u8cea\u8abf\u67fb\u696d\u52d9","client_name":"\u56fd\u571f\u4ea4\u901a\u7701\u4e2d\u56fd\u5730\u65b9\u6574\u5099\u5c40\u798f\u5c71\u6cb3\u5ddd\u56fd\u9053\u4e8b\u52d9\u6240","boring_xml_url":40,"boring_view_url":1,"soilmap_view_url":null,"soiltest_xml_url":0,"soiltest_view_url":0},{"id":188490,"code":"B4KJ201801007-6739","latitude":"34.4561611","longitude":"133.2374714","source_code":"CG51335149020","project_name":"","survey_name":"\u5c71\u967d\u81ea\u52d5\u8eca\u9053\u6771\u6751\u5730\u8cea\u8abf\u67fb\u696d\u52d9","client_name":"\u56fd\u571f\u4ea4\u901a\u7701\u4e2d\u56fd\u5730\u65b9\u6574\u5099\u5c40\u798f\u5c71\u6cb3\u5ddd\u56fd\u9053\u4e8b\u52d9\u6240","boring_xml_url":40,"boring_view_url":1,"soilmap_view_url":null,"soiltest_xml_url":0,"soiltest_view_url":0},{"id":188489,"code":"B4KJ201801007-6738","latitude":"34.4614106","longitude":"133.2391375","source_code":"CG51335149019","project_name":"","survey_name":"\u5c71\u967d\u81ea\u52d5\u8eca\u9053\u6771\u6751\u5730\u8cea\u8abf\u67fb\u696d\u52d9","client_name":"\u56fd\u571f\u4ea4\u901a\u7701\u4e2d\u56fd\u5730\u65b9\u6574\u5099\u5c40\u798f\u5c71\u6cb3\u5ddd\u56fd\u9053\u4e8b\u52d9\u6240","boring_xml_url":40,"boring_view_url":1,"soilmap_view_url":null,"soiltest_xml_url":0,"soiltest_view_url":0},{"id":188488,"code":"B4KJ201801007-6737","latitude":"34.4610494","longitude":"133.2394431","source_code":"CG51335149018","project_name":"","survey_name":"\u5c71\u967d\u81ea\u52d5\u8eca\u9053\u6771\u6751\u5730\u8cea\u8abf\u67fb\u696d\u52d9","client_name":"\u56fd\u571f\u4ea4\u901a\u7701\u4e2d\u56fd\u5730\u65b9\u6574\u5099\u5c40\u798f\u5c71\u6cb3\u5ddd\u56fd\u9053\u4e8b\u52d9\u6240","boring_xml_url":40,"boring_view_url":1,"soilmap_view_url":null,"soiltest_xml_url":0,"soiltest_view_url":0},{"id":188487,"code":"B4KJ201801007-6736","latitude":"34.4558","longitude":"133.2377767","source_code":"CG51335149015","project_name":"","survey_name":"\u5c71\u967d\u81ea\u52d5\u8eca\u9053\u6771\u6751\u5730\u8cea\u8abf\u67fb\u696d\u52d9","client_name":"\u56fd\u571f\u4ea4\u901a\u7701\u4e2d\u56fd\u5730\u65b9\u6574\u5099\u5c40\u798f\u5c71\u6cb3\u5ddd\u56fd\u9053\u4e8b\u52d9\u6240","boring_xml_url":40,"boring_view_url":1,"soilmap_view_url":null,"soiltest_xml_url":0,"soiltest_view_url":0},{"id":188486,"code":"B4KJ201801007-6735","latitude":"34.4560778","longitude":"133.2378322","source_code":"CG51335149014","project_name":"","survey_name":"\u5c71\u967d\u81ea\u52d5\u8eca\u9053\u6771\u6751\u5730\u8cea\u8abf\u67fb\u696d\u52d9","client_name":"\u56fd\u571f\u4ea4\u901a\u7701\u4e2d\u56fd\u5730\u65b9\u6574\u5099\u5c40\u798f\u5c71\u6cb3\u5ddd\u56fd\u9053\u4e8b\u52d9\u6240","boring_xml_url":40,"boring_view_url":1,"soilmap_view_url":null,"soiltest_xml_url":0,"soiltest_view_url":0}]}}