{"header":{"xyz":{"source":[],"mosaic":false},"page":4426,"raw":{"soiltest_result":"0","bbox":"57.598333,109.544722,1.933333,163.806111","page":"4426"},"conditions":{"soiltest_result":0,"north":57.598333,"west":109.544722,"south":1.933333,"east":163.806111},"success":true,"message":""},"data":{"meta":{"total":212844,"page":4426,"pages":7095,"count":30},"values":[{"id":187795,"code":"B4KJ201801007-6044","latitude":"34.4190967","longitude":"132.6157225","source_code":"CG51324499021","project_name":"","survey_name":"\u5b89\u82b8\u30d0\u30a4\u30d1\u30b9(\u4e0a\u702c\u91ce\u5730\u533a)\u5730\u8cea\u8abf\u67fb\u305d\u306e2\u696d\u52d9","client_name":"\u56fd\u571f\u4ea4\u901a\u7701\u4e2d\u56fd\u5730\u65b9\u6574\u5099\u5c40\u5e83\u5cf6\u56fd\u9053\u4e8b\u52d9\u6240","boring_xml_url":40,"boring_view_url":1,"soilmap_view_url":null,"soiltest_xml_url":0,"soiltest_view_url":0},{"id":187794,"code":"B4KJ201801007-6043","latitude":"34.4189022","longitude":"132.6167781","source_code":"CG51324499020","project_name":"","survey_name":"\u5b89\u82b8\u30d0\u30a4\u30d1\u30b9(\u4e0a\u702c\u91ce\u5730\u533a)\u5730\u8cea\u8abf\u67fb\u305d\u306e2\u696d\u52d9","client_name":"\u56fd\u571f\u4ea4\u901a\u7701\u4e2d\u56fd\u5730\u65b9\u6574\u5099\u5c40\u5e83\u5cf6\u56fd\u9053\u4e8b\u52d9\u6240","boring_xml_url":40,"boring_view_url":1,"soilmap_view_url":null,"soiltest_xml_url":0,"soiltest_view_url":0},{"id":187793,"code":"B4KJ201801007-6042","latitude":"34.4181803","longitude":"132.6190278","source_code":"CG51324499019","project_name":"","survey_name":"\u5b89\u82b8\u30d0\u30a4\u30d1\u30b9(\u4e0a\u702c\u91ce\u5730\u533a)\u5730\u8cea\u8abf\u67fb\u305d\u306e2\u696d\u52d9","client_name":"\u56fd\u571f\u4ea4\u901a\u7701\u4e2d\u56fd\u5730\u65b9\u6574\u5099\u5c40\u5e83\u5cf6\u56fd\u9053\u4e8b\u52d9\u6240","boring_xml_url":40,"boring_view_url":1,"soilmap_view_url":null,"soiltest_xml_url":0,"soiltest_view_url":0},{"id":187792,"code":"B4KJ201801007-6041","latitude":"34.4183192","longitude":"132.6191944","source_code":"CG51324499018","project_name":"","survey_name":"\u5b89\u82b8\u30d0\u30a4\u30d1\u30b9(\u4e0a\u702c\u91ce\u5730\u533a)\u5730\u8cea\u8abf\u67fb\u305d\u306e2\u696d\u52d9","client_name":"\u56fd\u571f\u4ea4\u901a\u7701\u4e2d\u56fd\u5730\u65b9\u6574\u5099\u5c40\u5e83\u5cf6\u56fd\u9053\u4e8b\u52d9\u6240","boring_xml_url":40,"boring_view_url":1,"soilmap_view_url":null,"soiltest_xml_url":0,"soiltest_view_url":0},{"id":187791,"code":"B4KJ201801007-6040","latitude":"34.4178469","longitude":"132.6213611","source_code":"CG51324499017","project_name":"","survey_name":"\u5b89\u82b8\u30d0\u30a4\u30d1\u30b9(\u4e0a\u702c\u91ce\u5730\u533a)\u5730\u8cea\u8abf\u67fb\u305d\u306e2\u696d\u52d9","client_name":"\u56fd\u571f\u4ea4\u901a\u7701\u4e2d\u56fd\u5730\u65b9\u6574\u5099\u5c40\u5e83\u5cf6\u56fd\u9053\u4e8b\u52d9\u6240","boring_xml_url":40,"boring_view_url":1,"soilmap_view_url":null,"soiltest_xml_url":0,"soiltest_view_url":0},{"id":187790,"code":"B4KJ201801007-6039","latitude":"34.4131525","longitude":"132.5999186","source_code":"CG51324498008","project_name":"","survey_name":"\u6771\u5e83\u5cf6\u30d0\u30a4\u30d1\u30b9(\u702c\u91ce\u5357\u5730\u533a)\u5730\u8cea\u8abf\u67fb\u696d\u52d9","client_name":"\u56fd\u571f\u4ea4\u901a\u7701\u4e2d\u56fd\u5730\u65b9\u6574\u5099\u5c40\u5e83\u5cf6\u56fd\u9053\u4e8b\u52d9\u6240","boring_xml_url":40,"boring_view_url":1,"soilmap_view_url":null,"soiltest_xml_url":0,"soiltest_view_url":0},{"id":187789,"code":"B4KJ201801007-6038","latitude":"34.4170967","longitude":"132.6056125","source_code":"CG51324498004","project_name":"","survey_name":"\u6771\u5e83\u5cf6\u30d0\u30a4\u30d1\u30b9(\u702c\u91ce\u5357\u5730\u533a)\u5730\u8cea\u8abf\u67fb\u696d\u52d9","client_name":"\u56fd\u571f\u4ea4\u901a\u7701\u4e2d\u56fd\u5730\u65b9\u6574\u5099\u5c40\u5e83\u5cf6\u56fd\u9053\u4e8b\u52d9\u6240","boring_xml_url":40,"boring_view_url":1,"soilmap_view_url":null,"soiltest_xml_url":0,"soiltest_view_url":0},{"id":187788,"code":"B4KJ201801007-6037","latitude":"34.4183744","longitude":"132.6095008","source_code":"CG51324498001","project_name":"","survey_name":"\u6771\u5e83\u5cf6\u30d0\u30a4\u30d1\u30b9(\u702c\u91ce\u5357\u5730\u533a)\u5730\u8cea\u8abf\u67fb\u696d\u52d9","client_name":"\u56fd\u571f\u4ea4\u901a\u7701\u4e2d\u56fd\u5730\u65b9\u6574\u5099\u5c40\u5e83\u5cf6\u56fd\u9053\u4e8b\u52d9\u6240","boring_xml_url":40,"boring_view_url":1,"soilmap_view_url":null,"soiltest_xml_url":0,"soiltest_view_url":0},{"id":187787,"code":"B4KJ201801007-6036","latitude":"34.4054311","longitude":"132.5921972","source_code":"CG51324487019","project_name":"","survey_name":"\u6771\u5e83\u5cf6\u30d0\u30a4\u30d1\u30b9(\u4e2d\u91ce\u5730\u533a)\u5730\u8cea\u8abf\u67fb\u305d\u306e1\u696d\u52d9","client_name":"\u56fd\u571f\u4ea4\u901a\u7701\u4e2d\u56fd\u5730\u65b9\u6574\u5099\u5c40\u5e83\u5cf6\u56fd\u9053\u4e8b\u52d9\u6240","boring_xml_url":40,"boring_view_url":1,"soilmap_view_url":null,"soiltest_xml_url":0,"soiltest_view_url":0},{"id":187786,"code":"B4KJ201801007-6035","latitude":"34.40557","longitude":"132.5918361","source_code":"CG51324487018","project_name":"","survey_name":"\u6771\u5e83\u5cf6\u30d0\u30a4\u30d1\u30b9(\u4e2d\u91ce\u5730\u533a)\u5730\u8cea\u8abf\u67fb\u305d\u306e1\u696d\u52d9","client_name":"\u56fd\u571f\u4ea4\u901a\u7701\u4e2d\u56fd\u5730\u65b9\u6574\u5099\u5c40\u5e83\u5cf6\u56fd\u9053\u4e8b\u52d9\u6240","boring_xml_url":40,"boring_view_url":1,"soilmap_view_url":null,"soiltest_xml_url":0,"soiltest_view_url":0},{"id":187785,"code":"B4KJ201801007-6034","latitude":"34.4076253","longitude":"132.5932528","source_code":"CG51324487017","project_name":"","survey_name":"\u6771\u5e83\u5cf6\u30d0\u30a4\u30d1\u30b9(\u4e2d\u91ce\u5730\u533a)\u5730\u8cea\u8abf\u67fb\u305d\u306e1\u696d\u52d9","client_name":"\u56fd\u571f\u4ea4\u901a\u7701\u4e2d\u56fd\u5730\u65b9\u6574\u5099\u5c40\u5e83\u5cf6\u56fd\u9053\u4e8b\u52d9\u6240","boring_xml_url":40,"boring_view_url":1,"soilmap_view_url":null,"soiltest_xml_url":0,"soiltest_view_url":0},{"id":187784,"code":"B4KJ201801007-6033","latitude":"34.4080975","longitude":"132.5934194","source_code":"CG51324487016","project_name":"","survey_name":"\u6771\u5e83\u5cf6\u30d0\u30a4\u30d1\u30b9(\u4e2d\u91ce\u5730\u533a)\u5730\u8cea\u8abf\u67fb\u305d\u306e1\u696d\u52d9","client_name":"\u56fd\u571f\u4ea4\u901a\u7701\u4e2d\u56fd\u5730\u65b9\u6574\u5099\u5c40\u5e83\u5cf6\u56fd\u9053\u4e8b\u52d9\u6240","boring_xml_url":40,"boring_view_url":1,"soilmap_view_url":null,"soiltest_xml_url":0,"soiltest_view_url":0},{"id":187783,"code":"B4KJ201801007-6032","latitude":"34.4084864","longitude":"132.5936972","source_code":"CG51324487015","project_name":"","survey_name":"\u6771\u5e83\u5cf6\u30d0\u30a4\u30d1\u30b9(\u4e2d\u91ce\u5730\u533a)\u5730\u8cea\u8abf\u67fb\u305d\u306e1\u696d\u52d9","client_name":"\u56fd\u571f\u4ea4\u901a\u7701\u4e2d\u56fd\u5730\u65b9\u6574\u5099\u5c40\u5e83\u5cf6\u56fd\u9053\u4e8b\u52d9\u6240","boring_xml_url":40,"boring_view_url":1,"soilmap_view_url":null,"soiltest_xml_url":0,"soiltest_view_url":0},{"id":187782,"code":"B4KJ201801007-6031","latitude":"34.4034314","longitude":"132.5905864","source_code":"CG51324487004","project_name":"","survey_name":"\u6771\u5e83\u5cf6\u30d0\u30a4\u30d1\u30b9\u4e2d\u91ce\u6771\u5730\u8cea\u8abf\u67fb\u696d\u52d9","client_name":"\u56fd\u571f\u4ea4\u901a\u7701\u4e2d\u56fd\u5730\u65b9\u6574\u5099\u5c40\u5e83\u5cf6\u56fd\u9053\u4e8b\u52d9\u6240","boring_xml_url":40,"boring_view_url":1,"soilmap_view_url":null,"soiltest_xml_url":0,"soiltest_view_url":0},{"id":187781,"code":"B4KJ201801007-6030","latitude":"34.4045144","longitude":"132.5908086","source_code":"CG51324487003","project_name":"","survey_name":"\u6771\u5e83\u5cf6\u30d0\u30a4\u30d1\u30b9\u4e2d\u91ce\u6771\u5730\u8cea\u8abf\u67fb\u696d\u52d9","client_name":"\u56fd\u571f\u4ea4\u901a\u7701\u4e2d\u56fd\u5730\u65b9\u6574\u5099\u5c40\u5e83\u5cf6\u56fd\u9053\u4e8b\u52d9\u6240","boring_xml_url":40,"boring_view_url":1,"soilmap_view_url":null,"soiltest_xml_url":0,"soiltest_view_url":0},{"id":187780,"code":"B4KJ201801007-6029","latitude":"34.4062367","longitude":"132.5925861","source_code":"CG51324487002","project_name":"","survey_name":"\u6771\u5e83\u5cf6\u30d0\u30a4\u30d1\u30b9\u4e2d\u91ce\u6771\u5730\u8cea\u8abf\u67fb\u696d\u52d9","client_name":"\u56fd\u571f\u4ea4\u901a\u7701\u4e2d\u56fd\u5730\u65b9\u6574\u5099\u5c40\u5e83\u5cf6\u56fd\u9053\u4e8b\u52d9\u6240","boring_xml_url":40,"boring_view_url":1,"soilmap_view_url":null,"soiltest_xml_url":0,"soiltest_view_url":0},{"id":187779,"code":"B4KJ201801007-6028","latitude":"34.4063478","longitude":"132.5923361","source_code":"CG51324487001","project_name":"","survey_name":"\u6771\u5e83\u5cf6\u30d0\u30a4\u30d1\u30b9\u4e2d\u91ce\u6771\u5730\u8cea\u8abf\u67fb\u696d\u52d9","client_name":"\u56fd\u571f\u4ea4\u901a\u7701\u4e2d\u56fd\u5730\u65b9\u6574\u5099\u5c40\u5e83\u5cf6\u56fd\u9053\u4e8b\u52d9\u6240","boring_xml_url":40,"boring_view_url":1,"soilmap_view_url":null,"soiltest_xml_url":0,"soiltest_view_url":0},{"id":187778,"code":"B4KJ201801007-6027","latitude":"34.3985428","longitude":"132.5862536","source_code":"CG51324477037","project_name":"","survey_name":"\u6771\u5e83\u5cf6\u30d0\u30a4\u30d1\u30b9(\u4e2d\u91ce\u5730\u533a)\u5730\u8cea\u8abf\u67fb\u305d\u306e1\u696d\u52d9","client_name":"\u56fd\u571f\u4ea4\u901a\u7701\u4e2d\u56fd\u5730\u65b9\u6574\u5099\u5c40\u5e83\u5cf6\u56fd\u9053\u4e8b\u52d9\u6240","boring_xml_url":40,"boring_view_url":1,"soilmap_view_url":null,"soiltest_xml_url":0,"soiltest_view_url":0},{"id":187777,"code":"B4KJ201801007-6026","latitude":"34.3987372","longitude":"132.5866703","source_code":"CG51324477036","project_name":"","survey_name":"\u6771\u5e83\u5cf6\u30d0\u30a4\u30d1\u30b9(\u4e2d\u91ce\u5730\u533a)\u5730\u8cea\u8abf\u67fb\u305d\u306e1\u696d\u52d9","client_name":"\u56fd\u571f\u4ea4\u901a\u7701\u4e2d\u56fd\u5730\u65b9\u6574\u5099\u5c40\u5e83\u5cf6\u56fd\u9053\u4e8b\u52d9\u6240","boring_xml_url":40,"boring_view_url":1,"soilmap_view_url":null,"soiltest_xml_url":0,"soiltest_view_url":0},{"id":187776,"code":"B4KJ201801007-6025","latitude":"34.3988761","longitude":"132.5870036","source_code":"CG51324477035","project_name":"","survey_name":"\u6771\u5e83\u5cf6\u30d0\u30a4\u30d1\u30b9(\u4e2d\u91ce\u5730\u533a)\u5730\u8cea\u8abf\u67fb\u305d\u306e1\u696d\u52d9","client_name":"\u56fd\u571f\u4ea4\u901a\u7701\u4e2d\u56fd\u5730\u65b9\u6574\u5099\u5c40\u5e83\u5cf6\u56fd\u9053\u4e8b\u52d9\u6240","boring_xml_url":40,"boring_view_url":1,"soilmap_view_url":null,"soiltest_xml_url":0,"soiltest_view_url":0},{"id":187775,"code":"B4KJ201801007-6024","latitude":"34.400015","longitude":"132.5887256","source_code":"CG51324477034","project_name":"","survey_name":"\u6771\u5e83\u5cf6\u30d0\u30a4\u30d1\u30b9(\u4e2d\u91ce\u5730\u533a)\u5730\u8cea\u8abf\u67fb\u305d\u306e1\u696d\u52d9","client_name":"\u56fd\u571f\u4ea4\u901a\u7701\u4e2d\u56fd\u5730\u65b9\u6574\u5099\u5c40\u5e83\u5cf6\u56fd\u9053\u4e8b\u52d9\u6240","boring_xml_url":40,"boring_view_url":1,"soilmap_view_url":null,"soiltest_xml_url":0,"soiltest_view_url":0},{"id":187774,"code":"B4KJ201801007-6023","latitude":"34.4013483","longitude":"132.5893922","source_code":"CG51324477033","project_name":"","survey_name":"\u6771\u5e83\u5cf6\u30d0\u30a4\u30d1\u30b9(\u4e2d\u91ce\u5730\u533a)\u5730\u8cea\u8abf\u67fb\u305d\u306e1\u696d\u52d9","client_name":"\u56fd\u571f\u4ea4\u901a\u7701\u4e2d\u56fd\u5730\u65b9\u6574\u5099\u5c40\u5e83\u5cf6\u56fd\u9053\u4e8b\u52d9\u6240","boring_xml_url":40,"boring_view_url":1,"soilmap_view_url":null,"soiltest_xml_url":0,"soiltest_view_url":0},{"id":187773,"code":"B4KJ201801007-6022","latitude":"34.4017925","longitude":"132.5896978","source_code":"CG51324477032","project_name":"","survey_name":"\u6771\u5e83\u5cf6\u30d0\u30a4\u30d1\u30b9(\u4e2d\u91ce\u5730\u533a)\u5730\u8cea\u8abf\u67fb\u305d\u306e1\u696d\u52d9","client_name":"\u56fd\u571f\u4ea4\u901a\u7701\u4e2d\u56fd\u5730\u65b9\u6574\u5099\u5c40\u5e83\u5cf6\u56fd\u9053\u4e8b\u52d9\u6240","boring_xml_url":40,"boring_view_url":1,"soilmap_view_url":null,"soiltest_xml_url":0,"soiltest_view_url":0},{"id":187772,"code":"B4KJ201801007-6021","latitude":"34.4021814","longitude":"132.5899753","source_code":"CG51324477031","project_name":"","survey_name":"\u6771\u5e83\u5cf6\u30d0\u30a4\u30d1\u30b9(\u4e2d\u91ce\u5730\u533a)\u5730\u8cea\u8abf\u67fb\u305d\u306e1\u696d\u52d9","client_name":"\u56fd\u571f\u4ea4\u901a\u7701\u4e2d\u56fd\u5730\u65b9\u6574\u5099\u5c40\u5e83\u5cf6\u56fd\u9053\u4e8b\u52d9\u6240","boring_xml_url":40,"boring_view_url":1,"soilmap_view_url":null,"soiltest_xml_url":0,"soiltest_view_url":0},{"id":187771,"code":"B4KJ201801007-6020","latitude":"34.4012928","longitude":"132.5898922","source_code":"CG51324477030","project_name":"","survey_name":"\u6771\u5e83\u5cf6\u30d0\u30a4\u30d1\u30b9(\u4e2d\u91ce\u5730\u533a)\u5730\u8cea\u8abf\u67fb\u305d\u306e1\u696d\u52d9","client_name":"\u56fd\u571f\u4ea4\u901a\u7701\u4e2d\u56fd\u5730\u65b9\u6574\u5099\u5c40\u5e83\u5cf6\u56fd\u9053\u4e8b\u52d9\u6240","boring_xml_url":40,"boring_view_url":1,"soilmap_view_url":null,"soiltest_xml_url":0,"soiltest_view_url":0},{"id":187770,"code":"B4KJ201801007-6019","latitude":"34.4015981","longitude":"132.5900864","source_code":"CG51324477029","project_name":"","survey_name":"\u6771\u5e83\u5cf6\u30d0\u30a4\u30d1\u30b9(\u4e2d\u91ce\u5730\u533a)\u5730\u8cea\u8abf\u67fb\u305d\u306e1\u696d\u52d9","client_name":"\u56fd\u571f\u4ea4\u901a\u7701\u4e2d\u56fd\u5730\u65b9\u6574\u5099\u5c40\u5e83\u5cf6\u56fd\u9053\u4e8b\u52d9\u6240","boring_xml_url":40,"boring_view_url":1,"soilmap_view_url":null,"soiltest_xml_url":0,"soiltest_view_url":0},{"id":187769,"code":"B4KJ201801007-6018","latitude":"34.4018758","longitude":"132.5902253","source_code":"CG51324477028","project_name":"","survey_name":"\u6771\u5e83\u5cf6\u30d0\u30a4\u30d1\u30b9(\u4e2d\u91ce\u5730\u533a)\u5730\u8cea\u8abf\u67fb\u305d\u306e1\u696d\u52d9","client_name":"\u56fd\u571f\u4ea4\u901a\u7701\u4e2d\u56fd\u5730\u65b9\u6574\u5099\u5c40\u5e83\u5cf6\u56fd\u9053\u4e8b\u52d9\u6240","boring_xml_url":40,"boring_view_url":1,"soilmap_view_url":null,"soiltest_xml_url":0,"soiltest_view_url":0},{"id":187768,"code":"B4KJ201801007-6017","latitude":"34.4025981","longitude":"132.5906697","source_code":"CG51324477027","project_name":"","survey_name":"\u6771\u5e83\u5cf6\u30d0\u30a4\u30d1\u30b9(\u4e2d\u91ce\u5730\u533a)\u5730\u8cea\u8abf\u67fb\u305d\u306e1\u696d\u52d9","client_name":"\u56fd\u571f\u4ea4\u901a\u7701\u4e2d\u56fd\u5730\u65b9\u6574\u5099\u5c40\u5e83\u5cf6\u56fd\u9053\u4e8b\u52d9\u6240","boring_xml_url":40,"boring_view_url":1,"soilmap_view_url":null,"soiltest_xml_url":0,"soiltest_view_url":0},{"id":187767,"code":"B4KJ201801007-6016","latitude":"34.399015","longitude":"132.5874758","source_code":"CG51324477004","project_name":"","survey_name":"\u6771\u5e83\u5cf6\u30d0\u30a4\u30d1\u30b9\u4e2d\u91ce\u6771\u5730\u8cea\u8abf\u67fb\u696d\u52d9","client_name":"\u56fd\u571f\u4ea4\u901a\u7701\u4e2d\u56fd\u5730\u65b9\u6574\u5099\u5c40\u5e83\u5cf6\u56fd\u9053\u4e8b\u52d9\u6240","boring_xml_url":40,"boring_view_url":1,"soilmap_view_url":null,"soiltest_xml_url":0,"soiltest_view_url":0},{"id":187766,"code":"B4KJ201801007-6015","latitude":"34.4009317","longitude":"132.5898367","source_code":"CG51324477003","project_name":"","survey_name":"\u6771\u5e83\u5cf6\u30d0\u30a4\u30d1\u30b9\u4e2d\u91ce\u6771\u5730\u8cea\u8abf\u67fb\u696d\u52d9","client_name":"\u56fd\u571f\u4ea4\u901a\u7701\u4e2d\u56fd\u5730\u65b9\u6574\u5099\u5c40\u5e83\u5cf6\u56fd\u9053\u4e8b\u52d9\u6240","boring_xml_url":40,"boring_view_url":1,"soilmap_view_url":null,"soiltest_xml_url":0,"soiltest_view_url":0}]}}