{"header":{"xyz":{"source":[],"mosaic":false},"page":4431,"raw":{"soiltest_result":"0","bbox":"57.598333,109.544722,1.933333,163.806111","page":"4431"},"conditions":{"soiltest_result":0,"north":57.598333,"west":109.544722,"south":1.933333,"east":163.806111},"success":true,"message":""},"data":{"meta":{"total":212844,"page":4431,"pages":7095,"count":30},"values":[{"id":187645,"code":"B4KJ201801007-5894","latitude":"34.3958461","longitude":"132.4580708","source_code":"CG51324376006","project_name":"","survey_name":"\u7947\u5712\u5730\u4e0b\u90e8\u5730\u8cea\u8abf\u67fb\u696d\u52d9","client_name":"\u56fd\u571f\u4ea4\u901a\u7701\u4e2d\u56fd\u5730\u65b9\u6574\u5099\u5c40\u5e83\u5cf6\u56fd\u9053\u4e8b\u52d9\u6240","boring_xml_url":40,"boring_view_url":1,"soilmap_view_url":null,"soiltest_xml_url":0,"soiltest_view_url":0},{"id":187644,"code":"B4KJ201801007-5893","latitude":"34.3968175","longitude":"132.4299622","source_code":"CG51324374003","project_name":"","survey_name":"\u5c71\u624b\u7b2c2\u7dca\u6025\u7528\u6cb3\u5ddd\u6577\u9053\u8def\u8a2d\u8a08\u696d\u52d9","client_name":"\u56fd\u571f\u4ea4\u901a\u7701\u4e2d\u56fd\u5730\u65b9\u6574\u5099\u5c40\u592a\u7530\u5ddd\u6cb3\u5ddd\u4e8b\u52d9\u6240","boring_xml_url":40,"boring_view_url":1,"soilmap_view_url":null,"soiltest_xml_url":0,"soiltest_view_url":0},{"id":187643,"code":"B4KJ201801007-5892","latitude":"34.3883747","longitude":"132.4508217","source_code":"CG51324366007","project_name":"","survey_name":"\u5143\u5b89\u5ddd\u660e\u6cbb\u4ed6\u9ad8\u6f6e\u5824\u9632\u8a73\u7d30\u8a2d\u8a08\u696d\u52d9","client_name":"\u56fd\u571f\u4ea4\u901a\u7701\u4e2d\u56fd\u5730\u65b9\u6574\u5099\u5c40\u592a\u7530\u5ddd\u6cb3\u5ddd\u4e8b\u52d9\u6240","boring_xml_url":40,"boring_view_url":1,"soilmap_view_url":null,"soiltest_xml_url":0,"soiltest_view_url":0},{"id":187642,"code":"B4KJ201801007-5891","latitude":"34.3899022","longitude":"132.4503772","source_code":"CG51324366004","project_name":"","survey_name":"\u592a\u7530\u5ddd\u5e02\u5185\u6d3e\u5ddd\u8b77\u5cb8\u5d29\u58ca\u6a5f\u69cb\u691c\u8a0e\u696d\u52d9","client_name":"\u56fd\u571f\u4ea4\u901a\u7701\u4e2d\u56fd\u5730\u65b9\u6574\u5099\u5c40\u592a\u7530\u5ddd\u6cb3\u5ddd\u4e8b\u52d9\u6240","boring_xml_url":40,"boring_view_url":1,"soilmap_view_url":null,"soiltest_xml_url":0,"soiltest_view_url":0},{"id":187641,"code":"B4KJ201801007-5890","latitude":"34.3924297","longitude":"132.4503217","source_code":"CG51324366003","project_name":"","survey_name":"\u592a\u7530\u5ddd\u5e02\u5185\u6d3e\u5ddd\u8b77\u5cb8\u5d29\u58ca\u6a5f\u69cb\u691c\u8a0e\u696d\u52d9","client_name":"\u56fd\u571f\u4ea4\u901a\u7701\u4e2d\u56fd\u5730\u65b9\u6574\u5099\u5c40\u592a\u7530\u5ddd\u6cb3\u5ddd\u4e8b\u52d9\u6240","boring_xml_url":40,"boring_view_url":1,"soilmap_view_url":null,"soiltest_xml_url":0,"soiltest_view_url":0},{"id":187640,"code":"B4KJ201801007-5889","latitude":"34.3918186","longitude":"132.4490161","source_code":"CG51324366002","project_name":"","survey_name":"\u592a\u7530\u5ddd\u5e02\u5185\u6d3e\u5ddd\u8b77\u5cb8\u5d29\u58ca\u6a5f\u69cb\u691c\u8a0e\u696d\u52d9","client_name":"\u56fd\u571f\u4ea4\u901a\u7701\u4e2d\u56fd\u5730\u65b9\u6574\u5099\u5c40\u592a\u7530\u5ddd\u6cb3\u5ddd\u4e8b\u52d9\u6240","boring_xml_url":40,"boring_view_url":1,"soilmap_view_url":null,"soiltest_xml_url":0,"soiltest_view_url":0},{"id":187639,"code":"B4KJ201801007-5888","latitude":"34.3918186","longitude":"132.4489606","source_code":"CG51324366001","project_name":"","survey_name":"\u592a\u7530\u5ddd\u5e02\u5185\u6d3e\u5ddd\u8b77\u5cb8\u5d29\u58de\u6a5f\u69cb\u691c\u8a0e\u696d\u52d9","client_name":"\u56fd\u571f\u4ea4\u901a\u7701\u4e2d\u56fd\u5730\u65b9\u6574\u5099\u5c40\u592a\u7530\u5ddd\u6cb3\u5ddd\u4e8b\u52d9\u6240","boring_xml_url":40,"boring_view_url":1,"soilmap_view_url":null,"soiltest_xml_url":0,"soiltest_view_url":0},{"id":187638,"code":"B4KJ201801007-5887","latitude":"34.3868192","longitude":"132.4471831","source_code":"CG51324365002","project_name":"","survey_name":"\u9ad8\u6f6e\u5824\u9632\u4ed6\u8a2d\u8a08\u696d\u52d9","client_name":"\u56fd\u571f\u4ea4\u901a\u7701\u4e2d\u56fd\u5730\u65b9\u6574\u5099\u5c40\u592a\u7530\u5ddd\u6cb3\u5ddd\u4e8b\u52d9\u6240","boring_xml_url":40,"boring_view_url":1,"soilmap_view_url":null,"soiltest_xml_url":0,"soiltest_view_url":0},{"id":187637,"code":"B4KJ201801007-5886","latitude":"34.3882078","longitude":"132.4466275","source_code":"CG51324365001","project_name":"","survey_name":"\u821f\u5165\u5730\u533a\u9ad8\u6f6e\u5824\u9632\u4ed6\u8a2d\u8a08\u696d\u52d9","client_name":"\u56fd\u571f\u4ea4\u901a\u7701\u4e2d\u56fd\u5730\u65b9\u6574\u5099\u5c40\u592a\u7530\u5ddd\u6cb3\u5ddd\u4e8b\u52d9\u6240","boring_xml_url":40,"boring_view_url":1,"soilmap_view_url":null,"soiltest_xml_url":0,"soiltest_view_url":0},{"id":187636,"code":"B4KJ201801007-5885","latitude":"34.3943178","longitude":"132.4282958","source_code":"CG51324364012","project_name":"","survey_name":"\u5c71\u624b\u7b2c2\u7dca\u6025\u7528\u6cb3\u5ddd\u6577\u9053\u8def\u8a2d\u8a08\u696d\u52d9","client_name":"\u56fd\u571f\u4ea4\u901a\u7701\u4e2d\u56fd\u5730\u65b9\u6574\u5099\u5c40\u592a\u7530\u5ddd\u6cb3\u5ddd\u4e8b\u52d9\u6240","boring_xml_url":40,"boring_view_url":1,"soilmap_view_url":null,"soiltest_xml_url":0,"soiltest_view_url":0},{"id":187635,"code":"B4KJ201801007-5884","latitude":"34.3882908","longitude":"132.4348786","source_code":"CG51324364011","project_name":"","survey_name":"\u89b3\u97f3\u9ad8\u67b6\u5730\u8cea\u8abf\u67fb\u696d\u52d9","client_name":"\u56fd\u571f\u4ea4\u901a\u7701\u4e2d\u56fd\u5730\u65b9\u6574\u5099\u5c40\u5e83\u5cf6\u56fd\u9053\u4e8b\u52d9\u6240","boring_xml_url":40,"boring_view_url":1,"soilmap_view_url":null,"soiltest_xml_url":0,"soiltest_view_url":0},{"id":187634,"code":"B4KJ201801007-5883","latitude":"34.3878464","longitude":"132.4336567","source_code":"CG51324364010","project_name":"","survey_name":"\u89b3\u97f3\u9ad8\u67b6\u5730\u8cea\u8abf\u67fb\u696d\u52d9","client_name":"\u56fd\u571f\u4ea4\u901a\u7701\u4e2d\u56fd\u5730\u65b9\u6574\u5099\u5c40\u5e83\u5cf6\u56fd\u9053\u4e8b\u52d9\u6240","boring_xml_url":40,"boring_view_url":1,"soilmap_view_url":null,"soiltest_xml_url":0,"soiltest_view_url":0},{"id":187633,"code":"B4KJ201801007-5882","latitude":"34.3874019","longitude":"132.43174","source_code":"CG51324364009","project_name":"","survey_name":"\u89b3\u97f3\u9ad8\u67b6\u5730\u8cea\u8abf\u67fb\u696d\u52d9","client_name":"\u56fd\u571f\u4ea4\u901a\u7701\u4e2d\u56fd\u5730\u65b9\u6574\u5099\u5c40\u5e83\u5cf6\u56fd\u9053\u4e8b\u52d9\u6240","boring_xml_url":40,"boring_view_url":1,"soilmap_view_url":null,"soiltest_xml_url":0,"soiltest_view_url":0},{"id":187632,"code":"B4KJ201801007-5881","latitude":"34.3879575","longitude":"132.4298514","source_code":"CG51324364008","project_name":"","survey_name":"\u89b3\u97f3\u9ad8\u67b6\u5730\u8cea\u8abf\u67fb\u696d\u52d9","client_name":"\u56fd\u571f\u4ea4\u901a\u7701\u4e2d\u56fd\u5730\u65b9\u6574\u5099\u5c40\u5e83\u5cf6\u56fd\u9053\u4e8b\u52d9\u6240","boring_xml_url":40,"boring_view_url":1,"soilmap_view_url":null,"soiltest_xml_url":0,"soiltest_view_url":0},{"id":187631,"code":"B4KJ201801007-5880","latitude":"34.3887353","longitude":"132.4277958","source_code":"CG51324364006","project_name":"","survey_name":"\u89b3\u97f3\u9ad8\u67b6\u5730\u8cea\u8abf\u67fb\u696d\u52d9","client_name":"\u56fd\u571f\u4ea4\u901a\u7701\u4e2d\u56fd\u5730\u65b9\u6574\u5099\u5c40\u5e83\u5cf6\u56fd\u9053\u4e8b\u52d9\u6240","boring_xml_url":40,"boring_view_url":1,"soilmap_view_url":null,"soiltest_xml_url":0,"soiltest_view_url":0},{"id":187630,"code":"B4KJ201801007-5879","latitude":"34.3890961","longitude":"132.4272406","source_code":"CG51324364005","project_name":"","survey_name":"\u89b3\u97f3\u9ad8\u67b6\u5730\u8cea\u8abf\u67fb\u696d\u52d9","client_name":"\u56fd\u571f\u4ea4\u901a\u7701\u4e2d\u56fd\u5730\u65b9\u6574\u5099\u5c40\u5e83\u5cf6\u56fd\u9053\u4e8b\u52d9\u6240","boring_xml_url":40,"boring_view_url":1,"soilmap_view_url":null,"soiltest_xml_url":0,"soiltest_view_url":0},{"id":187629,"code":"B4KJ201801007-5878","latitude":"34.3906517","longitude":"132.4241017","source_code":"CG51324364002","project_name":"","survey_name":"\u89b3\u97f3\u9ad8\u67b6\u5730\u8cea\u8abf\u67fb\u696d\u52d9","client_name":"\u56fd\u571f\u4ea4\u901a\u7701\u4e2d\u56fd\u5730\u65b9\u6574\u5099\u5c40\u5e83\u5cf6\u56fd\u9053\u4e8b\u52d9\u6240","boring_xml_url":40,"boring_view_url":1,"soilmap_view_url":null,"soiltest_xml_url":0,"soiltest_view_url":0},{"id":187628,"code":"B4KJ201801007-5877","latitude":"34.3792931","longitude":"132.4859022","source_code":"CG51324359006","project_name":"","survey_name":"\u6bd4\u6cbb\u5c71\u5171\u540c\u6e9d\u571f\u8cea\u8abf\u67fb\u696d\u52d9\u305d\u306e2","client_name":"\u56fd\u571f\u4ea4\u901a\u7701\u4e2d\u56fd\u5730\u65b9\u6574\u5099\u5c40\u5e83\u5cf6\u56fd\u9053\u4e8b\u52d9\u6240","boring_xml_url":40,"boring_view_url":1,"soilmap_view_url":null,"soiltest_xml_url":0,"soiltest_view_url":0},{"id":187627,"code":"B4KJ201801007-5876","latitude":"34.3795986","longitude":"132.4883464","source_code":"CG51324359005","project_name":"","survey_name":"\u6bd4\u6cbb\u5c71\u5171\u540c\u6e9d\u571f\u8cea\u8abf\u67fb\u696d\u52d9\u305d\u306e1","client_name":"\u56fd\u571f\u4ea4\u901a\u7701\u4e2d\u56fd\u5730\u65b9\u6574\u5099\u5c40\u5e83\u5cf6\u56fd\u9053\u4e8b\u52d9\u6240","boring_xml_url":40,"boring_view_url":1,"soilmap_view_url":null,"soiltest_xml_url":0,"soiltest_view_url":0},{"id":187626,"code":"B4KJ201801007-5875","latitude":"34.3789319","longitude":"132.4886242","source_code":"CG51324359004","project_name":"","survey_name":"\u6bd4\u6cbb\u5c71\u5171\u540c\u6e9d\u571f\u8cea\u8abf\u67fb\u696d\u52d9\u305d\u306e1","client_name":"\u56fd\u571f\u4ea4\u901a\u7701\u4e2d\u56fd\u5730\u65b9\u6574\u5099\u5c40\u5e83\u5cf6\u56fd\u9053\u4e8b\u52d9\u6240","boring_xml_url":40,"boring_view_url":1,"soilmap_view_url":null,"soiltest_xml_url":0,"soiltest_view_url":0},{"id":187625,"code":"B4KJ201801007-5874","latitude":"34.3790153","longitude":"132.4907628","source_code":"CG51324359003","project_name":"","survey_name":"\u6bd4\u6cbb\u5c71\u5171\u540c\u6e9d\u571f\u8cea\u8abf\u67fb\u696d\u52d9\u305d\u306e1","client_name":"\u56fd\u571f\u4ea4\u901a\u7701\u4e2d\u56fd\u5730\u65b9\u6574\u5099\u5c40\u5e83\u5cf6\u56fd\u9053\u4e8b\u52d9\u6240","boring_xml_url":40,"boring_view_url":1,"soilmap_view_url":null,"soiltest_xml_url":0,"soiltest_view_url":0},{"id":187624,"code":"B4KJ201801007-5873","latitude":"34.3783489","longitude":"132.4935681","source_code":"CG51324359002","project_name":"","survey_name":"\u6bd4\u6cbb\u5c71\u5171\u540c\u6e9d\u571f\u8cea\u8abf\u67fb\u696d\u52d9\u305d\u306e1","client_name":"\u56fd\u571f\u4ea4\u901a\u7701\u4e2d\u56fd\u5730\u65b9\u6574\u5099\u5c40\u5e83\u5cf6\u56fd\u9053\u4e8b\u52d9\u6240","boring_xml_url":40,"boring_view_url":1,"soilmap_view_url":null,"soiltest_xml_url":0,"soiltest_view_url":0},{"id":187623,"code":"B4KJ201801007-5872","latitude":"34.3787653","longitude":"132.4839578","source_code":"CG51324358007","project_name":"","survey_name":"\u6bd4\u6cbb\u5c71\u5171\u540c\u6e9d\u571f\u8cea\u8abf\u67fb\u696d\u52d9\u305d\u306e2","client_name":"\u56fd\u571f\u4ea4\u901a\u7701\u4e2d\u56fd\u5730\u65b9\u6574\u5099\u5c40\u5e83\u5cf6\u56fd\u9053\u4e8b\u52d9\u6240","boring_xml_url":40,"boring_view_url":1,"soilmap_view_url":null,"soiltest_xml_url":0,"soiltest_view_url":0},{"id":187622,"code":"B4KJ201801007-5871","latitude":"34.3789039","longitude":"132.4732644","source_code":"CG51324358006","project_name":"","survey_name":"\u6bd4\u6cbb\u5c71\u5171\u540c\u6e9d\u897f\u971e\u5730\u533a\u5730\u8cea\u8abf\u67fb\u696d\u52d9","client_name":"\u56fd\u571f\u4ea4\u901a\u7701\u4e2d\u56fd\u5730\u65b9\u6574\u5099\u5c40\u5e83\u5cf6\u56fd\u9053\u4e8b\u52d9\u6240","boring_xml_url":40,"boring_view_url":1,"soilmap_view_url":null,"soiltest_xml_url":0,"soiltest_view_url":0},{"id":187621,"code":"B4KJ201801007-5870","latitude":"34.3804317","longitude":"132.4813469","source_code":"CG51324358005","project_name":"","survey_name":"\u6bd4\u6cbb\u5c71\u5171\u540c\u6e9d\u5730\u4e0b\u6c34\u8abf\u67fb\u696d\u52d9","client_name":"\u56fd\u571f\u4ea4\u901a\u7701\u4e2d\u56fd\u5730\u65b9\u6574\u5099\u5c40\u5e83\u5cf6\u56fd\u9053\u4e8b\u52d9\u6240","boring_xml_url":40,"boring_view_url":1,"soilmap_view_url":null,"soiltest_xml_url":0,"soiltest_view_url":0},{"id":187620,"code":"B4KJ201801007-5869","latitude":"34.3823758","longitude":"132.4787083","source_code":"CG51324358004","project_name":"","survey_name":"\u6bd4\u6cbb\u5c71\u5171\u540c\u6e9d\u5730\u4e0b\u6c34\u8abf\u67fb\u696d\u52d9","client_name":"\u56fd\u571f\u4ea4\u901a\u7701\u4e2d\u56fd\u5730\u65b9\u6574\u5099\u5c40\u5e83\u5cf6\u56fd\u9053\u4e8b\u52d9\u6240","boring_xml_url":40,"boring_view_url":1,"soilmap_view_url":null,"soiltest_xml_url":0,"soiltest_view_url":0},{"id":187619,"code":"B4KJ201801007-5868","latitude":"34.3806539","longitude":"132.4813469","source_code":"CG51324358003","project_name":"","survey_name":"\u6bd4\u6cbb\u5c71\u5171\u540c\u6e9d\u5730\u4e0b\u6c34\u8abf\u67fb\u696d\u52d9","client_name":"\u56fd\u571f\u4ea4\u901a\u7701\u4e2d\u56fd\u5730\u65b9\u6574\u5099\u5c40\u5e83\u5cf6\u56fd\u9053\u4e8b\u52d9\u6240","boring_xml_url":40,"boring_view_url":1,"soilmap_view_url":null,"soiltest_xml_url":0,"soiltest_view_url":0},{"id":187618,"code":"B4KJ201801007-5867","latitude":"34.3782372","longitude":"132.4743475","source_code":"CG51324358002","project_name":"","survey_name":"\u6771\u96f2\u5730\u533a\u5730\u8cea\u8abf\u67fb\u696d\u52d9","client_name":"\u56fd\u571f\u4ea4\u901a\u7701\u4e2d\u56fd\u5730\u65b9\u6574\u5099\u5c40\u5e83\u5cf6\u56fd\u9053\u4e8b\u52d9\u6240","boring_xml_url":40,"boring_view_url":1,"soilmap_view_url":null,"soiltest_xml_url":0,"soiltest_view_url":0},{"id":187617,"code":"B4KJ201801007-5866","latitude":"34.3793761","longitude":"132.4714311","source_code":"CG51324357003","project_name":"","survey_name":"\u6bd4\u6cbb\u5c71\u5171\u540c\u6e9d\u571f\u8cea\u8abf\u67fb\u696d\u52d9\u305d\u306e2","client_name":"\u56fd\u571f\u4ea4\u901a\u7701\u4e2d\u56fd\u5730\u65b9\u6574\u5099\u5c40\u5e83\u5cf6\u56fd\u9053\u4e8b\u52d9\u6240","boring_xml_url":40,"boring_view_url":1,"soilmap_view_url":null,"soiltest_xml_url":0,"soiltest_view_url":0},{"id":187616,"code":"B4KJ201801007-5865","latitude":"34.3809314","longitude":"132.4671258","source_code":"CG51324357002","project_name":"","survey_name":"\u6bd4\u6cbb\u5c71\u5171\u540c\u6e9d\u5730\u4e0b\u6c34\u8abf\u67fb\u696d\u52d9","client_name":"\u56fd\u571f\u4ea4\u901a\u7701\u4e2d\u56fd\u5730\u65b9\u6574\u5099\u5c40\u5e83\u5cf6\u56fd\u9053\u4e8b\u52d9\u6240","boring_xml_url":40,"boring_view_url":1,"soilmap_view_url":null,"soiltest_xml_url":0,"soiltest_view_url":0}]}}