{"header":{"xyz":{"source":[],"mosaic":false},"page":4457,"raw":{"soiltest_result":"0","bbox":"57.598333,109.544722,1.933333,163.806111","page":"4457"},"conditions":{"soiltest_result":0,"north":57.598333,"west":109.544722,"south":1.933333,"east":163.806111},"success":true,"message":""},"data":{"meta":{"total":212844,"page":4457,"pages":7095,"count":30},"values":[{"id":186865,"code":"B4KJ201801007-5114","latitude":"34.3631031","longitude":"131.2444314","source_code":"CG51314139006","project_name":"","survey_name":"\u4e09\u9685\u5730\u8cea\u8abf\u67fb\u696d\u52d9","client_name":"\u56fd\u571f\u4ea4\u901a\u7701\u4e2d\u56fd\u5730\u65b9\u6574\u5099\u5c40\u5c71\u53e3\u6cb3\u5ddd\u56fd\u9053\u4e8b\u52d9\u6240","boring_xml_url":40,"boring_view_url":1,"soilmap_view_url":null,"soiltest_xml_url":0,"soiltest_view_url":0},{"id":186864,"code":"B4KJ201801007-5113","latitude":"34.3633253","longitude":"131.2429317","source_code":"CG51314139005","project_name":"","survey_name":"\u4e09\u9685\u5730\u8cea\u8abf\u67fb\u696d\u52d9","client_name":"\u56fd\u571f\u4ea4\u901a\u7701\u4e2d\u56fd\u5730\u65b9\u6574\u5099\u5c40\u5c71\u53e3\u6cb3\u5ddd\u56fd\u9053\u4e8b\u52d9\u6240","boring_xml_url":40,"boring_view_url":1,"soilmap_view_url":null,"soiltest_xml_url":0,"soiltest_view_url":0},{"id":186863,"code":"B4KJ201801007-5112","latitude":"34.3635194","longitude":"131.2395708","source_code":"CG51314139004","project_name":"","survey_name":"\u4e09\u9685\u5730\u8cea\u8abf\u67fb\u696d\u52d9","client_name":"\u56fd\u571f\u4ea4\u901a\u7701\u4e2d\u56fd\u5730\u65b9\u6574\u5099\u5c40\u5c71\u53e3\u6cb3\u5ddd\u56fd\u9053\u4e8b\u52d9\u6240","boring_xml_url":40,"boring_view_url":1,"soilmap_view_url":null,"soiltest_xml_url":0,"soiltest_view_url":0},{"id":186862,"code":"B4KJ201801007-5111","latitude":"34.3685189","longitude":"131.2417925","source_code":"CG51314139002","project_name":"","survey_name":"\u5c71\u53e3\u5730\u8cea\u8abf\u67fb\u696d\u52d9","client_name":"\u56fd\u571f\u4ea4\u901a\u7701\u4e2d\u56fd\u5730\u65b9\u6574\u5099\u5c40\u5c71\u53e3\u6cb3\u5ddd\u56fd\u9053\u4e8b\u52d9\u6240","boring_xml_url":40,"boring_view_url":1,"soilmap_view_url":null,"soiltest_xml_url":0,"soiltest_view_url":0},{"id":186861,"code":"B4KJ201801007-5110","latitude":"34.3636028","longitude":"131.2359044","source_code":"CG51314139001","project_name":"","survey_name":"\u4e09\u9685\u5730\u533a\u5730\u8cea\u6982\u67fb\u696d\u52d9","client_name":"\u56fd\u571f\u4ea4\u901a\u7701\u4e2d\u56fd\u5730\u65b9\u6574\u5099\u5c40\u5c71\u53e3\u6cb3\u5ddd\u56fd\u9053\u4e8b\u52d9\u6240","boring_xml_url":40,"boring_view_url":1,"soilmap_view_url":null,"soiltest_xml_url":0,"soiltest_view_url":0},{"id":186860,"code":"B4KJ201801007-5109","latitude":"34.363575","longitude":"131.2338769","source_code":"CG51314138007","project_name":"","survey_name":"\u5c71\u53e3\u5730\u8cea\u8abf\u67fb\u696d\u52d9","client_name":"\u56fd\u571f\u4ea4\u901a\u7701\u4e2d\u56fd\u5730\u65b9\u6574\u5099\u5c40\u5c71\u53e3\u6cb3\u5ddd\u56fd\u9053\u4e8b\u52d9\u6240","boring_xml_url":40,"boring_view_url":1,"soilmap_view_url":null,"soiltest_xml_url":0,"soiltest_view_url":0},{"id":186859,"code":"B4KJ201801007-5108","latitude":"34.3639361","longitude":"131.2338214","source_code":"CG51314138006","project_name":"","survey_name":"\u5c71\u53e3\u5730\u8cea\u8abf\u67fb\u696d\u52d9","client_name":"\u56fd\u571f\u4ea4\u901a\u7701\u4e2d\u56fd\u5730\u65b9\u6574\u5099\u5c40\u5c71\u53e3\u6cb3\u5ddd\u56fd\u9053\u4e8b\u52d9\u6240","boring_xml_url":40,"boring_view_url":1,"soilmap_view_url":null,"soiltest_xml_url":0,"soiltest_view_url":0},{"id":186858,"code":"B4KJ201801007-5107","latitude":"34.3642694","longitude":"131.2329325","source_code":"CG51314138005","project_name":"","survey_name":"\u4e09\u9685\u5730\u8cea\u8abf\u67fb\u696d\u52d9","client_name":"\u56fd\u571f\u4ea4\u901a\u7701\u4e2d\u56fd\u5730\u65b9\u6574\u5099\u5c40\u5c71\u53e3\u6cb3\u5ddd\u56fd\u9053\u4e8b\u52d9\u6240","boring_xml_url":40,"boring_view_url":1,"soilmap_view_url":null,"soiltest_xml_url":0,"soiltest_view_url":0},{"id":186857,"code":"B4KJ201801007-5106","latitude":"34.3637417","longitude":"131.2311547","source_code":"CG51314138004","project_name":"","survey_name":"\u4e09\u9685\u5730\u8cea\u8abf\u67fb\u696d\u52d9","client_name":"\u56fd\u571f\u4ea4\u901a\u7701\u4e2d\u56fd\u5730\u65b9\u6574\u5099\u5c40\u5c71\u53e3\u6cb3\u5ddd\u56fd\u9053\u4e8b\u52d9\u6240","boring_xml_url":40,"boring_view_url":1,"soilmap_view_url":null,"soiltest_xml_url":0,"soiltest_view_url":0},{"id":186856,"code":"B4KJ201801007-5105","latitude":"34.3637417","longitude":"131.2311547","source_code":"CG51314138003","project_name":"","survey_name":"\u4e09\u9685\u5730\u8cea\u8abf\u67fb\u696d\u52d9","client_name":"\u56fd\u571f\u4ea4\u901a\u7701\u4e2d\u56fd\u5730\u65b9\u6574\u5099\u5c40\u5c71\u53e3\u6cb3\u5ddd\u56fd\u9053\u4e8b\u52d9\u6240","boring_xml_url":40,"boring_view_url":1,"soilmap_view_url":null,"soiltest_xml_url":0,"soiltest_view_url":0},{"id":186855,"code":"B4KJ201801007-5104","latitude":"34.3638247","longitude":"131.2302939","source_code":"CG51314138002","project_name":"","survey_name":"\u4e09\u9685\u5730\u8cea\u8abf\u67fb\u696d\u52d9","client_name":"\u56fd\u571f\u4ea4\u901a\u7701\u4e2d\u56fd\u5730\u65b9\u6574\u5099\u5c40\u5c71\u53e3\u6cb3\u5ddd\u56fd\u9053\u4e8b\u52d9\u6240","boring_xml_url":40,"boring_view_url":1,"soilmap_view_url":null,"soiltest_xml_url":0,"soiltest_view_url":0},{"id":186854,"code":"B4KJ201801007-5103","latitude":"34.3636861","longitude":"131.23471","source_code":"CG51314138001","project_name":"","survey_name":"\u4e09\u9685\u5730\u533a\u5730\u8cea\u6982\u67fb\u696d\u52d9","client_name":"\u56fd\u571f\u4ea4\u901a\u7701\u4e2d\u56fd\u5730\u65b9\u6574\u5099\u5c40\u5c71\u53e3\u6cb3\u5ddd\u56fd\u9053\u4e8b\u52d9\u6240","boring_xml_url":40,"boring_view_url":1,"soilmap_view_url":null,"soiltest_xml_url":0,"soiltest_view_url":0},{"id":186853,"code":"B4KJ201801007-5102","latitude":"34.32867","longitude":"131.6120103","source_code":"CG51313499002","project_name":"","survey_name":"\u5730\u798f\u5730\u5185\u5730\u8cea\u8abf\u67fb","client_name":"\u56fd\u571f\u4ea4\u901a\u7701\u4e2d\u56fd\u5730\u65b9\u6574\u5099\u5c40\u5c71\u53e3\u6cb3\u5ddd\u56fd\u9053\u4e8b\u52d9\u6240","boring_xml_url":40,"boring_view_url":1,"soilmap_view_url":null,"soiltest_xml_url":0,"soiltest_view_url":0},{"id":186852,"code":"B4KJ201801007-5101","latitude":"34.3289475","longitude":"131.6122881","source_code":"CG51313499001","project_name":"","survey_name":"\u5730\u798f\u5730\u5185\u5730\u8cea\u8abf\u67fb\u5de5\u4e8b","client_name":"\u56fd\u571f\u4ea4\u901a\u7701\u4e2d\u56fd\u5730\u65b9\u6574\u5099\u5c40\u5c71\u53e3\u6cb3\u5ddd\u56fd\u9053\u4e8b\u52d9\u6240","boring_xml_url":40,"boring_view_url":1,"soilmap_view_url":null,"soiltest_xml_url":0,"soiltest_view_url":0},{"id":186851,"code":"B4KJ201801007-5100","latitude":"34.2787578","longitude":"131.5531003","source_code":"CG51313434001","project_name":"","survey_name":"\u5c71\u53e3\u8a2d\u8a08\u696d\u52d9","client_name":"\u56fd\u571f\u4ea4\u901a\u7701\u4e2d\u56fd\u5730\u65b9\u6574\u5099\u5c40\u5c71\u53e3\u6cb3\u5ddd\u56fd\u9053\u4e8b\u52d9\u6240","boring_xml_url":40,"boring_view_url":1,"soilmap_view_url":null,"soiltest_xml_url":0,"soiltest_view_url":0},{"id":186850,"code":"B4KJ201801007-5099","latitude":"34.1844675","longitude":"131.7739442","source_code":"CG51312612001","project_name":"","survey_name":"\u5cf6\u5730\u5ddd\u30c0\u30e0\u5730\u8cea\u8abf\u67fb\u696d\u52d9","client_name":"\u56fd\u571f\u4ea4\u901a\u7701\u4e2d\u56fd\u5730\u65b9\u6574\u5099\u5c40\u5c71\u53e3\u6cb3\u5ddd\u56fd\u9053\u4e8b\u52d9\u6240","boring_xml_url":40,"boring_view_url":1,"soilmap_view_url":null,"soiltest_xml_url":0,"soiltest_view_url":0},{"id":186849,"code":"B4KJ201801007-5098","latitude":"34.1784958","longitude":"131.7666117","source_code":"CG51312611002","project_name":"","survey_name":"\u9577\u702c\u5730\u533a\u5730\u3059\u3079\u308a\u691c\u8a0e\u696d\u52d9","client_name":"\u56fd\u571f\u4ea4\u901a\u7701\u4e2d\u56fd\u5730\u65b9\u6574\u5099\u5c40\u5c71\u53e3\u6cb3\u5ddd\u56fd\u9053\u4e8b\u52d9\u6240","boring_xml_url":40,"boring_view_url":1,"soilmap_view_url":null,"soiltest_xml_url":0,"soiltest_view_url":0},{"id":186848,"code":"B4KJ201801007-5097","latitude":"34.1786903","longitude":"131.7654731","source_code":"CG51312611001","project_name":"","survey_name":"\u9577\u702c\u5730\u533a\u5730\u3059\u3079\u308a\u691c\u8a0e\u696d\u52d9","client_name":"\u56fd\u571f\u4ea4\u901a\u7701\u4e2d\u56fd\u5730\u65b9\u6574\u5099\u5c40\u5c71\u53e3\u6cb3\u5ddd\u56fd\u9053\u4e8b\u52d9\u6240","boring_xml_url":40,"boring_view_url":1,"soilmap_view_url":null,"soiltest_xml_url":0,"soiltest_view_url":0},{"id":186847,"code":"B4KJ201801007-5096","latitude":"34.1729133","longitude":"131.7741944","source_code":"CG51312602002","project_name":"","survey_name":"\u5cf6\u5730\u5ddd\u30c0\u30e0\u5730\u8cea\u8abf\u67fb\u696d\u52d9","client_name":"\u56fd\u571f\u4ea4\u901a\u7701\u4e2d\u56fd\u5730\u65b9\u6574\u5099\u5c40\u5c71\u53e3\u6cb3\u5ddd\u56fd\u9053\u4e8b\u52d9\u6240","boring_xml_url":40,"boring_view_url":1,"soilmap_view_url":null,"soiltest_xml_url":0,"soiltest_view_url":0},{"id":186846,"code":"B4KJ201801007-5095","latitude":"34.1731356","longitude":"131.7743611","source_code":"CG51312602001","project_name":"","survey_name":"\u5cf6\u5730\u5ddd\u30c0\u30e0\u5730\u8cea\u8abf\u67fb\u696d\u52d9","client_name":"\u56fd\u571f\u4ea4\u901a\u7701\u4e2d\u56fd\u5730\u65b9\u6574\u5099\u5c40\u5c71\u53e3\u6cb3\u5ddd\u56fd\u9053\u4e8b\u52d9\u6240","boring_xml_url":40,"boring_view_url":1,"soilmap_view_url":null,"soiltest_xml_url":0,"soiltest_view_url":0},{"id":186845,"code":"B4KJ201801007-5094","latitude":"34.1773569","longitude":"131.7668339","source_code":"CG51312601009","project_name":"","survey_name":"\u9577\u702c\u5730\u533a\u5730\u3059\u3079\u308a\u691c\u8a0e\u696d\u52d9","client_name":"\u56fd\u571f\u4ea4\u901a\u7701\u4e2d\u56fd\u5730\u65b9\u6574\u5099\u5c40\u5c71\u53e3\u6cb3\u5ddd\u56fd\u9053\u4e8b\u52d9\u6240","boring_xml_url":40,"boring_view_url":1,"soilmap_view_url":null,"soiltest_xml_url":0,"soiltest_view_url":0},{"id":186844,"code":"B4KJ201801007-5093","latitude":"34.1777181","longitude":"131.7666117","source_code":"CG51312601008","project_name":"","survey_name":"\u9577\u702c\u5730\u533a\u5730\u3059\u3079\u308a\u691c\u8a0e\u696d\u52d9","client_name":"\u56fd\u571f\u4ea4\u901a\u7701\u4e2d\u56fd\u5730\u65b9\u6574\u5099\u5c40\u5c71\u53e3\u6cb3\u5ddd\u56fd\u9053\u4e8b\u52d9\u6240","boring_xml_url":40,"boring_view_url":1,"soilmap_view_url":null,"soiltest_xml_url":0,"soiltest_view_url":0},{"id":186843,"code":"B4KJ201801007-5092","latitude":"34.1775792","longitude":"131.7653342","source_code":"CG51312601007","project_name":"","survey_name":"\u9577\u702c\u5730\u533a\u5730\u3059\u3079\u308a\u691c\u8a0e\u696d\u52d9","client_name":"\u56fd\u571f\u4ea4\u901a\u7701\u4e2d\u56fd\u5730\u65b9\u6574\u5099\u5c40\u5c71\u53e3\u6cb3\u5ddd\u56fd\u9053\u4e8b\u52d9\u6240","boring_xml_url":40,"boring_view_url":1,"soilmap_view_url":null,"soiltest_xml_url":0,"soiltest_view_url":0},{"id":186842,"code":"B4KJ201801007-5091","latitude":"34.1780514","longitude":"131.7671394","source_code":"CG51312601006","project_name":"","survey_name":"\u9577\u702c\u5730\u533a\u5730\u3059\u3079\u308a\u691c\u8a0e\u696d\u52d9","client_name":"\u56fd\u571f\u4ea4\u901a\u7701\u4e2d\u56fd\u5730\u65b9\u6574\u5099\u5c40\u5c71\u53e3\u6cb3\u5ddd\u56fd\u9053\u4e8b\u52d9\u6240","boring_xml_url":40,"boring_view_url":1,"soilmap_view_url":null,"soiltest_xml_url":0,"soiltest_view_url":0},{"id":186841,"code":"B4KJ201801007-5090","latitude":"34.1780792","longitude":"131.7667783","source_code":"CG51312601005","project_name":"","survey_name":"\u9577\u702c\u5730\u533a\u5730\u3059\u3079\u308a\u691c\u8a0e\u696d\u52d9","client_name":"\u56fd\u571f\u4ea4\u901a\u7701\u4e2d\u56fd\u5730\u65b9\u6574\u5099\u5c40\u5c71\u53e3\u6cb3\u5ddd\u56fd\u9053\u4e8b\u52d9\u6240","boring_xml_url":40,"boring_view_url":1,"soilmap_view_url":null,"soiltest_xml_url":0,"soiltest_view_url":0},{"id":186840,"code":"B4KJ201801007-5089","latitude":"34.1780792","longitude":"131.7658619","source_code":"CG51312601004","project_name":"","survey_name":"\u9577\u702c\u5730\u533a\u5730\u3059\u3079\u308a\u691c\u8a0e\u696d\u52d9","client_name":"\u56fd\u571f\u4ea4\u901a\u7701\u4e2d\u56fd\u5730\u65b9\u6574\u5099\u5c40\u5c71\u53e3\u6cb3\u5ddd\u56fd\u9053\u4e8b\u52d9\u6240","boring_xml_url":40,"boring_view_url":1,"soilmap_view_url":null,"soiltest_xml_url":0,"soiltest_view_url":0},{"id":186839,"code":"B4KJ201801007-5088","latitude":"34.1780792","longitude":"131.7655286","source_code":"CG51312601003","project_name":"","survey_name":"\u9577\u702c\u5730\u533a\u5730\u3059\u3079\u308a\u691c\u8a0e\u696d\u52d9","client_name":"\u56fd\u571f\u4ea4\u901a\u7701\u4e2d\u56fd\u5730\u65b9\u6574\u5099\u5c40\u5c71\u53e3\u6cb3\u5ddd\u56fd\u9053\u4e8b\u52d9\u6240","boring_xml_url":40,"boring_view_url":1,"soilmap_view_url":null,"soiltest_xml_url":0,"soiltest_view_url":0},{"id":186838,"code":"B4KJ201801007-5087","latitude":"34.1780792","longitude":"131.7647786","source_code":"CG51312601002","project_name":"","survey_name":"\u9577\u702c\u5730\u533a\u5730\u3059\u3079\u308a\u691c\u8a0e\u696d\u9810","client_name":"\u56fd\u571f\u4ea4\u901a\u7701\u4e2d\u56fd\u5730\u65b9\u6574\u5099\u5c40\u5c71\u53e3\u6cb3\u5ddd\u56fd\u9053\u4e8b\u52d9\u6240","boring_xml_url":40,"boring_view_url":1,"soilmap_view_url":null,"soiltest_xml_url":0,"soiltest_view_url":0},{"id":186837,"code":"B4KJ201801007-5086","latitude":"34.1780792","longitude":"131.7647786","source_code":"CG51312601001","project_name":"","survey_name":"\u9577\u702c\u5730\u533a\u5730\u3059\u30d9\u308a\u691c\u8a0e\u696d\u52d9","client_name":"\u56fd\u571f\u4ea4\u901a\u7701\u4e2d\u56fd\u5730\u65b9\u6574\u5099\u5c40\u5c71\u53e3\u6cb3\u5ddd\u56fd\u9053\u4e8b\u52d9\u6240","boring_xml_url":40,"boring_view_url":1,"soilmap_view_url":null,"soiltest_xml_url":0,"soiltest_view_url":0},{"id":186836,"code":"B4KJ201801007-5085","latitude":"34.1828819","longitude":"131.6492056","source_code":"CG51312512001","project_name":"","survey_name":"\u4f50\u6ce2\u5ddd\u5730\u4e0b\u6c34\u8abf\u67fb\u696d\u52d9","client_name":"\u56fd\u571f\u4ea4\u901a\u7701\u4e2d\u56fd\u5730\u65b9\u6574\u5099\u5c40\u5c71\u53e3\u6cb3\u5ddd\u56fd\u9053\u4e8b\u52d9\u6240","boring_xml_url":40,"boring_view_url":1,"soilmap_view_url":null,"soiltest_xml_url":0,"soiltest_view_url":0}]}}