{"header":{"xyz":{"source":[],"mosaic":false},"page":4459,"raw":{"soiltest_result":"0","bbox":"57.598333,109.544722,1.933333,163.806111","page":"4459"},"conditions":{"soiltest_result":0,"north":57.598333,"west":109.544722,"south":1.933333,"east":163.806111},"success":true,"message":""},"data":{"meta":{"total":212844,"page":4459,"pages":7095,"count":30},"values":[{"id":186805,"code":"B4KJ201801007-5054","latitude":"34.1909611","longitude":"131.4860533","source_code":"CG51312329001","project_name":"","survey_name":"\u5bae\u91ce\u5730\u533a\u5730\u8cea\u8abf\u67fb\u696d\u52d9","client_name":"\u56fd\u571f\u4ea4\u901a\u7701\u4e2d\u56fd\u5730\u65b9\u6574\u5099\u5c40\u5c71\u53e3\u6cb3\u5ddd\u56fd\u9053\u4e8b\u52d9\u6240","boring_xml_url":40,"boring_view_url":1,"soilmap_view_url":null,"soiltest_xml_url":0,"soiltest_view_url":0},{"id":186804,"code":"B4KJ201801007-5053","latitude":"34.1887944","longitude":"131.481415","source_code":"CG51312328014","project_name":"","survey_name":"\u5c71\u53e3\u5730\u8cea\u8abf\u67fb\u696d\u52d9","client_name":"\u56fd\u571f\u4ea4\u901a\u7701\u4e2d\u56fd\u5730\u65b9\u6574\u5099\u5c40\u5c71\u53e3\u6cb3\u5ddd\u56fd\u9053\u4e8b\u52d9\u6240","boring_xml_url":40,"boring_view_url":1,"soilmap_view_url":null,"soiltest_xml_url":0,"soiltest_view_url":0},{"id":186803,"code":"B4KJ201801007-5052","latitude":"34.1896","longitude":"131.4831092","source_code":"CG51312328013","project_name":"","survey_name":"\u5bae\u91ce\u5730\u533a\u5730\u8cea\u8abf\u67fb\u696d\u52d9","client_name":"\u56fd\u571f\u4ea4\u901a\u7701\u4e2d\u56fd\u5730\u65b9\u6574\u5099\u5c40\u5c71\u53e3\u6cb3\u5ddd\u56fd\u9053\u4e8b\u52d9\u6240","boring_xml_url":40,"boring_view_url":1,"soilmap_view_url":null,"soiltest_xml_url":0,"soiltest_view_url":0},{"id":186802,"code":"B4KJ201801007-5051","latitude":"34.1887667","longitude":"131.4825539","source_code":"CG51312328012","project_name":"","survey_name":"\u5bae\u91ce\u5730\u533a\u5730\u8cea\u8abf\u67fb\u696d\u52d9","client_name":"\u56fd\u571f\u4ea4\u901a\u7701\u4e2d\u56fd\u5730\u65b9\u6574\u5099\u5c40\u5c71\u53e3\u6cb3\u5ddd\u56fd\u9053\u4e8b\u52d9\u6240","boring_xml_url":40,"boring_view_url":1,"soilmap_view_url":null,"soiltest_xml_url":0,"soiltest_view_url":0},{"id":186801,"code":"B4KJ201801007-5050","latitude":"34.1907108","longitude":"131.4788042","source_code":"CG51312328010","project_name":"","survey_name":"\u5bae\u91ce\u5730\u533a\u5730\u8cea\u8abf\u67fb\u696d\u52d9","client_name":"\u56fd\u571f\u4ea4\u901a\u7701\u4e2d\u56fd\u5730\u65b9\u6574\u5099\u5c40\u5c71\u53e3\u6cb3\u5ddd\u56fd\u9053\u4e8b\u52d9\u6240","boring_xml_url":40,"boring_view_url":1,"soilmap_view_url":null,"soiltest_xml_url":0,"soiltest_view_url":0},{"id":186800,"code":"B4KJ201801007-5049","latitude":"34.1885167","longitude":"131.4798042","source_code":"CG51312328009","project_name":"","survey_name":"\u5bae\u91ce\u5730\u533a\u5730\u8cea\u8abf\u67fb\u696d\u52d9","client_name":"\u56fd\u571f\u4ea4\u901a\u7701\u4e2d\u56fd\u5730\u65b9\u6574\u5099\u5c40\u5c71\u53e3\u6cb3\u5ddd\u56fd\u9053\u4e8b\u52d9\u6240","boring_xml_url":40,"boring_view_url":1,"soilmap_view_url":null,"soiltest_xml_url":0,"soiltest_view_url":0},{"id":186799,"code":"B4KJ201801007-5048","latitude":"34.1905167","longitude":"131.4839703","source_code":"CG51312328008","project_name":"","survey_name":"\u5bae\u91ce\u5730\u533a\u5730\u8cea\u8abf\u67fb\u696d\u52d9","client_name":"\u56fd\u571f\u4ea4\u901a\u7701\u4e2d\u56fd\u5730\u65b9\u6574\u5099\u5c40\u5c71\u53e3\u6cb3\u5ddd\u56fd\u9053\u4e8b\u52d9\u6240","boring_xml_url":40,"boring_view_url":1,"soilmap_view_url":null,"soiltest_xml_url":0,"soiltest_view_url":0},{"id":186798,"code":"B4KJ201801007-5047","latitude":"34.1907667","longitude":"131.4844147","source_code":"CG51312328007","project_name":"","survey_name":"\u5bae\u91ce\u5730\u533a\u5730\u8cea\u8abf\u67fb\u696d\u52d9","client_name":"\u56fd\u571f\u4ea4\u901a\u7701\u4e2d\u56fd\u5730\u65b9\u6574\u5099\u5c40\u5c71\u53e3\u6cb3\u5ddd\u56fd\u9053\u4e8b\u52d9\u6240","boring_xml_url":40,"boring_view_url":1,"soilmap_view_url":null,"soiltest_xml_url":0,"soiltest_view_url":0},{"id":186797,"code":"B4KJ201801007-5046","latitude":"34.1901833","longitude":"131.4817761","source_code":"CG51312328006","project_name":"","survey_name":"\u5bae\u91ce\u5730\u533a\u5730\u8cea\u8abf\u67fb\u696d\u52d9","client_name":"\u56fd\u571f\u4ea4\u901a\u7701\u4e2d\u56fd\u5730\u65b9\u6574\u5099\u5c40\u5c71\u53e3\u6cb3\u5ddd\u56fd\u9053\u4e8b\u52d9\u6240","boring_xml_url":40,"boring_view_url":1,"soilmap_view_url":null,"soiltest_xml_url":0,"soiltest_view_url":0},{"id":186796,"code":"B4KJ201801007-5045","latitude":"34.1907108","longitude":"131.4788042","source_code":"CG51312328005","project_name":"","survey_name":"\u5bae\u91ce\u5730\u533a\u5730\u8cea\u8abf\u67fb\u696d\u52d9","client_name":"\u56fd\u571f\u4ea4\u901a\u7701\u4e2d\u56fd\u5730\u65b9\u6574\u5099\u5c40\u5c71\u53e3\u6cb3\u5ddd\u56fd\u9053\u4e8b\u52d9\u6240","boring_xml_url":40,"boring_view_url":1,"soilmap_view_url":null,"soiltest_xml_url":0,"soiltest_view_url":0},{"id":186795,"code":"B4KJ201801007-5044","latitude":"34.1899611","longitude":"131.4818317","source_code":"CG51312328004","project_name":"","survey_name":"\u5bae\u91ce\u5730\u533a\u5730\u8cea\u8abf\u67fb\u696d\u52d9","client_name":"\u56fd\u571f\u4ea4\u901a\u7701\u4e2d\u56fd\u5730\u65b9\u6574\u5099\u5c40\u5c71\u53e3\u6cb3\u5ddd\u56fd\u9053\u4e8b\u52d9\u6240","boring_xml_url":40,"boring_view_url":1,"soilmap_view_url":null,"soiltest_xml_url":0,"soiltest_view_url":0},{"id":186794,"code":"B4KJ201801007-5043","latitude":"34.1897667","longitude":"131.4820261","source_code":"CG51312328003","project_name":"","survey_name":"\u5bae\u91ce\u5730\u533a\u5730\u8cea\u8abf\u67fb\u696d\u52d9","client_name":"\u56fd\u571f\u4ea4\u901a\u7701\u4e2d\u56fd\u5730\u65b9\u6574\u5099\u5c40\u5c71\u53e3\u6cb3\u5ddd\u56fd\u9053\u4e8b\u52d9\u6240","boring_xml_url":40,"boring_view_url":1,"soilmap_view_url":null,"soiltest_xml_url":0,"soiltest_view_url":0},{"id":186793,"code":"B4KJ201801007-5042","latitude":"34.1875167","longitude":"131.4790819","source_code":"CG51312328002","project_name":"","survey_name":"\u5bae\u91ce\u5730\u533a\u5730\u8cea\u8abf\u67fb\u696d\u52d9","client_name":"\u56fd\u571f\u4ea4\u901a\u7701\u4e2d\u56fd\u5730\u65b9\u6574\u5099\u5c40\u5c71\u53e3\u6cb3\u5ddd\u56fd\u9053\u4e8b\u52d9\u6240","boring_xml_url":40,"boring_view_url":1,"soilmap_view_url":null,"soiltest_xml_url":0,"soiltest_view_url":0},{"id":186792,"code":"B4KJ201801007-5041","latitude":"34.1867114","longitude":"131.4769156","source_code":"CG51312328001","project_name":"","survey_name":"\u5bae\u91ce\u5730\u533a\u5730\u8cea\u8abf\u67fb\u696d\u52d9","client_name":"\u56fd\u571f\u4ea4\u901a\u7701\u4e2d\u56fd\u5730\u65b9\u6574\u5099\u5c40\u5c71\u53e3\u6cb3\u5ddd\u56fd\u9053\u4e8b\u52d9\u6240","boring_xml_url":40,"boring_view_url":1,"soilmap_view_url":null,"soiltest_xml_url":0,"soiltest_view_url":0},{"id":186791,"code":"B4KJ201801007-5040","latitude":"34.1859058","longitude":"131.4759711","source_code":"CG51312318003","project_name":"","survey_name":"\u5bae\u91ce\u5730\u533a\u5730\u8cea\u8abf\u67fb\u696d\u52d9","client_name":"\u56fd\u571f\u4ea4\u901a\u7701\u4e2d\u56fd\u5730\u65b9\u6574\u5099\u5c40\u5c71\u53e3\u6cb3\u5ddd\u56fd\u9053\u4e8b\u52d9\u6240","boring_xml_url":40,"boring_view_url":1,"soilmap_view_url":null,"soiltest_xml_url":0,"soiltest_view_url":0},{"id":186790,"code":"B4KJ201801007-5039","latitude":"34.1849336","longitude":"131.4744714","source_code":"CG51312318001","project_name":"","survey_name":"\u5c71\u53e3\u5730\u8cea\u8abf\u67fb\u696d\u52d9","client_name":"\u56fd\u571f\u4ea4\u901a\u7701\u4e2d\u56fd\u5730\u65b9\u6574\u5099\u5c40\u5c71\u53e3\u6cb3\u5ddd\u56fd\u9053\u4e8b\u52d9\u6240","boring_xml_url":40,"boring_view_url":1,"soilmap_view_url":null,"soiltest_xml_url":0,"soiltest_view_url":0},{"id":186789,"code":"B4KJ201801007-5038","latitude":"34.1843225","longitude":"131.4719992","source_code":"CG51312317014","project_name":"","survey_name":"\u6625\u65e5\u5730\u533a\u73fe\u6cc1\u8abf\u67fb","client_name":"\u56fd\u571f\u4ea4\u901a\u7701\u4e2d\u56fd\u5730\u65b9\u6574\u5099\u5c40\u5c71\u53e3\u6cb3\u5ddd\u56fd\u9053\u4e8b\u52d9\u6240","boring_xml_url":40,"boring_view_url":1,"soilmap_view_url":null,"soiltest_xml_url":0,"soiltest_view_url":0},{"id":186788,"code":"B4KJ201801007-5037","latitude":"34.1813783","longitude":"131.4685275","source_code":"CG51312317012","project_name":"","survey_name":"\u5c71\u53e3\u30d0\u30a4\u30d1\u30b9(\u767d\u77f3\u5730\u533a)\u5730\u8cea\u8abf\u67fb\u696d\u52d9","client_name":"\u56fd\u571f\u4ea4\u901a\u7701\u4e2d\u56fd\u5730\u65b9\u6574\u5099\u5c40\u5c71\u53e3\u6cb3\u5ddd\u56fd\u9053\u4e8b\u52d9\u6240","boring_xml_url":40,"boring_view_url":1,"soilmap_view_url":null,"soiltest_xml_url":0,"soiltest_view_url":0},{"id":186787,"code":"B4KJ201801007-5036","latitude":"34.1811006","longitude":"131.4687497","source_code":"CG51312317011","project_name":"","survey_name":"\u5c71\u53e3\u30d0\u30a4\u30d1\u30b9(\u767d\u77f3\u5730\u533a)\u5730\u8cea\u8abf\u67fb\u696d\u52d9","client_name":"\u56fd\u571f\u4ea4\u901a\u7701\u4e2d\u56fd\u5730\u65b9\u6574\u5099\u5c40\u5c71\u53e3\u6cb3\u5ddd\u56fd\u9053\u4e8b\u52d9\u6240","boring_xml_url":40,"boring_view_url":1,"soilmap_view_url":null,"soiltest_xml_url":0,"soiltest_view_url":0},{"id":186786,"code":"B4KJ201801007-5035","latitude":"34.1816561","longitude":"131.4686386","source_code":"CG51312317010","project_name":"","survey_name":"\u5c71\u53e3\u30d0\u30a4\u30d1\u30b9(\u767d\u77f3\u5730\u533a)\u5730\u8cea\u8abf\u67fb\u696d\u52d9","client_name":"\u56fd\u571f\u4ea4\u901a\u7701\u4e2d\u56fd\u5730\u65b9\u6574\u5099\u5c40\u5c71\u53e3\u6cb3\u5ddd\u56fd\u9053\u4e8b\u52d9\u6240","boring_xml_url":40,"boring_view_url":1,"soilmap_view_url":null,"soiltest_xml_url":0,"soiltest_view_url":0},{"id":186785,"code":"B4KJ201801007-5034","latitude":"34.1814617","longitude":"131.4688053","source_code":"CG51312317009","project_name":"","survey_name":"\u5c71\u53e3\u30d0\u30a4\u30d1\u30b9(\u767d\u77f3\u5730\u533a)\u5730\u8cea\u8abf\u67fb\u696d\u52d9","client_name":"\u56fd\u571f\u4ea4\u901a\u7701\u4e2d\u56fd\u5730\u65b9\u6574\u5099\u5c40\u5c71\u53e3\u6cb3\u5ddd\u56fd\u9053\u4e8b\u52d9\u6240","boring_xml_url":40,"boring_view_url":1,"soilmap_view_url":null,"soiltest_xml_url":0,"soiltest_view_url":0},{"id":186784,"code":"B4KJ201801007-5033","latitude":"34.181295","longitude":"131.4689997","source_code":"CG51312317008","project_name":"","survey_name":"\u5c71\u53e3\u30d0\u30a4\u30d1\u30b9(\u767d\u77f3\u5730\u533a)\u5730\u8cea\u8abf\u67fb\u696d\u52d9","client_name":"\u56fd\u571f\u4ea4\u901a\u7701\u4e2d\u56fd\u5730\u65b9\u6574\u5099\u5c40\u5c71\u53e3\u6cb3\u5ddd\u56fd\u9053\u4e8b\u52d9\u6240","boring_xml_url":40,"boring_view_url":1,"soilmap_view_url":null,"soiltest_xml_url":0,"soiltest_view_url":0},{"id":186783,"code":"B4KJ201801007-5032","latitude":"34.1816561","longitude":"131.4689442","source_code":"CG51312317007","project_name":"","survey_name":"\u5c71\u53e3\u30d0\u30a4\u30d1\u30b9(\u767d\u77f3\u5730\u533a)\u5730\u8cea\u8abf\u67fb\u696d\u52d9","client_name":"\u56fd\u571f\u4ea4\u901a\u7701\u4e2d\u56fd\u5730\u65b9\u6574\u5099\u5c40\u5c71\u53e3\u6cb3\u5ddd\u56fd\u9053\u4e8b\u52d9\u6240","boring_xml_url":40,"boring_view_url":1,"soilmap_view_url":null,"soiltest_xml_url":0,"soiltest_view_url":0},{"id":186782,"code":"B4KJ201801007-5031","latitude":"34.1814894","longitude":"131.4692219","source_code":"CG51312317006","project_name":"","survey_name":"\u5c71\u53e3\u30d0\u30a4\u30d1\u30b9(\u767d\u77f3\u5730\u533a)\u5730\u8cea\u8abf\u67fb\u696d\u52d9","client_name":"\u56fd\u571f\u4ea4\u901a\u7701\u4e2d\u56fd\u5730\u65b9\u6574\u5099\u5c40\u5c71\u53e3\u6cb3\u5ddd\u56fd\u9053\u4e8b\u52d9\u6240","boring_xml_url":40,"boring_view_url":1,"soilmap_view_url":null,"soiltest_xml_url":0,"soiltest_view_url":0},{"id":186781,"code":"B4KJ201801007-5030","latitude":"34.1786564","longitude":"131.4645281","source_code":"CG51312317005","project_name":"","survey_name":"\u5c71\u53e3\u30d0\u30a4\u30d1\u30b9\u69cb\u9020\u7269\u57fa\u790e\u5730\u76e4\u8abf\u67fb\u696d\u52d9","client_name":"\u56fd\u571f\u4ea4\u901a\u7701\u4e2d\u56fd\u5730\u65b9\u6574\u5099\u5c40\u5c71\u53e3\u6cb3\u5ddd\u56fd\u9053\u4e8b\u52d9\u6240","boring_xml_url":40,"boring_view_url":1,"soilmap_view_url":null,"soiltest_xml_url":0,"soiltest_view_url":0},{"id":186780,"code":"B4KJ201801007-5029","latitude":"34.1786564","longitude":"131.4648889","source_code":"CG51312317004","project_name":"","survey_name":"\u5c71\u53e3\u30d0\u30a4\u30d1\u30b9\u69cb\u9020\u7269\u57fa\u790e\u5730\u76e4\u8abf\u67fb\u696d\u52d9","client_name":"\u56fd\u571f\u4ea4\u901a\u7701\u4e2d\u56fd\u5730\u65b9\u6574\u5099\u5c40\u5c71\u53e3\u6cb3\u5ddd\u56fd\u9053\u4e8b\u52d9\u6240","boring_xml_url":40,"boring_view_url":1,"soilmap_view_url":null,"soiltest_xml_url":0,"soiltest_view_url":0},{"id":186779,"code":"B4KJ201801007-5028","latitude":"34.1804064","longitude":"131.4677775","source_code":"CG51312317003","project_name":"","survey_name":"\u5c71\u53e3\u30d0\u30a4\u30d1\u30b9\u69cb\u9020\u7269\u57fa\u790e\u5730\u76e4\u8abf\u67fb\u696d\u52d9","client_name":"\u56fd\u571f\u4ea4\u901a\u7701\u4e2d\u56fd\u5730\u65b9\u6574\u5099\u5c40\u5c71\u53e3\u6cb3\u5ddd\u56fd\u9053\u4e8b\u52d9\u6240","boring_xml_url":40,"boring_view_url":1,"soilmap_view_url":null,"soiltest_xml_url":0,"soiltest_view_url":0},{"id":186778,"code":"B4KJ201801007-5027","latitude":"34.1802397","longitude":"131.4681942","source_code":"CG51312317002","project_name":"","survey_name":"\u5c71\u53e3\u30d0\u30a4\u30d1\u30b9\u69cb\u9020\u7269\u57fa\u790e\u5730\u76e4\u8abf\u67fb\u696d\u52d9","client_name":"\u56fd\u571f\u4ea4\u901a\u7701\u4e2d\u56fd\u5730\u65b9\u6574\u5099\u5c40\u5c71\u53e3\u6cb3\u5ddd\u56fd\u9053\u4e8b\u52d9\u6240","boring_xml_url":40,"boring_view_url":1,"soilmap_view_url":null,"soiltest_xml_url":0,"soiltest_view_url":0},{"id":186777,"code":"B4KJ201801007-5026","latitude":"34.1775733","longitude":"131.4753881","source_code":"CG51312308001","project_name":"","survey_name":"\u5c71\u53e3\u5730\u8cea\u8abf\u67fb\u696d\u52d9","client_name":"\u56fd\u571f\u4ea4\u901a\u7701\u4e2d\u56fd\u5730\u65b9\u6574\u5099\u5c40\u5c71\u53e3\u6cb3\u5ddd\u56fd\u9053\u4e8b\u52d9\u6240","boring_xml_url":40,"boring_view_url":1,"soilmap_view_url":null,"soiltest_xml_url":0,"soiltest_view_url":0},{"id":186776,"code":"B4KJ201801007-5025","latitude":"34.1404972","longitude":"131.6197372","source_code":"CG51311469002","project_name":"","survey_name":"\u9ebb\u751f\u6a0b\u9580\u8a73\u7d30\u8a2d\u8a08\u305d\u306e\u4ed6\u696d\u52d9","client_name":"\u56fd\u571f\u4ea4\u901a\u7701\u4e2d\u56fd\u5730\u65b9\u6574\u5099\u5c40\u5c71\u53e3\u6cb3\u5ddd\u56fd\u9053\u4e8b\u52d9\u6240","boring_xml_url":40,"boring_view_url":1,"soilmap_view_url":null,"soiltest_xml_url":0,"soiltest_view_url":0}]}}