{"header":{"xyz":{"source":[],"mosaic":false},"page":4504,"raw":{"soiltest_result":"0","bbox":"57.598333,109.544722,1.933333,163.806111","page":"4504"},"conditions":{"soiltest_result":0,"north":57.598333,"west":109.544722,"south":1.933333,"east":163.806111},"success":true,"message":""},"data":{"meta":{"total":212844,"page":4504,"pages":7095,"count":30},"values":[{"id":185455,"code":"B4KJ201801007-3704","latitude":"34.43361","longitude":"132.65719","source_code":"CG2009875500223-2460016","project_name":"","survey_name":"\u5b89\u82b8\u30d0\u30a4\u30d1\u30b9\u5927\u5c71\u9ad8\u67b6\u6a4b\u5730\u8cea\u8abf\u67fb\u696d\u52d9","client_name":"\u56fd\u571f\u4ea4\u901a\u7701\u4e2d\u56fd\u5730\u65b9\u6574\u5099\u5c40\u5e83\u5cf6\u56fd\u9053\u4e8b\u52d9\u6240","boring_xml_url":50,"boring_view_url":1,"soilmap_view_url":null,"soiltest_xml_url":0,"soiltest_view_url":0},{"id":185454,"code":"B4KJ201801007-3703","latitude":"34.43369","longitude":"132.6575","source_code":"CG2009875500223-2460015","project_name":"","survey_name":"\u5b89\u82b8\u30d0\u30a4\u30d1\u30b9\u5927\u5c71\u9ad8\u67b6\u6a4b\u5730\u8cea\u8abf\u67fb\u696d\u52d9","client_name":"\u56fd\u571f\u4ea4\u901a\u7701\u4e2d\u56fd\u5730\u65b9\u6574\u5099\u5c40\u5e83\u5cf6\u56fd\u9053\u4e8b\u52d9\u6240","boring_xml_url":50,"boring_view_url":1,"soilmap_view_url":null,"soiltest_xml_url":0,"soiltest_view_url":0},{"id":185453,"code":"B4KJ201801007-3702","latitude":"34.43367","longitude":"132.65758","source_code":"CG2009875500223-2460014","project_name":"","survey_name":"\u5b89\u82b8\u30d0\u30a4\u30d1\u30b9\u5927\u5c71\u9ad8\u67b6\u6a4b\u5730\u8cea\u8abf\u67fb\u696d\u52d9","client_name":"\u56fd\u571f\u4ea4\u901a\u7701\u4e2d\u56fd\u5730\u65b9\u6574\u5099\u5c40\u5e83\u5cf6\u56fd\u9053\u4e8b\u52d9\u6240","boring_xml_url":50,"boring_view_url":1,"soilmap_view_url":null,"soiltest_xml_url":0,"soiltest_view_url":0},{"id":185452,"code":"B4KJ201801007-3701","latitude":"34.43381","longitude":"132.65775","source_code":"CG2009875500223-2460013","project_name":"","survey_name":"\u5b89\u82b8\u30d0\u30a4\u30d1\u30b9\u5927\u5c71\u9ad8\u67b6\u6a4b\u5730\u8cea\u8abf\u67fb\u696d\u52d9","client_name":"\u56fd\u571f\u4ea4\u901a\u7701\u4e2d\u56fd\u5730\u65b9\u6574\u5099\u5c40\u5e83\u5cf6\u56fd\u9053\u4e8b\u52d9\u6240","boring_xml_url":50,"boring_view_url":1,"soilmap_view_url":null,"soiltest_xml_url":0,"soiltest_view_url":0},{"id":185451,"code":"B4KJ201801007-3700","latitude":"34.43403","longitude":"132.65778","source_code":"CG2009875500223-2460012","project_name":"","survey_name":"\u5b89\u82b8\u30d0\u30a4\u30d1\u30b9\u5927\u5c71\u9ad8\u67b6\u6a4b\u5730\u8cea\u8abf\u67fb\u696d\u52d9","client_name":"\u56fd\u571f\u4ea4\u901a\u7701\u4e2d\u56fd\u5730\u65b9\u6574\u5099\u5c40\u5e83\u5cf6\u56fd\u9053\u4e8b\u52d9\u6240","boring_xml_url":50,"boring_view_url":1,"soilmap_view_url":null,"soiltest_xml_url":0,"soiltest_view_url":0},{"id":185450,"code":"B4KJ201801007-3699","latitude":"34.43417","longitude":"132.65817","source_code":"CG2009875500223-2460011","project_name":"","survey_name":"\u5b89\u82b8\u30d0\u30a4\u30d1\u30b9\u5927\u5c71\u9ad8\u67b6\u6a4b\u5730\u8cea\u8abf\u67fb\u696d\u52d9","client_name":"\u56fd\u571f\u4ea4\u901a\u7701\u4e2d\u56fd\u5730\u65b9\u6574\u5099\u5c40\u5e83\u5cf6\u56fd\u9053\u4e8b\u52d9\u6240","boring_xml_url":50,"boring_view_url":1,"soilmap_view_url":null,"soiltest_xml_url":0,"soiltest_view_url":0},{"id":185449,"code":"B4KJ201801007-3698","latitude":"34.43419","longitude":"132.65086","source_code":"CG2009875500223-2460010","project_name":"","survey_name":"\u5b89\u82b8\u30d0\u30a4\u30d1\u30b9\u5927\u5c71\u9ad8\u67b6\u6a4b\u5730\u8cea\u8abf\u67fb\u696d\u52d9","client_name":"\u56fd\u571f\u4ea4\u901a\u7701\u4e2d\u56fd\u5730\u65b9\u6574\u5099\u5c40\u5e83\u5cf6\u56fd\u9053\u4e8b\u52d9\u6240","boring_xml_url":50,"boring_view_url":1,"soilmap_view_url":null,"soiltest_xml_url":0,"soiltest_view_url":0},{"id":185448,"code":"B4KJ201801007-3697","latitude":"34.43439","longitude":"132.65858","source_code":"CG2009875500223-2460009","project_name":"","survey_name":"\u5b89\u82b8\u30d0\u30a4\u30d1\u30b9\u5927\u5c71\u9ad8\u67b6\u6a4b\u5730\u8cea\u8abf\u67fb\u696d\u52d9","client_name":"\u56fd\u571f\u4ea4\u901a\u7701\u4e2d\u56fd\u5730\u65b9\u6574\u5099\u5c40\u5e83\u5cf6\u56fd\u9053\u4e8b\u52d9\u6240","boring_xml_url":50,"boring_view_url":1,"soilmap_view_url":null,"soiltest_xml_url":0,"soiltest_view_url":0},{"id":185447,"code":"B4KJ201801007-3696","latitude":"34.43456","longitude":"132.65853","source_code":"CG2009875500223-2460008","project_name":"","survey_name":"\u5b89\u82b8\u30d0\u30a4\u30d1\u30b9\u5927\u5c71\u9ad8\u67b6\u6a4b\u5730\u8cea\u8abf\u67fb\u696d\u52d9","client_name":"\u56fd\u571f\u4ea4\u901a\u7701\u4e2d\u56fd\u5730\u65b9\u6574\u5099\u5c40\u5e83\u5cf6\u56fd\u9053\u4e8b\u52d9\u6240","boring_xml_url":50,"boring_view_url":1,"soilmap_view_url":null,"soiltest_xml_url":0,"soiltest_view_url":0},{"id":185446,"code":"B4KJ201801007-3695","latitude":"34.43467","longitude":"132.65878","source_code":"CG2009875500223-2460007","project_name":"","survey_name":"\u5b89\u82b8\u30d0\u30a4\u30d1\u30b9\u5927\u5c71\u9ad8\u67b6\u6a4b\u5730\u8cea\u8abf\u67fb\u696d\u52d9","client_name":"\u56fd\u571f\u4ea4\u901a\u7701\u4e2d\u56fd\u5730\u65b9\u6574\u5099\u5c40\u5e83\u5cf6\u56fd\u9053\u4e8b\u52d9\u6240","boring_xml_url":50,"boring_view_url":1,"soilmap_view_url":null,"soiltest_xml_url":0,"soiltest_view_url":0},{"id":185445,"code":"B4KJ201801007-3694","latitude":"34.43475","longitude":"132.65875","source_code":"CG2009875500223-2460006","project_name":"","survey_name":"\u5b89\u82b8\u30d0\u30a4\u30d1\u30b9\u5927\u5c71\u9ad8\u67b6\u6a4b\u5730\u8cea\u8abf\u67fb\u696d\u52d9","client_name":"\u56fd\u571f\u4ea4\u901a\u7701\u4e2d\u56fd\u5730\u65b9\u6574\u5099\u5c40\u5e83\u5cf6\u56fd\u9053\u4e8b\u52d9\u6240","boring_xml_url":50,"boring_view_url":1,"soilmap_view_url":null,"soiltest_xml_url":0,"soiltest_view_url":0},{"id":185444,"code":"B4KJ201801007-3693","latitude":"34.43492","longitude":"132.65872","source_code":"CG2009875500223-2460005","project_name":"","survey_name":"\u5b89\u82b8\u30d0\u30a4\u30d1\u30b9\u5927\u5c71\u9ad8\u67b6\u6a4b\u5730\u8cea\u8abf\u67fb\u696d\u52d9","client_name":"\u56fd\u571f\u4ea4\u901a\u7701\u4e2d\u56fd\u5730\u65b9\u6574\u5099\u5c40\u5e83\u5cf6\u56fd\u9053\u4e8b\u52d9\u6240","boring_xml_url":50,"boring_view_url":1,"soilmap_view_url":null,"soiltest_xml_url":0,"soiltest_view_url":0},{"id":185443,"code":"B4KJ201801007-3692","latitude":"34.43492","longitude":"132.65892","source_code":"CG2009875500223-2460004","project_name":"","survey_name":"\u5b89\u82b8\u30d0\u30a4\u30d1\u30b9\u5927\u5c71\u9ad8\u67b6\u6a4b\u5730\u8cea\u8abf\u67fb\u696d\u52d9","client_name":"\u56fd\u571f\u4ea4\u901a\u7701\u4e2d\u56fd\u5730\u65b9\u6574\u5099\u5c40\u5e83\u5cf6\u56fd\u9053\u4e8b\u52d9\u6240","boring_xml_url":50,"boring_view_url":1,"soilmap_view_url":null,"soiltest_xml_url":0,"soiltest_view_url":0},{"id":185442,"code":"B4KJ201801007-3691","latitude":"34.43508","longitude":"132.65906","source_code":"CG2009875500223-2460003","project_name":"","survey_name":"\u5b89\u82b8\u30d0\u30a4\u30d1\u30b9\u5927\u5c71\u9ad8\u67b6\u6a4b\u5730\u8cea\u8abf\u67fb\u696d\u52d9","client_name":"\u56fd\u571f\u4ea4\u901a\u7701\u4e2d\u56fd\u5730\u65b9\u6574\u5099\u5c40\u5e83\u5cf6\u56fd\u9053\u4e8b\u52d9\u6240","boring_xml_url":50,"boring_view_url":1,"soilmap_view_url":null,"soiltest_xml_url":0,"soiltest_view_url":0},{"id":185441,"code":"B4KJ201801007-3690","latitude":"34.43531","longitude":"132.65914","source_code":"CG2009875500223-2460002","project_name":"","survey_name":"\u5b89\u82b8\u30d0\u30a4\u30d1\u30b9\u5927\u5c71\u9ad8\u67b6\u6a4b\u5730\u8cea\u8abf\u67fb\u696d\u52d9","client_name":"\u56fd\u571f\u4ea4\u901a\u7701\u4e2d\u56fd\u5730\u65b9\u6574\u5099\u5c40\u5e83\u5cf6\u56fd\u9053\u4e8b\u52d9\u6240","boring_xml_url":50,"boring_view_url":1,"soilmap_view_url":null,"soiltest_xml_url":0,"soiltest_view_url":0},{"id":185440,"code":"B4KJ201801007-3689","latitude":"34.43561","longitude":"132.65947","source_code":"CG2009875500223-2460001","project_name":"","survey_name":"\u5b89\u82b8\u30d0\u30a4\u30d1\u30b9\u5927\u5c71\u9ad8\u67b6\u6a4b\u5730\u8cea\u8abf\u67fb\u696d\u52d9","client_name":"\u56fd\u571f\u4ea4\u901a\u7701\u4e2d\u56fd\u5730\u65b9\u6574\u5099\u5c40\u5e83\u5cf6\u56fd\u9053\u4e8b\u52d9\u6240","boring_xml_url":50,"boring_view_url":1,"soilmap_view_url":null,"soiltest_xml_url":0,"soiltest_view_url":0},{"id":185439,"code":"B4KJ201801007-3688","latitude":"34.292842","longitude":"132.6260231","source_code":"CG2009875500223-2440019","project_name":"\u6771\u5e83\u5cf6\u30fb\u5449\u9053\u8def\u5730\u8cea\u8abf\u67fb\u696d\u52d9","survey_name":"\u6771\u5e83\u5cf6\u30fb\u5449\u9053\u8def\u5730\u8cea\u8abf\u67fb\u696d\u52d9","client_name":"\u56fd\u571f\u4ea4\u901a\u7701\u4e2d\u56fd\u5730\u65b9\u6574\u5099\u5c40\u5e83\u5cf6\u56fd\u9053\u4e8b\u52d9\u6240","boring_xml_url":50,"boring_view_url":1,"soilmap_view_url":null,"soiltest_xml_url":0,"soiltest_view_url":0},{"id":185438,"code":"B4KJ201801007-3687","latitude":"34.3033408","longitude":"132.6216344","source_code":"CG2009875500223-2440018","project_name":"\u6771\u5e83\u5cf6\u30fb\u5449\u9053\u8def\u5730\u8cea\u8abf\u67fb\u696d\u52d9","survey_name":"\u6771\u5e83\u5cf6\u30fb\u5449\u9053\u8def\u5730\u8cea\u8abf\u67fb\u696d\u52d9","client_name":"\u56fd\u571f\u4ea4\u901a\u7701\u4e2d\u56fd\u5730\u65b9\u6574\u5099\u5c40\u5e83\u5cf6\u56fd\u9053\u4e8b\u52d9\u6240","boring_xml_url":50,"boring_view_url":1,"soilmap_view_url":null,"soiltest_xml_url":0,"soiltest_view_url":0},{"id":185437,"code":"B4KJ201801007-3686","latitude":"34.2903422","longitude":"132.6231622","source_code":"CG2009875500223-2440017","project_name":"\u6771\u5e83\u5cf6\u30fb\u5449\u9053\u8def\u5730\u8cea\u8abf\u67fb\u696d\u52d9","survey_name":"\u6771\u5e83\u5cf6\u30fb\u5449\u9053\u8def\u5730\u8cea\u8abf\u67fb\u696d\u52d9","client_name":"\u56fd\u571f\u4ea4\u901a\u7701\u4e2d\u56fd\u5730\u65b9\u6574\u5099\u5c40\u5e83\u5cf6\u56fd\u9053\u4e8b\u52d9\u6240","boring_xml_url":50,"boring_view_url":1,"soilmap_view_url":null,"soiltest_xml_url":0,"soiltest_view_url":0},{"id":185436,"code":"B4KJ201801007-3685","latitude":"34.2903978","longitude":"132.6235508","source_code":"CG2009875500223-2440016","project_name":"\u6771\u5e83\u5cf6\u30fb\u5449\u9053\u8def\u5730\u8cea\u8abf\u67fb\u696d\u52d9","survey_name":"\u6771\u5e83\u5cf6\u30fb\u5449\u9053\u8def\u5730\u8cea\u8abf\u67fb\u696d\u52d9","client_name":"\u56fd\u571f\u4ea4\u901a\u7701\u4e2d\u56fd\u5730\u65b9\u6574\u5099\u5c40\u5e83\u5cf6\u56fd\u9053\u4e8b\u52d9\u6240","boring_xml_url":50,"boring_view_url":1,"soilmap_view_url":null,"soiltest_xml_url":0,"soiltest_view_url":0},{"id":185435,"code":"B4KJ201801007-3684","latitude":"34.24270783","longitude":"132.6080261","source_code":"CG2009875500223-2440015","project_name":"\u6771\u5e83\u5cf6\u30fb\u5449\u9053\u8def\u5730\u8cea\u8abf\u67fb\u696d\u52d9","survey_name":"\u6771\u5e83\u5cf6\u30fb\u5449\u9053\u8def\u5730\u8cea\u8abf\u67fb\u696d\u52d9","client_name":"\u56fd\u571f\u4ea4\u901a\u7701\u4e2d\u56fd\u5730\u65b9\u6574\u5099\u5c40\u5e83\u5cf6\u56fd\u9053\u4e8b\u52d9\u6240","boring_xml_url":50,"boring_view_url":1,"soilmap_view_url":null,"soiltest_xml_url":0,"soiltest_view_url":0},{"id":185434,"code":"B4KJ201801007-3683","latitude":"34.24270783","longitude":"132.6074706","source_code":"CG2009875500223-2440014","project_name":"\u6771\u5e83\u5cf6\u30fb\u5449\u9053\u8def\u5730\u8cea\u8abf\u67fb\u696d\u52d9","survey_name":"\u6771\u5e83\u5cf6\u30fb\u5449\u9053\u8def\u5730\u8cea\u8abf\u67fb\u696d\u52d9","client_name":"\u56fd\u571f\u4ea4\u901a\u7701\u4e2d\u56fd\u5730\u65b9\u6574\u5099\u5c40\u5e83\u5cf6\u56fd\u9053\u4e8b\u52d9\u6240","boring_xml_url":50,"boring_view_url":1,"soilmap_view_url":null,"soiltest_xml_url":0,"soiltest_view_url":0},{"id":185433,"code":"B4KJ201801007-3682","latitude":"34.24159689","longitude":"132.6080261","source_code":"CG2009875500223-2440013","project_name":"\u6771\u5e83\u5cf6\u30fb\u5449\u9053\u8def\u5730\u8cea\u8abf\u67fb\u696d\u52d9","survey_name":"\u6771\u5e83\u5cf6\u30fb\u5449\u9053\u8def\u5730\u8cea\u8abf\u67fb\u696d\u52d9","client_name":"\u56fd\u571f\u4ea4\u901a\u7701\u4e2d\u56fd\u5730\u65b9\u6574\u5099\u5c40\u5e83\u5cf6\u56fd\u9053\u4e8b\u52d9\u6240","boring_xml_url":50,"boring_view_url":1,"soilmap_view_url":null,"soiltest_xml_url":0,"soiltest_view_url":0},{"id":185432,"code":"B4KJ201801007-3681","latitude":"34.24104142","longitude":"132.6074706","source_code":"CG2009875500223-2440012","project_name":"\u6771\u5e83\u5cf6\u30fb\u5449\u9053\u8def\u5730\u8cea\u8abf\u67fb\u696d\u52d9","survey_name":"\u6771\u5e83\u5cf6\u30fb\u5449\u9053\u8def\u5730\u8cea\u8abf\u67fb\u696d\u52d9","client_name":"\u56fd\u571f\u4ea4\u901a\u7701\u4e2d\u56fd\u5730\u65b9\u6574\u5099\u5c40\u5e83\u5cf6\u56fd\u9053\u4e8b\u52d9\u6240","boring_xml_url":50,"boring_view_url":1,"soilmap_view_url":null,"soiltest_xml_url":0,"soiltest_view_url":0},{"id":185431,"code":"B4KJ201801007-3680","latitude":"34.2413192","longitude":"132.6077483","source_code":"CG2009875500223-2440011","project_name":"\u6771\u5e83\u5cf6\u30fb\u5449\u9053\u8def\u5730\u8cea\u8abf\u67fb\u696d\u52d9","survey_name":"\u6771\u5e83\u5cf6\u30fb\u5449\u9053\u8def\u5730\u8cea\u8abf\u67fb\u696d\u52d9","client_name":"\u56fd\u571f\u4ea4\u901a\u7701\u4e2d\u56fd\u5730\u65b9\u6574\u5099\u5c40\u5e83\u5cf6\u56fd\u9053\u4e8b\u52d9\u6240","boring_xml_url":50,"boring_view_url":1,"soilmap_view_url":null,"soiltest_xml_url":0,"soiltest_view_url":0},{"id":185430,"code":"B4KJ201801007-3679","latitude":"34.24076369","longitude":"132.6080261","source_code":"CG2009875500223-2440010","project_name":"\u6771\u5e83\u5cf6\u30fb\u5449\u9053\u8def\u5730\u8cea\u8abf\u67fb\u696d\u52d9","survey_name":"\u6771\u5e83\u5cf6\u30fb\u5449\u9053\u8def\u5730\u8cea\u8abf\u67fb\u696d\u52d9","client_name":"\u56fd\u571f\u4ea4\u901a\u7701\u4e2d\u56fd\u5730\u65b9\u6574\u5099\u5c40\u5e83\u5cf6\u56fd\u9053\u4e8b\u52d9\u6240","boring_xml_url":50,"boring_view_url":1,"soilmap_view_url":null,"soiltest_xml_url":0,"soiltest_view_url":0},{"id":185429,"code":"B4KJ201801007-3678","latitude":"34.24020822","longitude":"132.6074706","source_code":"CG2009875500223-2440009","project_name":"\u6771\u5e83\u5cf6\u30fb\u5449\u9053\u8def\u5730\u8cea\u8abf\u67fb\u696d\u52d9","survey_name":"\u6771\u5e83\u5cf6\u30fb\u5449\u9053\u8def\u5730\u8cea\u8abf\u67fb\u696d\u52d9","client_name":"\u56fd\u571f\u4ea4\u901a\u7701\u4e2d\u56fd\u5730\u65b9\u6574\u5099\u5c40\u5e83\u5cf6\u56fd\u9053\u4e8b\u52d9\u6240","boring_xml_url":50,"boring_view_url":1,"soilmap_view_url":null,"soiltest_xml_url":0,"soiltest_view_url":0},{"id":185428,"code":"B4KJ201801007-3677","latitude":"34.23993047","longitude":"132.6074706","source_code":"CG2009875500223-2440008","project_name":"\u6771\u5e83\u5cf6\u30fb\u5449\u9053\u8def\u5730\u8cea\u8abf\u67fb\u696d\u52d9","survey_name":"\u6771\u5e83\u5cf6\u30fb\u5449\u9053\u8def\u5730\u8cea\u8abf\u67fb\u696d\u52d9","client_name":"\u56fd\u571f\u4ea4\u901a\u7701\u4e2d\u56fd\u5730\u65b9\u6574\u5099\u5c40\u5e83\u5cf6\u56fd\u9053\u4e8b\u52d9\u6240","boring_xml_url":50,"boring_view_url":1,"soilmap_view_url":null,"soiltest_xml_url":0,"soiltest_view_url":0},{"id":185427,"code":"B4KJ201801007-3676","latitude":"34.2399305","longitude":"132.6077483","source_code":"CG2009875500223-2440007","project_name":"\u6771\u5e83\u5cf6\u30fb\u5449\u9053\u8def\u5730\u8cea\u8abf\u67fb\u696d\u52d9","survey_name":"\u6771\u5e83\u5cf6\u30fb\u5449\u9053\u8def\u5730\u8cea\u8abf\u67fb\u696d\u52d9","client_name":"\u56fd\u571f\u4ea4\u901a\u7701\u4e2d\u56fd\u5730\u65b9\u6574\u5099\u5c40\u5e83\u5cf6\u56fd\u9053\u4e8b\u52d9\u6240","boring_xml_url":50,"boring_view_url":1,"soilmap_view_url":null,"soiltest_xml_url":0,"soiltest_view_url":0},{"id":185426,"code":"B4KJ201801007-3675","latitude":"34.23965275","longitude":"132.6074706","source_code":"CG2009875500223-2440006","project_name":"\u6771\u5e83\u5cf6\u30fb\u5449\u9053\u8def\u5730\u8cea\u8abf\u67fb\u696d\u52d9","survey_name":"\u6771\u5e83\u5cf6\u30fb\u5449\u9053\u8def\u5730\u8cea\u8abf\u67fb\u696d\u52d9","client_name":"\u56fd\u571f\u4ea4\u901a\u7701\u4e2d\u56fd\u5730\u65b9\u6574\u5099\u5c40\u5e83\u5cf6\u56fd\u9053\u4e8b\u52d9\u6240","boring_xml_url":50,"boring_view_url":1,"soilmap_view_url":null,"soiltest_xml_url":0,"soiltest_view_url":0}]}}