{"header":{"xyz":{"source":[],"mosaic":false},"page":4507,"raw":{"soiltest_result":"0","bbox":"57.598333,109.544722,1.933333,163.806111","page":"4507"},"conditions":{"soiltest_result":0,"north":57.598333,"west":109.544722,"south":1.933333,"east":163.806111},"success":true,"message":""},"data":{"meta":{"total":212844,"page":4507,"pages":7095,"count":30},"values":[{"id":185365,"code":"B4KJ201801007-3614","latitude":"34.40127317","longitude":"132.5900242","source_code":"CG2009875500223-1410003","project_name":"","survey_name":"\u6771\u5e83\u5cf6\u30d0\u30a4\u30d1\u30b9(\u5e73\u539f\u5730\u533a)\u5730\u8cea\u8abf\u67fb\u696d\u52d9","client_name":"\u56fd\u571f\u4ea4\u901a\u7701\u4e2d\u56fd\u5730\u65b9\u6574\u5099\u5c40\u5e83\u5cf6\u56fd\u9053\u5de5\u4e8b\u4e8b\u52d9\u6240","boring_xml_url":50,"boring_view_url":1,"soilmap_view_url":null,"soiltest_xml_url":0,"soiltest_view_url":0},{"id":185364,"code":"B4KJ201801007-3613","latitude":"34.40157869","longitude":"132.5901908","source_code":"CG2009875500223-1410002","project_name":"","survey_name":"\u6771\u5e83\u5cf6\u30d0\u30a4\u30d1\u30b9(\u5e73\u539f\u5730\u533a)\u5730\u8cea\u8abf\u67fb\u696d\u52d9","client_name":"\u56fd\u571f\u4ea4\u901a\u7701\u4e2d\u56fd\u5730\u65b9\u6574\u5099\u5c40\u5e83\u5cf6\u56fd\u9053\u5de5\u4e8b\u4e8b\u52d9\u6240","boring_xml_url":50,"boring_view_url":1,"soilmap_view_url":null,"soiltest_xml_url":0,"soiltest_view_url":0},{"id":185363,"code":"B4KJ201801007-3612","latitude":"34.40188422","longitude":"132.5903853","source_code":"CG2009875500223-1410001","project_name":"","survey_name":"\u6771\u5e83\u5cf6\u30d0\u30a4\u30d1\u30b9(\u5e73\u539f\u5730\u533a)\u5730\u8cea\u8abf\u67fb\u696d\u52d9","client_name":"\u56fd\u571f\u4ea4\u901a\u7701\u4e2d\u56fd\u5730\u65b9\u6574\u5099\u5c40\u5e83\u5cf6\u56fd\u9053\u5de5\u4e8b\u4e8b\u52d9\u6240","boring_xml_url":50,"boring_view_url":1,"soilmap_view_url":null,"soiltest_xml_url":0,"soiltest_view_url":0},{"id":185362,"code":"B4KJ201801007-3611","latitude":"34.37774119","longitude":"132.5561103","source_code":"CG2009875500223-0230019","project_name":"\u5b89\u82b8\u30d0\u30a4\u30d1\u30b9(\u4e0a\u702c\u91ce\u5730\u533a)\u4ed6\u5730\u8cea\u8abf\u67fb\u696d\u52d9","survey_name":"\u5b89\u82b8\u30d0\u30a4\u30d1\u30b9(\u4e0a\u702c\u91ce\u5730\u533a)\u4ed6\u5730\u8cea\u8abf\u67fb\u696d\u52d9","client_name":"\u56fd\u571f\u4ea4\u901a\u7701\u4e2d\u56fd\u5730\u65b9\u6574\u5099\u5c40\u5e83\u5cf6\u56fd\u9053\u5de5\u4e8b\u4e8b\u52d9\u6240","boring_xml_url":50,"boring_view_url":1,"soilmap_view_url":null,"soiltest_xml_url":0,"soiltest_view_url":0},{"id":185361,"code":"B4KJ201801007-3610","latitude":"34.3783272","longitude":"132.5561733","source_code":"CG2009875500223-0230018","project_name":"\u5b89\u82b8\u30d0\u30a4\u30d1\u30b9(\u4e0a\u702c\u91ce\u5730\u533a)\u4ed6\u5730\u8cea\u8abf\u67fb\u696d\u52d9","survey_name":"\u5b89\u82b8\u30d0\u30a4\u30d1\u30b9(\u4e0a\u702c\u91ce\u5730\u533a)\u4ed6\u5730\u8cea\u8abf\u67fb\u696d\u52d9","client_name":"\u56fd\u571f\u4ea4\u901a\u7701\u4e2d\u56fd\u5730\u65b9\u6574\u5099\u5c40\u5e83\u5cf6\u56fd\u9053\u5de5\u4e8b\u4e8b\u52d9\u6240","boring_xml_url":50,"boring_view_url":1,"soilmap_view_url":null,"soiltest_xml_url":0,"soiltest_view_url":0},{"id":185360,"code":"B4KJ201801007-3609","latitude":"34.43602122","longitude":"132.6541286","source_code":"CG2009875500223-0230017","project_name":"\u5b89\u82b8\u30d0\u30a4\u30d1\u30b9(\u4e0a\u702c\u91ce\u5730\u533a)\u4ed6\u5730\u8cea\u8abf\u67fb\u696d\u52d9","survey_name":"\u5b89\u82b8\u30d0\u30a4\u30d1\u30b9(\u4e0a\u702c\u91ce\u5730\u533a)\u4ed6\u5730\u8cea\u8abf\u67fb\u696d\u52d9","client_name":"\u56fd\u571f\u4ea4\u901a\u7701\u4e2d\u56fd\u5730\u65b9\u6574\u5099\u5c40\u5e83\u5cf6\u56fd\u9053\u5de5\u4e8b\u4e8b\u52d9\u6240","boring_xml_url":50,"boring_view_url":1,"soilmap_view_url":null,"soiltest_xml_url":0,"soiltest_view_url":0},{"id":185359,"code":"B4KJ201801007-3608","latitude":"34.43691003","longitude":"132.6548508","source_code":"CG2009875500223-0230016","project_name":"\u5b89\u82b8\u30d0\u30a4\u30d1\u30b9(\u4e0a\u702c\u91ce\u5730\u533a)\u4ed6\u5730\u8cea\u8abf\u67fb\u696d\u52d9","survey_name":"\u5b89\u82b8\u30d0\u30a4\u30d1\u30b9(\u4e0a\u702c\u91ce\u5730\u533a)\u4ed6\u5730\u8cea\u8abf\u67fb\u696d\u52d9","client_name":"\u56fd\u571f\u4ea4\u901a\u7701\u4e2d\u56fd\u5730\u65b9\u6574\u5099\u5c40\u5e83\u5cf6\u56fd\u9053\u5de5\u4e8b\u4e8b\u52d9\u6240","boring_xml_url":50,"boring_view_url":1,"soilmap_view_url":null,"soiltest_xml_url":0,"soiltest_view_url":0},{"id":185358,"code":"B4KJ201801007-3607","latitude":"34.4373544","longitude":"132.6552953","source_code":"CG2009875500223-0230015","project_name":"\u5b89\u82b8\u30d0\u30a4\u30d1\u30b9(\u4e0a\u702c\u91ce\u5730\u533a)\u4ed6\u5730\u8cea\u8abf\u67fb\u696d\u52d9","survey_name":"\u5b89\u82b8\u30d0\u30a4\u30d1\u30b9(\u4e0a\u702c\u91ce\u5730\u533a)\u4ed6\u5730\u8cea\u8abf\u67fb\u696d\u52d9","client_name":"\u56fd\u571f\u4ea4\u901a\u7701\u4e2d\u56fd\u5730\u65b9\u6574\u5099\u5c40\u5e83\u5cf6\u56fd\u9053\u5de5\u4e8b\u4e8b\u52d9\u6240","boring_xml_url":50,"boring_view_url":1,"soilmap_view_url":null,"soiltest_xml_url":0,"soiltest_view_url":0},{"id":185357,"code":"B4KJ201801007-3606","latitude":"34.4375489","longitude":"132.6555453","source_code":"CG2009875500223-0230014","project_name":"\u5b89\u82b8\u30d0\u30a4\u30d1\u30b9(\u4e0a\u702c\u91ce\u5730\u533a)\u4ed6\u5730\u8cea\u8abf\u67fb\u696d\u52d9","survey_name":"\u5b89\u82b8\u30d0\u30a4\u30d1\u30b9(\u4e0a\u702c\u91ce\u5730\u533a)\u4ed6\u5730\u8cea\u8abf\u67fb\u696d\u52d9","client_name":"\u56fd\u571f\u4ea4\u901a\u7701\u4e2d\u56fd\u5730\u65b9\u6574\u5099\u5c40\u5e83\u5cf6\u56fd\u9053\u5de5\u4e8b\u4e8b\u52d9\u6240","boring_xml_url":50,"boring_view_url":1,"soilmap_view_url":null,"soiltest_xml_url":0,"soiltest_view_url":0},{"id":185356,"code":"B4KJ201801007-3605","latitude":"34.4379655","longitude":"132.6560728","source_code":"CG2009875500223-0230013","project_name":"\u5b89\u82b8\u30d0\u30a4\u30d1\u30b9(\u4e0a\u702c\u91ce\u5730\u533a)\u4ed6\u5730\u8cea\u8abf\u67fb\u696d\u52d9","survey_name":"\u5b89\u82b8\u30d0\u30a4\u30d1\u30b9(\u4e0a\u702c\u91ce\u5730\u533a)\u4ed6\u5730\u8cea\u8abf\u67fb\u696d\u52d9","client_name":"\u56fd\u571f\u4ea4\u901a\u7701\u4e2d\u56fd\u5730\u65b9\u6574\u5099\u5c40\u5e83\u5cf6\u56fd\u9053\u5de5\u4e8b\u4e8b\u52d9\u6240","boring_xml_url":50,"boring_view_url":1,"soilmap_view_url":null,"soiltest_xml_url":0,"soiltest_view_url":0},{"id":185355,"code":"B4KJ201801007-3604","latitude":"34.43852103","longitude":"132.6569061","source_code":"CG2009875500223-0230012","project_name":"\u5b89\u82b8\u30d0\u30a4\u30d1\u30b9(\u4e0a\u702c\u91ce\u5730\u533a)\u4ed6\u5730\u8cea\u8abf\u67fb\u696d\u52d9","survey_name":"\u5b89\u82b8\u30d0\u30a4\u30d1\u30b9(\u4e0a\u702c\u91ce\u5730\u533a)\u4ed6\u5730\u8cea\u8abf\u67fb\u696d\u52d9","client_name":"\u56fd\u571f\u4ea4\u901a\u7701\u4e2d\u56fd\u5730\u65b9\u6574\u5099\u5c40\u5e83\u5cf6\u56fd\u9053\u5de5\u4e8b\u4e8b\u52d9\u6240","boring_xml_url":50,"boring_view_url":1,"soilmap_view_url":null,"soiltest_xml_url":0,"soiltest_view_url":0},{"id":185354,"code":"B4KJ201801007-3603","latitude":"34.43310481","longitude":"132.6502958","source_code":"CG2009875500223-0230011","project_name":"\u5b89\u82b8\u30d0\u30a4\u30d1\u30b9(\u4e0a\u702c\u91ce\u5730\u533a)\u4ed6\u5730\u8cea\u8abf\u67fb\u696d\u52d9","survey_name":"\u5b89\u82b8\u30d0\u30a4\u30d1\u30b9(\u4e0a\u702c\u91ce\u5730\u533a)\u4ed6\u5730\u8cea\u8abf\u67fb\u696d\u52d9","client_name":"\u56fd\u571f\u4ea4\u901a\u7701\u4e2d\u56fd\u5730\u65b9\u6574\u5099\u5c40\u5e83\u5cf6\u56fd\u9053\u5de5\u4e8b\u4e8b\u52d9\u6240","boring_xml_url":50,"boring_view_url":1,"soilmap_view_url":null,"soiltest_xml_url":0,"soiltest_view_url":0},{"id":185353,"code":"B4KJ201801007-3602","latitude":"34.433327","longitude":"132.6506847","source_code":"CG2009875500223-0230010","project_name":"\u5b89\u82b8\u30d0\u30a4\u30d1\u30b9(\u4e0a\u702c\u91ce\u5730\u533a)\u4ed6\u5730\u8cea\u8abf\u67fb\u696d\u52d9","survey_name":"\u5b89\u82b8\u30d0\u30a4\u30d1\u30b9(\u4e0a\u702c\u91ce\u5730\u533a)\u4ed6\u5730\u8cea\u8abf\u67fb\u696d\u52d9","client_name":"\u56fd\u571f\u4ea4\u901a\u7701\u4e2d\u56fd\u5730\u65b9\u6574\u5099\u5c40\u5e83\u5cf6\u56fd\u9053\u5de5\u4e8b\u4e8b\u52d9\u6240","boring_xml_url":50,"boring_view_url":1,"soilmap_view_url":null,"soiltest_xml_url":0,"soiltest_view_url":0},{"id":185352,"code":"B4KJ201801007-3601","latitude":"34.43310481","longitude":"132.6502958","source_code":"CG2009875500223-0230009","project_name":"\u5b89\u82b8\u30d0\u30a4\u30d1\u30b9(\u4e0a\u702c\u91ce\u5730\u533a)\u4ed6\u5730\u8cea\u8abf\u67fb\u696d\u52d9","survey_name":"\u5b89\u82b8\u30d0\u30a4\u30d1\u30b9(\u4e0a\u702c\u91ce\u5730\u533a)\u4ed6\u5730\u8cea\u8abf\u67fb\u696d\u52d9","client_name":"\u56fd\u571f\u4ea4\u901a\u7701\u4e2d\u56fd\u5730\u65b9\u6574\u5099\u5c40\u5e83\u5cf6\u56fd\u9053\u5de5\u4e8b\u4e8b\u52d9\u6240","boring_xml_url":50,"boring_view_url":1,"soilmap_view_url":null,"soiltest_xml_url":0,"soiltest_view_url":0},{"id":185351,"code":"B4KJ201801007-3600","latitude":"34.43157706","longitude":"132.6449631","source_code":"CG2009875500223-0230008","project_name":"\u5b89\u82b8\u30d0\u30a4\u30d1\u30b9(\u4e0a\u702c\u91ce\u5730\u533a)\u4ed6\u5730\u8cea\u8abf\u67fb\u696d\u52d9","survey_name":"\u5b89\u82b8\u30d0\u30a4\u30d1\u30b9(\u4e0a\u702c\u91ce\u5730\u533a)\u4ed6\u5730\u8cea\u8abf\u67fb\u696d\u52d9","client_name":"\u56fd\u571f\u4ea4\u901a\u7701\u4e2d\u56fd\u5730\u65b9\u6574\u5099\u5c40\u5e83\u5cf6\u56fd\u9053\u5de5\u4e8b\u4e8b\u52d9\u6240","boring_xml_url":50,"boring_view_url":1,"soilmap_view_url":null,"soiltest_xml_url":0,"soiltest_view_url":0},{"id":185350,"code":"B4KJ201801007-3599","latitude":"34.43129931","longitude":"132.6452408","source_code":"CG2009875500223-0230007","project_name":"\u5b89\u82b8\u30d0\u30a4\u30d1\u30b9(\u4e0a\u702c\u91ce\u5730\u533a)\u4ed6\u5730\u8cea\u8abf\u67fb\u696d\u52d9","survey_name":"\u5b89\u82b8\u30d0\u30a4\u30d1\u30b9(\u4e0a\u702c\u91ce\u5730\u533a)\u4ed6\u5730\u8cea\u8abf\u67fb\u696d\u52d9","client_name":"\u56fd\u571f\u4ea4\u901a\u7701\u4e2d\u56fd\u5730\u65b9\u6574\u5099\u5c40\u5e83\u5cf6\u56fd\u9053\u5de5\u4e8b\u4e8b\u52d9\u6240","boring_xml_url":50,"boring_view_url":1,"soilmap_view_url":null,"soiltest_xml_url":0,"soiltest_view_url":0},{"id":185349,"code":"B4KJ201801007-3598","latitude":"34.43185483","longitude":"132.6460739","source_code":"CG2009875500223-0230006","project_name":"\u5b89\u82b8\u30d0\u30a4\u30d1\u30b9(\u4e0a\u702c\u91ce\u5730\u533a)\u4ed6\u5730\u8cea\u8abf\u67fb\u696d\u52d9","survey_name":"\u5b89\u82b8\u30d0\u30a4\u30d1\u30b9(\u4e0a\u702c\u91ce\u5730\u533a)\u4ed6\u5730\u8cea\u8abf\u67fb\u696d\u52d9","client_name":"\u56fd\u571f\u4ea4\u901a\u7701\u4e2d\u56fd\u5730\u65b9\u6574\u5099\u5c40\u5e83\u5cf6\u56fd\u9053\u5de5\u4e8b\u4e8b\u52d9\u6240","boring_xml_url":50,"boring_view_url":1,"soilmap_view_url":null,"soiltest_xml_url":0,"soiltest_view_url":0},{"id":185348,"code":"B4KJ201801007-3597","latitude":"34.43157708","longitude":"132.6463517","source_code":"CG2009875500223-0230005","project_name":"\u5b89\u82b8\u30d0\u30a4\u30d1\u30b9(\u4e0a\u702c\u91ce\u5730\u533a)\u4ed6\u5730\u8cea\u8abf\u67fb\u696d\u52d9","survey_name":"\u5b89\u82b8\u30d0\u30a4\u30d1\u30b9(\u4e0a\u702c\u91ce\u5730\u533a)\u4ed6\u5730\u8cea\u8abf\u67fb\u696d\u52d9","client_name":"\u56fd\u571f\u4ea4\u901a\u7701\u4e2d\u56fd\u5730\u65b9\u6574\u5099\u5c40\u5e83\u5cf6\u56fd\u9053\u5de5\u4e8b\u4e8b\u52d9\u6240","boring_xml_url":50,"boring_view_url":1,"soilmap_view_url":null,"soiltest_xml_url":0,"soiltest_view_url":0},{"id":185347,"code":"B4KJ201801007-3596","latitude":"34.43224369","longitude":"132.6466294","source_code":"CG2009875500223-0230004","project_name":"\u5b89\u82b8\u30d0\u30a4\u30d1\u30b9(\u4e0a\u702c\u91ce\u5730\u533a)\u4ed6\u5730\u8cea\u8abf\u67fb\u696d\u52d9","survey_name":"\u5b89\u82b8\u30d0\u30a4\u30d1\u30b9(\u4e0a\u702c\u91ce\u5730\u533a)\u4ed6\u5730\u8cea\u8abf\u67fb\u696d\u52d9","client_name":"\u56fd\u571f\u4ea4\u901a\u7701\u4e2d\u56fd\u5730\u65b9\u6574\u5099\u5c40\u5e83\u5cf6\u56fd\u9053\u5de5\u4e8b\u4e8b\u52d9\u6240","boring_xml_url":50,"boring_view_url":1,"soilmap_view_url":null,"soiltest_xml_url":0,"soiltest_view_url":0},{"id":185346,"code":"B4KJ201801007-3595","latitude":"34.43177153","longitude":"132.6472128","source_code":"CG2009875500223-0230003","project_name":"\u5b89\u82b8\u30d0\u30a4\u30d1\u30b9(\u4e0a\u702c\u91ce\u5730\u533a)\u4ed6\u5730\u8cea\u8abf\u67fb\u696d\u52d9","survey_name":"\u5b89\u82b8\u30d0\u30a4\u30d1\u30b9(\u4e0a\u702c\u91ce\u5730\u533a)\u4ed6\u5730\u8cea\u8abf\u67fb\u696d\u52d9","client_name":"\u56fd\u571f\u4ea4\u901a\u7701\u4e2d\u56fd\u5730\u65b9\u6574\u5099\u5c40\u5e83\u5cf6\u56fd\u9053\u5de5\u4e8b\u4e8b\u52d9\u6240","boring_xml_url":50,"boring_view_url":1,"soilmap_view_url":null,"soiltest_xml_url":0,"soiltest_view_url":0},{"id":185345,"code":"B4KJ201801007-3594","latitude":"34.43268811","longitude":"132.6482958","source_code":"CG2009875500223-0230002","project_name":"\u5b89\u82b8\u30d0\u30a4\u30d1\u30b9(\u4e0a\u702c\u91ce\u5730\u533a)\u4ed6\u5730\u8cea\u8abf\u67fb\u696d\u52d9","survey_name":"\u5b89\u82b8\u30d0\u30a4\u30d1\u30b9(\u4e0a\u702c\u91ce\u5730\u533a)\u4ed6\u5730\u8cea\u8abf\u67fb\u696d\u52d9","client_name":"\u56fd\u571f\u4ea4\u901a\u7701\u4e2d\u56fd\u5730\u65b9\u6574\u5099\u5c40\u5e83\u5cf6\u56fd\u9053\u5de5\u4e8b\u4e8b\u52d9\u6240","boring_xml_url":50,"boring_view_url":1,"soilmap_view_url":null,"soiltest_xml_url":0,"soiltest_view_url":0},{"id":185344,"code":"B4KJ201801007-3593","latitude":"34.43213264","longitude":"132.6488514","source_code":"CG2009875500223-0230001","project_name":"\u5b89\u82b8\u30d0\u30a4\u30d1\u30b9(\u4e0a\u702c\u91ce\u5730\u533a)\u4ed6\u5730\u8cea\u8abf\u67fb\u696d\u52d9","survey_name":"\u5b89\u82b8\u30d0\u30a4\u30d1\u30b9(\u4e0a\u702c\u91ce\u5730\u533a)\u4ed6\u5730\u8cea\u8abf\u67fb\u696d\u52d9","client_name":"\u56fd\u571f\u4ea4\u901a\u7701\u4e2d\u56fd\u5730\u65b9\u6574\u5099\u5c40\u5e83\u5cf6\u56fd\u9053\u5de5\u4e8b\u4e8b\u52d9\u6240","boring_xml_url":50,"boring_view_url":1,"soilmap_view_url":null,"soiltest_xml_url":0,"soiltest_view_url":0},{"id":185343,"code":"B4KJ201801007-3592","latitude":"34.39211","longitude":"132.43117","source_code":"CG2009875300221-2450004","project_name":"\u516b\u5e61\u5ddd","survey_name":"\u592a\u7530\u5ddd\u5df1\u6590\u4ed6\u5730\u8cea\u8abf\u67fb\u696d\u52d9","client_name":"\u56fd\u571f\u4ea4\u901a\u7701\u4e2d\u56fd\u5730\u65b9\u6574\u5099\u5c40\u592a\u7530\u5ddd\u6cb3\u5ddd\u4e8b\u52d9\u6240","boring_xml_url":50,"boring_view_url":1,"soilmap_view_url":null,"soiltest_xml_url":0,"soiltest_view_url":0},{"id":185342,"code":"B4KJ201801007-3591","latitude":"34.39222","longitude":"132.43125","source_code":"CG2009875300221-2450003","project_name":"\u516b\u5e61\u5ddd","survey_name":"\u592a\u7530\u5ddd\u5df1\u6590\u4ed6\u5730\u8cea\u8abf\u67fb\u696d\u52d9","client_name":"\u56fd\u571f\u4ea4\u901a\u7701\u4e2d\u56fd\u5730\u65b9\u6574\u5099\u5c40\u592a\u7530\u5ddd\u6cb3\u5ddd\u4e8b\u52d9\u6240","boring_xml_url":50,"boring_view_url":1,"soilmap_view_url":null,"soiltest_xml_url":0,"soiltest_view_url":0},{"id":185341,"code":"B4KJ201801007-3590","latitude":"34.39911","longitude":"132.43606","source_code":"CG2009875300221-2450002","project_name":"\u516b\u5e61\u5ddd","survey_name":"\u592a\u7530\u5ddd\u5df1\u6590\u4ed6\u5730\u8cea\u8abf\u67fb\u696d\u52d9","client_name":"\u56fd\u571f\u4ea4\u901a\u7701\u4e2d\u56fd\u5730\u65b9\u6574\u5099\u5c40\u592a\u7530\u5ddd\u6cb3\u5ddd\u4e8b\u52d9\u6240","boring_xml_url":50,"boring_view_url":1,"soilmap_view_url":null,"soiltest_xml_url":0,"soiltest_view_url":0},{"id":185340,"code":"B4KJ201801007-3589","latitude":"34.39919","longitude":"132.43614","source_code":"CG2009875300221-2450001","project_name":"\u516b\u5e61\u5ddd","survey_name":"\u592a\u7530\u5ddd\u5df1\u6590\u4ed6\u5730\u8cea\u8abf\u67fb\u696d\u52d9","client_name":"\u56fd\u571f\u4ea4\u901a\u7701\u4e2d\u56fd\u5730\u65b9\u6574\u5099\u5c40\u592a\u7530\u5ddd\u6cb3\u5ddd\u4e8b\u52d9\u6240","boring_xml_url":50,"boring_view_url":1,"soilmap_view_url":null,"soiltest_xml_url":0,"soiltest_view_url":0},{"id":185339,"code":"B4KJ201801007-3588","latitude":"34.487606","longitude":"132.449117","source_code":"CG2009875300221-2260018","project_name":"\u5e83\u5cf6\u897f\u90e8\u5c71\u7cfb\u7dd1\u30f6\u4e18\u5730\u533a\u5730\u8cea\u8abf\u67fb\u696d\u52d9","survey_name":"\u5e83\u5cf6\u897f\u90e8\u5c71\u7cfb\u7dd1\u30f6\u4e18\u5730\u533a\u5730\u8cea\u8abf\u67fb\u696d\u52d9","client_name":"\u56fd\u571f\u4ea4\u901a\u7701\u4e2d\u56fd\u5730\u65b9\u6574\u5099\u5c40\u592a\u7530\u5ddd\u6cb3\u5ddd\u4e8b\u52d9\u6240","boring_xml_url":50,"boring_view_url":1,"soilmap_view_url":null,"soiltest_xml_url":0,"soiltest_view_url":0},{"id":185338,"code":"B4KJ201801007-3587","latitude":"34.488022","longitude":"132.449128","source_code":"CG2009875300221-2260017","project_name":"\u5e83\u5cf6\u897f\u90e8\u5c71\u7cfb\u7dd1\u30f6\u4e18\u5730\u533a\u5730\u8cea\u8abf\u67fb\u696d\u52d9","survey_name":"\u5e83\u5cf6\u897f\u90e8\u5c71\u7cfb\u7dd1\u30f6\u4e18\u5730\u533a\u5730\u8cea\u8abf\u67fb\u696d\u52d9","client_name":"\u56fd\u571f\u4ea4\u901a\u7701\u4e2d\u56fd\u5730\u65b9\u6574\u5099\u5c40\u592a\u7530\u5ddd\u6cb3\u5ddd\u4e8b\u52d9\u6240","boring_xml_url":50,"boring_view_url":1,"soilmap_view_url":null,"soiltest_xml_url":0,"soiltest_view_url":0},{"id":185337,"code":"B4KJ201801007-3586","latitude":"34.487608","longitude":"132.448769","source_code":"CG2009875300221-2260016","project_name":"\u5e83\u5cf6\u897f\u90e8\u5c71\u7cfb\u7dd1\u30f6\u4e18\u5730\u533a\u5730\u8cea\u8abf\u67fb\u696d\u52d9","survey_name":"\u5e83\u5cf6\u897f\u90e8\u5c71\u7cfb\u7dd1\u30f6\u4e18\u5730\u533a\u5730\u8cea\u8abf\u67fb\u696d\u52d9","client_name":"\u56fd\u571f\u4ea4\u901a\u7701\u4e2d\u56fd\u5730\u65b9\u6574\u5099\u5c40\u592a\u7530\u5ddd\u6cb3\u5ddd\u4e8b\u52d9\u6240","boring_xml_url":50,"boring_view_url":1,"soilmap_view_url":null,"soiltest_xml_url":0,"soiltest_view_url":0},{"id":185336,"code":"B4KJ201801007-3585","latitude":"34.487747","longitude":"132.448967","source_code":"CG2009875300221-2260015","project_name":"\u5e83\u5cf6\u897f\u90e8\u5c71\u7cfb\u7dd1\u30f6\u4e18\u5730\u533a\u5730\u8cea\u8abf\u67fb\u696d\u52d9","survey_name":"\u5e83\u5cf6\u897f\u90e8\u5c71\u7cfb\u7dd1\u30f6\u4e18\u5730\u533a\u5730\u8cea\u8abf\u67fb\u696d\u52d9","client_name":"\u56fd\u571f\u4ea4\u901a\u7701\u4e2d\u56fd\u5730\u65b9\u6574\u5099\u5c40\u592a\u7530\u5ddd\u6cb3\u5ddd\u4e8b\u52d9\u6240","boring_xml_url":50,"boring_view_url":1,"soilmap_view_url":null,"soiltest_xml_url":0,"soiltest_view_url":0}]}}