{"header":{"xyz":{"source":[],"mosaic":false},"page":4508,"raw":{"soiltest_result":"0","bbox":"57.598333,109.544722,1.933333,163.806111","page":"4508"},"conditions":{"soiltest_result":0,"north":57.598333,"west":109.544722,"south":1.933333,"east":163.806111},"success":true,"message":""},"data":{"meta":{"total":212844,"page":4508,"pages":7095,"count":30},"values":[{"id":185335,"code":"B4KJ201801007-3584","latitude":"34.4871","longitude":"132.447256","source_code":"CG2009875300221-2260014","project_name":"\u5e83\u5cf6\u897f\u90e8\u5c71\u7cfb\u7dd1\u30f6\u4e18\u5730\u533a\u5730\u8cea\u8abf\u67fb\u696d\u52d9","survey_name":"\u5e83\u5cf6\u897f\u90e8\u5c71\u7cfb\u7dd1\u30f6\u4e18\u5730\u533a\u5730\u8cea\u8abf\u67fb\u696d\u52d9","client_name":"\u56fd\u571f\u4ea4\u901a\u7701\u4e2d\u56fd\u5730\u65b9\u6574\u5099\u5c40\u592a\u7530\u5ddd\u6cb3\u5ddd\u4e8b\u52d9\u6240","boring_xml_url":50,"boring_view_url":1,"soilmap_view_url":null,"soiltest_xml_url":0,"soiltest_view_url":0},{"id":185334,"code":"B4KJ201801007-3583","latitude":"34.487336","longitude":"132.447389","source_code":"CG2009875300221-2260013","project_name":"\u5e83\u5cf6\u897f\u90e8\u5c71\u7cfb\u7dd1\u30f6\u4e18\u5730\u533a\u5730\u8cea\u8abf\u67fb\u696d\u52d9","survey_name":"\u5e83\u5cf6\u897f\u90e8\u5c71\u7cfb\u7dd1\u30f6\u4e18\u5730\u533a\u5730\u8cea\u8abf\u67fb\u696d\u52d9","client_name":"\u56fd\u571f\u4ea4\u901a\u7701\u4e2d\u56fd\u5730\u65b9\u6574\u5099\u5c40\u592a\u7530\u5ddd\u6cb3\u5ddd\u4e8b\u52d9\u6240","boring_xml_url":50,"boring_view_url":1,"soilmap_view_url":null,"soiltest_xml_url":0,"soiltest_view_url":0},{"id":185333,"code":"B4KJ201801007-3582","latitude":"34.487183","longitude":"132.446922","source_code":"CG2009875300221-2260012","project_name":"\u5e83\u5cf6\u897f\u90e8\u5c71\u7cfb\u7dd1\u30f6\u4e18\u5730\u533a\u5730\u8cea\u8abf\u67fb\u696d\u52d9","survey_name":"\u5e83\u5cf6\u897f\u90e8\u5c71\u7cfb\u7dd1\u30f6\u4e18\u5730\u533a\u5730\u8cea\u8abf\u67fb\u696d\u52d9","client_name":"\u56fd\u571f\u4ea4\u901a\u7701\u4e2d\u56fd\u5730\u65b9\u6574\u5099\u5c40\u592a\u7530\u5ddd\u6cb3\u5ddd\u4e8b\u52d9\u6240","boring_xml_url":50,"boring_view_url":1,"soilmap_view_url":null,"soiltest_xml_url":0,"soiltest_view_url":0},{"id":185332,"code":"B4KJ201801007-3581","latitude":"34.487253","longitude":"132.447158","source_code":"CG2009875300221-2260011","project_name":"\u5e83\u5cf6\u897f\u90e8\u5c71\u7cfb\u7dd1\u30f6\u4e18\u5730\u533a\u5730\u8cea\u8abf\u67fb\u696d\u52d9","survey_name":"\u5e83\u5cf6\u897f\u90e8\u5c71\u7cfb\u7dd1\u30f6\u4e18\u5730\u533a\u5730\u8cea\u8abf\u67fb\u696d\u52d9","client_name":"\u56fd\u571f\u4ea4\u901a\u7701\u4e2d\u56fd\u5730\u65b9\u6574\u5099\u5c40\u592a\u7530\u5ddd\u6cb3\u5ddd\u4e8b\u52d9\u6240","boring_xml_url":50,"boring_view_url":1,"soilmap_view_url":null,"soiltest_xml_url":0,"soiltest_view_url":0},{"id":185331,"code":"B4KJ201801007-3580","latitude":"34.487128","longitude":"132.446303","source_code":"CG2009875300221-2260010","project_name":"\u5e83\u5cf6\u897f\u90e8\u5c71\u7cfb\u7dd1\u30f6\u4e18\u5730\u533a\u5730\u8cea\u8abf\u67fb\u696d\u52d9","survey_name":"\u5e83\u5cf6\u897f\u90e8\u5c71\u7cfb\u7dd1\u30f6\u4e18\u5730\u533a\u5730\u8cea\u8abf\u67fb\u696d\u52d9","client_name":"\u56fd\u571f\u4ea4\u901a\u7701\u4e2d\u56fd\u5730\u65b9\u6574\u5099\u5c40\u592a\u7530\u5ddd\u6cb3\u5ddd\u4e8b\u52d9\u6240","boring_xml_url":50,"boring_view_url":1,"soilmap_view_url":null,"soiltest_xml_url":0,"soiltest_view_url":0},{"id":185330,"code":"B4KJ201801007-3579","latitude":"34.486947","longitude":"132.446408","source_code":"CG2009875300221-2260009","project_name":"\u5e83\u5cf6\u897f\u90e8\u5c71\u7cfb\u7dd1\u30f6\u4e18\u5730\u533a\u5730\u8cea\u8abf\u67fb\u696d\u52d9","survey_name":"\u5e83\u5cf6\u897f\u90e8\u5c71\u7cfb\u7dd1\u30f6\u4e18\u5730\u533a\u5730\u8cea\u8abf\u67fb\u696d\u52d9","client_name":"\u56fd\u571f\u4ea4\u901a\u7701\u4e2d\u56fd\u5730\u65b9\u6574\u5099\u5c40\u592a\u7530\u5ddd\u6cb3\u5ddd\u4e8b\u52d9\u6240","boring_xml_url":50,"boring_view_url":1,"soilmap_view_url":null,"soiltest_xml_url":0,"soiltest_view_url":0},{"id":185329,"code":"B4KJ201801007-3578","latitude":"34.487142","longitude":"132.446539","source_code":"CG2009875300221-2260008","project_name":"\u5e83\u5cf6\u897f\u90e8\u5c71\u7cfb\u7dd1\u30f6\u4e18\u5730\u533a\u5730\u8cea\u8abf\u67fb\u696d\u52d9","survey_name":"\u5e83\u5cf6\u897f\u90e8\u5c71\u7cfb\u7dd1\u30f6\u4e18\u5730\u533a\u5730\u8cea\u8abf\u67fb\u696d\u52d9","client_name":"\u56fd\u571f\u4ea4\u901a\u7701\u4e2d\u56fd\u5730\u65b9\u6574\u5099\u5c40\u592a\u7530\u5ddd\u6cb3\u5ddd\u4e8b\u52d9\u6240","boring_xml_url":50,"boring_view_url":1,"soilmap_view_url":null,"soiltest_xml_url":0,"soiltest_view_url":0},{"id":185328,"code":"B4KJ201801007-3577","latitude":"34.487014","longitude":"132.446153","source_code":"CG2009875300221-2260007","project_name":"\u5e83\u5cf6\u897f\u90e8\u5c71\u7cfb\u7dd1\u30f6\u4e18\u5730\u533a\u5730\u8cea\u8abf\u67fb\u696d\u52d9","survey_name":"\u5e83\u5cf6\u897f\u90e8\u5c71\u7cfb\u7dd1\u30f6\u4e18\u5730\u533a\u5730\u8cea\u8abf\u67fb\u696d\u52d9","client_name":"\u56fd\u571f\u4ea4\u901a\u7701\u4e2d\u56fd\u5730\u65b9\u6574\u5099\u5c40\u592a\u7530\u5ddd\u6cb3\u5ddd\u4e8b\u52d9\u6240","boring_xml_url":50,"boring_view_url":1,"soilmap_view_url":null,"soiltest_xml_url":0,"soiltest_view_url":0},{"id":185327,"code":"B4KJ201801007-3576","latitude":"34.487081","longitude":"132.446358","source_code":"CG2009875300221-2260006","project_name":"\u5e83\u5cf6\u897f\u90e8\u5c71\u7cfb\u7dd1\u30f6\u4e18\u5730\u533a\u5730\u8cea\u8abf\u67fb\u696d\u52d9","survey_name":"\u5e83\u5cf6\u897f\u90e8\u5c71\u7cfb\u7dd1\u30f6\u4e18\u5730\u533a\u5730\u8cea\u8abf\u67fb\u696d\u52d9","client_name":"\u56fd\u571f\u4ea4\u901a\u7701\u4e2d\u56fd\u5730\u65b9\u6574\u5099\u5c40\u592a\u7530\u5ddd\u6cb3\u5ddd\u4e8b\u52d9\u6240","boring_xml_url":50,"boring_view_url":1,"soilmap_view_url":null,"soiltest_xml_url":0,"soiltest_view_url":0},{"id":185326,"code":"B4KJ201801007-3575","latitude":"34.486628","longitude":"132.445875","source_code":"CG2009875300221-2260005","project_name":"\u5e83\u5cf6\u897f\u90e8\u5c71\u7cfb\u7dd1\u30f6\u4e18\u5730\u533a\u5730\u8cea\u8abf\u67fb\u696d\u52d9","survey_name":"\u5e83\u5cf6\u897f\u90e8\u5c71\u7cfb\u7dd1\u30f6\u4e18\u5730\u533a\u5730\u8cea\u8abf\u67fb\u696d\u52d9","client_name":"\u56fd\u571f\u4ea4\u901a\u7701\u4e2d\u56fd\u5730\u65b9\u6574\u5099\u5c40\u592a\u7530\u5ddd\u6cb3\u5ddd\u4e8b\u52d9\u6240","boring_xml_url":50,"boring_view_url":1,"soilmap_view_url":null,"soiltest_xml_url":0,"soiltest_view_url":0},{"id":185325,"code":"B4KJ201801007-3574","latitude":"34.486411","longitude":"132.445906","source_code":"CG2009875300221-2260004","project_name":"\u5e83\u5cf6\u897f\u90e8\u5c71\u7cfb\u7dd1\u30f6\u4e18\u5730\u533a\u5730\u8cea\u8abf\u67fb\u696d\u52d9","survey_name":"\u5e83\u5cf6\u897f\u90e8\u5c71\u7cfb\u7dd1\u30f6\u4e18\u5730\u533a\u5730\u8cea\u8abf\u67fb\u696d\u52d9","client_name":"\u56fd\u571f\u4ea4\u901a\u7701\u4e2d\u56fd\u5730\u65b9\u6574\u5099\u5c40\u592a\u7530\u5ddd\u6cb3\u5ddd\u4e8b\u52d9\u6240","boring_xml_url":50,"boring_view_url":1,"soilmap_view_url":null,"soiltest_xml_url":0,"soiltest_view_url":0},{"id":185324,"code":"B4KJ201801007-3573","latitude":"34.486608","longitude":"132.446081","source_code":"CG2009875300221-2260003","project_name":"\u5e83\u5cf6\u897f\u90e8\u5c71\u7cfb\u7dd1\u30f6\u4e18\u5730\u533a\u5730\u8cea\u8abf\u67fb\u696d\u52d9","survey_name":"\u5e83\u5cf6\u897f\u90e8\u5c71\u7cfb\u7dd1\u30f6\u4e18\u5730\u533a\u5730\u8cea\u8abf\u67fb\u696d\u52d9","client_name":"\u56fd\u571f\u4ea4\u901a\u7701\u4e2d\u56fd\u5730\u65b9\u6574\u5099\u5c40\u592a\u7530\u5ddd\u6cb3\u5ddd\u4e8b\u52d9\u6240","boring_xml_url":50,"boring_view_url":1,"soilmap_view_url":null,"soiltest_xml_url":0,"soiltest_view_url":0},{"id":185323,"code":"B4KJ201801007-3572","latitude":"34.486728","longitude":"132.445683","source_code":"CG2009875300221-2260002","project_name":"\u5e83\u5cf6\u897f\u90e8\u5c71\u7cfb\u7dd1\u30f6\u4e18\u5730\u533a\u5730\u8cea\u8abf\u67fb\u696d\u52d9","survey_name":"\u5e83\u5cf6\u897f\u90e8\u5c71\u7cfb\u7dd1\u30f6\u4e18\u5730\u533a\u5730\u8cea\u8abf\u67fb\u696d\u52d9","client_name":"\u56fd\u571f\u4ea4\u901a\u7701\u4e2d\u56fd\u5730\u65b9\u6574\u5099\u5c40\u592a\u7530\u5ddd\u6cb3\u5ddd\u4e8b\u52d9\u6240","boring_xml_url":50,"boring_view_url":1,"soilmap_view_url":null,"soiltest_xml_url":0,"soiltest_view_url":0},{"id":185322,"code":"B4KJ201801007-3571","latitude":"34.486558","longitude":"132.445875","source_code":"CG2009875300221-2260001","project_name":"\u5e83\u5cf6\u897f\u90e8\u5c71\u7cfb\u7dd1\u30f6\u4e18\u5730\u533a\u5730\u8cea\u8abf\u67fb\u696d\u52d9","survey_name":"\u5e83\u5cf6\u897f\u90e8\u5c71\u7cfb\u7dd1\u30f6\u4e18\u5730\u533a\u5730\u8cea\u8abf\u67fb\u696d\u52d9","client_name":"\u56fd\u571f\u4ea4\u901a\u7701\u4e2d\u56fd\u5730\u65b9\u6574\u5099\u5c40\u592a\u7530\u5ddd\u6cb3\u5ddd\u4e8b\u52d9\u6240","boring_xml_url":50,"boring_view_url":1,"soilmap_view_url":null,"soiltest_xml_url":0,"soiltest_view_url":0},{"id":185321,"code":"B4KJ201801007-3570","latitude":"34.46788875","longitude":"132.4515892","source_code":"CG2009875300221-2250029","project_name":"","survey_name":"\u5e83\u5cf6\u897f\u90e8\u5c71\u7cfb \u6b66\u7530\u5c71\u5730\u533a\u5730\u8cea\u8abf\u67fb\u696d\u52d9","client_name":"\u56fd\u571f\u4ea4\u901a\u7701\u4e2d\u56fd\u5730\u65b9\u6574\u5099\u5c40\u592a\u7530\u5ddd\u6cb3\u5ddd\u4e8b\u52d9\u6240","boring_xml_url":50,"boring_view_url":1,"soilmap_view_url":null,"soiltest_xml_url":0,"soiltest_view_url":0},{"id":185320,"code":"B4KJ201801007-3569","latitude":"34.46791372","longitude":"132.4513169","source_code":"CG2009875300221-2250028","project_name":"","survey_name":"\u5e83\u5cf6\u897f\u90e8\u5c71\u7cfb \u6b66\u7530\u5c71\u5730\u533a\u5730\u8cea\u8abf\u67fb\u696d\u52d9","client_name":"\u56fd\u571f\u4ea4\u901a\u7701\u4e2d\u56fd\u5730\u65b9\u6574\u5099\u5c40\u592a\u7530\u5ddd\u6cb3\u5ddd\u4e8b\u52d9\u6240","boring_xml_url":50,"boring_view_url":1,"soilmap_view_url":null,"soiltest_xml_url":0,"soiltest_view_url":0},{"id":185319,"code":"B4KJ201801007-3568","latitude":"34.46773319","longitude":"132.4516086","source_code":"CG2009875300221-2250027","project_name":"","survey_name":"\u5e83\u5cf6\u897f\u90e8\u5c71\u7cfb \u6b66\u7530\u5c71\u5730\u533a\u5730\u8cea\u8abf\u67fb\u696d\u52d9","client_name":"\u56fd\u571f\u4ea4\u901a\u7701\u4e2d\u56fd\u5730\u65b9\u6574\u5099\u5c40\u592a\u7530\u5ddd\u6cb3\u5ddd\u4e8b\u52d9\u6240","boring_xml_url":50,"boring_view_url":1,"soilmap_view_url":null,"soiltest_xml_url":0,"soiltest_view_url":0},{"id":185318,"code":"B4KJ201801007-3567","latitude":"34.46804428","longitude":"132.4516586","source_code":"CG2009875300221-2250026","project_name":"","survey_name":"\u5e83\u5cf6\u897f\u90e8\u5c71\u7cfb \u6b66\u7530\u5c71\u5730\u533a\u5730\u8cea\u8abf\u67fb\u696d\u52d9","client_name":"\u56fd\u571f\u4ea4\u901a\u7701\u4e2d\u56fd\u5730\u65b9\u6574\u5099\u5c40\u592a\u7530\u5ddd\u6cb3\u5ddd\u4e8b\u52d9\u6240","boring_xml_url":50,"boring_view_url":1,"soilmap_view_url":null,"soiltest_xml_url":0,"soiltest_view_url":0},{"id":185317,"code":"B4KJ201801007-3566","latitude":"34.46790542","longitude":"132.4514225","source_code":"CG2009875300221-2250025","project_name":"","survey_name":"\u5e83\u5cf6\u897f\u90e8\u5c71\u7cfb \u6b66\u7530\u5c71\u5730\u533a\u5730\u8cea\u8abf\u67fb\u696d\u52d9","client_name":"\u56fd\u571f\u4ea4\u901a\u7701\u4e2d\u56fd\u5730\u65b9\u6574\u5099\u5c40\u592a\u7530\u5ddd\u6cb3\u5ddd\u4e8b\u52d9\u6240","boring_xml_url":50,"boring_view_url":1,"soilmap_view_url":null,"soiltest_xml_url":0,"soiltest_view_url":0},{"id":185316,"code":"B4KJ201801007-3565","latitude":"34.46517231","longitude":"132.4491783","source_code":"CG2009875300221-2250024","project_name":"","survey_name":"\u5e83\u5cf6\u897f\u90e8\u5c71\u7cfb \u6b66\u7530\u5c71\u5730\u533a\u5730\u8cea\u8abf\u67fb\u696d\u52d9","client_name":"\u56fd\u571f\u4ea4\u901a\u7701\u4e2d\u56fd\u5730\u65b9\u6574\u5099\u5c40\u592a\u7530\u5ddd\u6cb3\u5ddd\u4e8b\u52d9\u6240","boring_xml_url":50,"boring_view_url":1,"soilmap_view_url":null,"soiltest_xml_url":0,"soiltest_view_url":0},{"id":185315,"code":"B4KJ201801007-3564","latitude":"34.46529728","longitude":"132.4494478","source_code":"CG2009875300221-2250023","project_name":"","survey_name":"\u5e83\u5cf6\u897f\u90e8\u5c71\u7cfb \u6b66\u7530\u5c71\u5730\u533a\u5730\u8cea\u8abf\u67fb\u696d\u52d9","client_name":"\u56fd\u571f\u4ea4\u901a\u7701\u4e2d\u56fd\u5730\u65b9\u6574\u5099\u5c40\u592a\u7530\u5ddd\u6cb3\u5ddd\u4e8b\u52d9\u6240","boring_xml_url":50,"boring_view_url":1,"soilmap_view_url":null,"soiltest_xml_url":0,"soiltest_view_url":0},{"id":185314,"code":"B4KJ201801007-3563","latitude":"34.46480844","longitude":"132.4489533","source_code":"CG2009875300221-2250022","project_name":"","survey_name":"\u5e83\u5cf6\u897f\u90e8\u5c71\u7cfb \u6b66\u7530\u5c71\u5730\u533a\u5730\u8cea\u8abf\u67fb\u696d\u52d9","client_name":"\u56fd\u571f\u4ea4\u901a\u7701\u4e2d\u56fd\u5730\u65b9\u6574\u5099\u5c40\u592a\u7530\u5ddd\u6cb3\u5ddd\u4e8b\u52d9\u6240","boring_xml_url":50,"boring_view_url":1,"soilmap_view_url":null,"soiltest_xml_url":0,"soiltest_view_url":0},{"id":185313,"code":"B4KJ201801007-3562","latitude":"34.46503897","longitude":"132.4490367","source_code":"CG2009875300221-2250021","project_name":"","survey_name":"\u5e83\u5cf6\u897f\u90e8\u5c71\u7cfb \u6b66\u7530\u5c71\u5730\u533a\u5730\u8cea\u8abf\u67fb\u696d\u52d9","client_name":"\u56fd\u571f\u4ea4\u901a\u7701\u4e2d\u56fd\u5730\u65b9\u6574\u5099\u5c40\u592a\u7530\u5ddd\u6cb3\u5ddd\u4e8b\u52d9\u6240","boring_xml_url":50,"boring_view_url":1,"soilmap_view_url":null,"soiltest_xml_url":0,"soiltest_view_url":0},{"id":185312,"code":"B4KJ201801007-3561","latitude":"34.46493619","longitude":"132.4487283","source_code":"CG2009875300221-2250020","project_name":"","survey_name":"\u5e83\u5cf6\u897f\u90e8\u5c71\u7cfb \u6b66\u7530\u5c71\u5730\u533a\u5730\u8cea\u8abf\u67fb\u696d\u52d9","client_name":"\u56fd\u571f\u4ea4\u901a\u7701\u4e2d\u56fd\u5730\u65b9\u6574\u5099\u5c40\u592a\u7530\u5ddd\u6cb3\u5ddd\u4e8b\u52d9\u6240","boring_xml_url":50,"boring_view_url":1,"soilmap_view_url":null,"soiltest_xml_url":0,"soiltest_view_url":0},{"id":185311,"code":"B4KJ201801007-3560","latitude":"34.46476678","longitude":"132.4492756","source_code":"CG2009875300221-2250019","project_name":"","survey_name":"\u5e83\u5cf6\u897f\u90e8\u5c71\u7cfb \u6b66\u7530\u5c71\u5730\u533a\u5730\u8cea\u8abf\u67fb\u696d\u52d9","client_name":"\u56fd\u571f\u4ea4\u901a\u7701\u4e2d\u56fd\u5730\u65b9\u6574\u5099\u5c40\u592a\u7530\u5ddd\u6cb3\u5ddd\u4e8b\u52d9\u6240","boring_xml_url":50,"boring_view_url":1,"soilmap_view_url":null,"soiltest_xml_url":0,"soiltest_view_url":0},{"id":185310,"code":"B4KJ201801007-3559","latitude":"34.46487508","longitude":"132.4489756","source_code":"CG2009875300221-2250018","project_name":"","survey_name":"\u5e83\u5cf6\u897f\u90e8\u5c71\u7cfb \u6b66\u7530\u5c71\u5730\u533a\u5730\u8cea\u8abf\u67fb\u696d\u52d9","client_name":"\u56fd\u571f\u4ea4\u901a\u7701\u4e2d\u56fd\u5730\u65b9\u6574\u5099\u5c40\u592a\u7530\u5ddd\u6cb3\u5ddd\u4e8b\u52d9\u6240","boring_xml_url":50,"boring_view_url":1,"soilmap_view_url":null,"soiltest_xml_url":0,"soiltest_view_url":0},{"id":185309,"code":"B4KJ201801007-3558","latitude":"34.46510286","longitude":"132.4497089","source_code":"CG2009875300221-2250017","project_name":"","survey_name":"\u5e83\u5cf6\u897f\u90e8\u5c71\u7cfb \u6b66\u7530\u5c71\u5730\u533a\u5730\u8cea\u8abf\u67fb\u696d\u52d9","client_name":"\u56fd\u571f\u4ea4\u901a\u7701\u4e2d\u56fd\u5730\u65b9\u6574\u5099\u5c40\u592a\u7530\u5ddd\u6cb3\u5ddd\u4e8b\u52d9\u6240","boring_xml_url":50,"boring_view_url":1,"soilmap_view_url":null,"soiltest_xml_url":0,"soiltest_view_url":0},{"id":185308,"code":"B4KJ201801007-3557","latitude":"34.46495567","longitude":"132.449595","source_code":"CG2009875300221-2250016","project_name":"","survey_name":"\u5e83\u5cf6\u897f\u90e8\u5c71\u7cfb \u6b66\u7530\u5c71\u5730\u533a\u5730\u8cea\u8abf\u67fb\u696d\u52d9","client_name":"\u56fd\u571f\u4ea4\u901a\u7701\u4e2d\u56fd\u5730\u65b9\u6574\u5099\u5c40\u592a\u7530\u5ddd\u6cb3\u5ddd\u4e8b\u52d9\u6240","boring_xml_url":50,"boring_view_url":1,"soilmap_view_url":null,"soiltest_xml_url":0,"soiltest_view_url":0},{"id":185307,"code":"B4KJ201801007-3556","latitude":"34.46500289","longitude":"132.4498922","source_code":"CG2009875300221-2250015","project_name":"","survey_name":"\u5e83\u5cf6\u897f\u90e8\u5c71\u7cfb \u6b66\u7530\u5c71\u5730\u533a\u5730\u8cea\u8abf\u67fb\u696d\u52d9","client_name":"\u56fd\u571f\u4ea4\u901a\u7701\u4e2d\u56fd\u5730\u65b9\u6574\u5099\u5c40\u592a\u7530\u5ddd\u6cb3\u5ddd\u4e8b\u52d9\u6240","boring_xml_url":50,"boring_view_url":1,"soilmap_view_url":null,"soiltest_xml_url":0,"soiltest_view_url":0},{"id":185306,"code":"B4KJ201801007-3555","latitude":"34.46497789","longitude":"132.4497367","source_code":"CG2009875300221-2250014","project_name":"","survey_name":"\u5e83\u5cf6\u897f\u90e8\u5c71\u7cfb \u6b66\u7530\u5c71\u5730\u533a\u5730\u8cea\u8abf\u67fb\u696d\u52d9","client_name":"\u56fd\u571f\u4ea4\u901a\u7701\u4e2d\u56fd\u5730\u65b9\u6574\u5099\u5c40\u592a\u7530\u5ddd\u6cb3\u5ddd\u4e8b\u52d9\u6240","boring_xml_url":50,"boring_view_url":1,"soilmap_view_url":null,"soiltest_xml_url":0,"soiltest_view_url":0}]}}