{"header":{"xyz":{"source":[],"mosaic":false},"page":4527,"raw":{"soiltest_result":"0","bbox":"57.598333,109.544722,1.933333,163.806111","page":"4527"},"conditions":{"soiltest_result":0,"north":57.598333,"west":109.544722,"south":1.933333,"east":163.806111},"success":true,"message":""},"data":{"meta":{"total":212844,"page":4527,"pages":7095,"count":30},"values":[{"id":184765,"code":"B4KJ201801007-3014","latitude":"34.84442","longitude":"133.01","source_code":"CG048787600200130005","project_name":"\u56fd\u55b6\u5099\u5317\u4e18\u9675\u516c\u5712","survey_name":"\u5317\u5165\u53e3\u7b49\u5730\u8cea\u8abf\u67fb\u696d\u52d9","client_name":"\u56fd\u571f\u4ea4\u901a\u7701\u4e2d\u56fd\u5730\u65b9\u6574\u5099\u5c40\u56fd\u55b6\u5099\u5317\u4e18\u9675\u516c\u5712\u4e8b\u52d9\u6240","boring_xml_url":47,"boring_view_url":1,"soilmap_view_url":null,"soiltest_xml_url":0,"soiltest_view_url":0},{"id":184764,"code":"B4KJ201801007-3013","latitude":"34.84503","longitude":"133.00956","source_code":"CG048787600200130004","project_name":"\u56fd\u55b6\u5099\u5317\u4e18\u9675\u516c\u5712","survey_name":"\u5317\u5165\u53e3\u7b49\u5730\u8cea\u8abf\u67fb\u696d\u52d9","client_name":"\u56fd\u571f\u4ea4\u901a\u7701\u4e2d\u56fd\u5730\u65b9\u6574\u5099\u5c40\u56fd\u55b6\u5099\u5317\u4e18\u9675\u516c\u5712\u4e8b\u52d9\u6240","boring_xml_url":47,"boring_view_url":1,"soilmap_view_url":null,"soiltest_xml_url":0,"soiltest_view_url":0},{"id":184763,"code":"B4KJ201801007-3012","latitude":"34.84508","longitude":"133.00872","source_code":"CG048787600200130003","project_name":"\u56fd\u55b6\u5099\u5317\u4e18\u9675\u516c\u5712","survey_name":"\u5317\u5165\u53e3\u7b49\u5730\u8cea\u8abf\u67fb\u696d\u52d9","client_name":"\u56fd\u571f\u4ea4\u901a\u7701\u4e2d\u56fd\u5730\u65b9\u6574\u5099\u5c40\u56fd\u55b6\u5099\u5317\u4e18\u9675\u516c\u5712\u4e8b\u52d9\u6240","boring_xml_url":47,"boring_view_url":1,"soilmap_view_url":null,"soiltest_xml_url":0,"soiltest_view_url":0},{"id":184762,"code":"B4KJ201801007-3011","latitude":"34.84475","longitude":"133.01042","source_code":"CG048787600200130002","project_name":"\u56fd\u55b6\u5099\u5317\u4e18\u9675\u516c\u5712","survey_name":"\u5317\u5165\u53e3\u7b49\u5730\u8cea\u8abf\u67fb\u696d\u52d9","client_name":"\u56fd\u571f\u4ea4\u901a\u7701\u4e2d\u56fd\u5730\u65b9\u6574\u5099\u5c40\u56fd\u55b6\u5099\u5317\u4e18\u9675\u516c\u5712\u4e8b\u52d9\u6240","boring_xml_url":47,"boring_view_url":1,"soilmap_view_url":null,"soiltest_xml_url":0,"soiltest_view_url":0},{"id":184761,"code":"B4KJ201801007-3010","latitude":"34.84453","longitude":"133.01053","source_code":"CG048787600200130001","project_name":"\u56fd\u55b6\u5099\u5317\u4e18\u9675\u516c\u5712","survey_name":"\u5317\u5165\u53e3\u7b49\u5730\u8cea\u8abf\u67fb\u696d\u52d9","client_name":"\u56fd\u571f\u4ea4\u901a\u7701\u4e2d\u56fd\u5730\u65b9\u6574\u5099\u5c40\u56fd\u55b6\u5099\u5317\u4e18\u9675\u516c\u5712\u4e8b\u52d9\u6240","boring_xml_url":47,"boring_view_url":1,"soilmap_view_url":null,"soiltest_xml_url":0,"soiltest_view_url":0},{"id":184760,"code":"B4KJ201801007-3009","latitude":"34.07664","longitude":"131.68308","source_code":"CG048760620200210007","project_name":"\u6238\u7530\u5730\u533a\u5916\u5730\u8cea\u8abf\u67fb\u696d\u52d9","survey_name":"\u6238\u7530\u5730\u533a\u5916\u5730\u8cea\u8abf\u67fb\u696d\u52d9","client_name":"\u56fd\u571f\u4ea4\u901a\u7701\u4e2d\u56fd\u5730\u65b9\u6574\u5099\u5c40\u5c71\u53e3\u6cb3\u5ddd\u56fd\u9053\u4e8b\u52d9\u6240","boring_xml_url":47,"boring_view_url":1,"soilmap_view_url":null,"soiltest_xml_url":0,"soiltest_view_url":0},{"id":184759,"code":"B4KJ201801007-3008","latitude":"33.9604908","longitude":"131.2330639","source_code":"CG048760620200170005","project_name":"","survey_name":"\u5b87\u90e8\u5730\u533a\u5730\u8cea\u8abf\u67fb\u696d\u52d9","client_name":"\u56fd\u571f\u4ea4\u901a\u7701\u4e2d\u56fd\u5730\u65b9\u6574\u5099\u5c40\u5c71\u53e3\u6cb3\u5ddd\u56fd\u9053\u4e8b\u52d9\u6240","boring_xml_url":47,"boring_view_url":1,"soilmap_view_url":null,"soiltest_xml_url":48,"soiltest_view_url":48},{"id":184758,"code":"B4KJ201801007-3007","latitude":"33.9602989","longitude":"131.2333542","source_code":"CG048760620200170004","project_name":"","survey_name":"\u5b87\u90e8\u5730\u533a\u5730\u8cea\u8abf\u67fb\u696d\u52d9","client_name":"\u56fd\u571f\u4ea4\u901a\u7701\u4e2d\u56fd\u5730\u65b9\u6574\u5099\u5c40\u5c71\u53e3\u6cb3\u5ddd\u56fd\u9053\u4e8b\u52d9\u6240","boring_xml_url":47,"boring_view_url":1,"soilmap_view_url":null,"soiltest_xml_url":48,"soiltest_view_url":48},{"id":184757,"code":"B4KJ201801007-3006","latitude":"33.9603581","longitude":"131.2329139","source_code":"CG048760620200170003","project_name":"","survey_name":"\u5b87\u90e8\u5730\u533a\u5730\u8cea\u8abf\u67fb\u696d\u52d9","client_name":"\u56fd\u571f\u4ea4\u901a\u7701\u4e2d\u56fd\u5730\u65b9\u6574\u5099\u5c40\u5c71\u53e3\u6cb3\u5ddd\u56fd\u9053\u4e8b\u52d9\u6240","boring_xml_url":47,"boring_view_url":1,"soilmap_view_url":null,"soiltest_xml_url":48,"soiltest_view_url":48},{"id":184756,"code":"B4KJ201801007-3005","latitude":"33.9601317","longitude":"131.2331606","source_code":"CG048760620200170002","project_name":"","survey_name":"\u5b87\u90e8\u5730\u533a\u5730\u8cea\u8abf\u67fb\u696d\u52d9","client_name":"\u56fd\u571f\u4ea4\u901a\u7701\u4e2d\u56fd\u5730\u65b9\u6574\u5099\u5c40\u5c71\u53e3\u6cb3\u5ddd\u56fd\u9053\u4e8b\u52d9\u6240","boring_xml_url":47,"boring_view_url":1,"soilmap_view_url":null,"soiltest_xml_url":48,"soiltest_view_url":48},{"id":184755,"code":"B4KJ201801007-3004","latitude":"33.9599036","longitude":"131.2334028","source_code":"CG048760620200170001","project_name":"","survey_name":"\u5b87\u90e8\u5730\u533a\u5730\u8cea\u8abf\u67fb\u696d\u52d9","client_name":"\u56fd\u571f\u4ea4\u901a\u7701\u4e2d\u56fd\u5730\u65b9\u6574\u5099\u5c40\u5c71\u53e3\u6cb3\u5ddd\u56fd\u9053\u4e8b\u52d9\u6240","boring_xml_url":47,"boring_view_url":1,"soilmap_view_url":null,"soiltest_xml_url":48,"soiltest_view_url":48},{"id":184754,"code":"B4KJ201801007-3003","latitude":"34.3776303","longitude":"131.3020092","source_code":"CG048760400200250007","project_name":"\u8429\u30fb\u4e09\u9685\u9053\u8def","survey_name":"\u8429\u30fb\u4e09\u9685\u5730\u533a\u5730\u8cea\u8abf\u67fb\u696d\u52d9","client_name":"\u56fd\u571f\u4ea4\u901a\u7701\u4e2d\u56fd\u5730\u65b9\u6574\u5099\u5c40\u5c71\u53e3\u6cb3\u5ddd\u56fd\u9053\u4e8b\u52d9\u6240","boring_xml_url":47,"boring_view_url":1,"soilmap_view_url":null,"soiltest_xml_url":0,"soiltest_view_url":0},{"id":184753,"code":"B4KJ201801007-3002","latitude":"34.38013","longitude":"131.2986761","source_code":"CG048760400200250006","project_name":"\u8429\u30fb\u4e09\u9685\u9053\u8def","survey_name":"\u8429\u30fb\u4e09\u9685\u5730\u533a\u5730\u8cea\u8abf\u67fb\u696d\u52d9","client_name":"\u56fd\u571f\u4ea4\u901a\u7701\u4e2d\u56fd\u5730\u65b9\u6574\u5099\u5c40\u5c71\u53e3\u6cb3\u5ddd\u56fd\u9053\u4e8b\u52d9\u6240","boring_xml_url":47,"boring_view_url":1,"soilmap_view_url":null,"soiltest_xml_url":0,"soiltest_view_url":0},{"id":184752,"code":"B4KJ201801007-3001","latitude":"34.3806853","longitude":"131.2992314","source_code":"CG048760400200250005","project_name":"\u8429\u30fb\u4e09\u9685\u9053\u8def","survey_name":"\u8429\u30fb\u4e09\u9685\u5730\u533a\u5730\u8cea\u8abf\u67fb\u696d\u52d9","client_name":"\u56fd\u571f\u4ea4\u901a\u7701\u4e2d\u56fd\u5730\u65b9\u6574\u5099\u5c40\u5c71\u53e3\u6cb3\u5ddd\u56fd\u9053\u4e8b\u52d9\u6240","boring_xml_url":47,"boring_view_url":1,"soilmap_view_url":null,"soiltest_xml_url":0,"soiltest_view_url":0},{"id":184751,"code":"B4KJ201801007-3000","latitude":"34.3809631","longitude":"131.2978428","source_code":"CG048760400200250004","project_name":"\u8429\u30fb\u4e09\u9685\u9053\u8def","survey_name":"\u8429\u30fb\u4e09\u9685\u5730\u533a\u5730\u8cea\u8abf\u67fb\u696d\u52d9","client_name":"\u56fd\u571f\u4ea4\u901a\u7701\u4e2d\u56fd\u5730\u65b9\u6574\u5099\u5c40\u5c71\u53e3\u6cb3\u5ddd\u56fd\u9053\u4e8b\u52d9\u6240","boring_xml_url":47,"boring_view_url":1,"soilmap_view_url":null,"soiltest_xml_url":0,"soiltest_view_url":0},{"id":184750,"code":"B4KJ201801007-2999","latitude":"34.365964","longitude":"131.253403","source_code":"CG048760400200250002","project_name":"\u8429\u30fb\u4e09\u9685\u9053\u8def","survey_name":"\u8429\u30fb\u4e09\u9685\u5730\u533a\u5730\u8cea\u8abf\u67fb\u696d\u52d9","client_name":"\u56fd\u571f\u4ea4\u901a\u7701\u4e2d\u56fd\u5730\u65b9\u6574\u5099\u5c40\u5c71\u53e3\u6cb3\u5ddd\u56fd\u9053\u4e8b\u52d9\u6240","boring_xml_url":47,"boring_view_url":1,"soilmap_view_url":null,"soiltest_xml_url":0,"soiltest_view_url":0},{"id":184749,"code":"B4KJ201801007-2998","latitude":"34.365686","longitude":"131.253125","source_code":"CG048760400200250001","project_name":"\u8429\u30fb\u4e09\u9685\u9053\u8def","survey_name":"\u8429\u30fb\u4e09\u9685\u5730\u533a\u5730\u8cea\u8abf\u67fb\u696d\u52d9","client_name":"\u56fd\u571f\u4ea4\u901a\u7701\u4e2d\u56fd\u5730\u65b9\u6574\u5099\u5c40\u5c71\u53e3\u6cb3\u5ddd\u56fd\u9053\u4e8b\u52d9\u6240","boring_xml_url":47,"boring_view_url":1,"soilmap_view_url":null,"soiltest_xml_url":0,"soiltest_view_url":0},{"id":184748,"code":"B4KJ201801007-2997","latitude":"34.3656","longitude":"132.7311","source_code":"CG048755620200530022","project_name":"\u6771\u5e83\u5cf6\u30fb\u5449\u9053\u8def(\u6962\u539f\u5730\u533a)\u5730\u8cea\u8abf\u67fb\u696d\u52d9","survey_name":"\u6771\u5e83\u5cf6\u30fb\u5449\u9053\u8def(\u6962\u539f\u5730\u533a)\u5730\u8cea\u8abf\u67fb\u696d\u52d9","client_name":"\u56fd\u571f\u4ea4\u901a\u7701\u4e2d\u56fd\u5730\u65b9\u6574\u5099\u5c40\u5e83\u5cf6\u56fd\u9053\u4e8b\u52d9\u6240","boring_xml_url":47,"boring_view_url":1,"soilmap_view_url":null,"soiltest_xml_url":0,"soiltest_view_url":0},{"id":184747,"code":"B4KJ201801007-2996","latitude":"34.3658","longitude":"132.7308","source_code":"CG048755620200530021","project_name":"\u6771\u5e83\u5cf6\u30fb\u5449\u9053\u8def(\u6962\u539f\u5730\u533a)\u5730\u8cea\u8abf\u67fb\u696d\u52d9","survey_name":"\u6771\u5e83\u5cf6\u30fb\u5449\u9053\u8def(\u6962\u539f\u5730\u533a)\u5730\u8cea\u8abf\u67fb\u696d\u52d9","client_name":"\u56fd\u571f\u4ea4\u901a\u7701\u4e2d\u56fd\u5730\u65b9\u6574\u5099\u5c40\u5e83\u5cf6\u56fd\u9053\u4e8b\u52d9\u6240","boring_xml_url":47,"boring_view_url":1,"soilmap_view_url":null,"soiltest_xml_url":0,"soiltest_view_url":0},{"id":184746,"code":"B4KJ201801007-2995","latitude":"34.3658","longitude":"132.7317","source_code":"CG048755620200530020","project_name":"\u6771\u5e83\u5cf6\u30fb\u5449\u9053\u8def(\u6962\u539f\u5730\u533a)\u5730\u8cea\u8abf\u67fb\u696d\u52d9","survey_name":"\u6771\u5e83\u5cf6\u30fb\u5449\u9053\u8def(\u6962\u539f\u5730\u533a)\u5730\u8cea\u8abf\u67fb\u696d\u52d9","client_name":"\u56fd\u571f\u4ea4\u901a\u7701\u4e2d\u56fd\u5730\u65b9\u6574\u5099\u5c40\u5e83\u5cf6\u56fd\u9053\u4e8b\u52d9\u6240","boring_xml_url":47,"boring_view_url":1,"soilmap_view_url":null,"soiltest_xml_url":0,"soiltest_view_url":0},{"id":184745,"code":"B4KJ201801007-2994","latitude":"34.28322","longitude":"132.62933","source_code":"CG048755620200330021","project_name":"\u6771\u5e83\u5cf6\u30fb\u5449\u9053\u8def\u5916\u5730\u8cea\u8abf\u67fb\u696d\u52d9","survey_name":"\u6771\u5e83\u5cf6\u30fb\u5449\u9053\u8def\u5916\u5730\u8cea\u8abf\u67fb\u696d\u52d9","client_name":"\u56fd\u571f\u4ea4\u901a\u7701\u4e2d\u56fd\u5730\u65b9\u6574\u5099\u5c40\u5e83\u5cf6\u56fd\u9053\u4e8b\u52d9\u6240","boring_xml_url":47,"boring_view_url":1,"soilmap_view_url":null,"soiltest_xml_url":0,"soiltest_view_url":0},{"id":184744,"code":"B4KJ201801007-2993","latitude":"34.283","longitude":"132.62933","source_code":"CG048755620200330020","project_name":"\u6771\u5e83\u5cf6\u30fb\u5449\u9053\u8def\u5916\u5730\u8cea\u8abf\u67fb\u696d\u52d9","survey_name":"\u6771\u5e83\u5cf6\u30fb\u5449\u9053\u8def\u5916\u5730\u8cea\u8abf\u67fb\u696d\u52d9","client_name":"\u56fd\u571f\u4ea4\u901a\u7701\u4e2d\u56fd\u5730\u65b9\u6574\u5099\u5c40\u5e83\u5cf6\u56fd\u9053\u4e8b\u52d9\u6240","boring_xml_url":47,"boring_view_url":1,"soilmap_view_url":null,"soiltest_xml_url":0,"soiltest_view_url":0},{"id":184743,"code":"B4KJ201801007-2992","latitude":"34.32664","longitude":"132.82314","source_code":"CG048755620200330019","project_name":"\u6771\u5e83\u5cf6\u30fb\u5449\u9053\u8def\u5916\u5730\u8cea\u8abf\u67fb\u696d\u52d9","survey_name":"\u6771\u5e83\u5cf6\u30fb\u5449\u9053\u8def\u5916\u5730\u8cea\u8abf\u67fb\u696d\u52d9","client_name":"\u56fd\u571f\u4ea4\u901a\u7701\u4e2d\u56fd\u5730\u65b9\u6574\u5099\u5c40\u5e83\u5cf6\u56fd\u9053\u4e8b\u52d9\u6240","boring_xml_url":47,"boring_view_url":1,"soilmap_view_url":null,"soiltest_xml_url":0,"soiltest_view_url":0},{"id":184742,"code":"B4KJ201801007-2991","latitude":"34.32664","longitude":"132.82281","source_code":"CG048755620200330018","project_name":"\u6771\u5e83\u5cf6\u30fb\u5449\u9053\u8def\u5916\u5730\u8cea\u8abf\u67fb\u696d\u52d9","survey_name":"\u6771\u5e83\u5cf6\u30fb\u5449\u9053\u8def\u5916\u5730\u8cea\u8abf\u67fb\u696d\u52d9","client_name":"\u56fd\u571f\u4ea4\u901a\u7701\u4e2d\u56fd\u5730\u65b9\u6574\u5099\u5c40\u5e83\u5cf6\u56fd\u9053\u4e8b\u52d9\u6240","boring_xml_url":47,"boring_view_url":1,"soilmap_view_url":null,"soiltest_xml_url":0,"soiltest_view_url":0},{"id":184741,"code":"B4KJ201801007-2990","latitude":"34.27811","longitude":"132.63233","source_code":"CG048755620200330015","project_name":"\u6771\u5e83\u5cf6\u30fb\u5449\u9053\u8def\u5916\u5730\u8cea\u8abf\u67fb\u696d\u52d9","survey_name":"\u6771\u5e83\u5cf6\u30fb\u5449\u9053\u8def\u5916\u5730\u8cea\u8abf\u67fb\u696d\u52d9","client_name":"\u56fd\u571f\u4ea4\u901a\u7701\u4e2d\u56fd\u5730\u65b9\u6574\u5099\u5c40\u5e83\u5cf6\u56fd\u9053\u4e8b\u52d9\u6240","boring_xml_url":47,"boring_view_url":1,"soilmap_view_url":null,"soiltest_xml_url":0,"soiltest_view_url":0},{"id":184740,"code":"B4KJ201801007-2989","latitude":"34.27728","longitude":"132.63225","source_code":"CG048755620200330014","project_name":"\u6771\u5e83\u5cf6\u30fb\u5449\u9053\u8def\u5916\u5730\u8cea\u8abf\u67fb\u696d\u52d9","survey_name":"\u6771\u5e83\u5cf6\u30fb\u5449\u9053\u8def\u5916\u5730\u8cea\u8abf\u67fb\u696d\u52d9","client_name":"\u56fd\u571f\u4ea4\u901a\u7701\u4e2d\u56fd\u5730\u65b9\u6574\u5099\u5c40\u5e83\u5cf6\u56fd\u9053\u4e8b\u52d9\u6240","boring_xml_url":47,"boring_view_url":1,"soilmap_view_url":null,"soiltest_xml_url":0,"soiltest_view_url":0},{"id":184739,"code":"B4KJ201801007-2988","latitude":"34.27819","longitude":"132.63189","source_code":"CG048755620200330013","project_name":"\u6771\u5e83\u5cf6\u30fb\u5449\u9053\u8def\u5916\u5730\u8cea\u8abf\u67fb\u696d\u52d9","survey_name":"\u6771\u5e83\u5cf6\u30fb\u5449\u9053\u8def\u5916\u5730\u8cea\u8abf\u67fb\u696d\u52d9","client_name":"\u56fd\u571f\u4ea4\u901a\u7701\u4e2d\u56fd\u5730\u65b9\u6574\u5099\u5c40\u5e83\u5cf6\u56fd\u9053\u4e8b\u52d9\u6240","boring_xml_url":47,"boring_view_url":1,"soilmap_view_url":null,"soiltest_xml_url":0,"soiltest_view_url":0},{"id":184738,"code":"B4KJ201801007-2987","latitude":"34.28047","longitude":"132.63094","source_code":"CG048755620200330012","project_name":"\u6771\u5e83\u5cf6\u30fb\u5449\u9053\u8def\u5916\u5730\u8cea\u8abf\u67fb\u696d\u52d9","survey_name":"\u6771\u5e83\u5cf6\u30fb\u5449\u9053\u8def\u5916\u5730\u8cea\u8abf\u67fb\u696d\u52d9","client_name":"\u56fd\u571f\u4ea4\u901a\u7701\u4e2d\u56fd\u5730\u65b9\u6574\u5099\u5c40\u5e83\u5cf6\u56fd\u9053\u4e8b\u52d9\u6240","boring_xml_url":47,"boring_view_url":1,"soilmap_view_url":null,"soiltest_xml_url":0,"soiltest_view_url":0},{"id":184737,"code":"B4KJ201801007-2986","latitude":"34.28172","longitude":"132.63011","source_code":"CG048755620200330011","project_name":"\u6771\u5e83\u5cf6\u30fb\u5449\u9053\u8def\u5916\u5730\u8cea\u8abf\u67fb\u696d\u52d9","survey_name":"\u6771\u5e83\u5cf6\u30fb\u5449\u9053\u8def\u5916\u5730\u8cea\u8abf\u67fb\u696d\u52d9","client_name":"\u56fd\u571f\u4ea4\u901a\u7701\u4e2d\u56fd\u5730\u65b9\u6574\u5099\u5c40\u5e83\u5cf6\u56fd\u9053\u4e8b\u52d9\u6240","boring_xml_url":47,"boring_view_url":1,"soilmap_view_url":null,"soiltest_xml_url":0,"soiltest_view_url":0},{"id":184736,"code":"B4KJ201801007-2985","latitude":"34.31997","longitude":"132.64067","source_code":"CG048755620200330010","project_name":"\u6771\u5e83\u5cf6\u30fb\u5449\u9053\u8def\u5916\u5730\u8cea\u8abf\u67fb\u696d\u52d9","survey_name":"\u6771\u5e83\u5cf6\u30fb\u5449\u9053\u8def\u5916\u5730\u8cea\u8abf\u67fb\u696d\u52d9","client_name":"\u56fd\u571f\u4ea4\u901a\u7701\u4e2d\u56fd\u5730\u65b9\u6574\u5099\u5c40\u5e83\u5cf6\u56fd\u9053\u4e8b\u52d9\u6240","boring_xml_url":47,"boring_view_url":1,"soilmap_view_url":null,"soiltest_xml_url":0,"soiltest_view_url":0}]}}