{"header":{"xyz":{"source":[],"mosaic":false},"page":4534,"raw":{"soiltest_result":"0","bbox":"57.598333,109.544722,1.933333,163.806111","page":"4534"},"conditions":{"soiltest_result":0,"north":57.598333,"west":109.544722,"south":1.933333,"east":163.806111},"success":true,"message":""},"data":{"meta":{"total":212844,"page":4534,"pages":7095,"count":30},"values":[{"id":184555,"code":"B4KJ201801007-2804","latitude":"35.50431","longitude":"133.61664","source_code":"CG048731610200190011","project_name":"\u8d64\u7895\u5730\u533a\u4ed6\u5730\u8cea\u8abf\u67fb\u305d\u306e2\u696d\u52d9","survey_name":"\u8d64\u7895\u5730\u533a\u4ed6\u5730\u8cea\u8abf\u67fb\u305d\u306e2\u696d\u52d9","client_name":"\u56fd\u571f\u4ea4\u901a\u7701\u4e2d\u56fd\u5730\u65b9\u6574\u5099\u5c40\u5009\u5409\u6cb3\u5ddd\u56fd\u9053\u4e8b\u52d9\u6240","boring_xml_url":47,"boring_view_url":1,"soilmap_view_url":null,"soiltest_xml_url":0,"soiltest_view_url":0},{"id":184554,"code":"B4KJ201801007-2803","latitude":"35.50425","longitude":"133.61714","source_code":"CG048731610200190010","project_name":"\u8d64\u7895\u5730\u533a\u4ed6\u5730\u8cea\u8abf\u67fb\u305d\u306e2\u696d\u52d9","survey_name":"\u8d64\u7895\u5730\u533a\u4ed6\u5730\u8cea\u8abf\u67fb\u305d\u306e2\u696d\u52d9","client_name":"\u56fd\u571f\u4ea4\u901a\u7701\u4e2d\u56fd\u5730\u65b9\u6574\u5099\u5c40\u5009\u5409\u6cb3\u5ddd\u56fd\u9053\u4e8b\u52d9\u6240","boring_xml_url":47,"boring_view_url":1,"soilmap_view_url":null,"soiltest_xml_url":0,"soiltest_view_url":0},{"id":184553,"code":"B4KJ201801007-2802","latitude":"35.49336","longitude":"133.71511","source_code":"CG048731610200190009","project_name":"\u8d64\u7895\u5730\u533a\u4ed6\u5730\u8cea\u8abf\u67fb\u305d\u306e2\u696d\u52d9","survey_name":"\u8d64\u7895\u5730\u533a\u4ed6\u5730\u8cea\u8abf\u67fb\u305d\u306e2\u696d\u52d9","client_name":"\u56fd\u571f\u4ea4\u901a\u7701\u4e2d\u56fd\u5730\u65b9\u6574\u5099\u5c40\u5009\u5409\u6cb3\u5ddd\u56fd\u9053\u4e8b\u52d9\u6240","boring_xml_url":47,"boring_view_url":1,"soilmap_view_url":null,"soiltest_xml_url":0,"soiltest_view_url":0},{"id":184552,"code":"B4KJ201801007-2801","latitude":"35.461","longitude":"133.43889","source_code":"CG048731610200190008","project_name":"\u8d64\u7895\u5730\u533a\u4ed6\u5730\u8cea\u8abf\u67fb\u305d\u306e2\u696d\u52d9","survey_name":"\u8d64\u7895\u5730\u533a\u4ed6\u5730\u8cea\u8abf\u67fb\u305d\u306e2\u696d\u52d9","client_name":"\u56fd\u571f\u4ea4\u901a\u7701\u4e2d\u56fd\u5730\u65b9\u6574\u5099\u5c40\u5009\u5409\u6cb3\u5ddd\u56fd\u9053\u4e8b\u52d9\u6240","boring_xml_url":47,"boring_view_url":1,"soilmap_view_url":null,"soiltest_xml_url":0,"soiltest_view_url":0},{"id":184551,"code":"B4KJ201801007-2800","latitude":"35.50628","longitude":"133.63603","source_code":"CG048731610200190007","project_name":"\u8d64\u7895\u5730\u533a\u4ed6\u5730\u8cea\u8abf\u67fb\u305d\u306e2\u696d\u52d9","survey_name":"\u8d64\u7895\u5730\u533a\u4ed6\u5730\u8cea\u8abf\u67fb\u305d\u306e2\u696d\u52d9","client_name":"\u56fd\u571f\u4ea4\u901a\u7701\u4e2d\u56fd\u5730\u65b9\u6574\u5099\u5c40\u5009\u5409\u6cb3\u5ddd\u56fd\u9053\u4e8b\u52d9\u6240","boring_xml_url":47,"boring_view_url":1,"soilmap_view_url":null,"soiltest_xml_url":0,"soiltest_view_url":0},{"id":184550,"code":"B4KJ201801007-2799","latitude":"35.50594","longitude":"133.63628","source_code":"CG048731610200190006","project_name":"\u8d64\u7895\u5730\u533a\u4ed6\u5730\u8cea\u8abf\u67fb\u305d\u306e2\u696d\u52d9","survey_name":"\u8d64\u7895\u5730\u533a\u4ed6\u5730\u8cea\u8abf\u67fb\u305d\u306e2\u696d\u52d9","client_name":"\u56fd\u571f\u4ea4\u901a\u7701\u4e2d\u56fd\u5730\u65b9\u6574\u5099\u5c40\u5009\u5409\u6cb3\u5ddd\u56fd\u9053\u4e8b\u52d9\u6240","boring_xml_url":47,"boring_view_url":1,"soilmap_view_url":null,"soiltest_xml_url":0,"soiltest_view_url":0},{"id":184549,"code":"B4KJ201801007-2798","latitude":"35.50628","longitude":"133.63658","source_code":"CG048731610200190005","project_name":"\u8d64\u7895\u5730\u533a\u4ed6\u5730\u8cea\u8abf\u67fb\u305d\u306e2\u696d\u52d9","survey_name":"\u8d64\u7895\u5730\u533a\u4ed6\u5730\u8cea\u8abf\u67fb\u305d\u306e2\u696d\u52d9","client_name":"\u56fd\u571f\u4ea4\u901a\u7701\u4e2d\u56fd\u5730\u65b9\u6574\u5099\u5c40\u5009\u5409\u6cb3\u5ddd\u56fd\u9053\u4e8b\u52d9\u6240","boring_xml_url":47,"boring_view_url":1,"soilmap_view_url":null,"soiltest_xml_url":0,"soiltest_view_url":0},{"id":184548,"code":"B4KJ201801007-2797","latitude":"35.506","longitude":"133.63694","source_code":"CG048731610200190004","project_name":"\u8d64\u7895\u5730\u533a\u4ed6\u5730\u8cea\u8abf\u67fb\u305d\u306e2\u696d\u52d9","survey_name":"\u8d64\u7895\u5730\u533a\u4ed6\u5730\u8cea\u8abf\u67fb\u305d\u306e2\u696d\u52d9","client_name":"\u56fd\u571f\u4ea4\u901a\u7701\u4e2d\u56fd\u5730\u65b9\u6574\u5099\u5c40\u5009\u5409\u6cb3\u5ddd\u56fd\u9053\u4e8b\u52d9\u6240","boring_xml_url":47,"boring_view_url":1,"soilmap_view_url":null,"soiltest_xml_url":0,"soiltest_view_url":0},{"id":184547,"code":"B4KJ201801007-2796","latitude":"35.50625","longitude":"133.63717","source_code":"CG048731610200190003","project_name":"\u8d64\u7895\u5730\u533a\u4ed6\u5730\u8cea\u8abf\u67fb\u305d\u306e2\u696d\u52d9","survey_name":"\u8d64\u7895\u5730\u533a\u4ed6\u5730\u8cea\u8abf\u67fb\u305d\u306e2\u696d\u52d9","client_name":"\u56fd\u571f\u4ea4\u901a\u7701\u4e2d\u56fd\u5730\u65b9\u6574\u5099\u5c40\u5009\u5409\u6cb3\u5ddd\u56fd\u9053\u4e8b\u52d9\u6240","boring_xml_url":47,"boring_view_url":1,"soilmap_view_url":null,"soiltest_xml_url":0,"soiltest_view_url":0},{"id":184546,"code":"B4KJ201801007-2795","latitude":"35.50628","longitude":"133.63772","source_code":"CG048731610200190002","project_name":"\u8d64\u7895\u5730\u533a\u4ed6\u5730\u8cea\u8abf\u67fb\u305d\u306e2\u696d\u52d9","survey_name":"\u8d64\u7895\u5730\u533a\u4ed6\u5730\u8cea\u8abf\u67fb\u305d\u306e2\u696d\u52d9","client_name":"\u56fd\u571f\u4ea4\u901a\u7701\u4e2d\u56fd\u5730\u65b9\u6574\u5099\u5c40\u5009\u5409\u6cb3\u5ddd\u56fd\u9053\u4e8b\u52d9\u6240","boring_xml_url":47,"boring_view_url":1,"soilmap_view_url":null,"soiltest_xml_url":0,"soiltest_view_url":0},{"id":184545,"code":"B4KJ201801007-2794","latitude":"35.506","longitude":"133.63775","source_code":"CG048731610200190001","project_name":"\u8d64\u7895\u5730\u533a\u4ed6\u5730\u8cea\u8abf\u67fb\u305d\u306e2\u696d\u52d9","survey_name":"\u8d64\u7895\u5730\u533a\u4ed6\u5730\u8cea\u8abf\u67fb\u305d\u306e2\u696d\u52d9","client_name":"\u56fd\u571f\u4ea4\u901a\u7701\u4e2d\u56fd\u5730\u65b9\u6574\u5099\u5c40\u5009\u5409\u6cb3\u5ddd\u56fd\u9053\u4e8b\u52d9\u6240","boring_xml_url":47,"boring_view_url":1,"soilmap_view_url":null,"soiltest_xml_url":0,"soiltest_view_url":0},{"id":184544,"code":"B4KJ201801007-2793","latitude":"35.510222","longitude":"133.600358","source_code":"CG048731610200020019","project_name":"","survey_name":"\u8d64\u7895\u5730\u533a\u4ed6\u5730\u8cea\u8abf\u67fb\u696d\u52d9","client_name":"\u56fd\u571f\u4ea4\u901a\u7701\u4e2d\u56fd\u5730\u65b9\u6574\u5099\u5c40\u5009\u5409\u6cb3\u5ddd\u56fd\u9053\u4e8b\u52d9\u6240","boring_xml_url":47,"boring_view_url":1,"soilmap_view_url":null,"soiltest_xml_url":0,"soiltest_view_url":0},{"id":184543,"code":"B4KJ201801007-2792","latitude":"35.510386","longitude":"133.600297","source_code":"CG048731610200020018","project_name":"","survey_name":"\u8d64\u7895\u5730\u533a\u4ed6\u5730\u8cea\u8abf\u67fb\u696d\u52d9","client_name":"\u56fd\u571f\u4ea4\u901a\u7701\u4e2d\u56fd\u5730\u65b9\u6574\u5099\u5c40\u5009\u5409\u6cb3\u5ddd\u56fd\u9053\u4e8b\u52d9\u6240","boring_xml_url":47,"boring_view_url":1,"soilmap_view_url":null,"soiltest_xml_url":0,"soiltest_view_url":0},{"id":184542,"code":"B4KJ201801007-2791","latitude":"35.38942","longitude":"133.78172","source_code":"CG048731600200220009","project_name":"\u5929\u795e\u5ddd\u6c34\u7cfb\u5824\u4f53\u5b89\u5168\u6027\u691c\u8a0e\u696d\u52d9","survey_name":"\u5929\u795e\u5ddd\u6c34\u7cfb\u5824\u4f53\u5b89\u5168\u6027\u691c\u8a0e\u696d\u52d9","client_name":"\u56fd\u571f\u4ea4\u901a\u7701\u4e2d\u56fd\u5730\u65b9\u6574\u5099\u5c40\u5009\u5409\u6cb3\u5ddd\u56fd\u9053\u4e8b\u52d9\u6240","boring_xml_url":47,"boring_view_url":1,"soilmap_view_url":null,"soiltest_xml_url":0,"soiltest_view_url":0},{"id":184541,"code":"B4KJ201801007-2790","latitude":"35.38947","longitude":"133.78167","source_code":"CG048731600200220008","project_name":"\u5929\u795e\u5ddd\u6c34\u7cfb\u5824\u4f53\u5b89\u5168\u6027\u691c\u8a0e\u696d\u52d9","survey_name":"\u5929\u795e\u5ddd\u6c34\u7cfb\u5824\u4f53\u5b89\u5168\u6027\u691c\u8a0e\u696d\u52d9","client_name":"\u56fd\u571f\u4ea4\u901a\u7701\u4e2d\u56fd\u5730\u65b9\u6574\u5099\u5c40\u5009\u5409\u6cb3\u5ddd\u56fd\u9053\u4e8b\u52d9\u6240","boring_xml_url":47,"boring_view_url":1,"soilmap_view_url":null,"soiltest_xml_url":0,"soiltest_view_url":0},{"id":184540,"code":"B4KJ201801007-2789","latitude":"35.3895","longitude":"133.78164","source_code":"CG048731600200220007","project_name":"\u5929\u795e\u5ddd\u6c34\u7cfb\u5824\u4f53\u5b89\u5168\u6027\u691c\u8a0e\u696d\u52d9","survey_name":"\u5929\u795e\u5ddd\u6c34\u7cfb\u5824\u4f53\u5b89\u5168\u6027\u691c\u8a0e\u696d\u52d9","client_name":"\u56fd\u571f\u4ea4\u901a\u7701\u4e2d\u56fd\u5730\u65b9\u6574\u5099\u5c40\u5009\u5409\u6cb3\u5ddd\u56fd\u9053\u4e8b\u52d9\u6240","boring_xml_url":47,"boring_view_url":1,"soilmap_view_url":null,"soiltest_xml_url":0,"soiltest_view_url":0},{"id":184539,"code":"B4KJ201801007-2788","latitude":"35.42753","longitude":"133.79272","source_code":"CG048731600200220006","project_name":"\u5929\u795e\u5ddd\u6c34\u7cfb\u5824\u9632\u5b89\u5168\u6027\u691c\u8a0e\u696d\u52d9","survey_name":"\u5929\u795e\u5ddd\u6c34\u7cfb\u5824\u9632\u5b89\u5168\u6027\u691c\u8a0e\u696d\u52d9","client_name":"\u56fd\u571f\u4ea4\u901a\u7701\u4e2d\u56fd\u5730\u65b9\u6574\u5099\u5c40\u5009\u5409\u6cb3\u5ddd\u56fd\u9053\u4e8b\u52d9\u6240","boring_xml_url":47,"boring_view_url":1,"soilmap_view_url":null,"soiltest_xml_url":0,"soiltest_view_url":0},{"id":184538,"code":"B4KJ201801007-2787","latitude":"35.42756","longitude":"133.79267","source_code":"CG048731600200220005","project_name":"\u5929\u795e\u5ddd\u6c34\u7cfb\u5824\u9632\u5b89\u5168\u6027\u691c\u8a0e\u696d\u52d9","survey_name":"\u5929\u795e\u5ddd\u6c34\u7cfb\u5824\u9632\u5b89\u5168\u6027\u691c\u8a0e\u696d\u52d9","client_name":"\u56fd\u571f\u4ea4\u901a\u7701\u4e2d\u56fd\u5730\u65b9\u6574\u5099\u5c40\u5009\u5409\u6cb3\u5ddd\u56fd\u9053\u4e8b\u52d9\u6240","boring_xml_url":47,"boring_view_url":1,"soilmap_view_url":null,"soiltest_xml_url":0,"soiltest_view_url":0},{"id":184537,"code":"B4KJ201801007-2786","latitude":"35.42756","longitude":"133.79264","source_code":"CG048731600200220004","project_name":"\u5929\u795e\u5ddd\u6c34\u7cfb\u5824\u9632\u5b89\u5168\u6027\u691c\u8a0e\u696d\u52d9","survey_name":"\u5929\u795e\u5ddd\u6c34\u7cfb\u5824\u9632\u5b89\u5168\u6027\u691c\u8a0e\u696d\u52d9","client_name":"\u56fd\u571f\u4ea4\u901a\u7701\u4e2d\u56fd\u5730\u65b9\u6574\u5099\u5c40\u5009\u5409\u6cb3\u5ddd\u56fd\u9053\u4e8b\u52d9\u6240","boring_xml_url":47,"boring_view_url":1,"soilmap_view_url":null,"soiltest_xml_url":0,"soiltest_view_url":0},{"id":184536,"code":"B4KJ201801007-2785","latitude":"35.43003","longitude":"133.79267","source_code":"CG048731600200220003","project_name":"\u5929\u795e\u5ddd\u6c34\u7cfb\u5824\u9632\u5b89\u5168\u6027\u691c\u8a0e\u696d\u52d9","survey_name":"\u5929\u795e\u5ddd\u6c34\u7cfb\u5824\u9632\u5b89\u5168\u6027\u691c\u8a0e\u696d\u52d9","client_name":"\u56fd\u571f\u4ea4\u901a\u7701\u4e2d\u56fd\u5730\u65b9\u6574\u5099\u5c40\u5009\u5409\u6cb3\u5ddd\u56fd\u9053\u4e8b\u52d9\u6240","boring_xml_url":47,"boring_view_url":1,"soilmap_view_url":null,"soiltest_xml_url":0,"soiltest_view_url":0},{"id":184535,"code":"B4KJ201801007-2784","latitude":"35.43006","longitude":"133.79261","source_code":"CG048731600200220002","project_name":"\u5929\u795e\u5ddd\u6c34\u7cfb\u5824\u9632\u5b89\u5168\u6027\u691c\u8a0e\u696d\u52d9","survey_name":"\u5929\u795e\u5ddd\u6c34\u7cfb\u5824\u9632\u5b89\u5168\u6027\u691c\u8a0e\u696d\u52d9","client_name":"\u56fd\u571f\u4ea4\u901a\u7701\u4e2d\u56fd\u5730\u65b9\u6574\u5099\u5c40\u5009\u5409\u6cb3\u5ddd\u56fd\u9053\u4e8b\u52d9\u6240","boring_xml_url":47,"boring_view_url":1,"soilmap_view_url":null,"soiltest_xml_url":0,"soiltest_view_url":0},{"id":184534,"code":"B4KJ201801007-2783","latitude":"35.43006","longitude":"133.79258","source_code":"CG048731600200220001","project_name":"\u5929\u795e\u5ddd\u6c34\u7cfb\u5824\u9632\u5b89\u5168\u6027\u691c\u8a0e\u696d\u52d9","survey_name":"\u5929\u795e\u5ddd\u6c34\u7cfb\u5824\u9632\u5b89\u5168\u6027\u691c\u8a0e\u696d\u52d9","client_name":"\u56fd\u571f\u4ea4\u901a\u7701\u4e2d\u56fd\u5730\u65b9\u6574\u5099\u5c40\u5009\u5409\u6cb3\u5ddd\u56fd\u9053\u4e8b\u52d9\u6240","boring_xml_url":47,"boring_view_url":1,"soilmap_view_url":null,"soiltest_xml_url":0,"soiltest_view_url":0},{"id":184533,"code":"B4KJ201801007-2782","latitude":"35.50569","longitude":"133.87575","source_code":"CG048731530200160004","project_name":"\u7fbd\u5408\u5927\u6a4b \u57fa\u790e \u8010\u9707\u88dc\u5f37\u8a2d\u8a08","survey_name":"\u7fbd\u5408\u5730\u533a\u5730\u8cea\u8abf\u67fb\u696d\u52d9","client_name":"\u56fd\u571f\u4ea4\u901a\u7701\u4e2d\u56fd\u5730\u65b9\u6574\u5099\u5c40\u5009\u5409\u6cb3\u5ddd\u56fd\u9053\u4e8b\u52d9\u6240","boring_xml_url":47,"boring_view_url":1,"soilmap_view_url":null,"soiltest_xml_url":48,"soiltest_view_url":48},{"id":184532,"code":"B4KJ201801007-2781","latitude":"35.50558","longitude":"133.8755","source_code":"CG048731530200160003","project_name":"\u7fbd\u5408\u59d4\u5927\u6a4b \u57fa\u790e \u8010\u9707\u88dc\u5f37\u8a2d\u8a08","survey_name":"\u7fbd\u5408\u5730\u533a\u5730\u8cea\u8abf\u67fb\u696d\u52d9","client_name":"\u56fd\u571f\u4ea4\u901a\u7701\u4e2d\u56fd\u5730\u65b9\u6574\u5099\u5c40\u5009\u5409\u6cb3\u5ddd\u56fd\u9053\u4e8b\u52d9\u6240","boring_xml_url":47,"boring_view_url":1,"soilmap_view_url":null,"soiltest_xml_url":48,"soiltest_view_url":48},{"id":184531,"code":"B4KJ201801007-2780","latitude":"35.5055","longitude":"133.87525","source_code":"CG048731530200160002","project_name":"\u7fbd\u5408\u5927\u6a4b \u57fa\u790e \u8010\u9707\u88dc\u5f37\u8a2d\u8a08","survey_name":"\u7fbd\u5408\u5730\u533a\u5730\u8cea\u8abf\u67fb\u696d\u52d9","client_name":"\u56fd\u571f\u4ea4\u901a\u7701\u4e2d\u56fd\u5730\u65b9\u6574\u5099\u5c40\u5009\u5409\u6cb3\u5ddd\u56fd\u9053\u4e8b\u52d9\u6240","boring_xml_url":47,"boring_view_url":1,"soilmap_view_url":null,"soiltest_xml_url":48,"soiltest_view_url":48},{"id":184530,"code":"B4KJ201801007-2779","latitude":"35.50539","longitude":"133.87503","source_code":"CG048731530200160001","project_name":"\u7fbd\u5408\u5927\u6a4b \u57fa\u790e \u8010\u9707\u88dc\u5f37\u8a2d\u8a08","survey_name":"\u7fbd\u5408\u5730\u533a\u5730\u8cea\u8abf\u67fb\u696d\u52d9","client_name":"\u56fd\u571f\u4ea4\u901a\u7701\u4e2d\u56fd\u5730\u65b9\u6574\u5099\u5c40\u5009\u5409\u6cb3\u5ddd\u56fd\u9053\u4e8b\u52d9\u6240","boring_xml_url":47,"boring_view_url":1,"soilmap_view_url":null,"soiltest_xml_url":48,"soiltest_view_url":48},{"id":184529,"code":"B4KJ201801007-2778","latitude":"35.3183528","longitude":"133.8380842","source_code":"CG048731400200090005","project_name":"\u5929\u795e\u5ddd\u4e0b\u7551\u7802\u9632\u5830\u5824\u5916\u5730\u8cea\u8abf\u67fb\u696d\u52d9","survey_name":"\u5929\u795e\u5ddd\u4e0b\u7551\u7802\u9632\u5830\u5824\u5916\u5730\u8cea\u8abf\u67fb\u696d\u52d9","client_name":"\u56fd\u571f\u4ea4\u901a\u7701\u4e2d\u56fd\u5730\u65b9\u6574\u5099\u5c40\u5009\u5409\u6cb3\u5ddd\u56fd\u9053\u4e8b\u52d9\u6240","boring_xml_url":47,"boring_view_url":1,"soilmap_view_url":null,"soiltest_xml_url":0,"soiltest_view_url":0},{"id":184528,"code":"B4KJ201801007-2777","latitude":"35.3179639","longitude":"133.8374731","source_code":"CG048731400200090004","project_name":"\u5929\u795e\u5ddd\u4e0b\u7551\u7802\u9632\u5830\u5824\u5916\u5730\u8cea\u8abf\u67fb\u696d\u52d9","survey_name":"\u5929\u795e\u5ddd\u4e0b\u7551\u7802\u9632\u5830\u5824\u5916\u5730\u8cea\u8abf\u67fb\u696d\u52d9","client_name":"\u56fd\u571f\u4ea4\u901a\u7701\u4e2d\u56fd\u5730\u65b9\u6574\u5099\u5c40\u5009\u5409\u6cb3\u5ddd\u56fd\u9053\u4e8b\u52d9\u6240","boring_xml_url":47,"boring_view_url":1,"soilmap_view_url":null,"soiltest_xml_url":0,"soiltest_view_url":0},{"id":184527,"code":"B4KJ201801007-2776","latitude":"35.3179917","longitude":"133.8379453","source_code":"CG048731400200090003","project_name":"\u5929\u795e\u5ddd\u4e0b\u7551\u7802\u9632\u5830\u5824\u5916\u5730\u8cea\u8abf\u67fb\u696d\u52d9","survey_name":"\u5929\u795e\u5ddd\u4e0b\u7551\u7802\u9632\u5830\u5824\u5916\u5730\u8cea\u8abf\u67fb\u696d\u52d9","client_name":"\u56fd\u571f\u4ea4\u901a\u7701\u4e2d\u56fd\u5730\u65b9\u6574\u5099\u5c40\u5009\u5409\u6cb3\u5ddd\u56fd\u9053\u4e8b\u52d9\u6240","boring_xml_url":47,"boring_view_url":1,"soilmap_view_url":null,"soiltest_xml_url":0,"soiltest_view_url":0},{"id":184526,"code":"B4KJ201801007-2775","latitude":"35.3180194","longitude":"133.8381397","source_code":"CG048731400200090002","project_name":"\u5929\u795e\u5ddd\u4e0b\u7551\u7802\u9632\u5830\u5824\u5916\u5730\u8cea\u8abf\u67fb\u696d\u52d9","survey_name":"\u5929\u795e\u5ddd\u4e0b\u7551\u7802\u9632\u5830\u5824\u5916\u5730\u8cea\u8abf\u67fb\u696d\u52d9","client_name":"\u56fd\u571f\u4ea4\u901a\u7701\u4e2d\u56fd\u5730\u65b9\u6574\u5099\u5c40\u5009\u5409\u6cb3\u5ddd\u56fd\u9053\u4e8b\u52d9\u6240","boring_xml_url":47,"boring_view_url":1,"soilmap_view_url":null,"soiltest_xml_url":0,"soiltest_view_url":0}]}}