{"header":{"xyz":{"source":[],"mosaic":false},"page":4539,"raw":{"soiltest_result":"0","bbox":"57.598333,109.544722,1.933333,163.806111","page":"4539"},"conditions":{"soiltest_result":0,"north":57.598333,"west":109.544722,"south":1.933333,"east":163.806111},"success":true,"message":""},"data":{"meta":{"total":212844,"page":4539,"pages":7095,"count":30},"values":[{"id":184405,"code":"B4KJ201801007-2654","latitude":"35.2169","longitude":"132.9731","source_code":"CG038738410200060004","project_name":"","survey_name":"\u5c3e\u539f\u30c0\u30e0\u4ed8\u66ff\u9053\u8def\u5730\u8cea\u8abf\u67fb\u696d\u52d9(\u753a\u9053\u6797\u539f\u7dda)","client_name":"\u56fd\u571f\u4ea4\u901a\u7701\u4e2d\u56fd\u5730\u65b9\u6574\u5099\u5c40\u6590\u4f0a\u5ddd\u30fb\u795e\u6238\u5ddd\u7dcf\u5408\u958b\u767a\u5de5\u4e8b\u4e8b\u52d9\u6240","boring_xml_url":47,"boring_view_url":1,"soilmap_view_url":null,"soiltest_xml_url":0,"soiltest_view_url":0},{"id":184404,"code":"B4KJ201801007-2653","latitude":"35.2169","longitude":"132.9719","source_code":"CG038738410200060003","project_name":"","survey_name":"\u5c3e\u539f\u30c0\u30e0\u4ed8\u66ff\u9053\u8def\u5730\u8cea\u8abf\u67fb\u696d\u52d9(\u753a\u9053\u6797\u539f\u7dda)","client_name":"\u56fd\u571f\u4ea4\u901a\u7701\u4e2d\u56fd\u5730\u65b9\u6574\u5099\u5c40\u6590\u4f0a\u5ddd\u30fb\u795e\u6238\u5ddd\u7dcf\u5408\u958b\u767a\u5de5\u4e8b\u4e8b\u52d9\u6240","boring_xml_url":47,"boring_view_url":1,"soilmap_view_url":null,"soiltest_xml_url":0,"soiltest_view_url":0},{"id":184403,"code":"B4KJ201801007-2652","latitude":"35.2169","longitude":"132.9719","source_code":"CG038738410200060002","project_name":"","survey_name":"\u5c3e\u539f\u30c0\u30e0\u4ed8\u66ff\u9053\u8def\u5730\u8cea\u8abf\u67fb\u696d\u52d9(\u753a\u9053\u6797\u539f\u7dda)","client_name":"\u56fd\u571f\u4ea4\u901a\u7701\u4e2d\u56fd\u5730\u65b9\u6574\u5099\u5c40\u6590\u4f0a\u5ddd\u30fb\u795e\u6238\u5ddd\u7dcf\u5408\u958b\u767a\u5de5\u4e8b\u4e8b\u52d9\u6240","boring_xml_url":47,"boring_view_url":1,"soilmap_view_url":null,"soiltest_xml_url":0,"soiltest_view_url":0},{"id":184402,"code":"B4KJ201801007-2651","latitude":"35.2169","longitude":"132.9717","source_code":"CG038738410200060001","project_name":"","survey_name":"\u5c3e\u539f\u30c0\u30e0\u4ed8\u66ff\u9053\u8def\u5730\u8cea\u8abf\u67fb\u696d\u52d9(\u753a\u9053\u6797\u539f\u7dda)","client_name":"\u56fd\u571f\u4ea4\u901a\u7701\u4e2d\u56fd\u5730\u65b9\u6574\u5099\u5c40\u6590\u4f0a\u5ddd\u30fb\u795e\u6238\u5ddd\u7dcf\u5408\u958b\u767a\u5de5\u4e8b\u4e8b\u52d9\u6240","boring_xml_url":47,"boring_view_url":1,"soilmap_view_url":null,"soiltest_xml_url":0,"soiltest_view_url":0},{"id":184401,"code":"B4KJ201801007-2650","latitude":"34.68119811","longitude":"131.7694994","source_code":"CG038737530200220018","project_name":"","survey_name":"\u56fd\u90539.191\u53f7\u6d5c\u7530\u7ba1\u5185\u5730\u8cea\u8abf\u67fb\u696d\u52d9","client_name":"\u56fd\u571f\u4ea4\u901a\u7701\u4e2d\u56fd\u5730\u65b9\u6574\u5099\u5c40\u6d5c\u7530\u6cb3\u5ddd\u56fd\u9053\u4e8b\u52d9\u6240","boring_xml_url":47,"boring_view_url":1,"soilmap_view_url":null,"soiltest_xml_url":0,"soiltest_view_url":0},{"id":184400,"code":"B4KJ201801007-2649","latitude":"34.4736795","longitude":"131.7771694","source_code":"CG038737530200220013","project_name":"","survey_name":"\u56fd\u90539.191\u53f7\u6d5c\u7530\u7ba1\u5185\u5730\u8cea\u8abf\u67fb\u696d\u52d9","client_name":"\u56fd\u571f\u4ea4\u901a\u7701\u4e2d\u56fd\u5730\u65b9\u6574\u5099\u5c40\u6d5c\u7530\u6cb3\u5ddd\u56fd\u9053\u4e8b\u52d9\u6240","boring_xml_url":47,"boring_view_url":1,"soilmap_view_url":null,"soiltest_xml_url":0,"soiltest_view_url":0},{"id":184399,"code":"B4KJ201801007-2648","latitude":"34.62780142","longitude":"131.8066478","source_code":"CG038737530200220012","project_name":"","survey_name":"\u56fd\u90539.191\u53f7\u6d5c\u7530\u7ba1\u5185\u5730\u8cea\u8abf\u67fb\u696d\u52d9","client_name":"\u56fd\u571f\u4ea4\u901a\u7701\u4e2d\u56fd\u5730\u65b9\u6574\u5099\u5c40\u6d5c\u7530\u6cb3\u5ddd\u56fd\u9053\u4e8b\u52d9\u6240","boring_xml_url":47,"boring_view_url":1,"soilmap_view_url":null,"soiltest_xml_url":0,"soiltest_view_url":0},{"id":184398,"code":"B4KJ201801007-2647","latitude":"34.62813533","longitude":"131.8065703","source_code":"CG038737530200220011","project_name":"","survey_name":"\u56fd\u90539.191\u53f7\u6d5c\u7530\u7ba1\u5185\u5730\u8cea\u8abf\u67fb\u696d\u52d9","client_name":"\u56fd\u571f\u4ea4\u901a\u7701\u4e2d\u56fd\u5730\u65b9\u6574\u5099\u5c40\u6d5c\u7530\u6cb3\u5ddd\u56fd\u9053\u4e8b\u52d9\u6240","boring_xml_url":47,"boring_view_url":1,"soilmap_view_url":null,"soiltest_xml_url":0,"soiltest_view_url":0},{"id":184397,"code":"B4KJ201801007-2646","latitude":"34.62801686","longitude":"131.8068006","source_code":"CG038737530200220010","project_name":"","survey_name":"\u56fd\u90539.191\u53f7\u6d5c\u7530\u7ba1\u5185\u5730\u8cea\u8abf\u67fb\u696d\u52d9","client_name":"\u56fd\u571f\u4ea4\u901a\u7701\u4e2d\u56fd\u5730\u65b9\u6574\u5099\u5c40\u6d5c\u7530\u6cb3\u5ddd\u56fd\u9053\u4e8b\u52d9\u6240","boring_xml_url":47,"boring_view_url":1,"soilmap_view_url":null,"soiltest_xml_url":0,"soiltest_view_url":0},{"id":184396,"code":"B4KJ201801007-2645","latitude":"34.62800822","longitude":"131.8066586","source_code":"CG038737530200220009","project_name":"","survey_name":"\u56fd\u90539.191\u53f7\u6d5c\u7530\u7ba1\u5185\u5730\u8cea\u8abf\u67fb\u696d\u52d9","client_name":"\u56fd\u571f\u4ea4\u901a\u7701\u4e2d\u56fd\u5730\u65b9\u6574\u5099\u5c40\u6d5c\u7530\u6cb3\u5ddd\u56fd\u9053\u4e8b\u52d9\u6240","boring_xml_url":47,"boring_view_url":1,"soilmap_view_url":null,"soiltest_xml_url":0,"soiltest_view_url":0},{"id":184395,"code":"B4KJ201801007-2644","latitude":"34.62815061","longitude":"131.8064272","source_code":"CG038737530200220008","project_name":"","survey_name":"\u56fd\u90539.191\u53f7\u6d5c\u7530\u7ba1\u5185\u5730\u8cea\u8abf\u67fb\u696d\u52d9","client_name":"\u56fd\u571f\u4ea4\u901a\u7701\u4e2d\u56fd\u5730\u65b9\u6574\u5099\u5c40\u6d5c\u7530\u6cb3\u5ddd\u56fd\u9053\u4e8b\u52d9\u6240","boring_xml_url":47,"boring_view_url":1,"soilmap_view_url":null,"soiltest_xml_url":0,"soiltest_view_url":0},{"id":184394,"code":"B4KJ201801007-2643","latitude":"34.62765939","longitude":"131.8064986","source_code":"CG038737530200220007","project_name":"","survey_name":"\u56fd\u90539.191\u53f7\u6d5c\u7530\u7ba1\u5185\u5730\u8cea\u8abf\u67fb\u696d\u52d9","client_name":"\u56fd\u571f\u4ea4\u901a\u7701\u4e2d\u56fd\u5730\u65b9\u6574\u5099\u5c40\u6d5c\u7530\u6cb3\u5ddd\u56fd\u9053\u4e8b\u52d9\u6240","boring_xml_url":47,"boring_view_url":1,"soilmap_view_url":null,"soiltest_xml_url":0,"soiltest_view_url":0},{"id":184393,"code":"B4KJ201801007-2642","latitude":"35.03603497","longitude":"132.2703289","source_code":"CG038737530200220002","project_name":"","survey_name":"\u56fd\u90539.191\u53f7\u6d5c\u7530\u7ba1\u5185\u5730\u8cea\u8abf\u67fb\u696d\u52d9","client_name":"\u56fd\u571f\u4ea4\u901a\u7701\u4e2d\u56fd\u5730\u65b9\u6574\u5099\u5c40\u6d5c\u7530\u6cb3\u5ddd\u56fd\u9053\u4e8b\u52d9\u6240","boring_xml_url":47,"boring_view_url":1,"soilmap_view_url":null,"soiltest_xml_url":0,"soiltest_view_url":0},{"id":184392,"code":"B4KJ201801007-2641","latitude":"35.03605606","longitude":"132.2704494","source_code":"CG038737530200220001","project_name":"","survey_name":"\u56fd\u90539.191\u53f7\u6d5c\u7530\u7ba1\u5185\u5730\u8cea\u8abf\u67fb\u696d\u52d9","client_name":"\u56fd\u571f\u4ea4\u901a\u7701\u4e2d\u56fd\u5730\u65b9\u6574\u5099\u5c40\u6d5c\u7530\u6cb3\u5ddd\u56fd\u9053\u4e8b\u52d9\u6240","boring_xml_url":47,"boring_view_url":1,"soilmap_view_url":null,"soiltest_xml_url":0,"soiltest_view_url":0},{"id":184391,"code":"B4KJ201801007-2640","latitude":"34.495014","longitude":"131.811722","source_code":"CG038737410200270011","project_name":"","survey_name":"\u76f4\u5730\u5916\u5730\u8cea\u8abf\u67fb\u696d\u52d9","client_name":"\u56fd\u571f\u4ea4\u901a\u7701\u4e2d\u56fd\u5730\u65b9\u6574\u5099\u5c40\u6d5c\u7530\u6cb3\u5ddd\u56fd\u9053\u4e8b\u52d9\u6240","boring_xml_url":47,"boring_view_url":1,"soilmap_view_url":null,"soiltest_xml_url":0,"soiltest_view_url":0},{"id":184390,"code":"B4KJ201801007-2639","latitude":"34.7057647","longitude":"131.8599489","source_code":"CG038737410200270001","project_name":"","survey_name":"\u76f4\u5730\u5916\u5730\u8cea\u8abf\u67fb\u696d\u52d9","client_name":"\u56fd\u571f\u4ea4\u901a\u7701\u4e2d\u56fd\u5730\u65b9\u6574\u5099\u5c40\u6d5c\u7530\u6cb3\u5ddd\u56fd\u9053\u4e8b\u52d9\u6240","boring_xml_url":47,"boring_view_url":1,"soilmap_view_url":null,"soiltest_xml_url":0,"soiltest_view_url":0},{"id":184389,"code":"B4KJ201801007-2638","latitude":"35.0066378","longitude":"132.5068531","source_code":"CG038737400200290002","project_name":"\u5e73\u621015\u5e74\u5ea6 \u6c5f\u306e\u5ddd\u591a\u7530\u5730\u533a\u5730\u8cea\u8abf\u67fb\u691c\u8a0e\u696d\u52d9","survey_name":"\u5e73\u621015\u5e74\u5ea6 \u6c5f\u306e\u5ddd\u591a\u7530\u5730\u533a\u5730\u8cea\u8abf\u67fb\u691c\u8a0e\u696d\u52d9","client_name":"\u56fd\u571f\u4ea4\u901a\u7701\u4e2d\u56fd\u5730\u65b9\u6574\u5099\u5c40\u6d5c\u7530\u6cb3\u5ddd\u56fd\u9053\u4e8b\u52d9\u6240","boring_xml_url":47,"boring_view_url":1,"soilmap_view_url":null,"soiltest_xml_url":0,"soiltest_view_url":0},{"id":184388,"code":"B4KJ201801007-2637","latitude":"35.4005981","longitude":"132.7898983","source_code":"CG038736600200470029","project_name":"\u6590\u4f0a\u5ddd\u4e0b\u6d41\u5824\u9632\u6d78\u900f\u8abf\u67fb\u691c\u8a0e\u696d\u52d9","survey_name":"\u6590\u4f0a\u5ddd\u4e0b\u6d41\u5824\u9632\u6d78\u900f\u8abf\u67fb\u691c\u8a0e\u696d\u52d9","client_name":"\u56fd\u571f\u4ea4\u901a\u7701\u4e2d\u56fd\u5730\u65b9\u6574\u5099\u5c40\u51fa\u96f2\u6cb3\u5ddd\u4e8b\u52d9\u6240","boring_xml_url":47,"boring_view_url":1,"soilmap_view_url":null,"soiltest_xml_url":0,"soiltest_view_url":0},{"id":184387,"code":"B4KJ201801007-2636","latitude":"35.4089306","longitude":"132.7968419","source_code":"CG038736600200470028","project_name":"\u6590\u4f0a\u5ddd\u4e0b\u6d41\u5824\u9632\u6d78\u900f\u8abf\u67fb\u691c\u8a0e\u696d\u52d9","survey_name":"\u6590\u4f0a\u5ddd\u4e0b\u6d41\u5824\u9632\u6d78\u900f\u8abf\u67fb\u691c\u8a0e\u696d\u52d9","client_name":"\u56fd\u571f\u4ea4\u901a\u7701\u4e2d\u56fd\u5730\u65b9\u6574\u5099\u5c40\u51fa\u96f2\u6cb3\u5ddd\u4e8b\u52d9\u6240","boring_xml_url":47,"boring_view_url":1,"soilmap_view_url":null,"soiltest_xml_url":0,"soiltest_view_url":0},{"id":184386,"code":"B4KJ201801007-2635","latitude":"35.4089306","longitude":"132.7968419","source_code":"CG038736600200470021","project_name":"\u6590\u4f0a\u5ddd\u4e0b\u6d41\u5824\u9632\u6d78\u900f\u8abf\u67fb\u691c\u8a0e\u696d\u52d9","survey_name":"\u6590\u4f0a\u5ddd\u4e0b\u6d41\u5824\u9632\u6d78\u900f\u8abf\u67fb\u691c\u8a0e\u696d\u52d9","client_name":"\u56fd\u571f\u4ea4\u901a\u7701\u4e2d\u56fd\u5730\u65b9\u6574\u5099\u5c40\u51fa\u96f2\u6cb3\u5ddd\u4e8b\u52d9\u6240","boring_xml_url":47,"boring_view_url":1,"soilmap_view_url":null,"soiltest_xml_url":48,"soiltest_view_url":48},{"id":184385,"code":"B4KJ201801007-2634","latitude":"35.4089306","longitude":"132.7968419","source_code":"CG038736600200470020","project_name":"\u6590\u4f0a\u5ddd\u4e0b\u6d41\u5824\u9632\u6d78\u900f\u8abf\u67fb\u691c\u8a0e\u696d\u52d9","survey_name":"\u6590\u4f0a\u5ddd\u4e0b\u6d41\u5824\u9632\u6d78\u900f\u8abf\u67fb\u691c\u8a0e\u696d\u52d9","client_name":"\u56fd\u571f\u4ea4\u901a\u7701\u4e2d\u56fd\u5730\u65b9\u6574\u5099\u5c40\u51fa\u96f2\u6cb3\u5ddd\u4e8b\u52d9\u6240","boring_xml_url":47,"boring_view_url":1,"soilmap_view_url":null,"soiltest_xml_url":48,"soiltest_view_url":48},{"id":184384,"code":"B4KJ201801007-2633","latitude":"35.4089306","longitude":"132.7968419","source_code":"CG038736600200470019","project_name":"\u6590\u4f0a\u5ddd\u4e0b\u6d41\u5824\u9632\u6d78\u900f\u8abf\u67fb\u691c\u8a0e\u696d\u52d9","survey_name":"\u6590\u4f0a\u5ddd\u4e0b\u6d41\u5824\u9632\u6d78\u900f\u8abf\u67fb\u691c\u8a0e\u696d\u52d9","client_name":"\u56fd\u571f\u4ea4\u901a\u7701\u4e2d\u56fd\u5730\u65b9\u6574\u5099\u5c40\u51fa\u96f2\u6cb3\u5ddd\u4e8b\u52d9\u6240","boring_xml_url":47,"boring_view_url":1,"soilmap_view_url":null,"soiltest_xml_url":48,"soiltest_view_url":48},{"id":184383,"code":"B4KJ201801007-2632","latitude":"35.3558811","longitude":"132.7882333","source_code":"CG038736600200470015","project_name":"\u6590\u4f0a\u5ddd\u4e0b\u6d41\u5824\u9632\u6d78\u900f\u8abf\u67fb\u691c\u8a0e\u696d\u52d9","survey_name":"\u6590\u4f0a\u5ddd\u4e0b\u6d41\u5824\u9632\u6d78\u900f\u8abf\u67fb\u691c\u8a0e\u696d\u52d9","client_name":"\u56fd\u571f\u4ea4\u901a\u7701\u4e2d\u56fd\u5730\u65b9\u6574\u5099\u5c40\u51fa\u96f2\u6cb3\u5ddd\u4e8b\u52d9\u6240","boring_xml_url":47,"boring_view_url":1,"soilmap_view_url":null,"soiltest_xml_url":48,"soiltest_view_url":48},{"id":184382,"code":"B4KJ201801007-2631","latitude":"35.3558811","longitude":"132.7882333","source_code":"CG038736600200470014","project_name":"\u6590\u4f0a\u5ddd\u4e0b\u6d41\u5824\u9632\u6d78\u900f\u8abf\u67fb\u691c\u8a0e\u696d\u52d9","survey_name":"\u6590\u4f0a\u5ddd\u4e0b\u6d41\u5824\u9632\u6d78\u900f\u8abf\u67fb\u691c\u8a0e\u696d\u52d9","client_name":"\u56fd\u571f\u4ea4\u901a\u7701\u4e2d\u56fd\u5730\u65b9\u6574\u5099\u5c40\u51fa\u96f2\u6cb3\u5ddd\u4e8b\u52d9\u6240","boring_xml_url":47,"boring_view_url":1,"soilmap_view_url":null,"soiltest_xml_url":48,"soiltest_view_url":48},{"id":184381,"code":"B4KJ201801007-2630","latitude":"35.4005981","longitude":"132.7898983","source_code":"CG038736600200470012","project_name":"\u6590\u4f0a\u5ddd\u4e0b\u6d41\u5824\u9632\u6d78\u900f\u8abf\u67fb\u691c\u8a0e\u696d\u52d9","survey_name":"\u6590\u4f0a\u5ddd\u4e0b\u6d41\u5824\u9632\u6d78\u900f\u8abf\u67fb\u691c\u8a0e\u696d\u52d9","client_name":"\u56fd\u571f\u4ea4\u901a\u7701\u4e2d\u56fd\u5730\u65b9\u6574\u5099\u5c40\u51fa\u96f2\u6cb3\u5ddd\u4e8b\u52d9\u6240","boring_xml_url":47,"boring_view_url":1,"soilmap_view_url":null,"soiltest_xml_url":48,"soiltest_view_url":48},{"id":184380,"code":"B4KJ201801007-2629","latitude":"35.343694","longitude":"132.766703","source_code":"CG038736400200160015","project_name":"\u653e\u6c34\u8def\u958b\u524a\u90e8\u5730\u8cea\u8abf\u67fb\u696d\u52d9","survey_name":"\u653e\u6c34\u8def\u958b\u524a\u90e8\u5730\u8cea\u8abf\u67fb\u696d\u52d9","client_name":"\u56fd\u571f\u4ea4\u901a\u7701\u4e2d\u56fd\u5730\u65b9\u6574\u5099\u5c40\u51fa\u96f2\u6cb3\u5ddd\u4e8b\u52d9\u6240","boring_xml_url":47,"boring_view_url":1,"soilmap_view_url":null,"soiltest_xml_url":0,"soiltest_view_url":0},{"id":184379,"code":"B4KJ201801007-2628","latitude":"35.3435","longitude":"132.74744","source_code":"CG038736400200160014","project_name":"\u653e\u6c34\u8def\u958b\u524a\u90e8\u5730\u8cea\u8abf\u67fb\u696d\u52d9","survey_name":"\u653e\u6c34\u8def\u958b\u524a\u90e8\u5730\u8cea\u8abf\u67fb\u696d\u52d9","client_name":"\u56fd\u571f\u4ea4\u901a\u7701\u4e2d\u56fd\u5730\u65b9\u6574\u5099\u5c40\u51fa\u96f2\u6cb3\u5ddd\u4e8b\u52d9\u6240","boring_xml_url":47,"boring_view_url":1,"soilmap_view_url":null,"soiltest_xml_url":0,"soiltest_view_url":0},{"id":184378,"code":"B4KJ201801007-2627","latitude":"35.34444","longitude":"132.74558","source_code":"CG038736400200160013","project_name":"\u653e\u6c34\u8def\u958b\u524a\u90e8\u5730\u8cea\u8abf\u67fb\u696d\u52d9","survey_name":"\u653e\u6c34\u8def\u958b\u524a\u90e8\u5730\u8cea\u8abf\u67fb\u696d\u52d9","client_name":"\u56fd\u571f\u4ea4\u901a\u7701\u4e2d\u56fd\u5730\u65b9\u6574\u5099\u5c40\u51fa\u96f2\u6cb3\u5ddd\u4e8b\u52d9\u6240","boring_xml_url":47,"boring_view_url":1,"soilmap_view_url":null,"soiltest_xml_url":0,"soiltest_view_url":0},{"id":184377,"code":"B4KJ201801007-2626","latitude":"35.34728","longitude":"132.73986","source_code":"CG038736400200160012","project_name":"\u653e\u6c34\u8def\u958b\u524a\u90e8\u5730\u8cea\u8abf\u67fb\u696d\u52d9","survey_name":"\u653e\u6c34\u8def\u958b\u524a\u90e8\u5730\u8cea\u8abf\u67fb\u696d\u52d9","client_name":"\u56fd\u571f\u4ea4\u901a\u7701\u4e2d\u56fd\u5730\u65b9\u6574\u5099\u5c40\u51fa\u96f2\u6cb3\u5ddd\u4e8b\u52d9\u6240","boring_xml_url":47,"boring_view_url":1,"soilmap_view_url":null,"soiltest_xml_url":0,"soiltest_view_url":0},{"id":184376,"code":"B4KJ201801007-2625","latitude":"35.34867","longitude":"132.74081","source_code":"CG038736400200160010","project_name":"\u653e\u6c34\u8def\u958b\u524a\u90e8\u5730\u8cea\u8abf\u67fb\u696d\u52d9","survey_name":"\u653e\u6c34\u8def\u958b\u524a\u90e8\u5730\u8cea\u8abf\u67fb\u696d\u52d9","client_name":"\u56fd\u571f\u4ea4\u901a\u7701\u4e2d\u56fd\u5730\u65b9\u6574\u5099\u5c40\u51fa\u96f2\u6cb3\u5ddd\u4e8b\u52d9\u6240","boring_xml_url":47,"boring_view_url":1,"soilmap_view_url":null,"soiltest_xml_url":0,"soiltest_view_url":0}]}}