{"header":{"xyz":{"source":[],"mosaic":false},"page":4542,"raw":{"soiltest_result":"0","bbox":"57.598333,109.544722,1.933333,163.806111","page":"4542"},"conditions":{"soiltest_result":0,"north":57.598333,"west":109.544722,"south":1.933333,"east":163.806111},"success":true,"message":""},"data":{"meta":{"total":212844,"page":4542,"pages":7095,"count":30},"values":[{"id":184315,"code":"B4KJ201801007-2564","latitude":"35.44244","longitude":"133.06136","source_code":"CG038735400200340014","project_name":"\u4e00\u822c\u56fd\u90539\u53f7\u677e\u6c5f\u9053\u8def","survey_name":"\u677e\u6c5f\u9053\u8def\u4e0a\u4e43\u6728\u5730\u533a\u5730\u8cea\u8abf\u67fb\u5916\u696d\u52d9","client_name":"\u56fd\u571f\u4ea4\u901a\u7701\u4e2d\u56fd\u5730\u65b9\u6574\u5099\u5c40\u677e\u6c5f\u56fd\u9053\u4e8b\u52d9\u6240","boring_xml_url":47,"boring_view_url":1,"soilmap_view_url":null,"soiltest_xml_url":0,"soiltest_view_url":0},{"id":184314,"code":"B4KJ201801007-2563","latitude":"35.44261","longitude":"133.06178","source_code":"CG038735400200340013","project_name":"\u4e00\u822c\u56fd\u90539\u53f7\u677e\u6c5f\u9053\u8def","survey_name":"\u677e\u6c5f\u9053\u8def\u4e0a\u4e43\u6728\u5730\u533a\u5730\u8cea\u8abf\u67fb\u5916\u696d\u52d9","client_name":"\u56fd\u571f\u4ea4\u901a\u7701\u4e2d\u56fd\u5730\u65b9\u6574\u5099\u5c40\u677e\u6c5f\u56fd\u9053\u4e8b\u52d9\u6240","boring_xml_url":47,"boring_view_url":1,"soilmap_view_url":null,"soiltest_xml_url":48,"soiltest_view_url":48},{"id":184313,"code":"B4KJ201801007-2562","latitude":"35.44281","longitude":"133.06219","source_code":"CG038735400200340012","project_name":"\u4e00\u822c\u56fd\u90539\u53f7\u677e\u6c5f\u9053\u8def","survey_name":"\u677e\u6c5f\u9053\u8def\u4e0a\u4e43\u6728\u5730\u533a\u5730\u8cea\u8abf\u67fb\u5916\u696d\u52d9","client_name":"\u56fd\u571f\u4ea4\u901a\u7701\u4e2d\u56fd\u5730\u65b9\u6574\u5099\u5c40\u677e\u6c5f\u56fd\u9053\u4e8b\u52d9\u6240","boring_xml_url":47,"boring_view_url":1,"soilmap_view_url":null,"soiltest_xml_url":0,"soiltest_view_url":0},{"id":184312,"code":"B4KJ201801007-2561","latitude":"35.44294","longitude":"133.06261","source_code":"CG038735400200340011","project_name":"\u4e00\u822c\u56fd\u90539\u53f7\u677e\u6c5f\u9053\u8def","survey_name":"\u677e\u6c5f\u9053\u8def\u4e0a\u4e43\u6728\u5730\u533a\u5730\u8cea\u8abf\u67fb\u5916\u696d\u52d9","client_name":"\u56fd\u571f\u4ea4\u901a\u7701\u4e2d\u56fd\u5730\u65b9\u6574\u5099\u5c40\u677e\u6c5f\u56fd\u9053\u4e8b\u52d9\u6240","boring_xml_url":47,"boring_view_url":1,"soilmap_view_url":null,"soiltest_xml_url":0,"soiltest_view_url":0},{"id":184311,"code":"B4KJ201801007-2560","latitude":"35.4431","longitude":"133.0631","source_code":"CG038735400200340010","project_name":"\u4e00\u822c\u56fd\u90539\u53f7\u677e\u6c5f\u9053\u8def","survey_name":"\u677e\u6c5f\u9053\u8def\u4e0a\u4e43\u6728\u5730\u533a\u5730\u8cea\u8abf\u67fb\u5916\u696d\u52d9","client_name":"\u56fd\u571f\u4ea4\u901a\u7701\u4e2d\u56fd\u5730\u65b9\u6574\u5099\u5c40\u677e\u6c5f\u56fd\u9053\u4e8b\u52d9\u6240","boring_xml_url":47,"boring_view_url":1,"soilmap_view_url":null,"soiltest_xml_url":0,"soiltest_view_url":0},{"id":184310,"code":"B4KJ201801007-2559","latitude":"35.44317","longitude":"133.0635","source_code":"CG038735400200340009","project_name":"\u4e00\u822c\u56fd\u90539\u53f7\u677e\u6c5f\u9053\u8def","survey_name":"\u677e\u6c5f\u9053\u8def\u4e0a\u4e43\u6728\u5730\u533a\u5730\u8cea\u8abf\u67fb\u5916\u696d\u52d9","client_name":"\u56fd\u571f\u4ea4\u901a\u7701\u4e2d\u56fd\u5730\u65b9\u6574\u5099\u5c40\u677e\u6c5f\u56fd\u9053\u4e8b\u52d9\u6240","boring_xml_url":47,"boring_view_url":1,"soilmap_view_url":null,"soiltest_xml_url":48,"soiltest_view_url":48},{"id":184309,"code":"B4KJ201801007-2558","latitude":"35.4435","longitude":"133.06553","source_code":"CG038735400200340008","project_name":"\u4e00\u822c\u56fd\u90539\u53f7\u677e\u6c5f\u9053\u8def","survey_name":"\u677e\u6c5f\u9053\u8def\u4e0a\u4e43\u6728\u5730\u533a\u5730\u8cea\u8abf\u67fb\u5916\u696d\u52d9","client_name":"\u56fd\u571f\u4ea4\u901a\u7701\u4e2d\u56fd\u5730\u65b9\u6574\u5099\u5c40\u677e\u6c5f\u56fd\u9053\u4e8b\u52d9\u6240","boring_xml_url":47,"boring_view_url":1,"soilmap_view_url":null,"soiltest_xml_url":0,"soiltest_view_url":0},{"id":184308,"code":"B4KJ201801007-2557","latitude":"35.4435","longitude":"133.06575","source_code":"CG038735400200340007","project_name":"\u4e00\u822c\u56fd\u90539\u53f7\u677e\u6c5f\u9053\u8def","survey_name":"\u677e\u6c5f\u9053\u8def\u4e0a\u4e43\u6728\u5730\u533a\u5730\u8cea\u8abf\u67fb\u5916\u696d\u52d9","client_name":"\u56fd\u571f\u4ea4\u901a\u7701\u4e2d\u56fd\u5730\u65b9\u6574\u5099\u5c40\u677e\u6c5f\u56fd\u9053\u4e8b\u52d9\u6240","boring_xml_url":47,"boring_view_url":1,"soilmap_view_url":null,"soiltest_xml_url":0,"soiltest_view_url":0},{"id":184307,"code":"B4KJ201801007-2556","latitude":"35.44353","longitude":"133.06619","source_code":"CG038735400200340006","project_name":"\u4e00\u822c\u56fd\u90539\u53f7\u677e\u6c5f\u9053\u8def","survey_name":"\u677e\u6c5f\u9053\u8def\u4e0a\u4e43\u6728\u5730\u533a\u5730\u8cea\u8abf\u67fb\u5916\u696d\u52d9","client_name":"\u56fd\u571f\u4ea4\u901a\u7701\u4e2d\u56fd\u5730\u65b9\u6574\u5099\u5c40\u677e\u6c5f\u56fd\u9053\u4e8b\u52d9\u6240","boring_xml_url":47,"boring_view_url":1,"soilmap_view_url":null,"soiltest_xml_url":0,"soiltest_view_url":0},{"id":184306,"code":"B4KJ201801007-2555","latitude":"35.44353","longitude":"133.06681","source_code":"CG038735400200340005","project_name":"\u4e00\u822c\u56fd\u90539\u53f7\u677e\u6c5f\u9053\u8def","survey_name":"\u677e\u6c5f\u9053\u8def\u4e0a\u4e43\u6728\u5730\u533a\u5730\u8cea\u8abf\u67fb\u5916\u696d\u52d9","client_name":"\u56fd\u571f\u4ea4\u901a\u7701\u4e2d\u56fd\u5730\u65b9\u6574\u5099\u5c40\u677e\u6c5f\u56fd\u9053\u4e8b\u52d9\u6240","boring_xml_url":47,"boring_view_url":1,"soilmap_view_url":null,"soiltest_xml_url":48,"soiltest_view_url":48},{"id":184305,"code":"B4KJ201801007-2554","latitude":"35.44353","longitude":"133.06703","source_code":"CG038735400200340004","project_name":"\u4e00\u822c\u56fd\u90539\u53f7\u677e\u6c5f\u9053\u8def","survey_name":"\u677e\u6c5f\u9053\u8def\u4e0a\u4e43\u6728\u5730\u533a\u5730\u8cea\u8abf\u67fb\u5916\u696d\u52d9","client_name":"\u56fd\u571f\u4ea4\u901a\u7701\u4e2d\u56fd\u5730\u65b9\u6574\u5099\u5c40\u677e\u6c5f\u56fd\u9053\u4e8b\u52d9\u6240","boring_xml_url":47,"boring_view_url":1,"soilmap_view_url":null,"soiltest_xml_url":0,"soiltest_view_url":0},{"id":184304,"code":"B4KJ201801007-2553","latitude":"35.444","longitude":"133.10111","source_code":"CG038735400200340003","project_name":"\u4e00\u822c\u56fd\u90539\u53f7\u677e\u6c5f\u9053\u8def","survey_name":"\u677e\u6c5f\u9053\u8def\u4e0a\u4e43\u6728\u5730\u533a\u5730\u8cea\u8abf\u67fb\u5916\u696d\u52d9","client_name":"\u56fd\u571f\u4ea4\u901a\u7701\u4e2d\u56fd\u5730\u65b9\u6574\u5099\u5c40\u677e\u6c5f\u56fd\u9053\u4e8b\u52d9\u6240","boring_xml_url":47,"boring_view_url":1,"soilmap_view_url":null,"soiltest_xml_url":48,"soiltest_view_url":48},{"id":184303,"code":"B4KJ201801007-2552","latitude":"35.44378","longitude":"133.10114","source_code":"CG038735400200340002","project_name":"\u4e00\u822c\u56fd\u90539\u53f7\u677e\u6c5f\u9053\u8def","survey_name":"\u677e\u6c5f\u9053\u8def\u4e0a\u4e43\u6728\u5730\u533a\u5730\u8cea\u8abf\u67fb\u5916\u696d\u52d9","client_name":"\u56fd\u571f\u4ea4\u901a\u7701\u4e2d\u56fd\u5730\u65b9\u6574\u5099\u5c40\u677e\u6c5f\u56fd\u9053\u4e8b\u52d9\u6240","boring_xml_url":47,"boring_view_url":1,"soilmap_view_url":null,"soiltest_xml_url":0,"soiltest_view_url":0},{"id":184302,"code":"B4KJ201801007-2551","latitude":"35.44389","longitude":"133.10153","source_code":"CG038735400200340001","project_name":"\u4e00\u822c\u56fd\u90539\u53f7\u677e\u6c5f\u9053\u8def","survey_name":"\u677e\u6c5f\u9053\u8def\u4e0a\u4e43\u6728\u5730\u533a\u5730\u8cea\u8abf\u67fb\u5916\u696d\u52d9","client_name":"\u56fd\u571f\u4ea4\u901a\u7701\u4e2d\u56fd\u5730\u65b9\u6574\u5099\u5c40\u677e\u6c5f\u56fd\u9053\u4e8b\u52d9\u6240","boring_xml_url":47,"boring_view_url":1,"soilmap_view_url":null,"soiltest_xml_url":0,"soiltest_view_url":0},{"id":184301,"code":"B4KJ201801007-2550","latitude":"35.48525","longitude":"133.69633","source_code":"CG038731610200400014","project_name":"\u5e73\u621015\u5e74\u5ea6 \u4e00\u822c\u56fd\u90539\u53f7 \u540d\u548c\u30fb\u6dc0\u6c5f\u9053\u8def","survey_name":"\u9580\u524d\u5730\u533a\u4ed6\u5730\u8cea\u8abf\u67fb\u696d\u52d9","client_name":"\u56fd\u571f\u4ea4\u901a\u7701\u4e2d\u56fd\u5730\u65b9\u6574\u5099\u5c40\u5009\u5409\u6cb3\u5ddd\u56fd\u9053\u4e8b\u52d9\u6240","boring_xml_url":47,"boring_view_url":1,"soilmap_view_url":null,"soiltest_xml_url":0,"soiltest_view_url":0},{"id":184300,"code":"B4KJ201801007-2549","latitude":"35.49183","longitude":"133.50136","source_code":"CG038731610200400013","project_name":"\u5e73\u621015\u5e74\u5ea6 \u4e00\u822c\u56fd\u90539\u53f7 \u540d\u548c\u30fb\u6dc0\u6c5f\u9053\u8def","survey_name":"\u9580\u524d\u5730\u533a\u4ed6\u5730\u8cea\u8abf\u67fb\u696d\u52d9","client_name":"\u56fd\u571f\u4ea4\u901a\u7701\u4e2d\u56fd\u5730\u65b9\u6574\u5099\u5c40\u5009\u5409\u6cb3\u5ddd\u56fd\u9053\u4e8b\u52d9\u6240","boring_xml_url":47,"boring_view_url":1,"soilmap_view_url":null,"soiltest_xml_url":0,"soiltest_view_url":0},{"id":184299,"code":"B4KJ201801007-2548","latitude":"35.48489","longitude":"133.69294","source_code":"CG038731610200400012","project_name":"\u5e73\u621015\u5e74\u5ea6 \u4e00\u822c\u56fd\u90539\u53f7 \u540d\u548c\u30fb\u6dc0\u6c5f\u9053\u8def","survey_name":"\u9580\u524d\u5730\u533a\u4ed6\u5730\u8cea\u8abf\u67fb\u696d\u52d9","client_name":"\u56fd\u571f\u4ea4\u901a\u7701\u4e2d\u56fd\u5730\u65b9\u6574\u5099\u5c40\u5009\u5409\u6cb3\u5ddd\u56fd\u9053\u4e8b\u52d9\u6240","boring_xml_url":47,"boring_view_url":1,"soilmap_view_url":null,"soiltest_xml_url":0,"soiltest_view_url":0},{"id":184298,"code":"B4KJ201801007-2547","latitude":"35.48489","longitude":"133.69317","source_code":"CG038731610200400008","project_name":"\u5e73\u621015\u5e74\u5ea6 \u4e00\u822c\u56fd\u90539\u53f7 \u540d\u548c\u30fb\u6dc0\u6c5f\u9053\u8def","survey_name":"\u9580\u524d\u5730\u533a\u4ed6\u5730\u8cea\u8abf\u67fb\u696d\u52d9","client_name":"\u56fd\u571f\u4ea4\u901a\u7701\u4e2d\u56fd\u5730\u65b9\u6574\u5099\u5c40\u5009\u5409\u6cb3\u5ddd\u56fd\u9053\u4e8b\u52d9\u6240","boring_xml_url":47,"boring_view_url":1,"soilmap_view_url":null,"soiltest_xml_url":0,"soiltest_view_url":0},{"id":184297,"code":"B4KJ201801007-2546","latitude":"35.49083","longitude":"133.50006","source_code":"CG038731610200400006","project_name":"\u5e73\u621015\u5e74\u5ea6 \u4e00\u822c\u56fd\u90539\u53f7 \u540d\u548c\u30fb\u6dc0\u6c5f\u9053\u8def","survey_name":"\u9580\u524d\u5730\u533a\u4ed6\u5730\u8cea\u8abf\u67fb\u696d\u52d9","client_name":"\u56fd\u571f\u4ea4\u901a\u7701\u4e2d\u56fd\u5730\u65b9\u6574\u5099\u5c40\u5009\u5409\u6cb3\u5ddd\u56fd\u9053\u4e8b\u52d9\u6240","boring_xml_url":47,"boring_view_url":1,"soilmap_view_url":null,"soiltest_xml_url":0,"soiltest_view_url":0},{"id":184296,"code":"B4KJ201801007-2545","latitude":"35.49103","longitude":"133.50025","source_code":"CG038731610200400005","project_name":"\u5e73\u621015\u5e74\u5ea6 \u4e00\u822c\u56fd\u90539\u53f7 \u540d\u548c\u30fb\u6dc0\u6c5f\u9053\u8def","survey_name":"\u9580\u524d\u5730\u533a\u4ed6\u5730\u8cea\u8abf\u67fb\u696d\u52d9","client_name":"\u56fd\u571f\u4ea4\u901a\u7701\u4e2d\u56fd\u5730\u65b9\u6574\u5099\u5c40\u5009\u5409\u6cb3\u5ddd\u56fd\u9053\u4e8b\u52d9\u6240","boring_xml_url":47,"boring_view_url":1,"soilmap_view_url":null,"soiltest_xml_url":0,"soiltest_view_url":0},{"id":184295,"code":"B4KJ201801007-2544","latitude":"35.49136","longitude":"133.50064","source_code":"CG038731610200400004","project_name":"\u5e73\u621015\u5e74\u5ea6 \u4e00\u822c\u56fd\u90539\u53f7 \u540d\u548c\u30fb\u6dc0\u6c5f\u9053\u8def","survey_name":"\u9580\u524d\u5730\u533a\u4ed6\u5730\u8cea\u8abf\u67fb\u696d\u52d9","client_name":"\u56fd\u571f\u4ea4\u901a\u7701\u4e2d\u56fd\u5730\u65b9\u6574\u5099\u5c40\u5009\u5409\u6cb3\u5ddd\u56fd\u9053\u4e8b\u52d9\u6240","boring_xml_url":47,"boring_view_url":1,"soilmap_view_url":null,"soiltest_xml_url":0,"soiltest_view_url":0},{"id":184294,"code":"B4KJ201801007-2543","latitude":"35.4915","longitude":"133.50089","source_code":"CG038731610200400003","project_name":"\u5e73\u621015\u5e74\u5ea6 \u4e00\u822c\u56fd\u90539\u53f7 \u540d\u548c\u30fb\u6dc0\u6c5f\u9053\u8def","survey_name":"\u9580\u524d\u5730\u533a\u4ed6\u5730\u8cea\u8abf\u67fb\u696d\u52d9","client_name":"\u56fd\u571f\u4ea4\u901a\u7701\u4e2d\u56fd\u5730\u65b9\u6574\u5099\u5c40\u5009\u5409\u6cb3\u5ddd\u56fd\u9053\u4e8b\u52d9\u6240","boring_xml_url":47,"boring_view_url":1,"soilmap_view_url":null,"soiltest_xml_url":0,"soiltest_view_url":0},{"id":184293,"code":"B4KJ201801007-2542","latitude":"35.49164","longitude":"133.50106","source_code":"CG038731610200400002","project_name":"\u5e73\u621015\u5e74\u5ea6 \u4e00\u822c\u56fd\u90539\u53f7 \u540d\u548c\u30fb\u6dc0\u6c5f\u9053\u8def","survey_name":"\u9580\u524d\u5730\u533a\u4ed6\u5730\u8cea\u8abf\u67fb\u696d\u52d9","client_name":"\u56fd\u571f\u4ea4\u901a\u7701\u4e2d\u56fd\u5730\u65b9\u6574\u5099\u5c40\u5009\u5409\u6cb3\u5ddd\u56fd\u9053\u4e8b\u52d9\u6240","boring_xml_url":47,"boring_view_url":1,"soilmap_view_url":null,"soiltest_xml_url":0,"soiltest_view_url":0},{"id":184292,"code":"B4KJ201801007-2541","latitude":"35.49231","longitude":"133.50197","source_code":"CG038731610200400001","project_name":"\u5e73\u621015\u5e74\u5ea6 \u4e00\u822c\u56fd\u90539\u53f7 \u540d\u548c\u30fb\u6dc0\u6c5f\u9053\u8def","survey_name":"\u9580\u524d\u5730\u533a\u4ed6\u5730\u8cea\u8abf\u67fb\u696d\u52d9","client_name":"\u56fd\u571f\u4ea4\u901a\u7701\u4e2d\u56fd\u5730\u65b9\u6574\u5099\u5c40\u5009\u5409\u6cb3\u5ddd\u56fd\u9053\u4e8b\u52d9\u6240","boring_xml_url":47,"boring_view_url":1,"soilmap_view_url":null,"soiltest_xml_url":0,"soiltest_view_url":0},{"id":184291,"code":"B4KJ201801007-2540","latitude":"35.4942147","longitude":"133.6656408","source_code":"CG038731610200070013","project_name":"","survey_name":"\u677e\u8c37\u5730\u533a\u4ed6\u5730\u8cea\u8abf\u67fb\u696d\u52d9","client_name":"\u56fd\u571f\u4ea4\u901a\u7701\u4e2d\u56fd\u5730\u65b9\u6574\u5099\u5c40\u5009\u5409\u6cb3\u5ddd\u56fd\u9053\u4e8b\u52d9\u6240","boring_xml_url":47,"boring_view_url":1,"soilmap_view_url":null,"soiltest_xml_url":0,"soiltest_view_url":0},{"id":184290,"code":"B4KJ201801007-2539","latitude":"35.5036297","longitude":"133.6534417","source_code":"CG038731610200070010","project_name":"","survey_name":"\u677e\u8c37\u5730\u533a\u4ed6\u5730\u8cea\u8abf\u67fb\u696d\u52d9","client_name":"\u56fd\u571f\u4ea4\u901a\u7701\u4e2d\u56fd\u5730\u65b9\u6574\u5099\u5c40\u5009\u5409\u6cb3\u5ddd\u56fd\u9053\u4e8b\u52d9\u6240","boring_xml_url":47,"boring_view_url":1,"soilmap_view_url":null,"soiltest_xml_url":0,"soiltest_view_url":0},{"id":184289,"code":"B4KJ201801007-2538","latitude":"35.5059714","longitude":"133.6487044","source_code":"CG038731610200070009","project_name":"","survey_name":"\u677e\u8c37\u5730\u533a\u4ed6\u5730\u8cea\u8abf\u67fb\u696d\u52d9","client_name":"\u56fd\u571f\u4ea4\u901a\u7701\u4e2d\u56fd\u5730\u65b9\u6574\u5099\u5c40\u5009\u5409\u6cb3\u5ddd\u56fd\u9053\u4e8b\u52d9\u6240","boring_xml_url":47,"boring_view_url":1,"soilmap_view_url":null,"soiltest_xml_url":0,"soiltest_view_url":0},{"id":184288,"code":"B4KJ201801007-2537","latitude":"35.5063628","longitude":"133.6477172","source_code":"CG038731610200070008","project_name":"","survey_name":"\u677e\u8c37\u5730\u533a\u4ed6\u5730\u8cea\u8abf\u67fb\u696d\u52d9","client_name":"\u56fd\u571f\u4ea4\u901a\u7701\u4e2d\u56fd\u5730\u65b9\u6574\u5099\u5c40\u5009\u5409\u6cb3\u5ddd\u56fd\u9053\u4e8b\u52d9\u6240","boring_xml_url":47,"boring_view_url":1,"soilmap_view_url":null,"soiltest_xml_url":0,"soiltest_view_url":0},{"id":184287,"code":"B4KJ201801007-2536","latitude":"35.5086042","longitude":"133.6394303","source_code":"CG038731610200070004","project_name":"","survey_name":"\u677e\u8c37\u5730\u533a\u4ed6\u5730\u8cea\u8abf\u67fb\u696d\u52d9","client_name":"\u56fd\u571f\u4ea4\u901a\u7701\u4e2d\u56fd\u5730\u65b9\u6574\u5099\u5c40\u5009\u5409\u6cb3\u5ddd\u56fd\u9053\u4e8b\u52d9\u6240","boring_xml_url":47,"boring_view_url":1,"soilmap_view_url":null,"soiltest_xml_url":0,"soiltest_view_url":0},{"id":184286,"code":"B4KJ201801007-2535","latitude":"35.5088622","longitude":"133.6389681","source_code":"CG038731610200070003","project_name":"","survey_name":"\u677e\u8c37\u5730\u533a\u4ed6\u5730\u8cea\u8abf\u67fb\u696d\u52d9","client_name":"\u56fd\u571f\u4ea4\u901a\u7701\u4e2d\u56fd\u5730\u65b9\u6574\u5099\u5c40\u5009\u5409\u6cb3\u5ddd\u56fd\u9053\u4e8b\u52d9\u6240","boring_xml_url":47,"boring_view_url":1,"soilmap_view_url":null,"soiltest_xml_url":0,"soiltest_view_url":0}]}}