{"header":{"xyz":{"source":[],"mosaic":false},"page":4557,"raw":{"soiltest_result":"0","bbox":"57.598333,109.544722,1.933333,163.806111","page":"4557"},"conditions":{"soiltest_result":0,"north":57.598333,"west":109.544722,"south":1.933333,"east":163.806111},"success":true,"message":""},"data":{"meta":{"total":212844,"page":4557,"pages":7095,"count":30},"values":[{"id":183865,"code":"B4KJ201801007-2114","latitude":"35.2317125","longitude":"132.9606381","source_code":"CG018738410200080007","project_name":"","survey_name":"\u5c3e\u539f\u30c0\u30e0\u5e73\u7530\u4f50\u767d\u7dda\u4ed6\u5730\u8cea\u8abf\u67fb\u696d\u52d9","client_name":"\u56fd\u571f\u4ea4\u901a\u7701\u4e2d\u56fd\u5730\u65b9\u6574\u5099\u5c40\u6590\u4f0a\u5ddd\u30fb\u795e\u6238\u5ddd\u7dcf\u5408\u958b\u767a\u5de5\u4e8b\u4e8b\u52d9\u6240","boring_xml_url":47,"boring_view_url":1,"soilmap_view_url":null,"soiltest_xml_url":0,"soiltest_view_url":0},{"id":183864,"code":"B4KJ201801007-2113","latitude":"35.2316228","longitude":"132.9602925","source_code":"CG018738410200080004","project_name":"","survey_name":"\u5c3e\u539f\u30c0\u30e0\u5e73\u7530\u4f50\u767d\u7dda\u4ed6\u5730\u8cea\u8abf\u67fb\u696d\u52d9","client_name":"\u56fd\u571f\u4ea4\u901a\u7701\u4e2d\u56fd\u5730\u65b9\u6574\u5099\u5c40\u6590\u4f0a\u5ddd\u30fb\u795e\u6238\u5ddd\u7dcf\u5408\u958b\u767a\u5de5\u4e8b\u4e8b\u52d9\u6240","boring_xml_url":47,"boring_view_url":1,"soilmap_view_url":null,"soiltest_xml_url":0,"soiltest_view_url":0},{"id":183863,"code":"B4KJ201801007-2112","latitude":"35.2317772","longitude":"132.9575939","source_code":"CG018738410200080003","project_name":"","survey_name":"\u5c3e\u539f\u30c0\u30e0\u5e73\u7530\u4f50\u767d\u7dda\u4ed6\u5730\u8cea\u8abf\u67fb\u696d\u52d9","client_name":"\u56fd\u571f\u4ea4\u901a\u7701\u4e2d\u56fd\u5730\u65b9\u6574\u5099\u5c40\u6590\u4f0a\u5ddd\u30fb\u795e\u6238\u5ddd\u7dcf\u5408\u958b\u767a\u5de5\u4e8b\u4e8b\u52d9\u6240","boring_xml_url":47,"boring_view_url":1,"soilmap_view_url":null,"soiltest_xml_url":0,"soiltest_view_url":0},{"id":183862,"code":"B4KJ201801007-2111","latitude":"35.2306722","longitude":"132.951205","source_code":"CG018738410200080002","project_name":"","survey_name":"\u5c3e\u539f\u30c0\u30e0\u5e73\u7530\u4f50\u767d\u7dda\u4ed6\u5730\u8cea\u8abf\u67fb\u696d\u52d9","client_name":"\u56fd\u571f\u4ea4\u901a\u7701\u4e2d\u56fd\u5730\u65b9\u6574\u5099\u5c40\u6590\u4f0a\u5ddd\u30fb\u795e\u6238\u5ddd\u7dcf\u5408\u958b\u767a\u5de5\u4e8b\u4e8b\u52d9\u6240","boring_xml_url":47,"boring_view_url":1,"soilmap_view_url":null,"soiltest_xml_url":0,"soiltest_view_url":0},{"id":183861,"code":"B4KJ201801007-2110","latitude":"35.2293322","longitude":"132.9487189","source_code":"CG018738410200080001","project_name":"","survey_name":"\u5c3e\u539f\u30c0\u30e0\u5e73\u7530\u4f50\u767d\u7dda\u4ed6\u5730\u8cea\u8abf\u67fb\u696d\u52d9","client_name":"\u56fd\u571f\u4ea4\u901a\u7701\u4e2d\u56fd\u5730\u65b9\u6574\u5099\u5c40\u6590\u4f0a\u5ddd\u30fb\u795e\u6238\u5ddd\u7dcf\u5408\u958b\u767a\u5de5\u4e8b\u4e8b\u52d9\u6240","boring_xml_url":47,"boring_view_url":1,"soilmap_view_url":null,"soiltest_xml_url":0,"soiltest_view_url":0},{"id":183860,"code":"B4KJ201801007-2109","latitude":"34.6828278","longitude":"131.8198697","source_code":"CG018737600200490002","project_name":"","survey_name":"\u76ca\u7530\u9053\u8def\u5730\u65b9\u5730\u533a\u5730\u8cea\u8abf\u67fb\u696d\u52d9","client_name":"\u56fd\u571f\u4ea4\u901a\u7701\u4e2d\u56fd\u5730\u65b9\u6574\u5099\u5c40\u6d5c\u7530\u5de5\u4e8b\u4e8b\u52d9\u6240","boring_xml_url":47,"boring_view_url":1,"soilmap_view_url":null,"soiltest_xml_url":0,"soiltest_view_url":0},{"id":183859,"code":"B4KJ201801007-2108","latitude":"34.6829942","longitude":"131.8201753","source_code":"CG018737600200490001","project_name":"","survey_name":"\u76ca\u7530\u9053\u8def\u5730\u65b9\u5730\u533a\u5730\u8cea\u8abf\u67fb\u696d\u52d9","client_name":"\u56fd\u571f\u4ea4\u901a\u7701\u4e2d\u56fd\u5730\u65b9\u6574\u5099\u5c40\u6d5c\u7530\u5de5\u4e8b\u4e8b\u52d9\u6240","boring_xml_url":47,"boring_view_url":1,"soilmap_view_url":null,"soiltest_xml_url":0,"soiltest_view_url":0},{"id":183858,"code":"B4KJ201801007-2107","latitude":"34.9986894","longitude":"132.2819017","source_code":"CG018737400200390004","project_name":"","survey_name":"\u6c5f\u306e\u5ddd\u5ddd\u5e73\u5730\u533a\u5730\u8cea\u8abf\u67fb\u696d\u52d9","client_name":"\u56fd\u571f\u4ea4\u901a\u7701\u4e2d\u56fd\u5730\u65b9\u6574\u5099\u5c40\u6d5c\u7530\u5de5\u4e8b\u4e8b\u52d9\u6240","boring_xml_url":47,"boring_view_url":1,"soilmap_view_url":null,"soiltest_xml_url":0,"soiltest_view_url":0},{"id":183857,"code":"B4KJ201801007-2106","latitude":"34.9989672","longitude":"132.2821794","source_code":"CG018737400200390003","project_name":"","survey_name":"\u6c5f\u306e\u5ddd\u5ddd\u5e73\u5730\u533a\u5730\u8cea\u8abf\u67fb\u696d\u52d9","client_name":"\u56fd\u571f\u4ea4\u901a\u7701\u4e2d\u56fd\u5730\u65b9\u6574\u5099\u5c40\u6d5c\u7530\u5de5\u4e8b\u4e8b\u52d9\u6240","boring_xml_url":47,"boring_view_url":1,"soilmap_view_url":null,"soiltest_xml_url":0,"soiltest_view_url":0},{"id":183856,"code":"B4KJ201801007-2105","latitude":"34.9989672","longitude":"132.2810683","source_code":"CG018737400200390002","project_name":"","survey_name":"\u6c5f\u306e\u5ddd\u5ddd\u5e73\u5730\u533a\u5730\u8cea\u8abf\u67fb\u696d\u52d9","client_name":"\u56fd\u571f\u4ea4\u901a\u7701\u4e2d\u56fd\u5730\u65b9\u6574\u5099\u5c40\u6d5c\u7530\u5de5\u4e8b\u4e8b\u52d9\u6240","boring_xml_url":47,"boring_view_url":1,"soilmap_view_url":null,"soiltest_xml_url":0,"soiltest_view_url":0},{"id":183855,"code":"B4KJ201801007-2104","latitude":"34.999245","longitude":"132.2807906","source_code":"CG018737400200390001","project_name":"","survey_name":"\u6c5f\u306e\u5ddd\u5ddd\u5e73\u5730\u533a\u5730\u8cea\u8abf\u67fb\u696d\u52d9","client_name":"\u56fd\u571f\u4ea4\u901a\u7701\u4e2d\u56fd\u5730\u65b9\u6574\u5099\u5c40\u6d5c\u7530\u5de5\u4e8b\u4e8b\u52d9\u6240","boring_xml_url":47,"boring_view_url":1,"soilmap_view_url":null,"soiltest_xml_url":0,"soiltest_view_url":0},{"id":183854,"code":"B4KJ201801007-2103","latitude":"35.36994","longitude":"132.78922","source_code":"CG018735400200150009","project_name":"\u4f75\u5ddd\u5730\u533a\u5730\u8cea\u8abf\u67fb\u696d\u52d9","survey_name":"\u4f75\u5ddd\u5730\u533a\u5730\u8cea\u8abf\u67fb\u696d\u52d9","client_name":"\u56fd\u571f\u4ea4\u901a\u7701\u4e2d\u56fd\u5730\u65b9\u6574\u5099\u5c40\u677e\u6c5f\u56fd\u9053\u5de5\u4e8b\u4e8b\u52d9\u6240","boring_xml_url":47,"boring_view_url":1,"soilmap_view_url":null,"soiltest_xml_url":0,"soiltest_view_url":0},{"id":183853,"code":"B4KJ201801007-2102","latitude":"35.36981","longitude":"132.79","source_code":"CG018735400200150008","project_name":"\u4f75\u5ddd\u5730\u533a\u5730\u8cea\u8abf\u67fb\u696d\u52d9","survey_name":"\u4f75\u5ddd\u5730\u533a\u5730\u8cea\u8abf\u67fb\u696d\u52d9","client_name":"\u56fd\u571f\u4ea4\u901a\u7701\u4e2d\u56fd\u5730\u65b9\u6574\u5099\u5c40\u677e\u6c5f\u56fd\u9053\u5de5\u4e8b\u4e8b\u52d9\u6240","boring_xml_url":47,"boring_view_url":1,"soilmap_view_url":null,"soiltest_xml_url":0,"soiltest_view_url":0},{"id":183852,"code":"B4KJ201801007-2101","latitude":"35.36975","longitude":"132.79033","source_code":"CG018735400200150007","project_name":"\u4f75\u5ddd\u5730\u533a\u5730\u8cea\u8abf\u67fb\u696d\u52d9","survey_name":"\u4f75\u5ddd\u5730\u533a\u5730\u8cea\u8abf\u67fb\u696d\u52d9","client_name":"\u56fd\u571f\u4ea4\u901a\u7701\u4e2d\u56fd\u5730\u65b9\u6574\u5099\u5c40\u677e\u6c5f\u56fd\u9053\u5de5\u4e8b\u4e8b\u52d9\u6240","boring_xml_url":47,"boring_view_url":1,"soilmap_view_url":null,"soiltest_xml_url":0,"soiltest_view_url":0},{"id":183851,"code":"B4KJ201801007-2100","latitude":"35.36972","longitude":"132.79061","source_code":"CG018735400200150006","project_name":"\u4f75\u5ddd\u5730\u533a\u5730\u8cea\u8abf\u67fb\u696d\u52d9","survey_name":"\u4f75\u5ddd\u5730\u533a\u5730\u8cea\u8abf\u67fb\u696d\u52d9","client_name":"\u56fd\u571f\u4ea4\u901a\u7701\u4e2d\u56fd\u5730\u65b9\u6574\u5099\u5c40\u677e\u6c5f\u56fd\u9053\u5de5\u4e8b\u4e8b\u52d9\u6240","boring_xml_url":47,"boring_view_url":1,"soilmap_view_url":null,"soiltest_xml_url":0,"soiltest_view_url":0},{"id":183850,"code":"B4KJ201801007-2099","latitude":"35.36969","longitude":"132.79083","source_code":"CG018735400200150005","project_name":"\u4f75\u5ddd\u5730\u533a\u5730\u8cea\u8abf\u67fb\u696d\u52d9","survey_name":"\u4f75\u5ddd\u5730\u533a\u5730\u8cea\u8abf\u67fb\u696d\u52d9","client_name":"\u56fd\u571f\u4ea4\u901a\u7701\u4e2d\u56fd\u5730\u65b9\u6574\u5099\u5c40\u677e\u6c5f\u56fd\u9053\u5de5\u4e8b\u4e8b\u52d9\u6240","boring_xml_url":47,"boring_view_url":1,"soilmap_view_url":null,"soiltest_xml_url":0,"soiltest_view_url":0},{"id":183849,"code":"B4KJ201801007-2098","latitude":"35.36969","longitude":"132.79108","source_code":"CG018735400200150004","project_name":"\u4f75\u5ddd\u5730\u533a\u5730\u8cea\u8abf\u67fb\u696d\u52d9","survey_name":"\u4f75\u5ddd\u5730\u533a\u5730\u8cea\u8abf\u67fb\u696d\u52d9","client_name":"\u56fd\u571f\u4ea4\u901a\u7701\u4e2d\u56fd\u5730\u65b9\u6574\u5099\u5c40\u677e\u6c5f\u56fd\u9053\u5de5\u4e8b\u4e8b\u52d9\u6240","boring_xml_url":47,"boring_view_url":1,"soilmap_view_url":null,"soiltest_xml_url":0,"soiltest_view_url":0},{"id":183848,"code":"B4KJ201801007-2097","latitude":"35.36969","longitude":"132.79128","source_code":"CG018735400200150003","project_name":"\u4f75\u5ddd\u5730\u533a\u5730\u8cea\u8abf\u67fb\u696d\u52d9","survey_name":"\u4f75\u5ddd\u5730\u533a\u5730\u8cea\u8abf\u67fb\u696d\u52d9","client_name":"\u56fd\u571f\u4ea4\u901a\u7701\u4e2d\u56fd\u5730\u65b9\u6574\u5099\u5c40\u677e\u6c5f\u56fd\u9053\u5de5\u4e8b\u4e8b\u52d9\u6240","boring_xml_url":47,"boring_view_url":1,"soilmap_view_url":null,"soiltest_xml_url":0,"soiltest_view_url":0},{"id":183847,"code":"B4KJ201801007-2096","latitude":"35.36969","longitude":"132.79153","source_code":"CG018735400200150002","project_name":"\u4f75\u5ddd\u5730\u533a\u5730\u8cea\u8abf\u67fb\u696d\u52d9","survey_name":"\u4f75\u5ddd\u5730\u533a\u5730\u8cea\u8abf\u67fb\u696d\u52d9","client_name":"\u56fd\u571f\u4ea4\u901a\u7701\u4e2d\u56fd\u5730\u65b9\u6574\u5099\u5c40\u677e\u6c5f\u56fd\u9053\u5de5\u4e8b\u4e8b\u52d9\u6240","boring_xml_url":47,"boring_view_url":1,"soilmap_view_url":null,"soiltest_xml_url":0,"soiltest_view_url":0},{"id":183846,"code":"B4KJ201801007-2095","latitude":"35.36967","longitude":"132.79178","source_code":"CG018735400200150001","project_name":"\u4f75\u5ddd\u5730\u533a\u5730\u8cea\u8abf\u67fb\u696d\u52d9","survey_name":"\u4f75\u5ddd\u5730\u533a\u5730\u8cea\u8abf\u67fb\u696d\u52d9","client_name":"\u56fd\u571f\u4ea4\u901a\u7701\u4e2d\u56fd\u5730\u65b9\u6574\u5099\u5c40\u677e\u6c5f\u56fd\u9053\u5de5\u4e8b\u4e8b\u52d9\u6240","boring_xml_url":47,"boring_view_url":1,"soilmap_view_url":null,"soiltest_xml_url":0,"soiltest_view_url":0},{"id":183845,"code":"B4KJ201801007-2094","latitude":"35.4866078","longitude":"133.6810094","source_code":"CG018731610200450016","project_name":"\u6771\u4f2f\u5730\u533a\u4ed6\u6a4b\u6881\u5730\u8cea\u8abf\u67fb\u696d\u52d9","survey_name":"\u6771\u4f2f\u5730\u533a\u4ed6\u6a4b\u6881\u5730\u8cea\u8abf\u67fb\u696d\u52d9","client_name":"\u56fd\u571f\u4ea4\u901a\u7701\u4e2d\u56fd\u5730\u65b9\u6574\u5099\u5c40\u5009\u5409\u5de5\u4e8b\u4e8b\u52d9\u6240","boring_xml_url":47,"boring_view_url":1,"soilmap_view_url":null,"soiltest_xml_url":0,"soiltest_view_url":0},{"id":183844,"code":"B4KJ201801007-2093","latitude":"35.4856078","longitude":"133.6848981","source_code":"CG018731610200450015","project_name":"\u6771\u4f2f\u5730\u533a\u4ed6\u6a4b\u6881\u5730\u8cea\u8abf\u67fb\u696d\u52d9","survey_name":"\u6771\u4f2f\u5730\u533a\u4ed6\u6a4b\u6881\u5730\u8cea\u8abf\u67fb\u696d\u52d9","client_name":"\u56fd\u571f\u4ea4\u901a\u7701\u4e2d\u56fd\u5730\u65b9\u6574\u5099\u5c40\u5009\u5409\u5de5\u4e8b\u4e8b\u52d9\u6240","boring_xml_url":47,"boring_view_url":1,"soilmap_view_url":null,"soiltest_xml_url":0,"soiltest_view_url":0},{"id":183843,"code":"B4KJ201801007-2092","latitude":"35.4851867","longitude":"133.4829994","source_code":"CG018731610200450014","project_name":"\u6771\u4f2f\u5730\u533a\u4ed6\u6a4b\u6881\u5730\u8cea\u8abf\u67fb\u696d\u52d9","survey_name":"\u6771\u4f2f\u5730\u533a\u4ed6\u6a4b\u6881\u5730\u8cea\u8abf\u67fb\u696d\u52d9","client_name":"\u56fd\u571f\u4ea4\u901a\u7701\u4e2d\u56fd\u5730\u65b9\u6574\u5099\u5c40\u5009\u5409\u5de5\u4e8b\u4e8b\u52d9\u6240","boring_xml_url":47,"boring_view_url":1,"soilmap_view_url":null,"soiltest_xml_url":0,"soiltest_view_url":0},{"id":183842,"code":"B4KJ201801007-2091","latitude":"35.4854922","longitude":"133.4837217","source_code":"CG018731610200450013","project_name":"\u6771\u4f2f\u5730\u533a\u4ed6\u6a4b\u6881\u5730\u8cea\u8abf\u67fb\u696d\u52d9","survey_name":"\u6771\u4f2f\u5730\u533a\u4ed6\u6a4b\u6881\u5730\u8cea\u8abf\u67fb\u696d\u52d9","client_name":"\u56fd\u571f\u4ea4\u901a\u7701\u4e2d\u56fd\u5730\u65b9\u6574\u5099\u5c40\u5009\u5409\u5de5\u4e8b\u4e8b\u52d9\u6240","boring_xml_url":47,"boring_view_url":1,"soilmap_view_url":null,"soiltest_xml_url":0,"soiltest_view_url":0},{"id":183841,"code":"B4KJ201801007-2090","latitude":"35.4971025","longitude":"133.5015531","source_code":"CG018731610200450012","project_name":"\u6771\u4f2f\u5730\u533a\u4ed6\u6a4b\u6881\u5730\u8cea\u8abf\u67fb\u696d\u52d9","survey_name":"\u6771\u4f2f\u5730\u533a\u4ed6\u6a4b\u6881\u5730\u8cea\u8abf\u67fb\u696d\u52d9","client_name":"\u56fd\u571f\u4ea4\u901a\u7701\u4e2d\u56fd\u5730\u65b9\u6574\u5099\u5c40\u5009\u5409\u5de5\u4e8b\u4e8b\u52d9\u6240","boring_xml_url":47,"boring_view_url":1,"soilmap_view_url":null,"soiltest_xml_url":0,"soiltest_view_url":0},{"id":183840,"code":"B4KJ201801007-2089","latitude":"35.5054103","longitude":"133.6501783","source_code":"CG018731610200450010","project_name":"\u6771\u4f2f\u5730\u533a\u4ed6\u6a4b\u6881\u5730\u8cea\u8abf\u67fb\u696d\u52d9","survey_name":"\u6771\u4f2f\u5730\u533a\u4ed6\u6a4b\u6881\u5730\u8cea\u8abf\u67fb\u696d\u52d9","client_name":"\u56fd\u571f\u4ea4\u901a\u7701\u4e2d\u56fd\u5730\u65b9\u6574\u5099\u5c40\u5009\u5409\u5de5\u4e8b\u4e8b\u52d9\u6240","boring_xml_url":47,"boring_view_url":1,"soilmap_view_url":null,"soiltest_xml_url":0,"soiltest_view_url":0},{"id":183839,"code":"B4KJ201801007-2088","latitude":"35.5044939","longitude":"133.6520947","source_code":"CG018731610200450009","project_name":"\u6771\u4f2f\u5730\u533a\u4ed6\u6a4b\u6881\u5730\u8cea\u8abf\u67fb\u696d\u52d9","survey_name":"\u6771\u4f2f\u5730\u533a\u4ed6\u6a4b\u6881\u5730\u8cea\u8abf\u67fb\u696d\u52d9","client_name":"\u56fd\u571f\u4ea4\u901a\u7701\u4e2d\u56fd\u5730\u65b9\u6574\u5099\u5c40\u5009\u5409\u5de5\u4e8b\u4e8b\u52d9\u6240","boring_xml_url":47,"boring_view_url":1,"soilmap_view_url":null,"soiltest_xml_url":0,"soiltest_view_url":0},{"id":183838,"code":"B4KJ201801007-2087","latitude":"35.5040217","longitude":"133.6530114","source_code":"CG018731610200450008","project_name":"\u6771\u4f2f\u5730\u533a\u4ed6\u6a4b\u6881\u5730\u8cea\u8abf\u67fb\u696d\u52d9","survey_name":"\u6771\u4f2f\u5730\u533a\u4ed6\u6a4b\u6881\u5730\u8cea\u8abf\u67fb\u696d\u52d9","client_name":"\u56fd\u571f\u4ea4\u901a\u7701\u4e2d\u56fd\u5730\u65b9\u6574\u5099\u5c40\u5009\u5409\u5de5\u4e8b\u4e8b\u52d9\u6240","boring_xml_url":47,"boring_view_url":1,"soilmap_view_url":null,"soiltest_xml_url":0,"soiltest_view_url":0},{"id":183837,"code":"B4KJ201801007-2086","latitude":"35.4945786","longitude":"133.665705","source_code":"CG018731610200450005","project_name":"\u6771\u4f2f\u5730\u533a\u4ed6\u6a4b\u6881\u5730\u8cea\u8abf\u67fb\u696d\u52d9","survey_name":"\u6771\u4f2f\u5730\u533a\u4ed6\u6a4b\u6881\u5730\u8cea\u8abf\u67fb\u696d\u52d9","client_name":"\u56fd\u571f\u4ea4\u901a\u7701\u4e2d\u56fd\u5730\u65b9\u6574\u5099\u5c40\u5009\u5409\u5de5\u4e8b\u4e8b\u52d9\u6240","boring_xml_url":47,"boring_view_url":1,"soilmap_view_url":null,"soiltest_xml_url":0,"soiltest_view_url":0},{"id":183836,"code":"B4KJ201801007-2085","latitude":"35.4942453","longitude":"133.6662883","source_code":"CG018731610200450004","project_name":"\u6771\u4f2f\u5730\u533a\u4ed6\u6a4b\u6881\u5730\u8cea\u8abf\u67fb\u696d\u52d9","survey_name":"\u6771\u4f2f\u5730\u533a\u4ed6\u6a4b\u6881\u5730\u8cea\u8abf\u67fb\u696d\u52d9","client_name":"\u56fd\u571f\u4ea4\u901a\u7701\u4e2d\u56fd\u5730\u65b9\u6574\u5099\u5c40\u5009\u5409\u5de5\u4e8b\u4e8b\u52d9\u6240","boring_xml_url":47,"boring_view_url":1,"soilmap_view_url":null,"soiltest_xml_url":0,"soiltest_view_url":0}]}}