{"header":{"xyz":{"source":[],"mosaic":false},"page":4559,"raw":{"soiltest_result":"0","bbox":"57.598333,109.544722,1.933333,163.806111","page":"4559"},"conditions":{"soiltest_result":0,"north":57.598333,"west":109.544722,"south":1.933333,"east":163.806111},"success":true,"message":""},"data":{"meta":{"total":212844,"page":4559,"pages":7095,"count":30},"values":[{"id":183805,"code":"B4KJ201801007-2054","latitude":"36.2155808","longitude":"136.1408189","source_code":"KK54362151016","project_name":"","survey_name":"\u4e5d\u982d\u9f8d\u5ddd\u30dc\u30fc\u30ea\u30f3\u30b0\u5de5\u4e8b\u59161\u4ef6\u5de5\u4e8b","client_name":"\u56fd\u571f\u4ea4\u901a\u7701\u8fd1\u757f\u5730\u65b9\u6574\u5099\u5c40\u798f\u4e95\u6cb3\u5ddd\u56fd\u9053\u4e8b\u52d9\u6240","boring_xml_url":40,"boring_view_url":1,"soilmap_view_url":null,"soiltest_xml_url":0,"soiltest_view_url":0},{"id":183804,"code":"B4KJ201801007-2053","latitude":"36.2155808","longitude":"136.1408189","source_code":"KK54362151015","project_name":"","survey_name":"\u4e5d\u982d\u9f8d\u5ddd\u30dc\u30fc\u30ea\u30f3\u30b0\u5de5\u4e8b\u59161\u4ef6\u5de5\u4e8b","client_name":"\u56fd\u571f\u4ea4\u901a\u7701\u8fd1\u757f\u5730\u65b9\u6574\u5099\u5c40\u798f\u4e95\u6cb3\u5ddd\u56fd\u9053\u4e8b\u52d9\u6240","boring_xml_url":40,"boring_view_url":1,"soilmap_view_url":null,"soiltest_xml_url":0,"soiltest_view_url":0},{"id":183803,"code":"B4KJ201801007-2052","latitude":"36.2155808","longitude":"136.1408189","source_code":"KK54362151014","project_name":"","survey_name":"\u4e5d\u982d\u9f8d\u5ddd\u30dc\u30fc\u30ea\u30f3\u30b0\u5de5\u4e8b\u59161\u4ef6\u5de5\u4e8b","client_name":"\u56fd\u571f\u4ea4\u901a\u7701\u8fd1\u757f\u5730\u65b9\u6574\u5099\u5c40\u798f\u4e95\u6cb3\u5ddd\u56fd\u9053\u4e8b\u52d9\u6240","boring_xml_url":40,"boring_view_url":1,"soilmap_view_url":null,"soiltest_xml_url":0,"soiltest_view_url":0},{"id":183802,"code":"B4KJ201801007-2051","latitude":"36.2159142","longitude":"136.1439019","source_code":"KK54362151013","project_name":"","survey_name":"\u4e0b\u771f\u7802\u30dc\u30fc\u30ea\u30f3\u30b0\u5de5\u4e8b","client_name":"\u56fd\u571f\u4ea4\u901a\u7701\u8fd1\u757f\u5730\u65b9\u6574\u5099\u5c40\u798f\u4e95\u6cb3\u5ddd\u56fd\u9053\u4e8b\u52d9\u6240","boring_xml_url":40,"boring_view_url":1,"soilmap_view_url":null,"soiltest_xml_url":0,"soiltest_view_url":0},{"id":183801,"code":"B4KJ201801007-2050","latitude":"36.2161086","longitude":"136.1437353","source_code":"KK54362151012","project_name":"","survey_name":"\u4e0b\u771f\u7802\u30dc\u30fc\u30ea\u30f3\u30b0\u5de5\u4e8b","client_name":"\u56fd\u571f\u4ea4\u901a\u7701\u8fd1\u757f\u5730\u65b9\u6574\u5099\u5c40\u798f\u4e95\u6cb3\u5ddd\u56fd\u9053\u4e8b\u52d9\u6240","boring_xml_url":40,"boring_view_url":1,"soilmap_view_url":null,"soiltest_xml_url":0,"soiltest_view_url":0},{"id":183800,"code":"B4KJ201801007-2049","latitude":"36.2162753","longitude":"136.1435408","source_code":"KK54362151011","project_name":"","survey_name":"\u4e0b\u771f\u7802\u30dc\u30fc\u30ea\u30f3\u30b0\u5de5\u4e8b","client_name":"\u56fd\u571f\u4ea4\u901a\u7701\u8fd1\u757f\u5730\u65b9\u6574\u5099\u5c40\u798f\u4e95\u6cb3\u5ddd\u56fd\u9053\u4e8b\u52d9\u6240","boring_xml_url":40,"boring_view_url":1,"soilmap_view_url":null,"soiltest_xml_url":0,"soiltest_view_url":0},{"id":183799,"code":"B4KJ201801007-2048","latitude":"36.2164697","longitude":"136.1434575","source_code":"KK54362151010","project_name":"","survey_name":"\u4e0b\u771f\u7802\u30dc\u30fc\u30ea\u30f3\u30b0\u5de5\u4e8b","client_name":"\u56fd\u571f\u4ea4\u901a\u7701\u8fd1\u757f\u5730\u65b9\u6574\u5099\u5c40\u798f\u4e95\u6cb3\u5ddd\u56fd\u9053\u4e8b\u52d9\u6240","boring_xml_url":40,"boring_view_url":1,"soilmap_view_url":null,"soiltest_xml_url":0,"soiltest_view_url":0},{"id":183798,"code":"B4KJ201801007-2047","latitude":"36.2166919","longitude":"136.1434019","source_code":"KK54362151009","project_name":"","survey_name":"\u4e0b\u771f\u7802\u30dc\u30fc\u30ea\u30f3\u30b0\u5de5\u4e8b","client_name":"\u56fd\u571f\u4ea4\u901a\u7701\u8fd1\u757f\u5730\u65b9\u6574\u5099\u5c40\u798f\u4e95\u6cb3\u5ddd\u56fd\u9053\u4e8b\u52d9\u6240","boring_xml_url":40,"boring_view_url":1,"soilmap_view_url":null,"soiltest_xml_url":0,"soiltest_view_url":0},{"id":183797,"code":"B4KJ201801007-2046","latitude":"36.2169142","longitude":"136.1432631","source_code":"KK54362151008","project_name":"","survey_name":"\u4e0b\u771f\u7802\u30dc\u30fc\u30ea\u30f3\u30b0\u5de5\u4e8b","client_name":"\u56fd\u571f\u4ea4\u901a\u7701\u8fd1\u757f\u5730\u65b9\u6574\u5099\u5c40\u798f\u4e95\u6cb3\u5ddd\u56fd\u9053\u4e8b\u52d9\u6240","boring_xml_url":40,"boring_view_url":1,"soilmap_view_url":null,"soiltest_xml_url":0,"soiltest_view_url":0},{"id":183796,"code":"B4KJ201801007-2045","latitude":"36.2171364","longitude":"136.1430964","source_code":"KK54362151007","project_name":"","survey_name":"\u4e0b\u771f\u7802\u30dc\u30fc\u30ea\u30f3\u30b0\u5de5\u4e8b","client_name":"\u56fd\u571f\u4ea4\u901a\u7701\u8fd1\u757f\u5730\u65b9\u6574\u5099\u5c40\u798f\u4e95\u6cb3\u5ddd\u56fd\u9053\u4e8b\u52d9\u6240","boring_xml_url":40,"boring_view_url":1,"soilmap_view_url":null,"soiltest_xml_url":0,"soiltest_view_url":0},{"id":183795,"code":"B4KJ201801007-2044","latitude":"36.2173306","longitude":"136.1429853","source_code":"KK54362151006","project_name":"","survey_name":"\u4e0b\u771f\u7802\u30dc\u30fc\u30ea\u30f3\u30b0\u5de5\u4e8b","client_name":"\u56fd\u571f\u4ea4\u901a\u7701\u8fd1\u757f\u5730\u65b9\u6574\u5099\u5c40\u798f\u4e95\u6cb3\u5ddd\u56fd\u9053\u4e8b\u52d9\u6240","boring_xml_url":40,"boring_view_url":1,"soilmap_view_url":null,"soiltest_xml_url":0,"soiltest_view_url":0},{"id":183794,"code":"B4KJ201801007-2043","latitude":"36.2175528","longitude":"136.1429019","source_code":"KK54362151005","project_name":"","survey_name":"\u4e0b\u771f\u7802\u30dc\u30fc\u30ea\u30f3\u30b0\u5de5\u4e8b","client_name":"\u56fd\u571f\u4ea4\u901a\u7701\u8fd1\u757f\u5730\u65b9\u6574\u5099\u5c40\u798f\u4e95\u6cb3\u5ddd\u56fd\u9053\u4e8b\u52d9\u6240","boring_xml_url":40,"boring_view_url":1,"soilmap_view_url":null,"soiltest_xml_url":0,"soiltest_view_url":0},{"id":183793,"code":"B4KJ201801007-2042","latitude":"36.2177194","longitude":"136.1427353","source_code":"KK54362151004","project_name":"","survey_name":"\u4e0b\u771f\u7802\u30dc\u30fc\u30ea\u30f3\u30b0\u5de5\u4e8b","client_name":"\u56fd\u571f\u4ea4\u901a\u7701\u8fd1\u757f\u5730\u65b9\u6574\u5099\u5c40\u798f\u4e95\u6cb3\u5ddd\u56fd\u9053\u4e8b\u52d9\u6240","boring_xml_url":40,"boring_view_url":1,"soilmap_view_url":null,"soiltest_xml_url":0,"soiltest_view_url":0},{"id":183792,"code":"B4KJ201801007-2041","latitude":"36.2183583","longitude":"136.1420689","source_code":"KK54362151001","project_name":"","survey_name":"\u4e0b\u771f\u7802\u30dc\u30fc\u30ea\u30f3\u30b0\u5de5\u4e8b","client_name":"\u56fd\u571f\u4ea4\u901a\u7701\u8fd1\u757f\u5730\u65b9\u6574\u5099\u5c40\u798f\u4e95\u6cb3\u5ddd\u56fd\u9053\u4e8b\u52d9\u6240","boring_xml_url":40,"boring_view_url":1,"soilmap_view_url":null,"soiltest_xml_url":0,"soiltest_view_url":0},{"id":183791,"code":"B4KJ201801007-2040","latitude":"36.216108","longitude":"136.134486","source_code":"KK54362150012","project_name":"","survey_name":"\u4e5d\u982d\u7adc\u5ddd\u30de\u30ea\u30fc\u30ca\u8a73\u7d30\u8a2d\u8a08\u53ca\u3073\u5730\u8cea\u8abf\u67fb\u696d\u52d9","client_name":"\u56fd\u571f\u4ea4\u901a\u7701\u8fd1\u757f\u5730\u65b9\u6574\u5099\u5c40\u798f\u4e95\u6cb3\u5ddd\u56fd\u9053\u4e8b\u52d9\u6240","boring_xml_url":40,"boring_view_url":1,"soilmap_view_url":null,"soiltest_xml_url":0,"soiltest_view_url":0},{"id":183790,"code":"B4KJ201801007-2039","latitude":"36.2177192","longitude":"136.1338194","source_code":"KK54362150011","project_name":"","survey_name":"\u4e5d\u982d\u7adc\u5ddd\u30de\u30ea\u30fc\u30ca\u8a73\u7d30\u8a2d\u8a08\u53ca\u3073\u5730\u8cea\u8abf\u67fb\u696d\u52d9","client_name":"\u56fd\u571f\u4ea4\u901a\u7701\u8fd1\u757f\u5730\u65b9\u6574\u5099\u5c40\u798f\u4e95\u6cb3\u5ddd\u56fd\u9053\u4e8b\u52d9\u6240","boring_xml_url":40,"boring_view_url":1,"soilmap_view_url":null,"soiltest_xml_url":0,"soiltest_view_url":0},{"id":183789,"code":"B4KJ201801007-2038","latitude":"36.216914","longitude":"136.134319","source_code":"KK54362150010","project_name":"","survey_name":"\u4e5d\u982d\u7adc\u5ddd\u30de\u30ea\u30fc\u30ca\u8a73\u7d30\u8a2d\u8a08\u53ca\u3073\u5730\u8cea\u8abf\u67fb\u696d\u52d9","client_name":"\u56fd\u571f\u4ea4\u901a\u7701\u8fd1\u757f\u5730\u65b9\u6574\u5099\u5c40\u798f\u4e95\u6cb3\u5ddd\u56fd\u9053\u4e8b\u52d9\u6240","boring_xml_url":40,"boring_view_url":1,"soilmap_view_url":null,"soiltest_xml_url":0,"soiltest_view_url":0},{"id":183788,"code":"B4KJ201801007-2037","latitude":"36.2041933","longitude":"136.1465133","source_code":"KK54362141001","project_name":"","survey_name":"\u65b0\u4fdd\u5730\u533a\u8a2d\u8a08\u8cc7\u6599\u4f5c\u6210\u4f5c\u696d","client_name":"\u56fd\u571f\u4ea4\u901a\u7701\u8fd1\u757f\u5730\u65b9\u6574\u5099\u5c40\u798f\u4e95\u6cb3\u5ddd\u56fd\u9053\u4e8b\u52d9\u6240","boring_xml_url":40,"boring_view_url":1,"soilmap_view_url":null,"soiltest_xml_url":0,"soiltest_view_url":0},{"id":183787,"code":"B4KJ201801007-2036","latitude":"36.1947781","longitude":"136.1546242","source_code":"KK54362132002","project_name":"","survey_name":"\u706f\u660e\u5bfa\u5730\u533a\u53ca\u3073\u5ddd\u5d0e\u5730\u533a\u5730\u8cea\u8abf\u67fb\u4f5c\u696d","client_name":"\u56fd\u571f\u4ea4\u901a\u7701\u8fd1\u757f\u5730\u65b9\u6574\u5099\u5c40\u798f\u4e95\u6cb3\u5ddd\u56fd\u9053\u4e8b\u52d9\u6240","boring_xml_url":40,"boring_view_url":1,"soilmap_view_url":null,"soiltest_xml_url":0,"soiltest_view_url":0},{"id":183786,"code":"B4KJ201801007-2035","latitude":"36.1905847","longitude":"136.1783167","source_code":"KK54362124004","project_name":"","survey_name":"\u5ddd\u5d0e \u5e03\u65bd\u7530\u5730\u533a\u5730\u8cea\u8abf\u67fb\u4f5c\u696d","client_name":"\u56fd\u571f\u4ea4\u901a\u7701\u8fd1\u757f\u5730\u65b9\u6574\u5099\u5c40\u798f\u4e95\u6cb3\u5ddd\u56fd\u9053\u4e8b\u52d9\u6240","boring_xml_url":40,"boring_view_url":1,"soilmap_view_url":null,"soiltest_xml_url":0,"soiltest_view_url":0},{"id":183785,"code":"B4KJ201801007-2034","latitude":"36.1922228","longitude":"136.1574294","source_code":"KK54362122007","project_name":"","survey_name":"\u706f\u660e\u5bfa\u5730\u533a\u53ca\u3073\u5ddd\u5d0e\u5730\u533a\u5730\u8cea\u8abf\u67fb\u4f5c\u696d","client_name":"\u56fd\u571f\u4ea4\u901a\u7701\u8fd1\u757f\u5730\u65b9\u6574\u5099\u5c40\u798f\u4e95\u6cb3\u5ddd\u56fd\u9053\u4e8b\u52d9\u6240","boring_xml_url":40,"boring_view_url":1,"soilmap_view_url":null,"soiltest_xml_url":0,"soiltest_view_url":0},{"id":183784,"code":"B4KJ201801007-2033","latitude":"36.1930561","longitude":"136.1568739","source_code":"KK54362122006","project_name":"","survey_name":"\u706f\u660e\u5bfa\u5730\u533a\u53ca\u3073\u5ddd\u5d0e\u5730\u533a\u5730\u8cea\u8abf\u67fb\u4f5c\u696d","client_name":"\u56fd\u571f\u4ea4\u901a\u7701\u8fd1\u757f\u5730\u65b9\u6574\u5099\u5c40\u798f\u4e95\u6cb3\u5ddd\u56fd\u9053\u4e8b\u52d9\u6240","boring_xml_url":40,"boring_view_url":1,"soilmap_view_url":null,"soiltest_xml_url":0,"soiltest_view_url":0},{"id":183783,"code":"B4KJ201801007-2032","latitude":"36.1939725","longitude":"136.1558461","source_code":"KK54362122005","project_name":"","survey_name":"\u706f\u660e\u5bfa\u5730\u533a\u53ca\u3073\u5ddd\u5d0e\u5730\u533a\u5730\u8cea\u8abf\u67fb\u4f5c\u696d","client_name":"\u56fd\u571f\u4ea4\u901a\u7701\u8fd1\u757f\u5730\u65b9\u6574\u5099\u5c40\u798f\u4e95\u6cb3\u5ddd\u56fd\u9053\u4e8b\u52d9\u6240","boring_xml_url":40,"boring_view_url":1,"soilmap_view_url":null,"soiltest_xml_url":0,"soiltest_view_url":0},{"id":183782,"code":"B4KJ201801007-2031","latitude":"36.1822517","longitude":"136.1533192","source_code":"KK54362112001","project_name":"","survey_name":"\u4e0b\u91ce\u5730\u533a\u6e2c\u91cf\u571f\u8cea\u8abf\u67fb\u4f5c\u696d","client_name":"\u56fd\u571f\u4ea4\u901a\u7701\u8fd1\u757f\u5730\u65b9\u6574\u5099\u5c40\u798f\u4e95\u6cb3\u5ddd\u56fd\u9053\u4e8b\u52d9\u6240","boring_xml_url":40,"boring_view_url":1,"soilmap_view_url":null,"soiltest_xml_url":0,"soiltest_view_url":0},{"id":183781,"code":"B4KJ201801007-2030","latitude":"36.1757522","longitude":"136.1447367","source_code":"KK54362101013","project_name":"","survey_name":"\u4e0b\u91ce\u5730\u533a\u5824\u9632\u8abf\u67fb\u696d\u52d9","client_name":"\u56fd\u571f\u4ea4\u901a\u7701\u8fd1\u757f\u5730\u65b9\u6574\u5099\u5c40\u798f\u4e95\u6cb3\u5ddd\u56fd\u9053\u4e8b\u52d9\u6240","boring_xml_url":40,"boring_view_url":1,"soilmap_view_url":null,"soiltest_xml_url":0,"soiltest_view_url":0},{"id":183780,"code":"B4KJ201801007-2029","latitude":"36.17578","longitude":"136.14457","source_code":"KK54362101012","project_name":"","survey_name":"\u4e0b\u91ce\u5730\u533a\u5824\u9632\u8abf\u67fb\u696d\u52d9","client_name":"\u56fd\u571f\u4ea4\u901a\u7701\u8fd1\u757f\u5730\u65b9\u6574\u5099\u5c40\u798f\u4e95\u6cb3\u5ddd\u56fd\u9053\u4e8b\u52d9\u6240","boring_xml_url":40,"boring_view_url":1,"soilmap_view_url":null,"soiltest_xml_url":0,"soiltest_view_url":0},{"id":183779,"code":"B4KJ201801007-2028","latitude":"36.1739189","longitude":"136.1408206","source_code":"KK54362101005","project_name":"","survey_name":"\u4e0b\u91ce\u5730\u533a\u6e2c\u91cf\u571f\u8cea\u8abf\u67fb\u4f5c\u696d","client_name":"\u56fd\u571f\u4ea4\u901a\u7701\u8fd1\u757f\u5730\u65b9\u6574\u5099\u5c40\u798f\u4e95\u6cb3\u5ddd\u56fd\u9053\u4e8b\u52d9\u6240","boring_xml_url":40,"boring_view_url":1,"soilmap_view_url":null,"soiltest_xml_url":0,"soiltest_view_url":0},{"id":183778,"code":"B4KJ201801007-2027","latitude":"36.1739189","longitude":"136.1408206","source_code":"KK54362101004","project_name":"","survey_name":"\u4e0b\u91ce\u5730\u533a\u6e2c\u91cf\u571f\u8cea\u8abf\u67fb\u4f5c\u696d","client_name":"\u56fd\u571f\u4ea4\u901a\u7701\u8fd1\u757f\u5730\u65b9\u6574\u5099\u5c40\u798f\u4e95\u6cb3\u5ddd\u56fd\u9053\u4e8b\u52d9\u6240","boring_xml_url":40,"boring_view_url":1,"soilmap_view_url":null,"soiltest_xml_url":0,"soiltest_view_url":0},{"id":183777,"code":"B4KJ201801007-2026","latitude":"36.1739189","longitude":"136.1408206","source_code":"KK54362101001","project_name":"","survey_name":"\u4e0b\u91ce\u5730\u533a\u6e2c\u91cf\u571f\u8cea\u8abf\u67fb\u4f5c\u696d","client_name":"\u56fd\u571f\u4ea4\u901a\u7701\u8fd1\u757f\u5730\u65b9\u6574\u5099\u5c40\u798f\u4e95\u6cb3\u5ddd\u56fd\u9053\u4e8b\u52d9\u6240","boring_xml_url":40,"boring_view_url":1,"soilmap_view_url":null,"soiltest_xml_url":0,"soiltest_view_url":0},{"id":183776,"code":"B4KJ201801007-2025","latitude":"36.1072703","longitude":"136.5532864","source_code":"KK54361424003","project_name":"","survey_name":"\u52dd\u5c71\u56fd\u9053\u5730\u8cea\u8abf\u67fb","client_name":"\u56fd\u571f\u4ea4\u901a\u7701\u8fd1\u757f\u5730\u65b9\u6574\u5099\u5c40\u798f\u4e95\u6cb3\u5ddd\u56fd\u9053\u4e8b\u52d9\u6240","boring_xml_url":40,"boring_view_url":1,"soilmap_view_url":null,"soiltest_xml_url":0,"soiltest_view_url":0}]}}