{"header":{"xyz":{"source":[],"mosaic":false},"page":4560,"raw":{"soiltest_result":"0","bbox":"57.598333,109.544722,1.933333,163.806111","page":"4560"},"conditions":{"soiltest_result":0,"north":57.598333,"west":109.544722,"south":1.933333,"east":163.806111},"success":true,"message":""},"data":{"meta":{"total":212844,"page":4560,"pages":7095,"count":30},"values":[{"id":183775,"code":"B4KJ201801007-2024","latitude":"36.1072703","longitude":"136.5532864","source_code":"KK54361424002","project_name":"","survey_name":"\u52dd\u5c71\u56fd\u9053\u5730\u8cea\u8abf\u67fb","client_name":"\u56fd\u571f\u4ea4\u901a\u7701\u8fd1\u757f\u5730\u65b9\u6574\u5099\u5c40\u798f\u4e95\u6cb3\u5ddd\u56fd\u9053\u4e8b\u52d9\u6240","boring_xml_url":40,"boring_view_url":1,"soilmap_view_url":null,"soiltest_xml_url":0,"soiltest_view_url":0},{"id":183774,"code":"B4KJ201801007-2023","latitude":"36.1072703","longitude":"136.5532864","source_code":"KK54361424001","project_name":"","survey_name":"\u52dd\u5c71\u56fd\u9053\u5730\u8cea\u8abf\u67fb","client_name":"\u56fd\u571f\u4ea4\u901a\u7701\u8fd1\u757f\u5730\u65b9\u6574\u5099\u5c40\u798f\u4e95\u6cb3\u5ddd\u56fd\u9053\u4e8b\u52d9\u6240","boring_xml_url":40,"boring_view_url":1,"soilmap_view_url":null,"soiltest_xml_url":0,"soiltest_view_url":0},{"id":183773,"code":"B4KJ201801007-2022","latitude":"36.0989383","longitude":"136.5782847","source_code":"KK54361416002","project_name":"","survey_name":"\u52dd\u5c71\u56fd\u9053\u5730\u8cea\u8abf\u67fb","client_name":"\u56fd\u571f\u4ea4\u901a\u7701\u8fd1\u757f\u5730\u65b9\u6574\u5099\u5c40\u798f\u4e95\u6cb3\u5ddd\u56fd\u9053\u4e8b\u52d9\u6240","boring_xml_url":40,"boring_view_url":1,"soilmap_view_url":null,"soiltest_xml_url":0,"soiltest_view_url":0},{"id":183772,"code":"B4KJ201801007-2021","latitude":"36.0989383","longitude":"136.5782847","source_code":"KK54361416001","project_name":"","survey_name":"\u52dd\u5c71\u56fd\u9053\u5730\u8cea\u8abf\u67fb","client_name":"\u56fd\u571f\u4ea4\u901a\u7701\u8fd1\u757f\u5730\u65b9\u6574\u5099\u5c40\u798f\u4e95\u6cb3\u5ddd\u56fd\u9053\u4e8b\u52d9\u6240","boring_xml_url":40,"boring_view_url":1,"soilmap_view_url":null,"soiltest_xml_url":0,"soiltest_view_url":0},{"id":183771,"code":"B4KJ201801007-2020","latitude":"36.1650342","longitude":"136.2633656","source_code":"KK54361291001","project_name":"","survey_name":"\u798f\u4e95\u30d0\u30a4\u30d1\u30b91\u5de5\u533a\u5730\u8cea\u8abf\u67fb\u696d\u52d9","client_name":"\u56fd\u571f\u4ea4\u901a\u7701\u8fd1\u757f\u5730\u65b9\u6574\u5099\u5c40\u798f\u4e95\u6cb3\u5ddd\u56fd\u9053\u4e8b\u52d9\u6240","boring_xml_url":40,"boring_view_url":1,"soilmap_view_url":null,"soiltest_xml_url":0,"soiltest_view_url":0},{"id":183770,"code":"B4KJ201801007-2019","latitude":"36.1503692","longitude":"136.2645328","source_code":"KK54361271001","project_name":"","survey_name":"\u798f\u4e95\u30d0\u30a4\u30d1\u30b91\u5de5\u533a\u5730\u8cea\u8abf\u67fb\u696d\u52d9","client_name":"\u56fd\u571f\u4ea4\u901a\u7701\u8fd1\u757f\u5730\u65b9\u6574\u5099\u5c40\u798f\u4e95\u6cb3\u5ddd\u56fd\u9053\u4e8b\u52d9\u6240","boring_xml_url":40,"boring_view_url":1,"soilmap_view_url":null,"soiltest_xml_url":0,"soiltest_view_url":0},{"id":183769,"code":"B4KJ201801007-2018","latitude":"36.0864342","longitude":"136.3531661","source_code":"KK54361208012","project_name":"","survey_name":"\u6c38\u5e73\u5bfa\u5927\u91ce\u9053\u8def\u8f5f\u5730\u533a\u4ed6\u5730\u8cea\u8abf\u67fb\u696d\u52d9","client_name":"\u56fd\u571f\u4ea4\u901a\u7701\u8fd1\u757f\u5730\u65b9\u6574\u5099\u5c40\u798f\u4e95\u6cb3\u5ddd\u56fd\u9053\u4e8b\u52d9\u6240","boring_xml_url":40,"boring_view_url":1,"soilmap_view_url":null,"soiltest_xml_url":0,"soiltest_view_url":0},{"id":183768,"code":"B4KJ201801007-2017","latitude":"36.0864344","longitude":"136.3548325","source_code":"KK54361208011","project_name":"","survey_name":"\u6c38\u5e73\u5bfa\u5927\u91ce\u9053\u8def\u8f5f\u5730\u533a\u4ed6\u5730\u8cea\u8abf\u67fb\u696d\u52d9","client_name":"\u56fd\u571f\u4ea4\u901a\u7701\u8fd1\u757f\u5730\u65b9\u6574\u5099\u5c40\u798f\u4e95\u6cb3\u5ddd\u56fd\u9053\u4e8b\u52d9\u6240","boring_xml_url":40,"boring_view_url":1,"soilmap_view_url":null,"soiltest_xml_url":0,"soiltest_view_url":0},{"id":183767,"code":"B4KJ201801007-2016","latitude":"36.0867119","longitude":"136.3539994","source_code":"KK54361208010","project_name":"","survey_name":"\u6c38\u5e73\u5bfa\u5927\u91ce\u9053\u8def\u8f5f\u5730\u533a\u4ed6\u5730\u8cea\u8abf\u67fb\u696d\u52d9","client_name":"\u56fd\u571f\u4ea4\u901a\u7701\u8fd1\u757f\u5730\u65b9\u6574\u5099\u5c40\u798f\u4e95\u6cb3\u5ddd\u56fd\u9053\u4e8b\u52d9\u6240","boring_xml_url":40,"boring_view_url":1,"soilmap_view_url":null,"soiltest_xml_url":0,"soiltest_view_url":0},{"id":183766,"code":"B4KJ201801007-2015","latitude":"36.0864342","longitude":"136.3526106","source_code":"KK54361208009","project_name":"","survey_name":"\u6c38\u5e73\u5bfa\u5927\u91ce\u9053\u8def\u8f5f\u5730\u533a\u4ed6\u5730\u8cea\u8abf\u67fb\u696d\u52d9","client_name":"\u56fd\u571f\u4ea4\u901a\u7701\u8fd1\u757f\u5730\u65b9\u6574\u5099\u5c40\u798f\u4e95\u6cb3\u5ddd\u56fd\u9053\u4e8b\u52d9\u6240","boring_xml_url":40,"boring_view_url":1,"soilmap_view_url":null,"soiltest_xml_url":0,"soiltest_view_url":0},{"id":183765,"code":"B4KJ201801007-2014","latitude":"36.0872675","longitude":"136.3517772","source_code":"KK54361208008","project_name":"","survey_name":"\u6c38\u5e73\u5bfa\u5927\u91ce\u9053\u8def\u8f5f\u5730\u533a\u4ed6\u5730\u8cea\u8abf\u67fb\u696d\u52d9","client_name":"\u56fd\u571f\u4ea4\u901a\u7701\u8fd1\u757f\u5730\u65b9\u6574\u5099\u5c40\u798f\u4e95\u6cb3\u5ddd\u56fd\u9053\u4e8b\u52d9\u6240","boring_xml_url":40,"boring_view_url":1,"soilmap_view_url":null,"soiltest_xml_url":0,"soiltest_view_url":0},{"id":183764,"code":"B4KJ201801007-2013","latitude":"36.0872675","longitude":"136.3512217","source_code":"KK54361208007","project_name":"","survey_name":"\u6c38\u5e73\u5bfa\u5927\u91ce\u9053\u8def\u8f5f\u5730\u533a\u4ed6\u5730\u8cea\u8abf\u67fb\u696d\u52d9","client_name":"\u56fd\u571f\u4ea4\u901a\u7701\u8fd1\u757f\u5730\u65b9\u6574\u5099\u5c40\u798f\u4e95\u6cb3\u5ddd\u56fd\u9053\u4e8b\u52d9\u6240","boring_xml_url":40,"boring_view_url":1,"soilmap_view_url":null,"soiltest_xml_url":0,"soiltest_view_url":0},{"id":183763,"code":"B4KJ201801007-2012","latitude":"36.0867119","longitude":"136.3506664","source_code":"KK54361208006","project_name":"","survey_name":"\u6c38\u5e73\u5bfa\u5927\u91ce\u9053\u8def\u8f5f\u5730\u533a\u4ed6\u5730\u8cea\u8abf\u67fb\u696d\u52d9","client_name":"\u56fd\u571f\u4ea4\u901a\u7701\u8fd1\u757f\u5730\u65b9\u6574\u5099\u5c40\u798f\u4e95\u6cb3\u5ddd\u56fd\u9053\u4e8b\u52d9\u6240","boring_xml_url":40,"boring_view_url":1,"soilmap_view_url":null,"soiltest_xml_url":0,"soiltest_view_url":0},{"id":183762,"code":"B4KJ201801007-2011","latitude":"36.0869897","longitude":"136.3498331","source_code":"KK54361208005","project_name":"","survey_name":"\u6c38\u5e73\u5bfa\u5927\u91ce\u9053\u8def\u8f5f\u5730\u533a\u4ed6\u5730\u8cea\u8abf\u67fb\u696d\u52d9","client_name":"\u56fd\u571f\u4ea4\u901a\u7701\u8fd1\u757f\u5730\u65b9\u6574\u5099\u5c40\u798f\u4e95\u6cb3\u5ddd\u56fd\u9053\u4e8b\u52d9\u6240","boring_xml_url":40,"boring_view_url":1,"soilmap_view_url":null,"soiltest_xml_url":0,"soiltest_view_url":0},{"id":183761,"code":"B4KJ201801007-2010","latitude":"36.0875453","longitude":"136.3489997","source_code":"KK54361208004","project_name":"","survey_name":"\u6c38\u5e73\u5bfa\u5927\u91ce\u9053\u8def\u8f5f\u5730\u533a\u4ed6\u5730\u8cea\u8abf\u67fb\u696d\u52d9","client_name":"\u56fd\u571f\u4ea4\u901a\u7701\u8fd1\u757f\u5730\u65b9\u6574\u5099\u5c40\u798f\u4e95\u6cb3\u5ddd\u56fd\u9053\u4e8b\u52d9\u6240","boring_xml_url":40,"boring_view_url":1,"soilmap_view_url":null,"soiltest_xml_url":0,"soiltest_view_url":0},{"id":183760,"code":"B4KJ201801007-2009","latitude":"36.0872675","longitude":"136.3484442","source_code":"KK54361208003","project_name":"","survey_name":"\u6c38\u5e73\u5bfa\u5927\u91ce\u9053\u8def\u8f5f\u5730\u533a\u4ed6\u5730\u8cea\u8abf\u67fb\u696d\u52d9","client_name":"\u56fd\u571f\u4ea4\u901a\u7701\u8fd1\u757f\u5730\u65b9\u6574\u5099\u5c40\u798f\u4e95\u6cb3\u5ddd\u56fd\u9053\u4e8b\u52d9\u6240","boring_xml_url":40,"boring_view_url":1,"soilmap_view_url":null,"soiltest_xml_url":0,"soiltest_view_url":0},{"id":183759,"code":"B4KJ201801007-2008","latitude":"36.0864342","longitude":"136.3478889","source_code":"KK54361208002","project_name":"","survey_name":"\u6c38\u5e73\u5bfa\u5927\u91ce\u9053\u8def\u8f5f\u5730\u533a\u4ed6\u5730\u8cea\u8abf\u67fb\u696d\u52d9","client_name":"\u56fd\u571f\u4ea4\u901a\u7701\u8fd1\u757f\u5730\u65b9\u6574\u5099\u5c40\u798f\u4e95\u6cb3\u5ddd\u56fd\u9053\u4e8b\u52d9\u6240","boring_xml_url":40,"boring_view_url":1,"soilmap_view_url":null,"soiltest_xml_url":0,"soiltest_view_url":0},{"id":183758,"code":"B4KJ201801007-2007","latitude":"36.0872675","longitude":"136.3473333","source_code":"KK54361208001","project_name":"","survey_name":"\u6c38\u5e73\u5bfa\u5927\u91ce\u9053\u8def\u8f5f\u5730\u533a\u4ed6\u5730\u8cea\u8abf\u67fb\u696d\u52d9","client_name":"\u56fd\u571f\u4ea4\u901a\u7701\u8fd1\u757f\u5730\u65b9\u6574\u5099\u5c40\u798f\u4e95\u6cb3\u5ddd\u56fd\u9053\u4e8b\u52d9\u6240","boring_xml_url":40,"boring_view_url":1,"soilmap_view_url":null,"soiltest_xml_url":0,"soiltest_view_url":0},{"id":183757,"code":"B4KJ201801007-2006","latitude":"36.0869897","longitude":"136.3459444","source_code":"KK54361207003","project_name":"","survey_name":"\u6c38\u5e73\u5bfa\u5927\u91ce\u9053\u8def\u8f5f\u5730\u533a\u4ed6\u5730\u8cea\u8abf\u67fb\u696d\u52d9","client_name":"\u56fd\u571f\u4ea4\u901a\u7701\u8fd1\u757f\u5730\u65b9\u6574\u5099\u5c40\u798f\u4e95\u6cb3\u5ddd\u56fd\u9053\u4e8b\u52d9\u6240","boring_xml_url":40,"boring_view_url":1,"soilmap_view_url":null,"soiltest_xml_url":0,"soiltest_view_url":0},{"id":183756,"code":"B4KJ201801007-2005","latitude":"36.0878228","longitude":"136.3456667","source_code":"KK54361207002","project_name":"","survey_name":"\u6c38\u5e73\u5bfa\u5927\u91ce\u9053\u8def\u8f5f\u5730\u533a\u4ed6\u5730\u8cea\u8abf\u67fb\u696d\u52d9","client_name":"\u56fd\u571f\u4ea4\u901a\u7701\u8fd1\u757f\u5730\u65b9\u6574\u5099\u5c40\u798f\u4e95\u6cb3\u5ddd\u56fd\u9053\u4e8b\u52d9\u6240","boring_xml_url":40,"boring_view_url":1,"soilmap_view_url":null,"soiltest_xml_url":0,"soiltest_view_url":0},{"id":183755,"code":"B4KJ201801007-2004","latitude":"36.0864342","longitude":"136.3451111","source_code":"KK54361207001","project_name":"","survey_name":"\u6c38\u5e73\u5bfa\u5927\u91ce\u9053\u8def\u8f5f\u5730\u533a\u4ed6\u5730\u8cea\u8abf\u67fb\u696d\u52d9","client_name":"\u56fd\u571f\u4ea4\u901a\u7701\u8fd1\u757f\u5730\u65b9\u6574\u5099\u5c40\u798f\u4e95\u6cb3\u5ddd\u56fd\u9053\u4e8b\u52d9\u6240","boring_xml_url":40,"boring_view_url":1,"soilmap_view_url":null,"soiltest_xml_url":0,"soiltest_view_url":0},{"id":183754,"code":"B4KJ201801007-2003","latitude":"36.1337303","longitude":"136.1805964","source_code":"KK54361154004","project_name":"","survey_name":"\u4e8c\u65e5\u5e02\u5730\u533a\u5730\u8cea\u8abf\u67fb\u696d\u52d9","client_name":"\u56fd\u571f\u4ea4\u901a\u7701\u8fd1\u757f\u5730\u65b9\u6574\u5099\u5c40\u798f\u4e95\u6cb3\u5ddd\u56fd\u9053\u4e8b\u52d9\u6240","boring_xml_url":40,"boring_view_url":1,"soilmap_view_url":null,"soiltest_xml_url":0,"soiltest_view_url":0},{"id":183753,"code":"B4KJ201801007-2002","latitude":"36.13373","longitude":"136.1800408","source_code":"KK54361154003","project_name":"","survey_name":"\u4e8c\u65e5\u5e02\u5730\u533a\u5730\u8cea\u8abf\u67fb\u696d\u52d9","client_name":"\u56fd\u571f\u4ea4\u901a\u7701\u8fd1\u757f\u5730\u65b9\u6574\u5099\u5c40\u798f\u4e95\u6cb3\u5ddd\u56fd\u9053\u4e8b\u52d9\u6240","boring_xml_url":40,"boring_view_url":1,"soilmap_view_url":null,"soiltest_xml_url":0,"soiltest_view_url":0},{"id":183752,"code":"B4KJ201801007-2001","latitude":"36.1155933","longitude":"136.1783194","source_code":"KK54361134001","project_name":"","survey_name":"\u5cb8\u6c34\u5730\u533a\u8b77\u5cb8\u8a73\u7d30\u8a2d\u8a08\u696d\u52d9","client_name":"\u56fd\u571f\u4ea4\u901a\u7701\u8fd1\u757f\u5730\u65b9\u6574\u5099\u5c40\u798f\u4e95\u6cb3\u5ddd\u56fd\u9053\u4e8b\u52d9\u6240","boring_xml_url":40,"boring_view_url":1,"soilmap_view_url":null,"soiltest_xml_url":0,"soiltest_view_url":0},{"id":183751,"code":"B4KJ201801007-2000","latitude":"36.1197592","longitude":"136.17007","source_code":"KK54361133002","project_name":"","survey_name":"\u5cb8\u6c34\u5730\u533a\u8b77\u5cb8\u8a73\u7d30\u8a2d\u8a08\u696d\u52d9","client_name":"\u56fd\u571f\u4ea4\u901a\u7701\u8fd1\u757f\u5730\u65b9\u6574\u5099\u5c40\u798f\u4e95\u6cb3\u5ddd\u56fd\u9053\u4e8b\u52d9\u6240","boring_xml_url":40,"boring_view_url":1,"soilmap_view_url":null,"soiltest_xml_url":0,"soiltest_view_url":0},{"id":183750,"code":"B4KJ201801007-1999","latitude":"36.1138156","longitude":"136.1703758","source_code":"KK54361133001","project_name":"","survey_name":"\u5cb8\u6c34\u5730\u533a\u8b77\u5cb8\u8a73\u7d30\u8a2d\u8a08\u696d\u52d9","client_name":"\u56fd\u571f\u4ea4\u901a\u7701\u8fd1\u757f\u5730\u65b9\u6574\u5099\u5c40\u798f\u4e95\u6cb3\u5ddd\u56fd\u9053\u4e8b\u52d9\u6240","boring_xml_url":40,"boring_view_url":1,"soilmap_view_url":null,"soiltest_xml_url":0,"soiltest_view_url":0},{"id":183749,"code":"B4KJ201801007-1998","latitude":"36.1094833","longitude":"136.1945681","source_code":"KK54361125004","project_name":"","survey_name":"\u9ad8\u5c4b\u5730\u533a\u8b77\u5cb8\u8a73\u7d30\u8a2d\u8a08\u696d\u52d9","client_name":"\u56fd\u571f\u4ea4\u901a\u7701\u8fd1\u757f\u5730\u65b9\u6574\u5099\u5c40\u798f\u4e95\u6cb3\u5ddd\u56fd\u9053\u4e8b\u52d9\u6240","boring_xml_url":40,"boring_view_url":1,"soilmap_view_url":null,"soiltest_xml_url":0,"soiltest_view_url":0},{"id":183748,"code":"B4KJ201801007-1997","latitude":"36.1108719","longitude":"136.1917906","source_code":"KK54361125003","project_name":"","survey_name":"\u9ad8\u5c4b\u5730\u533a\u8b77\u5cb8\u8a73\u7d30\u8a2d\u8a08\u696d\u52d9","client_name":"\u56fd\u571f\u4ea4\u901a\u7701\u8fd1\u757f\u5730\u65b9\u6574\u5099\u5c40\u798f\u4e95\u6cb3\u5ddd\u56fd\u9053\u4e8b\u52d9\u6240","boring_xml_url":40,"boring_view_url":1,"soilmap_view_url":null,"soiltest_xml_url":0,"soiltest_view_url":0},{"id":183747,"code":"B4KJ201801007-1996","latitude":"36.1108719","longitude":"136.1865133","source_code":"KK54361125002","project_name":"","survey_name":"\u9ad8\u5c4b\u5730\u533a\u8b77\u5cb8\u8a73\u7d30\u8a2d\u8a08\u696d\u52d9","client_name":"\u56fd\u571f\u4ea4\u901a\u7701\u8fd1\u757f\u5730\u65b9\u6574\u5099\u5c40\u798f\u4e95\u6cb3\u5ddd\u56fd\u9053\u4e8b\u52d9\u6240","boring_xml_url":40,"boring_view_url":1,"soilmap_view_url":null,"soiltest_xml_url":0,"soiltest_view_url":0},{"id":183746,"code":"B4KJ201801007-1995","latitude":"36.1100664","longitude":"136.1889853","source_code":"KK54361125001","project_name":"","survey_name":"\u5b89\u7af9\u5730\u533a\u571f\u8cea\u8abf\u67fb\u4f5c\u696d\u305d\u306e2","client_name":"\u56fd\u571f\u4ea4\u901a\u7701\u8fd1\u757f\u5730\u65b9\u6574\u5099\u5c40\u798f\u4e95\u6cb3\u5ddd\u56fd\u9053\u4e8b\u52d9\u6240","boring_xml_url":40,"boring_view_url":1,"soilmap_view_url":null,"soiltest_xml_url":0,"soiltest_view_url":0}]}}