{"header":{"xyz":{"source":[],"mosaic":false},"page":4567,"raw":{"soiltest_result":"0","bbox":"57.598333,109.544722,1.933333,163.806111","page":"4567"},"conditions":{"soiltest_result":0,"north":57.598333,"west":109.544722,"south":1.933333,"east":163.806111},"success":true,"message":""},"data":{"meta":{"total":212844,"page":4567,"pages":7095,"count":30},"values":[{"id":183565,"code":"B4KJ201801007-1814","latitude":"35.8789147","longitude":"136.8401308","source_code":"KK53366657031","project_name":"","survey_name":"\u6cb9\u5742\u9053\u8def2\u5de5\u533a\u5730\u8cea\u8abf\u67fb\u4f5c\u696d","client_name":"\u56fd\u571f\u4ea4\u901a\u7701\u8fd1\u757f\u5730\u65b9\u6574\u5099\u5c40\u798f\u4e95\u6cb3\u5ddd\u56fd\u9053\u4e8b\u52d9\u6240","boring_xml_url":40,"boring_view_url":1,"soilmap_view_url":null,"soiltest_xml_url":0,"soiltest_view_url":0},{"id":183564,"code":"B4KJ201801007-1813","latitude":"35.8788036","longitude":"136.8443806","source_code":"KK53366657030","project_name":"","survey_name":"\u6cb9\u57429\u53f7\u6a4b\u5730\u8cea\u8abf\u67fb\u696d\u52d9\u59d4\u8a17","client_name":"\u56fd\u571f\u4ea4\u901a\u7701\u8fd1\u757f\u5730\u65b9\u6574\u5099\u5c40\u798f\u4e95\u6cb3\u5ddd\u56fd\u9053\u4e8b\u52d9\u6240","boring_xml_url":40,"boring_view_url":1,"soilmap_view_url":null,"soiltest_xml_url":0,"soiltest_view_url":0},{"id":183563,"code":"B4KJ201801007-1812","latitude":"35.8787481","longitude":"136.8442972","source_code":"KK53366657029","project_name":"","survey_name":"\u6cb9\u57429\u53f7\u6a4b\u5730\u8cea\u8abf\u67fb\u696d\u52d9\u59d4\u8a17","client_name":"\u56fd\u571f\u4ea4\u901a\u7701\u8fd1\u757f\u5730\u65b9\u6574\u5099\u5c40\u798f\u4e95\u6cb3\u5ddd\u56fd\u9053\u4e8b\u52d9\u6240","boring_xml_url":40,"boring_view_url":1,"soilmap_view_url":null,"soiltest_xml_url":0,"soiltest_view_url":0},{"id":183562,"code":"B4KJ201801007-1811","latitude":"35.8786925","longitude":"136.8442139","source_code":"KK53366657028","project_name":"","survey_name":"\u6cb9\u57429\u53f7\u6a4b\u5730\u8cea\u8abf\u67fb\u696d\u52d9\u59d4\u8a17","client_name":"\u56fd\u571f\u4ea4\u901a\u7701\u8fd1\u757f\u5730\u65b9\u6574\u5099\u5c40\u798f\u4e95\u6cb3\u5ddd\u56fd\u9053\u4e8b\u52d9\u6240","boring_xml_url":40,"boring_view_url":1,"soilmap_view_url":null,"soiltest_xml_url":0,"soiltest_view_url":0},{"id":183561,"code":"B4KJ201801007-1810","latitude":"35.8786369","longitude":"136.8441306","source_code":"KK53366657027","project_name":"","survey_name":"\u6cb9\u57429\u53f7\u6a4b\u5730\u8cea\u8abf\u67fb\u696d\u52d9\u59d4\u8a17","client_name":"\u56fd\u571f\u4ea4\u901a\u7701\u8fd1\u757f\u5730\u65b9\u6574\u5099\u5c40\u798f\u4e95\u6cb3\u5ddd\u56fd\u9053\u4e8b\u52d9\u6240","boring_xml_url":40,"boring_view_url":1,"soilmap_view_url":null,"soiltest_xml_url":0,"soiltest_view_url":0},{"id":183560,"code":"B4KJ201801007-1809","latitude":"35.8785814","longitude":"136.8440472","source_code":"KK53366657026","project_name":"","survey_name":"\u6cb9\u57429\u53f7\u6a4b\u5730\u8cea\u8abf\u67fb\u696d\u52d9\u59d4\u8a17","client_name":"\u56fd\u571f\u4ea4\u901a\u7701\u8fd1\u757f\u5730\u65b9\u6574\u5099\u5c40\u798f\u4e95\u6cb3\u5ddd\u56fd\u9053\u4e8b\u52d9\u6240","boring_xml_url":40,"boring_view_url":1,"soilmap_view_url":null,"soiltest_xml_url":0,"soiltest_view_url":0},{"id":183559,"code":"B4KJ201801007-1808","latitude":"35.8785258","longitude":"136.8439639","source_code":"KK53366657025","project_name":"","survey_name":"\u6cb9\u57429\u53f7\u6a4b\u5730\u8cea\u8abf\u67fb\u696d\u52d9\u59d4\u8a17","client_name":"\u56fd\u571f\u4ea4\u901a\u7701\u8fd1\u757f\u5730\u65b9\u6574\u5099\u5c40\u798f\u4e95\u6cb3\u5ddd\u56fd\u9053\u4e8b\u52d9\u6240","boring_xml_url":40,"boring_view_url":1,"soilmap_view_url":null,"soiltest_xml_url":0,"soiltest_view_url":0},{"id":183558,"code":"B4KJ201801007-1807","latitude":"35.8784703","longitude":"136.8438806","source_code":"KK53366657024","project_name":"","survey_name":"\u6cb9\u57429\u53f7\u6a4b\u5730\u8cea\u8abf\u67fb\u696d\u52d9\u59d4\u8a17","client_name":"\u56fd\u571f\u4ea4\u901a\u7701\u8fd1\u757f\u5730\u65b9\u6574\u5099\u5c40\u798f\u4e95\u6cb3\u5ddd\u56fd\u9053\u4e8b\u52d9\u6240","boring_xml_url":40,"boring_view_url":1,"soilmap_view_url":null,"soiltest_xml_url":0,"soiltest_view_url":0},{"id":183557,"code":"B4KJ201801007-1806","latitude":"35.8784147","longitude":"136.8437972","source_code":"KK53366657023","project_name":"","survey_name":"\u6cb9\u57429\u53f7\u6a4b\u5730\u8cea\u8abf\u67fb\u696d\u52d9\u59d4\u8a17","client_name":"\u56fd\u571f\u4ea4\u901a\u7701\u8fd1\u757f\u5730\u65b9\u6574\u5099\u5c40\u798f\u4e95\u6cb3\u5ddd\u56fd\u9053\u4e8b\u52d9\u6240","boring_xml_url":40,"boring_view_url":1,"soilmap_view_url":null,"soiltest_xml_url":0,"soiltest_view_url":0},{"id":183556,"code":"B4KJ201801007-1805","latitude":"35.8783592","longitude":"136.8437139","source_code":"KK53366657022","project_name":"","survey_name":"\u6cb9\u57429\u53f7\u6a4b\u5730\u8cea\u8abf\u67fb\u696d\u52d9\u59d4\u8a17","client_name":"\u56fd\u571f\u4ea4\u901a\u7701\u8fd1\u757f\u5730\u65b9\u6574\u5099\u5c40\u798f\u4e95\u6cb3\u5ddd\u56fd\u9053\u4e8b\u52d9\u6240","boring_xml_url":40,"boring_view_url":1,"soilmap_view_url":null,"soiltest_xml_url":0,"soiltest_view_url":0},{"id":183555,"code":"B4KJ201801007-1804","latitude":"35.8783036","longitude":"136.8436306","source_code":"KK53366657021","project_name":"","survey_name":"\u6cb9\u57429\u53f7\u6a4b\u5730\u8cea\u8abf\u67fb\u696d\u52d9\u59d4\u8a17","client_name":"\u56fd\u571f\u4ea4\u901a\u7701\u8fd1\u757f\u5730\u65b9\u6574\u5099\u5c40\u798f\u4e95\u6cb3\u5ddd\u56fd\u9053\u4e8b\u52d9\u6240","boring_xml_url":40,"boring_view_url":1,"soilmap_view_url":null,"soiltest_xml_url":0,"soiltest_view_url":0},{"id":183554,"code":"B4KJ201801007-1803","latitude":"35.8782481","longitude":"136.8435472","source_code":"KK53366657020","project_name":"","survey_name":"\u6cb9\u57429\u53f7\u6a4b\u5730\u8cea\u8abf\u67fb\u696d\u52d9\u59d4\u8a17","client_name":"\u56fd\u571f\u4ea4\u901a\u7701\u8fd1\u757f\u5730\u65b9\u6574\u5099\u5c40\u798f\u4e95\u6cb3\u5ddd\u56fd\u9053\u4e8b\u52d9\u6240","boring_xml_url":40,"boring_view_url":1,"soilmap_view_url":null,"soiltest_xml_url":0,"soiltest_view_url":0},{"id":183553,"code":"B4KJ201801007-1802","latitude":"35.8823586","longitude":"136.8399642","source_code":"KK53366657019","project_name":"","survey_name":"\u6e6f\u57422\u53f7\u6a4b\u30fb\u6e6f\u5742\u7b2c2\u30c8\u30f3\u30cd\u30eb\u5730\u8cea\u8abf\u67fb\u4f5c\u696d","client_name":"\u56fd\u571f\u4ea4\u901a\u7701\u8fd1\u757f\u5730\u65b9\u6574\u5099\u5c40\u798f\u4e95\u6cb3\u5ddd\u56fd\u9053\u4e8b\u52d9\u6240","boring_xml_url":40,"boring_view_url":1,"soilmap_view_url":null,"soiltest_xml_url":0,"soiltest_view_url":0},{"id":183552,"code":"B4KJ201801007-1801","latitude":"35.8819975","longitude":"136.8403253","source_code":"KK53366657018","project_name":"","survey_name":"\u6e6f\u57422\u53f7\u6a4b\u30fb\u6e6f\u5742\u7b2c2\u30c8\u30f3\u30cd\u30eb\u5730\u8cea\u8abf\u67fb\u4f5c\u696d","client_name":"\u56fd\u571f\u4ea4\u901a\u7701\u8fd1\u757f\u5730\u65b9\u6574\u5099\u5c40\u798f\u4e95\u6cb3\u5ddd\u56fd\u9053\u4e8b\u52d9\u6240","boring_xml_url":40,"boring_view_url":1,"soilmap_view_url":null,"soiltest_xml_url":0,"soiltest_view_url":0},{"id":183551,"code":"B4KJ201801007-1800","latitude":"35.8824975","longitude":"136.8397419","source_code":"KK53366657017","project_name":"","survey_name":"\u6e6f\u57422\u53f7\u6a4b\u30fb\u6e6f\u5742\u7b2c2\u30c8\u30f3\u30cd\u30eb\u5730\u8cea\u8abf\u67fb\u4f5c\u696d","client_name":"\u56fd\u571f\u4ea4\u901a\u7701\u8fd1\u757f\u5730\u65b9\u6574\u5099\u5c40\u798f\u4e95\u6cb3\u5ddd\u56fd\u9053\u4e8b\u52d9\u6240","boring_xml_url":40,"boring_view_url":1,"soilmap_view_url":null,"soiltest_xml_url":0,"soiltest_view_url":0},{"id":183550,"code":"B4KJ201801007-1799","latitude":"35.8828586","longitude":"136.8389919","source_code":"KK53366657016","project_name":"","survey_name":"\u6e6f\u57422\u53f7\u6a4b\u30fb\u6e6f\u5742\u7b2c2\u30c8\u30f3\u30cd\u30eb\u5730\u8cea\u8abf\u67fb\u4f5c\u696d","client_name":"\u56fd\u571f\u4ea4\u901a\u7701\u8fd1\u757f\u5730\u65b9\u6574\u5099\u5c40\u798f\u4e95\u6cb3\u5ddd\u56fd\u9053\u4e8b\u52d9\u6240","boring_xml_url":40,"boring_view_url":1,"soilmap_view_url":null,"soiltest_xml_url":0,"soiltest_view_url":0},{"id":183549,"code":"B4KJ201801007-1798","latitude":"35.8828308","longitude":"136.8385197","source_code":"KK53366657015","project_name":"","survey_name":"\u6e6f\u57422\u53f7\u6a4b\u30fb\u6e6f\u5742\u7b2c2\u30c8\u30f3\u30cd\u30eb\u5730\u8cea\u8abf\u67fb\u4f5c\u696d","client_name":"\u56fd\u571f\u4ea4\u901a\u7701\u8fd1\u757f\u5730\u65b9\u6574\u5099\u5c40\u798f\u4e95\u6cb3\u5ddd\u56fd\u9053\u4e8b\u52d9\u6240","boring_xml_url":40,"boring_view_url":1,"soilmap_view_url":null,"soiltest_xml_url":0,"soiltest_view_url":0},{"id":183548,"code":"B4KJ201801007-1797","latitude":"35.8826086","longitude":"136.8387975","source_code":"KK53366657014","project_name":"","survey_name":"\u6e6f\u57422\u53f7\u6a4b\u30fb\u6e6f\u5742\u7b2c2\u30c8\u30f3\u30cd\u30eb\u5730\u8cea\u8abf\u67fb\u4f5c\u696d","client_name":"\u56fd\u571f\u4ea4\u901a\u7701\u8fd1\u757f\u5730\u65b9\u6574\u5099\u5c40\u798f\u4e95\u6cb3\u5ddd\u56fd\u9053\u4e8b\u52d9\u6240","boring_xml_url":40,"boring_view_url":1,"soilmap_view_url":null,"soiltest_xml_url":0,"soiltest_view_url":0},{"id":183547,"code":"B4KJ201801007-1796","latitude":"35.8826364","longitude":"136.8377697","source_code":"KK53366657013","project_name":"","survey_name":"\u6e6f\u57422\u53f7\u6a4b\u30fb\u4f51\u5742\u7b2c2\u30c8\u30f3\u30cd\u30eb\u5730\u8cea\u8abf\u67fb\u4f5c\u696d","client_name":"\u56fd\u571f\u4ea4\u901a\u7701\u8fd1\u757f\u5730\u65b9\u6574\u5099\u5c40\u798f\u4e95\u6cb3\u5ddd\u56fd\u9053\u4e8b\u52d9\u6240","boring_xml_url":40,"boring_view_url":1,"soilmap_view_url":null,"soiltest_xml_url":0,"soiltest_view_url":0},{"id":183546,"code":"B4KJ201801007-1795","latitude":"35.8825531","longitude":"136.8394919","source_code":"KK53366657012","project_name":"","survey_name":"\u6cb9\u5742\u9053\u8def3\u5de5\u533a\u5730\u8cea\u8abf\u67fb\u4f5c\u696d","client_name":"\u56fd\u571f\u4ea4\u901a\u7701\u8fd1\u757f\u5730\u65b9\u6574\u5099\u5c40\u798f\u4e95\u6cb3\u5ddd\u56fd\u9053\u4e8b\u52d9\u6240","boring_xml_url":40,"boring_view_url":1,"soilmap_view_url":null,"soiltest_xml_url":0,"soiltest_view_url":0},{"id":183545,"code":"B4KJ201801007-1794","latitude":"35.8828586","longitude":"136.8385475","source_code":"KK53366657011","project_name":"","survey_name":"\u6cb9\u5742\u9053\u8def3\u5de5\u533a\u5730\u8cea\u8abf\u67fb\u4f5c\u696d","client_name":"\u56fd\u571f\u4ea4\u901a\u7701\u8fd1\u757f\u5730\u65b9\u6574\u5099\u5c40\u798f\u4e95\u6cb3\u5ddd\u56fd\u9053\u4e8b\u52d9\u6240","boring_xml_url":40,"boring_view_url":1,"soilmap_view_url":null,"soiltest_xml_url":0,"soiltest_view_url":0},{"id":183544,"code":"B4KJ201801007-1793","latitude":"35.8798033","longitude":"136.8407419","source_code":"KK53366657010","project_name":"","survey_name":"\u6cb9\u57423\u53f7\u6a4b\u5730\u8cea\u8abf\u67fb\u4f5c\u696d","client_name":"\u56fd\u571f\u4ea4\u901a\u7701\u8fd1\u757f\u5730\u65b9\u6574\u5099\u5c40\u798f\u4e95\u6cb3\u5ddd\u56fd\u9053\u4e8b\u52d9\u6240","boring_xml_url":40,"boring_view_url":1,"soilmap_view_url":null,"soiltest_xml_url":0,"soiltest_view_url":0},{"id":183543,"code":"B4KJ201801007-1792","latitude":"35.8794422","longitude":"136.8406586","source_code":"KK53366657009","project_name":"","survey_name":"\u6cb9\u57423\u53f7\u6a4b\u5730\u8cea\u8abf\u67fb\u4f5c\u696d","client_name":"\u56fd\u571f\u4ea4\u901a\u7701\u8fd1\u757f\u5730\u65b9\u6574\u5099\u5c40\u798f\u4e95\u6cb3\u5ddd\u56fd\u9053\u4e8b\u52d9\u6240","boring_xml_url":40,"boring_view_url":1,"soilmap_view_url":null,"soiltest_xml_url":0,"soiltest_view_url":0},{"id":183542,"code":"B4KJ201801007-1791","latitude":"35.8790811","longitude":"136.8404642","source_code":"KK53366657008","project_name":"","survey_name":"\u6cb9\u57423\u53f7\u6a4b\u5730\u8cea\u8abf\u67fb\u4f5c\u696d","client_name":"\u56fd\u571f\u4ea4\u901a\u7701\u8fd1\u757f\u5730\u65b9\u6574\u5099\u5c40\u798f\u4e95\u6cb3\u5ddd\u56fd\u9053\u4e8b\u52d9\u6240","boring_xml_url":40,"boring_view_url":1,"soilmap_view_url":null,"soiltest_xml_url":0,"soiltest_view_url":0},{"id":183541,"code":"B4KJ201801007-1790","latitude":"35.8784147","longitude":"136.8398253","source_code":"KK53366657007","project_name":"","survey_name":"\u6cb9\u57423\u53f7\u6a4b\u5730\u8cea\u8abf\u67fb\u4f5c\u696d","client_name":"\u56fd\u571f\u4ea4\u901a\u7701\u8fd1\u757f\u5730\u65b9\u6574\u5099\u5c40\u798f\u4e95\u6cb3\u5ddd\u56fd\u9053\u4e8b\u52d9\u6240","boring_xml_url":40,"boring_view_url":1,"soilmap_view_url":null,"soiltest_xml_url":0,"soiltest_view_url":0},{"id":183540,"code":"B4KJ201801007-1789","latitude":"35.8821919","longitude":"136.8399642","source_code":"KK53366657005","project_name":"","survey_name":"\u6cb9\u5742\u9053\u8def2\u5de5\u533a\u5730\u8cea\u8abf\u67fb\u4f5c\u696d","client_name":"\u56fd\u571f\u4ea4\u901a\u7701\u8fd1\u757f\u5730\u65b9\u6574\u5099\u5c40\u798f\u4e95\u6cb3\u5ddd\u56fd\u9053\u4e8b\u52d9\u6240","boring_xml_url":40,"boring_view_url":1,"soilmap_view_url":null,"soiltest_xml_url":0,"soiltest_view_url":0},{"id":183539,"code":"B4KJ201801007-1788","latitude":"35.8796922","longitude":"136.8406308","source_code":"KK53366657004","project_name":"","survey_name":"\u6cb9\u5742\u9053\u8def2\u5de5\u533a\u5730\u8cea\u8abf\u67fb\u4f5c\u696d","client_name":"\u56fd\u571f\u4ea4\u901a\u7701\u8fd1\u757f\u5730\u65b9\u6574\u5099\u5c40\u798f\u4e95\u6cb3\u5ddd\u56fd\u9053\u4e8b\u52d9\u6240","boring_xml_url":40,"boring_view_url":1,"soilmap_view_url":null,"soiltest_xml_url":0,"soiltest_view_url":0},{"id":183538,"code":"B4KJ201801007-1787","latitude":"35.8823031","longitude":"136.8407697","source_code":"KK53366657003","project_name":"","survey_name":"\u6cb9\u5742\u9053\u8def\u5730\u8cea\u8abf\u67fb\u4f5c\u696d","client_name":"\u56fd\u571f\u4ea4\u901a\u7701\u8fd1\u757f\u5730\u65b9\u6574\u5099\u5c40\u798f\u4e95\u6cb3\u5ddd\u56fd\u9053\u4e8b\u52d9\u6240","boring_xml_url":40,"boring_view_url":1,"soilmap_view_url":null,"soiltest_xml_url":0,"soiltest_view_url":0},{"id":183537,"code":"B4KJ201801007-1786","latitude":"35.8783575","longitude":"136.7788308","source_code":"KK53366652003","project_name":"","survey_name":"\u591a\u6bcd\u8c37\u5ddd\u6f5c\u6c34\u6a4b\u8a2d\u8a08\u696d\u52d9","client_name":"\u56fd\u571f\u4ea4\u901a\u7701\u8fd1\u757f\u5730\u65b9\u6574\u5099\u5c40\u4e5d\u982d\u7adc\u5ddd\u30c0\u30e0\u7d71\u5408\u7ba1\u7406\u4e8b\u52d9\u6240","boring_xml_url":40,"boring_view_url":1,"soilmap_view_url":null,"soiltest_xml_url":0,"soiltest_view_url":0},{"id":183536,"code":"B4KJ201801007-1785","latitude":"35.8781353","longitude":"136.7788308","source_code":"KK53366652002","project_name":"","survey_name":"\u591a\u6bcd\u8c37\u5ddd\u6f5c\u6c34\u6a4b\u8a2d\u8a08\u696d\u52d9","client_name":"\u56fd\u571f\u4ea4\u901a\u7701\u8fd1\u757f\u5730\u65b9\u6574\u5099\u5c40\u4e5d\u982d\u7adc\u5ddd\u30c0\u30e0\u7d71\u5408\u7ba1\u7406\u4e8b\u52d9\u6240","boring_xml_url":40,"boring_view_url":1,"soilmap_view_url":null,"soiltest_xml_url":0,"soiltest_view_url":0}]}}