{"header":{"xyz":{"source":[],"mosaic":false},"page":4571,"raw":{"soiltest_result":"0","bbox":"57.598333,109.544722,1.933333,163.806111","page":"4571"},"conditions":{"soiltest_result":0,"north":57.598333,"west":109.544722,"south":1.933333,"east":163.806111},"success":true,"message":""},"data":{"meta":{"total":212844,"page":4571,"pages":7095,"count":30},"values":[{"id":183445,"code":"B4KJ201801007-1694","latitude":"35.8942656","longitude":"136.5053264","source_code":"KK53366460005","project_name":"","survey_name":"\u4e09\u8c37\u8c37\u5830\u5824\u5730\u8cea\u8abf\u67fb\u4f5c\u696d","client_name":"\u56fd\u571f\u4ea4\u901a\u7701\u8fd1\u757f\u5730\u65b9\u6574\u5099\u5c40\u798f\u4e95\u6cb3\u5ddd\u56fd\u9053\u4e8b\u52d9\u6240","boring_xml_url":40,"boring_view_url":1,"soilmap_view_url":null,"soiltest_xml_url":0,"soiltest_view_url":0},{"id":183444,"code":"B4KJ201801007-1693","latitude":"35.8940711","longitude":"136.5052431","source_code":"KK53366460004","project_name":"","survey_name":"\u4e09\u8c37\u8c37\u5830\u5824\u5730\u8cea\u8abf\u67fb\u4f5c\u696d","client_name":"\u56fd\u571f\u4ea4\u901a\u7701\u8fd1\u757f\u5730\u65b9\u6574\u5099\u5c40\u798f\u4e95\u6cb3\u5ddd\u56fd\u9053\u4e8b\u52d9\u6240","boring_xml_url":40,"boring_view_url":1,"soilmap_view_url":null,"soiltest_xml_url":0,"soiltest_view_url":0},{"id":183443,"code":"B4KJ201801007-1692","latitude":"35.8940433","longitude":"136.5051597","source_code":"KK53366460003","project_name":"","survey_name":"\u4e09\u8c37\u8c37\u5830\u5824\u5730\u8cea\u8abf\u67fb\u4f5c\u696d","client_name":"\u56fd\u571f\u4ea4\u901a\u7701\u8fd1\u757f\u5730\u65b9\u6574\u5099\u5c40\u798f\u4e95\u6cb3\u5ddd\u56fd\u9053\u4e8b\u52d9\u6240","boring_xml_url":40,"boring_view_url":1,"soilmap_view_url":null,"soiltest_xml_url":0,"soiltest_view_url":0},{"id":183442,"code":"B4KJ201801007-1691","latitude":"35.89421","longitude":"136.5047431","source_code":"KK53366460002","project_name":"","survey_name":"\u4e09\u8c37\u8c37\u5830\u5824\u5730\u8cea\u8abf\u67fb\u4f5c\u696d","client_name":"\u56fd\u571f\u4ea4\u901a\u7701\u8fd1\u757f\u5730\u65b9\u6574\u5099\u5c40\u798f\u4e95\u6cb3\u5ddd\u56fd\u9053\u4e8b\u52d9\u6240","boring_xml_url":40,"boring_view_url":1,"soilmap_view_url":null,"soiltest_xml_url":0,"soiltest_view_url":0},{"id":183441,"code":"B4KJ201801007-1690","latitude":"35.8940989","longitude":"136.5046875","source_code":"KK53366460001","project_name":"","survey_name":"\u4e09\u8c37\u8c37\u5830\u5824\u5730\u8cea\u8abf\u67fb\u4f5c\u696d","client_name":"\u56fd\u571f\u4ea4\u901a\u7701\u8fd1\u757f\u5730\u65b9\u6574\u5099\u5c40\u798f\u4e95\u6cb3\u5ddd\u56fd\u9053\u4e8b\u52d9\u6240","boring_xml_url":40,"boring_view_url":1,"soilmap_view_url":null,"soiltest_xml_url":0,"soiltest_view_url":0},{"id":183440,"code":"B4KJ201801007-1689","latitude":"35.8853233","longitude":"136.5528781","source_code":"KK53366454007","project_name":"","survey_name":"\u771f\u540d\u5ddd\u6d41\u57df\u5730\u8cea\u8abf\u67fb\u4f5c\u696d","client_name":"\u56fd\u571f\u4ea4\u901a\u7701\u8fd1\u757f\u5730\u65b9\u6574\u5099\u5c40\u798f\u4e95\u6cb3\u5ddd\u56fd\u9053\u4e8b\u52d9\u6240","boring_xml_url":40,"boring_view_url":1,"soilmap_view_url":null,"soiltest_xml_url":0,"soiltest_view_url":0},{"id":183439,"code":"B4KJ201801007-1688","latitude":"35.8850456","longitude":"136.5530725","source_code":"KK53366454006","project_name":"","survey_name":"\u771f\u540d\u5ddd\u6d41\u57df\u5730\u8cea\u8abf\u67fb\u4f5c\u696d","client_name":"\u56fd\u571f\u4ea4\u901a\u7701\u8fd1\u757f\u5730\u65b9\u6574\u5099\u5c40\u798f\u4e95\u6cb3\u5ddd\u56fd\u9053\u4e8b\u52d9\u6240","boring_xml_url":40,"boring_view_url":1,"soilmap_view_url":null,"soiltest_xml_url":0,"soiltest_view_url":0},{"id":183438,"code":"B4KJ201801007-1687","latitude":"35.8847403","longitude":"136.5531003","source_code":"KK53366454005","project_name":"","survey_name":"\u771f\u540d\u5ddd\u6d41\u57df\u5730\u8cea\u8abf\u67fb\u4f5c\u696d","client_name":"\u56fd\u571f\u4ea4\u901a\u7701\u8fd1\u757f\u5730\u65b9\u6574\u5099\u5c40\u798f\u4e95\u6cb3\u5ddd\u56fd\u9053\u4e8b\u52d9\u6240","boring_xml_url":40,"boring_view_url":1,"soilmap_view_url":null,"soiltest_xml_url":0,"soiltest_view_url":0},{"id":183437,"code":"B4KJ201801007-1686","latitude":"35.8842681","longitude":"136.5533781","source_code":"KK53366454004","project_name":"","survey_name":"\u771f\u540d\u5ddd\u6d41\u57df\u5730\u8cea\u8abf\u67fb\u4f5c\u696d","client_name":"\u56fd\u571f\u4ea4\u901a\u7701\u8fd1\u757f\u5730\u65b9\u6574\u5099\u5c40\u798f\u4e95\u6cb3\u5ddd\u56fd\u9053\u4e8b\u52d9\u6240","boring_xml_url":40,"boring_view_url":1,"soilmap_view_url":null,"soiltest_xml_url":0,"soiltest_view_url":0},{"id":183436,"code":"B4KJ201801007-1685","latitude":"35.8822961","longitude":"136.553295","source_code":"KK53366454003","project_name":"","survey_name":"\u771f\u540d\u5ddd\u6d41\u57df\u5730\u8cea\u8abf\u67fb\u4f5c\u696d","client_name":"\u56fd\u571f\u4ea4\u901a\u7701\u8fd1\u757f\u5730\u65b9\u6574\u5099\u5c40\u798f\u4e95\u6cb3\u5ddd\u56fd\u9053\u4e8b\u52d9\u6240","boring_xml_url":40,"boring_view_url":1,"soilmap_view_url":null,"soiltest_xml_url":0,"soiltest_view_url":0},{"id":183435,"code":"B4KJ201801007-1684","latitude":"35.8845181","longitude":"136.5527947","source_code":"KK53366454002","project_name":"","survey_name":"\u771f\u540d\u5ddd\u6d41\u57df\u5730\u8cea\u8abf\u67fb\u4f5c\u696d","client_name":"\u56fd\u571f\u4ea4\u901a\u7701\u8fd1\u757f\u5730\u65b9\u6574\u5099\u5c40\u798f\u4e95\u6cb3\u5ddd\u56fd\u9053\u4e8b\u52d9\u6240","boring_xml_url":40,"boring_view_url":1,"soilmap_view_url":null,"soiltest_xml_url":0,"soiltest_view_url":0},{"id":183434,"code":"B4KJ201801007-1683","latitude":"35.8842403","longitude":"136.5527394","source_code":"KK53366454001","project_name":"","survey_name":"\u771f\u540d\u5ddd\u6d41\u57df\u5730\u8cea\u8abf\u67fb\u4f5c\u696d","client_name":"\u56fd\u571f\u4ea4\u901a\u7701\u8fd1\u757f\u5730\u65b9\u6574\u5099\u5c40\u798f\u4e95\u6cb3\u5ddd\u56fd\u9053\u4e8b\u52d9\u6240","boring_xml_url":40,"boring_view_url":1,"soilmap_view_url":null,"soiltest_xml_url":0,"soiltest_view_url":0},{"id":183433,"code":"B4KJ201801007-1682","latitude":"35.8639914","longitude":"136.5016889","source_code":"KK53366430005","project_name":"","survey_name":"\u771f\u540d\u5ddd\u6d41\u57df\u5730\u8cea\u8abf\u67fb\u4f5c\u696d","client_name":"\u56fd\u571f\u4ea4\u901a\u7701\u8fd1\u757f\u5730\u65b9\u6574\u5099\u5c40\u798f\u4e95\u6cb3\u5ddd\u56fd\u9053\u4e8b\u52d9\u6240","boring_xml_url":40,"boring_view_url":1,"soilmap_view_url":null,"soiltest_xml_url":0,"soiltest_view_url":0},{"id":183432,"code":"B4KJ201801007-1681","latitude":"35.8639914","longitude":"136.5016889","source_code":"KK53366430004","project_name":"","survey_name":"\u771f\u540d\u5ddd\u6d41\u57df\u5730\u8cea\u8abf\u67fb\u4f5c\u696d","client_name":"\u56fd\u571f\u4ea4\u901a\u7701\u8fd1\u757f\u5730\u65b9\u6574\u5099\u5c40\u798f\u4e95\u6cb3\u5ddd\u56fd\u9053\u4e8b\u52d9\u6240","boring_xml_url":40,"boring_view_url":1,"soilmap_view_url":null,"soiltest_xml_url":0,"soiltest_view_url":0},{"id":183431,"code":"B4KJ201801007-1680","latitude":"35.8639914","longitude":"136.5016889","source_code":"KK53366430003","project_name":"","survey_name":"\u771f\u540d\u5ddd\u6d41\u57df\u5730\u8cea\u8abf\u67fb\u4f5c\u696d","client_name":"\u56fd\u571f\u4ea4\u901a\u7701\u8fd1\u757f\u5730\u65b9\u6574\u5099\u5c40\u798f\u4e95\u6cb3\u5ddd\u56fd\u9053\u4e8b\u52d9\u6240","boring_xml_url":40,"boring_view_url":1,"soilmap_view_url":null,"soiltest_xml_url":0,"soiltest_view_url":0},{"id":183430,"code":"B4KJ201801007-1679","latitude":"35.8639914","longitude":"136.5016889","source_code":"KK53366430002","project_name":"","survey_name":"\u771f\u540d\u5ddd\u6d41\u57df\u5730\u8cea\u8abf\u67fb\u4f5c\u696d","client_name":"\u56fd\u571f\u4ea4\u901a\u7701\u8fd1\u757f\u5730\u65b9\u6574\u5099\u5c40\u798f\u4e95\u6cb3\u5ddd\u56fd\u9053\u4e8b\u52d9\u6240","boring_xml_url":40,"boring_view_url":1,"soilmap_view_url":null,"soiltest_xml_url":0,"soiltest_view_url":0},{"id":183429,"code":"B4KJ201801007-1678","latitude":"35.8639914","longitude":"136.5016889","source_code":"KK53366430001","project_name":"","survey_name":"\u771f\u540d\u5ddd\u6d41\u57df\u5730\u8cea\u8abf\u67fb\u4f5c\u696d","client_name":"\u56fd\u571f\u4ea4\u901a\u7701\u8fd1\u757f\u5730\u65b9\u6574\u5099\u5c40\u798f\u4e95\u6cb3\u5ddd\u56fd\u9053\u4e8b\u52d9\u6240","boring_xml_url":40,"boring_view_url":1,"soilmap_view_url":null,"soiltest_xml_url":0,"soiltest_view_url":0},{"id":183428,"code":"B4KJ201801007-1677","latitude":"35.8504639","longitude":"136.4581656","source_code":"KK53366316006","project_name":"","survey_name":"\u5de3\u539f\u5ddd\u5830\u5824\u5730\u8cea\u8abf\u67fb","client_name":"\u56fd\u571f\u4ea4\u901a\u7701\u8fd1\u757f\u5730\u65b9\u6574\u5099\u5c40\u798f\u4e95\u6cb3\u5ddd\u56fd\u9053\u4e8b\u52d9\u6240","boring_xml_url":40,"boring_view_url":1,"soilmap_view_url":null,"soiltest_xml_url":0,"soiltest_view_url":0},{"id":183427,"code":"B4KJ201801007-1676","latitude":"35.8504639","longitude":"136.4581656","source_code":"KK53366316005","project_name":"","survey_name":"\u5de3\u539f\u5ddd\u5830\u5824\u5730\u8cea\u8abf\u67fb","client_name":"\u56fd\u571f\u4ea4\u901a\u7701\u8fd1\u757f\u5730\u65b9\u6574\u5099\u5c40\u798f\u4e95\u6cb3\u5ddd\u56fd\u9053\u4e8b\u52d9\u6240","boring_xml_url":40,"boring_view_url":1,"soilmap_view_url":null,"soiltest_xml_url":0,"soiltest_view_url":0},{"id":183426,"code":"B4KJ201801007-1675","latitude":"35.8504639","longitude":"136.4581656","source_code":"KK53366316004","project_name":"","survey_name":"\u5de3\u539f\u5ddd\u5830\u5824\u5730\u8cea\u8abf\u67fb","client_name":"\u56fd\u571f\u4ea4\u901a\u7701\u8fd1\u757f\u5730\u65b9\u6574\u5099\u5c40\u798f\u4e95\u6cb3\u5ddd\u56fd\u9053\u4e8b\u52d9\u6240","boring_xml_url":40,"boring_view_url":1,"soilmap_view_url":null,"soiltest_xml_url":0,"soiltest_view_url":0},{"id":183425,"code":"B4KJ201801007-1674","latitude":"35.8504639","longitude":"136.4581656","source_code":"KK53366316003","project_name":"","survey_name":"\u5de3\u539f\u5ddd\u5830\u5824\u5730\u8cea\u8abf\u67fb","client_name":"\u56fd\u571f\u4ea4\u901a\u7701\u8fd1\u757f\u5730\u65b9\u6574\u5099\u5c40\u798f\u4e95\u6cb3\u5ddd\u56fd\u9053\u4e8b\u52d9\u6240","boring_xml_url":40,"boring_view_url":1,"soilmap_view_url":null,"soiltest_xml_url":0,"soiltest_view_url":0},{"id":183424,"code":"B4KJ201801007-1673","latitude":"35.8504639","longitude":"136.4581656","source_code":"KK53366316002","project_name":"","survey_name":"\u5de3\u539f\u5ddd\u5830\u5824\u5730\u8cea\u8abf\u67fb","client_name":"\u56fd\u571f\u4ea4\u901a\u7701\u8fd1\u757f\u5730\u65b9\u6574\u5099\u5c40\u798f\u4e95\u6cb3\u5ddd\u56fd\u9053\u4e8b\u52d9\u6240","boring_xml_url":40,"boring_view_url":1,"soilmap_view_url":null,"soiltest_xml_url":0,"soiltest_view_url":0},{"id":183423,"code":"B4KJ201801007-1672","latitude":"35.8504639","longitude":"136.4581656","source_code":"KK53366316001","project_name":"","survey_name":"\u5de3\u539f\u5ddd\u5830\u5824\u5730\u8cea\u8abf\u67fb","client_name":"\u56fd\u571f\u4ea4\u901a\u7701\u8fd1\u757f\u5730\u65b9\u6574\u5099\u5c40\u798f\u4e95\u6cb3\u5ddd\u56fd\u9053\u4e8b\u52d9\u6240","boring_xml_url":40,"boring_view_url":1,"soilmap_view_url":null,"soiltest_xml_url":0,"soiltest_view_url":0},{"id":183422,"code":"B4KJ201801007-1671","latitude":"35.8768983","longitude":"136.1679403","source_code":"KK53366143009","project_name":"","survey_name":"\u65e5\u91ce\u5ddd\u6a4b\u571f\u8cea\u8abf\u67fb\u4f5c\u696d","client_name":"\u56fd\u571f\u4ea4\u901a\u7701\u8fd1\u757f\u5730\u65b9\u6574\u5099\u5c40\u798f\u4e95\u6cb3\u5ddd\u56fd\u9053\u4e8b\u52d9\u6240","boring_xml_url":40,"boring_view_url":1,"soilmap_view_url":null,"soiltest_xml_url":0,"soiltest_view_url":0},{"id":183421,"code":"B4KJ201801007-1670","latitude":"35.8761206","longitude":"136.1659961","source_code":"KK53366143007","project_name":"","survey_name":"\u884c\u677e\u5730\u533a\u571f\u8cea\u8abf\u67fb\u4f5c\u696d","client_name":"\u56fd\u571f\u4ea4\u901a\u7701\u8fd1\u757f\u5730\u65b9\u6574\u5099\u5c40\u798f\u4e95\u6cb3\u5ddd\u56fd\u9053\u4e8b\u52d9\u6240","boring_xml_url":40,"boring_view_url":1,"soilmap_view_url":null,"soiltest_xml_url":0,"soiltest_view_url":0},{"id":183420,"code":"B4KJ201801007-1669","latitude":"35.8757039","longitude":"136.1643294","source_code":"KK53366143006","project_name":"","survey_name":"\u884c\u677e\u5730\u533a\u571f\u8cea\u8abf\u67fb\u4f5c\u696d","client_name":"\u56fd\u571f\u4ea4\u901a\u7701\u8fd1\u757f\u5730\u65b9\u6574\u5099\u5c40\u798f\u4e95\u6cb3\u5ddd\u56fd\u9053\u4e8b\u52d9\u6240","boring_xml_url":40,"boring_view_url":1,"soilmap_view_url":null,"soiltest_xml_url":0,"soiltest_view_url":0},{"id":183419,"code":"B4KJ201801007-1668","latitude":"35.8734264","longitude":"136.1646072","source_code":"KK53366143005","project_name":"","survey_name":"\u56db\u90ce\u4e38\u5730\u533a\u571f\u8cea\u8abf\u67fb\u4f5c\u696d","client_name":"\u56fd\u571f\u4ea4\u901a\u7701\u8fd1\u757f\u5730\u65b9\u6574\u5099\u5c40\u798f\u4e95\u6cb3\u5ddd\u56fd\u9053\u4e8b\u52d9\u6240","boring_xml_url":40,"boring_view_url":1,"soilmap_view_url":null,"soiltest_xml_url":0,"soiltest_view_url":0},{"id":183418,"code":"B4KJ201801007-1667","latitude":"35.8734264","longitude":"136.1646072","source_code":"KK53366143004","project_name":"","survey_name":"\u56db\u90ce\u4e38\u5730\u533a\u571f\u8cea\u8abf\u67fb\u4f5c\u696d","client_name":"\u56fd\u571f\u4ea4\u901a\u7701\u8fd1\u757f\u5730\u65b9\u6574\u5099\u5c40\u798f\u4e95\u6cb3\u5ddd\u56fd\u9053\u4e8b\u52d9\u6240","boring_xml_url":40,"boring_view_url":1,"soilmap_view_url":null,"soiltest_xml_url":0,"soiltest_view_url":0},{"id":183417,"code":"B4KJ201801007-1666","latitude":"35.8734264","longitude":"136.1646072","source_code":"KK53366143003","project_name":"","survey_name":"\u56db\u90ce\u4e38\u5730\u533a\u571f\u8cea\u8abf\u67fb\u4f5c\u696d","client_name":"\u56fd\u571f\u4ea4\u901a\u7701\u8fd1\u757f\u5730\u65b9\u6574\u5099\u5c40\u798f\u4e95\u6cb3\u5ddd\u56fd\u9053\u4e8b\u52d9\u6240","boring_xml_url":40,"boring_view_url":1,"soilmap_view_url":null,"soiltest_xml_url":0,"soiltest_view_url":0},{"id":183416,"code":"B4KJ201801007-1665","latitude":"35.8734264","longitude":"136.1646072","source_code":"KK53366143002","project_name":"","survey_name":"\u56db\u90ce\u4e38\u5730\u533a\u571f\u8cea\u8abf\u67fb\u4f5c\u696d","client_name":"\u56fd\u571f\u4ea4\u901a\u7701\u8fd1\u757f\u5730\u65b9\u6574\u5099\u5c40\u798f\u4e95\u6cb3\u5ddd\u56fd\u9053\u4e8b\u52d9\u6240","boring_xml_url":40,"boring_view_url":1,"soilmap_view_url":null,"soiltest_xml_url":0,"soiltest_view_url":0}]}}