{"header":{"xyz":{"source":[],"mosaic":false},"page":4576,"raw":{"soiltest_result":"0","bbox":"57.598333,109.544722,1.933333,163.806111","page":"4576"},"conditions":{"soiltest_result":0,"north":57.598333,"west":109.544722,"south":1.933333,"east":163.806111},"success":true,"message":""},"data":{"meta":{"total":212844,"page":4576,"pages":7095,"count":30},"values":[{"id":183295,"code":"B4KJ201801007-1544","latitude":"35.6308689","longitude":"136.0798736","source_code":"KK53363056007","project_name":"","survey_name":"\u6566\u8cc0\u30d0\u30a4\u30d1\u30b9\u5742\u30ce\u4e0b\u5730\u533a\u5730\u8cea\u8abf\u67fb","client_name":"\u56fd\u571f\u4ea4\u901a\u7701\u8fd1\u757f\u5730\u65b9\u6574\u5099\u5c40\u798f\u4e95\u6cb3\u5ddd\u56fd\u9053\u4e8b\u52d9\u6240","boring_xml_url":40,"boring_view_url":1,"soilmap_view_url":null,"soiltest_xml_url":0,"soiltest_view_url":0},{"id":183294,"code":"B4KJ201801007-1543","latitude":"35.6306189","longitude":"136.0795958","source_code":"KK53363056006","project_name":"","survey_name":"\u6566\u8cc0\u30d0\u30a4\u30d1\u30b9\u5742\u30ce\u4e0b\u5730\u533a\u5730\u8cea\u8abf\u67fb","client_name":"\u56fd\u571f\u4ea4\u901a\u7701\u8fd1\u757f\u5730\u65b9\u6574\u5099\u5c40\u798f\u4e95\u6cb3\u5ddd\u56fd\u9053\u4e8b\u52d9\u6240","boring_xml_url":40,"boring_view_url":1,"soilmap_view_url":null,"soiltest_xml_url":0,"soiltest_view_url":0},{"id":183293,"code":"B4KJ201801007-1542","latitude":"35.6303967","longitude":"136.0795958","source_code":"KK53363056005","project_name":"","survey_name":"\u6566\u8cc0\u30d0\u30a4\u30d1\u30b9\u5742\u30ce\u4e0b\u5730\u533a\u5730\u8cea\u8abf\u67fb","client_name":"\u56fd\u571f\u4ea4\u901a\u7701\u8fd1\u757f\u5730\u65b9\u6574\u5099\u5c40\u798f\u4e95\u6cb3\u5ddd\u56fd\u9053\u4e8b\u52d9\u6240","boring_xml_url":40,"boring_view_url":1,"soilmap_view_url":null,"soiltest_xml_url":0,"soiltest_view_url":0},{"id":183292,"code":"B4KJ201801007-1541","latitude":"35.6301744","longitude":"136.0798736","source_code":"KK53363056004","project_name":"","survey_name":"\u6566\u8cc0\u30d0\u30a4\u30d1\u30b9\u5742\u30ce\u4e0b\u5730\u533a\u5730\u8cea\u8abf\u67fb","client_name":"\u56fd\u571f\u4ea4\u901a\u7701\u8fd1\u757f\u5730\u65b9\u6574\u5099\u5c40\u798f\u4e95\u6cb3\u5ddd\u56fd\u9053\u4e8b\u52d9\u6240","boring_xml_url":40,"boring_view_url":1,"soilmap_view_url":null,"soiltest_xml_url":0,"soiltest_view_url":0},{"id":183291,"code":"B4KJ201801007-1540","latitude":"35.6299522","longitude":"136.0801514","source_code":"KK53363056003","project_name":"","survey_name":"\u6566\u8cc0\u30d0\u30a4\u30d1\u30b9\u5742\u30ce\u4e0b\u5730\u533a\u5730\u8cea\u8abf\u67fb","client_name":"\u56fd\u571f\u4ea4\u901a\u7701\u8fd1\u757f\u5730\u65b9\u6574\u5099\u5c40\u798f\u4e95\u6cb3\u5ddd\u56fd\u9053\u4e8b\u52d9\u6240","boring_xml_url":40,"boring_view_url":1,"soilmap_view_url":null,"soiltest_xml_url":0,"soiltest_view_url":0},{"id":183290,"code":"B4KJ201801007-1539","latitude":"35.62973","longitude":"136.0804292","source_code":"KK53363056002","project_name":"","survey_name":"\u6566\u8cc0\u30d0\u30a4\u30d1\u30b9\u5742\u30ce\u4e0b\u5730\u533a\u5730\u8cea\u8abf\u67fb","client_name":"\u56fd\u571f\u4ea4\u901a\u7701\u8fd1\u757f\u5730\u65b9\u6574\u5099\u5c40\u798f\u4e95\u6cb3\u5ddd\u56fd\u9053\u4e8b\u52d9\u6240","boring_xml_url":40,"boring_view_url":1,"soilmap_view_url":null,"soiltest_xml_url":0,"soiltest_view_url":0},{"id":183289,"code":"B4KJ201801007-1538","latitude":"35.6328403","longitude":"136.0543758","source_code":"KK53363054005","project_name":"","survey_name":"\u91ce\u795e\u9ad8\u67b6\u6a4b\u5730\u8cea\u8abf\u67fb\u4f5c\u696d","client_name":"\u56fd\u571f\u4ea4\u901a\u7701\u8fd1\u757f\u5730\u65b9\u6574\u5099\u5c40\u798f\u4e95\u6cb3\u5ddd\u56fd\u9053\u4e8b\u52d9\u6240","boring_xml_url":40,"boring_view_url":1,"soilmap_view_url":null,"soiltest_xml_url":0,"soiltest_view_url":0},{"id":183288,"code":"B4KJ201801007-1537","latitude":"35.6327847","longitude":"136.0557925","source_code":"KK53363054004","project_name":"","survey_name":"\u91ce\u795e\u9ad8\u67b6\u6a4b\u5730\u8cea\u8abf\u67fb\u4f5c\u696d","client_name":"\u56fd\u571f\u4ea4\u901a\u7701\u8fd1\u757f\u5730\u65b9\u6574\u5099\u5c40\u798f\u4e95\u6cb3\u5ddd\u56fd\u9053\u4e8b\u52d9\u6240","boring_xml_url":40,"boring_view_url":1,"soilmap_view_url":null,"soiltest_xml_url":0,"soiltest_view_url":0},{"id":183287,"code":"B4KJ201801007-1536","latitude":"35.6327569","longitude":"136.0567367","source_code":"KK53363054003","project_name":"","survey_name":"\u91ce\u795e\u9ad8\u67b6\u6a4b\u5730\u8cea\u8abf\u67fb\u4f5c\u696d","client_name":"\u56fd\u571f\u4ea4\u901a\u7701\u8fd1\u757f\u5730\u65b9\u6574\u5099\u5c40\u798f\u4e95\u6cb3\u5ddd\u56fd\u9053\u4e8b\u52d9\u6240","boring_xml_url":40,"boring_view_url":1,"soilmap_view_url":null,"soiltest_xml_url":0,"soiltest_view_url":0},{"id":183286,"code":"B4KJ201801007-1535","latitude":"35.6323125","longitude":"136.0533481","source_code":"KK53363054001","project_name":"","survey_name":"\u91d1\u5c71\u30d0\u30a4\u30d1\u30b9\u6e2c\u91cf\u4f5c\u696d\u53ca\u3073\u8a2d\u8a08\u59d4\u8a17\u696d\u52d9","client_name":"\u56fd\u571f\u4ea4\u901a\u7701\u8fd1\u757f\u5730\u65b9\u6574\u5099\u5c40\u798f\u4e95\u6cb3\u5ddd\u56fd\u9053\u4e8b\u52d9\u6240","boring_xml_url":40,"boring_view_url":1,"soilmap_view_url":null,"soiltest_xml_url":0,"soiltest_view_url":0},{"id":183285,"code":"B4KJ201801007-1534","latitude":"35.6335622","longitude":"136.0420992","source_code":"KK53363053004","project_name":"","survey_name":"\u91d1\u5c71\u30d0\u30a4\u30d1\u30b93\u5de5\u533a\u5730\u8cea\u8abf\u67fb\u4f5c\u696d","client_name":"\u56fd\u571f\u4ea4\u901a\u7701\u8fd1\u757f\u5730\u65b9\u6574\u5099\u5c40\u798f\u4e95\u6cb3\u5ddd\u56fd\u9053\u4e8b\u52d9\u6240","boring_xml_url":40,"boring_view_url":1,"soilmap_view_url":null,"soiltest_xml_url":0,"soiltest_view_url":0},{"id":183284,"code":"B4KJ201801007-1533","latitude":"35.6335619","longitude":"136.0408214","source_code":"KK53363053003","project_name":"","survey_name":"\u91d1\u5c71\u30d0\u30a4\u30d1\u30b93\u5de5\u533a\u5730\u8cea\u8abf\u67fb\u4f5c\u696d","client_name":"\u56fd\u571f\u4ea4\u901a\u7701\u8fd1\u757f\u5730\u65b9\u6574\u5099\u5c40\u798f\u4e95\u6cb3\u5ddd\u56fd\u9053\u4e8b\u52d9\u6240","boring_xml_url":40,"boring_view_url":1,"soilmap_view_url":null,"soiltest_xml_url":0,"soiltest_view_url":0},{"id":183283,"code":"B4KJ201801007-1532","latitude":"35.6335619","longitude":"136.0387939","source_code":"KK53363053002","project_name":"","survey_name":"\u91d1\u5c71\u30d0\u30a4\u30d1\u30b93\u5de5\u533a\u5730\u8cea\u8abf\u67fb\u4f5c\u696d","client_name":"\u56fd\u571f\u4ea4\u901a\u7701\u8fd1\u757f\u5730\u65b9\u6574\u5099\u5c40\u798f\u4e95\u6cb3\u5ddd\u56fd\u9053\u4e8b\u52d9\u6240","boring_xml_url":40,"boring_view_url":1,"soilmap_view_url":null,"soiltest_xml_url":0,"soiltest_view_url":0},{"id":183282,"code":"B4KJ201801007-1531","latitude":"35.6335619","longitude":"136.0362108","source_code":"KK53363053001","project_name":"","survey_name":"\u91d1\u5c71\u30d0\u30a4\u30d1\u30b93\u5de5\u533a\u5730\u8cea\u8abf\u67fb\u4f5c\u696d","client_name":"\u56fd\u571f\u4ea4\u901a\u7701\u8fd1\u757f\u5730\u65b9\u6574\u5099\u5c40\u798f\u4e95\u6cb3\u5ddd\u56fd\u9053\u4e8b\u52d9\u6240","boring_xml_url":40,"boring_view_url":1,"soilmap_view_url":null,"soiltest_xml_url":0,"soiltest_view_url":0},{"id":183281,"code":"B4KJ201801007-1530","latitude":"35.6323119","longitude":"136.0283503","source_code":"KK53363052012","project_name":"","survey_name":"\u91ce\u795e\u9ad8\u67b6\u6a4b\u5730\u8cea\u8abf\u67fb\u305d\u306e2\u4f5c\u696d","client_name":"\u56fd\u571f\u4ea4\u901a\u7701\u8fd1\u757f\u5730\u65b9\u6574\u5099\u5c40\u798f\u4e95\u6cb3\u5ddd\u56fd\u9053\u4e8b\u52d9\u6240","boring_xml_url":40,"boring_view_url":1,"soilmap_view_url":null,"soiltest_xml_url":0,"soiltest_view_url":0},{"id":183280,"code":"B4KJ201801007-1529","latitude":"35.6323119","longitude":"136.0283503","source_code":"KK53363052011","project_name":"","survey_name":"\u91ce\u795e\u9ad8\u67b6\u6a4b\u5730\u8cea\u8abf\u67fb\u305d\u306e2\u4f5c\u696d","client_name":"\u56fd\u571f\u4ea4\u901a\u7701\u8fd1\u757f\u5730\u65b9\u6574\u5099\u5c40\u798f\u4e95\u6cb3\u5ddd\u56fd\u9053\u4e8b\u52d9\u6240","boring_xml_url":40,"boring_view_url":1,"soilmap_view_url":null,"soiltest_xml_url":0,"soiltest_view_url":0},{"id":183279,"code":"B4KJ201801007-1528","latitude":"35.6323119","longitude":"136.0283503","source_code":"KK53363052010","project_name":"","survey_name":"\u91ce\u795e\u9ad8\u67b6\u6a4b\u5730\u8cea\u8abf\u67fb\u305d\u306e2\u4f5c\u696d","client_name":"\u56fd\u571f\u4ea4\u901a\u7701\u8fd1\u757f\u5730\u65b9\u6574\u5099\u5c40\u798f\u4e95\u6cb3\u5ddd\u56fd\u9053\u4e8b\u52d9\u6240","boring_xml_url":40,"boring_view_url":1,"soilmap_view_url":null,"soiltest_xml_url":0,"soiltest_view_url":0},{"id":183278,"code":"B4KJ201801007-1527","latitude":"35.6323119","longitude":"136.0283503","source_code":"KK53363052009","project_name":"","survey_name":"\u91ce\u795e\u9ad8\u67b6\u6a4b\u5730\u8cea\u8abf\u67fb\u305d\u306e2\u4f5c\u696d","client_name":"\u56fd\u571f\u4ea4\u901a\u7701\u8fd1\u757f\u5730\u65b9\u6574\u5099\u5c40\u798f\u4e95\u6cb3\u5ddd\u56fd\u9053\u4e8b\u52d9\u6240","boring_xml_url":40,"boring_view_url":1,"soilmap_view_url":null,"soiltest_xml_url":0,"soiltest_view_url":0},{"id":183277,"code":"B4KJ201801007-1526","latitude":"35.6323119","longitude":"136.0283503","source_code":"KK53363052008","project_name":"","survey_name":"\u91ce\u795e\u9ad8\u67b6\u6a4b\u5730\u8cea\u8abf\u67fb\u305d\u306e2\u4f5c\u696d","client_name":"\u56fd\u571f\u4ea4\u901a\u7701\u8fd1\u757f\u5730\u65b9\u6574\u5099\u5c40\u798f\u4e95\u6cb3\u5ddd\u56fd\u9053\u4e8b\u52d9\u6240","boring_xml_url":40,"boring_view_url":1,"soilmap_view_url":null,"soiltest_xml_url":0,"soiltest_view_url":0},{"id":183276,"code":"B4KJ201801007-1525","latitude":"35.6335064","longitude":"136.0317111","source_code":"KK53363052007","project_name":"","survey_name":"\u751f\u91ce\u52d5\u718a\u89b3\u6e2c\u89e3\u6790\u305d\u306e2\u696d\u52d9","client_name":"\u56fd\u571f\u4ea4\u901a\u7701\u8fd1\u757f\u5730\u65b9\u6574\u5099\u5c40\u798f\u4e95\u6cb3\u5ddd\u56fd\u9053\u4e8b\u52d9\u6240","boring_xml_url":40,"boring_view_url":1,"soilmap_view_url":null,"soiltest_xml_url":0,"soiltest_view_url":0},{"id":183275,"code":"B4KJ201801007-1524","latitude":"35.6336175","longitude":"136.0317389","source_code":"KK53363052006","project_name":"","survey_name":"\u751f\u91ce\u52d5\u718a\u89b3\u6e2c\u89e3\u6790\u305d\u306e2\u696d\u52d9","client_name":"\u56fd\u571f\u4ea4\u901a\u7701\u8fd1\u757f\u5730\u65b9\u6574\u5099\u5c40\u798f\u4e95\u6cb3\u5ddd\u56fd\u9053\u4e8b\u52d9\u6240","boring_xml_url":40,"boring_view_url":1,"soilmap_view_url":null,"soiltest_xml_url":0,"soiltest_view_url":0},{"id":183274,"code":"B4KJ201801007-1523","latitude":"35.6337286","longitude":"136.0342942","source_code":"KK53363052005","project_name":"","survey_name":"\u91d1\u5c71\u30d0\u30a4\u30d1\u30b93\u5de5\u533a\u5730\u8cea\u8abf\u67fb\u4f5c\u696d","client_name":"\u56fd\u571f\u4ea4\u901a\u7701\u8fd1\u757f\u5730\u65b9\u6574\u5099\u5c40\u798f\u4e95\u6cb3\u5ddd\u56fd\u9053\u4e8b\u52d9\u6240","boring_xml_url":40,"boring_view_url":1,"soilmap_view_url":null,"soiltest_xml_url":0,"soiltest_view_url":0},{"id":183273,"code":"B4KJ201801007-1522","latitude":"35.6337564","longitude":"136.0340164","source_code":"KK53363052004","project_name":"","survey_name":"\u91d1\u5c71\u30d0\u30a4\u30d1\u30b93\u5de5\u533a\u5730\u8cea\u8abf\u67fb\u4f5c\u696d","client_name":"\u56fd\u571f\u4ea4\u901a\u7701\u8fd1\u757f\u5730\u65b9\u6574\u5099\u5c40\u798f\u4e95\u6cb3\u5ddd\u56fd\u9053\u4e8b\u52d9\u6240","boring_xml_url":40,"boring_view_url":1,"soilmap_view_url":null,"soiltest_xml_url":0,"soiltest_view_url":0},{"id":183272,"code":"B4KJ201801007-1521","latitude":"35.6338394","longitude":"136.0281836","source_code":"KK53363052001","project_name":"","survey_name":"\u91d1\u5c71\u30d0\u30a4\u30d1\u30b93\u5de5\u533a\u5730\u8cea\u8abf\u67fb\u4f5c\u696d","client_name":"\u56fd\u571f\u4ea4\u901a\u7701\u8fd1\u757f\u5730\u65b9\u6574\u5099\u5c40\u798f\u4e95\u6cb3\u5ddd\u56fd\u9053\u4e8b\u52d9\u6240","boring_xml_url":40,"boring_view_url":1,"soilmap_view_url":null,"soiltest_xml_url":0,"soiltest_view_url":0},{"id":183271,"code":"B4KJ201801007-1520","latitude":"35.6337281","longitude":"136.0190178","source_code":"KK53363051002","project_name":"","survey_name":"\u91d1\u5c71\u30d0\u30a4\u30d1\u30b93\u5de5\u533a\u5730\u8cea\u8abf\u67fb\u4f5c\u696d","client_name":"\u56fd\u571f\u4ea4\u901a\u7701\u8fd1\u757f\u5730\u65b9\u6574\u5099\u5c40\u798f\u4e95\u6cb3\u5ddd\u56fd\u9053\u4e8b\u52d9\u6240","boring_xml_url":40,"boring_view_url":1,"soilmap_view_url":null,"soiltest_xml_url":0,"soiltest_view_url":0},{"id":183270,"code":"B4KJ201801007-1519","latitude":"35.6334506","longitude":"136.0192956","source_code":"KK53363051001","project_name":"","survey_name":"\u91d1\u5c71\u30d0\u30a4\u30d1\u30b93\u5de5\u533a\u5730\u8cea\u8abf\u67fb\u4f5c\u696d","client_name":"\u56fd\u571f\u4ea4\u901a\u7701\u8fd1\u757f\u5730\u65b9\u6574\u5099\u5c40\u798f\u4e95\u6cb3\u5ddd\u56fd\u9053\u4e8b\u52d9\u6240","boring_xml_url":40,"boring_view_url":1,"soilmap_view_url":null,"soiltest_xml_url":0,"soiltest_view_url":0},{"id":183269,"code":"B4KJ201801007-1518","latitude":"35.6295614","longitude":"135.9972978","source_code":"KK53363050006","project_name":"","survey_name":"\u7f8e\u6d5c\u6771B\u30fbP\u4f50\u7530\u30c8\u30f3\u30cd\u30eb\u4ed6\u5730\u8cea\u8abf\u67fb\u696d\u52d9","client_name":"\u56fd\u571f\u4ea4\u901a\u7701\u8fd1\u757f\u5730\u65b9\u6574\u5099\u5c40\u798f\u4e95\u6cb3\u5ddd\u56fd\u9053\u4e8b\u52d9\u6240","boring_xml_url":40,"boring_view_url":1,"soilmap_view_url":null,"soiltest_xml_url":0,"soiltest_view_url":0},{"id":183268,"code":"B4KJ201801007-1517","latitude":"35.6297281","longitude":"135.9974919","source_code":"KK53363050005","project_name":"","survey_name":"\u7f8e\u6d5c\u6771B\u30fbP\u4f50\u7530\u30c8\u30f3\u30cd\u30eb\u4ed6\u5730\u8cea\u8abf\u67fb\u696d\u52d9","client_name":"\u56fd\u571f\u4ea4\u901a\u7701\u8fd1\u757f\u5730\u65b9\u6574\u5099\u5c40\u798f\u4e95\u6cb3\u5ddd\u56fd\u9053\u4e8b\u52d9\u6240","boring_xml_url":40,"boring_view_url":1,"soilmap_view_url":null,"soiltest_xml_url":0,"soiltest_view_url":0},{"id":183267,"code":"B4KJ201801007-1516","latitude":"35.6298669","longitude":"135.9978531","source_code":"KK53363050004","project_name":"","survey_name":"\u7f8e\u6d5c\u6771B\u30fbP\u4f50\u7530\u30c8\u30f3\u30cd\u30eb\u4ed6\u5730\u8cea\u8abf\u67fb\u696d\u52d9","client_name":"\u56fd\u571f\u4ea4\u901a\u7701\u8fd1\u757f\u5730\u65b9\u6574\u5099\u5c40\u798f\u4e95\u6cb3\u5ddd\u56fd\u9053\u4e8b\u52d9\u6240","boring_xml_url":40,"boring_view_url":1,"soilmap_view_url":null,"soiltest_xml_url":0,"soiltest_view_url":0},{"id":183266,"code":"B4KJ201801007-1515","latitude":"35.6300614","longitude":"135.9980753","source_code":"KK53363050003","project_name":"","survey_name":"\u7f8e\u6d5c\u6771B\u30fbP\u4f50\u7530\u30c8\u30f3\u30cd\u30eb\u4ed6\u5730\u8cea\u8abf\u67fb\u696d\u52d9","client_name":"\u56fd\u571f\u4ea4\u901a\u7701\u8fd1\u757f\u5730\u65b9\u6574\u5099\u5c40\u798f\u4e95\u6cb3\u5ddd\u56fd\u9053\u4e8b\u52d9\u6240","boring_xml_url":40,"boring_view_url":1,"soilmap_view_url":null,"soiltest_xml_url":0,"soiltest_view_url":0}]}}