{"header":{"xyz":{"source":[],"mosaic":false},"page":4582,"raw":{"soiltest_result":"0","bbox":"57.598333,109.544722,1.933333,163.806111","page":"4582"},"conditions":{"soiltest_result":0,"north":57.598333,"west":109.544722,"south":1.933333,"east":163.806111},"success":true,"message":""},"data":{"meta":{"total":212844,"page":4582,"pages":7095,"count":30},"values":[{"id":183115,"code":"B4KJ201801007-1364","latitude":"35.4022547","longitude":"136.0225814","source_code":"KK53360072008","project_name":"","survey_name":"\u4eca\u6d25\u5730\u533a\u5730\u8cea\u8abf\u67fb\u4f5c\u696d","client_name":"\u56fd\u571f\u4ea4\u901a\u7701\u8fd1\u757f\u5730\u65b9\u6574\u5099\u5c40\u6ecb\u8cc0\u56fd\u9053\u4e8b\u52d9\u6240","boring_xml_url":40,"boring_view_url":1,"soilmap_view_url":null,"soiltest_xml_url":0,"soiltest_view_url":0},{"id":183114,"code":"B4KJ201801007-1363","latitude":"35.4022269","longitude":"136.0224425","source_code":"KK53360072007","project_name":"","survey_name":"\u4eca\u6d25\u5730\u533a\u5730\u8cea\u8abf\u67fb\u4f5c\u696d","client_name":"\u56fd\u571f\u4ea4\u901a\u7701\u8fd1\u757f\u5730\u65b9\u6574\u5099\u5c40\u6ecb\u8cc0\u56fd\u9053\u4e8b\u52d9\u6240","boring_xml_url":40,"boring_view_url":1,"soilmap_view_url":null,"soiltest_xml_url":0,"soiltest_view_url":0},{"id":183113,"code":"B4KJ201801007-1362","latitude":"35.4010883","longitude":"136.0230258","source_code":"KK53360072006","project_name":"","survey_name":"\u4eca\u6d25\u5730\u533a\u5730\u8cea\u8abf\u67fb\u4f5c\u696d","client_name":"\u56fd\u571f\u4ea4\u901a\u7701\u8fd1\u757f\u5730\u65b9\u6574\u5099\u5c40\u6ecb\u8cc0\u56fd\u9053\u4e8b\u52d9\u6240","boring_xml_url":40,"boring_view_url":1,"soilmap_view_url":null,"soiltest_xml_url":0,"soiltest_view_url":0},{"id":183112,"code":"B4KJ201801007-1361","latitude":"35.4011994","longitude":"136.0224147","source_code":"KK53360072005","project_name":"","survey_name":"\u4eca\u6d25\u5730\u533a\u5730\u8cea\u8abf\u67fb\u4f5c\u696d","client_name":"\u56fd\u571f\u4ea4\u901a\u7701\u8fd1\u757f\u5730\u65b9\u6574\u5099\u5c40\u6ecb\u8cc0\u56fd\u9053\u4e8b\u52d9\u6240","boring_xml_url":40,"boring_view_url":1,"soilmap_view_url":null,"soiltest_xml_url":0,"soiltest_view_url":0},{"id":183111,"code":"B4KJ201801007-1360","latitude":"35.3993386","longitude":"136.0236092","source_code":"KK53360072004","project_name":"","survey_name":"\u4eca\u6d25\u5730\u533a\u5730\u8cea\u8abf\u67fb\u4f5c\u696d","client_name":"\u56fd\u571f\u4ea4\u901a\u7701\u8fd1\u757f\u5730\u65b9\u6574\u5099\u5c40\u6ecb\u8cc0\u56fd\u9053\u4e8b\u52d9\u6240","boring_xml_url":40,"boring_view_url":1,"soilmap_view_url":null,"soiltest_xml_url":0,"soiltest_view_url":0},{"id":183110,"code":"B4KJ201801007-1359","latitude":"35.3989219","longitude":"136.0238036","source_code":"KK53360072003","project_name":"","survey_name":"\u4eca\u6d25\u5730\u533a\u5730\u8cea\u8abf\u67fb\u4f5c\u696d","client_name":"\u56fd\u571f\u4ea4\u901a\u7701\u8fd1\u757f\u5730\u65b9\u6574\u5099\u5c40\u6ecb\u8cc0\u56fd\u9053\u4e8b\u52d9\u6240","boring_xml_url":40,"boring_view_url":1,"soilmap_view_url":null,"soiltest_xml_url":0,"soiltest_view_url":0},{"id":183109,"code":"B4KJ201801007-1358","latitude":"35.3986997","longitude":"136.0239981","source_code":"KK53360072002","project_name":"","survey_name":"\u4eca\u6d25\u5730\u533a\u5730\u8cea\u8abf\u67fb\u4f5c\u696d","client_name":"\u56fd\u571f\u4ea4\u901a\u7701\u8fd1\u757f\u5730\u65b9\u6574\u5099\u5c40\u6ecb\u8cc0\u56fd\u9053\u4e8b\u52d9\u6240","boring_xml_url":40,"boring_view_url":1,"soilmap_view_url":null,"soiltest_xml_url":0,"soiltest_view_url":0},{"id":183108,"code":"B4KJ201801007-1357","latitude":"35.3980886","longitude":"136.0243314","source_code":"KK53360072001","project_name":"","survey_name":"\u4eca\u6d25\u5730\u533a\u5730\u8cea\u8abf\u67fb\u4f5c\u696d","client_name":"\u56fd\u571f\u4ea4\u901a\u7701\u8fd1\u757f\u5730\u65b9\u6574\u5099\u5c40\u6ecb\u8cc0\u56fd\u9053\u4e8b\u52d9\u6240","boring_xml_url":40,"boring_view_url":1,"soilmap_view_url":null,"soiltest_xml_url":0,"soiltest_view_url":0},{"id":183107,"code":"B4KJ201801007-1356","latitude":"35.399005","longitude":"136.0158597","source_code":"KK53360071001","project_name":"","survey_name":"\u4eca\u6d25\u5730\u533a\u5730\u8cea\u8abf\u67fb\u4f5c\u696d","client_name":"\u56fd\u571f\u4ea4\u901a\u7701\u8fd1\u757f\u5730\u65b9\u6574\u5099\u5c40\u6ecb\u8cc0\u56fd\u9053\u4e8b\u52d9\u6240","boring_xml_url":40,"boring_view_url":1,"soilmap_view_url":null,"soiltest_xml_url":0,"soiltest_view_url":0},{"id":183106,"code":"B4KJ201801007-1355","latitude":"35.3915061","longitude":"136.0269147","source_code":"KK53360062002","project_name":"","survey_name":"\u4eca\u6d25\u5730\u533a\u5730\u8cea\u8abf\u67fb\u4f5c\u696d","client_name":"\u56fd\u571f\u4ea4\u901a\u7701\u8fd1\u757f\u5730\u65b9\u6574\u5099\u5c40\u6ecb\u8cc0\u56fd\u9053\u4e8b\u52d9\u6240","boring_xml_url":40,"boring_view_url":1,"soilmap_view_url":null,"soiltest_xml_url":0,"soiltest_view_url":0},{"id":183105,"code":"B4KJ201801007-1354","latitude":"35.3895064","longitude":"136.0273036","source_code":"KK53360062001","project_name":"","survey_name":"\u4eca\u6d25\u5730\u533a\u5730\u8cea\u8abf\u67fb\u4f5c\u696d","client_name":"\u56fd\u571f\u4ea4\u901a\u7701\u8fd1\u757f\u5730\u65b9\u6574\u5099\u5c40\u6ecb\u8cc0\u56fd\u9053\u4e8b\u52d9\u6240","boring_xml_url":40,"boring_view_url":1,"soilmap_view_url":null,"soiltest_xml_url":0,"soiltest_view_url":0},{"id":183104,"code":"B4KJ201801007-1353","latitude":"35.3809242","longitude":"136.0326644","source_code":"KK53360052003","project_name":"","survey_name":"\u9ad8\u5cf6\u30d0\u30a4\u30d1\u30b9(\u65b0\u65ed\u753a)\u571f\u8cea\u8abf\u67fb","client_name":"\u56fd\u571f\u4ea4\u901a\u7701\u8fd1\u757f\u5730\u65b9\u6574\u5099\u5c40\u6ecb\u8cc0\u56fd\u9053\u4e8b\u52d9\u6240","boring_xml_url":40,"boring_view_url":1,"soilmap_view_url":null,"soiltest_xml_url":0,"soiltest_view_url":0},{"id":183103,"code":"B4KJ201801007-1352","latitude":"35.382785","longitude":"136.0311647","source_code":"KK53360052002","project_name":"","survey_name":"\u4eca\u6d25\u5730\u533a\u5730\u8cea\u8abf\u67fb\u4f5c\u696d","client_name":"\u56fd\u571f\u4ea4\u901a\u7701\u8fd1\u757f\u5730\u65b9\u6574\u5099\u5c40\u6ecb\u8cc0\u56fd\u9053\u4e8b\u52d9\u6240","boring_xml_url":40,"boring_view_url":1,"soilmap_view_url":null,"soiltest_xml_url":0,"soiltest_view_url":0},{"id":183102,"code":"B4KJ201801007-1351","latitude":"35.3862289","longitude":"136.0281925","source_code":"KK53360052001","project_name":"","survey_name":"\u4eca\u6d25\u5730\u533a\u5730\u8cea\u8abf\u67fb\u4f5c\u696d","client_name":"\u56fd\u571f\u4ea4\u901a\u7701\u8fd1\u757f\u5730\u65b9\u6574\u5099\u5c40\u6ecb\u8cc0\u56fd\u9053\u4e8b\u52d9\u6240","boring_xml_url":40,"boring_view_url":1,"soilmap_view_url":null,"soiltest_xml_url":0,"soiltest_view_url":0},{"id":183101,"code":"B4KJ201801007-1350","latitude":"35.3709256","longitude":"136.0406086","source_code":"KK53360043007","project_name":"","survey_name":"\u9ad8\u5cf6\u30d0\u30a4\u30d1\u30b9\u65b0\u65ed\u5730\u533a\u571f\u8cea\u8abf\u67fb\u4f5c\u696d","client_name":"\u56fd\u571f\u4ea4\u901a\u7701\u8fd1\u757f\u5730\u65b9\u6574\u5099\u5c40\u6ecb\u8cc0\u56fd\u9053\u4e8b\u52d9\u6240","boring_xml_url":40,"boring_view_url":1,"soilmap_view_url":null,"soiltest_xml_url":0,"soiltest_view_url":0},{"id":183100,"code":"B4KJ201801007-1349","latitude":"35.3740917","longitude":"136.0389419","source_code":"KK53360043006","project_name":"","survey_name":"\u9ad8\u5cf6\u30d0\u30a4\u30d1\u30b9\u65b0\u65ed\u5730\u533a\u571f\u8cea\u8abf\u67fb\u4f5c\u696d","client_name":"\u56fd\u571f\u4ea4\u901a\u7701\u8fd1\u757f\u5730\u65b9\u6574\u5099\u5c40\u6ecb\u8cc0\u56fd\u9053\u4e8b\u52d9\u6240","boring_xml_url":40,"boring_view_url":1,"soilmap_view_url":null,"soiltest_xml_url":0,"soiltest_view_url":0},{"id":183099,"code":"B4KJ201801007-1348","latitude":"35.3749806","longitude":"136.0383864","source_code":"KK53360043005","project_name":"","survey_name":"\u9ad8\u5cf6\u30d0\u30a4\u30d1\u30b9\u65b0\u65ed\u5730\u533a\u571f\u8cea\u8abf\u67fb\u4f5c\u696d","client_name":"\u56fd\u571f\u4ea4\u901a\u7701\u8fd1\u757f\u5730\u65b9\u6574\u5099\u5c40\u6ecb\u8cc0\u56fd\u9053\u4e8b\u52d9\u6240","boring_xml_url":40,"boring_view_url":1,"soilmap_view_url":null,"soiltest_xml_url":0,"soiltest_view_url":0},{"id":183098,"code":"B4KJ201801007-1347","latitude":"35.3754528","longitude":"136.0378308","source_code":"KK53360043004","project_name":"","survey_name":"\u9ad8\u5cf6\u30d0\u30a4\u30d1\u30b9\u65b0\u65ed\u5730\u533a\u571f\u8cea\u8abf\u67fb\u4f5c\u696d","client_name":"\u56fd\u571f\u4ea4\u901a\u7701\u8fd1\u757f\u5730\u65b9\u6574\u5099\u5c40\u6ecb\u8cc0\u56fd\u9053\u4e8b\u52d9\u6240","boring_xml_url":40,"boring_view_url":1,"soilmap_view_url":null,"soiltest_xml_url":0,"soiltest_view_url":0},{"id":183097,"code":"B4KJ201801007-1346","latitude":"35.3768136","longitude":"136.0373031","source_code":"KK53360043003","project_name":"","survey_name":"\u9ad8\u5cf6\u30d0\u30a4\u30d1\u30b9\u65b0\u65ed\u5730\u533a\u571f\u8cea\u8abf\u67fb\u4f5c\u696d","client_name":"\u56fd\u571f\u4ea4\u901a\u7701\u8fd1\u757f\u5730\u65b9\u6574\u5099\u5c40\u6ecb\u8cc0\u56fd\u9053\u4e8b\u52d9\u6240","boring_xml_url":40,"boring_view_url":1,"soilmap_view_url":null,"soiltest_xml_url":0,"soiltest_view_url":0},{"id":183096,"code":"B4KJ201801007-1345","latitude":"35.3741194","longitude":"136.0395808","source_code":"KK53360043002","project_name":"","survey_name":"\u9ad8\u5cf6\u30d0\u30a4\u30d1\u30b9(\u65b0\u65ed\u753a)\u571f\u8cea\u8abf\u67fb","client_name":"\u56fd\u571f\u4ea4\u901a\u7701\u8fd1\u757f\u5730\u65b9\u6574\u5099\u5c40\u6ecb\u8cc0\u56fd\u9053\u4e8b\u52d9\u6240","boring_xml_url":40,"boring_view_url":1,"soilmap_view_url":null,"soiltest_xml_url":0,"soiltest_view_url":0},{"id":183095,"code":"B4KJ201801007-1344","latitude":"35.3767858","longitude":"136.0363311","source_code":"KK53360043001","project_name":"","survey_name":"\u9ad8\u5cf6\u30d0\u30a4\u30d1\u30b9(\u65b0\u65ed\u753a)\u571f\u8cea\u8abf\u67fb","client_name":"\u56fd\u571f\u4ea4\u901a\u7701\u8fd1\u757f\u5730\u65b9\u6574\u5099\u5c40\u6ecb\u8cc0\u56fd\u9053\u4e8b\u52d9\u6240","boring_xml_url":40,"boring_view_url":1,"soilmap_view_url":null,"soiltest_xml_url":0,"soiltest_view_url":0},{"id":183094,"code":"B4KJ201801007-1343","latitude":"35.3632042","longitude":"136.0466639","source_code":"KK53360033005","project_name":"","survey_name":"\u9ad8\u5cf6\u30d0\u30a4\u30d1\u30b9\u65b0\u65ed\u5730\u533a\u571f\u8cea\u8abf\u67fb\u4f5c\u696d","client_name":"\u56fd\u571f\u4ea4\u901a\u7701\u8fd1\u757f\u5730\u65b9\u6574\u5099\u5c40\u6ecb\u8cc0\u56fd\u9053\u4e8b\u52d9\u6240","boring_xml_url":40,"boring_view_url":1,"soilmap_view_url":null,"soiltest_xml_url":0,"soiltest_view_url":0},{"id":183093,"code":"B4KJ201801007-1342","latitude":"35.3645653","longitude":"136.0455528","source_code":"KK53360033004","project_name":"","survey_name":"\u9ad8\u5cf6\u30d0\u30a4\u30d1\u30b9\u65b0\u65ed\u5730\u533a\u571f\u8cea\u8abf\u67fb\u4f5c\u696d","client_name":"\u56fd\u571f\u4ea4\u901a\u7701\u8fd1\u757f\u5730\u65b9\u6574\u5099\u5c40\u6ecb\u8cc0\u56fd\u9053\u4e8b\u52d9\u6240","boring_xml_url":40,"boring_view_url":1,"soilmap_view_url":null,"soiltest_xml_url":0,"soiltest_view_url":0},{"id":183092,"code":"B4KJ201801007-1341","latitude":"35.3659261","longitude":"136.0449972","source_code":"KK53360033003","project_name":"","survey_name":"\u9ad8\u5cf6\u30d0\u30a4\u30d1\u30b9\u65b0\u65ed\u5730\u533a\u571f\u8cea\u8abf\u67fb\u4f5c\u696d","client_name":"\u56fd\u571f\u4ea4\u901a\u7701\u8fd1\u757f\u5730\u65b9\u6574\u5099\u5c40\u6ecb\u8cc0\u56fd\u9053\u4e8b\u52d9\u6240","boring_xml_url":40,"boring_view_url":1,"soilmap_view_url":null,"soiltest_xml_url":0,"soiltest_view_url":0},{"id":183091,"code":"B4KJ201801007-1340","latitude":"35.3677314","longitude":"136.0439142","source_code":"KK53360033002","project_name":"","survey_name":"\u9ad8\u5cf6\u30d0\u30a4\u30d1\u30b9\u65b0\u65ed\u5730\u533a\u571f\u8cea\u8abf\u67fb\u4f5c\u696d","client_name":"\u56fd\u571f\u4ea4\u901a\u7701\u8fd1\u757f\u5730\u65b9\u6574\u5099\u5c40\u6ecb\u8cc0\u56fd\u9053\u4e8b\u52d9\u6240","boring_xml_url":40,"boring_view_url":1,"soilmap_view_url":null,"soiltest_xml_url":0,"soiltest_view_url":0},{"id":183090,"code":"B4KJ201801007-1339","latitude":"35.3695644","longitude":"136.0428031","source_code":"KK53360033001","project_name":"","survey_name":"\u9ad8\u5cf6\u30d0\u30a4\u30d1\u30b9\u65b0\u65ed\u5730\u533a\u571f\u8cea\u8abf\u67fb\u4f5c\u696d","client_name":"\u56fd\u571f\u4ea4\u901a\u7701\u8fd1\u757f\u5730\u65b9\u6574\u5099\u5c40\u6ecb\u8cc0\u56fd\u9053\u4e8b\u52d9\u6240","boring_xml_url":40,"boring_view_url":1,"soilmap_view_url":null,"soiltest_xml_url":0,"soiltest_view_url":0},{"id":183089,"code":"B4KJ201801007-1338","latitude":"35.3582883","longitude":"136.05683","source_code":"KK53360024007","project_name":"","survey_name":"\u9ad8\u5cf6\u30d0\u30a4\u30d1\u30b9\u91dd\u6c5f\u9ad8\u67b6\u6a4b\u8a73\u7d30\u8a2d\u8a08\u696d\u52d9","client_name":"\u56fd\u571f\u4ea4\u901a\u7701\u8fd1\u757f\u5730\u65b9\u6574\u5099\u5c40\u6ecb\u8cc0\u56fd\u9053\u4e8b\u52d9\u6240","boring_xml_url":40,"boring_view_url":1,"soilmap_view_url":null,"soiltest_xml_url":0,"soiltest_view_url":0},{"id":183088,"code":"B4KJ201801007-1337","latitude":"35.3582606","longitude":"136.0478308","source_code":"KK53360024006","project_name":"","survey_name":"\u9ad8\u5cf6\u30d0\u30a4\u30d1\u30b9\u91dd\u6c5f\u9ad8\u67b6\u8a73\u7d30\u8a2d\u8a08\u696d\u52d9","client_name":"\u56fd\u571f\u4ea4\u901a\u7701\u8fd1\u757f\u5730\u65b9\u6574\u5099\u5c40\u6ecb\u8cc0\u56fd\u9053\u4e8b\u52d9\u6240","boring_xml_url":40,"boring_view_url":1,"soilmap_view_url":null,"soiltest_xml_url":0,"soiltest_view_url":0},{"id":183087,"code":"B4KJ201801007-1336","latitude":"35.3583714","longitude":"136.0471364","source_code":"KK53360024005","project_name":"","survey_name":"\u9ad8\u5cf6\u30d0\u30a4\u30d1\u30b9\u91dd\u6c5f\u9ad8\u67b6\u8a73\u7d30\u8a2d\u8a08\u696d\u52d9","client_name":"\u56fd\u571f\u4ea4\u901a\u7701\u8fd1\u757f\u5730\u65b9\u6574\u5099\u5c40\u6ecb\u8cc0\u56fd\u9053\u4e8b\u52d9\u6240","boring_xml_url":40,"boring_view_url":1,"soilmap_view_url":null,"soiltest_xml_url":0,"soiltest_view_url":0},{"id":183086,"code":"B4KJ201801007-1335","latitude":"35.3567883","longitude":"136.0472475","source_code":"KK53360024004","project_name":"","survey_name":"\u9ad8\u5cf6\u30d0\u30a4\u30d1\u30b9\u91dd\u6c5f\u9ad8\u67b6\u8a73\u7d30\u8a2d\u8a08\u696d\u52d9","client_name":"\u56fd\u571f\u4ea4\u901a\u7701\u8fd1\u757f\u5730\u65b9\u6574\u5099\u5c40\u6ecb\u8cc0\u56fd\u9053\u4e8b\u52d9\u6240","boring_xml_url":40,"boring_view_url":1,"soilmap_view_url":null,"soiltest_xml_url":0,"soiltest_view_url":0}]}}