{"header":{"xyz":{"source":[],"mosaic":false},"page":4585,"raw":{"soiltest_result":"0","bbox":"57.598333,109.544722,1.933333,163.806111","page":"4585"},"conditions":{"soiltest_result":0,"north":57.598333,"west":109.544722,"south":1.933333,"east":163.806111},"success":true,"message":""},"data":{"meta":{"total":212844,"page":4585,"pages":7095,"count":30},"values":[{"id":183025,"code":"B4KJ201801007-1274","latitude":"35.6128683","longitude":"135.9748836","source_code":"KK53353738029","project_name":"","survey_name":"\u7f8e\u6d5c\u6771BP\u5c71\u4e0a\u5730\u533a\u5730\u8cea\u8abf\u67fb\u696d\u52d9","client_name":"\u56fd\u571f\u4ea4\u901a\u7701\u8fd1\u757f\u5730\u65b9\u6574\u5099\u5c40\u798f\u4e95\u6cb3\u5ddd\u56fd\u9053\u4e8b\u52d9\u6240","boring_xml_url":40,"boring_view_url":1,"soilmap_view_url":null,"soiltest_xml_url":0,"soiltest_view_url":0},{"id":183024,"code":"B4KJ201801007-1273","latitude":"35.6125906","longitude":"135.9754392","source_code":"KK53353738028","project_name":"","survey_name":"\u7f8e\u6d5c\u6771BP\u5c71\u4e0a\u5730\u533a\u5730\u8cea\u8abf\u67fb\u696d\u52d9","client_name":"\u56fd\u571f\u4ea4\u901a\u7701\u8fd1\u757f\u5730\u65b9\u6574\u5099\u5c40\u798f\u4e95\u6cb3\u5ddd\u56fd\u9053\u4e8b\u52d9\u6240","boring_xml_url":40,"boring_view_url":1,"soilmap_view_url":null,"soiltest_xml_url":0,"soiltest_view_url":0},{"id":183023,"code":"B4KJ201801007-1272","latitude":"35.6130072","longitude":"135.9768278","source_code":"KK53353738027","project_name":"","survey_name":"\u7f8e\u6d5c\u6771BP\u5c71\u4e0a\u5730\u533a\u5730\u8cea\u8abf\u67fb\u696d\u52d9","client_name":"\u56fd\u571f\u4ea4\u901a\u7701\u8fd1\u757f\u5730\u65b9\u6574\u5099\u5c40\u798f\u4e95\u6cb3\u5ddd\u56fd\u9053\u4e8b\u52d9\u6240","boring_xml_url":40,"boring_view_url":1,"soilmap_view_url":null,"soiltest_xml_url":0,"soiltest_view_url":0},{"id":183022,"code":"B4KJ201801007-1271","latitude":"35.6128683","longitude":"135.9768278","source_code":"KK53353738026","project_name":"","survey_name":"\u7f8e\u6d5c\u6771BP\u5c71\u4e0a\u5730\u533a\u5730\u8cea\u8abf\u67fb\u696d\u52d9","client_name":"\u56fd\u571f\u4ea4\u901a\u7701\u8fd1\u757f\u5730\u65b9\u6574\u5099\u5c40\u798f\u4e95\u6cb3\u5ddd\u56fd\u9053\u4e8b\u52d9\u6240","boring_xml_url":40,"boring_view_url":1,"soilmap_view_url":null,"soiltest_xml_url":0,"soiltest_view_url":0},{"id":183021,"code":"B4KJ201801007-1270","latitude":"35.6120353","longitude":"135.9746058","source_code":"KK53353738003","project_name":"","survey_name":"\u7f8e\u6d5c\u6771B.P\u4e0a\u91ce\u9ad8\u67b6\u6a4b\u4ed6\u5730\u8cea\u8abf\u67fb\u696d\u52d9","client_name":"\u56fd\u571f\u4ea4\u901a\u7701\u8fd1\u757f\u5730\u65b9\u6574\u5099\u5c40\u798f\u4e95\u6cb3\u5ddd\u56fd\u9053\u4e8b\u52d9\u6240","boring_xml_url":40,"boring_view_url":1,"soilmap_view_url":null,"soiltest_xml_url":0,"soiltest_view_url":0},{"id":183020,"code":"B4KJ201801007-1269","latitude":"35.6128683","longitude":"135.9732169","source_code":"KK53353738002","project_name":"","survey_name":"\u7f8e\u6d5c\u6771B.P\u4e0a\u91ce\u9ad8\u67b6\u6a4b\u4ed6\u5730\u8cea\u8abf\u67fb\u696d\u52d9","client_name":"\u56fd\u571f\u4ea4\u901a\u7701\u8fd1\u757f\u5730\u65b9\u6574\u5099\u5c40\u798f\u4e95\u6cb3\u5ddd\u56fd\u9053\u4e8b\u52d9\u6240","boring_xml_url":40,"boring_view_url":1,"soilmap_view_url":null,"soiltest_xml_url":0,"soiltest_view_url":0},{"id":183019,"code":"B4KJ201801007-1268","latitude":"35.6123128","longitude":"135.9729394","source_code":"KK53353738001","project_name":"","survey_name":"\u7f8e\u6d5c\u6771B.P\u4e0a\u91ce\u9ad8\u67b6\u6a4b\u4ed6\u5730\u8cea\u8abf\u67fb\u696d\u52d9","client_name":"\u56fd\u571f\u4ea4\u901a\u7701\u8fd1\u757f\u5730\u65b9\u6574\u5099\u5c40\u798f\u4e95\u6cb3\u5ddd\u56fd\u9053\u4e8b\u52d9\u6240","boring_xml_url":40,"boring_view_url":1,"soilmap_view_url":null,"soiltest_xml_url":0,"soiltest_view_url":0},{"id":183018,"code":"B4KJ201801007-1267","latitude":"35.6148122","longitude":"135.9632178","source_code":"KK53353737046","project_name":"","survey_name":"\u7f8e\u6d5c\u6771BP\u5c71\u4e0a\u5730\u533a\u5730\u8cea\u8abf\u67fb\u696d\u52d9","client_name":"\u56fd\u571f\u4ea4\u901a\u7701\u8fd1\u757f\u5730\u65b9\u6574\u5099\u5c40\u798f\u4e95\u6cb3\u5ddd\u56fd\u9053\u4e8b\u52d9\u6240","boring_xml_url":40,"boring_view_url":1,"soilmap_view_url":null,"soiltest_xml_url":0,"soiltest_view_url":0},{"id":183017,"code":"B4KJ201801007-1266","latitude":"35.6128125","longitude":"135.9599683","source_code":"KK53353737045","project_name":"","survey_name":"\u7f8e\u6d5c\u6771BP\u4f50\u67ff\u5730\u533a\u5730\u8cea\u8abf\u67fb\u696d\u52d9","client_name":"\u56fd\u571f\u4ea4\u901a\u7701\u8fd1\u757f\u5730\u65b9\u6574\u5099\u5c40\u798f\u4e95\u6cb3\u5ddd\u56fd\u9053\u4e8b\u52d9\u6240","boring_xml_url":40,"boring_view_url":1,"soilmap_view_url":null,"soiltest_xml_url":0,"soiltest_view_url":0},{"id":183016,"code":"B4KJ201801007-1265","latitude":"35.6142569","longitude":"135.9621069","source_code":"KK53353737044","project_name":"","survey_name":"\u7f8e\u6d5c\u6771BP\u5c71\u4e0a\u5730\u533a\u5730\u8cea\u8abf\u67fb\u696d\u52d9","client_name":"\u56fd\u571f\u4ea4\u901a\u7701\u8fd1\u757f\u5730\u65b9\u6574\u5099\u5c40\u798f\u4e95\u6cb3\u5ddd\u56fd\u9053\u4e8b\u52d9\u6240","boring_xml_url":40,"boring_view_url":1,"soilmap_view_url":null,"soiltest_xml_url":0,"soiltest_view_url":0},{"id":183015,"code":"B4KJ201801007-1264","latitude":"35.6135069","longitude":"135.9605236","source_code":"KK53353737043","project_name":"","survey_name":"\u7f8e\u6d5c\u6771BP\u4f50\u67ff\u5730\u533a\u5730\u8cea\u8abf\u67fb\u696d\u52d9","client_name":"\u56fd\u571f\u4ea4\u901a\u7701\u8fd1\u757f\u5730\u65b9\u6574\u5099\u5c40\u798f\u4e95\u6cb3\u5ddd\u56fd\u9053\u4e8b\u52d9\u6240","boring_xml_url":40,"boring_view_url":1,"soilmap_view_url":null,"soiltest_xml_url":0,"soiltest_view_url":0},{"id":183014,"code":"B4KJ201801007-1263","latitude":"35.6134236","longitude":"135.9679397","source_code":"KK53353737042","project_name":"","survey_name":"\u7f8e\u6d5c\u6771BP\u5c71\u4e0a\u5730\u533a\u5730\u8cea\u8abf\u67fb\u696d\u52d9","client_name":"\u56fd\u571f\u4ea4\u901a\u7701\u8fd1\u757f\u5730\u65b9\u6574\u5099\u5c40\u798f\u4e95\u6cb3\u5ddd\u56fd\u9053\u4e8b\u52d9\u6240","boring_xml_url":40,"boring_view_url":1,"soilmap_view_url":null,"soiltest_xml_url":0,"soiltest_view_url":0},{"id":183013,"code":"B4KJ201801007-1262","latitude":"35.6138403","longitude":"135.9606625","source_code":"KK53353737041","project_name":"","survey_name":"\u7f8e\u6d5c\u6771BP\u4f50\u67ff\u5730\u533a\u5730\u8cea\u8abf\u67fb\u696d\u52d9","client_name":"\u56fd\u571f\u4ea4\u901a\u7701\u8fd1\u757f\u5730\u65b9\u6574\u5099\u5c40\u798f\u4e95\u6cb3\u5ddd\u56fd\u9053\u4e8b\u52d9\u6240","boring_xml_url":40,"boring_view_url":1,"soilmap_view_url":null,"soiltest_xml_url":0,"soiltest_view_url":0},{"id":183012,"code":"B4KJ201801007-1261","latitude":"35.6134236","longitude":"135.9682175","source_code":"KK53353737040","project_name":"","survey_name":"\u7f8e\u6d5c\u6771BP\u5c71\u4e0a\u5730\u533a\u5730\u8cea\u8abf\u67fb\u696d\u52d9","client_name":"\u56fd\u571f\u4ea4\u901a\u7701\u8fd1\u757f\u5730\u65b9\u6574\u5099\u5c40\u798f\u4e95\u6cb3\u5ddd\u56fd\u9053\u4e8b\u52d9\u6240","boring_xml_url":40,"boring_view_url":1,"soilmap_view_url":null,"soiltest_xml_url":0,"soiltest_view_url":0},{"id":183011,"code":"B4KJ201801007-1260","latitude":"35.6128125","longitude":"135.9596906","source_code":"KK53353737039","project_name":"","survey_name":"\u7f8e\u6d5c\u6771BP\u4f50\u67ff\u5730\u533a\u5730\u8cea\u8abf\u67fb\u696d\u52d9","client_name":"\u56fd\u571f\u4ea4\u901a\u7701\u8fd1\u757f\u5730\u65b9\u6574\u5099\u5c40\u798f\u4e95\u6cb3\u5ddd\u56fd\u9053\u4e8b\u52d9\u6240","boring_xml_url":40,"boring_view_url":1,"soilmap_view_url":null,"soiltest_xml_url":0,"soiltest_view_url":0},{"id":183010,"code":"B4KJ201801007-1259","latitude":"35.6137014","longitude":"135.9693283","source_code":"KK53353737038","project_name":"","survey_name":"\u7f8e\u6d5c\u6771BP\u5c71\u4e0a\u5730\u533a\u5730\u8cea\u8abf\u67fb\u696d\u52d9","client_name":"\u56fd\u571f\u4ea4\u901a\u7701\u8fd1\u757f\u5730\u65b9\u6574\u5099\u5c40\u798f\u4e95\u6cb3\u5ddd\u56fd\u9053\u4e8b\u52d9\u6240","boring_xml_url":40,"boring_view_url":1,"soilmap_view_url":null,"soiltest_xml_url":0,"soiltest_view_url":0},{"id":183009,"code":"B4KJ201801007-1258","latitude":"35.6136181","longitude":"135.9610792","source_code":"KK53353737037","project_name":"","survey_name":"\u7f8e\u6d5c\u6771BP\u4f50\u67ff\u5730\u533a\u5730\u8cea\u8abf\u67fb\u696d\u52d9","client_name":"\u56fd\u571f\u4ea4\u901a\u7701\u8fd1\u757f\u5730\u65b9\u6574\u5099\u5c40\u798f\u4e95\u6cb3\u5ddd\u56fd\u9053\u4e8b\u52d9\u6240","boring_xml_url":40,"boring_view_url":1,"soilmap_view_url":null,"soiltest_xml_url":0,"soiltest_view_url":0},{"id":183008,"code":"B4KJ201801007-1257","latitude":"35.6134239","longitude":"135.9698839","source_code":"KK53353737036","project_name":"","survey_name":"\u7f8e\u6d5c\u6771BP\u5c71\u4e0a\u5730\u533a\u5730\u8cea\u8abf\u67fb\u696d\u52d9","client_name":"\u56fd\u571f\u4ea4\u901a\u7701\u8fd1\u757f\u5730\u65b9\u6574\u5099\u5c40\u798f\u4e95\u6cb3\u5ddd\u56fd\u9053\u4e8b\u52d9\u6240","boring_xml_url":40,"boring_view_url":1,"soilmap_view_url":null,"soiltest_xml_url":0,"soiltest_view_url":0},{"id":183007,"code":"B4KJ201801007-1256","latitude":"35.6134239","longitude":"135.9701617","source_code":"KK53353737035","project_name":"","survey_name":"\u7f8e\u6d5c\u6771BP\u5c71\u4e0a\u5730\u533a\u5730\u8cea\u8abf\u67fb\u696d\u52d9","client_name":"\u56fd\u571f\u4ea4\u901a\u7701\u8fd1\u757f\u5730\u65b9\u6574\u5099\u5c40\u798f\u4e95\u6cb3\u5ddd\u56fd\u9053\u4e8b\u52d9\u6240","boring_xml_url":40,"boring_view_url":1,"soilmap_view_url":null,"soiltest_xml_url":0,"soiltest_view_url":0},{"id":183006,"code":"B4KJ201801007-1255","latitude":"35.6139514","longitude":"135.9614958","source_code":"KK53353737034","project_name":"","survey_name":"\u7f8e\u6d5c\u6771BP\u4f50\u67ff\u5730\u533a\u5730\u8cea\u8abf\u67fb\u696d\u52d9","client_name":"\u56fd\u571f\u4ea4\u901a\u7701\u8fd1\u757f\u5730\u65b9\u6574\u5099\u5c40\u798f\u4e95\u6cb3\u5ddd\u56fd\u9053\u4e8b\u52d9\u6240","boring_xml_url":40,"boring_view_url":1,"soilmap_view_url":null,"soiltest_xml_url":0,"soiltest_view_url":0},{"id":183005,"code":"B4KJ201801007-1254","latitude":"35.6139514","longitude":"135.9613569","source_code":"KK53353737033","project_name":"","survey_name":"\u7f8e\u6d5c\u6771BP\u4f50\u67ff\u5730\u533a\u5730\u8cea\u8abf\u67fb\u696d\u52d9","client_name":"\u56fd\u571f\u4ea4\u901a\u7701\u8fd1\u757f\u5730\u65b9\u6574\u5099\u5c40\u798f\u4e95\u6cb3\u5ddd\u56fd\u9053\u4e8b\u52d9\u6240","boring_xml_url":40,"boring_view_url":1,"soilmap_view_url":null,"soiltest_xml_url":0,"soiltest_view_url":0},{"id":183004,"code":"B4KJ201801007-1253","latitude":"35.6145344","longitude":"135.9621069","source_code":"KK53353737032","project_name":"","survey_name":"\u7f8e\u6d5c\u6771BP\u5c71\u4e0a\u5730\u533a\u5730\u8cea\u8abf\u67fb\u696d\u52d9","client_name":"\u56fd\u571f\u4ea4\u901a\u7701\u8fd1\u757f\u5730\u65b9\u6574\u5099\u5c40\u798f\u4e95\u6cb3\u5ddd\u56fd\u9053\u4e8b\u52d9\u6240","boring_xml_url":40,"boring_view_url":1,"soilmap_view_url":null,"soiltest_xml_url":0,"soiltest_view_url":0},{"id":183003,"code":"B4KJ201801007-1252","latitude":"35.6120347","longitude":"135.9596072","source_code":"KK53353737001","project_name":"","survey_name":"\u7f8e\u6d5c\u6771B.P\u4e0a\u91ce\u9ad8\u67b6\u6a4b\u4ed6\u5730\u8cea\u8abf\u67fb\u696d\u52d9","client_name":"\u56fd\u571f\u4ea4\u901a\u7701\u8fd1\u757f\u5730\u65b9\u6574\u5099\u5c40\u798f\u4e95\u6cb3\u5ddd\u56fd\u9053\u4e8b\u52d9\u6240","boring_xml_url":40,"boring_view_url":1,"soilmap_view_url":null,"soiltest_xml_url":0,"soiltest_view_url":0},{"id":183002,"code":"B4KJ201801007-1251","latitude":"35.6121458","longitude":"135.9594128","source_code":"KK53353736003","project_name":"","survey_name":"\u7f8e\u6d5c\u6771BP\u4f50\u67ff\u5730\u533a\u5730\u8cea\u8abf\u67fb\u696d\u52d9","client_name":"\u56fd\u571f\u4ea4\u901a\u7701\u8fd1\u757f\u5730\u65b9\u6574\u5099\u5c40\u798f\u4e95\u6cb3\u5ddd\u56fd\u9053\u4e8b\u52d9\u6240","boring_xml_url":40,"boring_view_url":1,"soilmap_view_url":null,"soiltest_xml_url":0,"soiltest_view_url":0},{"id":183001,"code":"B4KJ201801007-1250","latitude":"35.6114797","longitude":"135.9737725","source_code":"KK53353728001","project_name":"","survey_name":"\u7f8e\u6d5c\u6771B.P\u4e0a\u91ce\u9ad8\u67b6\u6a4b\u4ed6\u5730\u8cea\u8abf\u67fb\u696d\u52d9","client_name":"\u56fd\u571f\u4ea4\u901a\u7701\u8fd1\u757f\u5730\u65b9\u6574\u5099\u5c40\u798f\u4e95\u6cb3\u5ddd\u56fd\u9053\u4e8b\u52d9\u6240","boring_xml_url":40,"boring_view_url":1,"soilmap_view_url":null,"soiltest_xml_url":0,"soiltest_view_url":0},{"id":183000,"code":"B4KJ201801007-1249","latitude":"35.6098128","longitude":"135.9571908","source_code":"KK53353726004","project_name":"","survey_name":"\u7f8e\u6d5c\u6771BP\u4f50\u67ff\u5730\u533a\u5730\u8cea\u8abf\u67fb\u696d\u52d9","client_name":"\u56fd\u571f\u4ea4\u901a\u7701\u8fd1\u757f\u5730\u65b9\u6574\u5099\u5c40\u798f\u4e95\u6cb3\u5ddd\u56fd\u9053\u4e8b\u52d9\u6240","boring_xml_url":40,"boring_view_url":1,"soilmap_view_url":null,"soiltest_xml_url":0,"soiltest_view_url":0},{"id":182999,"code":"B4KJ201801007-1248","latitude":"35.6109239","longitude":"135.9587739","source_code":"KK53353726001","project_name":"","survey_name":"\u7f8e\u6d5c\u6771B.P\u4e0a\u91ce\u9ad8\u67b6\u6a4b\u4ed6\u5730\u8cea\u8abf\u67fb\u696d\u52d9","client_name":"\u56fd\u571f\u4ea4\u901a\u7701\u8fd1\u757f\u5730\u65b9\u6574\u5099\u5c40\u798f\u4e95\u6cb3\u5ddd\u56fd\u9053\u4e8b\u52d9\u6240","boring_xml_url":40,"boring_view_url":1,"soilmap_view_url":null,"soiltest_xml_url":0,"soiltest_view_url":0},{"id":182998,"code":"B4KJ201801007-1247","latitude":"35.582315","longitude":"135.9158622","source_code":"KK53352793002","project_name":"","survey_name":"27\u53f7\u6c17\u5c71\u5730\u533a\u6a2a\u65ad\u6b69\u9053\u6a4b\u8a2d\u8a08","client_name":"\u56fd\u571f\u4ea4\u901a\u7701\u8fd1\u757f\u5730\u65b9\u6574\u5099\u5c40\u798f\u4e95\u6cb3\u5ddd\u56fd\u9053\u4e8b\u52d9\u6240","boring_xml_url":40,"boring_view_url":1,"soilmap_view_url":null,"soiltest_xml_url":0,"soiltest_view_url":0},{"id":182997,"code":"B4KJ201801007-1246","latitude":"35.5119469","longitude":"135.285365","source_code":"KK53352213005","project_name":"","survey_name":"\u662d\u548c49\u5e74\u5ea6\u7531\u826f\u5730\u533a\u5730\u8cea\u8abf\u67fb\u4f5c\u696d","client_name":"\u56fd\u571f\u4ea4\u901a\u7701\u8fd1\u757f\u5730\u65b9\u6574\u5099\u5c40\u798f\u77e5\u5c71\u6cb3\u5ddd\u56fd\u9053\u4e8b\u52d9\u6240","boring_xml_url":40,"boring_view_url":1,"soilmap_view_url":null,"soiltest_xml_url":0,"soiltest_view_url":0},{"id":182996,"code":"B4KJ201801007-1245","latitude":"35.5128358","longitude":"135.285365","source_code":"KK53352213004","project_name":"","survey_name":"\u662d\u548c49\u5e74\u5ea6\u7531\u826f\u5730\u533a\u5730\u8cea\u8abf\u67fb\u4f5c\u696d","client_name":"\u56fd\u571f\u4ea4\u901a\u7701\u8fd1\u757f\u5730\u65b9\u6574\u5099\u5c40\u798f\u77e5\u5c71\u6cb3\u5ddd\u56fd\u9053\u4e8b\u52d9\u6240","boring_xml_url":40,"boring_view_url":1,"soilmap_view_url":null,"soiltest_xml_url":0,"soiltest_view_url":0}]}}