{"header":{"xyz":{"source":[],"mosaic":false},"page":46,"raw":{"soiltest_result":"0","bbox":"57.598333,109.544722,1.933333,163.806111","page":"46"},"conditions":{"soiltest_result":0,"north":57.598333,"west":109.544722,"south":1.933333,"east":163.806111},"success":true,"message":""},"data":{"meta":{"total":212844,"page":46,"pages":7095,"count":30},"values":[{"id":699601,"code":"NGIC202305556-0001","latitude":"35.555781277778","longitude":"139.75973636111","source_code":"","project_name":"","survey_name":"\u4ee4\u548c5\u5e74\u5ea6\u6771\u4eac\u56fd\u969b\u7a7a\u6e2fN\u8a98\u5c0e\u8def\u571f\u8cea\u8abf\u67fb","client_name":"\u56fd\u571f\u4ea4\u901a\u7701\u95a2\u6771\u5730\u65b9\u6574\u5099\u5c40\u6771\u4eac\u7a7a\u6e2f\u6574\u5099\u4e8b\u52d9\u6240","boring_xml_url":47,"boring_view_url":1,"soilmap_view_url":null,"soiltest_xml_url":47,"soiltest_view_url":47},{"id":699588,"code":"NGIC202305552-0019","latitude":"35.643186111111","longitude":"139.80789722222","source_code":"","project_name":"","survey_name":"R4\u56fd\u9053357\u53f7\u5916\u5730\u8cea\u88dc\u8db3\u8abf\u67fb\u696d\u52d9","client_name":"\u56fd\u571f\u4ea4\u901a\u7701\u95a2\u6771\u5730\u65b9\u6574\u5099\u5c40\u5ddd\u5d0e\u56fd\u9053\u4e8b\u52d9\u6240","boring_xml_url":47,"boring_view_url":1,"soilmap_view_url":null,"soiltest_xml_url":0,"soiltest_view_url":0},{"id":699587,"code":"NGIC202305552-0018","latitude":"35.643186111111","longitude":"139.80789722222","source_code":"","project_name":"","survey_name":"R4\u56fd\u9053357\u53f7\u5916\u5730\u8cea\u88dc\u8db3\u8abf\u67fb\u696d\u52d9","client_name":"\u56fd\u571f\u4ea4\u901a\u7701\u95a2\u6771\u5730\u65b9\u6574\u5099\u5c40\u5ddd\u5d0e\u56fd\u9053\u4e8b\u52d9\u6240","boring_xml_url":47,"boring_view_url":1,"soilmap_view_url":null,"soiltest_xml_url":47,"soiltest_view_url":47},{"id":699586,"code":"NGIC202305552-0017","latitude":"35.642508333333","longitude":"139.80598055556","source_code":"","project_name":"","survey_name":"R4\u56fd\u9053357\u53f7\u5916\u5730\u8cea\u88dc\u8db3\u8abf\u67fb\u696d\u52d9","client_name":"\u56fd\u571f\u4ea4\u901a\u7701\u95a2\u6771\u5730\u65b9\u6574\u5099\u5c40\u5ddd\u5d0e\u56fd\u9053\u4e8b\u52d9\u6240","boring_xml_url":47,"boring_view_url":1,"soilmap_view_url":null,"soiltest_xml_url":0,"soiltest_view_url":0},{"id":699585,"code":"NGIC202305552-0016","latitude":"35.642508333333","longitude":"139.80598055556","source_code":"","project_name":"","survey_name":"R4\u56fd\u9053357\u53f7\u5916\u5730\u8cea\u88dc\u8db3\u8abf\u67fb\u696d\u52d9","client_name":"\u56fd\u571f\u4ea4\u901a\u7701\u95a2\u6771\u5730\u65b9\u6574\u5099\u5c40\u5ddd\u5d0e\u56fd\u9053\u4e8b\u52d9\u6240","boring_xml_url":47,"boring_view_url":1,"soilmap_view_url":null,"soiltest_xml_url":47,"soiltest_view_url":47},{"id":699584,"code":"NGIC202305552-0015","latitude":"35.475916666667","longitude":"139.36853333333","source_code":"","project_name":"","survey_name":"R4\u56fd\u9053357\u53f7\u5916\u5730\u8cea\u88dc\u8db3\u8abf\u67fb\u696d\u52d9","client_name":"\u56fd\u571f\u4ea4\u901a\u7701\u95a2\u6771\u5730\u65b9\u6574\u5099\u5c40\u5ddd\u5d0e\u56fd\u9053\u4e8b\u52d9\u6240","boring_xml_url":47,"boring_view_url":1,"soilmap_view_url":null,"soiltest_xml_url":47,"soiltest_view_url":47},{"id":699583,"code":"NGIC202305552-0014","latitude":"35.475916666667","longitude":"139.36853333333","source_code":"","project_name":"","survey_name":"R4\u56fd\u9053357\u53f7\u5916\u5730\u8cea\u88dc\u8db3\u8abf\u67fb\u696d\u52d9","client_name":"\u56fd\u571f\u4ea4\u901a\u7701\u95a2\u6771\u5730\u65b9\u6574\u5099\u5c40\u5ddd\u5d0e\u56fd\u9053\u4e8b\u52d9\u6240","boring_xml_url":47,"boring_view_url":1,"soilmap_view_url":null,"soiltest_xml_url":47,"soiltest_view_url":47},{"id":699582,"code":"NGIC202305552-0013","latitude":"35.475791666667","longitude":"139.36803888889","source_code":"","project_name":"","survey_name":"R4\u56fd\u9053357\u53f7\u5916\u5730\u8cea\u88dc\u8db3\u8abf\u67fb\u696d\u52d9","client_name":"\u56fd\u571f\u4ea4\u901a\u7701\u95a2\u6771\u5730\u65b9\u6574\u5099\u5c40\u5ddd\u5d0e\u56fd\u9053\u4e8b\u52d9\u6240","boring_xml_url":47,"boring_view_url":1,"soilmap_view_url":null,"soiltest_xml_url":47,"soiltest_view_url":47},{"id":699581,"code":"NGIC202305552-0012","latitude":"35.475791666667","longitude":"139.36803888889","source_code":"","project_name":"","survey_name":"R4\u56fd\u9053357\u53f7\u5916\u5730\u8cea\u88dc\u8db3\u8abf\u67fb\u696d\u52d9","client_name":"\u56fd\u571f\u4ea4\u901a\u7701\u95a2\u6771\u5730\u65b9\u6574\u5099\u5c40\u5ddd\u5d0e\u56fd\u9053\u4e8b\u52d9\u6240","boring_xml_url":47,"boring_view_url":1,"soilmap_view_url":null,"soiltest_xml_url":47,"soiltest_view_url":47},{"id":699580,"code":"NGIC202305552-0011","latitude":"35.470075","longitude":"139.34285833333","source_code":"","project_name":"","survey_name":"R4\u56fd\u9053357\u53f7\u5916\u5730\u8cea\u88dc\u8db3\u8abf\u67fb\u696d\u52d9","client_name":"\u56fd\u571f\u4ea4\u901a\u7701\u95a2\u6771\u5730\u65b9\u6574\u5099\u5c40\u5ddd\u5d0e\u56fd\u9053\u4e8b\u52d9\u6240","boring_xml_url":47,"boring_view_url":1,"soilmap_view_url":null,"soiltest_xml_url":47,"soiltest_view_url":47},{"id":699579,"code":"NGIC202305552-0010","latitude":"35.470075","longitude":"139.34285833333","source_code":"","project_name":"","survey_name":"R4\u56fd\u9053357\u53f7\u5916\u5730\u8cea\u88dc\u8db3\u8abf\u67fb\u696d\u52d9","client_name":"\u56fd\u571f\u4ea4\u901a\u7701\u95a2\u6771\u5730\u65b9\u6574\u5099\u5c40\u5ddd\u5d0e\u56fd\u9053\u4e8b\u52d9\u6240","boring_xml_url":47,"boring_view_url":1,"soilmap_view_url":null,"soiltest_xml_url":47,"soiltest_view_url":47},{"id":699578,"code":"NGIC202305552-0009","latitude":"35.470072222222","longitude":"139.34335555556","source_code":"","project_name":"","survey_name":"R4\u56fd\u9053357\u53f7\u5916\u5730\u8cea\u88dc\u8db3\u8abf\u67fb\u696d\u52d9","client_name":"\u56fd\u571f\u4ea4\u901a\u7701\u95a2\u6771\u5730\u65b9\u6574\u5099\u5c40\u5ddd\u5d0e\u56fd\u9053\u4e8b\u52d9\u6240","boring_xml_url":47,"boring_view_url":1,"soilmap_view_url":null,"soiltest_xml_url":47,"soiltest_view_url":47},{"id":699577,"code":"NGIC202305552-0008","latitude":"35.470072222222","longitude":"139.34335555556","source_code":"","project_name":"","survey_name":"R4\u56fd\u9053357\u53f7\u5916\u5730\u8cea\u88dc\u8db3\u8abf\u67fb\u696d\u52d9","client_name":"\u56fd\u571f\u4ea4\u901a\u7701\u95a2\u6771\u5730\u65b9\u6574\u5099\u5c40\u5ddd\u5d0e\u56fd\u9053\u4e8b\u52d9\u6240","boring_xml_url":47,"boring_view_url":1,"soilmap_view_url":null,"soiltest_xml_url":47,"soiltest_view_url":47},{"id":699576,"code":"NGIC202305552-0007","latitude":"35.537547222222","longitude":"139.74158055556","source_code":"","project_name":"","survey_name":"R4\u56fd\u9053357\u53f7\u5916\u5730\u8cea\u88dc\u8db3\u8abf\u67fb\u696d\u52d9","client_name":"\u56fd\u571f\u4ea4\u901a\u7701\u95a2\u6771\u5730\u65b9\u6574\u5099\u5c40\u5ddd\u5d0e\u56fd\u9053\u4e8b\u52d9\u6240","boring_xml_url":47,"boring_view_url":1,"soilmap_view_url":null,"soiltest_xml_url":0,"soiltest_view_url":0},{"id":699575,"code":"NGIC202305552-0006","latitude":"35.537255555556","longitude":"139.74154444444","source_code":"","project_name":"","survey_name":"R4\u56fd\u9053357\u53f7\u5916\u5730\u8cea\u88dc\u8db3\u8abf\u67fb\u696d\u52d9","client_name":"\u56fd\u571f\u4ea4\u901a\u7701\u95a2\u6771\u5730\u65b9\u6574\u5099\u5c40\u5ddd\u5d0e\u56fd\u9053\u4e8b\u52d9\u6240","boring_xml_url":47,"boring_view_url":1,"soilmap_view_url":null,"soiltest_xml_url":0,"soiltest_view_url":0},{"id":699574,"code":"NGIC202305552-0005","latitude":"35.537258333333","longitude":"139.74111944444","source_code":"","project_name":"","survey_name":"R4\u56fd\u9053357\u53f7\u5916\u5730\u8cea\u88dc\u8db3\u8abf\u67fb\u696d\u52d9","client_name":"\u56fd\u571f\u4ea4\u901a\u7701\u95a2\u6771\u5730\u65b9\u6574\u5099\u5c40\u5ddd\u5d0e\u56fd\u9053\u4e8b\u52d9\u6240","boring_xml_url":47,"boring_view_url":1,"soilmap_view_url":null,"soiltest_xml_url":0,"soiltest_view_url":0},{"id":699573,"code":"NGIC202305552-0004","latitude":"35.630955555556","longitude":"139.78442222222","source_code":"","project_name":"","survey_name":"R4\u56fd\u9053357\u53f7\u5916\u5730\u8cea\u88dc\u8db3\u8abf\u67fb\u696d\u52d9","client_name":"\u56fd\u571f\u4ea4\u901a\u7701\u95a2\u6771\u5730\u65b9\u6574\u5099\u5c40\u5ddd\u5d0e\u56fd\u9053\u4e8b\u52d9\u6240","boring_xml_url":47,"boring_view_url":1,"soilmap_view_url":null,"soiltest_xml_url":0,"soiltest_view_url":0},{"id":699572,"code":"NGIC202305552-0003","latitude":"35.6317","longitude":"139.78581388889","source_code":"","project_name":"","survey_name":"R4\u56fd\u9053357\u53f7\u5916\u5730\u8cea\u88dc\u8db3\u8abf\u67fb\u696d\u52d9","client_name":"\u56fd\u571f\u4ea4\u901a\u7701\u95a2\u6771\u5730\u65b9\u6574\u5099\u5c40\u5ddd\u5d0e\u56fd\u9053\u4e8b\u52d9\u6240","boring_xml_url":47,"boring_view_url":1,"soilmap_view_url":null,"soiltest_xml_url":0,"soiltest_view_url":0},{"id":699571,"code":"NGIC202305552-0002","latitude":"35.644388888889","longitude":"139.81219722222","source_code":"","project_name":"","survey_name":"R4\u56fd\u9053357\u53f7\u5916\u5730\u8cea\u88dc\u8db3\u8abf\u67fb\u696d\u52d9","client_name":"\u56fd\u571f\u4ea4\u901a\u7701\u95a2\u6771\u5730\u65b9\u6574\u5099\u5c40\u5ddd\u5d0e\u56fd\u9053\u4e8b\u52d9\u6240","boring_xml_url":47,"boring_view_url":1,"soilmap_view_url":null,"soiltest_xml_url":0,"soiltest_view_url":0},{"id":699570,"code":"NGIC202305552-0001","latitude":"35.644661111111","longitude":"139.81303333333","source_code":"","project_name":"","survey_name":"R4\u56fd\u9053357\u53f7\u5916\u5730\u8cea\u88dc\u8db3\u8abf\u67fb\u696d\u52d9","client_name":"\u56fd\u571f\u4ea4\u901a\u7701\u95a2\u6771\u5730\u65b9\u6574\u5099\u5c40\u5ddd\u5d0e\u56fd\u9053\u4e8b\u52d9\u6240","boring_xml_url":47,"boring_view_url":1,"soilmap_view_url":null,"soiltest_xml_url":0,"soiltest_view_url":0},{"id":699569,"code":"NGIC202305540-0001","latitude":"36.885218472222","longitude":"140.78329286111","source_code":"","project_name":"\u3044\u308f\u304d\u5730\u533a\u6c34\u6587\u89b3\u6e2c\u696d\u52d9","survey_name":"\u4ee4\u548c5\u301c6\u5e74\u5ea6 \u3044\u308f\u304d\u5730\u533a\u6c34\u6587\u89b3\u6e2c\u696d\u52d9","client_name":"\u56fd\u571f\u4ea4\u901a\u7701\u6771\u5317\u5730\u65b9\u6574\u5099\u5c40\u78d0\u57ce\u56fd\u9053\u4e8b\u52d9\u6240","boring_xml_url":47,"boring_view_url":1,"soilmap_view_url":null,"soiltest_xml_url":47,"soiltest_view_url":47},{"id":699506,"code":"NGIC202305276-0001","latitude":"34.621530555556","longitude":"133.88715555556","source_code":"","project_name":"\u4ee4\u548c4\u5e74\u5ea6\u5ca1\u5c71\u74b0\u72b6\u5357\u9053\u8def\u5927\u798f\u5730\u533a\u7b2c8\u6539\u826f\u5de5\u4e8b","survey_name":"\u4ee4\u548c4\u5e74\u5ea6\u5ca1\u5c71\u74b0\u72b6\u5357\u9053\u8def\u5927\u798f\u5730\u533a\u7b2c8\u6539\u826f\u5de5\u4e8b","client_name":"\u56fd\u571f\u4ea4\u901a\u7701\u4e2d\u56fd\u5730\u65b9\u6574\u5099\u5c40\u5ca1\u5c71\u56fd\u9053\u4e8b\u52d9\u6240","boring_xml_url":47,"boring_view_url":1,"soilmap_view_url":null,"soiltest_xml_url":0,"soiltest_view_url":0},{"id":699504,"code":"NGIC202305442-0024","latitude":"44.330569444444","longitude":"143.35987222222","source_code":"","project_name":"\u65ed\u5ddd\u7d0b\u5225\u81ea\u52d5\u8eca\u9053 \u6e67\u5225\u753a\u5916 \u4e0a\u6e67\u5225\u5730\u8cea\u8abf\u67fb\u696d\u52d9","survey_name":"\u65ed\u5ddd\u7d0b\u5225\u81ea\u52d5\u8eca\u9053 \u6e67\u5225\u753a\u5916 \u4e0a\u6e67\u5225\u5730\u8cea\u8abf\u67fb\u696d\u52d9","client_name":"\u56fd\u571f\u4ea4\u901a\u7701\u5317\u6d77\u9053\u958b\u767a\u5c40\u7db2\u8d70\u958b\u767a\u5efa\u8a2d\u90e8\u672c\u90e8","boring_xml_url":47,"boring_view_url":1,"soilmap_view_url":null,"soiltest_xml_url":0,"soiltest_view_url":0},{"id":699503,"code":"NGIC202305442-0023","latitude":"44.330033333333","longitude":"143.36078333333","source_code":"","project_name":"\u65ed\u5ddd\u7d0b\u5225\u81ea\u52d5\u8eca\u9053 \u6e67\u5225\u753a\u5916 \u4e0a\u6e67\u5225\u5730\u8cea\u8abf\u67fb\u696d\u52d9","survey_name":"\u65ed\u5ddd\u7d0b\u5225\u81ea\u52d5\u8eca\u9053 \u6e67\u5225\u753a\u5916 \u4e0a\u6e67\u5225\u5730\u8cea\u8abf\u67fb\u696d\u52d9","client_name":"\u56fd\u571f\u4ea4\u901a\u7701\u5317\u6d77\u9053\u958b\u767a\u5c40\u7db2\u8d70\u958b\u767a\u5efa\u8a2d\u90e8\u672c\u90e8","boring_xml_url":47,"boring_view_url":1,"soilmap_view_url":null,"soiltest_xml_url":47,"soiltest_view_url":47},{"id":699502,"code":"NGIC202305442-0022","latitude":"44.329958333333","longitude":"143.35938333333","source_code":"","project_name":"\u65ed\u5ddd\u7d0b\u5225\u81ea\u52d5\u8eca\u9053 \u6e67\u5225\u753a\u5916 \u4e0a\u6e67\u5225\u5730\u8cea\u8abf\u67fb\u696d\u52d9","survey_name":"\u65ed\u5ddd\u7d0b\u5225\u81ea\u52d5\u8eca\u9053 \u6e67\u5225\u753a\u5916 \u4e0a\u6e67\u5225\u5730\u8cea\u8abf\u67fb\u696d\u52d9","client_name":"\u56fd\u571f\u4ea4\u901a\u7701\u5317\u6d77\u9053\u958b\u767a\u5c40\u7db2\u8d70\u958b\u767a\u5efa\u8a2d\u90e8\u672c\u90e8","boring_xml_url":47,"boring_view_url":1,"soilmap_view_url":null,"soiltest_xml_url":0,"soiltest_view_url":0},{"id":699501,"code":"NGIC202305442-0021","latitude":"44.106027777778","longitude":"143.55391111111","source_code":"","project_name":"\u65ed\u5ddd\u7d0b\u5225\u81ea\u52d5\u8eca\u9053 \u6e67\u5225\u753a\u5916 \u4e0a\u6e67\u5225\u5730\u8cea\u8abf\u67fb\u696d\u52d9","survey_name":"\u65ed\u5ddd\u7d0b\u5225\u81ea\u52d5\u8eca\u9053 \u6e67\u5225\u753a\u5916 \u4e0a\u6e67\u5225\u5730\u8cea\u8abf\u67fb\u696d\u52d9","client_name":"\u56fd\u571f\u4ea4\u901a\u7701\u5317\u6d77\u9053\u958b\u767a\u5c40\u7db2\u8d70\u958b\u767a\u5efa\u8a2d\u90e8\u672c\u90e8","boring_xml_url":47,"boring_view_url":1,"soilmap_view_url":null,"soiltest_xml_url":0,"soiltest_view_url":0},{"id":699500,"code":"NGIC202305442-0020","latitude":"44.1063","longitude":"143.55364166667","source_code":"","project_name":"\u65ed\u5ddd\u7d0b\u5225\u81ea\u52d5\u8eca\u9053 \u6e67\u5225\u753a\u5916 \u4e0a\u6e67\u5225\u5730\u8cea\u8abf\u67fb\u696d\u52d9","survey_name":"\u65ed\u5ddd\u7d0b\u5225\u81ea\u52d5\u8eca\u9053 \u6e67\u5225\u753a\u5916 \u4e0a\u6e67\u5225\u5730\u8cea\u8abf\u67fb\u696d\u52d9","client_name":"\u56fd\u571f\u4ea4\u901a\u7701\u5317\u6d77\u9053\u958b\u767a\u5c40\u7db2\u8d70\u958b\u767a\u5efa\u8a2d\u90e8\u672c\u90e8","boring_xml_url":47,"boring_view_url":1,"soilmap_view_url":null,"soiltest_xml_url":0,"soiltest_view_url":0},{"id":699499,"code":"NGIC202305442-0019","latitude":"44.100355555556","longitude":"143.55093333333","source_code":"","project_name":"\u65ed\u5ddd\u7d0b\u5225\u81ea\u52d5\u8eca\u9053 \u6e67\u5225\u753a\u5916 \u4e0a\u6e67\u5225\u5730\u8cea\u8abf\u67fb\u696d\u52d9","survey_name":"\u65ed\u5ddd\u7d0b\u5225\u81ea\u52d5\u8eca\u9053 \u6e67\u5225\u753a\u5916 \u4e0a\u6e67\u5225\u5730\u8cea\u8abf\u67fb\u696d\u52d9","client_name":"\u56fd\u571f\u4ea4\u901a\u7701\u5317\u6d77\u9053\u958b\u767a\u5c40\u7db2\u8d70\u958b\u767a\u5efa\u8a2d\u90e8\u672c\u90e8","boring_xml_url":47,"boring_view_url":1,"soilmap_view_url":null,"soiltest_xml_url":0,"soiltest_view_url":0},{"id":699498,"code":"NGIC202305442-0018","latitude":"44.100458333333","longitude":"143.55051388889","source_code":"","project_name":"\u65ed\u5ddd\u7d0b\u5225\u81ea\u52d5\u8eca\u9053 \u6e67\u5225\u753a\u5916 \u4e0a\u6e67\u5225\u5730\u8cea\u8abf\u67fb\u696d\u52d9","survey_name":"\u65ed\u5ddd\u7d0b\u5225\u81ea\u52d5\u8eca\u9053 \u6e67\u5225\u753a\u5916 \u4e0a\u6e67\u5225\u5730\u8cea\u8abf\u67fb\u696d\u52d9","client_name":"\u56fd\u571f\u4ea4\u901a\u7701\u5317\u6d77\u9053\u958b\u767a\u5c40\u7db2\u8d70\u958b\u767a\u5efa\u8a2d\u90e8\u672c\u90e8","boring_xml_url":47,"boring_view_url":1,"soilmap_view_url":null,"soiltest_xml_url":0,"soiltest_view_url":0},{"id":699497,"code":"NGIC202305442-0017","latitude":"44.098897222222","longitude":"143.54966666667","source_code":"","project_name":"\u65ed\u5ddd\u7d0b\u5225\u81ea\u52d5\u8eca\u9053 \u6e67\u5225\u753a\u5916 \u4e0a\u6e67\u5225\u5730\u8cea\u8abf\u67fb\u696d\u52d9","survey_name":"\u65ed\u5ddd\u7d0b\u5225\u81ea\u52d5\u8eca\u9053 \u6e67\u5225\u753a\u5916 \u4e0a\u6e67\u5225\u5730\u8cea\u8abf\u67fb\u696d\u52d9","client_name":"\u56fd\u571f\u4ea4\u901a\u7701\u5317\u6d77\u9053\u958b\u767a\u5c40\u7db2\u8d70\u958b\u767a\u5efa\u8a2d\u90e8\u672c\u90e8","boring_xml_url":47,"boring_view_url":1,"soilmap_view_url":null,"soiltest_xml_url":0,"soiltest_view_url":0}]}}