{"header":{"xyz":{"source":[],"mosaic":false},"page":4601,"raw":{"soiltest_result":"0","bbox":"57.598333,109.544722,1.933333,163.806111","page":"4601"},"conditions":{"soiltest_result":0,"north":57.598333,"west":109.544722,"south":1.933333,"east":163.806111},"success":true,"message":""},"data":{"meta":{"total":212844,"page":4601,"pages":7095,"count":30},"values":[{"id":182545,"code":"B4KJ201801007-0794","latitude":"35.5731511","longitude":"134.8067942","source_code":"KK53342684013","project_name":"","survey_name":"\u5e73\u62109\u5e74\u5ea6\u5186\u5c71\u5ddd\u5824\u9632\u6d78\u900f\u8a73\u7d30\u70b9\u691c\u696d\u52d9","client_name":"\u56fd\u571f\u4ea4\u901a\u7701\u8fd1\u757f\u5730\u65b9\u6574\u5099\u5c40\u8c4a\u5ca1\u6cb3\u5ddd\u56fd\u9053\u4e8b\u52d9\u6240","boring_xml_url":40,"boring_view_url":1,"soilmap_view_url":null,"soiltest_xml_url":0,"soiltest_view_url":0},{"id":182544,"code":"B4KJ201801007-0793","latitude":"35.57179","longitude":"134.8058222","source_code":"KK53342684009","project_name":"","survey_name":"\u7acb\u91ce\u5730\u533a\u4ed62\u30f6\u6240\u6e2c\u91cf\u4f5c\u696d(\u571f\u8cea\u8abf\u67fb\u4f5c\u696d)","client_name":"\u56fd\u571f\u4ea4\u901a\u7701\u8fd1\u757f\u5730\u65b9\u6574\u5099\u5c40\u8c4a\u5ca1\u6cb3\u5ddd\u56fd\u9053\u4e8b\u52d9\u6240","boring_xml_url":40,"boring_view_url":1,"soilmap_view_url":null,"soiltest_xml_url":0,"soiltest_view_url":0},{"id":182543,"code":"B4KJ201801007-0792","latitude":"35.5699847","longitude":"134.8056556","source_code":"KK53342684008","project_name":"","survey_name":"\u7acb\u91ce\u5730\u533a\u4ed62\u30f6\u6240\u6e2c\u91cf\u4f5c\u696d(\u571f\u8cea\u8abf\u67fb\u4f5c\u696d)","client_name":"\u56fd\u571f\u4ea4\u901a\u7701\u8fd1\u757f\u5730\u65b9\u6574\u5099\u5c40\u8c4a\u5ca1\u6cb3\u5ddd\u56fd\u9053\u4e8b\u52d9\u6240","boring_xml_url":40,"boring_view_url":1,"soilmap_view_url":null,"soiltest_xml_url":0,"soiltest_view_url":0},{"id":182542,"code":"B4KJ201801007-0791","latitude":"35.5718178","longitude":"134.8057389","source_code":"KK53342684007","project_name":"","survey_name":"\u7acb\u91ce\u5730\u533a\u4ed62\u30f6\u6240\u6e2c\u91cf\u4f5c\u696d(\u571f\u8cea\u8abf\u67fb)","client_name":"\u56fd\u571f\u4ea4\u901a\u7701\u8fd1\u757f\u5730\u65b9\u6574\u5099\u5c40\u8c4a\u5ca1\u6cb3\u5ddd\u56fd\u9053\u4e8b\u52d9\u6240","boring_xml_url":40,"boring_view_url":1,"soilmap_view_url":null,"soiltest_xml_url":0,"soiltest_view_url":0},{"id":182541,"code":"B4KJ201801007-0790","latitude":"35.5700681","longitude":"134.8055167","source_code":"KK53342684006","project_name":"","survey_name":"\u7acb\u91ce\u5730\u533a\u4ed62\u30f6\u6240\u6e2c\u91cf\u4f5c\u696d(\u571f\u8cea\u8abf\u67fb)","client_name":"\u56fd\u571f\u4ea4\u901a\u7701\u8fd1\u757f\u5730\u65b9\u6574\u5099\u5c40\u8c4a\u5ca1\u6cb3\u5ddd\u56fd\u9053\u4e8b\u52d9\u6240","boring_xml_url":40,"boring_view_url":1,"soilmap_view_url":null,"soiltest_xml_url":0,"soiltest_view_url":0},{"id":182540,"code":"B4KJ201801007-0789","latitude":"35.5722067","longitude":"134.8061","source_code":"KK53342684005","project_name":"","survey_name":"\u91ce\u4e0a \u4e00\u65e5\u5e02\u5730\u533a\u571f\u8cea\u8abf\u67fb","client_name":"\u56fd\u571f\u4ea4\u901a\u7701\u8fd1\u757f\u5730\u65b9\u6574\u5099\u5c40\u8c4a\u5ca1\u6cb3\u5ddd\u56fd\u9053\u4e8b\u52d9\u6240","boring_xml_url":40,"boring_view_url":1,"soilmap_view_url":null,"soiltest_xml_url":0,"soiltest_view_url":0},{"id":182539,"code":"B4KJ201801007-0788","latitude":"35.5733453","longitude":"134.8061","source_code":"KK53342684004","project_name":"","survey_name":"\u91ce\u4e0a \u4e00\u65e5\u5e02\u5730\u533a\u571f\u8cea\u8abf\u67fb","client_name":"\u56fd\u571f\u4ea4\u901a\u7701\u8fd1\u757f\u5730\u65b9\u6574\u5099\u5c40\u8c4a\u5ca1\u6cb3\u5ddd\u56fd\u9053\u4e8b\u52d9\u6240","boring_xml_url":40,"boring_view_url":1,"soilmap_view_url":null,"soiltest_xml_url":0,"soiltest_view_url":0},{"id":182538,"code":"B4KJ201801007-0787","latitude":"35.5776228","longitude":"134.8074886","source_code":"KK53342684003","project_name":"","survey_name":"\u5bae\u5cf6\u6a0b\u9580\u5b9f\u65bd\u8a2d\u8a08\u59d4\u8a17\u696d\u52d9(\u4e0b\u9db4\u4e95\u6a0b\u9580)","client_name":"\u56fd\u571f\u4ea4\u901a\u7701\u8fd1\u757f\u5730\u65b9\u6574\u5099\u5c40\u8c4a\u5ca1\u6cb3\u5ddd\u56fd\u9053\u4e8b\u52d9\u6240","boring_xml_url":40,"boring_view_url":1,"soilmap_view_url":null,"soiltest_xml_url":0,"soiltest_view_url":0},{"id":182537,"code":"B4KJ201801007-0786","latitude":"35.5699569","longitude":"134.8052667","source_code":"KK53342684002","project_name":"","survey_name":"\u68ee\u6d25\u6a0b\u9580\u8a2d\u8a08\u59d4\u8a17\u696d\u52d9\u571f\u8cea\u8abf\u67fb","client_name":"\u56fd\u571f\u4ea4\u901a\u7701\u8fd1\u757f\u5730\u65b9\u6574\u5099\u5c40\u8c4a\u5ca1\u6cb3\u5ddd\u56fd\u9053\u4e8b\u52d9\u6240","boring_xml_url":40,"boring_view_url":1,"soilmap_view_url":null,"soiltest_xml_url":0,"soiltest_view_url":0},{"id":182536,"code":"B4KJ201801007-0785","latitude":"35.5701792","longitude":"134.8055444","source_code":"KK53342684001","project_name":"","survey_name":"\u68ee\u6d25\u6a0b\u9580\u8a2d\u8a08\u59d4\u8a17\u696d\u52d9\u571f\u8cea\u8abf\u67fb","client_name":"\u56fd\u571f\u4ea4\u901a\u7701\u8fd1\u757f\u5730\u65b9\u6574\u5099\u5c40\u8c4a\u5ca1\u6cb3\u5ddd\u56fd\u9053\u4e8b\u52d9\u6240","boring_xml_url":40,"boring_view_url":1,"soilmap_view_url":null,"soiltest_xml_url":0,"soiltest_view_url":0},{"id":182535,"code":"B4KJ201801007-0784","latitude":"35.5778992","longitude":"134.7506603","source_code":"KK53342680001","project_name":"","survey_name":"\u8c4a\u5ca1\u9053\u8def(2\u5de5\u533a)\u6c5f\u91ce\u30c8\u30f3\u30cd\u30eb\u5f3e\u6027\u6ce2\u63a2\u67fb\u53ca\u3073\u571f\u8cea\u8abf\u67fb\u4f5c\u696d","client_name":"\u56fd\u571f\u4ea4\u901a\u7701\u8fd1\u757f\u5730\u65b9\u6574\u5099\u5c40\u8c4a\u5ca1\u6cb3\u5ddd\u56fd\u9053\u4e8b\u52d9\u6240","boring_xml_url":40,"boring_view_url":1,"soilmap_view_url":null,"soiltest_xml_url":0,"soiltest_view_url":0},{"id":182534,"code":"B4KJ201801007-0783","latitude":"35.5618192","longitude":"134.8135997","source_code":"KK53342675003","project_name":"","survey_name":"\u4e00\u65e5\u5e02\u5730\u533a\u571f\u8cea\u8abf\u67fb\u4f5c\u696d\u5831\u544a\u66f8","client_name":"\u56fd\u571f\u4ea4\u901a\u7701\u8fd1\u757f\u5730\u65b9\u6574\u5099\u5c40\u8c4a\u5ca1\u6cb3\u5ddd\u56fd\u9053\u4e8b\u52d9\u6240","boring_xml_url":40,"boring_view_url":1,"soilmap_view_url":null,"soiltest_xml_url":0,"soiltest_view_url":0},{"id":182533,"code":"B4KJ201801007-0782","latitude":"35.5656242","longitude":"134.8159603","source_code":"KK53342675002","project_name":"","survey_name":"\u4e00\u65e5\u5e02\u5730\u533a\u571f\u8cea\u8abf\u67fb\u5de5\u4e8b","client_name":"\u56fd\u571f\u4ea4\u901a\u7701\u8fd1\u757f\u5730\u65b9\u6574\u5099\u5c40\u8c4a\u5ca1\u6cb3\u5ddd\u56fd\u9053\u4e8b\u52d9\u6240","boring_xml_url":40,"boring_view_url":1,"soilmap_view_url":null,"soiltest_xml_url":0,"soiltest_view_url":0},{"id":182532,"code":"B4KJ201801007-0781","latitude":"35.5618469","longitude":"134.8129331","source_code":"KK53342675001","project_name":"","survey_name":"\u4e00\u65e5\u5e02\u5730\u533a\u571f\u8cea\u8abf\u67fb\u5de5\u4e8b","client_name":"\u56fd\u571f\u4ea4\u901a\u7701\u8fd1\u757f\u5730\u65b9\u6574\u5099\u5c40\u8c4a\u5ca1\u6cb3\u5ddd\u56fd\u9053\u4e8b\u52d9\u6240","boring_xml_url":40,"boring_view_url":1,"soilmap_view_url":null,"soiltest_xml_url":0,"soiltest_view_url":0},{"id":182531,"code":"B4KJ201801007-0780","latitude":"35.5664572","longitude":"134.8058225","source_code":"KK53342674011","project_name":"","survey_name":"\u524d\u5ddd\u6a0b\u9580\u5730\u8cea\u8abf\u67fb","client_name":"\u56fd\u571f\u4ea4\u901a\u7701\u8fd1\u757f\u5730\u65b9\u6574\u5099\u5c40\u8c4a\u5ca1\u6cb3\u5ddd\u56fd\u9053\u4e8b\u52d9\u6240","boring_xml_url":40,"boring_view_url":1,"soilmap_view_url":null,"soiltest_xml_url":0,"soiltest_view_url":0},{"id":182530,"code":"B4KJ201801007-0779","latitude":"35.5628186","longitude":"134.79799","source_code":"KK53342674010","project_name":"","survey_name":"\u5927\u6d5c\u5ddd\u5730\u533a\u571f\u8cea\u8abf\u67fb\u4f5c\u696d","client_name":"\u56fd\u571f\u4ea4\u901a\u7701 \u8fd1\u757f\u5730\u65b9\u6574\u5099\u5c40 \u8c4a\u5ca1\u6cb3\u5ddd\u56fd\u9053\u4e8b\u52d9\u6240","boring_xml_url":40,"boring_view_url":1,"soilmap_view_url":null,"soiltest_xml_url":0,"soiltest_view_url":0},{"id":182529,"code":"B4KJ201801007-0778","latitude":"35.5628464","longitude":"134.7978511","source_code":"KK53342674009","project_name":"","survey_name":"\u5927\u6d5c\u5ddd\u5730\u533a\u571f\u8cea\u8abf\u67fb\u4f5c\u696d","client_name":"\u56fd\u571f\u4ea4\u901a\u7701\u8fd1\u757f\u5730\u65b9\u6574\u5099\u5c40\u8c4a\u5ca1\u6cb3\u5ddd\u56fd\u9053\u4e8b\u52d9\u6240","boring_xml_url":40,"boring_view_url":1,"soilmap_view_url":null,"soiltest_xml_url":0,"soiltest_view_url":0},{"id":182528,"code":"B4KJ201801007-0777","latitude":"35.5654297","longitude":"134.8049892","source_code":"KK53342674008","project_name":"","survey_name":"\u68ee\u6d25\u5730\u533a\u571f\u8cea\u8abf\u67fb","client_name":"\u56fd\u571f\u4ea4\u901a\u7701\u8fd1\u757f\u5730\u65b9\u6574\u5099\u5c40\u8c4a\u5ca1\u6cb3\u5ddd\u56fd\u9053\u4e8b\u52d9\u6240","boring_xml_url":40,"boring_view_url":1,"soilmap_view_url":null,"soiltest_xml_url":0,"soiltest_view_url":0},{"id":182527,"code":"B4KJ201801007-0776","latitude":"35.5663461","longitude":"134.8049892","source_code":"KK53342674007","project_name":"","survey_name":"\u68ee\u6d25\u5730\u533a\u571f\u8cea\u8abf\u67fb","client_name":"\u56fd\u571f\u4ea4\u901a\u7701\u8fd1\u757f\u5730\u65b9\u6574\u5099\u5c40\u8c4a\u5ca1\u6cb3\u5ddd\u56fd\u9053\u4e8b\u52d9\u6240","boring_xml_url":40,"boring_view_url":1,"soilmap_view_url":null,"soiltest_xml_url":0,"soiltest_view_url":0},{"id":182526,"code":"B4KJ201801007-0775","latitude":"35.5635964","longitude":"134.8011006","source_code":"KK53342674006","project_name":"","survey_name":"\u798f\u7530\u7b2c\u4e8c\u6a0b\u9580\u8a2d\u8a08\u696d\u52d9","client_name":"\u56fd\u571f\u4ea4\u901a\u7701\u8fd1\u757f\u5730\u65b9\u6574\u5099\u5c40\u8c4a\u5ca1\u6cb3\u5ddd\u56fd\u9053\u4e8b\u52d9\u6240","boring_xml_url":40,"boring_view_url":1,"soilmap_view_url":null,"soiltest_xml_url":0,"soiltest_view_url":0},{"id":182525,"code":"B4KJ201801007-0774","latitude":"35.5631797","longitude":"134.8005453","source_code":"KK53342674005","project_name":"","survey_name":"\u798f\u7530\u7b2c\u4e8c\u6a0b\u9580\u8a2d\u8a08\u696d\u52d9","client_name":"\u56fd\u571f\u4ea4\u901a\u7701\u8fd1\u757f\u5730\u65b9\u6574\u5099\u5c40\u8c4a\u5ca1\u6cb3\u5ddd\u56fd\u9053\u4e8b\u52d9\u6240","boring_xml_url":40,"boring_view_url":1,"soilmap_view_url":null,"soiltest_xml_url":0,"soiltest_view_url":0},{"id":182524,"code":"B4KJ201801007-0773","latitude":"35.561958","longitude":"134.799183","source_code":"KK53342674001","project_name":"","survey_name":"\u798f\u7530\u5730\u533a\u571f\u8cea\u8abf\u67fb\u4f5c\u696d","client_name":"\u56fd\u571f\u4ea4\u901a\u7701\u8fd1\u757f\u5730\u65b9\u6574\u5099\u5c40\u8c4a\u5ca1\u6cb3\u5ddd\u56fd\u9053\u4e8b\u52d9\u6240","boring_xml_url":40,"boring_view_url":1,"soilmap_view_url":null,"soiltest_xml_url":0,"soiltest_view_url":0},{"id":182523,"code":"B4KJ201801007-0772","latitude":"35.5535147","longitude":"134.8277375","source_code":"KK53342666013","project_name":"","survey_name":"\u516d\u65b9\u6392\u6c34\u6a5f\u5834\u5730\u8cea\u8abf\u67fb\u4f5c\u696d","client_name":"\u56fd\u571f\u4ea4\u901a\u7701\u8fd1\u757f\u5730\u65b9\u6574\u5099\u5c40\u8c4a\u5ca1\u6cb3\u5ddd\u56fd\u9053\u4e8b\u52d9\u6240","boring_xml_url":40,"boring_view_url":1,"soilmap_view_url":null,"soiltest_xml_url":0,"soiltest_view_url":0},{"id":182522,"code":"B4KJ201801007-0771","latitude":"35.5531261","longitude":"134.8278486","source_code":"KK53342666012","project_name":"","survey_name":"\u516d\u65b9\u6392\u6c34\u6a5f\u5834\u5730\u8cea\u8abf\u67fb\u4f5c\u696d","client_name":"\u56fd\u571f\u4ea4\u901a\u7701\u8fd1\u757f\u5730\u65b9\u6574\u5099\u5c40\u8c4a\u5ca1\u6cb3\u5ddd\u56fd\u9053\u4e8b\u52d9\u6240","boring_xml_url":40,"boring_view_url":1,"soilmap_view_url":null,"soiltest_xml_url":0,"soiltest_view_url":0},{"id":182521,"code":"B4KJ201801007-0770","latitude":"35.5533483","longitude":"134.8282097","source_code":"KK53342666011","project_name":"","survey_name":"\u516d\u65b9\u6392\u6c34\u6a5f\u5834\u5730\u8cea\u8abf\u67fb\u4f5c\u696d","client_name":"\u56fd\u571f\u4ea4\u901a\u7701\u8fd1\u757f\u5730\u65b9\u6574\u5099\u5c40\u8c4a\u5ca1\u6cb3\u5ddd\u56fd\u9053\u4e8b\u52d9\u6240","boring_xml_url":40,"boring_view_url":1,"soilmap_view_url":null,"soiltest_xml_url":0,"soiltest_view_url":0},{"id":182520,"code":"B4KJ201801007-0769","latitude":"35.5541258","longitude":"134.8245433","source_code":"KK53342666010","project_name":"","survey_name":"\u7acb\u91ce\u5730\u533a\u4ed62\u30f6\u6240\u6e2c\u91cf\u4f5c\u696d(\u571f\u8cea\u8abf\u67fb\u4f5c\u696d)","client_name":"\u56fd\u571f\u4ea4\u901a\u7701\u8fd1\u757f\u5730\u65b9\u6574\u5099\u5c40\u8c4a\u5ca1\u6cb3\u5ddd\u56fd\u9053\u4e8b\u52d9\u6240","boring_xml_url":40,"boring_view_url":1,"soilmap_view_url":null,"soiltest_xml_url":0,"soiltest_view_url":0},{"id":182519,"code":"B4KJ201801007-0768","latitude":"35.5535425","longitude":"134.8256822","source_code":"KK53342666009","project_name":"","survey_name":"\u7acb\u91ce\u5730\u533a\u4ed62\u30f6\u6240\u6e2c\u91cf\u4f5c\u696d(\u571f\u8cea\u8abf\u67fb\u4f5c\u696d)","client_name":"\u56fd\u571f\u4ea4\u901a\u7701\u8fd1\u757f\u5730\u65b9\u6574\u5099\u5c40\u8c4a\u5ca1\u6cb3\u5ddd\u56fd\u9053\u4e8b\u52d9\u6240","boring_xml_url":40,"boring_view_url":1,"soilmap_view_url":null,"soiltest_xml_url":0,"soiltest_view_url":0},{"id":182518,"code":"B4KJ201801007-0767","latitude":"35.5549314","longitude":"134.8251267","source_code":"KK53342666008","project_name":"","survey_name":"\u7acb\u91ce\u5730\u533a\u4ed62\u30b1\u6240\u6e2c\u91cf\u4f5c\u696d(\u571f\u8cea\u8abf\u67fb)","client_name":"\u56fd\u571f\u4ea4\u901a\u7701\u8fd1\u757f\u5730\u65b9\u6574\u5099\u5c40\u8c4a\u5ca1\u6cb3\u5ddd\u56fd\u9053\u4e8b\u52d9\u6240","boring_xml_url":40,"boring_view_url":1,"soilmap_view_url":null,"soiltest_xml_url":0,"soiltest_view_url":0},{"id":182517,"code":"B4KJ201801007-0766","latitude":"35.5537925","longitude":"134.8262656","source_code":"KK53342666007","project_name":"","survey_name":"\u7acb\u91ce\u5730\u533a\u4ed62\u30b1\u6240\u6e2c\u91cf\u4f5c\u696d(\u571f\u8cea\u8abf\u67fb)","client_name":"\u56fd\u571f\u4ea4\u901a\u7701\u8fd1\u757f\u5730\u65b9\u6574\u5099\u5c40\u8c4a\u5ca1\u6cb3\u5ddd\u56fd\u9053\u4e8b\u52d9\u6240","boring_xml_url":40,"boring_view_url":1,"soilmap_view_url":null,"soiltest_xml_url":0,"soiltest_view_url":0},{"id":182516,"code":"B4KJ201801007-0765","latitude":"35.5572922","longitude":"134.8284594","source_code":"KK53342666003","project_name":"","survey_name":"\u516d\u65b9\u5730\u533a\u6e2c\u91cf \u571f\u8cea\u8abf\u67fb\u53ca\u3073\u8a2d\u8a08\u59d4\u8a17\u696d\u52d9\u306e\u3046\u3061\u571f\u8cea\u8abf\u67fb","client_name":"\u56fd\u571f\u4ea4\u901a\u7701\u8fd1\u757f\u5730\u65b9\u6574\u5099\u5c40\u8c4a\u5ca1\u6cb3\u5ddd\u56fd\u9053\u4e8b\u52d9\u6240","boring_xml_url":40,"boring_view_url":1,"soilmap_view_url":null,"soiltest_xml_url":0,"soiltest_view_url":0}]}}