{"header":{"xyz":{"source":[],"mosaic":false},"page":4605,"raw":{"soiltest_result":"0","bbox":"57.598333,109.544722,1.933333,163.806111","page":"4605"},"conditions":{"soiltest_result":0,"north":57.598333,"west":109.544722,"south":1.933333,"east":163.806111},"success":true,"message":""},"data":{"meta":{"total":212844,"page":4605,"pages":7095,"count":30},"values":[{"id":182425,"code":"B4KJ201801007-0674","latitude":"35.583065","longitude":"134.7419108","source_code":"KK53342599002","project_name":"","survey_name":"\u8c4a\u5ca1\u9053\u8def(2\u5de5\u533a)\u6c5f\u91ce\u30c8\u30f3\u30cd\u30eb\u5f3e\u6027\u6ce2\u63a2\u67fb\u53ca\u3073\u571f\u8cea\u8abf\u67fb\u4f5c\u696d","client_name":"\u56fd\u571f\u4ea4\u901a\u7701\u8fd1\u757f\u5730\u65b9\u6574\u5099\u5c40\u8c4a\u5ca1\u6cb3\u5ddd\u56fd\u9053\u4e8b\u52d9\u6240","boring_xml_url":40,"boring_view_url":1,"soilmap_view_url":null,"soiltest_xml_url":0,"soiltest_view_url":0},{"id":182424,"code":"B4KJ201801007-0673","latitude":"35.5829261","longitude":"134.7431331","source_code":"KK53342599001","project_name":"","survey_name":"\u8c4a\u5ca1\u9053\u8def(2\u5de5\u533a)\u6c5f\u91ce\u30c8\u30f3\u30cd\u30eb\u5f3e\u6027\u6ce2\u63a2\u67fb\u53ca\u3073\u571f\u8cea\u8abf\u67fb\u4f5c\u696d","client_name":"\u56fd\u571f\u4ea4\u901a\u7701\u8fd1\u757f\u5730\u65b9\u6574\u5099\u5c40\u8c4a\u5ca1\u6cb3\u5ddd\u56fd\u9053\u4e8b\u52d9\u6240","boring_xml_url":40,"boring_view_url":1,"soilmap_view_url":null,"soiltest_xml_url":0,"soiltest_view_url":0},{"id":182423,"code":"B4KJ201801007-0672","latitude":"35.5822314","longitude":"134.72844","source_code":"KK53342598021","project_name":"","survey_name":"\u68ee\u672c\u30c8\u30f3\u30cd\u30eb\u5751\u53e3\u691c\u8a0e\u53ca\u3073\u571f\u8cea\u8abf\u67fb\u4f5c\u696d","client_name":"\u56fd\u571f\u4ea4\u901a\u7701\u8fd1\u757f\u5730\u65b9\u6574\u5099\u5c40\u8c4a\u5ca1\u6cb3\u5ddd\u56fd\u9053\u4e8b\u52d9\u6240","boring_xml_url":40,"boring_view_url":1,"soilmap_view_url":null,"soiltest_xml_url":0,"soiltest_view_url":0},{"id":182422,"code":"B4KJ201801007-0671","latitude":"35.5821481","longitude":"134.7284678","source_code":"KK53342598020","project_name":"","survey_name":"\u68ee\u672c\u30c8\u30f3\u30cd\u30eb\u5751\u53e3\u691c\u8a0e\u53ca\u3073\u571f\u8cea\u8abf\u67fb\u4f5c\u696d","client_name":"\u56fd\u571f\u4ea4\u901a\u7701\u8fd1\u757f\u5730\u65b9\u6574\u5099\u5c40\u8c4a\u5ca1\u6cb3\u5ddd\u56fd\u9053\u4e8b\u52d9\u6240","boring_xml_url":40,"boring_view_url":1,"soilmap_view_url":null,"soiltest_xml_url":0,"soiltest_view_url":0},{"id":182421,"code":"B4KJ201801007-0670","latitude":"35.5821758","longitude":"134.7283844","source_code":"KK53342598019","project_name":"","survey_name":"\u68ee\u672c\u30c8\u30f3\u30cd\u30eb\u5751\u53e3\u691c\u8a0e\u53ca\u3073\u571f\u8cea\u8abf\u67fb\u4f5c\u696d","client_name":"\u56fd\u571f\u4ea4\u901a\u7701\u8fd1\u757f\u5730\u65b9\u6574\u5099\u5c40\u8c4a\u5ca1\u6cb3\u5ddd\u56fd\u9053\u4e8b\u52d9\u6240","boring_xml_url":40,"boring_view_url":1,"soilmap_view_url":null,"soiltest_xml_url":0,"soiltest_view_url":0},{"id":182420,"code":"B4KJ201801007-0669","latitude":"35.5822592","longitude":"134.7283567","source_code":"KK53342598018","project_name":"","survey_name":"\u68ee\u672c\u30c8\u30f3\u30cd\u30eb\u5751\u53e3\u691c\u8a0e\u53ca\u3073\u571f\u8cea\u8abf\u67fb\u4f5c\u696d","client_name":"\u56fd\u571f\u4ea4\u901a\u7701\u8fd1\u757f\u5730\u65b9\u6574\u5099\u5c40\u8c4a\u5ca1\u6cb3\u5ddd\u56fd\u9053\u4e8b\u52d9\u6240","boring_xml_url":40,"boring_view_url":1,"soilmap_view_url":null,"soiltest_xml_url":0,"soiltest_view_url":0},{"id":182419,"code":"B4KJ201801007-0668","latitude":"35.5822869","longitude":"134.7283011","source_code":"KK53342598017","project_name":"","survey_name":"\u68ee\u672c\u30c8\u30f3\u30cd\u30eb\u5751\u53e3\u691c\u8a0e\u53ca\u3073\u571f\u8cea\u8abf\u67fb\u4f5c\u696d","client_name":"\u56fd\u571f\u4ea4\u901a\u7701\u8fd1\u757f\u5730\u65b9\u6574\u5099\u5c40\u8c4a\u5ca1\u6cb3\u5ddd\u56fd\u9053\u4e8b\u52d9\u6240","boring_xml_url":40,"boring_view_url":1,"soilmap_view_url":null,"soiltest_xml_url":0,"soiltest_view_url":0},{"id":182418,"code":"B4KJ201801007-0667","latitude":"35.5822869","longitude":"134.7284678","source_code":"KK53342598016","project_name":"","survey_name":"\u8c4a\u5ca1\u9053\u8def\u68ee\u672c\u30c8\u30f3\u30cd\u30eb\u571f\u8cea\u8abf\u67fb\u4f5c\u696d","client_name":"\u56fd\u571f\u4ea4\u901a\u7701\u8fd1\u757f\u5730\u65b9\u6574\u5099\u5c40\u8c4a\u5ca1\u6cb3\u5ddd\u56fd\u9053\u4e8b\u52d9\u6240","boring_xml_url":40,"boring_view_url":1,"soilmap_view_url":null,"soiltest_xml_url":0,"soiltest_view_url":0},{"id":182417,"code":"B4KJ201801007-0666","latitude":"35.5828425","longitude":"134.7322172","source_code":"KK53342598015","project_name":"","survey_name":"\u8c4a\u5ca1\u9053\u8def\u68ee\u672c\u30c8\u30f3\u30cd\u30eb\u571f\u8cea\u8abf\u67fb\u4f5c\u696d","client_name":"\u56fd\u571f\u4ea4\u901a\u7701\u8fd1\u757f\u5730\u65b9\u6574\u5099\u5c40\u8c4a\u5ca1\u6cb3\u5ddd\u56fd\u9053\u4e8b\u52d9\u6240","boring_xml_url":40,"boring_view_url":1,"soilmap_view_url":null,"soiltest_xml_url":0,"soiltest_view_url":0},{"id":182416,"code":"B4KJ201801007-0665","latitude":"35.5825647","longitude":"134.7319394","source_code":"KK53342598014","project_name":"","survey_name":"\u8c4a\u5ca1\u9053\u8def\u68ee\u672c\u30c8\u30f3\u30cd\u30eb\u571f\u8cea\u8abf\u67fb\u4f5c\u696d","client_name":"\u56fd\u571f\u4ea4\u901a\u7701\u8fd1\u757f\u5730\u65b9\u6574\u5099\u5c40\u8c4a\u5ca1\u6cb3\u5ddd\u56fd\u9053\u4e8b\u52d9\u6240","boring_xml_url":40,"boring_view_url":1,"soilmap_view_url":null,"soiltest_xml_url":0,"soiltest_view_url":0},{"id":182415,"code":"B4KJ201801007-0664","latitude":"35.5825647","longitude":"134.7316617","source_code":"KK53342598013","project_name":"","survey_name":"\u8c4a\u5ca1\u9053\u8def\u68ee\u672c\u30c8\u30f3\u30cd\u30eb\u571f\u8cea\u8abf\u67fb\u4f5c\u696d","client_name":"\u56fd\u571f\u4ea4\u901a\u7701\u8fd1\u757f\u5730\u65b9\u6574\u5099\u5c40\u8c4a\u5ca1\u6cb3\u5ddd\u56fd\u9053\u4e8b\u52d9\u6240","boring_xml_url":40,"boring_view_url":1,"soilmap_view_url":null,"soiltest_xml_url":0,"soiltest_view_url":0},{"id":182414,"code":"B4KJ201801007-0663","latitude":"35.5822869","longitude":"134.7299953","source_code":"KK53342598012","project_name":"","survey_name":"\u8c4a\u5ca1\u9053\u8def\u68ee\u672c\u30c8\u30f3\u30cd\u30eb\u571f\u8cea\u8abf\u67fb\u4f5c\u696d","client_name":"\u56fd\u571f\u4ea4\u901a\u7701\u8fd1\u757f\u5730\u65b9\u6574\u5099\u5c40\u8c4a\u5ca1\u6cb3\u5ddd\u56fd\u9053\u4e8b\u52d9\u6240","boring_xml_url":40,"boring_view_url":1,"soilmap_view_url":null,"soiltest_xml_url":0,"soiltest_view_url":0},{"id":182413,"code":"B4KJ201801007-0662","latitude":"35.5820092","longitude":"134.7283289","source_code":"KK53342598011","project_name":"","survey_name":"178\u53f7\u5fa1\u53c8\u5730\u533a\u5730\u3059\u3079\u308a\u5bfe\u7b56\u691c\u8a0e\u53ca\u3073\u571f\u8cea\u8abf\u67fb\u4f5c\u696d","client_name":"\u56fd\u571f\u4ea4\u901a\u7701\u8fd1\u757f\u5730\u65b9\u6574\u5099\u5c40\u8c4a\u5ca1\u6cb3\u5ddd\u56fd\u9053\u4e8b\u52d9\u6240","boring_xml_url":40,"boring_view_url":1,"soilmap_view_url":null,"soiltest_xml_url":0,"soiltest_view_url":0},{"id":182412,"code":"B4KJ201801007-0661","latitude":"35.5820092","longitude":"134.7283289","source_code":"KK53342598010","project_name":"","survey_name":"\u8c4a\u5ca1\u9053\u8def\u68ee\u672c\u30c8\u30f3\u30cd\u30eb\u571f\u8cea\u8abf\u67fb\u4f5c\u696d","client_name":"\u56fd\u571f\u4ea4\u901a\u7701\u8fd1\u757f\u5730\u65b9\u6574\u5099\u5c40\u8c4a\u5ca1\u6cb3\u5ddd\u56fd\u9053\u4e8b\u52d9\u6240","boring_xml_url":40,"boring_view_url":1,"soilmap_view_url":null,"soiltest_xml_url":0,"soiltest_view_url":0},{"id":182411,"code":"B4KJ201801007-0660","latitude":"35.5822869","longitude":"134.7283289","source_code":"KK53342598009","project_name":"","survey_name":"178\u53f7\u5fa1\u53c8\u5730\u533a\u5730\u3059\u3079\u308a\u5bfe\u7b56\u691c\u8a0e\u53ca\u3073\u571f\u8cea\u8abf\u67fb\u4f5c\u696d","client_name":"\u56fd\u571f\u4ea4\u901a\u7701\u8fd1\u757f\u5730\u65b9\u6574\u5099\u5c40\u8c4a\u5ca1\u6cb3\u5ddd\u56fd\u9053\u4e8b\u52d9\u6240","boring_xml_url":40,"boring_view_url":1,"soilmap_view_url":null,"soiltest_xml_url":0,"soiltest_view_url":0},{"id":182410,"code":"B4KJ201801007-0659","latitude":"35.5825647","longitude":"134.7280511","source_code":"KK53342598008","project_name":"","survey_name":"178\u53f7\u5fa1\u53c8\u5730\u533a\u5730\u3059\u3079\u308a\u5bfe\u7b56\u691c\u8a0e\u53ca\u3073\u571f\u8cea\u8abf\u67fb\u4f5c\u696d","client_name":"\u56fd\u571f\u4ea4\u901a\u7701\u8fd1\u757f\u5730\u65b9\u6574\u5099\u5c40\u8c4a\u5ca1\u6cb3\u5ddd\u56fd\u9053\u4e8b\u52d9\u6240","boring_xml_url":40,"boring_view_url":1,"soilmap_view_url":null,"soiltest_xml_url":0,"soiltest_view_url":0},{"id":182409,"code":"B4KJ201801007-0658","latitude":"35.5820092","longitude":"134.7280511","source_code":"KK53342598007","project_name":"","survey_name":"\u8c4a\u5ca1\u9053\u8def\u68ee\u672c\u30c8\u30f3\u30cd\u30eb\u571f\u8cea\u8abf\u67fb\u4f5c\u696d","client_name":"\u56fd\u571f\u4ea4\u901a\u7701\u8fd1\u757f\u5730\u65b9\u6574\u5099\u5c40\u8c4a\u5ca1\u6cb3\u5ddd\u56fd\u9053\u4e8b\u52d9\u6240","boring_xml_url":40,"boring_view_url":1,"soilmap_view_url":null,"soiltest_xml_url":0,"soiltest_view_url":0},{"id":182408,"code":"B4KJ201801007-0657","latitude":"35.5820092","longitude":"134.7280511","source_code":"KK53342598006","project_name":"","survey_name":"\u8c4a\u5ca1\u9053\u8def\u68ee\u672c\u30c8\u30f3\u30cd\u30eb\u571f\u8cea\u8abf\u67fb\u4f5c\u696d","client_name":"\u56fd\u571f\u4ea4\u901a\u7701\u8fd1\u757f\u5730\u65b9\u6574\u5099\u5c40\u8c4a\u5ca1\u6cb3\u5ddd\u56fd\u9053\u4e8b\u52d9\u6240","boring_xml_url":40,"boring_view_url":1,"soilmap_view_url":null,"soiltest_xml_url":0,"soiltest_view_url":0},{"id":182407,"code":"B4KJ201801007-0656","latitude":"35.5822869","longitude":"134.7277733","source_code":"KK53342598005","project_name":"","survey_name":"178\u53f7\u5fa1\u53c8\u5730\u533a\u5730\u3059\u3079\u308a\u5bfe\u7b56\u691c\u8a0e\u53ca\u3073\u571f\u8cea\u8abf\u67fb\u4f5c\u696d","client_name":"\u56fd\u571f\u4ea4\u901a\u7701\u8fd1\u757f\u5730\u65b9\u6574\u5099\u5c40\u8c4a\u5ca1\u6cb3\u5ddd\u56fd\u9053\u4e8b\u52d9\u6240","boring_xml_url":40,"boring_view_url":1,"soilmap_view_url":null,"soiltest_xml_url":0,"soiltest_view_url":0},{"id":182406,"code":"B4KJ201801007-0655","latitude":"35.5822869","longitude":"134.7277733","source_code":"KK53342598004","project_name":"","survey_name":"\u8c4a\u5ca1\u9053\u8def\u68ee\u672c\u30c8\u30f3\u30cd\u30eb\u571f\u8cea\u8abf\u67fb\u4f5c\u696d","client_name":"\u56fd\u571f\u4ea4\u901a\u7701\u8fd1\u757f\u5730\u65b9\u6574\u5099\u5c40\u8c4a\u5ca1\u6cb3\u5ddd\u56fd\u9053\u4e8b\u52d9\u6240","boring_xml_url":40,"boring_view_url":1,"soilmap_view_url":null,"soiltest_xml_url":0,"soiltest_view_url":0},{"id":182405,"code":"B4KJ201801007-0654","latitude":"35.5820092","longitude":"134.7277733","source_code":"KK53342598003","project_name":"","survey_name":"178\u53f7\u5fa1\u53c8\u5730\u533a\u5730\u3059\u3079\u308a\u5bfe\u7b56\u691c\u8a0e\u53ca\u3073\u571f\u8cea\u8abf\u67fb\u4f5c\u696d","client_name":"\u56fd\u571f\u4ea4\u901a\u7701\u8fd1\u757f\u5730\u65b9\u6574\u5099\u5c40\u8c4a\u5ca1\u6cb3\u5ddd\u56fd\u9053\u4e8b\u52d9\u6240","boring_xml_url":40,"boring_view_url":1,"soilmap_view_url":null,"soiltest_xml_url":0,"soiltest_view_url":0},{"id":182404,"code":"B4KJ201801007-0653","latitude":"35.5820092","longitude":"134.7277733","source_code":"KK53342598002","project_name":"","survey_name":"\u8c4a\u5ca1\u9053\u8def\u68ee\u672c\u30c8\u30f3\u30cd\u30eb\u571f\u8cea\u8abf\u67fb\u4f5c\u696d","client_name":"\u56fd\u571f\u4ea4\u901a\u7701\u8fd1\u757f\u5730\u65b9\u6574\u5099\u5c40\u8c4a\u5ca1\u6cb3\u5ddd\u56fd\u9053\u4e8b\u52d9\u6240","boring_xml_url":40,"boring_view_url":1,"soilmap_view_url":null,"soiltest_xml_url":0,"soiltest_view_url":0},{"id":182403,"code":"B4KJ201801007-0652","latitude":"35.5822869","longitude":"134.7274956","source_code":"KK53342598001","project_name":"","survey_name":"\u8c4a\u5ca1\u9053\u8def\u68ee\u672c\u30c8\u30f3\u30cd\u30eb\u571f\u8cea\u8abf\u67fb\u4f5c\u696d","client_name":"\u56fd\u571f\u4ea4\u901a\u7701\u8fd1\u757f\u5730\u65b9\u6574\u5099\u5c40\u8c4a\u5ca1\u6cb3\u5ddd\u56fd\u9053\u4e8b\u52d9\u6240","boring_xml_url":40,"boring_view_url":1,"soilmap_view_url":null,"soiltest_xml_url":0,"soiltest_view_url":0},{"id":182402,"code":"B4KJ201801007-0651","latitude":"35.5857583","longitude":"134.7037753","source_code":"KK53342596001","project_name":"","survey_name":"\u571f\u751f\u30c8\u30f3\u30cd\u30eb\u53ca\u3073\u53d6\u4ed8\u9053\u8def\u5730\u8cea\u8abf\u67fb\u4f5c\u696d","client_name":"\u56fd\u571f\u4ea4\u901a\u7701\u8fd1\u757f\u5730\u65b9\u6574\u5099\u5c40\u8c4a\u5ca1\u6cb3\u5ddd\u56fd\u9053\u4e8b\u52d9\u6240","boring_xml_url":40,"boring_view_url":1,"soilmap_view_url":null,"soiltest_xml_url":0,"soiltest_view_url":0},{"id":182401,"code":"B4KJ201801007-0650","latitude":"35.5472858","longitude":"134.4996561","source_code":"KK53342450032","project_name":"","survey_name":"9\u53f7\u6b4c\u9577\u5730\u533a\u64c1\u58c1\u4e88\u5099\u8a2d\u8a08\u7b49\u696d\u52d9","client_name":"\u56fd\u571f\u4ea4\u901a\u7701\u8fd1\u757f\u5730\u65b9\u6574\u5099\u5c40\u8c4a\u5ca1\u6cb3\u5ddd\u56fd\u9053\u4e8b\u52d9\u6240","boring_xml_url":40,"boring_view_url":1,"soilmap_view_url":null,"soiltest_xml_url":0,"soiltest_view_url":0},{"id":182400,"code":"B4KJ201801007-0649","latitude":"35.5457028","longitude":"134.5007947","source_code":"KK53342450031","project_name":"","survey_name":"9\u53f7\u6b4c\u9577\u5730\u533a\u64c1\u58c1\u4e88\u5099\u8a2d\u8a08\u7b49\u696d\u52d9","client_name":"\u56fd\u571f\u4ea4\u901a\u7701\u8fd1\u757f\u5730\u65b9\u6574\u5099\u5c40\u8c4a\u5ca1\u6cb3\u5ddd\u56fd\u9053\u4e8b\u52d9\u6240","boring_xml_url":40,"boring_view_url":1,"soilmap_view_url":null,"soiltest_xml_url":0,"soiltest_view_url":0},{"id":182399,"code":"B4KJ201801007-0648","latitude":"35.5473969","longitude":"134.4996006","source_code":"KK53342450030","project_name":"","survey_name":"9\u53f7\u6b4c\u9577\u5730\u533a\u64c1\u58c1\u4e88\u5099\u8a2d\u8a08\u7b49\u696d\u52d9","client_name":"\u56fd\u571f\u4ea4\u901a\u7701\u8fd1\u757f\u5730\u65b9\u6574\u5099\u5c40\u8c4a\u5ca1\u6cb3\u5ddd\u56fd\u9053\u4e8b\u52d9\u6240","boring_xml_url":40,"boring_view_url":1,"soilmap_view_url":null,"soiltest_xml_url":0,"soiltest_view_url":0},{"id":182398,"code":"B4KJ201801007-0647","latitude":"35.5471747","longitude":"134.4996839","source_code":"KK53342450029","project_name":"","survey_name":"9\u53f7\u6b4c\u9577\u5730\u533a\u64c1\u58c1\u4e88\u5099\u8a2d\u8a08\u7b49\u696d\u52d9","client_name":"\u56fd\u571f\u4ea4\u901a\u7701\u8fd1\u757f\u5730\u65b9\u6574\u5099\u5c40\u8c4a\u5ca1\u6cb3\u5ddd\u56fd\u9053\u4e8b\u52d9\u6240","boring_xml_url":40,"boring_view_url":1,"soilmap_view_url":null,"soiltest_xml_url":0,"soiltest_view_url":0},{"id":182397,"code":"B4KJ201801007-0646","latitude":"35.5458139","longitude":"134.5007947","source_code":"KK53342450028","project_name":"","survey_name":"9\u53f7\u6b4c\u9577\u5730\u533a\u64c1\u58c1\u4e88\u5099\u8a2d\u8a08\u7b49\u696d\u52d9","client_name":"\u56fd\u571f\u4ea4\u901a\u7701\u8fd1\u757f\u5730\u65b9\u6574\u5099\u5c40\u8c4a\u5ca1\u6cb3\u5ddd\u56fd\u9053\u4e8b\u52d9\u6240","boring_xml_url":40,"boring_view_url":1,"soilmap_view_url":null,"soiltest_xml_url":0,"soiltest_view_url":0},{"id":182396,"code":"B4KJ201801007-0645","latitude":"35.5459247","longitude":"134.5005725","source_code":"KK53342450012","project_name":"","survey_name":"9\u53f7\u6b4c\u9577\u5730\u533a\u81ea\u6b69\u9053\u6e2c\u91cf\u8a2d\u8a08\u696d\u52d9","client_name":"\u56fd\u571f\u4ea4\u901a\u7701\u8fd1\u757f\u5730\u65b9\u6574\u5099\u5c40\u8c4a\u5ca1\u6cb3\u5ddd\u56fd\u9053\u4e8b\u52d9\u6240","boring_xml_url":40,"boring_view_url":1,"soilmap_view_url":null,"soiltest_xml_url":0,"soiltest_view_url":0}]}}