{"header":{"xyz":{"source":[],"mosaic":false},"page":4609,"raw":{"soiltest_result":"0","bbox":"57.598333,109.544722,1.933333,163.806111","page":"4609"},"conditions":{"soiltest_result":0,"north":57.598333,"west":109.544722,"south":1.933333,"east":163.806111},"success":true,"message":""},"data":{"meta":{"total":212844,"page":4609,"pages":7095,"count":30},"values":[{"id":182305,"code":"B4KJ201801007-0554","latitude":"35.4823","longitude":"134.7909656","source_code":"KK53341673002","project_name":"","survey_name":"\u7acb\u91ce\u5730\u533a\u4ed64\u30b1\u6240\u571f\u8cea\u8abf\u67fb\u4f5c\u696d","client_name":"\u56fd\u571f\u4ea4\u901a\u7701\u8fd1\u757f\u5730\u65b9\u6574\u5099\u5c40\u8c4a\u5ca1\u6cb3\u5ddd\u56fd\u9053\u4e8b\u52d9\u6240","boring_xml_url":40,"boring_view_url":1,"soilmap_view_url":null,"soiltest_xml_url":0,"soiltest_view_url":0},{"id":182304,"code":"B4KJ201801007-0553","latitude":"35.4823","longitude":"134.7909656","source_code":"KK53341673001","project_name":"","survey_name":"\u7acb\u91ce\u5730\u533a\u4ed64\u30b1\u6240\u571f\u8cea\u8abf\u67fb\u4f5c\u696d","client_name":"\u56fd\u571f\u4ea4\u901a\u7701\u8fd1\u757f\u5730\u65b9\u6574\u5099\u5c40\u8c4a\u5ca1\u6cb3\u5ddd\u56fd\u9053\u4e8b\u52d9\u6240","boring_xml_url":40,"boring_view_url":1,"soilmap_view_url":null,"soiltest_xml_url":0,"soiltest_view_url":0},{"id":182303,"code":"B4KJ201801007-0552","latitude":"35.4706364","longitude":"134.86832","source_code":"KK53341669015","project_name":"","survey_name":"\u571f\u6e15\u5730\u533a\u4ed62\u7b87\u6240\u571f\u8cea\u8abf\u67fb\u4f5c\u696d","client_name":"\u56fd\u571f\u4ea4\u901a\u7701\u8fd1\u757f\u5730\u65b9\u6574\u5099\u5c40\u8c4a\u5ca1\u6cb3\u5ddd\u56fd\u9053\u4e8b\u52d9\u6240","boring_xml_url":40,"boring_view_url":1,"soilmap_view_url":null,"soiltest_xml_url":0,"soiltest_view_url":0},{"id":182302,"code":"B4KJ201801007-0551","latitude":"35.4725806","longitude":"134.8638761","source_code":"KK53341669014","project_name":"","survey_name":"\u9577\u7802\u5730\u533a\u4ed62\u7b87\u6240\u571f\u8cea\u8abf\u67fb\u4f5c\u696d","client_name":"\u56fd\u571f\u4ea4\u901a\u7701\u8fd1\u757f\u5730\u65b9\u6574\u5099\u5c40\u8c4a\u5ca1\u6cb3\u5ddd\u56fd\u9053\u4e8b\u52d9\u6240","boring_xml_url":40,"boring_view_url":1,"soilmap_view_url":null,"soiltest_xml_url":0,"soiltest_view_url":0},{"id":182301,"code":"B4KJ201801007-0550","latitude":"35.4714694","longitude":"134.8638761","source_code":"KK53341669012","project_name":"","survey_name":"\u9577\u7802\u5730\u533a\u4ed62\u7b87\u6240\u571f\u8cea\u8abf\u67fb\u4f5c\u696d","client_name":"\u56fd\u571f\u4ea4\u901a\u7701\u8fd1\u757f\u5730\u65b9\u6574\u5099\u5c40\u8c4a\u5ca1\u6cb3\u5ddd\u56fd\u9053\u4e8b\u52d9\u6240","boring_xml_url":40,"boring_view_url":1,"soilmap_view_url":null,"soiltest_xml_url":0,"soiltest_view_url":0},{"id":182300,"code":"B4KJ201801007-0549","latitude":"35.4725806","longitude":"134.8633206","source_code":"KK53341669009","project_name":"","survey_name":"\u571f\u6e15\u5730\u533a\u4ed63\u7b87\u6240\u571f\u8cea\u8abf\u67fb\u4f5c\u696d","client_name":"\u56fd\u571f\u4ea4\u901a\u7701\u8fd1\u757f\u5730\u65b9\u6574\u5099\u5c40\u8c4a\u5ca1\u6cb3\u5ddd\u56fd\u9053\u4e8b\u52d9\u6240","boring_xml_url":40,"boring_view_url":1,"soilmap_view_url":null,"soiltest_xml_url":0,"soiltest_view_url":0},{"id":182299,"code":"B4KJ201801007-0548","latitude":"35.4758858","longitude":"134.8654869","source_code":"KK53341669003","project_name":"","survey_name":"\u7acb\u91ce\u5730\u533a\u4ed64\u30b1\u6240\u571f\u8cea\u8abf\u67fb\u4f5c\u696d","client_name":"\u56fd\u571f\u4ea4\u901a\u7701\u8fd1\u757f\u5730\u65b9\u6574\u5099\u5c40\u8c4a\u5ca1\u6cb3\u5ddd\u56fd\u9053\u4e8b\u52d9\u6240","boring_xml_url":40,"boring_view_url":1,"soilmap_view_url":null,"soiltest_xml_url":0,"soiltest_view_url":0},{"id":182298,"code":"B4KJ201801007-0547","latitude":"35.4768022","longitude":"134.8653758","source_code":"KK53341669002","project_name":"","survey_name":"\u7acb\u91ce\u5730\u533a\u4ed64\u30b1\u6240\u571f\u8cea\u8abf\u67fb\u4f5c\u696d","client_name":"\u56fd\u571f\u4ea4\u901a\u7701\u8fd1\u757f\u5730\u65b9\u6574\u5099\u5c40\u8c4a\u5ca1\u6cb3\u5ddd\u56fd\u9053\u4e8b\u52d9\u6240","boring_xml_url":40,"boring_view_url":1,"soilmap_view_url":null,"soiltest_xml_url":0,"soiltest_view_url":0},{"id":182297,"code":"B4KJ201801007-0546","latitude":"35.4774689","longitude":"134.8651814","source_code":"KK53341669001","project_name":"","survey_name":"\u7acb\u91ce\u5730\u533a\u4ed64\u30f6\u6240\u571f\u8cea\u8abf\u67fb\u4f5c\u696d","client_name":"\u56fd\u571f\u4ea4\u901a\u7701\u8fd1\u757f\u5730\u65b9\u6574\u5099\u5c40\u8c4a\u5ca1\u6cb3\u5ddd\u56fd\u9053\u4e8b\u52d9\u6240","boring_xml_url":40,"boring_view_url":1,"soilmap_view_url":null,"soiltest_xml_url":0,"soiltest_view_url":0},{"id":182296,"code":"B4KJ201801007-0545","latitude":"35.4754394","longitude":"134.7870772","source_code":"KK53341663001","project_name":"","survey_name":"\u9db4\u5ca1\u7b2c\u56db\u6a0b\u5b98\u571f\u8cea\u8abf\u67fb\u4f5c\u696d","client_name":"\u56fd\u571f\u4ea4\u901a\u7701\u8fd1\u757f\u5730\u65b9\u6574\u5099\u5c40\u8c4a\u5ca1\u6cb3\u5ddd\u56fd\u9053\u4e8b\u52d9\u6240","boring_xml_url":40,"boring_view_url":1,"soilmap_view_url":null,"soiltest_xml_url":0,"soiltest_view_url":0},{"id":182295,"code":"B4KJ201801007-0544","latitude":"35.4643317","longitude":"134.8686258","source_code":"KK53341659009","project_name":"","survey_name":"\u9ce5\u5c45\u5730\u533a\u4ed66\u7b87\u6240\u8b77\u5cb8\u8a2d\u8a08\u696d\u52d9\u5f18\u539f\u5730\u533a\u571f\u8cea\u8abf\u67fb","client_name":"\u56fd\u571f\u4ea4\u901a\u7701\u8fd1\u757f\u5730\u65b9\u6574\u5099\u5c40\u8c4a\u5ca1\u6cb3\u5ddd\u56fd\u9053\u4e8b\u52d9\u6240","boring_xml_url":40,"boring_view_url":1,"soilmap_view_url":null,"soiltest_xml_url":0,"soiltest_view_url":0},{"id":182294,"code":"B4KJ201801007-0543","latitude":"35.4667481","longitude":"134.8669314","source_code":"KK53341659008","project_name":"","survey_name":"\u5f18\u539f\u5730\u533a\u4ed62\u7b87\u6240\u571f\u8cea\u8abf\u67fb\u4f5c\u696d","client_name":"\u56fd\u571f\u4ea4\u901a\u7701\u8fd1\u757f\u5730\u65b9\u6574\u5099\u5c40\u8c4a\u5ca1\u6cb3\u5ddd\u56fd\u9053\u4e8b\u52d9\u6240","boring_xml_url":40,"boring_view_url":1,"soilmap_view_url":null,"soiltest_xml_url":0,"soiltest_view_url":0},{"id":182293,"code":"B4KJ201801007-0542","latitude":"35.4656369","longitude":"134.8677647","source_code":"KK53341659007","project_name":"","survey_name":"\u5f18\u539f\u5730\u533a\u4ed62\u7b87\u6240\u571f\u8cea\u8abf\u67fb\u4f5c\u696d","client_name":"\u56fd\u571f\u4ea4\u901a\u7701\u8fd1\u757f\u5730\u65b9\u6574\u5099\u5c40\u8c4a\u5ca1\u6cb3\u5ddd\u56fd\u9053\u4e8b\u52d9\u6240","boring_xml_url":40,"boring_view_url":1,"soilmap_view_url":null,"soiltest_xml_url":0,"soiltest_view_url":0},{"id":182292,"code":"B4KJ201801007-0541","latitude":"35.4648039","longitude":"134.8677647","source_code":"KK53341659006","project_name":"","survey_name":"\u5f18\u539f\u5730\u533a\u4ed62\u7b87\u6240\u571f\u8cea\u8abf\u67fb\u4f5c\u696d","client_name":"\u56fd\u571f\u4ea4\u901a\u7701\u8fd1\u757f\u5730\u65b9\u6574\u5099\u5c40\u8c4a\u5ca1\u6cb3\u5ddd\u56fd\u9053\u4e8b\u52d9\u6240","boring_xml_url":40,"boring_view_url":1,"soilmap_view_url":null,"soiltest_xml_url":0,"soiltest_view_url":0},{"id":182291,"code":"B4KJ201801007-0540","latitude":"35.4636928","longitude":"134.8680425","source_code":"KK53341659005","project_name":"","survey_name":"\u5f18\u539f\u5730\u533a\u4ed62\u7b87\u6240\u571f\u8cea\u8abf\u67fb\u4f5c\u696d","client_name":"\u56fd\u571f\u4ea4\u901a\u7701\u8fd1\u757f\u5730\u65b9\u6574\u5099\u5c40\u8c4a\u5ca1\u6cb3\u5ddd\u56fd\u9053\u4e8b\u52d9\u6240","boring_xml_url":40,"boring_view_url":1,"soilmap_view_url":null,"soiltest_xml_url":0,"soiltest_view_url":0},{"id":182290,"code":"B4KJ201801007-0539","latitude":"35.4617486","longitude":"134.8683206","source_code":"KK53341659004","project_name":"","survey_name":"\u5f18\u539f\u5730\u533a\u4ed62\u7b87\u6240\u571f\u8cea\u8abf\u67fb\u4f5c\u696d","client_name":"\u56fd\u571f\u4ea4\u901a\u7701\u8fd1\u757f\u5730\u65b9\u6574\u5099\u5c40\u8c4a\u5ca1\u6cb3\u5ddd\u56fd\u9053\u4e8b\u52d9\u6240","boring_xml_url":40,"boring_view_url":1,"soilmap_view_url":null,"soiltest_xml_url":0,"soiltest_view_url":0},{"id":182289,"code":"B4KJ201801007-0538","latitude":"35.4658592","longitude":"134.8683203","source_code":"KK53341659003","project_name":"","survey_name":"\u5bfa\u5185\u7b2c2\u6a0b\u9580\u5b9f\u65bd\u8a2d\u8a08\u59d4\u8a17\u696d\u52d9\u571f\u8cea\u8a66\u9a13","client_name":"\u56fd\u571f\u4ea4\u901a\u7701\u8fd1\u757f\u5730\u65b9\u6574\u5099\u5c40\u8c4a\u5ca1\u6cb3\u5ddd\u56fd\u9053\u4e8b\u52d9\u6240","boring_xml_url":40,"boring_view_url":1,"soilmap_view_url":null,"soiltest_xml_url":0,"soiltest_view_url":0},{"id":182288,"code":"B4KJ201801007-0537","latitude":"35.4618875","longitude":"134.8689592","source_code":"KK53341659001","project_name":"","survey_name":"\u65e5\u64ab\u5730\u533a\u4ed68\u30f6\u6240\u571f\u8cea\u8abf\u67fb\u4f5c\u696d","client_name":"\u56fd\u571f\u4ea4\u901a\u7701\u8fd1\u757f\u5730\u65b9\u6574\u5099\u5c40\u8c4a\u5ca1\u6cb3\u5ddd\u56fd\u9053\u4e8b\u52d9\u6240","boring_xml_url":40,"boring_view_url":1,"soilmap_view_url":null,"soiltest_xml_url":0,"soiltest_view_url":0},{"id":182287,"code":"B4KJ201801007-0536","latitude":"35.460639","longitude":"134.867764","source_code":"KK53341649011","project_name":"","survey_name":"\u5f18\u539f\u5730\u533a\u4ed62\u7b87\u6240\u571f\u8cea\u8abf\u67fb\u4f5c\u696d","client_name":"\u56fd\u571f\u4ea4\u901a\u7701\u8fd1\u757f\u5730\u65b9\u6574\u5099\u5c40\u8c4a\u5ca1\u6cb3\u5ddd\u56fd\u9053\u4e8b\u52d9\u6240","boring_xml_url":40,"boring_view_url":1,"soilmap_view_url":null,"soiltest_xml_url":0,"soiltest_view_url":0},{"id":182286,"code":"B4KJ201801007-0535","latitude":"35.4603597","longitude":"134.8680428","source_code":"KK53341649010","project_name":"","survey_name":"\u5f18\u539f\u5730\u533a\u4ed62\u7b87\u6240\u571f\u8cea\u8abf\u67fb\u4f5c\u696d","client_name":"\u56fd\u571f\u4ea4\u901a\u7701\u8fd1\u757f\u5730\u65b9\u6574\u5099\u5c40\u8c4a\u5ca1\u6cb3\u5ddd\u56fd\u9053\u4e8b\u52d9\u6240","boring_xml_url":40,"boring_view_url":1,"soilmap_view_url":null,"soiltest_xml_url":0,"soiltest_view_url":0},{"id":182285,"code":"B4KJ201801007-0534","latitude":"35.4595267","longitude":"134.8688761","source_code":"KK53341649009","project_name":"","survey_name":"\u5f18\u539f\u5730\u533a\u4ed62\u7b87\u6240\u571f\u8cea\u8abf\u67fb\u4f5c\u696d","client_name":"\u56fd\u571f\u4ea4\u901a\u7701\u8fd1\u757f\u5730\u65b9\u6574\u5099\u5c40\u8c4a\u5ca1\u6cb3\u5ddd\u56fd\u9053\u4e8b\u52d9\u6240","boring_xml_url":40,"boring_view_url":1,"soilmap_view_url":null,"soiltest_xml_url":0,"soiltest_view_url":0},{"id":182284,"code":"B4KJ201801007-0533","latitude":"35.4590822","longitude":"134.8705147","source_code":"KK53341649006","project_name":"","survey_name":"\u5186\u5c71\u5ddd\u51fa\u77f3\u5ddd\u7bc9\u5824\u5de5\u4e8b\u306b\u3068\u3082\u306a\u3046\u571f\u8cea\u8abf\u67fb","client_name":"\u56fd\u571f\u4ea4\u901a\u7701\u8fd1\u757f\u5730\u65b9\u6574\u5099\u5c40\u8c4a\u5ca1\u6cb3\u5ddd\u56fd\u9053\u4e8b\u52d9\u6240","boring_xml_url":40,"boring_view_url":1,"soilmap_view_url":null,"soiltest_xml_url":0,"soiltest_view_url":0},{"id":182283,"code":"B4KJ201801007-0532","latitude":"35.45886","longitude":"134.8694317","source_code":"KK53341649003","project_name":"","survey_name":"\u5bfa\u5185\u7b2c2\u6a0b\u9580\u5b9f\u65bd\u8a2d\u8a08\u59d4\u8a17\u696d\u52d9\u571f\u8cea\u8a66\u9a13","client_name":"\u56fd\u571f\u4ea4\u901a\u7701\u8fd1\u757f\u5730\u65b9\u6574\u5099\u5c40\u8c4a\u5ca1\u6cb3\u5ddd\u56fd\u9053\u4e8b\u52d9\u6240","boring_xml_url":40,"boring_view_url":1,"soilmap_view_url":null,"soiltest_xml_url":0,"soiltest_view_url":0},{"id":182282,"code":"B4KJ201801007-0531","latitude":"35.4607486","longitude":"134.8692925","source_code":"KK53341649002","project_name":"","survey_name":"\u65e5\u64ab\u5730\u533a\u4ed68\u30b1\u6240\u571f\u8cea\u8abf\u67fb\u4f5c\u696d","client_name":"\u56fd\u571f\u4ea4\u901a\u7701\u8fd1\u757f\u5730\u65b9\u6574\u5099\u5c40\u8c4a\u5ca1\u6cb3\u5ddd\u56fd\u9053\u4e8b\u52d9\u6240","boring_xml_url":40,"boring_view_url":1,"soilmap_view_url":null,"soiltest_xml_url":0,"soiltest_view_url":0},{"id":182281,"code":"B4KJ201801007-0530","latitude":"35.455775","longitude":"134.7797453","source_code":"KK53341642008","project_name":"","survey_name":"\u8d64\u5d0e\u5730\u533a\u5730\u8cea\u8abf\u67fb\u696d\u52d9","client_name":"\u56fd\u571f\u4ea4\u901a\u7701\u8fd1\u757f\u5730\u65b9\u6574\u5099\u5c40\u8c4a\u5ca1\u6cb3\u5ddd\u56fd\u9053\u4e8b\u52d9\u6240","boring_xml_url":40,"boring_view_url":1,"soilmap_view_url":null,"soiltest_xml_url":0,"soiltest_view_url":0},{"id":182280,"code":"B4KJ201801007-0529","latitude":"35.4554417","longitude":"134.7799953","source_code":"KK53341642007","project_name":"","survey_name":"\u8d64\u5d0e\u5730\u533a\u5730\u8cea\u8abf\u67fb\u696d\u52d9","client_name":"\u56fd\u571f\u4ea4\u901a\u7701\u8fd1\u757f\u5730\u65b9\u6574\u5099\u5c40\u8c4a\u5ca1\u6cb3\u5ddd\u56fd\u9053\u4e8b\u52d9\u6240","boring_xml_url":40,"boring_view_url":1,"soilmap_view_url":null,"soiltest_xml_url":0,"soiltest_view_url":0},{"id":182279,"code":"B4KJ201801007-0528","latitude":"35.4991533","longitude":"134.5382653","source_code":"KK53341493040","project_name":"","survey_name":"9\u53f7\u718a\u6ce2\u59161\u4ef6\u6cd5\u9762\u9632\u707d\u5bfe\u7b56\u8abf\u67fb\u8a2d\u8a08\u696d\u52d9","client_name":"\u56fd\u571f\u4ea4\u901a\u7701\u8fd1\u757f\u5730\u65b9\u6574\u5099\u5c40\u8c4a\u5ca1\u6cb3\u5ddd\u56fd\u9053\u4e8b\u52d9\u6240","boring_xml_url":40,"boring_view_url":1,"soilmap_view_url":null,"soiltest_xml_url":0,"soiltest_view_url":0},{"id":182278,"code":"B4KJ201801007-0527","latitude":"35.4992922","longitude":"134.5383486","source_code":"KK53341493039","project_name":"","survey_name":"9\u53f7\u718a\u6ce2\u59161\u4ef6\u6cd5\u9762\u9632\u707d\u5bfe\u7b56\u8abf\u67fb\u8a2d\u8a08\u696d\u52d9","client_name":"\u56fd\u571f\u4ea4\u901a\u7701\u8fd1\u757f\u5730\u65b9\u6574\u5099\u5c40\u8c4a\u5ca1\u6cb3\u5ddd\u56fd\u9053\u4e8b\u52d9\u6240","boring_xml_url":40,"boring_view_url":1,"soilmap_view_url":null,"soiltest_xml_url":0,"soiltest_view_url":0},{"id":182277,"code":"B4KJ201801007-0526","latitude":"35.4987644","longitude":"134.5386542","source_code":"KK53341493038","project_name":"","survey_name":"9\u53f7\u718a\u6ce2\u59161\u4ef6\u6cd5\u9762\u9632\u707d\u5bfe\u7b56\u8abf\u67fb\u8a2d\u8a08\u696d\u52d9","client_name":"\u56fd\u571f\u4ea4\u901a\u7701\u8fd1\u757f\u5730\u65b9\u6574\u5099\u5c40\u8c4a\u5ca1\u6cb3\u5ddd\u56fd\u9053\u4e8b\u52d9\u6240","boring_xml_url":40,"boring_view_url":1,"soilmap_view_url":null,"soiltest_xml_url":0,"soiltest_view_url":0},{"id":182276,"code":"B4KJ201801007-0525","latitude":"35.49882","longitude":"134.5387375","source_code":"KK53341493037","project_name":"","survey_name":"9\u53f7\u718a\u6ce2\u59161\u4ef6\u6cd5\u9762\u9632\u707d\u5bfe\u7b56\u8abf\u67fb\u8a2d\u8a08\u696d\u52d9","client_name":"\u56fd\u571f\u4ea4\u901a\u7701\u8fd1\u757f\u5730\u65b9\u6574\u5099\u5c40\u8c4a\u5ca1\u6cb3\u5ddd\u56fd\u9053\u4e8b\u52d9\u6240","boring_xml_url":40,"boring_view_url":1,"soilmap_view_url":null,"soiltest_xml_url":0,"soiltest_view_url":0}]}}