{"header":{"xyz":{"source":[],"mosaic":false},"page":4613,"raw":{"soiltest_result":"0","bbox":"57.598333,109.544722,1.933333,163.806111","page":"4613"},"conditions":{"soiltest_result":0,"north":57.598333,"west":109.544722,"south":1.933333,"east":163.806111},"success":true,"message":""},"data":{"meta":{"total":212844,"page":4613,"pages":7095,"count":30},"values":[{"id":182185,"code":"B4KJ201801007-0434","latitude":"35.3387067","longitude":"134.8483264","source_code":"KK53340608001","project_name":"","survey_name":"\u548c\u7530\u5c71\u5730\u533a\u5730\u8cea\u8abf\u67fb(\u305d\u306e2)\u4f5c\u696d","client_name":"\u56fd\u571f\u4ea4\u901a\u7701\u8fd1\u757f\u5730\u65b9\u6574\u5099\u5c40\u8c4a\u5ca1\u6cb3\u5ddd\u56fd\u9053\u4e8b\u52d9\u6240","boring_xml_url":40,"boring_view_url":1,"soilmap_view_url":null,"soiltest_xml_url":0,"soiltest_view_url":0},{"id":182184,"code":"B4KJ201801007-0433","latitude":"35.3394011","longitude":"134.8461044","source_code":"KK53340607007","project_name":"","survey_name":"\u548c\u7530\u5c71\u5730\u533a\u5730\u8cea\u8abf\u67fb\u4f5c\u696d(\u305d\u306e2)","client_name":"\u56fd\u571f\u4ea4\u901a\u7701\u8fd1\u757f\u5730\u65b9\u6574\u5099\u5c40\u8c4a\u5ca1\u6cb3\u5ddd\u56fd\u9053\u4e8b\u52d9\u6240","boring_xml_url":40,"boring_view_url":1,"soilmap_view_url":null,"soiltest_xml_url":0,"soiltest_view_url":0},{"id":182183,"code":"B4KJ201801007-0432","latitude":"35.3398453","longitude":"134.8444378","source_code":"KK53340607006","project_name":"","survey_name":"\u548c\u7530\u5c71\u5730\u533a\u5730\u8cea\u8abf\u67fb\u4f5c\u696d(\u305d\u306e2)","client_name":"\u56fd\u571f\u4ea4\u901a\u7701\u8fd1\u757f\u5730\u65b9\u6574\u5099\u5c40\u8c4a\u5ca1\u6cb3\u5ddd\u56fd\u9053\u4e8b\u52d9\u6240","boring_xml_url":40,"boring_view_url":1,"soilmap_view_url":null,"soiltest_xml_url":0,"soiltest_view_url":0},{"id":182182,"code":"B4KJ201801007-0431","latitude":"35.3389844","longitude":"134.8461044","source_code":"KK53340607005","project_name":"","survey_name":"\u548c\u7530\u5c71\u5730\u533a\u5730\u8cea\u8abf\u67fb(\u305d\u306e2)\u4f5c\u696d","client_name":"\u56fd\u571f\u4ea4\u901a\u7701\u8fd1\u757f\u5730\u65b9\u6574\u5099\u5c40\u8c4a\u5ca1\u6cb3\u5ddd\u56fd\u9053\u4e8b\u52d9\u6240","boring_xml_url":40,"boring_view_url":1,"soilmap_view_url":null,"soiltest_xml_url":0,"soiltest_view_url":0},{"id":182181,"code":"B4KJ201801007-0430","latitude":"35.3392622","longitude":"134.8458267","source_code":"KK53340607004","project_name":"","survey_name":"\u548c\u7530\u5c71\u5730\u533a\u5730\u8cea\u8abf\u67fb(\u305d\u306e2)\u4f5c\u696d","client_name":"\u56fd\u571f\u4ea4\u901a\u7701\u8fd1\u757f\u5730\u65b9\u6574\u5099\u5c40\u8c4a\u5ca1\u6cb3\u5ddd\u56fd\u9053\u4e8b\u52d9\u6240","boring_xml_url":40,"boring_view_url":1,"soilmap_view_url":null,"soiltest_xml_url":0,"soiltest_view_url":0},{"id":182180,"code":"B4KJ201801007-0429","latitude":"35.3400953","longitude":"134.8436047","source_code":"KK53340607003","project_name":"","survey_name":"\u548c\u7530\u5c71\u5730\u533a\u5730\u8cea\u8abf\u67fb(\u305d\u306e2)\u4f5c\u696d","client_name":"\u56fd\u571f\u4ea4\u901a\u7701\u8fd1\u757f\u5730\u65b9\u6574\u5099\u5c40\u8c4a\u5ca1\u6cb3\u5ddd\u56fd\u9053\u4e8b\u52d9\u6240","boring_xml_url":40,"boring_view_url":1,"soilmap_view_url":null,"soiltest_xml_url":0,"soiltest_view_url":0},{"id":182179,"code":"B4KJ201801007-0428","latitude":"35.3412064","longitude":"134.8427714","source_code":"KK53340607002","project_name":"","survey_name":"\u548c\u7530\u5c71\u5730\u533a\u5730\u8cea\u8abf\u67fb(\u305d\u306e2)\u4f5c\u696d","client_name":"\u56fd\u571f\u4ea4\u901a\u7701\u8fd1\u757f\u5730\u65b9\u6574\u5099\u5c40\u8c4a\u5ca1\u6cb3\u5ddd\u56fd\u9053\u4e8b\u52d9\u6240","boring_xml_url":40,"boring_view_url":1,"soilmap_view_url":null,"soiltest_xml_url":0,"soiltest_view_url":0},{"id":182178,"code":"B4KJ201801007-0427","latitude":"35.3395122","longitude":"134.8446322","source_code":"KK53340607001","project_name":"","survey_name":"\u548c\u7530\u5c71\u5730\u533a\u5730\u8cea\u8abf\u67fb\u4f5c\u696d","client_name":"\u56fd\u571f\u4ea4\u901a\u7701\u8fd1\u757f\u5730\u65b9\u6574\u5099\u5c40\u8c4a\u5ca1\u6cb3\u5ddd\u56fd\u9053\u4e8b\u52d9\u6240","boring_xml_url":40,"boring_view_url":1,"soilmap_view_url":null,"soiltest_xml_url":0,"soiltest_view_url":0},{"id":182177,"code":"B4KJ201801007-0426","latitude":"35.3911147","longitude":"134.7355292","source_code":"KK53340569003","project_name":"","survey_name":"9\u53f7\u9ad8\u67f3\u5730\u533a\u6e2c\u91cf\u8a2d\u8a08\u696d\u52d9","client_name":"\u56fd\u571f\u4ea4\u901a\u7701\u8fd1\u757f\u5730\u65b9\u6574\u5099\u5c40\u8c4a\u5ca1\u6cb3\u5ddd\u56fd\u9053\u4e8b\u52d9\u6240","boring_xml_url":40,"boring_view_url":1,"soilmap_view_url":null,"soiltest_xml_url":0,"soiltest_view_url":0},{"id":182176,"code":"B4KJ201801007-0425","latitude":"35.3908092","longitude":"134.7329183","source_code":"KK53340568003","project_name":"","survey_name":"9\u53f7\u9ad8\u67f3\u5730\u533a\u6e2c\u91cf\u8a2d\u8a08\u696d\u52d9","client_name":"\u56fd\u571f\u4ea4\u901a\u7701\u8fd1\u757f\u5730\u65b9\u6574\u5099\u5c40\u8c4a\u5ca1\u6cb3\u5ddd\u56fd\u9053\u4e8b\u52d9\u6240","boring_xml_url":40,"boring_view_url":1,"soilmap_view_url":null,"soiltest_xml_url":0,"soiltest_view_url":0},{"id":182175,"code":"B4KJ201801007-0424","latitude":"35.3889736","longitude":"134.6261222","source_code":"KK53340560004","project_name":"","survey_name":"9\u53f7\u95a2\u5bae\u5730\u533a\u9632\u707d\u8a2d\u8a08\u696d\u52d9","client_name":"\u56fd\u571f\u4ea4\u901a\u7701\u8fd1\u757f\u5730\u65b9\u6574\u5099\u5c40\u8c4a\u5ca1\u6cb3\u5ddd\u56fd\u9053\u4e8b\u52d9\u6240","boring_xml_url":40,"boring_view_url":1,"soilmap_view_url":null,"soiltest_xml_url":0,"soiltest_view_url":0},{"id":182174,"code":"B4KJ201801007-0423","latitude":"35.3886958","longitude":"134.6264","source_code":"KK53340560003","project_name":"","survey_name":"9\u53f7\u95a2\u5bae\u5730\u533a\u9632\u707d\u8a2d\u8a08\u696d\u52d9","client_name":"\u56fd\u571f\u4ea4\u901a\u7701\u8fd1\u757f\u5730\u65b9\u6574\u5099\u5c40\u8c4a\u5ca1\u6cb3\u5ddd\u56fd\u9053\u4e8b\u52d9\u6240","boring_xml_url":40,"boring_view_url":1,"soilmap_view_url":null,"soiltest_xml_url":0,"soiltest_view_url":0},{"id":182173,"code":"B4KJ201801007-0422","latitude":"35.3884181","longitude":"134.6266778","source_code":"KK53340560002","project_name":"","survey_name":"9\u53f7\u95a2\u5bae\u5730\u533a\u9632\u707d\u8a2d\u8a08\u696d\u52d9","client_name":"\u56fd\u571f\u4ea4\u901a\u7701\u8fd1\u757f\u5730\u65b9\u6574\u5099\u5c40\u8c4a\u5ca1\u6cb3\u5ddd\u56fd\u9053\u4e8b\u52d9\u6240","boring_xml_url":40,"boring_view_url":1,"soilmap_view_url":null,"soiltest_xml_url":0,"soiltest_view_url":0},{"id":182172,"code":"B4KJ201801007-0421","latitude":"35.3806142","longitude":"134.6540922","source_code":"KK53340552003","project_name":"","survey_name":"9\u53f7\u5c3e\u5d0e\u5730\u533a\u5730\u8cea\u8abf\u67fb","client_name":"\u56fd\u571f\u4ea4\u901a\u7701\u8fd1\u757f\u5730\u65b9\u6574\u5099\u5c40\u8c4a\u5ca1\u6cb3\u5ddd\u56fd\u9053\u4e8b\u52d9\u6240","boring_xml_url":40,"boring_view_url":1,"soilmap_view_url":null,"soiltest_xml_url":0,"soiltest_view_url":0},{"id":182171,"code":"B4KJ201801007-0420","latitude":"35.3807531","longitude":"134.6540644","source_code":"KK53340552002","project_name":"","survey_name":"9\u53f7\u5c4b\u5d0e\u5730\u533a\u5730\u8cea\u8abf\u67fb","client_name":"\u56fd\u571f\u4ea4\u901a\u7701\u8fd1\u757f\u5730\u65b9\u6574\u5099\u5c40\u8c4a\u5ca1\u6cb3\u5ddd\u56fd\u9053\u4e8b\u52d9\u6240","boring_xml_url":40,"boring_view_url":1,"soilmap_view_url":null,"soiltest_xml_url":0,"soiltest_view_url":0},{"id":182170,"code":"B4KJ201801007-0419","latitude":"35.3811142","longitude":"134.6539533","source_code":"KK53340552001","project_name":"","survey_name":"9\u53f7\u5c3e\u5d0e\u5730\u533a\u5730\u8cea\u8abf\u67fb","client_name":"\u56fd\u571f\u4ea4\u901a\u7701\u8fd1\u757f\u5730\u65b9\u6574\u5099\u5c40\u8c4a\u5ca1\u6cb3\u5ddd\u56fd\u9053\u4e8b\u52d9\u6240","boring_xml_url":40,"boring_view_url":1,"soilmap_view_url":null,"soiltest_xml_url":0,"soiltest_view_url":0},{"id":182169,"code":"B4KJ201801007-0418","latitude":"35.38203","longitude":"134.6307889","source_code":"KK53340550007","project_name":"","survey_name":"9\u53f7\u95a2\u5bae\u5730\u533a\u9632\u707d\u8a2d\u8a08\u696d\u52d9","client_name":"\u56fd\u571f\u4ea4\u901a\u7701\u8fd1\u757f\u5730\u65b9\u6574\u5099\u5c40\u8c4a\u5ca1\u6cb3\u5ddd\u56fd\u9053\u4e8b\u52d9\u6240","boring_xml_url":40,"boring_view_url":1,"soilmap_view_url":null,"soiltest_xml_url":0,"soiltest_view_url":0},{"id":182168,"code":"B4KJ201801007-0417","latitude":"35.3817525","longitude":"134.6330664","source_code":"KK53340550006","project_name":"","survey_name":"9\u53f7\u95a2\u5bae\u5730\u533a\u9632\u707d\u8a2d\u8a08\u696d\u52d9","client_name":"\u56fd\u571f\u4ea4\u901a\u7701\u8fd1\u757f\u5730\u65b9\u6574\u5099\u5c40\u8c4a\u5ca1\u6cb3\u5ddd\u56fd\u9053\u4e8b\u52d9\u6240","boring_xml_url":40,"boring_view_url":1,"soilmap_view_url":null,"soiltest_xml_url":0,"soiltest_view_url":0},{"id":182167,"code":"B4KJ201801007-0416","latitude":"35.3811969","longitude":"134.6336219","source_code":"KK53340550004","project_name":"","survey_name":"9\u53f7\u95a2\u5bae\u5730\u533a\u9632\u707d\u8a2d\u8a08\u696d\u52d9","client_name":"\u56fd\u571f\u4ea4\u901a\u7701\u8fd1\u757f\u5730\u65b9\u6574\u5099\u5c40\u8c4a\u5ca1\u6cb3\u5ddd\u56fd\u9053\u4e8b\u52d9\u6240","boring_xml_url":40,"boring_view_url":1,"soilmap_view_url":null,"soiltest_xml_url":0,"soiltest_view_url":0},{"id":182166,"code":"B4KJ201801007-0415","latitude":"35.4192472","longitude":"134.6008458","source_code":"KK53340498018","project_name":"","survey_name":"\u7b20\u6ce2\u5ce0\u9664\u96ea\u62e1\u5e45\u571f\u8cea\u8abf\u67fb\u4f5c\u696d","client_name":"\u56fd\u571f\u4ea4\u901a\u7701\u8fd1\u757f\u5730\u65b9\u6574\u5099\u5c40\u8c4a\u5ca1\u6cb3\u5ddd\u56fd\u9053\u4e8b\u52d9\u6240","boring_xml_url":40,"boring_view_url":1,"soilmap_view_url":null,"soiltest_xml_url":0,"soiltest_view_url":0},{"id":182165,"code":"B4KJ201801007-0414","latitude":"35.4192472","longitude":"134.6008458","source_code":"KK53340498017","project_name":"","survey_name":"\u7b20\u6ce2\u5ce0\u9664\u96ea\u62e1\u5e45\u571f\u8cea\u8abf\u67fb\u4f5c\u696d","client_name":"\u56fd\u571f\u4ea4\u901a\u7701\u8fd1\u757f\u5730\u65b9\u6574\u5099\u5c40\u8c4a\u5ca1\u6cb3\u5ddd\u56fd\u9053\u4e8b\u52d9\u6240","boring_xml_url":40,"boring_view_url":1,"soilmap_view_url":null,"soiltest_xml_url":0,"soiltest_view_url":0},{"id":182164,"code":"B4KJ201801007-0413","latitude":"35.4192472","longitude":"134.6008458","source_code":"KK53340498016","project_name":"","survey_name":"\u7b20\u6ce2\u5ce0\u9664\u96ea\u62e1\u5e45\u571f\u8cea\u8abf\u67fb\u4f5c\u696d","client_name":"\u56fd\u571f\u4ea4\u901a\u7701\u8fd1\u757f\u5730\u65b9\u6574\u5099\u5c40\u8c4a\u5ca1\u6cb3\u5ddd\u56fd\u9053\u4e8b\u52d9\u6240","boring_xml_url":40,"boring_view_url":1,"soilmap_view_url":null,"soiltest_xml_url":0,"soiltest_view_url":0},{"id":182163,"code":"B4KJ201801007-0412","latitude":"35.4192472","longitude":"134.6008458","source_code":"KK53340498014","project_name":"","survey_name":"\u7b20\u6ce2\u5ce0\u9664\u96ea\u62e1\u5e45\u571f\u8cea\u8abf\u67fb\u4f5c\u696d","client_name":"\u56fd\u571f\u4ea4\u901a\u7701\u8fd1\u757f\u5730\u65b9\u6574\u5099\u5c40\u8c4a\u5ca1\u6cb3\u5ddd\u56fd\u9053\u4e8b\u52d9\u6240","boring_xml_url":40,"boring_view_url":1,"soilmap_view_url":null,"soiltest_xml_url":0,"soiltest_view_url":0},{"id":182162,"code":"B4KJ201801007-0411","latitude":"35.4192472","longitude":"134.6008458","source_code":"KK53340498013","project_name":"","survey_name":"\u7b20\u6ce2\u5ce0\u9664\u96ea\u62e1\u5e45\u571f\u8cea\u8abf\u67fb\u4f5c\u696d","client_name":"\u56fd\u571f\u4ea4\u901a\u7701\u8fd1\u757f\u5730\u65b9\u6574\u5099\u5c40\u8c4a\u5ca1\u6cb3\u5ddd\u56fd\u9053\u4e8b\u52d9\u6240","boring_xml_url":40,"boring_view_url":1,"soilmap_view_url":null,"soiltest_xml_url":0,"soiltest_view_url":0},{"id":182161,"code":"B4KJ201801007-0410","latitude":"35.4192472","longitude":"134.6008458","source_code":"KK53340498012","project_name":"","survey_name":"\u7b20\u6ce2\u5ce0\u9664\u96ea\u62e1\u5e45\u571f\u8cea\u8abf\u67fb\u4f5c\u696d","client_name":"\u56fd\u571f\u4ea4\u901a\u7701\u8fd1\u757f\u5730\u65b9\u6574\u5099\u5c40\u8c4a\u5ca1\u6cb3\u5ddd\u56fd\u9053\u4e8b\u52d9\u6240","boring_xml_url":40,"boring_view_url":1,"soilmap_view_url":null,"soiltest_xml_url":0,"soiltest_view_url":0},{"id":182160,"code":"B4KJ201801007-0409","latitude":"35.4192472","longitude":"134.6008458","source_code":"KK53340498011","project_name":"","survey_name":"\u7b20\u6ce2\u5ce0\u9664\u96ea\u62e1\u5e45\u571f\u8cea\u8abf\u67fb\u4f5c\u696d","client_name":"\u56fd\u571f\u4ea4\u901a\u7701\u8fd1\u757f\u5730\u65b9\u6574\u5099\u5c40\u8c4a\u5ca1\u6cb3\u5ddd\u56fd\u9053\u4e8b\u52d9\u6240","boring_xml_url":40,"boring_view_url":1,"soilmap_view_url":null,"soiltest_xml_url":0,"soiltest_view_url":0},{"id":182159,"code":"B4KJ201801007-0408","latitude":"35.4192472","longitude":"134.6008458","source_code":"KK53340498010","project_name":"","survey_name":"\u7b20\u6ce2\u5ce0\u9664\u96ea\u62e1\u5e45\u571f\u8cea\u8abf\u67fb\u4f5c\u696d","client_name":"\u56fd\u571f\u4ea4\u901a\u7701\u8fd1\u757f\u5730\u65b9\u6574\u5099\u5c40\u8c4a\u5ca1\u6cb3\u5ddd\u56fd\u9053\u4e8b\u52d9\u6240","boring_xml_url":40,"boring_view_url":1,"soilmap_view_url":null,"soiltest_xml_url":0,"soiltest_view_url":0},{"id":182158,"code":"B4KJ201801007-0407","latitude":"35.4167475","longitude":"134.6019569","source_code":"KK53340498009","project_name":"","survey_name":"\u7b20\u6ce2\u5ce0\u9664\u96ea\u62e1\u5e45\u571f\u8cea\u8abf\u67fb\u4f5c\u696d","client_name":"\u56fd\u571f\u4ea4\u901a\u7701\u8fd1\u757f\u5730\u65b9\u6574\u5099\u5c40\u8c4a\u5ca1\u6cb3\u5ddd\u56fd\u9053\u4e8b\u52d9\u6240","boring_xml_url":40,"boring_view_url":1,"soilmap_view_url":null,"soiltest_xml_url":0,"soiltest_view_url":0},{"id":182157,"code":"B4KJ201801007-0406","latitude":"35.4167475","longitude":"134.6019569","source_code":"KK53340498008","project_name":"","survey_name":"\u7b20\u6ce2\u5ce0\u9664\u96ea\u62e1\u5e45\u571f\u8cea\u8abf\u67fb\u4f5c\u696d","client_name":"\u56fd\u571f\u4ea4\u901a\u7701\u8fd1\u757f\u5730\u65b9\u6574\u5099\u5c40\u8c4a\u5ca1\u6cb3\u5ddd\u56fd\u9053\u4e8b\u52d9\u6240","boring_xml_url":40,"boring_view_url":1,"soilmap_view_url":null,"soiltest_xml_url":0,"soiltest_view_url":0},{"id":182156,"code":"B4KJ201801007-0405","latitude":"35.4167475","longitude":"134.6019569","source_code":"KK53340498007","project_name":"","survey_name":"\u7b20\u6ce2\u5ce0\u9664\u96ea\u62e1\u5e45\u571f\u8cea\u8abf\u67fb\u4f5c\u696d","client_name":"\u56fd\u571f\u4ea4\u901a\u7701\u8fd1\u757f\u5730\u65b9\u6574\u5099\u5c40\u8c4a\u5ca1\u6cb3\u5ddd\u56fd\u9053\u4e8b\u52d9\u6240","boring_xml_url":40,"boring_view_url":1,"soilmap_view_url":null,"soiltest_xml_url":0,"soiltest_view_url":0}]}}