{"header":{"xyz":{"source":[],"mosaic":false},"page":4618,"raw":{"soiltest_result":"0","bbox":"57.598333,109.544722,1.933333,163.806111","page":"4618"},"conditions":{"soiltest_result":0,"north":57.598333,"west":109.544722,"south":1.933333,"east":163.806111},"success":true,"message":""},"data":{"meta":{"total":212844,"page":4618,"pages":7095,"count":30},"values":[{"id":182035,"code":"B4KJ201801007-0284","latitude":"35.0785414","longitude":"136.0064553","source_code":"KK52364090025","project_name":"","survey_name":"\u91ce\u6d32\u5ddd\u5de6\u5cb8\u5824\u9632\u6a2a\u65ad\u65b9\u5411\u5730\u8cea\u8abf\u67fb\u696d\u52d9","client_name":"\u56fd\u571f\u4ea4\u901a\u7701\u8fd1\u757f\u5730\u65b9\u6574\u5099\u5c40\u7435\u7436\u6e56\u6cb3\u5ddd\u4e8b\u52d9\u6240","boring_xml_url":40,"boring_view_url":1,"soilmap_view_url":null,"soiltest_xml_url":0,"soiltest_view_url":0},{"id":182034,"code":"B4KJ201801007-0283","latitude":"35.0785969","longitude":"136.0068719","source_code":"KK52364090024","project_name":"","survey_name":"\u91ce\u6d32\u5ddd\u5de6\u5cb8\u5824\u9632\u6a2a\u65ad\u65b9\u5411\u5730\u8cea\u8abf\u67fb\u696d\u52d9","client_name":"\u56fd\u571f\u4ea4\u901a\u7701\u8fd1\u757f\u5730\u65b9\u6574\u5099\u5c40\u7435\u7436\u6e56\u6cb3\u5ddd\u4e8b\u52d9\u6240","boring_xml_url":40,"boring_view_url":1,"soilmap_view_url":null,"soiltest_xml_url":0,"soiltest_view_url":0},{"id":182033,"code":"B4KJ201801007-0282","latitude":"35.0850961","longitude":"136.0060942","source_code":"KK52364090019","project_name":"","survey_name":"\u91ce\u6d32\u5ddd\u571f\u8cea\u8abf\u67fb","client_name":"\u56fd\u571f\u4ea4\u901a\u7701\u8fd1\u757f\u5730\u65b9\u6574\u5099\u5c40\u7435\u7436\u6e56\u6cb3\u5ddd\u4e8b\u52d9\u6240","boring_xml_url":40,"boring_view_url":1,"soilmap_view_url":null,"soiltest_xml_url":0,"soiltest_view_url":0},{"id":182032,"code":"B4KJ201801007-0281","latitude":"35.0861239","longitude":"136.0039275","source_code":"KK52364090018","project_name":"","survey_name":"\u91ce\u6d32\u5ddd\u65b0\u5ddd\u90e8\u571f\u8cea\u8abf\u67fb(\u305d\u306e3)","client_name":"\u56fd\u571f\u4ea4\u901a\u7701\u8fd1\u757f\u5730\u65b9\u6574\u5099\u5c40\u7435\u7436\u6e56\u6cb3\u5ddd\u4e8b\u52d9\u6240","boring_xml_url":40,"boring_view_url":1,"soilmap_view_url":null,"soiltest_xml_url":0,"soiltest_view_url":0},{"id":182031,"code":"B4KJ201801007-0280","latitude":"35.085235","longitude":"136.0026778","source_code":"KK52364090017","project_name":"","survey_name":"\u91ce\u6d32\u5ddd\u65b0\u5ddd\u90e8\u571f\u8cea\u8abf\u67fb(\u305d\u306e3)","client_name":"\u56fd\u571f\u4ea4\u901a\u7701\u8fd1\u757f\u5730\u65b9\u6574\u5099\u5c40\u7435\u7436\u6e56\u6cb3\u5ddd\u4e8b\u52d9\u6240","boring_xml_url":40,"boring_view_url":1,"soilmap_view_url":null,"soiltest_xml_url":0,"soiltest_view_url":0},{"id":182030,"code":"B4KJ201801007-0279","latitude":"35.0847628","longitude":"136.0053164","source_code":"KK52364090016","project_name":"","survey_name":"\u91ce\u6d32\u5ddd\u65b0\u5ddd\u90e8\u571f\u8cea\u8abf\u67fb(\u305d\u306e3)","client_name":"\u56fd\u571f\u4ea4\u901a\u7701\u8fd1\u757f\u5730\u65b9\u6574\u5099\u5c40\u7435\u7436\u6e56\u6cb3\u5ddd\u4e8b\u52d9\u6240","boring_xml_url":40,"boring_view_url":1,"soilmap_view_url":null,"soiltest_xml_url":0,"soiltest_view_url":0},{"id":182029,"code":"B4KJ201801007-0278","latitude":"35.0838742","longitude":"136.0039275","source_code":"KK52364090015","project_name":"","survey_name":"\u91ce\u6d32\u5ddd\u65b0\u5ddd\u90e8\u571f\u8cea\u8abf\u67fb(\u305d\u306e3)","client_name":"\u56fd\u571f\u4ea4\u901a\u7701\u8fd1\u757f\u5730\u65b9\u6574\u5099\u5c40\u7435\u7436\u6e56\u6cb3\u5ddd\u4e8b\u52d9\u6240","boring_xml_url":40,"boring_view_url":1,"soilmap_view_url":null,"soiltest_xml_url":0,"soiltest_view_url":0},{"id":182028,"code":"B4KJ201801007-0277","latitude":"35.0851239","longitude":"136.0080939","source_code":"KK52364090014","project_name":"","survey_name":"\u91ce\u6d32\u5ddd\u65b0\u5ddd\u90e8\u571f\u8cea\u8abf\u67fb(\u305d\u306e3)","client_name":"\u56fd\u571f\u4ea4\u901a\u7701\u8fd1\u757f\u5730\u65b9\u6574\u5099\u5c40\u7435\u7436\u6e56\u6cb3\u5ddd\u4e8b\u52d9\u6240","boring_xml_url":40,"boring_view_url":1,"soilmap_view_url":null,"soiltest_xml_url":0,"soiltest_view_url":0},{"id":182027,"code":"B4KJ201801007-0276","latitude":"35.0842075","longitude":"136.0057331","source_code":"KK52364090013","project_name":"","survey_name":"\u91ce\u6d32\u5ddd\u65b0\u5ddd\u90e8\u571f\u8cea\u8abf\u67fb(\u305d\u306e3)","client_name":"\u56fd\u571f\u4ea4\u901a\u7701\u8fd1\u757f\u5730\u65b9\u6574\u5099\u5c40\u7435\u7436\u6e56\u6cb3\u5ddd\u4e8b\u52d9\u6240","boring_xml_url":40,"boring_view_url":1,"soilmap_view_url":null,"soiltest_xml_url":0,"soiltest_view_url":0},{"id":182026,"code":"B4KJ201801007-0275","latitude":"35.0835408","longitude":"136.0043442","source_code":"KK52364090012","project_name":"","survey_name":"\u91ce\u6d32\u5ddd\u65b0\u5ddd\u90e8\u571f\u8cea\u8abf\u67fb(\u305d\u306e3)","client_name":"\u56fd\u571f\u4ea4\u901a\u7701\u8fd1\u757f\u5730\u65b9\u6574\u5099\u5c40\u7435\u7436\u6e56\u6cb3\u5ddd\u4e8b\u52d9\u6240","boring_xml_url":40,"boring_view_url":1,"soilmap_view_url":null,"soiltest_xml_url":0,"soiltest_view_url":0},{"id":182025,"code":"B4KJ201801007-0274","latitude":"35.0839853","longitude":"136.0080939","source_code":"KK52364090011","project_name":"","survey_name":"\u91ce\u6d32\u5ddd\u65b0\u5ddd\u90e8\u571f\u8cea\u8abf\u67fb(\u305d\u306e3)","client_name":"\u56fd\u571f\u4ea4\u901a\u7701\u8fd1\u757f\u5730\u65b9\u6574\u5099\u5c40\u7435\u7436\u6e56\u6cb3\u5ddd\u4e8b\u52d9\u6240","boring_xml_url":40,"boring_view_url":1,"soilmap_view_url":null,"soiltest_xml_url":0,"soiltest_view_url":0},{"id":182024,"code":"B4KJ201801007-0273","latitude":"35.0833186","longitude":"136.0065664","source_code":"KK52364090010","project_name":"","survey_name":"\u91ce\u6d32\u5ddd\u65b0\u5ddd\u90e8\u571f\u8cea\u8abf\u67fb(\u305d\u306e3)","client_name":"\u56fd\u571f\u4ea4\u901a\u7701\u8fd1\u757f\u5730\u65b9\u6574\u5099\u5c40\u7435\u7436\u6e56\u6cb3\u5ddd\u4e8b\u52d9\u6240","boring_xml_url":40,"boring_view_url":1,"soilmap_view_url":null,"soiltest_xml_url":0,"soiltest_view_url":0},{"id":182023,"code":"B4KJ201801007-0272","latitude":"35.0825131","longitude":"136.0050386","source_code":"KK52364090009","project_name":"","survey_name":"\u91ce\u6d32\u5ddd\u65b0\u5ddd\u90e8\u571f\u8cea\u8abf\u67fb(\u305d\u306e3)","client_name":"\u56fd\u571f\u4ea4\u901a\u7701\u8fd1\u757f\u5730\u65b9\u6574\u5099\u5c40\u7435\u7436\u6e56\u6cb3\u5ddd\u4e8b\u52d9\u6240","boring_xml_url":40,"boring_view_url":1,"soilmap_view_url":null,"soiltest_xml_url":0,"soiltest_view_url":0},{"id":182022,"code":"B4KJ201801007-0271","latitude":"35.08218","longitude":"136.009205","source_code":"KK52364090008","project_name":"","survey_name":"\u91ce\u6d32\u5ddd\u65b0\u5ddd\u90e8\u571f\u8cea\u8abf\u67fb(\u305d\u306e3)","client_name":"\u56fd\u571f\u4ea4\u901a\u7701\u8fd1\u757f\u5730\u65b9\u6574\u5099\u5c40\u7435\u7436\u6e56\u6cb3\u5ddd\u4e8b\u52d9\u6240","boring_xml_url":40,"boring_view_url":1,"soilmap_view_url":null,"soiltest_xml_url":0,"soiltest_view_url":0},{"id":182021,"code":"B4KJ201801007-0270","latitude":"35.0816244","longitude":"136.0075386","source_code":"KK52364090007","project_name":"","survey_name":"\u91ce\u6d32\u5ddd\u65b0\u5ddd\u90e8\u571f\u8cea\u8abf\u67fb(\u305d\u306e3)","client_name":"\u56fd\u571f\u4ea4\u901a\u7701\u8fd1\u757f\u5730\u65b9\u6574\u5099\u5c40\u7435\u7436\u6e56\u6cb3\u5ddd\u4e8b\u52d9\u6240","boring_xml_url":40,"boring_view_url":1,"soilmap_view_url":null,"soiltest_xml_url":0,"soiltest_view_url":0},{"id":182020,"code":"B4KJ201801007-0269","latitude":"35.0810411","longitude":"136.0060108","source_code":"KK52364090006","project_name":"","survey_name":"\u91ce\u6d32\u5ddd\u65b0\u5ddd\u90e8\u571f\u8cea\u8abf\u67fb(\u305d\u306e3)","client_name":"\u56fd\u571f\u4ea4\u901a\u7701\u8fd1\u757f\u5730\u65b9\u6574\u5099\u5c40\u7435\u7436\u6e56\u6cb3\u5ddd\u4e8b\u52d9\u6240","boring_xml_url":40,"boring_view_url":1,"soilmap_view_url":null,"soiltest_xml_url":0,"soiltest_view_url":0},{"id":182019,"code":"B4KJ201801007-0268","latitude":"35.0823742","longitude":"136.0033722","source_code":"KK52364090005","project_name":"","survey_name":"\u91ce\u6d32\u5ddd\u65b0\u5ddd\u90e8\u571f\u8cea\u8abf\u67fb(\u305d\u306e3)","client_name":"\u56fd\u571f\u4ea4\u901a\u7701\u8fd1\u757f\u5730\u65b9\u6574\u5099\u5c40\u7435\u7436\u6e56\u6cb3\u5ddd\u4e8b\u52d9\u6240","boring_xml_url":40,"boring_view_url":1,"soilmap_view_url":null,"soiltest_xml_url":0,"soiltest_view_url":0},{"id":182018,"code":"B4KJ201801007-0267","latitude":"35.0807078","longitude":"136.0080939","source_code":"KK52364090004","project_name":"","survey_name":"\u91ce\u6d32\u5ddd\u65b0\u5ddd\u90e8\u571f\u8cea\u8abf\u67fb(\u305d\u306e3)","client_name":"\u56fd\u571f\u4ea4\u901a\u7701\u8fd1\u757f\u5730\u65b9\u6574\u5099\u5c40\u7435\u7436\u6e56\u6cb3\u5ddd\u4e8b\u52d9\u6240","boring_xml_url":40,"boring_view_url":1,"soilmap_view_url":null,"soiltest_xml_url":0,"soiltest_view_url":0},{"id":182017,"code":"B4KJ201801007-0266","latitude":"35.0803744","longitude":"136.0068442","source_code":"KK52364090003","project_name":"","survey_name":"\u91ce\u6d32\u5ddd\u65b0\u5ddd\u90e8\u571f\u8cea\u8abf\u67fb(\u305d\u306e3)","client_name":"\u56fd\u571f\u4ea4\u901a\u7701\u8fd1\u757f\u5730\u65b9\u6574\u5099\u5c40\u7435\u7436\u6e56\u6cb3\u5ddd\u4e8b\u52d9\u6240","boring_xml_url":40,"boring_view_url":1,"soilmap_view_url":null,"soiltest_xml_url":0,"soiltest_view_url":0},{"id":182016,"code":"B4KJ201801007-0265","latitude":"35.07993","longitude":"136.0082331","source_code":"KK52364090002","project_name":"","survey_name":"\u91ce\u6d32\u5ddd\u65b0\u5ddd\u90e8\u571f\u8cea\u8abf\u67fb(\u305d\u306e3)","client_name":"\u56fd\u571f\u4ea4\u901a\u7701\u8fd1\u757f\u5730\u65b9\u6574\u5099\u5c40\u7435\u7436\u6e56\u6cb3\u5ddd\u4e8b\u52d9\u6240","boring_xml_url":40,"boring_view_url":1,"soilmap_view_url":null,"soiltest_xml_url":0,"soiltest_view_url":0},{"id":182015,"code":"B4KJ201801007-0264","latitude":"35.0794581","longitude":"136.0065664","source_code":"KK52364090001","project_name":"","survey_name":"\u91ce\u6d32\u5ddd\u65b0\u5ddd\u90e8\u571f\u8cea\u8abf\u67fb(\u305d\u306e3)","client_name":"\u56fd\u571f\u4ea4\u901a\u7701\u8fd1\u757f\u5730\u65b9\u6574\u5099\u5c40\u7435\u7436\u6e56\u6cb3\u5ddd\u4e8b\u52d9\u6240","boring_xml_url":40,"boring_view_url":1,"soilmap_view_url":null,"soiltest_xml_url":0,"soiltest_view_url":0},{"id":182014,"code":"B4KJ201801007-0263","latitude":"35.0740422","longitude":"136.0158714","source_code":"KK52364081005","project_name":"","survey_name":"\u91ce\u6d32\u5ddd\u571f\u8cea\u8abf\u67fb","client_name":"\u56fd\u571f\u4ea4\u901a\u7701\u8fd1\u757f\u5730\u65b9\u6574\u5099\u5c40\u7435\u7436\u6e56\u6cb3\u5ddd\u4e8b\u52d9\u6240","boring_xml_url":40,"boring_view_url":1,"soilmap_view_url":null,"soiltest_xml_url":0,"soiltest_view_url":0},{"id":182013,"code":"B4KJ201801007-0262","latitude":"35.0759586","longitude":"136.012955","source_code":"KK52364081004","project_name":"","survey_name":"\u91ce\u6d32\u5ddd\u65b0\u5ddd\u90e8\u571f\u8cea\u8abf\u67fb(\u305d\u306e3)","client_name":"\u56fd\u571f\u4ea4\u901a\u7701\u8fd1\u757f\u5730\u65b9\u6574\u5099\u5c40\u7435\u7436\u6e56\u6cb3\u5ddd\u4e8b\u52d9\u6240","boring_xml_url":40,"boring_view_url":1,"soilmap_view_url":null,"soiltest_xml_url":0,"soiltest_view_url":0},{"id":182012,"code":"B4KJ201801007-0261","latitude":"35.0762083","longitude":"136.0105939","source_code":"KK52364081003","project_name":"","survey_name":"\u91ce\u6d32\u5ddd\u65b0\u5ddd\u90e8\u571f\u8cea\u8abf\u67fb(\u305d\u306e3)","client_name":"\u56fd\u571f\u4ea4\u901a\u7701\u8fd1\u757f\u5730\u65b9\u6574\u5099\u5c40\u7435\u7436\u6e56\u6cb3\u5ddd\u4e8b\u52d9\u6240","boring_xml_url":40,"boring_view_url":1,"soilmap_view_url":null,"soiltest_xml_url":0,"soiltest_view_url":0},{"id":182011,"code":"B4KJ201801007-0260","latitude":"35.0741531","longitude":"136.0104553","source_code":"KK52364081002","project_name":"","survey_name":"\u91ce\u6d32\u5ddd\u65b0\u5ddd\u90e8\u571f\u8cea\u8abf\u67fb(\u305d\u306e3)","client_name":"\u56fd\u571f\u4ea4\u901a\u7701\u8fd1\u757f\u5730\u65b9\u6574\u5099\u5c40\u7435\u7436\u6e56\u6cb3\u5ddd\u4e8b\u52d9\u6240","boring_xml_url":40,"boring_view_url":1,"soilmap_view_url":null,"soiltest_xml_url":0,"soiltest_view_url":0},{"id":182010,"code":"B4KJ201801007-0259","latitude":"35.0722367","longitude":"136.0098997","source_code":"KK52364081001","project_name":"","survey_name":"\u91ce\u6d32\u5ddd\u65b0\u5ddd\u90e8\u571f\u8cea\u8abf\u67fb(\u305d\u306e3)","client_name":"\u56fd\u571f\u4ea4\u901a\u7701\u8fd1\u757f\u5730\u65b9\u6574\u5099\u5c40\u7435\u7436\u6e56\u6cb3\u5ddd\u4e8b\u52d9\u6240","boring_xml_url":40,"boring_view_url":1,"soilmap_view_url":null,"soiltest_xml_url":0,"soiltest_view_url":0},{"id":182009,"code":"B4KJ201801007-0258","latitude":"35.0762083","longitude":"136.0089275","source_code":"KK52364080006","project_name":"","survey_name":"\u91ce\u6d32\u5ddd\u65b0\u5ddd\u90e8\u571f\u8cea\u8abf\u67fb(\u305d\u306e3)","client_name":"\u56fd\u571f\u4ea4\u901a\u7701\u8fd1\u757f\u5730\u65b9\u6574\u5099\u5c40\u7435\u7436\u6e56\u6cb3\u5ddd\u4e8b\u52d9\u6240","boring_xml_url":40,"boring_view_url":1,"soilmap_view_url":null,"soiltest_xml_url":0,"soiltest_view_url":0},{"id":182008,"code":"B4KJ201801007-0257","latitude":"35.0763194","longitude":"136.0069831","source_code":"KK52364080005","project_name":"","survey_name":"\u91ce\u6d32\u5ddd\u65b0\u5ddd\u90e8\u571f\u8cea\u8abf\u67fb(\u305d\u306e3)","client_name":"\u56fd\u571f\u4ea4\u901a\u7701\u8fd1\u757f\u5730\u65b9\u6574\u5099\u5c40\u7435\u7436\u6e56\u6cb3\u5ddd\u4e8b\u52d9\u6240","boring_xml_url":40,"boring_view_url":1,"soilmap_view_url":null,"soiltest_xml_url":0,"soiltest_view_url":0},{"id":182007,"code":"B4KJ201801007-0256","latitude":"35.0744031","longitude":"136.0087886","source_code":"KK52364080004","project_name":"","survey_name":"\u91ce\u6d32\u5ddd\u65b0\u5ddd\u90e8\u571f\u8cea\u8abf\u67fb(\u305d\u306e3)","client_name":"\u56fd\u571f\u4ea4\u901a\u7701\u8fd1\u757f\u5730\u65b9\u6574\u5099\u5c40\u7435\u7436\u6e56\u6cb3\u5ddd\u4e8b\u52d9\u6240","boring_xml_url":40,"boring_view_url":1,"soilmap_view_url":null,"soiltest_xml_url":0,"soiltest_view_url":0},{"id":182006,"code":"B4KJ201801007-0255","latitude":"35.074736","longitude":"136.006706","source_code":"KK52364080003","project_name":"","survey_name":"\u91ce\u6d32\u5ddd\u65b0\u5ddd\u90e8\u571f\u8cea\u8abf\u67fb(\u305d\u306e3)","client_name":"\u56fd\u571f\u4ea4\u901a\u7701\u8fd1\u757f\u5730\u65b9\u6574\u5099\u5c40\u7435\u7436\u6e56\u6cb3\u5ddd\u4e8b\u52d9\u6240","boring_xml_url":40,"boring_view_url":1,"soilmap_view_url":null,"soiltest_xml_url":0,"soiltest_view_url":0}]}}