{"header":{"xyz":{"source":[],"mosaic":false},"page":4623,"raw":{"soiltest_result":"0","bbox":"57.598333,109.544722,1.933333,163.806111","page":"4623"},"conditions":{"soiltest_result":0,"north":57.598333,"west":109.544722,"south":1.933333,"east":163.806111},"success":true,"message":""},"data":{"meta":{"total":212844,"page":4623,"pages":7095,"count":30},"values":[{"id":181885,"code":"B4KJ201801007-0134","latitude":"34.9856658","longitude":"136.1185044","source_code":"KK52363079003","project_name":"","survey_name":"\u6a2a\u7530\u6a4b\u5730\u8cea\u8abf\u67fb\u4f5c\u696d","client_name":"\u56fd\u571f\u4ea4\u901a\u7701\u8fd1\u757f\u5730\u65b9\u6574\u5099\u5c40\u6ecb\u8cc0\u56fd\u9053\u4e8b\u52d9\u6240","boring_xml_url":40,"boring_view_url":1,"soilmap_view_url":null,"soiltest_xml_url":0,"soiltest_view_url":0},{"id":181884,"code":"B4KJ201801007-0133","latitude":"34.985","longitude":"136.119061","source_code":"KK52363079001","project_name":"","survey_name":"\u6a2a\u7530\u6a4b\u5730\u8cea\u8abf\u67fb\u4f5c\u696d","client_name":"\u56fd\u571f\u4ea4\u901a\u7701\u8fd1\u757f\u5730\u65b9\u6574\u5099\u5c40\u6ecb\u8cc0\u56fd\u9053\u4e8b\u52d9\u6240","boring_xml_url":40,"boring_view_url":1,"soilmap_view_url":null,"soiltest_xml_url":0,"soiltest_view_url":0},{"id":181883,"code":"B4KJ201801007-0132","latitude":"34.9458069","longitude":"136.0232086","source_code":"KK52363032012","project_name":"","survey_name":"\u5927\u6d25\u4fe1\u697d\u7dda25\u53f7\u6a4b\u8a73\u7d30\u8a2d\u8a08\u696d\u52d9\u59d4\u8a17","client_name":"\u56fd\u571f\u4ea4\u901a\u7701\u8fd1\u757f\u5730\u65b9\u6574\u5099\u5c40\u5927\u6238\u5ddd\u30c0\u30e0\u5de5\u4e8b\u4e8b\u52d9\u6240","boring_xml_url":40,"boring_view_url":1,"soilmap_view_url":null,"soiltest_xml_url":0,"soiltest_view_url":0},{"id":181882,"code":"B4KJ201801007-0131","latitude":"34.9463347","longitude":"136.0230419","source_code":"KK52363032011","project_name":"","survey_name":"\u5927\u6d25\u4fe1\u697d\u7dda25\u53f7\u6a4b\u8a73\u7d30\u8a2d\u8a08\u696d\u52d9\u59d4\u8a17","client_name":"\u56fd\u571f\u4ea4\u901a\u7701\u8fd1\u757f\u5730\u65b9\u6574\u5099\u5c40\u5927\u6238\u5ddd\u30c0\u30e0\u5de5\u4e8b\u4e8b\u52d9\u6240","boring_xml_url":40,"boring_view_url":1,"soilmap_view_url":null,"soiltest_xml_url":0,"soiltest_view_url":0},{"id":181881,"code":"B4KJ201801007-0130","latitude":"34.9456403","longitude":"136.0227642","source_code":"KK52363032010","project_name":"","survey_name":"\u5927\u6d25\u4fe1\u697d\u7dda25\u53f7\u6a4b\u8a73\u7d30\u8a2d\u8a08\u696d\u52d9\u59d4\u8a17","client_name":"\u56fd\u571f\u4ea4\u901a\u7701\u8fd1\u757f\u5730\u65b9\u6574\u5099\u5c40\u5927\u6238\u5ddd\u30c0\u30e0\u5de5\u4e8b\u4e8b\u52d9\u6240","boring_xml_url":40,"boring_view_url":1,"soilmap_view_url":null,"soiltest_xml_url":0,"soiltest_view_url":0},{"id":181880,"code":"B4KJ201801007-0129","latitude":"34.9469175","longitude":"136.0023769","source_code":"KK52363030029","project_name":"","survey_name":"\u5e73\u621011\u5e74\u5ea6\u30c0\u30e0\u30b5\u30a4\u30c8\u53f3\u5cb8\u5730\u8cea\u8abf\u67fb\u696d\u52d9","client_name":"\u56fd\u571f\u4ea4\u901a\u7701\u8fd1\u757f\u5730\u65b9\u6574\u5099\u5c40\u5927\u6238\u5ddd\u30c0\u30e0\u5de5\u4e8b\u4e8b\u52d9\u6240","boring_xml_url":40,"boring_view_url":1,"soilmap_view_url":null,"soiltest_xml_url":0,"soiltest_view_url":0},{"id":181879,"code":"B4KJ201801007-0128","latitude":"34.9468061","longitude":"136.0017658","source_code":"KK52363030028","project_name":"","survey_name":"\u5e73\u621011\u5e74\u5ea6\u30c0\u30e0\u30b5\u30a4\u30c8\u53f3\u5cb8\u5730\u8cea\u8abf\u67fb\u696d\u52d9","client_name":"\u56fd\u571f\u4ea4\u901a\u7701\u8fd1\u757f\u5730\u65b9\u6574\u5099\u5c40\u5927\u6238\u5ddd\u30c0\u30e0\u5de5\u4e8b\u4e8b\u52d9\u6240","boring_xml_url":40,"boring_view_url":1,"soilmap_view_url":null,"soiltest_xml_url":0,"soiltest_view_url":0},{"id":181878,"code":"B4KJ201801007-0127","latitude":"34.946695","longitude":"136.0010994","source_code":"KK52363030027","project_name":"","survey_name":"\u5e73\u621011\u5e74\u5ea6\u30c0\u30e0\u30b5\u30a4\u30c8\u53f3\u5cb8\u5730\u8cea\u8abf\u67fb\u696d\u52d9","client_name":"\u56fd\u571f\u4ea4\u901a\u7701\u8fd1\u757f\u5730\u65b9\u6574\u5099\u5c40\u5927\u6238\u5ddd\u30c0\u30e0\u5de5\u4e8b\u4e8b\u52d9\u6240","boring_xml_url":40,"boring_view_url":1,"soilmap_view_url":null,"soiltest_xml_url":0,"soiltest_view_url":0},{"id":181877,"code":"B4KJ201801007-0126","latitude":"34.9464731","longitude":"136.0014881","source_code":"KK52363030026","project_name":"","survey_name":"\u5e73\u621011\u5e74\u5ea6\u30c0\u30e0\u30b5\u30a4\u30c8\u53f3\u5cb8\u5730\u8cea\u8abf\u67fb\u696d\u52d9","client_name":"\u56fd\u571f\u4ea4\u901a\u7701\u8fd1\u757f\u5730\u65b9\u6574\u5099\u5c40\u5927\u6238\u5ddd\u30c0\u30e0\u5de5\u4e8b\u4e8b\u52d9\u6240","boring_xml_url":40,"boring_view_url":1,"soilmap_view_url":null,"soiltest_xml_url":0,"soiltest_view_url":0},{"id":181876,"code":"B4KJ201801007-0125","latitude":"34.9468061","longitude":"136.0009606","source_code":"KK52363030025","project_name":"","survey_name":"\u5e73\u621011\u5e74\u5ea6\u30c0\u30e0\u30b5\u30a4\u30c8\u53f3\u5cb8\u5730\u8cea\u8abf\u67fb\u696d\u52d9","client_name":"\u56fd\u571f\u4ea4\u901a\u7701\u8fd1\u757f\u5730\u65b9\u6574\u5099\u5c40\u5927\u6238\u5ddd\u30c0\u30e0\u5de5\u4e8b\u4e8b\u52d9\u6240","boring_xml_url":40,"boring_view_url":1,"soilmap_view_url":null,"soiltest_xml_url":0,"soiltest_view_url":0},{"id":181875,"code":"B4KJ201801007-0124","latitude":"34.9463619","longitude":"136.0017658","source_code":"KK52363030024","project_name":"","survey_name":"\u5e73\u621011\u5e74\u5ea6\u30c0\u30e0\u30b5\u30a4\u30c8\u53f3\u5cb8\u5730\u8cea\u8abf\u67fb\u696d\u52d9","client_name":"\u56fd\u571f\u4ea4\u901a\u7701\u8fd1\u757f\u5730\u65b9\u6574\u5099\u5c40\u5927\u6238\u5ddd\u30c0\u30e0\u5de5\u4e8b\u4e8b\u52d9\u6240","boring_xml_url":40,"boring_view_url":1,"soilmap_view_url":null,"soiltest_xml_url":0,"soiltest_view_url":0},{"id":181874,"code":"B4KJ201801007-0123","latitude":"34.9461397","longitude":"136.0001272","source_code":"KK52363030023","project_name":"","survey_name":"\u5e73\u621011\u5e74\u5ea6\u30c0\u30e0\u30b5\u30a4\u30c8\u53f3\u5cb8\u5730\u8cea\u8abf\u67fb\u696d\u52d9","client_name":"\u56fd\u571f\u4ea4\u901a\u7701\u8fd1\u757f\u5730\u65b9\u6574\u5099\u5c40\u5927\u6238\u5ddd\u30c0\u30e0\u5de5\u4e8b\u4e8b\u52d9\u6240","boring_xml_url":40,"boring_view_url":1,"soilmap_view_url":null,"soiltest_xml_url":0,"soiltest_view_url":0},{"id":181873,"code":"B4KJ201801007-0122","latitude":"34.9464731","longitude":"136.0087375","source_code":"KK52363030009","project_name":"","survey_name":"2B\u5de5\u533a\u5730\u8cea\u8abf\u67fb\u4f5c\u696d","client_name":"\u56fd\u571f\u4ea4\u901a\u7701\u8fd1\u757f\u5730\u65b9\u6574\u5099\u5c40\u5927\u6238\u5ddd\u30c0\u30e0\u5de5\u4e8b\u4e8b\u52d9\u6240","boring_xml_url":40,"boring_view_url":1,"soilmap_view_url":null,"soiltest_xml_url":0,"soiltest_view_url":0},{"id":181872,"code":"B4KJ201801007-0121","latitude":"34.9459731","longitude":"136.0009606","source_code":"KK52363030008","project_name":"","survey_name":"\u5e73\u621010\u5e74\u5ea6\u30c0\u30e0\u30b5\u30a4\u30c8\u5730\u8cea\u8abf\u67fb\u4f5c\u696d","client_name":"\u56fd\u571f\u4ea4\u901a\u7701\u8fd1\u757f\u5730\u65b9\u6574\u5099\u5c40\u5927\u6238\u5ddd\u30c0\u30e0\u5de5\u4e8b\u4e8b\u52d9\u6240","boring_xml_url":40,"boring_view_url":1,"soilmap_view_url":null,"soiltest_xml_url":0,"soiltest_view_url":0},{"id":181871,"code":"B4KJ201801007-0120","latitude":"34.9468617","longitude":"136.0017103","source_code":"KK52363030007","project_name":"","survey_name":"\u5e73\u621010\u5e74\u5ea6\u30c0\u30e0\u30b5\u30a4\u30c8\u5730\u8cea\u8abf\u67fb\u4f5c\u696d","client_name":"\u56fd\u571f\u4ea4\u901a\u7701\u8fd1\u757f\u5730\u65b9\u6574\u5099\u5c40\u5927\u6238\u5ddd\u30c0\u30e0\u5de5\u4e8b\u4e8b\u52d9\u6240","boring_xml_url":40,"boring_view_url":1,"soilmap_view_url":null,"soiltest_xml_url":0,"soiltest_view_url":0},{"id":181870,"code":"B4KJ201801007-0119","latitude":"34.9460842","longitude":"136.0014881","source_code":"KK52363030006","project_name":"","survey_name":"\u5e73\u621010\u5e74\u5ea6\u30c0\u30e0\u30b5\u30a4\u30c8\u5730\u8cea\u8abf\u67fb\u4f5c\u696d","client_name":"\u56fd\u571f\u4ea4\u901a\u7701\u8fd1\u757f\u5730\u65b9\u6574\u5099\u5c40\u5927\u6238\u5ddd\u30c0\u30e0\u5de5\u4e8b\u4e8b\u52d9\u6240","boring_xml_url":40,"boring_view_url":1,"soilmap_view_url":null,"soiltest_xml_url":0,"soiltest_view_url":0},{"id":181869,"code":"B4KJ201801007-0118","latitude":"34.9456397","longitude":"136.0012383","source_code":"KK52363030005","project_name":"","survey_name":"\u5e73\u621010\u5e74\u5ea6\u30c0\u30e0\u30b5\u30a4\u30c8\u5730\u8cea\u8abf\u67fb\u4f5c\u696d","client_name":"\u56fd\u571f\u4ea4\u901a\u7701\u8fd1\u757f\u5730\u65b9\u6574\u5099\u5c40\u5927\u6238\u5ddd\u30c0\u30e0\u5de5\u4e8b\u4e8b\u52d9\u6240","boring_xml_url":40,"boring_view_url":1,"soilmap_view_url":null,"soiltest_xml_url":0,"soiltest_view_url":0},{"id":181868,"code":"B4KJ201801007-0117","latitude":"34.9471397","longitude":"136.0073767","source_code":"KK52363030004","project_name":"","survey_name":"2B\u5de5\u533a\u5730\u8cea\u8abf\u67fb\u4f5c\u696d","client_name":"\u56fd\u571f\u4ea4\u901a\u7701\u8fd1\u757f\u5730\u65b9\u6574\u5099\u5c40\u5927\u6238\u5ddd\u30c0\u30e0\u5de5\u4e8b\u4e8b\u52d9\u6240","boring_xml_url":40,"boring_view_url":1,"soilmap_view_url":null,"soiltest_xml_url":0,"soiltest_view_url":0},{"id":181867,"code":"B4KJ201801007-0116","latitude":"34.9473897","longitude":"136.0060156","source_code":"KK52363030003","project_name":"","survey_name":"2B\u5de5\u533a\u5730\u8cea\u8abf\u67fb\u4f5c\u696d","client_name":"\u56fd\u571f\u4ea4\u901a\u7701\u8fd1\u757f\u5730\u65b9\u6574\u5099\u5c40\u5927\u6238\u5ddd\u30c0\u30e0\u5de5\u4e8b\u4e8b\u52d9\u6240","boring_xml_url":40,"boring_view_url":1,"soilmap_view_url":null,"soiltest_xml_url":0,"soiltest_view_url":0},{"id":181866,"code":"B4KJ201801007-0115","latitude":"34.9475839","longitude":"136.0031269","source_code":"KK52363030002","project_name":"","survey_name":"2B\u5de5\u533a\u5730\u8cea\u8abf\u67fb\u4f5c\u696d","client_name":"\u56fd\u571f\u4ea4\u901a\u7701\u8fd1\u757f\u5730\u65b9\u6574\u5099\u5c40\u5927\u6238\u5ddd\u30c0\u30e0\u5de5\u4e8b\u4e8b\u52d9\u6240","boring_xml_url":40,"boring_view_url":1,"soilmap_view_url":null,"soiltest_xml_url":0,"soiltest_view_url":0},{"id":181865,"code":"B4KJ201801007-0114","latitude":"34.9481672","longitude":"136.0005439","source_code":"KK52363030001","project_name":"","survey_name":"2B\u5de5\u533a\u5730\u8cea\u8abf\u67fb\u4f5c\u696d","client_name":"\u56fd\u571f\u4ea4\u901a\u7701\u8fd1\u757f\u5730\u65b9\u6574\u5099\u5c40\u5927\u6238\u5ddd\u30c0\u30e0\u5de5\u4e8b\u4e8b\u52d9\u6240","boring_xml_url":40,"boring_view_url":1,"soilmap_view_url":null,"soiltest_xml_url":0,"soiltest_view_url":0},{"id":181864,"code":"B4KJ201801007-0113","latitude":"34.9371969","longitude":"136.03543","source_code":"KK52363023031","project_name":"","survey_name":"\u5927\u6d25\u4fe1\u697d\u7dda\u5927\u9ce5\u5c45\u5730\u533a\u5730\u8cea\u8abf\u67fb(\u305d\u306e2)\u696d\u52d9","client_name":"\u56fd\u571f\u4ea4\u901a\u7701\u8fd1\u757f\u5730\u65b9\u6574\u5099\u5c40\u5927\u6238\u5ddd\u30c0\u30e0\u5de5\u4e8b\u4e8b\u52d9\u6240","boring_xml_url":40,"boring_view_url":1,"soilmap_view_url":null,"soiltest_xml_url":0,"soiltest_view_url":0},{"id":181863,"code":"B4KJ201801007-0112","latitude":"34.9377525","longitude":"136.0349578","source_code":"KK52363023030","project_name":"","survey_name":"\u5927\u6d25\u4fe1\u697d\u7dda\u5927\u9ce5\u5c45\u5730\u533a\u5730\u8cea\u8abf\u67fb(\u305d\u306e2)\u696d\u52d9","client_name":"\u56fd\u571f\u4ea4\u901a\u7701\u8fd1\u757f\u5730\u65b9\u6574\u5099\u5c40\u5927\u6238\u5ddd\u30c0\u30e0\u5de5\u4e8b\u4e8b\u52d9\u6240","boring_xml_url":40,"boring_view_url":1,"soilmap_view_url":null,"soiltest_xml_url":0,"soiltest_view_url":0},{"id":181862,"code":"B4KJ201801007-0111","latitude":"34.9376969","longitude":"136.0347356","source_code":"KK52363023029","project_name":"","survey_name":"\u5927\u6d25\u4fe1\u697d\u7dda\u5927\u9ce5\u5c45\u5730\u533a\u5730\u8cea\u8abf\u67fb(\u305d\u306e2)\u696d\u52d9","client_name":"\u56fd\u571f\u4ea4\u901a\u7701\u8fd1\u757f\u5730\u65b9\u6574\u5099\u5c40\u5927\u6238\u5ddd\u30c0\u30e0\u5de5\u4e8b\u4e8b\u52d9\u6240","boring_xml_url":40,"boring_view_url":1,"soilmap_view_url":null,"soiltest_xml_url":0,"soiltest_view_url":0},{"id":181861,"code":"B4KJ201801007-0110","latitude":"34.9366694","longitude":"136.0358189","source_code":"KK52363023028","project_name":"","survey_name":"\u5927\u6d25\u4fe1\u697d\u7dda\u5927\u9ce5\u5c45\u5730\u533a\u5730\u8cea\u8abf\u67fb\u696d\u52d9","client_name":"\u56fd\u571f\u4ea4\u901a\u7701\u8fd1\u757f\u5730\u65b9\u6574\u5099\u5c40\u5927\u6238\u5ddd\u30c0\u30e0\u5de5\u4e8b\u4e8b\u52d9\u6240","boring_xml_url":40,"boring_view_url":1,"soilmap_view_url":null,"soiltest_xml_url":0,"soiltest_view_url":0},{"id":181860,"code":"B4KJ201801007-0109","latitude":"34.9374192","longitude":"136.0351522","source_code":"KK52363023027","project_name":"","survey_name":"\u5927\u6d25\u4fe1\u697d\u7dda\u5927\u9ce5\u5c45\u5730\u533a\u5730\u8cea\u8abf\u67fb\u696d\u52d9","client_name":"\u56fd\u571f\u4ea4\u901a\u7701\u8fd1\u757f\u5730\u65b9\u6574\u5099\u5c40\u5927\u6238\u5ddd\u30c0\u30e0\u5de5\u4e8b\u4e8b\u52d9\u6240","boring_xml_url":40,"boring_view_url":1,"soilmap_view_url":null,"soiltest_xml_url":0,"soiltest_view_url":0},{"id":181859,"code":"B4KJ201801007-0108","latitude":"34.9374192","longitude":"136.0351522","source_code":"KK52363023026","project_name":"","survey_name":"\u5927\u6d25\u4fe1\u697d\u7dda\u5927\u9ce5\u5c45\u5730\u533a\u5730\u8cea\u8abf\u67fb\u696d\u52d9","client_name":"\u56fd\u571f\u4ea4\u901a\u7701\u8fd1\u757f\u5730\u65b9\u6574\u5099\u5c40\u5927\u6238\u5ddd\u30c0\u30e0\u5de5\u4e8b\u4e8b\u52d9\u6240","boring_xml_url":40,"boring_view_url":1,"soilmap_view_url":null,"soiltest_xml_url":0,"soiltest_view_url":0},{"id":181858,"code":"B4KJ201801007-0107","latitude":"34.9376969","longitude":"136.0347078","source_code":"KK52363023025","project_name":"","survey_name":"\u5927\u6d25\u4fe1\u697d\u7dda\u5927\u9ce5\u5c45\u5730\u533a\u5730\u8cea\u8abf\u67fb\u696d\u52d9","client_name":"\u56fd\u571f\u4ea4\u901a\u7701\u8fd1\u757f\u5730\u65b9\u6574\u5099\u5c40\u5927\u6238\u5ddd\u30c0\u30e0\u5de5\u4e8b\u4e8b\u52d9\u6240","boring_xml_url":40,"boring_view_url":1,"soilmap_view_url":null,"soiltest_xml_url":0,"soiltest_view_url":0},{"id":181857,"code":"B4KJ201801007-0106","latitude":"34.9370025","longitude":"136.0355967","source_code":"KK52363023012","project_name":"","survey_name":"38\u53f7\u6a4b\u4ed62\u6a4b\u5730\u8cea\u8abf\u67fb\u696d\u52d9","client_name":"\u56fd\u571f\u4ea4\u901a\u7701\u8fd1\u757f\u5730\u65b9\u6574\u5099\u5c40\u5927\u6238\u5ddd\u30c0\u30e0\u5de5\u4e8b\u4e8b\u52d9\u6240","boring_xml_url":40,"boring_view_url":1,"soilmap_view_url":null,"soiltest_xml_url":0,"soiltest_view_url":0},{"id":181856,"code":"B4KJ201801007-0105","latitude":"34.9370581","longitude":"136.03568","source_code":"KK52363023011","project_name":"","survey_name":"38\u53f7\u6a4b\u4ed62\u6a4b\u5730\u8cea\u8abf\u67fb\u696d\u52d9","client_name":"\u56fd\u571f\u4ea4\u901a\u7701\u8fd1\u757f\u5730\u65b9\u6574\u5099\u5c40\u5927\u6238\u5ddd\u30c0\u30e0\u5de5\u4e8b\u4e8b\u52d9\u6240","boring_xml_url":40,"boring_view_url":1,"soilmap_view_url":null,"soiltest_xml_url":0,"soiltest_view_url":0}]}}