{"header":{"xyz":{"source":[],"mosaic":false},"page":463,"raw":{"soiltest_result":"0","bbox":"57.598333,109.544722,1.933333,163.806111","page":"463"},"conditions":{"soiltest_result":0,"north":57.598333,"west":109.544722,"south":1.933333,"east":163.806111},"success":true,"message":""},"data":{"meta":{"total":212844,"page":463,"pages":7095,"count":30},"values":[{"id":531528,"code":"B4KJ202201003-4064","latitude":"33.207806","longitude":"130.190389","source_code":"QS20158935600200160006","project_name":"","survey_name":"\u5e73\u621027\u5e74\u5ea6\u516d\u89d2\u5ddd\u6c34\u7cfb\u5824\u9632\u6f0f\u6c34\u8abf\u67fb\u691c\u8a0e\u5916\u696d\u52d9","client_name":"\u56fd\u571f\u4ea4\u901a\u7701\u4e5d\u5dde\u5730\u65b9\u6574\u5099\u5c40\u6b66\u96c4\u6cb3\u5ddd\u4e8b\u52d9\u6240","boring_xml_url":72,"boring_view_url":1,"soilmap_view_url":null,"soiltest_xml_url":0,"soiltest_view_url":0},{"id":531527,"code":"B4KJ202201003-4063","latitude":"33.206167","longitude":"130.187083","source_code":"QS20158935600200160005","project_name":"","survey_name":"\u5e73\u621027\u5e74\u5ea6\u516d\u89d2\u5ddd\u6c34\u7cfb\u5824\u9632\u6f0f\u6c34\u8abf\u67fb\u691c\u8a0e\u5916\u696d\u52d9","client_name":"\u56fd\u571f\u4ea4\u901a\u7701\u4e5d\u5dde\u5730\u65b9\u6574\u5099\u5c40\u6b66\u96c4\u6cb3\u5ddd\u4e8b\u52d9\u6240","boring_xml_url":72,"boring_view_url":1,"soilmap_view_url":null,"soiltest_xml_url":0,"soiltest_view_url":0},{"id":531526,"code":"B4KJ202201003-4062","latitude":"33.208917","longitude":"130.193222","source_code":"QS20158935600200160004","project_name":"","survey_name":"\u5e73\u621027\u5e74\u5ea6\u516d\u89d2\u5ddd\u6c34\u7cfb\u5824\u9632\u6f0f\u6c34\u8abf\u67fb\u691c\u8a0e\u5916\u696d\u52d9","client_name":"\u56fd\u571f\u4ea4\u901a\u7701\u4e5d\u5dde\u5730\u65b9\u6574\u5099\u5c40\u6b66\u96c4\u6cb3\u5ddd\u4e8b\u52d9\u6240","boring_xml_url":72,"boring_view_url":1,"soilmap_view_url":null,"soiltest_xml_url":0,"soiltest_view_url":0},{"id":531525,"code":"B4KJ202201003-4061","latitude":"33.208833","longitude":"130.193194","source_code":"QS20158935600200160003","project_name":"","survey_name":"\u5e73\u621027\u5e74\u5ea6\u516d\u89d2\u5ddd\u6c34\u7cfb\u5824\u9632\u6f0f\u6c34\u8abf\u67fb\u691c\u8a0e\u5916\u696d\u52d9","client_name":"\u56fd\u571f\u4ea4\u901a\u7701\u4e5d\u5dde\u5730\u65b9\u6574\u5099\u5c40\u6b66\u96c4\u6cb3\u5ddd\u4e8b\u52d9\u6240","boring_xml_url":72,"boring_view_url":1,"soilmap_view_url":null,"soiltest_xml_url":0,"soiltest_view_url":0},{"id":531524,"code":"B4KJ202201003-4060","latitude":"33.207917","longitude":"130.190333","source_code":"QS20158935600200160002","project_name":"","survey_name":"\u5e73\u621027\u5e74\u5ea6\u516d\u89d2\u5ddd\u6c34\u7cfb\u5824\u9632\u6f0f\u6c34\u8abf\u67fb\u691c\u8a0e\u5916\u696d\u52d9","client_name":"\u56fd\u571f\u4ea4\u901a\u7701\u4e5d\u5dde\u5730\u65b9\u6574\u5099\u5c40\u6b66\u96c4\u6cb3\u5ddd\u4e8b\u52d9\u6240","boring_xml_url":72,"boring_view_url":1,"soilmap_view_url":null,"soiltest_xml_url":0,"soiltest_view_url":0},{"id":531523,"code":"B4KJ202201003-4059","latitude":"33.207833","longitude":"130.190389","source_code":"QS20158935600200160001","project_name":"","survey_name":"\u5e73\u621027\u5e74\u5ea6\u516d\u89d2\u5ddd\u6c34\u7cfb\u5824\u9632\u6f0f\u6c34\u8abf\u67fb\u691c\u8a0e\u5916\u696d\u52d9","client_name":"\u56fd\u571f\u4ea4\u901a\u7701\u4e5d\u5dde\u5730\u65b9\u6574\u5099\u5c40\u6b66\u96c4\u6cb3\u5ddd\u4e8b\u52d9\u6240","boring_xml_url":72,"boring_view_url":1,"soilmap_view_url":null,"soiltest_xml_url":0,"soiltest_view_url":0},{"id":531522,"code":"B4KJ202201003-4058","latitude":"31.490865","longitude":"131.087818","source_code":"QS2016897163020090011","project_name":"","survey_name":"\u5e73\u621028\u5e74\u5ea6\u65e5\u5357\u30fb\u5fd7\u5e03\u5fd7\u9053\u8def\uff08\u5fd7\u5e03\u5fd7\u5730\u533a\u5916\uff09\u5730\u8cea\u8abf\u67fb\u696d\u52d9","client_name":"\u56fd\u571f\u4ea4\u901a\u7701\u3000\u4e5d\u5dde\u5730\u65b9\u6574\u5099\u5c40\u3000\u5927\u9685\u6cb3\u5ddd","boring_xml_url":70,"boring_view_url":1,"soilmap_view_url":null,"soiltest_xml_url":0,"soiltest_view_url":0},{"id":531521,"code":"B4KJ202201003-4057","latitude":"31.491428","longitude":"131.089147","source_code":"QS2016897163020090010","project_name":"","survey_name":"\u5e73\u621028\u5e74\u5ea6\u65e5\u5357\u30fb\u5fd7\u5e03\u5fd7\u9053\u8def\uff08\u5fd7\u5e03\u5fd7\u5730\u533a\u5916\uff09\u5730\u8cea\u8abf\u67fb\u696d\u52d9","client_name":"\u56fd\u571f\u4ea4\u901a\u7701\u3000\u4e5d\u5dde\u5730\u65b9\u6574\u5099\u5c40\u3000\u5927\u9685\u6cb3\u5ddd","boring_xml_url":70,"boring_view_url":1,"soilmap_view_url":null,"soiltest_xml_url":0,"soiltest_view_url":0},{"id":531520,"code":"B4KJ202201003-4056","latitude":"31.492135","longitude":"131.090615","source_code":"QS2016897163020090009","project_name":"","survey_name":"\u5e73\u621028\u5e74\u5ea6\u65e5\u5357\u30fb\u5fd7\u5e03\u5fd7\u9053\u8def\uff08\u5fd7\u5e03\u5fd7\u5730\u533a\u5916\uff09\u5730\u8cea\u8abf\u67fb\u696d\u52d9","client_name":"\u56fd\u571f\u4ea4\u901a\u7701\u3000\u4e5d\u5dde\u5730\u65b9\u6574\u5099\u5c40\u3000\u5927\u9685\u6cb3\u5ddd","boring_xml_url":70,"boring_view_url":1,"soilmap_view_url":null,"soiltest_xml_url":0,"soiltest_view_url":0},{"id":531519,"code":"B4KJ202201003-4055","latitude":"31.492488","longitude":"131.092242","source_code":"QS2016897163020090008","project_name":"","survey_name":"\u5e73\u621028\u5e74\u5ea6\u65e5\u5357\u30fb\u5fd7\u5e03\u5fd7\u9053\u8def\uff08\u5fd7\u5e03\u5fd7\u5730\u533a\u5916\uff09\u5730\u8cea\u8abf\u67fb\u696d\u52d9","client_name":"\u56fd\u571f\u4ea4\u901a\u7701\u3000\u4e5d\u5dde\u5730\u65b9\u6574\u5099\u5c40\u3000\u5927\u9685\u6cb3\u5ddd","boring_xml_url":70,"boring_view_url":1,"soilmap_view_url":null,"soiltest_xml_url":0,"soiltest_view_url":0},{"id":531518,"code":"B4KJ202201003-4054","latitude":"31.492807","longitude":"131.094561","source_code":"QS2016897163020090007","project_name":"","survey_name":"\u5e73\u621028\u5e74\u5ea6\u65e5\u5357\u30fb\u5fd7\u5e03\u5fd7\u9053\u8def\uff08\u5fd7\u5e03\u5fd7\u5730\u533a\u5916\uff09\u5730\u8cea\u8abf\u67fb\u696d\u52d9","client_name":"\u56fd\u571f\u4ea4\u901a\u7701\u3000\u4e5d\u5dde\u5730\u65b9\u6574\u5099\u5c40\u3000\u5927\u9685\u6cb3\u5ddd","boring_xml_url":70,"boring_view_url":1,"soilmap_view_url":null,"soiltest_xml_url":0,"soiltest_view_url":0},{"id":531517,"code":"B4KJ202201003-4053","latitude":"31.492747","longitude":"131.097046","source_code":"QS2016897163020090006","project_name":"","survey_name":"\u5e73\u621028\u5e74\u5ea6\u65e5\u5357\u30fb\u5fd7\u5e03\u5fd7\u9053\u8def\uff08\u5fd7\u5e03\u5fd7\u5730\u533a\u5916\uff09\u5730\u8cea\u8abf\u67fb\u696d\u52d9","client_name":"\u56fd\u571f\u4ea4\u901a\u7701\u3000\u4e5d\u5dde\u5730\u65b9\u6574\u5099\u5c40\u3000\u5927\u9685\u6cb3\u5ddd","boring_xml_url":70,"boring_view_url":1,"soilmap_view_url":null,"soiltest_xml_url":0,"soiltest_view_url":0},{"id":531516,"code":"B4KJ202201003-4052","latitude":"31.492152","longitude":"131.100384","source_code":"QS2016897163020090005","project_name":"","survey_name":"\u5e73\u621028\u5e74\u5ea6\u65e5\u5357\u30fb\u5fd7\u5e03\u5fd7\u9053\u8def\uff08\u5fd7\u5e03\u5fd7\u5730\u533a\u5916\uff09\u5730\u8cea\u8abf\u67fb\u696d\u52d9","client_name":"\u56fd\u571f\u4ea4\u901a\u7701\u3000\u4e5d\u5dde\u5730\u65b9\u6574\u5099\u5c40\u3000\u5927\u9685\u6cb3\u5ddd","boring_xml_url":70,"boring_view_url":1,"soilmap_view_url":null,"soiltest_xml_url":0,"soiltest_view_url":0},{"id":531515,"code":"B4KJ202201003-4051","latitude":"31.490926","longitude":"131.104206","source_code":"QS2016897163020090004","project_name":"","survey_name":"\u5e73\u621028\u5e74\u5ea6\u65e5\u5357\u30fb\u5fd7\u5e03\u5fd7\u9053\u8def\uff08\u5fd7\u5e03\u5fd7\u5730\u533a\u5916\uff09\u5730\u8cea\u8abf\u67fb\u696d\u52d9","client_name":"\u56fd\u571f\u4ea4\u901a\u7701\u3000\u4e5d\u5dde\u5730\u65b9\u6574\u5099\u5c40\u3000\u5927\u9685\u6cb3\u5ddd","boring_xml_url":70,"boring_view_url":1,"soilmap_view_url":null,"soiltest_xml_url":0,"soiltest_view_url":0},{"id":531514,"code":"B4KJ202201003-4050","latitude":"31.490097","longitude":"131.106015","source_code":"QS2016897163020090003","project_name":"","survey_name":"\u5e73\u621028\u5e74\u5ea6\u65e5\u5357\u30fb\u5fd7\u5e03\u5fd7\u9053\u8def\uff08\u5fd7\u5e03\u5fd7\u5730\u533a\u5916\uff09\u5730\u8cea\u8abf\u67fb\u696d\u52d9","client_name":"\u56fd\u571f\u4ea4\u901a\u7701\u3000\u4e5d\u5dde\u5730\u65b9\u6574\u5099\u5c40\u3000\u5927\u9685\u6cb3\u5ddd","boring_xml_url":70,"boring_view_url":1,"soilmap_view_url":null,"soiltest_xml_url":0,"soiltest_view_url":0},{"id":531513,"code":"B4KJ202201003-4049","latitude":"31.489197","longitude":"131.10843","source_code":"QS2016897163020090002","project_name":"","survey_name":"\u5e73\u621028\u5e74\u5ea6\u65e5\u5357\u30fb\u5fd7\u5e03\u5fd7\u9053\u8def\uff08\u5fd7\u5e03\u5fd7\u5730\u533a\u5916\uff09\u5730\u8cea\u8abf\u67fb\u696d\u52d9","client_name":"\u56fd\u571f\u4ea4\u901a\u7701\u3000\u4e5d\u5dde\u5730\u65b9\u6574\u5099\u5c40\u3000\u5927\u9685\u6cb3\u5ddd","boring_xml_url":70,"boring_view_url":1,"soilmap_view_url":null,"soiltest_xml_url":0,"soiltest_view_url":0},{"id":531512,"code":"B4KJ202201003-4048","latitude":"31.488942","longitude":"131.108984","source_code":"QS2016897163020090001","project_name":"","survey_name":"\u5e73\u621028\u5e74\u5ea6\u65e5\u5357\u30fb\u5fd7\u5e03\u5fd7\u9053\u8def\uff08\u5fd7\u5e03\u5fd7\u5730\u533a\u5916\uff09\u5730\u8cea\u8abf\u67fb\u696d\u52d9","client_name":"\u56fd\u571f\u4ea4\u901a\u7701\u4e5d\u5dde\u5730\u65b9\u6574\u5099\u5c40\u5927\u9685\u6cb3\u5ddd\u56fd\u9053\u4e8b\u52d9\u6240","boring_xml_url":70,"boring_view_url":1,"soilmap_view_url":null,"soiltest_xml_url":0,"soiltest_view_url":0},{"id":531511,"code":"B4KJ202201003-4047","latitude":"31.48519","longitude":"131.117015","source_code":"QS20168971630200080016","project_name":"","survey_name":"\u5e73\u621028\u5e74\u5ea6\u65e5\u5357\u30fb\u5fd7\u5e03\u5fd7\u9053\u8def\uff08\u5e16\u5730\u533a\u5916\uff09\u5730\u8cea\u8abf\u67fb\u696d\u52d9","client_name":"\u56fd\u571f\u4ea4\u901a\u7701\u3000\u4e5d\u5dde\u5730\u65b9\u6574\u5099\u5c40\u3000\u5927\u9685\u6cb3\u5ddd","boring_xml_url":72,"boring_view_url":1,"soilmap_view_url":null,"soiltest_xml_url":0,"soiltest_view_url":0},{"id":531510,"code":"B4KJ202201003-4046","latitude":"31.484401","longitude":"131.120063","source_code":"QS20168971630200080015","project_name":"","survey_name":"\u5e73\u621028\u5e74\u5ea6\u65e5\u5357\u30fb\u5fd7\u5e03\u5fd7\u9053\u8def\uff08\u5e16\u5730\u533a\u5916\uff09\u5730\u8cea\u8abf\u67fb\u696d\u52d9","client_name":"\u56fd\u571f\u4ea4\u901a\u7701\u3000\u4e5d\u5dde\u5730\u65b9\u6574\u5099\u5c40\u3000\u5927\u9685\u6cb3\u5ddd","boring_xml_url":72,"boring_view_url":1,"soilmap_view_url":null,"soiltest_xml_url":0,"soiltest_view_url":0},{"id":531509,"code":"B4KJ202201003-4045","latitude":"31.489375","longitude":"131.085758","source_code":"QS20168971630200080014","project_name":"","survey_name":"\u5e73\u621028\u5e74\u5ea6\u65e5\u5357\u30fb\u5fd7\u5e03\u5fd7\u9053\u8def\uff08\u5e16\u5730\u533a\u5916\uff09\u5730\u8cea\u8abf\u67fb\u696d\u52d9","client_name":"\u56fd\u571f\u4ea4\u901a\u7701\u3000\u4e5d\u5dde\u5730\u65b9\u6574\u5099\u5c40\u3000\u5927\u9685\u6cb3\u5ddd","boring_xml_url":72,"boring_view_url":1,"soilmap_view_url":null,"soiltest_xml_url":0,"soiltest_view_url":0},{"id":531508,"code":"B4KJ202201003-4044","latitude":"31.490237","longitude":"131.086945","source_code":"QS20168971630200080013","project_name":"","survey_name":"\u5e73\u621028\u5e74\u5ea6\u65e5\u5357\u30fb\u5fd7\u5e03\u5fd7\u9053\u8def\uff08\u5e16\u5730\u533a\u5916\uff09\u5730\u8cea\u8abf\u67fb\u696d\u52d9","client_name":"\u56fd\u571f\u4ea4\u901a\u7701\u3000\u4e5d\u5dde\u5730\u65b9\u6574\u5099\u5c40\u3000\u5927\u9685\u6cb3\u5ddd","boring_xml_url":72,"boring_view_url":1,"soilmap_view_url":null,"soiltest_xml_url":0,"soiltest_view_url":0},{"id":531507,"code":"B4KJ202201003-4043","latitude":"31.488707","longitude":"131.109576","source_code":"QS20168971630200080012","project_name":"","survey_name":"\u5e73\u621028\u5e74\u5ea6\u65e5\u5357\u30fb\u5fd7\u5e03\u5fd7\u9053\u8def\uff08\u5e16\u5730\u533a\u5916\uff09\u5730\u8cea\u8abf\u67fb\u696d\u52d9","client_name":"\u56fd\u571f\u4ea4\u901a\u7701\u3000\u4e5d\u5dde\u5730\u65b9\u6574\u5099\u5c40\u3000\u5927\u9685\u6cb3\u5ddd","boring_xml_url":72,"boring_view_url":1,"soilmap_view_url":null,"soiltest_xml_url":0,"soiltest_view_url":0},{"id":531506,"code":"B4KJ202201003-4042","latitude":"31.488516","longitude":"131.110052","source_code":"QS20168971630200080011","project_name":"","survey_name":"\u5e73\u621028\u5e74\u5ea6\u65e5\u5357\u30fb\u5fd7\u5e03\u5fd7\u9053\u8def\uff08\u5e16\u5730\u533a\u5916\uff09\u5730\u8cea\u8abf\u67fb\u696d\u52d9","client_name":"\u56fd\u571f\u4ea4\u901a\u7701\u3000\u4e5d\u5dde\u5730\u65b9\u6574\u5099\u5c40\u3000\u5927\u9685\u6cb3\u5ddd","boring_xml_url":72,"boring_view_url":1,"soilmap_view_url":null,"soiltest_xml_url":0,"soiltest_view_url":0},{"id":531505,"code":"B4KJ202201003-4041","latitude":"31.488239","longitude":"131.11027","source_code":"QS20168971630200080010","project_name":"","survey_name":"\u5e73\u621028\u5e74\u5ea6\u65e5\u5357\u30fb\u5fd7\u5e03\u5fd7\u9053\u8def\uff08\u5e16\u5730\u533a\u5916\uff09\u5730\u8cea\u8abf\u67fb\u696d\u52d9","client_name":"\u56fd\u571f\u4ea4\u901a\u7701\u3000\u4e5d\u5dde\u5730\u65b9\u6574\u5099\u5c40\u3000\u5927\u9685\u6cb3\u5ddd","boring_xml_url":72,"boring_view_url":1,"soilmap_view_url":null,"soiltest_xml_url":0,"soiltest_view_url":0},{"id":531504,"code":"B4KJ202201003-4040","latitude":"31.487375","longitude":"131.112799","source_code":"QS20168971630200080009","project_name":"","survey_name":"\u5e73\u621028\u5e74\u5ea6\u65e5\u5357\u30fb\u5fd7\u5e03\u5fd7\u9053\u8def\uff08\u5e16\u5730\u533a\u5916\uff09\u5730\u8cea\u8abf\u67fb\u696d\u52d9","client_name":"\u56fd\u571f\u4ea4\u901a\u7701\u3000\u4e5d\u5dde\u5730\u65b9\u6574\u5099\u5c40\u3000\u5927\u9685\u6cb3\u5ddd","boring_xml_url":72,"boring_view_url":1,"soilmap_view_url":null,"soiltest_xml_url":0,"soiltest_view_url":0},{"id":531503,"code":"B4KJ202201003-4039","latitude":"31.487039","longitude":"131.113412","source_code":"QS20168971630200080008","project_name":"","survey_name":"\u5e73\u621028\u5e74\u5ea6\u65e5\u5357\u30fb\u5fd7\u5e03\u5fd7\u9053\u8def\uff08\u5e16\u5730\u533a\u5916\uff09\u5730\u8cea\u8abf\u67fb\u696d\u52d9","client_name":"\u56fd\u571f\u4ea4\u901a\u7701\u3000\u4e5d\u5dde\u5730\u65b9\u6574\u5099\u5c40\u3000\u5927\u9685\u6cb3\u5ddd","boring_xml_url":72,"boring_view_url":1,"soilmap_view_url":null,"soiltest_xml_url":0,"soiltest_view_url":0},{"id":531502,"code":"B4KJ202201003-4038","latitude":"31.486749","longitude":"131.114308","source_code":"QS20168971630200080007","project_name":"","survey_name":"\u5e73\u621028\u5e74\u5ea6\u65e5\u5357\u30fb\u5fd7\u5e03\u5fd7\u9053\u8def\uff08\u5e16\u5730\u533a\u5916\uff09\u5730\u8cea\u8abf\u67fb\u696d\u52d9","client_name":"\u56fd\u571f\u4ea4\u901a\u7701\u3000\u4e5d\u5dde\u5730\u65b9\u6574\u5099\u5c40\u3000\u5927\u9685\u6cb3\u5ddd","boring_xml_url":72,"boring_view_url":1,"soilmap_view_url":null,"soiltest_xml_url":0,"soiltest_view_url":0},{"id":531501,"code":"B4KJ202201003-4037","latitude":"31.486489","longitude":"131.114975","source_code":"QS20168971630200080006","project_name":"","survey_name":"\u5e73\u621028\u5e74\u5ea6\u65e5\u5357\u30fb\u5fd7\u5e03\u5fd7\u9053\u8def\uff08\u5e16\u5730\u533a\u5916\uff09\u5730\u8cea\u8abf\u67fb\u696d\u52d9","client_name":"\u56fd\u571f\u4ea4\u901a\u7701\u3000\u4e5d\u5dde\u5730\u65b9\u6574\u5099\u5c40\u3000\u5927\u9685\u6cb3\u5ddd","boring_xml_url":72,"boring_view_url":1,"soilmap_view_url":null,"soiltest_xml_url":0,"soiltest_view_url":0},{"id":531500,"code":"B4KJ202201003-4036","latitude":"31.485819","longitude":"131.116699","source_code":"QS20168971630200080005","project_name":"","survey_name":"\u5e73\u621028\u5e74\u5ea6\u65e5\u5357\u30fb\u5fd7\u5e03\u5fd7\u9053\u8def\uff08\u5e16\u5730\u533a\u5916\uff09\u5730\u8cea\u8abf\u67fb\u696d\u52d9","client_name":"\u56fd\u571f\u4ea4\u901a\u7701\u3000\u4e5d\u5dde\u5730\u65b9\u6574\u5099\u5c40\u3000\u5927\u9685\u6cb3\u5ddd","boring_xml_url":72,"boring_view_url":1,"soilmap_view_url":null,"soiltest_xml_url":0,"soiltest_view_url":0},{"id":531499,"code":"B4KJ202201003-4035","latitude":"31.485543","longitude":"131.117225","source_code":"QS20168971630200080004","project_name":"","survey_name":"\u5e73\u621028\u5e74\u5ea6\u65e5\u5357\u30fb\u5fd7\u5e03\u5fd7\u9053\u8def\uff08\u5e16\u5730\u533a\u5916\uff09\u5730\u8cea\u8abf\u67fb\u696d\u52d9","client_name":"\u56fd\u571f\u4ea4\u901a\u7701\u3000\u4e5d\u5dde\u5730\u65b9\u6574\u5099\u5c40\u3000\u5927\u9685\u6cb3\u5ddd","boring_xml_url":72,"boring_view_url":1,"soilmap_view_url":null,"soiltest_xml_url":0,"soiltest_view_url":0}]}}