{"header":{"xyz":{"source":[],"mosaic":false},"page":4637,"raw":{"soiltest_result":"0","bbox":"57.598333,109.544722,1.933333,163.806111","page":"4637"},"conditions":{"soiltest_result":0,"north":57.598333,"west":109.544722,"south":1.933333,"east":163.806111},"success":true,"message":""},"data":{"meta":{"total":212844,"page":4637,"pages":7095,"count":30},"values":[{"id":181465,"code":"B4KJ201801006-9714","latitude":"35.2717814","longitude":"135.3416739","source_code":"KK52357227012","project_name":"","survey_name":"\u4e39\u6ce2\u7dbe\u90e8\u9053\u8def\u548c\u77e5\u5730\u533a\u5730\u8cea\u8abf\u67fb\u305d\u306e\u4ed6\u696d\u52d9","client_name":"\u56fd\u571f\u4ea4\u901a\u7701\u8fd1\u757f\u5730\u65b9\u6574\u5099\u5c40\u798f\u77e5\u5c71\u6cb3\u5ddd\u56fd\u9053\u4e8b\u52d9\u6240","boring_xml_url":40,"boring_view_url":1,"soilmap_view_url":null,"soiltest_xml_url":0,"soiltest_view_url":0},{"id":181464,"code":"B4KJ201801006-9713","latitude":"35.2706983","longitude":"135.3424794","source_code":"KK52357227011","project_name":"","survey_name":"\u4e39\u6ce2\u7dbe\u90e8\u9053\u8def\u548c\u77e5\u5730\u533a\u5730\u8cea\u8abf\u67fb\u305d\u306e\u4ed6\u696d\u52d9","client_name":"\u56fd\u571f\u4ea4\u901a\u7701\u8fd1\u757f\u5730\u65b9\u6574\u5099\u5c40\u798f\u77e5\u5c71\u6cb3\u5ddd\u56fd\u9053\u4e8b\u52d9\u6240","boring_xml_url":40,"boring_view_url":1,"soilmap_view_url":null,"soiltest_xml_url":0,"soiltest_view_url":0},{"id":181463,"code":"B4KJ201801006-9712","latitude":"35.2779194","longitude":"135.3377294","source_code":"KK52357227006","project_name":"","survey_name":"\u4e39\u6ce2\u7dbe\u90e8\u9053\u8def\u7531\u826f\u5ddd\u6a4b\u5730\u8cea\u8abf\u67fb\u696d\u52d9","client_name":"\u56fd\u571f\u4ea4\u901a\u7701\u8fd1\u757f\u5730\u65b9\u6574\u5099\u5c40\u798f\u77e5\u5c71\u6cb3\u5ddd\u56fd\u9053\u4e8b\u52d9\u6240","boring_xml_url":40,"boring_view_url":1,"soilmap_view_url":null,"soiltest_xml_url":0,"soiltest_view_url":0},{"id":181462,"code":"B4KJ201801006-9711","latitude":"35.2763642","longitude":"135.338285","source_code":"KK52357227005","project_name":"","survey_name":"\u4e39\u6ce2\u7dbe\u90e8\u9053\u8def\u7531\u826f\u5ddd\u6a4b\u5730\u8cea\u8abf\u67fb\u696d\u52d9","client_name":"\u56fd\u571f\u4ea4\u901a\u7701\u8fd1\u757f\u5730\u65b9\u6574\u5099\u5c40\u798f\u77e5\u5c71\u6cb3\u5ddd\u56fd\u9053\u4e8b\u52d9\u6240","boring_xml_url":40,"boring_view_url":1,"soilmap_view_url":null,"soiltest_xml_url":0,"soiltest_view_url":0},{"id":181461,"code":"B4KJ201801006-9710","latitude":"35.2742256","longitude":"135.339285","source_code":"KK52357227004","project_name":"","survey_name":"\u4e39\u6ce2\u7dbe\u90e8\u9053\u8def\u7531\u826f\u5ddd\u6a4b\u5730\u8cea\u8abf\u67fb\u696d\u52d9","client_name":"\u56fd\u571f\u4ea4\u901a\u7701\u8fd1\u757f\u5730\u65b9\u6574\u5099\u5c40\u798f\u77e5\u5c71\u6cb3\u5ddd\u56fd\u9053\u4e8b\u52d9\u6240","boring_xml_url":40,"boring_view_url":1,"soilmap_view_url":null,"soiltest_xml_url":0,"soiltest_view_url":0},{"id":181460,"code":"B4KJ201801006-9709","latitude":"35.2723925","longitude":"135.3402017","source_code":"KK52357227003","project_name":"","survey_name":"\u4e39\u6ce2\u7dbe\u90e8\u9053\u8def\u7531\u826f\u5ddd\u6a4b\u5730\u8cea\u8abf\u67fb\u696d\u52d9","client_name":"\u56fd\u571f\u4ea4\u901a\u7701\u8fd1\u757f\u5730\u65b9\u6574\u5099\u5c40\u798f\u77e5\u5c71\u6cb3\u5ddd\u56fd\u9053\u4e8b\u52d9\u6240","boring_xml_url":40,"boring_view_url":1,"soilmap_view_url":null,"soiltest_xml_url":0,"soiltest_view_url":0},{"id":181459,"code":"B4KJ201801006-9708","latitude":"35.2777806","longitude":"135.3371186","source_code":"KK52357227002","project_name":"","survey_name":"\u4e59\u5473\u5ddd\u6a4b\u59163\u6a4b\u5730\u8cea\u8abf\u67fb\u4f5c\u696d","client_name":"\u56fd\u571f\u4ea4\u901a\u7701\u8fd1\u757f\u5730\u65b9\u6574\u5099\u5c40\u798f\u77e5\u5c71\u6cb3\u5ddd\u56fd\u9053\u4e8b\u52d9\u6240","boring_xml_url":40,"boring_view_url":1,"soilmap_view_url":null,"soiltest_xml_url":0,"soiltest_view_url":0},{"id":181458,"code":"B4KJ201801006-9707","latitude":"35.277975","longitude":"135.3368131","source_code":"KK52357227001","project_name":"","survey_name":"\u4e59\u5473\u5ddd\u6a4b\u59163\u6a4b\u5730\u8cea\u8abf\u67fb\u4f5c\u696d","client_name":"\u56fd\u571f\u4ea4\u901a\u7701\u8fd1\u757f\u5730\u65b9\u6574\u5099\u5c40\u798f\u77e5\u5c71\u6cb3\u5ddd\u56fd\u9053\u4e8b\u52d9\u6240","boring_xml_url":40,"boring_view_url":1,"soilmap_view_url":null,"soiltest_xml_url":0,"soiltest_view_url":0},{"id":181457,"code":"B4KJ201801006-9706","latitude":"35.2694211","longitude":"135.3652553","source_code":"KK52357219012","project_name":"","survey_name":"\u5869\u51fa\u8de8\u7dda\u6a4b\u5730\u8cea\u8abf\u67fb\u4f5c\u696d","client_name":"\u56fd\u571f\u4ea4\u901a\u7701\u8fd1\u757f\u5730\u65b9\u6574\u5099\u5c40\u798f\u77e5\u5c71\u6cb3\u5ddd\u56fd\u9053\u4e8b\u52d9\u6240","boring_xml_url":40,"boring_view_url":1,"soilmap_view_url":null,"soiltest_xml_url":0,"soiltest_view_url":0},{"id":181456,"code":"B4KJ201801006-9705","latitude":"35.2693933","longitude":"135.3652831","source_code":"KK52357219011","project_name":"","survey_name":"\u5869\u51fa\u8de8\u7dda\u6a4b\u5730\u8cea\u8abf\u67fb\u4f5c\u696d","client_name":"\u56fd\u571f\u4ea4\u901a\u7701\u8fd1\u757f\u5730\u65b9\u6574\u5099\u5c40\u798f\u77e5\u5c71\u6cb3\u5ddd\u56fd\u9053\u4e8b\u52d9\u6240","boring_xml_url":40,"boring_view_url":1,"soilmap_view_url":null,"soiltest_xml_url":0,"soiltest_view_url":0},{"id":181455,"code":"B4KJ201801006-9704","latitude":"35.2676158","longitude":"135.3711158","source_code":"KK52357219010","project_name":"","survey_name":"\u67f3\u539f\u6a4b\u571f\u5730\u8abf\u67fb\u4f5c\u696d","client_name":"\u56fd\u571f\u4ea4\u901a\u7701\u8fd1\u757f\u5730\u65b9\u6574\u5099\u5c40\u798f\u77e5\u5c71\u6cb3\u5ddd\u56fd\u9053\u4e8b\u52d9\u6240","boring_xml_url":40,"boring_view_url":1,"soilmap_view_url":null,"soiltest_xml_url":0,"soiltest_view_url":0},{"id":181454,"code":"B4KJ201801006-9703","latitude":"35.2677269","longitude":"135.3713936","source_code":"KK52357219009","project_name":"","survey_name":"\u67f3\u539f\u6a4b\u571f\u5730\u8abf\u67fb\u4f5c\u696d","client_name":"\u56fd\u571f\u4ea4\u901a\u7701\u8fd1\u757f\u5730\u65b9\u6574\u5099\u5c40\u798f\u77e5\u5c71\u6cb3\u5ddd\u56fd\u9053\u4e8b\u52d9\u6240","boring_xml_url":40,"boring_view_url":1,"soilmap_view_url":null,"soiltest_xml_url":0,"soiltest_view_url":0},{"id":181453,"code":"B4KJ201801006-9702","latitude":"35.2678936","longitude":"135.3718936","source_code":"KK52357219008","project_name":"","survey_name":"\u67f3\u539f\u6a4b\u571f\u8cea\u8abf\u67fb\u4f5c\u696d","client_name":"\u56fd\u571f\u4ea4\u901a\u7701\u8fd1\u757f\u5730\u65b9\u6574\u5099\u5c40\u798f\u77e5\u5c71\u6cb3\u5ddd\u56fd\u9053\u4e8b\u52d9\u6240","boring_xml_url":40,"boring_view_url":1,"soilmap_view_url":null,"soiltest_xml_url":0,"soiltest_view_url":0},{"id":181452,"code":"B4KJ201801006-9701","latitude":"35.2678381","longitude":"135.3717547","source_code":"KK52357219007","project_name":"","survey_name":"\u67f3\u539f\u6a4b\u571f\u8cea\u8abf\u67fb\u4f5c\u696d","client_name":"\u56fd\u571f\u4ea4\u901a\u7701\u8fd1\u757f\u5730\u65b9\u6574\u5099\u5c40\u798f\u77e5\u5c71\u6cb3\u5ddd\u56fd\u9053\u4e8b\u52d9\u6240","boring_xml_url":40,"boring_view_url":1,"soilmap_view_url":null,"soiltest_xml_url":0,"soiltest_view_url":0},{"id":181451,"code":"B4KJ201801006-9700","latitude":"35.2677269","longitude":"135.366755","source_code":"KK52357219006","project_name":"","survey_name":"27\u53f7\u51fa\u91ce\u30fb\u7a32\u6b21\u5730\u533a\u571f\u8cea\u8abf\u67fb\u4f5c\u696d","client_name":"\u56fd\u571f\u4ea4\u901a\u7701\u8fd1\u757f\u5730\u65b9\u6574\u5099\u5c40\u798f\u77e5\u5c71\u6cb3\u5ddd\u56fd\u9053\u4e8b\u52d9\u6240","boring_xml_url":40,"boring_view_url":1,"soilmap_view_url":null,"soiltest_xml_url":0,"soiltest_view_url":0},{"id":181450,"code":"B4KJ201801006-9699","latitude":"35.2680047","longitude":"135.3661719","source_code":"KK52357219005","project_name":"","survey_name":"27\u53f7\u51fa\u91ce\u30fb\u7a32\u6b21\u5730\u533a\u571f\u8cea\u8abf\u67fb\u4f5c\u696d","client_name":"\u56fd\u571f\u4ea4\u901a\u7701\u8fd1\u757f\u5730\u65b9\u6574\u5099\u5c40\u798f\u77e5\u5c71\u6cb3\u5ddd\u56fd\u9053\u4e8b\u52d9\u6240","boring_xml_url":40,"boring_view_url":1,"soilmap_view_url":null,"soiltest_xml_url":0,"soiltest_view_url":0},{"id":181449,"code":"B4KJ201801006-9698","latitude":"35.2689211","longitude":"135.3651442","source_code":"KK52357219004","project_name":"","survey_name":"27\u53f7\u51fa\u91ce\u30fb\u7a32\u6b21\u5730\u533a\u571f\u8cea\u8abf\u67fb\u4f5c\u696d","client_name":"\u56fd\u571f\u4ea4\u901a\u7701\u8fd1\u757f\u5730\u65b9\u6574\u5099\u5c40\u798f\u77e5\u5c71\u6cb3\u5ddd\u56fd\u9053\u4e8b\u52d9\u6240","boring_xml_url":40,"boring_view_url":1,"soilmap_view_url":null,"soiltest_xml_url":0,"soiltest_view_url":0},{"id":181448,"code":"B4KJ201801006-9697","latitude":"35.2691989","longitude":"135.3637553","source_code":"KK52357219003","project_name":"","survey_name":"27\u53f7\u51fa\u91ce\u30fb\u7a32\u6b21\u5730\u533a\u571f\u8cea\u8abf\u67fb\u4f5c\u696d","client_name":"\u56fd\u571f\u4ea4\u901a\u7701\u8fd1\u757f\u5730\u65b9\u6574\u5099\u5c40\u798f\u77e5\u5c71\u6cb3\u5ddd\u56fd\u9053\u4e8b\u52d9\u6240","boring_xml_url":40,"boring_view_url":1,"soilmap_view_url":null,"soiltest_xml_url":0,"soiltest_view_url":0},{"id":181447,"code":"B4KJ201801006-9696","latitude":"35.2680325","longitude":"135.3718658","source_code":"KK52357219002","project_name":"","survey_name":"27\u53f7\u548c\u77e5\u5730\u533a\u571f\u8cea\u8abf\u67fb\u4f5c\u696d","client_name":"\u56fd\u571f\u4ea4\u901a\u7701\u8fd1\u757f\u5730\u65b9\u6574\u5099\u5c40\u798f\u77e5\u5c71\u6cb3\u5ddd\u56fd\u9053\u4e8b\u52d9\u6240","boring_xml_url":40,"boring_view_url":1,"soilmap_view_url":null,"soiltest_xml_url":0,"soiltest_view_url":0},{"id":181446,"code":"B4KJ201801006-9695","latitude":"35.2678103","longitude":"135.3713103","source_code":"KK52357219001","project_name":"","survey_name":"27\u53f7\u548c\u77e5\u5730\u533a\u571f\u8cea\u8abf\u67fb\u4f5c\u696d","client_name":"\u56fd\u571f\u4ea4\u901a\u7701\u8fd1\u757f\u5730\u65b9\u6574\u5099\u5c40\u798f\u77e5\u5c71\u6cb3\u5ddd\u56fd\u9053\u4e8b\u52d9\u6240","boring_xml_url":40,"boring_view_url":1,"soilmap_view_url":null,"soiltest_xml_url":0,"soiltest_view_url":0},{"id":181445,"code":"B4KJ201801006-9694","latitude":"35.2610606","longitude":"135.3446739","source_code":"KK52357207018","project_name":"","survey_name":"\u4e39\u6ce2\u7dbe\u90e8\u9053\u8def\u548c\u77e5\u5730\u533a\u5730\u8cea\u8abf\u67fb\u305d\u306e\u4ed6\u696d\u52d9","client_name":"\u56fd\u571f\u4ea4\u901a\u7701\u8fd1\u757f\u5730\u65b9\u6574\u5099\u5c40\u798f\u77e5\u5c71\u6cb3\u5ddd\u56fd\u9053\u4e8b\u52d9\u6240","boring_xml_url":40,"boring_view_url":1,"soilmap_view_url":null,"soiltest_xml_url":0,"soiltest_view_url":0},{"id":181444,"code":"B4KJ201801006-9693","latitude":"35.2589219","longitude":"135.3433408","source_code":"KK52357207017","project_name":"","survey_name":"\u4e39\u6ce2\u7dbe\u90e8\u9053\u8def\u548c\u77e5\u5730\u533a\u5730\u8cea\u8abf\u67fb\u305d\u306e\u4ed6\u696d\u52d9","client_name":"\u56fd\u571f\u4ea4\u901a\u7701\u8fd1\u757f\u5730\u65b9\u6574\u5099\u5c40\u798f\u77e5\u5c71\u6cb3\u5ddd\u56fd\u9053\u4e8b\u52d9\u6240","boring_xml_url":40,"boring_view_url":1,"soilmap_view_url":null,"soiltest_xml_url":0,"soiltest_view_url":0},{"id":181443,"code":"B4KJ201801006-9692","latitude":"35.2570331","longitude":"135.3427019","source_code":"KK52357207016","project_name":"","survey_name":"\u4e39\u6ce2\u7dbe\u90e8\u9053\u8def\u548c\u77e5\u5730\u533a\u5730\u8cea\u8abf\u67fb\u305d\u306e\u4ed6\u696d\u52d9","client_name":"\u56fd\u571f\u4ea4\u901a\u7701\u8fd1\u757f\u5730\u65b9\u6574\u5099\u5c40\u798f\u77e5\u5c71\u6cb3\u5ddd\u56fd\u9053\u4e8b\u52d9\u6240","boring_xml_url":40,"boring_view_url":1,"soilmap_view_url":null,"soiltest_xml_url":0,"soiltest_view_url":0},{"id":181442,"code":"B4KJ201801006-9691","latitude":"35.2570331","longitude":"135.3421189","source_code":"KK52357207015","project_name":"","survey_name":"\u4e39\u6ce2\u7dbe\u90e8\u9053\u8def\u548c\u77e5\u5730\u533a\u5730\u8cea\u8abf\u67fb\u305d\u306e\u4ed6\u696d\u52d9","client_name":"\u56fd\u571f\u4ea4\u901a\u7701\u8fd1\u757f\u5730\u65b9\u6574\u5099\u5c40\u798f\u77e5\u5c71\u6cb3\u5ddd\u56fd\u9053\u4e8b\u52d9\u6240","boring_xml_url":40,"boring_view_url":1,"soilmap_view_url":null,"soiltest_xml_url":0,"soiltest_view_url":0},{"id":181441,"code":"B4KJ201801006-9690","latitude":"35.2538667","longitude":"135.3417856","source_code":"KK52357207006","project_name":"","survey_name":"\u4e39\u6ce2\u7dbe\u90e8\u9053\u8def\u745e\u7a42\u30c8\u30f3\u30cd\u30eb\u5730\u8cea\u8abf\u67fb\u4f5c\u696d","client_name":"\u56fd\u571f\u4ea4\u901a\u7701\u8fd1\u757f\u5730\u65b9\u6574\u5099\u5c40\u798f\u77e5\u5c71\u6cb3\u5ddd\u56fd\u9053\u4e8b\u52d9\u6240","boring_xml_url":40,"boring_view_url":1,"soilmap_view_url":null,"soiltest_xml_url":0,"soiltest_view_url":0},{"id":181440,"code":"B4KJ201801006-9689","latitude":"35.2537281","longitude":"135.3417856","source_code":"KK52357207005","project_name":"","survey_name":"\u4e39\u6ce2\u7dbe\u90e8\u9053\u8def\u745e\u7a42\u30c8\u30f3\u30cd\u30eb\u5730\u8cea\u8abf\u67fb\u4f5c\u696d","client_name":"\u56fd\u571f\u4ea4\u901a\u7701\u8fd1\u757f\u5730\u65b9\u6574\u5099\u5c40\u798f\u77e5\u5c71\u6cb3\u5ddd\u56fd\u9053\u4e8b\u52d9\u6240","boring_xml_url":40,"boring_view_url":1,"soilmap_view_url":null,"soiltest_xml_url":0,"soiltest_view_url":0},{"id":181439,"code":"B4KJ201801006-9688","latitude":"35.2537278","longitude":"135.3415633","source_code":"KK52357207004","project_name":"","survey_name":"\u4e39\u6ce2\u7dbe\u90e8\u9053\u8def\u745e\u7a42\u30c8\u30f3\u30cd\u30eb\u5730\u8cea\u8abf\u67fb\u4f5c\u696d","client_name":"\u56fd\u571f\u4ea4\u901a\u7701\u8fd1\u757f\u5730\u65b9\u6574\u5099\u5c40\u798f\u77e5\u5c71\u6cb3\u5ddd\u56fd\u9053\u4e8b\u52d9\u6240","boring_xml_url":40,"boring_view_url":1,"soilmap_view_url":null,"soiltest_xml_url":0,"soiltest_view_url":0},{"id":181438,"code":"B4KJ201801006-9687","latitude":"35.31308","longitude":"135.2464308","source_code":"KK52357179009","project_name":"","survey_name":"\u4f4d\u7530\u7b2c\u4e8c\u6a0b\u9580\u4ed6\u4e00\u4ef6\u5730\u8cea\u8abf\u67fb\u4f5c\u696d","client_name":"\u56fd\u571f\u4ea4\u901a\u7701\u8fd1\u757f\u5730\u65b9\u6574\u5099\u5c40\u798f\u77e5\u5c71\u6cb3\u5ddd\u56fd\u9053\u4e8b\u52d9\u6240","boring_xml_url":40,"boring_view_url":1,"soilmap_view_url":null,"soiltest_xml_url":0,"soiltest_view_url":0},{"id":181437,"code":"B4KJ201801006-9686","latitude":"35.3128578","longitude":"135.2461531","source_code":"KK52357179007","project_name":"","survey_name":"\u662d\u548c58\u5e74\u5ea6\u7531\u826f\u5ddd\u5730\u8cea\u8abf\u67fb\u4f5c\u696d","client_name":"\u56fd\u571f\u4ea4\u901a\u7701\u8fd1\u757f\u5730\u65b9\u6574\u5099\u5c40\u798f\u77e5\u5c71\u6cb3\u5ddd\u56fd\u9053\u4e8b\u52d9\u6240","boring_xml_url":40,"boring_view_url":1,"soilmap_view_url":null,"soiltest_xml_url":0,"soiltest_view_url":0},{"id":181436,"code":"B4KJ201801006-9685","latitude":"35.3126356","longitude":"135.2442922","source_code":"KK52357179006","project_name":"","survey_name":"\u662d\u548c58\u5e74\u5ea6\u7531\u826f\u5ddd\u5730\u8cea\u8abf\u67fb\u4f5c\u696d","client_name":"\u56fd\u571f\u4ea4\u901a\u7701\u8fd1\u757f\u5730\u65b9\u6574\u5099\u5c40\u798f\u77e5\u5c71\u6cb3\u5ddd\u56fd\u9053\u4e8b\u52d9\u6240","boring_xml_url":40,"boring_view_url":1,"soilmap_view_url":null,"soiltest_xml_url":0,"soiltest_view_url":0}]}}