{"header":{"xyz":{"source":[],"mosaic":false},"page":4655,"raw":{"soiltest_result":"0","bbox":"57.598333,109.544722,1.933333,163.806111","page":"4655"},"conditions":{"soiltest_result":0,"north":57.598333,"west":109.544722,"south":1.933333,"east":163.806111},"success":true,"message":""},"data":{"meta":{"total":212844,"page":4655,"pages":7095,"count":30},"values":[{"id":180925,"code":"B4KJ201801006-9174","latitude":"35.1487419","longitude":"135.4263372","source_code":"KK52355374009","project_name":"","survey_name":"\u4e39\u6ce2\u7dbe\u90e8\u9053\u8def\u9808\u77e5\u30c8\u30f3\u30cd\u30eb\u5730\u8cea\u8abf\u67fb\u4f5c\u696d","client_name":"\u56fd\u571f\u4ea4\u901a\u7701\u8fd1\u757f\u5730\u65b9\u6574\u5099\u5c40\u798f\u77e5\u5c71\u6cb3\u5ddd\u56fd\u9053\u4e8b\u52d9\u6240","boring_xml_url":40,"boring_view_url":1,"soilmap_view_url":null,"soiltest_xml_url":0,"soiltest_view_url":0},{"id":180924,"code":"B4KJ201801006-9173","latitude":"35.1512414","longitude":"135.4216153","source_code":"KK52355373008","project_name":"","survey_name":"\u4e39\u6ce2\u7dbe\u90e8\u9053\u8def\u9808\u77e5\u30c8\u30f3\u30cd\u30eb\u5730\u8cea\u8abf\u67fb\u4f5c\u696d","client_name":"\u56fd\u571f\u4ea4\u901a\u7701\u8fd1\u757f\u5730\u65b9\u6574\u5099\u5c40\u798f\u77e5\u5c71\u6cb3\u5ddd\u56fd\u9053\u4e8b\u52d9\u6240","boring_xml_url":40,"boring_view_url":1,"soilmap_view_url":null,"soiltest_xml_url":0,"soiltest_view_url":0},{"id":180923,"code":"B4KJ201801006-9172","latitude":"35.1512414","longitude":"135.4216153","source_code":"KK52355373007","project_name":"","survey_name":"\u4e39\u6ce2\u7dbe\u90e8\u9053\u8def\u9808\u77e5\u30c8\u30f3\u30cd\u30eb\u5730\u8cea\u8abf\u67fb\u4f5c\u696d","client_name":"\u56fd\u571f\u4ea4\u901a\u7701\u8fd1\u757f\u5730\u65b9\u6574\u5099\u5c40\u798f\u77e5\u5c71\u6cb3\u5ddd\u56fd\u9053\u4e8b\u52d9\u6240","boring_xml_url":40,"boring_view_url":1,"soilmap_view_url":null,"soiltest_xml_url":0,"soiltest_view_url":0},{"id":180922,"code":"B4KJ201801006-9171","latitude":"35.1512414","longitude":"135.4216153","source_code":"KK52355373006","project_name":"","survey_name":"\u4e39\u6ce2\u7dbe\u90e8\u9053\u8def\u9808\u77e5\u30c8\u30f3\u30cd\u30eb\u5730\u8cea\u8abf\u67fb\u4f5c\u696d","client_name":"\u56fd\u571f\u4ea4\u901a\u7701\u8fd1\u757f\u5730\u65b9\u6574\u5099\u5c40\u798f\u77e5\u5c71\u6cb3\u5ddd\u56fd\u9053\u4e8b\u52d9\u6240","boring_xml_url":40,"boring_view_url":1,"soilmap_view_url":null,"soiltest_xml_url":0,"soiltest_view_url":0},{"id":180921,"code":"B4KJ201801006-9170","latitude":"35.1512414","longitude":"135.4216153","source_code":"KK52355373005","project_name":"","survey_name":"\u4e39\u6ce2\u7dbe\u90e8\u9053\u8def\u9808\u77e5\u30c8\u30f3\u30cd\u30eb\u5730\u8cea\u8abf\u67fb\u4f5c\u696d","client_name":"\u56fd\u571f\u4ea4\u901a\u7701\u8fd1\u757f\u5730\u65b9\u6574\u5099\u5c40\u798f\u77e5\u5c71\u6cb3\u5ddd\u56fd\u9053\u4e8b\u52d9\u6240","boring_xml_url":40,"boring_view_url":1,"soilmap_view_url":null,"soiltest_xml_url":0,"soiltest_view_url":0},{"id":180920,"code":"B4KJ201801006-9169","latitude":"35.1371606","longitude":"135.4508911","source_code":"KK52355366002","project_name":"","survey_name":"9\u53f7\u89b3\u97f3\u5730\u533a\u5730\u8cea\u8abf\u67fb\u305d\u306e1\u4f5c\u696d","client_name":"\u56fd\u571f\u4ea4\u901a\u7701\u8fd1\u757f\u5730\u65b9\u6574\u5099\u5c40\u4eac\u90fd\u56fd\u9053\u4e8b\u52d9\u6240","boring_xml_url":40,"boring_view_url":1,"soilmap_view_url":null,"soiltest_xml_url":0,"soiltest_view_url":0},{"id":180919,"code":"B4KJ201801006-9168","latitude":"35.1382158","longitude":"135.4490022","source_code":"KK52355366001","project_name":"","survey_name":"9\u53f7\u89b3\u97f3\u5730\u533a\u5730\u8cea\u8abf\u67fb\u305d\u306e1\u4f5c\u696d","client_name":"\u56fd\u571f\u4ea4\u901a\u7701\u8fd1\u757f\u5730\u65b9\u6574\u5099\u5c40\u4eac\u90fd\u56fd\u9053\u4e8b\u52d9\u6240","boring_xml_url":40,"boring_view_url":1,"soilmap_view_url":null,"soiltest_xml_url":0,"soiltest_view_url":0},{"id":180918,"code":"B4KJ201801006-9167","latitude":"35.1401322","longitude":"135.4466414","source_code":"KK52355365001","project_name":"","survey_name":"9\u53f7\u89b3\u97f3\u5730\u533a\u5730\u8cea\u8abf\u67fb\u305d\u306e1\u4f5c\u696d","client_name":"\u56fd\u571f\u4ea4\u901a\u7701\u8fd1\u757f\u5730\u65b9\u6574\u5099\u5c40\u4eac\u90fd\u56fd\u9053\u4e8b\u52d9\u6240","boring_xml_url":40,"boring_view_url":1,"soilmap_view_url":null,"soiltest_xml_url":0,"soiltest_view_url":0},{"id":180917,"code":"B4KJ201801006-9166","latitude":"35.1356892","longitude":"135.4768889","source_code":"KK52355358020","project_name":"","survey_name":"9\u53f7\u5712\u90e8\u9053\u8def\u718a\u5d0e\u5730\u533a\u5730\u8cea\u8abf\u67fb\u4f5c\u696d","client_name":"\u56fd\u571f\u4ea4\u901a\u7701\u8fd1\u757f\u5730\u65b9\u6574\u5099\u5c40\u4eac\u90fd\u56fd\u9053\u4e8b\u52d9\u6240","boring_xml_url":40,"boring_view_url":1,"soilmap_view_url":null,"soiltest_xml_url":0,"soiltest_view_url":0},{"id":180916,"code":"B4KJ201801006-9165","latitude":"35.1354114","longitude":"135.4771667","source_code":"KK52355358019","project_name":"","survey_name":"9\u53f7\u5712\u90e8\u9053\u8def\u718a\u5d0e\u5730\u533a\u5730\u8cea\u8abf\u67fb\u4f5c\u696d","client_name":"\u56fd\u571f\u4ea4\u901a\u7701\u8fd1\u757f\u5730\u65b9\u6574\u5099\u5c40\u4eac\u90fd\u56fd\u9053\u4e8b\u52d9\u6240","boring_xml_url":40,"boring_view_url":1,"soilmap_view_url":null,"soiltest_xml_url":0,"soiltest_view_url":0},{"id":180915,"code":"B4KJ201801006-9164","latitude":"35.1351336","longitude":"135.4771667","source_code":"KK52355358018","project_name":"","survey_name":"9\u53f7\u5712\u90e8\u9053\u8def\u718a\u5d0e\u5730\u533a\u5730\u8cea\u8abf\u67fb\u4f5c\u696d","client_name":"\u56fd\u571f\u4ea4\u901a\u7701\u8fd1\u757f\u5730\u65b9\u6574\u5099\u5c40\u4eac\u90fd\u56fd\u9053\u4e8b\u52d9\u6240","boring_xml_url":40,"boring_view_url":1,"soilmap_view_url":null,"soiltest_xml_url":0,"soiltest_view_url":0},{"id":180914,"code":"B4KJ201801006-9163","latitude":"35.1351336","longitude":"135.4771667","source_code":"KK52355358017","project_name":"","survey_name":"9\u53f7\u5712\u90e8\u9053\u8def\u718a\u5d0e\u5730\u533a\u5730\u8cea\u8abf\u67fb\u4f5c\u696d","client_name":"\u56fd\u571f\u4ea4\u901a\u7701\u8fd1\u757f\u5730\u65b9\u6574\u5099\u5c40\u4eac\u90fd\u56fd\u9053\u4e8b\u52d9\u6240","boring_xml_url":40,"boring_view_url":1,"soilmap_view_url":null,"soiltest_xml_url":0,"soiltest_view_url":0},{"id":180913,"code":"B4KJ201801006-9162","latitude":"35.1334672","longitude":"135.4777222","source_code":"KK52355358016","project_name":"","survey_name":"9\u53f7\u5712\u90e8\u9053\u8def\u718a\u5d0e\u5730\u533a\u5730\u8cea\u8abf\u67fb\u4f5c\u696d","client_name":"\u56fd\u571f\u4ea4\u901a\u7701\u8fd1\u757f\u5730\u65b9\u6574\u5099\u5c40\u4eac\u90fd\u56fd\u9053\u4e8b\u52d9\u6240","boring_xml_url":40,"boring_view_url":1,"soilmap_view_url":null,"soiltest_xml_url":0,"soiltest_view_url":0},{"id":180912,"code":"B4KJ201801006-9161","latitude":"35.1331894","longitude":"135.478","source_code":"KK52355358015","project_name":"","survey_name":"9\u53f7\u5712\u90e8\u9053\u8def\u718a\u5d0e\u5730\u533a\u5730\u8cea\u8abf\u67fb\u4f5c\u696d","client_name":"\u56fd\u571f\u4ea4\u901a\u7701\u8fd1\u757f\u5730\u65b9\u6574\u5099\u5c40\u4eac\u90fd\u56fd\u9053\u4e8b\u52d9\u6240","boring_xml_url":40,"boring_view_url":1,"soilmap_view_url":null,"soiltest_xml_url":0,"soiltest_view_url":0},{"id":180911,"code":"B4KJ201801006-9160","latitude":"35.1331894","longitude":"135.4777222","source_code":"KK52355358014","project_name":"","survey_name":"9\u53f7\u5712\u90e8\u9053\u8def\u718a\u5d0e\u5730\u533a\u5730\u8cea\u8abf\u67fb\u4f5c\u696d","client_name":"\u56fd\u571f\u4ea4\u901a\u7701\u8fd1\u757f\u5730\u65b9\u6574\u5099\u5c40\u4eac\u90fd\u56fd\u9053\u4e8b\u52d9\u6240","boring_xml_url":40,"boring_view_url":1,"soilmap_view_url":null,"soiltest_xml_url":0,"soiltest_view_url":0},{"id":180910,"code":"B4KJ201801006-9159","latitude":"35.1329117","longitude":"135.478","source_code":"KK52355358013","project_name":"","survey_name":"9\u53f7\u5712\u90e8\u9053\u8def\u718a\u5d0e\u5730\u533a\u5730\u8cea\u8abf\u67fb\u4f5c\u696d","client_name":"\u56fd\u571f\u4ea4\u901a\u7701\u8fd1\u757f\u5730\u65b9\u6574\u5099\u5c40\u4eac\u90fd\u56fd\u9053\u4e8b\u52d9\u6240","boring_xml_url":40,"boring_view_url":1,"soilmap_view_url":null,"soiltest_xml_url":0,"soiltest_view_url":0},{"id":180909,"code":"B4KJ201801006-9158","latitude":"35.1329117","longitude":"135.478","source_code":"KK52355358012","project_name":"","survey_name":"9\u53f7\u5712\u90e8\u9053\u8def\u718a\u5d0e\u5730\u533a\u5730\u8cea\u8abf\u67fb\u4f5c\u696d","client_name":"\u56fd\u571f\u4ea4\u901a\u7701\u8fd1\u757f\u5730\u65b9\u6574\u5099\u5c40\u4eac\u90fd\u56fd\u9053\u4e8b\u52d9\u6240","boring_xml_url":40,"boring_view_url":1,"soilmap_view_url":null,"soiltest_xml_url":0,"soiltest_view_url":0},{"id":180908,"code":"B4KJ201801006-9157","latitude":"35.1326339","longitude":"135.478","source_code":"KK52355358011","project_name":"","survey_name":"9\u53f7\u5712\u90e8\u9053\u8def\u718a\u5d0e\u5730\u533a\u5730\u8cea\u8abf\u67fb\u4f5c\u696d","client_name":"\u56fd\u571f\u4ea4\u901a\u7701\u8fd1\u757f\u5730\u65b9\u6574\u5099\u5c40\u4eac\u90fd\u56fd\u9053\u4e8b\u52d9\u6240","boring_xml_url":40,"boring_view_url":1,"soilmap_view_url":null,"soiltest_xml_url":0,"soiltest_view_url":0},{"id":180907,"code":"B4KJ201801006-9156","latitude":"35.1354114","longitude":"135.4771667","source_code":"KK52355358010","project_name":"","survey_name":"9\u53f7\u5712\u90e8\u9053\u8def\u718a\u5d0e\u5730\u533a\u5730\u8cea\u8abf\u67fb\u4f5c\u696d","client_name":"\u56fd\u571f\u4ea4\u901a\u7701\u8fd1\u757f\u5730\u65b9\u6574\u5099\u5c40\u4eac\u90fd\u56fd\u9053\u4e8b\u52d9\u6240","boring_xml_url":40,"boring_view_url":1,"soilmap_view_url":null,"soiltest_xml_url":0,"soiltest_view_url":0},{"id":180906,"code":"B4KJ201801006-9155","latitude":"35.1354114","longitude":"135.4768889","source_code":"KK52355358009","project_name":"","survey_name":"9\u53f7\u5712\u90e8\u9053\u8def\u718a\u5d0e\u5730\u533a\u5730\u8cea\u8abf\u67fb\u4f5c\u696d","client_name":"\u56fd\u571f\u4ea4\u901a\u7701\u8fd1\u757f\u5730\u65b9\u6574\u5099\u5c40\u4eac\u90fd\u56fd\u9053\u4e8b\u52d9\u6240","boring_xml_url":40,"boring_view_url":1,"soilmap_view_url":null,"soiltest_xml_url":0,"soiltest_view_url":0},{"id":180905,"code":"B4KJ201801006-9154","latitude":"35.1351336","longitude":"135.4771667","source_code":"KK52355358008","project_name":"","survey_name":"9\u53f7\u5712\u90e8\u9053\u8def\u718a\u5d0e\u5730\u533a\u5730\u8cea\u8abf\u67fb\u4f5c\u696d","client_name":"\u56fd\u571f\u4ea4\u901a\u7701\u8fd1\u757f\u5730\u65b9\u6574\u5099\u5c40\u4eac\u90fd\u56fd\u9053\u4e8b\u52d9\u6240","boring_xml_url":40,"boring_view_url":1,"soilmap_view_url":null,"soiltest_xml_url":0,"soiltest_view_url":0},{"id":180904,"code":"B4KJ201801006-9153","latitude":"35.1351336","longitude":"135.4771667","source_code":"KK52355358007","project_name":"","survey_name":"9\u53f7\u5712\u90e8\u9053\u8def\u718a\u5d0e\u5730\u533a\u5730\u8cea\u8abf\u67fb\u4f5c\u696d","client_name":"\u56fd\u571f\u4ea4\u901a\u7701\u8fd1\u757f\u5730\u65b9\u6574\u5099\u5c40\u4eac\u90fd\u56fd\u9053\u4e8b\u52d9\u6240","boring_xml_url":40,"boring_view_url":1,"soilmap_view_url":null,"soiltest_xml_url":0,"soiltest_view_url":0},{"id":180903,"code":"B4KJ201801006-9152","latitude":"35.1334672","longitude":"135.4777222","source_code":"KK52355358006","project_name":"","survey_name":"9\u53f7\u5712\u90e8\u9053\u8def\u718a\u5d0e\u5730\u533a\u5730\u8cea\u8abf\u67fb\u4f5c\u696d","client_name":"\u56fd\u571f\u4ea4\u901a\u7701\u8fd1\u757f\u5730\u65b9\u6574\u5099\u5c40\u4eac\u90fd\u56fd\u9053\u4e8b\u52d9\u6240","boring_xml_url":40,"boring_view_url":1,"soilmap_view_url":null,"soiltest_xml_url":0,"soiltest_view_url":0},{"id":180902,"code":"B4KJ201801006-9151","latitude":"35.1331894","longitude":"135.4777222","source_code":"KK52355358005","project_name":"","survey_name":"9\u53f7\u5712\u90e8\u9053\u8def\u718a\u5d0e\u5730\u533a\u5730\u8cea\u8abf\u67fb\u4f5c\u696d","client_name":"\u56fd\u571f\u4ea4\u901a\u7701\u8fd1\u757f\u5730\u65b9\u6574\u5099\u5c40\u4eac\u90fd\u56fd\u9053\u4e8b\u52d9\u6240","boring_xml_url":40,"boring_view_url":1,"soilmap_view_url":null,"soiltest_xml_url":0,"soiltest_view_url":0},{"id":180901,"code":"B4KJ201801006-9150","latitude":"35.1331894","longitude":"135.478","source_code":"KK52355358004","project_name":"","survey_name":"9\u53f7\u5712\u90e8\u9053\u8def\u718a\u5d0e\u5730\u533a\u5730\u8cea\u8abf\u67fb\u4f5c\u696d","client_name":"\u56fd\u571f\u4ea4\u901a\u7701\u8fd1\u757f\u5730\u65b9\u6574\u5099\u5c40\u4eac\u90fd\u56fd\u9053\u4e8b\u52d9\u6240","boring_xml_url":40,"boring_view_url":1,"soilmap_view_url":null,"soiltest_xml_url":0,"soiltest_view_url":0},{"id":180900,"code":"B4KJ201801006-9149","latitude":"35.1329117","longitude":"135.478","source_code":"KK52355358003","project_name":"","survey_name":"9\u53f7\u5712\u90e8\u9053\u8def\u718a\u5d0e\u5730\u533a\u5730\u8cea\u8abf\u67fb\u4f5c\u696d","client_name":"\u56fd\u571f\u4ea4\u901a\u7701\u8fd1\u757f\u5730\u65b9\u6574\u5099\u5c40\u4eac\u90fd\u56fd\u9053\u4e8b\u52d9\u6240","boring_xml_url":40,"boring_view_url":1,"soilmap_view_url":null,"soiltest_xml_url":0,"soiltest_view_url":0},{"id":180899,"code":"B4KJ201801006-9148","latitude":"35.1329117","longitude":"135.478","source_code":"KK52355358002","project_name":"","survey_name":"9\u53f7\u5712\u90e8\u9053\u8def\u718a\u5d0e\u5730\u533a\u5730\u8cea\u8abf\u67fb\u4f5c\u696d","client_name":"\u56fd\u571f\u4ea4\u901a\u7701\u8fd1\u757f\u5730\u65b9\u6574\u5099\u5c40\u4eac\u90fd\u56fd\u9053\u4e8b\u52d9\u6240","boring_xml_url":40,"boring_view_url":1,"soilmap_view_url":null,"soiltest_xml_url":0,"soiltest_view_url":0},{"id":180898,"code":"B4KJ201801006-9147","latitude":"35.1326339","longitude":"135.478","source_code":"KK52355358001","project_name":"","survey_name":"9\u53f7\u5712\u90e8\u9053\u8def\u718a\u5d0e\u5730\u533a\u5730\u8cea\u8abf\u67fb\u4f5c\u696d","client_name":"\u56fd\u571f\u4ea4\u901a\u7701\u8fd1\u757f\u5730\u65b9\u6574\u5099\u5c40\u4eac\u90fd\u56fd\u9053\u4e8b\u52d9\u6240","boring_xml_url":40,"boring_view_url":1,"soilmap_view_url":null,"soiltest_xml_url":0,"soiltest_view_url":0},{"id":180897,"code":"B4KJ201801006-9146","latitude":"35.1323558","longitude":"135.4659178","source_code":"KK52355357001","project_name":"","survey_name":"9\u53f7\u5712\u90e8\u9053\u8def\u5730\u8cea\u8abf\u67fb\u4f5c\u696d(\u305d\u306e2)","client_name":"\u56fd\u571f\u4ea4\u901a\u7701\u8fd1\u757f\u5730\u65b9\u6574\u5099\u5c40\u4eac\u90fd\u56fd\u9053\u4e8b\u52d9\u6240","boring_xml_url":40,"boring_view_url":1,"soilmap_view_url":null,"soiltest_xml_url":0,"soiltest_view_url":0},{"id":180896,"code":"B4KJ201801006-9145","latitude":"35.1296614","longitude":"135.4587794","source_code":"KK52355356002","project_name":"","survey_name":"9\u53f7\u5712\u90e8\u9053\u8def\u5730\u8cea\u8abf\u67fb\u4f5c\u696d(\u305d\u306e2)","client_name":"\u56fd\u571f\u4ea4\u901a\u7701\u8fd1\u757f\u5730\u65b9\u6574\u5099\u5c40\u4eac\u90fd\u56fd\u9053\u4e8b\u52d9\u6240","boring_xml_url":40,"boring_view_url":1,"soilmap_view_url":null,"soiltest_xml_url":0,"soiltest_view_url":0}]}}