{"header":{"xyz":{"source":[],"mosaic":false},"page":4659,"raw":{"soiltest_result":"0","bbox":"57.598333,109.544722,1.933333,163.806111","page":"4659"},"conditions":{"soiltest_result":0,"north":57.598333,"west":109.544722,"south":1.933333,"east":163.806111},"success":true,"message":""},"data":{"meta":{"total":212844,"page":4659,"pages":7095,"count":30},"values":[{"id":180805,"code":"B4KJ201801006-9054","latitude":"35.1659819","longitude":"135.0805339","source_code":"KK52355096005","project_name":"","survey_name":"\u6625\u65e5\u30fb\u548c\u7530\u5c71\u9053\u8def(\u8239\u57ce\u5730\u533a)\u571f\u8cea\u8abf\u67fb\u4f5c\u696d","client_name":"\u56fd\u571f\u4ea4\u901a\u7701\u8fd1\u757f\u5730\u65b9\u6574\u5099\u5c40\u5175\u5eab\u56fd\u9053\u4e8b\u52d9\u6240","boring_xml_url":40,"boring_view_url":1,"soilmap_view_url":null,"soiltest_xml_url":0,"soiltest_view_url":0},{"id":180804,"code":"B4KJ201801006-9053","latitude":"35.1655375","longitude":"135.0783119","source_code":"KK52355096004","project_name":"","survey_name":"\u6625\u65e5\u30fb\u548c\u7530\u5c71\u9053\u8def(\u8239\u57ce\u5730\u533a)\u571f\u8cea\u8abf\u67fb\u4f5c\u696d","client_name":"\u56fd\u571f\u4ea4\u901a\u7701\u8fd1\u757f\u5730\u65b9\u6574\u5099\u5c40\u5175\u5eab\u56fd\u9053\u4e8b\u52d9\u6240","boring_xml_url":40,"boring_view_url":1,"soilmap_view_url":null,"soiltest_xml_url":0,"soiltest_view_url":0},{"id":180803,"code":"B4KJ201801006-9052","latitude":"35.1657597","longitude":"135.0777564","source_code":"KK52355096003","project_name":"","survey_name":"\u6625\u65e5\u30fb\u548c\u7530\u5c71\u9053\u8def(\u8239\u57ce\u5730\u533a)\u571f\u8cea\u8abf\u67fb\u4f5c\u696d","client_name":"\u56fd\u571f\u4ea4\u901a\u7701\u8fd1\u757f\u5730\u65b9\u6574\u5099\u5c40\u5175\u5eab\u56fd\u9053\u4e8b\u52d9\u6240","boring_xml_url":40,"boring_view_url":1,"soilmap_view_url":null,"soiltest_xml_url":0,"soiltest_view_url":0},{"id":180802,"code":"B4KJ201801006-9051","latitude":"35.1662039","longitude":"135.0741456","source_code":"KK52355096002","project_name":"","survey_name":"\u6625\u65e5\u548c\u7530\u5c71\u9053\u8def(\u6625\u65e5\u753a)\u6c34\u6587\u5730\u8cea\u8abf\u67fb\u4f5c\u696d","client_name":"\u56fd\u571f\u4ea4\u901a\u7701\u8fd1\u757f\u5730\u65b9\u6574\u5099\u5c40\u5175\u5eab\u56fd\u9053\u4e8b\u52d9\u6240","boring_xml_url":40,"boring_view_url":1,"soilmap_view_url":null,"soiltest_xml_url":0,"soiltest_view_url":0},{"id":180801,"code":"B4KJ201801006-9050","latitude":"35.1637319","longitude":"135.0730347","source_code":"KK52355096001","project_name":"","survey_name":"\u6625\u65e5\u548c\u7530\u5c71\u9053\u8def(\u6625\u65e5\u753a)\u6c34\u6587\u5730\u8cea\u8abf\u67fb\u4f5c\u696d","client_name":"\u56fd\u571f\u4ea4\u901a\u7701\u8fd1\u757f\u5730\u65b9\u6574\u5099\u5c40\u5175\u5eab\u56fd\u9053\u4e8b\u52d9\u6240","boring_xml_url":40,"boring_view_url":1,"soilmap_view_url":null,"soiltest_xml_url":0,"soiltest_view_url":0},{"id":180800,"code":"B4KJ201801006-9049","latitude":"35.1630653","longitude":"135.0691461","source_code":"KK52355095005","project_name":"","survey_name":"\u6625\u65e5\u30fb\u548c\u7530\u5c71\u9053\u8def(\u8239\u57ce\u5730\u533a)\u571f\u8cea\u8abf\u67fb\u4f5c\u696d","client_name":"\u56fd\u571f\u4ea4\u901a\u7701\u8fd1\u757f\u5730\u65b9\u6574\u5099\u5c40\u5175\u5eab\u56fd\u9053\u4e8b\u52d9\u6240","boring_xml_url":40,"boring_view_url":1,"soilmap_view_url":null,"soiltest_xml_url":0,"soiltest_view_url":0},{"id":180799,"code":"B4KJ201801006-9048","latitude":"35.1625931","longitude":"135.0688683","source_code":"KK52355095004","project_name":"","survey_name":"\u6625\u65e5\u30fb\u548c\u7530\u5c71\u9053\u8def(\u8239\u57ce\u5730\u533a)\u571f\u8cea\u8abf\u67fb\u4f5c\u696d","client_name":"\u56fd\u571f\u4ea4\u901a\u7701\u8fd1\u757f\u5730\u65b9\u6574\u5099\u5c40\u5175\u5eab\u56fd\u9053\u4e8b\u52d9\u6240","boring_xml_url":40,"boring_view_url":1,"soilmap_view_url":null,"soiltest_xml_url":0,"soiltest_view_url":0},{"id":180798,"code":"B4KJ201801006-9047","latitude":"35.1621486","longitude":"135.0677575","source_code":"KK52355095003","project_name":"","survey_name":"\u6625\u65e5\u30fb\u548c\u7530\u5c71\u9053\u8def(\u8239\u57ce\u5730\u533a)\u571f\u8cea\u8abf\u67fb\u4f5c\u696d","client_name":"\u56fd\u571f\u4ea4\u901a\u7701\u8fd1\u757f\u5730\u65b9\u6574\u5099\u5c40\u5175\u5eab\u56fd\u9053\u4e8b\u52d9\u6240","boring_xml_url":40,"boring_view_url":1,"soilmap_view_url":null,"soiltest_xml_url":0,"soiltest_view_url":0},{"id":180797,"code":"B4KJ201801006-9046","latitude":"35.161592","longitude":"135.047203","source_code":"KK52355094005","project_name":"","survey_name":"\u5e73\u621013\u5e74\u5ea6\u6625\u65e5\u548c\u7530\u5c71\u9053\u8def\u6c37\u4e0aIC(\u6a2a\u7530\uff5e\u5e02\u8fba)\u5730\u8cea\u8abf\u67fb\u696d\u52d9","client_name":"\u56fd\u571f\u4ea4\u901a\u7701\u8fd1\u757f\u5730\u65b9\u6574\u5099\u5c40\u5175\u5eab\u56fd\u9053\u4e8b\u52d9\u6240","boring_xml_url":40,"boring_view_url":1,"soilmap_view_url":null,"soiltest_xml_url":0,"soiltest_view_url":0},{"id":180796,"code":"B4KJ201801006-9045","latitude":"35.162065","longitude":"135.0510922","source_code":"KK52355094004","project_name":"","survey_name":"\u6625\u65e5\u30fb\u548c\u7530\u5c71\u9053\u8def\u6a2a\u7530\u5730\u533a\u571f\u8cea\u8abf\u67fb\u4f5c\u696d","client_name":"\u56fd\u571f\u4ea4\u901a\u7701\u8fd1\u757f\u5730\u65b9\u6574\u5099\u5c40\u5175\u5eab\u56fd\u9053\u4e8b\u52d9\u6240","boring_xml_url":40,"boring_view_url":1,"soilmap_view_url":null,"soiltest_xml_url":0,"soiltest_view_url":0},{"id":180795,"code":"B4KJ201801006-9044","latitude":"35.162065","longitude":"135.0510922","source_code":"KK52355094003","project_name":"","survey_name":"\u6625\u65e5\u30fb\u548c\u7530\u5c71\u9053\u8def\u6a2a\u7530\u5730\u533a\u571f\u8cea\u8abf\u67fb\u4f5c\u696d","client_name":"\u56fd\u571f\u4ea4\u901a\u7701\u8fd1\u757f\u5730\u65b9\u6574\u5099\u5c40\u5175\u5eab\u56fd\u9053\u4e8b\u52d9\u6240","boring_xml_url":40,"boring_view_url":1,"soilmap_view_url":null,"soiltest_xml_url":0,"soiltest_view_url":0},{"id":180794,"code":"B4KJ201801006-9043","latitude":"35.1642869","longitude":"135.0477592","source_code":"KK52355094002","project_name":"","survey_name":"\u6625\u65e5\u30fb\u548c\u7530\u5c71\u9053\u8def\u6a2a\u7530\u5730\u533a\u571f\u8cea\u8abf\u67fb\u4f5c\u696d","client_name":"\u56fd\u571f\u4ea4\u901a\u7701\u8fd1\u757f\u5730\u65b9\u6574\u5099\u5c40\u5175\u5eab\u56fd\u9053\u4e8b\u52d9\u6240","boring_xml_url":40,"boring_view_url":1,"soilmap_view_url":null,"soiltest_xml_url":0,"soiltest_view_url":0},{"id":180793,"code":"B4KJ201801006-9042","latitude":"35.1615928","longitude":"135.0453428","source_code":"KK52355093014","project_name":"","survey_name":"\u5e73\u621013\u5e74\u5ea6\u6625\u65e5\u548c\u7530\u5c71\u9053\u8def\u6c37\u4e0aIC(\u6a2a\u7530\uff5e\u5e02\u8fba)\u5730\u8cea\u8abf\u67fb\u696d\u52d9","client_name":"\u56fd\u571f\u4ea4\u901a\u7701\u8fd1\u757f\u5730\u65b9\u6574\u5099\u5c40\u5175\u5eab\u56fd\u9053\u4e8b\u52d9\u6240","boring_xml_url":40,"boring_view_url":1,"soilmap_view_url":null,"soiltest_xml_url":0,"soiltest_view_url":0},{"id":180792,"code":"B4KJ201801006-9041","latitude":"35.161536","longitude":"135.046119","source_code":"KK52355093013","project_name":"","survey_name":"\u5e73\u621013\u5e74\u5ea6\u6625\u65e5\u548c\u7530\u5c71\u9053\u8def\u6c37\u4e0aIC(\u6a2a\u7530\uff5e\u5e02\u8fba)\u5730\u8cea\u8abf\u67fb\u696d\u52d9","client_name":"\u56fd\u571f\u4ea4\u901a\u7701\u8fd1\u757f\u5730\u65b9\u6574\u5099\u5c40\u5175\u5eab\u56fd\u9053\u4e8b\u52d9\u6240","boring_xml_url":40,"boring_view_url":1,"soilmap_view_url":null,"soiltest_xml_url":0,"soiltest_view_url":0},{"id":180791,"code":"B4KJ201801006-9040","latitude":"35.1623703","longitude":"135.0440372","source_code":"KK52355093012","project_name":"","survey_name":"\u5e73\u621013\u5e74\u5ea6\u6625\u65e5\u548c\u7530\u5c71\u9053\u8def\u6c37\u4e0aIC(\u6a2a\u7530\uff5e\u5e02\u8fba)\u5730\u8cea\u8abf\u67fb\u696d\u52d9","client_name":"\u56fd\u571f\u4ea4\u901a\u7701\u8fd1\u757f\u5730\u65b9\u6574\u5099\u5c40\u5175\u5eab\u56fd\u9053\u4e8b\u52d9\u6240","boring_xml_url":40,"boring_view_url":1,"soilmap_view_url":null,"soiltest_xml_url":0,"soiltest_view_url":0},{"id":180790,"code":"B4KJ201801006-9039","latitude":"35.162342","longitude":"135.045536","source_code":"KK52355093010","project_name":"","survey_name":"\u5e73\u621013\u5e74\u5ea6\u6625\u65e5\u548c\u7530\u5c71\u9053\u8def\u6c37\u4e0aIC(\u6a2a\u7530\uff5e\u5e02\u8fba)\u5730\u8cea\u8abf\u67fb\u696d\u52d9","client_name":"\u56fd\u571f\u4ea4\u901a\u7701\u8fd1\u757f\u5730\u65b9\u6574\u5099\u5c40\u5175\u5eab\u56fd\u9053\u4e8b\u52d9\u6240","boring_xml_url":40,"boring_view_url":1,"soilmap_view_url":null,"soiltest_xml_url":0,"soiltest_view_url":0},{"id":180789,"code":"B4KJ201801006-9038","latitude":"35.1642869","longitude":"135.0447039","source_code":"KK52355093007","project_name":"","survey_name":"\u6625\u65e5\u548c\u7530\u5c71\u9053\u8def\u6c37\u4e0aIC\u8abf\u6574\u6c60\u8a73\u7d30\u8a2d\u8a08\u305d\u306e\u4ed6\u696d\u52d9","client_name":"\u56fd\u571f\u4ea4\u901a\u7701\u8fd1\u757f\u5730\u65b9\u6574\u5099\u5c40\u5175\u5eab\u56fd\u9053\u4e8b\u52d9\u6240","boring_xml_url":40,"boring_view_url":1,"soilmap_view_url":null,"soiltest_xml_url":0,"soiltest_view_url":0},{"id":180788,"code":"B4KJ201801006-9037","latitude":"35.1585392","longitude":"135.1171978","source_code":"KK52355089003","project_name":"","survey_name":"\u6625\u65e5\u30fb\u548c\u7530\u5c71\u9053\u8def(\u9ed2\u4e95\u5730\u533a)\u571f\u8cea\u8abf\u67fb\u4f5c\u696d","client_name":"\u56fd\u571f\u4ea4\u901a\u7701\u8fd1\u757f\u5730\u65b9\u6574\u5099\u5c40\u5175\u5eab\u56fd\u9053\u4e8b\u52d9\u6240","boring_xml_url":40,"boring_view_url":1,"soilmap_view_url":null,"soiltest_xml_url":0,"soiltest_view_url":0},{"id":180787,"code":"B4KJ201801006-9036","latitude":"35.1590944","longitude":"135.1126147","source_code":"KK52355089002","project_name":"","survey_name":"\u6625\u65e5\u30fb\u548c\u7530\u5c71\u9053\u8def(\u6625\u65e5\uff5e\u6c37\u4e0a)\u571f\u8cea\u8abf\u67fb\u4f5c\u696d","client_name":"\u56fd\u571f\u4ea4\u901a\u7701\u8fd1\u757f\u5730\u65b9\u6574\u5099\u5c40\u5175\u5eab\u56fd\u9053\u4e8b\u52d9\u6240","boring_xml_url":40,"boring_view_url":1,"soilmap_view_url":null,"soiltest_xml_url":0,"soiltest_view_url":0},{"id":180786,"code":"B4KJ201801006-9035","latitude":"35.1573447","longitude":"135.1159478","source_code":"KK52355089001","project_name":"","survey_name":"\u6625\u65e5\u30fb\u548c\u7530\u5c71\u9053\u8def(\u6625\u65e5\uff5e\u6c37\u4e0a)\u571f\u8cea\u8abf\u67fb\u4f5c\u696d","client_name":"\u56fd\u571f\u4ea4\u901a\u7701\u8fd1\u757f\u5730\u65b9\u6574\u5099\u5c40\u5175\u5eab\u56fd\u9053\u4e8b\u52d9\u6240","boring_xml_url":40,"boring_view_url":1,"soilmap_view_url":null,"soiltest_xml_url":0,"soiltest_view_url":0},{"id":180785,"code":"B4KJ201801006-9034","latitude":"35.1594556","longitude":"135.1074764","source_code":"KK52355088004","project_name":"","survey_name":"\u6625\u65e5\u30fb\u548c\u7530\u5c71\u9053\u8def(\u9ed2\u4e95\u5730\u533a)\u571f\u8cea\u8abf\u67fb\u4f5c\u696d","client_name":"\u56fd\u571f\u4ea4\u901a\u7701\u8fd1\u757f\u5730\u65b9\u6574\u5099\u5c40\u5175\u5eab\u56fd\u9053\u4e8b\u52d9\u6240","boring_xml_url":40,"boring_view_url":1,"soilmap_view_url":null,"soiltest_xml_url":0,"soiltest_view_url":0},{"id":180784,"code":"B4KJ201801006-9033","latitude":"35.1612606","longitude":"135.0994214","source_code":"KK52355088003","project_name":"","survey_name":"\u6625\u65e5\u30fb\u548c\u7530\u5c71\u9053\u8def(\u9ed2\u4e95\u5730\u533a)\u571f\u8cea\u8abf\u67fb\u4f5c\u696d","client_name":"\u56fd\u571f\u4ea4\u901a\u7701\u8fd1\u757f\u5730\u65b9\u6574\u5099\u5c40\u5175\u5eab\u56fd\u9053\u4e8b\u52d9\u6240","boring_xml_url":40,"boring_view_url":1,"soilmap_view_url":null,"soiltest_xml_url":0,"soiltest_view_url":0},{"id":180783,"code":"B4KJ201801006-9032","latitude":"35.1573444","longitude":"135.1034489","source_code":"KK52355088002","project_name":"","survey_name":"\u6625\u65e5\u30fb\u548c\u7530\u5c71\u9053\u8def(\u6625\u65e5\uff5e\u6c37\u4e0a)\u571f\u8cea\u8abf\u67fb\u4f5c\u696d","client_name":"\u56fd\u571f\u4ea4\u901a\u7701\u8fd1\u757f\u5730\u65b9\u6574\u5099\u5c40\u5175\u5eab\u56fd\u9053\u4e8b\u52d9\u6240","boring_xml_url":40,"boring_view_url":1,"soilmap_view_url":null,"soiltest_xml_url":0,"soiltest_view_url":0},{"id":180782,"code":"B4KJ201801006-9031","latitude":"35.1608161","longitude":"135.0963383","source_code":"KK52355087002","project_name":"","survey_name":"\u5e73\u62106\u5e74\u5ea6R483\u53f7\u6625\u65e5\u5730\u533a\u571f\u53d6\u5834\u691c\u8a0e\u696d\u52d9","client_name":"\u56fd\u571f\u4ea4\u901a\u7701\u8fd1\u757f\u5730\u65b9\u6574\u5099\u5c40\u5175\u5eab\u56fd\u9053\u4e8b\u52d9\u6240","boring_xml_url":40,"boring_view_url":1,"soilmap_view_url":null,"soiltest_xml_url":0,"soiltest_view_url":0},{"id":180781,"code":"B4KJ201801006-9030","latitude":"35.1603439","longitude":"135.0955328","source_code":"KK52355087001","project_name":"","survey_name":"\u6625\u65e5\u30fb\u548c\u7530\u5c71\u9053\u8def(\u8239\u57ce\u5730\u533a)\u571f\u8cea\u8abf\u67fb\u4f5c\u696d","client_name":"\u56fd\u571f\u4ea4\u901a\u7701\u8fd1\u757f\u5730\u65b9\u6574\u5099\u5c40\u5175\u5eab\u56fd\u9053\u4e8b\u52d9\u6240","boring_xml_url":40,"boring_view_url":1,"soilmap_view_url":null,"soiltest_xml_url":0,"soiltest_view_url":0},{"id":180780,"code":"B4KJ201801006-9029","latitude":"35.1610933","longitude":"135.0664797","source_code":"KK52355085002","project_name":"","survey_name":"\u6625\u65e5\u30fb\u548c\u7530\u5c71\u9053\u8def\u77f3\u624d\u30fb\u77f3\u751f\u5730\u533a\u571f\u8cea\u8abf\u67fb\u4f5c\u696d","client_name":"\u56fd\u571f\u4ea4\u901a\u7701\u8fd1\u757f\u5730\u65b9\u6574\u5099\u5c40\u5175\u5eab\u56fd\u9053\u4e8b\u52d9\u6240","boring_xml_url":40,"boring_view_url":1,"soilmap_view_url":null,"soiltest_xml_url":0,"soiltest_view_url":0},{"id":180779,"code":"B4KJ201801006-9028","latitude":"35.16051","longitude":"135.0653967","source_code":"KK52355085001","project_name":"","survey_name":"\u6625\u65e5\u30fb\u548c\u7530\u5c71\u9053\u8def\u77f3\u624d\u30fb\u77f3\u751f\u5730\u533a\u571f\u8cea\u8abf\u67fb\u4f5c\u696d","client_name":"\u56fd\u571f\u4ea4\u901a\u7701\u8fd1\u757f\u5730\u65b9\u6574\u5099\u5c40\u5175\u5eab\u56fd\u9053\u4e8b\u52d9\u6240","boring_xml_url":40,"boring_view_url":1,"soilmap_view_url":null,"soiltest_xml_url":0,"soiltest_view_url":0},{"id":180778,"code":"B4KJ201801006-9027","latitude":"35.160122","longitude":"135.047203","source_code":"KK52355084014","project_name":"","survey_name":"\u6625\u65e5\u548c\u7530\u5c71\u9053\u8def\u6a2a\u7530\u5730\u533a\u5730\u8cea\u8abf\u67fb\u696d\u52d9","client_name":"\u56fd\u571f\u4ea4\u901a\u7701\u8fd1\u757f\u5730\u65b9\u6574\u5099\u5c40\u5175\u5eab\u56fd\u9053\u4e8b\u52d9\u6240","boring_xml_url":40,"boring_view_url":1,"soilmap_view_url":null,"soiltest_xml_url":0,"soiltest_view_url":0},{"id":180777,"code":"B4KJ201801006-9026","latitude":"35.1598431","longitude":"135.0480369","source_code":"KK52355084012","project_name":"","survey_name":"\u6625\u65e5\u548c\u7530\u5c71\u9053\u8def\u6a2a\u7530\u5730\u533a\u5730\u8cea\u8abf\u67fb\u696d\u52d9","client_name":"\u56fd\u571f\u4ea4\u901a\u7701\u8fd1\u757f\u5730\u65b9\u6574\u5099\u5c40\u5175\u5eab\u56fd\u9053\u4e8b\u52d9\u6240","boring_xml_url":40,"boring_view_url":1,"soilmap_view_url":null,"soiltest_xml_url":0,"soiltest_view_url":0},{"id":180776,"code":"B4KJ201801006-9025","latitude":"35.159983","longitude":"135.048314","source_code":"KK52355084011","project_name":"","survey_name":"\u6625\u65e5\u548c\u7530\u5c71\u9053\u8def\u6a2a\u7530\u5730\u533a\u5730\u8cea\u8abf\u67fb\u696d\u52d9","client_name":"\u56fd\u571f\u4ea4\u901a\u7701\u8fd1\u757f\u5730\u65b9\u6574\u5099\u5c40\u5175\u5eab\u56fd\u9053\u4e8b\u52d9\u6240","boring_xml_url":40,"boring_view_url":1,"soilmap_view_url":null,"soiltest_xml_url":0,"soiltest_view_url":0}]}}