{"header":{"xyz":{"source":[],"mosaic":false},"page":4664,"raw":{"soiltest_result":"0","bbox":"57.598333,109.544722,1.933333,163.806111","page":"4664"},"conditions":{"soiltest_result":0,"north":57.598333,"west":109.544722,"south":1.933333,"east":163.806111},"success":true,"message":""},"data":{"meta":{"total":212844,"page":4664,"pages":7095,"count":30},"values":[{"id":180655,"code":"B4KJ201801006-8904","latitude":"35.0323764","longitude":"135.8533869","source_code":"KK52354638018","project_name":"","survey_name":"\u9326\u7e54\u5965\u753a\u5730\u8cea\u8abf\u67fb\u4f5c\u696d","client_name":"\u56fd\u571f\u4ea4\u901a\u7701\u8fd1\u757f\u5730\u65b9\u6574\u5099\u5c40\u6ecb\u8cc0\u56fd\u9053\u4e8b\u52d9\u6240","boring_xml_url":40,"boring_view_url":1,"soilmap_view_url":null,"soiltest_xml_url":0,"soiltest_view_url":0},{"id":180654,"code":"B4KJ201801006-8903","latitude":"35.0323764","longitude":"135.8533869","source_code":"KK52354638017","project_name":"","survey_name":"\u9326\u7e54\u5965\u753a\u5730\u8cea\u8abf\u67fb\u4f5c\u696d","client_name":"\u56fd\u571f\u4ea4\u901a\u7701\u8fd1\u757f\u5730\u65b9\u6574\u5099\u5c40\u6ecb\u8cc0\u56fd\u9053\u4e8b\u52d9\u6240","boring_xml_url":40,"boring_view_url":1,"soilmap_view_url":null,"soiltest_xml_url":0,"soiltest_view_url":0},{"id":180653,"code":"B4KJ201801006-8902","latitude":"35.0324875","longitude":"135.8514428","source_code":"KK52354638016","project_name":"","survey_name":"\u5b87\u4f50\u5c71\u30c8\u30f3\u30cd\u30eb\u6e67\u6c34\u5730\u76e4\u8abf\u67fb","client_name":"\u56fd\u571f\u4ea4\u901a\u7701\u8fd1\u757f\u5730\u65b9\u6574\u5099\u5c40\u6ecb\u8cc0\u56fd\u9053\u4e8b\u52d9\u6240","boring_xml_url":40,"boring_view_url":1,"soilmap_view_url":null,"soiltest_xml_url":0,"soiltest_view_url":0},{"id":180652,"code":"B4KJ201801006-8901","latitude":"35.0303486","longitude":"135.851165","source_code":"KK52354638015","project_name":"","survey_name":"\u5b87\u4f50\u5c71\u30c8\u30f3\u30cd\u30eb\u6e67\u6c34\u5730\u76e4\u8abf\u67fb","client_name":"\u56fd\u571f\u4ea4\u901a\u7701\u8fd1\u757f\u5730\u65b9\u6574\u5099\u5c40\u6ecb\u8cc0\u56fd\u9053\u4e8b\u52d9\u6240","boring_xml_url":40,"boring_view_url":1,"soilmap_view_url":null,"soiltest_xml_url":0,"soiltest_view_url":0},{"id":180651,"code":"B4KJ201801006-8900","latitude":"35.0303486","longitude":"135.8508872","source_code":"KK52354638014","project_name":"","survey_name":"\u5b87\u4f50\u5c71\u30c8\u30f3\u30cd\u30eb\u6e67\u6c34\u5730\u76e4\u8abf\u67fb","client_name":"\u56fd\u571f\u4ea4\u901a\u7701\u8fd1\u757f\u5730\u65b9\u6574\u5099\u5c40\u6ecb\u8cc0\u56fd\u9053\u4e8b\u52d9\u6240","boring_xml_url":40,"boring_view_url":1,"soilmap_view_url":null,"soiltest_xml_url":0,"soiltest_view_url":0},{"id":180650,"code":"B4KJ201801006-8899","latitude":"35.0323764","longitude":"135.8533869","source_code":"KK52354638011","project_name":"","survey_name":"\u9326\u7e54\u5965\u753a\u5730\u8cea\u8abf\u67fb\u4f5c\u696d","client_name":"\u56fd\u571f\u4ea4\u901a\u7701\u8fd1\u757f\u5730\u65b9\u6574\u5099\u5c40\u6ecb\u8cc0\u56fd\u9053\u4e8b\u52d9\u6240","boring_xml_url":40,"boring_view_url":1,"soilmap_view_url":null,"soiltest_xml_url":0,"soiltest_view_url":0},{"id":180649,"code":"B4KJ201801006-8898","latitude":"35.0323764","longitude":"135.8533869","source_code":"KK52354638010","project_name":"","survey_name":"\u9326\u7e54\u5965\u753a\u5730\u8cea\u8abf\u67fb\u4f5c\u696d","client_name":"\u56fd\u571f\u4ea4\u901a\u7701\u8fd1\u757f\u5730\u65b9\u6574\u5099\u5c40\u6ecb\u8cc0\u56fd\u9053\u4e8b\u52d9\u6240","boring_xml_url":40,"boring_view_url":1,"soilmap_view_url":null,"soiltest_xml_url":0,"soiltest_view_url":0},{"id":180648,"code":"B4KJ201801006-8897","latitude":"35.0306819","longitude":"135.8504708","source_code":"KK52354638009","project_name":"","survey_name":"\u5b87\u4f50\u5c71\u30c8\u30f3\u30cd\u30eb\u6e67\u6c34\u5730\u76e4\u8abf\u67fb","client_name":"\u56fd\u571f\u4ea4\u901a\u7701\u8fd1\u757f\u5730\u65b9\u6574\u5099\u5c40\u6ecb\u8cc0\u56fd\u9053\u4e8b\u52d9\u6240","boring_xml_url":40,"boring_view_url":1,"soilmap_view_url":null,"soiltest_xml_url":0,"soiltest_view_url":0},{"id":180647,"code":"B4KJ201801006-8896","latitude":"35.0306819","longitude":"135.8503319","source_code":"KK52354638008","project_name":"","survey_name":"\u5b87\u4f50\u5c71\u30c8\u30f3\u30cd\u30eb\u6e67\u6c34\u5730\u76e4\u8abf\u67fb","client_name":"\u56fd\u571f\u4ea4\u901a\u7701\u8fd1\u757f\u5730\u65b9\u6574\u5099\u5c40\u6ecb\u8cc0\u56fd\u9053\u4e8b\u52d9\u6240","boring_xml_url":40,"boring_view_url":1,"soilmap_view_url":null,"soiltest_xml_url":0,"soiltest_view_url":0},{"id":180646,"code":"B4KJ201801006-8895","latitude":"35.0323764","longitude":"135.8533869","source_code":"KK52354638007","project_name":"","survey_name":"\u9326\u7e54\u5965\u753a\u5730\u8cea\u8abf\u67fb\u4f5c\u696d","client_name":"\u56fd\u571f\u4ea4\u901a\u7701\u8fd1\u757f\u5730\u65b9\u6574\u5099\u5c40\u6ecb\u8cc0\u56fd\u9053\u4e8b\u52d9\u6240","boring_xml_url":40,"boring_view_url":1,"soilmap_view_url":null,"soiltest_xml_url":0,"soiltest_view_url":0},{"id":180645,"code":"B4KJ201801006-8894","latitude":"35.0323764","longitude":"135.8533869","source_code":"KK52354638006","project_name":"","survey_name":"\u9326\u7e54\u5965\u753a\u5730\u8cea\u8abf\u67fb\u4f5c\u696d","client_name":"\u56fd\u571f\u4ea4\u901a\u7701\u8fd1\u757f\u5730\u65b9\u6574\u5099\u5c40\u6ecb\u8cc0\u56fd\u9053\u4e8b\u52d9\u6240","boring_xml_url":40,"boring_view_url":1,"soilmap_view_url":null,"soiltest_xml_url":0,"soiltest_view_url":0},{"id":180644,"code":"B4KJ201801006-8893","latitude":"35.0323764","longitude":"135.8533869","source_code":"KK52354638005","project_name":"","survey_name":"\u9326\u7e54\u5730\u8cea\u8abf\u67fb\u4f5c\u696d","client_name":"\u56fd\u571f\u4ea4\u901a\u7701\u8fd1\u757f\u5730\u65b9\u6574\u5099\u5c40\u6ecb\u8cc0\u56fd\u9053\u4e8b\u52d9\u6240","boring_xml_url":40,"boring_view_url":1,"soilmap_view_url":null,"soiltest_xml_url":0,"soiltest_view_url":0},{"id":180643,"code":"B4KJ201801006-8892","latitude":"35.0323764","longitude":"135.8533869","source_code":"KK52354638004","project_name":"","survey_name":"\u9326\u7e54\u5730\u8cea\u8abf\u67fb\u4f5c\u696d","client_name":"\u56fd\u571f\u4ea4\u901a\u7701\u8fd1\u757f\u5730\u65b9\u6574\u5099\u5c40\u6ecb\u8cc0\u56fd\u9053\u4e8b\u52d9\u6240","boring_xml_url":40,"boring_view_url":1,"soilmap_view_url":null,"soiltest_xml_url":0,"soiltest_view_url":0},{"id":180642,"code":"B4KJ201801006-8891","latitude":"35.0323764","longitude":"135.8533869","source_code":"KK52354638003","project_name":"","survey_name":"\u9326\u7e54\u5730\u8cea\u8abf\u67fb\u4f5c\u696d","client_name":"\u56fd\u571f\u4ea4\u901a\u7701\u8fd1\u757f\u5730\u65b9\u6574\u5099\u5c40\u6ecb\u8cc0\u56fd\u9053\u4e8b\u52d9\u6240","boring_xml_url":40,"boring_view_url":1,"soilmap_view_url":null,"soiltest_xml_url":0,"soiltest_view_url":0},{"id":180641,"code":"B4KJ201801006-8890","latitude":"35.0323764","longitude":"135.8533869","source_code":"KK52354638002","project_name":"","survey_name":"\u9326\u7e54\u5965\u753a\u5730\u8cea\u8abf\u67fb\u4f5c\u696d","client_name":"\u56fd\u571f\u4ea4\u901a\u7701\u8fd1\u757f\u5730\u65b9\u6574\u5099\u5c40\u6ecb\u8cc0\u56fd\u9053\u4e8b\u52d9\u6240","boring_xml_url":40,"boring_view_url":1,"soilmap_view_url":null,"soiltest_xml_url":0,"soiltest_view_url":0},{"id":180640,"code":"B4KJ201801006-8889","latitude":"35.0323764","longitude":"135.8533869","source_code":"KK52354638001","project_name":"","survey_name":"\u9326\u7e54\u5730\u8cea\u8abf\u67fb\u4f5c\u696d","client_name":"\u56fd\u571f\u4ea4\u901a\u7701\u8fd1\u757f\u5730\u65b9\u6574\u5099\u5c40\u6ecb\u8cc0\u56fd\u9053\u4e8b\u52d9\u6240","boring_xml_url":40,"boring_view_url":1,"soilmap_view_url":null,"soiltest_xml_url":0,"soiltest_view_url":0},{"id":180639,"code":"B4KJ201801006-8888","latitude":"35.0243219","longitude":"135.8618589","source_code":"KK52354629002","project_name":"","survey_name":"\u7435\u7436\u6e56\u7b2c2\u571f\u8cea\u5730\u8cea\u8abf\u67fb\u4f5c\u696d","client_name":"\u56fd\u571f\u4ea4\u901a\u7701\u8fd1\u757f\u5730\u65b9\u6574\u5099\u5c40\u7435\u7436\u6e56\u6cb3\u5ddd\u4e8b\u52d9\u6240","boring_xml_url":40,"boring_view_url":1,"soilmap_view_url":null,"soiltest_xml_url":0,"soiltest_view_url":0},{"id":180638,"code":"B4KJ201801006-8887","latitude":"35.0237664","longitude":"135.8613033","source_code":"KK52354629001","project_name":"","survey_name":"\u7435\u7436\u6e56\u7b2c2\u571f\u8cea\u5730\u8cea\u8abf\u67fb\u4f5c\u696d","client_name":"\u56fd\u571f\u4ea4\u901a\u7701\u8fd1\u757f\u5730\u65b9\u6574\u5099\u5c40\u7435\u7436\u6e56\u6cb3\u5ddd\u4e8b\u52d9\u6240","boring_xml_url":40,"boring_view_url":1,"soilmap_view_url":null,"soiltest_xml_url":0,"soiltest_view_url":0},{"id":180637,"code":"B4KJ201801006-8886","latitude":"35.0189889","longitude":"135.8478325","source_code":"KK52354618005","project_name":"","survey_name":"\u5c71\u4e0a\u5730\u533a\u571f\u8cea\u8abf\u67fb\u4f5c\u696d","client_name":"\u56fd\u571f\u4ea4\u901a\u7701\u8fd1\u757f\u5730\u65b9\u6574\u5099\u5c40\u6ecb\u8cc0\u56fd\u9053\u4e8b\u52d9\u6240","boring_xml_url":40,"boring_view_url":1,"soilmap_view_url":null,"soiltest_xml_url":0,"soiltest_view_url":0},{"id":180636,"code":"B4KJ201801006-8885","latitude":"35.0191556","longitude":"135.8477214","source_code":"KK52354618004","project_name":"","survey_name":"\u897f\u5927\u6d25\u30d0\u30a4\u30d1\u30b9\u5730\u8cea\u8abf\u67fb\u4f5c\u696d","client_name":"\u56fd\u571f\u4ea4\u901a\u7701\u8fd1\u757f\u5730\u65b9\u6574\u5099\u5c40\u6ecb\u8cc0\u56fd\u9053\u4e8b\u52d9\u6240","boring_xml_url":40,"boring_view_url":1,"soilmap_view_url":null,"soiltest_xml_url":0,"soiltest_view_url":0},{"id":180635,"code":"B4KJ201801006-8884","latitude":"35.0188778","longitude":"135.8478325","source_code":"KK52354618003","project_name":"","survey_name":"\u897f\u5927\u6d25\u30d0\u30a4\u30d1\u30b9\u5730\u8cea\u8abf\u67fb\u4f5c\u696d","client_name":"\u56fd\u571f\u4ea4\u901a\u7701\u8fd1\u757f\u5730\u65b9\u6574\u5099\u5c40\u6ecb\u8cc0\u56fd\u9053\u4e8b\u52d9\u6240","boring_xml_url":40,"boring_view_url":1,"soilmap_view_url":null,"soiltest_xml_url":0,"soiltest_view_url":0},{"id":180634,"code":"B4KJ201801006-8883","latitude":"35.0147114","longitude":"135.845055","source_code":"KK52354617001","project_name":"","survey_name":"\u9577\u7b49\u7acb\u5751\u571f\u8cea\u8abf\u67fb\u4f5c\u696d","client_name":"\u56fd\u571f\u4ea4\u901a\u7701 \u8fd1\u757f\u5730\u65b9\u6574\u5099\u5c40 \u798f\u4e95\u6cb3\u5ddd\u56fd\u9053\u4e8b\u52d9\u6240","boring_xml_url":40,"boring_view_url":1,"soilmap_view_url":null,"soiltest_xml_url":0,"soiltest_view_url":0},{"id":180633,"code":"B4KJ201801006-8882","latitude":"35.0073789","longitude":"135.8408892","source_code":"KK52354607018","project_name":"","survey_name":"\u9326\u7e54\u5965\u753a\u5730\u8cea\u8abf\u67fb\u4f5c\u696d","client_name":"\u56fd\u571f\u4ea4\u901a\u7701\u8fd1\u757f\u5730\u65b9\u6574\u5099\u5c40\u6ecb\u8cc0\u56fd\u9053\u4e8b\u52d9\u6240","boring_xml_url":40,"boring_view_url":1,"soilmap_view_url":null,"soiltest_xml_url":0,"soiltest_view_url":0},{"id":180632,"code":"B4KJ201801006-8881","latitude":"35.0073789","longitude":"135.8408892","source_code":"KK52354607017","project_name":"","survey_name":"\u9326\u7e54\u5965\u753a\u5730\u8cea\u8abf\u67fb\u4f5c\u696d","client_name":"\u56fd\u571f\u4ea4\u901a\u7701\u8fd1\u757f\u5730\u65b9\u6574\u5099\u5c40\u6ecb\u8cc0\u56fd\u9053\u4e8b\u52d9\u6240","boring_xml_url":40,"boring_view_url":1,"soilmap_view_url":null,"soiltest_xml_url":0,"soiltest_view_url":0},{"id":180631,"code":"B4KJ201801006-8880","latitude":"35.0073789","longitude":"135.8408892","source_code":"KK52354607016","project_name":"","survey_name":"\u9326\u7e54\u5965\u753a\u5730\u8cea\u8abf\u67fb\u4f5c\u696d","client_name":"\u56fd\u571f\u4ea4\u901a\u7701\u8fd1\u757f\u5730\u65b9\u6574\u5099\u5c40\u6ecb\u8cc0\u56fd\u9053\u4e8b\u52d9\u6240","boring_xml_url":40,"boring_view_url":1,"soilmap_view_url":null,"soiltest_xml_url":0,"soiltest_view_url":0},{"id":180630,"code":"B4KJ201801006-8879","latitude":"35.0073789","longitude":"135.8408892","source_code":"KK52354607014","project_name":"","survey_name":"\u9326\u7e54\u5965\u753a\u5730\u8cea\u8abf\u67fb\u4f5c\u696d","client_name":"\u56fd\u571f\u4ea4\u901a\u7701\u8fd1\u757f\u5730\u65b9\u6574\u5099\u5c40\u6ecb\u8cc0\u56fd\u9053\u4e8b\u52d9\u6240","boring_xml_url":40,"boring_view_url":1,"soilmap_view_url":null,"soiltest_xml_url":0,"soiltest_view_url":0},{"id":180629,"code":"B4KJ201801006-8878","latitude":"35.0088786","longitude":"135.8393336","source_code":"KK52354607013","project_name":"","survey_name":"\u897f\u5927\u6d25\u30d0\u30a4\u30d1\u30b9\u5730\u8cea\u8abf\u67fb\u4f5c\u696d","client_name":"\u56fd\u571f\u4ea4\u901a\u7701\u8fd1\u757f\u5730\u65b9\u6574\u5099\u5c40\u6ecb\u8cc0\u56fd\u9053\u4e8b\u52d9\u6240","boring_xml_url":40,"boring_view_url":1,"soilmap_view_url":null,"soiltest_xml_url":0,"soiltest_view_url":0},{"id":180628,"code":"B4KJ201801006-8877","latitude":"35.0088786","longitude":"135.8392503","source_code":"KK52354607012","project_name":"","survey_name":"\u897f\u5927\u6d25\u30d0\u30a4\u30d1\u30b9\u5730\u8cea\u8abf\u67fb\u4f5c\u696d","client_name":"\u56fd\u571f\u4ea4\u901a\u7701\u8fd1\u757f\u5730\u65b9\u6574\u5099\u5c40\u6ecb\u8cc0\u56fd\u9053\u4e8b\u52d9\u6240","boring_xml_url":40,"boring_view_url":1,"soilmap_view_url":null,"soiltest_xml_url":0,"soiltest_view_url":0},{"id":180627,"code":"B4KJ201801006-8876","latitude":"35.0083786","longitude":"135.8390836","source_code":"KK52354607011","project_name":"","survey_name":"\u9577\u7b49\u5730\u533a\u571f\u8cea\u8abf\u67fb\u4f5c\u696d","client_name":"\u56fd\u571f\u4ea4\u901a\u7701\u8fd1\u757f\u5730\u65b9\u6574\u5099\u5c40\u6ecb\u8cc0\u56fd\u9053\u4e8b\u52d9\u6240","boring_xml_url":40,"boring_view_url":1,"soilmap_view_url":null,"soiltest_xml_url":0,"soiltest_view_url":0},{"id":180626,"code":"B4KJ201801006-8875","latitude":"35.0085175","longitude":"135.8388614","source_code":"KK52354607010","project_name":"","survey_name":"\u9577\u7b49\u5730\u533a\u571f\u8cea\u8abf\u67fb\u4f5c\u696d","client_name":"\u56fd\u571f\u4ea4\u901a\u7701\u8fd1\u757f\u5730\u65b9\u6574\u5099\u5c40\u6ecb\u8cc0\u56fd\u9053\u4e8b\u52d9\u6240","boring_xml_url":40,"boring_view_url":1,"soilmap_view_url":null,"soiltest_xml_url":0,"soiltest_view_url":0}]}}