{"header":{"xyz":{"source":[],"mosaic":false},"page":467,"raw":{"soiltest_result":"0","bbox":"57.598333,109.544722,1.933333,163.806111","page":"467"},"conditions":{"soiltest_result":0,"north":57.598333,"west":109.544722,"south":1.933333,"east":163.806111},"success":true,"message":""},"data":{"meta":{"total":212844,"page":467,"pages":7095,"count":30},"values":[{"id":531408,"code":"B4KJ202201003-3944","latitude":"32.773222","longitude":"130.690389","source_code":"QS20168950600200310001","project_name":"\u767d\u5ddd2No.2(1)\u53f3\u5cb8\u5ddd\u88cf","survey_name":"\u5e73\u621028\u5e74\u718a\u672c\u5730\u9707\u306b\u3088\u308b\u767d\u5ddd\u7dd1\u5ddd\u5824\u9632\u30fb\u5730\u8cea\u8abf\u67fb\u5916\uff08\u305d\u306e4\uff09\u696d\u52d9","client_name":"\"\u56fd\u571f\u4ea4\u901a\u7701 \u4e5d\u5dde\u5730\u65b9\u6574\u5099\u5c40 \u718a\u672c\u6cb3\u5ddd\u56fd\u9053\u4e8b\u52d9\u6240\"","boring_xml_url":72,"boring_view_url":1,"soilmap_view_url":null,"soiltest_xml_url":0,"soiltest_view_url":0},{"id":531407,"code":"B4KJ202201003-3943","latitude":"32.753528","longitude":"130.738861","source_code":"QS20168950600200300015","project_name":"\u5e73\u621028\u5e74\u718a\u672c\u5730\u9707\u306b\u3088\u308b","survey_name":"\u767d\u5ddd\u7dd1\u5ddd\u5824\u9632\u30fb\u5730\u8cea\u8abf\u67fb\u5916(\u305d\u306e3\u696d\u52d9\uff09","client_name":"\u56fd\u571f\u4ea4\u901a\u7701\u718a\u672c\u6cb3\u5ddd\u56fd\u9053\u4e8b\u52d9\u6240","boring_xml_url":72,"boring_view_url":1,"soilmap_view_url":null,"soiltest_xml_url":0,"soiltest_view_url":0},{"id":531406,"code":"B4KJ202201003-3942","latitude":"32.753411","longitude":"130.738761","source_code":"QS20168950600200300014","project_name":"\u5e73\u621028\u5e74\u718a\u672c\u5730\u9707\u306b\u3088\u308b","survey_name":"\u767d\u5ddd\u7dd1\u5ddd\u5824\u9632\u30fb\u5730\u8cea\u8abf\u67fb\u5916(\u305d\u306e3\u696d\u52d9\uff09","client_name":"\u56fd\u571f\u4ea4\u901a\u7701\u718a\u672c\u6cb3\u5ddd\u56fd\u9053\u4e8b\u52d9\u6240","boring_xml_url":72,"boring_view_url":1,"soilmap_view_url":null,"soiltest_xml_url":0,"soiltest_view_url":0},{"id":531405,"code":"B4KJ202201003-3941","latitude":"32.753367","longitude":"130.738794","source_code":"QS20168950600200300013","project_name":"\u5e73\u621028\u5e74\u718a\u672c\u5730\u9707\u306b\u3088\u308b","survey_name":"\u767d\u5ddd\u7dd1\u5ddd\u5824\u9632\u30fb\u5730\u8cea\u8abf\u67fb\u5916(\u305d\u306e3)\u696d\u52d9","client_name":"\u56fd\u571f\u4ea4\u901a\u7701\u718a\u672c\u6cb3\u5ddd\u56fd\u9053\u4e8b\u52d9\u6240","boring_xml_url":72,"boring_view_url":1,"soilmap_view_url":null,"soiltest_xml_url":0,"soiltest_view_url":0},{"id":531404,"code":"B4KJ202201003-3940","latitude":"32.753456","longitude":"130.738714","source_code":"QS20168950600200300012","project_name":"\u5e73\u621028\u5e74\u718a\u672c\u5730\u9707\u306b\u3088\u308b","survey_name":"\u767d\u5ddd\u7dd1\u5ddd\u5824\u9632\u30fb\u5730\u8cea\u8abf\u67fb\u5916(\u305d\u306e3\u696d\u52d9\uff09","client_name":"\u56fd\u571f\u4ea4\u901a\u7701\u718a\u672c\u6cb3\u5ddd\u56fd\u9053\u4e8b\u52d9\u6240","boring_xml_url":72,"boring_view_url":1,"soilmap_view_url":null,"soiltest_xml_url":0,"soiltest_view_url":0},{"id":531403,"code":"B4KJ202201003-3939","latitude":"32.737733","longitude":"130.722056","source_code":"QS20168950600200300011","project_name":"\u5e73\u621028\u5e74\u718a\u672c\u5730\u9707\u306b\u3088\u308b","survey_name":"\u767d\u5ddd\u7dd1\u5ddd\u5824\u9632\u30fb\u5730\u8cea\u8abf\u67fb\u5916(\u305d\u306e3)\u696d\u52d9","client_name":"\u56fd\u571f\u4ea4\u901a\u7701\u718a\u672c\u6cb3\u5ddd\u56fd\u9053\u4e8b\u52d9\u6240","boring_xml_url":72,"boring_view_url":1,"soilmap_view_url":null,"soiltest_xml_url":0,"soiltest_view_url":0},{"id":531402,"code":"B4KJ202201003-3938","latitude":"32.737678","longitude":"130.722067","source_code":"QS20168950600200300010","project_name":"\u5e73\u621028\u5e74\u718a\u672c\u5730\u9707\u306b\u3088\u308b","survey_name":"\u767d\u5ddd\u7dd1\u5ddd\u5824\u9632\u30fb\u5730\u8cea\u8abf\u67fb\u5916(\u305d\u306e3)\u696d\u52d9","client_name":"\u56fd\u571f\u4ea4\u901a\u7701\u718a\u672c\u6cb3\u5ddd\u56fd\u9053\u4e8b\u52d9\u6240","boring_xml_url":72,"boring_view_url":1,"soilmap_view_url":null,"soiltest_xml_url":0,"soiltest_view_url":0},{"id":531401,"code":"B4KJ202201003-3937","latitude":"32.737989","longitude":"130.721975","source_code":"QS20168950600200300009","project_name":"\u5e73\u621028\u5e74\u718a\u672c\u5730\u9707\u306b\u3088\u308b","survey_name":"\u767d\u5ddd\u7dd1\u5ddd\u5824\u9632\u30fb\u5730\u8cea\u8abf\u67fb\u5916(\u305d\u306e3)\u696d\u52d9","client_name":"\u56fd\u571f\u4ea4\u901a\u7701\u718a\u672c\u6cb3\u5ddd\u56fd\u9053\u4e8b\u52d9\u6240","boring_xml_url":72,"boring_view_url":1,"soilmap_view_url":null,"soiltest_xml_url":0,"soiltest_view_url":0},{"id":531400,"code":"B4KJ202201003-3936","latitude":"32.738061","longitude":"130.721936","source_code":"QS20168950600200300008","project_name":"\u5e73\u621028\u5e74\u718a\u672c\u5730\u9707\u306b\u3088\u308b","survey_name":"\u767d\u5ddd\u7dd1\u5ddd\u5824\u9632\u30fb\u5730\u8cea\u8abf\u67fb\u5916(\u305d\u306e3)\u696d\u52d9","client_name":"\u56fd\u571f\u4ea4\u901a\u7701\u718a\u672c\u6cb3\u5ddd\u56fd\u9053\u4e8b\u52d9\u6240","boring_xml_url":72,"boring_view_url":1,"soilmap_view_url":null,"soiltest_xml_url":0,"soiltest_view_url":0},{"id":531399,"code":"B4KJ202201003-3935","latitude":"32.737839","longitude":"130.721997","source_code":"QS20168950600200300007","project_name":"\u5e73\u621028\u5e74\u718a\u672c\u5730\u9707\u306b\u3088\u308b","survey_name":"\u767d\u5ddd\u7dd1\u5ddd\u5824\u9632\u30fb\u5730\u8cea\u8abf\u67fb\u5916(\u305d\u306e3)\u696d\u52d9","client_name":"\u56fd\u571f\u4ea4\u901a\u7701\u718a\u672c\u6cb3\u5ddd\u56fd\u9053\u4e8b\u52d9\u6240","boring_xml_url":72,"boring_view_url":1,"soilmap_view_url":null,"soiltest_xml_url":0,"soiltest_view_url":0},{"id":531398,"code":"B4KJ202201003-3934","latitude":"32.703722","longitude":"130.771536","source_code":"QS20168950600200300006","project_name":"\u5e73\u621028\u5e74\u718a\u672c\u5730\u9707\u306b\u3088\u308b","survey_name":"\u767d\u5ddd\u7dd1\u5ddd\u5824\u9632\u30fb\u5730\u8cea\u8abf\u67fb\u5916(\u305d\u306e3)\u696d\u52d9","client_name":"\u56fd\u571f\u4ea4\u901a\u7701\u718a\u672c\u6cb3\u5ddd\u56fd\u9053\u4e8b\u52d9\u6240","boring_xml_url":72,"boring_view_url":1,"soilmap_view_url":null,"soiltest_xml_url":0,"soiltest_view_url":0},{"id":531397,"code":"B4KJ202201003-3933","latitude":"32.703586","longitude":"130.771436","source_code":"QS20168950600200300005","project_name":"\u5e73\u621028\u5e74\u718a\u672c\u5730\u9707\u306b\u3088\u308b","survey_name":"\u767d\u5ddd\u7dd1\u5ddd\u5824\u9632\u30fb\u5730\u8cea\u8abf\u67fb\u5916(\u305d\u306e3)\u696d\u52d9","client_name":"\u56fd\u571f\u4ea4\u901a\u7701\u718a\u672c\u6cb3\u5ddd\u56fd\u9053\u4e8b\u52d9\u6240","boring_xml_url":72,"boring_view_url":1,"soilmap_view_url":null,"soiltest_xml_url":0,"soiltest_view_url":0},{"id":531396,"code":"B4KJ202201003-3932","latitude":"32.70365","longitude":"130.771478","source_code":"QS20168950600200300004","project_name":"\u5e73\u621028\u5e74\u718a\u672c\u5730\u9707\u306b\u3088\u308b","survey_name":"\u767d\u5ddd\u7dd1\u5ddd\u5824\u9632\u30fb\u5730\u8cea\u8abf\u67fb\u5916(\u305d\u306e3)\u696d\u52d9","client_name":"\u56fd\u571f\u4ea4\u901a\u7701\u718a\u672c\u6cb3\u5ddd\u56fd\u9053\u4e8b\u52d9\u6240","boring_xml_url":72,"boring_view_url":1,"soilmap_view_url":null,"soiltest_xml_url":0,"soiltest_view_url":0},{"id":531395,"code":"B4KJ202201003-3931","latitude":"32.704442","longitude":"130.770172","source_code":"QS20168950600200300003","project_name":"\u5e73\u621028\u5e74\u718a\u672c\u5730\u9707\u306b\u3088\u308b","survey_name":"\u767d\u5ddd\u7dd1\u5ddd\u5824\u9632\u30fb\u5730\u8cea\u8abf\u67fb\u5916(\u305d\u306e3)\u696d\u52d9","client_name":"\u56fd\u571f\u4ea4\u901a\u7701\u718a\u672c\u6cb3\u5ddd\u56fd\u9053\u4e8b\u52d9\u6240","boring_xml_url":72,"boring_view_url":1,"soilmap_view_url":null,"soiltest_xml_url":0,"soiltest_view_url":0},{"id":531394,"code":"B4KJ202201003-3930","latitude":"32.704253","longitude":"130.770044","source_code":"QS20168950600200300002","project_name":"\u5e73\u621028\u5e74\u718a\u672c\u5730\u9707\u306b\u3088\u308b","survey_name":"\u767d\u5ddd\u7dd1\u5ddd\u5824\u9632\u30fb\u5730\u8cea\u8abf\u67fb\u5916(\u305d\u306e3)\u696d\u52d9","client_name":"\u56fd\u571f\u4ea4\u901a\u7701\u718a\u672c\u6cb3\u5ddd\u56fd\u9053\u4e8b\u52d9\u6240","boring_xml_url":72,"boring_view_url":1,"soilmap_view_url":null,"soiltest_xml_url":0,"soiltest_view_url":0},{"id":531393,"code":"B4KJ202201003-3929","latitude":"32.704331","longitude":"130.7701","source_code":"QS20168950600200300001","project_name":"\u5e73\u621028\u5e74\u718a\u672c\u5730\u9707\u306b\u3088\u308b","survey_name":"\u767d\u5ddd\u7dd1\u5ddd\u5824\u9632\u30fb\u5730\u8cea\u8abf\u67fb\u5916(\u305d\u306e3)\u696d\u52d9","client_name":"\u56fd\u571f\u4ea4\u901a\u7701\u718a\u672c\u6cb3\u5ddd\u56fd\u9053\u4e8b\u52d9\u6240","boring_xml_url":72,"boring_view_url":1,"soilmap_view_url":null,"soiltest_xml_url":0,"soiltest_view_url":0},{"id":531392,"code":"B4KJ202201003-3928","latitude":"32.642667","longitude":"130.817333","source_code":"QS20168950600200280076","project_name":"\u5e73\u621028\u5e74\u718a\u672c\u5730\u9707\u306b\u3088\u308b\u767d\u5ddd\u7dd1\u5ddd\u5824\u9632\u30fb\u5730\u8cea\u8abf\u67fb\u5916(\u305d\u306e2)\u696d\u52d9","survey_name":"\u5e73\u621028\u5e74\u718a\u672c\u5730\u9707\u306b\u3088\u308b\u767d\u5ddd\u7dd1\u5ddd\u5824\u9632\u30fb\u5730\u8cea\u8abf\u67fb\u5916(\u305d\u306e2)\u696d\u52d9","client_name":"\u56fd\u571f\u4ea4\u901a\u7701\u3000\u4e5d\u5dde\u5730\u65b9\u6574\u5099\u5c40\u3000\u718a\u672c\u6cb3\u5ddd\u56fd\u9053\u4e8b\u52d9\u6240","boring_xml_url":72,"boring_view_url":1,"soilmap_view_url":null,"soiltest_xml_url":0,"soiltest_view_url":0},{"id":531391,"code":"B4KJ202201003-3927","latitude":"32.642722","longitude":"130.815417","source_code":"QS20168950600200280075","project_name":"\u5e73\u621028\u5e74\u718a\u672c\u5730\u9707\u306b\u3088\u308b\u767d\u5ddd\u7dd1\u5ddd\u5824\u9632\u30fb\u5730\u8cea\u8abf\u67fb\u5916(\u305d\u306e2)\u696d\u52d9","survey_name":"\u5e73\u621028\u5e74\u718a\u672c\u5730\u9707\u306b\u3088\u308b\u767d\u5ddd\u7dd1\u5ddd\u5824\u9632\u30fb\u5730\u8cea\u8abf\u67fb\u5916(\u305d\u306e2)\u696d\u52d9","client_name":"\u56fd\u571f\u4ea4\u901a\u7701\u3000\u4e5d\u5dde\u5730\u65b9\u6574\u5099\u5c40\u3000\u718a\u672c\u6cb3\u5ddd\u56fd\u9053\u4e8b\u52d9\u6240","boring_xml_url":72,"boring_view_url":1,"soilmap_view_url":null,"soiltest_xml_url":0,"soiltest_view_url":0},{"id":531390,"code":"B4KJ202201003-3926","latitude":"32.642639","longitude":"130.815389","source_code":"QS20168950600200280074","project_name":"\u5e73\u621028\u5e74\u718a\u672c\u5730\u9707\u306b\u3088\u308b\u767d\u5ddd\u7dd1\u5ddd\u5824\u9632\u30fb\u5730\u8cea\u8abf\u67fb\u5916(\u305d\u306e2)\u696d\u52d9","survey_name":"\u5e73\u621028\u5e74\u718a\u672c\u5730\u9707\u306b\u3088\u308b\u767d\u5ddd\u7dd1\u5ddd\u5824\u9632\u30fb\u5730\u8cea\u8abf\u67fb\u5916(\u305d\u306e2)\u696d\u52d9","client_name":"\u56fd\u571f\u4ea4\u901a\u7701\u3000\u4e5d\u5dde\u5730\u65b9\u6574\u5099\u5c40\u3000\u718a\u672c\u6cb3\u5ddd\u56fd\u9053\u4e8b\u52d9\u6240","boring_xml_url":72,"boring_view_url":1,"soilmap_view_url":null,"soiltest_xml_url":0,"soiltest_view_url":0},{"id":531389,"code":"B4KJ202201003-3925","latitude":"32.750528","longitude":"130.734889","source_code":"QS20168950600200280073","project_name":"\u5e73\u621028\u5e74\u718a\u672c\u5730\u9707\u306b\u3088\u308b\u767d\u5ddd\u7dd1\u5ddd\u5824\u9632\u30fb\u5730\u8cea\u8abf\u67fb\u5916(\u305d\u306e2)\u696d\u52d9","survey_name":"\u5e73\u621028\u5e74\u718a\u672c\u5730\u9707\u306b\u3088\u308b\u767d\u5ddd\u7dd1\u5ddd\u5824\u9632\u30fb\u5730\u8cea\u8abf\u67fb\u5916(\u305d\u306e2)\u696d\u52d9","client_name":"\u56fd\u571f\u4ea4\u901a\u7701\u3000\u4e5d\u5dde\u5730\u65b9\u6574\u5099\u5c40\u3000\u718a\u672c\u6cb3\u5ddd\u56fd\u9053\u4e8b\u52d9\u6240","boring_xml_url":72,"boring_view_url":1,"soilmap_view_url":null,"soiltest_xml_url":0,"soiltest_view_url":0},{"id":531388,"code":"B4KJ202201003-3924","latitude":"32.735083","longitude":"130.683833","source_code":"QS20168950600200280072","project_name":"\u5e73\u621028\u5e74\u718a\u672c\u5730\u9707\u306b\u3088\u308b\u767d\u5ddd\u7dd1\u5ddd\u5824\u9632\u30fb\u5730\u8cea\u8abf\u67fb\u5916(\u305d\u306e2)\u696d\u52d9","survey_name":"\u5e73\u621028\u5e74\u718a\u672c\u5730\u9707\u306b\u3088\u308b\u767d\u5ddd\u7dd1\u5ddd\u5824\u9632\u30fb\u5730\u8cea\u8abf\u67fb\u5916(\u305d\u306e2)\u696d\u52d9","client_name":"\"\u56fd\u571f\u4ea4\u901a\u7701 \u4e5d\u5dde\u5730\u65b9\u6574\u5099\u5c40 \u718a\u672c\u6cb3\u5ddd\u56fd\u9053\u4e8b\u52d9\u6240\"","boring_xml_url":72,"boring_view_url":1,"soilmap_view_url":null,"soiltest_xml_url":0,"soiltest_view_url":0},{"id":531387,"code":"B4KJ202201003-3923","latitude":"32.737083","longitude":"130.734139","source_code":"QS20168950600200280071","project_name":"\u5e73\u621028\u5e74\u718a\u672c\u5730\u9707\u306b\u3088\u308b\u767d\u5ddd\u7dd1\u5ddd\u5824\u9632\u30fb\u5730\u8cea\u8abf\u67fb\u5916(\u305d\u306e2)\u696d\u52d9","survey_name":"\u5e73\u621028\u5e74\u718a\u672c\u5730\u9707\u306b\u3088\u308b\u767d\u5ddd\u7dd1\u5ddd\u5824\u9632\u30fb\u5730\u8cea\u8abf\u67fb\u5916(\u305d\u306e2)\u696d\u52d9","client_name":"\"\u56fd\u571f\u4ea4\u901a\u7701 \u4e5d\u5dde\u5730\u65b9\u6574\u5099\u5c40 \u718a\u672c\u6cb3\u5ddd\u56fd\u9053\u4e8b\u52d9\u6240\"","boring_xml_url":72,"boring_view_url":1,"soilmap_view_url":null,"soiltest_xml_url":0,"soiltest_view_url":0},{"id":531386,"code":"B4KJ202201003-3922","latitude":"32.737667","longitude":"130.720667","source_code":"QS20168950600200280070","project_name":"\u5e73\u621028\u5e74\u718a\u672c\u5730\u9707\u306b\u3088\u308b\u767d\u5ddd\u7dd1\u5ddd\u5824\u9632\u30fb\u5730\u8cea\u8abf\u67fb\u5916(\u305d\u306e2)\u696d\u52d9","survey_name":"\u5e73\u621028\u5e74\u718a\u672c\u5730\u9707\u306b\u3088\u308b\u767d\u5ddd\u7dd1\u5ddd\u5824\u9632\u30fb\u5730\u8cea\u8abf\u67fb\u5916(\u305d\u306e2)\u696d\u52d9","client_name":"\"\u56fd\u571f\u4ea4\u901a\u7701 \u4e5d\u5dde\u5730\u65b9\u6574\u5099\u5c40 \u718a\u672c\u6cb3\u5ddd\u56fd\u9053\u4e8b\u52d9\u6240\"","boring_xml_url":72,"boring_view_url":1,"soilmap_view_url":null,"soiltest_xml_url":0,"soiltest_view_url":0},{"id":531385,"code":"B4KJ202201003-3921","latitude":"32.735167","longitude":"130.710083","source_code":"QS20168950600200280069","project_name":"\u5e73\u621028\u5e74\u718a\u672c\u5730\u9707\u306b\u3088\u308b\u767d\u5ddd\u7dd1\u5ddd\u5824\u9632\u30fb\u5730\u8cea\u8abf\u67fb\u5916(\u305d\u306e2)\u696d\u52d9","survey_name":"\u5e73\u621028\u5e74\u718a\u672c\u5730\u9707\u306b\u3088\u308b\u767d\u5ddd\u7dd1\u5ddd\u5824\u9632\u30fb\u5730\u8cea\u8abf\u67fb\u5916(\u305d\u306e2)\u696d\u52d9","client_name":"\u56fd\u571f\u4ea4\u901a\u7701\u3000\u4e5d\u5dde\u5730\u65b9\u6574\u5099\u5c40\u3000\u718a\u672c\u6cb3\u5ddd\u56fd\u9053\u4e8b\u52d9\u6240","boring_xml_url":72,"boring_view_url":1,"soilmap_view_url":null,"soiltest_xml_url":0,"soiltest_view_url":0},{"id":531384,"code":"B4KJ202201003-3920","latitude":"32.734083","longitude":"130.695806","source_code":"QS20168950600200280068","project_name":"\u5e73\u621028\u5e74\u718a\u672c\u5730\u9707\u306b\u3088\u308b\u767d\u5ddd\u7dd1\u5ddd\u5824\u9632\u30fb\u5730\u8cea\u8abf\u67fb\u5916(\u305d\u306e2)\u696d\u52d9","survey_name":"\u5e73\u621028\u5e74\u718a\u672c\u5730\u9707\u306b\u3088\u308b\u767d\u5ddd\u7dd1\u5ddd\u5824\u9632\u30fb\u5730\u8cea\u8abf\u67fb\u5916(\u305d\u306e2)\u696d\u52d9","client_name":"\u56fd\u571f\u4ea4\u901a\u7701\u3000\u4e5d\u5dde\u5730\u65b9\u6574\u5099\u5c40\u3000\u718a\u672c\u6cb3\u5ddd\u56fd\u9053\u4e8b\u52d9\u6240","boring_xml_url":72,"boring_view_url":1,"soilmap_view_url":null,"soiltest_xml_url":0,"soiltest_view_url":0},{"id":531383,"code":"B4KJ202201003-3919","latitude":"32.728083","longitude":"130.687972","source_code":"QS20168950600200280067","project_name":"\u5e73\u621028\u5e74\u718a\u672c\u5730\u9707\u306b\u3088\u308b\u767d\u5ddd\u7dd1\u5ddd\u5824\u9632\u30fb\u5730\u8cea\u8abf\u67fb\u5916(\u305d\u306e2)\u696d\u52d9","survey_name":"\u5e73\u621028\u5e74\u718a\u672c\u5730\u9707\u306b\u3088\u308b\u767d\u5ddd\u7dd1\u5ddd\u5824\u9632\u30fb\u5730\u8cea\u8abf\u67fb\u5916(\u305d\u306e2)\u696d\u52d9","client_name":"\u56fd\u571f\u4ea4\u901a\u7701\u3000\u4e5d\u5dde\u5730\u65b9\u6574\u5099\u5c40\u3000\u718a\u672c\u6cb3\u5ddd\u56fd\u9053\u4e8b\u52d9\u6240","boring_xml_url":72,"boring_view_url":1,"soilmap_view_url":null,"soiltest_xml_url":0,"soiltest_view_url":0},{"id":531382,"code":"B4KJ202201003-3918","latitude":"32.718333","longitude":"130.786194","source_code":"QS20168950600200280066","project_name":"\u5e73\u621028\u5e74\u718a\u672c\u5730\u9707\u306b\u3088\u308b\u767d\u5ddd\u7dd1\u5ddd\u5824\u9632\u30fb\u5730\u8cea\u8abf\u67fb\u5916(\u305d\u306e2)\u696d\u52d9","survey_name":"\u5e73\u621028\u5e74\u718a\u672c\u5730\u9707\u306b\u3088\u308b\u767d\u5ddd\u7dd1\u5ddd\u5824\u9632\u30fb\u5730\u8cea\u8abf\u67fb\u5916(\u305d\u306e2)\u696d\u52d9","client_name":"\u56fd\u571f\u4ea4\u901a\u7701\u3000\u4e5d\u5dde\u5730\u65b9\u6574\u5099\u5c40\u3000\u718a\u672c\u6cb3\u5ddd\u56fd\u9053\u4e8b\u52d9\u6240","boring_xml_url":72,"boring_view_url":1,"soilmap_view_url":null,"soiltest_xml_url":0,"soiltest_view_url":0},{"id":531381,"code":"B4KJ202201003-3917","latitude":"32.718639","longitude":"130.786556","source_code":"QS20168950600200280065","project_name":"\u5e73\u621028\u5e74\u718a\u672c\u5730\u9707\u306b\u3088\u308b\u767d\u5ddd\u7dd1\u5ddd\u5824\u9632\u30fb\u5730\u8cea\u8abf\u67fb\u5916(\u305d\u306e2)\u696d\u52d9","survey_name":"\u5e73\u621028\u5e74\u718a\u672c\u5730\u9707\u306b\u3088\u308b\u767d\u5ddd\u7dd1\u5ddd\u5824\u9632\u30fb\u5730\u8cea\u8abf\u67fb\u5916(\u305d\u306e2)\u696d\u52d9","client_name":"\u56fd\u571f\u4ea4\u901a\u7701\u3000\u4e5d\u5dde\u5730\u65b9\u6574\u5099\u5c40\u3000\u718a\u672c\u6cb3\u5ddd\u56fd\u9053\u4e8b\u52d9\u6240","boring_xml_url":72,"boring_view_url":1,"soilmap_view_url":null,"soiltest_xml_url":0,"soiltest_view_url":0},{"id":531380,"code":"B4KJ202201003-3916","latitude":"32.718417","longitude":"130.786306","source_code":"QS20168950600200280064","project_name":"\u5e73\u621028\u5e74\u718a\u672c\u5730\u9707\u306b\u3088\u308b\u767d\u5ddd\u7dd1\u5ddd\u5824\u9632\u30fb\u5730\u8cea\u8abf\u67fb\u5916(\u305d\u306e2)\u696d\u52d9","survey_name":"\u5e73\u621028\u5e74\u718a\u672c\u5730\u9707\u306b\u3088\u308b\u767d\u5ddd\u7dd1\u5ddd\u5824\u9632\u30fb\u5730\u8cea\u8abf\u67fb\u5916(\u305d\u306e2)\u696d\u52d9","client_name":"\u56fd\u571f\u4ea4\u901a\u7701\u3000\u4e5d\u5dde\u5730\u65b9\u6574\u5099\u5c40\u3000\u718a\u672c\u6cb3\u5ddd\u56fd\u9053\u4e8b\u52d9\u6240","boring_xml_url":72,"boring_view_url":1,"soilmap_view_url":null,"soiltest_xml_url":0,"soiltest_view_url":0},{"id":531379,"code":"B4KJ202201003-3915","latitude":"32.718639","longitude":"130.786583","source_code":"QS20168950600200280063","project_name":"\u5e73\u621028\u5e74\u718a\u672c\u5730\u9707\u306b\u3088\u308b\u767d\u5ddd\u7dd1\u5ddd\u5824\u9632\u30fb\u5730\u8cea\u8abf\u67fb\u5916(\u305d\u306e2)\u696d\u52d9","survey_name":"\u5e73\u621028\u5e74\u718a\u672c\u5730\u9707\u306b\u3088\u308b\u767d\u5ddd\u7dd1\u5ddd\u5824\u9632\u30fb\u5730\u8cea\u8abf\u67fb\u5916(\u305d\u306e2)\u696d\u52d9","client_name":"\u56fd\u571f\u4ea4\u901a\u7701\u3000\u4e5d\u5dde\u5730\u65b9\u6574\u5099\u5c40\u3000\u718a\u672c\u6cb3\u5ddd\u56fd\u9053\u4e8b\u52d9\u6240","boring_xml_url":72,"boring_view_url":1,"soilmap_view_url":null,"soiltest_xml_url":0,"soiltest_view_url":0}]}}