{"header":{"xyz":{"source":[],"mosaic":false},"page":4685,"raw":{"soiltest_result":"0","bbox":"57.598333,109.544722,1.933333,163.806111","page":"4685"},"conditions":{"soiltest_result":0,"north":57.598333,"west":109.544722,"south":1.933333,"east":163.806111},"success":true,"message":""},"data":{"meta":{"total":212844,"page":4685,"pages":7095,"count":30},"values":[{"id":180025,"code":"B4KJ201801006-8274","latitude":"34.9156372","longitude":"135.7498169","source_code":"KK52352690020","project_name":"","survey_name":"1\u53f7\u4f0f\u898b\u5730\u533a\u5730\u8cea\u8abf\u67fb\u4f5c\u696d","client_name":"\u56fd\u571f\u4ea4\u901a\u7701\u8fd1\u757f\u5730\u65b9\u6574\u5099\u5c40\u4eac\u90fd\u56fd\u9053\u4e8b\u52d9\u6240","boring_xml_url":40,"boring_view_url":1,"soilmap_view_url":null,"soiltest_xml_url":0,"soiltest_view_url":0},{"id":180024,"code":"B4KJ201801006-8273","latitude":"34.9150261","longitude":"135.7503169","source_code":"KK52352690019","project_name":"","survey_name":"1\u53f7\u4f0f\u898b\u5730\u533a\u5730\u8cea\u8abf\u67fb\u4f5c\u696d","client_name":"\u56fd\u571f\u4ea4\u901a\u7701\u8fd1\u757f\u5730\u65b9\u6574\u5099\u5c40\u4eac\u90fd\u56fd\u9053\u4e8b\u52d9\u6240","boring_xml_url":40,"boring_view_url":1,"soilmap_view_url":null,"soiltest_xml_url":0,"soiltest_view_url":0},{"id":180023,"code":"B4KJ201801006-8272","latitude":"34.914415","longitude":"135.7499003","source_code":"KK52352690018","project_name":"","survey_name":"1\u53f7\u4f0f\u898b\u5730\u533a\u5730\u8cea\u8abf\u67fb\u4f5c\u696d","client_name":"\u56fd\u571f\u4ea4\u901a\u7701\u8fd1\u757f\u5730\u65b9\u6574\u5099\u5c40\u4eac\u90fd\u56fd\u9053\u4e8b\u52d9\u6240","boring_xml_url":40,"boring_view_url":1,"soilmap_view_url":null,"soiltest_xml_url":0,"soiltest_view_url":0},{"id":180022,"code":"B4KJ201801006-8271","latitude":"34.9140264","longitude":"135.7498725","source_code":"KK52352690017","project_name":"","survey_name":"1\u53f7\u5de8\u690b\u6c60\u5730\u533a\u571f\u8cea\u8abf\u67fb\u4f5c\u696d","client_name":"\u56fd\u571f\u4ea4\u901a\u7701\u8fd1\u757f\u5730\u65b9\u6574\u5099\u5c40\u4eac\u90fd\u56fd\u9053\u4e8b\u52d9\u6240","boring_xml_url":40,"boring_view_url":1,"soilmap_view_url":null,"soiltest_xml_url":0,"soiltest_view_url":0},{"id":180021,"code":"B4KJ201801006-8270","latitude":"34.9157206","longitude":"135.7534","source_code":"KK52352690016","project_name":"","survey_name":"1\u53f7\u5de8\u690b\u6c60\u5730\u533a\u571f\u8cea\u8abf\u67fb\u4f5c\u696d","client_name":"\u56fd\u571f\u4ea4\u901a\u7701\u8fd1\u757f\u5730\u65b9\u6574\u5099\u5c40\u4eac\u90fd\u56fd\u9053\u4e8b\u52d9\u6240","boring_xml_url":40,"boring_view_url":1,"soilmap_view_url":null,"soiltest_xml_url":0,"soiltest_view_url":0},{"id":180020,"code":"B4KJ201801006-8269","latitude":"34.9193311","longitude":"135.7504833","source_code":"KK52352690015","project_name":"","survey_name":"\u7b2c\u4e8c\u4eac\u962a\u9053\u8def(\u4f0f\u898b\u5730\u533a)\u5730\u8cea\u8abf\u67fb\u4f5c\u696d","client_name":"\u56fd\u571f\u4ea4\u901a\u7701\u8fd1\u757f\u5730\u65b9\u6574\u5099\u5c40\u4eac\u90fd\u56fd\u9053\u4e8b\u52d9\u6240","boring_xml_url":40,"boring_view_url":1,"soilmap_view_url":null,"soiltest_xml_url":0,"soiltest_view_url":0},{"id":180019,"code":"B4KJ201801006-8268","latitude":"34.9184981","longitude":"135.7504833","source_code":"KK52352690014","project_name":"","survey_name":"\u7b2c\u4e8c\u4eac\u962a\u9053\u8def(\u4f0f\u898b\u5730\u533a)\u5730\u8cea\u8abf\u67fb\u4f5c\u696d","client_name":"\u56fd\u571f\u4ea4\u901a\u7701\u8fd1\u757f\u5730\u65b9\u6574\u5099\u5c40\u4eac\u90fd\u56fd\u9053\u4e8b\u52d9\u6240","boring_xml_url":40,"boring_view_url":1,"soilmap_view_url":null,"soiltest_xml_url":0,"soiltest_view_url":0},{"id":180018,"code":"B4KJ201801006-8267","latitude":"34.9168314","longitude":"135.7504833","source_code":"KK52352690013","project_name":"","survey_name":"\u7b2c\u4e8c\u4eac\u962a\u9053\u8def(\u4f0f\u898b\u5730\u533a)\u5730\u8cea\u8abf\u67fb\u4f5c\u696d","client_name":"\u56fd\u571f\u4ea4\u901a\u7701\u8fd1\u757f\u5730\u65b9\u6574\u5099\u5c40\u4eac\u90fd\u56fd\u9053\u4e8b\u52d9\u6240","boring_xml_url":40,"boring_view_url":1,"soilmap_view_url":null,"soiltest_xml_url":0,"soiltest_view_url":0},{"id":180017,"code":"B4KJ201801006-8266","latitude":"34.9143317","longitude":"135.7504836","source_code":"KK52352690012","project_name":"","survey_name":"\u7b2c\u4e8c\u4eac\u962a\u9053\u8def(\u4f0f\u898b\u5730\u533a)\u5730\u8cea\u8abf\u67fb\u4f5c\u696d","client_name":"\u56fd\u571f\u4ea4\u901a\u7701\u8fd1\u757f\u5730\u65b9\u6574\u5099\u5c40\u4eac\u90fd\u56fd\u9053\u4e8b\u52d9\u6240","boring_xml_url":40,"boring_view_url":1,"soilmap_view_url":null,"soiltest_xml_url":0,"soiltest_view_url":0},{"id":180016,"code":"B4KJ201801006-8265","latitude":"34.9132208","longitude":"135.7504836","source_code":"KK52352690011","project_name":"","survey_name":"\u7b2c\u4e8c\u4eac\u962a\u9053\u8def(\u4f0f\u898b\u5730\u533a)\u5730\u8cea\u8abf\u67fb\u4f5c\u696d","client_name":"\u56fd\u571f\u4ea4\u901a\u7701\u8fd1\u757f\u5730\u65b9\u6574\u5099\u5c40\u4eac\u90fd\u56fd\u9053\u4e8b\u52d9\u6240","boring_xml_url":40,"boring_view_url":1,"soilmap_view_url":null,"soiltest_xml_url":0,"soiltest_view_url":0},{"id":180015,"code":"B4KJ201801006-8264","latitude":"34.917831","longitude":"135.758817","source_code":"KK52352690010","project_name":"","survey_name":"\u6dc0\u5ddd\u5824\u9632\u8abf\u67fb\u691c\u8a0e(\u305d\u306e4)\u696d\u52d9","client_name":"\u56fd\u571f\u4ea4\u901a\u7701\u8fd1\u757f\u5730\u65b9\u6574\u5099\u5c40\u6dc0\u5ddd\u6cb3\u5ddd\u4e8b\u52d9\u6240","boring_xml_url":40,"boring_view_url":1,"soilmap_view_url":null,"soiltest_xml_url":0,"soiltest_view_url":0},{"id":180014,"code":"B4KJ201801006-8263","latitude":"34.917914","longitude":"135.757039","source_code":"KK52352690009","project_name":"","survey_name":"\u5411\u5cf6\u5730\u5148\u571f\u8cea\u8abf\u67fb\u4f5c\u696d","client_name":"\u56fd\u571f\u4ea4\u901a\u7701\u8fd1\u757f\u5730\u65b9\u6574\u5099\u5c40\u6dc0\u5ddd\u6cb3\u5ddd\u4e8b\u52d9\u6240","boring_xml_url":40,"boring_view_url":1,"soilmap_view_url":null,"soiltest_xml_url":0,"soiltest_view_url":0},{"id":180013,"code":"B4KJ201801006-8262","latitude":"34.916914","longitude":"135.754622","source_code":"KK52352690008","project_name":"","survey_name":"\u5411\u5cf6\u5730\u5148\u571f\u8cea\u8abf\u67fb","client_name":"\u56fd\u571f\u4ea4\u901a\u7701\u8fd1\u757f\u5730\u65b9\u6574\u5099\u5c40\u6dc0\u5ddd\u6cb3\u5ddd\u4e8b\u52d9\u6240","boring_xml_url":40,"boring_view_url":1,"soilmap_view_url":null,"soiltest_xml_url":0,"soiltest_view_url":0},{"id":180012,"code":"B4KJ201801006-8261","latitude":"34.916192","longitude":"135.752011","source_code":"KK52352690007","project_name":"","survey_name":"\u5411\u5cf6\u5730\u5148\u571f\u8cea\u8abf\u67fb","client_name":"\u56fd\u571f\u4ea4\u901a\u7701\u8fd1\u757f\u5730\u65b9\u6574\u5099\u5c40\u6dc0\u5ddd\u6cb3\u5ddd\u4e8b\u52d9\u6240","boring_xml_url":40,"boring_view_url":1,"soilmap_view_url":null,"soiltest_xml_url":0,"soiltest_view_url":0},{"id":180011,"code":"B4KJ201801006-8260","latitude":"34.915622","longitude":"135.749628","source_code":"KK52352690006","project_name":"","survey_name":"\u69d9\u5cf6\u5730\u533a\u571f\u8cea\u8abf\u67fb\u4f5c\u696d","client_name":"\u56fd\u571f\u4ea4\u901a\u7701\u8fd1\u757f\u5730\u65b9\u6574\u5099\u5c40\u6dc0\u5ddd\u6cb3\u5ddd\u4e8b\u52d9\u6240","boring_xml_url":40,"boring_view_url":1,"soilmap_view_url":null,"soiltest_xml_url":0,"soiltest_view_url":0},{"id":180010,"code":"B4KJ201801006-8259","latitude":"34.915136","longitude":"135.749094","source_code":"KK52352690005","project_name":"","survey_name":"\u6dc0\u5ddd\u5824\u9632\u8abf\u67fb\u691c\u8a0e(\u305d\u306e4)\u696d\u52d9","client_name":"\u56fd\u571f\u4ea4\u901a\u7701\u8fd1\u757f\u5730\u65b9\u6574\u5099\u5c40\u6dc0\u5ddd\u6cb3\u5ddd\u4e8b\u52d9\u6240","boring_xml_url":40,"boring_view_url":1,"soilmap_view_url":null,"soiltest_xml_url":0,"soiltest_view_url":0},{"id":180009,"code":"B4KJ201801006-8258","latitude":"34.915553","longitude":"135.749067","source_code":"KK52352690004","project_name":"","survey_name":"\u5411\u5cf6\u5730\u5148\u571f\u8cea\u8abf\u67fb","client_name":"\u56fd\u571f\u4ea4\u901a\u7701\u8fd1\u757f\u5730\u65b9\u6574\u5099\u5c40\u6dc0\u5ddd\u6cb3\u5ddd\u4e8b\u52d9\u6240","boring_xml_url":40,"boring_view_url":1,"soilmap_view_url":null,"soiltest_xml_url":0,"soiltest_view_url":0},{"id":180008,"code":"B4KJ201801006-8257","latitude":"34.915439","longitude":"135.748128","source_code":"KK52352690003","project_name":"","survey_name":"\u69d9\u5cf6\u5730\u533a\u571f\u8cea\u8abf\u67fb\u4f5c\u696d","client_name":"\u56fd\u571f\u4ea4\u901a\u7701\u8fd1\u757f\u5730\u65b9\u6574\u5099\u5c40\u6dc0\u5ddd\u6cb3\u5ddd\u4e8b\u52d9\u6240","boring_xml_url":40,"boring_view_url":1,"soilmap_view_url":null,"soiltest_xml_url":0,"soiltest_view_url":0},{"id":180007,"code":"B4KJ201801006-8256","latitude":"34.915442","longitude":"135.747206","source_code":"KK52352690002","project_name":"","survey_name":"\u5411\u5cf6\u5730\u5148\u571f\u8cea\u8abf\u67fb","client_name":"\u56fd\u571f\u4ea4\u901a\u7701\u8fd1\u757f\u5730\u65b9\u6574\u5099\u5c40\u6dc0\u5ddd\u6cb3\u5ddd\u4e8b\u52d9\u6240","boring_xml_url":40,"boring_view_url":1,"soilmap_view_url":null,"soiltest_xml_url":0,"soiltest_view_url":0},{"id":180006,"code":"B4KJ201801006-8255","latitude":"34.9173036","longitude":"135.7497614","source_code":"KK52352690001","project_name":"","survey_name":"\u7b2c\u4e8c\u4eac\u962a\u9053\u8def\u571f\u8cea\u8abf\u67fb\u4f5c\u696d","client_name":"\u56fd\u571f\u4ea4\u901a\u7701\u8fd1\u757f\u5730\u65b9\u6574\u5099\u5c40\u6d6a\u901f\u56fd\u9053\u4e8b\u52d9\u6240","boring_xml_url":40,"boring_view_url":1,"soilmap_view_url":null,"soiltest_xml_url":0,"soiltest_view_url":0},{"id":180005,"code":"B4KJ201801006-8254","latitude":"34.904972","longitude":"135.798536","source_code":"KK52352684002","project_name":"","survey_name":"\u6dc0\u5ddd\u5824\u9632\u8abf\u67fb\u691c\u8a0e(\u305d\u306e4)\u696d\u52d9","client_name":"\u56fd\u571f\u4ea4\u901a\u7701\u8fd1\u757f\u5730\u65b9\u6574\u5099\u5c40\u6dc0\u5ddd\u6cb3\u5ddd\u4e8b\u52d9\u6240","boring_xml_url":40,"boring_view_url":1,"soilmap_view_url":null,"soiltest_xml_url":0,"soiltest_view_url":0},{"id":180004,"code":"B4KJ201801006-8253","latitude":"34.9032231","longitude":"135.7979519","source_code":"KK52352684001","project_name":"","survey_name":"\u69d9\u5cf6\u5730\u5148\u571f\u8cea\u8abf\u67fb","client_name":"\u56fd\u571f\u4ea4\u901a\u7701\u8fd1\u757f\u5730\u65b9\u6574\u5099\u5c40\u6dc0\u5ddd\u6cb3\u5ddd\u4e8b\u52d9\u6240","boring_xml_url":40,"boring_view_url":1,"soilmap_view_url":null,"soiltest_xml_url":0,"soiltest_view_url":0},{"id":180003,"code":"B4KJ201801006-8252","latitude":"34.907667","longitude":"135.794397","source_code":"KK52352683028","project_name":"","survey_name":"\u5b87\u6cbb\u5ddd\u5824\u9632\u5730\u8cea\u8abf\u67fb\u696d\u52d9","client_name":"\u56fd\u571f\u4ea4\u901a\u7701\u8fd1\u757f\u5730\u65b9\u6574\u5099\u5c40\u6dc0\u5ddd\u6cb3\u5ddd\u4e8b\u52d9\u6240","boring_xml_url":40,"boring_view_url":1,"soilmap_view_url":null,"soiltest_xml_url":0,"soiltest_view_url":0},{"id":180002,"code":"B4KJ201801006-8251","latitude":"34.908222","longitude":"135.792369","source_code":"KK52352683027","project_name":"","survey_name":"\u5b87\u6cbb\u5ddd\u5824\u9632\u5730\u8cea\u8abf\u67fb\u696d\u52d9","client_name":"\u56fd\u571f\u4ea4\u901a\u7701\u8fd1\u757f\u5730\u65b9\u6574\u5099\u5c40\u6dc0\u5ddd\u6cb3\u5ddd\u4e8b\u52d9\u6240","boring_xml_url":40,"boring_view_url":1,"soilmap_view_url":null,"soiltest_xml_url":0,"soiltest_view_url":0},{"id":180001,"code":"B4KJ201801006-8250","latitude":"34.909194","longitude":"135.791175","source_code":"KK52352683026","project_name":"","survey_name":"\u5b87\u6cbb\u5ddd\u5824\u9632\u5730\u8cea\u8abf\u67fb\u696d\u52d9","client_name":"\u56fd\u571f\u4ea4\u901a\u7701\u8fd1\u757f\u5730\u65b9\u6574\u5099\u5c40\u6dc0\u5ddd\u6cb3\u5ddd\u4e8b\u52d9\u6240","boring_xml_url":40,"boring_view_url":1,"soilmap_view_url":null,"soiltest_xml_url":0,"soiltest_view_url":0},{"id":180000,"code":"B4KJ201801006-8249","latitude":"34.910389","longitude":"135.790842","source_code":"KK52352683025","project_name":"","survey_name":"\u5b87\u6cbb\u5ddd\u5824\u9632\u5730\u8cea\u8abf\u67fb\u696d\u52d9","client_name":"\u56fd\u571f\u4ea4\u901a\u7701\u8fd1\u757f\u5730\u65b9\u6574\u5099\u5c40\u6dc0\u5ddd\u6cb3\u5ddd\u4e8b\u52d9\u6240","boring_xml_url":40,"boring_view_url":1,"soilmap_view_url":null,"soiltest_xml_url":0,"soiltest_view_url":0},{"id":179999,"code":"B4KJ201801006-8248","latitude":"34.9038897","longitude":"135.7963411","source_code":"KK52352683023","project_name":"","survey_name":"\u69d9\u5cf6\u5730\u5148\u571f\u8cea\u8abf\u67fb","client_name":"\u56fd\u571f\u4ea4\u901a\u7701\u8fd1\u757f\u5730\u65b9\u6574\u5099\u5c40\u6dc0\u5ddd\u6cb3\u5ddd\u4e8b\u52d9\u6240","boring_xml_url":40,"boring_view_url":1,"soilmap_view_url":null,"soiltest_xml_url":0,"soiltest_view_url":0},{"id":179998,"code":"B4KJ201801006-8247","latitude":"34.9044172","longitude":"135.7953689","source_code":"KK52352683022","project_name":"","survey_name":"\u69d9\u5cf6\u5730\u5148\u571f\u8cea\u8abf\u67fb","client_name":"\u56fd\u571f\u4ea4\u901a\u7701\u8fd1\u757f\u5730\u65b9\u6574\u5099\u5c40\u6dc0\u5ddd\u6cb3\u5ddd\u4e8b\u52d9\u6240","boring_xml_url":40,"boring_view_url":1,"soilmap_view_url":null,"soiltest_xml_url":0,"soiltest_view_url":0},{"id":179997,"code":"B4KJ201801006-8246","latitude":"34.9043061","longitude":"135.7952022","source_code":"KK52352683021","project_name":"","survey_name":"\u6dc0\u5ddd\u5824\u9632\u8abf\u67fb\u691c\u8a0e(\u305d\u306e4)\u696d\u52d9","client_name":"\u56fd\u571f\u4ea4\u901a\u7701\u8fd1\u757f\u5730\u65b9\u6574\u5099\u5c40\u6dc0\u5ddd\u6cb3\u5ddd\u4e8b\u52d9\u6240","boring_xml_url":40,"boring_view_url":1,"soilmap_view_url":null,"soiltest_xml_url":0,"soiltest_view_url":0},{"id":179996,"code":"B4KJ201801006-8245","latitude":"34.907389","longitude":"135.790897","source_code":"KK52352683020","project_name":"","survey_name":"\u6dc0\u5ddd\u5824\u9632\u8abf\u67fb\u691c\u8a0e(\u305d\u306e4)\u696d\u52d9","client_name":"\u56fd\u571f\u4ea4\u901a\u7701\u8fd1\u757f\u5730\u65b9\u6574\u5099\u5c40\u6dc0\u5ddd\u6cb3\u5ddd\u4e8b\u52d9\u6240","boring_xml_url":40,"boring_view_url":1,"soilmap_view_url":null,"soiltest_xml_url":0,"soiltest_view_url":0}]}}