{"header":{"xyz":{"source":[],"mosaic":false},"page":4686,"raw":{"soiltest_result":"0","bbox":"57.598333,109.544722,1.933333,163.806111","page":"4686"},"conditions":{"soiltest_result":0,"north":57.598333,"west":109.544722,"south":1.933333,"east":163.806111},"success":true,"message":""},"data":{"meta":{"total":212844,"page":4686,"pages":7095,"count":30},"values":[{"id":179995,"code":"B4KJ201801006-8244","latitude":"34.9052228","longitude":"135.7937856","source_code":"KK52352683019","project_name":"","survey_name":"\u69d9\u5cf6\u5730\u5148\u571f\u8cea\u8abf\u67fb","client_name":"\u56fd\u571f\u4ea4\u901a\u7701\u8fd1\u757f\u5730\u65b9\u6574\u5099\u5c40\u6dc0\u5ddd\u6cb3\u5ddd\u4e8b\u52d9\u6240","boring_xml_url":40,"boring_view_url":1,"soilmap_view_url":null,"soiltest_xml_url":0,"soiltest_view_url":0},{"id":179994,"code":"B4KJ201801006-8243","latitude":"34.905195","longitude":"135.7935356","source_code":"KK52352683018","project_name":"","survey_name":"\u6dc0\u5ddd\u5824\u9632\u8abf\u67fb\u691c\u8a0e(\u305d\u306e4)\u696d\u52d9","client_name":"\u56fd\u571f\u4ea4\u901a\u7701\u8fd1\u757f\u5730\u65b9\u6574\u5099\u5c40\u6dc0\u5ddd\u6cb3\u5ddd\u4e8b\u52d9\u6240","boring_xml_url":40,"boring_view_url":1,"soilmap_view_url":null,"soiltest_xml_url":0,"soiltest_view_url":0},{"id":179993,"code":"B4KJ201801006-8242","latitude":"34.908361","longitude":"135.792425","source_code":"KK52352683017","project_name":"","survey_name":"\u6dc0\u5ddd\u5824\u9632\u8abf\u67fb\u691c\u8a0e(\u305d\u306e4)\u696d\u52d9","client_name":"\u56fd\u571f\u4ea4\u901a\u7701\u8fd1\u757f\u5730\u65b9\u6574\u5099\u5c40\u6dc0\u5ddd\u6cb3\u5ddd\u4e8b\u52d9\u6240","boring_xml_url":40,"boring_view_url":1,"soilmap_view_url":null,"soiltest_xml_url":0,"soiltest_view_url":0},{"id":179992,"code":"B4KJ201801006-8241","latitude":"34.908361","longitude":"135.792425","source_code":"KK52352683016","project_name":"","survey_name":"\u6dc0\u5ddd\u5824\u9632\u8abf\u67fb\u691c\u8a0e(\u305d\u306e4)\u696d\u52d9","client_name":"\u56fd\u571f\u4ea4\u901a\u7701\u8fd1\u757f\u5730\u65b9\u6574\u5099\u5c40\u6dc0\u5ddd\u6cb3\u5ddd\u4e8b\u52d9\u6240","boring_xml_url":40,"boring_view_url":1,"soilmap_view_url":null,"soiltest_xml_url":0,"soiltest_view_url":0},{"id":179991,"code":"B4KJ201801006-8240","latitude":"34.905861","longitude":"135.792425","source_code":"KK52352683015","project_name":"","survey_name":"\u6dc0\u5ddd\u5824\u9632\u8abf\u67fb\u691c\u8a0e(\u305d\u306e4)\u696d\u52d9","client_name":"\u56fd\u571f\u4ea4\u901a\u7701\u8fd1\u757f\u5730\u65b9\u6574\u5099\u5c40\u6dc0\u5ddd\u6cb3\u5ddd\u4e8b\u52d9\u6240","boring_xml_url":40,"boring_view_url":1,"soilmap_view_url":null,"soiltest_xml_url":0,"soiltest_view_url":0},{"id":179990,"code":"B4KJ201801006-8239","latitude":"34.9099444","longitude":"135.7918689","source_code":"KK52352683014","project_name":"","survey_name":"\u6dc0\u5ddd\u5824\u9632\u8abf\u67fb\u691c\u8a0e(\u305d\u306e4)\u696d\u52d9","client_name":"\u56fd\u571f\u4ea4\u901a\u7701\u8fd1\u757f\u5730\u65b9\u6574\u5099\u5c40\u6dc0\u5ddd\u6cb3\u5ddd\u4e8b\u52d9\u6240","boring_xml_url":40,"boring_view_url":1,"soilmap_view_url":null,"soiltest_xml_url":0,"soiltest_view_url":0},{"id":179989,"code":"B4KJ201801006-8238","latitude":"34.9061114","longitude":"135.7918692","source_code":"KK52352683013","project_name":"","survey_name":"\u6dc0\u5ddd\u5824\u9632\u8abf\u67fb\u691c\u8a0e(\u305d\u306e4)\u696d\u52d9","client_name":"\u56fd\u571f\u4ea4\u901a\u7701\u8fd1\u757f\u5730\u65b9\u6574\u5099\u5c40\u6dc0\u5ddd\u6cb3\u5ddd\u4e8b\u52d9\u6240","boring_xml_url":40,"boring_view_url":1,"soilmap_view_url":null,"soiltest_xml_url":0,"soiltest_view_url":0},{"id":179988,"code":"B4KJ201801006-8237","latitude":"34.9062781","longitude":"135.7918414","source_code":"KK52352683012","project_name":"","survey_name":"\u69d9\u5cf6\u5730\u5148\u571f\u8cea\u8abf\u67fb","client_name":"\u56fd\u571f\u4ea4\u901a\u7701\u8fd1\u757f\u5730\u65b9\u6574\u5099\u5c40\u6dc0\u5ddd\u6cb3\u5ddd\u4e8b\u52d9\u6240","boring_xml_url":40,"boring_view_url":1,"soilmap_view_url":null,"soiltest_xml_url":0,"soiltest_view_url":0},{"id":179987,"code":"B4KJ201801006-8236","latitude":"34.906472","longitude":"135.791369","source_code":"KK52352683010","project_name":"","survey_name":"\u5824\u9632\u8abf\u67fb\u89b3\u6e2c\u5b54\u8a2d\u7f6e\u7b49\u4f5c\u696d","client_name":"\u56fd\u571f\u4ea4\u901a\u7701\u8fd1\u757f\u5730\u65b9\u6574\u5099\u5c40\u6dc0\u5ddd\u6cb3\u5ddd\u4e8b\u52d9\u6240","boring_xml_url":40,"boring_view_url":1,"soilmap_view_url":null,"soiltest_xml_url":0,"soiltest_view_url":0},{"id":179986,"code":"B4KJ201801006-8235","latitude":"34.910167","longitude":"135.791314","source_code":"KK52352683009","project_name":"","survey_name":"\u6dc0\u5ddd\u5824\u9632\u8abf\u67fb\u691c\u8a0e(\u305d\u306e4)\u696d\u52d9","client_name":"\u56fd\u571f\u4ea4\u901a\u7701\u8fd1\u757f\u5730\u65b9\u6574\u5099\u5c40\u6dc0\u5ddd\u6cb3\u5ddd\u4e8b\u52d9\u6240","boring_xml_url":40,"boring_view_url":1,"soilmap_view_url":null,"soiltest_xml_url":0,"soiltest_view_url":0},{"id":179985,"code":"B4KJ201801006-8234","latitude":"34.9065558","longitude":"135.7913136","source_code":"KK52352683008","project_name":"","survey_name":"\u6dc0\u5ddd\u5824\u9632\u8abf\u67fb\u691c\u8a0e(\u305d\u306e4)\u696d\u52d9","client_name":"\u56fd\u571f\u4ea4\u901a\u7701\u8fd1\u757f\u5730\u65b9\u6574\u5099\u5c40\u6dc0\u5ddd\u6cb3\u5ddd\u4e8b\u52d9\u6240","boring_xml_url":40,"boring_view_url":1,"soilmap_view_url":null,"soiltest_xml_url":0,"soiltest_view_url":0},{"id":179984,"code":"B4KJ201801006-8233","latitude":"34.9074447","longitude":"135.7904803","source_code":"KK52352683007","project_name":"","survey_name":"\u6dc0\u5ddd\u5824\u9632\u8abf\u67fb\u691c\u8a0e(\u305d\u306e4)\u696d\u52d9","client_name":"\u56fd\u571f\u4ea4\u901a\u7701\u8fd1\u757f\u5730\u65b9\u6574\u5099\u5c40\u6dc0\u5ddd\u6cb3\u5ddd\u4e8b\u52d9\u6240","boring_xml_url":40,"boring_view_url":1,"soilmap_view_url":null,"soiltest_xml_url":0,"soiltest_view_url":0},{"id":179983,"code":"B4KJ201801006-8232","latitude":"34.9081389","longitude":"135.7899247","source_code":"KK52352683006","project_name":"","survey_name":"\u6dc0\u5ddd\u5824\u9632\u8abf\u67fb\u691c\u8a0e(\u305d\u306e4)\u696d\u52d9","client_name":"\u56fd\u571f\u4ea4\u901a\u7701\u8fd1\u757f\u5730\u65b9\u6574\u5099\u5c40\u6dc0\u5ddd\u6cb3\u5ddd\u4e8b\u52d9\u6240","boring_xml_url":40,"boring_view_url":1,"soilmap_view_url":null,"soiltest_xml_url":0,"soiltest_view_url":0},{"id":179982,"code":"B4KJ201801006-8231","latitude":"34.9099444","longitude":"135.7896469","source_code":"KK52352683005","project_name":"","survey_name":"\u6dc0\u5ddd\u5824\u9632\u8abf\u67fb\u691c\u8a0e(\u305d\u306e4)\u696d\u52d9","client_name":"\u56fd\u571f\u4ea4\u901a\u7701\u8fd1\u757f\u5730\u65b9\u6574\u5099\u5c40\u6dc0\u5ddd\u6cb3\u5ddd\u4e8b\u52d9\u6240","boring_xml_url":40,"boring_view_url":1,"soilmap_view_url":null,"soiltest_xml_url":0,"soiltest_view_url":0},{"id":179981,"code":"B4KJ201801006-8230","latitude":"34.908806","longitude":"135.789647","source_code":"KK52352683004","project_name":"","survey_name":"\u6dc0\u5ddd\u5824\u9632\u8abf\u67fb\u691c\u8a0e(\u305d\u306e4)\u696d\u52d9","client_name":"\u56fd\u571f\u4ea4\u901a\u7701\u8fd1\u757f\u5730\u65b9\u6574\u5099\u5c40\u6dc0\u5ddd\u6cb3\u5ddd\u4e8b\u52d9\u6240","boring_xml_url":40,"boring_view_url":1,"soilmap_view_url":null,"soiltest_xml_url":0,"soiltest_view_url":0},{"id":179980,"code":"B4KJ201801006-8229","latitude":"34.9083333","longitude":"135.7894247","source_code":"KK52352683003","project_name":"","survey_name":"\u69d9\u5cf6\u5730\u5148\u571f\u8cea\u8abf\u67fb","client_name":"\u56fd\u571f\u4ea4\u901a\u7701\u8fd1\u757f\u5730\u65b9\u6574\u5099\u5c40\u6dc0\u5ddd\u6cb3\u5ddd\u4e8b\u52d9\u6240","boring_xml_url":40,"boring_view_url":1,"soilmap_view_url":null,"soiltest_xml_url":0,"soiltest_view_url":0},{"id":179979,"code":"B4KJ201801006-8228","latitude":"34.9113053","longitude":"135.7893414","source_code":"KK52352683002","project_name":"","survey_name":"\u69d9\u5cf6\u5730\u5148\u571f\u8cea\u8abf\u67fb","client_name":"\u56fd\u571f\u4ea4\u901a\u7701\u8fd1\u757f\u5730\u65b9\u6574\u5099\u5c40\u6dc0\u5ddd\u6cb3\u5ddd\u4e8b\u52d9\u6240","boring_xml_url":40,"boring_view_url":1,"soilmap_view_url":null,"soiltest_xml_url":0,"soiltest_view_url":0},{"id":179978,"code":"B4KJ201801006-8227","latitude":"34.9089997","longitude":"135.7768147","source_code":"KK52352682002","project_name":"","survey_name":"\u4eac\u6ecb\u30d0\u30a4\u30d1\u30b9 \u69d9\u5cf6\u5730\u533a\u5730\u8cea\u8abf\u67fb","client_name":"\u56fd\u571f\u4ea4\u901a\u7701\u8fd1\u757f\u5730\u65b9\u6574\u5099\u5c40\u4eac\u90fd\u56fd\u9053\u4e8b\u52d9\u6240","boring_xml_url":40,"boring_view_url":1,"soilmap_view_url":null,"soiltest_xml_url":0,"soiltest_view_url":0},{"id":179977,"code":"B4KJ201801006-8226","latitude":"34.9099164","longitude":"135.7798144","source_code":"KK52352682001","project_name":"","survey_name":"\u4eac\u6ecb\u30d0\u30a4\u30d1\u30b9 \u69d9\u5cf6\u5730\u533a\u5730\u8cea\u8abf\u67fb","client_name":"\u56fd\u571f\u4ea4\u901a\u7701\u8fd1\u757f\u5730\u65b9\u6574\u5099\u5c40\u4eac\u90fd\u56fd\u9053\u4e8b\u52d9\u6240","boring_xml_url":40,"boring_view_url":1,"soilmap_view_url":null,"soiltest_xml_url":0,"soiltest_view_url":0},{"id":179976,"code":"B4KJ201801006-8225","latitude":"34.9081661","longitude":"135.7616494","source_code":"KK52352681001","project_name":"","survey_name":"\u4eac\u90fd\u76c6\u5730\u5730\u4e0b\u6c34\u8abf\u67fb","client_name":"\u56fd\u571f\u4ea4\u901a\u7701\u8fd1\u757f\u5730\u65b9\u6574\u5099\u5c40\u6dc0\u5ddd\u6cb3\u5ddd\u4e8b\u52d9\u6240","boring_xml_url":40,"boring_view_url":1,"soilmap_view_url":null,"soiltest_xml_url":0,"soiltest_view_url":0},{"id":179975,"code":"B4KJ201801006-8224","latitude":"34.9046106","longitude":"135.7496506","source_code":"KK52352680011","project_name":"","survey_name":"\u4eac\u90fd\u5357\u5171\u540c\u6e9d\u6771\u4e00\u53e3\u5730\u533a\u5730\u8cea\u8abf\u67fb\u696d\u52d9","client_name":"\u56fd\u571f\u4ea4\u901a\u7701\u8fd1\u757f\u5730\u65b9\u6574\u5099\u5c40\u4eac\u90fd\u56fd\u9053\u4e8b\u52d9\u6240","boring_xml_url":40,"boring_view_url":1,"soilmap_view_url":null,"soiltest_xml_url":0,"soiltest_view_url":0},{"id":179974,"code":"B4KJ201801006-8223","latitude":"34.9070269","longitude":"135.7497339","source_code":"KK52352680006","project_name":"","survey_name":"1\u53f7\u5de8\u690b\u6c60\u5730\u533a\u571f\u8cea\u8abf\u67fb\u4f5c\u696d","client_name":"\u56fd\u571f\u4ea4\u901a\u7701\u8fd1\u757f\u5730\u65b9\u6574\u5099\u5c40\u4eac\u90fd\u56fd\u9053\u4e8b\u52d9\u6240","boring_xml_url":40,"boring_view_url":1,"soilmap_view_url":null,"soiltest_xml_url":0,"soiltest_view_url":0},{"id":179973,"code":"B4KJ201801006-8222","latitude":"34.9052217","longitude":"135.7497061","source_code":"KK52352680005","project_name":"","survey_name":"1\u53f7\u5de8\u690b\u6c60\u5730\u533a\u5730\u8cea\u8abf\u67fb\u4f5c\u696d","client_name":"\u56fd\u571f\u4ea4\u901a\u7701\u8fd1\u757f\u5730\u65b9\u6574\u5099\u5c40\u4eac\u90fd\u56fd\u9053\u4e8b\u52d9\u6240","boring_xml_url":40,"boring_view_url":1,"soilmap_view_url":null,"soiltest_xml_url":0,"soiltest_view_url":0},{"id":179972,"code":"B4KJ201801006-8221","latitude":"34.9032775","longitude":"135.7496506","source_code":"KK52352680004","project_name":"","survey_name":"1\u53f7\u5de8\u690b\u6c60\u5730\u533a\u5730\u8cea\u8abf\u67fb\u4f5c\u696d","client_name":"\u56fd\u571f\u4ea4\u901a\u7701\u8fd1\u757f\u5730\u65b9\u6574\u5099\u5c40\u4eac\u90fd\u56fd\u9053\u4e8b\u52d9\u6240","boring_xml_url":40,"boring_view_url":1,"soilmap_view_url":null,"soiltest_xml_url":0,"soiltest_view_url":0},{"id":179971,"code":"B4KJ201801006-8220","latitude":"34.9093322","longitude":"135.7499283","source_code":"KK52352680003","project_name":"","survey_name":"\u7b2c\u4e8c\u4eac\u962a\u9053\u8def(\u6771\u4e00\u53e3\u5730\u533a)\u5730\u8cea\u8abf\u67fb\u4f5c\u696d","client_name":"\u56fd\u571f\u4ea4\u901a\u7701\u8fd1\u757f\u5730\u65b9\u6574\u5099\u5c40\u4eac\u90fd\u56fd\u9053\u4e8b\u52d9\u6240","boring_xml_url":40,"boring_view_url":1,"soilmap_view_url":null,"soiltest_xml_url":0,"soiltest_view_url":0},{"id":179970,"code":"B4KJ201801006-8219","latitude":"34.906555","longitude":"135.7499283","source_code":"KK52352680002","project_name":"","survey_name":"\u7b2c\u4e8c\u4eac\u962a\u9053\u8def(\u6771\u4e00\u53e3\u5730\u533a)\u5730\u8cea\u8abf\u67fb\u4f5c\u696d","client_name":"\u56fd\u571f\u4ea4\u901a\u7701\u8fd1\u757f\u5730\u65b9\u6574\u5099\u5c40\u4eac\u90fd\u56fd\u9053\u4e8b\u52d9\u6240","boring_xml_url":40,"boring_view_url":1,"soilmap_view_url":null,"soiltest_xml_url":0,"soiltest_view_url":0},{"id":179969,"code":"B4KJ201801006-8218","latitude":"34.9037775","longitude":"135.7499283","source_code":"KK52352680001","project_name":"","survey_name":"\u7b2c\u4e8c\u4eac\u962a\u9053\u8def(\u6771\u4e00\u53e3\u5730\u533a)\u5730\u8cea\u8abf\u67fb\u4f5c\u696d","client_name":"\u56fd\u571f\u4ea4\u901a\u7701\u8fd1\u757f\u5730\u65b9\u6574\u5099\u5c40\u4eac\u90fd\u56fd\u9053\u4e8b\u52d9\u6240","boring_xml_url":40,"boring_view_url":1,"soilmap_view_url":null,"soiltest_xml_url":0,"soiltest_view_url":0},{"id":179968,"code":"B4KJ201801006-8217","latitude":"34.895419","longitude":"135.802481","source_code":"KK52352674023","project_name":"","survey_name":"\u5e73\u621011\u5e74\u5ea6 \u5b87\u6cbb\u5ddd\u6cb3\u5ddd\u5824\u9632\u6d78\u900f\u306b\u5bfe\u3059\u308b\u8a73\u7d30\u70b9\u691c\u696d\u52d9","client_name":"\u56fd\u571f\u4ea4\u901a\u7701\u8fd1\u757f\u5730\u65b9\u6574\u5099\u5c40\u6dc0\u5ddd\u6cb3\u5ddd\u4e8b\u52d9\u6240","boring_xml_url":40,"boring_view_url":1,"soilmap_view_url":null,"soiltest_xml_url":0,"soiltest_view_url":0},{"id":179967,"code":"B4KJ201801006-8216","latitude":"34.895753","longitude":"135.802064","source_code":"KK52352674022","project_name":"","survey_name":"\u5e73\u621011\u5e74\u5ea6 \u5b87\u6cbb\u5ddd\u6cb3\u5ddd\u5824\u9632\u6d78\u900f\u306b\u5bfe\u3059\u308b\u8a73\u7d30\u70b9\u691c\u696d\u52d9","client_name":"\u56fd\u571f\u4ea4\u901a\u7701\u8fd1\u757f\u5730\u65b9\u6574\u5099\u5c40\u6dc0\u5ddd\u6cb3\u5ddd\u4e8b\u52d9\u6240","boring_xml_url":40,"boring_view_url":1,"soilmap_view_url":null,"soiltest_xml_url":0,"soiltest_view_url":0},{"id":179966,"code":"B4KJ201801006-8215","latitude":"34.8994458","longitude":"135.801785","source_code":"KK52352674017","project_name":"","survey_name":"\u6c34\u7121\u702c\u30fb\u8eca\u7530\u5730\u533a\u571f\u8cea\u8abf\u67fb\u4f5c\u696d","client_name":"\u56fd\u571f\u4ea4\u901a\u7701\u8fd1\u757f\u5730\u65b9\u6574\u5099\u5c40\u6dc0\u5ddd\u6cb3\u5ddd\u4e8b\u52d9\u6240","boring_xml_url":40,"boring_view_url":1,"soilmap_view_url":null,"soiltest_xml_url":0,"soiltest_view_url":0}]}}