{"header":{"xyz":{"source":[],"mosaic":false},"page":4693,"raw":{"soiltest_result":"0","bbox":"57.598333,109.544722,1.933333,163.806111","page":"4693"},"conditions":{"soiltest_result":0,"north":57.598333,"west":109.544722,"south":1.933333,"east":163.806111},"success":true,"message":""},"data":{"meta":{"total":212844,"page":4693,"pages":7095,"count":30},"values":[{"id":179785,"code":"B4KJ201801006-8034","latitude":"34.906111","longitude":"135.717708","source_code":"KK52352587007","project_name":"","survey_name":"\u6dc0\u5ddd\u5824\u9632\u8abf\u67fb\u691c\u8a0e(\u305d\u306e4)\u696d\u52d9","client_name":"\u56fd\u571f\u4ea4\u901a\u7701\u8fd1\u757f\u5730\u65b9\u6574\u5099\u5c40\u6dc0\u5ddd\u6cb3\u5ddd\u4e8b\u52d9\u6240","boring_xml_url":40,"boring_view_url":1,"soilmap_view_url":null,"soiltest_xml_url":0,"soiltest_view_url":0},{"id":179784,"code":"B4KJ201801006-8033","latitude":"34.905639","longitude":"135.714097","source_code":"KK52352587006","project_name":"","survey_name":"\u6dc0\u5ddd\u5824\u9632\u8abf\u67fb\u691c\u8a0e(\u305d\u306e4)\u696d\u52d9","client_name":"\u56fd\u571f\u4ea4\u901a\u7701\u8fd1\u757f\u5730\u65b9\u6574\u5099\u5c40\u6dc0\u5ddd\u6cb3\u5ddd\u4e8b\u52d9\u6240","boring_xml_url":40,"boring_view_url":1,"soilmap_view_url":null,"soiltest_xml_url":0,"soiltest_view_url":0},{"id":179783,"code":"B4KJ201801006-8032","latitude":"34.904528","longitude":"135.715208","source_code":"KK52352587005","project_name":"","survey_name":"\u6dc0\u5ddd\u5824\u9632\u8abf\u67fb\u691c\u8a0e(\u305d\u306e4)\u696d\u52d9","client_name":"\u56fd\u571f\u4ea4\u901a\u7701\u8fd1\u757f\u5730\u65b9\u6574\u5099\u5c40\u6dc0\u5ddd\u6cb3\u5ddd\u4e8b\u52d9\u6240","boring_xml_url":40,"boring_view_url":1,"soilmap_view_url":null,"soiltest_xml_url":0,"soiltest_view_url":0},{"id":179782,"code":"B4KJ201801006-8031","latitude":"34.908165","longitude":"135.7172367","source_code":"KK52352587004","project_name":"","survey_name":"\u516b\u5e61\u30fb\u7fbd\u6771\u5e2b\u5730\u533a\u571f\u8cea\u8abf\u67fb\u4f5c\u696d","client_name":"\u56fd\u571f\u4ea4\u901a\u7701\u8fd1\u757f\u5730\u65b9\u6574\u5099\u5c40\u6dc0\u5ddd\u6cb3\u5ddd\u4e8b\u52d9\u6240","boring_xml_url":40,"boring_view_url":1,"soilmap_view_url":null,"soiltest_xml_url":0,"soiltest_view_url":0},{"id":179781,"code":"B4KJ201801006-8030","latitude":"34.909803","longitude":"135.717569","source_code":"KK52352587003","project_name":"","survey_name":"\u516b\u5e61\u30fb\u7fbd\u6771\u5e2b\u5730\u533a\u571f\u8cea\u8abf\u67fb\u4f5c\u696d","client_name":"\u56fd\u571f\u4ea4\u901a\u7701\u8fd1\u757f\u5730\u65b9\u6574\u5099\u5c40\u6dc0\u5ddd\u6cb3\u5ddd\u4e8b\u52d9\u6240","boring_xml_url":40,"boring_view_url":1,"soilmap_view_url":null,"soiltest_xml_url":0,"soiltest_view_url":0},{"id":179780,"code":"B4KJ201801006-8029","latitude":"34.9051931","longitude":"135.7165981","source_code":"KK52352587002","project_name":"","survey_name":"\u6dc0\u5ddd\u5824\u9632\u8abf\u67fb\u691c\u8a0e(\u305d\u306e4)\u696d\u52d9","client_name":"\u56fd\u571f\u4ea4\u901a\u7701\u8fd1\u757f\u5730\u65b9\u6574\u5099\u5c40\u6dc0\u5ddd\u6cb3\u5ddd\u4e8b\u52d9\u6240","boring_xml_url":40,"boring_view_url":1,"soilmap_view_url":null,"soiltest_xml_url":0,"soiltest_view_url":0},{"id":179779,"code":"B4KJ201801006-8028","latitude":"34.906556","longitude":"135.718264","source_code":"KK52352587001","project_name":"","survey_name":"\u6dc0\u5ddd\u5824\u9632\u8abf\u67fb\u691c\u8a0e(\u305d\u306e4)\u696d\u52d9","client_name":"\u56fd\u571f\u4ea4\u901a\u7701\u8fd1\u757f\u5730\u65b9\u6574\u5099\u5c40\u6dc0\u5ddd\u6cb3\u5ddd\u4e8b\u52d9\u6240","boring_xml_url":40,"boring_view_url":1,"soilmap_view_url":null,"soiltest_xml_url":0,"soiltest_view_url":0},{"id":179778,"code":"B4KJ201801006-8027","latitude":"34.904028","longitude":"135.703489","source_code":"KK52352586012","project_name":"","survey_name":"\u5e73\u621011\u5e74\u5ea6\u6842\u5ddd\u6cb3\u5ddd\u5824\u9632\u6d78\u900f\u306b\u5bfe\u3059\u308b\u8a73\u7d30\u70b9\u691c\u696d\u52d9","client_name":"\u56fd\u571f\u4ea4\u901a\u7701\u8fd1\u757f\u5730\u65b9\u6574\u5099\u5c40\u6dc0\u5ddd\u6cb3\u5ddd\u4e8b\u52d9\u6240","boring_xml_url":40,"boring_view_url":1,"soilmap_view_url":null,"soiltest_xml_url":0,"soiltest_view_url":0},{"id":179777,"code":"B4KJ201801006-8026","latitude":"34.9038042","longitude":"135.7037103","source_code":"KK52352586011","project_name":"","survey_name":"\u5e73\u621011\u5e74\u5ea6\u6842\u5ddd\u6cb3\u5ddd\u5824\u9632\u6d78\u900f\u306b\u5bfe\u3059\u308b\u8a73\u7d30\u70b9\u691c\u696d\u52d9","client_name":"\u56fd\u571f\u4ea4\u901a\u7701\u8fd1\u757f\u5730\u65b9\u6574\u5099\u5c40\u6dc0\u5ddd\u6cb3\u5ddd\u4e8b\u52d9\u6240","boring_xml_url":40,"boring_view_url":1,"soilmap_view_url":null,"soiltest_xml_url":0,"soiltest_view_url":0},{"id":179776,"code":"B4KJ201801006-8025","latitude":"34.905415","longitude":"135.6985439","source_code":"KK52352586005","project_name":"","survey_name":"\u4eac\u90fd\u7b2c\u4e8c\u5916\u74b0\u72b6\u9053\u8def\u5730\u8cea\u8abf\u67fb(\u305d\u306e7)\u4f5c\u696d","client_name":"\u56fd\u571f\u4ea4\u901a\u7701\u8fd1\u757f\u5730\u65b9\u6574\u5099\u5c40\u4eac\u90fd\u56fd\u9053\u4e8b\u52d9\u6240","boring_xml_url":40,"boring_view_url":1,"soilmap_view_url":null,"soiltest_xml_url":0,"soiltest_view_url":0},{"id":179775,"code":"B4KJ201801006-8024","latitude":"34.9049708","longitude":"135.7093764","source_code":"KK52352586004","project_name":"","survey_name":"\u6dc0\u5ddd\u5824\u9632\u8abf\u67fb\u691c\u8a0e(\u305d\u306e4)\u696d\u52d9","client_name":"\u56fd\u571f\u4ea4\u901a\u7701\u8fd1\u757f\u5730\u65b9\u6574\u5099\u5c40\u6dc0\u5ddd\u6cb3\u5ddd\u4e8b\u52d9\u6240","boring_xml_url":40,"boring_view_url":1,"soilmap_view_url":null,"soiltest_xml_url":0,"soiltest_view_url":0},{"id":179774,"code":"B4KJ201801006-8023","latitude":"34.904056","longitude":"135.704378","source_code":"KK52352586003","project_name":"","survey_name":"\u6dc0\u5ddd\u5824\u9632\u8abf\u67fb\u691c\u8a0e(\u305d\u306e4)\u696d\u52d9","client_name":"\u56fd\u571f\u4ea4\u901a\u7701\u8fd1\u757f\u5730\u65b9\u6574\u5099\u5c40\u6dc0\u5ddd\u6cb3\u5ddd\u4e8b\u52d9\u6240","boring_xml_url":40,"boring_view_url":1,"soilmap_view_url":null,"soiltest_xml_url":0,"soiltest_view_url":0},{"id":179773,"code":"B4KJ201801006-8022","latitude":"34.9090814","longitude":"135.7049322","source_code":"KK52352586002","project_name":"","survey_name":"\u5c0f\u7551\u6a4b\u67b6\u66ff\u571f\u8cea\u8abf\u67fb\u4f5c\u696d","client_name":"\u56fd\u571f\u4ea4\u901a\u7701\u8fd1\u757f\u5730\u65b9\u6574\u5099\u5c40\u4eac\u90fd\u56fd\u9053\u4e8b\u52d9\u6240","boring_xml_url":40,"boring_view_url":1,"soilmap_view_url":null,"soiltest_xml_url":0,"soiltest_view_url":0},{"id":179772,"code":"B4KJ201801006-8021","latitude":"34.9083036","longitude":"135.7040989","source_code":"KK52352586001","project_name":"","survey_name":"\u5c0f\u7551\u6a4b\u67b6\u66ff\u571f\u8cea\u8abf\u67fb\u4f5c\u696d","client_name":"\u56fd\u571f\u4ea4\u901a\u7701\u8fd1\u757f\u5730\u65b9\u6574\u5099\u5c40\u4eac\u90fd\u56fd\u9053\u4e8b\u52d9\u6240","boring_xml_url":40,"boring_view_url":1,"soilmap_view_url":null,"soiltest_xml_url":0,"soiltest_view_url":0},{"id":179771,"code":"B4KJ201801006-8020","latitude":"34.9098864","longitude":"135.6910444","source_code":"KK52352585007","project_name":"","survey_name":"\u4eac\u90fd\u7b2c\u4e8c\u5916\u74b0\u72b6\u9053\u8def\u5730\u8cea\u8abf\u67fb(\u305d\u306e9)\u696d\u52d9","client_name":"\u56fd\u571f\u4ea4\u901a\u7701\u8fd1\u757f\u5730\u65b9\u6574\u5099\u5c40\u4eac\u90fd\u56fd\u9053\u4e8b\u52d9\u6240","boring_xml_url":40,"boring_view_url":1,"soilmap_view_url":null,"soiltest_xml_url":0,"soiltest_view_url":0},{"id":179770,"code":"B4KJ201801006-8019","latitude":"34.9087756","longitude":"135.6910444","source_code":"KK52352585006","project_name":"","survey_name":"\u4eac\u90fd\u7b2c\u4e8c\u5916\u74b0\u72b6\u9053\u8def\u5730\u8cea\u8abf\u67fb(\u305d\u306e9)\u696d\u52d9","client_name":"\u56fd\u571f\u4ea4\u901a\u7701\u8fd1\u757f\u5730\u65b9\u6574\u5099\u5c40\u4eac\u90fd\u56fd\u9053\u4e8b\u52d9\u6240","boring_xml_url":40,"boring_view_url":1,"soilmap_view_url":null,"soiltest_xml_url":0,"soiltest_view_url":0},{"id":179769,"code":"B4KJ201801006-8018","latitude":"34.9043039","longitude":"135.6963219","source_code":"KK52352585005","project_name":"","survey_name":"\u4eac\u90fd\u7b2c\u4e8c\u5916\u74b0\u72b6\u9053\u8def\u5730\u8cea\u8abf\u67fb(\u305d\u306e7)\u4f5c\u696d","client_name":"\u56fd\u571f\u4ea4\u901a\u7701\u8fd1\u757f\u5730\u65b9\u6574\u5099\u5c40\u4eac\u90fd\u56fd\u9053\u4e8b\u52d9\u6240","boring_xml_url":40,"boring_view_url":1,"soilmap_view_url":null,"soiltest_xml_url":0,"soiltest_view_url":0},{"id":179768,"code":"B4KJ201801006-8017","latitude":"34.9036094","longitude":"135.6954886","source_code":"KK52352585004","project_name":"","survey_name":"\u4eac\u90fd\u7b2c\u4e8c\u5916\u74b0\u72b6\u9053\u8def\u5730\u8cea\u8abf\u67fb(\u305d\u306e7)\u4f5c\u696d","client_name":"\u56fd\u571f\u4ea4\u901a\u7701\u8fd1\u757f\u5730\u65b9\u6574\u5099\u5c40\u4eac\u90fd\u56fd\u9053\u4e8b\u52d9\u6240","boring_xml_url":40,"boring_view_url":1,"soilmap_view_url":null,"soiltest_xml_url":0,"soiltest_view_url":0},{"id":179767,"code":"B4KJ201801006-8016","latitude":"34.9045261","longitude":"135.6943778","source_code":"KK52352585003","project_name":"","survey_name":"\u4eac\u90fd\u7b2c\u4e8c\u5916\u74b0\u72b6\u9053\u8def\u5730\u8cea\u8abf\u67fb(\u305d\u306e7)\u4f5c\u696d","client_name":"\u56fd\u571f\u4ea4\u901a\u7701\u8fd1\u757f\u5730\u65b9\u6574\u5099\u5c40\u4eac\u90fd\u56fd\u9053\u4e8b\u52d9\u6240","boring_xml_url":40,"boring_view_url":1,"soilmap_view_url":null,"soiltest_xml_url":0,"soiltest_view_url":0},{"id":179766,"code":"B4KJ201801006-8015","latitude":"34.9063314","longitude":"135.6929889","source_code":"KK52352585002","project_name":"","survey_name":"\u4eac\u90fd\u7b2c\u4e8c\u5916\u74b0\u72b6\u9053\u8def\u5730\u8cea\u8abf\u67fb(\u305d\u306e7)\u4f5c\u696d","client_name":"\u56fd\u571f\u4ea4\u901a\u7701\u8fd1\u757f\u5730\u65b9\u6574\u5099\u5c40\u4eac\u90fd\u56fd\u9053\u4e8b\u52d9\u6240","boring_xml_url":40,"boring_view_url":1,"soilmap_view_url":null,"soiltest_xml_url":0,"soiltest_view_url":0},{"id":179765,"code":"B4KJ201801006-8014","latitude":"34.9050261","longitude":"135.6965997","source_code":"KK52352585001","project_name":"","survey_name":"\u5c0f\u7551\u6a4b\u67b6\u66ff\u571f\u8cea\u8abf\u67fb\u4f5c\u696d","client_name":"\u56fd\u571f\u4ea4\u901a\u7701\u8fd1\u757f\u5730\u65b9\u6574\u5099\u5c40\u4eac\u90fd\u56fd\u9053\u4e8b\u52d9\u6240","boring_xml_url":40,"boring_view_url":1,"soilmap_view_url":null,"soiltest_xml_url":0,"soiltest_view_url":0},{"id":179764,"code":"B4KJ201801006-8013","latitude":"34.8991667","longitude":"135.7398739","source_code":"KK52352579010","project_name":"","survey_name":"\u4eac\u90fd\u7b2c\u4e8c\u5916\u74b0\u72b6\u9053\u8def\u5730\u8cea\u8abf\u67fb(\u305d\u306e3)\u4f5c\u696d","client_name":"\u56fd\u571f\u4ea4\u901a\u7701\u8fd1\u757f\u5730\u65b9\u6574\u5099\u5c40\u4eac\u90fd\u56fd\u9053\u4e8b\u52d9\u6240","boring_xml_url":40,"boring_view_url":1,"soilmap_view_url":null,"soiltest_xml_url":0,"soiltest_view_url":0},{"id":179763,"code":"B4KJ201801006-8012","latitude":"34.900806","longitude":"135.737458","source_code":"KK52352579008","project_name":"","survey_name":"\u4eac\u90fd\u7b2c\u4e8c\u5916\u74b0\u72b6\u9053\u8def\u5730\u8cea\u8abf\u67fb(\u305d\u306e3)\u4f5c\u696d","client_name":"\u56fd\u571f\u4ea4\u901a\u7701\u8fd1\u757f\u5730\u65b9\u6574\u5099\u5c40\u4eac\u90fd\u56fd\u9053\u4e8b\u52d9\u6240","boring_xml_url":40,"boring_view_url":1,"soilmap_view_url":null,"soiltest_xml_url":0,"soiltest_view_url":0},{"id":179762,"code":"B4KJ201801006-8011","latitude":"34.9005553","longitude":"135.7352075","source_code":"KK52352579007","project_name":"","survey_name":"\u4eac\u90fd\u7b2c\u4e8c\u5916\u74b0\u72b6\u9053\u8def\u5730\u8cea\u8abf\u67fb(\u305d\u306e3)\u4f5c\u696d","client_name":"\u56fd\u571f\u4ea4\u901a\u7701\u8fd1\u757f\u5730\u65b9\u6574\u5099\u5c40\u4eac\u90fd\u56fd\u9053\u4e8b\u52d9\u6240","boring_xml_url":40,"boring_view_url":1,"soilmap_view_url":null,"soiltest_xml_url":0,"soiltest_view_url":0},{"id":179761,"code":"B4KJ201801006-8010","latitude":"34.9029439","longitude":"135.7349297","source_code":"KK52352579006","project_name":"","survey_name":"\u6dc0\u5ddd\u5824\u9632\u8abf\u67fb\u691c\u8a0e(\u305d\u306e4)\u696d\u52d9","client_name":"\u56fd\u571f\u4ea4\u901a\u7701\u8fd1\u757f\u5730\u65b9\u6574\u5099\u5c40\u6dc0\u5ddd\u6cb3\u5ddd\u4e8b\u52d9\u6240","boring_xml_url":40,"boring_view_url":1,"soilmap_view_url":null,"soiltest_xml_url":0,"soiltest_view_url":0},{"id":179760,"code":"B4KJ201801006-8009","latitude":"34.8975281","longitude":"135.7471233","source_code":"KK52352579005","project_name":"","survey_name":"\u4eac\u6ecbB\u30fbP\u4e45\u5fa1\u5c71\u5730\u533a\u571f\u8cea\u8abf\u67fb\u4f5c\u696d","client_name":"\u56fd\u571f\u4ea4\u901a\u7701\u8fd1\u757f\u5730\u65b9\u6574\u5099\u5c40\u4eac\u90fd\u56fd\u9053\u4e8b\u52d9\u6240","boring_xml_url":40,"boring_view_url":1,"soilmap_view_url":null,"soiltest_xml_url":0,"soiltest_view_url":0},{"id":179759,"code":"B4KJ201801006-8008","latitude":"34.8979725","longitude":"135.7469844","source_code":"KK52352579004","project_name":"","survey_name":"\u4eac\u6ecbB\u30fbP\u4e45\u5fa1\u5c71\u5730\u533a\u571f\u8cea\u8abf\u67fb\u4f5c\u696d","client_name":"\u56fd\u571f\u4ea4\u901a\u7701\u8fd1\u757f\u5730\u65b9\u6574\u5099\u5c40\u4eac\u90fd\u56fd\u9053\u4e8b\u52d9\u6240","boring_xml_url":40,"boring_view_url":1,"soilmap_view_url":null,"soiltest_xml_url":0,"soiltest_view_url":0},{"id":179758,"code":"B4KJ201801006-8007","latitude":"34.9003056","longitude":"135.7442622","source_code":"KK52352579003","project_name":"","survey_name":"\u7267\u65b9\u30d0\u30a4\u30d1\u30b9\u571f\u8cea\u8abf\u67fb\u4f5c\u696d","client_name":"\u56fd\u571f\u4ea4\u901a\u7701\u8fd1\u757f\u5730\u65b9\u6574\u5099\u5c40\u4eac\u90fd\u56fd\u9053\u4e8b\u52d9\u6240","boring_xml_url":40,"boring_view_url":1,"soilmap_view_url":null,"soiltest_xml_url":0,"soiltest_view_url":0},{"id":179757,"code":"B4KJ201801006-8006","latitude":"34.8996944","longitude":"135.7443733","source_code":"KK52352579002","project_name":"","survey_name":"\u7267\u65b9\u30d0\u30a4\u30d1\u30b9\u571f\u8cea\u8abf\u67fb\u4f5c\u696d","client_name":"\u56fd\u571f\u4ea4\u901a\u7701\u8fd1\u757f\u5730\u65b9\u6574\u5099\u5c40\u4eac\u90fd\u56fd\u9053\u4e8b\u52d9\u6240","boring_xml_url":40,"boring_view_url":1,"soilmap_view_url":null,"soiltest_xml_url":0,"soiltest_view_url":0},{"id":179756,"code":"B4KJ201801006-8005","latitude":"34.8972781","longitude":"135.7441236","source_code":"KK52352579001","project_name":"","survey_name":"\u7267\u65b9\u30d0\u30a4\u30d1\u30b9\u571f\u8cea\u8abf\u67fb\u4f5c\u696d","client_name":"\u56fd\u571f\u4ea4\u901a\u7701\u8fd1\u757f\u5730\u65b9\u6574\u5099\u5c40\u4eac\u90fd\u56fd\u9053\u4e8b\u52d9\u6240","boring_xml_url":40,"boring_view_url":1,"soilmap_view_url":null,"soiltest_xml_url":0,"soiltest_view_url":0}]}}