{"header":{"xyz":{"source":[],"mosaic":false},"page":4706,"raw":{"soiltest_result":"0","bbox":"57.598333,109.544722,1.933333,163.806111","page":"4706"},"conditions":{"soiltest_result":0,"north":57.598333,"west":109.544722,"south":1.933333,"east":163.806111},"success":true,"message":""},"data":{"meta":{"total":212844,"page":4706,"pages":7095,"count":30},"values":[{"id":179395,"code":"B4KJ201801006-7644","latitude":"34.8526717","longitude":"135.733515","source_code":"KK52352518004","project_name":"","survey_name":"\u4eac\u90fd\u5357\u9053\u8def4\u5de5\u533a\u6771\u5730\u8cea\u8abf\u67fb\u696d\u52d9","client_name":"\u56fd\u571f\u4ea4\u901a\u7701\u8fd1\u757f\u5730\u65b9\u6574\u5099\u5c40\u6d6a\u901f\u56fd\u9053\u4e8b\u52d9\u6240","boring_xml_url":40,"boring_view_url":1,"soilmap_view_url":null,"soiltest_xml_url":0,"soiltest_view_url":0},{"id":179394,"code":"B4KJ201801006-7643","latitude":"34.8515886","longitude":"135.7318483","source_code":"KK52352518003","project_name":"","survey_name":"\u7b2c\u4e8c\u4eac\u962a\u9053\u8def(\u4eac\u90fd\u5e9c\u57ce)\u571f\u8cea\u5730\u8cea\u8abf\u67fb\u4f5c\u696d","client_name":"\u56fd\u571f\u4ea4\u901a\u7701\u8fd1\u757f\u5730\u65b9\u6574\u5099\u5c40\u6d6a\u901f\u56fd\u9053\u4e8b\u52d9\u6240","boring_xml_url":40,"boring_view_url":1,"soilmap_view_url":null,"soiltest_xml_url":0,"soiltest_view_url":0},{"id":179393,"code":"B4KJ201801006-7642","latitude":"34.8501164","longitude":"135.7302097","source_code":"KK52352518002","project_name":"","survey_name":"\u7b2c\u4e8c\u4eac\u962a\u9053\u8def(\u4eac\u90fd\u5e9c\u57ce)\u571f\u8cea\u5730\u8cea\u8abf\u67fb\u4f5c\u696d","client_name":"\u56fd\u571f\u4ea4\u901a\u7701\u8fd1\u757f\u5730\u65b9\u6574\u5099\u5c40\u6d6a\u901f\u56fd\u9053\u4e8b\u52d9\u6240","boring_xml_url":40,"boring_view_url":1,"soilmap_view_url":null,"soiltest_xml_url":0,"soiltest_view_url":0},{"id":179392,"code":"B4KJ201801006-7641","latitude":"34.8471167","longitude":"135.7268769","source_code":"KK52352518001","project_name":"","survey_name":"\u7b2c\u4e8c\u4eac\u962a\u9053\u8def(\u4eac\u90fd\u5e9c\u57ce)\u571f\u8cea\u5730\u8cea(\u305d\u306e2)\u8abf\u67fb\u4f5c\u696d","client_name":"\u56fd\u571f\u4ea4\u901a\u7701\u8fd1\u757f\u5730\u65b9\u6574\u5099\u5c40\u6d6a\u901f\u56fd\u9053\u4e8b\u52d9\u6240","boring_xml_url":40,"boring_view_url":1,"soilmap_view_url":null,"soiltest_xml_url":0,"soiltest_view_url":0},{"id":179391,"code":"B4KJ201801006-7640","latitude":"34.8473094","longitude":"135.659855","source_code":"KK52352513002","project_name":"","survey_name":"\u51fa\u53e3.\u7267\u91ce\u5730\u533a\u5de5\u4e8b\u7528\u571f\u8cea\u8abf\u67fb\u53ca\u3073\u6e2c\u91cf\u4f5c\u696d","client_name":"\u56fd\u571f\u4ea4\u901a\u7701\u8fd1\u757f\u5730\u65b9\u6574\u5099\u5c40\u6dc0\u5ddd\u6cb3\u5ddd\u4e8b\u52d9\u6240","boring_xml_url":40,"boring_view_url":1,"soilmap_view_url":null,"soiltest_xml_url":0,"soiltest_view_url":0},{"id":179390,"code":"B4KJ201801006-7639","latitude":"34.8480039","longitude":"135.6613269","source_code":"KK52352513001","project_name":"","survey_name":"\u51fa\u53e3.\u7267\u91ce\u5730\u533a\u5de5\u4e8b\u7528\u571f\u8cea\u8abf\u67fb\u53ca\u3073\u6e2c\u91cf\u4f5c\u696d","client_name":"\u56fd\u571f\u4ea4\u901a\u7701\u8fd1\u757f\u5730\u65b9\u6574\u5099\u5c40\u6dc0\u5ddd\u6cb3\u5ddd\u4e8b\u52d9\u6240","boring_xml_url":40,"boring_view_url":1,"soilmap_view_url":null,"soiltest_xml_url":0,"soiltest_view_url":0},{"id":179389,"code":"B4KJ201801006-7638","latitude":"34.8499481","longitude":"135.6511333","source_code":"KK52352512022","project_name":"","survey_name":"\u679a\u65b9\u5730\u533a\u571f\u8cea\u8abf\u67fb\u4f5c\u696d","client_name":"\u56fd\u571f\u4ea4\u901a\u7701\u8fd1\u757f\u5730\u65b9\u6574\u5099\u5c40\u6dc0\u5ddd\u6cb3\u5ddd\u4e8b\u52d9\u6240","boring_xml_url":40,"boring_view_url":1,"soilmap_view_url":null,"soiltest_xml_url":0,"soiltest_view_url":0},{"id":179388,"code":"B4KJ201801006-7637","latitude":"34.849981","longitude":"135.650044","source_code":"KK52352512021","project_name":"","survey_name":"\u524d\u5cf6\u5730\u5148\u571f\u8cea\u8abf\u67fb","client_name":"\u56fd\u571f\u4ea4\u901a\u7701\u8fd1\u757f\u5730\u65b9\u6574\u5099\u5c40\u6dc0\u5ddd\u6cb3\u5ddd\u4e8b\u52d9\u6240","boring_xml_url":40,"boring_view_url":1,"soilmap_view_url":null,"soiltest_xml_url":0,"soiltest_view_url":0},{"id":179387,"code":"B4KJ201801006-7636","latitude":"34.851022","longitude":"135.650547","source_code":"KK52352512020","project_name":"","survey_name":"\u524d\u5cf6\u5730\u5148\u571f\u8cea\u8abf\u67fb","client_name":"\u56fd\u571f\u4ea4\u901a\u7701\u8fd1\u757f\u5730\u65b9\u6574\u5099\u5c40\u6dc0\u5ddd\u6cb3\u5ddd\u4e8b\u52d9\u6240","boring_xml_url":40,"boring_view_url":1,"soilmap_view_url":null,"soiltest_xml_url":0,"soiltest_view_url":0},{"id":179386,"code":"B4KJ201801006-7635","latitude":"34.849153","longitude":"135.649736","source_code":"KK52352512019","project_name":"","survey_name":"\u524d\u5cf6\u5730\u5148\u571f\u8cea\u8abf\u67fb","client_name":"\u56fd\u571f\u4ea4\u901a\u7701\u8fd1\u757f\u5730\u65b9\u6574\u5099\u5c40\u6dc0\u5ddd\u6cb3\u5ddd\u4e8b\u52d9\u6240","boring_xml_url":40,"boring_view_url":1,"soilmap_view_url":null,"soiltest_xml_url":0,"soiltest_view_url":0},{"id":179385,"code":"B4KJ201801006-7634","latitude":"34.8514478","longitude":"135.6507722","source_code":"KK52352512018","project_name":"","survey_name":"\u6dc0\u5ddd\u5824\u9632\u8abf\u67fb\u691c\u8a0e(\u305d\u306e4)\u696d\u52d9","client_name":"\u56fd\u571f\u4ea4\u901a\u7701\u8fd1\u757f\u5730\u65b9\u6574\u5099\u5c40\u6dc0\u5ddd\u6cb3\u5ddd\u4e8b\u52d9\u6240","boring_xml_url":40,"boring_view_url":1,"soilmap_view_url":null,"soiltest_xml_url":0,"soiltest_view_url":0},{"id":179384,"code":"B4KJ201801006-7633","latitude":"34.8505589","longitude":"135.6502167","source_code":"KK52352512017","project_name":"","survey_name":"\u6dc0\u5ddd\u5824\u9632\u8abf\u67fb\u691c\u8a0e(\u305d\u306e4)\u696d\u52d9","client_name":"\u56fd\u571f\u4ea4\u901a\u7701\u8fd1\u757f\u5730\u65b9\u6574\u5099\u5c40\u6dc0\u5ddd\u6cb3\u5ddd\u4e8b\u52d9\u6240","boring_xml_url":40,"boring_view_url":1,"soilmap_view_url":null,"soiltest_xml_url":0,"soiltest_view_url":0},{"id":179383,"code":"B4KJ201801006-7632","latitude":"34.8496425","longitude":"135.6499392","source_code":"KK52352512016","project_name":"","survey_name":"\u6dc0\u5ddd\u5824\u9632\u8abf\u67fb\u691c\u8a0e(\u305d\u306e4)\u696d\u52d9","client_name":"\u56fd\u571f\u4ea4\u901a\u7701\u8fd1\u757f\u5730\u65b9\u6574\u5099\u5c40\u6dc0\u5ddd\u6cb3\u5ddd\u4e8b\u52d9\u6240","boring_xml_url":40,"boring_view_url":1,"soilmap_view_url":null,"soiltest_xml_url":0,"soiltest_view_url":0},{"id":179382,"code":"B4KJ201801006-7631","latitude":"34.8489758","longitude":"135.6493836","source_code":"KK52352512014","project_name":"","survey_name":"\u6dc0\u5ddd\u5824\u9632\u8abf\u67fb\u691c\u8a0e(\u305d\u306e4)\u696d\u52d9","client_name":"\u56fd\u571f\u4ea4\u901a\u7701\u8fd1\u757f\u5730\u65b9\u6574\u5099\u5c40\u6dc0\u5ddd\u6cb3\u5ddd\u4e8b\u52d9\u6240","boring_xml_url":40,"boring_view_url":1,"soilmap_view_url":null,"soiltest_xml_url":0,"soiltest_view_url":0},{"id":179381,"code":"B4KJ201801006-7630","latitude":"34.848378","longitude":"135.649442","source_code":"KK52352512013","project_name":"","survey_name":"\u524d\u5cf6\u5730\u5148\u571f\u8cea\u8abf\u67fb","client_name":"\u56fd\u571f\u4ea4\u901a\u7701\u8fd1\u757f\u5730\u65b9\u6574\u5099\u5c40\u6dc0\u5ddd\u6cb3\u5ddd\u4e8b\u52d9\u6240","boring_xml_url":40,"boring_view_url":1,"soilmap_view_url":null,"soiltest_xml_url":0,"soiltest_view_url":0},{"id":179380,"code":"B4KJ201801006-7629","latitude":"34.847622","longitude":"135.6491","source_code":"KK52352512012","project_name":"","survey_name":"\u524d\u5cf6\u5730\u5148\u571f\u8cea\u8abf\u67fb","client_name":"\u56fd\u571f\u4ea4\u901a\u7701\u8fd1\u757f\u5730\u65b9\u6574\u5099\u5c40\u6dc0\u5ddd\u6cb3\u5ddd\u4e8b\u52d9\u6240","boring_xml_url":40,"boring_view_url":1,"soilmap_view_url":null,"soiltest_xml_url":0,"soiltest_view_url":0},{"id":179379,"code":"B4KJ201801006-7628","latitude":"34.8476147","longitude":"135.6491058","source_code":"KK52352512011","project_name":"","survey_name":"\u6dc0\u5ddd\u5824\u9632\u8abf\u67fb\u691c\u8a0e(\u305d\u306e4)\u696d\u52d9","client_name":"\u56fd\u571f\u4ea4\u901a\u7701\u8fd1\u757f\u5730\u65b9\u6574\u5099\u5c40\u6dc0\u5ddd\u6cb3\u5ddd\u4e8b\u52d9\u6240","boring_xml_url":40,"boring_view_url":1,"soilmap_view_url":null,"soiltest_xml_url":0,"soiltest_view_url":0},{"id":179378,"code":"B4KJ201801006-7627","latitude":"34.8464761","longitude":"135.6485503","source_code":"KK52352512010","project_name":"","survey_name":"\u6dc0\u5ddd\u5824\u9632\u8abf\u67fb\u691c\u8a0e(\u305d\u306e4)\u696d\u52d9","client_name":"\u56fd\u571f\u4ea4\u901a\u7701\u8fd1\u757f\u5730\u65b9\u6574\u5099\u5c40\u6dc0\u5ddd\u6cb3\u5ddd\u4e8b\u52d9\u6240","boring_xml_url":40,"boring_view_url":1,"soilmap_view_url":null,"soiltest_xml_url":0,"soiltest_view_url":0},{"id":179377,"code":"B4KJ201801006-7626","latitude":"34.845365","longitude":"135.647995","source_code":"KK52352512009","project_name":"","survey_name":"\u6dc0\u5ddd\u5824\u9632\u8abf\u67fb\u691c\u8a0e(\u305d\u306e4)\u696d\u52d9","client_name":"\u56fd\u571f\u4ea4\u901a\u7701\u8fd1\u757f\u5730\u65b9\u6574\u5099\u5c40\u6dc0\u5ddd\u6cb3\u5ddd\u4e8b\u52d9\u6240","boring_xml_url":40,"boring_view_url":1,"soilmap_view_url":null,"soiltest_xml_url":0,"soiltest_view_url":0},{"id":179376,"code":"B4KJ201801006-7625","latitude":"34.846833","longitude":"135.648797","source_code":"KK52352512006","project_name":"","survey_name":"\u524d\u5cf6\u5730\u5148\u571f\u8cea\u8abf\u67fb","client_name":"\u56fd\u571f\u4ea4\u901a\u7701\u8fd1\u757f\u5730\u65b9\u6574\u5099\u5c40\u6dc0\u5ddd\u6cb3\u5ddd\u4e8b\u52d9\u6240","boring_xml_url":40,"boring_view_url":1,"soilmap_view_url":null,"soiltest_xml_url":0,"soiltest_view_url":0},{"id":179375,"code":"B4KJ201801006-7624","latitude":"34.845994","longitude":"135.648439","source_code":"KK52352512005","project_name":"","survey_name":"\u524d\u5cf6\u5730\u5148\u571f\u8cea\u8abf\u67fb","client_name":"\u56fd\u571f\u4ea4\u901a\u7701\u8fd1\u757f\u5730\u65b9\u6574\u5099\u5c40\u6dc0\u5ddd\u6cb3\u5ddd\u4e8b\u52d9\u6240","boring_xml_url":40,"boring_view_url":1,"soilmap_view_url":null,"soiltest_xml_url":0,"soiltest_view_url":0},{"id":179374,"code":"B4KJ201801006-7623","latitude":"34.845122","longitude":"135.648003","source_code":"KK52352512004","project_name":"","survey_name":"\u524d\u5cf6\u5730\u5148\u571f\u8cea\u8abf\u67fb","client_name":"\u56fd\u571f\u4ea4\u901a\u7701\u8fd1\u757f\u5730\u65b9\u6574\u5099\u5c40\u6dc0\u5ddd\u6cb3\u5ddd\u4e8b\u52d9\u6240","boring_xml_url":40,"boring_view_url":1,"soilmap_view_url":null,"soiltest_xml_url":0,"soiltest_view_url":0},{"id":179373,"code":"B4KJ201801006-7622","latitude":"34.8490592","longitude":"135.6534108","source_code":"KK52352512003","project_name":"","survey_name":"\u6dc0\u5ddd\u5824\u9632\u8abf\u67fb\u691c\u8a0e(\u305d\u306e4)\u696d\u52d9","client_name":"\u56fd\u571f\u4ea4\u901a\u7701\u8fd1\u757f\u5730\u65b9\u6574\u5099\u5c40\u6dc0\u5ddd\u6cb3\u5ddd\u4e8b\u52d9\u6240","boring_xml_url":40,"boring_view_url":1,"soilmap_view_url":null,"soiltest_xml_url":0,"soiltest_view_url":0},{"id":179372,"code":"B4KJ201801006-7621","latitude":"34.8452264","longitude":"135.6584383","source_code":"KK52352512002","project_name":"","survey_name":"\u51fa\u53e3.\u7267\u91ce\u5730\u533a\u5de5\u4e8b\u7528\u571f\u8cea\u8abf\u67fb\u53ca\u3073\u6e2c\u91cf\u4f5c\u696d","client_name":"\u56fd\u571f\u4ea4\u901a\u7701\u8fd1\u757f\u5730\u65b9\u6574\u5099\u5c40\u6dc0\u5ddd\u6cb3\u5ddd\u4e8b\u52d9\u6240","boring_xml_url":40,"boring_view_url":1,"soilmap_view_url":null,"soiltest_xml_url":0,"soiltest_view_url":0},{"id":179371,"code":"B4KJ201801006-7620","latitude":"34.8461153","longitude":"135.6589939","source_code":"KK52352512001","project_name":"","survey_name":"\u51fa\u53e3.\u7267\u91ce\u5730\u533a\u5de5\u4e8b\u7528\u571f\u8cea\u8abf\u67fb\u53ca\u3073\u6e2c\u91cf\u4f5c\u696d","client_name":"\u56fd\u571f\u4ea4\u901a\u7701\u8fd1\u757f\u5730\u65b9\u6574\u5099\u5c40\u6dc0\u5ddd\u6cb3\u5ddd\u4e8b\u52d9\u6240","boring_xml_url":40,"boring_view_url":1,"soilmap_view_url":null,"soiltest_xml_url":0,"soiltest_view_url":0},{"id":179370,"code":"B4KJ201801006-7619","latitude":"34.8407286","longitude":"135.7284047","source_code":"KK52352508006","project_name":"","survey_name":"\u7b2c\u4e8c\u4eac\u962a\u9053\u8def(\u4eac\u90fd\u5e9c\u5730\u57df)\u677e\u4e95\u5730\u533a\u571f\u8cea\u8abf\u67fb(\u305d\u306e3)\u4f5c\u696d","client_name":"\u56fd\u571f\u4ea4\u901a\u7701\u8fd1\u757f\u5730\u65b9\u6574\u5099\u5c40\u6d6a\u901f\u56fd\u9053\u4e8b\u52d9\u6240","boring_xml_url":40,"boring_view_url":1,"soilmap_view_url":null,"soiltest_xml_url":0,"soiltest_view_url":0},{"id":179369,"code":"B4KJ201801006-7618","latitude":"34.8402564","longitude":"135.7237939","source_code":"KK52352508005","project_name":"","survey_name":"\u7b2c\u4e8c\u4eac\u962a\u9053\u8def\u677e\u4e95\u5730\u533a\u571f\u8cea\u5730\u8cea\u8abf\u67fb\u4f5c\u696d","client_name":"\u56fd\u571f\u4ea4\u901a\u7701\u8fd1\u757f\u5730\u65b9\u6574\u5099\u5c40\u6d6a\u901f\u56fd\u9053\u4e8b\u52d9\u6240","boring_xml_url":40,"boring_view_url":1,"soilmap_view_url":null,"soiltest_xml_url":0,"soiltest_view_url":0},{"id":179368,"code":"B4KJ201801006-7617","latitude":"34.8399508","longitude":"135.7237939","source_code":"KK52352508004","project_name":"","survey_name":"\u7b2c\u4e8c\u4eac\u962a\u9053\u8def\u677e\u4e95\u5730\u533a\u571f\u8cea\u5730\u8cea\u8abf\u67fb\u4f5c\u696d","client_name":"\u56fd\u571f\u4ea4\u901a\u7701\u8fd1\u757f\u5730\u65b9\u6574\u5099\u5c40\u6d6a\u901f\u56fd\u9053\u4e8b\u52d9\u6240","boring_xml_url":40,"boring_view_url":1,"soilmap_view_url":null,"soiltest_xml_url":0,"soiltest_view_url":0},{"id":179367,"code":"B4KJ201801006-7616","latitude":"34.8394508","longitude":"135.7237939","source_code":"KK52352508003","project_name":"","survey_name":"\u7b2c\u4e8c\u4eac\u962a\u9053\u8def\u677e\u4e95\u5730\u533a\u571f\u8cea\u5730\u8cea\u8abf\u67fb\u4f5c\u696d","client_name":"\u56fd\u571f\u4ea4\u901a\u7701\u8fd1\u757f\u5730\u65b9\u6574\u5099\u5c40\u6d6a\u901f\u56fd\u9053\u4e8b\u52d9\u6240","boring_xml_url":40,"boring_view_url":1,"soilmap_view_url":null,"soiltest_xml_url":0,"soiltest_view_url":0},{"id":179366,"code":"B4KJ201801006-7615","latitude":"34.842395","longitude":"135.7235439","source_code":"KK52352508002","project_name":"","survey_name":"\u7b2c\u4e8c\u4eac\u962a\u9053\u8def(\u4eac\u90fd\u5e9c\u57ce)\u571f\u8cea\u5730\u8cea(\u305d\u306e2)\u8abf\u67fb\u4f5c\u696d","client_name":"\u56fd\u571f\u4ea4\u901a\u7701\u8fd1\u757f\u5730\u65b9\u6574\u5099\u5c40\u6d6a\u901f\u56fd\u9053\u4e8b\u52d9\u6240","boring_xml_url":40,"boring_view_url":1,"soilmap_view_url":null,"soiltest_xml_url":0,"soiltest_view_url":0}]}}