{"header":{"xyz":{"source":[],"mosaic":false},"page":4710,"raw":{"soiltest_result":"0","bbox":"57.598333,109.544722,1.933333,163.806111","page":"4710"},"conditions":{"soiltest_result":0,"north":57.598333,"west":109.544722,"south":1.933333,"east":163.806111},"success":true,"message":""},"data":{"meta":{"total":212844,"page":4710,"pages":7095,"count":30},"values":[{"id":179275,"code":"B4KJ201801006-7524","latitude":"34.8801067","longitude":"135.4531775","source_code":"KK52352356019","project_name":"","survey_name":"\u5e73\u621010\u5e74\u5ea6 \u4f59\u91ce\u5ddd\u30c0\u30e0\u539f\u77f3\u5c71\u5730\u8cea\u8abf\u67fb\u304a\u3088\u3073\u89e3\u6790\u696d\u52d9","client_name":"\u56fd\u571f\u4ea4\u901a\u7701\u8fd1\u757f\u5730\u65b9\u6574\u5099\u5c40\u732a\u540d\u5ddd\u6cb3\u5ddd\u4e8b\u52d9\u6240","boring_xml_url":40,"boring_view_url":1,"soilmap_view_url":null,"soiltest_xml_url":0,"soiltest_view_url":0},{"id":179274,"code":"B4KJ201801006-7523","latitude":"34.8847447","longitude":"135.4477056","source_code":"KK52352356018","project_name":"","survey_name":"\u5e73\u621010\u5e74\u5ea6\u4f59\u91ce\u5ddd\u30c0\u30e0\u8caf\u6c34\u6c60\u5468\u8fba\u5730\u8cea\u89e3\u6790\u691c\u8a0e\u696d\u52d9","client_name":"\u56fd\u571f\u4ea4\u901a\u7701\u8fd1\u757f\u5730\u65b9\u6574\u5099\u5c40\u732a\u540d\u5ddd\u7dcf\u5408\u958b\u767a\u5de5\u4e8b\u4e8b\u52d9\u6240","boring_xml_url":40,"boring_view_url":1,"soilmap_view_url":null,"soiltest_xml_url":0,"soiltest_view_url":0},{"id":179273,"code":"B4KJ201801006-7522","latitude":"34.8801067","longitude":"135.4541497","source_code":"KK52352356017","project_name":"","survey_name":"\u5e73\u621010\u5e74\u5ea6 \u4f59\u91ce\u5ddd\u30c0\u30e0\u539f\u77f3\u5c71\u5730\u8cea\u8abf\u67fb\u304a\u3088\u3073\u89e3\u6790\u696d\u52d9","client_name":"\u56fd\u571f\u4ea4\u901a\u7701\u8fd1\u757f\u5730\u65b9\u6574\u5099\u5c40\u732a\u540d\u5ddd\u6cb3\u5ddd\u4e8b\u52d9\u6240","boring_xml_url":40,"boring_view_url":1,"soilmap_view_url":null,"soiltest_xml_url":0,"soiltest_view_url":0},{"id":179272,"code":"B4KJ201801006-7521","latitude":"34.8846336","longitude":"135.4482333","source_code":"KK52352356016","project_name":"","survey_name":"\u5e73\u621010\u5e74\u5ea6\u4f59\u91ce\u5ddd\u30c0\u30e0\u8caf\u6c34\u6c60\u5468\u8fba\u5730\u8cea\u89e3\u6790\u691c\u8a0e\u696d\u52d9","client_name":"\u56fd\u571f\u4ea4\u901a\u7701\u8fd1\u757f\u5730\u65b9\u6574\u5099\u5c40\u732a\u540d\u5ddd\u7dcf\u5408\u958b\u767a\u5de5\u4e8b\u4e8b\u52d9\u6240","boring_xml_url":40,"boring_view_url":1,"soilmap_view_url":null,"soiltest_xml_url":0,"soiltest_view_url":0},{"id":179271,"code":"B4KJ201801006-7520","latitude":"34.879911","longitude":"135.453178","source_code":"KK52352356015","project_name":"","survey_name":"\u5e73\u621010\u5e74\u5ea6 \u4f59\u91ce\u5ddd\u30c0\u30e0\u539f\u77f3\u5c71\u5730\u8cea\u8abf\u67fb\u304a\u3088\u3073\u89e3\u6790\u696d\u52d9","client_name":"\u56fd\u571f\u4ea4\u901a\u7701\u8fd1\u757f\u5730\u65b9\u6574\u5099\u5c40\u732a\u540d\u5ddd\u6cb3\u5ddd\u4e8b\u52d9\u6240","boring_xml_url":40,"boring_view_url":1,"soilmap_view_url":null,"soiltest_xml_url":0,"soiltest_view_url":0},{"id":179270,"code":"B4KJ201801006-7519","latitude":"34.8858836","longitude":"135.4472889","source_code":"KK52352356014","project_name":"","survey_name":"\u5e73\u621010\u5e74\u5ea6\u4f59\u91ce\u5ddd\u30c0\u30e0\u8caf\u6c34\u6c60\u5468\u8fba\u5730\u8cea\u89e3\u6790\u691c\u8a0e\u696d\u52d9","client_name":"\u56fd\u571f\u4ea4\u901a\u7701\u8fd1\u757f\u5730\u65b9\u6574\u5099\u5c40\u732a\u540d\u5ddd\u7dcf\u5408\u958b\u767a\u5de5\u4e8b\u4e8b\u52d9\u6240","boring_xml_url":40,"boring_view_url":1,"soilmap_view_url":null,"soiltest_xml_url":0,"soiltest_view_url":0},{"id":179269,"code":"B4KJ201801006-7518","latitude":"34.8794956","longitude":"135.4531775","source_code":"KK52352356013","project_name":"","survey_name":"\u5e73\u621010\u5e74\u5ea6 \u4f59\u91ce\u5ddd\u30c0\u30e0\u539f\u77f3\u5c71\u5730\u8cea\u8abf\u67fb\u304a\u3088\u3073\u89e3\u6790\u696d\u52d9","client_name":"\u56fd\u571f\u4ea4\u901a\u7701\u8fd1\u757f\u5730\u65b9\u6574\u5099\u5c40\u732a\u540d\u5ddd\u6cb3\u5ddd\u4e8b\u52d9\u6240","boring_xml_url":40,"boring_view_url":1,"soilmap_view_url":null,"soiltest_xml_url":0,"soiltest_view_url":0},{"id":179268,"code":"B4KJ201801006-7517","latitude":"34.8863281","longitude":"135.4477056","source_code":"KK52352356012","project_name":"","survey_name":"\u5e73\u621010\u5e74\u5ea6\u4f59\u91ce\u5ddd\u30c0\u30e0\u8caf\u6c34\u6c60\u5468\u8fba\u5730\u8cea\u89e3\u6790\u691c\u8a0e\u696d\u52d9","client_name":"\u56fd\u571f\u4ea4\u901a\u7701\u8fd1\u757f\u5730\u65b9\u6574\u5099\u5c40\u732a\u540d\u5ddd\u7dcf\u5408\u958b\u767a\u5de5\u4e8b\u4e8b\u52d9\u6240","boring_xml_url":40,"boring_view_url":1,"soilmap_view_url":null,"soiltest_xml_url":0,"soiltest_view_url":0},{"id":179267,"code":"B4KJ201801006-7516","latitude":"34.879689","longitude":"135.453178","source_code":"KK52352356011","project_name":"","survey_name":"\u5e73\u621010\u5e74\u5ea6 \u4f59\u91ce\u5ddd\u30c0\u30e0\u539f\u77f3\u5c71\u5730\u8cea\u8abf\u67fb\u304a\u3088\u3073\u89e3\u6790\u696d\u52d9","client_name":"\u56fd\u571f\u4ea4\u901a\u7701\u8fd1\u757f\u5730\u65b9\u6574\u5099\u5c40\u732a\u540d\u5ddd\u6cb3\u5ddd\u4e8b\u52d9\u6240","boring_xml_url":40,"boring_view_url":1,"soilmap_view_url":null,"soiltest_xml_url":0,"soiltest_view_url":0},{"id":179266,"code":"B4KJ201801006-7515","latitude":"34.8849672","longitude":"135.4530383","source_code":"KK52352356010","project_name":"","survey_name":"\u5e73\u621010\u5e74\u5ea6\u4f59\u91ce\u5ddd\u30c0\u30e0\u8caf\u6c34\u6c60\u5468\u8fba\u5730\u8cea\u89e3\u6790\u691c\u8a0e\u696d\u52d9","client_name":"\u56fd\u571f\u4ea4\u901a\u7701\u8fd1\u757f\u5730\u65b9\u6574\u5099\u5c40\u732a\u540d\u5ddd\u7dcf\u5408\u958b\u767a\u5de5\u4e8b\u4e8b\u52d9\u6240","boring_xml_url":40,"boring_view_url":1,"soilmap_view_url":null,"soiltest_xml_url":0,"soiltest_view_url":0},{"id":179265,"code":"B4KJ201801006-7514","latitude":"34.8793011","longitude":"135.4511778","source_code":"KK52352356009","project_name":"","survey_name":"\u5e73\u621010\u5e74\u5ea6\u4f59\u91ce\u5ddd\u30c0\u30e0\u539f\u77f3\u5c71\u5730\u8cea\u8abf\u67fb\u53ca\u3073\u89e3\u6790\u696d\u52d9","client_name":"\u56fd\u571f\u4ea4\u901a\u7701\u8fd1\u757f\u5730\u65b9\u6574\u5099\u5c40\u732a\u540d\u5ddd\u6cb3\u5ddd\u4e8b\u52d9\u6240","boring_xml_url":40,"boring_view_url":1,"soilmap_view_url":null,"soiltest_xml_url":0,"soiltest_view_url":0},{"id":179264,"code":"B4KJ201801006-7513","latitude":"34.884745","longitude":"135.4533161","source_code":"KK52352356008","project_name":"","survey_name":"\u5e73\u621010\u5e74\u5ea6\u4f59\u91ce\u5ddd\u30c0\u30e0\u8caf\u6c34\u6c60\u5468\u8fba\u5730\u8cea\u89e3\u6790\u691c\u8a0e\u696d\u52d9","client_name":"\u56fd\u571f\u4ea4\u901a\u7701\u8fd1\u757f\u5730\u65b9\u6574\u5099\u5c40\u732a\u540d\u5ddd\u7dcf\u5408\u958b\u767a\u5de5\u4e8b\u4e8b\u52d9\u6240","boring_xml_url":40,"boring_view_url":1,"soilmap_view_url":null,"soiltest_xml_url":0,"soiltest_view_url":0},{"id":179263,"code":"B4KJ201801006-7512","latitude":"34.8784122","longitude":"135.4501778","source_code":"KK52352356007","project_name":"","survey_name":"\u5e73\u621010\u5e74\u5ea6 \u4f59\u91ce\u5ddd\u30c0\u30e0\u539f\u77f3\u5c71\u5730\u8cea\u8abf\u67fb\u304a\u3088\u3073\u89e3\u6790\u696d\u52d9","client_name":"\u56fd\u571f\u4ea4\u901a\u7701\u8fd1\u757f\u5730\u65b9\u6574\u5099\u5c40\u732a\u540d\u5ddd\u6cb3\u5ddd\u4e8b\u52d9\u6240","boring_xml_url":40,"boring_view_url":1,"soilmap_view_url":null,"soiltest_xml_url":0,"soiltest_view_url":0},{"id":179262,"code":"B4KJ201801006-7511","latitude":"34.8811342","longitude":"135.4503167","source_code":"KK52352356006","project_name":"","survey_name":"\u5e73\u621010\u5e74\u5ea6\u4f59\u91ce\u5ddd\u30c0\u30e0\u8caf\u6c34\u6c60\u5468\u8fba\u5730\u8cea\u89e3\u6790\u691c\u8a0e\u696d\u52d9","client_name":"\u56fd\u571f\u4ea4\u901a\u7701\u8fd1\u757f\u5730\u65b9\u6574\u5099\u5c40\u732a\u540d\u5ddd\u7dcf\u5408\u958b\u767a\u5de5\u4e8b\u4e8b\u52d9\u6240","boring_xml_url":40,"boring_view_url":1,"soilmap_view_url":null,"soiltest_xml_url":0,"soiltest_view_url":0},{"id":179261,"code":"B4KJ201801006-7510","latitude":"34.8857728","longitude":"135.4571769","source_code":"KK52352356005","project_name":"","survey_name":"\u5e73\u62106\u5e74\u5ea6\u85e4\u6728\u5ddd\u5730\u8cea\u8abf\u67fb\u4f5c\u696d","client_name":"\u56fd\u571f\u4ea4\u901a\u7701\u8fd1\u757f\u5730\u65b9\u6574\u5099\u5c40\u732a\u540d\u5ddd\u7dcf\u5408\u958b\u767a\u5de5\u4e8b\u4e8b\u52d9\u6240","boring_xml_url":40,"boring_view_url":1,"soilmap_view_url":null,"soiltest_xml_url":0,"soiltest_view_url":0},{"id":179260,"code":"B4KJ201801006-7509","latitude":"34.8841894","longitude":"135.4552328","source_code":"KK52352356003","project_name":"","survey_name":"\u5e73\u62106\u5e74\u5ea6\u85e4\u6728\u5ddd\u5730\u8cea\u8abf\u67fb\u4f5c\u696d","client_name":"\u56fd\u571f\u4ea4\u901a\u7701\u8fd1\u757f\u5730\u65b9\u6574\u5099\u5c40\u732a\u540d\u5ddd\u7dcf\u5408\u958b\u767a\u5de5\u4e8b\u4e8b\u52d9\u6240","boring_xml_url":40,"boring_view_url":1,"soilmap_view_url":null,"soiltest_xml_url":0,"soiltest_view_url":0},{"id":179259,"code":"B4KJ201801006-7508","latitude":"34.8814119","longitude":"135.454955","source_code":"KK52352356002","project_name":"","survey_name":"\u5e73\u62106\u5e74\u5ea6\u85e4\u6728\u5ddd\u5730\u8cea\u8abf\u67fb\u4f5c\u696d","client_name":"\u56fd\u571f\u4ea4\u901a\u7701\u8fd1\u757f\u5730\u65b9\u6574\u5099\u5c40\u732a\u540d\u5ddd\u7dcf\u5408\u958b\u767a\u5de5\u4e8b\u4e8b\u52d9\u6240","boring_xml_url":40,"boring_view_url":1,"soilmap_view_url":null,"soiltest_xml_url":0,"soiltest_view_url":0},{"id":179258,"code":"B4KJ201801006-7507","latitude":"34.8862169","longitude":"135.4510664","source_code":"KK52352356001","project_name":"","survey_name":"\u5de5\u4e8b\u75283\u53f7\u9053\u8def\u8a73\u7d30\u8a2d\u8a08\u696d\u52d9","client_name":"\u56fd\u571f\u4ea4\u901a\u7701\u8fd1\u757f\u5730\u65b9\u6574\u5099\u5c40\u732a\u540d\u5ddd\u7dcf\u5408\u958b\u767a\u5de5\u4e8b\u4e8b\u52d9\u6240","boring_xml_url":40,"boring_view_url":1,"soilmap_view_url":null,"soiltest_xml_url":0,"soiltest_view_url":0},{"id":179257,"code":"B4KJ201801006-7506","latitude":"34.8799397","longitude":"135.4456503","source_code":"KK52352355022","project_name":"","survey_name":"\u4f59\u91ce\u5ddd\u30c0\u30e0\u5730\u8cea\u8abf\u67fb\u696d\u52d9","client_name":"\u56fd\u571f\u4ea4\u901a\u7701\u8fd1\u757f\u5730\u65b9\u6574\u5099\u5c40\u732a\u540d\u5ddd\u7dcf\u5408\u958b\u767a\u5de5\u4e8b\u4e8b\u52d9\u6240","boring_xml_url":40,"boring_view_url":1,"soilmap_view_url":null,"soiltest_xml_url":0,"soiltest_view_url":0},{"id":179256,"code":"B4KJ201801006-7505","latitude":"34.8796619","longitude":"135.4459281","source_code":"KK52352355021","project_name":"","survey_name":"\u4f59\u91ce\u5ddd\u30c0\u30e0\u5730\u8cea\u8abf\u67fb\u696d\u52d9","client_name":"\u56fd\u571f\u4ea4\u901a\u7701\u8fd1\u757f\u5730\u65b9\u6574\u5099\u5c40\u732a\u540d\u5ddd\u7dcf\u5408\u958b\u767a\u5de5\u4e8b\u4e8b\u52d9\u6240","boring_xml_url":40,"boring_view_url":1,"soilmap_view_url":null,"soiltest_xml_url":0,"soiltest_view_url":0},{"id":179255,"code":"B4KJ201801006-7504","latitude":"34.8809119","longitude":"135.4453725","source_code":"KK52352355007","project_name":"","survey_name":"\u5e73\u621010\u5e74\u5ea6\u4f59\u91ce\u5ddd\u30c0\u30e0\u8caf\u6c34\u6c60\u5468\u8fba\u5730\u8cea\u89e3\u6790\u691c\u8a0e\u696d\u52d9","client_name":"\u56fd\u571f\u4ea4\u901a\u7701\u8fd1\u757f\u5730\u65b9\u6574\u5099\u5c40\u732a\u540d\u5ddd\u7dcf\u5408\u958b\u767a\u5de5\u4e8b\u4e8b\u52d9\u6240","boring_xml_url":40,"boring_view_url":1,"soilmap_view_url":null,"soiltest_xml_url":0,"soiltest_view_url":0},{"id":179254,"code":"B4KJ201801006-7503","latitude":"34.8810231","longitude":"135.4456503","source_code":"KK52352355006","project_name":"","survey_name":"\u5e73\u621010\u5e74\u5ea6\u4f59\u91ce\u5ddd\u30c0\u30e0\u8caf\u6c34\u6c60\u5468\u8fba\u5730\u8cea\u89e3\u6790\u691c\u8a0e\u696d\u52d9","client_name":"\u56fd\u571f\u4ea4\u901a\u7701\u8fd1\u757f\u5730\u65b9\u6574\u5099\u5c40\u732a\u540d\u5ddd\u7dcf\u5408\u958b\u767a\u5de5\u4e8b\u4e8b\u52d9\u6240","boring_xml_url":40,"boring_view_url":1,"soilmap_view_url":null,"soiltest_xml_url":0,"soiltest_view_url":0},{"id":179253,"code":"B4KJ201801006-7502","latitude":"34.881245","longitude":"135.4442617","source_code":"KK52352355005","project_name":"","survey_name":"\u5e73\u621010\u5e74\u5ea6\u4f59\u91ce\u5ddd\u30c0\u30e0\u8caf\u6c34\u6c60\u5468\u8fba\u5730\u8cea\u89e3\u6790\u691c\u8a0e\u696d\u52d9","client_name":"\u56fd\u571f\u4ea4\u901a\u7701\u8fd1\u757f\u5730\u65b9\u6574\u5099\u5c40\u732a\u540d\u5ddd\u7dcf\u5408\u958b\u767a\u5de5\u4e8b\u4e8b\u52d9\u6240","boring_xml_url":40,"boring_view_url":1,"soilmap_view_url":null,"soiltest_xml_url":0,"soiltest_view_url":0},{"id":179252,"code":"B4KJ201801006-7501","latitude":"34.8816061","longitude":"135.4448169","source_code":"KK52352355004","project_name":"","survey_name":"\u5e73\u621010\u5e74\u5ea6\u4f59\u91ce\u5ddd\u30c0\u30e0\u8caf\u6c34\u6c60\u5468\u8fba\u5730\u8cea\u89e3\u6790\u691c\u8a0e\u696d\u52d9","client_name":"\u56fd\u571f\u4ea4\u901a\u7701\u8fd1\u757f\u5730\u65b9\u6574\u5099\u5c40\u732a\u540d\u5ddd\u7dcf\u5408\u958b\u767a\u5de5\u4e8b\u4e8b\u52d9\u6240","boring_xml_url":40,"boring_view_url":1,"soilmap_view_url":null,"soiltest_xml_url":0,"soiltest_view_url":0},{"id":179251,"code":"B4KJ201801006-7500","latitude":"34.8818283","longitude":"135.4441228","source_code":"KK52352355003","project_name":"","survey_name":"\u5e73\u621010\u5e74\u5ea6\u4f59\u91ce\u5ddd\u30c0\u30e0\u8caf\u6c34\u6c60\u5468\u8fba\u5730\u8cea\u89e3\u6790\u691c\u8a0e\u696d\u52d9","client_name":"\u56fd\u571f\u4ea4\u901a\u7701\u8fd1\u757f\u5730\u65b9\u6574\u5099\u5c40\u732a\u540d\u5ddd\u7dcf\u5408\u958b\u767a\u5de5\u4e8b\u4e8b\u52d9\u6240","boring_xml_url":40,"boring_view_url":1,"soilmap_view_url":null,"soiltest_xml_url":0,"soiltest_view_url":0},{"id":179250,"code":"B4KJ201801006-7499","latitude":"34.8820506","longitude":"135.4444006","source_code":"KK52352355002","project_name":"","survey_name":"\u5e73\u621010\u5e74\u5ea6\u4f59\u91ce\u5ddd\u30c0\u30e0\u8caf\u6c34\u6c60\u5468\u8fba\u5730\u8cea\u89e3\u6790\u691c\u8a0e\u696d\u52d9","client_name":"\u56fd\u571f\u4ea4\u901a\u7701\u8fd1\u757f\u5730\u65b9\u6574\u5099\u5c40\u732a\u540d\u5ddd\u7dcf\u5408\u958b\u767a\u5de5\u4e8b\u4e8b\u52d9\u6240","boring_xml_url":40,"boring_view_url":1,"soilmap_view_url":null,"soiltest_xml_url":0,"soiltest_view_url":0},{"id":179249,"code":"B4KJ201801006-7498","latitude":"34.8810231","longitude":"135.4471503","source_code":"KK52352355001","project_name":"","survey_name":"\u5e73\u621010\u5e74\u5ea6\u4f59\u91ce\u5ddd\u30c0\u30e0\u8caf\u6c34\u6c60\u5468\u8fba\u5730\u8cea\u89e3\u6790\u691c\u8a0e\u696d\u52d9","client_name":"\u56fd\u571f\u4ea4\u901a\u7701\u8fd1\u757f\u5730\u65b9\u6574\u5099\u5c40\u732a\u540d\u5ddd\u7dcf\u5408\u958b\u767a\u5de5\u4e8b\u4e8b\u52d9\u6240","boring_xml_url":40,"boring_view_url":1,"soilmap_view_url":null,"soiltest_xml_url":0,"soiltest_view_url":0},{"id":179248,"code":"B4KJ201801006-7497","latitude":"34.8843553","longitude":"135.4146808","source_code":"KK52352353004","project_name":"","survey_name":"\u56fd\u9053173\u53f7\u7dda\u6771\u7566\u91ce\u5730\u533a\u5730\u8cea\u8abf\u67fb","client_name":"\u56fd\u571f\u4ea4\u901a\u7701\u8fd1\u757f\u5730\u65b9\u6574\u5099\u5c40\u962a\u795e\u56fd\u9053\u4e8b\u52d9\u6240","boring_xml_url":40,"boring_view_url":1,"soilmap_view_url":null,"soiltest_xml_url":0,"soiltest_view_url":0},{"id":179247,"code":"B4KJ201801006-7496","latitude":"34.884605","longitude":"135.4144308","source_code":"KK52352353003","project_name":"","survey_name":"\u56fd\u9053173\u53f7\u7dda\u6771\u7566\u91ce\u5730\u533a\u5730\u8cea\u8abf\u67fb","client_name":"\u56fd\u571f\u4ea4\u901a\u7701\u8fd1\u757f\u5730\u65b9\u6574\u5099\u5c40\u962a\u795e\u56fd\u9053\u4e8b\u52d9\u6240","boring_xml_url":40,"boring_view_url":1,"soilmap_view_url":null,"soiltest_xml_url":0,"soiltest_view_url":0},{"id":179246,"code":"B4KJ201801006-7495","latitude":"34.884605","longitude":"135.4140697","source_code":"KK52352353002","project_name":"","survey_name":"\u56fd\u9053173\u53f7\u7dda\u6771\u7566\u91ce\u5730\u533a\u5730\u8cea\u8abf\u67fb","client_name":"\u56fd\u571f\u4ea4\u901a\u7701\u8fd1\u757f\u5730\u65b9\u6574\u5099\u5c40\u962a\u795e\u56fd\u9053\u4e8b\u52d9\u6240","boring_xml_url":40,"boring_view_url":1,"soilmap_view_url":null,"soiltest_xml_url":0,"soiltest_view_url":0}]}}