{"header":{"xyz":{"source":[],"mosaic":false},"page":4735,"raw":{"soiltest_result":"0","bbox":"57.598333,109.544722,1.933333,163.806111","page":"4735"},"conditions":{"soiltest_result":0,"north":57.598333,"west":109.544722,"south":1.933333,"east":163.806111},"success":true,"message":""},"data":{"meta":{"total":212844,"page":4735,"pages":7095,"count":30},"values":[{"id":178525,"code":"B4KJ201801006-6774","latitude":"34.8310281","longitude":"135.4234317","source_code":"KK52351394003","project_name":"","survey_name":"\u5ddd\u897f\u30fb\u6c60\u7530\u5730\u533a\u5730\u8cea\u8abf\u67fb\u4f5c\u696d","client_name":"\u56fd\u571f\u4ea4\u901a\u7701\u8fd1\u757f\u5730\u65b9\u6574\u5099\u5c40\u732a\u540d\u5ddd\u6cb3\u5ddd\u4e8b\u52d9\u6240","boring_xml_url":40,"boring_view_url":1,"soilmap_view_url":null,"soiltest_xml_url":0,"soiltest_view_url":0},{"id":178524,"code":"B4KJ201801006-6773","latitude":"34.8304169","longitude":"135.4234042","source_code":"KK52351394002","project_name":"","survey_name":"\u5ddd\u897f\u30fb\u6c60\u7530\u5730\u533a\u5730\u8cea\u8abf\u67fb\u4f5c\u696d","client_name":"\u56fd\u571f\u4ea4\u901a\u7701\u8fd1\u757f\u5730\u65b9\u6574\u5099\u5c40\u732a\u540d\u5ddd\u6cb3\u5ddd\u4e8b\u52d9\u6240","boring_xml_url":40,"boring_view_url":1,"soilmap_view_url":null,"soiltest_xml_url":0,"soiltest_view_url":0},{"id":178523,"code":"B4KJ201801006-6772","latitude":"34.8298617","longitude":"135.4233764","source_code":"KK52351394001","project_name":"","survey_name":"\u5ddd\u897f\u6c60\u7530\u5730\u533a\u5730\u8cea\u8abf\u67fb\u4f5c\u696d","client_name":"\u56fd\u571f\u4ea4\u901a\u7701\u8fd1\u757f\u5730\u65b9\u6574\u5099\u5c40\u732a\u540d\u5ddd\u6cb3\u5ddd\u4e8b\u52d9\u6240","boring_xml_url":40,"boring_view_url":1,"soilmap_view_url":null,"soiltest_xml_url":0,"soiltest_view_url":0},{"id":178522,"code":"B4KJ201801006-6771","latitude":"34.8265842","longitude":"135.4227375","source_code":"KK52351384007","project_name":"","survey_name":"\u56fd\u9053176\u53f7\u7dda\u5449\u670d\u6a4b\u5730\u8cea\u8abf\u67fb\u4f5c\u696d","client_name":"\u56fd\u571f\u4ea4\u901a\u7701\u8fd1\u757f\u5730\u65b9\u6574\u5099\u5c40\u5927\u962a\u56fd\u9053\u4e8b\u52d9\u6240","boring_xml_url":40,"boring_view_url":1,"soilmap_view_url":null,"soiltest_xml_url":0,"soiltest_view_url":0},{"id":178521,"code":"B4KJ201801006-6770","latitude":"34.8266675","longitude":"135.4215433","source_code":"KK52351383011","project_name":"","survey_name":"\u56fd\u9053176\u53f7\u7dda\u5449\u670d\u6a4b\u5730\u8cea\u8abf\u67fb\u4f5c\u696d","client_name":"\u56fd\u571f\u4ea4\u901a\u7701\u8fd1\u757f\u5730\u65b9\u6574\u5099\u5c40\u5927\u962a\u56fd\u9053\u4e8b\u52d9\u6240","boring_xml_url":40,"boring_view_url":1,"soilmap_view_url":null,"soiltest_xml_url":0,"soiltest_view_url":0},{"id":178520,"code":"B4KJ201801006-6769","latitude":"34.8252508","longitude":"135.4205156","source_code":"KK52351383005","project_name":"","survey_name":"\u571f\u8cea\u5730\u8cea\u8abf\u67fb(\u4e00\u5eab\u30c0\u30e0\u5de6\u5cb8\u571f\u8cea\u8abf\u67fb\u306a\u30698\u4ef6)","client_name":"\u56fd\u571f\u4ea4\u901a\u7701\u8fd1\u757f\u5730\u65b9\u6574\u5099\u5c40\u732a\u540d\u5ddd\u6cb3\u5ddd\u4e8b\u52d9\u6240","boring_xml_url":40,"boring_view_url":1,"soilmap_view_url":null,"soiltest_xml_url":0,"soiltest_view_url":0},{"id":178519,"code":"B4KJ201801006-6768","latitude":"34.8236678","longitude":"135.4191269","source_code":"KK52351383002","project_name":"","survey_name":"\u571f\u8cea\u5730\u8cea\u8abf\u67fb(\u4e00\u5eab\u30c0\u30e0\u5de6\u5cb8\u571f\u8cea\u8abf\u67fb\u306a\u30698\u4ef6)","client_name":"\u56fd\u571f\u4ea4\u901a\u7701\u8fd1\u757f\u5730\u65b9\u6574\u5099\u5c40\u732a\u540d\u5ddd\u6cb3\u5ddd\u4e8b\u52d9\u6240","boring_xml_url":40,"boring_view_url":1,"soilmap_view_url":null,"soiltest_xml_url":0,"soiltest_view_url":0},{"id":178518,"code":"B4KJ201801006-6767","latitude":"34.8211958","longitude":"135.4165994","source_code":"KK52351383001","project_name":"","survey_name":"\u571f\u8cea\u5730\u8cea\u8abf\u67fb(\u4e00\u5eab\u30c0\u30e0\u5de6\u5cb8\u571f\u8cea\u8abf\u67fb\u306a\u30698\u4ef6)","client_name":"\u56fd\u571f\u4ea4\u901a\u7701\u8fd1\u757f\u5730\u65b9\u6574\u5099\u5c40\u732a\u540d\u5ddd\u6cb3\u5ddd\u4e8b\u52d9\u6240","boring_xml_url":40,"boring_view_url":1,"soilmap_view_url":null,"soiltest_xml_url":0,"soiltest_view_url":0},{"id":178517,"code":"B4KJ201801006-6766","latitude":"34.8155297","longitude":"135.4157664","source_code":"KK52351373008","project_name":"","survey_name":"\u571f\u8cea\u5730\u8cea\u8abf\u67fb(\u4e00\u5eab\u30c0\u30e0\u5de6\u5cb8\u571f\u8cea\u8abf\u67fb\u306a\u30698\u4ef6)","client_name":"\u56fd\u571f\u4ea4\u901a\u7701\u8fd1\u757f\u5730\u65b9\u6574\u5099\u5c40\u732a\u540d\u5ddd\u6cb3\u5ddd\u4e8b\u52d9\u6240","boring_xml_url":40,"boring_view_url":1,"soilmap_view_url":null,"soiltest_xml_url":0,"soiltest_view_url":0},{"id":178516,"code":"B4KJ201801006-6765","latitude":"34.8148631","longitude":"135.4157664","source_code":"KK52351373007","project_name":"","survey_name":"\u571f\u8cea\u5730\u8cea\u8abf\u67fb(\u4e00\u5eab\u30c0\u30e0\u5de6\u5cb8\u571f\u8cea\u8abf\u67fb\u306a\u30698\u4ef6)","client_name":"\u56fd\u571f\u4ea4\u901a\u7701\u8fd1\u757f\u5730\u65b9\u6574\u5099\u5c40\u732a\u540d\u5ddd\u6cb3\u5ddd\u4e8b\u52d9\u6240","boring_xml_url":40,"boring_view_url":1,"soilmap_view_url":null,"soiltest_xml_url":0,"soiltest_view_url":0},{"id":178515,"code":"B4KJ201801006-6764","latitude":"34.8175294","longitude":"135.4173494","source_code":"KK52351373004","project_name":"","survey_name":"\u732a\u540d\u5ddd\u4f4e\u6c34\u8b77\u5cb8\u57fa\u790e\u90e8\u571f\u8cea\u8abf\u67fb\u4f5c\u696d","client_name":"\u56fd\u571f\u4ea4\u901a\u7701\u8fd1\u757f\u5730\u65b9\u6574\u5099\u5c40\u732a\u540d\u5ddd\u6cb3\u5ddd\u4e8b\u52d9\u6240","boring_xml_url":40,"boring_view_url":1,"soilmap_view_url":null,"soiltest_xml_url":0,"soiltest_view_url":0},{"id":178514,"code":"B4KJ201801006-6763","latitude":"34.8128078","longitude":"135.418905","source_code":"KK52351373002","project_name":"","survey_name":"\u732a\u540d\u5ddd\u4f4e\u6c34\u8b77\u5cb8\u57fa\u790e\u90e8\u571f\u8cea\u8abf\u67fb\u4f5c\u696d","client_name":"\u56fd\u571f\u4ea4\u901a\u7701\u8fd1\u757f\u5730\u65b9\u6574\u5099\u5c40\u732a\u540d\u5ddd\u6cb3\u5ddd\u4e8b\u52d9\u6240","boring_xml_url":40,"boring_view_url":1,"soilmap_view_url":null,"soiltest_xml_url":0,"soiltest_view_url":0},{"id":178513,"code":"B4KJ201801006-6762","latitude":"34.8157242","longitude":"135.4159331","source_code":"KK52351373001","project_name":"","survey_name":"\u732a\u540d\u5ddd\u4f4e\u6c34\u8b77\u5cb8\u57fa\u790e\u90e8\u571f\u8cea\u8abf\u67fb\u4f5c\u696d","client_name":"\u56fd\u571f\u4ea4\u901a\u7701\u8fd1\u757f\u5730\u65b9\u6574\u5099\u5c40\u732a\u540d\u5ddd\u6cb3\u5ddd\u4e8b\u52d9\u6240","boring_xml_url":40,"boring_view_url":1,"soilmap_view_url":null,"soiltest_xml_url":0,"soiltest_view_url":0},{"id":178512,"code":"B4KJ201801006-6761","latitude":"34.8061419","longitude":"135.4230161","source_code":"KK52351364002","project_name":"","survey_name":"\u732a\u540d\u5ddd\u4f4e\u6c34\u8b77\u5cb8\u57fa\u790e\u90e8\u571f\u8cea\u8abf\u67fb\u4f5c\u696d","client_name":"\u56fd\u571f\u4ea4\u901a\u7701\u8fd1\u757f\u5730\u65b9\u6574\u5099\u5c40\u732a\u540d\u5ddd\u6cb3\u5ddd\u4e8b\u52d9\u6240","boring_xml_url":40,"boring_view_url":1,"soilmap_view_url":null,"soiltest_xml_url":0,"soiltest_view_url":0},{"id":178511,"code":"B4KJ201801006-6760","latitude":"34.8046978","longitude":"135.4238217","source_code":"KK52351364001","project_name":"","survey_name":"\u732a\u540d\u5ddd\u4f4e\u6c34\u8b77\u5cb8\u57fa\u790e\u90e8\u571f\u8cea\u8abf\u67fb\u4f5c\u696d","client_name":"\u56fd\u571f\u4ea4\u901a\u7701\u8fd1\u757f\u5730\u65b9\u6574\u5099\u5c40\u732a\u540d\u5ddd\u6cb3\u5ddd\u4e8b\u52d9\u6240","boring_xml_url":40,"boring_view_url":1,"soilmap_view_url":null,"soiltest_xml_url":0,"soiltest_view_url":0},{"id":178510,"code":"B4KJ201801006-6759","latitude":"34.8105581","longitude":"135.4199883","source_code":"KK52351363005","project_name":"","survey_name":"\u732a\u540d\u5ddd\u4f4e\u6c34\u8b77\u5cb8\u57fa\u790e\u90e8\u571f\u8cea\u8abf\u67fb\u4f5c\u696d","client_name":"\u56fd\u571f\u4ea4\u901a\u7701\u8fd1\u757f\u5730\u65b9\u6574\u5099\u5c40\u732a\u540d\u5ddd\u6cb3\u5ddd\u4e8b\u52d9\u6240","boring_xml_url":40,"boring_view_url":1,"soilmap_view_url":null,"soiltest_xml_url":0,"soiltest_view_url":0},{"id":178509,"code":"B4KJ201801006-6758","latitude":"34.8086417","longitude":"135.4185442","source_code":"KK52351363004","project_name":"","survey_name":"\u732a\u540d\u5ddd\u4f4e\u6c34\u8b77\u5cb8\u57fa\u790e\u90e8\u571f\u8cea\u8abf\u67fb\u4f5c\u696d","client_name":"\u56fd\u571f\u4ea4\u901a\u7701\u8fd1\u757f\u5730\u65b9\u6574\u5099\u5c40\u732a\u540d\u5ddd\u6cb3\u5ddd\u4e8b\u52d9\u6240","boring_xml_url":40,"boring_view_url":1,"soilmap_view_url":null,"soiltest_xml_url":0,"soiltest_view_url":0},{"id":178508,"code":"B4KJ201801006-6757","latitude":"34.8072808","longitude":"135.4195997","source_code":"KK52351363003","project_name":"","survey_name":"\u732a\u540d\u5ddd\u4f4e\u6c34\u8b77\u5cb8\u57fa\u790e\u90e8\u571f\u8cea\u8abf\u67fb\u4f5c\u696d","client_name":"\u56fd\u571f\u4ea4\u901a\u7701\u8fd1\u757f\u5730\u65b9\u6574\u5099\u5c40\u732a\u540d\u5ddd\u6cb3\u5ddd\u4e8b\u52d9\u6240","boring_xml_url":40,"boring_view_url":1,"soilmap_view_url":null,"soiltest_xml_url":0,"soiltest_view_url":0},{"id":178507,"code":"B4KJ201801006-6756","latitude":"34.8056975","longitude":"135.4204053","source_code":"KK52351363002","project_name":"","survey_name":"\u732a\u540d\u5ddd\u4f4e\u6c34\u8b77\u5cb8\u57fa\u790e\u90e8\u571f\u8cea\u8abf\u67fb\u4f5c\u696d","client_name":"\u56fd\u571f\u4ea4\u901a\u7701\u8fd1\u757f\u5730\u65b9\u6574\u5099\u5c40\u732a\u540d\u5ddd\u6cb3\u5ddd\u4e8b\u52d9\u6240","boring_xml_url":40,"boring_view_url":1,"soilmap_view_url":null,"soiltest_xml_url":0,"soiltest_view_url":0},{"id":178506,"code":"B4KJ201801006-6755","latitude":"34.8041144","longitude":"135.4209608","source_code":"KK52351363001","project_name":"","survey_name":"\u732a\u540d\u5ddd\u4f4e\u6c34\u8b77\u5cb8\u57fa\u790e\u90e8\u571f\u8cea\u8abf\u67fb\u4f5c\u696d","client_name":"\u56fd\u571f\u4ea4\u901a\u7701\u8fd1\u757f\u5730\u65b9\u6574\u5099\u5c40\u732a\u540d\u5ddd\u6cb3\u5ddd\u4e8b\u52d9\u6240","boring_xml_url":40,"boring_view_url":1,"soilmap_view_url":null,"soiltest_xml_url":0,"soiltest_view_url":0},{"id":178505,"code":"B4KJ201801006-6754","latitude":"34.7952272","longitude":"135.4441256","source_code":"KK52351355005","project_name":"","survey_name":"\u962a\u795e\u9ad8\u901f\u9053\u8def\u5730\u8cea\u8cc7\u659912\u5929\u738b\u5bfa-\u6c60\u7530\u7de8","client_name":"\u56fd\u571f\u4ea4\u901a\u7701\u8fd1\u757f\u5730\u65b9\u6574\u5099\u5c40\u6d6a\u901f\u56fd\u9053\u4e8b\u52d9\u6240","boring_xml_url":40,"boring_view_url":1,"soilmap_view_url":null,"soiltest_xml_url":0,"soiltest_view_url":0},{"id":178504,"code":"B4KJ201801006-6753","latitude":"34.7979211","longitude":"135.4416258","source_code":"KK52351355004","project_name":"","survey_name":"\u962a\u795e\u9ad8\u901f\u9053\u8def\u5730\u8cea\u8cc7\u659912\u5929\u738b\u5bfa-\u6c60\u7530\u7de8","client_name":"\u56fd\u571f\u4ea4\u901a\u7701\u8fd1\u757f\u5730\u65b9\u6574\u5099\u5c40\u6d6a\u901f\u56fd\u9053\u4e8b\u52d9\u6240","boring_xml_url":40,"boring_view_url":1,"soilmap_view_url":null,"soiltest_xml_url":0,"soiltest_view_url":0},{"id":178503,"code":"B4KJ201801006-6752","latitude":"34.7961158","longitude":"135.4432922","source_code":"KK52351355003","project_name":"","survey_name":"\u962a\u795e\u9ad8\u901f\u9053\u8def\u5730\u8cea\u8cc7\u659912\u5929\u738b\u5bfa-\u6c60\u7530\u7de8","client_name":"\u56fd\u571f\u4ea4\u901a\u7701\u8fd1\u757f\u5730\u65b9\u6574\u5099\u5c40\u6d6a\u901f\u56fd\u9053\u4e8b\u52d9\u6240","boring_xml_url":40,"boring_view_url":1,"soilmap_view_url":null,"soiltest_xml_url":0,"soiltest_view_url":0},{"id":178502,"code":"B4KJ201801006-6751","latitude":"34.7956714","longitude":"135.44357","source_code":"KK52351355002","project_name":"","survey_name":"\u962a\u795e\u9ad8\u901f\u9053\u8def\u5730\u8cea\u8cc7\u659912\u5929\u738b\u5bfa-\u6c60\u7530\u7de8","client_name":"\u56fd\u571f\u4ea4\u901a\u7701\u8fd1\u757f\u5730\u65b9\u6574\u5099\u5c40\u6d6a\u901f\u56fd\u9053\u4e8b\u52d9\u6240","boring_xml_url":40,"boring_view_url":1,"soilmap_view_url":null,"soiltest_xml_url":0,"soiltest_view_url":0},{"id":178501,"code":"B4KJ201801006-6750","latitude":"34.8004761","longitude":"135.4251828","source_code":"KK52351354007","project_name":"","survey_name":"\u732a\u540d\u5ddd\u4f4e\u6c34\u8b77\u5cb8\u57fa\u790e\u90e8\u571f\u8cea\u8abf\u67fb\u4f5c\u696d","client_name":"\u56fd\u571f\u4ea4\u901a\u7701\u8fd1\u757f\u5730\u65b9\u6574\u5099\u5c40\u732a\u540d\u5ddd\u6cb3\u5ddd\u4e8b\u52d9\u6240","boring_xml_url":40,"boring_view_url":1,"soilmap_view_url":null,"soiltest_xml_url":0,"soiltest_view_url":0},{"id":178500,"code":"B4KJ201801006-6749","latitude":"34.7986708","longitude":"135.4253217","source_code":"KK52351354006","project_name":"","survey_name":"\u732a\u540d\u5ddd\u4f4e\u6c34\u8b77\u5cb8\u57fa\u790e\u90e8\u571f\u8cea\u8abf\u67fb\u4f5c\u696d","client_name":"\u56fd\u571f\u4ea4\u901a\u7701\u8fd1\u757f\u5730\u65b9\u6574\u5099\u5c40\u732a\u540d\u5ddd\u6cb3\u5ddd\u4e8b\u52d9\u6240","boring_xml_url":40,"boring_view_url":1,"soilmap_view_url":null,"soiltest_xml_url":0,"soiltest_view_url":0},{"id":178499,"code":"B4KJ201801006-6748","latitude":"34.7958933","longitude":"135.4257383","source_code":"KK52351354005","project_name":"","survey_name":"\u732a\u540d\u5ddd\u4f4e\u6c34\u8b77\u5cb8\u57fa\u790e\u90e8\u571f\u8cea\u8abf\u67fb\u4f5c\u696d","client_name":"\u56fd\u571f\u4ea4\u901a\u7701\u8fd1\u757f\u5730\u65b9\u6574\u5099\u5c40\u732a\u540d\u5ddd\u6cb3\u5ddd\u4e8b\u52d9\u6240","boring_xml_url":40,"boring_view_url":1,"soilmap_view_url":null,"soiltest_xml_url":0,"soiltest_view_url":0},{"id":178498,"code":"B4KJ201801006-6747","latitude":"34.7983931","longitude":"135.4225997","source_code":"KK52351354003","project_name":"","survey_name":"\u732a\u540d\u5ddd\u4f4e\u6c34\u8b77\u5cb8\u57fa\u790e\u90e8\u571f\u8cea\u8abf\u67fb\u4f5c\u696d","client_name":"\u56fd\u571f\u4ea4\u901a\u7701\u8fd1\u757f\u5730\u65b9\u6574\u5099\u5c40\u732a\u540d\u5ddd\u6cb3\u5ddd\u4e8b\u52d9\u6240","boring_xml_url":40,"boring_view_url":1,"soilmap_view_url":null,"soiltest_xml_url":0,"soiltest_view_url":0},{"id":178497,"code":"B4KJ201801006-6746","latitude":"34.7962542","longitude":"135.4227386","source_code":"KK52351354002","project_name":"","survey_name":"\u732a\u540d\u5ddd\u4f4e\u6c34\u8b77\u5cb8\u57fa\u790e\u90e8\u571f\u8cea\u8abf\u67fb\u4f5c\u696d","client_name":"\u56fd\u571f\u4ea4\u901a\u7701\u8fd1\u757f\u5730\u65b9\u6574\u5099\u5c40\u732a\u540d\u5ddd\u6cb3\u5ddd\u4e8b\u52d9\u6240","boring_xml_url":40,"boring_view_url":1,"soilmap_view_url":null,"soiltest_xml_url":0,"soiltest_view_url":0},{"id":178496,"code":"B4KJ201801006-6745","latitude":"34.8020869","longitude":"135.4214886","source_code":"KK52351353002","project_name":"","survey_name":"\u732a\u540d\u5ddd\u4f4e\u6c34\u8b77\u5cb8\u57fa\u790e\u90e8\u571f\u8cea\u8abf\u67fb\u4f5c\u696d","client_name":"\u56fd\u571f\u4ea4\u901a\u7701\u8fd1\u757f\u5730\u65b9\u6574\u5099\u5c40\u732a\u540d\u5ddd\u6cb3\u5ddd\u4e8b\u52d9\u6240","boring_xml_url":40,"boring_view_url":1,"soilmap_view_url":null,"soiltest_xml_url":0,"soiltest_view_url":0}]}}