{"header":{"xyz":{"source":[],"mosaic":false},"page":4741,"raw":{"soiltest_result":"0","bbox":"57.598333,109.544722,1.933333,163.806111","page":"4741"},"conditions":{"soiltest_result":0,"north":57.598333,"west":109.544722,"south":1.933333,"east":163.806111},"success":true,"message":""},"data":{"meta":{"total":212844,"page":4741,"pages":7095,"count":30},"values":[{"id":178345,"code":"B4KJ201801006-6594","latitude":"34.8233319","longitude":"135.3112197","source_code":"KK52351285004","project_name":"","survey_name":"176\u53f7\u91d1\u5834\u5730\u533a\u5730\u8cea\u8abf\u67fb\u4f5c\u696d","client_name":"\u56fd\u571f\u4ea4\u901a\u7701\u8fd1\u757f\u5730\u65b9\u6574\u5099\u5c40\u962a\u795e\u56fd\u9053\u4e8b\u52d9\u6240","boring_xml_url":40,"boring_view_url":1,"soilmap_view_url":null,"soiltest_xml_url":0,"soiltest_view_url":0},{"id":178344,"code":"B4KJ201801006-6593","latitude":"34.8238042","longitude":"135.3112197","source_code":"KK52351285003","project_name":"","survey_name":"176\u53f7\u91d1\u5834\u5730\u533a\u5730\u8cea\u8abf\u67fb\u4f5c\u696d","client_name":"\u56fd\u571f\u4ea4\u901a\u7701\u8fd1\u757f\u5730\u65b9\u6574\u5099\u5c40\u962a\u795e\u56fd\u9053\u4e8b\u52d9\u6240","boring_xml_url":40,"boring_view_url":1,"soilmap_view_url":null,"soiltest_xml_url":0,"soiltest_view_url":0},{"id":178343,"code":"B4KJ201801006-6592","latitude":"34.8250261","longitude":"135.3105253","source_code":"KK52351285002","project_name":"","survey_name":"176\u53f7\u91d1\u5834\u5730\u533a\u5730\u8cea\u8abf\u67fb\u4f5c\u696d","client_name":"\u56fd\u571f\u4ea4\u901a\u7701\u8fd1\u757f\u5730\u65b9\u6574\u5099\u5c40\u962a\u795e\u56fd\u9053\u4e8b\u52d9\u6240","boring_xml_url":40,"boring_view_url":1,"soilmap_view_url":null,"soiltest_xml_url":0,"soiltest_view_url":0},{"id":178342,"code":"B4KJ201801006-6591","latitude":"34.8240542","longitude":"135.3159414","source_code":"KK52351285001","project_name":"","survey_name":"176\u53f7\u91d1\u5834\u5730\u533a\u5730\u8cea\u8abf\u67fb\u4f5c\u696d","client_name":"\u56fd\u571f\u4ea4\u901a\u7701\u8fd1\u757f\u5730\u65b9\u6574\u5099\u5c40\u962a\u795e\u56fd\u9053\u4e8b\u52d9\u6240","boring_xml_url":40,"boring_view_url":1,"soilmap_view_url":null,"soiltest_xml_url":0,"soiltest_view_url":0},{"id":178341,"code":"B4KJ201801006-6590","latitude":"34.826165","longitude":"135.3080256","source_code":"KK52351284018","project_name":"","survey_name":"176\u53f7\u91d1\u5834\u5730\u533a\u5730\u8cea\u8abf\u67fb(\u305d\u306e2)\u4f5c\u696d","client_name":"\u56fd\u571f\u4ea4\u901a\u7701\u8fd1\u757f\u5730\u65b9\u6574\u5099\u5c40\u962a\u795e\u56fd\u9053\u4e8b\u52d9\u6240","boring_xml_url":40,"boring_view_url":1,"soilmap_view_url":null,"soiltest_xml_url":0,"soiltest_view_url":0},{"id":178340,"code":"B4KJ201801006-6589","latitude":"34.826165","longitude":"135.3080256","source_code":"KK52351284017","project_name":"","survey_name":"176\u53f7\u91d1\u5834\u5730\u533a\u5730\u8cea\u8abf\u67fb(\u305d\u306e2)\u4f5c\u696d","client_name":"\u56fd\u571f\u4ea4\u901a\u7701\u8fd1\u757f\u5730\u65b9\u6574\u5099\u5c40\u962a\u795e\u56fd\u9053\u4e8b\u52d9\u6240","boring_xml_url":40,"boring_view_url":1,"soilmap_view_url":null,"soiltest_xml_url":0,"soiltest_view_url":0},{"id":178339,"code":"B4KJ201801006-6588","latitude":"34.826165","longitude":"135.3080256","source_code":"KK52351284016","project_name":"","survey_name":"176\u53f7\u91d1\u5834\u5730\u533a\u5730\u8cea\u8abf\u67fb(\u305d\u306e2)\u4f5c\u696d","client_name":"\u56fd\u571f\u4ea4\u901a\u7701\u8fd1\u757f\u5730\u65b9\u6574\u5099\u5c40\u962a\u795e\u56fd\u9053\u4e8b\u52d9\u6240","boring_xml_url":40,"boring_view_url":1,"soilmap_view_url":null,"soiltest_xml_url":0,"soiltest_view_url":0},{"id":178338,"code":"B4KJ201801006-6587","latitude":"34.826165","longitude":"135.3080256","source_code":"KK52351284015","project_name":"","survey_name":"176\u53f7\u91d1\u5834\u5730\u533a\u5730\u8cea\u8abf\u67fb(\u305d\u306e2)\u4f5c\u696d","client_name":"\u56fd\u571f\u4ea4\u901a\u7701\u8fd1\u757f\u5730\u65b9\u6574\u5099\u5c40\u962a\u795e\u56fd\u9053\u4e8b\u52d9\u6240","boring_xml_url":40,"boring_view_url":1,"soilmap_view_url":null,"soiltest_xml_url":0,"soiltest_view_url":0},{"id":178337,"code":"B4KJ201801006-6586","latitude":"34.826165","longitude":"135.3080256","source_code":"KK52351284014","project_name":"","survey_name":"176\u53f7\u91d1\u5834\u5730\u533a\u5730\u8cea\u8abf\u67fb(\u305d\u306e2)\u4f5c\u696d","client_name":"\u56fd\u571f\u4ea4\u901a\u7701\u8fd1\u757f\u5730\u65b9\u6574\u5099\u5c40\u962a\u795e\u56fd\u9053\u4e8b\u52d9\u6240","boring_xml_url":40,"boring_view_url":1,"soilmap_view_url":null,"soiltest_xml_url":0,"soiltest_view_url":0},{"id":178336,"code":"B4KJ201801006-6585","latitude":"34.826165","longitude":"135.3080256","source_code":"KK52351284013","project_name":"","survey_name":"176\u53f7\u91d1\u5834\u5730\u533a\u5730\u8cea\u8abf\u67fb(\u305d\u306e2)\u4f5c\u696d","client_name":"\u56fd\u571f\u4ea4\u901a\u7701\u8fd1\u757f\u5730\u65b9\u6574\u5099\u5c40\u962a\u795e\u56fd\u9053\u4e8b\u52d9\u6240","boring_xml_url":40,"boring_view_url":1,"soilmap_view_url":null,"soiltest_xml_url":0,"soiltest_view_url":0},{"id":178335,"code":"B4KJ201801006-6584","latitude":"34.826165","longitude":"135.3080256","source_code":"KK52351284012","project_name":"","survey_name":"176\u53f7\u91d1\u5834\u5730\u533a\u5730\u8cea\u8abf\u67fb(\u305d\u306e2)\u4f5c\u696d","client_name":"\u56fd\u571f\u4ea4\u901a\u7701\u8fd1\u757f\u5730\u65b9\u6574\u5099\u5c40\u962a\u795e\u56fd\u9053\u4e8b\u52d9\u6240","boring_xml_url":40,"boring_view_url":1,"soilmap_view_url":null,"soiltest_xml_url":0,"soiltest_view_url":0},{"id":178334,"code":"B4KJ201801006-6583","latitude":"34.826165","longitude":"135.3080256","source_code":"KK52351284011","project_name":"","survey_name":"176\u53f7\u91d1\u5834\u5730\u533a\u5730\u8cea\u8abf\u67fb(\u305d\u306e2)\u4f5c\u696d","client_name":"\u56fd\u571f\u4ea4\u901a\u7701\u8fd1\u757f\u5730\u65b9\u6574\u5099\u5c40\u962a\u795e\u56fd\u9053\u4e8b\u52d9\u6240","boring_xml_url":40,"boring_view_url":1,"soilmap_view_url":null,"soiltest_xml_url":0,"soiltest_view_url":0},{"id":178333,"code":"B4KJ201801006-6582","latitude":"34.8257206","longitude":"135.3092753","source_code":"KK52351284010","project_name":"","survey_name":"176\u53f7\u91d1\u5834\u5730\u533a\u5730\u8cea\u8abf\u67fb\u4f5c\u696d","client_name":"\u56fd\u571f\u4ea4\u901a\u7701\u8fd1\u757f\u5730\u65b9\u6574\u5099\u5c40\u962a\u795e\u56fd\u9053\u4e8b\u52d9\u6240","boring_xml_url":40,"boring_view_url":1,"soilmap_view_url":null,"soiltest_xml_url":0,"soiltest_view_url":0},{"id":178332,"code":"B4KJ201801006-6581","latitude":"34.8260539","longitude":"135.3087197","source_code":"KK52351284009","project_name":"","survey_name":"176\u53f7\u91d1\u5834\u5730\u533a\u5730\u8cea\u8abf\u67fb\u4f5c\u696d","client_name":"\u56fd\u571f\u4ea4\u901a\u7701\u8fd1\u757f\u5730\u65b9\u6574\u5099\u5c40\u962a\u795e\u56fd\u9053\u4e8b\u52d9\u6240","boring_xml_url":40,"boring_view_url":1,"soilmap_view_url":null,"soiltest_xml_url":0,"soiltest_view_url":0},{"id":178331,"code":"B4KJ201801006-6580","latitude":"34.8258317","longitude":"135.3084422","source_code":"KK52351284008","project_name":"","survey_name":"176\u53f7\u91d1\u5834\u5730\u533a\u5730\u8cea\u8abf\u67fb\u4f5c\u696d","client_name":"\u56fd\u571f\u4ea4\u901a\u7701\u8fd1\u757f\u5730\u65b9\u6574\u5099\u5c40\u962a\u795e\u56fd\u9053\u4e8b\u52d9\u6240","boring_xml_url":40,"boring_view_url":1,"soilmap_view_url":null,"soiltest_xml_url":0,"soiltest_view_url":0},{"id":178330,"code":"B4KJ201801006-6579","latitude":"34.8259428","longitude":"135.3081644","source_code":"KK52351284007","project_name":"","survey_name":"176\u53f7\u91d1\u5834\u5730\u533a\u5730\u8cea\u8abf\u67fb\u4f5c\u696d","client_name":"\u56fd\u571f\u4ea4\u901a\u7701\u8fd1\u757f\u5730\u65b9\u6574\u5099\u5c40\u962a\u795e\u56fd\u9053\u4e8b\u52d9\u6240","boring_xml_url":40,"boring_view_url":1,"soilmap_view_url":null,"soiltest_xml_url":0,"soiltest_view_url":0},{"id":178329,"code":"B4KJ201801006-6578","latitude":"34.8259428","longitude":"135.3078867","source_code":"KK52351284006","project_name":"","survey_name":"176\u53f7\u91d1\u5834\u5730\u533a\u5730\u8cea\u8abf\u67fb\u4f5c\u696d","client_name":"\u56fd\u571f\u4ea4\u901a\u7701\u8fd1\u757f\u5730\u65b9\u6574\u5099\u5c40\u962a\u795e\u56fd\u9053\u4e8b\u52d9\u6240","boring_xml_url":40,"boring_view_url":1,"soilmap_view_url":null,"soiltest_xml_url":0,"soiltest_view_url":0},{"id":178328,"code":"B4KJ201801006-6577","latitude":"34.8260539","longitude":"135.3077478","source_code":"KK52351284005","project_name":"","survey_name":"176\u53f7\u91d1\u5834\u5730\u533a\u5730\u8cea\u8abf\u67fb\u4f5c\u696d","client_name":"\u56fd\u571f\u4ea4\u901a\u7701\u8fd1\u757f\u5730\u65b9\u6574\u5099\u5c40\u962a\u795e\u56fd\u9053\u4e8b\u52d9\u6240","boring_xml_url":40,"boring_view_url":1,"soilmap_view_url":null,"soiltest_xml_url":0,"soiltest_view_url":0},{"id":178327,"code":"B4KJ201801006-6576","latitude":"34.8260539","longitude":"135.3076922","source_code":"KK52351284004","project_name":"","survey_name":"176\u53f7\u91d1\u5834\u5730\u533a\u5730\u8cea\u8abf\u67fb\u4f5c\u696d","client_name":"\u56fd\u571f\u4ea4\u901a\u7701\u8fd1\u757f\u5730\u65b9\u6574\u5099\u5c40\u962a\u795e\u56fd\u9053\u4e8b\u52d9\u6240","boring_xml_url":40,"boring_view_url":1,"soilmap_view_url":null,"soiltest_xml_url":0,"soiltest_view_url":0},{"id":178326,"code":"B4KJ201801006-6575","latitude":"34.8264981","longitude":"135.3076089","source_code":"KK52351284003","project_name":"","survey_name":"176\u53f7\u91d1\u5834\u5730\u533a\u5730\u8cea\u8abf\u67fb\u4f5c\u696d","client_name":"\u56fd\u571f\u4ea4\u901a\u7701\u8fd1\u757f\u5730\u65b9\u6574\u5099\u5c40\u962a\u795e\u56fd\u9053\u4e8b\u52d9\u6240","boring_xml_url":40,"boring_view_url":1,"soilmap_view_url":null,"soiltest_xml_url":0,"soiltest_view_url":0},{"id":178325,"code":"B4KJ201801006-6574","latitude":"34.8263869","longitude":"135.3071922","source_code":"KK52351284002","project_name":"","survey_name":"176\u53f7\u91d1\u5834\u5730\u533a\u5730\u8cea\u8abf\u67fb\u4f5c\u696d","client_name":"\u56fd\u571f\u4ea4\u901a\u7701\u8fd1\u757f\u5730\u65b9\u6574\u5099\u5c40\u962a\u795e\u56fd\u9053\u4e8b\u52d9\u6240","boring_xml_url":40,"boring_view_url":1,"soilmap_view_url":null,"soiltest_xml_url":0,"soiltest_view_url":0},{"id":178324,"code":"B4KJ201801006-6573","latitude":"34.8273036","longitude":"135.3055256","source_code":"KK52351284001","project_name":"","survey_name":"176\u53f7\u91d1\u5834\u5730\u533a\u5730\u8cea\u8abf\u67fb\u4f5c\u696d","client_name":"\u56fd\u571f\u4ea4\u901a\u7701\u8fd1\u757f\u5730\u65b9\u6574\u5099\u5c40\u962a\u795e\u56fd\u9053\u4e8b\u52d9\u6240","boring_xml_url":40,"boring_view_url":1,"soilmap_view_url":null,"soiltest_xml_url":0,"soiltest_view_url":0},{"id":178323,"code":"B4KJ201801006-6572","latitude":"34.8175828","longitude":"135.3231078","source_code":"KK52351276007","project_name":"","survey_name":"\u540d\u5869\u9053\u8def\u57ce\u5c71\u5730\u533a\u5730\u8cea\u8abf\u67fb\u305d\u306e\u4ed6\u696d\u52d9","client_name":"\u56fd\u571f\u4ea4\u901a\u7701\u8fd1\u757f\u5730\u65b9\u6574\u5099\u5c40\u962a\u795e\u56fd\u9053\u4e8b\u52d9\u6240","boring_xml_url":40,"boring_view_url":1,"soilmap_view_url":null,"soiltest_xml_url":0,"soiltest_view_url":0},{"id":178322,"code":"B4KJ201801006-6571","latitude":"34.8196661","longitude":"135.3313292","source_code":"KK52351276002","project_name":"","survey_name":"176\u53f7\u751f\u702c\u5730\u533a\u5730\u8cea\u8abf\u67fb\u4f5c\u696d","client_name":"\u56fd\u571f\u4ea4\u901a\u7701\u8fd1\u757f\u5730\u65b9\u6574\u5099\u5c40\u962a\u795e\u56fd\u9053\u4e8b\u52d9\u6240","boring_xml_url":40,"boring_view_url":1,"soilmap_view_url":null,"soiltest_xml_url":0,"soiltest_view_url":0},{"id":178321,"code":"B4KJ201801006-6570","latitude":"34.8177772","longitude":"135.3211914","source_code":"KK52351275008","project_name":"","survey_name":"\u540d\u5869\u9053\u8def\u57ce\u5c71\u5730\u533a\u5730\u8cea\u8abf\u67fb\u305d\u306e\u4ed6\u696d\u52d9","client_name":"\u56fd\u571f\u4ea4\u901a\u7701\u8fd1\u757f\u5730\u65b9\u6574\u5099\u5c40\u962a\u795e\u56fd\u9053\u4e8b\u52d9\u6240","boring_xml_url":40,"boring_view_url":1,"soilmap_view_url":null,"soiltest_xml_url":0,"soiltest_view_url":0},{"id":178320,"code":"B4KJ201801006-6569","latitude":"34.8178883","longitude":"135.3203581","source_code":"KK52351275006","project_name":"","survey_name":"176\u53f7\u592a\u591a\u7530\u6a4b\u5730\u8cea\u8abf\u67fb\u4f5c\u696d","client_name":"\u56fd\u571f\u4ea4\u901a\u7701\u8fd1\u757f\u5730\u65b9\u6574\u5099\u5c40\u962a\u795e\u56fd\u9053\u4e8b\u52d9\u6240","boring_xml_url":40,"boring_view_url":1,"soilmap_view_url":null,"soiltest_xml_url":0,"soiltest_view_url":0},{"id":178319,"code":"B4KJ201801006-6568","latitude":"34.8178883","longitude":"135.3200247","source_code":"KK52351275005","project_name":"","survey_name":"176\u53f7\u592a\u591a\u7530\u6a4b\u5730\u8cea\u8abf\u67fb\u4f5c\u696d","client_name":"\u56fd\u571f\u4ea4\u901a\u7701\u8fd1\u757f\u5730\u65b9\u6574\u5099\u5c40\u962a\u795e\u56fd\u9053\u4e8b\u52d9\u6240","boring_xml_url":40,"boring_view_url":1,"soilmap_view_url":null,"soiltest_xml_url":0,"soiltest_view_url":0},{"id":178318,"code":"B4KJ201801006-6567","latitude":"34.8178328","longitude":"135.3214689","source_code":"KK52351275002","project_name":"","survey_name":"176\u53f7\u6728\u4e4b\u5143,\u751f\u702c\u5730\u533a\u5730\u8cea\u8abf\u67fb\u4f5c\u696d","client_name":"\u56fd\u571f\u4ea4\u901a\u7701\u8fd1\u757f\u5730\u65b9\u6574\u5099\u5c40\u962a\u795e\u56fd\u9053\u4e8b\u52d9\u6240","boring_xml_url":40,"boring_view_url":1,"soilmap_view_url":null,"soiltest_xml_url":0,"soiltest_view_url":0},{"id":178317,"code":"B4KJ201801006-6566","latitude":"34.810167","longitude":"135.270364","source_code":"KK52351261005","project_name":"","survey_name":"\u662d\u548c53\u5e74\u5ea6\u5b9f\u65bd\u8a08\u753b\u5730\u8cea\u8abf\u67fb\u4f5c\u696d","client_name":"\u56fd\u571f\u4ea4\u901a\u7701\u8fd1\u757f\u5730\u65b9\u6574\u5099\u5c40\u516d\u7532\u7802\u9632\u4e8b\u52d9\u6240","boring_xml_url":40,"boring_view_url":1,"soilmap_view_url":null,"soiltest_xml_url":0,"soiltest_view_url":0},{"id":178316,"code":"B4KJ201801006-6565","latitude":"34.810167","longitude":"135.270003","source_code":"KK52351261004","project_name":"","survey_name":"\u662d\u548c53\u5e74\u5ea6\u5b9f\u65bd\u8a08\u753b\u5730\u8cea\u8abf\u67fb\u4f5c\u696d","client_name":"\u56fd\u571f\u4ea4\u901a\u7701\u8fd1\u757f\u5730\u65b9\u6574\u5099\u5c40\u516d\u7532\u7802\u9632\u4e8b\u52d9\u6240","boring_xml_url":40,"boring_view_url":1,"soilmap_view_url":null,"soiltest_xml_url":0,"soiltest_view_url":0}]}}