{"header":{"xyz":{"source":[],"mosaic":false},"page":4744,"raw":{"soiltest_result":"0","bbox":"57.598333,109.544722,1.933333,163.806111","page":"4744"},"conditions":{"soiltest_result":0,"north":57.598333,"west":109.544722,"south":1.933333,"east":163.806111},"success":true,"message":""},"data":{"meta":{"total":212844,"page":4744,"pages":7095,"count":30},"values":[{"id":178255,"code":"B4KJ201801006-6504","latitude":"34.7657264","longitude":"135.2659478","source_code":"KK52351211013","project_name":"","survey_name":"\u65b0\u751f\u7530\u5ddd\u4ed6\u5b9f\u65bd\u8a08\u753b\u5730\u8cea\u8abf\u67fb\u4f5c\u696d","client_name":"\u56fd\u571f\u4ea4\u901a\u7701\u8fd1\u757f\u5730\u65b9\u6574\u5099\u5c40\u516d\u7532\u7802\u9632\u4e8b\u52d9\u6240","boring_xml_url":40,"boring_view_url":1,"soilmap_view_url":null,"soiltest_xml_url":0,"soiltest_view_url":0},{"id":178254,"code":"B4KJ201801006-6503","latitude":"34.7657264","longitude":"135.2659478","source_code":"KK52351211012","project_name":"","survey_name":"\u65b0\u751f\u7530\u5ddd\u4ed6\u5b9f\u65bd\u8a08\u753b\u5730\u8cea\u8abf\u67fb\u4f5c\u696d","client_name":"\u56fd\u571f\u4ea4\u901a\u7701\u8fd1\u757f\u5730\u65b9\u6574\u5099\u5c40\u516d\u7532\u7802\u9632\u4e8b\u52d9\u6240","boring_xml_url":40,"boring_view_url":1,"soilmap_view_url":null,"soiltest_xml_url":0,"soiltest_view_url":0},{"id":178253,"code":"B4KJ201801006-6502","latitude":"34.7626433","longitude":"135.2671144","source_code":"KK52351211011","project_name":"","survey_name":"\u5919\u5ddd\u5916\u5b9f\u65bd\u8a08\u753b\u5730\u8cea\u8abf\u67fb\u4f5c\u696d","client_name":"\u56fd\u571f\u4ea4\u901a\u7701\u8fd1\u757f\u5730\u65b9\u6574\u5099\u5c40\u516d\u7532\u7802\u9632\u4e8b\u52d9\u6240","boring_xml_url":40,"boring_view_url":1,"soilmap_view_url":null,"soiltest_xml_url":0,"soiltest_view_url":0},{"id":178252,"code":"B4KJ201801006-6501","latitude":"34.7626989","longitude":"135.2670589","source_code":"KK52351211010","project_name":"","survey_name":"\u5919\u5ddd\u5916\u5b9f\u65bd\u8a08\u753b\u5730\u8cea\u8abf\u67fb\u4f5c\u696d","client_name":"\u56fd\u571f\u4ea4\u901a\u7701\u8fd1\u757f\u5730\u65b9\u6574\u5099\u5c40\u516d\u7532\u7802\u9632\u4e8b\u52d9\u6240","boring_xml_url":40,"boring_view_url":1,"soilmap_view_url":null,"soiltest_xml_url":0,"soiltest_view_url":0},{"id":178251,"code":"B4KJ201801006-6500","latitude":"34.763117","longitude":"135.266919","source_code":"KK52351211009","project_name":"","survey_name":"\u5919\u5ddd\u5916\u5b9f\u65bd\u8a08\u753b\u5730\u8cea\u8abf\u67fb\u4f5c\u696d","client_name":"\u56fd\u571f\u4ea4\u901a\u7701\u8fd1\u757f\u5730\u65b9\u6574\u5099\u5c40\u516d\u7532\u7802\u9632\u4e8b\u52d9\u6240","boring_xml_url":40,"boring_view_url":1,"soilmap_view_url":null,"soiltest_xml_url":0,"soiltest_view_url":0},{"id":178250,"code":"B4KJ201801006-6499","latitude":"34.76306","longitude":"135.2668922","source_code":"KK52351211008","project_name":"","survey_name":"\u5919\u5ddd\u5916\u5b9f\u65bd\u8a08\u753b\u5730\u8cea\u8abf\u67fb\u4f5c\u696d","client_name":"\u56fd\u571f\u4ea4\u901a\u7701\u8fd1\u757f\u5730\u65b9\u6574\u5099\u5c40\u516d\u7532\u7802\u9632\u4e8b\u52d9\u6240","boring_xml_url":40,"boring_view_url":1,"soilmap_view_url":null,"soiltest_xml_url":0,"soiltest_view_url":0},{"id":178249,"code":"B4KJ201801006-6498","latitude":"34.762922","longitude":"135.267392","source_code":"KK52351211007","project_name":"","survey_name":"\u5919\u5ddd\u5916\u5b9f\u65bd\u8a08\u753b\u5730\u8cea\u8abf\u67fb\u4f5c\u696d","client_name":"\u56fd\u571f\u4ea4\u901a\u7701\u8fd1\u757f\u5730\u65b9\u6574\u5099\u5c40\u516d\u7532\u7802\u9632\u4e8b\u52d9\u6240","boring_xml_url":40,"boring_view_url":1,"soilmap_view_url":null,"soiltest_xml_url":0,"soiltest_view_url":0},{"id":178248,"code":"B4KJ201801006-6497","latitude":"34.7625044","longitude":"135.2673367","source_code":"KK52351211006","project_name":"","survey_name":"\u5919\u5ddd\u5916\u5b9f\u65bd\u8a08\u753b\u5730\u8cea\u8abf\u67fb\u4f5c\u696d","client_name":"\u56fd\u571f\u4ea4\u901a\u7701\u8fd1\u757f\u5730\u65b9\u6574\u5099\u5c40\u516d\u7532\u7802\u9632\u4e8b\u52d9\u6240","boring_xml_url":40,"boring_view_url":1,"soilmap_view_url":null,"soiltest_xml_url":0,"soiltest_view_url":0},{"id":178247,"code":"B4KJ201801006-6496","latitude":"34.7627","longitude":"135.267308","source_code":"KK52351211005","project_name":"","survey_name":"\u5919\u5ddd\u5916\u5b9f\u65bd\u8a08\u753b\u5730\u8cea\u8abf\u67fb\u4f5c\u696d","client_name":"\u56fd\u571f\u4ea4\u901a\u7701\u8fd1\u757f\u5730\u65b9\u6574\u5099\u5c40\u516d\u7532\u7802\u9632\u4e8b\u52d9\u6240","boring_xml_url":40,"boring_view_url":1,"soilmap_view_url":null,"soiltest_xml_url":0,"soiltest_view_url":0},{"id":178246,"code":"B4KJ201801006-6495","latitude":"34.762783","longitude":"135.267253","source_code":"KK52351211004","project_name":"","survey_name":"\u5919\u5ddd\u5916\u5b9f\u65bd\u8a08\u753b\u5730\u8cea\u8abf\u67fb\u4f5c\u696d","client_name":"\u56fd\u571f\u4ea4\u901a\u7701\u8fd1\u757f\u5730\u65b9\u6574\u5099\u5c40\u516d\u7532\u7802\u9632\u4e8b\u52d9\u6240","boring_xml_url":40,"boring_view_url":1,"soilmap_view_url":null,"soiltest_xml_url":0,"soiltest_view_url":0},{"id":178245,"code":"B4KJ201801006-6494","latitude":"34.762894","longitude":"135.267225","source_code":"KK52351211003","project_name":"","survey_name":"\u5919\u5ddd\u5916\u5b9f\u65bd\u8a08\u753b\u5730\u8cea\u8abf\u67fb\u4f5c\u696d","client_name":"\u56fd\u571f\u4ea4\u901a\u7701\u8fd1\u757f\u5730\u65b9\u6574\u5099\u5c40\u516d\u7532\u7802\u9632\u4e8b\u52d9\u6240","boring_xml_url":40,"boring_view_url":1,"soilmap_view_url":null,"soiltest_xml_url":0,"soiltest_view_url":0},{"id":178244,"code":"B4KJ201801006-6493","latitude":"34.7629489","longitude":"135.2671422","source_code":"KK52351211002","project_name":"","survey_name":"\u5919\u5ddd\u5916\u5b9f\u65bd\u8a08\u753b\u5730\u8cea\u8abf\u67fb\u4f5c\u696d","client_name":"\u56fd\u571f\u4ea4\u901a\u7701\u8fd1\u757f\u5730\u65b9\u6574\u5099\u5c40\u516d\u7532\u7802\u9632\u4e8b\u52d9\u6240","boring_xml_url":40,"boring_view_url":1,"soilmap_view_url":null,"soiltest_xml_url":0,"soiltest_view_url":0},{"id":178243,"code":"B4KJ201801006-6492","latitude":"34.76306","longitude":"135.2671144","source_code":"KK52351211001","project_name":"","survey_name":"\u5919\u5ddd\u5916\u5b9f\u65bd\u8a08\u753b\u5730\u8cea\u8abf\u67fb\u4f5c\u696d","client_name":"\u56fd\u571f\u4ea4\u901a\u7701\u8fd1\u757f\u5730\u65b9\u6574\u5099\u5c40\u516d\u7532\u7802\u9632\u4e8b\u52d9\u6240","boring_xml_url":40,"boring_view_url":1,"soilmap_view_url":null,"soiltest_xml_url":0,"soiltest_view_url":0},{"id":178242,"code":"B4KJ201801006-6491","latitude":"34.765725","longitude":"135.25345","source_code":"KK52351210002","project_name":"","survey_name":"\u4f4f\u5409\u5ddd\u4ed6\u5b9f\u65bd\u8a08\u753b\u5730\u8cea\u8abf\u67fb\u4f5c\u696d","client_name":"\u56fd\u571f\u4ea4\u901a\u7701\u8fd1\u757f\u5730\u65b9\u6574\u5099\u5c40\u516d\u7532\u7802\u9632\u4e8b\u52d9\u6240","boring_xml_url":40,"boring_view_url":1,"soilmap_view_url":null,"soiltest_xml_url":0,"soiltest_view_url":0},{"id":178241,"code":"B4KJ201801006-6490","latitude":"34.765725","longitude":"135.25345","source_code":"KK52351210001","project_name":"","survey_name":"\u4f4f\u5409\u5ddd\u4ed6\u5b9f\u65bd\u8a08\u753b\u5730\u8cea\u8abf\u67fb\u4f5c\u696d","client_name":"\u56fd\u571f\u4ea4\u901a\u7701\u8fd1\u757f\u5730\u65b9\u6574\u5099\u5c40\u516d\u7532\u7802\u9632\u4e8b\u52d9\u6240","boring_xml_url":40,"boring_view_url":1,"soilmap_view_url":null,"soiltest_xml_url":0,"soiltest_view_url":0},{"id":178240,"code":"B4KJ201801006-6489","latitude":"34.7537842","longitude":"135.3041394","source_code":"KK52351204004","project_name":"","survey_name":"\u662d\u548c61\u5e74\u5ea6\u5b9f\u65bd\u8a08\u753b\u8a2d\u8a08\u305d\u306e5\u696d\u52d9","client_name":"\u56fd\u571f\u4ea4\u901a\u7701\u8fd1\u757f\u5730\u65b9\u6574\u5099\u5c40\u516d\u7532\u7802\u9632\u4e8b\u52d9\u6240","boring_xml_url":40,"boring_view_url":1,"soilmap_view_url":null,"soiltest_xml_url":0,"soiltest_view_url":0},{"id":178239,"code":"B4KJ201801006-6488","latitude":"34.7537842","longitude":"135.3041394","source_code":"KK52351204003","project_name":"","survey_name":"\u662d\u548c61\u5e74\u5ea6\u5b9f\u65bd\u8a08\u753b\u8a2d\u8a08\u305d\u306e5\u696d\u52d9","client_name":"\u56fd\u571f\u4ea4\u901a\u7701\u8fd1\u757f\u5730\u65b9\u6574\u5099\u5c40\u516d\u7532\u7802\u9632\u4e8b\u52d9\u6240","boring_xml_url":40,"boring_view_url":1,"soilmap_view_url":null,"soiltest_xml_url":0,"soiltest_view_url":0},{"id":178238,"code":"B4KJ201801006-6487","latitude":"34.7593114","longitude":"135.3031669","source_code":"KK52351204002","project_name":"","survey_name":"\u662d\u548c61\u5e74\u5ea6\u5b9f\u65bd\u8a08\u753b\u8a2d\u8a08\u305d\u306e1\u696d\u52d9","client_name":"\u56fd\u571f\u4ea4\u901a\u7701\u8fd1\u757f\u5730\u65b9\u6574\u5099\u5c40\u516d\u7532\u7802\u9632\u4e8b\u52d9\u6240","boring_xml_url":40,"boring_view_url":1,"soilmap_view_url":null,"soiltest_xml_url":0,"soiltest_view_url":0},{"id":178237,"code":"B4KJ201801006-6486","latitude":"34.7593114","longitude":"135.3031669","source_code":"KK52351204001","project_name":"","survey_name":"\u662d\u548c61\u5e74\u5ea6\u5b9f\u65bd\u8a08\u753b\u8a2d\u8a08\u305d\u306e1\u696d\u52d9","client_name":"\u56fd\u571f\u4ea4\u901a\u7701\u8fd1\u757f\u5730\u65b9\u6574\u5099\u5c40\u516d\u7532\u7802\u9632\u4e8b\u52d9\u6240","boring_xml_url":40,"boring_view_url":1,"soilmap_view_url":null,"soiltest_xml_url":0,"soiltest_view_url":0},{"id":178236,"code":"B4KJ201801006-6485","latitude":"34.7571167","longitude":"135.2863631","source_code":"KK52351203023","project_name":"","survey_name":"\u5e73\u6210\u5143\u5e74\u5ea6\u5b9f\u65bd\u8a08\u753b\u8a2d\u8a08\u305d\u306e4","client_name":"\u56fd\u571f\u4ea4\u901a\u7701\u8fd1\u757f\u5730\u65b9\u6574\u5099\u5c40\u516d\u7532\u7802\u9632\u4e8b\u52d9\u6240","boring_xml_url":40,"boring_view_url":1,"soilmap_view_url":null,"soiltest_xml_url":0,"soiltest_view_url":0},{"id":178235,"code":"B4KJ201801006-6484","latitude":"34.7568389","longitude":"135.2863631","source_code":"KK52351203022","project_name":"","survey_name":"\u5e73\u6210\u5143\u5e74\u5ea6\u5b9f\u65bd\u8a08\u753b\u8a2d\u8a08\u305d\u306e4","client_name":"\u56fd\u571f\u4ea4\u901a\u7701\u8fd1\u757f\u5730\u65b9\u6574\u5099\u5c40\u516d\u7532\u7802\u9632\u4e8b\u52d9\u6240","boring_xml_url":40,"boring_view_url":1,"soilmap_view_url":null,"soiltest_xml_url":0,"soiltest_view_url":0},{"id":178234,"code":"B4KJ201801006-6483","latitude":"34.7565611","longitude":"135.2863631","source_code":"KK52351203021","project_name":"","survey_name":"\u5e73\u6210\u5143\u5e74\u5ea6\u5b9f\u65bd\u8a08\u753b\u8a2d\u8a08\u305d\u306e4","client_name":"\u56fd\u571f\u4ea4\u901a\u7701\u8fd1\u757f\u5730\u65b9\u6574\u5099\u5c40\u516d\u7532\u7802\u9632\u4e8b\u52d9\u6240","boring_xml_url":40,"boring_view_url":1,"soilmap_view_url":null,"soiltest_xml_url":0,"soiltest_view_url":0},{"id":178233,"code":"B4KJ201801006-6482","latitude":"34.7581722","longitude":"135.2901683","source_code":"KK52351203020","project_name":"","survey_name":"\u662d\u548c63\u5e74\u5ea6\u5b9f\u65bd\u8a08\u753b\u8a2d\u8a08\u305d\u306e1\u696d\u52d9","client_name":"\u56fd\u571f\u4ea4\u901a\u7701\u8fd1\u757f\u5730\u65b9\u6574\u5099\u5c40\u516d\u7532\u7802\u9632\u4e8b\u52d9\u6240","boring_xml_url":40,"boring_view_url":1,"soilmap_view_url":null,"soiltest_xml_url":0,"soiltest_view_url":0},{"id":178232,"code":"B4KJ201801006-6481","latitude":"34.7581722","longitude":"135.2901683","source_code":"KK52351203019","project_name":"","survey_name":"\u662d\u548c63\u5e74\u5ea6\u5b9f\u65bd\u8a08\u753b\u8a2d\u8a08\u305d\u306e1\u696d\u52d9","client_name":"\u56fd\u571f\u4ea4\u901a\u7701\u8fd1\u757f\u5730\u65b9\u6574\u5099\u5c40\u516d\u7532\u7802\u9632\u4e8b\u52d9\u6240","boring_xml_url":40,"boring_view_url":1,"soilmap_view_url":null,"soiltest_xml_url":0,"soiltest_view_url":0},{"id":178231,"code":"B4KJ201801006-6480","latitude":"34.7581722","longitude":"135.2901683","source_code":"KK52351203018","project_name":"","survey_name":"\u662d\u548c63\u5e74\u5ea6\u5b9f\u65bd\u8a08\u753b\u8a2d\u8a08\u305d\u306e1\u696d\u52d9","client_name":"\u56fd\u571f\u4ea4\u901a\u7701\u8fd1\u757f\u5730\u65b9\u6574\u5099\u5c40\u516d\u7532\u7802\u9632\u4e8b\u52d9\u6240","boring_xml_url":40,"boring_view_url":1,"soilmap_view_url":null,"soiltest_xml_url":0,"soiltest_view_url":0},{"id":178230,"code":"B4KJ201801006-6479","latitude":"34.7573944","longitude":"135.2909458","source_code":"KK52351203017","project_name":"","survey_name":"\u82a6\u5c4b\u5ddd\u5916\u5b9f\u65bd\u8a08\u753b\u5730\u8cea\u8abf\u67fb\u696d\u52d9","client_name":"\u56fd\u571f\u4ea4\u901a\u7701\u8fd1\u757f\u5730\u65b9\u6574\u5099\u5c40\u516d\u7532\u7802\u9632\u4e8b\u52d9\u6240","boring_xml_url":40,"boring_view_url":1,"soilmap_view_url":null,"soiltest_xml_url":0,"soiltest_view_url":0},{"id":178229,"code":"B4KJ201801006-6478","latitude":"34.7573944","longitude":"135.2909458","source_code":"KK52351203016","project_name":"","survey_name":"\u82a6\u5c4b\u5ddd\u5916\u5b9f\u65bd\u8a08\u753b\u5730\u8cea\u8abf\u67fb\u696d\u52d9","client_name":"\u56fd\u571f\u4ea4\u901a\u7701\u8fd1\u757f\u5730\u65b9\u6574\u5099\u5c40\u516d\u7532\u7802\u9632\u4e8b\u52d9\u6240","boring_xml_url":40,"boring_view_url":1,"soilmap_view_url":null,"soiltest_xml_url":0,"soiltest_view_url":0},{"id":178228,"code":"B4KJ201801006-6477","latitude":"34.7573944","longitude":"135.2909458","source_code":"KK52351203015","project_name":"","survey_name":"\u82a6\u5c4b\u5ddd\u5916\u5b9f\u65bd\u8a08\u753b\u5730\u8cea\u8abf\u67fb\u696d\u52d9","client_name":"\u56fd\u571f\u4ea4\u901a\u7701\u8fd1\u757f\u5730\u65b9\u6574\u5099\u5c40\u516d\u7532\u7802\u9632\u4e8b\u52d9\u6240","boring_xml_url":40,"boring_view_url":1,"soilmap_view_url":null,"soiltest_xml_url":0,"soiltest_view_url":0},{"id":178227,"code":"B4KJ201801006-6476","latitude":"34.7573944","longitude":"135.2852519","source_code":"KK52351203014","project_name":"","survey_name":"\u662d\u548c52\u5e74\u5ea6\u5b9f\u65bd\u8a08\u753b\u5730\u8cea\u8abf\u67fb\u4f5c\u696d","client_name":"\u56fd\u571f\u4ea4\u901a\u7701\u8fd1\u757f\u5730\u65b9\u6574\u5099\u5c40\u516d\u7532\u7802\u9632\u4e8b\u52d9\u6240","boring_xml_url":40,"boring_view_url":1,"soilmap_view_url":null,"soiltest_xml_url":0,"soiltest_view_url":0},{"id":178226,"code":"B4KJ201801006-6475","latitude":"34.7572","longitude":"135.2852242","source_code":"KK52351203013","project_name":"","survey_name":"\u662d\u548c52\u5e74\u5ea6\u5b9f\u65bd\u8a08\u753b\u5730\u8cea\u8abf\u67fb\u4f5c\u696d","client_name":"\u56fd\u571f\u4ea4\u901a\u7701\u8fd1\u757f\u5730\u65b9\u6574\u5099\u5c40\u516d\u7532\u7802\u9632\u4e8b\u52d9\u6240","boring_xml_url":40,"boring_view_url":1,"soilmap_view_url":null,"soiltest_xml_url":0,"soiltest_view_url":0}]}}