{"header":{"xyz":{"source":[],"mosaic":false},"page":4765,"raw":{"soiltest_result":"0","bbox":"57.598333,109.544722,1.933333,163.806111","page":"4765"},"conditions":{"soiltest_result":0,"north":57.598333,"west":109.544722,"south":1.933333,"east":163.806111},"success":true,"message":""},"data":{"meta":{"total":212844,"page":4765,"pages":7095,"count":30},"values":[{"id":177625,"code":"B4KJ201801006-5874","latitude":"34.7215986","longitude":"135.5343981","source_code":"KK52350462021","project_name":"","survey_name":"\u962a\u795e\u9ad8\u901f\u9053\u8def\u5730\u8cea\u8cc7\u65996\u5929\u6e80\u30fb\u57ce\u5317\u7de8","client_name":"\u56fd\u571f\u4ea4\u901a\u7701\u8fd1\u757f\u5730\u65b9\u6574\u5099\u5c40\u6d6a\u901f\u56fd\u9053\u4e8b\u52d9\u6240","boring_xml_url":40,"boring_view_url":1,"soilmap_view_url":null,"soiltest_xml_url":0,"soiltest_view_url":0},{"id":177624,"code":"B4KJ201801006-5873","latitude":"34.7215986","longitude":"135.5335647","source_code":"KK52350462020","project_name":"","survey_name":"\u962a\u795e\u9ad8\u901f\u9053\u8def\u5730\u8cea\u8cc7\u65996\u5929\u6e80\u30fb\u57ce\u5317\u7de8","client_name":"\u56fd\u571f\u4ea4\u901a\u7701\u8fd1\u757f\u5730\u65b9\u6574\u5099\u5c40\u6d6a\u901f\u56fd\u9053\u4e8b\u52d9\u6240","boring_xml_url":40,"boring_view_url":1,"soilmap_view_url":null,"soiltest_xml_url":0,"soiltest_view_url":0},{"id":177623,"code":"B4KJ201801006-5872","latitude":"34.7213764","longitude":"135.5321761","source_code":"KK52350462018","project_name":"","survey_name":"\u962a\u795e\u9ad8\u901f\u9053\u8def\u5730\u8cea\u8cc7\u65996\u5929\u6e80\u30fb\u57ce\u5317\u7de8","client_name":"\u56fd\u571f\u4ea4\u901a\u7701\u8fd1\u757f\u5730\u65b9\u6574\u5099\u5c40\u6d6a\u901f\u56fd\u9053\u4e8b\u52d9\u6240","boring_xml_url":40,"boring_view_url":1,"soilmap_view_url":null,"soiltest_xml_url":0,"soiltest_view_url":0},{"id":177622,"code":"B4KJ201801006-5871","latitude":"34.7218208","longitude":"135.531065","source_code":"KK52350462016","project_name":"","survey_name":"\u962a\u795e\u9ad8\u901f\u9053\u8def\u5730\u8cea\u8cc7\u65996\u5929\u6e80\u30fb\u57ce\u5317\u7de8","client_name":"\u56fd\u571f\u4ea4\u901a\u7701\u8fd1\u757f\u5730\u65b9\u6574\u5099\u5c40\u6d6a\u901f\u56fd\u9053\u4e8b\u52d9\u6240","boring_xml_url":40,"boring_view_url":1,"soilmap_view_url":null,"soiltest_xml_url":0,"soiltest_view_url":0},{"id":177621,"code":"B4KJ201801006-5870","latitude":"34.7215986","longitude":"135.5296761","source_code":"KK52350462013","project_name":"","survey_name":"\u962a\u795e\u9ad8\u901f\u9053\u8def\u5730\u8cea\u8cc7\u65996\u5929\u6e80\u30fb\u57ce\u5317\u7de8","client_name":"\u56fd\u571f\u4ea4\u901a\u7701\u8fd1\u757f\u5730\u65b9\u6574\u5099\u5c40\u6d6a\u901f\u56fd\u9053\u4e8b\u52d9\u6240","boring_xml_url":40,"boring_view_url":1,"soilmap_view_url":null,"soiltest_xml_url":0,"soiltest_view_url":0},{"id":177620,"code":"B4KJ201801006-5869","latitude":"34.7220708","longitude":"135.5288428","source_code":"KK52350462011","project_name":"","survey_name":"\u962a\u795e\u9ad8\u901f\u9053\u8def\u5730\u8cea\u8cc7\u65996\u5929\u6e80\u30fb\u57ce\u5317\u7de8","client_name":"\u56fd\u571f\u4ea4\u901a\u7701\u8fd1\u757f\u5730\u65b9\u6574\u5099\u5c40\u6d6a\u901f\u56fd\u9053\u4e8b\u52d9\u6240","boring_xml_url":40,"boring_view_url":1,"soilmap_view_url":null,"soiltest_xml_url":0,"soiltest_view_url":0},{"id":177619,"code":"B4KJ201801006-5868","latitude":"34.7213764","longitude":"135.5280097","source_code":"KK52350462008","project_name":"","survey_name":"\u962a\u795e\u9ad8\u901f\u9053\u8def\u5730\u8cea\u8cc7\u65996\u5929\u6e80\u30fb\u57ce\u5317\u7de8","client_name":"\u56fd\u571f\u4ea4\u901a\u7701\u8fd1\u757f\u5730\u65b9\u6574\u5099\u5c40\u6d6a\u901f\u56fd\u9053\u4e8b\u52d9\u6240","boring_xml_url":40,"boring_view_url":1,"soilmap_view_url":null,"soiltest_xml_url":0,"soiltest_view_url":0},{"id":177618,"code":"B4KJ201801006-5867","latitude":"34.7213764","longitude":"135.5266208","source_code":"KK52350462006","project_name":"","survey_name":"\u962a\u795e\u9ad8\u901f\u9053\u8def\u5730\u8cea\u8cc7\u65996\u5929\u6e80\u30fb\u57ce\u5317\u7de8","client_name":"\u56fd\u571f\u4ea4\u901a\u7701\u8fd1\u757f\u5730\u65b9\u6574\u5099\u5c40\u6d6a\u901f\u56fd\u9053\u4e8b\u52d9\u6240","boring_xml_url":40,"boring_view_url":1,"soilmap_view_url":null,"soiltest_xml_url":0,"soiltest_view_url":0},{"id":177617,"code":"B4KJ201801006-5866","latitude":"34.7204875","longitude":"135.5257878","source_code":"KK52350462004","project_name":"","survey_name":"\u962a\u795e\u9ad8\u901f\u9053\u8def\u5730\u8cea\u8cc7\u65996\u5929\u6e80\u30fb\u57ce\u5317\u7de8","client_name":"\u56fd\u571f\u4ea4\u901a\u7701\u8fd1\u757f\u5730\u65b9\u6574\u5099\u5c40\u6d6a\u901f\u56fd\u9053\u4e8b\u52d9\u6240","boring_xml_url":40,"boring_view_url":1,"soilmap_view_url":null,"soiltest_xml_url":0,"soiltest_view_url":0},{"id":177616,"code":"B4KJ201801006-5865","latitude":"34.726014","longitude":"135.512817","source_code":"KK52350461119","project_name":"","survey_name":"\u6dc0\u5ddd\u4e0b\u6d41\u90e8\u7b2cII\u671f\u8010\u9707\u691c\u8a0e\u53f3\u5cb8\u65b0\u5317\u91ce\uff5e\u67f4\u5cf6\u5730\u8cea\u8abf\u67fb\u696d\u52d9","client_name":"\u56fd\u571f\u4ea4\u901a\u7701\u8fd1\u757f\u5730\u65b9\u6574\u5099\u5c40\u6dc0\u5ddd\u6cb3\u5ddd\u4e8b\u52d9\u6240","boring_xml_url":40,"boring_view_url":1,"soilmap_view_url":null,"soiltest_xml_url":0,"soiltest_view_url":0},{"id":177615,"code":"B4KJ201801006-5864","latitude":"34.724847","longitude":"135.511317","source_code":"KK52350461118","project_name":"","survey_name":"\u6dc0\u5ddd\u4e0b\u6d41\u90e8\u7b2cII\u671f\u8010\u9707\u691c\u8a0e\u53f3\u5cb8\u65b0\u5317\u91ce\uff5e\u67f4\u5cf6\u5730\u8cea\u8abf\u67fb\u696d\u52d9","client_name":"\u56fd\u571f\u4ea4\u901a\u7701\u8fd1\u757f\u5730\u65b9\u6574\u5099\u5c40\u6dc0\u5ddd\u6cb3\u5ddd\u4e8b\u52d9\u6240","boring_xml_url":40,"boring_view_url":1,"soilmap_view_url":null,"soiltest_xml_url":0,"soiltest_view_url":0},{"id":177614,"code":"B4KJ201801006-5863","latitude":"34.725153","longitude":"135.511122","source_code":"KK52350461117","project_name":"","survey_name":"\u6dc0\u5ddd\u4e0b\u6d41\u90e8\u7b2cII\u671f\u8010\u9707\u691c\u8a0e\u53f3\u5cb8\u65b0\u5317\u91ce\uff5e\u67f4\u5cf6\u5730\u8cea\u8abf\u67fb\u696d\u52d9","client_name":"\u56fd\u571f\u4ea4\u901a\u7701\u8fd1\u757f\u5730\u65b9\u6574\u5099\u5c40\u6dc0\u5ddd\u6cb3\u5ddd\u4e8b\u52d9\u6240","boring_xml_url":40,"boring_view_url":1,"soilmap_view_url":null,"soiltest_xml_url":0,"soiltest_view_url":0},{"id":177613,"code":"B4KJ201801006-5862","latitude":"34.725042","longitude":"135.511206","source_code":"KK52350461116","project_name":"","survey_name":"\u6dc0\u5ddd\u4e0b\u6d41\u90e8\u7b2cII\u671f\u8010\u9707\u691c\u8a0e\u53f3\u5cb8\u65b0\u5317\u91ce\uff5e\u67f4\u5cf6\u5730\u8cea\u8abf\u67fb\u696d\u52d9","client_name":"\u56fd\u571f\u4ea4\u901a\u7701\u8fd1\u757f\u5730\u65b9\u6574\u5099\u5c40\u6dc0\u5ddd\u6cb3\u5ddd\u4e8b\u52d9\u6240","boring_xml_url":40,"boring_view_url":1,"soilmap_view_url":null,"soiltest_xml_url":0,"soiltest_view_url":0},{"id":177612,"code":"B4KJ201801006-5861","latitude":"34.724236","longitude":"135.510511","source_code":"KK52350461115","project_name":"","survey_name":"\u6dc0\u5ddd\u4e0b\u6d41\u90e8\u7b2cII\u671f\u8010\u9707\u691c\u8a0e\u53f3\u5cb8\u65b0\u5317\u91ce\uff5e\u67f4\u5cf6\u5730\u8cea\u8abf\u67fb\u696d\u52d9","client_name":"\u56fd\u571f\u4ea4\u901a\u7701\u8fd1\u757f\u5730\u65b9\u6574\u5099\u5c40\u6dc0\u5ddd\u6cb3\u5ddd\u4e8b\u52d9\u6240","boring_xml_url":40,"boring_view_url":1,"soilmap_view_url":null,"soiltest_xml_url":0,"soiltest_view_url":0},{"id":177611,"code":"B4KJ201801006-5860","latitude":"34.724819","longitude":"135.510539","source_code":"KK52350461114","project_name":"","survey_name":"\u6dc0\u5ddd\u4e0b\u6d41\u90e8\u7b2cII\u671f\u8010\u9707\u691c\u8a0e\u53f3\u5cb8\u65b0\u5317\u91ce\uff5e\u67f4\u5cf6\u5730\u8cea\u8abf\u67fb\u696d\u52d9","client_name":"\u56fd\u571f\u4ea4\u901a\u7701\u8fd1\u757f\u5730\u65b9\u6574\u5099\u5c40\u6dc0\u5ddd\u6cb3\u5ddd\u4e8b\u52d9\u6240","boring_xml_url":40,"boring_view_url":1,"soilmap_view_url":null,"soiltest_xml_url":0,"soiltest_view_url":0},{"id":177610,"code":"B4KJ201801006-5859","latitude":"34.724569","longitude":"135.510511","source_code":"KK52350461113","project_name":"","survey_name":"\u6dc0\u5ddd\u4e0b\u6d41\u90e8\u7b2cII\u671f\u8010\u9707\u691c\u8a0e\u53f3\u5cb8\u65b0\u5317\u91ce\uff5e\u67f4\u5cf6\u5730\u8cea\u8abf\u67fb\u696d\u52d9","client_name":"\u56fd\u571f\u4ea4\u901a\u7701\u8fd1\u757f\u5730\u65b9\u6574\u5099\u5c40\u6dc0\u5ddd\u6cb3\u5ddd\u4e8b\u52d9\u6240","boring_xml_url":40,"boring_view_url":1,"soilmap_view_url":null,"soiltest_xml_url":0,"soiltest_view_url":0},{"id":177609,"code":"B4KJ201801006-5858","latitude":"34.7268756","longitude":"135.5217044","source_code":"KK52350461112","project_name":"","survey_name":"\u6dc0\u5ddd\u5de6\u5cb8\u90fd\u5cf6\u30fb\u65ed\u5730\u8cea\u8abf\u67fb\u696d\u52d9","client_name":"\u56fd\u571f\u4ea4\u901a\u7701\u8fd1\u757f\u5730\u65b9\u6574\u5099\u5c40\u6dc0\u5ddd\u6cb3\u5ddd\u4e8b\u52d9\u6240","boring_xml_url":40,"boring_view_url":1,"soilmap_view_url":null,"soiltest_xml_url":0,"soiltest_view_url":0},{"id":177608,"code":"B4KJ201801006-5857","latitude":"34.726569","longitude":"135.522039","source_code":"KK52350461111","project_name":"","survey_name":"\u6dc0\u5ddd\u5de6\u5cb8\u90fd\u5cf6\u30fb\u65ed\u5730\u8cea\u8abf\u67fb\u696d\u52d9","client_name":"\u56fd\u571f\u4ea4\u901a\u7701\u8fd1\u757f\u5730\u65b9\u6574\u5099\u5c40\u6dc0\u5ddd\u6cb3\u5ddd\u4e8b\u52d9\u6240","boring_xml_url":40,"boring_view_url":1,"soilmap_view_url":null,"soiltest_xml_url":0,"soiltest_view_url":0},{"id":177607,"code":"B4KJ201801006-5856","latitude":"34.7257922","longitude":"135.5205381","source_code":"KK52350461110","project_name":"","survey_name":"\u6dc0\u5ddd\u5de6\u5cb8\u90fd\u5cf6\u30fb\u65ed\u5730\u8cea\u8abf\u67fb\u696d\u52d9","client_name":"\u56fd\u571f\u4ea4\u901a\u7701\u8fd1\u757f\u5730\u65b9\u6574\u5099\u5c40\u6dc0\u5ddd\u6cb3\u5ddd\u4e8b\u52d9\u6240","boring_xml_url":40,"boring_view_url":1,"soilmap_view_url":null,"soiltest_xml_url":0,"soiltest_view_url":0},{"id":177606,"code":"B4KJ201801006-5855","latitude":"34.725514","longitude":"135.5209","source_code":"KK52350461109","project_name":"","survey_name":"\u6dc0\u5ddd\u5de6\u5cb8\u90fd\u5cf6\u30fb\u65ed\u5730\u8cea\u8abf\u67fb\u696d\u52d9","client_name":"\u56fd\u571f\u4ea4\u901a\u7701\u8fd1\u757f\u5730\u65b9\u6574\u5099\u5c40\u6dc0\u5ddd\u6cb3\u5ddd\u4e8b\u52d9\u6240","boring_xml_url":40,"boring_view_url":1,"soilmap_view_url":null,"soiltest_xml_url":0,"soiltest_view_url":0},{"id":177605,"code":"B4KJ201801006-5854","latitude":"34.7244036","longitude":"135.5192881","source_code":"KK52350461108","project_name":"","survey_name":"\u6dc0\u5ddd\u5de6\u5cb8\u90fd\u5cf6\u30fb\u65ed\u5730\u8cea\u8abf\u67fb\u696d\u52d9","client_name":"\u56fd\u571f\u4ea4\u901a\u7701\u8fd1\u757f\u5730\u65b9\u6574\u5099\u5c40\u6dc0\u5ddd\u6cb3\u5ddd\u4e8b\u52d9\u6240","boring_xml_url":40,"boring_view_url":1,"soilmap_view_url":null,"soiltest_xml_url":0,"soiltest_view_url":0},{"id":177604,"code":"B4KJ201801006-5853","latitude":"34.7273753","longitude":"135.5139831","source_code":"KK52350461107","project_name":"","survey_name":"\u6dc0\u5ddd\u53f3\u5cb8\u6771\u6dc0\u5ddd\u5730\u8cea\u8abf\u67fb\u696d\u52d9","client_name":"\u56fd\u571f\u4ea4\u901a\u7701\u8fd1\u757f\u5730\u65b9\u6574\u5099\u5c40\u6dc0\u5ddd\u6cb3\u5ddd\u4e8b\u52d9\u6240","boring_xml_url":40,"boring_view_url":1,"soilmap_view_url":null,"soiltest_xml_url":0,"soiltest_view_url":0},{"id":177603,"code":"B4KJ201801006-5852","latitude":"34.7241814","longitude":"135.5196769","source_code":"KK52350461106","project_name":"","survey_name":"\u6dc0\u5ddd\u5de6\u5cb8\u90fd\u5cf6\u30fb\u65ed\u5730\u8cea\u8abf\u67fb\u696d\u52d9","client_name":"\u56fd\u571f\u4ea4\u901a\u7701\u8fd1\u757f\u5730\u65b9\u6574\u5099\u5c40\u6dc0\u5ddd\u6cb3\u5ddd\u4e8b\u52d9\u6240","boring_xml_url":40,"boring_view_url":1,"soilmap_view_url":null,"soiltest_xml_url":0,"soiltest_view_url":0},{"id":177602,"code":"B4KJ201801006-5851","latitude":"34.722931","longitude":"135.517761","source_code":"KK52350461105","project_name":"","survey_name":"\u6dc0\u5ddd\u4e0b\u6d41\u90e8\u7b2cII\u671f\u8010\u9707\u691c\u8a0e\u5de6\u5cb8\u5730\u8cea\u8abf\u67fb\u696d\u52d9","client_name":"\u56fd\u571f\u4ea4\u901a\u7701\u8fd1\u757f\u5730\u65b9\u6574\u5099\u5c40\u6dc0\u5ddd\u6cb3\u5ddd\u4e8b\u52d9\u6240","boring_xml_url":40,"boring_view_url":1,"soilmap_view_url":null,"soiltest_xml_url":0,"soiltest_view_url":0},{"id":177601,"code":"B4KJ201801006-5850","latitude":"34.724264","longitude":"135.519539","source_code":"KK52350461104","project_name":"","survey_name":"\u6dc0\u5ddd\u5de6\u5cb8\u90fd\u5cf6\u30fb\u65ed\u5730\u8cea\u8abf\u67fb\u696d\u52d9","client_name":"\u56fd\u571f\u4ea4\u901a\u7701\u8fd1\u757f\u5730\u65b9\u6574\u5099\u5c40\u6dc0\u5ddd\u6cb3\u5ddd\u4e8b\u52d9\u6240","boring_xml_url":40,"boring_view_url":1,"soilmap_view_url":null,"soiltest_xml_url":0,"soiltest_view_url":0},{"id":177600,"code":"B4KJ201801006-5849","latitude":"34.726014","longitude":"135.512817","source_code":"KK52350461103","project_name":"","survey_name":"\u6dc0\u5ddd\u4e0b\u6d41\u90e8\u7b2cII\u671f\u8010\u9707\u691c\u8a0e \u53f3\u5cb8\u65b0\u5317\u91ce\uff5e\u67f4\u5cf6\u5730\u8cea\u8abf\u67fb\u696d\u52d9","client_name":"\u56fd\u571f\u4ea4\u901a\u7701\u8fd1\u757f\u5730\u65b9\u6574\u5099\u5c40\u6dc0\u5ddd\u6cb3\u5ddd\u4e8b\u52d9\u6240","boring_xml_url":40,"boring_view_url":1,"soilmap_view_url":null,"soiltest_xml_url":0,"soiltest_view_url":0},{"id":177599,"code":"B4KJ201801006-5848","latitude":"34.727486","longitude":"135.513761","source_code":"KK52350461102","project_name":"","survey_name":"\u6dc0\u5ddd\u53f3\u5cb8\u6771\u6dc0\u5ddd\u5730\u8cea\u8abf\u67fb\u696d\u52d9","client_name":"\u56fd\u571f\u4ea4\u901a\u7701\u8fd1\u757f\u5730\u65b9\u6574\u5099\u5c40\u6dc0\u5ddd\u6cb3\u5ddd\u4e8b\u52d9\u6240","boring_xml_url":40,"boring_view_url":1,"soilmap_view_url":null,"soiltest_xml_url":0,"soiltest_view_url":0},{"id":177598,"code":"B4KJ201801006-5847","latitude":"34.7207372","longitude":"135.5139831","source_code":"KK52350461047","project_name":"","survey_name":"\u6bdb\u99ac\u5730\u5148\u5730\u8cea\u8abf\u67fb\u4f5c\u696d","client_name":"\u56fd\u571f\u4ea4\u901a\u7701\u8fd1\u757f\u5730\u65b9\u6574\u5099\u5c40\u6dc0\u5ddd\u6cb3\u5ddd\u4e8b\u52d9\u6240","boring_xml_url":40,"boring_view_url":1,"soilmap_view_url":null,"soiltest_xml_url":0,"soiltest_view_url":0},{"id":177597,"code":"B4KJ201801006-5846","latitude":"34.725681","longitude":"135.521067","source_code":"KK52350461045","project_name":"","survey_name":"\u6dc0\u5ddd\u5824\u9632\u8abf\u67fb\u691c\u8a0e(\u305d\u306e4)\u696d\u52d9","client_name":"\u56fd\u571f\u4ea4\u901a\u7701\u8fd1\u757f\u5730\u65b9\u6574\u5099\u5c40\u6dc0\u5ddd\u6cb3\u5ddd\u4e8b\u52d9\u6240","boring_xml_url":40,"boring_view_url":1,"soilmap_view_url":null,"soiltest_xml_url":0,"soiltest_view_url":0},{"id":177596,"code":"B4KJ201801006-5845","latitude":"34.7240703","longitude":"135.5159272","source_code":"KK52350461044","project_name":"","survey_name":"\u6dc0\u5ddd\u5824\u9632\u8abf\u67fb\u691c\u8a0e(\u305d\u306e4)\u696d\u52d9","client_name":"\u56fd\u571f\u4ea4\u901a\u7701\u8fd1\u757f\u5730\u65b9\u6574\u5099\u5c40\u6dc0\u5ddd\u6cb3\u5ddd\u4e8b\u52d9\u6240","boring_xml_url":40,"boring_view_url":1,"soilmap_view_url":null,"soiltest_xml_url":0,"soiltest_view_url":0}]}}