{"header":{"xyz":{"source":[],"mosaic":false},"page":4775,"raw":{"soiltest_result":"0","bbox":"57.598333,109.544722,1.933333,163.806111","page":"4775"},"conditions":{"soiltest_result":0,"north":57.598333,"west":109.544722,"south":1.933333,"east":163.806111},"success":true,"message":""},"data":{"meta":{"total":212844,"page":4775,"pages":7095,"count":30},"values":[{"id":177325,"code":"B4KJ201801006-5574","latitude":"34.7466775","longitude":"135.4585706","source_code":"KK52350396011","project_name":"","survey_name":"\u571f\u8cea\u5730\u8cea\u8abf\u67fb(\u4e00\u5eab\u30c0\u30e0\u5de6\u5cb8\u571f\u8cea\u8abf\u67fb\u306a\u30698\u4ef6)","client_name":"\u56fd\u571f\u4ea4\u901a\u7701\u8fd1\u757f\u5730\u65b9\u6574\u5099\u5c40\u732a\u540d\u5ddd\u6cb3\u5ddd\u4e8b\u52d9\u6240","boring_xml_url":40,"boring_view_url":1,"soilmap_view_url":null,"soiltest_xml_url":0,"soiltest_view_url":0},{"id":177324,"code":"B4KJ201801006-5573","latitude":"34.746678","longitude":"135.458292","source_code":"KK52350396010","project_name":"","survey_name":"\u571f\u8cea\u5730\u8cea\u8abf\u67fb(\u4e00\u5eab\u30c0\u30e0\u5de6\u5cb8\u571f\u8cea\u8abf\u67fb\u306a\u30698\u4ef6)","client_name":"\u56fd\u571f\u4ea4\u901a\u7701\u8fd1\u757f\u5730\u65b9\u6574\u5099\u5c40\u732a\u540d\u5ddd\u6cb3\u5ddd\u4e8b\u52d9\u6240","boring_xml_url":40,"boring_view_url":1,"soilmap_view_url":null,"soiltest_xml_url":0,"soiltest_view_url":0},{"id":177323,"code":"B4KJ201801006-5572","latitude":"34.7453164","longitude":"135.4577372","source_code":"KK52350396009","project_name":"","survey_name":"\u8c4a\u4e2d\u4f4e\u6c34\u8def\u8b77\u5cb8\u6e2c\u91cf\u8abf\u67fb\u8a2d\u8a08\u696d\u52d9","client_name":"\u56fd\u571f\u4ea4\u901a\u7701\u8fd1\u757f\u5730\u65b9\u6574\u5099\u5c40\u732a\u540d\u5ddd\u6cb3\u5ddd\u4e8b\u52d9\u6240","boring_xml_url":40,"boring_view_url":1,"soilmap_view_url":null,"soiltest_xml_url":0,"soiltest_view_url":0},{"id":177322,"code":"B4KJ201801006-5571","latitude":"34.7471217","longitude":"135.4532931","source_code":"KK52350396008","project_name":"","survey_name":"\u6771\u5712\u7530\u6e2c\u91cf.\u8abf\u67fb.\u8a2d\u8a08\u696d\u52d9(\u5730\u8cea\u8abf\u67fb)","client_name":"\u56fd\u571f\u4ea4\u901a\u7701\u8fd1\u757f\u5730\u65b9\u6574\u5099\u5c40\u732a\u540d\u5ddd\u6cb3\u5ddd\u4e8b\u52d9\u6240","boring_xml_url":40,"boring_view_url":1,"soilmap_view_url":null,"soiltest_xml_url":0,"soiltest_view_url":0},{"id":177321,"code":"B4KJ201801006-5570","latitude":"34.7482603","longitude":"135.4513489","source_code":"KK52350396007","project_name":"","survey_name":"\u6771\u5712\u7530\u6e2c\u91cf.\u8abf\u67fb.\u8a2d\u8a08\u696d\u52d9(\u5730\u8cea\u8abf\u67fb)","client_name":"\u56fd\u571f\u4ea4\u901a\u7701\u8fd1\u757f\u5730\u65b9\u6574\u5099\u5c40\u732a\u540d\u5ddd\u6cb3\u5ddd\u4e8b\u52d9\u6240","boring_xml_url":40,"boring_view_url":1,"soilmap_view_url":null,"soiltest_xml_url":0,"soiltest_view_url":0},{"id":177320,"code":"B4KJ201801006-5569","latitude":"34.7500656","longitude":"135.4488489","source_code":"KK52350396006","project_name":"","survey_name":"\u6771\u5712\u7530\u6e2c\u91cf.\u8abf\u67fb.\u8a2d\u8a08\u696d\u52d9(\u5730\u8cea\u8abf\u67fb)","client_name":"\u56fd\u571f\u4ea4\u901a\u7701\u8fd1\u757f\u5730\u65b9\u6574\u5099\u5c40\u732a\u540d\u5ddd\u6cb3\u5ddd\u4e8b\u52d9\u6240","boring_xml_url":40,"boring_view_url":1,"soilmap_view_url":null,"soiltest_xml_url":0,"soiltest_view_url":0},{"id":177319,"code":"B4KJ201801006-5568","latitude":"34.7487325","longitude":"135.4482658","source_code":"KK52350396005","project_name":"","survey_name":"\u85fb\u5ddd\u4f4e\u6c34\u8b77\u5cb8\u90e8\u30dc\u30fc\u30ea\u30f3\u30b0\u8abf\u67fb\u53ca\u3073\u6e2c\u91cf\u696d\u52d9","client_name":"\u56fd\u571f\u4ea4\u901a\u7701\u8fd1\u757f\u5730\u65b9\u6574\u5099\u5c40\u732a\u540d\u5ddd\u6cb3\u5ddd\u4e8b\u52d9\u6240","boring_xml_url":40,"boring_view_url":1,"soilmap_view_url":null,"soiltest_xml_url":0,"soiltest_view_url":0},{"id":177318,"code":"B4KJ201801006-5567","latitude":"34.7480103","longitude":"135.4493767","source_code":"KK52350396004","project_name":"","survey_name":"\u85fb\u5ddd\u4f4e\u6c34\u8b77\u5cb8\u90e8\u30dc\u30fc\u30ea\u30f3\u30b0\u8abf\u67fb\u53ca\u3073\u6e2c\u91cf\u696d\u52d9","client_name":"\u56fd\u571f\u4ea4\u901a\u7701\u8fd1\u757f\u5730\u65b9\u6574\u5099\u5c40\u732a\u540d\u5ddd\u6cb3\u5ddd\u4e8b\u52d9\u6240","boring_xml_url":40,"boring_view_url":1,"soilmap_view_url":null,"soiltest_xml_url":0,"soiltest_view_url":0},{"id":177317,"code":"B4KJ201801006-5566","latitude":"34.747205","longitude":"135.45046","source_code":"KK52350396003","project_name":"","survey_name":"\u85fb\u5ddd\u4f4e\u6c34\u8b77\u5cb8\u90e8\u30dc\u30fc\u30ea\u30f3\u30b0\u8abf\u67fb\u53ca\u3073\u6e2c\u91cf\u696d\u52d9","client_name":"\u56fd\u571f\u4ea4\u901a\u7701\u8fd1\u757f\u5730\u65b9\u6574\u5099\u5c40\u732a\u540d\u5ddd\u6cb3\u5ddd\u4e8b\u52d9\u6240","boring_xml_url":40,"boring_view_url":1,"soilmap_view_url":null,"soiltest_xml_url":0,"soiltest_view_url":0},{"id":177316,"code":"B4KJ201801006-5565","latitude":"34.746705","longitude":"135.4515433","source_code":"KK52350396002","project_name":"","survey_name":"\u85fb\u5ddd\u4f4e\u6c34\u8b77\u5cb8\u90e8\u30dc\u30fc\u30ea\u30f3\u30b0\u8abf\u67fb\u53ca\u3073\u6e2c\u91cf\u696d\u52d9","client_name":"\u56fd\u571f\u4ea4\u901a\u7701\u8fd1\u757f\u5730\u65b9\u6574\u5099\u5c40\u732a\u540d\u5ddd\u6cb3\u5ddd\u4e8b\u52d9\u6240","boring_xml_url":40,"boring_view_url":1,"soilmap_view_url":null,"soiltest_xml_url":0,"soiltest_view_url":0},{"id":177315,"code":"B4KJ201801006-5564","latitude":"34.7457886","longitude":"135.4526544","source_code":"KK52350396001","project_name":"","survey_name":"\u85fb\u5ddd\u4f4e\u6c34\u8b77\u5cb8\u90e8\u30dc\u30fc\u30ea\u30f3\u30b0\u8abf\u67fb\u53ca\u3073\u6e2c\u91cf\u696d\u52d9","client_name":"\u56fd\u571f\u4ea4\u901a\u7701\u8fd1\u757f\u5730\u65b9\u6574\u5099\u5c40\u732a\u540d\u5ddd\u6cb3\u5ddd\u4e8b\u52d9\u6240","boring_xml_url":40,"boring_view_url":1,"soilmap_view_url":null,"soiltest_xml_url":0,"soiltest_view_url":0},{"id":177314,"code":"B4KJ201801006-5563","latitude":"34.7462881","longitude":"135.4396833","source_code":"KK52350395007","project_name":"","survey_name":"\u6771\u5712\u7530(\u732a\u540d\u5ddd)\u571f\u8cea\u8abf\u67fb\u4f5c\u696d\u53ca\u3073\u8b77\u5cb8\u691c\u8a0e\u696d\u52d9","client_name":"\u56fd\u571f\u4ea4\u901a\u7701\u8fd1\u757f\u5730\u65b9\u6574\u5099\u5c40\u732a\u540d\u5ddd\u6cb3\u5ddd\u4e8b\u52d9\u6240","boring_xml_url":40,"boring_view_url":1,"soilmap_view_url":null,"soiltest_xml_url":0,"soiltest_view_url":0},{"id":177313,"code":"B4KJ201801006-5562","latitude":"34.7462881","longitude":"135.4396833","source_code":"KK52350395006","project_name":"","survey_name":"\u6771\u5712\u7530(\u732a\u540d\u5ddd)\u571f\u8cea\u8abf\u67fb\u4f5c\u696d\u53ca\u3073\u8b77\u5cb8\u691c\u8a0e\u696d\u52d9","client_name":"\u56fd\u571f\u4ea4\u901a\u7701\u8fd1\u757f\u5730\u65b9\u6574\u5099\u5c40\u732a\u540d\u5ddd\u6cb3\u5ddd\u4e8b\u52d9\u6240","boring_xml_url":40,"boring_view_url":1,"soilmap_view_url":null,"soiltest_xml_url":0,"soiltest_view_url":0},{"id":177312,"code":"B4KJ201801006-5561","latitude":"34.7527597","longitude":"135.4430161","source_code":"KK52350395005","project_name":"","survey_name":"\u5c0f\u4e2d\u5cf6\u5730\u5148\u4f4e\u6c34\u8def\u8b77\u5cb8\u8a73\u7d30\u8a2d\u8a08\u696d\u52d9\u5730\u8cea\u8abf\u67fb","client_name":"\u56fd\u571f\u4ea4\u901a\u7701\u8fd1\u757f\u5730\u65b9\u6574\u5099\u5c40\u732a\u540d\u5ddd\u6cb3\u5ddd\u4e8b\u52d9\u6240","boring_xml_url":40,"boring_view_url":1,"soilmap_view_url":null,"soiltest_xml_url":0,"soiltest_view_url":0},{"id":177311,"code":"B4KJ201801006-5560","latitude":"34.7500656","longitude":"135.4463492","source_code":"KK52350395004","project_name":"","survey_name":"\u5c0f\u4e2d\u5cf6\u5730\u5148\u4f4e\u6c34\u8def\u8b77\u5cb8\u8a73\u7d30\u8a2d\u8a08\u696d\u52d9\u5730\u8cea\u8abf\u67fb","client_name":"\u56fd\u571f\u4ea4\u901a\u7701\u8fd1\u757f\u5730\u65b9\u6574\u5099\u5c40\u732a\u540d\u5ddd\u6cb3\u5ddd\u4e8b\u52d9\u6240","boring_xml_url":40,"boring_view_url":1,"soilmap_view_url":null,"soiltest_xml_url":0,"soiltest_view_url":0},{"id":177310,"code":"B4KJ201801006-5559","latitude":"34.7523431","longitude":"135.4430717","source_code":"KK52350395003","project_name":"","survey_name":"\u85fb\u5ddd\u4f4e\u6c34\u8b77\u5cb8\u90e8\u30dc\u30fc\u30ea\u30f3\u30b0\u8abf\u67fb\u53ca\u3073\u6e2c\u91cf\u696d\u52d9","client_name":"\u56fd\u571f\u4ea4\u901a\u7701\u8fd1\u757f\u5730\u65b9\u6574\u5099\u5c40\u732a\u540d\u5ddd\u6cb3\u5ddd\u4e8b\u52d9\u6240","boring_xml_url":40,"boring_view_url":1,"soilmap_view_url":null,"soiltest_xml_url":0,"soiltest_view_url":0},{"id":177309,"code":"B4KJ201801006-5558","latitude":"34.7512044","longitude":"135.4452658","source_code":"KK52350395002","project_name":"","survey_name":"\u85fb\u5ddd\u4f4e\u6c34\u8b77\u5cb8\u90e8\u30dc\u30fc\u30ea\u30f3\u30b0\u8abf\u67fb\u53ca\u3073\u6e2c\u91cf\u696d\u52d9","client_name":"\u56fd\u571f\u4ea4\u901a\u7701\u8fd1\u757f\u5730\u65b9\u6574\u5099\u5c40\u732a\u540d\u5ddd\u6cb3\u5ddd\u4e8b\u52d9\u6240","boring_xml_url":40,"boring_view_url":1,"soilmap_view_url":null,"soiltest_xml_url":0,"soiltest_view_url":0},{"id":177308,"code":"B4KJ201801006-5557","latitude":"34.74465","longitude":"135.4657922","source_code":"KK52350387015","project_name":"","survey_name":"\u962a\u795e\u9ad8\u901f\u9053\u8def\u5730\u8cea\u8cc7\u65994\u6885\u7530-\u7a7a\u6e2f\u7de8","client_name":"\u56fd\u571f\u4ea4\u901a\u7701\u8fd1\u757f\u5730\u65b9\u6574\u5099\u5c40\u6d6a\u901f\u56fd\u9053\u4e8b\u52d9\u6240","boring_xml_url":40,"boring_view_url":1,"soilmap_view_url":null,"soiltest_xml_url":0,"soiltest_view_url":0},{"id":177307,"code":"B4KJ201801006-5556","latitude":"34.7432892","longitude":"135.4657922","source_code":"KK52350387013","project_name":"","survey_name":"\u962a\u795e\u9ad8\u901f\u9053\u8def\u5730\u8cea\u8cc7\u65994\u6885\u7530-\u7a7a\u6e2f\u7de8","client_name":"\u56fd\u571f\u4ea4\u901a\u7701\u8fd1\u757f\u5730\u65b9\u6574\u5099\u5c40\u6d6a\u901f\u56fd\u9053\u4e8b\u52d9\u6240","boring_xml_url":40,"boring_view_url":1,"soilmap_view_url":null,"soiltest_xml_url":0,"soiltest_view_url":0},{"id":177306,"code":"B4KJ201801006-5555","latitude":"34.7428447","longitude":"135.4660422","source_code":"KK52350387012","project_name":"","survey_name":"\u962a\u795e\u9ad8\u901f\u9053\u8def\u5730\u8cea\u8cc7\u65994\u6885\u7530-\u7a7a\u6e2f\u7de8","client_name":"\u56fd\u571f\u4ea4\u901a\u7701\u8fd1\u757f\u5730\u65b9\u6574\u5099\u5c40\u6d6a\u901f\u56fd\u9053\u4e8b\u52d9\u6240","boring_xml_url":40,"boring_view_url":1,"soilmap_view_url":null,"soiltest_xml_url":0,"soiltest_view_url":0},{"id":177305,"code":"B4KJ201801006-5554","latitude":"34.7421503","longitude":"135.4657922","source_code":"KK52350387011","project_name":"","survey_name":"\u962a\u795e\u9ad8\u901f\u9053\u8def\u5730\u8cea\u8cc7\u65994\u6885\u7530-\u7a7a\u6e2f\u7de8","client_name":"\u56fd\u571f\u4ea4\u901a\u7701\u8fd1\u757f\u5730\u65b9\u6574\u5099\u5c40\u6d6a\u901f\u56fd\u9053\u4e8b\u52d9\u6240","boring_xml_url":40,"boring_view_url":1,"soilmap_view_url":null,"soiltest_xml_url":0,"soiltest_view_url":0},{"id":177304,"code":"B4KJ201801006-5553","latitude":"34.7414836","longitude":"135.4660422","source_code":"KK52350387010","project_name":"","survey_name":"\u962a\u795e\u9ad8\u901f\u9053\u8def\u5730\u8cea\u8cc7\u65994\u6885\u7530-\u7a7a\u6e2f\u7de8","client_name":"\u56fd\u571f\u4ea4\u901a\u7701\u8fd1\u757f\u5730\u65b9\u6574\u5099\u5c40\u6d6a\u901f\u56fd\u9053\u4e8b\u52d9\u6240","boring_xml_url":40,"boring_view_url":1,"soilmap_view_url":null,"soiltest_xml_url":0,"soiltest_view_url":0},{"id":177303,"code":"B4KJ201801006-5552","latitude":"34.7410117","longitude":"135.4655144","source_code":"KK52350387009","project_name":"","survey_name":"\u962a\u795e\u9ad8\u901f\u9053\u8def\u5730\u8cea\u8cc7\u65994\u6885\u7530-\u7a7a\u6e2f\u7de8","client_name":"\u56fd\u571f\u4ea4\u901a\u7701\u8fd1\u757f\u5730\u65b9\u6574\u5099\u5c40\u6d6a\u901f\u56fd\u9053\u4e8b\u52d9\u6240","boring_xml_url":40,"boring_view_url":1,"soilmap_view_url":null,"soiltest_xml_url":0,"soiltest_view_url":0},{"id":177302,"code":"B4KJ201801006-5551","latitude":"34.740345","longitude":"135.4657922","source_code":"KK52350387008","project_name":"","survey_name":"\u962a\u795e\u9ad8\u901f\u9053\u8def\u5730\u8cea\u8cc7\u65994\u6885\u7530-\u7a7a\u6e2f\u7de8","client_name":"\u56fd\u571f\u4ea4\u901a\u7701\u8fd1\u757f\u5730\u65b9\u6574\u5099\u5c40\u6d6a\u901f\u56fd\u9053\u4e8b\u52d9\u6240","boring_xml_url":40,"boring_view_url":1,"soilmap_view_url":null,"soiltest_xml_url":0,"soiltest_view_url":0},{"id":177301,"code":"B4KJ201801006-5550","latitude":"34.7399006","longitude":"135.4649589","source_code":"KK52350387007","project_name":"","survey_name":"\u962a\u795e\u9ad8\u901f\u9053\u8def\u5730\u8cea\u8cc7\u65994\u6885\u7530-\u7a7a\u6e2f\u7de8","client_name":"\u56fd\u571f\u4ea4\u901a\u7701\u8fd1\u757f\u5730\u65b9\u6574\u5099\u5c40\u6d6a\u901f\u56fd\u9053\u4e8b\u52d9\u6240","boring_xml_url":40,"boring_view_url":1,"soilmap_view_url":null,"soiltest_xml_url":0,"soiltest_view_url":0},{"id":177300,"code":"B4KJ201801006-5549","latitude":"34.7392061","longitude":"135.4646536","source_code":"KK52350387006","project_name":"","survey_name":"\u962a\u795e\u9ad8\u901f\u9053\u8def\u5730\u8cea\u8cc7\u65994\u6885\u7530-\u7a7a\u6e2f\u7de8","client_name":"\u56fd\u571f\u4ea4\u901a\u7701\u8fd1\u757f\u5730\u65b9\u6574\u5099\u5c40\u6d6a\u901f\u56fd\u9053\u4e8b\u52d9\u6240","boring_xml_url":40,"boring_view_url":1,"soilmap_view_url":null,"soiltest_xml_url":0,"soiltest_view_url":0},{"id":177299,"code":"B4KJ201801006-5548","latitude":"34.7387617","longitude":"135.4641258","source_code":"KK52350387005","project_name":"","survey_name":"\u962a\u795e\u9ad8\u901f\u9053\u8def\u5730\u8cea\u8cc7\u65994\u6885\u7530-\u7a7a\u6e2f\u7de8","client_name":"\u56fd\u571f\u4ea4\u901a\u7701\u8fd1\u757f\u5730\u65b9\u6574\u5099\u5c40\u6d6a\u901f\u56fd\u9053\u4e8b\u52d9\u6240","boring_xml_url":40,"boring_view_url":1,"soilmap_view_url":null,"soiltest_xml_url":0,"soiltest_view_url":0},{"id":177298,"code":"B4KJ201801006-5547","latitude":"34.7378731","longitude":"135.4635703","source_code":"KK52350387004","project_name":"","survey_name":"\u962a\u795e\u9ad8\u901f\u9053\u8def\u5730\u8cea\u8cc7\u65994\u6885\u7530-\u7a7a\u6e2f\u7de8","client_name":"\u56fd\u571f\u4ea4\u901a\u7701\u8fd1\u757f\u5730\u65b9\u6574\u5099\u5c40\u6d6a\u901f\u56fd\u9053\u4e8b\u52d9\u6240","boring_xml_url":40,"boring_view_url":1,"soilmap_view_url":null,"soiltest_xml_url":0,"soiltest_view_url":0},{"id":177297,"code":"B4KJ201801006-5546","latitude":"34.7376508","longitude":"135.4630147","source_code":"KK52350387003","project_name":"","survey_name":"\u962a\u795e\u9ad8\u901f\u9053\u8def\u5730\u8cea\u8cc7\u65994\u6885\u7530-\u7a7a\u6e2f\u7de8","client_name":"\u56fd\u571f\u4ea4\u901a\u7701\u8fd1\u757f\u5730\u65b9\u6574\u5099\u5c40\u6d6a\u901f\u56fd\u9053\u4e8b\u52d9\u6240","boring_xml_url":40,"boring_view_url":1,"soilmap_view_url":null,"soiltest_xml_url":0,"soiltest_view_url":0},{"id":177296,"code":"B4KJ201801006-5545","latitude":"34.7371786","longitude":"135.4630147","source_code":"KK52350387002","project_name":"","survey_name":"\u962a\u795e\u9ad8\u901f\u9053\u8def\u5730\u8cea\u8cc7\u65994\u6885\u7530-\u7a7a\u6e2f\u7de8","client_name":"\u56fd\u571f\u4ea4\u901a\u7701\u8fd1\u757f\u5730\u65b9\u6574\u5099\u5c40\u6d6a\u901f\u56fd\u9053\u4e8b\u52d9\u6240","boring_xml_url":40,"boring_view_url":1,"soilmap_view_url":null,"soiltest_xml_url":0,"soiltest_view_url":0}]}}