{"header":{"xyz":{"source":[],"mosaic":false},"page":4782,"raw":{"soiltest_result":"0","bbox":"57.598333,109.544722,1.933333,163.806111","page":"4782"},"conditions":{"soiltest_result":0,"north":57.598333,"west":109.544722,"south":1.933333,"east":163.806111},"success":true,"message":""},"data":{"meta":{"total":212844,"page":4782,"pages":7095,"count":30},"values":[{"id":177115,"code":"B4KJ201801006-5364","latitude":"34.7197075","longitude":"135.429935","source_code":"KK52350354011","project_name":"","survey_name":"2\u53f7\u5c3c\u5d0e\u30fb\u897f\u5bae\u9593\u5730\u8cea\u8abf\u67fb\u696d\u52d9","client_name":"\u56fd\u571f\u4ea4\u901a\u7701\u8fd1\u757f\u5730\u65b9\u6574\u5099\u5c40\u5175\u5eab\u56fd\u9053\u4e8b\u52d9\u6240","boring_xml_url":40,"boring_view_url":1,"soilmap_view_url":null,"soiltest_xml_url":0,"soiltest_view_url":0},{"id":177114,"code":"B4KJ201801006-5363","latitude":"34.7185967","longitude":"135.4274908","source_code":"KK52350354010","project_name":"","survey_name":"2\u53f7\u5c3c\u5d0e\u30fb\u897f\u5bae\u9593\u5730\u8cea\u8abf\u67fb\u696d\u52d9","client_name":"\u56fd\u571f\u4ea4\u901a\u7701\u8fd1\u757f\u5730\u65b9\u6574\u5099\u5c40\u5175\u5eab\u56fd\u9053\u4e8b\u52d9\u6240","boring_xml_url":40,"boring_view_url":1,"soilmap_view_url":null,"soiltest_xml_url":0,"soiltest_view_url":0},{"id":177113,"code":"B4KJ201801006-5362","latitude":"34.7182356","longitude":"135.4270742","source_code":"KK52350354009","project_name":"","survey_name":"2\u53f7\u5c3c\u5d0e\u30fb\u897f\u5bae\u9593\u5730\u8cea\u8abf\u67fb\u696d\u52d9","client_name":"\u56fd\u571f\u4ea4\u901a\u7701\u8fd1\u757f\u5730\u65b9\u6574\u5099\u5c40\u5175\u5eab\u56fd\u9053\u4e8b\u52d9\u6240","boring_xml_url":40,"boring_view_url":1,"soilmap_view_url":null,"soiltest_xml_url":0,"soiltest_view_url":0},{"id":177112,"code":"B4KJ201801006-5361","latitude":"34.7192631","longitude":"135.4273519","source_code":"KK52350354008","project_name":"","survey_name":"2\u53f7\u5c3c\u5d0e\u30fb\u897f\u5bae\u9593\u5730\u8cea\u8abf\u67fb\u696d\u52d9","client_name":"\u56fd\u571f\u4ea4\u901a\u7701\u8fd1\u757f\u5730\u65b9\u6574\u5099\u5c40\u5175\u5eab\u56fd\u9053\u4e8b\u52d9\u6240","boring_xml_url":40,"boring_view_url":1,"soilmap_view_url":null,"soiltest_xml_url":0,"soiltest_view_url":0},{"id":177111,"code":"B4KJ201801006-5360","latitude":"34.7194853","longitude":"135.4247967","source_code":"KK52350354007","project_name":"","survey_name":"2\u53f7\u5c3c\u5d0e\u30fb\u897f\u5bae\u9593\u5730\u8cea\u8abf\u67fb\u696d\u52d9","client_name":"\u56fd\u571f\u4ea4\u901a\u7701\u8fd1\u757f\u5730\u65b9\u6574\u5099\u5c40\u5175\u5eab\u56fd\u9053\u4e8b\u52d9\u6240","boring_xml_url":40,"boring_view_url":1,"soilmap_view_url":null,"soiltest_xml_url":0,"soiltest_view_url":0},{"id":177110,"code":"B4KJ201801006-5359","latitude":"34.7193742","longitude":"135.4247689","source_code":"KK52350354006","project_name":"","survey_name":"2\u53f7\u5c3c\u5d0e\u30fb\u897f\u5bae\u9593\u5730\u8cea\u8abf\u67fb\u696d\u52d9","client_name":"\u56fd\u571f\u4ea4\u901a\u7701\u8fd1\u757f\u5730\u65b9\u6574\u5099\u5c40\u5175\u5eab\u56fd\u9053\u4e8b\u52d9\u6240","boring_xml_url":40,"boring_view_url":1,"soilmap_view_url":null,"soiltest_xml_url":0,"soiltest_view_url":0},{"id":177109,"code":"B4KJ201801006-5358","latitude":"34.7193742","longitude":"135.4237133","source_code":"KK52350354005","project_name":"","survey_name":"2\u53f7\u5c3c\u5d0e\u30fb\u897f\u5bae\u9593\u5730\u8cea\u8abf\u67fb\u696d\u52d9","client_name":"\u56fd\u571f\u4ea4\u901a\u7701\u8fd1\u757f\u5730\u65b9\u6574\u5099\u5c40\u5175\u5eab\u56fd\u9053\u4e8b\u52d9\u6240","boring_xml_url":40,"boring_view_url":1,"soilmap_view_url":null,"soiltest_xml_url":0,"soiltest_view_url":0},{"id":177108,"code":"B4KJ201801006-5357","latitude":"34.7194853","longitude":"135.4232689","source_code":"KK52350354004","project_name":"","survey_name":"2\u53f7\u5c3c\u5d0e\u30fb\u897f\u5bae\u9593\u5730\u8cea\u8abf\u67fb\u696d\u52d9","client_name":"\u56fd\u571f\u4ea4\u901a\u7701\u8fd1\u757f\u5730\u65b9\u6574\u5099\u5c40\u5175\u5eab\u56fd\u9053\u4e8b\u52d9\u6240","boring_xml_url":40,"boring_view_url":1,"soilmap_view_url":null,"soiltest_xml_url":0,"soiltest_view_url":0},{"id":177107,"code":"B4KJ201801006-5356","latitude":"34.7193186","longitude":"135.4256575","source_code":"KK52350354002","project_name":"","survey_name":"\u5c3c\u5d0e\u7b2c2\u5171\u540c\u6e9d\u571f\u8cea\u8abf\u67fb\u4f5c\u696d","client_name":"\u56fd\u571f\u4ea4\u901a\u7701\u8fd1\u757f\u5730\u65b9\u6574\u5099\u5c40\u5175\u5eab\u56fd\u9053\u4e8b\u52d9\u6240","boring_xml_url":40,"boring_view_url":1,"soilmap_view_url":null,"soiltest_xml_url":0,"soiltest_view_url":0},{"id":177106,"code":"B4KJ201801006-5355","latitude":"34.7194853","longitude":"135.428685","source_code":"KK52350354001","project_name":"","survey_name":"\u5c3c\u5d0e\u7b2c2\u5171\u540c\u6e9d\u571f\u8cea\u8abf\u67fb\u4f5c\u696d","client_name":"\u56fd\u571f\u4ea4\u901a\u7701\u8fd1\u757f\u5730\u65b9\u6574\u5099\u5c40\u5175\u5eab\u56fd\u9053\u4e8b\u52d9\u6240","boring_xml_url":40,"boring_view_url":1,"soilmap_view_url":null,"soiltest_xml_url":0,"soiltest_view_url":0},{"id":177105,"code":"B4KJ201801006-5354","latitude":"34.7157356","longitude":"135.4159364","source_code":"KK52350353002","project_name":"","survey_name":"2\u53f7\u5c3c\u5d0e\u30fb\u897f\u5bae\u9593\u5730\u8cea\u8abf\u67fb\u696d\u52d9","client_name":"\u56fd\u571f\u4ea4\u901a\u7701\u8fd1\u757f\u5730\u65b9\u6574\u5099\u5c40\u5175\u5eab\u56fd\u9053\u4e8b\u52d9\u6240","boring_xml_url":40,"boring_view_url":1,"soilmap_view_url":null,"soiltest_xml_url":0,"soiltest_view_url":0},{"id":177104,"code":"B4KJ201801006-5353","latitude":"34.7197631","longitude":"135.4203803","source_code":"KK52350353001","project_name":"","survey_name":"\u5c3c\u5d0e\u7b2c2\u5171\u540c\u6e9d\u571f\u8cea\u8abf\u67fb\u4f5c\u696d","client_name":"\u56fd\u571f\u4ea4\u901a\u7701\u8fd1\u757f\u5730\u65b9\u6574\u5099\u5c40\u5175\u5eab\u56fd\u9053\u4e8b\u52d9\u6240","boring_xml_url":40,"boring_view_url":1,"soilmap_view_url":null,"soiltest_xml_url":0,"soiltest_view_url":0},{"id":177103,"code":"B4KJ201801006-5352","latitude":"34.7102933","longitude":"135.4868747","source_code":"KK52350349009","project_name":"","survey_name":"\u6dc0\u5ddd\u5de6\u5cb8\u4e2d\u6d25\u30fb\u8c4a\u5d0e\u30fb\u672c\u5e84\u5730\u533a\u8010\u9707\u5824\u9632\u8a2d\u8a08\u696d\u52d9\u306b\u4f34\u3046\u8ffd\u52a0\u5730\u76e4\u8abf\u67fb","client_name":"\u56fd\u571f\u4ea4\u901a\u7701\u8fd1\u757f\u5730\u65b9\u6574\u5099\u5c40\u6dc0\u5ddd\u6cb3\u5ddd\u4e8b\u52d9\u6240","boring_xml_url":40,"boring_view_url":1,"soilmap_view_url":null,"soiltest_xml_url":0,"soiltest_view_url":0},{"id":177102,"code":"B4KJ201801006-5351","latitude":"34.705322","longitude":"135.477681","source_code":"KK52350348012","project_name":"","survey_name":"\u6dc0\u5ddd\u4e0b\u6d41\u90e8\u7b2cII\u671f\u8010\u9707\u691c\u8a0e\u5de6\u5cb8\u5730\u8cea\u8abf\u67fb\u696d\u52d9","client_name":"\u56fd\u571f\u4ea4\u901a\u7701\u8fd1\u757f\u5730\u65b9\u6574\u5099\u5c40\u6dc0\u5ddd\u6cb3\u5ddd\u4e8b\u52d9\u6240","boring_xml_url":40,"boring_view_url":1,"soilmap_view_url":null,"soiltest_xml_url":0,"soiltest_view_url":0},{"id":177101,"code":"B4KJ201801006-5350","latitude":"34.711017","longitude":"135.474708","source_code":"KK52350348008","project_name":"","survey_name":"\u67cf\u91cc\u5730\u533a\u571f\u8cea\u8abf\u67fb\u4f5c\u696d","client_name":"\u56fd\u571f\u4ea4\u901a\u7701\u8fd1\u757f\u5730\u65b9\u6574\u5099\u5c40\u6dc0\u5ddd\u6cb3\u5ddd\u4e8b\u52d9\u6240","boring_xml_url":40,"boring_view_url":1,"soilmap_view_url":null,"soiltest_xml_url":0,"soiltest_view_url":0},{"id":177100,"code":"B4KJ201801006-5349","latitude":"34.710044","longitude":"135.473236","source_code":"KK52350348007","project_name":"","survey_name":"\u67cf\u91cc\u5730\u533a\u571f\u8cea\u8abf\u67fb\u4f5c\u696d","client_name":"\u56fd\u571f\u4ea4\u901a\u7701\u8fd1\u757f\u5730\u65b9\u6574\u5099\u5c40\u6dc0\u5ddd\u6cb3\u5ddd\u4e8b\u52d9\u6240","boring_xml_url":40,"boring_view_url":1,"soilmap_view_url":null,"soiltest_xml_url":0,"soiltest_view_url":0},{"id":177099,"code":"B4KJ201801006-5348","latitude":"34.7093486","longitude":"135.4713483","source_code":"KK52350347014","project_name":"","survey_name":"\u6dc0\u5ddd\u4e0b\u6d41\u90e8\u7b2c?\u671f\u8010\u9707\u691c\u8a0e\u53f3\u5cb8\u798f\u753a\uff5e\u82b1\u5ddd\u5730\u8cea\u8abf\u67fb\u696d\u52d9","client_name":"\u56fd\u571f\u4ea4\u901a\u7701\u8fd1\u757f\u5730\u65b9\u6574\u5099\u5c40\u6dc0\u5ddd\u6cb3\u5ddd\u4e8b\u52d9\u6240","boring_xml_url":40,"boring_view_url":1,"soilmap_view_url":null,"soiltest_xml_url":0,"soiltest_view_url":0},{"id":177098,"code":"B4KJ201801006-5347","latitude":"34.7091","longitude":"135.471347","source_code":"KK52350347010","project_name":"","survey_name":"\u67cf\u91cc\u5730\u533a\u571f\u8cea\u8abf\u67fb\u4f5c\u696d","client_name":"\u56fd\u571f\u4ea4\u901a\u7701\u8fd1\u757f\u5730\u65b9\u6574\u5099\u5c40\u6dc0\u5ddd\u6cb3\u5ddd\u4e8b\u52d9\u6240","boring_xml_url":40,"boring_view_url":1,"soilmap_view_url":null,"soiltest_xml_url":0,"soiltest_view_url":0},{"id":177097,"code":"B4KJ201801006-5346","latitude":"34.707961","longitude":"135.469767","source_code":"KK52350347009","project_name":"","survey_name":"\u67cf\u91cc\u5730\u533a\u571f\u8cea\u8abf\u67fb\u4f5c\u696d","client_name":"\u56fd\u571f\u4ea4\u901a\u7701\u8fd1\u757f\u5730\u65b9\u6574\u5099\u5c40\u6dc0\u5ddd\u6cb3\u5ddd\u4e8b\u52d9\u6240","boring_xml_url":40,"boring_view_url":1,"soilmap_view_url":null,"soiltest_xml_url":0,"soiltest_view_url":0},{"id":177096,"code":"B4KJ201801006-5345","latitude":"34.707072","longitude":"135.46835","source_code":"KK52350347008","project_name":"","survey_name":"\u67cf\u91cc\u5730\u533a\u571f\u8cea\u8abf\u67fb\u4f5c\u696d","client_name":"\u56fd\u571f\u4ea4\u901a\u7701\u8fd1\u757f\u5730\u65b9\u6574\u5099\u5c40\u6dc0\u5ddd\u6cb3\u5ddd\u4e8b\u52d9\u6240","boring_xml_url":40,"boring_view_url":1,"soilmap_view_url":null,"soiltest_xml_url":0,"soiltest_view_url":0},{"id":177095,"code":"B4KJ201801006-5344","latitude":"34.703656","longitude":"135.461933","source_code":"KK52350347002","project_name":"","survey_name":"\u9ad8\u6c34\u6577\u5fa9\u5143\u5824\u9632\u8abf\u67fb","client_name":"\u56fd\u571f\u4ea4\u901a\u7701\u8fd1\u757f\u5730\u65b9\u6574\u5099\u5c40\u6dc0\u5ddd\u6cb3\u5ddd\u4e8b\u52d9\u6240","boring_xml_url":40,"boring_view_url":1,"soilmap_view_url":null,"soiltest_xml_url":0,"soiltest_view_url":0},{"id":177094,"code":"B4KJ201801006-5343","latitude":"34.705461","longitude":"135.464767","source_code":"KK52350347001","project_name":"","survey_name":"\u6dc0\u5ddd\u9ad8\u6f6e\u5730\u533a\u9ad8\u6c34\u6577\u5fa9\u5143\u8abf\u67fb\u696d\u52d9","client_name":"\u56fd\u571f\u4ea4\u901a\u7701\u8fd1\u757f\u5730\u65b9\u6574\u5099\u5c40\u6dc0\u5ddd\u6cb3\u5ddd\u4e8b\u52d9\u6240","boring_xml_url":40,"boring_view_url":1,"soilmap_view_url":null,"soiltest_xml_url":0,"soiltest_view_url":0},{"id":177093,"code":"B4KJ201801006-5342","latitude":"34.7105425","longitude":"135.4574606","source_code":"KK52350346004","project_name":"","survey_name":"\u6b4c\u5cf6\u59161\u4ef6\u5730\u8cea\u8abf\u67fb\u4f5c\u696d","client_name":"\u56fd\u571f\u4ea4\u901a\u7701\u8fd1\u757f\u5730\u65b9\u6574\u5099\u5c40\u5927\u962a\u56fd\u9053\u4e8b\u52d9\u6240","boring_xml_url":40,"boring_view_url":1,"soilmap_view_url":null,"soiltest_xml_url":0,"soiltest_view_url":0},{"id":177092,"code":"B4KJ201801006-5341","latitude":"34.7100981","longitude":"135.4551831","source_code":"KK52350346003","project_name":"","survey_name":"\u5927\u962a\u56fd\u9053\u7ba1\u5185\u571f\u8cea\u8abf\u67fb\u305d\u306e3\u4f5c\u696d","client_name":"\u56fd\u571f\u4ea4\u901a\u7701\u8fd1\u757f\u5730\u65b9\u6574\u5099\u5c40\u5927\u962a\u56fd\u9053\u4e8b\u52d9\u6240","boring_xml_url":40,"boring_view_url":1,"soilmap_view_url":null,"soiltest_xml_url":0,"soiltest_view_url":0},{"id":177091,"code":"B4KJ201801006-5340","latitude":"34.7090706","longitude":"135.4574608","source_code":"KK52350346002","project_name":"","survey_name":"\u6dc0\u5ddd\u5171\u540c\u6e9d\u571f\u8cea\u8abf\u67fb","client_name":"\u56fd\u571f\u4ea4\u901a\u7701\u8fd1\u757f\u5730\u65b9\u6574\u5099\u5c40\u5927\u962a\u56fd\u9053\u4e8b\u52d9\u6240","boring_xml_url":40,"boring_view_url":1,"soilmap_view_url":null,"soiltest_xml_url":0,"soiltest_view_url":0},{"id":177090,"code":"B4KJ201801006-5339","latitude":"34.7112925","longitude":"135.4544053","source_code":"KK52350346001","project_name":"","survey_name":"\u6dc0\u5ddd\u5171\u540c\u6e9d\u571f\u8cea\u8abf\u67fb","client_name":"\u56fd\u571f\u4ea4\u901a\u7701\u8fd1\u757f\u5730\u65b9\u6574\u5099\u5c40\u5927\u962a\u56fd\u9053\u4e8b\u52d9\u6240","boring_xml_url":40,"boring_view_url":1,"soilmap_view_url":null,"soiltest_xml_url":0,"soiltest_view_url":0},{"id":177089,"code":"B4KJ201801006-5338","latitude":"34.7060147","longitude":"135.4357961","source_code":"KK52350345006","project_name":"","survey_name":"43\u53f7\u5927\u548c\u7530\u9ad8\u67b6\u6a4b\u8a73\u7d30\u8a2d\u8a08\u696d\u52d9(\u305d\u306e4)","client_name":"\u56fd\u571f\u4ea4\u901a\u7701\u8fd1\u757f\u5730\u65b9\u6574\u5099\u5c40\u962a\u795e\u56fd\u9053\u4e8b\u52d9\u6240","boring_xml_url":40,"boring_view_url":1,"soilmap_view_url":null,"soiltest_xml_url":0,"soiltest_view_url":0},{"id":177088,"code":"B4KJ201801006-5337","latitude":"34.7061817","longitude":"135.4445453","source_code":"KK52350345005","project_name":"","survey_name":"\u662d\u548c54\u5e74\u5ea6\u5730\u4e0b\u6c34\u8abf\u67fb\u89b3\u6e2c\u6240\u8a2d\u7f6e\u4f5c\u696d","client_name":"\u56fd\u571f\u4ea4\u901a\u7701\u8fd1\u757f\u5730\u65b9\u6574\u5099\u5c40\u6dc0\u5ddd\u6cb3\u5ddd\u4e8b\u52d9\u6240","boring_xml_url":40,"boring_view_url":1,"soilmap_view_url":null,"soiltest_xml_url":0,"soiltest_view_url":0},{"id":177087,"code":"B4KJ201801006-5336","latitude":"34.7074036","longitude":"135.4409344","source_code":"KK52350345004","project_name":"","survey_name":"\u5927\u548c\u7530\u5730\u533a\u571f\u8cea\u8abf\u67fb\u4ed61\u4ef6\u4f5c\u696d","client_name":"\u56fd\u571f\u4ea4\u901a\u7701\u8fd1\u757f\u5730\u65b9\u6574\u5099\u5c40\u962a\u795e\u56fd\u9053\u4e8b\u52d9\u6240","boring_xml_url":40,"boring_view_url":1,"soilmap_view_url":null,"soiltest_xml_url":0,"soiltest_view_url":0},{"id":177086,"code":"B4KJ201801006-5335","latitude":"34.7074036","longitude":"135.4409344","source_code":"KK52350345003","project_name":"","survey_name":"\u5927\u548c\u7530\u5730\u533a\u571f\u8cea\u8abf\u67fb\u4ed61\u4ef6\u4f5c\u696d","client_name":"\u56fd\u571f\u4ea4\u901a\u7701\u8fd1\u757f\u5730\u65b9\u6574\u5099\u5c40\u962a\u795e\u56fd\u9053\u4e8b\u52d9\u6240","boring_xml_url":40,"boring_view_url":1,"soilmap_view_url":null,"soiltest_xml_url":0,"soiltest_view_url":0}]}}