{"header":{"xyz":{"source":[],"mosaic":false},"page":4802,"raw":{"soiltest_result":"0","bbox":"57.598333,109.544722,1.933333,163.806111","page":"4802"},"conditions":{"soiltest_result":0,"north":57.598333,"west":109.544722,"south":1.933333,"east":163.806111},"success":true,"message":""},"data":{"meta":{"total":212844,"page":4802,"pages":7095,"count":30},"values":[{"id":176515,"code":"B4KJ201801006-4764","latitude":"34.6827581","longitude":"135.0259164","source_code":"KK52350012001","project_name":"","survey_name":"\u795e\u6238\u897f\u30d0\u30a4\u30d1\u30b9\u4f0a\u5ddd\u8c37\u5730\u533a\u5730\u8cea\u8abf\u67fb\u4f5c\u696d","client_name":"\u56fd\u571f\u4ea4\u901a\u7701\u8fd1\u757f\u5730\u65b9\u6574\u5099\u5c40\u962a\u795e\u56fd\u9053\u4e8b\u52d9\u6240","boring_xml_url":40,"boring_view_url":1,"soilmap_view_url":null,"soiltest_xml_url":0,"soiltest_view_url":0},{"id":176514,"code":"B4KJ201801006-4763","latitude":"34.6854522","longitude":"135.0222219","source_code":"KK52350011012","project_name":"","survey_name":"\u795e\u6238\u897f\u30d0\u30a4\u30d1\u30b9\u6c38\u4e95\u8c37JCT\u5730\u8cea\u8abf\u67fb\u4f5c\u696d","client_name":"\u56fd\u571f\u4ea4\u901a\u7701\u8fd1\u757f\u5730\u65b9\u6574\u5099\u5c40\u962a\u795e\u56fd\u9053\u4e8b\u52d9\u6240","boring_xml_url":40,"boring_view_url":1,"soilmap_view_url":null,"soiltest_xml_url":0,"soiltest_view_url":0},{"id":176513,"code":"B4KJ201801006-4762","latitude":"34.6848967","longitude":"135.0222219","source_code":"KK52350011011","project_name":"","survey_name":"\u795e\u6238\u897f\u30d0\u30a4\u30d1\u30b9\u6c38\u4e95\u8c37JCT\u5730\u8cea\u8abf\u67fb\u4f5c\u696d","client_name":"\u56fd\u571f\u4ea4\u901a\u7701\u8fd1\u757f\u5730\u65b9\u6574\u5099\u5c40\u962a\u795e\u56fd\u9053\u4e8b\u52d9\u6240","boring_xml_url":40,"boring_view_url":1,"soilmap_view_url":null,"soiltest_xml_url":0,"soiltest_view_url":0},{"id":176512,"code":"B4KJ201801006-4761","latitude":"34.6840633","longitude":"135.0222222","source_code":"KK52350011010","project_name":"","survey_name":"\u795e\u6238\u897f\u30d0\u30a4\u30d1\u30b9\u6c38\u4e95\u8c37JCT\u5730\u8cea\u8abf\u67fb\u4f5c\u696d","client_name":"\u56fd\u571f\u4ea4\u901a\u7701\u8fd1\u757f\u5730\u65b9\u6574\u5099\u5c40\u962a\u795e\u56fd\u9053\u4e8b\u52d9\u6240","boring_xml_url":40,"boring_view_url":1,"soilmap_view_url":null,"soiltest_xml_url":0,"soiltest_view_url":0},{"id":176511,"code":"B4KJ201801006-4760","latitude":"34.6846189","longitude":"135.0213889","source_code":"KK52350011009","project_name":"","survey_name":"\u795e\u6238\u897f\u30d0\u30a4\u30d1\u30b9\u6c38\u4e95\u8c37JCT\u5730\u8cea\u8abf\u67fb\u4f5c\u696d","client_name":"\u56fd\u571f\u4ea4\u901a\u7701\u8fd1\u757f\u5730\u65b9\u6574\u5099\u5c40\u962a\u795e\u56fd\u9053\u4e8b\u52d9\u6240","boring_xml_url":40,"boring_view_url":1,"soilmap_view_url":null,"soiltest_xml_url":0,"soiltest_view_url":0},{"id":176510,"code":"B4KJ201801006-4759","latitude":"34.6851744","longitude":"135.0213889","source_code":"KK52350011008","project_name":"","survey_name":"\u795e\u6238\u897f\u30d0\u30a4\u30d1\u30b9\u6c38\u4e95\u8c37JCT\u5730\u8cea\u8abf\u67fb\u4f5c\u696d","client_name":"\u56fd\u571f\u4ea4\u901a\u7701\u8fd1\u757f\u5730\u65b9\u6574\u5099\u5c40\u962a\u795e\u56fd\u9053\u4e8b\u52d9\u6240","boring_xml_url":40,"boring_view_url":1,"soilmap_view_url":null,"soiltest_xml_url":0,"soiltest_view_url":0},{"id":176509,"code":"B4KJ201801006-4758","latitude":"34.6848967","longitude":"135.0211111","source_code":"KK52350011007","project_name":"","survey_name":"\u795e\u6238\u897f\u30d0\u30a4\u30d1\u30b9\u6c38\u4e95\u8c37JCT\u5730\u8cea\u8abf\u67fb\u4f5c\u696d","client_name":"\u56fd\u571f\u4ea4\u901a\u7701\u8fd1\u757f\u5730\u65b9\u6574\u5099\u5c40\u962a\u795e\u56fd\u9053\u4e8b\u52d9\u6240","boring_xml_url":40,"boring_view_url":1,"soilmap_view_url":null,"soiltest_xml_url":0,"soiltest_view_url":0},{"id":176508,"code":"B4KJ201801006-4757","latitude":"34.6843411","longitude":"135.0208333","source_code":"KK52350011006","project_name":"","survey_name":"\u795e\u6238\u897f\u30d0\u30a4\u30d1\u30b9\u6c38\u4e95\u8c37JCT\u5730\u8cea\u8abf\u67fb\u4f5c\u696d","client_name":"\u56fd\u571f\u4ea4\u901a\u7701\u8fd1\u757f\u5730\u65b9\u6574\u5099\u5c40\u962a\u795e\u56fd\u9053\u4e8b\u52d9\u6240","boring_xml_url":40,"boring_view_url":1,"soilmap_view_url":null,"soiltest_xml_url":0,"soiltest_view_url":0},{"id":176507,"code":"B4KJ201801006-4756","latitude":"34.6860075","longitude":"135.0208333","source_code":"KK52350011005","project_name":"","survey_name":"\u795e\u6238\u897f\u30d0\u30a4\u30d1\u30b9\u6c38\u4e95\u8c37JCT\u5730\u8cea\u8abf\u67fb\u4f5c\u696d","client_name":"\u56fd\u571f\u4ea4\u901a\u7701\u8fd1\u757f\u5730\u65b9\u6574\u5099\u5c40\u962a\u795e\u56fd\u9053\u4e8b\u52d9\u6240","boring_xml_url":40,"boring_view_url":1,"soilmap_view_url":null,"soiltest_xml_url":0,"soiltest_view_url":0},{"id":176506,"code":"B4KJ201801006-4755","latitude":"34.6851744","longitude":"135.0208333","source_code":"KK52350011004","project_name":"","survey_name":"\u795e\u6238\u897f\u30d0\u30a4\u30d1\u30b9\u6c38\u4e95\u8c37JCT\u5730\u8cea\u8abf\u67fb\u4f5c\u696d","client_name":"\u56fd\u571f\u4ea4\u901a\u7701\u8fd1\u757f\u5730\u65b9\u6574\u5099\u5c40\u962a\u795e\u56fd\u9053\u4e8b\u52d9\u6240","boring_xml_url":40,"boring_view_url":1,"soilmap_view_url":null,"soiltest_xml_url":0,"soiltest_view_url":0},{"id":176505,"code":"B4KJ201801006-4754","latitude":"34.6862853","longitude":"135.0197222","source_code":"KK52350011003","project_name":"","survey_name":"\u795e\u6238\u897f\u30d0\u30a4\u30d1\u30b9\u6c38\u4e95\u8c37JCT\u5730\u8cea\u8abf\u67fb\u4f5c\u696d","client_name":"\u56fd\u571f\u4ea4\u901a\u7701\u8fd1\u757f\u5730\u65b9\u6574\u5099\u5c40\u962a\u795e\u56fd\u9053\u4e8b\u52d9\u6240","boring_xml_url":40,"boring_view_url":1,"soilmap_view_url":null,"soiltest_xml_url":0,"soiltest_view_url":0},{"id":176504,"code":"B4KJ201801006-4753","latitude":"34.6840633","longitude":"135.0166669","source_code":"KK52350011002","project_name":"","survey_name":"\u795e\u6238\u897f\u30d0\u30a4\u30d1\u30b9\u6c38\u4e95\u8c37JCT\u5730\u8cea\u8abf\u67fb\u4f5c\u696d","client_name":"\u56fd\u571f\u4ea4\u901a\u7701\u8fd1\u757f\u5730\u65b9\u6574\u5099\u5c40\u962a\u795e\u56fd\u9053\u4e8b\u52d9\u6240","boring_xml_url":40,"boring_view_url":1,"soilmap_view_url":null,"soiltest_xml_url":0,"soiltest_view_url":0},{"id":176503,"code":"B4KJ201801006-4752","latitude":"34.6853689","longitude":"135.0215556","source_code":"KK52350011001","project_name":"","survey_name":"\u795e\u6238\u897f\u30d0\u30a4\u30d1\u30b9\u4f0a\u5ddd\u8c37\u5730\u533a\u5730\u8cea\u8abf\u67fb\u4f5c\u696d","client_name":"\u56fd\u571f\u4ea4\u901a\u7701\u8fd1\u757f\u5730\u65b9\u6574\u5099\u5c40\u962a\u795e\u56fd\u9053\u4e8b\u52d9\u6240","boring_xml_url":40,"boring_view_url":1,"soilmap_view_url":null,"soiltest_xml_url":0,"soiltest_view_url":0},{"id":176502,"code":"B4KJ201801006-4751","latitude":"34.6764542","longitude":"135.0641631","source_code":"KK52350005012","project_name":"","survey_name":"\u897f\u795e\u9053\u8def\u9ad8\u585a\u5c71\u5730\u8cea\u8abf\u67fb\u305d\u306e2\u4f5c\u696d","client_name":"\u56fd\u571f\u4ea4\u901a\u7701\u8fd1\u757f\u5730\u65b9\u6574\u5099\u5c40\u962a\u795e\u56fd\u9053\u4e8b\u52d9\u6240","boring_xml_url":40,"boring_view_url":1,"soilmap_view_url":null,"soiltest_xml_url":0,"soiltest_view_url":0},{"id":176501,"code":"B4KJ201801006-4750","latitude":"34.6744822","longitude":"135.0643853","source_code":"KK52350005011","project_name":"","survey_name":"\u897f\u795e\u9053\u8def\u9ad8\u585a\u5c71\u5730\u8cea\u8abf\u67fb\u305d\u306e2\u4f5c\u696d","client_name":"\u56fd\u571f\u4ea4\u901a\u7701\u8fd1\u757f\u5730\u65b9\u6574\u5099\u5c40\u962a\u795e\u56fd\u9053\u4e8b\u52d9\u6240","boring_xml_url":40,"boring_view_url":1,"soilmap_view_url":null,"soiltest_xml_url":0,"soiltest_view_url":0},{"id":176500,"code":"B4KJ201801006-4749","latitude":"34.6731211","longitude":"135.0644686","source_code":"KK52350005010","project_name":"","survey_name":"\u897f\u795e\u9053\u8def\u9ad8\u585a\u5c71\u5730\u8cea\u8abf\u67fb\u305d\u306e2\u4f5c\u696d","client_name":"\u56fd\u571f\u4ea4\u901a\u7701\u8fd1\u757f\u5730\u65b9\u6574\u5099\u5c40\u962a\u795e\u56fd\u9053\u4e8b\u52d9\u6240","boring_xml_url":40,"boring_view_url":1,"soilmap_view_url":null,"soiltest_xml_url":0,"soiltest_view_url":0},{"id":176499,"code":"B4KJ201801006-4748","latitude":"34.677565","longitude":"135.0647742","source_code":"KK52350005009","project_name":"","survey_name":"\u897f\u795e\u9053\u8def\u9ad8\u5c71\u5730\u8cea\u8abf\u67fb\u4f5c\u696d","client_name":"\u56fd\u571f\u4ea4\u901a\u7701\u8fd1\u757f\u5730\u65b9\u6574\u5099\u5c40\u962a\u795e\u56fd\u9053\u4e8b\u52d9\u6240","boring_xml_url":40,"boring_view_url":1,"soilmap_view_url":null,"soiltest_xml_url":0,"soiltest_view_url":0},{"id":176498,"code":"B4KJ201801006-4747","latitude":"34.6778428","longitude":"135.0644408","source_code":"KK52350005008","project_name":"","survey_name":"\u897f\u795e\u9053\u8def\u9ad8\u5c71\u5730\u8cea\u8abf\u67fb\u4f5c\u696d","client_name":"\u56fd\u571f\u4ea4\u901a\u7701\u8fd1\u757f\u5730\u65b9\u6574\u5099\u5c40\u962a\u795e\u56fd\u9053\u4e8b\u52d9\u6240","boring_xml_url":40,"boring_view_url":1,"soilmap_view_url":null,"soiltest_xml_url":0,"soiltest_view_url":0},{"id":176497,"code":"B4KJ201801006-4746","latitude":"34.6753708","longitude":"135.0637186","source_code":"KK52350005007","project_name":"","survey_name":"\u897f\u795e\u9053\u8def\u9ad8\u5c71\u5730\u8cea\u8abf\u67fb\u4f5c\u696d","client_name":"\u56fd\u571f\u4ea4\u901a\u7701\u8fd1\u757f\u5730\u65b9\u6574\u5099\u5c40\u962a\u795e\u56fd\u9053\u4e8b\u52d9\u6240","boring_xml_url":40,"boring_view_url":1,"soilmap_view_url":null,"soiltest_xml_url":0,"soiltest_view_url":0},{"id":176496,"code":"B4KJ201801006-4745","latitude":"34.6723992","longitude":"135.0651075","source_code":"KK52350005006","project_name":"","survey_name":"\u897f\u795e\u9053\u8def\u9ad8\u5c71\u5730\u8cea\u8abf\u67fb\u4f5c\u696d","client_name":"\u56fd\u571f\u4ea4\u901a\u7701\u8fd1\u757f\u5730\u65b9\u6574\u5099\u5c40\u962a\u795e\u56fd\u9053\u4e8b\u52d9\u6240","boring_xml_url":40,"boring_view_url":1,"soilmap_view_url":null,"soiltest_xml_url":0,"soiltest_view_url":0},{"id":176495,"code":"B4KJ201801006-4744","latitude":"34.6700106","longitude":"135.0663297","source_code":"KK52350005005","project_name":"","survey_name":"\u7dd1\u30f6\u4e18\u5730\u533a\u5730\u8cea\u8abf\u67fb\u4f5c\u696d","client_name":"\u56fd\u571f\u4ea4\u901a\u7701\u8fd1\u757f\u5730\u65b9\u6574\u5099\u5c40\u962a\u795e\u56fd\u9053\u4e8b\u52d9\u6240","boring_xml_url":40,"boring_view_url":1,"soilmap_view_url":null,"soiltest_xml_url":0,"soiltest_view_url":0},{"id":176494,"code":"B4KJ201801006-4743","latitude":"34.6740656","longitude":"135.0659686","source_code":"KK52350005004","project_name":"","survey_name":"\u7dd1\u30f6\u4e18\u5730\u533a\u5730\u8cea\u8abf\u67fb\u4f5c\u696d","client_name":"\u56fd\u571f\u4ea4\u901a\u7701\u8fd1\u757f\u5730\u65b9\u6574\u5099\u5c40\u962a\u795e\u56fd\u9053\u4e8b\u52d9\u6240","boring_xml_url":40,"boring_view_url":1,"soilmap_view_url":null,"soiltest_xml_url":0,"soiltest_view_url":0},{"id":176493,"code":"B4KJ201801006-4742","latitude":"34.6703436","longitude":"135.0659408","source_code":"KK52350005003","project_name":"","survey_name":"\u7dd1\u30f6\u4e18\u5730\u533a\u5730\u8cea\u8abf\u67fb\u4f5c\u696d","client_name":"\u56fd\u571f\u4ea4\u901a\u7701\u8fd1\u757f\u5730\u65b9\u6574\u5099\u5c40\u962a\u795e\u56fd\u9053\u4e8b\u52d9\u6240","boring_xml_url":40,"boring_view_url":1,"soilmap_view_url":null,"soiltest_xml_url":0,"soiltest_view_url":0},{"id":176492,"code":"B4KJ201801006-4741","latitude":"34.6708992","longitude":"135.0655242","source_code":"KK52350005002","project_name":"","survey_name":"\u7dd1\u30f6\u4e18\u5730\u533a\u5730\u8cea\u8abf\u67fb\u4f5c\u696d","client_name":"\u56fd\u571f\u4ea4\u901a\u7701\u8fd1\u757f\u5730\u65b9\u6574\u5099\u5c40\u962a\u795e\u56fd\u9053\u4e8b\u52d9\u6240","boring_xml_url":40,"boring_view_url":1,"soilmap_view_url":null,"soiltest_xml_url":0,"soiltest_view_url":0},{"id":176491,"code":"B4KJ201801006-4740","latitude":"34.6714825","longitude":"135.0652464","source_code":"KK52350005001","project_name":"","survey_name":"\u7dd1\u30f6\u4e18\u5730\u533a\u5730\u8cea\u8abf\u67fb\u4f5c\u696d","client_name":"\u56fd\u571f\u4ea4\u901a\u7701\u8fd1\u757f\u5730\u65b9\u6574\u5099\u5c40\u962a\u795e\u56fd\u9053\u4e8b\u52d9\u6240","boring_xml_url":40,"boring_view_url":1,"soilmap_view_url":null,"soiltest_xml_url":0,"soiltest_view_url":0},{"id":176490,"code":"B4KJ201801006-4739","latitude":"34.6700103","longitude":"135.0585528","source_code":"KK52350004008","project_name":"","survey_name":"\u795e\u6238\u897f\u30d0\u30a4\u30d1\u30b9\u5c0f\u675f\u5c71\u5730\u533a\u571f\u8cea\u8abf\u67fb\u4f5c\u696d","client_name":"\u56fd\u571f\u4ea4\u901a\u7701\u8fd1\u757f\u5730\u65b9\u6574\u5099\u5c40\u962a\u795e\u56fd\u9053\u4e8b\u52d9\u6240","boring_xml_url":40,"boring_view_url":1,"soilmap_view_url":null,"soiltest_xml_url":0,"soiltest_view_url":0},{"id":176489,"code":"B4KJ201801006-4738","latitude":"34.6702881","longitude":"135.0570528","source_code":"KK52350004007","project_name":"","survey_name":"\u795e\u6238\u897f\u30d0\u30a4\u30d1\u30b9\u5c0f\u675f\u5c71\u5730\u533a\u571f\u8cea\u8abf\u67fb\u4f5c\u696d","client_name":"\u56fd\u571f\u4ea4\u901a\u7701\u8fd1\u757f\u5730\u65b9\u6574\u5099\u5c40\u962a\u795e\u56fd\u9053\u4e8b\u52d9\u6240","boring_xml_url":40,"boring_view_url":1,"soilmap_view_url":null,"soiltest_xml_url":0,"soiltest_view_url":0},{"id":176488,"code":"B4KJ201801006-4737","latitude":"34.6707044","longitude":"135.0548586","source_code":"KK52350004006","project_name":"","survey_name":"\u795e\u6238\u897f\u30d0\u30a4\u30d1\u30b9\u5c0f\u675f\u5c71\u5730\u533a\u571f\u8cea\u8abf\u67fb\u4f5c\u696d","client_name":"\u56fd\u571f\u4ea4\u901a\u7701\u8fd1\u757f\u5730\u65b9\u6574\u5099\u5c40\u962a\u795e\u56fd\u9053\u4e8b\u52d9\u6240","boring_xml_url":40,"boring_view_url":1,"soilmap_view_url":null,"soiltest_xml_url":0,"soiltest_view_url":0},{"id":176487,"code":"B4KJ201801006-4736","latitude":"34.6702325","longitude":"135.0546086","source_code":"KK52350004005","project_name":"","survey_name":"\u795e\u6238\u897f\u30d0\u30a4\u30d1\u30b9\u5c0f\u675f\u5c71\u5730\u533a\u571f\u8cea\u8abf\u67fb\u4f5c\u696d","client_name":"\u56fd\u571f\u4ea4\u901a\u7701\u8fd1\u757f\u5730\u65b9\u6574\u5099\u5c40\u962a\u795e\u56fd\u9053\u4e8b\u52d9\u6240","boring_xml_url":40,"boring_view_url":1,"soilmap_view_url":null,"soiltest_xml_url":0,"soiltest_view_url":0},{"id":176486,"code":"B4KJ201801006-4735","latitude":"34.6705656","longitude":"135.0539142","source_code":"KK52350004004","project_name":"","survey_name":"\u795e\u6238\u897f\u30d0\u30a4\u30d1\u30b9\u5c0f\u675f\u5c71\u5730\u533a\u571f\u8cea\u8abf\u67fb\u4f5c\u696d","client_name":"\u56fd\u571f\u4ea4\u901a\u7701\u8fd1\u757f\u5730\u65b9\u6574\u5099\u5c40\u962a\u795e\u56fd\u9053\u4e8b\u52d9\u6240","boring_xml_url":40,"boring_view_url":1,"soilmap_view_url":null,"soiltest_xml_url":0,"soiltest_view_url":0}]}}