{"header":{"xyz":{"source":[],"mosaic":false},"page":4804,"raw":{"soiltest_result":"0","bbox":"57.598333,109.544722,1.933333,163.806111","page":"4804"},"conditions":{"soiltest_result":0,"north":57.598333,"west":109.544722,"south":1.933333,"east":163.806111},"success":true,"message":""},"data":{"meta":{"total":212844,"page":4804,"pages":7095,"count":30},"values":[{"id":176455,"code":"B4KJ201801006-4704","latitude":"35.3040456","longitude":"134.9127664","source_code":"KK52347763004","project_name":"","survey_name":"\u5c71\u6771\u548c\u7530\u5c71\u5730\u533a\u5730\u8cea\u8abf\u67fb\u4f5c\u696d","client_name":"\u56fd\u571f\u4ea4\u901a\u7701\u8fd1\u757f\u5730\u65b9\u6574\u5099\u5c40\u8c4a\u5ca1\u6cb3\u5ddd\u56fd\u9053\u4e8b\u52d9\u6240","boring_xml_url":40,"boring_view_url":1,"soilmap_view_url":null,"soiltest_xml_url":0,"soiltest_view_url":0},{"id":176454,"code":"B4KJ201801006-4703","latitude":"35.3036014","longitude":"134.9190992","source_code":"KK52347763003","project_name":"","survey_name":"\u6625\u65e5\u548c\u7530\u5c71\u9053\u8def\u5730\u8cea\u8abf\u67fb(\u305d\u306e1)\u4f5c\u696d","client_name":"\u56fd\u571f\u4ea4\u901a\u7701\u8fd1\u757f\u5730\u65b9\u6574\u5099\u5c40\u8c4a\u5ca1\u6cb3\u5ddd\u56fd\u9053\u4e8b\u52d9\u6240","boring_xml_url":40,"boring_view_url":1,"soilmap_view_url":null,"soiltest_xml_url":0,"soiltest_view_url":0},{"id":176453,"code":"B4KJ201801006-4702","latitude":"35.3036011","longitude":"134.9120997","source_code":"KK52347763002","project_name":"","survey_name":"\u6625\u65e5\u548c\u7530\u5c71\u9053\u8def\u5730\u8cea\u8abf\u67fb(\u305d\u306e1)\u4f5c\u696d","client_name":"\u56fd\u571f\u4ea4\u901a\u7701\u8fd1\u757f\u5730\u65b9\u6574\u5099\u5c40\u8c4a\u5ca1\u6cb3\u5ddd\u56fd\u9053\u4e8b\u52d9\u6240","boring_xml_url":40,"boring_view_url":1,"soilmap_view_url":null,"soiltest_xml_url":0,"soiltest_view_url":0},{"id":176452,"code":"B4KJ201801006-4701","latitude":"35.3038233","longitude":"134.9135997","source_code":"KK52347763001","project_name":"","survey_name":"\u6625\u65e5\u548c\u7530\u5c71\u9053\u8def\u5730\u8cea\u8abf\u67fb(\u305d\u306e1)\u4f5c\u696d","client_name":"\u56fd\u571f\u4ea4\u901a\u7701\u8fd1\u757f\u5730\u65b9\u6574\u5099\u5c40\u8c4a\u5ca1\u6cb3\u5ddd\u56fd\u9053\u4e8b\u52d9\u6240","boring_xml_url":40,"boring_view_url":1,"soilmap_view_url":null,"soiltest_xml_url":0,"soiltest_view_url":0},{"id":176451,"code":"B4KJ201801006-4700","latitude":"35.3056003","longitude":"134.8852964","source_code":"KK52347761006","project_name":"","survey_name":"\u5c71\u6771\u548c\u7530\u5c71\u5730\u533a\u5730\u8cea\u8abf\u67fb\u4f5c\u696d","client_name":"\u56fd\u571f\u4ea4\u901a\u7701\u8fd1\u757f\u5730\u65b9\u6574\u5099\u5c40\u8c4a\u5ca1\u6cb3\u5ddd\u56fd\u9053\u4e8b\u52d9\u6240","boring_xml_url":40,"boring_view_url":1,"soilmap_view_url":null,"soiltest_xml_url":0,"soiltest_view_url":0},{"id":176450,"code":"B4KJ201801006-4699","latitude":"35.3054614","longitude":"134.8871019","source_code":"KK52347761005","project_name":"","survey_name":"\u5c71\u6771\u548c\u7530\u5c71\u5730\u533a\u5730\u8cea\u8abf\u67fb\u4f5c\u696d","client_name":"\u56fd\u571f\u4ea4\u901a\u7701\u8fd1\u757f\u5730\u65b9\u6574\u5099\u5c40\u8c4a\u5ca1\u6cb3\u5ddd\u56fd\u9053\u4e8b\u52d9\u6240","boring_xml_url":40,"boring_view_url":1,"soilmap_view_url":null,"soiltest_xml_url":0,"soiltest_view_url":0},{"id":176449,"code":"B4KJ201801006-4698","latitude":"35.3054614","longitude":"134.8877686","source_code":"KK52347761004","project_name":"","survey_name":"\u5c71\u6771\u548c\u7530\u5c71\u5730\u533a\u5730\u8cea\u8abf\u67fb\u4f5c\u696d","client_name":"\u56fd\u571f\u4ea4\u901a\u7701\u8fd1\u757f\u5730\u65b9\u6574\u5099\u5c40\u8c4a\u5ca1\u6cb3\u5ddd\u56fd\u9053\u4e8b\u52d9\u6240","boring_xml_url":40,"boring_view_url":1,"soilmap_view_url":null,"soiltest_xml_url":0,"soiltest_view_url":0},{"id":176448,"code":"B4KJ201801006-4697","latitude":"35.3052947","longitude":"134.8893239","source_code":"KK52347761003","project_name":"","survey_name":"\u5c71\u6771\u548c\u7530\u5c71\u5730\u533a\u5730\u8cea\u8abf\u67fb\u4f5c\u696d","client_name":"\u56fd\u571f\u4ea4\u901a\u7701\u8fd1\u757f\u5730\u65b9\u6574\u5099\u5c40\u8c4a\u5ca1\u6cb3\u5ddd\u56fd\u9053\u4e8b\u52d9\u6240","boring_xml_url":40,"boring_view_url":1,"soilmap_view_url":null,"soiltest_xml_url":0,"soiltest_view_url":0},{"id":176447,"code":"B4KJ201801006-4696","latitude":"35.3054058","longitude":"134.8893517","source_code":"KK52347761002","project_name":"","survey_name":"\u6625\u65e5\u548c\u7530\u5c71\u9053\u8def\u5730\u8cea\u8abf\u67fb(\u305d\u306e1)\u4f5c\u696d","client_name":"\u56fd\u571f\u4ea4\u901a\u7701\u8fd1\u757f\u5730\u65b9\u6574\u5099\u5c40\u8c4a\u5ca1\u6cb3\u5ddd\u56fd\u9053\u4e8b\u52d9\u6240","boring_xml_url":40,"boring_view_url":1,"soilmap_view_url":null,"soiltest_xml_url":0,"soiltest_view_url":0},{"id":176446,"code":"B4KJ201801006-4695","latitude":"35.3055169","longitude":"134.8885461","source_code":"KK52347761001","project_name":"","survey_name":"\u6625\u65e5\u548c\u7530\u5c71\u9053\u8def\u5730\u8cea\u8abf\u67fb(\u305d\u306e1)\u4f5c\u696d","client_name":"\u56fd\u571f\u4ea4\u901a\u7701\u8fd1\u757f\u5730\u65b9\u6574\u5099\u5c40\u8c4a\u5ca1\u6cb3\u5ddd\u56fd\u9053\u4e8b\u52d9\u6240","boring_xml_url":40,"boring_view_url":1,"soilmap_view_url":null,"soiltest_xml_url":0,"soiltest_view_url":0},{"id":176445,"code":"B4KJ201801006-4694","latitude":"35.3102383","longitude":"134.8734364","source_code":"KK52347760015","project_name":"","survey_name":"\u5c71\u6771\u548c\u7530\u5c71\u5730\u533a\u5730\u8cea\u8abf\u67fb\u4f5c\u696d","client_name":"\u56fd\u571f\u4ea4\u901a\u7701\u8fd1\u757f\u5730\u65b9\u6574\u5099\u5c40\u8c4a\u5ca1\u6cb3\u5ddd\u56fd\u9053\u4e8b\u52d9\u6240","boring_xml_url":40,"boring_view_url":1,"soilmap_view_url":null,"soiltest_xml_url":0,"soiltest_view_url":0},{"id":176444,"code":"B4KJ201801006-4693","latitude":"35.3097661","longitude":"134.8747694","source_code":"KK52347760014","project_name":"","survey_name":"\u5c71\u6771\u548c\u7530\u5c71\u5730\u533a\u5730\u8cea\u8abf\u67fb\u4f5c\u696d","client_name":"\u56fd\u571f\u4ea4\u901a\u7701\u8fd1\u757f\u5730\u65b9\u6574\u5099\u5c40\u8c4a\u5ca1\u6cb3\u5ddd\u56fd\u9053\u4e8b\u52d9\u6240","boring_xml_url":40,"boring_view_url":1,"soilmap_view_url":null,"soiltest_xml_url":0,"soiltest_view_url":0},{"id":176443,"code":"B4KJ201801006-4692","latitude":"35.3094331","longitude":"134.8754083","source_code":"KK52347760013","project_name":"","survey_name":"\u5c71\u6771\u548c\u7530\u5c71\u5730\u533a\u5730\u8cea\u8abf\u67fb\u4f5c\u696d","client_name":"\u56fd\u571f\u4ea4\u901a\u7701\u8fd1\u757f\u5730\u65b9\u6574\u5099\u5c40\u8c4a\u5ca1\u6cb3\u5ddd\u56fd\u9053\u4e8b\u52d9\u6240","boring_xml_url":40,"boring_view_url":1,"soilmap_view_url":null,"soiltest_xml_url":0,"soiltest_view_url":0},{"id":176442,"code":"B4KJ201801006-4691","latitude":"35.3087108","longitude":"134.8763528","source_code":"KK52347760012","project_name":"","survey_name":"\u5c71\u6771\u548c\u7530\u5c71\u5730\u533a\u5730\u8cea\u8abf\u67fb\u4f5c\u696d","client_name":"\u56fd\u571f\u4ea4\u901a\u7701\u8fd1\u757f\u5730\u65b9\u6574\u5099\u5c40\u8c4a\u5ca1\u6cb3\u5ddd\u56fd\u9053\u4e8b\u52d9\u6240","boring_xml_url":40,"boring_view_url":1,"soilmap_view_url":null,"soiltest_xml_url":0,"soiltest_view_url":0},{"id":176441,"code":"B4KJ201801006-4690","latitude":"35.3069889","longitude":"134.8787969","source_code":"KK52347760011","project_name":"","survey_name":"\u5c71\u6771\u548c\u7530\u5c71\u5730\u533a\u5730\u8cea\u8abf\u67fb\u4f5c\u696d","client_name":"\u56fd\u571f\u4ea4\u901a\u7701\u8fd1\u757f\u5730\u65b9\u6574\u5099\u5c40\u8c4a\u5ca1\u6cb3\u5ddd\u56fd\u9053\u4e8b\u52d9\u6240","boring_xml_url":40,"boring_view_url":1,"soilmap_view_url":null,"soiltest_xml_url":0,"soiltest_view_url":0},{"id":176440,"code":"B4KJ201801006-4689","latitude":"35.3064333","longitude":"134.8797136","source_code":"KK52347760010","project_name":"","survey_name":"\u5c71\u6771\u548c\u7530\u5c71\u5730\u533a\u5730\u8cea\u8abf\u67fb\u4f5c\u696d","client_name":"\u56fd\u571f\u4ea4\u901a\u7701\u8fd1\u757f\u5730\u65b9\u6574\u5099\u5c40\u8c4a\u5ca1\u6cb3\u5ddd\u56fd\u9053\u4e8b\u52d9\u6240","boring_xml_url":40,"boring_view_url":1,"soilmap_view_url":null,"soiltest_xml_url":0,"soiltest_view_url":0},{"id":176439,"code":"B4KJ201801006-4688","latitude":"35.3064333","longitude":"134.8805469","source_code":"KK52347760009","project_name":"","survey_name":"\u5c71\u6771\u548c\u7530\u5c71\u5730\u533a\u5730\u8cea\u8abf\u67fb\u4f5c\u696d","client_name":"\u56fd\u571f\u4ea4\u901a\u7701\u8fd1\u757f\u5730\u65b9\u6574\u5099\u5c40\u8c4a\u5ca1\u6cb3\u5ddd\u56fd\u9053\u4e8b\u52d9\u6240","boring_xml_url":40,"boring_view_url":1,"soilmap_view_url":null,"soiltest_xml_url":0,"soiltest_view_url":0},{"id":176438,"code":"B4KJ201801006-4687","latitude":"35.3060444","longitude":"134.8815192","source_code":"KK52347760008","project_name":"","survey_name":"\u5c71\u6771\u548c\u7530\u5c71\u5730\u533a\u5730\u8cea\u8abf\u67fb\u4f5c\u696d","client_name":"\u56fd\u571f\u4ea4\u901a\u7701\u8fd1\u757f\u5730\u65b9\u6574\u5099\u5c40\u8c4a\u5ca1\u6cb3\u5ddd\u56fd\u9053\u4e8b\u52d9\u6240","boring_xml_url":40,"boring_view_url":1,"soilmap_view_url":null,"soiltest_xml_url":0,"soiltest_view_url":0},{"id":176437,"code":"B4KJ201801006-4686","latitude":"35.3059058","longitude":"134.8819636","source_code":"KK52347760007","project_name":"","survey_name":"\u5c71\u6771\u548c\u7530\u5c71\u5730\u533a\u5730\u8cea\u8abf\u67fb\u4f5c\u696d","client_name":"\u56fd\u571f\u4ea4\u901a\u7701\u8fd1\u757f\u5730\u65b9\u6574\u5099\u5c40\u8c4a\u5ca1\u6cb3\u5ddd\u56fd\u9053\u4e8b\u52d9\u6240","boring_xml_url":40,"boring_view_url":1,"soilmap_view_url":null,"soiltest_xml_url":0,"soiltest_view_url":0},{"id":176436,"code":"B4KJ201801006-4685","latitude":"35.3056003","longitude":"134.8841578","source_code":"KK52347760006","project_name":"","survey_name":"\u5c71\u6771\u548c\u7530\u5c71\u5730\u533a\u5730\u8cea\u8abf\u67fb\u4f5c\u696d","client_name":"\u56fd\u571f\u4ea4\u901a\u7701\u8fd1\u757f\u5730\u65b9\u6574\u5099\u5c40\u8c4a\u5ca1\u6cb3\u5ddd\u56fd\u9053\u4e8b\u52d9\u6240","boring_xml_url":40,"boring_view_url":1,"soilmap_view_url":null,"soiltest_xml_url":0,"soiltest_view_url":0},{"id":176435,"code":"B4KJ201801006-4684","latitude":"35.3060167","longitude":"134.8807692","source_code":"KK52347760005","project_name":"","survey_name":"\u6625\u65e5\u548c\u7530\u5c71\u9053\u8def\u5730\u8cea\u8abf\u67fb(\u305d\u306e2)\u4f5c\u696d","client_name":"\u56fd\u571f\u4ea4\u901a\u7701\u8fd1\u757f\u5730\u65b9\u6574\u5099\u5c40\u8c4a\u5ca1\u6cb3\u5ddd\u56fd\u9053\u4e8b\u52d9\u6240","boring_xml_url":40,"boring_view_url":1,"soilmap_view_url":null,"soiltest_xml_url":0,"soiltest_view_url":0},{"id":176434,"code":"B4KJ201801006-4683","latitude":"35.3064333","longitude":"134.8796858","source_code":"KK52347760004","project_name":"","survey_name":"\u6625\u65e5\u548c\u7530\u5c71\u9053\u8def\u5730\u8cea\u8abf\u67fb(\u305d\u306e2)\u4f5c\u696d","client_name":"\u56fd\u571f\u4ea4\u901a\u7701\u8fd1\u757f\u5730\u65b9\u6574\u5099\u5c40\u8c4a\u5ca1\u6cb3\u5ddd\u56fd\u9053\u4e8b\u52d9\u6240","boring_xml_url":40,"boring_view_url":1,"soilmap_view_url":null,"soiltest_xml_url":0,"soiltest_view_url":0},{"id":176433,"code":"B4KJ201801006-4682","latitude":"35.3088497","longitude":"134.8761306","source_code":"KK52347760003","project_name":"","survey_name":"\u6625\u65e5\u548c\u7530\u5c71\u9053\u8def\u5730\u8cea\u8abf\u67fb(\u305d\u306e2)\u4f5c\u696d","client_name":"\u56fd\u571f\u4ea4\u901a\u7701\u8fd1\u757f\u5730\u65b9\u6574\u5099\u5c40\u8c4a\u5ca1\u6cb3\u5ddd\u56fd\u9053\u4e8b\u52d9\u6240","boring_xml_url":40,"boring_view_url":1,"soilmap_view_url":null,"soiltest_xml_url":0,"soiltest_view_url":0},{"id":176432,"code":"B4KJ201801006-4681","latitude":"35.3092108","longitude":"134.8754639","source_code":"KK52347760002","project_name":"","survey_name":"\u6625\u65e5\u548c\u7530\u5c71\u9053\u8def\u5730\u8cea\u8abf\u67fb(\u305d\u306e2)\u4f5c\u696d","client_name":"\u56fd\u571f\u4ea4\u901a\u7701\u8fd1\u757f\u5730\u65b9\u6574\u5099\u5c40\u8c4a\u5ca1\u6cb3\u5ddd\u56fd\u9053\u4e8b\u52d9\u6240","boring_xml_url":40,"boring_view_url":1,"soilmap_view_url":null,"soiltest_xml_url":0,"soiltest_view_url":0},{"id":176431,"code":"B4KJ201801006-4680","latitude":"35.309905","longitude":"134.8736864","source_code":"KK52347760001","project_name":"","survey_name":"\u6625\u65e5\u548c\u7530\u5c71\u9053\u8def\u5730\u8cea\u8abf\u67fb(\u305d\u306e2)\u4f5c\u696d","client_name":"\u56fd\u571f\u4ea4\u901a\u7701\u8fd1\u757f\u5730\u65b9\u6574\u5099\u5c40\u8c4a\u5ca1\u6cb3\u5ddd\u56fd\u9053\u4e8b\u52d9\u6240","boring_xml_url":40,"boring_view_url":1,"soilmap_view_url":null,"soiltest_xml_url":0,"soiltest_view_url":0},{"id":176430,"code":"B4KJ201801006-4679","latitude":"35.3028792","longitude":"134.9255986","source_code":"KK52347754005","project_name":"","survey_name":"\u5c71\u6771\u548c\u7530\u5c71\u5730\u533a\u5730\u8cea\u8abf\u67fb\u4f5c\u696d","client_name":"\u56fd\u571f\u4ea4\u901a\u7701\u8fd1\u757f\u5730\u65b9\u6574\u5099\u5c40\u8c4a\u5ca1\u6cb3\u5ddd\u56fd\u9053\u4e8b\u52d9\u6240","boring_xml_url":40,"boring_view_url":1,"soilmap_view_url":null,"soiltest_xml_url":0,"soiltest_view_url":0},{"id":176429,"code":"B4KJ201801006-4678","latitude":"35.3024906","longitude":"134.9264042","source_code":"KK52347754004","project_name":"","survey_name":"\u5c71\u6771\u548c\u7530\u5c71\u5730\u533a\u5730\u8cea\u8abf\u67fb\u4f5c\u696d","client_name":"\u56fd\u571f\u4ea4\u901a\u7701\u8fd1\u757f\u5730\u65b9\u6574\u5099\u5c40\u8c4a\u5ca1\u6cb3\u5ddd\u56fd\u9053\u4e8b\u52d9\u6240","boring_xml_url":40,"boring_view_url":1,"soilmap_view_url":null,"soiltest_xml_url":0,"soiltest_view_url":0},{"id":176428,"code":"B4KJ201801006-4677","latitude":"35.3029347","longitude":"134.9263208","source_code":"KK52347754003","project_name":"","survey_name":"\u5c71\u6771\u548c\u7530\u5c71\u5730\u533a\u5730\u8cea\u8abf\u67fb\u4f5c\u696d","client_name":"\u56fd\u571f\u4ea4\u901a\u7701\u8fd1\u757f\u5730\u65b9\u6574\u5099\u5c40\u8c4a\u5ca1\u6cb3\u5ddd\u56fd\u9053\u4e8b\u52d9\u6240","boring_xml_url":40,"boring_view_url":1,"soilmap_view_url":null,"soiltest_xml_url":0,"soiltest_view_url":0},{"id":176427,"code":"B4KJ201801006-4676","latitude":"35.3026017","longitude":"134.927765","source_code":"KK52347754002","project_name":"","survey_name":"\u5c71\u6771\u548c\u7530\u5c71\u5730\u533a\u5730\u8cea\u8abf\u67fb\u4f5c\u696d","client_name":"\u56fd\u571f\u4ea4\u901a\u7701\u8fd1\u757f\u5730\u65b9\u6574\u5099\u5c40\u8c4a\u5ca1\u6cb3\u5ddd\u56fd\u9053\u4e8b\u52d9\u6240","boring_xml_url":40,"boring_view_url":1,"soilmap_view_url":null,"soiltest_xml_url":0,"soiltest_view_url":0},{"id":176426,"code":"B4KJ201801006-4675","latitude":"35.3030461","longitude":"134.9271817","source_code":"KK52347754001","project_name":"","survey_name":"\u5c71\u6771\u548c\u7530\u5c71\u5730\u533a\u5730\u8cea\u8abf\u67fb\u4f5c\u696d","client_name":"\u56fd\u571f\u4ea4\u901a\u7701\u8fd1\u757f\u5730\u65b9\u6574\u5099\u5c40\u8c4a\u5ca1\u6cb3\u5ddd\u56fd\u9053\u4e8b\u52d9\u6240","boring_xml_url":40,"boring_view_url":1,"soilmap_view_url":null,"soiltest_xml_url":0,"soiltest_view_url":0}]}}