{"header":{"xyz":{"source":[],"mosaic":false},"page":4815,"raw":{"soiltest_result":"0","bbox":"57.598333,109.544722,1.933333,163.806111","page":"4815"},"conditions":{"soiltest_result":0,"north":57.598333,"west":109.544722,"south":1.933333,"east":163.806111},"success":true,"message":""},"data":{"meta":{"total":212844,"page":4815,"pages":7095,"count":30},"values":[{"id":176125,"code":"B4KJ201801006-4374","latitude":"34.7926036","longitude":"134.8919244","source_code":"KK52341741024","project_name":"","survey_name":"\u52a0\u53e4\u5ddd\u5927\u5830\u5730\u70b9\u5730\u8cea\u8abf\u67fb(\u305d\u306e3)\u4f5c\u696d","client_name":"\u56fd\u571f\u4ea4\u901a\u7701\u8fd1\u757f\u5730\u65b9\u6574\u5099\u5c40\u59eb\u8def\u6cb3\u5ddd\u56fd\u9053\u4e8b\u52d9\u6240","boring_xml_url":40,"boring_view_url":1,"soilmap_view_url":null,"soiltest_xml_url":0,"soiltest_view_url":0},{"id":176124,"code":"B4KJ201801006-4373","latitude":"34.7926592","longitude":"134.8902856","source_code":"KK52341741023","project_name":"","survey_name":"\u52a0\u53e4\u5ddd\u5927\u5830\u5730\u70b9\u5730\u8cea\u8abf\u67fb(\u305d\u306e3)\u4f5c\u696d","client_name":"\u56fd\u571f\u4ea4\u901a\u7701\u8fd1\u757f\u5730\u65b9\u6574\u5099\u5c40\u59eb\u8def\u6cb3\u5ddd\u56fd\u9053\u4e8b\u52d9\u6240","boring_xml_url":40,"boring_view_url":1,"soilmap_view_url":null,"soiltest_xml_url":0,"soiltest_view_url":0},{"id":176123,"code":"B4KJ201801006-4372","latitude":"34.7936589","longitude":"134.8906744","source_code":"KK52341741022","project_name":"","survey_name":"\u52a0\u53e4\u5ddd\u5927\u5830\u5830\u5730\u70b9\u5730\u8cea\u8abf\u67fb(\u305d\u306e2)\u4f5c\u696d","client_name":"\u56fd\u571f\u4ea4\u901a\u7701\u8fd1\u757f\u5730\u65b9\u6574\u5099\u5c40\u59eb\u8def\u6cb3\u5ddd\u56fd\u9053\u4e8b\u52d9\u6240","boring_xml_url":40,"boring_view_url":1,"soilmap_view_url":null,"soiltest_xml_url":0,"soiltest_view_url":0},{"id":176122,"code":"B4KJ201801006-4371","latitude":"34.7936033","longitude":"134.8870081","source_code":"KK52341741017","project_name":"","survey_name":"\u8349\u8c37\u5ddd\u6c34\u9580\u5730\u8cea\u8abf\u67fb\u4f5c\u696d","client_name":"\u56fd\u571f\u4ea4\u901a\u7701\u8fd1\u757f\u5730\u65b9\u6574\u5099\u5c40\u59eb\u8def\u6cb3\u5ddd\u56fd\u9053\u4e8b\u52d9\u6240","boring_xml_url":40,"boring_view_url":1,"soilmap_view_url":null,"soiltest_xml_url":0,"soiltest_view_url":0},{"id":176121,"code":"B4KJ201801006-4370","latitude":"34.7933811","longitude":"134.8869803","source_code":"KK52341741016","project_name":"","survey_name":"\u8349\u8c37\u5ddd\u6c34\u9580\u5730\u8cea\u8abf\u67fb\u4f5c\u696d","client_name":"\u56fd\u571f\u4ea4\u901a\u7701\u8fd1\u757f\u5730\u65b9\u6574\u5099\u5c40\u59eb\u8def\u6cb3\u5ddd\u56fd\u9053\u4e8b\u52d9\u6240","boring_xml_url":40,"boring_view_url":1,"soilmap_view_url":null,"soiltest_xml_url":0,"soiltest_view_url":0},{"id":176120,"code":"B4KJ201801006-4369","latitude":"34.7931867","longitude":"134.8874525","source_code":"KK52341741015","project_name":"","survey_name":"\u8349\u8c37\u5ddd\u6c34\u9580\u5730\u8cea\u8abf\u67fb\u4f5c\u696d","client_name":"\u56fd\u571f\u4ea4\u901a\u7701\u8fd1\u757f\u5730\u65b9\u6574\u5099\u5c40\u59eb\u8def\u6cb3\u5ddd\u56fd\u9053\u4e8b\u52d9\u6240","boring_xml_url":40,"boring_view_url":1,"soilmap_view_url":null,"soiltest_xml_url":0,"soiltest_view_url":0},{"id":176119,"code":"B4KJ201801006-4368","latitude":"34.7929369","longitude":"134.8878969","source_code":"KK52341741014","project_name":"","survey_name":"\u8349\u8c37\u5ddd\u6c34\u9580\u5730\u8cea\u8abf\u67fb\u4f5c\u696d","client_name":"\u56fd\u571f\u4ea4\u901a\u7701\u8fd1\u757f\u5730\u65b9\u6574\u5099\u5c40\u59eb\u8def\u6cb3\u5ddd\u56fd\u9053\u4e8b\u52d9\u6240","boring_xml_url":40,"boring_view_url":1,"soilmap_view_url":null,"soiltest_xml_url":0,"soiltest_view_url":0},{"id":176118,"code":"B4KJ201801006-4367","latitude":"34.7929369","longitude":"134.8887025","source_code":"KK52341741013","project_name":"","survey_name":"\u8349\u8c37\u5ddd\u6c34\u9580\u5730\u8cea\u8abf\u67fb\u4f5c\u696d","client_name":"\u56fd\u571f\u4ea4\u901a\u7701\u8fd1\u757f\u5730\u65b9\u6574\u5099\u5c40\u59eb\u8def\u6cb3\u5ddd\u56fd\u9053\u4e8b\u52d9\u6240","boring_xml_url":40,"boring_view_url":1,"soilmap_view_url":null,"soiltest_xml_url":0,"soiltest_view_url":0},{"id":176117,"code":"B4KJ201801006-4366","latitude":"34.7927703","longitude":"134.8885358","source_code":"KK52341741012","project_name":"","survey_name":"\u8349\u8c37\u5ddd\u6c34\u9580\u5730\u8cea\u8abf\u67fb\u4f5c\u696d","client_name":"\u56fd\u571f\u4ea4\u901a\u7701\u8fd1\u757f\u5730\u65b9\u6574\u5099\u5c40\u59eb\u8def\u6cb3\u5ddd\u56fd\u9053\u4e8b\u52d9\u6240","boring_xml_url":40,"boring_view_url":1,"soilmap_view_url":null,"soiltest_xml_url":0,"soiltest_view_url":0},{"id":176116,"code":"B4KJ201801006-4365","latitude":"34.7926592","longitude":"134.8883692","source_code":"KK52341741011","project_name":"","survey_name":"\u8349\u8c37\u5ddd\u6c34\u9580\u5730\u8cea\u8abf\u67fb\u4f5c\u696d","client_name":"\u56fd\u571f\u4ea4\u901a\u7701\u8fd1\u757f\u5730\u65b9\u6574\u5099\u5c40\u59eb\u8def\u6cb3\u5ddd\u56fd\u9053\u4e8b\u52d9\u6240","boring_xml_url":40,"boring_view_url":1,"soilmap_view_url":null,"soiltest_xml_url":0,"soiltest_view_url":0},{"id":176115,"code":"B4KJ201801006-4364","latitude":"34.7927425","longitude":"134.8889803","source_code":"KK52341741010","project_name":"","survey_name":"\u8349\u8c37\u5ddd\u6c34\u9580\u5730\u8cea\u8abf\u67fb\u4f5c\u696d","client_name":"\u56fd\u571f\u4ea4\u901a\u7701\u8fd1\u757f\u5730\u65b9\u6574\u5099\u5c40\u59eb\u8def\u6cb3\u5ddd\u56fd\u9053\u4e8b\u52d9\u6240","boring_xml_url":40,"boring_view_url":1,"soilmap_view_url":null,"soiltest_xml_url":0,"soiltest_view_url":0},{"id":176114,"code":"B4KJ201801006-4363","latitude":"34.7926036","longitude":"134.8888136","source_code":"KK52341741009","project_name":"","survey_name":"\u8349\u8c37\u5ddd\u6c34\u9580\u5730\u8cea\u8abf\u67fb\u4f5c\u696d","client_name":"\u56fd\u571f\u4ea4\u901a\u7701\u8fd1\u757f\u5730\u65b9\u6574\u5099\u5c40\u59eb\u8def\u6cb3\u5ddd\u56fd\u9053\u4e8b\u52d9\u6240","boring_xml_url":40,"boring_view_url":1,"soilmap_view_url":null,"soiltest_xml_url":0,"soiltest_view_url":0},{"id":176113,"code":"B4KJ201801006-4362","latitude":"34.7924647","longitude":"134.8885914","source_code":"KK52341741008","project_name":"","survey_name":"\u8349\u8c37\u5ddd\u6c34\u9580\u5730\u8cea\u8abf\u67fb\u4f5c\u696d","client_name":"\u56fd\u571f\u4ea4\u901a\u7701\u8fd1\u757f\u5730\u65b9\u6574\u5099\u5c40\u59eb\u8def\u6cb3\u5ddd\u56fd\u9053\u4e8b\u52d9\u6240","boring_xml_url":40,"boring_view_url":1,"soilmap_view_url":null,"soiltest_xml_url":0,"soiltest_view_url":0},{"id":176112,"code":"B4KJ201801006-4361","latitude":"34.7926036","longitude":"134.8891469","source_code":"KK52341741007","project_name":"","survey_name":"\u8349\u8c37\u5ddd\u6c34\u9580\u5730\u8cea\u8abf\u67fb\u4f5c\u696d","client_name":"\u56fd\u571f\u4ea4\u901a\u7701\u8fd1\u757f\u5730\u65b9\u6574\u5099\u5c40\u59eb\u8def\u6cb3\u5ddd\u56fd\u9053\u4e8b\u52d9\u6240","boring_xml_url":40,"boring_view_url":1,"soilmap_view_url":null,"soiltest_xml_url":0,"soiltest_view_url":0},{"id":176111,"code":"B4KJ201801006-4360","latitude":"34.7923814","longitude":"134.8889803","source_code":"KK52341741006","project_name":"","survey_name":"\u8349\u8c37\u5ddd\u6c34\u9580\u5730\u8cea\u8abf\u67fb\u4f5c\u696d","client_name":"\u56fd\u571f\u4ea4\u901a\u7701\u8fd1\u757f\u5730\u65b9\u6574\u5099\u5c40\u59eb\u8def\u6cb3\u5ddd\u56fd\u9053\u4e8b\u52d9\u6240","boring_xml_url":40,"boring_view_url":1,"soilmap_view_url":null,"soiltest_xml_url":0,"soiltest_view_url":0},{"id":176110,"code":"B4KJ201801006-4359","latitude":"34.7922425","longitude":"134.8888136","source_code":"KK52341741005","project_name":"","survey_name":"\u8349\u8c37\u5ddd\u6c34\u9580\u5730\u8cea\u8abf\u67fb\u4f5c\u696d","client_name":"\u56fd\u571f\u4ea4\u901a\u7701\u8fd1\u757f\u5730\u65b9\u6574\u5099\u5c40\u59eb\u8def\u6cb3\u5ddd\u56fd\u9053\u4e8b\u52d9\u6240","boring_xml_url":40,"boring_view_url":1,"soilmap_view_url":null,"soiltest_xml_url":0,"soiltest_view_url":0},{"id":176109,"code":"B4KJ201801006-4358","latitude":"34.7922703","longitude":"134.8892581","source_code":"KK52341741004","project_name":"","survey_name":"\u8349\u8c37\u5ddd\u6c34\u9580\u5730\u8cea\u8abf\u67fb\u4f5c\u696d","client_name":"\u56fd\u571f\u4ea4\u901a\u7701\u8fd1\u757f\u5730\u65b9\u6574\u5099\u5c40\u59eb\u8def\u6cb3\u5ddd\u56fd\u9053\u4e8b\u52d9\u6240","boring_xml_url":40,"boring_view_url":1,"soilmap_view_url":null,"soiltest_xml_url":0,"soiltest_view_url":0},{"id":176108,"code":"B4KJ201801006-4357","latitude":"34.7921036","longitude":"134.8890914","source_code":"KK52341741003","project_name":"","survey_name":"\u8349\u8c37\u5ddd\u6c34\u9580\u5730\u8cea\u8abf\u67fb\u4f5c\u696d","client_name":"\u56fd\u571f\u4ea4\u901a\u7701\u8fd1\u757f\u5730\u65b9\u6574\u5099\u5c40\u59eb\u8def\u6cb3\u5ddd\u56fd\u9053\u4e8b\u52d9\u6240","boring_xml_url":40,"boring_view_url":1,"soilmap_view_url":null,"soiltest_xml_url":0,"soiltest_view_url":0},{"id":176107,"code":"B4KJ201801006-4356","latitude":"34.7917147","longitude":"134.8893969","source_code":"KK52341741001","project_name":"","survey_name":"\u8349\u8c37\u5ddd\u6c34\u9580\u5730\u8cea\u8abf\u67fb\u4f5c\u696d","client_name":"\u56fd\u571f\u4ea4\u901a\u7701\u8fd1\u757f\u5730\u65b9\u6574\u5099\u5c40\u59eb\u8def\u6cb3\u5ddd\u56fd\u9053\u4e8b\u52d9\u6240","boring_xml_url":40,"boring_view_url":1,"soilmap_view_url":null,"soiltest_xml_url":0,"soiltest_view_url":0},{"id":176106,"code":"B4KJ201801006-4355","latitude":"34.7718303","longitude":"134.9851392","source_code":"KK52341729008","project_name":"","survey_name":"175\u53f7\u795e\u51faBP\u5927\u8c37\u6a4b\u8a73\u7d30\u8a2d\u8a08\u696d\u52d9","client_name":"\u56fd\u571f\u4ea4\u901a\u7701\u8fd1\u757f\u5730\u65b9\u6574\u5099\u5c40\u5175\u5eab\u56fd\u9053\u4e8b\u52d9\u6240","boring_xml_url":40,"boring_view_url":1,"soilmap_view_url":null,"soiltest_xml_url":0,"soiltest_view_url":0},{"id":176105,"code":"B4KJ201801006-4354","latitude":"34.7721914","longitude":"134.9846947","source_code":"KK52341728003","project_name":"","survey_name":"175\u53f7\u795e\u51faBP\u5927\u8c37\u6a4b\u8a73\u7d30\u8a2d\u8a08\u696d\u52d9","client_name":"\u56fd\u571f\u4ea4\u901a\u7701\u8fd1\u757f\u5730\u65b9\u6574\u5099\u5c40\u5175\u5eab\u56fd\u9053\u4e8b\u52d9\u6240","boring_xml_url":40,"boring_view_url":1,"soilmap_view_url":null,"soiltest_xml_url":0,"soiltest_view_url":0},{"id":176104,"code":"B4KJ201801006-4353","latitude":"34.7622478","longitude":"134.9771122","source_code":"KK52341718008","project_name":"","survey_name":"175\u53f7\u795e\u51faBP\u5e83\u8c37\u6a4b\u4ed6\u8a73\u7d30\u8a2d\u8a08\u696d\u52d9","client_name":"\u56fd\u571f\u4ea4\u901a\u7701\u8fd1\u757f\u5730\u65b9\u6574\u5099\u5c40\u5175\u5eab\u56fd\u9053\u4e8b\u52d9\u6240","boring_xml_url":40,"boring_view_url":1,"soilmap_view_url":null,"soiltest_xml_url":0,"soiltest_view_url":0},{"id":176103,"code":"B4KJ201801006-4352","latitude":"34.7619425","longitude":"134.9769736","source_code":"KK52341718007","project_name":"","survey_name":"175\u53f7\u795e\u51faBP\u5e83\u8c37\u6a4b\u4ed6\u8a73\u7d30\u8a2d\u8a08\u696d\u52d9","client_name":"\u56fd\u571f\u4ea4\u901a\u7701\u8fd1\u757f\u5730\u65b9\u6574\u5099\u5c40\u5175\u5eab\u56fd\u9053\u4e8b\u52d9\u6240","boring_xml_url":40,"boring_view_url":1,"soilmap_view_url":null,"soiltest_xml_url":0,"soiltest_view_url":0},{"id":176102,"code":"B4KJ201801006-4351","latitude":"34.76322","longitude":"134.9786122","source_code":"KK52341718002","project_name":"","survey_name":"\u795e\u51fa\u30d0\u30a4\u30d1\u30b9\u571f\u8cea\u8abf\u67fb\u4f5c\u696d","client_name":"\u56fd\u571f\u4ea4\u901a\u7701\u8fd1\u757f\u5730\u65b9\u6574\u5099\u5c40\u5175\u5eab\u56fd\u9053\u4e8b\u52d9\u6240","boring_xml_url":40,"boring_view_url":1,"soilmap_view_url":null,"soiltest_xml_url":0,"soiltest_view_url":0},{"id":176101,"code":"B4KJ201801006-4350","latitude":"34.76322","longitude":"134.9780567","source_code":"KK52341718001","project_name":"","survey_name":"\u795e\u51fa\u30d0\u30a4\u30d1\u30b9\u571f\u8cea\u8abf\u67fb\u4f5c\u696d","client_name":"\u56fd\u571f\u4ea4\u901a\u7701\u8fd1\u757f\u5730\u65b9\u6574\u5099\u5c40\u5175\u5eab\u56fd\u9053\u4e8b\u52d9\u6240","boring_xml_url":40,"boring_view_url":1,"soilmap_view_url":null,"soiltest_xml_url":0,"soiltest_view_url":0},{"id":176100,"code":"B4KJ201801006-4349","latitude":"34.7574428","longitude":"134.9765847","source_code":"KK52341708009","project_name":"","survey_name":"175\u53f7\u795e\u51faBP\u5e83\u8c37\u6a4b\u4ed6\u8a73\u7d30\u8a2d\u8a08\u696d\u52d9","client_name":"\u56fd\u571f\u4ea4\u901a\u7701\u8fd1\u757f\u5730\u65b9\u6574\u5099\u5c40\u5175\u5eab\u56fd\u9053\u4e8b\u52d9\u6240","boring_xml_url":40,"boring_view_url":1,"soilmap_view_url":null,"soiltest_xml_url":0,"soiltest_view_url":0},{"id":176099,"code":"B4KJ201801006-4348","latitude":"34.7567208","longitude":"134.9768625","source_code":"KK52341708008","project_name":"","survey_name":"175\u53f7\u795e\u51faBP\u5e83\u8c37\u6a4b\u4ed6\u8a73\u7d30\u8a2d\u8a08\u696d\u52d9","client_name":"\u56fd\u571f\u4ea4\u901a\u7701\u8fd1\u757f\u5730\u65b9\u6574\u5099\u5c40\u5175\u5eab\u56fd\u9053\u4e8b\u52d9\u6240","boring_xml_url":40,"boring_view_url":1,"soilmap_view_url":null,"soiltest_xml_url":0,"soiltest_view_url":0},{"id":176098,"code":"B4KJ201801006-4347","latitude":"34.7582206","longitude":"134.9758347","source_code":"KK52341708003","project_name":"","survey_name":"\u795e\u51fa\u30d0\u30a4\u30d1\u30b9\u571f\u8cea\u8abf\u67fb\u4f5c\u696d","client_name":"\u56fd\u571f\u4ea4\u901a\u7701\u8fd1\u757f\u5730\u65b9\u6574\u5099\u5c40\u5175\u5eab\u56fd\u9053\u4e8b\u52d9\u6240","boring_xml_url":40,"boring_view_url":1,"soilmap_view_url":null,"soiltest_xml_url":0,"soiltest_view_url":0},{"id":176097,"code":"B4KJ201801006-4346","latitude":"34.7573872","longitude":"134.9758347","source_code":"KK52341708002","project_name":"","survey_name":"\u795e\u51fa\u30d0\u30a4\u30d1\u30b9\u571f\u8cea\u8abf\u67fb\u4f5c\u696d","client_name":"\u56fd\u571f\u4ea4\u901a\u7701\u8fd1\u757f\u5730\u65b9\u6574\u5099\u5c40\u5175\u5eab\u56fd\u9053\u4e8b\u52d9\u6240","boring_xml_url":40,"boring_view_url":1,"soilmap_view_url":null,"soiltest_xml_url":0,"soiltest_view_url":0},{"id":176096,"code":"B4KJ201801006-4345","latitude":"34.7568319","longitude":"134.9761125","source_code":"KK52341708001","project_name":"","survey_name":"\u795e\u51fa\u30d0\u30a4\u30d1\u30b9\u571f\u8cea\u8abf\u67fb\u4f5c\u696d","client_name":"\u56fd\u571f\u4ea4\u901a\u7701\u8fd1\u757f\u5730\u65b9\u6574\u5099\u5c40\u5175\u5eab\u56fd\u9053\u4e8b\u52d9\u6240","boring_xml_url":40,"boring_view_url":1,"soilmap_view_url":null,"soiltest_xml_url":0,"soiltest_view_url":0}]}}