{"header":{"xyz":{"source":[],"mosaic":false},"page":4817,"raw":{"soiltest_result":"0","bbox":"57.598333,109.544722,1.933333,163.806111","page":"4817"},"conditions":{"soiltest_result":0,"north":57.598333,"west":109.544722,"south":1.933333,"east":163.806111},"success":true,"message":""},"data":{"meta":{"total":212844,"page":4817,"pages":7095,"count":30},"values":[{"id":176065,"code":"B4KJ201801006-4314","latitude":"34.7753267","longitude":"134.8397353","source_code":"KK52341627005","project_name":"","survey_name":"\u65b0\u52a0\u53e4\u5ddd\u5927\u6a4b\u30dc\u30fc\u30ea\u30f3\u30b0\u5de5\u4e8b","client_name":"\u56fd\u571f\u4ea4\u901a\u7701\u8fd1\u757f\u5730\u65b9\u6574\u5099\u5c40\u59eb\u8def\u6cb3\u5ddd\u56fd\u9053\u4e8b\u52d9\u6240","boring_xml_url":40,"boring_view_url":1,"soilmap_view_url":null,"soiltest_xml_url":0,"soiltest_view_url":0},{"id":176064,"code":"B4KJ201801006-4313","latitude":"34.775828","longitude":"134.843819","source_code":"KK52341627001","project_name":"","survey_name":"\u52a0\u53e4\u5ddd\u5de6\u5cb8\u4e0b\u6d41\u90e8\u5824\u9632\u5730\u8cea\u8abf\u67fb\u4f5c\u696d","client_name":"\u56fd\u571f\u4ea4\u901a\u7701\u8fd1\u757f\u5730\u65b9\u6574\u5099\u5c40\u59eb\u8def\u6cb3\u5ddd\u56fd\u9053\u4e8b\u52d9\u6240","boring_xml_url":40,"boring_view_url":1,"soilmap_view_url":null,"soiltest_xml_url":0,"soiltest_view_url":0},{"id":176063,"code":"B4KJ201801006-4312","latitude":"34.77405","longitude":"134.828486","source_code":"KK52341626005","project_name":"","survey_name":"\u52a0\u53e4\u5ddd\u5de6\u5cb8\u4e0b\u6d41\u90e8\u5824\u9632\u5730\u8cea\u8abf\u67fb\u4f5c\u696d","client_name":"\u56fd\u571f\u4ea4\u901a\u7701\u8fd1\u757f\u5730\u65b9\u6574\u5099\u5c40\u59eb\u8def\u6cb3\u5ddd\u56fd\u9053\u4e8b\u52d9\u6240","boring_xml_url":40,"boring_view_url":1,"soilmap_view_url":null,"soiltest_xml_url":0,"soiltest_view_url":0},{"id":176062,"code":"B4KJ201801006-4311","latitude":"34.77405","longitude":"134.828486","source_code":"KK52341626004","project_name":"","survey_name":"\u52a0\u53e4\u5ddd\u5de6\u5cb8\u4e0b\u6d41\u90e8\u5824\u9632\u5730\u8cea\u8abf\u67fb\u4f5c\u696d","client_name":"\u56fd\u571f\u4ea4\u901a\u7701\u8fd1\u757f\u5730\u65b9\u6574\u5099\u5c40\u59eb\u8def\u6cb3\u5ddd\u56fd\u9053\u4e8b\u52d9\u6240","boring_xml_url":40,"boring_view_url":1,"soilmap_view_url":null,"soiltest_xml_url":0,"soiltest_view_url":0},{"id":176061,"code":"B4KJ201801006-4310","latitude":"34.77405","longitude":"134.828486","source_code":"KK52341626003","project_name":"","survey_name":"\u4e0b\u6771\u4f4f\u5730\u533a\u5730\u8cea\u8abf\u67fb\u4f5c\u696d","client_name":"\u56fd\u571f\u4ea4\u901a\u7701\u8fd1\u757f\u5730\u65b9\u6574\u5099\u5c40\u59eb\u8def\u6cb3\u5ddd\u56fd\u9053\u4e8b\u52d9\u6240","boring_xml_url":40,"boring_view_url":1,"soilmap_view_url":null,"soiltest_xml_url":0,"soiltest_view_url":0},{"id":176060,"code":"B4KJ201801006-4309","latitude":"34.7740483","longitude":"134.8159872","source_code":"KK52341625005","project_name":"","survey_name":"\u7c73\u7530\u65b0\u5730\u533a\u6f0f\u6c34\u5bfe\u7b56\u8abf\u67fb\u4f5c\u696d","client_name":"\u56fd\u571f\u4ea4\u901a\u7701\u8fd1\u757f\u5730\u65b9\u6574\u5099\u5c40\u59eb\u8def\u6cb3\u5ddd\u56fd\u9053\u4e8b\u52d9\u6240","boring_xml_url":40,"boring_view_url":1,"soilmap_view_url":null,"soiltest_xml_url":0,"soiltest_view_url":0},{"id":176059,"code":"B4KJ201801006-4308","latitude":"34.7740483","longitude":"134.8159872","source_code":"KK52341625003","project_name":"","survey_name":"\u7c73\u7530\u65b0\u5730\u533a\u6f0f\u6c34\u5bfe\u7b56\u8abf\u67fb\u4f5c\u696d","client_name":"\u56fd\u571f\u4ea4\u901a\u7701\u8fd1\u757f\u5730\u65b9\u6574\u5099\u5c40\u59eb\u8def\u6cb3\u5ddd\u56fd\u9053\u4e8b\u52d9\u6240","boring_xml_url":40,"boring_view_url":1,"soilmap_view_url":null,"soiltest_xml_url":0,"soiltest_view_url":0},{"id":176058,"code":"B4KJ201801006-4307","latitude":"34.753692","longitude":"134.858567","source_code":"KK52341608005","project_name":"","survey_name":"\u660e\u77f3\u5730\u533a\u53ca\u3073\u59eb\u8def\u5730\u533a\u6b69\u9053\u6a4b\u306b\u4f34\u3046\u5730\u8cea\u5730\u76e4\u8abf\u67fb","client_name":"\u56fd\u571f\u4ea4\u901a\u7701\u8fd1\u757f\u5730\u65b9\u6574\u5099\u5c40\u5175\u5eab\u56fd\u9053\u4e8b\u52d9\u6240","boring_xml_url":40,"boring_view_url":1,"soilmap_view_url":null,"soiltest_xml_url":0,"soiltest_view_url":0},{"id":176057,"code":"B4KJ201801006-4306","latitude":"34.753692","longitude":"134.858567","source_code":"KK52341608004","project_name":"","survey_name":"\u660e\u77f3\u5730\u533a\u53ca\u3073\u59eb\u8def\u5730\u533a\u6b69\u9053\u6a4b\u306b\u4f34\u3046\u5730\u8cea\u5730\u76e4\u8abf\u67fb","client_name":"\u56fd\u571f\u4ea4\u901a\u7701\u8fd1\u757f\u5730\u65b9\u6574\u5099\u5c40\u5175\u5eab\u56fd\u9053\u4e8b\u52d9\u6240","boring_xml_url":40,"boring_view_url":1,"soilmap_view_url":null,"soiltest_xml_url":0,"soiltest_view_url":0},{"id":176056,"code":"B4KJ201801006-4305","latitude":"34.761022","longitude":"134.821125","source_code":"KK52341605002","project_name":"","survey_name":"\u52a0\u53e4\u5ddd\u5de6\u5cb8\u4e0b\u6d41\u90e8\u5824\u9632\u5730\u8cea\u8abf\u67fb\u4f5c\u696d","client_name":"\u56fd\u571f\u4ea4\u901a\u7701\u8fd1\u757f\u5730\u65b9\u6574\u5099\u5c40\u59eb\u8def\u6cb3\u5ddd\u56fd\u9053\u4e8b\u52d9\u6240","boring_xml_url":40,"boring_view_url":1,"soilmap_view_url":null,"soiltest_xml_url":0,"soiltest_view_url":0},{"id":176055,"code":"B4KJ201801006-4304","latitude":"34.7578003","longitude":"134.8200986","source_code":"KK52341605001","project_name":"","survey_name":"\u52a0\u53e4\u5ddd\u5de6\u5cb8\u4e0b\u6d41\u90e8\u5824\u9632\u5730\u8cea\u8abf\u67fb\u4f5c\u696d","client_name":"\u56fd\u571f\u4ea4\u901a\u7701\u8fd1\u757f\u5730\u65b9\u6574\u5099\u5c40\u59eb\u8def\u6cb3\u5ddd\u56fd\u9053\u4e8b\u52d9\u6240","boring_xml_url":40,"boring_view_url":1,"soilmap_view_url":null,"soiltest_xml_url":0,"soiltest_view_url":0},{"id":176054,"code":"B4KJ201801006-4303","latitude":"34.7574667","longitude":"134.8060442","source_code":"KK52341604006","project_name":"","survey_name":"\u8352\u4e95\u5730\u533a\u5730\u8cea\u8abf\u67fb\u696d\u52d9","client_name":"\u56fd\u571f\u4ea4\u901a\u7701\u8fd1\u757f\u5730\u65b9\u6574\u5099\u5c40\u59eb\u8def\u6cb3\u5ddd\u56fd\u9053\u4e8b\u52d9\u6240","boring_xml_url":40,"boring_view_url":1,"soilmap_view_url":null,"soiltest_xml_url":0,"soiltest_view_url":0},{"id":176053,"code":"B4KJ201801006-4302","latitude":"34.7556892","longitude":"134.8059611","source_code":"KK52341604005","project_name":"","survey_name":"\u8352\u4e95\u5730\u533a\u5730\u8cea\u8abf\u67fb\u696d\u52d9","client_name":"\u56fd\u571f\u4ea4\u901a\u7701\u8fd1\u757f\u5730\u65b9\u6574\u5099\u5c40\u59eb\u8def\u6cb3\u5ddd\u56fd\u9053\u4e8b\u52d9\u6240","boring_xml_url":40,"boring_view_url":1,"soilmap_view_url":null,"soiltest_xml_url":0,"soiltest_view_url":0},{"id":176052,"code":"B4KJ201801006-4301","latitude":"34.8340372","longitude":"134.6266964","source_code":"KK52341590008","project_name":"","survey_name":"\u5c71\u7530\u30c8\u30f3\u30cd\u30eb\u5730\u8cea\u8abf\u67fb\u4f5c\u696d","client_name":"\u56fd\u571f\u4ea4\u901a\u7701\u8fd1\u757f\u5730\u65b9\u6574\u5099\u5c40\u59eb\u8def\u6cb3\u5ddd\u56fd\u9053\u4e8b\u52d9\u6240","boring_xml_url":40,"boring_view_url":1,"soilmap_view_url":null,"soiltest_xml_url":0,"soiltest_view_url":0},{"id":176051,"code":"B4KJ201801006-4300","latitude":"34.833815","longitude":"134.6272519","source_code":"KK52341590007","project_name":"","survey_name":"\u5c71\u7530\u30c8\u30f3\u30cd\u30eb\u5730\u8cea\u8abf\u67fb\u4f5c\u696d","client_name":"\u56fd\u571f\u4ea4\u901a\u7701\u8fd1\u757f\u5730\u65b9\u6574\u5099\u5c40\u59eb\u8def\u6cb3\u5ddd\u56fd\u9053\u4e8b\u52d9\u6240","boring_xml_url":40,"boring_view_url":1,"soilmap_view_url":null,"soiltest_xml_url":0,"soiltest_view_url":0},{"id":176050,"code":"B4KJ201801006-4299","latitude":"34.8335931","longitude":"134.6280853","source_code":"KK52341590005","project_name":"","survey_name":"\u5c71\u7530\u30c8\u30f3\u30cd\u30eb\u5730\u8cea\u8abf\u67fb\u4f5c\u696d","client_name":"\u56fd\u571f\u4ea4\u901a\u7701\u8fd1\u757f\u5730\u65b9\u6574\u5099\u5c40\u59eb\u8def\u6cb3\u5ddd\u56fd\u9053\u4e8b\u52d9\u6240","boring_xml_url":40,"boring_view_url":1,"soilmap_view_url":null,"soiltest_xml_url":0,"soiltest_view_url":0},{"id":176049,"code":"B4KJ201801006-4298","latitude":"34.8333708","longitude":"134.6289186","source_code":"KK52341590003","project_name":"","survey_name":"\u5c71\u7530\u30c8\u30f3\u30cd\u30eb\u5730\u8cea\u8abf\u67fb\u4f5c\u696d","client_name":"\u56fd\u571f\u4ea4\u901a\u7701\u8fd1\u757f\u5730\u65b9\u6574\u5099\u5c40\u59eb\u8def\u6cb3\u5ddd\u56fd\u9053\u4e8b\u52d9\u6240","boring_xml_url":40,"boring_view_url":1,"soilmap_view_url":null,"soiltest_xml_url":0,"soiltest_view_url":0},{"id":176048,"code":"B4KJ201801006-4297","latitude":"34.8333708","longitude":"134.6291964","source_code":"KK52341590002","project_name":"","survey_name":"\u5c71\u7530\u30c8\u30f3\u30cd\u30eb\u5730\u8cea\u8abf\u67fb\u4f5c\u696d","client_name":"\u56fd\u571f\u4ea4\u901a\u7701\u8fd1\u757f\u5730\u65b9\u6574\u5099\u5c40\u59eb\u8def\u6cb3\u5ddd\u56fd\u9053\u4e8b\u52d9\u6240","boring_xml_url":40,"boring_view_url":1,"soilmap_view_url":null,"soiltest_xml_url":0,"soiltest_view_url":0},{"id":176047,"code":"B4KJ201801006-4296","latitude":"34.8328986","longitude":"134.6294742","source_code":"KK52341590001","project_name":"","survey_name":"\u5c71\u7530\u30c8\u30f3\u30cd\u30eb\u5730\u8cea\u8abf\u67fb\u4f5c\u696d","client_name":"\u56fd\u571f\u4ea4\u901a\u7701\u8fd1\u757f\u5730\u65b9\u6574\u5099\u5c40\u59eb\u8def\u6cb3\u5ddd\u56fd\u9053\u4e8b\u52d9\u6240","boring_xml_url":40,"boring_view_url":1,"soilmap_view_url":null,"soiltest_xml_url":0,"soiltest_view_url":0},{"id":176046,"code":"B4KJ201801006-4295","latitude":"34.82265","longitude":"134.6372514","source_code":"KK52341581012","project_name":"","survey_name":"\u5922\u524d\u5927\u6a4b\u571f\u8cea\u8abf\u67fb\u5de5\u4e8b","client_name":"\u56fd\u571f\u4ea4\u901a\u7701\u8fd1\u757f\u5730\u65b9\u6574\u5099\u5c40\u59eb\u8def\u6cb3\u5ddd\u56fd\u9053\u4e8b\u52d9\u6240","boring_xml_url":40,"boring_view_url":1,"soilmap_view_url":null,"soiltest_xml_url":0,"soiltest_view_url":0},{"id":176045,"code":"B4KJ201801006-4294","latitude":"34.82265","longitude":"134.6378069","source_code":"KK52341581011","project_name":"","survey_name":"\u5922\u524d\u5927\u6a4b\u571f\u8cea\u8abf\u67fb\u5de5\u4e8b","client_name":"\u56fd\u571f\u4ea4\u901a\u7701\u8fd1\u757f\u5730\u65b9\u6574\u5099\u5c40\u59eb\u8def\u6cb3\u5ddd\u56fd\u9053\u4e8b\u52d9\u6240","boring_xml_url":40,"boring_view_url":1,"soilmap_view_url":null,"soiltest_xml_url":0,"soiltest_view_url":0},{"id":176044,"code":"B4KJ201801006-4293","latitude":"34.8223722","longitude":"134.6380847","source_code":"KK52341581010","project_name":"","survey_name":"\u5922\u524d\u5927\u6a4b\u571f\u8cea\u8abf\u67fb\u5de5\u4e8b","client_name":"\u56fd\u571f\u4ea4\u901a\u7701\u8fd1\u757f\u5730\u65b9\u6574\u5099\u5c40\u59eb\u8def\u6cb3\u5ddd\u56fd\u9053\u4e8b\u52d9\u6240","boring_xml_url":40,"boring_view_url":1,"soilmap_view_url":null,"soiltest_xml_url":0,"soiltest_view_url":0},{"id":176043,"code":"B4KJ201801006-4292","latitude":"34.8220944","longitude":"134.6386403","source_code":"KK52341581009","project_name":"","survey_name":"\u5922\u524d\u5927\u6a4b\u571f\u8cea\u8abf\u67fb\u5de5\u4e8b","client_name":"\u56fd\u571f\u4ea4\u901a\u7701\u8fd1\u757f\u5730\u65b9\u6574\u5099\u5c40\u59eb\u8def\u6cb3\u5ddd\u56fd\u9053\u4e8b\u52d9\u6240","boring_xml_url":40,"boring_view_url":1,"soilmap_view_url":null,"soiltest_xml_url":0,"soiltest_view_url":0},{"id":176042,"code":"B4KJ201801006-4291","latitude":"34.8220944","longitude":"134.6389181","source_code":"KK52341581008","project_name":"","survey_name":"\u5922\u524d\u5927\u6a4b\u571f\u8cea\u8abf\u67fb\u5de5\u4e8b","client_name":"\u56fd\u571f\u4ea4\u901a\u7701\u8fd1\u757f\u5730\u65b9\u6574\u5099\u5c40\u59eb\u8def\u6cb3\u5ddd\u56fd\u9053\u4e8b\u52d9\u6240","boring_xml_url":40,"boring_view_url":1,"soilmap_view_url":null,"soiltest_xml_url":0,"soiltest_view_url":0},{"id":176041,"code":"B4KJ201801006-4290","latitude":"34.8215392","longitude":"134.6394736","source_code":"KK52341581007","project_name":"","survey_name":"\u5922\u524d\u5927\u6a4b\u571f\u8cea\u8abf\u67fb\u5de5\u4e8b","client_name":"\u56fd\u571f\u4ea4\u901a\u7701\u8fd1\u757f\u5730\u65b9\u6574\u5099\u5c40\u59eb\u8def\u6cb3\u5ddd\u56fd\u9053\u4e8b\u52d9\u6240","boring_xml_url":40,"boring_view_url":1,"soilmap_view_url":null,"soiltest_xml_url":0,"soiltest_view_url":0},{"id":176040,"code":"B4KJ201801006-4289","latitude":"34.82265","longitude":"134.6372514","source_code":"KK52341581006","project_name":"","survey_name":"\u5922\u524d\u5927\u6a4b\u571f\u8cea\u8abf\u67fb\u5de5\u4e8b","client_name":"\u56fd\u571f\u4ea4\u901a\u7701\u8fd1\u757f\u5730\u65b9\u6574\u5099\u5c40\u59eb\u8def\u6cb3\u5ddd\u56fd\u9053\u4e8b\u52d9\u6240","boring_xml_url":40,"boring_view_url":1,"soilmap_view_url":null,"soiltest_xml_url":0,"soiltest_view_url":0},{"id":176039,"code":"B4KJ201801006-4288","latitude":"34.8220944","longitude":"134.6378069","source_code":"KK52341581005","project_name":"","survey_name":"\u5922\u524d\u5927\u6a4b\u571f\u8cea\u8abf\u67fb\u5de5\u4e8b","client_name":"\u56fd\u571f\u4ea4\u901a\u7701\u8fd1\u757f\u5730\u65b9\u6574\u5099\u5c40\u59eb\u8def\u6cb3\u5ddd\u56fd\u9053\u4e8b\u52d9\u6240","boring_xml_url":40,"boring_view_url":1,"soilmap_view_url":null,"soiltest_xml_url":0,"soiltest_view_url":0},{"id":176038,"code":"B4KJ201801006-4287","latitude":"34.8218167","longitude":"134.6380847","source_code":"KK52341581004","project_name":"","survey_name":"\u5922\u524d\u5927\u6a4b\u571f\u8cea\u8abf\u67fb\u5de5\u4e8b","client_name":"\u56fd\u571f\u4ea4\u901a\u7701\u8fd1\u757f\u5730\u65b9\u6574\u5099\u5c40\u59eb\u8def\u6cb3\u5ddd\u56fd\u9053\u4e8b\u52d9\u6240","boring_xml_url":40,"boring_view_url":1,"soilmap_view_url":null,"soiltest_xml_url":0,"soiltest_view_url":0},{"id":176037,"code":"B4KJ201801006-4286","latitude":"34.8215389","longitude":"134.6386403","source_code":"KK52341581003","project_name":"","survey_name":"\u5922\u524d\u5927\u6a4b\u571f\u8cea\u8abf\u67fb\u5de5\u4e8b","client_name":"\u56fd\u571f\u4ea4\u901a\u7701\u8fd1\u757f\u5730\u65b9\u6574\u5099\u5c40\u59eb\u8def\u6cb3\u5ddd\u56fd\u9053\u4e8b\u52d9\u6240","boring_xml_url":40,"boring_view_url":1,"soilmap_view_url":null,"soiltest_xml_url":0,"soiltest_view_url":0},{"id":176036,"code":"B4KJ201801006-4285","latitude":"34.8215389","longitude":"134.6389181","source_code":"KK52341581002","project_name":"","survey_name":"\u5922\u524d\u5927\u6a4b\u571f\u8cea\u8abf\u67fb\u5de5\u4e8b","client_name":"\u56fd\u571f\u4ea4\u901a\u7701\u8fd1\u757f\u5730\u65b9\u6574\u5099\u5c40\u59eb\u8def\u6cb3\u5ddd\u56fd\u9053\u4e8b\u52d9\u6240","boring_xml_url":40,"boring_view_url":1,"soilmap_view_url":null,"soiltest_xml_url":0,"soiltest_view_url":0}]}}