{"header":{"xyz":{"source":[],"mosaic":false},"page":4825,"raw":{"soiltest_result":"0","bbox":"57.598333,109.544722,1.933333,163.806111","page":"4825"},"conditions":{"soiltest_result":0,"north":57.598333,"west":109.544722,"south":1.933333,"east":163.806111},"success":true,"message":""},"data":{"meta":{"total":212844,"page":4825,"pages":7095,"count":30},"values":[{"id":175825,"code":"B4KJ201801006-4074","latitude":"34.590795","longitude":"136.1733744","source_code":"KK51367104002","project_name":"","survey_name":"\u5830\u5824\u65bd\u5de5\u8a08\u753b\u7b87\u6240\u5730\u8cea\u8abf\u67fb\u4f5c\u696d","client_name":"\u56fd\u571f\u4ea4\u901a\u7701\u8fd1\u757f\u5730\u65b9\u6574\u5099\u5c40\u6728\u6d25\u5ddd\u4e0a\u6d41\u6cb3\u5ddd\u4e8b\u52d9\u6240","boring_xml_url":40,"boring_view_url":1,"soilmap_view_url":null,"soiltest_xml_url":0,"soiltest_view_url":0},{"id":175824,"code":"B4KJ201801006-4073","latitude":"34.590795","longitude":"136.1733744","source_code":"KK51367104001","project_name":"","survey_name":"\u5830\u5824\u65bd\u5de5\u8a08\u753b\u7b87\u6240\u5730\u8cea\u8abf\u67fb\u4f5c\u696d","client_name":"\u56fd\u571f\u4ea4\u901a\u7701\u8fd1\u757f\u5730\u65b9\u6574\u5099\u5c40\u6728\u6d25\u5ddd\u4e0a\u6d41\u6cb3\u5ddd\u4e8b\u52d9\u6240","boring_xml_url":40,"boring_view_url":1,"soilmap_view_url":null,"soiltest_xml_url":0,"soiltest_view_url":0},{"id":175823,"code":"B4KJ201801006-4072","latitude":"34.669533","longitude":"136.033106","source_code":"KK51367092004","project_name":"","survey_name":"\u540d\u962a\u56fd\u9053\u5c71\u6dfb\u5730\u533a\u571f\u8cea\u8abf\u67fb\u4f5c\u696d","client_name":"\u56fd\u571f\u4ea4\u901a\u7701\u8fd1\u757f\u5730\u65b9\u6574\u5099\u5c40\u5948\u826f\u56fd\u9053\u4e8b\u52d9\u6240","boring_xml_url":40,"boring_view_url":1,"soilmap_view_url":null,"soiltest_xml_url":0,"soiltest_view_url":0},{"id":175822,"code":"B4KJ201801006-4071","latitude":"34.669089","longitude":"136.033106","source_code":"KK51367092003","project_name":"","survey_name":"\u540d\u962a\u56fd\u9053\u5c71\u6dfb\u5730\u533a\u571f\u8cea\u8abf\u67fb\u4f5c\u696d","client_name":"\u56fd\u571f\u4ea4\u901a\u7701\u8fd1\u757f\u5730\u65b9\u6574\u5099\u5c40\u5948\u826f\u56fd\u9053\u4e8b\u52d9\u6240","boring_xml_url":40,"boring_view_url":1,"soilmap_view_url":null,"soiltest_xml_url":0,"soiltest_view_url":0},{"id":175821,"code":"B4KJ201801006-4070","latitude":"34.6690886","longitude":"136.0328561","source_code":"KK51367092002","project_name":"","survey_name":"\u540d\u962a\u56fd\u9053\u5c71\u6dfb\u5730\u533a\u571f\u8cea\u8abf\u67fb\u4f5c\u696d","client_name":"\u56fd\u571f\u4ea4\u901a\u7701\u8fd1\u757f\u5730\u65b9\u6574\u5099\u5c40\u5948\u826f\u56fd\u9053\u4e8b\u52d9\u6240","boring_xml_url":40,"boring_view_url":1,"soilmap_view_url":null,"soiltest_xml_url":0,"soiltest_view_url":0},{"id":175820,"code":"B4KJ201801006-4069","latitude":"34.6684775","longitude":"136.0328283","source_code":"KK51367092001","project_name":"","survey_name":"\u540d\u962a\u56fd\u9053\u5c71\u6dfb\u5730\u533a\u571f\u8cea\u8abf\u67fb\u4f5c\u696d","client_name":"\u56fd\u571f\u4ea4\u901a\u7701\u8fd1\u757f\u5730\u65b9\u6574\u5099\u5c40\u5948\u826f\u56fd\u9053\u4e8b\u52d9\u6240","boring_xml_url":40,"boring_view_url":1,"soilmap_view_url":null,"soiltest_xml_url":0,"soiltest_view_url":0},{"id":175819,"code":"B4KJ201801006-4068","latitude":"34.6474239","longitude":"136.0135253","source_code":"KK51367071004","project_name":"","survey_name":"25\u53f7\u540d\u962a\u9632\u707d\u8a2d\u8a08\u696d\u52d9","client_name":"\u56fd\u571f\u4ea4\u901a\u7701\u8fd1\u757f\u5730\u65b9\u6574\u5099\u5c40\u5948\u826f\u56fd\u9053\u4e8b\u52d9\u6240","boring_xml_url":40,"boring_view_url":1,"soilmap_view_url":null,"soiltest_xml_url":0,"soiltest_view_url":0},{"id":175818,"code":"B4KJ201801006-4067","latitude":"34.6474239","longitude":"136.0135253","source_code":"KK51367071003","project_name":"","survey_name":"25\u53f7\u540d\u962a\u9632\u707d\u8a2d\u8a08\u696d\u52d9","client_name":"\u56fd\u571f\u4ea4\u901a\u7701\u8fd1\u757f\u5730\u65b9\u6574\u5099\u5c40\u5948\u826f\u56fd\u9053\u4e8b\u52d9\u6240","boring_xml_url":40,"boring_view_url":1,"soilmap_view_url":null,"soiltest_xml_url":0,"soiltest_view_url":0},{"id":175817,"code":"B4KJ201801006-4066","latitude":"34.6410078","longitude":"136.0076928","source_code":"KK51367060001","project_name":"","survey_name":"\u540d\u962a\u9053\u8def\u906e\u97f3\u58c1\u8a73\u7d30\u8a2d\u8a08\u571f\u8cea\u8abf\u67fb","client_name":"\u56fd\u571f\u4ea4\u901a\u7701\u8fd1\u757f\u5730\u65b9\u6574\u5099\u5c40\u5948\u826f\u56fd\u9053\u4e8b\u52d9\u6240","boring_xml_url":40,"boring_view_url":1,"soilmap_view_url":null,"soiltest_xml_url":0,"soiltest_view_url":0},{"id":175816,"code":"B4KJ201801006-4065","latitude":"34.6290947","longitude":"136.1096286","source_code":"KK51367058003","project_name":"","survey_name":"\u56fd\u6709\u8ca1\u7523 \u65b0\u55b6\u5bbf\u820e\u5730\u8cea\u8abf\u67fb\u696d\u52d9","client_name":"\u56fd\u571f\u4ea4\u901a\u7701\u8fd1\u757f\u5730\u65b9\u6574\u5099\u5c40\u6728\u6d25\u5ddd\u4e0a\u6d41\u6cb3\u5ddd\u4e8b\u52d9\u6240","boring_xml_url":40,"boring_view_url":1,"soilmap_view_url":null,"soiltest_xml_url":0,"soiltest_view_url":0},{"id":175815,"code":"B4KJ201801006-4064","latitude":"34.6290947","longitude":"136.1093508","source_code":"KK51367058002","project_name":"","survey_name":"\u56fd\u6709\u8ca1\u7523 \u65b0\u55b6\u5bbf\u820e\u5730\u8cea\u8abf\u67fb\u696d\u52d9","client_name":"\u56fd\u571f\u4ea4\u901a\u7701\u8fd1\u757f\u5730\u65b9\u6574\u5099\u5c40\u6728\u6d25\u5ddd\u4e0a\u6d41\u6cb3\u5ddd\u4e8b\u52d9\u6240","boring_xml_url":40,"boring_view_url":1,"soilmap_view_url":null,"soiltest_xml_url":0,"soiltest_view_url":0},{"id":175814,"code":"B4KJ201801006-4063","latitude":"34.6288172","longitude":"136.1090731","source_code":"KK51367058001","project_name":"","survey_name":"\u56fd\u6709\u8ca1\u7523 \u65b0\u55b6\u5bbf\u820e\u5730\u8cea\u8abf\u67fb\u696d\u52d9","client_name":"\u56fd\u571f\u4ea4\u901a\u7701\u8fd1\u757f\u5730\u65b9\u6574\u5099\u5c40\u6728\u6d25\u5ddd\u4e0a\u6d41\u6cb3\u5ddd\u4e8b\u52d9\u6240","boring_xml_url":40,"boring_view_url":1,"soilmap_view_url":null,"soiltest_xml_url":0,"soiltest_view_url":0},{"id":175813,"code":"B4KJ201801006-4062","latitude":"34.6361758","longitude":"136.0439397","source_code":"KK51367053005","project_name":"","survey_name":"\u6bdb\u539f\u8c37\u5830\u5824\u5b9f\u65bd\u8a08\u753b\u6e2c\u91cf\u53ca\u3073\u8a2d\u8a08\u696d\u52d9","client_name":"\u56fd\u571f\u4ea4\u901a\u7701\u8fd1\u757f\u5730\u65b9\u6574\u5099\u5c40\u6728\u6d25\u5ddd\u4e0a\u6d41\u6cb3\u5ddd\u4e8b\u52d9\u6240","boring_xml_url":40,"boring_view_url":1,"soilmap_view_url":null,"soiltest_xml_url":0,"soiltest_view_url":0},{"id":175812,"code":"B4KJ201801006-4061","latitude":"34.6361758","longitude":"136.0439397","source_code":"KK51367053004","project_name":"","survey_name":"\u6bdb\u539f\u8c37\u5830\u5824\u5b9f\u65bd\u8a08\u753b\u6e2c\u91cf\u53ca\u3073\u8a2d\u8a08\u696d\u52d9","client_name":"\u56fd\u571f\u4ea4\u901a\u7701\u8fd1\u757f\u5730\u65b9\u6574\u5099\u5c40\u6728\u6d25\u5ddd\u4e0a\u6d41\u6cb3\u5ddd\u4e8b\u52d9\u6240","boring_xml_url":40,"boring_view_url":1,"soilmap_view_url":null,"soiltest_xml_url":0,"soiltest_view_url":0},{"id":175811,"code":"B4KJ201801006-4060","latitude":"34.6361758","longitude":"136.0439397","source_code":"KK51367053003","project_name":"","survey_name":"\u6bdb\u539f\u8c37\u5830\u5824\u5b9f\u65bd\u8a08\u753b\u6e2c\u91cf\u53ca\u3073\u8a2d\u8a08\u696d\u52d9","client_name":"\u56fd\u571f\u4ea4\u901a\u7701\u8fd1\u757f\u5730\u65b9\u6574\u5099\u5c40\u6728\u6d25\u5ddd\u4e0a\u6d41\u6cb3\u5ddd\u4e8b\u52d9\u6240","boring_xml_url":40,"boring_view_url":1,"soilmap_view_url":null,"soiltest_xml_url":0,"soiltest_view_url":0},{"id":175810,"code":"B4KJ201801006-4059","latitude":"34.6361758","longitude":"136.0439397","source_code":"KK51367053002","project_name":"","survey_name":"\u6bdb\u539f\u8c37\u5830\u5824\u5b9f\u65bd\u8a08\u753b\u6e2c\u91cf\u53ca\u3073\u8a2d\u8a08\u696d\u52d9","client_name":"\u56fd\u571f\u4ea4\u901a\u7701\u8fd1\u757f\u5730\u65b9\u6574\u5099\u5c40\u6728\u6d25\u5ddd\u4e0a\u6d41\u6cb3\u5ddd\u4e8b\u52d9\u6240","boring_xml_url":40,"boring_view_url":1,"soilmap_view_url":null,"soiltest_xml_url":0,"soiltest_view_url":0},{"id":175809,"code":"B4KJ201801006-4058","latitude":"34.6357036","longitude":"136.0408567","source_code":"KK51367053001","project_name":"","survey_name":"\u6bdb\u539f\u6d41\u8def\u5de5\u5b9f\u65bd\u8a08\u753b\u6e2c\u91cf\u53ca\u3073\u8a2d\u8a08\u696d\u52d9","client_name":"\u56fd\u571f\u4ea4\u901a\u7701\u8fd1\u757f\u5730\u65b9\u6574\u5099\u5c40\u6728\u6d25\u5ddd\u4e0a\u6d41\u6cb3\u5ddd\u4e8b\u52d9\u6240","boring_xml_url":40,"boring_view_url":1,"soilmap_view_url":null,"soiltest_xml_url":0,"soiltest_view_url":0},{"id":175808,"code":"B4KJ201801006-4057","latitude":"34.624095","longitude":"136.0908806","source_code":"KK51367047004","project_name":"","survey_name":"\u570b\u6709\u8ca1\u7523\u8077\u54e1\u5bbf\u820e\u65b0\u7bc9\u8abf\u67fb\u59d4\u8a17","client_name":"\u56fd\u571f\u4ea4\u901a\u7701\u8fd1\u757f\u5730\u65b9\u6574\u5099\u5c40\u6728\u6d25\u5ddd\u4e0a\u6d41\u6cb3\u5ddd\u4e8b\u52d9\u6240","boring_xml_url":40,"boring_view_url":1,"soilmap_view_url":null,"soiltest_xml_url":0,"soiltest_view_url":0},{"id":175807,"code":"B4KJ201801006-4056","latitude":"34.624095","longitude":"136.0908806","source_code":"KK51367047003","project_name":"","survey_name":"\u570b\u6709\u8ca1\u7523\u8077\u54e1\u5bbf\u820e\u65b0\u7bc9\u8abf\u67fb\u59d4\u8a17","client_name":"\u56fd\u571f\u4ea4\u901a\u7701\u8fd1\u757f\u5730\u65b9\u6574\u5099\u5c40\u6728\u6d25\u5ddd\u4e0a\u6d41\u6cb3\u5ddd\u4e8b\u52d9\u6240","boring_xml_url":40,"boring_view_url":1,"soilmap_view_url":null,"soiltest_xml_url":0,"soiltest_view_url":0},{"id":175806,"code":"B4KJ201801006-4055","latitude":"34.6199286","longitude":"136.0893531","source_code":"KK51367047002","project_name":"","survey_name":"\u570b\u6709\u8ca1\u7523\u8077\u54e1\u5bbf\u820e\u65b0\u7bc9\u8abf\u67fb\u59d4\u8a17","client_name":"\u56fd\u571f\u4ea4\u901a\u7701\u8fd1\u757f\u5730\u65b9\u6574\u5099\u5c40\u6728\u6d25\u5ddd\u4e0a\u6d41\u6cb3\u5ddd\u4e8b\u52d9\u6240","boring_xml_url":40,"boring_view_url":1,"soilmap_view_url":null,"soiltest_xml_url":0,"soiltest_view_url":0},{"id":175805,"code":"B4KJ201801006-4054","latitude":"34.6199286","longitude":"136.0893531","source_code":"KK51367047001","project_name":"","survey_name":"\u570b\u6709\u8ca1\u7523\u8077\u54e1\u5bbf\u820e\u65b0\u7bc9\u8abf\u67fb\u59d4\u8a17","client_name":"\u56fd\u571f\u4ea4\u901a\u7701\u8fd1\u757f\u5730\u65b9\u6574\u5099\u5c40\u6728\u6d25\u5ddd\u4e0a\u6d41\u6cb3\u5ddd\u4e8b\u52d9\u6240","boring_xml_url":40,"boring_view_url":1,"soilmap_view_url":null,"soiltest_xml_url":0,"soiltest_view_url":0},{"id":175804,"code":"B4KJ201801006-4053","latitude":"34.6182625","longitude":"136.0990744","source_code":"KK51367038004","project_name":"","survey_name":"\u574a\u57a3\u6a4b\u6539\u7bc9\u571f\u8cea\u8abf\u67fb\u4f5c\u696d","client_name":"\u56fd\u571f\u4ea4\u901a\u7701\u8fd1\u757f\u5730\u65b9\u6574\u5099\u5c40\u6728\u6d25\u5ddd\u4e0a\u6d41\u6cb3\u5ddd\u4e8b\u52d9\u6240","boring_xml_url":40,"boring_view_url":1,"soilmap_view_url":null,"soiltest_xml_url":0,"soiltest_view_url":0},{"id":175803,"code":"B4KJ201801006-4052","latitude":"34.6185403","longitude":"136.0987967","source_code":"KK51367038003","project_name":"","survey_name":"\u574a\u57a3\u6a4b\u6539\u7bc9\u571f\u8cea\u8abf\u67fb\u4f5c\u696d","client_name":"\u56fd\u571f\u4ea4\u901a\u7701\u8fd1\u757f\u5730\u65b9\u6574\u5099\u5c40\u6728\u6d25\u5ddd\u4e0a\u6d41\u6cb3\u5ddd\u4e8b\u52d9\u6240","boring_xml_url":40,"boring_view_url":1,"soilmap_view_url":null,"soiltest_xml_url":0,"soiltest_view_url":0},{"id":175802,"code":"B4KJ201801006-4051","latitude":"34.6179847","longitude":"136.0993522","source_code":"KK51367038002","project_name":"","survey_name":"\u574a\u57a3\u6a4b\u6539\u7bc9\u571f\u8cea\u8abf\u67fb\u4f5c\u696d","client_name":"\u56fd\u571f\u4ea4\u901a\u7701\u8fd1\u757f\u5730\u65b9\u6574\u5099\u5c40\u6728\u6d25\u5ddd\u4e0a\u6d41\u6cb3\u5ddd\u4e8b\u52d9\u6240","boring_xml_url":40,"boring_view_url":1,"soilmap_view_url":null,"soiltest_xml_url":0,"soiltest_view_url":0},{"id":175801,"code":"B4KJ201801006-4050","latitude":"34.6174292","longitude":"136.09963","source_code":"KK51367038001","project_name":"","survey_name":"\u574a\u57a3\u6a4b\u6539\u7bc9\u571f\u8cea\u8abf\u67fb\u4f5c\u696d","client_name":"\u56fd\u571f\u4ea4\u901a\u7701\u8fd1\u757f\u5730\u65b9\u6574\u5099\u5c40\u6728\u6d25\u5ddd\u4e0a\u6d41\u6cb3\u5ddd\u4e8b\u52d9\u6240","boring_xml_url":40,"boring_view_url":1,"soilmap_view_url":null,"soiltest_xml_url":0,"soiltest_view_url":0},{"id":175800,"code":"B4KJ201801006-4049","latitude":"34.6184011","longitude":"136.0904917","source_code":"KK51367037013","project_name":"","survey_name":"\u540d\u5f35\u5ddd\u571f\u8cea\u8abf\u67fb\u4f5c\u696d","client_name":"\u56fd\u571f\u4ea4\u901a\u7701\u8fd1\u757f\u5730\u65b9\u6574\u5099\u5c40\u6728\u6d25\u5ddd\u4e0a\u6d41\u6cb3\u5ddd\u4e8b\u52d9\u6240","boring_xml_url":40,"boring_view_url":1,"soilmap_view_url":null,"soiltest_xml_url":0,"soiltest_view_url":0},{"id":175799,"code":"B4KJ201801006-4048","latitude":"34.6181511","longitude":"136.0904917","source_code":"KK51367037012","project_name":"","survey_name":"\u540d\u5f35\u5ddd\u571f\u8cea\u8abf\u67fb\u4f5c\u696d","client_name":"\u56fd\u571f\u4ea4\u901a\u7701\u8fd1\u757f\u5730\u65b9\u6574\u5099\u5c40\u6728\u6d25\u5ddd\u4e0a\u6d41\u6cb3\u5ddd\u4e8b\u52d9\u6240","boring_xml_url":40,"boring_view_url":1,"soilmap_view_url":null,"soiltest_xml_url":0,"soiltest_view_url":0},{"id":175798,"code":"B4KJ201801006-4047","latitude":"34.6179289","longitude":"136.0904917","source_code":"KK51367037011","project_name":"","survey_name":"\u540d\u5f35\u5ddd\u571f\u8cea\u8abf\u67fb\u4f5c\u696d","client_name":"\u56fd\u571f\u4ea4\u901a\u7701\u8fd1\u757f\u5730\u65b9\u6574\u5099\u5c40\u6728\u6d25\u5ddd\u4e0a\u6d41\u6cb3\u5ddd\u4e8b\u52d9\u6240","boring_xml_url":40,"boring_view_url":1,"soilmap_view_url":null,"soiltest_xml_url":0,"soiltest_view_url":0},{"id":175797,"code":"B4KJ201801006-4046","latitude":"34.6157625","longitude":"136.0908808","source_code":"KK51367037010","project_name":"","survey_name":"\u540d\u5f35\u5ddd\u571f\u8cea\u8abf\u67fb\u4f5c\u696d","client_name":"\u56fd\u571f\u4ea4\u901a\u7701\u8fd1\u757f\u5730\u65b9\u6574\u5099\u5c40\u6728\u6d25\u5ddd\u4e0a\u6d41\u6cb3\u5ddd\u4e8b\u52d9\u6240","boring_xml_url":40,"boring_view_url":1,"soilmap_view_url":null,"soiltest_xml_url":0,"soiltest_view_url":0},{"id":175796,"code":"B4KJ201801006-4045","latitude":"34.6157625","longitude":"136.0908808","source_code":"KK51367037009","project_name":"","survey_name":"\u540d\u5f35\u5ddd\u571f\u8cea\u8abf\u67fb\u4f5c\u696d","client_name":"\u56fd\u571f\u4ea4\u901a\u7701\u8fd1\u757f\u5730\u65b9\u6574\u5099\u5c40\u6728\u6d25\u5ddd\u4e0a\u6d41\u6cb3\u5ddd\u4e8b\u52d9\u6240","boring_xml_url":40,"boring_view_url":1,"soilmap_view_url":null,"soiltest_xml_url":0,"soiltest_view_url":0}]}}