{"header":{"xyz":{"source":[],"mosaic":false},"page":4826,"raw":{"soiltest_result":"0","bbox":"57.598333,109.544722,1.933333,163.806111","page":"4826"},"conditions":{"soiltest_result":0,"north":57.598333,"west":109.544722,"south":1.933333,"east":163.806111},"success":true,"message":""},"data":{"meta":{"total":212844,"page":4826,"pages":7095,"count":30},"values":[{"id":175795,"code":"B4KJ201801006-4044","latitude":"34.6157625","longitude":"136.0908808","source_code":"KK51367037008","project_name":"","survey_name":"\u540d\u5f35\u5ddd\u571f\u8cea\u8abf\u67fb\u4f5c\u696d","client_name":"\u56fd\u571f\u4ea4\u901a\u7701\u8fd1\u757f\u5730\u65b9\u6574\u5099\u5c40\u6728\u6d25\u5ddd\u4e0a\u6d41\u6cb3\u5ddd\u4e8b\u52d9\u6240","boring_xml_url":40,"boring_view_url":1,"soilmap_view_url":null,"soiltest_xml_url":0,"soiltest_view_url":0},{"id":175794,"code":"B4KJ201801006-4043","latitude":"34.6174847","longitude":"136.0900197","source_code":"KK51367037007","project_name":"","survey_name":"\u540d\u5f35\u5ddd\u571f\u8cea\u8abf\u67fb\u4f5c\u696d","client_name":"\u56fd\u571f\u4ea4\u901a\u7701\u8fd1\u757f\u5730\u65b9\u6574\u5099\u5c40\u6728\u6d25\u5ddd\u4e0a\u6d41\u6cb3\u5ddd\u4e8b\u52d9\u6240","boring_xml_url":40,"boring_view_url":1,"soilmap_view_url":null,"soiltest_xml_url":0,"soiltest_view_url":0},{"id":175793,"code":"B4KJ201801006-4042","latitude":"34.6157625","longitude":"136.0908808","source_code":"KK51367037006","project_name":"","survey_name":"\u540d\u5f35\u5ddd\u571f\u8cea\u8abf\u67fb\u4f5c\u696d","client_name":"\u56fd\u571f\u4ea4\u901a\u7701\u8fd1\u757f\u5730\u65b9\u6574\u5099\u5c40\u6728\u6d25\u5ddd\u4e0a\u6d41\u6cb3\u5ddd\u4e8b\u52d9\u6240","boring_xml_url":40,"boring_view_url":1,"soilmap_view_url":null,"soiltest_xml_url":0,"soiltest_view_url":0},{"id":175792,"code":"B4KJ201801006-4041","latitude":"34.6174844","longitude":"136.0849644","source_code":"KK51367037005","project_name":"","survey_name":"\u540d\u5f35\u5ddd\u571f\u8cea\u8abf\u67fb\u4f5c\u696d","client_name":"\u56fd\u571f\u4ea4\u901a\u7701\u8fd1\u757f\u5730\u65b9\u6574\u5099\u5c40\u6728\u6d25\u5ddd\u4e0a\u6d41\u6cb3\u5ddd\u4e8b\u52d9\u6240","boring_xml_url":40,"boring_view_url":1,"soilmap_view_url":null,"soiltest_xml_url":0,"soiltest_view_url":0},{"id":175791,"code":"B4KJ201801006-4040","latitude":"34.6157625","longitude":"136.0908808","source_code":"KK51367037004","project_name":"","survey_name":"\u540d\u5f35\u5ddd\u571f\u8cea\u8abf\u67fb\u4f5c\u696d","client_name":"\u56fd\u571f\u4ea4\u901a\u7701\u8fd1\u757f\u5730\u65b9\u6574\u5099\u5c40\u6728\u6d25\u5ddd\u4e0a\u6d41\u6cb3\u5ddd\u4e8b\u52d9\u6240","boring_xml_url":40,"boring_view_url":1,"soilmap_view_url":null,"soiltest_xml_url":0,"soiltest_view_url":0},{"id":175790,"code":"B4KJ201801006-4039","latitude":"34.6157625","longitude":"136.0908808","source_code":"KK51367037003","project_name":"","survey_name":"\u540d\u5f35\u5ddd\u571f\u8cea\u8abf\u67fb\u4f5c\u696d","client_name":"\u56fd\u571f\u4ea4\u901a\u7701\u8fd1\u757f\u5730\u65b9\u6574\u5099\u5c40\u6728\u6d25\u5ddd\u4e0a\u6d41\u6cb3\u5ddd\u4e8b\u52d9\u6240","boring_xml_url":40,"boring_view_url":1,"soilmap_view_url":null,"soiltest_xml_url":0,"soiltest_view_url":0},{"id":175789,"code":"B4KJ201801006-4038","latitude":"34.6157625","longitude":"136.0908808","source_code":"KK51367037002","project_name":"","survey_name":"\u540d\u5f35\u5ddd\u571f\u8cea\u8abf\u67fb\u4f5c\u696d","client_name":"\u56fd\u571f\u4ea4\u901a\u7701\u8fd1\u757f\u5730\u65b9\u6574\u5099\u5c40\u6728\u6d25\u5ddd\u4e0a\u6d41\u6cb3\u5ddd\u4e8b\u52d9\u6240","boring_xml_url":40,"boring_view_url":1,"soilmap_view_url":null,"soiltest_xml_url":0,"soiltest_view_url":0},{"id":175788,"code":"B4KJ201801006-4037","latitude":"34.6157625","longitude":"136.0908808","source_code":"KK51367037001","project_name":"","survey_name":"\u540d\u5f35\u5ddd\u571f\u8cea\u8abf\u67fb\u4f5c\u696d","client_name":"\u56fd\u571f\u4ea4\u901a\u7701\u8fd1\u757f\u5730\u65b9\u6574\u5099\u5c40\u6728\u6d25\u5ddd\u4e0a\u6d41\u6cb3\u5ddd\u4e8b\u52d9\u6240","boring_xml_url":40,"boring_view_url":1,"soilmap_view_url":null,"soiltest_xml_url":0,"soiltest_view_url":0},{"id":175787,"code":"B4KJ201801006-4036","latitude":"34.6157622","longitude":"136.0783817","source_code":"KK51367036006","project_name":"","survey_name":"\u540d\u5f35\u5ddd\u571f\u8cea\u8abf\u67fb\u4f5c\u696d","client_name":"\u56fd\u571f\u4ea4\u901a\u7701\u8fd1\u757f\u5730\u65b9\u6574\u5099\u5c40\u6728\u6d25\u5ddd\u4e0a\u6d41\u6cb3\u5ddd\u4e8b\u52d9\u6240","boring_xml_url":40,"boring_view_url":1,"soilmap_view_url":null,"soiltest_xml_url":0,"soiltest_view_url":0},{"id":175786,"code":"B4KJ201801006-4035","latitude":"34.61779","longitude":"136.0844922","source_code":"KK51367036004","project_name":"","survey_name":"\u540d\u5f35\u5ddd\u571f\u8cea\u8abf\u67fb\u4f5c\u696d","client_name":"\u56fd\u571f\u4ea4\u901a\u7701\u8fd1\u757f\u5730\u65b9\u6574\u5099\u5c40\u6728\u6d25\u5ddd\u4e0a\u6d41\u6cb3\u5ddd\u4e8b\u52d9\u6240","boring_xml_url":40,"boring_view_url":1,"soilmap_view_url":null,"soiltest_xml_url":0,"soiltest_view_url":0},{"id":175785,"code":"B4KJ201801006-4034","latitude":"34.6157622","longitude":"136.0783817","source_code":"KK51367036002","project_name":"","survey_name":"\u540d\u5f35\u5ddd\u571f\u8cea\u8abf\u67fb\u4f5c\u696d","client_name":"\u56fd\u571f\u4ea4\u901a\u7701\u8fd1\u757f\u5730\u65b9\u6574\u5099\u5c40\u6728\u6d25\u5ddd\u4e0a\u6d41\u6cb3\u5ddd\u4e8b\u52d9\u6240","boring_xml_url":40,"boring_view_url":1,"soilmap_view_url":null,"soiltest_xml_url":0,"soiltest_view_url":0},{"id":175784,"code":"B4KJ201801006-4033","latitude":"34.6165678","longitude":"136.0834925","source_code":"KK51367036001","project_name":"","survey_name":"\u540d\u5f35\u5ddd\u571f\u8cea\u8abf\u67fb\u4f5c\u696d","client_name":"\u56fd\u571f\u4ea4\u901a\u7701\u8fd1\u757f\u5730\u65b9\u6574\u5099\u5c40\u6728\u6d25\u5ddd\u4e0a\u6d41\u6cb3\u5ddd\u4e8b\u52d9\u6240","boring_xml_url":40,"boring_view_url":1,"soilmap_view_url":null,"soiltest_xml_url":0,"soiltest_view_url":0},{"id":175783,"code":"B4KJ201801006-4032","latitude":"34.6044853","longitude":"136.0600228","source_code":"KK51367025008","project_name":"","survey_name":"\u5742\u30ce\u4e0b\u5730\u533a\u6a39\u6797\u5e2f\u8a73\u7d30\u8a2d\u8a08\u696d\u52d9","client_name":"\u56fd\u571f\u4ea4\u901a\u7701\u8fd1\u757f\u5730\u65b9\u6574\u5099\u5c40\u6728\u6d25\u5ddd\u4e0a\u6d41\u6cb3\u5ddd\u4e8b\u52d9\u6240","boring_xml_url":40,"boring_view_url":1,"soilmap_view_url":null,"soiltest_xml_url":0,"soiltest_view_url":0},{"id":175782,"code":"B4KJ201801006-4031","latitude":"34.6046242","longitude":"136.0596894","source_code":"KK51367025007","project_name":"","survey_name":"\u5742\u30ce\u4e0b\u5730\u533a\u6a39\u6797\u5e2f\u8a73\u7d30\u8a2d\u8a08\u696d\u52d9","client_name":"\u56fd\u571f\u4ea4\u901a\u7701\u8fd1\u757f\u5730\u65b9\u6574\u5099\u5c40\u6728\u6d25\u5ddd\u4e0a\u6d41\u6cb3\u5ddd\u4e8b\u52d9\u6240","boring_xml_url":40,"boring_view_url":1,"soilmap_view_url":null,"soiltest_xml_url":0,"soiltest_view_url":0},{"id":175781,"code":"B4KJ201801006-4030","latitude":"34.6074297","longitude":"136.0658831","source_code":"KK51367025002","project_name":"","survey_name":"\u662d\u548c58\u5e74\u5ea6\u5830\u5824\u65bd\u5de5\u8a08\u753b\u7b87\u6240\u5730\u8cea\u8abf\u67fb\u4f5c\u696d(\u305d\u306e2)","client_name":"\u56fd\u571f\u4ea4\u901a\u7701\u8fd1\u757f\u5730\u65b9\u6574\u5099\u5c40\u6728\u6d25\u5ddd\u4e0a\u6d41\u6cb3\u5ddd\u4e8b\u52d9\u6240","boring_xml_url":40,"boring_view_url":1,"soilmap_view_url":null,"soiltest_xml_url":0,"soiltest_view_url":0},{"id":175780,"code":"B4KJ201801006-4029","latitude":"34.6074297","longitude":"136.0658831","source_code":"KK51367025001","project_name":"","survey_name":"\u662d\u548c58\u5e74\u5ea6\u5830\u5824\u65bd\u5de5\u8a08\u753b\u7b87\u6240\u5730\u8cea\u8abf\u67fb\u4f5c\u696d(\u305d\u306e2)","client_name":"\u56fd\u571f\u4ea4\u901a\u7701\u8fd1\u757f\u5730\u65b9\u6574\u5099\u5c40\u6728\u6d25\u5ddd\u4e0a\u6d41\u6cb3\u5ddd\u4e8b\u52d9\u6240","boring_xml_url":40,"boring_view_url":1,"soilmap_view_url":null,"soiltest_xml_url":0,"soiltest_view_url":0},{"id":175779,"code":"B4KJ201801006-4028","latitude":"34.6048186","longitude":"136.0590783","source_code":"KK51367024007","project_name":"","survey_name":"\u5742\u30ce\u4e0b\u5730\u533a\u6a39\u6797\u5e2f\u8a73\u7d30\u8a2d\u8a08\u696d\u52d9","client_name":"\u56fd\u571f\u4ea4\u901a\u7701\u8fd1\u757f\u5730\u65b9\u6574\u5099\u5c40\u6728\u6d25\u5ddd\u4e0a\u6d41\u6cb3\u5ddd\u4e8b\u52d9\u6240","boring_xml_url":40,"boring_view_url":1,"soilmap_view_url":null,"soiltest_xml_url":0,"soiltest_view_url":0},{"id":175778,"code":"B4KJ201801006-4027","latitude":"34.6059019","longitude":"136.0584117","source_code":"KK51367024004","project_name":"","survey_name":"\u5742\u30ce\u4e0b\u5830\u5824\u6e2c\u91cf\u53ca\u3073\u8a2d\u8a08\u696d\u52d9","client_name":"\u56fd\u571f\u4ea4\u901a\u7701\u8fd1\u757f\u5730\u65b9\u6574\u5099\u5c40\u6728\u6d25\u5ddd\u4e0a\u6d41\u6cb3\u5ddd\u4e8b\u52d9\u6240","boring_xml_url":40,"boring_view_url":1,"soilmap_view_url":null,"soiltest_xml_url":0,"soiltest_view_url":0},{"id":175777,"code":"B4KJ201801006-4026","latitude":"34.6061517","longitude":"136.0582728","source_code":"KK51367024003","project_name":"","survey_name":"\u5742\u30ce\u4e0b\u5830\u5824\u6e2c\u91cf\u53ca\u3073\u8a2d\u8a08\u696d\u52d9","client_name":"\u56fd\u571f\u4ea4\u901a\u7701\u8fd1\u757f\u5730\u65b9\u6574\u5099\u5c40\u6728\u6d25\u5ddd\u4e0a\u6d41\u6cb3\u5ddd\u4e8b\u52d9\u6240","boring_xml_url":40,"boring_view_url":1,"soilmap_view_url":null,"soiltest_xml_url":0,"soiltest_view_url":0},{"id":175776,"code":"B4KJ201801006-4025","latitude":"34.6059853","longitude":"136.0581894","source_code":"KK51367024002","project_name":"","survey_name":"\u5742\u30ce\u4e0b\u5830\u5824\u6e2c\u91cf\u53ca\u3073\u8a2d\u8a08\u696d\u52d9","client_name":"\u56fd\u571f\u4ea4\u901a\u7701\u8fd1\u757f\u5730\u65b9\u6574\u5099\u5c40\u6728\u6d25\u5ddd\u4e0a\u6d41\u6cb3\u5ddd\u4e8b\u52d9\u6240","boring_xml_url":40,"boring_view_url":1,"soilmap_view_url":null,"soiltest_xml_url":0,"soiltest_view_url":0},{"id":175775,"code":"B4KJ201801006-4024","latitude":"34.6056519","longitude":"136.0580783","source_code":"KK51367024001","project_name":"","survey_name":"\u5742\u30ce\u4e0b\u5830\u5824\u6e2c\u91cf\u53ca\u3073\u8a2d\u8a08\u696d\u52d9","client_name":"\u56fd\u571f\u4ea4\u901a\u7701\u8fd1\u757f\u5730\u65b9\u6574\u5099\u5c40\u6728\u6d25\u5ddd\u4e0a\u6d41\u6cb3\u5ddd\u4e8b\u52d9\u6240","boring_xml_url":40,"boring_view_url":1,"soilmap_view_url":null,"soiltest_xml_url":0,"soiltest_view_url":0},{"id":175774,"code":"B4KJ201801006-4023","latitude":"34.5956817","longitude":"136.0996583","source_code":"KK51367018007","project_name":"","survey_name":"\u662d\u548c55\u5e74\u5ea6\u5830\u5824\u65bd\u5de5\u8a08\u753b\u7b87\u6240\u5730\u8cea\u8abf\u67fb\u4f5c\u696d","client_name":"\u56fd\u571f\u4ea4\u901a\u7701\u8fd1\u757f\u5730\u65b9\u6574\u5099\u5c40\u6728\u6d25\u5ddd\u4e0a\u6d41\u6cb3\u5ddd\u4e8b\u52d9\u6240","boring_xml_url":40,"boring_view_url":1,"soilmap_view_url":null,"soiltest_xml_url":0,"soiltest_view_url":0},{"id":175773,"code":"B4KJ201801006-4022","latitude":"34.5956261","longitude":"136.0997417","source_code":"KK51367018006","project_name":"","survey_name":"\u662d\u548c55\u5e74\u5ea6\u5830\u5824\u65bd\u5de5\u8a08\u753b\u7b87\u6240\u5730\u8cea\u8abf\u67fb\u4f5c\u696d","client_name":"\u56fd\u571f\u4ea4\u901a\u7701\u8fd1\u757f\u5730\u65b9\u6574\u5099\u5c40\u6728\u6d25\u5ddd\u4e0a\u6d41\u6cb3\u5ddd\u4e8b\u52d9\u6240","boring_xml_url":40,"boring_view_url":1,"soilmap_view_url":null,"soiltest_xml_url":0,"soiltest_view_url":0},{"id":175772,"code":"B4KJ201801006-4021","latitude":"34.5954872","longitude":"136.0998806","source_code":"KK51367018005","project_name":"","survey_name":"\u662d\u548c55\u5e74\u5ea6\u5830\u5824\u65bd\u5de5\u8a08\u753b\u7b87\u6240\u5730\u8cea\u8abf\u67fb\u4f5c\u696d","client_name":"\u56fd\u571f\u4ea4\u901a\u7701\u8fd1\u757f\u5730\u65b9\u6574\u5099\u5c40\u6728\u6d25\u5ddd\u4e0a\u6d41\u6cb3\u5ddd\u4e8b\u52d9\u6240","boring_xml_url":40,"boring_view_url":1,"soilmap_view_url":null,"soiltest_xml_url":0,"soiltest_view_url":0},{"id":175771,"code":"B4KJ201801006-4020","latitude":"34.5954594","longitude":"136.0999083","source_code":"KK51367018003","project_name":"","survey_name":"\u662d\u548c55\u5e74\u5ea6\u5830\u5824\u65bd\u5de5\u8a08\u753b\u7b87\u6240\u5730\u8cea\u8abf\u67fb\u4f5c\u696d","client_name":"\u56fd\u571f\u4ea4\u901a\u7701\u8fd1\u757f\u5730\u65b9\u6574\u5099\u5c40\u6728\u6d25\u5ddd\u4e0a\u6d41\u6cb3\u5ddd\u4e8b\u52d9\u6240","boring_xml_url":40,"boring_view_url":1,"soilmap_view_url":null,"soiltest_xml_url":0,"soiltest_view_url":0},{"id":175770,"code":"B4KJ201801006-4019","latitude":"34.5952094","longitude":"136.0996861","source_code":"KK51367018001","project_name":"","survey_name":"\u662d\u548c55\u5e74\u5ea6\u5830\u5824\u65bd\u5de5\u8a08\u753b\u7b87\u6240\u5730\u8cea\u8abf\u67fb\u4f5c\u696d","client_name":"\u56fd\u571f\u4ea4\u901a\u7701\u8fd1\u757f\u5730\u65b9\u6574\u5099\u5c40\u6728\u6d25\u5ddd\u4e0a\u6d41\u6cb3\u5ddd\u4e8b\u52d9\u6240","boring_xml_url":40,"boring_view_url":1,"soilmap_view_url":null,"soiltest_xml_url":0,"soiltest_view_url":0},{"id":175769,"code":"B4KJ201801006-4018","latitude":"34.5988192","longitude":"136.0578564","source_code":"KK51367014016","project_name":"","survey_name":"\u5b89\u90e8\u7530\u5730\u8cea\u8abf\u67fb\u4f5c\u696d\u5de5\u4e8b","client_name":"\u56fd\u571f\u4ea4\u901a\u7701\u8fd1\u757f\u5730\u65b9\u6574\u5099\u5c40\u6728\u6d25\u5ddd\u4e0a\u6d41\u6cb3\u5ddd\u4e8b\u52d9\u6240","boring_xml_url":40,"boring_view_url":1,"soilmap_view_url":null,"soiltest_xml_url":0,"soiltest_view_url":0},{"id":175768,"code":"B4KJ201801006-4017","latitude":"34.5987358","longitude":"136.0577453","source_code":"KK51367014015","project_name":"","survey_name":"\u5b89\u90e8\u7530\u5730\u8cea\u8abf\u67fb\u4f5c\u696d\u5de5\u4e8b","client_name":"\u56fd\u571f\u4ea4\u901a\u7701\u8fd1\u757f\u5730\u65b9\u6574\u5099\u5c40\u6728\u6d25\u5ddd\u4e0a\u6d41\u6cb3\u5ddd\u4e8b\u52d9\u6240","boring_xml_url":40,"boring_view_url":1,"soilmap_view_url":null,"soiltest_xml_url":0,"soiltest_view_url":0},{"id":175767,"code":"B4KJ201801006-4016","latitude":"34.5985692","longitude":"136.0576064","source_code":"KK51367014014","project_name":"","survey_name":"\u5b89\u90e8\u7530\u5730\u8cea\u8abf\u67fb\u4f5c\u696d\u5de5\u4e8b","client_name":"\u56fd\u571f\u4ea4\u901a\u7701\u8fd1\u757f\u5730\u65b9\u6574\u5099\u5c40\u6728\u6d25\u5ddd\u4e0a\u6d41\u6cb3\u5ddd\u4e8b\u52d9\u6240","boring_xml_url":40,"boring_view_url":1,"soilmap_view_url":null,"soiltest_xml_url":0,"soiltest_view_url":0},{"id":175766,"code":"B4KJ201801006-4015","latitude":"34.5984028","longitude":"136.0574397","source_code":"KK51367014013","project_name":"","survey_name":"\u5b89\u90e8\u7530\u5730\u8cea\u8abf\u67fb\u4f5c\u696d\u5de5\u4e8b","client_name":"\u56fd\u571f\u4ea4\u901a\u7701\u8fd1\u757f\u5730\u65b9\u6574\u5099\u5c40\u6728\u6d25\u5ddd\u4e0a\u6d41\u6cb3\u5ddd\u4e8b\u52d9\u6240","boring_xml_url":40,"boring_view_url":1,"soilmap_view_url":null,"soiltest_xml_url":0,"soiltest_view_url":0}]}}