{"header":{"xyz":{"source":[],"mosaic":false},"page":4830,"raw":{"soiltest_result":"0","bbox":"57.598333,109.544722,1.933333,163.806111","page":"4830"},"conditions":{"soiltest_result":0,"north":57.598333,"west":109.544722,"south":1.933333,"east":163.806111},"success":true,"message":""},"data":{"meta":{"total":212844,"page":4830,"pages":7095,"count":30},"values":[{"id":175675,"code":"B4KJ201801006-3924","latitude":"34.3010739","longitude":"135.9982606","source_code":"KK51363050027","project_name":"","survey_name":"\u767d\u5ddd\u6e21\u5730\u533a\u6e67\u6c34\u8abf\u67fb\u305d\u306e2\u696d\u52d9","client_name":"\u56fd\u571f\u4ea4\u901a\u7701\u8fd1\u757f\u5730\u65b9\u6574\u5099\u5c40\u5927\u6edd\u30c0\u30e0\u5de5\u4e8b\u4e8b\u52d9\u6240","boring_xml_url":40,"boring_view_url":1,"soilmap_view_url":null,"soiltest_xml_url":0,"soiltest_view_url":0},{"id":175674,"code":"B4KJ201801006-3923","latitude":"34.3016292","longitude":"135.9979828","source_code":"KK51363050025","project_name":"","survey_name":"\u767d\u5ddd\u6e21\u5730\u533a\u6e67\u6c34\u8abf\u67fb\u696d\u52d9","client_name":"\u56fd\u571f\u4ea4\u901a\u7701\u8fd1\u757f\u5730\u65b9\u6574\u5099\u5c40\u5927\u6edd\u30c0\u30e0\u5de5\u4e8b\u4e8b\u52d9\u6240","boring_xml_url":40,"boring_view_url":1,"soilmap_view_url":null,"soiltest_xml_url":0,"soiltest_view_url":0},{"id":175673,"code":"B4KJ201801006-3922","latitude":"34.3017681","longitude":"136.0007325","source_code":"KK51363050024","project_name":"","survey_name":"\u662d\u548c61\u5e74\u5ea6\u767d\u5ddd\u6e21\u5730\u533a\u5730\u8cea\u8abf\u67fb\u4f5c\u696d","client_name":"\u56fd\u571f\u4ea4\u901a\u7701\u8fd1\u757f\u5730\u65b9\u6574\u5099\u5c40\u5927\u6edd\u30c0\u30e0\u5de5\u4e8b\u4e8b\u52d9\u6240","boring_xml_url":40,"boring_view_url":1,"soilmap_view_url":null,"soiltest_xml_url":0,"soiltest_view_url":0},{"id":175672,"code":"B4KJ201801006-3921","latitude":"34.3014072","longitude":"136.0015381","source_code":"KK51363050023","project_name":"","survey_name":"\u662d\u548c61\u5e74\u5ea6\u767d\u5ddd\u6e21\u5730\u533a\u5730\u8cea\u8abf\u67fb\u4f5c\u696d","client_name":"\u56fd\u571f\u4ea4\u901a\u7701\u8fd1\u757f\u5730\u65b9\u6574\u5099\u5c40\u5927\u6edd\u30c0\u30e0\u5de5\u4e8b\u4e8b\u52d9\u6240","boring_xml_url":40,"boring_view_url":1,"soilmap_view_url":null,"soiltest_xml_url":0,"soiltest_view_url":0},{"id":175671,"code":"B4KJ201801006-3920","latitude":"34.3022681","longitude":"135.9973717","source_code":"KK51363050021","project_name":"","survey_name":"\u662d\u548c56\u5e74\u5ea6\u767d\u5ddd\u6e21\u5730\u533a\u5730\u8cea\u8abf\u67fb\u4f5c\u696d","client_name":"\u56fd\u571f\u4ea4\u901a\u7701\u8fd1\u757f\u5730\u65b9\u6574\u5099\u5c40\u5927\u6edd\u30c0\u30e0\u5de5\u4e8b\u4e8b\u52d9\u6240","boring_xml_url":40,"boring_view_url":1,"soilmap_view_url":null,"soiltest_xml_url":0,"soiltest_view_url":0},{"id":175670,"code":"B4KJ201801006-3919","latitude":"34.3019903","longitude":"135.9993717","source_code":"KK51363050018","project_name":"","survey_name":"\u662d\u548c56\u5e74\u5ea6\u767d\u5ddd\u6e21\u5730\u533a\u5730\u8cea\u8abf\u67fb\u4f5c\u696d","client_name":"\u56fd\u571f\u4ea4\u901a\u7701\u8fd1\u757f\u5730\u65b9\u6574\u5099\u5c40\u5927\u6edd\u30c0\u30e0\u5de5\u4e8b\u4e8b\u52d9\u6240","boring_xml_url":40,"boring_view_url":1,"soilmap_view_url":null,"soiltest_xml_url":0,"soiltest_view_url":0},{"id":175669,"code":"B4KJ201801006-3918","latitude":"34.3021569","longitude":"135.9996494","source_code":"KK51363050017","project_name":"","survey_name":"\u662d\u548c56\u5e74\u5ea6\u767d\u5ddd\u6e21\u5730\u533a\u5730\u8cea\u8abf\u67fb\u4f5c\u696d","client_name":"\u56fd\u571f\u4ea4\u901a\u7701\u8fd1\u757f\u5730\u65b9\u6574\u5099\u5c40\u5927\u6edd\u30c0\u30e0\u5de5\u4e8b\u4e8b\u52d9\u6240","boring_xml_url":40,"boring_view_url":1,"soilmap_view_url":null,"soiltest_xml_url":0,"soiltest_view_url":0},{"id":175668,"code":"B4KJ201801006-3917","latitude":"34.3013236","longitude":"135.9986494","source_code":"KK51363050015","project_name":"","survey_name":"\u662d\u548c56\u5e74\u5ea6\u767d\u5ddd\u6e21\u5730\u533a\u5730\u8cea\u8abf\u67fb\u4f5c\u696d","client_name":"\u56fd\u571f\u4ea4\u901a\u7701\u8fd1\u757f\u5730\u65b9\u6574\u5099\u5c40\u5927\u6edd\u30c0\u30e0\u5de5\u4e8b\u4e8b\u52d9\u6240","boring_xml_url":40,"boring_view_url":1,"soilmap_view_url":null,"soiltest_xml_url":0,"soiltest_view_url":0},{"id":175667,"code":"B4KJ201801006-3916","latitude":"34.3013792","longitude":"135.9971497","source_code":"KK51363050014","project_name":"","survey_name":"\u662d\u548c59\u5e74\u5ea6\u767d\u5ddd\u6e21\u5730\u533a\u5730\u8cea\u8abf\u67fb\u4f5c\u696d","client_name":"\u56fd\u571f\u4ea4\u901a\u7701\u8fd1\u757f\u5730\u65b9\u6574\u5099\u5c40\u5927\u6edd\u30c0\u30e0\u5de5\u4e8b\u4e8b\u52d9\u6240","boring_xml_url":40,"boring_view_url":1,"soilmap_view_url":null,"soiltest_xml_url":0,"soiltest_view_url":0},{"id":175666,"code":"B4KJ201801006-3915","latitude":"34.3011292","longitude":"135.9971497","source_code":"KK51363050013","project_name":"","survey_name":"\u662d\u548c59\u5e74\u5ea6\u767d\u5ddd\u6e21\u5730\u533a\u5730\u8cea\u8abf\u67fb\u4f5c\u696d","client_name":"\u56fd\u571f\u4ea4\u901a\u7701\u8fd1\u757f\u5730\u65b9\u6574\u5099\u5c40\u5927\u6edd\u30c0\u30e0\u5de5\u4e8b\u4e8b\u52d9\u6240","boring_xml_url":40,"boring_view_url":1,"soilmap_view_url":null,"soiltest_xml_url":0,"soiltest_view_url":0},{"id":175665,"code":"B4KJ201801006-3914","latitude":"34.3012958","longitude":"135.9976772","source_code":"KK51363050012","project_name":"","survey_name":"\u662d\u548c56\u5e74\u5ea6\u767d\u5ddd\u6e21\u5730\u533a\u5730\u8cea\u8abf\u67fb\u4f5c\u696d","client_name":"\u56fd\u571f\u4ea4\u901a\u7701\u8fd1\u757f\u5730\u65b9\u6574\u5099\u5c40\u5927\u6edd\u30c0\u30e0\u5de5\u4e8b\u4e8b\u52d9\u6240","boring_xml_url":40,"boring_view_url":1,"soilmap_view_url":null,"soiltest_xml_url":0,"soiltest_view_url":0},{"id":175664,"code":"B4KJ201801006-3913","latitude":"34.3010736","longitude":"135.9974272","source_code":"KK51363050011","project_name":"","survey_name":"\u662d\u548c59\u5e74\u5ea6\u767d\u5ddd\u6e21\u5730\u533a\u5730\u8cea\u8abf\u67fb\u4f5c\u696d","client_name":"\u56fd\u571f\u4ea4\u901a\u7701\u8fd1\u757f\u5730\u65b9\u6574\u5099\u5c40\u5927\u6edd\u30c0\u30e0\u5de5\u4e8b\u4e8b\u52d9\u6240","boring_xml_url":40,"boring_view_url":1,"soilmap_view_url":null,"soiltest_xml_url":0,"soiltest_view_url":0},{"id":175663,"code":"B4KJ201801006-3912","latitude":"34.301075","longitude":"135.99865","source_code":"KK51363050010","project_name":"","survey_name":"\u662d\u548c56\u5e74\u5ea6\u767d\u5ddd\u6e21\u5730\u533a\u5730\u8cea\u8abf\u67fb\u4f5c\u696d","client_name":"\u56fd\u571f\u4ea4\u901a\u7701\u8fd1\u757f\u5730\u65b9\u6574\u5099\u5c40\u5927\u6edd\u30c0\u30e0\u5de5\u4e8b\u4e8b\u52d9\u6240","boring_xml_url":40,"boring_view_url":1,"soilmap_view_url":null,"soiltest_xml_url":0,"soiltest_view_url":0},{"id":175662,"code":"B4KJ201801006-3911","latitude":"34.3011847","longitude":"135.9979828","source_code":"KK51363050009","project_name":"","survey_name":"\u662d\u548c56\u5e74\u5ea6\u767d\u5ddd\u6e21\u5730\u533a\u5730\u8cea\u8abf\u67fb\u4f5c\u696d","client_name":"\u56fd\u571f\u4ea4\u901a\u7701\u8fd1\u757f\u5730\u65b9\u6574\u5099\u5c40\u5927\u6edd\u30c0\u30e0\u5de5\u4e8b\u4e8b\u52d9\u6240","boring_xml_url":40,"boring_view_url":1,"soilmap_view_url":null,"soiltest_xml_url":0,"soiltest_view_url":0},{"id":175661,"code":"B4KJ201801006-3910","latitude":"34.2997406","longitude":"135.9990106","source_code":"KK51363050006","project_name":"","survey_name":"\u662d\u548c59\u5e74\u5ea6\u767d\u5ddd\u6e21\u5730\u533a\u5730\u8cea\u8abf\u67fb\u4f5c\u696d","client_name":"\u56fd\u571f\u4ea4\u901a\u7701\u8fd1\u757f\u5730\u65b9\u6574\u5099\u5c40\u5927\u6edd\u30c0\u30e0\u5de5\u4e8b\u4e8b\u52d9\u6240","boring_xml_url":40,"boring_view_url":1,"soilmap_view_url":null,"soiltest_xml_url":0,"soiltest_view_url":0},{"id":175660,"code":"B4KJ201801006-3909","latitude":"34.2994906","longitude":"135.9993994","source_code":"KK51363050005","project_name":"","survey_name":"\u662d\u548c59\u5e74\u5ea6\u767d\u5ddd\u6e21\u5730\u533a\u5730\u8cea\u8abf\u67fb\u4f5c\u696d","client_name":"\u56fd\u571f\u4ea4\u901a\u7701\u8fd1\u757f\u5730\u65b9\u6574\u5099\u5c40\u5927\u6edd\u30c0\u30e0\u5de5\u4e8b\u4e8b\u52d9\u6240","boring_xml_url":40,"boring_view_url":1,"soilmap_view_url":null,"soiltest_xml_url":0,"soiltest_view_url":0},{"id":175659,"code":"B4KJ201801006-3908","latitude":"34.2994628","longitude":"135.9992328","source_code":"KK51363050004","project_name":"","survey_name":"\u662d\u548c59\u5e74\u5ea6\u767d\u5ddd\u6e21\u5730\u533a\u5730\u8cea\u8abf\u67fb\u4f5c\u696d","client_name":"\u56fd\u571f\u4ea4\u901a\u7701\u8fd1\u757f\u5730\u65b9\u6574\u5099\u5c40\u5927\u6edd\u30c0\u30e0\u5de5\u4e8b\u4e8b\u52d9\u6240","boring_xml_url":40,"boring_view_url":1,"soilmap_view_url":null,"soiltest_xml_url":0,"soiltest_view_url":0},{"id":175658,"code":"B4KJ201801006-3907","latitude":"34.2991017","longitude":"135.9995106","source_code":"KK51363050003","project_name":"","survey_name":"\u662d\u548c59\u5e74\u5ea6\u767d\u5ddd\u6e21\u5730\u533a\u5730\u8cea\u8abf\u67fb\u4f5c\u696d","client_name":"\u56fd\u571f\u4ea4\u901a\u7701\u8fd1\u757f\u5730\u65b9\u6574\u5099\u5c40\u5927\u6edd\u30c0\u30e0\u5de5\u4e8b\u4e8b\u52d9\u6240","boring_xml_url":40,"boring_view_url":1,"soilmap_view_url":null,"soiltest_xml_url":0,"soiltest_view_url":0},{"id":175657,"code":"B4KJ201801006-3906","latitude":"34.2992406","longitude":"135.999705","source_code":"KK51363050002","project_name":"","survey_name":"\u662d\u548c59\u5e74\u5ea6\u767d\u5ddd\u6e21\u5730\u533a\u5730\u8cea\u8abf\u67fb\u4f5c\u696d","client_name":"\u56fd\u571f\u4ea4\u901a\u7701\u8fd1\u757f\u5730\u65b9\u6574\u5099\u5c40\u5927\u6edd\u30c0\u30e0\u5de5\u4e8b\u4e8b\u52d9\u6240","boring_xml_url":40,"boring_view_url":1,"soilmap_view_url":null,"soiltest_xml_url":0,"soiltest_view_url":0},{"id":175656,"code":"B4KJ201801006-3905","latitude":"34.3000739","longitude":"135.9986772","source_code":"KK51363050001","project_name":"","survey_name":"\u662d\u548c59\u5e74\u5ea6\u767d\u5ddd\u6e21\u5730\u533a\u5730\u8cea\u8abf\u67fb\u4f5c\u696d","client_name":"\u56fd\u571f\u4ea4\u901a\u7701\u8fd1\u757f\u5730\u65b9\u6574\u5099\u5c40\u5927\u6edd\u30c0\u30e0\u5de5\u4e8b\u4e8b\u52d9\u6240","boring_xml_url":40,"boring_view_url":1,"soilmap_view_url":null,"soiltest_xml_url":0,"soiltest_view_url":0},{"id":175655,"code":"B4KJ201801006-3904","latitude":"34.2926581","longitude":"135.9993442","source_code":"KK51363040007","project_name":"","survey_name":"\u5e73\u6210\u5143\u5e74\u5ea6\u4e0a\u591a\u53e4\u5730\u533a\u5730\u8cea\u8abf\u67fb\u4f5c\u696d","client_name":"\u56fd\u571f\u4ea4\u901a\u7701\u8fd1\u757f\u5730\u65b9\u6574\u5099\u5c40\u5927\u6edd\u30c0\u30e0\u5de5\u4e8b\u4e8b\u52d9\u6240","boring_xml_url":40,"boring_view_url":1,"soilmap_view_url":null,"soiltest_xml_url":0,"soiltest_view_url":0},{"id":175654,"code":"B4KJ201801006-3903","latitude":"34.2927414","longitude":"135.9992886","source_code":"KK51363040006","project_name":"","survey_name":"\u5e73\u6210\u5143\u5e74\u5ea6\u4e0a\u591a\u53e4\u5730\u533a\u5730\u8cea\u8abf\u67fb\u4f5c\u696d","client_name":"\u56fd\u571f\u4ea4\u901a\u7701\u8fd1\u757f\u5730\u65b9\u6574\u5099\u5c40\u5927\u6edd\u30c0\u30e0\u5de5\u4e8b\u4e8b\u52d9\u6240","boring_xml_url":40,"boring_view_url":1,"soilmap_view_url":null,"soiltest_xml_url":0,"soiltest_view_url":0},{"id":175653,"code":"B4KJ201801006-3902","latitude":"34.2923525","longitude":"135.9994275","source_code":"KK51363040005","project_name":"","survey_name":"\u5e73\u6210\u5143\u5e74\u5ea6\u4e0a\u591a\u53e4\u5730\u533a\u5730\u8cea\u8abf\u67fb\u4f5c\u696d","client_name":"\u56fd\u571f\u4ea4\u901a\u7701\u8fd1\u757f\u5730\u65b9\u6574\u5099\u5c40\u5927\u6edd\u30c0\u30e0\u5de5\u4e8b\u4e8b\u52d9\u6240","boring_xml_url":40,"boring_view_url":1,"soilmap_view_url":null,"soiltest_xml_url":0,"soiltest_view_url":0},{"id":175652,"code":"B4KJ201801006-3901","latitude":"34.2920192","longitude":"135.9995386","source_code":"KK51363040004","project_name":"","survey_name":"\u5e73\u6210\u5143\u5e74\u5ea6\u4e0a\u591a\u53e4\u5730\u533a\u5730\u8cea\u8abf\u67fb\u4f5c\u696d","client_name":"\u56fd\u571f\u4ea4\u901a\u7701\u8fd1\u757f\u5730\u65b9\u6574\u5099\u5c40\u5927\u6edd\u30c0\u30e0\u5de5\u4e8b\u4e8b\u52d9\u6240","boring_xml_url":40,"boring_view_url":1,"soilmap_view_url":null,"soiltest_xml_url":0,"soiltest_view_url":0},{"id":175651,"code":"B4KJ201801006-3900","latitude":"34.2874089","longitude":"136.0038161","source_code":"KK51363040003","project_name":"","survey_name":"\u662d\u548c57\u5e74\u5ea6\u67cf\u6728\u5730\u533a\u5730\u8cea\u8abf\u67fb\u4f5c\u696d","client_name":"\u56fd\u571f\u4ea4\u901a\u7701\u8fd1\u757f\u5730\u65b9\u6574\u5099\u5c40\u5927\u6edd\u30c0\u30e0\u5de5\u4e8b\u4e8b\u52d9\u6240","boring_xml_url":40,"boring_view_url":1,"soilmap_view_url":null,"soiltest_xml_url":0,"soiltest_view_url":0},{"id":175650,"code":"B4KJ201801006-3899","latitude":"34.2871589","longitude":"136.003955","source_code":"KK51363040002","project_name":"","survey_name":"\u662d\u548c57\u5e74\u5ea6\u67cf\u6728\u5730\u533a\u5730\u8cea\u8abf\u67fb\u4f5c\u696d","client_name":"\u56fd\u571f\u4ea4\u901a\u7701\u8fd1\u757f\u5730\u65b9\u6574\u5099\u5c40\u5927\u6edd\u30c0\u30e0\u5de5\u4e8b\u4e8b\u52d9\u6240","boring_xml_url":40,"boring_view_url":1,"soilmap_view_url":null,"soiltest_xml_url":0,"soiltest_view_url":0},{"id":175649,"code":"B4KJ201801006-3898","latitude":"34.2877419","longitude":"136.0034828","source_code":"KK51363040001","project_name":"","survey_name":"\u662d\u548c57\u5e74\u5ea6\u67cf\u6728\u5730\u533a\u5730\u8cea\u8abf\u67fb\u4f5c\u696d","client_name":"\u56fd\u571f\u4ea4\u901a\u7701\u8fd1\u757f\u5730\u65b9\u6574\u5099\u5c40\u5927\u6edd\u30c0\u30e0\u5de5\u4e8b\u4e8b\u52d9\u6240","boring_xml_url":40,"boring_view_url":1,"soilmap_view_url":null,"soiltest_xml_url":0,"soiltest_view_url":0},{"id":175648,"code":"B4KJ201801006-3897","latitude":"34.2544136","longitude":"136.0554794","source_code":"KK51363004002","project_name":"","survey_name":"\u5165\u4e4b\u6ce2\u30c0\u30e0\u4e0a\u6d41\u90e8\u8a66\u9310\u8abf\u67fb\u4f5c\u696d","client_name":"\u56fd\u571f\u4ea4\u901a\u7701\u8fd1\u757f\u5730\u65b9\u6574\u5099\u5c40\u5927\u6edd\u30c0\u30e0\u5de5\u4e8b\u4e8b\u52d9\u6240","boring_xml_url":40,"boring_view_url":1,"soilmap_view_url":null,"soiltest_xml_url":0,"soiltest_view_url":0},{"id":175647,"code":"B4KJ201801006-3896","latitude":"34.6324228","longitude":"135.8908975","source_code":"KK51357751015","project_name":"","survey_name":"\u540d\u962a\u56fd\u9053\u4e2d\u7551\u5730\u533a\u6cd5\u9762\u9632\u707d\u8a2d\u8a08\u696d\u52d9","client_name":"\u56fd\u571f\u4ea4\u901a\u7701\u8fd1\u757f\u5730\u65b9\u6574\u5099\u5c40\u5948\u826f\u56fd\u9053\u4e8b\u52d9\u6240","boring_xml_url":40,"boring_view_url":1,"soilmap_view_url":null,"soiltest_xml_url":0,"soiltest_view_url":0},{"id":175646,"code":"B4KJ201801006-3895","latitude":"34.6310061","longitude":"135.8849536","source_code":"KK51357751014","project_name":"","survey_name":"\u540d\u962a\u56fd\u9053\u4e2d\u7551\u5730\u533a\u6cd5\u9762\u9632\u707d\u8a2d\u8a08\u696d\u52d9","client_name":"\u56fd\u571f\u4ea4\u901a\u7701\u8fd1\u757f\u5730\u65b9\u6574\u5099\u5c40\u5948\u826f\u56fd\u9053\u4e8b\u52d9\u6240","boring_xml_url":40,"boring_view_url":1,"soilmap_view_url":null,"soiltest_xml_url":0,"soiltest_view_url":0}]}}