{"header":{"xyz":{"source":[],"mosaic":false},"page":4835,"raw":{"soiltest_result":"0","bbox":"57.598333,109.544722,1.933333,163.806111","page":"4835"},"conditions":{"soiltest_result":0,"north":57.598333,"west":109.544722,"south":1.933333,"east":163.806111},"success":true,"message":""},"data":{"meta":{"total":212844,"page":4835,"pages":7095,"count":30},"values":[{"id":175525,"code":"B4KJ201801006-3774","latitude":"34.6096753","longitude":"135.8920372","source_code":"KK51357721007","project_name":"","survey_name":"\u5948\u826f \u5929\u7406\u5e02\uff5e\u5948\u826f\u5e02\u5929\u7406\u56fd\u9053\u5730\u8cea\u8abf\u67fb\u305d\u306e11\u5de5\u4e8b\u5831\u544a","client_name":"\u56fd\u571f\u4ea4\u901a\u7701\u8fd1\u757f\u5730\u65b9\u6574\u5099\u5c40\u5948\u826f\u56fd\u9053\u4e8b\u52d9\u6240","boring_xml_url":40,"boring_view_url":1,"soilmap_view_url":null,"soiltest_xml_url":0,"soiltest_view_url":0},{"id":175524,"code":"B4KJ201801006-3773","latitude":"34.6096197","longitude":"135.8919817","source_code":"KK51357721006","project_name":"","survey_name":"\u5929\u7406\u4e94\u6a4b\u5730\u8cea\u8abf\u67fb\u5de5\u4e8b","client_name":"\u56fd\u571f\u4ea4\u901a\u7701\u8fd1\u757f\u5730\u65b9\u6574\u5099\u5c40\u5948\u826f\u56fd\u9053\u4e8b\u52d9\u6240","boring_xml_url":40,"boring_view_url":1,"soilmap_view_url":null,"soiltest_xml_url":0,"soiltest_view_url":0},{"id":175523,"code":"B4KJ201801006-3772","latitude":"34.6093975","longitude":"135.8926761","source_code":"KK51357721005","project_name":"","survey_name":"\u5929\u7406\u4e94\u6a4b\u5730\u8cea\u8abf\u67fb\u5de5\u4e8b","client_name":"\u56fd\u571f\u4ea4\u901a\u7701\u8fd1\u757f\u5730\u65b9\u6574\u5099\u5c40\u5948\u826f\u56fd\u9053\u4e8b\u52d9\u6240","boring_xml_url":40,"boring_view_url":1,"soilmap_view_url":null,"soiltest_xml_url":0,"soiltest_view_url":0},{"id":175522,"code":"B4KJ201801006-3771","latitude":"34.6091197","longitude":"135.8931206","source_code":"KK51357721004","project_name":"","survey_name":"\u5948\u826f \u5929\u7406\u5e02\uff5e\u5948\u826f\u5e02\u5929\u7406\u56fd\u9053\u5730\u8cea\u8abf\u67fb\u305d\u306e11\u5de5\u4e8b\u5831\u544a","client_name":"\u56fd\u571f\u4ea4\u901a\u7701\u8fd1\u757f\u5730\u65b9\u6574\u5099\u5c40\u5948\u826f\u56fd\u9053\u4e8b\u52d9\u6240","boring_xml_url":40,"boring_view_url":1,"soilmap_view_url":null,"soiltest_xml_url":0,"soiltest_view_url":0},{"id":175521,"code":"B4KJ201801006-3770","latitude":"34.6086756","longitude":"135.8942314","source_code":"KK51357721003","project_name":"","survey_name":"\u5948\u826f \u5929\u7406\u5e02\uff5e\u5948\u826f\u5e02\u5929\u7406\u56fd\u9053\u5730\u8cea\u8abf\u67fb\u305d\u306e11\u5de5\u4e8b\u5831\u544a","client_name":"\u56fd\u571f\u4ea4\u901a\u7701\u8fd1\u757f\u5730\u65b9\u6574\u5099\u5c40\u5948\u826f\u56fd\u9053\u4e8b\u52d9\u6240","boring_xml_url":40,"boring_view_url":1,"soilmap_view_url":null,"soiltest_xml_url":0,"soiltest_view_url":0},{"id":175520,"code":"B4KJ201801006-3769","latitude":"34.6082589","longitude":"135.8918428","source_code":"KK51357721002","project_name":"","survey_name":"\u5929\u7406\u4e94\u6a4b\u5730\u8cea\u8abf\u67fb\u5de5\u4e8b","client_name":"\u56fd\u571f\u4ea4\u901a\u7701\u8fd1\u757f\u5730\u65b9\u6574\u5099\u5c40\u5948\u826f\u56fd\u9053\u4e8b\u52d9\u6240","boring_xml_url":40,"boring_view_url":1,"soilmap_view_url":null,"soiltest_xml_url":0,"soiltest_view_url":0},{"id":175519,"code":"B4KJ201801006-3768","latitude":"34.6080367","longitude":"135.8922594","source_code":"KK51357721001","project_name":"","survey_name":"\u5929\u7406\u4e94\u6a4b\u5730\u8cea\u8abf\u67fb\u5de5\u4e8b","client_name":"\u56fd\u571f\u4ea4\u901a\u7701\u8fd1\u757f\u5730\u65b9\u6574\u5099\u5c40\u5948\u826f\u56fd\u9053\u4e8b\u52d9\u6240","boring_xml_url":40,"boring_view_url":1,"soilmap_view_url":null,"soiltest_xml_url":0,"soiltest_view_url":0},{"id":175518,"code":"B4KJ201801006-3767","latitude":"34.5908719","longitude":"135.8986761","source_code":"KK51357702002","project_name":"","survey_name":"\u540d\u962a\u9053\u8def\u798f\u4f4f\u5730\u533a\u571f\u8cea\u8abf\u67fb\u4f5c\u696d","client_name":"\u56fd\u571f\u4ea4\u901a\u7701\u8fd1\u757f\u5730\u65b9\u6574\u5099\u5c40\u5948\u826f\u56fd\u9053\u4e8b\u52d9\u6240","boring_xml_url":40,"boring_view_url":1,"soilmap_view_url":null,"soiltest_xml_url":0,"soiltest_view_url":0},{"id":175517,"code":"B4KJ201801006-3766","latitude":"34.5905386","longitude":"135.8985372","source_code":"KK51357702001","project_name":"","survey_name":"\u540d\u962a\u9053\u8def\u798f\u4f4f\u5730\u533a\u571f\u8cea\u8abf\u67fb\u4f5c\u696d","client_name":"\u56fd\u571f\u4ea4\u901a\u7701\u8fd1\u757f\u5730\u65b9\u6574\u5099\u5c40\u5948\u826f\u56fd\u9053\u4e8b\u52d9\u6240","boring_xml_url":40,"boring_view_url":1,"soilmap_view_url":null,"soiltest_xml_url":0,"soiltest_view_url":0},{"id":175516,"code":"B4KJ201801006-3765","latitude":"34.5917886","longitude":"135.8958153","source_code":"KK51357701004","project_name":"","survey_name":"\u540d\u962a\u9053\u8def\u798f\u4f4f\u5730\u533a\u571f\u8cea\u8abf\u67fb\u4f5c\u696d","client_name":"\u56fd\u571f\u4ea4\u901a\u7701\u8fd1\u757f\u5730\u65b9\u6574\u5099\u5c40\u5948\u826f\u56fd\u9053\u4e8b\u52d9\u6240","boring_xml_url":40,"boring_view_url":1,"soilmap_view_url":null,"soiltest_xml_url":0,"soiltest_view_url":0},{"id":175515,"code":"B4KJ201801006-3764","latitude":"34.5922328","longitude":"135.8940931","source_code":"KK51357701003","project_name":"","survey_name":"\u540d\u962a\u9053\u8def\u798f\u4f4f\u5730\u533a\u571f\u8cea\u8abf\u67fb\u4f5c\u696d","client_name":"\u56fd\u571f\u4ea4\u901a\u7701\u8fd1\u757f\u5730\u65b9\u6574\u5099\u5c40\u5948\u826f\u56fd\u9053\u4e8b\u52d9\u6240","boring_xml_url":40,"boring_view_url":1,"soilmap_view_url":null,"soiltest_xml_url":0,"soiltest_view_url":0},{"id":175514,"code":"B4KJ201801006-3763","latitude":"34.592455","longitude":"135.8938153","source_code":"KK51357701002","project_name":"","survey_name":"\u540d\u962a\u9053\u8def\u798f\u4f4f\u5730\u533a\u571f\u8cea\u8abf\u67fb\u4f5c\u696d","client_name":"\u56fd\u571f\u4ea4\u901a\u7701\u8fd1\u757f\u5730\u65b9\u6574\u5099\u5c40\u5948\u826f\u56fd\u9053\u4e8b\u52d9\u6240","boring_xml_url":40,"boring_view_url":1,"soilmap_view_url":null,"soiltest_xml_url":0,"soiltest_view_url":0},{"id":175513,"code":"B4KJ201801006-3762","latitude":"34.5925106","longitude":"135.8935375","source_code":"KK51357701001","project_name":"","survey_name":"\u540d\u962a\u9053\u8def\u798f\u4f4f\u5730\u533a\u571f\u8cea\u8abf\u67fb\u4f5c\u696d","client_name":"\u56fd\u571f\u4ea4\u901a\u7701\u8fd1\u757f\u5730\u65b9\u6574\u5099\u5c40\u5948\u826f\u56fd\u9053\u4e8b\u52d9\u6240","boring_xml_url":40,"boring_view_url":1,"soilmap_view_url":null,"soiltest_xml_url":0,"soiltest_view_url":0},{"id":175512,"code":"B4KJ201801006-3761","latitude":"34.6476964","longitude":"135.7943778","source_code":"KK51357673005","project_name":"","survey_name":"\u90e1\u754c\u6a4b\u4eee\u8a2d\u6a4b\u8a2d\u7f6e\u691c\u8a0e\u305d\u306e\u4ed6\u696d\u52d9","client_name":"\u56fd\u571f\u4ea4\u901a\u7701\u8fd1\u757f\u5730\u65b9\u6574\u5099\u5c40\u5927\u548c\u5ddd\u6cb3\u5ddd\u4e8b\u52d9\u6240","boring_xml_url":40,"boring_view_url":1,"soilmap_view_url":null,"soiltest_xml_url":0,"soiltest_view_url":0},{"id":175511,"code":"B4KJ201801006-3760","latitude":"34.6520294","longitude":"135.7960719","source_code":"KK51357673003","project_name":"","survey_name":"\u524d\u5ddd\u6a0b\u9580\u6539\u7bc9\u8a2d\u8a08\u696d\u52d9","client_name":"\u56fd\u571f\u4ea4\u901a\u7701\u8fd1\u757f\u5730\u65b9\u6574\u5099\u5c40\u5927\u548c\u5ddd\u6cb3\u5ddd\u4e8b\u52d9\u6240","boring_xml_url":40,"boring_view_url":1,"soilmap_view_url":null,"soiltest_xml_url":0,"soiltest_view_url":0},{"id":175510,"code":"B4KJ201801006-3759","latitude":"34.6520294","longitude":"135.7957942","source_code":"KK51357673002","project_name":"","survey_name":"\u524d\u5ddd\u6a0b\u9580\u6539\u7bc9\u8a2d\u8a08\u696d\u52d9","client_name":"\u56fd\u571f\u4ea4\u901a\u7701\u8fd1\u757f\u5730\u65b9\u6574\u5099\u5c40\u5927\u548c\u5ddd\u6cb3\u5ddd\u4e8b\u52d9\u6240","boring_xml_url":40,"boring_view_url":1,"soilmap_view_url":null,"soiltest_xml_url":0,"soiltest_view_url":0},{"id":175509,"code":"B4KJ201801006-3758","latitude":"34.6341706","longitude":"135.8114322","source_code":"KK51357655001","project_name":"","survey_name":"\u5948\u826f\u76c6\u5730\u5730\u4e0b\u6c34\u8abf\u67fb\u696d\u52d9","client_name":"\u56fd\u571f\u4ea4\u901a\u7701\u8fd1\u757f\u5730\u65b9\u6574\u5099\u5c40\u5927\u548c\u5ddd\u6cb3\u5ddd\u4e8b\u52d9\u6240","boring_xml_url":40,"boring_view_url":1,"soilmap_view_url":null,"soiltest_xml_url":0,"soiltest_view_url":0},{"id":175508,"code":"B4KJ201801006-3757","latitude":"34.6310317","longitude":"135.7902119","source_code":"KK51357653005","project_name":"","survey_name":"\u5e73\u62109\u5e74\u5ea6\u756a\u6761\u5317\u4e95\u5830\u6539\u7bc9\u4e88\u5099\u8a2d\u8a08\u696d\u52d9","client_name":"\u56fd\u571f\u4ea4\u901a\u7701\u8fd1\u757f\u5730\u65b9\u6574\u5099\u5c40\u5927\u548c\u5ddd\u6cb3\u5ddd\u4e8b\u52d9\u6240","boring_xml_url":40,"boring_view_url":1,"soilmap_view_url":null,"soiltest_xml_url":0,"soiltest_view_url":0},{"id":175507,"code":"B4KJ201801006-3756","latitude":"34.6358089","longitude":"135.7887675","source_code":"KK51357653003","project_name":"","survey_name":"\u672c\u5e84\u6a0b\u9580\u8a73\u7d30\u8a2d\u8a08\u4ed6\u696d\u52d9","client_name":"\u56fd\u571f\u4ea4\u901a\u7701\u8fd1\u757f\u5730\u65b9\u6574\u5099\u5c40\u5927\u548c\u5ddd\u6cb3\u5ddd\u4e8b\u52d9\u6240","boring_xml_url":40,"boring_view_url":1,"soilmap_view_url":null,"soiltest_xml_url":0,"soiltest_view_url":0},{"id":175506,"code":"B4KJ201801006-3755","latitude":"34.6358089","longitude":"135.7887119","source_code":"KK51357653002","project_name":"","survey_name":"\u672c\u5e84\u6a0b\u9580\u8a73\u7d30\u8a2d\u8a08\u4ed6\u696d\u52d9","client_name":"\u56fd\u571f\u4ea4\u901a\u7701\u8fd1\u757f\u5730\u65b9\u6574\u5099\u5c40\u5927\u548c\u5ddd\u6cb3\u5ddd\u4e8b\u52d9\u6240","boring_xml_url":40,"boring_view_url":1,"soilmap_view_url":null,"soiltest_xml_url":0,"soiltest_view_url":0},{"id":175505,"code":"B4KJ201801006-3754","latitude":"34.6258658","longitude":"135.8046553","source_code":"KK51357644005","project_name":"","survey_name":"\u6a2a\u7530\u8de8\u9053\u6a4b\u4e88\u5099\u8a2d\u8a08\u59d4\u8a17\u696d\u52d9\u571f\u8cea\u8abf\u67fb","client_name":"\u56fd\u571f\u4ea4\u901a\u7701\u8fd1\u757f\u5730\u65b9\u6574\u5099\u5c40\u5948\u826f\u56fd\u9053\u4e8b\u52d9\u6240","boring_xml_url":40,"boring_view_url":1,"soilmap_view_url":null,"soiltest_xml_url":0,"soiltest_view_url":0},{"id":175504,"code":"B4KJ201801006-3753","latitude":"34.6254214","longitude":"135.8046553","source_code":"KK51357644004","project_name":"","survey_name":"\u6a2a\u7530\u8de8\u9053\u6a4b\u4e88\u5099\u8a2d\u8a08\u59d4\u8a17\u696d\u52d9\u571f\u8cea\u8abf\u67fb","client_name":"\u56fd\u571f\u4ea4\u901a\u7701\u8fd1\u757f\u5730\u65b9\u6574\u5099\u5c40\u5948\u826f\u56fd\u9053\u4e8b\u52d9\u6240","boring_xml_url":40,"boring_view_url":1,"soilmap_view_url":null,"soiltest_xml_url":0,"soiltest_view_url":0},{"id":175503,"code":"B4KJ201801006-3752","latitude":"34.6249769","longitude":"135.8046553","source_code":"KK51357644003","project_name":"","survey_name":"\u6a2a\u7530\u8de8\u9053\u6a4b\u4e88\u5099\u8a2d\u8a08\u59d4\u8a17\u696d\u52d9\u571f\u8cea\u8abf\u67fb","client_name":"\u56fd\u571f\u4ea4\u901a\u7701\u8fd1\u757f\u5730\u65b9\u6574\u5099\u5c40\u5948\u826f\u56fd\u9053\u4e8b\u52d9\u6240","boring_xml_url":40,"boring_view_url":1,"soilmap_view_url":null,"soiltest_xml_url":0,"soiltest_view_url":0},{"id":175502,"code":"B4KJ201801006-3751","latitude":"34.624505","longitude":"135.8043778","source_code":"KK51357644002","project_name":"","survey_name":"\u6a2a\u7530\u8de8\u9053\u6a4b\u4e88\u5099\u8a2d\u8a08\u59d4\u8a17\u696d\u52d9\u571f\u8cea\u8abf\u67fb","client_name":"\u56fd\u571f\u4ea4\u901a\u7701\u8fd1\u757f\u5730\u65b9\u6574\u5099\u5c40\u5948\u826f\u56fd\u9053\u4e8b\u52d9\u6240","boring_xml_url":40,"boring_view_url":1,"soilmap_view_url":null,"soiltest_xml_url":0,"soiltest_view_url":0},{"id":175501,"code":"B4KJ201801006-3750","latitude":"34.6238103","longitude":"135.7910456","source_code":"KK51357643002","project_name":"","survey_name":"\u4f50\u4fdd\u5ddd\u4e2d\u6d41\u5730\u533a\u7bc9\u5824\u8b77\u5cb8\u8a73\u7d30\u8a2d\u8a08\u696d\u52d9","client_name":"\u56fd\u571f\u4ea4\u901a\u7701\u8fd1\u757f\u5730\u65b9\u6574\u5099\u5c40\u5927\u548c\u5ddd\u6cb3\u5ddd\u4e8b\u52d9\u6240","boring_xml_url":40,"boring_view_url":1,"soilmap_view_url":null,"soiltest_xml_url":0,"soiltest_view_url":0},{"id":175500,"code":"B4KJ201801006-3749","latitude":"34.6215883","longitude":"135.7910456","source_code":"KK51357643001","project_name":"","survey_name":"\u4f50\u4fdd\u5ddd\u4e2d\u6d41\u5730\u533a\u7bc9\u5824\u8b77\u5cb8\u8a73\u7d30\u8a2d\u8a08\u696d\u52d9","client_name":"\u56fd\u571f\u4ea4\u901a\u7701\u8fd1\u757f\u5730\u65b9\u6574\u5099\u5c40\u5927\u548c\u5ddd\u6cb3\u5ddd\u4e8b\u52d9\u6240","boring_xml_url":40,"boring_view_url":1,"soilmap_view_url":null,"soiltest_xml_url":0,"soiltest_view_url":0},{"id":175499,"code":"B4KJ201801006-3748","latitude":"34.6136464","longitude":"135.8614564","source_code":"KK51357639016","project_name":"","survey_name":"\u540d\u962a\u9053\u8def\u5929\u7406\u6771\u5730\u533a\u6cd5\u9762\u8abf\u67fb\u4f5c\u696d","client_name":"\u56fd\u571f\u4ea4\u901a\u7701\u8fd1\u757f\u5730\u65b9\u6574\u5099\u5c40\u5948\u826f\u56fd\u9053\u4e8b\u52d9\u6240","boring_xml_url":40,"boring_view_url":1,"soilmap_view_url":null,"soiltest_xml_url":0,"soiltest_view_url":0},{"id":175498,"code":"B4KJ201801006-3747","latitude":"34.6134242","longitude":"135.8611786","source_code":"KK51357639015","project_name":"","survey_name":"\u540d\u962a\u9053\u8def\u5929\u7406\u6771\u5730\u533a\u6cd5\u9762\u8abf\u67fb\u4f5c\u696d","client_name":"\u56fd\u571f\u4ea4\u901a\u7701\u8fd1\u757f\u5730\u65b9\u6574\u5099\u5c40\u5948\u826f\u56fd\u9053\u4e8b\u52d9\u6240","boring_xml_url":40,"boring_view_url":1,"soilmap_view_url":null,"soiltest_xml_url":0,"soiltest_view_url":0},{"id":175497,"code":"B4KJ201801006-3746","latitude":"34.6129797","longitude":"135.8611786","source_code":"KK51357639014","project_name":"","survey_name":"\u540d\u962a\u9053\u8def\u5929\u7406\u6771\u5730\u533a\u6cd5\u9762\u8abf\u67fb\u4f5c\u696d","client_name":"\u56fd\u571f\u4ea4\u901a\u7701\u8fd1\u757f\u5730\u65b9\u6574\u5099\u5c40\u5948\u826f\u56fd\u9053\u4e8b\u52d9\u6240","boring_xml_url":40,"boring_view_url":1,"soilmap_view_url":null,"soiltest_xml_url":0,"soiltest_view_url":0},{"id":175496,"code":"B4KJ201801006-3745","latitude":"34.6137575","longitude":"135.8597897","source_code":"KK51357639013","project_name":"","survey_name":"\u540d\u962a\u9053\u8def\u5929\u7406\u6771\u5730\u533a\u6cd5\u9762\u8abf\u67fb\u4f5c\u696d","client_name":"\u56fd\u571f\u4ea4\u901a\u7701\u8fd1\u757f\u5730\u65b9\u6574\u5099\u5c40\u5948\u826f\u56fd\u9053\u4e8b\u52d9\u6240","boring_xml_url":40,"boring_view_url":1,"soilmap_view_url":null,"soiltest_xml_url":0,"soiltest_view_url":0}]}}