{"header":{"xyz":{"source":[],"mosaic":false},"page":4843,"raw":{"soiltest_result":"0","bbox":"57.598333,109.544722,1.933333,163.806111","page":"4843"},"conditions":{"soiltest_result":0,"north":57.598333,"west":109.544722,"south":1.933333,"east":163.806111},"success":true,"message":""},"data":{"meta":{"total":212844,"page":4843,"pages":7095,"count":30},"values":[{"id":175285,"code":"B4KJ201801006-3534","latitude":"34.6657431","longitude":"135.4909314","source_code":"KK51357399022","project_name":"","survey_name":"\u962a\u795e\u9ad8\u901f\u9053\u8def\u5730\u8cea\u8cc7\u65995\u897f\u6a2a\u5800\u5ddd\u7de8","client_name":"\u56fd\u571f\u4ea4\u901a\u7701\u8fd1\u757f\u5730\u65b9\u6574\u5099\u5c40\u6d6a\u901f\u56fd\u9053\u4e8b\u52d9\u6240","boring_xml_url":40,"boring_view_url":1,"soilmap_view_url":null,"soiltest_xml_url":0,"soiltest_view_url":0},{"id":175284,"code":"B4KJ201801006-3533","latitude":"34.6676317","longitude":"135.4966253","source_code":"KK51357399016","project_name":"","survey_name":"\u962a\u795e\u9ad8\u901f\u9053\u8def\u5730\u8cea\u8cc7\u659911\u6e4a\u753a-\u583a\u7de8","client_name":"\u56fd\u571f\u4ea4\u901a\u7701\u8fd1\u757f\u5730\u65b9\u6574\u5099\u5c40\u6d6a\u901f\u56fd\u9053\u4e8b\u52d9\u6240","boring_xml_url":40,"boring_view_url":1,"soilmap_view_url":null,"soiltest_xml_url":0,"soiltest_view_url":0},{"id":175283,"code":"B4KJ201801006-3532","latitude":"34.6644653","longitude":"135.4882928","source_code":"KK51357399007","project_name":"","survey_name":"\u962a\u795e\u9ad8\u901f\u9053\u8def\u5730\u8cea\u8cc7\u659911\u6e4a\u753a-\u583a\u7de8","client_name":"\u56fd\u571f\u4ea4\u901a\u7701\u8fd1\u757f\u5730\u65b9\u6574\u5099\u5c40\u6d6a\u901f\u56fd\u9053\u4e8b\u52d9\u6240","boring_xml_url":40,"boring_view_url":1,"soilmap_view_url":null,"soiltest_xml_url":0,"soiltest_view_url":0},{"id":175282,"code":"B4KJ201801006-3531","latitude":"34.6628819","longitude":"135.4882931","source_code":"KK51357399005","project_name":"","survey_name":"\u962a\u795e\u9ad8\u901f\u9053\u8def\u5730\u8cea\u8cc7\u659911\u6e4a\u753a-\u583a\u7de8","client_name":"\u56fd\u571f\u4ea4\u901a\u7701\u8fd1\u757f\u5730\u65b9\u6574\u5099\u5c40\u6d6a\u901f\u56fd\u9053\u4e8b\u52d9\u6240","boring_xml_url":40,"boring_view_url":1,"soilmap_view_url":null,"soiltest_xml_url":0,"soiltest_view_url":0},{"id":175281,"code":"B4KJ201801006-3530","latitude":"34.6688253","longitude":"135.4619617","source_code":"KK51357397018","project_name":"","survey_name":"43\u53f7\u5f01\u5929\u753a2\u53f7\u5730\u4e0b\u9053\u571f\u8cea\u8abf\u67fb\u4f5c\u696d\u5831\u544a\u66f8","client_name":"\u56fd\u571f\u4ea4\u901a\u7701\u8fd1\u757f\u5730\u65b9\u6574\u5099\u5c40\u5927\u962a\u56fd\u9053\u4e8b\u52d9\u6240","boring_xml_url":40,"boring_view_url":1,"soilmap_view_url":null,"soiltest_xml_url":0,"soiltest_view_url":0},{"id":175280,"code":"B4KJ201801006-3529","latitude":"34.6688253","longitude":"135.461795","source_code":"KK51357397017","project_name":"","survey_name":"43\u53f7\u5f01\u5929\u753a2\u53f7\u5730\u4e0b\u9053\u571f\u8cea\u8abf\u67fb\u4f5c\u696d\u5831\u544a\u66f8","client_name":"\u56fd\u571f\u4ea4\u901a\u7701\u8fd1\u757f\u5730\u65b9\u6574\u5099\u5c40\u5927\u962a\u56fd\u9053\u4e8b\u52d9\u6240","boring_xml_url":40,"boring_view_url":1,"soilmap_view_url":null,"soiltest_xml_url":0,"soiltest_view_url":0},{"id":175279,"code":"B4KJ201801006-3528","latitude":"34.6681031","longitude":"135.4629061","source_code":"KK51357397016","project_name":"","survey_name":"\u5f01\u5929\u99c5\u524d1\u53f7\u5730\u4e0b\u9053\u571f\u8cea\u8abf\u67fb\u4f5c\u696d","client_name":"\u56fd\u571f\u4ea4\u901a\u7701\u8fd1\u757f\u5730\u65b9\u6574\u5099\u5c40\u5927\u962a\u56fd\u9053\u4e8b\u52d9\u6240","boring_xml_url":40,"boring_view_url":1,"soilmap_view_url":null,"soiltest_xml_url":0,"soiltest_view_url":0},{"id":175278,"code":"B4KJ201801006-3527","latitude":"34.6681031","longitude":"135.4623506","source_code":"KK51357397015","project_name":"","survey_name":"\u5f01\u5929\u99c5\u524d1\u53f7\u5730\u4e0b\u9053\u571f\u8cea\u8abf\u67fb\u4f5c\u696d","client_name":"\u56fd\u571f\u4ea4\u901a\u7701\u8fd1\u757f\u5730\u65b9\u6574\u5099\u5c40\u5927\u962a\u56fd\u9053\u4e8b\u52d9\u6240","boring_xml_url":40,"boring_view_url":1,"soilmap_view_url":null,"soiltest_xml_url":0,"soiltest_view_url":0},{"id":175277,"code":"B4KJ201801006-3526","latitude":"34.6694364","longitude":"135.4630172","source_code":"KK51357397014","project_name":"","survey_name":"\u962a\u795e\u9ad8\u901f\u9053\u8def\u5730\u8cea\u8cc7\u659913\u6d25\u5b88\u30fb\u5b89\u6cbb\u5ddd","client_name":"\u56fd\u571f\u4ea4\u901a\u7701\u8fd1\u757f\u5730\u65b9\u6574\u5099\u5c40\u6d6a\u901f\u56fd\u9053\u4e8b\u52d9\u6240","boring_xml_url":40,"boring_view_url":1,"soilmap_view_url":null,"soiltest_xml_url":0,"soiltest_view_url":0},{"id":175276,"code":"B4KJ201801006-3525","latitude":"34.6676311","longitude":"135.4641283","source_code":"KK51357397013","project_name":"","survey_name":"\u962a\u795e\u9ad8\u901f\u9053\u8def\u5730\u8cea\u8cc7\u659913\u6d25\u5b88\u30fb\u5b89\u6cbb\u5ddd","client_name":"\u56fd\u571f\u4ea4\u901a\u7701\u8fd1\u757f\u5730\u65b9\u6574\u5099\u5c40\u6d6a\u901f\u56fd\u9053\u4e8b\u52d9\u6240","boring_xml_url":40,"boring_view_url":1,"soilmap_view_url":null,"soiltest_xml_url":0,"soiltest_view_url":0},{"id":175275,"code":"B4KJ201801006-3524","latitude":"34.66652","longitude":"135.4646561","source_code":"KK51357397012","project_name":"","survey_name":"\u962a\u795e\u9ad8\u901f\u9053\u8def\u5730\u8cea\u8cc7\u659913\u6d25\u5b88\u30fb\u5b89\u6cbb\u5ddd","client_name":"\u56fd\u571f\u4ea4\u901a\u7701\u8fd1\u757f\u5730\u65b9\u6574\u5099\u5c40\u6d6a\u901f\u56fd\u9053\u4e8b\u52d9\u6240","boring_xml_url":40,"boring_view_url":1,"soilmap_view_url":null,"soiltest_xml_url":0,"soiltest_view_url":0},{"id":175274,"code":"B4KJ201801006-3523","latitude":"34.6656033","longitude":"135.4652392","source_code":"KK51357397011","project_name":"","survey_name":"\u962a\u795e\u9ad8\u901f\u9053\u8def\u5730\u8cea\u8cc7\u659913\u6d25\u5b88\u30fb\u5b89\u6cbb\u5ddd","client_name":"\u56fd\u571f\u4ea4\u901a\u7701\u8fd1\u757f\u5730\u65b9\u6574\u5099\u5c40\u6d6a\u901f\u56fd\u9053\u4e8b\u52d9\u6240","boring_xml_url":40,"boring_view_url":1,"soilmap_view_url":null,"soiltest_xml_url":0,"soiltest_view_url":0},{"id":175273,"code":"B4KJ201801006-3522","latitude":"34.6635758","longitude":"135.4663503","source_code":"KK51357397010","project_name":"","survey_name":"\u962a\u795e\u9ad8\u901f\u9053\u8def\u5730\u8cea\u8cc7\u659913\u6d25\u5b88\u30fb\u5b89\u6cbb\u5ddd","client_name":"\u56fd\u571f\u4ea4\u901a\u7701\u8fd1\u757f\u5730\u65b9\u6574\u5099\u5c40\u6d6a\u901f\u56fd\u9053\u4e8b\u52d9\u6240","boring_xml_url":40,"boring_view_url":1,"soilmap_view_url":null,"soiltest_xml_url":0,"soiltest_view_url":0},{"id":175272,"code":"B4KJ201801006-3521","latitude":"34.6635758","longitude":"135.4663503","source_code":"KK51357397009","project_name":"","survey_name":"\u962a\u795e\u9ad8\u901f\u9053\u8def\u5730\u8cea\u8cc7\u659913\u6d25\u5b88\u30fb\u5b89\u6cbb\u5ddd","client_name":"\u56fd\u571f\u4ea4\u901a\u7701\u8fd1\u757f\u5730\u65b9\u6574\u5099\u5c40\u6d6a\u901f\u56fd\u9053\u4e8b\u52d9\u6240","boring_xml_url":40,"boring_view_url":1,"soilmap_view_url":null,"soiltest_xml_url":0,"soiltest_view_url":0},{"id":175271,"code":"B4KJ201801006-3520","latitude":"34.6633536","longitude":"135.4663503","source_code":"KK51357397008","project_name":"","survey_name":"\u962a\u795e\u9ad8\u901f\u9053\u8def\u5730\u8cea\u8cc7\u659913\u6d25\u5b88\u30fb\u5b89\u6cbb\u5ddd","client_name":"\u56fd\u571f\u4ea4\u901a\u7701\u8fd1\u757f\u5730\u65b9\u6574\u5099\u5c40\u6d6a\u901f\u56fd\u9053\u4e8b\u52d9\u6240","boring_xml_url":40,"boring_view_url":1,"soilmap_view_url":null,"soiltest_xml_url":0,"soiltest_view_url":0},{"id":175270,"code":"B4KJ201801006-3519","latitude":"34.6631317","longitude":"135.4666281","source_code":"KK51357397007","project_name":"","survey_name":"\u962a\u795e\u9ad8\u901f\u9053\u8def\u5730\u8cea\u8cc7\u659913\u6d25\u5b88\u30fb\u5b89\u6cbb\u5ddd","client_name":"\u56fd\u571f\u4ea4\u901a\u7701\u8fd1\u757f\u5730\u65b9\u6574\u5099\u5c40\u6d6a\u901f\u56fd\u9053\u4e8b\u52d9\u6240","boring_xml_url":40,"boring_view_url":1,"soilmap_view_url":null,"soiltest_xml_url":0,"soiltest_view_url":0},{"id":175269,"code":"B4KJ201801006-3518","latitude":"34.6628817","longitude":"135.4669058","source_code":"KK51357397006","project_name":"","survey_name":"\u962a\u795e\u9ad8\u901f\u9053\u8def\u5730\u8cea\u8cc7\u659913\u6d25\u5b88\u30fb\u5b89\u6cbb\u5ddd","client_name":"\u56fd\u571f\u4ea4\u901a\u7701\u8fd1\u757f\u5730\u65b9\u6574\u5099\u5c40\u6d6a\u901f\u56fd\u9053\u4e8b\u52d9\u6240","boring_xml_url":40,"boring_view_url":1,"soilmap_view_url":null,"soiltest_xml_url":0,"soiltest_view_url":0},{"id":175268,"code":"B4KJ201801006-3517","latitude":"34.6626594","longitude":"135.4669058","source_code":"KK51357397005","project_name":"","survey_name":"\u962a\u795e\u9ad8\u901f\u9053\u8def\u5730\u8cea\u8cc7\u659913\u6d25\u5b88\u30fb\u5b89\u6cbb\u5ddd","client_name":"\u56fd\u571f\u4ea4\u901a\u7701\u8fd1\u757f\u5730\u65b9\u6574\u5099\u5c40\u6d6a\u901f\u56fd\u9053\u4e8b\u52d9\u6240","boring_xml_url":40,"boring_view_url":1,"soilmap_view_url":null,"soiltest_xml_url":0,"soiltest_view_url":0},{"id":175267,"code":"B4KJ201801006-3516","latitude":"34.6624372","longitude":"135.4671836","source_code":"KK51357397004","project_name":"","survey_name":"\u962a\u795e\u9ad8\u901f\u9053\u8def\u5730\u8cea\u8cc7\u659913\u6d25\u5b88\u30fb\u5b89\u6cbb\u5ddd","client_name":"\u56fd\u571f\u4ea4\u901a\u7701\u8fd1\u757f\u5730\u65b9\u6574\u5099\u5c40\u6d6a\u901f\u56fd\u9053\u4e8b\u52d9\u6240","boring_xml_url":40,"boring_view_url":1,"soilmap_view_url":null,"soiltest_xml_url":0,"soiltest_view_url":0},{"id":175266,"code":"B4KJ201801006-3515","latitude":"34.662215","longitude":"135.4671836","source_code":"KK51357397002","project_name":"","survey_name":"\u962a\u795e\u9ad8\u901f\u9053\u8def\u5730\u8cea\u8cc7\u659913\u6d25\u5b88\u30fb\u5b89\u6cbb\u5ddd","client_name":"\u56fd\u571f\u4ea4\u901a\u7701\u8fd1\u757f\u5730\u65b9\u6574\u5099\u5c40\u6d6a\u901f\u56fd\u9053\u4e8b\u52d9\u6240","boring_xml_url":40,"boring_view_url":1,"soilmap_view_url":null,"soiltest_xml_url":0,"soiltest_view_url":0},{"id":175265,"code":"B4KJ201801006-3514","latitude":"34.6534108","longitude":"135.4857933","source_code":"KK51357389002","project_name":"","survey_name":"\u962a\u795e\u9ad8\u901f\u9053\u8def\u5730\u8cea\u8cc7\u659913\u6d25\u5b88\u30fb\u5b89\u6cbb\u5ddd","client_name":"\u56fd\u571f\u4ea4\u901a\u7701\u8fd1\u757f\u5730\u65b9\u6574\u5099\u5c40\u6d6a\u901f\u56fd\u9053\u4e8b\u52d9\u6240","boring_xml_url":40,"boring_view_url":1,"soilmap_view_url":null,"soiltest_xml_url":0,"soiltest_view_url":0},{"id":175264,"code":"B4KJ201801006-3513","latitude":"34.6534664","longitude":"135.4857933","source_code":"KK51357389001","project_name":"","survey_name":"\u56fd\u905343\u53f7\u5ef6\u4f38\u90e8\u571f\u8cea\u8abf\u67fb","client_name":"\u56fd\u571f\u4ea4\u901a\u7701\u8fd1\u757f\u5730\u65b9\u6574\u5099\u5c40\u962a\u795e\u56fd\u9053\u4e8b\u52d9\u6240","boring_xml_url":40,"boring_view_url":1,"soilmap_view_url":null,"soiltest_xml_url":0,"soiltest_view_url":0},{"id":175263,"code":"B4KJ201801006-3512","latitude":"34.6547717","longitude":"135.4813494","source_code":"KK51357388056","project_name":"","survey_name":"\u962a\u795e\u9ad8\u901f\u9053\u8def\u5730\u8cea\u8cc7\u659913\u6d25\u5b88\u30fb\u5b89\u6cbb\u5ddd","client_name":"\u56fd\u571f\u4ea4\u901a\u7701\u8fd1\u757f\u5730\u65b9\u6574\u5099\u5c40\u6d6a\u901f\u56fd\u9053\u4e8b\u52d9\u6240","boring_xml_url":40,"boring_view_url":1,"soilmap_view_url":null,"soiltest_xml_url":0,"soiltest_view_url":0},{"id":175262,"code":"B4KJ201801006-3511","latitude":"34.6574103","longitude":"135.4784328","source_code":"KK51357388055","project_name":"","survey_name":"\u962a\u795e\u9ad8\u901f\u9053\u8def\u5730\u8cea\u8cc7\u659913\u6d25\u5b88\u30fb\u5b89\u6cbb\u5ddd","client_name":"\u56fd\u571f\u4ea4\u901a\u7701\u8fd1\u757f\u5730\u65b9\u6574\u5099\u5c40\u6d6a\u901f\u56fd\u9053\u4e8b\u52d9\u6240","boring_xml_url":40,"boring_view_url":1,"soilmap_view_url":null,"soiltest_xml_url":0,"soiltest_view_url":0},{"id":175261,"code":"B4KJ201801006-3510","latitude":"34.6538553","longitude":"135.4846825","source_code":"KK51357388054","project_name":"","survey_name":"\u962a\u795e\u9ad8\u901f\u9053\u8def\u5730\u8cea\u8cc7\u659913\u6d25\u5b88\u30fb\u5b89\u6cbb\u5ddd","client_name":"\u56fd\u571f\u4ea4\u901a\u7701\u8fd1\u757f\u5730\u65b9\u6574\u5099\u5c40\u6d6a\u901f\u56fd\u9053\u4e8b\u52d9\u6240","boring_xml_url":40,"boring_view_url":1,"soilmap_view_url":null,"soiltest_xml_url":0,"soiltest_view_url":0},{"id":175260,"code":"B4KJ201801006-3509","latitude":"34.6574103","longitude":"135.4784328","source_code":"KK51357388053","project_name":"","survey_name":"\u962a\u795e\u9ad8\u901f\u9053\u8def\u5730\u8cea\u8cc7\u659913\u6d25\u5b88\u30fb\u5b89\u6cbb\u5ddd","client_name":"\u56fd\u571f\u4ea4\u901a\u7701\u8fd1\u757f\u5730\u65b9\u6574\u5099\u5c40\u6d6a\u901f\u56fd\u9053\u4e8b\u52d9\u6240","boring_xml_url":40,"boring_view_url":1,"soilmap_view_url":null,"soiltest_xml_url":0,"soiltest_view_url":0},{"id":175259,"code":"B4KJ201801006-3508","latitude":"34.6567992","longitude":"135.4724611","source_code":"KK51357388052","project_name":"","survey_name":"\u962a\u795e\u9ad8\u901f\u9053\u8def\u5730\u8cea\u8cc7\u659913\u6d25\u5b88\u30fb\u5b89\u6cbb\u5ddd","client_name":"\u56fd\u571f\u4ea4\u901a\u7701\u8fd1\u757f\u5730\u65b9\u6574\u5099\u5c40\u6d6a\u901f\u56fd\u9053\u4e8b\u52d9\u6240","boring_xml_url":40,"boring_view_url":1,"soilmap_view_url":null,"soiltest_xml_url":0,"soiltest_view_url":0},{"id":175258,"code":"B4KJ201801006-3507","latitude":"34.6563547","longitude":"135.4746833","source_code":"KK51357388051","project_name":"","survey_name":"\u962a\u795e\u9ad8\u901f\u9053\u8def\u5730\u8cea\u8cc7\u659913\u6d25\u5b88\u30fb\u5b89\u6cbb\u5ddd","client_name":"\u56fd\u571f\u4ea4\u901a\u7701\u8fd1\u757f\u5730\u65b9\u6574\u5099\u5c40\u6d6a\u901f\u56fd\u9053\u4e8b\u52d9\u6240","boring_xml_url":40,"boring_view_url":1,"soilmap_view_url":null,"soiltest_xml_url":0,"soiltest_view_url":0},{"id":175257,"code":"B4KJ201801006-3506","latitude":"34.6561325","longitude":"135.4755164","source_code":"KK51357388050","project_name":"","survey_name":"\u962a\u795e\u9ad8\u901f\u9053\u8def\u5730\u8cea\u8cc7\u659913\u6d25\u5b88\u30fb\u5b89\u6cbb\u5ddd","client_name":"\u56fd\u571f\u4ea4\u901a\u7701\u8fd1\u757f\u5730\u65b9\u6574\u5099\u5c40\u6d6a\u901f\u56fd\u9053\u4e8b\u52d9\u6240","boring_xml_url":40,"boring_view_url":1,"soilmap_view_url":null,"soiltest_xml_url":0,"soiltest_view_url":0},{"id":175256,"code":"B4KJ201801006-3505","latitude":"34.6558825","longitude":"135.4763497","source_code":"KK51357388049","project_name":"","survey_name":"\u962a\u795e\u9ad8\u901f\u9053\u8def\u5730\u8cea\u8cc7\u659913\u6d25\u5b88\u30fb\u5b89\u6cbb\u5ddd","client_name":"\u56fd\u571f\u4ea4\u901a\u7701\u8fd1\u757f\u5730\u65b9\u6574\u5099\u5c40\u6d6a\u901f\u56fd\u9053\u4e8b\u52d9\u6240","boring_xml_url":40,"boring_view_url":1,"soilmap_view_url":null,"soiltest_xml_url":0,"soiltest_view_url":0}]}}