{"header":{"xyz":{"source":[],"mosaic":false},"page":4845,"raw":{"soiltest_result":"0","bbox":"57.598333,109.544722,1.933333,163.806111","page":"4845"},"conditions":{"soiltest_result":0,"north":57.598333,"west":109.544722,"south":1.933333,"east":163.806111},"success":true,"message":""},"data":{"meta":{"total":212844,"page":4845,"pages":7095,"count":30},"values":[{"id":175225,"code":"B4KJ201801006-3474","latitude":"34.6540775","longitude":"135.4841269","source_code":"KK51357388014","project_name":"","survey_name":"\u962a\u795e\u9ad8\u901f\u9053\u8def\u5730\u8cea\u8cc7\u659913\u6d25\u5b88\u30fb\u5b89\u6cbb\u5ddd","client_name":"\u56fd\u571f\u4ea4\u901a\u7701\u8fd1\u757f\u5730\u65b9\u6574\u5099\u5c40\u6d6a\u901f\u56fd\u9053\u4e8b\u52d9\u6240","boring_xml_url":40,"boring_view_url":1,"soilmap_view_url":null,"soiltest_xml_url":0,"soiltest_view_url":0},{"id":175224,"code":"B4KJ201801006-3473","latitude":"34.6540775","longitude":"135.4841269","source_code":"KK51357388013","project_name":"","survey_name":"\u962a\u795e\u9ad8\u901f\u9053\u8def\u5730\u8cea\u8cc7\u659913\u6d25\u5b88\u30fb\u5b89\u6cbb\u5ddd","client_name":"\u56fd\u571f\u4ea4\u901a\u7701\u8fd1\u757f\u5730\u65b9\u6574\u5099\u5c40\u6d6a\u901f\u56fd\u9053\u4e8b\u52d9\u6240","boring_xml_url":40,"boring_view_url":1,"soilmap_view_url":null,"soiltest_xml_url":0,"soiltest_view_url":0},{"id":175223,"code":"B4KJ201801006-3472","latitude":"34.6543275","longitude":"135.4835714","source_code":"KK51357388012","project_name":"","survey_name":"\u962a\u795e\u9ad8\u901f\u9053\u8def\u5730\u8cea\u8cc7\u659913\u6d25\u5b88\u30fb\u5b89\u6cbb\u5ddd","client_name":"\u56fd\u571f\u4ea4\u901a\u7701\u8fd1\u757f\u5730\u65b9\u6574\u5099\u5c40\u6d6a\u901f\u56fd\u9053\u4e8b\u52d9\u6240","boring_xml_url":40,"boring_view_url":1,"soilmap_view_url":null,"soiltest_xml_url":0,"soiltest_view_url":0},{"id":175222,"code":"B4KJ201801006-3471","latitude":"34.6540775","longitude":"135.4835714","source_code":"KK51357388011","project_name":"","survey_name":"\u962a\u795e\u9ad8\u901f\u9053\u8def\u5730\u8cea\u8cc7\u659913\u6d25\u5b88\u30fb\u5b89\u6cbb\u5ddd","client_name":"\u56fd\u571f\u4ea4\u901a\u7701\u8fd1\u757f\u5730\u65b9\u6574\u5099\u5c40\u6d6a\u901f\u56fd\u9053\u4e8b\u52d9\u6240","boring_xml_url":40,"boring_view_url":1,"soilmap_view_url":null,"soiltest_xml_url":0,"soiltest_view_url":0},{"id":175221,"code":"B4KJ201801006-3470","latitude":"34.6540775","longitude":"135.4832936","source_code":"KK51357388010","project_name":"","survey_name":"\u962a\u795e\u9ad8\u901f\u9053\u8def\u5730\u8cea\u8cc7\u659913\u6d25\u5b88\u30fb\u5b89\u6cbb\u5ddd","client_name":"\u56fd\u571f\u4ea4\u901a\u7701\u8fd1\u757f\u5730\u65b9\u6574\u5099\u5c40\u6d6a\u901f\u56fd\u9053\u4e8b\u52d9\u6240","boring_xml_url":40,"boring_view_url":1,"soilmap_view_url":null,"soiltest_xml_url":0,"soiltest_view_url":0},{"id":175220,"code":"B4KJ201801006-3469","latitude":"34.6540775","longitude":"135.4832936","source_code":"KK51357388009","project_name":"","survey_name":"\u962a\u795e\u9ad8\u901f\u9053\u8def\u5730\u8cea\u8cc7\u659913\u6d25\u5b88\u30fb\u5b89\u6cbb\u5ddd","client_name":"\u56fd\u571f\u4ea4\u901a\u7701\u8fd1\u757f\u5730\u65b9\u6574\u5099\u5c40\u6d6a\u901f\u56fd\u9053\u4e8b\u52d9\u6240","boring_xml_url":40,"boring_view_url":1,"soilmap_view_url":null,"soiltest_xml_url":0,"soiltest_view_url":0},{"id":175219,"code":"B4KJ201801006-3468","latitude":"34.6540775","longitude":"135.4827381","source_code":"KK51357388008","project_name":"","survey_name":"\u962a\u795e\u9ad8\u901f\u9053\u8def\u5730\u8cea\u8cc7\u659913\u6d25\u5b88\u30fb\u5b89\u6cbb\u5ddd","client_name":"\u56fd\u571f\u4ea4\u901a\u7701\u8fd1\u757f\u5730\u65b9\u6574\u5099\u5c40\u6d6a\u901f\u56fd\u9053\u4e8b\u52d9\u6240","boring_xml_url":40,"boring_view_url":1,"soilmap_view_url":null,"soiltest_xml_url":0,"soiltest_view_url":0},{"id":175218,"code":"B4KJ201801006-3467","latitude":"34.6538553","longitude":"135.4841269","source_code":"KK51357388007","project_name":"","survey_name":"\u962a\u795e\u9ad8\u901f\u9053\u8def\u5730\u8cea\u8cc7\u659913\u6d25\u5b88\u30fb\u5b89\u6cbb\u5ddd","client_name":"\u56fd\u571f\u4ea4\u901a\u7701\u8fd1\u757f\u5730\u65b9\u6574\u5099\u5c40\u6d6a\u901f\u56fd\u9053\u4e8b\u52d9\u6240","boring_xml_url":40,"boring_view_url":1,"soilmap_view_url":null,"soiltest_xml_url":0,"soiltest_view_url":0},{"id":175217,"code":"B4KJ201801006-3466","latitude":"34.6538553","longitude":"135.4841269","source_code":"KK51357388006","project_name":"","survey_name":"\u962a\u795e\u9ad8\u901f\u9053\u8def\u5730\u8cea\u8cc7\u659913\u6d25\u5b88\u30fb\u5b89\u6cbb\u5ddd","client_name":"\u56fd\u571f\u4ea4\u901a\u7701\u8fd1\u757f\u5730\u65b9\u6574\u5099\u5c40\u6d6a\u901f\u56fd\u9053\u4e8b\u52d9\u6240","boring_xml_url":40,"boring_view_url":1,"soilmap_view_url":null,"soiltest_xml_url":0,"soiltest_view_url":0},{"id":175216,"code":"B4KJ201801006-3465","latitude":"34.6538553","longitude":"135.4841269","source_code":"KK51357388005","project_name":"","survey_name":"\u962a\u795e\u9ad8\u901f\u9053\u8def\u5730\u8cea\u8cc7\u659913\u6d25\u5b88\u30fb\u5b89\u6cbb\u5ddd","client_name":"\u56fd\u571f\u4ea4\u901a\u7701\u8fd1\u757f\u5730\u65b9\u6574\u5099\u5c40\u6d6a\u901f\u56fd\u9053\u4e8b\u52d9\u6240","boring_xml_url":40,"boring_view_url":1,"soilmap_view_url":null,"soiltest_xml_url":0,"soiltest_view_url":0},{"id":175215,"code":"B4KJ201801006-3464","latitude":"34.6574103","longitude":"135.4784328","source_code":"KK51357388004","project_name":"","survey_name":"\u962a\u795e\u9ad8\u901f\u9053\u8def\u5730\u8cea\u8cc7\u659913\u6d25\u5b88\u30fb\u5b89\u6cbb\u5ddd","client_name":"\u56fd\u571f\u4ea4\u901a\u7701\u8fd1\u757f\u5730\u65b9\u6574\u5099\u5c40\u6d6a\u901f\u56fd\u9053\u4e8b\u52d9\u6240","boring_xml_url":40,"boring_view_url":1,"soilmap_view_url":null,"soiltest_xml_url":0,"soiltest_view_url":0},{"id":175214,"code":"B4KJ201801006-3463","latitude":"34.6538553","longitude":"135.4841269","source_code":"KK51357388003","project_name":"","survey_name":"\u962a\u795e\u9ad8\u901f\u9053\u8def\u5730\u8cea\u8cc7\u659913\u6d25\u5b88\u30fb\u5b89\u6cbb\u5ddd","client_name":"\u56fd\u571f\u4ea4\u901a\u7701\u8fd1\u757f\u5730\u65b9\u6574\u5099\u5c40\u6d6a\u901f\u56fd\u9053\u4e8b\u52d9\u6240","boring_xml_url":40,"boring_view_url":1,"soilmap_view_url":null,"soiltest_xml_url":0,"soiltest_view_url":0},{"id":175213,"code":"B4KJ201801006-3462","latitude":"34.6536331","longitude":"135.4844047","source_code":"KK51357388001","project_name":"","survey_name":"\u962a\u795e\u9ad8\u901f\u9053\u8def\u5730\u8cea\u8cc7\u659913\u6d25\u5b88\u30fb\u5b89\u6cbb\u5ddd","client_name":"\u56fd\u571f\u4ea4\u901a\u7701\u8fd1\u757f\u5730\u65b9\u6574\u5099\u5c40\u6d6a\u901f\u56fd\u9053\u4e8b\u52d9\u6240","boring_xml_url":40,"boring_view_url":1,"soilmap_view_url":null,"soiltest_xml_url":0,"soiltest_view_url":0},{"id":175212,"code":"B4KJ201801006-3461","latitude":"34.6608542","longitude":"135.4680169","source_code":"KK51357387030","project_name":"","survey_name":"\u962a\u795e\u9ad8\u901f\u9053\u8def\u5730\u8cea\u8cc7\u659913\u6d25\u5b88\u30fb\u5b89\u6cbb\u5ddd","client_name":"\u56fd\u571f\u4ea4\u901a\u7701\u8fd1\u757f\u5730\u65b9\u6574\u5099\u5c40\u6d6a\u901f\u56fd\u9053\u4e8b\u52d9\u6240","boring_xml_url":40,"boring_view_url":1,"soilmap_view_url":null,"soiltest_xml_url":0,"soiltest_view_url":0},{"id":175211,"code":"B4KJ201801006-3460","latitude":"34.6608542","longitude":"135.4680169","source_code":"KK51357387029","project_name":"","survey_name":"\u962a\u795e\u9ad8\u901f\u9053\u8def\u5730\u8cea\u8cc7\u659913\u6d25\u5b88\u30fb\u5b89\u6cbb\u5ddd","client_name":"\u56fd\u571f\u4ea4\u901a\u7701\u8fd1\u757f\u5730\u65b9\u6574\u5099\u5c40\u6d6a\u901f\u56fd\u9053\u4e8b\u52d9\u6240","boring_xml_url":40,"boring_view_url":1,"soilmap_view_url":null,"soiltest_xml_url":0,"soiltest_view_url":0},{"id":175210,"code":"B4KJ201801006-3459","latitude":"34.6608542","longitude":"135.4680169","source_code":"KK51357387028","project_name":"","survey_name":"\u962a\u795e\u9ad8\u901f\u9053\u8def\u5730\u8cea\u8cc7\u659913\u6d25\u5b88\u30fb\u5b89\u6cbb\u5ddd","client_name":"\u56fd\u571f\u4ea4\u901a\u7701\u8fd1\u757f\u5730\u65b9\u6574\u5099\u5c40\u6d6a\u901f\u56fd\u9053\u4e8b\u52d9\u6240","boring_xml_url":40,"boring_view_url":1,"soilmap_view_url":null,"soiltest_xml_url":0,"soiltest_view_url":0},{"id":175209,"code":"B4KJ201801006-3458","latitude":"34.6608542","longitude":"135.4680169","source_code":"KK51357387027","project_name":"","survey_name":"\u962a\u795e\u9ad8\u901f\u9053\u8def\u5730\u8cea\u8cc7\u659913\u6d25\u5b88\u30fb\u5b89\u6cbb\u5ddd","client_name":"\u56fd\u571f\u4ea4\u901a\u7701\u8fd1\u757f\u5730\u65b9\u6574\u5099\u5c40\u6d6a\u901f\u56fd\u9053\u4e8b\u52d9\u6240","boring_xml_url":40,"boring_view_url":1,"soilmap_view_url":null,"soiltest_xml_url":0,"soiltest_view_url":0},{"id":175208,"code":"B4KJ201801006-3457","latitude":"34.6608542","longitude":"135.4680169","source_code":"KK51357387026","project_name":"","survey_name":"\u962a\u795e\u9ad8\u901f\u9053\u8def\u5730\u8cea\u8cc7\u659913\u6d25\u5b88\u30fb\u5b89\u6cbb\u5ddd","client_name":"\u56fd\u571f\u4ea4\u901a\u7701\u8fd1\u757f\u5730\u65b9\u6574\u5099\u5c40\u6d6a\u901f\u56fd\u9053\u4e8b\u52d9\u6240","boring_xml_url":40,"boring_view_url":1,"soilmap_view_url":null,"soiltest_xml_url":0,"soiltest_view_url":0},{"id":175207,"code":"B4KJ201801006-3456","latitude":"34.6606319","longitude":"135.4680169","source_code":"KK51357387025","project_name":"","survey_name":"\u962a\u795e\u9ad8\u901f\u9053\u8def\u5730\u8cea\u8cc7\u659913\u6d25\u5b88\u30fb\u5b89\u6cbb\u5ddd","client_name":"\u56fd\u571f\u4ea4\u901a\u7701\u8fd1\u757f\u5730\u65b9\u6574\u5099\u5c40\u6d6a\u901f\u56fd\u9053\u4e8b\u52d9\u6240","boring_xml_url":40,"boring_view_url":1,"soilmap_view_url":null,"soiltest_xml_url":0,"soiltest_view_url":0},{"id":175206,"code":"B4KJ201801006-3455","latitude":"34.6606319","longitude":"135.4680169","source_code":"KK51357387024","project_name":"","survey_name":"\u962a\u795e\u9ad8\u901f\u9053\u8def\u5730\u8cea\u8cc7\u659913\u6d25\u5b88\u30fb\u5b89\u6cbb\u5ddd","client_name":"\u56fd\u571f\u4ea4\u901a\u7701\u8fd1\u757f\u5730\u65b9\u6574\u5099\u5c40\u6d6a\u901f\u56fd\u9053\u4e8b\u52d9\u6240","boring_xml_url":40,"boring_view_url":1,"soilmap_view_url":null,"soiltest_xml_url":0,"soiltest_view_url":0},{"id":175205,"code":"B4KJ201801006-3454","latitude":"34.6606319","longitude":"135.4680169","source_code":"KK51357387023","project_name":"","survey_name":"\u962a\u795e\u9ad8\u901f\u9053\u8def\u5730\u8cea\u8cc7\u659913\u6d25\u5b88\u30fb\u5b89\u6cbb\u5ddd","client_name":"\u56fd\u571f\u4ea4\u901a\u7701\u8fd1\u757f\u5730\u65b9\u6574\u5099\u5c40\u6d6a\u901f\u56fd\u9053\u4e8b\u52d9\u6240","boring_xml_url":40,"boring_view_url":1,"soilmap_view_url":null,"soiltest_xml_url":0,"soiltest_view_url":0},{"id":175204,"code":"B4KJ201801006-3453","latitude":"34.6604097","longitude":"135.4677392","source_code":"KK51357387022","project_name":"","survey_name":"\u962a\u795e\u9ad8\u901f\u9053\u8def\u5730\u8cea\u8cc7\u659913\u6d25\u5b88\u30fb\u5b89\u6cbb\u5ddd","client_name":"\u56fd\u571f\u4ea4\u901a\u7701\u8fd1\u757f\u5730\u65b9\u6574\u5099\u5c40\u6d6a\u901f\u56fd\u9053\u4e8b\u52d9\u6240","boring_xml_url":40,"boring_view_url":1,"soilmap_view_url":null,"soiltest_xml_url":0,"soiltest_view_url":0},{"id":175203,"code":"B4KJ201801006-3452","latitude":"34.6601875","longitude":"135.4682947","source_code":"KK51357387021","project_name":"","survey_name":"\u962a\u795e\u9ad8\u901f\u9053\u8def\u5730\u8cea\u8cc7\u659913\u6d25\u5b88\u30fb\u5b89\u6cbb\u5ddd","client_name":"\u56fd\u571f\u4ea4\u901a\u7701\u8fd1\u757f\u5730\u65b9\u6574\u5099\u5c40\u6d6a\u901f\u56fd\u9053\u4e8b\u52d9\u6240","boring_xml_url":40,"boring_view_url":1,"soilmap_view_url":null,"soiltest_xml_url":0,"soiltest_view_url":0},{"id":175202,"code":"B4KJ201801006-3451","latitude":"34.6601875","longitude":"135.4682947","source_code":"KK51357387020","project_name":"","survey_name":"\u962a\u795e\u9ad8\u901f\u9053\u8def\u5730\u8cea\u8cc7\u659913\u6d25\u5b88\u30fb\u5b89\u6cbb\u5ddd","client_name":"\u56fd\u571f\u4ea4\u901a\u7701\u8fd1\u757f\u5730\u65b9\u6574\u5099\u5c40\u6d6a\u901f\u56fd\u9053\u4e8b\u52d9\u6240","boring_xml_url":40,"boring_view_url":1,"soilmap_view_url":null,"soiltest_xml_url":0,"soiltest_view_url":0},{"id":175201,"code":"B4KJ201801006-3450","latitude":"34.6599653","longitude":"135.4685725","source_code":"KK51357387019","project_name":"","survey_name":"\u962a\u795e\u9ad8\u901f\u9053\u8def\u5730\u8cea\u8cc7\u659913\u6d25\u5b88\u30fb\u5b89\u6cbb\u5ddd","client_name":"\u56fd\u571f\u4ea4\u901a\u7701\u8fd1\u757f\u5730\u65b9\u6574\u5099\u5c40\u6d6a\u901f\u56fd\u9053\u4e8b\u52d9\u6240","boring_xml_url":40,"boring_view_url":1,"soilmap_view_url":null,"soiltest_xml_url":0,"soiltest_view_url":0},{"id":175200,"code":"B4KJ201801006-3449","latitude":"34.6597431","longitude":"135.4685725","source_code":"KK51357387017","project_name":"","survey_name":"\u962a\u795e\u9ad8\u901f\u9053\u8def\u5730\u8cea\u8cc7\u659913\u6d25\u5b88\u30fb\u5b89\u6cbb\u5ddd","client_name":"\u56fd\u571f\u4ea4\u901a\u7701\u8fd1\u757f\u5730\u65b9\u6574\u5099\u5c40\u6d6a\u901f\u56fd\u9053\u4e8b\u52d9\u6240","boring_xml_url":40,"boring_view_url":1,"soilmap_view_url":null,"soiltest_xml_url":0,"soiltest_view_url":0},{"id":175199,"code":"B4KJ201801006-3448","latitude":"34.6595208","longitude":"135.4688503","source_code":"KK51357387016","project_name":"","survey_name":"\u962a\u795e\u9ad8\u901f\u9053\u8def\u5730\u8cea\u8cc7\u659913\u6d25\u5b88\u30fb\u5b89\u6cbb\u5ddd","client_name":"\u56fd\u571f\u4ea4\u901a\u7701\u8fd1\u757f\u5730\u65b9\u6574\u5099\u5c40\u6d6a\u901f\u56fd\u9053\u4e8b\u52d9\u6240","boring_xml_url":40,"boring_view_url":1,"soilmap_view_url":null,"soiltest_xml_url":0,"soiltest_view_url":0},{"id":175198,"code":"B4KJ201801006-3447","latitude":"34.6595208","longitude":"135.4685725","source_code":"KK51357387015","project_name":"","survey_name":"\u962a\u795e\u9ad8\u901f\u9053\u8def\u5730\u8cea\u8cc7\u659913\u6d25\u5b88\u30fb\u5b89\u6cbb\u5ddd","client_name":"\u56fd\u571f\u4ea4\u901a\u7701\u8fd1\u757f\u5730\u65b9\u6574\u5099\u5c40\u6d6a\u901f\u56fd\u9053\u4e8b\u52d9\u6240","boring_xml_url":40,"boring_view_url":1,"soilmap_view_url":null,"soiltest_xml_url":0,"soiltest_view_url":0},{"id":175197,"code":"B4KJ201801006-3446","latitude":"34.6590486","longitude":"135.4691281","source_code":"KK51357387014","project_name":"","survey_name":"\u962a\u795e\u9ad8\u901f\u9053\u8def\u5730\u8cea\u8cc7\u659913\u6d25\u5b88\u30fb\u5b89\u6cbb\u5ddd","client_name":"\u56fd\u571f\u4ea4\u901a\u7701\u8fd1\u757f\u5730\u65b9\u6574\u5099\u5c40\u6d6a\u901f\u56fd\u9053\u4e8b\u52d9\u6240","boring_xml_url":40,"boring_view_url":1,"soilmap_view_url":null,"soiltest_xml_url":0,"soiltest_view_url":0},{"id":175196,"code":"B4KJ201801006-3445","latitude":"34.6590486","longitude":"135.4691281","source_code":"KK51357387013","project_name":"","survey_name":"\u962a\u795e\u9ad8\u901f\u9053\u8def\u5730\u8cea\u8abf\u67fb13\u6d25\u5b88\u30fb\u5b89\u6cbb\u5ddd","client_name":"\u56fd\u571f\u4ea4\u901a\u7701\u8fd1\u757f\u5730\u65b9\u6574\u5099\u5c40\u6d6a\u901f\u56fd\u9053\u4e8b\u52d9\u6240","boring_xml_url":40,"boring_view_url":1,"soilmap_view_url":null,"soiltest_xml_url":0,"soiltest_view_url":0}]}}