{"header":{"xyz":{"source":[],"mosaic":false},"page":4847,"raw":{"soiltest_result":"0","bbox":"57.598333,109.544722,1.933333,163.806111","page":"4847"},"conditions":{"soiltest_result":0,"north":57.598333,"west":109.544722,"south":1.933333,"east":163.806111},"success":true,"message":""},"data":{"meta":{"total":212844,"page":4847,"pages":7095,"count":30},"values":[{"id":175165,"code":"B4KJ201801006-3414","latitude":"34.6473006","longitude":"135.4880158","source_code":"KK51357379012","project_name":"","survey_name":"\u962a\u795e\u9ad8\u901f\u9053\u8def\u5730\u8cea\u8cc7\u659911\u6e4a\u753a-\u583a\u7de8","client_name":"\u56fd\u571f\u4ea4\u901a\u7701\u8fd1\u757f\u5730\u65b9\u6574\u5099\u5c40\u6d6a\u901f\u56fd\u9053\u4e8b\u52d9\u6240","boring_xml_url":40,"boring_view_url":1,"soilmap_view_url":null,"soiltest_xml_url":0,"soiltest_view_url":0},{"id":175164,"code":"B4KJ201801006-3413","latitude":"34.645745","longitude":"135.4877381","source_code":"KK51357379011","project_name":"","survey_name":"\u962a\u795e\u9ad8\u901f\u9053\u8def\u5730\u8cea\u8cc7\u659911\u6e4a\u753a-\u583a\u7de8","client_name":"\u56fd\u571f\u4ea4\u901a\u7701\u8fd1\u757f\u5730\u65b9\u6574\u5099\u5c40\u6d6a\u901f\u56fd\u9053\u4e8b\u52d9\u6240","boring_xml_url":40,"boring_view_url":1,"soilmap_view_url":null,"soiltest_xml_url":0,"soiltest_view_url":0},{"id":175163,"code":"B4KJ201801006-3412","latitude":"34.6516056","longitude":"135.4921819","source_code":"KK51357379009","project_name":"","survey_name":"\u56fd\u905343\u53f7\u897f\u6210 \u6d6a\u901f\u5730\u533a\u5730\u8cea\u8abf\u67fb\u4f5c\u696d","client_name":"\u56fd\u571f\u4ea4\u901a\u7701\u8fd1\u757f\u5730\u65b9\u6574\u5099\u5c40\u962a\u795e\u56fd\u9053\u4e8b\u52d9\u6240","boring_xml_url":40,"boring_view_url":1,"soilmap_view_url":null,"soiltest_xml_url":0,"soiltest_view_url":0},{"id":175162,"code":"B4KJ201801006-3411","latitude":"34.6511058","longitude":"135.495515","source_code":"KK51357379008","project_name":"","survey_name":"\u56fd\u905343\u53f7\u5ef6\u4f38\u90e8\u5730\u8cea\u8abf\u67fb\u4f5c\u696d","client_name":"\u56fd\u571f\u4ea4\u901a\u7701\u8fd1\u757f\u5730\u65b9\u6574\u5099\u5c40\u962a\u795e\u56fd\u9053\u4e8b\u52d9\u6240","boring_xml_url":40,"boring_view_url":1,"soilmap_view_url":null,"soiltest_xml_url":0,"soiltest_view_url":0},{"id":175161,"code":"B4KJ201801006-3410","latitude":"34.6490781","longitude":"135.4909319","source_code":"KK51357379007","project_name":"","survey_name":"\u56fd\u905343\u53f7\u897f\u6210 \u6d6a\u901f\u5730\u533a\u5730\u8cea\u8abf\u67fb\u4f5c\u696d","client_name":"\u56fd\u571f\u4ea4\u901a\u7701\u8fd1\u757f\u5730\u65b9\u6574\u5099\u5c40\u962a\u795e\u56fd\u9053\u4e8b\u52d9\u6240","boring_xml_url":40,"boring_view_url":1,"soilmap_view_url":null,"soiltest_xml_url":0,"soiltest_view_url":0},{"id":175160,"code":"B4KJ201801006-3409","latitude":"34.6527167","longitude":"135.4869044","source_code":"KK51357379006","project_name":"","survey_name":"\u56fd\u905343\u53f7\u897f\u6210 \u6d6a\u901f\u5730\u533a\u5730\u8cea\u8abf\u67fb\u4f5c\u696d","client_name":"\u56fd\u571f\u4ea4\u901a\u7701\u8fd1\u757f\u5730\u65b9\u6574\u5099\u5c40\u962a\u795e\u56fd\u9053\u4e8b\u52d9\u6240","boring_xml_url":40,"boring_view_url":1,"soilmap_view_url":null,"soiltest_xml_url":0,"soiltest_view_url":0},{"id":175159,"code":"B4KJ201801006-3408","latitude":"34.6521611","longitude":"135.4902375","source_code":"KK51357379005","project_name":"","survey_name":"\u56fd\u905343\u53f7\u897f\u6210 \u6d6a\u9023\u5730\u533a\u5730\u8cea\u8abf\u67fb\u4f5c\u696d","client_name":"\u56fd\u571f\u4ea4\u901a\u7701\u8fd1\u757f\u5730\u65b9\u6574\u5099\u5c40\u962a\u795e\u56fd\u9053\u4e8b\u52d9\u6240","boring_xml_url":40,"boring_view_url":1,"soilmap_view_url":null,"soiltest_xml_url":0,"soiltest_view_url":0},{"id":175158,"code":"B4KJ201801006-3407","latitude":"34.6517722","longitude":"135.4918486","source_code":"KK51357379004","project_name":"","survey_name":"\u56fd\u905343\u53f7\u5ef6\u4f38\u90e8\u5730\u8cea\u8abf\u67fb\u4f5c\u696d","client_name":"\u56fd\u571f\u4ea4\u901a\u7701\u8fd1\u757f\u5730\u65b9\u6574\u5099\u5c40\u962a\u795e\u56fd\u9053\u4e8b\u52d9\u6240","boring_xml_url":40,"boring_view_url":1,"soilmap_view_url":null,"soiltest_xml_url":0,"soiltest_view_url":0},{"id":175157,"code":"B4KJ201801006-3406","latitude":"34.6490781","longitude":"135.4909319","source_code":"KK51357379002","project_name":"","survey_name":"\u5927\u548c\u7530\u5730\u533a\u571f\u8cea\u8abf\u67fb\u4ed61\u4ef6\u4f5c\u696d","client_name":"\u56fd\u571f\u4ea4\u901a\u7701\u8fd1\u757f\u5730\u65b9\u6574\u5099\u5c40\u962a\u795e\u56fd\u9053\u4e8b\u52d9\u6240","boring_xml_url":40,"boring_view_url":1,"soilmap_view_url":null,"soiltest_xml_url":0,"soiltest_view_url":0},{"id":175156,"code":"B4KJ201801006-3405","latitude":"34.6531878","longitude":"135.4430194","source_code":"KK51357375028","project_name":"","survey_name":"\u962a\u795e\u9ad8\u901f\u9053\u8def\u5730\u8cea\u8cc7\u6599\u5927\u962a\u6e7e\u5cb8\u7dda(1)\u7de8","client_name":"\u56fd\u571f\u4ea4\u901a\u7701\u8fd1\u757f\u5730\u65b9\u6574\u5099\u5c40\u6d6a\u901f\u56fd\u9053\u4e8b\u52d9\u6240","boring_xml_url":40,"boring_view_url":1,"soilmap_view_url":null,"soiltest_xml_url":0,"soiltest_view_url":0},{"id":175155,"code":"B4KJ201801006-3404","latitude":"34.6524933","longitude":"135.443575","source_code":"KK51357375027","project_name":"","survey_name":"\u962a\u795e\u9ad8\u901f\u9053\u8def\u5730\u8cea\u8cc7\u6599\u5927\u962a\u6e7e\u5cb8\u7dda(1)\u7de8","client_name":"\u56fd\u571f\u4ea4\u901a\u7701\u8fd1\u757f\u5730\u65b9\u6574\u5099\u5c40\u6d6a\u901f\u56fd\u9053\u4e8b\u52d9\u6240","boring_xml_url":40,"boring_view_url":1,"soilmap_view_url":null,"soiltest_xml_url":0,"soiltest_view_url":0},{"id":175154,"code":"B4KJ201801006-3403","latitude":"34.6518267","longitude":"135.4432972","source_code":"KK51357375025","project_name":"","survey_name":"\u962a\u795e\u9ad8\u901f\u9053\u8def\u5730\u8cea\u8cc7\u6599\u5927\u962a\u6e7e\u5cb8\u7dda(1)\u7de8","client_name":"\u56fd\u571f\u4ea4\u901a\u7701\u8fd1\u757f\u5730\u65b9\u6574\u5099\u5c40\u6d6a\u901f\u56fd\u9053\u4e8b\u52d9\u6240","boring_xml_url":40,"boring_view_url":1,"soilmap_view_url":null,"soiltest_xml_url":0,"soiltest_view_url":0},{"id":175153,"code":"B4KJ201801006-3402","latitude":"34.6516044","longitude":"135.443575","source_code":"KK51357375024","project_name":"","survey_name":"\u962a\u795e\u9ad8\u901f\u9053\u8def\u5730\u8cea\u8cc7\u6599\u5927\u962a\u6e7e\u5cb8\u7dda(1)\u7de8","client_name":"\u56fd\u571f\u4ea4\u901a\u7701\u8fd1\u757f\u5730\u65b9\u6574\u5099\u5c40\u6d6a\u901f\u56fd\u9053\u4e8b\u52d9\u6240","boring_xml_url":40,"boring_view_url":1,"soilmap_view_url":null,"soiltest_xml_url":0,"soiltest_view_url":0},{"id":175152,"code":"B4KJ201801006-3401","latitude":"34.6511603","longitude":"135.443575","source_code":"KK51357375023","project_name":"","survey_name":"\u962a\u795e\u9ad8\u901f\u9053\u8def\u5730\u8cea\u8cc7\u6599\u5927\u962a\u6e7e\u5cb8\u7dda(1)\u7de8","client_name":"\u56fd\u571f\u4ea4\u901a\u7701\u8fd1\u757f\u5730\u65b9\u6574\u5099\u5c40\u6d6a\u901f\u56fd\u9053\u4e8b\u52d9\u6240","boring_xml_url":40,"boring_view_url":1,"soilmap_view_url":null,"soiltest_xml_url":0,"soiltest_view_url":0},{"id":175151,"code":"B4KJ201801006-3400","latitude":"34.6509381","longitude":"135.4430194","source_code":"KK51357375022","project_name":"","survey_name":"\u962a\u795e\u9ad8\u901f\u9053\u8def\u5730\u8cea\u8cc7\u6599\u5927\u962a\u6e7e\u5cb8\u7dda(1)\u7de8","client_name":"\u56fd\u571f\u4ea4\u901a\u7701\u8fd1\u757f\u5730\u65b9\u6574\u5099\u5c40\u6d6a\u901f\u56fd\u9053\u4e8b\u52d9\u6240","boring_xml_url":40,"boring_view_url":1,"soilmap_view_url":null,"soiltest_xml_url":0,"soiltest_view_url":0},{"id":175150,"code":"B4KJ201801006-3399","latitude":"34.6504658","longitude":"135.4432972","source_code":"KK51357375021","project_name":"","survey_name":"\u962a\u795e\u9ad8\u901f\u9053\u8def\u5730\u8cea\u8cc7\u6599\u5927\u962a\u6e7e\u5cb8\u7dda(1)\u7de8","client_name":"\u56fd\u571f\u4ea4\u901a\u7701\u8fd1\u757f\u5730\u65b9\u6574\u5099\u5c40\u6d6a\u901f\u56fd\u9053\u4e8b\u52d9\u6240","boring_xml_url":40,"boring_view_url":1,"soilmap_view_url":null,"soiltest_xml_url":0,"soiltest_view_url":0},{"id":175149,"code":"B4KJ201801006-3398","latitude":"34.6506881","longitude":"135.4427417","source_code":"KK51357375020","project_name":"","survey_name":"\u962a\u795e\u9ad8\u901f\u9053\u8def\u5730\u8cea\u8cc7\u6599\u5927\u962a\u6e7e\u5cb8\u7dda(1)\u7de8","client_name":"\u56fd\u571f\u4ea4\u901a\u7701\u8fd1\u757f\u5730\u65b9\u6574\u5099\u5c40\u6d6a\u901f\u56fd\u9053\u4e8b\u52d9\u6240","boring_xml_url":40,"boring_view_url":1,"soilmap_view_url":null,"soiltest_xml_url":0,"soiltest_view_url":0},{"id":175148,"code":"B4KJ201801006-3397","latitude":"34.6502436","longitude":"135.4427417","source_code":"KK51357375019","project_name":"","survey_name":"\u962a\u795e\u9ad8\u901f\u9053\u8def\u5730\u8cea\u8cc7\u6599\u5927\u962a\u6e7e\u5cb8\u7dda(1)\u7de8","client_name":"\u56fd\u571f\u4ea4\u901a\u7701\u8fd1\u757f\u5730\u65b9\u6574\u5099\u5c40\u6d6a\u901f\u56fd\u9053\u4e8b\u52d9\u6240","boring_xml_url":40,"boring_view_url":1,"soilmap_view_url":null,"soiltest_xml_url":0,"soiltest_view_url":0},{"id":175147,"code":"B4KJ201801006-3396","latitude":"34.6497992","longitude":"135.4421864","source_code":"KK51357375018","project_name":"","survey_name":"\u962a\u795e\u9ad8\u901f\u9053\u8def\u5730\u8cea\u8cc7\u6599\u5927\u962a\u6e7e\u5cb8\u7dda(1)\u7de8","client_name":"\u56fd\u571f\u4ea4\u901a\u7701\u8fd1\u757f\u5730\u65b9\u6574\u5099\u5c40\u6d6a\u901f\u56fd\u9053\u4e8b\u52d9\u6240","boring_xml_url":40,"boring_view_url":1,"soilmap_view_url":null,"soiltest_xml_url":0,"soiltest_view_url":0},{"id":175146,"code":"B4KJ201801006-3395","latitude":"34.6488825","longitude":"135.4416308","source_code":"KK51357375015","project_name":"","survey_name":"\u962a\u795e\u9ad8\u901f\u9053\u8def\u5730\u8cea\u8cc7\u6599\u5927\u962a\u6e7e\u5cb8\u7dda(1)\u7de8","client_name":"\u56fd\u571f\u4ea4\u901a\u7701\u8fd1\u757f\u5730\u65b9\u6574\u5099\u5c40\u6d6a\u901f\u56fd\u9053\u4e8b\u52d9\u6240","boring_xml_url":40,"boring_view_url":1,"soilmap_view_url":null,"soiltest_xml_url":0,"soiltest_view_url":0},{"id":175145,"code":"B4KJ201801006-3394","latitude":"34.6484383","longitude":"135.4419086","source_code":"KK51357375014","project_name":"","survey_name":"\u962a\u795e\u9ad8\u901f\u9053\u8def\u5730\u8cea\u8cc7\u6599\u5927\u962a\u6e7e\u5cb8\u7dda(1)\u7de8","client_name":"\u56fd\u571f\u4ea4\u901a\u7701\u8fd1\u757f\u5730\u65b9\u6574\u5099\u5c40\u6d6a\u901f\u56fd\u9053\u4e8b\u52d9\u6240","boring_xml_url":40,"boring_view_url":1,"soilmap_view_url":null,"soiltest_xml_url":0,"soiltest_view_url":0},{"id":175144,"code":"B4KJ201801006-3393","latitude":"34.6482161","longitude":"135.4416308","source_code":"KK51357375013","project_name":"","survey_name":"\u962a\u795e\u9ad8\u901f\u9053\u8def\u5730\u8cea\u8cc7\u6599\u5927\u962a\u6e7e\u5cb8\u7dda(1)\u7de8","client_name":"\u56fd\u571f\u4ea4\u901a\u7701\u8fd1\u757f\u5730\u65b9\u6574\u5099\u5c40\u6d6a\u901f\u56fd\u9053\u4e8b\u52d9\u6240","boring_xml_url":40,"boring_view_url":1,"soilmap_view_url":null,"soiltest_xml_url":0,"soiltest_view_url":0},{"id":175143,"code":"B4KJ201801006-3392","latitude":"34.6482161","longitude":"135.4410753","source_code":"KK51357375012","project_name":"","survey_name":"\u962a\u795e\u9ad8\u901f\u9053\u8def\u5730\u8cea\u8cc7\u6599\u5927\u962a\u6e7e\u5cb8\u7dda(1)\u7de8","client_name":"\u56fd\u571f\u4ea4\u901a\u7701\u8fd1\u757f\u5730\u65b9\u6574\u5099\u5c40\u6d6a\u901f\u56fd\u9053\u4e8b\u52d9\u6240","boring_xml_url":40,"boring_view_url":1,"soilmap_view_url":null,"soiltest_xml_url":0,"soiltest_view_url":0},{"id":175142,"code":"B4KJ201801006-3391","latitude":"34.6472994","longitude":"135.4413531","source_code":"KK51357375011","project_name":"","survey_name":"\u962a\u795e\u9ad8\u901f\u9053\u8def\u5730\u8cea\u8cc7\u6599\u5927\u962a\u6e7e\u5cb8\u7dda(1)\u7de8","client_name":"\u56fd\u571f\u4ea4\u901a\u7701\u8fd1\u757f\u5730\u65b9\u6574\u5099\u5c40\u6d6a\u901f\u56fd\u9053\u4e8b\u52d9\u6240","boring_xml_url":40,"boring_view_url":1,"soilmap_view_url":null,"soiltest_xml_url":0,"soiltest_view_url":0},{"id":175141,"code":"B4KJ201801006-3390","latitude":"34.6470772","longitude":"135.4410753","source_code":"KK51357375010","project_name":"","survey_name":"\u962a\u795e\u9ad8\u901f\u9053\u8def\u5730\u8cea\u8cc7\u6599\u5927\u962a\u6e7e\u5cb8\u7dda(1)\u7de8","client_name":"\u56fd\u571f\u4ea4\u901a\u7701\u8fd1\u757f\u5730\u65b9\u6574\u5099\u5c40\u6d6a\u901f\u56fd\u9053\u4e8b\u52d9\u6240","boring_xml_url":40,"boring_view_url":1,"soilmap_view_url":null,"soiltest_xml_url":0,"soiltest_view_url":0},{"id":175140,"code":"B4KJ201801006-3389","latitude":"34.6470772","longitude":"135.4407975","source_code":"KK51357375009","project_name":"","survey_name":"\u962a\u795e\u9ad8\u901f\u9053\u8def\u5730\u8cea\u8cc7\u6599\u5927\u962a\u6e7e\u5cb8\u7dda(1)\u7de8","client_name":"\u56fd\u571f\u4ea4\u901a\u7701\u8fd1\u757f\u5730\u65b9\u6574\u5099\u5c40\u6d6a\u901f\u56fd\u9053\u4e8b\u52d9\u6240","boring_xml_url":40,"boring_view_url":1,"soilmap_view_url":null,"soiltest_xml_url":0,"soiltest_view_url":0},{"id":175139,"code":"B4KJ201801006-3388","latitude":"34.646855","longitude":"135.4399644","source_code":"KK51357375008","project_name":"","survey_name":"\u962a\u795e\u9ad8\u901f\u9053\u8def\u5730\u8cea\u8cc7\u6599\u5927\u962a\u6e7e\u5cb8\u7dda(1)\u7de8","client_name":"\u56fd\u571f\u4ea4\u901a\u7701\u8fd1\u757f\u5730\u65b9\u6574\u5099\u5c40\u6d6a\u901f\u56fd\u9053\u4e8b\u52d9\u6240","boring_xml_url":40,"boring_view_url":1,"soilmap_view_url":null,"soiltest_xml_url":0,"soiltest_view_url":0},{"id":175138,"code":"B4KJ201801006-3387","latitude":"34.6466328","longitude":"135.4399644","source_code":"KK51357375006","project_name":"","survey_name":"\u962a\u795e\u9ad8\u901f\u9053\u8def\u5730\u8cea\u8cc7\u6599\u5927\u962a\u6e7e\u5cb8\u7dda(1)\u7de8","client_name":"\u56fd\u571f\u4ea4\u901a\u7701\u8fd1\u757f\u5730\u65b9\u6574\u5099\u5c40\u6d6a\u901f\u56fd\u9053\u4e8b\u52d9\u6240","boring_xml_url":40,"boring_view_url":1,"soilmap_view_url":null,"soiltest_xml_url":0,"soiltest_view_url":0},{"id":175137,"code":"B4KJ201801006-3386","latitude":"34.6466328","longitude":"135.4388533","source_code":"KK51357375005","project_name":"","survey_name":"\u962a\u795e\u9ad8\u901f\u9053\u8def\u5730\u8cea\u8cc7\u6599\u5927\u962a\u6e7e\u5cb8\u7dda(1)\u7de8","client_name":"\u56fd\u571f\u4ea4\u901a\u7701\u8fd1\u757f\u5730\u65b9\u6574\u5099\u5c40\u6d6a\u901f\u56fd\u9053\u4e8b\u52d9\u6240","boring_xml_url":40,"boring_view_url":1,"soilmap_view_url":null,"soiltest_xml_url":0,"soiltest_view_url":0},{"id":175136,"code":"B4KJ201801006-3385","latitude":"34.6436067","longitude":"135.4966539","source_code":"KK51357369021","project_name":"","survey_name":"\u56fd\u905326\u53f7\u6d6a\u901f\u7b2c\u4e00\u5171\u540c\u6e9d\u5730\u8cea\u8abf\u67fb\u696d\u52d9","client_name":"\u56fd\u571f\u4ea4\u901a\u7701\u8fd1\u757f\u5730\u65b9\u6574\u5099\u5c40\u5927\u962a\u56fd\u9053\u4e8b\u52d9\u6240","boring_xml_url":40,"boring_view_url":1,"soilmap_view_url":null,"soiltest_xml_url":0,"soiltest_view_url":0}]}}