{"header":{"xyz":{"source":[],"mosaic":false},"page":4851,"raw":{"soiltest_result":"0","bbox":"57.598333,109.544722,1.933333,163.806111","page":"4851"},"conditions":{"soiltest_result":0,"north":57.598333,"west":109.544722,"south":1.933333,"east":163.806111},"success":true,"message":""},"data":{"meta":{"total":212844,"page":4851,"pages":7095,"count":30},"values":[{"id":175045,"code":"B4KJ201801006-3294","latitude":"34.6407447","longitude":"135.4409367","source_code":"KK51357325011","project_name":"","survey_name":"\u7bc9\u6e2f\u516b\u5e61\u5730\u533a\u571f\u8cea\u8abf\u67fb\u4ed6\u4f5c\u696d","client_name":"\u56fd\u571f\u4ea4\u901a\u7701\u8fd1\u757f\u5730\u65b9\u6574\u5099\u5c40\u5927\u548c\u5ddd\u6cb3\u5ddd\u4e8b\u52d9\u6240","boring_xml_url":40,"boring_view_url":1,"soilmap_view_url":null,"soiltest_xml_url":0,"soiltest_view_url":0},{"id":175044,"code":"B4KJ201801006-3293","latitude":"34.6053042","longitude":"135.4432989","source_code":"KK51357325010","project_name":"","survey_name":"\u7bc9\u6e2f\u516b\u5e61\u5730\u533a\u571f\u8cea\u8abf\u67fb\u4ed6\u4f5c\u696d","client_name":"\u56fd\u571f\u4ea4\u901a\u7701\u8fd1\u757f\u5730\u65b9\u6574\u5099\u5c40\u5927\u548c\u5ddd\u6cb3\u5ddd\u4e8b\u52d9\u6240","boring_xml_url":40,"boring_view_url":1,"soilmap_view_url":null,"soiltest_xml_url":0,"soiltest_view_url":0},{"id":175043,"code":"B4KJ201801006-3292","latitude":"34.6053042","longitude":"135.4432989","source_code":"KK51357325009","project_name":"","survey_name":"\u7bc9\u6e2f\u516b\u5e61\u5730\u533a\u571f\u8cea\u8abf\u67fb\u4ed6\u4f5c\u696d","client_name":"\u56fd\u571f\u4ea4\u901a\u7701\u8fd1\u757f\u5730\u65b9\u6574\u5099\u5c40\u5927\u548c\u5ddd\u6cb3\u5ddd\u4e8b\u52d9\u6240","boring_xml_url":40,"boring_view_url":1,"soilmap_view_url":null,"soiltest_xml_url":0,"soiltest_view_url":0},{"id":175042,"code":"B4KJ201801006-3291","latitude":"34.6060542","longitude":"135.4404381","source_code":"KK51357325008","project_name":"","survey_name":"\u5927\u548c\u5ddd\u6cb3\u53e3\u90e8\u5de6\u5cb8\u571f\u8cea\u8abf\u67fb\u4ed6\u4f5c\u696d","client_name":"\u56fd\u571f\u4ea4\u901a\u7701\u8fd1\u757f\u5730\u65b9\u6574\u5099\u5c40\u5927\u548c\u5ddd\u6cb3\u5ddd\u4e8b\u52d9\u6240","boring_xml_url":40,"boring_view_url":1,"soilmap_view_url":null,"soiltest_xml_url":0,"soiltest_view_url":0},{"id":175041,"code":"B4KJ201801006-3290","latitude":"34.6060542","longitude":"135.4404103","source_code":"KK51357325007","project_name":"","survey_name":"\u5927\u548c\u5ddd\u6cb3\u53e3\u90e8\u5de6\u5cb8\u571f\u8cea\u8abf\u67fb\u4ed6\u4f5c\u696d","client_name":"\u56fd\u571f\u4ea4\u901a\u7701\u8fd1\u757f\u5730\u65b9\u6574\u5099\u5c40\u5927\u548c\u5ddd\u6cb3\u5ddd\u4e8b\u52d9\u6240","boring_xml_url":40,"boring_view_url":1,"soilmap_view_url":null,"soiltest_xml_url":0,"soiltest_view_url":0},{"id":175040,"code":"B4KJ201801006-3289","latitude":"34.6060542","longitude":"135.4402436","source_code":"KK51357325006","project_name":"","survey_name":"\u5927\u548c\u5ddd\u6cb3\u53e3\u90e8\u5de6\u5cb8\u571f\u8cea\u8abf\u67fb\u4ed6\u4f5c\u696d","client_name":"\u56fd\u571f\u4ea4\u901a\u7701\u8fd1\u757f\u5730\u65b9\u6574\u5099\u5c40\u5927\u548c\u5ddd\u6cb3\u5ddd\u4e8b\u52d9\u6240","boring_xml_url":40,"boring_view_url":1,"soilmap_view_url":null,"soiltest_xml_url":0,"soiltest_view_url":0},{"id":175039,"code":"B4KJ201801006-3288","latitude":"34.6060542","longitude":"135.4402158","source_code":"KK51357325005","project_name":"","survey_name":"\u5927\u548c\u5ddd\u6cb3\u53e3\u90e8\u5de6\u5cb8\u571f\u8cea\u8abf\u67fb\u4ed6\u4f5c\u696d","client_name":"\u56fd\u571f\u4ea4\u901a\u7701\u8fd1\u757f\u5730\u65b9\u6574\u5099\u5c40\u5927\u548c\u5ddd\u6cb3\u5ddd\u4e8b\u52d9\u6240","boring_xml_url":40,"boring_view_url":1,"soilmap_view_url":null,"soiltest_xml_url":0,"soiltest_view_url":0},{"id":175038,"code":"B4KJ201801006-3287","latitude":"34.6060542","longitude":"135.4396881","source_code":"KK51357325004","project_name":"","survey_name":"\u5927\u548c\u5ddd\u6cb3\u53e3\u90e8\u5de6\u5cb8\u571f\u8cea\u8abf\u67fb\u4ed6\u4f5c\u696d","client_name":"\u56fd\u571f\u4ea4\u901a\u7701\u8fd1\u757f\u5730\u65b9\u6574\u5099\u5c40\u5927\u548c\u5ddd\u6cb3\u5ddd\u4e8b\u52d9\u6240","boring_xml_url":40,"boring_view_url":1,"soilmap_view_url":null,"soiltest_xml_url":0,"soiltest_view_url":0},{"id":175037,"code":"B4KJ201801006-3286","latitude":"34.6060542","longitude":"135.4396603","source_code":"KK51357325003","project_name":"","survey_name":"\u5927\u548c\u5ddd\u6cb3\u53e3\u90e8\u5de6\u5cb8\u571f\u8cea\u8abf\u67fb\u4ed6\u4f5c\u696d","client_name":"\u56fd\u571f\u4ea4\u901a\u7701\u8fd1\u757f\u5730\u65b9\u6574\u5099\u5c40\u5927\u548c\u5ddd\u6cb3\u5ddd\u4e8b\u52d9\u6240","boring_xml_url":40,"boring_view_url":1,"soilmap_view_url":null,"soiltest_xml_url":0,"soiltest_view_url":0},{"id":175036,"code":"B4KJ201801006-3285","latitude":"34.6066928","longitude":"135.4379658","source_code":"KK51357325002","project_name":"","survey_name":"\u7bc9\u6e2f\u516b\u5e61\u753a\u5730\u8cea\u8abf\u67fb\u4f5c\u696d","client_name":"\u56fd\u571f\u4ea4\u901a\u7701\u8fd1\u757f\u5730\u65b9\u6574\u5099\u5c40\u5927\u548c\u5ddd\u6cb3\u5ddd\u4e8b\u52d9\u6240","boring_xml_url":40,"boring_view_url":1,"soilmap_view_url":null,"soiltest_xml_url":0,"soiltest_view_url":0},{"id":175035,"code":"B4KJ201801006-3284","latitude":"34.6066928","longitude":"135.4379658","source_code":"KK51357325001","project_name":"","survey_name":"\u7bc9\u6e2f\u516b\u5e61\u753a\u5730\u8cea\u8abf\u67fb\u4f5c\u696d","client_name":"\u56fd\u571f\u4ea4\u901a\u7701\u8fd1\u757f\u5730\u65b9\u6574\u5099\u5c40\u5927\u548c\u5ddd\u6cb3\u5ddd\u4e8b\u52d9\u6240","boring_xml_url":40,"boring_view_url":1,"soilmap_view_url":null,"soiltest_xml_url":0,"soiltest_view_url":0},{"id":175034,"code":"B4KJ201801006-3283","latitude":"34.5959453","longitude":"135.4904617","source_code":"KK51357319003","project_name":"","survey_name":"\u9060\u91cc\u5c0f\u91ce\u5730\u533a\u59161\u4ef6\u5730\u8cea\u8abf\u67fb\u4f5c\u696d","client_name":"\u56fd\u571f\u4ea4\u901a\u7701\u8fd1\u757f\u5730\u65b9\u6574\u5099\u5c40\u5927\u548c\u5ddd\u6cb3\u5ddd\u4e8b\u52d9\u6240","boring_xml_url":40,"boring_view_url":1,"soilmap_view_url":null,"soiltest_xml_url":0,"soiltest_view_url":0},{"id":175033,"code":"B4KJ201801006-3282","latitude":"34.5961117","longitude":"135.478435","source_code":"KK51357318040","project_name":"","survey_name":"\u5e73\u621013\u5e74\u5ea6","client_name":"\u56fd\u571f\u4ea4\u901a\u7701\u8fd1\u757f\u5730\u65b9\u6574\u5099\u5c40\u5927\u548c\u5ddd\u6cb3\u5ddd\u4e8b\u52d9\u6240","boring_xml_url":40,"boring_view_url":1,"soilmap_view_url":null,"soiltest_xml_url":0,"soiltest_view_url":0},{"id":175032,"code":"B4KJ201801006-3281","latitude":"34.5970836","longitude":"135.4777406","source_code":"KK51357318039","project_name":"","survey_name":"\u5e73\u621013\u5e74\u5ea6","client_name":"\u56fd\u571f\u4ea4\u901a\u7701\u8fd1\u757f\u5730\u65b9\u6574\u5099\u5c40\u5927\u548c\u5ddd\u6cb3\u5ddd\u4e8b\u52d9\u6240","boring_xml_url":40,"boring_view_url":1,"soilmap_view_url":null,"soiltest_xml_url":0,"soiltest_view_url":0},{"id":175031,"code":"B4KJ201801006-3280","latitude":"34.5965006","longitude":"135.4774906","source_code":"KK51357318038","project_name":"","survey_name":"\u5e73\u621013\u5e74\u5ea6","client_name":"\u56fd\u571f\u4ea4\u901a\u7701\u8fd1\u757f\u5730\u65b9\u6574\u5099\u5c40\u5927\u548c\u5ddd\u6cb3\u5ddd\u4e8b\u52d9\u6240","boring_xml_url":40,"boring_view_url":1,"soilmap_view_url":null,"soiltest_xml_url":0,"soiltest_view_url":0},{"id":175030,"code":"B4KJ201801006-3279","latitude":"34.5958894","longitude":"135.4790461","source_code":"KK51357318037","project_name":"","survey_name":"\u5e73\u621013\u5e74\u5ea6","client_name":"\u56fd\u571f\u4ea4\u901a\u7701\u8fd1\u757f\u5730\u65b9\u6574\u5099\u5c40\u5927\u548c\u5ddd\u6cb3\u5ddd\u4e8b\u52d9\u6240","boring_xml_url":40,"boring_view_url":1,"soilmap_view_url":null,"soiltest_xml_url":0,"soiltest_view_url":0},{"id":175029,"code":"B4KJ201801006-3278","latitude":"34.596445","longitude":"135.4793236","source_code":"KK51357318036","project_name":"","survey_name":"\u5e73\u621013\u5e74\u5ea6","client_name":"\u56fd\u571f\u4ea4\u901a\u7701\u8fd1\u757f\u5730\u65b9\u6574\u5099\u5c40\u5927\u548c\u5ddd\u6cb3\u5ddd\u4e8b\u52d9\u6240","boring_xml_url":40,"boring_view_url":1,"soilmap_view_url":null,"soiltest_xml_url":0,"soiltest_view_url":0},{"id":175028,"code":"B4KJ201801006-3277","latitude":"34.5951394","longitude":"135.4792406","source_code":"KK51357318023","project_name":"","survey_name":"\u56fd\u905326\u53f7\u6d6a\u901f\u7b2c\u4e00\u5171\u540c\u6e9d\u5730\u8cea\u8abf\u67fb\u696d\u52d9","client_name":"\u56fd\u571f\u4ea4\u901a\u7701\u8fd1\u757f\u5730\u65b9\u6574\u5099\u5c40\u5927\u962a\u56fd\u9053\u4e8b\u52d9\u6240","boring_xml_url":40,"boring_view_url":1,"soilmap_view_url":null,"soiltest_xml_url":0,"soiltest_view_url":0},{"id":175027,"code":"B4KJ201801006-3276","latitude":"34.5990836","longitude":"135.4784347","source_code":"KK51357318019","project_name":"","survey_name":"\u962a\u795e\u9ad8\u901f\u9053\u8def\u5730\u8cea\u8cc7\u659911\u6e4a\u753a-\u583a\u7de8","client_name":"\u56fd\u571f\u4ea4\u901a\u7701\u8fd1\u757f\u5730\u65b9\u6574\u5099\u5c40\u6d6a\u901f\u56fd\u9053\u4e8b\u52d9\u6240","boring_xml_url":40,"boring_view_url":1,"soilmap_view_url":null,"soiltest_xml_url":0,"soiltest_view_url":0},{"id":175026,"code":"B4KJ201801006-3275","latitude":"34.5998336","longitude":"135.4792681","source_code":"KK51357318007","project_name":"","survey_name":"\u56fd\u905326\u53f7\u5927\u548c\u5ddd\u6a4b\u5730\u8cea\u8abf\u67fb\u4f5c\u696d","client_name":"\u56fd\u571f\u4ea4\u901a\u7701\u8fd1\u757f\u5730\u65b9\u6574\u5099\u5c40\u5927\u962a\u56fd\u9053\u4e8b\u52d9\u6240","boring_xml_url":40,"boring_view_url":1,"soilmap_view_url":null,"soiltest_xml_url":0,"soiltest_view_url":0},{"id":175025,"code":"B4KJ201801006-3274","latitude":"34.5990003","longitude":"135.4790458","source_code":"KK51357318006","project_name":"","survey_name":"\u56fd\u905326\u53f7\u5927\u548c\u5ddd\u6a4b\u5730\u8cea\u8abf\u67fb\u4f5c\u696d","client_name":"\u56fd\u571f\u4ea4\u901a\u7701\u8fd1\u757f\u5730\u65b9\u6574\u5099\u5c40\u5927\u962a\u56fd\u9053\u4e8b\u52d9\u6240","boring_xml_url":40,"boring_view_url":1,"soilmap_view_url":null,"soiltest_xml_url":0,"soiltest_view_url":0},{"id":175024,"code":"B4KJ201801006-3273","latitude":"34.5984725","longitude":"135.4788236","source_code":"KK51357318005","project_name":"","survey_name":"\u56fd\u905326\u53f7\u5927\u548c\u5ddd\u6a4b\u5730\u8cea\u8abf\u67fb\u4f5c\u696d","client_name":"\u56fd\u571f\u4ea4\u901a\u7701\u8fd1\u757f\u5730\u65b9\u6574\u5099\u5c40\u5927\u962a\u56fd\u9053\u4e8b\u52d9\u6240","boring_xml_url":40,"boring_view_url":1,"soilmap_view_url":null,"soiltest_xml_url":0,"soiltest_view_url":0},{"id":175023,"code":"B4KJ201801006-3272","latitude":"34.6029717","longitude":"135.4644081","source_code":"KK51357317008","project_name":"","survey_name":"\u5927\u548c\u5ddd\u5de6\u53f3\u5cb8\u5730\u8cea\u8abf\u67fb\u5de5\u4e8b","client_name":"\u56fd\u571f\u4ea4\u901a\u7701\u8fd1\u757f\u5730\u65b9\u6574\u5099\u5c40\u5927\u548c\u5ddd\u6cb3\u5ddd\u4e8b\u52d9\u6240","boring_xml_url":40,"boring_view_url":1,"soilmap_view_url":null,"soiltest_xml_url":0,"soiltest_view_url":0},{"id":175022,"code":"B4KJ201801006-3271","latitude":"34.6029717","longitude":"135.4641858","source_code":"KK51357317007","project_name":"","survey_name":"\u5927\u548c\u5ddd\u5de6\u53f3\u5cb8\u5730\u8cea\u8abf\u67fb\u5de5\u4e8b","client_name":"\u56fd\u571f\u4ea4\u901a\u7701\u8fd1\u757f\u5730\u65b9\u6574\u5099\u5c40\u5927\u548c\u5ddd\u6cb3\u5ddd\u4e8b\u52d9\u6240","boring_xml_url":40,"boring_view_url":1,"soilmap_view_url":null,"soiltest_xml_url":0,"soiltest_view_url":0},{"id":175021,"code":"B4KJ201801006-3270","latitude":"34.6030828","longitude":"135.4609917","source_code":"KK51357317006","project_name":"","survey_name":"\u5927\u548c\u5ddd\u5de6\u53f3\u5cb8\u5730\u8cea\u8abf\u67fb\u5de5\u4e8b","client_name":"\u56fd\u571f\u4ea4\u901a\u7701\u8fd1\u757f\u5730\u65b9\u6574\u5099\u5c40\u5927\u548c\u5ddd\u6cb3\u5ddd\u4e8b\u52d9\u6240","boring_xml_url":40,"boring_view_url":1,"soilmap_view_url":null,"soiltest_xml_url":0,"soiltest_view_url":0},{"id":175020,"code":"B4KJ201801006-3269","latitude":"34.6027772","longitude":"135.4619917","source_code":"KK51357317005","project_name":"","survey_name":"\u5927\u548c\u5ddd\u5de6\u53f3\u5cb8\u5730\u8cea\u8abf\u67fb\u5de5\u4e8b","client_name":"\u56fd\u571f\u4ea4\u901a\u7701\u8fd1\u757f\u5730\u65b9\u6574\u5099\u5c40\u5927\u548c\u5ddd\u6cb3\u5ddd\u4e8b\u52d9\u6240","boring_xml_url":40,"boring_view_url":1,"soilmap_view_url":null,"soiltest_xml_url":0,"soiltest_view_url":0},{"id":175019,"code":"B4KJ201801006-3268","latitude":"34.5990833","longitude":"135.4659358","source_code":"KK51357317004","project_name":"","survey_name":"\u5927\u548c\u5ddd\u5de6\u53f3\u5cb8\u5730\u8cea\u8abf\u67fb\u5de5\u4e8b","client_name":"\u56fd\u571f\u4ea4\u901a\u7701\u8fd1\u757f\u5730\u65b9\u6574\u5099\u5c40\u5927\u548c\u5ddd\u6cb3\u5ddd\u4e8b\u52d9\u6240","boring_xml_url":40,"boring_view_url":1,"soilmap_view_url":null,"soiltest_xml_url":0,"soiltest_view_url":0},{"id":175018,"code":"B4KJ201801006-3267","latitude":"34.602305","longitude":"135.4638528","source_code":"KK51357317003","project_name":"","survey_name":"\u5927\u548c\u5ddd\u5de6\u53f3\u5cb8\u5730\u8cea\u8abf\u67fb\u5de5\u4e8b","client_name":"\u56fd\u571f\u4ea4\u901a\u7701\u8fd1\u757f\u5730\u65b9\u6574\u5099\u5c40\u5927\u548c\u5ddd\u6cb3\u5ddd\u4e8b\u52d9\u6240","boring_xml_url":40,"boring_view_url":1,"soilmap_view_url":null,"soiltest_xml_url":0,"soiltest_view_url":0},{"id":175017,"code":"B4KJ201801006-3266","latitude":"34.602305","longitude":"135.464075","source_code":"KK51357317002","project_name":"","survey_name":"\u5927\u548c\u5ddd\u5de6\u53f3\u5cb8\u5730\u8cea\u8abf\u67fb\u5de5\u4e8b","client_name":"\u56fd\u571f\u4ea4\u901a\u7701\u8fd1\u757f\u5730\u65b9\u6574\u5099\u5c40\u5927\u548c\u5ddd\u6cb3\u5ddd\u4e8b\u52d9\u6240","boring_xml_url":40,"boring_view_url":1,"soilmap_view_url":null,"soiltest_xml_url":0,"soiltest_view_url":0},{"id":175016,"code":"B4KJ201801006-3265","latitude":"34.5936678","longitude":"135.4885175","source_code":"KK51357309018","project_name":"","survey_name":"\u5e73\u621013\u5e74\u5ea6\u5927\u548c\u5ddd\u583a\u5e02\u9060\u91cc\u5c0f\u91ce\u5730\u533a\u9ad8\u898f\u683c\u5824\u9632\u5730\u8cea\u89e3\u6790\u696d\u52d9","client_name":"\u56fd\u571f\u4ea4\u901a\u7701\u8fd1\u757f\u5730\u65b9\u6574\u5099\u5c40\u5927\u548c\u5ddd\u6cb3\u5ddd\u4e8b\u52d9\u6240","boring_xml_url":40,"boring_view_url":1,"soilmap_view_url":null,"soiltest_xml_url":0,"soiltest_view_url":0}]}}