{"header":{"xyz":{"source":[],"mosaic":false},"page":4864,"raw":{"soiltest_result":"0","bbox":"57.598333,109.544722,1.933333,163.806111","page":"4864"},"conditions":{"soiltest_result":0,"north":57.598333,"west":109.544722,"south":1.933333,"east":163.806111},"success":true,"message":""},"data":{"meta":{"total":212844,"page":4864,"pages":7095,"count":30},"values":[{"id":174655,"code":"B4KJ201801006-2904","latitude":"34.5156278","longitude":"135.7762728","source_code":"KK51356612005","project_name":"","survey_name":"\u6a7f\u539f\u30d0\u30a4\u30d1\u30b9\u66fd\u6211\u5730\u533a\u571f\u8cea\u8abf\u67fb(\u305d\u306e3)\u4f5c\u696d","client_name":"\u56fd\u571f\u4ea4\u901a\u7701\u8fd1\u757f\u5730\u65b9\u6574\u5099\u5c40\u5948\u826f\u56fd\u9053\u4e8b\u52d9\u6240","boring_xml_url":40,"boring_view_url":1,"soilmap_view_url":null,"soiltest_xml_url":0,"soiltest_view_url":0},{"id":174654,"code":"B4KJ201801006-2903","latitude":"34.5143778","longitude":"135.7751617","source_code":"KK51356612004","project_name":"","survey_name":"\u6a7f\u539f\u30d0\u30a4\u30d1\u30b9\u66fd\u6211\u5730\u533a\u571f\u8cea\u8abf\u67fb(\u305d\u306e3)\u4f5c\u696d","client_name":"\u56fd\u571f\u4ea4\u901a\u7701\u8fd1\u757f\u5730\u65b9\u6574\u5099\u5c40\u5948\u826f\u56fd\u9053\u4e8b\u52d9\u6240","boring_xml_url":40,"boring_view_url":1,"soilmap_view_url":null,"soiltest_xml_url":0,"soiltest_view_url":0},{"id":174653,"code":"B4KJ201801006-2902","latitude":"34.5136278","longitude":"135.7741619","source_code":"KK51356612003","project_name":"","survey_name":"\u6a7f\u539f\u30d0\u30a4\u30d1\u30b9\u66fd\u6211\u5730\u533a\u571f\u8cea\u8abf\u67fb(\u305d\u306e2)\u4f5c\u696d","client_name":"\u56fd\u571f\u4ea4\u901a\u7701\u8fd1\u757f\u5730\u65b9\u6574\u5099\u5c40\u5948\u826f\u56fd\u9053\u4e8b\u52d9\u6240","boring_xml_url":40,"boring_view_url":1,"soilmap_view_url":null,"soiltest_xml_url":0,"soiltest_view_url":0},{"id":174652,"code":"B4KJ201801006-2901","latitude":"34.5127392","longitude":"135.7733286","source_code":"KK51356612002","project_name":"","survey_name":"\u6a7f\u539f\u30d0\u30a4\u30d1\u30b9\u66fd\u6211\u5730\u533a\u571f\u8cea\u8abf\u67fb(\u305d\u306e2)\u4f5c\u696d","client_name":"\u56fd\u571f\u4ea4\u901a\u7701\u8fd1\u757f\u5730\u65b9\u6574\u5099\u5c40\u5948\u826f\u56fd\u9053\u4e8b\u52d9\u6240","boring_xml_url":40,"boring_view_url":1,"soilmap_view_url":null,"soiltest_xml_url":0,"soiltest_view_url":0},{"id":174651,"code":"B4KJ201801006-2900","latitude":"34.5124892","longitude":"135.7727731","source_code":"KK51356612001","project_name":"","survey_name":"\u6a7f\u539f\u30d0\u30a4\u30d1\u30b9\u66fd\u6211\u5730\u533a\u571f\u8cea\u8abf\u67fb(\u305d\u306e2)\u4f5c\u696d","client_name":"\u56fd\u571f\u4ea4\u901a\u7701\u8fd1\u757f\u5730\u65b9\u6574\u5099\u5c40\u5948\u826f\u56fd\u9053\u4e8b\u52d9\u6240","boring_xml_url":40,"boring_view_url":1,"soilmap_view_url":null,"soiltest_xml_url":0,"soiltest_view_url":0},{"id":174650,"code":"B4KJ201801006-2899","latitude":"34.5112392","longitude":"135.77219","source_code":"KK51356602002","project_name":"","survey_name":"\u5927\u548c\u9053\u8def\u66fd\u6211\u9ad8\u67b6\u6a4b\u571f\u8cea\u8abf\u67fb\u4f5c\u696d","client_name":"\u56fd\u571f\u4ea4\u901a\u7701\u8fd1\u757f\u5730\u65b9\u6574\u5099\u5c40\u5948\u826f\u56fd\u9053\u4e8b\u52d9\u6240","boring_xml_url":40,"boring_view_url":1,"soilmap_view_url":null,"soiltest_xml_url":0,"soiltest_view_url":0},{"id":174649,"code":"B4KJ201801006-2898","latitude":"34.50349","longitude":"135.7649964","source_code":"KK51356601017","project_name":"","survey_name":"\u5927\u548c\u5fa1\u6240\u9053\u8def\u66f2\u5ddd\u65b0\u5802\u5730\u533a\u5730\u8cea\u8abf\u67fb\u4f5c\u696d","client_name":"\u56fd\u571f\u4ea4\u901a\u7701\u8fd1\u757f\u5730\u65b9\u6574\u5099\u5c40\u5948\u826f\u56fd\u9053\u4e8b\u52d9\u6240","boring_xml_url":40,"boring_view_url":1,"soilmap_view_url":null,"soiltest_xml_url":0,"soiltest_view_url":0},{"id":174648,"code":"B4KJ201801006-2897","latitude":"34.5041564","longitude":"135.7655517","source_code":"KK51356601016","project_name":"","survey_name":"\u5927\u548c\u5fa1\u6240\u9053\u8def\u66f2\u5ddd\u65b0\u5802\u5730\u533a\u5730\u8cea\u8abf\u67fb\u4f5c\u696d","client_name":"\u56fd\u571f\u4ea4\u901a\u7701\u8fd1\u757f\u5730\u65b9\u6574\u5099\u5c40\u5948\u826f\u56fd\u9053\u4e8b\u52d9\u6240","boring_xml_url":40,"boring_view_url":1,"soilmap_view_url":null,"soiltest_xml_url":0,"soiltest_view_url":0},{"id":174647,"code":"B4KJ201801006-2896","latitude":"34.5050731","longitude":"135.7664961","source_code":"KK51356601015","project_name":"","survey_name":"\u5927\u548c\u5fa1\u6240\u9053\u8def\u66f2\u5ddd\u65b0\u5802\u5730\u533a\u5730\u8cea\u8abf\u67fb\u4f5c\u696d","client_name":"\u56fd\u571f\u4ea4\u901a\u7701\u8fd1\u757f\u5730\u65b9\u6574\u5099\u5c40\u5948\u826f\u56fd\u9053\u4e8b\u52d9\u6240","boring_xml_url":40,"boring_view_url":1,"soilmap_view_url":null,"soiltest_xml_url":0,"soiltest_view_url":0},{"id":174646,"code":"B4KJ201801006-2895","latitude":"34.5058508","longitude":"135.7671906","source_code":"KK51356601014","project_name":"","survey_name":"\u5927\u548c\u5fa1\u6240\u9053\u8def\u66f2\u5ddd\u65b0\u5802\u5730\u533a\u5730\u8cea\u8abf\u67fb\u4f5c\u696d","client_name":"\u56fd\u571f\u4ea4\u901a\u7701\u8fd1\u757f\u5730\u65b9\u6574\u5099\u5c40\u5948\u826f\u56fd\u9053\u4e8b\u52d9\u6240","boring_xml_url":40,"boring_view_url":1,"soilmap_view_url":null,"soiltest_xml_url":0,"soiltest_view_url":0},{"id":174645,"code":"B4KJ201801006-2894","latitude":"34.5065453","longitude":"135.7678569","source_code":"KK51356601013","project_name":"","survey_name":"\u5927\u548c\u5fa1\u6240\u9053\u8def\u66f2\u5ddd\u65b0\u5802\u5730\u533a\u5730\u8cea\u8abf\u67fb\u4f5c\u696d","client_name":"\u56fd\u571f\u4ea4\u901a\u7701\u8fd1\u757f\u5730\u65b9\u6574\u5099\u5c40\u5948\u826f\u56fd\u9053\u4e8b\u52d9\u6240","boring_xml_url":40,"boring_view_url":1,"soilmap_view_url":null,"soiltest_xml_url":0,"soiltest_view_url":0},{"id":174644,"code":"B4KJ201801006-2893","latitude":"34.5101558","longitude":"135.7708011","source_code":"KK51356601012","project_name":"","survey_name":"\u5927\u548c\u9053\u8def\u66fd\u6211\u9ad8\u67b6\u6a4b\u571f\u8cea\u8abf\u67fb\u4f5c\u696d","client_name":"\u56fd\u571f\u4ea4\u901a\u7701\u8fd1\u757f\u5730\u65b9\u6574\u5099\u5c40\u5948\u826f\u56fd\u9053\u4e8b\u52d9\u6240","boring_xml_url":40,"boring_view_url":1,"soilmap_view_url":null,"soiltest_xml_url":0,"soiltest_view_url":0},{"id":174643,"code":"B4KJ201801006-2892","latitude":"34.5091006","longitude":"135.7697181","source_code":"KK51356601011","project_name":"","survey_name":"\u5927\u548c\u9053\u8def\u66fd\u6211\u9ad8\u67b6\u6a4b\u571f\u8cea\u8abf\u67fb\u4f5c\u696d","client_name":"\u56fd\u571f\u4ea4\u901a\u7701\u8fd1\u757f\u5730\u65b9\u6574\u5099\u5c40\u5948\u826f\u56fd\u9053\u4e8b\u52d9\u6240","boring_xml_url":40,"boring_view_url":1,"soilmap_view_url":null,"soiltest_xml_url":0,"soiltest_view_url":0},{"id":174642,"code":"B4KJ201801006-2891","latitude":"34.5081839","longitude":"135.7694958","source_code":"KK51356601010","project_name":"","survey_name":"\u5927\u548c\u9053\u8def\u66fd\u6211\u9ad8\u67b6\u6a4b\u571f\u8cea\u8abf\u67fb\u4f5c\u696d","client_name":"\u56fd\u571f\u4ea4\u901a\u7701\u8fd1\u757f\u5730\u65b9\u6574\u5099\u5c40\u5948\u826f\u56fd\u9053\u4e8b\u52d9\u6240","boring_xml_url":40,"boring_view_url":1,"soilmap_view_url":null,"soiltest_xml_url":0,"soiltest_view_url":0},{"id":174641,"code":"B4KJ201801006-2890","latitude":"34.5078506","longitude":"135.7686347","source_code":"KK51356601009","project_name":"","survey_name":"\u5927\u548c\u9053\u8def\u66fd\u6211\u9ad8\u67b6\u6a4b\u571f\u8cea\u8abf\u67fb\u4f5c\u696d","client_name":"\u56fd\u571f\u4ea4\u901a\u7701\u8fd1\u757f\u5730\u65b9\u6574\u5099\u5c40\u5948\u826f\u56fd\u9053\u4e8b\u52d9\u6240","boring_xml_url":40,"boring_view_url":1,"soilmap_view_url":null,"soiltest_xml_url":0,"soiltest_view_url":0},{"id":174640,"code":"B4KJ201801006-2889","latitude":"34.5071283","longitude":"135.7681903","source_code":"KK51356601008","project_name":"","survey_name":"\u5927\u548c\u9053\u8def\u66fd\u6211\u9ad8\u67b6\u6a4b\u571f\u8cea\u8abf\u67fb\u4f5c\u696d","client_name":"\u56fd\u571f\u4ea4\u901a\u7701\u8fd1\u757f\u5730\u65b9\u6574\u5099\u5c40\u5948\u826f\u56fd\u9053\u4e8b\u52d9\u6240","boring_xml_url":40,"boring_view_url":1,"soilmap_view_url":null,"soiltest_xml_url":0,"soiltest_view_url":0},{"id":174639,"code":"B4KJ201801006-2888","latitude":"34.5112114","longitude":"135.7714678","source_code":"KK51356601007","project_name":"","survey_name":"\u6a7f\u539f\u30d0\u30a4\u30d1\u30b9\u66fd\u6211\u5730\u533a\u571f\u8cea\u8abf\u67fb(\u305d\u306e2)\u4f5c\u696d","client_name":"\u56fd\u571f\u4ea4\u901a\u7701\u8fd1\u757f\u5730\u65b9\u6574\u5099\u5c40\u5948\u826f\u56fd\u9053\u4e8b\u52d9\u6240","boring_xml_url":40,"boring_view_url":1,"soilmap_view_url":null,"soiltest_xml_url":0,"soiltest_view_url":0},{"id":174638,"code":"B4KJ201801006-2887","latitude":"34.5103503","longitude":"135.7714678","source_code":"KK51356601006","project_name":"","survey_name":"\u66fd\u6211\u66f2\u5ddd\u5730\u533a\u5de5\u8cea\u8abf\u67fb\u4f5c\u696d","client_name":"\u56fd\u571f\u4ea4\u901a\u7701\u8fd1\u757f\u5730\u65b9\u6574\u5099\u5c40\u5948\u826f\u56fd\u9053\u4e8b\u52d9\u6240","boring_xml_url":40,"boring_view_url":1,"soilmap_view_url":null,"soiltest_xml_url":0,"soiltest_view_url":0},{"id":174637,"code":"B4KJ201801006-2886","latitude":"34.5103503","longitude":"135.7701067","source_code":"KK51356601005","project_name":"","survey_name":"\u66fd\u6211,\u66f2\u5ddd\u5730\u533a\u5de5\u8cea\u8abf\u67fb\u4f5c\u696d","client_name":"\u56fd\u571f\u4ea4\u901a\u7701\u8fd1\u757f\u5730\u65b9\u6574\u5099\u5c40\u5948\u826f\u56fd\u9053\u4e8b\u52d9\u6240","boring_xml_url":40,"boring_view_url":1,"soilmap_view_url":null,"soiltest_xml_url":0,"soiltest_view_url":0},{"id":174636,"code":"B4KJ201801006-2885","latitude":"34.5103503","longitude":"135.7668292","source_code":"KK51356601003","project_name":"","survey_name":"\u66fd\u6211,\u66f2\u5ddd\u5730\u533a\u571f\u8cea\u8abf\u67fb\u4f5c\u696d","client_name":"\u56fd\u571f\u4ea4\u901a\u7701\u8fd1\u757f\u5730\u65b9\u6574\u5099\u5c40\u5948\u826f\u56fd\u9053\u4e8b\u52d9\u6240","boring_xml_url":40,"boring_view_url":1,"soilmap_view_url":null,"soiltest_xml_url":0,"soiltest_view_url":0},{"id":174635,"code":"B4KJ201801006-2884","latitude":"34.5098506","longitude":"135.7706067","source_code":"KK51356601002","project_name":"","survey_name":"\u6a7f\u539f\u30d0\u30a4\u30d1\u30b9\u66fd\u6211\u5730\u533a\u571f\u8cea\u8abf\u67fb(\u305d\u306e2)\u4f5c\u696d","client_name":"\u56fd\u571f\u4ea4\u901a\u7701\u8fd1\u757f\u5730\u65b9\u6574\u5099\u5c40\u5948\u826f\u56fd\u9053\u4e8b\u52d9\u6240","boring_xml_url":40,"boring_view_url":1,"soilmap_view_url":null,"soiltest_xml_url":0,"soiltest_view_url":0},{"id":174634,"code":"B4KJ201801006-2883","latitude":"34.5074061","longitude":"135.7700514","source_code":"KK51356601001","project_name":"","survey_name":"\u6a7f\u539f\u30d0\u30a4\u30d1\u30b9\u66fd\u6211\u5730\u533a\u571f\u8cea\u8abf\u67fb(\u305d\u306e2)\u4f5c\u696d","client_name":"\u56fd\u571f\u4ea4\u901a\u7701\u8fd1\u757f\u5730\u65b9\u6574\u5099\u5c40\u5948\u826f\u56fd\u9053\u4e8b\u52d9\u6240","boring_xml_url":40,"boring_view_url":1,"soilmap_view_url":null,"soiltest_xml_url":0,"soiltest_view_url":0},{"id":174633,"code":"B4KJ201801006-2882","latitude":"34.5817844","longitude":"135.6736961","source_code":"KK51356594139","project_name":"","survey_name":"\u4e80\u306e\u702c\u5730\u8cea\u8abf\u67fb\u696d\u52d9","client_name":"\u56fd\u571f\u4ea4\u901a\u7701\u8fd1\u757f\u5730\u65b9\u6574\u5099\u5c40\u5927\u548c\u5ddd\u6cb3\u5ddd\u4e8b\u52d9\u6240","boring_xml_url":40,"boring_view_url":1,"soilmap_view_url":null,"soiltest_xml_url":0,"soiltest_view_url":0},{"id":174632,"code":"B4KJ201801006-2881","latitude":"34.5814233","longitude":"135.6736683","source_code":"KK51356594138","project_name":"","survey_name":"\u4e80\u306e\u702c\u5730\u8cea\u8abf\u67fb\u696d\u52d9","client_name":"\u56fd\u571f\u4ea4\u901a\u7701\u8fd1\u757f\u5730\u65b9\u6574\u5099\u5c40\u5927\u548c\u5ddd\u6cb3\u5ddd\u4e8b\u52d9\u6240","boring_xml_url":40,"boring_view_url":1,"soilmap_view_url":null,"soiltest_xml_url":0,"soiltest_view_url":0},{"id":174631,"code":"B4KJ201801006-2880","latitude":"34.5810622","longitude":"135.6736406","source_code":"KK51356594137","project_name":"","survey_name":"\u4e80\u306e\u702c\u5730\u8cea\u8abf\u67fb\u696d\u52d9","client_name":"\u56fd\u571f\u4ea4\u901a\u7701\u8fd1\u757f\u5730\u65b9\u6574\u5099\u5c40\u5927\u548c\u5ddd\u6cb3\u5ddd\u4e8b\u52d9\u6240","boring_xml_url":40,"boring_view_url":1,"soilmap_view_url":null,"soiltest_xml_url":0,"soiltest_view_url":0},{"id":174630,"code":"B4KJ201801006-2879","latitude":"34.5813678","longitude":"135.6727239","source_code":"KK51356594136","project_name":"","survey_name":"\u4e80\u306e\u702c\u5730\u8cea\u8abf\u67fb\u696d\u52d9","client_name":"\u56fd\u571f\u4ea4\u901a\u7701\u8fd1\u757f\u5730\u65b9\u6574\u5099\u5c40\u5927\u548c\u5ddd\u6cb3\u5ddd\u4e8b\u52d9\u6240","boring_xml_url":40,"boring_view_url":1,"soilmap_view_url":null,"soiltest_xml_url":0,"soiltest_view_url":0},{"id":174629,"code":"B4KJ201801006-2878","latitude":"34.5811178","longitude":"135.6728072","source_code":"KK51356594135","project_name":"","survey_name":"\u4e80\u306e\u702c\u5730\u8cea\u8abf\u67fb\u696d\u52d9","client_name":"\u56fd\u571f\u4ea4\u901a\u7701\u8fd1\u757f\u5730\u65b9\u6574\u5099\u5c40\u5927\u548c\u5ddd\u6cb3\u5ddd\u4e8b\u52d9\u6240","boring_xml_url":40,"boring_view_url":1,"soilmap_view_url":null,"soiltest_xml_url":0,"soiltest_view_url":0},{"id":174628,"code":"B4KJ201801006-2877","latitude":"34.5822844","longitude":"135.6724739","source_code":"KK51356594134","project_name":"","survey_name":"\u4e80\u306e\u702c\u5730\u8cea\u8abf\u67fb\u696d\u52d9","client_name":"\u56fd\u571f\u4ea4\u901a\u7701\u8fd1\u757f\u5730\u65b9\u6574\u5099\u5c40\u5927\u548c\u5ddd\u6cb3\u5ddd\u4e8b\u52d9\u6240","boring_xml_url":40,"boring_view_url":1,"soilmap_view_url":null,"soiltest_xml_url":0,"soiltest_view_url":0},{"id":174627,"code":"B4KJ201801006-2876","latitude":"34.5816733","longitude":"135.6721683","source_code":"KK51356594133","project_name":"","survey_name":"\u4e80\u306e\u702c\u5730\u8cea\u8abf\u67fb\u696d\u52d9","client_name":"\u56fd\u571f\u4ea4\u901a\u7701\u8fd1\u757f\u5730\u65b9\u6574\u5099\u5c40\u5927\u548c\u5ddd\u6cb3\u5ddd\u4e8b\u52d9\u6240","boring_xml_url":40,"boring_view_url":1,"soilmap_view_url":null,"soiltest_xml_url":0,"soiltest_view_url":0},{"id":174626,"code":"B4KJ201801006-2875","latitude":"34.5827011","longitude":"135.6766125","source_code":"KK51356594093","project_name":"","survey_name":"\u5b54\u5185\u50be\u659c\u8a08\u8a2d\u7f6e\u696d\u52d9","client_name":"\u56fd\u571f\u4ea4\u901a\u7701\u8fd1\u757f\u5730\u65b9\u6574\u5099\u5c40\u5927\u548c\u5ddd\u6cb3\u5ddd\u4e8b\u52d9\u6240","boring_xml_url":40,"boring_view_url":1,"soilmap_view_url":null,"soiltest_xml_url":0,"soiltest_view_url":0}]}}