{"header":{"xyz":{"source":[],"mosaic":false},"page":4871,"raw":{"soiltest_result":"0","bbox":"57.598333,109.544722,1.933333,163.806111","page":"4871"},"conditions":{"soiltest_result":0,"north":57.598333,"west":109.544722,"south":1.933333,"east":163.806111},"success":true,"message":""},"data":{"meta":{"total":212844,"page":4871,"pages":7095,"count":30},"values":[{"id":174445,"code":"B4KJ201801006-2694","latitude":"34.5653372","longitude":"135.4694089","source_code":"KK51356377032","project_name":"","survey_name":"\u5bbf\u9662\u9ad8\u67b6\u6a4b\u571f\u8cea\u8abf\u67fb","client_name":"\u56fd\u571f\u4ea4\u901a\u7701\u8fd1\u757f\u5730\u65b9\u6574\u5099\u5c40\u6d6a\u901f\u56fd\u9053\u4e8b\u52d9\u6240","boring_xml_url":40,"boring_view_url":1,"soilmap_view_url":null,"soiltest_xml_url":0,"soiltest_view_url":0},{"id":174444,"code":"B4KJ201801006-2693","latitude":"34.565115","longitude":"135.4691311","source_code":"KK51356377031","project_name":"","survey_name":"\u5bbf\u9662\u9ad8\u67b6\u6a4b\u571f\u8cea\u8abf\u67fb","client_name":"\u56fd\u571f\u4ea4\u901a\u7701\u8fd1\u757f\u5730\u65b9\u6574\u5099\u5c40\u6d6a\u901f\u56fd\u9053\u4e8b\u52d9\u6240","boring_xml_url":40,"boring_view_url":1,"soilmap_view_url":null,"soiltest_xml_url":0,"soiltest_view_url":0},{"id":174443,"code":"B4KJ201801006-2692","latitude":"34.565115","longitude":"135.4688536","source_code":"KK51356377030","project_name":"","survey_name":"\u5bbf\u9662\u9ad8\u67b6\u6a4b\u571f\u8cea\u8abf\u67fb","client_name":"\u56fd\u571f\u4ea4\u901a\u7701\u8fd1\u757f\u5730\u65b9\u6574\u5099\u5c40\u6d6a\u901f\u56fd\u9053\u4e8b\u52d9\u6240","boring_xml_url":40,"boring_view_url":1,"soilmap_view_url":null,"soiltest_xml_url":0,"soiltest_view_url":0},{"id":174442,"code":"B4KJ201801006-2691","latitude":"34.5646706","longitude":"135.4688536","source_code":"KK51356377029","project_name":"","survey_name":"\u5bbf\u9662\u9ad8\u67b6\u6a4b\u571f\u8cea\u8abf\u67fb","client_name":"\u56fd\u571f\u4ea4\u901a\u7701\u8fd1\u757f\u5730\u65b9\u6574\u5099\u5c40\u6d6a\u901f\u56fd\u9053\u4e8b\u52d9\u6240","boring_xml_url":40,"boring_view_url":1,"soilmap_view_url":null,"soiltest_xml_url":0,"soiltest_view_url":0},{"id":174441,"code":"B4KJ201801006-2690","latitude":"34.5644483","longitude":"135.4680203","source_code":"KK51356377027","project_name":"","survey_name":"\u5bbf\u9662\u9ad8\u67b6\u6a4b\u571f\u8cea\u8abf\u67fb","client_name":"\u56fd\u571f\u4ea4\u901a\u7701\u8fd1\u757f\u5730\u65b9\u6574\u5099\u5c40\u6d6a\u901f\u56fd\u9053\u4e8b\u52d9\u6240","boring_xml_url":40,"boring_view_url":1,"soilmap_view_url":null,"soiltest_xml_url":0,"soiltest_view_url":0},{"id":174440,"code":"B4KJ201801006-2689","latitude":"34.5657536","longitude":"135.4659369","source_code":"KK51356377026","project_name":"","survey_name":"\u5bbf\u9662\u9ad8\u67b6\u6a4b\u571f\u8cea\u8abf\u67fb","client_name":"\u56fd\u571f\u4ea4\u901a\u7701\u8fd1\u757f\u5730\u65b9\u6574\u5099\u5c40\u6d6a\u901f\u56fd\u9053\u4e8b\u52d9\u6240","boring_xml_url":40,"boring_view_url":1,"soilmap_view_url":null,"soiltest_xml_url":0,"soiltest_view_url":0},{"id":174439,"code":"B4KJ201801006-2688","latitude":"34.5639761","longitude":"135.4674647","source_code":"KK51356377025","project_name":"","survey_name":"\u5bbf\u9662\u9ad8\u67b6\u6a4b\u571f\u8cea\u8abf\u67fb","client_name":"\u56fd\u571f\u4ea4\u901a\u7701\u8fd1\u757f\u5730\u65b9\u6574\u5099\u5c40\u6d6a\u901f\u56fd\u9053\u4e8b\u52d9\u6240","boring_xml_url":40,"boring_view_url":1,"soilmap_view_url":null,"soiltest_xml_url":0,"soiltest_view_url":0},{"id":174438,"code":"B4KJ201801006-2687","latitude":"34.5637539","longitude":"135.4674647","source_code":"KK51356377024","project_name":"","survey_name":"\u5bbf\u9662\u9ad8\u67b6\u6a4b\u571f\u8cea\u8abf\u67fb","client_name":"\u56fd\u571f\u4ea4\u901a\u7701\u8fd1\u757f\u5730\u65b9\u6574\u5099\u5c40\u6d6a\u901f\u56fd\u9053\u4e8b\u52d9\u6240","boring_xml_url":40,"boring_view_url":1,"soilmap_view_url":null,"soiltest_xml_url":0,"soiltest_view_url":0},{"id":174437,"code":"B4KJ201801006-2686","latitude":"34.5635317","longitude":"135.4671869","source_code":"KK51356377023","project_name":"","survey_name":"\u5bbf\u9662\u9ad8\u67b6\u6a4b\u571f\u8cea\u8abf\u67fb","client_name":"\u56fd\u571f\u4ea4\u901a\u7701\u8fd1\u757f\u5730\u65b9\u6574\u5099\u5c40\u6d6a\u901f\u56fd\u9053\u4e8b\u52d9\u6240","boring_xml_url":40,"boring_view_url":1,"soilmap_view_url":null,"soiltest_xml_url":0,"soiltest_view_url":0},{"id":174436,"code":"B4KJ201801006-2685","latitude":"34.5635317","longitude":"135.4666314","source_code":"KK51356377022","project_name":"","survey_name":"\u5bbf\u9662\u9ad8\u67b6\u6a4b\u571f\u8cea\u8abf\u67fb","client_name":"\u56fd\u571f\u4ea4\u901a\u7701\u8fd1\u757f\u5730\u65b9\u6574\u5099\u5c40\u6d6a\u901f\u56fd\u9053\u4e8b\u52d9\u6240","boring_xml_url":40,"boring_view_url":1,"soilmap_view_url":null,"soiltest_xml_url":0,"soiltest_view_url":0},{"id":174435,"code":"B4KJ201801006-2684","latitude":"34.5633094","longitude":"135.4666314","source_code":"KK51356377021","project_name":"","survey_name":"\u5bbf\u9662\u9ad8\u67b6\u6a4b\u571f\u8cea\u8abf\u67fb","client_name":"\u56fd\u571f\u4ea4\u901a\u7701\u8fd1\u757f\u5730\u65b9\u6574\u5099\u5c40\u6d6a\u901f\u56fd\u9053\u4e8b\u52d9\u6240","boring_xml_url":40,"boring_view_url":1,"soilmap_view_url":null,"soiltest_xml_url":0,"soiltest_view_url":0},{"id":174434,"code":"B4KJ201801006-2683","latitude":"34.5633094","longitude":"135.4663539","source_code":"KK51356377020","project_name":"","survey_name":"\u5bbf\u9662\u9ad8\u67b6\u6a4b\u571f\u8cea\u8abf\u67fb","client_name":"\u56fd\u571f\u4ea4\u901a\u7701\u8fd1\u757f\u5730\u65b9\u6574\u5099\u5c40\u6d6a\u901f\u56fd\u9053\u4e8b\u52d9\u6240","boring_xml_url":40,"boring_view_url":1,"soilmap_view_url":null,"soiltest_xml_url":0,"soiltest_view_url":0},{"id":174433,"code":"B4KJ201801006-2682","latitude":"34.562865","longitude":"135.4655206","source_code":"KK51356377019","project_name":"","survey_name":"\u5bbf\u9662\u9ad8\u67b6\u6a4b\u571f\u8cea\u8abf\u67fb","client_name":"\u56fd\u571f\u4ea4\u901a\u7701\u8fd1\u757f\u5730\u65b9\u6574\u5099\u5c40\u6d6a\u901f\u56fd\u9053\u4e8b\u52d9\u6240","boring_xml_url":40,"boring_view_url":1,"soilmap_view_url":null,"soiltest_xml_url":0,"soiltest_view_url":0},{"id":174432,"code":"B4KJ201801006-2681","latitude":"34.5626431","longitude":"135.4655206","source_code":"KK51356377018","project_name":"","survey_name":"\u5bbf\u9662\u9ad8\u67b6\u6a4b\u571f\u8cea\u8abf\u67fb","client_name":"\u56fd\u571f\u4ea4\u901a\u7701\u8fd1\u757f\u5730\u65b9\u6574\u5099\u5c40\u6d6a\u901f\u56fd\u9053\u4e8b\u52d9\u6240","boring_xml_url":40,"boring_view_url":1,"soilmap_view_url":null,"soiltest_xml_url":0,"soiltest_view_url":0},{"id":174431,"code":"B4KJ201801006-2680","latitude":"34.5657536","longitude":"135.4659369","source_code":"KK51356377017","project_name":"","survey_name":"\u5bbf\u9662\u9ad8\u67b6\u6a4b\u571f\u8cea\u8abf\u67fb","client_name":"\u56fd\u571f\u4ea4\u901a\u7701\u8fd1\u757f\u5730\u65b9\u6574\u5099\u5c40\u6d6a\u901f\u56fd\u9053\u4e8b\u52d9\u6240","boring_xml_url":40,"boring_view_url":1,"soilmap_view_url":null,"soiltest_xml_url":0,"soiltest_view_url":0},{"id":174430,"code":"B4KJ201801006-2679","latitude":"34.5621708","longitude":"135.4652428","source_code":"KK51356377016","project_name":"","survey_name":"\u5bbf\u9662\u9ad8\u67b6\u6a4b\u571f\u8cea\u8abf\u67fb","client_name":"\u56fd\u571f\u4ea4\u901a\u7701\u8fd1\u757f\u5730\u65b9\u6574\u5099\u5c40\u6d6a\u901f\u56fd\u9053\u4e8b\u52d9\u6240","boring_xml_url":40,"boring_view_url":1,"soilmap_view_url":null,"soiltest_xml_url":0,"soiltest_view_url":0},{"id":174429,"code":"B4KJ201801006-2678","latitude":"34.5621708","longitude":"135.4646594","source_code":"KK51356377015","project_name":"","survey_name":"\u5bbf\u9662\u9ad8\u67b6\u6a4b\u571f\u8cea\u8abf\u67fb","client_name":"\u56fd\u571f\u4ea4\u901a\u7701\u8fd1\u757f\u5730\u65b9\u6574\u5099\u5c40\u6d6a\u901f\u56fd\u9053\u4e8b\u52d9\u6240","boring_xml_url":40,"boring_view_url":1,"soilmap_view_url":null,"soiltest_xml_url":0,"soiltest_view_url":0},{"id":174428,"code":"B4KJ201801006-2677","latitude":"34.5617264","longitude":"135.4646594","source_code":"KK51356377014","project_name":"","survey_name":"\u5bbf\u9662\u9ad8\u67b6\u6a4b\u571f\u8cea\u8abf\u67fb","client_name":"\u56fd\u571f\u4ea4\u901a\u7701\u8fd1\u757f\u5730\u65b9\u6574\u5099\u5c40\u6d6a\u901f\u56fd\u9053\u4e8b\u52d9\u6240","boring_xml_url":40,"boring_view_url":1,"soilmap_view_url":null,"soiltest_xml_url":0,"soiltest_view_url":0},{"id":174427,"code":"B4KJ201801006-2676","latitude":"34.5657536","longitude":"135.4659369","source_code":"KK51356377013","project_name":"","survey_name":"\u5bbf\u9662\u9ad8\u67b6\u6a4b\u571f\u8cea\u8abf\u67fb","client_name":"\u56fd\u571f\u4ea4\u901a\u7701\u8fd1\u757f\u5730\u65b9\u6574\u5099\u5c40\u6d6a\u901f\u56fd\u9053\u4e8b\u52d9\u6240","boring_xml_url":40,"boring_view_url":1,"soilmap_view_url":null,"soiltest_xml_url":0,"soiltest_view_url":0},{"id":174426,"code":"B4KJ201801006-2675","latitude":"34.5679758","longitude":"135.4719086","source_code":"KK51356377011","project_name":"","survey_name":"\u7b2c2\u962a\u548c\u56fd\u9053\u69cb\u9020\u7269\u7b87\u6240\u571f\u8cea\u8abf\u67fb\u5de5\u4e8b","client_name":"\u56fd\u571f\u4ea4\u901a\u7701\u8fd1\u757f\u5730\u65b9\u6574\u5099\u5c40\u6d6a\u901f\u56fd\u9053\u4e8b\u52d9\u6240","boring_xml_url":40,"boring_view_url":1,"soilmap_view_url":null,"soiltest_xml_url":0,"soiltest_view_url":0},{"id":174425,"code":"B4KJ201801006-2674","latitude":"34.5676981","longitude":"135.4710756","source_code":"KK51356377010","project_name":"","survey_name":"\u7b2c2\u962a\u548c\u56fd\u9053\u69cb\u9020\u7269\u7b87\u6240\u571f\u8cea\u8abf\u67fb\u5de5\u4e8b","client_name":"\u56fd\u571f\u4ea4\u901a\u7701\u8fd1\u757f\u5730\u65b9\u6574\u5099\u5c40\u6d6a\u901f\u56fd\u9053\u4e8b\u52d9\u6240","boring_xml_url":40,"boring_view_url":1,"soilmap_view_url":null,"soiltest_xml_url":0,"soiltest_view_url":0},{"id":174424,"code":"B4KJ201801006-2673","latitude":"34.5665869","longitude":"135.4696867","source_code":"KK51356377009","project_name":"","survey_name":"\u7b2c2\u962a\u548c\u56fd\u9053\u69cb\u9020\u7269\u7b87\u6240\u571f\u8cea\u8abf\u67fb\u5de5\u4e8b","client_name":"\u56fd\u571f\u4ea4\u901a\u7701\u8fd1\u757f\u5730\u65b9\u6574\u5099\u5c40\u6d6a\u901f\u56fd\u9053\u4e8b\u52d9\u6240","boring_xml_url":40,"boring_view_url":1,"soilmap_view_url":null,"soiltest_xml_url":0,"soiltest_view_url":0},{"id":174423,"code":"B4KJ201801006-2672","latitude":"34.5654761","longitude":"135.4685758","source_code":"KK51356377007","project_name":"","survey_name":"\u7b2c2\u962a\u548c\u56fd\u9053\u69cb\u9020\u7269\u7b87\u6240\u571f\u8cea\u8abf\u67fb\u5de5\u4e8b","client_name":"\u56fd\u571f\u4ea4\u901a\u7701\u8fd1\u757f\u5730\u65b9\u6574\u5099\u5c40\u6d6a\u901f\u56fd\u9053\u4e8b\u52d9\u6240","boring_xml_url":40,"boring_view_url":1,"soilmap_view_url":null,"soiltest_xml_url":0,"soiltest_view_url":0},{"id":174422,"code":"B4KJ201801006-2671","latitude":"34.5649206","longitude":"135.4680203","source_code":"KK51356377006","project_name":"","survey_name":"\u7b2c2\u962a\u548c\u56fd\u9053\u69cb\u9020\u7269\u7b87\u6240\u571f\u8cea\u8abf\u67fb\u5de5\u4e8b","client_name":"\u56fd\u571f\u4ea4\u901a\u7701\u8fd1\u757f\u5730\u65b9\u6574\u5099\u5c40\u6d6a\u901f\u56fd\u9053\u4e8b\u52d9\u6240","boring_xml_url":40,"boring_view_url":1,"soilmap_view_url":null,"soiltest_xml_url":0,"soiltest_view_url":0},{"id":174421,"code":"B4KJ201801006-2670","latitude":"34.564365","longitude":"135.4669092","source_code":"KK51356377005","project_name":"","survey_name":"\u7b2c2\u962a\u548c\u56fd\u9053\u69cb\u9020\u7269\u7b87\u6240\u571f\u8cea\u8abf\u67fb\u5de5\u4e8b","client_name":"\u56fd\u571f\u4ea4\u901a\u7701\u8fd1\u757f\u5730\u65b9\u6574\u5099\u5c40\u6d6a\u901f\u56fd\u9053\u4e8b\u52d9\u6240","boring_xml_url":40,"boring_view_url":1,"soilmap_view_url":null,"soiltest_xml_url":0,"soiltest_view_url":0},{"id":174420,"code":"B4KJ201801006-2669","latitude":"34.5640872","longitude":"135.4660761","source_code":"KK51356377004","project_name":"","survey_name":"\u7b2c2\u962a\u548c\u56fd\u9053\u69cb\u9020\u7269\u7b87\u6240\u571f\u8cea\u8abf\u67fb\u5de5\u4e8b","client_name":"\u56fd\u571f\u4ea4\u901a\u7701\u8fd1\u757f\u5730\u65b9\u6574\u5099\u5c40\u6d6a\u901f\u56fd\u9053\u4e8b\u52d9\u6240","boring_xml_url":40,"boring_view_url":1,"soilmap_view_url":null,"soiltest_xml_url":0,"soiltest_view_url":0},{"id":174419,"code":"B4KJ201801006-2668","latitude":"34.5632539","longitude":"135.4655206","source_code":"KK51356377003","project_name":"","survey_name":"\u7b2c2\u962a\u548c\u56fd\u9053\u69cb\u9020\u7269\u7b87\u6240\u571f\u8cea\u8abf\u67fb\u5de5\u4e8b","client_name":"\u56fd\u571f\u4ea4\u901a\u7701\u8fd1\u757f\u5730\u65b9\u6574\u5099\u5c40\u6d6a\u901f\u56fd\u9053\u4e8b\u52d9\u6240","boring_xml_url":40,"boring_view_url":1,"soilmap_view_url":null,"soiltest_xml_url":0,"soiltest_view_url":0},{"id":174418,"code":"B4KJ201801006-2667","latitude":"34.5626983","longitude":"135.4646872","source_code":"KK51356377002","project_name":"","survey_name":"\u7b2c2\u962a\u548c\u56fd\u9053\u69cb\u9020\u7269\u7b87\u6240\u571f\u8cea\u8abf\u67fb\u5de5\u4e8b","client_name":"\u56fd\u571f\u4ea4\u901a\u7701\u8fd1\u757f\u5730\u65b9\u6574\u5099\u5c40\u6d6a\u901f\u56fd\u9053\u4e8b\u52d9\u6240","boring_xml_url":40,"boring_view_url":1,"soilmap_view_url":null,"soiltest_xml_url":0,"soiltest_view_url":0},{"id":174417,"code":"B4KJ201801006-2666","latitude":"34.565753","longitude":"135.465936","source_code":"KK51356377001","project_name":"","survey_name":"\u7b2c2\u962a\u548c\u56fd\u9053\u69cb\u9020\u7269\u7b87\u6240\u571f\u8cea\u8abf\u67fb\u5de5\u4e8b","client_name":"\u56fd\u571f\u4ea4\u901a\u7701\u8fd1\u757f\u5730\u65b9\u6574\u5099\u5c40\u6d6a\u901f\u56fd\u9053\u4e8b\u52d9\u6240","boring_xml_url":40,"boring_view_url":1,"soilmap_view_url":null,"soiltest_xml_url":0,"soiltest_view_url":0},{"id":174416,"code":"B4KJ201801006-2665","latitude":"34.5592544","longitude":"135.4627431","source_code":"KK51356367023","project_name":"","survey_name":"\u5bbf\u9662\u9ad8\u67b6\u6a4b\u571f\u8cea\u8abf\u67fb","client_name":"\u56fd\u571f\u4ea4\u901a\u7701\u8fd1\u757f\u5730\u65b9\u6574\u5099\u5c40\u6d6a\u901f\u56fd\u9053\u4e8b\u52d9\u6240","boring_xml_url":40,"boring_view_url":1,"soilmap_view_url":null,"soiltest_xml_url":0,"soiltest_view_url":0}]}}