{"header":{"xyz":{"source":[],"mosaic":false},"page":4876,"raw":{"soiltest_result":"0","bbox":"57.598333,109.544722,1.933333,163.806111","page":"4876"},"conditions":{"soiltest_result":0,"north":57.598333,"west":109.544722,"south":1.933333,"east":163.806111},"success":true,"message":""},"data":{"meta":{"total":212844,"page":4876,"pages":7095,"count":30},"values":[{"id":174295,"code":"B4KJ201801006-2544","latitude":"34.5562719","longitude":"135.0060333","source_code":"KK51356060004","project_name":"","survey_name":"28\u53f7\u6de1\u8def\u6771\u6d66\u9053\u8def\u5927\u78ef\u5730\u533a\u5730\u8cea\u8abf\u67fb\u696d\u52d9","client_name":"\u56fd\u571f\u4ea4\u901a\u7701\u8fd1\u757f\u5730\u65b9\u6574\u5099\u5c40\u5175\u5eab\u56fd\u9053\u4e8b\u52d9\u6240","boring_xml_url":40,"boring_view_url":1,"soilmap_view_url":null,"soiltest_xml_url":0,"soiltest_view_url":0},{"id":174294,"code":"B4KJ201801006-2543","latitude":"34.5563275","longitude":"135.0064778","source_code":"KK51356060003","project_name":"","survey_name":"28\u53f7\u6de1\u8def\u6771\u6d66\u9053\u8def\u5927\u78ef\u5730\u533a\u5730\u8cea\u8abf\u67fb\u696d\u52d9","client_name":"\u56fd\u571f\u4ea4\u901a\u7701\u8fd1\u757f\u5730\u65b9\u6574\u5099\u5c40\u5175\u5eab\u56fd\u9053\u4e8b\u52d9\u6240","boring_xml_url":40,"boring_view_url":1,"soilmap_view_url":null,"soiltest_xml_url":0,"soiltest_view_url":0},{"id":174293,"code":"B4KJ201801006-2542","latitude":"34.5564386","longitude":"135.0064222","source_code":"KK51356060002","project_name":"","survey_name":"28\u53f7\u6de1\u8def\u6771\u6d66\u9053\u8def\u5927\u78ef\u5730\u533a\u5730\u8cea\u8abf\u67fb\u696d\u52d9","client_name":"\u56fd\u571f\u4ea4\u901a\u7701\u8fd1\u757f\u5730\u65b9\u6574\u5099\u5c40\u5175\u5eab\u56fd\u9053\u4e8b\u52d9\u6240","boring_xml_url":40,"boring_view_url":1,"soilmap_view_url":null,"soiltest_xml_url":0,"soiltest_view_url":0},{"id":174292,"code":"B4KJ201801006-2541","latitude":"34.5567164","longitude":"135.0072278","source_code":"KK51356060001","project_name":"","survey_name":"28\u53f7\u6de1\u8def\u6771\u6d66\u9053\u8def\u5927\u78ef\u5730\u533a\u5730\u8cea\u8abf\u67fb\u696d\u52d9","client_name":"\u56fd\u571f\u4ea4\u901a\u7701\u8fd1\u757f\u5730\u65b9\u6574\u5099\u5c40\u5175\u5eab\u56fd\u9053\u4e8b\u52d9\u6240","boring_xml_url":40,"boring_view_url":1,"soilmap_view_url":null,"soiltest_xml_url":0,"soiltest_view_url":0},{"id":174291,"code":"B4KJ201801006-2540","latitude":"34.5021294","longitude":"135.7851336","source_code":"KK51355693025","project_name":"","survey_name":"\u5927\u548c\u9ad8\u7530\u30d0\u30a4\u30d1\u30b9\u56db\u6761\u9ad8\u67b6\u6a4b\u5730\u8cea\u8abf\u67fb\u4f5c\u696d","client_name":"\u56fd\u571f\u4ea4\u901a\u7701\u8fd1\u757f\u5730\u65b9\u6574\u5099\u5c40\u5948\u826f\u56fd\u9053\u4e8b\u52d9\u6240","boring_xml_url":40,"boring_view_url":1,"soilmap_view_url":null,"soiltest_xml_url":0,"soiltest_view_url":0},{"id":174290,"code":"B4KJ201801006-2539","latitude":"34.5025183","longitude":"135.7882444","source_code":"KK51355693024","project_name":"","survey_name":"\u5927\u548c\u9ad8\u7530\u30d0\u30a4\u30d1\u30b9\u56db\u6761\u9ad8\u67b6\u6a4b\u5730\u8cea\u8abf\u67fb\u4f5c\u696d","client_name":"\u56fd\u571f\u4ea4\u901a\u7701\u8fd1\u757f\u5730\u65b9\u6574\u5099\u5c40\u5948\u826f\u56fd\u9053\u4e8b\u52d9\u6240","boring_xml_url":40,"boring_view_url":1,"soilmap_view_url":null,"soiltest_xml_url":0,"soiltest_view_url":0},{"id":174289,"code":"B4KJ201801006-2538","latitude":"34.5026294","longitude":"135.7895219","source_code":"KK51355693023","project_name":"","survey_name":"\u5927\u548c\u9ad8\u7530\u30d0\u30a4\u30d1\u30b9\u56db\u6761\u9ad8\u67b6\u6a4b\u5730\u8cea\u8abf\u67fb\u4f5c\u696d","client_name":"\u56fd\u571f\u4ea4\u901a\u7701\u8fd1\u757f\u5730\u65b9\u6574\u5099\u5c40\u5948\u826f\u56fd\u9053\u4e8b\u52d9\u6240","boring_xml_url":40,"boring_view_url":1,"soilmap_view_url":null,"soiltest_xml_url":0,"soiltest_view_url":0},{"id":174288,"code":"B4KJ201801006-2537","latitude":"34.5022683","longitude":"135.7914108","source_code":"KK51355693022","project_name":"","survey_name":"\u5927\u548c\u9ad8\u7530\u30d0\u30a4\u30d1\u30b9\u56db\u6761\u9ad8\u67b6\u6a4b\u5730\u8cea\u8abf\u67fb\u4f5c\u696d","client_name":"\u56fd\u571f\u4ea4\u901a\u7701\u8fd1\u757f\u5730\u65b9\u6574\u5099\u5c40\u5948\u826f\u56fd\u9053\u4e8b\u52d9\u6240","boring_xml_url":40,"boring_view_url":1,"soilmap_view_url":null,"soiltest_xml_url":0,"soiltest_view_url":0},{"id":174287,"code":"B4KJ201801006-2536","latitude":"34.5023517","longitude":"135.7912164","source_code":"KK51355693021","project_name":"","survey_name":"\u5927\u548c\u9ad8\u7530\u30d0\u30a4\u30d1\u30b9\u685c\u5ddd\u5074\u9053\u6a4b\u571f\u8cea\u8abf\u67fb\u4f5c\u696d","client_name":"\u56fd\u571f\u4ea4\u901a\u7701\u8fd1\u757f\u5730\u65b9\u6574\u5099\u5c40\u5948\u826f\u56fd\u9053\u4e8b\u52d9\u6240","boring_xml_url":40,"boring_view_url":1,"soilmap_view_url":null,"soiltest_xml_url":0,"soiltest_view_url":0},{"id":174286,"code":"B4KJ201801006-2535","latitude":"34.5026572","longitude":"135.7890497","source_code":"KK51355693020","project_name":"","survey_name":"\u5927\u548c\u9ad8\u7530\u30d0\u30a4\u30d1\u30b9\u685c\u5ddd\u5074\u9053\u6a4b\u571f\u8cea\u8abf\u67fb\u4f5c\u696d","client_name":"\u56fd\u571f\u4ea4\u901a\u7701\u8fd1\u757f\u5730\u65b9\u6574\u5099\u5c40\u5948\u826f\u56fd\u9053\u4e8b\u52d9\u6240","boring_xml_url":40,"boring_view_url":1,"soilmap_view_url":null,"soiltest_xml_url":0,"soiltest_view_url":0},{"id":174285,"code":"B4KJ201801006-2534","latitude":"34.5027406","longitude":"135.7883831","source_code":"KK51355693019","project_name":"","survey_name":"\u5927\u548c\u9ad8\u7530\u30d0\u30a4\u30d1\u30b9\u685c\u5ddd\u5074\u9053\u6a4b\u571f\u8cea\u8abf\u67fb\u4f5c\u696d","client_name":"\u56fd\u571f\u4ea4\u901a\u7701\u8fd1\u757f\u5730\u65b9\u6574\u5099\u5c40\u5948\u826f\u56fd\u9053\u4e8b\u52d9\u6240","boring_xml_url":40,"boring_view_url":1,"soilmap_view_url":null,"soiltest_xml_url":0,"soiltest_view_url":0},{"id":174284,"code":"B4KJ201801006-2533","latitude":"34.5027683","longitude":"135.7871889","source_code":"KK51355693018","project_name":"","survey_name":"\u5927\u548c\u9ad8\u7530\u30d0\u30a4\u30d1\u30b9\u685c\u5ddd\u5074\u9053\u6a4b\u571f\u8cea\u8abf\u67fb\u4f5c\u696d","client_name":"\u56fd\u571f\u4ea4\u901a\u7701\u8fd1\u757f\u5730\u65b9\u6574\u5099\u5c40\u5948\u826f\u56fd\u9053\u4e8b\u52d9\u6240","boring_xml_url":40,"boring_view_url":1,"soilmap_view_url":null,"soiltest_xml_url":0,"soiltest_view_url":0},{"id":174283,"code":"B4KJ201801006-2532","latitude":"34.5021294","longitude":"135.7919106","source_code":"KK51355693017","project_name":"","survey_name":"\u5927\u548c\u9ad8\u7530\u30d0\u30a4\u30d1\u30b9\u56db\u6761\u5730\u533a\u571f\u8cea\u8abf\u67fb\u4f5c\u696d","client_name":"\u56fd\u571f\u4ea4\u901a\u7701\u8fd1\u757f\u5730\u65b9\u6574\u5099\u5c40\u5948\u826f\u56fd\u9053\u4e8b\u52d9\u6240","boring_xml_url":40,"boring_view_url":1,"soilmap_view_url":null,"soiltest_xml_url":0,"soiltest_view_url":0},{"id":174282,"code":"B4KJ201801006-2531","latitude":"34.5022961","longitude":"135.7912442","source_code":"KK51355693016","project_name":"","survey_name":"\u5927\u548c\u9ad8\u7530\u30d0\u30a4\u30d1\u30b9\u56db\u6761\u5730\u533a\u571f\u8cea\u8abf\u67fb\u4f5c\u696d","client_name":"\u56fd\u571f\u4ea4\u901a\u7701\u8fd1\u757f\u5730\u65b9\u6574\u5099\u5c40\u5948\u826f\u56fd\u9053\u4e8b\u52d9\u6240","boring_xml_url":40,"boring_view_url":1,"soilmap_view_url":null,"soiltest_xml_url":0,"soiltest_view_url":0},{"id":174281,"code":"B4KJ201801006-2530","latitude":"34.5023794","longitude":"135.7906886","source_code":"KK51355693015","project_name":"","survey_name":"\u5927\u548c\u9ad8\u7530\u30d0\u30a4\u30d1\u30b9\u56db\u6761\u5730\u533a\u571f\u8cea\u8abf\u67fb\u4f5c\u696d","client_name":"\u56fd\u571f\u4ea4\u901a\u7701\u8fd1\u757f\u5730\u65b9\u6574\u5099\u5c40\u5948\u826f\u56fd\u9053\u4e8b\u52d9\u6240","boring_xml_url":40,"boring_view_url":1,"soilmap_view_url":null,"soiltest_xml_url":0,"soiltest_view_url":0},{"id":174280,"code":"B4KJ201801006-2529","latitude":"34.5025739","longitude":"135.7901331","source_code":"KK51355693014","project_name":"","survey_name":"\u5927\u548c\u9ad8\u7530\u30d0\u30a4\u30d1\u30b9\u56db\u6761\u5730\u533a\u571f\u8cea\u8abf\u67fb\u4f5c\u696d","client_name":"\u56fd\u571f\u4ea4\u901a\u7701\u8fd1\u757f\u5730\u65b9\u6574\u5099\u5c40\u5948\u826f\u56fd\u9053\u4e8b\u52d9\u6240","boring_xml_url":40,"boring_view_url":1,"soilmap_view_url":null,"soiltest_xml_url":0,"soiltest_view_url":0},{"id":174279,"code":"B4KJ201801006-2528","latitude":"34.5025739","longitude":"135.7896053","source_code":"KK51355693013","project_name":"","survey_name":"\u5927\u548c\u9ad8\u7530\u30d0\u30a4\u30d1\u30b9\u56db\u6761\u5730\u533a\u571f\u8cea\u8abf\u67fb\u4f5c\u696d","client_name":"\u56fd\u571f\u4ea4\u901a\u7701\u8fd1\u757f\u5730\u65b9\u6574\u5099\u5c40\u5948\u826f\u56fd\u9053\u4e8b\u52d9\u6240","boring_xml_url":40,"boring_view_url":1,"soilmap_view_url":null,"soiltest_xml_url":0,"soiltest_view_url":0},{"id":174278,"code":"B4KJ201801006-2527","latitude":"34.5027128","longitude":"135.7886331","source_code":"KK51355693012","project_name":"","survey_name":"\u5927\u548c\u9ad8\u7530\u30d0\u30a4\u30d1\u30b9\u56db\u6761\u5730\u533a\u571f\u8cea\u8abf\u67fb\u4f5c\u696d","client_name":"\u56fd\u571f\u4ea4\u901a\u7701\u8fd1\u757f\u5730\u65b9\u6574\u5099\u5c40\u5948\u826f\u56fd\u9053\u4e8b\u52d9\u6240","boring_xml_url":40,"boring_view_url":1,"soilmap_view_url":null,"soiltest_xml_url":0,"soiltest_view_url":0},{"id":174277,"code":"B4KJ201801006-2526","latitude":"34.5028239","longitude":"135.7880778","source_code":"KK51355693011","project_name":"","survey_name":"\u5927\u548c\u9ad8\u7530\u30d0\u30a4\u30d1\u30b9\u56db\u6761\u5730\u533a\u571f\u8cea\u8abf\u67fb\u4f5c\u696d","client_name":"\u56fd\u571f\u4ea4\u901a\u7701\u8fd1\u757f\u5730\u65b9\u6574\u5099\u5c40\u5948\u826f\u56fd\u9053\u4e8b\u52d9\u6240","boring_xml_url":40,"boring_view_url":1,"soilmap_view_url":null,"soiltest_xml_url":0,"soiltest_view_url":0},{"id":174276,"code":"B4KJ201801006-2525","latitude":"34.5025739","longitude":"135.7872722","source_code":"KK51355693010","project_name":"","survey_name":"\u5927\u548c\u9ad8\u7530\u30d0\u30a4\u30d1\u30b9\u56db\u6761\u5730\u533a\u571f\u8cea\u8abf\u67fb\u4f5c\u696d","client_name":"\u56fd\u571f\u4ea4\u901a\u7701\u8fd1\u757f\u5730\u65b9\u6574\u5099\u5c40\u5948\u826f\u56fd\u9053\u4e8b\u52d9\u6240","boring_xml_url":40,"boring_view_url":1,"soilmap_view_url":null,"soiltest_xml_url":0,"soiltest_view_url":0},{"id":174275,"code":"B4KJ201801006-2524","latitude":"34.5028239","longitude":"135.7867167","source_code":"KK51355693009","project_name":"","survey_name":"\u5927\u548c\u9ad8\u7530\u30d0\u30a4\u30d1\u30b9\u56db\u6761\u5730\u533a\u571f\u8cea\u8abf\u67fb\u4f5c\u696d","client_name":"\u56fd\u571f\u4ea4\u901a\u7701\u8fd1\u757f\u5730\u65b9\u6574\u5099\u5c40\u5948\u826f\u56fd\u9053\u4e8b\u52d9\u6240","boring_xml_url":40,"boring_view_url":1,"soilmap_view_url":null,"soiltest_xml_url":0,"soiltest_view_url":0},{"id":174274,"code":"B4KJ201801006-2523","latitude":"34.5027128","longitude":"135.7864389","source_code":"KK51355693008","project_name":"","survey_name":"\u5927\u548c\u9ad8\u7530\u30d0\u30a4\u30d1\u30b9\u56db\u6761\u5730\u533a\u571f\u8cea\u8abf\u67fb\u4f5c\u696d","client_name":"\u56fd\u571f\u4ea4\u901a\u7701\u8fd1\u757f\u5730\u65b9\u6574\u5099\u5c40\u5948\u826f\u56fd\u9053\u4e8b\u52d9\u6240","boring_xml_url":40,"boring_view_url":1,"soilmap_view_url":null,"soiltest_xml_url":0,"soiltest_view_url":0},{"id":174273,"code":"B4KJ201801006-2522","latitude":"34.5025739","longitude":"135.7856333","source_code":"KK51355693007","project_name":"","survey_name":"\u5927\u548c\u9ad8\u7530\u30d0\u30a4\u30d1\u30b9\u56db\u6761\u5730\u533a\u571f\u8cea\u8abf\u67fb\u4f5c\u696d","client_name":"\u56fd\u571f\u4ea4\u901a\u7701\u8fd1\u757f\u5730\u65b9\u6574\u5099\u5c40\u5948\u826f\u56fd\u9053\u4e8b\u52d9\u6240","boring_xml_url":40,"boring_view_url":1,"soilmap_view_url":null,"soiltest_xml_url":0,"soiltest_view_url":0},{"id":174272,"code":"B4KJ201801006-2521","latitude":"34.5025739","longitude":"135.7853278","source_code":"KK51355693006","project_name":"","survey_name":"\u5927\u548c\u9ad8\u7530\u30d0\u30a4\u30d1\u30b9\u56db\u6761\u5730\u533a\u571f\u8cea\u8abf\u67fb\u4f5c\u696d","client_name":"\u56fd\u571f\u4ea4\u901a\u7701\u8fd1\u757f\u5730\u65b9\u6574\u5099\u5c40\u5948\u826f\u56fd\u9053\u4e8b\u52d9\u6240","boring_xml_url":40,"boring_view_url":1,"soilmap_view_url":null,"soiltest_xml_url":0,"soiltest_view_url":0},{"id":174271,"code":"B4KJ201801006-2520","latitude":"34.4992961","longitude":"135.7726347","source_code":"KK51355692027","project_name":"","survey_name":"\u5927\u548c\u9ad8\u7530\u30d0\u30a4\u30d1\u30b9\u5bfa\u7530\u9ad8\u67b6\u8a73\u7d30\u8a2d\u8a08\u696d\u52d9","client_name":"\u56fd\u571f\u4ea4\u901a\u7701\u8fd1\u757f\u5730\u65b9\u6574\u5099\u5c40\u5948\u826f\u56fd\u9053\u4e8b\u52d9\u6240","boring_xml_url":40,"boring_view_url":1,"soilmap_view_url":null,"soiltest_xml_url":0,"soiltest_view_url":0},{"id":174270,"code":"B4KJ201801006-2519","latitude":"34.5004906","longitude":"135.7807728","source_code":"KK51355692026","project_name":"","survey_name":"\u5927\u548c\u9ad8\u7530\u30d0\u30a4\u30d1\u30b9\u56db\u6761\u5730\u533a\u571f\u8cea\u8abf\u67fb\u696d\u52d9","client_name":"\u56fd\u571f\u4ea4\u901a\u7701\u8fd1\u757f\u5730\u65b9\u6574\u5099\u5c40\u5948\u826f\u56fd\u9053\u4e8b\u52d9\u6240","boring_xml_url":40,"boring_view_url":1,"soilmap_view_url":null,"soiltest_xml_url":0,"soiltest_view_url":0},{"id":174269,"code":"B4KJ201801006-2518","latitude":"34.4993794","longitude":"135.7740511","source_code":"KK51355692025","project_name":"","survey_name":"\u5927\u548c\u9ad8\u7530\u30d0\u30a4\u30d1\u30b9\u5bfa\u7530\u9ad8\u67b6\u8a73\u7d30\u8a2d\u8a08\u696d\u52d9","client_name":"\u56fd\u571f\u4ea4\u901a\u7701\u8fd1\u757f\u5730\u65b9\u6574\u5099\u5c40\u5948\u826f\u56fd\u9053\u4e8b\u52d9\u6240","boring_xml_url":40,"boring_view_url":1,"soilmap_view_url":null,"soiltest_xml_url":0,"soiltest_view_url":0},{"id":174268,"code":"B4KJ201801006-2517","latitude":"34.5010461","longitude":"135.7824394","source_code":"KK51355692024","project_name":"","survey_name":"\u5927\u548c\u9ad8\u7530\u30d0\u30a4\u30d1\u30b9\u56db\u6761\u5730\u533a\u571f\u8cea\u8abf\u67fb\u696d\u52d9","client_name":"\u56fd\u571f\u4ea4\u901a\u7701\u8fd1\u757f\u5730\u65b9\u6574\u5099\u5c40\u5948\u826f\u56fd\u9053\u4e8b\u52d9\u6240","boring_xml_url":40,"boring_view_url":1,"soilmap_view_url":null,"soiltest_xml_url":0,"soiltest_view_url":0},{"id":174267,"code":"B4KJ201801006-2516","latitude":"34.4995461","longitude":"135.7755511","source_code":"KK51355692023","project_name":"","survey_name":"\u5927\u548c\u9ad8\u7530\u30d0\u30a4\u30d1\u30b9\u5bfa\u7530\u9ad8\u67b6\u8a73\u7d30\u8a2d\u8a08\u696d\u52d9","client_name":"\u56fd\u571f\u4ea4\u901a\u7701\u8fd1\u757f\u5730\u65b9\u6574\u5099\u5c40\u5948\u826f\u56fd\u9053\u4e8b\u52d9\u6240","boring_xml_url":40,"boring_view_url":1,"soilmap_view_url":null,"soiltest_xml_url":0,"soiltest_view_url":0},{"id":174266,"code":"B4KJ201801006-2515","latitude":"34.5004628","longitude":"135.7794119","source_code":"KK51355692016","project_name":"","survey_name":"\u5927\u548c\u9ad8\u7530\u30d0\u30a4\u30d1\u30b9\u56db\u6761\u9ad8\u67b6\u6a4b\u5730\u8cea\u8abf\u67fb\u4f5c\u696d","client_name":"\u56fd\u571f\u4ea4\u901a\u7701\u8fd1\u757f\u5730\u65b9\u6574\u5099\u5c40\u5948\u826f\u56fd\u9053\u4e8b\u52d9\u6240","boring_xml_url":40,"boring_view_url":1,"soilmap_view_url":null,"soiltest_xml_url":0,"soiltest_view_url":0}]}}