{"header":{"xyz":{"source":[],"mosaic":false},"page":4883,"raw":{"soiltest_result":"0","bbox":"57.598333,109.544722,1.933333,163.806111","page":"4883"},"conditions":{"soiltest_result":0,"north":57.598333,"west":109.544722,"south":1.933333,"east":163.806111},"success":true,"message":""},"data":{"meta":{"total":212844,"page":4883,"pages":7095,"count":30},"values":[{"id":174085,"code":"B4KJ201801006-2334","latitude":"34.4887892","longitude":"135.4196381","source_code":"KK51355383005","project_name":"","survey_name":"\u6cc9\u5927\u6d25\u9ad8\u67b6\u6a4b\u5730\u8cea\u8abf\u67fb\u4f5c\u696d","client_name":"\u56fd\u571f\u4ea4\u901a\u7701\u8fd1\u757f\u5730\u65b9\u6574\u5099\u5c40\u6d6a\u901f\u56fd\u9053\u4e8b\u52d9\u6240","boring_xml_url":40,"boring_view_url":1,"soilmap_view_url":null,"soiltest_xml_url":0,"soiltest_view_url":0},{"id":174084,"code":"B4KJ201801006-2333","latitude":"34.4883447","longitude":"135.4191936","source_code":"KK51355383003","project_name":"","survey_name":"\u6cc9\u5927\u6d25\u9ad8\u67b6\u6a4b\u5730\u8cea\u8abf\u67fb\u305d\u306e2\u4f5c\u696d","client_name":"\u56fd\u571f\u4ea4\u901a\u7701\u8fd1\u757f\u5730\u65b9\u6574\u5099\u5c40\u6d6a\u901f\u56fd\u9053\u4e8b\u52d9\u6240","boring_xml_url":40,"boring_view_url":1,"soilmap_view_url":null,"soiltest_xml_url":0,"soiltest_view_url":0},{"id":174083,"code":"B4KJ201801006-2332","latitude":"34.4879558","longitude":"135.4188606","source_code":"KK51355383002","project_name":"","survey_name":"\u6cc9\u5927\u6d25\u9ad8\u67b6\u6a4b\u5730\u8cea\u8abf\u67fb\u4f5c\u696d","client_name":"\u56fd\u571f\u4ea4\u901a\u7701\u8fd1\u757f\u5730\u65b9\u6574\u5099\u5c40\u6d6a\u901f\u56fd\u9053\u4e8b\u52d9\u6240","boring_xml_url":40,"boring_view_url":1,"soilmap_view_url":null,"soiltest_xml_url":0,"soiltest_view_url":0},{"id":174082,"code":"B4KJ201801006-2331","latitude":"34.4877892","longitude":"135.4186106","source_code":"KK51355383001","project_name":"","survey_name":"\u6cc9\u5927\u6d25\u9ad8\u67b6\u6a4b\u5730\u8cea\u8abf\u67fb\u305d\u306e2\u4f5c\u696d","client_name":"\u56fd\u571f\u4ea4\u901a\u7701\u8fd1\u757f\u5730\u65b9\u6574\u5099\u5c40\u6d6a\u901f\u56fd\u9053\u4e8b\u52d9\u6240","boring_xml_url":40,"boring_view_url":1,"soilmap_view_url":null,"soiltest_xml_url":0,"soiltest_view_url":0},{"id":174081,"code":"B4KJ201801006-2330","latitude":"34.4824286","longitude":"135.4138611","source_code":"KK51355373011","project_name":"","survey_name":"\u5fe0\u5ca1\u5730\u533a\u5730\u8cea\u8abf\u67fb\u4f5c\u696d","client_name":"\u56fd\u571f\u4ea4\u901a\u7701\u8fd1\u757f\u5730\u65b9\u6574\u5099\u5c40\u6d6a\u901f\u56fd\u9053\u4e8b\u52d9\u6240","boring_xml_url":40,"boring_view_url":1,"soilmap_view_url":null,"soiltest_xml_url":0,"soiltest_view_url":0},{"id":174080,"code":"B4KJ201801006-2329","latitude":"34.4815953","longitude":"135.4121947","source_code":"KK51355373010","project_name":"","survey_name":"\u5fe0\u5ca1\u5730\u533a\u5730\u8cea\u8abf\u67fb\u4f5c\u696d","client_name":"\u56fd\u571f\u4ea4\u901a\u7701\u8fd1\u757f\u5730\u65b9\u6574\u5099\u5c40\u6d6a\u901f\u56fd\u9053\u4e8b\u52d9\u6240","boring_xml_url":40,"boring_view_url":1,"soilmap_view_url":null,"soiltest_xml_url":0,"soiltest_view_url":0},{"id":174079,"code":"B4KJ201801006-2328","latitude":"34.4807619","longitude":"135.4110836","source_code":"KK51355373009","project_name":"","survey_name":"\u5fe0\u5ca1\u5730\u533a\u5730\u8cea\u8abf\u67fb\u4f5c\u696d","client_name":"\u56fd\u571f\u4ea4\u901a\u7701\u8fd1\u757f\u5730\u65b9\u6574\u5099\u5c40\u6d6a\u901f\u56fd\u9053\u4e8b\u52d9\u6240","boring_xml_url":40,"boring_view_url":1,"soilmap_view_url":null,"soiltest_xml_url":0,"soiltest_view_url":0},{"id":174078,"code":"B4KJ201801006-2327","latitude":"34.4833175","longitude":"135.4129167","source_code":"KK51355373007","project_name":"","survey_name":"\u69cb\u9020\u7269\u500b\u6240\u571f\u8cea\u8abf\u67fb\u5de5\u4e8b","client_name":"\u56fd\u571f\u4ea4\u901a\u7701\u8fd1\u757f\u5730\u65b9\u6574\u5099\u5c40\u5927\u962a\u56fd\u9053\u4e8b\u52d9\u6240","boring_xml_url":40,"boring_view_url":1,"soilmap_view_url":null,"soiltest_xml_url":0,"soiltest_view_url":0},{"id":174077,"code":"B4KJ201801006-2326","latitude":"34.4833175","longitude":"135.4129167","source_code":"KK51355373005","project_name":"","survey_name":"\u69cb\u9020\u7269\u500b\u6240\u571f\u8cea\u8abf\u67fb\u5de5\u4e8b","client_name":"\u56fd\u571f\u4ea4\u901a\u7701\u8fd1\u757f\u5730\u65b9\u6574\u5099\u5c40\u5927\u962a\u56fd\u9053\u4e8b\u52d9\u6240","boring_xml_url":40,"boring_view_url":1,"soilmap_view_url":null,"soiltest_xml_url":0,"soiltest_view_url":0},{"id":174076,"code":"B4KJ201801006-2325","latitude":"34.4830675","longitude":"135.4138333","source_code":"KK51355373002","project_name":"","survey_name":"\u583a\u5e02\u69cb\u9020\u7269\u7b87\u6240\u5730\u8cea\u8abf\u67fb\u4f5c\u696d","client_name":"\u56fd\u571f\u4ea4\u901a\u7701\u8fd1\u757f\u5730\u65b9\u6574\u5099\u5c40\u6d6a\u901f\u56fd\u9053\u4e8b\u52d9\u6240","boring_xml_url":40,"boring_view_url":1,"soilmap_view_url":null,"soiltest_xml_url":0,"soiltest_view_url":0},{"id":174075,"code":"B4KJ201801006-2324","latitude":"34.4828175","longitude":"135.4135833","source_code":"KK51355373001","project_name":"","survey_name":"\u583a\u5e02\u69cb\u9020\u7269\u7b87\u6240\u5730\u8cea\u8abf\u67fb\u4f5c\u696d","client_name":"\u56fd\u571f\u4ea4\u901a\u7701\u8fd1\u757f\u5730\u65b9\u6574\u5099\u5c40\u6d6a\u901f\u56fd\u9053\u4e8b\u52d9\u6240","boring_xml_url":40,"boring_view_url":1,"soilmap_view_url":null,"soiltest_xml_url":0,"soiltest_view_url":0},{"id":174074,"code":"B4KJ201801006-2323","latitude":"34.605844","longitude":"135.478008","source_code":"KK51355367001","project_name":"","survey_name":"\u5730\u4e0b\u6c34\u8abf\u67fb\u53ca\u3073\u89b3\u6e2c\u6240\u8a2d\u7f6e\u4f5c\u696d","client_name":"\u56fd\u571f\u4ea4\u901a\u7701\u8fd1\u757f\u5730\u65b9\u6574\u5099\u5c40\u6dc0\u5ddd\u6cb3\u5ddd\u4e8b\u52d9\u6240","boring_xml_url":40,"boring_view_url":1,"soilmap_view_url":null,"soiltest_xml_url":0,"soiltest_view_url":0},{"id":174073,"code":"B4KJ201801006-2322","latitude":"34.4770403","longitude":"135.4069731","source_code":"KK51355362017","project_name":"","survey_name":"\u897f\u5927\u8def\u9ad8\u67b6\u6a4b\u5730\u8cea\u8abf\u67fb\u4f5c\u696d","client_name":"\u56fd\u571f\u4ea4\u901a\u7701\u8fd1\u757f\u5730\u65b9\u6574\u5099\u5c40\u6d6a\u901f\u56fd\u9053\u4e8b\u52d9\u6240","boring_xml_url":40,"boring_view_url":1,"soilmap_view_url":null,"soiltest_xml_url":0,"soiltest_view_url":0},{"id":174072,"code":"B4KJ201801006-2321","latitude":"34.4769292","longitude":"135.4068342","source_code":"KK51355362016","project_name":"","survey_name":"\u897f\u5927\u8def\u9ad8\u67b6\u6a4b\u5730\u8cea\u8abf\u67fb\u4f5c\u696d","client_name":"\u56fd\u571f\u4ea4\u901a\u7701\u8fd1\u757f\u5730\u65b9\u6574\u5099\u5c40\u6d6a\u901f\u56fd\u9053\u4e8b\u52d9\u6240","boring_xml_url":40,"boring_view_url":1,"soilmap_view_url":null,"soiltest_xml_url":0,"soiltest_view_url":0},{"id":174071,"code":"B4KJ201801006-2320","latitude":"34.4768458","longitude":"135.4066675","source_code":"KK51355362015","project_name":"","survey_name":"\u897f\u5927\u8def\u9ad8\u67b6\u6a4b\u5730\u8cea\u8abf\u67fb\u4f5c\u696d","client_name":"\u56fd\u571f\u4ea4\u901a\u7701\u8fd1\u757f\u5730\u65b9\u6574\u5099\u5c40\u6d6a\u901f\u56fd\u9053\u4e8b\u52d9\u6240","boring_xml_url":40,"boring_view_url":1,"soilmap_view_url":null,"soiltest_xml_url":0,"soiltest_view_url":0},{"id":174070,"code":"B4KJ201801006-2319","latitude":"34.4767347","longitude":"135.4065286","source_code":"KK51355362014","project_name":"","survey_name":"\u897f\u5927\u8def\u9ad8\u67b6\u6a4b\u5730\u8cea\u8abf\u67fb","client_name":"\u56fd\u571f\u4ea4\u901a\u7701\u8fd1\u757f\u5730\u65b9\u6574\u5099\u5c40\u6d6a\u901f\u56fd\u9053\u4e8b\u52d9\u6240","boring_xml_url":40,"boring_view_url":1,"soilmap_view_url":null,"soiltest_xml_url":0,"soiltest_view_url":0},{"id":174069,"code":"B4KJ201801006-2318","latitude":"34.4765958","longitude":"135.4064175","source_code":"KK51355362012","project_name":"","survey_name":"\u897f\u5927\u8def\u9ad8\u67b6\u6a4b\u5730\u8cea\u8abf\u67fb","client_name":"\u56fd\u571f\u4ea4\u901a\u7701\u8fd1\u757f\u5730\u65b9\u6574\u5099\u5c40\u6d6a\u901f\u56fd\u9053\u4e8b\u52d9\u6240","boring_xml_url":40,"boring_view_url":1,"soilmap_view_url":null,"soiltest_xml_url":0,"soiltest_view_url":0},{"id":174068,"code":"B4KJ201801006-2317","latitude":"34.4764292","longitude":"135.4062231","source_code":"KK51355362011","project_name":"","survey_name":"\u897f\u5927\u8def\u9ad8\u67b6\u6a4b\u5730\u8cea\u8abf\u67fb","client_name":"\u56fd\u571f\u4ea4\u901a\u7701\u8fd1\u757f\u5730\u65b9\u6574\u5099\u5c40\u6d6a\u901f\u56fd\u9053\u4e8b\u52d9\u6240","boring_xml_url":40,"boring_view_url":1,"soilmap_view_url":null,"soiltest_xml_url":0,"soiltest_view_url":0},{"id":174067,"code":"B4KJ201801006-2316","latitude":"34.4763181","longitude":"135.4060564","source_code":"KK51355362010","project_name":"","survey_name":"\u897f\u5927\u8def\u9ad8\u67b6\u6a4b\u5730\u8cea\u8abf\u67fb","client_name":"\u56fd\u571f\u4ea4\u901a\u7701\u8fd1\u757f\u5730\u65b9\u6574\u5099\u5c40\u6d6a\u901f\u56fd\u9053\u4e8b\u52d9\u6240","boring_xml_url":40,"boring_view_url":1,"soilmap_view_url":null,"soiltest_xml_url":0,"soiltest_view_url":0},{"id":174066,"code":"B4KJ201801006-2315","latitude":"34.4762347","longitude":"135.4058619","source_code":"KK51355362009","project_name":"","survey_name":"\u897f\u5927\u8def\u9ad8\u67b6\u6a4b\u5730\u8cea\u8abf\u67fb","client_name":"\u56fd\u571f\u4ea4\u901a\u7701\u8fd1\u757f\u5730\u65b9\u6574\u5099\u5c40\u6d6a\u901f\u56fd\u9053\u4e8b\u52d9\u6240","boring_xml_url":40,"boring_view_url":1,"soilmap_view_url":null,"soiltest_xml_url":0,"soiltest_view_url":0},{"id":174065,"code":"B4KJ201801006-2314","latitude":"34.4759014","longitude":"135.4054453","source_code":"KK51355362008","project_name":"","survey_name":"\u897f\u5927\u8def\u9ad8\u67b6\u6a4b\u5730\u8cea\u8abf\u67fb","client_name":"\u56fd\u571f\u4ea4\u901a\u7701\u8fd1\u757f\u5730\u65b9\u6574\u5099\u5c40\u6d6a\u901f\u56fd\u9053\u4e8b\u52d9\u6240","boring_xml_url":40,"boring_view_url":1,"soilmap_view_url":null,"soiltest_xml_url":0,"soiltest_view_url":0},{"id":174064,"code":"B4KJ201801006-2313","latitude":"34.4757625","longitude":"135.4052786","source_code":"KK51355362007","project_name":"","survey_name":"\u897f\u5927\u8def\u9ad8\u67b6\u6a4b\u5730\u8cea\u8abf\u67fb","client_name":"\u56fd\u571f\u4ea4\u901a\u7701\u8fd1\u757f\u5730\u65b9\u6574\u5099\u5c40\u6d6a\u901f\u56fd\u9053\u4e8b\u52d9\u6240","boring_xml_url":40,"boring_view_url":1,"soilmap_view_url":null,"soiltest_xml_url":0,"soiltest_view_url":0},{"id":174063,"code":"B4KJ201801006-2312","latitude":"34.4756236","longitude":"135.4051397","source_code":"KK51355362006","project_name":"","survey_name":"\u897f\u5927\u8def\u9ad8\u67b6\u6a4b\u5730\u8cea\u8abf\u67fb","client_name":"\u56fd\u571f\u4ea4\u901a\u7701\u8fd1\u757f\u5730\u65b9\u6574\u5099\u5c40\u6d6a\u901f\u56fd\u9053\u4e8b\u52d9\u6240","boring_xml_url":40,"boring_view_url":1,"soilmap_view_url":null,"soiltest_xml_url":0,"soiltest_view_url":0},{"id":174062,"code":"B4KJ201801006-2311","latitude":"34.4755125","longitude":"135.4050011","source_code":"KK51355362004","project_name":"","survey_name":"\u897f\u5927\u8def\u9ad8\u67b6\u6a4b\u5730\u8cea\u8abf\u67fb","client_name":"\u56fd\u571f\u4ea4\u901a\u7701\u8fd1\u757f\u5730\u65b9\u6574\u5099\u5c40\u6d6a\u901f\u56fd\u9053\u4e8b\u52d9\u6240","boring_xml_url":40,"boring_view_url":1,"soilmap_view_url":null,"soiltest_xml_url":0,"soiltest_view_url":0},{"id":174061,"code":"B4KJ201801006-2310","latitude":"34.4753736","longitude":"135.4048622","source_code":"KK51355362003","project_name":"","survey_name":"\u897f\u5927\u8def\u9ad8\u67b6\u6a4b\u5730\u8cea\u8abf\u67fb","client_name":"\u56fd\u571f\u4ea4\u901a\u7701\u8fd1\u757f\u5730\u65b9\u6574\u5099\u5c40\u6d6a\u901f\u56fd\u9053\u4e8b\u52d9\u6240","boring_xml_url":40,"boring_view_url":1,"soilmap_view_url":null,"soiltest_xml_url":0,"soiltest_view_url":0},{"id":174060,"code":"B4KJ201801006-2309","latitude":"34.4752625","longitude":"135.4047233","source_code":"KK51355362002","project_name":"","survey_name":"\u897f\u5927\u8def\u9ad8\u67b6\u6a4b\u5730\u8cea\u8abf\u67fb","client_name":"\u56fd\u571f\u4ea4\u901a\u7701\u8fd1\u757f\u5730\u65b9\u6574\u5099\u5c40\u6d6a\u901f\u56fd\u9053\u4e8b\u52d9\u6240","boring_xml_url":40,"boring_view_url":1,"soilmap_view_url":null,"soiltest_xml_url":0,"soiltest_view_url":0},{"id":174059,"code":"B4KJ201801006-2308","latitude":"34.4750958","longitude":"135.4045567","source_code":"KK51355362001","project_name":"","survey_name":"\u897f\u5927\u8def\u9ad8\u67b6\u6a4b\u5730\u8cea\u8abf\u67fb","client_name":"\u56fd\u571f\u4ea4\u901a\u7701\u8fd1\u757f\u5730\u65b9\u6574\u5099\u5c40\u6d6a\u901f\u56fd\u9053\u4e8b\u52d9\u6240","boring_xml_url":40,"boring_view_url":1,"soilmap_view_url":null,"soiltest_xml_url":0,"soiltest_view_url":0},{"id":174058,"code":"B4KJ201801006-2307","latitude":"34.4648747","longitude":"135.3957522","source_code":"KK51355351003","project_name":"","survey_name":"\u69cb\u9020\u7269\u7b87\u6240\u571f\u8cea\u8abf\u67fb\u5de5\u4e8b","client_name":"\u56fd\u571f\u4ea4\u901a\u7701\u8fd1\u757f\u5730\u65b9\u6574\u5099\u5c40\u5927\u962a\u56fd\u9053\u4e8b\u52d9\u6240","boring_xml_url":40,"boring_view_url":1,"soilmap_view_url":null,"soiltest_xml_url":0,"soiltest_view_url":0},{"id":174057,"code":"B4KJ201801006-2306","latitude":"34.4621528","longitude":"135.3923358","source_code":"KK51355351001","project_name":"","survey_name":"\u7b2c\u4e8c\u962a\u548c\u56fd\u9053\u571f\u8cea\u8abf\u67fb","client_name":"\u56fd\u571f\u4ea4\u901a\u7701\u8fd1\u757f\u5730\u65b9\u6574\u5099\u5c40\u5927\u962a\u56fd\u9053\u4e8b\u52d9\u6240","boring_xml_url":40,"boring_view_url":1,"soilmap_view_url":null,"soiltest_xml_url":0,"soiltest_view_url":0},{"id":174056,"code":"B4KJ201801006-2305","latitude":"34.4612639","longitude":"135.3934469","source_code":"KK51355341006","project_name":"","survey_name":"\u7b2c\u4e8c\u962a\u548c\u56fd\u9053\u571f\u8cea\u8abf\u67fb","client_name":"\u56fd\u571f\u4ea4\u901a\u7701\u8fd1\u757f\u5730\u65b9\u6574\u5099\u5c40\u5927\u962a\u56fd\u9053\u4e8b\u52d9\u6240","boring_xml_url":40,"boring_view_url":1,"soilmap_view_url":null,"soiltest_xml_url":0,"soiltest_view_url":0}]}}