{"header":{"xyz":{"source":[],"mosaic":false},"page":4884,"raw":{"soiltest_result":"0","bbox":"57.598333,109.544722,1.933333,163.806111","page":"4884"},"conditions":{"soiltest_result":0,"north":57.598333,"west":109.544722,"south":1.933333,"east":163.806111},"success":true,"message":""},"data":{"meta":{"total":212844,"page":4884,"pages":7095,"count":30},"values":[{"id":174055,"code":"B4KJ201801006-2304","latitude":"34.4570697","longitude":"135.3885308","source_code":"KK51355341003","project_name":"","survey_name":"\u69cb\u9020\u7269\u7b87\u6240\u571f\u8cea\u8abf\u67fb\u5de5\u4e8b","client_name":"\u56fd\u571f\u4ea4\u901a\u7701\u8fd1\u757f\u5730\u65b9\u6574\u5099\u5c40\u5927\u962a\u56fd\u9053\u4e8b\u52d9\u6240","boring_xml_url":40,"boring_view_url":1,"soilmap_view_url":null,"soiltest_xml_url":0,"soiltest_view_url":0},{"id":174054,"code":"B4KJ201801006-2303","latitude":"34.4574308","longitude":"135.3909472","source_code":"KK51355341002","project_name":"","survey_name":"\u7b2c\u4e8c\u962a\u548c\u56fd\u9053\u571f\u8cea\u8abf\u67fb","client_name":"\u56fd\u571f\u4ea4\u901a\u7701\u8fd1\u757f\u5730\u65b9\u6574\u5099\u5c40\u5927\u962a\u56fd\u9053\u4e8b\u52d9\u6240","boring_xml_url":40,"boring_view_url":1,"soilmap_view_url":null,"soiltest_xml_url":0,"soiltest_view_url":0},{"id":174053,"code":"B4KJ201801006-2302","latitude":"34.4521536","longitude":"135.3831147","source_code":"KK51355330004","project_name":"","survey_name":"\u548c\u6cc9 \u5cb8\u548c\u7530\u5730\u533a\u571f\u8cea\u8abf\u67fb\u696d\u52d9","client_name":"\u56fd\u571f\u4ea4\u901a\u7701\u8fd1\u757f\u5730\u65b9\u6574\u5099\u5c40\u6d6a\u901f\u56fd\u9053\u4e8b\u52d9\u6240","boring_xml_url":40,"boring_view_url":1,"soilmap_view_url":null,"soiltest_xml_url":0,"soiltest_view_url":0},{"id":174052,"code":"B4KJ201801006-2301","latitude":"34.4516258","longitude":"135.3822817","source_code":"KK51355330003","project_name":"","survey_name":"\u548c\u6cc9 \u5cb8\u548c\u7530\u5730\u533a\u571f\u8cea\u8abf\u67fb\u696d\u52d9","client_name":"\u56fd\u571f\u4ea4\u901a\u7701\u8fd1\u757f\u5730\u65b9\u6574\u5099\u5c40\u6d6a\u901f\u56fd\u9053\u4e8b\u52d9\u6240","boring_xml_url":40,"boring_view_url":1,"soilmap_view_url":null,"soiltest_xml_url":0,"soiltest_view_url":0},{"id":174051,"code":"B4KJ201801006-2300","latitude":"34.4512369","longitude":"135.3813094","source_code":"KK51355330002","project_name":"","survey_name":"\u548c\u6cc9 \u5cb8\u548c\u7530\u5730\u533a\u571f\u8cea\u8abf\u67fb\u696d\u52d9","client_name":"\u56fd\u571f\u4ea4\u901a\u7701\u8fd1\u757f\u5730\u65b9\u6574\u5099\u5c40\u6d6a\u901f\u56fd\u9053\u4e8b\u52d9\u6240","boring_xml_url":40,"boring_view_url":1,"soilmap_view_url":null,"soiltest_xml_url":0,"soiltest_view_url":0},{"id":174050,"code":"B4KJ201801006-2299","latitude":"34.4510703","longitude":"135.3806983","source_code":"KK51355330001","project_name":"","survey_name":"\u548c\u6cc9 \u5cb8\u548c\u7530\u5730\u533a\u571f\u8cea\u8abf\u67fb\u696d\u52d9","client_name":"\u56fd\u571f\u4ea4\u901a\u7701\u8fd1\u757f\u5730\u65b9\u6574\u5099\u5c40\u6d6a\u901f\u56fd\u9053\u4e8b\u52d9\u6240","boring_xml_url":40,"boring_view_url":1,"soilmap_view_url":null,"soiltest_xml_url":0,"soiltest_view_url":0},{"id":174049,"code":"B4KJ201801006-2298","latitude":"34.4474872","longitude":"135.3711994","source_code":"KK51355239005","project_name":"","survey_name":"\u69cb\u9020\u7269\u7b87\u6240\u571f\u8cea\u8abf\u67fb\u5de5\u4e8b","client_name":"\u56fd\u571f\u4ea4\u901a\u7701\u8fd1\u757f\u5730\u65b9\u6574\u5099\u5c40\u5927\u962a\u56fd\u9053\u4e8b\u52d9\u6240","boring_xml_url":40,"boring_view_url":1,"soilmap_view_url":null,"soiltest_xml_url":0,"soiltest_view_url":0},{"id":174048,"code":"B4KJ201801006-2297","latitude":"34.447265","longitude":"135.3713383","source_code":"KK51355239004","project_name":"","survey_name":"\u5bbf\u9662\u9ad8\u67b6\u6a4b\u571f\u8cea\u305d\u306e2\u8abf\u67fb","client_name":"\u56fd\u571f\u4ea4\u901a\u7701\u8fd1\u757f\u5730\u65b9\u6574\u5099\u5c40\u6d6a\u901f\u56fd\u9053\u4e8b\u52d9\u6240","boring_xml_url":40,"boring_view_url":1,"soilmap_view_url":null,"soiltest_xml_url":0,"soiltest_view_url":0},{"id":174047,"code":"B4KJ201801006-2296","latitude":"34.447265","longitude":"135.3713383","source_code":"KK51355239003","project_name":"","survey_name":"\u7b2c\u4e8c\u962a\u548c\u56fd\u9053\u571f\u8cea\u8abf\u67fb","client_name":"\u56fd\u571f\u4ea4\u901a\u7701\u8fd1\u757f\u5730\u65b9\u6574\u5099\u5c40\u5927\u962a\u56fd\u9053\u4e8b\u52d9\u6240","boring_xml_url":40,"boring_view_url":1,"soilmap_view_url":null,"soiltest_xml_url":0,"soiltest_view_url":0},{"id":174046,"code":"B4KJ201801006-2295","latitude":"34.4470428","longitude":"135.3710606","source_code":"KK51355239002","project_name":"","survey_name":"\u7b2c\u4e8c\u962a\u548c\u56fd\u9053\u571f\u8cea\u8abf\u67fb","client_name":"\u56fd\u571f\u4ea4\u901a\u7701\u8fd1\u757f\u5730\u65b9\u6574\u5099\u5c40\u5927\u962a\u56fd\u9053\u4e8b\u52d9\u6240","boring_xml_url":40,"boring_view_url":1,"soilmap_view_url":null,"soiltest_xml_url":0,"soiltest_view_url":0},{"id":174045,"code":"B4KJ201801006-2294","latitude":"34.4456817","longitude":"135.3688664","source_code":"KK51355239001","project_name":"","survey_name":"\u7b2c\u4e8c\u962a\u548c\u56fd\u9053\u571f\u8cea\u8abf\u67fb","client_name":"\u56fd\u571f\u4ea4\u901a\u7701\u8fd1\u757f\u5730\u65b9\u6574\u5099\u5c40\u5927\u962a\u56fd\u9053\u4e8b\u52d9\u6240","boring_xml_url":40,"boring_view_url":1,"soilmap_view_url":null,"soiltest_xml_url":0,"soiltest_view_url":0},{"id":174044,"code":"B4KJ201801006-2293","latitude":"34.4382936","longitude":"135.3623392","source_code":"KK51355229017","project_name":"","survey_name":"\u8c9d\u585a\u9ad8\u67b6\u6a4b\u5730\u8cea\u8abf\u67fb","client_name":"\u56fd\u571f\u4ea4\u901a\u7701\u8fd1\u757f\u5730\u65b9\u6574\u5099\u5c40\u5927\u962a\u56fd\u9053\u4e8b\u52d9\u6240","boring_xml_url":40,"boring_view_url":1,"soilmap_view_url":null,"soiltest_xml_url":0,"soiltest_view_url":0},{"id":174043,"code":"B4KJ201801006-2292","latitude":"34.4377658","longitude":"135.3620339","source_code":"KK51355229016","project_name":"","survey_name":"\u69cb\u9020\u7269\u7b87\u6240\u571f\u8cea\u8abf\u67fb\u5de5\u4e8b","client_name":"\u56fd\u571f\u4ea4\u901a\u7701\u8fd1\u757f\u5730\u65b9\u6574\u5099\u5c40\u5927\u962a\u56fd\u9053\u4e8b\u52d9\u6240","boring_xml_url":40,"boring_view_url":1,"soilmap_view_url":null,"soiltest_xml_url":0,"soiltest_view_url":0},{"id":174042,"code":"B4KJ201801006-2291","latitude":"34.4373769","longitude":"135.3620894","source_code":"KK51355229015","project_name":"","survey_name":"\u8c9d\u585a\u9ad8\u67b6\u6a4b\u5730\u8cea\u8abf\u67fb","client_name":"\u56fd\u571f\u4ea4\u901a\u7701\u8fd1\u757f\u5730\u65b9\u6574\u5099\u5c40\u5927\u962a\u56fd\u9053\u4e8b\u52d9\u6240","boring_xml_url":40,"boring_view_url":1,"soilmap_view_url":null,"soiltest_xml_url":0,"soiltest_view_url":0},{"id":174041,"code":"B4KJ201801006-2290","latitude":"34.4373214","longitude":"135.3621728","source_code":"KK51355229014","project_name":"","survey_name":"\u7b2c\u4e8c\u962a\u548c\u56fd\u9053\u571f\u8cea\u8abf\u67fb","client_name":"\u56fd\u571f\u4ea4\u901a\u7701\u8fd1\u757f\u5730\u65b9\u6574\u5099\u5c40\u5927\u962a\u56fd\u9053\u4e8b\u52d9\u6240","boring_xml_url":40,"boring_view_url":1,"soilmap_view_url":null,"soiltest_xml_url":0,"soiltest_view_url":0},{"id":174040,"code":"B4KJ201801006-2289","latitude":"34.4372658","longitude":"135.3615894","source_code":"KK51355229013","project_name":"","survey_name":"\u8c9d\u585a\u9ad8\u67b6\u6a4b\u5730\u8cea\u8abf\u67fb","client_name":"\u56fd\u571f\u4ea4\u901a\u7701\u8fd1\u757f\u5730\u65b9\u6574\u5099\u5c40\u5927\u962a\u56fd\u9053\u4e8b\u52d9\u6240","boring_xml_url":40,"boring_view_url":1,"soilmap_view_url":null,"soiltest_xml_url":0,"soiltest_view_url":0},{"id":174039,"code":"B4KJ201801006-2288","latitude":"34.4440986","longitude":"135.3669497","source_code":"KK51355229012","project_name":"","survey_name":"\u5bbf\u9662\u9ad8\u67b6\u6a4b\u571f\u8cea\u305d\u306e2\u8abf\u67fb","client_name":"\u56fd\u571f\u4ea4\u901a\u7701\u8fd1\u757f\u5730\u65b9\u6574\u5099\u5c40\u6d6a\u901f\u56fd\u9053\u4e8b\u52d9\u6240","boring_xml_url":40,"boring_view_url":1,"soilmap_view_url":null,"soiltest_xml_url":0,"soiltest_view_url":0},{"id":174038,"code":"B4KJ201801006-2287","latitude":"34.4432931","longitude":"135.3655889","source_code":"KK51355229011","project_name":"","survey_name":"\u7b2c\u4e8c\u962a\u548c\u56fd\u9053\u571f\u8cea\u8abf\u67fb","client_name":"\u56fd\u571f\u4ea4\u901a\u7701\u8fd1\u757f\u5730\u65b9\u6574\u5099\u5c40\u5927\u962a\u56fd\u9053\u4e8b\u52d9\u6240","boring_xml_url":40,"boring_view_url":1,"soilmap_view_url":null,"soiltest_xml_url":0,"soiltest_view_url":0},{"id":174037,"code":"B4KJ201801006-2286","latitude":"34.4422931","longitude":"135.3648944","source_code":"KK51355229010","project_name":"","survey_name":"\u5bbf\u9662\u9ad8\u67b6\u6a4b\u571f\u8cea\u305d\u306e2\u8abf\u67fb","client_name":"\u56fd\u571f\u4ea4\u901a\u7701\u8fd1\u757f\u5730\u65b9\u6574\u5099\u5c40\u6d6a\u901f\u56fd\u9053\u4e8b\u52d9\u6240","boring_xml_url":40,"boring_view_url":1,"soilmap_view_url":null,"soiltest_xml_url":0,"soiltest_view_url":0},{"id":174036,"code":"B4KJ201801006-2285","latitude":"34.4415989","longitude":"135.3645056","source_code":"KK51355229009","project_name":"","survey_name":"\u7b2c\u4e8c\u962a\u548c\u56fd\u9053\u571f\u8cea\u8abf\u67fb","client_name":"\u56fd\u571f\u4ea4\u901a\u7701\u8fd1\u757f\u5730\u65b9\u6574\u5099\u5c40\u5927\u962a\u56fd\u9053\u4e8b\u52d9\u6240","boring_xml_url":40,"boring_view_url":1,"soilmap_view_url":null,"soiltest_xml_url":0,"soiltest_view_url":0},{"id":174035,"code":"B4KJ201801006-2284","latitude":"34.4393489","longitude":"135.3631169","source_code":"KK51355229008","project_name":"","survey_name":"\u69cb\u9020\u7269\u7b87\u6240\u571f\u8cea\u8abf\u67fb\u5de5\u4e8b","client_name":"\u56fd\u571f\u4ea4\u901a\u7701\u8fd1\u757f\u5730\u65b9\u6574\u5099\u5c40\u5927\u962a\u56fd\u9053\u4e8b\u52d9\u6240","boring_xml_url":40,"boring_view_url":1,"soilmap_view_url":null,"soiltest_xml_url":0,"soiltest_view_url":0},{"id":174034,"code":"B4KJ201801006-2283","latitude":"34.4391269","longitude":"135.3631169","source_code":"KK51355229007","project_name":"","survey_name":"\u7b2c\u4e8c\u962a\u548c\u56fd\u9053\u571f\u8cea\u8abf\u67fb","client_name":"\u56fd\u571f\u4ea4\u901a\u7701\u8fd1\u757f\u5730\u65b9\u6574\u5099\u5c40\u5927\u962a\u56fd\u9053\u4e8b\u52d9\u6240","boring_xml_url":40,"boring_view_url":1,"soilmap_view_url":null,"soiltest_xml_url":0,"soiltest_view_url":0},{"id":174033,"code":"B4KJ201801006-2282","latitude":"34.4384325","longitude":"135.3625336","source_code":"KK51355229006","project_name":"","survey_name":"\u8c9d\u585a\u9ad8\u67b6\u6a4b\u5730\u8cea\u8abf\u67fb","client_name":"\u56fd\u571f\u4ea4\u901a\u7701\u8fd1\u757f\u5730\u65b9\u6574\u5099\u5c40\u5927\u962a\u56fd\u9053\u4e8b\u52d9\u6240","boring_xml_url":40,"boring_view_url":1,"soilmap_view_url":null,"soiltest_xml_url":0,"soiltest_view_url":0},{"id":174032,"code":"B4KJ201801006-2281","latitude":"34.44021","longitude":"135.3637281","source_code":"KK51355229005","project_name":"","survey_name":"\u8c9d\u585a\u9ad8\u67b6\u6a4b\u8a2d\u8a08\u306b\u4f34\u3046\u571f\u8cea\u8abf\u67fb","client_name":"\u56fd\u571f\u4ea4\u901a\u7701\u8fd1\u757f\u5730\u65b9\u6574\u5099\u5c40\u6d6a\u901f\u56fd\u9053\u4e8b\u52d9\u6240","boring_xml_url":40,"boring_view_url":1,"soilmap_view_url":null,"soiltest_xml_url":0,"soiltest_view_url":0},{"id":174031,"code":"B4KJ201801006-2280","latitude":"34.4399322","longitude":"135.3635892","source_code":"KK51355229004","project_name":"","survey_name":"\u8c9d\u585a\u9ad8\u67b6\u6a4b\u8a2d\u8a08\u306b\u4f34\u3046\u571f\u8cea\u8abf\u67fb","client_name":"\u56fd\u571f\u4ea4\u901a\u7701\u8fd1\u757f\u5730\u65b9\u6574\u5099\u5c40\u6d6a\u901f\u56fd\u9053\u4e8b\u52d9\u6240","boring_xml_url":40,"boring_view_url":1,"soilmap_view_url":null,"soiltest_xml_url":0,"soiltest_view_url":0},{"id":174030,"code":"B4KJ201801006-2279","latitude":"34.4395711","longitude":"135.3633947","source_code":"KK51355229003","project_name":"","survey_name":"\u8c9d\u585a\u9ad8\u67b6\u6a4b\u8a2d\u8a08\u306b\u4f34\u3046\u571f\u8cea\u8abf\u67fb","client_name":"\u56fd\u571f\u4ea4\u901a\u7701\u8fd1\u757f\u5730\u65b9\u6574\u5099\u5c40\u6d6a\u901f\u56fd\u9053\u4e8b\u52d9\u6240","boring_xml_url":40,"boring_view_url":1,"soilmap_view_url":null,"soiltest_xml_url":0,"soiltest_view_url":0},{"id":174029,"code":"B4KJ201801006-2278","latitude":"34.4389603","longitude":"135.3631725","source_code":"KK51355229002","project_name":"","survey_name":"\u8c9d\u585a\u9ad8\u67b6\u6a4b\u8a2d\u8a08\u306b\u4f34\u3046\u571f\u8cea\u8abf\u67fb","client_name":"\u56fd\u571f\u4ea4\u901a\u7701\u8fd1\u757f\u5730\u65b9\u6574\u5099\u5c40\u6d6a\u901f\u56fd\u9053\u4e8b\u52d9\u6240","boring_xml_url":40,"boring_view_url":1,"soilmap_view_url":null,"soiltest_xml_url":0,"soiltest_view_url":0},{"id":174028,"code":"B4KJ201801006-2277","latitude":"34.4381825","longitude":"135.3624781","source_code":"KK51355229001","project_name":"","survey_name":"\u8c9d\u585a\u9ad8\u67b6\u6a4b\u8a2d\u8a08\u306b\u4f34\u3046\u571f\u8cea\u8abf\u67fb","client_name":"\u56fd\u571f\u4ea4\u901a\u7701\u8fd1\u757f\u5730\u65b9\u6574\u5099\u5c40\u6d6a\u901f\u56fd\u9053\u4e8b\u52d9\u6240","boring_xml_url":40,"boring_view_url":1,"soilmap_view_url":null,"soiltest_xml_url":0,"soiltest_view_url":0},{"id":174027,"code":"B4KJ201801006-2276","latitude":"34.441015","longitude":"135.3377303","source_code":"KK51355227001","project_name":"","survey_name":"\u5927\u962a\u6e7e\u5cb8\u9053\u8def\u6ca2 \u4f4f\u5409\u5730\u533a\u571f\u8cea\u8abf\u67fb","client_name":"\u56fd\u571f\u4ea4\u901a\u7701\u8fd1\u757f\u5730\u65b9\u6574\u5099\u5c40\u6d6a\u901f\u56fd\u9053\u4e8b\u52d9\u6240","boring_xml_url":40,"boring_view_url":1,"soilmap_view_url":null,"soiltest_xml_url":0,"soiltest_view_url":0},{"id":174026,"code":"B4KJ201801006-2275","latitude":"34.4368206","longitude":"135.3250369","source_code":"KK51355226001","project_name":"","survey_name":"\u5927\u962a\u6e7e\u5cb8\u9053\u8def\u6ca2 \u4f4f\u5409\u5730\u533a\u571f\u8cea\u8abf\u67fb","client_name":"\u56fd\u571f\u4ea4\u901a\u7701\u8fd1\u757f\u5730\u65b9\u6574\u5099\u5c40\u6d6a\u901f\u56fd\u9053\u4e8b\u52d9\u6240","boring_xml_url":40,"boring_view_url":1,"soilmap_view_url":null,"soiltest_xml_url":0,"soiltest_view_url":0}]}}