{"header":{"xyz":{"source":[],"mosaic":false},"page":4887,"raw":{"soiltest_result":"0","bbox":"57.598333,109.544722,1.933333,163.806111","page":"4887"},"conditions":{"soiltest_result":0,"north":57.598333,"west":109.544722,"south":1.933333,"east":163.806111},"success":true,"message":""},"data":{"meta":{"total":212844,"page":4887,"pages":7095,"count":30},"values":[{"id":173965,"code":"B4KJ201801006-2214","latitude":"34.3492339","longitude":"135.9480689","source_code":"KK51354716011","project_name":"","survey_name":"\u5317\u5869\u8c37\u5730\u533a\u5730\u8cea\u8abf\u67fb\u696d\u52d9","client_name":"\u56fd\u571f\u4ea4\u901a\u7701\u8fd1\u757f\u5730\u65b9\u6574\u5099\u5c40\u5927\u6edd\u30c0\u30e0\u5de5\u4e8b\u4e8b\u52d9\u6240","boring_xml_url":40,"boring_view_url":1,"soilmap_view_url":null,"soiltest_xml_url":0,"soiltest_view_url":0},{"id":173964,"code":"B4KJ201801006-2213","latitude":"34.3460678","longitude":"135.9557628","source_code":"KK51354716007","project_name":"","survey_name":"\u5317\u5869\u8c37\u5730\u8cea\u8abf\u67fb\u4f5c\u696d","client_name":"\u56fd\u571f\u4ea4\u901a\u7701\u8fd1\u757f\u5730\u65b9\u6574\u5099\u5c40\u5927\u6edd\u30c0\u30e0\u5de5\u4e8b\u4e8b\u52d9\u6240","boring_xml_url":40,"boring_view_url":1,"soilmap_view_url":null,"soiltest_xml_url":0,"soiltest_view_url":0},{"id":173963,"code":"B4KJ201801006-2212","latitude":"34.34579","longitude":"135.955485","source_code":"KK51354716006","project_name":"","survey_name":"\u5317\u5869\u8c37\u5730\u8cea\u8abf\u67fb\u4f5c\u696d","client_name":"\u56fd\u571f\u4ea4\u901a\u7701\u8fd1\u757f\u5730\u65b9\u6574\u5099\u5c40\u5927\u6edd\u30c0\u30e0\u5de5\u4e8b\u4e8b\u52d9\u6240","boring_xml_url":40,"boring_view_url":1,"soilmap_view_url":null,"soiltest_xml_url":0,"soiltest_view_url":0},{"id":173962,"code":"B4KJ201801006-2211","latitude":"34.3455122","longitude":"135.9552072","source_code":"KK51354716005","project_name":"","survey_name":"\u5317\u5869\u8c37\u5730\u8cea\u8abf\u67fb\u4f5c\u696d","client_name":"\u56fd\u571f\u4ea4\u901a\u7701\u8fd1\u757f\u5730\u65b9\u6574\u5099\u5c40\u5927\u6edd\u30c0\u30e0\u5de5\u4e8b\u4e8b\u52d9\u6240","boring_xml_url":40,"boring_view_url":1,"soilmap_view_url":null,"soiltest_xml_url":0,"soiltest_view_url":0},{"id":173961,"code":"B4KJ201801006-2210","latitude":"34.3455122","longitude":"135.9549294","source_code":"KK51354716004","project_name":"","survey_name":"\u5317\u5869\u8c37\u5730\u8cea\u8abf\u67fb\u4f5c\u696d","client_name":"\u56fd\u571f\u4ea4\u901a\u7701\u8fd1\u757f\u5730\u65b9\u6574\u5099\u5c40\u5927\u6edd\u30c0\u30e0\u5de5\u4e8b\u4e8b\u52d9\u6240","boring_xml_url":40,"boring_view_url":1,"soilmap_view_url":null,"soiltest_xml_url":0,"soiltest_view_url":0},{"id":173960,"code":"B4KJ201801006-2209","latitude":"34.3456233","longitude":"135.9548739","source_code":"KK51354716003","project_name":"","survey_name":"\u662d\u548c61\u5e74\u5ea6\u5317\u5869\u8c37\u5730\u533a\u5730\u8cea\u8abf\u67fb\u4f5c\u696d","client_name":"\u56fd\u571f\u4ea4\u901a\u7701\u8fd1\u757f\u5730\u65b9\u6574\u5099\u5c40\u5927\u6edd\u30c0\u30e0\u5de5\u4e8b\u4e8b\u52d9\u6240","boring_xml_url":40,"boring_view_url":1,"soilmap_view_url":null,"soiltest_xml_url":0,"soiltest_view_url":0},{"id":173959,"code":"B4KJ201801006-2208","latitude":"34.34604","longitude":"135.954735","source_code":"KK51354716002","project_name":"","survey_name":"\u662d\u548c61\u5e74\u5ea6\u5317\u5869\u8c37\u5730\u533a\u5730\u8cea\u8abf\u67fb\u4f5c\u696d","client_name":"\u56fd\u571f\u4ea4\u901a\u7701\u8fd1\u757f\u5730\u65b9\u6574\u5099\u5c40\u5927\u6edd\u30c0\u30e0\u5de5\u4e8b\u4e8b\u52d9\u6240","boring_xml_url":40,"boring_view_url":1,"soilmap_view_url":null,"soiltest_xml_url":0,"soiltest_view_url":0},{"id":173958,"code":"B4KJ201801006-2207","latitude":"34.3464567","longitude":"135.9558183","source_code":"KK51354716001","project_name":"","survey_name":"\u662d\u548c61\u5e74\u5ea6\u5317\u5869\u8c37\u5730\u533a\u5730\u8cea\u8abf\u67fb\u4f5c\u696d","client_name":"\u56fd\u571f\u4ea4\u901a\u7701\u8fd1\u757f\u5730\u65b9\u6574\u5099\u5c40\u5927\u6edd\u30c0\u30e0\u5de5\u4e8b\u4e8b\u52d9\u6240","boring_xml_url":40,"boring_view_url":1,"soilmap_view_url":null,"soiltest_xml_url":0,"soiltest_view_url":0},{"id":173957,"code":"B4KJ201801006-2206","latitude":"34.3499003","longitude":"135.9444303","source_code":"KK51354715066","project_name":"","survey_name":"\u5bfe\u5cb8\u9053\u8def\u5317\u5869\u8c37\u5de5\u533a\u8217\u88c5\u305d\u306e\u4ed6\u5de5\u4e8b","client_name":"\u56fd\u571f\u4ea4\u901a\u7701\u8fd1\u757f\u5730\u65b9\u6574\u5099\u5c40\u5927\u6edd\u30c0\u30e0\u5de5\u4e8b\u4e8b\u52d9\u6240","boring_xml_url":40,"boring_view_url":1,"soilmap_view_url":null,"soiltest_xml_url":0,"soiltest_view_url":0},{"id":173956,"code":"B4KJ201801006-2205","latitude":"34.3474006","longitude":"135.9457081","source_code":"KK51354715065","project_name":"","survey_name":"\u5927\u6edd\u30c0\u30e0\u5efa\u8a2d(\u305d\u306e4)\u5de5\u4e8b \u5bfa\u5c3e\u5730\u3059\u3079\u308a\u5730\u8cea\u8abf\u67fb\u696d\u52d9","client_name":"\u56fd\u571f\u4ea4\u901a\u7701\u8fd1\u757f\u5730\u65b9\u6574\u5099\u5c40\u5927\u6edd\u30c0\u30e0\u5de5\u4e8b\u4e8b\u52d9\u6240","boring_xml_url":40,"boring_view_url":1,"soilmap_view_url":null,"soiltest_xml_url":0,"soiltest_view_url":0},{"id":173955,"code":"B4KJ201801006-2204","latitude":"34.3470117","longitude":"135.9452636","source_code":"KK51354715064","project_name":"","survey_name":"\u5927\u6edd\u30c0\u30e0\u5efa\u8a2d(\u305d\u306e4)\u5de5\u4e8b \u5bfa\u5c3e\u5730\u3059\u3079\u308a\u5730\u8cea\u8abf\u67fb\u696d\u52d9","client_name":"\u56fd\u571f\u4ea4\u901a\u7701\u8fd1\u757f\u5730\u65b9\u6574\u5099\u5c40\u5927\u6edd\u30c0\u30e0\u5de5\u4e8b\u4e8b\u52d9\u6240","boring_xml_url":40,"boring_view_url":1,"soilmap_view_url":null,"soiltest_xml_url":0,"soiltest_view_url":0},{"id":173954,"code":"B4KJ201801006-2203","latitude":"34.3474283","longitude":"135.9449581","source_code":"KK51354715063","project_name":"","survey_name":"\u5927\u6edd\u30c0\u30e0\u5efa\u8a2d(\u305d\u306e4)\u5de5\u4e8b \u5bfa\u5c3e\u5730\u3059\u3079\u308a\u5730\u8cea\u8abf\u67fb\u696d\u52d9","client_name":"\u56fd\u571f\u4ea4\u901a\u7701\u8fd1\u757f\u5730\u65b9\u6574\u5099\u5c40\u5927\u6edd\u30c0\u30e0\u5de5\u4e8b\u4e8b\u52d9\u6240","boring_xml_url":40,"boring_view_url":1,"soilmap_view_url":null,"soiltest_xml_url":0,"soiltest_view_url":0},{"id":173953,"code":"B4KJ201801006-2202","latitude":"34.3499558","longitude":"135.9377086","source_code":"KK51354715062","project_name":"","survey_name":"\u5927\u6edd\u30c0\u30e0\u4e8c\u6b21\u30d7\u30e9\u30f3\u30c8\u30dc-\u30ea\u30f3\u30b0\u8abf\u67fb\u4f5c\u696d","client_name":"\u56fd\u571f\u4ea4\u901a\u7701\u8fd1\u757f\u5730\u65b9\u6574\u5099\u5c40\u5927\u6edd\u30c0\u30e0\u5de5\u4e8b\u4e8b\u52d9\u6240","boring_xml_url":40,"boring_view_url":1,"soilmap_view_url":null,"soiltest_xml_url":0,"soiltest_view_url":0},{"id":173952,"code":"B4KJ201801006-2201","latitude":"34.3496781","longitude":"135.9388197","source_code":"KK51354715061","project_name":"","survey_name":"\u5927\u6edd\u30c0\u30e0\u4e8c\u6b21\u30d7\u30e9\u30f3\u30c8\u30dc-\u30ea\u30f3\u30b0\u8abf\u67fb\u4f5c\u696d","client_name":"\u56fd\u571f\u4ea4\u901a\u7701\u8fd1\u757f\u5730\u65b9\u6574\u5099\u5c40\u5927\u6edd\u30c0\u30e0\u5de5\u4e8b\u4e8b\u52d9\u6240","boring_xml_url":40,"boring_view_url":1,"soilmap_view_url":null,"soiltest_xml_url":0,"soiltest_view_url":0},{"id":173951,"code":"B4KJ201801006-2200","latitude":"34.3494003","longitude":"135.9379864","source_code":"KK51354715060","project_name":"","survey_name":"\u5927\u6edd\u30c0\u30e0\u4e8c\u6b21\u30d7\u30e9\u30f3\u30c8\u30dc-\u30ea\u30f3\u30b0\u8abf\u67fb\u4f5c\u696d","client_name":"\u56fd\u571f\u4ea4\u901a\u7701\u8fd1\u757f\u5730\u65b9\u6574\u5099\u5c40\u5927\u6edd\u30c0\u30e0\u5de5\u4e8b\u4e8b\u52d9\u6240","boring_xml_url":40,"boring_view_url":1,"soilmap_view_url":null,"soiltest_xml_url":0,"soiltest_view_url":0},{"id":173950,"code":"B4KJ201801006-2199","latitude":"34.3494003","longitude":"135.9374308","source_code":"KK51354715059","project_name":"","survey_name":"\u5927\u6edd\u30c0\u30e0\u4e8c\u6b21\u30d7\u30e9\u30f3\u30c8\u30dc-\u30ea\u30f3\u30b0\u8abf\u67fb\u4f5c\u696d","client_name":"\u56fd\u571f\u4ea4\u901a\u7701\u8fd1\u757f\u5730\u65b9\u6574\u5099\u5c40\u5927\u6edd\u30c0\u30e0\u5de5\u4e8b\u4e8b\u52d9\u6240","boring_xml_url":40,"boring_view_url":1,"soilmap_view_url":null,"soiltest_xml_url":0,"soiltest_view_url":0},{"id":173949,"code":"B4KJ201801006-2198","latitude":"34.3488447","longitude":"135.9374308","source_code":"KK51354715058","project_name":"","survey_name":"\u5927\u6edd\u30c0\u30e0\u4e8c\u6b21\u30d7\u30e9\u30f3\u30c8\u30dc-\u30ea\u30f3\u30b0\u8abf\u67fb\u4f5c\u696d","client_name":"\u56fd\u571f\u4ea4\u901a\u7701\u8fd1\u757f\u5730\u65b9\u6574\u5099\u5c40\u5927\u6edd\u30c0\u30e0\u5de5\u4e8b\u4e8b\u52d9\u6240","boring_xml_url":40,"boring_view_url":1,"soilmap_view_url":null,"soiltest_xml_url":0,"soiltest_view_url":0},{"id":173948,"code":"B4KJ201801006-2197","latitude":"34.3491225","longitude":"135.941625","source_code":"KK51354715057","project_name":"","survey_name":"\u5e73\u62106\u5e74\u5ea6\u5927\u6edd\u30c0\u30e0\u30b5\u30a4\u30c8\u5de6\u5cb8\u4e0a\u6d41\u5730\u8cea\u8abf\u67fb\u696d\u52d9","client_name":"\u56fd\u571f\u4ea4\u901a\u7701\u8fd1\u757f\u5730\u65b9\u6574\u5099\u5c40\u5927\u6edd\u30c0\u30e0\u5de5\u4e8b\u4e8b\u52d9\u6240","boring_xml_url":40,"boring_view_url":1,"soilmap_view_url":null,"soiltest_xml_url":0,"soiltest_view_url":0},{"id":173947,"code":"B4KJ201801006-2196","latitude":"34.3490947","longitude":"135.9415972","source_code":"KK51354715056","project_name":"","survey_name":"\u5e73\u62106\u5e74\u5ea6\u5927\u6edd\u30c0\u30e0\u30b5\u30a4\u30c8\u5de6\u5cb8\u4e0a\u6d41\u5730\u8cea\u8abf\u67fb\u696d\u52d9","client_name":"\u56fd\u571f\u4ea4\u901a\u7701\u8fd1\u757f\u5730\u65b9\u6574\u5099\u5c40\u5927\u6edd\u30c0\u30e0\u5de5\u4e8b\u4e8b\u52d9\u6240","boring_xml_url":40,"boring_view_url":1,"soilmap_view_url":null,"soiltest_xml_url":0,"soiltest_view_url":0},{"id":173946,"code":"B4KJ201801006-2195","latitude":"34.3491503","longitude":"135.9407361","source_code":"KK51354715055","project_name":"","survey_name":"\u5e73\u62105\u5e74\u5ea6\u5927\u6edd\u30c0\u30e0\u30b5\u30a4\u30c8\u5de6\u5cb8\u4e0a\u6d41\u5730\u8cea\u8abf\u67fb\u696d\u52d9","client_name":"\u56fd\u571f\u4ea4\u901a\u7701\u8fd1\u757f\u5730\u65b9\u6574\u5099\u5c40\u5927\u6edd\u30c0\u30e0\u5de5\u4e8b\u4e8b\u52d9\u6240","boring_xml_url":40,"boring_view_url":1,"soilmap_view_url":null,"soiltest_xml_url":0,"soiltest_view_url":0},{"id":173945,"code":"B4KJ201801006-2194","latitude":"34.3489281","longitude":"135.9385419","source_code":"KK51354715054","project_name":"","survey_name":"\u5e73\u62105\u5e74\u5ea6\u5927\u6edd\u30c0\u30e0\u30b5\u30a4\u30c8\u5de6\u5cb8\u4e0a\u6d41\u5730\u8cea\u8abf\u67fb\u696d\u52d9","client_name":"\u56fd\u571f\u4ea4\u901a\u7701\u8fd1\u757f\u5730\u65b9\u6574\u5099\u5c40\u5927\u6edd\u30c0\u30e0\u5de5\u4e8b\u4e8b\u52d9\u6240","boring_xml_url":40,"boring_view_url":1,"soilmap_view_url":null,"soiltest_xml_url":0,"soiltest_view_url":0},{"id":173944,"code":"B4KJ201801006-2193","latitude":"34.3490392","longitude":"135.9396253","source_code":"KK51354715053","project_name":"","survey_name":"\u5e73\u62105\u5e74\u5ea6\u5927\u6edd\u30c0\u30e0\u30b5\u30a4\u30c8\u5de6\u5cb8\u4e0a\u6d41\u5730\u8cea\u8abf\u67fb\u696d\u52d9","client_name":"\u56fd\u571f\u4ea4\u901a\u7701\u8fd1\u757f\u5730\u65b9\u6574\u5099\u5c40\u5927\u6edd\u30c0\u30e0\u5de5\u4e8b\u4e8b\u52d9\u6240","boring_xml_url":40,"boring_view_url":1,"soilmap_view_url":null,"soiltest_xml_url":0,"soiltest_view_url":0},{"id":173943,"code":"B4KJ201801006-2192","latitude":"34.3514833","longitude":"135.9364864","source_code":"KK51354715052","project_name":"","survey_name":"\u5e73\u62106\u5e74\u5ea6\u5927\u6edd\u30c0\u30e0F\u201010\u65ad\u5c64\u5730\u8cea\u8abf\u67fb\u696d\u52d9","client_name":"\u56fd\u571f\u4ea4\u901a\u7701\u8fd1\u757f\u5730\u65b9\u6574\u5099\u5c40\u5927\u6edd\u30c0\u30e0\u5de5\u4e8b\u4e8b\u52d9\u6240","boring_xml_url":40,"boring_view_url":1,"soilmap_view_url":null,"soiltest_xml_url":0,"soiltest_view_url":0},{"id":173942,"code":"B4KJ201801006-2191","latitude":"34.3514833","longitude":"135.9364864","source_code":"KK51354715051","project_name":"","survey_name":"\u5e73\u62106\u5e74\u5ea6\u5927\u6edd\u30c0\u30e0F\u201010\u65ad\u5c64\u5730\u8cea\u8abf\u67fb\u696d\u52d9","client_name":"\u56fd\u571f\u4ea4\u901a\u7701\u8fd1\u757f\u5730\u65b9\u6574\u5099\u5c40\u5927\u6edd\u30c0\u30e0\u5de5\u4e8b\u4e8b\u52d9\u6240","boring_xml_url":40,"boring_view_url":1,"soilmap_view_url":null,"soiltest_xml_url":0,"soiltest_view_url":0},{"id":173941,"code":"B4KJ201801006-2190","latitude":"34.3512611","longitude":"135.9348478","source_code":"KK51354715050","project_name":"","survey_name":"\u5e73\u62105\u5e74\u5ea6F\u201010\u65ad\u5c64\u5730\u8cea\u8abf\u67fb\u696d\u52d9","client_name":"\u56fd\u571f\u4ea4\u901a\u7701\u8fd1\u757f\u5730\u65b9\u6574\u5099\u5c40\u5927\u6edd\u30c0\u30e0\u5de5\u4e8b\u4e8b\u52d9\u6240","boring_xml_url":40,"boring_view_url":1,"soilmap_view_url":null,"soiltest_xml_url":0,"soiltest_view_url":0},{"id":173940,"code":"B4KJ201801006-2189","latitude":"34.3491225","longitude":"135.9409028","source_code":"KK51354715049","project_name":"","survey_name":"\u5e73\u62106\u5e74\u5ea6\u5927\u6edd\u30c0\u30e0\u30b5\u30a4\u30c8\u5de6\u5cb8\u4e0a\u6d41\u5730\u8cea\u8abf\u67fb\u696d\u52d9","client_name":"\u56fd\u571f\u4ea4\u901a\u7701\u8fd1\u757f\u5730\u65b9\u6574\u5099\u5c40\u5927\u6edd\u30c0\u30e0\u5de5\u4e8b\u4e8b\u52d9\u6240","boring_xml_url":40,"boring_view_url":1,"soilmap_view_url":null,"soiltest_xml_url":0,"soiltest_view_url":0},{"id":173939,"code":"B4KJ201801006-2188","latitude":"34.3510667","longitude":"135.93632","source_code":"KK51354715048","project_name":"","survey_name":"\u5e73\u62104\u5e74\u5ea6\u5de6\u5cb8\u5de5\u4e8b\u7528\u9053\u8def\u6cd5\u9762\u5bfe\u7b56\u5730\u8cea\u8abf\u67fb\u696d\u52d9","client_name":"\u56fd\u571f\u4ea4\u901a\u7701\u8fd1\u757f\u5730\u65b9\u6574\u5099\u5c40\u5927\u6edd\u30c0\u30e0\u5de5\u4e8b\u4e8b\u52d9\u6240","boring_xml_url":40,"boring_view_url":1,"soilmap_view_url":null,"soiltest_xml_url":0,"soiltest_view_url":0},{"id":173938,"code":"B4KJ201801006-2187","latitude":"34.3488447","longitude":"135.9407639","source_code":"KK51354715047","project_name":"","survey_name":"\u5e73\u62104\u5e74\u5ea6\u5927\u6d25\u53e4\u8c37\u5730\u8cea\u8abf\u67fb\u696d\u52d9","client_name":"\u56fd\u571f\u4ea4\u901a\u7701\u8fd1\u757f\u5730\u65b9\u6574\u5099\u5c40\u5927\u6edd\u30c0\u30e0\u5de5\u4e8b\u4e8b\u52d9\u6240","boring_xml_url":40,"boring_view_url":1,"soilmap_view_url":null,"soiltest_xml_url":0,"soiltest_view_url":0},{"id":173937,"code":"B4KJ201801006-2186","latitude":"34.3485669","longitude":"135.9407639","source_code":"KK51354715046","project_name":"","survey_name":"\u5e73\u62104\u5e74\u5ea6\u5927\u6d25\u53e4\u8c37\u5730\u8cea\u8abf\u67fb\u696d\u52d9","client_name":"\u56fd\u571f\u4ea4\u901a\u7701\u8fd1\u757f\u5730\u65b9\u6574\u5099\u5c40\u5927\u6edd\u30c0\u30e0\u5de5\u4e8b\u4e8b\u52d9\u6240","boring_xml_url":40,"boring_view_url":1,"soilmap_view_url":null,"soiltest_xml_url":0,"soiltest_view_url":0},{"id":173936,"code":"B4KJ201801006-2185","latitude":"34.3485669","longitude":"135.9404864","source_code":"KK51354715045","project_name":"","survey_name":"\u5e73\u62104\u5e74\u5ea6\u5927\u6d25\u53e4\u8c37\u5730\u8cea\u8abf\u67fb\u696d\u52d9","client_name":"\u56fd\u571f\u4ea4\u901a\u7701\u8fd1\u757f\u5730\u65b9\u6574\u5099\u5c40\u5927\u6edd\u30c0\u30e0\u5de5\u4e8b\u4e8b\u52d9\u6240","boring_xml_url":40,"boring_view_url":1,"soilmap_view_url":null,"soiltest_xml_url":0,"soiltest_view_url":0}]}}