{"header":{"xyz":{"source":[],"mosaic":false},"page":49,"raw":{"soiltest_result":"0","bbox":"57.598333,109.544722,1.933333,163.806111","page":"49"},"conditions":{"soiltest_result":0,"north":57.598333,"west":109.544722,"south":1.933333,"east":163.806111},"success":true,"message":""},"data":{"meta":{"total":212844,"page":49,"pages":7095,"count":30},"values":[{"id":699300,"code":"NGIC202305468-0010","latitude":"44.151236111111","longitude":"142.41028333333","source_code":"","project_name":"","survey_name":"\u5317\u6d77\u9053\u7e26\u8cab\u81ea\u52d5\u8eca\u9053 \u58eb\u5225\u5e02 \u5730\u8cea\u8abf\u67fb\u696d\u52d9","client_name":"\u56fd\u571f\u4ea4\u901a\u7701\u5317\u6d77\u9053\u958b\u767a\u5c40\u65ed\u5ddd\u958b\u767a\u5efa\u8a2d\u90e8\u672c\u90e8","boring_xml_url":47,"boring_view_url":1,"soilmap_view_url":null,"soiltest_xml_url":0,"soiltest_view_url":0},{"id":699299,"code":"NGIC202305468-0009","latitude":"44.150716666667","longitude":"142.41002777778","source_code":"","project_name":"","survey_name":"\u5317\u6d77\u9053\u7e26\u8cab\u81ea\u52d5\u8eca\u9053 \u58eb\u5225\u5e02 \u5730\u8cea\u8abf\u67fb\u696d\u52d9","client_name":"\u56fd\u571f\u4ea4\u901a\u7701\u5317\u6d77\u9053\u958b\u767a\u5c40\u65ed\u5ddd\u958b\u767a\u5efa\u8a2d\u90e8\u672c\u90e8","boring_xml_url":47,"boring_view_url":1,"soilmap_view_url":null,"soiltest_xml_url":0,"soiltest_view_url":0},{"id":699298,"code":"NGIC202305468-0007","latitude":"44.1508","longitude":"142.40989444444","source_code":"","project_name":"","survey_name":"\u5317\u6d77\u9053\u7e26\u8cab\u81ea\u52d5\u8eca\u9053 \u58eb\u5225\u5e02 \u5730\u8cea\u8abf\u67fb\u696d\u52d9","client_name":"\u56fd\u571f\u4ea4\u901a\u7701\u5317\u6d77\u9053\u958b\u767a\u5c40\u65ed\u5ddd\u958b\u767a\u5efa\u8a2d\u90e8\u672c\u90e8","boring_xml_url":47,"boring_view_url":1,"soilmap_view_url":null,"soiltest_xml_url":47,"soiltest_view_url":47},{"id":699297,"code":"NGIC202305468-0006","latitude":"44.150858333333","longitude":"142.40980555556","source_code":"","project_name":"","survey_name":"\u5317\u6d77\u9053\u7e26\u8cab\u81ea\u52d5\u8eca\u9053 \u58eb\u5225\u5e02 \u5730\u8cea\u8abf\u67fb\u696d\u52d9","client_name":"\u56fd\u571f\u4ea4\u901a\u7701\u5317\u6d77\u9053\u958b\u767a\u5c40\u65ed\u5ddd\u958b\u767a\u5efa\u8a2d\u90e8\u672c\u90e8","boring_xml_url":47,"boring_view_url":1,"soilmap_view_url":null,"soiltest_xml_url":0,"soiltest_view_url":0},{"id":699296,"code":"NGIC202305468-0005","latitude":"44.150330555556","longitude":"142.40949722222","source_code":"","project_name":"","survey_name":"\u5317\u6d77\u9053\u7e26\u8cab\u81ea\u52d5\u8eca\u9053 \u58eb\u5225\u5e02 \u5730\u8cea\u8abf\u67fb\u696d\u52d9","client_name":"\u56fd\u571f\u4ea4\u901a\u7701\u5317\u6d77\u9053\u958b\u767a\u5c40\u65ed\u5ddd\u958b\u767a\u5efa\u8a2d\u90e8\u672c\u90e8","boring_xml_url":47,"boring_view_url":1,"soilmap_view_url":null,"soiltest_xml_url":0,"soiltest_view_url":0},{"id":699295,"code":"NGIC202305468-0004","latitude":"44.150405555556","longitude":"142.40937777778","source_code":"","project_name":"","survey_name":"\u5317\u6d77\u9053\u7e26\u8cab\u81ea\u52d5\u8eca\u9053 \u58eb\u5225\u5e02 \u5730\u8cea\u8abf\u67fb\u696d\u52d9","client_name":"\u56fd\u571f\u4ea4\u901a\u7701\u5317\u6d77\u9053\u958b\u767a\u5c40\u65ed\u5ddd\u958b\u767a\u5efa\u8a2d\u90e8\u672c\u90e8","boring_xml_url":47,"boring_view_url":1,"soilmap_view_url":null,"soiltest_xml_url":47,"soiltest_view_url":47},{"id":699294,"code":"NGIC202305468-0003","latitude":"44.150455555556","longitude":"142.40929444444","source_code":"","project_name":"","survey_name":"\u5317\u6d77\u9053\u7e26\u8cab\u81ea\u52d5\u8eca\u9053 \u58eb\u5225\u5e02 \u5730\u8cea\u8abf\u67fb\u696d\u52d9","client_name":"\u56fd\u571f\u4ea4\u901a\u7701\u5317\u6d77\u9053\u958b\u767a\u5c40\u65ed\u5ddd\u958b\u767a\u5efa\u8a2d\u90e8\u672c\u90e8","boring_xml_url":47,"boring_view_url":1,"soilmap_view_url":null,"soiltest_xml_url":0,"soiltest_view_url":0},{"id":699293,"code":"NGIC202305468-0002","latitude":"44.150063888889","longitude":"142.40905277778","source_code":"","project_name":"","survey_name":"\u5317\u6d77\u9053\u7e26\u8cab\u81ea\u52d5\u8eca\u9053 \u58eb\u5225\u5e02 \u5730\u8cea\u8abf\u67fb\u696d\u52d9","client_name":"\u56fd\u571f\u4ea4\u901a\u7701\u5317\u6d77\u9053\u958b\u767a\u5c40\u65ed\u5ddd\u958b\u767a\u5efa\u8a2d\u90e8\u672c\u90e8","boring_xml_url":47,"boring_view_url":1,"soilmap_view_url":null,"soiltest_xml_url":47,"soiltest_view_url":47},{"id":699292,"code":"NGIC202305468-0001","latitude":"44.150144444444","longitude":"142.40891666667","source_code":"","project_name":"","survey_name":"\u5317\u6d77\u9053\u7e26\u8cab\u81ea\u52d5\u8eca\u9053 \u58eb\u5225\u5e02 \u5730\u8cea\u8abf\u67fb\u696d\u52d9","client_name":"\u56fd\u571f\u4ea4\u901a\u7701\u5317\u6d77\u9053\u958b\u767a\u5c40\u65ed\u5ddd\u958b\u767a\u5efa\u8a2d\u90e8\u672c\u90e8","boring_xml_url":47,"boring_view_url":1,"soilmap_view_url":null,"soiltest_xml_url":0,"soiltest_view_url":0},{"id":699265,"code":"NGIC202305359-0010","latitude":"38.998949972222","longitude":"140.36557383333","source_code":"","project_name":"","survey_name":"\u4ee4\u548c5\u5e74\u5ea6 \u5c71\u5f62\u7ba1\u5185\u5730\u76e4\u8abf\u67fb\u89e3\u6790\u696d\u52d9","client_name":"\u56fd\u571f\u4ea4\u901a\u7701\u6771\u5317\u5730\u65b9\u6574\u5099\u5c40\u5c71\u5f62\u6cb3\u5ddd\u56fd\u9053\u4e8b\u52d9\u6240","boring_xml_url":47,"boring_view_url":1,"soilmap_view_url":null,"soiltest_xml_url":47,"soiltest_view_url":47},{"id":699264,"code":"NGIC202305359-0009","latitude":"38.998307388889","longitude":"140.36520141667","source_code":"","project_name":"","survey_name":"\u4ee4\u548c5\u5e74\u5ea6 \u5c71\u5f62\u7ba1\u5185\u5730\u76e4\u8abf\u67fb\u89e3\u6790\u696d\u52d9","client_name":"\u56fd\u571f\u4ea4\u901a\u7701\u6771\u5317\u5730\u65b9\u6574\u5099\u5c40\u5c71\u5f62\u6cb3\u5ddd\u56fd\u9053\u4e8b\u52d9\u6240","boring_xml_url":47,"boring_view_url":1,"soilmap_view_url":null,"soiltest_xml_url":47,"soiltest_view_url":47},{"id":699263,"code":"NGIC202305359-0008","latitude":"38.997801166667","longitude":"140.36500194444","source_code":"","project_name":"","survey_name":"\u4ee4\u548c5\u5e74\u5ea6 \u5c71\u5f62\u7ba1\u5185\u5730\u76e4\u8abf\u67fb\u89e3\u6790\u696d\u52d9","client_name":"\u56fd\u571f\u4ea4\u901a\u7701\u6771\u5317\u5730\u65b9\u6574\u5099\u5c40\u5c71\u5f62\u6cb3\u5ddd\u56fd\u9053\u4e8b\u52d9\u6240","boring_xml_url":47,"boring_view_url":1,"soilmap_view_url":null,"soiltest_xml_url":47,"soiltest_view_url":47},{"id":699262,"code":"NGIC202305359-0007","latitude":"38.991657388889","longitude":"140.36355952778","source_code":"","project_name":"","survey_name":"\u4ee4\u548c5\u5e74\u5ea6 \u5c71\u5f62\u7ba1\u5185\u5730\u76e4\u8abf\u67fb\u89e3\u6790\u696d\u52d9","client_name":"\u56fd\u571f\u4ea4\u901a\u7701\u6771\u5317\u5730\u65b9\u6574\u5099\u5c40\u5c71\u5f62\u6cb3\u5ddd\u56fd\u9053\u4e8b\u52d9\u6240","boring_xml_url":47,"boring_view_url":1,"soilmap_view_url":null,"soiltest_xml_url":0,"soiltest_view_url":0},{"id":699261,"code":"NGIC202305359-0006","latitude":"38.915816388889","longitude":"140.3249025","source_code":"","project_name":"","survey_name":"\u4ee4\u548c5\u5e74\u5ea6 \u5c71\u5f62\u7ba1\u5185\u5730\u76e4\u8abf\u67fb\u89e3\u6790\u696d\u52d9","client_name":"\u56fd\u571f\u4ea4\u901a\u7701\u6771\u5317\u5730\u65b9\u6574\u5099\u5c40\u5c71\u5f62\u6cb3\u5ddd\u56fd\u9053\u4e8b\u52d9\u6240","boring_xml_url":47,"boring_view_url":1,"soilmap_view_url":null,"soiltest_xml_url":47,"soiltest_view_url":47},{"id":699260,"code":"NGIC202305359-0005","latitude":"38.914950666667","longitude":"140.32395277778","source_code":"","project_name":"","survey_name":"\u4ee4\u548c5\u5e74\u5ea6 \u5c71\u5f62\u7ba1\u5185\u5730\u76e4\u8abf\u67fb\u89e3\u6790\u696d\u52d9","client_name":"\u56fd\u571f\u4ea4\u901a\u7701\u6771\u5317\u5730\u65b9\u6574\u5099\u5c40\u5c71\u5f62\u6cb3\u5ddd\u56fd\u9053\u4e8b\u52d9\u6240","boring_xml_url":47,"boring_view_url":1,"soilmap_view_url":null,"soiltest_xml_url":47,"soiltest_view_url":47},{"id":699259,"code":"NGIC202305359-0004","latitude":"38.776055027778","longitude":"140.29074597222","source_code":"","project_name":"","survey_name":"\u4ee4\u548c5\u5e74\u5ea6 \u5c71\u5f62\u7ba1\u5185\u5730\u76e4\u8abf\u67fb\u89e3\u6790\u696d\u52d9","client_name":"\u56fd\u571f\u4ea4\u901a\u7701\u6771\u5317\u5730\u65b9\u6574\u5099\u5c40\u5c71\u5f62\u6cb3\u5ddd\u56fd\u9053\u4e8b\u52d9\u6240","boring_xml_url":47,"boring_view_url":1,"soilmap_view_url":null,"soiltest_xml_url":47,"soiltest_view_url":47},{"id":699258,"code":"NGIC202305359-0003","latitude":"38.776544444444","longitude":"140.290104","source_code":"","project_name":"","survey_name":"\u4ee4\u548c5\u5e74\u5ea6 \u5c71\u5f62\u7ba1\u5185\u5730\u76e4\u8abf\u67fb\u89e3\u6790\u696d\u52d9","client_name":"\u56fd\u571f\u4ea4\u901a\u7701\u6771\u5317\u5730\u65b9\u6574\u5099\u5c40\u5c71\u5f62\u6cb3\u5ddd\u56fd\u9053\u4e8b\u52d9\u6240","boring_xml_url":47,"boring_view_url":1,"soilmap_view_url":null,"soiltest_xml_url":47,"soiltest_view_url":47},{"id":699257,"code":"NGIC202305359-0002","latitude":"38.883832083333","longitude":"140.31687591667","source_code":"","project_name":"","survey_name":"\u4ee4\u548c5\u5e74\u5ea6 \u5c71\u5f62\u7ba1\u5185\u5730\u76e4\u8abf\u67fb\u89e3\u6790\u696d\u52d9","client_name":"\u56fd\u571f\u4ea4\u901a\u7701\u6771\u5317\u5730\u65b9\u6574\u5099\u5c40\u5c71\u5f62\u6cb3\u5ddd\u56fd\u9053\u4e8b\u52d9\u6240","boring_xml_url":47,"boring_view_url":1,"soilmap_view_url":null,"soiltest_xml_url":0,"soiltest_view_url":0},{"id":699256,"code":"NGIC202305359-0001","latitude":"38.884814027778","longitude":"140.31769419444","source_code":"","project_name":"","survey_name":"\u4ee4\u548c5\u5e74\u5ea6 \u5c71\u5f62\u7ba1\u5185\u5730\u76e4\u8abf\u67fb\u89e3\u6790\u696d\u52d9","client_name":"\u56fd\u571f\u4ea4\u901a\u7701\u6771\u5317\u5730\u65b9\u6574\u5099\u5c40\u5c71\u5f62\u6cb3\u5ddd\u56fd\u9053\u4e8b\u52d9\u6240","boring_xml_url":47,"boring_view_url":1,"soilmap_view_url":null,"soiltest_xml_url":47,"soiltest_view_url":47},{"id":699237,"code":"NGIC202305452-0003","latitude":"35.445173166667","longitude":"139.58290252778","source_code":"","project_name":"","survey_name":"\u95a2\u6771\u7ba1\u533a\u8b66\u5bdf\u5c40\u795e\u5948\u5ddd\u770c\u60c5\u5831\u901a\u4fe1\u90e8\u5009\u5eab\uff0823\uff09\u6577\u5730\u8abf\u67fb","client_name":"\u56fd\u571f\u4ea4\u901a\u7701\u95a2\u6771\u5730\u65b9\u6574\u5099\u5c40\u6a2a\u6d5c\u55b6\u7e55\u4e8b\u52d9\u6240","boring_xml_url":47,"boring_view_url":1,"soilmap_view_url":null,"soiltest_xml_url":47,"soiltest_view_url":47},{"id":699236,"code":"NGIC202305452-0002","latitude":"35.445161472222","longitude":"139.58290330556","source_code":"","project_name":"","survey_name":"\u95a2\u6771\u7ba1\u533a\u8b66\u5bdf\u5c40\u795e\u5948\u5ddd\u770c\u60c5\u5831\u901a\u4fe1\u90e8\u5009\u5eab\uff0823\uff09\u6577\u5730\u8abf\u67fb","client_name":"\u56fd\u571f\u4ea4\u901a\u7701\u95a2\u6771\u5730\u65b9\u6574\u5099\u5c40\u6a2a\u6d5c\u55b6\u7e55\u4e8b\u52d9\u6240","boring_xml_url":47,"boring_view_url":1,"soilmap_view_url":null,"soiltest_xml_url":47,"soiltest_view_url":47},{"id":699235,"code":"NGIC202305452-0001","latitude":"35.445215611111","longitude":"139.58287144444","source_code":"","project_name":"","survey_name":"\u95a2\u6771\u7ba1\u533a\u8b66\u5bdf\u5c40\u795e\u5948\u5ddd\u770c\u60c5\u5831\u901a\u4fe1\u90e8\u5009\u5eab\uff0823\uff09\u6577\u5730\u8abf\u67fb","client_name":"\u56fd\u571f\u4ea4\u901a\u7701\u95a2\u6771\u5730\u65b9\u6574\u5099\u5c40\u6a2a\u6d5c\u55b6\u7e55\u4e8b\u52d9\u6240","boring_xml_url":47,"boring_view_url":1,"soilmap_view_url":null,"soiltest_xml_url":47,"soiltest_view_url":47},{"id":699210,"code":"NGIC202305443-0020","latitude":"44.073436055556","longitude":"143.54000472222","source_code":"","project_name":"","survey_name":"\u65ed\u5ddd\u7d0b\u5225\u81ea\u52d5\u8eca\u9053\u9060\u8efd\u753a\u9060\u8efd\u6771\u5730\u8cea\u8abf\u67fb\u696d\u52d9","client_name":"\u56fd\u571f\u4ea4\u901a\u7701\u5317\u6d77\u9053\u958b\u767a\u5c40\u7db2\u8d70\u958b\u767a\u5efa\u8a2d\u90e8\u672c\u90e8","boring_xml_url":47,"boring_view_url":1,"soilmap_view_url":null,"soiltest_xml_url":0,"soiltest_view_url":0},{"id":699209,"code":"NGIC202305443-0019","latitude":"44.073350527778","longitude":"143.53798675","source_code":"","project_name":"","survey_name":"\u65ed\u5ddd\u7d0b\u5225\u81ea\u52d5\u8eca\u9053\u9060\u8efd\u753a\u9060\u8efd\u6771\u5730\u8cea\u8abf\u67fb\u696d\u52d9","client_name":"\u56fd\u571f\u4ea4\u901a\u7701\u5317\u6d77\u9053\u958b\u767a\u5c40\u7db2\u8d70\u958b\u767a\u5efa\u8a2d\u90e8\u672c\u90e8","boring_xml_url":47,"boring_view_url":1,"soilmap_view_url":null,"soiltest_xml_url":0,"soiltest_view_url":0},{"id":699208,"code":"NGIC202305443-0018","latitude":"44.071937944444","longitude":"143.53900233333","source_code":"","project_name":"","survey_name":"\u65ed\u5ddd\u7d0b\u5225\u81ea\u52d5\u8eca\u9053\u9060\u8efd\u753a\u9060\u8efd\u6771\u5730\u8cea\u8abf\u67fb\u696d\u52d9","client_name":"\u56fd\u571f\u4ea4\u901a\u7701\u5317\u6d77\u9053\u958b\u767a\u5c40\u7db2\u8d70\u958b\u767a\u5efa\u8a2d\u90e8\u672c\u90e8","boring_xml_url":47,"boring_view_url":1,"soilmap_view_url":null,"soiltest_xml_url":0,"soiltest_view_url":0},{"id":699207,"code":"NGIC202305443-0017","latitude":"44.07054775","longitude":"143.54113363889","source_code":"","project_name":"","survey_name":"\u65ed\u5ddd\u7d0b\u5225\u81ea\u52d5\u8eca\u9053\u9060\u8efd\u753a\u9060\u8efd\u6771\u5730\u8cea\u8abf\u67fb\u696d\u52d9","client_name":"\u56fd\u571f\u4ea4\u901a\u7701\u5317\u6d77\u9053\u958b\u767a\u5c40\u7db2\u8d70\u958b\u767a\u5efa\u8a2d\u90e8\u672c\u90e8","boring_xml_url":47,"boring_view_url":1,"soilmap_view_url":null,"soiltest_xml_url":0,"soiltest_view_url":0},{"id":699206,"code":"NGIC202305443-0016","latitude":"44.069913888889","longitude":"143.54043333333","source_code":"","project_name":"","survey_name":"\u65ed\u5ddd\u7d0b\u5225\u81ea\u52d5\u8eca\u9053\u9060\u8efd\u753a\u9060\u8efd\u6771\u5730\u8cea\u8abf\u67fb\u696d\u52d9","client_name":"\u56fd\u571f\u4ea4\u901a\u7701\u5317\u6d77\u9053\u958b\u767a\u5c40\u7db2\u8d70\u958b\u767a\u5efa\u8a2d\u90e8\u672c\u90e8","boring_xml_url":47,"boring_view_url":1,"soilmap_view_url":null,"soiltest_xml_url":0,"soiltest_view_url":0},{"id":699205,"code":"NGIC202305443-0015","latitude":"44.081219861111","longitude":"143.53914955556","source_code":"","project_name":"","survey_name":"\u65ed\u5ddd\u7d0b\u5225\u81ea\u52d5\u8eca\u9053\u9060\u8efd\u753a\u9060\u8efd\u6771\u5730\u8cea\u8abf\u67fb\u696d\u52d9","client_name":"\u56fd\u571f\u4ea4\u901a\u7701\u5317\u6d77\u9053\u958b\u767a\u5c40\u7db2\u8d70\u958b\u767a\u5efa\u8a2d\u90e8\u672c\u90e8","boring_xml_url":47,"boring_view_url":1,"soilmap_view_url":null,"soiltest_xml_url":0,"soiltest_view_url":0},{"id":699204,"code":"NGIC202305443-0014","latitude":"44.081257611111","longitude":"143.53957397222","source_code":"","project_name":"","survey_name":"\u65ed\u5ddd\u7d0b\u5225\u81ea\u52d5\u8eca\u9053\u9060\u8efd\u753a\u9060\u8efd\u6771\u5730\u8cea\u8abf\u67fb\u696d\u52d9","client_name":"\u56fd\u571f\u4ea4\u901a\u7701\u5317\u6d77\u9053\u958b\u767a\u5c40\u7db2\u8d70\u958b\u767a\u5efa\u8a2d\u90e8\u672c\u90e8","boring_xml_url":47,"boring_view_url":1,"soilmap_view_url":null,"soiltest_xml_url":0,"soiltest_view_url":0},{"id":699203,"code":"NGIC202305443-0013","latitude":"44.080794166667","longitude":"143.53927163889","source_code":"","project_name":"","survey_name":"\u65ed\u5ddd\u7d0b\u5225\u81ea\u52d5\u8eca\u9053\u9060\u8efd\u753a\u9060\u8efd\u6771\u5730\u8cea\u8abf\u67fb\u696d\u52d9","client_name":"\u56fd\u571f\u4ea4\u901a\u7701\u5317\u6d77\u9053\u958b\u767a\u5c40\u7db2\u8d70\u958b\u767a\u5efa\u8a2d\u90e8\u672c\u90e8","boring_xml_url":47,"boring_view_url":1,"soilmap_view_url":null,"soiltest_xml_url":0,"soiltest_view_url":0}]}}