{"header":{"xyz":{"source":[],"mosaic":false},"page":4904,"raw":{"soiltest_result":"0","bbox":"57.598333,109.544722,1.933333,163.806111","page":"4904"},"conditions":{"soiltest_result":0,"north":57.598333,"west":109.544722,"south":1.933333,"east":163.806111},"success":true,"message":""},"data":{"meta":{"total":212844,"page":4904,"pages":7095,"count":30},"values":[{"id":173455,"code":"B4KJ201801006-1704","latitude":"34.3347911","longitude":"135.9556242","source_code":"KK51353796091","project_name":"","survey_name":"\u4e95\u306e\u9053\u8c37\u5468\u8fba\u6574\u5099\u8a2d\u8a08\u696d\u52d9","client_name":"\u56fd\u571f\u4ea4\u901a\u7701\u8fd1\u757f\u5730\u65b9\u6574\u5099\u5c40\u5927\u6edd\u30c0\u30e0\u5de5\u4e8b\u4e8b\u52d9\u6240","boring_xml_url":40,"boring_view_url":1,"soilmap_view_url":null,"soiltest_xml_url":0,"soiltest_view_url":0},{"id":173454,"code":"B4KJ201801006-1703","latitude":"34.33618","longitude":"135.9547633","source_code":"KK51353796040","project_name":"","survey_name":"\u5e73\u621010\u5e74\u5ea6\u6e05\u6c34\u8c37\u5830\u5824\u8abf\u67fb\u8a2d\u8a08\u696d\u52d9","client_name":"\u56fd\u571f\u4ea4\u901a\u7701\u8fd1\u757f\u5730\u65b9\u6574\u5099\u5c40\u5927\u6edd\u30c0\u30e0\u5de5\u4e8b\u4e8b\u52d9\u6240","boring_xml_url":40,"boring_view_url":1,"soilmap_view_url":null,"soiltest_xml_url":0,"soiltest_view_url":0},{"id":173453,"code":"B4KJ201801006-1702","latitude":"34.3362633","longitude":"135.9545133","source_code":"KK51353796039","project_name":"","survey_name":"\u5e73\u621010\u5e74\u5ea6\u6e05\u6c34\u8c37\u5830\u5824\u8abf\u67fb\u8a2d\u8a08\u696d\u52d9","client_name":"\u56fd\u571f\u4ea4\u901a\u7701\u8fd1\u757f\u5730\u65b9\u6574\u5099\u5c40\u5927\u6edd\u30c0\u30e0\u5de5\u4e8b\u4e8b\u52d9\u6240","boring_xml_url":40,"boring_view_url":1,"soilmap_view_url":null,"soiltest_xml_url":0,"soiltest_view_url":0},{"id":173452,"code":"B4KJ201801006-1701","latitude":"34.33618","longitude":"135.9547633","source_code":"KK51353796038","project_name":"","survey_name":"\u5e73\u621010\u5e74\u5ea6\u6e05\u6c34\u8c37\u5830\u5824\u8abf\u67fb\u8a2d\u8a08\u696d\u52d9","client_name":"\u56fd\u571f\u4ea4\u901a\u7701\u8fd1\u757f\u5730\u65b9\u6574\u5099\u5c40\u5927\u6edd\u30c0\u30e0\u5de5\u4e8b\u4e8b\u52d9\u6240","boring_xml_url":40,"boring_view_url":1,"soilmap_view_url":null,"soiltest_xml_url":0,"soiltest_view_url":0},{"id":173451,"code":"B4KJ201801006-1700","latitude":"34.3339025","longitude":"135.9594294","source_code":"KK51353796035","project_name":"","survey_name":"\u5e73\u62105\u5e74\u5ea6\u4eba\u77e5\u9ad8\u67b6\u6a4b\u5730\u8cea\u8abf\u67fb(\u305d\u306e2)\u696d\u52d9","client_name":"\u56fd\u571f\u4ea4\u901a\u7701\u8fd1\u757f\u5730\u65b9\u6574\u5099\u5c40\u5927\u6edd\u30c0\u30e0\u5de5\u4e8b\u4e8b\u52d9\u6240","boring_xml_url":40,"boring_view_url":1,"soilmap_view_url":null,"soiltest_xml_url":0,"soiltest_view_url":0},{"id":173450,"code":"B4KJ201801006-1699","latitude":"34.3340692","longitude":"135.9594572","source_code":"KK51353796034","project_name":"","survey_name":"\u5e73\u62105\u5e74\u5ea6\u4eba\u77e5\u9ad8\u67b6\u6a4b\u5730\u8cea\u8abf\u67fb(\u305d\u306e2)\u696d\u52d9","client_name":"\u56fd\u571f\u4ea4\u901a\u7701\u8fd1\u757f\u5730\u65b9\u6574\u5099\u5c40\u5927\u6edd\u30c0\u30e0\u5de5\u4e8b\u4e8b\u52d9\u6240","boring_xml_url":40,"boring_view_url":1,"soilmap_view_url":null,"soiltest_xml_url":0,"soiltest_view_url":0},{"id":173449,"code":"B4KJ201801006-1698","latitude":"34.3351244","longitude":"135.9583186","source_code":"KK51353796032","project_name":"","survey_name":"\u5e73\u62105\u5e74\u5ea6\u5bae\u306e\u5e73\u5b85\u9020\u57fa\u790e\u69cb\u9020\u7269\u691c\u8a0e(\u305d\u306e2)\u696d\u52d9\u5730\u8cea\u8abf\u67fb","client_name":"\u56fd\u571f\u4ea4\u901a\u7701\u8fd1\u757f\u5730\u65b9\u6574\u5099\u5c40\u5927\u6edd\u30c0\u30e0\u5de5\u4e8b\u4e8b\u52d9\u6240","boring_xml_url":40,"boring_view_url":1,"soilmap_view_url":null,"soiltest_xml_url":0,"soiltest_view_url":0},{"id":173448,"code":"B4KJ201801006-1697","latitude":"34.3345969","longitude":"135.9580686","source_code":"KK51353796031","project_name":"","survey_name":"\u5bae\u306e\u5e73\u5730\u533a\u5730\u8cea\u8abf\u67fb(\u305d\u306e2)\u696d\u52d9","client_name":"\u56fd\u571f\u4ea4\u901a\u7701\u8fd1\u757f\u5730\u65b9\u6574\u5099\u5c40\u5927\u6edd\u30c0\u30e0\u5de5\u4e8b\u4e8b\u52d9\u6240","boring_xml_url":40,"boring_view_url":1,"soilmap_view_url":null,"soiltest_xml_url":0,"soiltest_view_url":0},{"id":173447,"code":"B4KJ201801006-1696","latitude":"34.3348467","longitude":"135.9579853","source_code":"KK51353796030","project_name":"","survey_name":"\u5e73\u62105\u5e74\u5ea6\u5bae\u306e\u5e73\u5b85\u9020\u57fa\u790e\u69cb\u9020\u7269\u691c\u8a0e(\u305d\u306e2)\u696d\u52d9\u5730\u8cea\u8abf\u67fb","client_name":"\u56fd\u571f\u4ea4\u901a\u7701\u8fd1\u757f\u5730\u65b9\u6574\u5099\u5c40\u5927\u6edd\u30c0\u30e0\u5de5\u4e8b\u4e8b\u52d9\u6240","boring_xml_url":40,"boring_view_url":1,"soilmap_view_url":null,"soiltest_xml_url":0,"soiltest_view_url":0},{"id":173446,"code":"B4KJ201801006-1695","latitude":"34.3345969","longitude":"135.9578186","source_code":"KK51353796029","project_name":"","survey_name":"\u5bae\u306e\u5e73\u5730\u533a\u5730\u8cea\u8abf\u67fb(\u305d\u306e2)\u696d\u52d9","client_name":"\u56fd\u571f\u4ea4\u901a\u7701\u8fd1\u757f\u5730\u65b9\u6574\u5099\u5c40\u5927\u6edd\u30c0\u30e0\u5de5\u4e8b\u4e8b\u52d9\u6240","boring_xml_url":40,"boring_view_url":1,"soilmap_view_url":null,"soiltest_xml_url":0,"soiltest_view_url":0},{"id":173445,"code":"B4KJ201801006-1694","latitude":"34.3345136","longitude":"135.9578186","source_code":"KK51353796028","project_name":"","survey_name":"\u5bae\u306e\u5e73\u5730\u533a\u5730\u8cea\u8abf\u67fb(\u305d\u306e2)\u696d\u52d9","client_name":"\u56fd\u571f\u4ea4\u901a\u7701\u8fd1\u757f\u5730\u65b9\u6574\u5099\u5c40\u5927\u6edd\u30c0\u30e0\u5de5\u4e8b\u4e8b\u52d9\u6240","boring_xml_url":40,"boring_view_url":1,"soilmap_view_url":null,"soiltest_xml_url":0,"soiltest_view_url":0},{"id":173444,"code":"B4KJ201801006-1693","latitude":"34.3343747","longitude":"135.9573186","source_code":"KK51353796027","project_name":"","survey_name":"\u5e73\u62105\u5e74\u5ea6\u8feb\u5730\u533a\u5730\u8cea\u8abf\u67fb\u696d\u52d9","client_name":"\u56fd\u571f\u4ea4\u901a\u7701\u8fd1\u757f\u5730\u65b9\u6574\u5099\u5c40\u5927\u6edd\u30c0\u30e0\u5de5\u4e8b\u4e8b\u52d9\u6240","boring_xml_url":40,"boring_view_url":1,"soilmap_view_url":null,"soiltest_xml_url":0,"soiltest_view_url":0},{"id":173443,"code":"B4KJ201801006-1692","latitude":"34.3344856","longitude":"135.9570408","source_code":"KK51353796026","project_name":"","survey_name":"\u5e73\u62105\u5e74\u5ea6\u8feb\u5730\u533a\u5730\u8cea\u8abf\u67fb\u696d\u52d9","client_name":"\u56fd\u571f\u4ea4\u901a\u7701\u8fd1\u757f\u5730\u65b9\u6574\u5099\u5c40\u5927\u6edd\u30c0\u30e0\u5de5\u4e8b\u4e8b\u52d9\u6240","boring_xml_url":40,"boring_view_url":1,"soilmap_view_url":null,"soiltest_xml_url":0,"soiltest_view_url":0},{"id":173442,"code":"B4KJ201801006-1691","latitude":"34.3340414","longitude":"135.9572631","source_code":"KK51353796025","project_name":"","survey_name":"\u5e73\u62105\u5e74\u5ea6\u8feb\u5730\u533a\u5730\u8cea\u8abf\u67fb\u696d\u52d9","client_name":"\u56fd\u571f\u4ea4\u901a\u7701\u8fd1\u757f\u5730\u65b9\u6574\u5099\u5c40\u5927\u6edd\u30c0\u30e0\u5de5\u4e8b\u4e8b\u52d9\u6240","boring_xml_url":40,"boring_view_url":1,"soilmap_view_url":null,"soiltest_xml_url":0,"soiltest_view_url":0},{"id":173441,"code":"B4KJ201801006-1690","latitude":"34.3341525","longitude":"135.9569853","source_code":"KK51353796024","project_name":"","survey_name":"\u5e73\u62105\u5e74\u5ea6\u8feb\u5730\u533a\u5730\u8cea\u8abf\u67fb\u696d\u52d9","client_name":"\u56fd\u571f\u4ea4\u901a\u7701\u8fd1\u757f\u5730\u65b9\u6574\u5099\u5c40\u5927\u6edd\u30c0\u30e0\u5de5\u4e8b\u4e8b\u52d9\u6240","boring_xml_url":40,"boring_view_url":1,"soilmap_view_url":null,"soiltest_xml_url":0,"soiltest_view_url":0},{"id":173440,"code":"B4KJ201801006-1689","latitude":"34.3344856","longitude":"135.9567631","source_code":"KK51353796023","project_name":"","survey_name":"\u5e73\u62105\u5e74\u5ea6\u8feb\u5730\u533a\u5730\u8cea\u8abf\u67fb\u696d\u52d9","client_name":"\u56fd\u571f\u4ea4\u901a\u7701\u8fd1\u757f\u5730\u65b9\u6574\u5099\u5c40\u5927\u6edd\u30c0\u30e0\u5de5\u4e8b\u4e8b\u52d9\u6240","boring_xml_url":40,"boring_view_url":1,"soilmap_view_url":null,"soiltest_xml_url":0,"soiltest_view_url":0},{"id":173439,"code":"B4KJ201801006-1688","latitude":"34.3341525","longitude":"135.9567075","source_code":"KK51353796022","project_name":"","survey_name":"\u5e73\u62105\u5e74\u5ea6\u8feb\u5730\u533a\u5730\u8cea\u8abf\u67fb\u696d\u52d9","client_name":"\u56fd\u571f\u4ea4\u901a\u7701\u8fd1\u757f\u5730\u65b9\u6574\u5099\u5c40\u5927\u6edd\u30c0\u30e0\u5de5\u4e8b\u4e8b\u52d9\u6240","boring_xml_url":40,"boring_view_url":1,"soilmap_view_url":null,"soiltest_xml_url":0,"soiltest_view_url":0},{"id":173438,"code":"B4KJ201801006-1687","latitude":"34.3355133","longitude":"135.9590961","source_code":"KK51353796019","project_name":"","survey_name":"\u8feb\u5730\u533a\u5730\u8cea\u8abf\u67fb\u4f5c\u696d","client_name":"\u56fd\u571f\u4ea4\u901a\u7701\u8fd1\u757f\u5730\u65b9\u6574\u5099\u5c40\u5927\u6edd\u30c0\u30e0\u5de5\u4e8b\u4e8b\u52d9\u6240","boring_xml_url":40,"boring_view_url":1,"soilmap_view_url":null,"soiltest_xml_url":0,"soiltest_view_url":0},{"id":173437,"code":"B4KJ201801006-1686","latitude":"34.3355133","longitude":"135.9588183","source_code":"KK51353796018","project_name":"","survey_name":"\u8feb\u5730\u533a\u5730\u8cea\u8abf\u67fb\u4f5c\u696d","client_name":"\u56fd\u571f\u4ea4\u901a\u7701\u8fd1\u757f\u5730\u65b9\u6574\u5099\u5c40\u5927\u6edd\u30c0\u30e0\u5de5\u4e8b\u4e8b\u52d9\u6240","boring_xml_url":40,"boring_view_url":1,"soilmap_view_url":null,"soiltest_xml_url":0,"soiltest_view_url":0},{"id":173436,"code":"B4KJ201801006-1685","latitude":"34.3357911","longitude":"135.9585406","source_code":"KK51353796017","project_name":"","survey_name":"\u8feb\u5730\u533a\u5730\u8cea\u8abf\u67fb\u4f5c\u696d","client_name":"\u56fd\u571f\u4ea4\u901a\u7701\u8fd1\u757f\u5730\u65b9\u6574\u5099\u5c40\u5927\u6edd\u30c0\u30e0\u5de5\u4e8b\u4e8b\u52d9\u6240","boring_xml_url":40,"boring_view_url":1,"soilmap_view_url":null,"soiltest_xml_url":0,"soiltest_view_url":0},{"id":173435,"code":"B4KJ201801006-1684","latitude":"34.3363467","longitude":"135.9579853","source_code":"KK51353796016","project_name":"","survey_name":"\u8feb\u5730\u533a\u5730\u8cea\u8abf\u67fb\u4f5c\u696d","client_name":"\u56fd\u571f\u4ea4\u901a\u7701\u8fd1\u757f\u5730\u65b9\u6574\u5099\u5c40\u5927\u6edd\u30c0\u30e0\u5de5\u4e8b\u4e8b\u52d9\u6240","boring_xml_url":40,"boring_view_url":1,"soilmap_view_url":null,"soiltest_xml_url":0,"soiltest_view_url":0},{"id":173434,"code":"B4KJ201801006-1683","latitude":"34.3298475","longitude":"135.9615961","source_code":"KK51353796015","project_name":"","survey_name":"\u9ad8\u539f\u30c8\u30f3\u30cd\u30eb\u5730\u8cea\u8abf\u67fb\u4f5c\u696d","client_name":"\u56fd\u571f\u4ea4\u901a\u7701\u8fd1\u757f\u5730\u65b9\u6574\u5099\u5c40\u5927\u6edd\u30c0\u30e0\u5de5\u4e8b\u4e8b\u52d9\u6240","boring_xml_url":40,"boring_view_url":1,"soilmap_view_url":null,"soiltest_xml_url":0,"soiltest_view_url":0},{"id":173433,"code":"B4KJ201801006-1682","latitude":"34.3298475","longitude":"135.9615961","source_code":"KK51353796014","project_name":"","survey_name":"\u9ad8\u539f\u30c8\u30f3\u30cd\u30eb\u5730\u8cea\u8abf\u67fb\u4f5c\u696d","client_name":"\u56fd\u571f\u4ea4\u901a\u7701\u8fd1\u757f\u5730\u65b9\u6574\u5099\u5c40\u5927\u6edd\u30c0\u30e0\u5de5\u4e8b\u4e8b\u52d9\u6240","boring_xml_url":40,"boring_view_url":1,"soilmap_view_url":null,"soiltest_xml_url":0,"soiltest_view_url":0},{"id":173432,"code":"B4KJ201801006-1681","latitude":"34.3339025","longitude":"135.9602072","source_code":"KK51353796013","project_name":"","survey_name":"\u9ad8\u539f\u30c8\u30f3\u30cd\u30eb\u5730\u8cea\u8abf\u67fb\u4f5c\u696d","client_name":"\u56fd\u571f\u4ea4\u901a\u7701\u8fd1\u757f\u5730\u65b9\u6574\u5099\u5c40\u5927\u6edd\u30c0\u30e0\u5de5\u4e8b\u4e8b\u52d9\u6240","boring_xml_url":40,"boring_view_url":1,"soilmap_view_url":null,"soiltest_xml_url":0,"soiltest_view_url":0},{"id":173431,"code":"B4KJ201801006-1680","latitude":"34.3345969","longitude":"135.9581242","source_code":"KK51353796012","project_name":"","survey_name":"\u5e73\u6210\u5143\u5e74\u5ea6\u8feb\u5730\u533a\u5730\u8cea\u8abf\u67fb(\u305d\u306e2)\u4f5c\u696d","client_name":"\u56fd\u571f\u4ea4\u901a\u7701\u8fd1\u757f\u5730\u65b9\u6574\u5099\u5c40\u5927\u6edd\u30c0\u30e0\u5de5\u4e8b\u4e8b\u52d9\u6240","boring_xml_url":40,"boring_view_url":1,"soilmap_view_url":null,"soiltest_xml_url":0,"soiltest_view_url":0},{"id":173430,"code":"B4KJ201801006-1679","latitude":"34.3344581","longitude":"135.9584019","source_code":"KK51353796011","project_name":"","survey_name":"\u5e73\u6210\u5143\u5e74\u5ea6\u8feb\u5730\u533a\u5730\u8cea\u8abf\u67fb(\u305d\u306e2)\u4f5c\u696d","client_name":"\u56fd\u571f\u4ea4\u901a\u7701\u8fd1\u757f\u5730\u65b9\u6574\u5099\u5c40\u5927\u6edd\u30c0\u30e0\u5de5\u4e8b\u4e8b\u52d9\u6240","boring_xml_url":40,"boring_view_url":1,"soilmap_view_url":null,"soiltest_xml_url":0,"soiltest_view_url":0},{"id":173429,"code":"B4KJ201801006-1678","latitude":"34.3343469","longitude":"135.9586797","source_code":"KK51353796010","project_name":"","survey_name":"\u5e73\u6210\u5143\u5e74\u5ea6\u8feb\u5730\u533a\u5730\u8cea\u8abf\u67fb(\u305d\u306e2)\u4f5c\u696d","client_name":"\u56fd\u571f\u4ea4\u901a\u7701\u8fd1\u757f\u5730\u65b9\u6574\u5099\u5c40\u5927\u6edd\u30c0\u30e0\u5de5\u4e8b\u4e8b\u52d9\u6240","boring_xml_url":40,"boring_view_url":1,"soilmap_view_url":null,"soiltest_xml_url":0,"soiltest_view_url":0},{"id":173428,"code":"B4KJ201801006-1677","latitude":"34.3336803","longitude":"135.9578742","source_code":"KK51353796009","project_name":"","survey_name":"\u5e73\u6210\u5143\u5e74\u5ea6\u8feb\u5730\u533a\u5730\u8cea\u8abf\u67fb(\u305d\u306e2)\u4f5c\u696d","client_name":"\u56fd\u571f\u4ea4\u901a\u7701\u8fd1\u757f\u5730\u65b9\u6574\u5099\u5c40\u5927\u6edd\u30c0\u30e0\u5de5\u4e8b\u4e8b\u52d9\u6240","boring_xml_url":40,"boring_view_url":1,"soilmap_view_url":null,"soiltest_xml_url":0,"soiltest_view_url":0},{"id":173427,"code":"B4KJ201801006-1676","latitude":"34.3337914","longitude":"135.9577353","source_code":"KK51353796008","project_name":"","survey_name":"\u5e73\u6210\u5143\u5e74\u5ea6\u8feb\u5730\u533a\u5730\u8cea\u8abf\u67fb(\u305d\u306e2)\u4f5c\u696d","client_name":"\u56fd\u571f\u4ea4\u901a\u7701\u8fd1\u757f\u5730\u65b9\u6574\u5099\u5c40\u5927\u6edd\u30c0\u30e0\u5de5\u4e8b\u4e8b\u52d9\u6240","boring_xml_url":40,"boring_view_url":1,"soilmap_view_url":null,"soiltest_xml_url":0,"soiltest_view_url":0},{"id":173426,"code":"B4KJ201801006-1675","latitude":"34.3337914","longitude":"135.9569019","source_code":"KK51353796007","project_name":"","survey_name":"\u5e73\u6210\u5143\u5e74\u5ea6\u8feb\u5730\u533a\u5730\u8cea\u8abf\u67fb(\u305d\u306e2)\u4f5c\u696d","client_name":"\u56fd\u571f\u4ea4\u901a\u7701\u8fd1\u757f\u5730\u65b9\u6574\u5099\u5c40\u5927\u6edd\u30c0\u30e0\u5de5\u4e8b\u4e8b\u52d9\u6240","boring_xml_url":40,"boring_view_url":1,"soilmap_view_url":null,"soiltest_xml_url":0,"soiltest_view_url":0}]}}