{"header":{"xyz":{"source":[],"mosaic":false},"page":4910,"raw":{"soiltest_result":"0","bbox":"57.598333,109.544722,1.933333,163.806111","page":"4910"},"conditions":{"soiltest_result":0,"north":57.598333,"west":109.544722,"south":1.933333,"east":163.806111},"success":true,"message":""},"data":{"meta":{"total":212844,"page":4910,"pages":7095,"count":30},"values":[{"id":173275,"code":"B4KJ201801006-1524","latitude":"34.3025456","longitude":"135.99315","source_code":"KK51353759006","project_name":"","survey_name":"\u4e0b\u591a\u53e4\u8fc2\u56de\u8def\u5730\u8cea\u8abf\u67fb\u4f5c\u696d","client_name":"\u56fd\u571f\u4ea4\u901a\u7701\u8fd1\u757f\u5730\u65b9\u6574\u5099\u5c40\u5927\u6edd\u30c0\u30e0\u5de5\u4e8b\u4e8b\u52d9\u6240","boring_xml_url":40,"boring_view_url":1,"soilmap_view_url":null,"soiltest_xml_url":0,"soiltest_view_url":0},{"id":173274,"code":"B4KJ201801006-1523","latitude":"34.3020736","longitude":"135.9936778","source_code":"KK51353759005","project_name":"","survey_name":"\u4e0b\u591a\u53e4\u8fc2\u56de\u8def\u5730\u8cea\u8abf\u67fb\u4f5c\u696d","client_name":"\u56fd\u571f\u4ea4\u901a\u7701\u8fd1\u757f\u5730\u65b9\u6574\u5099\u5c40\u5927\u6edd\u30c0\u30e0\u5de5\u4e8b\u4e8b\u52d9\u6240","boring_xml_url":40,"boring_view_url":1,"soilmap_view_url":null,"soiltest_xml_url":0,"soiltest_view_url":0},{"id":173273,"code":"B4KJ201801006-1522","latitude":"34.3017403","longitude":"135.9937056","source_code":"KK51353759004","project_name":"","survey_name":"\u4e0b\u591a\u53e4\u8fc2\u56de\u8def\u5730\u8cea\u8abf\u67fb\u4f5c\u696d","client_name":"\u56fd\u571f\u4ea4\u901a\u7701\u8fd1\u757f\u5730\u65b9\u6574\u5099\u5c40\u5927\u6edd\u30c0\u30e0\u5de5\u4e8b\u4e8b\u52d9\u6240","boring_xml_url":40,"boring_view_url":1,"soilmap_view_url":null,"soiltest_xml_url":0,"soiltest_view_url":0},{"id":173272,"code":"B4KJ201801006-1521","latitude":"34.3015736","longitude":"135.9968442","source_code":"KK51353759003","project_name":"","survey_name":"\u662d\u548c59\u5e74\u5ea6\u767d\u5ddd\u6e21\u5730\u533a\u5730\u8cea\u8abf\u67fb\u4f5c\u696d","client_name":"\u56fd\u571f\u4ea4\u901a\u7701\u8fd1\u757f\u5730\u65b9\u6574\u5099\u5c40\u5927\u6edd\u30c0\u30e0\u5de5\u4e8b\u4e8b\u52d9\u6240","boring_xml_url":40,"boring_view_url":1,"soilmap_view_url":null,"soiltest_xml_url":0,"soiltest_view_url":0},{"id":173271,"code":"B4KJ201801006-1520","latitude":"34.3015458","longitude":"135.9970108","source_code":"KK51353759002","project_name":"","survey_name":"\u662d\u548c59\u5e74\u5ea6\u767d\u5ddd\u6e21\u5730\u533a\u5730\u8cea\u8abf\u67fb\u4f5c\u696d","client_name":"\u56fd\u571f\u4ea4\u901a\u7701\u8fd1\u757f\u5730\u65b9\u6574\u5099\u5c40\u5927\u6edd\u30c0\u30e0\u5de5\u4e8b\u4e8b\u52d9\u6240","boring_xml_url":40,"boring_view_url":1,"soilmap_view_url":null,"soiltest_xml_url":0,"soiltest_view_url":0},{"id":173270,"code":"B4KJ201801006-1519","latitude":"34.3014625","longitude":"135.9963442","source_code":"KK51353759001","project_name":"","survey_name":"\u662d\u548c59\u5e74\u5ea6\u767d\u5ddd\u6e21\u5730\u533a\u5730\u8cea\u8abf\u67fb\u4f5c\u696d","client_name":"\u56fd\u571f\u4ea4\u901a\u7701\u8fd1\u757f\u5730\u65b9\u6574\u5099\u5c40\u5927\u6edd\u30c0\u30e0\u5de5\u4e8b\u4e8b\u52d9\u6240","boring_xml_url":40,"boring_view_url":1,"soilmap_view_url":null,"soiltest_xml_url":0,"soiltest_view_url":0},{"id":173269,"code":"B4KJ201801006-1518","latitude":"34.3362564","longitude":"135.6600944","source_code":"KK51353593002","project_name":"","survey_name":"\u6a4b\u672c\u9053\u8def\u5730\u8cea\u8abf\u67fb\u305d\u306e1\u4f5c\u696d","client_name":"\u56fd\u571f\u4ea4\u901a\u7701\u8fd1\u757f\u5730\u65b9\u6574\u5099\u5c40\u548c\u6b4c\u5c71\u6cb3\u5ddd\u56fd\u9053\u4e8b\u52d9\u6240","boring_xml_url":40,"boring_view_url":1,"soilmap_view_url":null,"soiltest_xml_url":0,"soiltest_view_url":0},{"id":173268,"code":"B4KJ201801006-1517","latitude":"34.3362564","longitude":"135.6600944","source_code":"KK51353593001","project_name":"","survey_name":"\u6a4b\u672c\u9053\u8def\u5730\u8cea\u8abf\u67fb\u305d\u306e1\u4f5c\u696d","client_name":"\u56fd\u571f\u4ea4\u901a\u7701\u8fd1\u757f\u5730\u65b9\u6574\u5099\u5c40\u548c\u6b4c\u5c71\u6cb3\u5ddd\u56fd\u9053\u4e8b\u52d9\u6240","boring_xml_url":40,"boring_view_url":1,"soilmap_view_url":null,"soiltest_xml_url":0,"soiltest_view_url":0},{"id":173267,"code":"B4KJ201801006-1516","latitude":"34.3337844","longitude":"135.6538728","source_code":"KK51353592058","project_name":"","survey_name":"\u6a4b\u672c\u9053\u8def\u771f\u571f\uff5e\u4e2d\u5cf6\u5730\u533a\u5730\u8cea\u8abf\u67fb\u4f5c\u696d","client_name":"\u56fd\u571f\u4ea4\u901a\u7701\u8fd1\u757f\u5730\u65b9\u6574\u5099\u5c40\u548c\u6b4c\u5c71\u6cb3\u5ddd\u56fd\u9053\u4e8b\u52d9\u6240","boring_xml_url":40,"boring_view_url":1,"soilmap_view_url":null,"soiltest_xml_url":0,"soiltest_view_url":0},{"id":173266,"code":"B4KJ201801006-1515","latitude":"34.3343675","longitude":"135.6542894","source_code":"KK51353592057","project_name":"","survey_name":"\u6a4b\u672c\u9053\u8def\u771f\u571f\uff5e\u4e2d\u5cf6\u5730\u533a\u5730\u8cea\u8abf\u67fb\u4f5c\u696d","client_name":"\u56fd\u571f\u4ea4\u901a\u7701\u8fd1\u757f\u5730\u65b9\u6574\u5099\u5c40\u548c\u6b4c\u5c71\u6cb3\u5ddd\u56fd\u9053\u4e8b\u52d9\u6240","boring_xml_url":40,"boring_view_url":1,"soilmap_view_url":null,"soiltest_xml_url":0,"soiltest_view_url":0},{"id":173265,"code":"B4KJ201801006-1514","latitude":"34.3345342","longitude":"135.6494844","source_code":"KK51353592056","project_name":"","survey_name":"\u6a4b\u672c\u9053\u8def\u771f\u571f\uff5e\u4e2d\u5cf6\u5730\u533a\u5730\u8cea\u8abf\u67fb\u4f5c\u696d","client_name":"\u56fd\u571f\u4ea4\u901a\u7701\u8fd1\u757f\u5730\u65b9\u6574\u5099\u5c40\u548c\u6b4c\u5c71\u6cb3\u5ddd\u56fd\u9053\u4e8b\u52d9\u6240","boring_xml_url":40,"boring_view_url":1,"soilmap_view_url":null,"soiltest_xml_url":0,"soiltest_view_url":0},{"id":173264,"code":"B4KJ201801006-1513","latitude":"34.3346731","longitude":"135.6500953","source_code":"KK51353592055","project_name":"","survey_name":"\u6a4b\u672c\u9053\u8def\u771f\u571f\uff5e\u4e2d\u5cf6\u5730\u533a\u5730\u8cea\u8abf\u67fb\u4f5c\u696d","client_name":"\u56fd\u571f\u4ea4\u901a\u7701\u8fd1\u757f\u5730\u65b9\u6574\u5099\u5c40\u548c\u6b4c\u5c71\u6cb3\u5ddd\u56fd\u9053\u4e8b\u52d9\u6240","boring_xml_url":40,"boring_view_url":1,"soilmap_view_url":null,"soiltest_xml_url":0,"soiltest_view_url":0},{"id":173263,"code":"B4KJ201801006-1512","latitude":"34.3346175","longitude":"135.6504008","source_code":"KK51353592054","project_name":"","survey_name":"\u6a4b\u672c\u9053\u8def\u771f\u571f\uff5e\u4e2d\u5cf6\u5730\u533a\u5730\u8cea\u8abf\u67fb\u4f5c\u696d","client_name":"\u56fd\u571f\u4ea4\u901a\u7701\u8fd1\u757f\u5730\u65b9\u6574\u5099\u5c40\u548c\u6b4c\u5c71\u6cb3\u5ddd\u56fd\u9053\u4e8b\u52d9\u6240","boring_xml_url":40,"boring_view_url":1,"soilmap_view_url":null,"soiltest_xml_url":0,"soiltest_view_url":0},{"id":173262,"code":"B4KJ201801006-1511","latitude":"34.3347008","longitude":"135.6532061","source_code":"KK51353592053","project_name":"","survey_name":"\u6a4b\u672c\u9053\u8def\u771f\u571f\uff5e\u4e2d\u5cf6\u5730\u533a\u5730\u8cea\u8abf\u67fb\u4f5c\u696d","client_name":"\u56fd\u571f\u4ea4\u901a\u7701\u8fd1\u757f\u5730\u65b9\u6574\u5099\u5c40\u548c\u6b4c\u5c71\u6cb3\u5ddd\u56fd\u9053\u4e8b\u52d9\u6240","boring_xml_url":40,"boring_view_url":1,"soilmap_view_url":null,"soiltest_xml_url":0,"soiltest_view_url":0},{"id":173261,"code":"B4KJ201801006-1510","latitude":"34.3343675","longitude":"135.6534006","source_code":"KK51353592052","project_name":"","survey_name":"\u6a4b\u672c\u9053\u8def\u771f\u571f\uff5e\u4e2d\u5cf6\u5730\u533a\u5730\u8cea\u8abf\u67fb\u4f5c\u696d","client_name":"\u56fd\u571f\u4ea4\u901a\u7701\u8fd1\u757f\u5730\u65b9\u6574\u5099\u5c40\u548c\u6b4c\u5c71\u6cb3\u5ddd\u56fd\u9053\u4e8b\u52d9\u6240","boring_xml_url":40,"boring_view_url":1,"soilmap_view_url":null,"soiltest_xml_url":0,"soiltest_view_url":0},{"id":173260,"code":"B4KJ201801006-1509","latitude":"34.3343953","longitude":"135.6536506","source_code":"KK51353592051","project_name":"","survey_name":"\u6a4b\u672c\u9053\u8def\u771f\u571f\uff5e\u4e2d\u5cf6\u5730\u533a\u5730\u8cea\u8abf\u67fb\u4f5c\u696d","client_name":"\u56fd\u571f\u4ea4\u901a\u7701\u8fd1\u757f\u5730\u65b9\u6574\u5099\u5c40\u548c\u6b4c\u5c71\u6cb3\u5ddd\u56fd\u9053\u4e8b\u52d9\u6240","boring_xml_url":40,"boring_view_url":1,"soilmap_view_url":null,"soiltest_xml_url":0,"soiltest_view_url":0},{"id":173259,"code":"B4KJ201801006-1508","latitude":"34.3348675","longitude":"135.6540117","source_code":"KK51353592050","project_name":"","survey_name":"\u6a4b\u672c\u9053\u8def\u771f\u571f\uff5e\u4e2d\u5cf6\u5730\u533a\u5730\u8cea\u8abf\u67fb\u4f5c\u696d","client_name":"\u56fd\u571f\u4ea4\u901a\u7701\u8fd1\u757f\u5730\u65b9\u6574\u5099\u5c40\u548c\u6b4c\u5c71\u6cb3\u5ddd\u56fd\u9053\u4e8b\u52d9\u6240","boring_xml_url":40,"boring_view_url":1,"soilmap_view_url":null,"soiltest_xml_url":0,"soiltest_view_url":0},{"id":173258,"code":"B4KJ201801006-1507","latitude":"34.335172","longitude":"135.655206","source_code":"KK51353592049","project_name":"","survey_name":"\u6a4b\u672c\u9053\u8def\u771f\u571f\uff5e\u4e2d\u5cf6\u5730\u533a\u5730\u8cea\u8abf\u67fb\u4f5c\u696d","client_name":"\u56fd\u571f\u4ea4\u901a\u7701\u8fd1\u757f\u5730\u65b9\u6574\u5099\u5c40\u548c\u6b4c\u5c71\u6cb3\u5ddd\u56fd\u9053\u4e8b\u52d9\u6240","boring_xml_url":40,"boring_view_url":1,"soilmap_view_url":null,"soiltest_xml_url":0,"soiltest_view_url":0},{"id":173257,"code":"B4KJ201801006-1506","latitude":"34.3350064","longitude":"135.6565114","source_code":"KK51353592048","project_name":"","survey_name":"\u6a4b\u672c\u9053\u8def\u771f\u571f\uff5e\u4e2d\u5cf6\u5730\u533a\u5730\u8cea\u8abf\u67fb\u4f5c\u696d","client_name":"\u56fd\u571f\u4ea4\u901a\u7701\u8fd1\u757f\u5730\u65b9\u6574\u5099\u5c40\u548c\u6b4c\u5c71\u6cb3\u5ddd\u56fd\u9053\u4e8b\u52d9\u6240","boring_xml_url":40,"boring_view_url":1,"soilmap_view_url":null,"soiltest_xml_url":0,"soiltest_view_url":0},{"id":173256,"code":"B4KJ201801006-1505","latitude":"34.3353953","longitude":"135.6563169","source_code":"KK51353592047","project_name":"","survey_name":"\u6a4b\u672c\u9053\u8def\u771f\u571f\uff5e\u4e2d\u5cf6\u5730\u533a\u5730\u8cea\u8abf\u67fb\u4f5c\u696d","client_name":"\u56fd\u571f\u4ea4\u901a\u7701\u8fd1\u757f\u5730\u65b9\u6574\u5099\u5c40\u548c\u6b4c\u5c71\u6cb3\u5ddd\u56fd\u9053\u4e8b\u52d9\u6240","boring_xml_url":40,"boring_view_url":1,"soilmap_view_url":null,"soiltest_xml_url":0,"soiltest_view_url":0},{"id":173255,"code":"B4KJ201801006-1504","latitude":"34.3356731","longitude":"135.6569836","source_code":"KK51353592046","project_name":"","survey_name":"\u6a4b\u672c\u9053\u8def\u771f\u571f\uff5e\u4e2d\u5cf6\u5730\u533a\u5730\u8cea\u8abf\u67fb\u4f5c\u696d","client_name":"\u56fd\u571f\u4ea4\u901a\u7701\u8fd1\u757f\u5730\u65b9\u6574\u5099\u5c40\u548c\u6b4c\u5c71\u6cb3\u5ddd\u56fd\u9053\u4e8b\u52d9\u6240","boring_xml_url":40,"boring_view_url":1,"soilmap_view_url":null,"soiltest_xml_url":0,"soiltest_view_url":0},{"id":173254,"code":"B4KJ201801006-1503","latitude":"34.3349786","longitude":"135.6489844","source_code":"KK51353592011","project_name":"","survey_name":"\u5e73\u621010\u5e74\u5ea6\u6a4b\u672c\u9053\u8def\u771f\u571f\uff5e\u5e02\u8107\u5730\u533a\u5730\u8cea\u8abf\u67fb\u4f5c\u696d","client_name":"\u56fd\u571f\u4ea4\u901a\u7701\u8fd1\u757f\u5730\u65b9\u6574\u5099\u5c40\u548c\u6b4c\u5c71\u6cb3\u5ddd\u56fd\u9053\u4e8b\u52d9\u6240","boring_xml_url":40,"boring_view_url":1,"soilmap_view_url":null,"soiltest_xml_url":0,"soiltest_view_url":0},{"id":173253,"code":"B4KJ201801006-1502","latitude":"34.3342842","longitude":"135.6507619","source_code":"KK51353592010","project_name":"","survey_name":"\u5e73\u621010\u5e74\u5ea6\u6a4b\u672c\u9053\u8def\u771f\u571f\uff5e\u5e02\u8107\u5730\u533a\u5730\u8cea\u8abf\u67fb\u4f5c\u696d","client_name":"\u56fd\u571f\u4ea4\u901a\u7701\u8fd1\u757f\u5730\u65b9\u6574\u5099\u5c40\u548c\u6b4c\u5c71\u6cb3\u5ddd\u56fd\u9053\u4e8b\u52d9\u6240","boring_xml_url":40,"boring_view_url":1,"soilmap_view_url":null,"soiltest_xml_url":0,"soiltest_view_url":0},{"id":173252,"code":"B4KJ201801006-1501","latitude":"34.3353119","longitude":"135.6535394","source_code":"KK51353592009","project_name":"","survey_name":"\u5e73\u621010\u5e74\u5ea6\u6a4b\u672c\u9053\u8def\u771f\u571f\uff5e\u5e02\u8107\u5730\u533a\u5730\u8cea\u8abf\u67fb\u4f5c\u696d","client_name":"\u56fd\u571f\u4ea4\u901a\u7701\u8fd1\u757f\u5730\u65b9\u6574\u5099\u5c40\u548c\u6b4c\u5c71\u6cb3\u5ddd\u56fd\u9053\u4e8b\u52d9\u6240","boring_xml_url":40,"boring_view_url":1,"soilmap_view_url":null,"soiltest_xml_url":0,"soiltest_view_url":0},{"id":173251,"code":"B4KJ201801006-1500","latitude":"34.3348953","longitude":"135.6537617","source_code":"KK51353592008","project_name":"","survey_name":"\u5e73\u621010\u5e74\u5ea6\u6a4b\u672c\u9053\u8def\u771f\u571f\uff5e\u5e02\u8107\u5730\u533a\u5730\u8cea\u8abf\u67fb\u4f5c\u696d","client_name":"\u56fd\u571f\u4ea4\u901a\u7701\u8fd1\u757f\u5730\u65b9\u6574\u5099\u5c40\u548c\u6b4c\u5c71\u6cb3\u5ddd\u56fd\u9053\u4e8b\u52d9\u6240","boring_xml_url":40,"boring_view_url":1,"soilmap_view_url":null,"soiltest_xml_url":0,"soiltest_view_url":0},{"id":173250,"code":"B4KJ201801006-1499","latitude":"34.3357008","longitude":"135.6579836","source_code":"KK51353592007","project_name":"","survey_name":"\u5e73\u621010\u5e74\u5ea6\u6a4b\u672c\u9053\u8def\u771f\u571f\uff5e\u5e02\u8107\u5730\u533a\u5730\u8cea\u8abf\u67fb\u4f5c\u696d","client_name":"\u56fd\u571f\u4ea4\u901a\u7701\u8fd1\u757f\u5730\u65b9\u6574\u5099\u5c40\u548c\u6b4c\u5c71\u6cb3\u5ddd\u56fd\u9053\u4e8b\u52d9\u6240","boring_xml_url":40,"boring_view_url":1,"soilmap_view_url":null,"soiltest_xml_url":0,"soiltest_view_url":0},{"id":173249,"code":"B4KJ201801006-1498","latitude":"34.3350897","longitude":"135.6562614","source_code":"KK51353592006","project_name":"","survey_name":"\u6a4b\u672c\u9053\u8def\u5730\u8cea\u8abf\u67fb\u305d\u306e6\u4f5c\u696d","client_name":"\u56fd\u571f\u4ea4\u901a\u7701\u8fd1\u757f\u5730\u65b9\u6574\u5099\u5c40\u548c\u6b4c\u5c71\u6cb3\u5ddd\u56fd\u9053\u4e8b\u52d9\u6240","boring_xml_url":40,"boring_view_url":1,"soilmap_view_url":null,"soiltest_xml_url":0,"soiltest_view_url":0},{"id":173248,"code":"B4KJ201801006-1497","latitude":"34.3346731","longitude":"135.6534839","source_code":"KK51353592005","project_name":"","survey_name":"\u6a4b\u672c\u9053\u8def\u5730\u8cea\u8abf\u67fb\u305d\u306e6\u4f5c\u696d","client_name":"\u56fd\u571f\u4ea4\u901a\u7701\u8fd1\u757f\u5730\u65b9\u6574\u5099\u5c40\u548c\u6b4c\u5c71\u6cb3\u5ddd\u56fd\u9053\u4e8b\u52d9\u6240","boring_xml_url":40,"boring_view_url":1,"soilmap_view_url":null,"soiltest_xml_url":0,"soiltest_view_url":0},{"id":173247,"code":"B4KJ201801006-1496","latitude":"34.3338119","longitude":"135.6530675","source_code":"KK51353592004","project_name":"","survey_name":"\u6a4b\u672c\u9053\u8def\u5730\u8cea\u8abf\u67fb\u305d\u306e6\u4f5c\u696d","client_name":"\u56fd\u571f\u4ea4\u901a\u7701\u8fd1\u757f\u5730\u65b9\u6574\u5099\u5c40\u548c\u6b4c\u5c71\u6cb3\u5ddd\u56fd\u9053\u4e8b\u52d9\u6240","boring_xml_url":40,"boring_view_url":1,"soilmap_view_url":null,"soiltest_xml_url":0,"soiltest_view_url":0},{"id":173246,"code":"B4KJ201801006-1495","latitude":"34.3348675","longitude":"135.6484289","source_code":"KK51353592003","project_name":"","survey_name":"\u6a4b\u672c\u9053\u8def\u5730\u8cea\u8abf\u67fb\u305d\u306e6\u4f5c\u696d","client_name":"\u56fd\u571f\u4ea4\u901a\u7701\u8fd1\u757f\u5730\u65b9\u6574\u5099\u5c40\u548c\u6b4c\u5c71\u6cb3\u5ddd\u56fd\u9053\u4e8b\u52d9\u6240","boring_xml_url":40,"boring_view_url":1,"soilmap_view_url":null,"soiltest_xml_url":0,"soiltest_view_url":0}]}}