{"header":{"xyz":{"source":[],"mosaic":false},"page":4916,"raw":{"soiltest_result":"0","bbox":"57.598333,109.544722,1.933333,163.806111","page":"4916"},"conditions":{"soiltest_result":0,"north":57.598333,"west":109.544722,"south":1.933333,"east":163.806111},"success":true,"message":""},"data":{"meta":{"total":212844,"page":4916,"pages":7095,"count":30},"values":[{"id":173095,"code":"B4KJ201801006-1344","latitude":"34.3159511","longitude":"135.5677419","source_code":"KK51353475058","project_name":"","survey_name":"\u6a4b\u672c\u9053\u8def\u5927\u91ce\u4ed62\u5730\u533a\u5730\u8cea\u8abf\u67fb\u696d\u52d9","client_name":"\u56fd\u571f\u4ea4\u901a\u7701\u8fd1\u757f\u5730\u65b9\u6574\u5099\u5c40\u548c\u6b4c\u5c71\u6cb3\u5ddd\u56fd\u9053\u4e8b\u52d9\u6240","boring_xml_url":40,"boring_view_url":1,"soilmap_view_url":null,"soiltest_xml_url":0,"soiltest_view_url":0},{"id":173094,"code":"B4KJ201801006-1343","latitude":"34.3163397","longitude":"135.5675753","source_code":"KK51353475057","project_name":"","survey_name":"\u6a4b\u672c\u9053\u8def\u5927\u91ce\u4ed62\u5730\u533a\u5730\u8cea\u8abf\u67fb\u696d\u52d9","client_name":"\u56fd\u571f\u4ea4\u901a\u7701\u8fd1\u757f\u5730\u65b9\u6574\u5099\u5c40\u548c\u6b4c\u5c71\u6cb3\u5ddd\u56fd\u9053\u4e8b\u52d9\u6240","boring_xml_url":40,"boring_view_url":1,"soilmap_view_url":null,"soiltest_xml_url":0,"soiltest_view_url":0},{"id":173093,"code":"B4KJ201801006-1342","latitude":"34.3145067","longitude":"135.5687697","source_code":"KK51353475056","project_name":"","survey_name":"\u6a4b\u672c\u9053\u8def\u5927\u91ce\u4ed62\u5730\u533a\u5730\u8cea\u8abf\u67fb\u696d\u52d9","client_name":"\u56fd\u571f\u4ea4\u901a\u7701\u8fd1\u757f\u5730\u65b9\u6574\u5099\u5c40\u548c\u6b4c\u5c71\u6cb3\u5ddd\u56fd\u9053\u4e8b\u52d9\u6240","boring_xml_url":40,"boring_view_url":1,"soilmap_view_url":null,"soiltest_xml_url":0,"soiltest_view_url":0},{"id":173092,"code":"B4KJ201801006-1341","latitude":"34.3146456","longitude":"135.5683808","source_code":"KK51353475055","project_name":"","survey_name":"\u6a4b\u672c\u9053\u8def\u5927\u91ce\u4ed62\u5730\u533a\u5730\u8cea\u8abf\u67fb\u696d\u52d9","client_name":"\u56fd\u571f\u4ea4\u901a\u7701\u8fd1\u757f\u5730\u65b9\u6574\u5099\u5c40\u548c\u6b4c\u5c71\u6cb3\u5ddd\u56fd\u9053\u4e8b\u52d9\u6240","boring_xml_url":40,"boring_view_url":1,"soilmap_view_url":null,"soiltest_xml_url":0,"soiltest_view_url":0},{"id":173091,"code":"B4KJ201801006-1340","latitude":"34.3148678","longitude":"135.5679089","source_code":"KK51353475054","project_name":"","survey_name":"\u6a4b\u672c\u9053\u8def\u5927\u91ce\u4ed62\u5730\u533a\u5730\u8cea\u8abf\u67fb\u696d\u52d9","client_name":"\u56fd\u571f\u4ea4\u901a\u7701\u8fd1\u757f\u5730\u65b9\u6574\u5099\u5c40\u548c\u6b4c\u5c71\u6cb3\u5ddd\u56fd\u9053\u4e8b\u52d9\u6240","boring_xml_url":40,"boring_view_url":1,"soilmap_view_url":null,"soiltest_xml_url":0,"soiltest_view_url":0},{"id":173090,"code":"B4KJ201801006-1339","latitude":"34.3136458","longitude":"135.5679367","source_code":"KK51353475053","project_name":"","survey_name":"\u6a4b\u672c\u9053\u8def\u5927\u91ce\u4ed62\u5730\u533a\u5730\u8cea\u8abf\u67fb\u696d\u52d9","client_name":"\u56fd\u571f\u4ea4\u901a\u7701\u8fd1\u757f\u5730\u65b9\u6574\u5099\u5c40\u548c\u6b4c\u5c71\u6cb3\u5ddd\u56fd\u9053\u4e8b\u52d9\u6240","boring_xml_url":40,"boring_view_url":1,"soilmap_view_url":null,"soiltest_xml_url":0,"soiltest_view_url":0},{"id":173089,"code":"B4KJ201801006-1338","latitude":"34.3137292","longitude":"135.5689086","source_code":"KK51353475052","project_name":"","survey_name":"\u6a4b\u672c\u9053\u8def\u5927\u91ce\u4ed62\u5730\u533a\u5730\u8cea\u8abf\u67fb\u696d\u52d9","client_name":"\u56fd\u571f\u4ea4\u901a\u7701\u8fd1\u757f\u5730\u65b9\u6574\u5099\u5c40\u548c\u6b4c\u5c71\u6cb3\u5ddd\u56fd\u9053\u4e8b\u52d9\u6240","boring_xml_url":40,"boring_view_url":1,"soilmap_view_url":null,"soiltest_xml_url":0,"soiltest_view_url":0},{"id":173088,"code":"B4KJ201801006-1337","latitude":"34.3135347","longitude":"135.5684644","source_code":"KK51353475051","project_name":"","survey_name":"\u6a4b\u672c\u9053\u8def\u5927\u91ce\u4ed62\u5730\u533a\u5730\u8cea\u8abf\u67fb\u696d\u52d9","client_name":"\u56fd\u571f\u4ea4\u901a\u7701\u8fd1\u757f\u5730\u65b9\u6574\u5099\u5c40\u548c\u6b4c\u5c71\u6cb3\u5ddd\u56fd\u9053\u4e8b\u52d9\u6240","boring_xml_url":40,"boring_view_url":1,"soilmap_view_url":null,"soiltest_xml_url":0,"soiltest_view_url":0},{"id":173087,"code":"B4KJ201801006-1336","latitude":"34.3136181","longitude":"135.5684367","source_code":"KK51353475050","project_name":"","survey_name":"\u6a4b\u672c\u9053\u8def\u5927\u91ce\u4ed62\u5730\u533a\u5730\u8cea\u8abf\u67fb\u696d\u52d9","client_name":"\u56fd\u571f\u4ea4\u901a\u7701\u8fd1\u757f\u5730\u65b9\u6574\u5099\u5c40\u548c\u6b4c\u5c71\u6cb3\u5ddd\u56fd\u9053\u4e8b\u52d9\u6240","boring_xml_url":40,"boring_view_url":1,"soilmap_view_url":null,"soiltest_xml_url":0,"soiltest_view_url":0},{"id":173086,"code":"B4KJ201801006-1335","latitude":"34.3137014","longitude":"135.5684367","source_code":"KK51353475049","project_name":"","survey_name":"\u6a4b\u672c\u9053\u8def\u5927\u91ce\u4ed62\u5730\u533a\u5730\u8cea\u8abf\u67fb\u696d\u52d9","client_name":"\u56fd\u571f\u4ea4\u901a\u7701\u8fd1\u757f\u5730\u65b9\u6574\u5099\u5c40\u548c\u6b4c\u5c71\u6cb3\u5ddd\u56fd\u9053\u4e8b\u52d9\u6240","boring_xml_url":40,"boring_view_url":1,"soilmap_view_url":null,"soiltest_xml_url":0,"soiltest_view_url":0},{"id":173085,"code":"B4KJ201801006-1334","latitude":"34.3132289","longitude":"135.5634647","source_code":"KK51353475043","project_name":"","survey_name":"\u6a4b\u672c\u9053\u8def\u5fdc\u5176\uff5e\u5927\u91ce\u5730\u533a\u5730\u8cea\u8abf\u67fb\u4f5c\u696d","client_name":"\u56fd\u571f\u4ea4\u901a\u7701\u8fd1\u757f\u5730\u65b9\u6574\u5099\u5c40\u548c\u6b4c\u5c71\u6cb3\u5ddd\u56fd\u9053\u4e8b\u52d9\u6240","boring_xml_url":40,"boring_view_url":1,"soilmap_view_url":null,"soiltest_xml_url":0,"soiltest_view_url":0},{"id":173084,"code":"B4KJ201801006-1333","latitude":"34.31509","longitude":"135.5683808","source_code":"KK51353475042","project_name":"","survey_name":"\u6a4b\u672c\u9053\u8def\u5fdc\u5176\uff5e\u5927\u91ce\u5730\u533a\u5730\u8cea\u8abf\u67fb\u4f5c\u696d","client_name":"\u56fd\u571f\u4ea4\u901a\u7701\u8fd1\u757f\u5730\u65b9\u6574\u5099\u5c40\u548c\u6b4c\u5c71\u6cb3\u5ddd\u56fd\u9053\u4e8b\u52d9\u6240","boring_xml_url":40,"boring_view_url":1,"soilmap_view_url":null,"soiltest_xml_url":0,"soiltest_view_url":0},{"id":173083,"code":"B4KJ201801006-1332","latitude":"34.3141456","longitude":"135.5656867","source_code":"KK51353475041","project_name":"","survey_name":"\u6a4b\u672c\u9053\u8def\u5fdc\u5176\uff5e\u5927\u91ce\u5730\u533a\u5730\u8cea\u8abf\u67fb\u4f5c\u696d","client_name":"\u56fd\u571f\u4ea4\u901a\u7701\u8fd1\u757f\u5730\u65b9\u6574\u5099\u5c40\u548c\u6b4c\u5c71\u6cb3\u5ddd\u56fd\u9053\u4e8b\u52d9\u6240","boring_xml_url":40,"boring_view_url":1,"soilmap_view_url":null,"soiltest_xml_url":0,"soiltest_view_url":0},{"id":173082,"code":"B4KJ201801006-1331","latitude":"34.31259","longitude":"135.5602983","source_code":"KK51353475040","project_name":"","survey_name":"\u6a4b\u672c\u9053\u8def\u5fdc\u5176\uff5e\u5927\u91ce\u5730\u533a\u5730\u8cea\u8abf\u67fb\u4f5c\u696d","client_name":"\u56fd\u571f\u4ea4\u901a\u7701\u8fd1\u757f\u5730\u65b9\u6574\u5099\u5c40\u548c\u6b4c\u5c71\u6cb3\u5ddd\u56fd\u9053\u4e8b\u52d9\u6240","boring_xml_url":40,"boring_view_url":1,"soilmap_view_url":null,"soiltest_xml_url":0,"soiltest_view_url":0},{"id":173081,"code":"B4KJ201801006-1330","latitude":"34.3129233","longitude":"135.5613261","source_code":"KK51353475039","project_name":"","survey_name":"\u6a4b\u672c\u9053\u8def\u5fdc\u5176\uff5e\u5927\u91ce\u5730\u533a\u5730\u8cea\u8abf\u67fb\u4f5c\u696d","client_name":"\u56fd\u571f\u4ea4\u901a\u7701\u8fd1\u757f\u5730\u65b9\u6574\u5099\u5c40\u548c\u6b4c\u5c71\u6cb3\u5ddd\u56fd\u9053\u4e8b\u52d9\u6240","boring_xml_url":40,"boring_view_url":1,"soilmap_view_url":null,"soiltest_xml_url":0,"soiltest_view_url":0},{"id":173080,"code":"B4KJ201801006-1329","latitude":"34.3133122","longitude":"135.562215","source_code":"KK51353475038","project_name":"","survey_name":"\u6a4b\u672c\u9053\u8def\u5fdc\u5176\uff5e\u5927\u91ce\u5730\u533a\u5730\u8cea\u8abf\u67fb\u4f5c\u696d","client_name":"\u56fd\u571f\u4ea4\u901a\u7701\u8fd1\u757f\u5730\u65b9\u6574\u5099\u5c40\u548c\u6b4c\u5c71\u6cb3\u5ddd\u56fd\u9053\u4e8b\u52d9\u6240","boring_xml_url":40,"boring_view_url":1,"soilmap_view_url":null,"soiltest_xml_url":0,"soiltest_view_url":0},{"id":173079,"code":"B4KJ201801006-1328","latitude":"34.3135622","longitude":"135.5628814","source_code":"KK51353475037","project_name":"","survey_name":"\u6a4b\u672c\u9053\u8def\u5fdc\u5176\uff5e\u5927\u91ce\u5730\u533a\u5730\u8cea\u8abf\u67fb\u4f5c\u696d","client_name":"\u56fd\u571f\u4ea4\u901a\u7701\u8fd1\u757f\u5730\u65b9\u6574\u5099\u5c40\u548c\u6b4c\u5c71\u6cb3\u5ddd\u56fd\u9053\u4e8b\u52d9\u6240","boring_xml_url":40,"boring_view_url":1,"soilmap_view_url":null,"soiltest_xml_url":0,"soiltest_view_url":0},{"id":173078,"code":"B4KJ201801006-1327","latitude":"34.3149511","longitude":"135.5682975","source_code":"KK51353475036","project_name":"","survey_name":"\u6a4b\u672c\u9053\u8def\u897f\u90e8\u533a\u9593\u5730\u8cea\u8abf\u67fb\u4f5c\u696d","client_name":"\u56fd\u571f\u4ea4\u901a\u7701\u8fd1\u757f\u5730\u65b9\u6574\u5099\u5c40\u548c\u6b4c\u5c71\u6cb3\u5ddd\u56fd\u9053\u4e8b\u52d9\u6240","boring_xml_url":40,"boring_view_url":1,"soilmap_view_url":null,"soiltest_xml_url":0,"soiltest_view_url":0},{"id":173077,"code":"B4KJ201801006-1326","latitude":"34.3162289","longitude":"135.5711028","source_code":"KK51353475035","project_name":"","survey_name":"\u6a4b\u672c\u9053\u8def\u5fdc\u5176\uff5e\u5927\u91ce\u5730\u533a\u5730\u8cea\u8abf\u67fb\u4f5c\u696d","client_name":"\u56fd\u571f\u4ea4\u901a\u7701\u8fd1\u757f\u5730\u65b9\u6574\u5099\u5c40\u548c\u6b4c\u5c71\u6cb3\u5ddd\u56fd\u9053\u4e8b\u52d9\u6240","boring_xml_url":40,"boring_view_url":1,"soilmap_view_url":null,"soiltest_xml_url":0,"soiltest_view_url":0},{"id":173076,"code":"B4KJ201801006-1325","latitude":"34.3167567","longitude":"135.5706583","source_code":"KK51353475034","project_name":"","survey_name":"\u6a4b\u672c\u9053\u8def\u897f\u90e8\u533a\u9593\u5730\u8cea\u8abf\u67fb\u4f5c\u696d","client_name":"\u56fd\u571f\u4ea4\u901a\u7701\u8fd1\u757f\u5730\u65b9\u6574\u5099\u5c40\u548c\u6b4c\u5c71\u6cb3\u5ddd\u56fd\u9053\u4e8b\u52d9\u6240","boring_xml_url":40,"boring_view_url":1,"soilmap_view_url":null,"soiltest_xml_url":0,"soiltest_view_url":0},{"id":173075,"code":"B4KJ201801006-1324","latitude":"34.31634","longitude":"135.5719083","source_code":"KK51353475009","project_name":"","survey_name":"\u6a4b\u672c\u9053\u8def\u5730\u8cea\u8abf\u67fb\u305d\u306e4","client_name":"\u56fd\u571f\u4ea4\u901a\u7701\u8fd1\u757f\u5730\u65b9\u6574\u5099\u5c40\u548c\u6b4c\u5c71\u6cb3\u5ddd\u56fd\u9053\u4e8b\u52d9\u6240","boring_xml_url":40,"boring_view_url":1,"soilmap_view_url":null,"soiltest_xml_url":0,"soiltest_view_url":0},{"id":173074,"code":"B4KJ201801006-1323","latitude":"34.3160622","longitude":"135.5699642","source_code":"KK51353475008","project_name":"","survey_name":"\u6a4b\u672c\u9053\u8def\u5730\u8cea\u8abf\u67fb\u305d\u306e4","client_name":"\u56fd\u571f\u4ea4\u901a\u7701\u8fd1\u757f\u5730\u65b9\u6574\u5099\u5c40\u548c\u6b4c\u5c71\u6cb3\u5ddd\u56fd\u9053\u4e8b\u52d9\u6240","boring_xml_url":40,"boring_view_url":1,"soilmap_view_url":null,"soiltest_xml_url":0,"soiltest_view_url":0},{"id":173073,"code":"B4KJ201801006-1322","latitude":"34.3155067","longitude":"135.5694086","source_code":"KK51353475007","project_name":"","survey_name":"\u6a4b\u672c\u9053\u8def\u5730\u8cea\u8abf\u67fb\u305d\u306e4","client_name":"\u56fd\u571f\u4ea4\u901a\u7701\u8fd1\u757f\u5730\u65b9\u6574\u5099\u5c40\u548c\u6b4c\u5c71\u6cb3\u5ddd\u56fd\u9053\u4e8b\u52d9\u6240","boring_xml_url":40,"boring_view_url":1,"soilmap_view_url":null,"soiltest_xml_url":0,"soiltest_view_url":0},{"id":173072,"code":"B4KJ201801006-1321","latitude":"34.3152289","longitude":"135.5688531","source_code":"KK51353475006","project_name":"","survey_name":"\u6a4b\u672c\u9053\u8def\u5730\u8cea\u8abf\u67fb\u305d\u306e4","client_name":"\u56fd\u571f\u4ea4\u901a\u7701\u8fd1\u757f\u5730\u65b9\u6574\u5099\u5c40\u548c\u6b4c\u5c71\u6cb3\u5ddd\u56fd\u9053\u4e8b\u52d9\u6240","boring_xml_url":40,"boring_view_url":1,"soilmap_view_url":null,"soiltest_xml_url":0,"soiltest_view_url":0},{"id":173071,"code":"B4KJ201801006-1320","latitude":"34.3152289","longitude":"135.5671867","source_code":"KK51353475005","project_name":"","survey_name":"\u6a4b\u672c\u9053\u8def\u5730\u8cea\u8abf\u67fb\u305d\u306e4","client_name":"\u56fd\u571f\u4ea4\u901a\u7701\u8fd1\u757f\u5730\u65b9\u6574\u5099\u5c40\u548c\u6b4c\u5c71\u6cb3\u5ddd\u56fd\u9053\u4e8b\u52d9\u6240","boring_xml_url":40,"boring_view_url":1,"soilmap_view_url":null,"soiltest_xml_url":0,"soiltest_view_url":0},{"id":173070,"code":"B4KJ201801006-1319","latitude":"34.3152289","longitude":"135.5660756","source_code":"KK51353475004","project_name":"","survey_name":"\u6a4b\u672c\u9053\u8def\u5730\u8cea\u8abf\u67fb\u305d\u306e4","client_name":"\u56fd\u571f\u4ea4\u901a\u7701\u8fd1\u757f\u5730\u65b9\u6574\u5099\u5c40\u548c\u6b4c\u5c71\u6cb3\u5ddd\u56fd\u9053\u4e8b\u52d9\u6240","boring_xml_url":40,"boring_view_url":1,"soilmap_view_url":null,"soiltest_xml_url":0,"soiltest_view_url":0},{"id":173069,"code":"B4KJ201801006-1318","latitude":"34.3149511","longitude":"135.5660756","source_code":"KK51353475003","project_name":"","survey_name":"\u6a4b\u672c\u9053\u8def\u5730\u8cea\u8abf\u67fb\u305d\u306e4","client_name":"\u56fd\u571f\u4ea4\u901a\u7701\u8fd1\u757f\u5730\u65b9\u6574\u5099\u5c40\u548c\u6b4c\u5c71\u6cb3\u5ddd\u56fd\u9053\u4e8b\u52d9\u6240","boring_xml_url":40,"boring_view_url":1,"soilmap_view_url":null,"soiltest_xml_url":0,"soiltest_view_url":0},{"id":173068,"code":"B4KJ201801006-1317","latitude":"34.315228","longitude":"135.565242","source_code":"KK51353475002","project_name":"","survey_name":"\u6a4b\u672c\u9053\u8def\u5730\u8cea\u8abf\u67fb\u305d\u306e4","client_name":"\u56fd\u571f\u4ea4\u901a\u7701\u8fd1\u757f\u5730\u65b9\u6574\u5099\u5c40\u548c\u6b4c\u5c71\u6cb3\u5ddd\u56fd\u9053\u4e8b\u52d9\u6240","boring_xml_url":40,"boring_view_url":1,"soilmap_view_url":null,"soiltest_xml_url":0,"soiltest_view_url":0},{"id":173067,"code":"B4KJ201801006-1316","latitude":"34.3149511","longitude":"135.5652422","source_code":"KK51353475001","project_name":"","survey_name":"\u6a4b\u672c\u9053\u8def\u5730\u8cea\u8abf\u67fb\u305d\u306e4","client_name":"\u56fd\u571f\u4ea4\u901a\u7701\u8fd1\u757f\u5730\u65b9\u6574\u5099\u5c40\u548c\u6b4c\u5c71\u6cb3\u5ddd\u56fd\u9053\u4e8b\u52d9\u6240","boring_xml_url":40,"boring_view_url":1,"soilmap_view_url":null,"soiltest_xml_url":0,"soiltest_view_url":0},{"id":173066,"code":"B4KJ201801006-1315","latitude":"34.3119789","longitude":"135.5582986","source_code":"KK51353474045","project_name":"","survey_name":"\u6a4b\u672c\u9053\u8def\u5fdc\u5176\uff5e\u5927\u91ce\u5730\u533a\u5730\u8cea\u8abf\u67fb\u4f5c\u696d","client_name":"\u56fd\u571f\u4ea4\u901a\u7701\u8fd1\u757f\u5730\u65b9\u6574\u5099\u5c40\u548c\u6b4c\u5c71\u6cb3\u5ddd\u56fd\u9053\u4e8b\u52d9\u6240","boring_xml_url":40,"boring_view_url":1,"soilmap_view_url":null,"soiltest_xml_url":0,"soiltest_view_url":0}]}}