{"header":{"xyz":{"source":[],"mosaic":false},"page":4918,"raw":{"soiltest_result":"0","bbox":"57.598333,109.544722,1.933333,163.806111","page":"4918"},"conditions":{"soiltest_result":0,"north":57.598333,"west":109.544722,"south":1.933333,"east":163.806111},"success":true,"message":""},"data":{"meta":{"total":212844,"page":4918,"pages":7095,"count":30},"values":[{"id":173035,"code":"B4KJ201801006-1284","latitude":"34.3098136","longitude":"135.6077944","source_code":"KK51353468004","project_name":"","survey_name":"\u5411\u526f\u5730\u533a\u4ed62\u4ef6\u571f\u8cea\u8abf\u67fb\u4f5c\u696d","client_name":"\u56fd\u571f\u4ea4\u901a\u7701\u8fd1\u757f\u5730\u65b9\u6574\u5099\u5c40\u548c\u6b4c\u5c71\u6cb3\u5ddd\u56fd\u9053\u4e8b\u52d9\u6240","boring_xml_url":40,"boring_view_url":1,"soilmap_view_url":null,"soiltest_xml_url":0,"soiltest_view_url":0},{"id":173034,"code":"B4KJ201801006-1283","latitude":"34.3100914","longitude":"135.6077944","source_code":"KK51353468003","project_name":"","survey_name":"\u5411\u526f\u5730\u533a\u4ed62\u4ef6\u571f\u8cea\u8abf\u67fb\u4f5c\u696d","client_name":"\u56fd\u571f\u4ea4\u901a\u7701\u8fd1\u757f\u5730\u65b9\u6574\u5099\u5c40\u548c\u6b4c\u5c71\u6cb3\u5ddd\u56fd\u9053\u4e8b\u52d9\u6240","boring_xml_url":40,"boring_view_url":1,"soilmap_view_url":null,"soiltest_xml_url":0,"soiltest_view_url":0},{"id":173033,"code":"B4KJ201801006-1282","latitude":"34.3087858","longitude":"135.6028503","source_code":"KK51353468002","project_name":"","survey_name":"\u5411\u526f\u5730\u533a\u4ed62\u4ef6\u571f\u8cea\u8abf\u67fb\u4f5c\u696d","client_name":"\u56fd\u571f\u4ea4\u901a\u7701\u8fd1\u757f\u5730\u65b9\u6574\u5099\u5c40\u548c\u6b4c\u5c71\u6cb3\u5ddd\u56fd\u9053\u4e8b\u52d9\u6240","boring_xml_url":40,"boring_view_url":1,"soilmap_view_url":null,"soiltest_xml_url":0,"soiltest_view_url":0},{"id":173032,"code":"B4KJ201801006-1281","latitude":"34.3085639","longitude":"135.6029058","source_code":"KK51353468001","project_name":"","survey_name":"\u5411\u526f\u5730\u533a\u4ed62\u4ef6\u571f\u8cea\u8abf\u67fb\u4f5c\u696d","client_name":"\u56fd\u571f\u4ea4\u901a\u7701\u8fd1\u757f\u5730\u65b9\u6574\u5099\u5c40\u548c\u6b4c\u5c71\u6cb3\u5ddd\u56fd\u9053\u4e8b\u52d9\u6240","boring_xml_url":40,"boring_view_url":1,"soilmap_view_url":null,"soiltest_xml_url":0,"soiltest_view_url":0},{"id":173031,"code":"B4KJ201801006-1280","latitude":"34.3043972","longitude":"135.5871853","source_code":"KK51353467005","project_name":"","survey_name":"\u5357\u99ac\u5834\u7bc9\u5824\u53ca\u3073\u6a0b\u7ba1\u8a73\u7d30\u8a2d\u8a08\u696d\u52d9","client_name":"\u56fd\u571f\u4ea4\u901a\u7701\u8fd1\u757f\u5730\u65b9\u6574\u5099\u5c40\u548c\u6b4c\u5c71\u6cb3\u5ddd\u56fd\u9053\u4e8b\u52d9\u6240","boring_xml_url":40,"boring_view_url":1,"soilmap_view_url":null,"soiltest_xml_url":0,"soiltest_view_url":0},{"id":173030,"code":"B4KJ201801006-1279","latitude":"34.3107022","longitude":"135.5951008","source_code":"KK51353467004","project_name":"","survey_name":"\u662d\u548c62\u5e74\u5ea6\u7d00\u306e\u5ddd\u571f\u8cea\u8abf\u67fb\u4f5c\u696d","client_name":"\u56fd\u571f\u4ea4\u901a\u7701\u8fd1\u757f\u5730\u65b9\u6574\u5099\u5c40\u548c\u6b4c\u5c71\u6cb3\u5ddd\u56fd\u9053\u4e8b\u52d9\u6240","boring_xml_url":40,"boring_view_url":1,"soilmap_view_url":null,"soiltest_xml_url":0,"soiltest_view_url":0},{"id":173029,"code":"B4KJ201801006-1278","latitude":"34.3105911","longitude":"135.5951011","source_code":"KK51353467003","project_name":"","survey_name":"\u662d\u548c62\u5e74\u5ea6\u7d00\u306e\u5ddd\u571f\u8cea\u8abf\u67fb\u4f5c\u696d","client_name":"\u56fd\u571f\u4ea4\u901a\u7701\u8fd1\u757f\u5730\u65b9\u6574\u5099\u5c40\u548c\u6b4c\u5c71\u6cb3\u5ddd\u56fd\u9053\u4e8b\u52d9\u6240","boring_xml_url":40,"boring_view_url":1,"soilmap_view_url":null,"soiltest_xml_url":0,"soiltest_view_url":0},{"id":173028,"code":"B4KJ201801006-1277","latitude":"34.3074525","longitude":"135.5909347","source_code":"KK51353467002","project_name":"","survey_name":"\u7d00\u306e\u5ddd\u571f\u8cea\u8abf\u67fb\u8cc7\u6599\u691c\u8a0e\u696d\u52d9","client_name":"\u56fd\u571f\u4ea4\u901a\u7701\u8fd1\u757f\u5730\u65b9\u6574\u5099\u5c40\u548c\u6b4c\u5c71\u6cb3\u5ddd\u56fd\u9053\u4e8b\u52d9\u6240","boring_xml_url":40,"boring_view_url":1,"soilmap_view_url":null,"soiltest_xml_url":0,"soiltest_view_url":0},{"id":173027,"code":"B4KJ201801006-1276","latitude":"34.3043139","longitude":"135.5841856","source_code":"KK51353466001","project_name":"","survey_name":"\u7d00\u306e\u5ddd\u571f\u8cea\u8abf\u67fb\u8cc7\u6599\u691c\u8a0e\u696d\u52d9","client_name":"\u56fd\u571f\u4ea4\u901a\u7701\u8fd1\u757f\u5730\u65b9\u6574\u5099\u5c40\u548c\u6b4c\u5c71\u6cb3\u5ddd\u56fd\u9053\u4e8b\u52d9\u6240","boring_xml_url":40,"boring_view_url":1,"soilmap_view_url":null,"soiltest_xml_url":0,"soiltest_view_url":0},{"id":173026,"code":"B4KJ201801006-1275","latitude":"34.3110067","longitude":"135.54305","source_code":"KK51353463023","project_name":"","survey_name":"\u6a4b\u672c\u9053\u8def\u5fdc\u5176\uff5e\u5927\u91ce\u5730\u533a\u5730\u8cea\u8abf\u67fb\u4f5c\u696d","client_name":"\u56fd\u571f\u4ea4\u901a\u7701\u8fd1\u757f\u5730\u65b9\u6574\u5099\u5c40\u548c\u6b4c\u5c71\u6cb3\u5ddd\u56fd\u9053\u4e8b\u52d9\u6240","boring_xml_url":40,"boring_view_url":1,"soilmap_view_url":null,"soiltest_xml_url":0,"soiltest_view_url":0},{"id":173025,"code":"B4KJ201801006-1274","latitude":"34.3112011","longitude":"135.5436611","source_code":"KK51353463022","project_name":"","survey_name":"\u6a4b\u672c\u9053\u8def\u5fdc\u5176\uff5e\u5927\u91ce\u5730\u533a\u5730\u8cea\u8abf\u67fb\u4f5c\u696d","client_name":"\u56fd\u571f\u4ea4\u901a\u7701\u8fd1\u757f\u5730\u65b9\u6574\u5099\u5c40\u548c\u6b4c\u5c71\u6cb3\u5ddd\u56fd\u9053\u4e8b\u52d9\u6240","boring_xml_url":40,"boring_view_url":1,"soilmap_view_url":null,"soiltest_xml_url":0,"soiltest_view_url":0},{"id":173024,"code":"B4KJ201801006-1273","latitude":"34.3115622","longitude":"135.5450497","source_code":"KK51353463021","project_name":"","survey_name":"\u6a4b\u672c\u9053\u8def\u5fdc\u5176\uff5e\u5927\u91ce\u5730\u533a\u5730\u8cea\u8abf\u67fb\u4f5c\u696d","client_name":"\u56fd\u571f\u4ea4\u901a\u7701\u8fd1\u757f\u5730\u65b9\u6574\u5099\u5c40\u548c\u6b4c\u5c71\u6cb3\u5ddd\u56fd\u9053\u4e8b\u52d9\u6240","boring_xml_url":40,"boring_view_url":1,"soilmap_view_url":null,"soiltest_xml_url":0,"soiltest_view_url":0},{"id":173023,"code":"B4KJ201801006-1272","latitude":"34.3114789","longitude":"135.5444386","source_code":"KK51353463010","project_name":"","survey_name":"\u6a4b\u672c\u9053\u8def\u5730\u8cea\u8abf\u67fb\u305d\u306e5\u4f5c\u696d","client_name":"\u56fd\u571f\u4ea4\u901a\u7701\u8fd1\u757f\u5730\u65b9\u6574\u5099\u5c40\u548c\u6b4c\u5c71\u6cb3\u5ddd\u56fd\u9053\u4e8b\u52d9\u6240","boring_xml_url":40,"boring_view_url":1,"soilmap_view_url":null,"soiltest_xml_url":0,"soiltest_view_url":0},{"id":173022,"code":"B4KJ201801006-1271","latitude":"34.3058683","longitude":"135.5409392","source_code":"KK51353463009","project_name":"","survey_name":"\u7d00\u306e\u5ddd\u571f\u8cea\u8abf\u67fb\u8cc7\u6599\u691c\u8a0e\u696d\u52d9","client_name":"\u56fd\u571f\u4ea4\u901a\u7701\u8fd1\u757f\u5730\u65b9\u6574\u5099\u5c40\u548c\u6b4c\u5c71\u6cb3\u5ddd\u56fd\u9053\u4e8b\u52d9\u6240","boring_xml_url":40,"boring_view_url":1,"soilmap_view_url":null,"soiltest_xml_url":0,"soiltest_view_url":0},{"id":173021,"code":"B4KJ201801006-1270","latitude":"34.3055347","longitude":"135.5372728","source_code":"KK51353463004","project_name":"","survey_name":"\u7d00\u306e\u5ddd\u571f\u8cea\u8abf\u67fb\u8cc7\u6599\u691c\u8a0e\u696d\u52d9","client_name":"\u56fd\u571f\u4ea4\u901a\u7701\u8fd1\u757f\u5730\u65b9\u6574\u5099\u5c40\u548c\u6b4c\u5c71\u6cb3\u5ddd\u56fd\u9053\u4e8b\u52d9\u6240","boring_xml_url":40,"boring_view_url":1,"soilmap_view_url":null,"soiltest_xml_url":0,"soiltest_view_url":0},{"id":173020,"code":"B4KJ201801006-1269","latitude":"34.3050628","longitude":"135.5421892","source_code":"KK51353463003","project_name":"","survey_name":"\u7d00\u306e\u5ddd\u571f\u8cea\u8abf\u67fb\u8cc7\u6599\u691c\u8a0e\u696d\u52d9","client_name":"\u56fd\u571f\u4ea4\u901a\u7701\u8fd1\u757f\u5730\u65b9\u6574\u5099\u5c40\u548c\u6b4c\u5c71\u6cb3\u5ddd\u56fd\u9053\u4e8b\u52d9\u6240","boring_xml_url":40,"boring_view_url":1,"soilmap_view_url":null,"soiltest_xml_url":0,"soiltest_view_url":0},{"id":173019,"code":"B4KJ201801006-1268","latitude":"34.305285","longitude":"135.5391339","source_code":"KK51353463002","project_name":"","survey_name":"\u7d00\u306e\u5ddd\u571f\u8cea\u8abf\u67fb\u8cc7\u6599\u691c\u8a0e\u696d\u52d9","client_name":"\u56fd\u571f\u4ea4\u901a\u7701\u8fd1\u757f\u5730\u65b9\u6574\u5099\u5c40\u548c\u6b4c\u5c71\u6cb3\u5ddd\u56fd\u9053\u4e8b\u52d9\u6240","boring_xml_url":40,"boring_view_url":1,"soilmap_view_url":null,"soiltest_xml_url":0,"soiltest_view_url":0},{"id":173018,"code":"B4KJ201801006-1267","latitude":"34.3044239","longitude":"135.5370506","source_code":"KK51353463001","project_name":"","survey_name":"\u7d00\u306e\u5ddd\u571f\u8cea\u8abf\u67fb\u8cc7\u6599\u691c\u8a0e\u696d\u52d9","client_name":"\u56fd\u571f\u4ea4\u901a\u7701\u8fd1\u757f\u5730\u65b9\u6574\u5099\u5c40\u548c\u6b4c\u5c71\u6cb3\u5ddd\u56fd\u9053\u4e8b\u52d9\u6240","boring_xml_url":40,"boring_view_url":1,"soilmap_view_url":null,"soiltest_xml_url":0,"soiltest_view_url":0},{"id":173017,"code":"B4KJ201801006-1266","latitude":"34.2991197","longitude":"135.5784361","source_code":"KK51353456007","project_name":"","survey_name":"\u7d00\u306e\u5ddd\u571f\u8cea\u8abf\u67fb\u8cc7\u6599\u691c\u8a0e\u696d\u52d9","client_name":"\u56fd\u571f\u4ea4\u901a\u7701\u8fd1\u757f\u5730\u65b9\u6574\u5099\u5c40\u548c\u6b4c\u5c71\u6cb3\u5ddd\u56fd\u9053\u4e8b\u52d9\u6240","boring_xml_url":40,"boring_view_url":1,"soilmap_view_url":null,"soiltest_xml_url":0,"soiltest_view_url":0},{"id":173016,"code":"B4KJ201801006-1265","latitude":"34.304972","longitude":"135.584117","source_code":"KK51353456006","project_name":"","survey_name":"\u7d00\u30ce\u5ddd\u571f\u8cea\u8abf\u67fb\u696d\u52d9\u305d\u306e1","client_name":"\u56fd\u571f\u4ea4\u901a\u7701\u8fd1\u757f\u5730\u65b9\u6574\u5099\u5c40\u548c\u6b4c\u5c71\u6cb3\u5ddd\u56fd\u9053\u4e8b\u52d9\u6240","boring_xml_url":40,"boring_view_url":1,"soilmap_view_url":null,"soiltest_xml_url":0,"soiltest_view_url":0},{"id":173015,"code":"B4KJ201801006-1264","latitude":"34.301397","longitude":"135.582936","source_code":"KK51353456005","project_name":"","survey_name":"\u7d00\u30ce\u5ddd\u571f\u8cea\u8abf\u67fb\u696d\u52d9\u305d\u306e1","client_name":"\u56fd\u571f\u4ea4\u901a\u7701\u8fd1\u757f\u5730\u65b9\u6574\u5099\u5c40\u548c\u6b4c\u5c71\u6cb3\u5ddd\u56fd\u9053\u4e8b\u52d9\u6240","boring_xml_url":40,"boring_view_url":1,"soilmap_view_url":null,"soiltest_xml_url":0,"soiltest_view_url":0},{"id":173014,"code":"B4KJ201801006-1263","latitude":"34.2980922","longitude":"135.5839358","source_code":"KK51353456004","project_name":"","survey_name":"\u7d00\u306e\u5ddd\u571f\u8cea\u8abf\u67fb\u8cc7\u6599\u691c\u8a0e\u696d\u52d9","client_name":"\u56fd\u571f\u4ea4\u901a\u7701\u8fd1\u757f\u5730\u65b9\u6574\u5099\u5c40\u548c\u6b4c\u5c71\u6cb3\u5ddd\u56fd\u9053\u4e8b\u52d9\u6240","boring_xml_url":40,"boring_view_url":1,"soilmap_view_url":null,"soiltest_xml_url":0,"soiltest_view_url":0},{"id":173013,"code":"B4KJ201801006-1262","latitude":"34.300397","longitude":"135.581075","source_code":"KK51353456003","project_name":"","survey_name":"\u7d00\u30ce\u5ddd\u571f\u8cea\u8abf\u67fb\u696d\u52d9\u305d\u306e1","client_name":"\u56fd\u571f\u4ea4\u901a\u7701\u8fd1\u757f\u5730\u65b9\u6574\u5099\u5c40\u548c\u6b4c\u5c71\u6cb3\u5ddd\u56fd\u9053\u4e8b\u52d9\u6240","boring_xml_url":40,"boring_view_url":1,"soilmap_view_url":null,"soiltest_xml_url":0,"soiltest_view_url":0},{"id":173012,"code":"B4KJ201801006-1261","latitude":"34.2990919","longitude":"135.5777417","source_code":"KK51353456001","project_name":"","survey_name":"\u7d00\u306e\u5ddd\u571f\u8cea\u8abf\u67fb\u8cc7\u6599\u691c\u8a0e\u696d\u52d9","client_name":"\u56fd\u571f\u4ea4\u901a\u7701\u8fd1\u757f\u5730\u65b9\u6574\u5099\u5c40\u548c\u6b4c\u5c71\u6cb3\u5ddd\u56fd\u9053\u4e8b\u52d9\u6240","boring_xml_url":40,"boring_view_url":1,"soilmap_view_url":null,"soiltest_xml_url":0,"soiltest_view_url":0},{"id":173011,"code":"B4KJ201801006-1260","latitude":"34.3006194","longitude":"135.5707144","source_code":"KK51353455007","project_name":"","survey_name":"\u7d00\u306e\u5ddd\u571f\u8cea\u8abf\u67fb\u8cc7\u6599\u691c\u8a0e\u696d\u52d9","client_name":"\u56fd\u571f\u4ea4\u901a\u7701\u8fd1\u757f\u5730\u65b9\u6574\u5099\u5c40\u548c\u6b4c\u5c71\u6cb3\u5ddd\u56fd\u9053\u4e8b\u52d9\u6240","boring_xml_url":40,"boring_view_url":1,"soilmap_view_url":null,"soiltest_xml_url":0,"soiltest_view_url":0},{"id":173010,"code":"B4KJ201801006-1259","latitude":"34.2994528","longitude":"135.5663539","source_code":"KK51353455004","project_name":"","survey_name":"\u7d00\u306e\u5ddd\u571f\u8cea\u8abf\u67fb\u8cc7\u6599\u691c\u8a0e\u696d\u52d9","client_name":"\u56fd\u571f\u4ea4\u901a\u7701\u8fd1\u757f\u5730\u65b9\u6574\u5099\u5c40\u548c\u6b4c\u5c71\u6cb3\u5ddd\u56fd\u9053\u4e8b\u52d9\u6240","boring_xml_url":40,"boring_view_url":1,"soilmap_view_url":null,"soiltest_xml_url":0,"soiltest_view_url":0},{"id":173009,"code":"B4KJ201801006-1258","latitude":"34.299531","longitude":"135.578661","source_code":"KK51353455003","project_name":"","survey_name":"\u7d00\u30ce\u5ddd\u571f\u8cea\u8abf\u67fb\u696d\u52d9\u305d\u306e1","client_name":"\u56fd\u571f\u4ea4\u901a\u7701\u8fd1\u757f\u5730\u65b9\u6574\u5099\u5c40\u548c\u6b4c\u5c71\u6cb3\u5ddd\u56fd\u9053\u4e8b\u52d9\u6240","boring_xml_url":40,"boring_view_url":1,"soilmap_view_url":null,"soiltest_xml_url":0,"soiltest_view_url":0},{"id":173008,"code":"B4KJ201801006-1257","latitude":"34.3026742","longitude":"135.5409392","source_code":"KK51353453004","project_name":"","survey_name":"\u7d00\u306e\u5ddd\u571f\u8cea\u8abf\u67fb\u8cc7\u6599\u691c\u8a0e\u696d\u52d9","client_name":"\u56fd\u571f\u4ea4\u901a\u7701\u8fd1\u757f\u5730\u65b9\u6574\u5099\u5c40\u548c\u6b4c\u5c71\u6cb3\u5ddd\u56fd\u9053\u4e8b\u52d9\u6240","boring_xml_url":40,"boring_view_url":1,"soilmap_view_url":null,"soiltest_xml_url":0,"soiltest_view_url":0},{"id":173007,"code":"B4KJ201801006-1256","latitude":"34.3026742","longitude":"135.5394672","source_code":"KK51353453003","project_name":"","survey_name":"\u7d00\u306e\u5ddd\u571f\u8cea\u8abf\u67fb\u8cc7\u6599\u691c\u8a0e\u696d\u52d9","client_name":"\u56fd\u571f\u4ea4\u901a\u7701\u8fd1\u757f\u5730\u65b9\u6574\u5099\u5c40\u548c\u6b4c\u5c71\u6cb3\u5ddd\u56fd\u9053\u4e8b\u52d9\u6240","boring_xml_url":40,"boring_view_url":1,"soilmap_view_url":null,"soiltest_xml_url":0,"soiltest_view_url":0},{"id":173006,"code":"B4KJ201801006-1255","latitude":"34.3026742","longitude":"135.5380228","source_code":"KK51353453002","project_name":"","survey_name":"\u7d00\u306e\u5ddd\u571f\u8cea\u8abf\u67fb\u8cc7\u6599\u691c\u8a0e\u696d\u52d9","client_name":"\u56fd\u571f\u4ea4\u901a\u7701\u8fd1\u757f\u5730\u65b9\u6574\u5099\u5c40\u548c\u6b4c\u5c71\u6cb3\u5ddd\u56fd\u9053\u4e8b\u52d9\u6240","boring_xml_url":40,"boring_view_url":1,"soilmap_view_url":null,"soiltest_xml_url":0,"soiltest_view_url":0}]}}