{"header":{"xyz":{"source":[],"mosaic":false},"page":4925,"raw":{"soiltest_result":"0","bbox":"57.598333,109.544722,1.933333,163.806111","page":"4925"},"conditions":{"soiltest_result":0,"north":57.598333,"west":109.544722,"south":1.933333,"east":163.806111},"success":true,"message":""},"data":{"meta":{"total":212844,"page":4925,"pages":7095,"count":30},"values":[{"id":172825,"code":"B4KJ201801006-1074","latitude":"34.2585322","longitude":"135.1962486","source_code":"KK51353105010","project_name":"","survey_name":"\u5712\u90e8\u5730\u533a\u5730\u8cea\u8abf\u67fb\u691c\u8a0e\u696d\u52d9","client_name":"\u56fd\u571f\u4ea4\u901a\u7701\u8fd1\u757f\u5730\u65b9\u6574\u5099\u5c40\u548c\u6b4c\u5c71\u6cb3\u5ddd\u56fd\u9053\u4e8b\u52d9\u6240","boring_xml_url":40,"boring_view_url":1,"soilmap_view_url":null,"soiltest_xml_url":0,"soiltest_view_url":0},{"id":172824,"code":"B4KJ201801006-1073","latitude":"34.2589489","longitude":"135.1969431","source_code":"KK51353105009","project_name":"","survey_name":"\u5712\u90e8\u5730\u533a\u5730\u8cea\u8abf\u67fb\u691c\u8a0e\u696d\u52d9","client_name":"\u56fd\u571f\u4ea4\u901a\u7701\u8fd1\u757f\u5730\u65b9\u6574\u5099\u5c40\u548c\u6b4c\u5c71\u6cb3\u5ddd\u56fd\u9053\u4e8b\u52d9\u6240","boring_xml_url":40,"boring_view_url":1,"soilmap_view_url":null,"soiltest_xml_url":0,"soiltest_view_url":0},{"id":172823,"code":"B4KJ201801006-1072","latitude":"34.2574492","longitude":"135.1909714","source_code":"KK51353105008","project_name":"","survey_name":"\u5712\u90e8\u5730\u533a\u5730\u8cea\u8abf\u67fb\u691c\u8a0e\u696d\u52d9","client_name":"\u56fd\u571f\u4ea4\u901a\u7701\u8fd1\u757f\u5730\u65b9\u6574\u5099\u5c40\u548c\u6b4c\u5c71\u6cb3\u5ddd\u56fd\u9053\u4e8b\u52d9\u6240","boring_xml_url":40,"boring_view_url":1,"soilmap_view_url":null,"soiltest_xml_url":0,"soiltest_view_url":0},{"id":172822,"code":"B4KJ201801006-1071","latitude":"34.25745","longitude":"135.190972","source_code":"KK51353105007","project_name":"","survey_name":"\u7d00\u306e\u5ddd\u5927\u5830\u571f\u8cea\u8abf\u67fb(\u305d\u306e2)\u4f5c\u696d","client_name":"\u56fd\u571f\u4ea4\u901a\u7701\u8fd1\u757f\u5730\u65b9\u6574\u5099\u5c40\u548c\u6b4c\u5c71\u6cb3\u5ddd\u56fd\u9053\u4e8b\u52d9\u6240","boring_xml_url":40,"boring_view_url":1,"soilmap_view_url":null,"soiltest_xml_url":0,"soiltest_view_url":0},{"id":172821,"code":"B4KJ201801006-1070","latitude":"34.258283","longitude":"135.195111","source_code":"KK51353105006","project_name":"","survey_name":"\u5712\u90e8\u5730\u533a\u5730\u8cea\u8abf\u67fb\u691c\u8a0e\u696d\u52d9","client_name":"\u56fd\u571f\u4ea4\u901a\u7701\u8fd1\u757f\u5730\u65b9\u6574\u5099\u5c40\u548c\u6b4c\u5c71\u6cb3\u5ddd\u56fd\u9053\u4e8b\u52d9\u6240","boring_xml_url":40,"boring_view_url":1,"soilmap_view_url":null,"soiltest_xml_url":0,"soiltest_view_url":0},{"id":172820,"code":"B4KJ201801006-1069","latitude":"34.258117","longitude":"135.193806","source_code":"KK51353105005","project_name":"","survey_name":"\u5712\u90e8\u5730\u533a\u5730\u8cea\u8abf\u67fb\u691c\u8a0e\u696d\u52d9","client_name":"\u56fd\u571f\u4ea4\u901a\u7701\u8fd1\u757f\u5730\u65b9\u6574\u5099\u5c40\u548c\u6b4c\u5c71\u6cb3\u5ddd\u56fd\u9053\u4e8b\u52d9\u6240","boring_xml_url":40,"boring_view_url":1,"soilmap_view_url":null,"soiltest_xml_url":0,"soiltest_view_url":0},{"id":172819,"code":"B4KJ201801006-1068","latitude":"34.25745","longitude":"135.190972","source_code":"KK51353105004","project_name":"","survey_name":"\u7d00\u306e\u5ddd\u5927\u5830\u571f\u8cea\u8abf\u67fb(\u305d\u306e2)\u4f5c\u696d","client_name":"\u56fd\u571f\u4ea4\u901a\u7701\u8fd1\u757f\u5730\u65b9\u6574\u5099\u5c40\u548c\u6b4c\u5c71\u6cb3\u5ddd\u56fd\u9053\u4e8b\u52d9\u6240","boring_xml_url":40,"boring_view_url":1,"soilmap_view_url":null,"soiltest_xml_url":0,"soiltest_view_url":0},{"id":172818,"code":"B4KJ201801006-1067","latitude":"34.25745","longitude":"135.190972","source_code":"KK51353105003","project_name":"","survey_name":"\u7d00\u306e\u5ddd\u5927\u5830\u571f\u8cea\u8abf\u67fb(\u305d\u306e2)\u4f5c\u696d","client_name":"\u56fd\u571f\u4ea4\u901a\u7701\u8fd1\u757f\u5730\u65b9\u6574\u5099\u5c40\u548c\u6b4c\u5c71\u6cb3\u5ddd\u56fd\u9053\u4e8b\u52d9\u6240","boring_xml_url":40,"boring_view_url":1,"soilmap_view_url":null,"soiltest_xml_url":0,"soiltest_view_url":0},{"id":172817,"code":"B4KJ201801006-1066","latitude":"34.258033","longitude":"135.196667","source_code":"KK51353105002","project_name":"","survey_name":"\u7d00\u306e\u5ddd\u571f\u5830\u571f\u8cea\u8abf\u67fb(\u305d\u306e4)","client_name":"\u56fd\u571f\u4ea4\u901a\u7701\u8fd1\u757f\u5730\u65b9\u6574\u5099\u5c40\u548c\u6b4c\u5c71\u6cb3\u5ddd\u56fd\u9053\u4e8b\u52d9\u6240","boring_xml_url":40,"boring_view_url":1,"soilmap_view_url":null,"soiltest_xml_url":0,"soiltest_view_url":0},{"id":172816,"code":"B4KJ201801006-1065","latitude":"34.2539772","longitude":"135.1966656","source_code":"KK51353105001","project_name":"","survey_name":"\u7d00\u306e\u5ddd\u5927\u5830\u571f\u8cea\u8abf\u67fb(\u305d\u306e5)","client_name":"\u56fd\u571f\u4ea4\u901a\u7701\u8fd1\u757f\u5730\u65b9\u6574\u5099\u5c40\u548c\u6b4c\u5c71\u6cb3\u5ddd\u56fd\u9053\u4e8b\u52d9\u6240","boring_xml_url":40,"boring_view_url":1,"soilmap_view_url":null,"soiltest_xml_url":0,"soiltest_view_url":0},{"id":172815,"code":"B4KJ201801006-1064","latitude":"34.2537269","longitude":"135.1746119","source_code":"KK51353104006","project_name":"","survey_name":"\u548c\u6b4c\u5c71\u5317B\u30fbP\u5730\u8cea\u8abf\u67fb\u696d\u52d9","client_name":"\u56fd\u571f\u4ea4\u901a\u7701\u8fd1\u757f\u5730\u65b9\u6574\u5099\u5c40\u548c\u6b4c\u5c71\u6cb3\u5ddd\u56fd\u9053\u4e8b\u52d9\u6240","boring_xml_url":40,"boring_view_url":1,"soilmap_view_url":null,"soiltest_xml_url":0,"soiltest_view_url":0},{"id":172814,"code":"B4KJ201801006-1063","latitude":"34.2548656","longitude":"135.1743897","source_code":"KK51353104005","project_name":"","survey_name":"\u548c\u6b4c\u5c71\u5317B\u30fbP\u5730\u8cea\u8abf\u67fb\u696d\u52d9","client_name":"\u56fd\u571f\u4ea4\u901a\u7701\u8fd1\u757f\u5730\u65b9\u6574\u5099\u5c40\u548c\u6b4c\u5c71\u6cb3\u5ddd\u56fd\u9053\u4e8b\u52d9\u6240","boring_xml_url":40,"boring_view_url":1,"soilmap_view_url":null,"soiltest_xml_url":0,"soiltest_view_url":0},{"id":172813,"code":"B4KJ201801006-1062","latitude":"34.2575597","longitude":"135.1741117","source_code":"KK51353104004","project_name":"","survey_name":"\u548c\u6b4c\u5c71\u5317B\u30fbP\u5730\u8cea\u8abf\u67fb\u696d\u52d9","client_name":"\u56fd\u571f\u4ea4\u901a\u7701\u8fd1\u757f\u5730\u65b9\u6574\u5099\u5c40\u548c\u6b4c\u5c71\u6cb3\u5ddd\u56fd\u9053\u4e8b\u52d9\u6240","boring_xml_url":40,"boring_view_url":1,"soilmap_view_url":null,"soiltest_xml_url":0,"soiltest_view_url":0},{"id":172812,"code":"B4KJ201801006-1061","latitude":"34.2600317","longitude":"135.1736394","source_code":"KK51353104003","project_name":"","survey_name":"\u548c\u6b4c\u5c71\u5317BP\u5730\u8cea\u8abf\u67fb\u4f5c\u696d","client_name":"\u56fd\u571f\u4ea4\u901a\u7701\u8fd1\u757f\u5730\u65b9\u6574\u5099\u5c40\u548c\u6b4c\u5c71\u6cb3\u5ddd\u56fd\u9053\u4e8b\u52d9\u6240","boring_xml_url":40,"boring_view_url":1,"soilmap_view_url":null,"soiltest_xml_url":0,"soiltest_view_url":0},{"id":172811,"code":"B4KJ201801006-1060","latitude":"34.2581153","longitude":"135.1745283","source_code":"KK51353104002","project_name":"","survey_name":"\u548c\u6b4c\u5c71\u5317BP\u5730\u8cea\u8abf\u67fb\u4f5c\u696d","client_name":"\u56fd\u571f\u4ea4\u901a\u7701\u8fd1\u757f\u5730\u65b9\u6574\u5099\u5c40\u548c\u6b4c\u5c71\u6cb3\u5ddd\u56fd\u9053\u4e8b\u52d9\u6240","boring_xml_url":40,"boring_view_url":1,"soilmap_view_url":null,"soiltest_xml_url":0,"soiltest_view_url":0},{"id":172810,"code":"B4KJ201801006-1059","latitude":"34.2562822","longitude":"135.1745283","source_code":"KK51353104001","project_name":"","survey_name":"\u548c\u6b4c\u5c71\u5317BP\u5730\u8cea\u8abf\u67fb\u4f5c\u696d","client_name":"\u56fd\u571f\u4ea4\u901a\u7701\u8fd1\u757f\u5730\u65b9\u6574\u5099\u5c40\u548c\u6b4c\u5c71\u6cb3\u5ddd\u56fd\u9053\u4e8b\u52d9\u6240","boring_xml_url":40,"boring_view_url":1,"soilmap_view_url":null,"soiltest_xml_url":0,"soiltest_view_url":0},{"id":172809,"code":"B4KJ201801006-1058","latitude":"34.1724436","longitude":"135.754925","source_code":"KK51352600001","project_name":"","survey_name":"\u8fbb\u5802\u91cf\u6c34\u5854\u5730\u8cea\u8abf\u67fb\u4f5c\u696d","client_name":"\u56fd\u571f\u4ea4\u901a\u7701\u8fd1\u757f\u5730\u65b9\u6574\u5099\u5c40\u733f\u8c37\u30c0\u30e0\u7ba1\u7406\u6240","boring_xml_url":40,"boring_view_url":1,"soilmap_view_url":null,"soiltest_xml_url":0,"soiltest_view_url":0},{"id":172808,"code":"B4KJ201801006-1057","latitude":"34.2049675","longitude":"135.7355089","source_code":"KK51352549005","project_name":"","survey_name":"\u962a\u672c\u5730\u533a\u5730\u8cea\u8abf\u67fb\u4f5c\u696d","client_name":"\u56fd\u571f\u4ea4\u901a\u7701\u8fd1\u757f\u5730\u65b9\u6574\u5099\u5c40\u733f\u8c37\u30c0\u30e0\u7ba1\u7406\u6240","boring_xml_url":40,"boring_view_url":1,"soilmap_view_url":null,"soiltest_xml_url":0,"soiltest_view_url":0},{"id":172807,"code":"B4KJ201801006-1056","latitude":"34.1844142","longitude":"135.7393981","source_code":"KK51352519006","project_name":"","survey_name":"\u5e73\u621010\u5e74\u5ea6\u733f\u8c37\u30c0\u30e0\u8caf\u6c34\u6c60\u53f3\u5cb8\u5730\u8cea\u8abf\u67fb\u696d\u52d9","client_name":"\u56fd\u571f\u4ea4\u901a\u7701\u8fd1\u757f\u5730\u65b9\u6574\u5099\u5c40\u733f\u8c37\u30c0\u30e0\u7ba1\u7406\u6240","boring_xml_url":40,"boring_view_url":1,"soilmap_view_url":null,"soiltest_xml_url":0,"soiltest_view_url":0},{"id":172806,"code":"B4KJ201801006-1055","latitude":"34.1849697","longitude":"135.7396758","source_code":"KK51352519005","project_name":"","survey_name":"\u5e73\u621010\u5e74\u5ea6\u733f\u8c37\u30c0\u30e0\u8caf\u6c34\u6c60\u53f3\u5cb8\u5730\u8cea\u8abf\u67fb\u696d\u52d9","client_name":"\u56fd\u571f\u4ea4\u901a\u7701\u8fd1\u757f\u5730\u65b9\u6574\u5099\u5c40\u733f\u8c37\u30c0\u30e0\u7ba1\u7406\u6240","boring_xml_url":40,"boring_view_url":1,"soilmap_view_url":null,"soiltest_xml_url":0,"soiltest_view_url":0},{"id":172805,"code":"B4KJ201801006-1054","latitude":"34.1846919","longitude":"135.7399536","source_code":"KK51352519004","project_name":"","survey_name":"\u5e73\u621010\u5e74\u5ea6\u733f\u8c37\u30c0\u30e0\u8caf\u6c34\u6c60\u53f3\u5cb8\u5730\u8cea\u8abf\u67fb\u696d\u52d9","client_name":"\u56fd\u571f\u4ea4\u901a\u7701\u8fd1\u757f\u5730\u65b9\u6574\u5099\u5c40\u733f\u8c37\u30c0\u30e0\u7ba1\u7406\u6240","boring_xml_url":40,"boring_view_url":1,"soilmap_view_url":null,"soiltest_xml_url":0,"soiltest_view_url":0},{"id":172804,"code":"B4KJ201801006-1053","latitude":"34.1844142","longitude":"135.7388428","source_code":"KK51352519003","project_name":"","survey_name":"\u5e73\u621010\u5e74\u5ea6\u733f\u8c37\u30c0\u30e0\u8caf\u6c34\u6c60\u53f3\u5cb8\u5730\u8cea\u8abf\u67fb\u696d\u52d9","client_name":"\u56fd\u571f\u4ea4\u901a\u7701\u8fd1\u757f\u5730\u65b9\u6574\u5099\u5c40\u733f\u8c37\u30c0\u30e0\u7ba1\u7406\u6240","boring_xml_url":40,"boring_view_url":1,"soilmap_view_url":null,"soiltest_xml_url":0,"soiltest_view_url":0},{"id":172803,"code":"B4KJ201801006-1052","latitude":"34.1838589","longitude":"135.7391206","source_code":"KK51352519001","project_name":"","survey_name":"\u5e73\u621010\u5e74\u5ea6\u733f\u8c37\u30c0\u30e0\u8caf\u6c34\u6c60\u53f3\u5cb8\u5730\u8cea\u8abf\u67fb\u696d\u52d9","client_name":"\u56fd\u571f\u4ea4\u901a\u7701\u8fd1\u757f\u5730\u65b9\u6574\u5099\u5c40\u733f\u8c37\u30c0\u30e0\u7ba1\u7406\u6240","boring_xml_url":40,"boring_view_url":1,"soilmap_view_url":null,"soiltest_xml_url":0,"soiltest_view_url":0},{"id":172802,"code":"B4KJ201801006-1051","latitude":"34.2521206","longitude":"135.3783164","source_code":"KK51352390012","project_name":"","survey_name":"\u7af9\u623f\u5408\u6d41\u70b9\u51e6\u7406\u8a73\u7d30\u8a2d\u8a08\u696d\u52d9","client_name":"\u56fd\u571f\u4ea4\u901a\u7701\u8fd1\u757f\u5730\u65b9\u6574\u5099\u5c40\u548c\u6b4c\u5c71\u6cb3\u5ddd\u56fd\u9053\u4e8b\u52d9\u6240","boring_xml_url":40,"boring_view_url":1,"soilmap_view_url":null,"soiltest_xml_url":0,"soiltest_view_url":0},{"id":172801,"code":"B4KJ201801006-1050","latitude":"34.2519817","longitude":"135.3784831","source_code":"KK51352390011","project_name":"","survey_name":"\u7af9\u623f\u5408\u6d41\u70b9\u51e6\u7406\u8a73\u7d30\u8a2d\u8a08\u696d\u52d9","client_name":"\u56fd\u571f\u4ea4\u901a\u7701\u8fd1\u757f\u5730\u65b9\u6574\u5099\u5c40\u548c\u6b4c\u5c71\u6cb3\u5ddd\u56fd\u9053\u4e8b\u52d9\u6240","boring_xml_url":40,"boring_view_url":1,"soilmap_view_url":null,"soiltest_xml_url":0,"soiltest_view_url":0},{"id":172800,"code":"B4KJ201801006-1049","latitude":"34.2522039","longitude":"135.3780942","source_code":"KK51352390010","project_name":"","survey_name":"\u7af9\u623f\u5408\u6d41\u70b9\u51e6\u7406\u8a73\u7d30\u8a2d\u8a08\u696d\u52d9","client_name":"\u56fd\u571f\u4ea4\u901a\u7701\u8fd1\u757f\u5730\u65b9\u6574\u5099\u5c40\u548c\u6b4c\u5c71\u6cb3\u5ddd\u56fd\u9053\u4e8b\u52d9\u6240","boring_xml_url":40,"boring_view_url":1,"soilmap_view_url":null,"soiltest_xml_url":0,"soiltest_view_url":0},{"id":172799,"code":"B4KJ201801006-1048","latitude":"34.2532589","longitude":"135.3627619","source_code":"KK51352299004","project_name":"","survey_name":"\u7d00\u306e\u5ddd\u571f\u8cea\u8abf\u67fb\u8cc7\u6599\u691c\u8a0e\u696d\u52d9","client_name":"\u56fd\u571f\u4ea4\u901a\u7701\u8fd1\u757f\u5730\u65b9\u6574\u5099\u5c40\u548c\u6b4c\u5c71\u6cb3\u5ddd\u56fd\u9053\u4e8b\u52d9\u6240","boring_xml_url":40,"boring_view_url":1,"soilmap_view_url":null,"soiltest_xml_url":0,"soiltest_view_url":0},{"id":172798,"code":"B4KJ201801006-1047","latitude":"34.2528425","longitude":"135.3637342","source_code":"KK51352299003","project_name":"","survey_name":"\u7d00\u306e\u5ddd\u571f\u8cea\u8abf\u67fb\u8cc7\u6599\u691c\u8a0e\u696d\u52d9","client_name":"\u56fd\u571f\u4ea4\u901a\u7701\u8fd1\u757f\u5730\u65b9\u6574\u5099\u5c40\u548c\u6b4c\u5c71\u6cb3\u5ddd\u56fd\u9053\u4e8b\u52d9\u6240","boring_xml_url":40,"boring_view_url":1,"soilmap_view_url":null,"soiltest_xml_url":0,"soiltest_view_url":0},{"id":172797,"code":"B4KJ201801006-1046","latitude":"34.2498428","longitude":"135.3610678","source_code":"KK51352299002","project_name":"","survey_name":"\u7d00\u306e\u5ddd\u571f\u8cea\u8abf\u67fb\u8cc7\u6599\u691c\u8a0e\u696d\u52d9","client_name":"\u56fd\u571f\u4ea4\u901a\u7701\u8fd1\u757f\u5730\u65b9\u6574\u5099\u5c40\u548c\u6b4c\u5c71\u6cb3\u5ddd\u56fd\u9053\u4e8b\u52d9\u6240","boring_xml_url":40,"boring_view_url":1,"soilmap_view_url":null,"soiltest_xml_url":0,"soiltest_view_url":0},{"id":172796,"code":"B4KJ201801006-1045","latitude":"34.2507036","longitude":"135.3562072","source_code":"KK51352298003","project_name":"","survey_name":"\u7d00\u306e\u5ddd\u571f\u8cea\u8abf\u67fb\u8cc7\u6599\u691c\u8a0e\u696d\u52d9","client_name":"\u56fd\u571f\u4ea4\u901a\u7701\u8fd1\u757f\u5730\u65b9\u6574\u5099\u5c40\u548c\u6b4c\u5c71\u6cb3\u5ddd\u56fd\u9053\u4e8b\u52d9\u6240","boring_xml_url":40,"boring_view_url":1,"soilmap_view_url":null,"soiltest_xml_url":0,"soiltest_view_url":0}]}}