{"header":{"xyz":{"source":[],"mosaic":false},"page":4926,"raw":{"soiltest_result":"0","bbox":"57.598333,109.544722,1.933333,163.806111","page":"4926"},"conditions":{"soiltest_result":0,"north":57.598333,"west":109.544722,"south":1.933333,"east":163.806111},"success":true,"message":""},"data":{"meta":{"total":212844,"page":4926,"pages":7095,"count":30},"values":[{"id":172795,"code":"B4KJ201801006-1044","latitude":"34.2503981","longitude":"135.3581514","source_code":"KK51352298002","project_name":"","survey_name":"\u7d00\u306e\u5ddd\u571f\u8cea\u8abf\u67fb\u8cc7\u6599\u691c\u8a0e\u696d\u52d9","client_name":"\u56fd\u571f\u4ea4\u901a\u7701\u8fd1\u757f\u5730\u65b9\u6574\u5099\u5c40\u548c\u6b4c\u5c71\u6cb3\u5ddd\u56fd\u9053\u4e8b\u52d9\u6240","boring_xml_url":40,"boring_view_url":1,"soilmap_view_url":null,"soiltest_xml_url":0,"soiltest_view_url":0},{"id":172794,"code":"B4KJ201801006-1043","latitude":"34.2501758","longitude":"135.3595403","source_code":"KK51352298001","project_name":"","survey_name":"\u7d00\u306e\u5ddd\u571f\u8cea\u8abf\u67fb\u8cc7\u6599\u691c\u8a0e\u696d\u52d9","client_name":"\u56fd\u571f\u4ea4\u901a\u7701\u8fd1\u757f\u5730\u65b9\u6574\u5099\u5c40\u548c\u6b4c\u5c71\u6cb3\u5ddd\u56fd\u9053\u4e8b\u52d9\u6240","boring_xml_url":40,"boring_view_url":1,"soilmap_view_url":null,"soiltest_xml_url":0,"soiltest_view_url":0},{"id":172793,"code":"B4KJ201801006-1042","latitude":"34.249119","longitude":"135.328461","source_code":"KK51352296015","project_name":"","survey_name":"\u662d\u548c62\u5e74\u5ea6\u7d00\u306e\u5ddd\u571f\u8cea\u8abf\u67fb\u4f5c\u696d","client_name":"\u56fd\u571f\u4ea4\u901a\u7701\u8fd1\u757f\u5730\u65b9\u6574\u5099\u5c40\u548c\u6b4c\u5c71\u6cb3\u5ddd\u56fd\u9053\u4e8b\u52d9\u6240","boring_xml_url":40,"boring_view_url":1,"soilmap_view_url":null,"soiltest_xml_url":0,"soiltest_view_url":0},{"id":172792,"code":"B4KJ201801006-1041","latitude":"34.249119","longitude":"135.328461","source_code":"KK51352296014","project_name":"","survey_name":"\u662d\u548c62\u5e74\u5ea6\u7d00\u306e\u5ddd\u571f\u8cea\u8abf\u67fb\u4f5c\u696d","client_name":"\u56fd\u571f\u4ea4\u901a\u7701\u8fd1\u757f\u5730\u65b9\u6574\u5099\u5c40\u548c\u6b4c\u5c71\u6cb3\u5ddd\u56fd\u9053\u4e8b\u52d9\u6240","boring_xml_url":40,"boring_view_url":1,"soilmap_view_url":null,"soiltest_xml_url":0,"soiltest_view_url":0},{"id":172791,"code":"B4KJ201801006-1040","latitude":"34.249119","longitude":"135.328461","source_code":"KK51352296013","project_name":"","survey_name":"\u662d\u548c62\u5e74\u5ea6\u7d00\u306e\u5ddd\u571f\u8cea\u8abf\u67fb\u4f5c\u696d","client_name":"\u56fd\u571f\u4ea4\u901a\u7701\u8fd1\u757f\u5730\u65b9\u6574\u5099\u5c40\u548c\u6b4c\u5c71\u6cb3\u5ddd\u56fd\u9053\u4e8b\u52d9\u6240","boring_xml_url":40,"boring_view_url":1,"soilmap_view_url":null,"soiltest_xml_url":0,"soiltest_view_url":0},{"id":172790,"code":"B4KJ201801006-1039","latitude":"34.249119","longitude":"135.328461","source_code":"KK51352296012","project_name":"","survey_name":"\u662d\u548c62\u5e74\u5ea6\u7d00\u306e\u5ddd\u571f\u8cea\u8abf\u67fb\u4f5c\u696d","client_name":"\u56fd\u571f\u4ea4\u901a\u7701\u8fd1\u757f\u5730\u65b9\u6574\u5099\u5c40\u548c\u6b4c\u5c71\u6cb3\u5ddd\u56fd\u9053\u4e8b\u52d9\u6240","boring_xml_url":40,"boring_view_url":1,"soilmap_view_url":null,"soiltest_xml_url":0,"soiltest_view_url":0},{"id":172789,"code":"B4KJ201801006-1038","latitude":"34.2531747","longitude":"135.3230433","source_code":"KK51352296011","project_name":"","survey_name":"\u7d00\u306e\u5ddd\u571f\u8cea\u8abf\u67fb\u8cc7\u6599\u691c\u8a0e\u696d\u52d9","client_name":"\u56fd\u571f\u4ea4\u901a\u7701\u8fd1\u757f\u5730\u65b9\u6574\u5099\u5c40\u548c\u6b4c\u5c71\u6cb3\u5ddd\u56fd\u9053\u4e8b\u52d9\u6240","boring_xml_url":40,"boring_view_url":1,"soilmap_view_url":null,"soiltest_xml_url":0,"soiltest_view_url":0},{"id":172788,"code":"B4KJ201801006-1037","latitude":"34.2491197","longitude":"135.3284597","source_code":"KK51352296010","project_name":"","survey_name":"\u6625\u65e5\u5ddd\u8b77\u5cb8\u5de5\u6cd5\u691c\u8a0e\u53ca\u3073\u571f\u8cea\u8abf\u67fb\u4f5c\u696d","client_name":"\u56fd\u571f\u4ea4\u901a\u7701\u8fd1\u757f\u5730\u65b9\u6574\u5099\u5c40\u548c\u6b4c\u5c71\u6cb3\u5ddd\u56fd\u9053\u4e8b\u52d9\u6240","boring_xml_url":40,"boring_view_url":1,"soilmap_view_url":null,"soiltest_xml_url":0,"soiltest_view_url":0},{"id":172787,"code":"B4KJ201801006-1036","latitude":"34.2527303","longitude":"135.3227656","source_code":"KK51352296009","project_name":"","survey_name":"\u6625\u65e5\u5ddd\u8b77\u5cb8\u5de5\u6cd5\u691c\u8a0e\u53ca\u3073\u571f\u8cea\u8abf\u67fb\u4f5c\u696d","client_name":"\u56fd\u571f\u4ea4\u901a\u7701\u8fd1\u757f\u5730\u65b9\u6574\u5099\u5c40\u548c\u6b4c\u5c71\u6cb3\u5ddd\u56fd\u9053\u4e8b\u52d9\u6240","boring_xml_url":40,"boring_view_url":1,"soilmap_view_url":null,"soiltest_xml_url":0,"soiltest_view_url":0},{"id":172786,"code":"B4KJ201801006-1035","latitude":"34.2527303","longitude":"135.3230433","source_code":"KK51352296008","project_name":"","survey_name":"\u6625\u65e5\u5ddd\u8b77\u5cb8\u5de5\u6cd5\u691c\u8a0e\u53ca\u3073\u571f\u8cea\u8abf\u67fb\u4f5c\u696d","client_name":"\u56fd\u571f\u4ea4\u901a\u7701\u8fd1\u757f\u5730\u65b9\u6574\u5099\u5c40\u548c\u6b4c\u5c71\u6cb3\u5ddd\u56fd\u9053\u4e8b\u52d9\u6240","boring_xml_url":40,"boring_view_url":1,"soilmap_view_url":null,"soiltest_xml_url":0,"soiltest_view_url":0},{"id":172785,"code":"B4KJ201801006-1034","latitude":"34.2527303","longitude":"135.3227656","source_code":"KK51352296007","project_name":"","survey_name":"\u6625\u65e5\u5ddd\u8b77\u5cb8\u5de5\u6cd5\u691c\u8a0e\u53ca\u3073\u571f\u8cea\u8abf\u67fb\u4f5c\u696d","client_name":"\u56fd\u571f\u4ea4\u901a\u7701\u8fd1\u757f\u5730\u65b9\u6574\u5099\u5c40\u548c\u6b4c\u5c71\u6cb3\u5ddd\u56fd\u9053\u4e8b\u52d9\u6240","boring_xml_url":40,"boring_view_url":1,"soilmap_view_url":null,"soiltest_xml_url":0,"soiltest_view_url":0},{"id":172784,"code":"B4KJ201801006-1033","latitude":"34.2529803","longitude":"135.3242933","source_code":"KK51352296006","project_name":"","survey_name":"\u7d00\u306e\u5ddd\u571f\u8cea\u8abf\u67fb\u8cc7\u6599\u691c\u8a0e\u696d\u52d9","client_name":"\u56fd\u571f\u4ea4\u901a\u7701\u8fd1\u757f\u5730\u65b9\u6574\u5099\u5c40\u548c\u6b4c\u5c71\u6cb3\u5ddd\u56fd\u9053\u4e8b\u52d9\u6240","boring_xml_url":40,"boring_view_url":1,"soilmap_view_url":null,"soiltest_xml_url":0,"soiltest_view_url":0},{"id":172783,"code":"B4KJ201801006-1032","latitude":"34.2529525","longitude":"135.3237378","source_code":"KK51352296005","project_name":"","survey_name":"\u7d00\u306e\u5ddd\u571f\u8cea\u8abf\u67fb\u8cc7\u6599\u691c\u8a0e\u696d\u52d9","client_name":"\u56fd\u571f\u4ea4\u901a\u7701\u8fd1\u757f\u5730\u65b9\u6574\u5099\u5c40\u548c\u6b4c\u5c71\u6cb3\u5ddd\u56fd\u9053\u4e8b\u52d9\u6240","boring_xml_url":40,"boring_view_url":1,"soilmap_view_url":null,"soiltest_xml_url":0,"soiltest_view_url":0},{"id":172782,"code":"B4KJ201801006-1031","latitude":"34.2528414","longitude":"135.3227656","source_code":"KK51352296004","project_name":"","survey_name":"\u7d00\u306e\u5ddd\u571f\u8cea\u8abf\u67fb\u8cc7\u6599\u691c\u8a0e\u696d\u52d9","client_name":"\u56fd\u571f\u4ea4\u901a\u7701\u8fd1\u757f\u5730\u65b9\u6574\u5099\u5c40\u548c\u6b4c\u5c71\u6cb3\u5ddd\u56fd\u9053\u4e8b\u52d9\u6240","boring_xml_url":40,"boring_view_url":1,"soilmap_view_url":null,"soiltest_xml_url":0,"soiltest_view_url":0},{"id":172781,"code":"B4KJ201801006-1030","latitude":"34.2524525","longitude":"135.3230433","source_code":"KK51352296003","project_name":"","survey_name":"\u6625\u65e5\u5ddd\u8b77\u5cb8\u5de5\u6cd5\u691c\u8a0e\u53ca\u3073\u571f\u8cea\u8abf\u67fb\u4f5c\u696d","client_name":"\u56fd\u571f\u4ea4\u901a\u7701\u8fd1\u757f\u5730\u65b9\u6574\u5099\u5c40\u548c\u6b4c\u5c71\u6cb3\u5ddd\u56fd\u9053\u4e8b\u52d9\u6240","boring_xml_url":40,"boring_view_url":1,"soilmap_view_url":null,"soiltest_xml_url":0,"soiltest_view_url":0},{"id":172780,"code":"B4KJ201801006-1029","latitude":"34.2524525","longitude":"135.3227656","source_code":"KK51352296002","project_name":"","survey_name":"\u6625\u65e5\u5ddd\u8b77\u5cb8\u5de5\u6cd5\u691c\u8a0e\u53ca\u3073\u571f\u8cea\u8abf\u67fb\u4f5c\u696d","client_name":"\u56fd\u571f\u4ea4\u901a\u7701\u8fd1\u757f\u5730\u65b9\u6574\u5099\u5c40\u548c\u6b4c\u5c71\u6cb3\u5ddd\u56fd\u9053\u4e8b\u52d9\u6240","boring_xml_url":40,"boring_view_url":1,"soilmap_view_url":null,"soiltest_xml_url":0,"soiltest_view_url":0},{"id":172779,"code":"B4KJ201801006-1028","latitude":"34.2528414","longitude":"135.32321","source_code":"KK51352296001","project_name":"","survey_name":"\u7d00\u306e\u5ddd\u571f\u8cea\u8abf\u67fb\u8cc7\u6599\u691c\u8a0e\u696d\u52d9","client_name":"\u56fd\u571f\u4ea4\u901a\u7701\u8fd1\u757f\u5730\u65b9\u6574\u5099\u5c40\u548c\u6b4c\u5c71\u6cb3\u5ddd\u56fd\u9053\u4e8b\u52d9\u6240","boring_xml_url":40,"boring_view_url":1,"soilmap_view_url":null,"soiltest_xml_url":0,"soiltest_view_url":0},{"id":172778,"code":"B4KJ201801006-1027","latitude":"34.250675","longitude":"135.3201547","source_code":"KK51352295002","project_name":"","survey_name":"\u5411\u526f\u5730\u533a\u4ed62\u4ef6\u571f\u8cea\u8abf\u67fb\u4f5c\u696d","client_name":"\u56fd\u571f\u4ea4\u901a\u7701\u8fd1\u757f\u5730\u65b9\u6574\u5099\u5c40\u548c\u6b4c\u5c71\u6cb3\u5ddd\u56fd\u9053\u4e8b\u52d9\u6240","boring_xml_url":40,"boring_view_url":1,"soilmap_view_url":null,"soiltest_xml_url":0,"soiltest_view_url":0},{"id":172777,"code":"B4KJ201801006-1026","latitude":"34.2504528","longitude":"135.3203769","source_code":"KK51352295001","project_name":"","survey_name":"\u5411\u526f\u5730\u533a\u4ed62\u4ef6\u571f\u8cea\u8abf\u67fb\u4f5c\u696d","client_name":"\u56fd\u571f\u4ea4\u901a\u7701\u8fd1\u757f\u5730\u65b9\u6574\u5099\u5c40\u548c\u6b4c\u5c71\u6cb3\u5ddd\u56fd\u9053\u4e8b\u52d9\u6240","boring_xml_url":40,"boring_view_url":1,"soilmap_view_url":null,"soiltest_xml_url":0,"soiltest_view_url":0},{"id":172776,"code":"B4KJ201801006-1025","latitude":"34.2529797","longitude":"135.3005731","source_code":"KK51352294009","project_name":"","survey_name":"\u7d00\u30ce\u5ddd\u571f\u8cea\u8abf\u67fb\u696d\u52d9\u305d\u306e2","client_name":"\u56fd\u571f\u4ea4\u901a\u7701\u8fd1\u757f\u5730\u65b9\u6574\u5099\u5c40\u548c\u6b4c\u5c71\u6cb3\u5ddd\u56fd\u9053\u4e8b\u52d9\u6240","boring_xml_url":40,"boring_view_url":1,"soilmap_view_url":null,"soiltest_xml_url":0,"soiltest_view_url":0},{"id":172775,"code":"B4KJ201801006-1024","latitude":"34.2529519","longitude":"135.2975733","source_code":"KK51352294008","project_name":"","survey_name":"\u7d00\u306e\u5ddd\u571f\u8cea\u8abf\u67fb\u8cc7\u6599\u691c\u8a0e\u696d\u52d9","client_name":"\u56fd\u571f\u4ea4\u901a\u7701\u8fd1\u757f\u5730\u65b9\u6574\u5099\u5c40\u548c\u6b4c\u5c71\u6cb3\u5ddd\u56fd\u9053\u4e8b\u52d9\u6240","boring_xml_url":40,"boring_view_url":1,"soilmap_view_url":null,"soiltest_xml_url":0,"soiltest_view_url":0},{"id":172774,"code":"B4KJ201801006-1023","latitude":"34.2524522","longitude":"135.3016286","source_code":"KK51352294007","project_name":"","survey_name":"\u7d00\u30ce\u5ddd\u571f\u8cea\u8abf\u67fb\u696d\u52d9\u305d\u306e2","client_name":"\u56fd\u571f\u4ea4\u901a\u7701\u8fd1\u757f\u5730\u65b9\u6574\u5099\u5c40\u548c\u6b4c\u5c71\u6cb3\u5ddd\u56fd\u9053\u4e8b\u52d9\u6240","boring_xml_url":40,"boring_view_url":1,"soilmap_view_url":null,"soiltest_xml_url":0,"soiltest_view_url":0},{"id":172773,"code":"B4KJ201801006-1022","latitude":"34.2522856","longitude":"135.3025731","source_code":"KK51352294006","project_name":"","survey_name":"\u7d00\u306e\u5ddd\u571f\u8cea\u8abf\u67fb\u8cc7\u6599\u691c\u8a0e\u696d\u52d9","client_name":"\u56fd\u571f\u4ea4\u901a\u7701\u8fd1\u757f\u5730\u65b9\u6574\u5099\u5c40\u548c\u6b4c\u5c71\u6cb3\u5ddd\u56fd\u9053\u4e8b\u52d9\u6240","boring_xml_url":40,"boring_view_url":1,"soilmap_view_url":null,"soiltest_xml_url":0,"soiltest_view_url":0},{"id":172772,"code":"B4KJ201801006-1021","latitude":"34.2517856","longitude":"135.3044617","source_code":"KK51352294005","project_name":"","survey_name":"\u7d00\u30ce\u5ddd\u571f\u8cea\u8abf\u67fb\u696d\u52d9\u305d\u306e2","client_name":"\u56fd\u571f\u4ea4\u901a\u7701\u8fd1\u757f\u5730\u65b9\u6574\u5099\u5c40\u548c\u6b4c\u5c71\u6cb3\u5ddd\u56fd\u9053\u4e8b\u52d9\u6240","boring_xml_url":40,"boring_view_url":1,"soilmap_view_url":null,"soiltest_xml_url":0,"soiltest_view_url":0},{"id":172771,"code":"B4KJ201801006-1020","latitude":"34.2522856","longitude":"135.3028783","source_code":"KK51352294004","project_name":"","survey_name":"\u7d00\u30ce\u5ddd\u571f\u8cea\u8abf\u67fb\u696d\u52d9\u305d\u306e2","client_name":"\u56fd\u571f\u4ea4\u901a\u7701\u8fd1\u757f\u5730\u65b9\u6574\u5099\u5c40\u548c\u6b4c\u5c71\u6cb3\u5ddd\u56fd\u9053\u4e8b\u52d9\u6240","boring_xml_url":40,"boring_view_url":1,"soilmap_view_url":null,"soiltest_xml_url":0,"soiltest_view_url":0},{"id":172770,"code":"B4KJ201801006-1019","latitude":"34.2512578","longitude":"135.3059061","source_code":"KK51352294003","project_name":"","survey_name":"\u7d00\u306e\u5ddd\u571f\u8cea\u8abf\u67fb\u8cc7\u6599\u691c\u8a0e\u696d\u52d9","client_name":"\u56fd\u571f\u4ea4\u901a\u7701\u8fd1\u757f\u5730\u65b9\u6574\u5099\u5c40\u548c\u6b4c\u5c71\u6cb3\u5ddd\u56fd\u9053\u4e8b\u52d9\u6240","boring_xml_url":40,"boring_view_url":1,"soilmap_view_url":null,"soiltest_xml_url":0,"soiltest_view_url":0},{"id":172769,"code":"B4KJ201801006-1018","latitude":"34.2503692","longitude":"135.3061283","source_code":"KK51352294002","project_name":"","survey_name":"\u7d00\u306e\u5ddd\u571f\u8cea\u8abf\u67fb\u8cc7\u6599\u691c\u8a0e\u696d\u52d9","client_name":"\u56fd\u571f\u4ea4\u901a\u7701\u8fd1\u757f\u5730\u65b9\u6574\u5099\u5c40\u548c\u6b4c\u5c71\u6cb3\u5ddd\u56fd\u9053\u4e8b\u52d9\u6240","boring_xml_url":40,"boring_view_url":1,"soilmap_view_url":null,"soiltest_xml_url":0,"soiltest_view_url":0},{"id":172768,"code":"B4KJ201801006-1017","latitude":"34.2500358","longitude":"135.3068225","source_code":"KK51352294001","project_name":"","survey_name":"\u7d00\u306e\u5ddd\u571f\u8cea\u8abf\u67fb\u8cc7\u6599\u691c\u8a0e\u696d\u52d9","client_name":"\u56fd\u571f\u4ea4\u901a\u7701\u8fd1\u757f\u5730\u65b9\u6574\u5099\u5c40\u548c\u6b4c\u5c71\u6cb3\u5ddd\u56fd\u9053\u4e8b\u52d9\u6240","boring_xml_url":40,"boring_view_url":1,"soilmap_view_url":null,"soiltest_xml_url":0,"soiltest_view_url":0},{"id":172767,"code":"B4KJ201801006-1016","latitude":"34.2491183","longitude":"135.265965","source_code":"KK51352291002","project_name":"","survey_name":"\u5e73\u6210\u5143\u5e74\u5ea6\u548c\u4f50\u5730\u533a\u571f\u8cea\u8abf\u67fb\u4f5c\u696d","client_name":"\u56fd\u571f\u4ea4\u901a\u7701\u8fd1\u757f\u5730\u65b9\u6574\u5099\u5c40\u548c\u6b4c\u5c71\u6cb3\u5ddd\u56fd\u9053\u4e8b\u52d9\u6240","boring_xml_url":40,"boring_view_url":1,"soilmap_view_url":null,"soiltest_xml_url":0,"soiltest_view_url":0},{"id":172766,"code":"B4KJ201801006-1015","latitude":"34.2488961","longitude":"135.2601322","source_code":"KK51352291001","project_name":"","survey_name":"\u7d00\u306e\u5ddd\u571f\u8cea\u8abf\u67fb\u8cc7\u6599\u691c\u8a0e\u696d\u52d9","client_name":"\u56fd\u571f\u4ea4\u901a\u7701\u8fd1\u757f\u5730\u65b9\u6574\u5099\u5c40\u548c\u6b4c\u5c71\u6cb3\u5ddd\u56fd\u9053\u4e8b\u52d9\u6240","boring_xml_url":40,"boring_view_url":1,"soilmap_view_url":null,"soiltest_xml_url":0,"soiltest_view_url":0}]}}