{"header":{"xyz":{"source":[],"mosaic":false},"page":4928,"raw":{"soiltest_result":"0","bbox":"57.598333,109.544722,1.933333,163.806111","page":"4928"},"conditions":{"soiltest_result":0,"north":57.598333,"west":109.544722,"south":1.933333,"east":163.806111},"success":true,"message":""},"data":{"meta":{"total":212844,"page":4928,"pages":7095,"count":30},"values":[{"id":172735,"code":"B4KJ201801006-0984","latitude":"34.248561","longitude":"135.24305","source_code":"KK51352199046","project_name":"","survey_name":"\u5e73\u621011\u5e74\u5ea6\u7d00\u30ce\u5ddd\u5927\u5830\u6cb3\u5e8a\u5730\u8cea\u8abf\u67fb\u696d\u52d9","client_name":"\u56fd\u571f\u4ea4\u901a\u7701\u8fd1\u757f\u5730\u65b9\u6574\u5099\u5c40\u548c\u6b4c\u5c71\u6cb3\u5ddd\u56fd\u9053\u4e8b\u52d9\u6240","boring_xml_url":40,"boring_view_url":1,"soilmap_view_url":null,"soiltest_xml_url":0,"soiltest_view_url":0},{"id":172734,"code":"B4KJ201801006-0983","latitude":"34.248561","longitude":"135.241106","source_code":"KK51352199045","project_name":"","survey_name":"\u5e73\u621011\u5e74\u5ea6\u7d00\u30ce\u5ddd\u5927\u5830\u6cb3\u5e8a\u5730\u8cea\u8abf\u67fb\u696d\u52d9","client_name":"\u56fd\u571f\u4ea4\u901a\u7701\u8fd1\u757f\u5730\u65b9\u6574\u5099\u5c40\u548c\u6b4c\u5c71\u6cb3\u5ddd\u56fd\u9053\u4e8b\u52d9\u6240","boring_xml_url":40,"boring_view_url":1,"soilmap_view_url":null,"soiltest_xml_url":0,"soiltest_view_url":0},{"id":172733,"code":"B4KJ201801006-0982","latitude":"34.248839","longitude":"135.244994","source_code":"KK51352199044","project_name":"","survey_name":"\u5e73\u621011\u5e74\u5ea6\u7d00\u30ce\u5ddd\u5927\u5830\u6cb3\u5e8a\u5730\u8cea\u8abf\u67fb\u696d\u52d9","client_name":"\u56fd\u571f\u4ea4\u901a\u7701\u8fd1\u757f\u5730\u65b9\u6574\u5099\u5c40\u548c\u6b4c\u5c71\u6cb3\u5ddd\u56fd\u9053\u4e8b\u52d9\u6240","boring_xml_url":40,"boring_view_url":1,"soilmap_view_url":null,"soiltest_xml_url":0,"soiltest_view_url":0},{"id":172732,"code":"B4KJ201801006-0981","latitude":"34.248006","longitude":"135.238883","source_code":"KK51352199043","project_name":"","survey_name":"\u5e73\u621011\u5e74\u5ea6\u7d00\u30ce\u5ddd\u5927\u5830\u6cb3\u5e8a\u5730\u8cea\u8abf\u67fb\u696d\u52d9","client_name":"\u56fd\u571f\u4ea4\u901a\u7701\u8fd1\u757f\u5730\u65b9\u6574\u5099\u5c40\u548c\u6b4c\u5c71\u6cb3\u5ddd\u56fd\u9053\u4e8b\u52d9\u6240","boring_xml_url":40,"boring_view_url":1,"soilmap_view_url":null,"soiltest_xml_url":0,"soiltest_view_url":0},{"id":172731,"code":"B4KJ201801006-0980","latitude":"34.248006","longitude":"135.236939","source_code":"KK51352199042","project_name":"","survey_name":"\u5e73\u621011\u5e74\u5ea6\u7d00\u30ce\u5ddd\u5927\u5830\u6cb3\u5e8a\u5730\u8cea\u8abf\u67fb\u696d\u52d9","client_name":"\u56fd\u571f\u4ea4\u901a\u7701\u8fd1\u757f\u5730\u65b9\u6574\u5099\u5c40\u548c\u6b4c\u5c71\u6cb3\u5ddd\u56fd\u9053\u4e8b\u52d9\u6240","boring_xml_url":40,"boring_view_url":1,"soilmap_view_url":null,"soiltest_xml_url":0,"soiltest_view_url":0},{"id":172730,"code":"B4KJ201801006-0979","latitude":"34.246342","longitude":"135.246106","source_code":"KK51352199041","project_name":"","survey_name":"\u5e73\u621011\u5e74\u5ea6\u7d00\u30ce\u5ddd\u5927\u5830\u6cb3\u5e8a\u5730\u8cea\u8abf\u67fb\u696d\u52d9","client_name":"\u56fd\u571f\u4ea4\u901a\u7701\u8fd1\u757f\u5730\u65b9\u6574\u5099\u5c40\u548c\u6b4c\u5c71\u6cb3\u5ddd\u56fd\u9053\u4e8b\u52d9\u6240","boring_xml_url":40,"boring_view_url":1,"soilmap_view_url":null,"soiltest_xml_url":0,"soiltest_view_url":0},{"id":172729,"code":"B4KJ201801006-0978","latitude":"34.246064","longitude":"135.244439","source_code":"KK51352199040","project_name":"","survey_name":"\u5e73\u621011\u5e74\u5ea6\u7d00\u30ce\u5ddd\u5927\u5830\u6cb3\u5e8a\u5730\u8cea\u8abf\u67fb\u696d\u52d9","client_name":"\u56fd\u571f\u4ea4\u901a\u7701\u8fd1\u757f\u5730\u65b9\u6574\u5099\u5c40\u548c\u6b4c\u5c71\u6cb3\u5ddd\u56fd\u9053\u4e8b\u52d9\u6240","boring_xml_url":40,"boring_view_url":1,"soilmap_view_url":null,"soiltest_xml_url":0,"soiltest_view_url":0},{"id":172728,"code":"B4KJ201801006-0977","latitude":"34.246064","longitude":"135.242217","source_code":"KK51352199039","project_name":"","survey_name":"\u5e73\u621011\u5e74\u5ea6\u7d00\u30ce\u5ddd\u5927\u5830\u6cb3\u5e8a\u5730\u8cea\u8abf\u67fb\u696d\u52d9","client_name":"\u56fd\u571f\u4ea4\u901a\u7701\u8fd1\u757f\u5730\u65b9\u6574\u5099\u5c40\u548c\u6b4c\u5c71\u6cb3\u5ddd\u56fd\u9053\u4e8b\u52d9\u6240","boring_xml_url":40,"boring_view_url":1,"soilmap_view_url":null,"soiltest_xml_url":0,"soiltest_view_url":0},{"id":172727,"code":"B4KJ201801006-0976","latitude":"34.246064","longitude":"135.239994","source_code":"KK51352199038","project_name":"","survey_name":"\u5e73\u621011\u5e74\u5ea6\u7d00\u30ce\u5ddd\u5927\u5830\u6cb3\u5e8a\u5730\u8cea\u8abf\u67fb\u696d\u52d9","client_name":"\u56fd\u571f\u4ea4\u901a\u7701\u8fd1\u757f\u5730\u65b9\u6574\u5099\u5c40\u548c\u6b4c\u5c71\u6cb3\u5ddd\u56fd\u9053\u4e8b\u52d9\u6240","boring_xml_url":40,"boring_view_url":1,"soilmap_view_url":null,"soiltest_xml_url":0,"soiltest_view_url":0},{"id":172726,"code":"B4KJ201801006-0975","latitude":"34.245786","longitude":"135.237494","source_code":"KK51352199037","project_name":"","survey_name":"\u5e73\u621011\u5e74\u5ea6\u7d00\u30ce\u5ddd\u5927\u5830\u6cb3\u5e8a\u5730\u8cea\u8abf\u67fb\u696d\u52d9","client_name":"\u56fd\u571f\u4ea4\u901a\u7701\u8fd1\u757f\u5730\u65b9\u6574\u5099\u5c40\u548c\u6b4c\u5c71\u6cb3\u5ddd\u56fd\u9053\u4e8b\u52d9\u6240","boring_xml_url":40,"boring_view_url":1,"soilmap_view_url":null,"soiltest_xml_url":0,"soiltest_view_url":0},{"id":172725,"code":"B4KJ201801006-0974","latitude":"34.245786","longitude":"135.235272","source_code":"KK51352199036","project_name":"","survey_name":"\u5e73\u621011\u5e74\u5ea6\u7d00\u30ce\u5ddd\u5927\u5830\u6cb3\u5e8a\u5730\u8cea\u8abf\u67fb\u696d\u52d9","client_name":"\u56fd\u571f\u4ea4\u901a\u7701\u8fd1\u757f\u5730\u65b9\u6574\u5099\u5c40\u548c\u6b4c\u5c71\u6cb3\u5ddd\u56fd\u9053\u4e8b\u52d9\u6240","boring_xml_url":40,"boring_view_url":1,"soilmap_view_url":null,"soiltest_xml_url":0,"soiltest_view_url":0},{"id":172724,"code":"B4KJ201801006-0973","latitude":"34.2498678","longitude":"135.2421061","source_code":"KK51352199013","project_name":"","survey_name":"\u5e73\u62108\u5e74\u5ea6\u7d00\u306e\u5ddd\u5927\u5830\u95a2\u9023\u897f\u7530\u4e95\u5730\u533a\u571f\u8cea\u8abf\u67fb\u696d\u52d9","client_name":"\u56fd\u571f\u4ea4\u901a\u7701\u8fd1\u757f\u5730\u65b9\u6574\u5099\u5c40\u548c\u6b4c\u5c71\u6cb3\u5ddd\u56fd\u9053\u4e8b\u52d9\u6240","boring_xml_url":40,"boring_view_url":1,"soilmap_view_url":null,"soiltest_xml_url":0,"soiltest_view_url":0},{"id":172723,"code":"B4KJ201801006-0972","latitude":"34.25045","longitude":"135.239967","source_code":"KK51352199012","project_name":"","survey_name":"\u5e73\u62108\u5e74\u5ea6\u7d00\u306e\u5ddd\u5927\u5830\u95a2\u9023\u897f\u7530\u4e95\u5730\u533a\u571f\u8cea\u8abf\u67fb\u696d\u52d9","client_name":"\u56fd\u571f\u4ea4\u901a\u7701\u8fd1\u757f\u5730\u65b9\u6574\u5099\u5c40\u548c\u6b4c\u5c71\u6cb3\u5ddd\u56fd\u9053\u4e8b\u52d9\u6240","boring_xml_url":40,"boring_view_url":1,"soilmap_view_url":null,"soiltest_xml_url":0,"soiltest_view_url":0},{"id":172722,"code":"B4KJ201801006-0971","latitude":"34.250033","longitude":"135.237744","source_code":"KK51352199011","project_name":"","survey_name":"\u5e73\u62108\u5e74\u5ea6\u7d00\u306e\u5ddd\u5927\u5830\u95a2\u9023\u897f\u7530\u4e95\u5730\u533a\u571f\u8cea\u8abf\u67fb\u696d\u52d9","client_name":"\u56fd\u571f\u4ea4\u901a\u7701\u8fd1\u757f\u5730\u65b9\u6574\u5099\u5c40\u548c\u6b4c\u5c71\u6cb3\u5ddd\u56fd\u9053\u4e8b\u52d9\u6240","boring_xml_url":40,"boring_view_url":1,"soilmap_view_url":null,"soiltest_xml_url":0,"soiltest_view_url":0},{"id":172721,"code":"B4KJ201801006-0970","latitude":"34.250867","longitude":"135.237939","source_code":"KK51352199010","project_name":"","survey_name":"\u5e73\u62108\u5e74\u5ea6\u7d00\u306e\u5ddd\u5927\u5830\u95a2\u9023\u897f\u7530\u4e95\u5730\u533a\u571f\u8cea\u8abf\u67fb\u696d\u52d9","client_name":"\u56fd\u571f\u4ea4\u901a\u7701\u8fd1\u757f\u5730\u65b9\u6574\u5099\u5c40\u548c\u6b4c\u5c71\u6cb3\u5ddd\u56fd\u9053\u4e8b\u52d9\u6240","boring_xml_url":40,"boring_view_url":1,"soilmap_view_url":null,"soiltest_xml_url":0,"soiltest_view_url":0},{"id":172720,"code":"B4KJ201801006-0969","latitude":"34.250811","longitude":"135.2358","source_code":"KK51352199009","project_name":"","survey_name":"\u5e73\u62108\u5e74\u5ea6\u7d00\u306e\u5ddd\u5927\u5830\u95a2\u9023\u897f\u7530\u4e95\u5730\u533a\u571f\u8cea\u8abf\u67fb\u696d\u52d9","client_name":"\u56fd\u571f\u4ea4\u901a\u7701\u8fd1\u757f\u5730\u65b9\u6574\u5099\u5c40\u548c\u6b4c\u5c71\u6cb3\u5ddd\u56fd\u9053\u4e8b\u52d9\u6240","boring_xml_url":40,"boring_view_url":1,"soilmap_view_url":null,"soiltest_xml_url":0,"soiltest_view_url":0},{"id":172719,"code":"B4KJ201801006-0968","latitude":"34.2456183","longitude":"135.2466614","source_code":"KK51352199008","project_name":"","survey_name":"\u5e73\u6210\u5143\u5e74\u5ea6\u548c\u4f50\u5730\u533a\u571f\u8cea\u8abf\u67fb\u4f5c\u696d","client_name":"\u56fd\u571f\u4ea4\u901a\u7701\u8fd1\u757f\u5730\u65b9\u6574\u5099\u5c40\u548c\u6b4c\u5c71\u6cb3\u5ddd\u56fd\u9053\u4e8b\u52d9\u6240","boring_xml_url":40,"boring_view_url":1,"soilmap_view_url":null,"soiltest_xml_url":0,"soiltest_view_url":0},{"id":172718,"code":"B4KJ201801006-0967","latitude":"34.2456183","longitude":"135.244495","source_code":"KK51352199007","project_name":"","survey_name":"\u5e73\u6210\u5143\u5e74\u5ea6\u548c\u4f50\u5730\u533a\u571f\u8cea\u8abf\u67fb\u4f5c\u696d","client_name":"\u56fd\u571f\u4ea4\u901a\u7701\u8fd1\u757f\u5730\u65b9\u6574\u5099\u5c40\u548c\u6b4c\u5c71\u6cb3\u5ddd\u56fd\u9053\u4e8b\u52d9\u6240","boring_xml_url":40,"boring_view_url":1,"soilmap_view_url":null,"soiltest_xml_url":0,"soiltest_view_url":0},{"id":172717,"code":"B4KJ201801006-0966","latitude":"34.2518953","longitude":"135.2416617","source_code":"KK51352199006","project_name":"","survey_name":"\u5e73\u6210\u5143\u5e74\u5ea6\u6c38\u7a42\u5730\u533a\u5730\u4e0b\u6c34\u89b3\u6e2c\u6240\u8a2d\u7f6e\u305d\u306e\u4ed6\u4f5c\u696d","client_name":"\u56fd\u571f\u4ea4\u901a\u7701\u8fd1\u757f\u5730\u65b9\u6574\u5099\u5c40\u548c\u6b4c\u5c71\u6cb3\u5ddd\u56fd\u9053\u4e8b\u52d9\u6240","boring_xml_url":40,"boring_view_url":1,"soilmap_view_url":null,"soiltest_xml_url":0,"soiltest_view_url":0},{"id":172716,"code":"B4KJ201801006-0965","latitude":"34.2505064","longitude":"135.2388842","source_code":"KK51352199005","project_name":"","survey_name":"\u5e73\u6210\u5143\u5e74\u5ea6\u6c38\u7a42\u5730\u533a\u5730\u4e0b\u6c34\u89b3\u6e2c\u6240\u8a2d\u7f6e\u305d\u306e\u4ed6\u4f5c\u696d","client_name":"\u56fd\u571f\u4ea4\u901a\u7701\u8fd1\u757f\u5730\u65b9\u6574\u5099\u5c40\u548c\u6b4c\u5c71\u6cb3\u5ddd\u56fd\u9053\u4e8b\u52d9\u6240","boring_xml_url":40,"boring_view_url":1,"soilmap_view_url":null,"soiltest_xml_url":0,"soiltest_view_url":0},{"id":172715,"code":"B4KJ201801006-0964","latitude":"34.2505064","longitude":"135.2374953","source_code":"KK51352199004","project_name":"","survey_name":"\u5e73\u6210\u5143\u5e74\u5ea6\u6c38\u7a42\u5730\u533a\u5730\u4e0b\u6c34\u89b3\u6e2c\u6240\u8a2d\u7f6e\u305d\u306e\u4ed6\u4f5c\u696d","client_name":"\u56fd\u571f\u4ea4\u901a\u7701\u8fd1\u757f\u5730\u65b9\u6574\u5099\u5c40\u548c\u6b4c\u5c71\u6cb3\u5ddd\u56fd\u9053\u4e8b\u52d9\u6240","boring_xml_url":40,"boring_view_url":1,"soilmap_view_url":null,"soiltest_xml_url":0,"soiltest_view_url":0},{"id":172714,"code":"B4KJ201801006-0963","latitude":"34.2456181","longitude":"135.2401064","source_code":"KK51352199003","project_name":"","survey_name":"\u5e73\u6210\u5143\u5e74\u5ea6\u548c\u4f50\u5730\u533a\u571f\u8cea\u8abf\u67fb\u4f5c\u696d","client_name":"\u56fd\u571f\u4ea4\u901a\u7701\u8fd1\u757f\u5730\u65b9\u6574\u5099\u5c40\u548c\u6b4c\u5c71\u6cb3\u5ddd\u56fd\u9053\u4e8b\u52d9\u6240","boring_xml_url":40,"boring_view_url":1,"soilmap_view_url":null,"soiltest_xml_url":0,"soiltest_view_url":0},{"id":172713,"code":"B4KJ201801006-0962","latitude":"34.246203","longitude":"135.2378","source_code":"KK51352199002","project_name":"","survey_name":"\u5e73\u6210\u5143\u5e74\u5ea6\u548c\u4f50\u5730\u533a\u571f\u8cea\u8abf\u67fb\u4f5c\u696d","client_name":"\u56fd\u571f\u4ea4\u901a\u7701\u8fd1\u757f\u5730\u65b9\u6574\u5099\u5c40\u548c\u6b4c\u5c71\u6cb3\u5ddd\u56fd\u9053\u4e8b\u52d9\u6240","boring_xml_url":40,"boring_view_url":1,"soilmap_view_url":null,"soiltest_xml_url":0,"soiltest_view_url":0},{"id":172712,"code":"B4KJ201801006-0961","latitude":"34.245564","longitude":"135.234914","source_code":"KK51352199001","project_name":"","survey_name":"\u5e73\u6210\u5143\u5e74\u5ea6\u548c\u4f50\u5730\u533a\u571f\u8cea\u8abf\u67fb\u4f5c\u696d","client_name":"\u56fd\u571f\u4ea4\u901a\u7701\u8fd1\u757f\u5730\u65b9\u6574\u5099\u5c40\u548c\u6b4c\u5c71\u6cb3\u5ddd\u56fd\u9053\u4e8b\u52d9\u6240","boring_xml_url":40,"boring_view_url":1,"soilmap_view_url":null,"soiltest_xml_url":0,"soiltest_view_url":0},{"id":172711,"code":"B4KJ201801006-0960","latitude":"34.248006","longitude":"135.234439","source_code":"KK51352198041","project_name":"","survey_name":"\u5e73\u621011\u5e74\u5ea6\u7d00\u30ce\u5ddd\u5927\u5830\u6cb3\u5e8a\u5730\u8cea\u8abf\u67fb\u696d\u52d9","client_name":"\u56fd\u571f\u4ea4\u901a\u7701\u8fd1\u757f\u5730\u65b9\u6574\u5099\u5c40\u548c\u6b4c\u5c71\u6cb3\u5ddd\u56fd\u9053\u4e8b\u52d9\u6240","boring_xml_url":40,"boring_view_url":1,"soilmap_view_url":null,"soiltest_xml_url":0,"soiltest_view_url":0},{"id":172710,"code":"B4KJ201801006-0959","latitude":"34.248561","longitude":"135.230553","source_code":"KK51352198039","project_name":"","survey_name":"\u5e73\u621011\u5e74\u5ea6\u7d00\u30ce\u5ddd\u5927\u5830\u6cb3\u5e8a\u5730\u8cea\u8abf\u67fb\u696d\u52d9","client_name":"\u56fd\u571f\u4ea4\u901a\u7701\u8fd1\u757f\u5730\u65b9\u6574\u5099\u5c40\u548c\u6b4c\u5c71\u6cb3\u5ddd\u56fd\u9053\u4e8b\u52d9\u6240","boring_xml_url":40,"boring_view_url":1,"soilmap_view_url":null,"soiltest_xml_url":0,"soiltest_view_url":0},{"id":172709,"code":"B4KJ201801006-0958","latitude":"34.248839","longitude":"135.223886","source_code":"KK51352198038","project_name":"","survey_name":"\u5e73\u621011\u5e74\u5ea6\u7d00\u30ce\u5ddd\u5927\u5830\u6cb3\u5e8a\u5730\u8cea\u8abf\u67fb\u696d\u52d9","client_name":"\u56fd\u571f\u4ea4\u901a\u7701\u8fd1\u757f\u5730\u65b9\u6574\u5099\u5c40\u548c\u6b4c\u5c71\u6cb3\u5ddd\u56fd\u9053\u4e8b\u52d9\u6240","boring_xml_url":40,"boring_view_url":1,"soilmap_view_url":null,"soiltest_xml_url":0,"soiltest_view_url":0},{"id":172708,"code":"B4KJ201801006-0957","latitude":"34.245786","longitude":"135.232775","source_code":"KK51352198037","project_name":"","survey_name":"\u5e73\u621011\u5e74\u5ea6\u7d00\u30ce\u5ddd\u5927\u5830\u6cb3\u5e8a\u5730\u8cea\u8abf\u67fb\u696d\u52d9","client_name":"\u56fd\u571f\u4ea4\u901a\u7701\u8fd1\u757f\u5730\u65b9\u6574\u5099\u5c40\u548c\u6b4c\u5c71\u6cb3\u5ddd\u56fd\u9053\u4e8b\u52d9\u6240","boring_xml_url":40,"boring_view_url":1,"soilmap_view_url":null,"soiltest_xml_url":0,"soiltest_view_url":0},{"id":172707,"code":"B4KJ201801006-0956","latitude":"34.246061","longitude":"135.230831","source_code":"KK51352198036","project_name":"","survey_name":"\u5e73\u621011\u5e74\u5ea6\u7d00\u30ce\u5ddd\u5927\u5830\u6cb3\u5e8a\u5730\u8cea\u8abf\u67fb\u696d\u52d9","client_name":"\u56fd\u571f\u4ea4\u901a\u7701\u8fd1\u757f\u5730\u65b9\u6574\u5099\u5c40\u548c\u6b4c\u5c71\u6cb3\u5ddd\u56fd\u9053\u4e8b\u52d9\u6240","boring_xml_url":40,"boring_view_url":1,"soilmap_view_url":null,"soiltest_xml_url":0,"soiltest_view_url":0},{"id":172706,"code":"B4KJ201801006-0955","latitude":"34.246339","longitude":"135.228608","source_code":"KK51352198035","project_name":"","survey_name":"\u5e73\u621011\u5e74\u5ea6\u7d00\u30ce\u5ddd\u5927\u5830\u6cb3\u5e8a\u5730\u8cea\u8abf\u67fb\u696d\u52d9","client_name":"\u56fd\u571f\u4ea4\u901a\u7701\u8fd1\u757f\u5730\u65b9\u6574\u5099\u5c40\u548c\u6b4c\u5c71\u6cb3\u5ddd\u56fd\u9053\u4e8b\u52d9\u6240","boring_xml_url":40,"boring_view_url":1,"soilmap_view_url":null,"soiltest_xml_url":0,"soiltest_view_url":0}]}}