{"header":{"xyz":{"source":[],"mosaic":false},"page":493,"raw":{"soiltest_result":"0","bbox":"57.598333,109.544722,1.933333,163.806111","page":"493"},"conditions":{"soiltest_result":0,"north":57.598333,"west":109.544722,"south":1.933333,"east":163.806111},"success":true,"message":""},"data":{"meta":{"total":212844,"page":493,"pages":7095,"count":30},"values":[{"id":530628,"code":"B4KJ202201003-3164","latitude":"33.363678","longitude":"130.678","source_code":"QS20138930600200410019","project_name":"","survey_name":"\u5e73\u621025\u5e74\u5ea6\u3000\u7b51\u5f8c\u5ddd\u4e2d\u6d41\u5730\u533a\u5824\u9632\u8cea\u7684\u5f37\u5316\u8abf\u67fb\u691c\u8a0e\u696d\u52d9","client_name":"\"\u56fd\u571f\u4ea4\u901a\u7701\u4e5d\u5dde\u5730\u65b9\u6574\u5099\u5c40 \u7b51\u5f8c\u5ddd\u6cb3\u5ddd\u4e8b\u52d9\u6240\"","boring_xml_url":72,"boring_view_url":1,"soilmap_view_url":null,"soiltest_xml_url":0,"soiltest_view_url":0},{"id":530627,"code":"B4KJ202201003-3163","latitude":"33.363419","longitude":"130.678072","source_code":"QS20138930600200410018","project_name":"","survey_name":"\u5e73\u621025\u5e74\u5ea6\u3000\u7b51\u5f8c\u5ddd\u4e2d\u6d41\u5730\u533a\u5824\u9632\u8cea\u7684\u5f37\u5316\u8abf\u67fb\u691c\u8a0e\u696d\u52d9","client_name":"\"\u56fd\u571f\u4ea4\u901a\u7701\u4e5d\u5dde\u5730\u65b9\u6574\u5099\u5c40 \u7b51\u5f8c\u5ddd\u6cb3\u5ddd\u4e8b\u52d9\u6240\"","boring_xml_url":72,"boring_view_url":1,"soilmap_view_url":null,"soiltest_xml_url":0,"soiltest_view_url":0},{"id":530626,"code":"B4KJ202201003-3162","latitude":"33.344906","longitude":"130.611347","source_code":"QS20138930600200410017","project_name":"","survey_name":"\u5e73\u621025\u5e74\u5ea6\u3000\u7b51\u5f8c\u5ddd\u4e2d\u6d41\u5730\u533a\u5824\u9632\u8cea\u7684\u5f37\u5316\u8abf\u67fb\u691c\u8a0e\u696d\u52d9","client_name":"\"\u56fd\u571f\u4ea4\u901a\u7701\u4e5d\u5dde\u5730\u65b9\u6574\u5099\u5c40 \u7b51\u5f8c\u5ddd\u6cb3\u5ddd\u4e8b\u52d9\u6240\"","boring_xml_url":72,"boring_view_url":1,"soilmap_view_url":null,"soiltest_xml_url":0,"soiltest_view_url":0},{"id":530625,"code":"B4KJ202201003-3161","latitude":"33.344836","longitude":"130.611342","source_code":"QS20138930600200410016","project_name":"","survey_name":"\u5e73\u621025\u5e74\u5ea6\u3000\u7b51\u5f8c\u5ddd\u4e2d\u6d41\u5730\u533a\u5824\u9632\u8cea\u7684\u5f37\u5316\u8abf\u67fb\u691c\u8a0e\u696d\u52d9","client_name":"\"\u56fd\u571f\u4ea4\u901a\u7701\u4e5d\u5dde\u5730\u65b9\u6574\u5099\u5c40 \u7b51\u5f8c\u5ddd\u6cb3\u5ddd\u4e8b\u52d9\u6240\"","boring_xml_url":72,"boring_view_url":1,"soilmap_view_url":null,"soiltest_xml_url":0,"soiltest_view_url":0},{"id":530624,"code":"B4KJ202201003-3160","latitude":"33.344533","longitude":"130.602136","source_code":"QS20138930600200410015","project_name":"","survey_name":"\u5e73\u621025\u5e74\u5ea6\u3000\u7b51\u5f8c\u5ddd\u4e2d\u6d41\u5730\u533a\u5824\u9632\u8cea\u7684\u5f37\u5316\u8abf\u67fb\u691c\u8a0e\u696d\u52d9","client_name":"\"\u56fd\u571f\u4ea4\u901a\u7701\u4e5d\u5dde\u5730\u65b9\u6574\u5099\u5c40 \u7b51\u5f8c\u5ddd\u6cb3\u5ddd\u4e8b\u52d9\u6240\"","boring_xml_url":72,"boring_view_url":1,"soilmap_view_url":null,"soiltest_xml_url":0,"soiltest_view_url":0},{"id":530623,"code":"B4KJ202201003-3159","latitude":"33.343886","longitude":"130.600706","source_code":"QS20138930600200410014","project_name":"","survey_name":"\u5e73\u621025\u5e74\u5ea6\u3000\u7b51\u5f8c\u5ddd\u4e2d\u6d41\u5730\u533a\u5824\u9632\u8cea\u7684\u5f37\u5316\u8abf\u67fb\u691c\u8a0e\u696d\u52d9","client_name":"\"\u56fd\u571f\u4ea4\u901a\u7701\u4e5d\u5dde\u5730\u65b9\u6574\u5099\u5c40 \u7b51\u5f8c\u5ddd\u6cb3\u5ddd\u4e8b\u52d9\u6240\"","boring_xml_url":72,"boring_view_url":1,"soilmap_view_url":null,"soiltest_xml_url":0,"soiltest_view_url":0},{"id":530622,"code":"B4KJ202201003-3158","latitude":"33.334506","longitude":"130.586872","source_code":"QS20138930600200410013","project_name":"","survey_name":"\u5e73\u621025\u5e74\u5ea6\u3000\u7b51\u5f8c\u5ddd\u4e2d\u6d41\u5730\u533a\u5824\u9632\u8cea\u7684\u5f37\u5316\u8abf\u67fb\u691c\u8a0e\u696d\u52d9","client_name":"\"\u56fd\u571f\u4ea4\u901a\u7701\u4e5d\u5dde\u5730\u65b9\u6574\u5099\u5c40 \u7b51\u5f8c\u5ddd\u6cb3\u5ddd\u4e8b\u52d9\u6240\"","boring_xml_url":72,"boring_view_url":1,"soilmap_view_url":null,"soiltest_xml_url":0,"soiltest_view_url":0},{"id":530621,"code":"B4KJ202201003-3157","latitude":"33.334456","longitude":"130.58695","source_code":"QS20138930600200410012","project_name":"","survey_name":"\u5e73\u621025\u5e74\u5ea6\u3000\u7b51\u5f8c\u5ddd\u4e2d\u6d41\u5730\u533a\u5824\u9632\u8cea\u7684\u5f37\u5316\u8abf\u67fb\u691c\u8a0e\u696d\u52d9","client_name":"\"\u56fd\u571f\u4ea4\u901a\u7701\u4e5d\u5dde\u5730\u65b9\u6574\u5099\u5c40 \u7b51\u5f8c\u5ddd\u6cb3\u5ddd\u4e8b\u52d9\u6240\"","boring_xml_url":72,"boring_view_url":1,"soilmap_view_url":null,"soiltest_xml_url":0,"soiltest_view_url":0},{"id":530620,"code":"B4KJ202201003-3156","latitude":"33.294131","longitude":"130.452586","source_code":"QS20138930600200410011","project_name":"","survey_name":"\u5e73\u621025\u5e74\u5ea6\u3000\u7b51\u5f8c\u5ddd\u4e2d\u6d41\u5730\u533a\u5824\u9632\u8cea\u7684\u5f37\u5316\u8abf\u67fb\u691c\u8a0e\u696d\u52d9","client_name":"\"\u56fd\u571f\u4ea4\u901a\u7701\u4e5d\u5dde\u5730\u65b9\u6574\u5099\u5c40 \u7b51\u5f8c\u5ddd\u6cb3\u5ddd\u4e8b\u52d9\u6240\"","boring_xml_url":72,"boring_view_url":1,"soilmap_view_url":null,"soiltest_xml_url":0,"soiltest_view_url":0},{"id":530619,"code":"B4KJ202201003-3155","latitude":"33.294072","longitude":"130.452761","source_code":"QS20138930600200410010","project_name":"","survey_name":"\u5e73\u621025\u5e74\u5ea6\u3000\u7b51\u5f8c\u5ddd\u4e2d\u6d41\u5730\u533a\u5824\u9632\u8cea\u7684\u5f37\u5316\u8abf\u67fb\u691c\u8a0e\u696d\u52d9","client_name":"\"\u56fd\u571f\u4ea4\u901a\u7701\u4e5d\u5dde\u5730\u65b9\u6574\u5099\u5c40 \u7b51\u5f8c\u5ddd\u6cb3\u5ddd\u4e8b\u52d9\u6240\"","boring_xml_url":72,"boring_view_url":1,"soilmap_view_url":null,"soiltest_xml_url":0,"soiltest_view_url":0},{"id":530618,"code":"B4KJ202201003-3154","latitude":"33.294083","longitude":"130.452942","source_code":"QS20138930600200410009","project_name":"","survey_name":"\u5e73\u621025\u5e74\u5ea6\u3000\u7b51\u5f8c\u5ddd\u4e2d\u6d41\u5730\u533a\u5824\u9632\u8cea\u7684\u5f37\u5316\u8abf\u67fb\u691c\u8a0e\u696d\u52d9","client_name":"\"\u56fd\u571f\u4ea4\u901a\u7701\u4e5d\u5dde\u5730\u65b9\u6574\u5099\u5c40 \u7b51\u5f8c\u5ddd\u6cb3\u5ddd\u4e8b\u52d9\u6240\"","boring_xml_url":72,"boring_view_url":1,"soilmap_view_url":null,"soiltest_xml_url":0,"soiltest_view_url":0},{"id":530617,"code":"B4KJ202201003-3153","latitude":"33.359903","longitude":"130.690344","source_code":"QS20138930600200410008","project_name":"","survey_name":"\u5e73\u621025\u5e74\u5ea6\u3000\u7b51\u5f8c\u5ddd\u4e2d\u6d41\u5730\u533a\u5824\u9632\u8cea\u7684\u5f37\u5316\u8abf\u67fb\u691c\u8a0e\u696d\u52d9","client_name":"\"\u56fd\u571f\u4ea4\u901a\u7701\u4e5d\u5dde\u5730\u65b9\u6574\u5099\u5c40 \u7b51\u5f8c\u5ddd\u6cb3\u5ddd\u4e8b\u52d9\u6240\"","boring_xml_url":72,"boring_view_url":1,"soilmap_view_url":null,"soiltest_xml_url":0,"soiltest_view_url":0},{"id":530616,"code":"B4KJ202201003-3152","latitude":"33.360092","longitude":"130.690344","source_code":"QS20138930600200410007","project_name":"","survey_name":"\u5e73\u621025\u5e74\u5ea6\u3000\u7b51\u5f8c\u5ddd\u4e2d\u6d41\u5730\u533a\u5824\u9632\u8cea\u7684\u5f37\u5316\u8abf\u67fb\u691c\u8a0e\u696d\u52d9","client_name":"\"\u56fd\u571f\u4ea4\u901a\u7701\u4e5d\u5dde\u5730\u65b9\u6574\u5099\u5c40 \u7b51\u5f8c\u5ddd\u6cb3\u5ddd\u4e8b\u52d9\u6240\"","boring_xml_url":72,"boring_view_url":1,"soilmap_view_url":null,"soiltest_xml_url":0,"soiltest_view_url":0},{"id":530615,"code":"B4KJ202201003-3151","latitude":"33.360225","longitude":"130.690336","source_code":"QS20138930600200410006","project_name":"","survey_name":"\u5e73\u621025\u5e74\u5ea6\u3000\u7b51\u5f8c\u5ddd\u4e2d\u6d41\u5730\u533a\u5824\u9632\u8cea\u7684\u5f37\u5316\u8abf\u67fb\u691c\u8a0e\u696d\u52d9","client_name":"\"\u56fd\u571f\u4ea4\u901a\u7701\u4e5d\u5dde\u5730\u65b9\u6574\u5099\u5c40 \u7b51\u5f8c\u5ddd\u6cb3\u5ddd\u4e8b\u52d9\u6240\"","boring_xml_url":72,"boring_view_url":1,"soilmap_view_url":null,"soiltest_xml_url":0,"soiltest_view_url":0},{"id":530614,"code":"B4KJ202201003-3150","latitude":"33.333283","longitude":"130.591553","source_code":"QS20138930600200410005","project_name":"","survey_name":"\u5e73\u621025\u5e74\u5ea6\u3000\u7b51\u5f8c\u5ddd\u4e2d\u6d41\u5730\u533a\u5824\u9632\u8cea\u7684\u5f37\u5316\u8abf\u67fb\u691c\u8a0e\u696d\u52d9","client_name":"\"\u56fd\u571f\u4ea4\u901a\u7701\u4e5d\u5dde\u5730\u65b9\u6574\u5099\u5c40 \u7b51\u5f8c\u5ddd\u6cb3\u5ddd\u4e8b\u52d9\u6240\"","boring_xml_url":72,"boring_view_url":1,"soilmap_view_url":null,"soiltest_xml_url":0,"soiltest_view_url":0},{"id":530613,"code":"B4KJ202201003-3149","latitude":"33.333336","longitude":"130.591497","source_code":"QS20138930600200410004","project_name":"","survey_name":"\u5e73\u621025\u5e74\u5ea6\u3000\u7b51\u5f8c\u5ddd\u4e2d\u6d41\u5730\u533a\u5824\u9632\u8cea\u7684\u5f37\u5316\u8abf\u67fb\u691c\u8a0e\u696d\u52d9","client_name":"\"\u56fd\u571f\u4ea4\u901a\u7701\u4e5d\u5dde\u5730\u65b9\u6574\u5099\u5c40 \u7b51\u5f8c\u5ddd\u6cb3\u5ddd\u4e8b\u52d9\u6240\"","boring_xml_url":72,"boring_view_url":1,"soilmap_view_url":null,"soiltest_xml_url":0,"soiltest_view_url":0},{"id":530612,"code":"B4KJ202201003-3148","latitude":"33.33345","longitude":"130.591358","source_code":"QS20138930600200410003","project_name":"","survey_name":"\u5e73\u621025\u5e74\u5ea6\u3000\u7b51\u5f8c\u5ddd\u4e2d\u6d41\u5730\u533a\u5824\u9632\u8cea\u7684\u5f37\u5316\u8abf\u67fb\u691c\u8a0e\u696d\u52d9","client_name":"\"\u56fd\u571f\u4ea4\u901a\u7701\u4e5d\u5dde\u5730\u65b9\u6574\u5099\u5c40 \u7b51\u5f8c\u5ddd\u6cb3\u5ddd\u4e8b\u52d9\u6240\"","boring_xml_url":72,"boring_view_url":1,"soilmap_view_url":null,"soiltest_xml_url":0,"soiltest_view_url":0},{"id":530611,"code":"B4KJ202201003-3147","latitude":"33.32605","longitude":"130.578164","source_code":"QS20138930600200410002","project_name":"","survey_name":"\u5e73\u621025\u5e74\u5ea6\u3000\u7b51\u5f8c\u5ddd\u4e2d\u6d41\u5730\u533a\u5824\u9632\u8cea\u7684\u5f37\u5316\u8abf\u67fb\u691c\u8a0e\u696d\u52d9","client_name":"\"\u56fd\u571f\u4ea4\u901a\u7701\u4e5d\u5dde\u5730\u65b9\u6574\u5099\u5c40 \u7b51\u5f8c\u5ddd\u6cb3\u5ddd\u4e8b\u52d9\u6240\"","boring_xml_url":72,"boring_view_url":1,"soilmap_view_url":null,"soiltest_xml_url":0,"soiltest_view_url":0},{"id":530610,"code":"B4KJ202201003-3146","latitude":"33.326117","longitude":"130.578161","source_code":"QS20138930600200410001","project_name":"","survey_name":"\u5e73\u621025\u5e74\u5ea6\u3000\u7b51\u5f8c\u5ddd\u4e2d\u6d41\u5730\u533a\u5824\u9632\u8cea\u7684\u5f37\u5316\u8abf\u67fb\u691c\u8a0e\u696d\u52d9","client_name":"\"\u56fd\u571f\u4ea4\u901a\u7701\u4e5d\u5dde\u5730\u65b9\u6574\u5099\u5c40 \u7b51\u5f8c\u5ddd\u6cb3\u5ddd\u4e8b\u52d9\u6240\"","boring_xml_url":72,"boring_view_url":1,"soilmap_view_url":null,"soiltest_xml_url":0,"soiltest_view_url":0},{"id":530609,"code":"B4KJ202201003-3145","latitude":"33.247889","longitude":"130.243722","source_code":"QS20138930600200280013","project_name":"\"\u5e73\u621025\u5e74\u5ea6 \u5609\u702c\u5ddd\u6c34\u53d6\u6a0b\u7ba1\u5916\u8abf\u67fb\u8a2d\u8a08\u696d\u52d9\"","survey_name":"\"\u5e73\u621025\u5e74\u5ea6 \u5609\u702c\u5ddd\u6c34\u53d6\u6a0b\u7ba1\u5916\u8abf\u67fb\u8a2d\u8a08\u696d\u52d9\"","client_name":"\u56fd\u571f\u4ea4\u901a\u7701\u4e5d\u5dde\u5730\u65b9\u6574\u5099\u5c40\u7b51\u5f8c\u5ddd\u6cb3\u5ddd\u4e8b\u52d9\u6240","boring_xml_url":72,"boring_view_url":1,"soilmap_view_url":null,"soiltest_xml_url":0,"soiltest_view_url":0},{"id":530608,"code":"B4KJ202201003-3144","latitude":"33.247111","longitude":"130.243556","source_code":"QS20138930600200280012","project_name":"\"\u5e73\u621025\u5e74\u5ea6 \u5609\u702c\u5ddd\u6c34\u53d6\u6a0b\u7ba1\u5916\u8abf\u67fb\u8a2d\u8a08\u696d\u52d9\"","survey_name":"\"\u5e73\u621025\u5e74\u5ea6 \u5609\u702c\u5ddd\u6c34\u53d6\u6a0b\u7ba1\u5916\u8abf\u67fb\u8a2d\u8a08\u696d\u52d9\"","client_name":"\u56fd\u571f\u4ea4\u901a\u7701\u4e5d\u5dde\u5730\u65b9\u6574\u5099\u5c40\u7b51\u5f8c\u5ddd\u6cb3\u5ddd\u4e8b\u52d9\u6240","boring_xml_url":72,"boring_view_url":1,"soilmap_view_url":null,"soiltest_xml_url":0,"soiltest_view_url":0},{"id":530607,"code":"B4KJ202201003-3143","latitude":"33.250528","longitude":"130.244","source_code":"QS20138930600200280011","project_name":"\"\u5e73\u621025\u5e74\u5ea6 \u5609\u702c\u5ddd\u6c34\u53d6\u6a0b\u7ba1\u5916\u8abf\u67fb\u8a2d\u8a08\u696d\u52d9\"","survey_name":"\"\u5e73\u621025\u5e74\u5ea6 \u5609\u702c\u5ddd\u6c34\u53d6\u6a0b\u7ba1\u5916\u8abf\u67fb\u8a2d\u8a08\u696d\u52d9\"","client_name":"\u56fd\u571f\u4ea4\u901a\u7701\u4e5d\u5dde\u5730\u65b9\u6574\u5099\u5c40\u7b51\u5f8c\u5ddd\u6cb3\u5ddd\u4e8b\u52d9\u6240","boring_xml_url":72,"boring_view_url":1,"soilmap_view_url":null,"soiltest_xml_url":0,"soiltest_view_url":0},{"id":530606,"code":"B4KJ202201003-3142","latitude":"33.250528","longitude":"130.243639","source_code":"QS20138930600200280010","project_name":"\"\u5e73\u621025\u5e74\u5ea6 \u5609\u702c\u5ddd\u6c34\u53d6\u6a0b\u7ba1\u5916\u8abf\u67fb\u8a2d\u8a08\u696d\u52d9\"","survey_name":"\"\u5e73\u621025\u5e74\u5ea6 \u5609\u702c\u5ddd\u6c34\u53d6\u6a0b\u7ba1\u5916\u8abf\u67fb\u8a2d\u8a08\u696d\u52d9\"","client_name":"\u56fd\u571f\u4ea4\u901a\u7701\u4e5d\u5dde\u5730\u65b9\u6574\u5099\u5c40\u7b51\u5f8c\u5ddd\u6cb3\u5ddd\u4e8b\u52d9\u6240","boring_xml_url":72,"boring_view_url":1,"soilmap_view_url":null,"soiltest_xml_url":0,"soiltest_view_url":0},{"id":530605,"code":"B4KJ202201003-3141","latitude":"33.250528","longitude":"130.243722","source_code":"QS20138930600200280009","project_name":"\"\u5e73\u621025\u5e74\u5ea6 \u5609\u702c\u5ddd\u6c34\u53d6\u6a0b\u7ba1\u5916\u8abf\u67fb\u8a2d\u8a08\u696d\u52d9\"","survey_name":"\"\u5e73\u621025\u5e74\u5ea6 \u5609\u702c\u5ddd\u6c34\u53d6\u6a0b\u7ba1\u5916\u8abf\u67fb\u8a2d\u8a08\u696d\u52d9\"","client_name":"\u56fd\u571f\u4ea4\u901a\u7701\u4e5d\u5dde\u5730\u65b9\u6574\u5099\u5c40\u7b51\u5f8c\u5ddd\u6cb3\u5ddd\u4e8b\u52d9\u6240","boring_xml_url":72,"boring_view_url":1,"soilmap_view_url":null,"soiltest_xml_url":0,"soiltest_view_url":0},{"id":530604,"code":"B4KJ202201003-3140","latitude":"33.250556","longitude":"130.243833","source_code":"QS20138930600200280008","project_name":"\"\u5e73\u621025\u5e74\u5ea6 \u5609\u702c\u5ddd\u6c34\u53d6\u6a0b\u7ba1\u5916\u8abf\u67fb\u8a2d\u8a08\u696d\u52d9\"","survey_name":"\"\u5e73\u621025\u5e74\u5ea6 \u5609\u702c\u5ddd\u6c34\u53d6\u6a0b\u7ba1\u5916\u8abf\u67fb\u8a2d\u8a08\u696d\u52d9\"","client_name":"\u56fd\u571f\u4ea4\u901a\u7701\u4e5d\u5dde\u5730\u65b9\u6574\u5099\u5c40\u7b51\u5f8c\u5ddd\u6cb3\u5ddd\u4e8b\u52d9\u6240","boring_xml_url":72,"boring_view_url":1,"soilmap_view_url":null,"soiltest_xml_url":0,"soiltest_view_url":0},{"id":530603,"code":"B4KJ202201003-3139","latitude":"33.25025","longitude":"130.243806","source_code":"QS20138930600200280007","project_name":"\"\u5e73\u621025\u5e74\u5ea6 \u5609\u702c\u5ddd\u6c34\u53d6\u6a0b\u7ba1\u5916\u8abf\u67fb\u8a2d\u8a08\u696d\u52d9\"","survey_name":"\"\u5e73\u621025\u5e74\u5ea6 \u5609\u702c\u5ddd\u6c34\u53d6\u6a0b\u7ba1\u5916\u8abf\u67fb\u8a2d\u8a08\u696d\u52d9\"","client_name":"\u56fd\u571f\u4ea4\u901a\u7701\u4e5d\u5dde\u5730\u65b9\u6574\u5099\u5c40\u7b51\u5f8c\u5ddd\u6cb3\u5ddd\u4e8b\u52d9\u6240","boring_xml_url":72,"boring_view_url":1,"soilmap_view_url":null,"soiltest_xml_url":0,"soiltest_view_url":0},{"id":530602,"code":"B4KJ202201003-3138","latitude":"33.250278","longitude":"130.243472","source_code":"QS20138930600200280006","project_name":"\"\u5e73\u621025\u5e74\u5ea6 \u5609\u702c\u5ddd\u6c34\u53d6\u6a0b\u7ba1\u5916\u8abf\u67fb\u8a2d\u8a08\u696d\u52d9\"","survey_name":"\"\u5e73\u621025\u5e74\u5ea6 \u5609\u702c\u5ddd\u6c34\u53d6\u6a0b\u7ba1\u5916\u8abf\u67fb\u8a2d\u8a08\u696d\u52d9\"","client_name":"\u56fd\u571f\u4ea4\u901a\u7701\u4e5d\u5dde\u5730\u65b9\u6574\u5099\u5c40\u7b51\u5f8c\u5ddd\u6cb3\u5ddd\u4e8b\u52d9\u6240","boring_xml_url":72,"boring_view_url":1,"soilmap_view_url":null,"soiltest_xml_url":0,"soiltest_view_url":0},{"id":530601,"code":"B4KJ202201003-3137","latitude":"33.250167","longitude":"130.244","source_code":"QS20138930600200280005","project_name":"\"\u5e73\u621025\u5e74\u5ea6 \u5609\u702c\u5ddd\u6c34\u53d6\u6a0b\u7ba1\u5916\u8abf\u67fb\u8a2d\u8a08\u696d\u52d9\"","survey_name":"\"\u5e73\u621025\u5e74\u5ea6 \u5609\u702c\u5ddd\u6c34\u53d6\u6a0b\u7ba1\u5916\u8abf\u67fb\u8a2d\u8a08\u696d\u52d9\"","client_name":"\u56fd\u571f\u4ea4\u901a\u7701\u4e5d\u5dde\u5730\u65b9\u6574\u5099\u5c40\u7b51\u5f8c\u5ddd\u6cb3\u5ddd\u4e8b\u52d9\u6240","boring_xml_url":72,"boring_view_url":1,"soilmap_view_url":null,"soiltest_xml_url":0,"soiltest_view_url":0},{"id":530600,"code":"B4KJ202201003-3136","latitude":"33.25","longitude":"130.244","source_code":"QS20138930600200280004","project_name":"\"\u5e73\u621025\u5e74\u5ea6 \u5609\u702c\u5ddd\u6c34\u53d6\u6a0b\u7ba1\u5916\u8abf\u67fb\u8a2d\u8a08\u696d\u52d9\"","survey_name":"\"\u5e73\u621025\u5e74\u5ea6 \u5609\u702c\u5ddd\u6c34\u53d6\u6a0b\u7ba1\u5916\u8abf\u67fb\u8a2d\u8a08\u696d\u52d9\"","client_name":"\u56fd\u571f\u4ea4\u901a\u7701\u4e5d\u5dde\u5730\u65b9\u6574\u5099\u5c40\u7b51\u5f8c\u5ddd\u6cb3\u5ddd\u4e8b\u52d9\u6240","boring_xml_url":72,"boring_view_url":1,"soilmap_view_url":null,"soiltest_xml_url":0,"soiltest_view_url":0},{"id":530599,"code":"B4KJ202201003-3135","latitude":"33.25","longitude":"130.243667","source_code":"QS20138930600200280003","project_name":"\"\u5e73\u621025\u5e74\u5ea6 \u5609\u702c\u5ddd\u6c34\u53d6\u6a0b\u7ba1\u5916\u8abf\u67fb\u8a2d\u8a08\u696d\u52d9\"","survey_name":"\"\u5e73\u621025\u5e74\u5ea6 \u5609\u702c\u5ddd\u6c34\u53d6\u6a0b\u7ba1\u5916\u8abf\u67fb\u8a2d\u8a08\u696d\u52d9\"","client_name":"\u56fd\u571f\u4ea4\u901a\u7701\u4e5d\u5dde\u5730\u65b9\u6574\u5099\u5c40\u7b51\u5f8c\u5ddd\u6cb3\u5ddd\u4e8b\u52d9\u6240","boring_xml_url":72,"boring_view_url":1,"soilmap_view_url":null,"soiltest_xml_url":0,"soiltest_view_url":0}]}}