{"header":{"xyz":{"source":[],"mosaic":false},"page":4933,"raw":{"soiltest_result":"0","bbox":"57.598333,109.544722,1.933333,163.806111","page":"4933"},"conditions":{"soiltest_result":0,"north":57.598333,"west":109.544722,"south":1.933333,"east":163.806111},"success":true,"message":""},"data":{"meta":{"total":212844,"page":4933,"pages":7095,"count":30},"values":[{"id":172585,"code":"B4KJ201801006-0834","latitude":"34.0519169","longitude":"135.2030603","source_code":"KK51350156007","project_name":"","survey_name":"\u6e6f\u6d45BP\u6c34\u5c3b\u5730\u533a\u5730\u8cea\u8abf\u67fb\u305d\u306e2\u4f5c\u696d","client_name":"\u56fd\u571f\u4ea4\u901a\u7701\u8fd1\u757f\u5730\u65b9\u6574\u5099\u5c40\u548c\u6b4c\u5c71\u6cb3\u5ddd\u56fd\u9053\u4e8b\u52d9\u6240","boring_xml_url":40,"boring_view_url":1,"soilmap_view_url":null,"soiltest_xml_url":0,"soiltest_view_url":0},{"id":172584,"code":"B4KJ201801006-0833","latitude":"34.0500561","longitude":"135.2038936","source_code":"KK51350156005","project_name":"","survey_name":"\u6e6f\u6d45\u30d0\u30a4\u30d1\u30b9\u6c34\u5c3b\u5730\u533a\u5730\u8cea\u8abf\u67fb","client_name":"\u56fd\u571f\u4ea4\u901a\u7701\u8fd1\u757f\u5730\u65b9\u6574\u5099\u5c40\u548c\u6b4c\u5c71\u6cb3\u5ddd\u56fd\u9053\u4e8b\u52d9\u6240","boring_xml_url":40,"boring_view_url":1,"soilmap_view_url":null,"soiltest_xml_url":0,"soiltest_view_url":0},{"id":172583,"code":"B4KJ201801006-0832","latitude":"34.0464456","longitude":"135.2048661","source_code":"KK51350156003","project_name":"","survey_name":"\u6e6f\u6d45\u30d0\u30a4\u30d1\u30b9\u718a\u4e95\u5730\u533a\u5730\u8cea\u8abf\u67fb","client_name":"\u56fd\u571f\u4ea4\u901a\u7701\u8fd1\u757f\u5730\u65b9\u6574\u5099\u5c40\u548c\u6b4c\u5c71\u6cb3\u5ddd\u56fd\u9053\u4e8b\u52d9\u6240","boring_xml_url":40,"boring_view_url":1,"soilmap_view_url":null,"soiltest_xml_url":0,"soiltest_view_url":0},{"id":172582,"code":"B4KJ201801006-0831","latitude":"34.0455567","longitude":"135.2046161","source_code":"KK51350156001","project_name":"","survey_name":"\u6e6f\u6d45\u30d0\u30a4\u30d1\u30b9\u718a\u4e95\u5730\u533a\u305d\u306e2\u5730\u8cea\u8abf\u67fb","client_name":"\u56fd\u571f\u4ea4\u901a\u7701\u8fd1\u757f\u5730\u65b9\u6574\u5099\u5c40\u548c\u6b4c\u5c71\u6cb3\u5ddd\u56fd\u9053\u4e8b\u52d9\u6240","boring_xml_url":40,"boring_view_url":1,"soilmap_view_url":null,"soiltest_xml_url":0,"soiltest_view_url":0},{"id":172581,"code":"B4KJ201801006-0830","latitude":"34.0440289","longitude":"135.2036161","source_code":"KK51350146029","project_name":"","survey_name":"\u6e6f\u6d45\u5fa1\u574a\u9053\u8def(1)\u718a\u4e95\u5730\u533a\u5730\u8cea\u8abf\u67fb\u305d\u306e5\u4f5c\u696d","client_name":"\u56fd\u571f\u4ea4\u901a\u7701\u8fd1\u757f\u5730\u65b9\u6574\u5099\u5c40\u548c\u6b4c\u5c71\u6cb3\u5ddd\u56fd\u9053\u4e8b\u52d9\u6240","boring_xml_url":40,"boring_view_url":1,"soilmap_view_url":null,"soiltest_xml_url":0,"soiltest_view_url":0},{"id":172580,"code":"B4KJ201801006-0829","latitude":"34.0439456","longitude":"135.2035606","source_code":"KK51350146028","project_name":"","survey_name":"\u6e6f\u6d45\u5fa1\u574a\u9053\u8def(1)\u718a\u4e95\u5730\u533a\u5730\u8cea\u8abf\u67fb\u305d\u306e5\u4f5c\u696d","client_name":"\u56fd\u571f\u4ea4\u901a\u7701\u8fd1\u757f\u5730\u65b9\u6574\u5099\u5c40\u548c\u6b4c\u5c71\u6cb3\u5ddd\u56fd\u9053\u4e8b\u52d9\u6240","boring_xml_url":40,"boring_view_url":1,"soilmap_view_url":null,"soiltest_xml_url":0,"soiltest_view_url":0},{"id":172579,"code":"B4KJ201801006-0828","latitude":"34.0437233","longitude":"135.2035328","source_code":"KK51350146027","project_name":"","survey_name":"\u6e6f\u6d45\u5fa1\u574a\u9053\u8def(1)\u718a\u4e95\u5730\u533a\u5730\u8cea\u8abf\u67fb\u305d\u306e5\u4f5c\u696d","client_name":"\u56fd\u571f\u4ea4\u901a\u7701\u8fd1\u757f\u5730\u65b9\u6574\u5099\u5c40\u548c\u6b4c\u5c71\u6cb3\u5ddd\u56fd\u9053\u4e8b\u52d9\u6240","boring_xml_url":40,"boring_view_url":1,"soilmap_view_url":null,"soiltest_xml_url":0,"soiltest_view_url":0},{"id":172578,"code":"B4KJ201801006-0827","latitude":"34.0433903","longitude":"135.2035328","source_code":"KK51350146026","project_name":"","survey_name":"\u6e6f\u6d45\u5fa1\u574a\u9053\u8def(1)\u718a\u4e95\u5730\u533a\u5730\u8cea\u8abf\u67fb\u305d\u306e5\u4f5c\u696d","client_name":"\u56fd\u571f\u4ea4\u901a\u7701\u8fd1\u757f\u5730\u65b9\u6574\u5099\u5c40\u548c\u6b4c\u5c71\u6cb3\u5ddd\u56fd\u9053\u4e8b\u52d9\u6240","boring_xml_url":40,"boring_view_url":1,"soilmap_view_url":null,"soiltest_xml_url":0,"soiltest_view_url":0},{"id":172577,"code":"B4KJ201801006-0826","latitude":"34.0431403","longitude":"135.2035606","source_code":"KK51350146025","project_name":"","survey_name":"\u6e6f\u6d45\u5fa1\u574a\u9053\u8def(1)\u718a\u4e95\u5730\u533a\u5730\u8cea\u8abf\u67fb\u305d\u306e5\u4f5c\u696d","client_name":"\u56fd\u571f\u4ea4\u901a\u7701\u8fd1\u757f\u5730\u65b9\u6574\u5099\u5c40\u548c\u6b4c\u5c71\u6cb3\u5ddd\u56fd\u9053\u4e8b\u52d9\u6240","boring_xml_url":40,"boring_view_url":1,"soilmap_view_url":null,"soiltest_xml_url":0,"soiltest_view_url":0},{"id":172576,"code":"B4KJ201801006-0825","latitude":"34.0428347","longitude":"135.2035328","source_code":"KK51350146024","project_name":"","survey_name":"\u6e6f\u6d45\u5fa1\u574a\u9053\u8def(1)\u718a\u4e95\u5730\u533a\u5730\u8cea\u8abf\u67fb\u305d\u306e5\u4f5c\u696d","client_name":"\u56fd\u571f\u4ea4\u901a\u7701\u8fd1\u757f\u5730\u65b9\u6574\u5099\u5c40\u548c\u6b4c\u5c71\u6cb3\u5ddd\u56fd\u9053\u4e8b\u52d9\u6240","boring_xml_url":40,"boring_view_url":1,"soilmap_view_url":null,"soiltest_xml_url":0,"soiltest_view_url":0},{"id":172575,"code":"B4KJ201801006-0824","latitude":"34.0426403","longitude":"135.2034772","source_code":"KK51350146023","project_name":"","survey_name":"\u6e6f\u6d45\u5fa1\u574a\u9053\u8def(1)\u718a\u4e95\u5730\u533a\u5730\u8cea\u8abf\u67fb\u305d\u306e5\u4f5c\u696d","client_name":"\u56fd\u571f\u4ea4\u901a\u7701\u8fd1\u757f\u5730\u65b9\u6574\u5099\u5c40\u548c\u6b4c\u5c71\u6cb3\u5ddd\u56fd\u9053\u4e8b\u52d9\u6240","boring_xml_url":40,"boring_view_url":1,"soilmap_view_url":null,"soiltest_xml_url":0,"soiltest_view_url":0},{"id":172574,"code":"B4KJ201801006-0823","latitude":"34.0422514","longitude":"135.2034772","source_code":"KK51350146022","project_name":"","survey_name":"\u6e6f\u6d45\u5fa1\u574a\u9053\u8def(1)\u718a\u4e95\u5730\u533a\u5730\u8cea\u8abf\u67fb\u305d\u306e5\u4f5c\u696d","client_name":"\u56fd\u571f\u4ea4\u901a\u7701\u8fd1\u757f\u5730\u65b9\u6574\u5099\u5c40\u548c\u6b4c\u5c71\u6cb3\u5ddd\u56fd\u9053\u4e8b\u52d9\u6240","boring_xml_url":40,"boring_view_url":1,"soilmap_view_url":null,"soiltest_xml_url":0,"soiltest_view_url":0},{"id":172573,"code":"B4KJ201801006-0822","latitude":"34.0391128","longitude":"135.2020053","source_code":"KK51350146021","project_name":"","survey_name":"\u6e6f\u6d45\u5fa1\u574a\u9053\u8def(1)\u718a\u4e95\u5730\u533a\u5730\u8cea\u8abf\u67fb\u305d\u306e5\u4f5c\u696d","client_name":"\u56fd\u571f\u4ea4\u901a\u7701\u8fd1\u757f\u5730\u65b9\u6574\u5099\u5c40\u548c\u6b4c\u5c71\u6cb3\u5ddd\u56fd\u9053\u4e8b\u52d9\u6240","boring_xml_url":40,"boring_view_url":1,"soilmap_view_url":null,"soiltest_xml_url":0,"soiltest_view_url":0},{"id":172572,"code":"B4KJ201801006-0821","latitude":"34.0385572","longitude":"135.2018664","source_code":"KK51350146020","project_name":"","survey_name":"\u6e6f\u6d45\u5fa1\u574a\u9053\u8def(1)\u718a\u4e95\u5730\u533a\u5730\u8cea\u8abf\u67fb\u305d\u306e5\u4f5c\u696d","client_name":"\u56fd\u571f\u4ea4\u901a\u7701\u8fd1\u757f\u5730\u65b9\u6574\u5099\u5c40\u548c\u6b4c\u5c71\u6cb3\u5ddd\u56fd\u9053\u4e8b\u52d9\u6240","boring_xml_url":40,"boring_view_url":1,"soilmap_view_url":null,"soiltest_xml_url":0,"soiltest_view_url":0},{"id":172571,"code":"B4KJ201801006-0820","latitude":"34.0374186","longitude":"135.2017278","source_code":"KK51350146019","project_name":"","survey_name":"\u6e6f\u6d45\u5fa1\u574a\u9053\u8def(1)\u718a\u4e95\u5730\u533a\u5730\u8cea\u8abf\u67fb\u305d\u306e5\u4f5c\u696d","client_name":"\u56fd\u571f\u4ea4\u901a\u7701\u8fd1\u757f\u5730\u65b9\u6574\u5099\u5c40\u548c\u6b4c\u5c71\u6cb3\u5ddd\u56fd\u9053\u4e8b\u52d9\u6240","boring_xml_url":40,"boring_view_url":1,"soilmap_view_url":null,"soiltest_xml_url":0,"soiltest_view_url":0},{"id":172570,"code":"B4KJ201801006-0819","latitude":"34.0440844","longitude":"135.204505","source_code":"KK51350146018","project_name":"","survey_name":"\u6e6f\u6d45BP\u718a\u4e95\u5730\u533a\u5730\u533a\u5730\u8cea\u8abf\u67fb\u305d\u306e4\u4f5c\u696d","client_name":"\u56fd\u571f\u4ea4\u901a\u7701\u8fd1\u757f\u5730\u65b9\u6574\u5099\u5c40\u548c\u6b4c\u5c71\u6cb3\u5ddd\u56fd\u9053\u4e8b\u52d9\u6240","boring_xml_url":40,"boring_view_url":1,"soilmap_view_url":null,"soiltest_xml_url":0,"soiltest_view_url":0},{"id":172569,"code":"B4KJ201801006-0818","latitude":"34.0420014","longitude":"135.2043661","source_code":"KK51350146016","project_name":"","survey_name":"\u6e6f\u6d45BP\u718a\u4e95\u5730\u533a\u5730\u533a\u5730\u8cea\u8abf\u67fb\u305d\u306e4\u4f5c\u696d","client_name":"\u56fd\u571f\u4ea4\u901a\u7701\u8fd1\u757f\u5730\u65b9\u6574\u5099\u5c40\u548c\u6b4c\u5c71\u6cb3\u5ddd\u56fd\u9053\u4e8b\u52d9\u6240","boring_xml_url":40,"boring_view_url":1,"soilmap_view_url":null,"soiltest_xml_url":0,"soiltest_view_url":0},{"id":172568,"code":"B4KJ201801006-0817","latitude":"34.042142","longitude":"135.204228","source_code":"KK51350146014","project_name":"","survey_name":"\u6e6f\u6d45BP\u718a\u4e95\u5730\u533a\u5730\u533a\u5730\u8cea\u8abf\u67fb\u305d\u306e4\u4f5c\u696d","client_name":"\u56fd\u571f\u4ea4\u901a\u7701\u8fd1\u757f\u5730\u65b9\u6574\u5099\u5c40\u548c\u6b4c\u5c71\u6cb3\u5ddd\u56fd\u9053\u4e8b\u52d9\u6240","boring_xml_url":40,"boring_view_url":1,"soilmap_view_url":null,"soiltest_xml_url":0,"soiltest_view_url":0},{"id":172567,"code":"B4KJ201801006-0816","latitude":"34.0418903","longitude":"135.2044772","source_code":"KK51350146013","project_name":"","survey_name":"\u6e6f\u6d45BP\u718a\u4e95\u5730\u533a\u5730\u533a\u5730\u8cea\u8abf\u67fb\u305d\u306e4\u4f5c\u696d","client_name":"\u56fd\u571f\u4ea4\u901a\u7701\u8fd1\u757f\u5730\u65b9\u6574\u5099\u5c40\u548c\u6b4c\u5c71\u6cb3\u5ddd\u56fd\u9053\u4e8b\u52d9\u6240","boring_xml_url":40,"boring_view_url":1,"soilmap_view_url":null,"soiltest_xml_url":0,"soiltest_view_url":0},{"id":172566,"code":"B4KJ201801006-0815","latitude":"34.0418625","longitude":"135.2039494","source_code":"KK51350146012","project_name":"","survey_name":"\u6e6f\u6d45BP\u718a\u4e95\u5730\u533a\u5730\u533a\u5730\u8cea\u8abf\u67fb\u305d\u306e4\u4f5c\u696d","client_name":"\u56fd\u571f\u4ea4\u901a\u7701\u8fd1\u757f\u5730\u65b9\u6574\u5099\u5c40\u548c\u6b4c\u5c71\u6cb3\u5ddd\u56fd\u9053\u4e8b\u52d9\u6240","boring_xml_url":40,"boring_view_url":1,"soilmap_view_url":null,"soiltest_xml_url":0,"soiltest_view_url":0},{"id":172565,"code":"B4KJ201801006-0814","latitude":"34.0426125","longitude":"135.204505","source_code":"KK51350146010","project_name":"","survey_name":"\u6e6f\u6d45\u30d0\u30a4\u30d1\u30b9\u718a\u4e95\u5730\u533a\u305d\u306e2\u5730\u8cea\u8abf\u67fb","client_name":"\u56fd\u571f\u4ea4\u901a\u7701\u8fd1\u757f\u5730\u65b9\u6574\u5099\u5c40\u548c\u6b4c\u5c71\u6cb3\u5ddd\u56fd\u9053\u4e8b\u52d9\u6240","boring_xml_url":40,"boring_view_url":1,"soilmap_view_url":null,"soiltest_xml_url":0,"soiltest_view_url":0},{"id":172564,"code":"B4KJ201801006-0813","latitude":"34.0425569","longitude":"135.2042272","source_code":"KK51350146009","project_name":"","survey_name":"\u6e6f\u6d45\u30d0\u30a4\u30d1\u30b9\u718a\u4e95\u5730\u533a\u305d\u306e2\u5730\u8cea\u8abf\u67fb","client_name":"\u56fd\u571f\u4ea4\u901a\u7701\u8fd1\u757f\u5730\u65b9\u6574\u5099\u5c40\u548c\u6b4c\u5c71\u6cb3\u5ddd\u56fd\u9053\u4e8b\u52d9\u6240","boring_xml_url":40,"boring_view_url":1,"soilmap_view_url":null,"soiltest_xml_url":0,"soiltest_view_url":0},{"id":172563,"code":"B4KJ201801006-0812","latitude":"34.0420569","longitude":"135.2039494","source_code":"KK51350146008","project_name":"","survey_name":"\u6e6f\u6d45\u30d0\u30a4\u30d1\u30b9\u718a\u4e95\u5730\u533a\u305d\u306e2\u5730\u8cea\u8abf\u67fb","client_name":"\u56fd\u571f\u4ea4\u901a\u7701\u8fd1\u757f\u5730\u65b9\u6574\u5099\u5c40\u548c\u6b4c\u5c71\u6cb3\u5ddd\u56fd\u9053\u4e8b\u52d9\u6240","boring_xml_url":40,"boring_view_url":1,"soilmap_view_url":null,"soiltest_xml_url":0,"soiltest_view_url":0},{"id":172562,"code":"B4KJ201801006-0811","latitude":"34.0415014","longitude":"135.203755","source_code":"KK51350146007","project_name":"","survey_name":"\u6e6f\u6d45\u30d0\u30a4\u30d1\u30b9\u718a\u4e95\u5730\u533a\u305d\u306e2\u5730\u8cea\u8abf\u67fb","client_name":"\u56fd\u571f\u4ea4\u901a\u7701\u8fd1\u757f\u5730\u65b9\u6574\u5099\u5c40\u548c\u6b4c\u5c71\u6cb3\u5ddd\u56fd\u9053\u4e8b\u52d9\u6240","boring_xml_url":40,"boring_view_url":1,"soilmap_view_url":null,"soiltest_xml_url":0,"soiltest_view_url":0},{"id":172561,"code":"B4KJ201801006-0810","latitude":"34.0401406","longitude":"135.2021164","source_code":"KK51350146006","project_name":"","survey_name":"\u6e6f\u6d45\u30d0\u30a4\u30d1\u30b9\u718a\u4e95\u5730\u533a\u305d\u306e2\u5730\u8cea\u8abf\u67fb","client_name":"\u56fd\u571f\u4ea4\u901a\u7701\u8fd1\u757f\u5730\u65b9\u6574\u5099\u5c40\u548c\u6b4c\u5c71\u6cb3\u5ddd\u56fd\u9053\u4e8b\u52d9\u6240","boring_xml_url":40,"boring_view_url":1,"soilmap_view_url":null,"soiltest_xml_url":0,"soiltest_view_url":0},{"id":172560,"code":"B4KJ201801006-0809","latitude":"34.0408072","longitude":"135.2034775","source_code":"KK51350146005","project_name":"","survey_name":"\u6e6f\u6d45\u30d0\u30a4\u30d1\u30b9\u718a\u4e95\u5730\u533a\u305d\u306e3\u5730\u8cea\u8abf\u67fb","client_name":"\u56fd\u571f\u4ea4\u901a\u7701\u8fd1\u757f\u5730\u65b9\u6574\u5099\u5c40\u548c\u6b4c\u5c71\u6cb3\u5ddd\u56fd\u9053\u4e8b\u52d9\u6240","boring_xml_url":40,"boring_view_url":1,"soilmap_view_url":null,"soiltest_xml_url":0,"soiltest_view_url":0},{"id":172559,"code":"B4KJ201801006-0808","latitude":"34.0408072","longitude":"135.2034775","source_code":"KK51350146004","project_name":"","survey_name":"\u6e6f\u6d45\u30d0\u30a4\u30d1\u30b9\u718a\u4e95\u5730\u533a\u305d\u306e3\u5730\u8cea\u8abf\u67fb","client_name":"\u56fd\u571f\u4ea4\u901a\u7701\u8fd1\u757f\u5730\u65b9\u6574\u5099\u5c40\u548c\u6b4c\u5c71\u6cb3\u5ddd\u56fd\u9053\u4e8b\u52d9\u6240","boring_xml_url":40,"boring_view_url":1,"soilmap_view_url":null,"soiltest_xml_url":0,"soiltest_view_url":0},{"id":172558,"code":"B4KJ201801006-0807","latitude":"34.0408072","longitude":"135.2034775","source_code":"KK51350146003","project_name":"","survey_name":"\u6e6f\u6d45\u30d0\u30a4\u30d1\u30b9\u718a\u4e95\u5730\u533a\u305d\u306e3\u5730\u8cea\u8abf\u67fb","client_name":"\u56fd\u571f\u4ea4\u901a\u7701\u8fd1\u757f\u5730\u65b9\u6574\u5099\u5c40\u548c\u6b4c\u5c71\u6cb3\u5ddd\u56fd\u9053\u4e8b\u52d9\u6240","boring_xml_url":40,"boring_view_url":1,"soilmap_view_url":null,"soiltest_xml_url":0,"soiltest_view_url":0},{"id":172557,"code":"B4KJ201801006-0806","latitude":"34.0408072","longitude":"135.2034775","source_code":"KK51350146002","project_name":"","survey_name":"\u6e6f\u6d45\u30d0\u30a4\u30d1\u30b9\u718a\u4e95\u5730\u533a\u305d\u306e3\u5730\u8cea\u8abf\u67fb","client_name":"\u56fd\u571f\u4ea4\u901a\u7701\u8fd1\u757f\u5730\u65b9\u6574\u5099\u5c40\u548c\u6b4c\u5c71\u6cb3\u5ddd\u56fd\u9053\u4e8b\u52d9\u6240","boring_xml_url":40,"boring_view_url":1,"soilmap_view_url":null,"soiltest_xml_url":0,"soiltest_view_url":0},{"id":172556,"code":"B4KJ201801006-0805","latitude":"34.0408072","longitude":"135.2034775","source_code":"KK51350146001","project_name":"","survey_name":"\u6e6f\u6d45\u30d0\u30a4\u30d1\u30b9\u718a\u4e95\u5730\u533a\u305d\u306e3\u5730\u8cea\u8abf\u67fb","client_name":"\u56fd\u571f\u4ea4\u901a\u7701\u8fd1\u757f\u5730\u65b9\u6574\u5099\u5c40\u548c\u6b4c\u5c71\u6cb3\u5ddd\u56fd\u9053\u4e8b\u52d9\u6240","boring_xml_url":40,"boring_view_url":1,"soilmap_view_url":null,"soiltest_xml_url":0,"soiltest_view_url":0}]}}