{"header":{"xyz":{"source":[],"mosaic":false},"page":4934,"raw":{"soiltest_result":"0","bbox":"57.598333,109.544722,1.933333,163.806111","page":"4934"},"conditions":{"soiltest_result":0,"north":57.598333,"west":109.544722,"south":1.933333,"east":163.806111},"success":true,"message":""},"data":{"meta":{"total":212844,"page":4934,"pages":7095,"count":30},"values":[{"id":172555,"code":"B4KJ201801006-0804","latitude":"34.0311969","longitude":"135.2011722","source_code":"KK51350136018","project_name":"","survey_name":"\u6e6f\u6d45\u30d0\u30a4\u30d1\u30b9\u5c71\u7530\u5730\u533a\u5730\u8cea\u8abf\u67fb\u305d\u306e2\u4f5c\u696d","client_name":"\u56fd\u571f\u4ea4\u901a\u7701\u8fd1\u757f\u5730\u65b9\u6574\u5099\u5c40\u548c\u6b4c\u5c71\u6cb3\u5ddd\u56fd\u9053\u4e8b\u52d9\u6240","boring_xml_url":40,"boring_view_url":1,"soilmap_view_url":null,"soiltest_xml_url":0,"soiltest_view_url":0},{"id":172554,"code":"B4KJ201801006-0803","latitude":"34.0305306","longitude":"135.2008669","source_code":"KK51350136017","project_name":"","survey_name":"\u6e6f\u6d45\u30d0\u30a4\u30d1\u30b9\u5c71\u7530\u5730\u533a\u5730\u8cea\u8abf\u67fb\u305d\u306e2\u4f5c\u696d","client_name":"\u56fd\u571f\u4ea4\u901a\u7701\u8fd1\u757f\u5730\u65b9\u6574\u5099\u5c40\u548c\u6b4c\u5c71\u6cb3\u5ddd\u56fd\u9053\u4e8b\u52d9\u6240","boring_xml_url":40,"boring_view_url":1,"soilmap_view_url":null,"soiltest_xml_url":0,"soiltest_view_url":0},{"id":172553,"code":"B4KJ201801006-0802","latitude":"34.0298917","longitude":"135.2010336","source_code":"KK51350136016","project_name":"","survey_name":"\u6e6f\u6d45\u30d0\u30a4\u30d1\u30b9\u5c71\u7530\u5730\u533a\u5730\u8cea\u8abf\u67fb\u305d\u306e2\u4f5c\u696d","client_name":"\u56fd\u571f\u4ea4\u901a\u7701\u8fd1\u757f\u5730\u65b9\u6574\u5099\u5c40\u548c\u6b4c\u5c71\u6cb3\u5ddd\u56fd\u9053\u4e8b\u52d9\u6240","boring_xml_url":40,"boring_view_url":1,"soilmap_view_url":null,"soiltest_xml_url":0,"soiltest_view_url":0},{"id":172552,"code":"B4KJ201801006-0801","latitude":"34.0295861","longitude":"135.2010336","source_code":"KK51350136015","project_name":"","survey_name":"\u6e6f\u6d45\u30d0\u30a4\u30d1\u30b9\u5c71\u7530\u5730\u533a\u5730\u8cea\u8abf\u67fb\u305d\u306e2\u4f5c\u696d","client_name":"\u56fd\u571f\u4ea4\u901a\u7701\u8fd1\u757f\u5730\u65b9\u6574\u5099\u5c40\u548c\u6b4c\u5c71\u6cb3\u5ddd\u56fd\u9053\u4e8b\u52d9\u6240","boring_xml_url":40,"boring_view_url":1,"soilmap_view_url":null,"soiltest_xml_url":0,"soiltest_view_url":0},{"id":172551,"code":"B4KJ201801006-0800","latitude":"34.0288639","longitude":"135.2010614","source_code":"KK51350136014","project_name":"","survey_name":"\u6e6f\u6d45\u30d0\u30a4\u30d1\u30b9\u5c71\u7530\u5730\u533a\u5730\u8cea\u8abf\u67fb\u305d\u306e2\u4f5c\u696d","client_name":"\u56fd\u571f\u4ea4\u901a\u7701\u8fd1\u757f\u5730\u65b9\u6574\u5099\u5c40\u548c\u6b4c\u5c71\u6cb3\u5ddd\u56fd\u9053\u4e8b\u52d9\u6240","boring_xml_url":40,"boring_view_url":1,"soilmap_view_url":null,"soiltest_xml_url":0,"soiltest_view_url":0},{"id":172550,"code":"B4KJ201801006-0799","latitude":"34.0316692","longitude":"135.2010333","source_code":"KK51350136013","project_name":"","survey_name":"\u6e6f\u6d45\u30d0\u30a4\u30d1\u30b9\u5e73\u91ce\u5730\u533a\u5730\u8cea\u8abf\u67fb","client_name":"\u56fd\u571f\u4ea4\u901a\u7701\u8fd1\u757f\u5730\u65b9\u6574\u5099\u5c40\u548c\u6b4c\u5c71\u6cb3\u5ddd\u56fd\u9053\u4e8b\u52d9\u6240","boring_xml_url":40,"boring_view_url":1,"soilmap_view_url":null,"soiltest_xml_url":0,"soiltest_view_url":0},{"id":172549,"code":"B4KJ201801006-0798","latitude":"34.0321692","longitude":"135.2009778","source_code":"KK51350136012","project_name":"","survey_name":"\u6e6f\u6d45\u30d0\u30a4\u30d1\u30b9\u5e73\u91ce\u5730\u533a\u5730\u8cea\u8abf\u67fb","client_name":"\u56fd\u571f\u4ea4\u901a\u7701\u8fd1\u757f\u5730\u65b9\u6574\u5099\u5c40\u548c\u6b4c\u5c71\u6cb3\u5ddd\u56fd\u9053\u4e8b\u52d9\u6240","boring_xml_url":40,"boring_view_url":1,"soilmap_view_url":null,"soiltest_xml_url":0,"soiltest_view_url":0},{"id":172548,"code":"B4KJ201801006-0797","latitude":"34.0324747","longitude":"135.2010056","source_code":"KK51350136011","project_name":"","survey_name":"\u6e6f\u6d45\u30d0\u30a4\u30d1\u30b9\u5e73\u91ce\u5730\u533a\u5730\u8cea\u8abf\u67fb","client_name":"\u56fd\u571f\u4ea4\u901a\u7701\u8fd1\u757f\u5730\u65b9\u6574\u5099\u5c40\u548c\u6b4c\u5c71\u6cb3\u5ddd\u56fd\u9053\u4e8b\u52d9\u6240","boring_xml_url":40,"boring_view_url":1,"soilmap_view_url":null,"soiltest_xml_url":0,"soiltest_view_url":0},{"id":172547,"code":"B4KJ201801006-0796","latitude":"34.0331414","longitude":"135.2011722","source_code":"KK51350136010","project_name":"","survey_name":"\u6e6f\u6d45\u30d0\u30a4\u30d1\u30b9\u5e73\u91ce\u5730\u533a\u5730\u8cea\u8abf\u67fb","client_name":"\u56fd\u571f\u4ea4\u901a\u7701\u8fd1\u757f\u5730\u65b9\u6574\u5099\u5c40\u548c\u6b4c\u5c71\u6cb3\u5ddd\u56fd\u9053\u4e8b\u52d9\u6240","boring_xml_url":40,"boring_view_url":1,"soilmap_view_url":null,"soiltest_xml_url":0,"soiltest_view_url":0},{"id":172546,"code":"B4KJ201801006-0795","latitude":"34.0335022","longitude":"135.2009222","source_code":"KK51350136009","project_name":"","survey_name":"\u6e6f\u6d45\u30d0\u30a4\u30d1\u30b9\u5e73\u91ce\u5730\u533a\u8c4a\u8cea\u8abf\u67fb","client_name":"\u56fd\u571f\u4ea4\u901a\u7701\u8fd1\u757f\u5730\u65b9\u6574\u5099\u5c40\u548c\u6b4c\u5c71\u6cb3\u5ddd\u56fd\u9053\u4e8b\u52d9\u6240","boring_xml_url":40,"boring_view_url":1,"soilmap_view_url":null,"soiltest_xml_url":0,"soiltest_view_url":0},{"id":172545,"code":"B4KJ201801006-0794","latitude":"34.0336133","longitude":"135.2010611","source_code":"KK51350136008","project_name":"","survey_name":"\u6e6f\u6d45\u30d0\u30a4\u30d1\u30b9\u5e73\u91ce\u5730\u533a\u5730\u8cea\u8abf\u67fb","client_name":"\u56fd\u571f\u4ea4\u901a\u7701\u8fd1\u757f\u5730\u65b9\u6574\u5099\u5c40\u548c\u6b4c\u5c71\u6cb3\u5ddd\u56fd\u9053\u4e8b\u52d9\u6240","boring_xml_url":40,"boring_view_url":1,"soilmap_view_url":null,"soiltest_xml_url":0,"soiltest_view_url":0},{"id":172544,"code":"B4KJ201801006-0793","latitude":"34.0340856","longitude":"135.2009778","source_code":"KK51350136007","project_name":"","survey_name":"\u6e6f\u6d45\u30d0\u30a4\u30d1\u30b9\u5e73\u91ce\u5730\u533a\u5730\u8cea\u8abf\u67fb","client_name":"\u56fd\u571f\u4ea4\u901a\u7701\u8fd1\u757f\u5730\u65b9\u6574\u5099\u5c40\u548c\u6b4c\u5c71\u6cb3\u5ddd\u56fd\u9053\u4e8b\u52d9\u6240","boring_xml_url":40,"boring_view_url":1,"soilmap_view_url":null,"soiltest_xml_url":0,"soiltest_view_url":0},{"id":172543,"code":"B4KJ201801006-0792","latitude":"34.0281419","longitude":"135.2012836","source_code":"KK51350126007","project_name":"","survey_name":"\u6e6f\u6d45\u30d0\u30a4\u30d1\u30b9\u5c71\u7530\u5730\u533a\u5730\u8cea\u8abf\u67fb\u305d\u306e2\u4f5c\u696d","client_name":"\u56fd\u571f\u4ea4\u901a\u7701\u8fd1\u757f\u5730\u65b9\u6574\u5099\u5c40\u548c\u6b4c\u5c71\u6cb3\u5ddd\u56fd\u9053\u4e8b\u52d9\u6240","boring_xml_url":40,"boring_view_url":1,"soilmap_view_url":null,"soiltest_xml_url":0,"soiltest_view_url":0},{"id":172542,"code":"B4KJ201801006-0791","latitude":"34.0281419","longitude":"135.2009225","source_code":"KK51350126006","project_name":"","survey_name":"\u6e6f\u6d45\u30d0\u30a4\u30d1\u30b9\u5c71\u7530\u5730\u533a\u5730\u8cea\u8abf\u67fb\u305d\u306e2\u4f5c\u696d","client_name":"\u56fd\u571f\u4ea4\u901a\u7701\u8fd1\u757f\u5730\u65b9\u6574\u5099\u5c40\u548c\u6b4c\u5c71\u6cb3\u5ddd\u56fd\u9053\u4e8b\u52d9\u6240","boring_xml_url":40,"boring_view_url":1,"soilmap_view_url":null,"soiltest_xml_url":0,"soiltest_view_url":0},{"id":172541,"code":"B4KJ201801006-0790","latitude":"34.0276142","longitude":"135.2010058","source_code":"KK51350126005","project_name":"","survey_name":"\u6e6f\u6d45\u30d0\u30a4\u30d1\u30b9\u5c71\u7530\u5730\u533a\u5730\u8cea\u8abf\u67fb\u305d\u306e2\u4f5c\u696d","client_name":"\u56fd\u571f\u4ea4\u901a\u7701\u8fd1\u757f\u5730\u65b9\u6574\u5099\u5c40\u548c\u6b4c\u5c71\u6cb3\u5ddd\u56fd\u9053\u4e8b\u52d9\u6240","boring_xml_url":40,"boring_view_url":1,"soilmap_view_url":null,"soiltest_xml_url":0,"soiltest_view_url":0},{"id":172540,"code":"B4KJ201801006-0789","latitude":"34.0265031","longitude":"135.2009781","source_code":"KK51350126004","project_name":"","survey_name":"\u6e6f\u6d45\u30d0\u30a4\u30d1\u30b9\u6e6f\u6d45\u30c8\u30f3\u30cd\u30eb\u5730\u8cea\u8abf\u67fb\u4f5c\u696d","client_name":"\u56fd\u571f\u4ea4\u901a\u7701\u8fd1\u757f\u5730\u65b9\u6574\u5099\u5c40\u548c\u6b4c\u5c71\u6cb3\u5ddd\u56fd\u9053\u4e8b\u52d9\u6240","boring_xml_url":40,"boring_view_url":1,"soilmap_view_url":null,"soiltest_xml_url":0,"soiltest_view_url":0},{"id":172539,"code":"B4KJ201801006-0788","latitude":"34.0265031","longitude":"135.2009781","source_code":"KK51350126003","project_name":"","survey_name":"\u6e6f\u6d45\u30d0\u30a4\u30d1\u30b9\u6e6f\u6d45\u30c8\u30f3\u30cd\u30eb\u5730\u8cea\u8abf\u67fb\u4f5c\u696d","client_name":"\u56fd\u571f\u4ea4\u901a\u7701\u8fd1\u757f\u5730\u65b9\u6574\u5099\u5c40\u548c\u6b4c\u5c71\u6cb3\u5ddd\u56fd\u9053\u4e8b\u52d9\u6240","boring_xml_url":40,"boring_view_url":1,"soilmap_view_url":null,"soiltest_xml_url":0,"soiltest_view_url":0},{"id":172538,"code":"B4KJ201801006-0787","latitude":"34.0191428","longitude":"135.1955622","source_code":"KK51350115031","project_name":"","survey_name":"\u6e6f\u6d45BP\u67f3\u702c\u5730\u533a\u5730\u8cea\u8abf\u67fb\u305d\u306e2\u4f5c\u696d","client_name":"\u56fd\u571f\u4ea4\u901a\u7701\u8fd1\u757f\u5730\u65b9\u6574\u5099\u5c40\u548c\u6b4c\u5c71\u6cb3\u5ddd\u56fd\u9053\u4e8b\u52d9\u6240","boring_xml_url":40,"boring_view_url":1,"soilmap_view_url":null,"soiltest_xml_url":0,"soiltest_view_url":0},{"id":172537,"code":"B4KJ201801006-0786","latitude":"34.018865","longitude":"135.1947289","source_code":"KK51350115030","project_name":"","survey_name":"\u6e6f\u6d45BP\u67f3\u702c\u5730\u533a\u5730\u8cea\u8abf\u67fb\u305d\u306e2\u4f5c\u696d","client_name":"\u56fd\u571f\u4ea4\u901a\u7701\u8fd1\u757f\u5730\u65b9\u6574\u5099\u5c40\u548c\u6b4c\u5c71\u6cb3\u5ddd\u56fd\u9053\u4e8b\u52d9\u6240","boring_xml_url":40,"boring_view_url":1,"soilmap_view_url":null,"soiltest_xml_url":0,"soiltest_view_url":0},{"id":172536,"code":"B4KJ201801006-0785","latitude":"34.0185872","longitude":"135.1941733","source_code":"KK51350115029","project_name":"","survey_name":"\u6e6f\u6d45BP\u67f3\u702c\u5730\u533a\u5730\u8cea\u8abf\u67fb\u305d\u306e2\u4f5c\u696d","client_name":"\u56fd\u571f\u4ea4\u901a\u7701\u8fd1\u757f\u5730\u65b9\u6574\u5099\u5c40\u548c\u6b4c\u5c71\u6cb3\u5ddd\u56fd\u9053\u4e8b\u52d9\u6240","boring_xml_url":40,"boring_view_url":1,"soilmap_view_url":null,"soiltest_xml_url":0,"soiltest_view_url":0},{"id":172535,"code":"B4KJ201801006-0784","latitude":"34.0180317","longitude":"135.19334","source_code":"KK51350115028","project_name":"","survey_name":"\u6e6f\u6d45BP\u67f3\u702c\u5730\u533a\u5730\u8cea\u8abf\u67fb\u305d\u306e2\u4f5c\u696d","client_name":"\u56fd\u571f\u4ea4\u901a\u7701\u8fd1\u757f\u5730\u65b9\u6574\u5099\u5c40\u548c\u6b4c\u5c71\u6cb3\u5ddd\u56fd\u9053\u4e8b\u52d9\u6240","boring_xml_url":40,"boring_view_url":1,"soilmap_view_url":null,"soiltest_xml_url":0,"soiltest_view_url":0},{"id":172534,"code":"B4KJ201801006-0783","latitude":"34.0180317","longitude":"135.1930625","source_code":"KK51350115027","project_name":"","survey_name":"\u6e6f\u6d45BP\u67f3\u702c\u5730\u533a\u5730\u8cea\u8abf\u67fb\u305d\u306e2\u4f5c\u696d","client_name":"\u56fd\u571f\u4ea4\u901a\u7701\u8fd1\u757f\u5730\u65b9\u6574\u5099\u5c40\u548c\u6b4c\u5c71\u6cb3\u5ddd\u56fd\u9053\u4e8b\u52d9\u6240","boring_xml_url":40,"boring_view_url":1,"soilmap_view_url":null,"soiltest_xml_url":0,"soiltest_view_url":0},{"id":172533,"code":"B4KJ201801006-0782","latitude":"34.0174761","longitude":"135.1922292","source_code":"KK51350115026","project_name":"","survey_name":"\u6e6f\u6d45BP\u67f3\u702c\u5730\u533a\u5730\u8cea\u8abf\u67fb\u305d\u306e2\u4f5c\u696d","client_name":"\u56fd\u571f\u4ea4\u901a\u7701\u8fd1\u757f\u5730\u65b9\u6574\u5099\u5c40\u548c\u6b4c\u5c71\u6cb3\u5ddd\u56fd\u9053\u4e8b\u52d9\u6240","boring_xml_url":40,"boring_view_url":1,"soilmap_view_url":null,"soiltest_xml_url":0,"soiltest_view_url":0},{"id":172532,"code":"B4KJ201801006-0781","latitude":"34.0171983","longitude":"135.1919514","source_code":"KK51350115025","project_name":"","survey_name":"\u6e6f\u6d45BP\u67f3\u702c\u5730\u533a\u5730\u8cea\u8abf\u67fb\u305d\u306e2\u4f5c\u696d","client_name":"\u56fd\u571f\u4ea4\u901a\u7701\u8fd1\u757f\u5730\u65b9\u6574\u5099\u5c40\u548c\u6b4c\u5c71\u6cb3\u5ddd\u56fd\u9053\u4e8b\u52d9\u6240","boring_xml_url":40,"boring_view_url":1,"soilmap_view_url":null,"soiltest_xml_url":0,"soiltest_view_url":0},{"id":172531,"code":"B4KJ201801006-0780","latitude":"34.0190039","longitude":"135.1951178","source_code":"KK51350115024","project_name":"","survey_name":"\u6e6f\u6d45BP\u67f3\u702c\u5730\u533a\u5730\u8cea\u8abf\u67fb\u305d\u306e2\u4f5c\u696d","client_name":"\u56fd\u571f\u4ea4\u901a\u7701\u8fd1\u757f\u5730\u65b9\u6574\u5099\u5c40\u548c\u6b4c\u5c71\u6cb3\u5ddd\u56fd\u9053\u4e8b\u52d9\u6240","boring_xml_url":40,"boring_view_url":1,"soilmap_view_url":null,"soiltest_xml_url":0,"soiltest_view_url":0},{"id":172530,"code":"B4KJ201801006-0779","latitude":"34.0187261","longitude":"135.1945622","source_code":"KK51350115023","project_name":"","survey_name":"\u6e6f\u6d45BP\u67f3\u702c\u5730\u533a\u5730\u8cea\u8abf\u67fb\u305d\u306e2\u4f5c\u696d","client_name":"\u56fd\u571f\u4ea4\u901a\u7701\u8fd1\u757f\u5730\u65b9\u6574\u5099\u5c40\u548c\u6b4c\u5c71\u6cb3\u5ddd\u56fd\u9053\u4e8b\u52d9\u6240","boring_xml_url":40,"boring_view_url":1,"soilmap_view_url":null,"soiltest_xml_url":0,"soiltest_view_url":0},{"id":172529,"code":"B4KJ201801006-0778","latitude":"34.018365","longitude":"135.1942289","source_code":"KK51350115022","project_name":"","survey_name":"\u6e6f\u6d45BP\u67f3\u702c\u5730\u533a\u5730\u8cea\u8abf\u67fb\u305d\u306e2\u4f5c\u696d","client_name":"\u56fd\u571f\u4ea4\u901a\u7701\u8fd1\u757f\u5730\u65b9\u6574\u5099\u5c40\u548c\u6b4c\u5c71\u6cb3\u5ddd\u56fd\u9053\u4e8b\u52d9\u6240","boring_xml_url":40,"boring_view_url":1,"soilmap_view_url":null,"soiltest_xml_url":0,"soiltest_view_url":0},{"id":172528,"code":"B4KJ201801006-0777","latitude":"34.017865","longitude":"135.1928958","source_code":"KK51350115021","project_name":"","survey_name":"\u6e6f\u6d45BP\u67f3\u702c\u5730\u533a\u5730\u8cea\u8abf\u67fb\u305d\u306e2\u4f5c\u696d","client_name":"\u56fd\u571f\u4ea4\u901a\u7701\u8fd1\u757f\u5730\u65b9\u6574\u5099\u5c40\u548c\u6b4c\u5c71\u6cb3\u5ddd\u56fd\u9053\u4e8b\u52d9\u6240","boring_xml_url":40,"boring_view_url":1,"soilmap_view_url":null,"soiltest_xml_url":0,"soiltest_view_url":0},{"id":172527,"code":"B4KJ201801006-0776","latitude":"34.0172539","longitude":"135.1920625","source_code":"KK51350115020","project_name":"","survey_name":"\u6e6f\u6d45BP\u67f3\u702c\u5730\u533a\u5730\u8cea\u8abf\u67fb\u305d\u306e2\u4f5c\u696d","client_name":"\u56fd\u571f\u4ea4\u901a\u7701\u8fd1\u757f\u5730\u65b9\u6574\u5099\u5c40\u548c\u6b4c\u5c71\u6cb3\u5ddd\u56fd\u9053\u4e8b\u52d9\u6240","boring_xml_url":40,"boring_view_url":1,"soilmap_view_url":null,"soiltest_xml_url":0,"soiltest_view_url":0},{"id":172526,"code":"B4KJ201801006-0775","latitude":"34.0167542","longitude":"135.1920069","source_code":"KK51350115019","project_name":"","survey_name":"\u6e6f\u6d45BP\u67f3\u702c\u5730\u533a\u5730\u8cea\u8abf\u67fb\u305d\u306e2\u4f5c\u696d","client_name":"\u56fd\u571f\u4ea4\u901a\u7701\u8fd1\u757f\u5730\u65b9\u6574\u5099\u5c40\u548c\u6b4c\u5c71\u6cb3\u5ddd\u56fd\u9053\u4e8b\u52d9\u6240","boring_xml_url":40,"boring_view_url":1,"soilmap_view_url":null,"soiltest_xml_url":0,"soiltest_view_url":0}]}}