{"header":{"xyz":{"source":[],"mosaic":false},"page":4941,"raw":{"soiltest_result":"0","bbox":"57.598333,109.544722,1.933333,163.806111","page":"4941"},"conditions":{"soiltest_result":0,"north":57.598333,"west":109.544722,"south":1.933333,"east":163.806111},"success":true,"message":""},"data":{"meta":{"total":212844,"page":4941,"pages":7095,"count":30},"values":[{"id":172345,"code":"B4KJ201801006-0594","latitude":"33.9459144","longitude":"135.7860131","source_code":"KK50357633023","project_name":"","survey_name":"+\u6d25\u5ddd\u9053\u8def\u8c46\u5e02\u30fb\u6edd\u5730\u533a\u5730\u8cea\u8abf\u67fb\u696d\u52d9","client_name":"\u56fd\u571f\u4ea4\u901a\u7701\u8fd1\u757f\u5730\u65b9\u6574\u5099\u5c40\u5948\u826f\u56fd\u9053\u4e8b\u52d9\u6240","boring_xml_url":40,"boring_view_url":1,"soilmap_view_url":null,"soiltest_xml_url":0,"soiltest_view_url":0},{"id":172344,"code":"B4KJ201801006-0593","latitude":"33.9458311","longitude":"135.7857353","source_code":"KK50357633022","project_name":"","survey_name":"+\u6d25\u5ddd\u9053\u8def\u8c46\u5e02\u30fb\u6edd\u5730\u533a\u5730\u8cea\u8abf\u67fb\u696d\u52d9","client_name":"\u56fd\u571f\u4ea4\u901a\u7701\u8fd1\u757f\u5730\u65b9\u6574\u5099\u5c40\u5948\u826f\u56fd\u9053\u4e8b\u52d9\u6240","boring_xml_url":40,"boring_view_url":1,"soilmap_view_url":null,"soiltest_xml_url":0,"soiltest_view_url":0},{"id":172343,"code":"B4KJ201801006-0592","latitude":"33.94572","longitude":"135.7854297","source_code":"KK50357633021","project_name":"","survey_name":"+\u6d25\u5ddd\u9053\u8def\u8c46\u5e02\u30fb\u6edd\u5730\u533a\u5730\u8cea\u8abf\u67fb\u696d\u52d9","client_name":"\u56fd\u571f\u4ea4\u901a\u7701\u8fd1\u757f\u5730\u65b9\u6574\u5099\u5c40\u5948\u826f\u56fd\u9053\u4e8b\u52d9\u6240","boring_xml_url":40,"boring_view_url":1,"soilmap_view_url":null,"soiltest_xml_url":0,"soiltest_view_url":0},{"id":172342,"code":"B4KJ201801006-0591","latitude":"33.9463867","longitude":"135.7871797","source_code":"KK50357633020","project_name":"","survey_name":"+\u6d25\u5ddd\u9053\u8def\u8c46\u5e02\u30c8\u30f3\u30cd\u30eb\u30fb\u4eca\u6238\u5730\u533a\u5730\u8cea\u8abf\u67fb\u696d\u52d9","client_name":"\u56fd\u571f\u4ea4\u901a\u7701\u8fd1\u757f\u5730\u65b9\u6574\u5099\u5c40\u5948\u826f\u56fd\u9053\u4e8b\u52d9\u6240","boring_xml_url":40,"boring_view_url":1,"soilmap_view_url":null,"soiltest_xml_url":0,"soiltest_view_url":0},{"id":172341,"code":"B4KJ201801006-0590","latitude":"33.9456367","longitude":"135.7851522","source_code":"KK50357633019","project_name":"","survey_name":"+\u6d25\u5ddd\u9053\u8def\u8c46\u5e02\u30fb\u6edd\u5730\u533a\u5730\u8cea\u8abf\u67fb\u696d\u52d9","client_name":"\u56fd\u571f\u4ea4\u901a\u7701\u8fd1\u757f\u5730\u65b9\u6574\u5099\u5c40\u5948\u826f\u56fd\u9053\u4e8b\u52d9\u6240","boring_xml_url":40,"boring_view_url":1,"soilmap_view_url":null,"soiltest_xml_url":0,"soiltest_view_url":0},{"id":172340,"code":"B4KJ201801006-0589","latitude":"33.9461089","longitude":"135.7880131","source_code":"KK50357633002","project_name":"","survey_name":"+\u6d25\u5ddd\u9053\u8def\u5730\u8cea\u8abf\u67fb\u696d\u52d9","client_name":"\u56fd\u571f\u4ea4\u901a\u7701\u8fd1\u757f\u5730\u65b9\u6574\u5099\u5c40\u5948\u826f\u56fd\u9053\u4e8b\u52d9\u6240","boring_xml_url":40,"boring_view_url":1,"soilmap_view_url":null,"soiltest_xml_url":0,"soiltest_view_url":0},{"id":172339,"code":"B4KJ201801006-0588","latitude":"33.9461089","longitude":"135.7869019","source_code":"KK50357633001","project_name":"","survey_name":"+\u6d25\u5ddd\u9053\u8def\u5730\u8cea\u8abf\u67fb\u696d\u52d9","client_name":"\u56fd\u571f\u4ea4\u901a\u7701\u8fd1\u757f\u5730\u65b9\u6574\u5099\u5c40\u5948\u826f\u56fd\u9053\u4e8b\u52d9\u6240","boring_xml_url":40,"boring_view_url":1,"soilmap_view_url":null,"soiltest_xml_url":0,"soiltest_view_url":0},{"id":172338,"code":"B4KJ201801006-0587","latitude":"33.9452756","longitude":"135.7844022","source_code":"KK50357632001","project_name":"","survey_name":"+\u6d25\u5ddd\u9053\u8def\u5730\u8cea\u8abf\u67fb\u696d\u52d9","client_name":"\u56fd\u571f\u4ea4\u901a\u7701\u8fd1\u757f\u5730\u65b9\u6574\u5099\u5c40\u5948\u826f\u56fd\u9053\u4e8b\u52d9\u6240","boring_xml_url":40,"boring_view_url":1,"soilmap_view_url":null,"soiltest_xml_url":0,"soiltest_view_url":0},{"id":172337,"code":"B4KJ201801006-0586","latitude":"33.9967008","longitude":"135.1933131","source_code":"KK50357195024","project_name":"","survey_name":"42\u53f7\u5e83\u5ddd\u5730\u533a\u4ed61\u4ef6\u6cd5\u9762\u8a73\u7d30\u8a2d\u8a08\u696d\u52d9","client_name":"\u56fd\u571f\u4ea4\u901a\u7701\u8fd1\u757f\u5730\u65b9\u6574\u5099\u5c40\u548c\u6b4c\u5c71\u6cb3\u5ddd\u56fd\u9053\u4e8b\u52d9\u6240","boring_xml_url":40,"boring_view_url":1,"soilmap_view_url":null,"soiltest_xml_url":0,"soiltest_view_url":0},{"id":172336,"code":"B4KJ201801006-0585","latitude":"33.9965897","longitude":"135.1931186","source_code":"KK50357195023","project_name":"","survey_name":"42\u53f7\u5e83\u5ddd\u5730\u533a\u4ed61\u4ef6\u6cd5\u9762\u8a73\u7d30\u8a2d\u8a08\u696d\u52d9","client_name":"\u56fd\u571f\u4ea4\u901a\u7701\u8fd1\u757f\u5730\u65b9\u6574\u5099\u5c40\u548c\u6b4c\u5c71\u6cb3\u5ddd\u56fd\u9053\u4e8b\u52d9\u6240","boring_xml_url":40,"boring_view_url":1,"soilmap_view_url":null,"soiltest_xml_url":0,"soiltest_view_url":0},{"id":172335,"code":"B4KJ201801006-0584","latitude":"33.999145","longitude":"135.1909797","source_code":"KK50357195018","project_name":"","survey_name":"\u6e6f\u6d45\u5fa1\u574a\u9053\u8def(1)\u5e83\u5ddd\u7b2c\u4e8c\u9ad8\u67b6\u6a4b\u8a73\u7d30\u8a2d\u8a08","client_name":"\u56fd\u571f\u4ea4\u901a\u7701\u8fd1\u757f\u5730\u65b9\u6574\u5099\u5c40\u548c\u6b4c\u5c71\u6cb3\u5ddd\u56fd\u9053\u4e8b\u52d9\u6240","boring_xml_url":40,"boring_view_url":1,"soilmap_view_url":null,"soiltest_xml_url":0,"soiltest_view_url":0},{"id":172334,"code":"B4KJ201801006-0583","latitude":"33.999145","longitude":"135.1909797","source_code":"KK50357195017","project_name":"","survey_name":"\u6e6f\u6d45\u5fa1\u574a\u9053\u8def(1)\u5e83\u5ddd\u7b2c\u4e8c\u9ad8\u67b6\u6a4b\u8a73\u7d30\u8a2d\u8a08","client_name":"\u56fd\u571f\u4ea4\u901a\u7701\u8fd1\u757f\u5730\u65b9\u6574\u5099\u5c40\u548c\u6b4c\u5c71\u6cb3\u5ddd\u56fd\u9053\u4e8b\u52d9\u6240","boring_xml_url":40,"boring_view_url":1,"soilmap_view_url":null,"soiltest_xml_url":0,"soiltest_view_url":0},{"id":172333,"code":"B4KJ201801006-0582","latitude":"33.999145","longitude":"135.1909797","source_code":"KK50357195016","project_name":"","survey_name":"\u6e6f\u6d45\u5fa1\u574a\u9053\u8def(1)\u5e83\u5ddd\u7b2c\u4e8c\u9ad8\u67b6\u6a4b\u8a73\u7d30\u8a2d\u8a08","client_name":"\u56fd\u571f\u4ea4\u901a\u7701\u8fd1\u757f\u5730\u65b9\u6574\u5099\u5c40\u548c\u6b4c\u5c71\u6cb3\u5ddd\u56fd\u9053\u4e8b\u52d9\u6240","boring_xml_url":40,"boring_view_url":1,"soilmap_view_url":null,"soiltest_xml_url":0,"soiltest_view_url":0},{"id":172332,"code":"B4KJ201801006-0581","latitude":"33.9987839","longitude":"135.1969517","source_code":"KK50357195015","project_name":"","survey_name":"\u6e6f\u6d45\u5fa1\u574a\u9053\u8def(1)\u5e83\u5ddd\u7b2c\u4e8c\u9ad8\u67b6\u6a4b\u8a73\u7d30\u8a2d\u8a08","client_name":"\u56fd\u571f\u4ea4\u901a\u7701\u8fd1\u757f\u5730\u65b9\u6574\u5099\u5c40\u548c\u6b4c\u5c71\u6cb3\u5ddd\u56fd\u9053\u4e8b\u52d9\u6240","boring_xml_url":40,"boring_view_url":1,"soilmap_view_url":null,"soiltest_xml_url":0,"soiltest_view_url":0},{"id":172331,"code":"B4KJ201801006-0580","latitude":"33.9976453","longitude":"135.1969517","source_code":"KK50357195014","project_name":"","survey_name":"\u6e6f\u6d45\u5fa1\u574a\u9053\u8def(1)\u5e83\u5ddd\u7b2c\u4e8c\u9ad8\u67b6\u6a4b\u8a73\u7d30\u8a2d\u8a08","client_name":"\u56fd\u571f\u4ea4\u901a\u7701\u8fd1\u757f\u5730\u65b9\u6574\u5099\u5c40\u548c\u6b4c\u5c71\u6cb3\u5ddd\u56fd\u9053\u4e8b\u52d9\u6240","boring_xml_url":40,"boring_view_url":1,"soilmap_view_url":null,"soiltest_xml_url":0,"soiltest_view_url":0},{"id":172330,"code":"B4KJ201801006-0579","latitude":"33.999145","longitude":"135.1909797","source_code":"KK50357195013","project_name":"","survey_name":"\u6e6f\u6d45\u5fa1\u574a\u9053\u8def(1)\u5e83\u5ddd\u5730\u533a\u5730\u8cea\u8abf\u67fb\u305d\u306e3\u4f5c\u696d","client_name":"\u56fd\u571f\u4ea4\u901a\u7701\u8fd1\u757f\u5730\u65b9\u6574\u5099\u5c40\u548c\u6b4c\u5c71\u6cb3\u5ddd\u56fd\u9053\u4e8b\u52d9\u6240","boring_xml_url":40,"boring_view_url":1,"soilmap_view_url":null,"soiltest_xml_url":0,"soiltest_view_url":0},{"id":172329,"code":"B4KJ201801006-0578","latitude":"33.999145","longitude":"135.1909797","source_code":"KK50357195012","project_name":"","survey_name":"\u6e6f\u6d45\u5fa1\u574a\u9053\u8def(1)\u5e83\u5ddd\u5730\u533a\u5730\u8cea\u8abf\u67fb\u305d\u306e3\u4f5c\u696d","client_name":"\u56fd\u571f\u4ea4\u901a\u7701\u8fd1\u757f\u5730\u65b9\u6574\u5099\u5c40\u548c\u6b4c\u5c71\u6cb3\u5ddd\u56fd\u9053\u4e8b\u52d9\u6240","boring_xml_url":40,"boring_view_url":1,"soilmap_view_url":null,"soiltest_xml_url":0,"soiltest_view_url":0},{"id":172328,"code":"B4KJ201801006-0577","latitude":"33.999145","longitude":"135.1909797","source_code":"KK50357195011","project_name":"","survey_name":"\u6e6f\u6d45\u5fa1\u574a\u9053\u8def(1)\u5e83\u5ddd\u5730\u533a\u5730\u8cea\u8abf\u67fb\u305d\u306e3\u4f5c\u696d","client_name":"\u56fd\u571f\u4ea4\u901a\u7701\u8fd1\u757f\u5730\u65b9\u6574\u5099\u5c40\u548c\u6b4c\u5c71\u6cb3\u5ddd\u56fd\u9053\u4e8b\u52d9\u6240","boring_xml_url":40,"boring_view_url":1,"soilmap_view_url":null,"soiltest_xml_url":0,"soiltest_view_url":0},{"id":172327,"code":"B4KJ201801006-0576","latitude":"33.999145","longitude":"135.1909797","source_code":"KK50357195010","project_name":"","survey_name":"\u6e6f\u6d45\u5fa1\u574a\u9053\u8def(1)\u5e83\u5ddd\u5730\u533a\u5730\u8cea\u8abf\u67fb\u305d\u306e3\u4f5c\u696d","client_name":"\u56fd\u571f\u4ea4\u901a\u7701\u8fd1\u757f\u5730\u65b9\u6574\u5099\u5c40\u548c\u6b4c\u5c71\u6cb3\u5ddd\u56fd\u9053\u4e8b\u52d9\u6240","boring_xml_url":40,"boring_view_url":1,"soilmap_view_url":null,"soiltest_xml_url":0,"soiltest_view_url":0},{"id":172326,"code":"B4KJ201801006-0575","latitude":"33.999145","longitude":"135.1963961","source_code":"KK50357195009","project_name":"","survey_name":"\u6e6f\u6d45\u5fa1\u574a\u9053\u8def(1)\u5e83\u5ddd\u5730\u533a\u5730\u8cea\u8abf\u67fb\u4f5c\u696d","client_name":"\u56fd\u571f\u4ea4\u901a\u7701\u8fd1\u757f\u5730\u65b9\u6574\u5099\u5c40\u548c\u6b4c\u5c71\u6cb3\u5ddd\u56fd\u9053\u4e8b\u52d9\u6240","boring_xml_url":40,"boring_view_url":1,"soilmap_view_url":null,"soiltest_xml_url":0,"soiltest_view_url":0},{"id":172325,"code":"B4KJ201801006-0574","latitude":"33.9983117","longitude":"135.1966739","source_code":"KK50357195008","project_name":"","survey_name":"\u6e6f\u6d45\u5fa1\u574a\u9053\u8def(1)\u5e83\u5ddd\u5730\u533a\u5730\u8cea\u8abf\u67fb\u4f5c\u696d","client_name":"\u56fd\u571f\u4ea4\u901a\u7701\u8fd1\u757f\u5730\u65b9\u6574\u5099\u5c40\u548c\u6b4c\u5c71\u6cb3\u5ddd\u56fd\u9053\u4e8b\u52d9\u6240","boring_xml_url":40,"boring_view_url":1,"soilmap_view_url":null,"soiltest_xml_url":0,"soiltest_view_url":0},{"id":172324,"code":"B4KJ201801006-0573","latitude":"33.9974786","longitude":"135.1966739","source_code":"KK50357195006","project_name":"","survey_name":"\u6e6f\u6d45\u5fa1\u574a\u9053\u8def(1)\u5e83\u5ddd\u5730\u533a\u5730\u8cea\u8abf\u67fb\u4f5c\u696d","client_name":"\u56fd\u571f\u4ea4\u901a\u7701\u8fd1\u757f\u5730\u65b9\u6574\u5099\u5c40\u548c\u6b4c\u5c71\u6cb3\u5ddd\u56fd\u9053\u4e8b\u52d9\u6240","boring_xml_url":40,"boring_view_url":1,"soilmap_view_url":null,"soiltest_xml_url":0,"soiltest_view_url":0},{"id":172323,"code":"B4KJ201801006-0572","latitude":"33.9969231","longitude":"135.1966739","source_code":"KK50357195004","project_name":"","survey_name":"\u6e6f\u6d45\u5fa1\u574a\u9053\u8def(1)\u5e83\u5ddd\u5730\u533a\u5730\u8cea\u8abf\u67fb\u4f5c\u696d","client_name":"\u56fd\u571f\u4ea4\u901a\u7701\u8fd1\u757f\u5730\u65b9\u6574\u5099\u5c40\u548c\u6b4c\u5c71\u6cb3\u5ddd\u56fd\u9053\u4e8b\u52d9\u6240","boring_xml_url":40,"boring_view_url":1,"soilmap_view_url":null,"soiltest_xml_url":0,"soiltest_view_url":0},{"id":172322,"code":"B4KJ201801006-0571","latitude":"33.9963675","longitude":"135.1969517","source_code":"KK50357195003","project_name":"","survey_name":"\u6e6f\u6d45\u5fa1\u574a\u9053\u8def(1)\u5e83\u5ddd\u5730\u533a\u5730\u8cea\u8abf\u67fb\u4f5c\u696d","client_name":"\u56fd\u571f\u4ea4\u901a\u7701\u8fd1\u757f\u5730\u65b9\u6574\u5099\u5c40\u548c\u6b4c\u5c71\u6cb3\u5ddd\u56fd\u9053\u4e8b\u52d9\u6240","boring_xml_url":40,"boring_view_url":1,"soilmap_view_url":null,"soiltest_xml_url":0,"soiltest_view_url":0},{"id":172321,"code":"B4KJ201801006-0570","latitude":"33.999145","longitude":"135.1909797","source_code":"KK50357195002","project_name":"","survey_name":"\u6e6f\u6d45\u5fa1\u574a\u9053\u8def(1)\u5e83\u5ddd\u5730\u533a\u5730\u8cea\u8abf\u67fb\u4f5c\u696d","client_name":"\u56fd\u571f\u4ea4\u901a\u7701\u8fd1\u757f\u5730\u65b9\u6574\u5099\u5c40\u548c\u6b4c\u5c71\u6cb3\u5ddd\u56fd\u9053\u4e8b\u52d9\u6240","boring_xml_url":40,"boring_view_url":1,"soilmap_view_url":null,"soiltest_xml_url":0,"soiltest_view_url":0},{"id":172320,"code":"B4KJ201801006-0569","latitude":"33.9988672","longitude":"135.1963961","source_code":"KK50357195001","project_name":"","survey_name":"\u6e6f\u6d45\u5fa1\u574a\u9053\u8def(1)\u5e83\u5ddd\u5730\u533a\u5730\u8cea\u8abf\u67fb\u4f5c\u696d","client_name":"\u56fd\u571f\u4ea4\u901a\u7701\u8fd1\u757f\u5730\u65b9\u6574\u5099\u5c40\u548c\u6b4c\u5c71\u6cb3\u5ddd\u56fd\u9053\u4e8b\u52d9\u6240","boring_xml_url":40,"boring_view_url":1,"soilmap_view_url":null,"soiltest_xml_url":0,"soiltest_view_url":0},{"id":172319,"code":"B4KJ201801006-0568","latitude":"33.9908128","longitude":"135.2034789","source_code":"KK50357186008","project_name":"","survey_name":"\u6e6f\u6d45\u5fa1\u574a\u9053\u8def(1)\u5e83\u5ddd\u5730\u533a\u5730\u8cea\u8abf\u67fb\u305d\u306e3\u4f5c\u696d","client_name":"\u56fd\u571f\u4ea4\u901a\u7701\u8fd1\u757f\u5730\u65b9\u6574\u5099\u5c40\u548c\u6b4c\u5c71\u6cb3\u5ddd\u56fd\u9053\u4e8b\u52d9\u6240","boring_xml_url":40,"boring_view_url":1,"soilmap_view_url":null,"soiltest_xml_url":0,"soiltest_view_url":0},{"id":172318,"code":"B4KJ201801006-0567","latitude":"33.9908128","longitude":"135.2034789","source_code":"KK50357186007","project_name":"","survey_name":"\u6e6f\u6d45\u5fa1\u574a\u9053\u8def(I)\u5e83\u5ddd\u5730\u533a\u5730\u8cea\u8abf\u67fb\u305d\u306e3\u4f5c\u696d","client_name":"\u56fd\u571f\u4ea4\u901a\u7701\u8fd1\u757f\u5730\u65b9\u6574\u5099\u5c40\u548c\u6b4c\u5c71\u6cb3\u5ddd\u56fd\u9053\u4e8b\u52d9\u6240","boring_xml_url":40,"boring_view_url":1,"soilmap_view_url":null,"soiltest_xml_url":0,"soiltest_view_url":0},{"id":172317,"code":"B4KJ201801006-0566","latitude":"33.9894239","longitude":"135.1994517","source_code":"KK50357186003","project_name":"","survey_name":"\u6e6f\u6d45\u5fa1\u574a\u9053\u8def(1)\u5e83\u5ddd\u5730\u533a\u5730\u8cea\u8abf\u67fb\u4f5c\u696d","client_name":"\u56fd\u571f\u4ea4\u901a\u7701\u8fd1\u757f\u5730\u65b9\u6574\u5099\u5c40\u548c\u6b4c\u5c71\u6cb3\u5ddd\u56fd\u9053\u4e8b\u52d9\u6240","boring_xml_url":40,"boring_view_url":1,"soilmap_view_url":null,"soiltest_xml_url":0,"soiltest_view_url":0},{"id":172316,"code":"B4KJ201801006-0565","latitude":"33.9880353","longitude":"135.1988961","source_code":"KK50357186001","project_name":"","survey_name":"\u6e6f\u6d45\u5fa1\u574a\u9053\u8def(1)\u5e83\u5ddd\u5730\u533a\u5730\u8cea\u8abf\u67fb\u4f5c\u696d","client_name":"\u56fd\u571f\u4ea4\u901a\u7701\u8fd1\u757f\u5730\u65b9\u6574\u5099\u5c40\u548c\u6b4c\u5c71\u6cb3\u5ddd\u56fd\u9053\u4e8b\u52d9\u6240","boring_xml_url":40,"boring_view_url":1,"soilmap_view_url":null,"soiltest_xml_url":0,"soiltest_view_url":0}]}}