{"header":{"xyz":{"source":[],"mosaic":false},"page":4950,"raw":{"soiltest_result":"0","bbox":"57.598333,109.544722,1.933333,163.806111","page":"4950"},"conditions":{"soiltest_result":0,"north":57.598333,"west":109.544722,"south":1.933333,"east":163.806111},"success":true,"message":""},"data":{"meta":{"total":212844,"page":4950,"pages":7095,"count":30},"values":[{"id":172075,"code":"B4KJ201801006-0324","latitude":"33.6896972","longitude":"135.9647839","source_code":"KK50354727008","project_name":"","survey_name":"\u90a3\u667a\u52dd\u6d66\u9053\u8def\u5730\u8cea\u8abf\u67fb\u696d\u52d9","client_name":"\u56fd\u571f\u4ea4\u901a\u7701\u8fd1\u757f\u5730\u65b9\u6574\u5099\u5c40\u7d00\u5357\u6cb3\u5ddd\u56fd\u9053\u4e8b\u52d9\u6240","boring_xml_url":40,"boring_view_url":1,"soilmap_view_url":null,"soiltest_xml_url":0,"soiltest_view_url":0},{"id":172074,"code":"B4KJ201801006-0323","latitude":"33.6894194","longitude":"135.9641728","source_code":"KK50354727007","project_name":"","survey_name":"\u90a3\u667a\u52dd\u6d66\u9053\u8def\u5730\u8cea\u8abf\u67fb\u696d\u52d9","client_name":"\u56fd\u571f\u4ea4\u901a\u7701\u8fd1\u757f\u5730\u65b9\u6574\u5099\u5c40\u7d00\u5357\u6cb3\u5ddd\u56fd\u9053\u4e8b\u52d9\u6240","boring_xml_url":40,"boring_view_url":1,"soilmap_view_url":null,"soiltest_xml_url":0,"soiltest_view_url":0},{"id":172073,"code":"B4KJ201801006-0322","latitude":"33.690864","longitude":"135.971061","source_code":"KK50354727001","project_name":"","survey_name":"\u90a3\u667a\u52dd\u6d66\u9053\u8def(\u65b0\u5bae\u5e02)\u571f\u8cea\u8abf\u67fb\u696d\u52d9","client_name":"\u56fd\u571f\u4ea4\u901a\u7701\u8fd1\u757f\u5730\u65b9\u6574\u5099\u5c40\u7d00\u5357\u6cb3\u5ddd\u56fd\u9053\u4e8b\u52d9\u6240","boring_xml_url":40,"boring_view_url":1,"soilmap_view_url":null,"soiltest_xml_url":0,"soiltest_view_url":0},{"id":172072,"code":"B4KJ201801006-0321","latitude":"33.6882528","longitude":"135.9582011","source_code":"KK50354726005","project_name":"","survey_name":"\u4f50\u91ce\u30c8\u30f3\u30cd\u30eb\u5730\u8cea\u8abf\u67fb\u696d\u52d9","client_name":"\u56fd\u571f\u4ea4\u901a\u7701\u8fd1\u757f\u5730\u65b9\u6574\u5099\u5c40\u7d00\u5357\u6cb3\u5ddd\u56fd\u9053\u4e8b\u52d9\u6240","boring_xml_url":40,"boring_view_url":1,"soilmap_view_url":null,"soiltest_xml_url":0,"soiltest_view_url":0},{"id":172071,"code":"B4KJ201801006-0320","latitude":"33.6878639","longitude":"135.9571178","source_code":"KK50354726004","project_name":"","survey_name":"\u4f50\u91ce\u30c8\u30f3\u30cd\u30eb\u5730\u8cea\u8abf\u67fb\u696d\u52d9","client_name":"\u56fd\u571f\u4ea4\u901a\u7701\u8fd1\u757f\u5730\u65b9\u6574\u5099\u5c40\u7d00\u5357\u6cb3\u5ddd\u56fd\u9053\u4e8b\u52d9\u6240","boring_xml_url":40,"boring_view_url":1,"soilmap_view_url":null,"soiltest_xml_url":0,"soiltest_view_url":0},{"id":172070,"code":"B4KJ201801006-0319","latitude":"33.6877528","longitude":"135.9568403","source_code":"KK50354726003","project_name":"","survey_name":"\u4f50\u91ce\u30c8\u30f3\u30cd\u30eb\u5730\u8cea\u8abf\u67fb\u696d\u52d9","client_name":"\u56fd\u571f\u4ea4\u901a\u7701\u8fd1\u757f\u5730\u65b9\u6574\u5099\u5c40\u7d00\u5357\u6cb3\u5ddd\u56fd\u9053\u4e8b\u52d9\u6240","boring_xml_url":40,"boring_view_url":1,"soilmap_view_url":null,"soiltest_xml_url":0,"soiltest_view_url":0},{"id":172069,"code":"B4KJ201801006-0318","latitude":"33.686975","longitude":"135.9555069","source_code":"KK50354726002","project_name":"","survey_name":"\u90a3\u667a\u52dd\u6d66\u9053\u8def(\u65b0\u5bae\u5e02)\u571f\u8cea\u8abf\u67fb\u696d\u52d9","client_name":"\u56fd\u571f\u4ea4\u901a\u7701\u8fd1\u757f\u5730\u65b9\u6574\u5099\u5c40\u7d00\u5357\u6cb3\u5ddd\u56fd\u9053\u4e8b\u52d9\u6240","boring_xml_url":40,"boring_view_url":1,"soilmap_view_url":null,"soiltest_xml_url":0,"soiltest_view_url":0},{"id":172068,"code":"B4KJ201801006-0317","latitude":"33.6875306","longitude":"135.9546736","source_code":"KK50354726001","project_name":"","survey_name":"\u90a3\u667a\u52dd\u6d66\u9053\u8def(\u65b0\u5bae\u5e02)\u571f\u8cea\u8abf\u67fb\u696d\u52d9","client_name":"\u56fd\u571f\u4ea4\u901a\u7701\u8fd1\u757f\u5730\u65b9\u6574\u5099\u5c40\u7d00\u5357\u6cb3\u5ddd\u56fd\u9053\u4e8b\u52d9\u6240","boring_xml_url":40,"boring_view_url":1,"soilmap_view_url":null,"soiltest_xml_url":0,"soiltest_view_url":0},{"id":172067,"code":"B4KJ201801006-0316","latitude":"33.6860031","longitude":"135.9546181","source_code":"KK50354716013","project_name":"","survey_name":"\u90a3\u667a\u52dd\u6d66\u9053\u8def(\u6728\u30ce\u5ddd\u9ad8\u67b6\u6a4b)\u8a73\u7d30\u8a2d\u8a08\u696d\u52d9","client_name":"\u56fd\u571f\u4ea4\u901a\u7701\u8fd1\u757f\u5730\u65b9\u6574\u5099\u5c40\u7d00\u5357\u6cb3\u5ddd\u56fd\u9053\u4e8b\u52d9\u6240","boring_xml_url":40,"boring_view_url":1,"soilmap_view_url":null,"soiltest_xml_url":0,"soiltest_view_url":0},{"id":172066,"code":"B4KJ201801006-0315","latitude":"33.6855586","longitude":"135.9540628","source_code":"KK50354716012","project_name":"","survey_name":"\u90a3\u667a\u52dd\u6d66\u9053\u8def(\u6728\u30ce\u5ddd\u9ad8\u67b6\u6a4b)\u8a73\u7d30\u8a2d\u8a08\u696d\u52d9","client_name":"\u56fd\u571f\u4ea4\u901a\u7701\u8fd1\u757f\u5730\u65b9\u6574\u5099\u5c40\u7d00\u5357\u6cb3\u5ddd\u56fd\u9053\u4e8b\u52d9\u6240","boring_xml_url":40,"boring_view_url":1,"soilmap_view_url":null,"soiltest_xml_url":0,"soiltest_view_url":0},{"id":172065,"code":"B4KJ201801006-0314","latitude":"33.6848086","longitude":"135.9532294","source_code":"KK50354716011","project_name":"","survey_name":"\u90a3\u667a\u52dd\u6d66\u9053\u8def(\u6728\u30ce\u5ddd\u9ad8\u67b6\u6a4b)\u8a73\u7d30\u8a2d\u8a08\u696d\u52d9","client_name":"\u56fd\u571f\u4ea4\u901a\u7701\u8fd1\u757f\u5730\u65b9\u6574\u5099\u5c40\u7d00\u5357\u6cb3\u5ddd\u56fd\u9053\u4e8b\u52d9\u6240","boring_xml_url":40,"boring_view_url":1,"soilmap_view_url":null,"soiltest_xml_url":0,"soiltest_view_url":0},{"id":172064,"code":"B4KJ201801006-0313","latitude":"33.6863919","longitude":"135.9557569","source_code":"KK50354716010","project_name":"","survey_name":"\u90a3\u667a\u52dd\u6d66\u9053\u8def(\u6728\u30ce\u5ddd\u5730\u533a)\u5730\u8cea\u8abf\u67fb\u696d\u52d9","client_name":"\u56fd\u571f\u4ea4\u901a\u7701 \u8fd1\u757f\u5730\u65b9\u6574\u5099\u5c40 \u7d00\u5357\u6cb3\u5ddd\u56fd\u9053\u4e8b\u52d9\u6240","boring_xml_url":40,"boring_view_url":1,"soilmap_view_url":null,"soiltest_xml_url":0,"soiltest_view_url":0},{"id":172063,"code":"B4KJ201801006-0312","latitude":"33.6861697","longitude":"135.9555625","source_code":"KK50354716009","project_name":"","survey_name":"\u90a3\u667a\u52dd\u6d66\u9053\u8def(\u6728\u30ce\u5ddd\u5730\u533a)\u5730\u8cea\u8abf\u67fb\u696d\u52d9","client_name":"\u56fd\u571f\u4ea4\u901a\u7701 \u8fd1\u757f\u5730\u65b9\u6574\u5099\u5c40 \u7d00\u5357\u6cb3\u5ddd\u56fd\u9053\u4e8b\u52d9\u6240","boring_xml_url":40,"boring_view_url":1,"soilmap_view_url":null,"soiltest_xml_url":0,"soiltest_view_url":0},{"id":172062,"code":"B4KJ201801006-0311","latitude":"33.6852531","longitude":"135.9546461","source_code":"KK50354716008","project_name":"","survey_name":"\u90a3\u667a\u52dd\u6d66\u9053\u8def(\u6728\u30ce\u5ddd\u5730\u533a)\u5730\u8cea\u8abf\u67fb\u696d\u52d9","client_name":"\u56fd\u571f\u4ea4\u901a\u7701\u8fd1\u757f\u5730\u65b9\u6574\u5099\u5c40\u7d00\u5357\u6cb3\u5ddd\u56fd\u9053\u4e8b\u52d9\u6240","boring_xml_url":40,"boring_view_url":1,"soilmap_view_url":null,"soiltest_xml_url":0,"soiltest_view_url":0},{"id":172061,"code":"B4KJ201801006-0310","latitude":"33.6851975","longitude":"135.9545628","source_code":"KK50354716007","project_name":"","survey_name":"\u90a3\u667a\u52dd\u6d66\u9053\u8def(\u6728\u30ce\u5ddd\u5730\u533a)\u5730\u8cea\u8abf\u67fb\u696d\u52d9","client_name":"\u56fd\u571f\u4ea4\u901a\u7701 \u8fd1\u757f\u5730\u65b9\u6574\u5099\u5c40 \u7d00\u5357\u6cb3\u5ddd\u56fd\u9053\u4e8b\u52d9\u6240","boring_xml_url":40,"boring_view_url":1,"soilmap_view_url":null,"soiltest_xml_url":0,"soiltest_view_url":0},{"id":172060,"code":"B4KJ201801006-0309","latitude":"33.6845864","longitude":"135.9540628","source_code":"KK50354716006","project_name":"","survey_name":"\u90a3\u667a\u52dd\u6d66\u9053\u8def(\u6728\u30ce\u5ddd\u5730\u533a)\u5730\u8cea\u8abf\u67fb\u696d\u52d9","client_name":"\u56fd\u571f\u4ea4\u901a\u7701\u8fd1\u757f\u5730\u65b9\u6574\u5099\u5c40\u7d00\u5357\u6cb3\u5ddd\u56fd\u9053\u4e8b\u52d9\u6240","boring_xml_url":40,"boring_view_url":1,"soilmap_view_url":null,"soiltest_xml_url":0,"soiltest_view_url":0},{"id":172059,"code":"B4KJ201801006-0308","latitude":"33.6841142","longitude":"135.9535628","source_code":"KK50354716005","project_name":"","survey_name":"\u90a3\u667a\u52dd\u6d66\u9053\u8def(\u6728\u30ce\u5ddd\u5730\u533a)\u5730\u8cea\u8abf\u67fb\u696d\u52d9","client_name":"\u56fd\u571f\u4ea4\u901a\u7701\u8fd1\u757f\u5730\u65b9\u6574\u5099\u5c40\u7d00\u5357\u6cb3\u5ddd\u56fd\u9053\u4e8b\u52d9\u6240","boring_xml_url":40,"boring_view_url":1,"soilmap_view_url":null,"soiltest_xml_url":0,"soiltest_view_url":0},{"id":172058,"code":"B4KJ201801006-0307","latitude":"33.6863919","longitude":"135.9557569","source_code":"KK50354716004","project_name":"","survey_name":"\u90a3\u667a\u52dd\u6d66\u9053\u8def(\u6728\u30ce\u5ddd\u5730\u533a)\u5730\u8cea\u8abf\u67fb\u696d\u52d9","client_name":"\u56fd\u571f\u4ea4\u901a\u7701\u8fd1\u757f\u5730\u65b9\u6574\u5099\u5c40\u7d00\u5357\u6cb3\u5ddd\u56fd\u9053\u4e8b\u52d9\u6240","boring_xml_url":40,"boring_view_url":1,"soilmap_view_url":null,"soiltest_xml_url":0,"soiltest_view_url":0},{"id":172057,"code":"B4KJ201801006-0306","latitude":"33.6861697","longitude":"135.9555625","source_code":"KK50354716003","project_name":"","survey_name":"\u90a3\u667a\u52dd\u6d66\u9053\u8def(\u6728\u30ce\u5ddd\u5730\u533a)\u5730\u8cea\u8abf\u67fb\u696d\u52d9","client_name":"\u56fd\u571f\u4ea4\u901a\u7701\u8fd1\u757f\u5730\u65b9\u6574\u5099\u5c40\u7d00\u5357\u6cb3\u5ddd\u56fd\u9053\u4e8b\u52d9\u6240","boring_xml_url":40,"boring_view_url":1,"soilmap_view_url":null,"soiltest_xml_url":0,"soiltest_view_url":0},{"id":172056,"code":"B4KJ201801006-0305","latitude":"33.6851975","longitude":"135.9545628","source_code":"KK50354716002","project_name":"","survey_name":"\u90a3\u667a\u52dd\u6d66\u9053\u8def(\u6728\u30ce\u5ddd\u5730\u533a)\u5730\u8cea\u8abf\u67fb\u696d\u52d9","client_name":"\u56fd\u571f\u4ea4\u901a\u7701\u8fd1\u757f\u5730\u65b9\u6574\u5099\u5c40\u7d00\u5357\u6cb3\u5ddd\u56fd\u9053\u4e8b\u52d9\u6240","boring_xml_url":40,"boring_view_url":1,"soilmap_view_url":null,"soiltest_xml_url":0,"soiltest_view_url":0},{"id":172055,"code":"B4KJ201801006-0304","latitude":"33.6825311","longitude":"135.9534239","source_code":"KK50354716001","project_name":"","survey_name":"\u90a3\u667a\u52dd\u6d66\u4f50\u91ce\u9053\u8def\u7269\u7406\u63a2\u67fb\u696d\u52d9","client_name":"\u56fd\u571f\u4ea4\u901a\u7701\u8fd1\u757f\u5730\u65b9\u6574\u5099\u5c40\u7d00\u5357\u6cb3\u5ddd\u56fd\u9053\u4e8b\u52d9\u6240","boring_xml_url":40,"boring_view_url":1,"soilmap_view_url":null,"soiltest_xml_url":0,"soiltest_view_url":0},{"id":172054,"code":"B4KJ201801006-0303","latitude":"33.6763372","longitude":"135.9489244","source_code":"KK50354706008","project_name":"","survey_name":"\u90a3\u667a\u52dd\u6d66\u9053\u8def(\u9ad8\u6d25\u6c17\u5730\u533a)\u5730\u8cea\u8abf\u67fb\u696d\u52d9","client_name":"\u56fd\u571f\u4ea4\u901a\u7701\u8fd1\u757f\u5730\u65b9\u6574\u5099\u5c40\u7d00\u5357\u6cb3\u5ddd\u56fd\u9053\u4e8b\u52d9\u6240","boring_xml_url":40,"boring_view_url":1,"soilmap_view_url":null,"soiltest_xml_url":0,"soiltest_view_url":0},{"id":172053,"code":"B4KJ201801006-0302","latitude":"33.6755872","longitude":"135.9487581","source_code":"KK50354706007","project_name":"","survey_name":"\u90a3\u667a\u52dd\u6d66\u9053\u8def(\u9ad8\u6d25\u6c17\u5730\u533a)\u5730\u8cea\u8abf\u67fb\u696d\u52d9","client_name":"\u56fd\u571f\u4ea4\u901a\u7701\u8fd1\u757f\u5730\u65b9\u6574\u5099\u5c40\u7d00\u5357\u6cb3\u5ddd\u56fd\u9053\u4e8b\u52d9\u6240","boring_xml_url":40,"boring_view_url":1,"soilmap_view_url":null,"soiltest_xml_url":0,"soiltest_view_url":0},{"id":172052,"code":"B4KJ201801006-0301","latitude":"33.6747819","longitude":"135.9485636","source_code":"KK50354706006","project_name":"","survey_name":"\u90a3\u667a\u52dd\u6d66\u9053\u8def(\u9ad8\u6d25\u6c17\u5730\u533a)\u5730\u8cea\u8abf\u67fb\u696d\u52d9","client_name":"\u56fd\u571f\u4ea4\u901a\u7701\u8fd1\u757f\u5730\u65b9\u6574\u5099\u5c40\u7d00\u5357\u6cb3\u5ddd\u56fd\u9053\u4e8b\u52d9\u6240","boring_xml_url":40,"boring_view_url":1,"soilmap_view_url":null,"soiltest_xml_url":0,"soiltest_view_url":0},{"id":172051,"code":"B4KJ201801006-0300","latitude":"33.6739208","longitude":"135.9483414","source_code":"KK50354706005","project_name":"","survey_name":"\u90a3\u667a\u52dd\u6d66\u9053\u8def(\u9ad8\u6d25\u6c17\u5730\u533a)\u5730\u8cea\u8abf\u67fb\u696d\u52d9","client_name":"\u56fd\u571f\u4ea4\u901a\u7701\u8fd1\u757f\u5730\u65b9\u6574\u5099\u5c40\u7d00\u5357\u6cb3\u5ddd\u56fd\u9053\u4e8b\u52d9\u6240","boring_xml_url":40,"boring_view_url":1,"soilmap_view_url":null,"soiltest_xml_url":0,"soiltest_view_url":0},{"id":172050,"code":"B4KJ201801006-0299","latitude":"33.6734486","longitude":"135.9480636","source_code":"KK50354706004","project_name":"","survey_name":"\u90a3\u667a\u52dd\u6d66\u9053\u8def(\u9ad8\u6d25\u6c17\u5730\u533a)\u5730\u8cea\u8abf\u67fb\u696d\u52d9","client_name":"\u56fd\u571f\u4ea4\u901a\u7701\u8fd1\u757f\u5730\u65b9\u6574\u5099\u5c40\u7d00\u5357\u6cb3\u5ddd\u56fd\u9053\u4e8b\u52d9\u6240","boring_xml_url":40,"boring_view_url":1,"soilmap_view_url":null,"soiltest_xml_url":0,"soiltest_view_url":0},{"id":172049,"code":"B4KJ201801006-0298","latitude":"33.6767261","longitude":"135.9495911","source_code":"KK50354706003","project_name":"","survey_name":"\u90a3\u667a\u52dd\u6d66\u9053\u8def(\u90a3\u667a\u52dd\u6d66\u753a)\u571f\u8cea\u8abf\u67fb\u696d\u52d9","client_name":"\u56fd\u571f\u4ea4\u901a\u7701\u8fd1\u757f\u5730\u65b9\u6574\u5099\u5c40\u7d00\u5357\u6cb3\u5ddd\u56fd\u9053\u4e8b\u52d9\u6240","boring_xml_url":40,"boring_view_url":1,"soilmap_view_url":null,"soiltest_xml_url":0,"soiltest_view_url":0},{"id":172048,"code":"B4KJ201801006-0297","latitude":"33.6765872","longitude":"135.9491744","source_code":"KK50354706002","project_name":"","survey_name":"\u90a3\u667a\u52dd\u6d66\u9053\u8def(\u90a3\u667a\u52dd\u6d66\u753a)\u571f\u8cea\u8abf\u67fb\u696d\u52d9","client_name":"\u56fd\u571f\u4ea4\u901a\u7701\u8fd1\u757f\u5730\u65b9\u6574\u5099\u5c40\u7d00\u5357\u6cb3\u5ddd\u56fd\u9053\u4e8b\u52d9\u6240","boring_xml_url":40,"boring_view_url":1,"soilmap_view_url":null,"soiltest_xml_url":0,"soiltest_view_url":0},{"id":172047,"code":"B4KJ201801006-0296","latitude":"33.6754486","longitude":"135.9535631","source_code":"KK50354706001","project_name":"","survey_name":"\u90a3\u667a\u52dd\u6d66\u4f50\u91ce\u9053\u8def\u7269\u7406\u63a2\u67fb\u696d\u52d9","client_name":"\u56fd\u571f\u4ea4\u901a\u7701\u8fd1\u757f\u5730\u65b9\u6574\u5099\u5c40\u7d00\u5357\u6cb3\u5ddd\u56fd\u9053\u4e8b\u52d9\u6240","boring_xml_url":40,"boring_view_url":1,"soilmap_view_url":null,"soiltest_xml_url":0,"soiltest_view_url":0},{"id":172046,"code":"B4KJ201801006-0295","latitude":"33.6702544","longitude":"135.9462028","source_code":"KK50354705002","project_name":"","survey_name":"\u90a3\u667a\u52dd\u6d66\u9053\u8def(\u90a3\u667a\u52dd\u6d66\u753a)\u571f\u8cea\u8abf\u67fb\u696d\u52d9","client_name":"\u56fd\u571f\u4ea4\u901a\u7701\u8fd1\u757f\u5730\u65b9\u6574\u5099\u5c40\u7d00\u5357\u6cb3\u5ddd\u56fd\u9053\u4e8b\u52d9\u6240","boring_xml_url":40,"boring_view_url":1,"soilmap_view_url":null,"soiltest_xml_url":0,"soiltest_view_url":0}]}}