{"header":{"xyz":{"source":[],"mosaic":false},"page":4957,"raw":{"soiltest_result":"0","bbox":"57.598333,109.544722,1.933333,163.806111","page":"4957"},"conditions":{"soiltest_result":0,"north":57.598333,"west":109.544722,"south":1.933333,"east":163.806111},"success":true,"message":""},"data":{"meta":{"total":212844,"page":4957,"pages":7095,"count":30},"values":[{"id":171865,"code":"B4KJ201801006-0114","latitude":"33.6495897","longitude":"135.9322047","source_code":"KK50353774008","project_name":"","survey_name":"\u90a3\u667a\u52dd\u6d66\u9053\u8def(\u5ddd\u95a2\u5730\u533a)\u5730\u8cea\u8abf\u67fb\u696d\u52d9","client_name":"\u56fd\u571f\u4ea4\u901a\u7701\u8fd1\u757f\u5730\u65b9\u6574\u5099\u5c40\u7d00\u5357\u6cb3\u5ddd\u56fd\u9053\u4e8b\u52d9\u6240","boring_xml_url":40,"boring_view_url":1,"soilmap_view_url":null,"soiltest_xml_url":0,"soiltest_view_url":0},{"id":171864,"code":"B4KJ201801006-0113","latitude":"33.6487567","longitude":"135.9316492","source_code":"KK50353774007","project_name":"","survey_name":"\u90a3\u667a\u52dd\u6d66\u9053\u8def(\u5ddd\u95a2\u5730\u533a)\u5730\u8cea\u8abf\u67fb\u696d\u52d9","client_name":"\u56fd\u571f\u4ea4\u901a\u7701\u8fd1\u757f\u5730\u65b9\u6574\u5099\u5c40\u7d00\u5357\u6cb3\u5ddd\u56fd\u9053\u4e8b\u52d9\u6240","boring_xml_url":40,"boring_view_url":1,"soilmap_view_url":null,"soiltest_xml_url":0,"soiltest_view_url":0},{"id":171863,"code":"B4KJ201801006-0112","latitude":"33.6483956","longitude":"135.9313436","source_code":"KK50353774006","project_name":"","survey_name":"\u90a3\u667a\u52dd\u6d66\u9053\u8def(\u5ddd\u95a2\u5730\u533a)\u5730\u8cea\u8abf\u67fb\u696d\u52d9","client_name":"\u56fd\u571f\u4ea4\u901a\u7701\u8fd1\u757f\u5730\u65b9\u6574\u5099\u5c40\u7d00\u5357\u6cb3\u5ddd\u56fd\u9053\u4e8b\u52d9\u6240","boring_xml_url":40,"boring_view_url":1,"soilmap_view_url":null,"soiltest_xml_url":0,"soiltest_view_url":0},{"id":171862,"code":"B4KJ201801006-0111","latitude":"33.6471456","longitude":"135.9306492","source_code":"KK50353774005","project_name":"","survey_name":"\u90a3\u667a\u52dd\u6d66\u9053\u8def(\u5ddd\u95a2\u5730\u533a)\u5730\u8cea\u8abf\u67fb\u696d\u52d9","client_name":"\u56fd\u571f\u4ea4\u901a\u7701\u8fd1\u757f\u5730\u65b9\u6574\u5099\u5c40\u7d00\u5357\u6cb3\u5ddd\u56fd\u9053\u4e8b\u52d9\u6240","boring_xml_url":40,"boring_view_url":1,"soilmap_view_url":null,"soiltest_xml_url":0,"soiltest_view_url":0},{"id":171861,"code":"B4KJ201801006-0110","latitude":"33.6465903","longitude":"135.9303161","source_code":"KK50353774004","project_name":"","survey_name":"\u90a3\u667a\u52dd\u6d66\u9053\u8def(\u5ddd\u95a2\u5730\u533a)\u5730\u8cea\u8abf\u67fb\u696d\u52d9","client_name":"\u56fd\u571f\u4ea4\u901a\u7701\u8fd1\u757f\u5730\u65b9\u6574\u5099\u5c40\u7d00\u5357\u6cb3\u5ddd\u56fd\u9053\u4e8b\u52d9\u6240","boring_xml_url":40,"boring_view_url":1,"soilmap_view_url":null,"soiltest_xml_url":0,"soiltest_view_url":0},{"id":171860,"code":"B4KJ201801006-0109","latitude":"33.6455625","longitude":"135.9297328","source_code":"KK50353774003","project_name":"","survey_name":"\u90a3\u667a\u52dd\u6d66\u9053\u8def(\u5ddd\u95a2\u5730\u533a)\u5730\u8cea\u8abf\u67fb\u696d\u52d9","client_name":"\u56fd\u571f\u4ea4\u901a\u7701\u8fd1\u757f\u5730\u65b9\u6574\u5099\u5c40\u7d00\u5357\u6cb3\u5ddd\u56fd\u9053\u4e8b\u52d9\u6240","boring_xml_url":40,"boring_view_url":1,"soilmap_view_url":null,"soiltest_xml_url":0,"soiltest_view_url":0},{"id":171859,"code":"B4KJ201801006-0108","latitude":"33.6532283","longitude":"135.9340656","source_code":"KK50353774002","project_name":"","survey_name":"\u90a3\u667a\u52dd\u6d66\u9053\u8def(\u90a3\u667a\u52dd\u6d66\u753a)\u571f\u8cea\u8abf\u67fb\u696d\u52d9","client_name":"\u56fd\u571f\u4ea4\u901a\u7701\u8fd1\u757f\u5730\u65b9\u6574\u5099\u5c40\u7d00\u5357\u6cb3\u5ddd\u56fd\u9053\u4e8b\u52d9\u6240","boring_xml_url":40,"boring_view_url":1,"soilmap_view_url":null,"soiltest_xml_url":0,"soiltest_view_url":0},{"id":171858,"code":"B4KJ201801006-0107","latitude":"33.6531728","longitude":"135.9336489","source_code":"KK50353774001","project_name":"","survey_name":"\u90a3\u667a\u52dd\u6d66\u9053\u8def(\u90a3\u667a\u52dd\u6d66\u753a)\u571f\u8cea\u8abf\u67fb\u696d\u52d9","client_name":"\u56fd\u571f\u4ea4\u901a\u7701\u8fd1\u757f\u5730\u65b9\u6574\u5099\u5c40\u7d00\u5357\u6cb3\u5ddd\u56fd\u9053\u4e8b\u52d9\u6240","boring_xml_url":40,"boring_view_url":1,"soilmap_view_url":null,"soiltest_xml_url":0,"soiltest_view_url":0},{"id":171857,"code":"B4KJ201801006-0106","latitude":"33.6429517","longitude":"135.9325381","source_code":"KK50353764025","project_name":"","survey_name":"\u6d5c\u30ce\u5bae\u5730\u533a\u5730\u8cea\u8abf\u67fb\u696d\u52d9","client_name":"\u56fd\u571f\u4ea4\u901a\u7701\u8fd1\u757f\u5730\u65b9\u6574\u5099\u5c40\u7d00\u5357\u6cb3\u5ddd\u56fd\u9053\u4e8b\u52d9\u6240","boring_xml_url":40,"boring_view_url":1,"soilmap_view_url":null,"soiltest_xml_url":0,"soiltest_view_url":0},{"id":171856,"code":"B4KJ201801006-0105","latitude":"33.6425906","longitude":"135.9325381","source_code":"KK50353764024","project_name":"","survey_name":"\u6d5c\u30ce\u5bae\u5730\u533a\u5730\u8cea\u8abf\u67fb\u696d\u52d9","client_name":"\u56fd\u571f\u4ea4\u901a\u7701\u8fd1\u757f\u5730\u65b9\u6574\u5099\u5c40\u7d00\u5357\u6cb3\u5ddd\u56fd\u9053\u4e8b\u52d9\u6240","boring_xml_url":40,"boring_view_url":1,"soilmap_view_url":null,"soiltest_xml_url":0,"soiltest_view_url":0},{"id":171855,"code":"B4KJ201801006-0104","latitude":"33.6429517","longitude":"135.9323714","source_code":"KK50353764023","project_name":"","survey_name":"\u6d5c\u30ce\u5bae\u5730\u533a\u5730\u8cea\u8abf\u67fb\u696d\u52d9","client_name":"\u56fd\u571f\u4ea4\u901a\u7701\u8fd1\u757f\u5730\u65b9\u6574\u5099\u5c40\u7d00\u5357\u6cb3\u5ddd\u56fd\u9053\u4e8b\u52d9\u6240","boring_xml_url":40,"boring_view_url":1,"soilmap_view_url":null,"soiltest_xml_url":0,"soiltest_view_url":0},{"id":171854,"code":"B4KJ201801006-0103","latitude":"33.6425906","longitude":"135.9323714","source_code":"KK50353764022","project_name":"","survey_name":"\u6d5c\u30ce\u5bae\u5730\u533a\u5730\u8cea\u8abf\u67fb\u696d\u52d9","client_name":"\u56fd\u571f\u4ea4\u901a\u7701\u8fd1\u757f\u5730\u65b9\u6574\u5099\u5c40\u7d00\u5357\u6cb3\u5ddd\u56fd\u9053\u4e8b\u52d9\u6240","boring_xml_url":40,"boring_view_url":1,"soilmap_view_url":null,"soiltest_xml_url":0,"soiltest_view_url":0},{"id":171853,"code":"B4KJ201801006-0102","latitude":"33.6428128","longitude":"135.9317328","source_code":"KK50353764021","project_name":"","survey_name":"\u6d5c\u30ce\u5bae\u5730\u533a\u5730\u8cea\u8abf\u67fb\u696d\u52d9","client_name":"\u56fd\u571f\u4ea4\u901a\u7701\u8fd1\u757f\u5730\u65b9\u6574\u5099\u5c40\u7d00\u5357\u6cb3\u5ddd\u56fd\u9053\u4e8b\u52d9\u6240","boring_xml_url":40,"boring_view_url":1,"soilmap_view_url":null,"soiltest_xml_url":0,"soiltest_view_url":0},{"id":171852,"code":"B4KJ201801006-0101","latitude":"33.6427017","longitude":"135.9311772","source_code":"KK50353764020","project_name":"","survey_name":"\u6d5c\u30ce\u5bae\u5730\u533a\u5730\u8cea\u8abf\u67fb\u696d\u52d9","client_name":"\u56fd\u571f\u4ea4\u901a\u7701\u8fd1\u757f\u5730\u65b9\u6574\u5099\u5c40\u7d00\u5357\u6cb3\u5ddd\u56fd\u9053\u4e8b\u52d9\u6240","boring_xml_url":40,"boring_view_url":1,"soilmap_view_url":null,"soiltest_xml_url":0,"soiltest_view_url":0},{"id":171851,"code":"B4KJ201801006-0100","latitude":"33.6442014","longitude":"135.9290383","source_code":"KK50353764007","project_name":"","survey_name":"\u90a3\u667a\u52dd\u6d66\u9053\u8def(\u5ddd\u95a2\u5730\u533a)\u5730\u8cea\u8abf\u67fb\u696d\u52d9","client_name":"\u56fd\u571f\u4ea4\u901a\u7701\u8fd1\u757f\u5730\u65b9\u6574\u5099\u5c40\u7d00\u5357\u6cb3\u5ddd\u56fd\u9053\u4e8b\u52d9\u6240","boring_xml_url":40,"boring_view_url":1,"soilmap_view_url":null,"soiltest_xml_url":0,"soiltest_view_url":0},{"id":171850,"code":"B4KJ201801006-0099","latitude":"33.6433683","longitude":"135.9279275","source_code":"KK50353764005","project_name":"","survey_name":"\u90a3\u667a\u52dd\u6d66\u9053\u8def(\u90a3\u667a\u52dd\u6d66\u753a)\u571f\u8cea\u8abf\u67fb\u696d\u52d9","client_name":"\u56fd\u571f\u4ea4\u901a\u7701\u8fd1\u757f\u5730\u65b9\u6574\u5099\u5c40\u7d00\u5357\u6cb3\u5ddd\u56fd\u9053\u4e8b\u52d9\u6240","boring_xml_url":40,"boring_view_url":1,"soilmap_view_url":null,"soiltest_xml_url":0,"soiltest_view_url":0},{"id":171849,"code":"B4KJ201801006-0098","latitude":"33.6418961","longitude":"135.9275664","source_code":"KK50353764004","project_name":"","survey_name":"\u90a3\u667a\u52dd\u6d66\u9053\u8def(\u90a3\u667a\u52dd\u6d66\u753a)\u571f\u8cea\u8abf\u67fb\u696d\u52d9","client_name":"\u56fd\u571f\u4ea4\u901a\u7701\u8fd1\u757f\u5730\u65b9\u6574\u5099\u5c40\u7d00\u5357\u6cb3\u5ddd\u56fd\u9053\u4e8b\u52d9\u6240","boring_xml_url":40,"boring_view_url":1,"soilmap_view_url":null,"soiltest_xml_url":0,"soiltest_view_url":0},{"id":171848,"code":"B4KJ201801006-0097","latitude":"33.6439236","longitude":"135.9267608","source_code":"KK50353764003","project_name":"","survey_name":"\u90a3\u667a\u52dd\u6d66\u9053\u8def(\u90a3\u667a\u52dd\u6d66\u753a)\u571f\u8cea\u8abf\u67fb\u696d\u52d9","client_name":"\u56fd\u571f\u4ea4\u901a\u7701\u8fd1\u757f\u5730\u65b9\u6574\u5099\u5c40\u7d00\u5357\u6cb3\u5ddd\u56fd\u9053\u4e8b\u52d9\u6240","boring_xml_url":40,"boring_view_url":1,"soilmap_view_url":null,"soiltest_xml_url":0,"soiltest_view_url":0},{"id":171847,"code":"B4KJ201801006-0096","latitude":"33.6421183","longitude":"135.9245389","source_code":"KK50353764001","project_name":"","survey_name":"\u90a3\u667a\u52dd\u6d66\u9053\u8def(\u90a3\u667a\u52dd\u6d66\u753a)\u571f\u8cea\u8abf\u67fb\u696d\u52d9","client_name":"\u56fd\u571f\u4ea4\u901a\u7701\u8fd1\u757f\u5730\u65b9\u6574\u5099\u5c40\u7d00\u5357\u6cb3\u5ddd\u56fd\u9053\u4e8b\u52d9\u6240","boring_xml_url":40,"boring_view_url":1,"soilmap_view_url":null,"soiltest_xml_url":0,"soiltest_view_url":0},{"id":171846,"code":"B4KJ201801006-0095","latitude":"33.6243983","longitude":"135.9392603","source_code":"KK50353745003","project_name":"","survey_name":"\u5e73\u62105\u5e74\u5ea6\u5929\u6e80\u5730\u533a\u5730\u8cea\u8abf\u67fb\u696d\u52d9","client_name":"\u56fd\u571f\u4ea4\u901a\u7701\u8fd1\u757f\u5730\u65b9\u6574\u5099\u5c40\u7d00\u5357\u6cb3\u5ddd\u56fd\u9053\u4e8b\u52d9\u6240","boring_xml_url":40,"boring_view_url":1,"soilmap_view_url":null,"soiltest_xml_url":0,"soiltest_view_url":0},{"id":171845,"code":"B4KJ201801006-0094","latitude":"33.6244261","longitude":"135.938705","source_code":"KK50353745002","project_name":"","survey_name":"\u5e73\u62105\u5e74\u5ea6\u5929\u6e80\u5730\u533a\u5730\u8cea\u8abf\u67fb\u696d\u52d9","client_name":"\u56fd\u571f\u4ea4\u901a\u7701\u8fd1\u757f\u5730\u65b9\u6574\u5099\u5c40\u7d00\u5357\u6cb3\u5ddd\u56fd\u9053\u4e8b\u52d9\u6240","boring_xml_url":40,"boring_view_url":1,"soilmap_view_url":null,"soiltest_xml_url":0,"soiltest_view_url":0},{"id":171844,"code":"B4KJ201801006-0093","latitude":"33.6244261","longitude":"135.9389828","source_code":"KK50353745001","project_name":"","survey_name":"\u5e73\u62104\u5e74\u5ea6\u5929\u6eff\u5730\u533a\u571f\u8cea\u8abf\u67fb\u696d\u52d9","client_name":"\u56fd\u571f\u4ea4\u901a\u7701\u8fd1\u757f\u5730\u65b9\u6574\u5099\u5c40\u7d00\u5357\u6cb3\u5ddd\u56fd\u9053\u4e8b\u52d9\u6240","boring_xml_url":40,"boring_view_url":1,"soilmap_view_url":null,"soiltest_xml_url":0,"soiltest_view_url":0},{"id":171843,"code":"B4KJ201801006-0092","latitude":"33.6158714","longitude":"135.9284283","source_code":"KK50353734003","project_name":"","survey_name":"\u6e6f\u5ddd\u30c8\u30f3\u30cd\u30eb\u8abf\u67fb\u4f5c\u696d","client_name":"\u56fd\u571f\u4ea4\u901a\u7701\u8fd1\u757f\u5730\u65b9\u6574\u5099\u5c40\u7d00\u5357\u6cb3\u5ddd\u56fd\u9053\u4e8b\u52d9\u6240","boring_xml_url":40,"boring_view_url":1,"soilmap_view_url":null,"soiltest_xml_url":0,"soiltest_view_url":0},{"id":171842,"code":"B4KJ201801006-0091","latitude":"33.6158711","longitude":"135.9159294","source_code":"KK50353733001","project_name":"","survey_name":"\u6e6f\u5ddd\u30c8\u30f3\u30cd\u30eb\u8abf\u67fb\u4f5c\u696d","client_name":"\u56fd\u571f\u4ea4\u901a\u7701\u8fd1\u757f\u5730\u65b9\u6574\u5099\u5c40\u7d00\u5357\u6cb3\u5ddd\u56fd\u9053\u4e8b\u52d9\u6240","boring_xml_url":40,"boring_view_url":1,"soilmap_view_url":null,"soiltest_xml_url":0,"soiltest_view_url":0},{"id":171841,"code":"B4KJ201801006-0090","latitude":"33.5984567","longitude":"135.9281511","source_code":"KK50353714002","project_name":"","survey_name":"\u3057\u306e\u6d66\u7cca\u59163\u30b1\u6240\u30dc\u30fc\u30ea\u30f3\u30b0\u5de5\u4e8b","client_name":"\u56fd\u571f\u4ea4\u901a\u7701\u8fd1\u757f\u5730\u65b9\u6574\u5099\u5c40\u7d00\u5357\u6cb3\u5ddd\u56fd\u9053\u4e8b\u52d9\u6240","boring_xml_url":40,"boring_view_url":1,"soilmap_view_url":null,"soiltest_xml_url":0,"soiltest_view_url":0},{"id":171840,"code":"B4KJ201801006-0089","latitude":"33.5977622","longitude":"135.9287067","source_code":"KK50353714001","project_name":"","survey_name":"\u3057\u306e\u6d66\u7cca\u59163\u30b1\u6240\u30dc\u30fc\u30ea\u30f3\u30b0\u5de5\u4e8b","client_name":"\u56fd\u571f\u4ea4\u901a\u7701\u8fd1\u757f\u5730\u65b9\u6574\u5099\u5c40\u7d00\u5357\u6cb3\u5ddd\u56fd\u9053\u4e8b\u52d9\u6240","boring_xml_url":40,"boring_view_url":1,"soilmap_view_url":null,"soiltest_xml_url":0,"soiltest_view_url":0},{"id":171839,"code":"B4KJ201801006-0088","latitude":"33.5934572","longitude":"135.9337897","source_code":"KK50353704011","project_name":"","survey_name":"\u68ee\u6d66\u5730\u533a\u5730\u8cea\u8abf\u67fb\u696d\u52d9","client_name":"\u56fd\u571f\u4ea4\u901a\u7701\u8fd1\u757f\u5730\u65b9\u6574\u5099\u5c40\u7d00\u5357\u6cb3\u5ddd\u56fd\u9053\u4e8b\u52d9\u6240","boring_xml_url":40,"boring_view_url":1,"soilmap_view_url":null,"soiltest_xml_url":0,"soiltest_view_url":0},{"id":171838,"code":"B4KJ201801006-0087","latitude":"33.5939017","longitude":"135.9337064","source_code":"KK50353704010","project_name":"","survey_name":"\u68ee\u6d66\u5730\u533a\u571f\u8cea\u8abf\u67fb\u696d\u52d9","client_name":"\u56fd\u571f\u4ea4\u901a\u7701\u8fd1\u757f\u5730\u65b9\u6574\u5099\u5c40\u7d00\u5357\u6cb3\u5ddd\u56fd\u9053\u4e8b\u52d9\u6240","boring_xml_url":40,"boring_view_url":1,"soilmap_view_url":null,"soiltest_xml_url":0,"soiltest_view_url":0},{"id":171837,"code":"B4KJ201801006-0086","latitude":"33.5935961","longitude":"135.9337897","source_code":"KK50353704009","project_name":"","survey_name":"\u68ee\u6d66\u5730\u533a\u571f\u8cea\u8abf\u67fb\u696d\u52d9","client_name":"\u56fd\u571f\u4ea4\u901a\u7701\u8fd1\u757f\u5730\u65b9\u6574\u5099\u5c40\u7d00\u5357\u6cb3\u5ddd\u56fd\u9053\u4e8b\u52d9\u6240","boring_xml_url":40,"boring_view_url":1,"soilmap_view_url":null,"soiltest_xml_url":0,"soiltest_view_url":0},{"id":171836,"code":"B4KJ201801006-0085","latitude":"33.5932628","longitude":"135.9338175","source_code":"KK50353704008","project_name":"","survey_name":"\u68ee\u6d66\u5730\u533a\u571f\u8cea\u8abf\u67fb\u696d\u52d9","client_name":"\u56fd\u571f\u4ea4\u901a\u7701\u8fd1\u757f\u5730\u65b9\u6574\u5099\u5c40\u7d00\u5357\u6cb3\u5ddd\u56fd\u9053\u4e8b\u52d9\u6240","boring_xml_url":40,"boring_view_url":1,"soilmap_view_url":null,"soiltest_xml_url":0,"soiltest_view_url":0}]}}