{"header":{"xyz":{"source":[],"mosaic":false},"page":496,"raw":{"soiltest_result":"0","bbox":"57.598333,109.544722,1.933333,163.806111","page":"496"},"conditions":{"soiltest_result":0,"north":57.598333,"west":109.544722,"south":1.933333,"east":163.806111},"success":true,"message":""},"data":{"meta":{"total":212844,"page":496,"pages":7095,"count":30},"values":[{"id":530538,"code":"B4KJ202201003-3074","latitude":"33.120833","longitude":"131.494989","source_code":"QS20138964600200030002","project_name":"\u5927\u5206\u5ddd\u30c0\u30e0\u6cb3\u5185\u5730\u533a\u5730\u8cea\u8abf\u67fb\u696d\u52d9","survey_name":"\u5927\u5206\u5ddd\u30c0\u30e0\u6cb3\u5185\u5730\u533a\u5730\u8cea\u8abf\u67fb\u696d\u52d9","client_name":"\u56fd\u571f\u4ea4\u901a\u7701\u3000\u4e5d\u5dde\u5730\u65b9\u6574\u5099\u5c40\u3000\u5927\u5206\u5ddd\u30c0\u30e0\u5de5\u4e8b\u4e8b\u52d9\u6240","boring_xml_url":72,"boring_view_url":1,"soilmap_view_url":null,"soiltest_xml_url":0,"soiltest_view_url":0},{"id":530537,"code":"B4KJ202201003-3073","latitude":"33.121178","longitude":"131.495061","source_code":"QS20138964600200030001","project_name":"\u5927\u5206\u5ddd\u30c0\u30e0\u6cb3\u5185\u5730\u533a\u5730\u8cea\u8abf\u67fb\u696d\u52d9","survey_name":"\u5927\u5206\u5ddd\u30c0\u30e0\u6cb3\u5185\u5730\u533a\u5730\u8cea\u8abf\u67fb\u696d\u52d9","client_name":"\u56fd\u571f\u4ea4\u901a\u7701\u3000\u4e5d\u5dde\u5730\u65b9\u6574\u5099\u5c40\u3000\u5927\u5206\u5ddd\u30c0\u30e0\u5de5\u4e8b\u4e8b\u52d9\u6240","boring_xml_url":72,"boring_view_url":1,"soilmap_view_url":null,"soiltest_xml_url":0,"soiltest_view_url":0},{"id":530536,"code":"B4KJ202201003-3072","latitude":"32.105522","longitude":"130.334125","source_code":"QS20128972460200090013","project_name":"\u5e73\u621024\u5e74\u5ea6\u82a6\u5317\u51fa\u6c34\u9053\u8def\u51fa\u6c34\u5357\u5730\u533a\u5730\u8cea\u8abf\u67fb\u696d\u52d9","survey_name":"\u5e73\u621024\u5e74\u5ea6\u82a6\u5317\u51fa\u6c34\u9053\u8def\u51fa\u6c34\u5357\u5730\u533a\u5730\u8cea\u8abf\u67fb\u696d\u52d9","client_name":"\u56fd\u571f\u4ea4\u901a\u7701\u3000\u4e5d\u5dde\u5730\u65b9\u6574\u5099\u5c40\u3000\u9e7f\u5150\u5cf6\u56fd\u9053\u4e8b\u52d9\u6240","boring_xml_url":72,"boring_view_url":1,"soilmap_view_url":null,"soiltest_xml_url":0,"soiltest_view_url":0},{"id":530535,"code":"B4KJ202201003-3071","latitude":"32.105642","longitude":"130.33545","source_code":"QS20128972460200090012","project_name":"\u5e73\u621024\u5e74\u5ea6\u82a6\u5317\u51fa\u6c34\u9053\u8def\u51fa\u6c34\u5357\u5730\u533a\u5730\u8cea\u8abf\u67fb\u696d\u52d9","survey_name":"\u5e73\u621024\u5e74\u5ea6\u82a6\u5317\u51fa\u6c34\u9053\u8def\u51fa\u6c34\u5357\u5730\u533a\u5730\u8cea\u8abf\u67fb\u696d\u52d9","client_name":"\u56fd\u571f\u4ea4\u901a\u7701\u3000\u4e5d\u5dde\u5730\u65b9\u6574\u5099\u5c40\u3000\u9e7f\u5150\u5cf6\u56fd\u9053\u4e8b\u52d9\u6240","boring_xml_url":72,"boring_view_url":1,"soilmap_view_url":null,"soiltest_xml_url":0,"soiltest_view_url":0},{"id":530534,"code":"B4KJ202201003-3070","latitude":"32.106225","longitude":"130.337111","source_code":"QS20128972460200090011","project_name":"\u5e73\u621024\u5e74\u5ea6\u82a6\u5317\u51fa\u6c34\u9053\u8def\u51fa\u6c34\u5357\u5730\u533a\u5730\u8cea\u8abf\u67fb\u696d\u52d9","survey_name":"\u5e73\u621024\u5e74\u5ea6\u82a6\u5317\u51fa\u6c34\u9053\u8def\u51fa\u6c34\u5357\u5730\u533a\u5730\u8cea\u8abf\u67fb\u696d\u52d9","client_name":"\u56fd\u571f\u4ea4\u901a\u7701\u3000\u4e5d\u5dde\u5730\u65b9\u6574\u5099\u5c40\u3000\u9e7f\u5150\u5cf6\u56fd\u9053\u4e8b\u52d9\u6240","boring_xml_url":72,"boring_view_url":1,"soilmap_view_url":null,"soiltest_xml_url":0,"soiltest_view_url":0},{"id":530533,"code":"B4KJ202201003-3069","latitude":"32.107161","longitude":"130.340189","source_code":"QS20128972460200090010","project_name":"\u5e73\u621024\u5e74\u5ea6\u82a6\u5317\u51fa\u6c34\u9053\u8def\u51fa\u6c34\u5357\u5730\u533a\u5730\u8cea\u8abf\u67fb\u696d\u52d9","survey_name":"\u5e73\u621024\u5e74\u5ea6\u82a6\u5317\u51fa\u6c34\u9053\u8def\u51fa\u6c34\u5357\u5730\u533a\u5730\u8cea\u8abf\u67fb\u696d\u52d9","client_name":"\u56fd\u571f\u4ea4\u901a\u7701\u3000\u4e5d\u5dde\u5730\u65b9\u6574\u5099\u5c40\u3000\u9e7f\u5150\u5cf6\u56fd\u9053\u4e8b\u52d9\u6240","boring_xml_url":72,"boring_view_url":1,"soilmap_view_url":null,"soiltest_xml_url":0,"soiltest_view_url":0},{"id":530532,"code":"B4KJ202201003-3068","latitude":"32.107161","longitude":"130.340342","source_code":"QS20128972460200090009","project_name":"\u5e73\u621024\u5e74\u5ea6\u82a6\u5317\u51fa\u6c34\u9053\u8def\u51fa\u6c34\u5357\u5730\u533a\u5730\u8cea\u8abf\u67fb\u696d\u52d9","survey_name":"\u5e73\u621024\u5e74\u5ea6\u82a6\u5317\u51fa\u6c34\u9053\u8def\u51fa\u6c34\u5357\u5730\u533a\u5730\u8cea\u8abf\u67fb\u696d\u52d9","client_name":"\u56fd\u571f\u4ea4\u901a\u7701\u3000\u4e5d\u5dde\u5730\u65b9\u6574\u5099\u5c40\u3000\u9e7f\u5150\u5cf6\u56fd\u9053\u4e8b\u52d9\u6240","boring_xml_url":72,"boring_view_url":1,"soilmap_view_url":null,"soiltest_xml_url":0,"soiltest_view_url":0},{"id":530531,"code":"B4KJ202201003-3067","latitude":"32.107611","longitude":"130.3416","source_code":"QS20128972460200090008","project_name":"\u5e73\u621024\u5e74\u5ea6\u82a6\u5317\u51fa\u6c34\u9053\u8def\u51fa\u6c34\u5357\u5730\u533a\u5730\u8cea\u8abf\u67fb\u696d\u52d9","survey_name":"\u5e73\u621024\u5e74\u5ea6\u82a6\u5317\u51fa\u6c34\u9053\u8def\u51fa\u6c34\u5357\u5730\u533a\u5730\u8cea\u8abf\u67fb\u696d\u52d9","client_name":"\u56fd\u571f\u4ea4\u901a\u7701\u3000\u4e5d\u5dde\u5730\u65b9\u6574\u5099\u5c40\u3000\u9e7f\u5150\u5cf6\u56fd\u9053\u4e8b\u52d9\u6240","boring_xml_url":72,"boring_view_url":1,"soilmap_view_url":null,"soiltest_xml_url":0,"soiltest_view_url":0},{"id":530530,"code":"B4KJ202201003-3066","latitude":"32.108142","longitude":"130.343019","source_code":"QS20128972460200090007","project_name":"\u5e73\u621024\u5e74\u5ea6\u82a6\u5317\u51fa\u6c34\u9053\u8def\u51fa\u6c34\u5357\u5730\u533a\u5730\u8cea\u8abf\u67fb\u696d\u52d9","survey_name":"\u5e73\u621024\u5e74\u5ea6\u82a6\u5317\u51fa\u6c34\u9053\u8def\u51fa\u6c34\u5357\u5730\u533a\u5730\u8cea\u8abf\u67fb\u696d\u52d9","client_name":"\u56fd\u571f\u4ea4\u901a\u7701\u3000\u4e5d\u5dde\u5730\u65b9\u6574\u5099\u5c40\u3000\u9e7f\u5150\u5cf6\u56fd\u9053\u4e8b\u52d9\u6240","boring_xml_url":72,"boring_view_url":1,"soilmap_view_url":null,"soiltest_xml_url":0,"soiltest_view_url":0},{"id":530529,"code":"B4KJ202201003-3065","latitude":"32.108242","longitude":"130.343244","source_code":"QS20128972460200090006","project_name":"\u5e73\u621024\u5e74\u5ea6\u82a6\u5317\u51fa\u6c34\u9053\u8def\u51fa\u6c34\u5357\u5730\u533a\u5730\u8cea\u8abf\u67fb\u696d\u52d9","survey_name":"\u5e73\u621024\u5e74\u5ea6\u82a6\u5317\u51fa\u6c34\u9053\u8def\u51fa\u6c34\u5357\u5730\u533a\u5730\u8cea\u8abf\u67fb\u696d\u52d9","client_name":"\u56fd\u571f\u4ea4\u901a\u7701\u3000\u4e5d\u5dde\u5730\u65b9\u6574\u5099\u5c40\u3000\u9e7f\u5150\u5cf6\u56fd\u9053\u4e8b\u52d9\u6240","boring_xml_url":72,"boring_view_url":1,"soilmap_view_url":null,"soiltest_xml_url":0,"soiltest_view_url":0},{"id":530528,"code":"B4KJ202201003-3064","latitude":"32.108628","longitude":"130.344039","source_code":"QS20128972460200090005","project_name":"\u5e73\u621024\u5e74\u5ea6\u82a6\u5317\u51fa\u6c34\u9053\u8def\u51fa\u6c34\u5357\u5730\u533a\u5730\u8cea\u8abf\u67fb\u696d\u52d9","survey_name":"\u5e73\u621024\u5e74\u5ea6\u82a6\u5317\u51fa\u6c34\u9053\u8def\u51fa\u6c34\u5357\u5730\u533a\u5730\u8cea\u8abf\u67fb\u696d\u52d9","client_name":"\u56fd\u571f\u4ea4\u901a\u7701\u3000\u4e5d\u5dde\u5730\u65b9\u6574\u5099\u5c40\u3000\u9e7f\u5150\u5cf6\u56fd\u9053\u4e8b\u52d9\u6240","boring_xml_url":72,"boring_view_url":1,"soilmap_view_url":null,"soiltest_xml_url":0,"soiltest_view_url":0},{"id":530527,"code":"B4KJ202201003-3063","latitude":"32.109808","longitude":"130.345908","source_code":"QS20128972460200090004","project_name":"\u5e73\u621024\u5e74\u5ea6\u82a6\u5317\u51fa\u6c34\u9053\u8def\u51fa\u6c34\u5357\u5730\u533a\u5730\u8cea\u8abf\u67fb\u696d\u52d9","survey_name":"\u5e73\u621024\u5e74\u5ea6\u82a6\u5317\u51fa\u6c34\u9053\u8def\u51fa\u6c34\u5357\u5730\u533a\u5730\u8cea\u8abf\u67fb\u696d\u52d9","client_name":"\u56fd\u571f\u4ea4\u901a\u7701\u3000\u4e5d\u5dde\u5730\u65b9\u6574\u5099\u5c40\u3000\u9e7f\u5150\u5cf6\u56fd\u9053\u4e8b\u52d9\u6240","boring_xml_url":72,"boring_view_url":1,"soilmap_view_url":null,"soiltest_xml_url":0,"soiltest_view_url":0},{"id":530526,"code":"B4KJ202201003-3062","latitude":"32.110669","longitude":"130.347017","source_code":"QS20128972460200090003","project_name":"\u5e73\u621024\u5e74\u5ea6\u82a6\u5317\u51fa\u6c34\u9053\u8def\u51fa\u6c34\u5357\u5730\u533a\u5730\u8cea\u8abf\u67fb\u696d\u52d9","survey_name":"\u5e73\u621024\u5e74\u5ea6\u82a6\u5317\u51fa\u6c34\u9053\u8def\u51fa\u6c34\u5357\u5730\u533a\u5730\u8cea\u8abf\u67fb\u696d\u52d9","client_name":"\u56fd\u571f\u4ea4\u901a\u7701\u3000\u4e5d\u5dde\u5730\u65b9\u6574\u5099\u5c40\u3000\u9e7f\u5150\u5cf6\u56fd\u9053\u4e8b\u52d9\u6240","boring_xml_url":72,"boring_view_url":1,"soilmap_view_url":null,"soiltest_xml_url":0,"soiltest_view_url":0},{"id":530525,"code":"B4KJ202201003-3061","latitude":"32.110969","longitude":"130.347231","source_code":"QS20128972460200090002","project_name":"\u5e73\u621024\u5e74\u5ea6\u82a6\u5317\u51fa\u6c34\u9053\u8def\u51fa\u6c34\u5357\u5730\u533a\u5730\u8cea\u8abf\u67fb\u696d\u52d9","survey_name":"\u5e73\u621024\u5e74\u5ea6\u82a6\u5317\u51fa\u6c34\u9053\u8def\u51fa\u6c34\u5357\u5730\u533a\u5730\u8cea\u8abf\u67fb\u696d\u52d9","client_name":"\u56fd\u571f\u4ea4\u901a\u7701\u3000\u4e5d\u5dde\u5730\u65b9\u6574\u5099\u5c40\u3000\u9e7f\u5150\u5cf6\u56fd\u9053\u4e8b\u52d9\u6240","boring_xml_url":72,"boring_view_url":1,"soilmap_view_url":null,"soiltest_xml_url":0,"soiltest_view_url":0},{"id":530524,"code":"B4KJ202201003-3060","latitude":"32.112192","longitude":"130.348536","source_code":"QS20128972460200090001","project_name":"\u5e73\u621024\u5e74\u5ea6\u82a6\u5317\u51fa\u6c34\u9053\u8def\u51fa\u6c34\u5357\u5730\u533a\u5730\u8cea\u8abf\u67fb\u696d\u52d9","survey_name":"\u5e73\u621024\u5e74\u5ea6\u82a6\u5317\u51fa\u6c34\u9053\u8def\u51fa\u6c34\u5357\u5730\u533a\u5730\u8cea\u8abf\u67fb\u696d\u52d9","client_name":"\u56fd\u571f\u4ea4\u901a\u7701\u3000\u4e5d\u5dde\u5730\u65b9\u6574\u5099\u5c40\u3000\u9e7f\u5150\u5cf6\u56fd\u9053\u4e8b\u52d9\u6240","boring_xml_url":72,"boring_view_url":1,"soilmap_view_url":null,"soiltest_xml_url":0,"soiltest_view_url":0},{"id":530523,"code":"B4KJ202201003-3059","latitude":"31.450131","longitude":"130.514979","source_code":"QS20128972410200040008","project_name":"\u5357\u4e5d\u5dde\u897f\u56de\u308a\u81ea\u52d5\u8eca\u9053","survey_name":"\u5e73\u621024\u5e74\u5ea6\u51fa\u6c34\u963f\u4e45\u6839\u9053\u8def\u9ad8\u5c3e\u91ce\u5730\u533a\u5730\u8cea\u8abf\u67fb\u696d\u52d9","client_name":"\u56fd\u571f\u4ea4\u901a\u7701\u3000\u4e5d\u5dde\u5730\u65b9\u6574\u5099\u5c40\u3000\u9e7f\u5150\u5cf6\u56fd\u9053\u4e8b\u52d9\u6240","boring_xml_url":72,"boring_view_url":1,"soilmap_view_url":null,"soiltest_xml_url":0,"soiltest_view_url":0},{"id":530522,"code":"B4KJ202201003-3058","latitude":"31.450666","longitude":"130.514748","source_code":"QS20128972410200040007","project_name":"\u5357\u4e5d\u5dde\u897f\u56de\u308a\u81ea\u52d5\u8eca\u9053","survey_name":"\u5e73\u621024\u5e74\u5ea6\u51fa\u6c34\u963f\u4e45\u6839\u9053\u8def\u9ad8\u5c3e\u91ce\u5730\u533a\u5730\u8cea\u8abf\u67fb\u696d\u52d9","client_name":"\u56fd\u571f\u4ea4\u901a\u7701\u3000\u4e5d\u5dde\u5730\u65b9\u6574\u5099\u5c40\u3000\u9e7f\u5150\u5cf6\u56fd\u9053\u4e8b\u52d9\u6240","boring_xml_url":72,"boring_view_url":1,"soilmap_view_url":null,"soiltest_xml_url":0,"soiltest_view_url":0},{"id":530521,"code":"B4KJ202201003-3057","latitude":"32.084654","longitude":"130.299145","source_code":"QS20128972410200040006","project_name":"\u5357\u4e5d\u5dde\u897f\u56de\u308a\u81ea\u52d5\u8eca\u9053","survey_name":"\u5e73\u621024\u5e74\u5ea6\u51fa\u6c34\u963f\u4e45\u6839\u9053\u8def\u9ad8\u5c3e\u91ce\u5730\u533a\u5730\u8cea\u8abf\u67fb\u696d\u52d9","client_name":"\u56fd\u571f\u4ea4\u901a\u7701\u3000\u4e5d\u5dde\u5730\u65b9\u6574\u5099\u5c40\u3000\u9e7f\u5150\u5cf6\u56fd\u9053\u4e8b\u52d9\u6240","boring_xml_url":72,"boring_view_url":1,"soilmap_view_url":null,"soiltest_xml_url":0,"soiltest_view_url":0},{"id":530520,"code":"B4KJ202201003-3056","latitude":"32.080407","longitude":"130.28892","source_code":"QS20128972410200040005","project_name":"\u5357\u4e5d\u5dde\u897f\u56de\u308a\u81ea\u52d5\u8eca\u9053","survey_name":"\u5e73\u621024\u5e74\u5ea6\u51fa\u6c34\u963f\u4e45\u6839\u9053\u8def\u9ad8\u5c3e\u91ce\u5730\u533a\u5730\u8cea\u8abf\u67fb\u696d\u52d9","client_name":"\u56fd\u571f\u4ea4\u901a\u7701\u3000\u4e5d\u5dde\u5730\u65b9\u6574\u5099\u5c40\u3000\u9e7f\u5150\u5cf6\u56fd\u9053\u4e8b\u52d9\u6240","boring_xml_url":72,"boring_view_url":1,"soilmap_view_url":null,"soiltest_xml_url":0,"soiltest_view_url":0},{"id":530519,"code":"B4KJ202201003-3055","latitude":"32.080678","longitude":"130.289439","source_code":"QS20128972410200040004","project_name":"\u5357\u4e5d\u5dde\u897f\u56de\u308a\u81ea\u52d5\u8eca\u9053","survey_name":"\u5e73\u621024\u5e74\u5ea6\u51fa\u6c34\u963f\u4e45\u6839\u9053\u8def\u9ad8\u5c3e\u91ce\u5730\u533a\u5730\u8cea\u8abf\u67fb\u696d\u52d9","client_name":"\u56fd\u571f\u4ea4\u901a\u7701\u3000\u4e5d\u5dde\u5730\u65b9\u6574\u5099\u5c40\u3000\u9e7f\u5150\u5cf6\u56fd\u9053\u4e8b\u52d9\u6240","boring_xml_url":72,"boring_view_url":1,"soilmap_view_url":null,"soiltest_xml_url":0,"soiltest_view_url":0},{"id":530518,"code":"B4KJ202201003-3054","latitude":"32.080816","longitude":"130.289693","source_code":"QS20128972410200040003","project_name":"\u5357\u4e5d\u5dde\u897f\u56de\u308a\u81ea\u52d5\u8eca\u9053","survey_name":"\u5e73\u621024\u5e74\u5ea6\u51fa\u6c34\u963f\u4e45\u6839\u9053\u8def\u9ad8\u5c3e\u91ce\u5730\u533a\u5730\u8cea\u8abf\u67fb\u696d\u52d9","client_name":"\u56fd\u571f\u4ea4\u901a\u7701\u3000\u4e5d\u5dde\u5730\u65b9\u6574\u5099\u5c40\u3000\u9e7f\u5150\u5cf6\u56fd\u9053\u4e8b\u52d9\u6240","boring_xml_url":72,"boring_view_url":1,"soilmap_view_url":null,"soiltest_xml_url":0,"soiltest_view_url":0},{"id":530517,"code":"B4KJ202201003-3053","latitude":"32.081626","longitude":"130.291071","source_code":"QS20128972410200040002","project_name":"\u5357\u4e5d\u5dde\u897f\u56de\u308a\u81ea\u52d5\u8eca\u9053","survey_name":"\u5e73\u621024\u5e74\u5ea6\u51fa\u6c34\u963f\u4e45\u6839\u9053\u8def\u9ad8\u5c3e\u91ce\u5730\u533a\u5730\u8cea\u8abf\u67fb\u696d\u52d9","client_name":"\u56fd\u571f\u4ea4\u901a\u7701\u3000\u4e5d\u5dde\u5730\u65b9\u6574\u5099\u5c40\u3000\u9e7f\u5150\u5cf6\u56fd\u9053\u4e8b\u52d9\u6240","boring_xml_url":72,"boring_view_url":1,"soilmap_view_url":null,"soiltest_xml_url":0,"soiltest_view_url":0},{"id":530516,"code":"B4KJ202201003-3052","latitude":"32.081698","longitude":"130.29136","source_code":"QS20128972410200040001","project_name":"\u5357\u4e5d\u5dde\u897f\u56de\u308a\u81ea\u52d5\u8eca\u9053","survey_name":"\u5e73\u621024\u5e74\u5ea6\u51fa\u6c34\u963f\u4e45\u6839\u9053\u8def\u9ad8\u5c3e\u91ce\u5730\u533a\u5730\u8cea\u8abf\u67fb\u696d\u52d9","client_name":"\u56fd\u571f\u4ea4\u901a\u7701\u3000\u4e5d\u5dde\u5730\u65b9\u6574\u5099\u5c40\u3000\u9e7f\u5150\u5cf6\u56fd\u9053\u4e8b\u52d9\u6240","boring_xml_url":72,"boring_view_url":1,"soilmap_view_url":null,"soiltest_xml_url":0,"soiltest_view_url":0},{"id":530515,"code":"B4KJ202201003-3051","latitude":"31.988333","longitude":"130.4925","source_code":"QS8977990200090004","project_name":"\u9db4\u7530\u30c0\u30e0\u58c1\u9762\u88dc\u4fee\u7b49\u691c\u8a0e\u696d\u52d9","survey_name":"\u9db4\u7530\u30c0\u30e0\u58c1\u9762\u88dc\u4fee\u7b49\u691c\u8a0e\u696d\u52d9","client_name":"\u56fd\u571f\u4ea4\u901a\u7701\u3000\u4e5d\u5dde\u5730\u65b9\u6574\u5099\u5c40\u3000\u9db4\u7530\u30c0\u30e0\u7ba1\u7406\u6240","boring_xml_url":64,"boring_view_url":1,"soilmap_view_url":null,"soiltest_xml_url":0,"soiltest_view_url":0},{"id":530514,"code":"B4KJ202201003-3050","latitude":"31.988333","longitude":"130.4925","source_code":"QS8977990200090003","project_name":"\u9db4\u7530\u30c0\u30e0\u58c1\u9762\u88dc\u4fee\u7b49\u691c\u8a0e\u696d\u52d9","survey_name":"\u9db4\u7530\u30c0\u30e0\u58c1\u9762\u88dc\u4fee\u7b49\u691c\u8a0e\u696d\u52d9","client_name":"\u56fd\u571f\u4ea4\u901a\u7701\u3000\u4e5d\u5dde\u5730\u65b9\u6574\u5099\u5c40\u3000\u9db4\u7530\u30c0\u30e0\u7ba1\u7406\u6240","boring_xml_url":64,"boring_view_url":1,"soilmap_view_url":null,"soiltest_xml_url":0,"soiltest_view_url":0},{"id":530513,"code":"B4KJ202201003-3049","latitude":"31.988333","longitude":"130.4925","source_code":"QS8977990200090002","project_name":"\u9db4\u7530\u30c0\u30e0\u58c1\u9762\u88dc\u4fee\u7b49\u691c\u8a0e\u696d\u52d9","survey_name":"\u9db4\u7530\u30c0\u30e0\u58c1\u9762\u88dc\u4fee\u7b49\u691c\u8a0e\u696d\u52d9","client_name":"\u56fd\u571f\u4ea4\u901a\u7701\u3000\u4e5d\u5dde\u5730\u65b9\u6574\u5099\u5c40\u3000\u9db4\u7530\u30c0\u30e0\u7ba1\u7406\u6240","boring_xml_url":64,"boring_view_url":1,"soilmap_view_url":null,"soiltest_xml_url":0,"soiltest_view_url":0},{"id":530512,"code":"B4KJ202201003-3048","latitude":"31.988333","longitude":"130.4925","source_code":"QS8977990200090001","project_name":"\u9db4\u7530\u30c0\u30e0\u58c1\u9762\u88dc\u4fee\u7b49\u691c\u8a0e\u696d\u52d9","survey_name":"\u9db4\u7530\u30c0\u30e0\u58c1\u9762\u88dc\u4fee\u7b49\u691c\u8a0e\u696d\u52d9","client_name":"\u56fd\u571f\u4ea4\u901a\u7701\u3000\u4e5d\u5dde\u5730\u65b9\u6574\u5099\u5c40\u3000\u9db4\u7530\u30c0\u30e0\u7ba1\u7406\u6240","boring_xml_url":64,"boring_view_url":1,"soilmap_view_url":null,"soiltest_xml_url":0,"soiltest_view_url":0},{"id":530511,"code":"B4KJ202201003-3047","latitude":"33.33425","longitude":"130.039","source_code":"QS20128935420200040003","project_name":"\u677e\u6d66\u5ddd\u6c34\u7cfb\u7bc9\u5824\u8b77\u5cb8\u8a2d\u8a08\u5916\u696d\u52d9","survey_name":"\u677e\u6d66\u5ddd\u6c34\u7cfb\u7bc9\u5824\u8b77\u5cb8\u8a2d\u8a08\u5916\u696d\u52d9","client_name":"\"\u56fd\u571f\u4ea4\u901a\u7701 \u4e5d\u5dde\u5730\u65b9\u6574\u5099\u5c40 \u6b66\u96c4\u6cb3\u5ddd\u4e8b\u52d9\u6240\"","boring_xml_url":72,"boring_view_url":1,"soilmap_view_url":null,"soiltest_xml_url":0,"soiltest_view_url":0},{"id":530510,"code":"B4KJ202201003-3046","latitude":"33.363306","longitude":"129.93625","source_code":"QS20128935420200040002","project_name":"\u677e\u6d66\u5ddd\u6c34\u7cfb\u7bc9\u5824\u8b77\u5cb8\u8a2d\u8a08\u5916\u696d\u52d9","survey_name":"\u677e\u6d66\u5ddd\u6c34\u7cfb\u7bc9\u5824\u8b77\u5cb8\u8a2d\u8a08\u5916\u696d\u52d9","client_name":"\"\u56fd\u571f\u4ea4\u901a\u7701 \u4e5d\u5dde\u5730\u65b9\u6574\u5099\u5c40 \u6b66\u96c4\u6cb3\u5ddd\u4e8b\u52d9\u6240\"","boring_xml_url":72,"boring_view_url":1,"soilmap_view_url":null,"soiltest_xml_url":0,"soiltest_view_url":0},{"id":530509,"code":"B4KJ202201003-3045","latitude":"33.363333","longitude":"129.937528","source_code":"QS20128935420200040001","project_name":"\u677e\u6d66\u5ddd\u6c34\u7cfb\u7bc9\u5824\u8b77\u5cb8\u8a2d\u8a08\u5916\u696d\u52d9","survey_name":"\u677e\u6d66\u5ddd\u6c34\u7cfb\u7bc9\u5824\u8b77\u5cb8\u8a2d\u8a08\u5916\u696d\u52d9","client_name":"\"\u56fd\u571f\u4ea4\u901a\u7701 \u4e5d\u5dde\u5730\u65b9\u6574\u5099\u5c40 \u6b66\u96c4\u6cb3\u5ddd\u4e8b\u52d9\u6240\"","boring_xml_url":72,"boring_view_url":1,"soilmap_view_url":null,"soiltest_xml_url":0,"soiltest_view_url":0}]}}