{"header":{"xyz":{"source":[],"mosaic":false},"page":4961,"raw":{"soiltest_result":"0","bbox":"57.598333,109.544722,1.933333,163.806111","page":"4961"},"conditions":{"soiltest_result":0,"north":57.598333,"west":109.544722,"south":1.933333,"east":163.806111},"success":true,"message":""},"data":{"meta":{"total":212844,"page":4961,"pages":7095,"count":30},"values":[{"id":171745,"code":"B4KJ201801005-9994","latitude":"33.5629775","longitude":"135.45386","source_code":"KK50352376002","project_name":"","survey_name":"\u86c7\u539f\u5730\u533a\u571f\u8cea\u8abf\u67fb\u4f5c\u696d","client_name":"\u56fd\u571f\u4ea4\u901a\u7701\u8fd1\u757f\u5730\u65b9\u6574\u5099\u5c40\u7d00\u5357\u6cb3\u5ddd\u56fd\u9053\u4e8b\u52d9\u6240","boring_xml_url":40,"boring_view_url":1,"soilmap_view_url":null,"soiltest_xml_url":0,"soiltest_view_url":0},{"id":171744,"code":"B4KJ201801005-9993","latitude":"33.5689211","longitude":"135.4469992","source_code":"KK50352375003","project_name":"","survey_name":"\u65e5\u7f6e\u7b2c1\u30c8\u30f3\u30cd\u30eb\u59161\u30b1\u6240\u30dc\u30fc\u30ea\u30f3\u30b0\u5de5\u4e8b","client_name":"\u56fd\u571f\u4ea4\u901a\u7701\u8fd1\u757f\u5730\u65b9\u6574\u5099\u5c40\u7d00\u5357\u6cb3\u5ddd\u56fd\u9053\u4e8b\u52d9\u6240","boring_xml_url":40,"boring_view_url":1,"soilmap_view_url":null,"soiltest_xml_url":0,"soiltest_view_url":0},{"id":171743,"code":"B4KJ201801005-9992","latitude":"33.5676158","longitude":"135.4431386","source_code":"KK50352375002","project_name":"","survey_name":"\u65e5\u7f6e\u7b2c1\u30c8\u30f3\u30cd\u30eb\u59161\u30b1\u6240\u30dc\u30fc\u30ea\u30f3\u30b0\u5de5\u4e8b","client_name":"\u56fd\u571f\u4ea4\u901a\u7701\u8fd1\u757f\u5730\u65b9\u6574\u5099\u5c40\u7d00\u5357\u6cb3\u5ddd\u56fd\u9053\u4e8b\u52d9\u6240","boring_xml_url":40,"boring_view_url":1,"soilmap_view_url":null,"soiltest_xml_url":0,"soiltest_view_url":0},{"id":171742,"code":"B4KJ201801005-9991","latitude":"33.5676992","longitude":"135.4423331","source_code":"KK50352375001","project_name":"","survey_name":"\u65e5\u7f6e\u7b2c1\u30c8\u30f3\u30cd\u30eb\u59161\u30b1\u6240\u30dc\u30fc\u30ea\u30f3\u30b0\u5de5\u4e8b","client_name":"\u56fd\u571f\u4ea4\u901a\u7701\u8fd1\u757f\u5730\u65b9\u6574\u5099\u5c40\u7d00\u5357\u6cb3\u5ddd\u56fd\u9053\u4e8b\u52d9\u6240","boring_xml_url":40,"boring_view_url":1,"soilmap_view_url":null,"soiltest_xml_url":0,"soiltest_view_url":0},{"id":171741,"code":"B4KJ201801005-9990","latitude":"33.5553119","longitude":"135.4597208","source_code":"KK50352367005","project_name":"","survey_name":"\u65e5\u7f6e\u5ddd\u9632\u707d\u5c40\u6539\u571f\u8cea\u8abf\u67fb\u305d\u306e2\u4f5c\u696d","client_name":"\u56fd\u571f\u4ea4\u901a\u7701\u8fd1\u757f\u5730\u65b9\u6574\u5099\u5c40\u7d00\u5357\u6cb3\u5ddd\u56fd\u9053\u4e8b\u52d9\u6240","boring_xml_url":40,"boring_view_url":1,"soilmap_view_url":null,"soiltest_xml_url":0,"soiltest_view_url":0},{"id":171740,"code":"B4KJ201801005-9989","latitude":"33.5575342","longitude":"135.4659703","source_code":"KK50352367004","project_name":"","survey_name":"\u65e5\u7f6e\u5730\u533a\u571f\u8cea\u8abf\u67fb\u4f5c\u696d","client_name":"\u56fd\u571f\u4ea4\u901a\u7701\u8fd1\u757f\u5730\u65b9\u6574\u5099\u5c40\u7d00\u5357\u6cb3\u5ddd\u56fd\u9053\u4e8b\u52d9\u6240","boring_xml_url":40,"boring_view_url":1,"soilmap_view_url":null,"soiltest_xml_url":0,"soiltest_view_url":0},{"id":171739,"code":"B4KJ201801005-9988","latitude":"33.5556453","longitude":"135.4605542","source_code":"KK50352367003","project_name":"","survey_name":"\u65e5\u7f6e\u5730\u533a\u571f\u8cea\u8abf\u67fb\u4f5c\u696d","client_name":"\u56fd\u571f\u4ea4\u901a\u7701\u8fd1\u757f\u5730\u65b9\u6574\u5099\u5c40\u7d00\u5357\u6cb3\u5ddd\u56fd\u9053\u4e8b\u52d9\u6240","boring_xml_url":40,"boring_view_url":1,"soilmap_view_url":null,"soiltest_xml_url":0,"soiltest_view_url":0},{"id":171738,"code":"B4KJ201801005-9987","latitude":"33.5560897","longitude":"135.4608039","source_code":"KK50352367002","project_name":"","survey_name":"\u65e5\u7f6e\u5730\u533a\u571f\u8cea\u8abf\u67fb\u4f5c\u696d","client_name":"\u56fd\u571f\u4ea4\u901a\u7701\u8fd1\u757f\u5730\u65b9\u6574\u5099\u5c40\u7d00\u5357\u6cb3\u5ddd\u56fd\u9053\u4e8b\u52d9\u6240","boring_xml_url":40,"boring_view_url":1,"soilmap_view_url":null,"soiltest_xml_url":0,"soiltest_view_url":0},{"id":171737,"code":"B4KJ201801005-9986","latitude":"33.5536456","longitude":"135.4591653","source_code":"KK50352366005","project_name":"","survey_name":"\u4f0a\u53e4\u6728\u5730\u533a\u571f\u8cea\u8abf\u67fb\u305d\u306e2\u4f5c\u696d","client_name":"\u56fd\u571f\u4ea4\u901a\u7701\u8fd1\u757f\u5730\u65b9\u6574\u5099\u5c40\u7d00\u5357\u6cb3\u5ddd\u56fd\u9053\u4e8b\u52d9\u6240","boring_xml_url":40,"boring_view_url":1,"soilmap_view_url":null,"soiltest_xml_url":0,"soiltest_view_url":0},{"id":171736,"code":"B4KJ201801005-9985","latitude":"33.5596169","longitude":"135.459165","source_code":"KK50352366004","project_name":"","survey_name":"\u65e5\u7f6e\u5ddd\u9632\u707d\u5c40\u6539\u571f\u8cea\u8abf\u67fb\u305d\u306e2\u4f5c\u696d","client_name":"\u56fd\u571f\u4ea4\u901a\u7701\u8fd1\u757f\u5730\u65b9\u6574\u5099\u5c40\u7d00\u5357\u6cb3\u5ddd\u56fd\u9053\u4e8b\u52d9\u6240","boring_xml_url":40,"boring_view_url":1,"soilmap_view_url":null,"soiltest_xml_url":0,"soiltest_view_url":0},{"id":171735,"code":"B4KJ201801005-9984","latitude":"33.5595892","longitude":"135.459165","source_code":"KK50352366003","project_name":"","survey_name":"\u65e5\u7f6e\u5ddd\u9632\u707d\u5c40\u6539\u571f\u8cea\u8abf\u67fb\u305d\u306e2\u4f5c\u696d","client_name":"\u56fd\u571f\u4ea4\u901a\u7701\u8fd1\u757f\u5730\u65b9\u6574\u5099\u5c40\u7d00\u5357\u6cb3\u5ddd\u56fd\u9053\u4e8b\u52d9\u6240","boring_xml_url":40,"boring_view_url":1,"soilmap_view_url":null,"soiltest_xml_url":0,"soiltest_view_url":0},{"id":171734,"code":"B4KJ201801005-9983","latitude":"33.5575339","longitude":"135.4534711","source_code":"KK50352366002","project_name":"","survey_name":"\u65e5\u7f6e\u5ddd\u9632\u707d\u5c40\u6539\u571f\u8cea\u8abf\u67fb\u305d\u306e2\u4f5c\u696d","client_name":"\u56fd\u571f\u4ea4\u901a\u7701\u8fd1\u757f\u5730\u65b9\u6574\u5099\u5c40\u7d00\u5357\u6cb3\u5ddd\u56fd\u9053\u4e8b\u52d9\u6240","boring_xml_url":40,"boring_view_url":1,"soilmap_view_url":null,"soiltest_xml_url":0,"soiltest_view_url":0},{"id":171733,"code":"B4KJ201801005-9982","latitude":"33.5503964","longitude":"135.4882183","source_code":"KK50352359024","project_name":"","survey_name":"\u5468\u53c2\u898b\u5730\u533a\u4ed6\u9053\u8def\u8a73\u7d30\u8a2d\u8a08\u696d\u52d9","client_name":"\u56fd\u571f\u4ea4\u901a\u7701\u8fd1\u757f\u5730\u65b9\u6574\u5099\u5c40\u7d00\u5357\u6cb3\u5ddd\u56fd\u9053\u4e8b\u52d9\u6240","boring_xml_url":40,"boring_view_url":1,"soilmap_view_url":null,"soiltest_xml_url":0,"soiltest_view_url":0},{"id":171732,"code":"B4KJ201801005-9981","latitude":"33.5507575","longitude":"135.4879686","source_code":"KK50352359023","project_name":"","survey_name":"\u5468\u53c2\u898b\u5730\u533a\u4ed6\u9053\u8def\u8a73\u7d30\u8a2d\u8a08\u696d\u52d9","client_name":"\u56fd\u571f\u4ea4\u901a\u7701\u8fd1\u757f\u5730\u65b9\u6574\u5099\u5c40\u7d00\u5357\u6cb3\u5ddd\u56fd\u9053\u4e8b\u52d9\u6240","boring_xml_url":40,"boring_view_url":1,"soilmap_view_url":null,"soiltest_xml_url":0,"soiltest_view_url":0},{"id":171731,"code":"B4KJ201801005-9980","latitude":"33.5500075","longitude":"135.4884961","source_code":"KK50352359022","project_name":"","survey_name":"\u5468\u53c2\u898b\u5730\u533a\u4ed6\u9053\u8def\u8a73\u7d30\u8a2d\u8a08\u696d\u52d9","client_name":"\u56fd\u571f\u4ea4\u901a\u7701\u8fd1\u757f\u5730\u65b9\u6574\u5099\u5c40\u7d00\u5357\u6cb3\u5ddd\u56fd\u9053\u4e8b\u52d9\u6240","boring_xml_url":40,"boring_view_url":1,"soilmap_view_url":null,"soiltest_xml_url":0,"soiltest_view_url":0},{"id":171730,"code":"B4KJ201801005-9979","latitude":"33.5495633","longitude":"135.4889683","source_code":"KK50352359021","project_name":"","survey_name":"\u5468\u53c2\u898b\u5730\u533a\u4ed6\u9053\u8def\u8a73\u7d30\u8a2d\u8a08\u696d\u52d9","client_name":"\u56fd\u571f\u4ea4\u901a\u7701\u8fd1\u757f\u5730\u65b9\u6574\u5099\u5c40\u7d00\u5357\u6cb3\u5ddd\u56fd\u9053\u4e8b\u52d9\u6240","boring_xml_url":40,"boring_view_url":1,"soilmap_view_url":null,"soiltest_xml_url":0,"soiltest_view_url":0},{"id":171729,"code":"B4KJ201801005-9978","latitude":"33.5492022","longitude":"135.4896072","source_code":"KK50352359020","project_name":"","survey_name":"\u5468\u53c2\u898b\u5730\u533a\u4ed6\u9053\u8def\u8a73\u7d30\u8a2d\u8a08\u696d\u52d9","client_name":"\u56fd\u571f\u4ea4\u901a\u7701\u8fd1\u757f\u5730\u65b9\u6574\u5099\u5c40\u7d00\u5357\u6cb3\u5ddd\u56fd\u9053\u4e8b\u52d9\u6240","boring_xml_url":40,"boring_view_url":1,"soilmap_view_url":null,"soiltest_xml_url":0,"soiltest_view_url":0},{"id":171728,"code":"B4KJ201801005-9977","latitude":"33.5491467","longitude":"135.4899406","source_code":"KK50352359019","project_name":"","survey_name":"\u5468\u53c2\u898b\u5730\u533a\u4ed6\u9053\u8def\u8a73\u7d30\u8a2d\u8a08\u696d\u52d9","client_name":"\u56fd\u571f\u4ea4\u901a\u7701\u8fd1\u757f\u5730\u65b9\u6574\u5099\u5c40\u7d00\u5357\u6cb3\u5ddd\u56fd\u9053\u4e8b\u52d9\u6240","boring_xml_url":40,"boring_view_url":1,"soilmap_view_url":null,"soiltest_xml_url":0,"soiltest_view_url":0},{"id":171727,"code":"B4KJ201801005-9976","latitude":"33.5513683","longitude":"135.4744419","source_code":"KK50352358003","project_name":"","survey_name":"\u671d\u6765\u571f\u8cea\u8abf\u67fb\u4f5c\u696d","client_name":"\u56fd\u571f\u4ea4\u901a\u7701\u8fd1\u757f\u5730\u65b9\u6574\u5099\u5c40\u7d00\u5357\u6cb3\u5ddd\u56fd\u9053\u4e8b\u52d9\u6240","boring_xml_url":40,"boring_view_url":1,"soilmap_view_url":null,"soiltest_xml_url":0,"soiltest_view_url":0},{"id":171726,"code":"B4KJ201801005-9975","latitude":"33.5513683","longitude":"135.4744419","source_code":"KK50352358002","project_name":"","survey_name":"\u671d\u6765\u571f\u8cea\u8abf\u67fb\u4f5c\u696d","client_name":"\u56fd\u571f\u4ea4\u901a\u7701\u8fd1\u757f\u5730\u65b9\u6574\u5099\u5c40\u7d00\u5357\u6cb3\u5ddd\u56fd\u9053\u4e8b\u52d9\u6240","boring_xml_url":40,"boring_view_url":1,"soilmap_view_url":null,"soiltest_xml_url":0,"soiltest_view_url":0},{"id":171725,"code":"B4KJ201801005-9974","latitude":"33.5492019","longitude":"135.4784694","source_code":"KK50352358001","project_name":"","survey_name":"\u65e5\u7f6e\u30d0\u30a4\u30d1\u30b9\u571f\u8cea\u8abf\u67fb\u4f5c\u696d","client_name":"\u56fd\u571f\u4ea4\u901a\u7701\u8fd1\u757f\u5730\u65b9\u6574\u5099\u5c40\u7d00\u5357\u6cb3\u5ddd\u56fd\u9053\u4e8b\u52d9\u6240","boring_xml_url":40,"boring_view_url":1,"soilmap_view_url":null,"soiltest_xml_url":0,"soiltest_view_url":0},{"id":171724,"code":"B4KJ201801005-9973","latitude":"33.5513681","longitude":"135.462665","source_code":"KK50352357008","project_name":"","survey_name":"\u4f0a\u53e4\u6728\u571f\u8cea\u8abf\u67fb\u696d\u52d9","client_name":"\u56fd\u571f\u4ea4\u901a\u7701\u8fd1\u757f\u5730\u65b9\u6574\u5099\u5c40\u7d00\u5357\u6cb3\u5ddd\u56fd\u9053\u4e8b\u52d9\u6240","boring_xml_url":40,"boring_view_url":1,"soilmap_view_url":null,"soiltest_xml_url":0,"soiltest_view_url":0},{"id":171723,"code":"B4KJ201801005-9972","latitude":"33.5511458","longitude":"135.4625261","source_code":"KK50352357007","project_name":"","survey_name":"\u4f0a\u53e4\u6728\u571f\u8cea\u8abf\u67fb\u696d\u52d9","client_name":"\u56fd\u571f\u4ea4\u901a\u7701\u8fd1\u757f\u5730\u65b9\u6574\u5099\u5c40\u7d00\u5357\u6cb3\u5ddd\u56fd\u9053\u4e8b\u52d9\u6240","boring_xml_url":40,"boring_view_url":1,"soilmap_view_url":null,"soiltest_xml_url":0,"soiltest_view_url":0},{"id":171722,"code":"B4KJ201801005-9971","latitude":"33.5512569","longitude":"135.4621097","source_code":"KK50352357006","project_name":"","survey_name":"\u4f0a\u53e4\u6728\u571f\u8cea\u8abf\u67fb\u696d\u52d9","client_name":"\u56fd\u571f\u4ea4\u901a\u7701\u8fd1\u757f\u5730\u65b9\u6574\u5099\u5c40\u7d00\u5357\u6cb3\u5ddd\u56fd\u9053\u4e8b\u52d9\u6240","boring_xml_url":40,"boring_view_url":1,"soilmap_view_url":null,"soiltest_xml_url":0,"soiltest_view_url":0},{"id":171721,"code":"B4KJ201801005-9970","latitude":"33.5513958","longitude":"135.4616931","source_code":"KK50352357005","project_name":"","survey_name":"\u4f0a\u53e4\u6728\u571f\u8cea\u8abf\u67fb\u696d\u52d9","client_name":"\u56fd\u571f\u4ea4\u901a\u7701\u8fd1\u757f\u5730\u65b9\u6574\u5099\u5c40\u7d00\u5357\u6cb3\u5ddd\u56fd\u9053\u4e8b\u52d9\u6240","boring_xml_url":40,"boring_view_url":1,"soilmap_view_url":null,"soiltest_xml_url":0,"soiltest_view_url":0},{"id":171720,"code":"B4KJ201801005-9969","latitude":"33.5520067","longitude":"135.4612486","source_code":"KK50352357003","project_name":"","survey_name":"\u65e5\u7f6e\u5ddd\u9632\u707d\u5c40\u6539\u4f0a\u53e4\u6728\u571f\u8cea\u8abf\u67fb","client_name":"\u56fd\u571f\u4ea4\u901a\u7701\u8fd1\u757f\u5730\u65b9\u6574\u5099\u5c40\u7d00\u5357\u6cb3\u5ddd\u56fd\u9053\u4e8b\u52d9\u6240","boring_xml_url":40,"boring_view_url":1,"soilmap_view_url":null,"soiltest_xml_url":0,"soiltest_view_url":0},{"id":171719,"code":"B4KJ201801005-9968","latitude":"33.5524511","longitude":"135.4601375","source_code":"KK50352357002","project_name":"","survey_name":"\u65e5\u7f6e\u5ddd\u9632\u707d\u5c40\u6539\u4f0a\u53e4\u6728\u571f\u8cea\u8abf\u67fb","client_name":"\u56fd\u571f\u4ea4\u901a\u7701\u8fd1\u757f\u5730\u65b9\u6574\u5099\u5c40\u7d00\u5357\u6cb3\u5ddd\u56fd\u9053\u4e8b\u52d9\u6240","boring_xml_url":40,"boring_view_url":1,"soilmap_view_url":null,"soiltest_xml_url":0,"soiltest_view_url":0},{"id":171718,"code":"B4KJ201801005-9967","latitude":"33.5492017","longitude":"135.4659706","source_code":"KK50352357001","project_name":"","survey_name":"\u65e5\u7f6e\u5ddd\u9632\u707d\u5c40\u6539\u4f0a\u53e4\u6728\u571f\u8cea\u8abf\u67fb","client_name":"\u56fd\u571f\u4ea4\u901a\u7701\u8fd1\u757f\u5730\u65b9\u6574\u5099\u5c40\u7d00\u5357\u6cb3\u5ddd\u56fd\u9053\u4e8b\u52d9\u6240","boring_xml_url":40,"boring_view_url":1,"soilmap_view_url":null,"soiltest_xml_url":0,"soiltest_view_url":0},{"id":171717,"code":"B4KJ201801005-9966","latitude":"33.5492014","longitude":"135.4534714","source_code":"KK50352356001","project_name":"","survey_name":"\u65e5\u7f6e\u5ddd\u9632\u707d\u5c40\u6539\u4f0a\u53e4\u6728\u571f\u8cea\u8abf\u67fb","client_name":"\u56fd\u571f\u4ea4\u901a\u7701\u8fd1\u757f\u5730\u65b9\u6574\u5099\u5c40\u7d00\u5357\u6cb3\u5ddd\u56fd\u9053\u4e8b\u52d9\u6240","boring_xml_url":40,"boring_view_url":1,"soilmap_view_url":null,"soiltest_xml_url":0,"soiltest_view_url":0},{"id":171716,"code":"B4KJ201801005-9965","latitude":"33.5414256","longitude":"135.4969403","source_code":"KK50352349002","project_name":"","survey_name":"\u5927\u4e32\u5730\u533a\u5730\u8cea\u8abf\u67fb\u696d\u52d9","client_name":"\u56fd\u571f\u4ea4\u901a\u7701\u8fd1\u757f\u5730\u65b9\u6574\u5099\u5c40\u7d00\u5357\u6cb3\u5ddd\u56fd\u9053\u4e8b\u52d9\u6240","boring_xml_url":40,"boring_view_url":1,"soilmap_view_url":null,"soiltest_xml_url":0,"soiltest_view_url":0}]}}