{"header":{"xyz":{"source":[],"mosaic":false},"page":4962,"raw":{"soiltest_result":"0","bbox":"57.598333,109.544722,1.933333,163.806111","page":"4962"},"conditions":{"soiltest_result":0,"north":57.598333,"west":109.544722,"south":1.933333,"east":163.806111},"success":true,"message":""},"data":{"meta":{"total":212844,"page":4962,"pages":7095,"count":30},"values":[{"id":171715,"code":"B4KJ201801005-9964","latitude":"33.5411478","longitude":"135.4969403","source_code":"KK50352349001","project_name":"","survey_name":"\u5927\u4e32\u5730\u533a\u5730\u8cea\u8abf\u67fb\u696d\u52d9","client_name":"\u56fd\u571f\u4ea4\u901a\u7701\u8fd1\u757f\u5730\u65b9\u6574\u5099\u5c40\u7d00\u5357\u6cb3\u5ddd\u56fd\u9053\u4e8b\u52d9\u6240","boring_xml_url":40,"boring_view_url":1,"soilmap_view_url":null,"soiltest_xml_url":0,"soiltest_view_url":0},{"id":171714,"code":"B4KJ201801005-9963","latitude":"33.481355","longitude":"135.7696964","source_code":"KK50351671002","project_name":"","survey_name":"\u4e8c\u8272\u5730\u533a\u571f\u8cea\u8abf\u67fb\u696d\u52d9","client_name":"\u56fd\u571f\u4ea4\u901a\u7701\u8fd1\u757f\u5730\u65b9\u6574\u5099\u5c40\u7d00\u5357\u6cb3\u5ddd\u56fd\u9053\u4e8b\u52d9\u6240","boring_xml_url":40,"boring_view_url":1,"soilmap_view_url":null,"soiltest_xml_url":0,"soiltest_view_url":0},{"id":171713,"code":"B4KJ201801005-9962","latitude":"33.481355","longitude":"135.7696964","source_code":"KK50351671001","project_name":"","survey_name":"\u4e8c\u8272\u5730\u533a\u571f\u8cea\u8abf\u67fb\u696d\u52d9","client_name":"\u56fd\u571f\u4ea4\u901a\u7701\u8fd1\u757f\u5730\u65b9\u6574\u5099\u5c40\u7d00\u5357\u6cb3\u5ddd\u56fd\u9053\u4e8b\u52d9\u6240","boring_xml_url":40,"boring_view_url":1,"soilmap_view_url":null,"soiltest_xml_url":0,"soiltest_view_url":0},{"id":171712,"code":"B4KJ201801005-9961","latitude":"33.4818544","longitude":"135.7506425","source_code":"KK50351670008","project_name":"","survey_name":"\u7ba1\u5185\u9632\u707d\u5bfe\u7b56\u8a73\u7d30\u8a2d\u8a08\u696d\u52d9","client_name":"\u56fd\u571f\u4ea4\u901a\u7701\u8fd1\u757f\u5730\u65b9\u6574\u5099\u5c40\u7d00\u5357\u6cb3\u5ddd\u56fd\u9053\u4e8b\u52d9\u6240","boring_xml_url":40,"boring_view_url":1,"soilmap_view_url":null,"soiltest_xml_url":0,"soiltest_view_url":0},{"id":171711,"code":"B4KJ201801005-9960","latitude":"33.48191","longitude":"135.7505869","source_code":"KK50351670007","project_name":"","survey_name":"\u7ba1\u5185\u9632\u707d\u5bfe\u7b56\u8a73\u7d30\u8a2d\u8a08\u696d\u52d9","client_name":"\u56fd\u571f\u4ea4\u901a\u7701\u8fd1\u757f\u5730\u65b9\u6574\u5099\u5c40\u7d00\u5357\u6cb3\u5ddd\u56fd\u9053\u4e8b\u52d9\u6240","boring_xml_url":40,"boring_view_url":1,"soilmap_view_url":null,"soiltest_xml_url":0,"soiltest_view_url":0},{"id":171710,"code":"B4KJ201801005-9959","latitude":"33.4742169","longitude":"135.7784458","source_code":"KK50351662011","project_name":"","survey_name":"\u6709\u7530\u6a4b\u59162\u4ef6\u30dc\u30fc\u30ea\u30f3\u30b0\u5de5\u4e8b","client_name":"\u56fd\u571f\u4ea4\u901a\u7701\u8fd1\u757f\u5730\u65b9\u6574\u5099\u5c40\u7d00\u5357\u6cb3\u5ddd\u56fd\u9053\u4e8b\u52d9\u6240","boring_xml_url":40,"boring_view_url":1,"soilmap_view_url":null,"soiltest_xml_url":0,"soiltest_view_url":0},{"id":171709,"code":"B4KJ201801005-9958","latitude":"33.4742169","longitude":"135.7784458","source_code":"KK50351662010","project_name":"","survey_name":"\u6709\u7530\u6a4b\u59162\u4ef6\u30dc\u30fc\u30ea\u30f3\u30b0\u5de5\u4e8b","client_name":"\u56fd\u571f\u4ea4\u901a\u7701\u8fd1\u757f\u5730\u65b9\u6574\u5099\u5c40\u7d00\u5357\u6cb3\u5ddd\u56fd\u9053\u4e8b\u52d9\u6240","boring_xml_url":40,"boring_view_url":1,"soilmap_view_url":null,"soiltest_xml_url":0,"soiltest_view_url":0},{"id":171708,"code":"B4KJ201801005-9957","latitude":"33.4742169","longitude":"135.7784458","source_code":"KK50351662009","project_name":"","survey_name":"\u6709\u7530\u6a4b\u59162\u4ef6\u30dc\u30fc\u30ea\u30f3\u30b0\u5de5\u4e8b","client_name":"\u56fd\u571f\u4ea4\u901a\u7701\u8fd1\u757f\u5730\u65b9\u6574\u5099\u5c40\u7d00\u5357\u6cb3\u5ddd\u56fd\u9053\u4e8b\u52d9\u6240","boring_xml_url":40,"boring_view_url":1,"soilmap_view_url":null,"soiltest_xml_url":0,"soiltest_view_url":0},{"id":171707,"code":"B4KJ201801005-9956","latitude":"33.4780778","longitude":"135.7751683","source_code":"KK50351662007","project_name":"","survey_name":"\u4e8c\u8272\u6a4b\u30dc\u30fc\u30ea\u30f3\u30b0\u5de5\u4e8b","client_name":"\u56fd\u571f\u4ea4\u901a\u7701\u8fd1\u757f\u5730\u65b9\u6574\u5099\u5c40\u7d00\u5357\u6cb3\u5ddd\u56fd\u9053\u4e8b\u52d9\u6240","boring_xml_url":40,"boring_view_url":1,"soilmap_view_url":null,"soiltest_xml_url":0,"soiltest_view_url":0},{"id":171706,"code":"B4KJ201801005-9955","latitude":"33.4771611","longitude":"135.7760847","source_code":"KK50351662006","project_name":"","survey_name":"\u6f6e\u6d5c\u6a4b\u4e0b\u90e8\u5de5\u8abf\u67fb\u4f5c\u696d","client_name":"\u56fd\u571f\u4ea4\u901a\u7701\u8fd1\u757f\u5730\u65b9\u6574\u5099\u5c40\u7d00\u5357\u6cb3\u5ddd\u56fd\u9053\u4e8b\u52d9\u6240","boring_xml_url":40,"boring_view_url":1,"soilmap_view_url":null,"soiltest_xml_url":0,"soiltest_view_url":0},{"id":171705,"code":"B4KJ201801005-9954","latitude":"33.4778556","longitude":"135.7760847","source_code":"KK50351662005","project_name":"","survey_name":"\u6f6e\u6d5c\u6a4b\u4e0b\u90e8\u5de5\u8abf\u67fb\u305d\u306e2\u4f5c\u696d","client_name":"\u56fd\u571f\u4ea4\u901a\u7701\u8fd1\u757f\u5730\u65b9\u6574\u5099\u5c40\u7d00\u5357\u6cb3\u5ddd\u56fd\u9053\u4e8b\u52d9\u6240","boring_xml_url":40,"boring_view_url":1,"soilmap_view_url":null,"soiltest_xml_url":0,"soiltest_view_url":0},{"id":171704,"code":"B4KJ201801005-9953","latitude":"33.4776333","longitude":"135.7760847","source_code":"KK50351662004","project_name":"","survey_name":"\u6f6e\u6d5c\u6a4b\u4e0b\u90e8\u5de5\u8abf\u67fb\u305d\u306e3\u4f5c\u696d","client_name":"\u56fd\u571f\u4ea4\u901a\u7701\u8fd1\u757f\u5730\u65b9\u6574\u5099\u5c40\u7d00\u5357\u6cb3\u5ddd\u56fd\u9053\u4e8b\u52d9\u6240","boring_xml_url":40,"boring_view_url":1,"soilmap_view_url":null,"soiltest_xml_url":0,"soiltest_view_url":0},{"id":171703,"code":"B4KJ201801005-9952","latitude":"33.4776333","longitude":"135.7760847","source_code":"KK50351662003","project_name":"","survey_name":"\u6f6e\u6d5c\u6a4b\u4e0b\u90e8\u5de5\u8abf\u67fb\u305d\u306e3\u4f5c\u696d","client_name":"\u56fd\u571f\u4ea4\u901a\u7701\u8fd1\u757f\u5730\u65b9\u6574\u5099\u5c40\u7d00\u5357\u6cb3\u5ddd\u56fd\u9053\u4e8b\u52d9\u6240","boring_xml_url":40,"boring_view_url":1,"soilmap_view_url":null,"soiltest_xml_url":0,"soiltest_view_url":0},{"id":171702,"code":"B4KJ201801005-9951","latitude":"33.4776333","longitude":"135.7760847","source_code":"KK50351662002","project_name":"","survey_name":"\u6f6e\u6d5c\u6a4b\u4e0b\u90e8\u5de5\u8abf\u67fb\u305d\u306e3\u4f5c\u696d","client_name":"\u56fd\u571f\u4ea4\u901a\u7701\u8fd1\u757f\u5730\u65b9\u6574\u5099\u5c40\u7d00\u5357\u6cb3\u5ddd\u56fd\u9053\u4e8b\u52d9\u6240","boring_xml_url":40,"boring_view_url":1,"soilmap_view_url":null,"soiltest_xml_url":0,"soiltest_view_url":0},{"id":171701,"code":"B4KJ201801005-9950","latitude":"33.4776333","longitude":"135.7760847","source_code":"KK50351662001","project_name":"","survey_name":"\u6f6e\u6d5c\u6a4b\u4e0b\u90e8\u5de5\u8abf\u67fb\u305d\u306e2\u4f5c\u696d","client_name":"\u56fd\u571f\u4ea4\u901a\u7701\u8fd1\u757f\u5730\u65b9\u6574\u5099\u5c40\u7d00\u5357\u6cb3\u5ddd\u56fd\u9053\u4e8b\u52d9\u6240","boring_xml_url":40,"boring_view_url":1,"soilmap_view_url":null,"soiltest_xml_url":0,"soiltest_view_url":0},{"id":171700,"code":"B4KJ201801005-9949","latitude":"33.4919625","longitude":"135.6692881","source_code":"KK50351583004","project_name":"","survey_name":"\u5b89\u6307\u6a4b\u59162\u30b1\u6240\u30dc\u30fc\u30ea\u30f3\u30b0\u5de5\u4e8b","client_name":"\u56fd\u571f\u4ea4\u901a\u7701\u8fd1\u757f\u5730\u65b9\u6574\u5099\u5c40\u7d00\u5357\u6cb3\u5ddd\u56fd\u9053\u4e8b\u52d9\u6240","boring_xml_url":40,"boring_view_url":1,"soilmap_view_url":null,"soiltest_xml_url":0,"soiltest_view_url":0},{"id":171699,"code":"B4KJ201801005-9948","latitude":"33.4921014","longitude":"135.6693436","source_code":"KK50351583003","project_name":"","survey_name":"\u5b89\u6307\u6a4b\u59162\u30b1\u6240\u30dc\u30fc\u30ea\u30f3\u30b0\u5de5\u4e8b","client_name":"\u56fd\u571f\u4ea4\u901a\u7701\u8fd1\u757f\u5730\u65b9\u6574\u5099\u5c40\u7d00\u5357\u6cb3\u5ddd\u56fd\u9053\u4e8b\u52d9\u6240","boring_xml_url":40,"boring_view_url":1,"soilmap_view_url":null,"soiltest_xml_url":0,"soiltest_view_url":0},{"id":171698,"code":"B4KJ201801005-9947","latitude":"33.4919347","longitude":"135.6690103","source_code":"KK50351583002","project_name":"","survey_name":"\u5b89\u6307\u6a4b\u59162\u30b1\u6240\u30dc\u30fc\u30ea\u30f3\u30b0\u5de5\u4e8b","client_name":"\u56fd\u571f\u4ea4\u901a\u7701\u8fd1\u757f\u5730\u65b9\u6574\u5099\u5c40\u7d00\u5357\u6cb3\u5ddd\u56fd\u9053\u4e8b\u52d9\u6240","boring_xml_url":40,"boring_view_url":1,"soilmap_view_url":null,"soiltest_xml_url":0,"soiltest_view_url":0},{"id":171697,"code":"B4KJ201801005-9946","latitude":"33.4921569","longitude":"135.6690658","source_code":"KK50351583001","project_name":"","survey_name":"\u5b89\u6307\u6a4b\u59162\u30b1\u6240\u30dc\u30fc\u30ea\u30f3\u30b0\u5de5\u4e8b","client_name":"\u56fd\u571f\u4ea4\u901a\u7701\u8fd1\u757f\u5730\u65b9\u6574\u5099\u5c40\u7d00\u5357\u6cb3\u5ddd\u56fd\u9053\u4e8b\u52d9\u6240","boring_xml_url":40,"boring_view_url":1,"soilmap_view_url":null,"soiltest_xml_url":0,"soiltest_view_url":0},{"id":171696,"code":"B4KJ201801005-9945","latitude":"33.4858814","longitude":"135.7380322","source_code":"KK50351579007","project_name":"","survey_name":"\u6709\u7530\u5730\u533a\u571f\u8cea\u8abf\u67fb\u4f5c\u696d","client_name":"\u56fd\u571f\u4ea4\u901a\u7701\u8fd1\u757f\u5730\u65b9\u6574\u5099\u5c40\u7d00\u5357\u6cb3\u5ddd\u56fd\u9053\u4e8b\u52d9\u6240","boring_xml_url":40,"boring_view_url":1,"soilmap_view_url":null,"soiltest_xml_url":0,"soiltest_view_url":0},{"id":171695,"code":"B4KJ201801005-9944","latitude":"33.4850483","longitude":"135.73831","source_code":"KK50351579006","project_name":"","survey_name":"\u6709\u7530\u5730\u533a\u571f\u8cea\u8abf\u67fb\u4f5c\u696d","client_name":"\u56fd\u571f\u4ea4\u901a\u7701\u8fd1\u757f\u5730\u65b9\u6574\u5099\u5c40\u7d00\u5357\u6cb3\u5ddd\u56fd\u9053\u4e8b\u52d9\u6240","boring_xml_url":40,"boring_view_url":1,"soilmap_view_url":null,"soiltest_xml_url":0,"soiltest_view_url":0},{"id":171694,"code":"B4KJ201801005-9943","latitude":"33.484215","longitude":"135.7388656","source_code":"KK50351579005","project_name":"","survey_name":"\u6709\u7530\u5730\u533a\u571f\u8cea\u8abf\u67fb\u4f5c\u696d","client_name":"\u56fd\u571f\u4ea4\u901a\u7701\u8fd1\u757f\u5730\u65b9\u6574\u5099\u5c40\u7d00\u5357\u6cb3\u5ddd\u56fd\u9053\u4e8b\u52d9\u6240","boring_xml_url":40,"boring_view_url":1,"soilmap_view_url":null,"soiltest_xml_url":0,"soiltest_view_url":0},{"id":171693,"code":"B4KJ201801005-9942","latitude":"33.4860203","longitude":"135.7365603","source_code":"KK50351579004","project_name":"","survey_name":"\u6709\u7530\u6a4b\u59162\u4ef6\u30dc\u30fc\u30ea\u30f3\u30b0\u5de5\u4e8b","client_name":"\u56fd\u571f\u4ea4\u901a\u7701\u8fd1\u757f\u5730\u65b9\u6574\u5099\u5c40\u7d00\u5357\u6cb3\u5ddd\u56fd\u9053\u4e8b\u52d9\u6240","boring_xml_url":40,"boring_view_url":1,"soilmap_view_url":null,"soiltest_xml_url":0,"soiltest_view_url":0},{"id":171692,"code":"B4KJ201801005-9941","latitude":"33.4860203","longitude":"135.7365603","source_code":"KK50351579003","project_name":"","survey_name":"\u6709\u7530\u6a4b\u59162\u4ef6\u30dc\u30fc\u30ea\u30f3\u30b0\u5de5\u4e8b","client_name":"\u56fd\u571f\u4ea4\u901a\u7701\u8fd1\u757f\u5730\u65b9\u6574\u5099\u5c40\u7d00\u5357\u6cb3\u5ddd\u56fd\u9053\u4e8b\u52d9\u6240","boring_xml_url":40,"boring_view_url":1,"soilmap_view_url":null,"soiltest_xml_url":0,"soiltest_view_url":0},{"id":171691,"code":"B4KJ201801005-9940","latitude":"33.4860203","longitude":"135.7365603","source_code":"KK50351579002","project_name":"","survey_name":"\u6709\u7530\u6a4b\u59162\u4ef6\u30dc\u30fc\u30ea\u30f3\u30b0\u5de5\u4e8b","client_name":"\u56fd\u571f\u4ea4\u901a\u7701\u8fd1\u757f\u5730\u65b9\u6574\u5099\u5c40\u7d00\u5357\u6cb3\u5ddd\u56fd\u9053\u4e8b\u52d9\u6240","boring_xml_url":40,"boring_view_url":1,"soilmap_view_url":null,"soiltest_xml_url":0,"soiltest_view_url":0},{"id":171690,"code":"B4KJ201801005-9939","latitude":"35.3099881","longitude":"134.8609653","source_code":"KK28650200400280003","project_name":"","survey_name":"\u5e73\u621014\u5e74\u5ea6\u5317\u8fd1\u757f\u8c4a\u5ca1\u81ea\u52d5\u8eca\u9053\u7b52\u6c5f\u5730\u533a\u9053\u8def\u8a73\u7d30\u8a2d\u8a08\u4fee\u6b63\u696d\u52d9","client_name":"\u56fd\u571f\u4ea4\u901a\u7701\u8fd1\u757f\u5730\u65b9\u6574\u5099\u5c40\u8c4a\u5ca1\u5de5\u4e8b\u4e8b\u52d9\u6240","boring_xml_url":46,"boring_view_url":1,"soilmap_view_url":null,"soiltest_xml_url":0,"soiltest_view_url":0},{"id":171689,"code":"B4KJ201801005-9938","latitude":"35.3100714","longitude":"134.8615208","source_code":"KK28650200400280002","project_name":"","survey_name":"\u5e73\u621014\u5e74\u5ea6\u5317\u8fd1\u757f\u8c4a\u5ca1\u81ea\u52d5\u8eca\u9053\u7b52\u6c5f\u5730\u533a\u9053\u8def\u8a73\u7d30\u8a2d\u8a08\u4fee\u6b63\u696d\u52d9","client_name":"\u56fd\u571f\u4ea4\u901a\u7701\u8fd1\u757f\u5730\u65b9\u6574\u5099\u5c40\u8c4a\u5ca1\u5de5\u4e8b\u4e8b\u52d9\u6240","boring_xml_url":46,"boring_view_url":1,"soilmap_view_url":null,"soiltest_xml_url":0,"soiltest_view_url":0},{"id":171688,"code":"B4KJ201801005-9937","latitude":"35.3099603","longitude":"134.861715","source_code":"KK28650200400280001","project_name":"","survey_name":"\u5e73\u621014\u5e74\u5ea6\u5317\u8fd1\u757f\u8c4a\u5ca1\u81ea\u52d5\u8eca\u9053\u7b52\u6c5f\u5730\u533a\u9053\u8def\u8a73\u7d30\u8a2d\u8a08\u4fee\u6b63\u696d\u52d9","client_name":"\u56fd\u571f\u4ea4\u901a\u7701\u8fd1\u757f\u5730\u65b9\u6574\u5099\u5c40\u8c4a\u5ca1\u5de5\u4e8b\u4e8b\u52d9\u6240","boring_xml_url":46,"boring_view_url":1,"soilmap_view_url":null,"soiltest_xml_url":0,"soiltest_view_url":0},{"id":171687,"code":"B4KJ201801005-9936","latitude":"33.62206","longitude":"135.91883","source_code":"KK078666000400050025","project_name":"\u5e73\u621019\u5e74\u5ea6\u90a3\u667a\u52dd\u6d66\u9053\u8def\u6a4b\u30ce\u5ddd\u5730\u533a\u5730\u8cea\u8abf\u67fb\u696d\u52d9","survey_name":"\u5e73\u621019\u5e74\u5ea6\u90a3\u667a\u52dd\u6d66\u9053\u8def\u6a4b\u30ce\u5ddd\u5730\u533a\u5730\u8cea\u8abf\u67fb\u696d\u52d9","client_name":"\u56fd\u571f\u4ea4\u901a\u7701\u8fd1\u757f\u5730\u65b9\u6574\u5099\u5c40\u7d00\u5357\u6cb3\u5ddd\u56fd\u9053\u4e8b\u52d9\u6240","boring_xml_url":47,"boring_view_url":1,"soilmap_view_url":null,"soiltest_xml_url":0,"soiltest_view_url":0},{"id":171686,"code":"B4KJ201801005-9935","latitude":"33.62197","longitude":"135.91906","source_code":"KK078666000400050024","project_name":"\u5e73\u621019\u5e74\u5ea6\u90a3\u667a\u52dd\u6d66\u9053\u8def\u6a4b\u30ce\u5ddd\u5730\u533a\u5730\u8cea\u8abf\u67fb\u696d\u52d9","survey_name":"\u5e73\u621019\u5e74\u5ea6\u90a3\u667a\u52dd\u6d66\u9053\u8def\u6a4b\u30ce\u5ddd\u5730\u533a\u5730\u8cea\u8abf\u67fb\u696d\u52d9","client_name":"\u56fd\u571f\u4ea4\u901a\u7701\u8fd1\u757f\u5730\u65b9\u6574\u5099\u5c40\u7d00\u5357\u6cb3\u5ddd\u56fd\u9053\u4e8b\u52d9\u6240","boring_xml_url":47,"boring_view_url":1,"soilmap_view_url":null,"soiltest_xml_url":0,"soiltest_view_url":0}]}}