{"header":{"xyz":{"source":[],"mosaic":false},"page":4971,"raw":{"soiltest_result":"0","bbox":"57.598333,109.544722,1.933333,163.806111","page":"4971"},"conditions":{"soiltest_result":0,"north":57.598333,"west":109.544722,"south":1.933333,"east":163.806111},"success":true,"message":""},"data":{"meta":{"total":212844,"page":4971,"pages":7095,"count":30},"values":[{"id":171445,"code":"B4KJ201801005-9694","latitude":"35.32203","longitude":"134.84189","source_code":"KK058650000400180001","project_name":"\u5e73\u621017\u5e74\u5ea6 \u548c\u7530\u5c71\u516b\u9e7f\u9053\u8def\u5730\u8cea\u8abf\u67fb\u696d\u52d9","survey_name":"\u5e73\u621017\u5e74\u5ea6 \u548c\u7530\u5c71\u516b\u9e7f\u9053\u8def\u5730\u8cea\u8abf\u67fb\u696d\u52d9","client_name":"\u56fd\u571f\u4ea4\u901a\u7701\u8fd1\u757f\u5730\u65b9\u6574\u5099\u5c40\u8c4a\u5ca1\u6cb3\u5ddd\u56fd\u9053\u4e8b\u52d9\u6240","boring_xml_url":47,"boring_view_url":1,"soilmap_view_url":null,"soiltest_xml_url":0,"soiltest_view_url":0},{"id":171444,"code":"B4KJ201801005-9693","latitude":"35.384","longitude":"135.31244","source_code":"KK058635600400150008","project_name":"","survey_name":"27\u53f7\u771f\u5009\u30fb\u9ed2\u8c37\u5730\u533a\u64c1\u58c1\u7b49\u69cb\u9020\u691c\u8a0e\u53ca\u3073\u8a2d\u8a08\u696d\u52d9","client_name":"\u56fd\u571f\u4ea4\u901a\u7701\u8fd1\u757f\u5730\u65b9\u6574\u5099\u5c40\u798f\u77e5\u5c71\u6cb3\u5ddd\u56fd\u9053\u4e8b\u52d9\u6240","boring_xml_url":47,"boring_view_url":1,"soilmap_view_url":null,"soiltest_xml_url":0,"soiltest_view_url":0},{"id":171443,"code":"B4KJ201801005-9692","latitude":"35.3811","longitude":"135.315","source_code":"KK058635600400150007","project_name":"","survey_name":"27\u53f7\u771f\u5009\u30fb\u9ed2\u8c37\u5730\u533a\u64c1\u58c1\u7b49\u69cb\u9020\u691c\u8a0e\u53ca\u3073\u8a2d\u8a08\u696d\u52d9","client_name":"\u56fd\u571f\u4ea4\u901a\u7701\u8fd1\u757f\u5730\u65b9\u6574\u5099\u5c40\u798f\u77e5\u5c71\u6cb3\u5ddd\u56fd\u9053\u4e8b\u52d9\u6240","boring_xml_url":47,"boring_view_url":1,"soilmap_view_url":null,"soiltest_xml_url":0,"soiltest_view_url":0},{"id":171442,"code":"B4KJ201801005-9691","latitude":"35.3814","longitude":"135.3147","source_code":"KK058635600400150006","project_name":"","survey_name":"27\u53f7\u771f\u5009\u30fb\u9ed2\u8c37\u5730\u533a\u64c1\u58c1\u7b49\u69cb\u9020\u691c\u8a0e\u53ca\u3073\u8a2d\u8a08\u696d\u52d9","client_name":"\u56fd\u571f\u4ea4\u901a\u7701\u8fd1\u757f\u5730\u65b9\u6574\u5099\u5c40\u798f\u77e5\u5c71\u6cb3\u5ddd\u56fd\u9053\u4e8b\u52d9\u6240","boring_xml_url":47,"boring_view_url":1,"soilmap_view_url":null,"soiltest_xml_url":0,"soiltest_view_url":0},{"id":171441,"code":"B4KJ201801005-9690","latitude":"35.3839","longitude":"135.3133","source_code":"KK058635600400150005","project_name":"","survey_name":"27\u53f7\u771f\u5009\u30fb\u9ed2\u8c37\u5730\u533a\u64c1\u58c1\u7b49\u69cb\u9020\u691c\u8a0e\u53ca\u3073\u8a2d\u8a08\u696d\u52d9","client_name":"\u56fd\u571f\u4ea4\u901a\u7701\u8fd1\u757f\u5730\u65b9\u6574\u5099\u5c40\u798f\u77e5\u5c71\u6cb3\u5ddd\u56fd\u9053\u4e8b\u52d9\u6240","boring_xml_url":47,"boring_view_url":1,"soilmap_view_url":null,"soiltest_xml_url":0,"soiltest_view_url":0},{"id":171440,"code":"B4KJ201801005-9689","latitude":"35.3881","longitude":"135.315","source_code":"KK058635600400150004","project_name":"","survey_name":"27\u53f7\u771f\u5009\u30fb\u9ed2\u8c37\u5730\u533a\u64c1\u58c1\u7b49\u69cb\u9020\u691c\u8a0e\u53ca\u3073\u8a2d\u8a08\u696d\u52d9","client_name":"\u56fd\u571f\u4ea4\u901a\u7701\u8fd1\u757f\u5730\u65b9\u6574\u5099\u5c40\u798f\u77e5\u5c71\u6cb3\u5ddd\u56fd\u9053\u4e8b\u52d9\u6240","boring_xml_url":47,"boring_view_url":1,"soilmap_view_url":null,"soiltest_xml_url":0,"soiltest_view_url":0},{"id":171439,"code":"B4KJ201801005-9688","latitude":"35.3883","longitude":"135.3156","source_code":"KK058635600400150003","project_name":"","survey_name":"27\u53f7\u771f\u5009\u30fb\u9ed2\u8c37\u5730\u533a\u64c1\u58c1\u7b49\u69cb\u9020\u691c\u8a0e\u53ca\u3073\u8a2d\u8a08\u696d\u52d9","client_name":"\u56fd\u571f\u4ea4\u901a\u7701\u8fd1\u757f\u5730\u65b9\u6574\u5099\u5c40\u798f\u77e5\u5c71\u6cb3\u5ddd\u56fd\u9053\u4e8b\u52d9\u6240","boring_xml_url":47,"boring_view_url":1,"soilmap_view_url":null,"soiltest_xml_url":0,"soiltest_view_url":0},{"id":171438,"code":"B4KJ201801005-9687","latitude":"35.39","longitude":"135.3169","source_code":"KK058635600400150002","project_name":"","survey_name":"27\u53f7\u771f\u5009\u30fb\u9ed2\u8c37\u5730\u533a\u64c1\u58c1\u7b49\u69cb\u9020\u691c\u8a0e\u53ca\u3073\u8a2d\u8a08\u696d\u52d9","client_name":"\u56fd\u571f\u4ea4\u901a\u7701\u8fd1\u757f\u5730\u65b9\u6574\u5099\u5c40\u798f\u77e5\u5c71\u6cb3\u5ddd\u56fd\u9053\u4e8b\u52d9\u6240","boring_xml_url":47,"boring_view_url":1,"soilmap_view_url":null,"soiltest_xml_url":0,"soiltest_view_url":0},{"id":171437,"code":"B4KJ201801005-9686","latitude":"35.3906","longitude":"135.3175","source_code":"KK058635600400150001","project_name":"","survey_name":"27\u53f7\u771f\u5009\u30fb\u9ed2\u8c37\u5730\u533a\u64c1\u58c1\u7b49\u69cb\u9020\u691c\u8a0e\u53ca\u3073\u8a2d\u8a08\u696d\u52d9","client_name":"\u56fd\u571f\u4ea4\u901a\u7701\u8fd1\u757f\u5730\u65b9\u6574\u5099\u5c40\u798f\u77e5\u5c71\u6cb3\u5ddd\u56fd\u9053\u4e8b\u52d9\u6240","boring_xml_url":47,"boring_view_url":1,"soilmap_view_url":null,"soiltest_xml_url":0,"soiltest_view_url":0},{"id":171436,"code":"B4KJ201801005-9685","latitude":"35.52336","longitude":"136.16042","source_code":"KK058632320400070001","project_name":"\u5e73\u621017\u5e74\u5ea6 \u5869\u6d25BP\u5354\u8b70\u8cc7\u6599\u4f5c\u6210\u696d\u52d9","survey_name":"\u5e73\u621017\u5e74\u5ea6 \u5869\u6d25\u5354\u8b70\u8cc7\u6599\u4f5c\u6210\u696d\u52d9","client_name":"\u56fd\u571f\u4ea4\u901a\u7701\u8fd1\u757f\u5730\u65b9\u6574\u5099\u5c40\u6ecb\u8cc0\u56fd\u9053\u4e8b\u52d9\u6240","boring_xml_url":47,"boring_view_url":1,"soilmap_view_url":null,"soiltest_xml_url":0,"soiltest_view_url":0},{"id":171435,"code":"B4KJ201801005-9684","latitude":"34.92806","longitude":"135.90453","source_code":"KK058630230400190004","project_name":"\u5357\u90f7\u3048\u3093\u5824\u8a73\u7d30\u8a2d\u8a08\u4ed6\u696d\u52d9","survey_name":"\u5357\u90f7\u3048\u3093\u5824\u8a73\u7d30\u8a2d\u8a08\u4ed6\u696d\u52d9","client_name":"\u56fd\u571f\u4ea4\u901a\u7701\u8fd1\u757f\u5730\u65b9\u6574\u5099\u5c40\u7435\u7436\u6e56\u6cb3\u5ddd\u4e8b\u52d9\u6240","boring_xml_url":47,"boring_view_url":1,"soilmap_view_url":null,"soiltest_xml_url":0,"soiltest_view_url":0},{"id":171434,"code":"B4KJ201801005-9683","latitude":"34.92783","longitude":"135.90411","source_code":"KK058630230400190003","project_name":"\u5357\u90f7\u3048\u3093\u5824\u8a73\u7d30\u8a2d\u8a08\u4ed6\u696d\u52d9","survey_name":"\u5357\u90f7\u3048\u3093\u5824\u8a73\u7d30\u8a2d\u8a08\u4ed6\u696d\u52d9","client_name":"\u56fd\u571f\u4ea4\u901a\u7701\u8fd1\u757f\u5730\u65b9\u6574\u5099\u5c40\u7435\u7436\u6e56\u6cb3\u5ddd\u4e8b\u52d9\u6240","boring_xml_url":47,"boring_view_url":1,"soilmap_view_url":null,"soiltest_xml_url":0,"soiltest_view_url":0},{"id":171433,"code":"B4KJ201801005-9682","latitude":"34.92786","longitude":"135.90447","source_code":"KK058630230400190002","project_name":"\u5357\u90f7\u3048\u3093\u5824\u8a73\u7d30\u8a2d\u8a08\u4ed6\u696d\u52d9","survey_name":"\u5357\u90f7\u3048\u3093\u5824\u8a73\u7d30\u8a2d\u8a08\u4ed6\u696d\u52d9","client_name":"\u56fd\u571f\u4ea4\u901a\u7701\u8fd1\u757f\u5730\u65b9\u6574\u5099\u5c40\u7435\u7436\u6e56\u6cb3\u5ddd\u4e8b\u52d9\u6240","boring_xml_url":47,"boring_view_url":1,"soilmap_view_url":null,"soiltest_xml_url":0,"soiltest_view_url":0},{"id":171432,"code":"B4KJ201801005-9681","latitude":"34.92783","longitude":"135.90469","source_code":"KK058630230400190001","project_name":"\u5357\u90f7\u3048\u3093\u5824\u8a73\u7d30\u8a2d\u8a08\u4ed6\u696d\u52d9","survey_name":"\u5357\u90f7\u3048\u3093\u5824\u8a73\u7d30\u8a2d\u8a08\u4ed6\u696d\u52d9","client_name":"\u56fd\u571f\u4ea4\u901a\u7701\u8fd1\u757f\u5730\u65b9\u6574\u5099\u5c40\u7435\u7436\u6e56\u6cb3\u5ddd\u4e8b\u52d9\u6240","boring_xml_url":47,"boring_view_url":1,"soilmap_view_url":null,"soiltest_xml_url":0,"soiltest_view_url":0},{"id":171431,"code":"B4KJ201801005-9680","latitude":"34.9103","longitude":"135.085","source_code":"KK058630230400150005","project_name":"\u7267\u3048\u3093\u5824\u8a73\u7d30\u8a2d\u8a08\u4ed6\u696d\u52d9","survey_name":"\u7267\u3048\u3093\u5824\u8a73\u7d30\u8a2d\u8a08\u4ed6\u696d\u52d9","client_name":"\u56fd\u571f\u4ea4\u901a\u7701\u8fd1\u757f\u5730\u65b9\u6574\u5099\u5c40\u7435\u7436\u6e56\u6cb3\u5ddd\u4e8b\u52d9\u6240","boring_xml_url":47,"boring_view_url":1,"soilmap_view_url":null,"soiltest_xml_url":0,"soiltest_view_url":0},{"id":171430,"code":"B4KJ201801005-9679","latitude":"34.9103","longitude":"135.085","source_code":"KK058630230400150004","project_name":"\u7267\u3048\u3093\u5824\u8a73\u7d30\u8a2d\u8a08\u4ed6\u696d\u52d9","survey_name":"\u7267\u3048\u3093\u5824\u8a73\u7d30\u8a2d\u8a08\u4ed6\u696d\u52d9","client_name":"\u56fd\u571f\u4ea4\u901a\u7701\u8fd1\u757f\u5730\u65b9\u6574\u5099\u5c40\u7435\u7436\u6e56\u6cb3\u5ddd\u4e8b\u52d9\u6240","boring_xml_url":47,"boring_view_url":1,"soilmap_view_url":null,"soiltest_xml_url":0,"soiltest_view_url":0},{"id":171429,"code":"B4KJ201801005-9678","latitude":"34.9103","longitude":"135.085","source_code":"KK058630230400150003","project_name":"\u7267\u3048\u3093\u5824\u8a73\u7d30\u8a2d\u8a08\u4ed6\u696d\u52d9","survey_name":"\u7267\u3048\u3093\u5824\u8a73\u7d30\u8a2d\u8a08\u4ed6\u696d\u52d9","client_name":"\u56fd\u571f\u4ea4\u901a\u7701\u8fd1\u757f\u5730\u65b9\u6574\u5099\u5c40\u7435\u7436\u6e56\u6cb3\u5ddd\u4e8b\u52d9\u6240","boring_xml_url":47,"boring_view_url":1,"soilmap_view_url":null,"soiltest_xml_url":0,"soiltest_view_url":0},{"id":171428,"code":"B4KJ201801005-9677","latitude":"34.9103","longitude":"135.085","source_code":"KK058630230400150002","project_name":"\u7267\u3048\u3093\u5824\u8a73\u7d30\u8a2d\u8a08\u4ed6\u696d\u52d9","survey_name":"\u7267\u3048\u3093\u5824\u8a73\u7d30\u8a2d\u8a08\u4ed6\u696d\u52d9","client_name":"\u56fd\u571f\u4ea4\u901a\u7701\u8fd1\u757f\u5730\u65b9\u6574\u5099\u5c40\u7435\u7436\u6e56\u6cb3\u5ddd\u4e8b\u52d9\u6240","boring_xml_url":47,"boring_view_url":1,"soilmap_view_url":null,"soiltest_xml_url":0,"soiltest_view_url":0},{"id":171427,"code":"B4KJ201801005-9676","latitude":"34.9103","longitude":"135.085","source_code":"KK058630230400150001","project_name":"\u7267\u3048\u3093\u5824\u8a73\u7d30\u8a2d\u8a08\u4ed6\u696d\u52d9","survey_name":"\u7267\u3048\u3093\u5824\u8a73\u7d30\u8a2d\u8a08\u4ed6\u696d\u52d9","client_name":"\u56fd\u571f\u4ea4\u901a\u7701\u8fd1\u757f\u5730\u65b9\u6574\u5099\u5c40\u7435\u7436\u6e56\u6cb3\u5ddd\u4e8b\u52d9\u6240","boring_xml_url":47,"boring_view_url":1,"soilmap_view_url":null,"soiltest_xml_url":0,"soiltest_view_url":0},{"id":171426,"code":"B4KJ201801005-9675","latitude":"34.34564","longitude":"135.67483","source_code":"KK048661200400430011","project_name":"","survey_name":"\u4eac\u5948\u548c\u81ea\u52d5\u8eca\u9053\u571f\u8cea\u8abf\u67fb\u696d\u52d9","client_name":"\u56fd\u571f\u4ea4\u901a\u7701\u8fd1\u757f\u5730\u65b9\u6574\u5099\u5c40\u5948\u826f\u56fd\u9053\u4e8b\u52d9\u6240","boring_xml_url":47,"boring_view_url":1,"soilmap_view_url":null,"soiltest_xml_url":0,"soiltest_view_url":0},{"id":171425,"code":"B4KJ201801005-9674","latitude":"34.34581","longitude":"135.67461","source_code":"KK048661200400430010","project_name":"","survey_name":"\u4eac\u5948\u548c\u81ea\u52d5\u8eca\u9053\u571f\u8cea\u8abf\u67fb\u696d\u52d9","client_name":"\u56fd\u571f\u4ea4\u901a\u7701\u8fd1\u757f\u5730\u65b9\u6574\u5099\u5c40\u5948\u826f\u56fd\u9053\u4e8b\u52d9\u6240","boring_xml_url":47,"boring_view_url":1,"soilmap_view_url":null,"soiltest_xml_url":0,"soiltest_view_url":0},{"id":171424,"code":"B4KJ201801005-9673","latitude":"34.3364","longitude":"135.7667","source_code":"KK048661200400430009","project_name":"","survey_name":"\u4eac\u5948\u548c\u81ea\u52d5\u8eca\u9053\u571f\u8cea\u8abf\u67fb\u696d\u52d9","client_name":"\u56fd\u571f\u4ea4\u901a\u7701\u8fd1\u757f\u5730\u65b9\u6574\u5099\u5c40\u5948\u826f\u56fd\u9053\u4e8b\u52d9\u6240","boring_xml_url":47,"boring_view_url":1,"soilmap_view_url":null,"soiltest_xml_url":0,"soiltest_view_url":0},{"id":171423,"code":"B4KJ201801005-9672","latitude":"34.3364","longitude":"135.7667","source_code":"KK048661200400430008","project_name":"","survey_name":"\u4eac\u5948\u548c\u81ea\u52d5\u8eca\u9053\u571f\u8cea\u8abf\u67fb\u696d\u52d9","client_name":"\u56fd\u571f\u4ea4\u901a\u7701\u8fd1\u757f\u5730\u65b9\u6574\u5099\u5c40\u5948\u826f\u56fd\u9053\u4e8b\u52d9\u6240","boring_xml_url":47,"boring_view_url":1,"soilmap_view_url":null,"soiltest_xml_url":0,"soiltest_view_url":0},{"id":171422,"code":"B4KJ201801005-9671","latitude":"34.3361","longitude":"135.7675","source_code":"KK048661200400430007","project_name":"","survey_name":"\u4eac\u5948\u548c\u81ea\u52d5\u8eca\u9053\u571f\u8cea\u8abf\u67fb\u696d\u52d9","client_name":"\u56fd\u571f\u4ea4\u901a\u7701\u8fd1\u757f\u5730\u65b9\u6574\u5099\u5c40\u5948\u826f\u56fd\u9053\u4e8b\u52d9\u6240","boring_xml_url":47,"boring_view_url":1,"soilmap_view_url":null,"soiltest_xml_url":0,"soiltest_view_url":0},{"id":171421,"code":"B4KJ201801005-9670","latitude":"34.30875","longitude":"135.67042","source_code":"KK048661200400430006","project_name":"","survey_name":"\u4eac\u5948\u548c\u81ea\u52d5\u8eca\u9053\u571f\u8cea\u8abf\u67fb\u696d\u52d9","client_name":"\u56fd\u571f\u4ea4\u901a\u7701\u8fd1\u757f\u5730\u65b9\u6574\u5099\u5c40\u5948\u826f\u56fd\u9053\u4e8b\u52d9\u6240","boring_xml_url":47,"boring_view_url":1,"soilmap_view_url":null,"soiltest_xml_url":0,"soiltest_view_url":0},{"id":171420,"code":"B4KJ201801005-9669","latitude":"34.30928","longitude":"135.67075","source_code":"KK048661200400430005","project_name":"","survey_name":"\u4eac\u5948\u548c\u81ea\u52d5\u8eca\u9053\u571f\u8cea\u8abf\u67fb\u696d\u52d9","client_name":"\u56fd\u571f\u4ea4\u901a\u7701\u8fd1\u757f\u5730\u65b9\u6574\u5099\u5c40\u5948\u826f\u56fd\u9053\u4e8b\u52d9\u6240","boring_xml_url":47,"boring_view_url":1,"soilmap_view_url":null,"soiltest_xml_url":0,"soiltest_view_url":0},{"id":171419,"code":"B4KJ201801005-9668","latitude":"34.30931","longitude":"135.67053","source_code":"KK048661200400430004","project_name":"","survey_name":"\u4eac\u5948\u548c\u81ea\u52d5\u8eca\u9053\u571f\u8cea\u8abf\u67fb\u696d\u52d9","client_name":"\u56fd\u571f\u4ea4\u901a\u7701\u8fd1\u757f\u5730\u65b9\u6574\u5099\u5c40\u5948\u826f\u56fd\u9053\u4e8b\u52d9\u6240","boring_xml_url":47,"boring_view_url":1,"soilmap_view_url":null,"soiltest_xml_url":0,"soiltest_view_url":0},{"id":171418,"code":"B4KJ201801005-9667","latitude":"34.30933","longitude":"135.67036","source_code":"KK048661200400430003","project_name":"","survey_name":"\u4eac\u5948\u548c\u81ea\u52d5\u8eca\u9053\u571f\u8cea\u8abf\u67fb\u696d\u52d9","client_name":"\u56fd\u571f\u4ea4\u901a\u7701\u8fd1\u757f\u5730\u65b9\u6574\u5099\u5c40\u5948\u826f\u56fd\u9053\u4e8b\u52d9\u6240","boring_xml_url":47,"boring_view_url":1,"soilmap_view_url":null,"soiltest_xml_url":0,"soiltest_view_url":0},{"id":171417,"code":"B4KJ201801005-9666","latitude":"34.35472","longitude":"135.68281","source_code":"KK048661200400430002","project_name":"","survey_name":"\u4eac\u5948\u548c\u81ea\u52d5\u8eca\u9053\u571f\u8cea\u8abf\u67fb\u696d\u52d9","client_name":"\u56fd\u571f\u4ea4\u901a\u7701\u8fd1\u757f\u5730\u65b9\u6574\u5099\u5c40\u5948\u826f\u56fd\u9053\u4e8b\u52d9\u6240","boring_xml_url":47,"boring_view_url":1,"soilmap_view_url":null,"soiltest_xml_url":0,"soiltest_view_url":0},{"id":171416,"code":"B4KJ201801005-9665","latitude":"34.35489","longitude":"135.68308","source_code":"KK048661200400430001","project_name":"","survey_name":"\u4eac\u5948\u548c\u81ea\u52d5\u8eca\u9053\u571f\u8cea\u8abf\u67fb\u696d\u52d9","client_name":"\u56fd\u571f\u4ea4\u901a\u7701\u8fd1\u757f\u5730\u65b9\u6574\u5099\u5c40\u5948\u826f\u56fd\u9053\u4e8b\u52d9\u6240","boring_xml_url":47,"boring_view_url":1,"soilmap_view_url":null,"soiltest_xml_url":0,"soiltest_view_url":0}]}}