{"header":{"xyz":{"source":[],"mosaic":false},"page":4978,"raw":{"soiltest_result":"0","bbox":"57.598333,109.544722,1.933333,163.806111","page":"4978"},"conditions":{"soiltest_result":0,"north":57.598333,"west":109.544722,"south":1.933333,"east":163.806111},"success":true,"message":""},"data":{"meta":{"total":212844,"page":4978,"pages":7095,"count":30},"values":[{"id":171235,"code":"B4KJ201801005-9484","latitude":"35.3119975","longitude":"135.2735675","source_code":"KK028635600400440001","project_name":"\u5e73\u621014\u5e74\u5ea6\u4e0b\u516b\u7530\u5730\u533a\u6b69\u9053\u8a73\u7d30\u8a2d\u8a08\u696d\u52d9","survey_name":"\u5e73\u621014\u5e74\u5ea6\u4e0b\u516b\u7530\u5730\u533a\u6b69\u9053\u8a73\u7d30\u8a2d\u8a08\u696d\u52d9","client_name":"\u56fd\u571f\u4ea4\u901a\u7701\u8fd1\u757f\u5730\u65b9\u6574\u5099\u5c40\u798f\u77e5\u5c71\u5de5\u4e8b\u4e8b\u52d9\u6240","boring_xml_url":47,"boring_view_url":1,"soilmap_view_url":null,"soiltest_xml_url":0,"soiltest_view_url":0},{"id":171234,"code":"B4KJ201801005-9483","latitude":"34.6920031","longitude":"136.0539092","source_code":"KK018661310400220002","project_name":"\u540d\u962a\u9053\u8def\u4e94\u6708\u6a4bIC\u767b\u5742\u90e8\u5730\u8cea\u8abf\u67fb\u696d\u52d9","survey_name":"\u540d\u962a\u9053\u8def\u4e94\u6708\u6a4bIC\u767b\u5742\u90e8\u5730\u8cea\u8abf\u67fb\u696d\u52d9","client_name":"\u56fd\u571f\u4ea4\u901a\u7701\u8fd1\u757f\u5730\u65b9\u6574\u5099\u5c40\u5948\u826f\u56fd\u9053\u5de5\u4e8b\u4e8b\u52d9\u6240","boring_xml_url":47,"boring_view_url":1,"soilmap_view_url":null,"soiltest_xml_url":0,"soiltest_view_url":0},{"id":171233,"code":"B4KJ201801005-9482","latitude":"34.6924475","longitude":"136.0543258","source_code":"KK018661310400220001","project_name":"\u540d\u962a\u9053\u8def\u4e94\u6708\u6a4bIC\u767b\u5742\u90e8\u5730\u8cea\u8abf\u67fb\u696d\u52d9","survey_name":"\u540d\u962a\u9053\u8def\u4e94\u6708\u6a4bIC\u767b\u5742\u90e8\u5730\u8cea\u8abf\u67fb\u696d\u52d9","client_name":"\u56fd\u571f\u4ea4\u901a\u7701\u8fd1\u757f\u5730\u65b9\u6574\u5099\u5c40\u5948\u826f\u56fd\u9053\u5de5\u4e8b\u4e8b\u52d9\u6240","boring_xml_url":47,"boring_view_url":1,"soilmap_view_url":null,"soiltest_xml_url":0,"soiltest_view_url":0},{"id":171232,"code":"B4KJ201801005-9481","latitude":"34.7725","longitude":"134.5722","source_code":"KK018651310400300026","project_name":"","survey_name":"\u6d5c\u7530\u5730\u533a\u5730\u8cea\u8abf\u67fb\u696d\u52d9","client_name":"\u56fd\u571f\u4ea4\u901a\u7701\u8fd1\u757f\u5730\u65b9\u6574\u5099\u5c40\u59eb\u8def\u5de5\u4e8b\u4e8b\u52d9\u6240","boring_xml_url":47,"boring_view_url":1,"soilmap_view_url":null,"soiltest_xml_url":0,"soiltest_view_url":0},{"id":171231,"code":"B4KJ201801005-9480","latitude":"34.7708","longitude":"134.5717","source_code":"KK018651310400300025","project_name":"","survey_name":"\u6d5c\u7530\u5730\u533a\u5730\u8cea\u8abf\u67fb\u696d\u52d9","client_name":"\u56fd\u571f\u4ea4\u901a\u7701\u8fd1\u757f\u5730\u65b9\u6574\u5099\u5c40\u59eb\u8def\u5de5\u4e8b\u4e8b\u52d9\u6240","boring_xml_url":47,"boring_view_url":1,"soilmap_view_url":null,"soiltest_xml_url":0,"soiltest_view_url":0},{"id":171230,"code":"B4KJ201801005-9479","latitude":"34.776265","longitude":"134.5733697","source_code":"KK018651310400300024","project_name":"","survey_name":"\u6d5c\u7530\u5730\u533a\u5730\u8cea\u8abf\u67fb\u696d\u52d9","client_name":"\u56fd\u571f\u4ea4\u901a\u7701\u8fd1\u757f\u5730\u65b9\u6574\u5099\u5c40\u59eb\u8def\u5de5\u4e8b\u4e8b\u52d9\u6240","boring_xml_url":47,"boring_view_url":1,"soilmap_view_url":null,"soiltest_xml_url":0,"soiltest_view_url":0},{"id":171229,"code":"B4KJ201801005-9478","latitude":"34.7759872","longitude":"134.5730922","source_code":"KK018651310400300023","project_name":"","survey_name":"\u6d5c\u7530\u5730\u533a\u5730\u8cea\u8abf\u67fb\u696d\u52d9","client_name":"\u56fd\u571f\u4ea4\u901a\u7701\u8fd1\u757f\u5730\u65b9\u6574\u5099\u5c40\u59eb\u8def\u5de5\u4e8b\u4e8b\u52d9\u6240","boring_xml_url":47,"boring_view_url":1,"soilmap_view_url":null,"soiltest_xml_url":0,"soiltest_view_url":0},{"id":171228,"code":"B4KJ201801005-9477","latitude":"34.7756","longitude":"134.5731","source_code":"KK018651310400300022","project_name":"","survey_name":"\u6d5c\u7530\u5730\u533a\u5730\u8cea\u8abf\u67fb\u696d\u52d9","client_name":"\u56fd\u571f\u4ea4\u901a\u7701\u8fd1\u757f\u5730\u65b9\u6574\u5099\u5c40\u59eb\u8def\u5de5\u4e8b\u4e8b\u52d9\u6240","boring_xml_url":47,"boring_view_url":1,"soilmap_view_url":null,"soiltest_xml_url":0,"soiltest_view_url":0},{"id":171227,"code":"B4KJ201801005-9476","latitude":"34.7744","longitude":"134.5725","source_code":"KK018651310400300021","project_name":"","survey_name":"\u6d5c\u7530\u5730\u533a\u5730\u8cea\u8abf\u67fb\u696d\u52d9","client_name":"\u56fd\u571f\u4ea4\u901a\u7701\u8fd1\u757f\u5730\u65b9\u6574\u5099\u5c40\u59eb\u8def\u5de5\u4e8b\u4e8b\u52d9\u6240","boring_xml_url":47,"boring_view_url":1,"soilmap_view_url":null,"soiltest_xml_url":0,"soiltest_view_url":0},{"id":171226,"code":"B4KJ201801005-9475","latitude":"34.7737653","longitude":"134.5719811","source_code":"KK018651310400300020","project_name":"","survey_name":"\u6d5c\u7530\u5730\u533a\u5730\u8cea\u8abf\u67fb\u696d\u52d9","client_name":"\u56fd\u571f\u4ea4\u901a\u7701\u8fd1\u757f\u5730\u65b9\u6574\u5099\u5c40\u59eb\u8def\u5de5\u4e8b\u4e8b\u52d9\u6240","boring_xml_url":47,"boring_view_url":1,"soilmap_view_url":null,"soiltest_xml_url":0,"soiltest_view_url":0},{"id":171225,"code":"B4KJ201801005-9474","latitude":"34.7733","longitude":"134.5717","source_code":"KK018651310400300019","project_name":"","survey_name":"\u6d5c\u7530\u5730\u533a\u5730\u8cea\u8abf\u67fb\u696d\u52d9","client_name":"\u56fd\u571f\u4ea4\u901a\u7701\u8fd1\u757f\u5730\u65b9\u6574\u5099\u5c40\u59eb\u8def\u5de5\u4e8b\u4e8b\u52d9\u6240","boring_xml_url":47,"boring_view_url":1,"soilmap_view_url":null,"soiltest_xml_url":0,"soiltest_view_url":0},{"id":171224,"code":"B4KJ201801005-9473","latitude":"34.7719","longitude":"134.5714","source_code":"KK018651310400300018","project_name":"","survey_name":"\u6d5c\u7530\u5730\u533a\u5730\u8cea\u8abf\u67fb\u696d\u52d9","client_name":"\u56fd\u571f\u4ea4\u901a\u7701\u8fd1\u757f\u5730\u65b9\u6574\u5099\u5c40\u59eb\u8def\u5de5\u4e8b\u4e8b\u52d9\u6240","boring_xml_url":47,"boring_view_url":1,"soilmap_view_url":null,"soiltest_xml_url":0,"soiltest_view_url":0},{"id":171223,"code":"B4KJ201801005-9472","latitude":"34.7709878","longitude":"134.5714258","source_code":"KK018651310400300017","project_name":"","survey_name":"\u6d5c\u7530\u5730\u533a\u5730\u8cea\u8abf\u67fb\u696d\u52d9","client_name":"\u56fd\u571f\u4ea4\u901a\u7701\u8fd1\u757f\u5730\u65b9\u6574\u5099\u5c40\u59eb\u8def\u5de5\u4e8b\u4e8b\u52d9\u6240","boring_xml_url":47,"boring_view_url":1,"soilmap_view_url":null,"soiltest_xml_url":0,"soiltest_view_url":0},{"id":171222,"code":"B4KJ201801005-9471","latitude":"34.7698767","longitude":"134.5711481","source_code":"KK018651310400300016","project_name":"","survey_name":"\u6d5c\u7530\u5730\u533a\u5730\u8cea\u8abf\u67fb\u696d\u52d9","client_name":"\u56fd\u571f\u4ea4\u901a\u7701\u8fd1\u757f\u5730\u65b9\u6574\u5099\u5c40\u59eb\u8def\u5de5\u4e8b\u4e8b\u52d9\u6240","boring_xml_url":47,"boring_view_url":1,"soilmap_view_url":null,"soiltest_xml_url":0,"soiltest_view_url":0},{"id":171221,"code":"B4KJ201801005-9470","latitude":"34.7690436","longitude":"134.5711481","source_code":"KK018651310400300015","project_name":"","survey_name":"\u6d5c\u7530\u5730\u533a\u5730\u8cea\u8abf\u67fb\u696d\u52d9","client_name":"\u56fd\u571f\u4ea4\u901a\u7701\u8fd1\u757f\u5730\u65b9\u6574\u5099\u5c40\u59eb\u8def\u5de5\u4e8b\u4e8b\u52d9\u6240","boring_xml_url":47,"boring_view_url":1,"soilmap_view_url":null,"soiltest_xml_url":0,"soiltest_view_url":0},{"id":171220,"code":"B4KJ201801005-9469","latitude":"34.7739","longitude":"134.5725","source_code":"KK018651310400300014","project_name":"","survey_name":"\u6d5c\u7530\u5730\u533a\u5730\u8cea\u8abf\u67fb\u696d\u52d9","client_name":"\u56fd\u571f\u4ea4\u901a\u7701\u8fd1\u757f\u5730\u65b9\u6574\u5099\u5c40\u59eb\u8def\u5de5\u4e8b\u4e8b\u52d9\u6240","boring_xml_url":47,"boring_view_url":1,"soilmap_view_url":null,"soiltest_xml_url":0,"soiltest_view_url":0},{"id":171219,"code":"B4KJ201801005-9468","latitude":"34.7733","longitude":"134.5722","source_code":"KK018651310400300013","project_name":"","survey_name":"\u6d5c\u7530\u5730\u533a\u5730\u8cea\u8abf\u67fb\u696d\u52d9","client_name":"\u56fd\u571f\u4ea4\u901a\u7701\u8fd1\u757f\u5730\u65b9\u6574\u5099\u5c40\u59eb\u8def\u5de5\u4e8b\u4e8b\u52d9\u6240","boring_xml_url":47,"boring_view_url":1,"soilmap_view_url":null,"soiltest_xml_url":0,"soiltest_view_url":0},{"id":171218,"code":"B4KJ201801005-9467","latitude":"34.7689","longitude":"134.5717","source_code":"KK018651310400300012","project_name":"","survey_name":"\u6d5c\u7530\u5730\u533a\u5730\u8cea\u8abf\u67fb\u696d\u52d9","client_name":"\u56fd\u571f\u4ea4\u901a\u7701\u8fd1\u757f\u5730\u65b9\u6574\u5099\u5c40\u59eb\u8def\u5de5\u4e8b\u4e8b\u52d9\u6240","boring_xml_url":47,"boring_view_url":1,"soilmap_view_url":null,"soiltest_xml_url":0,"soiltest_view_url":0},{"id":171217,"code":"B4KJ201801005-9466","latitude":"34.7753","longitude":"134.5736","source_code":"KK018651310400300011","project_name":"","survey_name":"\u6d5c\u7530\u5730\u533a\u5730\u8cea\u8abf\u67fb\u696d\u52d9","client_name":"\u56fd\u571f\u4ea4\u901a\u7701\u8fd1\u757f\u5730\u65b9\u6574\u5099\u5c40\u59eb\u8def\u5de5\u4e8b\u4e8b\u52d9\u6240","boring_xml_url":47,"boring_view_url":1,"soilmap_view_url":null,"soiltest_xml_url":0,"soiltest_view_url":0},{"id":171216,"code":"B4KJ201801005-9465","latitude":"34.7747","longitude":"134.5733","source_code":"KK018651310400300010","project_name":"","survey_name":"\u6d5c\u7530\u5730\u533a\u5730\u8cea\u8abf\u67fb\u696d\u52d9","client_name":"\u56fd\u571f\u4ea4\u901a\u7701\u8fd1\u757f\u5730\u65b9\u6574\u5099\u5c40\u59eb\u8def\u5de5\u4e8b\u4e8b\u52d9\u6240","boring_xml_url":47,"boring_view_url":1,"soilmap_view_url":null,"soiltest_xml_url":0,"soiltest_view_url":0},{"id":171215,"code":"B4KJ201801005-9464","latitude":"34.7739","longitude":"134.5731","source_code":"KK018651310400300009","project_name":"","survey_name":"\u6d5c\u7530\u5730\u533a\u5730\u8cea\u8abf\u67fb\u696d\u52d9","client_name":"\u56fd\u571f\u4ea4\u901a\u7701\u8fd1\u757f\u5730\u65b9\u6574\u5099\u5c40\u59eb\u8def\u5de5\u4e8b\u4e8b\u52d9\u6240","boring_xml_url":47,"boring_view_url":1,"soilmap_view_url":null,"soiltest_xml_url":0,"soiltest_view_url":0},{"id":171214,"code":"B4KJ201801005-9463","latitude":"34.7733","longitude":"134.5728","source_code":"KK018651310400300008","project_name":"","survey_name":"\u6d5c\u7530\u5730\u533a\u5730\u8cea\u8abf\u67fb\u696d\u52d9","client_name":"\u56fd\u571f\u4ea4\u901a\u7701\u8fd1\u757f\u5730\u65b9\u6574\u5099\u5c40\u59eb\u8def\u5de5\u4e8b\u4e8b\u52d9\u6240","boring_xml_url":47,"boring_view_url":1,"soilmap_view_url":null,"soiltest_xml_url":0,"soiltest_view_url":0},{"id":171213,"code":"B4KJ201801005-9462","latitude":"34.7761","longitude":"134.5736","source_code":"KK018651310400300007","project_name":"","survey_name":"\u6d5c\u7530\u5730\u533a\u5730\u8cea\u8abf\u67fb\u696d\u52d9","client_name":"\u56fd\u571f\u4ea4\u901a\u7701\u8fd1\u757f\u5730\u65b9\u6574\u5099\u5c40\u59eb\u8def\u5de5\u4e8b\u4e8b\u52d9\u6240","boring_xml_url":47,"boring_view_url":1,"soilmap_view_url":null,"soiltest_xml_url":0,"soiltest_view_url":0},{"id":171212,"code":"B4KJ201801005-9461","latitude":"34.7747","longitude":"134.5733","source_code":"KK018651310400300006","project_name":"","survey_name":"\u6d5c\u7530\u5730\u533a\u5730\u8cea\u8abf\u67fb\u696d\u52d9","client_name":"\u56fd\u571f\u4ea4\u901a\u7701\u8fd1\u757f\u5730\u65b9\u6574\u5099\u5c40\u59eb\u8def\u5de5\u4e8b\u4e8b\u52d9\u6240","boring_xml_url":47,"boring_view_url":1,"soilmap_view_url":null,"soiltest_xml_url":0,"soiltest_view_url":0},{"id":171211,"code":"B4KJ201801005-9460","latitude":"34.7733","longitude":"134.5728","source_code":"KK018651310400300005","project_name":"","survey_name":"\u6d5c\u7530\u5730\u533a\u5730\u8cea\u8abf\u67fb\u696d\u52d9","client_name":"\u56fd\u571f\u4ea4\u901a\u7701\u8fd1\u757f\u5730\u65b9\u6574\u5099\u5c40\u59eb\u8def\u5de5\u4e8b\u4e8b\u52d9\u6240","boring_xml_url":47,"boring_view_url":1,"soilmap_view_url":null,"soiltest_xml_url":0,"soiltest_view_url":0},{"id":171210,"code":"B4KJ201801005-9459","latitude":"34.7728","longitude":"134.5725","source_code":"KK018651310400300004","project_name":"","survey_name":"\u6d5c\u7530\u5730\u533a\u5730\u8cea\u8abf\u67fb\u696d\u52d9","client_name":"\u56fd\u571f\u4ea4\u901a\u7701\u8fd1\u757f\u5730\u65b9\u6574\u5099\u5c40\u59eb\u8def\u5de5\u4e8b\u4e8b\u52d9\u6240","boring_xml_url":47,"boring_view_url":1,"soilmap_view_url":null,"soiltest_xml_url":0,"soiltest_view_url":0},{"id":171209,"code":"B4KJ201801005-9458","latitude":"34.771169","longitude":"134.571836","source_code":"KK018651310400300003","project_name":"","survey_name":"\u6d5c\u7530\u5730\u533a\u5730\u8cea\u8abf\u67fb\u696d\u52d9","client_name":"\u56fd\u571f\u4ea4\u901a\u7701\u8fd1\u757f\u5730\u65b9\u6574\u5099\u5c40\u59eb\u8def\u5de5\u4e8b\u4e8b\u52d9\u6240","boring_xml_url":47,"boring_view_url":1,"soilmap_view_url":null,"soiltest_xml_url":0,"soiltest_view_url":0},{"id":171208,"code":"B4KJ201801005-9457","latitude":"34.7697","longitude":"134.5714","source_code":"KK018651310400300002","project_name":"","survey_name":"\u6d5c\u7530\u5730\u533a\u5730\u8cea\u8abf\u67fb\u696d\u52d9","client_name":"\u56fd\u571f\u4ea4\u901a\u7701\u8fd1\u757f\u5730\u65b9\u6574\u5099\u5c40\u59eb\u8def\u5de5\u4e8b\u4e8b\u52d9\u6240","boring_xml_url":47,"boring_view_url":1,"soilmap_view_url":null,"soiltest_xml_url":0,"soiltest_view_url":0},{"id":171207,"code":"B4KJ201801005-9456","latitude":"34.7692","longitude":"134.5714","source_code":"KK018651310400300001","project_name":"","survey_name":"\u6d5c\u7530\u5730\u533a\u5730\u8cea\u8abf\u67fb\u696d\u52d9","client_name":"\u56fd\u571f\u4ea4\u901a\u7701\u8fd1\u757f\u5730\u65b9\u6574\u5099\u5c40\u59eb\u8def\u5de5\u4e8b\u4e8b\u52d9\u6240","boring_xml_url":47,"boring_view_url":1,"soilmap_view_url":null,"soiltest_xml_url":0,"soiltest_view_url":0},{"id":171206,"code":"B4KJ201801005-9455","latitude":"34.835822","longitude":"136.284081","source_code":"CB85655020320006","project_name":"","survey_name":"\u5e73\u621016\u5e74\u5ea6  25\u53f7\u95a2\u5730\u533a\u5730\u8cea\u8abf\u67fb","client_name":"\u56fd\u571f\u4ea4\u901a\u7701\u4e2d\u90e8\u5730\u65b9\u6574\u5099\u5c40\u5317\u52e2\u56fd\u9053\u4e8b\u52d9\u6240","boring_xml_url":43,"boring_view_url":1,"soilmap_view_url":null,"soiltest_xml_url":0,"soiltest_view_url":0}]}}