{"header":{"xyz":{"source":[],"mosaic":false},"page":4983,"raw":{"soiltest_result":"0","bbox":"57.598333,109.544722,1.933333,163.806111","page":"4983"},"conditions":{"soiltest_result":0,"north":57.598333,"west":109.544722,"south":1.933333,"east":163.806111},"success":true,"message":""},"data":{"meta":{"total":212844,"page":4983,"pages":7095,"count":30},"values":[{"id":171085,"code":"B4KJ201801005-9334","latitude":"36.1648917","longitude":"137.2325578","source_code":"CB54371198024","project_name":"","survey_name":"\u5e73\u62107\u5e74\u5ea6\u9ad8\u5c71\u6e05\u898b\u9053\u8def\u9ad8\u5c71\u5730\u533a\u5730\u8cea\u8abf\u67fb","client_name":"\u56fd\u571f\u4ea4\u901a\u7701\u4e2d\u90e8\u5730\u65b9\u6574\u5099\u5c40\u9ad8\u5c71\u56fd\u9053\u4e8b\u52d9\u6240","boring_xml_url":40,"boring_view_url":1,"soilmap_view_url":null,"soiltest_xml_url":0,"soiltest_view_url":0},{"id":171084,"code":"B4KJ201801005-9333","latitude":"36.1643639","longitude":"137.2340578","source_code":"CB54371198023","project_name":"","survey_name":"\u5e73\u62107\u5e74\u5ea6\u9ad8\u5c71\u6e05\u898b\u9053\u8def\u9ad8\u5c71\u5730\u533a\u5730\u8cea\u8abf\u67fb","client_name":"\u56fd\u571f\u4ea4\u901a\u7701\u4e2d\u90e8\u5730\u65b9\u6574\u5099\u5c40\u9ad8\u5c71\u56fd\u9053\u4e8b\u52d9\u6240","boring_xml_url":40,"boring_view_url":1,"soilmap_view_url":null,"soiltest_xml_url":0,"soiltest_view_url":0},{"id":171083,"code":"B4KJ201801005-9332","latitude":"36.1690578","longitude":"137.2289192","source_code":"CB54371198022","project_name":"","survey_name":"\u5e73\u62107\u5e74\u5ea6\u9ad8\u5c71\u6e05\u898b\u9053\u8def\u9ad8\u5c71\u5730\u533a\u5730\u8cea\u8abf\u67fb","client_name":"\u56fd\u571f\u4ea4\u901a\u7701\u4e2d\u90e8\u5730\u65b9\u6574\u5099\u5c40\u9ad8\u5c71\u56fd\u9053\u4e8b\u52d9\u6240","boring_xml_url":40,"boring_view_url":1,"soilmap_view_url":null,"soiltest_xml_url":0,"soiltest_view_url":0},{"id":171082,"code":"B4KJ201801005-9331","latitude":"36.1648914","longitude":"137.2285025","source_code":"CB54371198021","project_name":"","survey_name":"\u5e73\u62107\u5e74\u5ea6\u9ad8\u5c71\u6e05\u898b\u9053\u8def\u9ad8\u5c71\u5730\u533a\u5730\u8cea\u8abf\u67fb","client_name":"\u56fd\u571f\u4ea4\u901a\u7701\u4e2d\u90e8\u5730\u65b9\u6574\u5099\u5c40\u9ad8\u5c71\u56fd\u9053\u4e8b\u52d9\u6240","boring_xml_url":40,"boring_view_url":1,"soilmap_view_url":null,"soiltest_xml_url":0,"soiltest_view_url":0},{"id":171081,"code":"B4KJ201801005-9330","latitude":"36.1685856","longitude":"137.2289192","source_code":"CB54371198020","project_name":"","survey_name":"\u5e73\u62107\u5e74\u5ea6\u9ad8\u5c71\u6e05\u898b\u9053\u8def\u9ad8\u5c71\u5730\u533a\u5730\u8cea\u8abf\u67fb","client_name":"\u56fd\u571f\u4ea4\u901a\u7701\u4e2d\u90e8\u5730\u65b9\u6574\u5099\u5c40\u9ad8\u5c71\u56fd\u9053\u4e8b\u52d9\u6240","boring_xml_url":40,"boring_view_url":1,"soilmap_view_url":null,"soiltest_xml_url":0,"soiltest_view_url":0},{"id":171080,"code":"B4KJ201801005-9329","latitude":"36.1688911","longitude":"137.2275303","source_code":"CB54371198019","project_name":"","survey_name":"\u5e73\u62107\u5e74\u5ea6\u9ad8\u5c71\u6e05\u898b\u9053\u8def\u9ad8\u5c71\u5730\u533a\u5730\u8cea\u8abf\u67fb","client_name":"\u56fd\u571f\u4ea4\u901a\u7701\u4e2d\u90e8\u5730\u65b9\u6574\u5099\u5c40\u9ad8\u5c71\u56fd\u9053\u4e8b\u52d9\u6240","boring_xml_url":40,"boring_view_url":1,"soilmap_view_url":null,"soiltest_xml_url":0,"soiltest_view_url":0},{"id":171079,"code":"B4KJ201801005-9328","latitude":"36.1686967","longitude":"137.2271136","source_code":"CB54371198018","project_name":"","survey_name":"\u5e73\u62107\u5e74\u5ea6\u9ad8\u5c71\u6e05\u898b\u9053\u8def\u9ad8\u5c71\u5730\u533a\u5730\u8cea\u8abf\u67fb","client_name":"\u56fd\u571f\u4ea4\u901a\u7701\u4e2d\u90e8\u5730\u65b9\u6574\u5099\u5c40\u9ad8\u5c71\u56fd\u9053\u4e8b\u52d9\u6240","boring_xml_url":40,"boring_view_url":1,"soilmap_view_url":null,"soiltest_xml_url":0,"soiltest_view_url":0},{"id":171078,"code":"B4KJ201801005-9327","latitude":"36.1670858","longitude":"137.2305856","source_code":"CB54371198017","project_name":"","survey_name":"\u5e73\u62107\u5e74\u5ea6\u9ad8\u5c71\u6e05\u898b\u9053\u8def\u9ad8\u5c71\u5730\u533a\u5730\u8cea\u8abf\u67fb","client_name":"\u56fd\u571f\u4ea4\u901a\u7701\u4e2d\u90e8\u5730\u65b9\u6574\u5099\u5c40\u9ad8\u5c71\u56fd\u9053\u4e8b\u52d9\u6240","boring_xml_url":40,"boring_view_url":1,"soilmap_view_url":null,"soiltest_xml_url":0,"soiltest_view_url":0},{"id":171077,"code":"B4KJ201801005-9326","latitude":"36.1665858","longitude":"137.2303078","source_code":"CB54371198016","project_name":"","survey_name":"\u5e73\u62107\u5e74\u5ea6\u9ad8\u5c71\u6e05\u898b\u9053\u8def\u9ad8\u5c71\u5730\u533a\u5730\u8cea\u8abf\u67fb","client_name":"\u56fd\u571f\u4ea4\u901a\u7701\u4e2d\u90e8\u5730\u65b9\u6574\u5099\u5c40\u9ad8\u5c71\u56fd\u9053\u4e8b\u52d9\u6240","boring_xml_url":40,"boring_view_url":1,"soilmap_view_url":null,"soiltest_xml_url":0,"soiltest_view_url":0},{"id":171076,"code":"B4KJ201801005-9325","latitude":"36.1663358","longitude":"137.2302247","source_code":"CB54371198015","project_name":"","survey_name":"\u5e73\u62107\u5e74\u5ea6\u9ad8\u5c71\u6e05\u898b\u9053\u8def\u9ad8\u5c71\u5730\u533a\u5730\u8cea\u8abf\u67fb","client_name":"\u56fd\u571f\u4ea4\u901a\u7701\u4e2d\u90e8\u5730\u65b9\u6574\u5099\u5c40\u9ad8\u5c71\u56fd\u9053\u4e8b\u52d9\u6240","boring_xml_url":40,"boring_view_url":1,"soilmap_view_url":null,"soiltest_xml_url":0,"soiltest_view_url":0},{"id":171075,"code":"B4KJ201801005-9324","latitude":"36.1657525","longitude":"137.2297525","source_code":"CB54371198014","project_name":"","survey_name":"\u5e73\u62107\u5e74\u5ea6\u9ad8\u5c71\u6e05\u898b\u9053\u8def\u9ad8\u5c71\u5730\u533a\u5730\u8cea\u8abf\u67fb","client_name":"\u56fd\u571f\u4ea4\u901a\u7701\u4e2d\u90e8\u5730\u65b9\u6574\u5099\u5c40\u9ad8\u5c71\u56fd\u9053\u4e8b\u52d9\u6240","boring_xml_url":40,"boring_view_url":1,"soilmap_view_url":null,"soiltest_xml_url":0,"soiltest_view_url":0},{"id":171074,"code":"B4KJ201801005-9323","latitude":"36.1659747","longitude":"137.2286692","source_code":"CB54371198013","project_name":"","survey_name":"\u5e73\u62107\u5e74\u5ea6\u9ad8\u5c71\u6e05\u898b\u9053\u8def\u9ad8\u5c71\u5730\u533a\u5730\u8cea\u8abf\u67fb","client_name":"\u56fd\u571f\u4ea4\u901a\u7701\u4e2d\u90e8\u5730\u65b9\u6574\u5099\u5c40\u9ad8\u5c71\u56fd\u9053\u4e8b\u52d9\u6240","boring_xml_url":40,"boring_view_url":1,"soilmap_view_url":null,"soiltest_xml_url":0,"soiltest_view_url":0},{"id":171073,"code":"B4KJ201801005-9322","latitude":"36.1671414","longitude":"137.2296136","source_code":"CB54371198012","project_name":"","survey_name":"\u5e73\u62107\u5e74\u5ea6\u9ad8\u5c71\u6e05\u898b\u9053\u8def\u9ad8\u5c71\u5730\u533a\u5730\u8cea\u8abf\u67fb","client_name":"\u56fd\u571f\u4ea4\u901a\u7701\u4e2d\u90e8\u5730\u65b9\u6574\u5099\u5c40\u9ad8\u5c71\u56fd\u9053\u4e8b\u52d9\u6240","boring_xml_url":40,"boring_view_url":1,"soilmap_view_url":null,"soiltest_xml_url":0,"soiltest_view_url":0},{"id":171072,"code":"B4KJ201801005-9321","latitude":"36.1668911","longitude":"137.2270303","source_code":"CB54371198011","project_name":"","survey_name":"\u5e73\u62107\u5e74\u5ea6\u9ad8\u5c71\u6e05\u898b\u9053\u8def\u9ad8\u5c71\u5730\u533a\u5730\u8cea\u8abf\u67fb","client_name":"\u56fd\u571f\u4ea4\u901a\u7701\u4e2d\u90e8\u5730\u65b9\u6574\u5099\u5c40\u9ad8\u5c71\u56fd\u9053\u4e8b\u52d9\u6240","boring_xml_url":40,"boring_view_url":1,"soilmap_view_url":null,"soiltest_xml_url":0,"soiltest_view_url":0},{"id":171071,"code":"B4KJ201801005-9320","latitude":"36.1668911","longitude":"137.2270303","source_code":"CB54371198010","project_name":"","survey_name":"\u5e73\u62107\u5e74\u5ea6\u9ad8\u5c71\u6e05\u898b\u9053\u8def\u9ad8\u5c71\u5730\u533a\u5730\u8cea\u8abf\u67fb","client_name":"\u56fd\u571f\u4ea4\u901a\u7701\u4e2d\u90e8\u5730\u65b9\u6574\u5099\u5c40\u9ad8\u5c71\u56fd\u9053\u4e8b\u52d9\u6240","boring_xml_url":40,"boring_view_url":1,"soilmap_view_url":null,"soiltest_xml_url":0,"soiltest_view_url":0},{"id":171070,"code":"B4KJ201801005-9319","latitude":"36.1652247","longitude":"137.2292247","source_code":"CB54371198009","project_name":"","survey_name":"\u5e73\u62107\u5e74\u5ea6\u9ad8\u5c71\u6e05\u898b\u9053\u8def\u9ad8\u5c71\u5730\u533a\u5730\u8cea\u8abf\u67fb","client_name":"\u56fd\u571f\u4ea4\u901a\u7701\u4e2d\u90e8\u5730\u65b9\u6574\u5099\u5c40\u9ad8\u5c71\u56fd\u9053\u4e8b\u52d9\u6240","boring_xml_url":40,"boring_view_url":1,"soilmap_view_url":null,"soiltest_xml_url":0,"soiltest_view_url":0},{"id":171069,"code":"B4KJ201801005-9318","latitude":"36.1656692","longitude":"137.2295858","source_code":"CB54371198008","project_name":"","survey_name":"\u5e73\u62107\u5e74\u5ea6\u9ad8\u5c71\u6e05\u898b\u9053\u8def\u9ad8\u5c71\u5730\u533a\u5730\u8cea\u8abf\u67fb","client_name":"\u56fd\u571f\u4ea4\u901a\u7701\u4e2d\u90e8\u5730\u65b9\u6574\u5099\u5c40\u9ad8\u5c71\u56fd\u9053\u4e8b\u52d9\u6240","boring_xml_url":40,"boring_view_url":1,"soilmap_view_url":null,"soiltest_xml_url":0,"soiltest_view_url":0},{"id":171068,"code":"B4KJ201801005-9317","latitude":"36.1660303","longitude":"137.2294469","source_code":"CB54371198007","project_name":"","survey_name":"\u5e73\u62107\u5e74\u5ea6\u9ad8\u5c71\u6e05\u898b\u9053\u8def\u9ad8\u5c71\u5730\u533a\u5730\u8cea\u8abf\u67fb","client_name":"\u56fd\u571f\u4ea4\u901a\u7701\u4e2d\u90e8\u5730\u65b9\u6574\u5099\u5c40\u9ad8\u5c71\u56fd\u9053\u4e8b\u52d9\u6240","boring_xml_url":40,"boring_view_url":1,"soilmap_view_url":null,"soiltest_xml_url":0,"soiltest_view_url":0},{"id":171067,"code":"B4KJ201801005-9316","latitude":"36.1662803","longitude":"137.2289747","source_code":"CB54371198006","project_name":"","survey_name":"\u5e73\u62107\u5e74\u5ea6\u9ad8\u5c71\u6e05\u898b\u9053\u8def\u9ad8\u5c71\u5730\u533a\u5730\u8cea\u8abf\u67fb","client_name":"\u56fd\u571f\u4ea4\u901a\u7701\u4e2d\u90e8\u5730\u65b9\u6574\u5099\u5c40\u9ad8\u5c71\u56fd\u9053\u4e8b\u52d9\u6240","boring_xml_url":40,"boring_view_url":1,"soilmap_view_url":null,"soiltest_xml_url":0,"soiltest_view_url":0},{"id":171066,"code":"B4KJ201801005-9315","latitude":"36.1665858","longitude":"137.2298081","source_code":"CB54371198005","project_name":"","survey_name":"\u5e73\u62107\u5e74\u5ea6\u9ad8\u5c71\u6e05\u898b\u9053\u8def\u9ad8\u5c71\u5730\u533a\u5730\u8cea\u8abf\u67fb","client_name":"\u56fd\u571f\u4ea4\u901a\u7701\u4e2d\u90e8\u5730\u65b9\u6574\u5099\u5c40\u9ad8\u5c71\u56fd\u9053\u4e8b\u52d9\u6240","boring_xml_url":40,"boring_view_url":1,"soilmap_view_url":null,"soiltest_xml_url":0,"soiltest_view_url":0},{"id":171065,"code":"B4KJ201801005-9314","latitude":"36.1669747","longitude":"137.2297525","source_code":"CB54371198004","project_name":"","survey_name":"\u5e73\u62107\u5e74\u5ea6\u9ad8\u5c71\u6e05\u898b\u9053\u8def\u9ad8\u5c71\u5730\u533a\u5730\u8cea\u8abf\u67fb","client_name":"\u56fd\u571f\u4ea4\u901a\u7701\u4e2d\u90e8\u5730\u65b9\u6574\u5099\u5c40\u9ad8\u5c71\u56fd\u9053\u4e8b\u52d9\u6240","boring_xml_url":40,"boring_view_url":1,"soilmap_view_url":null,"soiltest_xml_url":0,"soiltest_view_url":0},{"id":171064,"code":"B4KJ201801005-9313","latitude":"36.1672247","longitude":"137.2303633","source_code":"CB54371198003","project_name":"","survey_name":"\u5e73\u62107\u5e74\u5ea6\u9ad8\u5c71\u6e05\u898b\u9053\u8def\u9ad8\u5c71\u5730\u533a\u5730\u8cea\u8abf\u67fb","client_name":"\u56fd\u571f\u4ea4\u901a\u7701\u4e2d\u90e8\u5730\u65b9\u6574\u5099\u5c40\u9ad8\u5c71\u56fd\u9053\u4e8b\u52d9\u6240","boring_xml_url":40,"boring_view_url":1,"soilmap_view_url":null,"soiltest_xml_url":0,"soiltest_view_url":0},{"id":171063,"code":"B4KJ201801005-9312","latitude":"36.1673914","longitude":"137.2301689","source_code":"CB54371198002","project_name":"","survey_name":"\u5e73\u62107\u5e74\u5ea6\u9ad8\u5c71\u6e05\u898b\u9053\u8def\u9ad8\u5c71\u5730\u533a\u5730\u8cea\u8abf\u67fb","client_name":"\u56fd\u571f\u4ea4\u901a\u7701\u4e2d\u90e8\u5730\u65b9\u6574\u5099\u5c40\u9ad8\u5c71\u56fd\u9053\u4e8b\u52d9\u6240","boring_xml_url":40,"boring_view_url":1,"soilmap_view_url":null,"soiltest_xml_url":0,"soiltest_view_url":0},{"id":171062,"code":"B4KJ201801005-9311","latitude":"36.1674192","longitude":"137.2309189","source_code":"CB54371198001","project_name":"","survey_name":"\u5e73\u62107\u5e74\u5ea6\u9ad8\u5c71\u6e05\u898b\u9053\u8def\u9ad8\u5c71\u5730\u533a\u5730\u8cea\u8abf\u67fb","client_name":"\u56fd\u571f\u4ea4\u901a\u7701\u4e2d\u90e8\u5730\u65b9\u6574\u5099\u5c40\u9ad8\u5c71\u56fd\u9053\u4e8b\u52d9\u6240","boring_xml_url":40,"boring_view_url":1,"soilmap_view_url":null,"soiltest_xml_url":0,"soiltest_view_url":0},{"id":171061,"code":"B4KJ201801005-9310","latitude":"36.1599481","longitude":"137.2433625","source_code":"CB54371189003","project_name":"","survey_name":"\u5e73\u62107\u5e74\u5ea6\u9ad8\u5c71\u6e05\u898b\u9053\u8def\u9ad8\u5c71\u5730\u533a\u5730\u8cea\u8abf\u67fb","client_name":"\u56fd\u571f\u4ea4\u901a\u7701\u4e2d\u90e8\u5730\u65b9\u6574\u5099\u5c40\u9ad8\u5c71\u56fd\u9053\u4e8b\u52d9\u6240","boring_xml_url":40,"boring_view_url":1,"soilmap_view_url":null,"soiltest_xml_url":0,"soiltest_view_url":0},{"id":171060,"code":"B4KJ201801005-9309","latitude":"36.1593647","longitude":"137.2436403","source_code":"CB54371189002","project_name":"","survey_name":"\u5e73\u62107\u5e74\u5ea6\u9ad8\u5c71\u6e05\u898b\u9053\u8def\u9ad8\u5c71\u5730\u533a\u5730\u8cea\u8abf\u67fb","client_name":"\u56fd\u571f\u4ea4\u901a\u7701\u4e2d\u90e8\u5730\u65b9\u6574\u5099\u5c40\u9ad8\u5c71\u56fd\u9053\u4e8b\u52d9\u6240","boring_xml_url":40,"boring_view_url":1,"soilmap_view_url":null,"soiltest_xml_url":0,"soiltest_view_url":0},{"id":171059,"code":"B4KJ201801005-9308","latitude":"36.1611144","longitude":"137.2433069","source_code":"CB54371189001","project_name":"","survey_name":"\u5e73\u62105\u5e74\u5ea6\u9ad8\u5c71\u6e05\u898b\u9053\u8def\u7267\u30f6\u6d1e\u5730\u533a\u59162\u4ef6\u5730\u8cea\u8abf\u67fb","client_name":"\u56fd\u571f\u4ea4\u901a\u7701\u4e2d\u90e8\u5730\u65b9\u6574\u5099\u5c40\u9ad8\u5c71\u56fd\u9053\u4e8b\u52d9\u6240","boring_xml_url":40,"boring_view_url":1,"soilmap_view_url":null,"soiltest_xml_url":0,"soiltest_view_url":0},{"id":171058,"code":"B4KJ201801005-9307","latitude":"36.1497539","longitude":"137.2048108","source_code":"CB54371176008","project_name":"","survey_name":"\u5e73\u621012\u5e74\u5ea6 \u9ad8\u5c71\u6e05\u898b\u9053\u8def\u524d\u539f\u5730\u533a\u5730\u8cea\u8abf\u67fb","client_name":"\u56fd\u571f\u4ea4\u901a\u7701\u4e2d\u90e8\u5730\u65b9\u6574\u5099\u5c40\u9ad8\u5c71\u56fd\u9053\u4e8b\u52d9\u6240","boring_xml_url":40,"boring_view_url":1,"soilmap_view_url":null,"soiltest_xml_url":0,"soiltest_view_url":0},{"id":171057,"code":"B4KJ201801005-9306","latitude":"36.1463372","longitude":"137.1972006","source_code":"CB54371176007","project_name":"","survey_name":"\u5e73\u621012\u5e74\u5ea6 \u9ad8\u5c71\u6e05\u898b\u9053\u8def\u524d\u539f\u5730\u533a\u5730\u8cea\u8abf\u67fb","client_name":"\u56fd\u571f\u4ea4\u901a\u7701\u4e2d\u90e8\u5730\u65b9\u6574\u5099\u5c40\u9ad8\u5c71\u56fd\u9053\u4e8b\u52d9\u6240","boring_xml_url":40,"boring_view_url":1,"soilmap_view_url":null,"soiltest_xml_url":0,"soiltest_view_url":0},{"id":171056,"code":"B4KJ201801005-9305","latitude":"36.1439208","longitude":"137.1930897","source_code":"CB54371165012","project_name":"","survey_name":"\u5e73\u621012\u5e74\u5ea6 \u9ad8\u5c71\u6e05\u898b\u9053\u8def\u524d\u539f\u5730\u533a\u5730\u8cea\u8abf\u67fb","client_name":"\u56fd\u571f\u4ea4\u901a\u7701\u4e2d\u90e8\u5730\u65b9\u6574\u5099\u5c40\u9ad8\u5c71\u56fd\u9053\u4e8b\u52d9\u6240","boring_xml_url":40,"boring_view_url":1,"soilmap_view_url":null,"soiltest_xml_url":0,"soiltest_view_url":0}]}}