{"header":{"xyz":{"source":[],"mosaic":false},"page":4987,"raw":{"soiltest_result":"0","bbox":"57.598333,109.544722,1.933333,163.806111","page":"4987"},"conditions":{"soiltest_result":0,"north":57.598333,"west":109.544722,"south":1.933333,"east":163.806111},"success":true,"message":""},"data":{"meta":{"total":212844,"page":4987,"pages":7095,"count":30},"values":[{"id":170965,"code":"B4KJ201801005-9214","latitude":"35.5826458","longitude":"138.0633411","source_code":"CB53382095008","project_name":"","survey_name":"\u5e73\u62108\u5e74\u5ea6\u5165\u8c37\u5730\u3059\u3079\u308a\u5730\u533a\u5730\u8cea\u8abf\u67fb","client_name":"\u56fd\u571f\u4ea4\u901a\u7701\u4e2d\u90e8\u5730\u65b9\u6574\u5099\u5c40\u5929\u7adc\u5ddd\u4e0a\u6d41\u6cb3\u5ddd\u4e8b\u52d9\u6240","boring_xml_url":40,"boring_view_url":1,"soilmap_view_url":null,"soiltest_xml_url":0,"soiltest_view_url":0},{"id":170964,"code":"B4KJ201801005-9213","latitude":"35.5827014","longitude":"138.0644242","source_code":"CB53382095007","project_name":"","survey_name":"\u5e73\u62108\u5e74\u5ea6\u5165\u8c37\u5730\u3059\u3079\u308a\u5730\u533a\u5730\u8cea\u8abf\u67fb","client_name":"\u56fd\u571f\u4ea4\u901a\u7701\u4e2d\u90e8\u5730\u65b9\u6574\u5099\u5c40\u5929\u7adc\u5ddd\u4e0a\u6d41\u6cb3\u5ddd\u4e8b\u52d9\u6240","boring_xml_url":40,"boring_view_url":1,"soilmap_view_url":null,"soiltest_xml_url":0,"soiltest_view_url":0},{"id":170963,"code":"B4KJ201801005-9212","latitude":"35.5832014","longitude":"138.0650631","source_code":"CB53382095006","project_name":"","survey_name":"\u5e73\u62108\u5e74\u5ea6\u5165\u8c37\u5730\u3059\u3079\u308a\u5730\u533a\u5730\u8cea\u8abf\u67fb","client_name":"\u56fd\u571f\u4ea4\u901a\u7701\u4e2d\u90e8\u5730\u65b9\u6574\u5099\u5c40\u5929\u7adc\u5ddd\u4e0a\u6d41\u6cb3\u5ddd\u4e8b\u52d9\u6240","boring_xml_url":40,"boring_view_url":1,"soilmap_view_url":null,"soiltest_xml_url":0,"soiltest_view_url":0},{"id":170962,"code":"B4KJ201801005-9211","latitude":"35.5842289","longitude":"138.0623689","source_code":"CB53382095005","project_name":"","survey_name":"\u5e73\u62108\u5e74\u5ea6\u5165\u8c37\u5730\u3059\u3079\u308a\u5730\u533a\u5730\u8cea\u8abf\u67fb","client_name":"\u56fd\u571f\u4ea4\u901a\u7701\u4e2d\u90e8\u5730\u65b9\u6574\u5099\u5c40\u5929\u7adc\u5ddd\u4e0a\u6d41\u6cb3\u5ddd\u4e8b\u52d9\u6240","boring_xml_url":40,"boring_view_url":1,"soilmap_view_url":null,"soiltest_xml_url":0,"soiltest_view_url":0},{"id":170961,"code":"B4KJ201801005-9210","latitude":"35.580035","longitude":"138.0647856","source_code":"CB53382095004","project_name":"","survey_name":"\u5e73\u62107\u5e74\u5ea6\u5165\u8c37\u5730\u3059\u3079\u308a\u5730\u533a\u5730\u8cea\u8abf\u67fb","client_name":"\u56fd\u571f\u4ea4\u901a\u7701\u4e2d\u90e8\u5730\u65b9\u6574\u5099\u5c40\u5929\u7adc\u5ddd\u4e0a\u6d41\u6cb3\u5ddd\u4e8b\u52d9\u6240","boring_xml_url":40,"boring_view_url":1,"soilmap_view_url":null,"soiltest_xml_url":0,"soiltest_view_url":0},{"id":170960,"code":"B4KJ201801005-9209","latitude":"35.5820625","longitude":"138.0635911","source_code":"CB53382095003","project_name":"","survey_name":"\u5e73\u62107\u5e74\u5ea6\u5165\u8c37\u5730\u3059\u3079\u308a\u5730\u533a\u5730\u8cea\u8abf\u67fb","client_name":"\u56fd\u571f\u4ea4\u901a\u7701\u4e2d\u90e8\u5730\u65b9\u6574\u5099\u5c40\u5929\u7adc\u5ddd\u4e0a\u6d41\u6cb3\u5ddd\u4e8b\u52d9\u6240","boring_xml_url":40,"boring_view_url":1,"soilmap_view_url":null,"soiltest_xml_url":0,"soiltest_view_url":0},{"id":170959,"code":"B4KJ201801005-9208","latitude":"35.5825347","longitude":"138.0652297","source_code":"CB53382095002","project_name":"","survey_name":"\u5e73\u62107\u5e74\u5ea6\u5165\u8c37\u5730\u3059\u3079\u308a\u5730\u533a\u5730\u8cea\u8abf\u67fb","client_name":"\u56fd\u571f\u4ea4\u901a\u7701\u4e2d\u90e8\u5730\u65b9\u6574\u5099\u5c40\u5929\u7adc\u5ddd\u4e0a\u6d41\u6cb3\u5ddd\u4e8b\u52d9\u6240","boring_xml_url":40,"boring_view_url":1,"soilmap_view_url":null,"soiltest_xml_url":0,"soiltest_view_url":0},{"id":170958,"code":"B4KJ201801005-9207","latitude":"35.58384","longitude":"138.0631467","source_code":"CB53382095001","project_name":"","survey_name":"\u5e73\u62107\u5e74\u5ea6\u5165\u8c37\u5730\u3059\u3079\u308a\u5730\u533a\u5730\u8cea\u8abf\u67fb","client_name":"\u56fd\u571f\u4ea4\u901a\u7701\u4e2d\u90e8\u5730\u65b9\u6574\u5099\u5c40\u5929\u7adc\u5ddd\u4e0a\u6d41\u6cb3\u5ddd\u4e8b\u52d9\u6240","boring_xml_url":40,"boring_view_url":1,"soilmap_view_url":null,"soiltest_xml_url":0,"soiltest_view_url":0},{"id":170957,"code":"B4KJ201801005-9206","latitude":"35.5171522","longitude":"138.0221806","source_code":"CB53382012001","project_name":"","survey_name":"\u6843\u306e\u5e73\u7b2c2\u7802\u9632\u30c0\u30e0\u30dc\u30fc\u30ea\u30f3\u30b0\u8abf\u67fb","client_name":"\u56fd\u571f\u4ea4\u901a\u7701\u4e2d\u90e8\u5730\u65b9\u6574\u5099\u5c40\u5929\u7adc\u5ddd\u4e0a\u6d41\u6cb3\u5ddd\u4e8b\u52d9\u6240","boring_xml_url":40,"boring_view_url":1,"soilmap_view_url":null,"soiltest_xml_url":0,"soiltest_view_url":0},{"id":170956,"code":"B4KJ201801005-9205","latitude":"35.5072661","longitude":"138.0905361","source_code":"CB53382007006","project_name":"","survey_name":"\u662d\u548c51\u5e74\u5ea6\u4e0a\u6ca2\u7802\u9632\u30c0\u30e0\u8a08\u753b\u7b87\u6240\u30dc\u30fc\u30ea\u30f3\u30b0","client_name":"\u56fd\u571f\u4ea4\u901a\u7701\u4e2d\u90e8\u5730\u65b9\u6574\u5099\u5c40\u5929\u7adc\u5ddd\u4e0a\u6d41\u6cb3\u5ddd\u4e8b\u52d9\u6240","boring_xml_url":40,"boring_view_url":1,"soilmap_view_url":null,"soiltest_xml_url":0,"soiltest_view_url":0},{"id":170955,"code":"B4KJ201801005-9204","latitude":"35.5077106","longitude":"138.0905361","source_code":"CB53382007005","project_name":"","survey_name":"\u662d\u548c51\u5e74\u5ea6\u4e0a\u6ca2\u7802\u9632\u30c0\u30e0\u8a08\u753b\u7b87\u6240\u30dc\u30fc\u30ea\u30f3\u30b0","client_name":"\u56fd\u571f\u4ea4\u901a\u7701\u4e2d\u90e8\u5730\u65b9\u6574\u5099\u5c40\u5929\u7adc\u5ddd\u4e0a\u6d41\u6cb3\u5ddd\u4e8b\u52d9\u6240","boring_xml_url":40,"boring_view_url":1,"soilmap_view_url":null,"soiltest_xml_url":0,"soiltest_view_url":0},{"id":170954,"code":"B4KJ201801005-9203","latitude":"35.5079606","longitude":"138.0905361","source_code":"CB53382007004","project_name":"","survey_name":"\u662d\u548c51\u5e74\u5ea6\u4e0a\u6ca2\u7802\u9632\u30c0\u30e0\u8a08\u753b\u7b87\u6240\u30dc\u30fc\u30ea\u30f3\u30b0","client_name":"\u56fd\u571f\u4ea4\u901a\u7701\u4e2d\u90e8\u5730\u65b9\u6574\u5099\u5c40\u5929\u7adc\u5ddd\u4e0a\u6d41\u6cb3\u5ddd\u4e8b\u52d9\u6240","boring_xml_url":40,"boring_view_url":1,"soilmap_view_url":null,"soiltest_xml_url":0,"soiltest_view_url":0},{"id":170953,"code":"B4KJ201801005-9202","latitude":"35.5079606","longitude":"138.0905361","source_code":"CB53382007003","project_name":"","survey_name":"\u662d\u548c51\u5e74\u5ea6\u4e0a\u6ca2\u7802\u9632\u30c0\u30e0\u8a08\u753b\u7b87\u6240\u30dc\u30fc\u30ea\u30f3\u30b0","client_name":"\u56fd\u571f\u4ea4\u901a\u7701\u4e2d\u90e8\u5730\u65b9\u6574\u5099\u5c40\u5929\u7adc\u5ddd\u4e0a\u6d41\u6cb3\u5ddd\u4e8b\u52d9\u6240","boring_xml_url":40,"boring_view_url":1,"soilmap_view_url":null,"soiltest_xml_url":0,"soiltest_view_url":0},{"id":170952,"code":"B4KJ201801005-9201","latitude":"35.5077939","longitude":"138.0899806","source_code":"CB53382007002","project_name":"","survey_name":"\u662d\u548c51\u5e74\u5ea6\u4e0a\u6ca2\u7802\u9632\u30c0\u30e0\u8a08\u753b\u7b87\u6240\u30dc\u30fc\u30ea\u30f3\u30b0","client_name":"\u56fd\u571f\u4ea4\u901a\u7701\u4e2d\u90e8\u5730\u65b9\u6574\u5099\u5c40\u5929\u7adc\u5ddd\u4e0a\u6d41\u6cb3\u5ddd\u4e8b\u52d9\u6240","boring_xml_url":40,"boring_view_url":1,"soilmap_view_url":null,"soiltest_xml_url":0,"soiltest_view_url":0},{"id":170951,"code":"B4KJ201801005-9200","latitude":"35.5088494","longitude":"138.0899806","source_code":"CB53382007001","project_name":"","survey_name":"\u662d\u548c51\u5e74\u5ea6\u4e0a\u6ca2\u7802\u9632\u30c0\u30e0\u8a08\u753b\u7b87\u6240\u30dc\u30fc\u30ea\u30f3\u30b0","client_name":"\u56fd\u571f\u4ea4\u901a\u7701\u4e2d\u90e8\u5730\u65b9\u6574\u5099\u5c40\u5929\u7adc\u5ddd\u4e0a\u6d41\u6cb3\u5ddd\u4e8b\u52d9\u6240","boring_xml_url":40,"boring_view_url":1,"soilmap_view_url":null,"soiltest_xml_url":0,"soiltest_view_url":0},{"id":170950,"code":"B4KJ201801005-9199","latitude":"35.3536392","longitude":"138.9542733","source_code":"CB53380726001","project_name":"","survey_name":"\u662d\u548c57\u5e74\u5ea6\u88fe\u91ce\u30d0\u30a4\u30d1\u30b9\u9808\u5ddd\u5730\u533a\u5730\u8cea\u8abf\u67fb","client_name":"\u56fd\u571f\u4ea4\u901a\u7701\u4e2d\u90e8\u5730\u65b9\u6574\u5099\u5c40\u6cbc\u6d25\u6cb3\u5ddd\u56fd\u9053\u4e8b\u52d9\u6240","boring_xml_url":40,"boring_view_url":1,"soilmap_view_url":null,"soiltest_xml_url":0,"soiltest_view_url":0},{"id":170949,"code":"B4KJ201801005-9198","latitude":"35.3551922","longitude":"138.8724192","source_code":"CB53380720006","project_name":"","survey_name":"\u662d\u548c63\u5e74\u5ea6138\u53f7\u9808\u8d70\u5730\u533a\u5730\u8cea\u8abf\u67fb","client_name":"\u56fd\u571f\u4ea4\u901a\u7701\u4e2d\u90e8\u5730\u65b9\u6574\u5099\u5c40\u6cbc\u6d25\u6cb3\u5ddd\u56fd\u9053\u4e8b\u52d9\u6240","boring_xml_url":40,"boring_view_url":1,"soilmap_view_url":null,"soiltest_xml_url":0,"soiltest_view_url":0},{"id":170948,"code":"B4KJ201801005-9197","latitude":"35.3584422","longitude":"138.8786408","source_code":"CB53380720005","project_name":"","survey_name":"\u662d\u548c62\u5e74\u5ea6\u9808\u8d70\u9053\u8def\u9808\u8d70\u5730\u533a\u5730\u8cea\u8abf\u67fb","client_name":"\u56fd\u571f\u4ea4\u901a\u7701\u4e2d\u90e8\u5730\u65b9\u6574\u5099\u5c40\u6cbc\u6d25\u6cb3\u5ddd\u56fd\u9053\u4e8b\u52d9\u6240","boring_xml_url":40,"boring_view_url":1,"soilmap_view_url":null,"soiltest_xml_url":0,"soiltest_view_url":0},{"id":170947,"code":"B4KJ201801005-9196","latitude":"35.3537203","longitude":"138.8743636","source_code":"CB53380720003","project_name":"","survey_name":"\u662d\u548c62\u5e74\u5ea6\u9808\u8d70\u9053\u8def\u9808\u8d70\u5730\u533a\u5730\u8cea\u8abf\u67fb","client_name":"\u56fd\u571f\u4ea4\u901a\u7701\u4e2d\u90e8\u5730\u65b9\u6574\u5099\u5c40\u6cbc\u6d25\u6cb3\u5ddd\u56fd\u9053\u4e8b\u52d9\u6240","boring_xml_url":40,"boring_view_url":1,"soilmap_view_url":null,"soiltest_xml_url":0,"soiltest_view_url":0},{"id":170946,"code":"B4KJ201801005-9195","latitude":"35.3542203","longitude":"138.8735303","source_code":"CB53380720002","project_name":"","survey_name":"\u662d\u548c62\u5e74\u5ea6\u9808\u8d70\u9053\u8def\u9808\u8d70\u5730\u533a\u5730\u8cea\u8abf\u67fb","client_name":"\u56fd\u571f\u4ea4\u901a\u7701\u4e2d\u90e8\u5730\u65b9\u6574\u5099\u5c40\u6cbc\u6d25\u6cb3\u5ddd\u56fd\u9053\u4e8b\u52d9\u6240","boring_xml_url":40,"boring_view_url":1,"soilmap_view_url":null,"soiltest_xml_url":0,"soiltest_view_url":0},{"id":170945,"code":"B4KJ201801005-9194","latitude":"35.3550258","longitude":"138.8729192","source_code":"CB53380720001","project_name":"","survey_name":"\u662d\u548c62\u5e74\u5ea6\u9808\u8d70\u9053\u8def\u9808\u8d70\u5730\u533a\u5730\u8cea\u8abf\u67fb","client_name":"\u56fd\u571f\u4ea4\u901a\u7701\u4e2d\u90e8\u5730\u65b9\u6574\u5099\u5c40\u6cbc\u6d25\u6cb3\u5ddd\u56fd\u9053\u4e8b\u52d9\u6240","boring_xml_url":40,"boring_view_url":1,"soilmap_view_url":null,"soiltest_xml_url":0,"soiltest_view_url":0},{"id":170944,"code":"B4KJ201801005-9193","latitude":"35.3490819","longitude":"138.8781133","source_code":"CB53380710001","project_name":"","survey_name":"\u662d\u548c63\u5e74\u5ea6138\u53f7\u9808\u8d70\u5730\u533a\u5730\u8cea\u8abf\u67fb","client_name":"\u56fd\u571f\u4ea4\u901a\u7701\u4e2d\u90e8\u5730\u65b9\u6574\u5099\u5c40\u6cbc\u6d25\u6cb3\u5ddd\u56fd\u9053\u4e8b\u52d9\u6240","boring_xml_url":40,"boring_view_url":1,"soilmap_view_url":null,"soiltest_xml_url":0,"soiltest_view_url":0},{"id":170943,"code":"B4KJ201801005-9192","latitude":"35.3560256","longitude":"138.8707525","source_code":"CB53380629020","project_name":"","survey_name":"\u662d\u548c63\u5e74\u5ea6138\u53f7\u9808\u8d70\u5730\u533a\u5730\u8cea\u8abf\u67fb","client_name":"\u56fd\u571f\u4ea4\u901a\u7701\u4e2d\u90e8\u5730\u65b9\u6574\u5099\u5c40\u6cbc\u6d25\u6cb3\u5ddd\u56fd\u9053\u4e8b\u52d9\u6240","boring_xml_url":40,"boring_view_url":1,"soilmap_view_url":null,"soiltest_xml_url":0,"soiltest_view_url":0},{"id":170942,"code":"B4KJ201801005-9191","latitude":"35.3588031","longitude":"138.8699192","source_code":"CB53380629019","project_name":"","survey_name":"\u662d\u548c63\u5e74\u5ea6138\u53f7\u9808\u8d70\u5730\u533a\u5730\u8cea\u8abf\u67fb","client_name":"\u56fd\u571f\u4ea4\u901a\u7701\u4e2d\u90e8\u5730\u65b9\u6574\u5099\u5c40\u6cbc\u6d25\u6cb3\u5ddd\u56fd\u9053\u4e8b\u52d9\u6240","boring_xml_url":40,"boring_view_url":1,"soilmap_view_url":null,"soiltest_xml_url":0,"soiltest_view_url":0},{"id":170941,"code":"B4KJ201801005-9190","latitude":"35.3588031","longitude":"138.8699192","source_code":"CB53380629018","project_name":"","survey_name":"\u662d\u548c63\u5e74\u5ea6138\u53f7\u9808\u8d70\u5730\u533a\u5730\u8cea\u8abf\u67fb","client_name":"\u56fd\u571f\u4ea4\u901a\u7701\u4e2d\u90e8\u5730\u65b9\u6574\u5099\u5c40\u6cbc\u6d25\u6cb3\u5ddd\u56fd\u9053\u4e8b\u52d9\u6240","boring_xml_url":40,"boring_view_url":1,"soilmap_view_url":null,"soiltest_xml_url":0,"soiltest_view_url":0},{"id":170940,"code":"B4KJ201801005-9189","latitude":"35.3556922","longitude":"138.8716136","source_code":"CB53380629017","project_name":"","survey_name":"\u662d\u548c62\u5e74\u5ea6\u9808\u8d70\u9053\u8def\u9808\u8d70\u5730\u533a\u5730\u8cea\u8abf\u67fb","client_name":"\u56fd\u571f\u4ea4\u901a\u7701\u4e2d\u90e8\u5730\u65b9\u6574\u5099\u5c40\u6cbc\u6d25\u6cb3\u5ddd\u56fd\u9053\u4e8b\u52d9\u6240","boring_xml_url":40,"boring_view_url":1,"soilmap_view_url":null,"soiltest_xml_url":0,"soiltest_view_url":0},{"id":170939,"code":"B4KJ201801005-9188","latitude":"35.3568311","longitude":"138.8705025","source_code":"CB53380629016","project_name":"","survey_name":"\u662d\u548c62\u5e74\u5ea6\u9808\u8d70\u9053\u8def\u9808\u8d70\u5730\u533a\u5730\u8cea\u8abf\u67fb","client_name":"\u56fd\u571f\u4ea4\u901a\u7701\u4e2d\u90e8\u5730\u65b9\u6574\u5099\u5c40\u6cbc\u6d25\u6cb3\u5ddd\u56fd\u9053\u4e8b\u52d9\u6240","boring_xml_url":40,"boring_view_url":1,"soilmap_view_url":null,"soiltest_xml_url":0,"soiltest_view_url":0},{"id":170938,"code":"B4KJ201801005-9187","latitude":"35.3577475","longitude":"138.8693917","source_code":"CB53380629015","project_name":"","survey_name":"\u662d\u548c62\u5e74\u5ea6\u9808\u8d70\u9053\u8def\u9808\u8d70\u5730\u533a\u5730\u8cea\u8abf\u67fb","client_name":"\u56fd\u571f\u4ea4\u901a\u7701\u4e2d\u90e8\u5730\u65b9\u6574\u5099\u5c40\u6cbc\u6d25\u6cb3\u5ddd\u56fd\u9053\u4e8b\u52d9\u6240","boring_xml_url":40,"boring_view_url":1,"soilmap_view_url":null,"soiltest_xml_url":0,"soiltest_view_url":0},{"id":170937,"code":"B4KJ201801005-9186","latitude":"35.3580531","longitude":"138.8689194","source_code":"CB53380629014","project_name":"","survey_name":"\u662d\u548c62\u5e74\u5ea6\u9808\u8d70\u9053\u8def\u9808\u8d70\u5730\u533a\u5730\u8cea\u8abf\u67fb","client_name":"\u56fd\u571f\u4ea4\u901a\u7701\u4e2d\u90e8\u5730\u65b9\u6574\u5099\u5c40\u6cbc\u6d25\u6cb3\u5ddd\u56fd\u9053\u4e8b\u52d9\u6240","boring_xml_url":40,"boring_view_url":1,"soilmap_view_url":null,"soiltest_xml_url":0,"soiltest_view_url":0},{"id":170936,"code":"B4KJ201801005-9185","latitude":"35.359331","longitude":"138.867281","source_code":"CB53380629013","project_name":"","survey_name":"\u662d\u548c62\u5e74\u5ea6\u9808\u8d70\u9053\u8def\u9808\u8d70\u5730\u533a\u5730\u8cea\u8abf\u67fb","client_name":"\u56fd\u571f\u4ea4\u901a\u7701\u4e2d\u90e8\u5730\u65b9\u6574\u5099\u5c40\u6cbc\u6d25\u6cb3\u5ddd\u56fd\u9053\u4e8b\u52d9\u6240","boring_xml_url":40,"boring_view_url":1,"soilmap_view_url":null,"soiltest_xml_url":0,"soiltest_view_url":0}]}}