{"header":{"xyz":{"source":[],"mosaic":false},"page":4990,"raw":{"soiltest_result":"0","bbox":"57.598333,109.544722,1.933333,163.806111","page":"4990"},"conditions":{"soiltest_result":0,"north":57.598333,"west":109.544722,"south":1.933333,"east":163.806111},"success":true,"message":""},"data":{"meta":{"total":212844,"page":4990,"pages":7095,"count":30},"values":[{"id":170875,"code":"B4KJ201801005-9124","latitude":"35.9426119","longitude":"137.2543144","source_code":"CB53377220001","project_name":"","survey_name":"\u5e73\u621010\u5e74\u5ea6\u9ad8\u5c71\u7ba1\u5185\u5730\u8cea\u53ca\u3073\u4e95\u6238\u8abf\u67fb","client_name":"\u56fd\u571f\u4ea4\u901a\u7701\u4e2d\u90e8\u5730\u65b9\u6574\u5099\u5c40\u9ad8\u5c71\u56fd\u9053\u4e8b\u52d9\u6240","boring_xml_url":40,"boring_view_url":1,"soilmap_view_url":null,"soiltest_xml_url":0,"soiltest_view_url":0},{"id":170874,"code":"B4KJ201801005-9123","latitude":"35.9303633","longitude":"137.2469822","source_code":"CB53377210001","project_name":"","survey_name":"\u5e73\u621010\u5e74\u5ea6\u9ad8\u5c71\u7ba1\u5185\u5730\u8cea\u53ca\u3073\u4e95\u6238\u8abf\u67fb","client_name":"\u56fd\u571f\u4ea4\u901a\u7701\u4e2d\u90e8\u5730\u65b9\u6574\u5099\u5c40\u9ad8\u5c71\u56fd\u9053\u4e8b\u52d9\u6240","boring_xml_url":40,"boring_view_url":1,"soilmap_view_url":null,"soiltest_xml_url":0,"soiltest_view_url":0},{"id":170873,"code":"B4KJ201801005-9122","latitude":"35.9300856","longitude":"137.2458711","source_code":"CB53377119001","project_name":"","survey_name":"\u5e73\u621010\u5e74\u5ea6\u9ad8\u5c71\u7ba1\u5185\u5730\u8cea\u53ca\u3073\u4e95\u6238\u8abf\u67fb","client_name":"\u56fd\u571f\u4ea4\u901a\u7701\u4e2d\u90e8\u5730\u65b9\u6574\u5099\u5c40\u9ad8\u5c71\u56fd\u9053\u4e8b\u52d9\u6240","boring_xml_url":40,"boring_view_url":1,"soilmap_view_url":null,"soiltest_xml_url":0,"soiltest_view_url":0},{"id":170872,"code":"B4KJ201801005-9121","latitude":"35.9251686","longitude":"137.2098189","source_code":"CB53377107001","project_name":"","survey_name":"\u5965\u7530\u6d1e\u59161\u5730\u533a\u5730\u8cea\u8abf\u67fb","client_name":"\u56fd\u571f\u4ea4\u901a\u7701\u4e2d\u90e8\u5730\u65b9\u6574\u5099\u5c40\u9ad8\u5c71\u56fd\u9053\u4e8b\u52d9\u6240","boring_xml_url":40,"boring_view_url":1,"soilmap_view_url":null,"soiltest_xml_url":0,"soiltest_view_url":0},{"id":170871,"code":"B4KJ201801005-9120","latitude":"35.9249742","longitude":"137.2089856","source_code":"CB53377106001","project_name":"","survey_name":"\u5965\u7530\u6d1e\u59161\u5730\u533a\u5730\u8cea\u8abf\u67fb","client_name":"\u56fd\u571f\u4ea4\u901a\u7701\u4e2d\u90e8\u5730\u65b9\u6574\u5099\u5c40\u9ad8\u5c71\u56fd\u9053\u4e8b\u52d9\u6240","boring_xml_url":40,"boring_view_url":1,"soilmap_view_url":null,"soiltest_xml_url":0,"soiltest_view_url":0},{"id":170870,"code":"B4KJ201801005-9119","latitude":"35.9065794","longitude":"137.99539","source_code":"CB53376789002","project_name":"","survey_name":"\u662d\u548c57\u5e74\u5ea6\u677e\u5cf6\u6a0b\u7ba1\u5730\u8cea\u8abf\u67fb","client_name":"\u56fd\u571f\u4ea4\u901a\u7701\u4e2d\u90e8\u5730\u65b9\u6574\u5099\u5c40\u5929\u7adc\u5ddd\u4e0a\u6d41\u6cb3\u5ddd\u4e8b\u52d9\u6240","boring_xml_url":40,"boring_view_url":1,"soilmap_view_url":null,"soiltest_xml_url":0,"soiltest_view_url":0},{"id":170869,"code":"B4KJ201801005-9118","latitude":"35.9062183","longitude":"137.9954178","source_code":"CB53376789001","project_name":"","survey_name":"\u662d\u548c57\u5e74\u5ea6\u677e\u5cf6\u6a0b\u7ba1\u5730\u8cea\u8abf\u67fb","client_name":"\u56fd\u571f\u4ea4\u901a\u7701\u4e2d\u90e8\u5730\u65b9\u6574\u5099\u5c40\u5929\u7adc\u5ddd\u4e0a\u6d41\u6cb3\u5ddd\u4e8b\u52d9\u6240","boring_xml_url":40,"boring_view_url":1,"soilmap_view_url":null,"soiltest_xml_url":0,"soiltest_view_url":0},{"id":170868,"code":"B4KJ201801005-9117","latitude":"35.8670558","longitude":"137.9840314","source_code":"CB53376738002","project_name":"","survey_name":"\u662d\u548c53\u5e74\u5ea6\u5929\u7adc\u5ddd\u5927\u6cc9\u5ddd\u5408\u6d41\u51e6\u7406\u8a2d\u8a08\u696d\u52d9\u59d4\u8a17","client_name":"\u56fd\u571f\u4ea4\u901a\u7701\u4e2d\u90e8\u5730\u65b9\u6574\u5099\u5c40\u5929\u7adc\u5ddd\u4e0a\u6d41\u6cb3\u5ddd\u4e8b\u52d9\u6240","boring_xml_url":40,"boring_view_url":1,"soilmap_view_url":null,"soiltest_xml_url":0,"soiltest_view_url":0},{"id":170867,"code":"B4KJ201801005-9116","latitude":"35.8670558","longitude":"137.9834203","source_code":"CB53376738001","project_name":"","survey_name":"\u662d\u548c53\u5e74\u5ea6\u5929\u7adc\u5ddd\u5927\u6cc9\u5ddd\u5408\u6d41\u51e6\u7406\u8a2d\u8a08\u696d\u52d9\u59d4\u8a17","client_name":"\u56fd\u571f\u4ea4\u901a\u7701\u4e2d\u90e8\u5730\u65b9\u6574\u5099\u5c40\u5929\u7adc\u5ddd\u4e0a\u6d41\u6cb3\u5ddd\u4e8b\u52d9\u6240","boring_xml_url":40,"boring_view_url":1,"soilmap_view_url":null,"soiltest_xml_url":0,"soiltest_view_url":0},{"id":170866,"code":"B4KJ201801005-9115","latitude":"35.9037131","longitude":"137.7744372","source_code":"CB53376682001","project_name":"","survey_name":"\u5c71\u5439\u5730\u533a\u5730\u8cea\u8abf\u67fb","client_name":"\u56fd\u571f\u4ea4\u901a\u7701\u4e2d\u90e8\u5730\u65b9\u6574\u5099\u5c40\u98ef\u7530\u56fd\u9053\u4e8b\u52d9\u6240","boring_xml_url":40,"boring_view_url":1,"soilmap_view_url":null,"soiltest_xml_url":0,"soiltest_view_url":0},{"id":170865,"code":"B4KJ201801005-9114","latitude":"35.8659108","longitude":"137.7380806","source_code":"CB53376539006","project_name":"","survey_name":"\u5e73\u621011\u5e74\u5ea6 19\u53f7\u5730\u8cea\u8abf\u67fb","client_name":"\u56fd\u571f\u4ea4\u901a\u7701\u4e2d\u90e8\u5730\u65b9\u6574\u5099\u5c40\u98ef\u7530\u56fd\u9053\u4e8b\u52d9\u6240","boring_xml_url":40,"boring_view_url":1,"soilmap_view_url":null,"soiltest_xml_url":0,"soiltest_view_url":0},{"id":170864,"code":"B4KJ201801005-9113","latitude":"35.8643","longitude":"137.7356086","source_code":"CB53376539002","project_name":"","survey_name":"\u662d\u548c48\u5e74\u5ea6\u685f\u6ca2\u6a4b\u59163\u6a4b\u5730\u8cea\u8abf\u67fb","client_name":"\u56fd\u571f\u4ea4\u901a\u7701\u4e2d\u90e8\u5730\u65b9\u6574\u5099\u5c40\u98ef\u7530\u56fd\u9053\u4e8b\u52d9\u6240","boring_xml_url":40,"boring_view_url":1,"soilmap_view_url":null,"soiltest_xml_url":0,"soiltest_view_url":0},{"id":170863,"code":"B4KJ201801005-9112","latitude":"35.8641611","longitude":"137.7352475","source_code":"CB53376539001","project_name":"","survey_name":"\u662d\u548c48\u5e74\u5ea6\u685f\u6ca2\u6a4b\u59163\u6a4b\u5730\u8cea\u8abf\u67fb","client_name":"\u56fd\u571f\u4ea4\u901a\u7701\u4e2d\u90e8\u5730\u65b9\u6574\u5099\u5c40\u98ef\u7530\u56fd\u9053\u4e8b\u52d9\u6240","boring_xml_url":40,"boring_view_url":1,"soilmap_view_url":null,"soiltest_xml_url":0,"soiltest_view_url":0},{"id":170862,"code":"B4KJ201801005-9111","latitude":"35.8614944","longitude":"137.7233042","source_code":"CB53376528002","project_name":"","survey_name":"\u5c3e\u6ca2\u6a4b\u59161\u6a4b\u5730\u8cea\u8abf\u67fb","client_name":"\u56fd\u571f\u4ea4\u901a\u7701\u4e2d\u90e8\u5730\u65b9\u6574\u5099\u5c40\u98ef\u7530\u56fd\u9053\u4e8b\u52d9\u6240","boring_xml_url":40,"boring_view_url":1,"soilmap_view_url":null,"soiltest_xml_url":0,"soiltest_view_url":0},{"id":170861,"code":"B4KJ201801005-9110","latitude":"35.8586333","longitude":"137.7190825","source_code":"CB53376527001","project_name":"","survey_name":"\u662d\u548c59\u5e74\u98ef\u7530\u30d0\u30a4\u30d1\u30b9\u4f0a\u8cc0\u826f\u5730\u533a\u4ed61\u4ef6\u5730\u8cea\u8abf\u67fb","client_name":"\u56fd\u571f\u4ea4\u901a\u7701\u4e2d\u90e8\u5730\u65b9\u6574\u5099\u5c40\u98ef\u7530\u56fd\u9053\u4e8b\u52d9\u6240","boring_xml_url":40,"boring_view_url":1,"soilmap_view_url":null,"soiltest_xml_url":0,"soiltest_view_url":0},{"id":170860,"code":"B4KJ201801005-9109","latitude":"35.8873117","longitude":"137.2103758","source_code":"CB53376167002","project_name":"","survey_name":"\u5e73\u621010\u5e74\u5ea6\u9ad8\u5c71\u7ba1\u5185\u5730\u8cea\u53ca\u3073\u4e95\u6238\u8abf\u67fb","client_name":"\u56fd\u571f\u4ea4\u901a\u7701\u4e2d\u90e8\u5730\u65b9\u6574\u5099\u5c40\u9ad8\u5c71\u56fd\u9053\u4e8b\u52d9\u6240","boring_xml_url":40,"boring_view_url":1,"soilmap_view_url":null,"soiltest_xml_url":0,"soiltest_view_url":0},{"id":170859,"code":"B4KJ201801005-9108","latitude":"35.8875061","longitude":"137.2103758","source_code":"CB53376167001","project_name":"","survey_name":"\u5e73\u621010\u5e74\u5ea6\u9ad8\u5c71\u7ba1\u5185\u5730\u8cea\u53ca\u3073\u4e95\u6238\u8abf\u67fb","client_name":"\u56fd\u571f\u4ea4\u901a\u7701\u4e2d\u90e8\u5730\u65b9\u6574\u5099\u5c40\u9ad8\u5c71\u56fd\u9053\u4e8b\u52d9\u6240","boring_xml_url":40,"boring_view_url":1,"soilmap_view_url":null,"soiltest_xml_url":0,"soiltest_view_url":0},{"id":170858,"code":"B4KJ201801005-9107","latitude":"35.8860342","longitude":"137.2111258","source_code":"CB53376157009","project_name":"","survey_name":"\u5e73\u621011\u5e74\u5ea6 41\u53f7\u9ad8\u5c71\u56fd\u9053\u7ba1\u5185\u5730\u8cea\u8abf\u67fb","client_name":"\u56fd\u571f\u4ea4\u901a\u7701\u4e2d\u90e8\u5730\u65b9\u6574\u5099\u5c40\u9ad8\u5c71\u56fd\u9053\u4e8b\u52d9\u6240","boring_xml_url":40,"boring_view_url":1,"soilmap_view_url":null,"soiltest_xml_url":0,"soiltest_view_url":0},{"id":170857,"code":"B4KJ201801005-9106","latitude":"35.8861453","longitude":"137.2109869","source_code":"CB53376157008","project_name":"","survey_name":"\u5e73\u621011\u5e74\u5ea6 41\u53f7\u9ad8\u5c71\u56fd\u9053\u7ba1\u5185\u5730\u8cea\u8abf\u67fb","client_name":"\u56fd\u571f\u4ea4\u901a\u7701\u4e2d\u90e8\u5730\u65b9\u6574\u5099\u5c40\u9ad8\u5c71\u56fd\u9053\u4e8b\u52d9\u6240","boring_xml_url":40,"boring_view_url":1,"soilmap_view_url":null,"soiltest_xml_url":0,"soiltest_view_url":0},{"id":170856,"code":"B4KJ201801005-9105","latitude":"35.8855064","longitude":"137.2109036","source_code":"CB53376157007","project_name":"","survey_name":"\u5e73\u621011\u5e74\u5ea6 41\u53f7\u9ad8\u5c71\u56fd\u9053\u7ba1\u5185\u5730\u8cea\u8abf\u67fb","client_name":"\u56fd\u571f\u4ea4\u901a\u7701\u4e2d\u90e8\u5730\u65b9\u6574\u5099\u5c40\u9ad8\u5c71\u56fd\u9053\u4e8b\u52d9\u6240","boring_xml_url":40,"boring_view_url":1,"soilmap_view_url":null,"soiltest_xml_url":0,"soiltest_view_url":0},{"id":170855,"code":"B4KJ201801005-9104","latitude":"35.8855897","longitude":"137.2106536","source_code":"CB53376157006","project_name":"","survey_name":"\u5e73\u621011\u5e74\u5ea6 41\u53f7\u9ad8\u5c71\u56fd\u9053\u7ba1\u5185\u5730\u8cea\u8abf\u67fb","client_name":"\u56fd\u571f\u4ea4\u901a\u7701\u4e2d\u90e8\u5730\u65b9\u6574\u5099\u5c40\u9ad8\u5c71\u56fd\u9053\u4e8b\u52d9\u6240","boring_xml_url":40,"boring_view_url":1,"soilmap_view_url":null,"soiltest_xml_url":0,"soiltest_view_url":0},{"id":170854,"code":"B4KJ201801005-9103","latitude":"35.8843119","longitude":"137.2099594","source_code":"CB53376157005","project_name":"","survey_name":"\u5e73\u621011\u5e74\u5ea6 41\u53f7\u9ad8\u5c71\u56fd\u9053\u7ba1\u5185\u5730\u8cea\u8abf\u67fb","client_name":"\u56fd\u571f\u4ea4\u901a\u7701\u4e2d\u90e8\u5730\u65b9\u6574\u5099\u5c40\u9ad8\u5c71\u56fd\u9053\u4e8b\u52d9\u6240","boring_xml_url":40,"boring_view_url":1,"soilmap_view_url":null,"soiltest_xml_url":0,"soiltest_view_url":0},{"id":170853,"code":"B4KJ201801005-9102","latitude":"35.8822011","longitude":"137.2104039","source_code":"CB53376157002","project_name":"","survey_name":"\u685c\u6d1e\u30fb\u4e09\u5ddd\u5730\u8cea\u8abf\u67fb","client_name":"\u56fd\u571f\u4ea4\u901a\u7701\u4e2d\u90e8\u5730\u65b9\u6574\u5099\u5c40\u9ad8\u5c71\u56fd\u9053\u4e8b\u52d9\u6240","boring_xml_url":40,"boring_view_url":1,"soilmap_view_url":null,"soiltest_xml_url":0,"soiltest_view_url":0},{"id":170852,"code":"B4KJ201801005-9101","latitude":"35.8817569","longitude":"137.2100706","source_code":"CB53376157001","project_name":"","survey_name":"\u685c\u6d1e\u30fb\u4e09\u5ddd\u5730\u8cea\u8abf\u67fb","client_name":"\u56fd\u571f\u4ea4\u901a\u7701\u4e2d\u90e8\u5730\u65b9\u6574\u5099\u5c40\u9ad8\u5c71\u56fd\u9053\u4e8b\u52d9\u6240","boring_xml_url":40,"boring_view_url":1,"soilmap_view_url":null,"soiltest_xml_url":0,"soiltest_view_url":0},{"id":170851,"code":"B4KJ201801005-9100","latitude":"35.79448","longitude":"137.9499539","source_code":"CB53375746008","project_name":"","survey_name":"\u5e73\u621012\u5e74\u5ea6\u5929\u7adc\u5ddd\u69cb\u9020\u7269\u5730\u8cea\u8abf\u67fb","client_name":"\u56fd\u571f\u4ea4\u901a\u7701\u4e2d\u90e8\u5730\u65b9\u6574\u5099\u5c40\u5929\u7adc\u5ddd\u4e0a\u6d41\u6cb3\u5ddd\u4e8b\u52d9\u6240","boring_xml_url":40,"boring_view_url":1,"soilmap_view_url":null,"soiltest_xml_url":0,"soiltest_view_url":0},{"id":170850,"code":"B4KJ201801005-9099","latitude":"35.7944522","longitude":"137.949815","source_code":"CB53375746007","project_name":"","survey_name":"\u5e73\u621012\u5e74\u5ea6\u5929\u7adc\u5ddd\u69cb\u9020\u7269\u5730\u8cea\u8abf\u67fb","client_name":"\u56fd\u571f\u4ea4\u901a\u7701\u4e2d\u90e8\u5730\u65b9\u6574\u5099\u5c40\u5929\u7adc\u5ddd\u4e0a\u6d41\u6cb3\u5ddd\u4e8b\u52d9\u6240","boring_xml_url":40,"boring_view_url":1,"soilmap_view_url":null,"soiltest_xml_url":0,"soiltest_view_url":0},{"id":170849,"code":"B4KJ201801005-9098","latitude":"35.8296914","longitude":"137.6823369","source_code":"CB53375594005","project_name":"","survey_name":"\u6728\u66fd\u798f\u5cf6\u4e0a\u677e\u5730\u5148\u5730\u8cea\u8abf\u67fb","client_name":"\u56fd\u571f\u4ea4\u901a\u7701\u4e2d\u90e8\u5730\u65b9\u6574\u5099\u5c40\u98ef\u7530\u56fd\u9053\u4e8b\u52d9\u6240","boring_xml_url":40,"boring_view_url":1,"soilmap_view_url":null,"soiltest_xml_url":0,"soiltest_view_url":0},{"id":170848,"code":"B4KJ201801005-9097","latitude":"35.8321356","longitude":"137.6828367","source_code":"CB53375594004","project_name":"","survey_name":"\u6728\u66fd\u798f\u5cf6\u4e0a\u677e\u5730\u5148\u5730\u8cea\u8abf\u67fb","client_name":"\u56fd\u571f\u4ea4\u901a\u7701\u4e2d\u90e8\u5730\u65b9\u6574\u5099\u5c40\u98ef\u7530\u56fd\u9053\u4e8b\u52d9\u6240","boring_xml_url":40,"boring_view_url":1,"soilmap_view_url":null,"soiltest_xml_url":0,"soiltest_view_url":0},{"id":170847,"code":"B4KJ201801005-9096","latitude":"35.8321078","longitude":"137.6835311","source_code":"CB53375594003","project_name":"","survey_name":"\u6728\u66fd\u798f\u5cf6\u4e0a\u677e\u5730\u5148\u5730\u8cea\u8abf\u67fb","client_name":"\u56fd\u571f\u4ea4\u901a\u7701\u4e2d\u90e8\u5730\u65b9\u6574\u5099\u5c40\u98ef\u7530\u56fd\u9053\u4e8b\u52d9\u6240","boring_xml_url":40,"boring_view_url":1,"soilmap_view_url":null,"soiltest_xml_url":0,"soiltest_view_url":0},{"id":170846,"code":"B4KJ201801005-9095","latitude":"35.8314967","longitude":"137.6830589","source_code":"CB53375594002","project_name":"","survey_name":"\u6728\u66fd\u798f\u5cf6\u4e0a\u677e\u5730\u5148\u5730\u8cea\u8abf\u67fb","client_name":"\u56fd\u571f\u4ea4\u901a\u7701\u4e2d\u90e8\u5730\u65b9\u6574\u5099\u5c40\u98ef\u7530\u56fd\u9053\u4e8b\u52d9\u6240","boring_xml_url":40,"boring_view_url":1,"soilmap_view_url":null,"soiltest_xml_url":0,"soiltest_view_url":0}]}}