{"header":{"xyz":{"source":[],"mosaic":false},"page":4991,"raw":{"soiltest_result":"0","bbox":"57.598333,109.544722,1.933333,163.806111","page":"4991"},"conditions":{"soiltest_result":0,"north":57.598333,"west":109.544722,"south":1.933333,"east":163.806111},"success":true,"message":""},"data":{"meta":{"total":212844,"page":4991,"pages":7095,"count":30},"values":[{"id":170845,"code":"B4KJ201801005-9094","latitude":"35.8312189","longitude":"137.68242","source_code":"CB53375594001","project_name":"","survey_name":"\u6728\u66fd\u798f\u5cf6\u4e0a\u677e\u5730\u5148\u5730\u8cea\u8abf\u67fb","client_name":"\u56fd\u571f\u4ea4\u901a\u7701\u4e2d\u90e8\u5730\u65b9\u6574\u5099\u5c40\u98ef\u7530\u56fd\u9053\u4e8b\u52d9\u6240","boring_xml_url":40,"boring_view_url":1,"soilmap_view_url":null,"soiltest_xml_url":0,"soiltest_view_url":0},{"id":170844,"code":"B4KJ201801005-9093","latitude":"35.8123878","longitude":"137.6831153","source_code":"CB53375574004","project_name":"","survey_name":"\u5e73\u621011\u5e74\u5ea6 19\u53f7\u5730\u8cea\u8abf\u67fb","client_name":"\u56fd\u571f\u4ea4\u901a\u7701\u4e2d\u90e8\u5730\u65b9\u6574\u5099\u5c40\u98ef\u7530\u56fd\u9053\u4e8b\u52d9\u6240","boring_xml_url":40,"boring_view_url":1,"soilmap_view_url":null,"soiltest_xml_url":0,"soiltest_view_url":0},{"id":170843,"code":"B4KJ201801005-9092","latitude":"35.8046664","longitude":"137.6845319","source_code":"CB53375565008","project_name":"","survey_name":"\u5e73\u621011\u5e74\u5ea6 19\u53f7\u5730\u8cea\u8abf\u67fb","client_name":"\u56fd\u571f\u4ea4\u901a\u7701\u4e2d\u90e8\u5730\u65b9\u6574\u5099\u5c40\u98ef\u7530\u56fd\u9053\u4e8b\u52d9\u6240","boring_xml_url":40,"boring_view_url":1,"soilmap_view_url":null,"soiltest_xml_url":0,"soiltest_view_url":0},{"id":170842,"code":"B4KJ201801005-9091","latitude":"35.8035","longitude":"137.6852264","source_code":"CB53375565007","project_name":"","survey_name":"\u5e73\u621011\u5e74\u5ea6 19\u53f7\u5730\u8cea\u8abf\u67fb","client_name":"\u56fd\u571f\u4ea4\u901a\u7701\u4e2d\u90e8\u5730\u65b9\u6574\u5099\u5c40\u98ef\u7530\u56fd\u9053\u4e8b\u52d9\u6240","boring_xml_url":40,"boring_view_url":1,"soilmap_view_url":null,"soiltest_xml_url":0,"soiltest_view_url":0},{"id":170841,"code":"B4KJ201801005-9090","latitude":"35.8093603","longitude":"137.6838097","source_code":"CB53375564022","project_name":"","survey_name":"\u5e73\u621011\u5e74\u5ea6 19\u53f7\u5730\u8cea\u8abf\u67fb","client_name":"\u56fd\u571f\u4ea4\u901a\u7701\u4e2d\u90e8\u5730\u65b9\u6574\u5099\u5c40\u98ef\u7530\u56fd\u9053\u4e8b\u52d9\u6240","boring_xml_url":40,"boring_view_url":1,"soilmap_view_url":null,"soiltest_xml_url":0,"soiltest_view_url":0},{"id":170840,"code":"B4KJ201801005-9089","latitude":"35.8079994","longitude":"137.6838097","source_code":"CB53375564021","project_name":"","survey_name":"\u5e73\u621011\u5e74\u5ea6 19\u53f7\u5730\u8cea\u8abf\u67fb","client_name":"\u56fd\u571f\u4ea4\u901a\u7701\u4e2d\u90e8\u5730\u65b9\u6574\u5099\u5c40\u98ef\u7530\u56fd\u9053\u4e8b\u52d9\u6240","boring_xml_url":40,"boring_view_url":1,"soilmap_view_url":null,"soiltest_xml_url":0,"soiltest_view_url":0},{"id":170839,"code":"B4KJ201801005-9088","latitude":"35.8074994","longitude":"137.6836708","source_code":"CB53375564020","project_name":"","survey_name":"\u5e73\u621011\u5e74\u5ea6 19\u53f7\u5730\u8cea\u8abf\u67fb","client_name":"\u56fd\u571f\u4ea4\u901a\u7701\u4e2d\u90e8\u5730\u65b9\u6574\u5099\u5c40\u98ef\u7530\u56fd\u9053\u4e8b\u52d9\u6240","boring_xml_url":40,"boring_view_url":1,"soilmap_view_url":null,"soiltest_xml_url":0,"soiltest_view_url":0},{"id":170838,"code":"B4KJ201801005-9087","latitude":"35.8054164","longitude":"137.6843097","source_code":"CB53375564019","project_name":"","survey_name":"\u5e73\u621011\u5e74\u5ea6 19\u53f7\u5730\u8cea\u8abf\u67fb","client_name":"\u56fd\u571f\u4ea4\u901a\u7701\u4e2d\u90e8\u5730\u65b9\u6574\u5099\u5c40\u98ef\u7530\u56fd\u9053\u4e8b\u52d9\u6240","boring_xml_url":40,"boring_view_url":1,"soilmap_view_url":null,"soiltest_xml_url":0,"soiltest_view_url":0},{"id":170837,"code":"B4KJ201801005-9086","latitude":"35.8046664","longitude":"137.6842267","source_code":"CB53375564018","project_name":"","survey_name":"\u5e73\u621011\u5e74\u5ea6 19\u53f7\u5730\u8cea\u8abf\u67fb","client_name":"\u56fd\u571f\u4ea4\u901a\u7701\u4e2d\u90e8\u5730\u65b9\u6574\u5099\u5c40\u98ef\u7530\u56fd\u9053\u4e8b\u52d9\u6240","boring_xml_url":40,"boring_view_url":1,"soilmap_view_url":null,"soiltest_xml_url":0,"soiltest_view_url":0},{"id":170836,"code":"B4KJ201801005-9085","latitude":"35.8109436","longitude":"137.6832542","source_code":"CB53375564002","project_name":"","survey_name":"\u5e73\u62109\u5e74\u5ea6 19\u53f7\u5730\u8cea\u8abf\u67fb","client_name":"\u56fd\u571f\u4ea4\u901a\u7701\u4e2d\u90e8\u5730\u65b9\u6574\u5099\u5c40\u98ef\u7530\u56fd\u9053\u4e8b\u52d9\u6240","boring_xml_url":40,"boring_view_url":1,"soilmap_view_url":null,"soiltest_xml_url":0,"soiltest_view_url":0},{"id":170835,"code":"B4KJ201801005-9084","latitude":"35.8089994","longitude":"137.6842819","source_code":"CB53375564001","project_name":"","survey_name":"\u5e73\u62109\u5e74\u5ea6 19\u53f7\u5730\u8cea\u8abf\u67fb","client_name":"\u56fd\u571f\u4ea4\u901a\u7701\u4e2d\u90e8\u5730\u65b9\u6574\u5099\u5c40\u98ef\u7530\u56fd\u9053\u4e8b\u52d9\u6240","boring_xml_url":40,"boring_view_url":1,"soilmap_view_url":null,"soiltest_xml_url":0,"soiltest_view_url":0},{"id":170834,"code":"B4KJ201801005-9083","latitude":"35.8031667","longitude":"137.6854208","source_code":"CB53375555029","project_name":"","survey_name":"\u5e73\u621011\u5e74\u5ea6 19\u53f7\u5730\u8cea\u8abf\u67fb","client_name":"\u56fd\u571f\u4ea4\u901a\u7701\u4e2d\u90e8\u5730\u65b9\u6574\u5099\u5c40\u98ef\u7530\u56fd\u9053\u4e8b\u52d9\u6240","boring_xml_url":40,"boring_view_url":1,"soilmap_view_url":null,"soiltest_xml_url":0,"soiltest_view_url":0},{"id":170833,"code":"B4KJ201801005-9082","latitude":"35.803","longitude":"137.6855042","source_code":"CB53375555028","project_name":"","survey_name":"\u5e73\u621011\u5e74\u5ea6 19\u53f7\u5730\u8cea\u8abf\u67fb","client_name":"\u56fd\u571f\u4ea4\u901a\u7701\u4e2d\u90e8\u5730\u65b9\u6574\u5099\u5c40\u98ef\u7530\u56fd\u9053\u4e8b\u52d9\u6240","boring_xml_url":40,"boring_view_url":1,"soilmap_view_url":null,"soiltest_xml_url":0,"soiltest_view_url":0},{"id":170832,"code":"B4KJ201801005-9081","latitude":"35.8028333","longitude":"137.6853653","source_code":"CB53375555027","project_name":"","survey_name":"\u5e73\u621011\u5e74\u5ea6 19\u53f7\u5730\u8cea\u8abf\u67fb","client_name":"\u56fd\u571f\u4ea4\u901a\u7701\u4e2d\u90e8\u5730\u65b9\u6574\u5099\u5c40\u98ef\u7530\u56fd\u9053\u4e8b\u52d9\u6240","boring_xml_url":40,"boring_view_url":1,"soilmap_view_url":null,"soiltest_xml_url":0,"soiltest_view_url":0},{"id":170831,"code":"B4KJ201801005-9080","latitude":"35.8028333","longitude":"137.6855319","source_code":"CB53375555026","project_name":"","survey_name":"\u5e73\u621011\u5e74\u5ea6 19\u53f7\u5730\u8cea\u8abf\u67fb","client_name":"\u56fd\u571f\u4ea4\u901a\u7701\u4e2d\u90e8\u5730\u65b9\u6574\u5099\u5c40\u98ef\u7530\u56fd\u9053\u4e8b\u52d9\u6240","boring_xml_url":40,"boring_view_url":1,"soilmap_view_url":null,"soiltest_xml_url":0,"soiltest_view_url":0},{"id":170830,"code":"B4KJ201801005-9079","latitude":"35.8028333","longitude":"137.6854764","source_code":"CB53375555025","project_name":"","survey_name":"\u5e73\u621011\u5e74\u5ea6 19\u53f7\u5730\u8cea\u8abf\u67fb","client_name":"\u56fd\u571f\u4ea4\u901a\u7701\u4e2d\u90e8\u5730\u65b9\u6574\u5099\u5c40\u98ef\u7530\u56fd\u9053\u4e8b\u52d9\u6240","boring_xml_url":40,"boring_view_url":1,"soilmap_view_url":null,"soiltest_xml_url":0,"soiltest_view_url":0},{"id":170829,"code":"B4KJ201801005-9078","latitude":"35.80225","longitude":"137.6856153","source_code":"CB53375555024","project_name":"","survey_name":"\u5e73\u621011\u5e74\u5ea6 19\u53f7\u5730\u8cea\u8abf\u67fb","client_name":"\u56fd\u571f\u4ea4\u901a\u7701\u4e2d\u90e8\u5730\u65b9\u6574\u5099\u5c40\u98ef\u7530\u56fd\u9053\u4e8b\u52d9\u6240","boring_xml_url":40,"boring_view_url":1,"soilmap_view_url":null,"soiltest_xml_url":0,"soiltest_view_url":0},{"id":170828,"code":"B4KJ201801005-9077","latitude":"35.7952508","longitude":"137.6853936","source_code":"CB53375555023","project_name":"","survey_name":"\u5e73\u621011\u5e74\u5ea6 19\u53f7\u5730\u8cea\u8abf\u67fb","client_name":"\u56fd\u571f\u4ea4\u901a\u7701\u4e2d\u90e8\u5730\u65b9\u6574\u5099\u5c40\u98ef\u7530\u56fd\u9053\u4e8b\u52d9\u6240","boring_xml_url":40,"boring_view_url":1,"soilmap_view_url":null,"soiltest_xml_url":0,"soiltest_view_url":0},{"id":170827,"code":"B4KJ201801005-9076","latitude":"35.80275","longitude":"137.6849489","source_code":"CB53375555001","project_name":"","survey_name":"\u5e73\u62109\u5e74\u5ea6 19\u53f7\u5730\u8cea\u8abf\u67fb","client_name":"\u56fd\u571f\u4ea4\u901a\u7701\u4e2d\u90e8\u5730\u65b9\u6574\u5099\u5c40\u98ef\u7530\u56fd\u9053\u4e8b\u52d9\u6240","boring_xml_url":40,"boring_view_url":1,"soilmap_view_url":null,"soiltest_xml_url":0,"soiltest_view_url":0},{"id":170826,"code":"B4KJ201801005-9075","latitude":"35.7946122","longitude":"137.6854492","source_code":"CB53375545030","project_name":"","survey_name":"\u5e73\u621011\u5e74\u5ea6 19\u53f7\u5730\u8cea\u8abf\u67fb","client_name":"\u56fd\u571f\u4ea4\u901a\u7701\u4e2d\u90e8\u5730\u65b9\u6574\u5099\u5c40\u98ef\u7530\u56fd\u9053\u4e8b\u52d9\u6240","boring_xml_url":40,"boring_view_url":1,"soilmap_view_url":null,"soiltest_xml_url":0,"soiltest_view_url":0},{"id":170825,"code":"B4KJ201801005-9074","latitude":"35.7940567","longitude":"137.6857269","source_code":"CB53375545029","project_name":"","survey_name":"\u5e73\u621011\u5e74\u5ea6 19\u53f7\u5730\u8cea\u8abf\u67fb","client_name":"\u56fd\u571f\u4ea4\u901a\u7701\u4e2d\u90e8\u5730\u65b9\u6574\u5099\u5c40\u98ef\u7530\u56fd\u9053\u4e8b\u52d9\u6240","boring_xml_url":40,"boring_view_url":1,"soilmap_view_url":null,"soiltest_xml_url":0,"soiltest_view_url":0},{"id":170824,"code":"B4KJ201801005-9073","latitude":"35.7936956","longitude":"137.6861989","source_code":"CB53375545028","project_name":"","survey_name":"\u5e73\u621011\u5e74\u5ea6 19\u53f7\u5730\u8cea\u8abf\u67fb","client_name":"\u56fd\u571f\u4ea4\u901a\u7701\u4e2d\u90e8\u5730\u65b9\u6574\u5099\u5c40\u98ef\u7530\u56fd\u9053\u4e8b\u52d9\u6240","boring_xml_url":40,"boring_view_url":1,"soilmap_view_url":null,"soiltest_xml_url":0,"soiltest_view_url":0},{"id":170823,"code":"B4KJ201801005-9072","latitude":"35.7934733","longitude":"137.6867267","source_code":"CB53375545027","project_name":"","survey_name":"\u5e73\u621011\u5e74\u5ea6 19\u53f7\u5730\u8cea\u8abf\u67fb","client_name":"\u56fd\u571f\u4ea4\u901a\u7701\u4e2d\u90e8\u5730\u65b9\u6574\u5099\u5c40\u98ef\u7530\u56fd\u9053\u4e8b\u52d9\u6240","boring_xml_url":40,"boring_view_url":1,"soilmap_view_url":null,"soiltest_xml_url":0,"soiltest_view_url":0},{"id":170822,"code":"B4KJ201801005-9071","latitude":"35.7935844","longitude":"137.6869489","source_code":"CB53375545026","project_name":"","survey_name":"\u5e73\u621011\u5e74\u5ea6 19\u53f7\u5730\u8cea\u8abf\u67fb","client_name":"\u56fd\u571f\u4ea4\u901a\u7701\u4e2d\u90e8\u5730\u65b9\u6574\u5099\u5c40\u98ef\u7530\u56fd\u9053\u4e8b\u52d9\u6240","boring_xml_url":40,"boring_view_url":1,"soilmap_view_url":null,"soiltest_xml_url":0,"soiltest_view_url":0},{"id":170821,"code":"B4KJ201801005-9070","latitude":"35.79314","longitude":"137.6881711","source_code":"CB53375545025","project_name":"","survey_name":"\u5e73\u621011\u5e74\u5ea6 19\u53f7\u5730\u8cea\u8abf\u67fb","client_name":"\u56fd\u571f\u4ea4\u901a\u7701\u4e2d\u90e8\u5730\u65b9\u6574\u5099\u5c40\u98ef\u7530\u56fd\u9053\u4e8b\u52d9\u6240","boring_xml_url":40,"boring_view_url":1,"soilmap_view_url":null,"soiltest_xml_url":0,"soiltest_view_url":0},{"id":170820,"code":"B4KJ201801005-9069","latitude":"35.7929456","longitude":"137.6881433","source_code":"CB53375545006","project_name":"","survey_name":"\u5e73\u62109\u5e74\u5ea6 19\u53f7\u5730\u8cea\u8abf\u67fb","client_name":"\u56fd\u571f\u4ea4\u901a\u7701\u4e2d\u90e8\u5730\u65b9\u6574\u5099\u5c40\u98ef\u7530\u56fd\u9053\u4e8b\u52d9\u6240","boring_xml_url":40,"boring_view_url":1,"soilmap_view_url":null,"soiltest_xml_url":0,"soiltest_view_url":0},{"id":170819,"code":"B4KJ201801005-9068","latitude":"35.7922792","longitude":"137.6903653","source_code":"CB53375545005","project_name":"","survey_name":"\u5e73\u62109\u5e74\u5ea6 19\u53f7\u5730\u8cea\u8abf\u67fb","client_name":"\u56fd\u571f\u4ea4\u901a\u7701\u4e2d\u90e8\u5730\u65b9\u6574\u5099\u5c40\u98ef\u7530\u56fd\u9053\u4e8b\u52d9\u6240","boring_xml_url":40,"boring_view_url":1,"soilmap_view_url":null,"soiltest_xml_url":0,"soiltest_view_url":0},{"id":170818,"code":"B4KJ201801005-9067","latitude":"35.7920569","longitude":"137.6906431","source_code":"CB53375545004","project_name":"","survey_name":"\u5e73\u62109\u5e74\u5ea6 19\u53f7\u5730\u8cea\u8abf\u67fb","client_name":"\u56fd\u571f\u4ea4\u901a\u7701\u4e2d\u90e8\u5730\u65b9\u6574\u5099\u5c40\u98ef\u7530\u56fd\u9053\u4e8b\u52d9\u6240","boring_xml_url":40,"boring_view_url":1,"soilmap_view_url":null,"soiltest_xml_url":0,"soiltest_view_url":0},{"id":170817,"code":"B4KJ201801005-9066","latitude":"35.7918347","longitude":"137.6909764","source_code":"CB53375545003","project_name":"","survey_name":"\u5e73\u62109\u5e74\u5ea6 19\u53f7\u5730\u8cea\u8abf\u67fb","client_name":"\u56fd\u571f\u4ea4\u901a\u7701\u4e2d\u90e8\u5730\u65b9\u6574\u5099\u5c40\u98ef\u7530\u56fd\u9053\u4e8b\u52d9\u6240","boring_xml_url":40,"boring_view_url":1,"soilmap_view_url":null,"soiltest_xml_url":0,"soiltest_view_url":0},{"id":170816,"code":"B4KJ201801005-9065","latitude":"35.7927789","longitude":"137.6866989","source_code":"CB53375545002","project_name":"","survey_name":"\u5e73\u62109\u5e74\u5ea6 19\u53f7\u5730\u8cea\u8abf\u67fb","client_name":"\u56fd\u571f\u4ea4\u901a\u7701\u4e2d\u90e8\u5730\u65b9\u6574\u5099\u5c40\u98ef\u7530\u56fd\u9053\u4e8b\u52d9\u6240","boring_xml_url":40,"boring_view_url":1,"soilmap_view_url":null,"soiltest_xml_url":0,"soiltest_view_url":0}]}}