{"header":{"xyz":{"source":[],"mosaic":false},"page":4994,"raw":{"soiltest_result":"0","bbox":"57.598333,109.544722,1.933333,163.806111","page":"4994"},"conditions":{"soiltest_result":0,"north":57.598333,"west":109.544722,"south":1.933333,"east":163.806111},"success":true,"message":""},"data":{"meta":{"total":212844,"page":4994,"pages":7095,"count":30},"values":[{"id":170755,"code":"B4KJ201801005-9004","latitude":"35.6989156","longitude":"137.1717197","source_code":"CB53374133002","project_name":"","survey_name":"\u5e73\u62104\u5e74\u5ea6\u4e2d\u5207\u9632\u707d\u4ed62\u4ef6\u6e2c\u91cf\u8a2d\u8a08\u696d\u52d9\u59d4\u8a17","client_name":"\u56fd\u571f\u4ea4\u901a\u7701\u4e2d\u90e8\u5730\u65b9\u6574\u5099\u5c40\u5c90\u961c\u56fd\u9053\u4e8b\u52d9\u6240","boring_xml_url":40,"boring_view_url":1,"soilmap_view_url":null,"soiltest_xml_url":0,"soiltest_view_url":0},{"id":170754,"code":"B4KJ201801005-9003","latitude":"35.6979714","longitude":"137.1712197","source_code":"CB53374133001","project_name":"","survey_name":"\u5e73\u62104\u5e74\u5ea6\u4e2d\u5207\u9632\u707d\u4ed62\u4ef6\u6e2c\u91cf\u8a2d\u8a08\u696d\u52d9\u59d4\u8a17","client_name":"\u56fd\u571f\u4ea4\u901a\u7701\u4e2d\u90e8\u5730\u65b9\u6574\u5099\u5c40\u5c90\u961c\u56fd\u9053\u4e8b\u52d9\u6240","boring_xml_url":40,"boring_view_url":1,"soilmap_view_url":null,"soiltest_xml_url":0,"soiltest_view_url":0},{"id":170753,"code":"B4KJ201801005-9002","latitude":"35.6726964","longitude":"137.1653878","source_code":"CB53374103003","project_name":"","survey_name":"\u5e73\u62104\u5e74\u5ea641\u53f7\u4e0b\u539f\u6539\u826f\u5730\u8cea\u8abf\u67fb","client_name":"\u56fd\u571f\u4ea4\u901a\u7701\u4e2d\u90e8\u5730\u65b9\u6574\u5099\u5c40\u5c90\u961c\u56fd\u9053\u4e8b\u52d9\u6240","boring_xml_url":40,"boring_view_url":1,"soilmap_view_url":null,"soiltest_xml_url":0,"soiltest_view_url":0},{"id":170752,"code":"B4KJ201801005-9001","latitude":"35.6725297","longitude":"137.1653878","source_code":"CB53374103002","project_name":"","survey_name":"\u5e73\u62104\u5e74\u5ea641\u53f7\u4e0b\u539f\u6539\u826f\u5730\u8cea\u8abf\u67fb","client_name":"\u56fd\u571f\u4ea4\u901a\u7701\u4e2d\u90e8\u5730\u65b9\u6574\u5099\u5c40\u5c90\u961c\u56fd\u9053\u4e8b\u52d9\u6240","boring_xml_url":40,"boring_view_url":1,"soilmap_view_url":null,"soiltest_xml_url":0,"soiltest_view_url":0},{"id":170751,"code":"B4KJ201801005-9000","latitude":"35.6723353","longitude":"137.1653878","source_code":"CB53374103001","project_name":"","survey_name":"\u5e73\u62104\u5e74\u5ea641\u53f7\u4e0b\u539f\u6539\u826f\u5730\u8cea\u8abf\u67fb","client_name":"\u56fd\u571f\u4ea4\u901a\u7701\u4e2d\u90e8\u5730\u65b9\u6574\u5099\u5c40\u5c90\u961c\u56fd\u9053\u4e8b\u52d9\u6240","boring_xml_url":40,"boring_view_url":1,"soilmap_view_url":null,"soiltest_xml_url":0,"soiltest_view_url":0},{"id":170750,"code":"B4KJ201801005-8999","latitude":"35.6564119","longitude":"137.9397656","source_code":"CB53373785001","project_name":"","survey_name":"\u98ef\u5cf6\u753a\u672c\u90f7\u5730\u5148\u5730\u8cea\u8abf\u67fb","client_name":"\u56fd\u571f\u4ea4\u901a\u7701\u4e2d\u90e8\u5730\u65b9\u6574\u5099\u5c40\u98ef\u7530\u56fd\u9053\u4e8b\u52d9\u6240","boring_xml_url":40,"boring_view_url":1,"soilmap_view_url":null,"soiltest_xml_url":0,"soiltest_view_url":0},{"id":170749,"code":"B4KJ201801005-8998","latitude":"35.6073633","longitude":"137.9906797","source_code":"CB53373729004","project_name":"","survey_name":"\u662d\u548c55\u5e74\u5ea6\u5c0f\u6e0b\u30c0\u30e0\u8caf\u6c34\u6c60\u5806\u7a4d\u571f\u7802\u8abf\u67fb","client_name":"\u56fd\u571f\u4ea4\u901a\u7701\u4e2d\u90e8\u5730\u65b9\u6574\u5099\u5c40\u5929\u7adc\u5ddd\u30c0\u30e0\u7d71\u5408\u7ba1\u7406\u4e8b\u52d9\u6240","boring_xml_url":40,"boring_view_url":1,"soilmap_view_url":null,"soiltest_xml_url":0,"soiltest_view_url":0},{"id":170748,"code":"B4KJ201801005-8997","latitude":"35.6068081","longitude":"137.9944294","source_code":"CB53373729003","project_name":"","survey_name":"\u662d\u548c55\u5e74\u5ea6\u5c0f\u6e0b\u30c0\u30e0\u8caf\u6c34\u6c60\u5806\u7a4d\u571f\u7802\u8abf\u67fb","client_name":"\u56fd\u571f\u4ea4\u901a\u7701\u4e2d\u90e8\u5730\u65b9\u6574\u5099\u5c40\u5929\u7adc\u5ddd\u30c0\u30e0\u7d71\u5408\u7ba1\u7406\u4e8b\u52d9\u6240","boring_xml_url":40,"boring_view_url":1,"soilmap_view_url":null,"soiltest_xml_url":0,"soiltest_view_url":0},{"id":170747,"code":"B4KJ201801005-8996","latitude":"35.6073633","longitude":"137.9906797","source_code":"CB53373729002","project_name":"","survey_name":"\u662d\u548c55\u5e74\u5ea6.\u5c0f\u6e0b\u30c0\u30e0\u8caf\u6c34\u6c60\u5806\u7a4d\u571f\u7802\u8abf\u67fb","client_name":"\u56fd\u571f\u4ea4\u901a\u7701\u4e2d\u90e8\u5730\u65b9\u6574\u5099\u5c40\u5929\u7adc\u5ddd\u30c0\u30e0\u7d71\u5408\u7ba1\u7406\u4e8b\u52d9\u6240","boring_xml_url":40,"boring_view_url":1,"soilmap_view_url":null,"soiltest_xml_url":0,"soiltest_view_url":0},{"id":170746,"code":"B4KJ201801005-8995","latitude":"35.6073633","longitude":"137.9906797","source_code":"CB53373729001","project_name":"","survey_name":"\u662d\u548c55\u5e74\u5ea6.\u5c0f\u6e0b\u30c0\u30e0\u8caf\u6c34\u6c60\u5806\u7a4d\u571f\u7802\u8abf\u67fb","client_name":"\u56fd\u571f\u4ea4\u901a\u7701\u4e2d\u90e8\u5730\u65b9\u6574\u5099\u5c40\u5929\u7adc\u5ddd\u30c0\u30e0\u7d71\u5408\u7ba1\u7406\u4e8b\u52d9\u6240","boring_xml_url":40,"boring_view_url":1,"soilmap_view_url":null,"soiltest_xml_url":0,"soiltest_view_url":0},{"id":170745,"code":"B4KJ201801005-8994","latitude":"35.6099739","longitude":"137.9829025","source_code":"CB53373728001","project_name":"","survey_name":"\u662d\u548c55\u5e74\u5ea6.\u5c0f\u6e0b\u30c0\u30e0\u8caf\u6c34\u6c60\u5806\u7a4d\u571f\u7802\u8abf\u67fb","client_name":"\u56fd\u571f\u4ea4\u901a\u7701\u4e2d\u90e8\u5730\u65b9\u6574\u5099\u5c40\u5929\u7adc\u5ddd\u30c0\u30e0\u7d71\u5408\u7ba1\u7406\u4e8b\u52d9\u6240","boring_xml_url":40,"boring_view_url":1,"soilmap_view_url":null,"soiltest_xml_url":0,"soiltest_view_url":0},{"id":170744,"code":"B4KJ201801005-8993","latitude":"35.5871969","longitude":"137.9129372","source_code":"CB53373703010","project_name":"","survey_name":"\u897f\u718a\u5802\u5730\u533a\u5730\u8cea\u8abf\u67fb","client_name":"\u56fd\u571f\u4ea4\u901a\u7701\u4e2d\u90e8\u5730\u65b9\u6574\u5099\u5c40\u6cbc\u6d25\u6cb3\u5ddd\u56fd\u9053\u4e8b\u52d9\u6240","boring_xml_url":40,"boring_view_url":1,"soilmap_view_url":null,"soiltest_xml_url":0,"soiltest_view_url":0},{"id":170743,"code":"B4KJ201801005-8992","latitude":"35.5880025","longitude":"137.9125761","source_code":"CB53373703009","project_name":"","survey_name":"\u897f\u718a\u5802\u5730\u533a\u5730\u8cea\u8abf\u67fb","client_name":"\u56fd\u571f\u4ea4\u901a\u7701\u4e2d\u90e8\u5730\u65b9\u6574\u5099\u5c40\u6cbc\u6d25\u6cb3\u5ddd\u56fd\u9053\u4e8b\u52d9\u6240","boring_xml_url":40,"boring_view_url":1,"soilmap_view_url":null,"soiltest_xml_url":0,"soiltest_view_url":0},{"id":170742,"code":"B4KJ201801005-8991","latitude":"35.5895856","longitude":"137.9130483","source_code":"CB53373703008","project_name":"","survey_name":"\u897f\u718a\u5802\u5730\u533a\u5730\u8cea\u8abf\u67fb","client_name":"\u56fd\u571f\u4ea4\u901a\u7701\u4e2d\u90e8\u5730\u65b9\u6574\u5099\u5c40\u6cbc\u6d25\u6cb3\u5ddd\u56fd\u9053\u4e8b\u52d9\u6240","boring_xml_url":40,"boring_view_url":1,"soilmap_view_url":null,"soiltest_xml_url":0,"soiltest_view_url":0},{"id":170741,"code":"B4KJ201801005-8990","latitude":"35.5900578","longitude":"137.9135203","source_code":"CB53373703007","project_name":"","survey_name":"\u897f\u718a\u5802\u5730\u533a\u5730\u8cea\u8abf\u67fb","client_name":"\u56fd\u571f\u4ea4\u901a\u7701\u4e2d\u90e8\u5730\u65b9\u6574\u5099\u5c40\u6cbc\u6d25\u6cb3\u5ddd\u56fd\u9053\u4e8b\u52d9\u6240","boring_xml_url":40,"boring_view_url":1,"soilmap_view_url":null,"soiltest_xml_url":0,"soiltest_view_url":0},{"id":170740,"code":"B4KJ201801005-8989","latitude":"35.58978","longitude":"137.9136036","source_code":"CB53373703006","project_name":"","survey_name":"\u897f\u718a\u5802\u5730\u533a\u5730\u8cea\u8abf\u67fb","client_name":"\u56fd\u571f\u4ea4\u901a\u7701\u4e2d\u90e8\u5730\u65b9\u6574\u5099\u5c40\u6cbc\u6d25\u6cb3\u5ddd\u56fd\u9053\u4e8b\u52d9\u6240","boring_xml_url":40,"boring_view_url":1,"soilmap_view_url":null,"soiltest_xml_url":0,"soiltest_view_url":0},{"id":170739,"code":"B4KJ201801005-8988","latitude":"35.5891692","longitude":"137.9131594","source_code":"CB53373703005","project_name":"","survey_name":"\u897f\u718a\u5802\u5730\u533a\u5730\u8cea\u8abf\u67fb","client_name":"\u56fd\u571f\u4ea4\u901a\u7701\u4e2d\u90e8\u5730\u65b9\u6574\u5099\u5c40\u6cbc\u6d25\u6cb3\u5ddd\u56fd\u9053\u4e8b\u52d9\u6240","boring_xml_url":40,"boring_view_url":1,"soilmap_view_url":null,"soiltest_xml_url":0,"soiltest_view_url":0},{"id":170738,"code":"B4KJ201801005-8987","latitude":"35.5886692","longitude":"137.9131039","source_code":"CB53373703004","project_name":"","survey_name":"\u897f\u718a\u5802\u5730\u533a\u5730\u8cea\u8abf\u67fb","client_name":"\u56fd\u571f\u4ea4\u901a\u7701\u4e2d\u90e8\u5730\u65b9\u6574\u5099\u5c40\u6cbc\u6d25\u6cb3\u5ddd\u56fd\u9053\u4e8b\u52d9\u6240","boring_xml_url":40,"boring_view_url":1,"soilmap_view_url":null,"soiltest_xml_url":0,"soiltest_view_url":0},{"id":170737,"code":"B4KJ201801005-8986","latitude":"35.5881136","longitude":"137.9130761","source_code":"CB53373703003","project_name":"","survey_name":"\u897f\u718a\u5802\u5730\u533a\u5730\u8cea\u8abf\u67fb","client_name":"\u56fd\u571f\u4ea4\u901a\u7701\u4e2d\u90e8\u5730\u65b9\u6574\u5099\u5c40\u6cbc\u6d25\u6cb3\u5ddd\u56fd\u9053\u4e8b\u52d9\u6240","boring_xml_url":40,"boring_view_url":1,"soilmap_view_url":null,"soiltest_xml_url":0,"soiltest_view_url":0},{"id":170736,"code":"B4KJ201801005-8985","latitude":"35.5876692","longitude":"137.9130761","source_code":"CB53373703002","project_name":"","survey_name":"\u897f\u718a\u5802\u5730\u533a\u5730\u8cea\u8abf\u67fb","client_name":"\u56fd\u571f\u4ea4\u901a\u7701\u4e2d\u90e8\u5730\u65b9\u6574\u5099\u5c40\u6cbc\u6d25\u6cb3\u5ddd\u56fd\u9053\u4e8b\u52d9\u6240","boring_xml_url":40,"boring_view_url":1,"soilmap_view_url":null,"soiltest_xml_url":0,"soiltest_view_url":0},{"id":170735,"code":"B4KJ201801005-8984","latitude":"35.6411","longitude":"137.614183","source_code":"CB53373469004","project_name":"","survey_name":"\u662d\u548c63\u5e74\u5ea619\u53f7\u5411\u5409\u7530\u5730\u533a\u59162\u4ef6\u5730\u8cea\u8abf\u67fb","client_name":"\u56fd\u571f\u4ea4\u901a\u7701\u4e2d\u90e8\u5730\u65b9\u6574\u5099\u5c40\u98ef\u7530\u56fd\u9053\u4e8b\u52d9\u6240","boring_xml_url":40,"boring_view_url":1,"soilmap_view_url":null,"soiltest_xml_url":0,"soiltest_view_url":0},{"id":170734,"code":"B4KJ201801005-8983","latitude":"35.640128","longitude":"137.613489","source_code":"CB53373469003","project_name":"","survey_name":"\u662d\u548c63\u5e74\u5ea619\u53f7\u5411\u5409\u7530\u5730\u533a\u59162\u4ef6\u5730\u8cea\u8abf\u67fb","client_name":"\u56fd\u571f\u4ea4\u901a\u7701\u4e2d\u90e8\u5730\u65b9\u6574\u5099\u5c40\u98ef\u7530\u56fd\u9053\u4e8b\u52d9\u6240","boring_xml_url":40,"boring_view_url":1,"soilmap_view_url":null,"soiltest_xml_url":0,"soiltest_view_url":0},{"id":170733,"code":"B4KJ201801005-8982","latitude":"35.6391558","longitude":"137.6139056","source_code":"CB53373469002","project_name":"","survey_name":"\u662d\u548c63\u5e74\u5ea619\u53f7\u5411\u5409\u7530\u5730\u533a\u59162\u4ef6\u5730\u8cea\u8abf\u67fb","client_name":"\u56fd\u571f\u4ea4\u901a\u7701\u4e2d\u90e8\u5730\u65b9\u6574\u5099\u5c40\u98ef\u7530\u56fd\u9053\u4e8b\u52d9\u6240","boring_xml_url":40,"boring_view_url":1,"soilmap_view_url":null,"soiltest_xml_url":0,"soiltest_view_url":0},{"id":170732,"code":"B4KJ201801005-8981","latitude":"35.6384614","longitude":"137.6146","source_code":"CB53373469001","project_name":"","survey_name":"\u662d\u548c63\u5e74\u5ea619\u53f7\u5411\u5409\u7530\u5730\u533a\u59162\u4ef6\u5730\u8cea\u8abf\u67fb","client_name":"\u56fd\u571f\u4ea4\u901a\u7701\u4e2d\u90e8\u5730\u65b9\u6574\u5099\u5c40\u98ef\u7530\u56fd\u9053\u4e8b\u52d9\u6240","boring_xml_url":40,"boring_view_url":1,"soilmap_view_url":null,"soiltest_xml_url":0,"soiltest_view_url":0},{"id":170731,"code":"B4KJ201801005-8980","latitude":"35.5881892","longitude":"137.6061306","source_code":"CB53373408007","project_name":"","survey_name":"\u5e73\u62105\u5e74\u5ea6\u68e7\u6ca2\u7b2c1\u7802\u9632\u30c0\u30e0\u59162\u4ef6\u5730\u8cea\u8abf\u67fb","client_name":"\u56fd\u571f\u4ea4\u901a\u7701\u4e2d\u90e8\u5730\u65b9\u6574\u5099\u5c40\u591a\u6cbb\u898b\u7802\u9632\u56fd\u9053\u4e8b\u52d9\u6240","boring_xml_url":40,"boring_view_url":1,"soilmap_view_url":null,"soiltest_xml_url":0,"soiltest_view_url":0},{"id":170730,"code":"B4KJ201801005-8979","latitude":"35.5881892","longitude":"137.6061306","source_code":"CB53373408006","project_name":"","survey_name":"\u5e73\u62105\u5e74\u5ea6\u68e7\u6ca2\u7b2c1\u7802\u9632\u30c0\u30e0\u59162\u4ef6\u5730\u8cea\u8abf\u67fb","client_name":"\u56fd\u571f\u4ea4\u901a\u7701\u4e2d\u90e8\u5730\u65b9\u6574\u5099\u5c40\u591a\u6cbb\u898b\u7802\u9632\u56fd\u9053\u4e8b\u52d9\u6240","boring_xml_url":40,"boring_view_url":1,"soilmap_view_url":null,"soiltest_xml_url":0,"soiltest_view_url":0},{"id":170729,"code":"B4KJ201801005-8978","latitude":"35.5881892","longitude":"137.6061306","source_code":"CB53373408005","project_name":"","survey_name":"\u5e73\u62105\u5e74\u5ea6\u68e7\u6ca2\u7b2c1\u7802\u9632\u30c0\u30e0\u59162\u4ef6\u5730\u8cea\u8abf\u67fb","client_name":"\u56fd\u571f\u4ea4\u901a\u7701\u4e2d\u90e8\u5730\u65b9\u6574\u5099\u5c40\u591a\u6cbb\u898b\u7802\u9632\u56fd\u9053\u4e8b\u52d9\u6240","boring_xml_url":40,"boring_view_url":1,"soilmap_view_url":null,"soiltest_xml_url":0,"soiltest_view_url":0},{"id":170728,"code":"B4KJ201801005-8977","latitude":"35.5881892","longitude":"137.6061306","source_code":"CB53373408004","project_name":"","survey_name":"\u5e73\u62105\u5e74\u5ea6\u68e7\u6ca2\u7b2c1\u7802\u9632\u30c0\u30e0\u59162\u4ef6\u5730\u8cea\u8abf\u67fb","client_name":"\u56fd\u571f\u4ea4\u901a\u7701\u4e2d\u90e8\u5730\u65b9\u6574\u5099\u5c40\u591a\u6cbb\u898b\u7802\u9632\u56fd\u9053\u4e8b\u52d9\u6240","boring_xml_url":40,"boring_view_url":1,"soilmap_view_url":null,"soiltest_xml_url":0,"soiltest_view_url":0},{"id":170727,"code":"B4KJ201801005-8976","latitude":"35.5881892","longitude":"137.6061306","source_code":"CB53373408003","project_name":"","survey_name":"\u5e73\u62105\u5e74\u5ea6\u68e7\u6ca2\u7b2c1\u7802\u9632\u30c0\u30e0\u59162\u4ef6\u5730\u8cea\u8abf\u67fb","client_name":"\u56fd\u571f\u4ea4\u901a\u7701\u4e2d\u90e8\u5730\u65b9\u6574\u5099\u5c40\u591a\u6cbb\u898b\u7802\u9632\u56fd\u9053\u4e8b\u52d9\u6240","boring_xml_url":40,"boring_view_url":1,"soilmap_view_url":null,"soiltest_xml_url":0,"soiltest_view_url":0},{"id":170726,"code":"B4KJ201801005-8975","latitude":"35.5881892","longitude":"137.6061306","source_code":"CB53373408002","project_name":"","survey_name":"\u5e73\u62105\u5e74\u5ea6\u68e7\u6ca2\u7b2c1\u7802\u9632\u30c0\u30e0\u59162\u4ef6\u5730\u8cea\u8abf\u67fb","client_name":"\u56fd\u571f\u4ea4\u901a\u7701\u4e2d\u90e8\u5730\u65b9\u6574\u5099\u5c40\u591a\u6cbb\u898b\u7802\u9632\u56fd\u9053\u4e8b\u52d9\u6240","boring_xml_url":40,"boring_view_url":1,"soilmap_view_url":null,"soiltest_xml_url":0,"soiltest_view_url":0}]}}