{"header":{"xyz":{"source":[],"mosaic":false},"page":502,"raw":{"soiltest_result":"0","bbox":"57.598333,109.544722,1.933333,163.806111","page":"502"},"conditions":{"soiltest_result":0,"north":57.598333,"west":109.544722,"south":1.933333,"east":163.806111},"success":true,"message":""},"data":{"meta":{"total":212844,"page":502,"pages":7095,"count":30},"values":[{"id":530358,"code":"B4KJ202201003-2894","latitude":"31.978333","longitude":"131.3425","source_code":"QS20098965400200070003","project_name":"","survey_name":"\u5409\u91ce\u5730\u533a\u5730\u8cea\u53ca\u3073\u5730\u4e0b\u6c34\u8abf\u67fb\uff082\u5de5\u533a\uff09\u696d\u52d9","client_name":"\u56fd\u571f\u4ea4\u901a\u7701\u4e5d\u5dde\u5730\u65b9\u6574\u5099\u5c40\u5bae\u5d0e\u6cb3\u5ddd\u56fd\u9053\u4e8b\u52d9\u6240","boring_xml_url":72,"boring_view_url":1,"soilmap_view_url":null,"soiltest_xml_url":0,"soiltest_view_url":0},{"id":530357,"code":"B4KJ202201003-2893","latitude":"31.978333","longitude":"131.3425","source_code":"QS20098965400200070002","project_name":"","survey_name":"\u5409\u91ce\u5730\u533a\u5730\u8cea\u53ca\u3073\u5730\u4e0b\u6c34\u8abf\u67fb\uff082\u5de5\u533a\uff09\u696d\u52d9","client_name":"\u56fd\u571f\u4ea4\u901a\u7701\u4e5d\u5dde\u5730\u65b9\u6574\u5099\u5c40\u5bae\u5d0e\u6cb3\u5ddd\u56fd\u9053\u4e8b\u52d9\u6240","boring_xml_url":72,"boring_view_url":1,"soilmap_view_url":null,"soiltest_xml_url":0,"soiltest_view_url":0},{"id":530356,"code":"B4KJ202201003-2892","latitude":"31.978333","longitude":"131.3425","source_code":"QS20098965400200070001","project_name":"","survey_name":"\u5409\u91ce\u5730\u533a\u5730\u8cea\u53ca\u3073\u5730\u4e0b\u6c34\u8abf\u67fb\uff082\u5de5\u533a\uff09\u696d\u52d9","client_name":"\u56fd\u571f\u4ea4\u901a\u7701\u4e5d\u5dde\u5730\u65b9\u6574\u5099\u5c40\u5bae\u5d0e\u6cb3\u5ddd\u56fd\u9053\u4e8b\u52d9\u6240","boring_xml_url":72,"boring_view_url":1,"soilmap_view_url":null,"soiltest_xml_url":0,"soiltest_view_url":0},{"id":530355,"code":"B4KJ202201003-2891","latitude":"31.977778","longitude":"131.338056","source_code":"QS20098965400200060001","project_name":"","survey_name":"\u5409\u91ce\u5730\u533a\u5730\u8cea\u53ca\u3073\u5730\u4e0b\u6c34\u8abf\u67fb\uff081\u5de5\u533a\uff09\u696d\u52d9","client_name":"\u56fd\u571f\u4ea4\u901a\u7701\u4e5d\u5dde\u5730\u65b9\u6574\u5099\u5c40\u5bae\u5d0e\u6cb3\u5ddd\u56fd\u9053\u4e8b\u52d9\u6240","boring_xml_url":72,"boring_view_url":1,"soilmap_view_url":null,"soiltest_xml_url":0,"soiltest_view_url":0},{"id":530354,"code":"B4KJ202201003-2890","latitude":"32.957917","longitude":"130.767833","source_code":"QS20088953670200090012","project_name":"\u83ca\u6c60\u5ddd\u4e0a\u6d41\u5824\u9632\u8a73\u7d30\u70b9\u691c\u691c\u8a0e\u696d\u52d9","survey_name":"\u83ca\u6c60\u5ddd\u4e0a\u6d41\u5824\u9632\u8a73\u7d30\u70b9\u691c\u691c\u8a0e\u696d\u52d9","client_name":"\u83ca\u6c60\u5ddd\u6cb3\u5ddd\u4e8b\u52d9\u6240","boring_xml_url":72,"boring_view_url":1,"soilmap_view_url":null,"soiltest_xml_url":0,"soiltest_view_url":0},{"id":530353,"code":"B4KJ202201003-2889","latitude":"32.958","longitude":"130.767889","source_code":"QS20088953670200090011","project_name":"\u83ca\u6c60\u5ddd\u4e0a\u6d41\u5824\u9632\u8a73\u7d30\u70b9\u691c\u691c\u8a0e\u696d\u52d9","survey_name":"\u83ca\u6c60\u5ddd\u4e0a\u6d41\u5824\u9632\u8a73\u7d30\u70b9\u691c\u691c\u8a0e\u696d\u52d9","client_name":"\u83ca\u6c60\u5ddd\u6cb3\u5ddd\u4e8b\u52d9\u6240","boring_xml_url":72,"boring_view_url":1,"soilmap_view_url":null,"soiltest_xml_url":0,"soiltest_view_url":0},{"id":530352,"code":"B4KJ202201003-2888","latitude":"32.985278","longitude":"130.731167","source_code":"QS20088953670200090010","project_name":"\u83ca\u6c60\u5ddd\u4e0a\u6d41\u5824\u9632\u8a73\u7d30\u70b9\u691c\u691c\u8a0e\u696d\u52d9","survey_name":"\u83ca\u6c60\u5ddd\u4e0a\u6d41\u5824\u9632\u8a73\u7d30\u70b9\u691c\u691c\u8a0e\u696d\u52d9","client_name":"\u4e5d\u5dde\u5730\u65b9\u6574\u5099\u5c40\u3000\u83ca\u6c60\u5ddd\u6cb3\u5ddd\u4e8b\u52d9\u6240","boring_xml_url":72,"boring_view_url":1,"soilmap_view_url":null,"soiltest_xml_url":0,"soiltest_view_url":0},{"id":530351,"code":"B4KJ202201003-2887","latitude":"32.985333","longitude":"130.73125","source_code":"QS20088953670200090009","project_name":"\u83ca\u6c60\u5ddd\u4e0a\u6d41\u5824\u9632\u8a73\u7d30\u70b9\u691c\u691c\u8a0e\u696d\u52d9","survey_name":"\u83ca\u6c60\u5ddd\u4e0a\u6d41\u5824\u9632\u8a73\u7d30\u70b9\u691c\u691c\u8a0e\u696d\u52d9","client_name":"\u83ca\u6c60\u5ddd\u6cb3\u5ddd\u4e8b\u52d9\u6240","boring_xml_url":72,"boring_view_url":1,"soilmap_view_url":null,"soiltest_xml_url":0,"soiltest_view_url":0},{"id":530350,"code":"B4KJ202201003-2886","latitude":"32.956083","longitude":"130.784806","source_code":"QS20088953670200090008","project_name":"\u83ca\u6c60\u5ddd\u4e0a\u6d41\u5824\u9632\u8a73\u7d30\u70b9\u691c\u691c\u8a0e\u696d\u52d9","survey_name":"\u83ca\u6c60\u5ddd\u4e0a\u6d41\u5824\u9632\u8a73\u7d30\u70b9\u691c\u691c\u8a0e\u696d\u52d9","client_name":"\u83ca\u6c60\u5ddd\u6cb3\u5ddd\u4e8b\u52d9\u6240","boring_xml_url":72,"boring_view_url":1,"soilmap_view_url":null,"soiltest_xml_url":0,"soiltest_view_url":0},{"id":530349,"code":"B4KJ202201003-2885","latitude":"32.956","longitude":"130.784833","source_code":"QS20088953670200090007","project_name":"\u83ca\u6c60\u5ddd\u4e0a\u6d41\u5824\u9632\u8a73\u7d30\u70b9\u691c\u691c\u8a0e\u696d\u52d9","survey_name":"\u83ca\u6c60\u5ddd\u4e0a\u6d41\u5824\u9632\u8a73\u7d30\u70b9\u691c\u691c\u8a0e\u696d\u52d9","client_name":"\u83ca\u6c60\u5ddd\u6cb3\u5ddd\u4e8b\u52d9\u6240","boring_xml_url":72,"boring_view_url":1,"soilmap_view_url":null,"soiltest_xml_url":0,"soiltest_view_url":0},{"id":530348,"code":"B4KJ202201003-2884","latitude":"32.965722","longitude":"130.743556","source_code":"QS20088953670200090006","project_name":"\u83ca\u6c60\u5ddd\u4e0a\u6d41\u5824\u9632\u8a73\u7d30\u70b9\u691c\u691c\u8a0e\u696d\u52d9","survey_name":"\u83ca\u6c60\u5ddd\u4e0a\u6d41\u5824\u9632\u8a73\u7d30\u70b9\u691c\u691c\u8a0e\u696d\u52d9","client_name":"\u83ca\u6c60\u5ddd\u6cb3\u5ddd\u4e8b\u52d9\u6240","boring_xml_url":72,"boring_view_url":1,"soilmap_view_url":null,"soiltest_xml_url":0,"soiltest_view_url":0},{"id":530347,"code":"B4KJ202201003-2883","latitude":"32.965639","longitude":"130.743472","source_code":"QS20088953670200090005","project_name":"\u83ca\u6c60\u5ddd\u4e0a\u6d41\u5824\u9632\u8a73\u7d30\u70b9\u691c\u691c\u8a0e\u696d\u52d9","survey_name":"\u83ca\u6c60\u5ddd\u4e0a\u6d41\u5824\u9632\u8a73\u7d30\u70b9\u691c\u691c\u8a0e\u696d\u52d9","client_name":"\u83ca\u6c60\u5ddd\u6cb3\u5ddd\u4e8b\u52d9\u6240","boring_xml_url":72,"boring_view_url":1,"soilmap_view_url":null,"soiltest_xml_url":0,"soiltest_view_url":0},{"id":530346,"code":"B4KJ202201003-2882","latitude":"32.985556","longitude":"130.733417","source_code":"QS20088953670200090004","project_name":"\u83ca\u6c60\u5ddd\u4e0a\u6d41\u5824\u9632\u8a73\u7d30\u70b9\u691c\u691c\u8a0e\u696d\u52d9","survey_name":"\u83ca\u6c60\u5ddd\u4e0a\u6d41\u5824\u9632\u8a73\u7d30\u70b9\u691c\u691c\u8a0e\u696d\u52d9","client_name":"\u83ca\u6c60\u5ddd\u6cb3\u5ddd\u4e8b\u52d9\u6240","boring_xml_url":72,"boring_view_url":1,"soilmap_view_url":null,"soiltest_xml_url":0,"soiltest_view_url":0},{"id":530345,"code":"B4KJ202201003-2881","latitude":"32.9855","longitude":"130.733306","source_code":"QS20088953670200090003","project_name":"\u83ca\u6c60\u5ddd\u4e0a\u6d41\u5824\u9632\u8a73\u7d30\u70b9\u691c\u691c\u8a0e\u696d\u52d9","survey_name":"\u83ca\u6c60\u5ddd\u4e0a\u6d41\u5824\u9632\u8a73\u7d30\u70b9\u691c\u691c\u8a0e\u696d\u52d9","client_name":"\u83ca\u6c60\u5ddd\u6cb3\u5ddd\u4e8b\u52d9\u6240","boring_xml_url":72,"boring_view_url":1,"soilmap_view_url":null,"soiltest_xml_url":0,"soiltest_view_url":0},{"id":530344,"code":"B4KJ202201003-2880","latitude":"32.990639","longitude":"130.724444","source_code":"QS20088953670200090002","project_name":"\u83ca\u6c60\u5ddd\u4e0a\u6d41\u5824\u9632\u8a73\u7d30\u70b9\u691c\u691c\u8a0e\u696d\u52d9","survey_name":"\u83ca\u6c60\u5ddd\u4e0a\u6d41\u5824\u9632\u8a73\u7d30\u70b9\u691c\u691c\u8a0e\u696d\u52d9","client_name":"\u4e5d\u5dde\u5730\u65b9\u6574\u5099\u5c40\u3000\u83ca\u6c60\u5ddd\u6cb3\u5ddd\u4e8b\u52d9\u6240","boring_xml_url":72,"boring_view_url":1,"soilmap_view_url":null,"soiltest_xml_url":0,"soiltest_view_url":0},{"id":530343,"code":"B4KJ202201003-2879","latitude":"32.990556","longitude":"130.724361","source_code":"QS20088953670200090001","project_name":"\u83ca\u6c60\u5ddd\u4e0a\u6d41\u5824\u9632\u8a73\u7d30\u70b9\u691c\u691c\u8a0e\u696d\u52d9","survey_name":"\u83ca\u6c60\u5ddd\u4e0a\u6d41\u5824\u9632\u8a73\u7d30\u70b9\u691c\u691c\u8a0e\u696d\u52d9","client_name":"\u83ca\u6c60\u5ddd\u6cb3\u5ddd\u4e8b\u52d9\u6240","boring_xml_url":72,"boring_view_url":1,"soilmap_view_url":null,"soiltest_xml_url":0,"soiltest_view_url":0},{"id":530342,"code":"B4KJ202201003-2878","latitude":"33.3445","longitude":"130.537444","source_code":"QS068938011100600010","project_name":"\u9ce5\u6816\u4e45\u7559\u7c73\u9053\u8def\u5730\u8cea\u8abf\u67fb(\u305d\u306e1)\u696d\u52d9","survey_name":"\u9ce5\u6816\u4e45\u7559\u7c73\u9053\u8def\u5730\u8cea\u8abf\u67fb(\u305d\u306e1)\u696d\u52d9","client_name":"\"\u56fd\u571f\u4ea4\u901a\u7701 \u4e5d\u5dde\u5730\u65b9\u6574\u5099\u5c40 \u798f\u5ca1\u56fd\u9053\u4e8b\u52d9\u6240\"","boring_xml_url":68,"boring_view_url":1,"soilmap_view_url":null,"soiltest_xml_url":0,"soiltest_view_url":0},{"id":530341,"code":"B4KJ202201003-2877","latitude":"33.34225","longitude":"130.538694","source_code":"QS068938001100580013","project_name":"\u9ce5\u6816\u4e45\u7559\u7c73\u9053\u8def\u5730\u8cea\u8abf\u67fb(\u305d\u306e1)\u696d\u52d9","survey_name":"\u9ce5\u6816\u4e45\u7559\u7c73\u9053\u8def\u5730\u8cea\u8abf\u67fb(\u305d\u306e1)\u696d\u52d9","client_name":"\"\u56fd\u571f\u4ea4\u901a\u7701 \u4e5d\u5dde\u5730\u65b9\u6574\u5099\u5c40 \u798f\u5ca1\u56fd\u9053\u4e8b\u52d9\u6240\"","boring_xml_url":68,"boring_view_url":1,"soilmap_view_url":null,"soiltest_xml_url":0,"soiltest_view_url":0},{"id":530340,"code":"B4KJ202201003-2876","latitude":"33.342639","longitude":"130.5385","source_code":"QS068938001100580012","project_name":"\u9ce5\u6816\u4e45\u7559\u7c73\u9053\u8def\u5730\u8cea\u8abf\u67fb(\u305d\u306e1)\u696d\u52d9","survey_name":"\u9ce5\u6816\u4e45\u7559\u7c73\u9053\u8def\u5730\u8cea\u8abf\u67fb(\u305d\u306e1)\u696d\u52d9","client_name":"\"\u56fd\u571f\u4ea4\u901a\u7701 \u4e5d\u5dde\u5730\u65b9\u6574\u5099\u5c40 \u798f\u5ca1\u56fd\u9053\u4e8b\u52d9\u6240\"","boring_xml_url":68,"boring_view_url":1,"soilmap_view_url":null,"soiltest_xml_url":0,"soiltest_view_url":0},{"id":530339,"code":"B4KJ202201003-2875","latitude":"33.343694","longitude":"130.538194","source_code":"QS068938001100580011","project_name":"\u9ce5\u6816\u4e45\u7559\u7c73\u9053\u8def\u5730\u8cea\u8abf\u67fb(\u305d\u306e1)\u696d\u52d9","survey_name":"\u9ce5\u6816\u4e45\u7559\u7c73\u9053\u8def\u5730\u8cea\u8abf\u67fb(\u305d\u306e1)\u696d\u52d9","client_name":"\"\u56fd\u571f\u4ea4\u901a\u7701 \u4e5d\u5dde\u5730\u65b9\u6574\u5099\u5c40 \u798f\u5ca1\u56fd\u9053\u4e8b\u52d9\u6240\"","boring_xml_url":68,"boring_view_url":1,"soilmap_view_url":null,"soiltest_xml_url":0,"soiltest_view_url":0},{"id":530338,"code":"B4KJ202201003-2874","latitude":"33.345583","longitude":"130.536528","source_code":"QS068938001100580009","project_name":"\u9ce5\u6816\u4e45\u7559\u7c73\u9053\u8def\u5730\u8cea\u8abf\u67fb(\u305d\u306e1)\u696d\u52d9","survey_name":"\u9ce5\u6816\u4e45\u7559\u7c73\u9053\u8def\u5730\u8cea\u8abf\u67fb(\u305d\u306e1)\u696d\u52d9","client_name":"\"\u56fd\u571f\u4ea4\u901a\u7701 \u4e5d\u5dde\u5730\u65b9\u6574\u5099\u5c40 \u798f\u5ca1\u56fd\u9053\u4e8b\u52d9\u6240\"","boring_xml_url":68,"boring_view_url":1,"soilmap_view_url":null,"soiltest_xml_url":0,"soiltest_view_url":0},{"id":530337,"code":"B4KJ202201003-2873","latitude":"33.347361","longitude":"130.535611","source_code":"QS068938001100580008","project_name":"\u9ce5\u6816\u4e45\u7559\u7c73\u9053\u8def\u5730\u8cea\u8abf\u67fb(\u305d\u306e1)\u696d\u52d9","survey_name":"\u9ce5\u6816\u4e45\u7559\u7c73\u9053\u8def\u5730\u8cea\u8abf\u67fb(\u305d\u306e1)\u696d\u52d9","client_name":"\"\u56fd\u571f\u4ea4\u901a\u7701 \u4e5d\u5dde\u5730\u65b9\u6574\u5099\u5c40 \u798f\u5ca1\u56fd\u9053\u4e8b\u52d9\u6240\"","boring_xml_url":68,"boring_view_url":1,"soilmap_view_url":null,"soiltest_xml_url":0,"soiltest_view_url":0},{"id":530336,"code":"B4KJ202201003-2872","latitude":"33.347917","longitude":"130.534222","source_code":"QS068938001100580007","project_name":"\u9ce5\u6816\u4e45\u7559\u7c73\u9053\u8def\u5730\u8cea\u8abf\u67fb(\u305d\u306e1)\u696d\u52d9","survey_name":"\u9ce5\u6816\u4e45\u7559\u7c73\u9053\u8def\u5730\u8cea\u8abf\u67fb(\u305d\u306e1)\u696d\u52d9","client_name":"\"\u56fd\u571f\u4ea4\u901a\u7701 \u4e5d\u5dde\u5730\u65b9\u6574\u5099\u5c40 \u798f\u5ca1\u56fd\u9053\u4e8b\u52d9\u6240\"","boring_xml_url":68,"boring_view_url":1,"soilmap_view_url":null,"soiltest_xml_url":0,"soiltest_view_url":0},{"id":530335,"code":"B4KJ202201003-2871","latitude":"33.348056","longitude":"130.533361","source_code":"QS068938001100580006","project_name":"\u9ce5\u6816\u4e45\u7559\u7c73\u9053\u8def\u5730\u8cea\u8abf\u67fb(\u305d\u306e1)\u696d\u52d9","survey_name":"\u9ce5\u6816\u4e45\u7559\u7c73\u9053\u8def\u5730\u8cea\u8abf\u67fb(\u305d\u306e1)\u696d\u52d9","client_name":"\"\u56fd\u571f\u4ea4\u901a\u7701 \u4e5d\u5dde\u5730\u65b9\u6574\u5099\u5c40 \u798f\u5ca1\u56fd\u9053\u4e8b\u52d9\u6240\"","boring_xml_url":68,"boring_view_url":1,"soilmap_view_url":null,"soiltest_xml_url":0,"soiltest_view_url":0},{"id":530334,"code":"B4KJ202201003-2870","latitude":"33.348139","longitude":"130.532694","source_code":"QS068938001100580005","project_name":"\u9ce5\u6816\u4e45\u7559\u7c73\u9053\u8def\u5730\u8cea\u8abf\u67fb(\u305d\u306e1)\u696d\u52d9","survey_name":"\u9ce5\u6816\u4e45\u7559\u7c73\u9053\u8def\u5730\u8cea\u8abf\u67fb(\u305d\u306e1)\u696d\u52d9","client_name":"\"\u56fd\u571f\u4ea4\u901a\u7701 \u4e5d\u5dde\u5730\u65b9\u6574\u5099\u5c40 \u798f\u5ca1\u56fd\u9053\u4e8b\u52d9\u6240\"","boring_xml_url":68,"boring_view_url":1,"soilmap_view_url":null,"soiltest_xml_url":0,"soiltest_view_url":0},{"id":530333,"code":"B4KJ202201003-2869","latitude":"33.348722","longitude":"130.530861","source_code":"QS068938001100580004","project_name":"\u9ce5\u6816\u4e45\u7559\u7c73\u9053\u8def\u5730\u8cea\u8abf\u67fb(\u305d\u306e1)\u696d\u52d9","survey_name":"\u9ce5\u6816\u4e45\u7559\u7c73\u9053\u8def\u5730\u8cea\u8abf\u67fb(\u305d\u306e1)\u696d\u52d9","client_name":"\"\u56fd\u571f\u4ea4\u901a\u7701 \u4e5d\u5dde\u5730\u65b9\u6574\u5099\u5c40 \u798f\u5ca1\u56fd\u9053\u4e8b\u52d9\u6240\"","boring_xml_url":68,"boring_view_url":1,"soilmap_view_url":null,"soiltest_xml_url":0,"soiltest_view_url":0},{"id":530332,"code":"B4KJ202201003-2868","latitude":"33.349139","longitude":"130.528833","source_code":"QS068938001100580003","project_name":"\u9ce5\u6816\u4e45\u7559\u7c73\u9053\u8def\u5730\u8cea\u8abf\u67fb(\u305d\u306e1)\u696d\u52d9","survey_name":"\u9ce5\u6816\u4e45\u7559\u7c73\u9053\u8def\u5730\u8cea\u8abf\u67fb(\u305d\u306e1)\u696d\u52d9","client_name":"\"\u56fd\u571f\u4ea4\u901a\u7701 \u4e5d\u5dde\u5730\u65b9\u6574\u5099\u5c40 \u798f\u5ca1\u56fd\u9053\u4e8b\u52d9\u6240\"","boring_xml_url":68,"boring_view_url":1,"soilmap_view_url":null,"soiltest_xml_url":0,"soiltest_view_url":0},{"id":530331,"code":"B4KJ202201003-2867","latitude":"33.349333","longitude":"130.527972","source_code":"QS068938001100580002","project_name":"\u9ce5\u6816\u4e45\u7559\u7c73\u9053\u8def\u5730\u8cea\u8abf\u67fb(\u305d\u306e1)\u696d\u52d9","survey_name":"\u9ce5\u6816\u4e45\u7559\u7c73\u9053\u8def\u5730\u8cea\u8abf\u67fb(\u305d\u306e1)\u696d\u52d9","client_name":"\"\u56fd\u571f\u4ea4\u901a\u7701 \u4e5d\u5dde\u5730\u65b9\u6574\u5099\u5c40 \u798f\u5ca1\u56fd\u9053\u4e8b\u52d9\u6240\"","boring_xml_url":68,"boring_view_url":1,"soilmap_view_url":null,"soiltest_xml_url":0,"soiltest_view_url":0},{"id":530330,"code":"B4KJ202201003-2866","latitude":"33.349333","longitude":"130.527472","source_code":"QS068938001100580001","project_name":"\u9ce5\u6816\u4e45\u7559\u7c73\u9053\u8def\u5730\u8cea\u8abf\u67fb(\u305d\u306e1)\u696d\u52d9","survey_name":"\u9ce5\u6816\u4e45\u7559\u7c73\u9053\u8def\u5730\u8cea\u8abf\u67fb(\u305d\u306e1)\u696d\u52d9","client_name":"\"\u56fd\u571f\u4ea4\u901a\u7701 \u4e5d\u5dde\u5730\u65b9\u6574\u5099\u5c40 \u798f\u5ca1\u56fd\u9053\u4e8b\u52d9\u6240\"","boring_xml_url":68,"boring_view_url":1,"soilmap_view_url":null,"soiltest_xml_url":0,"soiltest_view_url":0},{"id":530329,"code":"B4KJ202201003-2865","latitude":"31.361861","longitude":"130.918028","source_code":"QS20088971600200090018","project_name":"\u809d\u5c5e\u5ddd\u5824\u9632\u8abf\u67fb(\u305d\u306e2)\u696d\u52d9","survey_name":"\u809d\u5c5e\u5ddd\u5824\u9632\u8abf\u67fb(\u305d\u306e2)\u696d\u52d9","client_name":"\u4e5d\u5dde\u5730\u65b9\u6574\u5099\u5c40\u3000\u5927\u9685\u6cb3\u5ddd\u56fd\u9053\u4e8b\u52d9\u6240\u3000\u8abf\u67fb\u7b2c\u4e00\u8ab2","boring_xml_url":72,"boring_view_url":1,"soilmap_view_url":null,"soiltest_xml_url":0,"soiltest_view_url":0}]}}