{"header":{"xyz":{"source":[],"mosaic":false},"page":5022,"raw":{"soiltest_result":"0","bbox":"57.598333,109.544722,1.933333,163.806111","page":"5022"},"conditions":{"soiltest_result":0,"north":57.598333,"west":109.544722,"south":1.933333,"east":163.806111},"success":true,"message":""},"data":{"meta":{"total":212844,"page":5022,"pages":7095,"count":30},"values":[{"id":169915,"code":"B4KJ201801005-8164","latitude":"35.4032814","longitude":"137.1198742","source_code":"CB53370089031","project_name":"","survey_name":"\u5e73\u62103\u5e74\u5ea6\u6771\u6d77\u74b0\u72b6\u81ea\u52d5\u8eca\u9053\u4e45\u3005\u5229\u5730\u533a\u30c8\u30f3\u30cd\u30eb\u5730\u8cea\u8abf\u67fb\u305d\u306e3","client_name":"\u56fd\u571f\u4ea4\u901a\u7701\u4e2d\u90e8\u5730\u65b9\u6574\u5099\u5c40\u591a\u6cbb\u898b\u7802\u9632\u56fd\u9053\u4e8b\u52d9\u6240","boring_xml_url":40,"boring_view_url":1,"soilmap_view_url":null,"soiltest_xml_url":0,"soiltest_view_url":0},{"id":169914,"code":"B4KJ201801005-8163","latitude":"35.4035869","longitude":"137.1201519","source_code":"CB53370089030","project_name":"","survey_name":"\u5e73\u62103\u5e74\u5ea6\u6771\u6d77\u74b0\u72b6\u81ea\u52d5\u8eca\u9053\u4e45\u3005\u5229\u5730\u533a\u30c8\u30f3\u30cd\u30eb\u5730\u8cea\u8abf\u67fb\u305d\u306e3","client_name":"\u56fd\u571f\u4ea4\u901a\u7701\u4e2d\u90e8\u5730\u65b9\u6574\u5099\u5c40\u591a\u6cbb\u898b\u7802\u9632\u56fd\u9053\u4e8b\u52d9\u6240","boring_xml_url":40,"boring_view_url":1,"soilmap_view_url":null,"soiltest_xml_url":0,"soiltest_view_url":0},{"id":169913,"code":"B4KJ201801005-8162","latitude":"35.4033092","longitude":"137.1205131","source_code":"CB53370089029","project_name":"","survey_name":"\u5e73\u62103\u5e74\u5ea6\u6771\u6d77\u74b0\u72b6\u81ea\u52d5\u8eca\u9053\u4e45\u3005\u5229\u5730\u533a\u30c8\u30f3\u30cd\u30eb\u5730\u8cea\u8abf\u67fb\u305d\u306e3","client_name":"\u56fd\u571f\u4ea4\u901a\u7701\u4e2d\u90e8\u5730\u65b9\u6574\u5099\u5c40\u591a\u6cbb\u898b\u7802\u9632\u56fd\u9053\u4e8b\u52d9\u6240","boring_xml_url":40,"boring_view_url":1,"soilmap_view_url":null,"soiltest_xml_url":0,"soiltest_view_url":0},{"id":169912,"code":"B4KJ201801005-8161","latitude":"35.4036147","longitude":"137.1193464","source_code":"CB53370089028","project_name":"","survey_name":"\u5e73\u62103\u5e74\u5ea6\u6771\u6d77\u74b0\u72b6\u81ea\u52d5\u8eca\u9053\u4e45\u3005\u5229\u5730\u533a\u30c8\u30f3\u30cd\u30eb\u5730\u8cea\u8abf\u67fb\u305d\u306e3","client_name":"\u56fd\u571f\u4ea4\u901a\u7701\u4e2d\u90e8\u5730\u65b9\u6574\u5099\u5c40\u591a\u6cbb\u898b\u7802\u9632\u56fd\u9053\u4e8b\u52d9\u6240","boring_xml_url":40,"boring_view_url":1,"soilmap_view_url":null,"soiltest_xml_url":0,"soiltest_view_url":0},{"id":169911,"code":"B4KJ201801005-8160","latitude":"35.4038647","longitude":"137.1196519","source_code":"CB53370089027","project_name":"","survey_name":"\u5e73\u62103\u5e74\u5ea6\u6771\u6d77\u74b0\u72b6\u81ea\u52d5\u8eca\u9053\u4e45\u3005\u5229\u5730\u533a\u30c8\u30f3\u30cd\u30eb\u5730\u8cea\u8abf\u67fb\u305d\u306e3","client_name":"\u56fd\u571f\u4ea4\u901a\u7701\u4e2d\u90e8\u5730\u65b9\u6574\u5099\u5c40\u591a\u6cbb\u898b\u7802\u9632\u56fd\u9053\u4e8b\u52d9\u6240","boring_xml_url":40,"boring_view_url":1,"soilmap_view_url":null,"soiltest_xml_url":0,"soiltest_view_url":0},{"id":169910,"code":"B4KJ201801005-8159","latitude":"35.4038647","longitude":"137.1193742","source_code":"CB53370089013","project_name":"","survey_name":"\u5e73\u62103\u5e74\u5ea6\u6771\u6d77\u74b0\u72b6\u81ea\u52d5\u8eca\u9053\u4e45\u3005\u5229\u5730\u533a\u30c8\u30f3\u30cd\u30eb\u5730\u8cea\u8abf\u67fb\u305d\u306e2","client_name":"\u56fd\u571f\u4ea4\u901a\u7701\u4e2d\u90e8\u5730\u65b9\u6574\u5099\u5c40\u591a\u6cbb\u898b\u7802\u9632\u56fd\u9053\u4e8b\u52d9\u6240","boring_xml_url":40,"boring_view_url":1,"soilmap_view_url":null,"soiltest_xml_url":0,"soiltest_view_url":0},{"id":169909,"code":"B4KJ201801005-8158","latitude":"35.4040314","longitude":"137.1196519","source_code":"CB53370089012","project_name":"","survey_name":"\u5e73\u62103\u5e74\u5ea6\u6771\u6d77\u74b0\u72b6\u81ea\u52d5\u8eca\u9053\u4e45\u3005\u5229\u5730\u533a\u30c8\u30f3\u30cd\u30eb\u5730\u8cea\u8abf\u67fb\u305d\u306e2","client_name":"\u56fd\u571f\u4ea4\u901a\u7701\u4e2d\u90e8\u5730\u65b9\u6574\u5099\u5c40\u591a\u6cbb\u898b\u7802\u9632\u56fd\u9053\u4e8b\u52d9\u6240","boring_xml_url":40,"boring_view_url":1,"soilmap_view_url":null,"soiltest_xml_url":0,"soiltest_view_url":0},{"id":169908,"code":"B4KJ201801005-8157","latitude":"35.4061978","longitude":"137.1170131","source_code":"CB53370089011","project_name":"","survey_name":"\u5e73\u62103\u5e74\u5ea6\u6771\u6d77\u74b0\u72b6\u81ea\u52d5\u8eca\u9053\u4e45\u3005\u5229\u5730\u533a\u30c8\u30f3\u30cd\u30eb\u5730\u8cea\u8abf\u67fb\u305d\u306e2","client_name":"\u56fd\u571f\u4ea4\u901a\u7701\u4e2d\u90e8\u5730\u65b9\u6574\u5099\u5c40\u591a\u6cbb\u898b\u7802\u9632\u56fd\u9053\u4e8b\u52d9\u6240","boring_xml_url":40,"boring_view_url":1,"soilmap_view_url":null,"soiltest_xml_url":0,"soiltest_view_url":0},{"id":169907,"code":"B4KJ201801005-8156","latitude":"35.4063086","longitude":"137.1174297","source_code":"CB53370089010","project_name":"","survey_name":"\u5e73\u62103\u5e74\u5ea6\u6771\u6d77\u74b0\u72b6\u81ea\u52d5\u8eca\u9053\u4e45\u3005\u5229\u5730\u533a\u30c8\u30f3\u30cd\u30eb\u5730\u8cea\u8abf\u67fb\u305d\u306e2","client_name":"\u56fd\u571f\u4ea4\u901a\u7701\u4e2d\u90e8\u5730\u65b9\u6574\u5099\u5c40\u591a\u6cbb\u898b\u7802\u9632\u56fd\u9053\u4e8b\u52d9\u6240","boring_xml_url":40,"boring_view_url":1,"soilmap_view_url":null,"soiltest_xml_url":0,"soiltest_view_url":0},{"id":169906,"code":"B4KJ201801005-8155","latitude":"35.4036981","longitude":"137.1197631","source_code":"CB53370089009","project_name":"","survey_name":"\u5e73\u62102\u5e74\u5ea6\u6771\u6d77\u74b0\u72b6\u81ea\u52d5\u8eca\u9053\u53ef\u5150\u5730\u533a\u305d\u306e2\u5730\u8cea\u8abf\u67fb","client_name":"\u56fd\u571f\u4ea4\u901a\u7701\u4e2d\u90e8\u5730\u65b9\u6574\u5099\u5c40\u591a\u6cbb\u898b\u7802\u9632\u56fd\u9053\u4e8b\u52d9\u6240","boring_xml_url":40,"boring_view_url":1,"soilmap_view_url":null,"soiltest_xml_url":0,"soiltest_view_url":0},{"id":169905,"code":"B4KJ201801005-8154","latitude":"35.4041147","longitude":"137.1189853","source_code":"CB53370089008","project_name":"","survey_name":"\u5e73\u62102\u5e74\u5ea6\u6771\u6d77\u74b0\u72b6\u81ea\u52d5\u8eca\u9053\u53ef\u5150\u5730\u533a\u305d\u306e2\u5730\u8cea\u8abf\u67fb","client_name":"\u56fd\u571f\u4ea4\u901a\u7701\u4e2d\u90e8\u5730\u65b9\u6574\u5099\u5c40\u591a\u6cbb\u898b\u7802\u9632\u56fd\u9053\u4e8b\u52d9\u6240","boring_xml_url":40,"boring_view_url":1,"soilmap_view_url":null,"soiltest_xml_url":0,"soiltest_view_url":0},{"id":169904,"code":"B4KJ201801005-8153","latitude":"35.4042536","longitude":"137.1193186","source_code":"CB53370089007","project_name":"","survey_name":"\u5e73\u62102\u5e74\u5ea6\u6771\u6d77\u74b0\u72b6\u81ea\u52d5\u8eca\u9053\u53ef\u5150\u5730\u533a\u305d\u306e2\u5730\u8cea\u8abf\u67fb","client_name":"\u56fd\u571f\u4ea4\u901a\u7701\u4e2d\u90e8\u5730\u65b9\u6574\u5099\u5c40\u591a\u6cbb\u898b\u7802\u9632\u56fd\u9053\u4e8b\u52d9\u6240","boring_xml_url":40,"boring_view_url":1,"soilmap_view_url":null,"soiltest_xml_url":0,"soiltest_view_url":0},{"id":169903,"code":"B4KJ201801005-8152","latitude":"35.4050867","longitude":"137.1184853","source_code":"CB53370089006","project_name":"","survey_name":"\u5e73\u62102\u5e74\u5ea6\u6771\u6d77\u74b0\u72b6\u81ea\u52d5\u8eca\u9053\u53ef\u5150\u5730\u533a\u305d\u306e2\u5730\u8cea\u8abf\u67fb","client_name":"\u56fd\u571f\u4ea4\u901a\u7701\u4e2d\u90e8\u5730\u65b9\u6574\u5099\u5c40\u591a\u6cbb\u898b\u7802\u9632\u56fd\u9053\u4e8b\u52d9\u6240","boring_xml_url":40,"boring_view_url":1,"soilmap_view_url":null,"soiltest_xml_url":0,"soiltest_view_url":0},{"id":169902,"code":"B4KJ201801005-8151","latitude":"35.4061142","longitude":"137.1164575","source_code":"CB53370089005","project_name":"","survey_name":"\u5e73\u62102\u5e74\u5ea6\u6771\u6d77\u74b0\u72b6\u81ea\u52d5\u8eca\u9053\u53ef\u5150\u5730\u533a\u305d\u306e2\u5730\u8cea\u8abf\u67fb","client_name":"\u56fd\u571f\u4ea4\u901a\u7701\u4e2d\u90e8\u5730\u65b9\u6574\u5099\u5c40\u591a\u6cbb\u898b\u7802\u9632\u56fd\u9053\u4e8b\u52d9\u6240","boring_xml_url":40,"boring_view_url":1,"soilmap_view_url":null,"soiltest_xml_url":0,"soiltest_view_url":0},{"id":169901,"code":"B4KJ201801005-8150","latitude":"35.4063642","longitude":"137.1173742","source_code":"CB53370089004","project_name":"","survey_name":"\u5e73\u62102\u5e74\u5ea6\u6771\u6d77\u74b0\u72b6\u81ea\u52d5\u8eca\u9053\u53ef\u5150\u5730\u533a\u305d\u306e2\u5730\u8cea\u8abf\u67fb","client_name":"\u56fd\u571f\u4ea4\u901a\u7701\u4e2d\u90e8\u5730\u65b9\u6574\u5099\u5c40\u591a\u6cbb\u898b\u7802\u9632\u56fd\u9053\u4e8b\u52d9\u6240","boring_xml_url":40,"boring_view_url":1,"soilmap_view_url":null,"soiltest_xml_url":0,"soiltest_view_url":0},{"id":169900,"code":"B4KJ201801005-8149","latitude":"35.4065031","longitude":"137.1162075","source_code":"CB53370089003","project_name":"","survey_name":"\u5e73\u62102\u5e74\u5ea6\u6771\u6d77\u74b0\u72b6\u81ea\u52d5\u8eca\u9053\u53ef\u5150\u5730\u533a\u305d\u306e2\u5730\u8cea\u8abf\u67fb","client_name":"\u56fd\u571f\u4ea4\u901a\u7701\u4e2d\u90e8\u5730\u65b9\u6574\u5099\u5c40\u591a\u6cbb\u898b\u7802\u9632\u56fd\u9053\u4e8b\u52d9\u6240","boring_xml_url":40,"boring_view_url":1,"soilmap_view_url":null,"soiltest_xml_url":0,"soiltest_view_url":0},{"id":169899,"code":"B4KJ201801005-8148","latitude":"35.4067253","longitude":"137.1170131","source_code":"CB53370089002","project_name":"","survey_name":"\u5e73\u62102\u5e74\u5ea6\u6771\u6d77\u74b0\u72b6\u81ea\u52d5\u8eca\u9053\u53ef\u5150\u5730\u533a\u305d\u306e2\u5730\u8cea\u8abf\u67fb","client_name":"\u56fd\u571f\u4ea4\u901a\u7701\u4e2d\u90e8\u5730\u65b9\u6574\u5099\u5c40\u591a\u6cbb\u898b\u7802\u9632\u56fd\u9053\u4e8b\u52d9\u6240","boring_xml_url":40,"boring_view_url":1,"soilmap_view_url":null,"soiltest_xml_url":0,"soiltest_view_url":0},{"id":169898,"code":"B4KJ201801005-8147","latitude":"35.4092806","longitude":"137.1145967","source_code":"CB53370089001","project_name":"","survey_name":"\u5e73\u62102\u5e74\u5ea6\u6771\u6d77\u74b0\u72b6\u81ea\u52d5\u8eca\u9053\u53ef\u5150\u5730\u533a\u305d\u306e2\u5730\u8cea\u8abf\u67fb","client_name":"\u56fd\u571f\u4ea4\u901a\u7701\u4e2d\u90e8\u5730\u65b9\u6574\u5099\u5c40\u591a\u6cbb\u898b\u7802\u9632\u56fd\u9053\u4e8b\u52d9\u6240","boring_xml_url":40,"boring_view_url":1,"soilmap_view_url":null,"soiltest_xml_url":0,"soiltest_view_url":0},{"id":169897,"code":"B4KJ201801005-8146","latitude":"35.4012539","longitude":"137.1215128","source_code":"CB53370079008","project_name":"","survey_name":"\u5e73\u621011\u5e74\u5ea6 \u6771\u6d77\u74b0\u72b6\u5927\u5e73\u30c8\u30f3\u30cd\u30eb\u5730\u8cea\u8abf\u67fb","client_name":"\u56fd\u571f\u4ea4\u901a\u7701\u4e2d\u90e8\u5730\u65b9\u6574\u5099\u5c40\u591a\u6cbb\u898b\u7802\u9632\u56fd\u9053\u4e8b\u52d9\u6240","boring_xml_url":40,"boring_view_url":1,"soilmap_view_url":null,"soiltest_xml_url":0,"soiltest_view_url":0},{"id":169896,"code":"B4KJ201801005-8145","latitude":"35.4014483","longitude":"137.1217906","source_code":"CB53370079007","project_name":"","survey_name":"\u5e73\u62103\u5e74\u5ea6\u6771\u6d77\u74b0\u72b6\u81ea\u52d5\u8eca\u9053\u4e45\u3005\u5229\u5730\u533a\u30c8\u30f3\u30cd\u30eb\u5730\u8cea\u8abf\u67fb\u305d\u306e3","client_name":"\u56fd\u571f\u4ea4\u901a\u7701\u4e2d\u90e8\u5730\u65b9\u6574\u5099\u5c40\u591a\u6cbb\u898b\u7802\u9632\u56fd\u9053\u4e8b\u52d9\u6240","boring_xml_url":40,"boring_view_url":1,"soilmap_view_url":null,"soiltest_xml_url":0,"soiltest_view_url":0},{"id":169895,"code":"B4KJ201801005-8144","latitude":"35.4029758","longitude":"137.1200686","source_code":"CB53370079006","project_name":"","survey_name":"\u5e73\u62103\u5e74\u5ea6\u6771\u6d77\u74b0\u72b6\u81ea\u52d5\u8eca\u9053\u4e45\u3005\u5229\u5730\u533a\u30c8\u30f3\u30cd\u30eb\u5730\u8cea\u8abf\u67fb\u305d\u306e3","client_name":"\u56fd\u571f\u4ea4\u901a\u7701\u4e2d\u90e8\u5730\u65b9\u6574\u5099\u5c40\u591a\u6cbb\u898b\u7802\u9632\u56fd\u9053\u4e8b\u52d9\u6240","boring_xml_url":40,"boring_view_url":1,"soilmap_view_url":null,"soiltest_xml_url":0,"soiltest_view_url":0},{"id":169894,"code":"B4KJ201801005-8143","latitude":"35.4030869","longitude":"137.1205686","source_code":"CB53370079005","project_name":"","survey_name":"\u5e73\u62103\u5e74\u5ea6\u6771\u6d77\u74b0\u72b6\u81ea\u52d5\u8eca\u9053\u4e45\u3005\u5229\u5730\u533a\u30c8\u30f3\u30cd\u30eb\u5730\u8cea\u8abf\u67fb\u305d\u306e3","client_name":"\u56fd\u571f\u4ea4\u901a\u7701\u4e2d\u90e8\u5730\u65b9\u6574\u5099\u5c40\u591a\u6cbb\u898b\u7802\u9632\u56fd\u9053\u4e8b\u52d9\u6240","boring_xml_url":40,"boring_view_url":1,"soilmap_view_url":null,"soiltest_xml_url":0,"soiltest_view_url":0},{"id":169893,"code":"B4KJ201801005-8142","latitude":"35.4013094","longitude":"137.1217072","source_code":"CB53370079004","project_name":"","survey_name":"\u5e73\u62102\u5e74\u5ea6\u6771\u6d77\u74b0\u72b6\u81ea\u52d5\u8eca\u9053\u53ef\u5150\u5730\u533a\u305d\u306e2\u5730\u8cea\u8abf\u67fb","client_name":"\u56fd\u571f\u4ea4\u901a\u7701\u4e2d\u90e8\u5730\u65b9\u6574\u5099\u5c40\u591a\u6cbb\u898b\u7802\u9632\u56fd\u9053\u4e8b\u52d9\u6240","boring_xml_url":40,"boring_view_url":1,"soilmap_view_url":null,"soiltest_xml_url":0,"soiltest_view_url":0},{"id":169892,"code":"B4KJ201801005-8141","latitude":"35.4021706","longitude":"137.1212906","source_code":"CB53370079003","project_name":"","survey_name":"\u5e73\u62102\u5e74\u5ea6\u6771\u6d77\u74b0\u72b6\u81ea\u52d5\u8eca\u9053\u53ef\u5150\u5730\u533a\u305d\u306e2\u5730\u8cea\u8abf\u67fb","client_name":"\u56fd\u571f\u4ea4\u901a\u7701\u4e2d\u90e8\u5730\u65b9\u6574\u5099\u5c40\u591a\u6cbb\u898b\u7802\u9632\u56fd\u9053\u4e8b\u52d9\u6240","boring_xml_url":40,"boring_view_url":1,"soilmap_view_url":null,"soiltest_xml_url":0,"soiltest_view_url":0},{"id":169891,"code":"B4KJ201801005-8140","latitude":"35.4029758","longitude":"137.1201519","source_code":"CB53370079002","project_name":"","survey_name":"\u5e73\u62102\u5e74\u5ea6\u6771\u6d77\u74b0\u72b6\u81ea\u52d5\u8eca\u9053\u53ef\u5150\u5730\u533a\u305d\u306e2\u5730\u8cea\u8abf\u67fb","client_name":"\u56fd\u571f\u4ea4\u901a\u7701\u4e2d\u90e8\u5730\u65b9\u6574\u5099\u5c40\u591a\u6cbb\u898b\u7802\u9632\u56fd\u9053\u4e8b\u52d9\u6240","boring_xml_url":40,"boring_view_url":1,"soilmap_view_url":null,"soiltest_xml_url":0,"soiltest_view_url":0},{"id":169890,"code":"B4KJ201801005-8139","latitude":"35.4030592","longitude":"137.1204575","source_code":"CB53370079001","project_name":"","survey_name":"\u5e73\u62102\u5e74\u5ea6\u6771\u6d77\u74b0\u72b6\u81ea\u52d5\u8eca\u9053\u53ef\u5150\u5730\u533a\u305d\u306e2\u5730\u8cea\u8abf\u67fb","client_name":"\u56fd\u571f\u4ea4\u901a\u7701\u4e2d\u90e8\u5730\u65b9\u6574\u5099\u5c40\u591a\u6cbb\u898b\u7802\u9632\u56fd\u9053\u4e8b\u52d9\u6240","boring_xml_url":40,"boring_view_url":1,"soilmap_view_url":null,"soiltest_xml_url":0,"soiltest_view_url":0},{"id":169889,"code":"B4KJ201801005-8138","latitude":"35.3870889","longitude":"137.1216244","source_code":"CB53370069010","project_name":"","survey_name":"\u5e73\u62102\u5e74\u5ea6\u6771\u6d77\u74b0\u72b6\u81ea\u52d5\u8eca\u9053\u53ef\u5150\u5730\u533a\u305d\u306e3\u5730\u8cea\u8abf\u67fb","client_name":"\u56fd\u571f\u4ea4\u901a\u7701\u4e2d\u90e8\u5730\u65b9\u6574\u5099\u5c40\u591a\u6cbb\u898b\u7802\u9632\u56fd\u9053\u4e8b\u52d9\u6240","boring_xml_url":40,"boring_view_url":1,"soilmap_view_url":null,"soiltest_xml_url":0,"soiltest_view_url":0},{"id":169888,"code":"B4KJ201801005-8137","latitude":"35.3881997","longitude":"137.1216522","source_code":"CB53370069009","project_name":"","survey_name":"\u5e73\u62102\u5e74\u5ea6\u6771\u6d77\u74b0\u72b6\u81ea\u52d5\u8eca\u9053\u53ef\u5150\u5730\u533a\u305d\u306e3\u5730\u8cea\u8abf\u67fb","client_name":"\u56fd\u571f\u4ea4\u901a\u7701\u4e2d\u90e8\u5730\u65b9\u6574\u5099\u5c40\u591a\u6cbb\u898b\u7802\u9632\u56fd\u9053\u4e8b\u52d9\u6240","boring_xml_url":40,"boring_view_url":1,"soilmap_view_url":null,"soiltest_xml_url":0,"soiltest_view_url":0},{"id":169887,"code":"B4KJ201801005-8136","latitude":"35.3890053","longitude":"137.12168","source_code":"CB53370069008","project_name":"","survey_name":"\u5e73\u62102\u5e74\u5ea6\u6771\u6d77\u74b0\u72b6\u81ea\u52d5\u8eca\u9053\u53ef\u5150\u5730\u533a\u305d\u306e3\u5730\u8cea\u8abf\u67fb","client_name":"\u56fd\u571f\u4ea4\u901a\u7701\u4e2d\u90e8\u5730\u65b9\u6574\u5099\u5c40\u591a\u6cbb\u898b\u7802\u9632\u56fd\u9053\u4e8b\u52d9\u6240","boring_xml_url":40,"boring_view_url":1,"soilmap_view_url":null,"soiltest_xml_url":0,"soiltest_view_url":0},{"id":169886,"code":"B4KJ201801005-8135","latitude":"35.3903661","longitude":"137.1217356","source_code":"CB53370069007","project_name":"","survey_name":"\u5e73\u62102\u5e74\u5ea6\u6771\u6d77\u74b0\u72b6\u81ea\u52d5\u8eca\u9053\u53ef\u5150\u5730\u533a\u305d\u306e3\u5730\u8cea\u8abf\u67fb","client_name":"\u56fd\u571f\u4ea4\u901a\u7701\u4e2d\u90e8\u5730\u65b9\u6574\u5099\u5c40\u591a\u6cbb\u898b\u7802\u9632\u56fd\u9053\u4e8b\u52d9\u6240","boring_xml_url":40,"boring_view_url":1,"soilmap_view_url":null,"soiltest_xml_url":0,"soiltest_view_url":0}]}}