{"header":{"xyz":{"source":[],"mosaic":false},"page":5023,"raw":{"soiltest_result":"0","bbox":"57.598333,109.544722,1.933333,163.806111","page":"5023"},"conditions":{"soiltest_result":0,"north":57.598333,"west":109.544722,"south":1.933333,"east":163.806111},"success":true,"message":""},"data":{"meta":{"total":212844,"page":5023,"pages":7095,"count":30},"values":[{"id":169885,"code":"B4KJ201801005-8134","latitude":"35.3904772","longitude":"137.1217356","source_code":"CB53370069006","project_name":"","survey_name":"\u5e73\u62102\u5e74\u5ea6\u6771\u6d77\u74b0\u72b6\u81ea\u52d5\u8eca\u9053\u53ef\u5150\u5730\u533a\u305d\u306e3\u5730\u8cea\u8abf\u67fb","client_name":"\u56fd\u571f\u4ea4\u901a\u7701\u4e2d\u90e8\u5730\u65b9\u6574\u5099\u5c40\u591a\u6cbb\u898b\u7802\u9632\u56fd\u9053\u4e8b\u52d9\u6240","boring_xml_url":40,"boring_view_url":1,"soilmap_view_url":null,"soiltest_xml_url":0,"soiltest_view_url":0},{"id":169884,"code":"B4KJ201801005-8133","latitude":"35.3908106","longitude":"137.1218189","source_code":"CB53370069005","project_name":"","survey_name":"\u5e73\u62102\u5e74\u5ea6\u6771\u6d77\u74b0\u72b6\u81ea\u52d5\u8eca\u9053\u53ef\u5150\u5730\u533a\u305d\u306e3\u5730\u8cea\u8abf\u67fb","client_name":"\u56fd\u571f\u4ea4\u901a\u7701\u4e2d\u90e8\u5730\u65b9\u6574\u5099\u5c40\u591a\u6cbb\u898b\u7802\u9632\u56fd\u9053\u4e8b\u52d9\u6240","boring_xml_url":40,"boring_view_url":1,"soilmap_view_url":null,"soiltest_xml_url":0,"soiltest_view_url":0},{"id":169883,"code":"B4KJ201801005-8132","latitude":"35.3913661","longitude":"137.1218189","source_code":"CB53370069004","project_name":"","survey_name":"\u5e73\u62102\u5e74\u5ea6\u6771\u6d77\u74b0\u72b6\u81ea\u52d5\u8eca\u9053\u53ef\u5150\u5730\u533a\u305d\u306e3\u5730\u8cea\u8abf\u67fb","client_name":"\u56fd\u571f\u4ea4\u901a\u7701\u4e2d\u90e8\u5730\u65b9\u6574\u5099\u5c40\u591a\u6cbb\u898b\u7802\u9632\u56fd\u9053\u4e8b\u52d9\u6240","boring_xml_url":40,"boring_view_url":1,"soilmap_view_url":null,"soiltest_xml_url":0,"soiltest_view_url":0},{"id":169882,"code":"B4KJ201801005-8131","latitude":"35.3927269","longitude":"137.1218742","source_code":"CB53370069003","project_name":"","survey_name":"\u5e73\u62102\u5e74\u5ea6\u6771\u6d77\u74b0\u72b6\u81ea\u52d5\u8eca\u9053\u53ef\u5150\u5730\u533a\u305d\u306e3\u5730\u8cea\u8abf\u67fb","client_name":"\u56fd\u571f\u4ea4\u901a\u7701\u4e2d\u90e8\u5730\u65b9\u6574\u5099\u5c40\u591a\u6cbb\u898b\u7802\u9632\u56fd\u9053\u4e8b\u52d9\u6240","boring_xml_url":40,"boring_view_url":1,"soilmap_view_url":null,"soiltest_xml_url":0,"soiltest_view_url":0},{"id":169881,"code":"B4KJ201801005-8130","latitude":"35.3926992","longitude":"137.1218744","source_code":"CB53370069002","project_name":"","survey_name":"\u5e73\u62102\u5e74\u5ea6\u6771\u6d77\u74b0\u72b6\u81ea\u52d5\u8eca\u9053\u53ef\u5150\u5730\u533a\u305d\u306e3\u5730\u8cea\u8abf\u67fb","client_name":"\u56fd\u571f\u4ea4\u901a\u7701\u4e2d\u90e8\u5730\u65b9\u6574\u5099\u5c40\u591a\u6cbb\u898b\u7802\u9632\u56fd\u9053\u4e8b\u52d9\u6240","boring_xml_url":40,"boring_view_url":1,"soilmap_view_url":null,"soiltest_xml_url":0,"soiltest_view_url":0},{"id":169880,"code":"B4KJ201801005-8129","latitude":"35.3932825","longitude":"137.1219019","source_code":"CB53370069001","project_name":"","survey_name":"\u5e73\u62102\u5e74\u5ea6\u6771\u6d77\u74b0\u72b6\u81ea\u52d5\u8eca\u9053\u53ef\u5150\u5730\u533a\u305d\u306e3\u5730\u8cea\u8abf\u67fb","client_name":"\u56fd\u571f\u4ea4\u901a\u7701\u4e2d\u90e8\u5730\u65b9\u6574\u5099\u5c40\u591a\u6cbb\u898b\u7802\u9632\u56fd\u9053\u4e8b\u52d9\u6240","boring_xml_url":40,"boring_view_url":1,"soilmap_view_url":null,"soiltest_xml_url":0,"soiltest_view_url":0},{"id":169879,"code":"B4KJ201801005-8128","latitude":"35.3864778","longitude":"137.1215689","source_code":"CB53370059010","project_name":"","survey_name":"\u5e73\u62102\u5e74\u5ea6\u6771\u6d77\u74b0\u72b6\u81ea\u52d5\u8eca\u9053\u53ef\u5150\u5730\u533a\u305d\u306e3\u5730\u8cea\u8abf\u67fb","client_name":"\u56fd\u571f\u4ea4\u901a\u7701\u4e2d\u90e8\u5730\u65b9\u6574\u5099\u5c40\u591a\u6cbb\u898b\u7802\u9632\u56fd\u9053\u4e8b\u52d9\u6240","boring_xml_url":40,"boring_view_url":1,"soilmap_view_url":null,"soiltest_xml_url":0,"soiltest_view_url":0},{"id":169878,"code":"B4KJ201801005-8127","latitude":"35.3783675","longitude":"137.1210972","source_code":"CB53370059009","project_name":"","survey_name":"\u5e73\u62102\u5e74\u5ea6\u6771\u6d77\u74b0\u72b6\u81ea\u52d5\u8eca\u9053\u53ef\u5150\u5730\u533a\u305d\u306e3\u5730\u8cea\u8abf\u67fb","client_name":"\u56fd\u571f\u4ea4\u901a\u7701\u4e2d\u90e8\u5730\u65b9\u6574\u5099\u5c40\u591a\u6cbb\u898b\u7802\u9632\u56fd\u9053\u4e8b\u52d9\u6240","boring_xml_url":40,"boring_view_url":1,"soilmap_view_url":null,"soiltest_xml_url":0,"soiltest_view_url":0},{"id":169877,"code":"B4KJ201801005-8126","latitude":"35.3786453","longitude":"137.1210694","source_code":"CB53370059008","project_name":"","survey_name":"\u5e73\u62102\u5e74\u5ea6\u6771\u6d77\u74b0\u72b6\u81ea\u52d5\u8eca\u9053\u53ef\u5150\u5730\u533a\u305d\u306e3\u5730\u8cea\u8abf\u67fb","client_name":"\u56fd\u571f\u4ea4\u901a\u7701\u4e2d\u90e8\u5730\u65b9\u6574\u5099\u5c40\u591a\u6cbb\u898b\u7802\u9632\u56fd\u9053\u4e8b\u52d9\u6240","boring_xml_url":40,"boring_view_url":1,"soilmap_view_url":null,"soiltest_xml_url":0,"soiltest_view_url":0},{"id":169876,"code":"B4KJ201801005-8125","latitude":"35.3807839","longitude":"137.1212358","source_code":"CB53370059007","project_name":"","survey_name":"\u5e73\u62102\u5e74\u5ea6\u6771\u6d77\u74b0\u72b6\u81ea\u52d5\u8eca\u9053\u53ef\u5150\u5730\u533a\u305d\u306e3\u5730\u8cea\u8abf\u67fb","client_name":"\u56fd\u571f\u4ea4\u901a\u7701\u4e2d\u90e8\u5730\u65b9\u6574\u5099\u5c40\u591a\u6cbb\u898b\u7802\u9632\u56fd\u9053\u4e8b\u52d9\u6240","boring_xml_url":40,"boring_view_url":1,"soilmap_view_url":null,"soiltest_xml_url":0,"soiltest_view_url":0},{"id":169875,"code":"B4KJ201801005-8124","latitude":"35.3839503","longitude":"137.1213747","source_code":"CB53370059006","project_name":"","survey_name":"\u5e73\u62102\u5e74\u5ea6\u6771\u6d77\u74b0\u72b6\u81ea\u52d5\u8eca\u9053\u53ef\u5150\u5730\u533a\u305d\u306e3\u5730\u8cea\u8abf\u67fb","client_name":"\u56fd\u571f\u4ea4\u901a\u7701\u4e2d\u90e8\u5730\u65b9\u6574\u5099\u5c40\u591a\u6cbb\u898b\u7802\u9632\u56fd\u9053\u4e8b\u52d9\u6240","boring_xml_url":40,"boring_view_url":1,"soilmap_view_url":null,"soiltest_xml_url":0,"soiltest_view_url":0},{"id":169874,"code":"B4KJ201801005-8123","latitude":"35.3842281","longitude":"137.1213747","source_code":"CB53370059005","project_name":"","survey_name":"\u5e73\u62102\u5e74\u5ea6\u6771\u6d77\u74b0\u72b6\u81ea\u52d5\u8eca\u9053\u53ef\u5150\u5730\u533a\u305d\u306e3\u5730\u8cea\u8abf\u67fb","client_name":"\u56fd\u571f\u4ea4\u901a\u7701\u4e2d\u90e8\u5730\u65b9\u6574\u5099\u5c40\u591a\u6cbb\u898b\u7802\u9632\u56fd\u9053\u4e8b\u52d9\u6240","boring_xml_url":40,"boring_view_url":1,"soilmap_view_url":null,"soiltest_xml_url":0,"soiltest_view_url":0},{"id":169873,"code":"B4KJ201801005-8122","latitude":"35.3843947","longitude":"137.1213747","source_code":"CB53370059004","project_name":"","survey_name":"\u5e73\u62102\u5e74\u5ea6\u6771\u6d77\u74b0\u72b6\u81ea\u52d5\u8eca\u9053\u53ef\u5150\u5730\u533a\u305d\u306e3\u5730\u8cea\u8abf\u67fb","client_name":"\u56fd\u571f\u4ea4\u901a\u7701\u4e2d\u90e8\u5730\u65b9\u6574\u5099\u5c40\u591a\u6cbb\u898b\u7802\u9632\u56fd\u9053\u4e8b\u52d9\u6240","boring_xml_url":40,"boring_view_url":1,"soilmap_view_url":null,"soiltest_xml_url":0,"soiltest_view_url":0},{"id":169872,"code":"B4KJ201801005-8121","latitude":"35.3842281","longitude":"137.1211803","source_code":"CB53370059003","project_name":"","survey_name":"\u5e73\u62102\u5e74\u5ea6\u6771\u6d77\u74b0\u72b6\u81ea\u52d5\u8eca\u9053\u53ef\u5150\u5730\u533a\u305d\u306e3\u5730\u8cea\u8abf\u67fb","client_name":"\u56fd\u571f\u4ea4\u901a\u7701\u4e2d\u90e8\u5730\u65b9\u6574\u5099\u5c40\u591a\u6cbb\u898b\u7802\u9632\u56fd\u9053\u4e8b\u52d9\u6240","boring_xml_url":40,"boring_view_url":1,"soilmap_view_url":null,"soiltest_xml_url":0,"soiltest_view_url":0},{"id":169871,"code":"B4KJ201801005-8120","latitude":"35.3843947","longitude":"137.1214581","source_code":"CB53370059002","project_name":"","survey_name":"\u5e73\u62102\u5e74\u5ea6\u6771\u6d77\u74b0\u72b6\u81ea\u52d5\u8eca\u9053\u53ef\u5150\u5730\u533a\u305d\u306e3\u5730\u8cea\u8abf\u67fb","client_name":"\u56fd\u571f\u4ea4\u901a\u7701\u4e2d\u90e8\u5730\u65b9\u6574\u5099\u5c40\u591a\u6cbb\u898b\u7802\u9632\u56fd\u9053\u4e8b\u52d9\u6240","boring_xml_url":40,"boring_view_url":1,"soilmap_view_url":null,"soiltest_xml_url":0,"soiltest_view_url":0},{"id":169870,"code":"B4KJ201801005-8119","latitude":"35.3846169","longitude":"137.1215136","source_code":"CB53370059001","project_name":"","survey_name":"\u5e73\u62102\u5e74\u5ea6\u6771\u6d77\u74b0\u72b6\u81ea\u52d5\u8eca\u9053\u53ef\u5150\u5730\u533a\u305d\u306e3\u5730\u8cea\u8abf\u67fb","client_name":"\u56fd\u571f\u4ea4\u901a\u7701\u4e2d\u90e8\u5730\u65b9\u6574\u5099\u5c40\u591a\u6cbb\u898b\u7802\u9632\u56fd\u9053\u4e8b\u52d9\u6240","boring_xml_url":40,"boring_view_url":1,"soilmap_view_url":null,"soiltest_xml_url":0,"soiltest_view_url":0},{"id":169869,"code":"B4KJ201801005-8118","latitude":"35.3737292","longitude":"137.1214861","source_code":"CB53370049001","project_name":"","survey_name":"\u5e73\u62102\u5e74\u5ea6\u6771\u6d77\u74b0\u72b6\u81ea\u52d5\u8eca\u9053\u53ef\u5150\u5730\u533a\u305d\u306e3\u5730\u8cea\u8abf\u67fb","client_name":"\u56fd\u571f\u4ea4\u901a\u7701\u4e2d\u90e8\u5730\u65b9\u6574\u5099\u5c40\u591a\u6cbb\u898b\u7802\u9632\u56fd\u9053\u4e8b\u52d9\u6240","boring_xml_url":40,"boring_view_url":1,"soilmap_view_url":null,"soiltest_xml_url":0,"soiltest_view_url":0},{"id":169868,"code":"B4KJ201801005-8117","latitude":"35.3413161","longitude":"137.1195153","source_code":"CB53370009002","project_name":"","survey_name":"\u591a\u6cbb\u898b\u30d0\u30a4\u30d1\u30b9\u5730\u8cea\u8abf\u67fb","client_name":"\u56fd\u571f\u4ea4\u901a\u7701\u4e2d\u90e8\u5730\u65b9\u6574\u5099\u5c40\u591a\u6cbb\u898b\u7802\u9632\u56fd\u9053\u4e8b\u52d9\u6240","boring_xml_url":40,"boring_view_url":1,"soilmap_view_url":null,"soiltest_xml_url":0,"soiltest_view_url":0},{"id":169867,"code":"B4KJ201801005-8116","latitude":"35.3415661","longitude":"137.1191819","source_code":"CB53370009001","project_name":"","survey_name":"\u591a\u6cbb\u898b\u30d0\u30a4\u30d1\u30b9\u5730\u8cea\u8abf\u67fb","client_name":"\u56fd\u571f\u4ea4\u901a\u7701\u4e2d\u90e8\u5730\u65b9\u6574\u5099\u5c40\u591a\u6cbb\u898b\u7802\u9632\u56fd\u9053\u4e8b\u52d9\u6240","boring_xml_url":40,"boring_view_url":1,"soilmap_view_url":null,"soiltest_xml_url":0,"soiltest_view_url":0},{"id":169866,"code":"B4KJ201801005-8115","latitude":"35.8467806","longitude":"136.8821561","source_code":"CB53366710001","project_name":"","survey_name":"\u662d\u548c61\u5e74\u5ea6\u516b\u5e61\u7ba1\u5185\u5730\u8cea\u8abf\u67fb","client_name":"\u56fd\u571f\u4ea4\u901a\u7701\u4e2d\u90e8\u5730\u65b9\u6574\u5099\u5c40\u5c90\u961c\u56fd\u9053\u4e8b\u52d9\u6240","boring_xml_url":40,"boring_view_url":1,"soilmap_view_url":null,"soiltest_xml_url":0,"soiltest_view_url":0},{"id":169865,"code":"B4KJ201801005-8114","latitude":"35.8422256","longitude":"136.883545","source_code":"CB53366700002","project_name":"","survey_name":"\u5e73\u621013\u5e74\u5ea6\u5c90\u961c\u56fd\u9053\u7ba1\u5185\u9632\u707d\u5730\u8cea\u8abf\u67fb","client_name":"\u56fd\u571f\u4ea4\u901a\u7701\u4e2d\u90e8\u5730\u65b9\u6574\u5099\u5c40\u5c90\u961c\u56fd\u9053\u4e8b\u52d9\u6240","boring_xml_url":40,"boring_view_url":1,"soilmap_view_url":null,"soiltest_xml_url":0,"soiltest_view_url":0},{"id":169864,"code":"B4KJ201801005-8113","latitude":"35.8789703","longitude":"136.8487967","source_code":"CB53366658002","project_name":"","survey_name":"\u5e73\u62103\u5e74\u5ea6\u6cb9\u5742\u5742\u9053\u8def\u5730\u8cea\u8abf\u67fb\u305d\u306e2","client_name":"\u56fd\u571f\u4ea4\u901a\u7701\u4e2d\u90e8\u5730\u65b9\u6574\u5099\u5c40\u5c90\u961c\u56fd\u9053\u4e8b\u52d9\u6240","boring_xml_url":40,"boring_view_url":1,"soilmap_view_url":null,"soiltest_xml_url":0,"soiltest_view_url":0},{"id":169863,"code":"B4KJ201801005-8112","latitude":"35.8787481","longitude":"136.8489078","source_code":"CB53366658001","project_name":"","survey_name":"\u5e73\u62103\u5e74\u5ea6\u6cb9\u5742\u5ce0\u9053\u8def\u5730\u8cea\u8abf\u67fb\u305d\u306e2","client_name":"\u56fd\u571f\u4ea4\u901a\u7701\u4e2d\u90e8\u5730\u65b9\u6574\u5099\u5c40\u5c90\u961c\u56fd\u9053\u4e8b\u52d9\u6240","boring_xml_url":40,"boring_view_url":1,"soilmap_view_url":null,"soiltest_xml_url":0,"soiltest_view_url":0},{"id":169862,"code":"B4KJ201801005-8111","latitude":"35.8781647","longitude":"136.8454917","source_code":"CB53366657002","project_name":"","survey_name":"\u5e73\u62103\u5e74\u5ea6\u6cb9\u5742\u5ce0\u9053\u8def\u5730\u8cea\u8abf\u67fb\u305d\u306e1","client_name":"\u56fd\u571f\u4ea4\u901a\u7701\u4e2d\u90e8\u5730\u65b9\u6574\u5099\u5c40\u5c90\u961c\u56fd\u9053\u4e8b\u52d9\u6240","boring_xml_url":40,"boring_view_url":1,"soilmap_view_url":null,"soiltest_xml_url":0,"soiltest_view_url":0},{"id":169861,"code":"B4KJ201801005-8110","latitude":"35.8782758","longitude":"136.8460469","source_code":"CB53366657001","project_name":"","survey_name":"\u5e73\u62103\u5e74\u5ea6\u6cb9\u5742\u5ce0\u9053\u8def\u5730\u8cea\u8abf\u67fb\u305d\u306e1","client_name":"\u56fd\u571f\u4ea4\u901a\u7701\u4e2d\u90e8\u5730\u65b9\u6574\u5099\u5c40\u5c90\u961c\u56fd\u9053\u4e8b\u52d9\u6240","boring_xml_url":40,"boring_view_url":1,"soilmap_view_url":null,"soiltest_xml_url":0,"soiltest_view_url":0},{"id":169860,"code":"B4KJ201801005-8109","latitude":"35.8723881","longitude":"136.8605739","source_code":"CB53366649011","project_name":"","survey_name":"\u5e73\u62105\u5e74\u5ea6156\u53f7\u540d\u6d25\u4f50\u5730\u533a\u5730\u8cea\u8abf\u67fb(\u65b0\u9ed2\u53e4\u6a4b)","client_name":"\u56fd\u571f\u4ea4\u901a\u7701\u4e2d\u90e8\u5730\u65b9\u6574\u5099\u5c40\u5c90\u961c\u56fd\u9053\u4e8b\u52d9\u6240","boring_xml_url":40,"boring_view_url":1,"soilmap_view_url":null,"soiltest_xml_url":0,"soiltest_view_url":0},{"id":169859,"code":"B4KJ201801005-8108","latitude":"35.8727214","longitude":"136.8609903","source_code":"CB53366649010","project_name":"","survey_name":"\u5e73\u62105\u5e74\u5ea6156\u53f7\u540d\u6d25\u4f50\u5730\u533a\u5730\u8cea\u8abf\u67fb(\u65b0\u9ed2\u53e4\u6a4b)","client_name":"\u56fd\u571f\u4ea4\u901a\u7701\u4e2d\u90e8\u5730\u65b9\u6574\u5099\u5c40\u5c90\u961c\u56fd\u9053\u4e8b\u52d9\u6240","boring_xml_url":40,"boring_view_url":1,"soilmap_view_url":null,"soiltest_xml_url":0,"soiltest_view_url":0},{"id":169858,"code":"B4KJ201801005-8107","latitude":"35.8725547","longitude":"136.8607683","source_code":"CB53366649009","project_name":"","survey_name":"\u5e73\u62105\u5e74\u5ea6156\u53f7\u540d\u6d25\u4f50\u5730\u533a\u5730\u8cea\u8abf\u67fb(\u65b0\u9ed2\u53e4\u6a4b)","client_name":"\u56fd\u571f\u4ea4\u901a\u7701\u4e2d\u90e8\u5730\u65b9\u6574\u5099\u5c40\u5c90\u961c\u56fd\u9053\u4e8b\u52d9\u6240","boring_xml_url":40,"boring_view_url":1,"soilmap_view_url":null,"soiltest_xml_url":0,"soiltest_view_url":0},{"id":169857,"code":"B4KJ201801005-8106","latitude":"35.8720269","longitude":"136.8597406","source_code":"CB53366649008","project_name":"","survey_name":"\u5e73\u62102\u5e74\u5ea6\u6cb9\u677f\u5ce0\u9053\u8def\u305d\u306e2\u5730\u8cea\u8abf\u67fb","client_name":"\u56fd\u571f\u4ea4\u901a\u7701\u4e2d\u90e8\u5730\u65b9\u6574\u5099\u5c40\u5c90\u961c\u56fd\u9053\u4e8b\u52d9\u6240","boring_xml_url":40,"boring_view_url":1,"soilmap_view_url":null,"soiltest_xml_url":0,"soiltest_view_url":0},{"id":169856,"code":"B4KJ201801005-8105","latitude":"35.8718881","longitude":"136.8605461","source_code":"CB53366649007","project_name":"","survey_name":"\u5e73\u62102\u5e74\u5ea6\u6cb9\u677f\u5ce0\u9053\u8def\u305d\u306e2\u5730\u8cea\u8abf\u67fb","client_name":"\u56fd\u571f\u4ea4\u901a\u7701\u4e2d\u90e8\u5730\u65b9\u6574\u5099\u5c40\u5c90\u961c\u56fd\u9053\u4e8b\u52d9\u6240","boring_xml_url":40,"boring_view_url":1,"soilmap_view_url":null,"soiltest_xml_url":0,"soiltest_view_url":0}]}}