{"header":{"xyz":{"source":[],"mosaic":false},"page":5024,"raw":{"soiltest_result":"0","bbox":"57.598333,109.544722,1.933333,163.806111","page":"5024"},"conditions":{"soiltest_result":0,"north":57.598333,"west":109.544722,"south":1.933333,"east":163.806111},"success":true,"message":""},"data":{"meta":{"total":212844,"page":5024,"pages":7095,"count":30},"values":[{"id":169855,"code":"B4KJ201801005-8104","latitude":"35.8714994","longitude":"136.8618236","source_code":"CB53366649006","project_name":"","survey_name":"\u5e73\u62102\u5e74\u5ea6\u6cb9\u677f\u5ce0\u9053\u8def\u305d\u306e2\u5730\u8cea\u8abf\u67fb","client_name":"\u56fd\u571f\u4ea4\u901a\u7701\u4e2d\u90e8\u5730\u65b9\u6574\u5099\u5c40\u5c90\u961c\u56fd\u9053\u4e8b\u52d9\u6240","boring_xml_url":40,"boring_view_url":1,"soilmap_view_url":null,"soiltest_xml_url":0,"soiltest_view_url":0},{"id":169854,"code":"B4KJ201801005-8103","latitude":"35.8709717","longitude":"136.8628514","source_code":"CB53366649005","project_name":"","survey_name":"\u5e73\u62102\u5e74\u5ea6\u6cb9\u5742\u5ce0\u9053\u8def\u305d\u306e2\u5730\u8cea\u8abf\u67fb","client_name":"\u56fd\u571f\u4ea4\u901a\u7701\u4e2d\u90e8\u5730\u65b9\u6574\u5099\u5c40\u5c90\u961c\u56fd\u9053\u4e8b\u52d9\u6240","boring_xml_url":40,"boring_view_url":1,"soilmap_view_url":null,"soiltest_xml_url":0,"soiltest_view_url":0},{"id":169853,"code":"B4KJ201801005-8102","latitude":"35.8707217","longitude":"136.8644903","source_code":"CB53366649004","project_name":"","survey_name":"\u5e73\u62102\u5e74\u5ea6\u6cb9\u5742\u5ce0\u9053\u8def\u305d\u306e2\u5730\u8cea\u8abf\u67fb","client_name":"\u56fd\u571f\u4ea4\u901a\u7701\u4e2d\u90e8\u5730\u65b9\u6574\u5099\u5c40\u5c90\u961c\u56fd\u9053\u4e8b\u52d9\u6240","boring_xml_url":40,"boring_view_url":1,"soilmap_view_url":null,"soiltest_xml_url":0,"soiltest_view_url":0},{"id":169852,"code":"B4KJ201801005-8101","latitude":"35.8704994","longitude":"136.8649344","source_code":"CB53366649003","project_name":"","survey_name":"\u5e73\u62102\u5e74\u5ea6\u6cb9\u5742\u5ce0\u9053\u8def\u305d\u306e2\u5730\u8cea\u8abf\u67fb","client_name":"\u56fd\u571f\u4ea4\u901a\u7701\u4e2d\u90e8\u5730\u65b9\u6574\u5099\u5c40\u5c90\u961c\u56fd\u9053\u4e8b\u52d9\u6240","boring_xml_url":40,"boring_view_url":1,"soilmap_view_url":null,"soiltest_xml_url":0,"soiltest_view_url":0},{"id":169851,"code":"B4KJ201801005-8100","latitude":"35.8702497","longitude":"136.8674622","source_code":"CB53366649002","project_name":"","survey_name":"\u5e73\u62102\u5e74\u5ea6\u6cb9\u5742\u5ce0\u9053\u8def\u305d\u306e2\u5730\u8cea\u8abf\u67fb","client_name":"\u56fd\u571f\u4ea4\u901a\u7701\u4e2d\u90e8\u5730\u65b9\u6574\u5099\u5c40\u5c90\u961c\u56fd\u9053\u4e8b\u52d9\u6240","boring_xml_url":40,"boring_view_url":1,"soilmap_view_url":null,"soiltest_xml_url":0,"soiltest_view_url":0},{"id":169850,"code":"B4KJ201801005-8099","latitude":"35.8761931","longitude":"136.8540186","source_code":"CB53366648005","project_name":"","survey_name":"\u5e73\u62104\u5e74\u5ea6\u6cb9\u5742\u5ce0\u9053\u8def\u5730\u8cea\u8abf\u67fb","client_name":"\u56fd\u571f\u4ea4\u901a\u7701\u4e2d\u90e8\u5730\u65b9\u6574\u5099\u5c40\u5c90\u961c\u56fd\u9053\u4e8b\u52d9\u6240","boring_xml_url":40,"boring_view_url":1,"soilmap_view_url":null,"soiltest_xml_url":0,"soiltest_view_url":0},{"id":169849,"code":"B4KJ201801005-8098","latitude":"35.8763042","longitude":"136.8542964","source_code":"CB53366648004","project_name":"","survey_name":"\u5e73\u62104\u5e74\u5ea6\u6cb9\u5742\u5ce0\u9053\u8def\u5730\u8cea\u8abf\u67fb","client_name":"\u56fd\u571f\u4ea4\u901a\u7701\u4e2d\u90e8\u5730\u65b9\u6574\u5099\u5c40\u5c90\u961c\u56fd\u9053\u4e8b\u52d9\u6240","boring_xml_url":40,"boring_view_url":1,"soilmap_view_url":null,"soiltest_xml_url":0,"soiltest_view_url":0},{"id":169848,"code":"B4KJ201801005-8097","latitude":"35.8737767","longitude":"136.8565464","source_code":"CB53366648003","project_name":"","survey_name":"\u5e73\u62102\u5e74\u5ea6\u6cb9\u5742\u5ce0\u9053\u8def\u305d\u306e2\u5730\u8cea\u8abf\u67fb","client_name":"\u56fd\u571f\u4ea4\u901a\u7701\u4e2d\u90e8\u5730\u65b9\u6574\u5099\u5c40\u5c90\u961c\u56fd\u9053\u4e8b\u52d9\u6240","boring_xml_url":40,"boring_view_url":1,"soilmap_view_url":null,"soiltest_xml_url":0,"soiltest_view_url":0},{"id":169847,"code":"B4KJ201801005-8096","latitude":"35.8728325","longitude":"136.8579906","source_code":"CB53366648002","project_name":"","survey_name":"\u5e73\u62102\u5e74\u5ea6\u6cb9\u5742\u5ce0\u9053\u8def\u305d\u306e2\u5730\u8cea\u8abf\u67fb","client_name":"\u56fd\u571f\u4ea4\u901a\u7701\u4e2d\u90e8\u5730\u65b9\u6574\u5099\u5c40\u5c90\u961c\u56fd\u9053\u4e8b\u52d9\u6240","boring_xml_url":40,"boring_view_url":1,"soilmap_view_url":null,"soiltest_xml_url":0,"soiltest_view_url":0},{"id":169846,"code":"B4KJ201801005-8095","latitude":"35.8723325","longitude":"136.8588517","source_code":"CB53366648001","project_name":"","survey_name":"\u5e73\u62102\u5e74\u5ea6\u6cb9\u5742\u5ce0\u9053\u8def\u305d\u306e2\u5730\u8cea\u8abf\u67fb","client_name":"\u56fd\u571f\u4ea4\u901a\u7701\u4e2d\u90e8\u5730\u65b9\u6574\u5099\u5c40\u5c90\u961c\u56fd\u9053\u4e8b\u52d9\u6240","boring_xml_url":40,"boring_view_url":1,"soilmap_view_url":null,"soiltest_xml_url":0,"soiltest_view_url":0},{"id":169845,"code":"B4KJ201801005-8094","latitude":"35.8775814","longitude":"136.8447972","source_code":"CB53366647010","project_name":"","survey_name":"\u5e73\u62102\u5e74\u5ea6\u6cb9\u5742\u5ce0\u9053\u8def\u5730\u8cea\u8abf\u67fb","client_name":"\u56fd\u571f\u4ea4\u901a\u7701\u4e2d\u90e8\u5730\u65b9\u6574\u5099\u5c40\u5c90\u961c\u56fd\u9053\u4e8b\u52d9\u6240","boring_xml_url":40,"boring_view_url":1,"soilmap_view_url":null,"soiltest_xml_url":0,"soiltest_view_url":0},{"id":169844,"code":"B4KJ201801005-8093","latitude":"35.8778592","longitude":"136.8456306","source_code":"CB53366647009","project_name":"","survey_name":"\u5e73\u62102\u5e74\u5ea6\u6cb9\u5742\u5ce0\u9053\u8def\u5730\u8cea\u8abf\u67fb","client_name":"\u56fd\u571f\u4ea4\u901a\u7701\u4e2d\u90e8\u5730\u65b9\u6574\u5099\u5c40\u5c90\u961c\u56fd\u9053\u4e8b\u52d9\u6240","boring_xml_url":40,"boring_view_url":1,"soilmap_view_url":null,"soiltest_xml_url":0,"soiltest_view_url":0},{"id":169843,"code":"B4KJ201801005-8092","latitude":"35.8780536","longitude":"136.8449361","source_code":"CB53366647008","project_name":"","survey_name":"\u5e73\u62103\u5e74\u5ea6\u6cb9\u5742\u5ce0\u9053\u8def\u5730\u8cea\u8abf\u67fb\u305d\u306e1","client_name":"\u56fd\u571f\u4ea4\u901a\u7701\u4e2d\u90e8\u5730\u65b9\u6574\u5099\u5c40\u5c90\u961c\u56fd\u9053\u4e8b\u52d9\u6240","boring_xml_url":40,"boring_view_url":1,"soilmap_view_url":null,"soiltest_xml_url":0,"soiltest_view_url":0},{"id":169842,"code":"B4KJ201801005-8091","latitude":"35.8775817","longitude":"136.8456306","source_code":"CB53366647007","project_name":"","survey_name":"\u5e73\u62103\u5e74\u5ea6\u6cb9\u5742\u5ce0\u9053\u8def\u5730\u8cea\u8abf\u67fb\u305d\u306e1","client_name":"\u56fd\u571f\u4ea4\u901a\u7701\u4e2d\u90e8\u5730\u65b9\u6574\u5099\u5c40\u5c90\u961c\u56fd\u9053\u4e8b\u52d9\u6240","boring_xml_url":40,"boring_view_url":1,"soilmap_view_url":null,"soiltest_xml_url":0,"soiltest_view_url":0},{"id":169841,"code":"B4KJ201801005-8090","latitude":"35.8775817","longitude":"136.8456306","source_code":"CB53366647006","project_name":"","survey_name":"\u5e73\u62103\u5e74\u5ea6\u6cb9\u5742\u5ce0\u9053\u8def\u5730\u8cea\u8abf\u67fb\u305d\u306e1","client_name":"\u56fd\u571f\u4ea4\u901a\u7701\u4e2d\u90e8\u5730\u65b9\u6574\u5099\u5c40\u5c90\u961c\u56fd\u9053\u4e8b\u52d9\u6240","boring_xml_url":40,"boring_view_url":1,"soilmap_view_url":null,"soiltest_xml_url":0,"soiltest_view_url":0},{"id":169840,"code":"B4KJ201801005-8089","latitude":"35.8777206","longitude":"136.8461858","source_code":"CB53366647005","project_name":"","survey_name":"\u5e73\u62103\u5e74\u5ea6\u6cb9\u5742\u5ce0\u9053\u8def\u5730\u8cea\u8abf\u67fb\u305d\u306e1","client_name":"\u56fd\u571f\u4ea4\u901a\u7701\u4e2d\u90e8\u5730\u65b9\u6574\u5099\u5c40\u5c90\u961c\u56fd\u9053\u4e8b\u52d9\u6240","boring_xml_url":40,"boring_view_url":1,"soilmap_view_url":null,"soiltest_xml_url":0,"soiltest_view_url":0},{"id":169839,"code":"B4KJ201801005-8088","latitude":"35.8777203","longitude":"136.8446583","source_code":"CB53366647004","project_name":"","survey_name":"\u5e73\u62103\u5e74\u5ea6\u6cb9\u5742\u5ce0\u9053\u8def\u5730\u8cea\u8abf\u67fb\u305d\u306e1","client_name":"\u56fd\u571f\u4ea4\u901a\u7701\u4e2d\u90e8\u5730\u65b9\u6574\u5099\u5c40\u5c90\u961c\u56fd\u9053\u4e8b\u52d9\u6240","boring_xml_url":40,"boring_view_url":1,"soilmap_view_url":null,"soiltest_xml_url":0,"soiltest_view_url":0},{"id":169838,"code":"B4KJ201801005-8087","latitude":"35.8778314","longitude":"136.8452139","source_code":"CB53366647003","project_name":"","survey_name":"\u5e73\u62103\u5e74\u5ea6\u6cb9\u5742\u5ce0\u9053\u8def\u5730\u8cea\u8abf\u67fb\u305d\u306e1","client_name":"\u56fd\u571f\u4ea4\u901a\u7701\u4e2d\u90e8\u5730\u65b9\u6574\u5099\u5c40\u5c90\u961c\u56fd\u9053\u4e8b\u52d9\u6240","boring_xml_url":40,"boring_view_url":1,"soilmap_view_url":null,"soiltest_xml_url":0,"soiltest_view_url":0},{"id":169837,"code":"B4KJ201801005-8086","latitude":"35.8779425","longitude":"136.8457694","source_code":"CB53366647002","project_name":"","survey_name":"\u5e73\u62103\u5e74\u5ea6\u6cb9\u5742\u5ce0\u9053\u8def\u5730\u8cea\u8abf\u67fb\u305d\u306e1","client_name":"\u56fd\u571f\u4ea4\u901a\u7701\u4e2d\u90e8\u5730\u65b9\u6574\u5099\u5c40\u5c90\u961c\u56fd\u9053\u4e8b\u52d9\u6240","boring_xml_url":40,"boring_view_url":1,"soilmap_view_url":null,"soiltest_xml_url":0,"soiltest_view_url":0},{"id":169836,"code":"B4KJ201801005-8085","latitude":"35.8780536","longitude":"136.8464636","source_code":"CB53366647001","project_name":"","survey_name":"\u5e73\u62103\u5e74\u5ea6\u6cb9\u5742\u5ce0\u9053\u8def\u5730\u8cea\u8abf\u67fb\u305d\u306e1","client_name":"\u56fd\u571f\u4ea4\u901a\u7701\u4e2d\u90e8\u5730\u65b9\u6574\u5099\u5c40\u5c90\u961c\u56fd\u9053\u4e8b\u52d9\u6240","boring_xml_url":40,"boring_view_url":1,"soilmap_view_url":null,"soiltest_xml_url":0,"soiltest_view_url":0},{"id":169835,"code":"B4KJ201801005-8084","latitude":"35.8636114","longitude":"136.8619628","source_code":"CB53366639006","project_name":"","survey_name":"\u5e73\u621013\u5e74\u5ea6\u5c90\u961c\u56fd\u9053\u7ba1\u5185\u9632\u707d\u5730\u8cea\u8abf\u67fb","client_name":"\u56fd\u571f\u4ea4\u901a\u7701\u4e2d\u90e8\u5730\u65b9\u6574\u5099\u5c40\u5c90\u961c\u56fd\u9053\u4e8b\u52d9\u6240","boring_xml_url":40,"boring_view_url":1,"soilmap_view_url":null,"soiltest_xml_url":0,"soiltest_view_url":0},{"id":169834,"code":"B4KJ201801005-8083","latitude":"35.8625836","longitude":"136.8624906","source_code":"CB53366639005","project_name":"","survey_name":"\u5e73\u621013\u5e74\u5ea6\u5c90\u961c\u56fd\u9053\u7ba1\u5185\u9632\u707d\u5730\u8cea\u8abf\u67fb","client_name":"\u56fd\u571f\u4ea4\u901a\u7701\u4e2d\u90e8\u5730\u65b9\u6574\u5099\u5c40\u5c90\u961c\u56fd\u9053\u4e8b\u52d9\u6240","boring_xml_url":40,"boring_view_url":1,"soilmap_view_url":null,"soiltest_xml_url":0,"soiltest_view_url":0},{"id":169833,"code":"B4KJ201801005-8082","latitude":"35.8615839","longitude":"136.863185","source_code":"CB53366639004","project_name":"","survey_name":"\u5e73\u621013\u5e74\u5ea6\u5c90\u961c\u56fd\u9053\u7ba1\u5185\u9632\u707d\u5730\u8cea\u8abf\u67fb","client_name":"\u56fd\u571f\u4ea4\u901a\u7701\u4e2d\u90e8\u5730\u65b9\u6574\u5099\u5c40\u5c90\u961c\u56fd\u9053\u4e8b\u52d9\u6240","boring_xml_url":40,"boring_view_url":1,"soilmap_view_url":null,"soiltest_xml_url":0,"soiltest_view_url":0},{"id":169832,"code":"B4KJ201801005-8081","latitude":"35.7788447","longitude":"136.9254883","source_code":"CB53365734002","project_name":"","survey_name":"\u662d\u548c61\u5e74\u5ea6\u516b\u5e61\u7ba1\u5185\u5730\u8cea\u8abf\u67fb","client_name":"\u56fd\u571f\u4ea4\u901a\u7701\u4e2d\u90e8\u5730\u65b9\u6574\u5099\u5c40\u5c90\u961c\u56fd\u9053\u4e8b\u52d9\u6240","boring_xml_url":40,"boring_view_url":1,"soilmap_view_url":null,"soiltest_xml_url":0,"soiltest_view_url":0},{"id":169831,"code":"B4KJ201801005-8080","latitude":"35.7786225","longitude":"136.9252106","source_code":"CB53365734001","project_name":"","survey_name":"\u662d\u548c61\u5e74\u5ea6\u516b\u5e61\u7ba1\u5185\u5730\u8cea\u8abf\u67fb","client_name":"\u56fd\u571f\u4ea4\u901a\u7701\u4e2d\u90e8\u5730\u65b9\u6574\u5099\u5c40\u5c90\u961c\u56fd\u9053\u4e8b\u52d9\u6240","boring_xml_url":40,"boring_view_url":1,"soilmap_view_url":null,"soiltest_xml_url":0,"soiltest_view_url":0},{"id":169830,"code":"B4KJ201801005-8079","latitude":"35.7678186","longitude":"136.9404872","source_code":"CB53365715003","project_name":"","survey_name":"\u5e73\u62104\u5e74\u5ea6\u4e2d\u5207\u9632\u707d\u4ed62\u4ef6\u6e2c\u91cf\u8a2d\u8a08\u696d\u52d9\u59d4\u8a17","client_name":"\u56fd\u571f\u4ea4\u901a\u7701\u4e2d\u90e8\u5730\u65b9\u6574\u5099\u5c40\u5c90\u961c\u56fd\u9053\u4e8b\u52d9\u6240","boring_xml_url":40,"boring_view_url":1,"soilmap_view_url":null,"soiltest_xml_url":0,"soiltest_view_url":0},{"id":169829,"code":"B4KJ201801005-8078","latitude":"35.769485","longitude":"136.9395983","source_code":"CB53365715002","project_name":"","survey_name":"\u662d\u548c61\u5e74\u5ea6\u516b\u5e61\u7ba1\u5185\u5730\u8cea\u8abf\u67fb","client_name":"\u56fd\u571f\u4ea4\u901a\u7701\u4e2d\u90e8\u5730\u65b9\u6574\u5099\u5c40\u5c90\u961c\u56fd\u9053\u4e8b\u52d9\u6240","boring_xml_url":40,"boring_view_url":1,"soilmap_view_url":null,"soiltest_xml_url":0,"soiltest_view_url":0},{"id":169828,"code":"B4KJ201801005-8077","latitude":"35.7692353","longitude":"136.9395153","source_code":"CB53365715001","project_name":"","survey_name":"\u662d\u548c61\u5e74\u5ea6\u516b\u5e61\u7ba1\u5185\u5730\u8cea\u8abf\u67fb","client_name":"\u56fd\u571f\u4ea4\u901a\u7701\u4e2d\u90e8\u5730\u65b9\u6574\u5099\u5c40\u5c90\u961c\u56fd\u9053\u4e8b\u52d9\u6240","boring_xml_url":40,"boring_view_url":1,"soilmap_view_url":null,"soiltest_xml_url":0,"soiltest_view_url":0},{"id":169827,"code":"B4KJ201801005-8076","latitude":"35.7062706","longitude":"136.9522386","source_code":"CB53364746002","project_name":"","survey_name":"\u5e73\u621013\u5e74\u5ea6\u5c90\u961c\u56fd\u9053\u7ba1\u5185\u9632\u707d\u5730\u8cea\u8abf\u67fb","client_name":"\u56fd\u571f\u4ea4\u901a\u7701\u4e2d\u90e8\u5730\u65b9\u6574\u5099\u5c40\u5c90\u961c\u56fd\u9053\u4e8b\u52d9\u6240","boring_xml_url":40,"boring_view_url":1,"soilmap_view_url":null,"soiltest_xml_url":0,"soiltest_view_url":0},{"id":169826,"code":"B4KJ201801005-8075","latitude":"35.6946606","longitude":"136.9516003","source_code":"CB53364726009","project_name":"","survey_name":"\u5e73\u62104\u5e74\u5ea641\u53f7\u4e0b\u539f\u6539\u826f\u5730\u8cea\u8abf\u67fb(156\u53f7\u540d\u6d25\u4f50\u5730\u533a)","client_name":"\u56fd\u571f\u4ea4\u901a\u7701\u4e2d\u90e8\u5730\u65b9\u6574\u5099\u5c40\u5c90\u961c\u56fd\u9053\u4e8b\u52d9\u6240","boring_xml_url":40,"boring_view_url":1,"soilmap_view_url":null,"soiltest_xml_url":0,"soiltest_view_url":0}]}}