{"header":{"xyz":{"source":[],"mosaic":false},"page":5028,"raw":{"soiltest_result":"0","bbox":"57.598333,109.544722,1.933333,163.806111","page":"5028"},"conditions":{"soiltest_result":0,"north":57.598333,"west":109.544722,"south":1.933333,"east":163.806111},"success":true,"message":""},"data":{"meta":{"total":212844,"page":5028,"pages":7095,"count":30},"values":[{"id":169735,"code":"B4KJ201801005-7984","latitude":"35.5088769","longitude":"136.9778547","source_code":"CB53362708003","project_name":"","survey_name":"\u5e73\u62104\u5e74\u6771\u6d77\u74b0\u72b6\u81ea\u52d5\u8eca\u9053\u5bcc\u52a0\u3001\u95a2IC\u5730\u8cea\u8abf\u67fb","client_name":"\u56fd\u571f\u4ea4\u901a\u7701\u4e2d\u90e8\u5730\u65b9\u6574\u5099\u5c40\u5c90\u961c\u56fd\u9053\u4e8b\u52d9\u6240","boring_xml_url":40,"boring_view_url":1,"soilmap_view_url":null,"soiltest_xml_url":0,"soiltest_view_url":0},{"id":169734,"code":"B4KJ201801005-7983","latitude":"35.5087381","longitude":"136.9767439","source_code":"CB53362708002","project_name":"","survey_name":"\u5e73\u62104\u5e74\u6771\u6d77\u74b0\u72b6\u81ea\u52d5\u8eca\u9053\u5bcc\u52a0\u3001\u95a2IC\u5730\u8cea\u8abf\u67fb","client_name":"\u56fd\u571f\u4ea4\u901a\u7701\u4e2d\u90e8\u5730\u65b9\u6574\u5099\u5c40\u5c90\u961c\u56fd\u9053\u4e8b\u52d9\u6240","boring_xml_url":40,"boring_view_url":1,"soilmap_view_url":null,"soiltest_xml_url":0,"soiltest_view_url":0},{"id":169733,"code":"B4KJ201801005-7982","latitude":"35.5085992","longitude":"136.9756328","source_code":"CB53362708001","project_name":"","survey_name":"\u5e73\u62104\u5e74\u6771\u6d77\u74b0\u72b6\u81ea\u52d5\u8eca\u9053\u5bcc\u52a0\u3001\u95a2IC\u5730\u8cea\u8abf\u67fb","client_name":"\u56fd\u571f\u4ea4\u901a\u7701\u4e2d\u90e8\u5730\u65b9\u6574\u5099\u5c40\u5c90\u961c\u56fd\u9053\u4e8b\u52d9\u6240","boring_xml_url":40,"boring_view_url":1,"soilmap_view_url":null,"soiltest_xml_url":0,"soiltest_view_url":0},{"id":169732,"code":"B4KJ201801005-7981","latitude":"35.5047106","longitude":"136.9713278","source_code":"CB53362707014","project_name":"","survey_name":"\u5e73\u62104\u5e74\u6771\u6d77\u74b0\u72b6\u81ea\u52d5\u8eca\u9053\u5bcc\u52a0\u3001\u95a2IC\u5730\u8cea\u8abf\u67fb","client_name":"\u56fd\u571f\u4ea4\u901a\u7701\u4e2d\u90e8\u5730\u65b9\u6574\u5099\u5c40\u5c90\u961c\u56fd\u9053\u4e8b\u52d9\u6240","boring_xml_url":40,"boring_view_url":1,"soilmap_view_url":null,"soiltest_xml_url":0,"soiltest_view_url":0},{"id":169731,"code":"B4KJ201801005-7980","latitude":"35.5042939","longitude":"136.9717444","source_code":"CB53362707013","project_name":"","survey_name":"\u5e73\u62104\u5e74\u6771\u6d77\u74b0\u72b6\u81ea\u52d5\u8eca\u9053\u5bcc\u52a0\u3001\u95a2IC\u5730\u8cea\u8abf\u67fb","client_name":"\u56fd\u571f\u4ea4\u901a\u7701\u4e2d\u90e8\u5730\u65b9\u6574\u5099\u5c40\u5c90\u961c\u56fd\u9053\u4e8b\u52d9\u6240","boring_xml_url":40,"boring_view_url":1,"soilmap_view_url":null,"soiltest_xml_url":0,"soiltest_view_url":0},{"id":169730,"code":"B4KJ201801005-7979","latitude":"35.5042939","longitude":"136.9718833","source_code":"CB53362707012","project_name":"","survey_name":"\u5e73\u62104\u5e74\u6771\u6d77\u74b0\u72b6\u81ea\u52d5\u8eca\u9053\u5bcc\u52a0\u3001\u95a2IC\u5730\u8cea\u8abf\u67fb","client_name":"\u56fd\u571f\u4ea4\u901a\u7701\u4e2d\u90e8\u5730\u65b9\u6574\u5099\u5c40\u5c90\u961c\u56fd\u9053\u4e8b\u52d9\u6240","boring_xml_url":40,"boring_view_url":1,"soilmap_view_url":null,"soiltest_xml_url":0,"soiltest_view_url":0},{"id":169729,"code":"B4KJ201801005-7978","latitude":"35.5049883","longitude":"136.9713278","source_code":"CB53362707011","project_name":"","survey_name":"\u5e73\u62104\u5e74\u6771\u6d77\u74b0\u72b6\u81ea\u52d5\u8eca\u9053\u5bcc\u52a0\u3001\u95a2IC\u5730\u8cea\u8abf\u67fb","client_name":"\u56fd\u571f\u4ea4\u901a\u7701\u4e2d\u90e8\u5730\u65b9\u6574\u5099\u5c40\u5c90\u961c\u56fd\u9053\u4e8b\u52d9\u6240","boring_xml_url":40,"boring_view_url":1,"soilmap_view_url":null,"soiltest_xml_url":0,"soiltest_view_url":0},{"id":169728,"code":"B4KJ201801005-7977","latitude":"35.5056828","longitude":"136.9700778","source_code":"CB53362707010","project_name":"","survey_name":"\u5e73\u62104\u5e74\u6771\u6d77\u74b0\u72b6\u81ea\u52d5\u8eca\u9053\u5bcc\u52a0\u3001\u95a2IC\u5730\u8cea\u8abf\u67fb","client_name":"\u56fd\u571f\u4ea4\u901a\u7701\u4e2d\u90e8\u5730\u65b9\u6574\u5099\u5c40\u5c90\u961c\u56fd\u9053\u4e8b\u52d9\u6240","boring_xml_url":40,"boring_view_url":1,"soilmap_view_url":null,"soiltest_xml_url":0,"soiltest_view_url":0},{"id":169727,"code":"B4KJ201801005-7976","latitude":"35.5056828","longitude":"136.9704944","source_code":"CB53362707009","project_name":"","survey_name":"\u5e73\u62104\u5e74\u6771\u6d77\u74b0\u72b6\u81ea\u52d5\u8eca\u9053\u5bcc\u52a0\u3001\u95a2IC\u5730\u8cea\u8abf\u67fb","client_name":"\u56fd\u571f\u4ea4\u901a\u7701\u4e2d\u90e8\u5730\u65b9\u6574\u5099\u5c40\u5c90\u961c\u56fd\u9053\u4e8b\u52d9\u6240","boring_xml_url":40,"boring_view_url":1,"soilmap_view_url":null,"soiltest_xml_url":0,"soiltest_view_url":0},{"id":169726,"code":"B4KJ201801005-7975","latitude":"35.5056828","longitude":"136.9709111","source_code":"CB53362707008","project_name":"","survey_name":"\u5e73\u62104\u5e74\u6771\u6d77\u74b0\u72b6\u81ea\u52d5\u8eca\u9053\u5bcc\u52a0\u3001\u95a2IC\u5730\u8cea\u8abf\u67fb","client_name":"\u56fd\u571f\u4ea4\u901a\u7701\u4e2d\u90e8\u5730\u65b9\u6574\u5099\u5c40\u5c90\u961c\u56fd\u9053\u4e8b\u52d9\u6240","boring_xml_url":40,"boring_view_url":1,"soilmap_view_url":null,"soiltest_xml_url":0,"soiltest_view_url":0},{"id":169725,"code":"B4KJ201801005-7974","latitude":"35.5056828","longitude":"136.9711889","source_code":"CB53362707007","project_name":"","survey_name":"\u5e73\u62104\u5e74\u6771\u6d77\u74b0\u72b6\u81ea\u52d5\u8eca\u9053\u5bcc\u52a0\u3001\u95a2IC\u5730\u8cea\u8abf\u67fb","client_name":"\u56fd\u571f\u4ea4\u901a\u7701\u4e2d\u90e8\u5730\u65b9\u6574\u5099\u5c40\u5c90\u961c\u56fd\u9053\u4e8b\u52d9\u6240","boring_xml_url":40,"boring_view_url":1,"soilmap_view_url":null,"soiltest_xml_url":0,"soiltest_view_url":0},{"id":169724,"code":"B4KJ201801005-7973","latitude":"35.5066547","longitude":"136.9713278","source_code":"CB53362707006","project_name":"","survey_name":"\u5e73\u62104\u5e74\u6771\u6d77\u74b0\u72b6\u81ea\u52d5\u8eca\u9053\u5bcc\u52a0\u3001\u95a2IC\u5730\u8cea\u8abf\u67fb","client_name":"\u56fd\u571f\u4ea4\u901a\u7701\u4e2d\u90e8\u5730\u65b9\u6574\u5099\u5c40\u5c90\u961c\u56fd\u9053\u4e8b\u52d9\u6240","boring_xml_url":40,"boring_view_url":1,"soilmap_view_url":null,"soiltest_xml_url":0,"soiltest_view_url":0},{"id":169723,"code":"B4KJ201801005-7972","latitude":"35.5067936","longitude":"136.9717442","source_code":"CB53362707005","project_name":"","survey_name":"\u5e73\u62104\u5e74\u6771\u6d77\u74b0\u72b6\u81ea\u52d5\u8eca\u9053\u5bcc\u52a0\u3001\u95a2IC\u5730\u8cea\u8abf\u67fb","client_name":"\u56fd\u571f\u4ea4\u901a\u7701\u4e2d\u90e8\u5730\u65b9\u6574\u5099\u5c40\u5c90\u961c\u56fd\u9053\u4e8b\u52d9\u6240","boring_xml_url":40,"boring_view_url":1,"soilmap_view_url":null,"soiltest_xml_url":0,"soiltest_view_url":0},{"id":169722,"code":"B4KJ201801005-7971","latitude":"35.5073492","longitude":"136.9706333","source_code":"CB53362707004","project_name":"","survey_name":"\u5e73\u62104\u5e74\u6771\u6d77\u74b0\u72b6\u81ea\u52d5\u8eca\u9053\u5bcc\u52a0\u3001\u95a2IC\u5730\u8cea\u8abf\u67fb","client_name":"\u56fd\u571f\u4ea4\u901a\u7701\u4e2d\u90e8\u5730\u65b9\u6574\u5099\u5c40\u5c90\u961c\u56fd\u9053\u4e8b\u52d9\u6240","boring_xml_url":40,"boring_view_url":1,"soilmap_view_url":null,"soiltest_xml_url":0,"soiltest_view_url":0},{"id":169721,"code":"B4KJ201801005-7970","latitude":"35.5083214","longitude":"136.9709111","source_code":"CB53362707003","project_name":"","survey_name":"\u5e73\u62104\u5e74\u6771\u6d77\u74b0\u72b6\u81ea\u52d5\u8eca\u9053\u5bcc\u52a0\u3001\u95a2IC\u5730\u8cea\u8abf\u67fb","client_name":"\u56fd\u571f\u4ea4\u901a\u7701\u4e2d\u90e8\u5730\u65b9\u6574\u5099\u5c40\u5c90\u961c\u56fd\u9053\u4e8b\u52d9\u6240","boring_xml_url":40,"boring_view_url":1,"soilmap_view_url":null,"soiltest_xml_url":0,"soiltest_view_url":0},{"id":169720,"code":"B4KJ201801005-7969","latitude":"35.5079047","longitude":"136.9707722","source_code":"CB53362707002","project_name":"","survey_name":"\u5e73\u62104\u5e74\u6771\u6d77\u74b0\u72b6\u81ea\u52d5\u8eca\u9053\u5bcc\u52a0\u3001\u95a2IC\u5730\u8cea\u8abf\u67fb","client_name":"\u56fd\u571f\u4ea4\u901a\u7701\u4e2d\u90e8\u5730\u65b9\u6574\u5099\u5c40\u5c90\u961c\u56fd\u9053\u4e8b\u52d9\u6240","boring_xml_url":40,"boring_view_url":1,"soilmap_view_url":null,"soiltest_xml_url":0,"soiltest_view_url":0},{"id":169719,"code":"B4KJ201801005-7968","latitude":"35.5087381","longitude":"136.9717442","source_code":"CB53362707001","project_name":"","survey_name":"\u5e73\u62102\u5e74\u5ea6\u6771\u6d77\u74b0\u72b6\u81ea\u52d5\u8eca\u9053\u305d\u306e1\u5730\u8cea\u8abf\u67fb","client_name":"\u56fd\u571f\u4ea4\u901a\u7701\u4e2d\u90e8\u5730\u65b9\u6574\u5099\u5c40\u5c90\u961c\u56fd\u9053\u4e8b\u52d9\u6240","boring_xml_url":40,"boring_view_url":1,"soilmap_view_url":null,"soiltest_xml_url":0,"soiltest_view_url":0},{"id":169718,"code":"B4KJ201801005-7967","latitude":"35.5110967","longitude":"136.8828353","source_code":"CB53362700009","project_name":"","survey_name":"\u5e73\u62102\u5e74\u5ea6\u6771\u6d77\u74b0\u72b6\u81ea\u52d5\u8eca\u9053\u305d\u306e6\u5730\u8cea\u8abf\u67fb","client_name":"\u56fd\u571f\u4ea4\u901a\u7701\u4e2d\u90e8\u5730\u65b9\u6574\u5099\u5c40\u5c90\u961c\u56fd\u9053\u4e8b\u52d9\u6240","boring_xml_url":40,"boring_view_url":1,"soilmap_view_url":null,"soiltest_xml_url":0,"soiltest_view_url":0},{"id":169717,"code":"B4KJ201801005-7966","latitude":"35.5108467","longitude":"136.8811964","source_code":"CB53362700008","project_name":"","survey_name":"\u5e73\u62102\u5e74\u5ea6\u6771\u6d77\u74b0\u72b6\u81ea\u52d5\u8eca\u9053\u305d\u306e6\u5730\u8cea\u8abf\u67fb","client_name":"\u56fd\u571f\u4ea4\u901a\u7701\u4e2d\u90e8\u5730\u65b9\u6574\u5099\u5c40\u5c90\u961c\u56fd\u9053\u4e8b\u52d9\u6240","boring_xml_url":40,"boring_view_url":1,"soilmap_view_url":null,"soiltest_xml_url":0,"soiltest_view_url":0},{"id":169716,"code":"B4KJ201801005-7965","latitude":"35.5101522","longitude":"136.8791689","source_code":"CB53362700007","project_name":"","survey_name":"\u5e73\u62102\u5e74\u5ea6\u6771\u6d77\u74b0\u72b6\u81ea\u52d5\u8eca\u9053\u305d\u306e6\u5730\u8cea\u8abf\u67fb","client_name":"\u56fd\u571f\u4ea4\u901a\u7701\u4e2d\u90e8\u5730\u65b9\u6574\u5099\u5c40\u5c90\u961c\u56fd\u9053\u4e8b\u52d9\u6240","boring_xml_url":40,"boring_view_url":1,"soilmap_view_url":null,"soiltest_xml_url":0,"soiltest_view_url":0},{"id":169715,"code":"B4KJ201801005-7964","latitude":"35.5099022","longitude":"136.8781414","source_code":"CB53362700006","project_name":"","survey_name":"\u5e73\u62102\u5e74\u5ea6\u6771\u6d77\u74b0\u72b6\u81ea\u52d5\u8eca\u9053\u305d\u306e6\u5730\u8cea\u8abf\u67fb","client_name":"\u56fd\u571f\u4ea4\u901a\u7701\u4e2d\u90e8\u5730\u65b9\u6574\u5099\u5c40\u5c90\u961c\u56fd\u9053\u4e8b\u52d9\u6240","boring_xml_url":40,"boring_view_url":1,"soilmap_view_url":null,"soiltest_xml_url":0,"soiltest_view_url":0},{"id":169714,"code":"B4KJ201801005-7963","latitude":"35.5097075","longitude":"136.8733639","source_code":"CB53362700005","project_name":"","survey_name":"\u5e73\u62102\u5e74\u5ea6\u6771\u6d77\u74b0\u72b6\u81ea\u52d5\u8eca\u9053\u305d\u306e6\u5730\u8cea\u8abf\u67fb","client_name":"\u56fd\u571f\u4ea4\u901a\u7701\u4e2d\u90e8\u5730\u65b9\u6574\u5099\u5c40\u5c90\u961c\u56fd\u9053\u4e8b\u52d9\u6240","boring_xml_url":40,"boring_view_url":1,"soilmap_view_url":null,"soiltest_xml_url":0,"soiltest_view_url":0},{"id":169713,"code":"B4KJ201801005-7962","latitude":"35.5089022","longitude":"136.8747528","source_code":"CB53362700004","project_name":"","survey_name":"\u5e73\u62102\u5e74\u5ea6\u6771\u6d77\u74b0\u72b6\u81ea\u52d5\u8eca\u9053\u305d\u306e6\u5730\u8cea\u8abf\u67fb","client_name":"\u56fd\u571f\u4ea4\u901a\u7701\u4e2d\u90e8\u5730\u65b9\u6574\u5099\u5c40\u5c90\u961c\u56fd\u9053\u4e8b\u52d9\u6240","boring_xml_url":40,"boring_view_url":1,"soilmap_view_url":null,"soiltest_xml_url":0,"soiltest_view_url":0},{"id":169712,"code":"B4KJ201801005-7961","latitude":"35.5079022","longitude":"136.8731417","source_code":"CB53362700003","project_name":"","survey_name":"\u5e73\u62102\u5e74\u5ea6\u6771\u6d77\u74b0\u72b6\u81ea\u52d5\u8eca\u9053\u305d\u306e6\u5730\u8cea\u8abf\u67fb","client_name":"\u56fd\u571f\u4ea4\u901a\u7701\u4e2d\u90e8\u5730\u65b9\u6574\u5099\u5c40\u5c90\u961c\u56fd\u9053\u4e8b\u52d9\u6240","boring_xml_url":40,"boring_view_url":1,"soilmap_view_url":null,"soiltest_xml_url":0,"soiltest_view_url":0},{"id":169711,"code":"B4KJ201801005-7960","latitude":"35.5065414","longitude":"136.8734194","source_code":"CB53362700002","project_name":"","survey_name":"\u5e73\u62102\u5e74\u5ea6\u6771\u6d77\u74b0\u72b6\u81ea\u52d5\u8eca\u9053\u305d\u306e6\u5730\u8cea\u8abf\u67fb","client_name":"\u56fd\u571f\u4ea4\u901a\u7701\u4e2d\u90e8\u5730\u65b9\u6574\u5099\u5c40\u5c90\u961c\u56fd\u9053\u4e8b\u52d9\u6240","boring_xml_url":40,"boring_view_url":1,"soilmap_view_url":null,"soiltest_xml_url":0,"soiltest_view_url":0},{"id":169710,"code":"B4KJ201801005-7959","latitude":"35.5077078","longitude":"136.8723086","source_code":"CB53362700001","project_name":"","survey_name":"\u5e73\u62102\u5e74\u5ea6\u6771\u6d77\u74b0\u72b6\u81ea\u52d5\u8eca\u9053\u305d\u306e6\u5730\u8cea\u8abf\u67fb","client_name":"\u56fd\u571f\u4ea4\u901a\u7701\u4e2d\u90e8\u5730\u65b9\u6574\u5099\u5c40\u5c90\u961c\u56fd\u9053\u4e8b\u52d9\u6240","boring_xml_url":40,"boring_view_url":1,"soilmap_view_url":null,"soiltest_xml_url":0,"soiltest_view_url":0},{"id":169709,"code":"B4KJ201801005-7958","latitude":"35.5085408","longitude":"136.8636981","source_code":"CB53362609002","project_name":"","survey_name":"\u5e73\u62102\u5e74\u5ea6\u6771\u6d77\u74b0\u72b6\u81ea\u52d5\u8eca\u9053\u305d\u306e6\u5730\u8cea\u8abf\u67fb","client_name":"\u56fd\u571f\u4ea4\u901a\u7701\u4e2d\u90e8\u5730\u65b9\u6574\u5099\u5c40\u5c90\u961c\u56fd\u9053\u4e8b\u52d9\u6240","boring_xml_url":40,"boring_view_url":1,"soilmap_view_url":null,"soiltest_xml_url":0,"soiltest_view_url":0},{"id":169708,"code":"B4KJ201801005-7957","latitude":"35.50718","longitude":"136.8701142","source_code":"CB53362609001","project_name":"","survey_name":"\u5e73\u62102\u5e74\u5ea6\u6771\u6d77\u74b0\u72b6\u81ea\u52d5\u8eca\u9053\u305d\u306e6\u5730\u8cea\u8abf\u67fb","client_name":"\u56fd\u571f\u4ea4\u901a\u7701\u4e2d\u90e8\u5730\u65b9\u6574\u5099\u5c40\u5c90\u961c\u56fd\u9053\u4e8b\u52d9\u6240","boring_xml_url":40,"boring_view_url":1,"soilmap_view_url":null,"soiltest_xml_url":0,"soiltest_view_url":0},{"id":169707,"code":"B4KJ201801005-7956","latitude":"35.4938792","longitude":"136.9952983","source_code":"CB53361789020","project_name":"","survey_name":"\u5e73\u621010\u5e74\u5ea6\u6771\u6d77\u74b0\u72b6\u5bcc\u52a0\u5730\u8cea\u8abf\u67fb","client_name":"\u56fd\u571f\u4ea4\u901a\u7701\u4e2d\u90e8\u5730\u65b9\u6574\u5099\u5c40\u5c90\u961c\u56fd\u9053\u4e8b\u52d9\u6240","boring_xml_url":40,"boring_view_url":1,"soilmap_view_url":null,"soiltest_xml_url":0,"soiltest_view_url":0},{"id":169706,"code":"B4KJ201801005-7955","latitude":"35.4936014","longitude":"136.995465","source_code":"CB53361789019","project_name":"","survey_name":"\u5e73\u621010\u5e74\u5ea6\u6771\u6d77\u74b0\u72b6\u5bcc\u52a0\u5730\u8cea\u8abf\u67fb","client_name":"\u56fd\u571f\u4ea4\u901a\u7701\u4e2d\u90e8\u5730\u65b9\u6574\u5099\u5c40\u5c90\u961c\u56fd\u9053\u4e8b\u52d9\u6240","boring_xml_url":40,"boring_view_url":1,"soilmap_view_url":null,"soiltest_xml_url":0,"soiltest_view_url":0}]}}