{"header":{"xyz":{"source":[],"mosaic":false},"page":5035,"raw":{"soiltest_result":"0","bbox":"57.598333,109.544722,1.933333,163.806111","page":"5035"},"conditions":{"soiltest_result":0,"north":57.598333,"west":109.544722,"south":1.933333,"east":163.806111},"success":true,"message":""},"data":{"meta":{"total":212844,"page":5035,"pages":7095,"count":30},"values":[{"id":169525,"code":"B4KJ201801005-7774","latitude":"35.389025","longitude":"136.797875","source_code":"CB53360664012","project_name":"","survey_name":"\u5e73\u62105\u5e74\u5ea621\u53f7\u5c90\u5927\u30d0\u30a4\u30d1\u30b9(\u4e09\u5b85\u5730\u5185)\u5730\u8cea\u8abf\u67fb","client_name":"\u56fd\u571f\u4ea4\u901a\u7701\u4e2d\u90e8\u5730\u65b9\u6574\u5099\u5c40\u5c90\u961c\u56fd\u9053\u4e8b\u52d9\u6240","boring_xml_url":40,"boring_view_url":1,"soilmap_view_url":null,"soiltest_xml_url":0,"soiltest_view_url":0},{"id":169524,"code":"B4KJ201801005-7773","latitude":"35.389303","longitude":"136.798431","source_code":"CB53360664011","project_name":"","survey_name":"\u5e73\u62105\u5e74\u5ea621\u53f7\u5c90\u5927\u30d0\u30a4\u30d1\u30b9(\u4e09\u5b85\u5730\u533a)\u5730\u8cea\u8abf\u67fb","client_name":"\u56fd\u571f\u4ea4\u901a\u7701\u4e2d\u90e8\u5730\u65b9\u6574\u5099\u5c40\u5c90\u961c\u56fd\u9053\u4e8b\u52d9\u6240","boring_xml_url":40,"boring_view_url":1,"soilmap_view_url":null,"soiltest_xml_url":0,"soiltest_view_url":0},{"id":169523,"code":"B4KJ201801005-7772","latitude":"35.3895806","longitude":"136.7998192","source_code":"CB53360664010","project_name":"","survey_name":"\u5e73\u62105\u5e74\u5ea621\u53f7\u5c90\u5927\u30d0\u30a4\u30d1\u30b9(\u4e09\u5b85\u5730\u533a)\u5730\u8cea\u8abf\u67fb","client_name":"\u56fd\u571f\u4ea4\u901a\u7701\u4e2d\u90e8\u5730\u65b9\u6574\u5099\u5c40\u5c90\u961c\u56fd\u9053\u4e8b\u52d9\u6240","boring_xml_url":40,"boring_view_url":1,"soilmap_view_url":null,"soiltest_xml_url":0,"soiltest_view_url":0},{"id":169522,"code":"B4KJ201801005-7771","latitude":"35.3901361","longitude":"136.8014856","source_code":"CB53360664009","project_name":"","survey_name":"\u5e73\u62105\u5e74\u5ea621\u53f7\u5c90\u5927\u30d0\u30a4\u30d1\u30b9(\u4e09\u5b85\u5730\u533a)\u5730\u8cea\u8abf\u67fb","client_name":"\u56fd\u571f\u4ea4\u901a\u7701\u4e2d\u90e8\u5730\u65b9\u6574\u5099\u5c40\u5c90\u961c\u56fd\u9053\u4e8b\u52d9\u6240","boring_xml_url":40,"boring_view_url":1,"soilmap_view_url":null,"soiltest_xml_url":0,"soiltest_view_url":0},{"id":169521,"code":"B4KJ201801005-7770","latitude":"35.3904139","longitude":"136.8025967","source_code":"CB53360664008","project_name":"","survey_name":"\u5e73\u62105\u5e74\u5ea621\u53f7\u5c90\u5927\u30d0\u30a4\u30d1\u30b9(\u4e09\u5b85\u5730\u533a)\u5730\u8cea\u8abf\u67fb","client_name":"\u56fd\u571f\u4ea4\u901a\u7701\u4e2d\u90e8\u5730\u65b9\u6574\u5099\u5c40\u5c90\u961c\u56fd\u9053\u4e8b\u52d9\u6240","boring_xml_url":40,"boring_view_url":1,"soilmap_view_url":null,"soiltest_xml_url":0,"soiltest_view_url":0},{"id":169520,"code":"B4KJ201801005-7769","latitude":"35.3906917","longitude":"136.8039856","source_code":"CB53360664007","project_name":"","survey_name":"\u5e73\u62105\u5e74\u5ea621\u53f7\u5c90\u5927\u30d0\u30a4\u30d1\u30b9(\u4e09\u5b85\u5730\u533a)\u5730\u8cea\u8abf\u67fb","client_name":"\u56fd\u571f\u4ea4\u901a\u7701\u4e2d\u90e8\u5730\u65b9\u6574\u5099\u5c40\u5c90\u961c\u56fd\u9053\u4e8b\u52d9\u6240","boring_xml_url":40,"boring_view_url":1,"soilmap_view_url":null,"soiltest_xml_url":0,"soiltest_view_url":0},{"id":169519,"code":"B4KJ201801005-7768","latitude":"35.3906917","longitude":"136.8050964","source_code":"CB53360664006","project_name":"","survey_name":"\u5e73\u62105\u5e74\u5ea621\u53f7\u5c90\u5927\u30d0\u30a4\u30d1\u30b9(\u4e09\u5b85\u5730\u533a)\u5730\u8cea\u8abf\u67fb","client_name":"\u56fd\u571f\u4ea4\u901a\u7701\u4e2d\u90e8\u5730\u65b9\u6574\u5099\u5c40\u5c90\u961c\u56fd\u9053\u4e8b\u52d9\u6240","boring_xml_url":40,"boring_view_url":1,"soilmap_view_url":null,"soiltest_xml_url":0,"soiltest_view_url":0},{"id":169518,"code":"B4KJ201801005-7767","latitude":"35.3906917","longitude":"136.8067631","source_code":"CB53360664005","project_name":"","survey_name":"\u5e73\u62105\u5e74\u5ea621\u53f7\u5c90\u5927\u30d0\u30a4\u30d1\u30b9(\u4e09\u5b85\u5730\u533a)\u5730\u8cea\u8abf\u67fb","client_name":"\u56fd\u571f\u4ea4\u901a\u7701\u4e2d\u90e8\u5730\u65b9\u6574\u5099\u5c40\u5c90\u961c\u56fd\u9053\u4e8b\u52d9\u6240","boring_xml_url":40,"boring_view_url":1,"soilmap_view_url":null,"soiltest_xml_url":0,"soiltest_view_url":0},{"id":169517,"code":"B4KJ201801005-7766","latitude":"35.3906361","longitude":"136.8054297","source_code":"CB53360664004","project_name":"","survey_name":"\u90a3\u52a0\u30d0\u30a4\u30d1\u30b9(\u6771\u4e2d\u5cf6\u5730\u533a)\u5730\u8cea\u8abf\u67fb","client_name":"\u56fd\u571f\u4ea4\u901a\u7701\u4e2d\u90e8\u5730\u65b9\u6574\u5099\u5c40\u5c90\u961c\u56fd\u9053\u4e8b\u52d9\u6240","boring_xml_url":40,"boring_view_url":1,"soilmap_view_url":null,"soiltest_xml_url":0,"soiltest_view_url":0},{"id":169516,"code":"B4KJ201801005-7765","latitude":"35.3907194","longitude":"136.8015411","source_code":"CB53360664001","project_name":"","survey_name":"21.22\u53f7\u30d0\u30a4\u30d1\u30b9\u5730\u8cea","client_name":"\u56fd\u571f\u4ea4\u901a\u7701\u4e2d\u90e8\u5730\u65b9\u6574\u5099\u5c40\u4e2d\u90e8\u6280\u8853\u4e8b\u52d9\u6240","boring_xml_url":40,"boring_view_url":1,"soilmap_view_url":null,"soiltest_xml_url":0,"soiltest_view_url":0},{"id":169515,"code":"B4KJ201801005-7764","latitude":"35.388469","longitude":"136.796208","source_code":"CB53360663014","project_name":"","survey_name":"\u5e73\u62105\u5e74\u5ea621\u53f7\u5c90\u5927\u30d0\u30a4\u30d1\u30b9(\u4e09\u5b85\u5730\u533a)\u5730\u8cea\u8abf\u67fb","client_name":"\u56fd\u571f\u4ea4\u901a\u7701\u4e2d\u90e8\u5730\u65b9\u6574\u5099\u5c40\u5c90\u961c\u56fd\u9053\u4e8b\u52d9\u6240","boring_xml_url":40,"boring_view_url":1,"soilmap_view_url":null,"soiltest_xml_url":0,"soiltest_view_url":0},{"id":169514,"code":"B4KJ201801005-7763","latitude":"35.3901636","longitude":"136.7854314","source_code":"CB53360663013","project_name":"","survey_name":"\u662d\u548c63\u5e74\u5ea6\u5c90\u5357\u5730\u533a\u5730\u8cea\u8abf\u67fb","client_name":"\u56fd\u571f\u4ea4\u901a\u7701\u4e2d\u90e8\u5730\u65b9\u6574\u5099\u5c40\u5c90\u961c\u56fd\u9053\u4e8b\u52d9\u6240","boring_xml_url":40,"boring_view_url":1,"soilmap_view_url":null,"soiltest_xml_url":0,"soiltest_view_url":0},{"id":169513,"code":"B4KJ201801005-7762","latitude":"35.3868583","longitude":"136.7853483","source_code":"CB53360663012","project_name":"","survey_name":"\u662d\u548c63\u5e74\u5ea6\u5c90\u5357\u5730\u533a\u5730\u8cea\u8abf\u67fb","client_name":"\u56fd\u571f\u4ea4\u901a\u7701\u4e2d\u90e8\u5730\u65b9\u6574\u5099\u5c40\u5c90\u961c\u56fd\u9053\u4e8b\u52d9\u6240","boring_xml_url":40,"boring_view_url":1,"soilmap_view_url":null,"soiltest_xml_url":0,"soiltest_view_url":0},{"id":169512,"code":"B4KJ201801005-7761","latitude":"35.3885525","longitude":"136.7855428","source_code":"CB53360663011","project_name":"","survey_name":"\u662d\u548c63\u5e74\u5ea6\u5c90\u5357\u5730\u533a\u5730\u8cea\u8abf\u67fb","client_name":"\u56fd\u571f\u4ea4\u901a\u7701\u4e2d\u90e8\u5730\u65b9\u6574\u5099\u5c40\u5c90\u961c\u56fd\u9053\u4e8b\u52d9\u6240","boring_xml_url":40,"boring_view_url":1,"soilmap_view_url":null,"soiltest_xml_url":0,"soiltest_view_url":0},{"id":169511,"code":"B4KJ201801005-7760","latitude":"35.3884694","longitude":"136.7874869","source_code":"CB53360663010","project_name":"","survey_name":"\u662d\u548c63\u5e74\u5ea6\u5c90\u5357\u5730\u533a\u5730\u8cea\u8abf\u67fb","client_name":"\u56fd\u571f\u4ea4\u901a\u7701\u4e2d\u90e8\u5730\u65b9\u6574\u5099\u5c40\u5c90\u961c\u56fd\u9053\u4e8b\u52d9\u6240","boring_xml_url":40,"boring_view_url":1,"soilmap_view_url":null,"soiltest_xml_url":0,"soiltest_view_url":0},{"id":169510,"code":"B4KJ201801005-7759","latitude":"35.3884139","longitude":"136.79157","source_code":"CB53360663009","project_name":"","survey_name":"\u662d\u548c63\u5e74\u5ea6\u5c90\u5357\u5730\u533a\u5730\u8cea\u8abf\u67fb","client_name":"\u56fd\u571f\u4ea4\u901a\u7701\u4e2d\u90e8\u5730\u65b9\u6574\u5099\u5c40\u5c90\u961c\u56fd\u9053\u4e8b\u52d9\u6240","boring_xml_url":40,"boring_view_url":1,"soilmap_view_url":null,"soiltest_xml_url":0,"soiltest_view_url":0},{"id":169509,"code":"B4KJ201801005-7758","latitude":"35.3944686","longitude":"136.7851536","source_code":"CB53360663005","project_name":"","survey_name":"\u662d\u548c48\u5e74\u5ea6\u5927\u57a3\u5c40\u6539\u4ed61\u30f6\u6240\u571f\u8cea\u8abf\u67fb(\u5c90\u961c\u6771BP)","client_name":"\u56fd\u571f\u4ea4\u901a\u7701\u4e2d\u90e8\u5730\u65b9\u6574\u5099\u5c40\u4e2d\u90e8\u6280\u8853\u4e8b\u52d9\u6240","boring_xml_url":40,"boring_view_url":1,"soilmap_view_url":null,"soiltest_xml_url":0,"soiltest_view_url":0},{"id":169508,"code":"B4KJ201801005-7757","latitude":"35.389525","longitude":"136.796347","source_code":"CB53360663004","project_name":"","survey_name":"21.22\u53f7\u30d0\u30a4\u30d1\u30b9\u5730\u8cea\u8abf\u67fb","client_name":"\u56fd\u571f\u4ea4\u901a\u7701\u4e2d\u90e8\u5730\u65b9\u6574\u5099\u5c40\u4e2d\u90e8\u6280\u8853\u4e8b\u52d9\u6240","boring_xml_url":40,"boring_view_url":1,"soilmap_view_url":null,"soiltest_xml_url":0,"soiltest_view_url":0},{"id":169507,"code":"B4KJ201801005-7756","latitude":"35.3889136","longitude":"136.7858761","source_code":"CB53360663003","project_name":"","survey_name":"21.22\u53f7\u30d0\u30a4\u30d1\u30b9\u5730\u8cea\u8abf\u67fb","client_name":"\u56fd\u571f\u4ea4\u901a\u7701\u4e2d\u90e8\u5730\u65b9\u6574\u5099\u5c40\u4e2d\u90e8\u6280\u8853\u4e8b\u52d9\u6240","boring_xml_url":40,"boring_view_url":1,"soilmap_view_url":null,"soiltest_xml_url":0,"soiltest_view_url":0},{"id":169506,"code":"B4KJ201801005-7755","latitude":"35.387775","longitude":"136.7916256","source_code":"CB53360663002","project_name":"","survey_name":"\u662d\u548c58\u5e74\u5ea6\u4e00\u822c\u53e3\u905321\u53f7(\u5c90\u5357\u5730\u533a)","client_name":"\u56fd\u571f\u4ea4\u901a\u7701\u4e2d\u90e8\u5730\u65b9\u6574\u5099\u5c40\u5c90\u961c\u56fd\u9053\u4e8b\u52d9\u6240","boring_xml_url":40,"boring_view_url":1,"soilmap_view_url":null,"soiltest_xml_url":0,"soiltest_view_url":0},{"id":169505,"code":"B4KJ201801005-7754","latitude":"35.3878306","longitude":"136.7871814","source_code":"CB53360663001","project_name":"","survey_name":"\u662d\u548c58\u5e74\u5ea6\u4e00\u822c\u53e3\u905321\u53f7(\u5c90\u5357\u5730\u533a)","client_name":"\u56fd\u571f\u4ea4\u901a\u7701\u4e2d\u90e8\u5730\u65b9\u6574\u5099\u5c40\u5c90\u961c\u56fd\u9053\u4e8b\u52d9\u6240","boring_xml_url":40,"boring_view_url":1,"soilmap_view_url":null,"soiltest_xml_url":0,"soiltest_view_url":0},{"id":169504,"code":"B4KJ201801005-7753","latitude":"35.3884692","longitude":"136.7767656","source_code":"CB53360662015","project_name":"","survey_name":"\u5e73\u62105\u5e74\u5ea621\u53f7\u5c90\u5927\u30d0\u30a4\u30d1\u30b9(\u4e09\u5b85\u5730\u533a)\u5730\u8cea\u8abf\u67fb","client_name":"\u56fd\u571f\u4ea4\u901a\u7701\u4e2d\u90e8\u5730\u65b9\u6574\u5099\u5c40\u5c90\u961c\u56fd\u9053\u4e8b\u52d9\u6240","boring_xml_url":40,"boring_view_url":1,"soilmap_view_url":null,"soiltest_xml_url":0,"soiltest_view_url":0},{"id":169503,"code":"B4KJ201801005-7752","latitude":"35.3881914","longitude":"136.7773211","source_code":"CB53360662014","project_name":"","survey_name":"\u5e73\u62105\u5e74\u5ea621\u53f7\u5c90\u5927\u30d0\u30a4\u30d1\u30b9(\u4e09\u5b85\u5730\u533a)\u5730\u8cea\u8abf\u67fb","client_name":"\u56fd\u571f\u4ea4\u901a\u7701\u4e2d\u90e8\u5730\u65b9\u6574\u5099\u5c40\u5c90\u961c\u56fd\u9053\u4e8b\u52d9\u6240","boring_xml_url":40,"boring_view_url":1,"soilmap_view_url":null,"soiltest_xml_url":0,"soiltest_view_url":0},{"id":169502,"code":"B4KJ201801005-7751","latitude":"35.3885525","longitude":"136.7811264","source_code":"CB53360662013","project_name":"","survey_name":"\u662d\u548c63\u5e74\u5ea6\u5c90\u5357\u5730\u533a\u5730\u8cea\u8abf\u67fb","client_name":"\u56fd\u571f\u4ea4\u901a\u7701\u4e2d\u90e8\u5730\u65b9\u6574\u5099\u5c40\u5c90\u961c\u56fd\u9053\u4e8b\u52d9\u6240","boring_xml_url":40,"boring_view_url":1,"soilmap_view_url":null,"soiltest_xml_url":0,"soiltest_view_url":0},{"id":169501,"code":"B4KJ201801005-7750","latitude":"35.3886081","longitude":"136.784515","source_code":"CB53360662012","project_name":"","survey_name":"\u662d\u548c63\u5e74\u5ea6\u5c90\u5357\u5730\u533a\u5730\u8cea\u8abf\u67fb","client_name":"\u56fd\u571f\u4ea4\u901a\u7701\u4e2d\u90e8\u5730\u65b9\u6574\u5099\u5c40\u5c90\u961c\u56fd\u9053\u4e8b\u52d9\u6240","boring_xml_url":40,"boring_view_url":1,"soilmap_view_url":null,"soiltest_xml_url":0,"soiltest_view_url":0},{"id":169500,"code":"B4KJ201801005-7749","latitude":"35.3881358","longitude":"136.7770433","source_code":"CB53360662010","project_name":"","survey_name":"\u662d\u548c52\u5e74\u5ea6\u5fb3\u7530\u67b6\u59161\u4ef6\u5730\u8cea\u8abf\u67fb(\u5fb3\u7530\u5730\u533a)","client_name":"\u56fd\u571f\u4ea4\u901a\u7701\u4e2d\u90e8\u5730\u65b9\u6574\u5099\u5c40\u5c90\u961c\u56fd\u9053\u4e8b\u52d9\u6240","boring_xml_url":40,"boring_view_url":1,"soilmap_view_url":null,"soiltest_xml_url":0,"soiltest_view_url":0},{"id":169499,"code":"B4KJ201801005-7748","latitude":"35.3879969","longitude":"136.7759325","source_code":"CB53360662009","project_name":"","survey_name":"\u662d\u548c52\u5e74\u5ea6\u5fb3\u7530\u67b6\u59161\u4ef6\u5730\u8cea\u8abf\u67fb(\u5fb3\u7530\u5730\u533a)","client_name":"\u56fd\u571f\u4ea4\u901a\u7701\u4e2d\u90e8\u5730\u65b9\u6574\u5099\u5c40\u5c90\u961c\u56fd\u9053\u4e8b\u52d9\u6240","boring_xml_url":40,"boring_view_url":1,"soilmap_view_url":null,"soiltest_xml_url":0,"soiltest_view_url":0},{"id":169498,"code":"B4KJ201801005-7747","latitude":"35.3879969","longitude":"136.7737103","source_code":"CB53360662008","project_name":"","survey_name":"\u662d\u548c52\u5e74\u5ea6\u5fb3\u7530\u67b6\u59161\u4ef6\u5730\u8cea\u8abf\u67fb(\u5fb3\u7530\u4e16\u533a)","client_name":"\u56fd\u571f\u4ea4\u901a\u7701\u4e2d\u90e8\u5730\u65b9\u6574\u5099\u5c40\u5c90\u961c\u56fd\u9053\u4e8b\u52d9\u6240","boring_xml_url":40,"boring_view_url":1,"soilmap_view_url":null,"soiltest_xml_url":0,"soiltest_view_url":0},{"id":169497,"code":"B4KJ201801005-7746","latitude":"35.3879689","longitude":"136.7728772","source_code":"CB53360662007","project_name":"","survey_name":"\u662d\u548c52\u5e74\u5ea6\u5fb3\u7530\u67b6\u59161\u4ef6\u5730\u8cea\u8abf\u67fb(\u5fb3\u7530\u5730\u533a)","client_name":"\u56fd\u571f\u4ea4\u901a\u7701\u4e2d\u90e8\u5730\u65b9\u6574\u5099\u5c40\u5c90\u961c\u56fd\u9053\u4e8b\u52d9\u6240","boring_xml_url":40,"boring_view_url":1,"soilmap_view_url":null,"soiltest_xml_url":0,"soiltest_view_url":0},{"id":169496,"code":"B4KJ201801005-7745","latitude":"35.3879689","longitude":"136.7724328","source_code":"CB53360662006","project_name":"","survey_name":"\u662d\u548c52\u5e74\u5ea6\u5fb3\u7530\u67b6\u59161\u4ef6\u5730\u8cea\u8abf\u67fb(\u5fb3\u7530\u5730\u533a)","client_name":"\u56fd\u571f\u4ea4\u901a\u7701\u4e2d\u90e8\u5730\u65b9\u6574\u5099\u5c40\u5c90\u961c\u56fd\u9053\u4e8b\u52d9\u6240","boring_xml_url":40,"boring_view_url":1,"soilmap_view_url":null,"soiltest_xml_url":0,"soiltest_view_url":0}]}}