{"header":{"xyz":{"source":[],"mosaic":false},"page":5047,"raw":{"soiltest_result":"0","bbox":"57.598333,109.544722,1.933333,163.806111","page":"5047"},"conditions":{"soiltest_result":0,"north":57.598333,"west":109.544722,"south":1.933333,"east":163.806111},"success":true,"message":""},"data":{"meta":{"total":212844,"page":5047,"pages":7095,"count":30},"values":[{"id":169165,"code":"B4KJ201801005-7414","latitude":"35.1776019","longitude":"138.8985628","source_code":"CB52386702016","project_name":"","survey_name":"\u662d\u548c59\u5e74\u5ea6,\u88fe\u91ce\u30d0\u30a4\u30d1\u30b9\u6843\u5712\u5730\u533a\u5730\u8cea\u8abf\u67fb","client_name":"\u56fd\u571f\u4ea4\u901a\u7701\u4e2d\u90e8\u5730\u65b9\u6574\u5099\u5c40\u6cbc\u6d25\u6cb3\u5ddd\u56fd\u9053\u4e8b\u52d9\u6240","boring_xml_url":40,"boring_view_url":1,"soilmap_view_url":null,"soiltest_xml_url":0,"soiltest_view_url":0},{"id":169164,"code":"B4KJ201801005-7413","latitude":"35.1775742","longitude":"138.8981183","source_code":"CB52386702015","project_name":"","survey_name":"\u662d\u548c59\u5e74\u5ea6,\u88fe\u91ce\u30d0\u30a4\u30d1\u30b9\u6843\u5712\u5730\u533a\u5730\u8cea\u8abf\u67fb","client_name":"\u56fd\u571f\u4ea4\u901a\u7701\u4e2d\u90e8\u5730\u65b9\u6574\u5099\u5c40\u6cbc\u6d25\u6cb3\u5ddd\u56fd\u9053\u4e8b\u52d9\u6240","boring_xml_url":40,"boring_view_url":1,"soilmap_view_url":null,"soiltest_xml_url":0,"soiltest_view_url":0},{"id":169163,"code":"B4KJ201801005-7412","latitude":"35.1775742","longitude":"138.8979239","source_code":"CB52386702014","project_name":"","survey_name":"\u662d\u548c59\u5e74\u5ea6,\u88fe\u91ce\u30d0\u30a4\u30d1\u30b9\u6843\u5712\u5730\u533a\u5730\u8cea\u8abf\u67fb","client_name":"\u56fd\u571f\u4ea4\u901a\u7701\u4e2d\u90e8\u5730\u65b9\u6574\u5099\u5c40\u6cbc\u6d25\u6cb3\u5ddd\u56fd\u9053\u4e8b\u52d9\u6240","boring_xml_url":40,"boring_view_url":1,"soilmap_view_url":null,"soiltest_xml_url":0,"soiltest_view_url":0},{"id":169162,"code":"B4KJ201801005-7411","latitude":"35.17438","longitude":"138.8993683","source_code":"CB52386702013","project_name":"","survey_name":"\u662d\u548c53\u5e74\u5ea6\u88fe\u91ce\u30d0\u30a4\u30d1\u30b9\u88fe\u91ce\u5730\u533a\u5730\u8cea\u8abf\u67fb","client_name":"\u56fd\u571f\u4ea4\u901a\u7701\u4e2d\u90e8\u5730\u65b9\u6574\u5099\u5c40\u6cbc\u6d25\u6cb3\u5ddd\u56fd\u9053\u4e8b\u52d9\u6240","boring_xml_url":40,"boring_view_url":1,"soilmap_view_url":null,"soiltest_xml_url":0,"soiltest_view_url":0},{"id":169161,"code":"B4KJ201801005-7410","latitude":"35.1754911","longitude":"138.8993683","source_code":"CB52386702012","project_name":"","survey_name":"\u662d\u548c53\u5e74\u5ea6\u88fe\u91ce\u30d0\u30a4\u30d1\u30b9\u88fe\u91ce\u5730\u533a\u5730\u8cea\u8abf\u67fb","client_name":"\u56fd\u571f\u4ea4\u901a\u7701\u4e2d\u90e8\u5730\u65b9\u6574\u5099\u5c40\u6cbc\u6d25\u6cb3\u5ddd\u56fd\u9053\u4e8b\u52d9\u6240","boring_xml_url":40,"boring_view_url":1,"soilmap_view_url":null,"soiltest_xml_url":0,"soiltest_view_url":0},{"id":169160,"code":"B4KJ201801005-7409","latitude":"35.1725747","longitude":"138.9007572","source_code":"CB52386702011","project_name":"","survey_name":"\u662d\u548c53\u5e74\u5ea6\u88fe\u91ce\u30d0\u30a4\u30d1\u30b9\u88fe\u91ce\u5730\u533a\u5730\u8cea\u8abf\u67fb","client_name":"\u56fd\u571f\u4ea4\u901a\u7701\u4e2d\u90e8\u5730\u65b9\u6574\u5099\u5c40\u6cbc\u6d25\u6cb3\u5ddd\u56fd\u9053\u4e8b\u52d9\u6240","boring_xml_url":40,"boring_view_url":1,"soilmap_view_url":null,"soiltest_xml_url":0,"soiltest_view_url":0},{"id":169159,"code":"B4KJ201801005-7408","latitude":"35.1739633","longitude":"138.9000628","source_code":"CB52386702009","project_name":"","survey_name":"\u662d\u548c53\u5e74\u5ea6\u88fe\u91ce\u30d0\u30a4\u30d1\u30b9\u88fe\u91ce\u5730\u533a\u5730\u8cea\u8abf\u67fb","client_name":"\u56fd\u571f\u4ea4\u901a\u7701\u4e2d\u90e8\u5730\u65b9\u6574\u5099\u5c40\u6cbc\u6d25\u6cb3\u5ddd\u56fd\u9053\u4e8b\u52d9\u6240","boring_xml_url":40,"boring_view_url":1,"soilmap_view_url":null,"soiltest_xml_url":0,"soiltest_view_url":0},{"id":169158,"code":"B4KJ201801005-7407","latitude":"35.1777131","longitude":"138.8999236","source_code":"CB52386702008","project_name":"","survey_name":"\u662d\u548c53\u5e74\u5ea6\u88fe\u91ce\u30d0\u30a4\u30d1\u30b9\u88fe\u91ce\u5730\u533a\u5730\u8cea\u8abf\u67fb","client_name":"\u56fd\u571f\u4ea4\u901a\u7701\u4e2d\u90e8\u5730\u65b9\u6574\u5099\u5c40\u6cbc\u6d25\u6cb3\u5ddd\u56fd\u9053\u4e8b\u52d9\u6240","boring_xml_url":40,"boring_view_url":1,"soilmap_view_url":null,"soiltest_xml_url":0,"soiltest_view_url":0},{"id":169157,"code":"B4KJ201801005-7406","latitude":"35.1779908","longitude":"138.8995069","source_code":"CB52386702007","project_name":"","survey_name":"\u662d\u548c53\u5e74\u5ea6\u88fe\u91ce\u30d0\u30a4\u30d1\u30b9\u88fe\u91ce\u5730\u533a\u5730\u8cea\u8abf\u67fb","client_name":"\u56fd\u571f\u4ea4\u901a\u7701\u4e2d\u90e8\u5730\u65b9\u6574\u5099\u5c40\u6cbc\u6d25\u6cb3\u5ddd\u56fd\u9053\u4e8b\u52d9\u6240","boring_xml_url":40,"boring_view_url":1,"soilmap_view_url":null,"soiltest_xml_url":0,"soiltest_view_url":0},{"id":169156,"code":"B4KJ201801005-7405","latitude":"35.1729081","longitude":"138.8983683","source_code":"CB52386702006","project_name":"","survey_name":"\u662d\u548c59\u5e74\u5ea6\u88fe\u91ce\u30d0\u30a4\u30d1\u30b9\u6843\u5712\u5730\u533a\u5730\u8cea\u8abf\u67fb","client_name":"\u56fd\u571f\u4ea4\u901a\u7701\u4e2d\u90e8\u5730\u65b9\u6574\u5099\u5c40\u6cbc\u6d25\u6cb3\u5ddd\u56fd\u9053\u4e8b\u52d9\u6240","boring_xml_url":40,"boring_view_url":1,"soilmap_view_url":null,"soiltest_xml_url":0,"soiltest_view_url":0},{"id":169155,"code":"B4KJ201801005-7404","latitude":"35.1733522","longitude":"138.8985906","source_code":"CB52386702005","project_name":"","survey_name":"\u662d\u548c59\u5e74\u5ea6\u88fe\u91ce\u30d0\u30a4\u30d1\u30b9\u6843\u5712\u5730\u533a\u5730\u8cea\u8abf\u67fb","client_name":"\u56fd\u571f\u4ea4\u901a\u7701\u4e2d\u90e8\u5730\u65b9\u6574\u5099\u5c40\u6cbc\u6d25\u6cb3\u5ddd\u56fd\u9053\u4e8b\u52d9\u6240","boring_xml_url":40,"boring_view_url":1,"soilmap_view_url":null,"soiltest_xml_url":0,"soiltest_view_url":0},{"id":169154,"code":"B4KJ201801005-7403","latitude":"35.1735744","longitude":"138.8987017","source_code":"CB52386702004","project_name":"","survey_name":"\u662d\u548c59\u5e74\u5ea6\u88fe\u91ce\u30d0\u30a4\u30d1\u30b9\u6843\u5712\u5730\u533a\u5730\u8cea\u8abf\u67fb","client_name":"\u56fd\u571f\u4ea4\u901a\u7701\u4e2d\u90e8\u5730\u65b9\u6574\u5099\u5c40\u6cbc\u6d25\u6cb3\u5ddd\u56fd\u9053\u4e8b\u52d9\u6240","boring_xml_url":40,"boring_view_url":1,"soilmap_view_url":null,"soiltest_xml_url":0,"soiltest_view_url":0},{"id":169153,"code":"B4KJ201801005-7402","latitude":"35.1739356","longitude":"138.8988128","source_code":"CB52386702003","project_name":"","survey_name":"\u662d\u548c59\u5e74\u5ea6\u88fe\u91ce\u30d0\u30a4\u30d1\u30b9\u6843\u5712\u5730\u533a\u5730\u8cea\u8abf\u67fb","client_name":"\u56fd\u571f\u4ea4\u901a\u7701\u4e2d\u90e8\u5730\u65b9\u6574\u5099\u5c40\u6cbc\u6d25\u6cb3\u5ddd\u56fd\u9053\u4e8b\u52d9\u6240","boring_xml_url":40,"boring_view_url":1,"soilmap_view_url":null,"soiltest_xml_url":0,"soiltest_view_url":0},{"id":169152,"code":"B4KJ201801005-7401","latitude":"35.1741856","longitude":"138.8991183","source_code":"CB52386702002","project_name":"","survey_name":"\u88fe\u91ce\u30d0\u30a4\u30d1\u30b9\u6843\u5712\u5730\u533a\u5730\u8cea\u8abf\u67fb","client_name":"\u56fd\u571f\u4ea4\u901a\u7701\u4e2d\u90e8\u5730\u65b9\u6574\u5099\u5c40\u6cbc\u6d25\u6cb3\u5ddd\u56fd\u9053\u4e8b\u52d9\u6240","boring_xml_url":40,"boring_view_url":1,"soilmap_view_url":null,"soiltest_xml_url":0,"soiltest_view_url":0},{"id":169151,"code":"B4KJ201801005-7400","latitude":"35.1746578","longitude":"138.8991183","source_code":"CB52386702001","project_name":"","survey_name":"\u88fe\u91ce\u30d0\u30a4\u30d1\u30b9\u6843\u5712\u5730\u533a\u5730\u8cea\u8abf\u67fb","client_name":"\u56fd\u571f\u4ea4\u901a\u7701\u4e2d\u90e8\u5730\u65b9\u6574\u5099\u5c40\u6cbc\u6d25\u6cb3\u5ddd\u56fd\u9053\u4e8b\u52d9\u6240","boring_xml_url":40,"boring_view_url":1,"soilmap_view_url":null,"soiltest_xml_url":0,"soiltest_view_url":0},{"id":169150,"code":"B4KJ201801005-7399","latitude":"35.2318392","longitude":"138.6438044","source_code":"CB52386571004","project_name":"","survey_name":"\u662d\u548c59\u5e74\u5ea6\u6817\u30ce\u6728\u6ca2,\u4e45\u9060\u5bfa\u5ddd\u30dc\u30fc\u30ea\u30f3\u30b0\u8abf\u67fb","client_name":"\u56fd\u571f\u4ea4\u901a\u7701\u4e2d\u90e8\u5730\u65b9\u6574\u5099\u5c40\u5bcc\u58eb\u7802\u9632\u4e8b\u52d9\u6240","boring_xml_url":40,"boring_view_url":1,"soilmap_view_url":null,"soiltest_xml_url":0,"soiltest_view_url":0},{"id":169149,"code":"B4KJ201801005-7398","latitude":"35.2320892","longitude":"138.6441656","source_code":"CB52386571003","project_name":"","survey_name":"\u662d\u548c59\u5e74\u5ea6\u6817\u30ce\u6728\u6ca2,\u4e45\u9060\u5bfa\u5ddd\u30dc\u30fc\u30ea\u30f3\u30b0\u8abf\u67fb","client_name":"\u56fd\u571f\u4ea4\u901a\u7701\u4e2d\u90e8\u5730\u65b9\u6574\u5099\u5c40\u5bcc\u58eb\u7802\u9632\u4e8b\u52d9\u6240","boring_xml_url":40,"boring_view_url":1,"soilmap_view_url":null,"soiltest_xml_url":0,"soiltest_view_url":0},{"id":169148,"code":"B4KJ201801005-7397","latitude":"35.2322003","longitude":"138.6438878","source_code":"CB52386571002","project_name":"","survey_name":"\u662d\u548c59\u5e74\u5ea6\u6817\u30ce\u6728\u6ca2,\u4e45\u9060\u5bfa\u5ddd\u30dc\u30fc\u30ea\u30f3\u30b0\u8abf\u67fb","client_name":"\u56fd\u571f\u4ea4\u901a\u7701\u4e2d\u90e8\u5730\u65b9\u6574\u5099\u5c40\u5bcc\u58eb\u7802\u9632\u4e8b\u52d9\u6240","boring_xml_url":40,"boring_view_url":1,"soilmap_view_url":null,"soiltest_xml_url":0,"soiltest_view_url":0},{"id":169147,"code":"B4KJ201801005-7396","latitude":"35.2322836","longitude":"138.6434711","source_code":"CB52386571001","project_name":"","survey_name":"\u662d\u548c59\u5e74\u5ea6\u6817\u30ce\u6728\u6ca2,\u4e45\u9060\u5bfa\u5ddd\u30dc\u30fc\u30ea\u30f3\u30b0\u8abf\u67fb","client_name":"\u56fd\u571f\u4ea4\u901a\u7701\u4e2d\u90e8\u5730\u65b9\u6574\u5099\u5c40\u5bcc\u58eb\u7802\u9632\u4e8b\u52d9\u6240","boring_xml_url":40,"boring_view_url":1,"soilmap_view_url":null,"soiltest_xml_url":0,"soiltest_view_url":0},{"id":169146,"code":"B4KJ201801005-7395","latitude":"35.2497464","longitude":"138.3552453","source_code":"CB52386298001","project_name":"","survey_name":"\u662d\u548c57\u5e74\u5ea6\u95a2\u306e\u6ca2\u7802\u9632\u30c0\u30e0\u30dc\u30fc\u30ea\u30f3\u30b0\u8abf\u67fb","client_name":"\u56fd\u571f\u4ea4\u901a\u7701\u4e2d\u90e8\u5730\u65b9\u6574\u5099\u5c40\u9759\u5ca1\u6cb3\u5ddd\u4e8b\u52d9\u6240","boring_xml_url":40,"boring_view_url":1,"soilmap_view_url":null,"soiltest_xml_url":0,"soiltest_view_url":0},{"id":169145,"code":"B4KJ201801005-7394","latitude":"35.2074122","longitude":"138.1281831","source_code":"CB52386140001","project_name":"","survey_name":"\u662d\u548c57\u5e74\u5ea6\u8d64\u5742\u7802\u9632\u30c0\u30e0\u30dc\u30fc\u30ea\u30f3\u30b0\u8abf\u67fb","client_name":"\u56fd\u571f\u4ea4\u901a\u7701\u4e2d\u90e8\u5730\u65b9\u6574\u5099\u5c40\u5929\u7adc\u5ddd\u4e0a\u6d41\u6cb3\u5ddd\u4e8b\u52d9\u6240","boring_xml_url":40,"boring_view_url":1,"soilmap_view_url":null,"soiltest_xml_url":0,"soiltest_view_url":0},{"id":169144,"code":"B4KJ201801005-7393","latitude":"35.1793056","longitude":"138.1867903","source_code":"CB52386115005","project_name":"","survey_name":"\u662d\u548c58\u5e74\u5ea6\u9577\u5cf6\u6885\u5730\u5730\u533a\u5730\u8cea\u8abf\u67fb","client_name":"\u56fd\u571f\u4ea4\u901a\u7701\u4e2d\u90e8\u5730\u65b9\u6574\u5099\u5c40\u9577\u5cf6\u30c0\u30e0\u5de5\u4e8b\u4e8b\u52d9\u6240(\u5ec3\u6b62)","boring_xml_url":40,"boring_view_url":1,"soilmap_view_url":null,"soiltest_xml_url":0,"soiltest_view_url":0},{"id":169143,"code":"B4KJ201801005-7392","latitude":"35.1812222","longitude":"138.18729","source_code":"CB52386115004","project_name":"","survey_name":"\u9577\u5cf6\u6885\u5730\u5730\u533a\u5730\u8cea\u8abf\u67fb","client_name":"\u56fd\u571f\u4ea4\u901a\u7701\u4e2d\u90e8\u5730\u65b9\u6574\u5099\u5c40\u9577\u5cf6\u30c0\u30e0\u5de5\u4e8b\u4e8b\u52d9\u6240(\u5ec3\u6b62)","boring_xml_url":40,"boring_view_url":1,"soilmap_view_url":null,"soiltest_xml_url":0,"soiltest_view_url":0},{"id":169142,"code":"B4KJ201801005-7391","latitude":"35.1807222","longitude":"138.1864289","source_code":"CB52386115003","project_name":"","survey_name":"\u9577\u5cf6\u6885\u5730\u5730\u533a\u5730\u8cea\u8abf\u67fb","client_name":"\u56fd\u571f\u4ea4\u901a\u7701\u4e2d\u90e8\u5730\u65b9\u6574\u5099\u5c40\u9577\u5cf6\u30c0\u30e0\u5de5\u4e8b\u4e8b\u52d9\u6240(\u5ec3\u6b62)","boring_xml_url":40,"boring_view_url":1,"soilmap_view_url":null,"soiltest_xml_url":0,"soiltest_view_url":0},{"id":169141,"code":"B4KJ201801005-7390","latitude":"35.1804444","longitude":"138.1860958","source_code":"CB52386115002","project_name":"","survey_name":"\u9577\u5cf6\u6885\u5730\u5730\u533a\u5730\u8cea\u8abf\u67fb","client_name":"\u56fd\u571f\u4ea4\u901a\u7701\u4e2d\u90e8\u5730\u65b9\u6574\u5099\u5c40\u9577\u5cf6\u30c0\u30e0\u5de5\u4e8b\u4e8b\u52d9\u6240(\u5ec3\u6b62)","boring_xml_url":40,"boring_view_url":1,"soilmap_view_url":null,"soiltest_xml_url":0,"soiltest_view_url":0},{"id":169140,"code":"B4KJ201801005-7389","latitude":"35.1803611","longitude":"138.1858736","source_code":"CB52386115001","project_name":"","survey_name":"\u9577\u5cf6\u6885\u5730\u5730\u533a\u5730\u8cea\u8abf\u67fb","client_name":"\u56fd\u571f\u4ea4\u901a\u7701\u4e2d\u90e8\u5730\u65b9\u6574\u5099\u5c40\u9577\u5cf6\u30c0\u30e0\u5de5\u4e8b\u4e8b\u52d9\u6240(\u5ec3\u6b62)","boring_xml_url":40,"boring_view_url":1,"soilmap_view_url":null,"soiltest_xml_url":0,"soiltest_view_url":0},{"id":169139,"code":"B4KJ201801005-7388","latitude":"35.1737786","longitude":"138.1885958","source_code":"CB52386105005","project_name":"","survey_name":"\u662d\u548c58\u5e74\u5ea6\u9577\u5cf6\u6885\u5730\u5730\u533a\u5730\u8cea\u8abf\u67fb(\u305d\u306e2)","client_name":"\u56fd\u571f\u4ea4\u901a\u7701\u4e2d\u90e8\u5730\u65b9\u6574\u5099\u5c40\u9577\u5cf6\u30c0\u30e0\u5de5\u4e8b\u4e8b\u52d9\u6240(\u5ec3\u6b62)","boring_xml_url":40,"boring_view_url":1,"soilmap_view_url":null,"soiltest_xml_url":0,"soiltest_view_url":0},{"id":169138,"code":"B4KJ201801005-7387","latitude":"35.1738897","longitude":"138.1883458","source_code":"CB52386105004","project_name":"","survey_name":"\u662d\u548c58\u5e74\u5ea6\u9577\u5cf6\u6885\u5730\u5730\u533a\u5730\u8cea\u8abf\u67fb(\u305d\u306e2)","client_name":"\u56fd\u571f\u4ea4\u901a\u7701\u4e2d\u90e8\u5730\u65b9\u6574\u5099\u5c40\u9577\u5cf6\u30c0\u30e0\u5de5\u4e8b\u4e8b\u52d9\u6240(\u5ec3\u6b62)","boring_xml_url":40,"boring_view_url":1,"soilmap_view_url":null,"soiltest_xml_url":0,"soiltest_view_url":0},{"id":169137,"code":"B4KJ201801005-7386","latitude":"35.1775281","longitude":"138.1879844","source_code":"CB52386105003","project_name":"","survey_name":"\u662d\u548c58\u5e74\u5ea6\u9577\u5cf6\u6885\u5730\u5730\u533a\u5730\u8cea\u8abf\u67fb","client_name":"\u56fd\u571f\u4ea4\u901a\u7701\u4e2d\u90e8\u5730\u65b9\u6574\u5099\u5c40\u9577\u5cf6\u30c0\u30e0\u5de5\u4e8b\u4e8b\u52d9\u6240(\u5ec3\u6b62)","boring_xml_url":40,"boring_view_url":1,"soilmap_view_url":null,"soiltest_xml_url":0,"soiltest_view_url":0},{"id":169136,"code":"B4KJ201801005-7385","latitude":"35.1744175","longitude":"138.1887625","source_code":"CB52386105002","project_name":"","survey_name":"\u662d\u548c58\u5e74\u5ea6\u9577\u5cf6\u6885\u5730\u5730\u533a\u5730\u8cea\u8abf\u67fb","client_name":"\u56fd\u571f\u4ea4\u901a\u7701\u4e2d\u90e8\u5730\u65b9\u6574\u5099\u5c40\u9577\u5cf6\u30c0\u30e0\u5de5\u4e8b\u4e8b\u52d9\u6240(\u5ec3\u6b62)","boring_xml_url":40,"boring_view_url":1,"soilmap_view_url":null,"soiltest_xml_url":0,"soiltest_view_url":0}]}}