{"header":{"xyz":{"source":[],"mosaic":false},"page":5050,"raw":{"soiltest_result":"0","bbox":"57.598333,109.544722,1.933333,163.806111","page":"5050"},"conditions":{"soiltest_result":0,"north":57.598333,"west":109.544722,"south":1.933333,"east":163.806111},"success":true,"message":""},"data":{"meta":{"total":212844,"page":5050,"pages":7095,"count":30},"values":[{"id":169075,"code":"B4KJ201801005-7324","latitude":"35.1527708","longitude":"138.8811483","source_code":"CB52385770004","project_name":"","survey_name":"\u5e73\u621010\u5e74\u5ea6(\u74b0)\u5ca1\u5bae\u4e0b\u9577\u7aaa\u9593\u5730\u8cea\u8abf\u67fb","client_name":"\u56fd\u571f\u4ea4\u901a\u7701\u4e2d\u90e8\u5730\u65b9\u6574\u5099\u5c40\u6cbc\u6d25\u6cb3\u5ddd\u56fd\u9053\u4e8b\u52d9\u6240","boring_xml_url":40,"boring_view_url":1,"soilmap_view_url":null,"soiltest_xml_url":0,"soiltest_view_url":0},{"id":169074,"code":"B4KJ201801005-7323","latitude":"35.1526042","longitude":"138.881565","source_code":"CB52385770003","project_name":"","survey_name":"\u5e73\u621010\u5e74\u5ea6(\u74b0)\u5ca1\u5bae\u4e0b\u9577\u7aaa\u9593\u5730\u8cea\u8abf\u67fb","client_name":"\u56fd\u571f\u4ea4\u901a\u7701\u4e2d\u90e8\u5730\u65b9\u6574\u5099\u5c40\u6cbc\u6d25\u6cb3\u5ddd\u56fd\u9053\u4e8b\u52d9\u6240","boring_xml_url":40,"boring_view_url":1,"soilmap_view_url":null,"soiltest_xml_url":0,"soiltest_view_url":0},{"id":169073,"code":"B4KJ201801005-7322","latitude":"35.1528264","longitude":"138.8818428","source_code":"CB52385770002","project_name":"","survey_name":"\u5e73\u621010\u5e74\u5ea6(\u74b0)\u5ca1\u5bae\u4e0b\u9577\u7aaa\u9593\u5730\u8cea\u8abf\u67fb","client_name":"\u56fd\u571f\u4ea4\u901a\u7701\u4e2d\u90e8\u5730\u65b9\u6574\u5099\u5c40\u6cbc\u6d25\u6cb3\u5ddd\u56fd\u9053\u4e8b\u52d9\u6240","boring_xml_url":40,"boring_view_url":1,"soilmap_view_url":null,"soiltest_xml_url":0,"soiltest_view_url":0},{"id":169072,"code":"B4KJ201801005-7321","latitude":"35.1526042","longitude":"138.8821206","source_code":"CB52385770001","project_name":"","survey_name":"\u5e73\u621010\u5e74\u5ea6(\u74b0)\u5ca1\u5bae\u4e0b\u9577\u7aaa\u9593\u5730\u8cea\u8abf\u67fb","client_name":"\u56fd\u571f\u4ea4\u901a\u7701\u4e2d\u90e8\u5730\u65b9\u6574\u5099\u5c40\u6cbc\u6d25\u6cb3\u5ddd\u56fd\u9053\u4e8b\u52d9\u6240","boring_xml_url":40,"boring_view_url":1,"soilmap_view_url":null,"soiltest_xml_url":0,"soiltest_view_url":0},{"id":169071,"code":"B4KJ201801005-7320","latitude":"35.1417744","longitude":"138.9748353","source_code":"CB52385768002","project_name":"","survey_name":"\u662d\u548c57\u5e74\u5ea6\u4e09\u30c4\u8c37\u30d0\u30a4\u30d1\u30b9\u5730\u8cea\u8abf\u67fb","client_name":"\u56fd\u571f\u4ea4\u901a\u7701\u4e2d\u90e8\u5730\u65b9\u6574\u5099\u5c40\u6cbc\u6d25\u6cb3\u5ddd\u56fd\u9053\u4e8b\u52d9\u6240","boring_xml_url":40,"boring_view_url":1,"soilmap_view_url":null,"soiltest_xml_url":0,"soiltest_view_url":0},{"id":169070,"code":"B4KJ201801005-7319","latitude":"35.1409136","longitude":"138.9733911","source_code":"CB52385768001","project_name":"","survey_name":"\u662d\u548c57\u5e74\u5ea6\u4e09\u30c4\u8c37\u30d0\u30a4\u30d1\u30b9\u5730\u8cea\u8abf\u67fb","client_name":"\u56fd\u571f\u4ea4\u901a\u7701\u4e2d\u90e8\u5730\u65b9\u6574\u5099\u5c40\u6cbc\u6d25\u6cb3\u5ddd\u56fd\u9053\u4e8b\u52d9\u6240","boring_xml_url":40,"boring_view_url":1,"soilmap_view_url":null,"soiltest_xml_url":0,"soiltest_view_url":0},{"id":169069,"code":"B4KJ201801005-7318","latitude":"35.1385794","longitude":"138.9384497","source_code":"CB52385765002","project_name":"","survey_name":"\u5e73\u621011\u5e74\u5ea6(\u74b0)\u5ca1\u5bae\u30fb\u5927\u5834\u9593\u5730\u8cea\u8abf\u67fb","client_name":"\u56fd\u571f\u4ea4\u901a\u7701\u4e2d\u90e8\u5730\u65b9\u6574\u5099\u5c40\u6cbc\u6d25\u6cb3\u5ddd\u56fd\u9053\u4e8b\u52d9\u6240","boring_xml_url":40,"boring_view_url":1,"soilmap_view_url":null,"soiltest_xml_url":0,"soiltest_view_url":0},{"id":169068,"code":"B4KJ201801005-7317","latitude":"35.1368019","longitude":"138.9398386","source_code":"CB52385765001","project_name":"","survey_name":"\u5e73\u62105\u5e74\u5ea6\u6771\u99ff\u6cb3\u6e7e\u74b0\u72b6\u9053\u8def\u585a\u539f\u30fb\u5fb3\u5009\u5730\u533a\u5730\u8cea\u8abf\u67fb","client_name":"\u56fd\u571f\u4ea4\u901a\u7701\u4e2d\u90e8\u5730\u65b9\u6574\u5099\u5c40\u6cbc\u6d25\u6cb3\u5ddd\u56fd\u9053\u4e8b\u52d9\u6240","boring_xml_url":40,"boring_view_url":1,"soilmap_view_url":null,"soiltest_xml_url":0,"soiltest_view_url":0},{"id":169067,"code":"B4KJ201801005-7316","latitude":"35.1444664","longitude":"138.8860928","source_code":"CB52385761005","project_name":"","survey_name":"\u662d\u548c48\u5e74\u5ea6.\u56fd\u9053246\u53f7\u30d0\u30a4\u30d1\u30b9\u85e4\u751f\u6ca2\u6a4b\u5730\u8cea\u8abf\u67fb","client_name":"\u56fd\u571f\u4ea4\u901a\u7701\u4e2d\u90e8\u5730\u65b9\u6574\u5099\u5c40\u6cbc\u6d25\u6cb3\u5ddd\u56fd\u9053\u4e8b\u52d9\u6240","boring_xml_url":40,"boring_view_url":1,"soilmap_view_url":null,"soiltest_xml_url":0,"soiltest_view_url":0},{"id":169066,"code":"B4KJ201801005-7315","latitude":"35.1407725","longitude":"138.8906203","source_code":"CB52385761004","project_name":"","survey_name":"\u662d\u548c57\u5e74\u5ea6\u88fe\u91ce\u30d0\u30a4\u30d1\u30b9\u9577\u6cc9\u5730\u533a\u5730\u8cea\u8abf\u67fb","client_name":"\u56fd\u571f\u4ea4\u901a\u7701\u4e2d\u90e8\u5730\u65b9\u6574\u5099\u5c40\u6cbc\u6d25\u6cb3\u5ddd\u56fd\u9053\u4e8b\u52d9\u6240","boring_xml_url":40,"boring_view_url":1,"soilmap_view_url":null,"soiltest_xml_url":0,"soiltest_view_url":0},{"id":169065,"code":"B4KJ201801005-7314","latitude":"35.1430778","longitude":"138.8863983","source_code":"CB52385761003","project_name":"","survey_name":"\u662d\u548c57\u5e74\u5ea6\u88fe\u91ce\u30d0\u30a4\u30d1\u30b9\u9577\u6cc9\u5730\u533a\u5730\u8cea\u8abf\u67fb","client_name":"\u56fd\u571f\u4ea4\u901a\u7701\u4e2d\u90e8\u5730\u65b9\u6574\u5099\u5c40\u6cbc\u6d25\u6cb3\u5ddd\u56fd\u9053\u4e8b\u52d9\u6240","boring_xml_url":40,"boring_view_url":1,"soilmap_view_url":null,"soiltest_xml_url":0,"soiltest_view_url":0},{"id":169064,"code":"B4KJ201801005-7313","latitude":"35.1435497","longitude":"138.8858428","source_code":"CB52385761002","project_name":"","survey_name":"\u662d\u548c57\u5e74\u5ea6\u88fe\u91ce\u30d0\u30a4\u30d1\u30b9\u9577\u6cc9\u5730\u533a\u5730\u8cea\u8abf\u67fb","client_name":"\u56fd\u571f\u4ea4\u901a\u7701\u4e2d\u90e8\u5730\u65b9\u6574\u5099\u5c40\u6cbc\u6d25\u6cb3\u5ddd\u56fd\u9053\u4e8b\u52d9\u6240","boring_xml_url":40,"boring_view_url":1,"soilmap_view_url":null,"soiltest_xml_url":0,"soiltest_view_url":0},{"id":169063,"code":"B4KJ201801005-7312","latitude":"35.1424667","longitude":"138.8863706","source_code":"CB52385761001","project_name":"","survey_name":"\u662d\u548c57\u5e74\u5ea6\u88fe\u91ce\u30d0\u30a4\u30d1\u30b9\u9577\u6cc9\u5730\u533a\u5730\u8cea\u8abf\u67fb","client_name":"\u56fd\u571f\u4ea4\u901a\u7701\u4e2d\u90e8\u5730\u65b9\u6574\u5099\u5c40\u6cbc\u6d25\u6cb3\u5ddd\u56fd\u9053\u4e8b\u52d9\u6240","boring_xml_url":40,"boring_view_url":1,"soilmap_view_url":null,"soiltest_xml_url":0,"soiltest_view_url":0},{"id":169062,"code":"B4KJ201801005-7311","latitude":"35.1431328","longitude":"138.8721494","source_code":"CB52385760003","project_name":"","survey_name":"\u5e73\u621010\u5e74\u5ea6(\u74b0)\u5ca1\u5bae\u4e0b\u9577\u7aaa\u9593\u5730\u8cea\u8abf\u67fb","client_name":"\u56fd\u571f\u4ea4\u901a\u7701\u4e2d\u90e8\u5730\u65b9\u6574\u5099\u5c40\u6cbc\u6d25\u6cb3\u5ddd\u56fd\u9053\u4e8b\u52d9\u6240","boring_xml_url":40,"boring_view_url":1,"soilmap_view_url":null,"soiltest_xml_url":0,"soiltest_view_url":0},{"id":169061,"code":"B4KJ201801005-7310","latitude":"35.1435772","longitude":"138.8718717","source_code":"CB52385760002","project_name":"","survey_name":"\u5e73\u621010\u5e74\u5ea6(\u74b0)\u5ca1\u5bae\u4e0b\u9577\u7aaa\u9593\u5730\u8cea\u8abf\u67fb","client_name":"\u56fd\u571f\u4ea4\u901a\u7701\u4e2d\u90e8\u5730\u65b9\u6574\u5099\u5c40\u6cbc\u6d25\u6cb3\u5ddd\u56fd\u9053\u4e8b\u52d9\u6240","boring_xml_url":40,"boring_view_url":1,"soilmap_view_url":null,"soiltest_xml_url":0,"soiltest_view_url":0},{"id":169060,"code":"B4KJ201801005-7309","latitude":"35.1381336","longitude":"138.8829267","source_code":"CB52385760001","project_name":"","survey_name":"\u662d\u548c57\u5e74\u5ea6\u88fe\u91ce\u30d0\u30a4\u30d1\u30b9\u9577\u6cc9\u5730\u533a\u5730\u8cea\u8abf\u67fb","client_name":"\u56fd\u571f\u4ea4\u901a\u7701\u4e2d\u90e8\u5730\u65b9\u6574\u5099\u5c40\u6cbc\u6d25\u6cb3\u5ddd\u56fd\u9053\u4e8b\u52d9\u6240","boring_xml_url":40,"boring_view_url":1,"soilmap_view_url":null,"soiltest_xml_url":0,"soiltest_view_url":0},{"id":169059,"code":"B4KJ201801005-7308","latitude":"35.1353583","longitude":"138.9643642","source_code":"CB52385757009","project_name":"","survey_name":"\u662d\u548c55\u5e74\u5ea6\u4e09\u30c4\u8c37\u5730\u533a\u5730\u8cea\u8abf\u67fb","client_name":"\u56fd\u571f\u4ea4\u901a\u7701\u4e2d\u90e8\u5730\u65b9\u6574\u5099\u5c40\u6cbc\u6d25\u6cb3\u5ddd\u56fd\u9053\u4e8b\u52d9\u6240","boring_xml_url":40,"boring_view_url":1,"soilmap_view_url":null,"soiltest_xml_url":0,"soiltest_view_url":0},{"id":169058,"code":"B4KJ201801005-7307","latitude":"35.1354694","longitude":"138.9638086","source_code":"CB52385757008","project_name":"","survey_name":"\u662d\u548c55\u5e74\u5ea6\u4e09\u30c4\u8c37\u5730\u533a\u5730\u8cea\u8abf\u67fb","client_name":"\u56fd\u571f\u4ea4\u901a\u7701\u4e2d\u90e8\u5730\u65b9\u6574\u5099\u5c40\u6cbc\u6d25\u6cb3\u5ddd\u56fd\u9053\u4e8b\u52d9\u6240","boring_xml_url":40,"boring_view_url":1,"soilmap_view_url":null,"soiltest_xml_url":0,"soiltest_view_url":0},{"id":169057,"code":"B4KJ201801005-7306","latitude":"35.1356361","longitude":"138.9626978","source_code":"CB52385757007","project_name":"","survey_name":"\u662d\u548c55\u5e74\u5ea6\u4e09\u30c4\u8c37\u5730\u533a\u5730\u8cea\u8abf\u67fb","client_name":"\u56fd\u571f\u4ea4\u901a\u7701\u4e2d\u90e8\u5730\u65b9\u6574\u5099\u5c40\u6cbc\u6d25\u6cb3\u5ddd\u56fd\u9053\u4e8b\u52d9\u6240","boring_xml_url":40,"boring_view_url":1,"soilmap_view_url":null,"soiltest_xml_url":0,"soiltest_view_url":0},{"id":169056,"code":"B4KJ201801005-7305","latitude":"35.1353028","longitude":"138.9621422","source_code":"CB52385757006","project_name":"","survey_name":"\u662d\u548c55\u5e74\u5ea6\u4e09\u30c4\u8c37\u5730\u533a\u5730\u8cea\u8abf\u67fb","client_name":"\u56fd\u571f\u4ea4\u901a\u7701\u4e2d\u90e8\u5730\u65b9\u6574\u5099\u5c40\u6cbc\u6d25\u6cb3\u5ddd\u56fd\u9053\u4e8b\u52d9\u6240","boring_xml_url":40,"boring_view_url":1,"soilmap_view_url":null,"soiltest_xml_url":0,"soiltest_view_url":0},{"id":169055,"code":"B4KJ201801005-7304","latitude":"35.1353028","longitude":"138.9614478","source_code":"CB52385757005","project_name":"","survey_name":"\u662d\u548c55\u5e74\u5ea6\u4e09\u30c4\u8c37\u5730\u533a\u5730\u8cea\u8abf\u67fb","client_name":"\u56fd\u571f\u4ea4\u901a\u7701\u4e2d\u90e8\u5730\u65b9\u6574\u5099\u5c40\u6cbc\u6d25\u6cb3\u5ddd\u56fd\u9053\u4e8b\u52d9\u6240","boring_xml_url":40,"boring_view_url":1,"soilmap_view_url":null,"soiltest_xml_url":0,"soiltest_view_url":0},{"id":169054,"code":"B4KJ201801005-7303","latitude":"35.1350806","longitude":"138.9610311","source_code":"CB52385757004","project_name":"","survey_name":"\u662d\u548c55\u5e74\u5ea6\u4e09\u30c4\u8c37\u5730\u533a\u5730\u8cea\u8abf\u67fb","client_name":"\u56fd\u571f\u4ea4\u901a\u7701\u4e2d\u90e8\u5730\u65b9\u6574\u5099\u5c40\u6cbc\u6d25\u6cb3\u5ddd\u56fd\u9053\u4e8b\u52d9\u6240","boring_xml_url":40,"boring_view_url":1,"soilmap_view_url":null,"soiltest_xml_url":0,"soiltest_view_url":0},{"id":169053,"code":"B4KJ201801005-7302","latitude":"35.1348583","longitude":"138.9607533","source_code":"CB52385757003","project_name":"","survey_name":"\u662d\u548c55\u5e74\u5ea6\u4e09\u30c4\u8c37\u5730\u533a\u5730\u8cea\u8abf\u67fb","client_name":"\u56fd\u571f\u4ea4\u901a\u7701\u4e2d\u90e8\u5730\u65b9\u6574\u5099\u5c40\u6cbc\u6d25\u6cb3\u5ddd\u56fd\u9053\u4e8b\u52d9\u6240","boring_xml_url":40,"boring_view_url":1,"soilmap_view_url":null,"soiltest_xml_url":0,"soiltest_view_url":0},{"id":169052,"code":"B4KJ201801005-7301","latitude":"35.1347472","longitude":"138.9603369","source_code":"CB52385757002","project_name":"","survey_name":"\u662d\u548c55\u5e74\u5ea6\u4e09\u30c4\u8c37\u5730\u533a\u5730\u8cea\u8abf\u67fb","client_name":"\u56fd\u571f\u4ea4\u901a\u7701\u4e2d\u90e8\u5730\u65b9\u6574\u5099\u5c40\u6cbc\u6d25\u6cb3\u5ddd\u56fd\u9053\u4e8b\u52d9\u6240","boring_xml_url":40,"boring_view_url":1,"soilmap_view_url":null,"soiltest_xml_url":0,"soiltest_view_url":0},{"id":169051,"code":"B4KJ201801005-7300","latitude":"35.1352472","longitude":"138.9603369","source_code":"CB52385757001","project_name":"","survey_name":"\u5c71\u5cb3\u9053\u8def\u76db\u571f\u8a66\u9a13\u8abf\u67fb","client_name":"\u56fd\u571f\u4ea4\u901a\u7701\u4e2d\u90e8\u5730\u65b9\u6574\u5099\u5c40\u4e2d\u90e8\u6280\u8853\u4e8b\u52d9\u6240","boring_xml_url":40,"boring_view_url":1,"soilmap_view_url":null,"soiltest_xml_url":0,"soiltest_view_url":0},{"id":169050,"code":"B4KJ201801005-7299","latitude":"35.1336914","longitude":"138.9503656","source_code":"CB52385756009","project_name":"","survey_name":"\u662d\u548c49\u5e74\u5ea6\u7bb1\u6839\u585a\u539f\u65b0\u7530\u5730\u533a\u5730\u8cea\u53ca\u3073\u571f\u8cea\u8abf\u67fb","client_name":"\u56fd\u571f\u4ea4\u901a\u7701\u4e2d\u90e8\u5730\u65b9\u6574\u5099\u5c40\u6cbc\u6d25\u6cb3\u5ddd\u56fd\u9053\u4e8b\u52d9\u6240","boring_xml_url":40,"boring_view_url":1,"soilmap_view_url":null,"soiltest_xml_url":0,"soiltest_view_url":0},{"id":169049,"code":"B4KJ201801005-7298","latitude":"35.1334136","longitude":"138.9499211","source_code":"CB52385756008","project_name":"","survey_name":"\u662d\u548c49\u5e74\u5ea6\u7bb1\u6839\u585a\u539f\u65b0\u7530\u5730\u533a\u5730\u8cea\u53ca\u3073\u571f\u8cea\u8abf\u67fb","client_name":"\u56fd\u571f\u4ea4\u901a\u7701\u4e2d\u90e8\u5730\u65b9\u6574\u5099\u5c40\u6cbc\u6d25\u6cb3\u5ddd\u56fd\u9053\u4e8b\u52d9\u6240","boring_xml_url":40,"boring_view_url":1,"soilmap_view_url":null,"soiltest_xml_url":0,"soiltest_view_url":0},{"id":169048,"code":"B4KJ201801005-7297","latitude":"35.1331914","longitude":"138.9495322","source_code":"CB52385756007","project_name":"","survey_name":"\u662d\u548c49\u5e74\u5ea6\u7bb1\u6839\u585a\u539f\u65b0\u7530\u5730\u533a\u5730\u8cea\u53ca\u3073\u571f\u8cea\u8abf\u67fb","client_name":"\u56fd\u571f\u4ea4\u901a\u7701\u4e2d\u90e8\u5730\u65b9\u6574\u5099\u5c40\u6cbc\u6d25\u6cb3\u5ddd\u56fd\u9053\u4e8b\u52d9\u6240","boring_xml_url":40,"boring_view_url":1,"soilmap_view_url":null,"soiltest_xml_url":0,"soiltest_view_url":0},{"id":169047,"code":"B4KJ201801005-7296","latitude":"35.1328583","longitude":"138.9492544","source_code":"CB52385756006","project_name":"","survey_name":"\u662d\u548c49\u5e74\u5ea6\u7bb1\u6839\u585a\u539f\u65b0\u7530\u5730\u533a\u5730\u8cea\u53ca\u3073\u571f\u8cea\u8abf\u67fb","client_name":"\u56fd\u571f\u4ea4\u901a\u7701\u4e2d\u90e8\u5730\u65b9\u6574\u5099\u5c40\u6cbc\u6d25\u6cb3\u5ddd\u56fd\u9053\u4e8b\u52d9\u6240","boring_xml_url":40,"boring_view_url":1,"soilmap_view_url":null,"soiltest_xml_url":0,"soiltest_view_url":0},{"id":169046,"code":"B4KJ201801005-7295","latitude":"35.1361358","longitude":"138.9549206","source_code":"CB52385756005","project_name":"","survey_name":"\u4e09\u30c4\u8c37\u30d0\u30a4\u30d1\u30b9\u585a\u539f\u5730\u533a\u5730\u8cea\u8abf\u67fb","client_name":"\u56fd\u571f\u4ea4\u901a\u7701\u4e2d\u90e8\u5730\u65b9\u6574\u5099\u5c40\u6cbc\u6d25\u6cb3\u5ddd\u56fd\u9053\u4e8b\u52d9\u6240","boring_xml_url":40,"boring_view_url":1,"soilmap_view_url":null,"soiltest_xml_url":0,"soiltest_view_url":0}]}}