{"header":{"xyz":{"source":[],"mosaic":false},"page":5053,"raw":{"soiltest_result":"0","bbox":"57.598333,109.544722,1.933333,163.806111","page":"5053"},"conditions":{"soiltest_result":0,"north":57.598333,"west":109.544722,"south":1.933333,"east":163.806111},"success":true,"message":""},"data":{"meta":{"total":212844,"page":5053,"pages":7095,"count":30},"values":[{"id":168985,"code":"B4KJ201801005-7234","latitude":"35.12133","longitude":"138.8788997","source_code":"CB52385740008","project_name":"","survey_name":"\u6cbc\u6d25\u30d0\u30a4\u30d1\u30b9\u4e0a\u77f3\u7530\u5730\u533a\u5730\u8cea\u8abf\u67fb","client_name":"\u56fd\u571f\u4ea4\u901a\u7701\u4e2d\u90e8\u5730\u65b9\u6574\u5099\u5c40\u6cbc\u6d25\u6cb3\u5ddd\u56fd\u9053\u4e8b\u52d9\u6240","boring_xml_url":40,"boring_view_url":1,"soilmap_view_url":null,"soiltest_xml_url":0,"soiltest_view_url":0},{"id":168984,"code":"B4KJ201801005-7233","latitude":"35.1211356","longitude":"138.8794275","source_code":"CB52385740007","project_name":"","survey_name":"\u6cbc\u6d25\u30d0\u30a4\u30d1\u30b9\u4e0a\u77f3\u7530\u5730\u533a\u5730\u8cea\u8abf\u67fb","client_name":"\u56fd\u571f\u4ea4\u901a\u7701\u4e2d\u90e8\u5730\u65b9\u6574\u5099\u5c40\u6cbc\u6d25\u6cb3\u5ddd\u56fd\u9053\u4e8b\u52d9\u6240","boring_xml_url":40,"boring_view_url":1,"soilmap_view_url":null,"soiltest_xml_url":0,"soiltest_view_url":0},{"id":168983,"code":"B4KJ201801005-7232","latitude":"35.12158","longitude":"138.8800108","source_code":"CB52385740006","project_name":"","survey_name":"\u6cbc\u6d25\u30d0\u30a4\u30d1\u30b9\u4e0a\u77f3\u7530\u5730\u533a\u5730\u8cea\u8abf\u67fb","client_name":"\u56fd\u571f\u4ea4\u901a\u7701\u4e2d\u90e8\u5730\u65b9\u6574\u5099\u5c40\u6cbc\u6d25\u6cb3\u5ddd\u56fd\u9053\u4e8b\u52d9\u6240","boring_xml_url":40,"boring_view_url":1,"soilmap_view_url":null,"soiltest_xml_url":0,"soiltest_view_url":0},{"id":168982,"code":"B4KJ201801005-7231","latitude":"35.1211911","longitude":"138.8800664","source_code":"CB52385740005","project_name":"","survey_name":"\u6cbc\u6d25\u30d0\u30a4\u30d1\u30b9\u4e0a\u77f3\u7530\u5730\u533a\u5730\u8cea\u8abf\u67fb","client_name":"\u56fd\u571f\u4ea4\u901a\u7701\u4e2d\u90e8\u5730\u65b9\u6574\u5099\u5c40\u6cbc\u6d25\u6cb3\u5ddd\u56fd\u9053\u4e8b\u52d9\u6240","boring_xml_url":40,"boring_view_url":1,"soilmap_view_url":null,"soiltest_xml_url":0,"soiltest_view_url":0},{"id":168981,"code":"B4KJ201801005-7230","latitude":"35.1214133","longitude":"138.8805386","source_code":"CB52385740004","project_name":"","survey_name":"\u6cbc\u6d25\u30d0\u30a4\u30d1\u30b9\u4e0a\u77f3\u7530\u5730\u533a\u5730\u8cea\u8abf\u67fb","client_name":"\u56fd\u571f\u4ea4\u901a\u7701\u4e2d\u90e8\u5730\u65b9\u6574\u5099\u5c40\u6cbc\u6d25\u6cb3\u5ddd\u56fd\u9053\u4e8b\u52d9\u6240","boring_xml_url":40,"boring_view_url":1,"soilmap_view_url":null,"soiltest_xml_url":0,"soiltest_view_url":0},{"id":168980,"code":"B4KJ201801005-7229","latitude":"35.1212744","longitude":"138.8809831","source_code":"CB52385740003","project_name":"","survey_name":"\u6cbc\u6d25\u30d0\u30a4\u30d1\u30b9\u4e0a\u77f3\u7530\u5730\u533a\u5730\u8cea\u8abf\u67fb","client_name":"\u56fd\u571f\u4ea4\u901a\u7701\u4e2d\u90e8\u5730\u65b9\u6574\u5099\u5c40\u6cbc\u6d25\u6cb3\u5ddd\u56fd\u9053\u4e8b\u52d9\u6240","boring_xml_url":40,"boring_view_url":1,"soilmap_view_url":null,"soiltest_xml_url":0,"soiltest_view_url":0},{"id":168979,"code":"B4KJ201801005-7228","latitude":"35.1213022","longitude":"138.8812608","source_code":"CB52385740002","project_name":"","survey_name":"\u6cbc\u6d25\u30d0\u30a4\u30d1\u30b9\u4e0a\u77f3\u7530\u5730\u533a\u5730\u8cea\u8abf\u67fb","client_name":"\u56fd\u571f\u4ea4\u901a\u7701\u4e2d\u90e8\u5730\u65b9\u6574\u5099\u5c40\u6cbc\u6d25\u6cb3\u5ddd\u56fd\u9053\u4e8b\u52d9\u6240","boring_xml_url":40,"boring_view_url":1,"soilmap_view_url":null,"soiltest_xml_url":0,"soiltest_view_url":0},{"id":168978,"code":"B4KJ201801005-7227","latitude":"35.1211911","longitude":"138.8818994","source_code":"CB52385740001","project_name":"","survey_name":"\u6cbc\u6d25\u30d0\u30a4\u30d1\u30b9\u4e0a\u77f3\u7530\u5730\u533a\u5730\u8cea\u8abf\u67fb","client_name":"\u56fd\u571f\u4ea4\u901a\u7701\u4e2d\u90e8\u5730\u65b9\u6574\u5099\u5c40\u6cbc\u6d25\u6cb3\u5ddd\u56fd\u9053\u4e8b\u52d9\u6240","boring_xml_url":40,"boring_view_url":1,"soilmap_view_url":null,"soiltest_xml_url":0,"soiltest_view_url":0},{"id":168977,"code":"B4KJ201801005-7226","latitude":"35.1189986","longitude":"138.949505","source_code":"CB52385736012","project_name":"","survey_name":"\u5e73\u621010\u5e74\u5ea6(\u74b0)\u585a\u539f\u7389\u6ca2\u5730\u533a\u5730\u8cea\u8abf\u67fb","client_name":"\u56fd\u571f\u4ea4\u901a\u7701\u4e2d\u90e8\u5730\u65b9\u6574\u5099\u5c40\u6cbc\u6d25\u6cb3\u5ddd\u56fd\u9053\u4e8b\u52d9\u6240","boring_xml_url":40,"boring_view_url":1,"soilmap_view_url":null,"soiltest_xml_url":0,"soiltest_view_url":0},{"id":168976,"code":"B4KJ201801005-7225","latitude":"35.1191375","longitude":"138.950005","source_code":"CB52385736011","project_name":"","survey_name":"\u5e73\u621010\u5e74\u5ea6(\u74b0)\u585a\u539f\u7389\u6ca2\u5730\u533a\u5730\u8cea\u8abf\u67fb","client_name":"\u56fd\u571f\u4ea4\u901a\u7701\u4e2d\u90e8\u5730\u65b9\u6574\u5099\u5c40\u6cbc\u6d25\u6cb3\u5ddd\u56fd\u9053\u4e8b\u52d9\u6240","boring_xml_url":40,"boring_view_url":1,"soilmap_view_url":null,"soiltest_xml_url":0,"soiltest_view_url":0},{"id":168975,"code":"B4KJ201801005-7224","latitude":"35.1196097","longitude":"138.9503661","source_code":"CB52385736010","project_name":"","survey_name":"\u5e73\u621010\u5e74\u5ea6(\u74b0)\u585a\u539f\u7389\u6ca2\u5730\u533a\u5730\u8cea\u8abf\u67fb","client_name":"\u56fd\u571f\u4ea4\u901a\u7701\u4e2d\u90e8\u5730\u65b9\u6574\u5099\u5c40\u6cbc\u6d25\u6cb3\u5ddd\u56fd\u9053\u4e8b\u52d9\u6240","boring_xml_url":40,"boring_view_url":1,"soilmap_view_url":null,"soiltest_xml_url":0,"soiltest_view_url":0},{"id":168974,"code":"B4KJ201801005-7223","latitude":"35.1193597","longitude":"138.9495606","source_code":"CB52385736009","project_name":"","survey_name":"\u5e73\u621010\u5e74\u5ea6(\u74b0)\u585a\u539f\u7389\u6ca2\u5730\u533a\u5730\u8cea\u8abf\u67fb","client_name":"\u56fd\u571f\u4ea4\u901a\u7701\u4e2d\u90e8\u5730\u65b9\u6574\u5099\u5c40\u6cbc\u6d25\u6cb3\u5ddd\u56fd\u9053\u4e8b\u52d9\u6240","boring_xml_url":40,"boring_view_url":1,"soilmap_view_url":null,"soiltest_xml_url":0,"soiltest_view_url":0},{"id":168973,"code":"B4KJ201801005-7222","latitude":"35.1193597","longitude":"138.9499494","source_code":"CB52385736008","project_name":"","survey_name":"\u5e73\u621010\u5e74\u5ea6(\u74b0)\u585a\u539f\u7389\u6ca2\u5730\u533a\u5730\u8cea\u8abf\u67fb","client_name":"\u56fd\u571f\u4ea4\u901a\u7701\u4e2d\u90e8\u5730\u65b9\u6574\u5099\u5c40\u6cbc\u6d25\u6cb3\u5ddd\u56fd\u9053\u4e8b\u52d9\u6240","boring_xml_url":40,"boring_view_url":1,"soilmap_view_url":null,"soiltest_xml_url":0,"soiltest_view_url":0},{"id":168972,"code":"B4KJ201801005-7221","latitude":"35.1194153","longitude":"138.9504772","source_code":"CB52385736007","project_name":"","survey_name":"\u5e73\u621010\u5e74\u5ea6(\u74b0)\u585a\u539f\u7389\u6ca2\u5730\u533a\u5730\u8cea\u8abf\u67fb","client_name":"\u56fd\u571f\u4ea4\u901a\u7701\u4e2d\u90e8\u5730\u65b9\u6574\u5099\u5c40\u6cbc\u6d25\u6cb3\u5ddd\u56fd\u9053\u4e8b\u52d9\u6240","boring_xml_url":40,"boring_view_url":1,"soilmap_view_url":null,"soiltest_xml_url":0,"soiltest_view_url":0},{"id":168971,"code":"B4KJ201801005-7220","latitude":"35.1180544","longitude":"138.9497272","source_code":"CB52385736006","project_name":"","survey_name":"\u5e73\u62105\u5e74\u5ea6\u6771\u99ff\u6cb3\u6e7e\u74b0\u72b6\u9053\u8def\u585a\u539f\u30fb\u5fb3\u5009\u5730\u533a\u5730\u8cea\u8abf\u67fb","client_name":"\u56fd\u571f\u4ea4\u901a\u7701\u4e2d\u90e8\u5730\u65b9\u6574\u5099\u5c40\u6cbc\u6d25\u6cb3\u5ddd\u56fd\u9053\u4e8b\u52d9\u6240","boring_xml_url":40,"boring_view_url":1,"soilmap_view_url":null,"soiltest_xml_url":0,"soiltest_view_url":0},{"id":168970,"code":"B4KJ201801005-7219","latitude":"35.1164711","longitude":"138.9499772","source_code":"CB52385736005","project_name":"","survey_name":"\u5e73\u62105\u5e74\u5ea6\u6771\u99ff\u6cb3\u6e7e\u74b0\u72b6\u9053\u8def\u585a\u539f\u30fb\u5fb3\u5009\u5730\u533a\u5730\u8cea\u8abf\u67fb","client_name":"\u56fd\u571f\u4ea4\u901a\u7701\u4e2d\u90e8\u5730\u65b9\u6574\u5099\u5c40\u6cbc\u6d25\u6cb3\u5ddd\u56fd\u9053\u4e8b\u52d9\u6240","boring_xml_url":40,"boring_view_url":1,"soilmap_view_url":null,"soiltest_xml_url":0,"soiltest_view_url":0},{"id":168969,"code":"B4KJ201801005-7218","latitude":"35.1152214","longitude":"138.9499772","source_code":"CB52385736004","project_name":"","survey_name":"\u5e73\u62105\u5e74\u5ea6\u6771\u99ff\u6cb3\u6e7e\u74b0\u72b6\u9053\u8def\u585a\u539f\u30fb\u5fb3\u5009\u5730\u533a\u5730\u8cea\u8abf\u67fb","client_name":"\u56fd\u571f\u4ea4\u901a\u7701\u4e2d\u90e8\u5730\u65b9\u6574\u5099\u5c40\u6cbc\u6d25\u6cb3\u5ddd\u56fd\u9053\u4e8b\u52d9\u6240","boring_xml_url":40,"boring_view_url":1,"soilmap_view_url":null,"soiltest_xml_url":0,"soiltest_view_url":0},{"id":168968,"code":"B4KJ201801005-7217","latitude":"35.1137492","longitude":"138.9498664","source_code":"CB52385736003","project_name":"","survey_name":"\u5e73\u62105\u5e74\u5ea6\u6771\u99ff\u6cb3\u6e7e\u74b0\u72b6\u9053\u8def\u585a\u539f\u30fb\u5fb3\u5009\u5730\u533a\u5730\u8cea\u8abf\u67fb","client_name":"\u56fd\u571f\u4ea4\u901a\u7701\u4e2d\u90e8\u5730\u65b9\u6574\u5099\u5c40\u6cbc\u6d25\u6cb3\u5ddd\u56fd\u9053\u4e8b\u52d9\u6240","boring_xml_url":40,"boring_view_url":1,"soilmap_view_url":null,"soiltest_xml_url":0,"soiltest_view_url":0},{"id":168967,"code":"B4KJ201801005-7216","latitude":"35.1130828","longitude":"138.9497275","source_code":"CB52385736002","project_name":"","survey_name":"\u5e73\u62105\u5e74\u5ea6\u6771\u99ff\u6cb3\u6e7e\u74b0\u72b6\u9053\u8def\u585a\u539f\u30fb\u5fb3\u5009\u5730\u533a\u5730\u8cea\u8abf\u67fb","client_name":"\u56fd\u571f\u4ea4\u901a\u7701\u4e2d\u90e8\u5730\u65b9\u6574\u5099\u5c40\u6cbc\u6d25\u6cb3\u5ddd\u56fd\u9053\u4e8b\u52d9\u6240","boring_xml_url":40,"boring_view_url":1,"soilmap_view_url":null,"soiltest_xml_url":0,"soiltest_view_url":0},{"id":168966,"code":"B4KJ201801005-7215","latitude":"35.1126106","longitude":"138.9495886","source_code":"CB52385736001","project_name":"","survey_name":"\u5e73\u62105\u5e74\u5ea6\u6771\u99ff\u6cb3\u6e7e\u74b0\u72b6\u9053\u8def\u585a\u539f\u30fb\u5fb3\u5009\u5730\u533a\u5730\u8cea\u8abf\u67fb","client_name":"\u56fd\u571f\u4ea4\u901a\u7701\u4e2d\u90e8\u5730\u65b9\u6574\u5099\u5c40\u6cbc\u6d25\u6cb3\u5ddd\u56fd\u9053\u4e8b\u52d9\u6240","boring_xml_url":40,"boring_view_url":1,"soilmap_view_url":null,"soiltest_xml_url":0,"soiltest_view_url":0},{"id":168965,"code":"B4KJ201801005-7214","latitude":"35.1157764","longitude":"138.9281181","source_code":"CB52385734002","project_name":"","survey_name":"\u5e73\u62105\u5e74\u5ea61\u53f7\u5357\u4e8c\u65e5\u753a\u4ea4\u5dee\u70b9\u5730\u8cea\u8abf\u67fb","client_name":"\u56fd\u571f\u4ea4\u901a\u7701\u4e2d\u90e8\u5730\u65b9\u6574\u5099\u5c40\u6cbc\u6d25\u6cb3\u5ddd\u56fd\u9053\u4e8b\u52d9\u6240","boring_xml_url":40,"boring_view_url":1,"soilmap_view_url":null,"soiltest_xml_url":0,"soiltest_view_url":0},{"id":168964,"code":"B4KJ201801005-7213","latitude":"35.1124431","longitude":"138.9229797","source_code":"CB52385734001","project_name":"","survey_name":"\u5e73\u62105\u5e74\u5ea61\u53f7\u5357\u4e8c\u65e5\u753a\u4ea4\u5dee\u70b9\u5730\u8cea\u8abf\u67fb","client_name":"\u56fd\u571f\u4ea4\u901a\u7701\u4e2d\u90e8\u5730\u65b9\u6574\u5099\u5c40\u6cbc\u6d25\u6cb3\u5ddd\u56fd\u9053\u4e8b\u52d9\u6240","boring_xml_url":40,"boring_view_url":1,"soilmap_view_url":null,"soiltest_xml_url":0,"soiltest_view_url":0},{"id":168963,"code":"B4KJ201801005-7212","latitude":"35.1123875","longitude":"138.9210356","source_code":"CB52385733005","project_name":"","survey_name":"\u5e73\u621010\u5e74\u5ea6(\u74b0)\u5927\u5834\u5730\u533a\u59163\u7b87\u6240\u5730\u8cea\u8abf\u67fb","client_name":"\u56fd\u571f\u4ea4\u901a\u7701\u4e2d\u90e8\u5730\u65b9\u6574\u5099\u5c40\u6cbc\u6d25\u6cb3\u5ddd\u56fd\u9053\u4e8b\u52d9\u6240","boring_xml_url":40,"boring_view_url":1,"soilmap_view_url":null,"soiltest_xml_url":0,"soiltest_view_url":0},{"id":168962,"code":"B4KJ201801005-7211","latitude":"35.1122764","longitude":"138.9190911","source_code":"CB52385733004","project_name":"","survey_name":"\u5e73\u621010\u5e74\u5ea6(\u74b0)\u5927\u5834\u5730\u533a\u59163\u7b87\u6240\u5730\u8cea\u8abf\u67fb","client_name":"\u56fd\u571f\u4ea4\u901a\u7701\u4e2d\u90e8\u5730\u65b9\u6574\u5099\u5c40\u6cbc\u6d25\u6cb3\u5ddd\u56fd\u9053\u4e8b\u52d9\u6240","boring_xml_url":40,"boring_view_url":1,"soilmap_view_url":null,"soiltest_xml_url":0,"soiltest_view_url":0},{"id":168961,"code":"B4KJ201801005-7210","latitude":"35.1118875","longitude":"138.9215911","source_code":"CB52385733003","project_name":"","survey_name":"\u5e73\u62105\u5e74\u5ea61\u53f7\u5357\u4e8c\u65e5\u753a\u4ea4\u5dee\u70b9\u5730\u8cea\u8abf\u67fb","client_name":"\u56fd\u571f\u4ea4\u901a\u7701\u4e2d\u90e8\u5730\u65b9\u6574\u5099\u5c40\u6cbc\u6d25\u6cb3\u5ddd\u56fd\u9053\u4e8b\u52d9\u6240","boring_xml_url":40,"boring_view_url":1,"soilmap_view_url":null,"soiltest_xml_url":0,"soiltest_view_url":0},{"id":168960,"code":"B4KJ201801005-7209","latitude":"35.1157758","longitude":"138.9156192","source_code":"CB52385733002","project_name":"","survey_name":"\u662d\u548c55\u5e74\u5ea6,\u5357\u4e8c\u65e5\u753a\u5bbf\u820e\u6e2c\u91cf\u53ca\u3073\u5730\u8cea\u8abf\u67fb","client_name":"\u56fd\u571f\u4ea4\u901a\u7701\u4e2d\u90e8\u5730\u65b9\u6574\u5099\u5c40\u6cbc\u6d25\u6cb3\u5ddd\u56fd\u9053\u4e8b\u52d9\u6240","boring_xml_url":40,"boring_view_url":1,"soilmap_view_url":null,"soiltest_xml_url":0,"soiltest_view_url":0},{"id":168959,"code":"B4KJ201801005-7208","latitude":"35.1157758","longitude":"138.9156192","source_code":"CB52385733001","project_name":"","survey_name":"\u662d\u548c55\u5e74\u5ea6.\u5357\u4e8c\u65e5\u753a\u5bbf\u820e\u6e2c\u91cf\u53ca\u3073\u5730\u8cea\u8abf\u67fb","client_name":"\u56fd\u571f\u4ea4\u901a\u7701\u4e2d\u90e8\u5730\u65b9\u6574\u5099\u5c40\u6cbc\u6d25\u6cb3\u5ddd\u56fd\u9053\u4e8b\u52d9\u6240","boring_xml_url":40,"boring_view_url":1,"soilmap_view_url":null,"soiltest_xml_url":0,"soiltest_view_url":0},{"id":168958,"code":"B4KJ201801005-7207","latitude":"35.1178583","longitude":"138.8879825","source_code":"CB52385731011","project_name":"","survey_name":"\u662d\u548c61\u5e74\u5ea6\u6cbc\u6d25\u30d0\u30a4\u30d1\u30b9\u6cbc\u6d25\u9ad8\u67b6\u6a4b\u5730\u8cea\u8abf\u67fb","client_name":"\u56fd\u571f\u4ea4\u901a\u7701\u4e2d\u90e8\u5730\u65b9\u6574\u5099\u5c40\u6cbc\u6d25\u6cb3\u5ddd\u56fd\u9053\u4e8b\u52d9\u6240","boring_xml_url":40,"boring_view_url":1,"soilmap_view_url":null,"soiltest_xml_url":0,"soiltest_view_url":0},{"id":168957,"code":"B4KJ201801005-7206","latitude":"35.1139978","longitude":"138.8910658","source_code":"CB52385731010","project_name":"","survey_name":"\u662d\u548c61\u5e74\u5ea6\u6cbc\u6d25\u30d0\u30a4\u30d1\u30b9\u6cbc\u6d25\u9ad8\u67b6\u6a4b\u5730\u8cea\u8abf\u67fb","client_name":"\u56fd\u571f\u4ea4\u901a\u7701\u4e2d\u90e8\u5730\u65b9\u6574\u5099\u5c40\u6cbc\u6d25\u6cb3\u5ddd\u56fd\u9053\u4e8b\u52d9\u6240","boring_xml_url":40,"boring_view_url":1,"soilmap_view_url":null,"soiltest_xml_url":0,"soiltest_view_url":0},{"id":168956,"code":"B4KJ201801005-7205","latitude":"35.1184139","longitude":"138.8874547","source_code":"CB52385731009","project_name":"","survey_name":"\u662d\u548c61\u5e74\u5ea6\u6cbc\u6d25\u30d0\u30a4\u30d1\u30b9\u6cbc\u6d25\u9ad8\u67b6\u6a4b\u5730\u8cea\u8abf\u67fb","client_name":"\u56fd\u571f\u4ea4\u901a\u7701\u4e2d\u90e8\u5730\u65b9\u6574\u5099\u5c40\u6cbc\u6d25\u6cb3\u5ddd\u56fd\u9053\u4e8b\u52d9\u6240","boring_xml_url":40,"boring_view_url":1,"soilmap_view_url":null,"soiltest_xml_url":0,"soiltest_view_url":0}]}}