{"header":{"xyz":{"source":[],"mosaic":false},"page":5057,"raw":{"soiltest_result":"0","bbox":"57.598333,109.544722,1.933333,163.806111","page":"5057"},"conditions":{"soiltest_result":0,"north":57.598333,"west":109.544722,"south":1.933333,"east":163.806111},"success":true,"message":""},"data":{"meta":{"total":212844,"page":5057,"pages":7095,"count":30},"values":[{"id":168865,"code":"B4KJ201801005-7114","latitude":"35.1679736","longitude":"138.18068","source_code":"CB52385194006","project_name":"","survey_name":"\u662d\u548c57\u5e74\u5ea6\u4e95\u5ddd\u7dda\u4ed8\u66ff\u5927\u4e95\u5ddd\u6a4b\u6881\u59161\u4ef6\u5730\u8cea\u8abf\u67fb","client_name":"\u56fd\u571f\u4ea4\u901a\u7701\u4e2d\u90e8\u5730\u65b9\u6574\u5099\u5c40\u9577\u5cf6\u30c0\u30e0\u5de5\u4e8b\u4e8b\u52d9\u6240(\u5ec3\u6b62)","boring_xml_url":40,"boring_view_url":1,"soilmap_view_url":null,"soiltest_xml_url":0,"soiltest_view_url":0},{"id":168864,"code":"B4KJ201801005-7113","latitude":"35.1679736","longitude":"138.18068","source_code":"CB52385194005","project_name":"","survey_name":"\u662d\u548c57\u5e74\u5ea6\u4e95\u5ddd\u7dda\u4ed8\u66ff\u5927\u4e95\u5ddd\u6a4b\u6881\u59161\u4ef6\u5730\u8cea\u8abf\u67fb","client_name":"\u56fd\u571f\u4ea4\u901a\u7701\u4e2d\u90e8\u5730\u65b9\u6574\u5099\u5c40\u9577\u5cf6\u30c0\u30e0\u5de5\u4e8b\u4e8b\u52d9\u6240(\u5ec3\u6b62)","boring_xml_url":40,"boring_view_url":1,"soilmap_view_url":null,"soiltest_xml_url":0,"soiltest_view_url":0},{"id":168863,"code":"B4KJ201801005-7112","latitude":"35.1681122","longitude":"138.1764303","source_code":"CB52385194004","project_name":"","survey_name":"\u5de5\u4e8b\u7528\u9053\u8def\u72ac\u9593\u5730\u533a\u5730\u8cea\u8abf\u67fb","client_name":"\u56fd\u571f\u4ea4\u901a\u7701\u4e2d\u90e8\u5730\u65b9\u6574\u5099\u5c40\u9577\u5cf6\u30c0\u30e0\u5de5\u4e8b\u4e8b\u52d9\u6240(\u5ec3\u6b62)","boring_xml_url":40,"boring_view_url":1,"soilmap_view_url":null,"soiltest_xml_url":0,"soiltest_view_url":0},{"id":168862,"code":"B4KJ201801005-7111","latitude":"35.16789","longitude":"138.1761525","source_code":"CB52385194003","project_name":"","survey_name":"\u5de5\u4e8b\u7528\u9053\u8def\u72ac\u9593\u5730\u533a\u5730\u8cea\u8abf\u67fb","client_name":"\u56fd\u571f\u4ea4\u901a\u7701\u4e2d\u90e8\u5730\u65b9\u6574\u5099\u5c40\u9577\u5cf6\u30c0\u30e0\u5de5\u4e8b\u4e8b\u52d9\u6240(\u5ec3\u6b62)","boring_xml_url":40,"boring_view_url":1,"soilmap_view_url":null,"soiltest_xml_url":0,"soiltest_view_url":0},{"id":168861,"code":"B4KJ201801005-7110","latitude":"35.1676678","longitude":"138.1744028","source_code":"CB52385194002","project_name":"","survey_name":"\u5de5\u4e8b\u7528\u9053\u8def\u72ac\u9593\u5730\u533a\u5730\u8cea\u8abf\u67fb","client_name":"\u56fd\u571f\u4ea4\u901a\u7701\u4e2d\u90e8\u5730\u65b9\u6574\u5099\u5c40\u9577\u5cf6\u30c0\u30e0\u5de5\u4e8b\u4e8b\u52d9\u6240(\u5ec3\u6b62)","boring_xml_url":40,"boring_view_url":1,"soilmap_view_url":null,"soiltest_xml_url":0,"soiltest_view_url":0},{"id":168860,"code":"B4KJ201801005-7109","latitude":"35.1682233","longitude":"138.1740139","source_code":"CB52385194001","project_name":"","survey_name":"\u662d\u548c59\u5e74\u5ea6\u5de5\u4e8b\u7528\u9053\u8def\u80e1\u6843\u6ca2\u6a4b\u4e88\u5099\u8a2d\u8a08\u59161\u4ef6\u696d\u52d9\u59d4\u8a17","client_name":"\u56fd\u571f\u4ea4\u901a\u7701\u4e2d\u90e8\u5730\u65b9\u6574\u5099\u5c40\u9577\u5cf6\u30c0\u30e0\u5de5\u4e8b\u4e8b\u52d9\u6240(\u5ec3\u6b62)","boring_xml_url":40,"boring_view_url":1,"soilmap_view_url":null,"soiltest_xml_url":0,"soiltest_view_url":0},{"id":168859,"code":"B4KJ201801005-7108","latitude":"35.16539","longitude":"138.1649314","source_code":"CB52385193008","project_name":"","survey_name":"\u5510\u6ca2\u5730\u533a\u59161\u4ef6\u5730\u8cea\u8abf\u67fb","client_name":"\u56fd\u571f\u4ea4\u901a\u7701\u4e2d\u90e8\u5730\u65b9\u6574\u5099\u5c40\u9577\u5cf6\u30c0\u30e0\u5de5\u4e8b\u4e8b\u52d9\u6240(\u5ec3\u6b62)","boring_xml_url":40,"boring_view_url":1,"soilmap_view_url":null,"soiltest_xml_url":0,"soiltest_view_url":0},{"id":168858,"code":"B4KJ201801005-7107","latitude":"35.1648622","longitude":"138.1646536","source_code":"CB52385193007","project_name":"","survey_name":"\u5510\u6ca2\u5730\u533a\u59161\u4ef6\u5730\u8cea\u8abf\u67fb","client_name":"\u56fd\u571f\u4ea4\u901a\u7701\u4e2d\u90e8\u5730\u65b9\u6574\u5099\u5c40\u9577\u5cf6\u30c0\u30e0\u5de5\u4e8b\u4e8b\u52d9\u6240(\u5ec3\u6b62)","boring_xml_url":40,"boring_view_url":1,"soilmap_view_url":null,"soiltest_xml_url":0,"soiltest_view_url":0},{"id":168857,"code":"B4KJ201801005-7106","latitude":"35.16439","longitude":"138.1645425","source_code":"CB52385193006","project_name":"","survey_name":"\u5510\u6ca2\u5730\u533a\u59161\u4ef6\u5730\u8cea\u8abf\u67fb","client_name":"\u56fd\u571f\u4ea4\u901a\u7701\u4e2d\u90e8\u5730\u65b9\u6574\u5099\u5c40\u9577\u5cf6\u30c0\u30e0\u5de5\u4e8b\u4e8b\u52d9\u6240(\u5ec3\u6b62)","boring_xml_url":40,"boring_view_url":1,"soilmap_view_url":null,"soiltest_xml_url":0,"soiltest_view_url":0},{"id":168856,"code":"B4KJ201801005-7105","latitude":"35.1649181","longitude":"138.1673481","source_code":"CB52385193005","project_name":"","survey_name":"\u662d\u548c57\u5e74\u5ea6\u4e95\u5ddd\u7dda\u4ed8\u66ff\u5510\u6ca2\u5730\u533a\u5730\u8cea\u8abf\u67fb","client_name":"\u56fd\u571f\u4ea4\u901a\u7701\u4e2d\u90e8\u5730\u65b9\u6574\u5099\u5c40\u9577\u5cf6\u30c0\u30e0\u5de5\u4e8b\u4e8b\u52d9\u6240(\u5ec3\u6b62)","boring_xml_url":40,"boring_view_url":1,"soilmap_view_url":null,"soiltest_xml_url":0,"soiltest_view_url":0},{"id":168855,"code":"B4KJ201801005-7104","latitude":"35.1648622","longitude":"138.1645425","source_code":"CB52385193004","project_name":"","survey_name":"\u662d\u548c57\u5e74\u5ea6\u4e95\u5ddd\u7dda\u4ed8\u66ff\u5510\u6ca2\u5730\u533a\u5730\u8cea\u8abf\u67fb","client_name":"\u56fd\u571f\u4ea4\u901a\u7701\u4e2d\u90e8\u5730\u65b9\u6574\u5099\u5c40\u9577\u5cf6\u30c0\u30e0\u5de5\u4e8b\u4e8b\u52d9\u6240(\u5ec3\u6b62)","boring_xml_url":40,"boring_view_url":1,"soilmap_view_url":null,"soiltest_xml_url":0,"soiltest_view_url":0},{"id":168854,"code":"B4KJ201801005-7103","latitude":"35.1680286","longitude":"138.161765","source_code":"CB52385193003","project_name":"","survey_name":"\u662d\u548c58\u5e74\u5ea6\u4e95\u5ddd\u7dda\u4ed8\u66ff\u53ca\u3073\u5de5\u4e8b\u7528\u9053\u8def\u5bc4\u5009\u5730\u533a\u5730\u8cea\u8abf\u67fb","client_name":"\u56fd\u571f\u4ea4\u901a\u7701\u4e2d\u90e8\u5730\u65b9\u6574\u5099\u5c40\u9577\u5cf6\u30c0\u30e0\u5de5\u4e8b\u4e8b\u52d9\u6240(\u5ec3\u6b62)","boring_xml_url":40,"boring_view_url":1,"soilmap_view_url":null,"soiltest_xml_url":0,"soiltest_view_url":0},{"id":168853,"code":"B4KJ201801005-7102","latitude":"35.1653622","longitude":"138.1631261","source_code":"CB52385193002","project_name":"","survey_name":"\u662d\u548c58\u5e74\u5ea6\u4e95\u5ddd\u7dda\u4ed8\u66ff\u53ca\u3073\u5de5\u4e8b\u7528\u9053\u8def\u5bc4\u5009\u5730\u533a\u5730\u8cea\u8abf\u67fb","client_name":"\u56fd\u571f\u4ea4\u901a\u7701\u4e2d\u90e8\u5730\u65b9\u6574\u5099\u5c40\u9577\u5cf6\u30c0\u30e0\u5de5\u4e8b\u4e8b\u52d9\u6240(\u5ec3\u6b62)","boring_xml_url":40,"boring_view_url":1,"soilmap_view_url":null,"soiltest_xml_url":0,"soiltest_view_url":0},{"id":168852,"code":"B4KJ201801005-7101","latitude":"35.1657511","longitude":"138.1623483","source_code":"CB52385193001","project_name":"","survey_name":"\u662d\u548c58\u5e74\u5ea6\u4e95\u5ddd\u7dda\u4ed8\u66ff\u53ca\u3073\u5de5\u4e8b\u7528\u9053\u8def\u5bc4\u5009\u5730\u533a\u5730\u8cea\u8abf\u67fb","client_name":"\u56fd\u571f\u4ea4\u901a\u7701\u4e2d\u90e8\u5730\u65b9\u6574\u5099\u5c40\u9577\u5cf6\u30c0\u30e0\u5de5\u4e8b\u4e8b\u52d9\u6240(\u5ec3\u6b62)","boring_xml_url":40,"boring_view_url":1,"soilmap_view_url":null,"soiltest_xml_url":0,"soiltest_view_url":0},{"id":168851,"code":"B4KJ201801005-7100","latitude":"35.1663339","longitude":"138.1491828","source_code":"CB52385192022","project_name":"","survey_name":"\u4eee\u6392\u6c34\u8def\u5410\u53e3\u4ed8\u8fd1\u5730\u8cea\u8abf\u67fb","client_name":"\u56fd\u571f\u4ea4\u901a\u7701\u4e2d\u90e8\u5730\u65b9\u6574\u5099\u5c40\u9577\u5cf6\u30c0\u30e0\u5de5\u4e8b\u4e8b\u52d9\u6240(\u5ec3\u6b62)","boring_xml_url":40,"boring_view_url":1,"soilmap_view_url":null,"soiltest_xml_url":0,"soiltest_view_url":0},{"id":168850,"code":"B4KJ201801005-7099","latitude":"35.1655842","longitude":"138.1496828","source_code":"CB52385192021","project_name":"","survey_name":"\u4eee\u6392\u6c34\u8def\u5410\u53e3\u4ed8\u8fd1\u5730\u8cea\u8abf\u67fb","client_name":"\u56fd\u571f\u4ea4\u901a\u7701\u4e2d\u90e8\u5730\u65b9\u6574\u5099\u5c40\u9577\u5cf6\u30c0\u30e0\u5de5\u4e8b\u4e8b\u52d9\u6240(\u5ec3\u6b62)","boring_xml_url":40,"boring_view_url":1,"soilmap_view_url":null,"soiltest_xml_url":0,"soiltest_view_url":0},{"id":168849,"code":"B4KJ201801005-7098","latitude":"35.1660008","longitude":"138.1574875","source_code":"CB52385192020","project_name":"","survey_name":"\u662d\u548c57\u5e74\u5ea6\u9577\u5cf6\u30c0\u30e0\u30b5\u30a4\u30c8\u30dc\u30fc\u30ea\u30f3\u30b0\u8abf\u67fb(\u305d\u306e4)","client_name":"\u56fd\u571f\u4ea4\u901a\u7701\u4e2d\u90e8\u5730\u65b9\u6574\u5099\u5c40\u9577\u5cf6\u30c0\u30e0\u5de5\u4e8b\u4e8b\u52d9\u6240(\u5ec3\u6b62)","boring_xml_url":40,"boring_view_url":1,"soilmap_view_url":null,"soiltest_xml_url":0,"soiltest_view_url":0},{"id":168848,"code":"B4KJ201801005-7097","latitude":"35.1660008","longitude":"138.1574875","source_code":"CB52385192019","project_name":"","survey_name":"\u662d\u548c57\u5e74\u5ea6\u9577\u5cf6\u30c0\u30e0\u30b5\u30a4\u30c8\u30dc\u30fc\u30ea\u30f3\u30b0\u8abf\u67fb(\u305d\u306e4)","client_name":"\u56fd\u571f\u4ea4\u901a\u7701\u4e2d\u90e8\u5730\u65b9\u6574\u5099\u5c40\u9577\u5cf6\u30c0\u30e0\u5de5\u4e8b\u4e8b\u52d9\u6240(\u5ec3\u6b62)","boring_xml_url":40,"boring_view_url":1,"soilmap_view_url":null,"soiltest_xml_url":0,"soiltest_view_url":0},{"id":168847,"code":"B4KJ201801005-7096","latitude":"35.1663064","longitude":"138.1521269","source_code":"CB52385192018","project_name":"","survey_name":"\u4eee\u6392\u6c34\u8def\u5730\u8cea\u8abf\u67fb","client_name":"\u56fd\u571f\u4ea4\u901a\u7701\u4e2d\u90e8\u5730\u65b9\u6574\u5099\u5c40\u9577\u5cf6\u30c0\u30e0\u5de5\u4e8b\u4e8b\u52d9\u6240(\u5ec3\u6b62)","boring_xml_url":40,"boring_view_url":1,"soilmap_view_url":null,"soiltest_xml_url":0,"soiltest_view_url":0},{"id":168846,"code":"B4KJ201801005-7095","latitude":"35.1658619","longitude":"138.1529325","source_code":"CB52385192017","project_name":"","survey_name":"\u4eee\u6392\u6c34\u8def\u5730\u8cea\u8abf\u67fb","client_name":"\u56fd\u571f\u4ea4\u901a\u7701\u4e2d\u90e8\u5730\u65b9\u6574\u5099\u5c40\u9577\u5cf6\u30c0\u30e0\u5de5\u4e8b\u4e8b\u52d9\u6240(\u5ec3\u6b62)","boring_xml_url":40,"boring_view_url":1,"soilmap_view_url":null,"soiltest_xml_url":0,"soiltest_view_url":0},{"id":168845,"code":"B4KJ201801005-7094","latitude":"35.1683617","longitude":"138.1561267","source_code":"CB52385192016","project_name":"","survey_name":"\u4e95\u5ddd\u7dda\u4ed8\u66ff\u53ca\u3073\u5de5\u4e8b\u7528\u9053\u8def\u5927\u6a3d\u5730\u533a\u5730\u8cea\u8abf\u67fb","client_name":"\u56fd\u571f\u4ea4\u901a\u7701\u4e2d\u90e8\u5730\u65b9\u6574\u5099\u5c40\u9577\u5cf6\u30c0\u30e0\u5de5\u4e8b\u4e8b\u52d9\u6240(\u5ec3\u6b62)","boring_xml_url":40,"boring_view_url":1,"soilmap_view_url":null,"soiltest_xml_url":0,"soiltest_view_url":0},{"id":168844,"code":"B4KJ201801005-7093","latitude":"35.1684728","longitude":"138.1554878","source_code":"CB52385192015","project_name":"","survey_name":"\u4e95\u5ddd\u7dda\u4ed8\u66ff\u53ca\u3073\u5de5\u4e8b\u7528\u9053\u8def\u5927\u6a3d\u5730\u533a\u5730\u8cea\u8abf\u67fb","client_name":"\u56fd\u571f\u4ea4\u901a\u7701\u4e2d\u90e8\u5730\u65b9\u6574\u5099\u5c40\u9577\u5cf6\u30c0\u30e0\u5de5\u4e8b\u4e8b\u52d9\u6240(\u5ec3\u6b62)","boring_xml_url":40,"boring_view_url":1,"soilmap_view_url":null,"soiltest_xml_url":0,"soiltest_view_url":0},{"id":168843,"code":"B4KJ201801005-7092","latitude":"35.1690283","longitude":"138.1553767","source_code":"CB52385192014","project_name":"","survey_name":"\u4e95\u5ddd\u7dda\u4ed8\u66ff\u53ca\u3073\u5de5\u4e8b\u7528\u9053\u8def\u5927\u6a3d\u5730\u533a\u5730\u8cea\u8abf\u67fb","client_name":"\u56fd\u571f\u4ea4\u901a\u7701\u4e2d\u90e8\u5730\u65b9\u6574\u5099\u5c40\u9577\u5cf6\u30c0\u30e0\u5de5\u4e8b\u4e8b\u52d9\u6240(\u5ec3\u6b62)","boring_xml_url":40,"boring_view_url":1,"soilmap_view_url":null,"soiltest_xml_url":0,"soiltest_view_url":0},{"id":168842,"code":"B4KJ201801005-7091","latitude":"35.1692506","longitude":"138.1588486","source_code":"CB52385192013","project_name":"","survey_name":"\u5de5\u4e8b\u7528\u9032\u5165\u8def\u5927\u6a3d\u6a4b\u6881\u5730\u8cea\u8abf\u67fb","client_name":"\u56fd\u571f\u4ea4\u901a\u7701\u4e2d\u90e8\u5730\u65b9\u6574\u5099\u5c40\u9577\u5cf6\u30c0\u30e0\u5de5\u4e8b\u4e8b\u52d9\u6240(\u5ec3\u6b62)","boring_xml_url":40,"boring_view_url":1,"soilmap_view_url":null,"soiltest_xml_url":0,"soiltest_view_url":0},{"id":168841,"code":"B4KJ201801005-7090","latitude":"35.1695561","longitude":"138.1586819","source_code":"CB52385192012","project_name":"","survey_name":"\u5de5\u4e8b\u7528\u9032\u5165\u8def\u5927\u6a3d\u6a4b\u6881\u5730\u8cea\u8abf\u67fb","client_name":"\u56fd\u571f\u4ea4\u901a\u7701\u4e2d\u90e8\u5730\u65b9\u6574\u5099\u5c40\u9577\u5cf6\u30c0\u30e0\u5de5\u4e8b\u4e8b\u52d9\u6240(\u5ec3\u6b62)","boring_xml_url":40,"boring_view_url":1,"soilmap_view_url":null,"soiltest_xml_url":0,"soiltest_view_url":0},{"id":168840,"code":"B4KJ201801005-7089","latitude":"35.1693339","longitude":"138.1592094","source_code":"CB52385192011","project_name":"","survey_name":"\u5de5\u4e8b\u7528\u9032\u5165\u8def\u5927\u6a3d\u6a4b\u6881\u5730\u8cea\u8abf\u67fb","client_name":"\u56fd\u571f\u4ea4\u901a\u7701\u4e2d\u90e8\u5730\u65b9\u6574\u5099\u5c40\u9577\u5cf6\u30c0\u30e0\u5de5\u4e8b\u4e8b\u52d9\u6240(\u5ec3\u6b62)","boring_xml_url":40,"boring_view_url":1,"soilmap_view_url":null,"soiltest_xml_url":0,"soiltest_view_url":0},{"id":168839,"code":"B4KJ201801005-7088","latitude":"35.169695","longitude":"138.1591261","source_code":"CB52385192010","project_name":"","survey_name":"\u5de5\u4e8b\u7528\u9032\u5165\u8def\u5927\u6a3d\u6a4b\u6881\u5730\u8cea\u8abf\u67fb","client_name":"\u56fd\u571f\u4ea4\u901a\u7701\u4e2d\u90e8\u5730\u65b9\u6574\u5099\u5c40\u9577\u5cf6\u30c0\u30e0\u5de5\u4e8b\u4e8b\u52d9\u6240(\u5ec3\u6b62)","boring_xml_url":40,"boring_view_url":1,"soilmap_view_url":null,"soiltest_xml_url":0,"soiltest_view_url":0},{"id":168838,"code":"B4KJ201801005-7087","latitude":"35.1648064","longitude":"138.1508494","source_code":"CB52385192009","project_name":"","survey_name":"\u9577\u5cf6\u30c0\u30e0\u30b5\u30a4\u30c8\u30dc\u30fc\u30ea\u30f3\u30b0\u8abf\u67fb(\u305d\u306e3)","client_name":"\u56fd\u571f\u4ea4\u901a\u7701\u4e2d\u90e8\u5730\u65b9\u6574\u5099\u5c40\u9577\u5cf6\u30c0\u30e0\u5de5\u4e8b\u4e8b\u52d9\u6240(\u5ec3\u6b62)","boring_xml_url":40,"boring_view_url":1,"soilmap_view_url":null,"soiltest_xml_url":0,"soiltest_view_url":0},{"id":168837,"code":"B4KJ201801005-7086","latitude":"35.1645564","longitude":"138.1518214","source_code":"CB52385192008","project_name":"","survey_name":"\u9577\u5cf6\u30c0\u30e0\u30b5\u30a4\u30c8\u30dc\u30fc\u30ea\u30f3\u30b0\u8abf\u67fb(\u305d\u306e3)","client_name":"\u56fd\u571f\u4ea4\u901a\u7701\u4e2d\u90e8\u5730\u65b9\u6574\u5099\u5c40\u9577\u5cf6\u30c0\u30e0\u5de5\u4e8b\u4e8b\u52d9\u6240(\u5ec3\u6b62)","boring_xml_url":40,"boring_view_url":1,"soilmap_view_url":null,"soiltest_xml_url":0,"soiltest_view_url":0},{"id":168836,"code":"B4KJ201801005-7085","latitude":"35.1661117","longitude":"138.1494606","source_code":"CB52385192006","project_name":"","survey_name":"\u4eee\u6392\u6c34\u8def\u5410\u53e3\u4ed8\u8fd1\u5730\u8cea\u8abf\u67fb","client_name":"\u56fd\u571f\u4ea4\u901a\u7701\u4e2d\u90e8\u5730\u65b9\u6574\u5099\u5c40\u9577\u5cf6\u30c0\u30e0\u5de5\u4e8b\u4e8b\u52d9\u6240(\u5ec3\u6b62)","boring_xml_url":40,"boring_view_url":1,"soilmap_view_url":null,"soiltest_xml_url":0,"soiltest_view_url":0}]}}