{"header":{"xyz":{"source":[],"mosaic":false},"page":5059,"raw":{"soiltest_result":"0","bbox":"57.598333,109.544722,1.933333,163.806111","page":"5059"},"conditions":{"soiltest_result":0,"north":57.598333,"west":109.544722,"south":1.933333,"east":163.806111},"success":true,"message":""},"data":{"meta":{"total":212844,"page":5059,"pages":7095,"count":30},"values":[{"id":168805,"code":"B4KJ201801005-7054","latitude":"35.0806592","longitude":"138.54393","source_code":"CB52384493009","project_name":"","survey_name":"\u662d\u548c50\u5e74\u5ea6\u7531\u6bd4\u5730\u533a\u5730\u3059\u3079\u308a\u8abf\u67fb(\u305d\u306e1)","client_name":"\u56fd\u571f\u4ea4\u901a\u7701\u4e2d\u90e8\u5730\u65b9\u6574\u5099\u5c40\u5bcc\u58eb\u7802\u9632\u4e8b\u52d9\u6240","boring_xml_url":40,"boring_view_url":1,"soilmap_view_url":null,"soiltest_xml_url":0,"soiltest_view_url":0},{"id":168804,"code":"B4KJ201801005-7053","latitude":"35.0824647","longitude":"138.5454297","source_code":"CB52384493008","project_name":"","survey_name":"\u662d\u548c50\u5e74\u5ea6\u7531\u6bd4\u5730\u533a\u5730\u3059\u3079\u308a\u8abf\u67fb(\u305d\u306e1)","client_name":"\u56fd\u571f\u4ea4\u901a\u7701\u4e2d\u90e8\u5730\u65b9\u6574\u5099\u5c40\u5bcc\u58eb\u7802\u9632\u4e8b\u52d9\u6240","boring_xml_url":40,"boring_view_url":1,"soilmap_view_url":null,"soiltest_xml_url":0,"soiltest_view_url":0},{"id":168803,"code":"B4KJ201801005-7052","latitude":"35.0826033","longitude":"138.5433467","source_code":"CB52384493007","project_name":"","survey_name":"\u662d\u548c50\u5e74\u5ea6\u7531\u6bd4\u5730\u533a\u5730\u3059\u3079\u308a\u8abf\u67fb(\u305d\u306e2)","client_name":"\u56fd\u571f\u4ea4\u901a\u7701\u4e2d\u90e8\u5730\u65b9\u6574\u5099\u5c40\u5bcc\u58eb\u7802\u9632\u4e8b\u52d9\u6240","boring_xml_url":40,"boring_view_url":1,"soilmap_view_url":null,"soiltest_xml_url":0,"soiltest_view_url":0},{"id":168802,"code":"B4KJ201801005-7051","latitude":"35.0834644","longitude":"138.5453186","source_code":"CB52384493006","project_name":"","survey_name":"\u662d\u548c50\u5e74\u5ea6\u7531\u6bd4\u5730\u533a\u5730\u3059\u3079\u308a\u8abf\u67fb(\u305d\u306e1)","client_name":"\u56fd\u571f\u4ea4\u901a\u7701\u4e2d\u90e8\u5730\u65b9\u6574\u5099\u5c40\u5bcc\u58eb\u7802\u9632\u4e8b\u52d9\u6240","boring_xml_url":40,"boring_view_url":1,"soilmap_view_url":null,"soiltest_xml_url":0,"soiltest_view_url":0},{"id":168801,"code":"B4KJ201801005-7050","latitude":"35.0801036","longitude":"138.5446522","source_code":"CB52384493005","project_name":"","survey_name":"\u662d\u548c54\u5e74\u5ea6\u7531\u6bd4\u5730\u533a\u9707\u707d\u5bfe\u7b56\u8abf\u67fb","client_name":"\u56fd\u571f\u4ea4\u901a\u7701\u4e2d\u90e8\u5730\u65b9\u6574\u5099\u5c40\u5bcc\u58eb\u7802\u9632\u4e8b\u52d9\u6240","boring_xml_url":40,"boring_view_url":1,"soilmap_view_url":null,"soiltest_xml_url":0,"soiltest_view_url":0},{"id":168800,"code":"B4KJ201801005-7049","latitude":"35.0806314","longitude":"138.5457631","source_code":"CB52384493004","project_name":"","survey_name":"\u662d\u548c54\u5e74\u5ea6\u7531\u6bd4\u5730\u533a\u9707\u707d\u5bfe\u7b56\u8abf\u67fb","client_name":"\u56fd\u571f\u4ea4\u901a\u7701\u4e2d\u90e8\u5730\u65b9\u6574\u5099\u5c40\u5bcc\u58eb\u7802\u9632\u4e8b\u52d9\u6240","boring_xml_url":40,"boring_view_url":1,"soilmap_view_url":null,"soiltest_xml_url":0,"soiltest_view_url":0},{"id":168799,"code":"B4KJ201801005-7048","latitude":"35.0809647","longitude":"138.5458186","source_code":"CB52384493003","project_name":"","survey_name":"\u662d\u548c53\u5e74\u5ea6\u7531\u6bd4\u5730\u533a\u9707\u707d\u5bfe\u7b56\u8abf\u67fb","client_name":"\u56fd\u571f\u4ea4\u901a\u7701\u4e2d\u90e8\u5730\u65b9\u6574\u5099\u5c40\u5bcc\u58eb\u7802\u9632\u4e8b\u52d9\u6240","boring_xml_url":40,"boring_view_url":1,"soilmap_view_url":null,"soiltest_xml_url":0,"soiltest_view_url":0},{"id":168798,"code":"B4KJ201801005-7047","latitude":"35.0809925","longitude":"138.5450686","source_code":"CB52384493002","project_name":"","survey_name":"\u662d\u548c55\u5e74\u5ea6\u7531\u6bd4\u5730\u533a\u9707\u707d\u5bfe\u7b56\u8abf\u67fb","client_name":"\u56fd\u571f\u4ea4\u901a\u7701\u4e2d\u90e8\u5730\u65b9\u6574\u5099\u5c40\u5bcc\u58eb\u7802\u9632\u4e8b\u52d9\u6240","boring_xml_url":40,"boring_view_url":1,"soilmap_view_url":null,"soiltest_xml_url":0,"soiltest_view_url":0},{"id":168797,"code":"B4KJ201801005-7046","latitude":"35.0811869","longitude":"138.5449853","source_code":"CB52384493001","project_name":"","survey_name":"\u662d\u548c53\u5e74\u5ea6\u7531\u6bd4\u5730\u533a\u9707\u707d\u5bfe\u7b56\u8abf\u67fb","client_name":"\u56fd\u571f\u4ea4\u901a\u7701\u4e2d\u90e8\u5730\u65b9\u6574\u5099\u5c40\u5bcc\u58eb\u7802\u9632\u4e8b\u52d9\u6240","boring_xml_url":40,"boring_view_url":1,"soilmap_view_url":null,"soiltest_xml_url":0,"soiltest_view_url":0},{"id":168796,"code":"B4KJ201801005-7045","latitude":"35.0712992","longitude":"138.5427914","source_code":"CB52384483010","project_name":"","survey_name":"\u5e73\u62104\u5e74\u5ea61\u53f7\u9759\u6e05\u5cb3\u7f8e\u5730\u533a\u5730\u8cea\u8abf\u67fb\u305d\u306e1","client_name":"\u56fd\u571f\u4ea4\u901a\u7701\u4e2d\u90e8\u5730\u65b9\u6574\u5099\u5c40\u9759\u5ca1\u56fd\u9053\u4e8b\u52d9\u6240","boring_xml_url":40,"boring_view_url":1,"soilmap_view_url":null,"soiltest_xml_url":0,"soiltest_view_url":0},{"id":168795,"code":"B4KJ201801005-7044","latitude":"35.0715769","longitude":"138.5430692","source_code":"CB52384483009","project_name":"","survey_name":"\u5e73\u62104\u5e74\u5ea61\u53f7\u9759\u6e05\u5cb3\u7f8e\u5730\u533a\u5730\u8cea\u8abf\u67fb\u305d\u306e1","client_name":"\u56fd\u571f\u4ea4\u901a\u7701\u4e2d\u90e8\u5730\u65b9\u6574\u5099\u5c40\u9759\u5ca1\u56fd\u9053\u4e8b\u52d9\u6240","boring_xml_url":40,"boring_view_url":1,"soilmap_view_url":null,"soiltest_xml_url":0,"soiltest_view_url":0},{"id":168794,"code":"B4KJ201801005-7043","latitude":"35.0702714","longitude":"138.5372364","source_code":"CB52384483008","project_name":"","survey_name":"\u662d\u548c50\u5e74\u5ea6\u7531\u6bd4\u5730\u533a\u5730\u3059\u3079\u308a\u8abf\u67fb(\u305d\u306e1)","client_name":"\u56fd\u571f\u4ea4\u901a\u7701\u4e2d\u90e8\u5730\u65b9\u6574\u5099\u5c40\u5bcc\u58eb\u7802\u9632\u4e8b\u52d9\u6240","boring_xml_url":40,"boring_view_url":1,"soilmap_view_url":null,"soiltest_xml_url":0,"soiltest_view_url":0},{"id":168793,"code":"B4KJ201801005-7042","latitude":"35.0708547","longitude":"138.5371531","source_code":"CB52384483007","project_name":"","survey_name":"\u662d\u548c50\u5e74\u5ea6\u7531\u6bd4\u5730\u533a\u5730\u3059\u3079\u308a\u8abf\u67fb(\u305d\u306e1)","client_name":"\u56fd\u571f\u4ea4\u901a\u7701\u4e2d\u90e8\u5730\u65b9\u6574\u5099\u5c40\u5bcc\u58eb\u7802\u9632\u4e8b\u52d9\u6240","boring_xml_url":40,"boring_view_url":1,"soilmap_view_url":null,"soiltest_xml_url":0,"soiltest_view_url":0},{"id":168792,"code":"B4KJ201801005-7041","latitude":"35.0748264","longitude":"138.5419303","source_code":"CB52384483006","project_name":"","survey_name":"\u662d\u548c50\u5e74\u5ea6\u7531\u6bd4\u5730\u533a\u5730\u3059\u3079\u308a\u8abf\u67fb(\u305d\u306e1)","client_name":"\u56fd\u571f\u4ea4\u901a\u7701\u4e2d\u90e8\u5730\u65b9\u6574\u5099\u5c40\u5bcc\u58eb\u7802\u9632\u4e8b\u52d9\u6240","boring_xml_url":40,"boring_view_url":1,"soilmap_view_url":null,"soiltest_xml_url":0,"soiltest_view_url":0},{"id":168791,"code":"B4KJ201801005-7040","latitude":"35.0751319","longitude":"138.5404306","source_code":"CB52384483005","project_name":"","survey_name":"\u662d\u548c50\u5e74\u5ea6\u7531\u6bd4\u5730\u533a\u5730\u3059\u3079\u308a\u8abf\u67fb(\u305d\u306e1)","client_name":"\u56fd\u571f\u4ea4\u901a\u7701\u4e2d\u90e8\u5730\u65b9\u6574\u5099\u5c40\u5bcc\u58eb\u7802\u9632\u4e8b\u52d9\u6240","boring_xml_url":40,"boring_view_url":1,"soilmap_view_url":null,"soiltest_xml_url":0,"soiltest_view_url":0},{"id":168790,"code":"B4KJ201801005-7039","latitude":"35.0753542","longitude":"138.5392639","source_code":"CB52384483004","project_name":"","survey_name":"\u662d\u548c50\u5e74\u5ea6\u7531\u6bd4\u5730\u533a\u5730\u3059\u3079\u308a\u8abf\u67fb(\u305d\u306e1)","client_name":"\u56fd\u571f\u4ea4\u901a\u7701\u4e2d\u90e8\u5730\u65b9\u6574\u5099\u5c40\u5bcc\u58eb\u7802\u9632\u4e8b\u52d9\u6240","boring_xml_url":40,"boring_view_url":1,"soilmap_view_url":null,"soiltest_xml_url":0,"soiltest_view_url":0},{"id":168789,"code":"B4KJ201801005-7038","latitude":"35.0770764","longitude":"138.5430136","source_code":"CB52384483003","project_name":"","survey_name":"\u662d\u548c50\u5e74\u5ea6\u7531\u6bd4\u5730\u533a\u5730\u3059\u3079\u308a\u8abf\u67fb(\u305d\u306e1)","client_name":"\u56fd\u571f\u4ea4\u901a\u7701\u4e2d\u90e8\u5730\u65b9\u6574\u5099\u5c40\u5bcc\u58eb\u7802\u9632\u4e8b\u52d9\u6240","boring_xml_url":40,"boring_view_url":1,"soilmap_view_url":null,"soiltest_xml_url":0,"soiltest_view_url":0},{"id":168788,"code":"B4KJ201801005-7037","latitude":"35.0774928","longitude":"138.5422914","source_code":"CB52384483002","project_name":"","survey_name":"\u662d\u548c50\u5e74\u5ea6\u7531\u6bd4\u5730\u533a\u5730\u3059\u3079\u308a\u8abf\u67fb(\u305d\u306e1)","client_name":"\u56fd\u571f\u4ea4\u901a\u7701\u4e2d\u90e8\u5730\u65b9\u6574\u5099\u5c40\u5bcc\u58eb\u7802\u9632\u4e8b\u52d9\u6240","boring_xml_url":40,"boring_view_url":1,"soilmap_view_url":null,"soiltest_xml_url":0,"soiltest_view_url":0},{"id":168787,"code":"B4KJ201801005-7036","latitude":"35.0782428","longitude":"138.5453189","source_code":"CB52384483001","project_name":"","survey_name":"\u662d\u548c50\u5e74\u5ea6\u7531\u6bd4\u5730\u533a\u5730\u3059\u3079\u308a\u8abf\u67fb(\u305d\u306e1)","client_name":"\u56fd\u571f\u4ea4\u901a\u7701\u4e2d\u90e8\u5730\u65b9\u6574\u5099\u5c40\u5bcc\u58eb\u7802\u9632\u4e8b\u52d9\u6240","boring_xml_url":40,"boring_view_url":1,"soilmap_view_url":null,"soiltest_xml_url":0,"soiltest_view_url":0},{"id":168786,"code":"B4KJ201801005-7035","latitude":"35.0421619","longitude":"138.4849919","source_code":"CB52384349004","project_name":"","survey_name":"\u9759\u6e05\u30d0\u30a4\u30d1\u30b9\u6e05\u6c34\u5730\u533a\u5730\u8cea\u8abf\u67fb","client_name":"\u56fd\u571f\u4ea4\u901a\u7701\u4e2d\u90e8\u5730\u65b9\u6574\u5099\u5c40\u9759\u5ca1\u56fd\u9053\u4e8b\u52d9\u6240","boring_xml_url":40,"boring_view_url":1,"soilmap_view_url":null,"soiltest_xml_url":0,"soiltest_view_url":0},{"id":168785,"code":"B4KJ201801005-7034","latitude":"35.0435786","longitude":"138.4887694","source_code":"CB52384349003","project_name":"","survey_name":"\u9759\u6e05\u30d0\u30a4\u30d1\u30b9\u6e05\u6c34\u5730\u533a\u5730\u8cea\u8abf\u67fb","client_name":"\u56fd\u571f\u4ea4\u901a\u7701\u4e2d\u90e8\u5730\u65b9\u6574\u5099\u5c40\u9759\u5ca1\u56fd\u9053\u4e8b\u52d9\u6240","boring_xml_url":40,"boring_view_url":1,"soilmap_view_url":null,"soiltest_xml_url":0,"soiltest_view_url":0},{"id":168784,"code":"B4KJ201801005-7033","latitude":"35.0436897","longitude":"138.489075","source_code":"CB52384349002","project_name":"","survey_name":"\u9759\u6e05\u30d0\u30a4\u30d1\u30b9\u6e05\u6c34\u5730\u533a\u5730\u8cea\u8abf\u67fb","client_name":"\u56fd\u571f\u4ea4\u901a\u7701\u4e2d\u90e8\u5730\u65b9\u6574\u5099\u5c40\u9759\u5ca1\u56fd\u9053\u4e8b\u52d9\u6240","boring_xml_url":40,"boring_view_url":1,"soilmap_view_url":null,"soiltest_xml_url":0,"soiltest_view_url":0},{"id":168783,"code":"B4KJ201801005-7032","latitude":"35.0437175","longitude":"138.4894083","source_code":"CB52384349001","project_name":"","survey_name":"\u9759\u6e05\u30d0\u30a4\u30d1\u30b9\u6e05\u6c34\u5730\u533a\u5730\u8cea\u8abf\u67fb","client_name":"\u56fd\u571f\u4ea4\u901a\u7701\u4e2d\u90e8\u5730\u65b9\u6574\u5099\u5c40\u9759\u5ca1\u56fd\u9053\u4e8b\u52d9\u6240","boring_xml_url":40,"boring_view_url":1,"soilmap_view_url":null,"soiltest_xml_url":0,"soiltest_view_url":0},{"id":168782,"code":"B4KJ201801005-7031","latitude":"35.0389122","longitude":"138.4810758","source_code":"CB52384348003","project_name":"","survey_name":"\u662d\u548c49\u5e74\u5ea6\u5df4\u5ddd\u6a4b\u4ed61\u6a4b\u5730\u8cea\u8abf\u67fb","client_name":"\u56fd\u571f\u4ea4\u901a\u7701\u4e2d\u90e8\u5730\u65b9\u6574\u5099\u5c40\u9759\u5ca1\u56fd\u9053\u4e8b\u52d9\u6240","boring_xml_url":40,"boring_view_url":1,"soilmap_view_url":null,"soiltest_xml_url":0,"soiltest_view_url":0},{"id":168781,"code":"B4KJ201801005-7030","latitude":"35.0391622","longitude":"138.4807703","source_code":"CB52384348002","project_name":"","survey_name":"\u662d\u548c49\u5e74\u5ea6\u5df4\u5ddd\u6a4b\u4ed61\u6a4b\u5730\u8cea\u8abf\u67fb","client_name":"\u56fd\u571f\u4ea4\u901a\u7701\u4e2d\u90e8\u5730\u65b9\u6574\u5099\u5c40\u9759\u5ca1\u56fd\u9053\u4e8b\u52d9\u6240","boring_xml_url":40,"boring_view_url":1,"soilmap_view_url":null,"soiltest_xml_url":0,"soiltest_view_url":0},{"id":168780,"code":"B4KJ201801005-7029","latitude":"35.0369403","longitude":"138.4784372","source_code":"CB52384348001","project_name":"","survey_name":"\u9759\u6e05\u30d0\u30a4\u30d1\u30b9\u6e05\u6c34\u5730\u533a\u5730\u8cea\u8abf\u67fb","client_name":"\u56fd\u571f\u4ea4\u901a\u7701\u4e2d\u90e8\u5730\u65b9\u6574\u5099\u5c40\u9759\u5ca1\u56fd\u9053\u4e8b\u52d9\u6240","boring_xml_url":40,"boring_view_url":1,"soilmap_view_url":null,"soiltest_xml_url":0,"soiltest_view_url":0},{"id":168779,"code":"B4KJ201801005-7028","latitude":"35.0335517","longitude":"138.4725489","source_code":"CB52384338002","project_name":"","survey_name":"\u662d\u548c57\u5e74\u5ea6\u9759\u6e05\u30d0\u30a4\u30d1\u30b9\u516b\u5742\u5929\u738b\u5730\u533a\u5730\u8cea\u8abf\u67fb","client_name":"\u56fd\u571f\u4ea4\u901a\u7701\u4e2d\u90e8\u5730\u65b9\u6574\u5099\u5c40\u9759\u5ca1\u56fd\u9053\u4e8b\u52d9\u6240","boring_xml_url":40,"boring_view_url":1,"soilmap_view_url":null,"soiltest_xml_url":0,"soiltest_view_url":0},{"id":168778,"code":"B4KJ201801005-7027","latitude":"35.0338294","longitude":"138.4730489","source_code":"CB52384338001","project_name":"","survey_name":"\u662d\u548c57\u5e74\u5ea6\u9759\u6e05\u30d0\u30a4\u30d1\u30b9\u516b\u5742\u5929\u738b\u5730\u533a\u5730\u8cea\u8abf\u67fb","client_name":"\u56fd\u571f\u4ea4\u901a\u7701\u4e2d\u90e8\u5730\u65b9\u6574\u5099\u5c40\u9759\u5ca1\u56fd\u9053\u4e8b\u52d9\u6240","boring_xml_url":40,"boring_view_url":1,"soilmap_view_url":null,"soiltest_xml_url":0,"soiltest_view_url":0},{"id":168777,"code":"B4KJ201801005-7026","latitude":"35.0297464","longitude":"138.4660775","source_code":"CB52384337011","project_name":"","survey_name":"\u9759\u6e05\u30d0\u30a4\u30d1\u30b9\u516b\u5742\u5929\u738b\u5730\u533a\u5730\u8cea\u8abf\u67fb","client_name":"\u56fd\u571f\u4ea4\u901a\u7701\u4e2d\u90e8\u5730\u65b9\u6574\u5099\u5c40\u9759\u5ca1\u56fd\u9053\u4e8b\u52d9\u6240","boring_xml_url":40,"boring_view_url":1,"soilmap_view_url":null,"soiltest_xml_url":0,"soiltest_view_url":0},{"id":168776,"code":"B4KJ201801005-7025","latitude":"35.0320239","longitude":"138.4699936","source_code":"CB52384337010","project_name":"","survey_name":"\u9759\u6e05\u30d0\u30a4\u30d1\u30b9\u516b\u5742,\u5929\u738b\u5730\u533a\u5730\u8cea\u8abf\u67fb","client_name":"\u56fd\u571f\u4ea4\u901a\u7701\u4e2d\u90e8\u5730\u65b9\u6574\u5099\u5c40\u9759\u5ca1\u56fd\u9053\u4e8b\u52d9\u6240","boring_xml_url":40,"boring_view_url":1,"soilmap_view_url":null,"soiltest_xml_url":0,"soiltest_view_url":0}]}}