{"header":{"xyz":{"source":[],"mosaic":false},"page":506,"raw":{"soiltest_result":"0","bbox":"57.598333,109.544722,1.933333,163.806111","page":"506"},"conditions":{"soiltest_result":0,"north":57.598333,"west":109.544722,"south":1.933333,"east":163.806111},"success":true,"message":""},"data":{"meta":{"total":212844,"page":506,"pages":7095,"count":30},"values":[{"id":530238,"code":"B4KJ202201003-2774","latitude":"33.408254","longitude":"129.982764","source_code":"QS20068935600200280006","project_name":"\u5e73\u621018\u5e74\u5ea6\u3000\u677e\u6d66\u5ddd\u5824\u9632\u8a73\u7d30\u8abf\u67fb\u696d\u52d9","survey_name":"\u5e73\u621018\u5e74\u5ea6\u3000\u677e\u6d66\u5ddd\u5824\u9632\u8a73\u7d30\u8abf\u67fb\u696d\u52d9","client_name":"\u56fd\u571f\u4ea4\u901a\u7701\u4e5d\u5dde\u5730\u65b9\u6574\u5099\u5c40\u6b66\u96c4\u6cb3\u5ddd\u4e8b\u52d9\u6240","boring_xml_url":72,"boring_view_url":1,"soilmap_view_url":null,"soiltest_xml_url":0,"soiltest_view_url":0},{"id":530237,"code":"B4KJ202201003-2773","latitude":"33.408356","longitude":"129.982702","source_code":"QS20068935600200280005","project_name":"\u5e73\u621018\u5e74\u5ea6\u3000\u677e\u6d66\u5ddd\u5824\u9632\u8a73\u7d30\u8abf\u67fb\u696d\u52d9","survey_name":"\u5e73\u621018\u5e74\u5ea6\u3000\u677e\u6d66\u5ddd\u5824\u9632\u8a73\u7d30\u8abf\u67fb\u696d\u52d9","client_name":"\u56fd\u571f\u4ea4\u901a\u7701\u4e5d\u5dde\u5730\u65b9\u6574\u5099\u5c40\u6b66\u96c4\u6cb3\u5ddd\u4e8b\u52d9\u6240","boring_xml_url":72,"boring_view_url":1,"soilmap_view_url":null,"soiltest_xml_url":0,"soiltest_view_url":0},{"id":530236,"code":"B4KJ202201003-2772","latitude":"33.409877","longitude":"129.985554","source_code":"QS20068935600200280004","project_name":"\u5e73\u621018\u5e74\u5ea6\u3000\u677e\u6d66\u5ddd\u5824\u9632\u8a73\u7d30\u8abf\u67fb\u696d\u52d9","survey_name":"\u5e73\u621018\u5e74\u5ea6\u3000\u677e\u6d66\u5ddd\u5824\u9632\u8a73\u7d30\u8abf\u67fb\u696d\u52d9","client_name":"\u56fd\u571f\u4ea4\u901a\u7701\u4e5d\u5dde\u5730\u65b9\u6574\u5099\u5c40\u6b66\u96c4\u6cb3\u5ddd\u4e8b\u52d9\u6240","boring_xml_url":72,"boring_view_url":1,"soilmap_view_url":null,"soiltest_xml_url":0,"soiltest_view_url":0},{"id":530235,"code":"B4KJ202201003-2771","latitude":"33.409942","longitude":"129.98548","source_code":"QS20068935600200280003","project_name":"\u5e73\u621018\u5e74\u5ea6\u3000\u677e\u6d66\u5ddd\u5824\u9632\u8a73\u7d30\u8abf\u67fb\u696d\u52d9","survey_name":"\u5e73\u621018\u5e74\u5ea6\u3000\u677e\u6d66\u5ddd\u5824\u9632\u8a73\u7d30\u8abf\u67fb\u696d\u52d9","client_name":"\u56fd\u571f\u4ea4\u901a\u7701\u4e5d\u5dde\u5730\u65b9\u6574\u5099\u5c40\u6b66\u96c4\u6cb3\u5ddd\u4e8b\u52d9\u6240","boring_xml_url":72,"boring_view_url":1,"soilmap_view_url":null,"soiltest_xml_url":0,"soiltest_view_url":0},{"id":530234,"code":"B4KJ202201003-2770","latitude":"33.421427","longitude":"129.990299","source_code":"QS20068935600200280002","project_name":"\u5e73\u621018\u5e74\u5ea6\u3000\u677e\u6d66\u5ddd\u5824\u9632\u8a73\u7d30\u8abf\u67fb\u696d\u52d9","survey_name":"\u5e73\u621018\u5e74\u5ea6\u3000\u677e\u6d66\u5ddd\u5824\u9632\u8a73\u7d30\u8abf\u67fb\u696d\u52d9","client_name":"\u56fd\u571f\u4ea4\u901a\u7701\u4e5d\u5dde\u5730\u65b9\u6574\u5099\u5c40\u6b66\u96c4\u6cb3\u5ddd\u4e8b\u52d9\u6240","boring_xml_url":72,"boring_view_url":1,"soilmap_view_url":null,"soiltest_xml_url":0,"soiltest_view_url":0},{"id":530233,"code":"B4KJ202201003-2769","latitude":"33.421473","longitude":"129.990175","source_code":"QS20068935600200280001","project_name":"\u5e73\u621018\u5e74\u5ea6\u3000\u677e\u6d66\u5ddd\u5824\u9632\u8a73\u7d30\u8abf\u67fb\u696d\u52d9","survey_name":"\u5e73\u621018\u5e74\u5ea6\u3000\u677e\u6d66\u5ddd\u5824\u9632\u8a73\u7d30\u8abf\u67fb\u696d\u52d9","client_name":"\u56fd\u571f\u4ea4\u901a\u7701\u4e5d\u5dde\u5730\u65b9\u6574\u5099\u5c40\u6b66\u96c4\u6cb3\u5ddd\u4e8b\u52d9\u6240","boring_xml_url":72,"boring_view_url":1,"soilmap_view_url":null,"soiltest_xml_url":0,"soiltest_view_url":0},{"id":530232,"code":"B4KJ202201003-2768","latitude":"32.851389","longitude":"130.079444","source_code":"QS20058945600200160008","project_name":"","survey_name":"\u798f\u7530\u5ddd\u5730\u533a\u59161\u7b87\u6240\u5824\u9632\u70b9\u691c\u5730\u8cea\u8abf\u67fb\u696d\u52d9","client_name":"\u9577\u5d0e\u6cb3\u5ddd\u56fd\u9053\u4e8b\u52d9\u6240","boring_xml_url":72,"boring_view_url":1,"soilmap_view_url":null,"soiltest_xml_url":0,"soiltest_view_url":0},{"id":530231,"code":"B4KJ202201003-2767","latitude":"32.851667","longitude":"130.079167","source_code":"QS20058945600200160007","project_name":"","survey_name":"\u798f\u7530\u5ddd\u5730\u533a\u59161\u7b87\u6240\u5824\u9632\u70b9\u691c\u5730\u8cea\u8abf\u67fb\u696d\u52d9","client_name":"\u9577\u5d0e\u6cb3\u5ddd\u56fd\u9053\u4e8b\u52d9\u6240","boring_xml_url":72,"boring_view_url":1,"soilmap_view_url":null,"soiltest_xml_url":0,"soiltest_view_url":0},{"id":530230,"code":"B4KJ202201003-2766","latitude":"32.848333","longitude":"130.058333","source_code":"QS20058945600200160006","project_name":"","survey_name":"\u798f\u7530\u5ddd\u5730\u533a\u59161\u7b87\u6240\u5824\u9632\u70b9\u691c\u5730\u8cea\u8abf\u67fb\u696d\u52d9","client_name":"\u9577\u5d0e\u6cb3\u5ddd\u56fd\u9053\u4e8b\u52d9\u6240","boring_xml_url":72,"boring_view_url":1,"soilmap_view_url":null,"soiltest_xml_url":0,"soiltest_view_url":0},{"id":530229,"code":"B4KJ202201003-2765","latitude":"32.848611","longitude":"130.058333","source_code":"QS20058945600200160005","project_name":"","survey_name":"\u798f\u7530\u5ddd\u5730\u533a\u59161\u7b87\u6240\u5824\u9632\u70b9\u691c\u5730\u8cea\u8abf\u67fb\u696d\u52d9","client_name":"\u9577\u5d0e\u6cb3\u5ddd\u56fd\u9053\u4e8b\u52d9\u6240","boring_xml_url":72,"boring_view_url":1,"soilmap_view_url":null,"soiltest_xml_url":0,"soiltest_view_url":0},{"id":530228,"code":"B4KJ202201003-2764","latitude":"32.848611","longitude":"130.058611","source_code":"QS20058945600200160004","project_name":"","survey_name":"\u798f\u7530\u5ddd\u5730\u533a\u59161\u7b87\u6240\u5824\u9632\u70b9\u691c\u5730\u8cea\u8abf\u67fb\u696d\u52d9","client_name":"\u9577\u5d0e\u6cb3\u5ddd\u56fd\u9053\u5de5\u4e8b\u4e8b\u52d9\u6240","boring_xml_url":72,"boring_view_url":1,"soilmap_view_url":null,"soiltest_xml_url":0,"soiltest_view_url":0},{"id":530227,"code":"B4KJ202201003-2763","latitude":"32.848889","longitude":"130.058611","source_code":"QS20058945600200160003","project_name":"","survey_name":"\u798f\u7530\u5ddd\u5730\u533a\u59161\u7b87\u6240\u5824\u9632\u70b9\u691c\u5730\u8cea\u8abf\u67fb\u696d\u52d9","client_name":"\u9577\u5d0e\u6cb3\u5ddd\u56fd\u9053\u4e8b\u52d9\u6240","boring_xml_url":72,"boring_view_url":1,"soilmap_view_url":null,"soiltest_xml_url":0,"soiltest_view_url":0},{"id":530226,"code":"B4KJ202201003-2762","latitude":"32.847778","longitude":"130.0625","source_code":"QS20058945600200160002","project_name":"","survey_name":"\u798f\u7530\u5ddd\u5730\u533a\u59161\u7b87\u6240\u5824\u9632\u70b9\u691c\u5730\u8cea\u8abf\u67fb\u696d\u52d9","client_name":"\u9577\u5d0e\u6cb3\u5ddd\u56fd\u9053\u4e8b\u52d9\u6240","boring_xml_url":72,"boring_view_url":1,"soilmap_view_url":null,"soiltest_xml_url":0,"soiltest_view_url":0},{"id":530225,"code":"B4KJ202201003-2761","latitude":"32.847778","longitude":"130.062222","source_code":"QS20058945600200160001","project_name":"","survey_name":"\u798f\u7530\u5ddd\u5730\u533a\u59161\u7b87\u6240\u5824\u9632\u70b9\u691c\u5730\u8cea\u8abf\u67fb\u696d\u52d9","client_name":"\u9577\u5d0e\u6cb3\u5ddd\u56fd\u9053\u4e8b\u52d9\u6240","boring_xml_url":72,"boring_view_url":1,"soilmap_view_url":null,"soiltest_xml_url":0,"soiltest_view_url":0},{"id":530224,"code":"B4KJ202201003-2760","latitude":"31.825278","longitude":"130.255889","source_code":"QS20068970500200020002","project_name":"\u5e73\u621018\u5e74\u5ea6\u3000\u9ad8\u6c5f\u5730\u533a\u74b0\u5883\u6574\u5099\u6e2c\u91cf\u8a2d\u8a08\u305d\u306e\u4ed6\u696d\u52d9","survey_name":"\u5e73\u621018\u5e74\u5ea6\u3000\u9ad8\u6c5f\u5730\u533a\u74b0\u5883\u6574\u5099\u6e2c\u91cf\u8a2d\u8a08\u305d\u306e\u4ed6\u696d\u52d9","client_name":"\u56fd\u571f\u4ea4\u901a\u7701\u3000\u4e5d\u5dde\u5730\u65b9\u6574\u5099\u5c40\u3000\u5ddd\u5185\u5ddd\u6cb3\u5ddd\u4e8b\u52d9\u6240","boring_xml_url":72,"boring_view_url":1,"soilmap_view_url":null,"soiltest_xml_url":0,"soiltest_view_url":0},{"id":530223,"code":"B4KJ202201003-2759","latitude":"31.824167","longitude":"130.256","source_code":"QS20068970500200020001","project_name":"\u5e73\u621018\u5e74\u5ea6\u3000\u9ad8\u6c5f\u5730\u533a\u74b0\u5883\u6574\u5099\u6e2c\u91cf\u8a2d\u8a08\u305d\u306e\u4ed6\u696d\u52d9","survey_name":"\u5e73\u621018\u5e74\u5ea6\u3000\u9ad8\u6c5f\u5730\u533a\u74b0\u5883\u6574\u5099\u6e2c\u91cf\u8a2d\u8a08\u305d\u306e\u4ed6\u696d\u52d9","client_name":"\u56fd\u571f\u4ea4\u901a\u7701\u3000\u4e5d\u5dde\u5730\u65b9\u6574\u5099\u5c40\u3000\u5ddd\u5185\u5ddd\u6cb3\u5ddd\u4e8b\u52d9\u6240","boring_xml_url":72,"boring_view_url":1,"soilmap_view_url":null,"soiltest_xml_url":0,"soiltest_view_url":0},{"id":530222,"code":"B4KJ202201003-2758","latitude":"33.224776","longitude":"130.274029","source_code":"QS20048938600200270004","project_name":"\u4f50\u8cc0\u4f4e\u5e73\u5730\u306b\u304a\u3051\u308b\u9053\u8def\u306e\u8abf\u67fb\u30fb\u8a2d\u8a08\u30fb\u65bd\u5de5\u691c\u8a0e\u696d\u52d9","survey_name":"\u4f50\u8cc0\u4f4e\u5e73\u5730\u306b\u304a\u3051\u308b\u9053\u8def\u306e\u8abf\u67fb\u30fb\u8a2d\u8a08\u30fb\u65bd\u5de5\u691c\u8a0e\u696d\u52d9","client_name":"\"\u56fd\u571f\u4ea4\u901a\u7701 \u4e5d\u5dde\u5730\u65b9\u6574\u5099\u5c40 \u4f50\u8cc0\u56fd\u9053\u4e8b\u52d9\u6240 \u8abf\u67fb\u8ab2\"","boring_xml_url":72,"boring_view_url":1,"soilmap_view_url":null,"soiltest_xml_url":0,"soiltest_view_url":0},{"id":530221,"code":"B4KJ202201003-2757","latitude":"33.2183","longitude":"130.298723","source_code":"QS20048938600200270003","project_name":"\u4f50\u8cc0\u4f4e\u5e73\u5730\u306b\u304a\u3051\u308b\u9053\u8def\u306e\u8abf\u67fb\u30fb\u8a2d\u8a08\u30fb\u65bd\u5de5\u691c\u8a0e\u696d\u52d9","survey_name":"\u4f50\u8cc0\u4f4e\u5e73\u5730\u306b\u304a\u3051\u308b\u9053\u8def\u306e\u8abf\u67fb\u30fb\u8a2d\u8a08\u30fb\u65bd\u5de5\u691c\u8a0e\u696d\u52d9","client_name":"\"\u56fd\u571f\u4ea4\u901a\u7701 \u4e5d\u5dde\u5730\u65b9\u6574\u5099\u5c40 \u4f50\u8cc0\u56fd\u9053\u4e8b\u52d9\u6240 \u8abf\u67fb\u8ab2\"","boring_xml_url":72,"boring_view_url":1,"soilmap_view_url":null,"soiltest_xml_url":0,"soiltest_view_url":0},{"id":530220,"code":"B4KJ202201003-2756","latitude":"33.214015","longitude":"130.322507","source_code":"QS20048938600200270002","project_name":"\u4f50\u8cc0\u4f4e\u5e73\u5730\u306b\u304a\u3051\u308b\u9053\u8def\u306e\u8abf\u67fb\u30fb\u8a2d\u8a08\u30fb\u65bd\u5de5\u691c\u8a0e\u696d\u52d9","survey_name":"\u4f50\u8cc0\u4f4e\u5e73\u5730\u306b\u304a\u3051\u308b\u9053\u8def\u306e\u8abf\u67fb\u30fb\u8a2d\u8a08\u30fb\u65bd\u5de5\u691c\u8a0e\u696d\u52d9","client_name":"\"\u56fd\u571f\u4ea4\u901a\u7701 \u4e5d\u5dde\u5730\u65b9\u6574\u5099\u5c40 \u4f50\u8cc0\u56fd\u9053\u4e8b\u52d9\u6240 \u8abf\u67fb\u8ab2\"","boring_xml_url":72,"boring_view_url":1,"soilmap_view_url":null,"soiltest_xml_url":0,"soiltest_view_url":0},{"id":530219,"code":"B4KJ202201003-2755","latitude":"33.211085","longitude":"130.341714","source_code":"QS20048938600200270001","project_name":"\u4f50\u8cc0\u4f4e\u5e73\u5730\u306b\u304a\u3051\u308b\u9053\u8def\u306e\u8abf\u67fb\u30fb\u8a2d\u8a08\u30fb\u65bd\u5de5\u691c\u8a0e\u696d\u52d9","survey_name":"\u4f50\u8cc0\u4f4e\u5e73\u5730\u306b\u304a\u3051\u308b\u9053\u8def\u306e\u8abf\u67fb\u30fb\u8a2d\u8a08\u30fb\u65bd\u5de5\u691c\u8a0e\u696d\u52d9","client_name":"\"\u56fd\u571f\u4ea4\u901a\u7701 \u4e5d\u5dde\u5730\u65b9\u6574\u5099\u5c40 \u4f50\u8cc0\u56fd\u9053\u4e8b\u52d9\u6240 \u8abf\u67fb\u8ab2\"","boring_xml_url":72,"boring_view_url":1,"soilmap_view_url":null,"soiltest_xml_url":0,"soiltest_view_url":0},{"id":530218,"code":"B4KJ202201003-2754","latitude":"33.278077","longitude":"130.454121","source_code":"QS20078930500200050002","project_name":"","survey_name":"\u6962\u6d25\u6a0b\u7ba1\u5916\u6539\u826f\u691c\u8a0e\u8a2d\u8a08\u696d\u52d9","client_name":"\u56fd\u571f\u4ea4\u901a\u7701\u3000\u7b51\u5f8c\u5ddd\u6cb3\u5ddd\u4e8b\u52d9\u6240\u3000\u7ba1\u7406\u8ab2\u7dad\u6301\u4fc2","boring_xml_url":72,"boring_view_url":1,"soilmap_view_url":null,"soiltest_xml_url":0,"soiltest_view_url":0},{"id":530217,"code":"B4KJ202201003-2753","latitude":"33.253596","longitude":"130.418093","source_code":"QS20078930500200050001","project_name":"","survey_name":"\u6962\u6d25\u6a0b\u7ba1\u5916\u6539\u826f\u691c\u8a0e\u8a2d\u8a08\u696d\u52d9","client_name":"\u56fd\u571f\u4ea4\u901a\u7701\u3000\u7b51\u5f8c\u5ddd\u6cb3\u5ddd\u4e8b\u52d9\u6240\u3000\u7ba1\u7406\u8ab2\u7dad\u6301\u4fc2","boring_xml_url":72,"boring_view_url":1,"soilmap_view_url":null,"soiltest_xml_url":0,"soiltest_view_url":0},{"id":530216,"code":"B4KJ202201003-2752","latitude":"31.94975","longitude":"130.706306","source_code":"QS20048970500200040002","project_name":"\u6751\u5185\u6a0b\u9580\u59161\u7b87\u6240\u5730\u8cea\u8abf\u67fb\u696d\u52d9","survey_name":"\u6751\u5185\u6a0b\u9580\u59161\u7b87\u6240\u5730\u8cea\u8abf\u67fb\u696d\u52d9","client_name":"\u4e5d\u5dde\u5730\u65b9\u6574\u5099\u5c40\u3000\u5ddd\u5185\u5ddd\u6cb3\u5ddd\u4e8b\u52d9\u6240","boring_xml_url":72,"boring_view_url":1,"soilmap_view_url":null,"soiltest_xml_url":0,"soiltest_view_url":0},{"id":530215,"code":"B4KJ202201003-2751","latitude":"31.969056","longitude":"130.697389","source_code":"QS20048970500200040001","project_name":"\u6751\u5185\u6a0b\u9580\u59161\u7b87\u6240\u5730\u8cea\u8abf\u67fb\u696d\u52d9","survey_name":"\u6751\u5185\u6a0b\u9580\u59161\u7b87\u6240\u5730\u8cea\u8abf\u67fb\u696d\u52d9","client_name":"\u4e5d\u5dde\u5730\u65b9\u6574\u5099\u5c40\u3000\u5ddd\u5185\u5ddd\u6cb3\u5ddd\u4e8b\u52d9\u6240","boring_xml_url":72,"boring_view_url":1,"soilmap_view_url":null,"soiltest_xml_url":0,"soiltest_view_url":0},{"id":530214,"code":"B4KJ202201003-2750","latitude":"32.05117","longitude":"130.766716","source_code":"QS20048970500200030003","project_name":"\u76f4\u8f44\u6cb3\u5ddd\u6a0b\u7ba1\u6539\u5584\u5b9f\u65bd\u8a2d\u8a08\u696d\u52d9","survey_name":"\u5ca1\u677e\u7b2c\u4e8c\u6a0b\u9580\u59162\u7b87\u6240\u5730\u8cea\u8abf\u67fb\u696d\u52d9","client_name":"\u56fd\u571f\u4ea4\u901a\u7701\u3000\u4e5d\u5dde\u5730\u65b9\u6574\u5099\u5c40\u3000\u5ddd\u5185\u5ddd\u6cb3\u5ddd\u4e8b\u52d9\u6240","boring_xml_url":72,"boring_view_url":1,"soilmap_view_url":null,"soiltest_xml_url":0,"soiltest_view_url":0},{"id":530213,"code":"B4KJ202201003-2749","latitude":"32.047364","longitude":"130.759967","source_code":"QS20048970500200030002","project_name":"\u76f4\u8f44\u6cb3\u5ddd\u6a0b\u7ba1\u6539\u5584\u5b9f\u65bd\u8a2d\u8a08\u696d\u52d9","survey_name":"\u5ca1\u677e\u7b2c\u4e8c\u6a0b\u9580\u59162\u7b87\u6240\u5730\u8cea\u8abf\u67fb\u696d\u52d9","client_name":"\u56fd\u571f\u4ea4\u901a\u7701\u3000\u4e5d\u5dde\u5730\u65b9\u6574\u5099\u5c40\u3000\u5ddd\u5185\u5ddd\u6cb3\u5ddd\u4e8b\u52d9\u6240","boring_xml_url":72,"boring_view_url":1,"soilmap_view_url":null,"soiltest_xml_url":0,"soiltest_view_url":0},{"id":530212,"code":"B4KJ202201003-2748","latitude":"32.040448","longitude":"130.752829","source_code":"QS20048970500200030001","project_name":"\u76f4\u8f44\u6cb3\u5ddd\u6a0b\u7ba1\u6539\u5584\u5b9f\u65bd\u8a2d\u8a08\u696d\u52d9","survey_name":"\u5ca1\u677e\u7b2c\u4e8c\u6a0b\u9580\u59162\u7b87\u6240\u5730\u8cea\u8abf\u67fb\u696d\u52d9","client_name":"\u56fd\u571f\u4ea4\u901a\u7701\u3000\u4e5d\u5dde\u5730\u65b9\u6574\u5099\u5c40\u3000\u5ddd\u5185\u5ddd\u6cb3\u5ddd\u4e8b\u52d9\u6240","boring_xml_url":72,"boring_view_url":1,"soilmap_view_url":null,"soiltest_xml_url":0,"soiltest_view_url":0},{"id":530211,"code":"B4KJ202201003-2747","latitude":"33.197581","longitude":"131.677989","source_code":"QS20048960520200010001","project_name":"","survey_name":"\u8c37\u5ddd\u6a0b\u7ba1\u64cd\u4f5c\u53f0\u6539\u826f\u8a73\u7d30\u8a2d\u8a08\u305d\u306e\u4ed6\u696d\u52d9","client_name":"\u56fd\u571f\u4ea4\u901a\u7701\u4e5d\u5dde\u5730\u65b9\u6574\u5099\u5c40\u5927\u5206\u6cb3\u5ddd\u56fd\u9053\u4e8b\u52d9\u6240","boring_xml_url":72,"boring_view_url":1,"soilmap_view_url":null,"soiltest_xml_url":0,"soiltest_view_url":0},{"id":530210,"code":"B4KJ202201003-2746","latitude":"32.306188","longitude":"130.512087","source_code":"QS20048951410200110003","project_name":"\u82b1\u5ca1\u30c8\u30f3\u30cd\u30eb\uff08\u4e0aNo.795+7.5\u3000L-10.0m\uff09","survey_name":"\u4f50\u6577\u5730\u533a\u5730\u8cea\u8abf\u67fb\u696d\u52d9","client_name":"\"\u56fd\u571f\u4ea4\u901a\u7701 \u4e5d\u5dde\u5730\u65b9\u6574\u5099\u5c40 \u516b\u4ee3\u6cb3\u5ddd\u56fd\u9053\u4e8b\u52d9\u6240 \u5de5\u52d9\u7b2c\u4e8c\u8ab2\"","boring_xml_url":72,"boring_view_url":1,"soilmap_view_url":null,"soiltest_xml_url":0,"soiltest_view_url":0},{"id":530209,"code":"B4KJ202201003-2745","latitude":"32.310694","longitude":"130.512698","source_code":"QS20048951410200110002","project_name":"\"\u4e59\u5343\u5c4b\u30c8\u30f3\u30cd\u30eb\uff08\u4e0aNo.762+3.0 CL\uff09\"","survey_name":"\u4f50\u6577\u5730\u533a\u5730\u8cea\u8abf\u67fb\u696d\u52d9","client_name":"\u56fd\u571f\u4ea4\u901a\u7701\u3000\u4e5d\u5dde\u5730\u65b9\u6574\u5099\u5c40\u3000\u516b\u4ee3\u6cb3\u5ddd\u56fd\u9053\u4e8b\u52d9\u6240\u3000\u5de5\u52d9\u7b2c\u4e8c\u8ab2","boring_xml_url":72,"boring_view_url":1,"soilmap_view_url":null,"soiltest_xml_url":0,"soiltest_view_url":0}]}}