{"header":{"xyz":{"source":[],"mosaic":false},"page":5069,"raw":{"soiltest_result":"0","bbox":"57.598333,109.544722,1.933333,163.806111","page":"5069"},"conditions":{"soiltest_result":0,"north":57.598333,"west":109.544722,"south":1.933333,"east":163.806111},"success":true,"message":""},"data":{"meta":{"total":212844,"page":5069,"pages":7095,"count":30},"values":[{"id":168505,"code":"B4KJ201801005-6754","latitude":"34.9386969","longitude":"138.3095664","source_code":"CB52383225028","project_name":"","survey_name":"\u5e73\u62108\u5e74\u5ea61\u53f7\u5ca1\u90e8\u5730\u533a\u59161\u4ef6\u5730\u8cea\u8abf\u67fb","client_name":"\u56fd\u571f\u4ea4\u901a\u7701\u4e2d\u90e8\u5730\u65b9\u6574\u5099\u5c40\u9759\u5ca1\u56fd\u9053\u4e8b\u52d9\u6240","boring_xml_url":40,"boring_view_url":1,"soilmap_view_url":null,"soiltest_xml_url":0,"soiltest_view_url":0},{"id":168504,"code":"B4KJ201801005-6753","latitude":"34.9384747","longitude":"138.3095664","source_code":"CB52383225026","project_name":"","survey_name":"\u5e73\u62108\u5e74\u5ea61\u53f7\u5ca1\u90e8\u5730\u533a\u59161\u4ef6\u5730\u8cea\u8abf\u67fb","client_name":"\u56fd\u571f\u4ea4\u901a\u7701\u4e2d\u90e8\u5730\u65b9\u6574\u5099\u5c40\u9759\u5ca1\u56fd\u9053\u4e8b\u52d9\u6240","boring_xml_url":40,"boring_view_url":1,"soilmap_view_url":null,"soiltest_xml_url":0,"soiltest_view_url":0},{"id":168503,"code":"B4KJ201801005-6752","latitude":"34.9382525","longitude":"138.3095664","source_code":"CB52383225024","project_name":"","survey_name":"\u5e73\u62108\u5e74\u5ea61\u53f7\u5ca1\u90e8\u5730\u533a\u59161\u4ef6\u5730\u8cea\u8abf\u67fb","client_name":"\u56fd\u571f\u4ea4\u901a\u7701\u4e2d\u90e8\u5730\u65b9\u6574\u5099\u5c40\u9759\u5ca1\u56fd\u9053\u4e8b\u52d9\u6240","boring_xml_url":40,"boring_view_url":1,"soilmap_view_url":null,"soiltest_xml_url":0,"soiltest_view_url":0},{"id":168502,"code":"B4KJ201801005-6751","latitude":"34.9385581","longitude":"138.3102608","source_code":"CB52383225011","project_name":"","survey_name":"1\u53f7\u5ca1\u90e8\u30d0\u30a4\u30d1\u30b9\u4e38\u5b50\u5730\u533a\u5730\u8cea\u8abf\u67fb","client_name":"\u56fd\u571f\u4ea4\u901a\u7701\u4e2d\u90e8\u5730\u65b9\u6574\u5099\u5c40\u9759\u5ca1\u56fd\u9053\u4e8b\u52d9\u6240","boring_xml_url":40,"boring_view_url":1,"soilmap_view_url":null,"soiltest_xml_url":0,"soiltest_view_url":0},{"id":168501,"code":"B4KJ201801005-6750","latitude":"34.9382803","longitude":"138.3102608","source_code":"CB52383225010","project_name":"","survey_name":"1\u53f7\u5ca1\u90e8\u30d0\u30a4\u30d1\u30b9\u4e38\u5b50\u5730\u533a\u5730\u8cea\u8abf\u67fb","client_name":"\u56fd\u571f\u4ea4\u901a\u7701\u4e2d\u90e8\u5730\u65b9\u6574\u5099\u5c40\u9759\u5ca1\u56fd\u9053\u4e8b\u52d9\u6240","boring_xml_url":40,"boring_view_url":1,"soilmap_view_url":null,"soiltest_xml_url":0,"soiltest_view_url":0},{"id":168500,"code":"B4KJ201801005-6749","latitude":"34.9385581","longitude":"138.3124828","source_code":"CB52383225009","project_name":"","survey_name":"1\u53f7\u5ca1\u90e8\u30d0\u30a4\u30d1\u30b9\u4e38\u5b50\u5730\u533a\u5730\u8cea\u8abf\u67fb","client_name":"\u56fd\u571f\u4ea4\u901a\u7701\u4e2d\u90e8\u5730\u65b9\u6574\u5099\u5c40\u9759\u5ca1\u56fd\u9053\u4e8b\u52d9\u6240","boring_xml_url":40,"boring_view_url":1,"soilmap_view_url":null,"soiltest_xml_url":0,"soiltest_view_url":0},{"id":168499,"code":"B4KJ201801005-6748","latitude":"34.9388358","longitude":"138.3124828","source_code":"CB52383225008","project_name":"","survey_name":"1\u53f7\u5ca1\u90e8\u30d0\u30a4\u30d1\u30b9\u4e38\u5b50\u5730\u533a\u5730\u8cea\u8abf\u67fb","client_name":"\u56fd\u571f\u4ea4\u901a\u7701\u4e2d\u90e8\u5730\u65b9\u6574\u5099\u5c40\u9759\u5ca1\u56fd\u9053\u4e8b\u52d9\u6240","boring_xml_url":40,"boring_view_url":1,"soilmap_view_url":null,"soiltest_xml_url":0,"soiltest_view_url":0},{"id":168498,"code":"B4KJ201801005-6747","latitude":"34.9391136","longitude":"138.3130383","source_code":"CB52383225007","project_name":"","survey_name":"1\u53f7\u5ca1\u90e8\u30d0\u30a4\u30d1\u30b9\u4e38\u5b50\u5730\u533a\u5730\u8cea\u8abf\u67fb","client_name":"\u56fd\u571f\u4ea4\u901a\u7701\u4e2d\u90e8\u5730\u65b9\u6574\u5099\u5c40\u9759\u5ca1\u56fd\u9053\u4e8b\u52d9\u6240","boring_xml_url":40,"boring_view_url":1,"soilmap_view_url":null,"soiltest_xml_url":0,"soiltest_view_url":0},{"id":168497,"code":"B4KJ201801005-6746","latitude":"34.9405025","longitude":"138.3197044","source_code":"CB52383225006","project_name":"","survey_name":"1\u53f7\u5ca1\u90e8\u30d0\u30a4\u30d1\u30b9\u4e38\u5b50\u5730\u533a\u5730\u8cea\u8abf\u67fb","client_name":"\u56fd\u571f\u4ea4\u901a\u7701\u4e2d\u90e8\u5730\u65b9\u6574\u5099\u5c40\u9759\u5ca1\u56fd\u9053\u4e8b\u52d9\u6240","boring_xml_url":40,"boring_view_url":1,"soilmap_view_url":null,"soiltest_xml_url":0,"soiltest_view_url":0},{"id":168496,"code":"B4KJ201801005-6745","latitude":"34.9402247","longitude":"138.3197044","source_code":"CB52383225005","project_name":"","survey_name":"1\u53f7\u5ca1\u90e8\u30d0\u30a4\u30d1\u30b9\u4e38\u5b50\u5730\u533a\u5730\u8cea\u8abf\u67fb","client_name":"\u56fd\u571f\u4ea4\u901a\u7701\u4e2d\u90e8\u5730\u65b9\u6574\u5099\u5c40\u9759\u5ca1\u56fd\u9053\u4e8b\u52d9\u6240","boring_xml_url":40,"boring_view_url":1,"soilmap_view_url":null,"soiltest_xml_url":0,"soiltest_view_url":0},{"id":168495,"code":"B4KJ201801005-6744","latitude":"34.9375306","longitude":"138.3095108","source_code":"CB52383225001","project_name":"","survey_name":"\u5e73\u62104\u5e74\u5ea61\u53f7\u5ca1\u90e8\u5b87\u6d25\u30ce\u8c37\u5730\u533a\u5730\u8cea\u8abf\u67fb","client_name":"\u56fd\u571f\u4ea4\u901a\u7701\u4e2d\u90e8\u5730\u65b9\u6574\u5099\u5c40\u9759\u5ca1\u56fd\u9053\u4e8b\u52d9\u6240","boring_xml_url":40,"boring_view_url":1,"soilmap_view_url":null,"soiltest_xml_url":0,"soiltest_view_url":0},{"id":168494,"code":"B4KJ201801005-6743","latitude":"34.9375306","longitude":"138.3091775","source_code":"CB52383224004","project_name":"","survey_name":"\u5e73\u62104\u5e74\u5ea61\u53f7\u5ca1\u90e8\u5b87\u6d25\u30ce\u8c37\u5730\u533a\u5730\u8cea\u8abf\u67fb","client_name":"\u56fd\u571f\u4ea4\u901a\u7701\u4e2d\u90e8\u5730\u65b9\u6574\u5099\u5c40\u9759\u5ca1\u56fd\u9053\u4e8b\u52d9\u6240","boring_xml_url":40,"boring_view_url":1,"soilmap_view_url":null,"soiltest_xml_url":0,"soiltest_view_url":0},{"id":168493,"code":"B4KJ201801005-6742","latitude":"34.936836","longitude":"138.306817","source_code":"CB52383224003","project_name":"","survey_name":"\u5e73\u62103\u5e74\u5ea61\u53f7\u5b87\u6d25\u30ce\u8c37\u5730\u533a\u59161\u4ef6\u5730\u8cea\u8abf\u67fb","client_name":"\u56fd\u571f\u4ea4\u901a\u7701\u4e2d\u90e8\u5730\u65b9\u6574\u5099\u5c40\u9759\u5ca1\u56fd\u9053\u4e8b\u52d9\u6240","boring_xml_url":40,"boring_view_url":1,"soilmap_view_url":null,"soiltest_xml_url":0,"soiltest_view_url":0},{"id":168492,"code":"B4KJ201801005-6741","latitude":"34.937031","longitude":"138.307039","source_code":"CB52383224002","project_name":"","survey_name":"\u5e73\u62103\u5e74\u5ea61\u53f7\u5b87\u6d25\u30ce\u8c37\u5730\u533a\u59161\u4ef6\u5730\u8cea\u8abf\u67fb","client_name":"\u56fd\u571f\u4ea4\u901a\u7701\u4e2d\u90e8\u5730\u65b9\u6574\u5099\u5c40\u9759\u5ca1\u56fd\u9053\u4e8b\u52d9\u6240","boring_xml_url":40,"boring_view_url":1,"soilmap_view_url":null,"soiltest_xml_url":0,"soiltest_view_url":0},{"id":168491,"code":"B4KJ201801005-6740","latitude":"34.936836","longitude":"138.307206","source_code":"CB52383224001","project_name":"","survey_name":"\u5e73\u62103\u5e74\u5ea61\u53f7\u5b87\u6d25\u30ce\u8c37\u5730\u533a\u59161\u4ef6\u5730\u8cea\u8abf\u67fb","client_name":"\u56fd\u571f\u4ea4\u901a\u7701\u4e2d\u90e8\u5730\u65b9\u6574\u5099\u5c40\u9759\u5ca1\u56fd\u9053\u4e8b\u52d9\u6240","boring_xml_url":40,"boring_view_url":1,"soilmap_view_url":null,"soiltest_xml_url":0,"soiltest_view_url":0},{"id":168490,"code":"B4KJ201801005-6739","latitude":"34.936614","longitude":"138.308178","source_code":"CB52383214001","project_name":"","survey_name":"\u5e73\u62103\u5e74\u5ea61\u53f7\u5b87\u6d25\u30ce\u8c37\u5730\u533a\u59161\u4ef6\u5730\u8cea\u8abf\u67fb","client_name":"\u56fd\u571f\u4ea4\u901a\u7701\u4e2d\u90e8\u5730\u65b9\u6574\u5099\u5c40\u9759\u5ca1\u56fd\u9053\u4e8b\u52d9\u6240","boring_xml_url":40,"boring_view_url":1,"soilmap_view_url":null,"soiltest_xml_url":0,"soiltest_view_url":0},{"id":168489,"code":"B4KJ201801005-6738","latitude":"34.9213097","longitude":"138.2915964","source_code":"CB52383203029","project_name":"","survey_name":"\u5e73\u62108\u5e74\u5ea61\u53f7\u5ca1\u90e8\u5730\u533a\u59161\u4ef6\u5730\u8cea\u8abf\u67fb","client_name":"\u56fd\u571f\u4ea4\u901a\u7701\u4e2d\u90e8\u5730\u65b9\u6574\u5099\u5c40\u9759\u5ca1\u56fd\u9053\u4e8b\u52d9\u6240","boring_xml_url":40,"boring_view_url":1,"soilmap_view_url":null,"soiltest_xml_url":0,"soiltest_view_url":0},{"id":168488,"code":"B4KJ201801005-6737","latitude":"34.9213097","longitude":"138.2915964","source_code":"CB52383203028","project_name":"","survey_name":"\u5e73\u62108\u5e74\u5ea61\u53f7\u5ca1\u90e8\u5730\u533a\u59161\u4ef6\u5730\u8cea\u8abf\u67fb","client_name":"\u56fd\u571f\u4ea4\u901a\u7701\u4e2d\u90e8\u5730\u65b9\u6574\u5099\u5c40\u9759\u5ca1\u56fd\u9053\u4e8b\u52d9\u6240","boring_xml_url":40,"boring_view_url":1,"soilmap_view_url":null,"soiltest_xml_url":0,"soiltest_view_url":0},{"id":168487,"code":"B4KJ201801005-6736","latitude":"34.9220872","longitude":"138.2918464","source_code":"CB52383203027","project_name":"","survey_name":"\u5e73\u62108\u5e74\u5ea61\u53f7\u5ca1\u90e8\u5730\u533a\u59161\u4ef6\u5730\u8cea\u8abf\u67fb","client_name":"\u56fd\u571f\u4ea4\u901a\u7701\u4e2d\u90e8\u5730\u65b9\u6574\u5099\u5c40\u9759\u5ca1\u56fd\u9053\u4e8b\u52d9\u6240","boring_xml_url":40,"boring_view_url":1,"soilmap_view_url":null,"soiltest_xml_url":0,"soiltest_view_url":0},{"id":168486,"code":"B4KJ201801005-6735","latitude":"34.9223094","longitude":"138.2925408","source_code":"CB52383203026","project_name":"","survey_name":"\u5e73\u62108\u5e74\u5ea61\u53f7\u5ca1\u90e8\u5730\u533a\u59161\u4ef6\u5730\u8cea\u8abf\u67fb","client_name":"\u56fd\u571f\u4ea4\u901a\u7701\u4e2d\u90e8\u5730\u65b9\u6574\u5099\u5c40\u9759\u5ca1\u56fd\u9053\u4e8b\u52d9\u6240","boring_xml_url":40,"boring_view_url":1,"soilmap_view_url":null,"soiltest_xml_url":0,"soiltest_view_url":0},{"id":168485,"code":"B4KJ201801005-6734","latitude":"34.9225317","longitude":"138.2930961","source_code":"CB52383203025","project_name":"","survey_name":"\u5e73\u62108\u5e74\u5ea61\u53f7\u5ca1\u90e8\u5730\u533a\u59161\u4ef6\u5730\u8cea\u8abf\u67fb","client_name":"\u56fd\u571f\u4ea4\u901a\u7701\u4e2d\u90e8\u5730\u65b9\u6574\u5099\u5c40\u9759\u5ca1\u56fd\u9053\u4e8b\u52d9\u6240","boring_xml_url":40,"boring_view_url":1,"soilmap_view_url":null,"soiltest_xml_url":0,"soiltest_view_url":0},{"id":168484,"code":"B4KJ201801005-6733","latitude":"34.9227817","longitude":"138.2937628","source_code":"CB52383203024","project_name":"","survey_name":"\u5e73\u62108\u5e74\u5ea61\u53f7\u5ca1\u90e8\u5730\u533a\u59161\u4ef6\u5730\u8cea\u8abf\u67fb","client_name":"\u56fd\u571f\u4ea4\u901a\u7701\u4e2d\u90e8\u5730\u65b9\u6574\u5099\u5c40\u9759\u5ca1\u56fd\u9053\u4e8b\u52d9\u6240","boring_xml_url":40,"boring_view_url":1,"soilmap_view_url":null,"soiltest_xml_url":0,"soiltest_view_url":0},{"id":168483,"code":"B4KJ201801005-6732","latitude":"34.9203931","longitude":"138.2910408","source_code":"CB52383203023","project_name":"","survey_name":"\u5e73\u62108\u5e74\u5ea61\u53f7\u5ca1\u90e8\u5730\u533a\u59161\u4ef6\u5730\u8cea\u8abf\u67fb","client_name":"\u56fd\u571f\u4ea4\u901a\u7701\u4e2d\u90e8\u5730\u65b9\u6574\u5099\u5c40\u9759\u5ca1\u56fd\u9053\u4e8b\u52d9\u6240","boring_xml_url":40,"boring_view_url":1,"soilmap_view_url":null,"soiltest_xml_url":0,"soiltest_view_url":0},{"id":168482,"code":"B4KJ201801005-6731","latitude":"34.9203931","longitude":"138.2910408","source_code":"CB52383203022","project_name":"","survey_name":"\u5e73\u62108\u5e74\u5ea61\u53f7\u5ca1\u90e8\u5730\u533a\u59161\u4ef6\u5730\u8cea\u8abf\u67fb","client_name":"\u56fd\u571f\u4ea4\u901a\u7701\u4e2d\u90e8\u5730\u65b9\u6574\u5099\u5c40\u9759\u5ca1\u56fd\u9053\u4e8b\u52d9\u6240","boring_xml_url":40,"boring_view_url":1,"soilmap_view_url":null,"soiltest_xml_url":0,"soiltest_view_url":0},{"id":168481,"code":"B4KJ201801005-6730","latitude":"34.9213097","longitude":"138.2915964","source_code":"CB52383203021","project_name":"","survey_name":"\u5e73\u62108\u5e74\u5ea61\u53f7\u5ca1\u90e8\u5730\u533a\u59161\u4ef6\u5730\u8cea\u8abf\u67fb","client_name":"\u56fd\u571f\u4ea4\u901a\u7701\u4e2d\u90e8\u5730\u65b9\u6574\u5099\u5c40\u9759\u5ca1\u56fd\u9053\u4e8b\u52d9\u6240","boring_xml_url":40,"boring_view_url":1,"soilmap_view_url":null,"soiltest_xml_url":0,"soiltest_view_url":0},{"id":168480,"code":"B4KJ201801005-6729","latitude":"34.9213097","longitude":"138.2915964","source_code":"CB52383203020","project_name":"","survey_name":"\u5e73\u62108\u5e74\u5ea61\u53f7\u5ca1\u90e8\u5730\u533a\u59161\u4ef6\u5730\u8cea\u8abf\u67fb","client_name":"\u56fd\u571f\u4ea4\u901a\u7701\u4e2d\u90e8\u5730\u65b9\u6574\u5099\u5c40\u9759\u5ca1\u56fd\u9053\u4e8b\u52d9\u6240","boring_xml_url":40,"boring_view_url":1,"soilmap_view_url":null,"soiltest_xml_url":0,"soiltest_view_url":0},{"id":168479,"code":"B4KJ201801005-6728","latitude":"34.9225317","longitude":"138.2917353","source_code":"CB52383203019","project_name":"","survey_name":"\u5e73\u62108\u5e74\u5ea61\u53f7\u5ca1\u90e8\u5730\u533a\u59161\u4ef6\u5730\u8cea\u8abf\u67fb","client_name":"\u56fd\u571f\u4ea4\u901a\u7701\u4e2d\u90e8\u5730\u65b9\u6574\u5099\u5c40\u9759\u5ca1\u56fd\u9053\u4e8b\u52d9\u6240","boring_xml_url":40,"boring_view_url":1,"soilmap_view_url":null,"soiltest_xml_url":0,"soiltest_view_url":0},{"id":168478,"code":"B4KJ201801005-6727","latitude":"34.9230039","longitude":"138.2925406","source_code":"CB52383203018","project_name":"","survey_name":"\u5e73\u62108\u5e74\u5ea61\u53f7\u5ca1\u90e8\u5730\u533a\u59161\u4ef6\u5730\u8cea\u8abf\u67fb","client_name":"\u56fd\u571f\u4ea4\u901a\u7701 \u4e2d\u90e8\u5730\u65b9\u6574\u5099\u5c40 \u9759\u5ca1\u56fd\u9053\u4e8b\u52d9\u6240","boring_xml_url":40,"boring_view_url":1,"soilmap_view_url":null,"soiltest_xml_url":0,"soiltest_view_url":0},{"id":168477,"code":"B4KJ201801005-6726","latitude":"34.9233372","longitude":"138.293485","source_code":"CB52383203017","project_name":"","survey_name":"\u5e73\u62108\u5e74\u5ea61\u53f7\u5ca1\u90e8\u5730\u533a\u59161\u4ef6\u5730\u8cea\u8abf\u67fb","client_name":"\u56fd\u571f\u4ea4\u901a\u7701\u4e2d\u90e8\u5730\u65b9\u6574\u5099\u5c40\u9759\u5ca1\u56fd\u9053\u4e8b\u52d9\u6240","boring_xml_url":40,"boring_view_url":1,"soilmap_view_url":null,"soiltest_xml_url":0,"soiltest_view_url":0},{"id":168476,"code":"B4KJ201801005-6725","latitude":"34.9235594","longitude":"138.2948461","source_code":"CB52383203016","project_name":"","survey_name":"\u5e73\u62108\u5e74\u5ea61\u53f7\u5ca1\u90e8\u5730\u533a\u59161\u4ef6\u5730\u8cea\u8abf\u67fb","client_name":"\u56fd\u571f\u4ea4\u901a\u7701\u4e2d\u90e8\u5730\u65b9\u6574\u5099\u5c40\u9759\u5ca1\u56fd\u9053\u4e8b\u52d9\u6240","boring_xml_url":40,"boring_view_url":1,"soilmap_view_url":null,"soiltest_xml_url":0,"soiltest_view_url":0}]}}