{"header":{"xyz":{"source":[],"mosaic":false},"page":5081,"raw":{"soiltest_result":"0","bbox":"57.598333,109.544722,1.933333,163.806111","page":"5081"},"conditions":{"soiltest_result":0,"north":57.598333,"west":109.544722,"south":1.933333,"east":163.806111},"success":true,"message":""},"data":{"meta":{"total":212844,"page":5081,"pages":7095,"count":30},"values":[{"id":168145,"code":"B4KJ201801005-6394","latitude":"35.2393478","longitude":"137.9191719","source_code":"CB52376783047","project_name":"","survey_name":"\u5e73\u6210\u5143\u5e74\u5ea6152\u53f7\u8349\u6728\u5730\u8cea\u8abf\u67fb","client_name":"\u56fd\u571f\u4ea4\u901a\u7701\u4e2d\u90e8\u5730\u65b9\u6574\u5099\u5c40\u6d5c\u677e\u6cb3\u5ddd\u56fd\u9053\u4e8b\u52d9\u6240","boring_xml_url":40,"boring_view_url":1,"soilmap_view_url":null,"soiltest_xml_url":0,"soiltest_view_url":0},{"id":168144,"code":"B4KJ201801005-6393","latitude":"35.2387922","longitude":"137.9197275","source_code":"CB52376783046","project_name":"","survey_name":"\u5e73\u6210\u5143\u5e74\u5ea6152\u53f7\u8349\u6728\u5730\u8cea\u8abf\u67fb","client_name":"\u56fd\u571f\u4ea4\u901a\u7701\u4e2d\u90e8\u5730\u65b9\u6574\u5099\u5c40\u6d5c\u677e\u6cb3\u5ddd\u56fd\u9053\u4e8b\u52d9\u6240","boring_xml_url":40,"boring_view_url":1,"soilmap_view_url":null,"soiltest_xml_url":0,"soiltest_view_url":0},{"id":168143,"code":"B4KJ201801005-6392","latitude":"35.2407364","longitude":"137.9157","source_code":"CB52376783045","project_name":"","survey_name":"\u5e73\u6210\u5143\u5e74\u5ea6152\u53f7\u8349\u6728\u5730\u8cea\u8abf\u67fb","client_name":"\u56fd\u571f\u4ea4\u901a\u7701\u4e2d\u90e8\u5730\u65b9\u6574\u5099\u5c40\u6d5c\u677e\u6cb3\u5ddd\u56fd\u9053\u4e8b\u52d9\u6240","boring_xml_url":40,"boring_view_url":1,"soilmap_view_url":null,"soiltest_xml_url":0,"soiltest_view_url":0},{"id":168142,"code":"B4KJ201801005-6391","latitude":"35.2371256","longitude":"137.9175056","source_code":"CB52376783044","project_name":"","survey_name":"\u5e73\u6210\u5143\u5e74\u5ea6152\u53f7\u8349\u6728\u5730\u8cea\u8abf\u67fb","client_name":"\u56fd\u571f\u4ea4\u901a\u7701\u4e2d\u90e8\u5730\u65b9\u6574\u5099\u5c40\u6d5c\u677e\u6cb3\u5ddd\u56fd\u9053\u4e8b\u52d9\u6240","boring_xml_url":40,"boring_view_url":1,"soilmap_view_url":null,"soiltest_xml_url":0,"soiltest_view_url":0},{"id":168141,"code":"B4KJ201801005-6390","latitude":"35.2368481","longitude":"137.9177833","source_code":"CB52376783043","project_name":"","survey_name":"\u5e73\u6210\u5143\u5e74\u5ea6152\u53f7\u8349\u6728\u5730\u8cea\u8abf\u67fb","client_name":"\u56fd\u571f\u4ea4\u901a\u7701\u4e2d\u90e8\u5730\u65b9\u6574\u5099\u5c40\u6d5c\u677e\u6cb3\u5ddd\u56fd\u9053\u4e8b\u52d9\u6240","boring_xml_url":40,"boring_view_url":1,"soilmap_view_url":null,"soiltest_xml_url":0,"soiltest_view_url":0},{"id":168140,"code":"B4KJ201801005-6389","latitude":"35.2374033","longitude":"137.9177833","source_code":"CB52376783042","project_name":"","survey_name":"\u5e73\u6210\u5143\u5e74\u5ea6152\u53f7\u8349\u6728\u5730\u8cea\u8abf\u67fb","client_name":"\u56fd\u571f\u4ea4\u901a\u7701\u4e2d\u90e8\u5730\u65b9\u6574\u5099\u5c40\u6d5c\u677e\u6cb3\u5ddd\u56fd\u9053\u4e8b\u52d9\u6240","boring_xml_url":40,"boring_view_url":1,"soilmap_view_url":null,"soiltest_xml_url":0,"soiltest_view_url":0},{"id":168139,"code":"B4KJ201801005-6388","latitude":"35.2374033","longitude":"137.9177833","source_code":"CB52376783041","project_name":"","survey_name":"\u5e73\u6210\u5143\u5e74\u5ea6152\u53f7\u8349\u6728\u5730\u8cea\u8abf\u67fb","client_name":"\u56fd\u571f\u4ea4\u901a\u7701\u4e2d\u90e8\u5730\u65b9\u6574\u5099\u5c40\u6d5c\u677e\u6cb3\u5ddd\u56fd\u9053\u4e8b\u52d9\u6240","boring_xml_url":40,"boring_view_url":1,"soilmap_view_url":null,"soiltest_xml_url":0,"soiltest_view_url":0},{"id":168138,"code":"B4KJ201801005-6387","latitude":"35.2374033","longitude":"137.9180611","source_code":"CB52376783040","project_name":"","survey_name":"\u5e73\u6210\u5143\u5e74\u5ea6152\u53f7\u8349\u6728\u5730\u8cea\u8abf\u67fb","client_name":"\u56fd\u571f\u4ea4\u901a\u7701\u4e2d\u90e8\u5730\u65b9\u6574\u5099\u5c40\u6d5c\u677e\u6cb3\u5ddd\u56fd\u9053\u4e8b\u52d9\u6240","boring_xml_url":40,"boring_view_url":1,"soilmap_view_url":null,"soiltest_xml_url":0,"soiltest_view_url":0},{"id":168137,"code":"B4KJ201801005-6386","latitude":"35.2376811","longitude":"137.9177833","source_code":"CB52376783039","project_name":"","survey_name":"\u5e73\u6210\u5143\u5e74\u5ea6152\u53f7\u8349\u6728\u5730\u8cea\u8abf\u67fb","client_name":"\u56fd\u571f\u4ea4\u901a\u7701\u4e2d\u90e8\u5730\u65b9\u6574\u5099\u5c40\u6d5c\u677e\u6cb3\u5ddd\u56fd\u9053\u4e8b\u52d9\u6240","boring_xml_url":40,"boring_view_url":1,"soilmap_view_url":null,"soiltest_xml_url":0,"soiltest_view_url":0},{"id":168136,"code":"B4KJ201801005-6385","latitude":"35.2379589","longitude":"137.9180611","source_code":"CB52376783038","project_name":"","survey_name":"\u5e73\u6210\u5143\u5e74\u5ea6152\u53f7\u8349\u6728\u5730\u8cea\u8abf\u67fb","client_name":"\u56fd\u571f\u4ea4\u901a\u7701\u4e2d\u90e8\u5730\u65b9\u6574\u5099\u5c40\u6d5c\u677e\u6cb3\u5ddd\u56fd\u9053\u4e8b\u52d9\u6240","boring_xml_url":40,"boring_view_url":1,"soilmap_view_url":null,"soiltest_xml_url":0,"soiltest_view_url":0},{"id":168135,"code":"B4KJ201801005-6384","latitude":"35.2382367","longitude":"137.9183389","source_code":"CB52376783037","project_name":"","survey_name":"\u5e73\u6210\u5143\u5e74\u5ea6152\u53f7\u8349\u6728\u5730\u8cea\u8abf\u67fb","client_name":"\u56fd\u571f\u4ea4\u901a\u7701\u4e2d\u90e8\u5730\u65b9\u6574\u5099\u5c40\u6d5c\u677e\u6cb3\u5ddd\u56fd\u9053\u4e8b\u52d9\u6240","boring_xml_url":40,"boring_view_url":1,"soilmap_view_url":null,"soiltest_xml_url":0,"soiltest_view_url":0},{"id":168134,"code":"B4KJ201801005-6383","latitude":"35.2385144","longitude":"137.9180611","source_code":"CB52376783036","project_name":"","survey_name":"\u5e73\u6210\u5143\u5e74\u5ea6152\u53f7\u8349\u6728\u5730\u8cea\u8abf\u67fb","client_name":"\u56fd\u571f\u4ea4\u901a\u7701\u4e2d\u90e8\u5730\u65b9\u6574\u5099\u5c40\u6d5c\u677e\u6cb3\u5ddd\u56fd\u9053\u4e8b\u52d9\u6240","boring_xml_url":40,"boring_view_url":1,"soilmap_view_url":null,"soiltest_xml_url":0,"soiltest_view_url":0},{"id":168133,"code":"B4KJ201801005-6382","latitude":"35.2382367","longitude":"137.9186167","source_code":"CB52376783035","project_name":"","survey_name":"\u5e73\u6210\u5143\u5e74\u5ea6152\u53f7\u8349\u6728\u5730\u8cea\u8abf\u67fb","client_name":"\u56fd\u571f\u4ea4\u901a\u7701\u4e2d\u90e8\u5730\u65b9\u6574\u5099\u5c40\u6d5c\u677e\u6cb3\u5ddd\u56fd\u9053\u4e8b\u52d9\u6240","boring_xml_url":40,"boring_view_url":1,"soilmap_view_url":null,"soiltest_xml_url":0,"soiltest_view_url":0},{"id":168132,"code":"B4KJ201801005-6381","latitude":"35.2382367","longitude":"137.9188944","source_code":"CB52376783034","project_name":"","survey_name":"\u5e73\u6210\u5143\u5e74\u5ea6152\u53f7\u8349\u6728\u5730\u8cea\u8abf\u67fb","client_name":"\u56fd\u571f\u4ea4\u901a\u7701\u4e2d\u90e8\u5730\u65b9\u6574\u5099\u5c40\u6d5c\u677e\u6cb3\u5ddd\u56fd\u9053\u4e8b\u52d9\u6240","boring_xml_url":40,"boring_view_url":1,"soilmap_view_url":null,"soiltest_xml_url":0,"soiltest_view_url":0},{"id":168131,"code":"B4KJ201801005-6380","latitude":"35.2385144","longitude":"137.9186167","source_code":"CB52376783033","project_name":"","survey_name":"\u5e73\u6210\u5143\u5e74\u5ea6152\u53f7\u8349\u6728\u5730\u8cea\u8abf\u67fb","client_name":"\u56fd\u571f\u4ea4\u901a\u7701\u4e2d\u90e8\u5730\u65b9\u6574\u5099\u5c40\u6d5c\u677e\u6cb3\u5ddd\u56fd\u9053\u4e8b\u52d9\u6240","boring_xml_url":40,"boring_view_url":1,"soilmap_view_url":null,"soiltest_xml_url":0,"soiltest_view_url":0},{"id":168130,"code":"B4KJ201801005-6379","latitude":"35.2387922","longitude":"137.9186167","source_code":"CB52376783032","project_name":"","survey_name":"\u5e73\u6210\u5143\u5e74\u5ea6152\u53f7\u8349\u6728\u5730\u8cea\u8abf\u67fb","client_name":"\u56fd\u571f\u4ea4\u901a\u7701\u4e2d\u90e8\u5730\u65b9\u6574\u5099\u5c40\u6d5c\u677e\u6cb3\u5ddd\u56fd\u9053\u4e8b\u52d9\u6240","boring_xml_url":40,"boring_view_url":1,"soilmap_view_url":null,"soiltest_xml_url":0,"soiltest_view_url":0},{"id":168129,"code":"B4KJ201801005-6378","latitude":"35.23907","longitude":"137.9188942","source_code":"CB52376783031","project_name":"","survey_name":"\u5e73\u6210\u5143\u5e74\u5ea6152\u53f7\u8349\u6728\u5730\u8cea\u8abf\u67fb","client_name":"\u56fd\u571f\u4ea4\u901a\u7701\u4e2d\u90e8\u5730\u65b9\u6574\u5099\u5c40\u6d5c\u677e\u6cb3\u5ddd\u56fd\u9053\u4e8b\u52d9\u6240","boring_xml_url":40,"boring_view_url":1,"soilmap_view_url":null,"soiltest_xml_url":0,"soiltest_view_url":0},{"id":168128,"code":"B4KJ201801005-6377","latitude":"35.23907","longitude":"137.9191719","source_code":"CB52376783030","project_name":"","survey_name":"\u5e73\u6210\u5143\u5e74\u5ea6152\u53f7\u8349\u6728\u5730\u8cea\u8abf\u67fb","client_name":"\u56fd\u571f\u4ea4\u901a\u7701\u4e2d\u90e8\u5730\u65b9\u6574\u5099\u5c40\u6d5c\u677e\u6cb3\u5ddd\u56fd\u9053\u4e8b\u52d9\u6240","boring_xml_url":40,"boring_view_url":1,"soilmap_view_url":null,"soiltest_xml_url":0,"soiltest_view_url":0},{"id":168127,"code":"B4KJ201801005-6376","latitude":"35.2401808","longitude":"137.9200053","source_code":"CB52376783029","project_name":"","survey_name":"\u5e73\u6210\u5143\u5e74\u5ea6152\u53f7\u8349\u6728\u5730\u8cea\u8abf\u67fb","client_name":"\u56fd\u571f\u4ea4\u901a\u7701\u4e2d\u90e8\u5730\u65b9\u6574\u5099\u5c40\u6d5c\u677e\u6cb3\u5ddd\u56fd\u9053\u4e8b\u52d9\u6240","boring_xml_url":40,"boring_view_url":1,"soilmap_view_url":null,"soiltest_xml_url":0,"soiltest_view_url":0},{"id":168126,"code":"B4KJ201801005-6375","latitude":"35.2418475","longitude":"137.9200053","source_code":"CB52376783028","project_name":"","survey_name":"\u5e73\u6210\u5143\u5e74\u5ea6152\u53f7\u8349\u6728\u5730\u8cea\u8abf\u67fb","client_name":"\u56fd\u571f\u4ea4\u901a\u7701\u4e2d\u90e8\u5730\u65b9\u6574\u5099\u5c40\u6d5c\u677e\u6cb3\u5ddd\u56fd\u9053\u4e8b\u52d9\u6240","boring_xml_url":40,"boring_view_url":1,"soilmap_view_url":null,"soiltest_xml_url":0,"soiltest_view_url":0},{"id":168125,"code":"B4KJ201801005-6374","latitude":"35.2415697","longitude":"137.9202831","source_code":"CB52376783027","project_name":"","survey_name":"\u5e73\u6210\u5143\u5e74\u5ea6152\u53f7\u8349\u6728\u5730\u8cea\u8abf\u67fb","client_name":"\u56fd\u571f\u4ea4\u901a\u7701\u4e2d\u90e8\u5730\u65b9\u6574\u5099\u5c40\u6d5c\u677e\u6cb3\u5ddd\u56fd\u9053\u4e8b\u52d9\u6240","boring_xml_url":40,"boring_view_url":1,"soilmap_view_url":null,"soiltest_xml_url":0,"soiltest_view_url":0},{"id":168124,"code":"B4KJ201801005-6373","latitude":"35.2421253","longitude":"137.9211161","source_code":"CB52376783026","project_name":"","survey_name":"\u5e73\u6210\u5143\u5e74\u5ea6152\u53f7\u8349\u6728\u5730\u8cea\u8abf\u67fb","client_name":"\u56fd\u571f\u4ea4\u901a\u7701\u4e2d\u90e8\u5730\u65b9\u6574\u5099\u5c40\u6d5c\u677e\u6cb3\u5ddd\u56fd\u9053\u4e8b\u52d9\u6240","boring_xml_url":40,"boring_view_url":1,"soilmap_view_url":null,"soiltest_xml_url":0,"soiltest_view_url":0},{"id":168123,"code":"B4KJ201801005-6372","latitude":"35.2407364","longitude":"137.9157","source_code":"CB52376783025","project_name":"","survey_name":"\u5e73\u6210\u5143\u5e74\u5ea6152\u53f7\u8349\u6728\u5730\u8cea\u8abf\u67fb(\u305d\u306e2)","client_name":"\u56fd\u571f\u4ea4\u901a\u7701\u4e2d\u90e8\u5730\u65b9\u6574\u5099\u5c40\u6d5c\u677e\u6cb3\u5ddd\u56fd\u9053\u4e8b\u52d9\u6240","boring_xml_url":40,"boring_view_url":1,"soilmap_view_url":null,"soiltest_xml_url":0,"soiltest_view_url":0},{"id":168122,"code":"B4KJ201801005-6371","latitude":"35.2376811","longitude":"137.9175056","source_code":"CB52376783024","project_name":"","survey_name":"\u5e73\u6210\u5143\u5e74\u5ea6152\u53f7\u8349\u6728\u5730\u8cea\u8abf\u67fb(\u305d\u306e2)","client_name":"\u56fd\u571f\u4ea4\u901a\u7701\u4e2d\u90e8\u5730\u65b9\u6574\u5099\u5c40\u6d5c\u677e\u6cb3\u5ddd\u56fd\u9053\u4e8b\u52d9\u6240","boring_xml_url":40,"boring_view_url":1,"soilmap_view_url":null,"soiltest_xml_url":0,"soiltest_view_url":0},{"id":168121,"code":"B4KJ201801005-6370","latitude":"35.23907","longitude":"137.9172278","source_code":"CB52376783023","project_name":"","survey_name":"\u5e73\u6210\u5143\u5e74\u5ea6152\u53f7\u8349\u6728\u5730\u8cea\u8abf\u67fb(\u305d\u306e2)","client_name":"\u56fd\u571f\u4ea4\u901a\u7701\u4e2d\u90e8\u5730\u65b9\u6574\u5099\u5c40\u6d5c\u677e\u6cb3\u5ddd\u56fd\u9053\u4e8b\u52d9\u6240","boring_xml_url":40,"boring_view_url":1,"soilmap_view_url":null,"soiltest_xml_url":0,"soiltest_view_url":0},{"id":168120,"code":"B4KJ201801005-6369","latitude":"35.2387922","longitude":"137.9177833","source_code":"CB52376783022","project_name":"","survey_name":"\u5e73\u6210\u5143\u5e74\u5ea6152\u53f7\u8349\u6728\u5730\u8cea\u8abf\u67fb(\u305d\u306e2)","client_name":"\u56fd\u571f\u4ea4\u901a\u7701\u4e2d\u90e8\u5730\u65b9\u6574\u5099\u5c40\u6d5c\u677e\u6cb3\u5ddd\u56fd\u9053\u4e8b\u52d9\u6240","boring_xml_url":40,"boring_view_url":1,"soilmap_view_url":null,"soiltest_xml_url":0,"soiltest_view_url":0},{"id":168119,"code":"B4KJ201801005-6368","latitude":"35.2401808","longitude":"137.9177833","source_code":"CB52376783021","project_name":"","survey_name":"\u5e73\u6210\u5143\u5e74\u5ea6152\u53f7\u8349\u6728\u5730\u8cea\u8abf\u67fb(\u305d\u306e2)","client_name":"\u56fd\u571f\u4ea4\u901a\u7701\u4e2d\u90e8\u5730\u65b9\u6574\u5099\u5c40\u6d5c\u677e\u6cb3\u5ddd\u56fd\u9053\u4e8b\u52d9\u6240","boring_xml_url":40,"boring_view_url":1,"soilmap_view_url":null,"soiltest_xml_url":0,"soiltest_view_url":0},{"id":168118,"code":"B4KJ201801005-6367","latitude":"35.2401808","longitude":"137.9183386","source_code":"CB52376783020","project_name":"","survey_name":"\u5e73\u6210\u5143\u5e74\u5ea6152\u53f7\u8349\u6728\u5730\u8cea\u8abf\u67fb(\u305d\u306e2)","client_name":"\u56fd\u571f\u4ea4\u901a\u7701\u4e2d\u90e8\u5730\u65b9\u6574\u5099\u5c40\u6d5c\u677e\u6cb3\u5ddd\u56fd\u9053\u4e8b\u52d9\u6240","boring_xml_url":40,"boring_view_url":1,"soilmap_view_url":null,"soiltest_xml_url":0,"soiltest_view_url":0},{"id":168117,"code":"B4KJ201801005-6366","latitude":"35.2407364","longitude":"137.9191719","source_code":"CB52376783019","project_name":"","survey_name":"\u5e73\u6210\u5143\u5e74\u5ea6152\u53f7\u8349\u6728\u5730\u8cea\u8abf\u67fb(\u305d\u306e2)","client_name":"\u56fd\u571f\u4ea4\u901a\u7701\u4e2d\u90e8\u5730\u65b9\u6574\u5099\u5c40\u6d5c\u677e\u6cb3\u5ddd\u56fd\u9053\u4e8b\u52d9\u6240","boring_xml_url":40,"boring_view_url":1,"soilmap_view_url":null,"soiltest_xml_url":0,"soiltest_view_url":0},{"id":168116,"code":"B4KJ201801005-6365","latitude":"35.2421253","longitude":"137.9202831","source_code":"CB52376783018","project_name":"","survey_name":"\u5e73\u6210\u5143\u5e74\u5ea6152\u53f7\u8349\u6728\u5730\u8cea\u8abf\u67fb(\u305d\u306e2)","client_name":"\u56fd\u571f\u4ea4\u901a\u7701\u4e2d\u90e8\u5730\u65b9\u6574\u5099\u5c40\u6d5c\u677e\u6cb3\u5ddd\u56fd\u9053\u4e8b\u52d9\u6240","boring_xml_url":40,"boring_view_url":1,"soilmap_view_url":null,"soiltest_xml_url":0,"soiltest_view_url":0}]}}