{"header":{"xyz":{"source":[],"mosaic":false},"page":5086,"raw":{"soiltest_result":"0","bbox":"57.598333,109.544722,1.933333,163.806111","page":"5086"},"conditions":{"soiltest_result":0,"north":57.598333,"west":109.544722,"south":1.933333,"east":163.806111},"success":true,"message":""},"data":{"meta":{"total":212844,"page":5086,"pages":7095,"count":30},"values":[{"id":167995,"code":"B4KJ201801005-6244","latitude":"35.1712772","longitude":"137.0056425","source_code":"CB52376000004","project_name":"","survey_name":"\u662d\u548c62\u5e74\u5ea6302\u53f7\u6771\u90e8\u5730\u8cea\u8abf\u67fb\u305d\u306e1","client_name":"\u56fd\u571f\u4ea4\u901a\u7701\u4e2d\u90e8\u5730\u65b9\u6574\u5099\u5c40\u611b\u77e5\u56fd\u9053\u4e8b\u52d9\u6240","boring_xml_url":40,"boring_view_url":1,"soilmap_view_url":null,"soiltest_xml_url":0,"soiltest_view_url":0},{"id":167994,"code":"B4KJ201801005-6243","latitude":"35.1703328","longitude":"137.0045317","source_code":"CB52376000003","project_name":"","survey_name":"\u662d\u548c57\u5e74\u5ea6302\u53f7\u6771\u90e8\u5730\u8cea\u8abf\u67fb","client_name":"\u56fd\u571f\u4ea4\u901a\u7701\u4e2d\u90e8\u5730\u65b9\u6574\u5099\u5c40\u611b\u77e5\u56fd\u9053\u4e8b\u52d9\u6240","boring_xml_url":40,"boring_view_url":1,"soilmap_view_url":null,"soiltest_xml_url":0,"soiltest_view_url":0},{"id":167993,"code":"B4KJ201801005-6242","latitude":"35.1714994","longitude":"137.0061981","source_code":"CB52376000002","project_name":"","survey_name":"\u662d\u548c57\u5e74\u5ea6302\u53f7\u6771\u90e8\u5730\u8cea\u8abf\u67fb","client_name":"\u56fd\u571f\u4ea4\u901a\u7701\u4e2d\u90e8\u5730\u65b9\u6574\u5099\u5c40\u611b\u77e5\u56fd\u9053\u4e8b\u52d9\u6240","boring_xml_url":40,"boring_view_url":1,"soilmap_view_url":null,"soiltest_xml_url":0,"soiltest_view_url":0},{"id":167992,"code":"B4KJ201801005-6241","latitude":"35.1713328","longitude":"137.0048092","source_code":"CB52376000001","project_name":"","survey_name":"\u662d\u548c57\u5e74\u5ea6302\u53f7\u6771\u90e8\u5730\u8cea\u8abf\u67fb","client_name":"\u56fd\u571f\u4ea4\u901a\u7701\u4e2d\u90e8\u5730\u65b9\u6574\u5099\u5c40\u611b\u77e5\u56fd\u9053\u4e8b\u52d9\u6240","boring_xml_url":40,"boring_view_url":1,"soilmap_view_url":null,"soiltest_xml_url":0,"soiltest_view_url":0},{"id":167991,"code":"B4KJ201801005-6240","latitude":"35.1030764","longitude":"137.5625967","source_code":"CB52375415008","project_name":"","survey_name":"\u5e73\u621012\u5e74\u5ea6\u8a2d\u697d\u30c0\u30e0\u539f\u77f3\u5c71\u5730\u8cea\u8abf\u67fb","client_name":"\u56fd\u571f\u4ea4\u901a\u7701\u4e2d\u90e8\u5730\u65b9\u6574\u5099\u5c40\u76f8\u697d\u30c0\u30e0\u8abf\u67fb\u4e8b\u52d9\u6240","boring_xml_url":40,"boring_view_url":1,"soilmap_view_url":null,"soiltest_xml_url":0,"soiltest_view_url":0},{"id":167990,"code":"B4KJ201801005-6239","latitude":"35.1021597","longitude":"137.5614858","source_code":"CB52375415007","project_name":"","survey_name":"\u5e73\u621012\u5e74\u5ea6\u8a2d\u697d\u30c0\u30e0\u539f\u77f3\u5c71\u5730\u8cea\u8abf\u67fb","client_name":"\u56fd\u571f\u4ea4\u901a\u7701\u4e2d\u90e8\u5730\u65b9\u6574\u5099\u5c40\u76f8\u697d\u30c0\u30e0\u8abf\u67fb\u4e8b\u52d9\u6240","boring_xml_url":40,"boring_view_url":1,"soilmap_view_url":null,"soiltest_xml_url":0,"soiltest_view_url":0},{"id":167989,"code":"B4KJ201801005-6238","latitude":"35.0906331","longitude":"137.5539314","source_code":"CB52375404002","project_name":"","survey_name":"\u5e73\u621010\u5e74\u5ea6\u8a2d\u697d\u30c0\u30e0\u30b5\u30a4\u30c8\u5de6\u5cb8\u30dc\u30fc\u30ea\u30f3\u30b0\u305d\u306e2\u8abf\u67fb","client_name":"\u56fd\u571f\u4ea4\u901a\u7701\u4e2d\u90e8\u5730\u65b9\u6574\u5099\u5c40\u76f8\u697d\u30c0\u30e0\u8abf\u67fb\u4e8b\u52d9\u6240","boring_xml_url":40,"boring_view_url":1,"soilmap_view_url":null,"soiltest_xml_url":0,"soiltest_view_url":0},{"id":167988,"code":"B4KJ201801005-6237","latitude":"35.0897444","longitude":"137.5536536","source_code":"CB52375404001","project_name":"","survey_name":"\u5e73\u621010\u5e74\u5ea6\u8a2d\u697d\u30c0\u30e0\u30b5\u30a4\u30c8\u5de6\u5cb8\u30dc\u30fc\u30ea\u30f3\u30b0\u305d\u306e2\u8abf\u67fb","client_name":"\u56fd\u571f\u4ea4\u901a\u7701\u4e2d\u90e8\u5730\u65b9\u6574\u5099\u5c40\u76f8\u697d\u30c0\u30e0\u8abf\u67fb\u4e8b\u52d9\u6240","boring_xml_url":40,"boring_view_url":1,"soilmap_view_url":null,"soiltest_xml_url":0,"soiltest_view_url":0},{"id":167987,"code":"B4KJ201801005-6236","latitude":"35.1638142","longitude":"137.3491964","source_code":"CB52375298212","project_name":"","survey_name":"49\u5e74\u5ea6\u8db3\u52a9\u6b69\u9053\u4ed62\u30f6\u6240\u5730\u8cea\u8abf\u67fb","client_name":"\u56fd\u571f\u4ea4\u901a\u7701\u4e2d\u90e8\u5730\u65b9\u6574\u5099\u5c40\u540d\u53e4\u5c4b\u56fd\u9053\u4e8b\u52d9\u6240","boring_xml_url":40,"boring_view_url":1,"soilmap_view_url":null,"soiltest_xml_url":0,"soiltest_view_url":0},{"id":167986,"code":"B4KJ201801005-6235","latitude":"35.1480656","longitude":"137.3325594","source_code":"CB52375276009","project_name":"","survey_name":"\u5e73\u62105\u5e74\u5ea6153\u53f7\u8db3\u52a9\u5730\u533a\u5730\u8cea\u8abf\u67fb","client_name":"\u56fd\u571f\u4ea4\u901a\u7701\u4e2d\u90e8\u5730\u65b9\u6574\u5099\u5c40\u540d\u56db\u56fd\u9053\u4e8b\u52d9\u6240","boring_xml_url":40,"boring_view_url":1,"soilmap_view_url":null,"soiltest_xml_url":0,"soiltest_view_url":0},{"id":167985,"code":"B4KJ201801005-6234","latitude":"35.1472044","longitude":"137.3321983","source_code":"CB52375276008","project_name":"","survey_name":"\u5e73\u62105\u5e74\u5ea6153\u53f7\u8db3\u52a9\u5730\u533a\u5730\u8cea\u8abf\u67fb","client_name":"\u56fd\u571f\u4ea4\u901a\u7701\u4e2d\u90e8\u5730\u65b9\u6574\u5099\u5c40\u540d\u56db\u56fd\u9053\u4e8b\u52d9\u6240","boring_xml_url":40,"boring_view_url":1,"soilmap_view_url":null,"soiltest_xml_url":0,"soiltest_view_url":0},{"id":167984,"code":"B4KJ201801005-6233","latitude":"35.1467047","longitude":"137.3314208","source_code":"CB52375276007","project_name":"","survey_name":"\u5e73\u62105\u5e74\u5ea6153\u53f7\u8db3\u52a9\u5730\u533a\u5730\u8cea\u8abf\u67fb","client_name":"\u56fd\u571f\u4ea4\u901a\u7701\u4e2d\u90e8\u5730\u65b9\u6574\u5099\u5c40\u540d\u56db\u56fd\u9053\u4e8b\u52d9\u6240","boring_xml_url":40,"boring_view_url":1,"soilmap_view_url":null,"soiltest_xml_url":0,"soiltest_view_url":0},{"id":167983,"code":"B4KJ201801005-6232","latitude":"35.1455381","longitude":"137.3294486","source_code":"CB52375276006","project_name":"","survey_name":"\u5e73\u62105\u5e74\u5ea6153\u53f7\u8db3\u52a9\u5730\u533a\u5730\u8cea\u8abf\u67fb","client_name":"\u56fd\u571f\u4ea4\u901a\u7701\u4e2d\u90e8\u5730\u65b9\u6574\u5099\u5c40\u540d\u56db\u56fd\u9053\u4e8b\u52d9\u6240","boring_xml_url":40,"boring_view_url":1,"soilmap_view_url":null,"soiltest_xml_url":0,"soiltest_view_url":0},{"id":167982,"code":"B4KJ201801005-6231","latitude":"35.1453714","longitude":"137.3296708","source_code":"CB52375276005","project_name":"","survey_name":"\u5e73\u62104\u5e74\u5ea6153\u53f7\u8db3\u52a9\u5730\u533a\u5730\u8cea\u8abf\u67fb","client_name":"\u56fd\u571f\u4ea4\u901a\u7701\u4e2d\u90e8\u5730\u65b9\u6574\u5099\u5c40\u540d\u56db\u56fd\u9053\u4e8b\u52d9\u6240","boring_xml_url":40,"boring_view_url":1,"soilmap_view_url":null,"soiltest_xml_url":0,"soiltest_view_url":0},{"id":167981,"code":"B4KJ201801005-6230","latitude":"35.1455658","longitude":"137.3295319","source_code":"CB52375276004","project_name":"","survey_name":"\u5e73\u62104\u5e74\u5ea6153\u53f7\u8db3\u52a9\u5730\u533a\u5730\u8cea\u8abf\u67fb","client_name":"\u56fd\u571f\u4ea4\u901a\u7701\u4e2d\u90e8\u5730\u65b9\u6574\u5099\u5c40\u540d\u56db\u56fd\u9053\u4e8b\u52d9\u6240","boring_xml_url":40,"boring_view_url":1,"soilmap_view_url":null,"soiltest_xml_url":0,"soiltest_view_url":0},{"id":167980,"code":"B4KJ201801005-6229","latitude":"35.1453992","longitude":"137.3287267","source_code":"CB52375276003","project_name":"","survey_name":"\u5e73\u62104\u5e74\u5ea6153\u53f7\u8db3\u52a9\u5730\u533a\u5730\u8cea\u8abf\u67fb","client_name":"\u56fd\u571f\u4ea4\u901a\u7701\u4e2d\u90e8\u5730\u65b9\u6574\u5099\u5c40\u540d\u56db\u56fd\u9053\u4e8b\u52d9\u6240","boring_xml_url":40,"boring_view_url":1,"soilmap_view_url":null,"soiltest_xml_url":0,"soiltest_view_url":0},{"id":167979,"code":"B4KJ201801005-6228","latitude":"35.1450103","longitude":"137.3285322","source_code":"CB52375276002","project_name":"","survey_name":"\u5e73\u62104\u5e74\u5ea6153\u53f7\u8db3\u52a9\u5730\u533a\u5730\u8cea\u8abf\u67fb","client_name":"\u56fd\u571f\u4ea4\u901a\u7701\u4e2d\u90e8\u5730\u65b9\u6574\u5099\u5c40\u540d\u56db\u56fd\u9053\u4e8b\u52d9\u6240","boring_xml_url":40,"boring_view_url":1,"soilmap_view_url":null,"soiltest_xml_url":0,"soiltest_view_url":0},{"id":167978,"code":"B4KJ201801005-6227","latitude":"35.1451492","longitude":"137.3293931","source_code":"CB52375276001","project_name":"","survey_name":"\u5e73\u62104\u5e74\u5ea6153\u53f7\u8db3\u52a9\u5730\u533a\u5730\u8cea\u8abf\u67fb","client_name":"\u56fd\u571f\u4ea4\u901a\u7701\u4e2d\u90e8\u5730\u65b9\u6574\u5099\u5c40\u540d\u56db\u56fd\u9053\u4e8b\u52d9\u6240","boring_xml_url":40,"boring_view_url":1,"soilmap_view_url":null,"soiltest_xml_url":0,"soiltest_view_url":0},{"id":167977,"code":"B4KJ201801005-6226","latitude":"35.1422606","longitude":"137.3247547","source_code":"CB52375266006","project_name":"","survey_name":"\u5e73\u62105\u5e74\u5ea6153\u53f7\u8db3\u52a9\u5730\u533a\u5730\u8cea\u8abf\u67fb","client_name":"\u56fd\u571f\u4ea4\u901a\u7701\u4e2d\u90e8\u5730\u65b9\u6574\u5099\u5c40\u540d\u56db\u56fd\u9053\u4e8b\u52d9\u6240","boring_xml_url":40,"boring_view_url":1,"soilmap_view_url":null,"soiltest_xml_url":0,"soiltest_view_url":0},{"id":167976,"code":"B4KJ201801005-6225","latitude":"35.1413717","longitude":"137.3239772","source_code":"CB52375266005","project_name":"","survey_name":"\u5e73\u62105\u5e74\u5ea6153\u53f7\u8db3\u52a9\u5730\u533a\u5730\u8cea\u8abf\u67fb","client_name":"\u56fd\u571f\u4ea4\u901a\u7701\u4e2d\u90e8\u5730\u65b9\u6574\u5099\u5c40\u540d\u56db\u56fd\u9053\u4e8b\u52d9\u6240","boring_xml_url":40,"boring_view_url":1,"soilmap_view_url":null,"soiltest_xml_url":0,"soiltest_view_url":0},{"id":167975,"code":"B4KJ201801005-6224","latitude":"35.1440103","longitude":"137.3257269","source_code":"CB52375266004","project_name":"","survey_name":"\u5e73\u62104\u5e74\u5ea6153\u53f7\u8db3\u52a9\u5730\u533a\u5730\u8cea\u8abf\u67fb","client_name":"\u56fd\u571f\u4ea4\u901a\u7701\u4e2d\u90e8\u5730\u65b9\u6574\u5099\u5c40\u540d\u56db\u56fd\u9053\u4e8b\u52d9\u6240","boring_xml_url":40,"boring_view_url":1,"soilmap_view_url":null,"soiltest_xml_url":0,"soiltest_view_url":0},{"id":167974,"code":"B4KJ201801005-6223","latitude":"35.1444825","longitude":"137.3281156","source_code":"CB52375266003","project_name":"","survey_name":"\u5e73\u62104\u5e74\u5ea6153\u53f7\u8db3\u52a9\u5730\u533a\u5730\u8cea\u8abf\u67fb","client_name":"\u56fd\u571f\u4ea4\u901a\u7701\u4e2d\u90e8\u5730\u65b9\u6574\u5099\u5c40\u540d\u56db\u56fd\u9053\u4e8b\u52d9\u6240","boring_xml_url":40,"boring_view_url":1,"soilmap_view_url":null,"soiltest_xml_url":0,"soiltest_view_url":0},{"id":167973,"code":"B4KJ201801005-6222","latitude":"35.1444825","longitude":"137.3279211","source_code":"CB52375266002","project_name":"","survey_name":"\u5e73\u62104\u5e74\u5ea6153\u53f7\u8db3\u52a9\u5730\u533a\u5730\u8cea\u8abf\u67fb","client_name":"\u56fd\u571f\u4ea4\u901a\u7701\u4e2d\u90e8\u5730\u65b9\u6574\u5099\u5c40\u540d\u56db\u56fd\u9053\u4e8b\u52d9\u6240","boring_xml_url":40,"boring_view_url":1,"soilmap_view_url":null,"soiltest_xml_url":0,"soiltest_view_url":0},{"id":167972,"code":"B4KJ201801005-6221","latitude":"35.1448714","longitude":"137.3279767","source_code":"CB52375266001","project_name":"","survey_name":"\u5e73\u62104\u5e74\u5ea6153\u53f7\u8db3\u52a9\u5730\u533a\u5730\u8cea\u8abf\u67fb","client_name":"\u56fd\u571f\u4ea4\u901a\u7701\u4e2d\u90e8\u5730\u65b9\u6574\u5099\u5c40\u540d\u56db\u56fd\u9053\u4e8b\u52d9\u6240","boring_xml_url":40,"boring_view_url":1,"soilmap_view_url":null,"soiltest_xml_url":0,"soiltest_view_url":0},{"id":167971,"code":"B4KJ201801005-6220","latitude":"35.1402328","longitude":"137.3219772","source_code":"CB52375265005","project_name":"","survey_name":"\u5e73\u62105\u5e74\u5ea6153\u53f7\u8db3\u52a9\u5730\u533a\u5730\u8cea\u8abf\u67fb","client_name":"\u56fd\u571f\u4ea4\u901a\u7701\u4e2d\u90e8\u5730\u65b9\u6574\u5099\u5c40\u540d\u56db\u56fd\u9053\u4e8b\u52d9\u6240","boring_xml_url":40,"boring_view_url":1,"soilmap_view_url":null,"soiltest_xml_url":0,"soiltest_view_url":0},{"id":167970,"code":"B4KJ201801005-6219","latitude":"35.1397331","longitude":"137.3213664","source_code":"CB52375265004","project_name":"","survey_name":"\u5e73\u62104\u5e74\u5ea6153\u53f7\u8db3\u52a9\u5730\u533a\u5730\u8cea\u8abf\u67fb","client_name":"\u56fd\u571f\u4ea4\u901a\u7701\u4e2d\u90e8\u5730\u65b9\u6574\u5099\u5c40\u540d\u56db\u56fd\u9053\u4e8b\u52d9\u6240","boring_xml_url":40,"boring_view_url":1,"soilmap_view_url":null,"soiltest_xml_url":0,"soiltest_view_url":0},{"id":167969,"code":"B4KJ201801005-6218","latitude":"35.1400383","longitude":"137.3209219","source_code":"CB52375265003","project_name":"","survey_name":"\u5e73\u62104\u5e74\u5ea6153\u53f7\u8db3\u52a9\u5730\u533a\u5730\u8cea\u8abf\u67fb","client_name":"\u56fd\u571f\u4ea4\u901a\u7701\u4e2d\u90e8\u5730\u65b9\u6574\u5099\u5c40\u540d\u56db\u56fd\u9053\u4e8b\u52d9\u6240","boring_xml_url":40,"boring_view_url":1,"soilmap_view_url":null,"soiltest_xml_url":0,"soiltest_view_url":0},{"id":167968,"code":"B4KJ201801005-6217","latitude":"35.1397606","longitude":"137.3196997","source_code":"CB52375265002","project_name":"","survey_name":"\u5e73\u62104\u5e74\u5ea6153\u53f7\u8db3\u52a9\u5730\u533a\u5730\u8cea\u8abf\u67fb","client_name":"\u56fd\u571f\u4ea4\u901a\u7701\u4e2d\u90e8\u5730\u65b9\u6574\u5099\u5c40\u540d\u56db\u56fd\u9053\u4e8b\u52d9\u6240","boring_xml_url":40,"boring_view_url":1,"soilmap_view_url":null,"soiltest_xml_url":0,"soiltest_view_url":0},{"id":167967,"code":"B4KJ201801005-6216","latitude":"35.1395108","longitude":"137.3201997","source_code":"CB52375265001","project_name":"","survey_name":"\u5e73\u62104\u5e74\u5ea6153\u53f7\u8db3\u52a9\u5730\u533a\u5730\u8cea\u8abf\u67fb","client_name":"\u56fd\u571f\u4ea4\u901a\u7701\u4e2d\u90e8\u5730\u65b9\u6574\u5099\u5c40\u540d\u56db\u56fd\u9053\u4e8b\u52d9\u6240","boring_xml_url":40,"boring_view_url":1,"soilmap_view_url":null,"soiltest_xml_url":0,"soiltest_view_url":0},{"id":167966,"code":"B4KJ201801005-6215","latitude":"35.1340944","longitude":"137.3131172","source_code":"CB52375255193","project_name":"","survey_name":"\u662d\u548c46\u5e74\u5ea6\u5eb7\u751f\u901a\u4ed6\u56db\u30f6\u6240\u5730\u8cea\u8abf\u67fb","client_name":"\u56fd\u571f\u4ea4\u901a\u7701\u4e2d\u90e8\u5730\u65b9\u6574\u5099\u5c40\u540d\u53e4\u5c4b\u56fd\u9053\u4e8b\u52d9\u6240","boring_xml_url":40,"boring_view_url":1,"soilmap_view_url":null,"soiltest_xml_url":0,"soiltest_view_url":0}]}}