{"header":{"xyz":{"source":[],"mosaic":false},"page":5091,"raw":{"soiltest_result":"0","bbox":"57.598333,109.544722,1.933333,163.806111","page":"5091"},"conditions":{"soiltest_result":0,"north":57.598333,"west":109.544722,"south":1.933333,"east":163.806111},"success":true,"message":""},"data":{"meta":{"total":212844,"page":5091,"pages":7095,"count":30},"values":[{"id":167845,"code":"B4KJ201801005-6094","latitude":"35.1605561","longitude":"137.0060039","source_code":"CB52375080003","project_name":"","survey_name":"\u662d\u548c57\u5e74\u5ea6302\u53f7\u6771\u90e8\u5730\u8cea\u8abf\u67fb","client_name":"\u56fd\u571f\u4ea4\u901a\u7701\u4e2d\u90e8\u5730\u65b9\u6574\u5099\u5c40\u611b\u77e5\u56fd\u9053\u4e8b\u52d9\u6240","boring_xml_url":40,"boring_view_url":1,"soilmap_view_url":null,"soiltest_xml_url":0,"soiltest_view_url":0},{"id":167844,"code":"B4KJ201801005-6093","latitude":"35.1570564","longitude":"137.0043931","source_code":"CB52375080002","project_name":"","survey_name":"\u662d\u548c57\u5e74\u5ea6302\u53f7\u6771\u90e8\u5730\u8cea\u8abf\u67fb","client_name":"\u56fd\u571f\u4ea4\u901a\u7701\u4e2d\u90e8\u5730\u65b9\u6574\u5099\u5c40\u611b\u77e5\u56fd\u9053\u4e8b\u52d9\u6240","boring_xml_url":40,"boring_view_url":1,"soilmap_view_url":null,"soiltest_xml_url":0,"soiltest_view_url":0},{"id":167843,"code":"B4KJ201801005-6092","latitude":"35.1534458","longitude":"137.0027267","source_code":"CB52375080001","project_name":"","survey_name":"\u662d\u548c57\u5e74\u5ea6302\u53f7\u6771\u90e8\u5730\u8cea\u8abf\u67fb","client_name":"\u56fd\u571f\u4ea4\u901a\u7701\u4e2d\u90e8\u5730\u65b9\u6574\u5099\u5c40\u611b\u77e5\u56fd\u9053\u4e8b\u52d9\u6240","boring_xml_url":40,"boring_view_url":1,"soilmap_view_url":null,"soiltest_xml_url":0,"soiltest_view_url":0},{"id":167842,"code":"B4KJ201801005-6091","latitude":"35.1478075","longitude":"137.0000606","source_code":"CB52375070018","project_name":"","survey_name":"\u5e73\u62107\u5e74\u5ea6302\u53f7\u6771\u90e8\u5730\u533a\u5730\u8cea\u8abf\u67fb\u305d\u306e3","client_name":"\u56fd\u571f\u4ea4\u901a\u7701\u4e2d\u90e8\u5730\u65b9\u6574\u5099\u5c40\u611b\u77e5\u56fd\u9053\u4e8b\u52d9\u6240","boring_xml_url":40,"boring_view_url":1,"soilmap_view_url":null,"soiltest_xml_url":0,"soiltest_view_url":0},{"id":167841,"code":"B4KJ201801005-6090","latitude":"35.1470297","longitude":"136.9999217","source_code":"CB52375070017","project_name":"","survey_name":"\u5e73\u62107\u5e74\u5ea6302\u53f7\u6771\u90e8\u5730\u533a\u5730\u8cea\u8abf\u67fb\u305d\u306e3","client_name":"\u56fd\u571f\u4ea4\u901a\u7701\u4e2d\u90e8\u5730\u65b9\u6574\u5099\u5c40\u611b\u77e5\u56fd\u9053\u4e8b\u52d9\u6240","boring_xml_url":40,"boring_view_url":1,"soilmap_view_url":null,"soiltest_xml_url":0,"soiltest_view_url":0},{"id":167840,"code":"B4KJ201801005-6089","latitude":"35.1473631","longitude":"136.9996439","source_code":"CB52375070016","project_name":"","survey_name":"\u5e73\u62107\u5e74\u5ea6302\u53f7\u6771\u90e8\u5730\u533a\u5730\u8cea\u8abf\u67fb\u305d\u306e3","client_name":"\u56fd\u571f\u4ea4\u901a\u7701\u4e2d\u90e8\u5730\u65b9\u6574\u5099\u5c40\u611b\u77e5\u56fd\u9053\u4e8b\u52d9\u6240","boring_xml_url":40,"boring_view_url":1,"soilmap_view_url":null,"soiltest_xml_url":0,"soiltest_view_url":0},{"id":167839,"code":"B4KJ201801005-6088","latitude":"35.1480297","longitude":"137.0006161","source_code":"CB52375070015","project_name":"","survey_name":"\u5e73\u62107\u5e74\u5ea6302\u53f7\u6771\u90e8\u5730\u533a\u5730\u8cea\u8abf\u67fb\u305d\u306e3","client_name":"\u56fd\u571f\u4ea4\u901a\u7701\u4e2d\u90e8\u5730\u65b9\u6574\u5099\u5c40\u611b\u77e5\u56fd\u9053\u4e8b\u52d9\u6240","boring_xml_url":40,"boring_view_url":1,"soilmap_view_url":null,"soiltest_xml_url":0,"soiltest_view_url":0},{"id":167838,"code":"B4KJ201801005-6087","latitude":"35.1486961","longitude":"137.0001994","source_code":"CB52375070014","project_name":"","survey_name":"\u5e73\u62107\u5e74\u5ea6302\u53f7\u6771\u90e8\u5730\u533a\u5730\u8cea\u8abf\u67fb\u305d\u306e3","client_name":"\u56fd\u571f\u4ea4\u901a\u7701\u4e2d\u90e8\u5730\u65b9\u6574\u5099\u5c40\u611b\u77e5\u56fd\u9053\u4e8b\u52d9\u6240","boring_xml_url":40,"boring_view_url":1,"soilmap_view_url":null,"soiltest_xml_url":0,"soiltest_view_url":0},{"id":167837,"code":"B4KJ201801005-6086","latitude":"35.1492794","longitude":"137.0003383","source_code":"CB52375070013","project_name":"","survey_name":"\u5e73\u62107\u5e74\u5ea6302\u53f7\u6771\u90e8\u5730\u533a\u5730\u8cea\u8abf\u67fb\u305d\u306e3","client_name":"\u56fd\u571f\u4ea4\u901a\u7701\u4e2d\u90e8\u5730\u65b9\u6574\u5099\u5c40\u611b\u77e5\u56fd\u9053\u4e8b\u52d9\u6240","boring_xml_url":40,"boring_view_url":1,"soilmap_view_url":null,"soiltest_xml_url":0,"soiltest_view_url":0},{"id":167836,"code":"B4KJ201801005-6085","latitude":"35.1483631","longitude":"137.0004772","source_code":"CB52375070012","project_name":"","survey_name":"\u5e73\u62107\u5e74\u5ea6302\u53f7\u6771\u90e8\u5730\u533a\u5730\u8cea\u8abf\u67fb\u305d\u306e3","client_name":"\u56fd\u571f\u4ea4\u901a\u7701\u4e2d\u90e8\u5730\u65b9\u6574\u5099\u5c40\u611b\u77e5\u56fd\u9053\u4e8b\u52d9\u6240","boring_xml_url":40,"boring_view_url":1,"soilmap_view_url":null,"soiltest_xml_url":0,"soiltest_view_url":0},{"id":167835,"code":"B4KJ201801005-6084","latitude":"35.148835","longitude":"137.0006161","source_code":"CB52375070011","project_name":"","survey_name":"\u5e73\u62107\u5e74\u5ea6302\u53f7\u6771\u90e8\u5730\u533a\u5730\u8cea\u8abf\u67fb\u305d\u306e3","client_name":"\u56fd\u571f\u4ea4\u901a\u7701\u4e2d\u90e8\u5730\u65b9\u6574\u5099\u5c40\u611b\u77e5\u56fd\u9053\u4e8b\u52d9\u6240","boring_xml_url":40,"boring_view_url":1,"soilmap_view_url":null,"soiltest_xml_url":0,"soiltest_view_url":0},{"id":167834,"code":"B4KJ201801005-6083","latitude":"35.1492794","longitude":"137.0008658","source_code":"CB52375070010","project_name":"","survey_name":"\u5e73\u62107\u5e74\u5ea6302\u53f7\u6771\u90e8\u5730\u533a\u5730\u8cea\u8abf\u67fb\u305d\u306e3","client_name":"\u56fd\u571f\u4ea4\u901a\u7701\u4e2d\u90e8\u5730\u65b9\u6574\u5099\u5c40\u611b\u77e5\u56fd\u9053\u4e8b\u52d9\u6240","boring_xml_url":40,"boring_view_url":1,"soilmap_view_url":null,"soiltest_xml_url":0,"soiltest_view_url":0},{"id":167833,"code":"B4KJ201801005-6082","latitude":"35.1499461","longitude":"137.0008658","source_code":"CB52375070009","project_name":"","survey_name":"\u5e73\u62107\u5e74\u5ea6302\u53f7\u6771\u90e8\u5730\u533a\u5730\u8cea\u8abf\u67fb\u305d\u306e3","client_name":"\u56fd\u571f\u4ea4\u901a\u7701\u4e2d\u90e8\u5730\u65b9\u6574\u5099\u5c40\u611b\u77e5\u56fd\u9053\u4e8b\u52d9\u6240","boring_xml_url":40,"boring_view_url":1,"soilmap_view_url":null,"soiltest_xml_url":0,"soiltest_view_url":0},{"id":167832,"code":"B4KJ201801005-6081","latitude":"35.1505017","longitude":"137.0011436","source_code":"CB52375070008","project_name":"","survey_name":"\u5e73\u62107\u5e74\u5ea6302\u53f7\u6771\u90e8\u5730\u533a\u5730\u8cea\u8abf\u67fb\u305d\u306e3","client_name":"\u56fd\u571f\u4ea4\u901a\u7701\u4e2d\u90e8\u5730\u65b9\u6574\u5099\u5c40\u611b\u77e5\u56fd\u9053\u4e8b\u52d9\u6240","boring_xml_url":40,"boring_view_url":1,"soilmap_view_url":null,"soiltest_xml_url":0,"soiltest_view_url":0},{"id":167831,"code":"B4KJ201801005-6080","latitude":"35.1507517","longitude":"137.0012825","source_code":"CB52375070007","project_name":"","survey_name":"\u5e73\u62107\u5e74\u5ea6302\u53f7\u6771\u90e8\u5730\u533a\u5730\u8cea\u8abf\u67fb\u305d\u306e3","client_name":"\u56fd\u571f\u4ea4\u901a\u7701\u4e2d\u90e8\u5730\u65b9\u6574\u5099\u5c40\u611b\u77e5\u56fd\u9053\u4e8b\u52d9\u6240","boring_xml_url":40,"boring_view_url":1,"soilmap_view_url":null,"soiltest_xml_url":0,"soiltest_view_url":0},{"id":167830,"code":"B4KJ201801005-6079","latitude":"35.1505017","longitude":"137.0014214","source_code":"CB52375070006","project_name":"","survey_name":"\u5e73\u62107\u5e74\u5ea6302\u53f7\u6771\u90e8\u5730\u533a\u5730\u8cea\u8abf\u67fb\u305d\u306e3","client_name":"\u56fd\u571f\u4ea4\u901a\u7701\u4e2d\u90e8\u5730\u65b9\u6574\u5099\u5c40\u611b\u77e5\u56fd\u9053\u4e8b\u52d9\u6240","boring_xml_url":40,"boring_view_url":1,"soilmap_view_url":null,"soiltest_xml_url":0,"soiltest_view_url":0},{"id":167829,"code":"B4KJ201801005-6078","latitude":"35.1507517","longitude":"137.0015603","source_code":"CB52375070005","project_name":"","survey_name":"\u5e73\u62107\u5e74\u5ea6302\u53f7\u6771\u90e8\u5730\u533a\u5730\u8cea\u8abf\u67fb\u305d\u306e3","client_name":"\u56fd\u571f\u4ea4\u901a\u7701\u4e2d\u90e8\u5730\u65b9\u6574\u5099\u5c40\u611b\u77e5\u56fd\u9053\u4e8b\u52d9\u6240","boring_xml_url":40,"boring_view_url":1,"soilmap_view_url":null,"soiltest_xml_url":0,"soiltest_view_url":0},{"id":167828,"code":"B4KJ201801005-6077","latitude":"35.151085","longitude":"137.0014214","source_code":"CB52375070004","project_name":"","survey_name":"\u5e73\u62107\u5e74\u5ea6302\u53f7\u6771\u90e8\u5730\u533a\u5730\u8cea\u8abf\u67fb\u305d\u306e3","client_name":"\u56fd\u571f\u4ea4\u901a\u7701\u4e2d\u90e8\u5730\u65b9\u6574\u5099\u5c40\u611b\u77e5\u56fd\u9053\u4e8b\u52d9\u6240","boring_xml_url":40,"boring_view_url":1,"soilmap_view_url":null,"soiltest_xml_url":0,"soiltest_view_url":0},{"id":167827,"code":"B4KJ201801005-6076","latitude":"35.1509739","longitude":"137.0016992","source_code":"CB52375070003","project_name":"","survey_name":"\u5e73\u62107\u5e74\u5ea6302\u53f7\u6771\u90e8\u5730\u533a\u5730\u8cea\u8abf\u67fb\u305d\u306e3","client_name":"\u56fd\u571f\u4ea4\u901a\u7701\u4e2d\u90e8\u5730\u65b9\u6574\u5099\u5c40\u611b\u77e5\u56fd\u9053\u4e8b\u52d9\u6240","boring_xml_url":40,"boring_view_url":1,"soilmap_view_url":null,"soiltest_xml_url":0,"soiltest_view_url":0},{"id":167826,"code":"B4KJ201801005-6075","latitude":"35.1454189","longitude":"136.9997828","source_code":"CB52375070002","project_name":"","survey_name":"\u5e73\u62107\u5e74\u5ea6 302\u53f7\u6771\u90e8\u5730\u533a\u5730\u8cea\u8abf\u67fb\u305d\u306e4","client_name":"\u56fd\u571f\u4ea4\u901a\u7701\u4e2d\u90e8\u5730\u65b9\u6574\u5099\u5c40\u611b\u77e5\u56fd\u9053\u4e8b\u52d9\u6240","boring_xml_url":40,"boring_view_url":1,"soilmap_view_url":null,"soiltest_xml_url":0,"soiltest_view_url":0},{"id":167825,"code":"B4KJ201801005-6074","latitude":"35.1478353","longitude":"136.9998106","source_code":"CB52375070001","project_name":"","survey_name":"\u662d\u548c57\u5e74\u5ea6302\u53f7\u6771\u90e8\u5730\u8cea\u8abf\u67fb","client_name":"\u56fd\u571f\u4ea4\u901a\u7701\u4e2d\u90e8\u5730\u65b9\u6574\u5099\u5c40\u611b\u77e5\u56fd\u9053\u4e8b\u52d9\u6240","boring_xml_url":40,"boring_view_url":1,"soilmap_view_url":null,"soiltest_xml_url":0,"soiltest_view_url":0},{"id":167824,"code":"B4KJ201801005-6073","latitude":"35.1443633","longitude":"136.9998106","source_code":"CB52375060019","project_name":"","survey_name":"\u5e73\u621012\u5e74\u5ea6 \u7ba1\u5185\u5730\u8cea\u8abf\u67fb","client_name":"\u56fd\u571f\u4ea4\u901a\u7701\u4e2d\u90e8\u5730\u65b9\u6574\u5099\u5c40\u611b\u77e5\u56fd\u9053\u4e8b\u52d9\u6240","boring_xml_url":40,"boring_view_url":1,"soilmap_view_url":null,"soiltest_xml_url":0,"soiltest_view_url":0},{"id":167823,"code":"B4KJ201801005-6072","latitude":"35.1443633","longitude":"136.9994497","source_code":"CB52375060018","project_name":"","survey_name":"\u5e73\u621012\u5e74\u5ea6 \u7ba1\u5185\u5730\u8cea\u8abf\u67fb","client_name":"\u56fd\u571f\u4ea4\u901a\u7701\u4e2d\u90e8\u5730\u65b9\u6574\u5099\u5c40\u611b\u77e5\u56fd\u9053\u4e8b\u52d9\u6240","boring_xml_url":40,"boring_view_url":1,"soilmap_view_url":null,"soiltest_xml_url":0,"soiltest_view_url":0},{"id":167822,"code":"B4KJ201801005-6071","latitude":"35.1429469","longitude":"136.9995331","source_code":"CB52375060011","project_name":"","survey_name":"\u5e73\u621011\u5e74\u5ea6302\u53f7\u5929\u767d\u5730\u533a\u5730\u8cea\u8abf\u67fb","client_name":"\u56fd\u571f\u4ea4\u901a\u7701\u4e2d\u90e8\u5730\u65b9\u6574\u5099\u5c40\u611b\u77e5\u56fd\u9053\u4e8b\u52d9\u6240","boring_xml_url":40,"boring_view_url":1,"soilmap_view_url":null,"soiltest_xml_url":0,"soiltest_view_url":0},{"id":167821,"code":"B4KJ201801005-6070","latitude":"35.1366142","longitude":"137.0004497","source_code":"CB52375060010","project_name":"","survey_name":"\u5e73\u62107\u5e74\u5ea6 302\u53f7\u6771\u90e8\u5730\u533a\u5730\u8cea\u8abf\u67fb\u305d\u306e4","client_name":"\u56fd\u571f\u4ea4\u901a\u7701\u4e2d\u90e8\u5730\u65b9\u6574\u5099\u5c40\u611b\u77e5\u56fd\u9053\u4e8b\u52d9\u6240","boring_xml_url":40,"boring_view_url":1,"soilmap_view_url":null,"soiltest_xml_url":0,"soiltest_view_url":0},{"id":167820,"code":"B4KJ201801005-6069","latitude":"35.1374197","longitude":"136.9996442","source_code":"CB52375060009","project_name":"","survey_name":"\u5e73\u62107\u5e74\u5ea6 302\u53f7\u6771\u90e8\u5730\u533a\u5730\u8cea\u8abf\u67fb\u305d\u306e4","client_name":"\u56fd\u571f\u4ea4\u901a\u7701\u4e2d\u90e8\u5730\u65b9\u6574\u5099\u5c40\u611b\u77e5\u56fd\u9053\u4e8b\u52d9\u6240","boring_xml_url":40,"boring_view_url":1,"soilmap_view_url":null,"soiltest_xml_url":0,"soiltest_view_url":0},{"id":167819,"code":"B4KJ201801005-6068","latitude":"35.1383086","longitude":"136.9997831","source_code":"CB52375060008","project_name":"","survey_name":"\u5e73\u62107\u5e74\u5ea6 302\u53f7\u6771\u90e8\u5730\u533a\u5730\u8cea\u8abf\u67fb\u305d\u306e4","client_name":"\u56fd\u571f\u4ea4\u901a\u7701\u4e2d\u90e8\u5730\u65b9\u6574\u5099\u5c40\u611b\u77e5\u56fd\u9053\u4e8b\u52d9\u6240","boring_xml_url":40,"boring_view_url":1,"soilmap_view_url":null,"soiltest_xml_url":0,"soiltest_view_url":0},{"id":167818,"code":"B4KJ201801005-6067","latitude":"35.1397806","longitude":"136.9995053","source_code":"CB52375060007","project_name":"","survey_name":"\u5e73\u62107\u5e74\u5ea6 302\u53f7\u6771\u90e8\u5730\u533a\u5730\u8cea\u8abf\u67fb\u305d\u306e4","client_name":"\u56fd\u571f\u4ea4\u901a\u7701\u4e2d\u90e8\u5730\u65b9\u6574\u5099\u5c40\u611b\u77e5\u56fd\u9053\u4e8b\u52d9\u6240","boring_xml_url":40,"boring_view_url":1,"soilmap_view_url":null,"soiltest_xml_url":0,"soiltest_view_url":0},{"id":167817,"code":"B4KJ201801005-6066","latitude":"35.1415858","longitude":"136.9993664","source_code":"CB52375060006","project_name":"","survey_name":"\u5e73\u62107\u5e74\u5ea6 302\u53f7\u6771\u90e8\u5730\u533a\u5730\u8cea\u8abf\u67fb\u305d\u306e4","client_name":"\u56fd\u571f\u4ea4\u901a\u7701\u4e2d\u90e8\u5730\u65b9\u6574\u5099\u5c40\u611b\u77e5\u56fd\u9053\u4e8b\u52d9\u6240","boring_xml_url":40,"boring_view_url":1,"soilmap_view_url":null,"soiltest_xml_url":0,"soiltest_view_url":0},{"id":167816,"code":"B4KJ201801005-6065","latitude":"35.1425025","longitude":"136.9993664","source_code":"CB52375060005","project_name":"","survey_name":"\u5e73\u62107\u5e74\u5ea6 302\u53f7\u6771\u90e8\u5730\u533a\u5730\u8cea\u8abf\u67fb\u305d\u306e4","client_name":"\u56fd\u571f\u4ea4\u901a\u7701\u4e2d\u90e8\u5730\u65b9\u6574\u5099\u5c40\u611b\u77e5\u56fd\u9053\u4e8b\u52d9\u6240","boring_xml_url":40,"boring_view_url":1,"soilmap_view_url":null,"soiltest_xml_url":0,"soiltest_view_url":0}]}}