{"header":{"xyz":{"source":[],"mosaic":false},"page":5093,"raw":{"soiltest_result":"0","bbox":"57.598333,109.544722,1.933333,163.806111","page":"5093"},"conditions":{"soiltest_result":0,"north":57.598333,"west":109.544722,"south":1.933333,"east":163.806111},"success":true,"message":""},"data":{"meta":{"total":212844,"page":5093,"pages":7095,"count":30},"values":[{"id":167785,"code":"B4KJ201801005-6034","latitude":"35.1362253","longitude":"136.9988111","source_code":"CB52375050005","project_name":"","survey_name":"\u662d\u548c62\u5e74\u5ea6302\u53f7\u6771\u90e8\u5730\u8cea\u8abf\u67fb\u305d\u306e2","client_name":"\u56fd\u571f\u4ea4\u901a\u7701\u4e2d\u90e8\u5730\u65b9\u6574\u5099\u5c40\u611b\u77e5\u56fd\u9053\u4e8b\u52d9\u6240","boring_xml_url":40,"boring_view_url":1,"soilmap_view_url":null,"soiltest_xml_url":0,"soiltest_view_url":0},{"id":167784,"code":"B4KJ201801005-6033","latitude":"35.1361144","longitude":"137.0068381","source_code":"CB52375050004","project_name":"","survey_name":"\u4e00\u822c\u56fd\u9053153\u53f7\u8c4a\u7530\u897f\u30d0\u30a4\u30d1\u30b9\u5730\u8cea\u8abf\u67fb","client_name":"\u56fd\u571f\u4ea4\u901a\u7701\u4e2d\u90e8\u5730\u65b9\u6574\u5099\u5c40\u540d\u56db\u56fd\u9053\u4e8b\u52d9\u6240","boring_xml_url":40,"boring_view_url":1,"soilmap_view_url":null,"soiltest_xml_url":0,"soiltest_view_url":0},{"id":167783,"code":"B4KJ201801005-6032","latitude":"35.1357811","longitude":"137.0064769","source_code":"CB52375050003","project_name":"","survey_name":"\u4e00\u822c\u56fd\u9053153\u53f7\u8c4a\u7530\u897f\u30d0\u30a4\u30d1\u30b9\u5730\u8cea\u8abf\u67fb","client_name":"\u56fd\u571f\u4ea4\u901a\u7701\u4e2d\u90e8\u5730\u65b9\u6574\u5099\u5c40\u540d\u56db\u56fd\u9053\u4e8b\u52d9\u6240","boring_xml_url":40,"boring_view_url":1,"soilmap_view_url":null,"soiltest_xml_url":0,"soiltest_view_url":0},{"id":167782,"code":"B4KJ201801005-6031","latitude":"35.1360867","longitude":"137.0000886","source_code":"CB52375050002","project_name":"","survey_name":"\u662d\u548c57\u5e74\u5ea6302\u53f7\u6771\u90e8\u5730\u8cea\u8abf\u67fb","client_name":"\u56fd\u571f\u4ea4\u901a\u7701\u4e2d\u90e8\u5730\u65b9\u6574\u5099\u5c40\u611b\u77e5\u56fd\u9053\u4e8b\u52d9\u6240","boring_xml_url":40,"boring_view_url":1,"soilmap_view_url":null,"soiltest_xml_url":0,"soiltest_view_url":0},{"id":167781,"code":"B4KJ201801005-6030","latitude":"35.1351978","longitude":"136.9993944","source_code":"CB52375050001","project_name":"","survey_name":"\u662d\u548c57\u5e74\u5ea6302\u53f7\u6771\u90e8\u5730\u8cea\u8abf\u67fb","client_name":"\u56fd\u571f\u4ea4\u901a\u7701\u4e2d\u90e8\u5730\u65b9\u6574\u5099\u5c40\u611b\u77e5\u56fd\u9053\u4e8b\u52d9\u6240","boring_xml_url":40,"boring_view_url":1,"soilmap_view_url":null,"soiltest_xml_url":0,"soiltest_view_url":0},{"id":167780,"code":"B4KJ201801005-6029","latitude":"35.1279208","longitude":"137.0000058","source_code":"CB52375040009","project_name":"","survey_name":"\u5e73\u621012\u5e74\u5ea6 \u7ba1\u5185\u5730\u8cea\u8abf\u67fb","client_name":"\u56fd\u571f\u4ea4\u901a\u7701\u4e2d\u90e8\u5730\u65b9\u6574\u5099\u5c40\u611b\u77e5\u56fd\u9053\u4e8b\u52d9\u6240","boring_xml_url":40,"boring_view_url":1,"soilmap_view_url":null,"soiltest_xml_url":0,"soiltest_view_url":0},{"id":167779,"code":"B4KJ201801005-6028","latitude":"35.1205328","longitude":"137.0002836","source_code":"CB52375040005","project_name":"","survey_name":"\u5e73\u62108\u5e74\u5ea6302\u53f7\u6771\u5357\u90e8\u5730\u533a\u5730\u8cea\u8abf\u67fb\u305d\u306e1","client_name":"\u56fd\u571f\u4ea4\u901a\u7701\u4e2d\u90e8\u5730\u65b9\u6574\u5099\u5c40\u611b\u77e5\u56fd\u9053\u4e8b\u52d9\u6240","boring_xml_url":40,"boring_view_url":1,"soilmap_view_url":null,"soiltest_xml_url":0,"soiltest_view_url":0},{"id":167778,"code":"B4KJ201801005-6027","latitude":"35.1235047","longitude":"137.0003392","source_code":"CB52375040004","project_name":"","survey_name":"\u5e73\u62108\u5e74\u5ea6302\u53f7\u6771\u5357\u90e8\u5730\u533a\u5730\u8cea\u8abf\u67fb\u305d\u306e1","client_name":"\u56fd\u571f\u4ea4\u901a\u7701\u4e2d\u90e8\u5730\u65b9\u6574\u5099\u5c40\u611b\u77e5\u56fd\u9053\u4e8b\u52d9\u6240","boring_xml_url":40,"boring_view_url":1,"soilmap_view_url":null,"soiltest_xml_url":0,"soiltest_view_url":0},{"id":167777,"code":"B4KJ201801005-6026","latitude":"35.1256433","longitude":"137.0003114","source_code":"CB52375040003","project_name":"","survey_name":"\u5e73\u62108\u5e74\u5ea6302\u53f7\u6771\u5357\u90e8\u5730\u533a\u5730\u8cea\u8abf\u67fb\u305d\u306e1","client_name":"\u56fd\u571f\u4ea4\u901a\u7701\u4e2d\u90e8\u5730\u65b9\u6574\u5099\u5c40\u611b\u77e5\u56fd\u9053\u4e8b\u52d9\u6240","boring_xml_url":40,"boring_view_url":1,"soilmap_view_url":null,"soiltest_xml_url":0,"soiltest_view_url":0},{"id":167776,"code":"B4KJ201801005-6025","latitude":"35.1269764","longitude":"137.0000892","source_code":"CB52375040002","project_name":"","survey_name":"\u5e73\u62108\u5e74\u5ea6302\u53f7\u6771\u5357\u90e8\u5730\u533a\u5730\u8cea\u8abf\u67fb\u305d\u306e1","client_name":"\u56fd\u571f\u4ea4\u901a\u7701\u4e2d\u90e8\u5730\u65b9\u6574\u5099\u5c40\u611b\u77e5\u56fd\u9053\u4e8b\u52d9\u6240","boring_xml_url":40,"boring_view_url":1,"soilmap_view_url":null,"soiltest_xml_url":0,"soiltest_view_url":0},{"id":167775,"code":"B4KJ201801005-6024","latitude":"35.1276431","longitude":"137.0003111","source_code":"CB52375040001","project_name":"","survey_name":"\u662d\u548c63\u5e74\u5ea6302\u53f7\u6771\u5357\u90e8\u5730\u8cea\u8abf\u67fb","client_name":"\u56fd\u571f\u4ea4\u901a\u7701\u4e2d\u90e8\u5730\u65b9\u6574\u5099\u5c40\u611b\u77e5\u56fd\u9053\u4e8b\u52d9\u6240","boring_xml_url":40,"boring_view_url":1,"soilmap_view_url":null,"soiltest_xml_url":0,"soiltest_view_url":0},{"id":167774,"code":"B4KJ201801005-6023","latitude":"35.1181997","longitude":"137.0002006","source_code":"CB52375030009","project_name":"","survey_name":"\u5e73\u621010\u5e74\u5ea6302\u53f7\u5929\u767d\u4e0b\u5c71\u5171\u540c\u6e9d\u5de5\u4e8b\u306b\u4f34\u3046\u5730\u8cea\u8abf\u67fb","client_name":"\u56fd\u571f\u4ea4\u901a\u7701\u4e2d\u90e8\u5730\u65b9\u6574\u5099\u5c40\u611b\u77e5\u56fd\u9053\u4e8b\u52d9\u6240","boring_xml_url":40,"boring_view_url":1,"soilmap_view_url":null,"soiltest_xml_url":0,"soiltest_view_url":0},{"id":167773,"code":"B4KJ201801005-6022","latitude":"35.1137558","longitude":"136.9985619","source_code":"CB52375030008","project_name":"","survey_name":"\u5e73\u621010\u5e74\u5ea6302\u53f7\u5929\u767d\u4e2d\u5e73\u5171\u540c\u6e9d\u5de5\u4e8b\u306b\u4f34\u3046\u5730\u8cea\u8abf\u67fb","client_name":"\u56fd\u571f\u4ea4\u901a\u7701\u4e2d\u90e8\u5730\u65b9\u6574\u5099\u5c40\u611b\u77e5\u56fd\u9053\u4e8b\u52d9\u6240","boring_xml_url":40,"boring_view_url":1,"soilmap_view_url":null,"soiltest_xml_url":0,"soiltest_view_url":0},{"id":167772,"code":"B4KJ201801005-6021","latitude":"35.1168108","longitude":"137.0001728","source_code":"CB52375030007","project_name":"","survey_name":"\u5e73\u621011\u5e74\u5ea6302\u53f7\u5929\u767d\u5730\u533a\u5730\u8cea\u8abf\u67fb","client_name":"\u56fd\u571f\u4ea4\u901a\u7701\u4e2d\u90e8\u5730\u65b9\u6574\u5099\u5c40\u611b\u77e5\u56fd\u9053\u4e8b\u52d9\u6240","boring_xml_url":40,"boring_view_url":1,"soilmap_view_url":null,"soiltest_xml_url":0,"soiltest_view_url":0},{"id":167771,"code":"B4KJ201801005-6020","latitude":"35.119755","longitude":"137.0003392","source_code":"CB52375030006","project_name":"","survey_name":"\u5e73\u621010\u5e74\u5ea6302\u53f7\u5929\u767d\u4e0b\u5c71\u5171\u540c\u6e9d\u5de5\u4e8b\u306b\u4f34\u3046\u5730\u8cea\u8abf\u67fb","client_name":"\u56fd\u571f\u4ea4\u901a\u7701\u4e2d\u90e8\u5730\u65b9\u6574\u5099\u5c40\u611b\u77e5\u56fd\u9053\u4e8b\u52d9\u6240","boring_xml_url":40,"boring_view_url":1,"soilmap_view_url":null,"soiltest_xml_url":0,"soiltest_view_url":0},{"id":167770,"code":"B4KJ201801005-6019","latitude":"35.11595","longitude":"136.999645","source_code":"CB52375030005","project_name":"","survey_name":"\u5e73\u621010\u5e74\u5ea6302\u53f7\u5929\u767d\u4e2d\u5e73\u5317\u5171\u540c\u6e9d\u5de5\u4e8b\u306b\u4f34\u3046\u5730\u8cea\u8abf\u67fb","client_name":"\u56fd\u571f\u4ea4\u901a\u7701\u4e2d\u90e8\u5730\u65b9\u6574\u5099\u5c40\u611b\u77e5\u56fd\u9053\u4e8b\u52d9\u6240","boring_xml_url":40,"boring_view_url":1,"soilmap_view_url":null,"soiltest_xml_url":0,"soiltest_view_url":0},{"id":167769,"code":"B4KJ201801005-6018","latitude":"35.1191997","longitude":"137.0003394","source_code":"CB52375030004","project_name":"","survey_name":"\u5e73\u621010\u5e74\u5ea6302\u53f7\u5929\u767d\u4e0b\u5c71\u5171\u540c\u6e9d\u5de5\u4e8b\u306b\u4f34\u3046\u5730\u8cea\u8abf\u67fb","client_name":"\u56fd\u571f\u4ea4\u901a\u7701\u4e2d\u90e8\u5730\u65b9\u6574\u5099\u5c40\u611b\u77e5\u56fd\u9053\u4e8b\u52d9\u6240","boring_xml_url":40,"boring_view_url":1,"soilmap_view_url":null,"soiltest_xml_url":0,"soiltest_view_url":0},{"id":167768,"code":"B4KJ201801005-6017","latitude":"35.1150611","longitude":"136.9992283","source_code":"CB52375030003","project_name":"","survey_name":"\u5e73\u621010\u5e74\u5ea6302\u53f7\u5929\u767d\u4e2d\u5e73\u5171\u540c\u6e9d\u5de5\u4e8b\u306b\u4f34\u3046\u5730\u8cea\u8abf\u67fb","client_name":"\u56fd\u571f\u4ea4\u901a\u7701\u4e2d\u90e8\u5730\u65b9\u6574\u5099\u5c40\u611b\u77e5\u56fd\u9053\u4e8b\u52d9\u6240","boring_xml_url":40,"boring_view_url":1,"soilmap_view_url":null,"soiltest_xml_url":0,"soiltest_view_url":0},{"id":167767,"code":"B4KJ201801005-6016","latitude":"35.1173108","longitude":"137.0000617","source_code":"CB52375030002","project_name":"","survey_name":"\u5e73\u621010\u5e74\u5ea6302\u53f7\u5929\u767d\u4e2d\u5e73\u5317\u5171\u540c\u6e9d\u5de5\u4e8b\u306b\u4f34\u3046\u5730\u8cea\u8abf\u67fb","client_name":"\u56fd\u571f\u4ea4\u901a\u7701\u4e2d\u90e8\u5730\u65b9\u6574\u5099\u5c40\u611b\u77e5\u56fd\u9053\u4e8b\u52d9\u6240","boring_xml_url":40,"boring_view_url":1,"soilmap_view_url":null,"soiltest_xml_url":0,"soiltest_view_url":0},{"id":167766,"code":"B4KJ201801005-6015","latitude":"35.1118947","longitude":"136.9981453","source_code":"CB52375030001","project_name":"","survey_name":"\u5e73\u621011\u5e74\u5ea6302\u53f7\u5929\u767d\u5730\u533a\u5730\u8cea\u8abf\u67fb","client_name":"\u56fd\u571f\u4ea4\u901a\u7701\u4e2d\u90e8\u5730\u65b9\u6574\u5099\u5c40\u611b\u77e5\u56fd\u9053\u4e8b\u52d9\u6240","boring_xml_url":40,"boring_view_url":1,"soilmap_view_url":null,"soiltest_xml_url":0,"soiltest_view_url":0},{"id":167765,"code":"B4KJ201801005-6014","latitude":"35.1082294","longitude":"137.0391975","source_code":"CB52375023001","project_name":"","survey_name":"\u4e00\u822c\u56fd\u9053153\u53f7\u4e09\u597d\u5730\u533a\u5730\u8cea\u8abf\u67fb","client_name":"\u56fd\u571f\u4ea4\u901a\u7701\u4e2d\u90e8\u5730\u65b9\u6574\u5099\u5c40\u540d\u56db\u56fd\u9053\u4e8b\u52d9\u6240","boring_xml_url":40,"boring_view_url":1,"soilmap_view_url":null,"soiltest_xml_url":0,"soiltest_view_url":0},{"id":167764,"code":"B4KJ201801005-6013","latitude":"35.0989814","longitude":"137.0752225","source_code":"CB52375016005","project_name":"","survey_name":"\u662d\u548c53\u5e74\u5ea6,\u8c4a\u7530\u897f\u30d0\u30a4\u30d1\u30b9\u6771\u90f7\u5730\u533a\u5730\u8cea\u8abf\u67fb","client_name":"\u56fd\u571f\u4ea4\u901a\u7701\u4e2d\u90e8\u5730\u65b9\u6574\u5099\u5c40\u540d\u56db\u56fd\u9053\u4e8b\u52d9\u6240","boring_xml_url":40,"boring_view_url":1,"soilmap_view_url":null,"soiltest_xml_url":0,"soiltest_view_url":0},{"id":167763,"code":"B4KJ201801005-6012","latitude":"35.0994817","longitude":"137.0819997","source_code":"CB52375016004","project_name":"","survey_name":"\u662d\u548c55\u5e74\u5ea6\u4e38\u306e\u5185\u5171\u540c\u6e9d(\u305d\u306e3)\u5de5\u533a\u4ed62\u4ef6\u5730\u8cea\u8abf\u67fb","client_name":"\u56fd\u571f\u4ea4\u901a\u7701\u4e2d\u90e8\u5730\u65b9\u6574\u5099\u5c40\u540d\u53e4\u5c4b\u56fd\u9053\u4e8b\u52d9\u6240","boring_xml_url":40,"boring_view_url":1,"soilmap_view_url":null,"soiltest_xml_url":0,"soiltest_view_url":0},{"id":167762,"code":"B4KJ201801005-6011","latitude":"35.0996761","longitude":"137.0814719","source_code":"CB52375016003","project_name":"","survey_name":"\u662d\u548c55\u5e74\u5ea6\u4e38\u306e\u5185\u5171\u540c\u6e9d(\u305d\u306e3)\u5de5\u533a\u4ed62\u4ef6\u5730\u8cea\u8abf\u67fb","client_name":"\u56fd\u571f\u4ea4\u901a\u7701\u4e2d\u90e8\u5730\u65b9\u6574\u5099\u5c40\u540d\u53e4\u5c4b\u56fd\u9053\u4e8b\u52d9\u6240","boring_xml_url":40,"boring_view_url":1,"soilmap_view_url":null,"soiltest_xml_url":0,"soiltest_view_url":0},{"id":167761,"code":"B4KJ201801005-6010","latitude":"35.0998428","longitude":"137.0809164","source_code":"CB52375016002","project_name":"","survey_name":"\u662d\u548c55\u5e74\u5ea6\u4e38\u306e\u5185\u5171\u540c\u6e9d(\u305d\u306e3)\u5de5\u533a\u4ed62\u4ef6\u5730\u8cea\u8abf\u67fb","client_name":"\u56fd\u571f\u4ea4\u901a\u7701\u4e2d\u90e8\u5730\u65b9\u6574\u5099\u5c40\u540d\u53e4\u5c4b\u56fd\u9053\u4e8b\u52d9\u6240","boring_xml_url":40,"boring_view_url":1,"soilmap_view_url":null,"soiltest_xml_url":0,"soiltest_view_url":0},{"id":167760,"code":"B4KJ201801005-6009","latitude":"35.0953983","longitude":"137.0653344","source_code":"CB52375015235","project_name":"","survey_name":"\u662d\u548c53\u5e74\u5ea6\u8c4a\u7530\u897f\u30d0\u30a4\u30d1\u30b9\u6771\u90f7\u5730\u533a\u5730\u8cea\u8abf\u67fb","client_name":"\u56fd\u571f\u4ea4\u901a\u7701\u4e2d\u90e8\u5730\u65b9\u6574\u5099\u5c40\u540d\u56db\u56fd\u9053\u4e8b\u52d9\u6240","boring_xml_url":40,"boring_view_url":1,"soilmap_view_url":null,"soiltest_xml_url":0,"soiltest_view_url":0},{"id":167759,"code":"B4KJ201801005-6008","latitude":"35.0987314","longitude":"137.0697231","source_code":"CB52375015224","project_name":"","survey_name":"\u662d\u548c53\u5e74\u5ea6\u8c4a\u7530\u30d0\u30a4\u30d1\u30b9\u6771\u90f7\u5730\u533a\u5730\u8cea\u8abf\u67fb","client_name":"\u56fd\u571f\u4ea4\u901a\u7701\u4e2d\u90e8\u5730\u65b9\u6574\u5099\u5c40\u540d\u56db\u56fd\u9053\u4e8b\u52d9\u6240","boring_xml_url":40,"boring_view_url":1,"soilmap_view_url":null,"soiltest_xml_url":0,"soiltest_view_url":0},{"id":167758,"code":"B4KJ201801005-6007","latitude":"35.1014531","longitude":"137.0626678","source_code":"CB52375015223","project_name":"","survey_name":"\u662d\u548c42\u5e74\u5ea6\u8c4a\u7530\u30d0\u30a4\u30d1\u30b9(\u548c\u5408\u3001\u5e73\u6238\u6a4b\u5730\u533a)\u5730\u8cea\u8abf\u67fb","client_name":"\u56fd\u571f\u4ea4\u901a\u7701\u4e2d\u90e8\u5730\u65b9\u6574\u5099\u5c40\u540d\u56db\u56fd\u9053\u4e8b\u52d9\u6240","boring_xml_url":40,"boring_view_url":1,"soilmap_view_url":null,"soiltest_xml_url":0,"soiltest_view_url":0},{"id":167757,"code":"B4KJ201801005-6006","latitude":"35.0990647","longitude":"137.0657789","source_code":"CB52375015008","project_name":"","survey_name":"\u662d\u548c53\u5e74\u5ea6\u8c4a\u7530\u897f\u30d0\u30a4\u30d1\u30b9\u6771\u90f7\u5730\u533a\u5730\u8cea\u8abf\u67fb","client_name":"\u56fd\u571f\u4ea4\u901a\u7701\u4e2d\u90e8\u5730\u65b9\u6574\u5099\u5c40\u540d\u56db\u56fd\u9053\u4e8b\u52d9\u6240","boring_xml_url":40,"boring_view_url":1,"soilmap_view_url":null,"soiltest_xml_url":0,"soiltest_view_url":0},{"id":167756,"code":"B4KJ201801005-6005","latitude":"35.0990647","longitude":"137.0657789","source_code":"CB52375015007","project_name":"","survey_name":"\u4e00\u822c\u56fd\u9053153\u53f7\u4e09\u597d\u5730\u533a\u5730\u8cea\u8abf\u67fb","client_name":"\u56fd\u571f\u4ea4\u901a\u7701\u4e2d\u90e8\u5730\u65b9\u6574\u5099\u5c40\u540d\u56db\u56fd\u9053\u4e8b\u52d9\u6240","boring_xml_url":40,"boring_view_url":1,"soilmap_view_url":null,"soiltest_xml_url":0,"soiltest_view_url":0}]}}