{"header":{"xyz":{"source":[],"mosaic":false},"page":5099,"raw":{"soiltest_result":"0","bbox":"57.598333,109.544722,1.933333,163.806111","page":"5099"},"conditions":{"soiltest_result":0,"north":57.598333,"west":109.544722,"south":1.933333,"east":163.806111},"success":true,"message":""},"data":{"meta":{"total":212844,"page":5099,"pages":7095,"count":30},"values":[{"id":167605,"code":"B4KJ201801005-5854","latitude":"35.0658197","longitude":"137.1184144","source_code":"CB52374079001","project_name":"","survey_name":"\u4e00\u822c\u56fd\u9053155\u53f7\u6df1\u7530\u5c71\u5730\u533a\u5730\u8cea\u8abf\u67fb","client_name":"\u56fd\u571f\u4ea4\u901a\u7701\u4e2d\u90e8\u5730\u65b9\u6574\u5099\u5c40\u540d\u56db\u56fd\u9053\u4e8b\u52d9\u6240","boring_xml_url":40,"boring_view_url":1,"soilmap_view_url":null,"soiltest_xml_url":0,"soiltest_view_url":0},{"id":167604,"code":"B4KJ201801005-5853","latitude":"35.0595147","longitude":"137.1101097","source_code":"CB52374069006","project_name":"","survey_name":"\u5e73\u62104\u5e74\u5ea6155\u53f7\u8056\u5fc3\u5730\u533a\u5730\u8cea\u8abf\u67fb","client_name":"\u56fd\u571f\u4ea4\u901a\u7701\u4e2d\u90e8\u5730\u65b9\u6574\u5099\u5c40\u540d\u56db\u56fd\u9053\u4e8b\u52d9\u6240","boring_xml_url":40,"boring_view_url":1,"soilmap_view_url":null,"soiltest_xml_url":0,"soiltest_view_url":0},{"id":167603,"code":"B4KJ201801005-5852","latitude":"35.0615144","longitude":"137.1131372","source_code":"CB52374069005","project_name":"","survey_name":"\u662d\u548c63\u5e74\u5ea6\u4e00\u822c\u56fd\u9053155\u53f7\u8056\u5fc3\u5730\u533a\u5730\u8cea\u8abf\u67fb","client_name":"\u56fd\u571f\u4ea4\u901a\u7701\u4e2d\u90e8\u5730\u65b9\u6574\u5099\u5c40\u540d\u56db\u56fd\u9053\u4e8b\u52d9\u6240","boring_xml_url":40,"boring_view_url":1,"soilmap_view_url":null,"soiltest_xml_url":0,"soiltest_view_url":0},{"id":167602,"code":"B4KJ201801005-5851","latitude":"35.06132","longitude":"137.112665","source_code":"CB52374069004","project_name":"","survey_name":"\u662d\u548c63\u5e74\u5ea6\u4e00\u822c\u56fd\u9053155\u53f7\u8056\u5fc3\u5730\u533a\u5730\u8cea\u8abf\u67fb","client_name":"\u56fd\u571f\u4ea4\u901a\u7701\u4e2d\u90e8\u5730\u65b9\u6574\u5099\u5c40\u540d\u56db\u56fd\u9053\u4e8b\u52d9\u6240","boring_xml_url":40,"boring_view_url":1,"soilmap_view_url":null,"soiltest_xml_url":0,"soiltest_view_url":0},{"id":167601,"code":"B4KJ201801005-5850","latitude":"35.0609589","longitude":"137.112165","source_code":"CB52374069003","project_name":"","survey_name":"\u662d\u548c63\u5e74\u5ea6\u4e00\u822c\u56fd\u9053155\u53f7\u8056\u5fc3\u5730\u533a\u5730\u8cea\u8abf\u67fb","client_name":"\u56fd\u571f\u4ea4\u901a\u7701\u4e2d\u90e8\u5730\u65b9\u6574\u5099\u5c40\u540d\u56db\u56fd\u9053\u4e8b\u52d9\u6240","boring_xml_url":40,"boring_view_url":1,"soilmap_view_url":null,"soiltest_xml_url":0,"soiltest_view_url":0},{"id":167600,"code":"B4KJ201801005-5849","latitude":"35.0590425","longitude":"137.1095819","source_code":"CB52374069002","project_name":"","survey_name":"\u4e00\u822c\u56fd\u9053155\u53f7\u4e0a\u4e18\u5730\u533a\u5730\u8cea\u8abf\u67fb","client_name":"\u56fd\u571f\u4ea4\u901a\u7701\u4e2d\u90e8\u5730\u65b9\u6574\u5099\u5c40\u540d\u56db\u56fd\u9053\u4e8b\u52d9\u6240","boring_xml_url":40,"boring_view_url":1,"soilmap_view_url":null,"soiltest_xml_url":0,"soiltest_view_url":0},{"id":167599,"code":"B4KJ201801005-5848","latitude":"35.0595981","longitude":"137.1105542","source_code":"CB52374069001","project_name":"","survey_name":"\u662d\u548c56\u5e74\u5ea6\u4e00\u822c\u56fd\u9053155\u53f7\u9ad8\u5ca1\u59162\u5730\u533a\u5730\u8cea\u8abf\u67fb","client_name":"\u56fd\u571f\u4ea4\u901a\u7701\u4e2d\u90e8\u5730\u65b9\u6574\u5099\u5c40\u540d\u56db\u56fd\u9053\u4e8b\u52d9\u6240","boring_xml_url":40,"boring_view_url":1,"soilmap_view_url":null,"soiltest_xml_url":0,"soiltest_view_url":0},{"id":167598,"code":"B4KJ201801005-5847","latitude":"35.0581814","longitude":"137.10886","source_code":"CB52374068009","project_name":"","survey_name":"\u662d\u548c63\u5e74\u5ea6\u4e00\u822c\u56fd\u9053155\u53f7\u8056\u5fc3\u5730\u533a\u5730\u8cea\u8abf\u67fb","client_name":"\u56fd\u571f\u4ea4\u901a\u7701\u4e2d\u90e8\u5730\u65b9\u6574\u5099\u5c40\u540d\u56db\u56fd\u9053\u4e8b\u52d9\u6240","boring_xml_url":40,"boring_view_url":1,"soilmap_view_url":null,"soiltest_xml_url":0,"soiltest_view_url":0},{"id":167597,"code":"B4KJ201801005-5846","latitude":"35.054265","longitude":"137.1061936","source_code":"CB52374068008","project_name":"","survey_name":"\u662d\u548c61\u5e74\u5ea6\u4e00\u822c\u56fd\u9053155\u53f7\u5824\u5730\u533a\u5730\u8cea\u8abf\u67fb","client_name":"\u56fd\u571f\u4ea4\u901a\u7701\u4e2d\u90e8\u5730\u65b9\u6574\u5099\u5c40\u540d\u56db\u56fd\u9053\u4e8b\u52d9\u6240","boring_xml_url":40,"boring_view_url":1,"soilmap_view_url":null,"soiltest_xml_url":0,"soiltest_view_url":0},{"id":167596,"code":"B4KJ201801005-5845","latitude":"35.0537931","longitude":"137.1059158","source_code":"CB52374068007","project_name":"","survey_name":"\u662d\u548c61\u5e74\u5ea6\u4e00\u822c\u56fd\u9053155\u53f7\u5824\u5730\u533a\u5730\u8cea\u8abf\u67fb","client_name":"\u56fd\u571f\u4ea4\u901a\u7701\u4e2d\u90e8\u5730\u65b9\u6574\u5099\u5c40\u540d\u56db\u56fd\u9053\u4e8b\u52d9\u6240","boring_xml_url":40,"boring_view_url":1,"soilmap_view_url":null,"soiltest_xml_url":0,"soiltest_view_url":0},{"id":167595,"code":"B4KJ201801005-5844","latitude":"35.0579314","longitude":"137.1087211","source_code":"CB52374068006","project_name":"","survey_name":"\u4e00\u822c\u56fd\u9053155\u53f7\u4e0a\u4e18\u5730\u533a\u5730\u8cea\u8abf\u67fb","client_name":"\u56fd\u571f\u4ea4\u901a\u7701\u4e2d\u90e8\u5730\u65b9\u6574\u5099\u5c40\u540d\u56db\u56fd\u9053\u4e8b\u52d9\u6240","boring_xml_url":40,"boring_view_url":1,"soilmap_view_url":null,"soiltest_xml_url":0,"soiltest_view_url":0},{"id":167594,"code":"B4KJ201801005-5843","latitude":"35.0570981","longitude":"137.1080544","source_code":"CB52374068005","project_name":"","survey_name":"\u4e00\u822c\u56fd\u9053155\u53f7\u4e0a\u4e18\u5730\u533a\u5730\u8cea\u8abf\u67fb","client_name":"\u56fd\u571f\u4ea4\u901a\u7701\u4e2d\u90e8\u5730\u65b9\u6574\u5099\u5c40\u540d\u56db\u56fd\u9053\u4e8b\u52d9\u6240","boring_xml_url":40,"boring_view_url":1,"soilmap_view_url":null,"soiltest_xml_url":0,"soiltest_view_url":0},{"id":167593,"code":"B4KJ201801005-5842","latitude":"35.0560706","longitude":"137.1073044","source_code":"CB52374068004","project_name":"","survey_name":"\u4e00\u822c\u56fd\u9053155\u53f7\u4e0a\u4e18\u5730\u533a\u5730\u8cea\u8abf\u67fb","client_name":"\u56fd\u571f\u4ea4\u901a\u7701\u4e2d\u90e8\u5730\u65b9\u6574\u5099\u5c40\u540d\u56db\u56fd\u9053\u4e8b\u52d9\u6240","boring_xml_url":40,"boring_view_url":1,"soilmap_view_url":null,"soiltest_xml_url":0,"soiltest_view_url":0},{"id":167592,"code":"B4KJ201801005-5841","latitude":"35.0548761","longitude":"137.1065269","source_code":"CB52374068003","project_name":"","survey_name":"\u4e00\u822c\u56fd\u9053155\u53f7\u4e0a\u4e18\u5730\u533a\u5730\u8cea\u8abf\u67fb","client_name":"\u56fd\u571f\u4ea4\u901a\u7701\u4e2d\u90e8\u5730\u65b9\u6574\u5099\u5c40\u540d\u56db\u56fd\u9053\u4e8b\u52d9\u6240","boring_xml_url":40,"boring_view_url":1,"soilmap_view_url":null,"soiltest_xml_url":0,"soiltest_view_url":0},{"id":167591,"code":"B4KJ201801005-5840","latitude":"35.0534319","longitude":"137.1053603","source_code":"CB52374068002","project_name":"","survey_name":"\u4e00\u822c\u56fd\u905355\u53f7\u5824\u5730\u533a\u5730\u8cea\u8abf\u67fb","client_name":"\u56fd\u571f\u4ea4\u901a\u7701\u4e2d\u90e8\u5730\u65b9\u6574\u5099\u5c40\u540d\u56db\u56fd\u9053\u4e8b\u52d9\u6240","boring_xml_url":40,"boring_view_url":1,"soilmap_view_url":null,"soiltest_xml_url":0,"soiltest_view_url":0},{"id":167590,"code":"B4KJ201801005-5839","latitude":"35.0577647","longitude":"137.1083322","source_code":"CB52374068001","project_name":"","survey_name":"\u662d\u548c56\u5e74\u5ea6\u4e00\u822c\u56fd\u9053155\u53f7\u9ad8\u5ca1\u59162\u5730\u533a\u5730\u8cea\u8abf\u67fb","client_name":"\u56fd\u571f\u4ea4\u901a\u7701\u4e2d\u90e8\u5730\u65b9\u6574\u5099\u5c40\u540d\u56db\u56fd\u9053\u4e8b\u52d9\u6240","boring_xml_url":40,"boring_view_url":1,"soilmap_view_url":null,"soiltest_xml_url":0,"soiltest_view_url":0},{"id":167589,"code":"B4KJ201801005-5838","latitude":"35.0527375","longitude":"137.1050272","source_code":"CB52374058010","project_name":"","survey_name":"\u662d\u548c60\u5e74\u5ea6\u4e00\u822c\u56fd\u9053155\u53f7\u5824\u5730\u533a\u5730\u8cea\u8abf\u67fb","client_name":"\u56fd\u571f\u4ea4\u901a\u7701\u4e2d\u90e8\u5730\u65b9\u6574\u5099\u5c40\u540d\u56db\u56fd\u9053\u4e8b\u52d9\u6240","boring_xml_url":40,"boring_view_url":1,"soilmap_view_url":null,"soiltest_xml_url":0,"soiltest_view_url":0},{"id":167588,"code":"B4KJ201801005-5837","latitude":"35.0516264","longitude":"137.1040272","source_code":"CB52374058009","project_name":"","survey_name":"\u662d\u548c60\u5e74\u5ea6\u4e00\u822c\u56fd\u9053155\u53f7\u5824\u5730\u533a\u5730\u8cea\u8abf\u67fb","client_name":"\u56fd\u571f\u4ea4\u901a\u7701\u4e2d\u90e8\u5730\u65b9\u6574\u5099\u5c40\u540d\u56db\u56fd\u9053\u4e8b\u52d9\u6240","boring_xml_url":40,"boring_view_url":1,"soilmap_view_url":null,"soiltest_xml_url":0,"soiltest_view_url":0},{"id":167587,"code":"B4KJ201801005-5836","latitude":"35.0501822","longitude":"137.1032494","source_code":"CB52374058008","project_name":"","survey_name":"\u662d\u548c60\u5e74\u5ea6\u4e00\u822c\u56fd\u9053155\u53f7\u5824\u5730\u533a\u5730\u8cea\u8abf\u67fb","client_name":"\u56fd\u571f\u4ea4\u901a\u7701\u4e2d\u90e8\u5730\u65b9\u6574\u5099\u5c40\u540d\u56db\u56fd\u9053\u4e8b\u52d9\u6240","boring_xml_url":40,"boring_view_url":1,"soilmap_view_url":null,"soiltest_xml_url":0,"soiltest_view_url":0},{"id":167586,"code":"B4KJ201801005-5835","latitude":"35.0481822","longitude":"137.1018608","source_code":"CB52374058007","project_name":"","survey_name":"\u662d\u548c60\u5e74\u5ea6\u4e00\u822c\u56fd\u9053155\u53f7\u5824\u5730\u533a\u5730\u8cea\u8abf\u67fb","client_name":"\u56fd\u571f\u4ea4\u901a\u7701\u4e2d\u90e8\u5730\u65b9\u6574\u5099\u5c40\u540d\u56db\u56fd\u9053\u4e8b\u52d9\u6240","boring_xml_url":40,"boring_view_url":1,"soilmap_view_url":null,"soiltest_xml_url":0,"soiltest_view_url":0},{"id":167585,"code":"B4KJ201801005-5834","latitude":"35.0463769","longitude":"137.1005556","source_code":"CB52374058006","project_name":"","survey_name":"\u662d\u548c60\u5e74\u5ea6\u4e00\u822c\u56fd\u9053155\u53f7\u63d0\u5730\u533a\u5730\u8cea\u8abf\u67fb","client_name":"\u56fd\u571f\u4ea4\u901a\u7701\u4e2d\u90e8\u5730\u65b9\u6574\u5099\u5c40\u540d\u56db\u56fd\u9053\u4e8b\u52d9\u6240","boring_xml_url":40,"boring_view_url":1,"soilmap_view_url":null,"soiltest_xml_url":0,"soiltest_view_url":0},{"id":167584,"code":"B4KJ201801005-5833","latitude":"35.0522097","longitude":"137.104555","source_code":"CB52374058005","project_name":"","survey_name":"\u4e00\u822c\u56fd\u9053155\u53f7\u5824\u5730\u533a\u5730\u8cea\u8abf\u67fb","client_name":"\u56fd\u571f\u4ea4\u901a\u7701\u4e2d\u90e8\u5730\u65b9\u6574\u5099\u5c40\u540d\u56db\u56fd\u9053\u4e8b\u52d9\u6240","boring_xml_url":40,"boring_view_url":1,"soilmap_view_url":null,"soiltest_xml_url":0,"soiltest_view_url":0},{"id":167583,"code":"B4KJ201801005-5832","latitude":"35.0510986","longitude":"137.1038606","source_code":"CB52374058004","project_name":"","survey_name":"\u4e00\u822c\u56fd\u9053155\u53f7\u5824\u5730\u533a\u5730\u8cea\u8abf\u67fb","client_name":"\u56fd\u571f\u4ea4\u901a\u7701\u4e2d\u90e8\u5730\u65b9\u6574\u5099\u5c40\u540d\u56db\u56fd\u9053\u4e8b\u52d9\u6240","boring_xml_url":40,"boring_view_url":1,"soilmap_view_url":null,"soiltest_xml_url":0,"soiltest_view_url":0},{"id":167582,"code":"B4KJ201801005-5831","latitude":"35.04996","longitude":"137.1030828","source_code":"CB52374058003","project_name":"","survey_name":"\u4e00\u822c\u56fd\u9053155\u53f7\u5824\u5730\u533a\u5730\u8cea\u8abf\u67fb","client_name":"\u56fd\u571f\u4ea4\u901a\u7701\u4e2d\u90e8\u5730\u65b9\u6574\u5099\u5c40\u540d\u56db\u56fd\u9053\u4e8b\u52d9\u6240","boring_xml_url":40,"boring_view_url":1,"soilmap_view_url":null,"soiltest_xml_url":0,"soiltest_view_url":0},{"id":167581,"code":"B4KJ201801005-5830","latitude":"35.04871","longitude":"137.1022775","source_code":"CB52374058002","project_name":"","survey_name":"\u4e00\u822c\u56fd\u9053155\u53f7\u5824\u5730\u533a\u5730\u8cea\u8abf\u67fb","client_name":"\u56fd\u571f\u4ea4\u901a\u7701\u4e2d\u90e8\u5730\u65b9\u6574\u5099\u5c40\u540d\u56db\u56fd\u9053\u4e8b\u52d9\u6240","boring_xml_url":40,"boring_view_url":1,"soilmap_view_url":null,"soiltest_xml_url":0,"soiltest_view_url":0},{"id":167580,"code":"B4KJ201801005-5829","latitude":"35.0475158","longitude":"137.1021664","source_code":"CB52374058001","project_name":"","survey_name":"\u662d\u548c56\u5e74\u5ea6\u4e00\u822c\u56fd\u9053155\u53f7\u9ad8\u5ca1\u59162\u5730\u533a\u5730\u8cea\u8abf\u67fb","client_name":"\u56fd\u571f\u4ea4\u901a\u7701\u4e2d\u90e8\u5730\u65b9\u6574\u5099\u5c40\u540d\u56db\u56fd\u9053\u4e8b\u52d9\u6240","boring_xml_url":40,"boring_view_url":1,"soilmap_view_url":null,"soiltest_xml_url":0,"soiltest_view_url":0},{"id":167579,"code":"B4KJ201801005-5828","latitude":"35.0486522","longitude":"137.0026472","source_code":"CB52374050522","project_name":"","survey_name":"\u662d\u548c45\u5e74\u5ea6\u516b\u753a\u901a\u4ed65\u30f6\u6240\u5730\u8cea\u8abf\u67fb","client_name":"\u56fd\u571f\u4ea4\u901a\u7701\u4e2d\u90e8\u5730\u65b9\u6574\u5099\u5c40\u540d\u53e4\u5c4b\u56fd\u9053\u4e8b\u52d9\u6240","boring_xml_url":40,"boring_view_url":1,"soilmap_view_url":null,"soiltest_xml_url":0,"soiltest_view_url":0},{"id":167578,"code":"B4KJ201801005-5827","latitude":"35.0497075","longitude":"136.9995086","source_code":"CB52374050515","project_name":"","survey_name":"\u6a4b\u6881\u8a2d\u8a08\u59d4\u8a17\u5730\u8cea\u8abf\u67fb","client_name":"\u56fd\u571f\u4ea4\u901a\u7701\u4e2d\u90e8\u5730\u65b9\u6574\u5099\u5c40\u540d\u53e4\u5c4b\u56fd\u9053\u4e8b\u52d9\u6240","boring_xml_url":40,"boring_view_url":1,"soilmap_view_url":null,"soiltest_xml_url":0,"soiltest_view_url":0},{"id":167577,"code":"B4KJ201801005-5826","latitude":"35.0487078","longitude":"137.0028694","source_code":"CB52374050002","project_name":"","survey_name":"\u5e73\u62105\u5e74\u5ea6\u5927\u9ad8\u5171\u540c\u6e9d\u59161\u7b87\u6240\u5730\u8cea\u8abf\u67fb","client_name":"\u56fd\u571f\u4ea4\u901a\u7701\u4e2d\u90e8\u5730\u65b9\u6574\u5099\u5c40\u540d\u53e4\u5c4b\u56fd\u9053\u4e8b\u52d9\u6240","boring_xml_url":40,"boring_view_url":1,"soilmap_view_url":null,"soiltest_xml_url":0,"soiltest_view_url":0},{"id":167576,"code":"B4KJ201801005-5825","latitude":"35.0463469","longitude":"137.0049528","source_code":"CB52374050001","project_name":"","survey_name":"\u5e73\u62105\u5e74\u5ea6\u8c4a\u660e\u5171\u540c\u6e9d\u5730\u8cea\u8abf\u67fb","client_name":"\u56fd\u571f\u4ea4\u901a\u7701\u4e2d\u90e8\u5730\u65b9\u6574\u5099\u5c40\u540d\u53e4\u5c4b\u56fd\u9053\u4e8b\u52d9\u6240","boring_xml_url":40,"boring_view_url":1,"soilmap_view_url":null,"soiltest_xml_url":0,"soiltest_view_url":0}]}}