{"header":{"xyz":{"source":[],"mosaic":false},"page":5109,"raw":{"soiltest_result":"0","bbox":"57.598333,109.544722,1.933333,163.806111","page":"5109"},"conditions":{"soiltest_result":0,"north":57.598333,"west":109.544722,"south":1.933333,"east":163.806111},"success":true,"message":""},"data":{"meta":{"total":212844,"page":5109,"pages":7095,"count":30},"values":[{"id":167305,"code":"B4KJ201801005-5554","latitude":"34.8843814","longitude":"137.6621239","source_code":"CB52372553001","project_name":"","survey_name":"\u5e73\u621010\u5e74\u5ea6\u4e09\u9060\u9053\u8def\u5730\u8cea\u8abf\u67fb(\u305d\u306e1)","client_name":"\u56fd\u571f\u4ea4\u901a\u7701\u4e2d\u90e8\u5730\u65b9\u6574\u5099\u5c40\u6d5c\u677e\u6cb3\u5ddd\u56fd\u9053\u4e8b\u52d9\u6240","boring_xml_url":40,"boring_view_url":1,"soilmap_view_url":null,"soiltest_xml_url":0,"soiltest_view_url":0},{"id":167304,"code":"B4KJ201801005-5553","latitude":"34.8729886","longitude":"137.4522814","source_code":"CB52372346002","project_name":"","survey_name":"\u662d\u548c63\u5e74\u5ea6\u8c4a\u5ddd\u30b7\u30e3\u30e9\u5ddd\u6392\u6c34\u3072\u7ba1\u5de5\u4e8b\u5b9f\u65bd\u8a2d\u8a08\u696d\u52d9\u59d4\u8a17","client_name":"\u56fd\u571f\u4ea4\u901a\u7701\u4e2d\u90e8\u5730\u65b9\u6574\u5099\u5c40\u8c4a\u6a4b\u6cb3\u5ddd\u4e8b\u52d9\u6240","boring_xml_url":40,"boring_view_url":1,"soilmap_view_url":null,"soiltest_xml_url":0,"soiltest_view_url":0},{"id":167303,"code":"B4KJ201801005-5552","latitude":"34.8727108","longitude":"137.4522814","source_code":"CB52372346001","project_name":"","survey_name":"\u662d\u548c63\u5e74\u5ea6\u8c4a\u5ddd\u30b7\u30e3\u30e9\u5ddd\u6392\u6c34\u3072\u7ba1\u5de5\u4e8b\u5b9f\u65bd\u8a2d\u8a08\u696d\u52d9\u59d4\u8a17","client_name":"\u56fd\u571f\u4ea4\u901a\u7701\u4e2d\u90e8\u5730\u65b9\u6574\u5099\u5c40\u8c4a\u6a4b\u6cb3\u5ddd\u4e8b\u52d9\u6240","boring_xml_url":40,"boring_view_url":1,"soilmap_view_url":null,"soiltest_xml_url":0,"soiltest_view_url":0},{"id":167302,"code":"B4KJ201801005-5551","latitude":"34.89562","longitude":"137.2546586","source_code":"CB52372270003","project_name":"","survey_name":"\u4e00\u822c\u56fd\u90531\u53f7\u7adc\u57ce\u6a4b\u59161\u4ef6\u5730\u8cea\u8abf\u67fb","client_name":"\u56fd\u571f\u4ea4\u901a\u7701\u4e2d\u90e8\u5730\u65b9\u6574\u5099\u5c40\u611b\u77e5\u56fd\u9053\u4e8b\u52d9\u6240","boring_xml_url":40,"boring_view_url":1,"soilmap_view_url":null,"soiltest_xml_url":0,"soiltest_view_url":0},{"id":167301,"code":"B4KJ201801005-5550","latitude":"34.8953422","longitude":"137.2552419","source_code":"CB52372270002","project_name":"","survey_name":"\u4e00\u822c\u56fd\u90531\u53f7\u672c\u5bbf\u5730\u533a\u59162\u5730\u533a\u5730\u8cea\u8abf\u67fb","client_name":"\u56fd\u571f\u4ea4\u901a\u7701\u4e2d\u90e8\u5730\u65b9\u6574\u5099\u5c40\u611b\u77e5\u56fd\u9053\u4e8b\u52d9\u6240","boring_xml_url":40,"boring_view_url":1,"soilmap_view_url":null,"soiltest_xml_url":0,"soiltest_view_url":0},{"id":167300,"code":"B4KJ201801005-5549","latitude":"34.8949811","longitude":"137.2561586","source_code":"CB52372270001","project_name":"","survey_name":"\u4e00\u822c\u56fd\u90531\u53f7\u672c\u5bbf\u5730\u533a\u59162\u5730\u533a\u5730\u8cea\u8abf\u67fb","client_name":"\u56fd\u571f\u4ea4\u901a\u7701\u4e2d\u90e8\u5730\u65b9\u6574\u5099\u5c40\u611b\u77e5\u56fd\u9053\u4e8b\u52d9\u6240","boring_xml_url":40,"boring_view_url":1,"soilmap_view_url":null,"soiltest_xml_url":0,"soiltest_view_url":0},{"id":167299,"code":"B4KJ201801005-5548","latitude":"34.8916483","longitude":"137.2621861","source_code":"CB52372261952","project_name":"","survey_name":"\u662d\u548c46\u5e74\u5ea6\u4e8c\u5ddd\u9053\u8def3\u30f6\u6240\u5730\u8cea\u8abf\u67fb","client_name":"\u56fd\u571f\u4ea4\u901a\u7701\u4e2d\u90e8\u5730\u65b9\u6574\u5099\u5c40\u611b\u77e5\u56fd\u9053\u4e8b\u52d9\u6240","boring_xml_url":40,"boring_view_url":1,"soilmap_view_url":null,"soiltest_xml_url":0,"soiltest_view_url":0},{"id":167298,"code":"B4KJ201801005-5547","latitude":"34.8924817","longitude":"137.2611861","source_code":"CB52372261002","project_name":"","survey_name":"\u4e00\u822c\u56fd\u90531\u53f7\u672c\u5bbf\u5730\u533a\u59162\u5730\u533a\u5730\u8cea\u8abf\u67fb","client_name":"\u56fd\u571f\u4ea4\u901a\u7701\u4e2d\u90e8\u5730\u65b9\u6574\u5099\u5c40\u611b\u77e5\u56fd\u9053\u4e8b\u52d9\u6240","boring_xml_url":40,"boring_view_url":1,"soilmap_view_url":null,"soiltest_xml_url":0,"soiltest_view_url":0},{"id":167297,"code":"B4KJ201801005-5546","latitude":"34.8912597","longitude":"137.2631858","source_code":"CB52372261001","project_name":"","survey_name":"\u4e00\u822c\u56fd\u90531\u53f7\u672c\u5bbf\u5730\u533a\u59162\u5730\u533a\u5730\u8cea\u8abf\u67fb","client_name":"\u56fd\u571f\u4ea4\u901a\u7701\u4e2d\u90e8\u5730\u65b9\u6574\u5099\u5c40\u611b\u77e5\u56fd\u9053\u4e8b\u52d9\u6240","boring_xml_url":40,"boring_view_url":1,"soilmap_view_url":null,"soiltest_xml_url":0,"soiltest_view_url":0},{"id":167296,"code":"B4KJ201801005-5545","latitude":"34.8943703","longitude":"137.2575475","source_code":"CB52372260002","project_name":"","survey_name":"\u4e00\u822c\u56fd\u90531\u53f7\u7adc\u57ce\u6a4b\u59161\u4ef6\u5730\u8cea\u8abf\u67fb","client_name":"\u56fd\u571f\u4ea4\u901a\u7701\u4e2d\u90e8\u5730\u65b9\u6574\u5099\u5c40\u611b\u77e5\u56fd\u9053\u4e8b\u52d9\u6240","boring_xml_url":40,"boring_view_url":1,"soilmap_view_url":null,"soiltest_xml_url":0,"soiltest_view_url":0},{"id":167295,"code":"B4KJ201801005-5544","latitude":"34.8944814","longitude":"137.2573253","source_code":"CB52372260001","project_name":"","survey_name":"\u4e00\u822c\u56fd\u90531\u53f7\u672c\u5bbf\u5730\u533a\u59162\u5730\u533a\u5730\u8cea\u8abf\u67fb","client_name":"\u56fd\u571f\u4ea4\u901a\u7701\u4e2d\u90e8\u5730\u65b9\u6574\u5099\u5c40\u611b\u77e5\u56fd\u9053\u4e8b\u52d9\u6240","boring_xml_url":40,"boring_view_url":1,"soilmap_view_url":null,"soiltest_xml_url":0,"soiltest_view_url":0},{"id":167294,"code":"B4KJ201801005-5543","latitude":"34.8742064","longitude":"137.2789908","source_code":"CB52372242956","project_name":"","survey_name":"\u56fd\u9053\u4e00\u53f7\u5c71\u4e2d\u5730\u4e0b\u9053\u59161\u4ef6\u5b9f\u65bd\u8a2d\u8a08\u696d\u52d9\u59d4\u8a17","client_name":"\u56fd\u571f\u4ea4\u901a\u7701\u4e2d\u90e8\u5730\u65b9\u6574\u5099\u5c40\u611b\u77e5\u56fd\u9053\u4e8b\u52d9\u6240","boring_xml_url":40,"boring_view_url":1,"soilmap_view_url":null,"soiltest_xml_url":0,"soiltest_view_url":0},{"id":167293,"code":"B4KJ201801005-5542","latitude":"34.8546539","longitude":"137.3128775","source_code":"CB52372225965","project_name":"","survey_name":"\u662d\u548c44\u5e74\u5ea6\u8d64\u5742\u6a4b\u53ca\u3073\u6625\u65e5\u4e95\u30d0\u30a4\u30d1\u30b99\u5de5\u533a\u5730\u8cea\u8abf\u67fb\u5de5\u4e8b","client_name":"\u56fd\u571f\u4ea4\u901a\u7701\u4e2d\u90e8\u5730\u65b9\u6574\u5099\u5c40\u611b\u77e5\u56fd\u9053\u4e8b\u52d9\u6240","boring_xml_url":40,"boring_view_url":1,"soilmap_view_url":null,"soiltest_xml_url":0,"soiltest_view_url":0},{"id":167292,"code":"B4KJ201801005-5541","latitude":"34.8552094","longitude":"137.3132939","source_code":"CB52372225964","project_name":"","survey_name":"\u662d\u548c44\u5e74\u5ea6\u8d64\u5742\u6a4b\u53ca\u3073\u6625\u65e5\u4e95\u30d0\u30a4\u30d1\u30b99\u5de5\u533a\u5730\u8cea\u8abf\u67fb\u5de5\u4e8b","client_name":"\u56fd\u571f\u4ea4\u901a\u7701\u4e2d\u90e8\u5730\u65b9\u6574\u5099\u5c40\u611b\u77e5\u56fd\u9053\u4e8b\u52d9\u6240","boring_xml_url":40,"boring_view_url":1,"soilmap_view_url":null,"soiltest_xml_url":0,"soiltest_view_url":0},{"id":167291,"code":"B4KJ201801005-5540","latitude":"34.8569314","longitude":"137.3112942","source_code":"CB52372225963","project_name":"","survey_name":"\u662d\u548c54\u5e74\u5ea6\u97f3\u7fbd\u5730\u4e0b\u6a2a\u65ad\u6b69\u9053\u59161\u4ef6\u5b9f\u65bd\u8a2d\u8a08\u696d\u52d9\u59d4\u8a17","client_name":"\u56fd\u571f\u4ea4\u901a\u7701\u4e2d\u90e8\u5730\u65b9\u6574\u5099\u5c40\u540d\u53e4\u5c4b\u56fd\u9053\u4e8b\u52d9\u6240","boring_xml_url":40,"boring_view_url":1,"soilmap_view_url":null,"soiltest_xml_url":0,"soiltest_view_url":0},{"id":167290,"code":"B4KJ201801005-5539","latitude":"34.8453217","longitude":"137.3212103","source_code":"CB52372215978","project_name":"","survey_name":"\u8c4a\u5ddd\u6d41\u57df\u4e0b\u6c34\u9053\u5730\u8cea\u8abf\u67fb","client_name":"\u56fd\u571f\u4ea4\u901a\u7701\u4e2d\u90e8\u5730\u65b9\u6574\u5099\u5c40\u611b\u77e5\u56fd\u9053\u4e8b\u52d9\u6240","boring_xml_url":40,"boring_view_url":1,"soilmap_view_url":null,"soiltest_xml_url":0,"soiltest_view_url":0},{"id":167289,"code":"B4KJ201801005-5538","latitude":"34.8480992","longitude":"137.3189606","source_code":"CB52372215974","project_name":"","survey_name":"\u662d\u548c46\u5e74\u5ea6\u4e8c\u5ddd\u9053\u8def3\u30f6\u6240\u5730\u8cea\u8abf\u67fb","client_name":"\u56fd\u571f\u4ea4\u901a\u7701\u4e2d\u90e8\u5730\u65b9\u6574\u5099\u5c40\u611b\u77e5\u56fd\u9053\u4e8b\u52d9\u6240","boring_xml_url":40,"boring_view_url":1,"soilmap_view_url":null,"soiltest_xml_url":0,"soiltest_view_url":0},{"id":167288,"code":"B4KJ201801005-5537","latitude":"34.8484325","longitude":"137.3195158","source_code":"CB52372215973","project_name":"","survey_name":"\u662d\u548c46\u5e74\u5ea6\u4e8c\u5ddd\u9053\u8def3\u30f6\u6240\u5730\u8cea\u8abf\u67fb","client_name":"\u56fd\u571f\u4ea4\u901a\u7701\u4e2d\u90e8\u5730\u65b9\u6574\u5099\u5c40\u611b\u77e5\u56fd\u9053\u4e8b\u52d9\u6240","boring_xml_url":40,"boring_view_url":1,"soilmap_view_url":null,"soiltest_xml_url":0,"soiltest_view_url":0},{"id":167287,"code":"B4KJ201801005-5536","latitude":"34.8487936","longitude":"137.3197658","source_code":"CB52372215969","project_name":"","survey_name":"\u662d\u548c46\u5e74\u5ea6\u4e8c\u5ddd\u9053\u8def\u4ed63\u30f6\u6240\u5730\u8cea\u8abf\u67fb","client_name":"\u56fd\u571f\u4ea4\u901a\u7701\u4e2d\u90e8\u5730\u65b9\u6574\u5099\u5c40\u611b\u77e5\u56fd\u9053\u4e8b\u52d9\u6240","boring_xml_url":40,"boring_view_url":1,"soilmap_view_url":null,"soiltest_xml_url":0,"soiltest_view_url":0},{"id":167286,"code":"B4KJ201801005-5535","latitude":"34.8491269","longitude":"137.3184328","source_code":"CB52372215968","project_name":"","survey_name":"\u8c4a\u5ddd\u6d41\u57df\u4e0b\u6c34\u9053\u5730\u8cea\u8abf\u67fb","client_name":"\u56fd\u571f\u4ea4\u901a\u7701\u4e2d\u90e8\u5730\u65b9\u6574\u5099\u5c40\u611b\u77e5\u56fd\u9053\u4e8b\u52d9\u6240","boring_xml_url":40,"boring_view_url":1,"soilmap_view_url":null,"soiltest_xml_url":0,"soiltest_view_url":0},{"id":167285,"code":"B4KJ201801005-5534","latitude":"34.8501544","longitude":"137.317655","source_code":"CB52372215967","project_name":"","survey_name":"\u662d\u548c48\u5e74\u5ea6\u5fa1\u6cb9\u9053\u8def\u4ed61\u70b9\u5730\u8cea\u8abf\u67fb","client_name":"\u56fd\u571f\u4ea4\u901a\u7701\u4e2d\u90e8\u5730\u65b9\u6574\u5099\u5c40\u611b\u77e5\u56fd\u9053\u4e8b\u52d9\u6240","boring_xml_url":40,"boring_view_url":1,"soilmap_view_url":null,"soiltest_xml_url":0,"soiltest_view_url":0},{"id":167284,"code":"B4KJ201801005-5533","latitude":"34.8518764","longitude":"137.3160717","source_code":"CB52372215966","project_name":"","survey_name":"\u8c4a\u5ddd\u6d41\u57df\u4e0b\u6c34\u9053\u5730\u8cea\u8abf\u67fb","client_name":"\u56fd\u571f\u4ea4\u901a\u7701\u4e2d\u90e8\u5730\u65b9\u6574\u5099\u5c40\u611b\u77e5\u56fd\u9053\u4e8b\u52d9\u6240","boring_xml_url":40,"boring_view_url":1,"soilmap_view_url":null,"soiltest_xml_url":0,"soiltest_view_url":0},{"id":167283,"code":"B4KJ201801005-5532","latitude":"34.8401558","longitude":"137.3244047","source_code":"CB52372206980","project_name":"","survey_name":"\u8c4a\u5ddd\u6d41\u57df\u4e0b\u6c34\u9053\u5730\u8cea\u8abf\u67fb","client_name":"\u56fd\u571f\u4ea4\u901a\u7701\u4e2d\u90e8\u5730\u65b9\u6574\u5099\u5c40\u611b\u77e5\u56fd\u9053\u4e8b\u52d9\u6240","boring_xml_url":40,"boring_view_url":1,"soilmap_view_url":null,"soiltest_xml_url":0,"soiltest_view_url":0},{"id":167282,"code":"B4KJ201801005-5531","latitude":"34.8434886","longitude":"137.3224047","source_code":"CB52372206979","project_name":"","survey_name":"\u8c4a\u5ddd\u6d41\u57df\u4e0b\u6c34\u9053\u5730\u8cea\u8abf\u67fb","client_name":"\u56fd\u571f\u4ea4\u901a\u7701\u4e2d\u90e8\u5730\u65b9\u6574\u5099\u5c40\u611b\u77e5\u56fd\u9053\u4e8b\u52d9\u6240","boring_xml_url":40,"boring_view_url":1,"soilmap_view_url":null,"soiltest_xml_url":0,"soiltest_view_url":0},{"id":167281,"code":"B4KJ201801005-5530","latitude":"34.9088122","longitude":"137.2295492","source_code":"CB52372188926","project_name":"","survey_name":"42\u5e74\u5ea6\u85e4\u5ddd\u8de8\u7dda\u6a4b\u4ed8\u8fd1\u5730\u8cea\u8abf\u67fb","client_name":"\u56fd\u571f\u4ea4\u901a\u7701\u4e2d\u90e8\u5730\u65b9\u6574\u5099\u5c40\u540d\u53e4\u5c4b\u56fd\u9053\u4e8b\u52d9\u6240","boring_xml_url":40,"boring_view_url":1,"soilmap_view_url":null,"soiltest_xml_url":0,"soiltest_view_url":0},{"id":167280,"code":"B4KJ201801005-5529","latitude":"34.9091456","longitude":"137.2294658","source_code":"CB52372188925","project_name":"","survey_name":"42\u5e74\u5ea6\u85e4\u5ddd\u8de8\u7dda\u6a4b\u4ed8\u8fd1\u5730\u8cea\u8abf\u67fb","client_name":"\u56fd\u571f\u4ea4\u901a\u7701\u4e2d\u90e8\u5730\u65b9\u6574\u5099\u5c40\u540d\u53e4\u5c4b\u56fd\u9053\u4e8b\u52d9\u6240","boring_xml_url":40,"boring_view_url":1,"soilmap_view_url":null,"soiltest_xml_url":0,"soiltest_view_url":0},{"id":167279,"code":"B4KJ201801005-5528","latitude":"34.9097567","longitude":"137.2292158","source_code":"CB52372188924","project_name":"","survey_name":"42\u5e74\u5ea6\u85e4\u5ddd\u8de8\u7dda\u6a4b\u4ed8\u8fd1\u5730\u8cea\u8abf\u67fb","client_name":"\u56fd\u571f\u4ea4\u901a\u7701\u4e2d\u90e8\u5730\u65b9\u6574\u5099\u5c40\u540d\u53e4\u5c4b\u56fd\u9053\u4e8b\u52d9\u6240","boring_xml_url":40,"boring_view_url":1,"soilmap_view_url":null,"soiltest_xml_url":0,"soiltest_view_url":0},{"id":167278,"code":"B4KJ201801005-5527","latitude":"34.9100344","longitude":"137.2281328","source_code":"CB52372188923","project_name":"","survey_name":"42\u5e74\u5ea6\u85e4\u5ddd\u8de8\u7dda\u6a4b\u4ed8\u8fd1\u5730\u8cea\u8abf\u67fb","client_name":"\u56fd\u571f\u4ea4\u901a\u7701\u4e2d\u90e8\u5730\u65b9\u6574\u5099\u5c40\u540d\u53e4\u5c4b\u56fd\u9053\u4e8b\u52d9\u6240","boring_xml_url":40,"boring_view_url":1,"soilmap_view_url":null,"soiltest_xml_url":0,"soiltest_view_url":0},{"id":167277,"code":"B4KJ201801005-5526","latitude":"34.8985083","longitude":"137.2414097","source_code":"CB52372179930","project_name":"","survey_name":"\u56fd\u9053\u4e00\u53f7\u5c71\u4e2d\u5730\u4e0b\u9053\u59161\u4ef6\u5b9f\u65bd\u8a2d\u8a08\u696d\u52d9\u59d4\u8a17","client_name":"\u56fd\u571f\u4ea4\u901a\u7701\u4e2d\u90e8\u5730\u65b9\u6574\u5099\u5c40\u611b\u77e5\u56fd\u9053\u4e8b\u52d9\u6240","boring_xml_url":40,"boring_view_url":1,"soilmap_view_url":null,"soiltest_xml_url":0,"soiltest_view_url":0},{"id":167276,"code":"B4KJ201801005-5525","latitude":"34.8988694","longitude":"137.2416875","source_code":"CB52372179929","project_name":"","survey_name":"\u56fd\u9053\u4e00\u53f7\u5c71\u4e2d\u5730\u4e0b\u9053\u59161\u4ef6\u5b9f\u65bd\u8a2d\u8a08\u696d\u52d9\u59d4\u8a17","client_name":"\u56fd\u571f\u4ea4\u901a\u7701\u4e2d\u90e8\u5730\u65b9\u6574\u5099\u5c40\u611b\u77e5\u56fd\u9053\u4e8b\u52d9\u6240","boring_xml_url":40,"boring_view_url":1,"soilmap_view_url":null,"soiltest_xml_url":0,"soiltest_view_url":0}]}}