{"header":{"xyz":{"source":[],"mosaic":false},"page":5117,"raw":{"soiltest_result":"0","bbox":"57.598333,109.544722,1.933333,163.806111","page":"5117"},"conditions":{"soiltest_result":0,"north":57.598333,"west":109.544722,"south":1.933333,"east":163.806111},"success":true,"message":""},"data":{"meta":{"total":212844,"page":5117,"pages":7095,"count":30},"values":[{"id":167065,"code":"B4KJ201801005-5314","latitude":"34.7845353","longitude":"137.8191419","source_code":"CB52371635005","project_name":"","survey_name":"\u5e73\u621010\u5e74\u5ea6\u5929\u7adc\u5ddd\u5824\u9632\u30dc\u30fc\u30ea\u30f3\u30b0\u305d\u306e2\u8abf\u67fb","client_name":"\u56fd\u571f\u4ea4\u901a\u7701\u4e2d\u90e8\u5730\u65b9\u6574\u5099\u5c40\u6d5c\u677e\u6cb3\u5ddd\u56fd\u9053\u4e8b\u52d9\u6240","boring_xml_url":40,"boring_view_url":1,"soilmap_view_url":null,"soiltest_xml_url":0,"soiltest_view_url":0},{"id":167064,"code":"B4KJ201801005-5313","latitude":"34.7845908","longitude":"137.8184475","source_code":"CB52371635004","project_name":"","survey_name":"\u5e73\u621010\u5e74\u5ea6\u5929\u7adc\u5ddd\u5824\u9632\u30dc\u30fc\u30ea\u30f3\u30b0\u305d\u306e2\u8abf\u67fb","client_name":"\u56fd\u571f\u4ea4\u901a\u7701\u4e2d\u90e8\u5730\u65b9\u6574\u5099\u5c40\u6d5c\u677e\u6cb3\u5ddd\u56fd\u9053\u4e8b\u52d9\u6240","boring_xml_url":40,"boring_view_url":1,"soilmap_view_url":null,"soiltest_xml_url":0,"soiltest_view_url":0},{"id":167063,"code":"B4KJ201801005-5312","latitude":"34.7845631","longitude":"137.8188086","source_code":"CB52371635003","project_name":"","survey_name":"\u5e73\u621010\u5e74\u5ea6\u5929\u7adc\u5ddd\u5824\u9632\u30dc\u30fc\u30ea\u30f3\u30b0\u305d\u306e2\u8abf\u67fb","client_name":"\u56fd\u571f\u4ea4\u901a\u7701\u4e2d\u90e8\u5730\u65b9\u6574\u5099\u5c40\u6d5c\u677e\u6cb3\u5ddd\u56fd\u9053\u4e8b\u52d9\u6240","boring_xml_url":40,"boring_view_url":1,"soilmap_view_url":null,"soiltest_xml_url":0,"soiltest_view_url":0},{"id":167062,"code":"B4KJ201801005-5311","latitude":"34.7845631","longitude":"137.8185586","source_code":"CB52371635002","project_name":"","survey_name":"\u5e73\u621010\u5e74\u5ea6\u5929\u7adc\u5ddd\u5824\u9632\u30dc\u30fc\u30ea\u30f3\u30b0\u305d\u306e2\u8abf\u67fb","client_name":"\u56fd\u571f\u4ea4\u901a\u7701\u4e2d\u90e8\u5730\u65b9\u6574\u5099\u5c40\u6d5c\u677e\u6cb3\u5ddd\u56fd\u9053\u4e8b\u52d9\u6240","boring_xml_url":40,"boring_view_url":1,"soilmap_view_url":null,"soiltest_xml_url":0,"soiltest_view_url":0},{"id":167061,"code":"B4KJ201801005-5310","latitude":"34.7845631","longitude":"137.8185031","source_code":"CB52371635001","project_name":"","survey_name":"\u5e73\u621010\u5e74\u5ea6\u5929\u7adc\u5ddd\u5824\u9632\u30dc\u30fc\u30ea\u30f3\u30b0\u305d\u306e2\u8abf\u67fb","client_name":"\u56fd\u571f\u4ea4\u901a\u7701\u4e2d\u90e8\u5730\u65b9\u6574\u5099\u5c40\u6d5c\u677e\u6cb3\u5ddd\u56fd\u9053\u4e8b\u52d9\u6240","boring_xml_url":40,"boring_view_url":1,"soilmap_view_url":null,"soiltest_xml_url":0,"soiltest_view_url":0},{"id":167060,"code":"B4KJ201801005-5309","latitude":"34.7590103","longitude":"137.8120322","source_code":"CB52371605005","project_name":"","survey_name":"\u5e73\u621010\u5e74\u5ea6\u5929\u7adc\u5ddd\u5824\u9632\u30dc\u30fc\u30ea\u30f3\u30b0\u305d\u306e2\u8abf\u67fb","client_name":"\u56fd\u571f\u4ea4\u901a\u7701\u4e2d\u90e8\u5730\u65b9\u6574\u5099\u5c40\u6d5c\u677e\u6cb3\u5ddd\u56fd\u9053\u4e8b\u52d9\u6240","boring_xml_url":40,"boring_view_url":1,"soilmap_view_url":null,"soiltest_xml_url":0,"soiltest_view_url":0},{"id":167059,"code":"B4KJ201801005-5308","latitude":"34.7590658","longitude":"137.8113658","source_code":"CB52371605004","project_name":"","survey_name":"\u5e73\u621010\u5e74\u5ea6\u5929\u7adc\u5ddd\u5824\u9632\u30dc\u30fc\u30ea\u30f3\u30b0\u305d\u306e2\u8abf\u67fb","client_name":"\u56fd\u571f\u4ea4\u901a\u7701\u4e2d\u90e8\u5730\u65b9\u6574\u5099\u5c40\u6d5c\u677e\u6cb3\u5ddd\u56fd\u9053\u4e8b\u52d9\u6240","boring_xml_url":40,"boring_view_url":1,"soilmap_view_url":null,"soiltest_xml_url":0,"soiltest_view_url":0},{"id":167058,"code":"B4KJ201801005-5307","latitude":"34.7590103","longitude":"137.8116989","source_code":"CB52371605003","project_name":"","survey_name":"\u5e73\u621010\u5e74\u5ea6\u5929\u7adc\u5ddd\u5824\u9632\u30dc\u30fc\u30ea\u30f3\u30b0\u305d\u306e2\u8abf\u67fb","client_name":"\u56fd\u571f\u4ea4\u901a\u7701\u4e2d\u90e8\u5730\u65b9\u6574\u5099\u5c40\u6d5c\u677e\u6cb3\u5ddd\u56fd\u9053\u4e8b\u52d9\u6240","boring_xml_url":40,"boring_view_url":1,"soilmap_view_url":null,"soiltest_xml_url":0,"soiltest_view_url":0},{"id":167057,"code":"B4KJ201801005-5306","latitude":"34.7590381","longitude":"137.8114492","source_code":"CB52371605002","project_name":"","survey_name":"\u5e73\u621010\u5e74\u5ea6\u5929\u7adc\u5ddd\u5824\u9632\u30dc\u30fc\u30ea\u30f3\u30b0\u305d\u306e2\u8abf\u67fb","client_name":"\u56fd\u571f\u4ea4\u901a\u7701\u4e2d\u90e8\u5730\u65b9\u6574\u5099\u5c40\u6d5c\u677e\u6cb3\u5ddd\u56fd\u9053\u4e8b\u52d9\u6240","boring_xml_url":40,"boring_view_url":1,"soilmap_view_url":null,"soiltest_xml_url":0,"soiltest_view_url":0},{"id":167056,"code":"B4KJ201801005-5305","latitude":"34.7590381","longitude":"137.8113936","source_code":"CB52371605001","project_name":"","survey_name":"\u5e73\u621010\u5e74\u5ea6\u5929\u7adc\u5ddd\u5824\u9632\u30dc\u30fc\u30ea\u30f3\u30b0\u305d\u306e2\u8abf\u67fb","client_name":"\u56fd\u571f\u4ea4\u901a\u7701\u4e2d\u90e8\u5730\u65b9\u6574\u5099\u5c40\u6d5c\u677e\u6cb3\u5ddd\u56fd\u9053\u4e8b\u52d9\u6240","boring_xml_url":40,"boring_view_url":1,"soilmap_view_url":null,"soiltest_xml_url":0,"soiltest_view_url":0},{"id":167055,"code":"B4KJ201801005-5304","latitude":"34.7906361","longitude":"137.4242033","source_code":"CB52371344001","project_name":"","survey_name":"\u8c4a\u5ddd\u652f\u5ddd\u795e\u7530\u5ddd\u5730\u8cea\u8abf\u67fb","client_name":"\u56fd\u571f\u4ea4\u901a\u7701\u4e2d\u90e8\u5730\u65b9\u6574\u5099\u5c40\u8c4a\u6a4b\u6cb3\u5ddd\u4e8b\u52d9\u6240","boring_xml_url":40,"boring_view_url":1,"soilmap_view_url":null,"soiltest_xml_url":0,"soiltest_view_url":0},{"id":167054,"code":"B4KJ201801005-5303","latitude":"34.7876639","longitude":"137.4183431","source_code":"CB52371343004","project_name":"","survey_name":"\u8c4a\u5ddd\u652f\u5ddd\u795e\u7530\u5ddd\u5730\u8cea\u8abf\u67fb","client_name":"\u56fd\u571f\u4ea4\u901a\u7701\u4e2d\u90e8\u5730\u65b9\u6574\u5099\u5c40\u8c4a\u6a4b\u6cb3\u5ddd\u4e8b\u52d9\u6240","boring_xml_url":40,"boring_view_url":1,"soilmap_view_url":null,"soiltest_xml_url":0,"soiltest_view_url":0},{"id":167053,"code":"B4KJ201801005-5302","latitude":"34.787775","longitude":"137.4199261","source_code":"CB52371343003","project_name":"","survey_name":"\u8c4a\u5ddd\u795e\u7530\u5ddd\u3072\u7ba1\u8a73\u7d30\u8a2d\u8a08\u696d\u52d9\u59d4\u8a17","client_name":"\u56fd\u571f\u4ea4\u901a\u7701\u4e2d\u90e8\u5730\u65b9\u6574\u5099\u5c40\u8c4a\u6a4b\u6cb3\u5ddd\u4e8b\u52d9\u6240","boring_xml_url":40,"boring_view_url":1,"soilmap_view_url":null,"soiltest_xml_url":0,"soiltest_view_url":0},{"id":167052,"code":"B4KJ201801005-5301","latitude":"34.787775","longitude":"137.4179542","source_code":"CB52371343002","project_name":"","survey_name":"\u8c4a\u5ddd\u4e0b\u795e\u7530\u6a4b\u8a2d\u8a08\u696d\u52d9\u59d4\u8a17","client_name":"\u56fd\u571f\u4ea4\u901a\u7701\u4e2d\u90e8\u5730\u65b9\u6574\u5099\u5c40\u8c4a\u6a4b\u6cb3\u5ddd\u4e8b\u52d9\u6240","boring_xml_url":40,"boring_view_url":1,"soilmap_view_url":null,"soiltest_xml_url":0,"soiltest_view_url":0},{"id":167051,"code":"B4KJ201801005-5300","latitude":"34.7873306","longitude":"137.418815","source_code":"CB52371343001","project_name":"","survey_name":"\u8c4a\u5ddd\u4e0b\u795e\u7530\u6a4b\u8a2d\u8a08\u696d\u52d9\u59d4\u8a17","client_name":"\u56fd\u571f\u4ea4\u901a\u7701\u4e2d\u90e8\u5730\u65b9\u6574\u5099\u5c40\u8c4a\u6a4b\u6cb3\u5ddd\u4e8b\u52d9\u6240","boring_xml_url":40,"boring_view_url":1,"soilmap_view_url":null,"soiltest_xml_url":0,"soiltest_view_url":0},{"id":167050,"code":"B4KJ201801005-5299","latitude":"34.7837478","longitude":"137.4149267","source_code":"CB52371333003","project_name":"","survey_name":"\u8c4a\u5ddd\u652f\u5ddd\u795e\u7530\u5ddd\u5730\u8cea\u8abf\u67fb","client_name":"\u56fd\u571f\u4ea4\u901a\u7701\u4e2d\u90e8\u5730\u65b9\u6574\u5099\u5c40\u8c4a\u6a4b\u6cb3\u5ddd\u4e8b\u52d9\u6240","boring_xml_url":40,"boring_view_url":1,"soilmap_view_url":null,"soiltest_xml_url":0,"soiltest_view_url":0},{"id":167049,"code":"B4KJ201801005-5298","latitude":"34.7864697","longitude":"137.4167597","source_code":"CB52371333002","project_name":"","survey_name":"\u8c4a\u5ddd\u652f\u5ddd\u795e\u7530\u5ddd\u5730\u8cea\u8abf\u67fb","client_name":"\u56fd\u571f\u4ea4\u901a\u7701\u4e2d\u90e8\u5730\u65b9\u6574\u5099\u5c40\u8c4a\u6a4b\u6cb3\u5ddd\u4e8b\u52d9\u6240","boring_xml_url":40,"boring_view_url":1,"soilmap_view_url":null,"soiltest_xml_url":0,"soiltest_view_url":0},{"id":167048,"code":"B4KJ201801005-5297","latitude":"34.7839975","longitude":"137.4147878","source_code":"CB52371333001","project_name":"","survey_name":"\u8c4a\u5ddd\u652f\u5ddd\u795e\u7530\u5ddd\u5730\u8cea\u8abf\u67fb","client_name":"\u56fd\u571f\u4ea4\u901a\u7701\u4e2d\u90e8\u5730\u65b9\u6574\u5099\u5c40\u8c4a\u6a4b\u6cb3\u5ddd\u4e8b\u52d9\u6240","boring_xml_url":40,"boring_view_url":1,"soilmap_view_url":null,"soiltest_xml_url":0,"soiltest_view_url":0},{"id":167047,"code":"B4KJ201801005-5296","latitude":"34.7864964","longitude":"137.3777631","source_code":"CB52371330032","project_name":"","survey_name":"\u6804\u751f\u753a\u4ed65\u30f6\u6240\u6e2c\u91cf\u53ca\u5730\u8cea\u8abf\u67fb","client_name":"\u56fd\u571f\u4ea4\u901a\u7701\u4e2d\u90e8\u5730\u65b9\u6574\u5099\u5c40\u540d\u53e4\u5c4b\u56fd\u9053\u4e8b\u52d9\u6240","boring_xml_url":40,"boring_view_url":1,"soilmap_view_url":null,"soiltest_xml_url":0,"soiltest_view_url":0},{"id":167046,"code":"B4KJ201801005-5295","latitude":"34.7732761","longitude":"137.3888183","source_code":"CB52371321060","project_name":"","survey_name":"\u662d\u548c51\u5e74\u5ea6\u4e0b\u5730\u4ea4\u5dee\u70b9\u6539\u826f\u5de5\u4e8b\u306e\u5185\u5730\u8cea\u8abf\u67fb","client_name":"\u56fd\u571f\u4ea4\u901a\u7701\u4e2d\u90e8\u5730\u65b9\u6574\u5099\u5c40\u540d\u53e4\u5c4b\u56fd\u9053\u4e8b\u52d9\u6240","boring_xml_url":40,"boring_view_url":1,"soilmap_view_url":null,"soiltest_xml_url":0,"soiltest_view_url":0},{"id":167045,"code":"B4KJ201801005-5294","latitude":"34.7736092","longitude":"137.3896236","source_code":"CB52371321044","project_name":"","survey_name":"\u662d\u548c51\u5e74\u5ea6\u4e0b\u5730\u4ea4\u5dee\u70b9\u6539\u826f\u5de5\u4e8b\u306e\u5185\u5730\u8cea\u8abf\u67fb","client_name":"\u56fd\u571f\u4ea4\u901a\u7701\u4e2d\u90e8\u5730\u65b9\u6574\u5099\u5c40\u540d\u53e4\u5c4b\u56fd\u9053\u4e8b\u52d9\u6240","boring_xml_url":40,"boring_view_url":1,"soilmap_view_url":null,"soiltest_xml_url":0,"soiltest_view_url":0},{"id":167044,"code":"B4KJ201801005-5293","latitude":"34.7741925","longitude":"137.3900403","source_code":"CB52371321033","project_name":"","survey_name":"\u662d\u548c47\u5e74\u5ea6\u4e0b\u5730\u753a\u4ed65\u30f6\u6240\u6e2c\u91cf","client_name":"\u56fd\u571f\u4ea4\u901a\u7701\u4e2d\u90e8\u5730\u65b9\u6574\u5099\u5c40\u540d\u53e4\u5c4b\u56fd\u9053\u4e8b\u52d9\u6240","boring_xml_url":40,"boring_view_url":1,"soilmap_view_url":null,"soiltest_xml_url":0,"soiltest_view_url":0},{"id":167043,"code":"B4KJ201801005-5292","latitude":"34.7677489","longitude":"137.3900406","source_code":"CB52371311064","project_name":"","survey_name":"\u662d\u548c45\u5e74\u5ea6\u516b\u753a\u901a\u4ed65\u30f6\u6240\u5730\u8cea\u8abf\u67fb","client_name":"\u56fd\u571f\u4ea4\u901a\u7701\u4e2d\u90e8\u5730\u65b9\u6574\u5099\u5c40\u540d\u53e4\u5c4b\u56fd\u9053\u4e8b\u52d9\u6240","boring_xml_url":40,"boring_view_url":1,"soilmap_view_url":null,"soiltest_xml_url":0,"soiltest_view_url":0},{"id":167042,"code":"B4KJ201801005-5291","latitude":"34.7671656","longitude":"137.3920125","source_code":"CB52371311003","project_name":"","survey_name":"\u5e73\u62107\u5e74\u5ea6 1\u53f7\u516b\u753a\u5730\u533a\u59161\u4ef6\u5730\u8cea\u8abf\u67fb","client_name":"\u56fd\u571f\u4ea4\u901a\u7701\u4e2d\u90e8\u5730\u65b9\u6574\u5099\u5c40\u540d\u53e4\u5c4b\u56fd\u9053\u4e8b\u52d9\u6240","boring_xml_url":40,"boring_view_url":1,"soilmap_view_url":null,"soiltest_xml_url":0,"soiltest_view_url":0},{"id":167041,"code":"B4KJ201801005-5290","latitude":"34.7674433","longitude":"137.3922903","source_code":"CB52371311002","project_name":"","survey_name":"\u5e73\u62107\u5e74\u5ea6 1\u53f7\u516b\u753a\u5730\u533a\u59161\u4ef6\u5730\u8cea\u8abf\u67fb","client_name":"\u56fd\u571f\u4ea4\u901a\u7701\u4e2d\u90e8\u5730\u65b9\u6574\u5099\u5c40\u540d\u53e4\u5c4b\u56fd\u9053\u4e8b\u52d9\u6240","boring_xml_url":40,"boring_view_url":1,"soilmap_view_url":null,"soiltest_xml_url":0,"soiltest_view_url":0},{"id":167040,"code":"B4KJ201801005-5289","latitude":"34.7677767","longitude":"137.3910128","source_code":"CB52371311001","project_name":"","survey_name":"\u8c4a\u6a4b\u6a2a\u65ad\u6b69\u9053\u6a4b\u67b6\u8a2d\u5730\u70b9\u571f\u8cea\u8abf\u67fb","client_name":"\u56fd\u571f\u4ea4\u901a\u7701\u4e2d\u90e8\u5730\u65b9\u6574\u5099\u5c40\u540d\u53e4\u5c4b\u56fd\u9053\u4e8b\u52d9\u6240","boring_xml_url":40,"boring_view_url":1,"soilmap_view_url":null,"soiltest_xml_url":0,"soiltest_view_url":0},{"id":167039,"code":"B4KJ201801005-5288","latitude":"34.8285461","longitude":"137.3359597","source_code":"CB52371297985","project_name":"","survey_name":"\u662d\u548c48\u5e74\u5ea6\u5fa1\u6cb9\u9053\u8def\u4ed61\u70b9\u5730\u8cea\u8abf\u67fb","client_name":"\u56fd\u571f\u4ea4\u901a\u7701\u4e2d\u90e8\u5730\u65b9\u6574\u5099\u5c40\u611b\u77e5\u56fd\u9053\u4e8b\u52d9\u6240","boring_xml_url":40,"boring_view_url":1,"soilmap_view_url":null,"soiltest_xml_url":0,"soiltest_view_url":0},{"id":167038,"code":"B4KJ201801005-5287","latitude":"34.8289906","longitude":"137.3349875","source_code":"CB52371297000","project_name":"","survey_name":"\u662d\u548c48\u5e74\u5ea6\u5fa1\u6cb9\u9053\u8def\u4ed61\u70b9\u5730\u8cea\u8abf\u67fb","client_name":"\u56fd\u571f\u4ea4\u901a\u7701\u4e2d\u90e8\u5730\u65b9\u6574\u5099\u5c40\u611b\u77e5\u56fd\u9053\u4e8b\u52d9\u6240","boring_xml_url":40,"boring_view_url":1,"soilmap_view_url":null,"soiltest_xml_url":0,"soiltest_view_url":0},{"id":167037,"code":"B4KJ201801005-5286","latitude":"34.8292128","longitude":"137.3343208","source_code":"CB52371296999","project_name":"","survey_name":"\u662d\u548c48\u5e74\u5ea6\u5fa1\u6cb9\u9053\u8def\u4ed61\u70b9\u5730\u8cea\u8abf\u67fb","client_name":"\u56fd\u571f\u4ea4\u901a\u7701\u4e2d\u90e8\u5730\u65b9\u6574\u5099\u5c40\u611b\u77e5\u56fd\u9053\u4e8b\u52d9\u6240","boring_xml_url":40,"boring_view_url":1,"soilmap_view_url":null,"soiltest_xml_url":0,"soiltest_view_url":0},{"id":167036,"code":"B4KJ201801005-5285","latitude":"34.8339067","longitude":"137.3303489","source_code":"CB52371296998","project_name":"","survey_name":"\u662d\u548c48\u5e74\u5ea6\u5fa1\u6cb9\u9053\u8def\u4ed61\u70b9\u5730\u8cea\u8abf\u67fb","client_name":"\u56fd\u571f\u4ea4\u901a\u7701\u4e2d\u90e8\u5730\u65b9\u6574\u5099\u5c40\u611b\u77e5\u56fd\u9053\u4e8b\u52d9\u6240","boring_xml_url":40,"boring_view_url":1,"soilmap_view_url":null,"soiltest_xml_url":0,"soiltest_view_url":0}]}}