{"header":{"xyz":{"source":[],"mosaic":false},"page":5121,"raw":{"soiltest_result":"0","bbox":"57.598333,109.544722,1.933333,163.806111","page":"5121"},"conditions":{"soiltest_result":0,"north":57.598333,"west":109.544722,"south":1.933333,"east":163.806111},"success":true,"message":""},"data":{"meta":{"total":212844,"page":5121,"pages":7095,"count":30},"values":[{"id":166945,"code":"B4KJ201801005-5194","latitude":"34.7307361","longitude":"137.8267544","source_code":"CB52370676002","project_name":"","survey_name":"\u78d0\u7530\u30d0\u30a4\u30d1\u30b9\u5730\u8cea\u8abf\u67fb","client_name":"\u56fd\u571f\u4ea4\u901a\u7701\u4e2d\u90e8\u5730\u65b9\u6574\u5099\u5c40\u6d5c\u677e\u6cb3\u5ddd\u56fd\u9053\u4e8b\u52d9\u6240","boring_xml_url":40,"boring_view_url":1,"soilmap_view_url":null,"soiltest_xml_url":0,"soiltest_view_url":0},{"id":166944,"code":"B4KJ201801005-5193","latitude":"34.7327914","longitude":"137.8339203","source_code":"CB52370676001","project_name":"","survey_name":"\u78d0\u7530\u30d0\u30a4\u30d1\u30b9\u5730\u8cea\u8abf\u67fb","client_name":"\u56fd\u571f\u4ea4\u901a\u7701\u4e2d\u90e8\u5730\u65b9\u6574\u5099\u5c40\u6d5c\u677e\u6cb3\u5ddd\u56fd\u9053\u4e8b\u52d9\u6240","boring_xml_url":40,"boring_view_url":1,"soilmap_view_url":null,"soiltest_xml_url":0,"soiltest_view_url":0},{"id":166943,"code":"B4KJ201801005-5192","latitude":"34.7289581","longitude":"137.8123389","source_code":"CB52370675006","project_name":"","survey_name":"\u5e73\u621011\u5e74\u5ea6\u6d5c\u677e\u56fd\u9053\u5730\u8cea\u8abf\u67fb","client_name":"\u56fd\u571f\u4ea4\u901a\u7701\u4e2d\u90e8\u5730\u65b9\u6574\u5099\u5c40\u6d5c\u677e\u6cb3\u5ddd\u56fd\u9053\u4e8b\u52d9\u6240","boring_xml_url":40,"boring_view_url":1,"soilmap_view_url":null,"soiltest_xml_url":0,"soiltest_view_url":0},{"id":166942,"code":"B4KJ201801005-5191","latitude":"34.7288747","longitude":"137.8113114","source_code":"CB52370675005","project_name":"","survey_name":"\u5e73\u62107\u5e74\u5ea6 \u6d5c\u677e\u30d0\u30a4\u30d1\u30b9\u5730\u8cea\u8abf\u67fb","client_name":"\u56fd\u571f\u4ea4\u901a\u7701\u4e2d\u90e8\u5730\u65b9\u6574\u5099\u5c40\u6d5c\u677e\u6cb3\u5ddd\u56fd\u9053\u4e8b\u52d9\u6240","boring_xml_url":40,"boring_view_url":1,"soilmap_view_url":null,"soiltest_xml_url":0,"soiltest_view_url":0},{"id":166941,"code":"B4KJ201801005-5190","latitude":"34.7286525","longitude":"137.8095892","source_code":"CB52370675004","project_name":"","survey_name":"\u5e73\u62107\u5e74\u5ea6 \u6d5c\u677e\u30d0\u30a4\u30d1\u30b9\u5730\u8cea\u8abf\u67fb","client_name":"\u56fd\u571f\u4ea4\u901a\u7701\u4e2d\u90e8\u5730\u65b9\u6574\u5099\u5c40\u6d5c\u677e\u6cb3\u5ddd\u56fd\u9053\u4e8b\u52d9\u6240","boring_xml_url":40,"boring_view_url":1,"soilmap_view_url":null,"soiltest_xml_url":0,"soiltest_view_url":0},{"id":166940,"code":"B4KJ201801005-5189","latitude":"34.7284858","longitude":"137.8103114","source_code":"CB52370675003","project_name":"","survey_name":"\u5e73\u62107\u5e74\u5ea6 \u6d5c\u677e\u30d0\u30a4\u30d1\u30b9\u5730\u8cea\u8abf\u67fb","client_name":"\u56fd\u571f\u4ea4\u901a\u7701\u4e2d\u90e8\u5730\u65b9\u6574\u5099\u5c40\u6d5c\u677e\u6cb3\u5ddd\u56fd\u9053\u4e8b\u52d9\u6240","boring_xml_url":40,"boring_view_url":1,"soilmap_view_url":null,"soiltest_xml_url":0,"soiltest_view_url":0},{"id":166939,"code":"B4KJ201801005-5188","latitude":"34.7283469","longitude":"137.8110058","source_code":"CB52370675002","project_name":"","survey_name":"\u5e73\u62107\u5e74\u5ea6 \u6d5c\u677e\u30d0\u30a4\u30d1\u30b9\u5730\u8cea\u8abf\u67fb","client_name":"\u56fd\u571f\u4ea4\u901a\u7701\u4e2d\u90e8\u5730\u65b9\u6574\u5099\u5c40\u6d5c\u677e\u6cb3\u5ddd\u56fd\u9053\u4e8b\u52d9\u6240","boring_xml_url":40,"boring_view_url":1,"soilmap_view_url":null,"soiltest_xml_url":0,"soiltest_view_url":0},{"id":166938,"code":"B4KJ201801005-5187","latitude":"34.7287361","longitude":"137.8169775","source_code":"CB52370675001","project_name":"","survey_name":"\u78d0\u7530\u30d0\u30a4\u30d1\u30b9\u5730\u8cea\u8abf\u67fb","client_name":"\u56fd\u571f\u4ea4\u901a\u7701\u4e2d\u90e8\u5730\u65b9\u6574\u5099\u5c40\u6d5c\u677e\u6cb3\u5ddd\u56fd\u9053\u4e8b\u52d9\u6240","boring_xml_url":40,"boring_view_url":1,"soilmap_view_url":null,"soiltest_xml_url":0,"soiltest_view_url":0},{"id":166937,"code":"B4KJ201801005-5186","latitude":"34.7353183","longitude":"137.8027561","source_code":"CB52370674023","project_name":"","survey_name":"\u5e73\u621010\u5e74\u5ea6\u5929\u7adc\u5ddd\u5824\u9632\u30dc\u30fc\u30ea\u30f3\u30b0\u305d\u306e2\u8abf\u67fb","client_name":"\u56fd\u571f\u4ea4\u901a\u7701\u4e2d\u90e8\u5730\u65b9\u6574\u5099\u5c40\u6d5c\u677e\u6cb3\u5ddd\u56fd\u9053\u4e8b\u52d9\u6240","boring_xml_url":40,"boring_view_url":1,"soilmap_view_url":null,"soiltest_xml_url":0,"soiltest_view_url":0},{"id":166936,"code":"B4KJ201801005-5185","latitude":"34.7352628","longitude":"137.8020342","source_code":"CB52370674022","project_name":"","survey_name":"\u5e73\u621010\u5e74\u5ea6\u5929\u7adc\u5ddd\u5824\u9632\u30dc\u30fc\u30ea\u30f3\u30b0\u305d\u306e2\u8abf\u67fb","client_name":"\u56fd\u571f\u4ea4\u901a\u7701\u4e2d\u90e8\u5730\u65b9\u6574\u5099\u5c40\u6d5c\u677e\u6cb3\u5ddd\u56fd\u9053\u4e8b\u52d9\u6240","boring_xml_url":40,"boring_view_url":1,"soilmap_view_url":null,"soiltest_xml_url":0,"soiltest_view_url":0},{"id":166935,"code":"B4KJ201801005-5184","latitude":"34.7353461","longitude":"137.8025061","source_code":"CB52370674021","project_name":"","survey_name":"\u5e73\u621010\u5e74\u5ea6\u5929\u7adc\u5ddd\u5824\u9632\u30dc\u30fc\u30ea\u30f3\u30b0\u305d\u306e2\u8abf\u67fb","client_name":"\u56fd\u571f\u4ea4\u901a\u7701\u4e2d\u90e8\u5730\u65b9\u6574\u5099\u5c40\u6d5c\u677e\u6cb3\u5ddd\u56fd\u9053\u4e8b\u52d9\u6240","boring_xml_url":40,"boring_view_url":1,"soilmap_view_url":null,"soiltest_xml_url":0,"soiltest_view_url":0},{"id":166934,"code":"B4KJ201801005-5183","latitude":"34.7354017","longitude":"137.8022564","source_code":"CB52370674020","project_name":"","survey_name":"\u5e73\u621010\u5e74\u5ea6\u5929\u7adc\u5ddd\u5824\u9632\u30dc\u30fc\u30ea\u30f3\u30b0\u305d\u306e2\u8abf\u67fb","client_name":"\u56fd\u571f\u4ea4\u901a\u7701\u4e2d\u90e8\u5730\u65b9\u6574\u5099\u5c40\u6d5c\u677e\u6cb3\u5ddd\u56fd\u9053\u4e8b\u52d9\u6240","boring_xml_url":40,"boring_view_url":1,"soilmap_view_url":null,"soiltest_xml_url":0,"soiltest_view_url":0},{"id":166933,"code":"B4KJ201801005-5182","latitude":"34.7354294","longitude":"137.8022008","source_code":"CB52370674019","project_name":"","survey_name":"\u5e73\u621010\u5e74\u5ea6\u5929\u7adc\u5ddd\u5824\u9632\u30dc\u30fc\u30ea\u30f3\u30b0\u305d\u306e2\u8abf\u67fb","client_name":"\u56fd\u571f\u4ea4\u901a\u7701\u4e2d\u90e8\u5730\u65b9\u6574\u5099\u5c40\u6d5c\u677e\u6cb3\u5ddd\u56fd\u9053\u4e8b\u52d9\u6240","boring_xml_url":40,"boring_view_url":1,"soilmap_view_url":null,"soiltest_xml_url":0,"soiltest_view_url":0},{"id":166932,"code":"B4KJ201801005-5181","latitude":"34.7317075","longitude":"137.7979233","source_code":"CB52370674018","project_name":"","survey_name":"\u5e73\u62108\u5e74\u5ea6 \u65b0\u5929\u62e1\u5e45\u5b89\u65b0\u5730\u8cea\u8abf\u67fb","client_name":"\u56fd\u571f\u4ea4\u901a\u7701\u4e2d\u90e8\u5730\u65b9\u6574\u5099\u5c40\u6d5c\u677e\u6cb3\u5ddd\u56fd\u9053\u4e8b\u52d9\u6240","boring_xml_url":40,"boring_view_url":1,"soilmap_view_url":null,"soiltest_xml_url":0,"soiltest_view_url":0},{"id":166931,"code":"B4KJ201801005-5180","latitude":"34.7305964","longitude":"137.8014786","source_code":"CB52370674017","project_name":"","survey_name":"\u5e73\u62107\u5e74\u5ea6 \u6d5c\u677e\u30d0\u30a4\u30d1\u30b9\u5730\u8cea\u8abf\u67fb","client_name":"\u56fd\u571f\u4ea4\u901a\u7701\u4e2d\u90e8\u5730\u65b9\u6574\u5099\u5c40\u6d5c\u677e\u6cb3\u5ddd\u56fd\u9053\u4e8b\u52d9\u6240","boring_xml_url":40,"boring_view_url":1,"soilmap_view_url":null,"soiltest_xml_url":0,"soiltest_view_url":0},{"id":166930,"code":"B4KJ201801005-5179","latitude":"34.7305689","longitude":"137.8020897","source_code":"CB52370674016","project_name":"","survey_name":"\u5e73\u62107\u5e74\u5ea6 \u6d5c\u677e\u30d0\u30a4\u30d1\u30b9\u5730\u8cea\u8abf\u67fb","client_name":"\u56fd\u571f\u4ea4\u901a\u7701\u4e2d\u90e8\u5730\u65b9\u6574\u5099\u5c40\u6d5c\u677e\u6cb3\u5ddd\u56fd\u9053\u4e8b\u52d9\u6240","boring_xml_url":40,"boring_view_url":1,"soilmap_view_url":null,"soiltest_xml_url":0,"soiltest_view_url":0},{"id":166929,"code":"B4KJ201801005-5178","latitude":"34.7304022","longitude":"137.8027564","source_code":"CB52370674015","project_name":"","survey_name":"\u5e73\u62107\u5e74\u5ea6 \u6d5c\u677e\u30d0\u30a4\u30d1\u30b9\u5730\u8cea\u8abf\u67fb","client_name":"\u56fd\u571f\u4ea4\u901a\u7701\u4e2d\u90e8\u5730\u65b9\u6574\u5099\u5c40\u6d5c\u677e\u6cb3\u5ddd\u56fd\u9053\u4e8b\u52d9\u6240","boring_xml_url":40,"boring_view_url":1,"soilmap_view_url":null,"soiltest_xml_url":0,"soiltest_view_url":0},{"id":166928,"code":"B4KJ201801005-5177","latitude":"34.7302078","longitude":"137.8034508","source_code":"CB52370674014","project_name":"","survey_name":"\u5e73\u62107\u5e74\u5ea6 \u6d5c\u677e\u30d0\u30a4\u30d1\u30b9\u5730\u8cea\u8abf\u67fb","client_name":"\u56fd\u571f\u4ea4\u901a\u7701\u4e2d\u90e8\u5730\u65b9\u6574\u5099\u5c40\u6d5c\u677e\u6cb3\u5ddd\u56fd\u9053\u4e8b\u52d9\u6240","boring_xml_url":40,"boring_view_url":1,"soilmap_view_url":null,"soiltest_xml_url":0,"soiltest_view_url":0},{"id":166927,"code":"B4KJ201801005-5176","latitude":"34.7300411","longitude":"137.8041175","source_code":"CB52370674013","project_name":"","survey_name":"\u5e73\u62107\u5e74\u5ea6 \u6d5c\u677e\u30d0\u30a4\u30d1\u30b9\u5730\u8cea\u8abf\u67fb","client_name":"\u56fd\u571f\u4ea4\u901a\u7701\u4e2d\u90e8\u5730\u65b9\u6574\u5099\u5c40\u6d5c\u677e\u6cb3\u5ddd\u56fd\u9053\u4e8b\u52d9\u6240","boring_xml_url":40,"boring_view_url":1,"soilmap_view_url":null,"soiltest_xml_url":0,"soiltest_view_url":0},{"id":166926,"code":"B4KJ201801005-5175","latitude":"34.7298467","longitude":"137.8048117","source_code":"CB52370674012","project_name":"","survey_name":"\u5e73\u62107\u5e74\u5ea6 \u6d5c\u677e\u30d0\u30a4\u30d1\u30b9\u5730\u8cea\u8abf\u67fb","client_name":"\u56fd\u571f\u4ea4\u901a\u7701\u4e2d\u90e8\u5730\u65b9\u6574\u5099\u5c40\u6d5c\u677e\u6cb3\u5ddd\u56fd\u9053\u4e8b\u52d9\u6240","boring_xml_url":40,"boring_view_url":1,"soilmap_view_url":null,"soiltest_xml_url":0,"soiltest_view_url":0},{"id":166925,"code":"B4KJ201801005-5174","latitude":"34.7297078","longitude":"137.8055061","source_code":"CB52370674011","project_name":"","survey_name":"\u5e73\u62107\u5e74\u5ea6 \u6d5c\u677e\u30d0\u30a4\u30d1\u30b9\u5730\u8cea\u8abf\u67fb","client_name":"\u56fd\u571f\u4ea4\u901a\u7701\u4e2d\u90e8\u5730\u65b9\u6574\u5099\u5c40\u6d5c\u677e\u6cb3\u5ddd\u56fd\u9053\u4e8b\u52d9\u6240","boring_xml_url":40,"boring_view_url":1,"soilmap_view_url":null,"soiltest_xml_url":0,"soiltest_view_url":0},{"id":166924,"code":"B4KJ201801005-5173","latitude":"34.7295689","longitude":"137.8062561","source_code":"CB52370674010","project_name":"","survey_name":"\u5e73\u62107\u5e74\u5ea6 \u6d5c\u677e\u30d0\u30a4\u30d1\u30b9\u5730\u8cea\u8abf\u67fb","client_name":"\u56fd\u571f\u4ea4\u901a\u7701\u4e2d\u90e8\u5730\u65b9\u6574\u5099\u5c40\u6d5c\u677e\u6cb3\u5ddd\u56fd\u9053\u4e8b\u52d9\u6240","boring_xml_url":40,"boring_view_url":1,"soilmap_view_url":null,"soiltest_xml_url":0,"soiltest_view_url":0},{"id":166923,"code":"B4KJ201801005-5172","latitude":"34.7294856","longitude":"137.8062006","source_code":"CB52370674009","project_name":"","survey_name":"\u5e73\u62107\u5e74\u5ea6 \u6d5c\u677e\u30d0\u30a4\u30d1\u30b9\u5730\u8cea\u8abf\u67fb","client_name":"\u56fd\u571f\u4ea4\u901a\u7701\u4e2d\u90e8\u5730\u65b9\u6574\u5099\u5c40\u6d5c\u677e\u6cb3\u5ddd\u56fd\u9053\u4e8b\u52d9\u6240","boring_xml_url":40,"boring_view_url":1,"soilmap_view_url":null,"soiltest_xml_url":0,"soiltest_view_url":0},{"id":166922,"code":"B4KJ201801005-5171","latitude":"34.7293744","longitude":"137.8067839","source_code":"CB52370674008","project_name":"","survey_name":"\u5e73\u62107\u5e74\u5ea6 \u6d5c\u677e\u30d0\u30a4\u30d1\u30b9\u5730\u8cea\u8abf\u67fb","client_name":"\u56fd\u571f\u4ea4\u901a\u7701\u4e2d\u90e8\u5730\u65b9\u6574\u5099\u5c40\u6d5c\u677e\u6cb3\u5ddd\u56fd\u9053\u4e8b\u52d9\u6240","boring_xml_url":40,"boring_view_url":1,"soilmap_view_url":null,"soiltest_xml_url":0,"soiltest_view_url":0},{"id":166921,"code":"B4KJ201801005-5170","latitude":"34.7294022","longitude":"137.806645","source_code":"CB52370674007","project_name":"","survey_name":"\u5e73\u62107\u5e74\u5ea6 \u6d5c\u677e\u30d0\u30a4\u30d1\u30b9\u5730\u8cea\u8abf\u67fb","client_name":"\u56fd\u571f\u4ea4\u901a\u7701\u4e2d\u90e8\u5730\u65b9\u6574\u5099\u5c40\u6d5c\u677e\u6cb3\u5ddd\u56fd\u9053\u4e8b\u52d9\u6240","boring_xml_url":40,"boring_view_url":1,"soilmap_view_url":null,"soiltest_xml_url":0,"soiltest_view_url":0},{"id":166920,"code":"B4KJ201801005-5169","latitude":"34.7293467","longitude":"137.8069228","source_code":"CB52370674006","project_name":"","survey_name":"\u5e73\u62107\u5e74\u5ea6 \u6d5c\u677e\u30d0\u30a4\u30d1\u30b9\u5730\u8cea\u8abf\u67fb","client_name":"\u56fd\u571f\u4ea4\u901a\u7701\u4e2d\u90e8\u5730\u65b9\u6574\u5099\u5c40\u6d5c\u677e\u6cb3\u5ddd\u56fd\u9053\u4e8b\u52d9\u6240","boring_xml_url":40,"boring_view_url":1,"soilmap_view_url":null,"soiltest_xml_url":0,"soiltest_view_url":0},{"id":166919,"code":"B4KJ201801005-5168","latitude":"34.7291803","longitude":"137.8075339","source_code":"CB52370674005","project_name":"","survey_name":"\u5e73\u62107\u5e74\u5ea6 \u6d5c\u677e\u30d0\u30a4\u30d1\u30b9\u5730\u8cea\u8abf\u67fb","client_name":"\u56fd\u571f\u4ea4\u901a\u7701\u4e2d\u90e8\u5730\u65b9\u6574\u5099\u5c40\u6d5c\u677e\u6cb3\u5ddd\u56fd\u9053\u4e8b\u52d9\u6240","boring_xml_url":40,"boring_view_url":1,"soilmap_view_url":null,"soiltest_xml_url":0,"soiltest_view_url":0},{"id":166918,"code":"B4KJ201801005-5167","latitude":"34.7290136","longitude":"137.8081728","source_code":"CB52370674004","project_name":"","survey_name":"\u5e73\u62107\u5e74\u5ea6 \u6d5c\u677e\u30d0\u30a4\u30d1\u30b9\u5730\u8cea\u8abf\u67fb","client_name":"\u56fd\u571f\u4ea4\u901a\u7701\u4e2d\u90e8\u5730\u65b9\u6574\u5099\u5c40\u6d5c\u677e\u6cb3\u5ddd\u56fd\u9053\u4e8b\u52d9\u6240","boring_xml_url":40,"boring_view_url":1,"soilmap_view_url":null,"soiltest_xml_url":0,"soiltest_view_url":0},{"id":166917,"code":"B4KJ201801005-5166","latitude":"34.7288747","longitude":"137.8089225","source_code":"CB52370674003","project_name":"","survey_name":"\u5e73\u62107\u5e74\u5ea6 \u6d5c\u677e\u30d0\u30a4\u30d1\u30b9\u5730\u8cea\u8abf\u67fb","client_name":"\u56fd\u571f\u4ea4\u901a\u7701\u4e2d\u90e8\u5730\u65b9\u6574\u5099\u5c40\u6d5c\u677e\u6cb3\u5ddd\u56fd\u9053\u4e8b\u52d9\u6240","boring_xml_url":40,"boring_view_url":1,"soilmap_view_url":null,"soiltest_xml_url":0,"soiltest_view_url":0},{"id":166916,"code":"B4KJ201801005-5165","latitude":"34.7315686","longitude":"137.8001733","source_code":"CB52370674002","project_name":"","survey_name":"\u6d5c\u677e\u5730\u533a\u5730\u8cea\u8abf\u67fb","client_name":"\u56fd\u571f\u4ea4\u901a\u7701\u4e2d\u90e8\u5730\u65b9\u6574\u5099\u5c40\u6d5c\u677e\u6cb3\u5ddd\u56fd\u9053\u4e8b\u52d9\u6240","boring_xml_url":40,"boring_view_url":1,"soilmap_view_url":null,"soiltest_xml_url":0,"soiltest_view_url":0}]}}