{"header":{"xyz":{"source":[],"mosaic":false},"page":5131,"raw":{"soiltest_result":"0","bbox":"57.598333,109.544722,1.933333,163.806111","page":"5131"},"conditions":{"soiltest_result":0,"north":57.598333,"west":109.544722,"south":1.933333,"east":163.806111},"success":true,"message":""},"data":{"meta":{"total":212844,"page":5131,"pages":7095,"count":30},"values":[{"id":166645,"code":"B4KJ201801005-4894","latitude":"34.6999503","longitude":"137.3639619","source_code":"CB52370239012","project_name":"","survey_name":"\u5e73\u62104\u5e74\u5ea623\u53f7\u91ce\u4f9d\u5730\u533a\u5730\u8cea\u8abf\u67fb","client_name":"\u56fd\u571f\u4ea4\u901a\u7701\u4e2d\u90e8\u5730\u65b9\u6574\u5099\u5c40\u540d\u56db\u56fd\u9053\u4e8b\u52d9\u6240","boring_xml_url":40,"boring_view_url":1,"soilmap_view_url":null,"soiltest_xml_url":0,"soiltest_view_url":0},{"id":166644,"code":"B4KJ201801005-4893","latitude":"34.7003669","longitude":"137.3633508","source_code":"CB52370239011","project_name":"","survey_name":"\u5e73\u62104\u5e74\u5ea623\u53f7\u91ce\u4f9d\u5730\u533a\u5730\u8cea\u8abf\u67fb","client_name":"\u56fd\u571f\u4ea4\u901a\u7701\u4e2d\u90e8\u5730\u65b9\u6574\u5099\u5c40\u540d\u56db\u56fd\u9053\u4e8b\u52d9\u6240","boring_xml_url":40,"boring_view_url":1,"soilmap_view_url":null,"soiltest_xml_url":0,"soiltest_view_url":0},{"id":166643,"code":"B4KJ201801005-4892","latitude":"34.7005892","longitude":"137.3627953","source_code":"CB52370239010","project_name":"","survey_name":"\u5e73\u62104\u5e74\u5ea623\u53f7\u91ce\u4f9d\u5730\u533a\u5730\u8cea\u8abf\u67fb","client_name":"\u56fd\u571f\u4ea4\u901a\u7701\u4e2d\u90e8\u5730\u65b9\u6574\u5099\u5c40\u540d\u56db\u56fd\u9053\u4e8b\u52d9\u6240","boring_xml_url":40,"boring_view_url":1,"soilmap_view_url":null,"soiltest_xml_url":0,"soiltest_view_url":0},{"id":166642,"code":"B4KJ201801005-4891","latitude":"34.7008392","longitude":"137.3624342","source_code":"CB52370239009","project_name":"","survey_name":"\u5e73\u62104\u5e74\u5ea623\u53f7\u91ce\u4f9d\u5730\u533a\u5730\u8cea\u8abf\u67fb","client_name":"\u56fd\u571f\u4ea4\u901a\u7701\u4e2d\u90e8\u5730\u65b9\u6574\u5099\u5c40\u540d\u56db\u56fd\u9053\u4e8b\u52d9\u6240","boring_xml_url":40,"boring_view_url":1,"soilmap_view_url":null,"soiltest_xml_url":0,"soiltest_view_url":0},{"id":166641,"code":"B4KJ201801005-4890","latitude":"34.7009503","longitude":"137.3620175","source_code":"CB52370239008","project_name":"","survey_name":"\u5e73\u62104\u5e74\u5ea623\u53f7\u91ce\u4f9d\u5730\u533a\u5730\u8cea\u8abf\u67fb","client_name":"\u56fd\u571f\u4ea4\u901a\u7701\u4e2d\u90e8\u5730\u65b9\u6574\u5099\u5c40\u540d\u56db\u56fd\u9053\u4e8b\u52d9\u6240","boring_xml_url":40,"boring_view_url":1,"soilmap_view_url":null,"soiltest_xml_url":0,"soiltest_view_url":0},{"id":166640,"code":"B4KJ201801005-4889","latitude":"34.7012","longitude":"137.3616008","source_code":"CB52370239007","project_name":"","survey_name":"\u5e73\u62104\u5e74\u5ea623\u53f7\u91ce\u4f9d\u5730\u533a\u5730\u8cea\u8abf\u67fb","client_name":"\u56fd\u571f\u4ea4\u901a\u7701\u4e2d\u90e8\u5730\u65b9\u6574\u5099\u5c40\u540d\u56db\u56fd\u9053\u4e8b\u52d9\u6240","boring_xml_url":40,"boring_view_url":1,"soilmap_view_url":null,"soiltest_xml_url":0,"soiltest_view_url":0},{"id":166639,"code":"B4KJ201801005-4888","latitude":"34.7013389","longitude":"137.3611842","source_code":"CB52370239006","project_name":"","survey_name":"\u5e73\u62104\u5e74\u5ea623\u53f7\u91ce\u4f9d\u5730\u533a\u5730\u8cea\u8abf\u67fb","client_name":"\u56fd\u571f\u4ea4\u901a\u7701\u4e2d\u90e8\u5730\u65b9\u6574\u5099\u5c40\u540d\u56db\u56fd\u9053\u4e8b\u52d9\u6240","boring_xml_url":40,"boring_view_url":1,"soilmap_view_url":null,"soiltest_xml_url":0,"soiltest_view_url":0},{"id":166638,"code":"B4KJ201801005-4887","latitude":"34.7016722","longitude":"137.3608786","source_code":"CB52370239005","project_name":"","survey_name":"\u5e73\u62104\u5e74\u5ea623\u53f7\u91ce\u4f9d\u5730\u533a\u5730\u8cea\u8abf\u67fb","client_name":"\u56fd\u571f\u4ea4\u901a\u7701\u4e2d\u90e8\u5730\u65b9\u6574\u5099\u5c40\u540d\u56db\u56fd\u9053\u4e8b\u52d9\u6240","boring_xml_url":40,"boring_view_url":1,"soilmap_view_url":null,"soiltest_xml_url":0,"soiltest_view_url":0},{"id":166637,"code":"B4KJ201801005-4886","latitude":"34.7018667","longitude":"137.3606844","source_code":"CB52370239004","project_name":"","survey_name":"\u5e73\u62104\u5e74\u5ea623\u53f7\u5927\u6e05\u6c34\u5730\u533a\u5730\u8cea\u8abf\u67fb","client_name":"\u56fd\u571f\u4ea4\u901a\u7701\u4e2d\u90e8\u5730\u65b9\u6574\u5099\u5c40\u540d\u56db\u56fd\u9053\u4e8b\u52d9\u6240","boring_xml_url":40,"boring_view_url":1,"soilmap_view_url":null,"soiltest_xml_url":0,"soiltest_view_url":0},{"id":166636,"code":"B4KJ201801005-4885","latitude":"34.7021167","longitude":"137.36024","source_code":"CB52370239003","project_name":"","survey_name":"\u5e73\u62104\u5e74\u5ea623\u53f7\u5927\u6e05\u6c34\u5730\u533a\u5730\u8cea\u8abf\u67fb","client_name":"\u56fd\u571f\u4ea4\u901a\u7701\u4e2d\u90e8\u5730\u65b9\u6574\u5099\u5c40\u540d\u56db\u56fd\u9053\u4e8b\u52d9\u6240","boring_xml_url":40,"boring_view_url":1,"soilmap_view_url":null,"soiltest_xml_url":0,"soiltest_view_url":0},{"id":166635,"code":"B4KJ201801005-4884","latitude":"34.7023389","longitude":"137.3598511","source_code":"CB52370239002","project_name":"","survey_name":"\u5e73\u62104\u5e74\u5ea623\u53f7\u5927\u6e05\u6c34\u5730\u533a\u5730\u8cea\u8abf\u67fb","client_name":"\u56fd\u571f\u4ea4\u901a\u7701\u4e2d\u90e8\u5730\u65b9\u6574\u5099\u5c40\u540d\u56db\u56fd\u9053\u4e8b\u52d9\u6240","boring_xml_url":40,"boring_view_url":1,"soilmap_view_url":null,"soiltest_xml_url":0,"soiltest_view_url":0},{"id":166634,"code":"B4KJ201801005-4883","latitude":"34.70245","longitude":"137.3596567","source_code":"CB52370239001","project_name":"","survey_name":"\u5e73\u62104\u5e74\u5ea623\u53f7\u5927\u6e05\u6c34\u5730\u533a\u5730\u8cea\u8abf\u67fb","client_name":"\u56fd\u571f\u4ea4\u901a\u7701\u4e2d\u90e8\u5730\u65b9\u6574\u5099\u5c40\u540d\u56db\u56fd\u9053\u4e8b\u52d9\u6240","boring_xml_url":40,"boring_view_url":1,"soilmap_view_url":null,"soiltest_xml_url":0,"soiltest_view_url":0},{"id":166633,"code":"B4KJ201801005-4882","latitude":"34.7026722","longitude":"137.3592956","source_code":"CB52370238003","project_name":"","survey_name":"\u5e73\u62104\u5e74\u5ea623\u53f7\u5927\u6e05\u6c34\u5730\u533a\u5730\u8cea\u8abf\u67fb","client_name":"\u56fd\u571f\u4ea4\u901a\u7701\u4e2d\u90e8\u5730\u65b9\u6574\u5099\u5c40\u540d\u56db\u56fd\u9053\u4e8b\u52d9\u6240","boring_xml_url":40,"boring_view_url":1,"soilmap_view_url":null,"soiltest_xml_url":0,"soiltest_view_url":0},{"id":166632,"code":"B4KJ201801005-4881","latitude":"34.7028942","longitude":"137.3589067","source_code":"CB52370238002","project_name":"","survey_name":"\u5e73\u62104\u5e74\u5ea623\u53f7\u5927\u6e05\u6c34\u5730\u533a\u5730\u8cea\u8abf\u67fb","client_name":"\u56fd\u571f\u4ea4\u901a\u7701\u4e2d\u90e8\u5730\u65b9\u6574\u5099\u5c40\u540d\u56db\u56fd\u9053\u4e8b\u52d9\u6240","boring_xml_url":40,"boring_view_url":1,"soilmap_view_url":null,"soiltest_xml_url":0,"soiltest_view_url":0},{"id":166631,"code":"B4KJ201801005-4880","latitude":"34.7030608","longitude":"137.3586289","source_code":"CB52370238001","project_name":"","survey_name":"\u5e73\u62104\u5e74\u5ea623\u53f7\u5927\u6e05\u6c34\u5730\u533a\u5730\u8cea\u8abf\u67fb","client_name":"\u56fd\u571f\u4ea4\u901a\u7701\u4e2d\u90e8\u5730\u65b9\u6574\u5099\u5c40\u540d\u56db\u56fd\u9053\u4e8b\u52d9\u6240","boring_xml_url":40,"boring_view_url":1,"soilmap_view_url":null,"soiltest_xml_url":0,"soiltest_view_url":0},{"id":166630,"code":"B4KJ201801005-4879","latitude":"35.3207861","longitude":"136.9283106","source_code":"CB52367784001","project_name":"","survey_name":"\u6728\u66fd\u5ddd\u5c0e\u6c34\u4e8b\u696d\u5730\u4e0b\u6c34\u5730\u8cea\u8abf\u67fb\u305d\u306e1","client_name":"\u56fd\u571f\u4ea4\u901a\u7701\u4e2d\u90e8\u5730\u65b9\u6574\u5099\u5c40\u5e84\u5185\u5ddd\u6cb3\u5ddd\u4e8b\u52d9\u6240","boring_xml_url":40,"boring_view_url":1,"soilmap_view_url":null,"soiltest_xml_url":0,"soiltest_view_url":0},{"id":166629,"code":"B4KJ201801005-4878","latitude":"35.2997889","longitude":"136.9507814","source_code":"CB52367756001","project_name":"","survey_name":"\u6728\u66fd\u5ddd\u5c0e\u6c34\u4e8b\u696d\u5730\u4e0b\u6c34\u5730\u8cea\u8abf\u67fb","client_name":"\u56fd\u571f\u4ea4\u901a\u7701\u4e2d\u90e8\u5730\u65b9\u6574\u5099\u5c40\u5e84\u5185\u5ddd\u6cb3\u5ddd\u4e8b\u52d9\u6240","boring_xml_url":40,"boring_view_url":1,"soilmap_view_url":null,"soiltest_xml_url":0,"soiltest_view_url":0},{"id":166628,"code":"B4KJ201801005-4877","latitude":"35.3007606","longitude":"136.9272558","source_code":"CB52367754001","project_name":"","survey_name":"\u6728\u66fd\u5ddd\u5c0e\u6c34\u4e8b\u696d\u5730\u4e0b\u6c34\u5730\u8cea\u8abf\u67fb","client_name":"\u56fd\u571f\u4ea4\u901a\u7701\u4e2d\u90e8\u5730\u65b9\u6574\u5099\u5c40\u5e84\u5185\u5ddd\u6cb3\u5ddd\u4e8b\u52d9\u6240","boring_xml_url":40,"boring_view_url":1,"soilmap_view_url":null,"soiltest_xml_url":0,"soiltest_view_url":0},{"id":166627,"code":"B4KJ201801005-4876","latitude":"35.2975658","longitude":"136.9077297","source_code":"CB52367752001","project_name":"","survey_name":"\u662d\u548c60\u5e74\u5ea6\u540d\u6fc3\u30d0\u30a4\u30d1\u30b9\u5c0f\u7267\u5730\u533a\u59161\u7b87\u6240\u5730\u8cea\u8abf\u67fb","client_name":"\u56fd\u571f\u4ea4\u901a\u7701\u4e2d\u90e8\u5730\u65b9\u6574\u5099\u5c40\u611b\u77e5\u56fd\u9053\u4e8b\u52d9\u6240","boring_xml_url":40,"boring_view_url":1,"soilmap_view_url":null,"soiltest_xml_url":0,"soiltest_view_url":0},{"id":166626,"code":"B4KJ201801005-4875","latitude":"35.2908733","longitude":"136.9505042","source_code":"CB52367746001","project_name":"","survey_name":"\u6728\u66fd\u5ddd\u5c0e\u6c34\u4e8b\u696d\u5730\u4e0b\u6c34\u5730\u8cea\u8abf\u67fb\u305d\u306e1","client_name":"\u56fd\u571f\u4ea4\u901a\u7701\u4e2d\u90e8\u5730\u65b9\u6574\u5099\u5c40\u5e84\u5185\u5ddd\u6cb3\u5ddd\u4e8b\u52d9\u6240","boring_xml_url":40,"boring_view_url":1,"soilmap_view_url":null,"soiltest_xml_url":0,"soiltest_view_url":0},{"id":166625,"code":"B4KJ201801005-4874","latitude":"35.2895669","longitude":"136.9120353","source_code":"CB52367743001","project_name":"","survey_name":"\u5c0f\u7267\u96fb\u5831\u96fb\u8a71\u5c40\u7dda\u8def\u5206\u5ba4\u65b0\u7bc9\u6577\u5730\u3005\u76e4\u8abf\u67fb\u5de5\u4e8b","client_name":"\u56fd\u571f\u4ea4\u901a\u7701\u4e2d\u90e8\u5730\u65b9\u6574\u5099\u5c40\u4e2d\u90e8\u6280\u8853\u4e8b\u52d9\u6240","boring_xml_url":40,"boring_view_url":1,"soilmap_view_url":null,"soiltest_xml_url":0,"soiltest_view_url":0},{"id":166624,"code":"B4KJ201801005-4873","latitude":"35.2719864","longitude":"136.9391447","source_code":"CB52367725001","project_name":"","survey_name":"\u6728\u66fd\u5ddd\u5c0e\u6c34\u4e8b\u696d\u5730\u4e0b\u6c34\u30fb\u5730\u8cea\u8abf\u67fb\u305d\u306e2","client_name":"\u56fd\u571f\u4ea4\u901a\u7701\u4e2d\u90e8\u5730\u65b9\u6574\u5099\u5c40\u5e84\u5185\u5ddd\u6cb3\u5ddd\u4e8b\u52d9\u6240","boring_xml_url":40,"boring_view_url":1,"soilmap_view_url":null,"soiltest_xml_url":0,"soiltest_view_url":0},{"id":166623,"code":"B4KJ201801005-4872","latitude":"35.2775967","longitude":"136.9343669","source_code":"CB52367724001","project_name":"","survey_name":"\u6728\u66fd\u5ddd\u5c0e\u6c34\u4e8b\u696d\u5730\u4e0b\u6c34\u5730\u8cea\u8abf\u67fb","client_name":"\u56fd\u571f\u4ea4\u901a\u7701\u4e2d\u90e8\u5730\u65b9\u6574\u5099\u5c40\u5e84\u5185\u5ddd\u6cb3\u5ddd\u4e8b\u52d9\u6240","boring_xml_url":40,"boring_view_url":1,"soilmap_view_url":null,"soiltest_xml_url":0,"soiltest_view_url":0},{"id":166622,"code":"B4KJ201801005-4871","latitude":"35.2640153","longitude":"136.952505","source_code":"CB52367716001","project_name":"","survey_name":"\u6728\u66fd\u5ddd\u5c0e\u6c34\u4e8b\u696d\u5730\u4e0b\u6c34\u30fb\u5730\u8cea\u8abf\u67fb\u305d\u306e2","client_name":"\u56fd\u571f\u4ea4\u901a\u7701\u4e2d\u90e8\u5730\u65b9\u6574\u5099\u5c40\u5e84\u5185\u5ddd\u6cb3\u5ddd\u4e8b\u52d9\u6240","boring_xml_url":40,"boring_view_url":1,"soilmap_view_url":null,"soiltest_xml_url":0,"soiltest_view_url":0},{"id":166621,"code":"B4KJ201801005-4870","latitude":"35.2614322","longitude":"136.9462","source_code":"CB52367705003","project_name":"","survey_name":"\u6728\u66fd\u5ddd\u5c0e\u6c34\u4e8b\u696d\u5730\u4e0b\u6c34\u30fb\u5730\u8cea\u8abf\u67fb\u305d\u306e2","client_name":"\u56fd\u571f\u4ea4\u901a\u7701\u4e2d\u90e8\u5730\u65b9\u6574\u5099\u5c40\u5e84\u5185\u5ddd\u6cb3\u5ddd\u4e8b\u52d9\u6240","boring_xml_url":40,"boring_view_url":1,"soilmap_view_url":null,"soiltest_xml_url":0,"soiltest_view_url":0},{"id":166620,"code":"B4KJ201801005-4869","latitude":"35.2587656","longitude":"136.9354511","source_code":"CB52367705002","project_name":"","survey_name":"\u6728\u66fd\u5ddd\u5c0e\u6c34\u4e8b\u696d\u5730\u4e0b\u6c34\u30fb\u5730\u8cea\u8abf\u67fb\u305d\u306e2","client_name":"\u56fd\u571f\u4ea4\u901a\u7701\u4e2d\u90e8\u5730\u65b9\u6574\u5099\u5c40\u5e84\u5185\u5ddd\u6cb3\u5ddd\u4e8b\u52d9\u6240","boring_xml_url":40,"boring_view_url":1,"soilmap_view_url":null,"soiltest_xml_url":0,"soiltest_view_url":0},{"id":166619,"code":"B4KJ201801005-4868","latitude":"35.2541828","longitude":"136.9394508","source_code":"CB52367705001","project_name":"","survey_name":"\u6728\u66fd\u5ddd\u5c0e\u6c34\u4e8b\u696d\u5730\u4e0b\u6c34\u30fb\u5730\u8cea\u8abf\u67fb\u305d\u306e2","client_name":"\u56fd\u571f\u4ea4\u901a\u7701\u4e2d\u90e8\u5730\u65b9\u6574\u5099\u5c40\u5e84\u5185\u5ddd\u6cb3\u5ddd\u4e8b\u52d9\u6240","boring_xml_url":40,"boring_view_url":1,"soilmap_view_url":null,"soiltest_xml_url":0,"soiltest_view_url":0},{"id":166618,"code":"B4KJ201801005-4867","latitude":"35.2610422","longitude":"136.9079256","source_code":"CB52367702001","project_name":"","survey_name":"\u662d\u548c60\u5e74\u5ea6\u540d\u6fc3\u30d0\u30a4\u30d1\u30b9\u5c0f\u7267\u5730\u533a\u59161\u7b87\u6240\u5730\u8cea\u8abf\u67fb","client_name":"\u56fd\u571f\u4ea4\u901a\u7701\u4e2d\u90e8\u5730\u65b9\u6574\u5099\u5c40\u611b\u77e5\u56fd\u9053\u4e8b\u52d9\u6240","boring_xml_url":40,"boring_view_url":1,"soilmap_view_url":null,"soiltest_xml_url":0,"soiltest_view_url":0},{"id":166617,"code":"B4KJ201801005-4866","latitude":"35.3346692","longitude":"136.7540197","source_code":"CB52367690002","project_name":"","survey_name":"\u662d\u548c51\u5e74\u5ea6,\u6728\u66fd\u5ddd\u7389\u306e\u4e95\u6392\u6c34\u6a0b\u7ba1\u8a2d\u8a08\u696d\u52d9\u59d4\u8a17(\u5730\u8cea\u8abf\u67fb)","client_name":"\u56fd\u571f\u4ea4\u901a\u7701\u4e2d\u90e8\u5730\u65b9\u6574\u5099\u5c40\u6728\u66fd\u5ddd\u4e0a\u6d41\u6cb3\u5ddd\u4e8b\u52d9\u6240","boring_xml_url":40,"boring_view_url":1,"soilmap_view_url":null,"soiltest_xml_url":0,"soiltest_view_url":0},{"id":166616,"code":"B4KJ201801005-4865","latitude":"35.3342525","longitude":"136.7535197","source_code":"CB52367690001","project_name":"","survey_name":"\u662d\u548c51\u5e74\u5ea6.\u6728\u66fd\u5ddd\u7389\u306e\u4e95\u6392\u6c34\u6a0b\u7ba1\u8a2d\u8a08\u696d\u52d9\u59d4\u8a17(\u5730\u8cea\u8abf\u67fb)","client_name":"\u56fd\u571f\u4ea4\u901a\u7701\u4e2d\u90e8\u5730\u65b9\u6574\u5099\u5c40\u6728\u66fd\u5ddd\u4e0a\u6d41\u6cb3\u5ddd\u4e8b\u52d9\u6240","boring_xml_url":40,"boring_view_url":1,"soilmap_view_url":null,"soiltest_xml_url":0,"soiltest_view_url":0}]}}