{"header":{"xyz":{"source":[],"mosaic":false},"page":5135,"raw":{"soiltest_result":"0","bbox":"57.598333,109.544722,1.933333,163.806111","page":"5135"},"conditions":{"soiltest_result":0,"north":57.598333,"west":109.544722,"south":1.933333,"east":163.806111},"success":true,"message":""},"data":{"meta":{"total":212844,"page":5135,"pages":7095,"count":30},"values":[{"id":166525,"code":"B4KJ201801005-4774","latitude":"35.3148619","longitude":"136.5942844","source_code":"CB52367477010","project_name":"","survey_name":"\u5e73\u621010\u5e74\u5ea6\u9577\u826f\u5ddd\u30fb\u676d\u702c\u5ddd\u5824\u9632\u8a73\u7d30\u70b9\u691c","client_name":"\u56fd\u571f\u4ea4\u901a\u7701\u4e2d\u90e8\u5730\u65b9\u6574\u5099\u5c40\u6728\u66fd\u5ddd\u4e0a\u6d41\u6cb3\u5ddd\u4e8b\u52d9\u6240","boring_xml_url":40,"boring_view_url":1,"soilmap_view_url":null,"soiltest_xml_url":0,"soiltest_view_url":0},{"id":166524,"code":"B4KJ201801005-4773","latitude":"35.3148619","longitude":"136.5940067","source_code":"CB52367477009","project_name":"","survey_name":"\u5e73\u621010\u5e74\u5ea6\u9577\u826f\u5ddd\u30fb\u676d\u702c\u5ddd\u5824\u9632\u8a73\u7d30\u70b9\u691c","client_name":"\u56fd\u571f\u4ea4\u901a\u7701\u4e2d\u90e8\u5730\u65b9\u6574\u5099\u5c40\u6728\u66fd\u5ddd\u4e0a\u6d41\u6cb3\u5ddd\u4e8b\u52d9\u6240","boring_xml_url":40,"boring_view_url":1,"soilmap_view_url":null,"soiltest_xml_url":0,"soiltest_view_url":0},{"id":166523,"code":"B4KJ201801005-4772","latitude":"35.3159172","longitude":"136.5953397","source_code":"CB52367477008","project_name":"","survey_name":"\u662d\u548c40\u5e74\u5ea6\u676d\u702c\u5ddd\u5824\u9632\u6f0f\u6c34\u53ca\u99ac\u8fbc\u6a0b\u7ba1\u30dc\u30fc\u30ea\u30f3\u30b0\u5de5\u4e8b","client_name":"\u56fd\u571f\u4ea4\u901a\u7701\u4e2d\u90e8\u5730\u65b9\u6574\u5099\u5c40\u4e2d\u90e8\u6280\u8853\u4e8b\u52d9\u6240","boring_xml_url":40,"boring_view_url":1,"soilmap_view_url":null,"soiltest_xml_url":0,"soiltest_view_url":0},{"id":166522,"code":"B4KJ201801005-4771","latitude":"35.316695","longitude":"136.5953675","source_code":"CB52367477007","project_name":"","survey_name":"\u662d\u548c40\u5e74\u5ea6\u676d\u702c\u5ddd\u5824\u9632\u6f0f\u6c34\u30b1\u6240\u99ac\u8fbc\u6a0b\u7ba1\u30dc\u30fc\u30ea\u30f3\u30b0\u5de5\u4e8b","client_name":"\u56fd\u571f\u4ea4\u901a\u7701\u4e2d\u90e8\u5730\u65b9\u6574\u5099\u5c40\u4e2d\u90e8\u6280\u8853\u4e8b\u52d9\u6240","boring_xml_url":40,"boring_view_url":1,"soilmap_view_url":null,"soiltest_xml_url":0,"soiltest_view_url":0},{"id":166521,"code":"B4KJ201801005-4770","latitude":"35.3168061","longitude":"136.5934789","source_code":"CB52367477006","project_name":"","survey_name":"\u676d\u702c\u5ddd\u6f0f\u6c34\u30b1\u6240\u53ca\u3073\u99ac\u8fbc\u6a0b\u7ba1\u30dc\u30fc\u30ea\u30f3\u30b0\u5de5\u4e8b","client_name":"\u56fd\u571f\u4ea4\u901a\u7701\u4e2d\u90e8\u5730\u65b9\u6574\u5099\u5c40\u4e2d\u90e8\u6280\u8853\u4e8b\u52d9\u6240","boring_xml_url":40,"boring_view_url":1,"soilmap_view_url":null,"soiltest_xml_url":0,"soiltest_view_url":0},{"id":166520,"code":"B4KJ201801005-4769","latitude":"35.3168061","longitude":"136.5924511","source_code":"CB52367477005","project_name":"","survey_name":"\u676d\u702c\u5ddd\u6f0f\u6c34\u30b1\u6240\u53ca\u3073\u99ac\u8fbc\u6a0b\u7ba1\u30dc\u30fc\u30ea\u30f3\u30b0\u5de5\u4e8b","client_name":"\u56fd\u571f\u4ea4\u901a\u7701\u4e2d\u90e8\u5730\u65b9\u6574\u5099\u5c40\u4e2d\u90e8\u6280\u8853\u4e8b\u52d9\u6240","boring_xml_url":40,"boring_view_url":1,"soilmap_view_url":null,"soiltest_xml_url":0,"soiltest_view_url":0},{"id":166519,"code":"B4KJ201801005-4768","latitude":"35.3175283","longitude":"136.5945064","source_code":"CB52367477004","project_name":"","survey_name":"\u662d\u548c40\u5e74\u5ea6\u676d\u702c\u5ddd\u5824\u9632\u6f0f\u6c34\u30b1\u6240\u53ca\u3073\u99ac\u8fbc\u6a0b\u7ba1\u30dc\u30fc\u30ea\u30f3\u30b0\u5de5\u4e8b","client_name":"\u56fd\u571f\u4ea4\u901a\u7701\u4e2d\u90e8\u5730\u65b9\u6574\u5099\u5c40\u4e2d\u90e8\u6280\u8853\u4e8b\u52d9\u6240","boring_xml_url":40,"boring_view_url":1,"soilmap_view_url":null,"soiltest_xml_url":0,"soiltest_view_url":0},{"id":166518,"code":"B4KJ201801005-4767","latitude":"35.3179172","longitude":"136.5944786","source_code":"CB52367477003","project_name":"","survey_name":"\u662d\u548c40\u5e74\u5ea6\u676d\u702c\u5ddd\u5824\u9632\u6f0f\u6c34\u500b\u6240\u53ca\u3073\u99ac\u8fbc\u6a0b\u7ba1\u30dc\u30fc\u30ea\u30f3\u30b0\u5de5\u4e8b","client_name":"\u56fd\u571f\u4ea4\u901a\u7701\u4e2d\u90e8\u5730\u65b9\u6574\u5099\u5c40\u4e2d\u90e8\u6280\u8853\u4e8b\u52d9\u6240","boring_xml_url":40,"boring_view_url":1,"soilmap_view_url":null,"soiltest_xml_url":0,"soiltest_view_url":0},{"id":166517,"code":"B4KJ201801005-4766","latitude":"35.3187781","longitude":"136.5940619","source_code":"CB52367477002","project_name":"","survey_name":"\u662d\u548c40\u5e74\u5ea6\u676d\u702c\u5ddd\u5834\u9632\u6f0f\u6c34\u500b\u6240\u53ca\u3073\u99ac\u8fbc\u6a0b\u7ba1\u30dc\u30fc\u30ea\u30f3\u30b0\u5de5\u4e8b","client_name":"\u56fd\u571f\u4ea4\u901a\u7701\u4e2d\u90e8\u5730\u65b9\u6574\u5099\u5c40\u4e2d\u90e8\u6280\u8853\u4e8b\u52d9\u6240","boring_xml_url":40,"boring_view_url":1,"soilmap_view_url":null,"soiltest_xml_url":0,"soiltest_view_url":0},{"id":166516,"code":"B4KJ201801005-4765","latitude":"35.3195836","longitude":"136.5932842","source_code":"CB52367477001","project_name":"","survey_name":"\u662d\u548c40\u5e74\u5ea6\u676d\u702c\u5ddd\u5824\u9632\u6f0f\u6c34\u500b\u6240\u53ca\u3073\u99ac\u8fbc\u690d\u7ba1\u30dc\u30fc\u30ea\u30f3\u30b0\u5de5\u4e8b","client_name":"\u56fd\u571f\u4ea4\u901a\u7701\u4e2d\u90e8\u5730\u65b9\u6574\u5099\u5c40\u4e2d\u90e8\u6280\u8853\u4e8b\u52d9\u6240","boring_xml_url":40,"boring_view_url":1,"soilmap_view_url":null,"soiltest_xml_url":0,"soiltest_view_url":0},{"id":166515,"code":"B4KJ201801005-4764","latitude":"35.3125558","longitude":"136.5679533","source_code":"CB52367475001","project_name":"","survey_name":"\u7267\u7530\u5ddd\u5824\u9632\u8abf\u67fb","client_name":"\u56fd\u571f\u4ea4\u901a\u7701\u4e2d\u90e8\u5730\u65b9\u6574\u5099\u5c40\u6728\u66fd\u5ddd\u4e0a\u6d41\u6cb3\u5ddd\u4e8b\u52d9\u6240","boring_xml_url":40,"boring_view_url":1,"soilmap_view_url":null,"soiltest_xml_url":0,"soiltest_view_url":0},{"id":166514,"code":"B4KJ201801005-4763","latitude":"35.3053081","longitude":"136.6163383","source_code":"CB52367469002","project_name":"","survey_name":"\u662d\u548c40\u5e74\u5ea6\u56fd\u9053258\u53f7\u7dda\u5927\u57a3\u5730\u533a\u5730\u8cea\u8abf\u67fb","client_name":"\u56fd\u571f\u4ea4\u901a\u7701\u4e2d\u90e8\u5730\u65b9\u6574\u5099\u5c40\u4e2d\u90e8\u6280\u8853\u4e8b\u52d9\u6240","boring_xml_url":40,"boring_view_url":1,"soilmap_view_url":null,"soiltest_xml_url":0,"soiltest_view_url":0},{"id":166513,"code":"B4KJ201801005-4762","latitude":"35.3094742","longitude":"136.6170325","source_code":"CB52367469001","project_name":"","survey_name":"\u662d\u548c40\u5e74\u5ea6\u56fd\u9053258\u53f7\u7dda\u5927\u57a3\u5730\u533a\u5730\u8cea\u8abf\u67fb","client_name":"\u56fd\u571f\u4ea4\u901a\u7701\u4e2d\u90e8\u5730\u65b9\u6574\u5099\u5c40\u4e2d\u90e8\u6280\u8853\u4e8b\u52d9\u6240","boring_xml_url":40,"boring_view_url":1,"soilmap_view_url":null,"soiltest_xml_url":0,"soiltest_view_url":0},{"id":166512,"code":"B4KJ201801005-4761","latitude":"35.3073628","longitude":"136.5908128","source_code":"CB52367467003","project_name":"","survey_name":"\u662d\u548c54\u5e74\u5ea6.\u676d\u702c\u5ddd\u6c5f\u897f\u6392\u6c34\u6a5f\u5834\u59161\u4ef6\u4e88\u5099\u8a2d\u8a08\u696d\u52d9\u59d4\u8a17","client_name":"\u56fd\u571f\u4ea4\u901a\u7701\u4e2d\u90e8\u5730\u65b9\u6574\u5099\u5c40\u6728\u66fd\u5ddd\u4e0a\u6d41\u6cb3\u5ddd\u4e8b\u52d9\u6240","boring_xml_url":40,"boring_view_url":1,"soilmap_view_url":null,"soiltest_xml_url":0,"soiltest_view_url":0},{"id":166511,"code":"B4KJ201801005-4760","latitude":"35.3065572","longitude":"136.59484","source_code":"CB52367467002","project_name":"","survey_name":"\u662d\u548c54\u5e74\u5ea6.\u676d\u702c\u5ddd\u6c5f\u897f\u6392\u6c34\u6a5f\u5834\u59161\u4ef6\u4e88\u5099\u8a2d\u8a08\u696d\u52d9\u59d4\u8a17","client_name":"\u56fd\u571f\u4ea4\u901a\u7701\u4e2d\u90e8\u5730\u65b9\u6574\u5099\u5c40\u6728\u66fd\u5ddd\u4e0a\u6d41\u6cb3\u5ddd\u4e8b\u52d9\u6240","boring_xml_url":40,"boring_view_url":1,"soilmap_view_url":null,"soiltest_xml_url":0,"soiltest_view_url":0},{"id":166510,"code":"B4KJ201801005-4759","latitude":"35.3065572","longitude":"136.5928958","source_code":"CB52367467001","project_name":"","survey_name":"\u662d\u548c54\u5e74\u5ea6.\u676d\u702c\u5ddd\u6c5f\u897f\u6392\u6c34\u6a5f\u5834\u59161\u4ef6\u4e88\u5099\u8a2d\u8a08\u696d\u52d9\u59d4\u8a17","client_name":"\u56fd\u571f\u4ea4\u901a\u7701\u4e2d\u90e8\u5730\u65b9\u6574\u5099\u5c40\u6728\u66fd\u5ddd\u4e0a\u6d41\u6cb3\u5ddd\u4e8b\u52d9\u6240","boring_xml_url":40,"boring_view_url":1,"soilmap_view_url":null,"soiltest_xml_url":0,"soiltest_view_url":0},{"id":166509,"code":"B4KJ201801005-4758","latitude":"35.3051403","longitude":"136.5778972","source_code":"CB52367466005","project_name":"","survey_name":"\u5e73\u621010\u5e74\u5ea6\u6771\u6d77\u74b0\u72b6\u990a\u8001\u5730\u533a\u5730\u8cea\u8abf\u67fb","client_name":"\u56fd\u571f\u4ea4\u901a\u7701\u4e2d\u90e8\u5730\u65b9\u6574\u5099\u5c40\u5c90\u961c\u56fd\u9053\u4e8b\u52d9\u6240","boring_xml_url":40,"boring_view_url":1,"soilmap_view_url":null,"soiltest_xml_url":0,"soiltest_view_url":0},{"id":166508,"code":"B4KJ201801005-4757","latitude":"35.3098619","longitude":"136.5784525","source_code":"CB52367466004","project_name":"","survey_name":"\u5e73\u621010\u5e74\u5ea6\u6771\u6d77\u74b0\u72b6\u990a\u8001\u5730\u533a\u5730\u8cea\u8abf\u67fb","client_name":"\u56fd\u571f\u4ea4\u901a\u7701\u4e2d\u90e8\u5730\u65b9\u6574\u5099\u5c40\u5c90\u961c\u56fd\u9053\u4e8b\u52d9\u6240","boring_xml_url":40,"boring_view_url":1,"soilmap_view_url":null,"soiltest_xml_url":0,"soiltest_view_url":0},{"id":166507,"code":"B4KJ201801005-4756","latitude":"35.3068069","longitude":"136.578175","source_code":"CB52367466003","project_name":"","survey_name":"\u5e73\u621010\u5e74\u5ea6\u6771\u6d77\u74b0\u72b6\u990a\u8001\u5730\u533a\u5730\u8cea\u8abf\u67fb","client_name":"\u56fd\u571f\u4ea4\u901a\u7701\u4e2d\u90e8\u5730\u65b9\u6574\u5099\u5c40\u5c90\u961c\u56fd\u9053\u4e8b\u52d9\u6240","boring_xml_url":40,"boring_view_url":1,"soilmap_view_url":null,"soiltest_xml_url":0,"soiltest_view_url":0},{"id":166506,"code":"B4KJ201801005-4755","latitude":"35.3104453","longitude":"136.5748139","source_code":"CB52367466002","project_name":"","survey_name":"\u679a\u7530\u5ddd\u5824\u9632\u8abf\u67fb","client_name":"\u56fd\u571f\u4ea4\u901a\u7701\u4e2d\u90e8\u5730\u65b9\u6574\u5099\u5c40\u6728\u66fd\u5ddd\u4e0a\u6d41\u6cb3\u5ddd\u4e8b\u52d9\u6240","boring_xml_url":40,"boring_view_url":1,"soilmap_view_url":null,"soiltest_xml_url":0,"soiltest_view_url":0},{"id":166505,"code":"B4KJ201801005-4754","latitude":"35.3113339","longitude":"136.5740917","source_code":"CB52367466001","project_name":"","survey_name":"\u679a\u7530\u5ddd\u5824\u9632\u8abf\u67fb","client_name":"\u56fd\u571f\u4ea4\u901a\u7701\u4e2d\u90e8\u5730\u65b9\u6574\u5099\u5c40\u6728\u66fd\u5ddd\u4e0a\u6d41\u6cb3\u5ddd\u4e8b\u52d9\u6240","boring_xml_url":40,"boring_view_url":1,"soilmap_view_url":null,"soiltest_xml_url":0,"soiltest_view_url":0},{"id":166504,"code":"B4KJ201801005-4753","latitude":"35.2978089","longitude":"136.6178939","source_code":"CB52367459016","project_name":"","survey_name":"\u5e73\u62109\u5e74\u5ea6\u63d6\u6590\u5ddd\u53f3\u5cb8\u5824\u9632\u8a73\u7d30\u70b9\u691c","client_name":"\u56fd\u571f\u4ea4\u901a\u7701\u4e2d\u90e8\u5730\u65b9\u6574\u5099\u5c40\u6728\u66fd\u5ddd\u4e0a\u6d41\u6cb3\u5ddd\u4e8b\u52d9\u6240","boring_xml_url":40,"boring_view_url":1,"soilmap_view_url":null,"soiltest_xml_url":0,"soiltest_view_url":0},{"id":166503,"code":"B4KJ201801005-4752","latitude":"35.2971422","longitude":"136.6108392","source_code":"CB52367459012","project_name":"","survey_name":"\u662d\u548c54\u5e74\u5ea6,\u676d\u702c\u5ddd\u6a2a\u66fd\u6839\u6392\u6c34\u3072\u7ba1\u59161\u4ef6\u4e88\u5099\u8a2d\u8a08\u696d\u52d9\u59d4\u8a17","client_name":"\u56fd\u571f\u4ea4\u901a\u7701\u4e2d\u90e8\u5730\u65b9\u6574\u5099\u5c40\u6728\u66fd\u5ddd\u4e0a\u6d41\u6cb3\u5ddd\u4e8b\u52d9\u6240","boring_xml_url":40,"boring_view_url":1,"soilmap_view_url":null,"soiltest_xml_url":0,"soiltest_view_url":0},{"id":166502,"code":"B4KJ201801005-4751","latitude":"35.2967811","longitude":"136.6105336","source_code":"CB52367459011","project_name":"","survey_name":"\u662d\u548c54\u5e74\u5ea6,\u676d\u702c\u5ddd\u6a2a\u66fd\u6839\u6392\u6c34\u3072\u7ba1\u59161\u4ef6\u4e88\u5099\u8a2d\u8a08\u696d\u52d9\u59d4\u8a17","client_name":"\u56fd\u571f\u4ea4\u901a\u7701\u4e2d\u90e8\u5730\u65b9\u6574\u5099\u5c40\u6728\u66fd\u5ddd\u4e0a\u6d41\u6cb3\u5ddd\u4e8b\u52d9\u6240","boring_xml_url":40,"boring_view_url":1,"soilmap_view_url":null,"soiltest_xml_url":0,"soiltest_view_url":0},{"id":166501,"code":"B4KJ201801005-4750","latitude":"35.2954758","longitude":"136.6161997","source_code":"CB52367459010","project_name":"","survey_name":"\u662d\u548c58\u5e74\u5ea6\u63d6\u6590\u5ddd\u5fdc\u5bfe\u5de5\u4e8b\u5730\u8cea\u8abf\u67fb\u696d\u52d9\u59d4\u8a17","client_name":"\u56fd\u571f\u4ea4\u901a\u7701\u4e2d\u90e8\u5730\u65b9\u6574\u5099\u5c40\u6728\u66fd\u5ddd\u4e0a\u6d41\u6cb3\u5ddd\u4e8b\u52d9\u6240","boring_xml_url":40,"boring_view_url":1,"soilmap_view_url":null,"soiltest_xml_url":0,"soiltest_view_url":0},{"id":166500,"code":"B4KJ201801005-4749","latitude":"35.2966422","longitude":"136.6140333","source_code":"CB52367459009","project_name":"","survey_name":"\u662d\u548c58\u5e74\u5ea6\u63d6\u6590\u5ddd\u5fdc\u5bfe\u5de5\u4e8b\u5730\u8cea\u8abf\u67fb\u696d\u52d9\u59d4\u8a17","client_name":"\u56fd\u571f\u4ea4\u901a\u7701\u4e2d\u90e8\u5730\u65b9\u6574\u5099\u5c40\u6728\u66fd\u5ddd\u4e0a\u6d41\u6cb3\u5ddd\u4e8b\u52d9\u6240","boring_xml_url":40,"boring_view_url":1,"soilmap_view_url":null,"soiltest_xml_url":0,"soiltest_view_url":0},{"id":166499,"code":"B4KJ201801005-4748","latitude":"35.2951425","longitude":"136.6166719","source_code":"CB52367459008","project_name":"","survey_name":"\u6c34\u9580\u5ddd\u6392\u6c34\u6a5f\u5834\u8a66\u9310\u5de5\u4e8b\u5831\u544a\u66f8","client_name":"\u56fd\u571f\u4ea4\u901a\u7701\u4e2d\u90e8\u5730\u65b9\u6574\u5099\u5c40\u4e2d\u90e8\u6280\u8853\u4e8b\u52d9\u6240","boring_xml_url":40,"boring_view_url":1,"soilmap_view_url":null,"soiltest_xml_url":0,"soiltest_view_url":0},{"id":166498,"code":"B4KJ201801005-4747","latitude":"35.2955869","longitude":"136.6169219","source_code":"CB52367459007","project_name":"","survey_name":"\u6c34\u9580\u5ddd\u6392\u6c34\u6a5f\u5834\u8a66\u9310\u5de5\u4e8b","client_name":"\u56fd\u571f\u4ea4\u901a\u7701\u4e2d\u90e8\u5730\u65b9\u6574\u5099\u5c40\u4e2d\u90e8\u6280\u8853\u4e8b\u52d9\u6240","boring_xml_url":40,"boring_view_url":1,"soilmap_view_url":null,"soiltest_xml_url":0,"soiltest_view_url":0},{"id":166497,"code":"B4KJ201801005-4746","latitude":"35.2965033","longitude":"136.6172831","source_code":"CB52367459006","project_name":"","survey_name":"\u6c34\u9580\u5ddd\u6392\u6c34\u6a5f\u5834\u8a66\u9310\u5de5\u4e8b\u5831\u544a\u66f8","client_name":"\u56fd\u571f\u4ea4\u901a\u7701\u4e2d\u90e8\u5730\u65b9\u6574\u5099\u5c40\u4e2d\u90e8\u6280\u8853\u4e8b\u52d9\u6240","boring_xml_url":40,"boring_view_url":1,"soilmap_view_url":null,"soiltest_xml_url":0,"soiltest_view_url":0},{"id":166496,"code":"B4KJ201801005-4745","latitude":"35.2973089","longitude":"136.6142","source_code":"CB52367459005","project_name":"","survey_name":"\u662d\u548c40\u5e74\u5ea6\u56fd\u9053258\u53f7\u7dda\u5927\u57a3\u5730\u533a\u5730\u8cea\u8abf\u67fb","client_name":"\u56fd\u571f\u4ea4\u901a\u7701\u4e2d\u90e8\u5730\u65b9\u6574\u5099\u5c40\u4e2d\u90e8\u6280\u8853\u4e8b\u52d9\u6240","boring_xml_url":40,"boring_view_url":1,"soilmap_view_url":null,"soiltest_xml_url":0,"soiltest_view_url":0}]}}