{"header":{"xyz":{"source":[],"mosaic":false},"page":515,"raw":{"soiltest_result":"0","bbox":"57.598333,109.544722,1.933333,163.806111","page":"515"},"conditions":{"soiltest_result":0,"north":57.598333,"west":109.544722,"south":1.933333,"east":163.806111},"success":true,"message":""},"data":{"meta":{"total":212844,"page":515,"pages":7095,"count":30},"values":[{"id":529968,"code":"B4KJ202201003-2504","latitude":"33.377806","longitude":"130.423972","source_code":"QS20028933400200220012","project_name":"","survey_name":"\u798f\u5ca1201\u53f7\u3000\u98ef\u585a\u5e84\u5185\u7530\u5ddd\u30d0\u30a4\u30d1\u30b9\u5730\u8cea\u8abf\u67fb\u696d\u52d9","client_name":"\u56fd\u571f\u4ea4\u901a\u7701\u3000\u4e5d\u5dde\u5730\u65b9\u6574\u5099\u5c40\u3000\u5317\u4e5d\u5dde\u56fd\u9053\u4e8b\u52d9\u6240","boring_xml_url":72,"boring_view_url":1,"soilmap_view_url":null,"soiltest_xml_url":0,"soiltest_view_url":0},{"id":529967,"code":"B4KJ202201003-2503","latitude":"33.381806","longitude":"130.454917","source_code":"QS20028933400200220011","project_name":"","survey_name":"\u798f\u5ca1201\u53f7\u3000\u98ef\u585a\u5e84\u5185\u7530\u5ddd\u30d0\u30a4\u30d1\u30b9\u5730\u8cea\u8abf\u67fb\u696d\u52d9","client_name":"\u56fd\u571f\u4ea4\u901a\u7701\u3000\u4e5d\u5dde\u5730\u65b9\u6574\u5099\u5c40\u3000\u5317\u4e5d\u5dde\u56fd\u9053\u4e8b\u52d9\u6240","boring_xml_url":72,"boring_view_url":1,"soilmap_view_url":null,"soiltest_xml_url":0,"soiltest_view_url":0},{"id":529966,"code":"B4KJ202201003-2502","latitude":"33.381806","longitude":"130.454306","source_code":"QS20028933400200220010","project_name":"","survey_name":"\u798f\u5ca1201\u53f7\u3000\u98ef\u585a\u5e84\u5185\u7530\u5ddd\u30d0\u30a4\u30d1\u30b9\u5730\u8cea\u8abf\u67fb\u696d\u52d9","client_name":"\u56fd\u571f\u4ea4\u901a\u7701\u3000\u4e5d\u5dde\u5730\u65b9\u6574\u5099\u5c40\u3000\u5317\u4e5d\u5dde\u56fd\u9053\u4e8b\u52d9\u6240","boring_xml_url":72,"boring_view_url":1,"soilmap_view_url":null,"soiltest_xml_url":0,"soiltest_view_url":0},{"id":529965,"code":"B4KJ202201003-2501","latitude":"33.381889","longitude":"130.455222","source_code":"QS20028933400200220009","project_name":"","survey_name":"\u798f\u5ca1201\u53f7\u3000\u98ef\u585a\u5e84\u5185\u7530\u5ddd\u30d0\u30a4\u30d1\u30b9\u5730\u8cea\u8abf\u67fb\u696d\u52d9","client_name":"\u56fd\u571f\u4ea4\u901a\u7701\u3000\u4e5d\u5dde\u5730\u65b9\u6574\u5099\u5c40\u3000\u5317\u4e5d\u5dde\u56fd\u9053\u4e8b\u52d9\u6240","boring_xml_url":72,"boring_view_url":1,"soilmap_view_url":null,"soiltest_xml_url":0,"soiltest_view_url":0},{"id":529964,"code":"B4KJ202201003-2500","latitude":"33.374111","longitude":"130.424694","source_code":"QS20028933400200220008","project_name":"","survey_name":"\u798f\u5ca1201\u53f7\u3000\u98ef\u585a\u5e84\u5185\u7530\u5ddd\u30d0\u30a4\u30d1\u30b9\u5730\u8cea\u8abf\u67fb\u696d\u52d9","client_name":"\u56fd\u571f\u4ea4\u901a\u7701\u3000\u4e5d\u5dde\u5730\u65b9\u6574\u5099\u5c40\u3000\u5317\u4e5d\u5dde\u56fd\u9053\u4e8b\u52d9\u6240","boring_xml_url":72,"boring_view_url":1,"soilmap_view_url":null,"soiltest_xml_url":0,"soiltest_view_url":0},{"id":529963,"code":"B4KJ202201003-2499","latitude":"33.374111","longitude":"130.426","source_code":"QS20028933400200220007","project_name":"","survey_name":"\u798f\u5ca1201\u53f7\u3000\u98ef\u585a\u5e84\u5185\u7530\u5ddd\u30d0\u30a4\u30d1\u30b9\u5730\u8cea\u8abf\u67fb\u696d\u52d9","client_name":"\u56fd\u571f\u4ea4\u901a\u7701\u3000\u4e5d\u5dde\u5730\u65b9\u6574\u5099\u5c40\u3000\u5317\u4e5d\u5dde\u56fd\u9053\u4e8b\u52d9\u6240","boring_xml_url":72,"boring_view_url":1,"soilmap_view_url":null,"soiltest_xml_url":0,"soiltest_view_url":0},{"id":529962,"code":"B4KJ202201003-2498","latitude":"33.374","longitude":"130.4245","source_code":"QS20028933400200220006","project_name":"","survey_name":"\u798f\u5ca1201\u53f7\u3000\u98ef\u585a\u5e84\u5185\u7530\u5ddd\u30d0\u30a4\u30d1\u30b9\u5730\u8cea\u8abf\u67fb\u696d\u52d9","client_name":"\u56fd\u571f\u4ea4\u901a\u7701\u3000\u4e5d\u5dde\u5730\u65b9\u6574\u5099\u5c40\u3000\u5317\u4e5d\u5dde\u56fd\u9053\u4e8b\u52d9\u6240","boring_xml_url":72,"boring_view_url":1,"soilmap_view_url":null,"soiltest_xml_url":0,"soiltest_view_url":0},{"id":529961,"code":"B4KJ202201003-2497","latitude":"33.373889","longitude":"130.424389","source_code":"QS20028933400200220005","project_name":"","survey_name":"\u798f\u5ca1201\u53f7\u3000\u98ef\u585a\u5e84\u5185\u7530\u5ddd\u30d0\u30a4\u30d1\u30b9\u5730\u8cea\u8abf\u67fb\u696d\u52d9","client_name":"\u56fd\u571f\u4ea4\u901a\u7701\u3000\u4e5d\u5dde\u5730\u65b9\u6574\u5099\u5c40\u3000\u5317\u4e5d\u5dde\u56fd\u9053\u4e8b\u52d9\u6240","boring_xml_url":72,"boring_view_url":1,"soilmap_view_url":null,"soiltest_xml_url":0,"soiltest_view_url":0},{"id":529960,"code":"B4KJ202201003-2496","latitude":"33.373806","longitude":"130.424194","source_code":"QS20028933400200220004","project_name":"","survey_name":"\u798f\u5ca1201\u53f7\u3000\u98ef\u585a\u5e84\u5185\u7530\u5ddd\u30d0\u30a4\u30d1\u30b9\u5730\u8cea\u8abf\u67fb\u696d\u52d9","client_name":"\u56fd\u571f\u4ea4\u901a\u7701\u3000\u4e5d\u5dde\u5730\u65b9\u6574\u5099\u5c40\u3000\u5317\u4e5d\u5dde\u56fd\u9053\u4e8b\u52d9\u6240","boring_xml_url":72,"boring_view_url":1,"soilmap_view_url":null,"soiltest_xml_url":0,"soiltest_view_url":0},{"id":529959,"code":"B4KJ202201003-2495","latitude":"33.373778","longitude":"130.424111","source_code":"QS20028933400200220003","project_name":"","survey_name":"\u798f\u5ca1201\u53f7\u3000\u98ef\u585a\u5e84\u5185\u7530\u5ddd\u30d0\u30a4\u30d1\u30b9\u5730\u8cea\u8abf\u67fb\u696d\u52d9","client_name":"\u56fd\u571f\u4ea4\u901a\u7701\u3000\u4e5d\u5dde\u5730\u65b9\u6574\u5099\u5c40\u3000\u5317\u4e5d\u5dde\u56fd\u9053\u4e8b\u52d9\u6240","boring_xml_url":72,"boring_view_url":1,"soilmap_view_url":null,"soiltest_xml_url":0,"soiltest_view_url":0},{"id":529958,"code":"B4KJ202201003-2494","latitude":"33.376111","longitude":"130.423861","source_code":"QS20028933400200220002","project_name":"","survey_name":"\u798f\u5ca1201\u53f7\u3000\u98ef\u585a\u5e84\u5185\u7530\u5ddd\u30d0\u30a4\u30d1\u30b9\u5730\u8cea\u8abf\u67fb\u696d\u52d9","client_name":"\u56fd\u571f\u4ea4\u901a\u7701\u3000\u4e5d\u5dde\u5730\u65b9\u6574\u5099\u5c40\u3000\u5317\u4e5d\u5dde\u56fd\u9053\u4e8b\u52d9\u6240","boring_xml_url":72,"boring_view_url":1,"soilmap_view_url":null,"soiltest_xml_url":0,"soiltest_view_url":0},{"id":529957,"code":"B4KJ202201003-2493","latitude":"33.3755","longitude":"130.423611","source_code":"QS20028933400200220001","project_name":"","survey_name":"\u798f\u5ca1201\u53f7\u3000\u98ef\u585a\u5e84\u5185\u7530\u5ddd\u30d0\u30a4\u30d1\u30b9\u5730\u8cea\u8abf\u67fb\u696d\u52d9","client_name":"\u56fd\u571f\u4ea4\u901a\u7701\u3000\u4e5d\u5dde\u5730\u65b9\u6574\u5099\u5c40\u3000\u5317\u4e5d\u5dde\u56fd\u9053\u4e8b\u52d9\u6240","boring_xml_url":72,"boring_view_url":1,"soilmap_view_url":null,"soiltest_xml_url":0,"soiltest_view_url":0},{"id":529956,"code":"B4KJ202201003-2492","latitude":"33.179165","longitude":"130.415871","source_code":"QS20038932610200120012","project_name":"\u6709\u660e\u6d77\u6cbf\u5cb8\u9053\u8def(\u5927\u548c\u30fb\u67f3\u5ddd\u5730\u533a)","survey_name":"\u5730\u8cea\u8abf\u67fb\u696d\u52d9","client_name":"\u56fd\u571f\u4ea4\u901a\u7701\u4e5d\u5dde\u5730\u65b9\u6574\u5099\u5c40\u798f\u5ca1\u56fd\u9053\u4e8b\u52d9\u6240","boring_xml_url":72,"boring_view_url":1,"soilmap_view_url":null,"soiltest_xml_url":0,"soiltest_view_url":0},{"id":529955,"code":"B4KJ202201003-2491","latitude":"33.179054","longitude":"130.416926","source_code":"QS20038932610200120011","project_name":"\u6709\u660e\u6d77\u6cbf\u5cb8\u9053\u8def(\u5927\u548c\u30fb\u67f3\u5ddd\u5730\u533a)","survey_name":"\u5730\u8cea\u8abf\u67fb\u696d\u52d9","client_name":"\u56fd\u571f\u4ea4\u901a\u7701\u4e5d\u5dde\u5730\u65b9\u6574\u5099\u5c40\u798f\u5ca1\u56fd\u9053\u4e8b\u52d9\u6240","boring_xml_url":72,"boring_view_url":1,"soilmap_view_url":null,"soiltest_xml_url":0,"soiltest_view_url":0},{"id":529954,"code":"B4KJ202201003-2490","latitude":"33.160751","longitude":"130.42101","source_code":"QS20038932610200120010","project_name":"\u6709\u660e\u6d77\u6cbf\u5cb8\u9053\u8def(\u5927\u548c\u30fb\u67f3\u5ddd\u5730\u533a)","survey_name":"\u5730\u8cea\u8abf\u67fb\u696d\u52d9","client_name":"\u56fd\u571f\u4ea4\u901a\u7701\u4e5d\u5dde\u5730\u65b9\u6574\u5099\u5c40\u798f\u5ca1\u56fd\u9053\u4e8b\u52d9\u6240","boring_xml_url":72,"boring_view_url":1,"soilmap_view_url":null,"soiltest_xml_url":0,"soiltest_view_url":0},{"id":529953,"code":"B4KJ202201003-2489","latitude":"33.178915","longitude":"130.415871","source_code":"QS20038932610200120009","project_name":"\u6709\u660e\u6d77\u6cbf\u5cb8\u9053\u8def(\u5927\u548c\u30fb\u67f3\u5ddd\u5730\u533a)","survey_name":"\u5730\u8cea\u8abf\u67fb\u696d\u52d9","client_name":"\u56fd\u571f\u4ea4\u901a\u7701\u4e5d\u5dde\u5730\u65b9\u6574\u5099\u5c40\u798f\u5ca1\u56fd\u9053\u4e8b\u52d9\u6240","boring_xml_url":72,"boring_view_url":1,"soilmap_view_url":null,"soiltest_xml_url":0,"soiltest_view_url":0},{"id":529952,"code":"B4KJ202201003-2488","latitude":"33.178804","longitude":"130.416843","source_code":"QS20038932610200120008","project_name":"\u6709\u660e\u6d77\u6cbf\u5cb8\u9053\u8def(\u5927\u548c\u30fb\u67f3\u5ddd\u5730\u533a)","survey_name":"\u5730\u8cea\u8abf\u67fb\u696d\u52d9","client_name":"\u56fd\u571f\u4ea4\u901a\u7701\u4e5d\u5dde\u5730\u65b9\u6574\u5099\u5c40\u798f\u5ca1\u56fd\u9053\u4e8b\u52d9\u6240","boring_xml_url":72,"boring_view_url":1,"soilmap_view_url":null,"soiltest_xml_url":0,"soiltest_view_url":0},{"id":529951,"code":"B4KJ202201003-2487","latitude":"33.167278","longitude":"130.42276","source_code":"QS20038932610200120007","project_name":"\u6709\u660e\u6d77\u6cbf\u5cb8\u9053\u8def(\u5927\u548c\u30fb\u67f3\u5ddd\u5730\u533a)","survey_name":"\u5730\u8cea\u8abf\u67fb\u696d\u52d9","client_name":"\u56fd\u571f\u4ea4\u901a\u7701\u4e5d\u5dde\u5730\u65b9\u6574\u5099\u5c40\u798f\u5ca1\u56fd\u9053\u4e8b\u52d9\u6240","boring_xml_url":72,"boring_view_url":1,"soilmap_view_url":null,"soiltest_xml_url":0,"soiltest_view_url":0},{"id":529950,"code":"B4KJ202201003-2486","latitude":"33.163667","longitude":"130.422899","source_code":"QS20038932610200120006","project_name":"\u6709\u660e\u6d77\u6cbf\u5cb8\u9053\u8def(\u5927\u548c\u30fb\u67f3\u5ddd\u5730\u533a)","survey_name":"\u5730\u8cea\u8abf\u67fb\u696d\u52d9","client_name":"\u56fd\u571f\u4ea4\u901a\u7701\u4e5d\u5dde\u5730\u65b9\u6574\u5099\u5c40\u798f\u5ca1\u56fd\u9053\u4e8b\u52d9\u6240","boring_xml_url":72,"boring_view_url":1,"soilmap_view_url":null,"soiltest_xml_url":0,"soiltest_view_url":0},{"id":529949,"code":"B4KJ202201003-2485","latitude":"33.157361","longitude":"130.424389","source_code":"QS20038932610200120005","project_name":"\u6709\u660e\u6d77\u6cbf\u5cb8\u9053\u8def(\u5927\u548c\u30fb\u67f3\u5ddd\u5730\u533a)","survey_name":"\u5730\u8cea\u8abf\u67fb\u696d\u52d9","client_name":"\u56fd\u571f\u4ea4\u901a\u7701\u4e5d\u5dde\u5730\u65b9\u6574\u5099\u5c40\u798f\u5ca1\u56fd\u9053\u4e8b\u52d9\u6240","boring_xml_url":72,"boring_view_url":1,"soilmap_view_url":null,"soiltest_xml_url":0,"soiltest_view_url":0},{"id":529948,"code":"B4KJ202201003-2484","latitude":"33.156779","longitude":"130.420732","source_code":"QS20038932610200120004","project_name":"\u6709\u660e\u6d77\u6cbf\u5cb8\u9053\u8def(\u5927\u548c\u30fb\u67f3\u5ddd\u5730\u533a)","survey_name":"\u5730\u8cea\u8abf\u67fb\u696d\u52d9","client_name":"\u56fd\u571f\u4ea4\u901a\u7701\u4e5d\u5dde\u5730\u65b9\u6574\u5099\u5c40\u798f\u5ca1\u56fd\u9053\u4e8b\u52d9\u6240","boring_xml_url":72,"boring_view_url":1,"soilmap_view_url":null,"soiltest_xml_url":0,"soiltest_view_url":0},{"id":529947,"code":"B4KJ202201003-2483","latitude":"33.154251","longitude":"130.41526","source_code":"QS20038932610200120003","project_name":"\u6709\u660e\u6d77\u6cbf\u5cb8\u9053\u8def(\u5927\u548c\u30fb\u67f3\u5ddd\u5730\u533a)","survey_name":"\u5730\u8cea\u8abf\u67fb\u696d\u52d9","client_name":"\u56fd\u571f\u4ea4\u901a\u7701\u4e5d\u5dde\u5730\u65b9\u6574\u5099\u5c40\u798f\u5ca1\u56fd\u9053\u4e8b\u52d9\u6240","boring_xml_url":72,"boring_view_url":1,"soilmap_view_url":null,"soiltest_xml_url":0,"soiltest_view_url":0},{"id":529946,"code":"B4KJ202201003-2482","latitude":"33.153335","longitude":"130.41526","source_code":"QS20038932610200120002","project_name":"\u6709\u660e\u6d77\u6cbf\u5cb8\u9053\u8def(\u5927\u548c\u30fb\u67f3\u5ddd\u5730\u533a)","survey_name":"\u5730\u8cea\u8abf\u67fb\u696d\u52d9","client_name":"\u56fd\u571f\u4ea4\u901a\u7701\u4e5d\u5dde\u5730\u65b9\u6574\u5099\u5c40\u798f\u5ca1\u56fd\u9053\u4e8b\u52d9\u6240","boring_xml_url":72,"boring_view_url":1,"soilmap_view_url":null,"soiltest_xml_url":0,"soiltest_view_url":0},{"id":529945,"code":"B4KJ202201003-2481","latitude":"33.151529","longitude":"130.421566","source_code":"QS20038932610200120001","project_name":"\u6709\u660e\u6d77\u6cbf\u5cb8\u9053\u8def(\u5927\u548c\u30fb\u67f3\u5ddd\u5730\u533a)","survey_name":"\u5730\u8cea\u8abf\u67fb\u696d\u52d9","client_name":"\u56fd\u571f\u4ea4\u901a\u7701\u4e5d\u5dde\u5730\u65b9\u6574\u5099\u5c40\u798f\u5ca1\u56fd\u9053\u4e8b\u52d9\u6240","boring_xml_url":72,"boring_view_url":1,"soilmap_view_url":null,"soiltest_xml_url":0,"soiltest_view_url":0},{"id":529944,"code":"B4KJ202201003-2480","latitude":"33.653284","longitude":"130.439888","source_code":"QS20038932510200100005","project_name":"","survey_name":"\u5317\u90e8\u5730\u533a\u69cb\u9020\u7269\u88dc\u4fee\u6e2c\u91cf\u8a2d\u8a08\u696d\u52d9","client_name":"\u56fd\u571f\u4ea4\u901a\u7701\u4e5d\u5dde\u5730\u65b9\u6574\u5099\u5c40\u798f\u5ca1\u56fd\u9053\u4e8b\u52d9\u6240","boring_xml_url":72,"boring_view_url":1,"soilmap_view_url":null,"soiltest_xml_url":0,"soiltest_view_url":0},{"id":529943,"code":"B4KJ202201003-2479","latitude":"33.653562","longitude":"130.440444","source_code":"QS20038932510200100004","project_name":"","survey_name":"\u5317\u90e8\u5730\u533a\u69cb\u9020\u7269\u88dc\u4fee\u6e2c\u91cf\u8a2d\u8a08\u696d\u52d9","client_name":"\u56fd\u571f\u4ea4\u901a\u7701\u4e5d\u5dde\u5730\u65b9\u6574\u5099\u5c40\u798f\u5ca1\u56fd\u9053\u4e8b\u52d9\u6240","boring_xml_url":72,"boring_view_url":1,"soilmap_view_url":null,"soiltest_xml_url":0,"soiltest_view_url":0},{"id":529942,"code":"B4KJ202201003-2478","latitude":"33.653006","longitude":"130.440166","source_code":"QS20038932510200100003","project_name":"","survey_name":"\u5317\u90e8\u5730\u533a\u69cb\u9020\u7269\u88dc\u4fee\u6e2c\u91cf\u8a2d\u8a08\u696d\u52d9","client_name":"\u56fd\u571f\u4ea4\u901a\u7701\u4e5d\u5dde\u5730\u65b9\u6574\u5099\u5c40\u798f\u5ca1\u56fd\u9053\u4e8b\u52d9\u6240","boring_xml_url":72,"boring_view_url":1,"soilmap_view_url":null,"soiltest_xml_url":0,"soiltest_view_url":0},{"id":529941,"code":"B4KJ202201003-2477","latitude":"33.653006","longitude":"130.439333","source_code":"QS20038932510200100002","project_name":"","survey_name":"\u5317\u90e8\u5730\u533a\u69cb\u9020\u7269\u88dc\u4fee\u6e2c\u91cf\u8a2d\u8a08\u696d\u52d9","client_name":"\u56fd\u571f\u4ea4\u901a\u7701\u4e5d\u5dde\u5730\u65b9\u6574\u5099\u5c40\u798f\u5ca1\u56fd\u9053\u4e8b\u52d9\u6240","boring_xml_url":72,"boring_view_url":1,"soilmap_view_url":null,"soiltest_xml_url":0,"soiltest_view_url":0},{"id":529940,"code":"B4KJ202201003-2476","latitude":"33.653562","longitude":"130.43961","source_code":"QS20038932510200100001","project_name":"","survey_name":"\u5317\u90e8\u5730\u533a\u69cb\u9020\u7269\u88dc\u4fee\u6e2c\u91cf\u8a2d\u8a08\u696d\u52d9","client_name":"\u56fd\u571f\u4ea4\u901a\u7701\u4e5d\u5dde\u5730\u65b9\u6574\u5099\u5c40\u798f\u5ca1\u56fd\u9053\u4e8b\u52d9\u6240","boring_xml_url":72,"boring_view_url":1,"soilmap_view_url":null,"soiltest_xml_url":0,"soiltest_view_url":0},{"id":529939,"code":"B4KJ202201003-2475","latitude":"33.224583","longitude":"130.502611","source_code":"QS20038932510200040001","project_name":"\u64c1\u58c1\u8abf\u67fb","survey_name":"\u8d64\u5742\u6a4b\u6e2c\u91cf\u8a2d\u8a08\u696d\u52d9(\u718a\u91ce\u5730\u533a)","client_name":"\"\u56fd\u571f\u4ea4\u901a\u7701 \u4e5d\u5dde\u5730\u65b9\u6574\u5099\u5c40 \u798f\u5ca1\u56fd\u9053\u4e8b\u52d9\u6240\"","boring_xml_url":72,"boring_view_url":1,"soilmap_view_url":null,"soiltest_xml_url":0,"soiltest_view_url":0}]}}