{"header":{"xyz":{"source":[],"mosaic":false},"page":5150,"raw":{"soiltest_result":"0","bbox":"57.598333,109.544722,1.933333,163.806111","page":"5150"},"conditions":{"soiltest_result":0,"north":57.598333,"west":109.544722,"south":1.933333,"east":163.806111},"success":true,"message":""},"data":{"meta":{"total":212844,"page":5150,"pages":7095,"count":30},"values":[{"id":166075,"code":"B4KJ201801005-4324","latitude":"35.1236411","longitude":"136.9021811","source_code":"CB52365742006","project_name":"","survey_name":"\u65b0\u767d\u9ce5\u6a4b\u4e88\u5b9a\u5730\u70b9\u5730\u8cea\u8abf\u67fb","client_name":"\u56fd\u571f\u4ea4\u901a\u7701\u4e2d\u90e8\u5730\u65b9\u6574\u5099\u5c40\u4e2d\u90e8\u6280\u8853\u4e8b\u52d9\u6240","boring_xml_url":40,"boring_view_url":1,"soilmap_view_url":null,"soiltest_xml_url":0,"soiltest_view_url":0},{"id":166074,"code":"B4KJ201801005-4323","latitude":"35.1244744","longitude":"136.9028197","source_code":"CB52365742005","project_name":"","survey_name":"\u65b0\u767d\u9ce5\u6a4b\u4e88\u5b9a\u5730\u70b9\u5730\u8cea\u8abf\u67fb","client_name":"\u56fd\u571f\u4ea4\u901a\u7701\u4e2d\u90e8\u5730\u65b9\u6574\u5099\u5c40\u4e2d\u90e8\u6280\u8853\u4e8b\u52d9\u6240","boring_xml_url":40,"boring_view_url":1,"soilmap_view_url":null,"soiltest_xml_url":0,"soiltest_view_url":0},{"id":166073,"code":"B4KJ201801005-4322","latitude":"35.12428","longitude":"136.9022644","source_code":"CB52365742004","project_name":"","survey_name":"\u65b0\u767d\u9ce5\u6a4b\u4e88\u5b9a\u5730\u70b9\u5730\u8cea\u8abf\u67fb","client_name":"\u56fd\u571f\u4ea4\u901a\u7701\u4e2d\u90e8\u5730\u65b9\u6574\u5099\u5c40\u4e2d\u90e8\u6280\u8853\u4e8b\u52d9\u6240","boring_xml_url":40,"boring_view_url":1,"soilmap_view_url":null,"soiltest_xml_url":0,"soiltest_view_url":0},{"id":166072,"code":"B4KJ201801005-4321","latitude":"35.1248911","longitude":"136.9027642","source_code":"CB52365742003","project_name":"","survey_name":"\u65b0\u767d\u9ce5\u6a4b\u4e88\u5b9a\u5730\u70b9\u5730\u8cea\u8abf\u67fb","client_name":"\u56fd\u571f\u4ea4\u901a\u7701\u4e2d\u90e8\u5730\u65b9\u6574\u5099\u5c40\u4e2d\u90e8\u6280\u8853\u4e8b\u52d9\u6240","boring_xml_url":40,"boring_view_url":1,"soilmap_view_url":null,"soiltest_xml_url":0,"soiltest_view_url":0},{"id":166071,"code":"B4KJ201801005-4320","latitude":"35.1231133","longitude":"136.9043753","source_code":"CB52365742001","project_name":"","survey_name":"\u662d\u548c\u6a4b\u4ed6\u5171\u540c\u6e9d\u5730\u8cea\u8abf\u67fb","client_name":"\u56fd\u571f\u4ea4\u901a\u7701\u4e2d\u90e8\u5730\u65b9\u6574\u5099\u5c40\u4e2d\u90e8\u6280\u8853\u4e8b\u52d9\u6240","boring_xml_url":40,"boring_view_url":1,"soilmap_view_url":null,"soiltest_xml_url":0,"soiltest_view_url":0},{"id":166070,"code":"B4KJ201801005-4319","latitude":"35.1235019","longitude":"136.8862936","source_code":"CB52365741007","project_name":"","survey_name":"\u5e73\u62103\u5e74\u5ea6\u662d\u548c\u5171\u540c\u6e9d\u5730\u8cea\u8abf\u67fb","client_name":"\u56fd\u571f\u4ea4\u901a\u7701\u4e2d\u90e8\u5730\u65b9\u6574\u5099\u5c40\u540d\u53e4\u5c4b\u56fd\u9053\u4e8b\u52d9\u6240","boring_xml_url":40,"boring_view_url":1,"soilmap_view_url":null,"soiltest_xml_url":0,"soiltest_view_url":0},{"id":166069,"code":"B4KJ201801005-4318","latitude":"35.1240575","longitude":"136.8907931","source_code":"CB52365741006","project_name":"","survey_name":"\u662d\u548c54\u5e74\u5ea6\u662d\u548c\u6a4b\u5730\u8cea\u8abf\u67fb","client_name":"\u56fd\u571f\u4ea4\u901a\u7701\u4e2d\u90e8\u5730\u65b9\u6574\u5099\u5c40\u540d\u53e4\u5c4b\u56fd\u9053\u4e8b\u52d9\u6240","boring_xml_url":40,"boring_view_url":1,"soilmap_view_url":null,"soiltest_xml_url":0,"soiltest_view_url":0},{"id":166068,"code":"B4KJ201801005-4317","latitude":"35.1240575","longitude":"136.8907931","source_code":"CB52365741005","project_name":"","survey_name":"\u662d\u548c\u6a4b\u4ed6\u5171\u540c\u6e9d\u5730\u8cea\u8abf\u67fb","client_name":"\u56fd\u571f\u4ea4\u901a\u7701\u4e2d\u90e8\u5730\u65b9\u6574\u5099\u5c40\u4e2d\u90e8\u6280\u8853\u4e8b\u52d9\u6240","boring_xml_url":40,"boring_view_url":1,"soilmap_view_url":null,"soiltest_xml_url":0,"soiltest_view_url":0},{"id":166067,"code":"B4KJ201801005-4316","latitude":"35.1242519","longitude":"136.8966536","source_code":"CB52365741004","project_name":"","survey_name":"\u662d\u548c\u6a4b\u4ed6\u5171\u540c\u6e9d\u5730\u8cea\u8abf\u67fb","client_name":"\u56fd\u571f\u4ea4\u901a\u7701\u4e2d\u90e8\u5730\u65b9\u6574\u5099\u5c40\u4e2d\u90e8\u6280\u8853\u4e8b\u52d9\u6240","boring_xml_url":40,"boring_view_url":1,"soilmap_view_url":null,"soiltest_xml_url":0,"soiltest_view_url":0},{"id":166066,"code":"B4KJ201801005-4315","latitude":"35.1241686","longitude":"136.8916542","source_code":"CB52365741003","project_name":"","survey_name":"\u662d\u548c\u6a4b\u4ed6\u5171\u540c\u6e9d\u5730\u8cea\u8abf\u67fb","client_name":"\u56fd\u571f\u4ea4\u901a\u7701\u4e2d\u90e8\u5730\u65b9\u6574\u5099\u5c40\u4e2d\u90e8\u6280\u8853\u4e8b\u52d9\u6240","boring_xml_url":40,"boring_view_url":1,"soilmap_view_url":null,"soiltest_xml_url":0,"soiltest_view_url":0},{"id":166065,"code":"B4KJ201801005-4314","latitude":"35.1235297","longitude":"136.88996","source_code":"CB52365741002","project_name":"","survey_name":"\u662d\u548c\u6a4b\u4ed6\u5171\u540c\u6e9d\u5730\u8cea\u8abf\u67fb","client_name":"\u56fd\u571f\u4ea4\u901a\u7701\u4e2d\u90e8\u5730\u65b9\u6574\u5099\u5c40\u4e2d\u90e8\u6280\u8853\u4e8b\u52d9\u6240","boring_xml_url":40,"boring_view_url":1,"soilmap_view_url":null,"soiltest_xml_url":0,"soiltest_view_url":0},{"id":166064,"code":"B4KJ201801005-4313","latitude":"35.1232797","longitude":"136.8862936","source_code":"CB52365741001","project_name":"","survey_name":"\u662d\u548c\u6a4b\u4ed6\u5171\u540c\u6e9d\u5730\u8cea\u8abf\u67fb","client_name":"\u56fd\u571f\u4ea4\u901a\u7701\u4e2d\u90e8\u5730\u65b9\u6574\u5099\u5c40\u4e2d\u90e8\u6280\u8853\u4e8b\u52d9\u6240","boring_xml_url":40,"boring_view_url":1,"soilmap_view_url":null,"soiltest_xml_url":0,"soiltest_view_url":0},{"id":166063,"code":"B4KJ201801005-4312","latitude":"35.1250292","longitude":"136.8767942","source_code":"CB52365740103","project_name":"","survey_name":"\u662d\u548c\u6a4b\u5730\u8cea\u8abf\u67fb","client_name":"\u56fd\u571f\u4ea4\u901a\u7701\u4e2d\u90e8\u5730\u65b9\u6574\u5099\u5c40\u540d\u53e4\u5c4b\u56fd\u9053\u4e8b\u52d9\u6240","boring_xml_url":40,"boring_view_url":1,"soilmap_view_url":null,"soiltest_xml_url":0,"soiltest_view_url":0},{"id":166062,"code":"B4KJ201801005-4311","latitude":"35.1254181","longitude":"136.8768775","source_code":"CB52365740102","project_name":"","survey_name":"\u662d\u548c53\u5e74\u5ea61\u53f7\u9053\u8def\u5730\u8cea\u8abf\u67fb","client_name":"\u56fd\u571f\u4ea4\u901a\u7701\u4e2d\u90e8\u5730\u65b9\u6574\u5099\u5c40\u540d\u53e4\u5c4b\u56fd\u9053\u4e8b\u52d9\u6240","boring_xml_url":40,"boring_view_url":1,"soilmap_view_url":null,"soiltest_xml_url":0,"soiltest_view_url":0},{"id":166061,"code":"B4KJ201801005-4310","latitude":"35.1250014","longitude":"136.8761278","source_code":"CB52365740096","project_name":"","survey_name":"\u662d\u548c53\u5e74\u5ea61\u53f7\u9053\u8def\u5730\u8cea\u8abf\u67fb","client_name":"\u56fd\u571f\u4ea4\u901a\u7701\u4e2d\u90e8\u5730\u65b9\u6574\u5099\u5c40\u540d\u53e4\u5c4b\u56fd\u9053\u4e8b\u52d9\u6240","boring_xml_url":40,"boring_view_url":1,"soilmap_view_url":null,"soiltest_xml_url":0,"soiltest_view_url":0},{"id":166060,"code":"B4KJ201801005-4309","latitude":"35.1236408","longitude":"136.8844325","source_code":"CB52365740059","project_name":"","survey_name":"46\u5e74\u5ea6\u662d\u548c\u6a4b\u4ed6\u5171\u540c\u6e9d\u5730\u8cea\u8abf\u67fb","client_name":"\u56fd\u571f\u4ea4\u901a\u7701\u4e2d\u90e8\u5730\u65b9\u6574\u5099\u5c40\u540d\u53e4\u5c4b\u56fd\u9053\u4e8b\u52d9\u6240","boring_xml_url":40,"boring_view_url":1,"soilmap_view_url":null,"soiltest_xml_url":0,"soiltest_view_url":0},{"id":166059,"code":"B4KJ201801005-4308","latitude":"35.1239461","longitude":"136.8830161","source_code":"CB52365740011","project_name":"","survey_name":"\u5e73\u62103\u5e74\u5ea6\u662d\u548c\u5171\u540c\u6e9d\u5730\u8cea\u8abf\u67fb","client_name":"\u56fd\u571f\u4ea4\u901a\u7701\u4e2d\u90e8\u5730\u65b9\u6574\u5099\u5c40\u540d\u53e4\u5c4b\u56fd\u9053\u4e8b\u52d9\u6240","boring_xml_url":40,"boring_view_url":1,"soilmap_view_url":null,"soiltest_xml_url":0,"soiltest_view_url":0},{"id":166058,"code":"B4KJ201801005-4307","latitude":"35.1240572","longitude":"136.8782942","source_code":"CB52365740010","project_name":"","survey_name":"\u662d\u548c54\u5e74\u5ea6\u662d\u548c\u6a4b\u5730\u8cea\u8abf\u67fb","client_name":"\u56fd\u571f\u4ea4\u901a\u7701\u4e2d\u90e8\u5730\u65b9\u6574\u5099\u5c40\u540d\u53e4\u5c4b\u56fd\u9053\u4e8b\u52d9\u6240","boring_xml_url":40,"boring_view_url":1,"soilmap_view_url":null,"soiltest_xml_url":0,"soiltest_view_url":0},{"id":166057,"code":"B4KJ201801005-4306","latitude":"35.1240572","longitude":"136.8782942","source_code":"CB52365740009","project_name":"","survey_name":"\u662d\u548c54\u5e74\u5ea6\u662d\u548c\u6a4b\u5730\u8cea\u8abf\u67fb","client_name":"\u56fd\u571f\u4ea4\u901a\u7701\u4e2d\u90e8\u5730\u65b9\u6574\u5099\u5c40\u540d\u53e4\u5c4b\u56fd\u9053\u4e8b\u52d9\u6240","boring_xml_url":40,"boring_view_url":1,"soilmap_view_url":null,"soiltest_xml_url":0,"soiltest_view_url":0},{"id":166056,"code":"B4KJ201801005-4305","latitude":"35.1240572","longitude":"136.8782942","source_code":"CB52365740008","project_name":"","survey_name":"\u662d\u548c54\u5e74\u5ea6\u662d\u548c\u6a4b\u5730\u8cea\u8abf\u67fb","client_name":"\u56fd\u571f\u4ea4\u901a\u7701\u4e2d\u90e8\u5730\u65b9\u6574\u5099\u5c40\u540d\u53e4\u5c4b\u56fd\u9053\u4e8b\u52d9\u6240","boring_xml_url":40,"boring_view_url":1,"soilmap_view_url":null,"soiltest_xml_url":0,"soiltest_view_url":0},{"id":166055,"code":"B4KJ201801005-4304","latitude":"35.1251958","longitude":"136.8749333","source_code":"CB52365740007","project_name":"","survey_name":"\u662d\u548c\u6a4b\u4ed6\u5171\u540c\u6e9d\u5730\u8cea\u8abf\u67fb","client_name":"\u56fd\u571f\u4ea4\u901a\u7701\u4e2d\u90e8\u5730\u65b9\u6574\u5099\u5c40\u4e2d\u90e8\u6280\u8853\u4e8b\u52d9\u6240","boring_xml_url":40,"boring_view_url":1,"soilmap_view_url":null,"soiltest_xml_url":0,"soiltest_view_url":0},{"id":166054,"code":"B4KJ201801005-4303","latitude":"35.1251958","longitude":"136.8764889","source_code":"CB52365740005","project_name":"","survey_name":"\u662d\u548c\u6a4b\u5730\u8cea\u8abf\u67fb","client_name":"\u56fd\u571f\u4ea4\u901a\u7701\u4e2d\u90e8\u5730\u65b9\u6574\u5099\u5c40\u4e2d\u90e8\u6280\u8853\u4e8b\u52d9\u6240","boring_xml_url":40,"boring_view_url":1,"soilmap_view_url":null,"soiltest_xml_url":0,"soiltest_view_url":0},{"id":166053,"code":"B4KJ201801005-4302","latitude":"35.1251958","longitude":"136.8749333","source_code":"CB52365740004","project_name":"","survey_name":"\u662d\u548c\u6a4b\u5730\u8cea\u8abf\u67fb","client_name":"\u56fd\u571f\u4ea4\u901a\u7701\u4e2d\u90e8\u5730\u65b9\u6574\u5099\u5c40\u4e2d\u90e8\u6280\u8853\u4e8b\u52d9\u6240","boring_xml_url":40,"boring_view_url":1,"soilmap_view_url":null,"soiltest_xml_url":0,"soiltest_view_url":0},{"id":166052,"code":"B4KJ201801005-4301","latitude":"35.1245572","longitude":"136.881655","source_code":"CB52365740003","project_name":"","survey_name":"\u662d\u548c\u6a4b\u4ed6\u5171\u540c\u6e9d\u5730\u8cea\u8abf\u67fb","client_name":"\u56fd\u571f\u4ea4\u901a\u7701\u4e2d\u90e8\u5730\u65b9\u6574\u5099\u5c40\u4e2d\u90e8\u6280\u8853\u4e8b\u52d9\u6240","boring_xml_url":40,"boring_view_url":1,"soilmap_view_url":null,"soiltest_xml_url":0,"soiltest_view_url":0},{"id":166051,"code":"B4KJ201801005-4300","latitude":"35.1242517","longitude":"136.8802939","source_code":"CB52365740002","project_name":"","survey_name":"\u662d\u548c\u6a4b\u4ed6\u5171\u540c\u6e9d\u5730\u8cea\u8abf\u67fb","client_name":"\u56fd\u571f\u4ea4\u901a\u7701\u4e2d\u90e8\u5730\u65b9\u6574\u5099\u5c40\u4e2d\u90e8\u6280\u8853\u4e8b\u52d9\u6240","boring_xml_url":40,"boring_view_url":1,"soilmap_view_url":null,"soiltest_xml_url":0,"soiltest_view_url":0},{"id":166050,"code":"B4KJ201801005-4299","latitude":"35.1252514","longitude":"136.8779886","source_code":"CB52365740001","project_name":"","survey_name":"\u662d\u548c\u6a4b\u4ed6\u5171\u540c\u6e9d\u5730\u8cea\u8abf\u67fb","client_name":"\u56fd\u571f\u4ea4\u901a\u7701\u4e2d\u90e8\u5730\u65b9\u6574\u5099\u5c40\u4e2d\u90e8\u6280\u8853\u4e8b\u52d9\u6240","boring_xml_url":40,"boring_view_url":1,"soilmap_view_url":null,"soiltest_xml_url":0,"soiltest_view_url":0},{"id":166049,"code":"B4KJ201801005-4298","latitude":"35.1196978","longitude":"136.9328175","source_code":"CB52365734002","project_name":"","survey_name":"\u540d\u53e4\u5c4b\u56fd\u9053\u5de5\u4e8b\u4e8b\u52d9\u6240\u6539\u7bc9\u306b\u4f34\u3046\u5730\u8cea\u8abf\u67fb","client_name":"\u56fd\u571f\u4ea4\u901a\u7701\u4e2d\u90e8\u5730\u65b9\u6574\u5099\u5c40\u4e2d\u90e8\u6280\u8853\u4e8b\u52d9\u6240","boring_xml_url":40,"boring_view_url":1,"soilmap_view_url":null,"soiltest_xml_url":0,"soiltest_view_url":0},{"id":166048,"code":"B4KJ201801005-4297","latitude":"35.1146428","longitude":"136.9228739","source_code":"CB52365734001","project_name":"","survey_name":"\u677e\u7530\u6a4b\u6b69\u9053\u6a4b\u571f\u8cea\u8abf\u67fb\u5831\u544a\u66f8","client_name":"\u56fd\u571f\u4ea4\u901a\u7701\u4e2d\u90e8\u5730\u65b9\u6574\u5099\u5c40\u4e2d\u90e8\u6280\u8853\u4e8b\u52d9\u6240","boring_xml_url":40,"boring_view_url":1,"soilmap_view_url":null,"soiltest_xml_url":0,"soiltest_view_url":0},{"id":166047,"code":"B4KJ201801005-4296","latitude":"35.1156981","longitude":"136.9203186","source_code":"CB52365733005","project_name":"","survey_name":"\u662d\u548c45\u5e74\u5ea6\u8d64\u585a\u5171\u540c\u6e9d\u5730\u8cea\u8abf\u67fb","client_name":"\u56fd\u571f\u4ea4\u901a\u7701\u4e2d\u90e8\u5730\u65b9\u6574\u5099\u5c40\u4e2d\u90e8\u6280\u8853\u4e8b\u52d9\u6240","boring_xml_url":40,"boring_view_url":1,"soilmap_view_url":null,"soiltest_xml_url":0,"soiltest_view_url":0},{"id":166046,"code":"B4KJ201801005-4295","latitude":"35.1164478","longitude":"136.9172633","source_code":"CB52365733004","project_name":"","survey_name":"\u662d\u548c45\u5e74\u5ea6\u8d64\u585a\u5171\u540c\u6e9d\u5730\u8cea\u8abf\u67fb","client_name":"\u56fd\u571f\u4ea4\u901a\u7701\u4e2d\u90e8\u5730\u65b9\u6574\u5099\u5c40\u4e2d\u90e8\u6280\u8853\u4e8b\u52d9\u6240","boring_xml_url":40,"boring_view_url":1,"soilmap_view_url":null,"soiltest_xml_url":0,"soiltest_view_url":0}]}}