{"header":{"xyz":{"source":[],"mosaic":false},"page":5151,"raw":{"soiltest_result":"0","bbox":"57.598333,109.544722,1.933333,163.806111","page":"5151"},"conditions":{"soiltest_result":0,"north":57.598333,"west":109.544722,"south":1.933333,"east":163.806111},"success":true,"message":""},"data":{"meta":{"total":212844,"page":5151,"pages":7095,"count":30},"values":[{"id":166045,"code":"B4KJ201801005-4294","latitude":"35.1179197","longitude":"136.9137636","source_code":"CB52365733003","project_name":"","survey_name":"\u662d\u548c45\u5e74\u5ea6\u8d64\u585a\u5171\u540c\u6e9d\u5730\u8cea\u8abf\u67fb","client_name":"\u56fd\u571f\u4ea4\u901a\u7701\u4e2d\u90e8\u5730\u65b9\u6574\u5099\u5c40\u4e2d\u90e8\u6280\u8853\u4e8b\u52d9\u6240","boring_xml_url":40,"boring_view_url":1,"soilmap_view_url":null,"soiltest_xml_url":0,"soiltest_view_url":0},{"id":166044,"code":"B4KJ201801005-4293","latitude":"35.1172533","longitude":"136.9157633","source_code":"CB52365733002","project_name":"","survey_name":"\u662d\u548c42\u5e74\u5ea6\u56fd\u90531\u53f7\u7dda\u71b1\u7530\u8de8\u7dda\u6a4b\u9644\u8fd1\u5730\u8cea\u8abf\u67fb","client_name":"\u56fd\u571f\u4ea4\u901a\u7701\u4e2d\u90e8\u5730\u65b9\u6574\u5099\u5c40\u4e2d\u90e8\u6280\u8853\u4e8b\u52d9\u6240","boring_xml_url":40,"boring_view_url":1,"soilmap_view_url":null,"soiltest_xml_url":0,"soiltest_view_url":0},{"id":166043,"code":"B4KJ201801005-4292","latitude":"35.1173367","longitude":"136.9142914","source_code":"CB52365733001","project_name":"","survey_name":"\u662d\u548c42\u5e74\u5ea6\u56fd\u90531\u53f7\u7dda\u71b1\u7530\u8de8\u7dda\u6a4b\u9644\u8fd1\u5730\u8cea\u8abf\u67fb","client_name":"\u56fd\u571f\u4ea4\u901a\u7701\u4e2d\u90e8\u5730\u65b9\u6574\u5099\u5c40\u4e2d\u90e8\u6280\u8853\u4e8b\u52d9\u6240","boring_xml_url":40,"boring_view_url":1,"soilmap_view_url":null,"soiltest_xml_url":0,"soiltest_view_url":0},{"id":166042,"code":"B4KJ201801005-4291","latitude":"35.1096172","longitude":"136.9969511","source_code":"CB52365729002","project_name":"","survey_name":"\u5e73\u621011\u5e74\u5ea6302\u53f7\u5929\u767d\u5730\u533a\u5730\u8cea\u8abf\u67fb","client_name":"\u56fd\u571f\u4ea4\u901a\u7701\u4e2d\u90e8\u5730\u65b9\u6574\u5099\u5c40\u611b\u77e5\u56fd\u9053\u4e8b\u52d9\u6240","boring_xml_url":40,"boring_view_url":1,"soilmap_view_url":null,"soiltest_xml_url":0,"soiltest_view_url":0},{"id":166041,"code":"B4KJ201801005-4290","latitude":"35.1055067","longitude":"136.9950903","source_code":"CB52365729001","project_name":"","survey_name":"\u5e73\u621011\u5e74\u5ea6302\u53f7\u5929\u767d\u5730\u533a\u5730\u8cea\u8abf\u67fb","client_name":"\u56fd\u571f\u4ea4\u901a\u7701\u4e2d\u90e8\u5730\u65b9\u6574\u5099\u5c40\u611b\u77e5\u56fd\u9053\u4e8b\u52d9\u6240","boring_xml_url":40,"boring_view_url":1,"soilmap_view_url":null,"soiltest_xml_url":0,"soiltest_view_url":0},{"id":166040,"code":"B4KJ201801005-4289","latitude":"35.1026736","longitude":"136.9936183","source_code":"CB52365719005","project_name":"","survey_name":"\u5e73\u621011\u5e74\u5ea6302\u53f7\u5929\u767d\u5730\u533a\u5730\u8cea\u8abf\u67fb","client_name":"\u56fd\u571f\u4ea4\u901a\u7701\u4e2d\u90e8\u5730\u65b9\u6574\u5099\u5c40\u611b\u77e5\u56fd\u9053\u4e8b\u52d9\u6240","boring_xml_url":40,"boring_view_url":1,"soilmap_view_url":null,"soiltest_xml_url":0,"soiltest_view_url":0},{"id":166039,"code":"B4KJ201801005-4288","latitude":"35.0972575","longitude":"136.9910353","source_code":"CB52365719004","project_name":"","survey_name":"\u5e73\u621011\u5e74\u5ea6 302\u53f7\u7dd1\u5730\u533a\u5730\u8cea\u8abf\u67fb","client_name":"\u56fd\u571f\u4ea4\u901a\u7701\u4e2d\u90e8\u5730\u65b9\u6574\u5099\u5c40\u611b\u77e5\u56fd\u9053\u4e8b\u52d9\u6240","boring_xml_url":40,"boring_view_url":1,"soilmap_view_url":null,"soiltest_xml_url":0,"soiltest_view_url":0},{"id":166038,"code":"B4KJ201801005-4287","latitude":"35.0963964","longitude":"136.9902022","source_code":"CB52365719003","project_name":"","survey_name":"\u5e73\u62108\u5e74\u5ea6302\u53f7\u6771\u5357\u90e8\u5730\u533a\u5730\u8cea\u8abf\u67fb\u305d\u306e1","client_name":"\u56fd\u571f\u4ea4\u901a\u7701\u4e2d\u90e8\u5730\u65b9\u6574\u5099\u5c40\u611b\u77e5\u56fd\u9053\u4e8b\u52d9\u6240","boring_xml_url":40,"boring_view_url":1,"soilmap_view_url":null,"soiltest_xml_url":0,"soiltest_view_url":0},{"id":166037,"code":"B4KJ201801005-4286","latitude":"35.0967853","longitude":"136.99023","source_code":"CB52365719002","project_name":"","survey_name":"\u5e73\u62108\u5e74\u5ea6302\u53f7\u6771\u5357\u90e8\u5730\u533a\u5730\u8cea\u8abf\u67fb\u305d\u306e1","client_name":"\u56fd\u571f\u4ea4\u901a\u7701\u4e2d\u90e8\u5730\u65b9\u6574\u5099\u5c40\u611b\u77e5\u56fd\u9053\u4e8b\u52d9\u6240","boring_xml_url":40,"boring_view_url":1,"soilmap_view_url":null,"soiltest_xml_url":0,"soiltest_view_url":0},{"id":166036,"code":"B4KJ201801005-4285","latitude":"35.0979239","longitude":"136.9910353","source_code":"CB52365719001","project_name":"","survey_name":"\u5e73\u62108\u5e74\u5ea6302\u53f7\u6771\u5357\u90e8\u5730\u533a\u5730\u8cea\u8abf\u67fb\u305d\u306e1","client_name":"\u56fd\u571f\u4ea4\u901a\u7701\u4e2d\u90e8\u5730\u65b9\u6574\u5099\u5c40\u611b\u77e5\u56fd\u9053\u4e8b\u52d9\u6240","boring_xml_url":40,"boring_view_url":1,"soilmap_view_url":null,"soiltest_xml_url":0,"soiltest_view_url":0},{"id":166035,"code":"B4KJ201801005-4284","latitude":"35.0953947","longitude":"136.9202639","source_code":"CB52365713176","project_name":"","survey_name":"S44\u5e74\u5ea6\u4e03\u6761\uff5e\u5317\u702c\u9593\u5730\u8cea\u8abf\u67fb","client_name":"\u56fd\u571f\u4ea4\u901a\u7701\u4e2d\u90e8\u5730\u65b9\u6574\u5099\u5c40\u540d\u56db\u56fd\u9053\u4e8b\u52d9\u6240","boring_xml_url":40,"boring_view_url":1,"soilmap_view_url":null,"soiltest_xml_url":0,"soiltest_view_url":0},{"id":166034,"code":"B4KJ201801005-4283","latitude":"35.096839","longitude":"136.918764","source_code":"CB52365713165","project_name":"","survey_name":"S44\u5e74\u5ea6\u4e03\u6761\uff5e\u5317\u702c\u9593\u5730\u8cea\u8abf\u67fb","client_name":"\u56fd\u571f\u4ea4\u901a\u7701\u4e2d\u90e8\u5730\u65b9\u6574\u5099\u5c40\u540d\u56db\u56fd\u9053\u4e8b\u52d9\u6240","boring_xml_url":40,"boring_view_url":1,"soilmap_view_url":null,"soiltest_xml_url":0,"soiltest_view_url":0},{"id":166033,"code":"B4KJ201801005-4282","latitude":"35.0972278","longitude":"136.9104869","source_code":"CB52365713164","project_name":"","survey_name":"S44\u5e74\u5ea6\u4e03\u6761\uff5e\u5317\u702c\u9593\u5730\u8cea\u8abf\u67fb","client_name":"\u56fd\u571f\u4ea4\u901a\u7701\u4e2d\u90e8\u5730\u65b9\u6574\u5099\u5c40\u540d\u56db\u56fd\u9053\u4e8b\u52d9\u6240","boring_xml_url":40,"boring_view_url":1,"soilmap_view_url":null,"soiltest_xml_url":0,"soiltest_view_url":0},{"id":166032,"code":"B4KJ201801005-4281","latitude":"35.097006","longitude":"136.918403","source_code":"CB52365713147","project_name":"","survey_name":"\u4e03\u6761\u753a\u9ad8\u67b6\u6a4b\u53cd\u5c71\u5d0e\u5ddd\u6a4b\u571f\u8cea\u8abf\u67fb","client_name":"\u56fd\u571f\u4ea4\u901a\u7701\u4e2d\u90e8\u5730\u65b9\u6574\u5099\u5c40\u540d\u56db\u56fd\u9053\u4e8b\u52d9\u6240","boring_xml_url":40,"boring_view_url":1,"soilmap_view_url":null,"soiltest_xml_url":0,"soiltest_view_url":0},{"id":166031,"code":"B4KJ201801005-4280","latitude":"35.097256","longitude":"136.918069","source_code":"CB52365713146","project_name":"","survey_name":"\u4e03\u6761\u753a\u9ad8\u67b6\u6a4b\u53cd\u5c71\u5d0e\u5ddd\u6a4b\u571f\u8cea\u8abf\u67fb","client_name":"\u56fd\u571f\u4ea4\u901a\u7701\u4e2d\u90e8\u5730\u65b9\u6574\u5099\u5c40\u540d\u56db\u56fd\u9053\u4e8b\u52d9\u6240","boring_xml_url":40,"boring_view_url":1,"soilmap_view_url":null,"soiltest_xml_url":0,"soiltest_view_url":0},{"id":166030,"code":"B4KJ201801005-4279","latitude":"35.097617","longitude":"136.917014","source_code":"CB52365713137","project_name":"","survey_name":"\u4e03\u6761\u753a\u9ad8\u67b6\u6a4b\u53cd\u5c71\u5d0e\u5ddd\u6a4b\u571f\u8cea\u8abf\u67fb","client_name":"\u56fd\u571f\u4ea4\u901a\u7701\u4e2d\u90e8\u5730\u65b9\u6574\u5099\u5c40\u540d\u56db\u56fd\u9053\u4e8b\u52d9\u6240","boring_xml_url":40,"boring_view_url":1,"soilmap_view_url":null,"soiltest_xml_url":0,"soiltest_view_url":0},{"id":166029,"code":"B4KJ201801005-4278","latitude":"35.0977556","longitude":"136.9164308","source_code":"CB52365713136","project_name":"","survey_name":"\u4e03\u6761\u753a\u9ad8\u67b6\u6a4b\u53cd\u5c71\u5d0e\u5ddd\u6a4b\u571f\u8cea\u8abf\u67fb","client_name":"\u56fd\u571f\u4ea4\u901a\u7701\u4e2d\u90e8\u5730\u65b9\u6574\u5099\u5c40\u540d\u56db\u56fd\u9053\u4e8b\u52d9\u6240","boring_xml_url":40,"boring_view_url":1,"soilmap_view_url":null,"soiltest_xml_url":0,"soiltest_view_url":0},{"id":166028,"code":"B4KJ201801005-4277","latitude":"35.0978389","longitude":"136.9155975","source_code":"CB52365713135","project_name":"","survey_name":"\u4e03\u6761\u753a\u9ad8\u67b6\u6a4b\u53cd\u5c71\u5d0e\u5ddd\u6a4b\u571f\u8cea\u8abf\u67fb","client_name":"\u56fd\u571f\u4ea4\u901a\u7701\u4e2d\u90e8\u5730\u65b9\u6574\u5099\u5c40\u540d\u56db\u56fd\u9053\u4e8b\u52d9\u6240","boring_xml_url":40,"boring_view_url":1,"soilmap_view_url":null,"soiltest_xml_url":0,"soiltest_view_url":0},{"id":166027,"code":"B4KJ201801005-4276","latitude":"35.0976444","longitude":"136.91357","source_code":"CB52365713126","project_name":"","survey_name":"\u4e03\u6761\u753a\u9ad8\u67b6\u6a4b\u53cd\u5c71\u5d0e\u5ddd\u6a4b\u571f\u8cea\u8abf\u67fb","client_name":"\u56fd\u571f\u4ea4\u901a\u7701\u4e2d\u90e8\u5730\u65b9\u6574\u5099\u5c40\u540d\u56db\u56fd\u9053\u4e8b\u52d9\u6240","boring_xml_url":40,"boring_view_url":1,"soilmap_view_url":null,"soiltest_xml_url":0,"soiltest_view_url":0},{"id":166026,"code":"B4KJ201801005-4275","latitude":"35.0972556","longitude":"136.9124589","source_code":"CB52365713125","project_name":"","survey_name":"\u4e03\u6761\u753a\u9ad8\u67b6\u6a4b\u53cd\u5c71\u5d0e\u5ddd\u6a4b\u571f\u8cea\u8abf\u67fb","client_name":"\u56fd\u571f\u4ea4\u901a\u7701\u4e2d\u90e8\u5730\u65b9\u6574\u5099\u5c40\u540d\u56db\u56fd\u9053\u4e8b\u52d9\u6240","boring_xml_url":40,"boring_view_url":1,"soilmap_view_url":null,"soiltest_xml_url":0,"soiltest_view_url":0},{"id":166025,"code":"B4KJ201801005-4274","latitude":"35.0975056","longitude":"136.9118478","source_code":"CB52365713124","project_name":"","survey_name":"\u4e03\u6761\u753a\u9ad8\u67b6\u6a4b\u53cd\u5c71\u5d0e\u5ddd\u6a4b\u571f\u8cea\u8abf\u67fb","client_name":"\u56fd\u571f\u4ea4\u901a\u7701\u4e2d\u90e8\u5730\u65b9\u6574\u5099\u5c40\u540d\u56db\u56fd\u9053\u4e8b\u52d9\u6240","boring_xml_url":40,"boring_view_url":1,"soilmap_view_url":null,"soiltest_xml_url":0,"soiltest_view_url":0},{"id":166024,"code":"B4KJ201801005-4273","latitude":"35.0978389","longitude":"136.9138475","source_code":"CB52365713001","project_name":"","survey_name":"\u662d\u548c59\u5e74\u5ea6\u56fd\u905323\u53f7\u5730\u8cea\u8abf\u67fb","client_name":"\u56fd\u571f\u4ea4\u901a\u7701\u4e2d\u90e8\u5730\u65b9\u6574\u5099\u5c40\u540d\u53e4\u5c4b\u56fd\u9053\u4e8b\u52d9\u6240","boring_xml_url":40,"boring_view_url":1,"soilmap_view_url":null,"soiltest_xml_url":0,"soiltest_view_url":0},{"id":166023,"code":"B4KJ201801005-4272","latitude":"35.0967556","longitude":"136.9093758","source_code":"CB52365712163","project_name":"","survey_name":"\u4e03\u6761\u753a\u9ad8\u67b6\u6a4b\u53cd\u5c71\u5d0e\u5ddd\u6a4b\u571f\u8cea\u8abf\u67fb","client_name":"\u56fd\u571f\u4ea4\u901a\u7701\u4e2d\u90e8\u5730\u65b9\u6574\u5099\u5c40\u540d\u56db\u56fd\u9053\u4e8b\u52d9\u6240","boring_xml_url":40,"boring_view_url":1,"soilmap_view_url":null,"soiltest_xml_url":0,"soiltest_view_url":0},{"id":166022,"code":"B4KJ201801005-4271","latitude":"35.0962","longitude":"136.9068206","source_code":"CB52365712161","project_name":"","survey_name":"\u4e03\u6761\u753a\u9ad8\u67b6\u6a4b\u53cd\u5c71\u5d0e\u5ddd\u6a4b\u571f\u8cea\u8abf\u67fb","client_name":"\u56fd\u571f\u4ea4\u901a\u7701\u4e2d\u90e8\u5730\u65b9\u6574\u5099\u5c40\u540d\u56db\u56fd\u9053\u4e8b\u52d9\u6240","boring_xml_url":40,"boring_view_url":1,"soilmap_view_url":null,"soiltest_xml_url":0,"soiltest_view_url":0},{"id":166021,"code":"B4KJ201801005-4270","latitude":"35.0958944","longitude":"136.9052928","source_code":"CB52365712160","project_name":"","survey_name":"\u4e03\u6761\u753a\u9ad8\u67b6\u6a4b\u53cd\u5c71\u5d0e\u5ddd\u6a4b\u571f\u8cea\u8abf\u67fb","client_name":"\u56fd\u571f\u4ea4\u901a\u7701\u4e2d\u90e8\u5730\u65b9\u6574\u5099\u5c40\u540d\u56db\u56fd\u9053\u4e8b\u52d9\u6240","boring_xml_url":40,"boring_view_url":1,"soilmap_view_url":null,"soiltest_xml_url":0,"soiltest_view_url":0},{"id":166020,"code":"B4KJ201801005-4269","latitude":"35.0954222","longitude":"136.9014044","source_code":"CB52365712104","project_name":"","survey_name":"S44\u5e74\u5ea6\u4e03\u6761\uff5e\u5317\u982d\u9593\u5730\u8cea\u8abf\u67fb","client_name":"\u56fd\u571f\u4ea4\u901a\u7701\u4e2d\u90e8\u5730\u65b9\u6574\u5099\u5c40\u540d\u56db\u56fd\u9053\u4e8b\u52d9\u6240","boring_xml_url":40,"boring_view_url":1,"soilmap_view_url":null,"soiltest_xml_url":0,"soiltest_view_url":0},{"id":166019,"code":"B4KJ201801005-4268","latitude":"35.0952275","longitude":"136.8986547","source_code":"CB52365712103","project_name":"","survey_name":"S45\u5e74\u5ea6\u7adc\u5bae\u753a\u53ca\u3073\u5f25\u6b21\u885b\u753a\u5730\u8cea\u8abf\u67fb","client_name":"\u56fd\u571f\u4ea4\u901a\u7701\u4e2d\u90e8\u5730\u65b9\u6574\u5099\u5c40\u540d\u56db\u56fd\u9053\u4e8b\u52d9\u6240","boring_xml_url":40,"boring_view_url":1,"soilmap_view_url":null,"soiltest_xml_url":0,"soiltest_view_url":0},{"id":166018,"code":"B4KJ201801005-4267","latitude":"35.0955608","longitude":"136.8980158","source_code":"CB52365712102","project_name":"","survey_name":"S45\u5e74\u5ea6\u7adc\u5bae\u753a\u53ca\u3073\u5f25\u6b21\u885b\u753a\u5730\u8cea\u8abf\u67fb","client_name":"\u56fd\u571f\u4ea4\u901a\u7701\u4e2d\u90e8\u5730\u65b9\u6574\u5099\u5c40\u540d\u56db\u56fd\u9053\u4e8b\u52d9\u6240","boring_xml_url":40,"boring_view_url":1,"soilmap_view_url":null,"soiltest_xml_url":0,"soiltest_view_url":0},{"id":166017,"code":"B4KJ201801005-4266","latitude":"35.0959497","longitude":"136.8979325","source_code":"CB52365712101","project_name":"","survey_name":"S45\u5e74\u5ea6\u7adc\u5bae\u753a\u53ca\u3073\u5f25\u6b21\u885b\u753a\u5730\u8cea\u8abf\u67fb","client_name":"\u56fd\u571f\u4ea4\u901a\u7701\u4e2d\u90e8\u5730\u65b9\u6574\u5099\u5c40\u540d\u56db\u56fd\u9053\u4e8b\u52d9\u6240","boring_xml_url":40,"boring_view_url":1,"soilmap_view_url":null,"soiltest_xml_url":0,"soiltest_view_url":0},{"id":166016,"code":"B4KJ201801005-4265","latitude":"35.0960608","longitude":"136.8977103","source_code":"CB52365712100","project_name":"","survey_name":"S45\u5e74\u5ea6\u7adc\u5bae\u753a\u53ca\u3073\u5f25\u6b21\u885b\u753a\u5730\u8cea\u8abf\u67fb","client_name":"\u56fd\u571f\u4ea4\u901a\u7701\u4e2d\u90e8\u5730\u65b9\u6574\u5099\u5c40\u540d\u56db\u56fd\u9053\u4e8b\u52d9\u6240","boring_xml_url":40,"boring_view_url":1,"soilmap_view_url":null,"soiltest_xml_url":0,"soiltest_view_url":0}]}}